250,0,0,2048,2048
250.006,0,0,2048,2048
250.053,0,0,2048,2048
250.105,0,0,2048,2048
250.152,0,0,2048,2048
250.205,0,0,2048,2048
250.252,0,0,2048,2048
250.305,0,0,2048,2048
250.352,0,0,2048,2048
250.404,0,0,2048,2048
250.451,0,0,2048,2048
250.504,0,0,2048,2048
250.551,0,0,2048,2048
250.603,0,0,2048,2048
250.65,0,0,2048,2048
250.703,0,0,2048,2048
250.756,0,0,2048,2048
250.803,0,0,2048,2048
250.855,0,0,2048,2048
250.902,0,0,2048,2048
250.955,0,0,2048,2048
251.002,0,0,2048,2048
251.055,0,0,2048,2048
251.101,0,0,2048,2048
251.154,0,0,2048,2048
251.201,0,0,2048,2048
251.254,0,0,2048,2048
251.301,0,0,2048,2048
251.353,0,0,2048,2048
251.4,0,0,2048,2048
251.453,0,0,2048,2048
251.506,0,0,2048,2048
251.553,0,0,2048,2048
251.605,0,0,2048,2048
251.652,0,0,2048,2048
251.705,0,0,2048,2048
251.752,0,0,2048,2048
251.804,0,0,2048,2048
251.851,0,0,2048,2048
251.904,0,0,2048,2048
251.951,0,0,2048,2048
252.004,0,0,2048,2048
252.05,0,0,2048,2048
252.103,0,0,2048,2048
252.15,0,0,2048,2048
252.203,0,0,2048,2048
252.256,0,0,2048,2048
252.302,0,0,2048,2048
252.355,0,0,2048,2048
252.402,0,0,2048,2048
252.455,0,0,2048,2048
252.502,0,0,2048,2048
252.554,0,0,2048,2048
252.601,0,0,2048,2048
252.654,0,0,2048,2048
252.701,0,0,2048,2048
252.754,0,0,2048,2048
252.8,0,0,2048,2048
252.853,0,0,2048,2048
252.906,0,0,2048,2048
252.953,0,0,2048,2048
253.005,0,0,2048,2048
253.052,0,0,2048,2048
253.105,0,0,2048,2048
253.152,0,0,2048,2048
253.205,0,0,2048,2048
253.251,0,0,2048,2048
253.304,0,0,2048,2048
253.351,0,0,2048,2048
253.404,0,0,2048,2048
253.451,0,0,2048,2048
253.503,0,0,2048,2048
253.55,0,0,2048,2048
253.603,0,0,2048,2048
253.656,0,0,2048,2048
253.703,0,0,2048,2048
253.755,0,0,2048,2048
253.802,0,0,2048,2048
253.855,0,0,2048,2048
253.902,0,0,2048,2048
253.954,0,0,2048,2048
254.001,0,0,2048,2048
254.054,0,0,2048,2048
254.101,0,0,2048,2048
254.154,0,0,2048,2048
254.201,0,0,2048,2048
254.253,0,0,2048,2048
254.3,0,0,2048,2048
254.353,0,0,2048,2048
254.406,0,0,2048,2048
254.452,0,0,2048,2048
254.505,0,0,2048,2048
254.552,0,0,2048,2048
254.605,0,0,2048,2048
254.652,0,0,2048,2048
254.704,0,0,2048,2048
254.751,0,0,2048,2048
254.804,0,0,2048,2048
254.851,0,0,2048,2048
254.904,0,0,2048,2048
254.95,0,0,2048,2048
255.003,0,0,2048,2048
255.05,0,0,2048,2048
255.103,0,0,2048,2048
255.155,0,0,2048,2048
255.202,0,0,2048,2048
255.255,0,0,2048,2048
255.302,0,0,2048,2048
255.355,0,0,2048,2048
255.402,0,0,2048,2048
255.454,0,0,2048,2048
255.501,0,0,2048,2048
255.554,0,0,2048,2048
255.601,0,0,2048,2048
255.653,0,0,2048,2048
255.7,0,0,2048,2048
255.753,0,0,2048,2048
255.806,0,0,2048,2048
255.853,0,0,2048,2048
255.905,0,0,2048,2048
255.952,0,0,2048,2048
256.005,0,0,2048,2048
256.052,0,0,2048,2048
256.105,0,0,2048,2048
256.151,0,0,2048,2048
256.204,0,0,2048,2048
256.251,0,0,2048,2048
256.304,0,0,2048,2048
256.351,0,0,2048,2048
256.403,0,0,2048,2048
256.45,0,0,2048,2048
256.503,0,0,2048,2048
256.556,0,0,2048,2048
256.603,0,0,2048,2048
256.655,0,0,2048,2048
256.702,0,0,2048,2048
256.755,0,0,2048,2048
256.802,0,0,2048,2048
256.854,-1.38778e-17,0,2048,2048
256.901,-1.38778e-17,0,2048,2048
256.954,-1.38778e-17,0,2048,2048
257.001,0,0,2048,2048
257.054,0,0,2048,2048
257.101,0,0,2048,2048
257.153,0,0,2048,2048
257.2,0,0,2048,2048
257.253,0,0,2048,2048
257.306,0,0,2048,2048
257.352,0,0,2048,2048
257.405,0,0,2048,2048
257.452,0,0,2048,2048
257.505,0,0,2048,2048
257.552,0,0,2048,2048
257.604,0,0,2048,2048
257.651,0,0,2048,2048
257.704,0,0,2048,2048
257.751,0,0,2048,2048
257.804,0,0,2048,2048
257.85,0,0,2048,2048
257.903,0,0,2048,2048
257.95,0,0,2048,2048
258.003,0,0,2048,2048
258.055,0,0,2048,2048
258.102,0,0,2048,2048
258.155,-1.38778e-17,0,2048,2048
258.202,-1.38778e-17,0,2048,2048
258.255,-1.38778e-17,0,2048,2048
258.302,-1.38778e-17,0,2048,2048
258.354,-1.38778e-17,0,2048,2048
258.401,-1.38778e-17,0,2048,2048
258.454,-1.38778e-17,0,2048,2048
258.501,-1.38778e-17,0,2048,2048
258.553,-1.38778e-17,0,2048,2048
258.6,-1.38778e-17,0,2048,2048
258.653,-1.38778e-17,0,2048,2048
258.706,-1.38778e-17,0,2048,2048
258.753,-1.38778e-17,0,2048,2048
258.805,-1.38778e-17,0,2048,2048
258.852,-1.38778e-17,0,2048,2048
258.905,-1.38778e-17,0,2048,2048
258.952,-1.38778e-17,0,2048,2048
259.005,-1.38778e-17,0,2048,2048
259.051,-2.77556e-17,0,2048,2048
259.104,-2.77556e-17,0,2048,2048
259.151,-2.77556e-17,0,2048,2048
259.204,-2.77556e-17,0,2048,2048
259.251,-2.77556e-17,0,2048,2048
259.303,-2.77556e-17,0,2048,2048
259.35,-2.77556e-17,0,2048,2048
259.403,-2.77556e-17,0,2048,2048
259.456,-2.77556e-17,0,2048,2048
259.503,-2.77556e-17,0,2048,2048
259.555,-2.77556e-17,0,2048,2048
259.602,-2.77556e-17,0,2048,2048
259.655,-2.77556e-17,0,2048,2048
259.702,-1.38778e-17,0,2048,2048
259.754,-1.38778e-17,0,2048,2048
259.801,-1.38778e-17,0,2048,2048
259.854,-1.38778e-17,0,2048,2048
259.901,-1.38778e-17,0,2048,2048
259.954,-1.38778e-17,0,2048,2048
260,-1.38778e-17,0,2048,2048
260.053,-1.38778e-17,0,2048,2048
260.1,-1.38778e-17,0,2048,2048
260.153,-1.38778e-17,0,2048,2048
260.206,-1.38778e-17,0,2048,2048
260.252,-1.38778e-17,0,2048,2048
260.305,-1.38778e-17,0,2048,2048
260.352,-1.38778e-17,0,2048,2048
260.405,-1.38778e-17,0,2048,2048
260.452,-1.38778e-17,0,2048,2048
260.504,-1.38778e-17,0,2048,2048
260.551,-1.38778e-17,0,2048,2048
260.604,-1.38778e-17,0,2048,2048
260.651,-1.38778e-17,0,2048,2048
260.704,-1.38778e-17,0,2048,2048
260.75,-1.38778e-17,0,2048,2048
260.803,-1.38778e-17,0,2048,2048
260.856,-1.38778e-17,0,2048,2048
260.903,-1.38778e-17,0,2048,2048
260.955,-1.38778e-17,0,2048,2048
261.002,-1.38778e-17,0,2048,2048
261.055,-1.38778e-17,0,2048,2048
261.102,-1.38778e-17,0,2048,2048
261.155,-1.38778e-17,0,2048,2048
261.201,-1.38778e-17,0,2048,2048
261.254,-1.38778e-17,0,2048,2048
261.301,-1.38778e-17,0,2048,2048
261.354,-1.38778e-17,0,2048,2048
261.401,-1.38778e-17,0,2048,2048
261.453,0,0,2048,2048
261.5,0,0,2048,2048
261.553,0,0,2048,2048
261.606,0,0,2048,2048
261.653,0,0,2048,2048
261.705,0,0,2048,2048
261.752,0,0,2048,2048
261.805,0,0,2048,2048
261.852,0,0,2048,2048
261.905,0,0,2048,2048
261.951,0,0,2048,2048
262.004,0,0,2048,2048
262.051,0,0,2048,2048
262.104,0,0,2048,2048
262.151,-1.38778e-17,0,2048,2048
262.203,-1.38778e-17,0,2048,2048
262.25,-1.38778e-17,0,2048,2048
262.303,-1.38778e-17,0,2048,2048
262.356,-1.38778e-17,0,2048,2048
262.402,-1.38778e-17,0,2048,2048
262.455,-1.38778e-17,0,2048,2048
262.502,-1.38778e-17,0,2048,2048
262.555,-1.38778e-17,0,2048,2048
262.602,-1.38778e-17,0,2048,2048
262.654,-1.38778e-17,0,2048,2048
262.701,-1.38778e-17,0,2048,2048
262.754,-1.38778e-17,0,2048,2048
262.801,-1.38778e-17,0,2048,2048
262.854,-1.38778e-17,0,2048,2048
262.9,-1.38778e-17,0,2048,2048
262.953,-1.38778e-17,0,2048,2048
263,-1.38778e-17,0,2048,2048
263.053,-1.38778e-17,0,2048,2048
263.105,-2.77556e-17,0,2048,2048
263.152,-2.77556e-17,0,2048,2048
263.205,-2.77556e-17,0,2048,2048
263.252,-2.77556e-17,0,2048,2048
263.305,-2.77556e-17,0,2048,2048
263.352,-2.77556e-17,0,2048,2048
263.404,-2.77556e-17,0,2048,2048
263.451,-2.77556e-17,0,2048,2048
263.504,-2.77556e-17,0,2048,2048
263.551,-2.77556e-17,0,2048,2048
263.603,-2.77556e-17,0,2048,2048
263.65,-2.77556e-17,0,2048,2048
263.703,-2.77556e-17,0,2048,2048
263.756,-2.77556e-17,0,2048,2048
263.803,-2.77556e-17,0,2048,2048
263.855,-2.77556e-17,0,2048,2048
263.902,-2.77556e-17,0,2048,2048
263.955,-2.77556e-17,0,2048,2048
264.002,-2.77556e-17,0,2048,2048
264.055,-2.77556e-17,0,2048,2048
264.101,-2.77556e-17,0,2048,2048
264.154,-2.77556e-17,0,2048,2048
264.201,-2.77556e-17,0,2048,2048
264.254,-2.77556e-17,0,2048,2048
264.301,-2.77556e-17,0,2048,2048
264.353,-2.77556e-17,0,2048,2048
264.4,-2.77556e-17,0,2048,2048
264.453,-2.77556e-17,0,2048,2048
264.506,-2.77556e-17,0,2048,2048
264.553,-2.77556e-17,0,2048,2048
264.605,-2.77556e-17,0,2048,2048
264.652,-2.77556e-17,0,2048,2048
264.705,-2.77556e-17,0,2048,2048
264.752,-2.77556e-17,0,2048,2048
264.804,-2.77556e-17,0,2048,2048
264.851,-2.77556e-17,0,2048,2048
264.904,-2.77556e-17,0,2048,2048
264.951,-2.77556e-17,0,2048,2048
265.004,-2.77556e-17,0,2048,2048
265.051,-2.77556e-17,0,2048,2048
265.103,-2.77556e-17,0,2048,2048
265.15,-2.77556e-17,0,2048,2048
265.203,-2.77556e-17,0,2048,2048
265.256,-2.77556e-17,0,2048,2048
265.302,-2.77556e-17,0,2048,2048
265.355,-2.77556e-17,0,2048,2048
265.402,-2.77556e-17,0,2048,2048
265.455,-2.77556e-17,0,2048,2048
265.502,-2.77556e-17,0,2048,2048
265.554,-2.77556e-17,0,2048,2048
265.601,-2.77556e-17,0,2048,2048
265.654,-2.77556e-17,0,2048,2048
265.701,-2.77556e-17,0,2048,2048
265.754,-2.77556e-17,0,2048,2048
265.8,-2.77556e-17,0,2048,2048
265.853,-2.77556e-17,0,2048,2048
265.9,-2.77556e-17,0,2048,2048
265.953,-2.77556e-17,0,2048,2048
266.005,-2.77556e-17,0,2048,2048
266.052,-2.77556e-17,0,2048,2048
266.105,-2.77556e-17,0,2048,2048
266.152,-2.77556e-17,0,2048,2048
266.205,-2.77556e-17,0,2048,2048
266.252,-2.77556e-17,0,2048,2048
266.304,-2.77556e-17,0,2048,2048
266.351,-2.77556e-17,0,2048,2048
266.404,-2.77556e-17,0,2048,2048
266.451,-2.77556e-17,0,2048,2048
266.503,-2.77556e-17,0,2048,2048
266.55,-2.77556e-17,0,2048,2048
266.603,-2.77556e-17,0,2048,2048
266.656,-2.77556e-17,0,2048,2048
266.703,-2.77556e-17,0,2048,2048
266.755,-2.77556e-17,0,2048,2048
266.802,-2.77556e-17,0,2048,2048
266.855,-2.77556e-17,0,2048,2048
266.902,-2.77556e-17,0,2048,2048
266.955,-2.77556e-17,0,2048,2048
267.001,-2.77556e-17,0,2048,2048
267.054,-2.77556e-17,0,2048,2048
267.101,-2.77556e-17,0,2048,2048
267.154,-2.77556e-17,0,2048,2048
267.201,-1.38778e-17,0,2048,2048
267.253,-1.38778e-17,0,2048,2048
267.3,-1.38778e-17,0,2048,2048
267.353,-1.38778e-17,0,2048,2048
267.406,-1.38778e-17,0,2048,2048
267.453,-1.38778e-17,0,2048,2048
267.505,-1.38778e-17,0,2048,2048
267.552,-1.38778e-17,0,2048,2048
267.605,-1.38778e-17,0,2048,2048
267.652,-1.38778e-17,0,2048,2048
267.704,-1.38778e-17,0,2048,2048
267.751,-1.38778e-17,0,2048,2048
267.804,-1.38778e-17,0,2048,2048
267.851,-1.38778e-17,0,2048,2048
267.904,-1.38778e-17,0,2048,2048
267.95,-1.38778e-17,0,2048,2048
268.003,-2.77556e-17,0,2048,2048
268.05,-2.77556e-17,0,2048,2048
268.103,-2.77556e-17,0,2048,2048
268.156,-2.77556e-17,0,2048,2048
268.202,-2.77556e-17,0,2048,2048
268.255,-2.77556e-17,0,2048,2048
268.302,-2.77556e-17,0,2048,2048
268.355,-2.77556e-17,0,2048,2048
268.402,-2.77556e-17,0,2048,2048
268.454,-2.77556e-17,0,2048,2048
268.501,-2.77556e-17,0,2048,2048
268.554,-2.77556e-17,0,2048,2048
268.601,-2.77556e-17,0,2048,2048
268.654,-2.77556e-17,0,2048,2048
268.7,-2.77556e-17,0,2048,2048
268.753,-2.77556e-17,0,2048,2048
268.806,-2.77556e-17,0,2048,2048
268.853,-2.77556e-17,0,2048,2048
268.905,-2.77556e-17,0,2048,2048
268.952,-2.77556e-17,0,2048,2048
269.005,-2.77556e-17,0,2048,2048
269.052,-2.77556e-17,0,2048,2048
269.105,-2.77556e-17,0,2048,2048
269.151,-2.77556e-17,0,2048,2048
269.204,-2.77556e-17,0,2048,2048
269.251,-2.77556e-17,0,2048,2048
269.304,-2.77556e-17,0,2048,2048
269.351,-2.77556e-17,0,2048,2048
269.403,-1.38778e-17,0,2048,2048
269.45,-1.38778e-17,0,2048,2048
269.503,-1.38778e-17,0,2048,2048
269.556,-1.38778e-17,0,2048,2048
269.603,-1.38778e-17,0,2048,2048
269.65,-1.38778e-17,0,2694,2694
269.701,-1.38778e-17,0,3490,3490
269.75,-1.38778e-17,0,4038,4038
269.8,-1.38778e-17,0,4810,4810
269.85,-1.38778e-17,0,5674,5674
269.901,-1.38778e-17,0,6458,6458
269.95,-1.38778e-17,0,7274,7274
270,-1.38778e-17,0,8082,8082
270.051,-1.38778e-17,0,8902,8902
270.1,-1.38778e-17,0,9742,9742
270.15,-1.38778e-17,0,10586,10586
270.2,-1.38778e-17,0,11370,11370
270.251,-1.38778e-17,0,12254,12254
270.3,-1.38778e-17,0,13130,13130
270.35,-1.38778e-17,0,13902,13902
270.4,-1.38778e-17,0,14774,14774
270.451,-1.38778e-17,0,15650,15650
270.5,-1.38778e-17,0,16538,16538
270.55,-1.38778e-17,0,17310,17310
270.601,-1.38778e-17,0,18170,18170
270.65,-1.38778e-17,0,19010,19010
270.7,-1.38778e-17,0,19814,19814
270.75,-1.38778e-17,0,20602,20602
270.801,-1.38778e-17,0,20878,20878
270.85,-1.38778e-17,0,21550,21550
270.9,-1.38778e-17,0,22414,22414
270.951,-1.38778e-17,0,23266,23266
271.001,-1.38778e-17,0,24154,24154
271.05,-1.38778e-17,0,24958,24958
271.1,-1.38778e-17,0,25834,25834
271.151,-1.38778e-17,0,26722,26722
271.2,-1.38778e-17,0,27598,27598
271.25,-1.38778e-17,0,28438,28438
271.3,-1.38778e-17,0,29314,29314
271.351,-1.38778e-17,0,30202,30202
271.4,-1.38778e-17,0,31078,31078
271.45,-1.38778e-17,0,31966,31966
271.501,-1.38778e-17,0,32770,32770
271.55,-1.38778e-17,0,33646,33646
271.6,-1.38778e-17,0,34534,34534
271.65,-1.38778e-17,0,35374,35374
271.701,-1.38778e-17,0,36250,36250
271.75,-1.38778e-17,0,37126,37126
271.8,-1.38778e-17,0,37922,37922
271.851,-1.38778e-17,0,38818,38818
271.901,-1.38778e-17,0,39646,39646
271.95,-1.38778e-17,0,40534,40534
272,-1.38778e-17,0,41338,41338
272.051,-1.38778e-17,0,42214,42214
272.1,-1.38778e-17,0,43054,43054
272.15,-1.38778e-17,0,43858,43858
272.2,-1.38778e-17,0,44686,44686
272.251,-1.38778e-17,0,45574,45574
272.3,-1.38778e-17,0,46378,46378
272.35,-1.38778e-17,0,47206,47206
272.401,-1.38778e-17,0,48010,48010
272.45,-1.38778e-17,0,48850,48850
272.5,-1.38778e-17,0,49654,49654
272.55,-1.38778e-17,0,50482,50482
272.601,-1.38778e-17,0,51286,51286
272.65,-1.38778e-17,0,52086,52086
272.7,-1.38778e-17,0,52826,52826
272.751,-1.38778e-17,0,53598,53598
272.801,-1.38778e-17,0,54346,54346
272.85,-1.38778e-17,0,55142,55142
272.9,-1.38778e-17,0,55898,55898
272.951,-1.38778e-17,0,56702,56702
273,-1.38778e-17,0,57458,57458
273.05,-1.38778e-17,0,58182,58182
273.1,-1.38778e-17,0,58982,58982
273.151,-1.38778e-17,0,59694,59694
273.2,-1.38778e-17,0,60430,60430
273.25,-1.38778e-17,0,60646,60646
273.301,-1.38778e-17,0,61366,61366
273.35,-1.38778e-17,0,62190,62190
273.4,-1.38778e-17,0,62962,62962
273.45,-1.38778e-17,0,63550,63550
273.501,-1.38778e-17,0,64154,64154
273.55,-1.38778e-17,0,64710,64710
273.6,-1.38778e-17,0,64386,64386
273.65,-1.38778e-17,0,64874,64874
273.701,-1.38778e-17,0,65618,65618
273.75,-1.38778e-17,0,66526,66526
273.8,-1.38778e-17,0,68006,68006
273.851,-1.38778e-17,0,69814,69814
273.9,-1.38778e-17,0,70570,70570
273.95,-1.38778e-17,0,71326,71326
274,-1.38778e-17,0,72082,72082
274.051,-1.38778e-17,0,72838,72838
274.1,-1.38778e-17,0,73594,73594
274.15,-1.38778e-17,0,74350,74350
274.201,-1.38778e-17,0,75106,75106
274.251,-1.38778e-17,0,75814,75814
274.3,-1.38778e-17,0,76570,76570
274.35,-7.35523e-16,0,77326,77326
274.401,-1.67921e-15,0,78066,78066
274.45,-2.60902e-15,0,78754,78754
274.5,-3.55271e-15,0,79510,79510
274.55,-4.48253e-15,0,80218,80218
274.601,-5.44009e-15,0,80974,80974
274.65,-6.38378e-15,0,81658,81658
274.7,-7.32747e-15,0,82366,82366
274.751,-8.28504e-15,0,83122,83122
274.8,-9.50628e-15,0,83794,83794
274.85,-1.13243e-14,0,84502,84502
274.9,-1.32117e-14,0,85258,85258
274.951,-1.51268e-14,0,85942,85942
275,-1.73889e-14,0,86650,86650
275.05,-2.15383e-14,0,87322,87322
275.101,-3.08503e-14,0,88054,88054
275.151,-5.11535e-14,0,88786,88786
275.2,-9.42857e-14,0,89470,89470
275.25,-1.81244e-13,0,90178,90178
275.301,-3.51302e-13,0,90850,90850
275.35,-6.58071e-13,0,91558,91558
275.4,-1.19085e-12,0,92242,92242
275.45,-2.07287e-12,0,92950,92950
275.501,-3.49119e-12,0,93622,93622
275.55,-5.60224e-12,0,94330,94330
275.6,-8.63361e-12,0,95014,95014
275.651,-1.2852e-11,0,95722,95722
275.7,-1.82742e-11,0,96438,96438
275.75,-2.49773e-11,0,97102,97102
275.8,-3.28231e-11,0,97786,97786
275.851,-4.16039e-11,0,98494,98494
275.9,-5.05089e-11,0,99166,99166
275.95,-5.89279e-11,0,99874,99874
276,-6.60144e-11,0,100558,100558
276.051,-7.09612e-11,0,101266,101266
276.1,-7.28624e-11,0,101938,101938
276.15,-7.12736e-11,0,102646,102646
276.201,-6.58569e-11,0,103282,103282
276.25,-5.68824e-11,0,103954,103954
276.3,-4.47422e-11,0,104662,104662
276.35,-3.01482e-11,0,105346,105346
276.401,-1.37445e-11,0,106054,106054
276.45,3.02386e-12,0,106678,106678
276.5,1.94606e-11,0,107362,107362
276.551,3.49691e-11,0,108070,108070
276.6,4.84542e-11,0,108742,108742
276.65,5.97131e-11,0,109378,109378
276.7,6.85129e-11,0,110086,110086
276.751,7.48931e-11,0,110758,110758
276.8,7.88199e-11,0,111394,111394
276.85,8.07195e-11,0,112102,112102
276.9,8.1049e-11,0,112726,112726
276.951,8.03607e-11,0,113410,113410
277,7.93098e-11,0,114118,114118
277.05,7.85102e-11,0,114742,114742
277.101,7.84879e-11,0,115426,115426
277.15,7.95663e-11,0,116094,116094
277.2,8.17761e-11,0,116758,116758
277.25,8.48495e-11,0,117394,117394
277.301,8.83377e-11,0,118066,118066
277.35,9.16164e-11,0,118702,118702
277.4,9.45645e-11,0,119410,119410
277.451,9.78862e-11,0,120034,120034
277.501,1.03464e-10,0,120670,120670
277.55,1.14953e-10,0,121342,121342
277.6,1.37642e-10,0,121978,121978
277.651,1.78865e-10,0,122602,122602
277.7,2.44502e-10,0,123238,123238
277.75,3.41192e-10,0,123814,123814
277.8,4.72624e-10,0,124450,124450
277.851,6.36313e-10,0,125002,125002
277.9,7.80886e-10,0,125618,125618
277.95,2.48214e-09,0,126206,126206
278.001,8.02975e-09,0,126718,126718
278.05,1.52836e-08,0,127270,127270
278.1,2.2541e-08,0,127774,127774
278.15,2.86898e-08,0,128278,128278
278.201,3.33895e-08,0,128782,128782
278.25,3.68979e-08,0,129238,129238
278.3,4.03671e-08,0,129742,129742
278.351,4.53583e-08,0,130294,130294
278.401,5.2933e-08,0,131072,131072
278.45,6.36256e-08,0,131072,131072
278.5,7.72279e-08,0,131072,131072
278.551,9.37858e-08,0,131072,131072
278.6,1.13221e-07,0,131072,131072
278.65,1.36922e-07,0,131072,131072
278.7,1.66412e-07,0,131072,131072
278.751,2.03597e-07,0,131072,131072
278.8,2.48022e-07,0,131072,131072
278.85,2.99732e-07,0,131072,131072
278.901,3.58086e-07,0,131072,131072
278.95,4.19375e-07,0,131072,131072
279,4.83391e-07,0,131072,131072
279.05,5.51444e-07,0,131072,131072
279.101,6.26405e-07,0,131072,131072
279.15,7.05568e-07,0,131072,131072
279.2,7.86867e-07,0,131072,131072
279.25,8.65622e-07,0,131072,131072
279.301,9.38133e-07,0,131072,131072
279.35,9.99059e-07,0,131072,131072
279.4,1.04849e-06,0,131072,131072
279.451,1.08791e-06,0,131072,131072
279.5,1.11855e-06,0,131072,131072
279.55,1.14372e-06,0,131072,131072
279.6,1.16563e-06,0,131072,131072
279.651,1.18593e-06,0,131072,131072
279.7,1.20486e-06,0,131072,131072
279.75,1.22321e-06,0,131072,131072
279.801,1.2415e-06,0,131072,131072
279.851,1.25897e-06,0,131072,131072
279.9,1.275e-06,0,131072,131072
279.95,1.28807e-06,0,131072,131072
280.001,1.29654e-06,0,131072,131072
280.05,1.29919e-06,0,131072,131072
280.1,1.29701e-06,0,131072,131072
280.15,1.29274e-06,0,131072,131072
280.201,1.28977e-06,0,131072,131072
280.25,1.29044e-06,0,131072,131072
280.3,1.29447e-06,0,131072,131072
280.351,1.29933e-06,0,131072,131072
280.4,1.30101e-06,0,131072,131072
280.45,1.29594e-06,0,131072,131072
280.5,1.28174e-06,0,131072,131072
280.551,1.25734e-06,0,131072,131072
280.6,1.22466e-06,0,131072,131072
280.65,1.18613e-06,0,131072,131072
280.701,1.14453e-06,0,131072,131072
280.751,1.10386e-06,0,131072,131072
280.8,1.06434e-06,0,131072,131072
280.85,1.02447e-06,0,131072,131072
280.901,9.806e-07,0,131072,131072
280.95,9.31293e-07,0,131072,131072
281,8.74854e-07,0,131072,131072
281.05,8.11845e-07,0,131072,131072
281.101,7.42699e-07,0,131072,131072
281.15,6.71149e-07,0,131072,131072
281.2,5.97965e-07,0,131072,131072
281.251,5.23763e-07,0,131072,131072
281.3,4.52142e-07,0,131072,131072
281.35,3.83147e-07,0,131072,131072
281.4,3.17871e-07,0,131072,131072
281.451,2.56749e-07,0,131072,131072
281.5,2.02746e-07,0,131072,131072
281.55,1.55363e-07,0,131072,131072
281.6,1.13973e-07,0,131072,131072
281.651,7.68146e-08,0,131072,131072
281.7,4.3949e-08,0,131072,131072
281.75,1.4686e-08,0,131072,131072
281.801,-1.05958e-08,0,131072,131072
281.85,-3.03434e-08,0,131072,131072
281.9,-4.49716e-08,0,131072,131072
281.95,-5.57221e-08,0,131072,131072
282.001,-6.47018e-08,0,131072,131072
282.05,-7.31924e-08,0,131072,131072
282.1,-8.15874e-08,0,131072,131072
282.151,-8.9034e-08,0,131072,131072
282.201,-9.40917e-08,0,131072,131072
282.25,-9.63044e-08,0,131072,131072
282.3,-9.59928e-08,0,131072,131072
282.351,-9.41089e-08,0,131072,131072
282.4,-9.19348e-08,0,131072,131072
282.45,-9.03818e-08,0,131072,131072
282.5,-8.96666e-08,0,131072,131072
282.551,-8.91847e-08,0,131072,131072
282.6,-8.79195e-08,0,131072,131072
282.65,-8.5088e-08,0,131072,131072
282.701,-8.05226e-08,0,131072,131072
282.75,-7.48909e-08,0,131072,131072
282.8,-6.88623e-08,0,131072,131072
282.85,-6.29696e-08,0,131072,131072
282.901,-5.73586e-08,0,131072,131072
282.95,-5.22117e-08,0,131072,131072
283,-4.7419e-08,0,131072,131072
283.051,-4.29411e-08,0,131072,131072
283.101,-3.89807e-08,0,131072,131072
283.15,-3.5526e-08,0,131072,131072
283.2,-3.25441e-08,0,131072,131072
283.251,-2.98837e-08,0,131072,131072
283.3,-2.75153e-08,0,131072,131072
283.35,-2.53699e-08,0,131072,131072
283.4,-2.34744e-08,0,131072,131072
283.451,-2.18343e-08,0,131072,131072
283.5,-2.04992e-08,0,131072,131072
283.55,-1.94251e-08,0,131072,131072
283.601,-1.85735e-08,0,131072,131072
283.65,-1.79397e-08,0,131072,131072
283.7,-1.7483e-08,0,131072,131072
283.75,-1.71808e-08,0,131072,131072
283.801,-1.70114e-08,0,131072,131072
283.85,-1.696e-08,0,131072,131072
283.9,-1.70025e-08,0,131072,131072
283.95,-1.71181e-08,0,131072,131072
284.001,-1.72906e-08,0,131072,131072
284.05,-1.75012e-08,0,131072,131072
284.1,-1.7744e-08,0,131072,131072
284.151,-1.80191e-08,0,131072,131072
284.2,-1.83148e-08,0,131072,131072
284.25,-1.86286e-08,0,131072,131072
284.3,-1.89519e-08,0,131072,131072
284.351,-1.92799e-08,0,131072,131072
284.4,-1.95954e-08,0,131072,131072
284.45,-1.98989e-08,0,131072,131072
284.501,-2.01941e-08,0,131072,131072
284.551,-2.04743e-08,0,131072,131072
284.6,-2.07457e-08,0,131072,131072
284.65,-2.10081e-08,0,131072,131072
284.701,-2.12621e-08,0,131072,131072
284.75,-2.14957e-08,0,131072,131072
284.8,-2.17082e-08,0,131072,131072
284.85,-2.18968e-08,0,131072,131072
284.901,-2.20631e-08,0,131072,131072
284.95,-2.22034e-08,0,131072,131072
285,-2.2322e-08,0,131072,131072
285.051,-2.24225e-08,0,131072,131072
285.1,-2.2504e-08,0,131072,131072
285.15,-2.25705e-08,0,131072,131072
285.2,-2.26245e-08,0,131072,131072
285.251,-2.26694e-08,0,131072,131072
285.3,-2.27068e-08,0,131072,131072
285.35,-2.27399e-08,0,131072,131072
285.401,-2.27714e-08,0,131072,131072
285.451,-2.28018e-08,0,131072,131072
285.5,-2.28329e-08,0,131072,131072
285.55,-2.28656e-08,0,131072,131072
285.601,-2.29014e-08,0,131072,131072
285.65,-2.29405e-08,0,131072,131072
285.7,-2.29851e-08,0,131072,131072
285.75,-2.30372e-08,0,131072,131072
285.801,-2.31e-08,0,131072,131072
285.85,-2.31739e-08,0,131072,131072
285.9,-2.32622e-08,0,131072,131072
285.951,-2.33692e-08,0,131072,131072
286,-2.34948e-08,0,131072,131072
286.05,-2.36437e-08,0,131072,131072
286.1,-2.38196e-08,0,131072,131072
286.151,-2.40294e-08,0,131072,131072
286.2,-2.42709e-08,0,131072,131072
286.25,-2.45497e-08,0,131072,131072
286.3,-2.48685e-08,0,131072,131072
286.351,-2.52349e-08,0,131072,131072
286.4,-2.56401e-08,0,131072,131072
286.45,-2.60907e-08,0,131072,131072
286.501,-2.6595e-08,0,131072,131072
286.55,-2.71381e-08,0,131072,131072
286.6,-2.77245e-08,0,131072,131072
286.65,-2.83501e-08,0,131072,131072
286.701,-2.90191e-08,0,131072,131072
286.75,-2.97056e-08,0,131072,131072
286.8,-3.04126e-08,0,131072,131072
286.851,-3.11453e-08,0,131072,131072
286.9,-3.18779e-08,0,131072,131072
286.95,-3.26174e-08,0,131072,131072
287,-3.33616e-08,0,131072,131072
287.051,-3.412e-08,0,131072,131072
287.1,-3.48695e-08,0,131072,131072
287.15,-3.56201e-08,0,131072,131072
287.2,-3.63707e-08,0,131072,131072
287.251,-3.7131e-08,0,131072,131072
287.3,-3.78771e-08,0,131072,131072
287.35,-3.86176e-08,0,131072,131072
287.401,-3.93607e-08,0,131072,131072
287.45,-4.0083e-08,0,131072,131072
287.5,-4.07941e-08,0,131072,131072
287.55,-4.14939e-08,0,131072,131072
287.601,-4.21928e-08,0,131072,131072
287.65,-4.28713e-08,0,131072,131072
287.7,-4.35392e-08,0,131072,131072
287.751,-4.42047e-08,0,131072,131072
287.801,-4.48454e-08,0,131072,131072
287.85,-4.54671e-08,0,131072,131072
287.9,-4.60652e-08,0,131072,131072
287.951,-4.6644e-08,0,131072,131072
288,-4.71833e-08,0,131072,131072
288.05,-4.76899e-08,0,131072,131072
288.1,-4.81631e-08,0,131072,131072
288.151,-4.86085e-08,0,131072,131072
288.2,-4.90129e-08,0,131072,131072
288.25,-4.93817e-08,0,131072,131072
288.301,-4.97174e-08,0,131072,131072
288.35,-5.00078e-08,0,131072,131072
288.4,-5.02554e-08,0,131072,131072
288.45,-5.04581e-08,0,131072,131072
288.501,-5.06165e-08,0,131072,131072
288.55,-5.07257e-08,0,131072,131072
288.6,-5.0789e-08,0,131072,131072
288.651,-5.08077e-08,0,131072,131072
288.701,-5.07836e-08,0,131072,131072
288.75,-5.07206e-08,0,131072,131072
288.8,-5.0622e-08,0,131072,131072
288.851,-5.04899e-08,0,131072,131072
288.9,-5.03322e-08,0,131072,131072
288.95,-5.01512e-08,0,131072,131072
289,-4.99506e-08,0,131072,131072
289.051,-4.97305e-08,0,131072,131072
289.1,-4.95002e-08,0,131072,131072
289.15,-4.92598e-08,0,131072,131072
289.201,-4.90085e-08,0,131072,131072
289.25,-4.87562e-08,0,131072,131072
289.3,-4.85017e-08,0,131072,131072
289.35,-4.82466e-08,0,131072,131072
289.401,-4.79883e-08,0,131072,131072
289.45,-4.7735e-08,0,131072,131072
289.5,-4.74838e-08,0,131072,131072
289.551,-4.72321e-08,0,131072,131072
289.601,-4.69883e-08,0,131072,131072
289.65,-4.67497e-08,0,131072,131072
289.7,-4.65171e-08,0,131072,131072
289.751,-4.62875e-08,0,131072,131072
289.8,-4.60675e-08,0,131072,131072
289.85,-4.58537e-08,0,131072,131072
289.9,-4.56459e-08,0,131072,131072
289.951,-4.54413e-08,0,131072,131072
290,-4.52462e-08,0,131072,131072
290.05,-4.50578e-08,0,131072,131072
290.101,-4.4874e-08,0,131072,131072
290.15,-4.47e-08,0,131072,131072
290.2,-4.4533e-08,0,131072,131072
290.25,-4.43728e-08,0,131072,131072
290.301,-4.42166e-08,0,131072,131072
290.35,-4.40684e-08,0,131072,131072
290.4,-4.39254e-08,0,131072,131072
290.45,-4.3787e-08,0,131072,131072
290.501,-4.36506e-08,0,131072,131072
290.55,-4.35196e-08,0,131072,131072
290.6,-4.33916e-08,0,131072,131072
290.651,-4.3264e-08,0,131072,131072
290.7,-4.314e-08,0,131072,131072
290.75,-4.30173e-08,0,131072,131072
290.8,-4.28954e-08,0,131072,131072
290.851,-4.27719e-08,0,131072,131072
290.9,-4.265e-08,0,131072,131072
290.95,-4.25273e-08,0,131072,131072
291.001,-4.24015e-08,0,131072,131072
291.051,-4.22759e-08,0,131072,131072
291.1,-4.21482e-08,0,131072,131072
291.15,-4.20179e-08,0,131072,131072
291.201,-4.18828e-08,0,131072,131072
291.25,-4.17464e-08,0,131072,131072
291.3,-4.16065e-08,0,131072,131072
291.35,-4.14629e-08,0,131072,131072
291.401,-4.1313e-08,0,131072,131072
291.45,-4.11611e-08,0,131072,131072
291.5,-4.10049e-08,0,131072,131072
291.551,-4.08419e-08,0,131072,131072
291.6,-4.06767e-08,0,131072,131072
291.65,-4.05068e-08,0,131072,131072
291.7,-4.03322e-08,0,131072,131072
291.751,-4.015e-08,0,131072,131072
291.8,-3.99653e-08,0,131072,131072
291.85,-3.97753e-08,0,131072,131072
291.901,-3.95764e-08,0,131072,131072
291.951,-3.93735e-08,0,131072,131072
292,-3.91631e-08,0,131072,131072
292.05,-3.89444e-08,0,131072,131072
292.101,-3.87134e-08,0,131072,131072
292.15,-3.84767e-08,0,131072,131072
292.2,-3.82313e-08,0,131072,131072
292.25,-3.79771e-08,0,131072,131072
292.301,-3.77102e-08,0,131072,131072
292.35,-3.74376e-08,0,131072,131072
292.4,-3.71545e-08,0,131072,131072
292.451,-3.6855e-08,0,131072,131072
292.5,-3.65458e-08,0,131072,131072
292.55,-3.62206e-08,0,131072,131072
292.6,-3.58766e-08,0,131072,131072
292.651,-3.55054e-08,0,131072,131072
292.7,-3.51141e-08,0,131072,131072
292.75,-3.46937e-08,0,131072,131072
292.8,-3.42401e-08,0,131072,131072
292.851,-3.37415e-08,0,131072,131072
292.9,-3.32088e-08,0,131072,131072
292.95,-3.26316e-08,0,131072,131072
293.001,-3.19978e-08,0,131072,131072
293.05,-3.13231e-08,0,131072,131072
293.1,-3.05971e-08,0,131072,131072
293.15,-2.98188e-08,0,131072,131072
293.201,-2.8976e-08,0,131072,131072
293.25,-2.80952e-08,0,131072,131072
293.3,-2.71686e-08,0,131072,131072
293.351,-2.61875e-08,0,131072,131072
293.401,-2.5187e-08,0,131072,131072
293.45,-2.41603e-08,0,131072,131072
293.5,-2.31138e-08,0,131072,131072
293.551,-2.20375e-08,0,131072,131072
293.6,-2.0967e-08,0,131072,131072
293.65,-1.98901e-08,0,131072,131072
293.7,-1.8809e-08,0,131072,131072
293.751,-1.77094e-08,0,131072,131072
293.8,-1.66244e-08,0,131072,131072
293.85,-1.55395e-08,0,131072,131072
293.901,-1.44402e-08,0,131072,131072
293.95,-1.33605e-08,0,131072,131072
294,-1.22868e-08,0,131072,131072
294.05,-1.12214e-08,0,131072,131072
294.101,-1.01512e-08,0,131072,131072
294.15,-9.10856e-09,0,131072,131072
294.2,-8.0787e-09,0,131072,131072
294.251,-7.04678e-09,0,131072,131072
294.301,-6.04264e-09,0,131072,131072
294.35,-5.0517e-09,0,131072,131072
294.4,-4.07554e-09,0,131072,131072
294.451,-3.10309e-09,0,129796,129796
294.5,-2.16663e-09,0,130368,130368
294.55,-1.25658e-09,0,130464,130464
294.6,-3.77478e-10,0,130512,130512
294.651,5.52363e-10,0,130464,130464
294.7,1.26072e-09,0,130464,130464
294.75,2.05358e-09,0,130464,130464
294.801,2.79025e-09,0,130416,130416
294.85,3.47428e-09,0,130352,130352
294.9,4.11017e-09,0,130272,130272
294.95,4.68587e-09,0,130272,130272
295.001,5.26176e-09,0,130272,130272
295.05,5.75053e-09,0,130264,130264
295.1,6.19625e-09,0,130192,130192
295.15,6.58765e-09,0,130136,130136
295.201,6.92877e-09,0,130088,130088
295.25,7.20829e-09,0,130024,130024
295.3,7.43258e-09,0,130032,130032
295.351,7.60642e-09,0,129960,129960
295.4,7.72401e-09,0,129936,129936
295.45,7.8056e-09,0,129888,129888
295.5,7.84415e-09,0,129888,129888
295.551,7.84033e-09,0,129872,129872
295.6,7.81692e-09,0,129872,129872
295.65,7.76567e-09,0,129824,129824
295.701,7.69198e-09,0,129808,129808
295.751,7.60246e-09,0,129784,129784
295.8,7.50198e-09,0,129792,129792
295.85,7.38755e-09,0,129736,129736
295.901,7.26834e-09,0,129720,129720
295.95,7.15025e-09,0,129688,129688
296,7.02487e-09,0,129656,129656
296.05,6.90056e-09,0,129632,129632
296.101,6.77467e-09,0,129592,129592
296.15,6.65204e-09,0,129640,129640
296.2,6.53115e-09,0,129600,129600
296.251,6.41037e-09,0,129600,129600
296.3,6.29451e-09,0,129600,129600
296.35,6.18216e-09,0,129552,129552
296.4,6.07265e-09,0,129552,129552
296.451,5.96272e-09,0,129568,129568
296.5,5.8556e-09,0,129536,129536
296.55,5.75185e-09,0,129552,129552
296.601,5.64737e-09,0,129488,129488
296.651,5.54593e-09,0,129488,129488
296.7,5.45515e-09,0,129504,129504
296.75,5.37632e-09,0,129480,129480
296.801,5.30541e-09,0,129456,129456
296.85,5.24686e-09,0,129456,129456
296.9,5.1994e-09,0,129488,129488
296.95,5.16095e-09,0,129424,129424
297.001,5.13156e-09,0,129440,129440
297.05,5.11012e-09,0,129424,129424
297.1,5.09243e-09,0,129440,129440
297.151,5.07827e-09,0,129416,129416
297.2,5.06819e-09,0,129392,129392
297.25,5.06148e-09,0,129432,129432
297.3,5.05736e-09,0,129380,129380
297.351,5.05658e-09,0,129356,129356
297.4,5.06031e-09,0,129344,129344
297.45,5.06858e-09,0,129320,129320
297.5,5.08071e-09,0,129264,129264
297.551,5.0925e-09,0,129264,129264
297.6,5.10056e-09,0,129256,129256
297.65,5.1057e-09,0,129200,129200
297.701,5.1068e-09,0,129224,129224
297.75,5.10431e-09,0,129224,129224
297.8,5.10104e-09,0,129200,129200
297.85,5.09889e-09,0,129216,129216
297.901,5.09815e-09,0,129200,129200
297.95,5.09916e-09,0,129176,129176
298,5.10178e-09,0,129152,129152
298.051,5.10494e-09,0,129184,129184
298.1,5.10667e-09,0,129224,129224
298.15,5.10579e-09,0,129232,129232
298.2,5.10224e-09,0,129256,129256
298.251,5.09673e-09,0,129264,129264
298.3,5.09043e-09,0,129240,129240
298.35,5.08448e-09,0,129300,129300
298.4,5.0797e-09,0,129352,129352
298.451,5.07683e-09,0,129308,129308
298.5,5.07674e-09,0,129304,129304
298.55,5.07986e-09,0,129352,129352
298.601,5.08599e-09,0,129352,129352
298.65,5.09352e-09,0,129352,129352
298.7,5.10165e-09,0,129384,129384
298.75,5.11051e-09,0,129352,129352
298.801,5.11982e-09,0,129376,129376
298.85,5.12842e-09,0,129352,129352
298.9,5.13584e-09,0,129384,129384
298.951,5.14203e-09,0,129432,129432
299.001,5.14693e-09,0,129352,129352
299.05,5.15079e-09,0,129352,129352
299.1,5.15355e-09,0,129424,129424
299.151,5.15491e-09,0,129368,129368
299.2,5.15436e-09,0,129384,129384
299.25,5.15177e-09,0,129376,129376
299.3,5.1475e-09,0,129416,129416
299.351,5.14205e-09,0,129376,129376
299.4,5.13611e-09,0,129376,129376
299.45,5.12986e-09,0,129352,129352
299.501,5.1232e-09,0,129336,129336
299.55,5.11601e-09,0,129328,129328
299.6,5.10779e-09,0,129304,129304
299.65,5.0983e-09,0,129272,129272
299.701,5.08734e-09,0,129228,129228
299.75,5.07552e-09,0,129140,129140
299.8,5.06359e-09,0,129096,129096
299.851,5.0522e-09,0,129096,129096
299.901,5.04139e-09,0,129040,129040
299.95,5.02969e-09,0,129016,129016
300,5.01626e-09,0,128964,128964
300.051,5.00177e-09,0,128988,128988
300.1,4.9876e-09,0,128920,128920
300.15,4.97259e-09,0,128872,128872
300.2,4.95606e-09,0,128832,128832
300.251,4.93806e-09,0,128792,128792
300.3,4.9195e-09,0,128716,128716
300.35,4.90025e-09,0,128700,128700
300.401,4.87982e-09,0,128680,128680
300.45,4.85851e-09,0,128632,128632
300.5,4.83608e-09,0,128596,128596
300.55,4.81284e-09,0,128532,128532
300.601,4.78846e-09,0,128532,128532
300.65,4.76349e-09,0,128472,128472
300.7,4.73746e-09,0,128416,128416
300.75,4.71026e-09,0,128412,128412
300.801,4.68138e-09,0,128388,128388
300.85,4.6516e-09,0,128336,128336
300.9,4.62074e-09,0,128320,128320
300.951,4.58849e-09,0,128280,128280
301,4.55576e-09,0,128208,128208
301.05,4.52211e-09,0,128148,128148
301.1,4.4874e-09,0,128092,128092
301.151,4.45104e-09,0,128028,128028
301.2,4.41439e-09,0,127956,127956
301.25,4.37681e-09,0,127944,127944
301.301,4.33739e-09,0,127860,127860
301.351,4.29726e-09,0,127832,127832
301.4,4.2561e-09,0,127788,127788
301.45,4.21399e-09,0,127720,127720
301.501,4.17019e-09,0,127692,127692
301.55,4.12583e-09,0,127672,127672
301.6,4.08038e-09,0,127596,127596
301.65,4.034e-09,0,127584,127584
301.701,3.98603e-09,0,127540,127540
301.75,3.93756e-09,0,127524,127524
301.8,3.88812e-09,0,127480,127480
301.851,3.8385e-09,0,127476,127476
301.9,3.79001e-09,0,127420,127420
301.95,3.73945e-09,0,127392,127392
302,3.68685e-09,0,127404,127404
302.051,3.63299e-09,0,127368,127368
302.1,3.57987e-09,0,127372,127372
302.15,3.52682e-09,0,127336,127336
302.201,3.47302e-09,0,127324,127324
302.251,3.41971e-09,0,127284,127284
302.3,3.36588e-09,0,127296,127296
302.35,3.31163e-09,0,127272,127272
302.401,3.25633e-09,0,127264,127264
302.45,3.20173e-09,0,127252,127252
302.5,3.14711e-09,0,127244,127244
302.55,3.09254e-09,0,127240,127240
302.601,3.03727e-09,0,127200,127200
302.65,2.98298e-09,0,127192,127192
302.7,2.92893e-09,0,127200,127200
302.751,2.87435e-09,0,127192,127192
302.8,2.82077e-09,0,127200,127200
302.85,2.76733e-09,0,127192,127192
302.9,2.71446e-09,0,127168,127168
302.951,2.66209e-09,0,127638,127638
303,2.61149e-09,0,128510,128510
303.05,2.56082e-09,0,129374,129374
303.1,2.50985e-09,0,130246,130246
303.151,2.45851e-09,0,131072,131072
303.2,2.40868e-09,0,131072,131072
303.25,2.35954e-09,0,131072,131072
303.301,2.31032e-09,0,131072,131072
303.35,2.26243e-09,0,131072,131072
303.4,2.21505e-09,0,131072,131072
303.45,2.16796e-09,0,131072,131072
303.501,2.12045e-09,0,131072,131072
303.55,2.07413e-09,0,131072,131072
303.6,2.02844e-09,0,131072,131072
303.651,1.98265e-09,0,131072,131072
303.701,1.93787e-09,0,131072,131072
303.75,1.89337e-09,0,131072,131072
303.8,1.84926e-09,0,131072,131072
303.851,1.80496e-09,0,131072,131072
303.9,1.76173e-09,0,131072,131072
303.95,1.71891e-09,0,131072,131072
304,1.67643e-09,0,131072,131072
304.051,1.63371e-09,0,131072,131072
304.1,1.59196e-09,0,131072,131072
304.15,1.55038e-09,0,131072,131072
304.201,1.5082e-09,0,131072,131072
304.25,1.46677e-09,0,131072,131072
304.3,1.42585e-09,0,131072,131072
304.35,1.38546e-09,0,131072,131072
304.401,1.34479e-09,0,131072,131072
304.45,1.30483e-09,0,131072,131072
304.5,1.26466e-09,0,131072,131072
304.551,1.22392e-09,0,131072,131072
304.601,1.18457e-09,0,131072,131072
304.65,1.14559e-09,0,131072,131072
304.7,1.10643e-09,0,131072,131072
304.751,1.0669e-09,0,131072,131072
304.8,1.02767e-09,0,131072,131072
304.85,9.88525e-10,0,131072,131072
304.9,9.50378e-10,0,131072,131072
304.951,9.12177e-10,0,131072,131072
