250,0,0,8192,8192
250.003,0,0,8192,8192
250.053,0,0,8192,8192
250.103,0,0,8192,8192
250.152,0,0,8192,8192
250.202,0,0,8192,8192
250.252,0,0,8192,8192
250.302,0,0,8192,8192
250.352,0,0,8192,8192
250.401,0,0,8192,8192
250.451,0,0,8192,8192
250.501,0,0,8192,8192
250.551,0,0,8192,8192
250.6,0,0,8192,8192
250.65,0,0,8192,8192
250.7,0,0,8192,8192
250.753,0,0,8192,8192
250.803,0,0,8192,8192
250.852,0,0,8192,8192
250.902,0,0,8192,8192
250.952,0,0,8192,8192
251.002,0,0,8192,8192
251.052,0,0,8192,8192
251.101,0,0,8192,8192
251.151,0,0,8192,8192
251.201,0,0,8192,8192
251.251,0,0,8192,8192
251.301,0,0,8192,8192
251.35,0,0,8192,8192
251.4,0,0,8192,8192
251.453,0,0,8192,8192
251.503,0,0,8192,8192
251.553,0,0,8192,8192
251.602,0,0,8192,8192
251.652,0,0,8192,8192
251.702,0,0,8192,8192
251.752,0,0,8192,8192
251.801,0,0,8192,8192
251.851,0,0,8192,8192
251.901,0,0,8192,8192
251.951,0,0,8192,8192
252.001,0,0,8192,8192
252.05,0,0,8192,8192
252.1,0,0,8192,8192
252.15,0,0,8192,8192
252.203,0,0,8192,8192
252.253,0,0,8192,8192
252.302,0,0,8192,8192
252.352,0,0,8192,8192
252.402,0,0,8192,8192
252.452,0,0,8192,8192
252.502,0,0,8192,8192
252.551,0,0,8192,8192
252.601,0,0,8192,8192
252.651,0,0,8192,8192
252.701,0,0,8192,8192
252.751,0,0,8192,8192
252.8,0,0,8192,8192
252.85,0,0,8192,8192
252.903,0,0,8192,8192
252.953,0,0,8192,8192
253.002,0,0,8192,8192
253.052,0,0,8192,8192
253.102,0,0,8192,8192
253.152,0,0,8192,8192
253.202,0,0,8192,8192
253.251,0,0,8192,8192
253.301,0,0,8192,8192
253.351,0,0,8192,8192
253.401,0,0,8192,8192
253.451,0,0,8192,8192
253.5,0,0,8192,8192
253.55,0,0,8192,8192
253.6,0,0,8192,8192
253.653,0,0,8192,8192
253.703,0,0,8192,8192
253.752,0,0,8192,8192
253.802,0,0,8192,8192
253.852,0,0,8192,8192
253.902,0,0,8192,8192
253.952,0,0,8192,8192
254.001,0,0,8192,8192
254.051,0,0,8192,8192
254.101,0,0,8192,8192
254.151,0,0,8192,8192
254.201,0,0,8192,8192
254.25,0,0,8192,8192
254.3,0,0,8192,8192
254.353,0,0,8192,8192
254.403,0,0,8192,8192
254.452,0,0,8192,8192
254.502,0,0,8192,8192
254.552,0,0,8192,8192
254.602,0,0,8192,8192
254.652,0,0,8192,8192
254.701,0,0,8192,8192
254.751,0,0,8192,8192
254.801,0,0,8192,8192
254.851,0,0,8192,8192
254.901,0,0,8192,8192
254.95,0,0,8192,8192
255,0,0,8192,8192
255.05,0,0,8192,8192
255.103,0,0,8192,8192
255.153,0,0,8192,8192
255.202,0,0,8192,8192
255.252,0,0,8192,8192
255.302,2.77556e-17,0,8192,8192
255.352,2.77556e-17,0,8192,8192
255.402,5.55112e-17,0,8192,8192
255.451,2.77556e-17,0,8192,8192
255.501,2.77556e-17,0,8192,8192
255.551,2.77556e-17,0,8192,8192
255.601,2.77556e-17,0,8192,8192
255.651,2.77556e-17,0,8192,8192
255.7,2.77556e-17,0,8192,8192
255.75,2.77556e-17,0,8192,8192
255.803,2.77556e-17,0,8192,8192
255.853,2.77556e-17,0,8192,8192
255.902,2.77556e-17,0,8192,8192
255.952,2.77556e-17,0,8192,8192
256.002,5.55112e-17,0,8192,8192
256.052,5.55112e-17,0,8192,8192
256.102,5.55112e-17,0,8192,8192
256.151,5.55112e-17,0,8192,8192
256.201,2.77556e-17,0,8192,8192
256.251,2.77556e-17,0,8192,8192
256.301,2.77556e-17,0,8192,8192
256.351,2.77556e-17,0,8192,8192
256.4,2.77556e-17,0,8192,8192
256.45,2.77556e-17,0,8192,8192
256.5,0,0,8192,8192
256.553,0,0,8192,8192
256.603,0,0,8192,8192
256.652,0,0,8192,8192
256.702,0,0,8192,8192
256.752,0,0,8192,8192
256.802,0,0,8192,8192
256.852,0,0,8192,8192
256.901,0,0,8192,8192
256.951,0,0,8192,8192
257.001,0,0,8192,8192
257.051,0,0,8192,8192
257.101,0,0,8192,8192
257.15,0,0,8192,8192
257.2,0,0,8192,8192
257.253,0,0,8192,8192
257.303,2.77556e-17,0,8192,8192
257.352,2.77556e-17,0,8192,8192
257.402,5.55112e-17,0,8192,8192
257.452,5.55112e-17,0,8192,8192
257.502,5.55112e-17,0,8192,8192
257.552,5.55112e-17,0,8192,8192
257.601,5.55112e-17,0,8192,8192
257.651,5.55112e-17,0,8192,8192
257.701,5.55112e-17,0,8192,8192
257.751,5.55112e-17,0,8192,8192
257.801,5.55112e-17,0,8192,8192
257.85,5.55112e-17,0,8192,8192
257.9,5.55112e-17,0,8192,8192
257.95,5.55112e-17,0,8192,8192
258.003,5.55112e-17,0,8192,8192
258.053,5.55112e-17,0,8192,8192
258.102,5.55112e-17,0,8192,8192
258.152,5.55112e-17,0,8192,8192
258.202,5.55112e-17,0,8192,8192
258.252,5.55112e-17,0,8192,8192
258.302,5.55112e-17,0,8192,8192
258.351,5.55112e-17,0,8192,8192
258.401,5.55112e-17,0,8192,8192
258.451,5.55112e-17,0,8192,8192
258.501,5.55112e-17,0,8192,8192
258.551,5.55112e-17,0,8192,8192
258.6,5.55112e-17,0,8192,8192
258.65,2.77556e-17,0,8192,8192
258.703,0,0,8192,8192
258.753,0,0,8192,8192
258.802,0,0,8192,8192
258.852,2.77556e-17,0,8192,8192
258.902,2.77556e-17,0,8192,8192
258.952,5.55112e-17,0,8192,8192
259.002,5.55112e-17,0,8192,8192
259.051,2.77556e-17,0,8192,8192
259.101,2.77556e-17,0,8192,8192
259.151,2.77556e-17,0,8192,8192
259.201,2.77556e-17,0,8192,8192
259.251,2.77556e-17,0,8192,8192
259.3,2.77556e-17,0,8192,8192
259.35,2.77556e-17,0,8192,8192
259.403,2.77556e-17,0,8192,8192
259.453,2.77556e-17,0,8192,8192
259.503,2.77556e-17,0,8192,8192
259.552,2.77556e-17,0,8192,8192
259.602,2.77556e-17,0,8192,8192
259.652,2.77556e-17,0,8192,8192
259.702,2.77556e-17,0,8192,8192
259.751,2.77556e-17,0,8192,8192
259.801,2.77556e-17,0,8192,8192
259.851,2.77556e-17,0,8192,8192
259.901,0,0,8192,8192
259.951,-2.77556e-17,0,8192,8192
260,-2.77556e-17,0,8192,8192
260.05,-2.77556e-17,0,8192,8192
260.1,-2.77556e-17,0,8192,8192
260.153,-2.77556e-17,0,8192,8192
260.203,-2.77556e-17,0,8192,8192
260.252,-2.77556e-17,0,8192,8192
260.302,-2.77556e-17,0,8192,8192
260.352,-2.77556e-17,0,8192,8192
260.402,-2.77556e-17,0,8192,8192
260.452,-2.77556e-17,0,8192,8192
260.501,-2.77556e-17,0,8192,8192
260.551,-2.77556e-17,0,8192,8192
260.601,-2.77556e-17,0,8192,8192
260.651,-2.77556e-17,0,8192,8192
260.701,-2.77556e-17,0,8192,8192
260.75,-2.77556e-17,0,8192,8192
260.8,-2.77556e-17,0,8192,8192
260.853,-2.77556e-17,0,8192,8192
260.903,-2.77556e-17,0,8192,8192
260.952,-2.77556e-17,0,8192,8192
261.002,-8.32667e-17,0,8192,8192
261.052,-8.32667e-17,0,8192,8192
261.102,-8.32667e-17,0,8192,8192
261.152,-5.55112e-17,0,8192,8192
261.201,-2.77556e-17,0,8192,8192
261.251,-2.77556e-17,0,8192,8192
261.301,-2.77556e-17,0,8192,8192
261.351,-2.77556e-17,0,8192,8192
261.401,-2.77556e-17,0,8192,8192
261.45,-2.77556e-17,0,8192,8192
261.5,-2.77556e-17,0,8192,8192
261.55,-2.77556e-17,0,8192,8192
261.603,-2.77556e-17,0,8192,8192
261.653,0,0,8192,8192
261.702,-2.77556e-17,0,8192,8192
261.752,-2.77556e-17,0,8192,8192
261.802,-2.77556e-17,0,8192,8192
261.852,-2.77556e-17,0,8192,8192
261.902,-2.77556e-17,0,8192,8192
261.951,-2.77556e-17,0,8192,8192
262.001,-2.77556e-17,0,8192,8192
262.051,-2.77556e-17,0,8192,8192
262.101,-2.77556e-17,0,8192,8192
262.151,-2.77556e-17,0,8192,8192
262.2,-2.77556e-17,0,8192,8192
262.25,-2.77556e-17,0,8192,8192
262.303,-2.77556e-17,0,8192,8192
262.353,-2.77556e-17,0,8192,8192
262.402,-2.77556e-17,0,8192,8192
262.452,-2.77556e-17,0,8192,8192
262.502,-2.77556e-17,0,8192,8192
262.552,-2.77556e-17,0,8192,8192
262.602,-2.77556e-17,0,8192,8192
262.651,-2.77556e-17,0,8192,8192
262.701,-2.77556e-17,0,8192,8192
262.751,0,0,8192,8192
262.801,0,0,8192,8192
262.851,0,0,8192,8192
262.9,0,0,8192,8192
262.95,-2.77556e-17,0,8192,8192
263,-2.77556e-17,0,8192,8192
263.053,0,0,8192,8192
263.103,0,0,8192,8192
263.152,0,0,8192,8192
263.202,0,0,8192,8192
263.252,0,0,8192,8192
263.302,2.77556e-17,0,8192,8192
263.352,0,0,8192,8192
263.401,0,0,8192,8192
263.451,0,0,8192,8192
263.501,2.77556e-17,0,8192,8192
263.551,5.55112e-17,0,8192,8192
263.601,5.55112e-17,0,8192,8192
263.65,0,0,8192,8192
263.7,0,0,8192,8192
263.753,0,0,8192,8192
263.803,0,0,8192,8192
263.852,0,0,8192,8192
263.902,0,0,8192,8192
263.952,0,0,8192,8192
264.002,0,0,8192,8192
264.052,0,0,8192,8192
264.101,0,0,8192,8192
264.151,0,0,8192,8192
264.201,0,0,8192,8192
264.251,0,0,8192,8192
264.301,2.77556e-17,0,8192,8192
264.35,2.77556e-17,0,8192,8192
264.4,2.77556e-17,0,8192,8192
264.45,2.77556e-17,0,8192,8192
264.503,2.77556e-17,0,8192,8192
264.553,2.77556e-17,0,8192,8192
264.602,2.77556e-17,0,8192,8192
264.652,2.77556e-17,0,8192,8192
264.702,2.77556e-17,0,8192,8192
264.752,2.77556e-17,0,8192,8192
264.802,2.77556e-17,0,8192,8192
264.851,2.77556e-17,0,8192,8192
264.901,2.77556e-17,0,8192,8192
264.951,2.77556e-17,0,8192,8192
265.001,2.77556e-17,0,8192,8192
265.051,2.77556e-17,0,8192,8192
265.1,2.77556e-17,0,8192,8192
265.15,2.77556e-17,0,8192,8192
265.203,2.77556e-17,0,8192,8192
265.253,2.77556e-17,0,8192,8192
265.302,2.77556e-17,0,8192,8192
265.352,2.77556e-17,0,8192,8192
265.402,2.77556e-17,0,8192,8192
265.452,2.77556e-17,0,8192,8192
265.502,2.77556e-17,0,8192,8192
265.551,2.77556e-17,0,8192,8192
265.601,2.77556e-17,0,8192,8192
265.651,2.77556e-17,0,8192,8192
265.701,5.55112e-17,0,8192,8192
265.751,5.55112e-17,0,8192,8192
265.8,2.77556e-17,0,8192,8192
265.85,2.77556e-17,0,8192,8192
265.9,2.77556e-17,0,8192,8192
265.953,2.77556e-17,0,8192,8192
266.003,2.77556e-17,0,8192,8192
266.052,2.77556e-17,0,8192,8192
266.102,2.77556e-17,0,8192,8192
266.152,2.77556e-17,0,8192,8192
266.202,2.77556e-17,0,8192,8192
266.252,2.77556e-17,0,8192,8192
266.301,2.77556e-17,0,8192,8192
266.351,2.77556e-17,0,8192,8192
266.401,2.77556e-17,0,8192,8192
266.451,2.77556e-17,0,8192,8192
266.501,2.77556e-17,0,8192,8192
266.55,2.77556e-17,0,8192,8192
266.6,2.77556e-17,0,8192,8192
266.653,2.77556e-17,0,8192,8192
266.703,2.77556e-17,0,8192,8192
266.752,2.77556e-17,0,8192,8192
266.802,2.77556e-17,0,8192,8192
266.852,2.77556e-17,0,8192,8192
266.902,2.77556e-17,0,8192,8192
266.952,-2.77556e-17,0,8192,8192
267.001,-2.77556e-17,0,8192,8192
267.051,-2.77556e-17,0,8192,8192
267.101,-2.77556e-17,0,8192,8192
267.151,0,0,8192,8192
267.201,0,0,8192,8192
267.25,-2.77556e-17,0,8192,8192
267.3,0,0,8192,8192
267.353,-2.77556e-17,0,8192,8192
267.403,-2.77556e-17,0,8192,8192
267.453,-2.77556e-17,0,8192,8192
267.502,-2.77556e-17,0,8192,8192
267.552,-2.77556e-17,0,8192,8192
267.602,-2.77556e-17,0,8192,8192
267.652,-2.77556e-17,0,8192,8192
267.702,-2.77556e-17,0,8192,8192
267.751,0,0,8192,8192
267.801,0,0,8192,8192
267.851,0,0,8192,8192
267.901,0,0,8192,8192
267.95,0,0,8192,8192
268,0,0,8192,8192
268.05,0,0,8192,8192
268.103,0,0,8192,8192
268.153,0,0,8192,8192
268.202,0,0,8192,8192
268.252,0,0,8192,8192
268.302,0,0,8192,8192
268.352,0,0,8192,8192
268.402,0,0,8192,8192
268.451,0,0,8192,8192
268.501,0,0,8192,8192
268.551,0,0,8192,8192
268.601,0,0,8192,8192
268.651,0,0,8192,8192
268.7,0,0,8192,8192
268.75,0,0,8192,8192
268.803,0,0,8192,8192
268.853,0,0,8192,8192
268.902,0,0,8192,8192
268.952,0,0,8192,8192
269.002,0,0,8192,8192
269.052,0,0,8192,8192
269.102,0,0,8192,8192
269.151,0,0,8192,8192
269.201,0,0,8192,8192
269.251,0,0,8192,8192
269.301,0,0,8192,8192
269.351,0,0,8192,8192
269.4,0,0,8192,8192
269.45,0,0,8192,8192
269.5,0,0,8192,8192
269.553,0,0,8192,8192
269.603,0,0,8192,8192
269.65,0,0,8316,8316
269.701,0,0,8484,8484
269.751,0,0,8628,8628
269.801,0,0,8796,8796
269.851,0,0,8964,8964
269.901,0,0,9132,9132
269.95,0,0,9300,9300
270,0,0,9468,9468
270.051,0,0,9636,9636
270.101,0,0,9780,9780
270.151,0,0,9948,9948
270.201,0,0,10100,10100
270.251,0,0,10284,10284
270.3,0,0,10436,10436
270.35,0,0,10604,10604
270.401,0,0,10772,10772
270.451,0,0,10884,10884
270.501,0,0,11068,11068
270.551,0,0,11220,11220
270.601,0,0,11356,11356
270.65,0,0,11524,11524
270.7,0,0,11668,11668
270.75,0,0,11820,11820
270.801,0,0,11988,11988
270.851,0,0,12132,12132
270.901,0,0,12156,12156
270.951,0,0,12252,12252
271,0,0,12420,12420
271.05,0,0,12588,12588
271.1,0,0,12756,12756
271.151,0,0,12924,12924
271.201,0,0,13092,13092
271.251,0,0,13260,13260
271.301,0,0,13428,13428
271.35,0,0,13596,13596
271.4,0,0,13740,13740
271.45,0,0,13908,13908
271.501,0,0,14076,14076
271.551,0,0,14244,14244
271.601,0,0,14412,14412
271.651,0,0,14580,14580
271.701,0,0,14748,14748
271.75,0,0,14916,14916
271.8,0,0,15060,15060
271.851,0,0,15228,15228
271.901,0,0,15396,15396
271.951,0,0,15564,15564
272.001,0,0,15708,15708
272.051,0,0,15876,15876
272.1,0,0,16044,16044
272.15,0,0,16188,16188
272.201,0,0,16356,16356
272.251,0,0,16524,16524
272.301,0,0,16668,16668
272.351,0,0,16812,16812
272.401,0,0,16980,16980
272.45,0,0,17124,17124
272.5,0,0,17292,17292
272.55,0,0,17436,17436
272.601,0,0,17580,17580
272.651,0,0,17724,17724
272.701,0,0,17772,17772
272.751,0,0,17844,17844
272.8,0,0,17988,17988
272.85,0,0,18156,18156
272.9,0,0,18300,18300
272.951,0,0,18468,18468
273.001,0,0,18612,18612
273.051,0,0,18756,18756
273.101,0,0,18924,18924
273.151,0,0,19068,19068
273.2,0,0,19212,19212
273.25,0,0,19380,19380
273.301,0,0,19524,19524
273.351,0,0,19692,19692
273.401,0,0,19836,19836
273.451,0,0,19980,19980
273.501,0,0,20124,20124
273.55,0,0,20272,20272
273.6,-6.66134e-16,0,20308,20308
273.651,-1.63758e-15,0,20452,20452
273.701,-2.91434e-15,0,20564,20564
273.751,-8.96505e-15,0,20596,20596
273.801,-4.03289e-14,0,20852,20852
273.851,-1.70086e-13,0,21180,21180
273.9,-6.21753e-13,0,21324,21324
273.95,-1.96179e-12,0,21468,21468
274.001,-5.52408e-12,0,21612,21612
274.051,-1.31601e-11,0,21756,21756
274.101,-2.74983e-11,0,21900,21900
274.151,-5.05556e-11,0,22044,22044
274.201,-8.19186e-11,0,22188,22188
274.25,-1.16969e-10,0,22332,22332
274.3,-1.4675e-10,0,22476,22476
274.35,-1.60594e-10,0,22620,22620
274.401,-1.5023e-10,0,22764,22764
274.451,-1.16205e-10,0,22884,22884
274.501,-6.70205e-11,0,23028,23028
274.551,-1.5731e-11,0,23172,23172
274.6,2.62343e-11,0,23316,23316
274.65,5.39757e-11,0,23460,23460
274.7,6.97363e-11,0,23580,23580
274.751,7.96051e-11,0,23724,23724
274.801,8.78004e-11,0,23868,23868
274.851,9.56507e-11,0,23988,23988
274.901,1.01562e-10,0,24132,24132
274.951,1.0423e-10,0,24276,24276
275,1.04555e-10,0,24396,24396
275.05,1.05071e-10,0,24540,24540
275.101,1.07844e-10,0,24684,24684
275.151,1.12347e-10,0,24804,24804
275.201,1.16351e-10,0,24948,24948
275.251,1.17786e-10,0,25092,25092
275.301,1.1667e-10,0,25212,25212
275.35,1.15145e-10,0,25356,25356
275.4,1.15636e-10,0,25476,25476
275.451,1.18851e-10,0,25620,25620
275.501,1.22869e-10,0,25764,25764
275.551,1.25646e-10,0,25884,25884
275.601,1.27109e-10,0,26028,26028
275.651,1.29354e-10,0,26148,26148
275.7,1.3328e-10,0,26292,26292
275.75,1.34283e-10,0,26412,26412
275.8,1.22992e-10,0,26556,26556
275.851,9.49355e-11,0,26676,26676
275.901,7.25235e-11,0,26820,26820
275.951,1.10721e-10,0,26940,26940
276.001,2.88808e-10,0,27084,27084
276.05,6.74119e-10,0,27204,27204
276.1,2.27786e-09,0,27348,27348
276.15,6.08212e-09,0,27468,27468
276.201,1.15614e-08,0,27612,27612
276.251,1.74344e-08,0,27732,27732
276.301,2.28879e-08,0,27876,27876
276.351,2.73906e-08,0,27996,27996
276.401,3.10012e-08,0,28116,28116
276.45,3.43645e-08,0,28260,28260
276.5,3.84955e-08,0,28380,28380
276.551,4.45942e-08,0,28524,28524
276.601,5.29315e-08,0,28644,28644
276.651,6.37985e-08,0,28764,28764
276.701,7.71835e-08,0,28908,28908
276.751,9.33313e-08,0,29028,29028
276.8,1.12961e-07,0,29172,29172
276.85,1.3714e-07,0,29292,29292
276.901,1.67893e-07,0,29412,29412
276.951,2.04098e-07,0,29556,29556
277.001,2.46421e-07,0,29676,29676
277.051,2.93938e-07,0,29796,29796
277.101,3.45268e-07,0,29940,29940
277.15,3.99218e-07,0,30060,30060
277.2,4.55333e-07,0,30180,30180
277.25,5.13811e-07,0,30300,30300
277.301,5.76556e-07,0,30444,30444
277.351,6.3898e-07,0,30564,30564
277.401,7.00486e-07,0,30684,30684
277.451,7.57896e-07,0,30804,30804
277.5,8.0816e-07,0,30924,30924
277.55,8.49166e-07,0,31044,31044
277.6,8.8014e-07,0,31164,31164
277.651,9.02115e-07,0,31308,31308
277.701,9.15341e-07,0,31428,31428
277.751,9.2235e-07,0,31548,31548
277.801,9.24583e-07,0,31668,31668
277.851,9.22791e-07,0,31764,31764
277.9,9.16991e-07,0,31884,31884
277.95,9.06625e-07,0,31980,31980
278.001,8.90242e-07,0,32076,32076
278.051,8.67766e-07,0,32172,32172
278.101,8.38003e-07,0,32268,32268
278.151,8.00625e-07,0,32364,32364
278.201,7.56091e-07,0,32460,32460
278.25,7.05803e-07,0,32556,32556
278.3,6.51934e-07,0,32652,32652
278.351,5.95332e-07,0,32768,32768
278.401,5.41454e-07,0,32768,32768
278.451,4.90193e-07,0,32768,32768
278.501,4.4232e-07,0,32768,32768
278.551,3.97986e-07,0,32768,32768
278.6,3.56912e-07,0,32768,32768
278.65,3.1862e-07,0,32768,32768
278.701,2.81634e-07,0,32768,32768
278.751,2.47894e-07,0,32768,32768
278.801,2.16605e-07,0,32768,32768
278.851,1.885e-07,0,32768,32768
278.901,1.64374e-07,0,32768,32768
278.95,1.44485e-07,0,32768,32768
279,1.28149e-07,0,32768,32768
279.05,1.1395e-07,0,32768,32768
279.101,1.00122e-07,0,32768,32768
279.151,8.68829e-08,0,32768,32768
279.201,7.42606e-08,0,32768,32768
279.251,6.31649e-08,0,32768,32768
279.3,5.42932e-08,0,32768,32768
279.35,4.77035e-08,0,32768,32768
279.4,4.28008e-08,0,32768,32768
279.451,3.85045e-08,0,32768,32768
279.501,3.4159e-08,0,32768,32768
279.551,2.92719e-08,0,32768,32768
279.601,2.41827e-08,0,32768,32768
279.651,1.97293e-08,0,32768,32768
279.7,1.67382e-08,0,32768,32768
279.75,1.55609e-08,0,32768,32768
279.801,1.60035e-08,0,32768,32768
279.851,1.74852e-08,0,32768,32768
279.901,1.9497e-08,0,32768,32768
279.951,2.17673e-08,0,32768,32768
280.001,2.42307e-08,0,32768,32768
280.05,2.69073e-08,0,32768,32768
280.1,2.98012e-08,0,32768,32768
280.151,3.29599e-08,0,32768,32768
280.201,3.61416e-08,0,32768,32768
280.251,3.9421e-08,0,32768,32768
280.301,4.28491e-08,0,32768,32768
280.351,4.64867e-08,0,32768,32768
280.4,5.03434e-08,0,32768,32768
280.45,5.43757e-08,0,32768,32768
280.5,5.8527e-08,0,32768,32768
280.551,6.28835e-08,0,32768,32768
280.601,6.71798e-08,0,32768,32768
280.651,7.15486e-08,0,32768,32768
280.701,7.60507e-08,0,32768,32768
280.75,8.08374e-08,0,32768,32768
280.8,8.61402e-08,0,32768,32768
280.85,9.2174e-08,0,32768,32768
280.901,9.92203e-08,0,32768,32768
280.951,1.06727e-07,0,32768,32768
281.001,1.14562e-07,0,32768,32768
281.051,1.22366e-07,0,32768,32768
281.101,1.29894e-07,0,32768,32768
281.15,1.37139e-07,0,32768,32768
281.2,1.44356e-07,0,32768,32768
281.251,1.52239e-07,0,32768,32768
281.301,1.60891e-07,0,32768,32768
281.351,1.71044e-07,0,32768,32768
281.401,1.83142e-07,0,32768,32768
281.451,1.97595e-07,0,32768,32768
281.5,2.14834e-07,0,32768,32768
281.55,2.35362e-07,0,32768,32768
281.601,2.60491e-07,0,32768,32768
281.651,2.8925e-07,0,32768,32768
281.701,3.22525e-07,0,32768,32768
281.751,3.60223e-07,0,32768,32768
281.801,4.01929e-07,0,32768,32768
281.85,4.47009e-07,0,32768,32768
281.9,4.9476e-07,0,32768,32768
281.95,5.44502e-07,0,32768,32768
282.001,5.97056e-07,0,32768,32768
282.051,6.48538e-07,0,32768,32768
282.101,6.99239e-07,0,32768,32768
282.151,7.47572e-07,0,32768,32768
282.2,7.91694e-07,0,32768,32768
282.25,8.29796e-07,0,32768,32768
282.3,8.60444e-07,0,32768,32768
282.351,8.8337e-07,0,32768,32768
282.401,8.97188e-07,0,32768,32768
282.451,9.03212e-07,0,32768,32768
282.501,9.0232e-07,0,32768,32768
282.55,8.95432e-07,0,32768,32768
282.6,8.83263e-07,0,32768,32768
282.65,8.66174e-07,0,32768,32768
282.701,8.4344e-07,0,32768,32768
282.751,8.16086e-07,0,32768,32768
282.801,7.83177e-07,0,32768,32768
282.851,7.4448e-07,0,32768,32768
282.901,7.00082e-07,0,32768,32768
282.95,6.50527e-07,0,32768,32768
283,5.9685e-07,0,32768,32768
283.051,5.38805e-07,0,32768,32768
283.101,4.8139e-07,0,32768,32768
283.151,4.24575e-07,0,32768,32768
283.201,3.69697e-07,0,32768,32768
283.251,3.17698e-07,0,32768,32768
283.3,2.69098e-07,0,32768,32768
283.35,2.24065e-07,0,32768,32768
283.401,1.81381e-07,0,32768,32768
283.451,1.43372e-07,0,32768,32768
283.501,1.08717e-07,0,32768,32768
283.551,7.74858e-08,0,32768,32768
283.601,4.98183e-08,0,32768,32768
283.65,2.58038e-08,0,32768,32768
283.7,5.34634e-09,0,32768,32768
283.75,-1.18968e-08,0,32768,32768
283.801,-2.68463e-08,0,32768,32768
283.851,-3.92082e-08,0,32768,32768
283.901,-4.98345e-08,0,32768,32768
283.951,-5.88751e-08,0,32768,32768
284,-6.62954e-08,0,32768,32768
284.05,-7.20251e-08,0,32768,32768
284.1,-7.61093e-08,0,32768,32768
284.151,-7.8838e-08,0,32768,32768
284.201,-8.04315e-08,0,32768,32768
284.251,-8.13594e-08,0,32768,32768
284.301,-8.18604e-08,0,32768,32768
284.351,-8.197e-08,0,32768,32768
284.4,-8.15538e-08,0,32768,32768
284.45,-8.0419e-08,0,32768,32768
284.501,-7.83706e-08,0,32768,32768
284.551,-7.55499e-08,0,32768,32768
284.601,-7.20791e-08,0,32768,32768
284.651,-6.82051e-08,0,32768,32768
284.701,-6.41775e-08,0,32768,32768
284.75,-6.01961e-08,0,32768,32768
284.8,-5.63967e-08,0,32768,32768
284.851,-5.27616e-08,0,32768,32768
284.901,-4.95439e-08,0,32768,32768
284.951,-4.66536e-08,0,32768,32768
285.001,-4.40873e-08,0,32768,32768
285.051,-4.18248e-08,0,32768,32768
285.1,-3.98375e-08,0,32768,32768
285.15,-3.80975e-08,0,32768,32768
285.2,-3.65849e-08,0,32768,32768
285.251,-3.52529e-08,0,32768,32768
285.301,-3.41698e-08,0,32768,32768
285.351,-3.32861e-08,0,32768,32768
285.401,-3.25902e-08,0,32768,32768
285.45,-3.20662e-08,0,32768,32768
285.5,-3.16958e-08,0,32768,32768
285.55,-3.14597e-08,0,32768,32768
285.601,-3.13364e-08,0,32768,32768
285.651,-3.13136e-08,0,32768,32768
285.701,-3.13686e-08,0,32768,32768
285.751,-3.14853e-08,0,32768,32768
285.801,-3.16494e-08,0,32768,32768
285.85,-3.18488e-08,0,32768,32768
285.9,-3.20735e-08,0,32768,32768
285.951,-3.23232e-08,0,32768,32768
286.001,-3.25769e-08,0,32768,32768
286.051,-3.28358e-08,0,32768,32768
286.101,-3.30951e-08,0,32768,32768
286.151,-3.33499e-08,0,32768,32768
286.2,-3.35966e-08,0,32768,32768
286.25,-3.3832e-08,0,32768,32768
286.301,-3.40608e-08,0,32768,32768
286.351,-3.42689e-08,0,32768,32768
286.401,-3.44622e-08,0,32768,32768
286.451,-3.46401e-08,0,32768,32768
286.501,-3.48015e-08,0,32768,32768
286.55,-3.4945e-08,0,32768,32768
286.6,-3.50689e-08,0,32768,32768
286.651,-3.51749e-08,0,32768,32768
286.701,-3.5256e-08,0,32768,32768
286.751,-3.53155e-08,0,32768,32768
286.801,-3.5354e-08,0,32768,32768
286.851,-3.53725e-08,0,32768,32768
286.9,-3.53726e-08,0,32768,32768
286.95,-3.53562e-08,0,32768,32768
287,-3.53251e-08,0,32768,32768
287.051,-3.52803e-08,0,32768,32768
287.101,-3.52265e-08,0,32768,32768
287.151,-3.51648e-08,0,32768,32768
287.201,-3.50972e-08,0,32768,32768
287.25,-3.50256e-08,0,32768,32768
287.3,-3.49514e-08,0,32768,32768
287.35,-3.48762e-08,0,32768,32768
287.401,-3.47988e-08,0,32768,32768
287.451,-3.4725e-08,0,32768,32768
287.501,-3.46535e-08,0,32768,32768
287.551,-3.45852e-08,0,32768,32768
287.601,-3.45209e-08,0,32768,32768
287.65,-3.44612e-08,0,32768,32768
287.7,-3.44068e-08,0,32768,32768
287.751,-3.43568e-08,0,32768,32768
287.801,-3.43144e-08,0,32768,32768
287.851,-3.42784e-08,0,32768,32768
287.901,-3.4249e-08,0,32768,32768
287.951,-3.42263e-08,0,32768,32768
288,-3.42104e-08,0,32768,32768
288.05,-3.42014e-08,0,32768,32768
288.101,-3.41995e-08,0,32768,32768
288.151,-3.4205e-08,0,32768,32768
288.201,-3.42176e-08,0,32768,32768
288.251,-3.42376e-08,0,32768,32768
288.301,-3.42648e-08,0,32768,32768
288.35,-3.42993e-08,0,32768,32768
288.4,-3.43409e-08,0,32768,32768
288.45,-3.43894e-08,0,32768,32768
288.501,-3.44463e-08,0,32768,32768
288.551,-3.45085e-08,0,32768,32768
288.601,-3.45774e-08,0,32768,32768
288.651,-3.46534e-08,0,32768,32768
288.7,-3.47371e-08,0,32768,32768
288.75,-3.48291e-08,0,32768,32768
288.8,-3.49307e-08,0,32768,32768
288.851,-3.50466e-08,0,32768,32768
288.901,-3.51718e-08,0,32768,32768
288.951,-3.53111e-08,0,32768,32768
289.001,-3.54663e-08,0,32768,32768
289.051,-3.56393e-08,0,32768,32768
289.1,-3.5832e-08,0,32768,32768
289.15,-3.60459e-08,0,32768,32768
289.201,-3.62895e-08,0,32768,32768
289.251,-3.655e-08,0,32768,32768
289.301,-3.68345e-08,0,32768,32768
289.351,-3.71427e-08,0,32768,32768
289.401,-3.7474e-08,0,32768,32768
289.45,-3.78269e-08,0,32768,32768
289.5,-3.81993e-08,0,32768,32768
289.551,-3.85997e-08,0,32768,32768
289.601,-3.90017e-08,0,32768,32768
289.651,-3.94121e-08,0,32768,32768
289.701,-3.98265e-08,0,32768,32768
289.751,-4.024e-08,0,32768,32768
289.8,-4.06481e-08,0,32768,32768
289.85,-4.10462e-08,0,32768,32768
289.901,-4.14414e-08,0,32768,32768
289.951,-4.1807e-08,0,32768,32768
290.001,-4.21509e-08,0,32768,32768
290.051,-4.24694e-08,0,32768,32768
290.101,-4.27591e-08,0,32768,32768
290.15,-4.30166e-08,0,32768,32768
290.2,-4.32389e-08,0,32768,32768
290.25,-4.3423e-08,0,32768,32768
290.301,-4.35703e-08,0,32768,32768
290.351,-4.36706e-08,0,32768,32768
290.401,-4.37275e-08,0,32768,32768
290.451,-4.37408e-08,0,32768,32768
290.5,-4.37103e-08,0,32768,32768
290.55,-4.36367e-08,0,32768,32768
290.6,-4.35205e-08,0,32768,32768
290.651,-4.33572e-08,0,32768,32768
290.701,-4.31569e-08,0,32768,32768
290.751,-4.29159e-08,0,32768,32768
290.801,-4.26345e-08,0,32768,32768
290.851,-4.23126e-08,0,32768,32768
290.9,-4.19498e-08,0,32768,32768
290.95,-4.15457e-08,0,32768,32768
291.001,-4.10861e-08,0,32768,32768
291.051,-4.05967e-08,0,32768,32768
291.101,-4.00647e-08,0,32768,32768
291.151,-3.94901e-08,0,32768,32768
291.201,-3.88732e-08,0,32768,32768
291.25,-3.82147e-08,0,32768,32768
291.3,-3.75159e-08,0,32768,32768
291.351,-3.67568e-08,0,32768,32768
291.401,-3.59839e-08,0,32768,32768
291.451,-3.51799e-08,0,32768,32768
291.501,-3.43497e-08,0,32768,32768
291.551,-3.34988e-08,0,32768,32768
291.6,-3.26329e-08,0,32768,32768
291.65,-3.17583e-08,0,32768,32768
291.7,-3.08809e-08,0,32768,32768
291.751,-2.99807e-08,0,32768,32768
291.801,-2.91147e-08,0,32768,32768
291.851,-2.82621e-08,0,32768,32768
291.901,-2.74276e-08,0,32768,32768
291.95,-2.66155e-08,0,32768,32768
292,-2.58302e-08,0,32768,32768
292.05,-2.50757e-08,0,32768,32768
292.101,-2.43353e-08,0,32768,32768
292.151,-2.3655e-08,0,32768,32768
292.201,-2.30163e-08,0,32768,32768
292.251,-2.24213e-08,0,32768,32768
292.301,-2.18719e-08,0,32768,32768
292.35,-2.13685e-08,0,32768,32768
292.4,-2.09109e-08,0,32768,32768
292.451,-2.04865e-08,0,32768,32768
292.501,-2.01178e-08,0,32768,32768
292.551,-1.97895e-08,0,32768,32768
292.601,-1.9499e-08,0,32768,32768
292.651,-1.92435e-08,0,32768,32768
292.7,-1.902e-08,0,32768,32768
292.75,-1.88254e-08,0,32768,32768
292.801,-1.86522e-08,0,32768,32768
292.851,-1.85073e-08,0,32768,32768
292.901,-1.83824e-08,0,32768,32768
292.951,-1.82748e-08,0,32768,32768
293.001,-1.81818e-08,0,32768,32768
293.05,-1.81011e-08,0,32768,32768
293.1,-1.80304e-08,0,32768,32768
293.15,-1.79679e-08,0,32768,32768
293.201,-1.79102e-08,0,32768,32768
293.251,-1.7859e-08,0,32768,32768
293.301,-1.78114e-08,0,32768,32768
293.351,-1.77662e-08,0,32768,32768
293.4,-1.77226e-08,0,32768,32768
293.45,-1.76798e-08,0,32768,32768
293.5,-1.76371e-08,0,32768,32768
293.551,-1.75924e-08,0,32768,32768
293.601,-1.75471e-08,0,32768,32768
293.651,-1.74989e-08,0,32768,32768
293.701,-1.74466e-08,0,32768,32768
293.75,-1.73888e-08,0,32768,32768
293.8,-1.73245e-08,0,32768,32768
293.85,-1.72526e-08,0,32768,32768
293.901,-1.71701e-08,0,32768,32768
293.951,-1.70811e-08,0,32768,32768
294.001,-1.69829e-08,0,32768,32768
294.051,-1.68757e-08,0,32768,32768
294.101,-1.67595e-08,0,32768,32768
294.15,-1.66348e-08,0,32768,32768
294.2,-1.65024e-08,0,32768,32768
294.251,-1.63589e-08,0,32768,32768
294.301,-1.62134e-08,0,32768,32768
294.351,-1.60628e-08,0,32768,32768
294.401,-1.59081e-08,0,32768,32768
294.451,-1.57501e-08,0,32372,32372
294.5,-1.55896e-08,0,32632,32632
294.55,-1.54277e-08,0,32656,32656
294.601,-1.52602e-08,0,32672,32672
294.651,-1.50973e-08,0,32672,32672
294.701,-1.49342e-08,0,32672,32672
294.751,-1.47703e-08,0,32672,32672
294.801,-1.46044e-08,0,32672,32672
294.85,-1.4435e-08,0,32672,32672
294.9,-1.42602e-08,0,32640,32640
294.95,-1.40787e-08,0,32616,32616
295.001,-1.38836e-08,0,32592,32592
295.051,-1.36856e-08,0,32584,32584
295.101,-1.34794e-08,0,32584,32584
295.151,-1.32653e-08,0,32560,32560
295.2,-1.30437e-08,0,32560,32560
295.25,-1.28146e-08,0,32536,32536
295.3,-1.25775e-08,0,32536,32536
295.351,-1.23237e-08,0,32536,32536
295.401,-1.20656e-08,0,32512,32512
295.451,-1.17937e-08,0,32512,32512
295.501,-1.15051e-08,0,32536,32536
295.551,-1.1197e-08,0,32520,32520
295.6,-1.08667e-08,0,32520,32520
295.65,-1.05121e-08,0,32520,32520
295.701,-1.01196e-08,0,32536,32536
295.751,-9.71026e-09,0,32536,32536
295.801,-9.27221e-09,0,32512,32512
295.851,-8.80463e-09,0,32512,32512
295.901,-8.30693e-09,0,32520,32520
295.95,-7.77882e-09,0,32536,32536
296,-7.22043e-09,0,32536,32536
296.051,-6.61479e-09,0,32512,32512
296.101,-5.9981e-09,0,32512,32512
296.151,-5.35595e-09,0,32496,32496
296.201,-4.69165e-09,0,32488,32488
296.251,-4.00927e-09,0,32464,32464
296.3,-3.31294e-09,0,32472,32472
296.35,-2.60389e-09,0,32488,32488
296.4,-1.87588e-09,0,32464,32464
296.451,-1.09453e-09,0,32472,32472
296.501,-2.90619e-10,0,32464,32464
296.551,3.56544e-10,0,32472,32472
296.601,7.82323e-10,0,32464,32464
296.65,1.30634e-09,0,32472,32472
296.7,2.12251e-09,0,32464,32464
296.75,2.75679e-09,0,32448,32448
296.801,3.34482e-09,0,32464,32464
296.851,3.87528e-09,0,32448,32448
296.901,4.36909e-09,0,32464,32464
296.951,4.82244e-09,0,32464,32464
297.001,5.23332e-09,0,32440,32440
297.05,5.60041e-09,0,32464,32464
297.1,5.92328e-09,0,32448,32448
297.151,6.20915e-09,0,32440,32440
297.201,6.44254e-09,0,32448,32448
297.251,6.63382e-09,0,32440,32440
297.301,6.78509e-09,0,32440,32440
297.351,6.89911e-09,0,32440,32440
297.4,6.97906e-09,0,32440,32440
297.45,7.02773e-09,0,32440,32440
297.501,7.04859e-09,0,32440,32440
297.551,7.04378e-09,0,32440,32440
297.601,7.01727e-09,0,32416,32416
297.651,6.97179e-09,0,32440,32440
297.701,6.91048e-09,0,32440,32440
297.75,6.83603e-09,0,32424,32424
297.8,6.75056e-09,0,32440,32440
297.851,6.65378e-09,0,32440,32440
297.901,6.55325e-09,0,32440,32440
297.951,6.44799e-09,0,32440,32440
298.001,6.33952e-09,0,32448,32448
298.051,6.22977e-09,0,32440,32440
298.1,6.12003e-09,0,32440,32440
298.15,6.01113e-09,0,32440,32440
298.2,5.90379e-09,0,32464,32464
298.251,5.79567e-09,0,32448,32448
298.301,5.69359e-09,0,32440,32440
298.351,5.59537e-09,0,32464,32464
298.401,5.50194e-09,0,32464,32464
298.45,5.41411e-09,0,32448,32448
298.5,5.33247e-09,0,32464,32464
298.55,5.25774e-09,0,32464,32464
298.601,5.18843e-09,0,32464,32464
298.651,5.12873e-09,0,32464,32464
298.701,5.0766e-09,0,32464,32464
298.751,5.03186e-09,0,32464,32464
298.801,4.9941e-09,0,32464,32464
298.85,4.9627e-09,0,32464,32464
298.9,4.9368e-09,0,32464,32464
298.951,4.91468e-09,0,32464,32464
299.001,4.89641e-09,0,32464,32464
299.051,4.88012e-09,0,32464,32464
299.101,4.86464e-09,0,32464,32464
299.151,4.8488e-09,0,32464,32464
299.2,4.83155e-09,0,32464,32464
299.25,4.81182e-09,0,32464,32464
299.301,4.78786e-09,0,32464,32464
299.351,4.76025e-09,0,32440,32440
299.401,4.72792e-09,0,32440,32440
299.451,4.69083e-09,0,32448,32448
299.501,4.64932e-09,0,32464,32464
299.55,4.60409e-09,0,32440,32440
299.6,4.55601e-09,0,32440,32440
299.65,4.50616e-09,0,32440,32440
299.701,4.45413e-09,0,32424,32424
299.751,4.40373e-09,0,32424,32424
299.801,4.35394e-09,0,32424,32424
299.851,4.30508e-09,0,32424,32424
299.9,4.25724e-09,0,32416,32416
299.95,4.21034e-09,0,32416,32416
300,4.16431e-09,0,32416,32416
300.051,4.11798e-09,0,32416,32416
300.101,4.07437e-09,0,32392,32392
300.151,4.0327e-09,0,32416,32416
300.201,3.99371e-09,0,32416,32416
300.251,3.95809e-09,0,32392,32392
300.3,3.92646e-09,0,32392,32392
300.35,3.89917e-09,0,32392,32392
300.401,3.87564e-09,0,32392,32392
300.451,3.85694e-09,0,32392,32392
300.501,3.8418e-09,0,32368,32368
300.551,3.82953e-09,0,32368,32368
300.601,3.81936e-09,0,32376,32376
300.65,3.81056e-09,0,32368,32368
300.7,3.8025e-09,0,32352,32352
300.751,3.79451e-09,0,32368,32368
300.801,3.78664e-09,0,32344,32344
300.851,3.77833e-09,0,32352,32352
300.901,3.7693e-09,0,32344,32344
300.951,3.75931e-09,0,32344,32344
301,3.74818e-09,0,32320,32320
301.05,3.73583e-09,0,32328,32328
301.1,3.72216e-09,0,32328,32328
301.151,3.70674e-09,0,32304,32304
301.201,3.69056e-09,0,32304,32304
301.251,3.67331e-09,0,32304,32304
301.301,3.65503e-09,0,32296,32296
301.35,3.63578e-09,0,32272,32272
301.4,3.61559e-09,0,32272,32272
301.45,3.59453e-09,0,32272,32272
301.501,3.57199e-09,0,32272,32272
301.551,3.54936e-09,0,32256,32256
301.601,3.52611e-09,0,32256,32256
301.651,3.50234e-09,0,32248,32248
301.701,3.47812e-09,0,32248,32248
301.75,3.45344e-09,0,32248,32248
301.8,3.42823e-09,0,32248,32248
301.851,3.40165e-09,0,32248,32248
301.901,3.37513e-09,0,32232,32232
301.951,3.3479e-09,0,32232,32232
302.001,3.31995e-09,0,32224,32224
302.051,3.29131e-09,0,32224,32224
302.1,3.26204e-09,0,32224,32224
302.15,3.23225e-09,0,32224,32224
302.201,3.20117e-09,0,32224,32224
302.251,3.17067e-09,0,32224,32224
302.301,3.13994e-09,0,32224,32224
302.351,3.10906e-09,0,32224,32224
302.401,3.07807e-09,0,32224,32224
302.45,3.04702e-09,0,32224,32224
302.5,3.01593e-09,0,32224,32224
302.551,2.98388e-09,0,32224,32224
302.601,2.95269e-09,0,32200,32200
302.651,2.92147e-09,0,32200,32200
302.701,2.89021e-09,0,32200,32200
302.751,2.8589e-09,0,32200,32200
302.8,2.82753e-09,0,32200,32200
302.85,2.79609e-09,0,32200,32200
302.9,2.76453e-09,0,32200,32200
302.951,2.73191e-09,0,32208,32208
303.001,2.70005e-09,0,32340,32340
303.051,2.66799e-09,0,32508,32508
303.101,2.63568e-09,0,32676,32676
303.15,2.6031e-09,0,32768,32768
303.2,2.57023e-09,0,32768,32768
303.25,2.53701e-09,0,32768,32768
303.301,2.5024e-09,0,32768,32768
303.351,2.46838e-09,0,32768,32768
303.401,2.43393e-09,0,32768,32768
303.451,2.39896e-09,0,32768,32768
303.501,2.36334e-09,0,32768,32768
303.55,2.32712e-09,0,32768,32768
303.6,2.29037e-09,0,32768,32768
303.651,2.25199e-09,0,32768,32768
303.701,2.21415e-09,0,32768,32768
303.751,2.17573e-09,0,32768,32768
303.801,2.13677e-09,0,32768,32768
303.851,2.09728e-09,0,32768,32768
303.9,2.05731e-09,0,32768,32768
303.95,2.0169e-09,0,32768,32768
304.001,1.97487e-09,0,32768,32768
304.051,1.93366e-09,0,32768,32768
304.101,1.89208e-09,0,32768,32768
304.151,1.85018e-09,0,32768,32768
304.201,1.808e-09,0,32768,32768
304.25,1.76563e-09,0,32768,32768
304.3,1.72311e-09,0,32768,32768
304.35,1.68052e-09,0,32768,32768
304.401,1.63666e-09,0,32768,32768
304.451,1.5941e-09,0,32768,32768
304.501,1.55165e-09,0,32768,32768
304.551,1.50939e-09,0,32768,32768
304.6,1.46735e-09,0,32768,32768
304.65,1.42561e-09,0,32768,32768
304.7,1.38422e-09,0,32768,32768
304.751,1.34204e-09,0,32768,32768
304.801,1.30152e-09,0,32768,32768
304.851,1.26151e-09,0,32768,32768
304.901,1.22204e-09,0,32768,32768
304.951,1.18315e-09,0,32768,32768
