250,0,0,512,512
250.012,0,0,512,512
250.059,0,0,512,512
250.105,0,0,512,512
250.152,0,0,512,512
250.211,0,0,512,512
250.258,0,0,512,512
250.305,0,0,512,512
250.352,0,0,512,512
250.41,0,0,512,512
250.457,0,0,512,512
250.504,0,0,512,512
250.551,0,0,512,512
250.609,0,0,512,512
250.656,0,0,512,512
250.703,0,0,512,512
250.762,0,0,512,512
250.808,0,0,512,512
250.855,0,0,512,512
250.902,0,0,512,512
250.961,0,0,512,512
251.008,0,0,512,512
251.055,0,0,512,512
251.101,0,0,512,512
251.16,0,0,512,512
251.207,0,0,512,512
251.254,0,0,512,512
251.301,0,0,512,512
251.359,0,0,512,512
251.406,0,0,512,512
251.453,0,0,512,512
251.511,0,0,512,512
251.558,0,0,512,512
251.605,0,0,512,512
251.652,0,0,512,512
251.711,0,0,512,512
251.758,0,0,512,512
251.804,0,0,512,512
251.851,0,0,512,512
251.91,0,0,512,512
251.957,0,0,512,512
252.004,0,0,512,512
252.05,0,0,512,512
252.109,0,0,512,512
252.156,0,0,512,512
252.203,0,0,512,512
252.261,0,0,512,512
252.308,0,0,512,512
252.355,0,0,512,512
252.402,0,0,512,512
252.461,0,0,512,512
252.507,0,0,512,512
252.554,0,0,512,512
252.601,0,0,512,512
252.66,0,0,512,512
252.707,0,0,512,512
252.754,0,0,512,512
252.8,0,0,512,512
252.859,0,0,512,512
252.906,0,0,512,512
252.953,0,0,512,512
253.011,0,0,512,512
253.058,0,0,512,512
253.105,0,0,512,512
253.152,0,0,512,512
253.21,0,0,512,512
253.257,-1.38778e-17,0,512,512
253.304,-1.38778e-17,0,512,512
253.351,-1.38778e-17,0,512,512
253.41,-1.38778e-17,0,512,512
253.457,-1.38778e-17,0,512,512
253.503,-1.38778e-17,0,512,512
253.55,-1.38778e-17,0,512,512
253.609,-1.38778e-17,0,512,512
253.656,-1.38778e-17,0,512,512
253.703,-1.38778e-17,0,512,512
253.761,-1.38778e-17,0,512,512
253.808,-1.38778e-17,0,512,512
253.855,-1.38778e-17,0,512,512
253.902,-1.38778e-17,0,512,512
253.96,-1.38778e-17,0,512,512
254.007,-1.38778e-17,0,512,512
254.054,-1.38778e-17,0,512,512
254.101,-1.38778e-17,0,512,512
254.16,-1.38778e-17,0,512,512
254.206,-1.38778e-17,0,512,512
254.253,0,0,512,512
254.3,1.38778e-17,0,512,512
254.359,1.38778e-17,0,512,512
254.406,1.38778e-17,0,512,512
254.452,2.77556e-17,0,512,512
254.511,2.77556e-17,0,512,512
254.558,1.38778e-17,0,512,512
254.605,0,0,512,512
254.652,0,0,512,512
254.71,0,0,512,512
254.757,0,0,512,512
254.804,0,0,512,512
254.851,0,0,512,512
254.909,0,0,512,512
254.956,0,0,512,512
255.003,0,0,512,512
255.05,-1.38778e-17,0,512,512
255.109,-1.38778e-17,0,512,512
255.155,-1.38778e-17,0,512,512
255.202,-2.77556e-17,0,512,512
255.261,-2.77556e-17,0,512,512
255.308,-2.77556e-17,0,512,512
255.355,-2.77556e-17,0,512,512
255.402,-2.77556e-17,0,512,512
255.46,-1.38778e-17,0,512,512
255.507,-1.38778e-17,0,512,512
255.554,-1.38778e-17,0,512,512
255.601,-1.38778e-17,0,512,512
255.659,-1.38778e-17,0,512,512
255.706,-1.38778e-17,0,512,512
255.753,-1.38778e-17,0,512,512
255.812,-1.38778e-17,0,512,512
255.859,-1.38778e-17,0,512,512
255.905,-1.38778e-17,0,512,512
255.952,-1.38778e-17,0,512,512
256.011,0,0,512,512
256.058,1.38778e-17,0,512,512
256.105,1.38778e-17,0,512,512
256.151,1.38778e-17,0,512,512
256.21,1.38778e-17,0,512,512
256.257,1.38778e-17,0,512,512
256.304,1.38778e-17,0,512,512
256.351,1.38778e-17,0,512,512
256.409,1.38778e-17,0,512,512
256.456,1.38778e-17,0,512,512
256.503,1.38778e-17,0,512,512
256.562,1.38778e-17,0,512,512
256.608,1.38778e-17,0,512,512
256.655,1.38778e-17,0,512,512
256.702,1.38778e-17,0,512,512
256.761,0,0,512,512
256.808,0,0,512,512
256.854,0,0,512,512
256.901,0,0,512,512
256.96,0,0,512,512
257.007,0,0,512,512
257.054,0,0,512,512
257.101,0,0,512,512
257.159,0,0,512,512
257.206,0,0,512,512
257.253,0,0,512,512
257.311,0,0,512,512
257.358,1.38778e-17,0,512,512
257.405,0,0,512,512
257.452,0,0,512,512
257.511,1.38778e-17,0,512,512
257.557,0,0,512,512
257.604,0,0,512,512
257.651,0,0,512,512
257.71,1.38778e-17,0,512,512
257.757,0,0,512,512
257.804,0,0,512,512
257.85,1.38778e-17,0,512,512
257.909,0,0,512,512
257.956,0,0,512,512
258.003,0,0,512,512
258.061,0,0,512,512
258.108,0,0,512,512
258.155,0,0,512,512
258.202,0,0,512,512
258.261,0,0,512,512
258.307,0,0,512,512
258.354,0,0,512,512
258.401,0,0,512,512
258.46,0,0,512,512
258.507,-1.38778e-17,0,512,512
258.553,-1.38778e-17,0,512,512
258.6,-1.38778e-17,0,512,512
258.659,-1.38778e-17,0,512,512
258.706,-1.38778e-17,0,512,512
258.753,-1.38778e-17,0,512,512
258.811,-1.38778e-17,0,512,512
258.858,-1.38778e-17,0,512,512
258.905,-1.38778e-17,0,512,512
258.952,-1.38778e-17,0,512,512
259.01,-1.38778e-17,0,512,512
259.057,-1.38778e-17,0,512,512
259.104,-1.38778e-17,0,512,512
259.151,-1.38778e-17,0,512,512
259.21,1.38778e-17,0,512,512
259.256,1.38778e-17,0,512,512
259.303,1.38778e-17,0,512,512
259.35,2.77556e-17,0,512,512
259.409,2.77556e-17,0,512,512
259.456,2.77556e-17,0,512,512
259.503,2.77556e-17,0,512,512
259.561,2.77556e-17,0,512,512
259.608,2.77556e-17,0,512,512
259.655,2.77556e-17,0,512,512
259.702,2.77556e-17,0,512,512
259.76,2.77556e-17,0,512,512
259.807,2.77556e-17,0,512,512
259.854,2.77556e-17,0,512,512
259.901,2.77556e-17,0,512,512
259.959,2.77556e-17,0,512,512
260.006,2.77556e-17,0,512,512
260.053,2.77556e-17,0,512,512
260.1,2.77556e-17,0,512,512
260.159,2.77556e-17,0,512,512
260.206,2.77556e-17,0,512,512
260.252,2.77556e-17,0,512,512
260.311,1.38778e-17,0,512,512
260.358,1.38778e-17,0,512,512
260.405,0,0,512,512
260.452,0,0,512,512
260.51,0,0,512,512
260.557,0,0,512,512
260.604,0,0,512,512
260.651,-1.38778e-17,0,512,512
260.709,-1.38778e-17,0,512,512
260.756,-1.38778e-17,0,512,512
260.803,-1.38778e-17,0,512,512
260.862,0,0,512,512
260.909,0,0,512,512
260.955,0,0,512,512
261.002,1.38778e-17,0,512,512
261.061,0,0,512,512
261.108,0,0,512,512
261.155,1.38778e-17,0,512,512
261.201,1.38778e-17,0,512,512
261.26,1.38778e-17,0,512,512
261.307,1.38778e-17,0,512,512
261.354,1.38778e-17,0,512,512
261.401,1.38778e-17,0,512,512
261.459,2.77556e-17,0,512,512
261.506,2.77556e-17,0,512,512
261.553,1.38778e-17,0,512,512
261.612,1.38778e-17,0,512,512
261.658,1.38778e-17,0,512,512
261.705,1.38778e-17,0,512,512
261.752,1.38778e-17,0,512,512
261.811,1.38778e-17,0,512,512
261.858,0,0,512,512
261.905,0,0,512,512
261.951,0,0,512,512
262.01,0,0,512,512
262.057,0,0,512,512
262.104,0,0,512,512
262.151,-1.38778e-17,0,512,512
262.209,0,0,512,512
262.256,-1.38778e-17,0,512,512
262.303,-1.38778e-17,0,512,512
262.361,-1.38778e-17,0,512,512
262.408,-1.38778e-17,0,512,512
262.455,-1.38778e-17,0,512,512
262.502,-1.38778e-17,0,512,512
262.561,-1.38778e-17,0,512,512
262.608,-1.38778e-17,0,512,512
262.654,-1.38778e-17,0,512,512
262.701,-1.38778e-17,0,512,512
262.76,-1.38778e-17,0,512,512
262.807,-1.38778e-17,0,512,512
262.854,-1.38778e-17,0,512,512
262.9,-1.38778e-17,0,512,512
262.959,-1.38778e-17,0,512,512
263.006,-1.38778e-17,0,512,512
263.053,-1.38778e-17,0,512,512
263.111,-1.38778e-17,0,512,512
263.158,-1.38778e-17,0,512,512
263.205,-1.38778e-17,0,512,512
263.252,-1.38778e-17,0,512,512
263.311,-1.38778e-17,0,512,512
263.357,-1.38778e-17,0,512,512
263.404,-2.77556e-17,0,512,512
263.451,-1.38778e-17,0,512,512
263.51,-2.77556e-17,0,512,512
263.557,-1.38778e-17,0,512,512
263.603,-2.77556e-17,0,512,512
263.65,-2.77556e-17,0,512,512
263.709,-2.77556e-17,0,512,512
263.756,-2.77556e-17,0,512,512
263.803,-2.77556e-17,0,512,512
263.861,-1.38778e-17,0,512,512
263.908,-2.77556e-17,0,512,512
263.955,-2.77556e-17,0,512,512
264.002,-1.38778e-17,0,512,512
264.06,-1.38778e-17,0,512,512
264.107,-1.38778e-17,0,512,512
264.154,-2.77556e-17,0,512,512
264.201,-1.38778e-17,0,512,512
264.26,-1.38778e-17,0,512,512
264.306,-1.38778e-17,0,512,512
264.353,-2.77556e-17,0,512,512
264.4,-1.38778e-17,0,512,512
264.459,-1.38778e-17,0,512,512
264.506,-1.38778e-17,0,512,512
264.553,-2.77556e-17,0,512,512
264.611,-1.38778e-17,0,512,512
264.658,0,0,512,512
264.705,0,0,512,512
264.752,0,0,512,512
264.81,0,0,512,512
264.857,0,0,512,512
264.904,0,0,512,512
264.951,0,0,512,512
265.01,0,0,512,512
265.056,0,0,512,512
265.103,-1.38778e-17,0,512,512
265.15,-1.38778e-17,0,512,512
265.209,-1.38778e-17,0,512,512
265.256,-1.38778e-17,0,512,512
265.302,-1.38778e-17,0,512,512
265.361,-1.38778e-17,0,512,512
265.408,-1.38778e-17,0,512,512
265.455,-1.38778e-17,0,512,512
265.502,-1.38778e-17,0,512,512
265.56,-1.38778e-17,0,512,512
265.607,-1.38778e-17,0,512,512
265.654,-1.38778e-17,0,512,512
265.701,-1.38778e-17,0,512,512
265.759,-1.38778e-17,0,512,512
265.806,-1.38778e-17,0,512,512
265.853,-1.38778e-17,0,512,512
265.9,-1.38778e-17,0,512,512
265.959,-1.38778e-17,0,512,512
266.005,-1.38778e-17,0,512,512
266.052,-1.38778e-17,0,512,512
266.111,-1.38778e-17,0,512,512
266.158,-1.38778e-17,0,512,512
266.205,-1.38778e-17,0,512,512
266.252,0,0,512,512
266.31,1.38778e-17,0,512,512
266.357,2.77556e-17,0,512,512
266.404,4.16334e-17,0,512,512
266.451,2.77556e-17,0,512,512
266.509,1.38778e-17,0,512,512
266.556,2.77556e-17,0,512,512
266.603,2.77556e-17,0,512,512
266.662,2.77556e-17,0,512,512
266.708,1.38778e-17,0,512,512
266.755,2.77556e-17,0,512,512
266.802,1.38778e-17,0,512,512
266.861,1.38778e-17,0,512,512
266.908,1.38778e-17,0,512,512
266.955,2.77556e-17,0,512,512
267.001,2.77556e-17,0,512,512
267.06,1.38778e-17,0,512,512
267.107,1.38778e-17,0,512,512
267.154,1.38778e-17,0,512,512
267.201,1.38778e-17,0,512,512
267.259,1.38778e-17,0,512,512
267.306,1.38778e-17,0,512,512
267.353,1.38778e-17,0,512,512
267.412,1.38778e-17,0,512,512
267.458,1.38778e-17,0,512,512
267.505,1.38778e-17,0,512,512
267.552,1.38778e-17,0,512,512
267.611,1.38778e-17,0,512,512
267.658,1.38778e-17,0,512,512
267.704,1.38778e-17,0,512,512
267.751,1.38778e-17,0,512,512
267.81,1.38778e-17,0,512,512
267.857,1.38778e-17,0,512,512
267.904,1.38778e-17,0,512,512
267.95,1.38778e-17,0,512,512
268.009,1.38778e-17,0,512,512
268.056,1.38778e-17,0,512,512
268.105,1.38778e-17,0,537,537
268.152,1.38778e-17,0,549,549
268.205,1.38778e-17,0,561,561
268.252,1.38778e-17,0,573,573
268.304,1.38778e-17,0,585,585
268.351,1.38778e-17,0,591,591
268.404,1.38778e-17,0,603,603
268.451,1.38778e-17,0,615,615
268.504,1.38778e-17,0,627,627
268.55,1.38778e-17,0,635,635
268.603,1.38778e-17,0,645,645
268.65,1.38778e-17,0,657,657
268.703,1.38778e-17,0,669,669
268.756,1.38778e-17,0,681,681
268.802,1.38778e-17,0,693,693
268.855,1.38778e-17,0,705,705
268.902,1.38778e-17,0,711,711
268.955,1.38778e-17,0,723,723
269.002,1.38778e-17,0,735,735
269.054,1.38778e-17,0,747,747
269.101,1.38778e-17,0,759,759
269.154,1.38778e-17,0,771,771
269.201,1.38778e-17,0,783,783
269.254,1.38778e-17,0,795,795
269.3,1.38778e-17,0,801,801
269.353,1.38778e-17,0,813,813
269.406,1.38778e-17,0,825,825
269.453,1.38778e-17,0,837,837
269.505,1.38778e-17,0,849,849
269.552,1.38778e-17,0,861,861
269.605,1.38778e-17,0,873,873
269.652,1.38778e-17,0,885,885
269.705,1.38778e-17,0,897,897
269.751,1.38778e-17,0,903,903
269.804,1.38778e-17,0,915,915
269.851,1.38778e-17,0,927,927
269.904,1.38778e-17,0,939,939
269.951,1.38778e-17,0,951,951
270.003,1.38778e-17,0,957,957
270.05,1.38778e-17,0,969,969
270.103,1.38778e-17,0,981,981
270.156,1.38778e-17,0,993,993
270.203,1.38778e-17,0,1005,1005
270.255,1.38778e-17,0,1011,1011
270.302,1.38778e-17,0,1023,1023
270.355,1.38778e-17,0,1035,1035
270.402,1.38778e-17,0,1047,1047
270.455,1.38778e-17,0,1055,1055
270.501,1.38778e-17,0,1065,1065
270.554,1.38778e-17,0,1077,1077
270.601,1.38778e-17,0,1089,1089
270.654,1.38778e-17,0,1095,1095
270.701,1.38778e-17,0,1107,1107
270.753,1.38778e-17,0,1119,1119
270.8,1.38778e-17,0,1125,1125
270.853,1.38778e-17,0,1137,1137
270.906,1.38778e-17,0,1149,1149
270.952,1.38778e-17,0,1161,1161
271.005,1.38778e-17,0,1167,1167
271.052,1.38778e-17,0,1179,1179
271.105,1.38778e-17,0,1191,1191
271.152,1.38778e-17,0,1197,1197
271.204,1.38778e-17,0,1209,1209
271.251,1.38778e-17,0,1221,1221
271.304,1.38778e-17,0,1227,1227
271.351,1.38778e-17,0,1239,1239
271.404,1.38778e-17,0,1245,1245
271.45,1.38778e-17,0,1257,1257
271.503,1.38778e-17,0,1269,1269
271.55,1.38778e-17,0,1275,1275
271.603,1.38778e-17,0,1287,1287
271.655,1.38778e-17,0,1299,1299
271.702,1.38778e-17,0,1305,1305
271.755,1.38778e-17,0,1317,1317
271.802,1.38778e-17,0,1323,1323
271.855,1.38778e-17,0,1335,1335
271.902,1.38778e-17,0,1341,1341
271.954,1.38778e-17,0,1353,1353
272.001,1.38778e-17,0,1359,1359
272.054,1.38778e-17,0,1371,1371
272.101,1.38778e-17,0,1377,1377
272.153,1.38778e-17,0,1389,1389
272.2,1.38778e-17,0,1395,1395
272.253,1.38778e-17,0,1407,1407
272.306,1.38778e-17,0,1415,1415
272.353,1.38778e-17,0,1417,1417
272.405,1.38778e-17,0,1433,1433
272.452,1.38778e-17,0,1443,1443
272.505,1.38778e-17,0,1455,1455
272.552,1.38778e-17,0,1461,1461
272.605,1.38778e-17,0,1469,1469
272.651,1.38778e-17,0,1479,1479
272.704,1.38778e-17,0,1485,1485
272.751,1.38778e-17,0,1497,1497
272.804,1.38778e-17,0,1503,1503
272.851,1.38778e-17,0,1515,1515
272.903,1.38778e-17,0,1521,1521
272.95,1.38778e-17,0,1529,1529
273.003,1.38778e-17,0,1539,1539
273.056,1.38778e-17,0,1551,1551
273.103,1.38778e-17,0,1557,1557
273.155,1.38778e-17,0,1563,1563
273.202,1.38778e-17,0,1575,1575
273.255,1.38778e-17,0,1581,1581
273.302,1.38778e-17,0,1593,1593
273.354,1.38778e-17,0,1587,1587
273.401,1.38778e-17,0,1585,1585
273.454,1.38778e-17,0,1597,1597
273.501,1.38778e-17,0,1601,1601
273.554,1.38778e-17,0,1611,1611
273.601,1.38778e-17,0,1615,1615
273.653,1.38778e-17,0,1619,1619
273.7,1.38778e-17,0,1631,1631
273.753,1.38778e-17,0,1637,1637
273.806,1.38778e-17,0,1649,1649
273.852,1.38778e-17,0,1647,1647
273.905,1.38778e-17,0,1639,1639
273.952,1.38778e-17,0,1649,1649
274.005,1.38778e-17,0,1655,1655
274.052,1.38778e-17,0,1663,1663
274.104,1.38778e-17,0,1669,1669
274.151,0,0,1671,1671
274.204,-1.11022e-16,0,1681,1681
274.251,-2.22045e-16,0,1687,1687
274.304,-3.747e-16,0,1703,1703
274.35,-6.245e-16,0,1709,1709
274.403,-1.29063e-15,0,1711,1711
274.456,-2.73392e-15,0,1717,1717
274.503,-5.34295e-15,0,1719,1719
274.555,-1.10606e-14,0,1723,1723
274.602,-2.05808e-14,0,1735,1735
274.655,-3.99542e-14,0,1749,1749
274.702,-6.99857e-14,0,1757,1757
274.755,-1.2719e-13,0,1767,1767
274.802,-2.1029e-13,0,1781,1781
274.854,-3.59032e-13,0,1787,1787
274.901,-5.62619e-13,0,1803,1803
274.954,-9.06442e-13,0,1807,1807
275.001,-1.35157e-12,0,1815,1815
275.053,-2.06275e-12,0,1829,1829
275.1,-2.93537e-12,0,1837,1837
275.153,-4.25548e-12,0,1851,1851
275.206,-6.00195e-12,0,1857,1857
275.253,-7.97239e-12,0,1867,1867
275.305,-1.13197e-11,0,1879,1879
275.352,-1.8631e-11,0,1881,1881
275.405,-3.1704e-11,0,1891,1891
275.452,-4.69604e-11,0,1897,1897
275.505,-6.62785e-11,0,1909,1909
275.551,-8.3123e-11,0,1915,1915
275.604,-9.91047e-11,0,1925,1925
275.651,-1.0758e-10,0,1931,1931
275.704,-1.08025e-10,0,1939,1939
275.751,-9.98103e-11,0,1945,1945
275.803,-8.17072e-11,0,1955,1955
275.85,-5.9665e-11,0,1961,1961
275.903,-3.15288e-11,0,1967,1967
275.956,-3.23666e-12,0,1977,1977
276.003,2.0019e-11,0,1979,1979
276.055,4.26167e-11,0,1989,1989
276.102,5.90425e-11,0,1991,1991
276.155,7.36223e-11,0,1996,1996
276.202,8.3596e-11,0,2004,2004
276.254,9.20642e-11,0,2008,2008
276.301,9.7741e-11,0,2008,2008
276.354,1.02747e-10,0,2010,2010
276.401,1.06399e-10,0,2010,2010
276.454,1.09908e-10,0,2016,2016
276.5,1.12678e-10,0,2016,2016
276.553,1.15479e-10,0,2020,2020
276.6,1.17523e-10,0,2020,2020
276.653,1.19318e-10,0,2020,2020
276.706,1.20423e-10,0,2020,2020
276.752,1.22245e-10,0,2020,2020
276.805,1.24391e-10,0,2012,2012
276.852,1.26746e-10,0,1992,1992
276.905,1.30679e-10,0,1994,1994
276.952,1.39318e-10,0,2020,2020
277.004,1.65484e-10,0,2024,2024
277.051,2.16503e-10,0,2040,2040
277.104,3.34833e-10,0,2044,2044
277.151,5.3433e-10,0,2048,2048
277.203,9.32071e-10,0,2048,2048
277.25,1.51288e-09,0,2044,2044
277.303,2.51709e-09,0,2048,2048
277.356,3.98793e-09,0,2048,2048
277.403,5.75073e-09,0,2048,2048
277.455,8.28648e-09,0,2048,2048
277.502,1.10374e-08,0,2048,2048
277.555,1.46753e-08,0,2048,2048
277.602,1.8377e-08,0,2048,2048
277.655,2.30781e-08,0,2048,2048
277.701,2.7789e-08,0,2048,2048
277.754,3.38269e-08,0,2048,2048
277.801,4.0041e-08,0,2048,2048
277.854,4.82909e-08,0,2048,2048
277.901,5.70668e-08,0,2048,2048
277.953,6.89983e-08,0,2048,2048
278,8.18394e-08,0,2048,2048
278.053,9.92906e-08,0,2048,2048
278.106,1.20429e-07,0,2048,2048
278.153,1.42701e-07,0,2048,2048
278.205,1.72024e-07,0,2048,2048
278.252,2.02084e-07,0,2048,2048
278.305,2.40494e-07,0,2048,2048
278.352,2.78662e-07,0,2048,2048
278.404,3.25897e-07,0,2048,2048
278.451,3.71354e-07,0,2048,2048
278.504,4.25811e-07,0,2048,2048
278.551,4.76511e-07,0,2048,2048
278.604,5.3518e-07,0,2048,2048
278.651,5.87833e-07,0,2048,2048
278.703,6.46399e-07,0,2048,2048
278.75,6.96759e-07,0,2048,2048
278.803,7.50238e-07,0,2048,2048
278.856,7.99147e-07,0,2040,2040
278.902,8.37953e-07,0,2044,2044
278.955,8.75686e-07,0,2048,2048
279.002,9.03615e-07,0,2048,2048
279.055,9.28555e-07,0,2048,2048
279.102,9.44971e-07,0,2044,2044
279.154,9.57077e-07,0,2044,2044
279.201,9.62305e-07,0,2044,2044
279.254,9.621e-07,0,2044,2044
279.301,9.56609e-07,0,2048,2048
279.354,9.44584e-07,0,2040,2040
279.4,9.28848e-07,0,2040,2040
279.453,9.05758e-07,0,2044,2044
279.5,8.80833e-07,0,2044,2044
279.553,8.48488e-07,0,2048,2048
279.605,8.12481e-07,0,2044,2044
279.652,7.78296e-07,0,2044,2044
279.705,7.38498e-07,0,2048,2048
279.752,7.02914e-07,0,2044,2044
279.805,6.6377e-07,0,2044,2044
279.852,6.30658e-07,0,2040,2040
279.904,5.96238e-07,0,2044,2044
279.951,5.68865e-07,0,2048,2048
280.004,5.42408e-07,0,2048,2048
280.051,5.23263e-07,0,2048,2048
280.103,5.07139e-07,0,2048,2048
280.15,4.9794e-07,0,2048,2048
280.203,4.93606e-07,0,2044,2044
280.256,4.95722e-07,0,2044,2044
280.303,5.02933e-07,0,2048,2048
280.355,5.16774e-07,0,2044,2044
280.402,5.33798e-07,0,2044,2044
280.455,5.57677e-07,0,2044,2044
280.502,5.82489e-07,0,2044,2044
280.555,6.13593e-07,0,2040,2040
280.601,6.43259e-07,0,2044,2044
280.654,6.77855e-07,0,2040,2040
280.701,7.08742e-07,0,2044,2044
280.754,7.42511e-07,0,2040,2040
280.801,7.70721e-07,0,2040,2040
280.853,7.9942e-07,0,2036,2036
280.9,8.21495e-07,0,2040,2040
280.953,8.4177e-07,0,2032,2032
281.006,8.56676e-07,0,2028,2028
281.053,8.6511e-07,0,2044,2044
281.105,8.68969e-07,0,2048,2048
281.152,8.67305e-07,0,2040,2040
281.205,8.59672e-07,0,2034,2034
281.252,8.47793e-07,0,2026,2026
281.304,8.28787e-07,0,2048,2048
281.351,8.07012e-07,0,2044,2044
281.404,7.77262e-07,0,2018,2018
281.451,7.46438e-07,0,2014,2014
281.504,7.07283e-07,0,2038,2038
281.551,6.68984e-07,0,2048,2048
281.603,6.22641e-07,0,2036,2036
281.65,5.79202e-07,0,2020,2020
281.703,5.28628e-07,0,2010,2010
281.756,4.77134e-07,0,2040,2040
281.802,4.31316e-07,0,2040,2040
281.855,3.80482e-07,0,2024,2024
281.902,3.36511e-07,0,2014,2014
281.955,2.88987e-07,0,2008,2008
282.002,2.48877e-07,0,2008,2008
282.054,2.06513e-07,0,2008,2008
282.101,1.71529e-07,0,1998,1998
282.154,1.35336e-07,0,1994,1994
282.201,1.06039e-07,0,1990,1990
282.254,7.63068e-08,0,1986,1986
282.3,5.26886e-08,0,1978,1978
282.353,2.91597e-08,0,1972,1972
282.406,8.68319e-09,0,1968,1968
282.453,-7.11986e-09,0,1964,1964
282.505,-2.24005e-08,0,1960,1960
282.552,-3.39398e-08,0,1958,1958
282.605,-4.48287e-08,0,1962,1962
282.652,-5.28193e-08,0,1962,1962
282.705,-6.01007e-08,0,1988,1988
282.752,-6.52076e-08,0,1990,1990
282.804,-6.9581e-08,0,2002,2002
282.851,-7.23747e-08,0,2004,2004
282.904,-7.44178e-08,0,2006,2006
282.951,-7.53545e-08,0,2012,2012
283.003,-7.55217e-08,0,2012,2012
283.05,-7.49628e-08,0,2008,2008
283.103,-7.36288e-08,0,2004,2004
283.156,-7.16446e-08,0,2000,2000
283.203,-6.94188e-08,0,1998,1998
283.255,-6.6493e-08,0,2002,2002
283.302,-6.36033e-08,0,1996,1996
283.355,-6.01273e-08,0,2010,2010
283.402,-5.69195e-08,0,2028,2028
283.455,-5.32661e-08,0,2032,2032
283.501,-5.00453e-08,0,2032,2032
283.554,-4.65167e-08,0,2040,2040
283.601,-4.35083e-08,0,2044,2044
283.654,-4.03062e-08,0,2048,2048
283.701,-3.76445e-08,0,2048,2048
283.753,-3.48743e-08,0,2048,2048
283.8,-3.26184e-08,0,2048,2048
283.853,-3.03148e-08,0,2048,2048
283.906,-2.82568e-08,0,2048,2048
283.953,-2.66285e-08,0,2048,2048
284.005,-2.50145e-08,0,2048,2048
284.052,-2.37649e-08,0,2048,2048
284.105,-2.2556e-08,0,2048,2048
284.152,-2.16458e-08,0,2048,2048
284.204,-2.07937e-08,0,2048,2048
284.251,-2.01772e-08,0,2048,2048
284.304,-1.96282e-08,0,2048,2048
284.351,-1.92567e-08,0,2048,2048
284.404,-1.89558e-08,0,2048,2048
284.45,-1.87809e-08,0,2048,2048
284.503,-1.86753e-08,0,2048,2048
284.55,-1.8652e-08,0,2048,2048
284.603,-1.86939e-08,0,2048,2048
284.656,-1.87968e-08,0,2048,2048
284.702,-1.89311e-08,0,2048,2048
284.755,-1.91216e-08,0,2048,2048
284.802,-1.93196e-08,0,2048,2048
284.855,-1.95678e-08,0,2048,2048
284.902,-1.98059e-08,0,2048,2048
284.954,-2.00884e-08,0,2048,2048
285.001,-2.03486e-08,0,2048,2048
285.054,-2.06479e-08,0,2048,2048
285.101,-2.09172e-08,0,2048,2048
285.154,-2.12214e-08,0,2048,2048
285.2,-2.14914e-08,0,2048,2048
285.253,-2.17935e-08,0,2048,2048
285.306,-2.20934e-08,0,2048,2048
285.353,-2.2358e-08,0,2048,2048
285.405,-2.26542e-08,0,2048,2048
285.452,-2.29171e-08,0,2048,2048
285.505,-2.32139e-08,0,2048,2048
285.552,-2.34802e-08,0,2048,2048
285.605,-2.37848e-08,0,2040,2040
285.651,-2.4062e-08,0,2048,2048
285.704,-2.43835e-08,0,2048,2048
285.751,-2.46797e-08,0,2048,2048
285.804,-2.50269e-08,0,2048,2048
285.851,-2.53497e-08,0,2048,2048
285.903,-2.57301e-08,0,2048,2048
285.95,-2.60847e-08,0,2048,2048
286.003,-2.65029e-08,0,2048,2048
286.056,-2.69415e-08,0,2048,2048
286.103,-2.73484e-08,0,2048,2048
286.155,-2.78244e-08,0,2048,2048
286.202,-2.82626e-08,0,2048,2048
286.255,-2.87707e-08,0,2048,2048
286.302,-2.92341e-08,0,2048,2048
286.354,-2.9766e-08,0,2048,2048
286.401,-3.0246e-08,0,2048,2048
286.454,-3.07911e-08,0,2048,2048
286.501,-3.12776e-08,0,2048,2048
286.554,-3.1824e-08,0,2048,2048
286.601,-3.23062e-08,0,2048,2048
286.653,-3.28417e-08,0,2048,2048
286.7,-3.33089e-08,0,2048,2048
286.753,-3.38222e-08,0,2048,2048
286.806,-3.43197e-08,0,2048,2048
286.852,-3.47468e-08,0,2048,2048
286.905,-3.52085e-08,0,2048,2048
286.952,-3.56011e-08,0,2048,2048
287.005,-3.60218e-08,0,2048,2048
287.052,-3.63768e-08,0,2048,2048
287.104,-3.67547e-08,0,2048,2048
287.151,-3.7072e-08,0,2048,2048
287.204,-3.7409e-08,0,2048,2048
287.251,-3.76919e-08,0,2048,2048
287.304,-3.79934e-08,0,2048,2048
287.35,-3.82481e-08,0,2048,2048
287.403,-3.85221e-08,0,2048,2048
287.45,-3.87569e-08,0,2048,2048
287.503,-3.90138e-08,0,2048,2048
287.555,-3.92661e-08,0,2048,2048
287.602,-3.94891e-08,0,2048,2048
287.655,-3.97411e-08,0,2048,2048
287.702,-3.99685e-08,0,2048,2048
287.755,-4.02306e-08,0,2048,2048
287.802,-4.04709e-08,0,2048,2048
287.854,-4.07511e-08,0,2048,2048
287.901,-4.101e-08,0,2048,2048
287.954,-4.13133e-08,0,2048,2048
288.001,-4.15939e-08,0,2048,2048
288.053,-4.19221e-08,0,2048,2048
288.1,-4.22244e-08,0,2048,2048
288.153,-4.25754e-08,0,2048,2048
288.206,-4.29364e-08,0,2048,2048
288.253,-4.32641e-08,0,2048,2048
288.305,-4.36382e-08,0,2048,2048
288.352,-4.39736e-08,0,2048,2048
288.405,-4.43512e-08,0,2048,2048
288.452,-4.46847e-08,0,2048,2048
288.505,-4.50546e-08,0,2048,2048
288.551,-4.5376e-08,0,2040,2040
288.604,-4.57263e-08,0,2048,2048
288.651,-4.60251e-08,0,2048,2048
288.704,-4.63443e-08,0,2048,2048
288.751,-4.66107e-08,0,2048,2048
288.803,-4.68886e-08,0,2048,2048
288.85,-4.71143e-08,0,2048,2048
288.903,-4.73424e-08,0,2048,2048
288.956,-4.75417e-08,0,2048,2048
289.003,-4.76937e-08,0,2048,2048
289.055,-4.78356e-08,0,2048,2048
289.102,-4.79355e-08,0,2048,2048
289.155,-4.80186e-08,0,2048,2048
289.202,-4.80666e-08,0,2048,2048
289.254,-4.80922e-08,0,2048,2048
289.301,-4.80906e-08,0,2048,2048
289.354,-4.80625e-08,0,2048,2048
289.401,-4.80155e-08,0,2048,2048
289.454,-4.79395e-08,0,2048,2048
289.501,-4.78529e-08,0,2048,2048
289.553,-4.77358e-08,0,2048,2048
289.6,-4.76159e-08,0,2048,2048
289.653,-4.74651e-08,0,2048,2048
289.706,-4.72997e-08,0,2048,2048
289.752,-4.71419e-08,0,2048,2048
289.805,-4.6954e-08,0,2048,2048
289.852,-4.67794e-08,0,2048,2048
289.905,-4.65758e-08,0,2048,2048
289.952,-4.63899e-08,0,2048,2048
290.004,-4.61765e-08,0,2048,2048
290.051,-4.5984e-08,0,2048,2048
290.104,-4.57655e-08,0,2048,2048
290.151,-4.55703e-08,0,2048,2048
290.204,-4.53506e-08,0,2048,2048
290.25,-4.51557e-08,0,2048,2048
290.303,-4.49377e-08,0,2048,2048
290.356,-4.47214e-08,0,2048,2048
290.403,-4.45309e-08,0,2048,2048
290.455,-4.4319e-08,0,2048,2048
290.502,-4.41329e-08,0,2048,2048
290.555,-4.39262e-08,0,2048,2048
290.602,-4.37447e-08,0,2048,2048
290.655,-4.35433e-08,0,2040,2040
290.701,-4.33664e-08,0,2040,2040
290.754,-4.31697e-08,0,2048,2048
290.801,-4.29967e-08,0,2048,2048
290.854,-4.28038e-08,0,2048,2048
290.901,-4.26335e-08,0,2048,2048
290.953,-4.24431e-08,0,2048,2048
291,-4.22743e-08,0,2048,2048
291.053,-4.20846e-08,0,2044,2044
291.106,-4.18945e-08,0,2048,2048
291.153,-4.17249e-08,0,2048,2048
291.205,-4.15326e-08,0,2048,2048
291.252,-4.136e-08,0,2048,2048
291.305,-4.11634e-08,0,2048,2048
291.352,-4.0986e-08,0,2048,2048
291.405,-4.07827e-08,0,2048,2048
291.451,-4.05983e-08,0,2048,2048
291.504,-4.03858e-08,0,2048,2048
291.551,-4.0192e-08,0,2048,2048
291.604,-3.99675e-08,0,2048,2048
291.651,-3.97615e-08,0,2048,2048
291.703,-3.95217e-08,0,2048,2048
291.75,-3.93003e-08,0,2048,2048
291.803,-3.9041e-08,0,2048,2048
291.856,-3.87694e-08,0,2048,2048
291.902,-3.85164e-08,0,2048,2048
291.955,-3.82173e-08,0,2048,2048
292.002,-3.79371e-08,0,2048,2048
292.055,-3.7604e-08,0,2048,2048
292.102,-3.72906e-08,0,2048,2048
292.154,-3.69168e-08,0,2048,2048
292.201,-3.65641e-08,0,2044,2044
292.254,-3.61426e-08,0,2044,2044
292.301,-3.57444e-08,0,2044,2044
292.354,-3.52685e-08,0,2040,2040
292.4,-3.48194e-08,0,2024,2024
292.453,-3.4284e-08,0,2028,2028
292.5,-3.37805e-08,0,2048,2048
292.553,-3.31828e-08,0,2048,2048
292.606,-3.2552e-08,0,2048,2048
292.652,-3.1964e-08,0,2048,2048
292.705,-3.12726e-08,0,2048,2048
292.752,-3.06328e-08,0,2048,2048
292.805,-2.98864e-08,0,2048,2048
292.852,-2.92012e-08,0,2048,2048
292.904,-2.84085e-08,0,2048,2048
292.951,-2.76871e-08,0,2048,2048
293.004,-2.68598e-08,0,2048,2048
293.051,-2.61135e-08,0,2048,2048
293.103,-2.52652e-08,0,2048,2048
293.15,-2.45067e-08,0,2048,2048
293.203,-2.36521e-08,0,2048,2048
293.256,-2.28e-08,0,2048,2048
293.303,-2.2048e-08,0,2048,2048
293.355,-2.12115e-08,0,2048,2048
293.402,-2.0479e-08,0,2048,2048
293.455,-1.96704e-08,0,2048,2048
293.502,-1.89675e-08,0,2048,2048
293.555,-1.81966e-08,0,2048,2048
293.601,-1.75306e-08,0,2048,2048
293.654,-1.6804e-08,0,2048,2048
293.701,-1.61791e-08,0,2048,2048
293.754,-1.54996e-08,0,2048,2048
293.801,-1.49164e-08,0,2048,2048
293.853,-1.42829e-08,0,2048,2048
293.9,-1.37389e-08,0,2048,2048
293.953,-1.31466e-08,0,2048,2048
294.006,-1.2573e-08,0,2048,2048
294.053,-1.20768e-08,0,2048,2048
294.105,-1.15312e-08,0,2048,2048
294.152,-1.10552e-08,0,2048,2048
294.205,-1.05268e-08,0,2048,2048
294.252,-1.00608e-08,0,2048,2048
294.304,-9.5379e-09,0,2048,2048
294.351,-9.07188e-09,0,2048,2048
294.404,-8.54365e-09,0,2048,2048
294.451,-8.06859e-09,0,2048,2048
294.504,-7.52592e-09,0,2048,2048
294.551,-7.03481e-09,0,2048,2048
294.603,-6.47126e-09,0,2048,2048
294.65,-5.9598e-09,0,2048,2048
294.703,-5.37219e-09,0,2048,2048
294.756,-4.77174e-09,0,2048,2048
294.802,-4.22772e-09,0,2048,2048
294.855,-3.6051e-09,0,2048,2048
294.902,-3.04346e-09,0,2048,2048
294.955,-2.40417e-09,0,2048,2048
295.002,-1.83117e-09,0,2048,2048
295.054,-1.18373e-09,0,2048,2048
295.101,-6.08124e-10,0,2048,2048
295.154,3.64447e-11,0,2048,2048
295.201,6.03902e-10,0,2048,2048
295.254,1.2326e-09,0,2048,2048
295.3,1.77972e-09,0,2048,2048
295.353,2.3783e-09,0,2048,2048
295.4,2.89212e-09,0,2048,2048
295.453,3.44596e-09,0,2048,2048
295.505,3.97036e-09,0,2048,2048
295.552,4.40879e-09,0,2048,2048
295.605,4.86777e-09,0,2048,2048
295.652,5.24297e-09,0,2048,2048
295.705,5.62586e-09,0,2048,2048
295.752,5.92979e-09,0,2048,2048
295.804,6.22947e-09,0,2048,2048
295.851,6.4577e-09,0,2048,2048
295.904,6.67141e-09,0,2048,2048
295.951,6.82354e-09,0,2048,2048
296.003,6.95321e-09,0,2048,2048
296.05,7.03302e-09,0,2048,2048
296.103,7.08509e-09,0,2048,2048
296.156,7.10003e-09,0,2048,2048
296.203,7.08482e-09,0,2048,2048
296.255,7.03899e-09,0,2048,2048
296.302,6.97577e-09,0,2048,2048
296.355,6.88303e-09,0,2048,2048
296.402,6.78462e-09,0,2048,2048
296.455,6.65973e-09,0,2048,2048
296.501,6.53929e-09,0,2048,2048
296.554,6.39683e-09,0,2048,2048
296.601,6.26696e-09,0,2048,2048
296.654,6.12051e-09,0,2048,2048
296.701,5.99262e-09,0,2048,2048
296.753,5.8541e-09,0,2048,2048
296.8,5.73784e-09,0,2048,2048
296.853,5.61689e-09,0,2048,2048
296.906,5.50822e-09,0,2048,2048
296.953,5.42315e-09,0,2048,2048
297.005,5.34136e-09,0,2048,2048
297.052,5.28152e-09,0,2048,2048
297.105,5.22882e-09,0,2048,2048
297.152,5.19478e-09,0,2048,2048
297.204,5.17029e-09,0,2048,2048
297.251,5.16001e-09,0,2048,2048
297.304,5.15484e-09,0,2048,2048
297.351,5.17094e-09,0,2048,2048
297.404,5.18746e-09,0,2048,2048
297.451,5.21114e-09,0,2048,2048
297.503,5.2407e-09,0,2048,2048
297.55,5.26993e-09,0,2048,2048
297.603,5.30351e-09,0,2048,2048
297.656,5.33552e-09,0,2048,2048
297.702,5.3611e-09,0,2048,2048
297.755,5.38495e-09,0,2048,2048
297.802,5.40051e-09,0,2048,2048
297.855,5.41043e-09,0,2048,2048
297.902,5.41134e-09,0,2048,2048
297.954,5.4042e-09,0,2032,2032
298.001,5.38895e-09,0,2036,2036
298.054,5.36226e-09,0,2048,2048
298.101,5.33031e-09,0,2048,2048
298.154,5.28618e-09,0,2048,2048
298.2,5.23917e-09,0,2048,2048
298.253,5.17938e-09,0,2048,2048
298.306,5.11351e-09,0,2048,2048
298.353,5.0509e-09,0,2048,2048
298.405,4.97746e-09,0,2048,2048
298.452,4.91069e-09,0,2048,2048
298.505,4.83522e-09,0,2048,2048
298.552,4.76904e-09,0,2048,2048
298.605,4.69703e-09,0,2048,2048
298.652,4.63633e-09,0,2048,2048
298.704,4.57298e-09,0,2048,2048
298.751,4.52196e-09,0,2048,2048
298.804,4.47141e-09,0,2048,2048
298.851,4.43318e-09,0,2048,2048
298.903,4.39823e-09,0,2048,2048
298.95,4.37461e-09,0,2048,2048
299.003,4.35652e-09,0,2048,2048
299.056,4.34728e-09,0,2048,2048
299.103,4.34624e-09,0,2048,2048
299.155,4.35268e-09,0,2048,2048
299.202,4.36463e-09,0,2048,2048
299.255,4.38433e-09,0,2048,2048
299.302,4.40666e-09,0,2048,2048
299.355,4.43628e-09,0,2048,2048
299.401,4.4658e-09,0,2048,2048
299.454,4.50161e-09,0,2048,2048
299.501,4.53494e-09,0,2048,2048
299.554,4.57322e-09,0,2044,2044
299.601,4.6072e-09,0,2032,2032
299.653,4.6446e-09,0,2040,2040
299.7,4.6765e-09,0,2044,2044
299.753,4.71029e-09,0,2044,2044
299.806,4.74131e-09,0,2048,2048
299.852,4.7662e-09,0,2048,2048
299.905,4.79087e-09,0,2048,2048
299.952,4.80964e-09,0,2044,2044
300.005,4.82701e-09,0,2044,2044
300.052,4.83905e-09,0,2048,2048
300.104,4.84869e-09,0,2044,2044
300.151,4.85382e-09,0,2044,2044
300.204,4.85617e-09,0,2044,2044
300.251,4.85474e-09,0,2044,2044
300.304,4.84796e-09,0,2048,2048
300.35,4.83983e-09,0,2044,2044
300.403,4.82707e-09,0,2048,2048
300.45,4.81196e-09,0,2044,2044
300.503,4.79298e-09,0,2044,2044
300.556,4.77096e-09,0,2048,2048
300.602,4.74815e-09,0,2048,2048
300.655,4.72008e-09,0,2048,2048
300.702,4.69274e-09,0,2048,2048
300.755,4.65943e-09,0,2048,2048
300.802,4.62819e-09,0,2048,2048
300.854,4.59166e-09,0,2048,2048
300.901,4.55733e-09,0,2044,2044
300.954,4.51698e-09,0,2048,2048
301.001,4.47986e-09,0,2048,2048
301.053,4.43693e-09,0,2048,2048
301.1,4.3979e-09,0,2044,2044
301.153,4.35322e-09,0,2044,2044
301.206,4.30799e-09,0,2048,2048
301.253,4.26735e-09,0,2048,2048
301.305,4.22117e-09,0,2048,2048
301.352,4.17983e-09,0,2048,2048
301.405,4.13314e-09,0,2048,2048
301.452,4.09156e-09,0,2048,2048
301.505,4.04474e-09,0,2048,2048
301.551,4.00314e-09,0,2048,2048
301.604,3.95636e-09,0,2044,2044
301.651,3.91484e-09,0,2044,2044
301.704,3.86825e-09,0,2048,2048
301.751,3.82691e-09,0,2048,2048
301.803,3.78041e-09,0,2048,2048
301.85,3.73906e-09,0,2044,2044
301.903,3.69253e-09,0,2044,2044
301.956,3.64595e-09,0,2048,2048
302.003,3.60447e-09,0,2048,2048
302.055,3.55773e-09,0,2044,2044
302.102,3.51617e-09,0,2044,2044
302.155,3.4694e-09,0,2048,2048
302.202,3.42769e-09,0,2048,2048
302.254,3.38044e-09,0,2048,2048
302.301,3.33814e-09,0,2044,2044
302.354,3.29022e-09,0,2044,2044
302.401,3.24738e-09,0,2048,2048
302.454,3.19891e-09,0,2044,2044
302.501,3.15555e-09,0,2044,2044
302.553,3.10645e-09,0,2044,2044
302.6,3.06251e-09,0,2048,2048
302.653,3.01274e-09,0,2044,2044
302.706,2.96266e-09,0,2044,2044
302.752,2.9179e-09,0,2048,2048
302.805,2.86725e-09,0,2044,2044
302.852,2.82198e-09,0,2048,2048
302.905,2.77079e-09,0,2048,2048
302.952,2.72509e-09,0,2044,2044
303.004,2.67355e-09,0,2044,2044
303.051,2.62768e-09,0,2040,2040
303.104,2.57604e-09,0,2044,2044
303.151,2.53009e-09,0,2044,2044
303.204,2.47836e-09,0,2044,2044
303.25,2.43236e-09,0,2040,2040
303.303,2.38067e-09,0,2044,2044
303.35,2.33483e-09,0,2040,2040
303.403,2.28344e-09,0,2036,2036
303.455,2.23231e-09,0,2040,2040
303.502,2.18715e-09,0,2036,2036
303.555,2.13669e-09,0,2040,2040
303.602,2.09215e-09,0,2040,2040
303.655,2.04237e-09,0,2044,2044
303.702,1.99841e-09,0,2040,2040
303.754,1.94932e-09,0,2036,2036
303.801,1.90604e-09,0,2036,2036
303.854,1.85781e-09,0,2032,2032
303.901,1.81538e-09,0,2034,2034
303.953,1.76813e-09,0,2034,2034
304,1.72654e-09,0,2038,2038
304.053,1.68019e-09,0,2044,2044
304.106,1.63427e-09,0,2044,2044
304.153,1.59383e-09,0,2044,2044
304.205,1.54873e-09,0,2036,2036
304.252,1.50902e-09,0,2034,2034
304.305,1.46475e-09,0,2030,2030
304.352,1.42577e-09,0,2032,2032
304.405,1.3823e-09,0,2032,2032
304.451,1.34397e-09,0,2030,2030
304.504,1.30117e-09,0,2028,2028
304.551,1.26337e-09,0,2028,2028
304.604,1.22113e-09,0,2030,2030
304.651,1.18384e-09,0,2022,2022
304.703,1.1422e-09,0,2024,2024
304.75,1.10546e-09,0,2024,2024
304.803,1.0644e-09,0,2022,2022
304.856,1.02361e-09,0,2024,2024
304.903,9.87575e-10,0,2030,2030
304.955,9.4729e-10,0,2024,2024
