250,0,0,512,512
250.012,0,0,512,512
250.059,0,0,512,512
250.105,0,0,512,512
250.152,0,0,512,512
250.211,0,0,512,512
250.258,0,0,512,512
250.305,0,0,512,512
250.352,0,0,512,512
250.41,0,0,512,512
250.457,0,0,512,512
250.504,0,0,512,512
250.551,0,0,512,512
250.609,0,0,512,512
250.656,0,0,512,512
250.703,0,0,512,512
250.762,0,0,512,512
250.808,0,0,512,512
250.855,0,0,512,512
250.902,0,0,512,512
250.961,0,0,512,512
251.008,0,0,512,512
251.055,0,0,512,512
251.101,0,0,512,512
251.16,0,0,512,512
251.207,0,0,512,512
251.254,0,0,512,512
251.301,0,0,512,512
251.359,0,0,512,512
251.406,0,0,512,512
251.453,0,0,512,512
251.511,0,0,512,512
251.558,0,0,512,512
251.605,0,0,512,512
251.652,0,0,512,512
251.711,0,0,512,512
251.758,0,0,512,512
251.804,0,0,512,512
251.851,0,0,512,512
251.91,0,0,512,512
251.957,0,0,512,512
252.004,0,0,512,512
252.05,0,0,512,512
252.109,0,0,512,512
252.156,0,0,512,512
252.203,0,0,512,512
252.261,0,0,512,512
252.308,0,0,512,512
252.355,0,0,512,512
252.402,0,0,512,512
252.461,0,0,512,512
252.507,0,0,512,512
252.554,0,0,512,512
252.601,0,0,512,512
252.66,0,0,512,512
252.707,0,0,512,512
252.754,0,0,512,512
252.8,0,0,512,512
252.859,0,0,512,512
252.906,0,0,512,512
252.953,0,0,512,512
253.011,0,0,512,512
253.058,0,0,512,512
253.105,0,0,512,512
253.152,0,0,512,512
253.21,0,0,512,512
253.257,0,0,512,512
253.304,0,0,512,512
253.351,0,0,512,512
253.41,0,0,512,512
253.457,0,0,512,512
253.503,0,0,512,512
253.55,0,0,512,512
253.609,0,0,512,512
253.656,0,0,512,512
253.703,0,0,512,512
253.761,0,0,512,512
253.808,0,0,512,512
253.855,0,0,512,512
253.902,0,0,512,512
253.96,0,0,512,512
254.007,0,0,512,512
254.054,0,0,512,512
254.101,0,0,512,512
254.16,0,0,512,512
254.206,0,0,512,512
254.253,0,0,512,512
254.3,0,0,512,512
254.359,0,0,512,512
254.406,0,0,512,512
254.452,0,0,512,512
254.511,0,0,512,512
254.558,0,0,512,512
254.605,0,0,512,512
254.652,0,0,512,512
254.71,0,0,512,512
254.757,0,0,512,512
254.804,0,0,512,512
254.851,0,0,512,512
254.909,0,0,512,512
254.956,0,0,512,512
255.003,0,0,512,512
255.05,0,0,512,512
255.109,0,0,512,512
255.155,0,0,512,512
255.202,0,0,512,512
255.261,0,0,512,512
255.308,0,0,512,512
255.355,0,0,512,512
255.402,0,0,512,512
255.46,0,0,512,512
255.507,0,0,512,512
255.554,0,0,512,512
255.601,0,0,512,512
255.659,0,0,512,512
255.706,0,0,512,512
255.753,0,0,512,512
255.812,0,0,512,512
255.859,0,0,512,512
255.905,0,0,512,512
255.952,0,0,512,512
256.011,0,0,512,512
256.058,0,0,512,512
256.105,0,0,512,512
256.151,0,0,512,512
256.21,0,0,512,512
256.257,0,0,512,512
256.304,0,0,512,512
256.351,0,0,512,512
256.409,0,0,512,512
256.456,0,0,512,512
256.503,0,0,512,512
256.562,0,0,512,512
256.608,0,0,512,512
256.655,0,0,512,512
256.702,0,0,512,512
256.761,0,0,512,512
256.808,0,0,512,512
256.854,0,0,512,512
256.901,0,0,512,512
256.96,0,0,512,512
257.007,0,0,512,512
257.054,0,0,512,512
257.101,0,0,512,512
257.159,0,0,512,512
257.206,0,0,512,512
257.253,0,0,512,512
257.311,0,0,512,512
257.358,0,0,512,512
257.405,0,0,512,512
257.452,0,0,512,512
257.511,0,0,512,512
257.557,0,0,512,512
257.604,0,0,512,512
257.651,0,0,512,512
257.71,0,0,512,512
257.757,0,0,512,512
257.804,0,0,512,512
257.85,2.77556e-17,0,512,512
257.909,2.77556e-17,0,512,512
257.956,2.77556e-17,0,512,512
258.003,2.77556e-17,0,512,512
258.061,2.77556e-17,0,512,512
258.108,2.77556e-17,0,512,512
258.155,2.77556e-17,0,512,512
258.202,2.77556e-17,0,512,512
258.261,2.77556e-17,0,512,512
258.307,2.77556e-17,0,512,512
258.354,2.77556e-17,0,512,512
258.401,2.77556e-17,0,512,512
258.46,2.77556e-17,0,512,512
258.507,2.77556e-17,0,512,512
258.553,2.77556e-17,0,512,512
258.6,2.77556e-17,0,512,512
258.659,2.77556e-17,0,512,512
258.706,2.77556e-17,0,512,512
258.753,2.77556e-17,0,512,512
258.811,2.77556e-17,0,512,512
258.858,2.77556e-17,0,512,512
258.905,2.77556e-17,0,512,512
258.952,0,0,512,512
259.01,0,0,512,512
259.057,0,0,512,512
259.104,0,0,512,512
259.151,2.77556e-17,0,512,512
259.21,2.77556e-17,0,512,512
259.256,2.77556e-17,0,512,512
259.303,2.77556e-17,0,512,512
259.35,2.77556e-17,0,512,512
259.409,2.77556e-17,0,512,512
259.456,2.77556e-17,0,512,512
259.503,2.77556e-17,0,512,512
259.561,2.77556e-17,0,512,512
259.608,2.77556e-17,0,512,512
259.655,2.77556e-17,0,512,512
259.702,2.77556e-17,0,512,512
259.76,2.77556e-17,0,512,512
259.807,2.77556e-17,0,512,512
259.854,2.77556e-17,0,512,512
259.901,2.77556e-17,0,512,512
259.959,2.77556e-17,0,512,512
260.006,2.77556e-17,0,512,512
260.053,2.77556e-17,0,512,512
260.1,2.77556e-17,0,512,512
260.159,2.77556e-17,0,512,512
260.206,0,0,512,512
260.252,0,0,512,512
260.311,0,0,512,512
260.358,0,0,512,512
260.405,0,0,512,512
260.452,0,0,512,512
260.51,0,0,512,512
260.557,0,0,512,512
260.604,0,0,512,512
260.651,0,0,512,512
260.709,0,0,512,512
260.756,0,0,512,512
260.803,0,0,512,512
260.862,0,0,512,512
260.909,0,0,512,512
260.955,0,0,512,512
261.002,0,0,512,512
261.061,0,0,512,512
261.108,0,0,512,512
261.155,0,0,512,512
261.201,0,0,512,512
261.26,0,0,512,512
261.307,0,0,512,512
261.354,0,0,512,512
261.401,0,0,512,512
261.459,0,0,512,512
261.506,0,0,512,512
261.553,0,0,512,512
261.612,0,0,512,512
261.658,0,0,512,512
261.705,0,0,512,512
261.752,0,0,512,512
261.811,0,0,512,512
261.858,0,0,512,512
261.905,0,0,512,512
261.951,0,0,512,512
262.01,0,0,512,512
262.057,0,0,512,512
262.104,0,0,512,512
262.151,0,0,512,512
262.209,0,0,512,512
262.256,0,0,512,512
262.303,0,0,512,512
262.361,0,0,512,512
262.408,0,0,512,512
262.455,0,0,512,512
262.502,0,0,512,512
262.561,0,0,512,512
262.608,0,0,512,512
262.654,0,0,512,512
262.701,0,0,512,512
262.76,0,0,512,512
262.807,0,0,512,512
262.854,0,0,512,512
262.9,0,0,512,512
262.959,0,0,512,512
263.006,0,0,512,512
263.053,0,0,512,512
263.111,-2.77556e-17,0,512,512
263.158,-2.77556e-17,0,512,512
263.205,-2.77556e-17,0,512,512
263.252,-2.77556e-17,0,512,512
263.311,-2.77556e-17,0,512,512
263.357,-2.77556e-17,0,512,512
263.404,-2.77556e-17,0,512,512
263.451,-2.77556e-17,0,512,512
263.51,-2.77556e-17,0,512,512
263.557,-2.77556e-17,0,512,512
263.603,-2.77556e-17,0,512,512
263.65,-2.77556e-17,0,512,512
263.709,-2.77556e-17,0,512,512
263.756,-2.77556e-17,0,512,512
263.803,-2.77556e-17,0,512,512
263.861,-2.77556e-17,0,512,512
263.908,-2.77556e-17,0,512,512
263.955,-2.77556e-17,0,512,512
264.002,-2.77556e-17,0,512,512
264.06,-2.77556e-17,0,512,512
264.107,-2.77556e-17,0,512,512
264.154,-2.77556e-17,0,512,512
264.201,-2.77556e-17,0,512,512
264.26,-2.77556e-17,0,512,512
264.306,-2.77556e-17,0,512,512
264.353,-2.77556e-17,0,512,512
264.4,-2.77556e-17,0,512,512
264.459,0,0,512,512
264.506,0,0,512,512
264.553,0,0,512,512
264.611,0,0,512,512
264.658,0,0,512,512
264.705,0,0,512,512
264.752,0,0,512,512
264.81,0,0,512,512
264.857,0,0,512,512
264.904,0,0,512,512
264.951,0,0,512,512
265.01,0,0,512,512
265.056,0,0,512,512
265.103,0,0,512,512
265.15,0,0,512,512
265.209,0,0,512,512
265.256,0,0,512,512
265.302,0,0,512,512
265.361,0,0,512,512
265.408,0,0,512,512
265.455,0,0,512,512
265.502,0,0,512,512
265.56,0,0,512,512
265.607,0,0,512,512
265.654,0,0,512,512
265.701,0,0,512,512
265.759,0,0,512,512
265.806,0,0,512,512
265.853,0,0,512,512
265.9,0,0,512,512
265.959,0,0,512,512
266.005,0,0,512,512
266.052,0,0,512,512
266.111,0,0,512,512
266.158,0,0,512,512
266.205,0,0,512,512
266.252,0,0,512,512
266.31,0,0,512,512
266.357,0,0,512,512
266.404,0,0,512,512
266.451,0,0,512,512
266.509,0,0,512,512
266.556,0,0,512,512
266.603,0,0,512,512
266.662,0,0,512,512
266.708,0,0,512,512
266.755,0,0,512,512
266.802,0,0,512,512
266.861,0,0,512,512
266.908,0,0,512,512
266.955,0,0,512,512
267.001,0,0,512,512
267.06,0,0,512,512
267.107,0,0,512,512
267.154,0,0,512,512
267.201,0,0,512,512
267.259,0,0,512,512
267.306,0,0,512,512
267.353,0,0,512,512
267.412,0,0,512,512
267.458,0,0,512,512
267.505,0,0,512,512
267.552,2.77556e-17,0,512,512
267.611,2.77556e-17,0,512,512
267.658,2.77556e-17,0,512,512
267.704,2.77556e-17,0,512,512
267.751,2.77556e-17,0,512,512
267.81,2.77556e-17,0,512,512
267.857,2.77556e-17,0,512,512
267.904,2.77556e-17,0,512,512
267.95,2.77556e-17,0,512,512
268.009,2.77556e-17,0,512,512
268.056,2.77556e-17,0,512,512
268.101,2.77556e-17,0,879,879
268.151,2.77556e-17,0,1107,1107
268.201,2.77556e-17,0,1359,1359
268.251,2.77556e-17,0,1569,1569
268.3,2.77556e-17,0,1797,1797
268.35,2.77556e-17,0,2013,2013
268.401,2.77556e-17,0,2265,2265
268.451,2.77556e-17,0,2493,2493
268.501,2.77556e-17,0,2703,2703
268.551,2.77556e-17,0,2931,2931
268.601,2.77556e-17,0,3147,3147
268.65,2.77556e-17,0,3375,3375
268.7,2.77556e-17,0,3585,3585
268.75,2.77556e-17,0,3813,3813
268.801,2.77556e-17,0,4029,4029
268.851,2.77556e-17,0,4257,4257
268.901,2.77556e-17,0,4439,4439
268.951,2.77556e-17,0,4575,4575
269,2.77556e-17,0,4821,4821
269.05,2.77556e-17,0,5037,5037
269.1,2.77556e-17,0,5265,5265
269.151,2.77556e-17,0,5517,5517
269.201,2.77556e-17,0,5727,5727
269.251,2.77556e-17,0,5955,5955
269.301,2.77556e-17,0,6171,6171
269.351,2.77556e-17,0,6423,6423
269.4,2.77556e-17,0,6651,6651
269.45,2.77556e-17,0,6861,6861
269.501,2.77556e-17,0,7113,7113
269.551,2.77556e-17,0,7341,7341
269.601,2.77556e-17,0,7557,7557
269.651,2.77556e-17,0,7785,7785
269.701,2.77556e-17,0,8037,8037
269.75,2.77556e-17,0,8247,8247
269.8,2.77556e-17,0,8475,8475
269.851,2.77556e-17,0,8691,8691
269.901,2.77556e-17,0,8919,8919
269.951,2.77556e-17,0,9171,9171
270.001,2.77556e-17,0,9381,9381
270.051,2.77556e-17,0,9609,9609
270.1,2.77556e-17,0,9825,9825
270.15,2.77556e-17,0,10053,10053
270.2,2.77556e-17,0,10263,10263
270.251,2.77556e-17,0,10491,10491
270.301,2.77556e-17,0,10707,10707
270.351,2.77556e-17,0,10935,10935
270.401,2.77556e-17,0,11145,11145
270.45,2.77556e-17,0,11337,11337
270.5,2.77556e-17,0,11565,11565
270.55,2.77556e-17,0,11775,11775
270.601,2.77556e-17,0,12003,12003
270.651,2.77556e-17,0,12219,12219
270.701,2.77556e-17,0,12447,12447
270.751,2.77556e-17,0,12633,12633
270.801,2.77556e-17,0,12849,12849
270.85,2.77556e-17,0,13077,13077
270.9,2.77556e-17,0,13263,13263
270.951,2.77556e-17,0,13479,13479
271.001,2.77556e-17,0,13707,13707
271.051,2.77556e-17,0,13893,13893
271.101,2.77556e-17,0,14109,14109
271.151,2.77556e-17,0,14295,14295
271.2,2.77556e-17,0,14523,14523
271.25,2.77556e-17,0,14715,14715
271.301,2.77556e-17,0,14925,14925
271.351,2.77556e-17,0,15131,15131
271.401,2.77556e-17,0,15345,15345
271.451,2.77556e-17,0,15531,15531
271.501,2.77556e-17,0,15747,15747
271.55,2.77556e-17,0,15933,15933
271.6,2.77556e-17,0,16125,16125
271.651,2.77556e-17,0,16353,16353
271.701,2.77556e-17,0,16539,16539
271.751,2.77556e-17,0,16731,16731
271.801,2.77556e-17,0,16937,16937
271.851,2.77556e-17,0,17133,17133
271.9,2.77556e-17,0,17319,17319
271.95,2.77556e-17,0,17511,17511
272,2.77556e-17,0,17697,17697
272.051,2.77556e-17,0,17889,17889
272.101,2.77556e-17,0,18117,18117
272.151,2.77556e-17,0,18303,18303
272.201,2.77556e-17,0,18495,18495
272.25,2.77556e-17,0,18681,18681
272.3,2.77556e-17,0,18873,18873
272.35,2.77556e-17,0,19059,19059
272.401,2.77556e-17,0,19251,19251
272.451,2.77556e-17,0,19437,19437
272.501,1.66533e-16,0,19629,19629
272.551,8.88178e-16,0,19779,19779
272.601,1.77636e-15,0,19965,19965
272.65,2.72005e-15,0,20157,20157
272.7,3.52496e-15,0,20343,20343
272.751,4.41314e-15,0,20535,20535
272.801,5.2458e-15,0,20721,20721
272.851,6.13398e-15,0,20889,20889
272.901,7.02216e-15,0,21075,21075
272.951,7.82707e-15,0,21267,21267
273,8.77076e-15,0,21417,21417
273.05,9.65894e-15,0,21603,21603
273.101,1.05471e-14,0,21795,21795
273.151,1.14908e-14,0,21981,21981
273.201,1.24067e-14,0,22149,22149
273.251,1.29619e-14,0,22335,22335
273.301,1.30174e-14,0,22527,22527
273.35,1.29063e-14,0,22677,22677
273.4,1.113e-14,0,22863,22863
273.45,4.85723e-15,0,23031,23031
273.501,-1.05749e-14,0,23217,23217
273.551,-4.07174e-14,0,23409,23409
273.601,-9.45632e-14,0,23559,23559
273.651,-1.83742e-13,0,23665,23665
273.7,-3.23047e-13,0,23913,23913
273.75,-5.29576e-13,0,24099,24099
273.8,-8.22814e-13,0,24271,24271
273.851,-1.23637e-12,0,24401,24401
273.901,-1.76653e-12,0,24627,24627
273.951,-2.44035e-12,0,24795,24795
274.001,-3.27055e-12,0,24981,24981
274.051,-4.26462e-12,0,25131,25131
274.1,-5.42849e-12,0,25323,25323
274.15,-7.0495e-12,0,25485,25485
274.201,-2.72858e-11,0,25677,25677
274.251,-8.90524e-11,0,25827,25827
274.301,-1.90377e-10,0,26013,26013
274.351,-2.9138e-10,0,26181,26181
274.401,-3.2109e-10,0,26359,26359
274.45,-2.34364e-10,0,26517,26517
274.5,-6.12832e-11,0,26685,26685
274.551,1.09833e-10,0,26871,26871
274.601,1.81157e-10,0,27021,27021
274.651,1.41894e-10,0,27213,27213
274.701,5.29602e-11,0,27335,27335
274.751,2.98508e-12,0,27563,27563
274.8,3.46399e-11,0,27717,27717
274.85,1.17714e-10,0,27879,27879
274.901,1.7702e-10,0,28071,28071
274.951,1.61442e-10,0,28221,28221
275.001,9.47962e-11,0,28383,28383
275.051,4.19924e-11,0,28575,28575
275.101,5.04601e-11,0,28725,28725
275.15,1.10751e-10,0,28887,28887
275.2,1.7038e-10,0,29079,29079
275.25,1.81563e-10,0,29229,29229
275.301,1.36583e-10,0,29391,29391
275.351,7.54464e-11,0,29583,29583
275.401,4.61189e-11,0,29733,29733
275.451,7.49138e-11,0,29895,29895
275.5,1.46754e-10,0,30067,30067
275.55,2.08415e-10,0,30237,30237
275.6,2.00353e-10,0,30399,30399
275.651,1.05696e-10,0,30549,30549
275.701,-6.28386e-14,0,30717,30717
275.751,-4.67903e-12,0,30867,30867
275.801,1.39595e-10,0,31029,31029
275.851,3.20536e-10,0,31155,31155
275.9,3.22926e-10,0,31305,31305
275.95,6.72676e-11,0,31473,31473
276.001,-1.38838e-10,0,31599,31599
276.051,4.28522e-10,0,31725,31725
276.101,2.48841e-09,0,31875,31875
276.151,6.33101e-09,0,32001,32001
276.201,1.15831e-08,0,32127,32127
276.25,1.7385e-08,0,32253,32253
276.3,2.28208e-08,0,32415,32415
276.351,2.74491e-08,0,32640,32640
276.401,3.10489e-08,0,32768,32768
276.451,3.44154e-08,0,32768,32768
276.501,3.85653e-08,0,32768,32768
276.551,4.44878e-08,0,32768,32768
276.6,5.27876e-08,0,32768,32768
276.65,6.3617e-08,0,32768,32768
276.7,7.69633e-08,0,32768,32768
276.751,9.3587e-08,0,32768,32768
276.801,1.13274e-07,0,32768,32768
276.851,1.37525e-07,0,32768,32768
276.901,1.67394e-07,0,32768,32768
276.95,2.03502e-07,0,32768,32768
277,2.45736e-07,0,32768,32768
277.05,2.93184e-07,0,32768,32768
277.101,3.46019e-07,0,32768,32768
277.151,4.00003e-07,0,32768,32768
277.201,4.56151e-07,0,32768,32768
277.251,5.14668e-07,0,32768,32768
277.301,5.75623e-07,0,32768,32768
277.35,6.3804e-07,0,32768,32768
277.4,6.99583e-07,0,32768,32768
277.451,7.58676e-07,0,32768,32768
277.501,8.08817e-07,0,32768,32768
277.551,8.4968e-07,0,32768,32768
277.601,8.80509e-07,0,32768,32768
277.651,9.01856e-07,0,32768,32768
277.7,9.15191e-07,0,32768,32768
277.75,9.22282e-07,0,32768,32768
277.801,9.24585e-07,0,32768,32768
277.851,9.22738e-07,0,32768,32768
277.901,9.16877e-07,0,32768,32768
277.951,9.06442e-07,0,32768,32768
278.001,8.90534e-07,0,32768,32768
278.05,8.68164e-07,0,32768,32768
278.1,8.38517e-07,0,32768,32768
278.15,8.01251e-07,0,32768,32768
278.201,7.5541e-07,0,32768,32768
278.251,7.0505e-07,0,32768,32768
278.301,6.51146e-07,0,32768,32768
278.351,5.96155e-07,0,32768,32768
278.4,5.42247e-07,0,32768,32768
278.45,4.90939e-07,0,32768,32768
278.5,4.43014e-07,0,32768,32768
278.551,3.97375e-07,0,32768,32768
278.601,3.56347e-07,0,32768,32768
278.651,3.18094e-07,0,32768,32768
278.701,2.82169e-07,0,32768,32768
278.75,2.48402e-07,0,32768,32768
278.8,2.1708e-07,0,32768,32768
278.85,1.88926e-07,0,32768,32768
278.901,1.64086e-07,0,32768,32768
278.951,1.44239e-07,0,32768,32768
279.001,1.27914e-07,0,32768,32768
279.051,1.137e-07,0,32768,32768
279.101,1.00241e-07,0,32768,32768
279.15,8.69919e-08,0,32768,32768
279.2,7.43755e-08,0,32768,32768
279.251,6.29973e-08,0,32768,32768
279.301,5.42029e-08,0,32768,32768
279.351,4.767e-08,0,32768,32768
279.401,4.27885e-08,0,32768,32768
279.451,3.86037e-08,0,32768,32768
279.5,3.42489e-08,0,32768,32768
279.55,2.93606e-08,0,32768,32768
279.601,2.41235e-08,0,32768,32768
279.651,1.96864e-08,0,32768,32768
279.701,1.67155e-08,0,32768,32768
279.751,1.55559e-08,0,32768,32768
279.801,1.59824e-08,0,32768,32768
279.85,1.74554e-08,0,32768,32768
279.9,1.94691e-08,0,32768,32768
279.95,2.17429e-08,0,32768,32768
280.001,2.42792e-08,0,32768,32768
280.051,2.69517e-08,0,32768,32768
280.101,2.98378e-08,0,32768,32768
280.151,3.28996e-08,0,32768,32768
280.2,3.60815e-08,0,32768,32768
280.25,3.93671e-08,0,32768,32768
280.3,4.27984e-08,0,32768,32768
280.351,4.65398e-08,0,32768,32768
280.401,5.03886e-08,0,32768,32768
280.451,5.44134e-08,0,32768,32768
280.501,5.85639e-08,0,32768,32768
280.551,6.27944e-08,0,32768,32768
280.6,6.70751e-08,0,32768,32768
280.65,7.14154e-08,0,32768,32768
280.701,7.60354e-08,0,32768,32768
280.751,8.08498e-08,0,32768,32768
280.801,8.62141e-08,0,32768,32768
280.851,9.23134e-08,0,32768,32768
280.901,9.91907e-08,0,32768,32768
280.95,1.06694e-07,0,32768,32768
281,1.14512e-07,0,32768,32768
281.051,1.22521e-07,0,32768,32768
281.101,1.30025e-07,0,32768,32768
281.151,1.37254e-07,0,32768,32768
281.201,1.44466e-07,0,32768,32768
281.251,1.52119e-07,0,32768,32768
281.3,1.60751e-07,0,32768,32768
281.35,1.70877e-07,0,32768,32768
281.4,1.82943e-07,0,32768,32768
281.451,1.9782e-07,0,32768,32768
281.501,2.15103e-07,0,32768,32768
281.551,2.35682e-07,0,32768,32768
281.601,2.6009e-07,0,32768,32768
281.65,2.8878e-07,0,32768,32768
281.7,3.21986e-07,0,32768,32768
281.75,3.59619e-07,0,32768,32768
281.801,4.02548e-07,0,32768,32768
281.851,4.47672e-07,0,32768,32768
281.901,4.95458e-07,0,32768,32768
281.951,5.45225e-07,0,32768,32768
282.001,5.9628e-07,0,32768,32768
282.05,6.47765e-07,0,32768,32768
282.1,6.98489e-07,0,32768,32768
282.151,7.48241e-07,0,32768,32768
282.201,7.92288e-07,0,32768,32768
282.251,8.30291e-07,0,32768,32768
282.301,8.60824e-07,0,32768,32768
282.351,8.83098e-07,0,32768,32768
282.4,8.97039e-07,0,32768,32768
282.45,9.03174e-07,0,32768,32768
282.501,9.02261e-07,0,32768,32768
282.551,8.95294e-07,0,32768,32768
282.601,8.83052e-07,0,32768,32768
282.651,8.65895e-07,0,32768,32768
282.701,8.43814e-07,0,32768,32768
282.75,8.16542e-07,0,32768,32768
282.8,7.8372e-07,0,32768,32768
282.851,7.43887e-07,0,32768,32768
282.901,6.9941e-07,0,32768,32768
282.951,6.49786e-07,0,32768,32768
283.001,5.96059e-07,0,32768,32768
283.051,5.39667e-07,0,32768,32768
283.1,4.82254e-07,0,32768,32768
283.15,4.25419e-07,0,32768,32768
283.2,3.70504e-07,0,32768,32768
283.251,3.16975e-07,0,32768,32768
283.301,2.68426e-07,0,32768,32768
283.351,2.23445e-07,0,32768,32768
283.401,1.81981e-07,0,32768,32768
283.45,1.43921e-07,0,32768,32768
283.5,1.09215e-07,0,32768,32768
283.55,7.79319e-08,0,32768,32768
283.601,4.94497e-08,0,32768,32768
283.651,2.54872e-08,0,32768,32768
283.701,5.07857e-09,0,32768,32768
283.751,-1.21224e-08,0,32768,32768
283.801,-2.66445e-08,0,32768,32768
283.85,-3.90351e-08,0,32768,32768
283.9,-4.9686e-08,0,32768,32768
283.951,-5.89931e-08,0,32768,32768
284.001,-6.63897e-08,0,32768,32768
284.051,-7.20951e-08,0,32768,32768
284.101,-7.61571e-08,0,32768,32768
284.151,-7.88073e-08,0,32768,32768
284.2,-8.04137e-08,0,32768,32768
284.25,-8.13496e-08,0,32768,32768
284.301,-8.1866e-08,0,32768,32768
284.351,-8.19699e-08,0,32768,32768
284.401,-8.15453e-08,0,32768,32768
284.451,-8.03991e-08,0,32768,32768
284.501,-7.8409e-08,0,32768,32768
284.55,-7.55986e-08,0,32768,32768
284.6,-7.21345e-08,0,32768,32768
284.65,-6.82637e-08,0,32768,32768
284.701,-6.41178e-08,0,32768,32768
284.751,-6.01388e-08,0,32768,32768
284.801,-5.63437e-08,0,32768,32768
284.851,-5.28135e-08,0,32768,32768
284.9,-4.95922e-08,0,32768,32768
284.95,-4.66979e-08,0,32768,32768
285,-4.41274e-08,0,32768,32768
285.051,-4.17982e-08,0,32768,32768
285.101,-3.9814e-08,0,32768,32768
285.151,-3.80767e-08,0,32768,32768
285.201,-3.65664e-08,0,32768,32768
285.251,-3.52716e-08,0,32768,32768
285.3,-3.4185e-08,0,32768,32768
285.35,-3.32982e-08,0,32768,32768
285.401,-3.25815e-08,0,32768,32768
285.451,-3.20598e-08,0,32768,32768
285.501,-3.16914e-08,0,32768,32768
285.551,-3.14571e-08,0,32768,32768
285.601,-3.13373e-08,0,32768,32768
285.65,-3.13132e-08,0,32768,32768
285.7,-3.13672e-08,0,32768,32768
285.751,-3.14873e-08,0,32768,32768
285.801,-3.16519e-08,0,32768,32768
285.851,-3.18517e-08,0,32768,32768
285.901,-3.20768e-08,0,32768,32768
285.951,-3.23193e-08,0,32768,32768
286,-3.25729e-08,0,32768,32768
286.05,-3.28318e-08,0,32768,32768
286.1,-3.30911e-08,0,32768,32768
286.151,-3.33534e-08,0,32768,32768
286.201,-3.35999e-08,0,32768,32768
286.251,-3.38352e-08,0,32768,32768
286.301,-3.40575e-08,0,32768,32768
286.35,-3.42658e-08,0,32768,32768
286.4,-3.44593e-08,0,32768,32768
286.45,-3.46374e-08,0,32768,32768
286.501,-3.48036e-08,0,32768,32768
286.551,-3.49467e-08,0,32768,32768
286.601,-3.50704e-08,0,32768,32768
286.651,-3.51734e-08,0,32768,32768
286.701,-3.52548e-08,0,32768,32768
286.75,-3.53146e-08,0,32768,32768
286.8,-3.53534e-08,0,32768,32768
286.851,-3.53726e-08,0,32768,32768
286.901,-3.53724e-08,0,32768,32768
286.951,-3.53557e-08,0,32768,32768
287.001,-3.53245e-08,0,32768,32768
287.051,-3.5281e-08,0,32768,32768
287.1,-3.52273e-08,0,32768,32768
287.15,-3.51658e-08,0,32768,32768
287.201,-3.50963e-08,0,32768,32768
287.251,-3.50246e-08,0,32768,32768
287.301,-3.49504e-08,0,32768,32768
287.351,-3.48751e-08,0,32768,32768
287.401,-3.48e-08,0,32768,32768
287.45,-3.47262e-08,0,32768,32768
287.5,-3.46546e-08,0,32768,32768
287.551,-3.45843e-08,0,32768,32768
287.601,-3.452e-08,0,32768,32768
287.651,-3.44605e-08,0,32768,32768
287.701,-3.44061e-08,0,32768,32768
287.751,-3.43575e-08,0,32768,32768
287.8,-3.4315e-08,0,32768,32768
287.85,-3.42789e-08,0,32768,32768
287.9,-3.42493e-08,0,32768,32768
287.951,-3.42259e-08,0,32768,32768
288.001,-3.42101e-08,0,32768,32768
288.051,-3.42012e-08,0,32768,32768
288.101,-3.41993e-08,0,32768,32768
288.15,-3.42046e-08,0,32768,32768
288.2,-3.42172e-08,0,32768,32768
288.25,-3.42371e-08,0,32768,32768
288.301,-3.42652e-08,0,32768,32768
288.351,-3.42998e-08,0,32768,32768
288.401,-3.43416e-08,0,32768,32768
288.451,-3.43902e-08,0,32768,32768
288.501,-3.44456e-08,0,32768,32768
288.55,-3.45076e-08,0,32768,32768
288.6,-3.45765e-08,0,32768,32768
288.651,-3.46547e-08,0,32768,32768
288.701,-3.47384e-08,0,32768,32768
288.751,-3.48306e-08,0,32768,32768
288.801,-3.49324e-08,0,32768,32768
288.851,-3.50449e-08,0,32768,32768
288.9,-3.51699e-08,0,32768,32768
288.95,-3.53089e-08,0,32768,32768
289.001,-3.54687e-08,0,32768,32768
289.051,-3.5642e-08,0,32768,32768
289.101,-3.58349e-08,0,32768,32768
289.151,-3.60491e-08,0,32768,32768
289.201,-3.62858e-08,0,32768,32768
289.25,-3.6546e-08,0,32768,32768
289.3,-3.683e-08,0,32768,32768
289.35,-3.71379e-08,0,32768,32768
289.401,-3.74789e-08,0,32768,32768
289.451,-3.78322e-08,0,32768,32768
289.501,-3.82048e-08,0,32768,32768
289.551,-3.85938e-08,0,32768,32768
289.6,-3.89956e-08,0,32768,32768
289.65,-3.94059e-08,0,32768,32768
289.7,-3.98203e-08,0,32768,32768
289.751,-4.0246e-08,0,32768,32768
289.801,-4.06539e-08,0,32768,32768
289.851,-4.1052e-08,0,32768,32768
289.901,-4.14359e-08,0,32768,32768
289.95,-4.18019e-08,0,32768,32768
290,-4.21461e-08,0,32768,32768
290.05,-4.2465e-08,0,32768,32768
290.101,-4.27632e-08,0,32768,32768
290.151,-4.30203e-08,0,32768,32768
290.201,-4.32419e-08,0,32768,32768
290.251,-4.34255e-08,0,32768,32768
290.301,-4.35685e-08,0,32768,32768
290.35,-4.36694e-08,0,32768,32768
290.4,-4.3727e-08,0,32768,32768
290.451,-4.37406e-08,0,32768,32768
290.501,-4.37096e-08,0,32768,32768
290.551,-4.36353e-08,0,32768,32768
290.601,-4.35185e-08,0,32768,32768
290.651,-4.33599e-08,0,32768,32768
290.7,-4.31602e-08,0,32768,32768
290.75,-4.29199e-08,0,32768,32768
290.801,-4.26302e-08,0,32768,32768
290.851,-4.23077e-08,0,32768,32768
290.901,-4.19443e-08,0,32768,32768
290.951,-4.15396e-08,0,32768,32768
291.001,-4.10932e-08,0,32768,32768
291.05,-4.06044e-08,0,32768,32768
291.1,-4.00731e-08,0,32768,32768
291.15,-3.94991e-08,0,32768,32768
291.201,-3.88641e-08,0,32768,32768
291.251,-3.82049e-08,0,32768,32768
291.301,-3.75056e-08,0,32768,32768
291.351,-3.67682e-08,0,32768,32768
291.4,-3.59958e-08,0,32768,32768
291.45,-3.51923e-08,0,32768,32768
291.5,-3.43625e-08,0,32768,32768
291.551,-3.34865e-08,0,32768,32768
291.601,-3.26205e-08,0,32768,32768
291.651,-3.17458e-08,0,32768,32768
291.701,-3.08683e-08,0,32768,32768
291.751,-2.99938e-08,0,32768,32768
291.8,-2.91277e-08,0,32768,32768
291.85,-2.82748e-08,0,32768,32768
291.901,-2.74157e-08,0,32768,32768
291.951,-2.6604e-08,0,32768,32768
292.001,-2.58191e-08,0,32768,32768
292.051,-2.50651e-08,0,32768,32768
292.101,-2.43459e-08,0,32768,32768
292.15,-2.3665e-08,0,32768,32768
292.2,-2.30256e-08,0,32768,32768
292.251,-2.24132e-08,0,32768,32768
292.301,-2.18643e-08,0,32768,32768
292.351,-2.13616e-08,0,32768,32768
292.401,-2.09047e-08,0,32768,32768
292.451,-2.04924e-08,0,32768,32768
292.5,-2.0123e-08,0,32768,32768
292.55,-1.97942e-08,0,32768,32768
292.6,-1.95031e-08,0,32768,32768
292.651,-1.92401e-08,0,32768,32768
292.701,-1.9017e-08,0,32768,32768
292.751,-1.88228e-08,0,32768,32768
292.801,-1.86546e-08,0,32768,32768
292.85,-1.85093e-08,0,32768,32768
292.9,-1.83842e-08,0,32768,32768
292.95,-1.82763e-08,0,32768,32768
293.001,-1.81806e-08,0,32768,32768
293.051,-1.81e-08,0,32768,32768
293.101,-1.80295e-08,0,32768,32768
293.151,-1.79671e-08,0,32768,32768
293.201,-1.7911e-08,0,32768,32768
293.25,-1.78598e-08,0,32768,32768
293.3,-1.78121e-08,0,32768,32768
293.351,-1.77656e-08,0,32768,32768
293.401,-1.7722e-08,0,32768,32768
293.451,-1.76793e-08,0,32768,32768
293.501,-1.76366e-08,0,32768,32768
293.551,-1.75931e-08,0,32768,32768
293.6,-1.75479e-08,0,32768,32768
293.65,-1.74998e-08,0,32768,32768
293.701,-1.74458e-08,0,32768,32768
293.751,-1.73879e-08,0,32768,32768
293.801,-1.73235e-08,0,32768,32768
293.851,-1.72516e-08,0,32768,32768
293.901,-1.71714e-08,0,32768,32768
293.95,-1.70825e-08,0,32768,32768
294,-1.69845e-08,0,32768,32768
294.051,-1.68741e-08,0,32768,32768
294.101,-1.67578e-08,0,32768,32768
294.151,-1.6633e-08,0,32768,32768
294.201,-1.65004e-08,0,32768,32768
294.251,-1.6361e-08,0,32768,32768
294.3,-1.62156e-08,0,32768,32768
294.35,-1.60651e-08,0,32768,32768
294.4,-1.59105e-08,0,32768,32768
294.451,-1.57478e-08,0,32768,32768
294.501,-1.55874e-08,0,32768,32768
294.551,-1.54254e-08,0,32768,32768
294.601,-1.52628e-08,0,32768,32768
294.65,-1.50999e-08,0,32768,32768
294.7,-1.49368e-08,0,32768,32768
294.75,-1.47729e-08,0,32768,32768
294.801,-1.46022e-08,0,32768,32768
294.851,-1.44326e-08,0,32768,32768
294.901,-1.42578e-08,0,32768,32768
294.951,-1.40761e-08,0,32768,32768
295.001,-1.38866e-08,0,32768,32768
295.05,-1.36887e-08,0,32768,32768
295.1,-1.34826e-08,0,32768,32768
295.151,-1.32622e-08,0,32768,32768
295.201,-1.30404e-08,0,32768,32768
295.251,-1.28112e-08,0,32768,32768
295.301,-1.2574e-08,0,32768,32768
295.351,-1.23274e-08,0,32768,32768
295.4,-1.20696e-08,0,32768,32768
295.45,-1.17979e-08,0,32768,32768
295.501,-1.15008e-08,0,32768,32768
295.551,-1.11924e-08,0,32768,32768
295.601,-1.08618e-08,0,32768,32768
295.651,-1.05068e-08,0,32768,32768
295.701,-1.01255e-08,0,32768,32768
295.75,-9.71661e-09,0,32768,32768
295.8,-9.27901e-09,0,32768,32768
295.85,-8.81188e-09,0,32768,32768
295.901,-8.29955e-09,0,32768,32768
295.951,-7.771e-09,0,32768,32768
296.001,-7.21219e-09,0,32768,32768
296.051,-6.62387e-09,0,32768,32768
296.1,-6.0076e-09,0,32768,32768
296.15,-5.36582e-09,0,32768,32768
296.2,-4.70184e-09,0,32768,32768
296.251,-3.99942e-09,0,32768,32768
296.301,-3.30343e-09,0,32768,32768
296.351,-2.59896e-09,0,32768,32768
296.401,-1.89102e-09,0,32768,32768
296.451,-1.18465e-09,0,32768,32768
296.5,-4.84803e-10,0,32768,32768
296.55,2.03708e-10,0,32768,32768
296.601,8.95727e-10,0,32768,32768
296.651,1.5472e-09,0,32768,32768
296.701,2.17405e-09,0,32768,32768
296.751,2.77251e-09,0,32768,32768
296.801,3.33913e-09,0,32768,32768
296.85,3.8708e-09,0,32768,32768
296.9,4.36468e-09,0,32768,32768
296.951,4.83101e-09,0,32768,32768
297.001,5.24107e-09,0,32768,32768
297.051,5.60733e-09,0,32768,32768
297.101,5.92907e-09,0,32768,32768
297.151,6.20633e-09,0,32768,32768
297.2,6.43997e-09,0,32768,32768
297.25,6.6316e-09,0,32768,32768
297.3,6.78339e-09,0,32768,32768
297.351,6.90083e-09,0,32768,32768
297.401,6.9802e-09,0,32768,32768
297.451,7.02846e-09,0,32768,32768
297.501,7.04876e-09,0,32768,32768
297.55,7.0442e-09,0,32768,32768
297.6,7.01787e-09,0,32768,32768
297.65,6.97273e-09,0,32768,32768
297.701,6.9096e-09,0,32768,32768
297.751,6.83482e-09,0,32768,32768
297.801,6.74931e-09,0,32768,32768
297.851,6.65532e-09,0,32768,32768
297.901,6.55493e-09,0,32768,32768
297.95,6.44996e-09,0,32768,32768
298,6.34203e-09,0,32768,32768
298.051,6.22928e-09,0,32768,32768
298.101,6.11938e-09,0,32768,32768
298.151,6.01013e-09,0,32768,32768
298.201,5.90241e-09,0,32768,32768
298.251,5.79703e-09,0,32768,32768
298.3,5.6948e-09,0,32768,32768
298.35,5.5965e-09,0,32768,32768
298.401,5.50026e-09,0,32768,32768
298.451,5.41241e-09,0,32768,32768
298.501,5.33083e-09,0,32768,32768
298.551,5.25614e-09,0,32768,32768
298.601,5.1888e-09,0,32768,32768
298.65,5.12905e-09,0,32768,32768
298.7,5.07691e-09,0,32768,32768
298.751,5.03098e-09,0,32768,32768
298.801,4.99343e-09,0,32768,32768
298.851,4.96217e-09,0,32768,32768
298.901,4.93633e-09,0,32768,32768
298.951,4.91488e-09,0,32768,32768
299,4.89667e-09,0,32768,32768
299.05,4.8805e-09,0,32768,32768
299.1,4.86514e-09,0,32768,32768
299.151,4.84893e-09,0,32768,32768
299.201,4.83164e-09,0,32768,32768
299.251,4.81177e-09,0,32768,32768
299.301,4.78839e-09,0,32768,32768
299.35,4.76079e-09,0,32768,32768
299.4,4.72854e-09,0,32768,32768
299.45,4.69153e-09,0,32768,32768
299.501,4.64879e-09,0,32768,32768
299.551,4.60345e-09,0,32768,32768
299.601,4.55529e-09,0,32768,32768
299.651,4.50541e-09,0,32768,32768
299.701,4.45481e-09,0,32768,32768
299.75,4.40435e-09,0,32768,32768
299.8,4.35458e-09,0,32768,32768
299.851,4.30433e-09,0,32768,32768
299.901,4.25651e-09,0,32768,32768
299.951,4.20959e-09,0,32768,32768
300.001,4.16356e-09,0,32768,32768
300.051,4.11854e-09,0,32768,32768
300.1,4.07489e-09,0,32768,32768
300.15,4.03318e-09,0,32768,32768
300.201,3.99302e-09,0,32768,32768
300.251,3.95745e-09,0,32768,32768
300.301,3.92588e-09,0,32768,32768
300.351,3.89865e-09,0,32768,32768
300.401,3.87581e-09,0,32768,32768
300.45,3.85708e-09,0,32768,32768
300.5,3.84192e-09,0,32768,32768
300.55,3.82962e-09,0,32768,32768
300.601,3.81915e-09,0,32768,32768
300.651,3.81039e-09,0,32768,32768
300.701,3.80238e-09,0,32768,32768
300.751,3.79464e-09,0,32768,32768
300.8,3.78677e-09,0,32768,32768
300.85,3.77846e-09,0,32768,32768
300.9,3.76944e-09,0,32768,32768
300.951,3.75916e-09,0,32768,32768
301.001,3.74802e-09,0,32768,32768
301.051,3.73563e-09,0,32768,32768
301.101,3.72195e-09,0,32768,32768
301.151,3.70699e-09,0,32768,32768
301.2,3.69084e-09,0,32768,32768
301.25,3.67359e-09,0,32768,32768
301.301,3.65475e-09,0,32768,32768
301.351,3.63547e-09,0,32768,32768
301.401,3.61527e-09,0,32768,32768
301.451,3.59419e-09,0,32768,32768
301.501,3.57229e-09,0,32768,32768
301.55,3.54968e-09,0,32768,32768
301.6,3.52645e-09,0,32768,32768
301.651,3.502e-09,0,32768,32768
301.701,3.47777e-09,0,32768,32768
301.751,3.45306e-09,0,32768,32768
301.801,3.42784e-09,0,32768,32768
301.851,3.40203e-09,0,32768,32768
301.9,3.37554e-09,0,32768,32768
301.95,3.34832e-09,0,32768,32768
302.001,3.31954e-09,0,32768,32768
302.051,3.29087e-09,0,32768,32768
302.101,3.26159e-09,0,32768,32768
302.151,3.2318e-09,0,32768,32768
302.201,3.2016e-09,0,32768,32768
302.25,3.17109e-09,0,32768,32768
302.3,3.14037e-09,0,32768,32768
302.35,3.1095e-09,0,32768,32768
302.401,3.07761e-09,0,32768,32768
302.451,3.04656e-09,0,32768,32768
302.501,3.01546e-09,0,32768,32768
302.551,2.98432e-09,0,32768,32768
302.6,2.95314e-09,0,32768,32768
302.65,2.92192e-09,0,32768,32768
302.7,2.89067e-09,0,32768,32768
302.751,2.85843e-09,0,32768,32768
302.801,2.82706e-09,0,32768,32768
302.851,2.79561e-09,0,32768,32768
302.901,2.76405e-09,0,32768,32768
302.951,2.73236e-09,0,32768,32768
303,2.70051e-09,0,32768,32768
303.05,2.66846e-09,0,32768,32768
303.101,2.63522e-09,0,32768,32768
303.151,2.60265e-09,0,32768,32768
303.201,2.56976e-09,0,32768,32768
303.251,2.53652e-09,0,32768,32768
303.301,2.50287e-09,0,32768,32768
303.35,2.46879e-09,0,32768,32768
303.4,2.43425e-09,0,32768,32768
303.451,2.39817e-09,0,32768,32768
303.501,2.36259e-09,0,32768,32768
303.551,2.32647e-09,0,32768,32768
303.601,2.28979e-09,0,32768,32768
303.651,2.25254e-09,0,32768,32768
303.7,2.21473e-09,0,32768,32768
303.75,2.17637e-09,0,32768,32768
303.8,2.13745e-09,0,32768,32768
303.851,2.09684e-09,0,32768,32768
303.901,2.05688e-09,0,32768,32768
303.951,2.01645e-09,0,32768,32768
304.001,1.97558e-09,0,32768,32768
304.05,1.93431e-09,0,32768,32768
304.1,1.89269e-09,0,32768,32768
304.15,1.85076e-09,0,32768,32768
304.201,1.80733e-09,0,32768,32768
304.251,1.76495e-09,0,32768,32768
304.301,1.72242e-09,0,32768,32768
304.351,1.67982e-09,0,32768,32768
304.401,1.63721e-09,0,32768,32768
304.45,1.59465e-09,0,32768,32768
304.5,1.5522e-09,0,32768,32768
304.551,1.50868e-09,0,32768,32768
304.601,1.46665e-09,0,32768,32768
304.651,1.42492e-09,0,32768,32768
304.701,1.38353e-09,0,32768,32768
304.751,1.34255e-09,0,32768,32768
304.8,1.30203e-09,0,32768,32768
304.85,1.262e-09,0,32768,32768
304.901,1.22137e-09,0,32768,32768
304.951,1.1825e-09,0,32768,32768
