250,0,0,512,512
250.012,0,0,512,512
250.059,0,0,512,512
250.105,0,0,512,512
250.152,0,0,512,512
250.211,0,0,512,512
250.258,0,0,512,512
250.305,0,0,512,512
250.352,0,0,512,512
250.41,0,0,512,512
250.457,0,0,512,512
250.504,0,0,512,512
250.551,0,0,512,512
250.609,0,0,512,512
250.656,0,0,512,512
250.703,0,0,512,512
250.762,0,0,512,512
250.808,0,0,512,512
250.855,0,0,512,512
250.902,0,0,512,512
250.961,2.77556e-17,0,512,512
251.008,2.77556e-17,0,512,512
251.055,2.77556e-17,0,512,512
251.101,0,0,512,512
251.16,0,0,512,512
251.207,0,0,512,512
251.254,0,0,512,512
251.301,0,0,512,512
251.359,0,0,512,512
251.406,0,0,512,512
251.453,0,0,512,512
251.511,0,0,512,512
251.558,0,0,512,512
251.605,0,0,512,512
251.652,0,0,512,512
251.711,0,0,512,512
251.758,0,0,512,512
251.804,0,0,512,512
251.851,0,0,512,512
251.91,0,0,512,512
251.957,0,0,512,512
252.004,0,0,512,512
252.05,0,0,512,512
252.109,0,0,512,512
252.156,0,0,512,512
252.203,0,0,512,512
252.261,0,0,512,512
252.308,0,0,512,512
252.355,0,0,512,512
252.402,0,0,512,512
252.461,0,0,512,512
252.507,-2.77556e-17,0,512,512
252.554,-2.77556e-17,0,512,512
252.601,-2.77556e-17,0,512,512
252.66,-2.77556e-17,0,512,512
252.707,-2.77556e-17,0,512,512
252.754,-2.77556e-17,0,512,512
252.8,0,0,512,512
252.859,0,0,512,512
252.906,-2.77556e-17,0,512,512
252.953,-2.77556e-17,0,512,512
253.011,-2.77556e-17,0,512,512
253.058,-2.77556e-17,0,512,512
253.105,-2.77556e-17,0,512,512
253.152,-2.77556e-17,0,512,512
253.21,-2.77556e-17,0,512,512
253.257,-2.77556e-17,0,512,512
253.304,-2.77556e-17,0,512,512
253.351,0,0,512,512
253.41,0,0,512,512
253.457,0,0,512,512
253.503,0,0,512,512
253.55,0,0,512,512
253.609,0,0,512,512
253.656,0,0,512,512
253.703,0,0,512,512
253.761,0,0,512,512
253.808,0,0,512,512
253.855,0,0,512,512
253.902,-2.77556e-17,0,512,512
253.96,-2.77556e-17,0,512,512
254.007,-2.77556e-17,0,512,512
254.054,0,0,512,512
254.101,-2.77556e-17,0,512,512
254.16,0,0,512,512
254.206,0,0,512,512
254.253,0,0,512,512
254.3,0,0,512,512
254.359,0,0,512,512
254.406,0,0,512,512
254.452,0,0,512,512
254.511,0,0,512,512
254.558,0,0,512,512
254.605,0,0,512,512
254.652,-2.77556e-17,0,512,512
254.71,-2.77556e-17,0,512,512
254.757,-2.77556e-17,0,512,512
254.804,-2.77556e-17,0,512,512
254.851,-2.77556e-17,0,512,512
254.909,-2.77556e-17,0,512,512
254.956,0,0,512,512
255.003,0,0,512,512
255.05,0,0,512,512
255.109,0,0,512,512
255.155,0,0,512,512
255.202,0,0,512,512
255.261,0,0,512,512
255.308,0,0,512,512
255.355,0,0,512,512
255.402,0,0,512,512
255.46,0,0,512,512
255.507,0,0,512,512
255.554,0,0,512,512
255.601,0,0,512,512
255.659,0,0,512,512
255.706,0,0,512,512
255.753,0,0,512,512
255.812,0,0,512,512
255.859,0,0,512,512
255.905,0,0,512,512
255.952,-2.77556e-17,0,512,512
256.011,-2.77556e-17,0,512,512
256.058,-2.77556e-17,0,512,512
256.105,-2.77556e-17,0,512,512
256.151,-2.77556e-17,0,512,512
256.21,-2.77556e-17,0,512,512
256.257,-2.77556e-17,0,512,512
256.304,-2.77556e-17,0,512,512
256.351,-2.77556e-17,0,512,512
256.409,-2.77556e-17,0,512,512
256.456,-2.77556e-17,0,512,512
256.503,0,0,512,512
256.562,0,0,512,512
256.608,0,0,512,512
256.655,-2.77556e-17,0,512,512
256.702,-2.77556e-17,0,512,512
256.761,-2.77556e-17,0,512,512
256.808,-5.55112e-17,0,512,512
256.854,-5.55112e-17,0,512,512
256.901,-5.55112e-17,0,512,512
256.96,-5.55112e-17,0,512,512
257.007,-5.55112e-17,0,512,512
257.054,-5.55112e-17,0,512,512
257.101,-5.55112e-17,0,512,512
257.159,-5.55112e-17,0,512,512
257.206,-5.55112e-17,0,512,512
257.253,-5.55112e-17,0,512,512
257.311,-2.77556e-17,0,512,512
257.358,-2.77556e-17,0,512,512
257.405,-2.77556e-17,0,512,512
257.452,-2.77556e-17,0,512,512
257.511,-2.77556e-17,0,512,512
257.557,0,0,512,512
257.604,-2.77556e-17,0,512,512
257.651,0,0,512,512
257.71,0,0,512,512
257.757,0,0,512,512
257.804,0,0,512,512
257.85,-2.77556e-17,0,512,512
257.909,-2.77556e-17,0,512,512
257.956,0,0,512,512
258.003,0,0,512,512
258.061,0,0,512,512
258.108,0,0,512,512
258.155,0,0,512,512
258.202,0,0,512,512
258.261,2.77556e-17,0,512,512
258.307,0,0,512,512
258.354,0,0,512,512
258.401,0,0,512,512
258.46,0,0,512,512
258.507,0,0,512,512
258.553,0,0,512,512
258.6,-2.77556e-17,0,512,512
258.659,2.77556e-17,0,512,512
258.706,5.55112e-17,0,512,512
258.753,2.77556e-17,0,512,512
258.811,2.77556e-17,0,512,512
258.858,5.55112e-17,0,512,512
258.905,2.77556e-17,0,512,512
258.952,2.77556e-17,0,512,512
259.01,2.77556e-17,0,512,512
259.057,2.77556e-17,0,512,512
259.104,2.77556e-17,0,512,512
259.151,2.77556e-17,0,512,512
259.21,0,0,512,512
259.256,0,0,512,512
259.303,0,0,512,512
259.35,0,0,512,512
259.409,0,0,512,512
259.456,0,0,512,512
259.503,0,0,512,512
259.561,0,0,512,512
259.608,0,0,512,512
259.655,0,0,512,512
259.702,0,0,512,512
259.76,0,0,512,512
259.807,0,0,512,512
259.854,0,0,512,512
259.901,2.77556e-17,0,512,512
259.959,0,0,512,512
260.006,2.77556e-17,0,512,512
260.053,2.77556e-17,0,512,512
260.1,2.77556e-17,0,512,512
260.159,2.77556e-17,0,512,512
260.206,2.77556e-17,0,512,512
260.252,2.77556e-17,0,512,512
260.311,2.77556e-17,0,512,512
260.358,2.77556e-17,0,512,512
260.405,2.77556e-17,0,512,512
260.452,2.77556e-17,0,512,512
260.51,2.77556e-17,0,512,512
260.557,5.55112e-17,0,512,512
260.604,5.55112e-17,0,512,512
260.651,5.55112e-17,0,512,512
260.709,2.77556e-17,0,512,512
260.756,0,0,512,512
260.803,0,0,512,512
260.862,0,0,512,512
260.909,0,0,512,512
260.955,0,0,512,512
261.002,0,0,512,512
261.061,2.77556e-17,0,512,512
261.108,2.77556e-17,0,512,512
261.155,0,0,512,512
261.201,2.77556e-17,0,512,512
261.26,-2.77556e-17,0,512,512
261.307,0,0,512,512
261.354,0,0,512,512
261.401,0,0,512,512
261.459,0,0,512,512
261.506,2.77556e-17,0,512,512
261.553,2.77556e-17,0,512,512
261.612,0,0,512,512
261.658,-2.77556e-17,0,512,512
261.705,0,0,512,512
261.752,2.77556e-17,0,512,512
261.811,2.77556e-17,0,512,512
261.858,0,0,512,512
261.905,2.77556e-17,0,512,512
261.951,2.77556e-17,0,512,512
262.01,-5.55112e-17,0,512,512
262.057,-2.77556e-17,0,512,512
262.104,0,0,512,512
262.151,0,0,512,512
262.209,-2.77556e-17,0,512,512
262.256,-2.77556e-17,0,512,512
262.303,-2.77556e-17,0,512,512
262.361,-2.77556e-17,0,512,512
262.408,0,0,512,512
262.455,0,0,512,512
262.502,0,0,512,512
262.561,0,0,512,512
262.608,0,0,512,512
262.654,2.77556e-17,0,512,512
262.701,2.77556e-17,0,512,512
262.76,0,0,512,512
262.807,0,0,512,512
262.854,0,0,512,512
262.9,0,0,512,512
262.959,0,0,512,512
263.006,0,0,512,512
263.053,0,0,512,512
263.111,0,0,512,512
263.158,-2.77556e-17,0,512,512
263.205,0,0,512,512
263.252,0,0,512,512
263.311,0,0,512,512
263.357,0,0,512,512
263.404,0,0,512,512
263.451,2.77556e-17,0,512,512
263.51,2.77556e-17,0,512,512
263.557,0,0,512,512
263.603,-2.77556e-17,0,512,512
263.65,-2.77556e-17,0,512,512
263.709,-2.77556e-17,0,512,512
263.756,0,0,512,512
263.803,0,0,512,512
263.861,0,0,512,512
263.908,0,0,512,512
263.955,-2.77556e-17,0,512,512
264.002,-2.77556e-17,0,512,512
264.06,-2.77556e-17,0,512,512
264.107,-2.77556e-17,0,512,512
264.154,0,0,512,512
264.201,-2.77556e-17,0,512,512
264.26,0,0,512,512
264.306,0,0,512,512
264.353,-5.55112e-17,0,512,512
264.4,-2.77556e-17,0,512,512
264.459,-2.77556e-17,0,512,512
264.506,-2.77556e-17,0,512,512
264.553,-2.77556e-17,0,512,512
264.611,-2.77556e-17,0,512,512
264.658,-2.77556e-17,0,512,512
264.705,0,0,512,512
264.752,0,0,512,512
264.81,-2.77556e-17,0,512,512
264.857,-2.77556e-17,0,512,512
264.904,0,0,512,512
264.951,0,0,512,512
265.01,0,0,512,512
265.056,0,0,512,512
265.103,0,0,512,512
265.15,0,0,512,512
265.209,0,0,512,512
265.256,0,0,512,512
265.302,0,0,512,512
265.361,0,0,512,512
265.408,0,0,512,512
265.455,0,0,512,512
265.502,0,0,512,512
265.56,0,0,512,512
265.607,0,0,512,512
265.654,0,0,512,512
265.701,0,0,512,512
265.759,0,0,512,512
265.806,0,0,512,512
265.853,0,0,512,512
265.9,0,0,512,512
265.959,0,0,512,512
266.005,0,0,512,512
266.052,2.77556e-17,0,512,512
266.111,2.77556e-17,0,512,512
266.158,2.77556e-17,0,512,512
266.205,0,0,512,512
266.252,0,0,512,512
266.31,2.77556e-17,0,512,512
266.357,2.77556e-17,0,512,512
266.404,2.77556e-17,0,512,512
266.451,2.77556e-17,0,512,512
266.509,2.77556e-17,0,512,512
266.556,2.77556e-17,0,512,512
266.603,2.77556e-17,0,512,512
266.662,2.77556e-17,0,512,512
266.708,2.77556e-17,0,512,512
266.755,2.77556e-17,0,512,512
266.802,2.77556e-17,0,512,512
266.861,2.77556e-17,0,512,512
266.908,2.77556e-17,0,512,512
266.955,2.77556e-17,0,512,512
267.001,2.77556e-17,0,512,512
267.06,2.77556e-17,0,512,512
267.107,2.77556e-17,0,512,512
267.154,2.77556e-17,0,512,512
267.201,2.77556e-17,0,512,512
267.259,2.77556e-17,0,512,512
267.306,2.77556e-17,0,512,512
267.353,2.77556e-17,0,512,512
267.412,2.77556e-17,0,512,512
267.458,2.77556e-17,0,512,512
267.505,2.77556e-17,0,512,512
267.552,2.77556e-17,0,512,512
267.611,2.77556e-17,0,512,512
267.658,2.77556e-17,0,512,512
267.704,2.77556e-17,0,512,512
267.751,5.55112e-17,0,512,512
267.81,5.55112e-17,0,512,512
267.857,5.55112e-17,0,512,512
267.904,8.32667e-17,0,512,512
267.95,8.32667e-17,0,512,512
268.009,5.55112e-17,0,512,512
268.056,5.55112e-17,0,512,512
268.103,5.55112e-17,0,512,512
268.161,2.77556e-17,0,512,512
268.208,2.77556e-17,0,512,512
268.255,2.77556e-17,0,512,512
268.302,0,0,512,512
268.361,2.77556e-17,0,512,512
268.407,0,0,512,512
268.454,0,0,512,512
268.501,0,0,512,512
268.56,0,0,512,512
268.607,0,0,512,512
268.654,0,0,512,512
268.7,0,0,512,512
268.759,2.77556e-17,0,512,512
268.806,0,0,512,512
268.853,0,0,512,512
268.911,-2.77556e-17,0,512,512
268.958,0,0,512,512
269.005,0,0,512,512
269.052,2.77556e-17,0,512,512
269.11,0,0,512,512
269.157,2.77556e-17,0,512,512
269.204,0,0,512,512
269.251,2.77556e-17,0,512,512
269.31,4.44089e-16,0,512,512
269.357,4.55191e-15,0,512,512
269.403,-9.35363e-15,0,512,512
269.45,-4.55219e-13,0,512,512
269.509,-5.61912e-12,0,512,512
269.556,-2.24128e-11,0,512,512
269.603,-6.09579e-11,0,512,512
269.652,-1.25398e-10,0,535,535
269.7,-1.87621e-10,0,1847,1847
269.751,-2.13473e-10,0,2489,2489
269.8,-1.83256e-10,0,3229,3229
269.85,-1.11469e-10,0,4099,4099
269.9,-3.12754e-11,0,4867,4867
269.951,2.77498e-11,0,5729,5729
270,5.36044e-11,0,6563,6563
270.05,5.77264e-11,0,7363,7363
270.101,5.79113e-11,0,8145,8145
270.151,6.51184e-11,0,8977,8977
270.2,7.82181e-11,0,9853,9853
270.25,8.95592e-11,0,10647,10647
270.301,9.36183e-11,0,11583,11583
270.35,9.13423e-11,0,12403,12403
270.4,8.8333e-11,0,13159,13159
270.45,8.92177e-11,0,13989,13989
270.501,9.44186e-11,0,14937,14937
270.55,1.00388e-10,0,15667,15667
270.6,1.03532e-10,0,15973,15973
270.651,1.02867e-10,0,16685,16685
270.7,1.0055e-10,0,17537,17537
270.75,9.95737e-11,0,18419,18419
270.8,1.01111e-10,0,19235,19235
270.851,1.03706e-10,0,20135,20135
270.9,1.04881e-10,0,21017,21017
270.95,1.0465e-10,0,21869,21869
271,1.07626e-10,0,22757,22757
271.051,1.22666e-10,0,23657,23657
271.1,1.56317e-10,0,24467,24467
271.15,2.03631e-10,0,25355,25355
271.201,2.4001e-10,0,26255,26255
271.25,2.25957e-10,0,27137,27137
271.3,1.32254e-10,0,28037,28037
271.35,-4.63558e-11,0,28877,28877
271.401,-3.0875e-10,0,29777,29777
271.45,-2.31707e-09,0,30659,30659
271.5,-3.88738e-10,0,31559,31559
271.551,4.89637e-09,0,32443,32443
271.6,1.18185e-08,0,33283,33283
271.65,1.84219e-08,0,34157,34157
271.7,2.35625e-08,0,35037,35037
271.751,2.69285e-08,0,35897,35897
271.8,2.85822e-08,0,36779,36779
271.85,2.9563e-08,0,37591,37591
271.9,3.17311e-08,0,38495,38495
271.951,3.70628e-08,0,39329,39329
272,4.57762e-08,0,40165,40165
272.05,5.68491e-08,0,41037,41037
272.101,6.9214e-08,0,41879,41879
272.15,8.26903e-08,0,42695,42695
272.2,9.90455e-08,0,43531,43531
272.25,1.20087e-07,0,44363,44363
272.301,1.47579e-07,0,45165,45165
272.35,1.81367e-07,0,45977,45977
272.4,2.22e-07,0,46763,46763
272.451,2.68681e-07,0,47587,47587
272.501,3.16996e-07,0,48395,48395
272.55,3.64908e-07,0,49165,49165
272.6,4.12578e-07,0,50017,50017
272.651,4.63747e-07,0,50779,50779
272.7,5.19521e-07,0,51579,51579
272.75,5.79407e-07,0,52349,52349
272.8,6.38498e-07,0,53113,53113
272.851,6.92332e-07,0,53921,53921
272.9,7.3619e-07,0,54615,54615
272.95,7.69653e-07,0,54887,54887
273.001,7.926e-07,0,55697,55697
273.05,8.05739e-07,0,56465,56465
273.1,8.12426e-07,0,57317,57317
273.15,8.15491e-07,0,58079,58079
273.201,8.16187e-07,0,58895,58895
273.25,8.14392e-07,0,59657,59657
273.3,8.09595e-07,0,60425,60425
273.351,8.00775e-07,0,61259,61259
273.401,7.86982e-07,0,62027,62027
273.45,7.6695e-07,0,62669,62669
273.5,7.39788e-07,0,63285,63285
273.551,7.04208e-07,0,63897,63897
273.6,6.612e-07,0,63667,63667
273.65,6.12238e-07,0,64169,64169
273.7,5.60838e-07,0,64819,64819
273.751,5.09637e-07,0,65757,65757
273.8,4.62031e-07,0,67251,67251
273.85,4.17972e-07,0,69095,69095
273.901,3.77177e-07,0,69857,69857
273.95,3.40534e-07,0,70625,70625
274,3.06737e-07,0,71387,71387
274.05,2.75046e-07,0,72155,72155
274.101,2.44457e-07,0,72917,72917
274.15,2.15392e-07,0,73645,73645
274.2,1.87435e-07,0,74399,74399
274.251,1.61656e-07,0,75167,75167
274.301,1.41145e-07,0,75929,75929
274.35,1.26941e-07,0,76697,76697
274.4,1.17279e-07,0,77375,77375
274.451,1.08071e-07,0,78137,78137
274.5,9.64599e-08,0,78857,78857
274.55,8.27154e-08,0,79619,79619
274.6,6.95534e-08,0,80315,80315
274.651,5.92791e-08,0,81077,81077
274.7,5.26719e-08,0,81797,81797
274.75,4.87533e-08,0,82559,82559
274.801,4.63593e-08,0,83237,83237
274.85,4.4122e-08,0,83957,83957
274.9,4.04201e-08,0,84647,84647
274.95,3.43968e-08,0,85415,85415
275.001,2.71212e-08,0,86129,86129
275.05,2.11645e-08,0,86807,86807
275.1,1.82594e-08,0,87527,87527
275.15,1.80635e-08,0,88217,88217
275.201,1.88503e-08,0,88967,88967
275.25,1.96187e-08,0,89699,89699
275.3,1.98939e-08,0,90377,90377
275.351,1.99076e-08,0,91097,91097
275.4,1.99541e-08,0,91787,91787
275.45,2.00805e-08,0,92507,92507
275.5,2.02309e-08,0,93185,93185
275.551,2.0344e-08,0,93899,93899
275.6,2.03369e-08,0,94595,94595
275.65,1.96167e-08,0,95309,95309
275.701,1.91134e-08,0,95987,95987
275.751,1.91101e-08,0,96707,96707
275.8,1.91426e-08,0,97397,97397
275.85,1.91725e-08,0,98117,98117
275.901,1.92085e-08,0,98795,98795
275.95,1.9239e-08,0,99509,99509
276,1.92716e-08,0,100205,100205
276.05,1.93063e-08,0,100835,100835
276.101,1.93369e-08,0,101555,101555
276.15,1.93719e-08,0,102245,102245
276.2,1.94046e-08,0,102959,102959
276.251,1.94366e-08,0,103637,103637
276.3,1.94723e-08,0,104357,104357
276.35,1.95036e-08,0,104999,104999
276.4,1.95373e-08,0,105677,105677
276.451,1.95726e-08,0,106397,106397
276.5,1.96039e-08,0,107087,107087
276.55,1.96394e-08,0,107747,107747
276.601,1.96732e-08,0,108437,108437
276.651,1.97057e-08,0,109127,109127
276.7,1.97418e-08,0,109787,109787
276.75,1.97742e-08,0,110477,110477
276.801,1.98088e-08,0,111167,111167
276.85,1.98444e-08,0,111827,111827
276.9,1.98767e-08,0,112517,112517
276.95,1.99122e-08,0,113159,113159
277.001,1.99474e-08,0,113837,113837
277.05,1.99804e-08,0,114557,114557
277.1,2.00169e-08,0,115199,115199
277.151,2.00513e-08,0,115877,115877
277.2,2.00856e-08,0,116525,116525
277.25,2.01222e-08,0,117239,117239
277.3,2.01558e-08,0,117869,117869
277.351,2.01919e-08,0,118565,118565
277.4,2.02282e-08,0,119195,119195
277.45,2.0262e-08,0,119837,119837
277.5,2.02986e-08,0,120557,120557
277.551,2.03351e-08,0,121187,121187
277.6,2.03696e-08,0,121829,121829
277.65,2.04069e-08,0,122459,122459
277.701,2.04431e-08,0,123107,123107
277.75,2.04785e-08,0,123737,123737
277.8,2.05163e-08,0,124295,124295
277.85,2.05518e-08,0,124889,124889
277.901,2.05887e-08,0,125519,125519
277.95,2.06266e-08,0,126057,126057
278,2.06623e-08,0,126587,126587
278.051,2.07e-08,0,127187,127187
278.101,2.07378e-08,0,127697,127697
278.15,2.07733e-08,0,128207,128207
278.2,2.08094e-08,0,128717,128717
278.251,2.08432e-08,0,129227,129227
278.3,2.08713e-08,0,129737,129737
278.35,2.08979e-08,0,130294,130294
278.4,2.0921e-08,0,131072,131072
278.451,2.09413e-08,0,131072,131072
278.5,2.09617e-08,0,131072,131072
278.55,2.09794e-08,0,131072,131072
278.601,2.09943e-08,0,131072,131072
278.65,2.10067e-08,0,131072,131072
278.7,2.10123e-08,0,131072,131072
278.75,2.10109e-08,0,131072,131072
278.801,2.10025e-08,0,131072,131072
278.85,2.09828e-08,0,131072,131072
278.9,2.09516e-08,0,131072,131072
278.951,2.09054e-08,0,131072,131072
279.001,2.08394e-08,0,131072,131072
279.05,2.07516e-08,0,131072,131072
279.1,2.06382e-08,0,131072,131072
279.151,2.04922e-08,0,131072,131072
279.2,2.03186e-08,0,131072,131072
279.25,2.01139e-08,0,131072,131072
279.3,1.98753e-08,0,131072,131072
279.351,1.95993e-08,0,131072,131072
279.4,1.9291e-08,0,131072,131072
279.45,1.89447e-08,0,131072,131072
279.501,1.85583e-08,0,131072,131072
279.55,1.81449e-08,0,131072,131072
279.6,1.77039e-08,0,131072,131072
279.65,1.72432e-08,0,131072,131072
279.701,1.67601e-08,0,131072,131072
279.75,1.62736e-08,0,131072,131072
279.8,1.57824e-08,0,131072,131072
279.85,1.52876e-08,0,131072,131072
279.901,1.47842e-08,0,131072,131072
279.95,1.42901e-08,0,131072,131072
280,1.37986e-08,0,131072,131072
280.051,1.3306e-08,0,131072,131072
280.1,1.28311e-08,0,131072,131072
280.15,1.2369e-08,0,131072,131072
280.2,1.1925e-08,0,131072,131072
280.251,1.14985e-08,0,131072,131072
280.3,1.11044e-08,0,131072,131072
280.35,1.074e-08,0,131072,131072
280.401,1.04027e-08,0,131072,131072
280.451,1.01003e-08,0,131072,131072
280.5,9.82741e-09,0,131072,131072
280.55,9.58248e-09,0,131072,131072
280.601,9.359e-09,0,131072,131072
280.65,9.16236e-09,0,131072,131072
280.7,8.98785e-09,0,131072,131072
280.75,8.83286e-09,0,131072,131072
280.801,8.69543e-09,0,131072,131072
280.85,8.57879e-09,0,131072,131072
280.9,8.47821e-09,0,131072,131072
280.951,8.39141e-09,0,131072,131072
281,8.3184e-09,0,131072,131072
281.05,8.25413e-09,0,131072,131072
281.1,8.19777e-09,0,131072,131072
281.151,8.14829e-09,0,131072,131072
281.2,8.10642e-09,0,131072,131072
281.25,8.0725e-09,0,131072,131072
281.301,8.04564e-09,0,131072,131072
281.351,8.02438e-09,0,131072,131072
281.4,8.00763e-09,0,131072,131072
281.45,7.99409e-09,0,131072,131072
281.501,7.98206e-09,0,131072,131072
281.55,7.97277e-09,0,131072,131072
281.6,7.96662e-09,0,131072,131072
281.65,7.96339e-09,0,131072,131072
281.701,7.96397e-09,0,131072,131072
281.75,7.96768e-09,0,131072,131072
281.8,7.97259e-09,0,131072,131072
281.851,7.97847e-09,0,131072,131072
281.9,7.98452e-09,0,131072,131072
281.95,7.98991e-09,0,131072,131072
282,7.99537e-09,0,131072,131072
282.051,8.00112e-09,0,131072,131072
282.1,8.00631e-09,0,131072,131072
282.15,8.01166e-09,0,131072,131072
282.2,8.01723e-09,0,131072,131072
282.251,8.02251e-09,0,131072,131072
282.3,8.02802e-09,0,131072,131072
282.35,8.034e-09,0,131072,131072
282.401,8.03986e-09,0,131072,131072
282.45,8.04583e-09,0,131072,131072
282.5,8.05204e-09,0,131072,131072
282.55,8.05783e-09,0,131072,131072
282.601,8.0637e-09,0,131072,131072
282.65,8.06967e-09,0,131072,131072
282.7,8.07518e-09,0,131072,131072
282.751,8.08068e-09,0,131072,131072
282.801,8.08625e-09,0,131072,131072
282.85,8.09136e-09,0,131072,131072
282.9,8.09636e-09,0,131072,131072
282.951,8.10163e-09,0,131072,131072
283,8.10646e-09,0,131072,131072
283.05,8.11124e-09,0,131072,131072
283.1,8.11636e-09,0,131072,131072
283.151,8.12145e-09,0,131072,131072
283.2,8.12661e-09,0,131072,131072
283.25,8.1324e-09,0,131072,131072
283.301,8.13865e-09,0,131072,131072
283.35,8.14589e-09,0,131072,131072
283.4,8.1565e-09,0,131072,131072
283.45,8.17412e-09,0,131072,131072
283.501,8.20514e-09,0,131072,131072
283.55,8.25446e-09,0,131072,131072
283.6,8.32448e-09,0,131072,131072
283.651,8.41571e-09,0,131072,131072
283.701,8.52342e-09,0,131072,131072
283.75,8.64628e-09,0,131072,131072
283.8,8.78377e-09,0,131072,131072
283.851,8.94176e-09,0,131072,131072
283.9,9.1217e-09,0,131072,131072
283.95,9.33324e-09,0,131072,131072
284,9.58568e-09,0,131072,131072
284.051,9.89373e-09,0,131072,131072
284.1,1.02589e-08,0,131072,131072
284.15,1.06984e-08,0,131072,131072
284.201,1.12383e-08,0,131072,131072
284.25,1.18829e-08,0,131072,131072
284.3,1.26609e-08,0,131072,131072
284.35,1.35942e-08,0,131072,131072
284.401,1.472e-08,0,131072,131072
284.45,1.60203e-08,0,131072,131072
284.5,1.75217e-08,0,131072,131072
284.551,1.92619e-08,0,131072,131072
284.601,2.1201e-08,0,131072,131072
284.65,2.33713e-08,0,131072,131072
284.7,2.57784e-08,0,131072,131072
284.751,2.84617e-08,0,131072,131072
284.8,3.13311e-08,0,131072,131072
284.85,3.44016e-08,0,131072,131072
284.9,3.76448e-08,0,131072,131072
284.951,4.10811e-08,0,131072,131072
285,4.45808e-08,0,131072,131072
285.05,4.81666e-08,0,131072,131072
285.101,5.18722e-08,0,131072,131072
285.15,5.55737e-08,0,131072,131072
285.2,5.93102e-08,0,131072,131072
285.25,6.30692e-08,0,131072,131072
285.301,6.69064e-08,0,131072,131072
285.35,7.07624e-08,0,131072,131072
285.4,7.48656e-08,0,131072,131072
285.45,7.95425e-08,0,131072,131072
285.501,8.52305e-08,0,131072,131072
285.55,9.1857e-08,0,131072,131072
285.6,9.91714e-08,0,131072,131072
285.651,1.06684e-07,0,131072,131072
285.7,1.13628e-07,0,131072,131072
285.75,1.19894e-07,0,131072,131072
285.8,1.25675e-07,0,131072,131072
285.851,1.31582e-07,0,131072,131072
285.9,1.38116e-07,0,131072,131072
285.95,1.45955e-07,0,131072,131072
286.001,1.55656e-07,0,131072,131072
286.051,1.6718e-07,0,131072,131072
286.1,1.80886e-07,0,131072,131072
286.15,1.97154e-07,0,131072,131072
286.201,2.16868e-07,0,131072,131072
286.25,2.40113e-07,0,131072,131072
286.3,2.67647e-07,0,131072,131072
286.35,2.99592e-07,0,131072,131072
286.401,3.36155e-07,0,131072,131072
286.45,3.75528e-07,0,131072,131072
286.5,4.17354e-07,0,131072,131072
286.551,4.61596e-07,0,131072,131072
286.6,5.06544e-07,0,131072,131072
286.65,5.52484e-07,0,131072,131072
286.7,5.98755e-07,0,131072,131072
286.751,6.44728e-07,0,131072,131072
286.8,6.87159e-07,0,131072,131072
286.85,7.2459e-07,0,131072,131072
286.901,7.5556e-07,0,131072,131072
286.951,7.78027e-07,0,131072,131072
287,7.92281e-07,0,131072,131072
287.05,7.98924e-07,0,131072,131072
287.101,7.99025e-07,0,131072,131072
287.15,7.938e-07,0,131072,131072
287.2,7.84247e-07,0,131072,131072
287.25,7.70859e-07,0,131072,131072
287.301,7.53362e-07,0,131072,131072
287.35,7.31893e-07,0,131072,131072
287.4,7.0567e-07,0,131072,131072
287.451,6.73657e-07,0,131072,131072
287.5,6.3651e-07,0,131072,131072
287.55,5.94004e-07,0,131072,131072
287.6,5.46927e-07,0,131072,131072
287.651,4.95875e-07,0,131072,131072
287.7,4.44068e-07,0,131072,131072
287.75,3.92548e-07,0,131072,131072
287.8,3.42812e-07,0,131072,131072
287.851,2.9523e-07,0,131072,131072
287.9,2.51705e-07,0,131072,131072
287.95,2.11608e-07,0,131072,131072
288.001,1.74222e-07,0,131072,131072
288.05,1.40336e-07,0,131072,131072
288.1,1.09177e-07,0,131072,131072
288.15,8.0753e-08,0,131072,131072
288.201,5.49543e-08,0,131072,131072
288.25,3.28774e-08,0,131072,131072
288.3,1.43168e-08,0,131072,131072
288.351,-1.12372e-09,0,131072,131072
288.4,-1.36235e-08,0,131072,131072
288.45,-2.42449e-08,0,131072,131072
288.5,-3.36339e-08,0,131072,131072
288.551,-4.21229e-08,0,131072,131072
288.6,-4.92634e-08,0,131072,131072
288.65,-5.48267e-08,0,131072,131072
288.7,-5.86117e-08,0,131072,131072
288.751,-6.07808e-08,0,131072,131072
288.8,-6.17367e-08,0,131072,131072
288.85,-6.21027e-08,0,131072,131072
288.901,-6.2325e-08,0,131072,131072
288.95,-6.2517e-08,0,131072,131072
289,-6.24622e-08,0,131072,131072
289.05,-6.17715e-08,0,131072,131072
289.101,-6.00984e-08,0,131072,131072
289.15,-5.74261e-08,0,131072,131072
289.2,-5.39355e-08,0,131072,131072
289.251,-4.9902e-08,0,131072,131072
289.301,-4.57682e-08,0,131072,131072
289.35,-4.16969e-08,0,131072,131072
289.4,-3.78008e-08,0,131072,131072
289.451,-3.40787e-08,0,131072,131072
289.5,-3.06716e-08,0,131072,131072
289.55,-2.75531e-08,0,131072,131072
289.6,-2.4738e-08,0,131072,131072
289.651,-2.21792e-08,0,131072,131072
289.7,-1.99159e-08,0,131072,131072
289.75,-1.78719e-08,0,131072,131072
289.801,-1.59999e-08,0,131072,131072
289.85,-1.43508e-08,0,131072,131072
289.9,-1.29001e-08,0,131072,131072
289.95,-1.16494e-08,0,131072,131072
290.001,-1.05793e-08,0,131072,131072
290.05,-9.70963e-09,0,131072,131072
290.1,-9.00964e-09,0,131072,131072
290.151,-8.45689e-09,0,131072,131072
290.201,-8.05098e-09,0,131072,131072
290.25,-7.76592e-09,0,131072,131072
290.3,-7.58447e-09,0,131072,131072
290.351,-7.4888e-09,0,131072,131072
290.4,-7.46575e-09,0,131072,131072
290.45,-7.50006e-09,0,131072,131072
290.5,-7.58157e-09,0,131072,131072
290.551,-7.70505e-09,0,131072,131072
290.6,-7.86138e-09,0,131072,131072
290.65,-8.04688e-09,0,131072,131072
290.701,-8.25869e-09,0,131072,131072
290.75,-8.48339e-09,0,131072,131072
290.8,-8.71618e-09,0,131072,131072
290.85,-8.94994e-09,0,131072,131072
290.901,-9.18263e-09,0,131072,131072
290.95,-9.40426e-09,0,131072,131072
291,-9.61699e-09,0,131072,131072
291.05,-9.82049e-09,0,131072,131072
291.101,-1.0017e-08,0,131072,131072
291.15,-1.01997e-08,0,131072,131072
291.2,-1.03694e-08,0,131072,131072
291.251,-1.0526e-08,0,131072,131072
291.3,-1.0663e-08,0,131072,131072
291.35,-1.07816e-08,0,131072,131072
291.4,-1.08814e-08,0,131072,131072
291.451,-1.09636e-08,0,131072,131072
291.5,-1.10267e-08,0,131072,131072
291.55,-1.10738e-08,0,131072,131072
291.601,-1.11077e-08,0,131072,131072
291.651,-1.113e-08,0,131072,131072
291.7,-1.11434e-08,0,131072,131072
291.75,-1.11495e-08,0,131072,131072
291.801,-1.11487e-08,0,131072,131072
291.85,-1.11415e-08,0,131072,131072
291.9,-1.11286e-08,0,131072,131072
291.95,-1.11114e-08,0,131072,131072
292.001,-1.10916e-08,0,131072,131072
292.05,-1.10716e-08,0,131072,131072
292.1,-1.10526e-08,0,131072,131072
292.151,-1.10352e-08,0,131072,131072
292.2,-1.10202e-08,0,131072,131072
292.25,-1.10073e-08,0,131072,131072
292.3,-1.09968e-08,0,131072,131072
292.351,-1.09892e-08,0,131072,131072
292.4,-1.09857e-08,0,131072,131072
292.45,-1.0987e-08,0,131072,131072
292.501,-1.09941e-08,0,131072,131072
292.551,-1.1007e-08,0,131072,131072
292.6,-1.10257e-08,0,131072,131072
292.65,-1.10502e-08,0,131072,131072
292.701,-1.10809e-08,0,131072,131072
292.75,-1.11171e-08,0,131072,131072
292.8,-1.11593e-08,0,131072,131072
292.85,-1.12078e-08,0,131072,131072
292.901,-1.12636e-08,0,131072,131072
292.95,-1.13253e-08,0,131072,131072
293,-1.13935e-08,0,131072,131072
293.051,-1.14692e-08,0,131072,131072
293.1,-1.15498e-08,0,131072,131072
293.15,-1.16362e-08,0,131072,131072
293.2,-1.17283e-08,0,131072,131072
293.251,-1.18277e-08,0,131072,131072
293.3,-1.19321e-08,0,131072,131072
293.35,-1.20434e-08,0,131072,131072
293.4,-1.21628e-08,0,131072,131072
293.451,-1.22933e-08,0,131072,131072
293.5,-1.24325e-08,0,131072,131072
293.55,-1.25841e-08,0,131072,131072
293.601,-1.27523e-08,0,131072,131072
293.65,-1.29346e-08,0,131072,131072
293.7,-1.31352e-08,0,131072,131072
293.75,-1.33562e-08,0,131072,131072
293.801,-1.36028e-08,0,131072,131072
293.85,-1.38693e-08,0,131072,131072
293.9,-1.41599e-08,0,131072,131072
293.951,-1.44797e-08,0,131072,131072
294,-1.48196e-08,0,131072,131072
294.05,-1.51833e-08,0,131072,131072
294.1,-1.55695e-08,0,131072,131072
294.151,-1.5982e-08,0,131072,131072
294.2,-1.64058e-08,0,131072,131072
294.25,-1.68425e-08,0,131072,131072
294.3,-1.72877e-08,0,131072,131072
294.351,-1.7743e-08,0,131072,131072
294.4,-1.81906e-08,0,131072,131072
294.45,-1.86329e-08,0,129792,129792
294.501,-1.90724e-08,0,130368,130368
294.55,-1.94934e-08,0,130464,130464
294.6,-1.98993e-08,0,130512,130512
294.65,-2.02878e-08,0,130464,130464
294.701,-2.06613e-08,0,130464,130464
294.75,-2.10065e-08,0,130464,130464
294.8,-2.13261e-08,0,130432,130432
294.851,-2.16214e-08,0,130368,130368
294.901,-2.18813e-08,0,130272,130272
294.95,-2.21082e-08,0,130272,130272
295,-2.23007e-08,0,130272,130272
295.051,-2.24605e-08,0,130272,130272
295.1,-2.25831e-08,0,130184,130184
295.15,-2.26726e-08,0,130144,130144
295.2,-2.27305e-08,0,130088,130088
295.251,-2.27595e-08,0,130020,130020
295.3,-2.27611e-08,0,130032,130032
295.35,-2.27385e-08,0,129992,129992
295.401,-2.26931e-08,0,129936,129936
295.45,-2.26287e-08,0,129888,129888
295.5,-2.2547e-08,0,129888,129888
295.55,-2.24504e-08,0,129872,129872
295.601,-2.23393e-08,0,129872,129872
295.65,-2.22193e-08,0,129840,129840
295.7,-2.20911e-08,0,129816,129816
295.751,-2.19543e-08,0,129792,129792
295.801,-2.18147e-08,0,129792,129792
295.85,-2.16716e-08,0,129744,129744
295.9,-2.1526e-08,0,129728,129728
295.951,-2.13769e-08,0,129728,129728
296,-2.12296e-08,0,129672,129672
296.05,-2.10829e-08,0,129672,129672
296.1,-2.09379e-08,0,129624,129624
296.151,-2.07931e-08,0,129660,129660
296.2,-2.06534e-08,0,129600,129600
296.25,-2.05169e-08,0,129600,129600
296.301,-2.03821e-08,0,129600,129600
296.35,-2.02531e-08,0,129576,129576
296.4,-2.01281e-08,0,129568,129568
296.45,-2.00076e-08,0,129612,129612
296.501,-1.98902e-08,0,129592,129592
296.55,-1.97796e-08,0,129576,129576
296.6,-1.96743e-08,0,129556,129556
296.65,-1.95743e-08,0,129528,129528
296.701,-1.94781e-08,0,129528,129528
296.75,-1.93883e-08,0,129524,129524
296.8,-1.93031e-08,0,129488,129488
296.851,-1.92211e-08,0,129488,129488
296.9,-1.91442e-08,0,129488,129488
296.95,-1.90709e-08,0,129488,129488
297,-1.90007e-08,0,129440,129440
297.051,-1.89323e-08,0,129424,129424
297.1,-1.88673e-08,0,129440,129440
297.15,-1.88044e-08,0,129432,129432
297.201,-1.87424e-08,0,129392,129392
297.251,-1.86828e-08,0,129440,129440
297.3,-1.86243e-08,0,129412,129412
297.35,-1.85666e-08,0,129352,129352
297.401,-1.85087e-08,0,129340,129340
297.45,-1.84521e-08,0,129332,129332
297.5,-1.83956e-08,0,129332,129332
297.55,-1.8339e-08,0,129276,129276
297.601,-1.82813e-08,0,129296,129296
297.65,-1.82241e-08,0,129256,129256
297.7,-1.81663e-08,0,129224,129224
297.751,-1.81069e-08,0,129236,129236
297.8,-1.80477e-08,0,129200,129200
297.85,-1.79876e-08,0,129216,129216
297.9,-1.79266e-08,0,129200,129200
297.951,-1.78637e-08,0,129176,129176
298,-1.78005e-08,0,129228,129228
298.05,-1.77362e-08,0,129200,129200
298.101,-1.76696e-08,0,129224,129224
298.151,-1.76025e-08,0,129232,129232
298.2,-1.75339e-08,0,129244,129244
298.25,-1.74637e-08,0,129264,129264
298.301,-1.73906e-08,0,129232,129232
298.35,-1.73166e-08,0,129300,129300
298.4,-1.72403e-08,0,129316,129316
298.45,-1.71616e-08,0,129308,129308
298.501,-1.7079e-08,0,129304,129304
298.55,-1.69946e-08,0,129332,129332
298.6,-1.69071e-08,0,129352,129352
298.651,-1.68147e-08,0,129352,129352
298.7,-1.67198e-08,0,129368,129368
298.75,-1.6621e-08,0,129352,129352
298.8,-1.6518e-08,0,129360,129360
298.851,-1.64089e-08,0,129416,129416
298.9,-1.62967e-08,0,129400,129400
298.95,-1.61797e-08,0,129416,129416
299,-1.60578e-08,0,129352,129352
299.051,-1.59291e-08,0,129392,129392
299.1,-1.57972e-08,0,129376,129376
299.15,-1.56604e-08,0,129352,129352
299.201,-1.55164e-08,0,129352,129352
299.25,-1.53695e-08,0,129328,129328
299.3,-1.52176e-08,0,129368,129368
299.35,-1.50606e-08,0,129316,129316
299.401,-1.48961e-08,0,129328,129328
299.45,-1.47287e-08,0,129368,129368
299.5,-1.45556e-08,0,129316,129316
299.551,-1.4374e-08,0,129320,129320
299.601,-1.41891e-08,0,129324,129324
299.65,-1.39981e-08,0,129328,129328
299.7,-1.38014e-08,0,129286,129286
299.751,-1.3596e-08,0,129328,129328
299.8,-1.33881e-08,0,129280,129280
299.85,-1.31749e-08,0,129264,129264
299.9,-1.29562e-08,0,129240,129240
299.951,-1.2728e-08,0,129176,129176
300,-1.24961e-08,0,129140,129140
300.05,-1.22563e-08,0,129096,129096
300.101,-1.20032e-08,0,129044,129044
300.15,-1.17425e-08,0,129008,129008
300.2,-1.14686e-08,0,128970,128970
300.25,-1.11793e-08,0,128920,128920
300.301,-1.08673e-08,0,128848,128848
300.35,-1.05392e-08,0,128884,128884
300.4,-1.01884e-08,0,128800,128800
300.451,-9.80695e-09,0,128784,128784
300.501,-9.40419e-09,0,128712,128712
300.55,-8.97357e-09,0,128692,128692
300.6,-8.51436e-09,0,128616,128616
300.651,-8.01904e-09,0,128580,128580
300.7,-7.50255e-09,0,128532,128532
300.75,-6.95932e-09,0,128462,128462
300.8,-6.39172e-09,0,128424,128424
300.851,-5.79419e-09,0,128396,128396
300.9,-5.18734e-09,0,128324,128324
300.95,-4.56297e-09,0,128282,128282
301.001,-3.90187e-09,0,128200,128200
301.05,-3.20112e-09,0,128144,128144
301.1,-2.4751e-09,0,128074,128074
301.15,-1.84939e-09,0,128022,128022
301.201,-1.35521e-09,0,128024,128024
301.25,-8.48687e-10,0,127936,127936
301.3,2.0467e-13,0,127860,127860
301.35,1.85974e-10,0,127832,127832
301.401,4.12034e-10,0,127792,127792
301.45,6.67144e-10,0,127704,127704
301.5,1.60693e-09,0,127692,127692
301.551,2.06952e-09,0,127656,127656
301.6,2.44082e-09,0,127592,127592
301.65,2.76755e-09,0,127576,127576
301.7,3.05886e-09,0,127540,127540
301.751,3.31455e-09,0,127524,127524
301.8,3.5254e-09,0,127524,127524
301.85,3.6989e-09,0,127392,127392
301.901,3.83868e-09,0,127380,127380
301.951,3.94161e-09,0,127340,127340
302,4.01124e-09,0,127320,127320
302.05,4.05302e-09,0,127320,127320
302.101,4.07035e-09,0,127320,127320
302.15,4.06648e-09,0,127320,127320
302.2,4.04387e-09,0,127272,127272
302.25,4.00522e-09,0,127280,127280
302.301,3.95146e-09,0,127244,127244
302.35,3.88629e-09,0,127240,127240
302.4,3.81126e-09,0,127252,127252
302.451,3.72738e-09,0,127240,127240
302.5,3.63944e-09,0,127216,127216
302.55,3.5483e-09,0,127202,127202
302.6,3.45562e-09,0,127200,127200
302.651,3.3609e-09,0,127192,127192
302.7,3.26764e-09,0,127200,127200
302.75,3.17465e-09,0,127192,127192
302.801,3.0819e-09,0,127188,127188
302.851,2.99391e-09,0,127160,127160
302.9,2.90815e-09,0,127152,127152
302.95,2.8256e-09,0,127638,127638
303.001,2.74672e-09,0,128510,128510
303.05,2.67408e-09,0,129374,129374
303.1,2.60683e-09,0,130246,130246
303.15,2.54539e-09,0,131072,131072
303.201,2.48963e-09,0,131072,131072
303.25,2.44251e-09,0,131072,131072
303.3,2.40268e-09,0,131072,131072
303.351,2.36856e-09,0,131072,131072
303.4,2.3409e-09,0,131072,131072
303.45,2.31854e-09,0,131072,131072
303.5,2.3035e-09,0,131072,131072
303.551,2.2935e-09,0,131072,131072
303.6,2.28788e-09,0,131072,131072
303.65,2.28539e-09,0,131072,131072
303.7,2.28548e-09,0,131072,131072
303.751,2.28721e-09,0,131072,131072
303.8,2.29008e-09,0,131072,131072
303.85,2.29333e-09,0,131072,131072
303.901,2.29643e-09,0,131072,131072
303.95,2.29848e-09,0,131072,131072
304,2.29885e-09,0,131072,131072
304.05,2.29725e-09,0,131072,131072
304.101,2.29252e-09,0,131072,131072
304.15,2.28549e-09,0,131072,131072
304.2,2.27664e-09,0,131072,131072
304.251,2.26709e-09,0,131072,131072
304.301,2.25806e-09,0,131072,131072
304.35,2.25005e-09,0,131072,131072
304.4,2.243e-09,0,131072,131072
304.451,2.23685e-09,0,131072,131072
304.5,2.23118e-09,0,131072,131072
304.55,2.22655e-09,0,131072,131072
304.6,2.22131e-09,0,131072,131072
304.651,2.21422e-09,0,131072,131072
304.7,2.20776e-09,0,131072,131072
304.75,2.20131e-09,0,131072,131072
304.801,2.19298e-09,0,131072,131072
304.85,2.1859e-09,0,131072,131072
304.9,2.18146e-09,0,131072,131072
304.95,2.17979e-09,0,131072,131072
