250,0,0,2048,2048
250.006,0,0,2048,2048
250.053,0,0,2048,2048
250.105,0,0,2048,2048
250.152,0,0,2048,2048
250.205,0,0,2048,2048
250.252,0,0,2048,2048
250.305,0,0,2048,2048
250.352,0,0,2048,2048
250.404,0,0,2048,2048
250.451,0,0,2048,2048
250.504,0,0,2048,2048
250.551,0,0,2048,2048
250.603,0,0,2048,2048
250.65,0,0,2048,2048
250.703,0,0,2048,2048
250.756,0,0,2048,2048
250.803,0,0,2048,2048
250.855,0,0,2048,2048
250.902,0,0,2048,2048
250.955,0,0,2048,2048
251.002,0,0,2048,2048
251.055,0,0,2048,2048
251.101,0,0,2048,2048
251.154,0,0,2048,2048
251.201,0,0,2048,2048
251.254,0,0,2048,2048
251.301,0,0,2048,2048
251.353,0,0,2048,2048
251.4,0,0,2048,2048
251.453,0,0,2048,2048
251.506,0,0,2048,2048
251.553,0,0,2048,2048
251.605,0,0,2048,2048
251.652,0,0,2048,2048
251.705,0,0,2048,2048
251.752,0,0,2048,2048
251.804,0,0,2048,2048
251.851,0,0,2048,2048
251.904,0,0,2048,2048
251.951,0,0,2048,2048
252.004,0,0,2048,2048
252.05,0,0,2048,2048
252.103,0,0,2048,2048
252.15,0,0,2048,2048
252.203,0,0,2048,2048
252.256,0,0,2048,2048
252.302,0,0,2048,2048
252.355,0,0,2048,2048
252.402,0,0,2048,2048
252.455,0,0,2048,2048
252.502,0,0,2048,2048
252.554,0,0,2048,2048
252.601,0,0,2048,2048
252.654,0,0,2048,2048
252.701,0,0,2048,2048
252.754,0,0,2048,2048
252.8,0,0,2048,2048
252.853,0,0,2048,2048
252.906,0,0,2048,2048
252.953,0,0,2048,2048
253.005,0,0,2048,2048
253.052,0,0,2048,2048
253.105,0,0,2048,2048
253.152,0,0,2048,2048
253.205,0,0,2048,2048
253.251,0,0,2048,2048
253.304,0,0,2048,2048
253.351,0,0,2048,2048
253.404,0,0,2048,2048
253.451,0,0,2048,2048
253.503,0,0,2048,2048
253.55,0,0,2048,2048
253.603,0,0,2048,2048
253.656,0,0,2048,2048
253.703,0,0,2048,2048
253.755,0,0,2048,2048
253.802,0,0,2048,2048
253.855,0,0,2048,2048
253.902,0,0,2048,2048
253.954,0,0,2048,2048
254.001,0,0,2048,2048
254.054,0,0,2048,2048
254.101,0,0,2048,2048
254.154,0,0,2048,2048
254.201,0,0,2048,2048
254.253,0,0,2048,2048
254.3,0,0,2048,2048
254.353,0,0,2048,2048
254.406,0,0,2048,2048
254.452,0,0,2048,2048
254.505,0,0,2048,2048
254.552,0,0,2048,2048
254.605,0,0,2048,2048
254.652,0,0,2048,2048
254.704,0,0,2048,2048
254.751,0,0,2048,2048
254.804,0,0,2048,2048
254.851,0,0,2048,2048
254.904,0,0,2048,2048
254.95,0,0,2048,2048
255.003,0,0,2048,2048
255.05,0,0,2048,2048
255.103,0,0,2048,2048
255.155,0,0,2048,2048
255.202,0,0,2048,2048
255.255,0,0,2048,2048
255.302,0,0,2048,2048
255.355,0,0,2048,2048
255.402,0,0,2048,2048
255.454,0,0,2048,2048
255.501,0,0,2048,2048
255.554,0,0,2048,2048
255.601,0,0,2048,2048
255.653,0,0,2048,2048
255.7,0,0,2048,2048
255.753,0,0,2048,2048
255.806,0,0,2048,2048
255.853,0,0,2048,2048
255.905,0,0,2048,2048
255.952,0,0,2048,2048
256.005,0,0,2048,2048
256.052,0,0,2048,2048
256.105,0,0,2048,2048
256.151,0,0,2048,2048
256.204,0,0,2048,2048
256.251,0,0,2048,2048
256.304,0,0,2048,2048
256.351,0,0,2048,2048
256.403,0,0,2048,2048
256.45,0,0,2048,2048
256.503,0,0,2048,2048
256.556,0,0,2048,2048
256.603,0,0,2048,2048
256.655,0,0,2048,2048
256.702,0,0,2048,2048
256.755,0,0,2048,2048
256.802,0,0,2048,2048
256.854,-1.38778e-17,0,2048,2048
256.901,-1.38778e-17,0,2048,2048
256.954,-1.38778e-17,0,2048,2048
257.001,0,0,2048,2048
257.054,0,0,2048,2048
257.101,0,0,2048,2048
257.153,0,0,2048,2048
257.2,0,0,2048,2048
257.253,0,0,2048,2048
257.306,0,0,2048,2048
257.352,0,0,2048,2048
257.405,0,0,2048,2048
257.452,0,0,2048,2048
257.505,0,0,2048,2048
257.552,0,0,2048,2048
257.604,0,0,2048,2048
257.651,0,0,2048,2048
257.704,0,0,2048,2048
257.751,0,0,2048,2048
257.804,0,0,2048,2048
257.85,0,0,2048,2048
257.903,0,0,2048,2048
257.95,0,0,2048,2048
258.003,0,0,2048,2048
258.055,0,0,2048,2048
258.102,0,0,2048,2048
258.155,-1.38778e-17,0,2048,2048
258.202,-1.38778e-17,0,2048,2048
258.255,-1.38778e-17,0,2048,2048
258.302,-1.38778e-17,0,2048,2048
258.354,-1.38778e-17,0,2048,2048
258.401,-1.38778e-17,0,2048,2048
258.454,-1.38778e-17,0,2048,2048
258.501,-1.38778e-17,0,2048,2048
258.553,-1.38778e-17,0,2048,2048
258.6,-1.38778e-17,0,2048,2048
258.653,-1.38778e-17,0,2048,2048
258.706,-1.38778e-17,0,2048,2048
258.753,-1.38778e-17,0,2048,2048
258.805,-1.38778e-17,0,2048,2048
258.852,-1.38778e-17,0,2048,2048
258.905,-1.38778e-17,0,2048,2048
258.952,-1.38778e-17,0,2048,2048
259.005,-1.38778e-17,0,2048,2048
259.051,-2.77556e-17,0,2048,2048
259.104,-2.77556e-17,0,2048,2048
259.151,-2.77556e-17,0,2048,2048
259.204,-2.77556e-17,0,2048,2048
259.251,-2.77556e-17,0,2048,2048
259.303,-2.77556e-17,0,2048,2048
259.35,-2.77556e-17,0,2048,2048
259.403,-2.77556e-17,0,2048,2048
259.456,-2.77556e-17,0,2048,2048
259.503,-2.77556e-17,0,2048,2048
259.555,-2.77556e-17,0,2048,2048
259.602,-2.77556e-17,0,2048,2048
259.655,-2.77556e-17,0,2048,2048
259.702,-1.38778e-17,0,2048,2048
259.754,-1.38778e-17,0,2048,2048
259.801,-1.38778e-17,0,2048,2048
259.854,-1.38778e-17,0,2048,2048
259.901,-1.38778e-17,0,2048,2048
259.954,-1.38778e-17,0,2048,2048
260,-1.38778e-17,0,2048,2048
260.053,-1.38778e-17,0,2048,2048
260.1,-1.38778e-17,0,2048,2048
260.153,-1.38778e-17,0,2048,2048
260.206,-1.38778e-17,0,2048,2048
260.252,-1.38778e-17,0,2048,2048
260.305,-1.38778e-17,0,2048,2048
260.352,-1.38778e-17,0,2048,2048
260.405,-1.38778e-17,0,2048,2048
260.452,-1.38778e-17,0,2048,2048
260.504,-1.38778e-17,0,2048,2048
260.551,-1.38778e-17,0,2048,2048
260.604,-1.38778e-17,0,2048,2048
260.651,-1.38778e-17,0,2048,2048
260.704,-1.38778e-17,0,2048,2048
260.75,-1.38778e-17,0,2048,2048
260.803,-1.38778e-17,0,2048,2048
260.856,-1.38778e-17,0,2048,2048
260.903,-1.38778e-17,0,2048,2048
260.955,-1.38778e-17,0,2048,2048
261.002,-1.38778e-17,0,2048,2048
261.055,-1.38778e-17,0,2048,2048
261.102,-1.38778e-17,0,2048,2048
261.155,-1.38778e-17,0,2048,2048
261.201,-1.38778e-17,0,2048,2048
261.254,-1.38778e-17,0,2048,2048
261.301,-1.38778e-17,0,2048,2048
261.354,-1.38778e-17,0,2048,2048
261.401,-1.38778e-17,0,2048,2048
261.453,0,0,2048,2048
261.5,0,0,2048,2048
261.553,0,0,2048,2048
261.606,0,0,2048,2048
261.653,0,0,2048,2048
261.705,0,0,2048,2048
261.752,0,0,2048,2048
261.805,0,0,2048,2048
261.852,0,0,2048,2048
261.905,0,0,2048,2048
261.951,0,0,2048,2048
262.004,0,0,2048,2048
262.051,0,0,2048,2048
262.104,0,0,2048,2048
262.151,-1.38778e-17,0,2048,2048
262.203,-1.38778e-17,0,2048,2048
262.25,-1.38778e-17,0,2048,2048
262.303,-1.38778e-17,0,2048,2048
262.356,-1.38778e-17,0,2048,2048
262.402,-1.38778e-17,0,2048,2048
262.455,-1.38778e-17,0,2048,2048
262.502,-1.38778e-17,0,2048,2048
262.555,-1.38778e-17,0,2048,2048
262.602,-1.38778e-17,0,2048,2048
262.654,-1.38778e-17,0,2048,2048
262.701,-1.38778e-17,0,2048,2048
262.754,-1.38778e-17,0,2048,2048
262.801,-1.38778e-17,0,2048,2048
262.854,-1.38778e-17,0,2048,2048
262.9,-1.38778e-17,0,2048,2048
262.953,-1.38778e-17,0,2048,2048
263,-1.38778e-17,0,2048,2048
263.053,-1.38778e-17,0,2048,2048
263.105,-2.77556e-17,0,2048,2048
263.152,-2.77556e-17,0,2048,2048
263.205,-2.77556e-17,0,2048,2048
263.252,-2.77556e-17,0,2048,2048
263.305,-2.77556e-17,0,2048,2048
263.352,-2.77556e-17,0,2048,2048
263.404,-2.77556e-17,0,2048,2048
263.451,-2.77556e-17,0,2048,2048
263.504,-2.77556e-17,0,2048,2048
263.551,-2.77556e-17,0,2048,2048
263.603,-2.77556e-17,0,2048,2048
263.65,-2.77556e-17,0,2048,2048
263.703,-2.77556e-17,0,2048,2048
263.756,-2.77556e-17,0,2048,2048
263.803,-2.77556e-17,0,2048,2048
263.855,-2.77556e-17,0,2048,2048
263.902,-2.77556e-17,0,2048,2048
263.955,-2.77556e-17,0,2048,2048
264.002,-2.77556e-17,0,2048,2048
264.055,-2.77556e-17,0,2048,2048
264.101,-2.77556e-17,0,2048,2048
264.154,-2.77556e-17,0,2048,2048
264.201,-2.77556e-17,0,2048,2048
264.254,-2.77556e-17,0,2048,2048
264.301,-2.77556e-17,0,2048,2048
264.353,-2.77556e-17,0,2048,2048
264.4,-2.77556e-17,0,2048,2048
264.453,-2.77556e-17,0,2048,2048
264.506,-2.77556e-17,0,2048,2048
264.553,-2.77556e-17,0,2048,2048
264.605,-2.77556e-17,0,2048,2048
264.652,-2.77556e-17,0,2048,2048
264.705,-2.77556e-17,0,2048,2048
264.752,-2.77556e-17,0,2048,2048
264.804,-2.77556e-17,0,2048,2048
264.851,-2.77556e-17,0,2048,2048
264.904,-2.77556e-17,0,2048,2048
264.951,-2.77556e-17,0,2048,2048
265.004,-2.77556e-17,0,2048,2048
265.051,-2.77556e-17,0,2048,2048
265.103,-2.77556e-17,0,2048,2048
265.15,-2.77556e-17,0,2048,2048
265.203,-2.77556e-17,0,2048,2048
265.256,-2.77556e-17,0,2048,2048
265.302,-2.77556e-17,0,2048,2048
265.355,-2.77556e-17,0,2048,2048
265.402,-2.77556e-17,0,2048,2048
265.455,-2.77556e-17,0,2048,2048
265.502,-2.77556e-17,0,2048,2048
265.554,-2.77556e-17,0,2048,2048
265.601,-2.77556e-17,0,2048,2048
265.654,-2.77556e-17,0,2048,2048
265.701,-2.77556e-17,0,2048,2048
265.754,-2.77556e-17,0,2048,2048
265.8,-2.77556e-17,0,2048,2048
265.853,-2.77556e-17,0,2048,2048
265.9,-2.77556e-17,0,2048,2048
265.953,-2.77556e-17,0,2048,2048
266.005,-2.77556e-17,0,2048,2048
266.052,-2.77556e-17,0,2048,2048
266.105,-2.77556e-17,0,2048,2048
266.152,-2.77556e-17,0,2048,2048
266.205,-2.77556e-17,0,2048,2048
266.252,-2.77556e-17,0,2048,2048
266.304,-2.77556e-17,0,2048,2048
266.351,-2.77556e-17,0,2048,2048
266.404,-2.77556e-17,0,2048,2048
266.451,-2.77556e-17,0,2048,2048
266.503,-2.77556e-17,0,2048,2048
266.55,-2.77556e-17,0,2048,2048
266.603,-2.77556e-17,0,2048,2048
266.656,-2.77556e-17,0,2048,2048
266.703,-2.77556e-17,0,2048,2048
266.755,-2.77556e-17,0,2048,2048
266.802,-2.77556e-17,0,2048,2048
266.855,-2.77556e-17,0,2048,2048
266.902,-2.77556e-17,0,2048,2048
266.955,-2.77556e-17,0,2048,2048
267.001,-2.77556e-17,0,2048,2048
267.054,-2.77556e-17,0,2048,2048
267.101,-2.77556e-17,0,2048,2048
267.154,-2.77556e-17,0,2048,2048
267.201,-1.38778e-17,0,2048,2048
267.253,-1.38778e-17,0,2048,2048
267.3,-1.38778e-17,0,2048,2048
267.353,-1.38778e-17,0,2048,2048
267.406,-1.38778e-17,0,2048,2048
267.453,-1.38778e-17,0,2048,2048
267.505,-1.38778e-17,0,2048,2048
267.552,-1.38778e-17,0,2048,2048
267.605,-1.38778e-17,0,2048,2048
267.652,-1.38778e-17,0,2048,2048
267.704,-1.38778e-17,0,2048,2048
267.751,-1.38778e-17,0,2048,2048
267.804,-1.38778e-17,0,2048,2048
267.851,-1.38778e-17,0,2048,2048
267.904,-1.38778e-17,0,2048,2048
267.95,-1.38778e-17,0,2048,2048
268.003,-2.77556e-17,0,2048,2048
268.05,-2.77556e-17,0,2048,2048
268.1,-2.77556e-17,0,2306,2306
268.15,-2.77556e-17,0,2510,2510
268.201,-2.77556e-17,0,2690,2690
268.251,-2.77556e-17,0,2810,2810
268.301,-2.77556e-17,0,3026,3026
268.351,-2.77556e-17,0,3230,3230
268.4,-2.77556e-17,0,3446,3446
268.45,-2.77556e-17,0,3650,3650
268.5,-2.77556e-17,0,3866,3866
268.551,-2.77556e-17,0,4106,4106
268.601,-2.77556e-17,0,4310,4310
268.651,-2.77556e-17,0,4526,4526
268.701,-2.77556e-17,0,4730,4730
268.751,-2.77556e-17,0,4946,4946
268.8,-2.77556e-17,0,5150,5150
268.85,-2.77556e-17,0,5366,5366
268.901,-2.77556e-17,0,5606,5606
268.951,-2.77556e-17,0,5810,5810
269.001,-2.77556e-17,0,6026,6026
269.051,-2.77556e-17,0,6230,6230
269.101,-2.77556e-17,0,6414,6414
269.15,-2.77556e-17,0,6554,6554
269.2,-2.77556e-17,0,6770,6770
269.251,-2.77556e-17,0,6926,6926
269.301,-2.77556e-17,0,7186,7186
269.351,-2.77556e-17,0,7422,7422
269.401,-2.77556e-17,0,7602,7602
269.451,-2.77556e-17,0,7810,7810
269.5,-2.77556e-17,0,8002,8002
269.55,-2.77556e-17,0,8206,8206
269.6,-2.77556e-17,0,8386,8386
269.651,-2.77556e-17,0,8570,8570
269.701,-2.77556e-17,0,8802,8802
269.751,-2.77556e-17,0,8974,8974
269.801,-2.77556e-17,0,9102,9102
269.85,-2.77556e-17,0,9274,9274
269.9,-2.77556e-17,0,9474,9474
269.95,-2.77556e-17,0,9662,9662
270.001,-2.77556e-17,0,9862,9862
270.051,-2.77556e-17,0,10050,10050
270.101,-2.77556e-17,0,10266,10266
270.151,-2.77556e-17,0,10470,10470
270.201,-2.77556e-17,0,10686,10686
270.25,-2.77556e-17,0,10878,10878
270.3,-2.77556e-17,0,11070,11070
270.351,-2.77556e-17,0,11278,11278
270.401,-2.77556e-17,0,11482,11482
270.451,-2.77556e-17,0,11690,11690
270.501,-2.77556e-17,0,11910,11910
270.551,-2.77556e-17,0,12126,12126
270.6,-2.77556e-17,0,12298,12298
270.65,-2.77556e-17,0,12518,12518
270.701,-2.77556e-17,0,12718,12718
270.751,-2.77556e-17,0,12890,12890
270.801,-2.77556e-17,0,13082,13082
270.851,-2.77556e-17,0,13278,13278
270.901,-2.77556e-17,0,13454,13454
270.95,-2.77556e-17,0,13634,13634
271,-2.77556e-17,0,13826,13826
271.051,-2.77556e-17,0,13974,13974
271.101,-2.77556e-17,0,14170,14170
271.151,-2.77556e-17,0,14362,14362
271.201,-2.77556e-17,0,14514,14514
271.251,-2.77556e-17,0,14726,14726
271.3,-2.77556e-17,0,14846,14846
271.35,-2.77556e-17,0,15018,15018
271.4,-2.77556e-17,0,15222,15222
271.451,-2.77556e-17,0,15286,15286
271.501,-2.77556e-17,0,15486,15486
271.551,-2.77556e-17,0,15602,15602
271.601,-2.77556e-17,0,15786,15786
271.65,-2.77556e-17,0,15966,15966
271.7,-2.77556e-17,0,16110,16110
271.75,-2.77556e-17,0,16290,16290
271.801,-2.77556e-17,0,16478,16478
271.851,-2.77556e-17,0,16694,16694
271.901,-2.77556e-17,0,17030,17030
271.951,-2.77556e-17,0,17454,17454
272.001,-2.77556e-17,0,17778,17778
272.05,-2.77556e-17,0,17966,17966
272.1,-2.77556e-17,0,18170,18170
272.151,-2.77556e-17,0,18342,18342
272.201,-2.77556e-17,0,18514,18514
272.251,-2.77556e-17,0,18710,18710
272.301,-2.77556e-17,0,18882,18882
272.351,-2.77556e-17,0,19030,19030
272.4,-2.77556e-17,0,19178,19178
272.45,-2.77556e-17,0,19326,19326
272.501,-2.77556e-17,0,19466,19466
272.551,-2.77556e-17,0,19566,19566
272.601,-2.77556e-17,0,19734,19734
272.651,-2.77556e-17,0,19850,19850
272.701,-2.77556e-17,0,20026,20026
272.75,-2.77556e-17,0,20174,20174
272.8,-2.77556e-17,0,20286,20286
272.85,-2.77556e-17,0,20434,20434
272.901,-2.77556e-17,0,20650,20650
272.951,-2.77556e-17,0,20950,20950
273.001,-2.77556e-17,0,21302,21302
273.051,-2.77556e-17,0,21510,21510
273.1,-2.77556e-17,0,21666,21666
273.15,-2.77556e-17,0,21862,21862
273.2,-2.77556e-17,0,21982,21982
273.251,-2.77556e-17,0,22162,22162
273.301,-2.77556e-17,0,22358,22358
273.351,-2.77556e-17,0,22490,22490
273.401,-2.77556e-17,0,22670,22670
273.451,-2.77556e-17,0,22774,22774
273.5,-2.77556e-17,0,22930,22930
273.55,-2.77556e-17,0,23066,23066
273.601,-2.77556e-17,0,23210,23210
273.651,-2.77556e-17,0,23354,23354
273.701,-2.77556e-17,0,23546,23546
273.751,-2.77556e-17,0,23690,23690
273.801,-2.77556e-17,0,23906,23906
273.85,-2.77556e-17,0,24070,24070
273.9,-2.77556e-17,0,24386,24386
273.951,-2.77556e-17,0,24678,24678
274.001,-2.77556e-17,0,24986,24986
274.051,-2.77556e-17,0,25130,25130
274.101,-2.77556e-17,0,25310,25310
274.151,-2.77556e-17,0,25466,25466
274.2,-2.77556e-17,0,25610,25610
274.25,-2.77556e-17,0,25790,25790
274.301,-2.77556e-17,0,25946,25946
274.351,-2.77556e-17,0,26126,26126
274.401,-2.77556e-17,0,26270,26270
274.451,-2.77556e-17,0,26426,26426
274.501,-2.77556e-17,0,26606,26606
274.55,-2.77556e-17,0,26750,26750
274.6,-2.77556e-17,0,26906,26906
274.65,-2.77556e-17,0,27086,27086
274.701,-2.77556e-17,0,27166,27166
274.751,-4.16334e-17,0,27238,27238
274.801,-4.57967e-16,0,27374,27374
274.851,-9.29812e-16,0,27502,27502
274.9,-1.40166e-15,0,27658,27658
274.95,-1.8735e-15,0,27838,27838
275,-2.34535e-15,0,27982,27982
275.051,-3.35842e-15,0,28114,28114
275.101,-5.81479e-15,0,28286,28286
275.151,-1.20598e-14,0,28430,28430
275.201,-2.65343e-14,0,28578,28578
275.251,-5.79398e-14,0,28738,28738
275.3,-1.22041e-13,0,28838,28838
275.35,-2.46247e-13,0,29018,29018
275.401,-4.84612e-13,0,29130,29130
275.451,-8.957e-13,0,29246,29246
275.501,-1.58838e-12,0,29394,29394
275.551,-2.70675e-12,0,29546,29546
275.601,-4.43875e-12,0,29762,29762
275.65,-7.01453e-12,0,29990,29990
275.7,-1.06961e-11,0,30274,30274
275.751,-1.59299e-11,0,30510,30510
275.801,-2.26782e-11,0,30606,30606
275.851,-3.12666e-11,0,30734,30734
275.901,-4.17904e-11,0,30890,30890
275.951,-5.41711e-11,0,31034,31034
276,-6.79571e-11,0,31190,31190
276.05,-8.18925e-11,0,31310,31310
276.1,-9.496e-11,0,31454,31454
276.151,-1.83243e-10,0,31574,31574
276.201,-2.47186e-10,0,31694,31694
276.251,-2.41684e-10,0,31850,31850
276.301,-1.50865e-10,0,31970,31970
276.35,-7.53574e-12,0,32122,32122
276.4,7.204e-11,0,32266,32266
276.45,1.23128e-10,0,32534,32534
276.501,1.09967e-10,0,32704,32704
276.551,7.41486e-11,0,32704,32704
276.601,6.00974e-11,0,32576,32576
276.651,7.88641e-11,0,32608,32608
276.701,1.1352e-10,0,32640,32640
276.75,1.33665e-10,0,32592,32592
276.8,1.21995e-10,0,32576,32576
276.851,8.86702e-11,0,32472,32472
276.901,6.56014e-11,0,32480,32480
276.951,6.89319e-11,0,32604,32604
277.001,9.08252e-11,0,32600,32600
277.051,1.07323e-10,0,32332,32332
277.1,9.67097e-11,0,32332,32332
277.15,5.14582e-11,0,32364,32364
277.201,-1.02715e-11,0,32172,32172
277.251,-4.75442e-11,0,32260,32260
277.301,-3.63892e-11,0,32348,32348
277.351,1.81366e-11,0,32044,32044
277.401,7.76381e-11,0,32212,32212
277.45,1.3042e-10,0,32260,32260
277.5,1.79026e-10,0,32416,32416
277.55,2.04934e-10,0,32704,32704
277.601,2.45202e-10,0,32768,32768
277.651,2.98283e-10,0,32768,32768
277.701,3.47194e-10,0,32768,32768
277.751,3.20579e-10,0,32768,32768
277.8,3.44591e-10,0,32768,32768
277.85,8.23303e-10,0,32768,32768
277.9,2.33276e-09,0,32768,32768
277.951,5.42294e-09,0,32768,32768
278.001,9.95495e-09,0,32768,32768
278.051,1.55545e-08,0,32768,32768
278.101,2.14979e-08,0,32768,32768
278.151,2.71125e-08,0,32768,32768
278.2,3.20944e-08,0,32768,32768
278.25,3.66658e-08,0,32768,32768
278.301,4.16691e-08,0,32768,32768
278.351,4.77446e-08,0,32768,32768
278.401,5.58365e-08,0,32768,32768
278.451,6.64736e-08,0,32768,32768
278.501,7.99514e-08,0,32768,32768
278.55,9.65699e-08,0,32768,32768
278.6,1.16878e-07,0,32768,32768
278.651,1.42541e-07,0,32768,32768
278.701,1.73105e-07,0,32768,32768
278.751,2.1002e-07,0,32768,32768
278.801,2.5358e-07,0,32768,32768
278.851,3.03481e-07,0,32768,32768
278.9,3.59009e-07,0,32768,32768
278.95,4.19418e-07,0,32768,32768
279.001,4.86211e-07,0,32768,32768
279.051,5.5537e-07,0,32768,32768
279.101,6.28382e-07,0,32768,32768
279.151,7.04144e-07,0,32768,32768
279.201,7.80487e-07,0,32768,32768
279.25,8.54407e-07,0,32768,32768
279.3,9.22777e-07,0,32768,32768
279.35,9.83163e-07,0,32768,32768
279.401,1.03575e-06,0,32768,32768
279.451,1.07773e-06,0,32768,32768
279.501,1.11201e-06,0,32768,32768
279.551,1.14041e-06,0,32768,32768
279.6,1.16477e-06,0,32768,32768
279.65,1.18661e-06,0,32768,32768
279.7,1.207e-06,0,32768,32768
279.751,1.22702e-06,0,32768,32768
279.801,1.24561e-06,0,32768,32768
279.851,1.26288e-06,0,32768,32768
279.901,1.27801e-06,0,32768,32768
279.951,1.28995e-06,0,32768,32768
280,1.29792e-06,0,32768,32768
280.05,1.30183e-06,0,32768,32768
280.101,1.30247e-06,0,32768,32768
280.151,1.30142e-06,0,32768,32768
280.201,1.30035e-06,0,32768,32768
280.251,1.30018e-06,0,32768,32768
280.301,1.30065e-06,0,32768,32768
280.35,1.30024e-06,0,32768,32768
280.4,1.29674e-06,0,32768,32768
280.451,1.28752e-06,0,32768,32768
280.501,1.27151e-06,0,32768,32768
280.551,1.24805e-06,0,32768,32768
280.601,1.21788e-06,0,32768,32768
280.651,1.18262e-06,0,32768,32768
280.7,1.14421e-06,0,32768,32768
280.75,1.10414e-06,0,32768,32768
280.8,1.0629e-06,0,32768,32768
280.851,1.01848e-06,0,32768,32768
280.901,9.71958e-07,0,32768,32768
280.951,9.20683e-07,0,32768,32768
281.001,8.63915e-07,0,32768,32768
281.05,8.01838e-07,0,32768,32768
281.1,7.35413e-07,0,32768,32768
281.15,6.6604e-07,0,32768,32768
281.201,5.93148e-07,0,32768,32768
281.251,5.22365e-07,0,32768,32768
281.301,4.52892e-07,0,32768,32768
281.351,3.85882e-07,0,32768,32768
281.401,3.22422e-07,0,32768,32768
281.45,2.63506e-07,0,32768,32768
281.5,2.09883e-07,0,32768,32768
281.551,1.60544e-07,0,32768,32768
281.601,1.18143e-07,0,32768,32768
281.651,8.07371e-08,0,32768,32768
281.701,4.78948e-08,0,32768,32768
281.751,1.94144e-08,0,32768,32768
281.8,-4.71423e-09,0,32768,32768
281.85,-2.45581e-08,0,32768,32768
281.901,-4.09138e-08,0,32768,32768
281.951,-5.3614e-08,0,32768,32768
282.001,-6.40741e-08,0,32768,32768
282.051,-7.29797e-08,0,32768,32768
282.101,-8.05732e-08,0,32768,32768
282.15,-8.66892e-08,0,32768,32768
282.2,-9.10215e-08,0,32768,32768
282.251,-9.34794e-08,0,32768,32768
282.301,-9.41415e-08,0,32768,32768
282.351,-9.36209e-08,0,32768,32768
282.401,-9.25178e-08,0,32768,32768
282.451,-9.12669e-08,0,32768,32768
282.5,-8.99759e-08,0,32768,32768
282.55,-8.84314e-08,0,32768,32768
282.6,-8.62655e-08,0,32768,32768
282.651,-8.30759e-08,0,32768,32768
282.701,-7.89805e-08,0,32768,32768
282.751,-7.40904e-08,0,32768,32768
282.801,-6.87348e-08,0,32768,32768
282.85,-6.32495e-08,0,32768,32768
282.9,-5.78865e-08,0,32768,32768
282.95,-5.27973e-08,0,32768,32768
283.001,-4.79287e-08,0,32768,32768
283.051,-4.3604e-08,0,32768,32768
283.101,-3.97022e-08,0,32768,32768
283.151,-3.62236e-08,0,32768,32768
283.201,-3.31416e-08,0,32768,32768
283.25,-3.0411e-08,0,32768,32768
283.3,-2.79867e-08,0,32768,32768
283.351,-2.57793e-08,0,32768,32768
283.401,-2.39023e-08,0,32768,32768
283.451,-2.22858e-08,0,32768,32768
283.501,-2.09259e-08,0,32768,32768
283.551,-1.98117e-08,0,32768,32768
283.6,-1.89252e-08,0,32768,32768
283.65,-1.82442e-08,0,32768,32768
283.701,-1.77327e-08,0,32768,32768
283.751,-1.73959e-08,0,32768,32768
283.801,-1.71944e-08,0,32768,32768
283.851,-1.71074e-08,0,32768,32768
283.901,-1.71151e-08,0,32768,32768
283.95,-1.71998e-08,0,32768,32768
284,-1.73458e-08,0,32768,32768
284.05,-1.75401e-08,0,32768,32768
284.101,-1.77798e-08,0,32768,32768
284.151,-1.80429e-08,0,32768,32768
284.201,-1.83283e-08,0,32768,32768
284.251,-1.86291e-08,0,32768,32768
284.3,-1.89386e-08,0,32768,32768
284.35,-1.92503e-08,0,32768,32768
284.4,-1.9559e-08,0,32768,32768
284.451,-1.98697e-08,0,32768,32768
284.501,-2.01623e-08,0,32768,32768
284.551,-2.04446e-08,0,32768,32768
284.601,-2.07157e-08,0,32768,32768
284.651,-2.09744e-08,0,32768,32768
284.7,-2.12186e-08,0,32768,32768
284.75,-2.14459e-08,0,32768,32768
284.801,-2.16598e-08,0,32768,32768
284.851,-2.18464e-08,0,32768,32768
284.901,-2.20112e-08,0,32768,32768
284.951,-2.21544e-08,0,32768,32768
285.001,-2.22771e-08,0,32768,32768
285.05,-2.23808e-08,0,32768,32768
285.1,-2.24677e-08,0,32768,32768
285.151,-2.25418e-08,0,32768,32768
285.201,-2.26016e-08,0,32768,32768
285.251,-2.26518e-08,0,32768,32768
285.301,-2.26947e-08,0,32768,32768
285.351,-2.27326e-08,0,32768,32768
285.4,-2.27674e-08,0,32768,32768
285.45,-2.28008e-08,0,32768,32768
285.5,-2.28344e-08,0,32768,32768
285.551,-2.28706e-08,0,32768,32768
285.601,-2.29089e-08,0,32768,32768
285.651,-2.29516e-08,0,32768,32768
285.701,-2.30005e-08,0,32768,32768
285.75,-2.30575e-08,0,32768,32768
285.8,-2.31245e-08,0,32768,32768
285.85,-2.3204e-08,0,32768,32768
285.901,-2.33013e-08,0,32768,32768
285.951,-2.34137e-08,0,32768,32768
286.001,-2.35467e-08,0,32768,32768
286.051,-2.37033e-08,0,32768,32768
286.101,-2.38869e-08,0,32768,32768
286.15,-2.41006e-08,0,32768,32768
286.2,-2.43476e-08,0,32768,32768
286.251,-2.46396e-08,0,32768,32768
286.301,-2.49626e-08,0,32768,32768
286.351,-2.53264e-08,0,32768,32768
286.401,-2.57325e-08,0,32768,32768
286.451,-2.61818e-08,0,32768,32768
286.5,-2.66741e-08,0,32768,32768
286.55,-2.72082e-08,0,32768,32768
286.601,-2.77995e-08,0,32768,32768
286.651,-2.84107e-08,0,32768,32768
286.701,-2.90538e-08,0,32768,32768
286.751,-2.97242e-08,0,32768,32768
286.801,-3.04169e-08,0,32768,32768
286.85,-3.11273e-08,0,32768,32768
286.9,-3.18512e-08,0,32768,32768
286.951,-3.26068e-08,0,32768,32768
287.001,-3.33481e-08,0,32768,32768
287.051,-3.40942e-08,0,32768,32768
287.101,-3.48434e-08,0,32768,32768
287.151,-3.55941e-08,0,32768,32768
287.2,-3.63447e-08,0,32768,32768
287.25,-3.70936e-08,0,32768,32768
287.3,-3.78389e-08,0,32768,32768
287.351,-3.86006e-08,0,32768,32768
287.401,-3.93334e-08,0,32768,32768
287.451,-4.00577e-08,0,32768,32768
287.501,-4.07722e-08,0,32768,32768
287.55,-4.14761e-08,0,32768,32768
287.6,-4.21687e-08,0,32768,32768
287.65,-4.28489e-08,0,32768,32768
287.701,-4.3535e-08,0,32768,32768
287.751,-4.41859e-08,0,32768,32768
287.801,-4.48191e-08,0,32768,32768
287.851,-4.54317e-08,0,32768,32768
287.901,-4.6021e-08,0,32768,32768
287.95,-4.6584e-08,0,32768,32768
288,-4.71182e-08,0,32768,32768
288.051,-4.76358e-08,0,32768,32768
288.101,-4.81055e-08,0,32768,32768
288.151,-4.85409e-08,0,32768,32768
288.201,-4.89408e-08,0,32768,32768
288.251,-4.93036e-08,0,32768,32768
288.3,-4.96277e-08,0,32768,32768
288.35,-4.99114e-08,0,32768,32768
288.401,-5.01595e-08,0,32768,32768
288.451,-5.03567e-08,0,32768,32768
288.501,-5.05098e-08,0,32768,32768
288.551,-5.06189e-08,0,32768,32768
288.601,-5.06845e-08,0,32768,32768
288.65,-5.0708e-08,0,32768,32768
288.7,-5.06914e-08,0,32768,32768
288.75,-5.06374e-08,0,32768,32768
288.801,-5.05459e-08,0,32768,32768
288.851,-5.04255e-08,0,32768,32768
288.901,-5.02779e-08,0,32768,32768
288.951,-5.01065e-08,0,32768,32768
289,-4.99149e-08,0,32768,32768
289.05,-4.97064e-08,0,32768,32768
289.1,-4.94843e-08,0,32768,32768
289.151,-4.92446e-08,0,32768,32768
289.201,-4.90036e-08,0,32768,32768
289.251,-4.87572e-08,0,32768,32768
289.301,-4.85072e-08,0,32768,32768
289.351,-4.82555e-08,0,32768,32768
289.4,-4.80036e-08,0,32768,32768
289.45,-4.77527e-08,0,32768,32768
289.501,-4.74967e-08,0,32768,32768
289.551,-4.72511e-08,0,32768,32768
289.601,-4.70095e-08,0,32768,32768
289.651,-4.67726e-08,0,32768,32768
289.701,-4.65409e-08,0,32768,32768
289.75,-4.63149e-08,0,32768,32768
289.8,-4.60948e-08,0,32768,32768
289.851,-4.58747e-08,0,32768,32768
289.901,-4.56672e-08,0,32768,32768
289.951,-4.54661e-08,0,32768,32768
290.001,-4.52716e-08,0,32768,32768
290.051,-4.50838e-08,0,32768,32768
290.1,-4.49027e-08,0,32768,32768
290.15,-4.47283e-08,0,32768,32768
290.201,-4.45557e-08,0,32768,32768
290.251,-4.43944e-08,0,32768,32768
290.301,-4.42391e-08,0,32768,32768
290.351,-4.40893e-08,0,32768,32768
290.401,-4.39445e-08,0,32768,32768
290.45,-4.38043e-08,0,32768,32768
290.5,-4.36681e-08,0,32768,32768
290.55,-4.35353e-08,0,32768,32768
290.601,-4.34016e-08,0,32768,32768
290.651,-4.32742e-08,0,32768,32768
290.701,-4.31485e-08,0,32768,32768
290.751,-4.30242e-08,0,32768,32768
290.8,-4.29007e-08,0,32768,32768
290.85,-4.27774e-08,0,32768,32768
290.9,-4.2654e-08,0,32768,32768
290.951,-4.25262e-08,0,32768,32768
291.001,-4.2401e-08,0,32768,32768
291.051,-4.22741e-08,0,32768,32768
291.101,-4.21453e-08,0,32768,32768
291.151,-4.20141e-08,0,32768,32768
291.2,-4.18801e-08,0,32768,32768
291.25,-4.1743e-08,0,32768,32768
291.301,-4.15984e-08,0,32768,32768
291.351,-4.14542e-08,0,32768,32768
291.401,-4.13062e-08,0,32768,32768
291.451,-4.11541e-08,0,32768,32768
291.501,-4.09977e-08,0,32768,32768
291.55,-4.0837e-08,0,32768,32768
291.6,-4.06717e-08,0,32768,32768
291.651,-4.04966e-08,0,32768,32768
291.701,-4.03216e-08,0,32768,32768
291.751,-4.01414e-08,0,32768,32768
291.801,-3.99557e-08,0,32768,32768
291.851,-3.97642e-08,0,32768,32768
291.9,-3.95664e-08,0,32768,32768
291.95,-3.93617e-08,0,32768,32768
292,-3.91496e-08,0,32768,32768
292.051,-3.89232e-08,0,32768,32768
292.101,-3.86949e-08,0,32768,32768
292.151,-3.8458e-08,0,32768,32768
292.201,-3.82122e-08,0,32768,32768
292.25,-3.79571e-08,0,32768,32768
292.3,-3.7692e-08,0,32768,32768
292.35,-3.74163e-08,0,32768,32768
292.401,-3.712e-08,0,32768,32768
292.451,-3.68187e-08,0,32768,32768
292.501,-3.65023e-08,0,32768,32768
292.551,-3.61685e-08,0,32768,32768
292.601,-3.58148e-08,0,32768,32768
292.65,-3.54383e-08,0,32768,32768
292.7,-3.50357e-08,0,32768,32768
292.751,-3.45906e-08,0,32768,32768
292.801,-3.41247e-08,0,32768,32768
292.851,-3.36225e-08,0,32768,32768
292.901,-3.30805e-08,0,32768,32768
292.951,-3.24959e-08,0,32768,32768
293,-3.18662e-08,0,32768,32768
293.05,-3.11895e-08,0,32768,32768
293.101,-3.04429e-08,0,32768,32768
293.151,-2.96689e-08,0,32768,32768
293.201,-2.8848e-08,0,32768,32768
293.251,-2.79822e-08,0,32768,32768
293.301,-2.70748e-08,0,32768,32768
293.35,-2.61299e-08,0,32768,32768
293.4,-2.51523e-08,0,32768,32768
293.451,-2.41171e-08,0,32768,32768
293.501,-2.30887e-08,0,32768,32768
293.551,-2.20426e-08,0,32768,32768
293.601,-2.09829e-08,0,32768,32768
293.651,-1.99133e-08,0,32768,32768
293.7,-1.88367e-08,0,32768,32768
293.75,-1.77557e-08,0,32768,32768
293.8,-1.66724e-08,0,32768,32768
293.851,-1.5557e-08,0,32768,32768
293.901,-1.44752e-08,0,32768,32768
293.951,-1.33971e-08,0,32768,32768
294.001,-1.23246e-08,0,32768,32768
294.05,-1.12595e-08,0,32768,32768
294.1,-1.02035e-08,0,32768,32768
294.15,-9.15804e-09,0,32768,32768
294.201,-8.09432e-09,0,32768,32768
294.251,-7.07446e-09,0,32768,32768
294.301,-6.06928e-09,0,32768,32768
294.351,-5.08049e-09,0,32768,32768
294.401,-4.11016e-09,0,32768,32768
294.45,-3.16081e-09,0,32768,32768
294.5,-2.23532e-09,0,32768,32768
294.551,-1.31083e-09,0,32768,32768
294.601,-4.43351e-10,0,32768,32768
294.651,3.90961e-10,0,32768,32768
294.701,1.18941e-09,0,32768,32768
294.751,1.94962e-09,0,32768,32768
294.8,2.66948e-09,0,32768,32768
294.85,3.34716e-09,0,32768,32768
294.901,3.99921e-09,0,32768,32768
294.951,4.5841e-09,0,32768,32768
295.001,5.12116e-09,0,32768,32768
295.051,5.61122e-09,0,32768,32768
295.101,6.05024e-09,0,32768,32768
295.15,6.43697e-09,0,32768,32768
295.2,6.77145e-09,0,32768,32768
295.25,7.05402e-09,0,32768,32768
295.301,7.29186e-09,0,32768,32768
295.351,7.4734e-09,0,32768,32768
295.401,7.60901e-09,0,32768,32768
295.451,7.70229e-09,0,32768,32768
295.5,7.75738e-09,0,32768,32768
295.55,7.77874e-09,0,32768,32768
295.6,7.77091e-09,0,32768,32768
295.651,7.7371e-09,0,32768,32768
295.701,7.68359e-09,0,32768,32768
295.751,7.61369e-09,0,32768,32768
295.801,7.53101e-09,0,32768,32768
295.851,7.43872e-09,0,32768,32768
295.9,7.33952e-09,0,32768,32768
295.95,7.23562e-09,0,32768,32768
296.001,7.12553e-09,0,32768,32768
296.051,7.01681e-09,0,32768,32768
296.101,6.90718e-09,0,32768,32768
296.151,6.79716e-09,0,32768,32768
296.201,6.68703e-09,0,32768,32768
296.25,6.57685e-09,0,32768,32768
296.3,6.46647e-09,0,32768,32768
296.351,6.35238e-09,0,32768,32768
296.401,6.24081e-09,0,32768,32768
296.451,6.12843e-09,0,32768,32768
296.501,6.01556e-09,0,32768,32768
296.551,5.90308e-09,0,32768,32768
296.6,5.79246e-09,0,32768,32768
296.65,5.68564e-09,0,32768,32768
296.7,5.58478e-09,0,32768,32768
296.751,5.48932e-09,0,32768,32768
296.801,5.40633e-09,0,32768,32768
296.851,5.33387e-09,0,32768,32768
296.901,5.27208e-09,0,32768,32768
296.95,5.22042e-09,0,32768,32768
297,5.17783e-09,0,32768,32768
297.05,5.143e-09,0,32768,32768
297.101,5.11387e-09,0,32768,32768
297.151,5.091e-09,0,32768,32768
297.201,5.07272e-09,0,32768,32768
297.251,5.05857e-09,0,32768,32768
297.301,5.04832e-09,0,32768,32768
297.35,5.04171e-09,0,32768,32768
297.4,5.03826e-09,0,32768,32768
297.451,5.03717e-09,0,32768,32768
297.501,5.03734e-09,0,32768,32768
297.551,5.03744e-09,0,32768,32768
297.601,5.03627e-09,0,32768,32768
297.651,5.03301e-09,0,32768,32768
297.7,5.02739e-09,0,32768,32768
297.75,5.0197e-09,0,32768,32768
297.801,5.01037e-09,0,32768,32768
297.851,5.00085e-09,0,32768,32768
297.901,4.99165e-09,0,32768,32768
297.951,4.98317e-09,0,32768,32768
298.001,4.97539e-09,0,32768,32768
298.05,4.96797e-09,0,32768,32768
298.1,4.96043e-09,0,32768,32768
298.151,4.95215e-09,0,32768,32768
298.201,4.94357e-09,0,32768,32768
298.251,4.93486e-09,0,32768,32768
298.301,4.92674e-09,0,32768,32768
298.351,4.92018e-09,0,32768,32768
298.4,4.91614e-09,0,32768,32768
298.45,4.91544e-09,0,32768,32768
298.5,4.9186e-09,0,32768,32768
298.551,4.92608e-09,0,32768,32768
298.601,4.93728e-09,0,32768,32768
298.651,4.95186e-09,0,32768,32768
298.701,4.96915e-09,0,32768,32768
298.75,4.9883e-09,0,32768,32768
298.8,5.00846e-09,0,32768,32768
298.85,5.02878e-09,0,32768,32768
298.901,5.0491e-09,0,32768,32768
298.951,5.06764e-09,0,32768,32768
299.001,5.08453e-09,0,32768,32768
299.051,5.09942e-09,0,32768,32768
299.101,5.11205e-09,0,32768,32768
299.15,5.12227e-09,0,32768,32768
299.2,5.13006e-09,0,32768,32768
299.251,5.13559e-09,0,32768,32768
299.301,5.13874e-09,0,32768,32768
299.351,5.13993e-09,0,32768,32768
299.401,5.13939e-09,0,32768,32768
299.451,5.13732e-09,0,32768,32768
299.5,5.13383e-09,0,32768,32768
299.55,5.12901e-09,0,32768,32768
299.601,5.1227e-09,0,32768,32768
299.651,5.11536e-09,0,32768,32768
299.701,5.10693e-09,0,32768,32768
299.751,5.09757e-09,0,32768,32768
299.801,5.08742e-09,0,32768,32768
299.85,5.07658e-09,0,32768,32768
299.9,5.06507e-09,0,32768,32768
299.95,5.05281e-09,0,32768,32768
300.001,5.03928e-09,0,32768,32768
300.051,5.02511e-09,0,32768,32768
300.101,5.00979e-09,0,32768,32768
300.151,4.99325e-09,0,32768,32768
300.2,4.97547e-09,0,32768,32768
300.25,4.9565e-09,0,32768,32768
300.3,4.93639e-09,0,32768,32768
300.351,4.9146e-09,0,32768,32768
300.401,4.89243e-09,0,32768,32768
300.451,4.86935e-09,0,32768,32768
300.501,4.84538e-09,0,32768,32768
300.551,4.82054e-09,0,32768,32768
300.6,4.79481e-09,0,32768,32768
300.65,4.7682e-09,0,32768,32768
300.701,4.73985e-09,0,32768,32768
300.751,4.71136e-09,0,32768,32768
300.801,4.68192e-09,0,32768,32768
300.851,4.65152e-09,0,32768,32768
300.901,4.62015e-09,0,32768,32768
300.95,4.58781e-09,0,32768,32768
301,4.55448e-09,0,32768,32768
301.051,4.51915e-09,0,32768,32768
301.101,4.48382e-09,0,32768,32768
301.151,4.44751e-09,0,32768,32768
301.201,4.41021e-09,0,32768,32768
301.251,4.37192e-09,0,32768,32768
301.3,4.33263e-09,0,32768,32768
301.35,4.29236e-09,0,32768,32768
301.4,4.25112e-09,0,32768,32768
301.451,4.20765e-09,0,32768,32768
301.501,4.16445e-09,0,32768,32768
301.551,4.12033e-09,0,32768,32768
301.601,4.07529e-09,0,32768,32768
301.65,4.02937e-09,0,32768,32768
301.7,3.98259e-09,0,32768,32768
301.75,3.93499e-09,0,32768,32768
301.801,3.88516e-09,0,32768,32768
301.851,3.83598e-09,0,32768,32768
301.901,3.7861e-09,0,32768,32768
301.951,3.73555e-09,0,32768,32768
302.001,3.68439e-09,0,32768,32768
302.05,3.63266e-09,0,32768,32768
302.1,3.58042e-09,0,32768,32768
302.151,3.52617e-09,0,32768,32768
302.201,3.47306e-09,0,32768,32768
302.251,3.41961e-09,0,32768,32768
302.301,3.36587e-09,0,32768,32768
302.351,3.31192e-09,0,32768,32768
302.4,3.2578e-09,0,32768,32768
302.45,3.20358e-09,0,32768,32768
302.501,3.14772e-09,0,32768,32768
302.551,3.09349e-09,0,32768,32768
302.601,3.03935e-09,0,32768,32768
302.651,2.98536e-09,0,32768,32768
302.701,2.93158e-09,0,32768,32768
302.75,2.87805e-09,0,32768,32768
302.8,2.82482e-09,0,32768,32768
302.851,2.77039e-09,0,32768,32768
302.901,2.71791e-09,0,32768,32768
302.951,2.66584e-09,0,32768,32768
303.001,2.61421e-09,0,32768,32768
303.051,2.56304e-09,0,32768,32768
303.1,2.51234e-09,0,32768,32768
303.15,2.46212e-09,0,32768,32768
303.2,2.41238e-09,0,32768,32768
303.251,2.3617e-09,0,32768,32768
303.301,2.31295e-09,0,32768,32768
303.351,2.26469e-09,0,32768,32768
303.401,2.2169e-09,0,32768,32768
303.45,2.16958e-09,0,32768,32768
303.5,2.12271e-09,0,32768,32768
303.55,2.0763e-09,0,32768,32768
303.601,2.02899e-09,0,32768,32768
303.651,1.98347e-09,0,32768,32768
303.701,1.93837e-09,0,32768,32768
303.751,1.89369e-09,0,32768,32768
303.801,1.84941e-09,0,32768,32768
303.85,1.80554e-09,0,32768,32768
303.9,1.76205e-09,0,32768,32768
303.951,1.71768e-09,0,32768,32768
304.001,1.67494e-09,0,32768,32768
304.051,1.63256e-09,0,32768,32768
304.101,1.59051e-09,0,32768,32768
304.151,1.54878e-09,0,32768,32768
304.2,1.50736e-09,0,32768,32768
304.25,1.46622e-09,0,32768,32768
304.301,1.42416e-09,0,32768,32768
304.351,1.38356e-09,0,32768,32768
304.401,1.3432e-09,0,32768,32768
304.451,1.30308e-09,0,32768,32768
304.501,1.26318e-09,0,32768,32768
304.55,1.2235e-09,0,32768,32768
304.6,1.18403e-09,0,32768,32768
304.65,1.14476e-09,0,32768,32768
304.701,1.10454e-09,0,32768,32768
304.751,1.06567e-09,0,32768,32768
304.801,1.027e-09,0,32768,32768
304.851,9.88528e-10,0,32768,32768
304.9,9.50251e-10,0,32768,32768
304.95,9.12176e-10,0,32768,32768
