250,0,0,32768,32768
250.001,0,0,32768,32768
250.051,2.77556e-17,0,32768,32768
250.101,0,0,32768,32768
250.151,2.77556e-17,0,32768,32768
250.201,0,0,32768,32768
250.25,0,0,32768,32768
250.3,-2.77556e-17,0,32768,32768
250.35,-2.77556e-17,0,32768,32768
250.401,0,0,32768,32768
250.451,0,0,32768,32768
250.501,0,0,32768,32768
250.551,-2.77556e-17,0,32768,32768
250.6,-2.77556e-17,0,32768,32768
250.65,-2.77556e-17,0,32768,32768
250.7,0,0,32768,32768
250.751,2.77556e-17,0,32768,32768
250.801,-2.77556e-17,0,32768,32768
250.851,-2.77556e-17,0,32768,32768
250.901,-2.77556e-17,0,32768,32768
250.951,-2.77556e-17,0,32768,32768
251,-8.32667e-17,0,32768,32768
251.05,5.55112e-17,0,32768,32768
251.101,-2.77556e-17,0,32768,32768
251.151,-2.77556e-17,0,32768,32768
251.201,0,0,32768,32768
251.251,0,0,32768,32768
251.301,0,0,32768,32768
251.35,-2.77556e-17,0,32768,32768
251.4,-5.55112e-17,0,32768,32768
251.451,-2.77556e-17,0,32768,32768
251.501,-5.55112e-17,0,32768,32768
251.551,-1.11022e-16,0,32768,32768
251.601,-5.55112e-17,0,32768,32768
251.651,2.77556e-17,0,32768,32768
251.7,2.77556e-17,0,32768,32768
251.75,0,0,32768,32768
251.8,0,0,32768,32768
251.851,5.55112e-17,0,32768,32768
251.901,5.55112e-17,0,32768,32768
251.951,8.32667e-17,0,32768,32768
252.001,2.77556e-17,0,32768,32768
252.05,5.55112e-17,0,32768,32768
252.1,5.55112e-17,0,32768,32768
252.15,5.55112e-17,0,32768,32768
252.201,2.77556e-17,0,32768,32768
252.251,2.77556e-17,0,32768,32768
252.301,1.11022e-16,0,32768,32768
252.351,1.11022e-16,0,32768,32768
252.401,8.32667e-17,0,32768,32768
252.45,2.77556e-17,0,32768,32768
252.5,2.77556e-17,0,32768,32768
252.551,2.77556e-17,0,32768,32768
252.601,-2.77556e-17,0,32768,32768
252.651,0,0,32768,32768
252.701,2.77556e-17,0,32768,32768
252.751,5.55112e-17,0,32768,32768
252.8,5.55112e-17,0,32768,32768
252.85,5.55112e-17,0,32768,32768
252.901,5.55112e-17,0,32768,32768
252.951,5.55112e-17,0,32768,32768
253.001,8.32667e-17,0,32768,32768
253.051,1.11022e-16,0,32768,32768
253.101,2.77556e-17,0,32768,32768
253.15,0,0,32768,32768
253.2,-2.77556e-17,0,32768,32768
253.25,0,0,32768,32768
253.301,2.77556e-17,0,32768,32768
253.351,2.77556e-17,0,32768,32768
253.401,0,0,32768,32768
253.451,0,0,32768,32768
253.5,0,0,32768,32768
253.55,2.77556e-17,0,32768,32768
253.6,2.77556e-17,0,32768,32768
253.651,2.77556e-17,0,32768,32768
253.701,2.77556e-17,0,32768,32768
253.751,0,0,32768,32768
253.801,2.77556e-17,0,32768,32768
253.851,2.77556e-17,0,32768,32768
253.9,2.77556e-17,0,32768,32768
253.95,0,0,32768,32768
254.001,2.77556e-17,0,32768,32768
254.051,0,0,32768,32768
254.101,2.77556e-17,0,32768,32768
254.151,0,0,32768,32768
254.201,5.55112e-17,0,32768,32768
254.25,2.77556e-17,0,32768,32768
254.3,5.55112e-17,0,32768,32768
254.351,5.55112e-17,0,32768,32768
254.401,5.55112e-17,0,32768,32768
254.451,2.77556e-17,0,32768,32768
254.501,2.77556e-17,0,32768,32768
254.551,2.77556e-17,0,32768,32768
254.6,2.77556e-17,0,32768,32768
254.65,5.55112e-17,0,32768,32768
254.701,5.55112e-17,0,32768,32768
254.751,5.55112e-17,0,32768,32768
254.801,0,0,32768,32768
254.851,0,0,32768,32768
254.901,0,0,32768,32768
254.95,0,0,32768,32768
255,5.55112e-17,0,32768,32768
255.05,8.32667e-17,0,32768,32768
255.101,8.32667e-17,0,32768,32768
255.151,8.32667e-17,0,32768,32768
255.201,5.55112e-17,0,32768,32768
255.251,2.77556e-17,0,32768,32768
255.3,5.55112e-17,0,32768,32768
255.35,2.77556e-17,0,32768,32768
255.4,-2.77556e-17,0,32768,32768
255.451,2.77556e-17,0,32768,32768
255.501,2.77556e-17,0,32768,32768
255.551,2.77556e-17,0,32768,32768
255.601,2.77556e-17,0,32768,32768
255.651,0,0,32768,32768
255.7,0,0,32768,32768
255.75,-2.77556e-17,0,32768,32768
255.801,-5.55112e-17,0,32768,32768
255.851,-5.55112e-17,0,32768,32768
255.901,-2.77556e-17,0,32768,32768
255.951,-2.77556e-17,0,32768,32768
256.001,-5.55112e-17,0,32768,32768
256.05,-5.55112e-17,0,32768,32768
256.1,-2.77556e-17,0,32768,32768
256.151,-8.32667e-17,0,32768,32768
256.201,-5.55112e-17,0,32768,32768
256.251,-5.55112e-17,0,32768,32768
256.301,-5.55112e-17,0,32768,32768
256.351,0,0,32768,32768
256.4,2.77556e-17,0,32768,32768
256.45,5.55112e-17,0,32768,32768
256.5,2.77556e-17,0,32768,32768
256.551,0,0,32768,32768
256.601,0,0,32768,32768
256.651,5.55112e-17,0,32768,32768
256.701,5.55112e-17,0,32768,32768
256.75,8.32667e-17,0,32768,32768
256.8,2.77556e-17,0,32768,32768
256.85,0,0,32768,32768
256.901,2.77556e-17,0,32768,32768
256.951,2.77556e-17,0,32768,32768
257.001,0,0,32768,32768
257.051,0,0,32768,32768
257.101,-2.77556e-17,0,32768,32768
257.15,-2.77556e-17,0,32768,32768
257.2,-2.77556e-17,0,32768,32768
257.251,0,0,32768,32768
257.301,-2.77556e-17,0,32768,32768
257.351,0,0,32768,32768
257.401,0,0,32768,32768
257.451,0,0,32768,32768
257.5,-2.77556e-17,0,32768,32768
257.55,-2.77556e-17,0,32768,32768
257.601,2.77556e-17,0,32768,32768
257.651,8.32667e-17,0,32768,32768
257.701,5.55112e-17,0,32768,32768
257.751,2.77556e-17,0,32768,32768
257.801,0,0,32768,32768
257.85,2.77556e-17,0,32768,32768
257.9,2.77556e-17,0,32768,32768
257.95,2.77556e-17,0,32768,32768
258.001,0,0,32768,32768
258.051,0,0,32768,32768
258.101,0,0,32768,32768
258.151,2.77556e-17,0,32768,32768
258.2,0,0,32768,32768
258.25,2.77556e-17,0,32768,32768
258.3,5.55112e-17,0,32768,32768
258.351,2.77556e-17,0,32768,32768
258.401,2.77556e-17,0,32768,32768
258.451,2.77556e-17,0,32768,32768
258.501,0,0,32768,32768
258.551,0,0,32768,32768
258.6,0,0,32768,32768
258.65,2.77556e-17,0,32768,32768
258.701,2.77556e-17,0,32768,32768
258.751,2.77556e-17,0,32768,32768
258.801,0,0,32768,32768
258.851,-2.77556e-17,0,32768,32768
258.901,-2.77556e-17,0,32768,32768
258.95,0,0,32768,32768
259,0,0,32768,32768
259.051,5.55112e-17,0,32768,32768
259.101,8.32667e-17,0,32768,32768
259.151,1.38778e-16,0,32768,32768
259.201,1.38778e-16,0,32768,32768
259.251,8.32667e-17,0,32768,32768
259.3,8.32667e-17,0,32768,32768
259.35,8.32667e-17,0,32768,32768
259.401,8.32667e-17,0,32768,32768
259.451,5.55112e-17,0,32768,32768
259.501,5.55112e-17,0,32768,32768
259.551,1.11022e-16,0,32768,32768
259.601,8.32667e-17,0,32768,32768
259.65,5.55112e-17,0,32768,32768
259.7,0,0,32768,32768
259.75,-5.55112e-17,0,32768,32768
259.801,-2.77556e-17,0,32768,32768
259.851,-5.55112e-17,0,32768,32768
259.901,-2.77556e-17,0,32768,32768
259.951,-5.55112e-17,0,32768,32768
260,-8.32667e-17,0,32768,32768
260.05,-5.55112e-17,0,32768,32768
260.1,0,0,32768,32768
260.151,5.55112e-17,0,32768,32768
260.201,2.77556e-17,0,32768,32768
260.251,-5.55112e-17,0,32768,32768
260.301,-5.55112e-17,0,32768,32768
260.351,-5.55112e-17,0,32768,32768
260.4,0,0,32768,32768
260.45,0,0,32768,32768
260.501,-2.77556e-17,0,32768,32768
260.551,-2.77556e-17,0,32768,32768
260.601,-2.77556e-17,0,32768,32768
260.651,-5.55112e-17,0,32768,32768
260.701,0,0,32768,32768
260.75,-5.55112e-17,0,32768,32768
260.8,-5.55112e-17,0,32768,32768
260.851,-8.32667e-17,0,32768,32768
260.901,0,0,32768,32768
260.951,0,0,32768,32768
261.001,0,0,32768,32768
261.051,2.77556e-17,0,32768,32768
261.1,2.77556e-17,0,32768,32768
261.15,2.77556e-17,0,32768,32768
261.2,5.55112e-17,0,32768,32768
261.251,2.77556e-17,0,32768,32768
261.301,2.77556e-17,0,32768,32768
261.351,5.55112e-17,0,32768,32768
261.401,2.77556e-17,0,32768,32768
261.45,2.77556e-17,0,32768,32768
261.5,2.77556e-17,0,32768,32768
261.55,0,0,32768,32768
261.601,-2.77556e-17,0,32768,32768
261.651,-1.11022e-16,0,32768,32768
261.701,-8.32667e-17,0,32768,32768
261.751,-1.11022e-16,0,32768,32768
261.801,-8.32667e-17,0,32768,32768
261.85,-8.32667e-17,0,32768,32768
261.9,-5.55112e-17,0,32768,32768
261.951,-5.55112e-17,0,32768,32768
262.001,-8.32667e-17,0,32768,32768
262.051,-2.77556e-17,0,32768,32768
262.101,-5.55112e-17,0,32768,32768
262.151,-2.77556e-17,0,32768,32768
262.2,0,0,32768,32768
262.25,-2.77556e-17,0,32768,32768
262.301,-2.77556e-17,0,32768,32768
262.351,-8.32667e-17,0,32768,32768
262.401,-8.32667e-17,0,32768,32768
262.451,-8.32667e-17,0,32768,32768
262.501,-8.32667e-17,0,32768,32768
262.55,-1.11022e-16,0,32768,32768
262.6,-8.32667e-17,0,32768,32768
262.651,-1.11022e-16,0,32768,32768
262.701,-8.32667e-17,0,32768,32768
262.751,-2.77556e-17,0,32768,32768
262.801,2.77556e-17,0,32768,32768
262.851,5.55112e-17,0,32768,32768
262.9,2.77556e-17,0,32768,32768
262.95,2.77556e-17,0,32768,32768
263,0,0,32768,32768
263.051,-2.77556e-17,0,32768,32768
263.101,-5.55112e-17,0,32768,32768
263.151,0,0,32768,32768
263.201,5.55112e-17,0,32768,32768
263.25,5.55112e-17,0,32768,32768
263.3,1.66533e-16,0,32768,32768
263.35,1.66533e-16,0,32768,32768
263.401,1.66533e-16,0,32768,32768
263.451,1.38778e-16,0,32768,32768
263.501,1.11022e-16,0,32768,32768
263.551,5.55112e-17,0,32768,32768
263.601,8.32667e-17,0,32768,32768
263.65,1.38778e-16,0,32768,32768
263.7,1.11022e-16,0,32768,32768
263.751,5.55112e-17,0,32768,32768
263.801,5.55112e-17,0,32768,32768
263.851,1.38778e-16,0,32768,32768
263.901,5.55112e-17,0,32768,32768
263.951,8.32667e-17,0,32768,32768
264,2.77556e-17,0,32768,32768
264.05,5.55112e-17,0,32768,32768
264.101,5.55112e-17,0,32768,32768
264.151,5.55112e-17,0,32768,32768
264.201,5.55112e-17,0,32768,32768
264.251,2.77556e-17,0,32768,32768
264.301,2.77556e-17,0,32768,32768
264.35,5.55112e-17,0,32768,32768
264.4,8.32667e-17,0,32768,32768
264.45,8.32667e-17,0,32768,32768
264.501,2.77556e-17,0,32768,32768
264.551,2.77556e-17,0,32768,32768
264.601,2.77556e-17,0,32768,32768
264.651,8.32667e-17,0,32768,32768
264.7,2.77556e-17,0,32768,32768
264.75,2.77556e-17,0,32768,32768
264.8,5.55112e-17,0,32768,32768
264.851,5.55112e-17,0,32768,32768
264.901,0,0,32768,32768
264.951,0,0,32768,32768
265.001,1.94289e-16,0,32768,32768
265.051,1.94289e-16,0,32768,32768
265.1,1.94289e-16,0,32768,32768
265.15,1.38778e-16,0,32768,32768
265.201,8.32667e-17,0,32768,32768
265.251,1.11022e-16,0,32768,32768
265.301,8.32667e-17,0,32768,32768
265.351,1.11022e-16,0,32768,32768
265.401,1.38778e-16,0,32768,32768
265.45,1.11022e-16,0,32768,32768
265.5,1.11022e-16,0,32768,32768
265.551,1.11022e-16,0,32768,32768
265.601,8.32667e-17,0,32768,32768
265.651,8.32667e-17,0,32768,32768
265.701,8.32667e-17,0,32768,32768
265.751,8.32667e-17,0,32768,32768
265.8,5.55112e-17,0,32768,32768
265.85,5.55112e-17,0,32768,32768
265.9,5.55112e-17,0,32768,32768
265.951,2.77556e-17,0,32768,32768
266.001,1.11022e-16,0,32768,32768
266.051,8.32667e-17,0,32768,32768
266.101,8.32667e-17,0,32768,32768
266.15,1.66533e-16,0,32768,32768
266.2,1.38778e-16,0,32768,32768
266.25,1.38778e-16,0,32768,32768
266.301,8.32667e-17,0,32768,32768
266.351,8.32667e-17,0,32768,32768
266.401,8.32667e-17,0,32768,32768
266.451,1.11022e-16,0,32768,32768
266.501,1.11022e-16,0,32768,32768
266.55,5.55112e-17,0,32768,32768
266.6,5.55112e-17,0,32768,32768
266.651,5.55112e-17,0,32768,32768
266.701,1.11022e-16,0,32768,32768
266.751,1.11022e-16,0,32768,32768
266.801,1.11022e-16,0,32768,32768
266.851,5.55112e-17,0,32768,32768
266.9,5.55112e-17,0,32768,32768
266.95,5.55112e-17,0,32768,32768
267.001,2.77556e-17,0,32768,32768
267.051,2.77556e-17,0,32768,32768
267.101,2.77556e-17,0,32768,32768
267.151,5.55112e-17,0,32768,32768
267.201,2.77556e-17,0,32768,32768
267.25,8.32667e-17,0,32768,32768
267.3,5.55112e-17,0,32768,32768
267.351,1.11022e-16,0,32768,32768
267.401,5.55112e-17,0,32768,32768
267.451,2.77556e-17,0,32768,32768
267.501,2.77556e-17,0,32768,32768
267.551,2.77556e-17,0,32768,32768
267.6,2.77556e-17,0,32768,32768
267.65,2.77556e-17,0,32768,32768
267.7,5.55112e-17,0,32768,32768
267.751,5.55112e-17,0,32768,32768
267.801,5.55112e-17,0,32768,32768
267.851,1.11022e-16,0,32768,32768
267.901,8.32667e-17,0,32768,32768
267.95,5.55112e-17,0,32768,32768
268,2.77556e-17,0,32768,32768
268.05,5.55112e-17,0,32768,32768
268.101,-8.32667e-17,0,32768,32768
268.151,-5.55112e-17,0,32768,32768
268.201,-5.55112e-17,0,32768,32768
268.251,-8.32667e-17,0,32768,32768
268.301,-5.55112e-17,0,32768,32768
268.35,-5.55112e-17,0,32768,32768
268.4,-8.32667e-17,0,32768,32768
268.451,-5.55112e-17,0,32768,32768
268.501,2.77556e-17,0,32768,32768
268.551,-8.32667e-17,0,32768,32768
268.601,-5.55112e-17,0,32768,32768
268.651,-5.55112e-17,0,32768,32768
268.7,-5.55112e-17,0,32768,32768
268.75,-2.77556e-17,0,32768,32768
268.801,-2.77556e-17,0,32768,32768
268.851,0,0,32768,32768
268.901,0,0,32768,32768
268.951,-5.55112e-17,0,32768,32768
269.001,-2.77556e-17,0,32768,32768
269.05,-2.77556e-17,0,32768,32768
269.1,-5.55112e-17,0,32768,32768
269.15,-5.55112e-17,0,32768,32768
269.201,0,0,32768,32768
269.251,0,0,32768,32768
269.301,8.32667e-17,0,32768,32768
269.351,2.77556e-17,0,32768,32768
269.4,2.77556e-17,0,32768,32768
269.45,0,0,32768,32768
269.5,-5.55112e-17,0,32768,32768
269.551,-2.77556e-17,0,32768,32768
269.601,2.77556e-17,0,32768,32768
269.651,5.55112e-17,0,32768,32768
269.701,5.55112e-17,0,32768,32768
269.751,2.77556e-17,0,32768,32768
269.8,2.77556e-17,0,32768,32768
269.85,0,0,32768,32768
269.901,0,0,32768,32768
269.951,0,0,32768,32768
270.001,0,0,32768,32768
270.051,0,0,32768,32768
270.101,0,0,32768,32768
270.15,5.55112e-17,0,32768,32768
270.2,5.55112e-17,0,32768,32768
270.251,0,0,32768,32768
270.301,-2.77556e-17,0,32768,32768
270.351,5.55112e-17,0,32768,32768
270.401,2.77556e-17,0,32768,32768
270.451,2.77556e-17,0,32768,32768
270.5,2.77556e-17,0,32768,32768
270.55,2.77556e-17,0,32768,32768
270.6,5.55112e-17,0,32768,32768
270.651,2.77556e-17,0,32768,32768
270.701,2.77556e-17,0,32768,32768
270.751,2.77556e-17,0,32768,32768
270.801,2.77556e-17,0,32768,32768
270.85,5.55112e-17,0,32768,32768
270.9,5.55112e-17,0,32768,32768
270.95,5.55112e-17,0,32768,32768
271.001,4.996e-16,0,32768,32768
271.051,2.07334e-14,0,32768,32768
271.101,2.85078e-13,0,32768,32768
271.151,-4.35457e-13,0,32768,32768
271.201,-2.53471e-11,0,32768,32768
271.25,-1.43011e-10,0,32768,32768
271.3,-3.52529e-10,0,32768,32768
271.351,-4.69234e-10,0,32768,32768
271.401,-3.33886e-10,0,32768,32768
271.451,-3.15426e-11,0,32768,32768
271.501,2.41769e-10,0,32768,32768
271.551,3.2737e-10,0,32768,32768
271.6,1.96826e-10,0,32768,32768
271.65,-2.25472e-11,0,32768,32768
271.701,-1.37471e-10,0,32768,32768
271.751,-4.42237e-11,0,32768,32768
271.801,1.60094e-10,0,32768,32768
271.851,2.87425e-10,0,32768,32768
271.901,2.30395e-10,0,32768,32768
271.95,5.66481e-11,0,32768,32768
272,-6.69319e-11,0,32768,32768
272.051,-3.15291e-11,0,32768,32768
272.101,1.15527e-10,0,32768,32768
272.151,2.39384e-10,0,32768,32768
272.201,2.45462e-10,0,32768,32768
272.251,1.45136e-10,0,32768,32768
272.3,2.2862e-11,0,32768,32768
272.35,-3.69507e-11,0,32768,32768
272.4,5.41367e-12,0,32768,32768
272.451,1.39676e-10,0,32768,32768
272.501,2.82164e-10,0,32768,32768
272.551,3.16744e-10,0,32768,32768
272.601,1.59115e-10,0,32768,32768
272.65,-1.1835e-10,0,32768,32768
272.7,-2.59747e-10,0,32768,32768
272.75,-2.23492e-11,0,32768,32768
272.801,5.167e-10,0,32768,32768
272.851,7.93424e-10,0,32768,32768
272.901,3.09366e-10,0,32768,32768
272.951,-7.36937e-10,0,32768,32768
273.001,-1.20736e-09,0,32768,32768
273.05,3.0307e-10,0,32768,32768
273.1,4.3878e-09,0,32768,32768
273.151,1.0552e-08,0,32768,32768
273.201,1.69774e-08,0,32768,32768
273.251,2.25403e-08,0,32768,32768
273.301,2.65932e-08,0,32768,32768
273.351,2.91923e-08,0,32768,32768
273.4,3.11326e-08,0,32768,32768
273.45,3.38326e-08,0,32768,32768
273.501,3.89371e-08,0,32768,32768
273.551,4.68521e-08,0,32768,32768
273.601,5.7349e-08,0,32768,32768
273.651,6.97597e-08,0,32768,32768
273.701,8.40372e-08,0,32768,32768
273.75,1.01115e-07,0,32768,32768
273.8,1.22476e-07,0,32768,32768
273.851,1.50382e-07,0,32768,32768
273.901,1.84116e-07,0,32768,32768
273.951,2.24421e-07,0,32768,32768
274.001,2.70173e-07,0,32768,32768
274.051,3.19224e-07,0,32768,32768
274.1,3.69552e-07,0,32768,32768
274.15,4.20696e-07,0,32768,32768
274.2,4.73996e-07,0,32768,32768
274.251,5.32715e-07,0,32768,32768
274.301,5.92992e-07,0,32768,32768
274.351,6.53315e-07,0,32768,32768
274.401,7.09389e-07,0,32768,32768
274.45,7.57604e-07,0,32768,32768
274.5,7.95853e-07,0,32768,32768
274.55,8.23537e-07,0,32768,32768
274.601,8.41941e-07,0,32768,32768
274.651,8.52175e-07,0,32768,32768
274.701,8.57301e-07,0,32768,32768
274.751,8.58969e-07,0,32768,32768
274.801,8.57729e-07,0,32768,32768
274.85,8.53311e-07,0,32768,32768
274.9,8.44953e-07,0,32768,32768
274.951,8.31128e-07,0,32768,32768
275.001,8.11472e-07,0,32768,32768
275.051,7.84677e-07,0,32768,32768
275.101,7.50108e-07,0,32768,32768
275.151,7.0791e-07,0,32768,32768
275.2,6.59533e-07,0,32768,32768
275.25,6.07655e-07,0,32768,32768
275.301,5.53762e-07,0,32768,32768
275.351,5.03316e-07,0,32768,32768
275.401,4.56071e-07,0,32768,32768
275.451,4.12524e-07,0,32768,32768
275.501,3.72593e-07,0,32768,32768
275.55,3.358e-07,0,32768,32768
275.6,3.0149e-07,0,32768,32768
275.65,2.69043e-07,0,32768,32768
275.701,2.37174e-07,0,32768,32768
275.751,2.07862e-07,0,32768,32768
275.801,1.81193e-07,0,32768,32768
275.851,1.58738e-07,0,32768,32768
275.9,1.4146e-07,0,32768,32768
275.95,1.28515e-07,0,32768,32768
276,1.17406e-07,0,32768,32768
276.051,1.05314e-07,0,32768,32768
276.101,9.22811e-08,0,32768,32768
276.151,7.92912e-08,0,32768,32768
276.201,6.81944e-08,0,32768,32768
276.251,6.00126e-08,0,32768,32768
276.3,5.46004e-08,0,32768,32768
276.35,5.10283e-08,0,32768,32768
276.401,4.78844e-08,0,32768,32768
276.451,4.39966e-08,0,32768,32768
276.501,3.85972e-08,0,32768,32768
276.551,3.22216e-08,0,32768,32768
276.601,2.63845e-08,0,32768,32768
276.65,2.25091e-08,0,32768,32768
276.7,2.09465e-08,0,32768,32768
276.751,2.0972e-08,0,32768,32768
276.801,2.15115e-08,0,32768,32768
276.851,2.19171e-08,0,32768,32768
276.901,2.2088e-08,0,32768,32768
276.951,2.21624e-08,0,32768,32768
277,2.22484e-08,0,32768,32768
277.05,2.23521e-08,0,32768,32768
277.1,2.24065e-08,0,32768,32768
277.151,2.22631e-08,0,32768,32768
277.201,2.18502e-08,0,32768,32768
277.251,2.13831e-08,0,32768,32768
277.301,2.11033e-08,0,32768,32768
277.35,2.0986e-08,0,32768,32768
277.4,2.09152e-08,0,32768,32768
277.45,2.08355e-08,0,32768,32768
277.501,2.07293e-08,0,32768,32768
277.551,2.0598e-08,0,32768,32768
277.601,2.04365e-08,0,32768,32768
277.651,2.02432e-08,0,32768,32768
277.701,2.00164e-08,0,32768,32768
277.75,1.97549e-08,0,32768,32768
277.8,1.94572e-08,0,32768,32768
277.851,1.91118e-08,0,32768,32768
277.901,1.87389e-08,0,32768,32768
277.951,1.8331e-08,0,32768,32768
278.001,1.78922e-08,0,32768,32768
278.051,1.74277e-08,0,32768,32768
278.1,1.69432e-08,0,32768,32768
278.15,1.64444e-08,0,32768,32768
278.201,1.59212e-08,0,32768,32768
278.251,1.54072e-08,0,32768,32768
278.301,1.48908e-08,0,32768,32768
278.351,1.43744e-08,0,32768,32768
278.401,1.38603e-08,0,32768,32768
278.45,1.33513e-08,0,32768,32768
278.5,1.28505e-08,0,32768,32768
278.551,1.23475e-08,0,32768,32768
278.601,1.18755e-08,0,32768,32768
278.651,1.14242e-08,0,32768,32768
278.701,1.09981e-08,0,32768,32768
278.751,1.06007e-08,0,32768,32768
278.8,1.02343e-08,0,32768,32768
278.85,9.89993e-09,0,32768,32768
278.9,9.59715e-09,0,32768,32768
278.951,9.3171e-09,0,32768,32768
279.001,9.07386e-09,0,32768,32768
279.051,8.85694e-09,0,32768,32768
279.101,8.66444e-09,0,32768,32768
279.15,8.4947e-09,0,32768,32768
279.2,8.3463e-09,0,32768,32768
279.25,8.21798e-09,0,32768,32768
279.301,8.10534e-09,0,32768,32768
279.351,8.013e-09,0,32768,32768
279.401,7.93523e-09,0,32768,32768
279.451,7.86961e-09,0,32768,32768
279.501,7.81402e-09,0,32768,32768
279.55,7.76709e-09,0,32768,32768
279.6,7.72824e-09,0,32768,32768
279.651,7.69649e-09,0,32768,32768
279.701,7.67335e-09,0,32768,32768
279.751,7.65699e-09,0,32768,32768
279.801,7.64621e-09,0,32768,32768
279.851,7.63968e-09,0,32768,32768
279.9,7.63638e-09,0,32768,32768
279.95,7.63577e-09,0,32768,32768
280.001,7.63795e-09,0,32768,32768
280.051,7.64309e-09,0,32768,32768
280.101,7.65143e-09,0,32768,32768
280.151,7.66286e-09,0,32768,32768
280.201,7.67682e-09,0,32768,32768
280.25,7.69252e-09,0,32768,32768
280.3,7.70917e-09,0,32768,32768
280.35,7.72621e-09,0,32768,32768
280.401,7.74379e-09,0,32768,32768
280.451,7.76076e-09,0,32768,32768
280.501,7.7776e-09,0,32768,32768
280.551,7.79433e-09,0,32768,32768
280.6,7.81101e-09,0,32768,32768
280.65,7.82766e-09,0,32768,32768
280.7,7.84431e-09,0,32768,32768
280.751,7.86148e-09,0,32768,32768
280.801,7.87815e-09,0,32768,32768
280.851,7.89479e-09,0,32768,32768
280.901,7.91135e-09,0,32768,32768
280.951,7.92775e-09,0,32768,32768
281,7.94394e-09,0,32768,32768
281.05,7.95983e-09,0,32768,32768
281.101,7.97583e-09,0,32768,32768
281.151,7.99099e-09,0,32768,32768
281.201,8.00579e-09,0,32768,32768
281.251,8.02024e-09,0,32768,32768
281.301,8.03433e-09,0,32768,32768
281.35,8.04803e-09,0,32768,32768
281.4,8.06128e-09,0,32768,32768
281.451,8.07444e-09,0,32768,32768
281.501,8.0868e-09,0,32768,32768
281.551,8.09882e-09,0,32768,32768
281.601,8.11053e-09,0,32768,32768
281.651,8.12196e-09,0,32768,32768
281.7,8.1333e-09,0,32768,32768
281.75,8.14509e-09,0,32768,32768
281.8,8.15833e-09,0,32768,32768
281.851,8.17498e-09,0,32768,32768
281.901,8.19567e-09,0,32768,32768
281.951,8.22257e-09,0,32768,32768
282.001,8.25827e-09,0,32768,32768
282.05,8.30735e-09,0,32768,32768
282.1,8.37701e-09,0,32768,32768
282.15,8.4762e-09,0,32768,32768
282.201,8.61758e-09,0,32768,32768
282.251,8.79698e-09,0,32768,32768
282.301,9.01606e-09,0,32768,32768
282.351,9.26972e-09,0,32768,32768
282.401,9.55446e-09,0,32768,32768
282.45,9.87335e-09,0,32768,32768
282.5,1.02381e-08,0,32768,32768
282.551,1.06807e-08,0,32768,32768
282.601,1.11975e-08,0,32768,32768
282.651,1.182e-08,0,32768,32768
282.701,1.25668e-08,0,32768,32768
282.751,1.34563e-08,0,32768,32768
282.8,1.45082e-08,0,32768,32768
282.85,1.57423e-08,0,32768,32768
282.901,1.7222e-08,0,32768,32768
282.951,1.88768e-08,0,32768,32768
283.001,2.07549e-08,0,32768,32768
283.051,2.28621e-08,0,32768,32768
283.101,2.52023e-08,0,32768,32768
283.15,2.77765e-08,0,32768,32768
283.2,3.058e-08,0,32768,32768
283.251,3.36913e-08,0,32768,32768
283.301,3.69092e-08,0,32768,32768
283.351,4.02901e-08,0,32768,32768
283.401,4.38043e-08,0,32768,32768
283.451,4.7426e-08,0,32768,32768
283.5,5.11354e-08,0,32768,32768
283.55,5.49168e-08,0,32768,32768
283.6,5.87606e-08,0,32768,32768
283.651,6.2788e-08,0,32768,32768
283.701,6.68067e-08,0,32768,32768
283.751,7.10146e-08,0,32768,32768
283.801,7.55389e-08,0,32768,32768
283.85,8.05198e-08,0,32768,32768
283.9,8.60583e-08,0,32768,32768
283.95,9.21639e-08,0,32768,32768
284.001,9.89308e-08,0,32768,32768
284.051,1.05775e-07,0,32768,32768
284.101,1.12678e-07,0,32768,32768
284.151,1.19507e-07,0,32768,32768
284.201,1.26279e-07,0,32768,32768
284.25,1.33177e-07,0,32768,32768
284.3,1.40532e-07,0,32768,32768
284.351,1.49013e-07,0,32768,32768
284.401,1.5858e-07,0,32768,32768
284.451,1.69884e-07,0,32768,32768
284.501,1.83337e-07,0,32768,32768
284.551,1.99357e-07,0,32768,32768
284.6,2.18373e-07,0,32768,32768
284.65,2.40792e-07,0,32768,32768
284.701,2.6776e-07,0,32768,32768
284.751,2.97886e-07,0,32768,32768
284.801,3.31807e-07,0,32768,32768
284.851,3.69224e-07,0,32768,32768
284.901,4.09662e-07,0,32768,32768
284.95,4.52542e-07,0,32768,32768
285,4.97217e-07,0,32768,32768
285.05,5.42953e-07,0,32768,32768
285.101,5.90203e-07,0,32768,32768
285.151,6.35127e-07,0,32768,32768
285.201,6.77737e-07,0,32768,32768
285.251,7.16569e-07,0,32768,32768
285.3,7.50221e-07,0,32768,32768
285.35,7.77567e-07,0,32768,32768
285.4,7.97924e-07,0,32768,32768
285.451,8.11398e-07,0,32768,32768
285.501,8.17498e-07,0,32768,32768
285.551,8.17277e-07,0,32768,32768
285.601,8.11375e-07,0,32768,32768
285.651,8.00336e-07,0,32768,32768
285.7,7.84485e-07,0,32768,32768
285.75,7.63911e-07,0,32768,32768
285.801,7.37698e-07,0,32768,32768
285.851,7.07186e-07,0,32768,32768
285.901,6.7164e-07,0,32768,32768
285.951,6.31241e-07,0,32768,32768
286.001,5.86501e-07,0,32768,32768
286.05,5.38283e-07,0,32768,32768
286.1,4.87742e-07,0,32768,32768
286.151,4.34667e-07,0,32768,32768
286.201,3.83419e-07,0,32768,32768
286.251,3.33615e-07,0,32768,32768
286.301,2.86103e-07,0,32768,32768
286.351,2.41425e-07,0,32768,32768
286.4,1.9985e-07,0,32768,32768
286.45,1.61463e-07,0,32768,32768
286.501,1.25274e-07,0,32768,32768
286.551,9.3345e-08,0,32768,32768
286.601,6.46247e-08,0,32768,32768
286.651,3.91532e-08,0,32768,32768
286.701,1.69201e-08,0,32768,32768
286.75,-2.19988e-09,0,32768,32768
286.8,-1.84704e-08,0,32768,32768
286.85,-3.2256e-08,0,32768,32768
286.901,-4.42512e-08,0,32768,32768
286.951,-5.40799e-08,0,32768,32768
287.001,-6.22912e-08,0,32768,32768
287.051,-6.89602e-08,0,32768,32768
287.1,-7.41309e-08,0,32768,32768
287.15,-7.78935e-08,0,32768,32768
287.2,-8.04234e-08,0,32768,32768
287.251,-8.19947e-08,0,32768,32768
287.301,-8.27656e-08,0,32768,32768
287.351,-8.29629e-08,0,32768,32768
287.401,-8.26429e-08,0,32768,32768
287.451,-8.17632e-08,0,32768,32768
287.5,-8.02389e-08,0,32768,32768
287.55,-7.80124e-08,0,32768,32768
287.601,-7.50071e-08,0,32768,32768
287.651,-7.15036e-08,0,32768,32768
287.701,-6.75924e-08,0,32768,32768
287.751,-6.34587e-08,0,32768,32768
287.801,-5.92695e-08,0,32768,32768
287.85,-5.51541e-08,0,32768,32768
287.9,-5.12006e-08,0,32768,32768
287.951,-4.73555e-08,0,32768,32768
288.001,-4.38645e-08,0,32768,32768
288.051,-4.06192e-08,0,32768,32768
288.101,-3.76107e-08,0,32768,32768
288.151,-3.48226e-08,0,32768,32768
288.2,-3.22375e-08,0,32768,32768
288.25,-2.98411e-08,0,32768,32768
288.3,-2.76239e-08,0,32768,32768
288.351,-2.55228e-08,0,32768,32768
288.401,-2.36534e-08,0,32768,32768
288.451,-2.19486e-08,0,32768,32768
288.501,-2.04025e-08,0,32768,32768
288.55,-1.90073e-08,0,32768,32768
288.6,-1.77541e-08,0,32768,32768
288.65,-1.66328e-08,0,32768,32768
288.701,-1.56053e-08,0,32768,32768
288.751,-1.47191e-08,0,32768,32768
288.801,-1.39326e-08,0,32768,32768
288.851,-1.32358e-08,0,32768,32768
288.901,-1.26199e-08,0,32768,32768
288.95,-1.20777e-08,0,32768,32768
289,-1.16032e-08,0,32768,32768
289.051,-1.11808e-08,0,32768,32768
289.101,-1.08305e-08,0,32768,32768
289.151,-1.05357e-08,0,32768,32768
289.201,-1.0293e-08,0,32768,32768
289.251,-1.00988e-08,0,32768,32768
289.3,-9.94911e-09,0,32768,32768
289.35,-9.84025e-09,0,32768,32768
289.401,-9.76667e-09,0,32768,32768
289.451,-9.72839e-09,0,32768,32768
289.501,-9.71854e-09,0,32768,32768
289.551,-9.73263e-09,0,32768,32768
289.601,-9.76601e-09,0,32768,32768
289.65,-9.81407e-09,0,32768,32768
289.7,-9.87244e-09,0,32768,32768
289.751,-9.93912e-09,0,32768,32768
289.801,-1.00068e-08,0,32768,32768
289.851,-1.00747e-08,0,32768,32768
289.901,-1.01408e-08,0,32768,32768
289.951,-1.02035e-08,0,32768,32768
290,-1.02622e-08,0,32768,32768
290.05,-1.03163e-08,0,32768,32768
290.1,-1.03658e-08,0,32768,32768
290.151,-1.0412e-08,0,32768,32768
290.201,-1.04525e-08,0,32768,32768
290.251,-1.04891e-08,0,32768,32768
290.301,-1.05223e-08,0,32768,32768
290.35,-1.05529e-08,0,32768,32768
290.4,-1.05816e-08,0,32768,32768
290.45,-1.06092e-08,0,32768,32768
290.501,-1.06371e-08,0,32768,32768
290.551,-1.0664e-08,0,32768,32768
290.601,-1.06907e-08,0,32768,32768
290.651,-1.0717e-08,0,32768,32768
290.701,-1.07426e-08,0,32768,32768
290.75,-1.07675e-08,0,32768,32768
290.8,-1.07915e-08,0,32768,32768
290.851,-1.08155e-08,0,32768,32768
290.901,-1.08383e-08,0,32768,32768
290.951,-1.08609e-08,0,32768,32768
291.001,-1.08837e-08,0,32768,32768
291.051,-1.09075e-08,0,32768,32768
291.1,-1.09332e-08,0,32768,32768
291.15,-1.09619e-08,0,32768,32768
291.201,-1.09961e-08,0,32768,32768
291.251,-1.10351e-08,0,32768,32768
291.301,-1.10809e-08,0,32768,32768
291.351,-1.11344e-08,0,32768,32768
291.401,-1.11966e-08,0,32768,32768
291.45,-1.12682e-08,0,32768,32768
291.5,-1.13501e-08,0,32768,32768
291.55,-1.14433e-08,0,32768,32768
291.601,-1.15519e-08,0,32768,32768
291.651,-1.16701e-08,0,32768,32768
291.701,-1.18007e-08,0,32768,32768
291.751,-1.19431e-08,0,32768,32768
291.8,-1.20965e-08,0,32768,32768
291.85,-1.22602e-08,0,32768,32768
291.9,-1.24338e-08,0,32768,32768
291.951,-1.26234e-08,0,32768,32768
292.001,-1.28195e-08,0,32768,32768
292.051,-1.30294e-08,0,32768,32768
292.101,-1.32556e-08,0,32768,32768
292.151,-1.35004e-08,0,32768,32768
292.2,-1.37659e-08,0,32768,32768
292.25,-1.40534e-08,0,32768,32768
292.301,-1.43728e-08,0,32768,32768
292.351,-1.47054e-08,0,32768,32768
292.401,-1.50586e-08,0,32768,32768
292.451,-1.54306e-08,0,32768,32768
292.501,-1.58191e-08,0,32768,32768
292.55,-1.62218e-08,0,32768,32768
292.6,-1.66363e-08,0,32768,32768
292.651,-1.70727e-08,0,32768,32768
292.701,-1.75033e-08,0,32768,32768
292.751,-1.79378e-08,0,32768,32768
292.801,-1.83731e-08,0,32768,32768
292.851,-1.88059e-08,0,32768,32768
292.9,-1.92328e-08,0,32768,32768
292.95,-1.96501e-08,0,32768,32768
293,-2.00546e-08,0,32768,32768
293.051,-2.04543e-08,0,32768,32768
293.101,-2.08236e-08,0,32768,32768
293.151,-2.11715e-08,0,32768,32768
293.201,-2.14958e-08,0,32768,32768
293.25,-2.17943e-08,0,32768,32768
293.3,-2.20645e-08,0,32768,32768
293.35,-2.23045e-08,0,32768,32768
293.401,-2.25181e-08,0,32768,32768
293.451,-2.2692e-08,0,32768,32768
293.501,-2.28326e-08,0,32768,32768
293.551,-2.29403e-08,0,32768,32768
293.601,-2.30162e-08,0,32768,32768
293.65,-2.30619e-08,0,32768,32768
293.7,-2.30792e-08,0,32768,32768
293.751,-2.30693e-08,0,32768,32768
293.801,-2.30348e-08,0,32768,32768
293.851,-2.2978e-08,0,32768,32768
293.901,-2.2901e-08,0,32768,32768
293.951,-2.28064e-08,0,32768,32768
294,-2.26968e-08,0,32768,32768
294.05,-2.25747e-08,0,32768,32768
294.101,-2.24383e-08,0,32768,32768
294.151,-2.22976e-08,0,32768,32768
294.201,-2.21507e-08,0,32768,32768
294.251,-2.1999e-08,0,32768,32768
294.301,-2.1844e-08,0,32768,32768
294.35,-2.16867e-08,0,32768,32768
294.4,-2.15283e-08,0,32768,32768
294.451,-2.1365e-08,0,32768,32768
294.501,-2.12072e-08,0,32768,32768
294.551,-2.10509e-08,0,32768,32768
294.601,-2.08968e-08,0,32768,32768
294.651,-2.07456e-08,0,32768,32768
294.7,-2.05977e-08,0,32768,32768
294.75,-2.04537e-08,0,32768,32768
294.8,-2.03138e-08,0,32768,32768
294.851,-2.01746e-08,0,32768,32768
294.901,-2.00441e-08,0,32768,32768
294.951,-1.99188e-08,0,32768,32768
295.001,-1.97985e-08,0,32768,32768
295.05,-1.96836e-08,0,32768,32768
295.1,-1.95739e-08,0,32768,32768
295.15,-1.94694e-08,0,32768,32768
295.201,-1.9367e-08,0,32768,32768
295.251,-1.92723e-08,0,32768,32768
295.301,-1.91822e-08,0,32768,32768
295.351,-1.90961e-08,0,32768,32768
295.401,-1.90139e-08,0,32768,32768
295.45,-1.89352e-08,0,32768,32768
295.5,-1.88596e-08,0,32768,32768
295.551,-1.87846e-08,0,32768,32768
295.601,-1.87143e-08,0,32768,32768
295.651,-1.86462e-08,0,32768,32768
295.701,-1.85799e-08,0,32768,32768
295.751,-1.85151e-08,0,32768,32768
295.8,-1.84517e-08,0,32768,32768
295.85,-1.83893e-08,0,32768,32768
295.901,-1.83259e-08,0,32768,32768
295.951,-1.82649e-08,0,32768,32768
296.001,-1.82043e-08,0,32768,32768
296.051,-1.81439e-08,0,32768,32768
296.101,-1.80835e-08,0,32768,32768
296.15,-1.80229e-08,0,32768,32768
296.2,-1.79621e-08,0,32768,32768
296.25,-1.79009e-08,0,32768,32768
296.301,-1.78373e-08,0,32768,32768
296.351,-1.77748e-08,0,32768,32768
296.401,-1.77116e-08,0,32768,32768
296.451,-1.76474e-08,0,32768,32768
296.5,-1.75822e-08,0,32768,32768
296.55,-1.75158e-08,0,32768,32768
296.6,-1.74481e-08,0,32768,32768
296.651,-1.73768e-08,0,32768,32768
296.701,-1.73059e-08,0,32768,32768
296.751,-1.7233e-08,0,32768,32768
296.801,-1.7158e-08,0,32768,32768
296.851,-1.70807e-08,0,32768,32768
296.9,-1.70008e-08,0,32768,32768
296.95,-1.6918e-08,0,32768,32768
297.001,-1.68294e-08,0,32768,32768
297.051,-1.67399e-08,0,32768,32768
297.101,-1.66468e-08,0,32768,32768
297.151,-1.65497e-08,0,32768,32768
297.201,-1.64483e-08,0,32768,32768
297.25,-1.63426e-08,0,32768,32768
297.3,-1.62322e-08,0,32768,32768
297.351,-1.61136e-08,0,32768,32768
297.401,-1.59934e-08,0,32768,32768
297.451,-1.58681e-08,0,32768,32768
297.501,-1.57377e-08,0,32768,32768
297.551,-1.56021e-08,0,32768,32768
297.6,-1.54612e-08,0,32768,32768
297.65,-1.5315e-08,0,32768,32768
297.701,-1.51589e-08,0,32768,32768
297.751,-1.50018e-08,0,32768,32768
297.801,-1.48392e-08,0,32768,32768
297.851,-1.46709e-08,0,32768,32768
297.901,-1.44968e-08,0,32768,32768
297.95,-1.4317e-08,0,32768,32768
298,-1.41312e-08,0,32768,32768
298.05,-1.39395e-08,0,32768,32768
298.101,-1.37359e-08,0,32768,32768
298.151,-1.35321e-08,0,32768,32768
298.201,-1.33222e-08,0,32768,32768
298.251,-1.3106e-08,0,32768,32768
298.3,-1.28832e-08,0,32768,32768
298.35,-1.26533e-08,0,32768,32768
298.4,-1.24156e-08,0,32768,32768
298.451,-1.21617e-08,0,32768,32768
298.501,-1.19048e-08,0,32768,32768
298.551,-1.16364e-08,0,32768,32768
298.601,-1.13547e-08,0,32768,32768
298.651,-1.10577e-08,0,32768,32768
298.7,-1.07435e-08,0,32768,32768
298.75,-1.04101e-08,0,32768,32768
298.801,-1.00446e-08,0,32768,32768
298.851,-9.66598e-09,0,32768,32768
298.901,-9.26267e-09,0,32768,32768
298.951,-8.83343e-09,0,32768,32768
299.001,-8.37753e-09,0,32768,32768
299.05,-7.89483e-09,0,32768,32768
299.1,-7.38582e-09,0,32768,32768
299.151,-6.83561e-09,0,32768,32768
299.201,-6.27764e-09,0,32768,32768
299.251,-5.69922e-09,0,32768,32768
299.301,-5.10367e-09,0,32768,32768
299.351,-4.4949e-09,0,32768,32768
299.4,-3.87719e-09,0,32768,32768
299.45,-3.25511e-09,0,32768,32768
299.5,-2.63333e-09,0,32768,32768
299.551,-1.99842e-09,0,32768,32768
299.601,-1.39123e-09,0,32768,32768
299.651,-7.97791e-10,0,32768,32768
299.701,-2.22104e-10,0,32768,32768
299.75,3.32051e-10,0,32768,32768
299.8,8.61132e-10,0,32768,32768
299.85,1.36184e-09,0,32768,32768
299.901,1.84445e-09,0,32768,32768
299.951,2.27866e-09,0,32768,32768
300.001,2.67646e-09,0,32768,32768
300.051,3.03613e-09,0,32768,32768
300.101,3.35652e-09,0,32768,32768
300.15,3.63713e-09,0,32768,32768
300.2,3.87811e-09,0,32768,32768
300.251,4.08563e-09,0,32768,32768
300.301,4.24923e-09,0,32768,32768
300.351,4.37723e-09,0,32768,32768
300.401,4.47186e-09,0,32768,32768
300.451,4.5356e-09,0,32768,32768
300.5,4.57109e-09,0,32768,32768
300.55,4.58108e-09,0,32768,32768
300.601,4.56766e-09,0,32768,32768
300.651,4.53443e-09,0,32768,32768
300.701,4.48399e-09,0,32768,32768
300.751,4.41896e-09,0,32768,32768
300.801,4.34177e-09,0,32768,32768
300.85,4.25473e-09,0,32768,32768
300.9,4.15995e-09,0,32768,32768
300.95,4.05934e-09,0,32768,32768
301.001,3.95148e-09,0,32768,32768
301.051,3.84408e-09,0,32768,32768
301.101,3.73544e-09,0,32768,32768
301.151,3.62668e-09,0,32768,32768
301.2,3.51882e-09,0,32768,32768
301.25,3.41272e-09,0,32768,32768
301.3,3.30922e-09,0,32768,32768
301.351,3.20621e-09,0,32768,32768
301.401,3.11037e-09,0,32768,32768
301.451,3.01946e-09,0,32768,32768
301.501,2.93421e-09,0,32768,32768
301.551,2.8553e-09,0,32768,32768
301.6,2.7833e-09,0,32768,32768
301.65,2.71863e-09,0,32768,32768
301.701,2.65999e-09,0,32768,32768
301.751,2.61082e-09,0,32768,32768
301.801,2.56917e-09,0,32768,32768
301.851,2.5347e-09,0,32768,32768
301.901,2.50686e-09,0,32768,32768
301.95,2.48493e-09,0,32768,32768
302,2.46803e-09,0,32768,32768
302.051,2.45486e-09,0,32768,32768
302.101,2.44511e-09,0,32768,32768
302.151,2.43726e-09,0,32768,32768
302.201,2.43027e-09,0,32768,32768
302.251,2.42313e-09,0,32768,32768
302.3,2.4149e-09,0,32768,32768
302.35,2.40478e-09,0,32768,32768
302.401,2.39175e-09,0,32768,32768
302.451,2.37614e-09,0,32768,32768
302.501,2.35754e-09,0,32768,32768
302.551,2.33616e-09,0,32768,32768
302.601,2.31248e-09,0,32768,32768
302.65,2.28719e-09,0,32768,32768
302.7,2.26109e-09,0,32768,32768
302.75,2.23495e-09,0,32768,32768
302.801,2.20867e-09,0,32768,32768
302.851,2.18422e-09,0,32768,32768
302.901,2.16105e-09,0,32768,32768
302.951,2.13923e-09,0,32768,32768
303,2.11876e-09,0,32768,32768
303.05,2.09964e-09,0,32768,32768
303.1,2.08197e-09,0,32768,32768
303.151,2.06555e-09,0,32768,32768
303.201,2.05175e-09,0,32768,32768
303.251,2.04055e-09,0,32768,32768
303.301,2.03245e-09,0,32768,32768
303.351,2.02787e-09,0,32768,32768
303.4,2.02703e-09,0,32768,32768
303.45,2.02993e-09,0,32768,32768
303.501,2.03658e-09,0,32768,32768
303.551,2.04614e-09,0,32768,32768
303.601,2.05816e-09,0,32768,32768
303.651,2.07201e-09,0,32768,32768
303.701,2.08705e-09,0,32768,32768
303.75,2.10271e-09,0,32768,32768
303.8,2.11852e-09,0,32768,32768
303.851,2.13453e-09,0,32768,32768
303.901,2.14949e-09,0,32768,32768
303.951,2.16361e-09,0,32768,32768
304.001,2.17666e-09,0,32768,32768
304.051,2.1885e-09,0,32768,32768
304.1,2.19901e-09,0,32768,32768
304.15,2.20815e-09,0,32768,32768
304.2,2.21594e-09,0,32768,32768
304.251,2.2226e-09,0,32768,32768
304.301,2.22782e-09,0,32768,32768
304.351,2.23188e-09,0,32768,32768
304.401,2.23485e-09,0,32768,32768
304.45,2.2368e-09,0,32768,32768
304.5,2.23779e-09,0,32768,32768
304.55,2.23789e-09,0,32768,32768
304.601,2.23715e-09,0,32768,32768
304.651,2.23572e-09,0,32768,32768
304.701,2.23365e-09,0,32768,32768
304.751,2.23099e-09,0,32768,32768
304.801,2.22776e-09,0,32768,32768
304.85,2.22392e-09,0,32768,32768
304.9,2.21945e-09,0,32768,32768
304.951,2.21413e-09,0,32768,32768
