250,0,0,2048,2048
250.006,0,0,2048,2048
250.053,0,0,2048,2048
250.105,0,0,2048,2048
250.152,0,0,2048,2048
250.205,0,0,2048,2048
250.252,0,0,2048,2048
250.305,0,0,2048,2048
250.352,0,0,2048,2048
250.404,0,0,2048,2048
250.451,0,0,2048,2048
250.504,0,0,2048,2048
250.551,0,0,2048,2048
250.603,0,0,2048,2048
250.65,0,0,2048,2048
250.703,0,0,2048,2048
250.756,0,0,2048,2048
250.803,0,0,2048,2048
250.855,0,0,2048,2048
250.902,0,0,2048,2048
250.955,0,0,2048,2048
251.002,0,0,2048,2048
251.055,0,0,2048,2048
251.101,0,0,2048,2048
251.154,0,0,2048,2048
251.201,0,0,2048,2048
251.254,0,0,2048,2048
251.301,0,0,2048,2048
251.353,0,0,2048,2048
251.4,0,0,2048,2048
251.453,0,0,2048,2048
251.506,0,0,2048,2048
251.553,0,0,2048,2048
251.605,0,0,2048,2048
251.652,0,0,2048,2048
251.705,0,0,2048,2048
251.752,0,0,2048,2048
251.804,0,0,2048,2048
251.851,0,0,2048,2048
251.904,0,0,2048,2048
251.951,0,0,2048,2048
252.004,0,0,2048,2048
252.05,0,0,2048,2048
252.103,0,0,2048,2048
252.15,0,0,2048,2048
252.203,0,0,2048,2048
252.256,0,0,2048,2048
252.302,0,0,2048,2048
252.355,0,0,2048,2048
252.402,0,0,2048,2048
252.455,0,0,2048,2048
252.502,0,0,2048,2048
252.554,0,0,2048,2048
252.601,0,0,2048,2048
252.654,0,0,2048,2048
252.701,0,0,2048,2048
252.754,0,0,2048,2048
252.8,0,0,2048,2048
252.853,0,0,2048,2048
252.906,0,0,2048,2048
252.953,0,0,2048,2048
253.005,0,0,2048,2048
253.052,0,0,2048,2048
253.105,0,0,2048,2048
253.152,0,0,2048,2048
253.205,0,0,2048,2048
253.251,0,0,2048,2048
253.304,0,0,2048,2048
253.351,0,0,2048,2048
253.404,0,0,2048,2048
253.451,0,0,2048,2048
253.503,0,0,2048,2048
253.55,0,0,2048,2048
253.603,0,0,2048,2048
253.656,0,0,2048,2048
253.703,0,0,2048,2048
253.755,0,0,2048,2048
253.802,0,0,2048,2048
253.855,0,0,2048,2048
253.902,0,0,2048,2048
253.954,0,0,2048,2048
254.001,0,0,2048,2048
254.054,0,0,2048,2048
254.101,0,0,2048,2048
254.154,0,0,2048,2048
254.201,0,0,2048,2048
254.253,0,0,2048,2048
254.3,0,0,2048,2048
254.353,0,0,2048,2048
254.406,0,0,2048,2048
254.452,0,0,2048,2048
254.505,0,0,2048,2048
254.552,0,0,2048,2048
254.605,0,0,2048,2048
254.652,0,0,2048,2048
254.704,0,0,2048,2048
254.751,0,0,2048,2048
254.804,0,0,2048,2048
254.851,0,0,2048,2048
254.904,0,0,2048,2048
254.95,0,0,2048,2048
255.003,0,0,2048,2048
255.05,0,0,2048,2048
255.103,0,0,2048,2048
255.155,0,0,2048,2048
255.202,0,0,2048,2048
255.255,0,0,2048,2048
255.302,0,0,2048,2048
255.355,0,0,2048,2048
255.402,0,0,2048,2048
255.454,0,0,2048,2048
255.501,0,0,2048,2048
255.554,0,0,2048,2048
255.601,0,0,2048,2048
255.653,0,0,2048,2048
255.7,0,0,2048,2048
255.753,0,0,2048,2048
255.806,0,0,2048,2048
255.853,0,0,2048,2048
255.905,0,0,2048,2048
255.952,0,0,2048,2048
256.005,0,0,2048,2048
256.052,0,0,2048,2048
256.105,0,0,2048,2048
256.151,0,0,2048,2048
256.204,0,0,2048,2048
256.251,0,0,2048,2048
256.304,0,0,2048,2048
256.351,0,0,2048,2048
256.403,0,0,2048,2048
256.45,0,0,2048,2048
256.503,0,0,2048,2048
256.556,0,0,2048,2048
256.603,0,0,2048,2048
256.655,0,0,2048,2048
256.702,0,0,2048,2048
256.755,0,0,2048,2048
256.802,0,0,2048,2048
256.854,-1.38778e-17,0,2048,2048
256.901,-1.38778e-17,0,2048,2048
256.954,-1.38778e-17,0,2048,2048
257.001,0,0,2048,2048
257.054,0,0,2048,2048
257.101,0,0,2048,2048
257.153,0,0,2048,2048
257.2,0,0,2048,2048
257.253,0,0,2048,2048
257.306,0,0,2048,2048
257.352,0,0,2048,2048
257.405,0,0,2048,2048
257.452,0,0,2048,2048
257.505,0,0,2048,2048
257.552,0,0,2048,2048
257.604,0,0,2048,2048
257.651,0,0,2048,2048
257.704,0,0,2048,2048
257.751,0,0,2048,2048
257.804,0,0,2048,2048
257.85,0,0,2048,2048
257.903,0,0,2048,2048
257.95,0,0,2048,2048
258.003,0,0,2048,2048
258.055,0,0,2048,2048
258.102,0,0,2048,2048
258.155,-1.38778e-17,0,2048,2048
258.202,-1.38778e-17,0,2048,2048
258.255,-1.38778e-17,0,2048,2048
258.302,-1.38778e-17,0,2048,2048
258.354,-1.38778e-17,0,2048,2048
258.401,-1.38778e-17,0,2048,2048
258.454,-1.38778e-17,0,2048,2048
258.501,-1.38778e-17,0,2048,2048
258.553,-1.38778e-17,0,2048,2048
258.6,-1.38778e-17,0,2048,2048
258.653,-1.38778e-17,0,2048,2048
258.706,-1.38778e-17,0,2048,2048
258.753,-1.38778e-17,0,2048,2048
258.805,-1.38778e-17,0,2048,2048
258.852,-1.38778e-17,0,2048,2048
258.905,-1.38778e-17,0,2048,2048
258.952,-1.38778e-17,0,2048,2048
259.005,-1.38778e-17,0,2048,2048
259.051,-2.77556e-17,0,2048,2048
259.104,-2.77556e-17,0,2048,2048
259.151,-2.77556e-17,0,2048,2048
259.204,-2.77556e-17,0,2048,2048
259.251,-2.77556e-17,0,2048,2048
259.303,-2.77556e-17,0,2048,2048
259.35,-2.77556e-17,0,2048,2048
259.403,-2.77556e-17,0,2048,2048
259.456,-2.77556e-17,0,2048,2048
259.503,-2.77556e-17,0,2048,2048
259.555,-2.77556e-17,0,2048,2048
259.602,-2.77556e-17,0,2048,2048
259.655,-2.77556e-17,0,2048,2048
259.702,-1.38778e-17,0,2048,2048
259.754,-1.38778e-17,0,2048,2048
259.801,-1.38778e-17,0,2048,2048
259.854,-1.38778e-17,0,2048,2048
259.901,-1.38778e-17,0,2048,2048
259.954,-1.38778e-17,0,2048,2048
260,-1.38778e-17,0,2048,2048
260.053,-1.38778e-17,0,2048,2048
260.1,-1.38778e-17,0,2048,2048
260.153,-1.38778e-17,0,2048,2048
260.206,-1.38778e-17,0,2048,2048
260.252,-1.38778e-17,0,2048,2048
260.305,-1.38778e-17,0,2048,2048
260.352,-1.38778e-17,0,2048,2048
260.405,-1.38778e-17,0,2048,2048
260.452,-1.38778e-17,0,2048,2048
260.504,-1.38778e-17,0,2048,2048
260.551,-1.38778e-17,0,2048,2048
260.604,-1.38778e-17,0,2048,2048
260.651,-1.38778e-17,0,2048,2048
260.704,-1.38778e-17,0,2048,2048
260.75,-1.38778e-17,0,2048,2048
260.803,-1.38778e-17,0,2048,2048
260.856,-1.38778e-17,0,2048,2048
260.903,-1.38778e-17,0,2048,2048
260.955,-1.38778e-17,0,2048,2048
261.002,-1.38778e-17,0,2048,2048
261.055,-1.38778e-17,0,2048,2048
261.102,-1.38778e-17,0,2048,2048
261.155,-1.38778e-17,0,2048,2048
261.201,-1.38778e-17,0,2048,2048
261.254,-1.38778e-17,0,2048,2048
261.301,-1.38778e-17,0,2048,2048
261.354,-1.38778e-17,0,2048,2048
261.401,-1.38778e-17,0,2048,2048
261.453,0,0,2048,2048
261.5,0,0,2048,2048
261.553,0,0,2048,2048
261.606,0,0,2048,2048
261.653,0,0,2048,2048
261.705,0,0,2048,2048
261.752,0,0,2048,2048
261.805,0,0,2048,2048
261.852,0,0,2048,2048
261.905,0,0,2048,2048
261.951,0,0,2048,2048
262.004,0,0,2048,2048
262.051,0,0,2048,2048
262.104,0,0,2048,2048
262.151,-1.38778e-17,0,2048,2048
262.203,-1.38778e-17,0,2048,2048
262.25,-1.38778e-17,0,2048,2048
262.303,-1.38778e-17,0,2048,2048
262.356,-1.38778e-17,0,2048,2048
262.402,-1.38778e-17,0,2048,2048
262.455,-1.38778e-17,0,2048,2048
262.502,-1.38778e-17,0,2048,2048
262.555,-1.38778e-17,0,2048,2048
262.602,-1.38778e-17,0,2048,2048
262.654,-1.38778e-17,0,2048,2048
262.701,-1.38778e-17,0,2048,2048
262.754,-1.38778e-17,0,2048,2048
262.801,-1.38778e-17,0,2048,2048
262.854,-1.38778e-17,0,2048,2048
262.9,-1.38778e-17,0,2048,2048
262.953,-1.38778e-17,0,2048,2048
263,-1.38778e-17,0,2048,2048
263.053,-1.38778e-17,0,2048,2048
263.105,-2.77556e-17,0,2048,2048
263.152,-2.77556e-17,0,2048,2048
263.205,-2.77556e-17,0,2048,2048
263.252,-2.77556e-17,0,2048,2048
263.305,-2.77556e-17,0,2048,2048
263.352,-2.77556e-17,0,2048,2048
263.404,-2.77556e-17,0,2048,2048
263.451,-2.77556e-17,0,2048,2048
263.504,-2.77556e-17,0,2048,2048
263.551,-2.77556e-17,0,2048,2048
263.603,-2.77556e-17,0,2048,2048
263.65,-2.77556e-17,0,2048,2048
263.703,-2.77556e-17,0,2048,2048
263.756,-2.77556e-17,0,2048,2048
263.803,-2.77556e-17,0,2048,2048
263.855,-2.77556e-17,0,2048,2048
263.902,-2.77556e-17,0,2048,2048
263.955,-2.77556e-17,0,2048,2048
264.002,-2.77556e-17,0,2048,2048
264.055,-2.77556e-17,0,2048,2048
264.101,-2.77556e-17,0,2048,2048
264.154,-2.77556e-17,0,2048,2048
264.201,-2.77556e-17,0,2048,2048
264.254,-2.77556e-17,0,2048,2048
264.301,-2.77556e-17,0,2048,2048
264.353,-2.77556e-17,0,2048,2048
264.4,-2.77556e-17,0,2048,2048
264.453,-2.77556e-17,0,2048,2048
264.506,-2.77556e-17,0,2048,2048
264.553,-2.77556e-17,0,2048,2048
264.605,-2.77556e-17,0,2048,2048
264.652,-2.77556e-17,0,2048,2048
264.705,-2.77556e-17,0,2048,2048
264.752,-2.77556e-17,0,2048,2048
264.804,-2.77556e-17,0,2048,2048
264.851,-2.77556e-17,0,2048,2048
264.904,-2.77556e-17,0,2048,2048
264.951,-2.77556e-17,0,2048,2048
265.004,-2.77556e-17,0,2048,2048
265.051,-2.77556e-17,0,2048,2048
265.103,-2.77556e-17,0,2048,2048
265.15,-2.77556e-17,0,2048,2048
265.203,-2.77556e-17,0,2048,2048
265.256,-2.77556e-17,0,2048,2048
265.302,-2.77556e-17,0,2048,2048
265.355,-2.77556e-17,0,2048,2048
265.402,-2.77556e-17,0,2048,2048
265.455,-2.77556e-17,0,2048,2048
265.502,-2.77556e-17,0,2048,2048
265.554,-2.77556e-17,0,2048,2048
265.601,-2.77556e-17,0,2048,2048
265.654,-2.77556e-17,0,2048,2048
265.701,-2.77556e-17,0,2048,2048
265.754,-2.77556e-17,0,2048,2048
265.8,-2.77556e-17,0,2048,2048
265.853,-2.77556e-17,0,2048,2048
265.9,-2.77556e-17,0,2048,2048
265.953,-2.77556e-17,0,2048,2048
266.005,-2.77556e-17,0,2048,2048
266.052,-2.77556e-17,0,2048,2048
266.105,-2.77556e-17,0,2048,2048
266.152,-2.77556e-17,0,2048,2048
266.205,-2.77556e-17,0,2048,2048
266.252,-2.77556e-17,0,2048,2048
266.304,-2.77556e-17,0,2048,2048
266.351,-2.77556e-17,0,2048,2048
266.404,-2.77556e-17,0,2048,2048
266.451,-2.77556e-17,0,2048,2048
266.503,-2.77556e-17,0,2048,2048
266.55,-2.77556e-17,0,2048,2048
266.603,-2.77556e-17,0,2048,2048
266.656,-2.77556e-17,0,2048,2048
266.703,-2.77556e-17,0,2048,2048
266.755,-2.77556e-17,0,2048,2048
266.802,-2.77556e-17,0,2048,2048
266.855,-2.77556e-17,0,2048,2048
266.902,-2.77556e-17,0,2048,2048
266.955,-2.77556e-17,0,2048,2048
267.001,-2.77556e-17,0,2048,2048
267.054,-2.77556e-17,0,2048,2048
267.101,-2.77556e-17,0,2048,2048
267.154,-2.77556e-17,0,2048,2048
267.201,-1.38778e-17,0,2048,2048
267.253,-1.38778e-17,0,2048,2048
267.3,-1.38778e-17,0,2048,2048
267.353,-1.38778e-17,0,2048,2048
267.406,-1.38778e-17,0,2048,2048
267.453,-1.38778e-17,0,2048,2048
267.505,-1.38778e-17,0,2048,2048
267.552,-1.38778e-17,0,2048,2048
267.605,-1.38778e-17,0,2048,2048
267.652,-1.38778e-17,0,2048,2048
267.704,-1.38778e-17,0,2048,2048
267.751,-1.38778e-17,0,2048,2048
267.804,-1.38778e-17,0,2048,2048
267.851,-1.38778e-17,0,2048,2048
267.904,-1.38778e-17,0,2048,2048
267.95,-1.38778e-17,0,2048,2048
268.003,-2.77556e-17,0,2048,2048
268.05,-2.77556e-17,0,2048,2048
268.103,-2.77556e-17,0,2048,2048
268.156,-2.77556e-17,0,2048,2048
268.202,-2.77556e-17,0,2048,2048
268.255,-2.77556e-17,0,2048,2048
268.302,-2.77556e-17,0,2048,2048
268.355,-2.77556e-17,0,2048,2048
268.402,-2.77556e-17,0,2048,2048
268.454,-2.77556e-17,0,2048,2048
268.501,-2.77556e-17,0,2048,2048
268.554,-2.77556e-17,0,2048,2048
268.601,-2.77556e-17,0,2048,2048
268.654,-2.77556e-17,0,2048,2048
268.7,-2.77556e-17,0,2048,2048
268.753,-2.77556e-17,0,2048,2048
268.806,-2.77556e-17,0,2048,2048
268.853,-2.77556e-17,0,2048,2048
268.905,-2.77556e-17,0,2048,2048
268.952,-2.77556e-17,0,2048,2048
269.005,-2.77556e-17,0,2048,2048
269.052,-2.77556e-17,0,2048,2048
269.105,-2.77556e-17,0,2048,2048
269.151,-2.77556e-17,0,2048,2048
269.204,-2.77556e-17,0,2048,2048
269.251,-2.77556e-17,0,2048,2048
269.304,-2.77556e-17,0,2048,2048
269.351,-2.77556e-17,0,2048,2048
269.403,-1.38778e-17,0,2048,2048
269.45,-1.38778e-17,0,2048,2048
269.503,-1.38778e-17,0,2048,2048
269.556,-1.38778e-17,0,2048,2048
269.603,-1.38778e-17,0,2048,2048
269.655,-1.38778e-17,0,2048,2048
269.702,-1.38778e-17,0,2048,2048
269.755,-1.38778e-17,0,2048,2048
269.802,-1.38778e-17,0,2048,2048
269.855,-1.38778e-17,0,2048,2048
269.901,-1.38778e-17,0,2048,2048
269.954,-1.38778e-17,0,2050,2050
270.002,-1.38778e-17,0,2098,2098
270.052,-1.38778e-17,0,2134,2134
270.102,-1.38778e-17,0,2170,2170
270.152,-1.38778e-17,0,2218,2218
270.201,-1.38778e-17,0,2254,2254
270.251,-1.38778e-17,0,2302,2302
270.301,-1.38778e-17,0,2338,2338
270.351,-1.38778e-17,0,2386,2386
270.401,-1.38778e-17,0,2422,2422
270.45,-1.38778e-17,0,2458,2458
270.5,-1.38778e-17,0,2506,2506
270.553,-1.38778e-17,0,2554,2554
270.603,-1.38778e-17,0,2590,2590
270.652,-1.38778e-17,0,2638,2638
270.702,-1.38778e-17,0,2674,2674
270.752,-1.38778e-17,0,2722,2722
270.802,-1.38778e-17,0,2758,2758
270.852,-1.38778e-17,0,2794,2794
270.901,-1.38778e-17,0,2842,2842
270.951,-1.38778e-17,0,2878,2878
271.001,-1.38778e-17,0,2926,2926
271.051,-1.38778e-17,0,2962,2962
271.101,-1.38778e-17,0,3010,3010
271.15,-1.38778e-17,0,3046,3046
271.2,-1.38778e-17,0,3094,3094
271.25,-1.38778e-17,0,3130,3130
271.303,-1.38778e-17,0,3178,3178
271.353,-1.38778e-17,0,3226,3226
271.402,-1.38778e-17,0,3262,3262
271.452,-1.38778e-17,0,3310,3310
271.502,-1.38778e-17,0,3346,3346
271.552,-1.38778e-17,0,3394,3394
271.602,-1.38778e-17,0,3430,3430
271.651,-1.38778e-17,0,3478,3478
271.701,-1.38778e-17,0,3514,3514
271.751,-1.38778e-17,0,3562,3562
271.801,-1.38778e-17,0,3598,3598
271.851,-1.38778e-17,0,3646,3646
271.9,-1.38778e-17,0,3682,3682
271.95,-1.38778e-17,0,3730,3730
272.003,-1.38778e-17,0,3766,3766
272.053,-1.38778e-17,0,3814,3814
272.102,-1.38778e-17,0,3850,3850
272.152,-1.38778e-17,0,3886,3886
272.202,-1.38778e-17,0,3934,3934
272.252,-1.38778e-17,0,3970,3970
272.302,-1.38778e-17,0,4018,4018
272.351,-1.38778e-17,0,4054,4054
272.401,-1.38778e-17,0,4090,4090
272.451,-1.38778e-17,0,4138,4138
272.501,-1.38778e-17,0,4174,4174
272.551,-1.38778e-17,0,4210,4210
272.6,-1.38778e-17,0,4258,4258
272.65,-1.38778e-17,0,4294,4294
272.7,-1.38778e-17,0,4330,4330
272.753,-1.38778e-17,0,4378,4378
272.803,-1.38778e-17,0,4414,4414
272.852,-1.38778e-17,0,4450,4450
272.902,-1.38778e-17,0,4498,4498
272.952,-1.38778e-17,0,4534,4534
273.002,-1.38778e-17,0,4570,4570
273.052,-1.38778e-17,0,4606,4606
273.101,-1.38778e-17,0,4642,4642
273.151,-1.38778e-17,0,4690,4690
273.201,-1.38778e-17,0,4726,4726
273.251,-1.38778e-17,0,4762,4762
273.301,-1.38778e-17,0,4798,4798
273.35,-1.38778e-17,0,4834,4834
273.4,-1.38778e-17,0,4870,4870
273.453,-1.38778e-17,0,4896,4896
273.503,-1.38778e-17,0,4888,4888
273.552,-1.38778e-17,0,4884,4884
273.602,-1.38778e-17,0,4884,4884
273.652,-1.38778e-17,0,4872,4872
273.702,-1.38778e-17,0,4872,4872
273.752,-1.38778e-17,0,4876,4876
273.801,-1.38778e-17,0,4896,4896
273.851,-1.38778e-17,0,4920,4920
273.901,-1.38778e-17,0,4968,4968
273.951,-1.38778e-17,0,5004,5004
274.001,-1.38778e-17,0,5040,5040
274.05,-1.38778e-17,0,5076,5076
274.1,-1.38778e-17,0,5112,5112
274.153,-1.38778e-17,0,5148,5148
274.203,-1.38778e-17,0,5184,5184
274.253,-1.38778e-17,0,5220,5220
274.302,-1.38778e-17,0,5256,5256
274.352,-1.38778e-17,0,5280,5280
274.402,-1.38778e-17,0,5316,5316
274.452,-1.38778e-17,0,5352,5352
274.502,-1.38778e-17,0,5388,5388
274.551,-1.38778e-17,0,5424,5424
274.601,-1.38778e-17,0,5460,5460
274.651,-1.38778e-17,0,5520,5520
274.701,-1.38778e-17,0,5592,5592
274.75,-1.38778e-17,0,5676,5676
274.8,-6.93889e-17,0,5736,5736
274.85,-2.77556e-16,0,5808,5808
274.903,-4.85723e-16,0,5892,5892
274.953,-6.93889e-16,0,5964,5964
275.002,-9.29812e-16,0,6022,6022
275.052,-1.33227e-15,0,6058,6058
275.102,-2.47025e-15,0,6082,6082
275.152,-5.71765e-15,0,6118,6118
275.202,-1.44329e-14,0,6154,6154
275.251,-3.60129e-14,0,6190,6190
275.301,-8.62366e-14,0,6226,6226
275.351,-1.96246e-13,0,6250,6250
275.401,-4.22731e-13,0,6286,6286
275.451,-8.61977e-13,0,6322,6322
275.5,-1.66478e-12,0,6358,6358
275.55,-3.04826e-12,0,6382,6382
275.603,-5.46276e-12,0,6418,6418
275.653,-8.9887e-12,0,6454,6454
275.703,-1.40606e-11,0,6490,6490
275.752,-2.09237e-11,0,6514,6514
275.802,-2.96384e-11,0,6550,6550
275.852,-3.9979e-11,0,6586,6586
275.902,-5.13646e-11,0,6622,6622
275.951,-6.28523e-11,0,6646,6646
276.001,-7.32151e-11,0,6682,6682
276.051,-8.11028e-11,0,6718,6718
276.101,-8.52593e-11,0,6742,6742
276.151,-8.47475e-11,0,6778,6778
276.2,-7.91263e-11,0,6814,6814
276.25,-6.85354e-11,0,6850,6850
276.3,-5.36673e-11,0,6874,6874
276.353,-3.45097e-11,0,6910,6910
276.403,-1.4615e-11,0,6946,6946
276.452,5.61917e-12,0,6970,6970
276.502,2.49568e-11,0,7006,7006
276.552,4.24166e-11,0,7042,7042
276.602,5.73133e-11,0,7066,7066
276.652,6.92461e-11,0,7102,7102
276.701,7.80561e-11,0,7138,7138
276.751,8.37778e-11,0,7162,7162
276.801,8.66021e-11,0,7198,7198
276.851,8.68614e-11,0,7234,7234
276.901,8.50335e-11,0,7258,7258
276.95,8.17559e-11,0,7294,7294
277,7.78412e-11,0,7330,7330
277.053,7.41175e-11,0,7354,7354
277.103,7.22795e-11,0,7390,7390
277.152,7.36085e-11,0,7426,7426
277.202,8.00661e-11,0,7450,7450
277.252,9.43883e-11,0,7486,7486
277.302,1.20614e-10,0,7522,7522
277.352,1.64832e-10,0,7546,7546
277.401,2.36082e-10,0,7582,7582
277.451,3.47261e-10,0,7606,7606
277.501,5.15784e-10,0,7642,7642
277.551,7.63681e-10,0,7678,7678
277.601,1.11683e-09,0,7702,7702
277.65,1.60317e-09,0,7738,7738
277.7,2.2498e-09,0,7762,7762
277.75,3.07948e-09,0,7798,7798
277.803,4.17359e-09,0,7834,7834
277.853,5.41297e-09,0,7858,7858
277.902,6.8328e-09,0,7894,7894
277.952,8.35409e-09,0,7918,7918
278.002,9.63523e-09,0,7942,7942
278.052,1.29862e-08,0,7966,7966
278.102,1.80665e-08,0,8002,8002
278.151,2.3808e-08,0,8026,8026
278.201,2.97423e-08,0,8050,8050
278.251,3.59952e-08,0,8074,8074
278.301,4.27399e-08,0,8110,8110
278.351,5.05447e-08,0,8158,8158
278.4,5.99012e-08,0,8192,8192
278.45,7.14533e-08,0,8192,8192
278.503,8.66848e-08,0,8192,8192
278.553,1.04558e-07,0,8192,8192
278.602,1.26436e-07,0,8192,8192
278.652,1.52954e-07,0,8192,8192
278.702,1.84664e-07,0,8192,8192
278.752,2.2196e-07,0,8192,8192
278.802,2.64976e-07,0,8192,8192
278.851,3.13557e-07,0,8192,8192
278.901,3.67296e-07,0,8192,8192
278.951,4.25632e-07,0,8192,8192
279.001,4.88003e-07,0,8192,8192
279.051,5.53912e-07,0,8192,8192
279.1,6.22732e-07,0,8192,8192
279.15,6.93368e-07,0,8192,8192
279.2,7.64143e-07,0,8192,8192
279.253,8.36977e-07,0,8192,8192
279.303,9.01668e-07,0,8192,8192
279.352,9.60735e-07,0,8192,8192
279.402,1.0132e-06,0,8192,8192
279.452,1.05883e-06,0,8192,8192
279.502,1.09803e-06,0,8192,8192
279.552,1.1317e-06,0,8192,8192
279.601,1.16094e-06,0,8192,8192
279.651,1.18682e-06,0,8192,8192
279.701,1.2102e-06,0,8192,8192
279.751,1.23154e-06,0,8192,8192
279.801,1.25097e-06,0,8192,8192
279.85,1.26827e-06,0,8192,8192
279.9,1.28306e-06,0,8192,8192
279.953,1.29556e-06,0,8192,8192
280.003,1.30421e-06,0,8192,8192
280.052,1.30989e-06,0,8192,8192
280.102,1.31301e-06,0,8192,8192
280.152,1.31409e-06,0,8192,8192
280.202,1.31355e-06,0,8192,8192
280.252,1.31155e-06,0,8192,8192
280.301,1.3078e-06,0,8192,8192
280.351,1.30164e-06,0,8192,8192
280.401,1.29216e-06,0,8192,8192
280.451,1.27847e-06,0,8192,8192
280.501,1.25993e-06,0,8192,8192
280.55,1.23631e-06,0,8192,8192
280.6,1.20781e-06,0,8192,8192
280.65,1.17497e-06,0,8192,8192
280.703,1.13616e-06,0,8192,8192
280.753,1.09621e-06,0,8192,8192
280.802,1.05323e-06,0,8192,8192
280.852,1.00708e-06,0,8192,8192
280.902,9.57427e-07,0,8192,8192
280.952,9.03953e-07,0,8192,8192
281.002,8.46576e-07,0,8192,8192
281.051,7.85566e-07,0,8192,8192
281.101,7.21553e-07,0,8192,8192
281.151,6.55443e-07,0,8192,8192
281.201,5.88303e-07,0,8192,8192
281.251,5.21241e-07,0,8192,8192
281.3,4.5533e-07,0,8192,8192
281.35,3.91571e-07,0,8192,8192
281.403,3.27396e-07,0,8192,8192
281.453,2.70717e-07,0,8192,8192
281.502,2.18431e-07,0,8192,8192
281.552,1.70886e-07,0,8192,8192
281.602,1.28228e-07,0,8192,8192
281.652,9.04294e-08,0,8192,8192
281.702,5.73394e-08,0,8192,8192
281.751,2.87211e-08,0,8192,8192
281.801,4.26612e-09,0,8192,8192
281.851,-1.64084e-08,0,8192,8192
281.901,-3.36318e-08,0,8192,8192
281.951,-4.77887e-08,0,8192,8192
282,-5.95115e-08,0,8192,8192
282.05,-6.9176e-08,0,8192,8192
282.1,-7.68995e-08,0,8192,8192
282.153,-8.3112e-08,0,8192,8192
282.203,-8.73004e-08,0,8192,8192
282.252,-9.00411e-08,0,8192,8192
282.302,-9.15391e-08,0,8192,8192
282.352,-9.2019e-08,0,8192,8192
282.402,-9.16906e-08,0,8192,8192
282.452,-9.07092e-08,0,8192,8192
282.501,-8.91543e-08,0,8192,8192
282.551,-8.70379e-08,0,8192,8192
282.601,-8.43387e-08,0,8192,8192
282.651,-8.10456e-08,0,8192,8192
282.7,-7.71908e-08,0,8192,8192
282.75,-7.28631e-08,0,8192,8192
282.8,-6.81983e-08,0,8192,8192
282.853,-6.307e-08,0,8192,8192
282.903,-5.82143e-08,0,8192,8192
282.952,-5.34861e-08,0,8192,8192
283.002,-4.89893e-08,0,8192,8192
283.052,-4.47936e-08,0,8192,8192
283.102,-4.09374e-08,0,8192,8192
283.152,-3.74345e-08,0,8192,8192
283.201,-3.4281e-08,0,8192,8192
283.251,-3.14628e-08,0,8192,8192
283.301,-2.89612e-08,0,8192,8192
283.351,-2.67569e-08,0,8192,8192
283.401,-2.48323e-08,0,8192,8192
283.45,-2.31716e-08,0,8192,8192
283.5,-2.17601e-08,0,8192,8192
283.553,-2.052e-08,0,8192,8192
283.603,-1.9572e-08,0,8192,8192
283.653,-1.88223e-08,0,8192,8192
283.702,-1.82515e-08,0,8192,8192
283.752,-1.78395e-08,0,8192,8192
283.802,-1.7566e-08,0,8192,8192
283.852,-1.74118e-08,0,8192,8192
283.901,-1.73585e-08,0,8192,8192
283.951,-1.73895e-08,0,8192,8192
284.001,-1.74898e-08,0,8192,8192
284.051,-1.76461e-08,0,8192,8192
284.101,-1.78469e-08,0,8192,8192
284.15,-1.80822e-08,0,8192,8192
284.2,-1.83431e-08,0,8192,8192
284.25,-1.86221e-08,0,8192,8192
284.303,-1.89296e-08,0,8192,8192
284.353,-1.92257e-08,0,8192,8192
284.402,-1.95224e-08,0,8192,8192
284.452,-1.98157e-08,0,8192,8192
284.502,-2.01026e-08,0,8192,8192
284.552,-2.03804e-08,0,8192,8192
284.602,-2.06469e-08,0,8192,8192
284.651,-2.09001e-08,0,8192,8192
284.701,-2.11383e-08,0,8192,8192
284.751,-2.136e-08,0,8192,8192
284.801,-2.15639e-08,0,8192,8192
284.851,-2.17494e-08,0,8192,8192
284.9,-2.19159e-08,0,8192,8192
284.95,-2.20638e-08,0,8192,8192
285.003,-2.22006e-08,0,8192,8192
285.053,-2.23122e-08,0,8192,8192
285.102,-2.24084e-08,0,8192,8192
285.152,-2.24907e-08,0,8192,8192
285.202,-2.2561e-08,0,8192,8192
285.252,-2.26212e-08,0,8192,8192
285.302,-2.26735e-08,0,8192,8192
285.351,-2.27197e-08,0,8192,8192
285.401,-2.27619e-08,0,8192,8192
285.451,-2.28019e-08,0,8192,8192
285.501,-2.28416e-08,0,8192,8192
285.551,-2.28829e-08,0,8192,8192
285.6,-2.29274e-08,0,8192,8192
285.65,-2.29771e-08,0,8192,8192
285.7,-2.30339e-08,0,8192,8192
285.753,-2.31038e-08,0,8192,8192
285.803,-2.31813e-08,0,8192,8192
285.852,-2.32724e-08,0,8192,8192
285.902,-2.33794e-08,0,8192,8192
285.952,-2.35048e-08,0,8192,8192
286.002,-2.36514e-08,0,8192,8192
286.052,-2.38218e-08,0,8192,8192
286.101,-2.40188e-08,0,8192,8192
286.151,-2.42451e-08,0,8192,8192
286.201,-2.45031e-08,0,8192,8192
286.251,-2.47951e-08,0,8192,8192
286.301,-2.5123e-08,0,8192,8192
286.35,-2.54883e-08,0,8192,8192
286.4,-2.58919e-08,0,8192,8192
286.453,-2.63614e-08,0,8192,8192
286.503,-2.68443e-08,0,8192,8192
286.552,-2.73645e-08,0,8192,8192
286.602,-2.79202e-08,0,8192,8192
286.652,-2.85091e-08,0,8192,8192
286.702,-2.91284e-08,0,8192,8192
286.752,-2.97747e-08,0,8192,8192
286.801,-3.04448e-08,0,8192,8192
286.851,-3.11349e-08,0,8192,8192
286.901,-3.18419e-08,0,8192,8192
286.951,-3.25624e-08,0,8192,8192
287.001,-3.32934e-08,0,8192,8192
287.05,-3.40323e-08,0,8192,8192
287.1,-3.47766e-08,0,8192,8192
287.15,-3.55241e-08,0,8192,8192
287.203,-3.63166e-08,0,8192,8192
287.253,-3.70641e-08,0,8192,8192
287.302,-3.78088e-08,0,8192,8192
287.352,-3.85489e-08,0,8192,8192
287.402,-3.92827e-08,0,8192,8192
287.452,-4.00087e-08,0,8192,8192
287.502,-4.07252e-08,0,8192,8192
287.551,-4.14307e-08,0,8192,8192
287.601,-4.21236e-08,0,8192,8192
287.651,-4.28022e-08,0,8192,8192
287.701,-4.34648e-08,0,8192,8192
287.751,-4.41095e-08,0,8192,8192
287.8,-4.47343e-08,0,8192,8192
287.85,-4.53372e-08,0,8192,8192
287.903,-4.59491e-08,0,8192,8192
287.953,-4.65e-08,0,8192,8192
288.002,-4.70224e-08,0,8192,8192
288.052,-4.75144e-08,0,8192,8192
288.102,-4.79741e-08,0,8192,8192
288.152,-4.83997e-08,0,8192,8192
288.202,-4.87896e-08,0,8192,8192
288.251,-4.91423e-08,0,8192,8192
288.301,-4.94564e-08,0,8192,8192
288.351,-4.97309e-08,0,8192,8192
288.401,-4.99649e-08,0,8192,8192
288.451,-5.01578e-08,0,8192,8192
288.5,-5.03097e-08,0,8192,8192
288.55,-5.04207e-08,0,8192,8192
288.6,-5.04916e-08,0,8192,8192
288.653,-5.05246e-08,0,8192,8192
288.703,-5.05176e-08,0,8192,8192
288.752,-5.04757e-08,0,8192,8192
288.802,-5.04016e-08,0,8192,8192
288.852,-5.02978e-08,0,8192,8192
288.902,-5.01674e-08,0,8192,8192
288.952,-5.00133e-08,0,8192,8192
289.001,-4.98387e-08,0,8192,8192
289.051,-4.96466e-08,0,8192,8192
289.101,-4.94398e-08,0,8192,8192
289.151,-4.9221e-08,0,8192,8192
289.201,-4.8993e-08,0,8192,8192
289.25,-4.87578e-08,0,8192,8192
289.3,-4.85178e-08,0,8192,8192
289.353,-4.82602e-08,0,8192,8192
289.403,-4.80155e-08,0,8192,8192
289.452,-4.77708e-08,0,8192,8192
289.502,-4.75274e-08,0,8192,8192
289.552,-4.72863e-08,0,8192,8192
289.602,-4.70485e-08,0,8192,8192
289.652,-4.68145e-08,0,8192,8192
289.701,-4.65852e-08,0,8192,8192
289.751,-4.63609e-08,0,8192,8192
289.801,-4.61421e-08,0,8192,8192
289.851,-4.59291e-08,0,8192,8192
289.901,-4.57221e-08,0,8192,8192
289.95,-4.55213e-08,0,8192,8192
290,-4.53269e-08,0,8192,8192
290.053,-4.51279e-08,0,8192,8192
290.103,-4.49465e-08,0,8192,8192
290.153,-4.47713e-08,0,8192,8192
290.202,-4.46022e-08,0,8192,8192
290.252,-4.44389e-08,0,8192,8192
290.302,-4.42812e-08,0,8192,8192
290.352,-4.41287e-08,0,8192,8192
290.402,-4.39809e-08,0,8192,8192
290.451,-4.38376e-08,0,8192,8192
290.501,-4.36981e-08,0,8192,8192
290.551,-4.3562e-08,0,8192,8192
290.601,-4.34288e-08,0,8192,8192
290.65,-4.3298e-08,0,8192,8192
290.7,-4.31691e-08,0,8192,8192
290.75,-4.30416e-08,0,8192,8192
290.803,-4.29076e-08,0,8192,8192
290.853,-4.27813e-08,0,8192,8192
290.902,-4.2655e-08,0,8192,8192
290.952,-4.25282e-08,0,8192,8192
291.002,-4.24003e-08,0,8192,8192
291.052,-4.2271e-08,0,8192,8192
291.102,-4.21399e-08,0,8192,8192
291.151,-4.20067e-08,0,8192,8192
291.201,-4.18708e-08,0,8192,8192
291.251,-4.17321e-08,0,8192,8192
291.301,-4.15901e-08,0,8192,8192
291.351,-4.14447e-08,0,8192,8192
291.4,-4.12955e-08,0,8192,8192
291.45,-4.11423e-08,0,8192,8192
291.503,-4.09754e-08,0,8192,8192
291.553,-4.08132e-08,0,8192,8192
291.602,-4.06463e-08,0,8192,8192
291.652,-4.04745e-08,0,8192,8192
291.702,-4.02975e-08,0,8192,8192
291.752,-4.01151e-08,0,8192,8192
291.802,-3.9927e-08,0,8192,8192
291.851,-3.97329e-08,0,8192,8192
291.901,-3.95326e-08,0,8192,8192
291.951,-3.93255e-08,0,8192,8192
292.001,-3.91113e-08,0,8192,8192
292.051,-3.88894e-08,0,8192,8192
292.1,-3.86594e-08,0,8192,8192
292.15,-3.84206e-08,0,8192,8192
292.2,-3.81723e-08,0,8192,8192
292.253,-3.7898e-08,0,8192,8192
292.303,-3.76273e-08,0,8192,8192
292.352,-3.7344e-08,0,8192,8192
292.402,-3.70468e-08,0,8192,8192
292.452,-3.67341e-08,0,8192,8192
292.502,-3.64039e-08,0,8192,8192
292.552,-3.60544e-08,0,8192,8192
292.601,-3.56832e-08,0,8192,8192
292.651,-3.52877e-08,0,8192,8192
292.701,-3.48655e-08,0,8192,8192
292.751,-3.44138e-08,0,8192,8192
292.801,-3.393e-08,0,8192,8192
292.85,-3.34116e-08,0,8192,8192
292.9,-3.28563e-08,0,8192,8192
292.953,-3.22258e-08,0,8192,8192
293.003,-3.15886e-08,0,8192,8192
293.052,-3.09099e-08,0,8192,8192
293.102,-3.0189e-08,0,8192,8192
293.152,-2.94264e-08,0,8192,8192
293.202,-2.86229e-08,0,8192,8192
293.252,-2.778e-08,0,8192,8192
293.301,-2.68999e-08,0,8192,8192
293.351,-2.59854e-08,0,8192,8192
293.401,-2.50394e-08,0,8192,8192
293.451,-2.40653e-08,0,8192,8192
293.501,-2.30669e-08,0,8192,8192
293.55,-2.20475e-08,0,8192,8192
293.6,-2.10108e-08,0,8192,8192
293.65,-1.99601e-08,0,8192,8192
293.703,-1.88359e-08,0,8192,8192
293.753,-1.77662e-08,0,8192,8192
293.802,-1.66917e-08,0,8192,8192
293.852,-1.56148e-08,0,8192,8192
293.902,-1.4538e-08,0,8192,8192
293.952,-1.34636e-08,0,8192,8192
294.002,-1.23935e-08,0,8192,8192
294.051,-1.133e-08,0,8192,8192
294.101,-1.0275e-08,0,8192,8192
294.151,-9.23055e-09,0,8192,8192
294.201,-8.19852e-09,0,8192,8192
294.251,-7.18098e-09,0,8192,8192
294.3,-6.18001e-09,0,8192,8192
294.35,-5.19777e-09,0,8192,8192
294.403,-4.18066e-09,0,8184,8184
294.453,-3.24414e-09,0,8066,8066
294.502,-2.33348e-09,0,8014,8014
294.552,-1.45111e-09,0,7970,7970
294.602,-5.63545e-10,0,7934,7934
294.652,1.43185e-10,0,7906,7906
294.702,8.7183e-10,0,7874,7874
294.751,1.59929e-09,0,7846,7846
294.801,2.29616e-09,0,7822,7822
294.851,2.94636e-09,0,7798,7798
294.901,3.54518e-09,0,7774,7774
294.951,4.0922e-09,0,7738,7738
295,4.60502e-09,0,7714,7714
295.05,5.08908e-09,0,7690,7690
295.1,5.53714e-09,0,7654,7654
295.153,5.96277e-09,0,7630,7630
295.203,6.31408e-09,0,7594,7594
295.252,6.61672e-09,0,7562,7562
295.302,6.87321e-09,0,7534,7534
295.352,7.08652e-09,0,7498,7498
295.402,7.2596e-09,0,7462,7462
295.452,7.39545e-09,0,7438,7438
295.501,7.49735e-09,0,7402,7402
295.551,7.56857e-09,0,7378,7378
295.601,7.61231e-09,0,7342,7342
295.651,7.63186e-09,0,7318,7318
295.701,7.63044e-09,0,7294,7294
295.75,7.61117e-09,0,7258,7258
295.8,7.57689e-09,0,7234,7234
295.853,7.52697e-09,0,7210,7210
295.903,7.46915e-09,0,7178,7178
295.952,7.40274e-09,0,7150,7150
296.002,7.32915e-09,0,7126,7126
296.052,7.24945e-09,0,7090,7090
296.102,7.16432e-09,0,7054,7054
296.152,7.07416e-09,0,7022,7022
296.201,6.9792e-09,0,6994,6994
296.251,6.87959e-09,0,6958,6958
296.301,6.77554e-09,0,6922,6922
296.351,6.66738e-09,0,6886,6886
296.401,6.5556e-09,0,6850,6850
296.45,6.44091e-09,0,6814,6814
296.5,6.32421e-09,0,6778,6778
296.55,6.20665e-09,0,6754,6754
296.603,6.08272e-09,0,6718,6718
296.653,5.96768e-09,0,6682,6682
296.702,5.85605e-09,0,6646,6646
296.752,5.74917e-09,0,6610,6610
296.802,5.6482e-09,0,6578,6578
296.852,5.55406e-09,0,6550,6550
296.902,5.4674e-09,0,6514,6514
296.951,5.38855e-09,0,6478,6478
297.001,5.31759e-09,0,6446,6446
297.051,5.25438e-09,0,6418,6418
297.101,5.19856e-09,0,6382,6382
297.151,5.14966e-09,0,6346,6346
297.2,5.10706e-09,0,6322,6322
297.25,5.07009e-09,0,6286,6286
297.303,5.03625e-09,0,6250,6250
297.353,5.0085e-09,0,6218,6218
297.402,4.98404e-09,0,6190,6190
297.452,4.96212e-09,0,6154,6154
297.502,4.942e-09,0,6118,6118
297.552,4.923e-09,0,6086,6086
297.602,4.90454e-09,0,6058,6058
297.651,4.88612e-09,0,6022,6022
297.701,4.86741e-09,0,5990,5990
297.751,4.84821e-09,0,5962,5962
297.801,4.82846e-09,0,5926,5926
297.851,4.80824e-09,0,5894,5894
297.9,4.78773e-09,0,5866,5866
297.95,4.76719e-09,0,5830,5830
298.003,4.74578e-09,0,5794,5794
298.053,4.72629e-09,0,5762,5762
298.103,4.70796e-09,0,5734,5734
298.152,4.69131e-09,0,5698,5698
298.202,4.67688e-09,0,5666,5666
298.252,4.66522e-09,0,5638,5638
298.302,4.65686e-09,0,5602,5602
298.352,4.65228e-09,0,5566,5566
298.401,4.65186e-09,0,5534,5534
298.451,4.65589e-09,0,5506,5506
298.501,4.66452e-09,0,5470,5470
298.551,4.67774e-09,0,5434,5434
298.6,4.69539e-09,0,5402,5402
298.65,4.71714e-09,0,5374,5374
298.7,4.7425e-09,0,5338,5338
298.753,4.7726e-09,0,5302,5302
298.803,4.80332e-09,0,5266,5266
298.852,4.83548e-09,0,5230,5230
298.902,4.8683e-09,0,5194,5194
298.952,4.90102e-09,0,5162,5162
299.002,4.93292e-09,0,5134,5134
299.052,4.9634e-09,0,5098,5098
299.101,4.99193e-09,0,5062,5062
299.151,5.01811e-09,0,5026,5026
299.201,5.04164e-09,0,4990,4990
299.251,5.06235e-09,0,4954,4954
299.301,5.08015e-09,0,4918,4918
299.35,5.09501e-09,0,4882,4882
299.4,5.107e-09,0,4846,4846
299.453,5.11665e-09,0,4810,4810
299.503,5.12303e-09,0,4774,4774
299.553,5.12688e-09,0,4738,4738
299.602,5.12837e-09,0,4702,4702
299.652,5.12763e-09,0,4666,4666
299.702,5.12482e-09,0,4630,4630
299.752,5.12007e-09,0,4594,4594
299.801,5.11348e-09,0,4558,4558
299.851,5.10516e-09,0,4522,4522
299.901,5.09519e-09,0,4486,4486
299.951,5.08361e-09,0,4450,4450
300.001,5.07048e-09,0,4414,4414
300.05,5.05584e-09,0,4378,4378
300.1,5.03972e-09,0,4342,4342
300.15,5.02215e-09,0,4298,4298
300.203,5.00202e-09,0,4258,4258
300.253,4.98162e-09,0,4222,4222
300.302,4.95991e-09,0,4186,4186
300.352,4.93695e-09,0,4150,4150
300.402,4.91281e-09,0,4106,4106
300.452,4.88753e-09,0,4066,4066
300.502,4.86118e-09,0,4030,4030
300.551,4.8338e-09,0,3994,3994
300.601,4.80543e-09,0,3950,3950
300.651,4.77612e-09,0,3910,3910
300.701,4.74588e-09,0,3874,3874
300.751,4.71477e-09,0,3838,3838
300.8,4.6828e-09,0,3794,3794
300.85,4.65001e-09,0,3754,3754
300.903,4.61441e-09,0,3710,3710
300.953,4.57999e-09,0,3670,3670
301.002,4.5448e-09,0,3634,3634
301.052,4.50885e-09,0,3586,3586
301.102,4.47215e-09,0,3550,3550
301.152,4.4347e-09,0,3506,3506
301.202,4.39647e-09,0,3466,3466
301.251,4.35747e-09,0,3422,3422
301.301,4.31769e-09,0,3382,3382
301.351,4.27711e-09,0,3338,3338
301.401,4.23574e-09,0,3298,3298
301.451,4.19356e-09,0,3250,3250
301.5,4.15058e-09,0,3214,3214
301.55,4.10681e-09,0,3166,3166
301.6,4.06225e-09,0,3130,3130
301.653,4.01421e-09,0,3082,3082
301.703,3.96806e-09,0,3038,3038
301.752,3.92116e-09,0,2998,2998
301.802,3.87354e-09,0,2954,2954
301.852,3.82524e-09,0,2914,2914
301.902,3.77629e-09,0,2870,2870
301.952,3.72673e-09,0,2830,2830
302.001,3.67661e-09,0,2786,2786
302.051,3.62598e-09,0,2746,2746
302.101,3.5749e-09,0,2698,2698
302.151,3.5234e-09,0,2662,2662
302.201,3.47154e-09,0,2614,2614
302.25,3.41937e-09,0,2578,2578
302.3,3.36694e-09,0,2530,2530
302.353,3.31119e-09,0,2486,2486
302.403,3.25837e-09,0,2446,2446
302.452,3.20543e-09,0,2402,2402
302.502,3.15243e-09,0,2362,2362
302.552,3.0994e-09,0,2314,2314
302.602,3.04639e-09,0,2270,2270
302.652,2.99346e-09,0,2230,2230
302.701,2.94064e-09,0,2182,2182
302.751,2.88798e-09,0,2138,2138
302.801,2.83551e-09,0,2098,2098
302.852,2.782e-09,0,2048,2048
302.905,2.72697e-09,0,2048,2048
302.952,2.67833e-09,0,2048,2048
303.004,2.62394e-09,0,2048,2048
303.051,2.57592e-09,0,2048,2048
303.104,2.52228e-09,0,2048,2048
303.151,2.47496e-09,0,2048,2048
303.204,2.42213e-09,0,2048,2048
303.25,2.37555e-09,0,2048,2048
303.303,2.32358e-09,0,2048,2048
303.35,2.27778e-09,0,2048,2048
303.403,2.2267e-09,0,2048,2048
303.455,2.1761e-09,0,2048,2048
303.502,2.13153e-09,0,2048,2048
303.555,2.08183e-09,0,2048,2048
303.602,2.03806e-09,0,2048,2048
303.655,1.98927e-09,0,2048,2048
303.702,1.9463e-09,0,2048,2048
303.754,1.8984e-09,0,2048,2048
303.801,1.85621e-09,0,2048,2048
303.854,1.80917e-09,0,2048,2048
303.901,1.76774e-09,0,2048,2048
303.953,1.72155e-09,0,2048,2048
304,1.68085e-09,0,2048,2048
304.053,1.63545e-09,0,2048,2048
304.106,1.59045e-09,0,2048,2048
304.153,1.55079e-09,0,2048,2048
304.205,1.50652e-09,0,2048,2048
304.252,1.46747e-09,0,2048,2048
304.305,1.42388e-09,0,2048,2048
304.352,1.38542e-09,0,2048,2048
304.405,1.34246e-09,0,2048,2048
304.451,1.30455e-09,0,2048,2048
304.504,1.26218e-09,0,2048,2048
304.551,1.22476e-09,0,2048,2048
304.604,1.18294e-09,0,2048,2048
304.651,1.14601e-09,0,2048,2048
304.703,1.10472e-09,0,2048,2048
304.75,1.06824e-09,0,2048,2048
304.803,1.02746e-09,0,2048,2048
304.856,9.86948e-10,0,2048,2048
304.903,9.51159e-10,0,2048,2048
304.955,9.11147e-10,0,2048,2048
