250,0,0,512,512
250.012,0,0,512,512
250.059,0,0,512,512
250.105,0,0,512,512
250.152,0,0,512,512
250.211,0,0,512,512
250.258,0,0,512,512
250.305,0,0,512,512
250.352,0,0,512,512
250.41,0,0,512,512
250.457,0,0,512,512
250.504,0,0,512,512
250.551,0,0,512,512
250.609,0,0,512,512
250.656,0,0,512,512
250.703,0,0,512,512
250.762,0,0,512,512
250.808,0,0,512,512
250.855,0,0,512,512
250.902,0,0,512,512
250.961,2.77556e-17,0,512,512
251.008,2.77556e-17,0,512,512
251.055,2.77556e-17,0,512,512
251.101,0,0,512,512
251.16,0,0,512,512
251.207,0,0,512,512
251.254,0,0,512,512
251.301,0,0,512,512
251.359,0,0,512,512
251.406,0,0,512,512
251.453,0,0,512,512
251.511,0,0,512,512
251.558,0,0,512,512
251.605,0,0,512,512
251.652,0,0,512,512
251.711,0,0,512,512
251.758,0,0,512,512
251.804,0,0,512,512
251.851,0,0,512,512
251.91,0,0,512,512
251.957,0,0,512,512
252.004,0,0,512,512
252.05,0,0,512,512
252.109,0,0,512,512
252.156,0,0,512,512
252.203,0,0,512,512
252.261,0,0,512,512
252.308,0,0,512,512
252.355,0,0,512,512
252.402,0,0,512,512
252.461,0,0,512,512
252.507,-2.77556e-17,0,512,512
252.554,-2.77556e-17,0,512,512
252.601,-2.77556e-17,0,512,512
252.66,-2.77556e-17,0,512,512
252.707,-2.77556e-17,0,512,512
252.754,-2.77556e-17,0,512,512
252.8,0,0,512,512
252.859,0,0,512,512
252.906,-2.77556e-17,0,512,512
252.953,-2.77556e-17,0,512,512
253.011,-2.77556e-17,0,512,512
253.058,-2.77556e-17,0,512,512
253.105,-2.77556e-17,0,512,512
253.152,-2.77556e-17,0,512,512
253.21,-2.77556e-17,0,512,512
253.257,-2.77556e-17,0,512,512
253.304,-2.77556e-17,0,512,512
253.351,0,0,512,512
253.41,0,0,512,512
253.457,0,0,512,512
253.503,0,0,512,512
253.55,0,0,512,512
253.609,0,0,512,512
253.656,0,0,512,512
253.703,0,0,512,512
253.761,0,0,512,512
253.808,0,0,512,512
253.855,0,0,512,512
253.902,-2.77556e-17,0,512,512
253.96,-2.77556e-17,0,512,512
254.007,-2.77556e-17,0,512,512
254.054,0,0,512,512
254.101,-2.77556e-17,0,512,512
254.16,0,0,512,512
254.206,0,0,512,512
254.253,0,0,512,512
254.3,0,0,512,512
254.359,0,0,512,512
254.406,0,0,512,512
254.452,0,0,512,512
254.511,0,0,512,512
254.558,0,0,512,512
254.605,0,0,512,512
254.652,-2.77556e-17,0,512,512
254.71,-2.77556e-17,0,512,512
254.757,-2.77556e-17,0,512,512
254.804,-2.77556e-17,0,512,512
254.851,-2.77556e-17,0,512,512
254.909,-2.77556e-17,0,512,512
254.956,0,0,512,512
255.003,0,0,512,512
255.05,0,0,512,512
255.109,0,0,512,512
255.155,0,0,512,512
255.202,0,0,512,512
255.261,0,0,512,512
255.308,0,0,512,512
255.355,0,0,512,512
255.402,0,0,512,512
255.46,0,0,512,512
255.507,0,0,512,512
255.554,0,0,512,512
255.601,0,0,512,512
255.659,0,0,512,512
255.706,0,0,512,512
255.753,0,0,512,512
255.812,0,0,512,512
255.859,0,0,512,512
255.905,0,0,512,512
255.952,-2.77556e-17,0,512,512
256.011,-2.77556e-17,0,512,512
256.058,-2.77556e-17,0,512,512
256.105,-2.77556e-17,0,512,512
256.151,-2.77556e-17,0,512,512
256.21,-2.77556e-17,0,512,512
256.257,-2.77556e-17,0,512,512
256.304,-2.77556e-17,0,512,512
256.351,-2.77556e-17,0,512,512
256.409,-2.77556e-17,0,512,512
256.456,-2.77556e-17,0,512,512
256.503,0,0,512,512
256.562,0,0,512,512
256.608,0,0,512,512
256.655,-2.77556e-17,0,512,512
256.702,-2.77556e-17,0,512,512
256.761,-2.77556e-17,0,512,512
256.808,-5.55112e-17,0,512,512
256.854,-5.55112e-17,0,512,512
256.901,-5.55112e-17,0,512,512
256.96,-5.55112e-17,0,512,512
257.007,-5.55112e-17,0,512,512
257.054,-5.55112e-17,0,512,512
257.101,-5.55112e-17,0,512,512
257.159,-5.55112e-17,0,512,512
257.206,-5.55112e-17,0,512,512
257.253,-5.55112e-17,0,512,512
257.311,-2.77556e-17,0,512,512
257.358,-2.77556e-17,0,512,512
257.405,-2.77556e-17,0,512,512
257.452,-2.77556e-17,0,512,512
257.511,-2.77556e-17,0,512,512
257.557,0,0,512,512
257.604,-2.77556e-17,0,512,512
257.651,0,0,512,512
257.71,0,0,512,512
257.757,0,0,512,512
257.804,0,0,512,512
257.85,-2.77556e-17,0,512,512
257.909,-2.77556e-17,0,512,512
257.956,0,0,512,512
258.003,0,0,512,512
258.061,0,0,512,512
258.108,0,0,512,512
258.155,0,0,512,512
258.202,0,0,512,512
258.261,2.77556e-17,0,512,512
258.307,0,0,512,512
258.354,0,0,512,512
258.401,0,0,512,512
258.46,0,0,512,512
258.507,0,0,512,512
258.553,0,0,512,512
258.6,-2.77556e-17,0,512,512
258.659,2.77556e-17,0,512,512
258.706,5.55112e-17,0,512,512
258.753,2.77556e-17,0,512,512
258.811,2.77556e-17,0,512,512
258.858,5.55112e-17,0,512,512
258.905,2.77556e-17,0,512,512
258.952,2.77556e-17,0,512,512
259.01,2.77556e-17,0,512,512
259.057,2.77556e-17,0,512,512
259.104,2.77556e-17,0,512,512
259.151,2.77556e-17,0,512,512
259.21,0,0,512,512
259.256,0,0,512,512
259.303,0,0,512,512
259.35,0,0,512,512
259.409,0,0,512,512
259.456,0,0,512,512
259.503,0,0,512,512
259.561,0,0,512,512
259.608,0,0,512,512
259.655,0,0,512,512
259.702,0,0,512,512
259.76,0,0,512,512
259.807,0,0,512,512
259.854,0,0,512,512
259.901,2.77556e-17,0,512,512
259.959,0,0,512,512
260.006,2.77556e-17,0,512,512
260.053,2.77556e-17,0,512,512
260.1,2.77556e-17,0,512,512
260.159,2.77556e-17,0,512,512
260.206,2.77556e-17,0,512,512
260.252,2.77556e-17,0,512,512
260.311,2.77556e-17,0,512,512
260.358,2.77556e-17,0,512,512
260.405,2.77556e-17,0,512,512
260.452,2.77556e-17,0,512,512
260.51,2.77556e-17,0,512,512
260.557,5.55112e-17,0,512,512
260.604,5.55112e-17,0,512,512
260.651,5.55112e-17,0,512,512
260.709,2.77556e-17,0,512,512
260.756,0,0,512,512
260.803,0,0,512,512
260.862,0,0,512,512
260.909,0,0,512,512
260.955,0,0,512,512
261.002,0,0,512,512
261.061,2.77556e-17,0,512,512
261.108,2.77556e-17,0,512,512
261.155,0,0,512,512
261.201,2.77556e-17,0,512,512
261.26,-2.77556e-17,0,512,512
261.307,0,0,512,512
261.354,0,0,512,512
261.401,0,0,512,512
261.459,0,0,512,512
261.506,2.77556e-17,0,512,512
261.553,2.77556e-17,0,512,512
261.612,0,0,512,512
261.658,-2.77556e-17,0,512,512
261.705,0,0,512,512
261.752,2.77556e-17,0,512,512
261.811,2.77556e-17,0,512,512
261.858,0,0,512,512
261.905,2.77556e-17,0,512,512
261.951,2.77556e-17,0,512,512
262.01,-5.55112e-17,0,512,512
262.057,-2.77556e-17,0,512,512
262.104,0,0,512,512
262.151,0,0,512,512
262.209,-2.77556e-17,0,512,512
262.256,-2.77556e-17,0,512,512
262.303,-2.77556e-17,0,512,512
262.361,-2.77556e-17,0,512,512
262.408,0,0,512,512
262.455,0,0,512,512
262.502,0,0,512,512
262.561,0,0,512,512
262.608,0,0,512,512
262.654,2.77556e-17,0,512,512
262.701,2.77556e-17,0,512,512
262.76,0,0,512,512
262.807,0,0,512,512
262.854,0,0,512,512
262.9,0,0,512,512
262.959,0,0,512,512
263.006,0,0,512,512
263.053,0,0,512,512
263.111,0,0,512,512
263.158,-2.77556e-17,0,512,512
263.205,0,0,512,512
263.252,0,0,512,512
263.311,0,0,512,512
263.357,0,0,512,512
263.404,0,0,512,512
263.451,2.77556e-17,0,512,512
263.51,2.77556e-17,0,512,512
263.557,0,0,512,512
263.603,-2.77556e-17,0,512,512
263.65,-2.77556e-17,0,512,512
263.709,-2.77556e-17,0,512,512
263.756,0,0,512,512
263.803,0,0,512,512
263.861,0,0,512,512
263.908,0,0,512,512
263.955,-2.77556e-17,0,512,512
264.002,-2.77556e-17,0,512,512
264.06,-2.77556e-17,0,512,512
264.107,-2.77556e-17,0,512,512
264.154,0,0,512,512
264.201,-2.77556e-17,0,512,512
264.26,0,0,512,512
264.306,0,0,512,512
264.353,-5.55112e-17,0,512,512
264.4,-2.77556e-17,0,512,512
264.459,-2.77556e-17,0,512,512
264.506,-2.77556e-17,0,512,512
264.553,-2.77556e-17,0,512,512
264.611,-2.77556e-17,0,512,512
264.658,-2.77556e-17,0,512,512
264.705,0,0,512,512
264.752,0,0,512,512
264.81,-2.77556e-17,0,512,512
264.857,-2.77556e-17,0,512,512
264.904,0,0,512,512
264.951,0,0,512,512
265.01,0,0,512,512
265.056,0,0,512,512
265.103,0,0,512,512
265.15,0,0,512,512
265.209,0,0,512,512
265.256,0,0,512,512
265.302,0,0,512,512
265.361,0,0,512,512
265.408,0,0,512,512
265.455,0,0,512,512
265.502,0,0,512,512
265.56,0,0,512,512
265.607,0,0,512,512
265.654,0,0,512,512
265.701,0,0,512,512
265.759,0,0,512,512
265.806,0,0,512,512
265.853,0,0,512,512
265.9,0,0,512,512
265.959,0,0,512,512
266.005,0,0,512,512
266.052,2.77556e-17,0,512,512
266.111,2.77556e-17,0,512,512
266.158,2.77556e-17,0,512,512
266.205,0,0,512,512
266.252,0,0,512,512
266.31,2.77556e-17,0,512,512
266.357,2.77556e-17,0,512,512
266.404,2.77556e-17,0,512,512
266.451,2.77556e-17,0,512,512
266.509,2.77556e-17,0,512,512
266.556,2.77556e-17,0,512,512
266.603,2.77556e-17,0,512,512
266.662,2.77556e-17,0,512,512
266.708,2.77556e-17,0,512,512
266.755,2.77556e-17,0,512,512
266.802,2.77556e-17,0,512,512
266.861,2.77556e-17,0,512,512
266.908,2.77556e-17,0,512,512
266.955,2.77556e-17,0,512,512
267.001,2.77556e-17,0,512,512
267.06,2.77556e-17,0,512,512
267.107,2.77556e-17,0,512,512
267.154,2.77556e-17,0,512,512
267.201,2.77556e-17,0,512,512
267.259,2.77556e-17,0,512,512
267.306,2.77556e-17,0,512,512
267.353,2.77556e-17,0,512,512
267.412,2.77556e-17,0,512,512
267.458,2.77556e-17,0,512,512
267.505,2.77556e-17,0,512,512
267.552,2.77556e-17,0,512,512
267.611,2.77556e-17,0,512,512
267.658,2.77556e-17,0,512,512
267.704,2.77556e-17,0,512,512
267.751,5.55112e-17,0,512,512
267.81,5.55112e-17,0,512,512
267.857,5.55112e-17,0,512,512
267.904,8.32667e-17,0,512,512
267.95,8.32667e-17,0,512,512
268.009,5.55112e-17,0,512,512
268.056,5.55112e-17,0,512,512
268.1,5.55112e-17,0,2121,2121
268.151,5.55112e-17,0,3003,3003
268.2,5.55112e-17,0,3939,3939
268.25,5.55112e-17,0,4827,4827
268.301,5.55112e-17,0,5811,5811
268.35,5.55112e-17,0,6667,6667
268.4,5.55112e-17,0,7607,7607
268.45,5.55112e-17,0,8507,8507
268.501,5.55112e-17,0,9427,9427
268.55,5.55112e-17,0,10351,10351
268.6,5.55112e-17,0,11223,11223
268.65,5.55112e-17,0,12165,12165
268.701,5.55112e-17,0,13091,13091
268.75,5.55112e-17,0,13981,13981
268.8,5.55112e-17,0,14897,14897
268.851,5.55112e-17,0,15785,15785
268.9,5.55112e-17,0,16709,16709
268.95,5.55112e-17,0,17587,17587
269,5.55112e-17,0,18485,18485
269.051,5.55112e-17,0,19345,19345
269.1,3.33067e-16,0,20215,20215
269.15,2.05391e-15,0,21131,21131
269.201,3.96905e-15,0,21919,21919
269.251,7.29972e-15,0,22691,22691
269.3,1.70419e-14,0,23515,23515
269.35,4.14113e-14,0,24367,24367
269.401,9.49518e-14,0,25285,25285
269.45,1.96065e-13,0,26055,26055
269.5,3.67456e-13,0,26957,26957
269.55,6.83592e-13,0,27815,27815
269.601,2.14609e-12,0,28751,28751
269.65,8.82941e-12,0,29661,29661
269.7,-6.84251e-11,0,30567,30567
269.751,-5.04701e-10,0,31419,31419
269.8,-6.19253e-10,0,32335,32335
269.85,-3.13975e-10,0,33213,33213
269.9,1.04612e-10,0,34091,34091
269.951,4.12346e-10,0,34901,34901
270,4.29775e-10,0,35801,35801
270.05,1.56259e-10,0,36691,36691
270.101,-1.78461e-10,0,37601,37601
270.151,-2.70999e-10,0,38425,38425
270.2,-4.1182e-11,0,39333,39333
270.25,2.87731e-10,0,40221,40221
270.301,4.13446e-10,0,41087,41087
270.35,2.29802e-10,0,41933,41933
270.4,-6.15927e-11,0,42757,42757
270.45,-1.89587e-10,0,43589,43589
270.501,-5.15157e-11,0,44397,44397
270.55,1.94273e-10,0,45315,45315
270.6,3.31154e-10,0,46131,46131
270.651,2.69685e-10,0,46939,46939
270.7,9.48565e-11,0,47823,47823
270.75,-5.46578e-11,0,48697,48697
270.8,-9.4291e-11,0,49507,49507
270.851,-1.29538e-11,0,50363,50363
270.9,1.70722e-10,0,51225,51225
270.95,3.68346e-10,0,52087,52087
271,4.16548e-10,0,52967,52967
271.051,1.57548e-10,0,53805,53805
271.1,-2.93009e-10,0,54573,54573
271.15,-5.14274e-10,0,55433,55433
271.201,-7.77154e-11,0,56297,56297
271.25,8.29276e-10,0,57097,57097
271.3,1.30252e-09,0,57877,57877
271.35,4.48317e-10,0,58717,58717
271.401,-1.41447e-09,0,59561,59561
271.45,-2.35012e-09,0,60359,60359
271.5,-3.96288e-10,0,61199,61199
271.551,4.90786e-09,0,61973,61973
271.6,1.18177e-08,0,62797,62797
271.65,1.8428e-08,0,63553,63553
271.7,2.35475e-08,0,64443,64443
271.751,2.69222e-08,0,65233,65233
271.8,2.85808e-08,0,66037,66037
271.85,2.95605e-08,0,66803,66803
271.9,3.17422e-08,0,67559,67559
271.951,3.70625e-08,0,68361,68361
272,4.57859e-08,0,69145,69145
272.05,5.68427e-08,0,69929,69929
272.101,6.92113e-08,0,70629,70629
272.15,8.26872e-08,0,71397,71397
272.2,9.90406e-08,0,72225,72225
272.25,1.20094e-07,0,72941,72941
272.301,1.47577e-07,0,73771,73771
272.35,1.81374e-07,0,74473,74473
272.4,2.21996e-07,0,75233,75233
272.451,2.6868e-07,0,76029,76029
272.501,3.16996e-07,0,76767,76767
272.55,3.64904e-07,0,77573,77573
272.6,4.12584e-07,0,78307,78307
272.651,4.63744e-07,0,78993,78993
272.7,5.19525e-07,0,79745,79745
272.75,5.79404e-07,0,80537,80537
272.8,6.38496e-07,0,81183,81183
272.851,6.92335e-07,0,81989,81989
272.9,7.36187e-07,0,82645,82645
272.95,7.69658e-07,0,83455,83455
273.001,7.92597e-07,0,84143,84143
273.05,8.0574e-07,0,84869,84869
273.1,8.12426e-07,0,85581,85581
273.15,8.15488e-07,0,86265,86265
273.201,8.16191e-07,0,86987,86987
273.25,8.14389e-07,0,87725,87725
273.3,8.09597e-07,0,88403,88403
273.351,8.00774e-07,0,89203,89203
273.401,7.86981e-07,0,89887,89887
273.45,7.66953e-07,0,90581,90581
273.5,7.39785e-07,0,91227,91227
273.551,7.04211e-07,0,91979,91979
273.6,6.61198e-07,0,92701,92701
273.65,6.12237e-07,0,93423,93423
273.7,5.6084e-07,0,94073,94073
273.751,5.09634e-07,0,94635,94635
273.8,4.62034e-07,0,95527,95527
273.85,4.1797e-07,0,96327,96327
273.901,3.77177e-07,0,96827,96827
273.95,3.40536e-07,0,97579,97579
274,3.06734e-07,0,98275,98275
274.05,2.75048e-07,0,99063,99063
274.101,2.44455e-07,0,99683,99683
274.15,2.15391e-07,0,100397,100397
274.2,1.87437e-07,0,101063,101063
274.251,1.61653e-07,0,101869,101869
274.301,1.41147e-07,0,102445,102445
274.35,1.26944e-07,0,103113,103113
274.4,1.17277e-07,0,103753,103753
274.451,1.0807e-07,0,104411,104411
274.5,9.64617e-08,0,105113,105113
274.55,8.27168e-08,0,105731,105731
274.6,6.95558e-08,0,106507,106507
274.651,5.92794e-08,0,107201,107201
274.7,5.26754e-08,0,107851,107851
274.75,4.87524e-08,0,108591,108591
274.801,4.63618e-08,0,109189,109189
274.85,4.41232e-08,0,109901,109901
274.9,4.04199e-08,0,110539,110539
274.95,3.44e-08,0,111185,111185
275.001,2.71205e-08,0,111889,111889
275.05,2.11848e-08,0,112411,112411
275.1,1.82388e-08,0,112985,112985
275.15,1.79805e-08,0,113461,113461
275.201,1.89044e-08,0,114103,114103
275.25,1.96498e-08,0,114619,114619
275.3,1.98966e-08,0,115221,115221
275.351,1.99121e-08,0,115919,115919
275.4,1.99532e-08,0,116533,116533
275.45,2.0083e-08,0,117195,117195
275.5,2.02305e-08,0,117863,117863
275.551,2.03445e-08,0,118255,118255
275.6,2.03388e-08,0,118717,118717
275.65,1.96156e-08,0,119175,119175
275.701,1.91151e-08,0,119707,119707
275.751,1.91106e-08,0,120091,120091
275.8,1.91423e-08,0,120507,120507
275.85,1.91746e-08,0,120875,120875
275.901,1.92075e-08,0,121327,121327
275.95,1.92401e-08,0,121541,121541
276,1.92727e-08,0,121935,121935
276.05,1.93054e-08,0,122251,122251
276.101,1.93388e-08,0,122625,122625
276.15,1.93717e-08,0,122897,122897
276.2,1.94047e-08,0,123235,123235
276.251,1.94382e-08,0,123510,123510
276.3,1.94714e-08,0,123750,123750
276.35,1.95047e-08,0,124054,124054
276.4,1.95381e-08,0,124246,124246
276.451,1.95723e-08,0,124516,124516
276.5,1.9606e-08,0,124768,124768
276.55,1.96397e-08,0,124940,124940
276.601,1.96739e-08,0,124860,124860
276.651,1.97075e-08,0,124770,124770
276.7,1.97413e-08,0,124598,124598
276.75,1.97753e-08,0,124326,124326
276.801,1.98099e-08,0,124174,124174
276.85,1.98441e-08,0,123962,123962
276.9,1.98783e-08,0,123886,123886
276.95,1.99125e-08,0,124462,124462
277.001,1.99474e-08,0,125086,125086
277.05,1.99819e-08,0,125056,125056
277.1,2.00166e-08,0,125252,125252
277.151,2.00519e-08,0,126138,126138
277.2,2.00868e-08,0,126596,126596
277.25,2.01218e-08,0,126832,126832
277.3,2.01567e-08,0,126310,126310
277.351,2.01923e-08,0,127266,127266
277.4,2.02277e-08,0,128552,128552
277.45,2.02632e-08,0,127446,127446
277.5,2.02988e-08,0,128020,128020
277.551,2.0335e-08,0,127460,127460
277.6,2.03707e-08,0,127964,127964
277.65,2.04066e-08,0,128638,128638
277.701,2.04431e-08,0,127692,127692
277.75,2.04794e-08,0,128634,128634
277.8,2.05158e-08,0,127498,127498
277.85,2.05523e-08,0,128692,128692
277.901,2.05892e-08,0,128486,128486
277.95,2.06256e-08,0,128026,128026
278,2.06623e-08,0,128352,128352
278.051,2.06999e-08,0,127550,127550
278.101,2.07374e-08,0,129172,129172
278.15,2.07745e-08,0,128240,128240
278.2,2.081e-08,0,127770,127770
278.251,2.08431e-08,0,128478,128478
278.3,2.08723e-08,0,128026,128026
278.35,2.0898e-08,0,129262,129262
278.4,2.0921e-08,0,128700,128700
278.451,2.09422e-08,0,129770,129770
278.5,2.09616e-08,0,128832,128832
278.55,2.09795e-08,0,130180,130180
278.601,2.09951e-08,0,129334,129334
278.65,2.10068e-08,0,128204,128204
278.7,2.10125e-08,0,128426,128426
278.75,2.10096e-08,0,125554,125554
278.801,2.10014e-08,0,125250,125250
278.85,2.09842e-08,0,123866,123866
278.9,2.09526e-08,0,123134,123134
278.951,2.09051e-08,0,121582,121582
279.001,2.08399e-08,0,121210,121210
279.05,2.07521e-08,0,120186,120186
279.1,2.06381e-08,0,119216,119216
279.151,2.04928e-08,0,117788,117788
279.2,2.03189e-08,0,117556,117556
279.25,2.01137e-08,0,116144,116144
279.3,1.98758e-08,0,115004,115004
279.351,1.95995e-08,0,114600,114600
279.4,1.92908e-08,0,113438,113438
279.45,1.89453e-08,0,112514,112514
279.501,1.85584e-08,0,111538,111538
279.55,1.81449e-08,0,110770,110770
279.6,1.77045e-08,0,109784,109784
279.65,1.72433e-08,0,109688,109688
279.701,1.67601e-08,0,109420,109420
279.75,1.62742e-08,0,109630,109630
279.8,1.57824e-08,0,109298,109298
279.85,1.52877e-08,0,109650,109650
279.901,1.47847e-08,0,110894,110894
279.95,1.42901e-08,0,112462,112462
280,1.37988e-08,0,112628,112628
280.051,1.33065e-08,0,114166,114166
280.1,1.2831e-08,0,115408,115408
280.15,1.23692e-08,0,116364,116364
280.2,1.19255e-08,0,116824,116824
280.251,1.14985e-08,0,117040,117040
280.3,1.11046e-08,0,117318,117318
280.35,1.07405e-08,0,118381,118381
280.401,1.04026e-08,0,119166,119166
280.451,1.01005e-08,0,119980,119980
280.5,9.82781e-09,0,120322,120322
280.55,9.58243e-09,0,119974,119974
280.601,9.35927e-09,0,119294,119294
280.65,9.16276e-09,0,118792,118792
280.7,8.98783e-09,0,118352,118352
280.75,8.83315e-09,0,117690,117690
280.801,8.69574e-09,0,116960,116960
280.85,8.57865e-09,0,116980,116980
280.9,8.47855e-09,0,116180,116180
280.951,8.39194e-09,0,115674,115674
281,8.31857e-09,0,115256,115256
281.05,8.25463e-09,0,114952,114952
281.1,8.19841e-09,0,114716,114716
281.151,8.14869e-09,0,114110,114110
281.2,8.10723e-09,0,113468,113468
281.25,8.07342e-09,0,112876,112876
281.301,8.04628e-09,0,112430,112430
281.351,8.02502e-09,0,112210,112210
281.4,8.00603e-09,0,111404,111404
281.45,7.99116e-09,0,111098,111098
281.501,7.98322e-09,0,110886,110886
281.55,7.97505e-09,0,110042,110042
281.6,7.96881e-09,0,109794,109794
281.65,7.96644e-09,0,109862,109862
281.701,7.96586e-09,0,108752,108752
281.75,7.96724e-09,0,108584,108584
281.8,7.97157e-09,0,108074,108074
281.851,7.97688e-09,0,107698,107698
281.9,7.98263e-09,0,107466,107466
281.95,7.98851e-09,0,107004,107004
282,7.99429e-09,0,106532,106532
282.051,8e-09,0,106092,106092
282.1,8.00552e-09,0,105810,105810
282.15,8.01104e-09,0,105584,105584
282.2,8.01666e-09,0,105480,105480
282.251,8.02251e-09,0,105260,105260
282.3,8.02838e-09,0,105102,105102
282.35,8.03434e-09,0,104940,104940
282.401,8.0405e-09,0,104748,104748
282.45,8.0467e-09,0,104652,104652
282.5,8.05304e-09,0,104416,104416
282.55,8.05949e-09,0,104236,104236
282.601,8.06606e-09,0,104276,104276
282.65,8.07247e-09,0,104250,104250
282.7,8.07881e-09,0,104084,104084
282.751,8.08521e-09,0,103894,103894
282.801,8.09158e-09,0,103810,103810
282.85,8.09808e-09,0,103770,103770
282.9,8.10466e-09,0,103628,103628
282.951,8.11131e-09,0,103580,103580
283,8.11772e-09,0,103524,103524
283.05,8.12403e-09,0,103484,103484
283.1,8.1304e-09,0,103310,103310
283.151,8.13709e-09,0,103210,103210
283.2,8.14384e-09,0,103130,103130
283.25,8.15053e-09,0,103731,103731
283.301,8.15729e-09,0,104383,104383
283.35,8.16455e-09,0,105135,105135
283.4,8.1742e-09,0,105809,105809
283.45,8.18766e-09,0,106722,106722
283.501,8.20756e-09,0,107296,107296
283.55,8.24282e-09,0,108012,108012
283.6,8.27729e-09,0,108748,108748
283.65,8.31297e-09,0,109468,109468
283.701,8.36359e-09,0,110204,110204
283.75,8.45336e-09,0,110924,110924
283.8,8.60809e-09,0,111658,111658
283.851,8.8369e-09,0,112368,112368
283.9,9.11078e-09,0,113098,113098
283.95,9.39757e-09,0,113732,113732
284,9.67694e-09,0,114322,114322
284.051,9.96607e-09,0,115230,115230
284.1,1.02982e-08,0,115922,115922
284.15,1.07228e-08,0,116654,116654
284.201,1.12753e-08,0,117326,117326
284.251,1.19429e-08,0,118050,118050
284.3,1.27297e-08,0,118774,118774
284.35,1.36472e-08,0,119538,119538
284.401,1.47447e-08,0,120236,120236
284.45,1.60287e-08,0,120956,120956
284.5,1.75374e-08,0,121644,121644
284.55,1.92727e-08,0,122412,122412
284.601,2.12545e-08,0,123180,123180
284.65,2.342e-08,0,123964,123964
284.7,2.5805e-08,0,124732,124732
284.751,2.84655e-08,0,125484,125484
284.8,3.13301e-08,0,126220,126220
284.85,3.44174e-08,0,126152,126152
284.9,3.76828e-08,0,126616,126616
284.951,4.11202e-08,0,127580,127580
285,4.45857e-08,0,128702,128702
285.05,4.81171e-08,0,129226,129226
285.101,5.17839e-08,0,129580,129580
285.151,5.54892e-08,0,129924,129924
285.2,5.92521e-08,0,129848,129848
285.25,6.30041e-08,0,129840,129840
285.301,6.67693e-08,0,129726,129726
285.35,7.05472e-08,0,129698,129698
285.4,7.4674e-08,0,129632,129632
285.45,7.95115e-08,0,129632,129632
285.501,8.54014e-08,0,129872,129872
285.55,9.21338e-08,0,129736,129736
285.6,9.94273e-08,0,129510,129510
285.651,1.06851e-07,0,128817,128817
285.7,1.13712e-07,0,129402,129402
285.75,1.19928e-07,0,130148,130148
285.8,1.25686e-07,0,130506,130506
285.851,1.31584e-07,0,130976,130976
285.9,1.38116e-07,0,130928,130928
285.95,1.45955e-07,0,130880,130880
286,1.55503e-07,0,131002,131002
286.051,1.67183e-07,0,130888,130888
286.1,1.8089e-07,0,130952,130952
286.15,1.9716e-07,0,130948,130948
286.201,2.16876e-07,0,130996,130996
286.25,2.40124e-07,0,131004,131004
286.3,2.6766e-07,0,130962,130962
286.35,2.99608e-07,0,130968,130968
286.401,3.36173e-07,0,130916,130916
286.45,3.75548e-07,0,130888,130888
286.5,4.17376e-07,0,130838,130838
286.551,4.61618e-07,0,130770,130770
286.601,5.06567e-07,0,130816,130816
286.65,5.52508e-07,0,129520,129520
286.7,5.98779e-07,0,129032,129032
286.751,6.44751e-07,0,129120,129120
286.8,6.8718e-07,0,129320,129320
286.85,7.24608e-07,0,129596,129596
286.9,7.55182e-07,0,129774,129774
286.951,7.78036e-07,0,129740,129740
287,7.92286e-07,0,129962,129962
287.05,7.98926e-07,0,129912,129912
287.101,7.99022e-07,0,129728,129728
287.15,7.93795e-07,0,129690,129690
287.2,7.8424e-07,0,129380,129380
287.25,7.70849e-07,0,129354,129354
287.301,7.5335e-07,0,129502,129502
287.35,7.31878e-07,0,129474,129474
287.4,7.05652e-07,0,129510,129510
287.451,6.73635e-07,0,129566,129566
287.501,6.36485e-07,0,129636,129636
287.55,5.93977e-07,0,129638,129638
287.6,5.46898e-07,0,129384,129384
287.651,4.95846e-07,0,129450,129450
287.7,4.44039e-07,0,129062,129062
287.75,3.9252e-07,0,128840,128840
287.8,3.42786e-07,0,128494,128494
287.851,2.95206e-07,0,128346,128346
287.9,2.51683e-07,0,128178,128178
287.95,2.11587e-07,0,128414,128414
288.001,1.74203e-07,0,128514,128514
288.05,1.40319e-07,0,128196,128196
288.1,1.09162e-07,0,128142,128142
288.15,8.07387e-08,0,127958,127958
288.201,5.49416e-08,0,128084,128084
288.25,3.28665e-08,0,128200,128200
288.3,1.43077e-08,0,128840,128840
288.351,-1.13114e-09,0,128770,128770
288.401,-1.36296e-08,0,129166,129166
288.45,-2.42502e-08,0,129236,129236
288.5,-3.36387e-08,0,129430,129430
288.551,-4.21272e-08,0,129450,129450
288.6,-4.9267e-08,0,129530,129530
288.65,-5.48292e-08,0,129524,129524
288.7,-5.8613e-08,0,129770,129770
288.751,-6.07812e-08,0,129818,129818
288.8,-6.1737e-08,0,129930,129930
288.85,-6.21029e-08,0,130052,130052
288.901,-6.23252e-08,0,130196,130196
288.95,-6.25184e-08,0,130338,130338
289,-6.24654e-08,0,130310,130310
289.05,-6.17762e-08,0,130414,130414
289.101,-6.01029e-08,0,130282,130282
289.15,-5.74279e-08,0,130266,130266
289.2,-5.3933e-08,0,130242,130242
289.25,-4.99561e-08,0,130168,130168
289.301,-4.57605e-08,0,129940,129940
289.35,-4.169e-08,0,130042,130042
289.4,-3.77956e-08,0,130070,130070
289.451,-3.40753e-08,0,130306,130306
289.5,-3.06694e-08,0,130510,130510
289.55,-2.75515e-08,0,130556,130556
289.6,-2.47368e-08,0,130580,130580
289.651,-2.21782e-08,0,130630,130630
289.7,-1.9915e-08,0,130646,130646
289.75,-1.78708e-08,0,130610,130610
289.801,-1.59988e-08,0,130554,130554
289.851,-1.43497e-08,0,130418,130418
289.9,-1.28992e-08,0,130436,130436
289.95,-1.16487e-08,0,130232,130232
290.001,-1.05787e-08,0,130160,130160
290.05,-9.70921e-09,0,129838,129838
290.1,-9.00929e-09,0,129810,129810
290.15,-8.46357e-09,0,129542,129542
290.201,-8.05075e-09,0,129518,129518
290.25,-7.76568e-09,0,129164,129164
290.3,-7.58449e-09,0,128728,128728
290.351,-7.48986e-09,0,127794,127794
290.4,-7.47069e-09,0,127692,127692
290.45,-7.50082e-09,0,128370,128370
290.5,-7.57935e-09,0,128626,128626
290.551,-7.70332e-09,0,129702,129702
290.6,-7.86103e-09,0,129658,129658
290.65,-8.04705e-09,0,128034,128034
290.701,-8.25901e-09,0,126390,126390
290.751,-8.48372e-09,0,126252,126252
290.8,-8.7165e-09,0,124950,124950
290.85,-8.95025e-09,0,124898,124898
290.901,-9.1829e-09,0,124852,124852
290.95,-9.40448e-09,0,125114,125114
291,-9.61713e-09,0,125252,125252
291.05,-9.82056e-09,0,124782,124782
291.101,-1.00171e-08,0,123794,123794
291.15,-1.01997e-08,0,122724,122724
291.2,-1.03694e-08,0,122022,122022
291.251,-1.0526e-08,0,122236,122236
291.3,-1.06632e-08,0,123590,123590
291.35,-1.07819e-08,0,122658,122658
291.4,-1.08822e-08,0,121616,121616
291.451,-1.09655e-08,0,121692,121692
291.5,-1.10293e-08,0,122196,122196
291.55,-1.10757e-08,0,123614,123614
291.6,-1.11074e-08,0,123514,123514
291.651,-1.11284e-08,0,124052,124052
291.7,-1.1142e-08,0,124086,124086
291.75,-1.11475e-08,0,124224,124224
291.801,-1.1146e-08,0,123758,123758
291.85,-1.11392e-08,0,122706,122706
291.9,-1.11266e-08,0,121768,121768
291.95,-1.111e-08,0,122092,122092
292.001,-1.10911e-08,0,121748,121748
292.05,-1.10717e-08,0,120800,120800
292.1,-1.10532e-08,0,122078,122078
292.151,-1.10358e-08,0,121140,121140
292.2,-1.1021e-08,0,120542,120542
292.25,-1.10084e-08,0,120792,120792
292.3,-1.09979e-08,0,121882,121882
292.351,-1.09907e-08,0,121868,121868
292.4,-1.0988e-08,0,121384,121384
292.45,-1.09892e-08,0,120874,120874
292.5,-1.09946e-08,0,120508,120508
292.551,-1.10083e-08,0,120164,120164
292.6,-1.10271e-08,0,119372,119372
292.65,-1.10523e-08,0,118738,118738
292.701,-1.10837e-08,0,118144,118144
292.75,-1.11184e-08,0,118154,118154
292.8,-1.11607e-08,0,117956,117956
292.85,-1.1209e-08,0,118014,118014
292.901,-1.12635e-08,0,118332,118332
292.95,-1.13232e-08,0,118270,118270
293,-1.13904e-08,0,118330,118330
293.051,-1.14665e-08,0,118046,118046
293.101,-1.1548e-08,0,118210,118210
293.15,-1.16351e-08,0,118168,118168
293.2,-1.17277e-08,0,118426,118426
293.251,-1.18274e-08,0,118320,118320
293.3,-1.19318e-08,0,118412,118412
293.35,-1.20433e-08,0,118482,118482
293.4,-1.21628e-08,0,118873,118873
293.451,-1.22934e-08,0,119624,119624
293.5,-1.24326e-08,0,120463,120463
293.55,-1.25842e-08,0,120947,120947
293.601,-1.27526e-08,0,121581,121581
293.65,-1.29349e-08,0,122253,122253
293.7,-1.31355e-08,0,122577,122577
293.75,-1.33565e-08,0,123303,123303
293.801,-1.36032e-08,0,124013,124013
293.85,-1.38697e-08,0,124627,124627
293.9,-1.41603e-08,0,125281,125281
293.951,-1.44802e-08,0,125865,125865
294.001,-1.48201e-08,0,126765,126765
294.05,-1.51838e-08,0,127511,127511
294.1,-1.557e-08,0,128312,128312
294.151,-1.59825e-08,0,129026,129026
294.2,-1.64063e-08,0,129584,129584
294.25,-1.6843e-08,0,130179,130179
294.3,-1.72881e-08,0,130414,130414
294.351,-1.77435e-08,0,130572,130572
294.4,-1.81911e-08,0,130604,130604
294.45,-1.86334e-08,0,130678,130678
294.501,-1.90729e-08,0,130616,130616
294.55,-1.94938e-08,0,130624,130624
294.6,-1.98998e-08,0,130654,130654
294.65,-2.02882e-08,0,130684,130684
294.701,-2.06617e-08,0,130672,130672
294.75,-2.10069e-08,0,130588,130588
294.8,-2.13264e-08,0,130654,130654
294.85,-2.16176e-08,0,130552,130552
294.901,-2.18816e-08,0,130598,130598
294.95,-2.21085e-08,0,130390,130390
295,-2.23014e-08,0,130494,130494
295.051,-2.24616e-08,0,130540,130540
295.1,-2.25845e-08,0,130532,130532
295.15,-2.26733e-08,0,130004,130004
295.2,-2.27303e-08,0,130394,130394
295.251,-2.27584e-08,0,130536,130536
295.3,-2.2759e-08,0,130406,130406
295.35,-2.27382e-08,0,130058,130058
295.401,-2.26933e-08,0,129994,129994
295.451,-2.26285e-08,0,129966,129966
295.5,-2.25466e-08,0,129926,129926
295.55,-2.245e-08,0,129838,129838
295.601,-2.2339e-08,0,129698,129698
295.65,-2.22193e-08,0,129734,129734
295.7,-2.20912e-08,0,129756,129756
295.75,-2.19566e-08,0,129626,129626
295.801,-2.1815e-08,0,129616,129616
295.85,-2.16718e-08,0,129476,129476
295.9,-2.15262e-08,0,129486,129486
295.951,-2.13771e-08,0,129394,129394
296,-2.12298e-08,0,129306,129306
296.05,-2.10831e-08,0,129312,129312
296.1,-2.0938e-08,0,129384,129384
296.151,-2.07932e-08,0,129374,129374
296.2,-2.06534e-08,0,129366,129366
296.25,-2.0517e-08,0,129292,129292
296.301,-2.03821e-08,0,129226,129226
296.351,-2.02531e-08,0,129218,129218
296.4,-2.01281e-08,0,129176,129176
296.45,-2.00076e-08,0,129210,129210
296.501,-1.98902e-08,0,129128,129128
296.55,-1.97796e-08,0,129028,129028
296.6,-1.96743e-08,0,128748,128748
296.65,-1.95744e-08,0,128036,128036
296.701,-1.94782e-08,0,127522,127522
296.75,-1.93884e-08,0,127338,127338
296.8,-1.93032e-08,0,127114,127114
296.851,-1.92212e-08,0,127140,127140
296.9,-1.91443e-08,0,127146,127146
296.95,-1.9071e-08,0,127827,127827
297,-1.90007e-08,0,128154,128154
297.051,-1.89323e-08,0,126984,126984
297.1,-1.88673e-08,0,126540,126540
297.15,-1.88045e-08,0,126416,126416
297.2,-1.87433e-08,0,126352,126352
297.251,-1.86828e-08,0,125568,125568
297.3,-1.86243e-08,0,124010,124010
297.35,-1.85666e-08,0,123464,123464
297.401,-1.85088e-08,0,123472,123472
297.45,-1.84521e-08,0,123242,123242
297.5,-1.83956e-08,0,122774,122774
297.55,-1.83391e-08,0,122344,122344
297.601,-1.82814e-08,0,121920,121920
297.65,-1.82242e-08,0,121486,121486
297.7,-1.81665e-08,0,120722,120722
297.751,-1.81073e-08,0,119438,119438
297.801,-1.80482e-08,0,119044,119044
297.85,-1.79882e-08,0,118636,118636
297.9,-1.79272e-08,0,118158,118158
297.951,-1.78642e-08,0,116798,116798
298,-1.7801e-08,0,116312,116312
298.05,-1.77366e-08,0,115968,115968
298.1,-1.7671e-08,0,116086,116086
298.151,-1.76029e-08,0,115896,115896
298.2,-1.75343e-08,0,115374,115374
298.25,-1.7464e-08,0,114984,114984
298.301,-1.73909e-08,0,114824,114824
298.35,-1.73168e-08,0,114642,114642
298.4,-1.72405e-08,0,114306,114306
298.45,-1.71618e-08,0,114180,114180
298.501,-1.70791e-08,0,113774,113774
298.55,-1.69947e-08,0,113538,113538
298.6,-1.69071e-08,0,113304,113304
298.651,-1.68147e-08,0,113056,113056
298.701,-1.67199e-08,0,112872,112872
298.75,-1.6621e-08,0,112876,112876
298.8,-1.6518e-08,0,112800,112800
298.851,-1.64089e-08,0,112378,112378
298.9,-1.62966e-08,0,111926,111926
298.95,-1.61796e-08,0,111868,111868
299,-1.60577e-08,0,111854,111854
299.051,-1.5929e-08,0,111968,111968
299.1,-1.57972e-08,0,111540,111540
299.15,-1.56603e-08,0,111358,111358
299.201,-1.55164e-08,0,111214,111214
299.25,-1.53696e-08,0,111552,111552
299.3,-1.52178e-08,0,111066,111066
299.35,-1.5061e-08,0,111486,111486
299.401,-1.48965e-08,0,111536,111536
299.45,-1.4729e-08,0,111592,111592
299.5,-1.45559e-08,0,111798,111798
299.55,-1.4377e-08,0,111808,111808
299.601,-1.41893e-08,0,112158,112158
299.65,-1.39982e-08,0,112844,112844
299.7,-1.38014e-08,0,112962,112962
299.751,-1.35959e-08,0,113038,113038
299.8,-1.3388e-08,0,113440,113440
299.85,-1.31748e-08,0,113702,113702
299.9,-1.2956e-08,0,113668,113668
299.951,-1.27278e-08,0,113700,113700
300,-1.24959e-08,0,113656,113656
300.05,-1.22561e-08,0,113634,113634
300.101,-1.2003e-08,0,113854,113854
300.151,-1.17423e-08,0,116370,116370
300.2,-1.14684e-08,0,116708,116708
300.25,-1.1179e-08,0,117030,117030
300.301,-1.0867e-08,0,118110,118110
300.35,-1.0539e-08,0,118344,118344
300.4,-1.01881e-08,0,118596,118596
300.45,-9.81237e-09,0,119226,119226
300.501,-9.40388e-09,0,119218,119218
300.55,-8.97325e-09,0,119232,119232
300.6,-8.51404e-09,0,119226,119226
300.651,-8.01873e-09,0,119208,119208
300.7,-7.50224e-09,0,119194,119194
300.75,-6.95901e-09,0,119170,119170
300.8,-6.39142e-09,0,119162,119162
300.851,-5.79407e-09,0,119162,119162
300.9,-5.18863e-09,0,119170,119170
300.95,-4.5716e-09,0,119134,119134
301.001,-3.93919e-09,0,119108,119108
301.051,-3.31518e-09,0,119114,119114
301.1,-2.69552e-09,0,120390,120390
301.15,-2.08482e-09,0,121412,121412
301.201,-1.47846e-09,0,122906,122906
301.25,-8.97689e-10,0,125378,125378
301.3,-3.36925e-10,0,125422,125422
301.35,2.00627e-10,0,125364,125364
301.401,7.19058e-10,0,125324,125324
301.45,1.20005e-09,0,125286,125286
301.5,1.64813e-09,0,125272,125272
301.551,2.06609e-09,0,125212,125212
301.6,2.43928e-09,0,125176,125176
301.65,2.77223e-09,0,125268,125268
301.7,3.06405e-09,0,125168,125168
301.751,3.31816e-09,0,125144,125144
301.8,3.52821e-09,0,125120,125120
301.85,3.7e-09,0,125102,125102
301.9,3.83584e-09,0,125040,125040
301.951,3.93952e-09,0,125056,125056
302,4.01133e-09,0,125038,125038
302.05,4.05643e-09,0,125054,125054
302.101,4.06741e-09,0,125048,125048
302.15,4.06433e-09,0,124690,124690
302.2,4.04643e-09,0,123454,123454
302.25,4.00551e-09,0,122818,122818
302.301,3.9503e-09,0,122244,122244
302.35,3.8845e-09,0,121774,121774
302.4,3.80985e-09,0,120518,120518
302.451,3.72703e-09,0,118950,118950
302.5,3.64019e-09,0,117272,117272
302.55,3.54967e-09,0,115722,115722
302.6,3.45682e-09,0,114422,114422
302.651,3.36151e-09,0,113618,113618
302.7,3.26767e-09,0,112478,112478
302.75,3.17492e-09,0,111346,111346
302.8,3.08403e-09,0,110616,110616
302.851,2.9943e-09,0,109128,109128
302.9,2.9088e-09,0,107468,107468
302.95,2.82671e-09,0,105718,105718
303.001,2.74753e-09,0,103778,103778
303.05,2.6743e-09,0,102332,102332
303.1,2.60655e-09,0,100138,100138
303.15,2.54496e-09,0,99196,99196
303.201,2.48926e-09,0,98460,98460
303.25,2.44132e-09,0,97758,97758
303.3,2.40038e-09,0,96268,96268
303.351,2.36589e-09,0,95224,95224
303.401,2.33861e-09,0,94698,94698
303.45,2.31766e-09,0,93734,93734
303.5,2.30279e-09,0,92846,92846
303.551,2.29283e-09,0,91826,91826
303.6,2.28884e-09,0,90928,90928
303.65,2.28828e-09,0,89934,89934
303.7,2.28853e-09,0,89086,89086
303.751,2.28965e-09,0,88571,88571
303.8,2.29127e-09,0,88696,88696
303.85,2.293e-09,0,88346,88346
303.901,2.29439e-09,0,88100,88100
303.95,2.29504e-09,0,87162,87162
304,2.29457e-09,0,85786,85786
304.05,2.29268e-09,0,84770,84770
304.101,2.28946e-09,0,83838,83838
304.15,2.28382e-09,0,83082,83082
304.2,2.2764e-09,0,82524,82524
304.251,2.26796e-09,0,81356,81356
304.301,2.25937e-09,0,80686,80686
304.35,2.25121e-09,0,80002,80002
304.4,2.24385e-09,0,79062,79062
304.451,2.2372e-09,0,79064,79064
304.5,2.23116e-09,0,78286,78286
304.55,2.22525e-09,0,77316,77316
304.6,2.21915e-09,0,76560,76560
304.651,2.2126e-09,0,75956,75956
304.7,2.20588e-09,0,75430,75430
304.75,2.19921e-09,0,74960,74960
304.801,2.19302e-09,0,74450,74450
304.85,2.18812e-09,0,73486,73486
304.9,2.1852e-09,0,73232,73232
304.95,2.18477e-09,0,72624,72624
