250,0,0,8192,8192
250.003,0,0,8192,8192
250.053,0,0,8192,8192
250.103,0,0,8192,8192
250.152,0,0,8192,8192
250.202,0,0,8192,8192
250.252,0,0,8192,8192
250.302,0,0,8192,8192
250.352,-1.38778e-17,0,8192,8192
250.401,-1.38778e-17,0,8192,8192
250.451,-2.77556e-17,0,8192,8192
250.501,-2.77556e-17,0,8192,8192
250.551,-1.38778e-17,0,8192,8192
250.6,-1.38778e-17,0,8192,8192
250.65,-1.38778e-17,0,8192,8192
250.7,-4.16334e-17,0,8192,8192
250.753,-1.38778e-17,0,8192,8192
250.803,0,0,8192,8192
250.852,0,0,8192,8192
250.902,0,0,8192,8192
250.952,0,0,8192,8192
251.002,-1.38778e-17,0,8192,8192
251.052,0,0,8192,8192
251.101,0,0,8192,8192
251.151,0,0,8192,8192
251.201,0,0,8192,8192
251.251,0,0,8192,8192
251.301,0,0,8192,8192
251.35,1.38778e-17,0,8192,8192
251.4,1.38778e-17,0,8192,8192
251.453,1.38778e-17,0,8192,8192
251.503,1.38778e-17,0,8192,8192
251.553,1.38778e-17,0,8192,8192
251.602,1.38778e-17,0,8192,8192
251.652,0,0,8192,8192
251.702,0,0,8192,8192
251.752,0,0,8192,8192
251.801,0,0,8192,8192
251.851,0,0,8192,8192
251.901,0,0,8192,8192
251.951,0,0,8192,8192
252.001,-1.38778e-17,0,8192,8192
252.05,0,0,8192,8192
252.1,-1.38778e-17,0,8192,8192
252.15,0,0,8192,8192
252.203,0,0,8192,8192
252.253,0,0,8192,8192
252.302,0,0,8192,8192
252.352,0,0,8192,8192
252.402,0,0,8192,8192
252.452,0,0,8192,8192
252.502,0,0,8192,8192
252.551,0,0,8192,8192
252.601,0,0,8192,8192
252.651,-1.38778e-17,0,8192,8192
252.701,0,0,8192,8192
252.751,0,0,8192,8192
252.8,0,0,8192,8192
252.85,-1.38778e-17,0,8192,8192
252.903,1.38778e-17,0,8192,8192
252.953,2.77556e-17,0,8192,8192
253.002,2.77556e-17,0,8192,8192
253.052,2.77556e-17,0,8192,8192
253.102,2.77556e-17,0,8192,8192
253.152,4.16334e-17,0,8192,8192
253.202,4.16334e-17,0,8192,8192
253.251,2.77556e-17,0,8192,8192
253.301,2.77556e-17,0,8192,8192
253.351,4.16334e-17,0,8192,8192
253.401,2.77556e-17,0,8192,8192
253.451,2.77556e-17,0,8192,8192
253.5,2.77556e-17,0,8192,8192
253.55,2.77556e-17,0,8192,8192
253.6,1.38778e-17,0,8192,8192
253.653,1.38778e-17,0,8192,8192
253.703,1.38778e-17,0,8192,8192
253.752,1.38778e-17,0,8192,8192
253.802,0,0,8192,8192
253.852,-1.38778e-17,0,8192,8192
253.902,-1.38778e-17,0,8192,8192
253.952,0,0,8192,8192
254.001,0,0,8192,8192
254.051,1.38778e-17,0,8192,8192
254.101,1.38778e-17,0,8192,8192
254.151,2.77556e-17,0,8192,8192
254.201,1.38778e-17,0,8192,8192
254.25,2.77556e-17,0,8192,8192
254.3,2.77556e-17,0,8192,8192
254.353,2.77556e-17,0,8192,8192
254.403,1.38778e-17,0,8192,8192
254.452,1.38778e-17,0,8192,8192
254.502,1.38778e-17,0,8192,8192
254.552,1.38778e-17,0,8192,8192
254.602,1.38778e-17,0,8192,8192
254.652,2.77556e-17,0,8192,8192
254.701,2.77556e-17,0,8192,8192
254.751,0,0,8192,8192
254.801,0,0,8192,8192
254.851,-1.38778e-17,0,8192,8192
254.901,0,0,8192,8192
254.95,-2.77556e-17,0,8192,8192
255,-1.38778e-17,0,8192,8192
255.05,0,0,8192,8192
255.103,0,0,8192,8192
255.153,1.38778e-17,0,8192,8192
255.202,2.77556e-17,0,8192,8192
255.252,1.38778e-17,0,8192,8192
255.302,1.38778e-17,0,8192,8192
255.352,1.38778e-17,0,8192,8192
255.402,2.77556e-17,0,8192,8192
255.451,2.77556e-17,0,8192,8192
255.501,2.77556e-17,0,8192,8192
255.551,1.38778e-17,0,8192,8192
255.601,1.38778e-17,0,8192,8192
255.651,1.38778e-17,0,8192,8192
255.7,2.77556e-17,0,8192,8192
255.75,2.77556e-17,0,8192,8192
255.803,1.38778e-17,0,8192,8192
255.853,1.38778e-17,0,8192,8192
255.902,1.38778e-17,0,8192,8192
255.952,1.38778e-17,0,8192,8192
256.002,1.38778e-17,0,8192,8192
256.052,1.38778e-17,0,8192,8192
256.102,0,0,8192,8192
256.151,-1.38778e-17,0,8192,8192
256.201,0,0,8192,8192
256.251,0,0,8192,8192
256.301,-1.38778e-17,0,8192,8192
256.351,0,0,8192,8192
256.4,0,0,8192,8192
256.45,0,0,8192,8192
256.5,-1.38778e-17,0,8192,8192
256.553,-1.38778e-17,0,8192,8192
256.603,-2.77556e-17,0,8192,8192
256.652,-1.38778e-17,0,8192,8192
256.702,-1.38778e-17,0,8192,8192
256.752,-2.77556e-17,0,8192,8192
256.802,0,0,8192,8192
256.852,0,0,8192,8192
256.901,0,0,8192,8192
256.951,0,0,8192,8192
257.001,0,0,8192,8192
257.051,0,0,8192,8192
257.101,0,0,8192,8192
257.15,0,0,8192,8192
257.2,0,0,8192,8192
257.253,0,0,8192,8192
257.303,0,0,8192,8192
257.352,1.38778e-17,0,8192,8192
257.402,2.77556e-17,0,8192,8192
257.452,1.38778e-17,0,8192,8192
257.502,2.77556e-17,0,8192,8192
257.552,1.38778e-17,0,8192,8192
257.601,2.77556e-17,0,8192,8192
257.651,4.16334e-17,0,8192,8192
257.701,4.16334e-17,0,8192,8192
257.751,2.77556e-17,0,8192,8192
257.801,2.77556e-17,0,8192,8192
257.85,4.16334e-17,0,8192,8192
257.9,4.16334e-17,0,8192,8192
257.95,2.77556e-17,0,8192,8192
258.003,1.38778e-17,0,8192,8192
258.053,1.38778e-17,0,8192,8192
258.102,1.38778e-17,0,8192,8192
258.152,2.77556e-17,0,8192,8192
258.202,2.77556e-17,0,8192,8192
258.252,2.77556e-17,0,8192,8192
258.302,2.77556e-17,0,8192,8192
258.351,2.77556e-17,0,8192,8192
258.401,1.38778e-17,0,8192,8192
258.451,1.38778e-17,0,8192,8192
258.501,1.38778e-17,0,8192,8192
258.551,1.38778e-17,0,8192,8192
258.6,1.38778e-17,0,8192,8192
258.65,1.38778e-17,0,8192,8192
258.703,2.77556e-17,0,8192,8192
258.753,2.77556e-17,0,8192,8192
258.802,2.77556e-17,0,8192,8192
258.852,1.38778e-17,0,8192,8192
258.902,1.38778e-17,0,8192,8192
258.952,2.77556e-17,0,8192,8192
259.002,2.77556e-17,0,8192,8192
259.051,1.38778e-17,0,8192,8192
259.101,1.38778e-17,0,8192,8192
259.151,2.77556e-17,0,8192,8192
259.201,2.77556e-17,0,8192,8192
259.251,1.38778e-17,0,8192,8192
259.3,2.77556e-17,0,8192,8192
259.35,2.77556e-17,0,8192,8192
259.403,1.38778e-17,0,8192,8192
259.453,2.77556e-17,0,8192,8192
259.503,2.77556e-17,0,8192,8192
259.552,2.77556e-17,0,8192,8192
259.602,4.16334e-17,0,8192,8192
259.652,2.77556e-17,0,8192,8192
259.702,2.77556e-17,0,8192,8192
259.751,2.77556e-17,0,8192,8192
259.801,2.77556e-17,0,8192,8192
259.851,4.16334e-17,0,8192,8192
259.901,4.16334e-17,0,8192,8192
259.951,4.16334e-17,0,8192,8192
260,2.77556e-17,0,8192,8192
260.05,4.16334e-17,0,8192,8192
260.1,4.16334e-17,0,8192,8192
260.153,4.16334e-17,0,8192,8192
260.203,2.77556e-17,0,8192,8192
260.252,5.55112e-17,0,8192,8192
260.302,5.55112e-17,0,8192,8192
260.352,2.77556e-17,0,8192,8192
260.402,1.38778e-17,0,8192,8192
260.452,1.38778e-17,0,8192,8192
260.501,1.38778e-17,0,8192,8192
260.551,1.38778e-17,0,8192,8192
260.601,1.38778e-17,0,8192,8192
260.651,2.77556e-17,0,8192,8192
260.701,2.77556e-17,0,8192,8192
260.75,2.77556e-17,0,8192,8192
260.8,2.77556e-17,0,8192,8192
260.853,2.77556e-17,0,8192,8192
260.903,2.77556e-17,0,8192,8192
260.952,2.77556e-17,0,8192,8192
261.002,2.77556e-17,0,8192,8192
261.052,4.16334e-17,0,8192,8192
261.102,1.38778e-17,0,8192,8192
261.152,1.38778e-17,0,8192,8192
261.201,1.38778e-17,0,8192,8192
261.251,2.77556e-17,0,8192,8192
261.301,2.77556e-17,0,8192,8192
261.351,2.77556e-17,0,8192,8192
261.401,2.77556e-17,0,8192,8192
261.45,2.77556e-17,0,8192,8192
261.5,4.16334e-17,0,8192,8192
261.55,2.77556e-17,0,8192,8192
261.603,0,0,8192,8192
261.653,2.77556e-17,0,8192,8192
261.702,4.16334e-17,0,8192,8192
261.752,2.77556e-17,0,8192,8192
261.802,0,0,8192,8192
261.852,0,0,8192,8192
261.902,0,0,8192,8192
261.951,0,0,8192,8192
262.001,0,0,8192,8192
262.051,0,0,8192,8192
262.101,0,0,8192,8192
262.151,0,0,8192,8192
262.2,0,0,8192,8192
262.25,0,0,8192,8192
262.303,0,0,8192,8192
262.353,-1.38778e-17,0,8192,8192
262.402,-1.38778e-17,0,8192,8192
262.452,-1.38778e-17,0,8192,8192
262.502,-1.38778e-17,0,8192,8192
262.552,-1.38778e-17,0,8192,8192
262.602,0,0,8192,8192
262.651,0,0,8192,8192
262.701,0,0,8192,8192
262.751,0,0,8192,8192
262.801,0,0,8192,8192
262.851,0,0,8192,8192
262.9,0,0,8192,8192
262.95,0,0,8192,8192
263,-1.38778e-17,0,8192,8192
263.053,-1.38778e-17,0,8192,8192
263.103,-4.16334e-17,0,8192,8192
263.152,-2.77556e-17,0,8192,8192
263.202,-2.77556e-17,0,8192,8192
263.252,-2.77556e-17,0,8192,8192
263.302,-2.77556e-17,0,8192,8192
263.352,-2.77556e-17,0,8192,8192
263.401,-2.77556e-17,0,8192,8192
263.451,-2.77556e-17,0,8192,8192
263.501,-1.38778e-17,0,8192,8192
263.551,-1.38778e-17,0,8192,8192
263.601,-2.77556e-17,0,8192,8192
263.65,-2.77556e-17,0,8192,8192
263.7,1.38778e-17,0,8192,8192
263.753,1.38778e-17,0,8192,8192
263.803,-1.38778e-17,0,8192,8192
263.852,-1.38778e-17,0,8192,8192
263.902,-1.38778e-17,0,8192,8192
263.952,-1.38778e-17,0,8192,8192
264.002,0,0,8192,8192
264.052,-2.77556e-17,0,8192,8192
264.101,-1.38778e-17,0,8192,8192
264.151,-4.16334e-17,0,8192,8192
264.201,0,0,8192,8192
264.251,-1.38778e-17,0,8192,8192
264.301,0,0,8192,8192
264.35,-1.38778e-17,0,8192,8192
264.4,0,0,8192,8192
264.45,0,0,8192,8192
264.503,0,0,8192,8192
264.553,0,0,8192,8192
264.602,0,0,8192,8192
264.652,0,0,8192,8192
264.702,1.38778e-17,0,8192,8192
264.752,0,0,8192,8192
264.802,0,0,8192,8192
264.851,0,0,8192,8192
264.901,-1.38778e-17,0,8192,8192
264.951,-1.38778e-17,0,8192,8192
265.001,-1.38778e-17,0,8192,8192
265.051,0,0,8192,8192
265.1,0,0,8192,8192
265.15,0,0,8192,8192
265.203,1.38778e-17,0,8192,8192
265.253,1.38778e-17,0,8192,8192
265.302,1.38778e-17,0,8192,8192
265.352,1.38778e-17,0,8192,8192
265.402,0,0,8192,8192
265.452,0,0,8192,8192
265.502,0,0,8192,8192
265.551,0,0,8192,8192
265.601,0,0,8192,8192
265.651,0,0,8192,8192
265.701,1.38778e-17,0,8192,8192
265.751,1.38778e-17,0,8192,8192
265.8,2.77556e-17,0,8192,8192
265.85,2.77556e-17,0,8192,8192
265.9,1.38778e-17,0,8192,8192
265.953,2.77556e-17,0,8192,8192
266.003,2.77556e-17,0,8192,8192
266.052,2.77556e-17,0,8192,8192
266.102,1.38778e-17,0,8192,8192
266.152,1.38778e-17,0,8192,8192
266.202,2.77556e-17,0,8192,8192
266.252,1.38778e-17,0,8192,8192
266.301,1.38778e-17,0,8192,8192
266.351,0,0,8192,8192
266.401,0,0,8192,8192
266.451,-1.38778e-17,0,8192,8192
266.501,0,0,8192,8192
266.55,0,0,8192,8192
266.6,0,0,8192,8192
266.653,0,0,8192,8192
266.703,1.38778e-17,0,8192,8192
266.752,0,0,8192,8192
266.802,2.77556e-17,0,8192,8192
266.852,2.77556e-17,0,8192,8192
266.902,1.38778e-17,0,8192,8192
266.952,1.38778e-17,0,8192,8192
267.001,0,0,8192,8192
267.051,0,0,8192,8192
267.101,0,0,8192,8192
267.151,1.38778e-17,0,8192,8192
267.201,2.77556e-17,0,8192,8192
267.25,2.77556e-17,0,8192,8192
267.3,4.16334e-17,0,8192,8192
267.353,4.16334e-17,0,8192,8192
267.403,6.93889e-17,0,8192,8192
267.453,6.93889e-17,0,8192,8192
267.502,5.55112e-17,0,8192,8192
267.552,2.77556e-17,0,8192,8192
267.602,2.77556e-17,0,8192,8192
267.652,2.77556e-17,0,8192,8192
267.702,1.38778e-17,0,8192,8192
267.751,1.38778e-17,0,8192,8192
267.801,1.38778e-17,0,8192,8192
267.851,2.77556e-17,0,8192,8192
267.901,1.38778e-17,0,8192,8192
267.95,1.38778e-17,0,8192,8192
268,1.38778e-17,0,8192,8192
268.05,2.77556e-17,0,8192,8192
268.103,2.77556e-17,0,8192,8192
268.153,1.38778e-17,0,8192,8192
268.202,1.38778e-17,0,8192,8192
268.252,1.38778e-17,0,8192,8192
268.302,1.38778e-17,0,8192,8192
268.352,1.38778e-17,0,8192,8192
268.402,1.38778e-17,0,8192,8192
268.451,2.77556e-17,0,8192,8192
268.501,2.77556e-17,0,8192,8192
268.551,4.16334e-17,0,8192,8192
268.601,2.77556e-17,0,8192,8192
268.651,2.77556e-17,0,8192,8192
268.7,4.16334e-17,0,8192,8192
268.75,2.77556e-17,0,8192,8192
268.803,2.77556e-17,0,8192,8192
268.853,4.16334e-17,0,8192,8192
268.902,4.16334e-17,0,8192,8192
268.952,4.16334e-17,0,8192,8192
269.002,4.16334e-17,0,8192,8192
269.052,4.16334e-17,0,8192,8192
269.102,2.77556e-17,0,8192,8192
269.151,2.77556e-17,0,8192,8192
269.201,2.77556e-17,0,8192,8192
269.251,1.38778e-17,0,8192,8192
269.301,1.38778e-17,0,8192,8192
269.351,1.38778e-17,0,8192,8192
269.4,1.38778e-17,0,8192,8192
269.45,1.38778e-17,0,8192,8192
269.5,1.38778e-17,0,8192,8192
269.553,1.38778e-17,0,8192,8192
269.603,0,0,8192,8192
269.652,-2.77556e-17,0,8192,8192
269.702,-5.55112e-17,0,8192,8192
269.752,-4.16334e-17,0,8192,8192
269.802,-2.77556e-17,0,8192,8192
269.852,-2.77556e-17,0,8192,8192
269.901,-2.77556e-17,0,8192,8192
269.951,0,0,8192,8192
270.001,0,0,8192,8192
270.051,0,0,8192,8192
270.101,0,0,8192,8192
270.15,0,0,8192,8192
270.2,0,0,8192,8192
270.253,0,0,8192,8192
270.303,-1.38778e-17,0,8192,8192
270.352,-1.38778e-17,0,8192,8192
270.402,-1.38778e-17,0,8192,8192
270.452,-2.77556e-17,0,8192,8192
270.502,-2.77556e-17,0,8192,8192
270.552,-4.16334e-17,0,8192,8192
270.601,-2.77556e-17,0,8192,8192
270.651,-2.77556e-17,0,8192,8192
270.701,-2.77556e-17,0,8192,8192
270.751,-2.77556e-17,0,8192,8192
270.801,-1.38778e-17,0,8192,8192
270.85,0,0,8192,8192
270.9,-1.38778e-17,0,8192,8192
270.95,-1.38778e-17,0,8192,8192
271.003,-1.38778e-17,0,8192,8192
271.053,-1.38778e-17,0,8192,8192
271.102,0,0,8192,8192
271.152,0,0,8192,8192
271.202,-1.38778e-17,0,8192,8192
271.252,-1.38778e-17,0,8192,8192
271.302,-1.38778e-17,0,8192,8192
271.351,-4.16334e-17,0,8192,8192
271.401,-1.38778e-17,0,8192,8192
271.451,0,0,8192,8192
271.501,0,0,8192,8192
271.551,0,0,8192,8192
271.6,0,0,8192,8192
271.65,0,0,8192,8192
271.703,0,0,8192,8192
271.753,0,0,8192,8192
271.802,0,0,8192,8192
271.852,0,0,8192,8192
271.902,-1.38778e-17,0,8192,8192
271.952,-2.77556e-17,0,8192,8192
272.002,-2.77556e-17,0,8192,8192
272.051,-2.77556e-17,0,8192,8192
272.101,-2.77556e-17,0,8192,8192
272.151,-1.38778e-17,0,8192,8192
272.201,-2.77556e-17,0,8192,8192
272.251,-4.16334e-17,0,8192,8192
272.3,-2.77556e-17,0,8192,8192
272.35,-2.77556e-17,0,8192,8192
272.4,-4.16334e-17,0,8192,8192
272.453,-2.77556e-17,0,8192,8192
272.503,-2.77556e-17,0,8192,8192
272.552,-2.77556e-17,0,8192,8192
272.602,-2.77556e-17,0,8192,8192
272.652,-2.77556e-17,0,8192,8192
272.702,-2.77556e-17,0,8192,8192
272.752,-4.16334e-17,0,8192,8192
272.801,-4.16334e-17,0,8192,8192
272.851,-4.16334e-17,0,8192,8192
272.901,-4.16334e-17,0,8192,8192
272.951,-5.55112e-17,0,8192,8192
273.001,-5.55112e-17,0,8192,8192
273.05,-5.55112e-17,0,8192,8192
273.1,-2.77556e-17,0,8192,8192
273.153,-4.16334e-17,0,8192,8192
273.203,-4.16334e-17,0,8192,8192
273.252,-4.16334e-17,0,8192,8192
273.302,-4.16334e-17,0,8192,8192
273.352,-4.16334e-17,0,8192,8192
273.402,-4.16334e-17,0,8192,8192
273.452,-2.77556e-17,0,8192,8192
273.501,-1.38778e-17,0,8192,8192
273.551,-1.38778e-17,0,8192,8192
273.601,-4.16334e-17,0,8192,8192
273.651,-2.77556e-17,0,8192,8192
273.701,-4.16334e-17,0,8192,8192
273.75,-2.77556e-17,0,8192,8192
273.8,-2.77556e-17,0,8192,8192
273.853,-2.77556e-17,0,8192,8192
273.903,-2.77556e-17,0,8192,8192
273.953,-2.77556e-17,0,8192,8192
274.002,-4.16334e-17,0,8192,8192
274.052,-2.77556e-17,0,8192,8192
274.102,-2.77556e-17,0,8192,8192
274.152,-2.77556e-17,0,8192,8192
274.202,-2.77556e-17,0,8192,8192
274.251,-2.77556e-17,0,8192,8192
274.301,0,0,8192,8192
274.351,1.38778e-17,0,8192,8192
274.401,2.77556e-17,0,8192,8192
274.45,1.38778e-17,0,8192,8192
274.5,1.38778e-17,0,8192,8192
274.55,1.38778e-17,0,8192,8192
274.603,1.38778e-17,0,8192,8192
274.653,0,0,8192,8192
274.702,0,0,8192,8192
274.752,0,0,8192,8192
274.802,0,0,8192,8192
274.852,0,0,8192,8192
274.902,0,0,8192,8192
274.951,-1.38778e-17,0,8192,8192
275.001,-1.38778e-17,0,8192,8192
275.051,-3.747e-16,0,8192,8192
275.101,-3.10862e-15,0,8192,8192
275.151,-1.95816e-14,0,8192,8192
275.2,-9.90319e-14,0,8192,8192
275.25,-4.14543e-13,0,8192,8192
275.303,-1.56607e-12,0,8192,8192
275.353,-4.66349e-12,0,8192,8192
275.403,-1.1945e-11,0,8192,8192
275.452,-2.64844e-11,0,8192,8192
275.502,-5.1062e-11,0,8192,8192
275.552,-8.58375e-11,0,8192,8192
275.602,-1.2587e-10,0,8192,8192
275.651,-1.60567e-10,0,8192,8192
275.701,-1.76796e-10,0,8192,8192
275.751,-1.65085e-10,0,8192,8192
275.801,-1.25489e-10,0,8192,8192
275.851,-6.88501e-11,0,8192,8192
275.9,-1.17906e-11,0,8192,8192
275.95,3.18123e-11,0,8192,8192
276,5.73181e-11,0,8192,8192
276.053,7.00782e-11,0,8192,8192
276.103,7.78056e-11,0,8192,8192
276.152,8.69549e-11,0,8192,8192
276.202,9.69836e-11,0,8192,8192
276.252,1.04013e-10,0,8192,8192
276.302,1.05759e-10,0,8192,8192
276.352,1.04207e-10,0,8192,8192
276.401,1.03952e-10,0,8192,8192
276.451,1.08077e-10,0,8192,8192
276.501,1.1542e-10,0,8192,8192
276.551,1.21629e-10,0,8192,8192
276.601,1.23024e-10,0,8192,8192
276.65,1.19917e-10,0,8192,8192
276.7,1.16535e-10,0,8192,8192
276.753,1.17707e-10,0,8192,8192
276.803,1.23976e-10,0,8192,8192
276.852,1.30895e-10,0,8192,8192
276.902,1.3287e-10,0,8192,8192
276.952,1.28529e-10,0,8192,8192
277.002,1.23069e-10,0,8192,8192
277.052,1.24648e-10,0,8192,8192
277.101,1.38591e-10,0,8192,8192
277.151,1.69354e-10,0,8192,8192
277.201,2.38771e-10,0,8192,8192
277.251,4.17146e-10,0,8192,8192
277.301,8.47853e-10,0,8192,8192
277.35,1.73986e-09,0,8192,8192
277.4,3.31557e-09,0,8192,8192
277.45,5.72924e-09,0,8192,8192
277.503,9.21172e-09,0,8192,8192
277.553,1.32209e-08,0,8192,8192
277.602,1.76735e-08,0,8192,8192
277.652,2.23272e-08,0,8192,8192
277.702,2.70677e-08,0,8192,8192
277.752,3.19836e-08,0,8192,8192
277.802,3.73708e-08,0,8192,8192
277.851,4.36728e-08,0,8192,8192
277.901,5.13941e-08,0,8192,8192
277.951,6.10345e-08,0,8192,8192
278.001,7.3073e-08,0,8192,8192
278.051,8.79952e-08,0,8192,8192
278.1,1.0633e-07,0,8192,8192
278.15,1.28648e-07,0,8192,8192
278.203,1.5724e-07,0,8192,8192
278.253,1.89377e-07,0,8192,8192
278.302,2.26701e-07,0,8192,8192
278.352,2.69113e-07,0,8192,8192
278.402,3.16258e-07,0,8192,8192
278.452,3.67614e-07,0,8192,8192
278.502,4.22582e-07,0,8192,8192
278.551,4.80514e-07,0,8192,8192
278.601,5.40641e-07,0,8192,8192
278.651,6.01955e-07,0,8192,8192
278.701,6.63104e-07,0,8192,8192
278.751,7.22421e-07,0,8192,8192
278.8,7.78085e-07,0,8192,8192
278.85,8.28387e-07,0,8192,8192
278.9,8.72008e-07,0,8192,8192
278.953,9.10097e-07,0,8192,8192
279.003,9.38299e-07,0,8192,8192
279.052,9.59335e-07,0,8192,8192
279.102,9.73844e-07,0,8192,8192
279.152,9.82478e-07,0,8192,8192
279.202,9.85707e-07,0,8192,8192
279.252,9.83727e-07,0,8192,8192
279.301,9.76471e-07,0,8192,8192
279.351,9.63705e-07,0,8192,8192
279.401,9.45183e-07,0,8192,8192
279.451,9.2081e-07,0,8192,8192
279.501,8.90784e-07,0,8192,8192
279.55,8.55683e-07,0,8192,8192
279.6,8.16468e-07,0,8192,8192
279.653,7.71873e-07,0,8192,8192
279.703,7.28364e-07,0,8192,8192
279.752,6.84969e-07,0,8192,8192
279.802,6.42982e-07,0,8192,8192
279.852,6.03462e-07,0,8192,8192
279.902,5.67213e-07,0,8192,8192
279.952,5.34829e-07,0,8192,8192
280.001,5.06783e-07,0,8192,8192
280.051,4.83531e-07,0,8192,8192
280.101,4.65587e-07,0,8192,8192
280.151,4.53519e-07,0,8192,8192
280.201,4.47874e-07,0,8192,8192
280.25,4.49025e-07,0,8192,8192
280.3,4.57052e-07,0,8192,8192
280.35,4.71683e-07,0,8192,8192
280.403,4.93748e-07,0,8192,8192
280.453,5.20047e-07,0,8192,8192
280.502,5.50902e-07,0,8192,8192
280.552,5.85606e-07,0,8192,8192
280.602,6.23419e-07,0,8192,8192
280.652,6.63432e-07,0,8192,8192
280.702,7.04468e-07,0,8192,8192
280.751,7.45065e-07,0,8192,8192
280.801,7.83597e-07,0,8192,8192
280.851,8.18472e-07,0,8192,8192
280.901,8.48364e-07,0,8192,8192
280.951,8.72364e-07,0,8192,8192
281,8.90023e-07,0,8192,8192
281.05,9.01285e-07,0,8192,8192
281.103,9.0645e-07,0,8192,8192
281.153,9.05248e-07,0,8192,8192
281.202,8.98414e-07,0,8192,8192
281.252,8.86125e-07,0,8192,8192
281.302,8.68453e-07,0,8192,8192
281.352,8.45386e-07,0,8192,8192
281.402,8.16884e-07,0,8192,8192
281.451,7.82961e-07,0,8192,8192
281.501,7.43776e-07,0,8192,8192
281.551,6.99715e-07,0,8192,8192
281.601,6.51433e-07,0,8192,8192
281.651,5.99848e-07,0,8192,8192
281.7,5.46075e-07,0,8192,8192
281.75,4.91316e-07,0,8192,8192
281.8,4.36744e-07,0,8192,8192
281.853,3.80319e-07,0,8192,8192
281.903,3.29177e-07,0,8192,8192
281.952,2.80734e-07,0,8192,8192
282.002,2.35375e-07,0,8192,8192
282.052,1.9333e-07,0,8192,8192
282.102,1.54723e-07,0,8192,8192
282.152,1.19617e-07,0,8192,8192
282.201,8.80319e-08,0,8192,8192
282.251,5.9937e-08,0,8192,8192
282.301,3.52355e-08,0,8192,8192
282.351,1.37504e-08,0,8192,8192
282.401,-4.76701e-09,0,8192,8192
282.45,-2.06074e-08,0,8192,8192
282.5,-3.40616e-08,0,8192,8192
282.553,-4.59891e-08,0,8192,8192
282.603,-5.52784e-08,0,8192,8192
282.652,-6.28158e-08,0,8192,8192
282.702,-6.87531e-08,0,8192,8192
282.752,-7.32539e-08,0,8192,8192
282.802,-7.65014e-08,0,8192,8192
282.852,-7.86838e-08,0,8192,8192
282.901,-7.99679e-08,0,8192,8192
282.951,-8.04732e-08,0,8192,8192
283.001,-8.02633e-08,0,8192,8192
283.051,-7.93574e-08,0,8192,8192
283.101,-7.77584e-08,0,8192,8192
283.15,-7.54844e-08,0,8192,8192
283.2,-7.25911e-08,0,8192,8192
283.253,-6.89644e-08,0,8192,8192
283.303,-6.51494e-08,0,8192,8192
283.353,-6.11097e-08,0,8192,8192
283.402,-5.69913e-08,0,8192,8192
283.452,-5.29197e-08,0,8192,8192
283.502,-4.89924e-08,0,8192,8192
283.552,-4.52767e-08,0,8192,8192
283.601,-4.1813e-08,0,8192,8192
283.651,-3.862e-08,0,8192,8192
283.701,-3.57014e-08,0,8192,8192
283.751,-3.30513e-08,0,8192,8192
283.801,-3.06598e-08,0,8192,8192
283.85,-2.85159e-08,0,8192,8192
283.9,-2.66095e-08,0,8192,8192
283.95,-2.49312e-08,0,8192,8192
284.003,-2.33925e-08,0,8192,8192
284.053,-2.21538e-08,0,8192,8192
284.102,-2.11119e-08,0,8192,8192
284.152,-2.02535e-08,0,8192,8192
284.202,-1.95642e-08,0,8192,8192
284.252,-1.90287e-08,0,8192,8192
284.302,-1.86309e-08,0,8192,8192
284.351,-1.8355e-08,0,8192,8192
284.401,-1.81859e-08,0,8192,8192
284.451,-1.81091e-08,0,8192,8192
284.501,-1.81112e-08,0,8192,8192
284.551,-1.81803e-08,0,8192,8192
284.6,-1.83053e-08,0,8192,8192
284.65,-1.84767e-08,0,8192,8192
284.703,-1.8699e-08,0,8192,8192
284.753,-1.89397e-08,0,8192,8192
284.802,-1.92034e-08,0,8192,8192
284.852,-1.94842e-08,0,8192,8192
284.902,-1.97773e-08,0,8192,8192
284.952,-2.00783e-08,0,8192,8192
285.002,-2.03837e-08,0,8192,8192
285.051,-2.06902e-08,0,8192,8192
285.101,-2.09954e-08,0,8192,8192
285.151,-2.12969e-08,0,8192,8192
285.201,-2.15931e-08,0,8192,8192
285.251,-2.18827e-08,0,8192,8192
285.3,-2.2165e-08,0,8192,8192
285.35,-2.24401e-08,0,8192,8192
285.4,-2.27086e-08,0,8192,8192
285.453,-2.29875e-08,0,8192,8192
285.503,-2.32479e-08,0,8192,8192
285.552,-2.35083e-08,0,8192,8192
285.602,-2.37717e-08,0,8192,8192
285.652,-2.40416e-08,0,8192,8192
285.702,-2.43214e-08,0,8192,8192
285.752,-2.46144e-08,0,8192,8192
285.801,-2.4924e-08,0,8192,8192
285.851,-2.52527e-08,0,8192,8192
285.901,-2.56028e-08,0,8192,8192
285.951,-2.5976e-08,0,8192,8192
286.001,-2.63732e-08,0,8192,8192
286.05,-2.67946e-08,0,8192,8192
286.1,-2.72398e-08,0,8192,8192
286.153,-2.77357e-08,0,8192,8192
286.203,-2.82252e-08,0,8192,8192
286.252,-2.87326e-08,0,8192,8192
286.302,-2.92552e-08,0,8192,8192
286.352,-2.97896e-08,0,8192,8192
286.402,-3.03324e-08,0,8192,8192
286.452,-3.088e-08,0,8192,8192
286.501,-3.14291e-08,0,8192,8192
286.551,-3.1976e-08,0,8192,8192
286.601,-3.25174e-08,0,8192,8192
286.651,-3.305e-08,0,8192,8192
286.701,-3.35705e-08,0,8192,8192
286.75,-3.4076e-08,0,8192,8192
286.8,-3.45636e-08,0,8192,8192
286.85,-3.50309e-08,0,8192,8192
286.903,-3.55011e-08,0,8192,8192
286.953,-3.59202e-08,0,8192,8192
287.002,-3.6314e-08,0,8192,8192
287.052,-3.66819e-08,0,8192,8192
287.102,-3.70239e-08,0,8192,8192
287.152,-3.73407e-08,0,8192,8192
287.202,-3.76335e-08,0,8192,8192
287.251,-3.7904e-08,0,8192,8192
287.301,-3.81544e-08,0,8192,8192
287.351,-3.83874e-08,0,8192,8192
287.401,-3.86058e-08,0,8192,8192
287.451,-3.8813e-08,0,8192,8192
287.5,-3.90122e-08,0,8192,8192
287.55,-3.92072e-08,0,8192,8192
287.603,-3.94128e-08,0,8192,8192
287.653,-3.96101e-08,0,8192,8192
287.702,-3.98139e-08,0,8192,8192
287.752,-4.00271e-08,0,8192,8192
287.802,-4.02528e-08,0,8192,8192
287.852,-4.04932e-08,0,8192,8192
287.902,-4.07504e-08,0,8192,8192
287.951,-4.10256e-08,0,8192,8192
288.001,-4.13195e-08,0,8192,8192
288.051,-4.16324e-08,0,8192,8192
288.101,-4.19635e-08,0,8192,8192
288.151,-4.23116e-08,0,8192,8192
288.2,-4.26749e-08,0,8192,8192
288.25,-4.3051e-08,0,8192,8192
288.3,-4.34369e-08,0,8192,8192
288.353,-4.38528e-08,0,8192,8192
288.403,-4.42488e-08,0,8192,8192
288.452,-4.46443e-08,0,8192,8192
288.502,-4.50358e-08,0,8192,8192
288.552,-4.54195e-08,0,8192,8192
288.602,-4.5792e-08,0,8192,8192
288.652,-4.615e-08,0,8192,8192
288.701,-4.649e-08,0,8192,8192
288.751,-4.68091e-08,0,8192,8192
288.801,-4.71043e-08,0,8192,8192
288.851,-4.73731e-08,0,8192,8192
288.901,-4.76133e-08,0,8192,8192
288.95,-4.7823e-08,0,8192,8192
289,-4.80009e-08,0,8192,8192
289.053,-4.81535e-08,0,8192,8192
289.103,-4.82635e-08,0,8192,8192
289.152,-4.83406e-08,0,8192,8192
289.202,-4.83854e-08,0,8192,8192
289.252,-4.83991e-08,0,8192,8192
289.302,-4.83831e-08,0,8192,8192
289.352,-4.83391e-08,0,8192,8192
289.401,-4.82692e-08,0,8192,8192
289.451,-4.81755e-08,0,8192,8192
289.501,-4.80604e-08,0,8192,8192
289.551,-4.7926e-08,0,8192,8192
289.601,-4.77748e-08,0,8192,8192
289.65,-4.76088e-08,0,8192,8192
289.7,-4.74303e-08,0,8192,8192
289.753,-4.72299e-08,0,8192,8192
289.803,-4.70318e-08,0,8192,8192
289.853,-4.68269e-08,0,8192,8192
289.902,-4.66168e-08,0,8192,8192
289.952,-4.64029e-08,0,8192,8192
290.002,-4.61865e-08,0,8192,8192
290.052,-4.59688e-08,0,8192,8192
290.102,-4.57507e-08,0,8192,8192
290.151,-4.55331e-08,0,8192,8192
290.201,-4.53167e-08,0,8192,8192
290.251,-4.51021e-08,0,8192,8192
290.301,-4.48898e-08,0,8192,8192
290.35,-4.46803e-08,0,8192,8192
290.4,-4.44739e-08,0,8192,8192
290.45,-4.42707e-08,0,8192,8192
290.503,-4.40593e-08,0,8192,8192
290.553,-4.38631e-08,0,8192,8192
290.602,-4.36705e-08,0,8192,8192
290.652,-4.34812e-08,0,8192,8192
290.702,-4.3295e-08,0,8192,8192
290.752,-4.31118e-08,0,8192,8192
290.802,-4.29311e-08,0,8192,8192
290.851,-4.27527e-08,0,8192,8192
290.901,-4.25762e-08,0,8192,8192
290.951,-4.2401e-08,0,8192,8192
291.001,-4.22268e-08,0,8192,8192
291.051,-4.20531e-08,0,8192,8192
291.1,-4.18793e-08,0,8192,8192
291.15,-4.1705e-08,0,8192,8192
291.203,-4.15193e-08,0,8192,8192
291.253,-4.13421e-08,0,8192,8192
291.302,-4.11629e-08,0,8192,8192
291.352,-4.09809e-08,0,8192,8192
291.402,-4.07956e-08,0,8192,8192
291.452,-4.06066e-08,0,8192,8192
291.502,-4.04132e-08,0,8192,8192
291.551,-4.02149e-08,0,8192,8192
291.601,-4.00113e-08,0,8192,8192
291.651,-3.98016e-08,0,8192,8192
291.701,-3.95853e-08,0,8192,8192
291.751,-3.93617e-08,0,8192,8192
291.8,-3.91299e-08,0,8192,8192
291.85,-3.8889e-08,0,8192,8192
291.9,-3.86378e-08,0,8192,8192
291.953,-3.8359e-08,0,8192,8192
292.003,-3.80819e-08,0,8192,8192
292.052,-3.77896e-08,0,8192,8192
292.102,-3.748e-08,0,8192,8192
292.152,-3.71508e-08,0,8192,8192
292.202,-3.67996e-08,0,8192,8192
292.252,-3.6424e-08,0,8192,8192
292.301,-3.60215e-08,0,8192,8192
292.351,-3.55897e-08,0,8192,8192
292.401,-3.51265e-08,0,8192,8192
292.451,-3.46299e-08,0,8192,8192
292.501,-3.40983e-08,0,8192,8192
292.55,-3.35309e-08,0,8192,8192
292.6,-3.29271e-08,0,8192,8192
292.653,-3.22483e-08,0,8192,8192
292.703,-3.15709e-08,0,8192,8192
292.752,-3.08597e-08,0,8192,8192
292.802,-3.0117e-08,0,8192,8192
292.852,-2.93458e-08,0,8192,8192
292.902,-2.85492e-08,0,8192,8192
292.952,-2.77313e-08,0,8192,8192
293.001,-2.68961e-08,0,8192,8192
293.051,-2.60481e-08,0,8192,8192
293.101,-2.51918e-08,0,8192,8192
293.151,-2.43316e-08,0,8192,8192
293.201,-2.34722e-08,0,8192,8192
293.25,-2.26179e-08,0,8192,8192
293.3,-2.1773e-08,0,8192,8192
293.35,-2.09414e-08,0,8192,8192
293.403,-2.00796e-08,0,8192,8192
293.453,-1.92869e-08,0,8192,8192
293.502,-1.85178e-08,0,8192,8192
293.552,-1.7775e-08,0,8192,8192
293.602,-1.70604e-08,0,8192,8192
293.652,-1.63754e-08,0,8192,8192
293.702,-1.57209e-08,0,8192,8192
293.751,-1.5097e-08,0,8192,8192
293.801,-1.45033e-08,0,8192,8192
293.851,-1.39386e-08,0,8192,8192
293.901,-1.34013e-08,0,8192,8192
293.951,-1.2889e-08,0,8192,8192
294,-1.23989e-08,0,8192,8192
294.05,-1.19279e-08,0,8192,8192
294.103,-1.1446e-08,0,8192,8192
294.153,-1.10027e-08,0,8192,8192
294.202,-1.05668e-08,0,8192,8192
294.252,-1.01341e-08,0,8192,8192
294.302,-9.7006e-09,0,8192,8192
294.352,-9.26232e-09,0,8192,8192
294.402,-8.81559e-09,0,8192,8192
294.451,-8.35706e-09,0,8192,8192
294.501,-7.88387e-09,0,8192,8192
294.551,-7.39368e-09,0,8192,8192
294.601,-6.8848e-09,0,8192,8192
294.651,-6.35617e-09,0,8192,8192
294.7,-5.80745e-09,0,8192,8192
294.75,-5.23896e-09,0,8192,8192
294.8,-4.65166e-09,0,8192,8192
294.853,-4.01107e-09,0,8192,8192
294.903,-3.39058e-09,0,8192,8192
294.952,-2.75767e-09,0,8192,8192
295.002,-2.11528e-09,0,8192,8192
295.052,-1.4667e-09,0,8192,8192
295.102,-8.15417e-10,0,8192,8192
295.152,-1.65151e-10,0,8192,8192
295.201,4.80238e-10,0,8192,8192
295.251,1.11677e-09,0,8192,8192
295.301,1.74038e-09,0,8192,8192
295.351,2.34697e-09,0,8192,8192
295.401,2.93243e-09,0,8192,8192
295.45,3.49273e-09,0,8192,8192
295.5,4.02397e-09,0,8192,8192
295.553,4.5507e-09,0,8192,8192
295.603,5.01087e-09,0,8192,8192
295.652,5.43178e-09,0,8192,8192
295.702,5.81101e-09,0,8192,8192
295.752,6.14667e-09,0,8192,8192
295.802,6.43756e-09,0,8192,8192
295.852,6.68318e-09,0,8192,8192
295.901,6.88375e-09,0,8192,8192
295.951,7.04027e-09,0,8192,8192
296.001,7.15445e-09,0,8192,8192
296.051,7.22868e-09,0,8192,8192
296.101,7.26591e-09,0,8192,8192
296.15,7.26956e-09,0,8192,8192
296.2,7.24333e-09,0,8192,8192
296.25,7.19109e-09,0,8192,8192
296.303,7.11169e-09,0,8192,8192
296.353,7.01789e-09,0,8192,8192
296.402,6.9094e-09,0,8192,8192
296.452,6.78949e-09,0,8192,8192
296.502,6.66119e-09,0,8192,8192
296.552,6.52728e-09,0,8192,8192
296.602,6.39037e-09,0,8192,8192
296.651,6.25291e-09,0,8192,8192
296.701,6.11721e-09,0,8192,8192
296.751,5.98546e-09,0,8192,8192
296.801,5.85966e-09,0,8192,8192
296.851,5.74164e-09,0,8192,8192
296.9,5.63296e-09,0,8192,8192
296.95,5.53489e-09,0,8192,8192
297.003,5.44368e-09,0,8192,8192
297.053,5.37009e-09,0,8192,8192
297.102,5.30898e-09,0,8192,8192
297.152,5.26031e-09,0,8192,8192
297.202,5.22374e-09,0,8192,8192
297.252,5.1987e-09,0,8192,8192
297.302,5.18439e-09,0,8192,8192
297.351,5.1798e-09,0,8192,8192
297.401,5.18376e-09,0,8192,8192
297.451,5.19495e-09,0,8192,8192
297.501,5.21189e-09,0,8192,8192
297.551,5.23303e-09,0,8192,8192
297.6,5.25675e-09,0,8192,8192
297.65,5.2814e-09,0,8192,8192
297.703,5.30671e-09,0,8192,8192
297.753,5.32825e-09,0,8192,8192
297.803,5.34602e-09,0,8192,8192
297.852,5.35881e-09,0,8192,8192
297.902,5.36561e-09,0,8192,8192
297.952,5.36568e-09,0,8192,8192
298.002,5.35862e-09,0,8192,8192
298.052,5.34433e-09,0,8192,8192
298.101,5.32303e-09,0,8192,8192
298.151,5.29523e-09,0,8192,8192
298.201,5.26168e-09,0,8192,8192
298.251,5.22325e-09,0,8192,8192
298.3,5.18095e-09,0,8192,8192
298.35,5.13579e-09,0,8192,8192
298.4,5.08874e-09,0,8192,8192
298.453,5.03789e-09,0,8192,8192
298.503,4.98978e-09,0,8192,8192
298.552,4.94241e-09,0,8192,8192
298.602,4.89652e-09,0,8192,8192
298.652,4.85285e-09,0,8192,8192
298.702,4.81214e-09,0,8192,8192
298.752,4.77509e-09,0,8192,8192
298.801,4.7424e-09,0,8192,8192
298.851,4.71469e-09,0,8192,8192
298.901,4.69245e-09,0,8192,8192
298.951,4.67605e-09,0,8192,8192
299.001,4.66565e-09,0,8192,8192
299.05,4.66119e-09,0,8192,8192
299.1,4.66241e-09,0,8192,8192
299.153,4.66939e-09,0,8192,8192
299.203,4.68067e-09,0,8192,8192
299.253,4.69574e-09,0,8192,8192
299.302,4.71376e-09,0,8192,8192
299.352,4.73388e-09,0,8192,8192
299.402,4.75525e-09,0,8192,8192
299.452,4.77708e-09,0,8192,8192
299.501,4.79864e-09,0,8192,8192
299.551,4.81932e-09,0,8192,8192
299.601,4.83857e-09,0,8192,8192
299.651,4.85597e-09,0,8192,8192
299.701,4.87119e-09,0,8192,8192
299.75,4.88397e-09,0,8192,8192
299.8,4.89416e-09,0,8192,8192
299.85,4.90166e-09,0,8192,8192
299.903,4.90663e-09,0,8192,8192
299.953,4.90853e-09,0,8192,8192
300.002,4.90774e-09,0,8192,8192
300.052,4.90435e-09,0,8192,8192
300.102,4.89842e-09,0,8192,8192
300.152,4.89005e-09,0,8192,8192
300.202,4.87932e-09,0,8192,8192
300.251,4.86631e-09,0,8192,8192
300.301,4.8511e-09,0,8192,8192
300.351,4.83372e-09,0,8192,8192
300.401,4.81424e-09,0,8192,8192
300.451,4.79268e-09,0,8192,8192
300.5,4.7691e-09,0,8192,8192
300.55,4.74352e-09,0,8192,8192
300.603,4.71433e-09,0,8192,8192
300.653,4.68485e-09,0,8192,8192
300.702,4.65363e-09,0,8192,8192
300.752,4.62076e-09,0,8192,8192
300.802,4.58641e-09,0,8192,8192
300.852,4.55071e-09,0,8192,8192
300.902,4.51383e-09,0,8192,8192
300.951,4.47592e-09,0,8192,8192
301.001,4.43716e-09,0,8192,8192
301.051,4.39768e-09,0,8192,8192
301.101,4.35762e-09,0,8192,8192
301.151,4.31711e-09,0,8192,8192
301.2,4.27624e-09,0,8192,8192
301.25,4.23511e-09,0,8192,8192
301.3,4.1938e-09,0,8192,8192
301.353,4.14992e-09,0,8192,8192
301.403,4.10839e-09,0,8192,8192
301.452,4.06683e-09,0,8192,8192
301.502,4.02525e-09,0,8192,8192
301.552,3.98366e-09,0,8192,8192
301.602,3.94208e-09,0,8192,8192
301.652,3.90048e-09,0,8192,8192
301.701,3.85887e-09,0,8192,8192
301.751,3.81721e-09,0,8192,8192
301.801,3.77549e-09,0,8192,8192
301.851,3.73367e-09,0,8192,8192
301.901,3.69172e-09,0,8192,8192
301.95,3.6496e-09,0,8192,8192
302,3.60727e-09,0,8192,8192
302.053,3.56219e-09,0,8192,8192
302.103,3.51932e-09,0,8192,8192
302.152,3.47614e-09,0,8192,8192
302.202,3.43262e-09,0,8192,8192
302.252,3.38872e-09,0,8192,8192
302.302,3.34443e-09,0,8192,8192
302.352,3.29973e-09,0,8192,8192
302.401,3.2546e-09,0,8192,8192
302.451,3.20903e-09,0,8192,8192
302.501,3.16303e-09,0,8192,8192
302.551,3.11658e-09,0,8192,8192
302.601,3.06971e-09,0,8192,8192
302.65,3.02242e-09,0,8192,8192
302.7,2.97472e-09,0,8192,8192
302.75,2.92665e-09,0,8192,8192
302.803,2.87537e-09,0,8192,8192
302.853,2.82661e-09,0,8192,8192
302.902,2.77758e-09,0,8192,8192
302.952,2.7283e-09,0,8192,8192
303.002,2.67884e-09,0,8192,8192
303.052,2.62924e-09,0,8192,8192
303.102,2.57955e-09,0,8192,8192
303.151,2.52982e-09,0,8192,8192
303.201,2.4801e-09,0,8192,8192
303.251,2.43045e-09,0,8192,8192
303.301,2.38092e-09,0,8192,8192
303.351,2.33156e-09,0,8192,8192
303.4,2.28242e-09,0,8192,8192
303.45,2.23354e-09,0,8192,8192
303.503,2.18211e-09,0,8192,8192
303.553,2.13388e-09,0,8192,8192
303.602,2.08602e-09,0,8192,8192
303.652,2.03856e-09,0,8192,8192
303.702,1.99152e-09,0,8192,8192
303.752,1.94491e-09,0,8192,8192
303.802,1.89874e-09,0,8192,8192
303.851,1.85304e-09,0,8192,8192
303.901,1.80779e-09,0,8192,8192
303.951,1.763e-09,0,8192,8192
304.001,1.71867e-09,0,8192,8192
304.051,1.6748e-09,0,8192,8192
304.1,1.63137e-09,0,8192,8192
304.15,1.58838e-09,0,8192,8192
304.2,1.5458e-09,0,8192,8192
304.253,1.50117e-09,0,8192,8192
304.303,1.45942e-09,0,8192,8192
304.352,1.41804e-09,0,8192,8192
304.402,1.37702e-09,0,8192,8192
304.452,1.33634e-09,0,8192,8192
304.502,1.29599e-09,0,8192,8192
304.552,1.25594e-09,0,8192,8192
304.601,1.21618e-09,0,8192,8192
304.651,1.1767e-09,0,8192,8192
304.701,1.13749e-09,0,8192,8192
304.751,1.09853e-09,0,8192,8192
304.801,1.05981e-09,0,8192,8192
304.85,1.02134e-09,0,8192,8192
304.9,9.83099e-10,0,8192,8192
304.953,9.42866e-10,0,8192,8192
