250,0,0,2048,2048
250.006,0,0,2048,2048
250.053,0,0,2048,2048
250.105,0,0,2048,2048
250.152,0,0,2048,2048
250.205,0,0,2048,2048
250.252,0,0,2048,2048
250.305,0,0,2048,2048
250.352,0,0,2048,2048
250.404,0,0,2048,2048
250.451,0,0,2048,2048
250.504,0,0,2048,2048
250.551,0,0,2048,2048
250.603,0,0,2048,2048
250.65,0,0,2048,2048
250.703,0,0,2048,2048
250.756,0,0,2048,2048
250.803,0,0,2048,2048
250.855,0,0,2048,2048
250.902,0,0,2048,2048
250.955,0,0,2048,2048
251.002,0,0,2048,2048
251.055,0,0,2048,2048
251.101,0,0,2048,2048
251.154,0,0,2048,2048
251.201,0,0,2048,2048
251.254,0,0,2048,2048
251.301,0,0,2048,2048
251.353,0,0,2048,2048
251.4,0,0,2048,2048
251.453,0,0,2048,2048
251.506,0,0,2048,2048
251.553,0,0,2048,2048
251.605,0,0,2048,2048
251.652,0,0,2048,2048
251.705,0,0,2048,2048
251.752,0,0,2048,2048
251.804,0,0,2048,2048
251.851,0,0,2048,2048
251.904,0,0,2048,2048
251.951,0,0,2048,2048
252.004,0,0,2048,2048
252.05,0,0,2048,2048
252.103,0,0,2048,2048
252.15,0,0,2048,2048
252.203,0,0,2048,2048
252.256,0,0,2048,2048
252.302,0,0,2048,2048
252.355,0,0,2048,2048
252.402,0,0,2048,2048
252.455,0,0,2048,2048
252.502,0,0,2048,2048
252.554,0,0,2048,2048
252.601,0,0,2048,2048
252.654,0,0,2048,2048
252.701,0,0,2048,2048
252.754,0,0,2048,2048
252.8,0,0,2048,2048
252.853,0,0,2048,2048
252.906,0,0,2048,2048
252.953,0,0,2048,2048
253.005,0,0,2048,2048
253.052,0,0,2048,2048
253.105,0,0,2048,2048
253.152,0,0,2048,2048
253.205,0,0,2048,2048
253.251,0,0,2048,2048
253.304,0,0,2048,2048
253.351,0,0,2048,2048
253.404,0,0,2048,2048
253.451,0,0,2048,2048
253.503,0,0,2048,2048
253.55,0,0,2048,2048
253.603,0,0,2048,2048
253.656,0,0,2048,2048
253.703,0,0,2048,2048
253.755,0,0,2048,2048
253.802,0,0,2048,2048
253.855,0,0,2048,2048
253.902,0,0,2048,2048
253.954,0,0,2048,2048
254.001,0,0,2048,2048
254.054,0,0,2048,2048
254.101,0,0,2048,2048
254.154,0,0,2048,2048
254.201,0,0,2048,2048
254.253,0,0,2048,2048
254.3,0,0,2048,2048
254.353,0,0,2048,2048
254.406,0,0,2048,2048
254.452,0,0,2048,2048
254.505,0,0,2048,2048
254.552,0,0,2048,2048
254.605,0,0,2048,2048
254.652,0,0,2048,2048
254.704,0,0,2048,2048
254.751,0,0,2048,2048
254.804,0,0,2048,2048
254.851,0,0,2048,2048
254.904,0,0,2048,2048
254.95,0,0,2048,2048
255.003,0,0,2048,2048
255.05,0,0,2048,2048
255.103,0,0,2048,2048
255.155,0,0,2048,2048
255.202,0,0,2048,2048
255.255,0,0,2048,2048
255.302,0,0,2048,2048
255.355,0,0,2048,2048
255.402,0,0,2048,2048
255.454,0,0,2048,2048
255.501,0,0,2048,2048
255.554,0,0,2048,2048
255.601,0,0,2048,2048
255.653,0,0,2048,2048
255.7,0,0,2048,2048
255.753,0,0,2048,2048
255.806,0,0,2048,2048
255.853,0,0,2048,2048
255.905,0,0,2048,2048
255.952,0,0,2048,2048
256.005,0,0,2048,2048
256.052,0,0,2048,2048
256.105,0,0,2048,2048
256.151,0,0,2048,2048
256.204,0,0,2048,2048
256.251,0,0,2048,2048
256.304,0,0,2048,2048
256.351,0,0,2048,2048
256.403,0,0,2048,2048
256.45,0,0,2048,2048
256.503,0,0,2048,2048
256.556,0,0,2048,2048
256.603,0,0,2048,2048
256.655,0,0,2048,2048
256.702,0,0,2048,2048
256.755,0,0,2048,2048
256.802,0,0,2048,2048
256.854,0,0,2048,2048
256.901,0,0,2048,2048
256.954,0,0,2048,2048
257.001,0,0,2048,2048
257.054,0,0,2048,2048
257.101,0,0,2048,2048
257.153,0,0,2048,2048
257.2,0,0,2048,2048
257.253,0,0,2048,2048
257.306,0,0,2048,2048
257.352,0,0,2048,2048
257.405,0,0,2048,2048
257.452,0,0,2048,2048
257.505,0,0,2048,2048
257.552,0,0,2048,2048
257.604,0,0,2048,2048
257.651,0,0,2048,2048
257.704,0,0,2048,2048
257.751,0,0,2048,2048
257.804,0,0,2048,2048
257.85,0,0,2048,2048
257.903,0,0,2048,2048
257.95,0,0,2048,2048
258.003,0,0,2048,2048
258.055,0,0,2048,2048
258.102,0,0,2048,2048
258.155,0,0,2048,2048
258.202,0,0,2048,2048
258.255,0,0,2048,2048
258.302,0,0,2048,2048
258.354,0,0,2048,2048
258.401,0,0,2048,2048
258.454,0,0,2048,2048
258.501,0,0,2048,2048
258.553,0,0,2048,2048
258.6,0,0,2048,2048
258.653,0,0,2048,2048
258.706,0,0,2048,2048
258.753,0,0,2048,2048
258.805,0,0,2048,2048
258.852,0,0,2048,2048
258.905,0,0,2048,2048
258.952,0,0,2048,2048
259.005,0,0,2048,2048
259.051,0,0,2048,2048
259.104,0,0,2048,2048
259.151,0,0,2048,2048
259.204,0,0,2048,2048
259.251,0,0,2048,2048
259.303,0,0,2048,2048
259.35,0,0,2048,2048
259.403,0,0,2048,2048
259.456,0,0,2048,2048
259.503,0,0,2048,2048
259.555,0,0,2048,2048
259.602,0,0,2048,2048
259.655,0,0,2048,2048
259.702,0,0,2048,2048
259.754,0,0,2048,2048
259.801,0,0,2048,2048
259.854,0,0,2048,2048
259.901,0,0,2048,2048
259.954,0,0,2048,2048
260,0,0,2048,2048
260.053,0,0,2048,2048
260.1,0,0,2048,2048
260.153,0,0,2048,2048
260.206,0,0,2048,2048
260.252,0,0,2048,2048
260.305,-2.77556e-17,0,2048,2048
260.352,-5.55112e-17,0,2048,2048
260.405,-5.55112e-17,0,2048,2048
260.452,-5.55112e-17,0,2048,2048
260.504,-5.55112e-17,0,2048,2048
260.551,-5.55112e-17,0,2048,2048
260.604,-5.55112e-17,0,2048,2048
260.651,-5.55112e-17,0,2048,2048
260.704,-5.55112e-17,0,2048,2048
260.75,-5.55112e-17,0,2048,2048
260.803,-2.77556e-17,0,2048,2048
260.856,-2.77556e-17,0,2048,2048
260.903,-2.77556e-17,0,2048,2048
260.955,-2.77556e-17,0,2048,2048
261.002,-2.77556e-17,0,2048,2048
261.055,-2.77556e-17,0,2048,2048
261.102,-2.77556e-17,0,2048,2048
261.155,-2.77556e-17,0,2048,2048
261.201,-2.77556e-17,0,2048,2048
261.254,-2.77556e-17,0,2048,2048
261.301,-2.77556e-17,0,2048,2048
261.354,-2.77556e-17,0,2048,2048
261.401,0,0,2048,2048
261.453,0,0,2048,2048
261.5,0,0,2048,2048
261.553,0,0,2048,2048
261.606,0,0,2048,2048
261.653,0,0,2048,2048
261.705,0,0,2048,2048
261.752,0,0,2048,2048
261.805,0,0,2048,2048
261.852,0,0,2048,2048
261.905,0,0,2048,2048
261.951,0,0,2048,2048
262.004,0,0,2048,2048
262.051,0,0,2048,2048
262.104,0,0,2048,2048
262.151,0,0,2048,2048
262.203,0,0,2048,2048
262.25,0,0,2048,2048
262.303,0,0,2048,2048
262.356,0,0,2048,2048
262.402,0,0,2048,2048
262.455,0,0,2048,2048
262.502,0,0,2048,2048
262.555,0,0,2048,2048
262.602,0,0,2048,2048
262.654,0,0,2048,2048
262.701,0,0,2048,2048
262.754,0,0,2048,2048
262.801,0,0,2048,2048
262.854,0,0,2048,2048
262.9,0,0,2048,2048
262.953,0,0,2048,2048
263,0,0,2048,2048
263.053,0,0,2048,2048
263.105,0,0,2048,2048
263.152,0,0,2048,2048
263.205,0,0,2048,2048
263.252,0,0,2048,2048
263.305,0,0,2048,2048
263.352,0,0,2048,2048
263.404,0,0,2048,2048
263.451,0,0,2048,2048
263.504,0,0,2048,2048
263.551,0,0,2048,2048
263.603,0,0,2048,2048
263.65,0,0,2048,2048
263.703,0,0,2048,2048
263.756,0,0,2048,2048
263.803,0,0,2048,2048
263.855,0,0,2048,2048
263.902,0,0,2048,2048
263.955,0,0,2048,2048
264.002,0,0,2048,2048
264.055,0,0,2048,2048
264.101,0,0,2048,2048
264.154,0,0,2048,2048
264.201,0,0,2048,2048
264.254,0,0,2048,2048
264.301,0,0,2048,2048
264.353,0,0,2048,2048
264.4,0,0,2048,2048
264.453,0,0,2048,2048
264.506,0,0,2048,2048
264.553,0,0,2048,2048
264.605,0,0,2048,2048
264.652,0,0,2048,2048
264.705,0,0,2048,2048
264.752,0,0,2048,2048
264.804,0,0,2048,2048
264.851,0,0,2048,2048
264.904,0,0,2048,2048
264.951,0,0,2048,2048
265.004,-2.77556e-17,0,2048,2048
265.051,-5.55112e-17,0,2048,2048
265.103,-5.55112e-17,0,2048,2048
265.15,-5.55112e-17,0,2048,2048
265.203,-5.55112e-17,0,2048,2048
265.256,-5.55112e-17,0,2048,2048
265.302,-5.55112e-17,0,2048,2048
265.355,-5.55112e-17,0,2048,2048
265.402,-5.55112e-17,0,2048,2048
265.455,-5.55112e-17,0,2048,2048
265.502,-5.55112e-17,0,2048,2048
265.554,-2.77556e-17,0,2048,2048
265.601,-2.77556e-17,0,2048,2048
265.654,-2.77556e-17,0,2048,2048
265.701,-2.77556e-17,0,2048,2048
265.754,-2.77556e-17,0,2048,2048
265.8,-2.77556e-17,0,2048,2048
265.853,-2.77556e-17,0,2048,2048
265.9,-2.77556e-17,0,2048,2048
265.953,-2.77556e-17,0,2048,2048
266.005,-2.77556e-17,0,2048,2048
266.052,-2.77556e-17,0,2048,2048
266.105,-5.55112e-17,0,2048,2048
266.152,-5.55112e-17,0,2048,2048
266.205,-5.55112e-17,0,2048,2048
266.252,-5.55112e-17,0,2048,2048
266.304,-5.55112e-17,0,2048,2048
266.351,-5.55112e-17,0,2048,2048
266.404,-5.55112e-17,0,2048,2048
266.451,-5.55112e-17,0,2048,2048
266.503,-5.55112e-17,0,2048,2048
266.55,-5.55112e-17,0,2048,2048
266.603,-5.55112e-17,0,2048,2048
266.656,-5.55112e-17,0,2048,2048
266.703,-5.55112e-17,0,2048,2048
266.755,-5.55112e-17,0,2048,2048
266.802,-5.55112e-17,0,2048,2048
266.855,-2.77556e-17,0,2048,2048
266.902,-2.77556e-17,0,2048,2048
266.955,-2.77556e-17,0,2048,2048
267.001,-2.77556e-17,0,2048,2048
267.054,-2.77556e-17,0,2048,2048
267.101,-2.77556e-17,0,2048,2048
267.154,-2.77556e-17,0,2048,2048
267.201,-2.77556e-17,0,2048,2048
267.253,-2.77556e-17,0,2048,2048
267.3,-2.77556e-17,0,2048,2048
267.353,-2.77556e-17,0,2048,2048
267.406,-2.77556e-17,0,2048,2048
267.453,-2.77556e-17,0,2048,2048
267.505,-2.77556e-17,0,2048,2048
267.552,-2.77556e-17,0,2048,2048
267.605,-2.77556e-17,0,2048,2048
267.652,-2.77556e-17,0,2048,2048
267.704,-2.77556e-17,0,2048,2048
267.751,-2.77556e-17,0,2048,2048
267.804,-2.77556e-17,0,2048,2048
267.851,-2.77556e-17,0,2048,2048
267.904,-2.77556e-17,0,2048,2048
267.95,-2.77556e-17,0,2048,2048
268.003,-2.77556e-17,0,2048,2048
268.05,-2.77556e-17,0,2048,2048
268.1,-2.77556e-17,0,2426,2426
268.15,-2.77556e-17,0,2630,2630
268.201,-2.77556e-17,0,2870,2870
268.251,-2.77556e-17,0,3110,3110
268.301,-2.77556e-17,0,3326,3326
268.351,-2.77556e-17,0,3566,3566
268.4,-2.77556e-17,0,3770,3770
268.45,-2.77556e-17,0,3998,3998
268.5,-2.77556e-17,0,4226,4226
268.551,-2.77556e-17,0,4434,4434
268.601,-2.77556e-17,0,4658,4658
268.651,-2.77556e-17,0,4886,4886
268.701,-2.77556e-17,0,5102,5102
268.751,-2.77556e-17,0,5310,5310
268.8,-2.77556e-17,0,5530,5530
268.85,-2.77556e-17,0,5770,5770
268.901,-2.77556e-17,0,5970,5970
268.951,-2.77556e-17,0,6190,6190
269.001,-2.77556e-17,0,6414,6414
269.051,-2.77556e-17,0,6630,6630
269.101,-2.77556e-17,0,6842,6842
269.15,-2.77556e-17,0,7058,7058
269.2,-2.77556e-17,0,7270,7270
269.251,-2.77556e-17,0,7494,7494
269.301,-2.77556e-17,0,7702,7702
269.351,-2.77556e-17,0,7914,7914
269.401,-2.77556e-17,0,8122,8122
269.451,-2.77556e-17,0,8362,8362
269.5,-2.77556e-17,0,8566,8566
269.55,-2.77556e-17,0,8766,8766
269.6,-2.77556e-17,0,8970,8970
269.651,-2.77556e-17,0,9202,9202
269.701,-2.77556e-17,0,9402,9402
269.751,-2.77556e-17,0,9586,9586
269.801,-2.77556e-17,0,9758,9758
269.85,-2.77556e-17,0,9970,9970
269.9,-2.77556e-17,0,10186,10186
269.95,-2.77556e-17,0,10374,10374
270.001,-2.77556e-17,0,10582,10582
270.051,-2.77556e-17,0,10794,10794
270.101,-2.77556e-17,0,10990,10990
270.151,-2.77556e-17,0,11190,11190
270.201,-2.77556e-17,0,11390,11390
270.25,-2.77556e-17,0,11606,11606
270.3,-2.77556e-17,0,11810,11810
270.351,-2.77556e-17,0,12038,12038
270.401,-2.77556e-17,0,12230,12230
270.451,-2.77556e-17,0,12446,12446
270.501,-2.77556e-17,0,12650,12650
270.551,-2.77556e-17,0,12866,12866
270.6,-2.77556e-17,0,13070,13070
270.65,-2.77556e-17,0,13270,13270
270.701,-2.77556e-17,0,13478,13478
270.751,-2.77556e-17,0,13674,13674
270.801,-2.77556e-17,0,13886,13886
270.851,-2.77556e-17,0,14090,14090
270.901,-2.77556e-17,0,14290,14290
270.95,-2.77556e-17,0,14486,14486
271,-2.77556e-17,0,14674,14674
271.051,-2.77556e-17,0,14882,14882
271.101,-2.77556e-17,0,15086,15086
271.151,-2.77556e-17,0,15270,15270
271.201,-2.77556e-17,0,15490,15490
271.251,-2.77556e-17,0,15670,15670
271.3,-2.77556e-17,0,15866,15866
271.35,-2.77556e-17,0,16050,16050
271.4,-2.77556e-17,0,16262,16262
271.451,-2.77556e-17,0,16442,16442
271.501,-2.77556e-17,0,16646,16646
271.551,-2.77556e-17,0,16830,16830
271.601,-2.77556e-17,0,17022,17022
271.65,-2.77556e-17,0,17202,17202
271.7,-2.77556e-17,0,17402,17402
271.75,-2.77556e-17,0,17590,17590
271.801,-2.77556e-17,0,17774,17774
271.851,-2.77556e-17,0,17978,17978
271.901,-2.77556e-17,0,18150,18150
271.951,-2.77556e-17,0,18338,18338
272.001,-2.77556e-17,0,18510,18510
272.05,-2.77556e-17,0,18702,18702
272.1,-2.77556e-17,0,18886,18886
272.151,-2.77556e-17,0,19074,19074
272.201,-2.77556e-17,0,19254,19254
272.251,-2.77556e-17,0,19434,19434
272.301,-2.77556e-17,0,19614,19614
272.351,-2.77556e-17,0,19794,19794
272.4,-2.77556e-17,0,19966,19966
272.45,-2.77556e-17,0,20142,20142
272.501,-2.77556e-17,0,20326,20326
272.551,-2.77556e-17,0,20502,20502
272.601,-2.77556e-17,0,20686,20686
272.651,-2.77556e-17,0,20858,20858
272.701,-2.77556e-17,0,21038,21038
272.75,-2.77556e-17,0,21202,21202
272.8,-2.77556e-17,0,21366,21366
272.85,-2.77556e-17,0,21562,21562
272.901,5.82867e-16,0,21726,21726
272.951,1.4988e-15,0,21898,21898
273.001,2.44249e-15,0,22062,22062
273.051,3.21965e-15,0,22246,22246
273.1,3.96905e-15,0,22402,22402
273.15,4.82947e-15,0,22566,22566
273.2,5.66214e-15,0,22762,22762
273.251,6.46705e-15,0,22926,22926
273.301,7.24421e-15,0,23090,23090
273.351,8.07687e-15,0,23258,23258
273.401,9.02056e-15,0,23430,23430
273.451,9.96425e-15,0,23602,23602
273.5,1.09079e-14,0,23766,23766
273.55,1.28786e-14,0,23938,23938
273.601,1.68199e-14,0,24102,24102
273.651,2.36478e-14,0,24270,24270
273.701,3.39451e-14,0,24442,24442
273.751,4.56024e-14,0,24606,24606
273.801,5.22082e-14,0,24778,24778
273.85,3.79696e-14,0,24930,24930
273.9,-2.58127e-14,0,25094,25094
273.951,-1.9168e-13,0,25282,25282
274.001,-5.16281e-13,0,25422,25422
274.051,-1.08349e-12,0,25618,25618
274.101,-1.88954e-12,0,25762,25762
274.151,-5.34173e-12,0,25926,25926
274.2,-2.99224e-11,0,26098,26098
274.25,-9.0756e-11,0,26262,26262
274.301,-1.94487e-10,0,26422,26422
274.351,-2.94884e-10,0,26602,26602
274.401,-3.23065e-10,0,26742,26742
274.451,-2.34378e-10,0,26922,26922
274.501,-6.02052e-11,0,27082,27082
274.55,1.06964e-10,0,27230,27230
274.6,1.80804e-10,0,27418,27418
274.65,1.43312e-10,0,27562,27562
274.701,5.20785e-11,0,27726,27726
274.751,2.44285e-12,0,27898,27898
274.801,3.5607e-11,0,28046,28046
274.851,1.18606e-10,0,28214,28214
274.9,1.76668e-10,0,28378,28378
274.95,1.62452e-10,0,28526,28526
275,9.62034e-11,0,28694,28694
275.051,4.1741e-11,0,28858,28858
275.101,5.08786e-11,0,29006,29006
275.151,1.11476e-10,0,29182,29182
275.201,1.70784e-10,0,29338,29338
275.251,1.8131e-10,0,29486,29486
275.3,1.37721e-10,0,29662,29662
275.35,7.64189e-11,0,29818,29818
275.401,4.60396e-11,0,29966,29966
275.451,7.54911e-11,0,30142,30142
275.501,1.47545e-10,0,30298,30298
275.551,2.08695e-10,0,30446,30446
275.601,1.99738e-10,0,30582,30582
275.65,1.07903e-10,0,30746,30746
275.7,1.28667e-12,0,30898,30898
275.751,-3.97904e-12,0,31042,31042
275.801,1.41556e-10,0,31166,31166
275.851,3.21828e-10,0,31302,31302
275.901,3.21647e-10,0,31446,31446
275.951,6.42641e-11,0,31582,31582
276,-1.39529e-10,0,31714,31714
276.05,4.05165e-10,0,31858,31858
276.1,2.43099e-09,0,31978,31978
276.151,6.3772e-09,0,32098,32098
276.201,1.16397e-08,0,32218,32218
276.251,1.74427e-08,0,32338,32338
276.301,2.28713e-08,0,32450,32450
276.35,2.73721e-08,0,32548,32548
276.4,3.09844e-08,0,32660,32660
276.45,3.43461e-08,0,32752,32752
276.501,3.86139e-08,0,32768,32768
276.551,4.45578e-08,0,32768,32768
276.601,5.2883e-08,0,32768,32768
276.651,6.37382e-08,0,32768,32768
276.701,7.71111e-08,0,32768,32768
276.75,9.32445e-08,0,32768,32768
276.8,1.12855e-07,0,32768,32768
276.851,1.378e-07,0,32768,32768
276.901,1.6773e-07,0,32768,32768
276.951,2.03902e-07,0,32768,32768
277.001,2.46192e-07,0,32768,32768
277.051,2.93684e-07,0,32736,32736
277.1,3.44995e-07,0,32768,32768
277.15,3.98934e-07,0,32768,32768
277.201,4.56723e-07,0,32768,32768
277.251,5.15267e-07,0,32720,32720
277.301,5.76247e-07,0,32616,32616
277.351,6.38671e-07,0,32752,32752
277.401,7.0019e-07,0,32768,32768
277.45,7.57628e-07,0,32592,32592
277.5,8.07932e-07,0,32744,32744
277.55,8.48985e-07,0,32704,32704
277.601,8.80769e-07,0,32768,32768
277.651,9.02026e-07,0,32668,32668
277.701,9.15289e-07,0,32768,32768
277.751,9.22327e-07,0,32656,32656
277.8,9.24582e-07,0,32768,32768
277.85,9.22809e-07,0,32696,32696
277.9,9.1703e-07,0,32672,32672
277.951,9.06308e-07,0,32744,32744
278.001,8.90339e-07,0,32752,32752
278.051,8.67899e-07,0,32752,32752
278.101,8.38176e-07,0,32640,32640
278.151,8.00838e-07,0,32768,32768
278.2,7.56338e-07,0,32696,32696
278.25,7.06073e-07,0,32768,32768
278.301,6.50599e-07,0,32676,32676
278.351,5.95607e-07,0,32712,32712
278.401,5.41716e-07,0,32656,32656
278.451,4.90439e-07,0,32720,32720
278.501,4.42549e-07,0,32640,32640
278.55,3.98201e-07,0,32752,32752
278.6,3.57116e-07,0,32616,32616
278.651,3.17726e-07,0,32744,32744
278.701,2.81824e-07,0,32624,32624
278.751,2.48078e-07,0,32560,32560
278.801,2.16782e-07,0,32460,32460
278.851,1.88661e-07,0,32348,32348
278.9,1.64509e-07,0,32532,32532
278.95,1.44581e-07,0,32500,32500
279.001,1.27759e-07,0,32476,32476
279.051,1.13558e-07,0,32558,32558
279.101,1.00102e-07,0,32540,32540
279.151,8.68572e-08,0,32494,32494
279.201,7.42527e-08,0,32416,32416
279.25,6.31899e-08,0,32368,32368
279.3,5.43506e-08,0,32554,32554
279.35,4.77783e-08,0,32472,32472
279.401,4.27448e-08,0,32468,32468
279.451,3.85618e-08,0,32384,32384
279.501,3.42022e-08,0,32412,32412
279.551,2.93091e-08,0,32480,32480
279.6,2.42188e-08,0,32452,32452
279.65,1.97604e-08,0,32372,32372
279.7,1.6756e-08,0,32268,32268
279.751,1.55531e-08,0,32456,32456
279.801,1.5993e-08,0,32424,32424
279.851,1.74735e-08,0,32344,32344
279.901,1.94909e-08,0,32332,32332
279.951,2.17667e-08,0,32344,32344
280,2.42295e-08,0,32280,32280
280.05,2.68981e-08,0,32356,32356
280.101,2.98687e-08,0,32296,32296
280.151,3.29332e-08,0,32368,32368
280.201,3.61173e-08,0,32470,32470
280.251,3.94046e-08,0,32450,32450
280.301,4.28374e-08,0,32466,32466
280.35,4.64697e-08,0,32594,32594
280.4,5.03136e-08,0,32728,32728
280.451,5.44552e-08,0,32676,32676
280.501,5.86064e-08,0,32670,32670
280.551,6.28374e-08,0,32622,32622
280.601,6.71184e-08,0,32608,32608
280.651,7.14597e-08,0,32580,32580
280.7,7.59462e-08,0,32592,32592
280.75,8.07522e-08,0,32438,32438
280.8,8.61036e-08,0,32600,32600
280.851,9.23785e-08,0,32476,32476
280.901,9.92631e-08,0,32536,32536
280.951,1.06771e-07,0,32422,32422
281.001,1.14591e-07,0,32626,32626
281.05,1.22373e-07,0,32494,32494
281.1,1.29883e-07,0,32616,32616
281.15,1.37115e-07,0,32484,32484
281.201,1.44539e-07,0,32526,32526
281.251,1.52199e-07,0,32360,32360
281.301,1.60844e-07,0,32626,32626
281.351,1.70987e-07,0,32342,32342
281.401,1.83075e-07,0,32578,32578
281.45,1.97515e-07,0,32428,32428
281.5,2.14741e-07,0,32428,32428
281.551,2.3591e-07,0,32312,32312
281.601,2.60359e-07,0,32476,32476
281.651,2.89095e-07,0,32210,32210
281.701,3.22346e-07,0,32404,32404
281.751,3.60021e-07,0,32064,32064
281.8,4.01707e-07,0,31892,31892
281.85,4.46771e-07,0,31884,31884
281.901,4.95948e-07,0,31828,31828
281.951,5.45731e-07,0,31772,31772
282.001,5.96796e-07,0,31700,31700
282.051,6.48281e-07,0,31642,31642
282.101,6.98991e-07,0,31596,31596
282.15,7.47341e-07,0,31524,31524
282.2,7.91489e-07,0,31456,31456
282.251,8.30638e-07,0,31398,31398
282.301,8.6109e-07,0,31326,31326
282.351,8.83279e-07,0,31276,31276
282.401,8.97138e-07,0,31216,31216
282.451,9.03198e-07,0,31154,31154
282.5,9.02338e-07,0,31100,31100
282.55,8.95479e-07,0,31036,31036
282.6,8.83335e-07,0,30992,30992
282.651,8.65695e-07,0,30932,30932
282.701,8.43564e-07,0,30884,30884
282.751,8.16237e-07,0,30818,30818
282.801,7.83358e-07,0,30784,30784
282.85,7.44691e-07,0,30726,30726
282.9,7.00322e-07,0,30718,30718
282.95,6.50791e-07,0,30650,30650
283.001,5.95504e-07,0,30622,30622
283.051,5.39095e-07,0,30560,30560
283.101,4.81679e-07,0,30534,30534
283.151,4.24856e-07,0,30494,30494
283.201,3.69965e-07,0,30502,30502
283.25,3.1795e-07,0,30450,30450
283.3,2.69332e-07,0,30570,30570
283.351,2.23011e-07,0,30734,30734
283.401,1.81582e-07,0,30912,30912
283.451,1.43556e-07,0,31074,31074
283.501,1.08885e-07,0,31116,31116
283.551,7.76358e-08,0,31180,31180
283.6,4.99495e-08,0,31228,31228
283.65,2.59159e-08,0,31292,31292
283.701,4.88923e-09,0,31340,31340
283.751,-1.22822e-08,0,31404,31404
283.801,-2.67802e-08,0,31452,31452
283.851,-3.91516e-08,0,31516,31516
283.901,-4.97858e-08,0,31564,31564
283.95,-5.8834e-08,0,31628,31628
284,-6.62624e-08,0,31676,31676
284.05,-7.20004e-08,0,31740,31740
284.101,-7.61898e-08,0,31804,31804
284.151,-7.88276e-08,0,31852,31852
284.201,-8.04255e-08,0,31916,31916
284.251,-8.13564e-08,0,31964,31964
284.3,-8.18598e-08,0,32028,32028
284.35,-8.19722e-08,0,32076,32076
284.4,-8.15597e-08,0,32140,32140
284.451,-8.03834e-08,0,32188,32188
284.501,-7.83846e-08,0,32252,32252
284.551,-7.55666e-08,0,32300,32300
284.601,-7.20971e-08,0,32364,32364
284.651,-6.82235e-08,0,32412,32412
284.7,-6.41957e-08,0,32476,32476
284.75,-6.0214e-08,0,32524,32524
284.801,-5.6306e-08,0,32588,32588
284.851,-5.27783e-08,0,32652,32652
284.901,-4.95597e-08,0,32664,32664
284.951,-4.66683e-08,0,32752,32752
285.001,-4.41006e-08,0,32768,32768
285.05,-4.18368e-08,0,32768,32768
285.1,-3.98479e-08,0,32752,32752
285.151,-3.80588e-08,0,32720,32720
285.201,-3.65513e-08,0,32720,32720
285.251,-3.52591e-08,0,32704,32704
285.301,-3.41748e-08,0,32720,32720
285.351,-3.32902e-08,0,32720,32720
285.4,-3.25933e-08,0,32720,32720
285.45,-3.20684e-08,0,32712,32712
285.5,-3.16974e-08,0,32752,32752
285.551,-3.14555e-08,0,32736,32736
285.601,-3.13367e-08,0,32704,32704
285.651,-3.13135e-08,0,32508,32508
285.701,-3.13682e-08,0,32768,32768
285.75,-3.14846e-08,0,32768,32768
285.8,-3.16485e-08,0,32768,32768
285.85,-3.18477e-08,0,32768,32768
285.901,-3.20793e-08,0,32768,32768
285.951,-3.23219e-08,0,32768,32768
286.001,-3.25756e-08,0,32768,32768
286.051,-3.28345e-08,0,32768,32768
286.101,-3.30938e-08,0,32768,32768
286.15,-3.33487e-08,0,32768,32768
286.2,-3.35954e-08,0,32768,32768
286.251,-3.38377e-08,0,32768,32768
286.301,-3.40598e-08,0,32768,32768
286.351,-3.42679e-08,0,32768,32768
286.401,-3.44613e-08,0,32768,32768
286.451,-3.46393e-08,0,32768,32768
286.5,-3.48007e-08,0,32768,32768
286.55,-3.49442e-08,0,32768,32768
286.601,-3.50717e-08,0,32768,32768
286.651,-3.51744e-08,0,32768,32768
286.701,-3.52556e-08,0,32720,32720
286.751,-3.53152e-08,0,32704,32704
286.801,-3.53538e-08,0,32728,32728
286.85,-3.53725e-08,0,32696,32696
286.9,-3.53731e-08,0,32768,32768
286.951,-3.53555e-08,0,32736,32736
287.001,-3.53241e-08,0,32768,32768
287.051,-3.52807e-08,0,32752,32752
287.101,-3.5227e-08,0,32752,32752
287.151,-3.51652e-08,0,32768,32768
287.2,-3.50975e-08,0,32768,32768
287.25,-3.50258e-08,0,32768,32768
287.3,-3.49517e-08,0,32768,32768
287.351,-3.48743e-08,0,32768,32768
287.401,-3.47992e-08,0,32768,32768
287.451,-3.47255e-08,0,32760,32760
287.501,-3.4654e-08,0,32760,32760
287.55,-3.45856e-08,0,32768,32768
287.6,-3.45212e-08,0,32768,32768
287.65,-3.44616e-08,0,32768,32768
287.701,-3.44056e-08,0,32768,32768
287.751,-3.4357e-08,0,32768,32768
287.801,-3.43146e-08,0,32760,32760
287.851,-3.42787e-08,0,32752,32752
287.901,-3.42491e-08,0,32768,32768
287.95,-3.42263e-08,0,32752,32752
288,-3.42105e-08,0,32768,32768
288.051,-3.42014e-08,0,32752,32752
288.101,-3.41999e-08,0,32752,32752
288.151,-3.42048e-08,0,32768,32768
288.201,-3.42174e-08,0,32768,32768
288.251,-3.42373e-08,0,32752,32752
288.3,-3.42644e-08,0,32768,32768
288.35,-3.4299e-08,0,32736,32736
288.401,-3.43419e-08,0,32768,32768
288.451,-3.43907e-08,0,32768,32768
288.501,-3.44462e-08,0,32768,32768
288.551,-3.45083e-08,0,32760,32760
288.601,-3.45772e-08,0,32752,32752
288.65,-3.46532e-08,0,32760,32760
288.7,-3.47368e-08,0,32768,32768
288.75,-3.48288e-08,0,32768,32768
288.801,-3.49335e-08,0,32768,32768
288.851,-3.50461e-08,0,32768,32768
288.901,-3.51712e-08,0,32768,32768
288.951,-3.53104e-08,0,32768,32768
289,-3.54655e-08,0,32768,32768
289.05,-3.56385e-08,0,32768,32768
289.1,-3.5831e-08,0,32768,32768
289.151,-3.60514e-08,0,32768,32768
289.201,-3.62883e-08,0,32768,32768
289.251,-3.65487e-08,0,32768,32768
289.301,-3.6833e-08,0,32768,32768
289.351,-3.71412e-08,0,32768,32768
289.4,-3.74723e-08,0,32768,32768
289.45,-3.78252e-08,0,32768,32768
289.501,-3.82086e-08,0,32768,32768
289.551,-3.85978e-08,0,32768,32768
289.601,-3.89997e-08,0,32768,32768
289.651,-3.94101e-08,0,32768,32768
289.701,-3.98245e-08,0,32768,32768
289.75,-4.0238e-08,0,32768,32768
289.8,-4.06462e-08,0,32768,32768
289.851,-4.1056e-08,0,32768,32768
289.901,-4.14397e-08,0,32768,32768
289.951,-4.18055e-08,0,32768,32768
290.001,-4.21494e-08,0,32760,32760
290.051,-4.24681e-08,0,32768,32768
290.1,-4.27579e-08,0,32732,32732
290.15,-4.30156e-08,0,32768,32768
290.201,-4.3244e-08,0,32736,32736
290.251,-4.34271e-08,0,32684,32684
290.301,-4.35698e-08,0,32736,32736
290.351,-4.36702e-08,0,32672,32672
290.401,-4.37274e-08,0,32696,32696
290.45,-4.37408e-08,0,32704,32704
290.5,-4.37106e-08,0,32768,32768
290.55,-4.36372e-08,0,32752,32752
290.601,-4.3517e-08,0,32752,32752
290.651,-4.33581e-08,0,32672,32672
290.701,-4.31579e-08,0,32624,32624
290.751,-4.29172e-08,0,32720,32720
290.8,-4.2636e-08,0,32600,32600
290.85,-4.23142e-08,0,32632,32632
290.9,-4.19517e-08,0,32586,32586
290.951,-4.15353e-08,0,32586,32586
291.001,-4.10885e-08,0,32644,32644
291.051,-4.05994e-08,0,32688,32688
291.101,-4.00676e-08,0,32664,32664
291.151,-3.94933e-08,0,32708,32708
291.2,-3.88766e-08,0,32768,32768
291.25,-3.82182e-08,0,32768,32768
291.301,-3.74984e-08,0,32768,32768
291.351,-3.67607e-08,0,32768,32768
291.401,-3.59879e-08,0,32734,32734
291.451,-3.51841e-08,0,32576,32576
291.501,-3.43541e-08,0,32672,32672
291.55,-3.35032e-08,0,32708,32708
291.6,-3.26374e-08,0,32744,32744
291.651,-3.1737e-08,0,32666,32666
291.701,-3.08595e-08,0,32628,32628
291.751,-2.99851e-08,0,32528,32528
291.801,-2.9119e-08,0,32550,32550
291.851,-2.82663e-08,0,32602,32602
291.9,-2.74317e-08,0,32546,32546
291.95,-2.66195e-08,0,32536,32536
292,-2.58341e-08,0,32458,32458
292.051,-2.50577e-08,0,32400,32400
292.101,-2.43389e-08,0,32418,32418
292.151,-2.36584e-08,0,32344,32344
292.201,-2.30194e-08,0,32362,32362
292.25,-2.24242e-08,0,32346,32346
292.3,-2.18745e-08,0,32308,32308
292.35,-2.13709e-08,0,32154,32154
292.401,-2.09003e-08,0,32286,32286
292.451,-2.04885e-08,0,32080,32080
292.501,-2.01196e-08,0,32064,32064
292.551,-1.97911e-08,0,31988,31988
292.601,-1.95004e-08,0,32044,32044
292.65,-1.92447e-08,0,32050,32050
292.7,-1.9021e-08,0,32046,32046
292.751,-1.8821e-08,0,32040,32040
292.801,-1.8653e-08,0,32026,32026
292.851,-1.8508e-08,0,32002,32002
292.901,-1.8383e-08,0,32024,32024
292.951,-1.82754e-08,0,31998,31998
293,-1.81824e-08,0,31980,31980
293.05,-1.81016e-08,0,31992,31992
293.101,-1.80289e-08,0,31972,31972
293.151,-1.79664e-08,0,31976,31976
293.201,-1.79104e-08,0,31980,31980
293.251,-1.78593e-08,0,31960,31960
293.301,-1.78117e-08,0,31974,31974
293.35,-1.77665e-08,0,31960,31960
293.4,-1.77229e-08,0,31948,31948
293.451,-1.76789e-08,0,32062,32062
293.501,-1.76362e-08,0,32212,32212
293.551,-1.75927e-08,0,32346,32346
293.601,-1.75475e-08,0,32358,32358
293.651,-1.74993e-08,0,32362,32362
293.7,-1.74469e-08,0,32344,32344
293.75,-1.73892e-08,0,32348,32348
293.8,-1.73249e-08,0,32330,32330
293.851,-1.72509e-08,0,32322,32322
293.901,-1.71706e-08,0,32336,32336
293.951,-1.70816e-08,0,32336,32336
294.001,-1.69835e-08,0,32484,32484
294.05,-1.68762e-08,0,32630,32630
294.1,-1.676e-08,0,32756,32756
294.15,-1.66354e-08,0,32756,32756
294.201,-1.64991e-08,0,32768,32768
294.251,-1.63596e-08,0,32768,32768
294.301,-1.62141e-08,0,32764,32764
294.351,-1.60636e-08,0,32768,32768
294.401,-1.59089e-08,0,32756,32756
294.45,-1.5751e-08,0,32768,32768
294.5,-1.55906e-08,0,32766,32766
294.551,-1.54239e-08,0,32766,32766
294.601,-1.52611e-08,0,32760,32760
294.651,-1.50982e-08,0,32768,32768
294.701,-1.49351e-08,0,32754,32754
294.751,-1.47712e-08,0,32768,32768
294.8,-1.46054e-08,0,32768,32768
294.85,-1.4436e-08,0,32766,32766
294.901,-1.4256e-08,0,32768,32768
294.951,-1.40742e-08,0,32764,32764
295.001,-1.38846e-08,0,32768,32768
295.051,-1.36867e-08,0,32762,32762
295.101,-1.34805e-08,0,32766,32766
295.15,-1.32664e-08,0,32766,32766
295.2,-1.30448e-08,0,32760,32760
295.25,-1.28157e-08,0,32764,32764
295.301,-1.25716e-08,0,32760,32760
295.351,-1.23249e-08,0,32734,32734
295.401,-1.20669e-08,0,32732,32732
295.451,-1.17951e-08,0,32730,32730
295.5,-1.15066e-08,0,32724,32724
295.55,-1.11985e-08,0,32720,32720
295.6,-1.08683e-08,0,32712,32712
295.651,-1.05029e-08,0,32712,32712
295.701,-1.01215e-08,0,32720,32720
295.751,-9.71236e-09,0,32712,32712
295.801,-9.2745e-09,0,32704,32704
295.851,-8.80708e-09,0,32704,32704
295.9,-8.30953e-09,0,32704,32704
295.95,-7.78157e-09,0,32704,32704
296.001,-7.20646e-09,0,32688,32688
296.051,-6.61784e-09,0,32688,32688
296.101,-6.00129e-09,0,32688,32688
296.151,-5.35925e-09,0,32704,32704
296.201,-4.69506e-09,0,32696,32696
296.25,-4.01278e-09,0,32696,32696
296.3,-3.317e-09,0,32704,32704
296.351,-2.59183e-09,0,32696,32696
296.401,-1.88389e-09,0,32712,32712
296.451,-1.17757e-09,0,32720,32720
296.501,-4.77819e-10,0,32712,32712
296.551,2.10545e-10,0,32704,32704
296.6,8.82882e-10,0,32616,32616
296.65,1.53479e-09,0,32600,32600
296.7,2.16215e-09,0,32608,32608
296.751,2.77836e-09,0,32604,32604
296.801,3.34465e-09,0,32604,32604
296.851,3.87594e-09,0,32572,32572
296.901,4.36944e-09,0,32540,32540
296.95,4.82265e-09,0,32658,32658
297,5.23355e-09,0,32700,32700
297.05,5.60067e-09,0,32704,32704
297.101,5.93207e-09,0,32696,32696
297.151,6.20886e-09,0,32704,32704
297.201,6.44206e-09,0,32704,32704
297.251,6.63326e-09,0,32720,32720
297.301,6.78468e-09,0,32332,32332
297.35,6.89893e-09,0,32612,32612
297.4,6.97896e-09,0,32592,32592
297.451,7.02879e-09,0,32576,32576
297.501,7.04832e-09,0,32576,32576
297.551,7.04376e-09,0,32584,32584
297.601,7.01806e-09,0,32540,32540
297.651,6.97227e-09,0,32576,32576
297.7,6.91087e-09,0,32548,32548
297.75,6.83633e-09,0,32452,32452
297.801,6.7484e-09,0,32352,32352
297.851,6.65434e-09,0,32308,32308
297.901,6.5539e-09,0,32096,32096
297.951,6.44891e-09,0,32012,32012
298.001,6.34097e-09,0,31792,31792
298.05,6.23144e-09,0,31896,31896
298.1,6.12152e-09,0,31904,31904
298.151,6.00904e-09,0,31976,31976
298.201,5.90134e-09,0,31916,31916
298.251,5.79598e-09,0,32090,32090
298.301,5.6938e-09,0,32126,32126
298.351,5.59554e-09,0,32338,32338
298.4,5.50202e-09,0,32404,32404
298.45,5.41404e-09,0,32436,32436
298.5,5.33233e-09,0,32448,32448
298.551,5.25541e-09,0,32548,32548
298.601,5.18813e-09,0,32584,32584
298.651,5.12846e-09,0,32592,32592
298.701,5.07639e-09,0,32572,32572
298.75,5.03167e-09,0,32636,32636
298.8,4.99381e-09,0,32624,32624
298.85,4.96244e-09,0,32612,32612
298.901,4.93626e-09,0,32628,32628
298.951,4.91536e-09,0,32656,32656
299.001,4.89729e-09,0,32616,32616
299.051,4.88094e-09,0,32612,32612
299.101,4.86529e-09,0,32648,32648
299.15,4.84913e-09,0,32600,32600
299.2,4.83134e-09,0,32560,32560
299.251,4.81047e-09,0,32122,32122
299.301,4.78701e-09,0,31698,31698
299.351,4.75977e-09,0,31688,31688
299.401,4.72813e-09,0,31896,31896
299.451,4.6916e-09,0,31992,31992
299.5,4.65022e-09,0,31894,31894
299.55,4.60484e-09,0,31916,31916
299.601,4.55515e-09,0,32118,32118
299.651,4.50509e-09,0,32166,32166
299.701,4.45438e-09,0,32110,32110
299.751,4.40387e-09,0,31952,31952
299.801,4.3541e-09,0,31968,31968
299.85,4.30528e-09,0,32042,32042
299.9,4.25741e-09,0,31984,31984
299.95,4.2104e-09,0,32116,32116
300.001,4.16285e-09,0,32394,32394
300.051,4.11772e-09,0,32530,32530
300.101,4.07416e-09,0,32674,32674
300.151,4.03265e-09,0,32760,32760
300.2,3.99375e-09,0,32752,32752
300.25,3.95834e-09,0,32768,32768
300.3,3.92707e-09,0,32768,32768
300.351,3.89948e-09,0,32760,32760
300.401,3.87681e-09,0,32752,32752
300.451,3.85741e-09,0,32752,32752
300.501,3.84163e-09,0,32752,32752
300.551,3.82939e-09,0,32768,32768
300.6,3.81937e-09,0,32768,32768
300.65,3.8106e-09,0,32752,32752
300.701,3.80227e-09,0,32768,32768
300.751,3.79457e-09,0,32768,32768
300.801,3.78674e-09,0,32768,32768
300.851,3.77841e-09,0,32768,32768
300.901,3.7693e-09,0,32752,32752
300.95,3.75927e-09,0,32768,32768
301,3.74828e-09,0,32768,32768
301.051,3.73589e-09,0,32752,32752
301.101,3.7224e-09,0,32752,32752
301.151,3.70718e-09,0,32752,32752
301.201,3.69055e-09,0,32752,32752
301.251,3.67289e-09,0,32760,32760
301.3,3.65442e-09,0,32756,32756
301.35,3.63521e-09,0,32758,32758
301.4,3.61521e-09,0,32758,32758
301.451,3.59366e-09,0,32748,32748
301.501,3.57182e-09,0,32744,32744
301.551,3.5492e-09,0,32748,32748
301.601,3.52596e-09,0,32744,32744
301.65,3.5022e-09,0,32728,32728
301.7,3.47798e-09,0,32752,32752
301.75,3.4533e-09,0,32740,32740
301.801,3.42737e-09,0,32734,32734
301.851,3.40159e-09,0,32730,32730
301.901,3.37513e-09,0,32730,32730
301.951,3.34792e-09,0,32638,32638
302.001,3.31998e-09,0,32666,32666
302.05,3.29135e-09,0,32516,32516
302.1,3.26214e-09,0,32464,32464
302.151,3.23154e-09,0,32238,32238
302.201,3.20137e-09,0,32208,32208
302.251,3.17086e-09,0,32116,32116
302.301,3.14011e-09,0,32118,32118
302.351,3.10923e-09,0,32014,32014
302.4,3.07826e-09,0,31984,31984
302.45,3.04724e-09,0,31928,31928
302.501,3.01525e-09,0,31616,31616
302.551,2.98412e-09,0,31242,31242
302.601,2.95293e-09,0,31010,31010
302.651,2.92169e-09,0,30798,30798
302.701,2.89042e-09,0,30630,30630
302.75,2.85909e-09,0,30382,30382
302.8,2.8277e-09,0,30200,30200
302.851,2.7953e-09,0,30094,30094
302.901,2.76372e-09,0,30604,30604
302.951,2.73202e-09,0,30450,30450
303.001,2.70017e-09,0,30694,30694
303.051,2.66814e-09,0,30522,30522
303.1,2.63583e-09,0,30502,30502
303.15,2.60317e-09,0,30812,30812
303.2,2.57026e-09,0,30708,30708
303.251,2.53607e-09,0,30728,30728
303.301,2.50234e-09,0,30766,30766
303.351,2.46817e-09,0,30634,30634
303.401,2.43369e-09,0,30700,30700
303.45,2.39874e-09,0,30602,30602
303.5,2.36327e-09,0,30678,30678
303.55,2.32723e-09,0,30492,30492
303.601,2.28949e-09,0,30618,30618
303.651,2.25219e-09,0,30420,30420
303.701,2.21437e-09,0,30394,30394
303.751,2.17608e-09,0,30168,30168
303.801,2.13717e-09,0,30185,30185
303.85,2.09761e-09,0,29974,29974
303.9,2.0576e-09,0,29922,29922
303.951,2.016e-09,0,29780,29780
304.001,1.97515e-09,0,29896,29896
304.051,1.93396e-09,0,29696,29696
304.101,1.89243e-09,0,29522,29522
304.151,1.85054e-09,0,29632,29632
304.2,1.8083e-09,0,29362,29362
304.25,1.76583e-09,0,29098,29098
304.301,1.72203e-09,0,29514,29514
304.351,1.6794e-09,0,29196,29196
304.401,1.63671e-09,0,29084,29084
304.451,1.59414e-09,0,29446,29446
304.501,1.55174e-09,0,29442,29442
304.55,1.50943e-09,0,29070,29070
304.6,1.46732e-09,0,29160,29160
304.65,1.42551e-09,0,28976,28976
304.701,1.38286e-09,0,28870,28870
304.751,1.34187e-09,0,29040,29040
304.801,1.30141e-09,0,29192,29192
304.851,1.26147e-09,0,29190,29190
304.9,1.22207e-09,0,29120,29120
304.95,1.18331e-09,0,29106,29106
