250,0,0,512,512
250.012,0,0,512,512
250.059,0,0,512,512
250.105,0,0,512,512
250.152,0,0,512,512
250.211,0,0,512,512
250.258,0,0,512,512
250.305,0,0,512,512
250.352,0,0,512,512
250.41,0,0,512,512
250.457,0,0,512,512
250.504,0,0,512,512
250.551,0,0,512,512
250.609,0,0,512,512
250.656,0,0,512,512
250.703,0,0,512,512
250.762,0,0,512,512
250.808,0,0,512,512
250.855,0,0,512,512
250.902,0,0,512,512
250.961,0,0,512,512
251.008,0,0,512,512
251.055,0,0,512,512
251.101,0,0,512,512
251.16,0,0,512,512
251.207,0,0,512,512
251.254,0,0,512,512
251.301,0,0,512,512
251.359,0,0,512,512
251.406,0,0,512,512
251.453,0,0,512,512
251.511,0,0,512,512
251.558,0,0,512,512
251.605,0,0,512,512
251.652,0,0,512,512
251.711,0,0,512,512
251.758,0,0,512,512
251.804,0,0,512,512
251.851,0,0,512,512
251.91,0,0,512,512
251.957,0,0,512,512
252.004,0,0,512,512
252.05,0,0,512,512
252.109,0,0,512,512
252.156,0,0,512,512
252.203,0,0,512,512
252.261,0,0,512,512
252.308,0,0,512,512
252.355,0,0,512,512
252.402,0,0,512,512
252.461,0,0,512,512
252.507,0,0,512,512
252.554,0,0,512,512
252.601,0,0,512,512
252.66,0,0,512,512
252.707,0,0,512,512
252.754,0,0,512,512
252.8,0,0,512,512
252.859,0,0,512,512
252.906,0,0,512,512
252.953,0,0,512,512
253.011,0,0,512,512
253.058,0,0,512,512
253.105,0,0,512,512
253.152,0,0,512,512
253.21,0,0,512,512
253.257,0,0,512,512
253.304,0,0,512,512
253.351,0,0,512,512
253.41,0,0,512,512
253.457,0,0,512,512
253.503,0,0,512,512
253.55,0,0,512,512
253.609,0,0,512,512
253.656,0,0,512,512
253.703,0,0,512,512
253.761,0,0,512,512
253.808,0,0,512,512
253.855,0,0,512,512
253.902,0,0,512,512
253.96,0,0,512,512
254.007,0,0,512,512
254.054,0,0,512,512
254.101,0,0,512,512
254.16,0,0,512,512
254.206,0,0,512,512
254.253,0,0,512,512
254.3,0,0,512,512
254.359,0,0,512,512
254.406,0,0,512,512
254.452,0,0,512,512
254.511,0,0,512,512
254.558,0,0,512,512
254.605,0,0,512,512
254.652,0,0,512,512
254.71,0,0,512,512
254.757,0,0,512,512
254.804,0,0,512,512
254.851,0,0,512,512
254.909,0,0,512,512
254.956,0,0,512,512
255.003,0,0,512,512
255.05,0,0,512,512
255.109,0,0,512,512
255.155,0,0,512,512
255.202,0,0,512,512
255.261,0,0,512,512
255.308,0,0,512,512
255.355,0,0,512,512
255.402,0,0,512,512
255.46,0,0,512,512
255.507,0,0,512,512
255.554,0,0,512,512
255.601,0,0,512,512
255.659,0,0,512,512
255.706,0,0,512,512
255.753,0,0,512,512
255.812,0,0,512,512
255.859,0,0,512,512
255.905,0,0,512,512
255.952,0,0,512,512
256.011,0,0,512,512
256.058,0,0,512,512
256.105,0,0,512,512
256.151,0,0,512,512
256.21,0,0,512,512
256.257,0,0,512,512
256.304,0,0,512,512
256.351,0,0,512,512
256.409,0,0,512,512
256.456,0,0,512,512
256.503,0,0,512,512
256.562,0,0,512,512
256.608,0,0,512,512
256.655,0,0,512,512
256.702,0,0,512,512
256.761,0,0,512,512
256.808,0,0,512,512
256.854,0,0,512,512
256.901,0,0,512,512
256.96,0,0,512,512
257.007,0,0,512,512
257.054,0,0,512,512
257.101,0,0,512,512
257.159,0,0,512,512
257.206,0,0,512,512
257.253,0,0,512,512
257.311,0,0,512,512
257.358,0,0,512,512
257.405,0,0,512,512
257.452,0,0,512,512
257.511,0,0,512,512
257.557,0,0,512,512
257.604,0,0,512,512
257.651,0,0,512,512
257.71,0,0,512,512
257.757,0,0,512,512
257.804,0,0,512,512
257.85,2.77556e-17,0,512,512
257.909,2.77556e-17,0,512,512
257.956,2.77556e-17,0,512,512
258.003,2.77556e-17,0,512,512
258.061,2.77556e-17,0,512,512
258.108,2.77556e-17,0,512,512
258.155,2.77556e-17,0,512,512
258.202,2.77556e-17,0,512,512
258.261,2.77556e-17,0,512,512
258.307,2.77556e-17,0,512,512
258.354,2.77556e-17,0,512,512
258.401,2.77556e-17,0,512,512
258.46,2.77556e-17,0,512,512
258.507,2.77556e-17,0,512,512
258.553,2.77556e-17,0,512,512
258.6,2.77556e-17,0,512,512
258.659,2.77556e-17,0,512,512
258.706,2.77556e-17,0,512,512
258.753,2.77556e-17,0,512,512
258.811,2.77556e-17,0,512,512
258.858,2.77556e-17,0,512,512
258.905,2.77556e-17,0,512,512
258.952,0,0,512,512
259.01,0,0,512,512
259.057,0,0,512,512
259.104,0,0,512,512
259.151,2.77556e-17,0,512,512
259.21,2.77556e-17,0,512,512
259.256,2.77556e-17,0,512,512
259.303,2.77556e-17,0,512,512
259.35,2.77556e-17,0,512,512
259.409,2.77556e-17,0,512,512
259.456,2.77556e-17,0,512,512
259.503,2.77556e-17,0,512,512
259.561,2.77556e-17,0,512,512
259.608,2.77556e-17,0,512,512
259.655,2.77556e-17,0,512,512
259.702,2.77556e-17,0,512,512
259.76,2.77556e-17,0,512,512
259.807,2.77556e-17,0,512,512
259.854,2.77556e-17,0,512,512
259.901,2.77556e-17,0,512,512
259.959,2.77556e-17,0,512,512
260.006,2.77556e-17,0,512,512
260.053,2.77556e-17,0,512,512
260.1,2.77556e-17,0,512,512
260.159,2.77556e-17,0,512,512
260.206,0,0,512,512
260.252,0,0,512,512
260.311,0,0,512,512
260.358,0,0,512,512
260.405,0,0,512,512
260.452,0,0,512,512
260.51,0,0,512,512
260.557,0,0,512,512
260.604,0,0,512,512
260.651,0,0,512,512
260.709,0,0,512,512
260.756,0,0,512,512
260.803,0,0,512,512
260.862,0,0,512,512
260.909,0,0,512,512
260.955,0,0,512,512
261.002,0,0,512,512
261.061,0,0,512,512
261.108,0,0,512,512
261.155,0,0,512,512
261.201,0,0,512,512
261.26,0,0,512,512
261.307,0,0,512,512
261.354,0,0,512,512
261.401,0,0,512,512
261.459,0,0,512,512
261.506,0,0,512,512
261.553,0,0,512,512
261.612,0,0,512,512
261.658,0,0,512,512
261.705,0,0,512,512
261.752,0,0,512,512
261.811,0,0,512,512
261.858,0,0,512,512
261.905,0,0,512,512
261.951,0,0,512,512
262.01,0,0,512,512
262.057,0,0,512,512
262.104,0,0,512,512
262.151,0,0,512,512
262.209,0,0,512,512
262.256,0,0,512,512
262.303,0,0,512,512
262.361,0,0,512,512
262.408,0,0,512,512
262.455,0,0,512,512
262.502,0,0,512,512
262.561,0,0,512,512
262.608,0,0,512,512
262.654,0,0,512,512
262.701,0,0,512,512
262.76,0,0,512,512
262.807,0,0,512,512
262.854,0,0,512,512
262.9,0,0,512,512
262.959,0,0,512,512
263.006,0,0,512,512
263.053,0,0,512,512
263.111,-2.77556e-17,0,512,512
263.158,-2.77556e-17,0,512,512
263.205,-2.77556e-17,0,512,512
263.252,-2.77556e-17,0,512,512
263.311,-2.77556e-17,0,512,512
263.357,-2.77556e-17,0,512,512
263.404,-2.77556e-17,0,512,512
263.451,-2.77556e-17,0,512,512
263.51,-2.77556e-17,0,512,512
263.557,-2.77556e-17,0,512,512
263.603,-2.77556e-17,0,512,512
263.65,-2.77556e-17,0,512,512
263.709,-2.77556e-17,0,512,512
263.756,-2.77556e-17,0,512,512
263.803,-2.77556e-17,0,512,512
263.861,-2.77556e-17,0,512,512
263.908,-2.77556e-17,0,512,512
263.955,-2.77556e-17,0,512,512
264.002,-2.77556e-17,0,512,512
264.06,-2.77556e-17,0,512,512
264.107,-2.77556e-17,0,512,512
264.154,-2.77556e-17,0,512,512
264.201,-2.77556e-17,0,512,512
264.26,-2.77556e-17,0,512,512
264.306,-2.77556e-17,0,512,512
264.353,-2.77556e-17,0,512,512
264.4,-2.77556e-17,0,512,512
264.459,0,0,512,512
264.506,0,0,512,512
264.553,0,0,512,512
264.611,0,0,512,512
264.658,0,0,512,512
264.705,0,0,512,512
264.752,0,0,512,512
264.81,0,0,512,512
264.857,0,0,512,512
264.904,0,0,512,512
264.951,0,0,512,512
265.01,0,0,512,512
265.056,0,0,512,512
265.103,0,0,512,512
265.15,0,0,512,512
265.209,0,0,512,512
265.256,0,0,512,512
265.302,0,0,512,512
265.361,0,0,512,512
265.408,0,0,512,512
265.455,0,0,512,512
265.502,0,0,512,512
265.56,0,0,512,512
265.607,0,0,512,512
265.654,0,0,512,512
265.701,0,0,512,512
265.759,0,0,512,512
265.806,0,0,512,512
265.853,0,0,512,512
265.9,0,0,512,512
265.959,0,0,512,512
266.005,0,0,512,512
266.052,0,0,512,512
266.111,0,0,512,512
266.158,0,0,512,512
266.205,0,0,512,512
266.252,0,0,512,512
266.31,0,0,512,512
266.357,0,0,512,512
266.404,0,0,512,512
266.451,0,0,512,512
266.509,0,0,512,512
266.556,0,0,512,512
266.603,0,0,512,512
266.662,0,0,512,512
266.708,0,0,512,512
266.755,0,0,512,512
266.802,0,0,512,512
266.861,0,0,512,512
266.908,0,0,512,512
266.955,0,0,512,512
267.001,0,0,512,512
267.06,0,0,512,512
267.107,0,0,512,512
267.154,0,0,512,512
267.201,0,0,512,512
267.259,0,0,512,512
267.306,0,0,512,512
267.353,0,0,512,512
267.412,0,0,512,512
267.458,0,0,512,512
267.505,0,0,512,512
267.552,2.77556e-17,0,512,512
267.611,2.77556e-17,0,512,512
267.658,2.77556e-17,0,512,512
267.704,2.77556e-17,0,512,512
267.751,2.77556e-17,0,512,512
267.81,2.77556e-17,0,512,512
267.857,2.77556e-17,0,512,512
267.904,2.77556e-17,0,512,512
267.95,2.77556e-17,0,512,512
268.009,2.77556e-17,0,512,512
268.056,2.77556e-17,0,512,512
268.101,2.77556e-17,0,675,675
268.151,2.77556e-17,0,819,819
268.201,2.77556e-17,0,871,871
268.251,2.77556e-17,0,951,951
268.3,2.77556e-17,0,1097,1097
268.35,2.77556e-17,0,1167,1167
268.401,2.77556e-17,0,1191,1191
268.451,2.77556e-17,0,1211,1211
268.501,2.77556e-17,0,1201,1201
268.551,2.77556e-17,0,1271,1271
268.601,2.77556e-17,0,1193,1193
268.65,2.77556e-17,0,1219,1219
268.7,2.77556e-17,0,1323,1323
268.751,2.77556e-17,0,1359,1359
268.8,2.77556e-17,0,1415,1415
268.85,2.77556e-17,0,1427,1427
268.902,2.77556e-17,0,1517,1517
268.952,2.77556e-17,0,1561,1561
269.001,2.77556e-17,0,1577,1577
269.051,2.77556e-17,0,1601,1601
269.101,2.77556e-17,0,1641,1641
269.15,2.77556e-17,0,1639,1639
269.2,2.77556e-17,0,1667,1667
269.252,2.77556e-17,0,1655,1655
269.302,2.77556e-17,0,1707,1707
269.351,2.77556e-17,0,1751,1751
269.401,2.77556e-17,0,1771,1771
269.451,2.77556e-17,0,1869,1869
269.501,2.77556e-17,0,1963,1963
269.551,2.77556e-17,0,1939,1939
269.601,2.77556e-17,0,2023,2023
269.65,2.77556e-17,0,2155,2155
269.7,2.77556e-17,0,2257,2257
269.751,2.77556e-17,0,2463,2463
269.801,2.77556e-17,0,2691,2691
269.851,2.77556e-17,0,2843,2843
269.901,2.77556e-17,0,2983,2983
269.951,2.77556e-17,0,3127,3127
270,2.77556e-17,0,3337,3337
270.05,2.77556e-17,0,3489,3489
270.1,2.77556e-17,0,3645,3645
270.151,2.77556e-17,0,3737,3737
270.201,2.77556e-17,0,3909,3909
270.251,2.77556e-17,0,4117,4117
270.301,2.77556e-17,0,4329,4329
270.35,2.77556e-17,0,4501,4501
270.4,2.77556e-17,0,4697,4697
270.45,2.77556e-17,0,4865,4865
270.501,2.77556e-17,0,5053,5053
270.551,2.77556e-17,0,5235,5235
270.601,2.77556e-17,0,5435,5435
270.651,2.77556e-17,0,5631,5631
270.701,2.77556e-17,0,5825,5825
270.75,2.77556e-17,0,6025,6025
270.8,2.77556e-17,0,6225,6225
270.851,2.77556e-17,0,6409,6409
270.901,2.77556e-17,0,6605,6605
270.951,2.77556e-17,0,6787,6787
271.001,2.77556e-17,0,7029,7029
271.051,2.77556e-17,0,7177,7177
271.1,2.77556e-17,0,7413,7413
271.15,2.77556e-17,0,7581,7581
271.201,2.77556e-17,0,7771,7771
271.251,2.77556e-17,0,7973,7973
271.301,2.77556e-17,0,8207,8207
271.351,2.77556e-17,0,8405,8405
271.401,2.77556e-17,0,8605,8605
271.45,2.77556e-17,0,8797,8797
271.5,2.77556e-17,0,8997,8997
271.551,2.77556e-17,0,9167,9167
271.601,2.77556e-17,0,9343,9343
271.651,2.77556e-17,0,9541,9541
271.701,2.77556e-17,0,9735,9735
271.751,2.77556e-17,0,9935,9935
271.8,2.77556e-17,0,10101,10101
271.85,2.77556e-17,0,10301,10301
271.9,2.77556e-17,0,10531,10531
271.951,2.77556e-17,0,10721,10721
272.001,2.77556e-17,0,10931,10931
272.051,2.77556e-17,0,11127,11127
272.101,2.77556e-17,0,11299,11299
272.15,2.77556e-17,0,11489,11489
272.2,2.77556e-17,0,11717,11717
272.25,2.77556e-17,0,11881,11881
272.301,2.77556e-17,0,12047,12047
272.351,2.77556e-17,0,12277,12277
272.401,2.77556e-17,0,12449,12449
272.451,2.77556e-17,0,12655,12655
272.501,2.77556e-17,0,12877,12877
272.55,2.77556e-17,0,13057,13057
272.6,2.77556e-17,0,13263,13263
272.651,2.77556e-17,0,13475,13475
272.701,-5.55112e-16,0,13655,13655
272.751,-1.44329e-15,0,13861,13861
272.801,-2.35922e-15,0,14061,14061
272.851,-3.30291e-15,0,14227,14227
272.9,-4.19109e-15,0,14437,14437
272.95,-5.10703e-15,0,14655,14655
273.001,-6.30052e-15,0,14807,14807
273.051,-8.74301e-15,0,15005,15005
273.101,-1.42664e-14,0,15195,15195
273.151,-2.55351e-14,0,15403,15403
273.201,-4.76841e-14,0,15571,15571
273.25,-8.91232e-14,0,15787,15787
273.3,-1.63536e-13,0,15977,15977
273.35,-2.92683e-13,0,16161,16161
273.401,-5.17503e-13,0,16351,16351
273.451,-8.74578e-13,0,16531,16531
273.501,-1.43616e-12,0,16657,16657
273.551,-2.29197e-12,0,16823,16823
273.6,-3.55591e-12,0,16975,16975
273.65,-5.36315e-12,0,17131,17131
273.7,-7.8631e-12,0,17083,17083
273.751,-1.13163e-11,0,17065,17065
273.801,-1.56508e-11,0,17147,17147
273.851,-2.10168e-11,0,17205,17205
273.901,-2.73852e-11,0,17335,17335
273.951,-3.4599e-11,0,17507,17507
274,-4.23485e-11,0,17731,17731
274.05,-5.01644e-11,0,18023,18023
274.101,-5.76345e-11,0,18315,18315
274.151,-6.36066e-11,0,18545,18545
274.201,-6.75703e-11,0,18685,18685
274.251,-6.88464e-11,0,18759,18759
274.301,-6.6899e-11,0,18801,18801
274.35,-6.14153e-11,0,18843,18843
274.4,-5.23714e-11,0,18931,18931
274.451,-3.96633e-11,0,19027,19027
274.501,-2.46565e-11,0,19069,19069
274.551,-7.91378e-12,0,19097,19097
274.601,9.54883e-12,0,19141,19141
274.651,2.67268e-11,0,19169,19169
274.7,4.27658e-11,0,19279,19279
274.75,5.70597e-11,0,19247,19247
274.801,6.96148e-11,0,19131,19131
274.851,7.96561e-11,0,19063,19063
274.901,8.77148e-11,0,18923,18923
274.951,9.40439e-11,0,18791,18791
275.001,9.89329e-11,0,18723,18723
275.05,1.02655e-10,0,18637,18637
275.1,1.05446e-10,0,18585,18585
275.15,1.07504e-10,0,18537,18537
275.201,1.09058e-10,0,18441,18441
275.251,1.10237e-10,0,18399,18399
275.301,1.11362e-10,0,18347,18347
275.351,1.12765e-10,0,18249,18249
275.4,1.14805e-10,0,18111,18111
275.45,1.17776e-10,0,17953,17953
275.5,1.21767e-10,0,17773,17773
275.551,1.26634e-10,0,17635,17635
275.601,1.31268e-10,0,17537,17537
275.651,1.34439e-10,0,17457,17457
275.701,1.34408e-10,0,17313,17313
275.751,1.29487e-10,0,17185,17185
275.8,1.19045e-10,0,17035,17035
275.851,1.05921e-10,0,16959,16959
275.901,9.82541e-11,0,16837,16837
275.951,1.06927e-10,0,16691,16691
276,1.466e-10,0,16607,16607
276.051,4.03269e-10,0,16503,16503
276.101,2.41832e-09,0,16401,16401
276.15,6.23311e-09,0,16253,16253
276.201,1.16555e-08,0,16221,16221
276.251,1.748e-08,0,16147,16147
276.301,2.29361e-08,0,16077,16077
276.35,2.73372e-08,0,16055,16055
276.4,3.09919e-08,0,15931,15931
276.451,3.44084e-08,0,15875,15875
276.5,3.84954e-08,0,15807,15807
276.551,4.45446e-08,0,15789,15789
276.601,5.28122e-08,0,15755,15755
276.65,6.35774e-08,0,15657,15657
276.701,7.73557e-08,0,15685,15685
276.751,9.35525e-08,0,15607,15607
276.801,1.13343e-07,0,15643,15643
276.852,1.37837e-07,0,15591,15591
276.9,1.67079e-07,0,15577,15577
276.95,2.0319e-07,0,15489,15489
277.001,2.46496e-07,0,15451,15451
277.051,2.94281e-07,0,15393,15393
277.101,3.4536e-07,0,15369,15369
277.151,3.9928e-07,0,15339,15339
277.201,4.55616e-07,0,15295,15295
277.251,5.14742e-07,0,15223,15223
277.301,5.76533e-07,0,15275,15275
277.352,6.39722e-07,0,15425,15425
277.401,7.0043e-07,0,15547,15547
277.451,7.59067e-07,0,15733,15733
277.501,8.08587e-07,0,15911,15911
277.551,8.49844e-07,0,16295,16295
277.601,8.80881e-07,0,16407,16407
277.651,9.02273e-07,0,16501,16501
277.701,9.15528e-07,0,16559,16559
277.751,9.22462e-07,0,16603,16603
277.801,9.24566e-07,0,16649,16649
277.851,9.23161e-07,0,16661,16661
277.901,9.17212e-07,0,16693,16693
277.95,9.06955e-07,0,16819,16819
278.001,8.90851e-07,0,16927,16927
278.051,8.6817e-07,0,17083,17083
278.102,8.38102e-07,0,17199,17199
278.15,8.01696e-07,0,17288,17288
278.202,7.55482e-07,0,17420,17420
278.251,7.04962e-07,0,17490,17490
278.301,6.51065e-07,0,17596,17596
278.35,5.96286e-07,0,17676,17676
278.401,5.41096e-07,0,17712,17712
278.45,4.90441e-07,0,17612,17612
278.501,4.41811e-07,0,17544,17544
278.551,3.97003e-07,0,17400,17400
278.6,3.5692e-07,0,17298,17298
278.65,3.18448e-07,0,17136,17136
278.7,2.82426e-07,0,16948,16948
278.751,2.4762e-07,0,16784,16784
278.801,2.16411e-07,0,16662,16662
278.85,1.88435e-07,0,16522,16522
278.901,1.63808e-07,0,16344,16344
278.95,1.44277e-07,0,16194,16194
279.001,1.27863e-07,0,16006,16006
279.051,1.1367e-07,0,15788,15788
279.101,1.00195e-07,0,15618,15618
279.151,8.68581e-08,0,15428,15428
279.201,7.41341e-08,0,15266,15266
279.251,6.29904e-08,0,15088,15088
279.3,5.41414e-08,0,14886,14886
279.351,4.74612e-08,0,14698,14698
279.4,4.2702e-08,0,14500,14500
279.451,3.85355e-08,0,14318,14318
279.501,3.41646e-08,0,14182,14182
279.55,2.93468e-08,0,14042,14042
279.6,2.41491e-08,0,13884,13884
279.65,1.96092e-08,0,13734,13734
279.7,1.66058e-08,0,13528,13528
279.751,1.54929e-08,0,13494,13494
279.801,1.60524e-08,0,13746,13746
279.851,1.75048e-08,0,13842,13842
279.901,1.94293e-08,0,13960,13960
279.95,2.16402e-08,0,14044,14044
280,2.40648e-08,0,14252,14252
280.05,2.668e-08,0,14406,14406
280.101,2.96071e-08,0,14692,14692
280.151,3.26692e-08,0,14892,14892
280.201,3.59274e-08,0,15075,15075
280.251,3.93384e-08,0,15261,15261
280.301,4.29123e-08,0,15417,15417
280.35,4.66209e-08,0,15609,15609
280.4,5.047e-08,0,15773,15773
280.451,5.45861e-08,0,15977,15977
280.501,5.87016e-08,0,16111,16111
280.551,6.28991e-08,0,16304,16304
280.601,6.71588e-08,0,16494,16494
280.651,7.14869e-08,0,16690,16690
280.7,7.59464e-08,0,16862,16862
280.75,8.06992e-08,0,17036,17036
280.801,8.61581e-08,0,17206,17206
280.851,9.22492e-08,0,17340,17340
280.901,9.91541e-08,0,17500,17500
280.951,1.06704e-07,0,17612,17612
281.001,1.14568e-07,0,17724,17724
281.05,1.22381e-07,0,17904,17904
281.1,1.29899e-07,0,17966,17966
281.15,1.37112e-07,0,18082,18082
281.201,1.44497e-07,0,18176,18176
281.251,1.52109e-07,0,18304,18304
281.301,1.60707e-07,0,18418,18418
281.351,1.70811e-07,0,18528,18528
281.4,1.82863e-07,0,18574,18574
281.45,1.97264e-07,0,18542,18542
281.5,2.14442e-07,0,18596,18596
281.551,2.35554e-07,0,18602,18602
281.601,2.59953e-07,0,18658,18658
281.651,2.88663e-07,0,18690,18690
281.701,3.21924e-07,0,18718,18718
281.751,3.59638e-07,0,18758,18758
281.8,4.0137e-07,0,18782,18782
281.85,4.46485e-07,0,18800,18800
281.901,4.95719e-07,0,18814,18814
281.951,5.45564e-07,0,18728,18728
282.001,5.96704e-07,0,18772,18772
282.051,6.48294e-07,0,18870,18870
282.101,6.99142e-07,0,18900,18900
282.15,7.47649e-07,0,18920,18920
282.2,7.91951e-07,0,18922,18922
282.251,8.31235e-07,0,18942,18942
282.301,8.61768e-07,0,18992,18992
282.352,8.8417e-07,0,18998,18998
282.401,8.97861e-07,0,19092,19092
282.451,9.03786e-07,0,19116,19116
282.501,9.02779e-07,0,19216,19216
282.55,8.95919e-07,0,19238,19238
282.601,8.83543e-07,0,19322,19322
282.651,8.66204e-07,0,19480,19480
282.702,8.43925e-07,0,19694,19694
282.752,8.16467e-07,0,19756,19756
282.801,7.83508e-07,0,19884,19884
282.851,7.44859e-07,0,20032,20032
282.901,7.00656e-07,0,20144,20144
282.951,6.49827e-07,0,20404,20404
283.001,5.96633e-07,0,20546,20546
283.051,5.39174e-07,0,20722,20722
283.1,4.82688e-07,0,20894,20894
283.15,4.25181e-07,0,21147,21147
283.2,3.69862e-07,0,21331,21331
283.25,3.17665e-07,0,21531,21531
283.302,2.67615e-07,0,21723,21723
283.351,2.22867e-07,0,21979,21979
283.401,1.81735e-07,0,22011,22011
283.451,1.42938e-07,0,21993,21993
283.5,1.08743e-07,0,22161,22161
283.551,7.70526e-08,0,22357,22357
283.601,4.91128e-08,0,22441,22441
283.651,2.49974e-08,0,22693,22693
283.701,4.57597e-09,0,22869,22869
283.751,-1.25445e-08,0,23027,23027
283.801,-2.69434e-08,0,23127,23127
283.85,-3.92103e-08,0,23285,23285
283.901,-5.0053e-08,0,23447,23447
283.95,-5.89949e-08,0,23509,23509
284.001,-6.65408e-08,0,23629,23629
284.051,-7.23193e-08,0,23725,23725
284.101,-7.63827e-08,0,23861,23861
284.151,-7.89833e-08,0,23937,23937
284.201,-8.05283e-08,0,24031,24031
284.251,-8.14043e-08,0,24187,24187
284.301,-8.17934e-08,0,24335,24335
284.351,-8.1854e-08,0,24435,24435
284.4,-8.17335e-08,0,24505,24505
284.45,-8.05208e-08,0,24657,24657
284.501,-7.842e-08,0,24761,24761
284.551,-7.55777e-08,0,24891,24891
284.601,-7.21013e-08,0,25029,25029
284.651,-6.82313e-08,0,25089,25089
284.701,-6.42243e-08,0,25119,25119
284.75,-6.02729e-08,0,25159,25159
284.8,-5.65036e-08,0,25127,25127
284.851,-5.28823e-08,0,25154,25154
284.901,-4.96531e-08,0,25192,25192
284.951,-4.6723e-08,0,25184,25184
285.001,-4.40982e-08,0,25073,25073
285.051,-4.1776e-08,0,25127,25127
285.1,-3.97405e-08,0,25282,25282
285.15,-3.79741e-08,0,25294,25294
285.2,-3.64589e-08,0,25320,25320
285.251,-3.51413e-08,0,25744,25744
285.301,-3.4078e-08,0,26088,26088
285.351,-3.32173e-08,0,26288,26288
285.401,-3.2536e-08,0,26554,26554
285.45,-3.20275e-08,0,26666,26666
285.5,-3.16379e-08,0,26784,26784
285.55,-3.13025e-08,0,26794,26794
285.601,-3.12405e-08,0,26880,26880
285.651,-3.12736e-08,0,26909,26909
285.701,-3.13757e-08,0,27031,27031
285.751,-3.15482e-08,0,27065,27065
285.801,-3.17382e-08,0,27150,27150
285.85,-3.19317e-08,0,27248,27248
285.9,-3.21377e-08,0,27264,27264
285.951,-3.23613e-08,0,27272,27272
286.001,-3.25997e-08,0,27260,27260
286.051,-3.28484e-08,0,27252,27252
286.101,-3.31044e-08,0,27208,27208
286.151,-3.33572e-08,0,27194,27194
286.2,-3.36029e-08,0,27152,27152
286.25,-3.38347e-08,0,27144,27144
286.301,-3.40632e-08,0,27078,27078
286.351,-3.42691e-08,0,27026,27026
286.401,-3.44612e-08,0,26890,26890
286.451,-3.46381e-08,0,26662,26662
286.501,-3.47976e-08,0,26666,26666
286.55,-3.49389e-08,0,26512,26512
286.6,-3.50605e-08,0,26154,26154
286.65,-3.51619e-08,0,25844,25844
286.701,-3.525e-08,0,25682,25682
286.751,-3.53115e-08,0,25476,25476
286.801,-3.53498e-08,0,25196,25196
286.851,-3.53506e-08,0,24924,24924
286.9,-3.53236e-08,0,24742,24742
286.95,-3.53052e-08,0,24574,24574
287,-3.52741e-08,0,24360,24360
287.051,-3.52456e-08,0,24588,24588
287.101,-3.52113e-08,0,24396,24396
287.151,-3.51523e-08,0,24218,24218
287.201,-3.50828e-08,0,24044,24044
287.251,-3.50103e-08,0,23776,23776
287.3,-3.49403e-08,0,23578,23578
287.35,-3.48671e-08,0,23312,23312
287.401,-3.4792e-08,0,23126,23126
287.451,-3.47235e-08,0,22912,22912
287.501,-3.46576e-08,0,22656,22656
287.551,-3.45935e-08,0,22588,22588
287.601,-3.45324e-08,0,22362,22362
287.65,-3.44759e-08,0,22246,22246
287.7,-3.44254e-08,0,21974,21974
287.751,-3.438e-08,0,21790,21790
287.801,-3.43417e-08,0,21578,21578
287.851,-3.43088e-08,0,21912,21912
287.901,-3.42818e-08,0,21532,21532
287.951,-3.42495e-08,0,21366,21366
288,-3.42252e-08,0,21326,21326
288.05,-3.42226e-08,0,21148,21148
288.101,-3.42555e-08,0,21160,21160
288.151,-3.42306e-08,0,20964,20964
288.201,-3.42167e-08,0,20854,20854
288.251,-3.42226e-08,0,20510,20510
288.301,-3.42413e-08,0,20264,20264
288.35,-3.42731e-08,0,19928,19928
288.4,-3.43876e-08,0,19872,19872
288.45,-3.44238e-08,0,19644,19644
288.501,-3.44799e-08,0,19438,19438
288.551,-3.45466e-08,0,19110,19110
288.601,-3.46147e-08,0,19602,19602
288.651,-3.46883e-08,0,19706,19706
288.7,-3.47667e-08,0,19340,19340
288.75,-3.48535e-08,0,19304,19304
288.8,-3.49497e-08,0,19408,19408
288.851,-3.50592e-08,0,19632,19632
288.901,-3.51629e-08,0,19566,19566
288.951,-3.52951e-08,0,19652,19652
289.001,-3.54828e-08,0,19622,19622
289.051,-3.5683e-08,0,19734,19734
289.1,-3.58801e-08,0,20052,20052
289.15,-3.60755e-08,0,20390,20390
289.201,-3.63239e-08,0,20216,20216
289.251,-3.65877e-08,0,19600,19600
289.301,-3.68653e-08,0,19218,19218
289.351,-3.71721e-08,0,18506,18506
289.401,-3.75039e-08,0,18340,18340
289.45,-3.78583e-08,0,18178,18178
289.5,-3.82324e-08,0,17882,17882
289.551,-3.86347e-08,0,17726,17726
289.601,-3.9038e-08,0,17562,17562
289.651,-3.94485e-08,0,17386,17386
289.701,-3.98597e-08,0,17334,17334
289.751,-4.02683e-08,0,17570,17570
289.8,-4.06706e-08,0,17248,17248
289.85,-4.10621e-08,0,17016,17016
289.9,-4.14441e-08,0,16766,16766
289.951,-4.18205e-08,0,16462,16462
290.001,-4.2162e-08,0,16178,16178
290.051,-4.24771e-08,0,15846,15846
290.101,-4.27636e-08,0,15570,15570
290.15,-4.30179e-08,0,15286,15286
290.2,-4.32398e-08,0,14978,14978
290.25,-4.34283e-08,0,14612,14612
290.301,-4.35812e-08,0,14230,14230
290.351,-4.36872e-08,0,13848,13848
290.401,-4.37573e-08,0,13960,13960
290.451,-4.37829e-08,0,13172,13172
290.501,-4.37168e-08,0,12640,12640
290.55,-4.35894e-08,0,12434,12434
290.6,-4.34492e-08,0,12156,12156
290.651,-4.32438e-08,0,12044,12044
290.701,-4.30298e-08,0,11458,11458
290.751,-4.28181e-08,0,11012,11012
290.801,-4.254e-08,0,10990,10990
290.851,-4.22357e-08,0,10288,10288
290.9,-4.18878e-08,0,10612,10612
290.95,-4.14931e-08,0,10348,10348
291.001,-4.10345e-08,0,10718,10718
291.051,-4.05319e-08,0,10880,10880
291.101,-4.00108e-08,0,10950,10950
291.151,-3.9457e-08,0,10718,10718
291.201,-3.88824e-08,0,10654,10654
291.25,-3.82846e-08,0,10336,10336
291.3,-3.76237e-08,0,10234,10234
291.351,-3.68378e-08,0,10326,10326
291.401,-3.60257e-08,0,10144,10144
291.451,-3.52056e-08,0,10012,10012
291.501,-3.43791e-08,0,9894,9894
291.551,-3.354e-08,0,9814,9814
291.6,-3.26792e-08,0,9760,9760
291.65,-3.1805e-08,0,9782,9782
291.7,-3.09319e-08,0,9732,9732
291.751,-3.0036e-08,0,9690,9690
291.801,-2.91726e-08,0,9674,9674
291.851,-2.83213e-08,0,9622,9622
291.901,-2.74848e-08,0,9548,9548
291.95,-2.66759e-08,0,9504,9504
292.001,-2.5864e-08,0,9659,9659
292.051,-2.51105e-08,0,9801,9801
292.1,-2.43891e-08,0,9925,9925
292.151,-2.3689e-08,0,10060,10060
292.201,-2.30418e-08,0,10030,10030
292.25,-2.24568e-08,0,9968,9968
292.3,-2.18932e-08,0,10002,10002
292.35,-2.13789e-08,0,10072,10072
292.4,-2.09156e-08,0,10098,10098
292.45,-2.05016e-08,0,10116,10116
292.501,-2.01225e-08,0,10230,10230
292.551,-1.97974e-08,0,10272,10272
292.602,-1.95043e-08,0,10332,10332
292.651,-1.92622e-08,0,10394,10394
292.701,-1.90474e-08,0,10138,10138
292.751,-1.88598e-08,0,10022,10022
292.8,-1.87002e-08,0,9982,9982
292.85,-1.85561e-08,0,9998,9998
292.9,-1.84311e-08,0,9972,9972
292.951,-1.83192e-08,0,9938,9938
293.001,-1.82233e-08,0,9776,9776
293.05,-1.81389e-08,0,9730,9730
293.101,-1.80614e-08,0,9678,9678
293.15,-1.79935e-08,0,9618,9618
293.201,-1.79295e-08,0,9526,9526
293.251,-1.7874e-08,0,9696,9696
293.301,-1.78204e-08,0,9920,9920
293.351,-1.77687e-08,0,10092,10092
293.401,-1.77271e-08,0,10162,10162
293.451,-1.76784e-08,0,10321,10321
293.5,-1.76321e-08,0,10589,10589
293.551,-1.75846e-08,0,10635,10635
293.6,-1.75368e-08,0,10645,10645
293.651,-1.74845e-08,0,10683,10683
293.701,-1.74277e-08,0,10697,10697
293.75,-1.7368e-08,0,10705,10705
293.8,-1.73e-08,0,10707,10707
293.85,-1.72252e-08,0,10697,10697
293.901,-1.71402e-08,0,10663,10663
293.951,-1.70493e-08,0,10663,10663
294.001,-1.69512e-08,0,10721,10721
294.051,-1.6843e-08,0,10743,10743
294.101,-1.67306e-08,0,10767,10767
294.151,-1.66075e-08,0,10827,10827
294.201,-1.64777e-08,0,10867,10867
294.25,-1.63457e-08,0,10871,10871
294.3,-1.62043e-08,0,10929,10929
294.35,-1.6058e-08,0,10927,10927
294.401,-1.59029e-08,0,10984,10984
294.451,-1.57485e-08,0,10988,10988
294.501,-1.55911e-08,0,11042,11042
294.551,-1.54315e-08,0,11052,11052
294.6,-1.52698e-08,0,11068,11068
294.65,-1.51063e-08,0,11088,11088
294.7,-1.4941e-08,0,11110,11110
294.751,-1.47684e-08,0,11118,11118
294.801,-1.45972e-08,0,11108,11108
294.851,-1.44221e-08,0,11150,11150
294.901,-1.42422e-08,0,11190,11190
294.951,-1.4057e-08,0,11176,11176
295,-1.3866e-08,0,11226,11226
295.05,-1.36685e-08,0,11054,11054
295.101,-1.34577e-08,0,10876,10876
295.151,-1.32445e-08,0,10690,10690
295.201,-1.30221e-08,0,10512,10512
295.251,-1.2796e-08,0,10442,10442
295.301,-1.25438e-08,0,10378,10378
295.35,-1.22893e-08,0,10350,10350
295.4,-1.20247e-08,0,10326,10326
295.451,-1.17381e-08,0,10214,10214
295.501,-1.14471e-08,0,10146,10146
295.551,-1.11386e-08,0,10134,10134
295.601,-1.0814e-08,0,10074,10074
295.651,-1.04701e-08,0,10036,10036
295.7,-1.01027e-08,0,9968,9968
295.75,-9.70799e-09,0,9870,9870
295.8,-9.28114e-09,0,9810,9810
295.851,-8.81774e-09,0,9716,9716
295.901,-8.38413e-09,0,9642,9642
295.951,-7.81061e-09,0,9524,9524
296.001,-7.24131e-09,0,9436,9436
296.05,-6.65927e-09,0,9370,9370
296.1,-6.04598e-09,0,9172,9172
296.15,-5.40493e-09,0,9022,9022
296.201,-4.71615e-09,0,8914,8914
296.251,-4.02863e-09,0,8806,8806
296.301,-3.32987e-09,0,8694,8694
296.351,-2.62308e-09,0,8614,8614
296.401,-1.91276e-09,0,8566,8566
296.45,-1.20446e-09,0,8468,8468
296.5,-5.04271e-10,0,8408,8408
296.551,2.04087e-10,0,8316,8316
296.601,8.75974e-10,0,8208,8208
296.651,1.52796e-09,0,8133,8133
296.701,2.16202e-09,0,8081,8081
296.75,2.75235e-09,0,8069,8069
296.801,3.33211e-09,0,8111,8111
296.852,3.87437e-09,0,8164,8164
296.9,4.35821e-09,0,8160,8160
296.951,4.81864e-09,0,8202,8202
297.001,5.23476e-09,0,8206,8206
297.052,5.60591e-09,0,8176,8176
297.1,5.92178e-09,0,8205,8205
297.151,6.20936e-09,0,8246,8246
297.201,6.45684e-09,0,8188,8188
297.251,6.66117e-09,0,8190,8190
297.301,6.80925e-09,0,8172,8172
297.351,6.90188e-09,0,8160,8160
297.4,6.93969e-09,0,8158,8158
297.452,6.93922e-09,0,8146,8146
297.501,6.93292e-09,0,8120,8120
297.552,6.91636e-09,0,8078,8078
297.6,6.89591e-09,0,8042,8042
297.651,6.86873e-09,0,8024,8024
297.701,6.82821e-09,0,7954,7954
297.751,6.76565e-09,0,7928,7928
297.801,6.6916e-09,0,7880,7880
297.851,6.60864e-09,0,7834,7834
297.9,6.52107e-09,0,7800,7800
297.951,6.42603e-09,0,7765,7765
298,6.33078e-09,0,7713,7713
298.051,6.22959e-09,0,7653,7653
298.102,6.12718e-09,0,7607,7607
298.15,6.02846e-09,0,7563,7563
298.2,5.9274e-09,0,7501,7501
298.25,5.82828e-09,0,7469,7469
298.302,5.7289e-09,0,7441,7441
298.351,5.63685e-09,0,7430,7430
298.401,5.54934e-09,0,7398,7398
298.452,5.46406e-09,0,7386,7386
298.501,5.38707e-09,0,7378,7378
298.551,5.31343e-09,0,7374,7374
298.602,5.2461e-09,0,7378,7378
298.65,5.18693e-09,0,7366,7366
298.7,5.13173e-09,0,7380,7380
298.75,5.08252e-09,0,7380,7380
298.801,5.03783e-09,0,7378,7378
298.851,5.00015e-09,0,7364,7364
298.9,4.96715e-09,0,7350,7350
298.951,4.93672e-09,0,7330,7330
299.002,4.90871e-09,0,7338,7338
299.05,4.88284e-09,0,7334,7334
299.101,4.85658e-09,0,7310,7310
299.151,4.83013e-09,0,7319,7319
299.201,4.80299e-09,0,7311,7311
299.25,4.77478e-09,0,7343,7343
299.3,4.74525e-09,0,7325,7325
299.351,4.71321e-09,0,7347,7347
299.4,4.68055e-09,0,7333,7333
299.451,4.64516e-09,0,7339,7339
299.502,4.60809e-09,0,7329,7329
299.55,4.57067e-09,0,7319,7319
299.6,4.53066e-09,0,7305,7305
299.65,4.48946e-09,0,7283,7283
299.7,4.44735e-09,0,7273,7273
299.752,4.40328e-09,0,7319,7319
299.801,4.36029e-09,0,7283,7283
299.85,4.31748e-09,0,7267,7267
299.901,4.27397e-09,0,7249,7249
299.95,4.23277e-09,0,7239,7239
300.001,4.19165e-09,0,7183,7183
300.051,4.15215e-09,0,7171,7171
300.101,4.11451e-09,0,7143,7143
300.151,4.0789e-09,0,7093,7093
300.201,4.04547e-09,0,7087,7087
300.25,4.01432e-09,0,7049,7049
300.301,3.98463e-09,0,7057,7057
300.35,3.95808e-09,0,7043,7043
300.401,3.93292e-09,0,7015,7015
300.451,3.9098e-09,0,7007,7007
300.5,3.8891e-09,0,6995,6995
300.55,3.86932e-09,0,7001,7001
300.6,3.85089e-09,0,6973,6973
300.65,3.83359e-09,0,6977,6977
300.701,3.81672e-09,0,6997,6997
300.751,3.80103e-09,0,6989,6989
300.801,3.78586e-09,0,6987,6987
300.851,3.77102e-09,0,6979,6979
300.901,3.75633e-09,0,6995,6995
300.95,3.74162e-09,0,6966,6966
301,3.72676e-09,0,6970,6970
301.05,3.71161e-09,0,6954,6954
301.101,3.69564e-09,0,6950,6950
301.151,3.67967e-09,0,6910,6910
301.201,3.6632e-09,0,6886,6886
301.251,3.64615e-09,0,6858,6858
301.3,3.62847e-09,0,6842,6842
301.35,3.6101e-09,0,6804,6804
301.4,3.59099e-09,0,6772,6772
301.451,3.57053e-09,0,6740,6740
301.501,3.54984e-09,0,6666,6666
301.551,3.52835e-09,0,6602,6602
301.601,3.50605e-09,0,6536,6536
301.651,3.48298e-09,0,6476,6476
301.7,3.45921e-09,0,6394,6394
301.75,3.43483e-09,0,6338,6338
301.801,3.40911e-09,0,6260,6260
301.851,3.38355e-09,0,6202,6202
301.901,3.35742e-09,0,6124,6124
301.951,3.33071e-09,0,6062,6062
302.001,3.30339e-09,0,5998,5998
302.05,3.27557e-09,0,5958,5958
302.1,3.24739e-09,0,5892,5892
302.151,3.2181e-09,0,5844,5844
302.201,3.18939e-09,0,5748,5748
302.251,3.16042e-09,0,5724,5724
302.301,3.1312e-09,0,5642,5642
302.351,3.10174e-09,0,5504,5504
302.4,3.07206e-09,0,5338,5338
302.45,3.04213e-09,0,5188,5188
302.501,3.01105e-09,0,5018,5018
302.551,2.98058e-09,0,4854,4854
302.601,2.94984e-09,0,4662,4662
302.651,2.9189e-09,0,4506,4506
302.701,2.88779e-09,0,4338,4338
302.75,2.85655e-09,0,4154,4154
302.8,2.82517e-09,0,3980,3980
302.85,2.79363e-09,0,3790,3790
302.901,2.76097e-09,0,3624,3624
302.951,2.729e-09,0,3432,3432
303.001,2.6968e-09,0,3258,3258
303.051,2.66433e-09,0,3082,3082
303.1,2.6316e-09,0,2906,2906
303.15,2.59861e-09,0,2722,2722
303.2,2.56536e-09,0,2540,2540
303.251,2.53085e-09,0,2372,2372
303.301,2.49703e-09,0,2192,2192
303.351,2.46289e-09,0,2034,2034
303.401,2.42836e-09,0,1866,1866
303.451,2.3934e-09,0,1700,1700
303.501,2.35729e-09,0,1536,1536
303.551,2.32143e-09,0,1424,1424
303.601,2.28512e-09,0,1360,1360
303.654,2.2457e-09,0,1332,1332
303.704,2.20831e-09,0,1329,1329
303.753,2.17043e-09,0,1327,1327
303.803,2.13209e-09,0,1333,1333
303.853,2.09331e-09,0,1337,1337
303.902,2.05412e-09,0,1335,1335
303.952,2.01456e-09,0,1335,1335
304.002,1.97463e-09,0,1330,1330
304.051,1.93439e-09,0,1322,1322
304.101,1.89386e-09,0,1318,1318
304.151,1.85307e-09,0,1312,1312
304.201,1.81207e-09,0,1300,1300
304.25,1.77087e-09,0,1280,1280
304.3,1.72949e-09,0,1270,1270
304.354,1.68447e-09,0,1258,1258
304.404,1.64275e-09,0,1246,1246
304.453,1.60091e-09,0,1230,1230
304.503,1.55901e-09,0,1220,1220
304.553,1.51717e-09,0,1204,1204
304.602,1.47548e-09,0,1192,1192
304.652,1.43406e-09,0,1172,1172
304.702,1.39302e-09,0,1162,1162
304.752,1.35243e-09,0,1150,1150
304.801,1.31235e-09,0,1138,1138
304.851,1.2728e-09,0,1120,1120
304.901,1.23381e-09,0,1108,1108
304.95,1.19541e-09,0,1096,1096
