250,0,0,2048,2048
250.006,0,0,2048,2048
250.053,0,0,2048,2048
250.105,0,0,2048,2048
250.152,0,0,2048,2048
250.205,0,0,2048,2048
250.252,0,0,2048,2048
250.305,0,0,2048,2048
250.352,0,0,2048,2048
250.404,0,0,2048,2048
250.451,1.38778e-17,0,2048,2048
250.504,0,0,2048,2048
250.551,0,0,2048,2048
250.603,0,0,2048,2048
250.65,0,0,2048,2048
250.703,0,0,2048,2048
250.756,0,0,2048,2048
250.803,0,0,2048,2048
250.855,0,0,2048,2048
250.902,-1.38778e-17,0,2048,2048
250.955,-1.38778e-17,0,2048,2048
251.002,-1.38778e-17,0,2048,2048
251.055,-1.38778e-17,0,2048,2048
251.101,-1.38778e-17,0,2048,2048
251.154,0,0,2048,2048
251.201,0,0,2048,2048
251.254,0,0,2048,2048
251.301,0,0,2048,2048
251.353,0,0,2048,2048
251.4,0,0,2048,2048
251.453,0,0,2048,2048
251.506,0,0,2048,2048
251.553,0,0,2048,2048
251.605,1.38778e-17,0,2048,2048
251.652,0,0,2048,2048
251.705,0,0,2048,2048
251.752,-1.38778e-17,0,2048,2048
251.804,-1.38778e-17,0,2048,2048
251.851,-1.38778e-17,0,2048,2048
251.904,-1.38778e-17,0,2048,2048
251.951,0,0,2048,2048
252.004,0,0,2048,2048
252.05,0,0,2048,2048
252.103,0,0,2048,2048
252.15,0,0,2048,2048
252.203,0,0,2048,2048
252.256,0,0,2048,2048
252.302,0,0,2048,2048
252.355,1.38778e-17,0,2048,2048
252.402,1.38778e-17,0,2048,2048
252.455,0,0,2048,2048
252.502,0,0,2048,2048
252.554,-1.38778e-17,0,2048,2048
252.601,-1.38778e-17,0,2048,2048
252.654,-1.38778e-17,0,2048,2048
252.701,0,0,2048,2048
252.754,0,0,2048,2048
252.8,0,0,2048,2048
252.853,0,0,2048,2048
252.906,0,0,2048,2048
252.953,0,0,2048,2048
253.005,0,0,2048,2048
253.052,0,0,2048,2048
253.105,0,0,2048,2048
253.152,0,0,2048,2048
253.205,0,0,2048,2048
253.251,0,0,2048,2048
253.304,0,0,2048,2048
253.351,0,0,2048,2048
253.404,0,0,2048,2048
253.451,0,0,2048,2048
253.503,0,0,2048,2048
253.55,0,0,2048,2048
253.603,0,0,2048,2048
253.656,0,0,2048,2048
253.703,0,0,2048,2048
253.755,0,0,2048,2048
253.802,0,0,2048,2048
253.855,0,0,2048,2048
253.902,0,0,2048,2048
253.954,0,0,2048,2048
254.001,0,0,2048,2048
254.054,0,0,2048,2048
254.101,0,0,2048,2048
254.154,-1.38778e-17,0,2048,2048
254.201,0,0,2048,2048
254.253,0,0,2048,2048
254.3,-1.38778e-17,0,2048,2048
254.353,-1.38778e-17,0,2048,2048
254.406,-1.38778e-17,0,2048,2048
254.452,-1.38778e-17,0,2048,2048
254.505,0,0,2048,2048
254.552,0,0,2048,2048
254.605,0,0,2048,2048
254.652,0,0,2048,2048
254.704,0,0,2048,2048
254.751,1.38778e-17,0,2048,2048
254.804,2.77556e-17,0,2048,2048
254.851,2.77556e-17,0,2048,2048
254.904,2.77556e-17,0,2048,2048
254.95,2.77556e-17,0,2048,2048
255.003,1.38778e-17,0,2048,2048
255.05,1.38778e-17,0,2048,2048
255.103,0,0,2048,2048
255.155,0,0,2048,2048
255.202,1.38778e-17,0,2048,2048
255.255,1.38778e-17,0,2048,2048
255.302,1.38778e-17,0,2048,2048
255.355,1.38778e-17,0,2048,2048
255.402,1.38778e-17,0,2048,2048
255.454,1.38778e-17,0,2048,2048
255.501,1.38778e-17,0,2048,2048
255.554,2.77556e-17,0,2048,2048
255.601,2.77556e-17,0,2048,2048
255.653,2.77556e-17,0,2048,2048
255.7,1.38778e-17,0,2048,2048
255.753,1.38778e-17,0,2048,2048
255.806,1.38778e-17,0,2048,2048
255.853,1.38778e-17,0,2048,2048
255.905,1.38778e-17,0,2048,2048
255.952,1.38778e-17,0,2048,2048
256.005,1.38778e-17,0,2048,2048
256.052,1.38778e-17,0,2048,2048
256.105,1.38778e-17,0,2048,2048
256.151,1.38778e-17,0,2048,2048
256.204,1.38778e-17,0,2048,2048
256.251,1.38778e-17,0,2048,2048
256.304,1.38778e-17,0,2048,2048
256.351,2.77556e-17,0,2048,2048
256.403,1.38778e-17,0,2048,2048
256.45,1.38778e-17,0,2048,2048
256.503,1.38778e-17,0,2048,2048
256.556,1.38778e-17,0,2048,2048
256.603,1.38778e-17,0,2048,2048
256.655,1.38778e-17,0,2048,2048
256.702,1.38778e-17,0,2048,2048
256.755,0,0,2048,2048
256.802,0,0,2048,2048
256.854,0,0,2048,2048
256.901,0,0,2048,2048
256.954,0,0,2048,2048
257.001,0,0,2048,2048
257.054,-1.38778e-17,0,2048,2048
257.101,0,0,2048,2048
257.153,0,0,2048,2048
257.2,0,0,2048,2048
257.253,0,0,2048,2048
257.306,0,0,2048,2048
257.352,0,0,2048,2048
257.405,0,0,2048,2048
257.452,-1.38778e-17,0,2048,2048
257.505,-1.38778e-17,0,2048,2048
257.552,-2.77556e-17,0,2048,2048
257.604,-2.77556e-17,0,2048,2048
257.651,-2.77556e-17,0,2048,2048
257.704,-2.77556e-17,0,2048,2048
257.751,-2.77556e-17,0,2048,2048
257.804,-2.77556e-17,0,2048,2048
257.85,-2.77556e-17,0,2048,2048
257.903,-2.77556e-17,0,2048,2048
257.95,-2.77556e-17,0,2048,2048
258.003,-2.77556e-17,0,2048,2048
258.055,-2.77556e-17,0,2048,2048
258.102,-2.77556e-17,0,2048,2048
258.155,-2.77556e-17,0,2048,2048
258.202,-2.77556e-17,0,2048,2048
258.255,-2.77556e-17,0,2048,2048
258.302,-2.77556e-17,0,2048,2048
258.354,-1.38778e-17,0,2048,2048
258.401,-1.38778e-17,0,2048,2048
258.454,-1.38778e-17,0,2048,2048
258.501,-1.38778e-17,0,2048,2048
258.553,-1.38778e-17,0,2048,2048
258.6,-1.38778e-17,0,2048,2048
258.653,-1.38778e-17,0,2048,2048
258.706,-1.38778e-17,0,2048,2048
258.753,-1.38778e-17,0,2048,2048
258.805,-1.38778e-17,0,2048,2048
258.852,-1.38778e-17,0,2048,2048
258.905,-2.77556e-17,0,2048,2048
258.952,-4.16334e-17,0,2048,2048
259.005,-4.16334e-17,0,2048,2048
259.051,-2.77556e-17,0,2048,2048
259.104,-2.77556e-17,0,2048,2048
259.151,-1.38778e-17,0,2048,2048
259.204,-1.38778e-17,0,2048,2048
259.251,-1.38778e-17,0,2048,2048
259.303,-1.38778e-17,0,2048,2048
259.35,-1.38778e-17,0,2048,2048
259.403,-1.38778e-17,0,2048,2048
259.456,-1.38778e-17,0,2048,2048
259.503,-1.38778e-17,0,2048,2048
259.555,-1.38778e-17,0,2048,2048
259.602,-1.38778e-17,0,2048,2048
259.655,-1.38778e-17,0,2048,2048
259.702,0,0,2048,2048
259.754,0,0,2048,2048
259.801,0,0,2048,2048
259.854,1.38778e-17,0,2048,2048
259.901,1.38778e-17,0,2048,2048
259.954,1.38778e-17,0,2048,2048
260,1.38778e-17,0,2048,2048
260.053,1.38778e-17,0,2048,2048
260.1,1.38778e-17,0,2048,2048
260.153,1.38778e-17,0,2048,2048
260.206,1.38778e-17,0,2048,2048
260.252,1.38778e-17,0,2048,2048
260.305,0,0,2048,2048
260.352,0,0,2048,2048
260.405,-1.38778e-17,0,2048,2048
260.452,-1.38778e-17,0,2048,2048
260.504,0,0,2048,2048
260.551,0,0,2048,2048
260.604,0,0,2048,2048
260.651,0,0,2048,2048
260.704,0,0,2048,2048
260.75,1.38778e-17,0,2048,2048
260.803,1.38778e-17,0,2048,2048
260.856,1.38778e-17,0,2048,2048
260.903,1.38778e-17,0,2048,2048
260.955,1.38778e-17,0,2048,2048
261.002,0,0,2048,2048
261.055,0,0,2048,2048
261.102,0,0,2048,2048
261.155,1.38778e-17,0,2048,2048
261.201,0,0,2048,2048
261.254,-1.38778e-17,0,2048,2048
261.301,-1.38778e-17,0,2048,2048
261.354,-1.38778e-17,0,2048,2048
261.401,-1.38778e-17,0,2048,2048
261.453,0,0,2048,2048
261.5,0,0,2048,2048
261.553,0,0,2048,2048
261.606,0,0,2048,2048
261.653,0,0,2048,2048
261.705,0,0,2048,2048
261.752,0,0,2048,2048
261.805,-1.38778e-17,0,2048,2048
261.852,0,0,2048,2048
261.905,-1.38778e-17,0,2048,2048
261.951,-1.38778e-17,0,2048,2048
262.004,-1.38778e-17,0,2048,2048
262.051,-1.38778e-17,0,2048,2048
262.104,-1.38778e-17,0,2048,2048
262.151,-1.38778e-17,0,2048,2048
262.203,-1.38778e-17,0,2048,2048
262.25,-1.38778e-17,0,2048,2048
262.303,-1.38778e-17,0,2048,2048
262.356,-1.38778e-17,0,2048,2048
262.402,-1.38778e-17,0,2048,2048
262.455,-1.38778e-17,0,2048,2048
262.502,-1.38778e-17,0,2048,2048
262.555,-1.38778e-17,0,2048,2048
262.602,-2.77556e-17,0,2048,2048
262.654,-2.77556e-17,0,2048,2048
262.701,-2.77556e-17,0,2048,2048
262.754,-2.77556e-17,0,2048,2048
262.801,-4.16334e-17,0,2048,2048
262.854,-2.77556e-17,0,2048,2048
262.9,-2.77556e-17,0,2048,2048
262.953,-2.77556e-17,0,2048,2048
263,-2.77556e-17,0,2048,2048
263.053,-5.55112e-17,0,2048,2048
263.105,-4.16334e-17,0,2048,2048
263.152,-4.16334e-17,0,2048,2048
263.205,-4.16334e-17,0,2048,2048
263.252,-2.77556e-17,0,2048,2048
263.305,-2.77556e-17,0,2048,2048
263.352,-2.77556e-17,0,2048,2048
263.404,-2.77556e-17,0,2048,2048
263.451,-2.77556e-17,0,2048,2048
263.504,-2.77556e-17,0,2048,2048
263.551,-2.77556e-17,0,2048,2048
263.603,-2.77556e-17,0,2048,2048
263.65,-2.77556e-17,0,2048,2048
263.703,-2.77556e-17,0,2048,2048
263.756,-2.77556e-17,0,2048,2048
263.803,-2.77556e-17,0,2048,2048
263.855,-2.77556e-17,0,2048,2048
263.902,-1.38778e-17,0,2048,2048
263.955,-1.38778e-17,0,2048,2048
264.002,-1.38778e-17,0,2048,2048
264.055,-1.38778e-17,0,2048,2048
264.101,-1.38778e-17,0,2048,2048
264.154,-1.38778e-17,0,2048,2048
264.201,-1.38778e-17,0,2048,2048
264.254,-1.38778e-17,0,2048,2048
264.301,-1.38778e-17,0,2048,2048
264.353,-1.38778e-17,0,2048,2048
264.4,-1.38778e-17,0,2048,2048
264.453,-1.38778e-17,0,2048,2048
264.506,-1.38778e-17,0,2048,2048
264.553,-1.38778e-17,0,2048,2048
264.605,-1.38778e-17,0,2048,2048
264.652,-1.38778e-17,0,2048,2048
264.705,-1.38778e-17,0,2048,2048
264.752,-1.38778e-17,0,2048,2048
264.804,-1.38778e-17,0,2048,2048
264.851,-1.38778e-17,0,2048,2048
264.904,-2.77556e-17,0,2048,2048
264.951,-2.77556e-17,0,2048,2048
265.004,-2.77556e-17,0,2048,2048
265.051,-4.16334e-17,0,2048,2048
265.103,-2.77556e-17,0,2048,2048
265.15,-2.77556e-17,0,2048,2048
265.203,-2.77556e-17,0,2048,2048
265.256,-2.77556e-17,0,2048,2048
265.302,-2.77556e-17,0,2048,2048
265.355,-2.77556e-17,0,2048,2048
265.402,-2.77556e-17,0,2048,2048
265.455,-2.77556e-17,0,2048,2048
265.502,-2.77556e-17,0,2048,2048
265.554,-2.77556e-17,0,2048,2048
265.601,-2.77556e-17,0,2048,2048
265.654,-2.77556e-17,0,2048,2048
265.701,-2.77556e-17,0,2048,2048
265.754,-2.77556e-17,0,2048,2048
265.8,-2.77556e-17,0,2048,2048
265.853,-2.77556e-17,0,2048,2048
265.9,-2.77556e-17,0,2048,2048
265.953,-2.77556e-17,0,2048,2048
266.005,-2.77556e-17,0,2048,2048
266.052,-2.77556e-17,0,2048,2048
266.105,-2.77556e-17,0,2048,2048
266.152,-2.77556e-17,0,2048,2048
266.205,-4.16334e-17,0,2048,2048
266.252,-4.16334e-17,0,2048,2048
266.304,-4.16334e-17,0,2048,2048
266.351,-4.16334e-17,0,2048,2048
266.404,-5.55112e-17,0,2048,2048
266.451,-2.77556e-17,0,2048,2048
266.503,-2.77556e-17,0,2048,2048
266.55,-2.77556e-17,0,2048,2048
266.603,-4.16334e-17,0,2048,2048
266.656,-2.77556e-17,0,2048,2048
266.703,-2.77556e-17,0,2048,2048
266.755,-2.77556e-17,0,2048,2048
266.802,-1.38778e-17,0,2048,2048
266.855,-1.38778e-17,0,2048,2048
266.902,-1.38778e-17,0,2048,2048
266.955,-2.77556e-17,0,2048,2048
267.001,-5.55112e-17,0,2048,2048
267.054,-5.55112e-17,0,2048,2048
267.101,-4.16334e-17,0,2048,2048
267.154,-4.16334e-17,0,2048,2048
267.201,-2.77556e-17,0,2048,2048
267.253,-2.77556e-17,0,2048,2048
267.3,-2.77556e-17,0,2048,2048
267.353,-4.16334e-17,0,2048,2048
267.406,-4.16334e-17,0,2048,2048
267.453,-2.77556e-17,0,2048,2048
267.505,-2.77556e-17,0,2048,2048
267.552,-1.38778e-17,0,2048,2048
267.605,-1.38778e-17,0,2048,2048
267.652,-1.38778e-17,0,2048,2048
267.704,-2.77556e-17,0,2048,2048
267.751,-2.77556e-17,0,2048,2048
267.804,-5.55112e-17,0,2048,2048
267.851,-4.16334e-17,0,2048,2048
267.904,-5.55112e-17,0,2048,2048
267.95,-5.55112e-17,0,2048,2048
268.003,-4.16334e-17,0,2048,2048
268.05,-4.16334e-17,0,2048,2048
268.101,-4.16334e-17,0,2122,2122
268.151,-4.16334e-17,0,2170,2170
268.201,-4.16334e-17,0,2218,2218
268.25,-4.16334e-17,0,2254,2254
268.3,-4.16334e-17,0,2302,2302
268.35,-4.16334e-17,0,2350,2350
268.403,-4.16334e-17,0,2398,2398
268.453,-4.16334e-17,0,2434,2434
268.502,-4.16334e-17,0,2482,2482
268.552,-4.16334e-17,0,2518,2518
268.602,-4.16334e-17,0,2566,2566
268.652,-4.16334e-17,0,2594,2594
268.702,-4.16334e-17,0,2626,2626
268.751,-4.16334e-17,0,2674,2674
268.801,-4.16334e-17,0,2710,2710
268.851,-4.16334e-17,0,2758,2758
268.901,-4.16334e-17,0,2806,2806
268.951,-4.16334e-17,0,2842,2842
269,-4.16334e-17,0,2890,2890
269.05,-4.16334e-17,0,2938,2938
269.103,-4.16334e-17,0,2986,2986
269.153,-4.16334e-17,0,3022,3022
269.202,-4.16334e-17,0,3070,3070
269.252,-4.16334e-17,0,3118,3118
269.302,-4.16334e-17,0,3154,3154
269.352,-4.16334e-17,0,3202,3202
269.402,-4.16334e-17,0,3242,3242
269.451,-4.16334e-17,0,3286,3286
269.501,-4.16334e-17,0,3334,3334
269.551,-4.16334e-17,0,3370,3370
269.601,-4.16334e-17,0,3418,3418
269.651,-4.16334e-17,0,3466,3466
269.7,-4.16334e-17,0,3502,3502
269.75,-4.16334e-17,0,3550,3550
269.8,-4.16334e-17,0,3590,3590
269.853,-4.16334e-17,0,3634,3634
269.903,-4.16334e-17,0,3682,3682
269.952,-4.16334e-17,0,3722,3722
270.002,-4.16334e-17,0,3766,3766
270.052,-4.16334e-17,0,3806,3806
270.102,-4.16334e-17,0,3850,3850
270.152,-4.16334e-17,0,3890,3890
270.201,-4.16334e-17,0,3934,3934
270.251,-4.16334e-17,0,3970,3970
270.301,-4.16334e-17,0,4018,4018
270.351,-4.16334e-17,0,4054,4054
270.401,-4.16334e-17,0,4102,4102
270.45,-4.16334e-17,0,4138,4138
270.5,-4.16334e-17,0,4186,4186
270.553,-4.16334e-17,0,4222,4222
270.603,-4.16334e-17,0,4270,4270
270.652,-4.16334e-17,0,4306,4306
270.702,-4.16334e-17,0,4342,4342
270.752,-4.16334e-17,0,4390,4390
270.802,-4.16334e-17,0,4426,4426
270.852,-4.16334e-17,0,4462,4462
270.901,-4.16334e-17,0,4510,4510
270.951,-4.16334e-17,0,4546,4546
271.001,-2.77556e-17,0,4582,4582
271.051,-1.38778e-17,0,4630,4630
271.101,-1.38778e-17,0,4666,4666
271.15,-1.38778e-17,0,4702,4702
271.2,-1.38778e-17,0,4738,4738
271.25,-1.38778e-17,0,4786,4786
271.303,-1.38778e-17,0,4822,4822
271.353,-1.38778e-17,0,4858,4858
271.402,-1.38778e-17,0,4894,4894
271.452,-1.38778e-17,0,4934,4934
271.502,-1.38778e-17,0,4978,4978
271.552,-1.38778e-17,0,5014,5014
271.602,-1.38778e-17,0,5050,5050
271.651,-1.38778e-17,0,5086,5086
271.701,-1.38778e-17,0,5122,5122
271.751,-1.38778e-17,0,5162,5162
271.801,-1.38778e-17,0,5198,5198
271.851,-1.38778e-17,0,5242,5242
271.9,-1.38778e-17,0,5278,5278
271.95,-1.38778e-17,0,5314,5314
272.003,-1.38778e-17,0,5350,5350
272.053,-1.38778e-17,0,5386,5386
272.102,-1.38778e-17,0,5422,5422
272.152,-1.38778e-17,0,5458,5458
272.202,-1.38778e-17,0,5494,5494
272.252,-1.38778e-17,0,5530,5530
272.302,-1.38778e-17,0,5566,5566
272.351,-1.38778e-17,0,5602,5602
272.401,-1.38778e-17,0,5638,5638
272.451,-1.38778e-17,0,5674,5674
272.501,-1.38778e-17,0,5710,5710
272.551,-1.38778e-17,0,5746,5746
272.6,-1.38778e-17,0,5782,5782
272.65,-1.38778e-17,0,5810,5810
272.7,-1.38778e-17,0,5846,5846
272.753,-1.38778e-17,0,5882,5882
272.803,-1.38778e-17,0,5914,5914
272.852,-1.38778e-17,0,5950,5950
272.902,-1.38778e-17,0,5986,5986
272.952,-1.38778e-17,0,6022,6022
273.002,-1.38778e-17,0,6058,6058
273.052,-1.38778e-17,0,6086,6086
273.101,-1.38778e-17,0,6118,6118
273.151,-1.38778e-17,0,6154,6154
273.201,-1.38778e-17,0,6190,6190
273.251,-1.38778e-17,0,6226,6226
273.301,-1.38778e-17,0,6254,6254
273.35,-1.38778e-17,0,6286,6286
273.4,-1.38778e-17,0,6322,6322
273.453,-1.38778e-17,0,6358,6358
273.503,-1.38778e-17,0,6394,6394
273.552,-1.38778e-17,0,6430,6430
273.602,-1.38778e-17,0,6454,6454
273.652,-1.38778e-17,0,6490,6490
273.702,-1.38778e-17,0,6510,6510
273.752,-1.38778e-17,0,6514,6514
273.801,-1.38778e-17,0,6542,6542
273.851,-1.38778e-17,0,6566,6566
273.901,-1.38778e-17,0,6578,6578
273.951,-1.38778e-17,0,6614,6614
274.001,-1.38778e-17,0,6606,6606
274.05,-1.38778e-17,0,6626,6626
274.1,-1.38778e-17,0,6646,6646
274.153,-1.38778e-17,0,6666,6666
274.203,-1.38778e-17,0,6686,6686
274.253,-1.38778e-17,0,6702,6702
274.302,0,0,6682,6682
274.352,1.66533e-16,0,6730,6730
274.402,2.91434e-16,0,6754,6754
274.452,3.60822e-16,0,6750,6750
274.502,4.30211e-16,0,6806,6806
274.551,4.85723e-16,0,6814,6814
274.601,5.13478e-16,0,6830,6830
274.651,5.41234e-16,0,6850,6850
274.701,5.41234e-16,0,6834,6834
274.75,3.46945e-16,0,6834,6834
274.8,-9.29812e-16,0,6886,6886
274.85,-5.35683e-15,0,6874,6874
274.903,-1.89015e-14,0,6906,6906
274.953,-5.15005e-14,0,6930,6930
275.002,-1.2558e-13,0,6966,6966
275.052,-2.81761e-13,0,6986,6986
275.102,-5.89653e-13,0,7022,7022
275.152,-1.16028e-12,0,7022,7022
275.202,-2.15832e-12,0,7034,7034
275.251,-3.8111e-12,0,7018,7018
275.301,-6.40983e-12,0,7022,7022
275.351,-1.02988e-11,0,7054,7054
275.401,-1.58534e-11,0,7102,7102
275.451,-2.34294e-11,0,7138,7138
275.5,-4.13152e-11,0,7154,7154
275.55,-7.70917e-11,0,7198,7198
275.603,-1.21177e-10,0,7230,7230
275.653,-1.57008e-10,0,7246,7246
275.703,-1.71841e-10,0,7278,7278
275.752,-1.65686e-10,0,7314,7314
275.802,-1.24117e-10,0,7366,7366
275.852,-6.68453e-11,0,7386,7386
275.902,-1.01341e-11,0,7418,7418
275.951,3.32758e-11,0,7426,7426
276.001,5.93019e-11,0,7462,7462
276.051,7.2294e-11,0,7454,7454
276.101,7.98202e-11,0,7474,7474
276.151,8.67544e-11,0,7510,7510
276.2,9.39181e-11,0,7538,7538
276.25,1.00007e-10,0,7550,7550
276.3,1.04361e-10,0,7590,7590
276.353,1.06122e-10,0,7606,7606
276.403,1.08129e-10,0,7648,7648
276.452,1.10798e-10,0,7668,7668
276.502,1.13636e-10,0,7680,7680
276.552,1.16191e-10,0,7680,7680
276.602,1.1802e-10,0,7692,7692
276.652,1.19289e-10,0,7704,7704
276.701,1.2057e-10,0,7692,7692
276.751,1.22364e-10,0,7636,7636
276.801,1.24569e-10,0,7608,7608
276.851,1.26408e-10,0,7656,7656
276.901,1.27125e-10,0,7704,7704
276.95,1.26826e-10,0,7740,7740
277,1.26811e-10,0,7792,7792
277.053,1.29206e-10,0,7856,7856
277.103,1.35316e-10,0,7900,7900
277.152,1.65206e-10,0,7936,7936
277.202,2.3732e-10,0,7976,7976
277.252,4.19193e-10,0,8032,8032
277.302,8.57919e-10,0,8068,8068
277.352,1.76336e-09,0,8080,8080
277.401,3.35873e-09,0,8072,8072
277.451,5.79651e-09,0,8128,8128
277.501,9.08764e-09,0,8052,8052
277.551,1.30833e-08,0,8062,8062
277.601,1.75256e-08,0,8026,8026
277.65,2.21731e-08,0,7970,7970
277.7,2.6909e-08,0,8002,8002
277.75,3.18134e-08,0,7966,7966
277.803,3.75129e-08,0,8042,8042
277.853,4.38412e-08,0,8018,8018
277.902,5.16026e-08,0,8030,8030
277.952,6.12958e-08,0,8066,8066
278.002,7.33991e-08,0,8106,8106
278.052,8.83985e-08,0,8106,8106
278.102,1.06824e-07,0,8104,8104
278.151,1.29246e-07,0,8160,8160
278.201,1.56222e-07,0,8128,8128
278.251,1.88182e-07,0,8108,8108
278.301,2.25325e-07,0,8168,8168
278.351,2.67565e-07,0,8120,8120
278.4,3.14554e-07,0,8120,8120
278.45,3.65773e-07,0,8128,8128
278.503,4.23951e-07,0,8132,8132
278.553,4.81944e-07,0,8132,8132
278.602,5.42113e-07,0,8140,8140
278.652,6.03441e-07,0,8100,8100
278.702,6.64569e-07,0,8104,8104
278.752,7.23822e-07,0,8064,8064
278.802,7.79377e-07,0,7956,7956
278.851,8.29532e-07,0,7892,7892
278.901,8.7298e-07,0,7908,7908
278.951,9.08992e-07,0,7960,7960
279.001,9.37451e-07,0,7924,7924
279.051,9.58724e-07,0,7872,7872
279.1,9.73446e-07,0,7888,7888
279.15,9.82272e-07,0,7840,7840
279.2,9.85681e-07,0,7792,7792
279.253,9.83612e-07,0,7736,7736
279.303,9.76225e-07,0,7692,7692
279.352,9.63322e-07,0,7648,7648
279.402,9.44659e-07,0,7604,7604
279.452,9.20145e-07,0,7536,7536
279.502,8.89987e-07,0,7500,7500
279.552,8.54773e-07,0,7456,7456
279.601,8.15471e-07,0,7404,7404
279.651,7.73356e-07,0,7360,7360
279.701,7.29866e-07,0,7384,7384
279.751,6.86443e-07,0,7428,7428
279.801,6.44387e-07,0,7400,7400
279.85,6.04766e-07,0,7368,7368
279.9,5.68394e-07,0,7400,7400
279.953,5.34086e-07,0,7560,7560
280.003,5.06153e-07,0,7676,7676
280.052,4.83027e-07,0,7784,7784
280.102,4.6522e-07,0,7868,7868
280.152,4.53305e-07,0,7840,7840
280.202,4.47822e-07,0,7820,7820
280.252,4.49141e-07,0,7776,7776
280.301,4.57332e-07,0,7812,7812
280.351,4.72115e-07,0,7848,7848
280.401,4.92927e-07,0,7828,7828
280.451,5.19054e-07,0,7820,7820
280.501,5.49761e-07,0,7816,7816
280.55,5.84344e-07,0,7772,7772
280.6,6.22062e-07,0,7740,7740
280.65,6.62018e-07,0,7700,7700
280.703,7.05459e-07,0,7700,7700
280.753,7.46028e-07,0,7660,7660
280.802,7.84491e-07,0,7620,7620
280.852,8.19261e-07,0,7580,7580
280.902,8.4902e-07,0,7540,7540
280.952,8.7287e-07,0,7500,7500
281.002,8.90375e-07,0,7464,7464
281.051,9.01482e-07,0,7432,7432
281.101,9.06389e-07,0,7404,7404
281.151,9.05386e-07,0,7364,7364
281.201,8.98742e-07,0,7328,7328
281.251,8.86639e-07,0,7292,7292
281.3,8.69152e-07,0,7256,7256
281.35,8.46272e-07,0,7216,7216
281.403,8.16124e-07,0,7172,7172
281.453,7.82072e-07,0,7136,7136
281.502,7.42764e-07,0,7100,7100
281.552,6.98592e-07,0,7052,7052
281.602,6.50217e-07,0,6996,6996
281.652,5.98565e-07,0,7056,7056
281.702,5.44752e-07,0,7020,7020
281.751,4.89981e-07,0,6976,6976
281.801,4.35426e-07,0,6944,6944
281.851,3.82121e-07,0,6968,6968
281.901,3.30896e-07,0,6920,6920
281.951,2.82352e-07,0,6912,6912
282,2.36883e-07,0,6904,6904
282.05,1.94722e-07,0,6860,6860
282.1,1.55996e-07,0,6828,6828
282.153,1.18808e-07,0,6800,6800
282.203,8.73088e-08,0,6800,6800
282.252,5.92986e-08,0,6756,6756
282.302,3.46778e-08,0,6756,6756
282.352,1.32678e-08,0,6752,6752
282.402,-5.1816e-09,0,6764,6764
282.452,-2.09614e-08,0,6764,6764
282.501,-3.43616e-08,0,6776,6776
282.551,-4.56362e-08,0,6732,6732
282.601,-5.49889e-08,0,6760,6760
282.651,-6.25843e-08,0,6732,6732
282.7,-6.8574e-08,0,6720,6720
282.75,-7.31212e-08,0,6728,6728
282.8,-7.64084e-08,0,6712,6712
282.853,-7.87251e-08,0,6716,6716
282.903,-7.99887e-08,0,6716,6716
282.952,-8.04759e-08,0,6712,6712
283.002,-8.02489e-08,0,6712,6712
283.052,-7.9326e-08,0,6708,6708
283.102,-7.77102e-08,0,6700,6700
283.152,-7.54202e-08,0,6704,6704
283.201,-7.25129e-08,0,6716,6716
283.251,-6.90788e-08,0,6706,6706
283.301,-6.52504e-08,0,6746,6746
283.351,-6.12051e-08,0,6794,6794
283.401,-5.70852e-08,0,6830,6830
283.451,-5.30107e-08,0,6866,6866
283.501,-4.90784e-08,0,6914,6914
283.551,-4.53566e-08,0,6958,6958
283.6,-4.18862e-08,0,6998,6998
283.65,-3.86867e-08,0,7034,7034
283.703,-3.55981e-08,0,7082,7082
283.753,-3.29578e-08,0,7126,7126
283.802,-3.05758e-08,0,7166,7166
283.852,-2.84412e-08,0,7202,7202
283.902,-2.65436e-08,0,7250,7250
283.952,-2.48739e-08,0,7294,7294
284.002,-2.34225e-08,0,7334,7334
284.051,-2.21796e-08,0,7370,7370
284.101,-2.11336e-08,0,7418,7418
284.151,-2.02714e-08,0,7462,7462
284.201,-1.95786e-08,0,7502,7502
284.251,-1.90398e-08,0,7538,7538
284.3,-1.8639e-08,0,7582,7582
284.35,-1.83605e-08,0,7630,7630
284.4,-1.81891e-08,0,7670,7670
284.453,-1.81082e-08,0,7714,7714
284.503,-1.81129e-08,0,7754,7754
284.552,-1.81841e-08,0,7798,7798
284.602,-1.8311e-08,0,7846,7846
284.652,-1.84838e-08,0,7882,7882
284.702,-1.8694e-08,0,7922,7922
284.752,-1.8934e-08,0,7966,7966
284.801,-1.91972e-08,0,8014,8014
284.851,-1.94777e-08,0,8050,8050
284.901,-1.97705e-08,0,8098,8098
284.951,-2.00714e-08,0,8092,8092
285.001,-2.03766e-08,0,8134,8134
285.05,-2.06832e-08,0,8176,8176
285.1,-2.09884e-08,0,8164,8164
285.153,-2.13076e-08,0,8160,8160
285.203,-2.16035e-08,0,8156,8156
285.252,-2.18929e-08,0,8148,8148
285.302,-2.21749e-08,0,8148,8148
285.352,-2.24498e-08,0,8148,8148
285.402,-2.27181e-08,0,8148,8148
285.452,-2.29815e-08,0,8148,8148
285.501,-2.32419e-08,0,8144,8144
285.551,-2.35023e-08,0,8140,8140
285.601,-2.37656e-08,0,8096,8096
285.651,-2.40353e-08,0,8078,8078
285.701,-2.43149e-08,0,8152,8152
285.75,-2.46079e-08,0,8184,8184
285.8,-2.49174e-08,0,8192,8192
285.85,-2.52454e-08,0,8192,8192
285.903,-2.56154e-08,0,8192,8192
285.953,-2.59887e-08,0,8192,8192
286.002,-2.63866e-08,0,8192,8192
286.052,-2.68091e-08,0,8192,8192
286.102,-2.72554e-08,0,8192,8192
286.152,-2.77242e-08,0,8192,8192
286.202,-2.82136e-08,0,8192,8192
286.251,-2.87209e-08,0,8192,8192
286.301,-2.92432e-08,0,8192,8192
286.351,-2.97773e-08,0,8192,8192
286.401,-3.032e-08,0,8192,8192
286.451,-3.08676e-08,0,8192,8192
286.5,-3.14167e-08,0,8192,8192
286.55,-3.1964e-08,0,8192,8192
286.603,-3.25376e-08,0,8192,8192
286.653,-3.30701e-08,0,8192,8192
286.702,-3.35903e-08,0,8192,8192
286.752,-3.40951e-08,0,8056,8056
286.802,-3.45817e-08,0,8144,8144
286.852,-3.50474e-08,0,8152,8152
286.902,-3.54902e-08,0,8148,8148
286.951,-3.59091e-08,0,8144,8144
287.001,-3.63033e-08,0,8164,8164
287.051,-3.66722e-08,0,8168,8168
287.101,-3.70154e-08,0,8160,8160
287.151,-3.73332e-08,0,8168,8168
287.2,-3.76267e-08,0,8144,8144
287.25,-3.78978e-08,0,8152,8152
287.303,-3.81629e-08,0,8152,8152
287.353,-3.83953e-08,0,8160,8160
287.403,-3.86132e-08,0,8136,8136
287.452,-3.88198e-08,0,8128,8128
287.502,-3.90177e-08,0,8136,8136
287.552,-3.92112e-08,0,8120,8120
287.602,-3.94069e-08,0,8104,8104
287.651,-3.96057e-08,0,8160,8160
287.701,-3.98089e-08,0,8152,8152
287.751,-4.00218e-08,0,8152,8152
287.801,-4.02481e-08,0,8128,8128
287.851,-4.04879e-08,0,8120,8120
287.9,-4.0744e-08,0,8104,8104
287.95,-4.10183e-08,0,8112,8112
288,-4.13115e-08,0,8096,8096
288.053,-4.16434e-08,0,8104,8104
288.103,-4.19765e-08,0,8112,8112
288.152,-4.23264e-08,0,8080,8080
288.202,-4.26901e-08,0,8112,8112
288.252,-4.30654e-08,0,8112,8112
288.302,-4.3451e-08,0,8128,8128
288.352,-4.38435e-08,0,8136,8136
288.401,-4.42392e-08,0,8080,8080
288.451,-4.46346e-08,0,8072,8072
288.501,-4.50258e-08,0,8088,8088
288.551,-4.54097e-08,0,8096,8096
288.601,-4.57829e-08,0,8136,8136
288.65,-4.61413e-08,0,8144,8144
288.7,-4.64817e-08,0,8144,8144
288.753,-4.68198e-08,0,8152,8152
288.803,-4.71148e-08,0,8160,8160
288.852,-4.73827e-08,0,8176,8176
288.902,-4.76211e-08,0,8176,8176
288.952,-4.78293e-08,0,8168,8168
289.002,-4.80064e-08,0,8144,8144
289.052,-4.81506e-08,0,8136,8136
289.101,-4.82612e-08,0,8184,8184
289.151,-4.83387e-08,0,8192,8192
289.201,-4.83845e-08,0,8184,8184
289.251,-4.83994e-08,0,8184,8184
289.301,-4.83826e-08,0,8168,8168
289.35,-4.83409e-08,0,8176,8176
289.4,-4.82701e-08,0,8168,8168
289.45,-4.81765e-08,0,8184,8184
289.503,-4.80545e-08,0,8192,8192
289.553,-4.79197e-08,0,8192,8192
289.602,-4.77683e-08,0,8184,8184
289.652,-4.76022e-08,0,8192,8192
289.702,-4.74235e-08,0,8192,8192
289.752,-4.72345e-08,0,8184,8184
289.802,-4.70369e-08,0,8192,8192
289.851,-4.68321e-08,0,8184,8184
289.901,-4.66215e-08,0,8184,8184
289.951,-4.64077e-08,0,8176,8176
290.001,-4.6191e-08,0,8176,8176
290.051,-4.59731e-08,0,8168,8168
290.1,-4.57552e-08,0,8156,8156
290.15,-4.5538e-08,0,8144,8144
290.203,-4.53094e-08,0,8132,8132
290.253,-4.50954e-08,0,8184,8184
290.302,-4.48837e-08,0,8152,8152
290.352,-4.46743e-08,0,8104,8104
290.402,-4.44676e-08,0,8136,8136
290.452,-4.42638e-08,0,8044,8044
290.502,-4.40634e-08,0,8156,8156
290.551,-4.38668e-08,0,8156,8156
290.601,-4.3674e-08,0,8136,8136
290.651,-4.3485e-08,0,8020,8020
290.701,-4.32991e-08,0,7936,7936
290.751,-4.3116e-08,0,7980,7980
290.8,-4.29352e-08,0,8008,8008
290.85,-4.27564e-08,0,8012,8012
290.9,-4.25794e-08,0,8012,8012
290.953,-4.23939e-08,0,8008,8008
291.003,-4.222e-08,0,8004,8004
291.052,-4.20469e-08,0,8040,8040
291.102,-4.18738e-08,0,7900,7900
291.152,-4.16996e-08,0,8168,8168
291.202,-4.15238e-08,0,8192,8192
291.252,-4.13463e-08,0,8192,8192
291.301,-4.11667e-08,0,8192,8192
291.351,-4.09847e-08,0,8192,8192
291.401,-4.07996e-08,0,8192,8192
291.451,-4.06109e-08,0,8156,8156
291.501,-4.0418e-08,0,8004,8004
291.55,-4.02201e-08,0,8044,8044
291.6,-4.00166e-08,0,8048,8048
291.653,-3.97944e-08,0,8052,8052
291.703,-3.95777e-08,0,8052,8052
291.752,-3.93537e-08,0,8036,8036
291.802,-3.91216e-08,0,8044,8044
291.852,-3.88803e-08,0,8044,8044
291.902,-3.86286e-08,0,7996,7996
291.952,-3.83651e-08,0,7948,7948
292.001,-3.80883e-08,0,7900,7900
292.051,-3.77962e-08,0,7840,7840
292.101,-3.7487e-08,0,7812,7812
292.151,-3.71583e-08,0,7824,7824
292.201,-3.68077e-08,0,7752,7752
292.25,-3.64329e-08,0,7620,7620
292.3,-3.60312e-08,0,7688,7688
292.35,-3.56004e-08,0,7688,7688
292.403,-3.51098e-08,0,7744,7744
292.453,-3.46121e-08,0,7700,7700
292.502,-3.40793e-08,0,7712,7712
292.552,-3.35106e-08,0,7672,7672
292.602,-3.29054e-08,0,7664,7664
292.652,-3.2264e-08,0,7652,7652
292.702,-3.15873e-08,0,7656,7656
292.751,-3.08768e-08,0,7656,7656
292.801,-3.01348e-08,0,7640,7640
292.851,-2.9364e-08,0,7660,7660
292.901,-2.85679e-08,0,7624,7624
292.951,-2.77503e-08,0,7648,7648
293,-2.69155e-08,0,7644,7644
293.05,-2.60678e-08,0,7616,7616
293.103,-2.51613e-08,0,7620,7620
293.153,-2.43013e-08,0,7604,7604
293.202,-2.34421e-08,0,7624,7624
293.252,-2.25881e-08,0,7628,7628
293.302,-2.17434e-08,0,7636,7636
293.352,-2.09122e-08,0,7644,7644
293.402,-2.00983e-08,0,7632,7632
293.451,-1.93051e-08,0,7636,7636
293.501,-1.85355e-08,0,7632,7632
293.551,-1.77921e-08,0,7642,7642
293.601,-1.70769e-08,0,7674,7674
293.651,-1.63913e-08,0,7734,7734
293.7,-1.5736e-08,0,7750,7750
293.75,-1.51114e-08,0,7802,7802
293.803,-1.44829e-08,0,7842,7842
293.853,-1.39191e-08,0,7886,7886
293.903,-1.33826e-08,0,7934,7934
293.952,-1.28711e-08,0,7978,7978
294.002,-1.23817e-08,0,8022,8022
294.052,-1.19112e-08,0,8062,8062
294.102,-1.14562e-08,0,8090,8090
294.152,-1.10127e-08,0,8138,8138
294.201,-1.05768e-08,0,8176,8176
294.251,-1.01443e-08,0,8184,8184
294.301,-9.71103e-09,0,8168,8168
294.351,-9.27307e-09,0,8176,8176
294.4,-8.82665e-09,0,8176,8176
294.45,-8.36838e-09,0,8184,8184
294.5,-7.89543e-09,0,8192,8192
294.553,-7.37614e-09,0,8192,8192
294.603,-6.86649e-09,0,8192,8192
294.652,-6.33715e-09,0,8176,8176
294.702,-5.78773e-09,0,8168,8168
294.752,-5.21853e-09,0,8192,8192
294.802,-4.63055e-09,0,8176,8176
294.852,-4.0254e-09,0,8168,8168
294.901,-3.4052e-09,0,8192,8192
294.951,-2.77254e-09,0,8192,8192
295.001,-2.13036e-09,0,8192,8192
295.051,-1.48191e-09,0,8160,8160
295.101,-8.30682e-10,0,8176,8176
295.15,-1.80337e-10,0,8168,8168
295.2,4.65275e-10,0,8176,8176
295.253,1.13928e-09,0,8160,8160
295.303,1.76251e-09,0,8192,8192
295.352,2.36856e-09,0,8184,8184
295.402,2.95327e-09,0,8160,8160
295.452,3.51257e-09,0,8152,8152
295.502,4.04256e-09,0,8152,8152
295.552,4.5396e-09,0,8152,8152
295.601,5.0004e-09,0,8152,8152
295.651,5.42203e-09,0,8152,8152
295.701,5.8021e-09,0,8152,8152
295.751,6.13873e-09,0,8144,8144
295.801,6.43072e-09,0,8144,8144
295.85,6.67754e-09,0,8144,8144
295.9,6.87935e-09,0,8144,8144
295.95,7.03707e-09,0,8120,8120
296.003,7.15788e-09,0,8120,8120
296.053,7.23088e-09,0,8128,8128
296.102,7.26688e-09,0,8120,8120
296.152,7.27684e-09,0,8144,8144
296.202,7.24098e-09,0,8144,8144
296.252,7.18736e-09,0,8136,8136
296.302,7.11353e-09,0,8144,8144
296.351,7.01926e-09,0,8144,8144
296.401,6.91227e-09,0,8144,8144
296.451,6.7922e-09,0,8136,8136
296.501,6.66404e-09,0,8112,8112
296.551,6.53025e-09,0,8082,8082
296.6,6.39341e-09,0,8076,8076
296.65,6.25599e-09,0,8068,8068
296.703,6.1122e-09,0,8064,8064
296.753,5.98085e-09,0,8060,8060
296.802,5.85561e-09,0,8042,8042
296.852,5.73784e-09,0,8042,8042
296.902,5.62979e-09,0,8100,8100
296.952,5.53235e-09,0,8084,8084
297.002,5.44638e-09,0,8094,8094
297.051,5.37252e-09,0,8140,8140
297.101,5.31105e-09,0,8148,8148
297.151,5.262e-09,0,8160,8160
297.201,5.22505e-09,0,8152,8152
297.251,5.19962e-09,0,8136,8136
297.3,5.18497e-09,0,8012,8012
297.35,5.17835e-09,0,8032,8032
297.4,5.18231e-09,0,8052,8052
297.453,5.19683e-09,0,8048,8048
297.503,5.21393e-09,0,8072,8072
297.552,5.23541e-09,0,8056,8056
297.602,5.2588e-09,0,8036,8036
297.652,5.28279e-09,0,8004,8004
297.702,5.30577e-09,0,7984,7984
297.752,5.32666e-09,0,7928,7928
297.801,5.34392e-09,0,7908,7908
297.851,5.35652e-09,0,7868,7868
297.901,5.36118e-09,0,7824,7824
297.951,5.36002e-09,0,7808,7808
298.001,5.3515e-09,0,7762,7762
298.05,5.33805e-09,0,7832,7832
298.1,5.3209e-09,0,7884,7884
298.153,5.30296e-09,0,7948,7948
298.203,5.26655e-09,0,8020,8020
298.252,5.2226e-09,0,8036,8036
298.302,5.17861e-09,0,8076,8076
298.352,5.13366e-09,0,8084,8084
298.402,5.08647e-09,0,8100,8100
298.452,5.03851e-09,0,8116,8116
298.501,4.99048e-09,0,8116,8116
298.551,4.94313e-09,0,8116,8116
298.601,4.89722e-09,0,8104,8104
298.651,4.85326e-09,0,8100,8100
298.701,4.81162e-09,0,8092,8092
298.75,4.77353e-09,0,8108,8108
298.8,4.74079e-09,0,8104,8104
298.85,4.71422e-09,0,8092,8092
298.903,4.69281e-09,0,8108,8108
298.953,4.67874e-09,0,8092,8092
299.002,4.67025e-09,0,8092,8092
299.052,4.6693e-09,0,8080,8080
299.102,4.66969e-09,0,8076,8076
299.152,4.67396e-09,0,8072,8072
299.202,4.67647e-09,0,8088,8088
299.251,4.69605e-09,0,8084,8084
299.301,4.71211e-09,0,8080,8080
299.351,4.73328e-09,0,8088,8088
299.401,4.75459e-09,0,7942,7942
299.451,4.77634e-09,0,7910,7910
299.5,4.79818e-09,0,7870,7870
299.55,4.81867e-09,0,7850,7850
299.603,4.83961e-09,0,7834,7834
299.653,4.8572e-09,0,7824,7824
299.702,4.87218e-09,0,7848,7848
299.752,4.88464e-09,0,7864,7864
299.802,4.89411e-09,0,7836,7836
299.852,4.90117e-09,0,7824,7824
299.902,4.90649e-09,0,7832,7832
299.951,4.91497e-09,0,7788,7788
300.001,4.9155e-09,0,7728,7728
300.051,4.91088e-09,0,7668,7668
300.101,4.90305e-09,0,7668,7668
300.151,4.8936e-09,0,7656,7656
300.2,4.87604e-09,0,7628,7628
300.25,4.86263e-09,0,7656,7656
300.3,4.84827e-09,0,7684,7684
300.353,4.82972e-09,0,7700,7700
300.403,4.81051e-09,0,7780,7780
300.452,4.78922e-09,0,7832,7832
300.502,4.76621e-09,0,7872,7872
300.552,4.74019e-09,0,7856,7856
300.602,4.71263e-09,0,7816,7816
300.652,4.68379e-09,0,7796,7796
300.701,4.65281e-09,0,7804,7804
300.751,4.62047e-09,0,7784,7784
300.801,4.58675e-09,0,7740,7740
300.851,4.55137e-09,0,7700,7700
300.901,4.51424e-09,0,7696,7696
300.95,4.47622e-09,0,7752,7752
301,4.43794e-09,0,7716,7716
301.053,4.39663e-09,0,7744,7744
301.103,4.35672e-09,0,7708,7708
301.152,4.31625e-09,0,7672,7672
301.202,4.27543e-09,0,7656,7656
301.252,4.23429e-09,0,7640,7640
301.302,4.19287e-09,0,7616,7616
301.352,4.15135e-09,0,7576,7576
301.401,4.10969e-09,0,7592,7592
301.451,4.0678e-09,0,7596,7596
301.501,4.02606e-09,0,7616,7616
301.551,3.98463e-09,0,7632,7632
301.601,3.94289e-09,0,7628,7628
301.65,3.90067e-09,0,7600,7600
301.7,3.85868e-09,0,7596,7596
301.753,3.8147e-09,0,7560,7560
301.803,3.77329e-09,0,7536,7536
301.853,3.73182e-09,0,7528,7528
301.902,3.69023e-09,0,7552,7552
301.952,3.6484e-09,0,7552,7552
302.002,3.60619e-09,0,7540,7540
302.052,3.56345e-09,0,7576,7576
302.102,3.52031e-09,0,7588,7588
302.151,3.47694e-09,0,7572,7572
302.201,3.43329e-09,0,7532,7532
302.251,3.38929e-09,0,7480,7480
302.301,3.34499e-09,0,7448,7448
302.35,3.30024e-09,0,7456,7456
302.4,3.25491e-09,0,7476,7476
302.45,3.2092e-09,0,7464,7464
302.503,3.16061e-09,0,7464,7464
302.553,3.11449e-09,0,7464,7464
302.602,3.06802e-09,0,7416,7416
302.652,3.02104e-09,0,7416,7416
302.702,2.97338e-09,0,7352,7352
302.752,2.92506e-09,0,7304,7304
302.802,2.87633e-09,0,7260,7260
302.851,2.82743e-09,0,7260,7260
302.901,2.77836e-09,0,7220,7220
302.951,2.72907e-09,0,7208,7208
303.001,2.67961e-09,0,7132,7132
303.051,2.63013e-09,0,7108,7108
303.1,2.58069e-09,0,7064,7064
303.15,2.53128e-09,0,7116,7116
303.203,2.47886e-09,0,7248,7248
303.253,2.42918e-09,0,7240,7240
303.303,2.37946e-09,0,7208,7208
303.352,2.32991e-09,0,7204,7204
303.402,2.28063e-09,0,7208,7208
303.452,2.23164e-09,0,7228,7228
303.502,2.18297e-09,0,7252,7252
303.551,2.13473e-09,0,7284,7284
303.601,2.08694e-09,0,7300,7300
303.651,2.03953e-09,0,7344,7344
303.701,1.99243e-09,0,7380,7380
303.751,1.9457e-09,0,7404,7404
303.8,1.89944e-09,0,7388,7388
303.85,1.85375e-09,0,7364,7364
303.9,1.80864e-09,0,7390,7390
303.953,1.76147e-09,0,7388,7388
304.003,1.71739e-09,0,7372,7372
304.052,1.67366e-09,0,7352,7352
304.102,1.63021e-09,0,7328,7328
304.152,1.58706e-09,0,7284,7284
304.202,1.54423e-09,0,7264,7264
304.252,1.50181e-09,0,7236,7236
304.301,1.45986e-09,0,7192,7192
304.351,1.41842e-09,0,7188,7188
304.401,1.37746e-09,0,7168,7168
304.451,1.33692e-09,0,7156,7156
304.501,1.29675e-09,0,7148,7148
304.55,1.25688e-09,0,7128,7128
304.6,1.21727e-09,0,7144,7144
304.653,1.17556e-09,0,7108,7108
304.703,1.13638e-09,0,7096,7096
304.752,1.09744e-09,0,7056,7056
304.802,1.05873e-09,0,7064,7064
304.852,1.02025e-09,0,7048,7048
304.902,9.81992e-10,0,7012,7012
304.952,9.43954e-10,0,7004,7004
