250,0,0,512,512
250.012,0,0,512,512
250.059,0,0,512,512
250.105,0,0,512,512
250.152,0,0,512,512
250.211,0,0,512,512
250.258,0,0,512,512
250.305,0,0,512,512
250.352,0,0,512,512
250.41,0,0,512,512
250.457,0,0,512,512
250.504,0,0,512,512
250.551,0,0,512,512
250.609,0,0,512,512
250.656,0,0,512,512
250.703,0,0,512,512
250.762,0,0,512,512
250.808,0,0,512,512
250.855,0,0,512,512
250.902,0,0,512,512
250.961,0,0,512,512
251.008,0,0,512,512
251.055,0,0,512,512
251.101,0,0,512,512
251.16,0,0,512,512
251.207,0,0,512,512
251.254,0,0,512,512
251.301,0,0,512,512
251.359,0,0,512,512
251.406,0,0,512,512
251.453,0,0,512,512
251.511,0,0,512,512
251.558,0,0,512,512
251.605,0,0,512,512
251.652,0,0,512,512
251.711,0,0,512,512
251.758,0,0,512,512
251.804,0,0,512,512
251.851,0,0,512,512
251.91,0,0,512,512
251.957,0,0,512,512
252.004,0,0,512,512
252.05,0,0,512,512
252.109,0,0,512,512
252.156,0,0,512,512
252.203,0,0,512,512
252.261,0,0,512,512
252.308,0,0,512,512
252.355,0,0,512,512
252.402,0,0,512,512
252.461,0,0,512,512
252.507,0,0,512,512
252.554,0,0,512,512
252.601,0,0,512,512
252.66,0,0,512,512
252.707,0,0,512,512
252.754,0,0,512,512
252.8,0,0,512,512
252.859,0,0,512,512
252.906,0,0,512,512
252.953,0,0,512,512
253.011,0,0,512,512
253.058,0,0,512,512
253.105,0,0,512,512
253.152,0,0,512,512
253.21,0,0,512,512
253.257,0,0,512,512
253.304,0,0,512,512
253.351,0,0,512,512
253.41,0,0,512,512
253.457,0,0,512,512
253.503,0,0,512,512
253.55,0,0,512,512
253.609,0,0,512,512
253.656,0,0,512,512
253.703,0,0,512,512
253.761,0,0,512,512
253.808,0,0,512,512
253.855,0,0,512,512
253.902,0,0,512,512
253.96,0,0,512,512
254.007,0,0,512,512
254.054,0,0,512,512
254.101,0,0,512,512
254.16,0,0,512,512
254.206,0,0,512,512
254.253,0,0,512,512
254.3,0,0,512,512
254.359,0,0,512,512
254.406,0,0,512,512
254.452,0,0,512,512
254.511,0,0,512,512
254.558,-1.38778e-17,0,512,512
254.605,-2.77556e-17,0,512,512
254.652,-2.77556e-17,0,512,512
254.71,-2.77556e-17,0,512,512
254.757,-2.77556e-17,0,512,512
254.804,-2.77556e-17,0,512,512
254.851,-2.77556e-17,0,512,512
254.909,-2.77556e-17,0,512,512
254.956,0,0,512,512
255.003,0,0,512,512
255.05,0,0,512,512
255.109,0,0,512,512
255.155,0,0,512,512
255.202,0,0,512,512
255.261,0,0,512,512
255.308,0,0,512,512
255.355,0,0,512,512
255.402,0,0,512,512
255.46,0,0,512,512
255.507,0,0,512,512
255.554,0,0,512,512
255.601,0,0,512,512
255.659,0,0,512,512
255.706,0,0,512,512
255.753,0,0,512,512
255.812,0,0,512,512
255.859,0,0,512,512
255.905,0,0,512,512
255.952,0,0,512,512
256.011,0,0,512,512
256.058,0,0,512,512
256.105,0,0,512,512
256.151,0,0,512,512
256.21,0,0,512,512
256.257,0,0,512,512
256.304,0,0,512,512
256.351,0,0,512,512
256.409,0,0,512,512
256.456,0,0,512,512
256.503,0,0,512,512
256.562,0,0,512,512
256.608,0,0,512,512
256.655,0,0,512,512
256.702,0,0,512,512
256.761,0,0,512,512
256.808,0,0,512,512
256.854,0,0,512,512
256.901,0,0,512,512
256.96,0,0,512,512
257.007,0,0,512,512
257.054,0,0,512,512
257.101,0,0,512,512
257.159,0,0,512,512
257.206,0,0,512,512
257.253,0,0,512,512
257.311,0,0,512,512
257.358,0,0,512,512
257.405,0,0,512,512
257.452,0,0,512,512
257.511,0,0,512,512
257.557,0,0,512,512
257.604,0,0,512,512
257.651,0,0,512,512
257.71,0,0,512,512
257.757,0,0,512,512
257.804,0,0,512,512
257.85,0,0,512,512
257.909,0,0,512,512
257.956,0,0,512,512
258.003,0,0,512,512
258.061,0,0,512,512
258.108,0,0,512,512
258.155,0,0,512,512
258.202,0,0,512,512
258.261,0,0,512,512
258.307,0,0,512,512
258.354,0,0,512,512
258.401,0,0,512,512
258.46,0,0,512,512
258.507,0,0,512,512
258.553,0,0,512,512
258.6,0,0,512,512
258.659,0,0,512,512
258.706,0,0,512,512
258.753,0,0,512,512
258.811,0,0,512,512
258.858,0,0,512,512
258.905,0,0,512,512
258.952,0,0,512,512
259.01,0,0,512,512
259.057,0,0,512,512
259.104,0,0,512,512
259.151,0,0,512,512
259.21,0,0,512,512
259.256,0,0,512,512
259.303,0,0,512,512
259.35,0,0,512,512
259.409,0,0,512,512
259.456,0,0,512,512
259.503,0,0,512,512
259.561,0,0,512,512
259.608,0,0,512,512
259.655,0,0,512,512
259.702,0,0,512,512
259.76,0,0,512,512
259.807,0,0,512,512
259.854,0,0,512,512
259.901,0,0,512,512
259.959,0,0,512,512
260.006,0,0,512,512
260.053,0,0,512,512
260.1,0,0,512,512
260.159,0,0,512,512
260.206,0,0,512,512
260.252,0,0,512,512
260.311,0,0,512,512
260.358,0,0,512,512
260.405,0,0,512,512
260.452,0,0,512,512
260.51,0,0,512,512
260.557,0,0,512,512
260.604,0,0,512,512
260.651,0,0,512,512
260.709,0,0,512,512
260.756,0,0,512,512
260.803,0,0,512,512
260.862,0,0,512,512
260.909,0,0,512,512
260.955,0,0,512,512
261.002,0,0,512,512
261.061,0,0,512,512
261.108,0,0,512,512
261.155,0,0,512,512
261.201,0,0,512,512
261.26,0,0,512,512
261.307,0,0,512,512
261.354,0,0,512,512
261.401,0,0,512,512
261.459,0,0,512,512
261.506,0,0,512,512
261.553,0,0,512,512
261.612,0,0,512,512
261.658,0,0,512,512
261.705,0,0,512,512
261.752,0,0,512,512
261.811,0,0,512,512
261.858,0,0,512,512
261.905,0,0,512,512
261.951,0,0,512,512
262.01,0,0,512,512
262.057,0,0,512,512
262.104,0,0,512,512
262.151,0,0,512,512
262.209,0,0,512,512
262.256,0,0,512,512
262.303,0,0,512,512
262.361,0,0,512,512
262.408,0,0,512,512
262.455,0,0,512,512
262.502,0,0,512,512
262.561,0,0,512,512
262.608,0,0,512,512
262.654,0,0,512,512
262.701,0,0,512,512
262.76,0,0,512,512
262.807,0,0,512,512
262.854,0,0,512,512
262.9,0,0,512,512
262.959,0,0,512,512
263.006,0,0,512,512
263.053,0,0,512,512
263.111,0,0,512,512
263.158,0,0,512,512
263.205,0,0,512,512
263.252,0,0,512,512
263.311,0,0,512,512
263.357,0,0,512,512
263.404,0,0,512,512
263.451,0,0,512,512
263.51,0,0,512,512
263.557,0,0,512,512
263.603,0,0,512,512
263.65,0,0,512,512
263.709,-1.38778e-17,0,512,512
263.756,-1.38778e-17,0,512,512
263.803,-2.77556e-17,0,512,512
263.861,-2.77556e-17,0,512,512
263.908,-2.77556e-17,0,512,512
263.955,-2.77556e-17,0,512,512
264.002,-2.77556e-17,0,512,512
264.06,-2.77556e-17,0,512,512
264.107,-1.38778e-17,0,512,512
264.154,-1.38778e-17,0,512,512
264.201,-1.38778e-17,0,512,512
264.26,-1.38778e-17,0,512,512
264.306,-1.38778e-17,0,512,512
264.353,-1.38778e-17,0,512,512
264.4,-1.38778e-17,0,512,512
264.459,-1.38778e-17,0,512,512
264.506,-1.38778e-17,0,512,512
264.553,-1.38778e-17,0,512,512
264.611,-1.38778e-17,0,512,512
264.658,-1.38778e-17,0,512,512
264.705,-1.38778e-17,0,512,512
264.752,-1.38778e-17,0,512,512
264.81,-1.38778e-17,0,512,512
264.857,-1.38778e-17,0,512,512
264.904,-1.38778e-17,0,512,512
264.951,-1.38778e-17,0,512,512
265.01,-1.38778e-17,0,512,512
265.056,-1.38778e-17,0,512,512
265.103,-1.38778e-17,0,512,512
265.15,-1.38778e-17,0,512,512
265.209,-1.38778e-17,0,512,512
265.256,-1.38778e-17,0,512,512
265.302,-1.38778e-17,0,512,512
265.361,-1.38778e-17,0,512,512
265.408,-1.38778e-17,0,512,512
265.455,0,0,512,512
265.502,0,0,512,512
265.56,0,0,512,512
265.607,0,0,512,512
265.654,0,0,512,512
265.701,0,0,512,512
265.759,0,0,512,512
265.806,0,0,512,512
265.853,0,0,512,512
265.9,0,0,512,512
265.959,0,0,512,512
266.005,0,0,512,512
266.052,0,0,512,512
266.111,0,0,512,512
266.158,0,0,512,512
266.205,0,0,512,512
266.252,0,0,512,512
266.31,0,0,512,512
266.357,0,0,512,512
266.404,0,0,512,512
266.451,0,0,512,512
266.509,0,0,512,512
266.556,0,0,512,512
266.603,0,0,512,512
266.662,0,0,512,512
266.708,0,0,512,512
266.755,0,0,512,512
266.802,0,0,512,512
266.861,0,0,512,512
266.908,0,0,512,512
266.955,0,0,512,512
267.001,0,0,512,512
267.06,0,0,512,512
267.107,0,0,512,512
267.154,0,0,512,512
267.201,0,0,512,512
267.259,0,0,512,512
267.306,0,0,512,512
267.353,0,0,512,512
267.412,0,0,512,512
267.458,0,0,512,512
267.505,0,0,512,512
267.552,0,0,512,512
267.611,0,0,512,512
267.658,0,0,512,512
267.704,0,0,512,512
267.751,0,0,512,512
267.81,0,0,512,512
267.857,0,0,512,512
267.904,0,0,512,512
267.95,0,0,512,512
268.009,0,0,512,512
268.056,1.38778e-17,0,512,512
268.1,1.38778e-17,0,1979,1979
268.151,1.38778e-17,0,2867,2867
268.2,1.38778e-17,0,3767,3767
268.25,1.38778e-17,0,4669,4669
268.301,1.38778e-17,0,5597,5597
268.35,1.38778e-17,0,6485,6485
268.4,1.38778e-17,0,7385,7385
268.45,1.38778e-17,0,8341,8341
268.501,1.38778e-17,0,9239,9239
268.55,1.38778e-17,0,10139,10139
268.6,1.38778e-17,0,11027,11027
268.65,1.38778e-17,0,11927,11927
268.701,1.38778e-17,0,12857,12857
268.75,1.38778e-17,0,13757,13757
268.8,1.38778e-17,0,14645,14645
268.851,1.38778e-17,0,15545,15545
268.9,1.38778e-17,0,16427,16427
268.95,1.38778e-17,0,17327,17327
269,1.38778e-17,0,18215,18215
269.051,1.38778e-17,0,19187,19187
269.1,1.38778e-17,0,20087,20087
269.15,1.38778e-17,0,20961,20961
269.201,1.38778e-17,0,21869,21869
269.251,1.38778e-17,0,22745,22745
269.3,1.38778e-17,0,23567,23567
269.35,1.38778e-17,0,24467,24467
269.401,1.38778e-17,0,25355,25355
269.45,1.38778e-17,0,26199,26199
269.5,1.38778e-17,0,26765,26765
269.55,1.38778e-17,0,27647,27647
269.601,1.38778e-17,0,28547,28547
269.65,1.38778e-17,0,29519,29519
269.7,1.38778e-17,0,30407,30407
269.751,1.38778e-17,0,31307,31307
269.8,1.38778e-17,0,32237,32237
269.85,1.38778e-17,0,33137,33137
269.9,1.38778e-17,0,34025,34025
269.951,1.38778e-17,0,34925,34925
270,1.38778e-17,0,35807,35807
270.05,1.38778e-17,0,36707,36707
270.101,1.38778e-17,0,37679,37679
270.151,1.38778e-17,0,38495,38495
270.2,1.38778e-17,0,39377,39377
270.25,1.38778e-17,0,40277,40277
270.301,1.38778e-17,0,41165,41165
270.35,1.38778e-17,0,42065,42065
270.4,1.38778e-17,0,42943,42943
270.45,1.38778e-17,0,43799,43799
270.501,1.38778e-17,0,44687,44687
270.55,1.38778e-17,0,45587,45587
270.6,1.38778e-17,0,46397,46397
270.651,1.38778e-17,0,47285,47285
270.7,1.38778e-17,0,48137,48137
270.75,1.38778e-17,0,48947,48947
270.8,1.38778e-17,0,49835,49835
270.851,1.38778e-17,0,50687,50687
270.9,1.38778e-17,0,51497,51497
270.95,1.38778e-17,0,52385,52385
271,1.38778e-17,0,53237,53237
271.051,1.38778e-17,0,54047,54047
271.1,1.38778e-17,0,54887,54887
271.15,1.38778e-17,0,55697,55697
271.201,1.38778e-17,0,56549,56549
271.25,1.38778e-17,0,57365,57365
271.3,1.38778e-17,0,58199,58199
271.35,1.38778e-17,0,59015,59015
271.401,1.38778e-17,0,59867,59867
271.45,1.38778e-17,0,60629,60629
271.5,1.38778e-17,0,61445,61445
271.551,1.38778e-17,0,62279,62279
271.6,1.38778e-17,0,63059,63059
271.65,1.38778e-17,0,63857,63857
271.7,1.38778e-17,0,64693,64693
271.751,1.38778e-17,0,65477,65477
271.8,1.38778e-17,0,66239,66239
271.85,1.38778e-17,0,67055,67055
271.9,1.38778e-17,0,67817,67817
271.951,1.38778e-17,0,68657,68657
272,1.38778e-17,0,69419,69419
272.05,1.38778e-17,0,70187,70187
272.101,1.38778e-17,0,70949,70949
272.15,1.38778e-17,0,71717,71717
272.2,1.38778e-17,0,72479,72479
272.25,1.38778e-17,0,73247,73247
272.301,1.38778e-17,0,74021,74021
272.35,1.38778e-17,0,74777,74777
272.4,1.38778e-17,0,75539,75539
272.451,1.38778e-17,0,76307,76307
272.501,1.38778e-17,0,77069,77069
272.55,1.38778e-17,0,77837,77837
272.6,1.38778e-17,0,78527,78527
272.651,1.38778e-17,0,79295,79295
272.7,1.38778e-17,0,80057,80057
272.75,1.38778e-17,0,80777,80777
272.8,1.38778e-17,0,81539,81539
272.851,1.38778e-17,0,82217,82217
272.9,1.38778e-17,0,82985,82985
272.95,1.38778e-17,0,83699,83699
273.001,1.38778e-17,0,84395,84395
273.05,1.38778e-17,0,85157,85157
273.1,1.38778e-17,0,85877,85877
273.15,1.38778e-17,0,86555,86555
273.201,1.38778e-17,0,87317,87317
273.25,1.38778e-17,0,88037,88037
273.3,1.38778e-17,0,88727,88727
273.351,1.38778e-17,0,89447,89447
273.401,1.38778e-17,0,90125,90125
273.45,1.38778e-17,0,90887,90887
273.5,1.38778e-17,0,91607,91607
273.551,1.38778e-17,0,92297,92297
273.6,1.38778e-17,0,93017,93017
273.65,1.38778e-17,0,93695,93695
273.7,1.38778e-17,0,94409,94409
273.751,6.10623e-16,0,95105,95105
273.8,1.51268e-15,0,95819,95819
273.85,2.45637e-15,0,96527,96527
273.901,3.41394e-15,0,97241,97241
273.95,4.35763e-15,0,97907,97907
274,5.30131e-15,0,98627,98627
274.05,6.245e-15,0,99305,99305
274.101,7.20257e-15,0,100025,100025
274.15,8.14626e-15,0,100715,100715
274.2,9.08995e-15,0,101429,101429
274.251,1.00475e-14,0,102107,102107
274.301,1.15463e-14,0,102827,102827
274.35,1.3281e-14,0,103517,103517
274.4,1.51545e-14,0,104237,104237
274.451,1.70697e-14,0,104915,104915
274.5,1.89571e-14,0,105591,105591
274.55,2.08444e-14,0,106277,106277
274.6,2.27318e-14,0,106955,106955
274.651,2.4647e-14,0,107669,107669
274.7,2.65343e-14,0,108365,108365
274.75,2.84217e-14,0,108995,108995
274.801,3.1225e-14,0,109709,109709
274.85,3.43336e-14,0,110405,110405
274.9,3.75949e-14,0,111103,111103
274.95,4.10644e-14,0,111749,111749
275.001,4.42285e-14,0,112445,112445
275.05,4.71012e-14,0,113147,113147
275.1,4.97935e-14,0,113789,113789
275.15,5.08621e-14,0,114485,114485
275.201,4.84474e-14,0,115115,115115
275.25,3.97044e-14,0,115829,115829
275.3,2.06501e-14,0,116477,116477
275.351,-1.46411e-14,0,117155,117155
275.4,-7.20951e-14,0,117869,117869
275.45,-1.60372e-13,0,118517,118517
275.5,-2.89241e-13,0,119159,119159
275.551,-4.72802e-13,0,119837,119837
275.6,-7.17745e-13,0,120557,120557
275.65,-1.03821e-12,0,121187,121187
275.701,-1.45259e-12,0,121829,121829
275.751,-1.95899e-12,0,122459,122459
275.8,-2.5699e-12,0,123107,123107
275.85,-3.28533e-12,0,123665,123665
275.901,-4.10189e-12,0,124295,124295
275.95,-4.93561e-12,0,124889,124889
276,-6.36793e-12,0,125447,125447
276.05,-2.2639e-11,0,126029,126029
276.101,-1.08106e-10,0,126583,126583
276.15,-2.61426e-10,0,127097,127097
276.2,-4.09854e-10,0,127637,127637
276.251,-4.22165e-10,0,128207,128207
276.3,-2.44708e-10,0,128717,128717
276.35,2.89211e-11,0,129227,129227
276.4,2.3506e-10,0,129737,129737
276.451,2.6337e-10,0,130384,130384
276.5,1.33869e-10,0,131072,131072
276.55,-1.97454e-11,0,131072,131072
276.601,-5.96188e-11,0,130800,130800
276.651,4.51112e-11,0,130680,130680
276.7,1.9347e-10,0,131072,131072
276.75,2.53202e-10,0,131072,131072
276.801,1.78324e-10,0,131072,131072
276.85,5.03682e-11,0,131072,131072
276.9,-1.11513e-11,0,131072,131072
276.95,4.41111e-11,0,131072,131072
277.001,1.62758e-10,0,131072,131072
277.05,2.39452e-10,0,131072,131072
277.1,2.14651e-10,0,131072,131072
277.151,8.9974e-11,0,131072,131072
277.2,-8.12138e-11,0,131040,131040
277.25,-2.24453e-10,0,131072,131072
277.3,-2.5577e-10,0,131040,131040
277.351,-1.22797e-10,0,131072,131072
277.4,1.10568e-10,0,131072,131072
277.45,2.87107e-10,0,131072,131072
277.5,2.80312e-10,0,131072,131072
277.551,1.39462e-10,0,131072,131072
277.6,8.71494e-11,0,131072,131072
277.65,2.7747e-10,0,131072,131072
277.701,5.70479e-10,0,131072,131072
277.75,5.67928e-10,0,131072,131072
277.8,9.14461e-11,0,131072,131072
277.85,-3.73827e-10,0,131072,131072
277.901,3.07114e-10,0,131072,131072
277.95,3.18979e-09,0,131072,131072
278,8.49993e-09,0,131072,131072
278.051,1.55273e-08,0,131072,131072
278.101,2.26701e-08,0,131072,131072
278.15,2.88122e-08,0,131072,131072
278.2,3.34293e-08,0,131072,131072
278.251,3.69164e-08,0,131072,131072
278.3,4.03224e-08,0,131072,131072
278.35,4.52151e-08,0,131072,131072
278.4,5.28211e-08,0,131072,131072
278.451,6.37575e-08,0,131072,131072
278.5,7.74363e-08,0,131072,131072
278.55,9.37065e-08,0,131072,131072
278.601,1.13285e-07,0,131072,131072
278.65,1.36885e-07,0,131072,131072
278.7,1.66423e-07,0,131072,131072
278.75,2.03224e-07,0,131072,131072
278.801,2.48423e-07,0,131072,131072
278.85,3.00002e-07,0,131072,131072
278.9,3.57035e-07,0,131072,131072
278.951,4.18945e-07,0,131072,131072
279.001,4.83442e-07,0,131072,131072
279.05,5.52169e-07,0,131072,131072
279.1,6.26164e-07,0,131072,131072
279.151,7.06265e-07,0,131072,131072
279.2,7.87365e-07,0,131072,131072
279.25,8.66005e-07,0,131072,131072
279.3,9.37464e-07,0,131072,131072
279.351,9.99307e-07,0,131072,131072
279.4,1.04868e-06,0,131072,131072
279.45,1.08756e-06,0,131072,131072
279.501,1.11867e-06,0,131072,131072
279.55,1.14383e-06,0,131072,131072
279.6,1.16572e-06,0,131072,131072
279.65,1.18574e-06,0,131072,131072
279.701,1.20494e-06,0,131072,131072
279.75,1.22329e-06,0,131072,131072
279.8,1.24132e-06,0,131072,131072
279.85,1.25879e-06,0,131072,131072
279.901,1.27506e-06,0,131072,131072
279.95,1.28812e-06,0,131072,131072
280,1.29648e-06,0,131072,131072
280.051,1.29919e-06,0,131072,131072
280.1,1.297e-06,0,131072,131072
280.15,1.29272e-06,0,131072,131072
280.2,1.28978e-06,0,131072,131072
280.251,1.29045e-06,0,131072,131072
280.3,1.2945e-06,0,131072,131072
280.35,1.2993e-06,0,131072,131072
280.401,1.30101e-06,0,131072,131072
280.451,1.2959e-06,0,131072,131072
280.5,1.28165e-06,0,131072,131072
280.55,1.25763e-06,0,131072,131072
280.601,1.2245e-06,0,131072,131072
280.65,1.18595e-06,0,131072,131072
280.7,1.14494e-06,0,131072,131072
280.75,1.10426e-06,0,131072,131072
280.801,1.06416e-06,0,131072,131072
280.85,1.02428e-06,0,131072,131072
280.9,9.81063e-07,0,131072,131072
280.951,9.31049e-07,0,131072,131072
281,8.74576e-07,0,131072,131072
281.05,8.11538e-07,0,131072,131072
281.1,7.43403e-07,0,131072,131072
281.151,6.7081e-07,0,131072,131072
281.2,5.97624e-07,0,131072,131072
281.25,5.24493e-07,0,131072,131072
281.301,4.51813e-07,0,131072,131072
281.351,3.82833e-07,0,131072,131072
281.4,3.1758e-07,0,131072,131072
281.45,2.57328e-07,0,131072,131072
281.501,2.02507e-07,0,131072,131072
281.55,1.55146e-07,0,131072,131072
281.6,1.13785e-07,0,131072,131072
281.65,7.71728e-08,0,131072,131072
281.701,4.38242e-08,0,131072,131072
281.75,1.45746e-08,0,131072,131072
281.8,-1.03639e-08,0,131072,131072
281.851,-3.04218e-08,0,131072,131072
281.9,-4.50324e-08,0,131072,131072
281.95,-5.57769e-08,0,131072,131072
282,-6.46166e-08,0,131072,131072
282.051,-7.32293e-08,0,131072,131072
282.1,-8.16219e-08,0,131072,131072
282.15,-8.89677e-08,0,131072,131072
282.2,-9.40538e-08,0,131072,131072
282.251,-9.63079e-08,0,131072,131072
282.3,-9.59868e-08,0,131072,131072
282.35,-9.41312e-08,0,131072,131072
282.401,-9.19256e-08,0,131072,131072
282.45,-9.03762e-08,0,131072,131072
282.5,-8.96642e-08,0,131072,131072
282.55,-8.91941e-08,0,131072,131072
282.601,-8.79191e-08,0,131072,131072
282.65,-8.50842e-08,0,131072,131072
282.7,-8.05844e-08,0,131072,131072
282.751,-7.48614e-08,0,131072,131072
282.801,-6.88236e-08,0,131072,131072
282.85,-6.29315e-08,0,131072,131072
282.9,-5.74051e-08,0,131072,131072
282.951,-5.21857e-08,0,131072,131072
283,-4.73967e-08,0,131072,131072
283.05,-4.29828e-08,0,131072,131072
283.1,-3.9017e-08,0,131072,131072
283.151,-3.55095e-08,0,131072,131072
283.2,-3.25295e-08,0,131072,131072
283.25,-2.99074e-08,0,131072,131072
283.301,-2.75042e-08,0,131072,131072
283.35,-2.53605e-08,0,131072,131072
283.4,-2.34666e-08,0,131072,131072
283.45,-2.18495e-08,0,131072,131072
283.501,-2.04939e-08,0,131072,131072
283.55,-1.94208e-08,0,131072,131072
283.6,-1.85809e-08,0,131072,131072
283.651,-1.79371e-08,0,131072,131072
283.701,-1.74812e-08,0,131072,131072
283.75,-1.71796e-08,0,131072,131072
283.8,-1.70124e-08,0,131072,131072
283.851,-1.69599e-08,0,131072,131072
283.9,-1.70029e-08,0,131072,131072
283.95,-1.71187e-08,0,131072,131072
284,-1.72887e-08,0,131072,131072
284.051,-1.75023e-08,0,131072,131072
284.1,-1.77453e-08,0,131072,131072
284.15,-1.80164e-08,0,131072,131072
284.201,-1.83164e-08,0,131072,131072
284.25,-1.86303e-08,0,131072,131072
284.3,-1.89536e-08,0,131072,131072
284.35,-1.92769e-08,0,131072,131072
284.401,-1.95971e-08,0,131072,131072
284.45,-1.99005e-08,0,131072,131072
284.5,-2.01915e-08,0,131072,131072
284.551,-2.04758e-08,0,131072,131072
284.601,-2.07471e-08,0,131072,131072
284.65,-2.10093e-08,0,131072,131072
284.7,-2.12596e-08,0,131072,131072
284.751,-2.14966e-08,0,131072,131072
284.8,-2.1709e-08,0,131072,131072
284.85,-2.18975e-08,0,131072,131072
284.9,-2.20615e-08,0,131072,131072
284.951,-2.22039e-08,0,131072,131072
285,-2.23225e-08,0,131072,131072
285.05,-2.24215e-08,0,131072,131072
285.101,-2.25042e-08,0,131072,131072
285.15,-2.25705e-08,0,131072,131072
285.2,-2.26244e-08,0,131072,131072
285.25,-2.26686e-08,0,131072,131072
285.301,-2.27066e-08,0,131072,131072
285.35,-2.27398e-08,0,131072,131072
285.4,-2.27709e-08,0,131072,131072
285.45,-2.28015e-08,0,131072,131072
285.501,-2.28331e-08,0,131072,131072
285.55,-2.28659e-08,0,131072,131072
285.6,-2.29012e-08,0,131072,131072
285.651,-2.29409e-08,0,131072,131072
285.7,-2.29855e-08,0,131072,131072
285.75,-2.30376e-08,0,131072,131072
285.8,-2.30994e-08,0,131072,131072
285.851,-2.31744e-08,0,131072,131072
285.9,-2.32629e-08,0,131072,131072
285.95,-2.33683e-08,0,131072,131072
286.001,-2.34956e-08,0,131072,131072
286.051,-2.36446e-08,0,131072,131072
286.1,-2.38206e-08,0,131072,131072
286.15,-2.40273e-08,0,131072,131072
286.201,-2.42721e-08,0,131072,131072
286.25,-2.4551e-08,0,131072,131072
286.3,-2.48698e-08,0,131072,131072
286.35,-2.52307e-08,0,131072,131072
286.401,-2.56418e-08,0,131072,131072
286.45,-2.60927e-08,0,131072,131072
286.5,-2.65898e-08,0,131072,131072
286.551,-2.71408e-08,0,131072,131072
286.6,-2.77275e-08,0,131072,131072
286.65,-2.83533e-08,0,131072,131072
286.7,-2.90125e-08,0,131072,131072
286.751,-2.9709e-08,0,131072,131072
286.8,-3.04162e-08,0,131072,131072
286.85,-3.11382e-08,0,131072,131072
286.901,-3.18815e-08,0,131072,131072
286.951,-3.2621e-08,0,131072,131072
287,-3.33653e-08,0,131072,131072
287.05,-3.41127e-08,0,131072,131072
287.101,-3.48732e-08,0,131072,131072
287.15,-3.56237e-08,0,131072,131072
287.2,-3.63744e-08,0,131072,131072
287.25,-3.71237e-08,0,131072,131072
287.301,-3.78807e-08,0,131072,131072
287.35,-3.86211e-08,0,131072,131072
287.4,-3.93536e-08,0,131072,131072
287.451,-4.00865e-08,0,131072,131072
287.5,-4.07975e-08,0,131072,131072
287.55,-4.14972e-08,0,131072,131072
287.6,-4.21861e-08,0,131072,131072
287.651,-4.28745e-08,0,131072,131072
287.7,-4.35425e-08,0,131072,131072
287.75,-4.41983e-08,0,131072,131072
287.8,-4.48392e-08,0,131072,131072
287.851,-4.54701e-08,0,131072,131072
287.9,-4.60681e-08,0,131072,131072
287.95,-4.66385e-08,0,131072,131072
288.001,-4.71858e-08,0,131072,131072
288.05,-4.76923e-08,0,131072,131072
288.1,-4.81653e-08,0,131072,131072
288.15,-4.86044e-08,0,131072,131072
288.201,-4.90148e-08,0,131072,131072
288.25,-4.93834e-08,0,131072,131072
288.3,-4.97144e-08,0,131072,131072
288.351,-5.00091e-08,0,131072,131072
288.4,-5.02565e-08,0,131072,131072
288.45,-5.0459e-08,0,131072,131072
288.5,-5.06153e-08,0,131072,131072
288.551,-5.07263e-08,0,131072,131072
288.6,-5.07893e-08,0,131072,131072
288.65,-5.08078e-08,0,131072,131072
288.7,-5.07842e-08,0,131072,131072
288.751,-5.07203e-08,0,131072,131072
288.8,-5.06216e-08,0,131072,131072
288.85,-5.04915e-08,0,131072,131072
288.901,-5.03315e-08,0,131072,131072
288.95,-5.01505e-08,0,131072,131072
289,-4.99498e-08,0,131072,131072
289.05,-4.97328e-08,0,131072,131072
289.101,-4.94992e-08,0,131072,131072
289.15,-4.92588e-08,0,131072,131072
289.2,-4.90111e-08,0,131072,131072
289.251,-4.87552e-08,0,131072,131072
289.301,-4.85007e-08,0,131072,131072
289.35,-4.82456e-08,0,131072,131072
289.4,-4.7991e-08,0,131072,131072
289.451,-4.77339e-08,0,131072,131072
289.5,-4.74828e-08,0,131072,131072
289.55,-4.72347e-08,0,131072,131072
289.6,-4.69908e-08,0,131072,131072
289.651,-4.67487e-08,0,131072,131072
289.7,-4.65161e-08,0,131072,131072
289.75,-4.62898e-08,0,131072,131072
289.801,-4.60665e-08,0,131072,131072
289.85,-4.58527e-08,0,131072,131072
289.9,-4.56449e-08,0,131072,131072
289.95,-4.54433e-08,0,131072,131072
290.001,-4.52452e-08,0,131072,131072
290.05,-4.5057e-08,0,131072,131072
290.1,-4.48758e-08,0,131072,131072
290.151,-4.46993e-08,0,131072,131072
290.201,-4.45326e-08,0,131072,131072
290.25,-4.43725e-08,0,131072,131072
290.3,-4.42186e-08,0,131072,131072
290.351,-4.40683e-08,0,131072,131072
290.4,-4.39253e-08,0,131072,131072
290.45,-4.37868e-08,0,131072,131072
290.5,-4.36524e-08,0,131072,131072
290.551,-4.35194e-08,0,131072,131072
290.6,-4.33913e-08,0,131072,131072
290.65,-4.32655e-08,0,131072,131072
290.701,-4.31397e-08,0,131072,131072
290.75,-4.3017e-08,0,131072,131072
290.8,-4.2895e-08,0,131072,131072
290.85,-4.27733e-08,0,131072,131072
290.901,-4.26495e-08,0,131072,131072
290.95,-4.25268e-08,0,131072,131072
291,-4.24028e-08,0,131072,131072
291.05,-4.22772e-08,0,131072,131072
291.101,-4.21476e-08,0,131072,131072
291.15,-4.20173e-08,0,131072,131072
291.2,-4.18843e-08,0,131072,131072
291.251,-4.1746e-08,0,131072,131072
291.3,-4.16062e-08,0,131072,131072
291.35,-4.14626e-08,0,131072,131072
291.4,-4.1315e-08,0,131072,131072
291.451,-4.11609e-08,0,131072,131072
291.5,-4.10046e-08,0,131072,131072
291.55,-4.0844e-08,0,131072,131072
291.601,-4.06763e-08,0,131072,131072
291.651,-4.05063e-08,0,131072,131072
291.7,-4.03317e-08,0,131072,131072
291.75,-4.01522e-08,0,131072,131072
291.801,-3.9965e-08,0,131072,131072
291.85,-3.9775e-08,0,131072,131072
291.9,-3.9579e-08,0,131072,131072
291.95,-3.93762e-08,0,131072,131072
292.001,-3.91626e-08,0,131072,131072
292.05,-3.89437e-08,0,131072,131072
292.1,-3.8716e-08,0,131072,131072
292.151,-3.84758e-08,0,131072,131072
292.2,-3.82302e-08,0,131072,131072
292.25,-3.79759e-08,0,131072,131072
292.3,-3.77129e-08,0,131072,131072
292.351,-3.74363e-08,0,131072,131072
292.4,-3.71531e-08,0,131072,131072
292.45,-3.6858e-08,0,131072,131072
292.501,-3.65443e-08,0,131072,131072
292.551,-3.6219e-08,0,131072,131072
292.6,-3.58749e-08,0,131072,131072
292.65,-3.55092e-08,0,131072,131072
292.701,-3.51123e-08,0,131072,131072
292.75,-3.46917e-08,0,131072,131072
292.8,-3.4238e-08,0,131072,131072
292.85,-3.37468e-08,0,131072,131072
292.901,-3.32065e-08,0,131072,131072
292.95,-3.26293e-08,0,131072,131072
293,-3.20048e-08,0,131072,131072
293.051,-3.13204e-08,0,131072,131072
293.1,-3.0594e-08,0,131072,131072
293.15,-2.98154e-08,0,131072,131072
293.2,-2.89848e-08,0,131072,131072
293.251,-2.80911e-08,0,131072,131072
293.3,-2.71643e-08,0,131072,131072
293.35,-2.61975e-08,0,131072,131072
293.4,-2.51973e-08,0,131072,131072
293.451,-2.41554e-08,0,131072,131072
293.5,-2.31088e-08,0,131072,131072
293.55,-2.20481e-08,0,131072,131072
293.601,-2.09618e-08,0,131072,131072
293.65,-1.98849e-08,0,131072,131072
293.7,-1.88038e-08,0,131072,131072
293.75,-1.77202e-08,0,131072,131072
293.801,-1.66193e-08,0,131072,131072
293.85,-1.55344e-08,0,131072,131072
293.9,-1.44511e-08,0,131072,131072
293.951,-1.33555e-08,0,131072,131072
294,-1.22818e-08,0,131072,131072
294.05,-1.12165e-08,0,131072,131072
294.1,-1.01617e-08,0,131072,131072
294.151,-9.10378e-09,0,131072,131072
294.2,-8.07397e-09,0,131072,131072
294.25,-7.05696e-09,0,131072,131072
294.3,-6.0527e-09,0,131072,131072
294.351,-5.0472e-09,0,131072,131072
294.4,-4.07115e-09,0,131072,131072
294.45,-3.11275e-09,0,131072,131072
294.501,-2.16243e-09,0,131072,131072
294.55,-1.25243e-09,0,131072,131072
294.6,-3.73417e-10,0,131072,131072
294.65,4.70708e-10,0,131072,131072
294.701,1.28867e-09,0,131072,131072
294.75,2.05496e-09,0,131072,131072
294.8,2.78057e-09,0,131072,131072
294.851,3.47421e-09,0,131072,131072
294.901,4.11432e-09,0,131072,131072
294.95,4.70923e-09,0,131072,131072
295,5.25651e-09,0,131072,131072
295.051,5.76053e-09,0,131072,131072
295.1,6.2044e-09,0,131072,131072
295.15,6.59409e-09,0,131072,131072
295.2,6.92854e-09,0,131072,131072
295.251,7.21125e-09,0,131072,131072
295.3,7.43483e-09,0,131072,131072
295.35,7.60581e-09,0,131072,131072
295.401,7.72891e-09,0,131072,131072
295.45,7.80506e-09,0,131072,131072
295.5,7.84155e-09,0,131072,131072
295.55,7.84378e-09,0,131072,131072
295.601,7.81627e-09,0,131072,131072
295.65,7.76443e-09,0,131072,131072
295.7,7.69208e-09,0,131072,131072
295.751,7.60153e-09,0,131072,131072
295.801,7.4991e-09,0,131072,131072
295.85,7.38724e-09,0,131072,131072
295.9,7.26932e-09,0,131072,131072
295.951,7.14627e-09,0,131072,131072
296,7.0235e-09,0,131072,131072
296.05,6.90021e-09,0,131072,131072
296.1,6.77689e-09,0,131072,131072
296.151,6.65223e-09,0,131072,131072
296.2,6.53069e-09,0,131072,131072
296.25,6.41152e-09,0,131072,131072
296.301,6.29394e-09,0,131072,131072
296.35,6.18163e-09,0,131072,131072
296.4,6.07227e-09,0,131072,131072
296.45,5.96481e-09,0,131072,131072
296.501,5.8568e-09,0,131072,131072
296.55,5.75138e-09,0,131072,131072
296.6,5.64823e-09,0,131072,131072
296.65,5.54961e-09,0,131072,131072
296.701,5.45694e-09,0,131072,131072
296.75,5.37534e-09,0,131072,131072
296.8,5.30491e-09,0,131072,131072
296.851,5.24532e-09,0,131072,131072
296.9,5.19779e-09,0,131072,131072
296.95,5.1602e-09,0,131072,131072
297,5.13104e-09,0,131072,131072
297.051,5.10839e-09,0,131072,131072
297.1,5.09131e-09,0,131072,131072
297.15,5.07811e-09,0,131072,131072
297.201,5.06782e-09,0,131072,131072
297.251,5.06054e-09,0,131072,131072
297.3,5.05648e-09,0,131072,131072
297.35,5.05634e-09,0,131072,131072
297.401,5.06062e-09,0,131072,131072
297.45,5.06882e-09,0,131072,131072
297.5,5.07958e-09,0,131072,131072
297.55,5.09078e-09,0,131072,131072
297.601,5.10027e-09,0,131072,131072
297.65,5.10608e-09,0,131072,131072
297.7,5.10783e-09,0,131072,131072
297.751,5.10618e-09,0,131072,131072
297.8,5.1028e-09,0,131072,131072
297.85,5.09961e-09,0,131072,131072
297.9,5.09813e-09,0,131072,131072
297.951,5.09898e-09,0,131072,131072
298,5.10162e-09,0,131072,131072
298.05,5.10467e-09,0,131072,131072
298.101,5.10652e-09,0,131072,131072
298.151,5.10588e-09,0,131072,131072
298.2,5.10242e-09,0,131072,131072
298.25,5.09673e-09,0,131072,131072
298.301,5.08993e-09,0,131072,131072
298.35,5.08361e-09,0,131072,131072
298.4,5.07887e-09,0,131072,131072
298.45,5.07645e-09,0,131072,131072
298.501,5.0767e-09,0,131072,131072
298.55,5.0796e-09,0,131072,131072
298.6,5.08488e-09,0,131072,131072
298.651,5.09227e-09,0,131072,131072
298.7,5.10099e-09,0,131072,131072
298.75,5.11044e-09,0,131072,131072
298.8,5.11983e-09,0,131072,131072
298.851,5.12859e-09,0,131072,131072
298.9,5.13601e-09,0,131072,131072
298.95,5.1421e-09,0,131072,131072
299,5.147e-09,0,131072,131072
299.051,5.15089e-09,0,131072,131072
299.1,5.15359e-09,0,131072,131072
299.15,5.15488e-09,0,131072,131072
299.201,5.15436e-09,0,131072,131072
299.25,5.15189e-09,0,131072,131072
299.3,5.14768e-09,0,131072,131072
299.35,5.14227e-09,0,131072,131072
299.401,5.13615e-09,0,131072,131072
299.45,5.12988e-09,0,131072,131072
299.5,5.12332e-09,0,131072,131072
299.551,5.11602e-09,0,131072,131072
299.601,5.1078e-09,0,131072,131072
299.65,5.09834e-09,0,131072,131072
299.7,5.08775e-09,0,131072,131072
299.751,5.07625e-09,0,131072,131072
299.8,5.06462e-09,0,131072,131072
299.85,5.05301e-09,0,131072,131072
299.9,5.04141e-09,0,131072,131072
299.951,5.02939e-09,0,131072,131072
300,5.01691e-09,0,131072,131072
300.05,5.00346e-09,0,131072,131072
300.101,4.98865e-09,0,131072,131072
300.15,4.97289e-09,0,131072,131072
300.2,4.95606e-09,0,131072,131072
300.25,4.93828e-09,0,131072,131072
300.301,4.91932e-09,0,131072,131072
300.35,4.89977e-09,0,131072,131072
300.4,4.87938e-09,0,131072,131072
300.451,4.85783e-09,0,131072,131072
300.501,4.83572e-09,0,131072,131072
300.55,4.81272e-09,0,131072,131072
300.6,4.78877e-09,0,131072,131072
300.651,4.76344e-09,0,131072,131072
300.7,4.73741e-09,0,131072,131072
300.75,4.7103e-09,0,131072,131072
300.8,4.68209e-09,0,131072,131072
300.851,4.65233e-09,0,131072,131072
300.9,4.62189e-09,0,131072,131072
300.95,4.59034e-09,0,131072,131072
301.001,4.5572e-09,0,131072,131072
301.05,4.52344e-09,0,131072,131072
301.1,4.48858e-09,0,131072,131072
301.15,4.45262e-09,0,131072,131072
301.201,4.41504e-09,0,131072,131072
301.25,4.37691e-09,0,131072,131072
301.3,4.33771e-09,0,131072,131072
301.35,4.29746e-09,0,131072,131072
301.401,4.25555e-09,0,131072,131072
301.45,4.21322e-09,0,131072,131072
301.5,4.1699e-09,0,131072,131072
301.551,4.12495e-09,0,131072,131072
301.6,4.07971e-09,0,131072,131072
301.65,4.03357e-09,0,131072,131072
301.7,3.98654e-09,0,131072,131072
301.751,3.93796e-09,0,131072,131072
301.8,3.88925e-09,0,131072,131072
301.85,3.83976e-09,0,131072,131072
301.901,3.78879e-09,0,131072,131072
301.951,3.73787e-09,0,131072,131072
302,3.68633e-09,0,131072,131072
302.05,3.63421e-09,0,131072,131072
302.101,3.5808e-09,0,131072,131072
302.15,3.52771e-09,0,131072,131072
302.2,3.47421e-09,0,131072,131072
302.25,3.42037e-09,0,131072,131072
302.301,3.36545e-09,0,131072,131072
302.35,3.31111e-09,0,131072,131072
302.4,3.2566e-09,0,131072,131072
302.451,3.20121e-09,0,131072,131072
302.5,3.14659e-09,0,131072,131072
302.55,3.09202e-09,0,131072,131072
302.6,3.03756e-09,0,131072,131072
302.651,2.98249e-09,0,131072,131072
302.7,2.92845e-09,0,131072,131072
302.75,2.87471e-09,0,131072,131072
302.801,2.82054e-09,0,131072,131072
302.851,2.76754e-09,0,131072,131072
302.9,2.71497e-09,0,131072,131072
302.95,2.66285e-09,0,131072,131072
303.001,2.61045e-09,0,131072,131072
303.05,2.55932e-09,0,131072,131072
303.1,2.50869e-09,0,131072,131072
303.15,2.45857e-09,0,131072,131072
303.201,2.40825e-09,0,131072,131072
303.25,2.35918e-09,0,131072,131072
303.3,2.31062e-09,0,131072,131072
303.351,2.26186e-09,0,131072,131072
303.4,2.2143e-09,0,131072,131072
303.45,2.16722e-09,0,131072,131072
303.5,2.12062e-09,0,131072,131072
303.551,2.0738e-09,0,131072,131072
303.6,2.02811e-09,0,131072,131072
303.65,1.98285e-09,0,131072,131072
303.7,1.93802e-09,0,131072,131072
303.751,1.89294e-09,0,131072,131072
303.8,1.84892e-09,0,131072,131072
303.85,1.80528e-09,0,131072,131072
303.901,1.76139e-09,0,131072,131072
303.95,1.7185e-09,0,131072,131072
304,1.67595e-09,0,131072,131072
304.05,1.63375e-09,0,131072,131072
304.101,1.59124e-09,0,131072,131072
304.15,1.54966e-09,0,131072,131072
304.2,1.50836e-09,0,131072,131072
304.251,1.46672e-09,0,131072,131072
304.301,1.42593e-09,0,131072,131072
304.35,1.38538e-09,0,131072,131072
304.4,1.34506e-09,0,131072,131072
304.451,1.30435e-09,0,131072,131072
304.5,1.26445e-09,0,131072,131072
304.55,1.22474e-09,0,131072,131072
304.6,1.18523e-09,0,131072,131072
304.651,1.14533e-09,0,131072,131072
304.7,1.1062e-09,0,131072,131072
304.75,1.06725e-09,0,131072,131072
304.801,1.02792e-09,0,131072,131072
304.85,9.89334e-10,0,131072,131072
304.9,9.50934e-10,0,131072,131072
304.95,9.12721e-10,0,131072,131072
