250,0,0,512,512
250.012,0,0,512,512
250.059,0,0,512,512
250.105,0,0,512,512
250.152,0,0,512,512
250.211,0,0,512,512
250.258,0,0,512,512
250.305,0,0,512,512
250.352,0,0,512,512
250.41,0,0,512,512
250.457,0,0,512,512
250.504,0,0,512,512
250.551,0,0,512,512
250.609,0,0,512,512
250.656,0,0,512,512
250.703,0,0,512,512
250.762,0,0,512,512
250.808,0,0,512,512
250.855,0,0,512,512
250.902,0,0,512,512
250.961,0,0,512,512
251.008,0,0,512,512
251.055,0,0,512,512
251.101,0,0,512,512
251.16,0,0,512,512
251.207,0,0,512,512
251.254,0,0,512,512
251.301,0,0,512,512
251.359,0,0,512,512
251.406,0,0,512,512
251.453,0,0,512,512
251.511,0,0,512,512
251.558,0,0,512,512
251.605,0,0,512,512
251.652,0,0,512,512
251.711,0,0,512,512
251.758,0,0,512,512
251.804,0,0,512,512
251.851,0,0,512,512
251.91,0,0,512,512
251.957,0,0,512,512
252.004,0,0,512,512
252.05,0,0,512,512
252.109,0,0,512,512
252.156,0,0,512,512
252.203,0,0,512,512
252.261,0,0,512,512
252.308,0,0,512,512
252.355,0,0,512,512
252.402,0,0,512,512
252.461,0,0,512,512
252.507,0,0,512,512
252.554,0,0,512,512
252.601,0,0,512,512
252.66,0,0,512,512
252.707,0,0,512,512
252.754,0,0,512,512
252.8,0,0,512,512
252.859,0,0,512,512
252.906,0,0,512,512
252.953,0,0,512,512
253.011,0,0,512,512
253.058,0,0,512,512
253.105,0,0,512,512
253.152,0,0,512,512
253.21,0,0,512,512
253.257,0,0,512,512
253.304,0,0,512,512
253.351,0,0,512,512
253.41,0,0,512,512
253.457,0,0,512,512
253.503,0,0,512,512
253.55,0,0,512,512
253.609,0,0,512,512
253.656,0,0,512,512
253.703,0,0,512,512
253.761,0,0,512,512
253.808,0,0,512,512
253.855,0,0,512,512
253.902,0,0,512,512
253.96,0,0,512,512
254.007,0,0,512,512
254.054,0,0,512,512
254.101,0,0,512,512
254.16,0,0,512,512
254.206,0,0,512,512
254.253,0,0,512,512
254.3,0,0,512,512
254.359,0,0,512,512
254.406,0,0,512,512
254.452,0,0,512,512
254.511,0,0,512,512
254.558,0,0,512,512
254.605,0,0,512,512
254.652,0,0,512,512
254.71,0,0,512,512
254.757,0,0,512,512
254.804,0,0,512,512
254.851,0,0,512,512
254.909,0,0,512,512
254.956,0,0,512,512
255.003,0,0,512,512
255.05,0,0,512,512
255.109,0,0,512,512
255.155,0,0,512,512
255.202,0,0,512,512
255.261,0,0,512,512
255.308,0,0,512,512
255.355,0,0,512,512
255.402,0,0,512,512
255.46,0,0,512,512
255.507,0,0,512,512
255.554,0,0,512,512
255.601,0,0,512,512
255.659,0,0,512,512
255.706,0,0,512,512
255.753,0,0,512,512
255.812,0,0,512,512
255.859,0,0,512,512
255.905,0,0,512,512
255.952,0,0,512,512
256.011,0,0,512,512
256.058,0,0,512,512
256.105,0,0,512,512
256.151,0,0,512,512
256.21,0,0,512,512
256.257,0,0,512,512
256.304,0,0,512,512
256.351,0,0,512,512
256.409,0,0,512,512
256.456,0,0,512,512
256.503,0,0,512,512
256.562,0,0,512,512
256.608,0,0,512,512
256.655,0,0,512,512
256.702,0,0,512,512
256.761,0,0,512,512
256.808,0,0,512,512
256.854,0,0,512,512
256.901,0,0,512,512
256.96,0,0,512,512
257.007,0,0,512,512
257.054,0,0,512,512
257.101,0,0,512,512
257.159,0,0,512,512
257.206,0,0,512,512
257.253,0,0,512,512
257.311,0,0,512,512
257.358,0,0,512,512
257.405,0,0,512,512
257.452,0,0,512,512
257.511,0,0,512,512
257.557,0,0,512,512
257.604,0,0,512,512
257.651,0,0,512,512
257.71,0,0,512,512
257.757,0,0,512,512
257.804,0,0,512,512
257.85,0,0,512,512
257.909,0,0,512,512
257.956,0,0,512,512
258.003,0,0,512,512
258.061,0,0,512,512
258.108,0,0,512,512
258.155,0,0,512,512
258.202,0,0,512,512
258.261,0,0,512,512
258.307,0,0,512,512
258.354,0,0,512,512
258.401,0,0,512,512
258.46,0,0,512,512
258.507,0,0,512,512
258.553,0,0,512,512
258.6,0,0,512,512
258.659,0,0,512,512
258.706,0,0,512,512
258.753,0,0,512,512
258.811,0,0,512,512
258.858,0,0,512,512
258.905,0,0,512,512
258.952,0,0,512,512
259.01,0,0,512,512
259.057,0,0,512,512
259.104,0,0,512,512
259.151,0,0,512,512
259.21,0,0,512,512
259.256,0,0,512,512
259.303,0,0,512,512
259.35,0,0,512,512
259.409,0,0,512,512
259.456,0,0,512,512
259.503,0,0,512,512
259.561,0,0,512,512
259.608,0,0,512,512
259.655,0,0,512,512
259.702,0,0,512,512
259.76,0,0,512,512
259.807,0,0,512,512
259.854,0,0,512,512
259.901,0,0,512,512
259.959,0,0,512,512
260.006,0,0,512,512
260.053,0,0,512,512
260.1,0,0,512,512
260.159,0,0,512,512
260.206,0,0,512,512
260.252,-5.55112e-17,0,512,512
260.311,-5.55112e-17,0,512,512
260.358,-5.55112e-17,0,512,512
260.405,-5.55112e-17,0,512,512
260.452,-5.55112e-17,0,512,512
260.51,-2.77556e-17,0,512,512
260.557,-2.77556e-17,0,512,512
260.604,-2.77556e-17,0,512,512
260.651,-2.77556e-17,0,512,512
260.709,-2.77556e-17,0,512,512
260.756,-2.77556e-17,0,512,512
260.803,-2.77556e-17,0,512,512
260.862,-2.77556e-17,0,512,512
260.909,-2.77556e-17,0,512,512
260.955,-2.77556e-17,0,512,512
261.002,-2.77556e-17,0,512,512
261.061,-2.77556e-17,0,512,512
261.108,-2.77556e-17,0,512,512
261.155,-2.77556e-17,0,512,512
261.201,-2.77556e-17,0,512,512
261.26,0,0,512,512
261.307,0,0,512,512
261.354,0,0,512,512
261.401,0,0,512,512
261.459,0,0,512,512
261.506,0,0,512,512
261.553,0,0,512,512
261.612,2.77556e-17,0,512,512
261.658,2.77556e-17,0,512,512
261.705,2.77556e-17,0,512,512
261.752,2.77556e-17,0,512,512
261.811,2.77556e-17,0,512,512
261.858,2.77556e-17,0,512,512
261.905,2.77556e-17,0,512,512
261.951,2.77556e-17,0,512,512
262.01,5.55112e-17,0,512,512
262.057,5.55112e-17,0,512,512
262.104,5.55112e-17,0,512,512
262.151,5.55112e-17,0,512,512
262.209,5.55112e-17,0,512,512
262.256,2.77556e-17,0,512,512
262.303,2.77556e-17,0,512,512
262.361,2.77556e-17,0,512,512
262.408,2.77556e-17,0,512,512
262.455,5.55112e-17,0,512,512
262.502,5.55112e-17,0,512,512
262.561,5.55112e-17,0,512,512
262.608,5.55112e-17,0,512,512
262.654,5.55112e-17,0,512,512
262.701,5.55112e-17,0,512,512
262.76,5.55112e-17,0,512,512
262.807,5.55112e-17,0,512,512
262.854,5.55112e-17,0,512,512
262.9,5.55112e-17,0,512,512
262.959,5.55112e-17,0,512,512
263.006,5.55112e-17,0,512,512
263.053,5.55112e-17,0,512,512
263.111,5.55112e-17,0,512,512
263.158,2.77556e-17,0,512,512
263.205,2.77556e-17,0,512,512
263.252,5.55112e-17,0,512,512
263.311,2.77556e-17,0,512,512
263.357,0,0,512,512
263.404,0,0,512,512
263.451,0,0,512,512
263.51,0,0,512,512
263.557,0,0,512,512
263.603,0,0,512,512
263.65,0,0,512,512
263.709,0,0,512,512
263.756,0,0,512,512
263.803,0,0,512,512
263.861,0,0,512,512
263.908,0,0,512,512
263.955,0,0,512,512
264.002,0,0,512,512
264.06,0,0,512,512
264.107,0,0,512,512
264.154,0,0,512,512
264.201,0,0,512,512
264.26,0,0,512,512
264.306,0,0,512,512
264.353,0,0,512,512
264.4,2.77556e-17,0,512,512
264.459,2.77556e-17,0,512,512
264.506,2.77556e-17,0,512,512
264.553,0,0,512,512
264.611,0,0,512,512
264.658,0,0,512,512
264.705,0,0,512,512
264.752,0,0,512,512
264.81,0,0,512,512
264.857,0,0,512,512
264.904,0,0,512,512
264.951,0,0,512,512
265.01,0,0,512,512
265.056,0,0,512,512
265.103,0,0,512,512
265.15,0,0,512,512
265.209,0,0,512,512
265.256,0,0,512,512
265.302,0,0,512,512
265.361,0,0,512,512
265.408,0,0,512,512
265.455,0,0,512,512
265.502,0,0,512,512
265.56,0,0,512,512
265.607,0,0,512,512
265.654,0,0,512,512
265.701,0,0,512,512
265.759,0,0,512,512
265.806,0,0,512,512
265.853,0,0,512,512
265.9,0,0,512,512
265.959,0,0,512,512
266.005,0,0,512,512
266.052,0,0,512,512
266.111,0,0,512,512
266.158,0,0,512,512
266.205,0,0,512,512
266.252,0,0,512,512
266.31,0,0,512,512
266.357,0,0,512,512
266.404,0,0,512,512
266.451,0,0,512,512
266.509,0,0,512,512
266.556,0,0,512,512
266.603,0,0,512,512
266.662,0,0,512,512
266.708,0,0,512,512
266.755,0,0,512,512
266.802,0,0,512,512
266.861,0,0,512,512
266.908,0,0,512,512
266.955,0,0,512,512
267.001,0,0,512,512
267.06,0,0,512,512
267.107,0,0,512,512
267.154,0,0,512,512
267.201,0,0,512,512
267.259,0,0,512,512
267.306,0,0,512,512
267.353,0,0,512,512
267.412,0,0,512,512
267.458,0,0,512,512
267.505,0,0,512,512
267.552,0,0,512,512
267.611,0,0,512,512
267.658,0,0,512,512
267.704,0,0,512,512
267.751,0,0,512,512
267.81,0,0,512,512
267.857,0,0,512,512
267.904,0,0,512,512
267.95,0,0,512,512
268.009,0,0,512,512
268.056,0,0,512,512
268.103,0,0,512,512
268.161,-2.77556e-17,0,512,512
268.208,-2.77556e-17,0,512,512
268.255,-2.77556e-17,0,512,512
268.302,-2.77556e-17,0,512,512
268.361,-2.77556e-17,0,512,512
268.407,-2.77556e-17,0,512,512
268.454,-2.77556e-17,0,512,512
268.501,-2.77556e-17,0,512,512
268.56,-2.77556e-17,0,512,512
268.607,-2.77556e-17,0,512,512
268.654,-2.77556e-17,0,512,512
268.7,-2.77556e-17,0,512,512
268.759,-2.77556e-17,0,512,512
268.806,-2.77556e-17,0,512,512
268.853,-2.77556e-17,0,512,512
268.911,-2.77556e-17,0,512,512
268.958,-2.77556e-17,0,512,512
269.005,-2.77556e-17,0,512,512
269.052,0,0,512,512
269.11,0,0,512,512
269.157,0,0,512,512
269.204,0,0,512,512
269.251,0,0,512,512
269.31,0,0,512,512
269.357,0,0,512,512
269.403,0,0,512,512
269.45,0,0,512,512
269.509,0,0,512,512
269.556,0,0,512,512
269.603,0,0,512,512
269.661,0,0,512,512
269.708,0,0,512,512
269.755,0,0,512,512
269.802,0,0,512,512
269.86,0,0,512,512
269.907,0,0,512,512
269.954,0,0,512,512
270.001,0,0,729,729
270.051,0,0,939,939
270.1,0,0,1131,1131
270.15,0,0,1359,1359
270.2,0,0,1569,1569
270.251,0,0,1797,1797
270.301,0,0,1989,1989
270.351,0,0,2199,2199
270.401,0,0,2427,2427
270.45,0,0,2643,2643
270.5,0,0,2871,2871
270.55,0,0,3081,3081
270.601,0,0,3309,3309
270.651,0,0,3501,3501
270.701,0,0,3711,3711
270.751,0,0,3939,3939
270.801,0,0,4155,4155
270.85,0,0,4383,4383
270.9,0,0,4593,4593
270.951,0,0,4821,4821
271.001,0,0,5037,5037
271.051,0,0,5265,5265
271.101,0,0,5475,5475
271.151,0,0,5695,5695
271.2,0,0,5895,5895
271.25,0,0,6105,6105
271.301,0,0,6339,6339
271.351,0,0,6549,6549
271.401,0,0,6777,6777
271.451,0,0,6987,6987
271.501,0,0,7215,7215
271.55,0,0,7431,7431
271.6,0,0,7659,7659
271.651,0,0,7869,7869
271.701,0,0,8097,8097
271.751,0,0,8313,8313
271.801,-5.55112e-17,0,8541,8541
271.851,-7.77156e-16,0,8751,8751
271.9,-1.69309e-15,0,8979,8979
271.95,-2.63678e-15,0,9195,9195
272,-4.96825e-15,0,9381,9381
272.051,-1.17406e-14,0,9609,9609
272.101,-2.8838e-14,0,9825,9825
272.151,-6.95832e-14,0,10053,10053
272.201,-1.59484e-13,0,10263,10263
272.25,-3.44752e-13,0,10455,10455
272.3,-7.01661e-13,0,10683,10683
272.35,-1.3472e-12,0,10893,10893
272.401,-2.48546e-12,0,11121,11121
272.451,-4.26259e-12,0,11313,11313
272.501,-6.93456e-12,0,11523,11523
272.551,-1.07205e-11,0,11751,11751
272.601,-1.57747e-11,0,11943,11943
272.65,-2.21249e-11,0,12153,12153
272.7,-2.96157e-11,0,12345,12345
272.751,-3.81218e-11,0,12573,12573
272.801,-4.65483e-11,0,12765,12765
272.851,-5.43635e-11,0,12975,12975
272.901,-6.07206e-11,0,13195,13195
272.951,-6.48071e-11,0,13389,13389
273,-6.59643e-11,0,13581,13581
273.05,-6.37847e-11,0,13791,13791
273.101,-5.79542e-11,0,13983,13983
273.151,-4.9032e-11,0,14211,14211
273.201,-3.73988e-11,0,14397,14397
273.251,-2.37432e-11,0,14589,14589
273.301,-8.84845e-12,0,14795,14795
273.35,6.50502e-12,0,14991,14991
273.4,2.16189e-11,0,15177,15177
273.45,3.5932e-11,0,15267,15267
273.501,4.94108e-11,0,15252,15252
273.551,6.10471e-11,0,15220,15220
273.601,7.11599e-11,0,15184,15184
273.651,7.97802e-11,0,15154,15154
273.7,8.70251e-11,0,15128,15128
273.75,9.30737e-11,0,15124,15124
273.8,9.81564e-11,0,15264,15264
273.851,1.02689e-10,0,15450,15450
273.901,1.06816e-10,0,15642,15642
273.951,1.11249e-10,0,15828,15828
274.001,1.16869e-10,0,16020,16020
274.051,1.25039e-10,0,16206,16206
274.1,1.37844e-10,0,16398,16398
274.15,1.58376e-10,0,16584,16584
274.201,1.92234e-10,0,16776,16776
274.251,2.43632e-10,0,16962,16962
274.301,3.21107e-10,0,17154,17154
274.351,4.34178e-10,0,17316,17316
274.401,5.9384e-10,0,17508,17508
274.45,8.1199e-10,0,17694,17694
274.5,1.10053e-09,0,17886,17886
274.551,1.48242e-09,0,18072,18072
274.601,1.94426e-09,0,18264,18264
274.651,2.50005e-09,0,18544,18544
274.701,3.14909e-09,0,18934,18934
274.751,3.88488e-09,0,19346,19346
274.8,4.69472e-09,0,19714,19714
274.85,5.55986e-09,0,20098,20098
274.901,6.48457e-09,0,20494,20494
274.951,7.39455e-09,0,20871,20871
275.001,1.24019e-08,0,21165,21165
275.051,2.28731e-08,0,21327,21327
275.101,2.87791e-08,0,21519,21519
275.15,3.24299e-08,0,21669,21669
275.2,3.59523e-08,0,21855,21855
275.25,4.07523e-08,0,22035,22035
275.301,4.84024e-08,0,22209,22209
275.351,5.85915e-08,0,22401,22401
275.401,7.10208e-08,0,22551,22551
275.451,8.58699e-08,0,22737,22737
275.5,1.03712e-07,0,22905,22905
275.55,1.25588e-07,0,23091,23091
275.6,1.52932e-07,0,23241,23241
275.651,1.87702e-07,0,23433,23433
275.701,2.28061e-07,0,23595,23595
275.751,2.74221e-07,0,23787,23787
275.801,3.24481e-07,0,23937,23937
275.851,3.77186e-07,0,24099,24099
275.9,4.31634e-07,0,24291,24291
275.95,4.88129e-07,0,24441,24441
276.001,5.49269e-07,0,24627,24627
276.051,6.11312e-07,0,24795,24795
276.101,6.73682e-07,0,24973,24973
276.151,7.32932e-07,0,25131,25131
276.201,7.85521e-07,0,25299,25299
276.25,8.28756e-07,0,25485,25485
276.3,8.61558e-07,0,25635,25635
276.351,8.8483e-07,0,25803,25803
276.401,8.98744e-07,0,25989,25989
276.451,9.06237e-07,0,26139,26139
276.501,9.09093e-07,0,26307,26307
276.551,9.08213e-07,0,26493,26493
276.6,9.03773e-07,0,26643,26643
276.65,8.95237e-07,0,26811,26811
276.7,8.81627e-07,0,26997,26997
276.751,8.61237e-07,0,27147,27147
276.801,8.34202e-07,0,27315,27315
276.851,7.99356e-07,0,27501,27501
276.901,7.56842e-07,0,27651,27651
276.95,7.07797e-07,0,27819,27819
277,6.54381e-07,0,27969,27969
277.05,5.9935e-07,0,28155,28155
277.101,5.43606e-07,0,28323,28323
277.151,4.92079e-07,0,28473,28473
277.201,4.44084e-07,0,28635,28635
277.251,3.99799e-07,0,28827,28827
277.301,3.58918e-07,0,28977,28977
277.35,3.20933e-07,0,29139,29139
277.4,2.85247e-07,0,29289,29289
277.451,2.50501e-07,0,29481,29481
277.501,2.18813e-07,0,29643,29643
277.551,1.89875e-07,0,29793,29793
277.601,1.64794e-07,0,29961,29961
277.651,1.44358e-07,0,30111,30111
277.7,1.28153e-07,0,30297,30297
277.75,1.14545e-07,0,30465,30465
277.801,1.01231e-07,0,30615,30615
277.851,8.79183e-08,0,30777,30777
277.901,7.46295e-08,0,30927,30927
277.951,6.26279e-08,0,31087,31087
278.001,5.29694e-08,0,31221,31221
278.05,4.59185e-08,0,31371,31371
278.1,4.09267e-08,0,31497,31497
278.15,3.6885e-08,0,31659,31659
278.201,3.24738e-08,0,31809,31809
278.251,2.72266e-08,0,31977,31977
278.301,2.11839e-08,0,32163,32163
278.351,1.53511e-08,0,32768,32768
278.4,1.09273e-08,0,32768,32768
278.45,8.4239e-09,0,32768,32768
278.5,7.4868e-09,0,32768,32768
278.551,7.41557e-09,0,32768,32768
278.601,7.6348e-09,0,32768,32768
278.651,7.86941e-09,0,32768,32768
278.701,8.05885e-09,0,32768,32768
278.75,8.18968e-09,0,32768,32768
278.8,8.25187e-09,0,32768,32768
278.85,8.23308e-09,0,32768,32768
278.901,8.10169e-09,0,32768,32768
278.951,7.87887e-09,0,32768,32768
279.001,7.63064e-09,0,32768,32768
279.051,7.41525e-09,0,32768,32768
279.101,7.26321e-09,0,32768,32768
279.15,7.18394e-09,0,32768,32768
279.2,7.15513e-09,0,32768,32768
279.251,7.15254e-09,0,32768,32768
279.301,7.17041e-09,0,32768,32768
279.351,7.19589e-09,0,32768,32768
279.401,7.21783e-09,0,32768,32768
279.451,7.24095e-09,0,32768,32768
279.5,7.26391e-09,0,32768,32768
279.55,7.28288e-09,0,32768,32768
279.601,7.30509e-09,0,32768,32768
279.651,7.32824e-09,0,32768,32768
279.701,7.34836e-09,0,32768,32768
279.751,7.37079e-09,0,32768,32768
279.801,7.39512e-09,0,32768,32768
279.85,7.41615e-09,0,32768,32768
279.9,7.43837e-09,0,32768,32768
279.95,7.46466e-09,0,32768,32768
280.001,7.4937e-09,0,32768,32768
280.051,7.52762e-09,0,32768,32768
280.101,7.56772e-09,0,32768,32768
280.151,7.60996e-09,0,32768,32768
280.2,7.65865e-09,0,32768,32768
280.25,7.7198e-09,0,32768,32768
280.3,7.79623e-09,0,32768,32768
280.351,7.89902e-09,0,32768,32768
280.401,8.02716e-09,0,32768,32768
280.451,8.17953e-09,0,32768,32768
280.501,8.35727e-09,0,32768,32768
280.551,8.5662e-09,0,32768,32768
280.6,8.80927e-09,0,32768,32768
280.65,9.09419e-09,0,32768,32768
280.701,9.44586e-09,0,32768,32768
280.751,9.8551e-09,0,32768,32768
280.801,1.03436e-08,0,32768,32768
280.851,1.09325e-08,0,32768,32768
280.901,1.16428e-08,0,32768,32768
280.95,1.24934e-08,0,32768,32768
281,1.35085e-08,0,32768,32768
281.051,1.47512e-08,0,32768,32768
281.101,1.61674e-08,0,32768,32768
281.151,1.78052e-08,0,32768,32768
281.201,1.96827e-08,0,32768,32768
281.251,2.18137e-08,0,32768,32768
281.3,2.42054e-08,0,32768,32768
281.35,2.68653e-08,0,32768,32768
281.4,2.97971e-08,0,32716,32716
281.451,3.30902e-08,0,32768,32768
281.501,3.65376e-08,0,32768,32768
281.551,4.02075e-08,0,32768,32768
281.601,4.40736e-08,0,32768,32768
281.65,4.81056e-08,0,32768,32768
281.7,5.22749e-08,0,32768,32768
281.75,5.65574e-08,0,32768,32768
281.801,6.10618e-08,0,32768,32768
281.851,6.551e-08,0,32768,32768
281.901,7.00084e-08,0,32768,32768
281.951,7.45337e-08,0,32768,32768
282.001,7.90599e-08,0,32768,32768
282.05,8.35638e-08,0,32768,32768
282.1,8.80459e-08,0,32768,32768
282.151,9.27151e-08,0,32768,32768
282.201,9.75175e-08,0,32768,32768
282.251,1.0292e-07,0,32768,32768
282.301,1.09232e-07,0,32768,32768
282.351,1.16519e-07,0,32768,32768
282.4,1.24529e-07,0,32768,32768
282.45,1.32886e-07,0,32768,32768
282.501,1.41649e-07,0,32768,32768
282.551,1.50469e-07,0,32768,32768
282.601,1.60026e-07,0,32768,32768
282.651,1.70868e-07,0,32768,32768
282.701,1.83534e-07,0,32768,32768
282.75,1.9853e-07,0,32768,32768
282.8,2.16355e-07,0,32768,32768
282.851,2.38193e-07,0,32768,32768
282.901,2.63279e-07,0,32768,32768
282.951,2.92531e-07,0,32768,32768
283.001,3.26062e-07,0,32768,32768
283.051,3.63704e-07,0,32768,32768
283.1,4.05027e-07,0,32768,32768
283.15,4.49437e-07,0,32768,32768
283.2,4.9627e-07,0,32768,32768
283.251,5.46282e-07,0,32768,32768
283.301,5.95824e-07,0,32768,32768
283.351,6.45323e-07,0,32768,32768
283.401,6.93502e-07,0,32768,32768
283.45,7.38795e-07,0,32768,32768
283.5,7.79503e-07,0,32768,32768
283.55,8.14062e-07,0,32768,32768
283.601,8.4199e-07,0,32768,32768
283.651,8.61104e-07,0,32768,32768
283.701,8.72363e-07,0,32768,32768
283.751,8.76293e-07,0,32768,32768
283.801,8.73672e-07,0,32768,32768
283.85,8.65276e-07,0,32768,32768
283.9,8.51677e-07,0,32768,32768
283.951,8.32524e-07,0,32768,32768
284.001,8.0888e-07,0,32768,32768
284.051,7.80046e-07,0,32768,32768
284.101,7.45776e-07,0,32768,32768
284.151,7.05988e-07,0,32768,32768
284.2,6.60926e-07,0,32768,32768
284.25,6.11255e-07,0,32768,32768
284.301,5.56451e-07,0,32768,32768
284.351,5.01079e-07,0,32768,32768
284.401,4.4514e-07,0,32768,32768
284.451,3.90069e-07,0,32768,32768
284.501,3.3704e-07,0,32768,32768
284.55,2.86866e-07,0,32768,32768
284.6,2.39994e-07,0,32768,32768
284.65,1.96578e-07,0,32768,32768
284.701,1.55478e-07,0,32768,32768
284.751,1.18984e-07,0,32768,32768
284.801,8.58605e-08,0,32768,32768
284.851,5.61711e-08,0,32768,32768
284.9,2.99955e-08,0,32768,32768
284.95,7.33656e-09,0,32768,32768
285,-1.1969e-08,0,32768,32768
285.051,-2.87166e-08,0,32768,32768
285.101,-4.24416e-08,0,32768,32768
285.151,-5.41202e-08,0,32768,32768
285.201,-6.40538e-08,0,32768,32768
285.251,-7.23585e-08,0,32768,32768
285.3,-7.9035e-08,0,32768,32768
285.35,-8.40884e-08,0,32768,32768
285.401,-8.77098e-08,0,32768,32768
285.451,-8.99394e-08,0,32768,32768
285.501,-9.12189e-08,0,32768,32768
285.551,-9.18345e-08,0,32768,32768
285.601,-9.19474e-08,0,32768,32768
285.65,-9.15621e-08,0,32768,32768
285.7,-9.05707e-08,0,32768,32768
285.751,-8.87826e-08,0,32768,32768
285.801,-8.62422e-08,0,32768,32768
285.851,-8.29695e-08,0,32768,32768
285.901,-7.91256e-08,0,32768,32768
285.951,-7.49239e-08,0,32768,32768
286,-7.0576e-08,0,32768,32768
286.05,-6.62556e-08,0,32768,32768
286.1,-6.2087e-08,0,32768,32768
286.151,-5.80369e-08,0,32768,32768
286.201,-5.43814e-08,0,32768,32768
286.251,-5.10193e-08,0,32768,32768
286.301,-4.7952e-08,0,32768,32768
286.35,-4.51703e-08,0,32768,32768
286.4,-4.26595e-08,0,32768,32768
286.45,-4.04045e-08,0,32768,32768
286.501,-3.83361e-08,0,32768,32768
286.551,-3.65613e-08,0,32768,32768
286.601,-3.50079e-08,0,32768,32768
286.651,-3.36663e-08,0,32768,32768
286.701,-3.25256e-08,0,32768,32768
286.75,-3.15735e-08,0,32768,32768
286.8,-3.07957e-08,0,32768,32768
286.851,-3.01609e-08,0,32768,32768
286.901,-2.96888e-08,0,32768,32768
286.951,-2.93424e-08,0,32768,32768
287.001,-2.91053e-08,0,32768,32768
287.051,-2.89617e-08,0,32768,32768
287.1,-2.88972e-08,0,32768,32768
287.15,-2.88985e-08,0,32720,32720
287.201,-2.89565e-08,0,32720,32720
287.251,-2.90577e-08,0,32704,32704
287.301,-2.91938e-08,0,32688,32688
287.351,-2.9357e-08,0,32688,32688
287.401,-2.95398e-08,0,32688,32688
287.45,-2.97356e-08,0,32688,32688
287.5,-2.99386e-08,0,32688,32688
287.551,-3.01501e-08,0,32688,32688
287.601,-3.03544e-08,0,32688,32688
287.651,-3.05544e-08,0,32672,32672
287.701,-3.07477e-08,0,32672,32672
287.751,-3.09319e-08,0,32688,32688
287.8,-3.11044e-08,0,32688,32688
287.85,-3.12628e-08,0,32688,32688
287.9,-3.14045e-08,0,32666,32666
287.951,-3.15305e-08,0,32680,32680
288.001,-3.16321e-08,0,32664,32664
288.051,-3.17123e-08,0,32664,32664
288.101,-3.17708e-08,0,32652,32652
288.15,-3.18082e-08,0,32632,32632
288.2,-3.18253e-08,0,32636,32636
288.25,-3.18235e-08,0,32632,32632
288.301,-3.18032e-08,0,32624,32624
288.351,-3.17674e-08,0,32608,32608
288.401,-3.17172e-08,0,32612,32612
288.451,-3.16542e-08,0,32608,32608
288.501,-3.15799e-08,0,32612,32612
288.55,-3.14958e-08,0,32600,32600
288.6,-3.14032e-08,0,32580,32580
288.651,-3.13007e-08,0,32586,32586
288.701,-3.11952e-08,0,32586,32586
288.751,-3.10852e-08,0,32588,32588
288.801,-3.09718e-08,0,32600,32600
288.851,-3.08557e-08,0,32584,32584
288.9,-3.07377e-08,0,32576,32576
288.95,-3.06182e-08,0,32584,32584
289.001,-3.04937e-08,0,32566,32566
289.051,-3.03715e-08,0,32562,32562
289.101,-3.02482e-08,0,32560,32560
289.151,-3.01234e-08,0,32560,32560
289.201,-2.99959e-08,0,32558,32558
289.25,-2.98657e-08,0,32564,32564
289.3,-2.97362e-08,0,32564,32564
289.35,-2.96053e-08,0,32564,32564
289.401,-2.94643e-08,0,32580,32580
289.451,-2.93186e-08,0,32580,32580
289.501,-2.91634e-08,0,32576,32576
289.551,-2.89978e-08,0,32560,32560
289.6,-2.88186e-08,0,32560,32560
289.65,-2.8622e-08,0,32548,32548
289.7,-2.84052e-08,0,32560,32560
289.751,-2.81581e-08,0,32582,32582
289.801,-2.78926e-08,0,32584,32584
289.851,-2.75999e-08,0,32584,32584
289.901,-2.72787e-08,0,32584,32584
289.95,-2.69284e-08,0,32592,32592
290,-2.65492e-08,0,32580,32580
290.05,-2.61424e-08,0,32708,32708
290.101,-2.56978e-08,0,32768,32768
290.151,-2.52449e-08,0,32768,32768
290.201,-2.47764e-08,0,32768,32768
290.251,-2.42987e-08,0,32768,32768
290.301,-2.38188e-08,0,32768,32768
290.35,-2.33443e-08,0,32768,32768
290.4,-2.28827e-08,0,32768,32768
290.451,-2.24282e-08,0,32768,32768
290.501,-2.20133e-08,0,32768,32768
290.551,-2.16304e-08,0,32768,32768
290.601,-2.12845e-08,0,32768,32768
290.651,-2.09773e-08,0,32768,32768
290.7,-2.07115e-08,0,32768,32768
290.75,-2.04959e-08,0,32768,32768
290.801,-2.03284e-08,0,32768,32768
290.851,-2.02109e-08,0,32768,32768
290.901,-2.0141e-08,0,32768,32768
290.951,-2.01231e-08,0,32768,32768
291.001,-2.01509e-08,0,32768,32768
291.05,-2.02181e-08,0,32768,32768
291.1,-2.03238e-08,0,32768,32768
291.15,-2.04682e-08,0,32768,32768
291.201,-2.06497e-08,0,32768,32768
291.251,-2.08488e-08,0,32768,32768
291.301,-2.10623e-08,0,32768,32768
291.351,-2.12828e-08,0,32768,32768
291.4,-2.15115e-08,0,32768,32768
291.45,-2.17451e-08,0,32768,32768
291.5,-2.19712e-08,0,32768,32768
291.551,-2.21928e-08,0,32768,32768
291.601,-2.23967e-08,0,32768,32768
291.651,-2.25825e-08,0,32768,32768
291.701,-2.27455e-08,0,32768,32768
291.751,-2.28842e-08,0,32768,32768
291.8,-2.29981e-08,0,32768,32768
291.85,-2.30871e-08,0,32768,32768
291.901,-2.31532e-08,0,32768,32768
291.951,-2.3194e-08,0,32768,32768
292.001,-2.32114e-08,0,32768,32768
292.051,-2.32034e-08,0,32768,32768
292.101,-2.31745e-08,0,32768,32768
292.15,-2.31297e-08,0,32768,32768
292.2,-2.3066e-08,0,32768,32768
292.251,-2.29813e-08,0,32768,32768
292.301,-2.28872e-08,0,32768,32768
292.351,-2.27843e-08,0,32768,32768
292.401,-2.26715e-08,0,32768,32768
292.451,-2.25489e-08,0,32768,32768
292.5,-2.24197e-08,0,32768,32768
292.55,-2.22848e-08,0,32768,32768
292.6,-2.2141e-08,0,32768,32768
292.651,-2.19824e-08,0,32768,32768
292.701,-2.18228e-08,0,32768,32768
292.751,-2.16619e-08,0,32768,32768
292.801,-2.14989e-08,0,32768,32768
292.85,-2.13315e-08,0,32768,32768
292.9,-2.11622e-08,0,32768,32768
292.95,-2.09973e-08,0,32768,32768
293.001,-2.08335e-08,0,32768,32768
293.051,-2.06775e-08,0,32768,32768
293.101,-2.05251e-08,0,32768,32768
293.151,-2.03799e-08,0,32768,32768
293.201,-2.02446e-08,0,32768,32768
293.25,-2.01198e-08,0,32768,32768
293.3,-2.00041e-08,0,32768,32768
293.351,-1.98942e-08,0,32768,32768
293.401,-1.97992e-08,0,32768,32768
293.451,-1.97168e-08,0,32768,32768
293.501,-1.96439e-08,0,32768,32768
293.551,-1.95785e-08,0,32768,32768
293.6,-1.95192e-08,0,32768,32768
293.65,-1.94622e-08,0,32768,32768
293.701,-1.94038e-08,0,32768,32768
293.751,-1.93495e-08,0,32768,32768
293.801,-1.92976e-08,0,32768,32768
293.851,-1.92464e-08,0,32768,32768
293.901,-1.91955e-08,0,32768,32768
293.95,-1.91453e-08,0,32768,32768
294,-1.90965e-08,0,32768,32768
294.051,-1.90474e-08,0,32768,32768
294.101,-1.89976e-08,0,32768,32768
294.151,-1.89429e-08,0,32768,32768
294.201,-1.88831e-08,0,32768,32768
294.251,-1.88205e-08,0,32768,32768
294.3,-1.87561e-08,0,32768,32768
294.35,-1.8688e-08,0,32768,32768
294.4,-1.86122e-08,0,32393,32393
294.451,-1.85245e-08,0,32001,32001
294.501,-1.84332e-08,0,31753,31753
294.551,-1.83407e-08,0,31559,31559
294.601,-1.82489e-08,0,31403,31403
294.65,-1.81565e-08,0,31245,31245
294.7,-1.80623e-08,0,31095,31095
294.75,-1.79662e-08,0,30945,30945
294.801,-1.78663e-08,0,30801,30801
294.851,-1.7769e-08,0,30651,30651
294.901,-1.7671e-08,0,30509,30509
294.951,-1.75711e-08,0,30363,30363
295.001,-1.74691e-08,0,30213,30213
295.05,-1.7365e-08,0,30051,30051
295.1,-1.72588e-08,0,29895,29895
295.151,-1.71468e-08,0,29733,29733
295.201,-1.70359e-08,0,29583,29583
295.251,-1.69233e-08,0,29399,29399
295.301,-1.68085e-08,0,29241,29241
295.351,-1.66908e-08,0,29079,29079
295.4,-1.65699e-08,0,28911,28911
295.45,-1.64453e-08,0,28737,28737
295.501,-1.63127e-08,0,28575,28575
295.551,-1.61793e-08,0,28407,28407
295.601,-1.60409e-08,0,28241,28241
295.651,-1.58971e-08,0,28071,28071
295.701,-1.5748e-08,0,27913,27913
295.75,-1.55936e-08,0,27753,27753
295.8,-1.5434e-08,0,27591,27591
295.85,-1.52695e-08,0,27441,27441
295.901,-1.50951e-08,0,27257,27257
295.951,-1.49209e-08,0,27099,27099
296.001,-1.47418e-08,0,26937,26937
296.051,-1.45579e-08,0,26769,26769
296.1,-1.4369e-08,0,26587,26587
296.15,-1.41749e-08,0,26433,26433
296.2,-1.39754e-08,0,26241,26241
296.251,-1.37643e-08,0,26063,26063
296.301,-1.35533e-08,0,25893,25893
296.351,-1.33363e-08,0,25721,25721
296.401,-1.31129e-08,0,25551,25551
296.451,-1.28829e-08,0,25359,25359
296.5,-1.2646e-08,0,25197,25197
296.55,-1.24019e-08,0,25023,25023
296.601,-1.21424e-08,0,24855,24855
296.651,-1.18817e-08,0,24669,24669
296.701,-1.16112e-08,0,24485,24485
296.751,-1.13297e-08,0,24315,24315
296.801,-1.10352e-08,0,24149,24149
296.85,-1.0726e-08,0,23973,23973
296.9,-1.04001e-08,0,23795,23795
296.951,-1.00447e-08,0,23621,23621
297.001,-9.67786e-09,0,23437,23437
297.051,-9.28769e-09,0,23283,23283
297.101,-8.87221e-09,0,23091,23091
297.151,-8.42984e-09,0,22929,22929
297.2,-7.95944e-09,0,22747,22747
297.25,-7.46041e-09,0,22579,22579
297.3,-6.93277e-09,0,22401,22401
297.351,-6.36054e-09,0,22209,22209
297.401,-5.77797e-09,0,22047,22047
297.451,-5.17101e-09,0,21865,21865
297.501,-4.53805e-09,0,21705,21705
297.55,-3.8538e-09,0,21519,21519
297.6,-2.98964e-09,0,21351,21351
297.65,-1.4653e-09,0,21169,21169
297.701,-2.59296e-11,0,20991,20991
297.751,3.43497e-10,0,20823,20823
297.801,6.70312e-10,0,20637,20637
297.851,9.86586e-10,0,20471,20471
297.901,1.31575e-09,0,20287,20287
297.95,1.67971e-09,0,20133,20133
298,2.04297e-09,0,19941,19941
298.051,2.42325e-09,0,19755,19755
298.101,2.79199e-09,0,19587,19587
298.151,3.14997e-09,0,19401,19401
298.201,3.49559e-09,0,19227,19227
298.251,3.82283e-09,0,19059,19059
298.3,4.12796e-09,0,18873,18873
298.35,4.40866e-09,0,18681,18681
298.401,4.66939e-09,0,18501,18501
298.451,4.89402e-09,0,18327,18327
298.501,5.08984e-09,0,18141,18141
298.551,5.25676e-09,0,17959,17959
298.601,5.39536e-09,0,17783,17783
298.65,5.50651e-09,0,17613,17613
298.7,5.59143e-09,0,17421,17421
298.751,5.65305e-09,0,17235,17235
298.801,5.68955e-09,0,17043,17043
298.851,5.70486e-09,0,16857,16857
298.901,5.70088e-09,0,16665,16665
298.951,5.67955e-09,0,16479,16479
299,5.64282e-09,0,16287,16287
299.05,5.59264e-09,0,16101,16101
299.1,5.5309e-09,0,15909,15909
299.151,5.45721e-09,0,15723,15723
299.201,5.37753e-09,0,15531,15531
299.251,5.29153e-09,0,15345,15345
299.301,5.20074e-09,0,15153,15153
299.35,5.10657e-09,0,14967,14967
299.4,5.01034e-09,0,14775,14775
299.45,4.91324e-09,0,14589,14589
299.501,4.81349e-09,0,14397,14397
299.551,4.71779e-09,0,14195,14195
299.601,4.62408e-09,0,14003,14003
299.651,4.53309e-09,0,13809,13809
299.701,4.44541e-09,0,13609,13609
299.75,4.36151e-09,0,13419,13419
299.8,4.28173e-09,0,13227,13227
299.851,4.20417e-09,0,13011,13011
299.901,4.13339e-09,0,12801,12801
299.951,4.06711e-09,0,12593,12593
300.001,4.00526e-09,0,12405,12405
300.051,3.94768e-09,0,12199,12199
300.1,3.89411e-09,0,12013,12013
300.15,3.84425e-09,0,11801,11801
300.201,3.79641e-09,0,11605,11605
300.251,3.75291e-09,0,11397,11397
300.301,3.71191e-09,0,11191,11191
300.351,3.67297e-09,0,11003,11003
300.401,3.63568e-09,0,10793,10793
300.45,3.59962e-09,0,10589,10589
300.5,3.56444e-09,0,10373,10373
300.55,3.5298e-09,0,10179,10179
300.601,3.49444e-09,0,9971,9971
300.651,3.46015e-09,0,9753,9753
300.701,3.42577e-09,0,9559,9559
300.751,3.39121e-09,0,9351,9351
300.8,3.35643e-09,0,9121,9121
300.85,3.32146e-09,0,8905,8905
300.9,3.28636e-09,0,8689,8689
300.951,3.2502e-09,0,8489,8489
301.001,3.2152e-09,0,8247,8247
301.051,3.18049e-09,0,8031,8031
301.101,3.14625e-09,0,7793,7793
301.151,3.11268e-09,0,7593,7593
301.2,3.07997e-09,0,7353,7353
301.25,3.04831e-09,0,7139,7139
301.301,3.017e-09,0,6893,6893
301.351,2.98797e-09,0,6691,6691
301.401,2.96045e-09,0,6455,6455
301.451,2.93453e-09,0,6223,6223
301.501,2.91029e-09,0,6003,6003
301.55,2.88775e-09,0,5777,5777
301.6,2.86693e-09,0,5561,5561
301.651,2.84724e-09,0,5319,5319
301.701,2.82975e-09,0,5115,5115
301.751,2.81376e-09,0,4879,4879
301.801,2.79916e-09,0,4653,4653
301.851,2.78581e-09,0,4453,4453
301.9,2.77353e-09,0,4231,4231
301.95,2.76218e-09,0,3981,3981
302.001,2.75126e-09,0,3763,3763
302.051,2.74123e-09,0,3531,3531
302.101,2.73158e-09,0,3333,3333
302.151,2.72217e-09,0,3109,3109
302.201,2.71284e-09,0,2871,2871
302.25,2.70345e-09,0,2657,2657
302.3,2.69387e-09,0,2431,2431
302.35,2.68401e-09,0,2211,2211
302.401,2.67346e-09,0,1973,1973
302.451,2.66275e-09,0,1729,1729
302.501,2.65152e-09,0,1513,1513
302.551,2.63972e-09,0,1277,1277
302.6,2.62733e-09,0,1043,1043
302.65,2.61431e-09,0,813,813
302.7,2.60066e-09,0,587,587
302.756,2.58473e-09,0,512,512
302.802,2.57069e-09,0,512,512
302.861,2.55235e-09,0,512,512
302.908,2.53707e-09,0,512,512
302.955,2.52127e-09,0,512,512
303.002,2.50496e-09,0,512,512
303.06,2.48389e-09,0,512,512
303.107,2.46652e-09,0,512,512
303.154,2.44872e-09,0,512,512
303.201,2.43053e-09,0,512,512
303.259,2.40728e-09,0,512,512
303.306,2.38831e-09,0,512,512
303.353,2.36906e-09,0,512,512
303.4,2.34956e-09,0,512,512
303.459,2.32488e-09,0,512,512
303.505,2.30494e-09,0,512,512
303.552,2.28486e-09,0,512,512
303.611,2.25962e-09,0,512,512
303.658,2.23934e-09,0,512,512
303.705,2.21903e-09,0,512,512
303.752,2.19871e-09,0,512,512
303.81,2.17335e-09,0,512,512
303.857,2.15313e-09,0,512,512
303.904,2.133e-09,0,512,512
303.951,2.11299e-09,0,512,512
304.009,2.08819e-09,0,512,512
304.056,2.06856e-09,0,512,512
304.103,2.04913e-09,0,512,512
304.162,2.02515e-09,0,512,512
304.209,2.00623e-09,0,512,512
304.255,1.98753e-09,0,512,512
304.302,1.96904e-09,0,512,512
304.361,1.94618e-09,0,512,512
304.408,1.92805e-09,0,512,512
304.455,1.91001e-09,0,512,512
304.501,1.89202e-09,0,512,512
304.56,1.86952e-09,0,512,512
304.607,1.85145e-09,0,512,512
304.654,1.83326e-09,0,512,512
304.701,1.81492e-09,0,512,512
304.759,1.79172e-09,0,512,512
304.806,1.77292e-09,0,512,512
304.853,1.75387e-09,0,512,512
304.912,1.72972e-09,0,512,512
304.958,1.71011e-09,0,512,512
