250,0,0,8192,8192
250.003,0,0,8192,8192
250.053,0,0,8192,8192
250.103,0,0,8192,8192
250.152,0,0,8192,8192
250.202,0,0,8192,8192
250.252,0,0,8192,8192
250.302,0,0,8192,8192
250.352,0,0,8192,8192
250.401,0,0,8192,8192
250.451,0,0,8192,8192
250.501,0,0,8192,8192
250.551,0,0,8192,8192
250.6,0,0,8192,8192
250.65,0,0,8192,8192
250.7,0,0,8192,8192
250.753,0,0,8192,8192
250.803,0,0,8192,8192
250.852,0,0,8192,8192
250.902,0,0,8192,8192
250.952,0,0,8192,8192
251.002,0,0,8192,8192
251.052,0,0,8192,8192
251.101,0,0,8192,8192
251.151,0,0,8192,8192
251.201,0,0,8192,8192
251.251,0,0,8192,8192
251.301,0,0,8192,8192
251.35,0,0,8192,8192
251.4,0,0,8192,8192
251.453,0,0,8192,8192
251.503,0,0,8192,8192
251.553,0,0,8192,8192
251.602,0,0,8192,8192
251.652,0,0,8192,8192
251.702,0,0,8192,8192
251.752,0,0,8192,8192
251.801,0,0,8192,8192
251.851,0,0,8192,8192
251.901,0,0,8192,8192
251.951,0,0,8192,8192
252.001,0,0,8192,8192
252.05,0,0,8192,8192
252.1,0,0,8192,8192
252.15,0,0,8192,8192
252.203,0,0,8192,8192
252.253,0,0,8192,8192
252.302,0,0,8192,8192
252.352,0,0,8192,8192
252.402,0,0,8192,8192
252.452,0,0,8192,8192
252.502,0,0,8192,8192
252.551,0,0,8192,8192
252.601,0,0,8192,8192
252.651,0,0,8192,8192
252.701,0,0,8192,8192
252.751,0,0,8192,8192
252.8,0,0,8192,8192
252.85,0,0,8192,8192
252.903,0,0,8192,8192
252.953,0,0,8192,8192
253.002,0,0,8192,8192
253.052,0,0,8192,8192
253.102,0,0,8192,8192
253.152,0,0,8192,8192
253.202,0,0,8192,8192
253.251,0,0,8192,8192
253.301,0,0,8192,8192
253.351,0,0,8192,8192
253.401,0,0,8192,8192
253.451,0,0,8192,8192
253.5,0,0,8192,8192
253.55,0,0,8192,8192
253.6,0,0,8192,8192
253.653,0,0,8192,8192
253.703,0,0,8192,8192
253.752,0,0,8192,8192
253.802,0,0,8192,8192
253.852,0,0,8192,8192
253.902,0,0,8192,8192
253.952,0,0,8192,8192
254.001,0,0,8192,8192
254.051,0,0,8192,8192
254.101,0,0,8192,8192
254.151,0,0,8192,8192
254.201,0,0,8192,8192
254.25,0,0,8192,8192
254.3,0,0,8192,8192
254.353,0,0,8192,8192
254.403,0,0,8192,8192
254.452,0,0,8192,8192
254.502,0,0,8192,8192
254.552,0,0,8192,8192
254.602,0,0,8192,8192
254.652,0,0,8192,8192
254.701,0,0,8192,8192
254.751,0,0,8192,8192
254.801,0,0,8192,8192
254.851,0,0,8192,8192
254.901,0,0,8192,8192
254.95,0,0,8192,8192
255,0,0,8192,8192
255.05,0,0,8192,8192
255.103,0,0,8192,8192
255.153,0,0,8192,8192
255.202,0,0,8192,8192
255.252,0,0,8192,8192
255.302,2.77556e-17,0,8192,8192
255.352,2.77556e-17,0,8192,8192
255.402,5.55112e-17,0,8192,8192
255.451,2.77556e-17,0,8192,8192
255.501,2.77556e-17,0,8192,8192
255.551,2.77556e-17,0,8192,8192
255.601,2.77556e-17,0,8192,8192
255.651,2.77556e-17,0,8192,8192
255.7,2.77556e-17,0,8192,8192
255.75,2.77556e-17,0,8192,8192
255.803,2.77556e-17,0,8192,8192
255.853,2.77556e-17,0,8192,8192
255.902,2.77556e-17,0,8192,8192
255.952,2.77556e-17,0,8192,8192
256.002,5.55112e-17,0,8192,8192
256.052,5.55112e-17,0,8192,8192
256.102,5.55112e-17,0,8192,8192
256.151,5.55112e-17,0,8192,8192
256.201,2.77556e-17,0,8192,8192
256.251,2.77556e-17,0,8192,8192
256.301,2.77556e-17,0,8192,8192
256.351,2.77556e-17,0,8192,8192
256.4,2.77556e-17,0,8192,8192
256.45,2.77556e-17,0,8192,8192
256.5,0,0,8192,8192
256.553,0,0,8192,8192
256.603,0,0,8192,8192
256.652,0,0,8192,8192
256.702,0,0,8192,8192
256.752,0,0,8192,8192
256.802,0,0,8192,8192
256.852,0,0,8192,8192
256.901,0,0,8192,8192
256.951,0,0,8192,8192
257.001,0,0,8192,8192
257.051,0,0,8192,8192
257.101,0,0,8192,8192
257.15,0,0,8192,8192
257.2,0,0,8192,8192
257.253,0,0,8192,8192
257.303,2.77556e-17,0,8192,8192
257.352,2.77556e-17,0,8192,8192
257.402,5.55112e-17,0,8192,8192
257.452,5.55112e-17,0,8192,8192
257.502,5.55112e-17,0,8192,8192
257.552,5.55112e-17,0,8192,8192
257.601,5.55112e-17,0,8192,8192
257.651,5.55112e-17,0,8192,8192
257.701,5.55112e-17,0,8192,8192
257.751,5.55112e-17,0,8192,8192
257.801,5.55112e-17,0,8192,8192
257.85,5.55112e-17,0,8192,8192
257.9,5.55112e-17,0,8192,8192
257.95,5.55112e-17,0,8192,8192
258.003,5.55112e-17,0,8192,8192
258.053,5.55112e-17,0,8192,8192
258.102,5.55112e-17,0,8192,8192
258.152,5.55112e-17,0,8192,8192
258.202,5.55112e-17,0,8192,8192
258.252,5.55112e-17,0,8192,8192
258.302,5.55112e-17,0,8192,8192
258.351,5.55112e-17,0,8192,8192
258.401,5.55112e-17,0,8192,8192
258.451,5.55112e-17,0,8192,8192
258.501,5.55112e-17,0,8192,8192
258.551,5.55112e-17,0,8192,8192
258.6,5.55112e-17,0,8192,8192
258.65,2.77556e-17,0,8192,8192
258.703,0,0,8192,8192
258.753,0,0,8192,8192
258.802,0,0,8192,8192
258.852,2.77556e-17,0,8192,8192
258.902,2.77556e-17,0,8192,8192
258.952,5.55112e-17,0,8192,8192
259.002,5.55112e-17,0,8192,8192
259.051,2.77556e-17,0,8192,8192
259.101,2.77556e-17,0,8192,8192
259.151,2.77556e-17,0,8192,8192
259.201,2.77556e-17,0,8192,8192
259.251,2.77556e-17,0,8192,8192
259.3,2.77556e-17,0,8192,8192
259.35,2.77556e-17,0,8192,8192
259.403,2.77556e-17,0,8192,8192
259.453,2.77556e-17,0,8192,8192
259.503,2.77556e-17,0,8192,8192
259.552,2.77556e-17,0,8192,8192
259.602,2.77556e-17,0,8192,8192
259.652,2.77556e-17,0,8192,8192
259.702,2.77556e-17,0,8192,8192
259.751,2.77556e-17,0,8192,8192
259.801,2.77556e-17,0,8192,8192
259.851,2.77556e-17,0,8192,8192
259.901,0,0,8192,8192
259.951,-2.77556e-17,0,8192,8192
260,-2.77556e-17,0,8192,8192
260.05,-2.77556e-17,0,8192,8192
260.1,-2.77556e-17,0,8192,8192
260.153,-2.77556e-17,0,8192,8192
260.203,-2.77556e-17,0,8192,8192
260.252,-2.77556e-17,0,8192,8192
260.302,-2.77556e-17,0,8192,8192
260.352,-2.77556e-17,0,8192,8192
260.402,-2.77556e-17,0,8192,8192
260.452,-2.77556e-17,0,8192,8192
260.501,-2.77556e-17,0,8192,8192
260.551,-2.77556e-17,0,8192,8192
260.601,-2.77556e-17,0,8192,8192
260.651,-2.77556e-17,0,8192,8192
260.701,-2.77556e-17,0,8192,8192
260.75,-2.77556e-17,0,8192,8192
260.8,-2.77556e-17,0,8192,8192
260.853,-2.77556e-17,0,8192,8192
260.903,-2.77556e-17,0,8192,8192
260.952,-2.77556e-17,0,8192,8192
261.002,-8.32667e-17,0,8192,8192
261.052,-8.32667e-17,0,8192,8192
261.102,-8.32667e-17,0,8192,8192
261.152,-5.55112e-17,0,8192,8192
261.201,-2.77556e-17,0,8192,8192
261.251,-2.77556e-17,0,8192,8192
261.301,-2.77556e-17,0,8192,8192
261.351,-2.77556e-17,0,8192,8192
261.401,-2.77556e-17,0,8192,8192
261.45,-2.77556e-17,0,8192,8192
261.5,-2.77556e-17,0,8192,8192
261.55,-2.77556e-17,0,8192,8192
261.603,-2.77556e-17,0,8192,8192
261.653,0,0,8192,8192
261.702,-2.77556e-17,0,8192,8192
261.752,-2.77556e-17,0,8192,8192
261.802,-2.77556e-17,0,8192,8192
261.852,-2.77556e-17,0,8192,8192
261.902,-2.77556e-17,0,8192,8192
261.951,-2.77556e-17,0,8192,8192
262.001,-2.77556e-17,0,8192,8192
262.051,-2.77556e-17,0,8192,8192
262.101,-2.77556e-17,0,8192,8192
262.151,-2.77556e-17,0,8192,8192
262.2,-2.77556e-17,0,8192,8192
262.25,-2.77556e-17,0,8192,8192
262.303,-2.77556e-17,0,8192,8192
262.353,-2.77556e-17,0,8192,8192
262.402,-2.77556e-17,0,8192,8192
262.452,-2.77556e-17,0,8192,8192
262.502,-2.77556e-17,0,8192,8192
262.552,-2.77556e-17,0,8192,8192
262.602,-2.77556e-17,0,8192,8192
262.651,-2.77556e-17,0,8192,8192
262.701,-2.77556e-17,0,8192,8192
262.751,0,0,8192,8192
262.801,0,0,8192,8192
262.851,0,0,8192,8192
262.9,0,0,8192,8192
262.95,-2.77556e-17,0,8192,8192
263,-2.77556e-17,0,8192,8192
263.053,0,0,8192,8192
263.103,0,0,8192,8192
263.152,0,0,8192,8192
263.202,0,0,8192,8192
263.252,0,0,8192,8192
263.302,2.77556e-17,0,8192,8192
263.352,0,0,8192,8192
263.401,0,0,8192,8192
263.451,0,0,8192,8192
263.501,2.77556e-17,0,8192,8192
263.551,5.55112e-17,0,8192,8192
263.601,5.55112e-17,0,8192,8192
263.65,0,0,8192,8192
263.7,0,0,8192,8192
263.753,0,0,8192,8192
263.803,0,0,8192,8192
263.852,0,0,8192,8192
263.902,0,0,8192,8192
263.952,0,0,8192,8192
264.002,0,0,8192,8192
264.052,0,0,8192,8192
264.101,0,0,8192,8192
264.151,0,0,8192,8192
264.201,0,0,8192,8192
264.251,0,0,8192,8192
264.301,2.77556e-17,0,8192,8192
264.35,2.77556e-17,0,8192,8192
264.4,2.77556e-17,0,8192,8192
264.45,2.77556e-17,0,8192,8192
264.503,2.77556e-17,0,8192,8192
264.553,2.77556e-17,0,8192,8192
264.602,2.77556e-17,0,8192,8192
264.652,2.77556e-17,0,8192,8192
264.702,2.77556e-17,0,8192,8192
264.752,2.77556e-17,0,8192,8192
264.802,2.77556e-17,0,8192,8192
264.851,2.77556e-17,0,8192,8192
264.901,2.77556e-17,0,8192,8192
264.951,2.77556e-17,0,8192,8192
265.001,2.77556e-17,0,8192,8192
265.051,2.77556e-17,0,8192,8192
265.1,2.77556e-17,0,8192,8192
265.15,2.77556e-17,0,8192,8192
265.203,2.77556e-17,0,8192,8192
265.253,2.77556e-17,0,8192,8192
265.302,2.77556e-17,0,8192,8192
265.352,2.77556e-17,0,8192,8192
265.402,2.77556e-17,0,8192,8192
265.452,2.77556e-17,0,8192,8192
265.502,2.77556e-17,0,8192,8192
265.551,2.77556e-17,0,8192,8192
265.601,2.77556e-17,0,8192,8192
265.651,2.77556e-17,0,8192,8192
265.701,5.55112e-17,0,8192,8192
265.751,5.55112e-17,0,8192,8192
265.8,2.77556e-17,0,8192,8192
265.85,2.77556e-17,0,8192,8192
265.9,2.77556e-17,0,8192,8192
265.953,2.77556e-17,0,8192,8192
266.003,2.77556e-17,0,8192,8192
266.052,2.77556e-17,0,8192,8192
266.102,2.77556e-17,0,8192,8192
266.152,2.77556e-17,0,8192,8192
266.202,2.77556e-17,0,8192,8192
266.252,2.77556e-17,0,8192,8192
266.301,2.77556e-17,0,8192,8192
266.351,2.77556e-17,0,8192,8192
266.401,2.77556e-17,0,8192,8192
266.451,2.77556e-17,0,8192,8192
266.501,2.77556e-17,0,8192,8192
266.55,2.77556e-17,0,8192,8192
266.6,2.77556e-17,0,8192,8192
266.653,2.77556e-17,0,8192,8192
266.703,2.77556e-17,0,8192,8192
266.752,2.77556e-17,0,8192,8192
266.802,2.77556e-17,0,8192,8192
266.852,2.77556e-17,0,8192,8192
266.902,2.77556e-17,0,8192,8192
266.952,-2.77556e-17,0,8192,8192
267.001,-2.77556e-17,0,8192,8192
267.051,-2.77556e-17,0,8192,8192
267.101,-2.77556e-17,0,8192,8192
267.151,0,0,8192,8192
267.201,0,0,8192,8192
267.25,-2.77556e-17,0,8192,8192
267.3,0,0,8192,8192
267.353,-2.77556e-17,0,8192,8192
267.403,-2.77556e-17,0,8192,8192
267.453,-2.77556e-17,0,8192,8192
267.502,-2.77556e-17,0,8192,8192
267.552,-2.77556e-17,0,8192,8192
267.602,-2.77556e-17,0,8192,8192
267.652,-2.77556e-17,0,8192,8192
267.702,-2.77556e-17,0,8192,8192
267.751,0,0,8192,8192
267.801,0,0,8192,8192
267.851,0,0,8192,8192
267.901,0,0,8192,8192
267.95,0,0,8192,8192
268,0,0,8192,8192
268.05,0,0,8192,8192
268.1,0,0,8436,8436
268.15,0,0,8628,8628
268.2,0,0,8820,8820
268.251,0,0,9012,9012
268.301,0,0,9204,9204
268.351,0,0,9372,9372
268.401,0,0,9564,9564
268.451,0,0,9732,9732
268.5,0,0,9924,9924
268.55,0,0,10092,10092
268.601,0,0,10284,10284
268.651,0,0,10452,10452
268.701,0,0,10644,10644
268.751,0,0,10812,10812
268.801,0,0,11004,11004
268.85,0,0,11172,11172
268.9,0,0,11340,11340
268.951,0,0,11532,11532
269.001,0,0,11700,11700
269.051,0,0,11868,11868
269.101,0,0,12060,12060
269.151,0,0,12228,12228
269.2,0,0,12396,12396
269.25,0,0,12564,12564
269.3,0,0,12756,12756
269.351,0,0,12924,12924
269.401,0,0,13092,13092
269.451,0,0,13284,13284
269.501,0,0,13452,13452
269.55,0,0,13620,13620
269.6,0,0,13788,13788
269.65,0,0,13956,13956
269.701,0,0,14148,14148
269.751,0,0,14316,14316
269.801,0,0,14484,14484
269.851,0,0,14652,14652
269.901,0,0,14820,14820
269.95,0,0,14988,14988
270,0,0,15156,15156
270.051,0,0,15324,15324
270.101,0,0,15492,15492
270.151,0,0,15660,15660
270.201,0,0,15828,15828
270.251,0,0,15996,15996
270.3,0,0,16164,16164
270.35,0,0,16308,16308
270.401,0,0,16476,16476
270.451,0,0,16644,16644
270.501,0,0,16788,16788
270.551,0,0,16956,16956
270.601,0,0,17052,17052
270.65,0,0,17172,17172
270.7,0,0,17340,17340
270.75,0,0,17508,17508
270.801,0,0,17676,17676
270.851,0,0,17820,17820
270.901,0,0,17988,17988
270.951,0,0,18156,18156
271,0,0,18324,18324
271.05,0,0,18468,18468
271.1,0,0,18636,18636
271.151,0,0,18804,18804
271.201,0,0,18948,18948
271.251,0,0,19116,19116
271.301,0,0,19284,19284
271.35,0,0,19428,19428
271.4,0,0,19596,19596
271.45,0,0,19740,19740
271.501,0,0,19908,19908
271.551,0,0,20052,20052
271.601,0,0,20220,20220
271.651,0,0,20364,20364
271.701,0,0,20508,20508
271.75,0,0,20676,20676
271.8,0,0,20820,20820
271.851,0,0,20964,20964
271.901,0,0,21132,21132
271.951,0,0,21276,21276
272.001,0,0,21420,21420
272.051,0,0,21564,21564
272.1,0,0,21708,21708
272.15,0,0,21852,21852
272.201,0,0,22020,22020
272.251,0,0,22164,22164
272.301,0,0,22308,22308
272.351,0,0,22452,22452
272.401,0,0,22596,22596
272.45,0,0,22740,22740
272.5,0,0,22884,22884
272.55,0,0,23028,23028
272.601,0,0,23172,23172
272.651,0,0,23316,23316
272.701,0,0,23460,23460
272.751,0,0,23580,23580
272.8,0,0,23724,23724
272.85,0,0,23868,23868
272.9,0,0,24012,24012
272.951,0,0,24156,24156
273.001,0,0,24276,24276
273.051,0,0,24420,24420
273.101,0,0,24564,24564
273.151,0,0,24708,24708
273.2,0,0,24828,24828
273.25,0,0,24972,24972
273.301,0,0,25116,25116
273.351,5.55112e-17,0,25260,25260
273.401,8.04912e-16,0,25380,25380
273.451,1.63758e-15,0,25524,25524
273.501,2.47025e-15,0,25668,25668
273.55,3.41394e-15,0,25788,25788
273.6,4.27436e-15,0,25932,25932
273.651,5.13478e-15,0,26076,26076
273.701,6.05072e-15,0,26196,26196
273.751,6.99441e-15,0,26340,26340
273.801,8.88178e-15,0,26460,26460
273.851,1.24067e-14,0,26604,26604
273.9,1.52656e-14,0,26748,26748
273.95,1.83187e-15,0,26868,26868
274.001,-8.02969e-14,0,27012,27012
274.051,-3.31235e-13,0,27132,27132
274.101,-1.07289e-12,0,27276,27276
274.151,-7.78763e-12,0,27396,27396
274.201,-3.26531e-11,0,27540,27540
274.25,-9.39115e-11,0,27660,27660
274.3,-1.94447e-10,0,27804,27804
274.35,-2.95218e-10,0,27924,27924
274.401,-3.24304e-10,0,28068,28068
274.451,-2.34294e-10,0,28212,28212
274.501,-5.94749e-11,0,28332,28332
274.551,1.07584e-10,0,28452,28452
274.6,1.80897e-10,0,28596,28596
274.65,1.42942e-10,0,28716,28716
274.7,5.41063e-11,0,28860,28860
274.751,2.40549e-12,0,28980,28980
274.801,3.59619e-11,0,29124,29124
274.851,1.19027e-10,0,29244,29244
274.901,1.76797e-10,0,29388,29388
274.951,1.62208e-10,0,29508,29508
275,9.58455e-11,0,29628,29628
275.05,4.23842e-11,0,29772,29772
275.101,5.1108e-11,0,29892,29892
275.151,1.11851e-10,0,30036,30036
275.201,1.71005e-10,0,30156,30156
275.251,1.81226e-10,0,30276,30276
275.301,1.37425e-10,0,30420,30420
275.35,7.61634e-11,0,30540,30540
275.4,4.60975e-11,0,30660,30660
275.451,7.58092e-11,0,30804,30804
275.501,1.47977e-10,0,30924,30924
275.551,2.08909e-10,0,31044,31044
275.601,1.99494e-10,0,31164,31164
275.651,1.0732e-10,0,31284,31284
275.7,8.73385e-13,0,31404,31404
275.75,-5.86184e-12,0,31500,31500
275.8,1.36643e-10,0,31620,31620
275.851,3.22237e-10,0,31740,31740
275.901,3.20674e-10,0,31836,31836
275.951,6.2446e-11,0,31956,31956
276.001,-1.39356e-10,0,32052,32052
276.05,4.11427e-10,0,32148,32148
276.1,2.44621e-09,0,32244,32244
276.15,6.26402e-09,0,32340,32340
276.201,1.16684e-08,0,32436,32436
276.251,1.74713e-08,0,32532,32532
276.301,2.28962e-08,0,32628,32628
276.351,2.73921e-08,0,32768,32768
276.401,3.10013e-08,0,32768,32768
276.45,3.43645e-08,0,32768,32768
276.5,3.84955e-08,0,32768,32768
276.551,4.45942e-08,0,32768,32768
276.601,5.29315e-08,0,32768,32768
276.651,6.37986e-08,0,32768,32768
276.701,7.71835e-08,0,32768,32768
276.751,9.33315e-08,0,32768,32768
276.8,1.12961e-07,0,32768,32768
276.85,1.37141e-07,0,32768,32768
276.901,1.67893e-07,0,32768,32768
276.951,2.04099e-07,0,32768,32768
277.001,2.46421e-07,0,32768,32768
277.051,2.93939e-07,0,32768,32768
277.101,3.45268e-07,0,32768,32768
277.15,3.99218e-07,0,32768,32768
277.2,4.55332e-07,0,32768,32768
277.25,5.1381e-07,0,32768,32768
277.301,5.76556e-07,0,32768,32768
277.351,6.38979e-07,0,32768,32768
277.401,7.00486e-07,0,32768,32768
277.451,7.57896e-07,0,32768,32768
277.5,8.08159e-07,0,32768,32768
277.55,8.49166e-07,0,32768,32768
277.6,8.80139e-07,0,32768,32768
277.651,9.02115e-07,0,32768,32768
277.701,9.15341e-07,0,32768,32768
277.751,9.2235e-07,0,32768,32768
277.801,9.24583e-07,0,32768,32768
277.851,9.22791e-07,0,32768,32768
277.9,9.16991e-07,0,32768,32768
277.95,9.06625e-07,0,32768,32768
278.001,8.90242e-07,0,32768,32768
278.051,8.67766e-07,0,32768,32768
278.101,8.38003e-07,0,32768,32768
278.151,8.00625e-07,0,32768,32768
278.201,7.56091e-07,0,32768,32768
278.25,7.05803e-07,0,32768,32768
278.3,6.51934e-07,0,32768,32768
278.351,5.95332e-07,0,32768,32768
278.401,5.41454e-07,0,32768,32768
278.451,4.90193e-07,0,32768,32768
278.501,4.42321e-07,0,32768,32768
278.551,3.97988e-07,0,32768,32768
278.6,3.56916e-07,0,32768,32768
278.65,3.18627e-07,0,32768,32768
278.701,2.81646e-07,0,32768,32768
278.751,2.47911e-07,0,32768,32768
278.801,2.16629e-07,0,32768,32768
278.851,1.88527e-07,0,32768,32768
278.901,1.64396e-07,0,32768,32768
278.95,1.4449e-07,0,32768,32768
279,1.28124e-07,0,32768,32768
279.05,1.13891e-07,0,32768,32768
279.101,1.00035e-07,0,32768,32768
279.151,8.67909e-08,0,32768,32768
279.201,7.41914e-08,0,32768,32768
279.251,6.31383e-08,0,32768,32768
279.3,5.43111e-08,0,32768,32768
279.35,4.77495e-08,0,32768,32768
279.4,4.28511e-08,0,32768,32768
279.451,3.85409e-08,0,32768,32768
279.501,3.4179e-08,0,32768,32768
279.551,2.92832e-08,0,32768,32768
279.601,2.41936e-08,0,32768,32768
279.651,1.97409e-08,0,32768,32768
279.7,1.67454e-08,0,32768,32768
279.75,1.55605e-08,0,32768,32768
279.801,1.59986e-08,0,32768,32768
279.851,1.7483e-08,0,32768,32768
279.901,1.95021e-08,0,32768,32768
279.951,2.17789e-08,0,32768,32768
280.001,2.42427e-08,0,32768,32768
280.05,2.69124e-08,0,32768,32768
280.1,2.97965e-08,0,32768,32768
280.151,3.29499e-08,0,32768,32768
280.201,3.61352e-08,0,32768,32768
280.251,3.94235e-08,0,32768,32768
280.301,4.28569e-08,0,32768,32768
280.351,4.64898e-08,0,32768,32768
280.4,5.0334e-08,0,32768,32768
280.45,5.43555e-08,0,32768,32768
280.5,5.8504e-08,0,32768,32768
280.551,6.28588e-08,0,32768,32768
280.601,6.71401e-08,0,32768,32768
280.651,7.14818e-08,0,32768,32768
280.701,7.59694e-08,0,32768,32768
280.75,8.07776e-08,0,32768,32768
280.8,8.61324e-08,0,32768,32768
280.85,9.22204e-08,0,32768,32768
280.901,9.92997e-08,0,32768,32768
280.951,1.0681e-07,0,32768,32768
281.001,1.1463e-07,0,32768,32768
281.051,1.22411e-07,0,32768,32768
281.101,1.2992e-07,0,32768,32768
281.15,1.37151e-07,0,32768,32768
281.2,1.44361e-07,0,32768,32768
281.251,1.5224e-07,0,32768,32768
281.301,1.60891e-07,0,32768,32768
281.351,1.71043e-07,0,32768,32768
281.401,1.83141e-07,0,32768,32768
281.451,1.97593e-07,0,32768,32768
281.5,2.14833e-07,0,32768,32768
281.55,2.35361e-07,0,32768,32768
281.601,2.60491e-07,0,32768,32768
281.651,2.89249e-07,0,32768,32768
281.701,3.22525e-07,0,32768,32768
281.751,3.60223e-07,0,32768,32768
281.801,4.01928e-07,0,32768,32768
281.85,4.47009e-07,0,32768,32768
281.9,4.9476e-07,0,32768,32768
281.95,5.44502e-07,0,32768,32768
282.001,5.97056e-07,0,32768,32768
282.051,6.48538e-07,0,32768,32768
282.101,6.99239e-07,0,32768,32768
282.151,7.47572e-07,0,32768,32768
282.2,7.91694e-07,0,32768,32768
282.25,8.29795e-07,0,32768,32768
282.3,8.60444e-07,0,32768,32768
282.351,8.8337e-07,0,32768,32768
282.401,8.97188e-07,0,32768,32768
282.451,9.03212e-07,0,32768,32768
282.501,9.02319e-07,0,32768,32768
282.55,8.95432e-07,0,32768,32768
282.6,8.83262e-07,0,32768,32768
282.65,8.66173e-07,0,32768,32768
282.701,8.43439e-07,0,32768,32768
282.751,8.16085e-07,0,32768,32768
282.801,7.83176e-07,0,32768,32768
282.851,7.44479e-07,0,32768,32768
282.901,7.00081e-07,0,32768,32768
282.95,6.50526e-07,0,32768,32768
283,5.9685e-07,0,32768,32768
283.051,5.38805e-07,0,32768,32768
283.101,4.8139e-07,0,32768,32768
283.151,4.24575e-07,0,32768,32768
283.201,3.69697e-07,0,32768,32768
283.251,3.17698e-07,0,32768,32768
283.3,2.69098e-07,0,32768,32768
283.35,2.24065e-07,0,32768,32768
283.401,1.81382e-07,0,32768,32768
283.451,1.43372e-07,0,32768,32768
283.501,1.08717e-07,0,32768,32768
283.551,7.74859e-08,0,32768,32768
283.601,4.98185e-08,0,32768,32768
283.65,2.58039e-08,0,32768,32768
283.7,5.3464e-09,0,32768,32768
283.75,-1.18967e-08,0,32768,32768
283.801,-2.68462e-08,0,32768,32768
283.851,-3.92081e-08,0,32768,32768
283.901,-4.98344e-08,0,32768,32768
283.951,-5.88751e-08,0,32768,32768
284,-6.62954e-08,0,32768,32768
284.05,-7.20251e-08,0,32768,32768
284.1,-7.61093e-08,0,32768,32768
284.151,-7.8838e-08,0,32768,32768
284.201,-8.04317e-08,0,32768,32768
284.251,-8.136e-08,0,32768,32768
284.301,-8.18614e-08,0,32768,32768
284.351,-8.19717e-08,0,32768,32768
284.4,-8.1556e-08,0,32768,32768
284.45,-8.04213e-08,0,32768,32768
284.501,-7.83723e-08,0,32768,32768
284.551,-7.55503e-08,0,32768,32768
284.601,-7.20781e-08,0,32768,32768
284.651,-6.82031e-08,0,32768,32768
284.701,-6.41751e-08,0,32768,32768
284.75,-6.01939e-08,0,32768,32768
284.8,-5.6395e-08,0,32768,32768
284.851,-5.27605e-08,0,32768,32768
284.901,-4.95433e-08,0,32768,32768
284.951,-4.66533e-08,0,32768,32768
285.001,-4.40872e-08,0,32768,32768
285.051,-4.18248e-08,0,32768,32768
285.1,-3.98375e-08,0,32768,32768
285.15,-3.80976e-08,0,32768,32768
285.2,-3.65849e-08,0,32768,32768
285.251,-3.52529e-08,0,32768,32768
285.301,-3.41698e-08,0,32768,32768
285.351,-3.32862e-08,0,32768,32768
285.401,-3.25902e-08,0,32768,32768
285.45,-3.20662e-08,0,32768,32768
285.5,-3.16959e-08,0,32768,32768
285.55,-3.14597e-08,0,32768,32768
285.601,-3.13364e-08,0,32768,32768
285.651,-3.13136e-08,0,32768,32768
285.701,-3.13687e-08,0,32768,32768
285.751,-3.14854e-08,0,32768,32768
285.801,-3.16494e-08,0,32768,32768
285.85,-3.18488e-08,0,32768,32768
285.9,-3.20736e-08,0,32768,32768
285.951,-3.23232e-08,0,32768,32768
286.001,-3.25769e-08,0,32768,32768
286.051,-3.28359e-08,0,32768,32768
286.101,-3.30951e-08,0,32768,32768
286.151,-3.335e-08,0,32768,32768
286.2,-3.35966e-08,0,32768,32768
286.25,-3.38321e-08,0,32768,32768
286.301,-3.40609e-08,0,32768,32768
286.351,-3.42689e-08,0,32768,32768
286.401,-3.44622e-08,0,32768,32768
286.451,-3.46401e-08,0,32768,32768
286.501,-3.48015e-08,0,32768,32768
286.55,-3.49449e-08,0,32768,32768
286.6,-3.50689e-08,0,32768,32768
286.651,-3.51748e-08,0,32768,32768
286.701,-3.52559e-08,0,32768,32768
286.751,-3.53154e-08,0,32768,32768
286.801,-3.53539e-08,0,32768,32768
286.851,-3.53725e-08,0,32768,32768
286.9,-3.53726e-08,0,32768,32768
286.95,-3.53561e-08,0,32768,32768
287,-3.53251e-08,0,32768,32768
287.051,-3.52802e-08,0,32768,32768
287.101,-3.52265e-08,0,32768,32768
287.151,-3.51648e-08,0,32768,32768
287.201,-3.50972e-08,0,32768,32768
287.25,-3.50256e-08,0,32768,32768
287.3,-3.49514e-08,0,32768,32768
287.35,-3.48762e-08,0,32768,32768
287.401,-3.47988e-08,0,32768,32768
287.451,-3.4725e-08,0,32768,32768
287.501,-3.46535e-08,0,32768,32768
287.551,-3.45852e-08,0,32768,32768
287.601,-3.45209e-08,0,32768,32768
287.65,-3.44612e-08,0,32768,32768
287.7,-3.44068e-08,0,32768,32768
287.751,-3.43568e-08,0,32768,32768
287.801,-3.43144e-08,0,32768,32768
287.851,-3.42784e-08,0,32768,32768
287.901,-3.42489e-08,0,32768,32768
287.951,-3.42262e-08,0,32768,32768
288,-3.42102e-08,0,32768,32768
288.05,-3.42013e-08,0,32768,32768
288.101,-3.41994e-08,0,32768,32768
288.151,-3.42048e-08,0,32768,32768
288.201,-3.42174e-08,0,32768,32768
288.251,-3.42374e-08,0,32768,32768
288.301,-3.42647e-08,0,32768,32768
288.35,-3.42993e-08,0,32768,32768
288.4,-3.43409e-08,0,32768,32768
288.45,-3.43895e-08,0,32768,32768
288.501,-3.44465e-08,0,32768,32768
288.551,-3.45086e-08,0,32768,32768
288.601,-3.45775e-08,0,32768,32768
288.651,-3.46535e-08,0,32768,32768
288.7,-3.47372e-08,0,32768,32768
288.75,-3.48293e-08,0,32768,32768
288.8,-3.49308e-08,0,32768,32768
288.851,-3.50467e-08,0,32768,32768
288.901,-3.51719e-08,0,32768,32768
288.951,-3.53111e-08,0,32768,32768
289.001,-3.54663e-08,0,32768,32768
289.051,-3.56394e-08,0,32768,32768
289.1,-3.5832e-08,0,32768,32768
289.15,-3.60459e-08,0,32768,32768
289.201,-3.62896e-08,0,32768,32768
289.251,-3.65501e-08,0,32768,32768
289.301,-3.68345e-08,0,32768,32768
289.351,-3.71427e-08,0,32768,32768
289.401,-3.7474e-08,0,32768,32768
289.45,-3.7827e-08,0,32768,32768
289.5,-3.81993e-08,0,32768,32768
289.551,-3.85998e-08,0,32768,32768
289.601,-3.90018e-08,0,32768,32768
289.651,-3.94122e-08,0,32768,32768
289.701,-3.98265e-08,0,32768,32768
289.751,-4.02401e-08,0,32768,32768
289.8,-4.06482e-08,0,32768,32768
289.85,-4.10464e-08,0,32768,32768
289.901,-4.14416e-08,0,32768,32768
289.951,-4.18072e-08,0,32768,32768
290.001,-4.21511e-08,0,32768,32768
290.051,-4.24696e-08,0,32768,32768
290.101,-4.27593e-08,0,32768,32768
290.15,-4.30168e-08,0,32768,32768
290.2,-4.3239e-08,0,32768,32768
290.25,-4.34231e-08,0,32768,32768
290.301,-4.35704e-08,0,32768,32768
290.351,-4.36706e-08,0,32768,32768
290.401,-4.37275e-08,0,32768,32768
290.451,-4.37408e-08,0,32768,32768
290.5,-4.37103e-08,0,32768,32768
290.55,-4.36366e-08,0,32768,32768
290.6,-4.35204e-08,0,32768,32768
290.651,-4.33572e-08,0,32768,32768
290.701,-4.31569e-08,0,32768,32768
290.751,-4.29159e-08,0,32768,32768
290.801,-4.26345e-08,0,32768,32768
290.851,-4.23126e-08,0,32768,32768
290.9,-4.19498e-08,0,32768,32768
290.95,-4.15457e-08,0,32768,32768
291.001,-4.10861e-08,0,32768,32768
291.051,-4.05967e-08,0,32768,32768
291.101,-4.00647e-08,0,32768,32768
291.151,-3.94901e-08,0,32768,32768
291.201,-3.88732e-08,0,32768,32768
291.25,-3.82147e-08,0,32768,32768
291.3,-3.75159e-08,0,32768,32768
291.351,-3.67568e-08,0,32768,32768
291.401,-3.59839e-08,0,32768,32768
291.451,-3.518e-08,0,32768,32768
291.501,-3.43498e-08,0,32768,32768
291.551,-3.34988e-08,0,32768,32768
291.6,-3.2633e-08,0,32768,32768
291.65,-3.17583e-08,0,32768,32768
291.7,-3.08809e-08,0,32768,32768
291.751,-2.99807e-08,0,32768,32768
291.801,-2.91147e-08,0,32768,32768
291.851,-2.82621e-08,0,32768,32768
291.901,-2.74275e-08,0,32768,32768
291.95,-2.66155e-08,0,32768,32768
292,-2.58302e-08,0,32768,32768
292.05,-2.50757e-08,0,32768,32768
292.101,-2.43353e-08,0,32768,32768
292.151,-2.36551e-08,0,32768,32768
292.201,-2.30163e-08,0,32768,32768
292.251,-2.24214e-08,0,32768,32768
292.301,-2.18719e-08,0,32768,32768
292.35,-2.13685e-08,0,32768,32768
292.4,-2.09109e-08,0,32768,32768
292.451,-2.04866e-08,0,32768,32768
292.501,-2.01178e-08,0,32768,32768
292.551,-1.97895e-08,0,32768,32768
292.601,-1.9499e-08,0,32768,32768
292.651,-1.92435e-08,0,32768,32768
292.7,-1.902e-08,0,32768,32768
292.75,-1.88254e-08,0,32768,32768
292.801,-1.86522e-08,0,32768,32768
292.851,-1.85073e-08,0,32768,32768
292.901,-1.83824e-08,0,32768,32768
292.951,-1.82748e-08,0,32768,32768
293.001,-1.81819e-08,0,32768,32768
293.05,-1.81011e-08,0,32768,32768
293.1,-1.80305e-08,0,32768,32768
293.15,-1.7968e-08,0,32768,32768
293.201,-1.79102e-08,0,32768,32768
293.251,-1.78591e-08,0,32768,32768
293.301,-1.78114e-08,0,32768,32768
293.351,-1.77663e-08,0,32768,32768
293.4,-1.77227e-08,0,32768,32768
293.45,-1.76799e-08,0,32768,32768
293.5,-1.76372e-08,0,32768,32768
293.551,-1.75925e-08,0,32768,32768
293.601,-1.75472e-08,0,32768,32768
293.651,-1.7499e-08,0,32768,32768
293.701,-1.74467e-08,0,32768,32768
293.75,-1.73889e-08,0,32768,32768
293.8,-1.73245e-08,0,32768,32768
293.85,-1.72527e-08,0,32768,32768
293.901,-1.71702e-08,0,32768,32768
293.951,-1.70811e-08,0,32768,32768
294.001,-1.6983e-08,0,32768,32768
294.051,-1.68757e-08,0,32768,32768
294.101,-1.67595e-08,0,32768,32768
294.15,-1.66348e-08,0,32768,32768
294.2,-1.65024e-08,0,32768,32768
294.251,-1.63589e-08,0,32768,32768
294.301,-1.62134e-08,0,32768,32768
294.351,-1.60629e-08,0,32768,32768
294.401,-1.59081e-08,0,32768,32768
294.451,-1.57501e-08,0,32768,32768
294.5,-1.55897e-08,0,32768,32768
294.55,-1.54278e-08,0,32768,32768
294.601,-1.52603e-08,0,32768,32768
294.651,-1.50974e-08,0,32768,32768
294.701,-1.49343e-08,0,32768,32768
294.751,-1.47704e-08,0,32768,32768
294.801,-1.46046e-08,0,32768,32768
294.85,-1.44351e-08,0,32768,32768
294.9,-1.42603e-08,0,32768,32768
294.95,-1.40788e-08,0,32768,32768
295.001,-1.38836e-08,0,32768,32768
295.051,-1.36856e-08,0,32768,32768
295.101,-1.34794e-08,0,32768,32768
295.151,-1.32653e-08,0,32768,32768
295.2,-1.30437e-08,0,32768,32768
295.25,-1.28146e-08,0,32768,32768
295.3,-1.25775e-08,0,32768,32768
295.351,-1.23236e-08,0,32768,32768
295.401,-1.20656e-08,0,32768,32768
295.451,-1.17937e-08,0,32768,32768
295.501,-1.15051e-08,0,32768,32768
295.551,-1.11969e-08,0,32768,32768
295.6,-1.08667e-08,0,32768,32768
295.65,-1.0512e-08,0,32768,32768
295.701,-1.01195e-08,0,32768,32768
295.751,-9.71023e-09,0,32768,32768
295.801,-9.27219e-09,0,32768,32768
295.851,-8.80461e-09,0,32768,32768
295.901,-8.30691e-09,0,32768,32768
295.95,-7.77879e-09,0,32768,32768
296,-7.22041e-09,0,32768,32768
296.051,-6.61478e-09,0,32768,32768
296.101,-5.99811e-09,0,32768,32768
296.151,-5.35596e-09,0,32768,32768
296.201,-4.69168e-09,0,32768,32768
296.251,-4.00931e-09,0,32768,32768
296.3,-3.31348e-09,0,32768,32768
296.35,-2.60909e-09,0,32768,32768
296.4,-1.90117e-09,0,32768,32768
296.451,-1.17404e-09,0,32768,32768
296.501,-4.74325e-10,0,32768,32768
296.551,2.13978e-10,0,32768,32768
296.601,8.86228e-10,0,32768,32768
296.65,1.53802e-09,0,32768,32768
296.7,2.16525e-09,0,32768,32768
296.75,2.76414e-09,0,32768,32768
296.801,3.34741e-09,0,32768,32768
296.851,3.87852e-09,0,32768,32768
296.901,4.3718e-09,0,32768,32768
296.951,4.8248e-09,0,32768,32768
297.001,5.23548e-09,0,32768,32768
297.05,5.60237e-09,0,32768,32768
297.1,5.92475e-09,0,32768,32768
297.151,6.21015e-09,0,32768,32768
297.201,6.44315e-09,0,32768,32768
297.251,6.63416e-09,0,32768,32768
297.301,6.78537e-09,0,32768,32768
297.351,6.89944e-09,0,32768,32768
297.4,6.97928e-09,0,32768,32768
297.45,7.02796e-09,0,32768,32768
297.501,7.04885e-09,0,32768,32768
297.551,7.04394e-09,0,32768,32768
297.601,7.0173e-09,0,32768,32768
297.651,6.9719e-09,0,32768,32768
297.701,6.91056e-09,0,32768,32768
297.75,6.83595e-09,0,32768,32768
297.8,6.75058e-09,0,32768,32768
297.851,6.65383e-09,0,32768,32768
297.901,6.55336e-09,0,32768,32768
297.951,6.44833e-09,0,32768,32768
298.001,6.34036e-09,0,32768,32768
298.051,6.23084e-09,0,32768,32768
298.1,6.12093e-09,0,32768,32768
298.15,6.01166e-09,0,32768,32768
298.2,5.90392e-09,0,32768,32768
298.251,5.79545e-09,0,32768,32768
298.301,5.69327e-09,0,32768,32768
298.351,5.59503e-09,0,32768,32768
298.401,5.50155e-09,0,32768,32768
298.45,5.41361e-09,0,32768,32768
298.5,5.33194e-09,0,32768,32768
298.55,5.25715e-09,0,32768,32768
298.601,5.18783e-09,0,32768,32768
298.651,5.12819e-09,0,32768,32768
298.701,5.07617e-09,0,32768,32768
298.751,5.03155e-09,0,32768,32768
298.801,4.99391e-09,0,32768,32768
298.85,4.96257e-09,0,32768,32768
298.9,4.93666e-09,0,32768,32768
298.951,4.91458e-09,0,32768,32768
299.001,4.89641e-09,0,32768,32768
299.051,4.88026e-09,0,32768,32768
299.101,4.86491e-09,0,32768,32768
299.151,4.84917e-09,0,32768,32768
299.2,4.83191e-09,0,32768,32768
299.25,4.81207e-09,0,32768,32768
299.301,4.78801e-09,0,32768,32768
299.351,4.76035e-09,0,32768,32768
299.401,4.72802e-09,0,32768,32768
299.451,4.69094e-09,0,32768,32768
299.501,4.64942e-09,0,32768,32768
299.55,4.60413e-09,0,32768,32768
299.6,4.556e-09,0,32768,32768
299.65,4.50613e-09,0,32768,32768
299.701,4.45405e-09,0,32768,32768
299.751,4.4036e-09,0,32768,32768
299.801,4.35384e-09,0,32768,32768
299.851,4.30502e-09,0,32768,32768
299.9,4.25719e-09,0,32768,32768
299.95,4.21026e-09,0,32768,32768
300,4.16421e-09,0,32768,32768
300.051,4.11787e-09,0,32768,32768
300.101,4.07425e-09,0,32768,32768
300.151,4.03257e-09,0,32768,32768
300.201,3.99356e-09,0,32768,32768
300.251,3.95794e-09,0,32768,32768
300.3,3.92631e-09,0,32768,32768
300.35,3.89902e-09,0,32768,32768
300.401,3.8755e-09,0,32768,32768
300.451,3.85683e-09,0,32768,32768
300.501,3.84171e-09,0,32768,32768
300.551,3.82945e-09,0,32768,32768
300.601,3.81929e-09,0,32768,32768
300.65,3.8105e-09,0,32768,32768
300.7,3.80249e-09,0,32768,32768
300.751,3.79452e-09,0,32768,32768
300.801,3.78665e-09,0,32768,32768
300.851,3.77833e-09,0,32768,32768
300.901,3.76929e-09,0,32768,32768
300.951,3.75931e-09,0,32768,32768
301,3.74819e-09,0,32768,32768
301.05,3.73582e-09,0,32768,32768
301.1,3.72216e-09,0,32768,32768
301.151,3.70676e-09,0,32768,32768
301.201,3.69059e-09,0,32768,32768
301.251,3.67332e-09,0,32768,32768
301.301,3.65502e-09,0,32768,32768
301.35,3.63576e-09,0,32768,32768
301.4,3.61557e-09,0,32768,32768
301.45,3.5945e-09,0,32768,32768
301.501,3.57196e-09,0,32768,32768
301.551,3.54934e-09,0,32768,32768
301.601,3.5261e-09,0,32768,32768
301.651,3.50234e-09,0,32768,32768
301.701,3.47812e-09,0,32768,32768
301.75,3.45342e-09,0,32768,32768
301.8,3.42821e-09,0,32768,32768
301.851,3.40163e-09,0,32768,32768
301.901,3.37513e-09,0,32768,32768
301.951,3.34791e-09,0,32768,32768
302.001,3.31994e-09,0,32768,32768
302.051,3.29129e-09,0,32768,32768
302.1,3.26202e-09,0,32768,32768
302.15,3.23223e-09,0,32768,32768
302.201,3.20114e-09,0,32768,32768
302.251,3.17063e-09,0,32768,32768
302.301,3.13991e-09,0,32768,32768
302.351,3.10903e-09,0,32768,32768
302.401,3.07805e-09,0,32768,32768
302.45,3.047e-09,0,32768,32768
302.5,3.0159e-09,0,32768,32768
302.551,2.98385e-09,0,32768,32768
302.601,2.95267e-09,0,32768,32768
302.651,2.92145e-09,0,32768,32768
302.701,2.89019e-09,0,32768,32768
302.751,2.85888e-09,0,32768,32768
302.8,2.82751e-09,0,32768,32768
302.85,2.79606e-09,0,32768,32768
302.9,2.7645e-09,0,32768,32768
302.951,2.73188e-09,0,32768,32768
303.001,2.70003e-09,0,32768,32768
303.051,2.66798e-09,0,32768,32768
303.101,2.63569e-09,0,32768,32768
303.15,2.60312e-09,0,32768,32768
303.2,2.57024e-09,0,32768,32768
303.25,2.537e-09,0,32768,32768
303.301,2.50236e-09,0,32768,32768
303.351,2.46828e-09,0,32768,32768
303.401,2.43372e-09,0,32768,32768
303.451,2.39867e-09,0,32768,32768
303.501,2.3631e-09,0,32768,32768
303.55,2.32699e-09,0,32768,32768
303.6,2.29032e-09,0,32768,32768
303.651,2.25198e-09,0,32768,32768
303.701,2.21416e-09,0,32768,32768
303.751,2.17579e-09,0,32768,32768
303.801,2.13686e-09,0,32768,32768
303.851,2.09741e-09,0,32768,32768
303.9,2.05746e-09,0,32768,32768
303.95,2.01704e-09,0,32768,32768
304.001,1.97496e-09,0,32768,32768
304.051,1.93369e-09,0,32768,32768
304.101,1.89206e-09,0,32768,32768
304.151,1.85013e-09,0,32768,32768
304.201,1.80794e-09,0,32768,32768
304.25,1.76556e-09,0,32768,32768
304.3,1.72303e-09,0,32768,32768
304.35,1.68043e-09,0,32768,32768
304.401,1.63657e-09,0,32768,32768
304.451,1.59401e-09,0,32768,32768
304.501,1.55156e-09,0,32768,32768
304.551,1.50929e-09,0,32768,32768
304.6,1.46725e-09,0,32768,32768
304.65,1.42551e-09,0,32768,32768
304.7,1.38412e-09,0,32768,32768
304.751,1.34194e-09,0,32768,32768
304.801,1.30142e-09,0,32768,32768
304.851,1.2614e-09,0,32768,32768
304.901,1.22193e-09,0,32768,32768
304.951,1.18305e-09,0,32768,32768
