250,0,0,2048,2048
250.006,0,0,2048,2048
250.053,0,0,2048,2048
250.105,0,0,2048,2048
250.152,0,0,2048,2048
250.205,-2.77556e-17,0,2048,2048
250.252,0,0,2048,2048
250.305,-2.77556e-17,0,2048,2048
250.352,0,0,2048,2048
250.404,-2.77556e-17,0,2048,2048
250.451,0,0,2048,2048
250.504,0,0,2048,2048
250.551,-2.77556e-17,0,2048,2048
250.603,0,0,2048,2048
250.65,0,0,2048,2048
250.703,-2.77556e-17,0,2048,2048
250.756,0,0,2048,2048
250.803,-2.77556e-17,0,2048,2048
250.855,0,0,2048,2048
250.902,-2.77556e-17,0,2048,2048
250.955,-2.77556e-17,0,2048,2048
251.002,0,0,2048,2048
251.055,-2.77556e-17,0,2048,2048
251.101,-2.77556e-17,0,2048,2048
251.154,-2.77556e-17,0,2048,2048
251.201,0,0,2048,2048
251.254,0,0,2048,2048
251.301,-2.77556e-17,0,2048,2048
251.353,0,0,2048,2048
251.4,2.77556e-17,0,2048,2048
251.453,2.77556e-17,0,2048,2048
251.506,2.77556e-17,0,2048,2048
251.553,2.77556e-17,0,2048,2048
251.605,2.77556e-17,0,2048,2048
251.652,2.77556e-17,0,2048,2048
251.705,2.77556e-17,0,2048,2048
251.752,5.55112e-17,0,2048,2048
251.804,5.55112e-17,0,2048,2048
251.851,2.77556e-17,0,2048,2048
251.904,-2.77556e-17,0,2048,2048
251.951,-2.77556e-17,0,2048,2048
252.004,-2.77556e-17,0,2048,2048
252.05,-2.77556e-17,0,2048,2048
252.103,-2.77556e-17,0,2048,2048
252.15,-2.77556e-17,0,2048,2048
252.203,0,0,2048,2048
252.256,0,0,2048,2048
252.302,0,0,2048,2048
252.355,0,0,2048,2048
252.402,0,0,2048,2048
252.455,-2.77556e-17,0,2048,2048
252.502,0,0,2048,2048
252.554,0,0,2048,2048
252.601,0,0,2048,2048
252.654,0,0,2048,2048
252.701,0,0,2048,2048
252.754,0,0,2048,2048
252.8,0,0,2048,2048
252.853,0,0,2048,2048
252.906,-2.77556e-17,0,2048,2048
252.953,-2.77556e-17,0,2048,2048
253.005,-2.77556e-17,0,2048,2048
253.052,0,0,2048,2048
253.105,0,0,2048,2048
253.152,-2.77556e-17,0,2048,2048
253.205,-2.77556e-17,0,2048,2048
253.251,-2.77556e-17,0,2048,2048
253.304,0,0,2048,2048
253.351,0,0,2048,2048
253.404,0,0,2048,2048
253.451,-2.77556e-17,0,2048,2048
253.503,0,0,2048,2048
253.55,0,0,2048,2048
253.603,-2.77556e-17,0,2048,2048
253.656,-2.77556e-17,0,2048,2048
253.703,0,0,2048,2048
253.755,-2.77556e-17,0,2048,2048
253.802,2.77556e-17,0,2048,2048
253.855,2.77556e-17,0,2048,2048
253.902,2.77556e-17,0,2048,2048
253.954,8.32667e-17,0,2048,2048
254.001,5.55112e-17,0,2048,2048
254.054,2.77556e-17,0,2048,2048
254.101,2.77556e-17,0,2048,2048
254.154,5.55112e-17,0,2048,2048
254.201,5.55112e-17,0,2048,2048
254.253,5.55112e-17,0,2048,2048
254.3,2.77556e-17,0,2048,2048
254.353,5.55112e-17,0,2048,2048
254.406,2.77556e-17,0,2048,2048
254.452,2.77556e-17,0,2048,2048
254.505,2.77556e-17,0,2048,2048
254.552,2.77556e-17,0,2048,2048
254.605,2.77556e-17,0,2048,2048
254.652,2.77556e-17,0,2048,2048
254.704,0,0,2048,2048
254.751,0,0,2048,2048
254.804,0,0,2048,2048
254.851,0,0,2048,2048
254.904,2.77556e-17,0,2048,2048
254.95,-2.77556e-17,0,2048,2048
255.003,0,0,2048,2048
255.05,0,0,2048,2048
255.103,0,0,2048,2048
255.155,0,0,2048,2048
255.202,0,0,2048,2048
255.255,0,0,2048,2048
255.302,0,0,2048,2048
255.355,0,0,2048,2048
255.402,0,0,2048,2048
255.454,-5.55112e-17,0,2048,2048
255.501,-5.55112e-17,0,2048,2048
255.554,-2.77556e-17,0,2048,2048
255.601,-2.77556e-17,0,2048,2048
255.653,-2.77556e-17,0,2048,2048
255.7,-5.55112e-17,0,2048,2048
255.753,0,0,2048,2048
255.806,0,0,2048,2048
255.853,0,0,2048,2048
255.905,0,0,2048,2048
255.952,-2.77556e-17,0,2048,2048
256.005,-2.77556e-17,0,2048,2048
256.052,0,0,2048,2048
256.105,0,0,2048,2048
256.151,5.55112e-17,0,2048,2048
256.204,2.77556e-17,0,2048,2048
256.251,0,0,2048,2048
256.304,2.77556e-17,0,2048,2048
256.351,2.77556e-17,0,2048,2048
256.403,2.77556e-17,0,2048,2048
256.45,2.77556e-17,0,2048,2048
256.503,2.77556e-17,0,2048,2048
256.556,2.77556e-17,0,2048,2048
256.603,5.55112e-17,0,2048,2048
256.655,5.55112e-17,0,2048,2048
256.702,5.55112e-17,0,2048,2048
256.755,5.55112e-17,0,2048,2048
256.802,2.77556e-17,0,2048,2048
256.854,2.77556e-17,0,2048,2048
256.901,2.77556e-17,0,2048,2048
256.954,2.77556e-17,0,2048,2048
257.001,2.77556e-17,0,2048,2048
257.054,2.77556e-17,0,2048,2048
257.101,2.77556e-17,0,2048,2048
257.153,2.77556e-17,0,2048,2048
257.2,2.77556e-17,0,2048,2048
257.253,2.77556e-17,0,2048,2048
257.306,5.55112e-17,0,2048,2048
257.352,0,0,2048,2048
257.405,0,0,2048,2048
257.452,0,0,2048,2048
257.505,-2.77556e-17,0,2048,2048
257.552,-2.77556e-17,0,2048,2048
257.604,-2.77556e-17,0,2048,2048
257.651,0,0,2048,2048
257.704,-2.77556e-17,0,2048,2048
257.751,-2.77556e-17,0,2048,2048
257.804,-2.77556e-17,0,2048,2048
257.85,-5.55112e-17,0,2048,2048
257.903,-5.55112e-17,0,2048,2048
257.95,-5.55112e-17,0,2048,2048
258.003,-5.55112e-17,0,2048,2048
258.055,-2.77556e-17,0,2048,2048
258.102,-2.77556e-17,0,2048,2048
258.155,-2.77556e-17,0,2048,2048
258.202,-2.77556e-17,0,2048,2048
258.255,-2.77556e-17,0,2048,2048
258.302,-2.77556e-17,0,2048,2048
258.354,0,0,2048,2048
258.401,-2.77556e-17,0,2048,2048
258.454,0,0,2048,2048
258.501,0,0,2048,2048
258.553,0,0,2048,2048
258.6,0,0,2048,2048
258.653,2.77556e-17,0,2048,2048
258.706,0,0,2048,2048
258.753,0,0,2048,2048
258.805,-2.77556e-17,0,2048,2048
258.852,-2.77556e-17,0,2048,2048
258.905,-2.77556e-17,0,2048,2048
258.952,-2.77556e-17,0,2048,2048
259.005,-2.77556e-17,0,2048,2048
259.051,-2.77556e-17,0,2048,2048
259.104,-2.77556e-17,0,2048,2048
259.151,0,0,2048,2048
259.204,0,0,2048,2048
259.251,0,0,2048,2048
259.303,-5.55112e-17,0,2048,2048
259.35,-5.55112e-17,0,2048,2048
259.403,-2.77556e-17,0,2048,2048
259.456,-5.55112e-17,0,2048,2048
259.503,-2.77556e-17,0,2048,2048
259.555,-2.77556e-17,0,2048,2048
259.602,-2.77556e-17,0,2048,2048
259.655,-2.77556e-17,0,2048,2048
259.702,-5.55112e-17,0,2048,2048
259.754,-2.77556e-17,0,2048,2048
259.801,-5.55112e-17,0,2048,2048
259.854,-2.77556e-17,0,2048,2048
259.901,-2.77556e-17,0,2048,2048
259.954,-2.77556e-17,0,2048,2048
260,-2.77556e-17,0,2048,2048
260.053,-2.77556e-17,0,2048,2048
260.1,-2.77556e-17,0,2048,2048
260.153,-2.77556e-17,0,2048,2048
260.206,-2.77556e-17,0,2048,2048
260.252,0,0,2048,2048
260.305,0,0,2048,2048
260.352,0,0,2048,2048
260.405,0,0,2048,2048
260.452,2.77556e-17,0,2048,2048
260.504,2.77556e-17,0,2048,2048
260.551,2.77556e-17,0,2048,2048
260.604,0,0,2048,2048
260.651,0,0,2048,2048
260.704,0,0,2048,2048
260.75,-2.77556e-17,0,2048,2048
260.803,0,0,2048,2048
260.856,0,0,2048,2048
260.903,-2.77556e-17,0,2048,2048
260.955,0,0,2048,2048
261.002,2.77556e-17,0,2048,2048
261.055,2.77556e-17,0,2048,2048
261.102,2.77556e-17,0,2048,2048
261.155,2.77556e-17,0,2048,2048
261.201,2.77556e-17,0,2048,2048
261.254,2.77556e-17,0,2048,2048
261.301,2.77556e-17,0,2048,2048
261.354,2.77556e-17,0,2048,2048
261.401,0,0,2048,2048
261.453,0,0,2048,2048
261.5,0,0,2048,2048
261.553,2.77556e-17,0,2048,2048
261.606,5.55112e-17,0,2048,2048
261.653,2.77556e-17,0,2048,2048
261.705,5.55112e-17,0,2048,2048
261.752,5.55112e-17,0,2048,2048
261.805,5.55112e-17,0,2048,2048
261.852,5.55112e-17,0,2048,2048
261.905,5.55112e-17,0,2048,2048
261.951,5.55112e-17,0,2048,2048
262.004,2.77556e-17,0,2048,2048
262.051,5.55112e-17,0,2048,2048
262.104,5.55112e-17,0,2048,2048
262.151,0,0,2048,2048
262.203,0,0,2048,2048
262.25,0,0,2048,2048
262.303,2.77556e-17,0,2048,2048
262.356,2.77556e-17,0,2048,2048
262.402,2.77556e-17,0,2048,2048
262.455,0,0,2048,2048
262.502,0,0,2048,2048
262.555,0,0,2048,2048
262.602,0,0,2048,2048
262.654,0,0,2048,2048
262.701,2.77556e-17,0,2048,2048
262.754,0,0,2048,2048
262.801,0,0,2048,2048
262.854,-2.77556e-17,0,2048,2048
262.9,0,0,2048,2048
262.953,2.77556e-17,0,2048,2048
263,2.77556e-17,0,2048,2048
263.053,2.77556e-17,0,2048,2048
263.105,2.77556e-17,0,2048,2048
263.152,2.77556e-17,0,2048,2048
263.205,2.77556e-17,0,2048,2048
263.252,2.77556e-17,0,2048,2048
263.305,0,0,2048,2048
263.352,0,0,2048,2048
263.404,0,0,2048,2048
263.451,0,0,2048,2048
263.504,0,0,2048,2048
263.551,0,0,2048,2048
263.603,0,0,2048,2048
263.65,0,0,2048,2048
263.703,-2.77556e-17,0,2048,2048
263.756,0,0,2048,2048
263.803,-2.77556e-17,0,2048,2048
263.855,0,0,2048,2048
263.902,0,0,2048,2048
263.955,2.77556e-17,0,2048,2048
264.002,2.77556e-17,0,2048,2048
264.055,2.77556e-17,0,2048,2048
264.101,2.77556e-17,0,2048,2048
264.154,2.77556e-17,0,2048,2048
264.201,5.55112e-17,0,2048,2048
264.254,2.77556e-17,0,2048,2048
264.301,0,0,2048,2048
264.353,0,0,2048,2048
264.4,-2.77556e-17,0,2048,2048
264.453,0,0,2048,2048
264.506,2.77556e-17,0,2048,2048
264.553,2.77556e-17,0,2048,2048
264.605,2.77556e-17,0,2048,2048
264.652,8.32667e-17,0,2048,2048
264.705,8.32667e-17,0,2048,2048
264.752,2.77556e-17,0,2048,2048
264.804,5.55112e-17,0,2048,2048
264.851,2.77556e-17,0,2048,2048
264.904,0,0,2048,2048
264.951,0,0,2048,2048
265.004,0,0,2048,2048
265.051,0,0,2048,2048
265.103,-2.77556e-17,0,2048,2048
265.15,0,0,2048,2048
265.203,-2.77556e-17,0,2048,2048
265.256,0,0,2048,2048
265.302,2.77556e-17,0,2048,2048
265.355,0,0,2048,2048
265.402,-2.77556e-17,0,2048,2048
265.455,-2.77556e-17,0,2048,2048
265.502,-2.77556e-17,0,2048,2048
265.554,0,0,2048,2048
265.601,-2.77556e-17,0,2048,2048
265.654,-2.77556e-17,0,2048,2048
265.701,-5.55112e-17,0,2048,2048
265.754,-8.32667e-17,0,2048,2048
265.8,-5.55112e-17,0,2048,2048
265.853,-2.77556e-17,0,2048,2048
265.9,-2.77556e-17,0,2048,2048
265.953,-2.77556e-17,0,2048,2048
266.005,-2.77556e-17,0,2048,2048
266.052,-2.77556e-17,0,2048,2048
266.105,-2.77556e-17,0,2048,2048
266.152,-5.55112e-17,0,2048,2048
266.205,-5.55112e-17,0,2048,2048
266.252,-8.32667e-17,0,2048,2048
266.304,-5.55112e-17,0,2048,2048
266.351,-8.32667e-17,0,2048,2048
266.404,-8.32667e-17,0,2048,2048
266.451,-5.55112e-17,0,2048,2048
266.503,-2.77556e-17,0,2048,2048
266.55,0,0,2048,2048
266.603,0,0,2048,2048
266.656,-2.77556e-17,0,2048,2048
266.703,-2.77556e-17,0,2048,2048
266.755,-5.55112e-17,0,2048,2048
266.802,-5.55112e-17,0,2048,2048
266.855,-2.77556e-17,0,2048,2048
266.902,-5.55112e-17,0,2048,2048
266.955,-5.55112e-17,0,2048,2048
267.001,-5.55112e-17,0,2048,2048
267.054,-5.55112e-17,0,2048,2048
267.101,-8.32667e-17,0,2048,2048
267.154,-5.55112e-17,0,2048,2048
267.201,-5.55112e-17,0,2048,2048
267.253,-2.77556e-17,0,2048,2048
267.3,-2.77556e-17,0,2048,2048
267.353,0,0,2048,2048
267.406,-2.77556e-17,0,2048,2048
267.453,-2.77556e-17,0,2048,2048
267.505,-2.77556e-17,0,2048,2048
267.552,-2.77556e-17,0,2048,2048
267.605,-5.55112e-17,0,2048,2048
267.652,-5.55112e-17,0,2048,2048
267.704,-1.11022e-16,0,2048,2048
267.751,-5.55112e-17,0,2048,2048
267.804,-5.55112e-17,0,2048,2048
267.851,-5.55112e-17,0,2048,2048
267.904,-2.77556e-17,0,2048,2048
267.95,-5.55112e-17,0,2048,2048
268.003,-2.77556e-17,0,2048,2048
268.05,-2.77556e-17,0,2048,2048
268.102,2.77556e-17,0,2054,2054
268.153,2.77556e-17,0,2048,2048
268.206,-2.77556e-17,0,2048,2048
268.253,-2.77556e-17,0,2048,2048
268.305,0,0,2048,2048
268.352,-2.77556e-17,0,2048,2048
268.405,-2.77556e-17,0,2048,2048
268.452,-2.77556e-17,0,2048,2048
268.504,5.55112e-17,0,2048,2048
268.551,5.55112e-17,0,2048,2048
268.604,5.55112e-17,0,2048,2048
268.651,5.55112e-17,0,2048,2048
268.704,5.55112e-17,0,2048,2048
268.751,5.55112e-17,0,2048,2048
268.803,5.55112e-17,0,2048,2048
268.85,2.77556e-17,0,2048,2048
268.903,5.55112e-17,0,2048,2048
268.956,5.55112e-17,0,2048,2048
269.002,8.32667e-17,0,2048,2048
269.055,5.55112e-17,0,2048,2048
269.102,5.55112e-17,0,2048,2048
269.155,5.55112e-17,0,2048,2048
269.202,5.55112e-17,0,2048,2048
269.254,5.55112e-17,0,2048,2048
269.301,2.77556e-17,0,2048,2048
269.354,5.55112e-17,0,2048,2048
269.401,1.38778e-15,0,2048,2048
269.454,4.0884e-14,0,2048,2048
269.5,2.67952e-13,0,2048,2048
269.553,-5.92359e-13,0,2048,2048
269.604,-1.56703e-11,0,2050,2050
269.654,-7.53408e-11,0,2050,2050
269.703,-1.87104e-10,0,2050,2050
269.752,-2.95647e-10,0,2094,2094
269.802,-3.13484e-10,0,2134,2134
269.851,-2.05958e-10,0,2166,2166
269.901,-2.87281e-11,0,2258,2258
269.951,1.17483e-10,0,2402,2402
270.001,1.62072e-10,0,2534,2534
270.051,1.10998e-10,0,2682,2682
270.1,3.39609e-11,0,2826,2826
270.15,4.648e-12,0,2938,2938
270.201,4.5201e-11,0,2966,2966
270.251,1.11012e-10,0,3042,3042
270.301,1.44776e-10,0,3090,3090
270.351,1.2477e-10,0,3226,3226
270.401,7.80828e-11,0,3486,3486
270.45,5.00617e-11,0,3734,3734
270.501,6.35974e-11,0,4002,4002
270.551,1.02905e-10,0,4326,4326
270.6,1.34453e-10,0,4782,4782
270.65,1.35038e-10,0,5438,5438
270.701,1.07585e-10,0,6110,6110
270.75,7.71878e-11,0,6950,6950
270.8,6.88228e-11,0,7822,7822
270.85,9.0248e-11,0,8722,8722
270.901,1.25581e-10,0,9618,9618
270.95,1.4385e-10,0,10518,10518
271,1.27174e-10,0,11402,11402
271.051,8.82536e-11,0,12338,12338
271.101,6.86794e-11,0,13290,13290
271.15,9.89699e-11,0,14222,14222
271.2,1.60622e-10,0,15126,15126
271.251,1.8149e-10,0,15994,15994
271.3,9.13374e-11,0,16914,16914
271.35,-8.63098e-11,0,17782,17782
271.4,-1.92123e-10,0,18686,18686
271.451,2.47854e-11,0,19298,19298
271.5,1.04094e-09,0,19498,19498
271.55,4.05484e-09,0,19552,19552
271.601,1.11001e-08,0,19542,19542
271.65,1.744e-08,0,19658,19658
271.7,2.24765e-08,0,19858,19858
271.75,2.60314e-08,0,20114,20114
271.801,2.84353e-08,0,20654,20654
271.85,3.03917e-08,0,21398,21398
271.9,3.31849e-08,0,22058,22058
271.951,3.79781e-08,0,22962,22962
272.001,4.4931e-08,0,23762,23762
272.05,5.66143e-08,0,24534,24534
272.1,6.89943e-08,0,25366,25366
272.151,8.28006e-08,0,26170,26170
272.2,9.78274e-08,0,27058,27058
272.25,1.16208e-07,0,27986,27986
272.3,1.47392e-07,0,28926,28926
272.351,1.79087e-07,0,29854,29854
272.4,2.21852e-07,0,30898,30898
272.45,2.68146e-07,0,31698,31698
272.501,3.17166e-07,0,32602,32602
272.55,3.65075e-07,0,33374,33374
272.6,4.12763e-07,0,34270,34270
272.65,4.63161e-07,0,35106,35106
272.701,5.19743e-07,0,35962,35962
272.75,5.79625e-07,0,36766,36766
272.8,6.38703e-07,0,37658,37658
272.85,6.91802e-07,0,38480,38480
272.901,7.36336e-07,0,39394,39394
272.95,7.6976e-07,0,40214,40214
273,7.92405e-07,0,41036,41036
273.051,8.05978e-07,0,41688,41688
273.1,8.12797e-07,0,42332,42332
273.15,8.14011e-07,0,42304,42304
273.2,8.14314e-07,0,42460,42460
273.251,8.13917e-07,0,42372,42372
273.3,8.09749e-07,0,42464,42464
273.35,8.00703e-07,0,42596,42596
273.401,7.87614e-07,0,42694,42694
273.45,7.71196e-07,0,42700,42700
273.5,7.39969e-07,0,42714,42714
273.55,7.06907e-07,0,42838,42838
273.601,6.6106e-07,0,42962,42962
273.65,6.12039e-07,0,43008,43008
273.7,5.60647e-07,0,42912,42912
273.75,5.10198e-07,0,42624,42624
273.801,4.6187e-07,0,42304,42304
273.85,4.17801e-07,0,42250,42250
273.9,3.77574e-07,0,41982,41982
273.951,3.40393e-07,0,41786,41786
274,3.06613e-07,0,41840,41840
274.05,2.74936e-07,0,41674,41674
274.1,2.44784e-07,0,41522,41522
274.151,2.15289e-07,0,41670,41670
274.2,1.8733e-07,0,41570,41570
274.25,1.61899e-07,0,41514,41514
274.301,1.41074e-07,0,41666,41666
274.351,1.26901e-07,0,41558,41558
274.4,1.17251e-07,0,41592,41592
274.45,1.08194e-07,0,41528,41528
274.501,9.64117e-08,0,41474,41474
274.55,8.26602e-08,0,41364,41364
274.6,6.95067e-08,0,41194,41194
274.65,5.91937e-08,0,41108,41108
274.701,5.13717e-08,0,40958,40958
274.75,4.89612e-08,0,40782,40782
274.8,4.6311e-08,0,40600,40600
274.851,4.34604e-08,0,40436,40436
274.9,3.95492e-08,0,40360,40360
274.95,3.41302e-08,0,40186,40186
275,2.80271e-08,0,40110,40110
275.05,2.28038e-08,0,40038,40038
275.1,1.97045e-08,0,39844,39844
275.15,1.89042e-08,0,39728,39728
275.201,1.90334e-08,0,39540,39540
275.251,1.92525e-08,0,39500,39500
275.3,1.95085e-08,0,39274,39274
275.35,1.97355e-08,0,39184,39184
275.4,1.99042e-08,0,39094,39094
275.451,2.00117e-08,0,38958,38958
275.5,2.00454e-08,0,38766,38766
275.55,2.00015e-08,0,38704,38704
275.601,1.98852e-08,0,38568,38568
275.65,1.97243e-08,0,38450,38450
275.7,1.95554e-08,0,38298,38298
275.75,1.94134e-08,0,38188,38188
275.801,1.93173e-08,0,38052,38052
275.85,1.92691e-08,0,38002,38002
275.9,1.92567e-08,0,37812,37812
275.95,1.92675e-08,0,37706,37706
276,1.92913e-08,0,37574,37574
276.051,1.93216e-08,0,37496,37496
276.1,1.9354e-08,0,37362,37362
276.15,1.9387e-08,0,37318,37318
276.2,1.94204e-08,0,37208,37208
276.251,1.9454e-08,0,37086,37086
276.3,1.94872e-08,0,36930,36930
276.35,1.95207e-08,0,36822,36822
276.401,1.95551e-08,0,36742,36742
276.45,1.95888e-08,0,36574,36574
276.5,1.96232e-08,0,36482,36482
276.55,1.96568e-08,0,36440,36440
276.601,1.96905e-08,0,36290,36290
276.651,1.97237e-08,0,36234,36234
276.7,1.97569e-08,0,36110,36110
276.75,1.97912e-08,0,36130,36130
276.8,1.98251e-08,0,35954,35954
276.851,1.98595e-08,0,35856,35856
276.901,1.98932e-08,0,35830,35830
276.95,1.99268e-08,0,35708,35708
277.001,1.99615e-08,0,35624,35624
277.05,1.99961e-08,0,35562,35562
277.1,2.00308e-08,0,35486,35486
277.15,2.00653e-08,0,35408,35408
277.201,2.00998e-08,0,35436,35436
277.25,2.01339e-08,0,35284,35284
277.3,2.01684e-08,0,35202,35202
277.35,2.02033e-08,0,35218,35218
277.4,2.02385e-08,0,35134,35134
277.451,2.0274e-08,0,35042,35042
277.5,2.03093e-08,0,35018,35018
277.55,2.03448e-08,0,34994,34994
277.6,2.03805e-08,0,34896,34896
277.651,2.04165e-08,0,34834,34834
277.7,2.04519e-08,0,34756,34756
277.751,2.0488e-08,0,34804,34804
277.801,2.05237e-08,0,34574,34574
277.851,2.05598e-08,0,34574,34574
277.9,2.05957e-08,0,34518,34518
277.951,2.06327e-08,0,34456,34456
278.001,2.06689e-08,0,34426,34426
278.051,2.07046e-08,0,34274,34274
278.101,2.07393e-08,0,34180,34180
278.151,2.07727e-08,0,34108,34108
278.2,2.08041e-08,0,34070,34070
278.251,2.08344e-08,0,33970,33970
278.3,2.08625e-08,0,33780,33780
278.351,2.08889e-08,0,33684,33684
278.4,2.09126e-08,0,33506,33506
278.451,2.09339e-08,0,33462,33462
278.501,2.09517e-08,0,33374,33374
278.55,2.0966e-08,0,33120,33120
278.6,2.0976e-08,0,33024,33024
278.65,2.09809e-08,0,32846,32846
278.7,2.09796e-08,0,32826,32826
278.751,2.09705e-08,0,33158,33158
278.801,2.09518e-08,0,33286,33286
278.85,2.0922e-08,0,33116,33116
278.9,2.08774e-08,0,32732,32732
278.951,2.08155e-08,0,32604,32604
279,2.07349e-08,0,32288,32288
279.05,2.06315e-08,0,31910,31910
279.101,2.04999e-08,0,31542,31542
279.15,2.03426e-08,0,31146,31146
279.2,2.01555e-08,0,30992,30992
279.25,1.99369e-08,0,30384,30384
279.3,1.96858e-08,0,29854,29854
279.35,1.94016e-08,0,29518,29518
279.4,1.90844e-08,0,29104,29104
279.451,1.87351e-08,0,28820,28820
279.501,1.83555e-08,0,28332,28332
279.55,1.79563e-08,0,27444,27444
279.601,1.75253e-08,0,26654,26654
279.65,1.70828e-08,0,26134,26134
279.701,1.66155e-08,0,25286,25286
279.751,1.61453e-08,0,24516,24516
279.8,1.56668e-08,0,24096,24096
279.85,1.51833e-08,0,23538,23538
279.9,1.46977e-08,0,22850,22850
279.95,1.4213e-08,0,21544,21544
280.001,1.37324e-08,0,20538,20538
280.051,1.32589e-08,0,18888,18888
280.101,1.2803e-08,0,17328,17328
280.15,1.23608e-08,0,15084,15084
280.2,1.19366e-08,0,12286,12286
280.25,1.15329e-08,0,11962,11962
280.3,1.11533e-08,0,11958,11958
280.351,1.07936e-08,0,14316,14316
280.4,1.04671e-08,0,15280,15280
280.451,1.01638e-08,0,16378,16378
280.5,9.89198e-09,0,17904,17904
280.551,9.6416e-09,0,18962,18962
280.6,9.42176e-09,0,19632,19632
280.651,9.22191e-09,0,20304,20304
280.7,9.04816e-09,0,20976,20976
280.751,8.89166e-09,0,21342,21342
280.801,8.75421e-09,0,21928,21928
280.85,8.63606e-09,0,22320,22320
280.9,8.53073e-09,0,22690,22690
280.951,8.43909e-09,0,23102,23102
281.001,8.35969e-09,0,23524,23524
281.051,8.29118e-09,0,23968,23968
281.101,8.23238e-09,0,24448,24448
281.15,8.18221e-09,0,24966,24966
281.2,8.1397e-09,0,25366,25366
281.251,8.10334e-09,0,25818,25818
281.301,8.0737e-09,0,26378,26378
281.35,8.0493e-09,0,27010,27010
281.401,8.02914e-09,0,27654,27654
281.451,8.01317e-09,0,28414,28414
281.5,8.00106e-09,0,29118,29118
281.55,7.9919e-09,0,29776,29776
281.601,7.98557e-09,0,30482,30482
281.651,7.98168e-09,0,31270,31270
281.701,7.97989e-09,0,31928,31928
281.751,7.97986e-09,0,32128,32128
281.801,7.98127e-09,0,32346,32346
281.85,7.98383e-09,0,32416,32416
281.9,7.98727e-09,0,32394,32394
281.951,7.99145e-09,0,32510,32510
282,7.99601e-09,0,32756,32756
282.051,8.00098e-09,0,33122,33122
282.1,8.00607e-09,0,33508,33508
282.15,8.01141e-09,0,33780,33780
282.201,8.01688e-09,0,33982,33982
282.251,8.02243e-09,0,34244,34244
282.3,8.02794e-09,0,34468,34468
282.35,8.0336e-09,0,34616,34616
282.4,8.03926e-09,0,34866,34866
282.451,8.04501e-09,0,34964,34964
282.501,8.05062e-09,0,35146,35146
282.55,8.05619e-09,0,35260,35260
282.6,8.06173e-09,0,35394,35394
282.651,8.06738e-09,0,35436,35436
282.7,8.07296e-09,0,35536,35536
282.751,8.07871e-09,0,35608,35608
282.8,8.08448e-09,0,35714,35714
282.85,8.09054e-09,0,35802,35802
282.9,8.09686e-09,0,35982,35982
282.951,8.10357e-09,0,36070,36070
283.001,8.11086e-09,0,36262,36262
283.05,8.11902e-09,0,36394,36394
283.101,8.12863e-09,0,36356,36356
283.15,8.13993e-09,0,36440,36440
283.2,8.15409e-09,0,36526,36526
283.25,8.17188e-09,0,36572,36572
283.301,8.19492e-09,0,36686,36686
283.35,8.22376e-09,0,36660,36660
283.4,8.26099e-09,0,36782,36782
283.45,8.30791e-09,0,36784,36784
283.5,8.36636e-09,0,36884,36884
283.551,8.43974e-09,0,36910,36910
283.6,8.52763e-09,0,36990,36990
283.65,8.63553e-09,0,37042,37042
283.7,8.76465e-09,0,37112,37112
283.751,8.92092e-09,0,37206,37206
283.8,9.10237e-09,0,37246,37246
283.851,9.31933e-09,0,37352,37352
283.901,9.57336e-09,0,37476,37476
283.951,9.86929e-09,0,37546,37546
284,1.02121e-08,0,37656,37656
284.051,1.0614e-08,0,37758,37758
284.101,1.10744e-08,0,37806,37806
284.151,1.15976e-08,0,37852,37852
284.201,1.21875e-08,0,37922,37922
284.25,1.28476e-08,0,38056,38056
284.301,1.35941e-08,0,38114,38114
284.351,1.44196e-08,0,38184,38184
284.401,1.53277e-08,0,38272,38272
284.45,1.64317e-08,0,38376,38376
284.501,1.82383e-08,0,38394,38394
284.55,2.00619e-08,0,38578,38578
284.6,2.20035e-08,0,38644,38644
284.65,2.39761e-08,0,38768,38768
284.701,2.67184e-08,0,38770,38770
284.75,2.94835e-08,0,38754,38754
284.8,3.24216e-08,0,38778,38778
284.85,3.55e-08,0,38784,38784
284.9,3.87181e-08,0,38742,38742
284.951,4.21202e-08,0,38750,38750
285,4.55802e-08,0,38734,38734
285.05,4.91852e-08,0,38722,38722
285.1,5.28509e-08,0,38772,38772
285.151,5.66064e-08,0,38860,38860
285.2,6.03112e-08,0,38948,38948
285.25,6.40752e-08,0,38996,38996
285.301,6.78566e-08,0,39148,39148
285.35,7.1695e-08,0,39284,39284
285.4,7.59659e-08,0,39388,39388
285.45,8.25623e-08,0,39446,39446
285.501,8.84513e-08,0,39586,39586
285.551,9.42387e-08,0,39646,39646
285.6,1.00172e-07,0,39730,39730
285.65,1.06328e-07,0,39948,39948
285.7,1.12809e-07,0,39958,39958
285.75,1.195e-07,0,40030,40030
285.8,1.26385e-07,0,40178,40178
285.85,1.33477e-07,0,40264,40264
285.901,1.40967e-07,0,40382,40382
285.951,1.48888e-07,0,40492,40492
286,1.58754e-07,0,40590,40590
286.051,1.70246e-07,0,40646,40646
286.1,1.82278e-07,0,40772,40772
286.151,1.95274e-07,0,40848,40848
286.2,2.08835e-07,0,40912,40912
286.25,2.23481e-07,0,40978,40978
286.301,2.50466e-07,0,41050,41050
286.35,2.92065e-07,0,41044,41044
286.4,3.31849e-07,0,41114,41114
286.45,3.73167e-07,0,41178,41178
286.501,4.16549e-07,0,41238,41238
286.55,4.60539e-07,0,41298,41298
286.6,5.05689e-07,0,41280,41280
286.651,5.52606e-07,0,41322,41322
286.7,5.99408e-07,0,41362,41362
286.75,6.45472e-07,0,41316,41316
286.8,6.88724e-07,0,41398,41398
286.851,7.27237e-07,0,41384,41384
286.9,7.57811e-07,0,41432,41432
286.95,7.79682e-07,0,41516,41516
287.001,7.91731e-07,0,41576,41576
287.051,7.92412e-07,0,41590,41590
287.1,7.90634e-07,0,41608,41608
287.15,7.86417e-07,0,41538,41538
287.201,7.7775e-07,0,41432,41432
287.25,7.66335e-07,0,41250,41250
287.3,7.53629e-07,0,41068,41068
287.35,7.39455e-07,0,40912,40912
287.401,7.13773e-07,0,40812,40812
287.45,6.85818e-07,0,40726,40726
287.5,6.48106e-07,0,40704,40704
287.551,6.00829e-07,0,40596,40596
287.6,5.50793e-07,0,40260,40260
287.65,4.98264e-07,0,40202,40202
287.7,4.44944e-07,0,40032,40032
287.751,3.91688e-07,0,39568,39568
287.8,3.41382e-07,0,39392,39392
287.85,2.94187e-07,0,39296,39296
287.9,2.50579e-07,0,39092,39092
287.951,2.10047e-07,0,38680,38680
288,1.73491e-07,0,37806,37806
288.05,1.3988e-07,0,37032,37032
288.101,1.08427e-07,0,36148,36148
288.15,7.99933e-08,0,35370,35370
288.2,5.44069e-08,0,34538,34538
288.25,3.21323e-08,0,33862,33862
288.301,1.32365e-08,0,32948,32948
288.35,-1.87185e-09,0,32196,32196
288.4,-1.41655e-08,0,31366,31366
288.451,-2.47626e-08,0,30490,30490
288.501,-3.42186e-08,0,29644,29644
288.55,-4.30822e-08,0,28824,28824
288.6,-5.1418e-08,0,27946,27946
288.651,-5.90848e-08,0,27192,27192
288.7,-6.08595e-08,0,27148,27148
288.75,-6.10459e-08,0,27190,27190
288.8,-6.10065e-08,0,27140,27140
288.851,-6.07794e-08,0,27000,27000
288.9,-6.0353e-08,0,26754,26754
288.95,-5.97309e-08,0,26538,26538
289.001,-5.89068e-08,0,26290,26290
289.05,-5.77927e-08,0,25578,25578
289.1,-5.59398e-08,0,24664,24664
289.15,-5.36796e-08,0,23792,23792
289.201,-5.09237e-08,0,22800,22800
289.25,-4.80036e-08,0,21886,21886
289.3,-4.49082e-08,0,20978,20978
289.351,-4.16502e-08,0,20076,20076
289.401,-3.83912e-08,0,19160,19160
289.45,-3.51444e-08,0,18300,18300
289.5,-3.19746e-08,0,17410,17410
289.551,-2.88943e-08,0,16514,16514
289.6,-2.60407e-08,0,15624,15624
289.65,-2.34001e-08,0,14724,14724
289.7,-2.09878e-08,0,13880,13880
289.751,-1.87773e-08,0,12980,12980
289.8,-1.68315e-08,0,12102,12102
289.85,-1.51123e-08,0,11186,11186
289.901,-1.35926e-08,0,10300,10300
289.95,-1.23082e-08,0,9394,9394
290,-1.12265e-08,0,8504,8504
290.05,-1.03341e-08,0,7638,7638
290.101,-9.61099e-09,0,6752,6752
290.15,-9.0425e-09,0,5846,5846
290.2,-8.55693e-09,0,4952,4952
290.251,-8.34722e-09,0,4038,4038
290.301,-8.23362e-09,0,3356,3356
290.351,-8.16038e-09,0,3260,3260
290.401,-8.12946e-09,0,3228,3228
290.451,-8.13714e-09,0,3232,3232
290.5,-8.17617e-09,0,3232,3232
290.55,-8.24384e-09,0,3244,3244
290.602,-8.33984e-09,0,3236,3236
290.652,-8.45266e-09,0,3228,3228
290.701,-8.58447e-09,0,3230,3230
290.751,-8.7339e-09,0,3214,3214
290.801,-8.89731e-09,0,3170,3170
290.85,-9.06936e-09,0,3106,3106
290.9,-9.24423e-09,0,3054,3054
290.952,-9.42469e-09,0,2990,2990
291.002,-9.59365e-09,0,2954,2954
291.051,-9.75624e-09,0,2898,2898
291.101,-9.9113e-09,0,2850,2850
291.151,-1.0058e-08,0,2790,2790
291.201,-1.01956e-08,0,2742,2742
291.25,-1.03232e-08,0,2690,2690
291.302,-1.04451e-08,0,2626,2626
291.352,-1.05514e-08,0,2574,2574
291.401,-1.06465e-08,0,2522,2522
291.451,-1.07301e-08,0,2458,2458
291.501,-1.08018e-08,0,2402,2402
291.551,-1.08623e-08,0,2342,2342
291.6,-1.09125e-08,0,2294,2294
291.652,-1.09552e-08,0,2234,2234
291.702,-1.09884e-08,0,2194,2194
291.752,-1.10143e-08,0,2142,2142
291.802,-1.1034e-08,0,2102,2102
291.852,-1.10475e-08,0,2066,2066
291.902,-1.10556e-08,0,2048,2048
291.955,-1.10584e-08,0,2048,2048
292.002,-1.10572e-08,0,2048,2048
292.054,-1.10531e-08,0,2048,2048
292.101,-1.10484e-08,0,2048,2048
292.154,-1.10432e-08,0,2048,2048
292.201,-1.10393e-08,0,2048,2048
292.254,-1.10365e-08,0,2048,2048
292.301,-1.10359e-08,0,2048,2048
292.353,-1.10377e-08,0,2048,2048
292.4,-1.1042e-08,0,2048,2048
292.453,-1.10507e-08,0,2048,2048
292.506,-1.10646e-08,0,2048,2048
292.552,-1.10817e-08,0,2048,2048
292.605,-1.11068e-08,0,2048,2048
292.652,-1.11344e-08,0,2048,2048
292.705,-1.11717e-08,0,2048,2048
292.752,-1.12105e-08,0,2048,2048
292.804,-1.12609e-08,0,2048,2048
292.851,-1.13116e-08,0,2048,2048
292.904,-1.13756e-08,0,2048,2048
292.951,-1.14387e-08,0,2048,2048
293.004,-1.15169e-08,0,2048,2048
293.05,-1.15929e-08,0,2048,2048
293.103,-1.16861e-08,0,2048,2048
293.156,-1.1788e-08,0,2048,2048
293.203,-1.18861e-08,0,2048,2048
293.255,-1.20057e-08,0,2048,2048
293.302,-1.21207e-08,0,2048,2048
293.355,-1.22607e-08,0,2048,2048
293.402,-1.23952e-08,0,2048,2048
293.455,-1.25587e-08,0,2048,2048
293.501,-1.27161e-08,0,2048,2048
293.554,-1.29078e-08,0,2048,2048
293.601,-1.30918e-08,0,2048,2048
293.654,-1.3315e-08,0,2094,2094
293.701,-1.35283e-08,0,2106,2106
293.753,-1.37856e-08,0,2114,2114
293.8,-1.403e-08,0,2126,2126
293.853,-1.43226e-08,0,2130,2130
293.906,-1.46335e-08,0,2130,2130
293.953,-1.49246e-08,0,2130,2130
294.005,-1.52679e-08,0,2130,2130
294.052,-1.55858e-08,0,2130,2130
294.105,-1.59563e-08,0,2130,2130
294.152,-1.62956e-08,0,2130,2130
294.205,-1.66863e-08,0,2130,2130
294.251,-1.70397e-08,0,2130,2130
294.304,-1.74416e-08,0,2130,2130
294.351,-1.78005e-08,0,2130,2130
294.404,-1.82032e-08,0,2130,2130
294.451,-1.85578e-08,0,2130,2130
294.503,-1.89501e-08,0,2130,2130
294.55,-1.92904e-08,0,2130,2130
294.603,-1.96608e-08,0,2130,2130
294.656,-2.00153e-08,0,2130,2130
294.702,-2.03147e-08,0,2130,2130
294.755,-2.06315e-08,0,2130,2130
294.802,-2.08935e-08,0,2130,2130
294.855,-2.11644e-08,0,2130,2130
294.902,-2.13827e-08,0,2130,2130
294.954,-2.16019e-08,0,2130,2130
295.001,-2.17725e-08,0,2130,2130
295.054,-2.1937e-08,0,2108,2108
295.101,-2.20586e-08,0,2092,2092
295.154,-2.21681e-08,0,2080,2080
295.2,-2.22417e-08,0,2072,2072
295.253,-2.22988e-08,0,2060,2060
295.3,-2.23278e-08,0,2052,2052
295.353,-2.23372e-08,0,2048,2048
295.406,-2.23239e-08,0,2048,2048
295.452,-2.22946e-08,0,2048,2048
295.505,-2.22436e-08,0,2048,2048
295.552,-2.21841e-08,0,2048,2048
295.605,-2.21028e-08,0,2048,2048
295.652,-2.20195e-08,0,2048,2048
295.704,-2.19151e-08,0,2048,2048
295.751,-2.18143e-08,0,2048,2048
295.804,-2.16935e-08,0,2048,2048
295.851,-2.15809e-08,0,2048,2048
295.903,-2.14496e-08,0,2048,2048
295.95,-2.13299e-08,0,2048,2048
296.003,-2.11931e-08,0,2048,2048
296.056,-2.10552e-08,0,2048,2048
296.103,-2.09325e-08,0,2048,2048
296.155,-2.07952e-08,0,2048,2048
296.202,-2.06744e-08,0,2048,2048
296.255,-2.05404e-08,0,2048,2048
296.302,-2.04236e-08,0,2048,2048
296.355,-2.02951e-08,0,2048,2048
296.401,-2.01839e-08,0,2048,2048
296.454,-2.00624e-08,0,2048,2048
296.501,-1.99577e-08,0,2048,2048
296.554,-1.98439e-08,0,2048,2048
296.601,-1.97463e-08,0,2048,2048
296.653,-1.96406e-08,0,2048,2048
296.7,-1.95502e-08,0,2048,2048
296.753,-1.94524e-08,0,2048,2048
296.806,-1.93586e-08,0,2048,2048
296.853,-1.92786e-08,0,2048,2048
296.905,-1.9192e-08,0,2048,2048
296.952,-1.91179e-08,0,2048,2048
297.005,-1.90376e-08,0,2048,2048
297.052,-1.89687e-08,0,2048,2048
297.104,-1.88937e-08,0,2048,2048
297.151,-1.8829e-08,0,2048,2048
297.204,-1.87582e-08,0,2048,2048
297.251,-1.86967e-08,0,2048,2048
297.304,-1.86289e-08,0,2048,2048
297.351,-1.85697e-08,0,2048,2048
297.403,-1.8504e-08,0,2048,2048
297.45,-1.84462e-08,0,2048,2048
297.503,-1.83816e-08,0,2048,2048
297.556,-1.83172e-08,0,2048,2048
297.602,-1.82599e-08,0,2048,2048
297.655,-1.81953e-08,0,2048,2048
297.702,-1.81376e-08,0,2048,2048
297.755,-1.80721e-08,0,2048,2048
297.802,-1.80133e-08,0,2048,2048
297.854,-1.79463e-08,0,2048,2048
297.901,-1.78859e-08,0,2048,2048
297.954,-1.78168e-08,0,2048,2048
298.001,-1.77543e-08,0,2048,2048
298.054,-1.76826e-08,0,2048,2048
298.1,-1.76175e-08,0,2048,2048
298.153,-1.75426e-08,0,2048,2048
298.2,-1.74744e-08,0,2048,2048
298.253,-1.73957e-08,0,2048,2048
298.305,-1.73147e-08,0,2048,2048
298.352,-1.72406e-08,0,2048,2048
298.405,-1.71546e-08,0,2048,2048
298.452,-1.70758e-08,0,2048,2048
298.505,-1.69841e-08,0,2048,2048
298.552,-1.68999e-08,0,2048,2048
298.604,-1.68017e-08,0,2048,2048
298.651,-1.67112e-08,0,2048,2048
298.704,-1.66056e-08,0,2048,2048
298.751,-1.65082e-08,0,2048,2048
298.803,-1.63944e-08,0,2048,2048
298.85,-1.62893e-08,0,2048,2048
298.903,-1.61666e-08,0,2048,2048
298.956,-1.60388e-08,0,2048,2048
299.003,-1.5921e-08,0,2048,2048
299.055,-1.57833e-08,0,2048,2048
299.102,-1.56564e-08,0,2048,2048
299.155,-1.55084e-08,0,2048,2048
299.202,-1.53721e-08,0,2048,2048
299.255,-1.52132e-08,0,2048,2048
299.301,-1.50671e-08,0,2048,2048
299.354,-1.48971e-08,0,2048,2048
299.401,-1.47408e-08,0,2048,2048
299.454,-1.45591e-08,0,2048,2048
299.501,-1.43922e-08,0,2048,2048
299.553,-1.41982e-08,0,2048,2048
299.6,-1.402e-08,0,2048,2048
299.653,-1.38129e-08,0,2048,2048
299.706,-1.35984e-08,0,2048,2048
299.753,-1.3401e-08,0,2048,2048
299.805,-1.31711e-08,0,2048,2048
299.852,-1.29591e-08,0,2048,2048
299.905,-1.27114e-08,0,2048,2048
299.952,-1.24823e-08,0,2048,2048
300.004,-1.22137e-08,0,2048,2048
300.051,-1.19642e-08,0,2048,2048
300.104,-1.16705e-08,0,2048,2048
300.151,-1.13967e-08,0,2048,2048
300.204,-1.10734e-08,0,2048,2048
300.251,-1.07713e-08,0,2048,2048
300.303,-1.04139e-08,0,2048,2048
300.35,-1.00797e-08,0,2048,2048
300.403,-9.6845e-09,0,2048,2048
300.456,-9.26819e-09,0,2048,2048
300.502,-8.88008e-09,0,2048,2048
300.555,-8.42301e-09,0,2048,2048
300.602,-7.99871e-09,0,2048,2048
300.655,-7.50164e-09,0,2048,2048
300.702,-7.0431e-09,0,2048,2048
300.754,-6.50987e-09,0,2048,2048
300.801,-6.02205e-09,0,2048,2048
300.854,-5.46003e-09,0,2048,2048
300.901,-4.95104e-09,0,2048,2048
300.954,-4.37091e-09,0,2048,2048
301,-3.85145e-09,0,2048,2048
301.053,-3.26635e-09,0,2048,2048
301.106,-2.68441e-09,0,2048,2048
301.153,-2.17311e-09,0,2048,2048
301.205,-1.60834e-09,0,2048,2048
301.252,-1.11872e-09,0,2048,2048
301.305,-5.85335e-10,0,2048,2048
301.352,-1.29538e-10,0,2048,2048
301.405,3.59587e-10,0,2048,2048
301.452,7.71002e-10,0,2048,2048
301.504,1.20516e-09,0,2048,2048
301.551,1.56384e-09,0,2048,2048
301.604,1.93506e-09,0,2048,2048
301.651,2.23531e-09,0,2048,2048
301.703,2.53888e-09,0,2048,2048
301.75,2.77811e-09,0,2048,2048
301.803,3.01306e-09,0,2048,2048
301.856,3.21262e-09,0,2048,2048
301.903,3.36138e-09,0,2048,2048
301.955,3.49815e-09,0,2048,2048
302.002,3.59413e-09,0,2048,2048
302.055,3.67544e-09,0,2048,2048
302.102,3.72589e-09,0,2048,2048
302.155,3.76035e-09,0,2048,2048
302.201,3.77311e-09,0,2048,2048
302.254,3.76961e-09,0,2048,2048
302.301,3.75249e-09,0,2048,2048
302.354,3.71959e-09,0,2048,2048
302.401,3.67994e-09,0,2048,2048
302.453,3.62558e-09,0,2048,2048
302.5,3.57014e-09,0,2048,2048
302.553,3.50146e-09,0,2048,2048
302.606,3.42779e-09,0,2048,2048
302.652,3.35942e-09,0,2048,2048
302.705,3.28056e-09,0,2048,2048
302.752,3.20977e-09,0,2048,2048
302.805,3.13042e-09,0,2048,2048
302.852,3.06094e-09,0,2048,2048
302.904,2.98479e-09,0,2048,2048
302.951,2.91948e-09,0,2048,2048
303.004,2.8493e-09,0,2048,2048
303.051,2.79023e-09,0,2048,2048
303.104,2.7279e-09,0,2048,2048
303.15,2.67639e-09,0,2048,2048
303.203,2.62302e-09,0,2048,2048
303.25,2.57971e-09,0,2048,2048
303.303,2.53564e-09,0,2048,2048
303.356,2.49643e-09,0,2048,2048
303.402,2.46551e-09,0,2048,2048
303.455,2.43494e-09,0,2048,2048
303.502,2.41127e-09,0,2048,2048
303.555,2.38825e-09,0,2048,2048
303.602,2.3707e-09,0,2048,2048
303.654,2.35383e-09,0,2048,2048
303.701,2.34104e-09,0,2048,2048
303.754,2.32872e-09,0,2048,2048
303.801,2.31928e-09,0,2048,2048
303.853,2.30996e-09,0,2048,2048
303.9,2.30254e-09,0,2048,2048
303.953,2.29485e-09,0,2048,2048
304.006,2.28761e-09,0,2048,2048
304.053,2.28137e-09,0,2048,2048
304.105,2.27442e-09,0,2048,2048
304.152,2.26824e-09,0,2048,2048
304.205,2.26124e-09,0,2048,2048
304.252,2.25501e-09,0,2048,2048
304.305,2.248e-09,0,2048,2048
304.351,2.24185e-09,0,2048,2048
304.404,2.23511e-09,0,2048,2048
304.451,2.22936e-09,0,2048,2048
304.504,2.22325e-09,0,2048,2048
304.551,2.21823e-09,0,2048,2048
304.603,2.21314e-09,0,2048,2048
304.65,2.20916e-09,0,2048,2048
304.703,2.20538e-09,0,2048,2048
304.756,2.20239e-09,0,2048,2048
304.803,2.20042e-09,0,2048,2048
304.855,2.19898e-09,0,2048,2048
304.902,2.19841e-09,0,2048,2048
304.955,2.19851e-09,0,2048,2048
