250,0,0,512,512
250.012,0,0,512,512
250.059,0,0,512,512
250.105,0,0,512,512
250.152,0,0,512,512
250.211,0,0,512,512
250.258,0,0,512,512
250.305,0,0,512,512
250.352,0,0,512,512
250.41,0,0,512,512
250.457,0,0,512,512
250.504,0,0,512,512
250.551,0,0,512,512
250.609,0,0,512,512
250.656,0,0,512,512
250.703,0,0,512,512
250.762,0,0,512,512
250.808,0,0,512,512
250.855,0,0,512,512
250.902,0,0,512,512
250.961,2.77556e-17,0,512,512
251.008,2.77556e-17,0,512,512
251.055,2.77556e-17,0,512,512
251.101,0,0,512,512
251.16,0,0,512,512
251.207,0,0,512,512
251.254,0,0,512,512
251.301,0,0,512,512
251.359,0,0,512,512
251.406,0,0,512,512
251.453,0,0,512,512
251.511,0,0,512,512
251.558,0,0,512,512
251.605,0,0,512,512
251.652,0,0,512,512
251.711,0,0,512,512
251.758,0,0,512,512
251.804,0,0,512,512
251.851,0,0,512,512
251.91,0,0,512,512
251.957,0,0,512,512
252.004,0,0,512,512
252.05,0,0,512,512
252.109,0,0,512,512
252.156,0,0,512,512
252.203,0,0,512,512
252.261,0,0,512,512
252.308,0,0,512,512
252.355,0,0,512,512
252.402,0,0,512,512
252.461,0,0,512,512
252.507,-2.77556e-17,0,512,512
252.554,-2.77556e-17,0,512,512
252.601,-2.77556e-17,0,512,512
252.66,-2.77556e-17,0,512,512
252.707,-2.77556e-17,0,512,512
252.754,-2.77556e-17,0,512,512
252.8,0,0,512,512
252.859,0,0,512,512
252.906,-2.77556e-17,0,512,512
252.953,-2.77556e-17,0,512,512
253.011,-2.77556e-17,0,512,512
253.058,-2.77556e-17,0,512,512
253.105,-2.77556e-17,0,512,512
253.152,-2.77556e-17,0,512,512
253.21,-2.77556e-17,0,512,512
253.257,-2.77556e-17,0,512,512
253.304,-2.77556e-17,0,512,512
253.351,0,0,512,512
253.41,0,0,512,512
253.457,0,0,512,512
253.503,0,0,512,512
253.55,0,0,512,512
253.609,0,0,512,512
253.656,0,0,512,512
253.703,0,0,512,512
253.761,0,0,512,512
253.808,0,0,512,512
253.855,0,0,512,512
253.902,-2.77556e-17,0,512,512
253.96,-2.77556e-17,0,512,512
254.007,-2.77556e-17,0,512,512
254.054,0,0,512,512
254.101,-2.77556e-17,0,512,512
254.16,0,0,512,512
254.206,0,0,512,512
254.253,0,0,512,512
254.3,0,0,512,512
254.359,0,0,512,512
254.406,0,0,512,512
254.452,0,0,512,512
254.511,0,0,512,512
254.558,0,0,512,512
254.605,0,0,512,512
254.652,-2.77556e-17,0,512,512
254.71,-2.77556e-17,0,512,512
254.757,-2.77556e-17,0,512,512
254.804,-2.77556e-17,0,512,512
254.851,-2.77556e-17,0,512,512
254.909,-2.77556e-17,0,512,512
254.956,0,0,512,512
255.003,0,0,512,512
255.05,0,0,512,512
255.109,0,0,512,512
255.155,0,0,512,512
255.202,0,0,512,512
255.261,0,0,512,512
255.308,0,0,512,512
255.355,0,0,512,512
255.402,0,0,512,512
255.46,0,0,512,512
255.507,0,0,512,512
255.554,0,0,512,512
255.601,0,0,512,512
255.659,0,0,512,512
255.706,0,0,512,512
255.753,0,0,512,512
255.812,0,0,512,512
255.859,0,0,512,512
255.905,0,0,512,512
255.952,-2.77556e-17,0,512,512
256.011,-2.77556e-17,0,512,512
256.058,-2.77556e-17,0,512,512
256.105,-2.77556e-17,0,512,512
256.151,-2.77556e-17,0,512,512
256.21,-2.77556e-17,0,512,512
256.257,-2.77556e-17,0,512,512
256.304,-2.77556e-17,0,512,512
256.351,-2.77556e-17,0,512,512
256.409,-2.77556e-17,0,512,512
256.456,-2.77556e-17,0,512,512
256.503,0,0,512,512
256.562,0,0,512,512
256.608,0,0,512,512
256.655,-2.77556e-17,0,512,512
256.702,-2.77556e-17,0,512,512
256.761,-2.77556e-17,0,512,512
256.808,-5.55112e-17,0,512,512
256.854,-5.55112e-17,0,512,512
256.901,-5.55112e-17,0,512,512
256.96,-5.55112e-17,0,512,512
257.007,-5.55112e-17,0,512,512
257.054,-5.55112e-17,0,512,512
257.101,-5.55112e-17,0,512,512
257.159,-5.55112e-17,0,512,512
257.206,-5.55112e-17,0,512,512
257.253,-5.55112e-17,0,512,512
257.311,-2.77556e-17,0,512,512
257.358,-2.77556e-17,0,512,512
257.405,-2.77556e-17,0,512,512
257.452,-2.77556e-17,0,512,512
257.511,-2.77556e-17,0,512,512
257.557,0,0,512,512
257.604,-2.77556e-17,0,512,512
257.651,0,0,512,512
257.71,0,0,512,512
257.757,0,0,512,512
257.804,0,0,512,512
257.85,-2.77556e-17,0,512,512
257.909,-2.77556e-17,0,512,512
257.956,0,0,512,512
258.003,0,0,512,512
258.061,0,0,512,512
258.108,0,0,512,512
258.155,0,0,512,512
258.202,0,0,512,512
258.261,2.77556e-17,0,512,512
258.307,0,0,512,512
258.354,0,0,512,512
258.401,0,0,512,512
258.46,0,0,512,512
258.507,0,0,512,512
258.553,0,0,512,512
258.6,-2.77556e-17,0,512,512
258.659,2.77556e-17,0,512,512
258.706,5.55112e-17,0,512,512
258.753,2.77556e-17,0,512,512
258.811,2.77556e-17,0,512,512
258.858,5.55112e-17,0,512,512
258.905,2.77556e-17,0,512,512
258.952,2.77556e-17,0,512,512
259.01,2.77556e-17,0,512,512
259.057,2.77556e-17,0,512,512
259.104,2.77556e-17,0,512,512
259.151,2.77556e-17,0,512,512
259.21,0,0,512,512
259.256,0,0,512,512
259.303,0,0,512,512
259.35,0,0,512,512
259.409,0,0,512,512
259.456,0,0,512,512
259.503,0,0,512,512
259.561,0,0,512,512
259.608,0,0,512,512
259.655,0,0,512,512
259.702,0,0,512,512
259.76,0,0,512,512
259.807,0,0,512,512
259.854,0,0,512,512
259.901,2.77556e-17,0,512,512
259.959,0,0,512,512
260.006,2.77556e-17,0,512,512
260.053,2.77556e-17,0,512,512
260.1,2.77556e-17,0,512,512
260.159,2.77556e-17,0,512,512
260.206,2.77556e-17,0,512,512
260.252,2.77556e-17,0,512,512
260.311,2.77556e-17,0,512,512
260.358,2.77556e-17,0,512,512
260.405,2.77556e-17,0,512,512
260.452,2.77556e-17,0,512,512
260.51,2.77556e-17,0,512,512
260.557,5.55112e-17,0,512,512
260.604,5.55112e-17,0,512,512
260.651,5.55112e-17,0,512,512
260.709,2.77556e-17,0,512,512
260.756,0,0,512,512
260.803,0,0,512,512
260.862,0,0,512,512
260.909,0,0,512,512
260.955,0,0,512,512
261.002,0,0,512,512
261.061,2.77556e-17,0,512,512
261.108,2.77556e-17,0,512,512
261.155,0,0,512,512
261.201,2.77556e-17,0,512,512
261.26,-2.77556e-17,0,512,512
261.307,0,0,512,512
261.354,0,0,512,512
261.401,0,0,512,512
261.459,0,0,512,512
261.506,2.77556e-17,0,512,512
261.553,2.77556e-17,0,512,512
261.612,0,0,512,512
261.658,-2.77556e-17,0,512,512
261.705,0,0,512,512
261.752,2.77556e-17,0,512,512
261.811,2.77556e-17,0,512,512
261.858,0,0,512,512
261.905,2.77556e-17,0,512,512
261.951,2.77556e-17,0,512,512
262.01,-5.55112e-17,0,512,512
262.057,-2.77556e-17,0,512,512
262.104,0,0,512,512
262.151,0,0,512,512
262.209,-2.77556e-17,0,512,512
262.256,-2.77556e-17,0,512,512
262.303,-2.77556e-17,0,512,512
262.361,-2.77556e-17,0,512,512
262.408,0,0,512,512
262.455,0,0,512,512
262.502,0,0,512,512
262.561,0,0,512,512
262.608,0,0,512,512
262.654,2.77556e-17,0,512,512
262.701,2.77556e-17,0,512,512
262.76,0,0,512,512
262.807,0,0,512,512
262.854,0,0,512,512
262.9,0,0,512,512
262.959,0,0,512,512
263.006,0,0,512,512
263.053,0,0,512,512
263.111,0,0,512,512
263.158,-2.77556e-17,0,512,512
263.205,0,0,512,512
263.252,0,0,512,512
263.311,0,0,512,512
263.357,0,0,512,512
263.404,0,0,512,512
263.451,2.77556e-17,0,512,512
263.51,2.77556e-17,0,512,512
263.557,0,0,512,512
263.603,-2.77556e-17,0,512,512
263.65,-2.77556e-17,0,512,512
263.709,-2.77556e-17,0,512,512
263.756,0,0,512,512
263.803,0,0,512,512
263.861,0,0,512,512
263.908,0,0,512,512
263.955,-2.77556e-17,0,512,512
264.002,-2.77556e-17,0,512,512
264.06,-2.77556e-17,0,512,512
264.107,-2.77556e-17,0,512,512
264.154,0,0,512,512
264.201,-2.77556e-17,0,512,512
264.26,0,0,512,512
264.306,0,0,512,512
264.353,-5.55112e-17,0,512,512
264.4,-2.77556e-17,0,512,512
264.459,-2.77556e-17,0,512,512
264.506,-2.77556e-17,0,512,512
264.553,-2.77556e-17,0,512,512
264.611,-2.77556e-17,0,512,512
264.658,-2.77556e-17,0,512,512
264.705,0,0,512,512
264.752,0,0,512,512
264.81,-2.77556e-17,0,512,512
264.857,-2.77556e-17,0,512,512
264.904,0,0,512,512
264.951,0,0,512,512
265.01,0,0,512,512
265.056,0,0,512,512
265.103,0,0,512,512
265.15,0,0,512,512
265.209,0,0,512,512
265.256,0,0,512,512
265.302,0,0,512,512
265.361,0,0,512,512
265.408,0,0,512,512
265.455,0,0,512,512
265.502,0,0,512,512
265.56,0,0,512,512
265.607,0,0,512,512
265.654,0,0,512,512
265.701,0,0,512,512
265.759,0,0,512,512
265.806,0,0,512,512
265.853,0,0,512,512
265.9,0,0,512,512
265.959,0,0,512,512
266.005,0,0,512,512
266.052,2.77556e-17,0,512,512
266.111,2.77556e-17,0,512,512
266.158,2.77556e-17,0,512,512
266.205,0,0,512,512
266.252,0,0,512,512
266.31,2.77556e-17,0,512,512
266.357,2.77556e-17,0,512,512
266.404,2.77556e-17,0,512,512
266.451,2.77556e-17,0,512,512
266.509,2.77556e-17,0,512,512
266.556,2.77556e-17,0,512,512
266.603,2.77556e-17,0,512,512
266.662,2.77556e-17,0,512,512
266.708,2.77556e-17,0,512,512
266.755,2.77556e-17,0,512,512
266.802,2.77556e-17,0,512,512
266.861,2.77556e-17,0,512,512
266.908,2.77556e-17,0,512,512
266.955,2.77556e-17,0,512,512
267.001,2.77556e-17,0,512,512
267.06,2.77556e-17,0,512,512
267.107,2.77556e-17,0,512,512
267.154,2.77556e-17,0,512,512
267.201,2.77556e-17,0,512,512
267.259,2.77556e-17,0,512,512
267.306,2.77556e-17,0,512,512
267.353,2.77556e-17,0,512,512
267.412,2.77556e-17,0,512,512
267.458,2.77556e-17,0,512,512
267.505,2.77556e-17,0,512,512
267.552,2.77556e-17,0,512,512
267.611,2.77556e-17,0,512,512
267.658,2.77556e-17,0,512,512
267.704,2.77556e-17,0,512,512
267.751,5.55112e-17,0,512,512
267.81,5.55112e-17,0,512,512
267.857,5.55112e-17,0,512,512
267.904,8.32667e-17,0,512,512
267.95,8.32667e-17,0,512,512
268.009,5.55112e-17,0,512,512
268.056,5.55112e-17,0,512,512
268.103,5.55112e-17,0,512,512
268.161,2.77556e-17,0,512,512
268.208,2.77556e-17,0,512,512
268.255,2.77556e-17,0,512,512
268.302,0,0,512,512
268.361,2.77556e-17,0,512,512
268.407,0,0,512,512
268.454,0,0,512,512
268.501,0,0,512,512
268.56,0,0,512,512
268.607,0,0,512,512
268.654,0,0,512,512
268.7,0,0,512,512
268.759,2.77556e-17,0,512,512
268.806,0,0,512,512
268.853,0,0,512,512
268.911,-2.77556e-17,0,512,512
268.958,0,0,512,512
269.005,0,0,512,512
269.052,2.77556e-17,0,512,512
269.11,0,0,512,512
269.157,2.77556e-17,0,512,512
269.204,0,0,512,512
269.251,2.77556e-17,0,512,512
269.31,4.44089e-16,0,512,512
269.357,4.55191e-15,0,512,512
269.403,-9.35363e-15,0,512,512
269.45,-4.55219e-13,0,512,512
269.509,-5.61912e-12,0,512,512
269.556,-2.24128e-11,0,512,512
269.603,-6.09579e-11,0,512,512
269.661,-1.38834e-10,0,512,512
269.708,-2.00483e-10,0,512,512
269.755,-2.27584e-10,0,512,512
269.802,-1.99253e-10,0,512,512
269.86,-9.75159e-11,0,512,512
269.907,-3.79732e-12,0,512,512
269.954,6.01119e-11,0,512,512
270.001,7.76087e-11,0,512,512
270.06,5.5767e-11,0,512,512
270.106,4.04664e-11,0,512,512
270.153,4.99784e-11,0,512,512
270.2,8.01122e-11,0,512,512
270.259,1.13033e-10,0,512,512
270.306,1.13453e-10,0,512,512
270.352,9.2986e-11,0,512,512
270.411,6.76643e-11,0,512,512
270.458,6.88754e-11,0,512,512
270.505,9.01387e-11,0,512,512
270.552,1.16197e-10,0,512,512
270.61,1.28643e-10,0,512,512
270.657,1.14714e-10,0,512,512
270.704,8.95584e-11,0,512,512
270.751,7.16558e-11,0,512,512
270.809,8.1353e-11,0,512,512
270.856,1.12879e-10,0,512,512
270.903,1.43555e-10,0,512,512
270.95,1.46513e-10,0,512,512
271.009,9.85737e-11,0,512,512
271.056,5.13014e-11,0,512,512
271.102,4.70575e-11,0,512,512
271.161,1.28777e-10,0,512,512
271.208,2.03913e-10,0,512,512
271.255,1.935e-10,0,512,512
271.302,7.37513e-11,0,512,512
271.36,-4.53171e-12,0,512,512
271.407,3.82054e-10,0,512,512
271.454,1.56437e-09,0,512,512
271.501,3.76264e-09,0,512,512
271.559,7.8535e-09,0,512,512
271.606,1.18148e-08,0,512,512
271.653,1.59105e-08,0,512,512
271.712,2.06666e-08,0,512,512
271.759,2.40367e-08,0,512,512
271.805,2.72323e-08,0,512,512
271.852,3.07024e-08,0,512,512
271.911,3.62288e-08,0,512,512
271.958,4.21278e-08,0,512,512
272.005,4.9633e-08,0,512,512
272.051,5.89234e-08,0,512,512
272.11,7.34138e-08,0,512,512
272.157,8.78065e-08,0,512,512
272.204,1.05312e-07,0,512,512
272.251,1.26559e-07,0,512,512
272.309,1.59107e-07,0,512,512
272.356,1.90098e-07,0,512,512
272.403,2.25174e-07,0,512,512
272.462,2.73819e-07,0,512,512
272.508,3.15807e-07,0,512,512
272.555,3.60097e-07,0,512,512
272.602,4.06532e-07,0,512,512
272.661,4.67288e-07,0,512,512
272.708,5.17318e-07,0,512,512
272.754,5.67312e-07,0,512,512
272.801,6.15574e-07,0,512,512
272.86,6.70667e-07,0,512,512
272.907,7.08632e-07,0,512,512
272.954,7.40092e-07,0,512,512
273.001,7.64782e-07,0,512,512
273.059,7.86707e-07,0,512,512
273.106,7.9804e-07,0,512,512
273.153,8.04778e-07,0,512,512
273.211,8.07724e-07,0,512,512
273.258,8.06072e-07,0,512,512
273.305,8.00795e-07,0,512,512
273.352,7.91542e-07,0,512,512
273.411,7.73591e-07,0,512,512
273.457,7.53484e-07,0,512,512
273.504,7.27914e-07,0,512,512
273.551,6.96955e-07,0,512,512
273.61,6.51587e-07,0,512,512
273.657,6.11282e-07,0,512,512
273.704,5.68916e-07,0,512,512
273.75,5.25917e-07,0,512,512
273.809,4.7314e-07,0,512,512
273.856,4.3276e-07,0,512,512
273.903,3.94545e-07,0,512,512
273.961,3.50012e-07,0,512,512
274.008,3.16846e-07,0,512,512
274.055,2.85658e-07,0,512,512
274.102,2.56327e-07,0,512,512
274.161,2.22408e-07,0,512,512
274.207,1.9785e-07,0,512,512
274.254,1.75994e-07,0,512,512
274.301,1.57016e-07,0,512,512
274.36,1.36988e-07,0,512,512
274.407,1.23202e-07,0,512,512
274.453,1.10672e-07,0,512,512
274.5,9.8954e-08,0,512,512
274.559,8.53555e-08,0,512,512
274.606,7.55932e-08,0,512,512
274.653,6.71342e-08,0,512,512
274.711,5.85529e-08,0,512,512
274.758,5.30646e-08,0,512,512
274.805,4.83521e-08,0,512,512
274.852,4.39418e-08,0,512,512
274.91,3.83897e-08,0,512,512
274.957,3.3914e-08,0,512,512
275.004,2.96956e-08,0,512,512
275.051,2.60904e-08,0,512,512
275.11,2.28087e-08,0,512,512
275.156,2.11924e-08,0,512,512
275.203,2.03037e-08,0,512,512
275.25,1.99109e-08,0,512,512
275.309,1.98034e-08,0,512,512
275.356,1.98553e-08,0,512,512
275.403,1.99458e-08,0,512,512
275.461,2.00451e-08,0,512,512
275.508,2.00697e-08,0,512,512
275.555,2.00191e-08,0,512,512
275.602,1.98959e-08,0,512,512
275.66,1.96862e-08,0,512,512
275.707,1.95219e-08,0,512,512
275.754,1.93923e-08,0,512,512
275.801,1.93077e-08,0,512,512
275.859,1.92591e-08,0,512,512
275.906,1.92532e-08,0,512,512
275.953,1.92654e-08,0,512,512
276,1.92878e-08,0,512,512
276.059,1.93229e-08,0,512,512
276.106,1.93535e-08,0,512,512
276.152,1.93851e-08,0,512,512
276.211,1.94251e-08,0,512,512
276.258,1.94571e-08,0,512,512
276.305,1.94891e-08,0,512,512
276.352,1.95211e-08,0,512,512
276.41,1.9561e-08,0,512,512
276.457,1.95928e-08,0,512,512
276.504,1.96246e-08,0,512,512
276.551,1.96563e-08,0,512,512
276.609,1.96958e-08,0,512,512
276.656,1.97274e-08,0,512,512
276.703,1.97589e-08,0,512,512
276.762,1.97982e-08,0,512,512
276.809,1.98296e-08,0,512,512
276.855,1.9861e-08,0,512,512
276.902,1.98923e-08,0,512,512
276.961,1.99314e-08,0,512,512
277.008,1.99628e-08,0,512,512
277.055,1.99942e-08,0,512,512
277.101,2.00257e-08,0,512,512
277.16,2.00652e-08,0,512,512
277.207,2.0097e-08,0,512,512
277.254,2.01288e-08,0,512,512
277.301,2.01609e-08,0,512,512
277.359,2.02011e-08,0,512,512
277.406,2.02335e-08,0,512,512
277.453,2.0266e-08,0,512,512
277.512,2.03069e-08,0,512,512
277.558,2.03398e-08,0,512,512
277.605,2.03728e-08,0,512,512
277.652,2.0406e-08,0,512,512
277.711,2.04475e-08,0,512,512
277.758,2.04807e-08,0,512,512
277.804,2.05139e-08,0,512,512
277.851,2.05469e-08,0,512,512
277.91,2.05879e-08,0,512,512
277.957,2.06203e-08,0,512,512
278.004,2.06521e-08,0,512,512
278.051,2.06833e-08,0,512,512
278.109,2.07211e-08,0,512,512
278.156,2.075e-08,0,512,512
278.203,2.07776e-08,0,512,512
278.261,2.08099e-08,0,512,512
278.308,2.08335e-08,0,512,512
278.355,2.08549e-08,0,512,512
278.402,2.08735e-08,0,512,512
278.461,2.08922e-08,0,512,512
278.508,2.09029e-08,0,512,512
278.554,2.0909e-08,0,512,512
278.601,2.09096e-08,0,512,512
278.66,2.09014e-08,0,512,512
278.707,2.08863e-08,0,512,512
278.754,2.08623e-08,0,512,512
278.8,2.0828e-08,0,512,512
278.859,2.07687e-08,0,512,512
278.906,2.07062e-08,0,512,512
278.953,2.06288e-08,0,512,512
279.011,2.05086e-08,0,512,512
279.058,2.03919e-08,0,512,512
279.105,2.02557e-08,0,512,512
279.152,2.00986e-08,0,512,512
279.211,1.98717e-08,0,512,512
279.257,1.96649e-08,0,512,512
279.304,1.94352e-08,0,512,512
279.351,1.91827e-08,0,512,512
279.41,1.88354e-08,0,512,512
279.457,1.85331e-08,0,512,512
279.503,1.82104e-08,0,512,512
279.55,1.78684e-08,0,512,512
279.609,1.74167e-08,0,512,512
279.656,1.70382e-08,0,512,512
279.703,1.66468e-08,0,512,512
279.761,1.61431e-08,0,512,512
279.808,1.57315e-08,0,512,512
279.855,1.53149e-08,0,512,512
279.902,1.48959e-08,0,512,512
279.96,1.43727e-08,0,512,512
280.007,1.39576e-08,0,512,512
280.054,1.35483e-08,0,512,512
280.101,1.3147e-08,0,512,512
280.16,1.26599e-08,0,512,512
280.206,1.22844e-08,0,512,512
280.253,1.19232e-08,0,512,512
280.3,1.15779e-08,0,512,512
280.359,1.11703e-08,0,512,512
280.406,1.08646e-08,0,512,512
280.453,1.05777e-08,0,512,512
280.511,1.02459e-08,0,512,512
280.558,1.0002e-08,0,512,512
280.605,9.77704e-09,0,512,512
280.652,9.57054e-09,0,512,512
280.71,9.3375e-09,0,512,512
280.757,9.17022e-09,0,512,512
280.804,9.01903e-09,0,512,512
280.851,8.88299e-09,0,512,512
280.91,8.73275e-09,0,512,512
280.956,8.62717e-09,0,512,512
281.003,8.5335e-09,0,512,512
281.05,8.45075e-09,0,512,512
281.109,8.36122e-09,0,512,512
281.156,8.29964e-09,0,512,512
281.202,8.24608e-09,0,512,512
281.261,8.1892e-09,0,512,512
281.308,8.1509e-09,0,512,512
281.355,8.11828e-09,0,512,512
281.402,8.09076e-09,0,512,512
281.46,8.06269e-09,0,512,512
281.507,8.04471e-09,0,512,512
281.554,8.03021e-09,0,512,512
281.601,8.01879e-09,0,512,512
281.659,8.00828e-09,0,512,512
281.706,8.00245e-09,0,512,512
281.753,7.99859e-09,0,512,512
281.8,7.9964e-09,0,512,512
281.859,7.99564e-09,0,512,512
281.905,7.99631e-09,0,512,512
281.952,7.99791e-09,0,512,512
282.011,8.00094e-09,0,512,512
282.058,8.00401e-09,0,512,512
282.105,8.00753e-09,0,512,512
282.152,8.01138e-09,0,512,512
282.21,8.01655e-09,0,512,512
282.257,8.0209e-09,0,512,512
282.304,8.02539e-09,0,512,512
282.351,8.02998e-09,0,512,512
282.409,8.03584e-09,0,512,512
282.456,8.04061e-09,0,512,512
282.503,8.04547e-09,0,512,512
282.562,8.05169e-09,0,512,512
282.608,8.05683e-09,0,512,512
282.655,8.06219e-09,0,512,512
282.702,8.06784e-09,0,512,512
282.761,8.07552e-09,0,512,512
282.808,8.08234e-09,0,512,512
282.855,8.09002e-09,0,512,512
282.901,8.09882e-09,0,512,512
282.96,8.11195e-09,0,512,512
283.007,8.1247e-09,0,512,512
283.054,8.14002e-09,0,512,512
283.101,8.15856e-09,0,512,512
283.159,8.18748e-09,0,512,512
283.206,8.21633e-09,0,512,512
283.253,8.25144e-09,0,512,512
283.312,8.30605e-09,0,512,512
283.358,8.36014e-09,0,512,512
283.405,8.42532e-09,0,512,512
283.452,8.50357e-09,0,512,512
283.511,8.62318e-09,0,512,512
283.558,8.73948e-09,0,512,512
283.604,8.87728e-09,0,512,512
283.651,9.03994e-09,0,512,512
283.71,9.28396e-09,0,512,512
283.757,9.51689e-09,0,512,512
283.804,9.78846e-09,0,512,512
283.85,1.01038e-08,0,512,512
283.909,1.05683e-08,0,512,512
283.956,1.10036e-08,0,512,512
284.003,1.15024e-08,0,512,512
284.061,1.2226e-08,0,512,512
284.108,1.28936e-08,0,512,512
284.155,1.36479e-08,0,512,512
284.202,1.44964e-08,0,512,512
284.261,1.57006e-08,0,512,512
284.307,1.67876e-08,0,512,512
284.354,1.79919e-08,0,512,512
284.401,1.93203e-08,0,512,512
284.46,2.11645e-08,0,512,512
284.507,2.27939e-08,0,512,512
284.554,2.4566e-08,0,512,512
284.6,2.64858e-08,0,512,512
284.659,2.91001e-08,0,512,512
284.706,3.13687e-08,0,512,512
284.753,3.37994e-08,0,512,512
284.811,3.70725e-08,0,512,512
284.858,3.98849e-08,0,512,512
284.905,4.28757e-08,0,512,512
284.952,4.60516e-08,0,512,512
285.01,5.02942e-08,0,512,512
285.057,5.39187e-08,0,512,512
285.104,5.77616e-08,0,512,512
285.151,6.18384e-08,0,512,512
285.21,6.72922e-08,0,512,512
285.257,7.197e-08,0,512,512
285.303,7.69579e-08,0,512,512
285.35,8.22895e-08,0,512,512
285.409,8.9497e-08,0,512,512
285.456,9.57526e-08,0,512,512
285.503,1.02499e-07,0,512,512
285.561,1.11711e-07,0,512,512
285.608,1.19778e-07,0,512,512
285.655,1.2854e-07,0,512,512
285.702,1.38064e-07,0,512,512
285.76,1.51148e-07,0,512,512
285.807,1.6264e-07,0,512,512
285.854,1.75111e-07,0,512,512
285.901,1.88616e-07,0,512,512
285.96,2.07015e-07,0,512,512
286.006,2.22982e-07,0,512,512
286.053,2.40067e-07,0,512,512
286.1,2.58255e-07,0,512,512
286.159,2.82481e-07,0,512,512
286.206,3.02974e-07,0,512,512
286.252,3.2435e-07,0,512,512
286.311,3.52119e-07,0,512,512
286.358,3.74981e-07,0,512,512
286.405,3.98217e-07,0,512,512
286.452,4.21616e-07,0,512,512
286.51,4.50739e-07,0,512,512
286.557,4.73632e-07,0,512,512
286.604,4.95878e-07,0,512,512
286.651,5.17207e-07,0,512,512
286.709,5.42164e-07,0,512,512
286.756,5.60443e-07,0,512,512
286.803,5.76947e-07,0,512,512
286.85,5.91439e-07,0,512,512
286.909,6.06399e-07,0,512,512
286.955,6.15618e-07,0,512,512
287.002,6.22228e-07,0,512,512
287.061,6.26648e-07,0,512,512
287.108,6.27019e-07,0,512,512
287.155,6.24539e-07,0,512,512
287.202,6.19215e-07,0,512,512
287.26,6.08633e-07,0,512,512
287.307,5.97132e-07,0,512,512
287.354,5.83068e-07,0,512,512
287.401,5.66599e-07,0,512,512
287.459,5.42919e-07,0,512,512
287.506,5.21761e-07,0,512,512
287.553,4.98893e-07,0,512,512
287.612,4.68284e-07,0,512,512
287.659,4.425e-07,0,512,512
287.705,4.15852e-07,0,512,512
287.752,3.88606e-07,0,512,512
287.811,3.54104e-07,0,512,512
287.858,3.2645e-07,0,512,512
287.905,2.99006e-07,0,512,512
287.951,2.71988e-07,0,512,512
288.01,2.39111e-07,0,512,512
288.057,2.13739e-07,0,512,512
288.104,1.89351e-07,0,512,512
288.151,1.66073e-07,0,512,512
288.209,1.38686e-07,0,512,512
288.256,1.18235e-07,0,512,512
288.303,9.91357e-08,0,512,512
288.362,7.72077e-08,0,512,512
288.408,6.12332e-08,0,512,512
288.455,4.66438e-08,0,512,512
288.502,3.34163e-08,0,512,512
288.561,1.87427e-08,0,512,512
288.608,8.43592e-09,0,512,512
288.654,-6.57364e-10,0,512,512
288.701,-8.59855e-09,0,512,512
288.76,-1.70057e-08,0,512,512
288.807,-2.26005e-08,0,512,512
288.854,-2.72672e-08,0,512,512
288.901,-3.10778e-08,0,512,512
288.959,-3.47463e-08,0,512,512
289.006,-3.68916e-08,0,512,512
289.053,-3.84097e-08,0,512,512
289.111,-3.95272e-08,0,512,512
289.158,-3.9875e-08,0,512,512
289.205,-3.98036e-08,0,512,512
289.252,-3.93708e-08,0,512,512
289.311,-3.84044e-08,0,512,512
289.357,-3.7353e-08,0,512,512
289.404,-3.61052e-08,0,512,512
289.451,-3.47044e-08,0,512,512
289.51,-3.2798e-08,0,512,512
289.557,-3.1192e-08,0,512,512
289.604,-2.95483e-08,0,512,512
289.65,-2.78948e-08,0,512,512
289.709,-2.58508e-08,0,512,512
289.756,-2.4259e-08,0,512,512
289.803,-2.27243e-08,0,512,512
289.861,-2.0907e-08,0,512,512
289.908,-1.9547e-08,0,512,512
289.955,-1.8279e-08,0,512,512
290.002,-1.71085e-08,0,512,512
290.06,-1.5787e-08,0,512,512
290.107,-1.48444e-08,0,512,512
290.154,-1.40029e-08,0,512,512
290.201,-1.32605e-08,0,512,512
290.26,-1.24664e-08,0,512,512
290.307,-1.19327e-08,0,512,512
290.353,-1.14837e-08,0,512,512
290.4,-1.11133e-08,0,512,512
290.459,-1.07514e-08,0,512,512
290.506,-1.05346e-08,0,512,512
290.553,-1.03752e-08,0,512,512
290.611,-1.02464e-08,0,512,512
290.658,-1.01919e-08,0,512,512
290.705,-1.01735e-08,0,512,512
290.752,-1.01855e-08,0,512,512
290.81,-1.02344e-08,0,512,512
290.857,-1.02945e-08,0,512,512
290.904,-1.03682e-08,0,512,512
290.951,-1.04513e-08,0,512,512
291.01,-1.05629e-08,0,512,512
291.056,-1.06544e-08,0,512,512
291.103,-1.07451e-08,0,512,512
291.15,-1.08327e-08,0,512,512
291.209,-1.09354e-08,0,512,512
291.256,-1.10105e-08,0,512,512
291.303,-1.10782e-08,0,512,512
291.361,-1.11517e-08,0,512,512
291.408,-1.12013e-08,0,512,512
291.455,-1.12426e-08,0,512,512
291.502,-1.12758e-08,0,512,512
291.56,-1.13066e-08,0,512,512
291.607,-1.13232e-08,0,512,512
291.654,-1.13334e-08,0,512,512
291.701,-1.13378e-08,0,512,512
291.759,-1.13364e-08,0,512,512
291.806,-1.13306e-08,0,512,512
291.853,-1.13215e-08,0,512,512
291.9,-1.13099e-08,0,512,512
291.959,-1.1293e-08,0,512,512
292.006,-1.12784e-08,0,512,512
292.052,-1.12636e-08,0,512,512
292.111,-1.1246e-08,0,512,512
292.158,-1.12332e-08,0,512,512
292.205,-1.12223e-08,0,512,512
292.252,-1.12137e-08,0,512,512
292.31,-1.12071e-08,0,512,512
292.357,-1.12057e-08,0,512,512
292.404,-1.12081e-08,0,512,512
292.451,-1.12149e-08,0,512,512
292.509,-1.12299e-08,0,512,512
292.556,-1.12476e-08,0,512,512
292.603,-1.12707e-08,0,512,512
292.662,-1.13076e-08,0,512,512
292.709,-1.13438e-08,0,512,512
292.755,-1.13864e-08,0,512,512
292.802,-1.14356e-08,0,512,512
292.861,-1.15066e-08,0,512,512
292.908,-1.15715e-08,0,512,512
292.955,-1.16437e-08,0,512,512
293.001,-1.17235e-08,0,512,512
293.06,-1.18343e-08,0,512,512
293.107,-1.19321e-08,0,512,512
293.154,-1.20383e-08,0,512,512
293.201,-1.21532e-08,0,512,512
293.259,-1.23092e-08,0,512,512
293.306,-1.24442e-08,0,512,512
293.353,-1.25886e-08,0,512,512
293.412,-1.27823e-08,0,512,512
293.458,-1.29482e-08,0,512,512
293.505,-1.31237e-08,0,512,512
293.552,-1.33089e-08,0,512,512
293.611,-1.35542e-08,0,512,512
293.658,-1.37612e-08,0,512,512
293.704,-1.39776e-08,0,512,512
293.751,-1.42033e-08,0,512,512
293.81,-1.44977e-08,0,512,512
293.857,-1.47427e-08,0,512,512
293.904,-1.49955e-08,0,512,512
293.951,-1.52555e-08,0,512,512
294.009,-1.55896e-08,0,512,512
294.056,-1.58632e-08,0,512,512
294.103,-1.61413e-08,0,512,512
294.161,-1.64941e-08,0,512,512
294.208,-1.67791e-08,0,512,512
294.255,-1.70654e-08,0,512,512
294.302,-1.73518e-08,0,512,512
294.361,-1.77083e-08,0,512,512
294.408,-1.79907e-08,0,512,512
294.454,-1.82693e-08,0,512,512
294.501,-1.8543e-08,0,512,512
294.56,-1.88764e-08,0,512,512
294.607,-1.91346e-08,0,512,512
294.654,-1.93842e-08,0,512,512
294.7,-1.96241e-08,0,512,512
294.759,-1.99089e-08,0,512,512
294.806,-2.01236e-08,0,512,512
294.853,-2.03258e-08,0,512,512
294.911,-2.056e-08,0,512,512
294.958,-2.07318e-08,0,512,512
295.005,-2.08893e-08,0,512,512
295.052,-2.10323e-08,0,512,512
295.111,-2.11903e-08,0,512,512
295.157,-2.12999e-08,0,512,512
295.204,-2.13947e-08,0,512,512
295.251,-2.14748e-08,0,512,512
295.31,-2.15546e-08,0,512,512
295.357,-2.16027e-08,0,512,512
295.403,-2.16373e-08,0,512,512
295.45,-2.16587e-08,0,512,512
295.509,-2.1668e-08,0,512,512
295.556,-2.16623e-08,0,512,512
295.603,-2.16455e-08,0,512,512
295.661,-2.161e-08,0,512,512
295.708,-2.15711e-08,0,512,512
295.755,-2.15235e-08,0,512,512
295.802,-2.14681e-08,0,512,512
295.86,-2.1389e-08,0,512,512
295.907,-2.13186e-08,0,512,512
295.954,-2.12429e-08,0,512,512
296.001,-2.11625e-08,0,512,512
296.06,-2.10564e-08,0,512,512
296.106,-2.09679e-08,0,512,512
296.153,-2.08768e-08,0,512,512
296.2,-2.07837e-08,0,512,512
296.259,-2.06653e-08,0,512,512
296.306,-2.05696e-08,0,512,512
296.353,-2.04734e-08,0,512,512
296.411,-2.03532e-08,0,512,512
296.458,-2.02574e-08,0,512,512
296.505,-2.01623e-08,0,512,512
296.552,-2.00681e-08,0,512,512
296.61,-1.99521e-08,0,512,512
296.657,-1.98608e-08,0,512,512
296.704,-1.9771e-08,0,512,512
296.751,-1.96828e-08,0,512,512
296.81,-1.9575e-08,0,512,512
296.856,-1.94907e-08,0,512,512
296.903,-1.94081e-08,0,512,512
296.95,-1.93273e-08,0,512,512
297.009,-1.92286e-08,0,512,512
297.056,-1.91515e-08,0,512,512
297.102,-1.9076e-08,0,512,512
297.161,-1.89836e-08,0,512,512
297.208,-1.89113e-08,0,512,512
297.255,-1.88401e-08,0,512,512
297.302,-1.87701e-08,0,512,512
297.36,-1.86839e-08,0,512,512
297.407,-1.86159e-08,0,512,512
297.454,-1.85486e-08,0,512,512
297.501,-1.84818e-08,0,512,512
297.559,-1.83989e-08,0,512,512
297.606,-1.83328e-08,0,512,512
297.653,-1.82669e-08,0,512,512
297.712,-1.81844e-08,0,512,512
297.759,-1.81181e-08,0,512,512
297.805,-1.80515e-08,0,512,512
297.852,-1.79843e-08,0,512,512
297.911,-1.78995e-08,0,512,512
297.958,-1.78307e-08,0,512,512
298.005,-1.7761e-08,0,512,512
298.052,-1.76902e-08,0,512,512
298.11,-1.75999e-08,0,512,512
298.157,-1.75261e-08,0,512,512
298.204,-1.74507e-08,0,512,512
298.251,-1.73737e-08,0,512,512
298.309,-1.72748e-08,0,512,512
298.356,-1.71934e-08,0,512,512
298.403,-1.711e-08,0,512,512
298.462,-1.70024e-08,0,512,512
298.508,-1.69135e-08,0,512,512
298.555,-1.68221e-08,0,512,512
298.602,-1.67279e-08,0,512,512
298.661,-1.6606e-08,0,512,512
298.708,-1.65051e-08,0,512,512
298.755,-1.64009e-08,0,512,512
298.801,-1.62933e-08,0,512,512
298.86,-1.61538e-08,0,512,512
298.907,-1.6038e-08,0,512,512
298.954,-1.59183e-08,0,512,512
299.001,-1.57944e-08,0,512,512
299.059,-1.56336e-08,0,512,512
299.106,-1.54998e-08,0,512,512
299.153,-1.53614e-08,0,512,512
299.211,-1.51813e-08,0,512,512
299.258,-1.50315e-08,0,512,512
299.305,-1.48762e-08,0,512,512
299.352,-1.47152e-08,0,512,512
299.411,-1.45056e-08,0,512,512
299.458,-1.43309e-08,0,512,512
299.504,-1.41497e-08,0,512,512
299.551,-1.39616e-08,0,512,512
299.61,-1.37165e-08,0,512,512
299.657,-1.3512e-08,0,512,512
299.704,-1.32997e-08,0,512,512
299.75,-1.30794e-08,0,512,512
299.809,-1.2792e-08,0,512,512
299.856,-1.25524e-08,0,512,512
299.903,-1.23037e-08,0,512,512
299.961,-1.19798e-08,0,512,512
300.008,-1.17099e-08,0,512,512
300.055,-1.14304e-08,0,512,512
300.102,-1.1141e-08,0,512,512
300.161,-1.07653e-08,0,512,512
300.207,-1.04535e-08,0,512,512
300.254,-1.01318e-08,0,512,512
300.301,-9.80034e-09,0,512,512
300.36,-9.37251e-09,0,512,512
300.407,-9.0198e-09,0,512,512
300.454,-8.6582e-09,0,512,512
300.5,-8.28817e-09,0,512,512
300.559,-7.81459e-09,0,512,512
300.606,-7.42768e-09,0,512,512
300.653,-7.0344e-09,0,512,512
300.711,-6.53509e-09,0,512,512
300.758,-6.13058e-09,0,512,512
300.805,-5.72262e-09,0,512,512
300.852,-5.31226e-09,0,512,512
300.91,-4.79761e-09,0,512,512
300.957,-4.38592e-09,0,512,512
301.004,-3.97556e-09,0,512,512
301.051,-3.56774e-09,0,512,512
301.11,-3.06337e-09,0,512,512
301.157,-2.6657e-09,0,512,512
301.203,-2.27451e-09,0,512,512
301.25,-1.89097e-09,0,512,512
301.309,-1.42403e-09,0,512,512
301.356,-1.06176e-09,0,512,512
301.403,-7.10624e-10,0,512,512
301.461,-2.88755e-10,0,512,512
301.508,3.40829e-11,0,512,512
301.555,3.43094e-10,0,512,512
301.602,6.37648e-10,0,512,512
301.66,9.84715e-10,0,512,512
301.707,1.24497e-09,0,512,512
301.754,1.48945e-09,0,512,512
301.801,1.71798e-09,0,512,512
301.86,1.98111e-09,0,512,512
301.906,2.17367e-09,0,512,512
301.953,2.35045e-09,0,512,512
302,2.51173e-09,0,512,512
302.059,2.69207e-09,0,512,512
302.106,2.81991e-09,0,512,512
302.152,2.93371e-09,0,512,512
302.211,3.05717e-09,0,512,512
302.258,3.14172e-09,0,512,512
302.305,3.21442e-09,0,512,512
302.352,3.27604e-09,0,512,512
302.41,3.33867e-09,0,512,512
302.457,3.37826e-09,0,512,512
302.504,3.40936e-09,0,512,512
302.551,3.43279e-09,0,512,512
302.609,3.45247e-09,0,512,512
302.656,3.46146e-09,0,512,512
302.703,3.46522e-09,0,512,512
302.75,3.46441e-09,0,512,512
302.809,3.45791e-09,0,512,512
302.855,3.44899e-09,0,512,512
302.902,3.4373e-09,0,512,512
302.961,3.41938e-09,0,512,512
303.008,3.40283e-09,0,512,512
303.055,3.38456e-09,0,512,512
303.102,3.36478e-09,0,512,512
303.16,3.33809e-09,0,512,512
303.207,3.31521e-09,0,512,512
303.254,3.29097e-09,0,512,512
303.301,3.26527e-09,0,512,512
303.359,3.23093e-09,0,512,512
303.406,3.2015e-09,0,512,512
303.453,3.17012e-09,0,512,512
303.512,3.12785e-09,0,512,512
303.559,3.09135e-09,0,512,512
303.605,3.05226e-09,0,512,512
303.652,3.0104e-09,0,512,512
303.711,2.95395e-09,0,512,512
303.758,2.90536e-09,0,512,512
303.805,2.85365e-09,0,512,512
303.851,2.79883e-09,0,512,512
303.91,2.726e-09,0,512,512
303.957,2.66445e-09,0,512,512
304.004,2.60017e-09,0,512,512
304.051,2.53343e-09,0,512,512
304.109,2.447e-09,0,512,512
304.156,2.37592e-09,0,512,512
304.203,2.3036e-09,0,512,512
304.262,2.21217e-09,0,512,512
304.308,2.13885e-09,0,512,512
304.355,2.06597e-09,0,512,512
304.402,1.99409e-09,0,512,512
304.461,1.90654e-09,0,512,512
304.508,1.83904e-09,0,512,512
304.554,1.7744e-09,0,512,512
304.601,1.71315e-09,0,512,512
304.66,1.64211e-09,0,512,512
304.707,1.59024e-09,0,512,512
304.754,1.54322e-09,0,512,512
304.801,1.50138e-09,0,512,512
304.859,1.45676e-09,0,512,512
304.906,1.42747e-09,0,512,512
304.953,1.40398e-09,0,512,512
