250,0,0,2048,2048
250.006,0,0,2048,2048
250.053,0,0,2048,2048
250.105,0,0,2048,2048
250.152,0,0,2048,2048
250.205,0,0,2048,2048
250.252,0,0,2048,2048
250.305,0,0,2048,2048
250.352,0,0,2048,2048
250.404,0,0,2048,2048
250.451,1.38778e-17,0,2048,2048
250.504,0,0,2048,2048
250.551,0,0,2048,2048
250.603,0,0,2048,2048
250.65,0,0,2048,2048
250.703,0,0,2048,2048
250.756,0,0,2048,2048
250.803,0,0,2048,2048
250.855,0,0,2048,2048
250.902,-1.38778e-17,0,2048,2048
250.955,-1.38778e-17,0,2048,2048
251.002,-1.38778e-17,0,2048,2048
251.055,-1.38778e-17,0,2048,2048
251.101,-1.38778e-17,0,2048,2048
251.154,0,0,2048,2048
251.201,0,0,2048,2048
251.254,0,0,2048,2048
251.301,0,0,2048,2048
251.353,0,0,2048,2048
251.4,0,0,2048,2048
251.453,0,0,2048,2048
251.506,0,0,2048,2048
251.553,0,0,2048,2048
251.605,1.38778e-17,0,2048,2048
251.652,0,0,2048,2048
251.705,0,0,2048,2048
251.752,-1.38778e-17,0,2048,2048
251.804,-1.38778e-17,0,2048,2048
251.851,-1.38778e-17,0,2048,2048
251.904,-1.38778e-17,0,2048,2048
251.951,0,0,2048,2048
252.004,0,0,2048,2048
252.05,0,0,2048,2048
252.103,0,0,2048,2048
252.15,0,0,2048,2048
252.203,0,0,2048,2048
252.256,0,0,2048,2048
252.302,0,0,2048,2048
252.355,1.38778e-17,0,2048,2048
252.402,1.38778e-17,0,2048,2048
252.455,0,0,2048,2048
252.502,0,0,2048,2048
252.554,-1.38778e-17,0,2048,2048
252.601,-1.38778e-17,0,2048,2048
252.654,-1.38778e-17,0,2048,2048
252.701,0,0,2048,2048
252.754,0,0,2048,2048
252.8,0,0,2048,2048
252.853,0,0,2048,2048
252.906,0,0,2048,2048
252.953,0,0,2048,2048
253.005,0,0,2048,2048
253.052,0,0,2048,2048
253.105,0,0,2048,2048
253.152,0,0,2048,2048
253.205,0,0,2048,2048
253.251,0,0,2048,2048
253.304,0,0,2048,2048
253.351,0,0,2048,2048
253.404,0,0,2048,2048
253.451,0,0,2048,2048
253.503,0,0,2048,2048
253.55,0,0,2048,2048
253.603,0,0,2048,2048
253.656,0,0,2048,2048
253.703,0,0,2048,2048
253.755,0,0,2048,2048
253.802,0,0,2048,2048
253.855,0,0,2048,2048
253.902,0,0,2048,2048
253.954,0,0,2048,2048
254.001,0,0,2048,2048
254.054,0,0,2048,2048
254.101,0,0,2048,2048
254.154,-1.38778e-17,0,2048,2048
254.201,0,0,2048,2048
254.253,0,0,2048,2048
254.3,-1.38778e-17,0,2048,2048
254.353,-1.38778e-17,0,2048,2048
254.406,-1.38778e-17,0,2048,2048
254.452,-1.38778e-17,0,2048,2048
254.505,0,0,2048,2048
254.552,0,0,2048,2048
254.605,0,0,2048,2048
254.652,0,0,2048,2048
254.704,0,0,2048,2048
254.751,1.38778e-17,0,2048,2048
254.804,2.77556e-17,0,2048,2048
254.851,2.77556e-17,0,2048,2048
254.904,2.77556e-17,0,2048,2048
254.95,2.77556e-17,0,2048,2048
255.003,1.38778e-17,0,2048,2048
255.05,1.38778e-17,0,2048,2048
255.103,0,0,2048,2048
255.155,0,0,2048,2048
255.202,1.38778e-17,0,2048,2048
255.255,1.38778e-17,0,2048,2048
255.302,1.38778e-17,0,2048,2048
255.355,1.38778e-17,0,2048,2048
255.402,1.38778e-17,0,2048,2048
255.454,1.38778e-17,0,2048,2048
255.501,1.38778e-17,0,2048,2048
255.554,2.77556e-17,0,2048,2048
255.601,2.77556e-17,0,2048,2048
255.653,2.77556e-17,0,2048,2048
255.7,1.38778e-17,0,2048,2048
255.753,1.38778e-17,0,2048,2048
255.806,1.38778e-17,0,2048,2048
255.853,1.38778e-17,0,2048,2048
255.905,1.38778e-17,0,2048,2048
255.952,1.38778e-17,0,2048,2048
256.005,1.38778e-17,0,2048,2048
256.052,1.38778e-17,0,2048,2048
256.105,1.38778e-17,0,2048,2048
256.151,1.38778e-17,0,2048,2048
256.204,1.38778e-17,0,2048,2048
256.251,1.38778e-17,0,2048,2048
256.304,1.38778e-17,0,2048,2048
256.351,2.77556e-17,0,2048,2048
256.403,1.38778e-17,0,2048,2048
256.45,1.38778e-17,0,2048,2048
256.503,1.38778e-17,0,2048,2048
256.556,1.38778e-17,0,2048,2048
256.603,1.38778e-17,0,2048,2048
256.655,1.38778e-17,0,2048,2048
256.702,1.38778e-17,0,2048,2048
256.755,0,0,2048,2048
256.802,0,0,2048,2048
256.854,0,0,2048,2048
256.901,0,0,2048,2048
256.954,0,0,2048,2048
257.001,0,0,2048,2048
257.054,-1.38778e-17,0,2048,2048
257.101,0,0,2048,2048
257.153,0,0,2048,2048
257.2,0,0,2048,2048
257.253,0,0,2048,2048
257.306,0,0,2048,2048
257.352,0,0,2048,2048
257.405,0,0,2048,2048
257.452,-1.38778e-17,0,2048,2048
257.505,-1.38778e-17,0,2048,2048
257.552,-2.77556e-17,0,2048,2048
257.604,-2.77556e-17,0,2048,2048
257.651,-2.77556e-17,0,2048,2048
257.704,-2.77556e-17,0,2048,2048
257.751,-2.77556e-17,0,2048,2048
257.804,-2.77556e-17,0,2048,2048
257.85,-2.77556e-17,0,2048,2048
257.903,-2.77556e-17,0,2048,2048
257.95,-2.77556e-17,0,2048,2048
258.003,-2.77556e-17,0,2048,2048
258.055,-2.77556e-17,0,2048,2048
258.102,-2.77556e-17,0,2048,2048
258.155,-2.77556e-17,0,2048,2048
258.202,-2.77556e-17,0,2048,2048
258.255,-2.77556e-17,0,2048,2048
258.302,-2.77556e-17,0,2048,2048
258.354,-1.38778e-17,0,2048,2048
258.401,-1.38778e-17,0,2048,2048
258.454,-1.38778e-17,0,2048,2048
258.501,-1.38778e-17,0,2048,2048
258.553,-1.38778e-17,0,2048,2048
258.6,-1.38778e-17,0,2048,2048
258.653,-1.38778e-17,0,2048,2048
258.706,-1.38778e-17,0,2048,2048
258.753,-1.38778e-17,0,2048,2048
258.805,-1.38778e-17,0,2048,2048
258.852,-1.38778e-17,0,2048,2048
258.905,-2.77556e-17,0,2048,2048
258.952,-4.16334e-17,0,2048,2048
259.005,-4.16334e-17,0,2048,2048
259.051,-2.77556e-17,0,2048,2048
259.104,-2.77556e-17,0,2048,2048
259.151,-1.38778e-17,0,2048,2048
259.204,-1.38778e-17,0,2048,2048
259.251,-1.38778e-17,0,2048,2048
259.303,-1.38778e-17,0,2048,2048
259.35,-1.38778e-17,0,2048,2048
259.403,-1.38778e-17,0,2048,2048
259.456,-1.38778e-17,0,2048,2048
259.503,-1.38778e-17,0,2048,2048
259.555,-1.38778e-17,0,2048,2048
259.602,-1.38778e-17,0,2048,2048
259.655,-1.38778e-17,0,2048,2048
259.702,0,0,2048,2048
259.754,0,0,2048,2048
259.801,0,0,2048,2048
259.854,1.38778e-17,0,2048,2048
259.901,1.38778e-17,0,2048,2048
259.954,1.38778e-17,0,2048,2048
260,1.38778e-17,0,2048,2048
260.053,1.38778e-17,0,2048,2048
260.1,1.38778e-17,0,2048,2048
260.153,1.38778e-17,0,2048,2048
260.206,1.38778e-17,0,2048,2048
260.252,1.38778e-17,0,2048,2048
260.305,0,0,2048,2048
260.352,0,0,2048,2048
260.405,-1.38778e-17,0,2048,2048
260.452,-1.38778e-17,0,2048,2048
260.504,0,0,2048,2048
260.551,0,0,2048,2048
260.604,0,0,2048,2048
260.651,0,0,2048,2048
260.704,0,0,2048,2048
260.75,1.38778e-17,0,2048,2048
260.803,1.38778e-17,0,2048,2048
260.856,1.38778e-17,0,2048,2048
260.903,1.38778e-17,0,2048,2048
260.955,1.38778e-17,0,2048,2048
261.002,0,0,2048,2048
261.055,0,0,2048,2048
261.102,0,0,2048,2048
261.155,1.38778e-17,0,2048,2048
261.201,0,0,2048,2048
261.254,-1.38778e-17,0,2048,2048
261.301,-1.38778e-17,0,2048,2048
261.354,-1.38778e-17,0,2048,2048
261.401,-1.38778e-17,0,2048,2048
261.453,0,0,2048,2048
261.5,0,0,2048,2048
261.553,0,0,2048,2048
261.606,0,0,2048,2048
261.653,0,0,2048,2048
261.705,0,0,2048,2048
261.752,0,0,2048,2048
261.805,-1.38778e-17,0,2048,2048
261.852,0,0,2048,2048
261.905,-1.38778e-17,0,2048,2048
261.951,-1.38778e-17,0,2048,2048
262.004,-1.38778e-17,0,2048,2048
262.051,-1.38778e-17,0,2048,2048
262.104,-1.38778e-17,0,2048,2048
262.151,-1.38778e-17,0,2048,2048
262.203,-1.38778e-17,0,2048,2048
262.25,-1.38778e-17,0,2048,2048
262.303,-1.38778e-17,0,2048,2048
262.356,-1.38778e-17,0,2048,2048
262.402,-1.38778e-17,0,2048,2048
262.455,-1.38778e-17,0,2048,2048
262.502,-1.38778e-17,0,2048,2048
262.555,-1.38778e-17,0,2048,2048
262.602,-2.77556e-17,0,2048,2048
262.654,-2.77556e-17,0,2048,2048
262.701,-2.77556e-17,0,2048,2048
262.754,-2.77556e-17,0,2048,2048
262.801,-4.16334e-17,0,2048,2048
262.854,-2.77556e-17,0,2048,2048
262.9,-2.77556e-17,0,2048,2048
262.953,-2.77556e-17,0,2048,2048
263,-2.77556e-17,0,2048,2048
263.053,-5.55112e-17,0,2048,2048
263.105,-4.16334e-17,0,2048,2048
263.152,-4.16334e-17,0,2048,2048
263.205,-4.16334e-17,0,2048,2048
263.252,-2.77556e-17,0,2048,2048
263.305,-2.77556e-17,0,2048,2048
263.352,-2.77556e-17,0,2048,2048
263.404,-2.77556e-17,0,2048,2048
263.451,-2.77556e-17,0,2048,2048
263.504,-2.77556e-17,0,2048,2048
263.551,-2.77556e-17,0,2048,2048
263.603,-2.77556e-17,0,2048,2048
263.65,-2.77556e-17,0,2048,2048
263.703,-2.77556e-17,0,2048,2048
263.756,-2.77556e-17,0,2048,2048
263.803,-2.77556e-17,0,2048,2048
263.855,-2.77556e-17,0,2048,2048
263.902,-1.38778e-17,0,2048,2048
263.955,-1.38778e-17,0,2048,2048
264.002,-1.38778e-17,0,2048,2048
264.055,-1.38778e-17,0,2048,2048
264.101,-1.38778e-17,0,2048,2048
264.154,-1.38778e-17,0,2048,2048
264.201,-1.38778e-17,0,2048,2048
264.254,-1.38778e-17,0,2048,2048
264.301,-1.38778e-17,0,2048,2048
264.353,-1.38778e-17,0,2048,2048
264.4,-1.38778e-17,0,2048,2048
264.453,-1.38778e-17,0,2048,2048
264.506,-1.38778e-17,0,2048,2048
264.553,-1.38778e-17,0,2048,2048
264.605,-1.38778e-17,0,2048,2048
264.652,-1.38778e-17,0,2048,2048
264.705,-1.38778e-17,0,2048,2048
264.752,-1.38778e-17,0,2048,2048
264.804,-1.38778e-17,0,2048,2048
264.851,-1.38778e-17,0,2048,2048
264.904,-2.77556e-17,0,2048,2048
264.951,-2.77556e-17,0,2048,2048
265.004,-2.77556e-17,0,2048,2048
265.051,-4.16334e-17,0,2048,2048
265.103,-2.77556e-17,0,2048,2048
265.15,-2.77556e-17,0,2048,2048
265.203,-2.77556e-17,0,2048,2048
265.256,-2.77556e-17,0,2048,2048
265.302,-2.77556e-17,0,2048,2048
265.355,-2.77556e-17,0,2048,2048
265.402,-2.77556e-17,0,2048,2048
265.455,-2.77556e-17,0,2048,2048
265.502,-2.77556e-17,0,2048,2048
265.554,-2.77556e-17,0,2048,2048
265.601,-2.77556e-17,0,2048,2048
265.654,-2.77556e-17,0,2048,2048
265.701,-2.77556e-17,0,2048,2048
265.754,-2.77556e-17,0,2048,2048
265.8,-2.77556e-17,0,2048,2048
265.853,-2.77556e-17,0,2048,2048
265.9,-2.77556e-17,0,2048,2048
265.953,-2.77556e-17,0,2048,2048
266.005,-2.77556e-17,0,2048,2048
266.052,-2.77556e-17,0,2048,2048
266.105,-2.77556e-17,0,2048,2048
266.152,-2.77556e-17,0,2048,2048
266.205,-4.16334e-17,0,2048,2048
266.252,-4.16334e-17,0,2048,2048
266.304,-4.16334e-17,0,2048,2048
266.351,-4.16334e-17,0,2048,2048
266.404,-5.55112e-17,0,2048,2048
266.451,-2.77556e-17,0,2048,2048
266.503,-2.77556e-17,0,2048,2048
266.55,-2.77556e-17,0,2048,2048
266.603,-4.16334e-17,0,2048,2048
266.656,-2.77556e-17,0,2048,2048
266.703,-2.77556e-17,0,2048,2048
266.755,-2.77556e-17,0,2048,2048
266.802,-1.38778e-17,0,2048,2048
266.855,-1.38778e-17,0,2048,2048
266.902,-1.38778e-17,0,2048,2048
266.955,-2.77556e-17,0,2048,2048
267.001,-5.55112e-17,0,2048,2048
267.054,-5.55112e-17,0,2048,2048
267.101,-4.16334e-17,0,2048,2048
267.154,-4.16334e-17,0,2048,2048
267.201,-2.77556e-17,0,2048,2048
267.253,-2.77556e-17,0,2048,2048
267.3,-2.77556e-17,0,2048,2048
267.353,-4.16334e-17,0,2048,2048
267.406,-4.16334e-17,0,2048,2048
267.453,-2.77556e-17,0,2048,2048
267.505,-2.77556e-17,0,2048,2048
267.552,-1.38778e-17,0,2048,2048
267.605,-1.38778e-17,0,2048,2048
267.652,-1.38778e-17,0,2048,2048
267.704,-2.77556e-17,0,2048,2048
267.751,-2.77556e-17,0,2048,2048
267.804,-5.55112e-17,0,2048,2048
267.851,-4.16334e-17,0,2048,2048
267.904,-5.55112e-17,0,2048,2048
267.95,-5.55112e-17,0,2048,2048
268.003,-4.16334e-17,0,2048,2048
268.05,-4.16334e-17,0,2048,2048
268.101,-4.16334e-17,0,2110,2110
268.151,-4.16334e-17,0,2158,2158
268.201,-4.16334e-17,0,2206,2206
268.25,-4.16334e-17,0,2254,2254
268.3,-4.16334e-17,0,2302,2302
268.35,-4.16334e-17,0,2350,2350
268.403,-4.16334e-17,0,2386,2386
268.453,-4.16334e-17,0,2434,2434
268.502,-4.16334e-17,0,2482,2482
268.552,-4.16334e-17,0,2518,2518
268.602,-4.16334e-17,0,2566,2566
268.652,-4.16334e-17,0,2602,2602
268.702,-4.16334e-17,0,2650,2650
268.751,-4.16334e-17,0,2686,2686
268.801,-4.16334e-17,0,2710,2710
268.851,-4.16334e-17,0,2746,2746
268.901,-4.16334e-17,0,2794,2794
268.951,-4.16334e-17,0,2842,2842
269,-4.16334e-17,0,2878,2878
269.05,-4.16334e-17,0,2926,2926
269.103,-4.16334e-17,0,2974,2974
269.153,-4.16334e-17,0,3022,3022
269.202,-4.16334e-17,0,3058,3058
269.252,-4.16334e-17,0,3106,3106
269.302,-4.16334e-17,0,3154,3154
269.352,-4.16334e-17,0,3202,3202
269.402,-4.16334e-17,0,3238,3238
269.451,-4.16334e-17,0,3286,3286
269.501,-4.16334e-17,0,3334,3334
269.551,-4.16334e-17,0,3370,3370
269.601,-4.16334e-17,0,3418,3418
269.651,-4.16334e-17,0,3466,3466
269.7,-4.16334e-17,0,3502,3502
269.75,-4.16334e-17,0,3550,3550
269.8,-4.16334e-17,0,3598,3598
269.853,-4.16334e-17,0,3634,3634
269.903,-4.16334e-17,0,3682,3682
269.952,-4.16334e-17,0,3730,3730
270.002,-4.16334e-17,0,3766,3766
270.052,-4.16334e-17,0,3814,3814
270.102,-4.16334e-17,0,3850,3850
270.152,-4.16334e-17,0,3898,3898
270.201,-4.16334e-17,0,3934,3934
270.251,-4.16334e-17,0,3982,3982
270.301,-4.16334e-17,0,4018,4018
270.351,-4.16334e-17,0,4066,4066
270.401,-4.16334e-17,0,4102,4102
270.45,-4.16334e-17,0,4150,4150
270.5,-4.16334e-17,0,4186,4186
270.553,-4.16334e-17,0,4234,4234
270.603,-4.16334e-17,0,4270,4270
270.652,-4.16334e-17,0,4318,4318
270.702,-4.16334e-17,0,4354,4354
270.752,-4.16334e-17,0,4402,4402
270.802,-4.16334e-17,0,4438,4438
270.852,-4.16334e-17,0,4474,4474
270.901,-4.16334e-17,0,4522,4522
270.951,-4.16334e-17,0,4558,4558
271.001,-2.77556e-17,0,4594,4594
271.051,-1.38778e-17,0,4642,4642
271.101,-1.38778e-17,0,4678,4678
271.15,-1.38778e-17,0,4714,4714
271.2,-1.38778e-17,0,4762,4762
271.25,-1.38778e-17,0,4798,4798
271.303,-1.38778e-17,0,4834,4834
271.353,-1.38778e-17,0,4882,4882
271.402,-1.38778e-17,0,4918,4918
271.452,-1.38778e-17,0,4954,4954
271.502,-1.38778e-17,0,4990,4990
271.552,-1.38778e-17,0,5026,5026
271.602,-1.38778e-17,0,5074,5074
271.651,-1.38778e-17,0,5110,5110
271.701,-1.38778e-17,0,5138,5138
271.751,-1.38778e-17,0,5174,5174
271.801,-1.38778e-17,0,5218,5218
271.851,-1.38778e-17,0,5254,5254
271.9,-1.38778e-17,0,5290,5290
271.95,-1.38778e-17,0,5338,5338
272.003,-1.38778e-17,0,5374,5374
272.053,-1.38778e-17,0,5410,5410
272.102,-1.38778e-17,0,5446,5446
272.152,-1.38778e-17,0,5482,5482
272.202,-1.38778e-17,0,5510,5510
272.252,-1.38778e-17,0,5554,5554
272.302,-1.38778e-17,0,5590,5590
272.351,-1.38778e-17,0,5626,5626
272.401,-1.38778e-17,0,5662,5662
272.451,-1.38778e-17,0,5698,5698
272.501,-1.38778e-17,0,5734,5734
272.551,-1.38778e-17,0,5770,5770
272.6,-1.38778e-17,0,5806,5806
272.65,-1.38778e-17,0,5842,5842
272.7,-1.38778e-17,0,5878,5878
272.753,-1.38778e-17,0,5914,5914
272.803,-1.38778e-17,0,5950,5950
272.852,-1.38778e-17,0,5986,5986
272.902,-1.38778e-17,0,6010,6010
272.952,-1.38778e-17,0,6046,6046
273.002,-1.38778e-17,0,6082,6082
273.052,-1.38778e-17,0,6118,6118
273.101,-1.38778e-17,0,6154,6154
273.151,-1.38778e-17,0,6190,6190
273.201,-1.38778e-17,0,6226,6226
273.251,-1.38778e-17,0,6250,6250
273.301,-1.38778e-17,0,6286,6286
273.35,-1.38778e-17,0,6322,6322
273.4,-1.38778e-17,0,6358,6358
273.453,-1.38778e-17,0,6394,6394
273.503,-1.38778e-17,0,6430,6430
273.552,-1.38778e-17,0,6466,6466
273.602,-1.38778e-17,0,6490,6490
273.652,-1.38778e-17,0,6526,6526
273.702,-1.38778e-17,0,6562,6562
273.752,-1.38778e-17,0,6598,6598
273.801,-1.38778e-17,0,6622,6622
273.851,-1.38778e-17,0,6658,6658
273.901,-1.38778e-17,0,6694,6694
273.951,-1.38778e-17,0,6730,6730
274.001,-1.38778e-17,0,6766,6766
274.05,-1.38778e-17,0,6790,6790
274.1,-1.38778e-17,0,6826,6826
274.153,-1.38778e-17,0,6862,6862
274.203,-1.38778e-17,0,6898,6898
274.253,-1.38778e-17,0,6934,6934
274.302,-1.38778e-17,0,6958,6958
274.352,1.11022e-16,0,6994,6994
274.402,1.66533e-16,0,7030,7030
274.452,2.63678e-16,0,7054,7054
274.502,3.05311e-16,0,7090,7090
274.551,3.88578e-16,0,7126,7126
274.601,4.02456e-16,0,7162,7162
274.651,4.44089e-16,0,7186,7186
274.701,4.44089e-16,0,7222,7222
274.75,3.33067e-16,0,7258,7258
274.8,-6.66134e-16,0,7282,7282
274.85,-4.17721e-15,0,7318,7318
274.903,-1.47243e-14,0,7354,7354
274.953,-3.94268e-14,0,7390,7390
275.002,-9.3911e-14,0,7414,7414
275.052,-2.05003e-13,0,7450,7450
275.102,-4.16486e-13,0,7486,7486
275.152,-7.94212e-13,0,7510,7510
275.202,-1.42976e-12,0,7546,7546
275.251,-2.44034e-12,0,7582,7582
275.301,-3.96243e-12,0,7606,7606
275.351,-6.13734e-12,0,7642,7642
275.401,-9.60648e-12,0,7678,7678
275.451,-2.37662e-11,0,7702,7702
275.5,-4.78607e-11,0,7738,7738
275.55,-8.21286e-11,0,7774,7774
275.603,-1.24416e-10,0,7798,7798
275.653,-1.59072e-10,0,7834,7834
275.703,-1.75058e-10,0,7858,7858
275.752,-1.63055e-10,0,7882,7882
275.802,-1.23339e-10,0,7918,7918
275.852,-6.68327e-11,0,7942,7942
275.902,-1.02185e-11,0,7966,7966
275.951,3.28036e-11,0,8002,8002
276.001,5.78352e-11,0,8026,8026
276.051,6.9852e-11,0,8050,8050
276.101,7.75979e-11,0,8074,8074
276.151,8.66742e-11,0,8098,8098
276.2,9.67302e-11,0,8122,8122
276.25,1.03917e-10,0,8146,8146
276.3,1.0582e-10,0,8192,8192
276.353,1.04183e-10,0,8192,8192
276.403,1.03981e-10,0,8192,8192
276.452,1.08191e-10,0,8192,8192
276.502,1.1555e-10,0,8192,8192
276.552,1.21676e-10,0,8192,8192
276.602,1.22953e-10,0,8192,8192
276.652,1.19801e-10,0,8192,8192
276.701,1.16498e-10,0,8192,8192
276.751,1.17582e-10,0,8192,8192
276.801,1.23726e-10,0,8192,8192
276.851,1.30704e-10,0,8192,8192
276.901,1.32866e-10,0,8192,8192
276.95,1.28615e-10,0,8192,8192
277,1.22936e-10,0,8192,8192
277.053,1.24386e-10,0,8192,8192
277.103,1.38406e-10,0,8192,8192
277.152,1.69392e-10,0,8192,8192
277.202,2.40033e-10,0,8192,8192
277.252,4.22361e-10,0,8192,8192
277.302,8.61825e-10,0,8192,8192
277.352,1.7686e-09,0,8192,8192
277.401,3.36431e-09,0,8192,8192
277.451,5.8002e-09,0,8192,8192
277.501,9.08669e-09,0,8192,8192
277.551,1.30762e-08,0,8192,8192
277.601,1.75181e-08,0,8192,8192
277.65,2.21677e-08,0,8192,8192
277.7,2.69046e-08,0,8192,8192
277.75,3.181e-08,0,8192,8192
277.803,3.7512e-08,0,8192,8192
277.853,4.38416e-08,0,8192,8192
277.902,5.16031e-08,0,8192,8192
277.952,6.12958e-08,0,8192,8192
278.002,7.33985e-08,0,8192,8192
278.052,8.83974e-08,0,8192,8192
278.102,1.06822e-07,0,8192,8192
278.151,1.29246e-07,0,8192,8192
278.201,1.56222e-07,0,8192,8192
278.251,1.88182e-07,0,8192,8192
278.301,2.25326e-07,0,8192,8192
278.351,2.67565e-07,0,8192,8192
278.4,3.14554e-07,0,8192,8192
278.45,3.65772e-07,0,8192,8192
278.503,4.23951e-07,0,8192,8192
278.553,4.81944e-07,0,8192,8192
278.602,5.42114e-07,0,8192,8192
278.652,6.03442e-07,0,8192,8192
278.702,6.64569e-07,0,8192,8192
278.752,7.23822e-07,0,8192,8192
278.802,7.79377e-07,0,8192,8192
278.851,8.29532e-07,0,8192,8192
278.901,8.7298e-07,0,8192,8192
278.951,9.08993e-07,0,8192,8192
279.001,9.37451e-07,0,8192,8192
279.051,9.58723e-07,0,8192,8192
279.1,9.73446e-07,0,8192,8192
279.15,9.82272e-07,0,8192,8192
279.2,9.85682e-07,0,8192,8192
279.253,9.83613e-07,0,8192,8192
279.303,9.76226e-07,0,8192,8192
279.352,9.63323e-07,0,8192,8192
279.402,9.44659e-07,0,8192,8192
279.452,9.20145e-07,0,8192,8192
279.502,8.89987e-07,0,8192,8192
279.552,8.54773e-07,0,8192,8192
279.601,8.15471e-07,0,8192,8192
279.651,7.73356e-07,0,8192,8192
279.701,7.29866e-07,0,8192,8192
279.751,6.86443e-07,0,8192,8192
279.801,6.44387e-07,0,8192,8192
279.85,6.04766e-07,0,8192,8192
279.9,5.68393e-07,0,8192,8192
279.953,5.34086e-07,0,8192,8192
280.003,5.06153e-07,0,8192,8192
280.052,4.83027e-07,0,8192,8192
280.102,4.6522e-07,0,8192,8192
280.152,4.53305e-07,0,8192,8192
280.202,4.47822e-07,0,8192,8192
280.252,4.49141e-07,0,8192,8192
280.301,4.57332e-07,0,8192,8192
280.351,4.72115e-07,0,8192,8192
280.401,4.92927e-07,0,8192,8192
280.451,5.19054e-07,0,8192,8192
280.501,5.49761e-07,0,8192,8192
280.55,5.84344e-07,0,8192,8192
280.6,6.22062e-07,0,8192,8192
280.65,6.62018e-07,0,8192,8192
280.703,7.05459e-07,0,8192,8192
280.753,7.46028e-07,0,8192,8192
280.802,7.84491e-07,0,8192,8192
280.852,8.19261e-07,0,8192,8192
280.902,8.4902e-07,0,8192,8192
280.952,8.7287e-07,0,8192,8192
281.002,8.90375e-07,0,8192,8192
281.051,9.01482e-07,0,8192,8192
281.101,9.06389e-07,0,8192,8192
281.151,9.05386e-07,0,8192,8192
281.201,8.98742e-07,0,8192,8192
281.251,8.86639e-07,0,8192,8192
281.3,8.69152e-07,0,8192,8192
281.35,8.46272e-07,0,8192,8192
281.403,8.16124e-07,0,8192,8192
281.453,7.82072e-07,0,8192,8192
281.502,7.42764e-07,0,8192,8192
281.552,6.98592e-07,0,8192,8192
281.602,6.50218e-07,0,8192,8192
281.652,5.98565e-07,0,8192,8192
281.702,5.44752e-07,0,8192,8192
281.751,4.89981e-07,0,8192,8192
281.801,4.35426e-07,0,8192,8192
281.851,3.8212e-07,0,8192,8192
281.901,3.30895e-07,0,8192,8192
281.951,2.8235e-07,0,8192,8192
282,2.36882e-07,0,8192,8192
282.05,1.94721e-07,0,8192,8192
282.1,1.55996e-07,0,8192,8192
282.153,1.18808e-07,0,8192,8192
282.203,8.73089e-08,0,8192,8192
282.252,5.92988e-08,0,8192,8192
282.302,3.4678e-08,0,8192,8192
282.352,1.3268e-08,0,8192,8192
282.402,-5.18138e-09,0,8192,8192
282.452,-2.09612e-08,0,8192,8192
282.501,-3.43614e-08,0,8192,8192
282.551,-4.56361e-08,0,8192,8192
282.601,-5.49888e-08,0,8192,8192
282.651,-6.25842e-08,0,8192,8192
282.7,-6.85739e-08,0,8192,8192
282.75,-7.31211e-08,0,8192,8192
282.8,-7.64083e-08,0,8192,8192
282.853,-7.8725e-08,0,8192,8192
282.903,-7.99887e-08,0,8192,8192
282.952,-8.04759e-08,0,8192,8192
283.002,-8.0249e-08,0,8192,8192
283.052,-7.93262e-08,0,8192,8192
283.102,-7.77104e-08,0,8192,8192
283.152,-7.54204e-08,0,8192,8192
283.201,-7.25131e-08,0,8192,8192
283.251,-6.90894e-08,0,8192,8192
283.301,-6.52846e-08,0,8192,8192
283.351,-6.12497e-08,0,8192,8192
283.401,-5.71311e-08,0,8192,8192
283.45,-5.30555e-08,0,8192,8192
283.5,-4.91211e-08,0,8192,8192
283.553,-4.51851e-08,0,8192,8192
283.603,-4.17273e-08,0,8192,8192
283.653,-3.85408e-08,0,8192,8192
283.702,-3.5629e-08,0,8192,8192
283.752,-3.29858e-08,0,8192,8192
283.802,-3.06011e-08,0,8192,8192
283.852,-2.8464e-08,0,8192,8192
283.901,-2.65641e-08,0,8192,8192
283.951,-2.48919e-08,0,8192,8192
284.001,-2.34382e-08,0,8192,8192
284.051,-2.21929e-08,0,8192,8192
284.101,-2.11446e-08,0,8192,8192
284.15,-2.02803e-08,0,8192,8192
284.2,-1.95856e-08,0,8192,8192
284.25,-1.9045e-08,0,8192,8192
284.303,-1.8623e-08,0,8192,8192
284.353,-1.835e-08,0,8192,8192
284.402,-1.81832e-08,0,8192,8192
284.452,-1.81085e-08,0,8192,8192
284.502,-1.81124e-08,0,8192,8192
284.552,-1.81829e-08,0,8192,8192
284.602,-1.83092e-08,0,8192,8192
284.651,-1.84816e-08,0,8192,8192
284.701,-1.86914e-08,0,8192,8192
284.751,-1.89312e-08,0,8192,8192
284.801,-1.91941e-08,0,8192,8192
284.851,-1.94745e-08,0,8192,8192
284.9,-1.97672e-08,0,8192,8192
284.95,-2.00681e-08,0,8192,8192
285.003,-2.03913e-08,0,8192,8192
285.053,-2.06979e-08,0,8192,8192
285.102,-2.10029e-08,0,8192,8192
285.152,-2.13043e-08,0,8192,8192
285.202,-2.16004e-08,0,8192,8192
285.252,-2.18898e-08,0,8192,8192
285.302,-2.21719e-08,0,8192,8192
285.351,-2.24468e-08,0,8192,8192
285.401,-2.27152e-08,0,8192,8192
285.451,-2.29786e-08,0,8192,8192
285.501,-2.32391e-08,0,8192,8192
285.551,-2.34994e-08,0,8192,8192
285.6,-2.37626e-08,0,8192,8192
285.65,-2.40321e-08,0,8192,8192
285.7,-2.43115e-08,0,8192,8192
285.753,-2.46217e-08,0,8192,8192
285.803,-2.49317e-08,0,8192,8192
285.852,-2.52609e-08,0,8192,8192
285.902,-2.56115e-08,0,8192,8192
285.952,-2.59852e-08,0,8192,8192
286.002,-2.6383e-08,0,8192,8192
286.052,-2.68051e-08,0,8192,8192
286.101,-2.72508e-08,0,8192,8192
286.151,-2.7719e-08,0,8192,8192
286.201,-2.82078e-08,0,8192,8192
286.251,-2.87147e-08,0,8192,8192
286.301,-2.92368e-08,0,8192,8192
286.35,-2.97709e-08,0,8192,8192
286.4,-3.03134e-08,0,8192,8192
286.453,-3.08933e-08,0,8192,8192
286.503,-3.14423e-08,0,8192,8192
286.552,-3.19892e-08,0,8192,8192
286.602,-3.25304e-08,0,8192,8192
286.652,-3.30627e-08,0,8192,8192
286.702,-3.35829e-08,0,8192,8192
286.752,-3.40879e-08,0,8192,8192
286.801,-3.45751e-08,0,8192,8192
286.851,-3.50418e-08,0,8192,8192
286.901,-3.54861e-08,0,8192,8192
286.951,-3.59061e-08,0,8192,8192
287.001,-3.63007e-08,0,8192,8192
287.05,-3.66695e-08,0,8192,8192
287.1,-3.70124e-08,0,8192,8192
287.15,-3.733e-08,0,8192,8192
287.203,-3.76402e-08,0,8192,8192
287.253,-3.79102e-08,0,8192,8192
287.302,-3.81602e-08,0,8192,8192
287.352,-3.83927e-08,0,8192,8192
287.402,-3.86109e-08,0,8192,8192
287.452,-3.88178e-08,0,8192,8192
287.502,-3.90169e-08,0,8192,8192
287.551,-3.92118e-08,0,8192,8192
287.601,-3.9406e-08,0,8192,8192
287.651,-3.96031e-08,0,8192,8192
287.701,-3.98066e-08,0,8192,8192
287.751,-4.00195e-08,0,8192,8192
287.8,-4.02446e-08,0,8192,8192
287.85,-4.04845e-08,0,8192,8192
287.903,-4.07567e-08,0,8192,8192
287.953,-4.10324e-08,0,8192,8192
288.002,-4.13268e-08,0,8192,8192
288.052,-4.16401e-08,0,8192,8192
288.102,-4.19716e-08,0,8192,8192
288.152,-4.23202e-08,0,8192,8192
288.202,-4.26838e-08,0,8192,8192
288.251,-4.30601e-08,0,8192,8192
288.301,-4.34463e-08,0,8192,8192
288.351,-4.3839e-08,0,8192,8192
288.401,-4.4235e-08,0,8192,8192
288.451,-4.46306e-08,0,8192,8192
288.5,-4.50222e-08,0,8192,8192
288.55,-4.54063e-08,0,8192,8192
288.6,-4.57793e-08,0,8192,8192
288.653,-4.61583e-08,0,8192,8192
288.703,-4.64979e-08,0,8192,8192
288.752,-4.68164e-08,0,8192,8192
288.802,-4.7111e-08,0,8192,8192
288.852,-4.73792e-08,0,8192,8192
288.902,-4.76187e-08,0,8192,8192
288.952,-4.78276e-08,0,8192,8192
289.001,-4.80047e-08,0,8192,8192
289.051,-4.8149e-08,0,8192,8192
289.101,-4.82601e-08,0,8192,8192
289.151,-4.83384e-08,0,8192,8192
289.201,-4.83843e-08,0,8192,8192
289.25,-4.8399e-08,0,8192,8192
289.3,-4.8384e-08,0,8192,8192
289.353,-4.83376e-08,0,8192,8192
289.403,-4.82671e-08,0,8192,8192
289.452,-4.81729e-08,0,8192,8192
289.502,-4.80572e-08,0,8192,8192
289.552,-4.79224e-08,0,8192,8192
289.602,-4.77708e-08,0,8192,8192
289.652,-4.76045e-08,0,8192,8192
289.701,-4.74257e-08,0,8192,8192
289.751,-4.72365e-08,0,8192,8192
289.801,-4.70386e-08,0,8192,8192
289.851,-4.68339e-08,0,8192,8192
289.901,-4.6624e-08,0,8192,8192
289.95,-4.64102e-08,0,8192,8192
290,-4.61939e-08,0,8192,8192
290.053,-4.59634e-08,0,8192,8192
290.103,-4.57453e-08,0,8192,8192
290.153,-4.55277e-08,0,8192,8192
290.202,-4.53113e-08,0,8192,8192
290.252,-4.50968e-08,0,8192,8192
290.302,-4.48846e-08,0,8192,8192
290.352,-4.46752e-08,0,8192,8192
290.402,-4.44688e-08,0,8192,8192
290.451,-4.42657e-08,0,8192,8192
290.501,-4.4066e-08,0,8192,8192
290.551,-4.38697e-08,0,8192,8192
290.601,-4.3677e-08,0,8192,8192
290.65,-4.34875e-08,0,8192,8192
290.7,-4.33013e-08,0,8192,8192
290.75,-4.31179e-08,0,8192,8192
290.803,-4.29267e-08,0,8192,8192
290.853,-4.27483e-08,0,8192,8192
290.902,-4.25718e-08,0,8192,8192
290.952,-4.23967e-08,0,8192,8192
291.002,-4.22225e-08,0,8192,8192
291.052,-4.20488e-08,0,8192,8192
291.102,-4.1875e-08,0,8192,8192
291.151,-4.17007e-08,0,8192,8192
291.201,-4.15252e-08,0,8192,8192
291.251,-4.13482e-08,0,8192,8192
291.301,-4.1169e-08,0,8192,8192
291.351,-4.09871e-08,0,8192,8192
291.4,-4.0802e-08,0,8192,8192
291.45,-4.06131e-08,0,8192,8192
291.503,-4.04084e-08,0,8192,8192
291.553,-4.021e-08,0,8192,8192
291.602,-4.00062e-08,0,8192,8192
291.652,-3.97963e-08,0,8192,8192
291.702,-3.95799e-08,0,8192,8192
291.752,-3.93561e-08,0,8192,8192
291.802,-3.91241e-08,0,8192,8192
291.851,-3.88829e-08,0,8192,8192
291.901,-3.86314e-08,0,8192,8192
291.951,-3.83682e-08,0,8192,8192
292.001,-3.80916e-08,0,8192,8192
292.051,-3.77999e-08,0,8192,8192
292.1,-3.74909e-08,0,8192,8192
292.15,-3.71624e-08,0,8192,8192
292.2,-3.6812e-08,0,8192,8192
292.253,-3.64145e-08,0,8192,8192
292.303,-3.60113e-08,0,8192,8192
292.352,-3.55788e-08,0,8192,8192
292.402,-3.51147e-08,0,8192,8192
292.452,-3.46173e-08,0,8192,8192
292.502,-3.40849e-08,0,8192,8192
292.552,-3.35166e-08,0,8192,8192
292.601,-3.29119e-08,0,8192,8192
292.651,-3.2271e-08,0,8192,8192
292.701,-3.15948e-08,0,8192,8192
292.751,-3.08847e-08,0,8192,8192
292.801,-3.01431e-08,0,8192,8192
292.85,-2.93728e-08,0,8192,8192
292.9,-2.85771e-08,0,8192,8192
292.953,-2.77111e-08,0,8192,8192
293.003,-2.68756e-08,0,8192,8192
293.052,-2.60273e-08,0,8192,8192
293.102,-2.51708e-08,0,8192,8192
293.152,-2.43107e-08,0,8192,8192
293.202,-2.34514e-08,0,8192,8192
293.252,-2.25972e-08,0,8192,8192
293.301,-2.17526e-08,0,8192,8192
293.351,-2.09214e-08,0,8192,8192
293.401,-2.01073e-08,0,8192,8192
293.451,-1.93138e-08,0,8192,8192
293.501,-1.85439e-08,0,8192,8192
293.55,-1.78002e-08,0,8192,8192
293.6,-1.70845e-08,0,8192,8192
293.65,-1.63985e-08,0,8192,8192
293.703,-1.57054e-08,0,8192,8192
293.753,-1.50822e-08,0,8192,8192
293.802,-1.44892e-08,0,8192,8192
293.852,-1.39253e-08,0,8192,8192
293.902,-1.33885e-08,0,8192,8192
293.952,-1.28768e-08,0,8192,8192
294.002,-1.23873e-08,0,8192,8192
294.051,-1.19167e-08,0,8192,8192
294.101,-1.14615e-08,0,8192,8192
294.151,-1.10179e-08,0,8192,8192
294.201,-1.05818e-08,0,8192,8192
294.251,-1.0149e-08,0,8192,8192
294.3,-9.71564e-09,0,8192,8192
294.35,-9.27759e-09,0,8192,8192
294.403,-8.80462e-09,0,8192,8192
294.453,-8.34577e-09,0,8192,8192
294.502,-7.87219e-09,0,8192,8192
294.552,-7.38157e-09,0,8192,8192
294.602,-6.87222e-09,0,8192,8192
294.652,-6.34311e-09,0,8192,8192
294.702,-5.79391e-09,0,8192,8192
294.751,-5.22494e-09,0,8192,8192
294.801,-4.63721e-09,0,8192,8192
294.851,-4.03228e-09,0,8192,8192
294.901,-3.41227e-09,0,8192,8192
294.951,-2.77974e-09,0,8192,8192
295,-2.13763e-09,0,8192,8192
295.05,-1.4892e-09,0,8192,8192
295.1,-8.37952e-10,0,8192,8192
295.153,-1.49439e-10,0,8192,8192
295.203,4.95783e-10,0,8192,8192
295.252,1.13205e-09,0,8192,8192
295.302,1.7553e-09,0,8192,8192
295.352,2.36142e-09,0,8192,8192
295.402,2.94632e-09,0,8192,8192
295.452,3.50596e-09,0,8192,8192
295.501,4.03645e-09,0,8192,8192
295.551,4.53411e-09,0,8192,8192
295.601,4.99558e-09,0,8192,8192
295.651,5.4179e-09,0,8192,8192
295.701,5.7986e-09,0,8192,8192
295.75,6.13579e-09,0,8192,8192
295.8,6.42824e-09,0,8192,8192
295.853,6.68855e-09,0,8192,8192
295.903,6.88803e-09,0,8192,8192
295.952,7.0435e-09,0,8192,8192
296.002,7.15668e-09,0,8192,8192
296.052,7.22997e-09,0,8192,8192
296.102,7.26634e-09,0,8192,8192
296.152,7.26922e-09,0,8192,8192
296.201,7.24231e-09,0,8192,8192
296.251,7.18948e-09,0,8192,8192
296.301,7.11458e-09,0,8192,8192
296.351,7.02135e-09,0,8192,8192
296.401,6.91331e-09,0,8192,8192
296.45,6.79374e-09,0,8192,8192
296.5,6.66568e-09,0,8192,8192
296.55,6.53192e-09,0,8192,8192
296.603,6.38698e-09,0,8192,8192
296.653,6.24954e-09,0,8192,8192
296.702,6.11391e-09,0,8192,8192
296.752,5.98228e-09,0,8192,8192
296.802,5.85665e-09,0,8192,8192
296.852,5.73883e-09,0,8192,8192
296.902,5.6304e-09,0,8192,8192
296.951,5.5326e-09,0,8192,8192
297.001,5.44639e-09,0,8192,8192
297.051,5.37238e-09,0,8192,8192
297.101,5.31085e-09,0,8192,8192
297.151,5.26175e-09,0,8192,8192
297.2,5.22477e-09,0,8192,8192
297.25,5.19935e-09,0,8192,8192
297.303,5.18414e-09,0,8192,8192
297.353,5.17977e-09,0,8192,8192
297.402,5.18393e-09,0,8192,8192
297.452,5.19527e-09,0,8192,8192
297.502,5.21233e-09,0,8192,8192
297.552,5.23356e-09,0,8192,8192
297.602,5.25732e-09,0,8192,8192
297.651,5.28198e-09,0,8192,8192
297.701,5.3059e-09,0,8192,8192
297.751,5.32754e-09,0,8192,8192
297.801,5.34547e-09,0,8192,8192
297.851,5.35846e-09,0,8192,8192
297.9,5.36547e-09,0,8192,8192
297.95,5.36579e-09,0,8192,8192
298.003,5.35835e-09,0,8192,8192
298.053,5.34389e-09,0,8192,8192
298.103,5.32243e-09,0,8192,8192
298.152,5.29449e-09,0,8192,8192
298.202,5.2608e-09,0,8192,8192
298.252,5.22227e-09,0,8192,8192
298.302,5.17989e-09,0,8192,8192
298.352,5.13466e-09,0,8192,8192
298.401,5.08758e-09,0,8192,8192
298.451,5.03955e-09,0,8192,8192
298.501,4.99143e-09,0,8192,8192
298.551,4.94402e-09,0,8192,8192
298.6,4.89806e-09,0,8192,8192
298.65,4.85431e-09,0,8192,8192
298.7,4.81348e-09,0,8192,8192
298.753,4.77424e-09,0,8192,8192
298.803,4.74166e-09,0,8192,8192
298.852,4.71407e-09,0,8192,8192
298.902,4.69197e-09,0,8192,8192
298.952,4.67571e-09,0,8192,8192
299.002,4.66545e-09,0,8192,8192
299.052,4.66114e-09,0,8192,8192
299.101,4.6625e-09,0,8192,8192
299.151,4.66906e-09,0,8192,8192
299.201,4.6802e-09,0,8192,8192
299.251,4.69515e-09,0,8192,8192
299.301,4.71309e-09,0,8192,8192
299.35,4.73315e-09,0,8192,8192
299.4,4.75449e-09,0,8192,8192
299.453,4.7776e-09,0,8192,8192
299.503,4.79915e-09,0,8192,8192
299.553,4.8198e-09,0,8192,8192
299.602,4.83901e-09,0,8192,8192
299.652,4.85636e-09,0,8192,8192
299.702,4.87152e-09,0,8192,8192
299.752,4.88424e-09,0,8192,8192
299.801,4.89437e-09,0,8192,8192
299.851,4.9018e-09,0,8192,8192
299.901,4.90651e-09,0,8192,8192
299.951,4.9085e-09,0,8192,8192
300.001,4.9078e-09,0,8192,8192
300.05,4.9045e-09,0,8192,8192
300.1,4.89866e-09,0,8192,8192
300.15,4.89037e-09,0,8192,8192
300.203,4.87902e-09,0,8192,8192
300.253,4.86596e-09,0,8192,8192
300.302,4.85069e-09,0,8192,8192
300.352,4.83326e-09,0,8192,8192
300.402,4.81373e-09,0,8192,8192
300.452,4.79213e-09,0,8192,8192
300.502,4.76849e-09,0,8192,8192
300.551,4.74286e-09,0,8192,8192
300.601,4.71531e-09,0,8192,8192
300.651,4.68589e-09,0,8192,8192
300.701,4.65473e-09,0,8192,8192
300.751,4.62192e-09,0,8192,8192
300.8,4.58761e-09,0,8192,8192
300.85,4.55195e-09,0,8192,8192
300.903,4.51291e-09,0,8192,8192
300.953,4.47498e-09,0,8192,8192
301.002,4.4362e-09,0,8192,8192
301.052,4.3967e-09,0,8192,8192
301.102,4.35663e-09,0,8192,8192
301.152,4.31611e-09,0,8192,8192
301.202,4.27523e-09,0,8192,8192
301.251,4.2341e-09,0,8192,8192
301.301,4.19278e-09,0,8192,8192
301.351,4.15134e-09,0,8192,8192
301.401,4.10982e-09,0,8192,8192
301.451,4.06825e-09,0,8192,8192
301.5,4.02667e-09,0,8192,8192
301.55,3.98509e-09,0,8192,8192
301.6,3.9435e-09,0,8192,8192
301.653,3.89946e-09,0,8192,8192
301.703,3.85785e-09,0,8192,8192
301.752,3.81619e-09,0,8192,8192
301.802,3.77447e-09,0,8192,8192
301.852,3.73264e-09,0,8192,8192
301.902,3.69069e-09,0,8192,8192
301.952,3.64856e-09,0,8192,8192
302.001,3.60623e-09,0,8192,8192
302.051,3.56366e-09,0,8192,8192
302.101,3.5208e-09,0,8192,8192
302.151,3.47763e-09,0,8192,8192
302.201,3.43412e-09,0,8192,8192
302.25,3.39024e-09,0,8192,8192
302.3,3.34596e-09,0,8192,8192
302.353,3.29863e-09,0,8192,8192
302.403,3.25349e-09,0,8192,8192
302.452,3.20791e-09,0,8192,8192
302.502,3.1619e-09,0,8192,8192
302.552,3.11544e-09,0,8192,8192
302.602,3.06856e-09,0,8192,8192
302.652,3.02126e-09,0,8192,8192
302.701,2.97355e-09,0,8192,8192
302.751,2.92547e-09,0,8192,8192
302.801,2.87704e-09,0,8192,8192
302.851,2.82829e-09,0,8192,8192
302.901,2.77927e-09,0,8192,8192
302.95,2.73e-09,0,8192,8192
303,2.68055e-09,0,8192,8192
303.05,2.63095e-09,0,8192,8192
303.103,2.57833e-09,0,8192,8192
303.153,2.5286e-09,0,8192,8192
303.202,2.47889e-09,0,8192,8192
303.252,2.42924e-09,0,8192,8192
303.302,2.37972e-09,0,8192,8192
303.352,2.33036e-09,0,8192,8192
303.402,2.28122e-09,0,8192,8192
303.451,2.23235e-09,0,8192,8192
303.501,2.18377e-09,0,8192,8192
303.551,2.13554e-09,0,8192,8192
303.601,2.08767e-09,0,8192,8192
303.651,2.04019e-09,0,8192,8192
303.7,1.99313e-09,0,8192,8192
303.75,1.94651e-09,0,8192,8192
303.803,1.89762e-09,0,8192,8192
303.853,1.85193e-09,0,8192,8192
303.902,1.80669e-09,0,8192,8192
303.952,1.76192e-09,0,8192,8192
304.002,1.7176e-09,0,8192,8192
304.052,1.67374e-09,0,8192,8192
304.102,1.63032e-09,0,8192,8192
304.151,1.58733e-09,0,8192,8192
304.201,1.54477e-09,0,8192,8192
304.251,1.50262e-09,0,8192,8192
304.301,1.46085e-09,0,8192,8192
304.351,1.41946e-09,0,8192,8192
304.4,1.37843e-09,0,8192,8192
304.45,1.33774e-09,0,8192,8192
304.5,1.29738e-09,0,8192,8192
304.553,1.25497e-09,0,8192,8192
304.603,1.21522e-09,0,8192,8192
304.652,1.17574e-09,0,8192,8192
304.702,1.13654e-09,0,8192,8192
304.752,1.09758e-09,0,8192,8192
304.802,1.05887e-09,0,8192,8192
304.852,1.02041e-09,0,8192,8192
304.901,9.82173e-10,0,8192,8192
304.951,9.44174e-10,0,8192,8192
