250,0,0,2048,2048
250.006,0,0,2048,2048
250.053,0,0,2048,2048
250.105,0,0,2048,2048
250.152,0,0,2048,2048
250.205,0,0,2048,2048
250.252,0,0,2048,2048
250.305,0,0,2048,2048
250.352,0,0,2048,2048
250.404,0,0,2048,2048
250.451,0,0,2048,2048
250.504,0,0,2048,2048
250.551,0,0,2048,2048
250.603,0,0,2048,2048
250.65,0,0,2048,2048
250.703,0,0,2048,2048
250.756,0,0,2048,2048
250.803,0,0,2048,2048
250.855,0,0,2048,2048
250.902,0,0,2048,2048
250.955,0,0,2048,2048
251.002,0,0,2048,2048
251.055,0,0,2048,2048
251.101,0,0,2048,2048
251.154,0,0,2048,2048
251.201,0,0,2048,2048
251.254,0,0,2048,2048
251.301,0,0,2048,2048
251.353,0,0,2048,2048
251.4,0,0,2048,2048
251.453,0,0,2048,2048
251.506,0,0,2048,2048
251.553,0,0,2048,2048
251.605,0,0,2048,2048
251.652,0,0,2048,2048
251.705,0,0,2048,2048
251.752,0,0,2048,2048
251.804,0,0,2048,2048
251.851,0,0,2048,2048
251.904,0,0,2048,2048
251.951,0,0,2048,2048
252.004,0,0,2048,2048
252.05,0,0,2048,2048
252.103,0,0,2048,2048
252.15,0,0,2048,2048
252.203,0,0,2048,2048
252.256,0,0,2048,2048
252.302,0,0,2048,2048
252.355,0,0,2048,2048
252.402,0,0,2048,2048
252.455,0,0,2048,2048
252.502,0,0,2048,2048
252.554,0,0,2048,2048
252.601,0,0,2048,2048
252.654,0,0,2048,2048
252.701,0,0,2048,2048
252.754,0,0,2048,2048
252.8,0,0,2048,2048
252.853,0,0,2048,2048
252.906,0,0,2048,2048
252.953,0,0,2048,2048
253.005,0,0,2048,2048
253.052,0,0,2048,2048
253.105,0,0,2048,2048
253.152,0,0,2048,2048
253.205,0,0,2048,2048
253.251,0,0,2048,2048
253.304,0,0,2048,2048
253.351,0,0,2048,2048
253.404,0,0,2048,2048
253.451,0,0,2048,2048
253.503,0,0,2048,2048
253.55,0,0,2048,2048
253.603,0,0,2048,2048
253.656,0,0,2048,2048
253.703,0,0,2048,2048
253.755,0,0,2048,2048
253.802,0,0,2048,2048
253.855,0,0,2048,2048
253.902,0,0,2048,2048
253.954,0,0,2048,2048
254.001,0,0,2048,2048
254.054,0,0,2048,2048
254.101,0,0,2048,2048
254.154,0,0,2048,2048
254.201,0,0,2048,2048
254.253,0,0,2048,2048
254.3,0,0,2048,2048
254.353,0,0,2048,2048
254.406,0,0,2048,2048
254.452,0,0,2048,2048
254.505,0,0,2048,2048
254.552,0,0,2048,2048
254.605,0,0,2048,2048
254.652,0,0,2048,2048
254.704,0,0,2048,2048
254.751,0,0,2048,2048
254.804,0,0,2048,2048
254.851,0,0,2048,2048
254.904,0,0,2048,2048
254.95,0,0,2048,2048
255.003,0,0,2048,2048
255.05,0,0,2048,2048
255.103,0,0,2048,2048
255.155,0,0,2048,2048
255.202,0,0,2048,2048
255.255,0,0,2048,2048
255.302,0,0,2048,2048
255.355,0,0,2048,2048
255.402,0,0,2048,2048
255.454,0,0,2048,2048
255.501,0,0,2048,2048
255.554,0,0,2048,2048
255.601,0,0,2048,2048
255.653,0,0,2048,2048
255.7,0,0,2048,2048
255.753,0,0,2048,2048
255.806,0,0,2048,2048
255.853,0,0,2048,2048
255.905,0,0,2048,2048
255.952,0,0,2048,2048
256.005,0,0,2048,2048
256.052,0,0,2048,2048
256.105,0,0,2048,2048
256.151,0,0,2048,2048
256.204,0,0,2048,2048
256.251,0,0,2048,2048
256.304,0,0,2048,2048
256.351,0,0,2048,2048
256.403,0,0,2048,2048
256.45,0,0,2048,2048
256.503,0,0,2048,2048
256.556,0,0,2048,2048
256.603,0,0,2048,2048
256.655,0,0,2048,2048
256.702,0,0,2048,2048
256.755,0,0,2048,2048
256.802,0,0,2048,2048
256.854,0,0,2048,2048
256.901,0,0,2048,2048
256.954,0,0,2048,2048
257.001,0,0,2048,2048
257.054,0,0,2048,2048
257.101,0,0,2048,2048
257.153,0,0,2048,2048
257.2,0,0,2048,2048
257.253,0,0,2048,2048
257.306,0,0,2048,2048
257.352,0,0,2048,2048
257.405,0,0,2048,2048
257.452,0,0,2048,2048
257.505,0,0,2048,2048
257.552,0,0,2048,2048
257.604,0,0,2048,2048
257.651,0,0,2048,2048
257.704,0,0,2048,2048
257.751,0,0,2048,2048
257.804,0,0,2048,2048
257.85,0,0,2048,2048
257.903,0,0,2048,2048
257.95,0,0,2048,2048
258.003,0,0,2048,2048
258.055,0,0,2048,2048
258.102,0,0,2048,2048
258.155,0,0,2048,2048
258.202,0,0,2048,2048
258.255,0,0,2048,2048
258.302,0,0,2048,2048
258.354,0,0,2048,2048
258.401,0,0,2048,2048
258.454,0,0,2048,2048
258.501,0,0,2048,2048
258.553,0,0,2048,2048
258.6,0,0,2048,2048
258.653,0,0,2048,2048
258.706,0,0,2048,2048
258.753,0,0,2048,2048
258.805,0,0,2048,2048
258.852,0,0,2048,2048
258.905,0,0,2048,2048
258.952,0,0,2048,2048
259.005,0,0,2048,2048
259.051,0,0,2048,2048
259.104,0,0,2048,2048
259.151,0,0,2048,2048
259.204,0,0,2048,2048
259.251,0,0,2048,2048
259.303,0,0,2048,2048
259.35,0,0,2048,2048
259.403,0,0,2048,2048
259.456,0,0,2048,2048
259.503,0,0,2048,2048
259.555,0,0,2048,2048
259.602,0,0,2048,2048
259.655,0,0,2048,2048
259.702,0,0,2048,2048
259.754,0,0,2048,2048
259.801,0,0,2048,2048
259.854,0,0,2048,2048
259.901,0,0,2048,2048
259.954,0,0,2048,2048
260,0,0,2048,2048
260.053,0,0,2048,2048
260.1,0,0,2048,2048
260.153,0,0,2048,2048
260.206,0,0,2048,2048
260.252,0,0,2048,2048
260.305,-2.77556e-17,0,2048,2048
260.352,-5.55112e-17,0,2048,2048
260.405,-5.55112e-17,0,2048,2048
260.452,-5.55112e-17,0,2048,2048
260.504,-5.55112e-17,0,2048,2048
260.551,-5.55112e-17,0,2048,2048
260.604,-5.55112e-17,0,2048,2048
260.651,-5.55112e-17,0,2048,2048
260.704,-5.55112e-17,0,2048,2048
260.75,-5.55112e-17,0,2048,2048
260.803,-2.77556e-17,0,2048,2048
260.856,-2.77556e-17,0,2048,2048
260.903,-2.77556e-17,0,2048,2048
260.955,-2.77556e-17,0,2048,2048
261.002,-2.77556e-17,0,2048,2048
261.055,-2.77556e-17,0,2048,2048
261.102,-2.77556e-17,0,2048,2048
261.155,-2.77556e-17,0,2048,2048
261.201,-2.77556e-17,0,2048,2048
261.254,-2.77556e-17,0,2048,2048
261.301,-2.77556e-17,0,2048,2048
261.354,-2.77556e-17,0,2048,2048
261.401,0,0,2048,2048
261.453,0,0,2048,2048
261.5,0,0,2048,2048
261.553,0,0,2048,2048
261.606,0,0,2048,2048
261.653,0,0,2048,2048
261.705,0,0,2048,2048
261.752,0,0,2048,2048
261.805,0,0,2048,2048
261.852,0,0,2048,2048
261.905,0,0,2048,2048
261.951,0,0,2048,2048
262.004,0,0,2048,2048
262.051,0,0,2048,2048
262.104,0,0,2048,2048
262.151,0,0,2048,2048
262.203,0,0,2048,2048
262.25,0,0,2048,2048
262.303,0,0,2048,2048
262.356,0,0,2048,2048
262.402,0,0,2048,2048
262.455,0,0,2048,2048
262.502,0,0,2048,2048
262.555,0,0,2048,2048
262.602,0,0,2048,2048
262.654,0,0,2048,2048
262.701,0,0,2048,2048
262.754,0,0,2048,2048
262.801,0,0,2048,2048
262.854,0,0,2048,2048
262.9,0,0,2048,2048
262.953,0,0,2048,2048
263,0,0,2048,2048
263.053,0,0,2048,2048
263.105,0,0,2048,2048
263.152,0,0,2048,2048
263.205,0,0,2048,2048
263.252,0,0,2048,2048
263.305,0,0,2048,2048
263.352,0,0,2048,2048
263.404,0,0,2048,2048
263.451,0,0,2048,2048
263.504,0,0,2048,2048
263.551,0,0,2048,2048
263.603,0,0,2048,2048
263.65,0,0,2048,2048
263.703,0,0,2048,2048
263.756,0,0,2048,2048
263.803,0,0,2048,2048
263.855,0,0,2048,2048
263.902,0,0,2048,2048
263.955,0,0,2048,2048
264.002,0,0,2048,2048
264.055,0,0,2048,2048
264.101,0,0,2048,2048
264.154,0,0,2048,2048
264.201,0,0,2048,2048
264.254,0,0,2048,2048
264.301,0,0,2048,2048
264.353,0,0,2048,2048
264.4,0,0,2048,2048
264.453,0,0,2048,2048
264.506,0,0,2048,2048
264.553,0,0,2048,2048
264.605,0,0,2048,2048
264.652,0,0,2048,2048
264.705,0,0,2048,2048
264.752,0,0,2048,2048
264.804,0,0,2048,2048
264.851,0,0,2048,2048
264.904,0,0,2048,2048
264.951,0,0,2048,2048
265.004,-2.77556e-17,0,2048,2048
265.051,-5.55112e-17,0,2048,2048
265.103,-5.55112e-17,0,2048,2048
265.15,-5.55112e-17,0,2048,2048
265.203,-5.55112e-17,0,2048,2048
265.256,-5.55112e-17,0,2048,2048
265.302,-5.55112e-17,0,2048,2048
265.355,-5.55112e-17,0,2048,2048
265.402,-5.55112e-17,0,2048,2048
265.455,-5.55112e-17,0,2048,2048
265.502,-5.55112e-17,0,2048,2048
265.554,-2.77556e-17,0,2048,2048
265.601,-2.77556e-17,0,2048,2048
265.654,-2.77556e-17,0,2048,2048
265.701,-2.77556e-17,0,2048,2048
265.754,-2.77556e-17,0,2048,2048
265.8,-2.77556e-17,0,2048,2048
265.853,-2.77556e-17,0,2048,2048
265.9,-2.77556e-17,0,2048,2048
265.953,-2.77556e-17,0,2048,2048
266.005,-2.77556e-17,0,2048,2048
266.052,-2.77556e-17,0,2048,2048
266.105,-5.55112e-17,0,2048,2048
266.152,-5.55112e-17,0,2048,2048
266.205,-5.55112e-17,0,2048,2048
266.252,-5.55112e-17,0,2048,2048
266.304,-5.55112e-17,0,2048,2048
266.351,-5.55112e-17,0,2048,2048
266.404,-5.55112e-17,0,2048,2048
266.451,-5.55112e-17,0,2048,2048
266.503,-5.55112e-17,0,2048,2048
266.55,-5.55112e-17,0,2048,2048
266.603,-5.55112e-17,0,2048,2048
266.656,-5.55112e-17,0,2048,2048
266.703,-5.55112e-17,0,2048,2048
266.755,-5.55112e-17,0,2048,2048
266.802,-5.55112e-17,0,2048,2048
266.855,-2.77556e-17,0,2048,2048
266.902,-2.77556e-17,0,2048,2048
266.955,-2.77556e-17,0,2048,2048
267.001,-2.77556e-17,0,2048,2048
267.054,-2.77556e-17,0,2048,2048
267.101,-2.77556e-17,0,2048,2048
267.154,-2.77556e-17,0,2048,2048
267.201,-2.77556e-17,0,2048,2048
267.253,-2.77556e-17,0,2048,2048
267.3,-2.77556e-17,0,2048,2048
267.353,-2.77556e-17,0,2048,2048
267.406,-2.77556e-17,0,2048,2048
267.453,-2.77556e-17,0,2048,2048
267.505,-2.77556e-17,0,2048,2048
267.552,-2.77556e-17,0,2048,2048
267.605,-2.77556e-17,0,2048,2048
267.652,-2.77556e-17,0,2048,2048
267.704,-2.77556e-17,0,2048,2048
267.751,-2.77556e-17,0,2048,2048
267.804,-2.77556e-17,0,2048,2048
267.851,-2.77556e-17,0,2048,2048
267.904,-2.77556e-17,0,2048,2048
267.95,-2.77556e-17,0,2048,2048
268.003,-2.77556e-17,0,2048,2048
268.05,-2.77556e-17,0,2048,2048
268.101,-2.77556e-17,0,3490,3490
268.15,-2.77556e-17,0,4414,4414
268.2,-2.77556e-17,0,5374,5374
268.251,-2.77556e-17,0,6310,6310
268.3,-2.77556e-17,0,7270,7270
268.35,-2.77556e-17,0,8158,8158
268.4,-2.77556e-17,0,9082,9082
268.451,-2.77556e-17,0,10042,10042
268.5,-2.77556e-17,0,10966,10966
268.55,-2.77556e-17,0,11854,11854
268.601,-2.77556e-17,0,12814,12814
268.651,-2.77556e-17,0,13738,13738
268.7,-2.77556e-17,0,14626,14626
268.75,-2.77556e-17,0,15586,15586
268.801,-2.77556e-17,0,16462,16462
268.85,-2.77556e-17,0,17398,17398
268.9,-2.77556e-17,0,18274,18274
268.95,-2.77556e-17,0,19234,19234
269.001,-2.77556e-17,0,20122,20122
269.05,-2.77556e-17,0,21046,21046
269.1,-2.77556e-17,0,21934,21934
269.151,-2.77556e-17,0,22894,22894
269.2,-2.77556e-17,0,23770,23770
269.25,-2.77556e-17,0,24706,24706
269.3,-2.77556e-17,0,25582,25582
269.351,-2.77556e-17,0,26542,26542
269.4,-2.77556e-17,0,27430,27430
269.45,-2.77556e-17,0,28346,28346
269.501,-2.77556e-17,0,29242,29242
269.551,-2.77556e-17,0,30186,30186
269.6,-2.77556e-17,0,31078,31078
269.65,-2.77556e-17,0,31966,31966
269.701,-2.77556e-17,0,32890,32890
269.75,-2.77556e-17,0,33778,33778
269.8,-2.77556e-17,0,34654,34654
269.85,-2.77556e-17,0,35542,35542
269.901,-2.77556e-17,0,36502,36502
269.95,-2.77556e-17,0,37378,37378
270,-2.77556e-17,0,38266,38266
270.051,-2.77556e-17,0,39142,39142
270.1,-2.77556e-17,0,40030,40030
270.15,-2.77556e-17,0,40906,40906
270.2,-2.77556e-17,0,41754,41754
270.251,-2.77556e-17,0,42598,42598
270.3,-2.77556e-17,0,43474,43474
270.35,-2.77556e-17,0,44362,44362
270.4,-2.77556e-17,0,45190,45190
270.451,-2.77556e-17,0,46078,46078
270.5,-2.77556e-17,0,46954,46954
270.55,-2.77556e-17,0,47758,47758
270.601,-2.77556e-17,0,48646,48646
270.65,-2.77556e-17,0,49474,49474
270.7,-2.77556e-17,0,50362,50362
270.75,-2.77556e-17,0,51166,51166
270.801,-2.77556e-17,0,51994,51994
270.85,-2.77556e-17,0,52842,52842
270.9,-2.77556e-17,0,53686,53686
270.951,-2.77556e-17,0,54514,54514
271.001,-2.77556e-17,0,55318,55318
271.05,-2.77556e-17,0,56158,56158
271.1,-2.77556e-17,0,56962,56962
271.151,-2.77556e-17,0,57790,57790
271.2,-2.77556e-17,0,58594,58594
271.25,-2.77556e-17,0,59434,59434
271.3,-2.77556e-17,0,60190,60190
271.351,-2.77556e-17,0,60994,60994
271.4,-2.77556e-17,0,61822,61822
271.45,-2.77556e-17,0,62578,62578
271.501,-2.77556e-17,0,63382,63382
271.55,-2.77556e-17,0,64222,64222
271.6,-2.77556e-17,0,64978,64978
271.65,-2.77556e-17,0,65734,65734
271.701,-2.77556e-17,0,66538,66538
271.75,-2.77556e-17,0,67294,67294
271.8,-2.77556e-17,0,68114,68114
271.851,-2.77556e-17,0,68878,68878
271.901,-2.77556e-17,0,69634,69634
271.95,-2.77556e-17,0,70390,70390
272,-2.77556e-17,0,71146,71146
272.051,-2.77556e-17,0,71902,71902
272.1,-2.77556e-17,0,72658,72658
272.15,-2.77556e-17,0,73414,73414
272.2,-2.77556e-17,0,74170,74170
272.251,-2.77556e-17,0,74926,74926
272.3,-2.77556e-17,0,75610,75610
272.35,-2.77556e-17,0,76366,76366
272.401,-2.77556e-17,0,77122,77122
272.45,-2.77556e-17,0,77830,77830
272.5,-2.77556e-17,0,78586,78586
272.55,-2.77556e-17,0,79258,79258
272.601,-2.77556e-17,0,79966,79966
272.65,-2.77556e-17,0,80650,80650
272.7,1.66533e-15,0,81106,81106
272.751,3.4972e-15,0,81730,81730
272.801,5.21805e-15,0,82414,82414
272.85,6.77236e-15,0,83146,83146
272.9,8.40994e-15,0,83878,83878
272.951,1.02418e-14,0,84634,84634
273,1.19349e-14,0,85306,85306
273.05,1.3628e-14,0,86014,86014
273.1,1.54321e-14,0,86770,86770
273.151,1.72085e-14,0,87454,87454
273.2,1.89015e-14,0,88210,88210
273.25,2.06224e-14,0,88918,88918
273.301,2.24543e-14,0,89590,89590
273.35,2.43416e-14,0,90346,90346
273.4,2.6229e-14,0,91054,91054
273.45,2.80886e-14,0,91738,91738
273.501,3.00038e-14,0,92494,92494
273.55,3.18912e-14,0,93202,93202
273.6,3.37785e-14,0,93874,93874
273.65,3.67206e-14,0,94582,94582
273.701,4.34652e-14,0,95266,95266
273.75,5.59275e-14,0,96022,96022
273.8,7.7327e-14,0,96730,96730
273.851,1.10495e-13,0,97402,97402
273.9,1.54349e-13,0,98110,98110
273.95,2.01034e-13,0,98794,98794
274,2.29927e-13,0,99502,99502
274.051,2.02477e-13,0,100174,100174
274.1,7.16094e-14,0,100894,100894
274.15,-1.99923e-13,0,101566,101566
274.201,-1.62467e-12,0,102322,102322
274.251,-3.29569e-11,0,103030,103030
274.3,-1.49267e-10,0,103666,103666
274.35,-3.46506e-10,0,104338,104338
274.401,-4.70092e-10,0,105046,105046
274.45,-3.63833e-10,0,105718,105718
274.5,-7.51787e-11,0,106426,106426
274.55,2.10866e-10,0,107110,107110
274.601,3.25396e-10,0,107818,107818
274.65,2.20931e-10,0,108490,108490
274.7,1.21986e-11,0,109198,109198
274.751,-1.1524e-10,0,109882,109882
274.8,-4.94179e-11,0,110550,110550
274.85,1.402e-10,0,111214,111214
274.9,2.78773e-10,0,111898,111898
274.951,2.45918e-10,0,112606,112606
275,8.72304e-11,0,113242,113242
275.05,-4.26125e-11,0,113914,113914
275.101,-2.88368e-11,0,114622,114622
275.151,1.04004e-10,0,115294,115294
275.2,2.33021e-10,0,115930,115930
275.25,2.56197e-10,0,116638,116638
275.301,1.66954e-10,0,117310,117310
275.35,4.47769e-11,0,117946,117946
275.4,-2.32341e-11,0,118654,118654
275.45,1.00836e-11,0,119278,119278
275.501,1.35928e-10,0,119962,119962
275.55,2.77274e-10,0,120662,120662
275.6,3.19973e-10,0,121294,121294
275.651,1.77409e-10,0,121930,121930
275.7,-8.2979e-11,0,122554,122554
275.75,-2.26087e-10,0,123190,123190
275.8,-2.15322e-11,0,123742,123742
275.851,4.66351e-10,0,124366,124366
275.9,7.48194e-10,0,124954,124954
275.95,3.42707e-10,0,125506,125506
276,-6.03918e-10,0,126082,126082
276.051,-1.0393e-09,0,126634,126634
276.1,4.49922e-10,0,127182,127182
276.15,4.54006e-09,0,127726,127726
276.201,1.07852e-08,0,128230,128230
276.25,1.76006e-08,0,128734,128734
276.3,2.36928e-08,0,129238,129238
276.35,2.82845e-08,0,129658,129658
276.401,3.1395e-08,0,130162,130162
276.45,3.37135e-08,0,130666,130666
276.5,3.67063e-08,0,131072,131072
276.551,4.19656e-08,0,131072,131072
276.6,5.01609e-08,0,131072,131072
276.65,6.11808e-08,0,131072,131072
276.7,7.44313e-08,0,131072,131072
276.751,9.00556e-08,0,131072,131072
276.8,1.08465e-07,0,131072,131072
276.85,1.31354e-07,0,131072,131072
276.9,1.60186e-07,0,131072,131072
276.951,1.96494e-07,0,131072,131072
277,2.39333e-07,0,131072,131072
277.05,2.88114e-07,0,131072,131072
277.101,3.41536e-07,0,131072,131072
277.15,3.95951e-07,0,131072,131072
277.2,4.51453e-07,0,131072,131072
277.25,5.09132e-07,0,131072,131072
277.301,5.71329e-07,0,131072,131072
277.35,6.35879e-07,0,131072,131072
277.4,7.0072e-07,0,131072,131072
277.451,7.62343e-07,0,131072,131072
277.501,8.14978e-07,0,131072,131072
277.55,8.57106e-07,0,131072,131072
277.6,8.87926e-07,0,131072,131072
277.651,9.08454e-07,0,131072,131072
277.7,9.20188e-07,0,131072,131072
277.75,9.25984e-07,0,131072,131072
277.8,9.27706e-07,0,131072,131072
277.851,9.26073e-07,0,131072,131072
277.9,9.2096e-07,0,131072,131072
277.95,9.11612e-07,0,131072,131072
278.001,8.96681e-07,0,131072,131072
278.05,8.75391e-07,0,131072,131072
278.1,8.465e-07,0,131072,131072
278.15,8.09329e-07,0,131072,131072
278.201,7.63275e-07,0,131072,131072
278.25,7.11107e-07,0,131072,131072
278.3,6.54906e-07,0,131072,131072
278.351,5.96981e-07,0,131072,131072
278.401,5.41623e-07,0,131072,131072
278.45,4.89541e-07,0,131072,131072
278.5,4.41395e-07,0,131072,131072
278.551,3.96566e-07,0,131072,131072
278.6,3.55893e-07,0,131072,131072
278.65,3.18016e-07,0,131072,131072
278.7,2.82275e-07,0,131072,131072
278.751,2.47768e-07,0,131072,131072
278.8,2.15638e-07,0,131072,131072
278.85,1.86337e-07,0,131072,131072
278.901,1.61058e-07,0,131072,131072
278.95,1.41534e-07,0,131072,131072
279,1.26652e-07,0,131072,131072
279.05,1.14052e-07,0,131072,131072
279.101,1.01065e-07,0,131072,131072
279.15,8.72096e-08,0,131072,131072
279.2,7.33951e-08,0,131072,131072
279.25,6.14327e-08,0,131072,131072
279.301,5.2346e-08,0,131072,131072
279.35,4.63484e-08,0,131072,131072
279.4,4.23711e-08,0,131072,131072
279.451,3.90557e-08,0,131072,131072
279.5,3.51973e-08,0,131072,131072
279.55,3.00547e-08,0,131072,131072
279.6,2.40437e-08,0,131072,131072
279.651,1.84838e-08,0,131072,131072
279.7,1.49954e-08,0,131072,131072
279.75,1.4022e-08,0,131072,131072
279.801,1.50532e-08,0,131072,131072
279.851,1.7068e-08,0,131072,131072
279.9,1.93512e-08,0,131072,131072
279.95,2.16716e-08,0,131072,131072
280.001,2.41322e-08,0,131072,131072
280.05,2.67772e-08,0,131072,131072
280.1,2.96922e-08,0,131072,131072
280.15,3.28479e-08,0,131072,131072
280.201,3.61746e-08,0,131072,131072
280.25,3.94704e-08,0,131072,131072
280.3,4.28702e-08,0,131072,131072
280.351,4.65765e-08,0,131072,131072
280.4,5.04586e-08,0,131072,131072
280.45,5.44843e-08,0,131072,131072
280.5,5.86523e-08,0,131072,131072
280.551,6.30436e-08,0,131072,131072
280.6,6.74493e-08,0,131072,131072
280.65,7.17617e-08,0,131072,131072
280.701,7.59456e-08,0,131072,131072
280.751,8.00707e-08,0,131072,131072
280.8,8.47147e-08,0,131072,131072
280.85,9.04868e-08,0,131072,131072
280.901,9.7823e-08,0,131072,131072
280.95,1.06278e-07,0,131072,131072
281,1.15234e-07,0,131072,131072
281.05,1.23832e-07,0,131072,131072
281.101,1.31569e-07,0,131072,131072
281.15,1.38128e-07,0,131072,131072
281.2,1.44109e-07,0,131072,131072
281.251,1.50486e-07,0,131072,131072
281.3,1.5803e-07,0,131072,131072
281.35,1.67502e-07,0,131072,131072
281.4,1.79182e-07,0,131072,131072
281.451,1.93347e-07,0,131072,131072
281.5,2.09763e-07,0,131072,131072
281.55,2.29159e-07,0,131072,131072
281.6,2.52415e-07,0,131072,131072
281.651,2.80917e-07,0,131072,131072
281.7,3.14463e-07,0,131072,131072
281.75,3.53405e-07,0,131072,131072
281.801,3.97665e-07,0,131072,131072
281.85,4.44699e-07,0,131072,131072
281.9,4.939e-07,0,131072,131072
281.95,5.44576e-07,0,131072,131072
282.001,5.974e-07,0,131072,131072
282.05,6.50793e-07,0,131072,131072
282.1,7.04734e-07,0,131072,131072
282.151,7.58053e-07,0,131072,131072
282.201,8.06381e-07,0,131072,131072
282.25,8.47623e-07,0,131072,131072
282.3,8.79616e-07,0,131072,131072
282.351,9.01648e-07,0,131072,131072
282.4,9.1341e-07,0,131072,131072
282.45,9.16605e-07,0,131072,131072
282.5,9.12971e-07,0,131072,131072
282.551,9.03925e-07,0,131072,131072
282.6,8.90743e-07,0,131072,131072
282.65,8.73621e-07,0,131072,131072
282.701,8.519e-07,0,131072,131072
282.75,8.25504e-07,0,131072,131072
282.8,7.93315e-07,0,131072,131072
282.85,7.54626e-07,0,131072,131072
282.901,7.08422e-07,0,131072,131072
282.95,6.56442e-07,0,131072,131072
283,5.99312e-07,0,131072,131072
283.051,5.38121e-07,0,131072,131072
283.101,4.77017e-07,0,131072,131072
283.15,4.17319e-07,0,131072,131072
283.2,3.60662e-07,0,131072,131072
283.251,3.07231e-07,0,131072,131072
283.3,2.58854e-07,0,131072,131072
283.35,2.14526e-07,0,131072,131072
283.4,1.73799e-07,0,131072,131072
283.451,1.35673e-07,0,131072,131072
283.5,1.00993e-07,0,131072,131072
283.55,6.93127e-08,0,131072,131072
283.601,4.07642e-08,0,131072,131072
283.65,1.68209e-08,0,131072,131072
283.7,-2.68082e-09,0,131072,131072
283.75,-1.8209e-08,0,131072,131072
283.801,-3.10928e-08,0,131072,131072
283.85,-4.22652e-08,0,131072,131072
283.9,-5.26724e-08,0,131072,131072
283.95,-6.22166e-08,0,131072,131072
284.001,-7.03324e-08,0,131072,131072
284.05,-7.61175e-08,0,131072,131072
284.1,-7.95272e-08,0,131072,131072
284.151,-8.10044e-08,0,131072,131072
284.2,-8.13617e-08,0,131072,131072
284.25,-8.15098e-08,0,131072,131072
284.3,-8.19624e-08,0,131072,131072
284.351,-8.2655e-08,0,131072,131072
284.4,-8.29881e-08,0,131072,131072
284.45,-8.22839e-08,0,131072,131072
284.501,-8.01244e-08,0,131072,131072
284.551,-7.66952e-08,0,131072,131072
284.6,-7.24542e-08,0,131072,131072
284.65,-6.79357e-08,0,131072,131072
284.701,-6.3445e-08,0,131072,131072
284.75,-5.92732e-08,0,131072,131072
284.8,-5.53872e-08,0,131072,131072
284.85,-5.1797e-08,0,131072,131072
284.901,-4.84913e-08,0,131072,131072
284.95,-4.56119e-08,0,131072,131072
285,-4.3119e-08,0,131072,131072
285.051,-4.09358e-08,0,131072,131072
285.1,-3.9048e-08,0,131072,131072
285.15,-3.73682e-08,0,131072,131072
285.2,-3.58867e-08,0,131072,131072
285.251,-3.46004e-08,0,131072,131072
285.3,-3.35557e-08,0,131072,131072
285.35,-3.27257e-08,0,131072,131072
285.401,-3.20845e-08,0,131072,131072
285.451,-3.16279e-08,0,131072,131072
285.5,-3.1323e-08,0,131072,131072
285.55,-3.11489e-08,0,131072,131072
285.601,-3.1086e-08,0,131072,131072
285.65,-3.11174e-08,0,131072,131072
285.7,-3.12228e-08,0,131072,131072
285.75,-3.13843e-08,0,131072,131072
285.801,-3.15887e-08,0,131072,131072
285.85,-3.18169e-08,0,131072,131072
285.9,-3.20628e-08,0,131072,131072
285.951,-3.23253e-08,0,131072,131072
286,-3.25936e-08,0,131072,131072
286.05,-3.28674e-08,0,131072,131072
286.1,-3.31415e-08,0,131072,131072
286.151,-3.34132e-08,0,131072,131072
286.2,-3.36685e-08,0,131072,131072
286.25,-3.39077e-08,0,131072,131072
286.3,-3.41298e-08,0,131072,131072
286.351,-3.43391e-08,0,131072,131072
286.4,-3.45316e-08,0,131072,131072
286.45,-3.4711e-08,0,131072,131072
286.501,-3.48784e-08,0,131072,131072
286.55,-3.50258e-08,0,131072,131072
286.6,-3.51523e-08,0,131072,131072
286.65,-3.52556e-08,0,131072,131072
286.701,-3.53356e-08,0,131072,131072
286.75,-3.53906e-08,0,131072,131072
286.8,-3.54235e-08,0,131072,131072
286.851,-3.54359e-08,0,131072,131072
286.9,-3.54289e-08,0,131072,131072
286.95,-3.54048e-08,0,131072,131072
287,-3.53657e-08,0,131072,131072
287.051,-3.53134e-08,0,131072,131072
287.1,-3.5252e-08,0,131072,131072
287.15,-3.51835e-08,0,131072,131072
287.2,-3.511e-08,0,131072,131072
287.251,-3.50321e-08,0,131072,131072
287.3,-3.49533e-08,0,131072,131072
287.35,-3.4874e-08,0,131072,131072
287.401,-3.47941e-08,0,131072,131072
287.45,-3.4717e-08,0,131072,131072
287.5,-3.46428e-08,0,131072,131072
287.55,-3.45722e-08,0,131072,131072
287.601,-3.45051e-08,0,131072,131072
287.65,-3.44441e-08,0,131072,131072
287.7,-3.43888e-08,0,131072,131072
287.751,-3.43388e-08,0,131072,131072
287.801,-3.42961e-08,0,131072,131072
287.85,-3.42601e-08,0,131072,131072
287.9,-3.42309e-08,0,131072,131072
287.951,-3.42082e-08,0,131072,131072
288,-3.41928e-08,0,131072,131072
288.05,-3.41841e-08,0,131072,131072
288.1,-3.41823e-08,0,131072,131072
288.151,-3.41877e-08,0,131072,131072
288.2,-3.42003e-08,0,131072,131072
288.25,-3.42205e-08,0,131072,131072
288.301,-3.42489e-08,0,131072,131072
288.35,-3.42848e-08,0,131072,131072
288.4,-3.43282e-08,0,131072,131072
288.45,-3.43784e-08,0,131072,131072
288.501,-3.44359e-08,0,131072,131072
288.55,-3.44985e-08,0,131072,131072
288.6,-3.45668e-08,0,131072,131072
288.651,-3.46424e-08,0,131072,131072
288.701,-3.47237e-08,0,131072,131072
288.75,-3.48126e-08,0,131072,131072
288.8,-3.49102e-08,0,131072,131072
288.851,-3.50195e-08,0,131072,131072
288.9,-3.51389e-08,0,131072,131072
288.95,-3.52719e-08,0,131072,131072
289,-3.54206e-08,0,131072,131072
289.051,-3.55901e-08,0,131072,131072
289.1,-3.57777e-08,0,131072,131072
289.15,-3.59878e-08,0,131072,131072
289.201,-3.62257e-08,0,131072,131072
289.25,-3.64854e-08,0,131072,131072
289.3,-3.67708e-08,0,131072,131072
289.35,-3.7082e-08,0,131072,131072
289.401,-3.74239e-08,0,131072,131072
289.45,-3.77855e-08,0,131072,131072
289.5,-3.81695e-08,0,131072,131072
289.551,-3.8579e-08,0,131072,131072
289.601,-3.89977e-08,0,131072,131072
289.65,-3.94262e-08,0,131072,131072
289.7,-3.98587e-08,0,131072,131072
289.751,-4.02956e-08,0,131072,131072
289.8,-4.07189e-08,0,131072,131072
289.85,-4.11304e-08,0,131072,131072
289.9,-4.1526e-08,0,131072,131072
289.951,-4.19081e-08,0,131072,131072
290,-4.22623e-08,0,131072,131072
290.05,-4.25914e-08,0,131072,131072
290.101,-4.28959e-08,0,131072,131072
290.15,-4.31632e-08,0,131072,131072
290.2,-4.3394e-08,0,131072,131072
290.25,-4.35847e-08,0,131072,131072
290.301,-4.37341e-08,0,131072,131072
290.35,-4.38358e-08,0,131072,131072
290.4,-4.38915e-08,0,131072,131072
290.45,-4.39012e-08,0,131072,131072
290.501,-4.38649e-08,0,131072,131072
290.55,-4.37848e-08,0,131072,131072
290.6,-4.36622e-08,0,131072,131072
290.651,-4.34958e-08,0,131072,131072
290.7,-4.32917e-08,0,131072,131072
290.75,-4.30484e-08,0,131072,131072
290.8,-4.27663e-08,0,131072,131072
290.851,-4.244e-08,0,131072,131072
290.9,-4.20783e-08,0,131072,131072
290.95,-4.16757e-08,0,131072,131072
291.001,-4.12244e-08,0,131072,131072
291.051,-4.07366e-08,0,131072,131072
291.1,-4.02058e-08,0,131072,131072
291.15,-3.96318e-08,0,131072,131072
291.201,-3.90052e-08,0,131072,131072
291.25,-3.83441e-08,0,131072,131072
291.3,-3.76403e-08,0,131072,131072
291.35,-3.68952e-08,0,131072,131072
291.401,-3.60994e-08,0,131072,131072
291.45,-3.528e-08,0,131072,131072
291.5,-3.44314e-08,0,131072,131072
291.551,-3.35473e-08,0,131072,131072
291.6,-3.26605e-08,0,131072,131072
291.65,-3.17655e-08,0,131072,131072
291.7,-3.08692e-08,0,131072,131072
291.751,-2.99645e-08,0,131072,131072
291.8,-2.90829e-08,0,131072,131072
291.85,-2.82159e-08,0,131072,131072
291.901,-2.73553e-08,0,131072,131072
291.951,-2.65301e-08,0,131072,131072
292,-2.57315e-08,0,131072,131072
292.05,-2.49639e-08,0,131072,131072
292.101,-2.4221e-08,0,131072,131072
292.15,-2.35288e-08,0,131072,131072
292.2,-2.28803e-08,0,131072,131072
292.25,-2.22789e-08,0,131072,131072
292.301,-2.17187e-08,0,131072,131072
292.35,-2.12168e-08,0,131072,131072
292.4,-2.07641e-08,0,131072,131072
292.451,-2.03532e-08,0,131072,131072
292.5,-1.99931e-08,0,131072,131072
292.55,-1.96745e-08,0,131072,131072
292.6,-1.93939e-08,0,131072,131072
292.651,-1.91448e-08,0,131072,131072
292.7,-1.89314e-08,0,131072,131072
292.75,-1.87469e-08,0,131072,131072
292.8,-1.85885e-08,0,131072,131072
292.851,-1.84513e-08,0,131072,131072
292.9,-1.8336e-08,0,131072,131072
292.95,-1.82374e-08,0,131072,131072
293.001,-1.81512e-08,0,131072,131072
293.05,-1.80774e-08,0,131072,131072
293.1,-1.8013e-08,0,131072,131072
293.15,-1.79562e-08,0,131072,131072
293.201,-1.7905e-08,0,131072,131072
293.25,-1.78593e-08,0,131072,131072
293.3,-1.78166e-08,0,131072,131072
293.351,-1.7775e-08,0,131072,131072
293.401,-1.77347e-08,0,131072,131072
293.45,-1.76945e-08,0,131072,131072
293.5,-1.76543e-08,0,131072,131072
293.551,-1.76133e-08,0,131072,131072
293.6,-1.75718e-08,0,131072,131072
293.65,-1.75283e-08,0,131072,131072
293.7,-1.74811e-08,0,131072,131072
293.751,-1.74279e-08,0,131072,131072
293.8,-1.73691e-08,0,131072,131072
293.85,-1.73031e-08,0,131072,131072
293.901,-1.72284e-08,0,131072,131072
293.95,-1.71467e-08,0,131072,131072
294,-1.70566e-08,0,131072,131072
294.05,-1.69577e-08,0,131072,131072
294.101,-1.68482e-08,0,131072,131072
294.15,-1.67312e-08,0,131072,131072
294.2,-1.6606e-08,0,131072,131072
294.251,-1.64713e-08,0,131072,131072
294.301,-1.63322e-08,0,131072,131072
294.35,-1.61873e-08,0,131072,131072
294.4,-1.6037e-08,0,131072,131072
294.451,-1.58788e-08,0,131072,131072
294.5,-1.57176e-08,0,131072,131072
294.55,-1.55516e-08,0,131072,131072
294.6,-1.53819e-08,0,131072,131072
294.651,-1.52073e-08,0,131072,131072
294.7,-1.50339e-08,0,131072,131072
294.75,-1.48592e-08,0,131072,131072
294.801,-1.46795e-08,0,131072,131072
294.85,-1.44978e-08,0,131072,131072
294.9,-1.43095e-08,0,131072,131072
294.95,-1.41126e-08,0,131072,131072
295.001,-1.39031e-08,0,131072,131072
295.05,-1.3687e-08,0,131072,131072
295.1,-1.34626e-08,0,131072,131072
295.15,-1.32311e-08,0,131072,131072
295.201,-1.29905e-08,0,131072,131072
295.25,-1.27485e-08,0,131072,131072
295.3,-1.25015e-08,0,131072,131072
295.351,-1.22448e-08,0,131072,131072
295.4,-1.19838e-08,0,131072,131072
295.45,-1.17122e-08,0,131072,131072
295.5,-1.14267e-08,0,131072,131072
295.551,-1.11195e-08,0,131072,131072
295.6,-1.07966e-08,0,131072,131072
295.65,-1.0451e-08,0,131072,131072
295.701,-1.00748e-08,0,131072,131072
295.751,-9.67702e-09,0,131072,131072
295.8,-9.25091e-09,0,131072,131072
295.85,-8.79507e-09,0,131072,131072
295.901,-8.30088e-09,0,131072,131072
295.95,-7.78157e-09,0,131072,131072
296,-7.22935e-09,0,131072,131072
296.05,-6.64388e-09,0,131072,131072
296.101,-6.01643e-09,0,131072,131072
296.15,-5.36726e-09,0,131072,131072
296.2,-4.69117e-09,0,131072,131072
296.251,-3.98295e-09,0,131072,131072
296.3,-3.26929e-09,0,131072,131072
296.35,-2.5464e-09,0,131072,131072
296.4,-1.82034e-09,0,131072,131072
296.451,-1.08607e-09,0,131072,131072
296.5,-3.70122e-10,0,131072,131072
296.55,3.3328e-10,0,131072,131072
296.601,1.02938e-09,0,131072,131072
296.651,1.69355e-09,0,131072,131072
296.7,2.33201e-09,0,131072,131072
296.75,2.94114e-09,0,131072,131072
296.801,3.52585e-09,0,131072,131072
296.85,4.06595e-09,0,131072,131072
296.9,4.56689e-09,0,131072,131072
296.95,5.02541e-09,0,131072,131072
297.001,5.44424e-09,0,131072,131072
297.05,5.80895e-09,0,131072,131072
297.1,6.12488e-09,0,131072,131072
297.151,6.39592e-09,0,131072,131072
297.2,6.6159e-09,0,131072,131072
297.25,6.79176e-09,0,131072,131072
297.3,6.92674e-09,0,131072,131072
297.351,7.02543e-09,0,131072,131072
297.4,7.08844e-09,0,131072,131072
297.45,7.12076e-09,0,131072,131072
297.5,7.12558e-09,0,131072,131072
297.551,7.10561e-09,0,131072,131072
297.6,7.06463e-09,0,131072,131072
297.65,7.00567e-09,0,131072,131072
297.701,6.93064e-09,0,131072,131072
297.75,6.84461e-09,0,131072,131072
297.8,6.74913e-09,0,131072,131072
297.85,6.64637e-09,0,131072,131072
297.901,6.53657e-09,0,131072,131072
297.95,6.42461e-09,0,131072,131072
298,6.31049e-09,0,131072,131072
298.051,6.19401e-09,0,131072,131072
298.1,6.07981e-09,0,131072,131072
298.15,5.96721e-09,0,131072,131072
298.2,5.85686e-09,0,131072,131072
298.251,5.74766e-09,0,131072,131072
298.3,5.64319e-09,0,131072,131072
298.35,5.5424e-09,0,131072,131072
298.4,5.44603e-09,0,131072,131072
298.451,5.35369e-09,0,131072,131072
298.5,5.26897e-09,0,131072,131072
298.55,5.19118e-09,0,131072,131072
298.601,5.11976e-09,0,131072,131072
298.65,5.05691e-09,0,131072,131072
298.7,5.00146e-09,0,131072,131072
298.75,4.95322e-09,0,131072,131072
298.801,4.91133e-09,0,131072,131072
298.85,4.87654e-09,0,131072,131072
298.9,4.84749e-09,0,131072,131072
298.951,4.82289e-09,0,131072,131072
299.001,4.80229e-09,0,131072,131072
299.05,4.78413e-09,0,131072,131072
299.1,4.76741e-09,0,131072,131072
299.151,4.75112e-09,0,131072,131072
299.2,4.73517e-09,0,131072,131072
299.25,4.71875e-09,0,131072,131072
299.3,4.70114e-09,0,131072,131072
299.351,4.68111e-09,0,131072,131072
299.4,4.65827e-09,0,131072,131072
299.45,4.63168e-09,0,131072,131072
299.501,4.60073e-09,0,131072,131072
299.55,4.56689e-09,0,131072,131072
299.6,4.53087e-09,0,131072,131072
299.65,4.49404e-09,0,131072,131072
299.701,4.45713e-09,0,131072,131072
299.75,4.42202e-09,0,131072,131072
299.8,4.38839e-09,0,131072,131072
299.851,4.35546e-09,0,131072,131072
299.901,4.32351e-09,0,131072,131072
299.95,4.29129e-09,0,131072,131072
300,4.25822e-09,0,131072,131072
300.051,4.22358e-09,0,131072,131072
300.1,4.18862e-09,0,131072,131072
300.15,4.1535e-09,0,131072,131072
300.2,4.1192e-09,0,131072,131072
300.251,4.08632e-09,0,131072,131072
300.3,4.05672e-09,0,131072,131072
300.35,4.03041e-09,0,131072,131072
300.401,4.0071e-09,0,131072,131072
300.45,3.98699e-09,0,131072,131072
300.5,3.96893e-09,0,131072,131072
300.55,3.95204e-09,0,131072,131072
300.601,3.93527e-09,0,131072,131072
300.65,3.91856e-09,0,131072,131072
300.7,3.90146e-09,0,131072,131072
300.75,3.884e-09,0,131072,131072
300.801,3.86609e-09,0,131072,131072
300.85,3.84838e-09,0,131072,131072
300.9,3.83056e-09,0,131072,131072
300.951,3.81208e-09,0,131072,131072
301,3.7931e-09,0,131072,131072
301.05,3.77303e-09,0,131072,131072
301.1,3.75183e-09,0,131072,131072
301.151,3.72938e-09,0,131072,131072
301.2,3.70673e-09,0,131072,131072
301.25,3.6839e-09,0,131072,131072
301.301,3.6607e-09,0,131072,131072
301.351,3.63767e-09,0,131072,131072
301.4,3.6142e-09,0,131072,131072
301.45,3.59005e-09,0,131072,131072
301.501,3.56477e-09,0,131072,131072
301.55,3.53928e-09,0,131072,131072
301.6,3.51353e-09,0,131072,131072
301.65,3.48783e-09,0,131072,131072
301.701,3.46193e-09,0,131072,131072
301.75,3.43653e-09,0,131072,131072
301.8,3.41101e-09,0,131072,131072
301.851,3.38472e-09,0,131072,131072
301.9,3.35821e-09,0,131072,131072
301.95,3.33103e-09,0,131072,131072
302,3.30325e-09,0,131072,131072
302.051,3.27455e-09,0,131072,131072
302.1,3.24589e-09,0,131072,131072
302.15,3.21695e-09,0,131072,131072
302.201,3.18737e-09,0,131072,131072
302.251,3.15807e-09,0,131072,131072
302.3,3.12864e-09,0,131072,131072
302.35,3.09911e-09,0,131072,131072
302.401,3.06905e-09,0,131072,131072
302.45,3.03932e-09,0,131072,131072
302.5,3.00948e-09,0,131072,131072
302.55,2.97951e-09,0,131072,131072
302.601,2.94898e-09,0,131072,131072
302.65,2.91876e-09,0,131072,131072
302.7,2.88841e-09,0,131072,131072
302.751,2.85747e-09,0,131072,131072
302.8,2.82684e-09,0,131072,131072
302.85,2.79605e-09,0,131072,131072
302.9,2.76508e-09,0,131072,131072
302.951,2.73345e-09,0,131072,131072
303,2.70205e-09,0,131072,131072
303.05,2.67039e-09,0,131072,131072
303.1,2.63843e-09,0,131072,131072
303.151,2.60567e-09,0,131072,131072
303.2,2.573e-09,0,131072,131072
303.25,2.53993e-09,0,131072,131072
303.301,2.50591e-09,0,131072,131072
303.35,2.47191e-09,0,131072,131072
303.4,2.4374e-09,0,131072,131072
303.45,2.40235e-09,0,131072,131072
303.501,2.36621e-09,0,131072,131072
303.55,2.33e-09,0,131072,131072
303.6,2.29318e-09,0,131072,131072
303.651,2.25519e-09,0,131072,131072
303.701,2.21714e-09,0,131072,131072
303.75,2.17848e-09,0,131072,131072
303.8,2.13924e-09,0,131072,131072
303.851,2.09886e-09,0,131072,131072
303.9,2.05852e-09,0,131072,131072
303.95,2.01769e-09,0,131072,131072
304,1.9764e-09,0,131072,131072
304.051,1.93408e-09,0,131072,131072
304.1,1.892e-09,0,131072,131072
304.15,1.8496e-09,0,131072,131072
304.201,1.80632e-09,0,131072,131072
304.25,1.76347e-09,0,131072,131072
304.3,1.72048e-09,0,131072,131072
304.35,1.67743e-09,0,131072,131072
304.401,1.63375e-09,0,131072,131072
304.45,1.59078e-09,0,131072,131072
304.5,1.54794e-09,0,131072,131072
304.551,1.50469e-09,0,131072,131072
304.601,1.46233e-09,0,131072,131072
304.65,1.4203e-09,0,131072,131072
304.7,1.37866e-09,0,131072,131072
304.751,1.33684e-09,0,131072,131072
304.8,1.29611e-09,0,131072,131072
304.85,1.25591e-09,0,131072,131072
304.9,1.21628e-09,0,131072,131072
304.951,1.17669e-09,0,131072,131072
