250,0,0,512,512
250.012,0,0,512,512
250.059,0,0,512,512
250.105,0,0,512,512
250.152,0,0,512,512
250.211,0,0,512,512
250.258,0,0,512,512
250.305,0,0,512,512
250.352,0,0,512,512
250.41,2.77556e-17,0,512,512
250.457,2.77556e-17,0,512,512
250.504,0,0,512,512
250.551,0,0,512,512
250.609,0,0,512,512
250.656,0,0,512,512
250.703,0,0,512,512
250.762,0,0,512,512
250.808,0,0,512,512
250.855,0,0,512,512
250.902,2.77556e-17,0,512,512
250.961,2.77556e-17,0,512,512
251.008,2.77556e-17,0,512,512
251.055,2.77556e-17,0,512,512
251.101,0,0,512,512
251.16,0,0,512,512
251.207,2.77556e-17,0,512,512
251.254,0,0,512,512
251.301,0,0,512,512
251.359,0,0,512,512
251.406,0,0,512,512
251.453,0,0,512,512
251.511,0,0,512,512
251.558,0,0,512,512
251.605,2.77556e-17,0,512,512
251.652,2.77556e-17,0,512,512
251.711,0,0,512,512
251.758,0,0,512,512
251.804,0,0,512,512
251.851,0,0,512,512
251.91,0,0,512,512
251.957,0,0,512,512
252.004,-2.77556e-17,0,512,512
252.05,-2.77556e-17,0,512,512
252.109,-2.77556e-17,0,512,512
252.156,0,0,512,512
252.203,0,0,512,512
252.261,0,0,512,512
252.308,0,0,512,512
252.355,2.77556e-17,0,512,512
252.402,2.77556e-17,0,512,512
252.461,0,0,512,512
252.507,0,0,512,512
252.554,0,0,512,512
252.601,0,0,512,512
252.66,0,0,512,512
252.707,0,0,512,512
252.754,0,0,512,512
252.8,0,0,512,512
252.859,2.77556e-17,0,512,512
252.906,0,0,512,512
252.953,0,0,512,512
253.011,0,0,512,512
253.058,0,0,512,512
253.105,0,0,512,512
253.152,0,0,512,512
253.21,0,0,512,512
253.257,0,0,512,512
253.304,2.77556e-17,0,512,512
253.351,2.77556e-17,0,512,512
253.41,0,0,512,512
253.457,0,0,512,512
253.503,0,0,512,512
253.55,2.77556e-17,0,512,512
253.609,2.77556e-17,0,512,512
253.656,2.77556e-17,0,512,512
253.703,2.77556e-17,0,512,512
253.761,0,0,512,512
253.808,0,0,512,512
253.855,0,0,512,512
253.902,-2.77556e-17,0,512,512
253.96,-2.77556e-17,0,512,512
254.007,0,0,512,512
254.054,0,0,512,512
254.101,-2.77556e-17,0,512,512
254.16,0,0,512,512
254.206,-2.77556e-17,0,512,512
254.253,0,0,512,512
254.3,0,0,512,512
254.359,0,0,512,512
254.406,0,0,512,512
254.452,0,0,512,512
254.511,-2.77556e-17,0,512,512
254.558,-2.77556e-17,0,512,512
254.605,-2.77556e-17,0,512,512
254.652,-2.77556e-17,0,512,512
254.71,-2.77556e-17,0,512,512
254.757,0,0,512,512
254.804,0,0,512,512
254.851,-2.77556e-17,0,512,512
254.909,-5.55112e-17,0,512,512
254.956,-2.77556e-17,0,512,512
255.003,-2.77556e-17,0,512,512
255.05,-2.77556e-17,0,512,512
255.109,-2.77556e-17,0,512,512
255.155,-2.77556e-17,0,512,512
255.202,-2.77556e-17,0,512,512
255.261,-2.77556e-17,0,512,512
255.308,-2.77556e-17,0,512,512
255.355,-2.77556e-17,0,512,512
255.402,-2.77556e-17,0,512,512
255.46,-2.77556e-17,0,512,512
255.507,-2.77556e-17,0,512,512
255.554,-2.77556e-17,0,512,512
255.601,0,0,512,512
255.659,0,0,512,512
255.706,0,0,512,512
255.753,0,0,512,512
255.812,0,0,512,512
255.859,0,0,512,512
255.905,2.77556e-17,0,512,512
255.952,0,0,512,512
256.011,0,0,512,512
256.058,0,0,512,512
256.105,0,0,512,512
256.151,0,0,512,512
256.21,0,0,512,512
256.257,2.77556e-17,0,512,512
256.304,2.77556e-17,0,512,512
256.351,0,0,512,512
256.409,0,0,512,512
256.456,0,0,512,512
256.503,0,0,512,512
256.562,0,0,512,512
256.608,0,0,512,512
256.655,-2.77556e-17,0,512,512
256.702,0,0,512,512
256.761,-2.77556e-17,0,512,512
256.808,0,0,512,512
256.854,-2.77556e-17,0,512,512
256.901,-2.77556e-17,0,512,512
256.96,-2.77556e-17,0,512,512
257.007,-2.77556e-17,0,512,512
257.054,0,0,512,512
257.101,-2.77556e-17,0,512,512
257.159,-2.77556e-17,0,512,512
257.206,0,0,512,512
257.253,0,0,512,512
257.311,0,0,512,512
257.358,2.77556e-17,0,512,512
257.405,2.77556e-17,0,512,512
257.452,0,0,512,512
257.511,0,0,512,512
257.557,0,0,512,512
257.604,0,0,512,512
257.651,0,0,512,512
257.71,-2.77556e-17,0,512,512
257.757,0,0,512,512
257.804,0,0,512,512
257.85,0,0,512,512
257.909,-2.77556e-17,0,512,512
257.956,-2.77556e-17,0,512,512
258.003,-2.77556e-17,0,512,512
258.061,0,0,512,512
258.108,0,0,512,512
258.155,0,0,512,512
258.202,0,0,512,512
258.261,0,0,512,512
258.307,-2.77556e-17,0,512,512
258.354,0,0,512,512
258.401,-2.77556e-17,0,512,512
258.46,-2.77556e-17,0,512,512
258.507,-2.77556e-17,0,512,512
258.553,-2.77556e-17,0,512,512
258.6,-2.77556e-17,0,512,512
258.659,-2.77556e-17,0,512,512
258.706,-5.55112e-17,0,512,512
258.753,-5.55112e-17,0,512,512
258.811,-5.55112e-17,0,512,512
258.858,-5.55112e-17,0,512,512
258.905,-2.77556e-17,0,512,512
258.952,0,0,512,512
259.01,0,0,512,512
259.057,-2.77556e-17,0,512,512
259.104,0,0,512,512
259.151,0,0,512,512
259.21,-2.77556e-17,0,512,512
259.256,-2.77556e-17,0,512,512
259.303,0,0,512,512
259.35,0,0,512,512
259.409,2.77556e-17,0,512,512
259.456,2.77556e-17,0,512,512
259.503,0,0,512,512
259.561,0,0,512,512
259.608,0,0,512,512
259.655,-2.77556e-17,0,512,512
259.702,-2.77556e-17,0,512,512
259.76,0,0,512,512
259.807,0,0,512,512
259.854,2.77556e-17,0,512,512
259.901,0,0,512,512
259.959,0,0,512,512
260.006,0,0,512,512
260.053,0,0,512,512
260.1,-2.77556e-17,0,512,512
260.159,-2.77556e-17,0,512,512
260.206,-2.77556e-17,0,512,512
260.252,-2.77556e-17,0,512,512
260.311,-2.77556e-17,0,512,512
260.358,-2.77556e-17,0,512,512
260.405,-2.77556e-17,0,512,512
260.452,-2.77556e-17,0,512,512
260.51,-2.77556e-17,0,512,512
260.557,-2.77556e-17,0,512,512
260.604,0,0,512,512
260.651,0,0,512,512
260.709,0,0,512,512
260.756,0,0,512,512
260.803,0,0,512,512
260.862,0,0,512,512
260.909,2.77556e-17,0,512,512
260.955,2.77556e-17,0,512,512
261.002,2.77556e-17,0,512,512
261.061,2.77556e-17,0,512,512
261.108,2.77556e-17,0,512,512
261.155,2.77556e-17,0,512,512
261.201,2.77556e-17,0,512,512
261.26,0,0,512,512
261.307,0,0,512,512
261.354,0,0,512,512
261.401,0,0,512,512
261.459,0,0,512,512
261.506,0,0,512,512
261.553,0,0,512,512
261.612,0,0,512,512
261.658,0,0,512,512
261.705,0,0,512,512
261.752,2.77556e-17,0,512,512
261.811,2.77556e-17,0,512,512
261.858,-2.77556e-17,0,512,512
261.905,0,0,512,512
261.951,0,0,512,512
262.01,0,0,512,512
262.057,0,0,512,512
262.104,0,0,512,512
262.151,0,0,512,512
262.209,0,0,512,512
262.256,2.77556e-17,0,512,512
262.303,2.77556e-17,0,512,512
262.361,0,0,512,512
262.408,0,0,512,512
262.455,0,0,512,512
262.502,0,0,512,512
262.561,0,0,512,512
262.608,2.77556e-17,0,512,512
262.654,2.77556e-17,0,512,512
262.701,2.77556e-17,0,512,512
262.76,2.77556e-17,0,512,512
262.807,0,0,512,512
262.854,0,0,512,512
262.9,2.77556e-17,0,512,512
262.959,0,0,512,512
263.006,0,0,512,512
263.053,0,0,512,512
263.111,0,0,512,512
263.158,0,0,512,512
263.205,0,0,512,512
263.252,0,0,512,512
263.311,0,0,512,512
263.357,2.77556e-17,0,512,512
263.404,2.77556e-17,0,512,512
263.451,2.77556e-17,0,512,512
263.51,0,0,512,512
263.557,0,0,512,512
263.603,0,0,512,512
263.65,0,0,512,512
263.709,-2.77556e-17,0,512,512
263.756,-2.77556e-17,0,512,512
263.803,-2.77556e-17,0,512,512
263.861,0,0,512,512
263.908,0,0,512,512
263.955,2.77556e-17,0,512,512
264.002,0,0,512,512
264.06,0,0,512,512
264.107,0,0,512,512
264.154,0,0,512,512
264.201,0,0,512,512
264.26,0,0,512,512
264.306,2.77556e-17,0,512,512
264.353,2.77556e-17,0,512,512
264.4,2.77556e-17,0,512,512
264.459,2.77556e-17,0,512,512
264.506,2.77556e-17,0,512,512
264.553,2.77556e-17,0,512,512
264.611,2.77556e-17,0,512,512
264.658,2.77556e-17,0,512,512
264.705,2.77556e-17,0,512,512
264.752,2.77556e-17,0,512,512
264.81,2.77556e-17,0,512,512
264.857,2.77556e-17,0,512,512
264.904,2.77556e-17,0,512,512
264.951,2.77556e-17,0,512,512
265.01,2.77556e-17,0,512,512
265.056,2.77556e-17,0,512,512
265.103,2.77556e-17,0,512,512
265.15,2.77556e-17,0,512,512
265.209,2.77556e-17,0,512,512
265.256,2.77556e-17,0,512,512
265.302,2.77556e-17,0,512,512
265.361,5.55112e-17,0,512,512
265.408,5.55112e-17,0,512,512
265.455,5.55112e-17,0,512,512
265.502,5.55112e-17,0,512,512
265.56,2.77556e-17,0,512,512
265.607,2.77556e-17,0,512,512
265.654,2.77556e-17,0,512,512
265.701,2.77556e-17,0,512,512
265.759,2.77556e-17,0,512,512
265.806,2.77556e-17,0,512,512
265.853,2.77556e-17,0,512,512
265.9,2.77556e-17,0,512,512
265.959,2.77556e-17,0,512,512
266.005,2.77556e-17,0,512,512
266.052,2.77556e-17,0,512,512
266.111,0,0,512,512
266.158,2.77556e-17,0,512,512
266.205,0,0,512,512
266.252,2.77556e-17,0,512,512
266.31,2.77556e-17,0,512,512
266.357,2.77556e-17,0,512,512
266.404,2.77556e-17,0,512,512
266.451,2.77556e-17,0,512,512
266.509,0,0,512,512
266.556,0,0,512,512
266.603,-2.77556e-17,0,512,512
266.662,-2.77556e-17,0,512,512
266.708,-2.77556e-17,0,512,512
266.755,0,0,512,512
266.802,-2.77556e-17,0,512,512
266.861,-2.77556e-17,0,512,512
266.908,-2.77556e-17,0,512,512
266.955,-2.77556e-17,0,512,512
267.001,-2.77556e-17,0,512,512
267.06,-2.77556e-17,0,512,512
267.107,-2.77556e-17,0,512,512
267.154,-2.77556e-17,0,512,512
267.201,-2.77556e-17,0,512,512
267.259,-2.77556e-17,0,512,512
267.306,-2.77556e-17,0,512,512
267.353,-2.77556e-17,0,512,512
267.412,-2.77556e-17,0,512,512
267.458,-2.77556e-17,0,512,512
267.505,-2.77556e-17,0,512,512
267.552,0,0,512,512
267.611,2.77556e-17,0,512,512
267.658,2.77556e-17,0,512,512
267.704,2.77556e-17,0,512,512
267.751,2.77556e-17,0,512,512
267.81,2.77556e-17,0,512,512
267.857,2.77556e-17,0,512,512
267.904,2.77556e-17,0,512,512
267.95,2.77556e-17,0,512,512
268.009,2.77556e-17,0,512,512
268.056,2.77556e-17,0,512,512
268.103,2.77556e-17,0,512,512
268.161,2.77556e-17,0,512,512
268.208,2.77556e-17,0,512,512
268.255,0,0,512,512
268.302,0,0,512,512
268.361,0,0,512,512
268.407,0,0,512,512
268.454,0,0,512,512
268.501,0,0,512,512
268.56,0,0,512,512
268.607,0,0,512,512
268.654,-2.77556e-17,0,512,512
268.7,-2.77556e-17,0,512,512
268.759,-2.77556e-17,0,512,512
268.806,-2.77556e-17,0,512,512
268.853,0,0,512,512
268.911,0,0,512,512
268.958,2.77556e-17,0,512,512
269.005,2.77556e-17,0,512,512
269.052,2.77556e-17,0,512,512
269.11,0,0,512,512
269.157,0,0,512,512
269.204,0,0,512,512
269.251,2.77556e-17,0,512,512
269.31,2.77556e-17,0,512,512
269.357,0,0,512,512
269.403,2.77556e-17,0,512,512
269.45,2.77556e-17,0,512,512
269.509,2.77556e-17,0,512,512
269.556,2.77556e-17,0,512,512
269.603,2.77556e-17,0,512,512
269.661,2.77556e-17,0,512,512
269.708,2.77556e-17,0,512,512
269.755,2.77556e-17,0,512,512
269.802,2.77556e-17,0,512,512
269.86,2.77556e-17,0,512,512
269.907,2.77556e-17,0,512,512
269.954,2.77556e-17,0,512,512
270,2.77556e-17,0,1299,1299
270.05,2.77556e-17,0,2147,2147
270.101,2.77556e-17,0,3011,3011
270.151,2.77556e-17,0,3887,3887
270.2,2.77556e-17,0,4787,4787
270.25,2.77556e-17,0,5597,5597
270.301,2.77556e-17,0,6485,6485
270.35,2.77556e-17,0,7337,7337
270.4,2.77556e-17,0,8219,8219
270.45,2.77556e-17,0,9111,9111
270.501,-2.22045e-16,0,9935,9935
270.55,-2.16493e-15,0,10817,10817
270.6,-1.01308e-14,0,11717,11717
270.651,-4.91829e-14,0,12597,12597
270.7,-1.95982e-13,0,13457,13457
270.75,-6.52506e-13,0,14339,14339
270.8,-1.84661e-12,0,15239,15239
270.851,-4.57007e-12,0,16127,16127
270.9,-9.76805e-12,0,17015,17015
270.95,-1.84971e-11,0,17837,17837
271,-3.13247e-11,0,18725,18725
271.051,-4.80698e-11,0,19625,19625
271.1,-6.64311e-11,0,20507,20507
271.15,-8.36448e-11,0,21359,21359
271.201,-9.63888e-11,0,22271,22271
271.25,-1.01345e-10,0,23147,23147
271.3,-9.72724e-11,0,24029,24029
271.35,-8.45267e-11,0,24929,24929
271.401,-6.4716e-11,0,25817,25817
271.45,-4.125e-11,0,26717,26717
271.5,-1.67235e-11,0,27599,27599
271.551,6.92796e-12,0,28499,28499
271.6,2.75803e-11,0,29387,29387
271.65,4.49573e-11,0,30247,30247
271.7,5.90024e-11,0,31097,31097
271.751,7.01561e-11,0,31985,31985
271.8,7.85845e-11,0,32885,32885
271.85,8.50168e-11,0,33767,33767
271.9,8.99704e-11,0,34619,34619
271.951,9.39202e-11,0,35507,35507
272,9.70551e-11,0,36407,36407
272.05,9.96282e-11,0,37235,37235
272.101,1.01788e-10,0,38105,38105
272.15,1.03566e-10,0,39005,39005
272.2,1.05092e-10,0,39839,39839
272.25,1.06482e-10,0,40739,40739
272.301,1.07932e-10,0,41555,41555
272.35,1.0975e-10,0,42437,42437
272.4,1.12707e-10,0,43289,43289
272.451,1.18475e-10,0,44105,44105
272.501,1.29909e-10,0,44971,44971
272.55,1.52286e-10,0,45839,45839
272.6,1.93925e-10,0,46655,46655
272.651,2.68349e-10,0,47489,47489
272.7,3.89814e-10,0,48305,48305
272.75,5.78767e-10,0,49157,49157
272.8,8.56505e-10,0,49967,49967
272.851,1.24978e-09,0,50807,50807
272.9,1.76285e-09,0,51617,51617
272.95,2.40773e-09,0,52469,52469
273.001,3.19272e-09,0,53285,53285
273.05,4.07852e-09,0,54119,54119
273.1,5.04709e-09,0,54931,54931
273.15,6.05561e-09,0,55697,55697
273.201,7.27784e-09,0,56549,56549
273.25,1.87453e-08,0,57365,57365
273.3,2.69234e-08,0,58127,58127
273.351,2.94683e-08,0,58967,58967
273.401,3.08217e-08,0,59735,59735
273.45,3.29792e-08,0,60043,60043
273.5,3.74067e-08,0,59860,59860
273.551,4.54735e-08,0,59804,59804
273.6,5.6239e-08,0,59672,59672
273.65,6.86518e-08,0,59522,59522
273.7,8.25797e-08,0,59462,59462
273.751,9.91147e-08,0,59418,59418
273.8,1.19817e-07,0,59726,59726
273.85,1.46374e-07,0,60488,60488
273.901,1.80134e-07,0,61256,61256
273.95,2.20575e-07,0,62018,62018
274,2.66947e-07,0,62786,62786
274.05,3.16843e-07,0,63548,63548
274.101,3.68248e-07,0,64316,64316
274.15,4.18706e-07,0,65078,65078
274.2,4.71126e-07,0,65846,65846
274.251,5.28851e-07,0,66608,66608
274.301,5.90227e-07,0,67376,67376
274.35,6.52432e-07,0,68090,68090
274.4,7.10133e-07,0,68858,68858
274.451,7.60157e-07,0,69620,69620
274.5,7.98975e-07,0,70298,70298
274.55,8.26626e-07,0,71066,71066
274.6,8.44082e-07,0,71780,71780
274.651,8.53756e-07,0,73296,73296
274.7,8.58365e-07,0,74810,74810
274.75,8.60012e-07,0,76418,76418
274.801,8.58923e-07,0,78026,78026
274.85,8.54879e-07,0,79520,79520
274.9,8.4704e-07,0,81092,81092
274.95,8.34227e-07,0,82609,82609
275.001,8.15014e-07,0,83885,83885
275.05,7.88781e-07,0,84599,84599
275.1,7.5458e-07,0,85277,85277
275.15,7.12262e-07,0,85997,85997
275.201,6.62272e-07,0,86687,86687
275.25,6.09256e-07,0,87407,87407
275.3,5.55978e-07,0,88085,88085
275.351,5.04156e-07,0,88799,88799
275.4,4.56606e-07,0,89495,89495
275.45,4.12919e-07,0,90209,90209
275.5,3.73013e-07,0,90887,90887
275.551,3.35866e-07,0,91607,91607
275.6,3.01708e-07,0,92297,92297
275.65,2.69388e-07,0,93017,93017
275.701,2.37972e-07,0,93695,93695
275.751,2.08219e-07,0,94409,94409
275.8,1.8075e-07,0,95069,95069
275.85,1.57555e-07,0,95735,95735
275.901,1.40036e-07,0,96449,96449
275.95,1.28064e-07,0,97145,97145
276,1.18062e-07,0,97859,97859
276.05,1.06699e-07,0,98537,98537
276.101,9.29661e-08,0,99185,99185
276.15,7.90898e-08,0,99899,99899
276.2,6.74328e-08,0,100577,100577
276.251,5.91253e-08,0,101297,101297
276.3,5.39821e-08,0,101939,101939
276.35,5.08605e-08,0,102617,102617
276.4,4.83679e-08,0,103337,103337
276.451,4.48295e-08,0,103979,103979
276.5,3.93494e-08,0,104657,104657
276.55,3.23193e-08,0,105377,105377
276.601,2.55318e-08,0,106019,106019
276.651,2.16774e-08,0,106697,106697
276.7,2.08092e-08,0,107417,107417
276.75,2.10255e-08,0,108059,108059
276.801,2.14409e-08,0,108737,108737
276.85,2.17629e-08,0,109385,109385
276.9,2.19655e-08,0,110099,110099
276.95,2.21268e-08,0,110729,110729
277.001,2.22332e-08,0,111425,111425
277.05,2.22987e-08,0,112055,112055
277.1,2.22918e-08,0,112769,112769
277.151,2.20946e-08,0,113417,113417
277.2,2.17793e-08,0,114095,114095
277.25,2.1475e-08,0,114737,114737
277.3,2.12177e-08,0,115457,115457
277.351,2.10521e-08,0,116087,116087
277.4,2.09541e-08,0,116729,116729
277.45,2.0845e-08,0,117407,117407
277.5,2.07416e-08,0,118055,118055
277.551,2.06266e-08,0,118769,118769
277.6,2.04658e-08,0,119399,119399
277.65,2.0276e-08,0,120047,120047
277.701,2.00559e-08,0,120725,120725
277.75,1.97825e-08,0,121367,121367
277.8,1.94886e-08,0,121997,121997
277.85,1.91611e-08,0,122645,122645
277.901,1.87642e-08,0,123239,123239
277.95,1.83618e-08,0,123869,123869
278,1.79177e-08,0,124427,124427
278.051,1.74274e-08,0,125057,125057
278.101,1.69411e-08,0,125657,125657
278.15,1.64274e-08,0,126215,126215
278.2,1.5899e-08,0,126725,126725
278.251,1.53815e-08,0,127341,127341
278.3,1.48623e-08,0,127949,127949
278.35,1.43355e-08,0,128897,128897
278.4,1.38285e-08,0,131072,131072
278.451,1.33082e-08,0,131072,131072
278.5,1.27975e-08,0,131072,131072
278.55,1.23148e-08,0,131072,131072
278.601,1.18302e-08,0,131072,131072
278.65,1.13701e-08,0,131072,131072
278.7,1.09508e-08,0,131072,131072
278.75,1.05497e-08,0,131072,131072
278.801,1.01739e-08,0,131072,131072
278.85,9.8507e-09,0,131072,131072
278.9,9.54805e-09,0,131072,131072
278.951,9.27145e-09,0,131072,131072
279.001,9.0396e-09,0,131072,131072
279.05,8.82193e-09,0,131072,131072
279.1,8.62877e-09,0,131072,131072
279.151,8.46663e-09,0,131072,131072
279.2,8.31631e-09,0,131072,131072
279.25,8.18744e-09,0,131072,131072
279.3,8.08759e-09,0,131072,131072
279.351,7.99248e-09,0,131072,131072
279.4,7.91537e-09,0,131072,131072
279.45,7.85918e-09,0,131072,131072
279.501,7.80038e-09,0,131072,131072
279.55,7.75209e-09,0,131072,131072
279.6,7.71973e-09,0,131072,131072
279.65,7.68521e-09,0,131072,131072
279.701,7.66057e-09,0,131072,131072
279.75,7.65164e-09,0,131072,131072
279.8,7.63878e-09,0,131072,131072
279.85,7.63155e-09,0,131072,131072
279.901,7.63433e-09,0,131072,131072
279.95,7.63009e-09,0,131072,131072
280,7.63021e-09,0,131072,131072
280.051,7.64096e-09,0,131072,131072
280.1,7.64684e-09,0,131072,131072
280.15,7.65796e-09,0,131072,131072
280.2,7.67861e-09,0,131072,131072
280.251,7.69267e-09,0,131072,131072
280.3,7.70792e-09,0,131072,131072
280.35,7.72981e-09,0,131072,131072
280.401,7.74432e-09,0,131072,131072
280.451,7.75911e-09,0,131072,131072
280.5,7.78034e-09,0,131072,131072
280.55,7.79472e-09,0,131072,131072
280.601,7.80932e-09,0,131072,131072
280.65,7.83007e-09,0,131072,131072
280.7,7.84463e-09,0,131072,131072
280.75,7.85881e-09,0,131072,131072
280.801,7.87973e-09,0,131072,131072
280.85,7.89477e-09,0,131072,131072
280.9,7.90871e-09,0,131072,131072
280.951,7.92905e-09,0,131072,131072
281,7.94398e-09,0,131072,131072
281.05,7.95706e-09,0,131072,131072
281.1,7.97614e-09,0,131072,131072
281.151,7.99126e-09,0,131072,131072
281.2,8.0037e-09,0,131072,131072
281.25,8.02178e-09,0,131072,131072
281.301,8.03672e-09,0,131072,131072
281.351,8.04884e-09,0,131072,131072
281.4,8.06682e-09,0,130880,130880
281.45,8.08275e-09,0,131072,131072
281.501,8.0962e-09,0,131072,131072
281.55,8.11548e-09,0,131072,131072
281.6,8.13425e-09,0,131072,131072
281.65,8.15067e-09,0,131072,131072
281.701,8.1737e-09,0,131072,131072
281.75,8.19757e-09,0,131072,131072
281.8,8.21964e-09,0,131072,131072
281.851,8.24859e-09,0,131072,131072
281.9,8.27994e-09,0,131072,131072
281.95,8.3105e-09,0,131072,131072
282,8.35102e-09,0,131072,131072
282.051,8.4076e-09,0,130976,130976
282.1,8.48206e-09,0,130912,130912
282.15,8.58591e-09,0,130912,130912
282.2,8.71602e-09,0,130912,130912
282.251,8.86445e-09,0,130848,130848
282.3,9.03372e-09,0,130810,130810
282.35,9.23418e-09,0,130768,130768
282.401,9.47087e-09,0,130720,130720
282.45,9.75005e-09,0,130752,130752
282.5,1.00905e-08,0,130720,130720
282.55,1.04971e-08,0,130700,130700
282.601,1.0992e-08,0,130688,130688
282.65,1.15879e-08,0,130672,130672
282.7,1.23111e-08,0,130656,130656
282.751,1.31935e-08,0,130684,130684
282.801,1.42394e-08,0,130688,130688
282.85,1.54835e-08,0,130628,130628
282.9,1.69331e-08,0,130608,130608
282.951,1.86268e-08,0,130560,130560
283,2.0535e-08,0,130608,130608
283.05,2.2691e-08,0,130560,130560
283.1,2.50991e-08,0,130608,130608
283.151,2.78109e-08,0,130560,130560
283.2,3.075e-08,0,130560,130560
283.25,3.3934e-08,0,130560,130560
283.301,3.73862e-08,0,130560,130560
283.35,4.09802e-08,0,130528,130528
283.4,4.47341e-08,0,130560,130560
283.45,4.86139e-08,0,130512,130512
283.501,5.26533e-08,0,130512,130512
283.55,5.67175e-08,0,130556,130556
283.6,6.0848e-08,0,130512,130512
283.651,6.50914e-08,0,130512,130512
283.701,6.93068e-08,0,130512,130512
283.75,7.35321e-08,0,130512,130512
283.8,7.77405e-08,0,130480,130480
283.851,8.19624e-08,0,130480,130480
283.9,8.60585e-08,0,130480,130480
283.95,9.01556e-08,0,130528,130528
284,9.45492e-08,0,130528,130528
284.051,9.99371e-08,0,130528,130528
284.1,1.06726e-07,0,130584,130584
284.15,1.14774e-07,0,130632,130632
284.201,1.23188e-07,0,130678,130678
284.25,1.30873e-07,0,130720,130720
284.3,1.38074e-07,0,130784,130784
284.35,1.45633e-07,0,130784,130784
284.401,1.54574e-07,0,130816,130816
284.45,1.65186e-07,0,130816,130816
284.5,1.77866e-07,0,130848,130848
284.551,1.93132e-07,0,130816,130816
284.601,2.11024e-07,0,130848,130848
284.65,2.32428e-07,0,130816,130816
284.7,2.58052e-07,0,130848,130848
284.751,2.88833e-07,0,130848,130848
284.8,3.23854e-07,0,130848,130848
284.85,3.62961e-07,0,130816,130816
284.9,4.05235e-07,0,130816,130816
284.951,4.50407e-07,0,130816,130816
285,4.96523e-07,0,130800,130800
285.05,5.43903e-07,0,130816,130816
285.101,5.92923e-07,0,130736,130736
285.15,6.41315e-07,0,130728,130728
285.2,6.8817e-07,0,130720,130720
285.25,7.31267e-07,0,130688,130688
285.301,7.68774e-07,0,130732,130732
285.35,7.97768e-07,0,130668,130668
285.4,8.17949e-07,0,130644,130644
285.45,8.29436e-07,0,130596,130596
285.501,8.33165e-07,0,130604,130604
285.55,8.3038e-07,0,130560,130560
285.6,8.22476e-07,0,130560,130560
285.651,8.10139e-07,0,130512,130512
285.7,7.94073e-07,0,130528,130528
285.75,7.73963e-07,0,130560,130560
285.8,7.49297e-07,0,130512,130512
285.851,7.18951e-07,0,130512,130512
285.9,6.83261e-07,0,130512,130512
285.95,6.41646e-07,0,130512,130512
286.001,5.93761e-07,0,130512,130512
286.051,5.42062e-07,0,130512,130512
286.1,4.87536e-07,0,130464,130464
286.15,4.32119e-07,0,130432,130432
286.201,3.7689e-07,0,130464,130464
286.25,3.24934e-07,0,130464,130464
286.3,2.76342e-07,0,130432,130432
286.35,2.31472e-07,0,130416,130416
286.401,1.89676e-07,0,130416,130416
286.45,1.5186e-07,0,130416,130416
286.5,1.17052e-07,0,130416,130416
286.551,8.46152e-08,0,130368,130368
286.6,5.54867e-08,0,130416,130416
286.65,2.86725e-08,0,130368,130368
286.7,2.24975e-09,0,130416,130416
286.751,-7.10398e-09,0,130368,130368
286.8,-2.37171e-08,0,130368,130368
286.85,-3.67822e-08,0,130336,130336
286.901,-4.80747e-08,0,130368,130368
286.951,-5.76962e-08,0,130352,130352
287,-6.61139e-08,0,130272,130272
287.05,-7.30999e-08,0,130256,130256
287.101,-7.83205e-08,0,130248,130248
287.15,-8.14941e-08,0,130160,130160
287.2,-8.30244e-08,0,130160,130160
287.25,-8.34988e-08,0,130176,130176
287.301,-8.35653e-08,0,130112,130112
287.35,-8.3628e-08,0,130120,130120
287.4,-8.3665e-08,0,130126,130126
287.451,-8.33069e-08,0,130064,130064
287.5,-8.21036e-08,0,130112,130112
287.55,-7.97884e-08,0,130112,130112
287.6,-7.6424e-08,0,130184,130184
287.651,-7.22495e-08,0,130200,130200
287.7,-6.77596e-08,0,130280,130280
287.75,-6.31936e-08,0,130288,130288
287.8,-5.87285e-08,0,130288,130288
287.851,-5.43939e-08,0,130352,130352
287.9,-5.03587e-08,0,130328,130328
287.95,-4.65854e-08,0,130320,130320
288.001,-4.3013e-08,0,130312,130312
288.05,-3.98e-08,0,130284,130284
288.1,-3.68239e-08,0,130240,130240
288.15,-3.40755e-08,0,130192,130192
288.201,-3.14901e-08,0,130132,130132
288.25,-2.91326e-08,0,130072,130072
288.3,-2.69555e-08,0,130072,130072
288.351,-2.49243e-08,0,130034,130034
288.4,-2.30938e-08,0,130044,130044
288.45,-2.1428e-08,0,130000,130000
288.5,-1.99193e-08,0,129962,129962
288.551,-1.85417e-08,0,129928,129928
288.6,-1.73277e-08,0,129912,129912
288.65,-1.62467e-08,0,129904,129904
288.7,-1.52884e-08,0,129880,129880
288.751,-1.44297e-08,0,129864,129864
288.8,-1.36829e-08,0,129848,129848
288.85,-1.30234e-08,0,129824,129824
288.901,-1.24305e-08,0,129824,129824
288.95,-1.19113e-08,0,129776,129776
289,-1.14529e-08,0,129744,129744
289.05,-1.10476e-08,0,129764,129764
289.101,-1.07116e-08,0,129772,129772
289.15,-1.04342e-08,0,129720,129720
289.2,-1.02122e-08,0,129692,129692
289.251,-1.00243e-08,0,129744,129744
289.301,-9.88091e-09,0,129732,129732
289.35,-9.77959e-09,0,129702,129702
289.4,-9.72246e-09,0,129690,129690
289.451,-9.68857e-09,0,129684,129684
289.5,-9.69596e-09,0,129666,129666
289.55,-9.73098e-09,0,129630,129630
289.6,-9.75885e-09,0,129632,129632
289.651,-9.81981e-09,0,129624,129624
289.7,-9.91325e-09,0,129648,129648
289.75,-9.96263e-09,0,129648,129648
289.801,-1.00474e-08,0,129664,129664
289.85,-1.01318e-08,0,129664,129664
289.9,-1.01857e-08,0,129664,129664
289.95,-1.02516e-08,0,129664,129664
290.001,-1.02998e-08,0,130076,130076
290.05,-1.03592e-08,0,130868,130868
290.1,-1.03981e-08,0,131072,131072
290.151,-1.04406e-08,0,131072,131072
290.201,-1.04929e-08,0,131072,131072
290.25,-1.0528e-08,0,131072,131072
290.3,-1.05622e-08,0,131072,131072
290.351,-1.05847e-08,0,131072,131072
290.4,-1.06024e-08,0,131072,131072
290.45,-1.06283e-08,0,131072,131072
290.5,-1.06487e-08,0,131072,131072
290.551,-1.06761e-08,0,131072,131072
290.6,-1.07162e-08,0,131072,131072
290.65,-1.07425e-08,0,131072,131072
290.701,-1.07649e-08,0,131072,131072
290.75,-1.07825e-08,0,131072,131072
290.8,-1.08103e-08,0,131072,131072
290.85,-1.08426e-08,0,131072,131072
290.901,-1.08936e-08,0,131072,131072
290.95,-1.09148e-08,0,131072,131072
291,-1.09263e-08,0,131072,131072
291.05,-1.09629e-08,0,131072,131072
291.101,-1.10212e-08,0,131072,131072
291.15,-1.10464e-08,0,131072,131072
291.2,-1.10691e-08,0,131072,131072
291.251,-1.11199e-08,0,131072,131072
291.3,-1.11888e-08,0,131072,131072
291.35,-1.12493e-08,0,131072,131072
291.4,-1.12961e-08,0,131072,131072
291.451,-1.13663e-08,0,131072,131072
291.5,-1.14536e-08,0,131072,131072
291.55,-1.15341e-08,0,131072,131072
291.601,-1.16165e-08,0,131072,131072
291.651,-1.17288e-08,0,131072,131072
291.7,-1.18602e-08,0,131072,131072
291.75,-1.19849e-08,0,131072,131072
291.801,-1.21274e-08,0,131072,131072
291.85,-1.22672e-08,0,131072,131072
291.9,-1.24114e-08,0,131072,131072
291.95,-1.25743e-08,0,131072,131072
292.001,-1.27595e-08,0,131072,131072
292.05,-1.29474e-08,0,131072,131072
292.1,-1.31425e-08,0,131072,131072
292.151,-1.33758e-08,0,131072,131072
292.2,-1.36267e-08,0,131072,131072
292.25,-1.39043e-08,0,131072,131072
292.3,-1.41934e-08,0,131072,131072
292.351,-1.45179e-08,0,131072,131072
292.4,-1.48744e-08,0,131072,131072
292.45,-1.52478e-08,0,131072,131072
292.501,-1.56394e-08,0,131072,131072
292.551,-1.60541e-08,0,131072,131072
292.6,-1.64831e-08,0,131072,131072
292.65,-1.69234e-08,0,131072,131072
292.701,-1.73808e-08,0,131072,131072
292.75,-1.78376e-08,0,131072,131072
292.8,-1.82964e-08,0,131072,131072
292.85,-1.87526e-08,0,131072,131072
292.901,-1.92086e-08,0,131072,131072
292.95,-1.96475e-08,0,131072,131072
293,-2.00727e-08,0,131072,131072
293.051,-2.04863e-08,0,131072,131072
293.1,-2.0871e-08,0,131072,131072
293.15,-2.12321e-08,0,131072,131072
293.2,-2.15755e-08,0,131072,131072
293.251,-2.19037e-08,0,131072,131072
293.3,-2.21867e-08,0,131072,131072
293.35,-2.2429e-08,0,131072,131072
293.4,-2.26398e-08,0,131072,131072
293.451,-2.28191e-08,0,131072,131072
293.5,-2.29586e-08,0,131072,131072
293.55,-2.30619e-08,0,131072,131072
293.601,-2.3132e-08,0,131072,131072
293.65,-2.31695e-08,0,131072,131072
293.7,-2.31782e-08,0,131072,131072
293.75,-2.31603e-08,0,131072,131072
293.801,-2.31167e-08,0,131072,131072
293.85,-2.30508e-08,0,131072,131072
293.9,-2.29643e-08,0,131072,131072
293.951,-2.28584e-08,0,131072,131072
294,-2.27389e-08,0,131072,131072
294.05,-2.26075e-08,0,131072,131072
294.1,-2.24667e-08,0,131072,131072
294.151,-2.23166e-08,0,131072,131072
294.2,-2.21637e-08,0,131072,131072
294.25,-2.20069e-08,0,131072,131072
294.3,-2.18469e-08,0,131072,131072
294.351,-2.16822e-08,0,131072,131072
294.4,-2.15186e-08,0,128995,128995
294.45,-2.13553e-08,0,127697,127697
294.501,-2.11912e-08,0,126765,126765
294.55,-2.1032e-08,0,126029,126029
294.6,-2.08757e-08,0,125399,125399
294.65,-2.07224e-08,0,124757,124757
294.701,-2.05701e-08,0,124175,124175
294.75,-2.04238e-08,0,123617,123617
294.8,-2.02819e-08,0,122969,122969
294.851,-2.01434e-08,0,122363,122363
294.901,-2.00124e-08,0,121797,121797
294.95,-1.98867e-08,0,121151,121151
295,-1.97663e-08,0,120561,120561
295.051,-1.96495e-08,0,119919,119919
295.1,-1.95402e-08,0,119281,119281
295.15,-1.94367e-08,0,118629,118629
295.2,-1.93387e-08,0,117987,117987
295.251,-1.92443e-08,0,117301,117301
295.3,-1.91557e-08,0,116633,116633
295.35,-1.90712e-08,0,115939,115939
295.401,-1.89893e-08,0,115247,115247
295.45,-1.89122e-08,0,114557,114557
295.5,-1.88382e-08,0,113863,113863
295.55,-1.8767e-08,0,113203,113203
295.601,-1.86971e-08,0,112517,112517
295.65,-1.86304e-08,0,111855,111855
295.7,-1.85654e-08,0,111167,111167
295.751,-1.8501e-08,0,110477,110477
295.801,-1.84387e-08,0,109815,109815
295.85,-1.83774e-08,0,109127,109127
295.9,-1.83168e-08,0,108437,108437
295.951,-1.82558e-08,0,107775,107775
296,-1.8196e-08,0,107087,107087
296.05,-1.81363e-08,0,106397,106397
296.1,-1.80765e-08,0,105687,105687
296.151,-1.80157e-08,0,104999,104999
296.2,-1.79555e-08,0,104285,104285
296.25,-1.78948e-08,0,103589,103589
296.301,-1.78327e-08,0,102875,102875
296.35,-1.77708e-08,0,102197,102197
296.4,-1.77081e-08,0,101477,101477
296.45,-1.76444e-08,0,100787,100787
296.501,-1.75789e-08,0,100041,100041
296.55,-1.75131e-08,0,99389,99389
296.6,-1.74461e-08,0,98643,98643
296.65,-1.73776e-08,0,97947,97947
296.701,-1.73064e-08,0,97217,97217
296.75,-1.72344e-08,0,96539,96539
296.8,-1.71603e-08,0,95819,95819
296.851,-1.70827e-08,0,95113,95113
296.9,-1.70037e-08,0,94409,94409
296.95,-1.69217e-08,0,93707,93707
297,-1.68366e-08,0,93017,93017
297.051,-1.67467e-08,0,92265,92265
297.1,-1.66543e-08,0,91575,91575
297.15,-1.65578e-08,0,90839,90839
297.201,-1.64554e-08,0,90137,90137
297.251,-1.63498e-08,0,89447,89447
297.3,-1.62393e-08,0,88727,88727
297.35,-1.61238e-08,0,88005,88005
297.401,-1.60012e-08,0,87269,87269
297.45,-1.58751e-08,0,86567,86567
297.5,-1.57436e-08,0,85877,85877
297.55,-1.56066e-08,0,85157,85157
297.601,-1.54621e-08,0,84419,84419
297.65,-1.53142e-08,0,83699,83699
297.7,-1.51609e-08,0,83005,83005
297.751,-1.5e-08,0,82307,82307
297.8,-1.48362e-08,0,81571,81571
297.85,-1.46673e-08,0,80849,80849
297.9,-1.44932e-08,0,80129,80129
297.951,-1.43114e-08,0,79415,79415
298,-1.41271e-08,0,78689,78689
298.05,-1.39376e-08,0,77969,77969
298.101,-1.37396e-08,0,77247,77247
298.151,-1.35387e-08,0,76495,76495
298.2,-1.33316e-08,0,75807,75807
298.25,-1.31184e-08,0,75063,75063
298.301,-1.28957e-08,0,74351,74351
298.35,-1.26699e-08,0,73613,73613
298.4,-1.24372e-08,0,72877,72877
298.45,-1.21969e-08,0,72145,72145
298.501,-1.19438e-08,0,71375,71375
298.55,-1.16839e-08,0,70671,70671
298.6,-1.14115e-08,0,69907,69907
298.651,-1.11201e-08,0,69151,69151
298.7,-1.08155e-08,0,68413,68413
298.75,-1.04911e-08,0,67675,67675
298.8,-1.01443e-08,0,66921,66921
298.851,-9.76754e-09,0,66161,66161
298.9,-9.37007e-09,0,65417,65417
298.95,-8.94501e-09,0,64653,64653
299,-8.49092e-09,0,63895,63895
299.051,-7.99947e-09,0,63115,63115
299.1,-7.48473e-09,0,62355,62355
299.15,-6.9406e-09,0,61603,61603
299.201,-6.3603e-09,0,60837,60837
299.25,-5.76134e-09,0,60065,60065
299.3,-5.10044e-09,0,59297,59297
299.35,-4.06125e-09,0,58523,58523
299.401,-2.15688e-09,0,57709,57709
299.45,-9.90008e-10,0,56899,56899
299.5,-5.23522e-10,0,56161,56161
299.551,-3.54132e-10,0,55389,55389
299.601,-1.97752e-10,0,54587,54587
299.65,3.11695e-11,0,53815,53815
299.7,2.81064e-10,0,53005,53005
299.751,5.65743e-10,0,52173,52173
299.8,8.62531e-10,0,51357,51357
299.85,1.16517e-09,0,50515,50515
299.9,1.47002e-09,0,49645,49645
299.951,1.77392e-09,0,48841,48841
300,2.06473e-09,0,48011,48011
300.05,2.34227e-09,0,47199,47199
300.101,2.6072e-09,0,46369,46369
300.15,2.84924e-09,0,45589,45589
300.2,3.07033e-09,0,44737,44737
300.25,3.2691e-09,0,43943,43943
300.301,3.44705e-09,0,43097,43097
300.35,3.5988e-09,0,42301,42301
300.4,3.72728e-09,0,41415,41415
300.451,3.83436e-09,0,40647,40647
300.501,3.91765e-09,0,39819,39819
300.55,3.97983e-09,0,38943,38943
300.6,4.0221e-09,0,38107,38107
300.651,4.04605e-09,0,37303,37303
300.7,4.05251e-09,0,36361,36361
300.75,4.04358e-09,0,35513,35513
300.8,4.02093e-09,0,34657,34657
300.851,3.98562e-09,0,33779,33779
300.9,3.94027e-09,0,32957,32957
300.95,3.886e-09,0,32029,32029
301.001,3.82333e-09,0,31099,31099
301.05,3.75549e-09,0,30209,30209
301.1,3.68297e-09,0,29211,29211
301.15,3.60701e-09,0,28269,28269
301.201,3.52761e-09,0,27367,27367
301.25,3.44814e-09,0,26445,26445
301.3,3.36843e-09,0,25537,25537
301.35,3.28933e-09,0,24613,24613
301.401,3.21044e-09,0,23717,23717
301.45,3.13469e-09,0,22787,22787
301.5,3.06146e-09,0,21847,21847
301.551,2.99016e-09,0,21003,21003
301.6,2.92322e-09,0,20075,20075
301.65,2.85985e-09,0,19141,19141
301.7,2.80022e-09,0,18233,18233
301.751,2.74365e-09,0,17325,17325
301.8,2.69183e-09,0,16413,16413
301.85,2.64387e-09,0,15505,15505
301.901,2.59908e-09,0,14603,14603
301.951,2.55863e-09,0,13641,13641
302,2.52167e-09,0,12763,12763
302.05,2.48799e-09,0,11861,11861
302.101,2.45695e-09,0,10949,10949
302.15,2.42919e-09,0,10043,10043
302.2,2.40402e-09,0,9129,9129
302.25,2.3812e-09,0,8233,8233
302.301,2.36025e-09,0,7309,7309
302.35,2.34158e-09,0,6423,6423
302.4,2.3247e-09,0,5507,5507
302.451,2.30922e-09,0,4523,4523
302.5,2.29545e-09,0,3619,3619
302.55,2.28298e-09,0,2671,2671
302.6,2.27165e-09,0,1757,1757
302.651,2.26118e-09,0,807,807
302.703,2.25122e-09,0,512,512
302.762,2.24101e-09,0,512,512
302.809,2.2335e-09,0,512,512
302.855,2.22652e-09,0,512,512
302.902,2.22003e-09,0,512,512
302.961,2.21259e-09,0,512,512
303.008,2.20719e-09,0,512,512
303.055,2.20229e-09,0,512,512
303.101,2.19792e-09,0,512,512
303.16,2.19323e-09,0,512,512
303.207,2.19014e-09,0,512,512
303.254,2.18764e-09,0,512,512
303.301,2.18575e-09,0,512,512
303.359,2.18423e-09,0,512,512
303.406,2.18365e-09,0,512,512
303.453,2.18361e-09,0,512,512
303.512,2.18427e-09,0,512,512
303.558,2.18531e-09,0,512,512
303.605,2.18675e-09,0,512,512
303.652,2.18855e-09,0,512,512
303.711,2.1912e-09,0,512,512
303.758,2.19357e-09,0,512,512
303.804,2.19608e-09,0,512,512
303.851,2.19866e-09,0,512,512
303.91,2.20188e-09,0,512,512
303.957,2.20439e-09,0,512,512
304.004,2.20676e-09,0,512,512
304.051,2.20897e-09,0,512,512
304.109,2.21142e-09,0,512,512
304.156,2.21308e-09,0,512,512
304.203,2.21445e-09,0,512,512
304.261,2.21567e-09,0,512,512
304.308,2.21624e-09,0,512,512
304.355,2.21642e-09,0,512,512
304.402,2.2162e-09,0,512,512
304.461,2.21535e-09,0,512,512
304.507,2.21422e-09,0,512,512
304.554,2.21267e-09,0,512,512
304.601,2.21072e-09,0,512,512
304.66,2.20771e-09,0,512,512
304.707,2.20485e-09,0,512,512
304.754,2.20158e-09,0,512,512
304.8,2.19793e-09,0,512,512
304.859,2.19285e-09,0,512,512
304.906,2.18841e-09,0,512,512
304.953,2.18368e-09,0,512,512
