250,0,0,2048,2048
250.006,0,0,2048,2048
250.053,0,0,2048,2048
250.105,0,0,2048,2048
250.152,0,0,2048,2048
250.205,0,0,2048,2048
250.252,0,0,2048,2048
250.305,0,0,2048,2048
250.352,0,0,2048,2048
250.404,0,0,2048,2048
250.451,0,0,2048,2048
250.504,0,0,2048,2048
250.551,0,0,2048,2048
250.603,0,0,2048,2048
250.65,0,0,2048,2048
250.703,0,0,2048,2048
250.756,0,0,2048,2048
250.803,0,0,2048,2048
250.855,0,0,2048,2048
250.902,0,0,2048,2048
250.955,0,0,2048,2048
251.002,0,0,2048,2048
251.055,0,0,2048,2048
251.101,0,0,2048,2048
251.154,0,0,2048,2048
251.201,0,0,2048,2048
251.254,0,0,2048,2048
251.301,0,0,2048,2048
251.353,0,0,2048,2048
251.4,0,0,2048,2048
251.453,0,0,2048,2048
251.506,0,0,2048,2048
251.553,0,0,2048,2048
251.605,0,0,2048,2048
251.652,0,0,2048,2048
251.705,0,0,2048,2048
251.752,0,0,2048,2048
251.804,0,0,2048,2048
251.851,0,0,2048,2048
251.904,0,0,2048,2048
251.951,0,0,2048,2048
252.004,0,0,2048,2048
252.05,0,0,2048,2048
252.103,0,0,2048,2048
252.15,0,0,2048,2048
252.203,0,0,2048,2048
252.256,0,0,2048,2048
252.302,0,0,2048,2048
252.355,0,0,2048,2048
252.402,0,0,2048,2048
252.455,0,0,2048,2048
252.502,0,0,2048,2048
252.554,0,0,2048,2048
252.601,0,0,2048,2048
252.654,0,0,2048,2048
252.701,0,0,2048,2048
252.754,0,0,2048,2048
252.8,0,0,2048,2048
252.853,0,0,2048,2048
252.906,0,0,2048,2048
252.953,0,0,2048,2048
253.005,0,0,2048,2048
253.052,0,0,2048,2048
253.105,0,0,2048,2048
253.152,0,0,2048,2048
253.205,0,0,2048,2048
253.251,0,0,2048,2048
253.304,0,0,2048,2048
253.351,0,0,2048,2048
253.404,0,0,2048,2048
253.451,0,0,2048,2048
253.503,0,0,2048,2048
253.55,0,0,2048,2048
253.603,0,0,2048,2048
253.656,0,0,2048,2048
253.703,0,0,2048,2048
253.755,0,0,2048,2048
253.802,0,0,2048,2048
253.855,0,0,2048,2048
253.902,0,0,2048,2048
253.954,0,0,2048,2048
254.001,0,0,2048,2048
254.054,0,0,2048,2048
254.101,0,0,2048,2048
254.154,0,0,2048,2048
254.201,0,0,2048,2048
254.253,0,0,2048,2048
254.3,0,0,2048,2048
254.353,0,0,2048,2048
254.406,0,0,2048,2048
254.452,0,0,2048,2048
254.505,0,0,2048,2048
254.552,0,0,2048,2048
254.605,0,0,2048,2048
254.652,0,0,2048,2048
254.704,0,0,2048,2048
254.751,0,0,2048,2048
254.804,0,0,2048,2048
254.851,0,0,2048,2048
254.904,0,0,2048,2048
254.95,0,0,2048,2048
255.003,0,0,2048,2048
255.05,0,0,2048,2048
255.103,0,0,2048,2048
255.155,0,0,2048,2048
255.202,0,0,2048,2048
255.255,0,0,2048,2048
255.302,0,0,2048,2048
255.355,0,0,2048,2048
255.402,0,0,2048,2048
255.454,0,0,2048,2048
255.501,0,0,2048,2048
255.554,0,0,2048,2048
255.601,0,0,2048,2048
255.653,0,0,2048,2048
255.7,0,0,2048,2048
255.753,0,0,2048,2048
255.806,0,0,2048,2048
255.853,0,0,2048,2048
255.905,0,0,2048,2048
255.952,0,0,2048,2048
256.005,0,0,2048,2048
256.052,0,0,2048,2048
256.105,0,0,2048,2048
256.151,0,0,2048,2048
256.204,0,0,2048,2048
256.251,0,0,2048,2048
256.304,0,0,2048,2048
256.351,0,0,2048,2048
256.403,0,0,2048,2048
256.45,0,0,2048,2048
256.503,0,0,2048,2048
256.556,0,0,2048,2048
256.603,0,0,2048,2048
256.655,0,0,2048,2048
256.702,0,0,2048,2048
256.755,0,0,2048,2048
256.802,0,0,2048,2048
256.854,0,0,2048,2048
256.901,0,0,2048,2048
256.954,0,0,2048,2048
257.001,0,0,2048,2048
257.054,0,0,2048,2048
257.101,0,0,2048,2048
257.153,0,0,2048,2048
257.2,0,0,2048,2048
257.253,0,0,2048,2048
257.306,0,0,2048,2048
257.352,0,0,2048,2048
257.405,0,0,2048,2048
257.452,0,0,2048,2048
257.505,0,0,2048,2048
257.552,0,0,2048,2048
257.604,0,0,2048,2048
257.651,0,0,2048,2048
257.704,0,0,2048,2048
257.751,0,0,2048,2048
257.804,0,0,2048,2048
257.85,0,0,2048,2048
257.903,0,0,2048,2048
257.95,0,0,2048,2048
258.003,0,0,2048,2048
258.055,0,0,2048,2048
258.102,0,0,2048,2048
258.155,0,0,2048,2048
258.202,0,0,2048,2048
258.255,0,0,2048,2048
258.302,0,0,2048,2048
258.354,0,0,2048,2048
258.401,0,0,2048,2048
258.454,0,0,2048,2048
258.501,0,0,2048,2048
258.553,0,0,2048,2048
258.6,0,0,2048,2048
258.653,0,0,2048,2048
258.706,0,0,2048,2048
258.753,0,0,2048,2048
258.805,0,0,2048,2048
258.852,0,0,2048,2048
258.905,0,0,2048,2048
258.952,0,0,2048,2048
259.005,0,0,2048,2048
259.051,0,0,2048,2048
259.104,0,0,2048,2048
259.151,0,0,2048,2048
259.204,0,0,2048,2048
259.251,0,0,2048,2048
259.303,0,0,2048,2048
259.35,0,0,2048,2048
259.403,0,0,2048,2048
259.456,0,0,2048,2048
259.503,0,0,2048,2048
259.555,0,0,2048,2048
259.602,0,0,2048,2048
259.655,0,0,2048,2048
259.702,0,0,2048,2048
259.754,0,0,2048,2048
259.801,0,0,2048,2048
259.854,0,0,2048,2048
259.901,0,0,2048,2048
259.954,0,0,2048,2048
260,0,0,2048,2048
260.053,0,0,2048,2048
260.1,0,0,2048,2048
260.153,0,0,2048,2048
260.206,0,0,2048,2048
260.252,0,0,2048,2048
260.305,-2.77556e-17,0,2048,2048
260.352,-5.55112e-17,0,2048,2048
260.405,-5.55112e-17,0,2048,2048
260.452,-5.55112e-17,0,2048,2048
260.504,-5.55112e-17,0,2048,2048
260.551,-5.55112e-17,0,2048,2048
260.604,-5.55112e-17,0,2048,2048
260.651,-5.55112e-17,0,2048,2048
260.704,-5.55112e-17,0,2048,2048
260.75,-5.55112e-17,0,2048,2048
260.803,-2.77556e-17,0,2048,2048
260.856,-2.77556e-17,0,2048,2048
260.903,-2.77556e-17,0,2048,2048
260.955,-2.77556e-17,0,2048,2048
261.002,-2.77556e-17,0,2048,2048
261.055,-2.77556e-17,0,2048,2048
261.102,-2.77556e-17,0,2048,2048
261.155,-2.77556e-17,0,2048,2048
261.201,-2.77556e-17,0,2048,2048
261.254,-2.77556e-17,0,2048,2048
261.301,-2.77556e-17,0,2048,2048
261.354,-2.77556e-17,0,2048,2048
261.401,0,0,2048,2048
261.453,0,0,2048,2048
261.5,0,0,2048,2048
261.553,0,0,2048,2048
261.606,0,0,2048,2048
261.653,0,0,2048,2048
261.705,0,0,2048,2048
261.752,0,0,2048,2048
261.805,0,0,2048,2048
261.852,0,0,2048,2048
261.905,0,0,2048,2048
261.951,0,0,2048,2048
262.004,0,0,2048,2048
262.051,0,0,2048,2048
262.104,0,0,2048,2048
262.151,0,0,2048,2048
262.203,0,0,2048,2048
262.25,0,0,2048,2048
262.303,0,0,2048,2048
262.356,0,0,2048,2048
262.402,0,0,2048,2048
262.455,0,0,2048,2048
262.502,0,0,2048,2048
262.555,0,0,2048,2048
262.602,0,0,2048,2048
262.654,0,0,2048,2048
262.701,0,0,2048,2048
262.754,0,0,2048,2048
262.801,0,0,2048,2048
262.854,0,0,2048,2048
262.9,0,0,2048,2048
262.953,0,0,2048,2048
263,0,0,2048,2048
263.053,0,0,2048,2048
263.105,0,0,2048,2048
263.152,0,0,2048,2048
263.205,0,0,2048,2048
263.252,0,0,2048,2048
263.305,0,0,2048,2048
263.352,0,0,2048,2048
263.404,0,0,2048,2048
263.451,0,0,2048,2048
263.504,0,0,2048,2048
263.551,0,0,2048,2048
263.603,0,0,2048,2048
263.65,0,0,2048,2048
263.703,0,0,2048,2048
263.756,0,0,2048,2048
263.803,0,0,2048,2048
263.855,0,0,2048,2048
263.902,0,0,2048,2048
263.955,0,0,2048,2048
264.002,0,0,2048,2048
264.055,0,0,2048,2048
264.101,0,0,2048,2048
264.154,0,0,2048,2048
264.201,0,0,2048,2048
264.254,0,0,2048,2048
264.301,0,0,2048,2048
264.353,0,0,2048,2048
264.4,0,0,2048,2048
264.453,0,0,2048,2048
264.506,0,0,2048,2048
264.553,0,0,2048,2048
264.605,0,0,2048,2048
264.652,0,0,2048,2048
264.705,0,0,2048,2048
264.752,0,0,2048,2048
264.804,0,0,2048,2048
264.851,0,0,2048,2048
264.904,0,0,2048,2048
264.951,0,0,2048,2048
265.004,-2.77556e-17,0,2048,2048
265.051,-5.55112e-17,0,2048,2048
265.103,-5.55112e-17,0,2048,2048
265.15,-5.55112e-17,0,2048,2048
265.203,-5.55112e-17,0,2048,2048
265.256,-5.55112e-17,0,2048,2048
265.302,-5.55112e-17,0,2048,2048
265.355,-5.55112e-17,0,2048,2048
265.402,-5.55112e-17,0,2048,2048
265.455,-5.55112e-17,0,2048,2048
265.502,-5.55112e-17,0,2048,2048
265.554,-2.77556e-17,0,2048,2048
265.601,-2.77556e-17,0,2048,2048
265.654,-2.77556e-17,0,2048,2048
265.701,-2.77556e-17,0,2048,2048
265.754,-2.77556e-17,0,2048,2048
265.8,-2.77556e-17,0,2048,2048
265.853,-2.77556e-17,0,2048,2048
265.9,-2.77556e-17,0,2048,2048
265.953,-2.77556e-17,0,2048,2048
266.005,-2.77556e-17,0,2048,2048
266.052,-2.77556e-17,0,2048,2048
266.105,-5.55112e-17,0,2048,2048
266.152,-5.55112e-17,0,2048,2048
266.205,-5.55112e-17,0,2048,2048
266.252,-5.55112e-17,0,2048,2048
266.304,-5.55112e-17,0,2048,2048
266.351,-5.55112e-17,0,2048,2048
266.404,-5.55112e-17,0,2048,2048
266.451,-5.55112e-17,0,2048,2048
266.503,-5.55112e-17,0,2048,2048
266.55,-5.55112e-17,0,2048,2048
266.603,-5.55112e-17,0,2048,2048
266.656,-5.55112e-17,0,2048,2048
266.703,-5.55112e-17,0,2048,2048
266.755,-5.55112e-17,0,2048,2048
266.802,-5.55112e-17,0,2048,2048
266.855,-2.77556e-17,0,2048,2048
266.902,-2.77556e-17,0,2048,2048
266.955,-2.77556e-17,0,2048,2048
267.001,-2.77556e-17,0,2048,2048
267.054,-2.77556e-17,0,2048,2048
267.101,-2.77556e-17,0,2048,2048
267.154,-2.77556e-17,0,2048,2048
267.201,-2.77556e-17,0,2048,2048
267.253,-2.77556e-17,0,2048,2048
267.3,-2.77556e-17,0,2048,2048
267.353,-2.77556e-17,0,2048,2048
267.406,-2.77556e-17,0,2048,2048
267.453,-2.77556e-17,0,2048,2048
267.505,-2.77556e-17,0,2048,2048
267.552,-2.77556e-17,0,2048,2048
267.605,-2.77556e-17,0,2048,2048
267.652,-2.77556e-17,0,2048,2048
267.704,-2.77556e-17,0,2048,2048
267.751,-2.77556e-17,0,2048,2048
267.804,-2.77556e-17,0,2048,2048
267.851,-2.77556e-17,0,2048,2048
267.904,-2.77556e-17,0,2048,2048
267.95,-2.77556e-17,0,2048,2048
268.003,-2.77556e-17,0,2048,2048
268.05,-2.77556e-17,0,2048,2048
268.102,-2.77556e-17,0,2054,2054
268.153,-2.77556e-17,0,2048,2048
268.206,-2.77556e-17,0,2048,2048
268.253,-2.77556e-17,0,2048,2048
268.305,0,0,2048,2048
268.352,0,0,2048,2048
268.405,0,0,2048,2048
268.452,0,0,2048,2048
268.504,0,0,2048,2048
268.551,0,0,2048,2048
268.604,0,0,2048,2048
268.651,0,0,2048,2048
268.704,0,0,2048,2048
268.751,2.77556e-17,0,2048,2048
268.803,2.77556e-17,0,2048,2048
268.85,2.77556e-17,0,2048,2048
268.903,2.77556e-17,0,2048,2048
268.956,2.77556e-17,0,2048,2048
269.002,2.77556e-17,0,2048,2048
269.055,2.77556e-17,0,2048,2048
269.102,2.77556e-17,0,2048,2048
269.155,2.77556e-17,0,2048,2048
269.202,2.77556e-17,0,2048,2048
269.254,2.77556e-17,0,2048,2048
269.301,2.77556e-17,0,2048,2048
269.354,2.77556e-17,0,2048,2048
269.401,2.77556e-17,0,2048,2048
269.454,2.77556e-17,0,2048,2048
269.5,2.77556e-17,0,2048,2048
269.553,2.77556e-17,0,2048,2048
269.604,2.77556e-17,0,2050,2050
269.654,2.77556e-17,0,2050,2050
269.703,2.77556e-17,0,2050,2050
269.752,2.77556e-17,0,2094,2094
269.802,2.77556e-17,0,2134,2134
269.851,2.77556e-17,0,2166,2166
269.901,2.77556e-17,0,2258,2258
269.951,2.77556e-17,0,2402,2402
270.001,2.77556e-17,0,2534,2534
270.051,2.77556e-17,0,2682,2682
270.1,2.77556e-17,0,2826,2826
270.15,2.77556e-17,0,2938,2938
270.201,2.77556e-17,0,2966,2966
270.251,2.77556e-17,0,3042,3042
270.301,2.77556e-17,0,3090,3090
270.351,2.77556e-17,0,3226,3226
270.401,2.77556e-17,0,3486,3486
270.45,2.77556e-17,0,3734,3734
270.501,2.77556e-17,0,4002,4002
270.551,2.77556e-17,0,4326,4326
270.6,2.77556e-17,0,4782,4782
270.65,2.77556e-17,0,5438,5438
270.701,2.77556e-17,0,6110,6110
270.75,2.77556e-17,0,6950,6950
270.8,2.77556e-17,0,7822,7822
270.85,2.77556e-17,0,8722,8722
270.901,2.77556e-17,0,9618,9618
270.95,2.77556e-17,0,10518,10518
271,2.77556e-17,0,11402,11402
271.051,2.77556e-17,0,12338,12338
271.101,2.77556e-17,0,13290,13290
271.15,2.77556e-17,0,14222,14222
271.2,2.77556e-17,0,15126,15126
271.251,2.77556e-17,0,15994,15994
271.3,2.77556e-17,0,16914,16914
271.35,2.77556e-17,0,17782,17782
271.4,2.77556e-17,0,18686,18686
271.451,2.77556e-17,0,19298,19298
271.5,2.77556e-17,0,19498,19498
271.55,2.77556e-17,0,19552,19552
271.601,2.77556e-17,0,19542,19542
271.65,2.77556e-17,0,19658,19658
271.7,2.77556e-17,0,19858,19858
271.75,2.77556e-17,0,20114,20114
271.801,2.77556e-17,0,20654,20654
271.85,2.77556e-17,0,21398,21398
271.9,2.77556e-17,0,22058,22058
271.951,2.77556e-17,0,22962,22962
272.001,2.77556e-17,0,23762,23762
272.05,2.77556e-17,0,24534,24534
272.1,2.77556e-17,0,25366,25366
272.151,2.77556e-17,0,26170,26170
272.2,2.77556e-17,0,27058,27058
272.25,2.77556e-17,0,27986,27986
272.3,2.77556e-17,0,28926,28926
272.351,2.77556e-17,0,29854,29854
272.4,2.77556e-17,0,30898,30898
272.45,2.77556e-17,0,31698,31698
272.501,2.77556e-17,0,32602,32602
272.55,2.77556e-17,0,33374,33374
272.6,2.77556e-17,0,34270,34270
272.65,2.77556e-17,0,35106,35106
272.701,2.77556e-17,0,35962,35962
272.75,2.77556e-17,0,36766,36766
272.8,2.77556e-17,0,37658,37658
272.85,2.77556e-17,0,38480,38480
272.901,2.77556e-17,0,39394,39394
272.95,2.77556e-17,0,40214,40214
273,-3.33067e-16,0,41036,41036
273.051,-2.10942e-15,0,41688,41688
273.1,-3.96905e-15,0,42332,42332
273.15,-5.85643e-15,0,42304,42304
273.2,-7.74381e-15,0,42460,42460
273.251,-9.4369e-15,0,42372,42372
273.3,-1.11022e-14,0,42464,42464
273.35,-1.29896e-14,0,42596,42596
273.401,-1.53488e-14,0,42694,42694
273.45,-2.27041e-14,0,42700,42700
273.5,-4.49085e-14,0,42714,42714
273.55,-1.03029e-13,0,42838,42838
273.601,-2.43583e-13,0,42962,42962
273.65,-5.46063e-13,0,43008,43008
273.7,-1.15635e-12,0,42912,42912
273.75,-2.30141e-12,0,42624,42624
273.801,-4.34155e-12,0,42304,42304
273.85,-7.62707e-12,0,42250,42250
273.9,-1.26122e-11,0,41982,41982
273.951,-1.97717e-11,0,41786,41786
274,-2.90299e-11,0,41840,41840
274.05,-4.02264e-11,0,41674,41674
274.1,-5.26276e-11,0,41522,41522
274.151,-6.51811e-11,0,41670,41670
274.2,-7.59103e-11,0,41570,41570
274.25,-8.3305e-11,0,41514,41514
274.301,-8.58996e-11,0,41666,41666
274.351,-8.27006e-11,0,41558,41558
274.4,-7.3639e-11,0,41592,41592
274.45,-5.93546e-11,0,41528,41528
274.501,-4.08327e-11,0,41474,41474
274.55,-2.02659e-11,0,41364,41364
274.6,9.11687e-13,0,41194,41194
274.65,2.12519e-11,0,41108,41108
274.701,3.99574e-11,0,40958,40958
274.75,5.59066e-11,0,40782,40782
274.8,6.92012e-11,0,40600,40600
274.851,7.99412e-11,0,40436,40436
274.9,8.8314e-11,0,40360,40360
274.95,9.48694e-11,0,40186,40186
275,9.99904e-11,0,40110,40110
275.05,1.0402e-10,0,40038,40038
275.1,1.07239e-10,0,39844,39844
275.15,1.09827e-10,0,39728,39728
275.201,1.12022e-10,0,39540,39540
275.251,1.1388e-10,0,39500,39500
275.3,1.15509e-10,0,39274,39274
275.35,1.17076e-10,0,39184,39184
275.4,1.18742e-10,0,39094,39094
275.451,1.21053e-10,0,38958,38958
275.5,1.24961e-10,0,38766,38766
275.55,1.32856e-10,0,38704,38704
275.601,1.48981e-10,0,38568,38568
275.65,1.80102e-10,0,38450,38450
275.7,2.37605e-10,0,38298,38298
275.75,3.37799e-10,0,38188,38188
275.801,5.02579e-10,0,38052,38052
275.85,7.54142e-10,0,38002,38002
275.9,1.12381e-09,0,37812,37812
275.95,1.64186e-09,0,37706,37706
276,2.3362e-09,0,37574,37574
276.051,3.21167e-09,0,37496,37496
276.1,4.73838e-09,0,37362,37362
276.15,7.36887e-09,0,37318,37318
276.2,1.07166e-08,0,37208,37208
276.251,1.44567e-08,0,37086,37086
276.3,2.07625e-08,0,36930,36930
276.35,2.60509e-08,0,36822,36822
276.401,3.07548e-08,0,36742,36742
276.45,3.52189e-08,0,36574,36574
276.5,4.02403e-08,0,36482,36482
276.55,4.61835e-08,0,36440,36440
276.601,5.35996e-08,0,36290,36290
276.651,6.42964e-08,0,36234,36234
276.7,7.72871e-08,0,36110,36110
276.75,9.20979e-08,0,36130,36130
276.8,1.0775e-07,0,35954,35954
276.851,1.24108e-07,0,35856,35856
276.901,1.48012e-07,0,35830,35830
276.95,1.92252e-07,0,35708,35708
277.001,2.38138e-07,0,35624,35624
277.05,2.87752e-07,0,35562,35562
277.1,3.41002e-07,0,35486,35486
277.15,3.95905e-07,0,35408,35408
277.201,4.51946e-07,0,35436,35436
277.25,5.09386e-07,0,35284,35284
277.3,5.70685e-07,0,35202,35202
277.35,6.35558e-07,0,35218,35218
277.4,7.01064e-07,0,35134,35134
277.451,7.62648e-07,0,35042,35042
277.5,8.15279e-07,0,35018,35018
277.55,8.57549e-07,0,34994,34994
277.6,8.8854e-07,0,34896,34896
277.651,9.08774e-07,0,34834,34834
277.7,9.19307e-07,0,34756,34756
277.751,9.20799e-07,0,34804,34804
277.801,9.2055e-07,0,34574,34574
277.851,9.19862e-07,0,34574,34574
277.9,9.18425e-07,0,34518,34518
277.951,9.09086e-07,0,34456,34456
278.001,8.9565e-07,0,34426,34426
278.051,8.80515e-07,0,34274,34274
278.101,8.6421e-07,0,34180,34180
278.151,8.13877e-07,0,34108,34108
278.2,7.65375e-07,0,34070,34070
278.251,7.11528e-07,0,33970,33970
278.3,6.5517e-07,0,33780,33780
278.351,5.97029e-07,0,33684,33684
278.4,5.41711e-07,0,33506,33506
278.451,4.88688e-07,0,33462,33462
278.501,4.40604e-07,0,33374,33374
278.55,3.96436e-07,0,33120,33120
278.6,3.55697e-07,0,33024,33024
278.65,3.17735e-07,0,32846,32846
278.7,2.81862e-07,0,32826,32826
278.751,2.47626e-07,0,33158,33158
278.801,2.15164e-07,0,33286,33286
278.85,1.86001e-07,0,33116,33116
278.9,1.60674e-07,0,32732,32732
278.951,1.40982e-07,0,32604,32604
279,1.26499e-07,0,32288,32288
279.05,1.14283e-07,0,31910,31910
279.101,1.01472e-07,0,31542,31542
279.15,8.75366e-08,0,31146,31146
279.2,7.33574e-08,0,30992,30992
279.25,6.07721e-08,0,30384,30384
279.3,5.07509e-08,0,29854,29854
279.35,4.29218e-08,0,29518,29518
279.4,4.04201e-08,0,29104,29104
279.451,3.72501e-08,0,28820,28820
279.501,3.33197e-08,0,28332,28332
279.55,2.8969e-08,0,27444,27444
279.601,2.44877e-08,0,26654,26654
279.65,2.06539e-08,0,26134,26134
279.701,1.79023e-08,0,25286,25286
279.751,1.6461e-08,0,24516,24516
279.8,1.66557e-08,0,24096,24096
279.85,1.78537e-08,0,23538,23538
279.9,1.95192e-08,0,22850,22850
279.95,2.15387e-08,0,21544,21544
280.001,2.378e-08,0,20538,20538
280.051,2.65804e-08,0,18888,18888
280.101,2.94429e-08,0,17328,17328
280.15,3.25205e-08,0,15084,15084
280.2,3.58989e-08,0,12286,12286
280.25,3.94526e-08,0,11962,11962
280.3,4.31548e-08,0,11958,11958
280.351,4.71916e-08,0,14316,14316
280.4,5.12798e-08,0,15280,15280
280.451,5.54542e-08,0,16378,16378
280.5,5.9723e-08,0,17904,17904
280.551,6.4281e-08,0,18962,18962
280.6,6.87813e-08,0,19632,19632
280.651,7.32616e-08,0,20304,20304
280.7,7.77448e-08,0,20976,20976
280.751,8.32337e-08,0,21342,21342
280.801,8.87235e-08,0,21928,21928
280.85,9.44168e-08,0,22320,22320
280.9,1.00552e-07,0,22690,22690
280.951,1.07024e-07,0,23102,23102
281.001,1.13931e-07,0,23524,23524
281.051,1.21238e-07,0,23968,23968
281.101,1.28856e-07,0,24448,24448
281.15,1.36645e-07,0,24966,24966
281.2,1.44534e-07,0,25366,25366
281.251,1.52803e-07,0,25818,25818
281.301,1.61114e-07,0,26378,26378
281.35,1.70051e-07,0,27010,27010
281.401,1.81726e-07,0,27654,27654
281.451,1.94609e-07,0,28414,28414
281.5,2.08794e-07,0,29118,29118
281.55,2.24577e-07,0,29776,29776
281.601,2.41002e-07,0,30482,30482
281.651,2.68281e-07,0,31270,31270
281.701,3.03705e-07,0,31928,31928
281.751,3.4892e-07,0,32128,32128
281.801,3.95349e-07,0,32346,32346
281.85,4.4339e-07,0,32416,32416
281.9,4.93007e-07,0,32394,32394
281.951,5.44603e-07,0,32510,32510
282,5.9651e-07,0,32756,32756
282.051,6.50926e-07,0,33122,33122
282.1,7.0507e-07,0,33508,33508
282.15,7.58961e-07,0,33780,33780
282.201,8.08657e-07,0,33982,33982
282.251,8.50462e-07,0,34244,34244
282.3,8.81481e-07,0,34468,34468
282.35,9.03396e-07,0,34616,34616
282.4,9.12927e-07,0,34866,34866
282.451,9.11778e-07,0,34964,34964
282.501,9.0738e-07,0,35146,35146
282.55,8.98336e-07,0,35260,35260
282.6,8.85275e-07,0,35394,35394
282.651,8.70452e-07,0,35436,35436
282.7,8.55151e-07,0,35536,35536
282.751,8.28129e-07,0,35608,35608
282.8,8.01845e-07,0,35714,35714
282.85,7.67684e-07,0,35802,35802
282.9,7.18589e-07,0,35982,35982
282.951,6.62378e-07,0,36070,36070
283.001,6.01841e-07,0,36262,36262
283.05,5.39707e-07,0,36394,36394
283.101,4.7662e-07,0,36356,36356
283.15,4.16706e-07,0,36440,36440
283.2,3.59258e-07,0,36526,36526
283.25,3.06278e-07,0,36572,36572
283.301,2.57173e-07,0,36686,36686
283.35,2.13381e-07,0,36660,36660
283.4,1.72768e-07,0,36782,36782
283.45,1.35458e-07,0,36784,36784
283.5,1.00854e-07,0,36884,36884
283.551,6.85248e-08,0,36910,36910
283.6,4.02929e-08,0,36990,36990
283.65,1.58758e-08,0,37042,37042
283.7,-3.76039e-09,0,37112,37112
283.751,-1.92948e-08,0,37206,37206
283.8,-3.15562e-08,0,37246,37246
283.851,-4.25569e-08,0,37352,37352
283.901,-5.31271e-08,0,37476,37476
283.951,-6.34932e-08,0,37546,37546
284,-7.28123e-08,0,37656,37656
284.051,-8.01495e-08,0,37758,37758
284.101,-8.20273e-08,0,37806,37806
284.151,-8.22749e-08,0,37852,37852
284.201,-8.23364e-08,0,37922,37922
284.25,-8.21535e-08,0,38056,38056
284.301,-8.17649e-08,0,38114,38114
284.351,-8.11956e-08,0,38184,38184
284.401,-8.04079e-08,0,38272,38272
284.45,-7.84594e-08,0,38376,38376
284.501,-7.63518e-08,0,38394,38394
284.55,-7.3596e-08,0,38578,38578
284.6,-7.06078e-08,0,38644,38644
284.65,-6.73846e-08,0,38768,38768
284.701,-6.39696e-08,0,38770,38770
284.75,-6.0489e-08,0,38754,38754
284.8,-5.66576e-08,0,38778,38778
284.85,-5.26764e-08,0,38784,38784
284.9,-4.93414e-08,0,38742,38742
284.951,-4.63365e-08,0,38750,38750
285,-4.36768e-08,0,38734,38734
285.05,-4.12772e-08,0,38722,38722
285.1,-3.91738e-08,0,38772,38772
285.151,-3.7279e-08,0,38860,38860
285.2,-3.57423e-08,0,38948,38948
285.25,-3.44851e-08,0,38996,38996
285.301,-3.34009e-08,0,39148,39148
285.35,-3.26147e-08,0,39284,39284
285.4,-3.19809e-08,0,39388,39388
285.45,-3.14247e-08,0,39446,39446
285.501,-3.1422e-08,0,39586,39586
285.551,-3.14439e-08,0,39646,39646
285.6,-3.14532e-08,0,39730,39730
285.65,-3.152e-08,0,39948,39948
285.7,-3.1624e-08,0,39958,39958
285.75,-3.17629e-08,0,40030,40030
285.8,-3.19272e-08,0,40178,40178
285.85,-3.21096e-08,0,40264,40264
285.901,-3.23093e-08,0,40382,40382
285.951,-3.25193e-08,0,40492,40492
286,-3.2734e-08,0,40590,40590
286.051,-3.296e-08,0,40646,40646
286.1,-3.31837e-08,0,40772,40772
286.151,-3.34083e-08,0,40848,40848
286.2,-3.36245e-08,0,40912,40912
286.25,-3.38357e-08,0,40978,40978
286.301,-3.40395e-08,0,41050,41050
286.35,-3.42283e-08,0,41044,41044
286.4,-3.44032e-08,0,41114,41114
286.45,-3.45629e-08,0,41178,41178
286.501,-3.4708e-08,0,41238,41238
286.55,-3.48334e-08,0,41298,41298
286.6,-3.49412e-08,0,41280,41280
286.651,-3.50326e-08,0,41322,41322
286.7,-3.51051e-08,0,41362,41362
286.75,-3.51608e-08,0,41316,41316
286.8,-3.52002e-08,0,41398,41398
286.851,-3.52242e-08,0,41384,41384
286.9,-3.52327e-08,0,41432,41432
286.95,-3.52272e-08,0,41516,41516
287.001,-3.52085e-08,0,41576,41576
287.051,-3.51785e-08,0,41590,41590
287.1,-3.51384e-08,0,41608,41608
287.15,-3.50899e-08,0,41538,41538
287.201,-3.50338e-08,0,41432,41432
287.25,-3.49734e-08,0,41250,41250
287.3,-3.49098e-08,0,41068,41068
287.35,-3.48443e-08,0,40912,40912
287.401,-3.47771e-08,0,40812,40812
287.45,-3.47112e-08,0,40726,40726
287.5,-3.46467e-08,0,40704,40704
287.551,-3.45837e-08,0,40596,40596
287.6,-3.4525e-08,0,40260,40260
287.65,-3.44706e-08,0,40202,40202
287.7,-3.44209e-08,0,40032,40032
287.751,-3.43758e-08,0,39568,39568
287.8,-3.4337e-08,0,39392,39392
287.85,-3.43039e-08,0,39296,39296
287.9,-3.4277e-08,0,39092,39092
287.951,-3.42561e-08,0,38680,38680
288,-3.4242e-08,0,37806,37806
288.05,-3.42347e-08,0,37032,37032
288.101,-3.42342e-08,0,36148,36148
288.15,-3.42406e-08,0,35370,35370
288.2,-3.4254e-08,0,34538,34538
288.25,-3.42743e-08,0,33862,33862
288.301,-3.43018e-08,0,32948,32948
288.35,-3.43358e-08,0,32196,32196
288.4,-3.43767e-08,0,31366,31366
288.451,-3.44255e-08,0,30490,30490
288.501,-3.4481e-08,0,29644,29644
288.55,-3.45442e-08,0,28824,28824
288.6,-3.46154e-08,0,27946,27946
288.651,-3.46964e-08,0,27192,27192
288.7,-3.47852e-08,0,27148,27148
288.75,-3.48838e-08,0,27190,27190
288.8,-3.49931e-08,0,27140,27140
288.851,-3.51161e-08,0,27000,27000
288.9,-3.52506e-08,0,26754,26754
288.95,-3.53999e-08,0,26538,26538
289.001,-3.55678e-08,0,26290,26290
289.05,-3.57509e-08,0,25578,25578
289.1,-3.59524e-08,0,24664,24664
289.15,-3.61734e-08,0,23792,23792
289.201,-3.64179e-08,0,22800,22800
289.25,-3.66789e-08,0,21886,21886
289.3,-3.69593e-08,0,20978,20978
289.351,-3.72628e-08,0,20076,20076
289.401,-3.75789e-08,0,19160,19160
289.45,-3.791e-08,0,18300,18300
289.5,-3.82541e-08,0,17410,17410
289.551,-3.86139e-08,0,16514,16514
289.6,-3.89765e-08,0,15624,15624
289.65,-3.93445e-08,0,14724,14724
289.7,-3.9715e-08,0,13880,13880
289.751,-4.00905e-08,0,12980,12980
289.8,-4.04566e-08,0,12102,12102
289.85,-4.08154e-08,0,11186,11186
289.901,-4.11682e-08,0,10300,10300
289.95,-4.15009e-08,0,9394,9394
290,-4.18149e-08,0,8504,8504
290.05,-4.21068e-08,0,7638,7638
290.101,-4.23768e-08,0,6752,6752
290.15,-4.2614e-08,0,5846,5846
290.2,-4.28197e-08,0,4952,4952
290.251,-4.2994e-08,0,4038,4038
290.301,-4.31299e-08,0,3356,3356
290.351,-4.32301e-08,0,3260,3260
290.401,-4.32895e-08,0,3228,3228
290.451,-4.33097e-08,0,3232,3232
290.5,-4.329e-08,0,3232,3232
290.55,-4.32302e-08,0,3244,3244
290.602,-4.31254e-08,0,3236,3236
290.652,-4.29839e-08,0,3228,3228
290.701,-4.28026e-08,0,3230,3230
290.751,-4.25814e-08,0,3214,3214
290.801,-4.23201e-08,0,3170,3170
290.85,-4.20183e-08,0,3106,3106
290.9,-4.16753e-08,0,3054,3054
290.952,-4.12735e-08,0,2990,2990
291.002,-4.08444e-08,0,2954,2954
291.051,-4.03721e-08,0,2898,2898
291.101,-3.98566e-08,0,2850,2850
291.151,-3.92979e-08,0,2790,2790
291.201,-3.86967e-08,0,2742,2742
291.25,-3.80542e-08,0,2690,2690
291.302,-3.73432e-08,0,2626,2626
291.352,-3.6623e-08,0,2574,2574
291.401,-3.58694e-08,0,2522,2522
291.451,-3.50865e-08,0,2458,2458
291.501,-3.42788e-08,0,2402,2402
291.551,-3.34513e-08,0,2342,2342
291.6,-3.26093e-08,0,2294,2294
291.652,-3.17224e-08,0,2234,2234
291.702,-3.08595e-08,0,2194,2194
291.752,-3.00041e-08,0,2142,2142
291.802,-2.91551e-08,0,2102,2102
291.852,-2.83175e-08,0,2066,2066
291.902,-2.74842e-08,0,2048,2048
291.955,-2.66366e-08,0,2048,2048
292.002,-2.59067e-08,0,2048,2048
292.054,-2.51163e-08,0,2048,2048
292.101,-2.44445e-08,0,2048,2048
292.154,-2.37274e-08,0,2048,2048
292.201,-2.31273e-08,0,2048,2048
292.254,-2.24972e-08,0,2048,2048
292.301,-2.19791e-08,0,2048,2048
292.353,-2.14447e-08,0,2048,2048
292.4,-2.10127e-08,0,2048,2048
292.453,-2.05737e-08,0,2048,2048
292.506,-2.01821e-08,0,2048,2048
292.552,-1.98711e-08,0,2048,2048
292.605,-1.95598e-08,0,2048,2048
292.652,-1.93147e-08,0,2048,2048
292.705,-1.90713e-08,0,2048,2048
292.752,-1.88812e-08,0,2048,2048
292.804,-1.86939e-08,0,2048,2048
292.851,-1.85488e-08,0,2048,2048
292.904,-1.84067e-08,0,2048,2048
292.951,-1.82971e-08,0,2048,2048
293.004,-1.81901e-08,0,2048,2048
293.05,-1.81074e-08,0,2048,2048
293.103,-1.80263e-08,0,2048,2048
293.156,-1.79555e-08,0,2048,2048
293.203,-1.78996e-08,0,2048,2048
293.255,-1.78427e-08,0,2048,2048
293.302,-1.7796e-08,0,2048,2048
293.355,-1.77463e-08,0,2048,2048
293.402,-1.77034e-08,0,2048,2048
293.455,-1.76551e-08,0,2048,2048
293.501,-1.76113e-08,0,2048,2048
293.554,-1.75599e-08,0,2048,2048
293.601,-1.75116e-08,0,2048,2048
293.654,-1.74537e-08,0,2094,2094
293.701,-1.73984e-08,0,2106,2106
293.753,-1.73313e-08,0,2114,2114
293.8,-1.72669e-08,0,2126,2126
293.853,-1.71886e-08,0,2130,2130
293.906,-1.71038e-08,0,2130,2130
293.953,-1.70227e-08,0,2130,2130
294.005,-1.69247e-08,0,2130,2130
294.052,-1.68314e-08,0,2130,2130
294.105,-1.67196e-08,0,2130,2130
294.152,-1.6614e-08,0,2130,2130
294.205,-1.64882e-08,0,2130,2130
294.251,-1.63703e-08,0,2130,2130
294.304,-1.62309e-08,0,2130,2130
294.351,-1.61012e-08,0,2130,2130
294.404,-1.5949e-08,0,2130,2130
294.451,-1.58085e-08,0,2130,2130
294.503,-1.56448e-08,0,2130,2130
294.55,-1.54949e-08,0,2130,2130
294.603,-1.53214e-08,0,2130,2130
294.656,-1.51431e-08,0,2130,2130
294.702,-1.49808e-08,0,2130,2130
294.755,-1.47935e-08,0,2130,2130
294.802,-1.46226e-08,0,2130,2130
294.855,-1.44248e-08,0,2130,2130
294.902,-1.42436e-08,0,2130,2130
294.954,-1.40327e-08,0,2130,2130
295.001,-1.38386e-08,0,2130,2130
295.054,-1.3612e-08,0,2108,2108
295.101,-1.34027e-08,0,2092,2092
295.154,-1.31581e-08,0,2080,2080
295.2,-1.2932e-08,0,2072,2072
295.253,-1.26673e-08,0,2060,2060
295.3,-1.24224e-08,0,2052,2052
295.353,-1.21349e-08,0,2048,2048
295.406,-1.18336e-08,0,2048,2048
295.452,-1.1553e-08,0,2048,2048
295.505,-1.12213e-08,0,2048,2048
295.552,-1.09107e-08,0,2048,2048
295.605,-1.05416e-08,0,2048,2048
295.652,-1.01944e-08,0,2048,2048
295.704,-9.78096e-09,0,2048,2048
295.751,-9.39226e-09,0,2048,2048
295.804,-8.93066e-09,0,2048,2048
295.851,-8.49851e-09,0,2048,2048
295.903,-7.98763e-09,0,2048,2048
295.95,-7.51139e-09,0,2048,2048
296.003,-6.95055e-09,0,2048,2048
296.056,-6.36325e-09,0,2048,2048
296.103,-5.81955e-09,0,2048,2048
296.155,-5.18504e-09,0,2048,2048
296.202,-4.60277e-09,0,2048,2048
296.255,-3.93036e-09,0,2048,2048
296.302,-3.32048e-09,0,2048,2048
296.355,-2.62487e-09,0,2048,2048
296.401,-2.00187e-09,0,2048,2048
296.454,-1.30022e-09,0,2048,2048
296.501,-6.79717e-10,0,2048,2048
296.554,1.02613e-11,0,2048,2048
296.601,6.12545e-10,0,2048,2048
296.653,1.27323e-09,0,2048,2048
296.7,1.8417e-09,0,2048,2048
296.753,2.45578e-09,0,2048,2048
296.806,3.03867e-09,0,2048,2048
296.853,3.5274e-09,0,2048,2048
296.905,4.04125e-09,0,2048,2048
296.952,4.46413e-09,0,2048,2048
297.005,4.9001e-09,0,2048,2048
297.052,5.251e-09,0,2048,2048
297.104,5.60302e-09,0,2048,2048
297.151,5.87683e-09,0,2048,2048
297.204,6.14055e-09,0,2048,2048
297.251,6.33651e-09,0,2048,2048
297.304,6.51606e-09,0,2048,2048
297.351,6.64196e-09,0,2048,2048
297.403,6.74892e-09,0,2048,2048
297.45,6.81582e-09,0,2048,2048
297.503,6.86229e-09,0,2048,2048
297.556,6.88123e-09,0,2048,2048
297.602,6.8774e-09,0,2048,2048
297.655,6.85258e-09,0,2048,2048
297.702,6.81457e-09,0,2048,2048
297.755,6.75647e-09,0,2048,2048
297.802,6.69328e-09,0,2048,2048
297.854,6.61152e-09,0,2048,2048
297.901,6.5312e-09,0,2048,2048
297.954,6.43426e-09,0,2048,2048
298.001,6.34384e-09,0,2048,2048
298.054,6.23901e-09,0,2048,2048
298.1,6.14439e-09,0,2048,2048
298.153,6.03765e-09,0,2048,2048
298.2,5.94352e-09,0,2048,2048
298.253,5.83945e-09,0,2048,2048
298.305,5.73824e-09,0,2048,2048
298.352,5.6513e-09,0,2048,2048
298.405,5.55752e-09,0,2048,2048
298.452,5.47815e-09,0,2048,2048
298.505,5.39372e-09,0,2048,2048
298.552,5.32321e-09,0,2048,2048
298.604,5.24916e-09,0,2048,2048
298.651,5.18804e-09,0,2048,2048
298.704,5.12451e-09,0,2048,2048
298.751,5.07255e-09,0,2048,2048
298.803,5.01892e-09,0,2048,2048
298.85,4.97526e-09,0,2048,2048
298.903,4.93027e-09,0,2048,2048
298.956,4.88917e-09,0,2048,2048
299.003,4.85547e-09,0,2048,2048
299.055,4.82023e-09,0,2048,2048
299.102,4.7908e-09,0,2048,2048
299.155,4.75929e-09,0,2048,2048
299.202,4.73224e-09,0,2048,2048
299.255,4.70239e-09,0,2048,2048
299.301,4.67599e-09,0,2048,2048
299.354,4.64606e-09,0,2048,2048
299.401,4.619e-09,0,2048,2048
299.454,4.58785e-09,0,2048,2048
299.501,4.55944e-09,0,2048,2048
299.553,4.52666e-09,0,2048,2048
299.6,4.49687e-09,0,2048,2048
299.653,4.46273e-09,0,2048,2048
299.706,4.42815e-09,0,2048,2048
299.753,4.39722e-09,0,2048,2048
299.805,4.36242e-09,0,2048,2048
299.852,4.33166e-09,0,2048,2048
299.905,4.29746e-09,0,2048,2048
299.952,4.26755e-09,0,2048,2048
300.004,4.23461e-09,0,2048,2048
300.051,4.20608e-09,0,2048,2048
300.104,4.17493e-09,0,2048,2048
300.151,4.14817e-09,0,2048,2048
300.204,4.11917e-09,0,2048,2048
300.251,4.09443e-09,0,2048,2048
300.303,4.06777e-09,0,2048,2048
300.35,4.04512e-09,0,2048,2048
300.403,4.02076e-09,0,2048,2048
300.456,3.9975e-09,0,2048,2048
300.502,3.97765e-09,0,2048,2048
300.555,3.9561e-09,0,2048,2048
300.602,3.93751e-09,0,2048,2048
300.655,3.91705e-09,0,2048,2048
300.702,3.89913e-09,0,2048,2048
300.754,3.87911e-09,0,2048,2048
300.801,3.8613e-09,0,2048,2048
300.854,3.84114e-09,0,2048,2048
300.901,3.823e-09,0,2048,2048
300.954,3.80229e-09,0,2048,2048
301,3.78356e-09,0,2048,2048
301.053,3.7621e-09,0,2048,2048
301.106,3.74023e-09,0,2048,2048
301.153,3.72045e-09,0,2048,2048
301.205,3.69784e-09,0,2048,2048
301.252,3.67744e-09,0,2048,2048
301.305,3.6542e-09,0,2048,2048
301.352,3.63328e-09,0,2048,2048
301.405,3.60948e-09,0,2048,2048
301.452,3.58808e-09,0,2048,2048
301.504,3.56373e-09,0,2048,2048
301.551,3.54181e-09,0,2048,2048
301.604,3.51684e-09,0,2048,2048
301.651,3.49431e-09,0,2048,2048
301.703,3.46856e-09,0,2048,2048
301.75,3.44527e-09,0,2048,2048
301.803,3.41857e-09,0,2048,2048
301.856,3.39131e-09,0,2048,2048
301.903,3.36658e-09,0,2048,2048
301.955,3.33818e-09,0,2048,2048
302.002,3.3124e-09,0,2048,2048
302.055,3.28281e-09,0,2048,2048
302.102,3.256e-09,0,2048,2048
302.155,3.22529e-09,0,2048,2048
302.201,3.19753e-09,0,2048,2048
302.254,3.16584e-09,0,2048,2048
302.301,3.13729e-09,0,2048,2048
302.354,3.10482e-09,0,2048,2048
302.401,3.07569e-09,0,2048,2048
302.453,3.04266e-09,0,2048,2048
302.5,3.01311e-09,0,2048,2048
302.553,2.97972e-09,0,2048,2048
302.606,2.94619e-09,0,2048,2048
302.652,2.91629e-09,0,2048,2048
302.705,2.88258e-09,0,2048,2048
302.752,2.85254e-09,0,2048,2048
302.805,2.81867e-09,0,2048,2048
302.852,2.78848e-09,0,2048,2048
302.904,2.7544e-09,0,2048,2048
302.951,2.724e-09,0,2048,2048
303.004,2.68963e-09,0,2048,2048
303.051,2.6589e-09,0,2048,2048
303.104,2.62411e-09,0,2048,2048
303.15,2.59295e-09,0,2048,2048
303.203,2.5576e-09,0,2048,2048
303.25,2.52589e-09,0,2048,2048
303.303,2.48986e-09,0,2048,2048
303.356,2.45342e-09,0,2048,2048
303.402,2.42067e-09,0,2048,2048
303.455,2.38339e-09,0,2048,2048
303.502,2.34987e-09,0,2048,2048
303.555,2.3117e-09,0,2048,2048
303.602,2.27735e-09,0,2048,2048
303.654,2.23825e-09,0,2048,2048
303.701,2.20307e-09,0,2048,2048
303.754,2.16304e-09,0,2048,2048
303.801,2.12705e-09,0,2048,2048
303.853,2.08612e-09,0,2048,2048
303.9,2.04936e-09,0,2048,2048
303.953,2.00761e-09,0,2048,2048
304.006,1.96546e-09,0,2048,2048
304.053,1.92769e-09,0,2048,2048
304.105,1.88489e-09,0,2048,2048
304.152,1.84661e-09,0,2048,2048
304.205,1.80332e-09,0,2048,2048
304.252,1.76468e-09,0,2048,2048
304.305,1.72108e-09,0,2048,2048
304.351,1.68225e-09,0,2048,2048
304.404,1.63854e-09,0,2048,2048
304.451,1.5997e-09,0,2048,2048
304.504,1.55609e-09,0,2048,2048
304.551,1.51745e-09,0,2048,2048
304.603,1.47416e-09,0,2048,2048
304.65,1.4359e-09,0,2048,2048
304.703,1.39315e-09,0,2048,2048
304.756,1.35077e-09,0,2048,2048
304.803,1.31346e-09,0,2048,2048
304.855,1.27193e-09,0,2048,2048
304.902,1.23546e-09,0,2048,2048
304.955,1.19497e-09,0,2048,2048
