250,0,0,512,512
250.012,0,0,512,512
250.059,0,0,512,512
250.105,0,0,512,512
250.152,0,0,512,512
250.211,0,0,512,512
250.258,0,0,512,512
250.305,0,0,512,512
250.352,0,0,512,512
250.41,2.77556e-17,0,512,512
250.457,2.77556e-17,0,512,512
250.504,0,0,512,512
250.551,0,0,512,512
250.609,0,0,512,512
250.656,0,0,512,512
250.703,0,0,512,512
250.762,0,0,512,512
250.808,0,0,512,512
250.855,0,0,512,512
250.902,2.77556e-17,0,512,512
250.961,2.77556e-17,0,512,512
251.008,2.77556e-17,0,512,512
251.055,2.77556e-17,0,512,512
251.101,0,0,512,512
251.16,0,0,512,512
251.207,2.77556e-17,0,512,512
251.254,0,0,512,512
251.301,0,0,512,512
251.359,0,0,512,512
251.406,0,0,512,512
251.453,0,0,512,512
251.511,0,0,512,512
251.558,0,0,512,512
251.605,2.77556e-17,0,512,512
251.652,2.77556e-17,0,512,512
251.711,0,0,512,512
251.758,0,0,512,512
251.804,0,0,512,512
251.851,0,0,512,512
251.91,0,0,512,512
251.957,0,0,512,512
252.004,-2.77556e-17,0,512,512
252.05,-2.77556e-17,0,512,512
252.109,-2.77556e-17,0,512,512
252.156,0,0,512,512
252.203,0,0,512,512
252.261,0,0,512,512
252.308,0,0,512,512
252.355,2.77556e-17,0,512,512
252.402,2.77556e-17,0,512,512
252.461,0,0,512,512
252.507,0,0,512,512
252.554,0,0,512,512
252.601,0,0,512,512
252.66,0,0,512,512
252.707,0,0,512,512
252.754,0,0,512,512
252.8,0,0,512,512
252.859,2.77556e-17,0,512,512
252.906,0,0,512,512
252.953,0,0,512,512
253.011,0,0,512,512
253.058,0,0,512,512
253.105,0,0,512,512
253.152,0,0,512,512
253.21,0,0,512,512
253.257,0,0,512,512
253.304,2.77556e-17,0,512,512
253.351,2.77556e-17,0,512,512
253.41,0,0,512,512
253.457,0,0,512,512
253.503,0,0,512,512
253.55,2.77556e-17,0,512,512
253.609,2.77556e-17,0,512,512
253.656,2.77556e-17,0,512,512
253.703,2.77556e-17,0,512,512
253.761,0,0,512,512
253.808,0,0,512,512
253.855,0,0,512,512
253.902,-2.77556e-17,0,512,512
253.96,-2.77556e-17,0,512,512
254.007,0,0,512,512
254.054,0,0,512,512
254.101,-2.77556e-17,0,512,512
254.16,0,0,512,512
254.206,-2.77556e-17,0,512,512
254.253,0,0,512,512
254.3,0,0,512,512
254.359,0,0,512,512
254.406,0,0,512,512
254.452,0,0,512,512
254.511,-2.77556e-17,0,512,512
254.558,-2.77556e-17,0,512,512
254.605,-2.77556e-17,0,512,512
254.652,-2.77556e-17,0,512,512
254.71,-2.77556e-17,0,512,512
254.757,0,0,512,512
254.804,0,0,512,512
254.851,-2.77556e-17,0,512,512
254.909,-5.55112e-17,0,512,512
254.956,-2.77556e-17,0,512,512
255.003,-2.77556e-17,0,512,512
255.05,-2.77556e-17,0,512,512
255.109,-2.77556e-17,0,512,512
255.155,-2.77556e-17,0,512,512
255.202,-2.77556e-17,0,512,512
255.261,-2.77556e-17,0,512,512
255.308,-2.77556e-17,0,512,512
255.355,-2.77556e-17,0,512,512
255.402,-2.77556e-17,0,512,512
255.46,-2.77556e-17,0,512,512
255.507,-2.77556e-17,0,512,512
255.554,-2.77556e-17,0,512,512
255.601,0,0,512,512
255.659,0,0,512,512
255.706,0,0,512,512
255.753,0,0,512,512
255.812,0,0,512,512
255.859,0,0,512,512
255.905,2.77556e-17,0,512,512
255.952,0,0,512,512
256.011,0,0,512,512
256.058,0,0,512,512
256.105,0,0,512,512
256.151,0,0,512,512
256.21,0,0,512,512
256.257,2.77556e-17,0,512,512
256.304,2.77556e-17,0,512,512
256.351,0,0,512,512
256.409,0,0,512,512
256.456,0,0,512,512
256.503,0,0,512,512
256.562,0,0,512,512
256.608,0,0,512,512
256.655,-2.77556e-17,0,512,512
256.702,0,0,512,512
256.761,-2.77556e-17,0,512,512
256.808,0,0,512,512
256.854,-2.77556e-17,0,512,512
256.901,-2.77556e-17,0,512,512
256.96,-2.77556e-17,0,512,512
257.007,-2.77556e-17,0,512,512
257.054,0,0,512,512
257.101,-2.77556e-17,0,512,512
257.159,-2.77556e-17,0,512,512
257.206,0,0,512,512
257.253,0,0,512,512
257.311,0,0,512,512
257.358,2.77556e-17,0,512,512
257.405,2.77556e-17,0,512,512
257.452,0,0,512,512
257.511,0,0,512,512
257.557,0,0,512,512
257.604,0,0,512,512
257.651,0,0,512,512
257.71,-2.77556e-17,0,512,512
257.757,0,0,512,512
257.804,0,0,512,512
257.85,0,0,512,512
257.909,-2.77556e-17,0,512,512
257.956,-2.77556e-17,0,512,512
258.003,-2.77556e-17,0,512,512
258.061,0,0,512,512
258.108,0,0,512,512
258.155,0,0,512,512
258.202,0,0,512,512
258.261,0,0,512,512
258.307,-2.77556e-17,0,512,512
258.354,0,0,512,512
258.401,-2.77556e-17,0,512,512
258.46,-2.77556e-17,0,512,512
258.507,-2.77556e-17,0,512,512
258.553,-2.77556e-17,0,512,512
258.6,-2.77556e-17,0,512,512
258.659,-2.77556e-17,0,512,512
258.706,-5.55112e-17,0,512,512
258.753,-5.55112e-17,0,512,512
258.811,-5.55112e-17,0,512,512
258.858,-5.55112e-17,0,512,512
258.905,-2.77556e-17,0,512,512
258.952,0,0,512,512
259.01,0,0,512,512
259.057,-2.77556e-17,0,512,512
259.104,0,0,512,512
259.151,0,0,512,512
259.21,-2.77556e-17,0,512,512
259.256,-2.77556e-17,0,512,512
259.303,0,0,512,512
259.35,0,0,512,512
259.409,2.77556e-17,0,512,512
259.456,2.77556e-17,0,512,512
259.503,0,0,512,512
259.561,0,0,512,512
259.608,0,0,512,512
259.655,-2.77556e-17,0,512,512
259.702,-2.77556e-17,0,512,512
259.76,0,0,512,512
259.807,0,0,512,512
259.854,2.77556e-17,0,512,512
259.901,0,0,512,512
259.959,0,0,512,512
260.006,0,0,512,512
260.053,0,0,512,512
260.1,-2.77556e-17,0,512,512
260.159,-2.77556e-17,0,512,512
260.206,-2.77556e-17,0,512,512
260.252,-2.77556e-17,0,512,512
260.311,-2.77556e-17,0,512,512
260.358,-2.77556e-17,0,512,512
260.405,-2.77556e-17,0,512,512
260.452,-2.77556e-17,0,512,512
260.51,-2.77556e-17,0,512,512
260.557,-2.77556e-17,0,512,512
260.604,0,0,512,512
260.651,0,0,512,512
260.709,0,0,512,512
260.756,0,0,512,512
260.803,0,0,512,512
260.862,0,0,512,512
260.909,2.77556e-17,0,512,512
260.955,2.77556e-17,0,512,512
261.002,2.77556e-17,0,512,512
261.061,2.77556e-17,0,512,512
261.108,2.77556e-17,0,512,512
261.155,2.77556e-17,0,512,512
261.201,2.77556e-17,0,512,512
261.26,0,0,512,512
261.307,0,0,512,512
261.354,0,0,512,512
261.401,0,0,512,512
261.459,0,0,512,512
261.506,0,0,512,512
261.553,0,0,512,512
261.612,0,0,512,512
261.658,0,0,512,512
261.705,0,0,512,512
261.752,2.77556e-17,0,512,512
261.811,2.77556e-17,0,512,512
261.858,-2.77556e-17,0,512,512
261.905,0,0,512,512
261.951,0,0,512,512
262.01,0,0,512,512
262.057,0,0,512,512
262.104,0,0,512,512
262.151,0,0,512,512
262.209,0,0,512,512
262.256,2.77556e-17,0,512,512
262.303,2.77556e-17,0,512,512
262.361,0,0,512,512
262.408,0,0,512,512
262.455,0,0,512,512
262.502,0,0,512,512
262.561,0,0,512,512
262.608,2.77556e-17,0,512,512
262.654,2.77556e-17,0,512,512
262.701,2.77556e-17,0,512,512
262.76,2.77556e-17,0,512,512
262.807,0,0,512,512
262.854,0,0,512,512
262.9,2.77556e-17,0,512,512
262.959,0,0,512,512
263.006,0,0,512,512
263.053,0,0,512,512
263.111,0,0,512,512
263.158,0,0,512,512
263.205,0,0,512,512
263.252,0,0,512,512
263.311,0,0,512,512
263.357,2.77556e-17,0,512,512
263.404,2.77556e-17,0,512,512
263.451,2.77556e-17,0,512,512
263.51,0,0,512,512
263.557,0,0,512,512
263.603,0,0,512,512
263.65,0,0,512,512
263.709,-2.77556e-17,0,512,512
263.756,-2.77556e-17,0,512,512
263.803,-2.77556e-17,0,512,512
263.861,0,0,512,512
263.908,0,0,512,512
263.955,2.77556e-17,0,512,512
264.002,0,0,512,512
264.06,0,0,512,512
264.107,0,0,512,512
264.154,0,0,512,512
264.201,0,0,512,512
264.26,0,0,512,512
264.306,2.77556e-17,0,512,512
264.353,2.77556e-17,0,512,512
264.4,2.77556e-17,0,512,512
264.459,2.77556e-17,0,512,512
264.506,2.77556e-17,0,512,512
264.553,2.77556e-17,0,512,512
264.611,2.77556e-17,0,512,512
264.658,2.77556e-17,0,512,512
264.705,2.77556e-17,0,512,512
264.752,2.77556e-17,0,512,512
264.81,2.77556e-17,0,512,512
264.857,2.77556e-17,0,512,512
264.904,2.77556e-17,0,512,512
264.951,2.77556e-17,0,512,512
265.01,2.77556e-17,0,512,512
265.056,2.77556e-17,0,512,512
265.103,2.77556e-17,0,512,512
265.15,2.77556e-17,0,512,512
265.209,2.77556e-17,0,512,512
265.256,2.77556e-17,0,512,512
265.302,2.77556e-17,0,512,512
265.361,5.55112e-17,0,512,512
265.408,5.55112e-17,0,512,512
265.455,5.55112e-17,0,512,512
265.502,5.55112e-17,0,512,512
265.56,2.77556e-17,0,512,512
265.607,2.77556e-17,0,512,512
265.654,2.77556e-17,0,512,512
265.701,2.77556e-17,0,512,512
265.759,2.77556e-17,0,512,512
265.806,2.77556e-17,0,512,512
265.853,2.77556e-17,0,512,512
265.9,2.77556e-17,0,512,512
265.959,2.77556e-17,0,512,512
266.005,2.77556e-17,0,512,512
266.052,2.77556e-17,0,512,512
266.111,0,0,512,512
266.158,2.77556e-17,0,512,512
266.205,0,0,512,512
266.252,2.77556e-17,0,512,512
266.31,2.77556e-17,0,512,512
266.357,2.77556e-17,0,512,512
266.404,2.77556e-17,0,512,512
266.451,2.77556e-17,0,512,512
266.509,0,0,512,512
266.556,0,0,512,512
266.603,-2.77556e-17,0,512,512
266.662,-2.77556e-17,0,512,512
266.708,-2.77556e-17,0,512,512
266.755,0,0,512,512
266.802,-2.77556e-17,0,512,512
266.861,-2.77556e-17,0,512,512
266.908,-2.77556e-17,0,512,512
266.955,-2.77556e-17,0,512,512
267.001,-2.77556e-17,0,512,512
267.06,-2.77556e-17,0,512,512
267.107,-2.77556e-17,0,512,512
267.154,-2.77556e-17,0,512,512
267.201,-2.77556e-17,0,512,512
267.259,-2.77556e-17,0,512,512
267.306,-2.77556e-17,0,512,512
267.353,-2.77556e-17,0,512,512
267.412,-2.77556e-17,0,512,512
267.458,-2.77556e-17,0,512,512
267.505,-2.77556e-17,0,512,512
267.552,0,0,512,512
267.611,2.77556e-17,0,512,512
267.658,2.77556e-17,0,512,512
267.704,2.77556e-17,0,512,512
267.751,2.77556e-17,0,512,512
267.81,2.77556e-17,0,512,512
267.857,2.77556e-17,0,512,512
267.904,2.77556e-17,0,512,512
267.95,2.77556e-17,0,512,512
268.009,2.77556e-17,0,512,512
268.056,2.77556e-17,0,512,512
268.1,2.77556e-17,0,527,527
268.152,2.77556e-17,0,539,539
268.202,2.77556e-17,0,537,537
268.254,2.77556e-17,0,541,541
268.301,2.77556e-17,0,547,547
268.354,2.77556e-17,0,551,551
268.401,2.77556e-17,0,539,539
268.454,2.77556e-17,0,537,537
268.507,2.77556e-17,0,533,533
268.555,2.77556e-17,0,541,541
268.602,2.77556e-17,0,547,547
268.655,2.77556e-17,0,547,547
268.702,2.77556e-17,0,548,548
268.754,2.77556e-17,0,551,551
268.804,2.77556e-17,0,549,549
268.853,2.77556e-17,0,548,548
268.903,2.77556e-17,0,549,549
268.953,2.77556e-17,0,545,545
269.002,0,0,542,542
269.052,0,0,536,536
269.102,0,0,530,530
269.152,0,0,524,524
269.201,0,0,520,520
269.251,0,0,516,516
269.308,0,0,512,512
269.354,-2.77556e-17,0,512,512
269.401,-2.77556e-17,0,512,512
269.452,0,0,523,523
269.502,0,0,537,537
269.552,0,0,535,535
269.603,0,0,543,543
269.653,0,0,575,575
269.7,0,0,571,571
269.751,0,0,613,613
269.8,0,0,663,663
269.85,0,0,703,703
269.9,0,0,807,807
269.951,0,0,951,951
270.001,0,0,1087,1087
270.051,0,0,1255,1255
270.101,0,0,1401,1401
270.151,0,0,1521,1521
270.2,0,0,1575,1575
270.25,0,0,1611,1611
270.3,0,0,1695,1695
270.351,-1.66533e-16,0,1851,1851
270.4,-9.71445e-16,0,2105,2105
270.451,-2.91434e-15,0,2365,2365
270.501,-1.07137e-14,0,2653,2653
270.55,-3.89966e-14,0,2963,2963
270.601,-1.29896e-13,0,3451,3451
270.65,-3.77143e-13,0,4103,4103
270.7,-9.76746e-13,0,4823,4823
270.751,-2.3011e-12,0,5625,5625
270.8,-4.84368e-12,0,6549,6549
270.85,-9.28554e-12,0,7461,7461
270.9,-1.6294e-11,0,8339,8339
270.951,-2.64545e-11,0,9257,9257
271,-3.93286e-11,0,10223,10223
271.05,-5.41036e-11,0,11127,11127
271.1,-6.90249e-11,0,12089,12089
271.151,-8.19355e-11,0,12969,12969
271.2,-9.00645e-11,0,13877,13877
271.25,-9.18069e-11,0,14765,14765
271.301,-8.62402e-11,0,15713,15713
271.35,-7.39478e-11,0,16571,16571
271.4,-5.63506e-11,0,17479,17479
271.45,-3.54936e-11,0,18147,18147
271.501,-1.31948e-11,0,18343,18343
271.55,8.05372e-12,0,18399,18399
271.6,2.72911e-11,0,18367,18367
271.651,4.40345e-11,0,18541,18541
271.701,5.75909e-11,0,18741,18741
271.75,6.838e-11,0,19001,19001
271.8,7.67783e-11,0,19505,19505
271.851,8.33457e-11,0,20237,20237
271.9,8.83759e-11,0,20971,20971
271.95,9.2387e-11,0,21839,21839
272,9.56838e-11,0,22719,22719
272.051,9.84981e-11,0,23515,23515
272.1,1.00854e-10,0,24335,24335
272.15,1.02845e-10,0,25121,25121
272.201,1.04533e-10,0,26025,26025
272.25,1.05938e-10,0,27009,27009
272.3,1.07199e-10,0,28003,28003
272.35,1.08443e-10,0,28927,28927
272.401,1.09723e-10,0,29943,29943
272.45,1.10796e-10,0,30743,30743
272.5,1.11176e-10,0,31661,31661
272.551,1.10236e-10,0,32469,32469
272.601,1.07967e-10,0,33305,33305
272.65,1.06046e-10,0,34143,34143
272.7,1.09243e-10,0,35003,35003
272.751,1.26943e-10,0,35903,35903
272.8,1.72208e-10,0,36779,36779
272.85,2.61943e-10,0,37561,37561
272.9,4.14801e-10,0,38453,38453
272.951,6.72614e-10,0,39327,39327
273,1.21516e-09,0,40107,40107
273.05,2.21037e-09,0,40755,40755
273.101,4.85807e-09,0,41233,41233
273.15,9.34781e-09,0,41475,41475
273.2,1.58503e-08,0,41637,41637
273.25,2.136e-08,0,41571,41571
273.301,2.56844e-08,0,41603,41603
273.35,2.89455e-08,0,41727,41727
273.4,3.18319e-08,0,41865,41865
273.451,3.53298e-08,0,42005,42005
273.501,4.01809e-08,0,41985,41985
273.55,4.69477e-08,0,42207,42207
273.6,5.71732e-08,0,42193,42193
273.651,7.01086e-08,0,42299,42299
273.7,8.41824e-08,0,41992,41992
273.75,9.94295e-08,0,41854,41854
273.8,1.1542e-07,0,41688,41688
273.851,1.42901e-07,0,41454,41454
273.9,1.78704e-07,0,41232,41232
273.95,2.19067e-07,0,41176,41176
274.001,2.67156e-07,0,41141,41141
274.05,3.1728e-07,0,41027,41027
274.1,3.67901e-07,0,40991,40991
274.15,4.18403e-07,0,40985,40985
274.201,4.71564e-07,0,41015,41015
274.25,5.2847e-07,0,40985,40985
274.3,5.89847e-07,0,41093,41093
274.35,6.52002e-07,0,41043,41043
274.401,7.10587e-07,0,41041,41041
274.45,7.59881e-07,0,41041,41041
274.5,7.98745e-07,0,40925,40925
274.551,8.26836e-07,0,40905,40905
274.6,8.44343e-07,0,40687,40687
274.65,8.54166e-07,0,40631,40631
274.7,8.558e-07,0,40491,40491
274.751,8.55808e-07,0,40251,40251
274.801,8.55481e-07,0,40103,40103
274.85,8.54751e-07,0,39881,39881
274.901,8.45702e-07,0,39817,39817
274.95,8.32818e-07,0,39633,39633
275,8.17975e-07,0,39537,39537
275.05,7.94345e-07,0,39447,39447
275.101,7.55971e-07,0,39257,39257
275.15,7.12827e-07,0,39121,39121
275.2,6.62795e-07,0,38983,38983
275.25,6.09482e-07,0,38911,38911
275.3,5.55812e-07,0,38729,38729
275.351,5.04262e-07,0,38597,38597
275.4,4.56746e-07,0,38461,38461
275.45,4.12942e-07,0,38369,38369
275.5,3.72873e-07,0,38133,38133
275.55,3.35957e-07,0,38049,38049
275.6,3.01932e-07,0,37891,37891
275.651,2.69106e-07,0,37725,37725
275.701,2.38031e-07,0,37589,37589
275.751,2.08137e-07,0,37435,37435
275.8,1.80822e-07,0,37315,37315
275.851,1.57298e-07,0,37229,37229
275.9,1.40065e-07,0,37069,37069
275.95,1.28051e-07,0,36919,36919
276.001,1.18013e-07,0,36813,36813
276.05,1.06704e-07,0,36703,36703
276.101,9.29186e-08,0,36551,36551
276.151,7.90097e-08,0,36413,36413
276.201,6.71295e-08,0,36337,36337
276.25,5.80788e-08,0,36217,36217
276.3,5.30604e-08,0,36129,36129
276.35,5.04846e-08,0,35909,35909
276.4,4.73158e-08,0,35918,35918
276.45,4.32505e-08,0,35720,35720
276.501,3.8141e-08,0,35640,35640
276.55,3.25514e-08,0,35626,35626
276.6,2.7456e-08,0,35500,35500
276.65,2.38227e-08,0,35432,35432
276.7,2.19572e-08,0,35284,35284
276.751,2.1551e-08,0,35332,35332
276.8,2.16306e-08,0,35136,35136
276.85,2.16988e-08,0,35056,35056
276.9,2.17708e-08,0,34980,34980
276.95,2.18281e-08,0,34862,34862
277.001,2.18544e-08,0,34798,34798
277.051,2.18432e-08,0,34700,34700
277.101,2.18007e-08,0,34650,34650
277.151,2.1732e-08,0,34596,34596
277.2,2.16456e-08,0,34562,34562
277.251,2.15434e-08,0,34426,34426
277.3,2.14319e-08,0,34400,34400
277.35,2.13113e-08,0,34426,34426
277.401,2.11818e-08,0,34362,34362
277.45,2.10447e-08,0,34256,34256
277.501,2.0892e-08,0,34250,34250
277.55,2.07258e-08,0,34224,34224
277.6,2.05432e-08,0,34146,34146
277.651,2.03418e-08,0,34144,34144
277.7,2.01217e-08,0,34142,34142
277.75,1.98811e-08,0,34108,34108
277.801,1.95368e-08,0,33890,33890
277.85,1.91822e-08,0,33870,33870
277.9,1.88222e-08,0,33798,33798
277.95,1.84254e-08,0,33730,33730
278.001,1.79812e-08,0,33748,33748
278.051,1.7529e-08,0,33613,33613
278.101,1.70458e-08,0,33499,33499
278.15,1.65602e-08,0,33415,33415
278.2,1.60552e-08,0,33347,33347
278.251,1.55417e-08,0,33245,33245
278.3,1.50353e-08,0,33109,33109
278.351,1.45149e-08,0,33081,33081
278.4,1.40029e-08,0,32953,32953
278.45,1.34918e-08,0,32849,32849
278.501,1.29766e-08,0,32713,32713
278.551,1.24831e-08,0,32397,32397
278.601,1.20071e-08,0,32293,32293
278.651,1.15529e-08,0,32099,32099
278.701,1.11235e-08,0,32049,32049
278.751,1.07211e-08,0,32357,32357
278.8,1.03548e-08,0,32495,32495
278.85,1.00116e-08,0,32277,32277
278.901,9.69841e-09,0,31951,31951
278.95,9.41882e-09,0,31781,31781
279.001,9.16118e-09,0,31521,31521
279.05,8.93559e-09,0,31159,31159
279.1,8.73646e-09,0,30719,30719
279.151,8.55716e-09,0,30307,30307
279.201,8.40044e-09,0,30115,30115
279.25,8.26334e-09,0,29531,29531
279.3,8.14573e-09,0,28983,28983
279.35,8.05476e-09,0,28585,28585
279.401,7.97316e-09,0,28171,28171
279.451,7.90122e-09,0,28001,28001
279.5,7.83262e-09,0,27477,27477
279.551,7.79533e-09,0,26577,26577
279.6,7.76433e-09,0,25903,25903
279.651,7.73433e-09,0,25203,25203
279.7,7.71191e-09,0,24365,24365
279.751,7.69266e-09,0,23543,23543
279.801,7.67895e-09,0,23095,23095
279.851,7.66934e-09,0,22791,22791
279.901,7.66365e-09,0,22089,22089
279.951,7.66156e-09,0,20511,20511
280.001,7.6626e-09,0,19557,19557
280.05,7.66639e-09,0,18193,18193
280.101,7.67279e-09,0,16623,16623
280.15,7.68124e-09,0,14057,14057
280.2,7.6916e-09,0,11607,11607
280.251,7.70382e-09,0,11295,11295
280.3,7.71706e-09,0,12819,12819
280.35,7.73133e-09,0,14115,14115
280.401,7.74671e-09,0,14203,14203
280.451,7.76256e-09,0,15595,15595
280.501,7.77855e-09,0,16789,16789
280.55,7.79473e-09,0,18069,18069
280.6,7.81132e-09,0,18883,18883
280.651,7.82794e-09,0,19431,19431
280.7,7.84418e-09,0,20129,20129
280.751,7.86064e-09,0,20409,20409
280.8,7.87664e-09,0,21087,21087
280.85,7.89278e-09,0,21587,21587
280.901,7.9087e-09,0,21997,21997
280.951,7.92438e-09,0,22429,22429
281.001,7.93979e-09,0,22861,22861
281.051,7.95491e-09,0,23411,23411
281.101,7.96974e-09,0,23834,23834
281.151,7.98428e-09,0,24318,24318
281.2,7.99856e-09,0,24688,24688
281.25,8.01264e-09,0,25106,25106
281.301,8.02691e-09,0,25560,25560
281.35,8.04097e-09,0,26210,26210
281.401,8.0556e-09,0,26912,26912
281.45,8.07053e-09,0,27690,27690
281.5,8.08677e-09,0,28400,28400
281.551,8.10457e-09,0,29068,29068
281.601,8.12464e-09,0,29756,29756
281.651,8.14782e-09,0,30550,30550
281.701,8.17511e-09,0,31176,31176
281.751,8.20768e-09,0,31396,31396
281.801,8.24681e-09,0,31660,31660
281.85,8.2939e-09,0,31884,31884
281.9,8.35037e-09,0,31722,31722
281.951,8.41904e-09,0,31820,31820
282,8.49864e-09,0,32116,32116
282.051,8.59346e-09,0,32450,32450
282.1,8.7009e-09,0,32778,32778
282.151,8.82588e-09,0,33022,33022
282.201,8.96709e-09,0,33252,33252
282.25,9.12196e-09,0,33576,33576
282.3,9.29706e-09,0,33796,33796
282.35,9.49053e-09,0,33920,33920
282.4,9.7036e-09,0,34166,34166
282.45,9.93342e-09,0,34326,34326
282.501,1.03062e-08,0,34464,34464
282.551,1.07847e-08,0,34564,34564
282.6,1.12763e-08,0,34686,34686
282.651,1.19815e-08,0,34742,34742
282.7,1.27068e-08,0,34840,34840
282.751,1.35084e-08,0,34909,34909
282.8,1.4365e-08,0,35071,35071
282.85,1.53199e-08,0,35137,35137
282.901,1.72013e-08,0,35307,35307
282.951,1.90292e-08,0,35505,35505
283.001,2.09278e-08,0,35593,35593
283.05,2.29372e-08,0,35831,35831
283.1,2.54623e-08,0,35725,35725
283.15,2.82371e-08,0,35857,35857
283.2,3.11673e-08,0,35981,35981
283.25,3.42587e-08,0,36015,36015
283.301,3.75765e-08,0,36157,36157
283.35,4.09854e-08,0,36127,36127
283.4,4.45876e-08,0,36274,36274
283.45,4.83003e-08,0,36230,36230
283.5,5.20915e-08,0,36332,36332
283.551,5.60004e-08,0,36415,36415
283.6,5.98513e-08,0,36501,36501
283.65,6.37475e-08,0,36577,36577
283.7,6.76046e-08,0,36627,36627
283.75,7.1437e-08,0,36689,36689
283.801,7.54104e-08,0,36831,36831
283.851,8.15299e-08,0,36939,36939
283.901,8.75463e-08,0,37059,37059
283.951,9.33487e-08,0,37147,37147
284,9.92796e-08,0,37323,37323
284.051,1.05565e-07,0,37311,37311
284.1,1.12008e-07,0,37421,37421
284.15,1.1881e-07,0,37401,37401
284.201,1.25948e-07,0,37471,37471
284.25,1.33147e-07,0,37639,37639
284.301,1.40642e-07,0,37659,37659
284.35,1.48253e-07,0,37837,37837
284.401,1.56739e-07,0,37975,37975
284.451,1.67816e-07,0,38085,38085
284.5,1.79582e-07,0,38047,38047
284.55,1.92446e-07,0,38225,38225
284.6,2.06148e-07,0,38301,38301
284.65,2.20533e-07,0,38367,38367
284.7,2.35677e-07,0,38435,38435
284.75,2.76984e-07,0,38408,38408
284.801,3.17835e-07,0,38382,38382
284.851,3.60054e-07,0,38418,38418
284.9,4.03767e-07,0,38338,38338
284.95,4.48887e-07,0,38342,38342
285,4.95824e-07,0,38362,38362
285.05,5.43694e-07,0,38372,38372
285.1,5.92427e-07,0,38360,38360
285.15,6.4138e-07,0,38534,38534
285.201,6.89644e-07,0,38644,38644
285.251,7.33911e-07,0,38758,38758
285.301,7.7149e-07,0,38826,38826
285.351,8.00433e-07,0,39018,39018
285.4,8.19642e-07,0,39176,39176
285.451,8.27753e-07,0,39240,39240
285.5,8.26418e-07,0,39354,39354
285.55,8.23192e-07,0,39470,39470
285.601,8.16426e-07,0,39520,39520
285.65,8.04827e-07,0,39764,39764
285.701,7.91452e-07,0,39829,39829
285.751,7.76854e-07,0,39947,39947
285.801,7.55841e-07,0,39993,39993
285.85,7.27828e-07,0,40123,40123
285.9,6.98593e-07,0,40195,40195
285.95,6.51562e-07,0,40293,40293
286,6.00478e-07,0,40371,40371
286.05,5.45826e-07,0,40457,40457
286.101,4.88541e-07,0,40551,40551
286.15,4.32114e-07,0,40635,40635
286.2,3.76474e-07,0,40663,40663
286.25,3.23805e-07,0,40739,40739
286.3,2.74949e-07,0,40779,40779
286.351,2.29474e-07,0,40815,40815
286.4,1.88573e-07,0,40857,40857
286.45,1.51084e-07,0,40885,40885
286.5,1.1645e-07,0,40926,40926
286.551,8.40091e-08,0,40998,40998
286.6,5.48932e-08,0,40886,40886
286.65,2.90193e-08,0,40942,40942
286.701,6.53288e-09,0,40956,40956
286.751,-1.16867e-08,0,40974,40974
286.8,-2.63117e-08,0,41030,41030
286.85,-3.82375e-08,0,40966,40966
286.901,-4.87327e-08,0,40984,40984
286.95,-5.83195e-08,0,41048,41048
287,-6.7352e-08,0,41012,41012
287.05,-7.55609e-08,0,41128,41128
287.101,-8.18838e-08,0,41144,41144
287.15,-8.31577e-08,0,40974,40974
287.2,-8.30593e-08,0,40978,40978
287.251,-8.2867e-08,0,40730,40730
287.3,-8.25323e-08,0,40574,40574
287.35,-8.20147e-08,0,40418,40418
287.4,-8.12638e-08,0,40296,40296
287.451,-8.02025e-08,0,40290,40290
287.5,-7.84494e-08,0,40172,40172
287.55,-7.61026e-08,0,40028,40028
287.601,-7.31852e-08,0,39912,39912
287.651,-7.00245e-08,0,39554,39554
287.7,-6.66248e-08,0,39472,39472
287.75,-6.30279e-08,0,39154,39154
287.801,-5.92424e-08,0,38842,38842
287.85,-5.54509e-08,0,38780,38780
287.9,-5.16761e-08,0,38510,38510
287.95,-4.79936e-08,0,38078,38078
288.001,-4.44117e-08,0,37196,37196
288.05,-4.1072e-08,0,36450,36450
288.1,-3.7943e-08,0,35530,35530
288.151,-3.49927e-08,0,34952,34952
288.2,-3.23065e-08,0,34024,34024
288.25,-2.98336e-08,0,33232,33232
288.3,-2.75623e-08,0,32486,32486
288.351,-2.54545e-08,0,31625,31625
288.4,-2.35674e-08,0,30705,30705
288.45,-2.18664e-08,0,29869,29869
288.5,-2.03496e-08,0,28993,28993
288.551,-1.89933e-08,0,28123,28123
288.6,-1.78278e-08,0,27297,27297
288.65,-1.68216e-08,0,26507,26507
288.701,-1.59444e-08,0,26483,26483
288.75,-1.51858e-08,0,26523,26523
288.8,-1.44923e-08,0,26444,26444
288.85,-1.38426e-08,0,26300,26300
288.901,-1.32244e-08,0,26142,26142
288.95,-1.26565e-08,0,25880,25880
289,-1.21304e-08,0,25576,25576
289.051,-1.16057e-08,0,25006,25006
289.1,-1.11766e-08,0,24130,24130
289.15,-1.08026e-08,0,23160,23160
289.2,-1.04798e-08,0,22256,22256
289.251,-1.02072e-08,0,21286,21286
289.3,-9.90852e-09,0,20388,20388
289.35,-9.75435e-09,0,19480,19480
289.4,-9.57782e-09,0,18586,18586
289.451,-9.4747e-09,0,17702,17702
289.5,-9.45464e-09,0,16806,16806
289.55,-9.43147e-09,0,15910,15910
289.601,-9.45057e-09,0,15006,15006
289.65,-9.48343e-09,0,14090,14090
289.7,-9.5264e-09,0,13236,13236
289.75,-9.58767e-09,0,12326,12326
289.801,-9.65553e-09,0,11446,11446
289.85,-9.72614e-09,0,10554,10554
289.9,-9.80233e-09,0,9664,9664
289.951,-9.8808e-09,0,8734,8734
290.001,-9.95705e-09,0,7844,7844
290.05,-1.00326e-08,0,6954,6954
290.1,-1.01075e-08,0,6046,6046
290.151,-1.01821e-08,0,5150,5150
290.2,-1.02534e-08,0,4218,4218
290.25,-1.03209e-08,0,3306,3306
290.3,-1.03839e-08,0,2548,2548
290.351,-1.04436e-08,0,2420,2420
290.4,-1.04987e-08,0,2357,2357
290.452,-1.05525e-08,0,2329,2329
290.502,-1.06013e-08,0,2279,2279
290.551,-1.06477e-08,0,2250,2250
290.601,-1.06918e-08,0,2208,2208
290.651,-1.07342e-08,0,2164,2164
290.701,-1.07751e-08,0,2132,2132
290.75,-1.08149e-08,0,2064,2064
290.8,-1.0854e-08,0,2176,2176
290.852,-1.08943e-08,0,2104,2104
290.902,-1.09334e-08,0,2028,2028
290.951,-1.09733e-08,0,1950,1950
291.001,-1.10149e-08,0,1890,1890
291.051,-1.10586e-08,0,1820,1820
291.1,-1.11048e-08,0,1792,1792
291.15,-1.11539e-08,0,1754,1754
291.202,-1.12087e-08,0,1716,1716
291.252,-1.12655e-08,0,1648,1648
291.301,-1.13269e-08,0,1586,1586
291.351,-1.13939e-08,0,1514,1514
291.401,-1.14672e-08,0,1474,1474
291.45,-1.15477e-08,0,1414,1414
291.5,-1.16362e-08,0,1352,1352
291.552,-1.17381e-08,0,1298,1298
291.602,-1.18458e-08,0,1234,1234
291.651,-1.1964e-08,0,1184,1184
291.701,-1.2094e-08,0,1134,1134
291.751,-1.22342e-08,0,1090,1090
291.801,-1.23853e-08,0,1054,1054
291.85,-1.25456e-08,0,1016,1016
291.902,-1.27241e-08,0,1002,1002
291.954,-1.2916e-08,0,1003,1003
292.002,-1.31026e-08,0,1007,1007
292.055,-1.33208e-08,0,1011,1011
292.103,-1.3526e-08,0,1017,1017
292.151,-1.37389e-08,0,1013,1013
292.205,-1.39829e-08,0,1019,1019
292.253,-1.42088e-08,0,1027,1027
292.301,-1.44402e-08,0,1029,1029
292.355,-1.47022e-08,0,1029,1029
292.404,-1.49537e-08,0,1041,1041
292.455,-1.53799e-08,0,1045,1045
292.5,-1.57472e-08,0,1047,1047
292.552,-1.6119e-08,0,1041,1041
292.603,-1.65212e-08,0,1021,1021
292.655,-1.69169e-08,0,1023,1023
292.706,-1.73153e-08,0,1013,1013
292.751,-1.76768e-08,0,1017,1017
292.801,-1.80738e-08,0,1019,1019
292.852,-1.84742e-08,0,1019,1019
292.903,-1.88646e-08,0,1007,1007
292.953,-1.92428e-08,0,1013,1013
293.003,-1.96153e-08,0,1005,1005
293.053,-1.99709e-08,0,1001,1001
293.103,-2.03142e-08,0,989,989
293.153,-2.06402e-08,0,991,991
293.203,-2.09456e-08,0,1009,1009
293.252,-2.12291e-08,0,999,999
293.301,-2.14862e-08,0,999,999
293.35,-2.17166e-08,0,995,995
293.405,-2.19415e-08,0,985,985
293.454,-2.21111e-08,0,981,981
293.503,-2.22536e-08,0,983,983
293.551,-2.23723e-08,0,979,979
293.606,-2.24902e-08,0,985,985
293.654,-2.25297e-08,0,989,989
293.702,-2.25393e-08,0,1027,1027
293.756,-2.2543e-08,0,1041,1041
293.803,-2.25289e-08,0,1053,1053
293.851,-2.25007e-08,0,1059,1059
293.904,-2.24575e-08,0,1059,1059
293.952,-2.24059e-08,0,1053,1053
294.005,-2.23361e-08,0,1053,1053
294.052,-2.22628e-08,0,1053,1053
294.104,-2.21697e-08,0,1053,1053
294.151,-2.20789e-08,0,1057,1057
294.204,-2.19679e-08,0,1057,1057
294.251,-2.18628e-08,0,1059,1059
294.304,-2.17387e-08,0,1055,1055
294.35,-2.1624e-08,0,1053,1053
294.403,-2.14906e-08,0,1059,1059
294.45,-2.13691e-08,0,1055,1055
294.503,-2.12304e-08,0,1057,1057
294.556,-2.10905e-08,0,1057,1057
294.602,-2.09659e-08,0,1059,1059
294.655,-2.08259e-08,0,1055,1055
294.702,-2.07023e-08,0,1053,1053
294.755,-2.05649e-08,0,1059,1059
294.802,-2.04449e-08,0,1055,1055
294.854,-2.03124e-08,0,1057,1057
294.901,-2.0197e-08,0,1059,1059
294.954,-2.00705e-08,0,1059,1059
295.001,-1.9961e-08,0,1047,1047
295.054,-1.98415e-08,0,1019,1019
295.1,-1.97384e-08,0,1009,1009
295.153,-1.9626e-08,0,982,982
295.206,-1.95173e-08,0,966,966
295.253,-1.94239e-08,0,948,948
295.305,-1.93222e-08,0,934,934
295.352,-1.92346e-08,0,924,924
295.405,-1.91392e-08,0,922,922
295.452,-1.9057e-08,0,922,922
295.505,-1.89675e-08,0,922,922
295.551,-1.88903e-08,0,924,924
295.604,-1.8806e-08,0,920,920
295.65,-1.87348e-08,0,934,934
295.705,-1.86513e-08,0,944,944
295.755,-1.85782e-08,0,949,949
295.805,-1.85068e-08,0,947,947
295.854,-1.84369e-08,0,947,947
295.903,-1.83681e-08,0,953,953
295.953,-1.83004e-08,0,953,953
296.002,-1.82334e-08,0,953,953
296.051,-1.81671e-08,0,955,955
296.1,-1.81012e-08,0,949,949
296.155,-1.80283e-08,0,939,939
296.204,-1.79627e-08,0,935,935
296.253,-1.78972e-08,0,919,919
296.302,-1.78314e-08,0,909,909
296.351,-1.77652e-08,0,907,907
296.405,-1.76911e-08,0,895,895
296.453,-1.76236e-08,0,883,883
296.502,-1.75553e-08,0,883,883
296.551,-1.7486e-08,0,871,871
296.604,-1.74075e-08,0,867,867
296.653,-1.73354e-08,0,869,869
296.701,-1.72619e-08,0,853,853
296.755,-1.71782e-08,0,843,843
296.803,-1.71008e-08,0,855,855
296.851,-1.70215e-08,0,846,846
296.904,-1.69307e-08,0,846,846
296.952,-1.68464e-08,0,856,856
297,-1.67596e-08,0,858,858
297.053,-1.66598e-08,0,850,850
297.101,-1.65668e-08,0,866,866
297.154,-1.64598e-08,0,866,866
297.202,-1.63599e-08,0,862,862
297.255,-1.62447e-08,0,870,870
297.302,-1.61371e-08,0,870,870
297.355,-1.6013e-08,0,866,866
297.402,-1.5897e-08,0,866,866
297.455,-1.57633e-08,0,866,866
297.502,-1.56386e-08,0,860,860
297.554,-1.5495e-08,0,870,870
297.601,-1.53615e-08,0,866,866
297.653,-1.52084e-08,0,866,866
297.705,-1.505e-08,0,866,866
297.751,-1.49029e-08,0,866,866
297.802,-1.47348e-08,0,866,866
297.854,-1.45613e-08,0,862,862
297.904,-1.43825e-08,0,864,864
297.95,-1.42174e-08,0,854,854
298.001,-1.40289e-08,0,860,860
298.051,-1.38354e-08,0,856,856
298.101,-1.36372e-08,0,848,848
298.151,-1.34345e-08,0,848,848
298.201,-1.32276e-08,0,844,844
298.251,-1.3017e-08,0,844,844
298.305,-1.27819e-08,0,844,844
298.354,-1.25652e-08,0,848,848
298.403,-1.2346e-08,0,850,850
298.452,-1.21244e-08,0,848,848
298.501,-1.19006e-08,0,846,846
298.554,-1.16514e-08,0,852,852
298.602,-1.14197e-08,0,858,858
298.651,-1.11133e-08,0,850,850
298.703,-1.0639e-08,0,850,850
298.751,-1.02712e-08,0,854,854
298.804,-9.87946e-09,0,862,862
298.851,-9.51236e-09,0,850,850
298.903,-9.12162e-09,0,856,856
298.951,-8.74404e-09,0,860,860
299.002,-8.32481e-09,0,864,864
299.054,-7.89074e-09,0,856,856
299.1,-7.48064e-09,0,852,852
299.152,-7.01752e-09,0,860,860
299.203,-6.53231e-09,0,866,866
299.253,-6.02802e-09,0,860,860
299.304,-5.33989e-09,0,862,862
299.35,-4.73874e-09,0,866,866
299.4,-4.11019e-09,0,866,866
299.45,-3.49813e-09,0,860,860
299.5,-2.89638e-09,0,866,866
299.55,-2.29953e-09,0,868,868
299.604,-1.66754e-09,0,868,868
299.654,-1.09836e-09,0,870,870
299.703,-5.49331e-10,0,868,868
299.752,-1.99334e-11,0,868,868
299.801,4.879e-10,0,872,872
299.85,9.67904e-10,0,874,874
299.903,1.46068e-09,0,874,874
299.952,1.87857e-09,0,870,870
300,2.26405e-09,0,878,878
300.053,2.64583e-09,0,874,874
300.101,2.95824e-09,0,878,878
300.153,3.25876e-09,0,882,882
300.201,3.50201e-09,0,876,876
300.253,3.71838e-09,0,870,870
300.3,3.88925e-09,0,876,876
300.352,4.03703e-09,0,880,880
300.403,4.14818e-09,0,880,880
300.454,4.23203e-09,0,884,884
300.501,4.23835e-09,0,880,880
300.552,4.23538e-09,0,886,886
300.603,4.22118e-09,0,882,882
300.653,4.1974e-09,0,884,884
300.704,4.16529e-09,0,890,890
300.754,4.12564e-09,0,890,890
300.8,4.0833e-09,0,886,886
300.85,4.03038e-09,0,886,886
300.904,3.96654e-09,0,886,886
300.954,3.90263e-09,0,888,888
301.003,3.83478e-09,0,890,890
301.053,3.76361e-09,0,890,890
301.103,3.68983e-09,0,892,892
301.153,3.61421e-09,0,890,890
301.202,3.53737e-09,0,888,888
301.252,3.46002e-09,0,896,896
301.302,3.38296e-09,0,888,888
301.351,3.30681e-09,0,892,892
301.401,3.232e-09,0,892,892
301.451,3.15895e-09,0,900,900
301.501,3.08808e-09,0,896,896
301.55,3.01976e-09,0,892,892
301.604,2.94897e-09,0,896,896
301.654,2.88684e-09,0,896,896
301.704,2.82797e-09,0,894,894
301.753,2.77246e-09,0,892,892
301.803,2.72037e-09,0,896,896
301.853,2.67171e-09,0,902,902
301.902,2.62642e-09,0,888,888
301.952,2.58441e-09,0,885,885
302.002,2.54557e-09,0,881,881
302.052,2.50974e-09,0,875,875
302.101,2.47678e-09,0,867,867
302.151,2.44652e-09,0,859,859
302.201,2.41877e-09,0,853,853
302.25,2.39332e-09,0,845,845
302.3,2.36998e-09,0,837,837
302.354,2.34688e-09,0,833,833
302.404,2.32743e-09,0,821,821
302.453,2.30964e-09,0,815,815
302.503,2.29338e-09,0,811,811
302.553,2.27854e-09,0,803,803
302.602,2.265e-09,0,791,791
302.652,2.25269e-09,0,775,775
302.702,2.24152e-09,0,761,761
302.752,2.23144e-09,0,749,749
302.801,2.22239e-09,0,733,733
302.851,2.21433e-09,0,723,723
302.901,2.20722e-09,0,707,707
302.95,2.20104e-09,0,691,691
303,2.19576e-09,0,677,677
303.054,2.19102e-09,0,659,659
303.104,2.18751e-09,0,653,653
303.153,2.1848e-09,0,637,637
303.203,2.18287e-09,0,621,621
303.253,2.18168e-09,0,609,609
303.303,2.18119e-09,0,595,595
303.352,2.18135e-09,0,579,579
303.401,2.1821e-09,0,563,563
303.454,2.18347e-09,0,555,555
303.501,2.18515e-09,0,545,545
303.554,2.18747e-09,0,533,533
303.6,2.18987e-09,0,525,525
303.654,2.19288e-09,0,513,513
303.705,2.19603e-09,0,512,512
303.752,2.19901e-09,0,512,512
303.811,2.20283e-09,0,512,512
303.858,2.20588e-09,0,512,512
303.905,2.20889e-09,0,512,512
303.951,2.21181e-09,0,512,512
304.01,2.21526e-09,0,512,512
304.057,2.21782e-09,0,512,512
304.104,2.22014e-09,0,512,512
304.151,2.22219e-09,0,512,512
304.209,2.22435e-09,0,512,512
304.256,2.2257e-09,0,512,512
304.303,2.22671e-09,0,512,512
304.362,2.22747e-09,0,512,512
304.408,2.22764e-09,0,512,512
304.455,2.22743e-09,0,512,512
304.502,2.22681e-09,0,512,512
304.561,2.22547e-09,0,512,512
304.608,2.22395e-09,0,512,512
304.654,2.222e-09,0,512,512
304.701,2.21964e-09,0,512,512
304.76,2.21609e-09,0,512,512
304.807,2.21277e-09,0,512,512
304.854,2.20904e-09,0,512,512
304.9,2.20488e-09,0,512,512
304.959,2.19911e-09,0,512,512
