250,0,0,2048,2048
250.006,0,0,2048,2048
250.053,0,0,2048,2048
250.105,0,0,2048,2048
250.152,0,0,2048,2048
250.205,0,0,2048,2048
250.252,0,0,2048,2048
250.305,0,0,2048,2048
250.352,0,0,2048,2048
250.404,2.77556e-17,0,2048,2048
250.451,0,0,2048,2048
250.504,0,0,2048,2048
250.551,0,0,2048,2048
250.603,0,0,2048,2048
250.65,2.77556e-17,0,2048,2048
250.703,0,0,2048,2048
250.756,0,0,2048,2048
250.803,0,0,2048,2048
250.855,-2.77556e-17,0,2048,2048
250.902,-2.77556e-17,0,2048,2048
250.955,0,0,2048,2048
251.002,0,0,2048,2048
251.055,0,0,2048,2048
251.101,0,0,2048,2048
251.154,0,0,2048,2048
251.201,0,0,2048,2048
251.254,2.77556e-17,0,2048,2048
251.301,5.55112e-17,0,2048,2048
251.353,5.55112e-17,0,2048,2048
251.4,0,0,2048,2048
251.453,0,0,2048,2048
251.506,0,0,2048,2048
251.553,0,0,2048,2048
251.605,0,0,2048,2048
251.652,0,0,2048,2048
251.705,0,0,2048,2048
251.752,0,0,2048,2048
251.804,0,0,2048,2048
251.851,2.77556e-17,0,2048,2048
251.904,2.77556e-17,0,2048,2048
251.951,2.77556e-17,0,2048,2048
252.004,2.77556e-17,0,2048,2048
252.05,5.55112e-17,0,2048,2048
252.103,5.55112e-17,0,2048,2048
252.15,5.55112e-17,0,2048,2048
252.203,5.55112e-17,0,2048,2048
252.256,5.55112e-17,0,2048,2048
252.302,5.55112e-17,0,2048,2048
252.355,5.55112e-17,0,2048,2048
252.402,5.55112e-17,0,2048,2048
252.455,5.55112e-17,0,2048,2048
252.502,5.55112e-17,0,2048,2048
252.554,0,0,2048,2048
252.601,0,0,2048,2048
252.654,-2.77556e-17,0,2048,2048
252.701,-2.77556e-17,0,2048,2048
252.754,-2.77556e-17,0,2048,2048
252.8,-2.77556e-17,0,2048,2048
252.853,-2.77556e-17,0,2048,2048
252.906,-2.77556e-17,0,2048,2048
252.953,-2.77556e-17,0,2048,2048
253.005,-2.77556e-17,0,2048,2048
253.052,-2.77556e-17,0,2048,2048
253.105,-2.77556e-17,0,2048,2048
253.152,-2.77556e-17,0,2048,2048
253.205,-2.77556e-17,0,2048,2048
253.251,-2.77556e-17,0,2048,2048
253.304,-2.77556e-17,0,2048,2048
253.351,2.77556e-17,0,2048,2048
253.404,5.55112e-17,0,2048,2048
253.451,2.77556e-17,0,2048,2048
253.503,2.77556e-17,0,2048,2048
253.55,2.77556e-17,0,2048,2048
253.603,0,0,2048,2048
253.656,-2.77556e-17,0,2048,2048
253.703,-2.77556e-17,0,2048,2048
253.755,-2.77556e-17,0,2048,2048
253.802,-2.77556e-17,0,2048,2048
253.855,-2.77556e-17,0,2048,2048
253.902,-2.77556e-17,0,2048,2048
253.954,-2.77556e-17,0,2048,2048
254.001,-2.77556e-17,0,2048,2048
254.054,-2.77556e-17,0,2048,2048
254.101,-2.77556e-17,0,2048,2048
254.154,0,0,2048,2048
254.201,2.77556e-17,0,2048,2048
254.253,2.77556e-17,0,2048,2048
254.3,0,0,2048,2048
254.353,2.77556e-17,0,2048,2048
254.406,0,0,2048,2048
254.452,2.77556e-17,0,2048,2048
254.505,0,0,2048,2048
254.552,-2.77556e-17,0,2048,2048
254.605,-2.77556e-17,0,2048,2048
254.652,-2.77556e-17,0,2048,2048
254.704,-2.77556e-17,0,2048,2048
254.751,-2.77556e-17,0,2048,2048
254.804,-2.77556e-17,0,2048,2048
254.851,-2.77556e-17,0,2048,2048
254.904,-2.77556e-17,0,2048,2048
254.95,-2.77556e-17,0,2048,2048
255.003,-2.77556e-17,0,2048,2048
255.05,-2.77556e-17,0,2048,2048
255.103,-2.77556e-17,0,2048,2048
255.155,-2.77556e-17,0,2048,2048
255.202,-2.77556e-17,0,2048,2048
255.255,0,0,2048,2048
255.302,0,0,2048,2048
255.355,0,0,2048,2048
255.402,0,0,2048,2048
255.454,0,0,2048,2048
255.501,-2.77556e-17,0,2048,2048
255.554,-2.77556e-17,0,2048,2048
255.601,-2.77556e-17,0,2048,2048
255.653,-2.77556e-17,0,2048,2048
255.7,0,0,2048,2048
255.753,2.77556e-17,0,2048,2048
255.806,5.55112e-17,0,2048,2048
255.853,2.77556e-17,0,2048,2048
255.905,0,0,2048,2048
255.952,0,0,2048,2048
256.005,2.77556e-17,0,2048,2048
256.052,2.77556e-17,0,2048,2048
256.105,2.77556e-17,0,2048,2048
256.151,2.77556e-17,0,2048,2048
256.204,2.77556e-17,0,2048,2048
256.251,2.77556e-17,0,2048,2048
256.304,2.77556e-17,0,2048,2048
256.351,2.77556e-17,0,2048,2048
256.403,8.32667e-17,0,2048,2048
256.45,8.32667e-17,0,2048,2048
256.503,5.55112e-17,0,2048,2048
256.556,8.32667e-17,0,2048,2048
256.603,5.55112e-17,0,2048,2048
256.655,8.32667e-17,0,2048,2048
256.702,5.55112e-17,0,2048,2048
256.755,5.55112e-17,0,2048,2048
256.802,5.55112e-17,0,2048,2048
256.854,2.77556e-17,0,2048,2048
256.901,2.77556e-17,0,2048,2048
256.954,2.77556e-17,0,2048,2048
257.001,2.77556e-17,0,2048,2048
257.054,2.77556e-17,0,2048,2048
257.101,2.77556e-17,0,2048,2048
257.153,0,0,2048,2048
257.2,0,0,2048,2048
257.253,-2.77556e-17,0,2048,2048
257.306,-2.77556e-17,0,2048,2048
257.352,-2.77556e-17,0,2048,2048
257.405,2.77556e-17,0,2048,2048
257.452,2.77556e-17,0,2048,2048
257.505,0,0,2048,2048
257.552,2.77556e-17,0,2048,2048
257.604,0,0,2048,2048
257.651,0,0,2048,2048
257.704,0,0,2048,2048
257.751,0,0,2048,2048
257.804,0,0,2048,2048
257.85,0,0,2048,2048
257.903,2.77556e-17,0,2048,2048
257.95,0,0,2048,2048
258.003,2.77556e-17,0,2048,2048
258.055,2.77556e-17,0,2048,2048
258.102,0,0,2048,2048
258.155,2.77556e-17,0,2048,2048
258.202,-2.77556e-17,0,2048,2048
258.255,-2.77556e-17,0,2048,2048
258.302,-2.77556e-17,0,2048,2048
258.354,0,0,2048,2048
258.401,5.55112e-17,0,2048,2048
258.454,5.55112e-17,0,2048,2048
258.501,5.55112e-17,0,2048,2048
258.553,5.55112e-17,0,2048,2048
258.6,5.55112e-17,0,2048,2048
258.653,5.55112e-17,0,2048,2048
258.706,5.55112e-17,0,2048,2048
258.753,5.55112e-17,0,2048,2048
258.805,5.55112e-17,0,2048,2048
258.852,5.55112e-17,0,2048,2048
258.905,5.55112e-17,0,2048,2048
258.952,5.55112e-17,0,2048,2048
259.005,5.55112e-17,0,2048,2048
259.051,5.55112e-17,0,2048,2048
259.104,2.77556e-17,0,2048,2048
259.151,2.77556e-17,0,2048,2048
259.204,2.77556e-17,0,2048,2048
259.251,2.77556e-17,0,2048,2048
259.303,2.77556e-17,0,2048,2048
259.35,2.77556e-17,0,2048,2048
259.403,0,0,2048,2048
259.456,2.77556e-17,0,2048,2048
259.503,0,0,2048,2048
259.555,0,0,2048,2048
259.602,0,0,2048,2048
259.655,0,0,2048,2048
259.702,-2.77556e-17,0,2048,2048
259.754,0,0,2048,2048
259.801,0,0,2048,2048
259.854,-5.55112e-17,0,2048,2048
259.901,-5.55112e-17,0,2048,2048
259.954,-5.55112e-17,0,2048,2048
260,-5.55112e-17,0,2048,2048
260.053,-2.77556e-17,0,2048,2048
260.1,-5.55112e-17,0,2048,2048
260.153,-5.55112e-17,0,2048,2048
260.206,-5.55112e-17,0,2048,2048
260.252,-5.55112e-17,0,2048,2048
260.305,-5.55112e-17,0,2048,2048
260.352,-5.55112e-17,0,2048,2048
260.405,-5.55112e-17,0,2048,2048
260.452,-5.55112e-17,0,2048,2048
260.504,-5.55112e-17,0,2048,2048
260.551,-5.55112e-17,0,2048,2048
260.604,-2.77556e-17,0,2048,2048
260.651,-2.77556e-17,0,2048,2048
260.704,-2.77556e-17,0,2048,2048
260.75,-2.77556e-17,0,2048,2048
260.803,-2.77556e-17,0,2048,2048
260.856,-2.77556e-17,0,2048,2048
260.903,-2.77556e-17,0,2048,2048
260.955,-2.77556e-17,0,2048,2048
261.002,-2.77556e-17,0,2048,2048
261.055,-5.55112e-17,0,2048,2048
261.102,-5.55112e-17,0,2048,2048
261.155,-5.55112e-17,0,2048,2048
261.201,-5.55112e-17,0,2048,2048
261.254,-5.55112e-17,0,2048,2048
261.301,-5.55112e-17,0,2048,2048
261.354,-5.55112e-17,0,2048,2048
261.401,-5.55112e-17,0,2048,2048
261.453,-5.55112e-17,0,2048,2048
261.5,-5.55112e-17,0,2048,2048
261.553,-5.55112e-17,0,2048,2048
261.606,-5.55112e-17,0,2048,2048
261.653,-5.55112e-17,0,2048,2048
261.705,-5.55112e-17,0,2048,2048
261.752,-5.55112e-17,0,2048,2048
261.805,-2.77556e-17,0,2048,2048
261.852,-2.77556e-17,0,2048,2048
261.905,-2.77556e-17,0,2048,2048
261.951,-2.77556e-17,0,2048,2048
262.004,-2.77556e-17,0,2048,2048
262.051,-2.77556e-17,0,2048,2048
262.104,-2.77556e-17,0,2048,2048
262.151,-2.77556e-17,0,2048,2048
262.203,-2.77556e-17,0,2048,2048
262.25,-2.77556e-17,0,2048,2048
262.303,-2.77556e-17,0,2048,2048
262.356,-5.55112e-17,0,2048,2048
262.402,-2.77556e-17,0,2048,2048
262.455,0,0,2048,2048
262.502,0,0,2048,2048
262.555,0,0,2048,2048
262.602,0,0,2048,2048
262.654,0,0,2048,2048
262.701,2.77556e-17,0,2048,2048
262.754,5.55112e-17,0,2048,2048
262.801,5.55112e-17,0,2048,2048
262.854,5.55112e-17,0,2048,2048
262.9,5.55112e-17,0,2048,2048
262.953,5.55112e-17,0,2048,2048
263,5.55112e-17,0,2048,2048
263.053,5.55112e-17,0,2048,2048
263.105,5.55112e-17,0,2048,2048
263.152,5.55112e-17,0,2048,2048
263.205,5.55112e-17,0,2048,2048
263.252,0,0,2048,2048
263.305,0,0,2048,2048
263.352,2.77556e-17,0,2048,2048
263.404,5.55112e-17,0,2048,2048
263.451,5.55112e-17,0,2048,2048
263.504,5.55112e-17,0,2048,2048
263.551,2.77556e-17,0,2048,2048
263.603,0,0,2048,2048
263.65,0,0,2048,2048
263.703,0,0,2048,2048
263.756,0,0,2048,2048
263.803,2.77556e-17,0,2048,2048
263.855,0,0,2048,2048
263.902,2.77556e-17,0,2048,2048
263.955,-2.77556e-17,0,2048,2048
264.002,-2.77556e-17,0,2048,2048
264.055,-2.77556e-17,0,2048,2048
264.101,-2.77556e-17,0,2048,2048
264.154,-2.77556e-17,0,2048,2048
264.201,-2.77556e-17,0,2048,2048
264.254,-2.77556e-17,0,2048,2048
264.301,0,0,2048,2048
264.353,2.77556e-17,0,2048,2048
264.4,2.77556e-17,0,2048,2048
264.453,0,0,2048,2048
264.506,0,0,2048,2048
264.553,0,0,2048,2048
264.605,2.77556e-17,0,2048,2048
264.652,2.77556e-17,0,2048,2048
264.705,-2.77556e-17,0,2048,2048
264.752,-2.77556e-17,0,2048,2048
264.804,-2.77556e-17,0,2048,2048
264.851,-2.77556e-17,0,2048,2048
264.904,-2.77556e-17,0,2048,2048
264.951,-2.77556e-17,0,2048,2048
265.004,-2.77556e-17,0,2048,2048
265.051,-2.77556e-17,0,2048,2048
265.103,-2.77556e-17,0,2048,2048
265.15,-2.77556e-17,0,2048,2048
265.203,-2.77556e-17,0,2048,2048
265.256,-2.77556e-17,0,2048,2048
265.302,0,0,2048,2048
265.355,2.77556e-17,0,2048,2048
265.402,2.77556e-17,0,2048,2048
265.455,2.77556e-17,0,2048,2048
265.502,2.77556e-17,0,2048,2048
265.554,2.77556e-17,0,2048,2048
265.601,2.77556e-17,0,2048,2048
265.654,0,0,2048,2048
265.701,-2.77556e-17,0,2048,2048
265.754,-5.55112e-17,0,2048,2048
265.8,-5.55112e-17,0,2048,2048
265.853,-5.55112e-17,0,2048,2048
265.9,-2.77556e-17,0,2048,2048
265.953,-2.77556e-17,0,2048,2048
266.005,-2.77556e-17,0,2048,2048
266.052,-2.77556e-17,0,2048,2048
266.105,-2.77556e-17,0,2048,2048
266.152,0,0,2048,2048
266.205,0,0,2048,2048
266.252,0,0,2048,2048
266.304,-2.77556e-17,0,2048,2048
266.351,-8.32667e-17,0,2048,2048
266.404,-8.32667e-17,0,2048,2048
266.451,-5.55112e-17,0,2048,2048
266.503,-8.32667e-17,0,2048,2048
266.55,-5.55112e-17,0,2048,2048
266.603,-5.55112e-17,0,2048,2048
266.656,-5.55112e-17,0,2048,2048
266.703,-5.55112e-17,0,2048,2048
266.755,-5.55112e-17,0,2048,2048
266.802,-2.77556e-17,0,2048,2048
266.855,-5.55112e-17,0,2048,2048
266.902,-5.55112e-17,0,2048,2048
266.955,-2.77556e-17,0,2048,2048
267.001,-2.77556e-17,0,2048,2048
267.054,-2.77556e-17,0,2048,2048
267.101,-2.77556e-17,0,2048,2048
267.154,-2.77556e-17,0,2048,2048
267.201,-2.77556e-17,0,2048,2048
267.253,-2.77556e-17,0,2048,2048
267.3,-2.77556e-17,0,2048,2048
267.353,-5.55112e-17,0,2048,2048
267.406,-5.55112e-17,0,2048,2048
267.453,-5.55112e-17,0,2048,2048
267.505,-1.11022e-16,0,2048,2048
267.552,-5.55112e-17,0,2048,2048
267.605,-8.32667e-17,0,2048,2048
267.652,-8.32667e-17,0,2048,2048
267.704,-5.55112e-17,0,2048,2048
267.751,-5.55112e-17,0,2048,2048
267.804,-2.77556e-17,0,2048,2048
267.851,-5.55112e-17,0,2048,2048
267.904,-8.32667e-17,0,2048,2048
267.95,-5.55112e-17,0,2048,2048
268.003,-5.55112e-17,0,2048,2048
268.05,-5.55112e-17,0,2048,2048
268.103,-5.55112e-17,0,2048,2048
268.156,-5.55112e-17,0,2048,2048
268.202,-2.77556e-17,0,2048,2048
268.255,-2.77556e-17,0,2048,2048
268.302,-2.77556e-17,0,2048,2048
268.355,-2.77556e-17,0,2048,2048
268.402,-2.77556e-17,0,2048,2048
268.454,-2.77556e-17,0,2048,2048
268.501,-2.77556e-17,0,2048,2048
268.554,-2.77556e-17,0,2048,2048
268.601,-2.77556e-17,0,2048,2048
268.654,-2.77556e-17,0,2048,2048
268.7,-2.77556e-17,0,2048,2048
268.753,-2.77556e-17,0,2048,2048
268.806,-2.77556e-17,0,2048,2048
268.853,-2.77556e-17,0,2048,2048
268.905,-2.77556e-17,0,2048,2048
268.952,2.77556e-17,0,2048,2048
269.005,2.77556e-17,0,2048,2048
269.052,2.77556e-17,0,2048,2048
269.105,2.77556e-17,0,2048,2048
269.151,2.77556e-17,0,2048,2048
269.204,0,0,2048,2048
269.251,2.77556e-17,0,2048,2048
269.304,2.77556e-17,0,2048,2048
269.351,2.77556e-17,0,2048,2048
269.403,5.55112e-17,0,2048,2048
269.45,5.55112e-17,0,2048,2048
269.503,8.32667e-17,0,2048,2048
269.556,8.32667e-17,0,2048,2048
269.603,8.32667e-17,0,2048,2048
269.655,1.11022e-16,0,2048,2048
269.702,1.66533e-16,0,2048,2048
269.755,1.38778e-16,0,2048,2048
269.802,1.38778e-16,0,2048,2048
269.855,1.38778e-16,0,2048,2048
269.901,1.38778e-16,0,2048,2048
269.954,1.38778e-16,0,2048,2048
270.001,1.38778e-16,0,2048,2048
270.054,1.11022e-16,0,2048,2048
270.101,1.11022e-16,0,2048,2048
270.153,1.11022e-16,0,2048,2048
270.2,1.38778e-16,0,2048,2048
270.253,1.38778e-16,0,2048,2048
270.306,1.38778e-16,0,2048,2048
270.352,1.38778e-16,0,2048,2048
270.402,1.38778e-16,0,2050,2050
270.452,1.38778e-16,0,2070,2070
270.502,1.38778e-16,0,2098,2098
270.551,1.38778e-16,0,2126,2126
270.601,1.38778e-16,0,2146,2146
270.651,1.38778e-16,0,2190,2190
270.701,1.38778e-16,0,2242,2242
270.75,4.71845e-16,0,2310,2310
270.801,1.27676e-15,0,2402,2402
270.851,-2.19269e-15,0,2546,2546
270.901,-9.09273e-14,0,2686,2686
270.951,-7.48207e-13,0,2834,2834
271,-3.68705e-12,0,2986,2986
271.05,-1.28273e-11,0,3126,3126
271.101,-3.46564e-11,0,3278,3278
271.151,-7.15751e-11,0,3426,3426
271.201,-1.19582e-10,0,3582,3582
271.251,-1.63754e-10,0,3726,3726
271.301,-1.84023e-10,0,3866,3866
271.35,-1.66839e-10,0,4034,4034
271.4,-1.14913e-10,0,4122,4122
271.45,-4.69836e-11,0,4186,4186
271.501,1.44958e-11,0,4176,4176
271.551,5.05923e-11,0,4176,4176
271.601,6.40261e-11,0,4180,4180
271.651,6.67335e-11,0,4172,4172
271.7,7.10067e-11,0,4184,4184
271.75,8.10076e-11,0,4178,4178
271.8,9.23991e-11,0,4214,4214
271.851,9.87692e-11,0,4250,4250
271.901,9.7837e-11,0,4298,4298
271.951,9.40299e-11,0,4378,4378
272.001,9.32695e-11,0,4498,4498
272.051,9.80286e-11,0,4646,4646
272.1,1.05576e-10,0,4794,4794
272.15,1.10751e-10,0,4954,4954
272.201,1.10438e-10,0,5082,5082
272.251,1.06336e-10,0,5230,5230
272.301,1.03255e-10,0,5366,5366
272.351,1.04824e-10,0,5522,5522
272.401,1.10369e-10,0,5646,5646
272.45,1.15444e-10,0,5810,5810
272.5,1.15877e-10,0,5954,5954
272.551,1.11792e-10,0,6114,6114
272.601,1.08672e-10,0,6246,6246
272.651,1.12808e-10,0,6430,6430
272.701,1.29829e-10,0,6514,6514
272.751,1.72026e-10,0,6558,6558
272.8,2.77127e-10,0,6622,6622
272.85,5.29633e-10,0,6674,6674
272.9,1.06772e-09,0,6686,6686
272.951,2.0996e-09,0,6730,6730
273.001,3.72314e-09,0,6766,6766
273.051,6.0386e-09,0,6782,6782
273.101,9.01602e-09,0,6806,6806
273.15,1.25261e-08,0,6800,6800
273.2,1.63924e-08,0,6796,6796
273.25,2.04668e-08,0,6804,6804
273.301,2.48213e-08,0,6776,6776
273.351,2.92769e-08,0,6804,6804
273.401,3.41262e-08,0,6780,6780
273.451,3.95853e-08,0,6736,6736
273.501,4.58497e-08,0,6740,6740
273.55,5.30456e-08,0,6760,6760
273.6,6.12095e-08,0,6708,6708
273.651,7.05541e-08,0,6692,6692
273.701,8.21654e-08,0,6736,6736
273.751,1.01819e-07,0,6692,6692
273.801,1.2282e-07,0,6708,6708
273.851,1.52234e-07,0,6688,6688
273.9,1.85163e-07,0,6672,6672
273.95,2.21371e-07,0,6672,6672
274.001,2.61112e-07,0,6664,6664
274.051,3.01001e-07,0,6676,6676
274.101,3.5047e-07,0,6632,6632
274.151,4.17566e-07,0,6648,6648
274.201,4.7528e-07,0,6656,6656
274.25,5.32538e-07,0,6628,6628
274.3,5.91804e-07,0,6620,6620
274.35,6.50864e-07,0,6640,6640
274.4,7.06031e-07,0,6628,6628
274.45,7.53983e-07,0,6644,6644
274.5,7.92706e-07,0,6708,6708
274.551,8.21755e-07,0,6740,6740
274.6,8.41272e-07,0,6780,6780
274.651,8.47668e-07,0,6808,6808
274.7,8.50086e-07,0,6808,6808
274.751,8.4928e-07,0,6804,6804
274.801,8.46551e-07,0,6776,6776
274.851,8.41772e-07,0,6784,6784
274.901,8.34949e-07,0,6784,6784
274.95,8.26457e-07,0,6768,6768
275,8.13522e-07,0,6760,6760
275.051,7.82903e-07,0,6744,6744
275.1,7.49925e-07,0,6708,6708
275.151,7.12535e-07,0,6716,6716
275.201,6.73966e-07,0,6680,6680
275.25,6.34353e-07,0,6696,6696
275.3,5.62778e-07,0,6668,6668
275.35,5.0641e-07,0,6648,6648
275.401,4.57875e-07,0,6632,6632
275.451,4.13564e-07,0,6580,6580
275.502,3.72922e-07,0,6588,6588
275.551,3.36467e-07,0,6612,6612
275.6,3.0232e-07,0,6580,6580
275.651,2.68894e-07,0,6580,6580
275.701,2.38069e-07,0,6528,6528
275.751,2.08983e-07,0,6540,6540
275.801,1.8239e-07,0,6512,6512
275.851,1.59191e-07,0,6500,6500
275.901,1.40123e-07,0,6504,6504
275.952,1.27202e-07,0,6448,6448
276.001,1.15515e-07,0,6428,6428
276.051,1.03836e-07,0,6440,6440
276.101,9.2418e-08,0,6428,6428
276.15,8.09318e-08,0,6424,6424
276.2,6.96954e-08,0,6408,6408
276.25,6.21182e-08,0,6400,6400
276.3,5.61227e-08,0,6360,6360
276.35,5.06453e-08,0,6376,6376
276.401,4.56234e-08,0,6328,6328
276.452,4.07573e-08,0,6364,6364
276.501,3.71891e-08,0,6304,6304
276.552,3.35645e-08,0,6320,6320
276.601,3.00438e-08,0,6316,6316
276.651,2.69869e-08,0,6304,6304
276.701,2.48396e-08,0,6292,6292
276.751,2.37311e-08,0,6268,6268
276.801,2.29765e-08,0,6280,6280
276.851,2.25298e-08,0,6252,6252
276.9,2.2289e-08,0,6244,6244
276.951,2.21589e-08,0,6256,6256
277,2.20893e-08,0,6208,6208
277.051,2.20311e-08,0,6224,6224
277.101,2.19486e-08,0,6228,6228
277.151,2.18273e-08,0,6192,6192
277.201,2.16739e-08,0,6232,6232
277.251,2.15063e-08,0,6196,6196
277.301,2.13387e-08,0,6164,6164
277.351,2.1174e-08,0,6188,6188
277.4,2.10189e-08,0,6168,6168
277.451,2.08636e-08,0,6160,6160
277.501,2.07174e-08,0,6184,6184
277.55,2.05642e-08,0,6160,6160
277.602,2.03869e-08,0,6148,6148
277.652,2.01923e-08,0,6140,6140
277.702,1.99674e-08,0,6100,6100
277.752,1.97064e-08,0,6116,6116
277.8,1.94199e-08,0,6124,6124
277.85,1.90871e-08,0,6068,6068
277.901,1.8719e-08,0,6084,6084
277.951,1.8317e-08,0,6096,6096
278.002,1.78846e-08,0,6028,6028
278.051,1.74436e-08,0,6060,6060
278.101,1.69652e-08,0,6088,6088
278.15,1.64887e-08,0,6044,6044
278.201,1.59819e-08,0,6056,6056
278.252,1.5468e-08,0,6020,6020
278.301,1.4971e-08,0,6028,6028
278.352,1.44548e-08,0,6024,6024
278.401,1.3959e-08,0,6000,6000
278.45,1.34668e-08,0,6024,6024
278.502,1.29631e-08,0,5984,5984
278.551,1.2489e-08,0,5992,5992
278.601,1.20286e-08,0,5980,5980
278.65,1.15847e-08,0,5932,5932
278.702,1.11447e-08,0,5986,5986
278.751,1.0745e-08,0,5934,5934
278.801,1.03721e-08,0,5902,5902
278.851,1.00278e-08,0,5894,5894
278.901,9.71337e-09,0,5834,5834
278.951,9.42896e-09,0,5978,5978
279.001,9.17422e-09,0,6054,6054
279.051,8.94786e-09,0,6054,6054
279.101,8.74757e-09,0,6018,6018
279.152,8.57063e-09,0,6042,6042
279.2,8.4206e-09,0,5974,5974
279.251,8.28408e-09,0,5894,5894
279.301,8.16641e-09,0,5794,5794
279.352,8.06598e-09,0,5822,5822
279.4,7.98366e-09,0,5862,5862
279.451,7.9108e-09,0,5894,5894
279.5,7.85147e-09,0,5846,5846
279.551,7.80007e-09,0,5686,5686
279.602,7.75867e-09,0,5578,5578
279.651,7.72698e-09,0,5370,5370
279.702,7.70134e-09,0,5278,5278
279.751,7.68273e-09,0,5202,5202
279.801,7.66929e-09,0,5174,5174
279.851,7.66043e-09,0,5086,5086
279.901,7.65578e-09,0,4978,4978
279.951,7.65484e-09,0,4786,4786
280.001,7.65709e-09,0,4946,4946
280.052,7.66229e-09,0,4530,4530
280.101,7.66965e-09,0,4232,4232
280.15,7.67894e-09,0,3474,3474
280.201,7.69031e-09,0,2742,2742
280.251,7.70276e-09,0,2962,2962
280.301,7.71623e-09,0,2922,2922
280.35,7.73034e-09,0,3086,3086
280.4,7.74525e-09,0,3578,3578
280.451,7.76111e-09,0,3638,3638
280.501,7.77672e-09,0,3606,3606
280.55,7.79269e-09,0,3990,3990
280.6,7.80895e-09,0,4134,4134
280.651,7.82574e-09,0,4214,4214
280.701,7.84217e-09,0,4262,4262
280.751,7.85863e-09,0,4358,4358
280.801,7.87546e-09,0,4462,4462
280.851,7.89185e-09,0,4518,4518
280.901,7.90807e-09,0,4550,4550
280.951,7.92406e-09,0,4582,4582
281,7.93979e-09,0,4590,4590
281.052,7.95584e-09,0,4610,4610
281.101,7.971e-09,0,4706,4706
281.151,7.98593e-09,0,4806,4806
281.2,8.00069e-09,0,4870,4870
281.251,8.01596e-09,0,4978,4978
281.301,8.03065e-09,0,5050,5050
281.352,8.04611e-09,0,5158,5158
281.401,8.06137e-09,0,5282,5282
281.452,8.07798e-09,0,5410,5410
281.501,8.09514e-09,0,5498,5498
281.551,8.11484e-09,0,5554,5554
281.6,8.13634e-09,0,5494,5494
281.651,8.16232e-09,0,5474,5474
281.701,8.19317e-09,0,5478,5478
281.752,8.23026e-09,0,5474,5474
281.8,8.27323e-09,0,5438,5438
281.851,8.32712e-09,0,5416,5416
281.901,8.39218e-09,0,5428,5428
281.951,8.47033e-09,0,5436,5436
282.001,8.56368e-09,0,5468,5468
282.051,8.67445e-09,0,5500,5500
282.101,8.80504e-09,0,5484,5484
282.151,8.95814e-09,0,5532,5532
282.201,9.13686e-09,0,5548,5548
282.251,9.34499e-09,0,5588,5588
282.301,9.5873e-09,0,5604,5604
282.35,9.8697e-09,0,5620,5620
282.402,1.02132e-08,0,5624,5624
282.451,1.06011e-08,0,5648,5648
282.501,1.10551e-08,0,5644,5644
282.552,1.16081e-08,0,5652,5652
282.601,1.22315e-08,0,5664,5664
282.65,1.29569e-08,0,5688,5688
282.701,1.38324e-08,0,5668,5668
282.75,1.4808e-08,0,5688,5688
282.801,1.59742e-08,0,5692,5692
282.85,1.72596e-08,0,5692,5692
282.901,1.87777e-08,0,5696,5696
282.952,2.04955e-08,0,5700,5700
283,2.23484e-08,0,5736,5736
283.051,2.44857e-08,0,5684,5684
283.101,2.68436e-08,0,5704,5704
283.152,2.94229e-08,0,5728,5728
283.2,3.21137e-08,0,5688,5688
283.25,3.512e-08,0,5700,5700
283.301,3.83382e-08,0,5716,5716
283.351,4.17626e-08,0,5724,5724
283.401,4.53824e-08,0,5736,5736
283.45,4.91941e-08,0,5724,5724
283.502,5.33472e-08,0,5696,5696
283.551,5.75436e-08,0,5752,5752
283.602,6.20937e-08,0,5740,5740
283.651,6.6672e-08,0,5724,5724
283.701,7.16193e-08,0,5744,5744
283.752,7.67699e-08,0,5752,5752
283.802,8.21255e-08,0,5740,5740
283.852,8.76881e-08,0,5760,5760
283.901,9.3461e-08,0,5728,5728
283.951,9.94501e-08,0,5736,5736
284,1.05663e-07,0,5764,5764
284.051,1.12343e-07,0,5808,5808
284.1,1.19041e-07,0,5768,5768
284.151,1.26242e-07,0,5788,5788
284.202,1.33718e-07,0,5800,5800
284.25,1.41199e-07,0,5792,5792
284.3,1.49223e-07,0,5816,5816
284.352,1.5783e-07,0,5828,5828
284.401,1.66476e-07,0,5812,5812
284.451,1.75498e-07,0,5816,5816
284.5,1.85172e-07,0,5792,5792
284.551,2.05741e-07,0,5832,5832
284.6,2.24725e-07,0,5840,5840
284.65,2.45492e-07,0,5836,5836
284.701,2.73068e-07,0,5836,5836
284.751,3.02131e-07,0,5856,5856
284.801,3.32699e-07,0,5840,5840
284.851,3.64897e-07,0,5876,5876
284.9,3.98585e-07,0,5864,5864
284.951,4.34693e-07,0,5880,5880
285.001,4.70734e-07,0,5860,5860
285.051,5.09199e-07,0,5888,5888
285.1,5.4798e-07,0,5892,5892
285.151,6.11556e-07,0,5872,5872
285.201,6.66665e-07,0,5880,5880
285.251,7.08769e-07,0,5912,5912
285.301,7.42409e-07,0,5924,5924
285.35,7.67919e-07,0,5944,5944
285.402,7.85735e-07,0,5932,5932
285.451,7.88321e-07,0,5936,5936
285.5,7.87086e-07,0,5936,5936
285.551,7.83847e-07,0,5944,5944
285.601,7.78594e-07,0,5964,5964
285.651,7.71454e-07,0,5964,5964
285.7,7.6199e-07,0,5992,5992
285.752,7.41994e-07,0,5960,5960
285.801,7.198e-07,0,6016,6016
285.851,6.92052e-07,0,5992,5992
285.9,6.62473e-07,0,6000,6000
285.951,6.30085e-07,0,6004,6004
286,5.96867e-07,0,6028,6028
286.051,5.60753e-07,0,6044,6044
286.101,5.22704e-07,0,6004,6004
286.151,4.66543e-07,0,6048,6048
286.201,4.0519e-07,0,6056,6056
286.251,3.50806e-07,0,6040,6040
286.301,2.99809e-07,0,6060,6060
286.351,2.51742e-07,0,6044,6044
286.4,2.07333e-07,0,6076,6076
286.451,1.65958e-07,0,6076,6076
286.501,1.28945e-07,0,6092,6092
286.55,9.68562e-08,0,6084,6084
286.601,6.73733e-08,0,6116,6116
286.651,4.1208e-08,0,6072,6072
286.701,1.81157e-08,0,6112,6112
286.75,-2.32545e-09,0,6120,6120
286.8,-2.07267e-08,0,6116,6116
286.85,-3.3505e-08,0,6116,6116
286.901,-4.55124e-08,0,6148,6148
286.951,-5.63361e-08,0,6096,6096
287.001,-6.30908e-08,0,6116,6116
287.051,-6.82499e-08,0,6116,6116
287.101,-7.2613e-08,0,6128,6128
287.15,-7.45609e-08,0,6128,6128
287.2,-7.55763e-08,0,6112,6112
287.251,-7.62149e-08,0,6152,6152
287.301,-7.63425e-08,0,6100,6100
287.351,-7.60412e-08,0,6108,6108
287.401,-7.5313e-08,0,6132,6132
287.451,-7.41753e-08,0,6132,6132
287.5,-7.2673e-08,0,6164,6164
287.55,-7.08303e-08,0,6112,6112
287.601,-6.86261e-08,0,6156,6156
287.651,-6.62223e-08,0,6116,6116
287.701,-6.36116e-08,0,6084,6084
287.751,-6.0844e-08,0,6090,6090
287.801,-5.79573e-08,0,6042,6042
287.85,-5.49932e-08,0,6038,6038
287.9,-5.19952e-08,0,5998,5998
287.951,-4.89174e-08,0,5926,5926
288.001,-4.59682e-08,0,5874,5874
288.051,-4.30849e-08,0,5814,5814
288.101,-4.02944e-08,0,5786,5786
288.151,-3.7618e-08,0,5702,5702
288.2,-3.50683e-08,0,5638,5638
288.25,-3.26523e-08,0,5614,5614
288.3,-3.03746e-08,0,5530,5530
288.351,-2.81789e-08,0,5470,5470
288.401,-2.61931e-08,0,5426,5426
288.451,-2.43527e-08,0,5278,5278
288.501,-2.26565e-08,0,5086,5086
288.55,-2.11023e-08,0,4962,4962
288.6,-1.96872e-08,0,4846,4846
288.65,-1.84055e-08,0,4832,4832
288.701,-1.72164e-08,0,4796,4796
288.751,-1.61783e-08,0,4788,4788
288.801,-1.52463e-08,0,4800,4800
288.851,-1.44117e-08,0,4804,4804
288.901,-1.36661e-08,0,4792,4792
288.95,-1.30021e-08,0,4786,4786
289,-1.24134e-08,0,4750,4750
289.051,-1.18803e-08,0,4718,4718
289.101,-1.14278e-08,0,4646,4646
289.151,-1.10342e-08,0,4606,4606
289.201,-1.0695e-08,0,4550,4550
289.251,-1.04073e-08,0,4502,4502
289.3,-1.01694e-08,0,4426,4426
289.35,-9.9793e-09,0,4374,4374
289.401,-9.83021e-09,0,4302,4302
289.451,-9.7262e-09,0,4166,4166
289.501,-9.65749e-09,0,4006,4006
289.551,-9.61929e-09,0,3850,3850
289.601,-9.60695e-09,0,3686,3686
289.65,-9.6159e-09,0,3546,3546
289.7,-9.64193e-09,0,3382,3382
289.75,-9.68136e-09,0,3230,3230
289.801,-9.73263e-09,0,3050,3050
289.851,-9.78992e-09,0,2914,2914
289.901,-9.85205e-09,0,2762,2762
289.951,-9.91682e-09,0,2602,2602
290.001,-9.98264e-09,0,2474,2474
290.05,-1.00474e-08,0,2374,2374
290.1,-1.01103e-08,0,2270,2270
290.152,-1.0173e-08,0,2182,2182
290.201,-1.0229e-08,0,2130,2130
290.251,-1.02822e-08,0,2098,2098
290.3,-1.03311e-08,0,2054,2054
290.35,-1.03766e-08,0,2048,2048
290.403,-1.04205e-08,0,2048,2048
290.456,-1.04607e-08,0,2048,2048
290.502,-1.04939e-08,0,2048,2048
290.555,-1.05291e-08,0,2048,2048
290.602,-1.05588e-08,0,2048,2048
290.655,-1.0591e-08,0,2048,2048
290.702,-1.06188e-08,0,2048,2048
290.754,-1.06497e-08,0,2048,2048
290.801,-1.06765e-08,0,2048,2048
290.854,-1.07057e-08,0,2048,2048
290.901,-1.07303e-08,0,2048,2048
290.954,-1.07564e-08,0,2048,2048
291,-1.07789e-08,0,2048,2048
291.053,-1.08049e-08,0,2048,2048
291.1,-1.08305e-08,0,2048,2048
291.153,-1.08639e-08,0,2048,2048
291.205,-1.09033e-08,0,2048,2048
291.252,-1.09439e-08,0,2048,2048
291.305,-1.09962e-08,0,2048,2048
291.352,-1.10494e-08,0,2048,2048
291.405,-1.11193e-08,0,2048,2048
291.452,-1.11932e-08,0,2048,2048
291.504,-1.12942e-08,0,2048,2048
291.551,-1.14029e-08,0,2048,2048
291.604,-1.15482e-08,0,2048,2048
291.651,-1.16967e-08,0,2048,2048
291.703,-1.18819e-08,0,2048,2048
291.75,-1.20589e-08,0,2048,2048
291.803,-1.22682e-08,0,2048,2048
291.856,-1.2486e-08,0,2048,2048
291.903,-1.26862e-08,0,2048,2048
291.955,-1.29193e-08,0,2048,2048
292.002,-1.31351e-08,0,2048,2048
292.055,-1.33899e-08,0,2048,2048
292.102,-1.36293e-08,0,2048,2048
292.155,-1.39148e-08,0,2048,2048
292.201,-1.4183e-08,0,2048,2048
292.254,-1.45003e-08,0,2048,2048
292.301,-1.47951e-08,0,2048,2048
292.354,-1.514e-08,0,2048,2048
292.401,-1.54572e-08,0,2048,2048
292.453,-1.58238e-08,0,2048,2048
292.5,-1.61555e-08,0,2048,2048
292.553,-1.65312e-08,0,2048,2048
292.606,-1.69068e-08,0,2048,2048
292.653,-1.72402e-08,0,2048,2048
292.705,-1.7616e-08,0,2048,2048
292.752,-1.7952e-08,0,2048,2048
292.805,-1.83323e-08,0,2048,2048
292.852,-1.86714e-08,0,2048,2048
292.904,-1.90513e-08,0,2048,2048
292.951,-1.93849e-08,0,2048,2048
293.004,-1.97524e-08,0,2048,2048
293.051,-2.00697e-08,0,2048,2048
293.104,-2.04133e-08,0,2048,2048
293.15,-2.07044e-08,0,2048,2048
293.203,-2.10133e-08,0,2048,2048
293.25,-2.12692e-08,0,2048,2048
293.303,-2.15339e-08,0,2048,2048
293.356,-2.17723e-08,0,2048,2048
293.402,-2.19608e-08,0,2048,2048
293.455,-2.21454e-08,0,2048,2048
293.502,-2.22842e-08,0,2048,2048
293.555,-2.24118e-08,0,2048,2048
293.602,-2.25002e-08,0,2048,2048
293.654,-2.25725e-08,0,2048,2048
293.701,-2.26136e-08,0,2048,2048
293.754,-2.26349e-08,0,2048,2048
293.801,-2.26328e-08,0,2048,2048
293.854,-2.26081e-08,0,2048,2048
293.9,-2.2568e-08,0,2048,2048
293.953,-2.25041e-08,0,2048,2048
294.006,-2.24226e-08,0,2048,2048
294.053,-2.23371e-08,0,2048,2048
294.105,-2.22284e-08,0,2048,2048
294.152,-2.21222e-08,0,2048,2048
294.205,-2.1994e-08,0,2048,2048
294.252,-2.18736e-08,0,2048,2048
294.305,-2.17325e-08,0,2048,2048
294.351,-2.16036e-08,0,2048,2048
294.404,-2.14557e-08,0,2048,2048
294.451,-2.13228e-08,0,2048,2048
294.504,-2.11728e-08,0,2048,2048
294.551,-2.10397e-08,0,2048,2048
294.603,-2.08912e-08,0,2048,2048
294.65,-2.07607e-08,0,2048,2048
294.703,-2.06164e-08,0,2048,2048
294.756,-2.0475e-08,0,2048,2048
294.803,-2.03523e-08,0,2048,2048
294.855,-2.02177e-08,0,2048,2048
294.902,-2.01015e-08,0,2048,2048
294.955,-1.99746e-08,0,2048,2048
295.002,-1.98653e-08,0,2048,2048
295.055,-1.97465e-08,0,2048,2048
295.101,-1.96445e-08,0,2048,2048
295.154,-1.95337e-08,0,2048,2048
295.201,-1.94387e-08,0,2048,2048
295.254,-1.93357e-08,0,2048,2048
295.301,-1.92474e-08,0,2048,2048
295.353,-1.91516e-08,0,2048,2048
295.4,-1.90695e-08,0,2048,2048
295.453,-1.89802e-08,0,2048,2048
295.506,-1.8894e-08,0,2048,2048
295.552,-1.88198e-08,0,2048,2048
295.605,-1.87388e-08,0,2048,2048
295.652,-1.86688e-08,0,2048,2048
295.705,-1.85921e-08,0,2048,2048
295.752,-1.85255e-08,0,2048,2048
295.804,-1.8452e-08,0,2048,2048
295.851,-1.83879e-08,0,2048,2048
295.904,-1.83168e-08,0,2048,2048
295.951,-1.82544e-08,0,2048,2048
296.004,-1.81848e-08,0,2048,2048
296.05,-1.81234e-08,0,2048,2048
296.103,-1.80545e-08,0,2048,2048
296.15,-1.79934e-08,0,2048,2048
296.203,-1.79244e-08,0,2048,2048
296.255,-1.78552e-08,0,2048,2048
296.302,-1.77932e-08,0,2048,2048
296.355,-1.77228e-08,0,2048,2048
296.402,-1.76595e-08,0,2048,2048
296.455,-1.75873e-08,0,2048,2048
296.502,-1.7522e-08,0,2048,2048
296.554,-1.74473e-08,0,2048,2048
296.601,-1.73795e-08,0,2048,2048
296.654,-1.73016e-08,0,2048,2048
296.701,-1.72306e-08,0,2048,2048
296.753,-1.71485e-08,0,2048,2048
296.8,-1.70736e-08,0,2048,2048
296.853,-1.69867e-08,0,2048,2048
296.906,-1.68968e-08,0,2048,2048
296.953,-1.68142e-08,0,2048,2048
297.005,-1.6718e-08,0,2048,2048
297.052,-1.66294e-08,0,2048,2048
297.105,-1.6526e-08,0,2048,2048
297.152,-1.64306e-08,0,2048,2048
297.205,-1.63189e-08,0,2048,2048
297.251,-1.62158e-08,0,2048,2048
297.304,-1.60951e-08,0,2048,2048
297.351,-1.59836e-08,0,2048,2048
297.404,-1.5853e-08,0,2048,2048
297.451,-1.57324e-08,0,2048,2048
297.503,-1.55913e-08,0,2048,2048
297.55,-1.5461e-08,0,2048,2048
297.603,-1.53087e-08,0,2048,2048
297.656,-1.51503e-08,0,2048,2048
297.703,-1.50043e-08,0,2048,2048
297.755,-1.4834e-08,0,2048,2048
297.802,-1.46771e-08,0,2048,2048
297.855,-1.44944e-08,0,2048,2048
297.902,-1.43263e-08,0,2048,2048
297.954,-1.41306e-08,0,2048,2048
298.001,-1.39507e-08,0,2048,2048
298.054,-1.37415e-08,0,2048,2048
298.101,-1.35491e-08,0,2048,2048
298.154,-1.33252e-08,0,2048,2048
298.201,-1.31192e-08,0,2048,2048
298.253,-1.28791e-08,0,2048,2048
298.3,-1.26578e-08,0,2048,2048
298.353,-1.23992e-08,0,2048,2048
298.406,-1.21297e-08,0,2048,2048
298.452,-1.18801e-08,0,2048,2048
298.505,-1.15872e-08,0,2048,2048
298.552,-1.13151e-08,0,2048,2048
298.605,-1.09947e-08,0,2048,2048
298.652,-1.06963e-08,0,2048,2048
298.704,-1.03442e-08,0,2048,2048
298.751,-1.00158e-08,0,2048,2048
298.804,-9.62809e-09,0,2048,2048
298.851,-9.2666e-09,0,2048,2048
298.904,-8.84042e-09,0,2048,2048
298.95,-8.44405e-09,0,2048,2048
299.003,-7.97842e-09,0,2048,2048
299.05,-7.54736e-09,0,2048,2048
299.103,-7.04387e-09,0,2048,2048
299.155,-6.52201e-09,0,2048,2048
299.202,-6.04412e-09,0,2048,2048
299.255,-5.49271e-09,0,2048,2048
299.302,-4.99232e-09,0,2048,2048
299.355,-4.4205e-09,0,2048,2048
299.402,-3.90682e-09,0,2048,2048
299.454,-3.32599e-09,0,2048,2048
299.501,-2.80987e-09,0,2048,2048
299.554,-2.23279e-09,0,2048,2048
299.601,-1.72588e-09,0,2048,2048
299.653,-1.16576e-09,0,2048,2048
299.7,-6.7972e-10,0,2048,2048
299.753,-1.49393e-10,0,2048,2048
299.806,3.6032e-10,0,2048,2048
299.853,7.93602e-10,0,2048,2048
299.905,1.25621e-09,0,2048,2048
299.952,1.64339e-09,0,2048,2048
300.005,2.04992e-09,0,2048,2048
300.052,2.38405e-09,0,2048,2048
300.105,2.728e-09,0,2048,2048
300.151,3.00455e-09,0,2048,2048
300.204,3.28232e-09,0,2048,2048
300.251,3.49948e-09,0,2048,2048
300.304,3.71061e-09,0,2048,2048
300.351,3.86939e-09,0,2048,2048
300.403,4.01654e-09,0,2048,2048
300.45,4.12055e-09,0,2048,2048
300.503,4.20908e-09,0,2048,2048
300.556,4.26949e-09,0,2048,2048
300.603,4.30144e-09,0,2048,2048
300.655,4.31515e-09,0,2048,2048
300.702,4.30953e-09,0,2048,2048
300.755,4.28554e-09,0,2048,2048
300.802,4.25048e-09,0,2048,2048
300.854,4.19785e-09,0,2048,2048
300.901,4.14121e-09,0,2048,2048
300.954,4.06847e-09,0,2048,2048
301.001,3.99746e-09,0,2048,2048
301.054,3.91222e-09,0,2048,2048
301.1,3.83311e-09,0,2048,2048
301.153,3.74185e-09,0,2048,2048
301.2,3.65988e-09,0,2048,2048
301.253,3.56793e-09,0,2048,2048
301.306,3.47737e-09,0,2048,2048
301.352,3.39889e-09,0,2048,2048
301.405,3.31367e-09,0,2048,2048
301.452,3.24123e-09,0,2048,2048
301.505,3.16403e-09,0,2048,2048
301.552,3.09961e-09,0,2048,2048
301.604,3.03218e-09,0,2048,2048
301.651,2.9769e-09,0,2048,2048
301.704,2.92001e-09,0,2048,2048
301.751,2.8741e-09,0,2048,2048
301.804,2.82748e-09,0,2048,2048
301.85,2.79022e-09,0,2048,2048
301.903,2.75252e-09,0,2048,2048
301.956,2.71867e-09,0,2048,2048
302.003,2.69118e-09,0,2048,2048
302.055,2.6624e-09,0,2048,2048
302.102,2.63802e-09,0,2048,2048
302.155,2.61112e-09,0,2048,2048
302.202,2.58701e-09,0,2048,2048
302.255,2.55896e-09,0,2048,2048
302.301,2.5327e-09,0,2048,2048
302.354,2.50123e-09,0,2048,2048
302.401,2.47132e-09,0,2048,2048
302.454,2.43545e-09,0,2048,2048
302.501,2.40167e-09,0,2048,2048
302.553,2.36183e-09,0,2048,2048
302.6,2.32513e-09,0,2048,2048
302.653,2.28293e-09,0,2048,2048
302.706,2.24038e-09,0,2048,2048
302.753,2.20283e-09,0,2048,2048
302.805,2.16152e-09,0,2048,2048
302.852,2.12616e-09,0,2048,2048
302.905,2.08848e-09,0,2048,2048
302.952,2.05731e-09,0,2048,2048
303.005,2.02537e-09,0,2048,2048
303.051,2.00011e-09,0,2048,2048
303.104,1.97562e-09,0,2048,2048
303.151,1.95759e-09,0,2048,2048
303.204,1.94177e-09,0,2048,2048
303.251,1.9318e-09,0,2048,2048
303.303,1.92523e-09,0,2048,2048
303.35,1.92346e-09,0,2048,2048
303.403,1.92586e-09,0,2048,2048
303.456,1.93259e-09,0,2048,2048
303.502,1.94183e-09,0,2048,2048
303.555,1.9554e-09,0,2048,2048
303.602,1.96978e-09,0,2048,2048
303.655,1.98797e-09,0,2048,2048
303.702,2.00542e-09,0,2048,2048
303.754,2.02589e-09,0,2048,2048
303.801,2.04439e-09,0,2048,2048
303.854,2.06507e-09,0,2048,2048
303.901,2.08301e-09,0,2048,2048
303.954,2.10239e-09,0,2048,2048
304,2.11872e-09,0,2048,2048
304.053,2.13593e-09,0,2048,2048
304.1,2.15012e-09,0,2048,2048
304.153,2.16481e-09,0,2048,2048
304.206,2.17816e-09,0,2048,2048
304.252,2.1889e-09,0,2048,2048
304.305,2.19977e-09,0,2048,2048
304.352,2.20839e-09,0,2048,2048
304.405,2.21694e-09,0,2048,2048
304.452,2.22354e-09,0,2048,2048
304.504,2.22988e-09,0,2048,2048
304.551,2.23454e-09,0,2048,2048
304.604,2.2387e-09,0,2048,2048
304.651,2.24144e-09,0,2048,2048
304.703,2.24344e-09,0,2048,2048
304.75,2.24425e-09,0,2048,2048
304.803,2.24408e-09,0,2048,2048
304.856,2.24277e-09,0,2048,2048
304.903,2.24065e-09,0,2048,2048
304.955,2.23721e-09,0,2048,2048
