250,0,0,2048,2048
250.006,0,0,2048,2048
250.053,0,0,2048,2048
250.105,0,0,2048,2048
250.152,0,0,2048,2048
250.205,0,0,2048,2048
250.252,0,0,2048,2048
250.305,0,0,2048,2048
250.352,0,0,2048,2048
250.404,0,0,2048,2048
250.451,0,0,2048,2048
250.504,0,0,2048,2048
250.551,0,0,2048,2048
250.603,0,0,2048,2048
250.65,0,0,2048,2048
250.703,0,0,2048,2048
250.756,0,0,2048,2048
250.803,0,0,2048,2048
250.855,0,0,2048,2048
250.902,0,0,2048,2048
250.955,0,0,2048,2048
251.002,0,0,2048,2048
251.055,0,0,2048,2048
251.101,0,0,2048,2048
251.154,0,0,2048,2048
251.201,0,0,2048,2048
251.254,0,0,2048,2048
251.301,0,0,2048,2048
251.353,0,0,2048,2048
251.4,0,0,2048,2048
251.453,0,0,2048,2048
251.506,0,0,2048,2048
251.553,0,0,2048,2048
251.605,0,0,2048,2048
251.652,0,0,2048,2048
251.705,0,0,2048,2048
251.752,0,0,2048,2048
251.804,0,0,2048,2048
251.851,0,0,2048,2048
251.904,0,0,2048,2048
251.951,0,0,2048,2048
252.004,0,0,2048,2048
252.05,0,0,2048,2048
252.103,0,0,2048,2048
252.15,0,0,2048,2048
252.203,0,0,2048,2048
252.256,0,0,2048,2048
252.302,0,0,2048,2048
252.355,0,0,2048,2048
252.402,0,0,2048,2048
252.455,0,0,2048,2048
252.502,0,0,2048,2048
252.554,0,0,2048,2048
252.601,0,0,2048,2048
252.654,0,0,2048,2048
252.701,0,0,2048,2048
252.754,0,0,2048,2048
252.8,0,0,2048,2048
252.853,0,0,2048,2048
252.906,0,0,2048,2048
252.953,0,0,2048,2048
253.005,0,0,2048,2048
253.052,0,0,2048,2048
253.105,0,0,2048,2048
253.152,0,0,2048,2048
253.205,0,0,2048,2048
253.251,0,0,2048,2048
253.304,0,0,2048,2048
253.351,0,0,2048,2048
253.404,0,0,2048,2048
253.451,0,0,2048,2048
253.503,0,0,2048,2048
253.55,0,0,2048,2048
253.603,0,0,2048,2048
253.656,0,0,2048,2048
253.703,0,0,2048,2048
253.755,0,0,2048,2048
253.802,0,0,2048,2048
253.855,0,0,2048,2048
253.902,0,0,2048,2048
253.954,0,0,2048,2048
254.001,0,0,2048,2048
254.054,0,0,2048,2048
254.101,0,0,2048,2048
254.154,0,0,2048,2048
254.201,0,0,2048,2048
254.253,0,0,2048,2048
254.3,0,0,2048,2048
254.353,0,0,2048,2048
254.406,0,0,2048,2048
254.452,0,0,2048,2048
254.505,0,0,2048,2048
254.552,0,0,2048,2048
254.605,0,0,2048,2048
254.652,0,0,2048,2048
254.704,0,0,2048,2048
254.751,0,0,2048,2048
254.804,0,0,2048,2048
254.851,0,0,2048,2048
254.904,0,0,2048,2048
254.95,0,0,2048,2048
255.003,0,0,2048,2048
255.05,0,0,2048,2048
255.103,0,0,2048,2048
255.155,0,0,2048,2048
255.202,0,0,2048,2048
255.255,0,0,2048,2048
255.302,0,0,2048,2048
255.355,0,0,2048,2048
255.402,0,0,2048,2048
255.454,0,0,2048,2048
255.501,0,0,2048,2048
255.554,0,0,2048,2048
255.601,0,0,2048,2048
255.653,0,0,2048,2048
255.7,0,0,2048,2048
255.753,0,0,2048,2048
255.806,0,0,2048,2048
255.853,0,0,2048,2048
255.905,0,0,2048,2048
255.952,0,0,2048,2048
256.005,2.77556e-17,0,2048,2048
256.052,2.77556e-17,0,2048,2048
256.105,2.77556e-17,0,2048,2048
256.151,2.77556e-17,0,2048,2048
256.204,0,0,2048,2048
256.251,0,0,2048,2048
256.304,0,0,2048,2048
256.351,2.77556e-17,0,2048,2048
256.403,2.77556e-17,0,2048,2048
256.45,2.77556e-17,0,2048,2048
256.503,2.77556e-17,0,2048,2048
256.556,2.77556e-17,0,2048,2048
256.603,2.77556e-17,0,2048,2048
256.655,2.77556e-17,0,2048,2048
256.702,2.77556e-17,0,2048,2048
256.755,2.77556e-17,0,2048,2048
256.802,2.77556e-17,0,2048,2048
256.854,2.77556e-17,0,2048,2048
256.901,2.77556e-17,0,2048,2048
256.954,2.77556e-17,0,2048,2048
257.001,2.77556e-17,0,2048,2048
257.054,2.77556e-17,0,2048,2048
257.101,0,0,2048,2048
257.153,0,0,2048,2048
257.2,0,0,2048,2048
257.253,0,0,2048,2048
257.306,0,0,2048,2048
257.352,0,0,2048,2048
257.405,0,0,2048,2048
257.452,0,0,2048,2048
257.505,0,0,2048,2048
257.552,0,0,2048,2048
257.604,0,0,2048,2048
257.651,-2.77556e-17,0,2048,2048
257.704,-2.77556e-17,0,2048,2048
257.751,-2.77556e-17,0,2048,2048
257.804,-2.77556e-17,0,2048,2048
257.85,-2.77556e-17,0,2048,2048
257.903,-2.77556e-17,0,2048,2048
257.95,-2.77556e-17,0,2048,2048
258.003,-2.77556e-17,0,2048,2048
258.055,-2.77556e-17,0,2048,2048
258.102,-2.77556e-17,0,2048,2048
258.155,0,0,2048,2048
258.202,0,0,2048,2048
258.255,0,0,2048,2048
258.302,0,0,2048,2048
258.354,0,0,2048,2048
258.401,2.77556e-17,0,2048,2048
258.454,2.77556e-17,0,2048,2048
258.501,2.77556e-17,0,2048,2048
258.553,2.77556e-17,0,2048,2048
258.6,2.77556e-17,0,2048,2048
258.653,2.77556e-17,0,2048,2048
258.706,2.77556e-17,0,2048,2048
258.753,2.77556e-17,0,2048,2048
258.805,2.77556e-17,0,2048,2048
258.852,2.77556e-17,0,2048,2048
258.905,2.77556e-17,0,2048,2048
258.952,2.77556e-17,0,2048,2048
259.005,2.77556e-17,0,2048,2048
259.051,2.77556e-17,0,2048,2048
259.104,2.77556e-17,0,2048,2048
259.151,0,0,2048,2048
259.204,0,0,2048,2048
259.251,0,0,2048,2048
259.303,0,0,2048,2048
259.35,2.77556e-17,0,2048,2048
259.403,2.77556e-17,0,2048,2048
259.456,2.77556e-17,0,2048,2048
259.503,2.77556e-17,0,2048,2048
259.555,0,0,2048,2048
259.602,0,0,2048,2048
259.655,0,0,2048,2048
259.702,0,0,2048,2048
259.754,0,0,2048,2048
259.801,0,0,2048,2048
259.854,-2.77556e-17,0,2048,2048
259.901,-2.77556e-17,0,2048,2048
259.954,-5.55112e-17,0,2048,2048
260,-5.55112e-17,0,2048,2048
260.053,-5.55112e-17,0,2048,2048
260.1,-5.55112e-17,0,2048,2048
260.153,-5.55112e-17,0,2048,2048
260.206,-2.77556e-17,0,2048,2048
260.252,-2.77556e-17,0,2048,2048
260.305,-2.77556e-17,0,2048,2048
260.352,-2.77556e-17,0,2048,2048
260.405,-2.77556e-17,0,2048,2048
260.452,-2.77556e-17,0,2048,2048
260.504,-2.77556e-17,0,2048,2048
260.551,-2.77556e-17,0,2048,2048
260.604,-2.77556e-17,0,2048,2048
260.651,-2.77556e-17,0,2048,2048
260.704,-2.77556e-17,0,2048,2048
260.75,-2.77556e-17,0,2048,2048
260.803,-2.77556e-17,0,2048,2048
260.856,-2.77556e-17,0,2048,2048
260.903,-2.77556e-17,0,2048,2048
260.955,-2.77556e-17,0,2048,2048
261.002,-2.77556e-17,0,2048,2048
261.055,-2.77556e-17,0,2048,2048
261.102,0,0,2048,2048
261.155,0,0,2048,2048
261.201,0,0,2048,2048
261.254,2.77556e-17,0,2048,2048
261.301,2.77556e-17,0,2048,2048
261.354,0,0,2048,2048
261.401,0,0,2048,2048
261.453,0,0,2048,2048
261.5,2.77556e-17,0,2048,2048
261.553,2.77556e-17,0,2048,2048
261.606,2.77556e-17,0,2048,2048
261.653,2.77556e-17,0,2048,2048
261.705,0,0,2048,2048
261.752,0,0,2048,2048
261.805,0,0,2048,2048
261.852,2.77556e-17,0,2048,2048
261.905,2.77556e-17,0,2048,2048
261.951,0,0,2048,2048
262.004,0,0,2048,2048
262.051,-5.55112e-17,0,2048,2048
262.104,-5.55112e-17,0,2048,2048
262.151,-1.11022e-16,0,2048,2048
262.203,-8.32667e-17,0,2048,2048
262.25,-8.32667e-17,0,2048,2048
262.303,-8.32667e-17,0,2048,2048
262.356,-8.32667e-17,0,2048,2048
262.402,-8.32667e-17,0,2048,2048
262.455,-8.32667e-17,0,2048,2048
262.502,-5.55112e-17,0,2048,2048
262.555,-5.55112e-17,0,2048,2048
262.602,-5.55112e-17,0,2048,2048
262.654,-5.55112e-17,0,2048,2048
262.701,-5.55112e-17,0,2048,2048
262.754,-8.32667e-17,0,2048,2048
262.801,-8.32667e-17,0,2048,2048
262.854,-8.32667e-17,0,2048,2048
262.9,-8.32667e-17,0,2048,2048
262.953,-8.32667e-17,0,2048,2048
263,-8.32667e-17,0,2048,2048
263.053,-8.32667e-17,0,2048,2048
263.105,-8.32667e-17,0,2048,2048
263.152,-8.32667e-17,0,2048,2048
263.205,-8.32667e-17,0,2048,2048
263.252,-8.32667e-17,0,2048,2048
263.305,-8.32667e-17,0,2048,2048
263.352,-8.32667e-17,0,2048,2048
263.404,-8.32667e-17,0,2048,2048
263.451,-8.32667e-17,0,2048,2048
263.504,-8.32667e-17,0,2048,2048
263.551,-8.32667e-17,0,2048,2048
263.603,-8.32667e-17,0,2048,2048
263.65,-8.32667e-17,0,2048,2048
263.703,-8.32667e-17,0,2048,2048
263.756,-5.55112e-17,0,2048,2048
263.803,-5.55112e-17,0,2048,2048
263.855,-5.55112e-17,0,2048,2048
263.902,-5.55112e-17,0,2048,2048
263.955,-5.55112e-17,0,2048,2048
264.002,-5.55112e-17,0,2048,2048
264.055,-5.55112e-17,0,2048,2048
264.101,-5.55112e-17,0,2048,2048
264.154,-5.55112e-17,0,2048,2048
264.201,-5.55112e-17,0,2048,2048
264.254,-5.55112e-17,0,2048,2048
264.301,-5.55112e-17,0,2048,2048
264.353,-5.55112e-17,0,2048,2048
264.4,-5.55112e-17,0,2048,2048
264.453,-5.55112e-17,0,2048,2048
264.506,-5.55112e-17,0,2048,2048
264.553,-5.55112e-17,0,2048,2048
264.605,-5.55112e-17,0,2048,2048
264.652,-5.55112e-17,0,2048,2048
264.705,-5.55112e-17,0,2048,2048
264.752,-5.55112e-17,0,2048,2048
264.804,-5.55112e-17,0,2048,2048
264.851,-5.55112e-17,0,2048,2048
264.904,-5.55112e-17,0,2048,2048
264.951,-5.55112e-17,0,2048,2048
265.004,0,0,2048,2048
265.051,0,0,2048,2048
265.103,0,0,2048,2048
265.15,0,0,2048,2048
265.203,0,0,2048,2048
265.256,0,0,2048,2048
265.302,0,0,2048,2048
265.355,0,0,2048,2048
265.402,2.77556e-17,0,2048,2048
265.455,2.77556e-17,0,2048,2048
265.502,2.77556e-17,0,2048,2048
265.554,2.77556e-17,0,2048,2048
265.601,2.77556e-17,0,2048,2048
265.654,2.77556e-17,0,2048,2048
265.701,0,0,2048,2048
265.754,0,0,2048,2048
265.8,0,0,2048,2048
265.853,2.77556e-17,0,2048,2048
265.9,2.77556e-17,0,2048,2048
265.953,2.77556e-17,0,2048,2048
266.005,2.77556e-17,0,2048,2048
266.052,5.55112e-17,0,2048,2048
266.105,2.77556e-17,0,2048,2048
266.152,2.77556e-17,0,2048,2048
266.205,5.55112e-17,0,2048,2048
266.252,5.55112e-17,0,2048,2048
266.304,5.55112e-17,0,2048,2048
266.351,5.55112e-17,0,2048,2048
266.404,5.55112e-17,0,2048,2048
266.451,5.55112e-17,0,2048,2048
266.503,5.55112e-17,0,2048,2048
266.55,5.55112e-17,0,2048,2048
266.603,5.55112e-17,0,2048,2048
266.656,5.55112e-17,0,2048,2048
266.703,5.55112e-17,0,2048,2048
266.755,5.55112e-17,0,2048,2048
266.802,5.55112e-17,0,2048,2048
266.855,5.55112e-17,0,2048,2048
266.902,5.55112e-17,0,2048,2048
266.955,5.55112e-17,0,2048,2048
267.001,5.55112e-17,0,2048,2048
267.054,5.55112e-17,0,2048,2048
267.101,5.55112e-17,0,2048,2048
267.154,5.55112e-17,0,2048,2048
267.201,5.55112e-17,0,2048,2048
267.253,5.55112e-17,0,2048,2048
267.3,5.55112e-17,0,2048,2048
267.353,5.55112e-17,0,2048,2048
267.406,5.55112e-17,0,2048,2048
267.453,5.55112e-17,0,2048,2048
267.505,5.55112e-17,0,2048,2048
267.552,5.55112e-17,0,2048,2048
267.605,5.55112e-17,0,2048,2048
267.652,2.77556e-17,0,2048,2048
267.704,2.77556e-17,0,2048,2048
267.751,2.77556e-17,0,2048,2048
267.804,2.77556e-17,0,2048,2048
267.851,5.55112e-17,0,2048,2048
267.904,2.77556e-17,0,2048,2048
267.95,2.77556e-17,0,2048,2048
268.003,5.55112e-17,0,2048,2048
268.05,2.77556e-17,0,2048,2048
268.101,2.77556e-17,0,2110,2110
268.151,2.77556e-17,0,2146,2146
268.201,2.77556e-17,0,2182,2182
268.25,2.77556e-17,0,2218,2218
268.3,2.77556e-17,0,2254,2254
268.35,2.77556e-17,0,2302,2302
268.403,2.77556e-17,0,2330,2330
268.453,2.77556e-17,0,2370,2370
268.502,2.77556e-17,0,2398,2398
268.552,2.77556e-17,0,2454,2454
268.602,2.77556e-17,0,2490,2490
268.652,2.77556e-17,0,2530,2530
268.702,2.77556e-17,0,2550,2550
268.751,2.77556e-17,0,2598,2598
268.801,2.77556e-17,0,2638,2638
268.851,2.77556e-17,0,2642,2642
268.901,2.77556e-17,0,2646,2646
268.951,2.77556e-17,0,2710,2710
269,2.77556e-17,0,2706,2706
269.05,2.77556e-17,0,2682,2682
269.103,2.77556e-17,0,2730,2730
269.153,2.77556e-17,0,2708,2708
269.202,2.77556e-17,0,2708,2708
269.252,2.77556e-17,0,2722,2722
269.302,2.77556e-17,0,2762,2762
269.352,2.77556e-17,0,2802,2802
269.402,2.77556e-17,0,2806,2806
269.451,2.77556e-17,0,2830,2830
269.501,2.77556e-17,0,2870,2870
269.551,2.77556e-17,0,2914,2914
269.601,2.77556e-17,0,2938,2938
269.651,2.77556e-17,0,2962,2962
269.7,2.77556e-17,0,3006,3006
269.75,2.77556e-17,0,3038,3038
269.8,2.77556e-17,0,3046,3046
269.853,2.77556e-17,0,3090,3090
269.903,2.77556e-17,0,3106,3106
269.952,2.77556e-17,0,3118,3118
270.002,2.77556e-17,0,3130,3130
270.052,2.77556e-17,0,3154,3154
270.102,2.77556e-17,0,3158,3158
270.152,2.77556e-17,0,3166,3166
270.201,2.77556e-17,0,3174,3174
270.251,2.77556e-17,0,3158,3158
270.301,2.77556e-17,0,3186,3186
270.351,2.77556e-17,0,3230,3230
270.401,2.77556e-17,0,3266,3266
270.45,2.77556e-17,0,3286,3286
270.5,2.77556e-17,0,3302,3302
270.553,2.77556e-17,0,3318,3318
270.603,2.77556e-17,0,3310,3310
270.652,2.77556e-17,0,3334,3334
270.702,2.77556e-17,0,3362,3362
270.752,2.77556e-17,0,3382,3382
270.802,2.77556e-17,0,3426,3426
270.852,2.77556e-17,0,3418,3418
270.901,2.77556e-17,0,3426,3426
270.951,2.77556e-17,0,3462,3462
271.001,2.77556e-17,0,3490,3490
271.051,2.77556e-17,0,3514,3514
271.101,2.77556e-17,0,3558,3558
271.15,2.77556e-17,0,3602,3602
271.2,2.77556e-17,0,3658,3658
271.25,2.77556e-17,0,3690,3690
271.303,2.77556e-17,0,3718,3718
271.353,2.77556e-17,0,3750,3750
271.402,2.77556e-17,0,3770,3770
271.452,2.77556e-17,0,3830,3830
271.502,2.77556e-17,0,3838,3838
271.552,2.77556e-17,0,3866,3866
271.602,2.77556e-17,0,3906,3906
271.651,2.77556e-17,0,3950,3950
271.701,5.55112e-17,0,3986,3986
271.751,5.55112e-17,0,4014,4014
271.801,5.55112e-17,0,4062,4062
271.851,5.55112e-17,0,4090,4090
271.9,5.55112e-17,0,4130,4130
271.95,5.55112e-17,0,4166,4166
272.003,5.55112e-17,0,4202,4202
272.053,5.55112e-17,0,4226,4226
272.102,5.55112e-17,0,4262,4262
272.152,5.55112e-17,0,4278,4278
272.202,5.55112e-17,0,4282,4282
272.252,5.55112e-17,0,4318,4318
272.302,-4.44089e-16,0,4358,4358
272.351,-3.77476e-15,0,4402,4402
272.401,-1.97342e-14,0,4438,4438
272.451,-7.85483e-14,0,4466,4466
272.501,-2.6229e-13,0,4510,4510
272.551,-7.64278e-13,0,4538,4538
272.6,-1.98444e-12,0,4578,4578
272.65,-4.64592e-12,0,4606,4606
272.7,-9.87932e-12,0,4650,4650
272.753,-1.98717e-11,0,4686,4686
272.803,-3.50688e-11,0,4714,4714
272.852,-5.66322e-11,0,4750,4750
272.902,-8.36159e-11,0,4794,4794
272.952,-1.12586e-10,0,4830,4830
273.002,-1.37538e-10,0,4858,4858
273.052,-1.50975e-10,0,4886,4886
273.101,-1.46214e-10,0,4922,4922
273.151,-1.20454e-10,0,4954,4954
273.201,-7.72629e-11,0,4982,4982
273.251,-2.63312e-11,0,5026,5026
273.301,2.05868e-11,0,5054,5054
273.35,5.52741e-11,0,5082,5082
273.4,7.60849e-11,0,5106,5106
273.453,8.70127e-11,0,5138,5138
273.503,9.211e-11,0,5170,5170
273.552,9.55864e-11,0,5206,5206
273.602,9.8532e-11,0,5242,5242
273.652,1.00817e-10,0,5278,5278
273.702,1.02334e-10,0,5288,5288
273.752,1.03473e-10,0,5280,5280
273.801,1.04832e-10,0,5298,5298
273.851,1.06736e-10,0,5350,5350
273.901,1.09107e-10,0,5422,5422
273.951,1.11732e-10,0,5450,5450
274.001,1.14554e-10,0,5498,5498
274.05,1.17602e-10,0,5518,5518
274.1,1.20532e-10,0,5554,5554
274.153,1.22259e-10,0,5590,5590
274.203,1.20965e-10,0,5626,5626
274.253,1.16138e-10,0,5662,5662
274.302,1.09637e-10,0,5698,5698
274.352,1.06321e-10,0,5734,5734
274.402,1.11884e-10,0,5758,5758
274.452,1.27893e-10,0,5794,5794
274.502,1.47214e-10,0,5830,5830
274.551,1.56468e-10,0,5866,5866
274.601,1.51538e-10,0,5902,5902
274.651,1.58135e-10,0,5938,5938
274.701,2.74934e-10,0,5974,5974
274.75,1.12532e-09,0,6010,6010
274.8,3.10586e-09,0,6046,6046
274.85,6.42436e-09,0,6082,6082
274.903,1.11538e-08,0,6102,6102
274.953,1.61976e-08,0,6110,6110
275.002,2.11639e-08,0,6122,6122
275.052,2.56388e-08,0,6134,6134
275.102,2.96192e-08,0,6138,6138
275.152,3.35391e-08,0,6142,6142
275.202,3.81168e-08,0,6138,6138
275.251,4.4104e-08,0,6142,6142
275.301,5.20697e-08,0,6146,6146
275.351,6.2348e-08,0,6142,6142
275.401,7.51743e-08,0,6134,6134
275.451,9.09036e-08,0,6142,6142
275.5,1.10144e-07,0,6130,6130
275.55,1.33704e-07,0,6114,6114
275.603,1.64234e-07,0,6098,6098
275.653,1.98833e-07,0,6098,6098
275.703,2.3896e-07,0,6066,6066
275.752,2.83985e-07,0,6062,6062
275.802,3.32971e-07,0,6026,6026
275.852,3.85053e-07,0,5990,5990
275.902,4.39711e-07,0,5950,5950
275.951,4.96686e-07,0,5930,5930
276.001,5.55559e-07,0,5878,5878
276.051,6.15267e-07,0,5834,5834
276.101,6.73907e-07,0,5810,5810
276.151,7.29002e-07,0,5778,5778
276.2,7.78066e-07,0,5750,5750
276.25,8.19203e-07,0,5702,5702
276.3,8.51491e-07,0,5678,5678
276.353,8.76175e-07,0,5634,5634
276.403,8.91493e-07,0,5586,5586
276.452,9.00358e-07,0,5566,5566
276.502,9.03948e-07,0,5518,5518
276.552,9.03003e-07,0,5474,5474
276.601,8.97848e-07,0,5456,5456
276.65,8.88047e-07,0,5448,5448
276.7,8.72939e-07,0,5452,5452
276.753,8.50146e-07,0,5436,5436
276.803,8.21623e-07,0,5412,5412
276.85,7.88396e-07,0,5420,5420
276.9,7.46369e-07,0,5404,5404
276.951,6.98664e-07,0,5388,5388
277.002,6.47041e-07,0,5388,5388
277.052,5.93628e-07,0,5380,5380
277.1,5.43728e-07,0,5380,5380
277.151,4.92218e-07,0,5324,5324
277.203,4.43465e-07,0,5268,5268
277.251,4.00648e-07,0,5272,5272
277.303,3.58034e-07,0,5368,5368
277.351,3.20707e-07,0,5452,5452
277.403,2.83451e-07,0,5520,5520
277.452,2.50874e-07,0,5556,5556
277.5,2.20772e-07,0,5580,5580
277.552,1.91882e-07,0,5608,5608
277.601,1.6827e-07,0,5652,5652
277.652,1.46964e-07,0,5708,5708
277.7,1.30104e-07,0,5752,5752
277.752,1.14455e-07,0,5812,5812
277.803,1.00192e-07,0,5880,5880
277.851,8.75975e-08,0,5940,5940
277.901,7.50742e-08,0,6000,6000
277.952,6.39656e-08,0,6060,6060
278.003,5.47043e-08,0,6100,6100
278.053,4.7334e-08,0,6128,6128
278.103,4.14416e-08,0,6156,6156
278.153,3.63278e-08,0,6178,6178
278.203,3.13419e-08,0,6210,6210
278.252,2.61742e-08,0,6266,6266
278.302,2.09736e-08,0,6282,6282
278.351,1.62227e-08,0,6322,6322
278.4,1.24312e-08,0,6358,6358
278.452,9.75067e-09,0,6382,6382
278.501,8.4132e-09,0,6434,6434
278.553,7.89364e-09,0,6434,6434
278.602,7.87022e-09,0,6398,6398
278.653,7.96077e-09,0,6358,6358
278.701,8.06928e-09,0,6310,6310
278.752,8.15954e-09,0,6294,6294
278.8,8.19576e-09,0,6254,6254
278.851,8.18411e-09,0,6230,6230
278.902,8.12746e-09,0,6178,6178
278.952,7.93789e-09,0,6114,6114
279.002,7.66445e-09,0,6090,6090
279.052,7.43504e-09,0,6058,6058
279.102,7.27427e-09,0,5978,5978
279.152,7.1913e-09,0,5970,5970
279.202,7.16504e-09,0,5914,5914
279.252,7.16873e-09,0,5874,5874
279.302,7.17844e-09,0,5842,5842
279.351,7.19264e-09,0,5786,5786
279.401,7.20851e-09,0,5746,5746
279.451,7.22553e-09,0,5722,5722
279.501,7.24303e-09,0,5694,5694
279.551,7.26054e-09,0,5670,5670
279.6,7.27777e-09,0,5674,5674
279.65,7.2948e-09,0,5606,5606
279.7,7.3115e-09,0,5578,5578
279.753,7.32871e-09,0,5510,5510
279.803,7.34467e-09,0,5502,5502
279.852,7.3607e-09,0,5582,5582
279.902,7.37757e-09,0,5626,5626
279.952,7.3966e-09,0,5678,5678
280.002,7.41975e-09,0,5694,5694
280.052,7.44953e-09,0,5690,5690
280.101,7.48874e-09,0,5766,5766
280.151,7.5404e-09,0,5790,5790
280.201,7.60682e-09,0,5814,5814
280.251,7.68806e-09,0,5862,5862
280.301,7.78069e-09,0,5886,5886
280.35,7.88044e-09,0,5930,5930
280.4,8.01762e-09,0,5974,5974
280.453,8.20951e-09,0,6002,6002
280.503,8.40246e-09,0,6026,6026
280.552,8.59962e-09,0,6062,6062
280.602,8.89503e-09,0,6070,6070
280.652,9.21904e-09,0,6110,6110
280.702,9.60111e-09,0,6134,6134
280.752,1.00524e-08,0,6210,6210
280.801,1.05868e-08,0,6252,6252
280.851,1.12207e-08,0,6260,6260
280.901,1.19722e-08,0,6252,6252
280.951,1.28607e-08,0,6236,6236
281.001,1.39055e-08,0,6240,6240
281.05,1.5125e-08,0,6240,6240
281.1,1.65365e-08,0,6252,6252
281.15,1.81553e-08,0,6240,6240
281.203,2.01098e-08,0,6220,6220
281.253,2.21935e-08,0,6220,6220
281.302,2.45139e-08,0,6204,6204
281.352,2.70726e-08,0,6208,6208
281.402,2.9865e-08,0,6200,6200
281.452,3.28817e-08,0,6196,6196
281.502,3.61083e-08,0,6184,6184
281.551,3.95253e-08,0,6192,6192
281.601,4.31115e-08,0,6172,6172
281.651,4.6845e-08,0,6180,6180
281.701,5.07071e-08,0,6156,6156
281.751,5.46863e-08,0,6168,6168
281.8,5.87841e-08,0,6140,6140
281.85,6.30188e-08,0,6160,6160
281.903,6.76923e-08,0,6132,6132
281.953,7.23396e-08,0,6128,6128
282.002,7.72747e-08,0,6120,6120
282.052,8.25528e-08,0,6132,6132
282.102,8.82094e-08,0,6100,6100
282.152,9.42499e-08,0,6120,6120
282.202,1.00649e-07,0,6096,6096
282.251,1.07362e-07,0,6092,6092
282.301,1.14346e-07,0,6092,6092
282.351,1.21585e-07,0,6088,6088
282.401,1.29117e-07,0,6080,6080
282.451,1.37052e-07,0,6076,6076
282.5,1.45578e-07,0,6084,6084
282.55,1.54958e-07,0,6064,6064
282.603,1.66185e-07,0,6072,6072
282.653,1.78404e-07,0,6060,6060
282.703,1.926e-07,0,6056,6056
282.752,2.09171e-07,0,6056,6056
282.802,2.28493e-07,0,6056,6056
282.852,2.50895e-07,0,6052,6052
282.903,2.771e-07,0,6054,6054
282.952,3.0618e-07,0,6090,6090
283.001,3.38593e-07,0,6138,6138
283.051,3.74159e-07,0,6170,6170
283.103,4.15061e-07,0,6210,6210
283.152,4.56018e-07,0,6258,6258
283.2,4.98743e-07,0,6290,6290
283.252,5.45303e-07,0,6338,6338
283.301,5.89342e-07,0,6382,6382
283.352,6.353e-07,0,6426,6426
283.403,6.79249e-07,0,6466,6466
283.451,7.17705e-07,0,6494,6494
283.502,7.544e-07,0,6508,6508
283.552,7.85864e-07,0,6570,6570
283.6,8.10053e-07,0,6594,6594
283.65,8.29542e-07,0,6634,6634
283.701,8.42455e-07,0,6698,6698
283.751,8.4883e-07,0,6730,6730
283.8,8.48867e-07,0,6762,6762
283.85,8.42839e-07,0,6818,6818
283.9,8.31001e-07,0,6846,6846
283.953,8.12378e-07,0,6878,6878
284.003,7.89241e-07,0,6914,6914
284.052,7.60903e-07,0,6954,6954
284.102,7.27594e-07,0,6990,6990
284.152,6.89644e-07,0,7014,7014
284.202,6.47531e-07,0,7034,7034
284.252,6.01901e-07,0,7078,7078
284.301,5.5356e-07,0,7110,7110
284.351,5.03429e-07,0,7142,7142
284.401,4.52484e-07,0,7190,7190
284.451,4.01677e-07,0,7226,7226
284.501,3.51878e-07,0,7254,7254
284.55,3.03818e-07,0,7294,7294
284.6,2.58074e-07,0,7330,7330
284.653,2.12627e-07,0,7374,7374
284.703,1.72823e-07,0,7406,7406
284.752,1.36221e-07,0,7446,7446
284.802,1.02905e-07,0,7478,7478
284.852,7.28893e-08,0,7492,7492
284.902,4.61231e-08,0,7492,7492
284.952,2.24972e-08,0,7528,7528
285.001,1.84778e-09,0,7536,7536
285.051,-1.60311e-08,0,7584,7584
285.101,-3.1369e-08,0,7660,7660
285.151,-4.43993e-08,0,7696,7696
285.201,-5.53434e-08,0,7716,7716
285.25,-6.44031e-08,0,7768,7768
285.3,-7.17625e-08,0,7808,7808
285.35,-7.75944e-08,0,7840,7840
285.403,-8.22897e-08,0,7880,7880
285.453,-8.54957e-08,0,7924,7924
285.502,-8.76609e-08,0,7934,7934
285.552,-8.89135e-08,0,7934,7934
285.602,-8.93541e-08,0,7918,7918
285.652,-8.90546e-08,0,7902,7902
285.702,-8.80665e-08,0,7898,7898
285.751,-8.64335e-08,0,7890,7890
285.801,-8.42072e-08,0,7898,7898
285.851,-8.1457e-08,0,7894,7894
285.901,-7.82744e-08,0,7878,7878
285.951,-7.47682e-08,0,7874,7874
286,-7.10561e-08,0,7870,7870
286.05,-6.72534e-08,0,7898,7898
286.103,-6.3243e-08,0,7930,7930
286.153,-5.95597e-08,0,7944,7944
286.202,-5.60429e-08,0,7948,7948
286.252,-5.27359e-08,0,7948,7948
286.302,-4.96648e-08,0,7964,7964
286.352,-4.68417e-08,0,7996,7996
286.402,-4.42686e-08,0,8016,8016
286.451,-4.19412e-08,0,8000,8000
286.501,-3.98517e-08,0,8012,8012
286.551,-3.79906e-08,0,8000,8000
286.601,-3.63477e-08,0,7976,7976
286.651,-3.49123e-08,0,7832,7832
286.7,-3.3673e-08,0,7728,7728
286.75,-3.26169e-08,0,7620,7620
286.8,-3.17291e-08,0,7536,7536
286.853,-3.09586e-08,0,7472,7472
286.903,-3.03829e-08,0,7428,7428
286.952,-2.99451e-08,0,7396,7396
287.002,-2.96292e-08,0,7364,7364
287.052,-2.94165e-08,0,7320,7320
287.102,-2.93015e-08,0,7288,7288
287.152,-2.92775e-08,0,7228,7228
287.201,-2.92743e-08,0,7192,7192
287.251,-2.92972e-08,0,7168,7168
287.301,-2.93463e-08,0,7116,7116
287.351,-2.94168e-08,0,7064,7064
287.401,-2.95013e-08,0,7032,7032
287.45,-2.96087e-08,0,7004,7004
287.5,-2.988e-08,0,6964,6964
287.553,-3.00883e-08,0,6944,6944
287.603,-3.02713e-08,0,6904,6904
287.652,-3.04572e-08,0,6880,6880
287.702,-3.06397e-08,0,6852,6852
287.752,-3.08104e-08,0,6816,6816
287.802,-3.09721e-08,0,6796,6796
287.852,-3.11231e-08,0,6776,6776
287.901,-3.12581e-08,0,6768,6768
287.951,-3.13765e-08,0,6736,6736
288.001,-3.14799e-08,0,6724,6724
288.051,-3.15679e-08,0,6736,6736
288.101,-3.16426e-08,0,6732,6732
288.15,-3.17041e-08,0,6748,6748
288.2,-3.17661e-08,0,6776,6776
288.25,-3.17776e-08,0,6780,6780
288.303,-3.17345e-08,0,6768,6768
288.353,-3.1691e-08,0,6744,6744
288.402,-3.16462e-08,0,6638,6638
288.452,-3.15919e-08,0,6510,6510
288.502,-3.15279e-08,0,6352,6352
288.552,-3.14558e-08,0,6324,6324
288.602,-3.13742e-08,0,6296,6296
288.651,-3.12846e-08,0,6328,6328
288.701,-3.11906e-08,0,6384,6384
288.751,-3.10909e-08,0,6476,6476
288.801,-3.09849e-08,0,6808,6808
288.85,-3.08756e-08,0,7028,7028
288.9,-3.0768e-08,0,7068,7068
288.95,-3.06612e-08,0,7104,7104
289.003,-3.04984e-08,0,7116,7116
289.053,-3.03749e-08,0,7160,7160
289.102,-3.02474e-08,0,7184,7184
289.152,-3.01135e-08,0,7216,7216
289.202,-2.9983e-08,0,7252,7252
289.252,-2.98504e-08,0,7296,7296
289.302,-2.97105e-08,0,7320,7320
289.351,-2.95644e-08,0,7312,7312
289.401,-2.94158e-08,0,7056,7056
289.451,-2.92664e-08,0,6980,6980
289.501,-2.91119e-08,0,6992,6992
289.551,-2.89348e-08,0,7052,7052
289.6,-2.87308e-08,0,7080,7080
289.65,-2.8529e-08,0,7052,7052
289.703,-2.82957e-08,0,7060,7060
289.753,-2.80224e-08,0,7076,7076
289.803,-2.77255e-08,0,7160,7160
289.852,-2.74246e-08,0,7196,7196
289.902,-2.71003e-08,0,7220,7220
289.952,-2.67452e-08,0,7228,7228
290.002,-2.63707e-08,0,7160,7160
290.051,-2.59672e-08,0,7092,7092
290.101,-2.55389e-08,0,6996,6996
290.151,-2.50864e-08,0,6940,6940
290.201,-2.46122e-08,0,6852,6852
290.251,-2.41304e-08,0,6776,6776
290.3,-2.36727e-08,0,6716,6716
290.35,-2.32961e-08,0,6640,6640
290.4,-2.29315e-08,0,6616,6616
290.453,-2.2521e-08,0,6520,6520
290.503,-2.21431e-08,0,6548,6548
290.552,-2.17951e-08,0,6328,6328
290.602,-2.14693e-08,0,6224,6224
290.652,-2.11737e-08,0,6232,6232
290.702,-2.09203e-08,0,6260,6260
290.752,-2.06987e-08,0,6252,6252
290.801,-2.05132e-08,0,6116,6116
290.851,-2.03896e-08,0,6080,6080
290.901,-2.03207e-08,0,6200,6200
290.951,-2.03243e-08,0,6396,6396
291.001,-2.03725e-08,0,6440,6440
291.05,-2.03559e-08,0,6444,6444
291.1,-2.04706e-08,0,6476,6476
291.153,-2.0576e-08,0,6496,6496
291.203,-2.07271e-08,0,6500,6500
291.252,-2.0867e-08,0,6500,6500
291.302,-2.10631e-08,0,6252,6252
291.352,-2.12378e-08,0,6152,6152
291.402,-2.14019e-08,0,6008,6008
291.452,-2.16444e-08,0,5940,5940
291.501,-2.1864e-08,0,5936,5936
291.551,-2.20671e-08,0,5920,5920
291.601,-2.22373e-08,0,6072,6072
291.651,-2.24014e-08,0,6080,6080
291.701,-2.25535e-08,0,6068,6068
291.75,-2.26877e-08,0,6080,6080
291.8,-2.27993e-08,0,6052,6052
291.85,-2.28851e-08,0,6024,6024
291.903,-2.29482e-08,0,5996,5996
291.953,-2.29744e-08,0,6024,6024
292.002,-2.29831e-08,0,6024,6024
292.052,-2.29795e-08,0,6008,6008
292.102,-2.29613e-08,0,5994,5994
292.152,-2.29278e-08,0,6002,6002
292.202,-2.28795e-08,0,6002,6002
292.251,-2.2816e-08,0,5998,5998
292.301,-2.27381e-08,0,6014,6014
292.351,-2.26465e-08,0,6046,6046
292.401,-2.25464e-08,0,6074,6074
292.451,-2.24438e-08,0,6136,6136
292.5,-2.23238e-08,0,6176,6176
292.55,-2.21787e-08,0,6188,6188
292.603,-2.20178e-08,0,6212,6212
292.653,-2.18668e-08,0,6192,6192
292.702,-2.17061e-08,0,6172,6172
292.752,-2.15408e-08,0,6172,6172
292.802,-2.13724e-08,0,6152,6152
292.852,-2.12036e-08,0,6144,6144
292.902,-2.10347e-08,0,6088,6088
292.951,-2.08681e-08,0,6072,6072
293.001,-2.0706e-08,0,6024,6024
293.051,-2.05499e-08,0,6024,6024
293.101,-2.04014e-08,0,5928,5928
293.151,-2.02619e-08,0,5828,5828
293.2,-2.01328e-08,0,5736,5736
293.25,-2.00145e-08,0,5648,5648
293.3,-1.99067e-08,0,5660,5660
293.35,-1.98104e-08,0,5774,5774
293.4,-1.97268e-08,0,5854,5854
293.45,-1.96552e-08,0,5938,5938
293.5,-1.95949e-08,0,5978,5978
293.553,-1.95405e-08,0,5998,5998
293.603,-1.9496e-08,0,5966,5966
293.652,-1.94582e-08,0,5962,5962
293.702,-1.9425e-08,0,5954,5954
293.752,-1.93944e-08,0,5946,5946
293.802,-1.93666e-08,0,5914,5914
293.852,-1.93391e-08,0,5894,5894
293.901,-1.93086e-08,0,5890,5890
293.951,-1.92714e-08,0,5870,5870
294.001,-1.92396e-08,0,5882,5882
294.051,-1.92088e-08,0,5890,5890
294.101,-1.91742e-08,0,5898,5898
294.15,-1.91326e-08,0,5890,5890
294.2,-1.90837e-08,0,5902,5902
294.253,-1.90243e-08,0,5918,5918
294.303,-1.89611e-08,0,5934,5934
294.353,-1.8891e-08,0,5974,5974
294.402,-1.88138e-08,0,5986,5986
294.452,-1.87302e-08,0,6022,6022
294.502,-1.86408e-08,0,6050,6050
294.552,-1.85458e-08,0,6066,6066
294.602,-1.84458e-08,0,6090,6090
294.651,-1.83415e-08,0,6122,6122
294.701,-1.82339e-08,0,6146,6146
294.751,-1.81237e-08,0,6166,6166
294.801,-1.80116e-08,0,6210,6210
294.85,-1.78978e-08,0,6322,6322
294.9,-1.77848e-08,0,6402,6402
294.95,-1.76708e-08,0,6434,6434
295.003,-1.75467e-08,0,6454,6454
295.053,-1.74297e-08,0,6482,6482
295.102,-1.7312e-08,0,6502,6502
295.152,-1.71934e-08,0,6524,6524
295.202,-1.70738e-08,0,6462,6462
295.252,-1.69526e-08,0,6422,6422
295.302,-1.68292e-08,0,6386,6386
295.351,-1.67028e-08,0,6418,6418
295.401,-1.65728e-08,0,6516,6516
295.451,-1.64395e-08,0,6532,6532
295.501,-1.63034e-08,0,6544,6544
295.551,-1.61642e-08,0,6544,6544
295.6,-1.60212e-08,0,6544,6544
295.65,-1.58742e-08,0,6516,6516
295.703,-1.57139e-08,0,6488,6488
295.753,-1.5558e-08,0,6488,6488
295.803,-1.53976e-08,0,6436,6436
295.852,-1.52328e-08,0,6420,6420
295.902,-1.50632e-08,0,6392,6392
295.952,-1.48888e-08,0,6352,6352
296.002,-1.47095e-08,0,6312,6312
296.051,-1.45255e-08,0,6280,6280
296.101,-1.4338e-08,0,6248,6248
296.151,-1.41504e-08,0,6224,6224
296.201,-1.39643e-08,0,6200,6200
296.251,-1.37787e-08,0,6176,6176
296.3,-1.35507e-08,0,6168,6168
296.35,-1.33256e-08,0,6196,6196
296.4,-1.31015e-08,0,6204,6204
296.453,-1.28547e-08,0,6186,6186
296.503,-1.26122e-08,0,6138,6138
296.552,-1.23596e-08,0,6102,6102
296.602,-1.20977e-08,0,6078,6078
296.652,-1.18272e-08,0,6058,6058
296.702,-1.15462e-08,0,6030,6030
296.752,-1.12533e-08,0,6006,6006
296.801,-1.09464e-08,0,5966,5966
296.851,-1.06234e-08,0,5922,5922
296.901,-1.0283e-08,0,5920,5920
296.951,-9.92336e-09,0,5908,5908
297.001,-9.54344e-09,0,5920,5920
297.05,-9.14253e-09,0,5928,5928
297.1,-8.72003e-09,0,5920,5920
297.153,-8.24846e-09,0,5908,5908
297.203,-7.77971e-09,0,5908,5908
297.252,-7.28781e-09,0,5848,5848
297.302,-6.77252e-09,0,5836,5836
297.352,-6.2342e-09,0,5828,5828
297.402,-5.67387e-09,0,5836,5836
297.452,-5.09337e-09,0,5824,5824
297.501,-4.49538e-09,0,5810,5810
297.551,-3.88325e-09,0,5798,5798
297.601,-3.26087e-09,0,5786,5786
297.651,-2.63246e-09,0,5758,5758
297.701,-2.00229e-09,0,5734,5734
297.75,-1.37464e-09,0,5730,5730
297.8,-7.53683e-10,0,5694,5694
297.85,-1.43399e-10,0,5666,5666
297.903,4.86893e-10,0,5622,5622
297.953,1.06334e-09,0,5578,5578
298.002,1.618e-09,0,5550,5550
298.052,2.14763e-09,0,5530,5530
298.102,2.64918e-09,0,5514,5514
298.152,3.1199e-09,0,5494,5494
298.202,3.55736e-09,0,5466,5466
298.251,3.95952e-09,0,5446,5446
298.301,4.32485e-09,0,5426,5426
298.351,4.6523e-09,0,5406,5406
298.401,4.94145e-09,0,5374,5374
298.451,5.19244e-09,0,5362,5362
298.5,5.40608e-09,0,5342,5342
298.55,5.5837e-09,0,5314,5314
298.603,5.73394e-09,0,5294,5294
298.653,5.84069e-09,0,5274,5274
298.702,5.91451e-09,0,5258,5258
298.752,5.96425e-09,0,5238,5238
298.802,5.96877e-09,0,5210,5210
298.852,5.94015e-09,0,5198,5198
298.902,5.90149e-09,0,5170,5170
298.951,5.85315e-09,0,5150,5150
299.001,5.79477e-09,0,5126,5126
299.051,5.72698e-09,0,5114,5114
299.101,5.65059e-09,0,5086,5086
299.151,5.56629e-09,0,5058,5058
299.2,5.47533e-09,0,5046,5046
299.25,5.37876e-09,0,5026,5026
299.3,5.27798e-09,0,4998,4998
299.353,5.16812e-09,0,4978,4978
299.403,5.06266e-09,0,4958,4958
299.452,4.95694e-09,0,4942,4942
299.502,4.85214e-09,0,4914,4914
299.552,4.74932e-09,0,4894,4894
299.602,4.64954e-09,0,4874,4874
299.652,4.55372e-09,0,4846,4846
299.701,4.46266e-09,0,4826,4826
299.751,4.37702e-09,0,4806,4806
299.801,4.29734e-09,0,4778,4778
299.851,4.22398e-09,0,4758,4758
299.901,4.1571e-09,0,4734,4734
299.95,4.09668e-09,0,4718,4718
300,4.04245e-09,0,4686,4686
300.053,3.99126e-09,0,4666,4666
300.103,3.94815e-09,0,4646,4646
300.152,3.90933e-09,0,4610,4610
300.202,3.87394e-09,0,4598,4598
300.252,3.84104e-09,0,4570,4570
300.302,3.80969e-09,0,4550,4550
300.352,3.77895e-09,0,4530,4530
300.401,3.74793e-09,0,4498,4498
300.451,3.71582e-09,0,4478,4478
300.501,3.6819e-09,0,4450,4450
300.551,3.6456e-09,0,4430,4430
300.601,3.60649e-09,0,4410,4410
300.65,3.5643e-09,0,4382,4382
300.7,3.51892e-09,0,4354,4354
300.75,3.47041e-09,0,4330,4330
300.803,3.41586e-09,0,4310,4310
300.853,3.36168e-09,0,4282,4282
300.902,3.30539e-09,0,4254,4254
300.952,3.24755e-09,0,4230,4230
301.002,3.18879e-09,0,4210,4210
301.052,3.12978e-09,0,4174,4174
301.102,3.0712e-09,0,4154,4154
301.151,3.01375e-09,0,4130,4130
301.201,2.95806e-09,0,4102,4102
301.251,2.90474e-09,0,4074,4074
301.301,2.85436e-09,0,4050,4050
301.351,2.80739e-09,0,4030,4030
301.4,2.76426e-09,0,4010,4010
301.45,2.72531e-09,0,3970,3970
301.503,2.68891e-09,0,3926,3926
301.553,2.65926e-09,0,3890,3890
301.602,2.63426e-09,0,3850,3850
301.652,2.61385e-09,0,3806,3806
301.702,2.59788e-09,0,3770,3770
301.752,2.58608e-09,0,3730,3730
301.802,2.57812e-09,0,3686,3686
301.851,2.57359e-09,0,3646,3646
301.901,2.57202e-09,0,3610,3610
301.951,2.57292e-09,0,3566,3566
302.001,2.57578e-09,0,3518,3518
302.051,2.58009e-09,0,3482,3482
302.1,2.58538e-09,0,3434,3434
302.15,2.5912e-09,0,3390,3390
302.2,2.5971e-09,0,3354,3354
302.253,2.60305e-09,0,3310,3310
302.303,2.60801e-09,0,3274,3274
302.352,2.61206e-09,0,3226,3226
302.402,2.61497e-09,0,3174,3174
302.452,2.61656e-09,0,3146,3146
302.502,2.6167e-09,0,3098,3098
302.552,2.61532e-09,0,3062,3062
302.601,2.61237e-09,0,3014,3014
302.651,2.60785e-09,0,2970,2970
302.701,2.60177e-09,0,2930,2930
302.751,2.59418e-09,0,2886,2886
302.801,2.5851e-09,0,2846,2846
302.85,2.5746e-09,0,2802,2802
302.9,2.56274e-09,0,2762,2762
302.953,2.54878e-09,0,2714,2714
303.003,2.53433e-09,0,2678,2678
303.052,2.51874e-09,0,2630,2630
303.102,2.50205e-09,0,2586,2586
303.152,2.48436e-09,0,2546,2546
303.202,2.46573e-09,0,2502,2502
303.252,2.44624e-09,0,2462,2462
303.301,2.42597e-09,0,2418,2418
303.351,2.40499e-09,0,2378,2378
303.401,2.38339e-09,0,2342,2342
303.451,2.36125e-09,0,2298,2298
303.501,2.33866e-09,0,2258,2258
303.55,2.3157e-09,0,2210,2210
303.6,2.29248e-09,0,2162,2162
303.653,2.26768e-09,0,2126,2126
303.703,2.24416e-09,0,2078,2078
303.753,2.22027e-09,0,2048,2048
303.8,2.19815e-09,0,2048,2048
303.853,2.17337e-09,0,2048,2048
303.906,2.14877e-09,0,2048,2048
303.952,2.12711e-09,0,2048,2048
304.005,2.10301e-09,0,2048,2048
304.052,2.08186e-09,0,2048,2048
304.105,2.05838e-09,0,2048,2048
304.152,2.03782e-09,0,2048,2048
304.204,2.01502e-09,0,2048,2048
304.251,1.99506e-09,0,2048,2048
304.304,1.97292e-09,0,2048,2048
304.351,1.95351e-09,0,2048,2048
304.404,1.93195e-09,0,2048,2048
304.45,1.913e-09,0,2048,2048
304.503,1.89188e-09,0,2048,2048
304.556,1.87094e-09,0,2048,2048
304.603,1.85243e-09,0,2048,2048
304.655,1.83167e-09,0,2048,2048
304.702,1.81324e-09,0,2048,2048
304.755,1.79249e-09,0,2048,2048
304.802,1.77398e-09,0,2048,2048
304.855,1.75304e-09,0,2048,2048
304.901,1.73429e-09,0,2048,2048
304.954,1.713e-09,0,2048,2048
