250,0,0,512,512
250.012,0,0,512,512
250.059,0,0,512,512
250.105,0,0,512,512
250.152,0,0,512,512
250.211,0,0,512,512
250.258,0,0,512,512
250.305,0,0,512,512
250.352,0,0,512,512
250.41,2.77556e-17,0,512,512
250.457,2.77556e-17,0,512,512
250.504,0,0,512,512
250.551,0,0,512,512
250.609,0,0,512,512
250.656,0,0,512,512
250.703,0,0,512,512
250.762,0,0,512,512
250.808,0,0,512,512
250.855,0,0,512,512
250.902,2.77556e-17,0,512,512
250.961,2.77556e-17,0,512,512
251.008,2.77556e-17,0,512,512
251.055,2.77556e-17,0,512,512
251.101,0,0,512,512
251.16,0,0,512,512
251.207,2.77556e-17,0,512,512
251.254,0,0,512,512
251.301,0,0,512,512
251.359,0,0,512,512
251.406,0,0,512,512
251.453,0,0,512,512
251.511,0,0,512,512
251.558,0,0,512,512
251.605,2.77556e-17,0,512,512
251.652,2.77556e-17,0,512,512
251.711,0,0,512,512
251.758,0,0,512,512
251.804,0,0,512,512
251.851,0,0,512,512
251.91,0,0,512,512
251.957,0,0,512,512
252.004,-2.77556e-17,0,512,512
252.05,-2.77556e-17,0,512,512
252.109,-2.77556e-17,0,512,512
252.156,0,0,512,512
252.203,0,0,512,512
252.261,0,0,512,512
252.308,0,0,512,512
252.355,2.77556e-17,0,512,512
252.402,2.77556e-17,0,512,512
252.461,0,0,512,512
252.507,0,0,512,512
252.554,0,0,512,512
252.601,0,0,512,512
252.66,0,0,512,512
252.707,0,0,512,512
252.754,0,0,512,512
252.8,0,0,512,512
252.859,2.77556e-17,0,512,512
252.906,0,0,512,512
252.953,0,0,512,512
253.011,0,0,512,512
253.058,0,0,512,512
253.105,0,0,512,512
253.152,0,0,512,512
253.21,0,0,512,512
253.257,0,0,512,512
253.304,2.77556e-17,0,512,512
253.351,2.77556e-17,0,512,512
253.41,0,0,512,512
253.457,0,0,512,512
253.503,0,0,512,512
253.55,2.77556e-17,0,512,512
253.609,2.77556e-17,0,512,512
253.656,2.77556e-17,0,512,512
253.703,2.77556e-17,0,512,512
253.761,0,0,512,512
253.808,0,0,512,512
253.855,0,0,512,512
253.902,-2.77556e-17,0,512,512
253.96,-2.77556e-17,0,512,512
254.007,0,0,512,512
254.054,0,0,512,512
254.101,-2.77556e-17,0,512,512
254.16,0,0,512,512
254.206,-2.77556e-17,0,512,512
254.253,0,0,512,512
254.3,0,0,512,512
254.359,0,0,512,512
254.406,0,0,512,512
254.452,0,0,512,512
254.511,-2.77556e-17,0,512,512
254.558,-2.77556e-17,0,512,512
254.605,-2.77556e-17,0,512,512
254.652,-2.77556e-17,0,512,512
254.71,-2.77556e-17,0,512,512
254.757,0,0,512,512
254.804,0,0,512,512
254.851,-2.77556e-17,0,512,512
254.909,-5.55112e-17,0,512,512
254.956,-2.77556e-17,0,512,512
255.003,-2.77556e-17,0,512,512
255.05,-2.77556e-17,0,512,512
255.109,-2.77556e-17,0,512,512
255.155,-2.77556e-17,0,512,512
255.202,-2.77556e-17,0,512,512
255.261,-2.77556e-17,0,512,512
255.308,-2.77556e-17,0,512,512
255.355,-2.77556e-17,0,512,512
255.402,-2.77556e-17,0,512,512
255.46,-2.77556e-17,0,512,512
255.507,-2.77556e-17,0,512,512
255.554,-2.77556e-17,0,512,512
255.601,0,0,512,512
255.659,0,0,512,512
255.706,0,0,512,512
255.753,0,0,512,512
255.812,0,0,512,512
255.859,0,0,512,512
255.905,2.77556e-17,0,512,512
255.952,0,0,512,512
256.011,0,0,512,512
256.058,0,0,512,512
256.105,0,0,512,512
256.151,0,0,512,512
256.21,0,0,512,512
256.257,2.77556e-17,0,512,512
256.304,2.77556e-17,0,512,512
256.351,0,0,512,512
256.409,0,0,512,512
256.456,0,0,512,512
256.503,0,0,512,512
256.562,0,0,512,512
256.608,0,0,512,512
256.655,-2.77556e-17,0,512,512
256.702,0,0,512,512
256.761,-2.77556e-17,0,512,512
256.808,0,0,512,512
256.854,-2.77556e-17,0,512,512
256.901,-2.77556e-17,0,512,512
256.96,-2.77556e-17,0,512,512
257.007,-2.77556e-17,0,512,512
257.054,0,0,512,512
257.101,-2.77556e-17,0,512,512
257.159,-2.77556e-17,0,512,512
257.206,0,0,512,512
257.253,0,0,512,512
257.311,0,0,512,512
257.358,2.77556e-17,0,512,512
257.405,2.77556e-17,0,512,512
257.452,0,0,512,512
257.511,0,0,512,512
257.557,0,0,512,512
257.604,0,0,512,512
257.651,0,0,512,512
257.71,-2.77556e-17,0,512,512
257.757,0,0,512,512
257.804,0,0,512,512
257.85,0,0,512,512
257.909,-2.77556e-17,0,512,512
257.956,-2.77556e-17,0,512,512
258.003,-2.77556e-17,0,512,512
258.061,0,0,512,512
258.108,0,0,512,512
258.155,0,0,512,512
258.202,0,0,512,512
258.261,0,0,512,512
258.307,-2.77556e-17,0,512,512
258.354,0,0,512,512
258.401,-2.77556e-17,0,512,512
258.46,-2.77556e-17,0,512,512
258.507,-2.77556e-17,0,512,512
258.553,-2.77556e-17,0,512,512
258.6,-2.77556e-17,0,512,512
258.659,-2.77556e-17,0,512,512
258.706,-5.55112e-17,0,512,512
258.753,-5.55112e-17,0,512,512
258.811,-5.55112e-17,0,512,512
258.858,-5.55112e-17,0,512,512
258.905,-2.77556e-17,0,512,512
258.952,0,0,512,512
259.01,0,0,512,512
259.057,-2.77556e-17,0,512,512
259.104,0,0,512,512
259.151,0,0,512,512
259.21,-2.77556e-17,0,512,512
259.256,-2.77556e-17,0,512,512
259.303,0,0,512,512
259.35,0,0,512,512
259.409,2.77556e-17,0,512,512
259.456,2.77556e-17,0,512,512
259.503,0,0,512,512
259.561,0,0,512,512
259.608,0,0,512,512
259.655,-2.77556e-17,0,512,512
259.702,-2.77556e-17,0,512,512
259.76,0,0,512,512
259.807,0,0,512,512
259.854,2.77556e-17,0,512,512
259.901,0,0,512,512
259.959,0,0,512,512
260.006,0,0,512,512
260.053,0,0,512,512
260.1,-2.77556e-17,0,512,512
260.159,-2.77556e-17,0,512,512
260.206,-2.77556e-17,0,512,512
260.252,-2.77556e-17,0,512,512
260.311,-2.77556e-17,0,512,512
260.358,-2.77556e-17,0,512,512
260.405,-2.77556e-17,0,512,512
260.452,-2.77556e-17,0,512,512
260.51,-2.77556e-17,0,512,512
260.557,-2.77556e-17,0,512,512
260.604,0,0,512,512
260.651,0,0,512,512
260.709,0,0,512,512
260.756,0,0,512,512
260.803,0,0,512,512
260.862,0,0,512,512
260.909,2.77556e-17,0,512,512
260.955,2.77556e-17,0,512,512
261.002,2.77556e-17,0,512,512
261.061,2.77556e-17,0,512,512
261.108,2.77556e-17,0,512,512
261.155,2.77556e-17,0,512,512
261.201,2.77556e-17,0,512,512
261.26,0,0,512,512
261.307,0,0,512,512
261.354,0,0,512,512
261.401,0,0,512,512
261.459,0,0,512,512
261.506,0,0,512,512
261.553,0,0,512,512
261.612,0,0,512,512
261.658,0,0,512,512
261.705,0,0,512,512
261.752,2.77556e-17,0,512,512
261.811,2.77556e-17,0,512,512
261.858,-2.77556e-17,0,512,512
261.905,0,0,512,512
261.951,0,0,512,512
262.01,0,0,512,512
262.057,0,0,512,512
262.104,0,0,512,512
262.151,0,0,512,512
262.209,0,0,512,512
262.256,2.77556e-17,0,512,512
262.303,2.77556e-17,0,512,512
262.361,0,0,512,512
262.408,0,0,512,512
262.455,0,0,512,512
262.502,0,0,512,512
262.561,0,0,512,512
262.608,2.77556e-17,0,512,512
262.654,2.77556e-17,0,512,512
262.701,2.77556e-17,0,512,512
262.76,2.77556e-17,0,512,512
262.807,0,0,512,512
262.854,0,0,512,512
262.9,2.77556e-17,0,512,512
262.959,0,0,512,512
263.006,0,0,512,512
263.053,0,0,512,512
263.111,0,0,512,512
263.158,0,0,512,512
263.205,0,0,512,512
263.252,0,0,512,512
263.311,0,0,512,512
263.357,2.77556e-17,0,512,512
263.404,2.77556e-17,0,512,512
263.451,2.77556e-17,0,512,512
263.51,0,0,512,512
263.557,0,0,512,512
263.603,0,0,512,512
263.65,0,0,512,512
263.709,-2.77556e-17,0,512,512
263.756,-2.77556e-17,0,512,512
263.803,-2.77556e-17,0,512,512
263.861,0,0,512,512
263.908,0,0,512,512
263.955,2.77556e-17,0,512,512
264.002,0,0,512,512
264.06,0,0,512,512
264.107,0,0,512,512
264.154,0,0,512,512
264.201,0,0,512,512
264.26,0,0,512,512
264.306,2.77556e-17,0,512,512
264.353,2.77556e-17,0,512,512
264.4,2.77556e-17,0,512,512
264.459,2.77556e-17,0,512,512
264.506,2.77556e-17,0,512,512
264.553,2.77556e-17,0,512,512
264.611,2.77556e-17,0,512,512
264.658,2.77556e-17,0,512,512
264.705,2.77556e-17,0,512,512
264.752,2.77556e-17,0,512,512
264.81,2.77556e-17,0,512,512
264.857,2.77556e-17,0,512,512
264.904,2.77556e-17,0,512,512
264.951,2.77556e-17,0,512,512
265.01,2.77556e-17,0,512,512
265.056,2.77556e-17,0,512,512
265.103,2.77556e-17,0,512,512
265.15,2.77556e-17,0,512,512
265.209,2.77556e-17,0,512,512
265.256,2.77556e-17,0,512,512
265.302,2.77556e-17,0,512,512
265.361,5.55112e-17,0,512,512
265.408,5.55112e-17,0,512,512
265.455,5.55112e-17,0,512,512
265.502,5.55112e-17,0,512,512
265.56,2.77556e-17,0,512,512
265.607,2.77556e-17,0,512,512
265.654,2.77556e-17,0,512,512
265.701,2.77556e-17,0,512,512
265.759,2.77556e-17,0,512,512
265.806,2.77556e-17,0,512,512
265.853,2.77556e-17,0,512,512
265.9,2.77556e-17,0,512,512
265.959,2.77556e-17,0,512,512
266.005,2.77556e-17,0,512,512
266.052,2.77556e-17,0,512,512
266.111,0,0,512,512
266.158,2.77556e-17,0,512,512
266.205,0,0,512,512
266.252,2.77556e-17,0,512,512
266.31,2.77556e-17,0,512,512
266.357,2.77556e-17,0,512,512
266.404,2.77556e-17,0,512,512
266.451,2.77556e-17,0,512,512
266.509,0,0,512,512
266.556,0,0,512,512
266.603,-2.77556e-17,0,512,512
266.662,-2.77556e-17,0,512,512
266.708,-2.77556e-17,0,512,512
266.755,0,0,512,512
266.802,-2.77556e-17,0,512,512
266.861,-2.77556e-17,0,512,512
266.908,-2.77556e-17,0,512,512
266.955,-2.77556e-17,0,512,512
267.001,-2.77556e-17,0,512,512
267.06,-2.77556e-17,0,512,512
267.107,-2.77556e-17,0,512,512
267.154,-2.77556e-17,0,512,512
267.201,-2.77556e-17,0,512,512
267.259,-2.77556e-17,0,512,512
267.306,-2.77556e-17,0,512,512
267.353,-2.77556e-17,0,512,512
267.412,-2.77556e-17,0,512,512
267.458,-2.77556e-17,0,512,512
267.505,-2.77556e-17,0,512,512
267.552,0,0,512,512
267.611,2.77556e-17,0,512,512
267.658,2.77556e-17,0,512,512
267.704,2.77556e-17,0,512,512
267.751,2.77556e-17,0,512,512
267.81,2.77556e-17,0,512,512
267.857,2.77556e-17,0,512,512
267.904,2.77556e-17,0,512,512
267.95,2.77556e-17,0,512,512
268.009,2.77556e-17,0,512,512
268.056,2.77556e-17,0,512,512
268.103,2.77556e-17,0,512,512
268.161,2.77556e-17,0,512,512
268.208,2.77556e-17,0,512,512
268.255,0,0,512,512
268.302,0,0,512,512
268.361,0,0,512,512
268.407,0,0,512,512
268.454,0,0,512,512
268.501,0,0,512,512
268.56,0,0,512,512
268.607,0,0,512,512
268.654,-2.77556e-17,0,512,512
268.7,-2.77556e-17,0,512,512
268.759,-2.77556e-17,0,512,512
268.806,-2.77556e-17,0,512,512
268.853,0,0,512,512
268.911,0,0,512,512
268.958,2.77556e-17,0,512,512
269.005,2.77556e-17,0,512,512
269.052,2.77556e-17,0,512,512
269.11,0,0,512,512
269.157,0,0,512,512
269.204,0,0,512,512
269.251,2.77556e-17,0,512,512
269.31,2.77556e-17,0,512,512
269.357,0,0,512,512
269.403,2.77556e-17,0,512,512
269.45,2.77556e-17,0,512,512
269.509,2.77556e-17,0,512,512
269.556,2.77556e-17,0,512,512
269.603,2.77556e-17,0,512,512
269.661,2.77556e-17,0,512,512
269.708,2.77556e-17,0,512,512
269.755,2.77556e-17,0,512,512
269.802,2.77556e-17,0,512,512
269.86,2.77556e-17,0,512,512
269.907,2.77556e-17,0,512,512
269.954,2.77556e-17,0,512,512
270.001,2.77556e-17,0,512,512
270.06,2.77556e-17,0,512,512
270.106,2.77556e-17,0,512,512
270.153,2.77556e-17,0,512,512
270.2,2.77556e-17,0,512,512
270.259,2.77556e-17,0,512,512
270.306,2.77556e-17,0,512,512
270.352,2.77556e-17,0,512,512
270.411,2.77556e-17,0,512,512
270.458,2.77556e-17,0,512,512
270.505,2.77556e-17,0,512,512
270.552,2.77556e-17,0,512,512
270.61,0,0,512,512
270.657,-3.88578e-16,0,512,512
270.701,-3.85803e-15,0,515,515
270.756,-4.52138e-14,0,521,521
270.803,-2.43139e-13,0,529,529
270.855,-1.14594e-12,0,537,537
270.902,-3.55801e-12,0,543,543
270.955,-1.01064e-11,0,551,551
271.002,-2.14068e-11,0,555,555
271.054,-4.17786e-11,0,561,561
271.101,-6.57467e-11,0,569,569
271.15,-9.2645e-11,0,585,585
271.2,-1.15185e-10,0,599,599
271.254,-1.2658e-10,0,615,615
271.304,-1.21252e-10,0,631,631
271.353,-1.01703e-10,0,647,647
271.403,-7.26957e-11,0,653,653
271.453,-4.03653e-11,0,652,652
271.502,-9.77249e-12,0,652,652
271.552,1.63796e-11,0,654,654
271.602,3.75418e-11,0,652,652
271.652,5.42625e-11,0,658,658
271.701,6.72235e-11,0,658,658
271.751,7.69075e-11,0,650,650
271.801,8.37893e-11,0,652,652
271.85,8.85776e-11,0,654,654
271.9,9.21568e-11,0,661,661
271.954,9.55127e-11,0,669,669
272.004,9.84262e-11,0,671,671
272.053,1.01015e-10,0,679,679
272.103,1.03031e-10,0,691,691
272.153,1.04446e-10,0,693,693
272.203,1.05519e-10,0,701,701
272.252,1.06581e-10,0,709,709
272.302,1.07779e-10,0,713,713
272.352,1.09012e-10,0,715,715
272.401,1.10181e-10,0,719,719
272.451,1.11656e-10,0,731,731
272.501,1.14945e-10,0,733,733
272.551,1.23911e-10,0,731,731
272.6,1.4715e-10,0,733,733
272.65,2.01789e-10,0,729,729
272.703,3.26993e-10,0,733,733
272.756,5.78488e-10,0,731,731
272.803,9.72417e-10,0,739,739
272.855,1.69395e-09,0,741,741
272.902,2.65831e-09,0,743,743
272.955,4.18102e-09,0,747,747
273.002,5.96413e-09,0,745,745
273.055,8.46802e-09,0,749,749
273.101,1.11259e-08,0,750,750
273.154,1.45809e-08,0,754,754
273.201,1.80591e-08,0,754,754
273.254,2.24613e-08,0,754,754
273.301,2.68834e-08,0,752,752
273.353,3.25787e-08,0,748,748
273.4,3.84548e-08,0,754,754
273.453,4.62224e-08,0,748,748
273.506,5.5488e-08,0,748,748
273.552,6.52042e-08,0,752,752
273.605,7.80186e-08,0,758,758
273.652,9.12269e-08,0,752,752
273.705,1.0823e-07,0,746,746
273.752,1.25264e-07,0,748,748
273.804,1.46512e-07,0,752,752
273.851,1.67092e-07,0,756,756
273.904,1.92035e-07,0,758,758
273.951,2.19088e-07,0,756,756
274.004,2.69419e-07,0,762,762
274.05,3.16936e-07,0,762,762
274.103,3.75425e-07,0,772,772
274.15,4.23528e-07,0,774,774
274.203,4.80894e-07,0,772,772
274.255,5.37273e-07,0,778,778
274.302,5.86981e-07,0,782,782
274.355,6.41995e-07,0,784,784
274.402,6.86574e-07,0,788,788
274.455,7.31978e-07,0,796,796
274.502,7.65628e-07,0,800,800
274.554,7.95414e-07,0,806,806
274.601,8.14841e-07,0,808,808
274.654,8.28685e-07,0,810,810
274.702,8.35209e-07,0,812,812
274.755,8.33483e-07,0,816,816
274.803,8.29265e-07,0,828,828
274.85,8.22024e-07,0,820,820
274.904,8.10154e-07,0,828,828
274.952,7.96615e-07,0,832,832
275.006,7.77871e-07,0,838,838
275.054,7.58517e-07,0,834,834
275.101,7.37544e-07,0,830,830
275.151,7.13033e-07,0,832,832
275.201,6.75832e-07,0,832,832
275.251,6.26509e-07,0,830,830
275.301,5.65291e-07,0,826,826
275.35,5.13185e-07,0,824,824
275.4,4.66341e-07,0,820,820
275.45,4.21301e-07,0,824,824
275.5,3.81838e-07,0,830,830
275.55,3.43093e-07,0,818,818
275.6,3.07798e-07,0,808,808
275.652,2.73704e-07,0,810,810
275.703,2.42919e-07,0,808,808
275.753,2.15458e-07,0,792,792
275.804,1.9005e-07,0,796,796
275.855,1.68033e-07,0,802,802
275.905,1.48751e-07,0,800,800
275.95,1.3361e-07,0,794,794
276.001,1.1851e-07,0,796,796
276.053,1.04555e-07,0,794,794
276.104,9.17267e-08,0,796,796
276.154,8.01867e-08,0,794,794
276.203,6.9141e-08,0,798,798
276.252,5.87937e-08,0,796,796
276.301,5.53204e-08,0,806,806
276.355,5.04109e-08,0,808,808
276.404,4.63327e-08,0,808,808
276.453,4.24526e-08,0,812,812
276.501,3.86288e-08,0,812,812
276.55,3.5247e-08,0,824,824
276.604,3.1984e-08,0,826,826
276.653,2.95709e-08,0,830,830
276.703,2.75324e-08,0,818,818
276.75,2.59463e-08,0,820,820
276.804,2.45843e-08,0,816,816
276.852,2.36987e-08,0,810,810
276.905,2.30433e-08,0,804,804
276.953,2.26443e-08,0,804,804
277.001,2.23522e-08,0,806,806
277.055,2.2083e-08,0,796,796
277.103,2.18673e-08,0,798,798
277.152,2.16834e-08,0,802,802
277.2,2.15256e-08,0,796,796
277.254,2.13631e-08,0,802,802
277.303,2.12142e-08,0,796,796
277.351,2.10577e-08,0,784,784
277.4,2.08961e-08,0,788,788
277.454,2.07176e-08,0,792,792
277.503,2.05572e-08,0,770,770
277.552,2.03887e-08,0,774,774
277.601,2.0205e-08,0,774,774
277.65,2.00037e-08,0,762,762
277.705,1.97566e-08,0,766,766
277.754,1.95084e-08,0,772,772
277.803,1.92336e-08,0,768,768
277.853,1.8934e-08,0,764,764
277.902,1.86125e-08,0,766,766
277.952,1.82698e-08,0,768,768
278.001,1.79039e-08,0,764,764
278.051,1.75142e-08,0,764,764
278.101,1.7101e-08,0,760,760
278.151,1.66648e-08,0,762,762
278.2,1.62073e-08,0,760,760
278.25,1.57327e-08,0,758,758
278.3,1.5246e-08,0,758,758
278.351,1.47533e-08,0,756,756
278.401,1.42606e-08,0,752,752
278.451,1.37719e-08,0,764,764
278.501,1.32899e-08,0,754,754
278.552,1.28158e-08,0,744,744
278.602,1.23499e-08,0,758,758
278.653,1.1895e-08,0,752,752
278.703,1.14563e-08,0,746,746
278.754,1.10393e-08,0,750,750
278.805,1.0653e-08,0,750,750
278.85,1.03394e-08,0,748,748
278.901,1.0021e-08,0,746,746
278.952,9.73784e-09,0,755,755
279.005,9.47781e-09,0,745,745
279.052,9.27127e-09,0,745,745
279.105,9.06178e-09,0,739,739
279.153,8.8891e-09,0,735,735
279.201,8.72807e-09,0,733,733
279.252,8.57206e-09,0,725,725
279.306,8.41831e-09,0,719,719
279.352,8.29627e-09,0,721,721
279.406,8.1663e-09,0,715,715
279.451,8.07096e-09,0,709,709
279.501,7.9757e-09,0,711,711
279.552,7.89553e-09,0,713,713
279.603,7.83022e-09,0,713,713
279.653,7.77856e-09,0,707,707
279.704,7.73873e-09,0,701,701
279.755,7.70878e-09,0,699,699
279.804,7.68766e-09,0,711,711
279.853,7.67346e-09,0,697,697
279.902,7.66519e-09,0,721,721
279.95,7.6626e-09,0,701,701
280.001,7.66489e-09,0,711,711
280.056,7.67182e-09,0,683,683
280.103,7.68027e-09,0,653,653
280.153,7.69019e-09,0,620,620
280.201,7.70001e-09,0,578,578
280.257,7.71132e-09,0,533,533
280.303,7.72054e-09,0,535,535
280.358,7.73256e-09,0,543,543
280.403,7.74365e-09,0,543,543
280.45,7.75642e-09,0,587,587
280.5,7.77125e-09,0,589,589
280.552,7.78743e-09,0,625,625
280.602,7.80336e-09,0,637,637
280.655,7.81985e-09,0,647,647
280.7,7.83367e-09,0,647,647
280.751,7.8492e-09,0,653,653
280.803,7.86506e-09,0,657,657
280.854,7.88158e-09,0,657,657
280.905,7.89881e-09,0,663,663
280.95,7.91467e-09,0,661,661
281.005,7.93397e-09,0,657,657
281.053,7.95078e-09,0,657,657
281.101,7.96735e-09,0,663,663
281.155,7.98602e-09,0,663,663
281.203,8.00236e-09,0,669,669
281.251,8.0191e-09,0,671,671
281.306,8.0394e-09,0,673,673
281.354,8.05885e-09,0,679,679
281.402,8.08058e-09,0,685,685
281.457,8.10909e-09,0,683,683
281.504,8.13805e-09,0,693,693
281.552,8.17158e-09,0,697,697
281.6,8.21056e-09,0,699,699
281.655,8.26311e-09,0,705,705
281.703,8.31746e-09,0,705,705
281.751,8.38115e-09,0,705,705
281.806,8.46755e-09,0,691,691
281.854,8.55903e-09,0,688,688
281.901,8.66039e-09,0,686,686
281.955,8.79961e-09,0,682,682
282.001,8.93947e-09,0,674,674
282.054,9.12992e-09,0,668,668
282.101,9.31964e-09,0,678,678
282.154,9.57569e-09,0,674,674
282.208,9.87348e-09,0,670,670
282.253,1.01659e-08,0,678,678
282.307,1.05554e-08,0,680,680
282.352,1.09348e-08,0,676,676
282.406,1.14372e-08,0,684,684
282.451,1.19248e-08,0,674,674
282.504,1.25683e-08,0,678,678
282.557,1.33031e-08,0,684,684
282.603,1.40147e-08,0,674,674
282.656,1.49524e-08,0,676,676
282.701,1.58594e-08,0,686,686
282.753,1.70507e-08,0,676,676
282.806,1.84005e-08,0,676,676
282.851,1.96956e-08,0,682,682
282.904,2.13791e-08,0,676,676
282.956,2.32614e-08,0,676,676
283.001,2.50423e-08,0,680,680
283.053,2.73228e-08,0,676,676
283.105,2.98301e-08,0,674,674
283.15,3.21658e-08,0,678,678
283.202,3.51111e-08,0,680,680
283.254,3.82971e-08,0,678,678
283.306,4.17265e-08,0,676,676
283.35,4.48567e-08,0,680,680
283.401,4.87345e-08,0,678,678
283.453,5.28647e-08,0,676,676
283.504,5.72509e-08,0,682,682
283.555,6.18984e-08,0,678,678
283.605,6.68255e-08,0,676,676
283.656,7.2046e-08,0,684,684
283.706,7.75627e-08,0,678,678
283.756,8.34048e-08,0,674,674
283.806,8.95909e-08,0,676,676
283.855,9.6131e-08,0,680,680
283.905,1.0305e-07,0,674,674
283.954,1.10377e-07,0,676,676
284.003,1.1813e-07,0,678,678
284.052,1.26332e-07,0,674,674
284.101,1.35027e-07,0,680,680
284.157,1.45614e-07,0,674,674
284.205,1.55485e-07,0,678,678
284.253,1.65977e-07,0,680,680
284.301,1.77148e-07,0,680,680
284.356,1.90803e-07,0,680,680
284.404,2.03559e-07,0,680,680
284.452,2.17124e-07,0,680,680
284.506,2.33643e-07,0,682,682
284.553,2.48988e-07,0,680,680
284.6,2.65146e-07,0,680,680
284.654,2.84611e-07,0,682,682
284.7,3.02493e-07,0,680,680
284.754,3.2385e-07,0,676,676
284.8,3.43318e-07,0,682,682
284.853,3.66454e-07,0,676,676
284.906,3.90497e-07,0,676,676
284.952,4.12244e-07,0,676,676
285.004,4.37762e-07,0,682,682
285.056,4.65408e-07,0,676,676
285.102,5.10676e-07,0,682,682
285.153,5.56211e-07,0,680,680
285.205,5.90651e-07,0,676,676
285.25,6.1859e-07,0,682,682
285.301,6.43369e-07,0,678,678
285.352,6.63198e-07,0,682,682
285.403,6.7797e-07,0,678,678
285.454,6.87758e-07,0,680,680
285.505,6.90044e-07,0,682,682
285.555,6.87918e-07,0,680,680
285.605,6.83474e-07,0,680,680
285.656,6.76626e-07,0,678,678
285.706,6.67233e-07,0,680,680
285.755,6.55821e-07,0,682,682
285.805,6.42194e-07,0,680,680
285.854,6.26685e-07,0,680,680
285.904,6.09325e-07,0,678,678
285.953,5.90251e-07,0,680,680
286.002,5.69583e-07,0,680,680
286.051,5.47414e-07,0,680,680
286.105,5.202e-07,0,682,682
286.154,4.74087e-07,0,686,686
286.202,4.26763e-07,0,678,678
286.251,3.85988e-07,0,682,682
286.305,3.39854e-07,0,678,678
286.353,3.01788e-07,0,680,680
286.4,2.65424e-07,0,688,688
286.454,2.25435e-07,0,680,680
286.501,1.92826e-07,0,678,678
286.555,1.57641e-07,0,684,684
286.602,1.29095e-07,0,686,686
286.655,9.94298e-08,0,684,684
286.702,7.53122e-08,0,678,678
286.754,5.11035e-08,0,676,676
286.801,3.15759e-08,0,680,680
286.854,1.2187e-08,0,680,680
286.901,-3.0811e-09,0,684,684
286.954,-1.81341e-08,0,680,680
287,-2.95951e-08,0,676,676
287.053,-4.22371e-08,0,686,686
287.1,-4.99709e-08,0,682,682
287.153,-5.42714e-08,0,682,682
287.205,-5.7132e-08,0,678,678
287.252,-5.94384e-08,0,676,676
287.305,-6.10346e-08,0,680,680
287.352,-6.21965e-08,0,680,680
287.405,-6.29126e-08,0,680,680
287.452,-6.3068e-08,0,678,678
287.504,-6.28083e-08,0,676,676
287.551,-6.22234e-08,0,672,672
287.604,-6.12749e-08,0,682,682
287.651,-6.01191e-08,0,680,680
287.703,-5.85618e-08,0,682,682
287.75,-5.69952e-08,0,674,674
287.803,-5.50357e-08,0,674,674
287.856,-5.29112e-08,0,676,676
287.903,-5.09334e-08,0,670,670
287.955,-4.86406e-08,0,676,676
288.002,-4.65536e-08,0,680,680
288.055,-4.4175e-08,0,682,682
288.102,-4.20623e-08,0,674,674
288.155,-3.97188e-08,0,674,674
288.201,-3.76784e-08,0,678,678
288.254,-3.54342e-08,0,668,668
288.301,-3.3491e-08,0,674,674
288.354,-3.13788e-08,0,676,676
288.401,-2.9581e-08,0,673,673
288.453,-2.76571e-08,0,665,665
288.5,-2.60386e-08,0,657,657
288.553,-2.43263e-08,0,649,649
288.606,-2.27341e-08,0,635,635
288.653,-2.14203e-08,0,636,636
288.705,-2.00526e-08,0,638,638
288.752,-1.89309e-08,0,636,636
288.805,-1.77713e-08,0,636,636
288.852,-1.6829e-08,0,638,638
288.904,-1.58645e-08,0,634,634
288.951,-1.50875e-08,0,632,632
289.004,-1.42976e-08,0,638,638
289.051,-1.36654e-08,0,638,638
289.104,-1.30266e-08,0,636,636
289.15,-1.2518e-08,0,636,636
289.203,-1.20074e-08,0,638,638
289.25,-1.16059e-08,0,632,632
289.303,-1.12124e-08,0,630,630
289.356,-1.08792e-08,0,636,636
289.402,-1.0631e-08,0,631,631
289.455,-1.04004e-08,0,627,627
289.502,-1.02334e-08,0,621,621
289.555,-1.00821e-08,0,615,615
289.602,-9.97614e-09,0,605,605
289.654,-9.88495e-09,0,599,599
289.701,-9.82648e-09,0,591,591
289.754,-9.78407e-09,0,583,583
289.801,-9.76521e-09,0,581,581
289.853,-9.76208e-09,0,571,571
289.9,-9.77218e-09,0,561,561
289.953,-9.79432e-09,0,557,557
290.006,-9.8246e-09,0,549,549
290.053,-9.85611e-09,0,541,541
290.105,-9.89463e-09,0,535,535
290.152,-9.93018e-09,0,527,527
290.202,-9.96795e-09,0,519,519
290.251,-1.00059e-08,0,515,515
290.304,-1.00457e-08,0,512,512
290.351,-1.00799e-08,0,512,512
290.41,-1.01203e-08,0,512,512
290.457,-1.01501e-08,0,512,512
290.504,-1.01772e-08,0,512,512
290.55,-1.02015e-08,0,512,512
290.609,-1.0228e-08,0,512,512
290.656,-1.02466e-08,0,512,512
290.703,-1.02634e-08,0,512,512
290.761,-1.02832e-08,0,512,512
290.808,-1.02987e-08,0,512,512
290.855,-1.0315e-08,0,512,512
290.902,-1.03329e-08,0,512,512
290.961,-1.03582e-08,0,512,512
291.007,-1.03812e-08,0,512,512
291.054,-1.04067e-08,0,512,512
291.101,-1.04352e-08,0,512,512
291.16,-1.04759e-08,0,512,512
291.207,-1.05142e-08,0,512,512
291.254,-1.05599e-08,0,512,512
291.3,-1.06154e-08,0,512,512
291.359,-1.07027e-08,0,512,512
291.406,-1.07898e-08,0,512,512
291.453,-1.08944e-08,0,512,512
291.511,-1.10521e-08,0,512,512
291.558,-1.12012e-08,0,512,512
291.605,-1.13713e-08,0,512,512
291.652,-1.15623e-08,0,512,512
291.71,-1.18292e-08,0,512,512
291.757,-1.20632e-08,0,512,512
291.804,-1.23126e-08,0,512,512
291.851,-1.25749e-08,0,512,512
291.91,-1.29167e-08,0,512,512
291.957,-1.31987e-08,0,512,512
292.003,-1.34867e-08,0,512,512
292.05,-1.37799e-08,0,512,512
292.109,-1.41533e-08,0,512,512
292.156,-1.44575e-08,0,512,512
292.203,-1.47667e-08,0,512,512
292.261,-1.51596e-08,0,512,512
292.308,-1.54782e-08,0,512,512
292.355,-1.57993e-08,0,512,512
292.402,-1.61215e-08,0,512,512
292.46,-1.65235e-08,0,512,512
292.507,-1.68427e-08,0,512,512
292.554,-1.71582e-08,0,512,512
292.601,-1.74686e-08,0,512,512
292.66,-1.78469e-08,0,512,512
292.706,-1.81402e-08,0,512,512
292.753,-1.84243e-08,0,512,512
292.8,-1.86986e-08,0,512,512
292.859,-1.90281e-08,0,512,512
292.906,-1.92814e-08,0,512,512
292.952,-1.95259e-08,0,512,512
293.011,-1.98195e-08,0,512,512
293.058,-2.0045e-08,0,512,512
293.105,-2.02623e-08,0,512,512
293.152,-2.04714e-08,0,512,512
293.21,-2.07204e-08,0,512,512
293.257,-2.0908e-08,0,512,512
293.304,-2.10833e-08,0,512,512
293.351,-2.12443e-08,0,512,512
293.409,-2.14231e-08,0,512,512
293.456,-2.15473e-08,0,512,512
293.503,-2.16552e-08,0,512,512
293.55,-2.17476e-08,0,512,512
293.609,-2.18429e-08,0,512,512
293.656,-2.19039e-08,0,512,512
293.702,-2.19519e-08,0,512,512
293.761,-2.19939e-08,0,512,512
293.808,-2.20131e-08,0,512,512
293.855,-2.20196e-08,0,512,512
293.902,-2.20135e-08,0,512,512
293.96,-2.19889e-08,0,512,512
294.007,-2.19561e-08,0,512,512
294.054,-2.19125e-08,0,512,512
294.101,-2.18587e-08,0,512,512
294.159,-2.17786e-08,0,512,512
294.206,-2.17053e-08,0,512,512
294.253,-2.16247e-08,0,512,512
294.312,-2.1515e-08,0,512,512
294.359,-2.14213e-08,0,512,512
294.405,-2.13231e-08,0,512,512
294.452,-2.12212e-08,0,512,512
294.511,-2.10898e-08,0,512,512
294.558,-2.09822e-08,0,512,512
294.605,-2.08732e-08,0,512,512
294.651,-2.07633e-08,0,512,512
294.71,-2.06255e-08,0,512,512
294.757,-2.05155e-08,0,512,512
294.804,-2.04061e-08,0,512,512
294.851,-2.02977e-08,0,512,512
294.909,-2.01639e-08,0,512,512
294.956,-2.00587e-08,0,512,512
295.003,-1.99551e-08,0,512,512
295.062,-1.98284e-08,0,512,512
295.108,-1.97293e-08,0,512,512
295.155,-1.96323e-08,0,512,512
295.202,-1.95375e-08,0,512,512
295.261,-1.94219e-08,0,512,512
295.308,-1.93319e-08,0,512,512
295.354,-1.92439e-08,0,512,512
295.401,-1.9158e-08,0,512,512
295.46,-1.90534e-08,0,512,512
295.507,-1.89719e-08,0,512,512
295.554,-1.8892e-08,0,512,512
295.601,-1.88139e-08,0,512,512
295.659,-1.87184e-08,0,512,512
295.706,-1.86435e-08,0,512,512
295.753,-1.85699e-08,0,512,512
295.811,-1.84795e-08,0,512,512
295.858,-1.84083e-08,0,512,512
295.905,-1.83378e-08,0,512,512
295.952,-1.82681e-08,0,512,512
296.011,-1.81817e-08,0,512,512
296.057,-1.8113e-08,0,512,512
296.104,-1.80446e-08,0,512,512
296.151,-1.79762e-08,0,512,512
296.21,-1.78907e-08,0,512,512
296.257,-1.78221e-08,0,512,512
296.304,-1.77531e-08,0,512,512
296.35,-1.76836e-08,0,512,512
296.409,-1.75959e-08,0,512,512
296.456,-1.75248e-08,0,512,512
296.503,-1.74527e-08,0,512,512
296.561,-1.73611e-08,0,512,512
296.608,-1.72863e-08,0,512,512
296.655,-1.72101e-08,0,512,512
296.702,-1.71323e-08,0,512,512
296.761,-1.70326e-08,0,512,512
296.807,-1.69506e-08,0,512,512
296.854,-1.68665e-08,0,512,512
296.901,-1.67801e-08,0,512,512
296.96,-1.66685e-08,0,512,512
297.007,-1.65763e-08,0,512,512
297.053,-1.64812e-08,0,512,512
297.1,-1.6383e-08,0,512,512
297.159,-1.62558e-08,0,512,512
297.206,-1.61502e-08,0,512,512
297.253,-1.6041e-08,0,512,512
297.311,-1.58991e-08,0,512,512
297.358,-1.57812e-08,0,512,512
297.405,-1.5659e-08,0,512,512
297.452,-1.55325e-08,0,512,512
297.51,-1.5368e-08,0,512,512
297.557,-1.52311e-08,0,512,512
297.604,-1.50892e-08,0,512,512
297.651,-1.49422e-08,0,512,512
297.71,-1.47509e-08,0,512,512
297.756,-1.45917e-08,0,512,512
297.803,-1.44267e-08,0,512,512
297.85,-1.42557e-08,0,512,512
297.909,-1.40332e-08,0,512,512
297.956,-1.3848e-08,0,512,512
298.003,-1.36561e-08,0,512,512
298.061,-1.34066e-08,0,512,512
298.108,-1.31988e-08,0,512,512
298.155,-1.29836e-08,0,512,512
298.202,-1.27607e-08,0,512,512
298.26,-1.24708e-08,0,512,512
298.307,-1.22297e-08,0,512,512
298.354,-1.198e-08,0,512,512
298.401,-1.17215e-08,0,512,512
298.459,-1.13857e-08,0,512,512
298.506,-1.11066e-08,0,512,512
298.553,-1.08179e-08,0,512,512
298.6,-1.05195e-08,0,512,512
298.659,-1.01326e-08,0,512,512
298.706,-9.81176e-09,0,512,512
298.752,-9.48087e-09,0,512,512
298.811,-9.05312e-09,0,512,512
298.858,-8.69971e-09,0,512,512
298.905,-8.33654e-09,0,512,512
298.952,-7.96389e-09,0,512,512
299.01,-7.48532e-09,0,512,512
299.057,-7.09285e-09,0,512,512
299.104,-6.69251e-09,0,512,512
299.151,-6.285e-09,0,512,512
299.209,-5.7668e-09,0,512,512
299.256,-5.34635e-09,0,512,512
299.303,-4.9218e-09,0,512,512
299.362,-4.38708e-09,0,512,512
299.409,-3.95759e-09,0,512,512
299.455,-3.52798e-09,0,512,512
299.502,-3.09961e-09,0,512,512
299.561,-2.56803e-09,0,512,512
299.608,-2.14761e-09,0,512,512
299.655,-1.73305e-09,0,512,512
299.701,-1.32579e-09,0,512,512
299.76,-8.29118e-10,0,512,512
299.807,-4.43364e-10,0,512,512
299.854,-6.93223e-11,0,512,512
299.901,2.91774e-10,0,512,512
299.959,7.23201e-10,0,512,512
300.006,1.05112e-09,0,512,512
300.053,1.36274e-09,0,512,512
300.112,1.72814e-09,0,512,512
300.158,2.00039e-09,0,512,512
300.205,2.25425e-09,0,512,512
300.252,2.48938e-09,0,512,512
300.311,2.75669e-09,0,512,512
300.358,2.94921e-09,0,512,512
300.405,3.12291e-09,0,512,512
300.451,3.27806e-09,0,512,512
300.51,3.44656e-09,0,512,512
300.557,3.56166e-09,0,512,512
300.604,3.66e-09,0,512,512
300.651,3.74233e-09,0,512,512
300.709,3.82405e-09,0,512,512
300.756,3.87364e-09,0,512,512
300.803,3.91026e-09,0,512,512
300.861,3.93939e-09,0,512,512
300.908,3.95069e-09,0,512,512
300.955,3.95247e-09,0,512,512
301.002,3.94581e-09,0,512,512
301.061,3.9272e-09,0,512,512
301.108,3.90531e-09,0,512,512
301.154,3.87823e-09,0,512,512
301.201,3.84688e-09,0,512,512
301.26,3.80294e-09,0,512,512
301.307,3.76491e-09,0,512,512
301.354,3.72507e-09,0,512,512
301.4,3.68398e-09,0,512,512
301.459,3.63165e-09,0,512,512
301.506,3.58949e-09,0,512,512
301.553,3.5474e-09,0,512,512
301.611,3.4952e-09,0,512,512
301.658,3.45391e-09,0,512,512
301.705,3.41306e-09,0,512,512
301.752,3.3726e-09,0,512,512
301.811,3.32234e-09,0,512,512
301.857,3.28215e-09,0,512,512
301.904,3.2417e-09,0,512,512
301.951,3.20068e-09,0,512,512
302.01,3.14811e-09,0,512,512
302.057,3.10461e-09,0,512,512
302.103,3.05946e-09,0,512,512
302.15,3.01236e-09,0,512,512
302.209,2.95034e-09,0,512,512
302.256,2.89794e-09,0,512,512
302.303,2.84291e-09,0,512,512
302.361,2.77032e-09,0,512,512
302.408,2.70923e-09,0,512,512
302.455,2.64558e-09,0,512,512
302.502,2.57957e-09,0,512,512
302.56,2.49418e-09,0,512,512
302.607,2.42401e-09,0,512,512
302.654,2.35268e-09,0,512,512
302.701,2.28069e-09,0,512,512
302.76,2.19061e-09,0,512,512
302.807,2.1192e-09,0,512,512
302.853,2.04902e-09,0,512,512
302.9,1.9807e-09,0,512,512
302.959,1.89883e-09,0,512,512
303.006,1.83688e-09,0,512,512
303.053,1.77868e-09,0,512,512
303.111,1.71196e-09,0,512,512
303.158,1.66395e-09,0,512,512
303.205,1.62113e-09,0,512,512
303.252,1.58379e-09,0,512,512
303.31,1.54517e-09,0,512,512
303.357,1.5209e-09,0,512,512
303.404,1.50257e-09,0,512,512
303.451,1.49017e-09,0,512,512
303.51,1.48285e-09,0,512,512
303.556,1.48331e-09,0,512,512
303.603,1.48911e-09,0,512,512
303.65,1.49994e-09,0,512,512
303.709,1.52001e-09,0,512,512
303.756,1.54077e-09,0,512,512
303.802,1.56525e-09,0,512,512
303.861,1.60034e-09,0,512,512
303.908,1.63143e-09,0,512,512
303.955,1.66468e-09,0,512,512
304.002,1.6996e-09,0,512,512
304.06,1.74489e-09,0,512,512
304.107,1.78189e-09,0,512,512
304.154,1.81913e-09,0,512,512
304.201,1.85619e-09,0,512,512
304.259,1.90175e-09,0,512,512
304.306,1.93717e-09,0,512,512
304.353,1.97137e-09,0,512,512
304.4,2.00411e-09,0,512,512
304.459,2.04265e-09,0,512,512
304.505,2.07135e-09,0,512,512
304.552,2.09801e-09,0,512,512
304.611,2.1283e-09,0,512,512
304.658,2.15003e-09,0,512,512
304.705,2.16947e-09,0,512,512
304.752,2.18663e-09,0,512,512
304.81,2.20485e-09,0,512,512
304.857,2.21689e-09,0,512,512
304.904,2.22673e-09,0,512,512
304.951,2.23443e-09,0,512,512
