250,0,0,512,512
250.012,0,0,512,512
250.059,0,0,512,512
250.105,0,0,512,512
250.152,0,0,512,512
250.211,0,0,512,512
250.258,0,0,512,512
250.305,0,0,512,512
250.352,0,0,512,512
250.41,0,0,512,512
250.457,0,0,512,512
250.504,0,0,512,512
250.551,0,0,512,512
250.609,0,0,512,512
250.656,0,0,512,512
250.703,0,0,512,512
250.762,0,0,512,512
250.808,0,0,512,512
250.855,0,0,512,512
250.902,0,0,512,512
250.961,0,0,512,512
251.008,0,0,512,512
251.055,0,0,512,512
251.101,0,0,512,512
251.16,0,0,512,512
251.207,0,0,512,512
251.254,0,0,512,512
251.301,0,0,512,512
251.359,0,0,512,512
251.406,0,0,512,512
251.453,0,0,512,512
251.511,0,0,512,512
251.558,0,0,512,512
251.605,0,0,512,512
251.652,0,0,512,512
251.711,0,0,512,512
251.758,0,0,512,512
251.804,0,0,512,512
251.851,0,0,512,512
251.91,0,0,512,512
251.957,0,0,512,512
252.004,0,0,512,512
252.05,0,0,512,512
252.109,0,0,512,512
252.156,0,0,512,512
252.203,0,0,512,512
252.261,0,0,512,512
252.308,0,0,512,512
252.355,0,0,512,512
252.402,0,0,512,512
252.461,0,0,512,512
252.507,0,0,512,512
252.554,0,0,512,512
252.601,0,0,512,512
252.66,0,0,512,512
252.707,0,0,512,512
252.754,0,0,512,512
252.8,0,0,512,512
252.859,0,0,512,512
252.906,0,0,512,512
252.953,0,0,512,512
253.011,0,0,512,512
253.058,0,0,512,512
253.105,0,0,512,512
253.152,0,0,512,512
253.21,0,0,512,512
253.257,0,0,512,512
253.304,0,0,512,512
253.351,0,0,512,512
253.41,0,0,512,512
253.457,0,0,512,512
253.503,0,0,512,512
253.55,0,0,512,512
253.609,0,0,512,512
253.656,0,0,512,512
253.703,0,0,512,512
253.761,0,0,512,512
253.808,0,0,512,512
253.855,0,0,512,512
253.902,0,0,512,512
253.96,0,0,512,512
254.007,0,0,512,512
254.054,0,0,512,512
254.101,0,0,512,512
254.16,0,0,512,512
254.206,0,0,512,512
254.253,0,0,512,512
254.3,0,0,512,512
254.359,0,0,512,512
254.406,0,0,512,512
254.452,0,0,512,512
254.511,0,0,512,512
254.558,0,0,512,512
254.605,0,0,512,512
254.652,0,0,512,512
254.71,0,0,512,512
254.757,0,0,512,512
254.804,0,0,512,512
254.851,0,0,512,512
254.909,0,0,512,512
254.956,0,0,512,512
255.003,0,0,512,512
255.05,0,0,512,512
255.109,0,0,512,512
255.155,0,0,512,512
255.202,0,0,512,512
255.261,0,0,512,512
255.308,0,0,512,512
255.355,0,0,512,512
255.402,0,0,512,512
255.46,0,0,512,512
255.507,0,0,512,512
255.554,0,0,512,512
255.601,0,0,512,512
255.659,0,0,512,512
255.706,0,0,512,512
255.753,0,0,512,512
255.812,0,0,512,512
255.859,0,0,512,512
255.905,0,0,512,512
255.952,0,0,512,512
256.011,0,0,512,512
256.058,0,0,512,512
256.105,0,0,512,512
256.151,0,0,512,512
256.21,0,0,512,512
256.257,0,0,512,512
256.304,0,0,512,512
256.351,0,0,512,512
256.409,0,0,512,512
256.456,0,0,512,512
256.503,0,0,512,512
256.562,0,0,512,512
256.608,0,0,512,512
256.655,0,0,512,512
256.702,0,0,512,512
256.761,0,0,512,512
256.808,0,0,512,512
256.854,0,0,512,512
256.901,0,0,512,512
256.96,0,0,512,512
257.007,0,0,512,512
257.054,0,0,512,512
257.101,0,0,512,512
257.159,0,0,512,512
257.206,0,0,512,512
257.253,0,0,512,512
257.311,0,0,512,512
257.358,0,0,512,512
257.405,0,0,512,512
257.452,0,0,512,512
257.511,0,0,512,512
257.557,0,0,512,512
257.604,0,0,512,512
257.651,0,0,512,512
257.71,0,0,512,512
257.757,0,0,512,512
257.804,0,0,512,512
257.85,0,0,512,512
257.909,0,0,512,512
257.956,0,0,512,512
258.003,0,0,512,512
258.061,0,0,512,512
258.108,0,0,512,512
258.155,0,0,512,512
258.202,0,0,512,512
258.261,0,0,512,512
258.307,0,0,512,512
258.354,0,0,512,512
258.401,0,0,512,512
258.46,0,0,512,512
258.507,0,0,512,512
258.553,0,0,512,512
258.6,0,0,512,512
258.659,0,0,512,512
258.706,0,0,512,512
258.753,0,0,512,512
258.811,0,0,512,512
258.858,0,0,512,512
258.905,0,0,512,512
258.952,0,0,512,512
259.01,0,0,512,512
259.057,0,0,512,512
259.104,0,0,512,512
259.151,0,0,512,512
259.21,0,0,512,512
259.256,0,0,512,512
259.303,0,0,512,512
259.35,0,0,512,512
259.409,0,0,512,512
259.456,0,0,512,512
259.503,0,0,512,512
259.561,0,0,512,512
259.608,0,0,512,512
259.655,0,0,512,512
259.702,0,0,512,512
259.76,0,0,512,512
259.807,0,0,512,512
259.854,0,0,512,512
259.901,0,0,512,512
259.959,0,0,512,512
260.006,0,0,512,512
260.053,0,0,512,512
260.1,0,0,512,512
260.159,0,0,512,512
260.206,0,0,512,512
260.252,-5.55112e-17,0,512,512
260.311,-5.55112e-17,0,512,512
260.358,-5.55112e-17,0,512,512
260.405,-5.55112e-17,0,512,512
260.452,-5.55112e-17,0,512,512
260.51,-2.77556e-17,0,512,512
260.557,-2.77556e-17,0,512,512
260.604,-2.77556e-17,0,512,512
260.651,-2.77556e-17,0,512,512
260.709,-2.77556e-17,0,512,512
260.756,-2.77556e-17,0,512,512
260.803,-2.77556e-17,0,512,512
260.862,-2.77556e-17,0,512,512
260.909,-2.77556e-17,0,512,512
260.955,-2.77556e-17,0,512,512
261.002,-2.77556e-17,0,512,512
261.061,-2.77556e-17,0,512,512
261.108,-2.77556e-17,0,512,512
261.155,-2.77556e-17,0,512,512
261.201,-2.77556e-17,0,512,512
261.26,0,0,512,512
261.307,0,0,512,512
261.354,0,0,512,512
261.401,0,0,512,512
261.459,0,0,512,512
261.506,0,0,512,512
261.553,0,0,512,512
261.612,2.77556e-17,0,512,512
261.658,2.77556e-17,0,512,512
261.705,2.77556e-17,0,512,512
261.752,2.77556e-17,0,512,512
261.811,2.77556e-17,0,512,512
261.858,2.77556e-17,0,512,512
261.905,2.77556e-17,0,512,512
261.951,2.77556e-17,0,512,512
262.01,5.55112e-17,0,512,512
262.057,5.55112e-17,0,512,512
262.104,5.55112e-17,0,512,512
262.151,5.55112e-17,0,512,512
262.209,5.55112e-17,0,512,512
262.256,2.77556e-17,0,512,512
262.303,2.77556e-17,0,512,512
262.361,2.77556e-17,0,512,512
262.408,2.77556e-17,0,512,512
262.455,5.55112e-17,0,512,512
262.502,5.55112e-17,0,512,512
262.561,5.55112e-17,0,512,512
262.608,5.55112e-17,0,512,512
262.654,5.55112e-17,0,512,512
262.701,5.55112e-17,0,512,512
262.76,5.55112e-17,0,512,512
262.807,5.55112e-17,0,512,512
262.854,5.55112e-17,0,512,512
262.9,5.55112e-17,0,512,512
262.959,5.55112e-17,0,512,512
263.006,5.55112e-17,0,512,512
263.053,5.55112e-17,0,512,512
263.111,5.55112e-17,0,512,512
263.158,2.77556e-17,0,512,512
263.205,2.77556e-17,0,512,512
263.252,5.55112e-17,0,512,512
263.311,2.77556e-17,0,512,512
263.357,0,0,512,512
263.404,0,0,512,512
263.451,0,0,512,512
263.51,0,0,512,512
263.557,0,0,512,512
263.603,0,0,512,512
263.65,0,0,512,512
263.709,0,0,512,512
263.756,0,0,512,512
263.803,0,0,512,512
263.861,0,0,512,512
263.908,0,0,512,512
263.955,0,0,512,512
264.002,0,0,512,512
264.06,0,0,512,512
264.107,0,0,512,512
264.154,0,0,512,512
264.201,0,0,512,512
264.26,0,0,512,512
264.306,0,0,512,512
264.353,0,0,512,512
264.4,2.77556e-17,0,512,512
264.459,2.77556e-17,0,512,512
264.506,2.77556e-17,0,512,512
264.553,0,0,512,512
264.611,0,0,512,512
264.658,0,0,512,512
264.705,0,0,512,512
264.752,0,0,512,512
264.81,0,0,512,512
264.857,0,0,512,512
264.904,0,0,512,512
264.951,0,0,512,512
265.01,0,0,512,512
265.056,0,0,512,512
265.103,0,0,512,512
265.15,0,0,512,512
265.209,0,0,512,512
265.256,0,0,512,512
265.302,0,0,512,512
265.361,0,0,512,512
265.408,0,0,512,512
265.455,0,0,512,512
265.502,0,0,512,512
265.56,0,0,512,512
265.607,0,0,512,512
265.654,0,0,512,512
265.701,0,0,512,512
265.759,0,0,512,512
265.806,0,0,512,512
265.853,0,0,512,512
265.9,0,0,512,512
265.959,0,0,512,512
266.005,0,0,512,512
266.052,0,0,512,512
266.111,0,0,512,512
266.158,0,0,512,512
266.205,0,0,512,512
266.252,0,0,512,512
266.31,0,0,512,512
266.357,0,0,512,512
266.404,0,0,512,512
266.451,0,0,512,512
266.509,0,0,512,512
266.556,0,0,512,512
266.603,0,0,512,512
266.662,0,0,512,512
266.708,0,0,512,512
266.755,0,0,512,512
266.802,0,0,512,512
266.861,0,0,512,512
266.908,0,0,512,512
266.955,0,0,512,512
267.001,0,0,512,512
267.06,0,0,512,512
267.107,0,0,512,512
267.154,0,0,512,512
267.201,0,0,512,512
267.259,0,0,512,512
267.306,0,0,512,512
267.353,0,0,512,512
267.412,0,0,512,512
267.458,0,0,512,512
267.505,0,0,512,512
267.552,0,0,512,512
267.611,0,0,512,512
267.658,0,0,512,512
267.704,0,0,512,512
267.751,0,0,512,512
267.81,0,0,512,512
267.857,0,0,512,512
267.904,0,0,512,512
267.95,0,0,512,512
268.009,0,0,512,512
268.056,0,0,512,512
268.103,0,0,551,551
268.151,0,0,855,855
268.201,0,0,1065,1065
268.251,0,0,1293,1293
268.301,0,0,1509,1509
268.351,0,0,1761,1761
268.4,0,0,1989,1989
268.45,0,0,2199,2199
268.5,0,0,2427,2427
268.551,0,0,2643,2643
268.601,0,0,2871,2871
268.651,0,0,3103,3103
268.701,0,0,3329,3329
268.75,0,0,3561,3561
268.8,0,0,3777,3777
268.85,0,0,4005,4005
268.901,0,0,4215,4215
268.951,0,0,4443,4443
269.001,0,0,4659,4659
269.051,0,0,4887,4887
269.101,0,0,5111,5111
269.15,0,0,5333,5333
269.2,0,0,5561,5561
269.251,0,0,5695,5695
269.301,0,0,5907,5907
269.351,0,0,6119,6119
269.401,0,0,6339,6339
269.451,0,0,6555,6555
269.5,0,0,6735,6735
269.55,0,0,6975,6975
269.601,0,0,7213,7213
269.651,0,0,7425,7425
269.701,0,0,7609,7609
269.751,0,0,7853,7853
269.801,0,0,7975,7975
269.85,0,0,8103,8103
269.9,0,0,8261,8261
269.95,0,0,8487,8487
270.001,0,0,8693,8693
270.051,0,0,8917,8917
270.101,0,0,9133,9133
270.151,0,0,9361,9361
270.2,0,0,9571,9571
270.25,0,0,9799,9799
270.3,0,0,9991,9991
270.351,0,0,10231,10231
270.401,0,0,10421,10421
270.451,0,0,10637,10637
270.501,0,0,10889,10889
270.551,0,0,11073,11073
270.6,0,0,11283,11283
270.65,0,0,11511,11511
270.701,0,0,11705,11705
270.751,0,0,11889,11889
270.801,0,0,12093,12093
270.851,0,0,12291,12291
270.901,0,0,12519,12519
270.95,0,0,12699,12699
271,0,0,12901,12901
271.051,0,0,13077,13077
271.101,0,0,13235,13235
271.151,0,0,13453,13453
271.201,0,0,13623,13623
271.251,0,0,13821,13821
271.3,0,0,13945,13945
271.35,0,0,14107,14107
271.4,0,0,14315,14315
271.451,0,0,14427,14427
271.501,0,0,14593,14593
271.551,0,0,14747,14747
271.601,0,0,14911,14911
271.65,0,0,15115,15115
271.7,0,0,15311,15311
271.75,-4.71845e-16,0,15601,15601
271.801,-1.41553e-15,0,15891,15891
271.851,-2.27596e-15,0,16193,16193
271.901,-3.21965e-15,0,16503,16503
271.951,-4.66294e-15,0,16801,16801
272,-8.18789e-15,0,17025,17025
272.05,-1.63758e-14,0,17187,17187
272.1,-3.40561e-14,0,17403,17403
272.151,-7.14706e-14,0,17605,17605
272.201,-1.42109e-13,0,17777,17777
272.251,-2.71616e-13,0,17957,17957
272.301,-4.98268e-13,0,18151,18151
272.351,-8.78353e-13,0,18321,18321
272.4,-1.49011e-12,0,18481,18481
272.45,-2.43636e-12,0,18603,18603
272.501,-3.89477e-12,0,18735,18735
272.551,-5.93531e-12,0,18921,18921
272.601,-8.75491e-12,0,19053,19053
272.651,-1.25166e-11,0,19159,19159
272.701,-1.73652e-11,0,19325,19325
272.75,-2.34068e-11,0,19513,19513
272.8,-3.06874e-11,0,19671,19671
272.851,-3.94421e-11,0,19883,19883
272.901,-4.90497e-11,0,20201,20201
272.951,-5.96428e-11,0,20533,20533
273.001,-7.63225e-11,0,20745,20745
273.051,-2.00456e-10,0,20905,20905
273.1,-3.2801e-10,0,21091,21091
273.15,-3.01572e-10,0,21275,21275
273.2,-1.1574e-10,0,21443,21443
273.251,1.15081e-10,0,21593,21593
273.301,2.37036e-10,0,21795,21795
273.351,1.99321e-10,0,21939,21939
273.401,5.83418e-11,0,22129,22129
273.45,-2.26138e-11,0,22261,22261
273.5,7.09466e-12,0,22407,22407
273.55,7.16038e-11,0,22551,22551
273.601,1.93943e-10,0,22701,22701
273.651,2.0536e-10,0,22903,22903
273.701,1.17846e-10,0,23045,23045
273.751,3.98471e-11,0,23205,23205
273.801,3.17233e-11,0,23427,23427
273.85,7.2571e-11,0,23635,23635
273.9,1.50253e-10,0,23965,23965
273.951,2.02265e-10,0,24255,24255
274.001,1.66215e-10,0,24543,24543
274.051,9.25481e-11,0,24693,24693
274.101,4.72127e-11,0,24879,24879
274.151,5.25546e-11,0,25047,25047
274.2,1.07662e-10,0,25197,25197
274.25,1.94469e-10,0,25383,25383
274.301,2.38931e-10,0,25551,25551
274.351,1.58211e-10,0,25737,25737
274.401,-1.11202e-11,0,25887,25887
274.451,-1.08296e-10,0,26055,26055
274.501,1.95061e-11,0,26241,26241
274.55,3.26764e-10,0,26391,26391
274.6,5.12735e-10,0,26559,26559
274.651,2.51377e-10,0,26745,26745
274.701,-3.24017e-10,0,26895,26895
274.751,-4.68273e-10,0,26967,26967
274.801,8.47668e-10,0,27073,27073
274.851,4.255e-09,0,27191,27191
274.9,9.51847e-09,0,27375,27375
274.95,1.56625e-08,0,27509,27509
275,2.15256e-08,0,27687,27687
275.051,2.6419e-08,0,27863,27863
275.101,2.99033e-08,0,27981,27981
275.151,3.27032e-08,0,28149,28149
275.201,3.59359e-08,0,28327,28327
275.25,4.08452e-08,0,28497,28497
275.3,4.82569e-08,0,28611,28611
275.35,5.83144e-08,0,28759,28759
275.401,7.11621e-08,0,28861,28861
275.451,8.60315e-08,0,29015,29015
275.501,1.03868e-07,0,29169,29169
275.551,1.25835e-07,0,29333,29333
275.601,1.53216e-07,0,29483,29483
275.65,1.86944e-07,0,29741,29741
275.7,2.27209e-07,0,30037,30037
275.751,2.74662e-07,0,30267,30267
275.801,3.24954e-07,0,30429,30429
275.851,3.77698e-07,0,30579,30579
275.901,4.32124e-07,0,30747,30747
275.951,4.88652e-07,0,30885,30885
276,5.48051e-07,0,31023,31023
276.05,6.10027e-07,0,31185,31185
276.101,6.74253e-07,0,31311,31311
276.151,7.33472e-07,0,31461,31461
276.201,7.85954e-07,0,31587,31587
276.251,8.29113e-07,0,31755,31755
276.301,8.61825e-07,0,31881,31881
276.35,8.84452e-07,0,32031,32031
276.4,8.98539e-07,0,32273,32273
276.45,9.06146e-07,0,32688,32688
276.501,9.09088e-07,0,32672,32672
276.551,9.08195e-07,0,32656,32656
276.601,9.0372e-07,0,32548,32548
276.651,8.95123e-07,0,32536,32536
276.7,8.81478e-07,0,32576,32576
276.75,8.61706e-07,0,32528,32528
276.8,8.34808e-07,0,32496,32496
276.851,7.99001e-07,0,32488,32488
276.901,7.56422e-07,0,32336,32336
276.951,7.0732e-07,0,32380,32380
277.001,6.53894e-07,0,32444,32444
277.051,5.98853e-07,0,32268,32268
277.1,5.44672e-07,0,32364,32364
277.15,4.93091e-07,0,32420,32420
277.201,4.43656e-07,0,32440,32440
277.251,3.99399e-07,0,32440,32440
277.301,3.58561e-07,0,32488,32488
277.351,3.20597e-07,0,32292,32292
277.401,2.84927e-07,0,32344,32344
277.45,2.51176e-07,0,32428,32428
277.5,2.19435e-07,0,32496,32496
277.551,1.89624e-07,0,32768,32768
277.601,1.6459e-07,0,32768,32768
277.651,1.44191e-07,0,32768,32768
277.701,1.28016e-07,0,32768,32768
277.751,1.1443e-07,0,32768,32768
277.8,1.01494e-07,0,32768,32768
277.85,8.81867e-08,0,32768,32768
277.9,7.48939e-08,0,32768,32768
277.951,6.25268e-08,0,32768,32768
278.001,5.28912e-08,0,32768,32768
278.051,4.587e-08,0,32768,32768
278.101,4.08879e-08,0,32768,32768
278.15,3.68474e-08,0,32768,32768
278.2,3.25784e-08,0,32768,32768
278.25,2.73643e-08,0,32768,32768
278.301,2.11702e-08,0,32768,32768
278.351,1.5332e-08,0,32768,32768
278.401,1.08228e-08,0,32768,32768
278.451,8.23025e-09,0,32768,32768
278.501,7.32348e-09,0,32768,32768
278.55,7.37949e-09,0,32768,32768
278.6,7.71493e-09,0,32768,32768
278.651,7.99008e-09,0,32768,32768
278.701,8.14327e-09,0,32768,32768
278.751,8.24818e-09,0,32768,32768
278.801,8.33749e-09,0,32768,32768
278.851,8.37211e-09,0,32768,32768
278.9,8.26935e-09,0,32768,32768
278.95,7.99346e-09,0,32768,32768
279.001,7.62396e-09,0,32768,32768
279.051,7.33448e-09,0,32768,32768
279.101,7.18242e-09,0,32768,32768
279.151,7.13487e-09,0,32768,32768
279.201,7.13494e-09,0,32768,32768
279.25,7.1494e-09,0,32768,32768
279.3,7.16683e-09,0,32768,32768
279.351,7.18515e-09,0,32768,32768
279.401,7.20286e-09,0,32768,32768
279.451,7.22041e-09,0,32768,32768
279.501,7.23783e-09,0,32768,32768
279.551,7.25507e-09,0,32768,32768
279.6,7.27203e-09,0,32768,32768
279.65,7.28858e-09,0,32768,32768
279.7,7.30473e-09,0,32768,32768
279.751,7.32102e-09,0,32768,32768
279.801,7.33656e-09,0,32768,32768
279.851,7.35186e-09,0,32768,32768
279.901,7.36691e-09,0,32768,32768
279.95,7.38203e-09,0,32768,32768
280,7.39836e-09,0,32768,32768
280.05,7.41835e-09,0,32768,32768
280.101,7.44652e-09,0,32768,32768
280.151,7.48508e-09,0,32768,32768
280.201,7.53723e-09,0,32768,32768
280.251,7.60434e-09,0,32768,32768
280.301,7.68844e-09,0,32768,32768
280.35,7.7936e-09,0,32768,32768
280.4,7.92528e-09,0,32768,32768
280.451,8.09455e-09,0,32768,32768
280.501,8.29722e-09,0,32768,32768
280.551,8.54039e-09,0,32768,32768
280.601,8.82198e-09,0,32768,32768
280.651,9.13859e-09,0,32768,32768
280.7,9.4937e-09,0,32768,32768
280.75,9.90157e-09,0,32768,32768
280.801,1.03994e-08,0,32768,32768
280.851,1.09827e-08,0,32768,32768
280.901,1.16858e-08,0,32768,32768
280.951,1.25289e-08,0,32768,32768
281.001,1.35321e-08,0,32768,32768
281.05,1.47167e-08,0,32768,32768
281.1,1.61037e-08,0,32768,32768
281.15,1.77111e-08,0,32768,32768
281.201,1.96102e-08,0,32768,32768
281.251,2.17013e-08,0,32768,32768
281.301,2.40408e-08,0,32768,32768
281.351,2.66327e-08,0,32768,32768
281.4,2.94772e-08,0,32768,32768
281.45,3.25672e-08,0,32768,32768
281.5,3.58849e-08,0,32768,32768
281.551,3.95079e-08,0,32768,32768
281.601,4.31939e-08,0,32768,32768
281.651,4.70111e-08,0,32768,32768
281.701,5.09335e-08,0,32768,32768
281.751,5.49415e-08,0,32768,32768
281.8,5.90185e-08,0,32768,32768
281.85,6.3151e-08,0,32768,32768
281.901,6.74664e-08,0,32768,32768
281.951,7.17638e-08,0,32768,32768
282.001,7.62747e-08,0,32768,32768
282.051,8.11672e-08,0,32768,32768
282.101,8.66212e-08,0,32768,32768
282.15,9.27522e-08,0,32768,32768
282.2,9.95413e-08,0,32768,32768
282.251,1.07036e-07,0,32768,32768
282.301,1.14527e-07,0,32768,32768
282.351,1.2196e-07,0,32768,32768
282.401,1.29199e-07,0,32768,32768
282.451,1.36312e-07,0,32768,32768
282.5,1.43579e-07,0,32768,32768
282.55,1.5143e-07,0,32768,32768
282.6,1.60356e-07,0,32768,32768
282.651,1.71169e-07,0,32768,32768
282.701,1.837e-07,0,32768,32768
282.751,1.98655e-07,0,32768,32768
282.801,2.16486e-07,0,32768,32768
282.85,2.37673e-07,0,32768,32768
282.9,2.62678e-07,0,32768,32768
282.95,2.91844e-07,0,32768,32768
283.001,3.26339e-07,0,32768,32768
283.051,3.64017e-07,0,32768,32768
283.101,4.05372e-07,0,32768,32768
283.151,4.49807e-07,0,32768,32768
283.201,4.96659e-07,0,32768,32768
283.25,5.45237e-07,0,32768,32768
283.3,5.94769e-07,0,32768,32768
283.351,6.45726e-07,0,32768,32768
283.401,6.93887e-07,0,32768,32768
283.451,7.39145e-07,0,32768,32768
283.501,7.79804e-07,0,32768,32768
283.551,8.143e-07,0,32768,32768
283.6,8.41472e-07,0,32768,32768
283.65,8.60744e-07,0,32768,32768
283.701,8.72375e-07,0,32768,32768
283.751,8.76237e-07,0,32768,32768
283.801,8.73554e-07,0,32768,32768
283.851,8.65102e-07,0,32768,32768
283.901,8.5145e-07,0,32768,32768
283.95,8.32863e-07,0,32768,32768
284,8.09313e-07,0,32768,32768
284.051,7.79652e-07,0,32768,32768
284.101,7.45325e-07,0,32768,32768
284.151,7.05485e-07,0,32768,32768
284.201,6.60379e-07,0,32768,32768
284.251,6.10677e-07,0,32768,32768
284.3,5.57464e-07,0,32768,32768
284.35,5.02136e-07,0,32768,32768
284.4,4.46212e-07,0,32768,32768
284.451,3.89535e-07,0,32768,32768
284.501,3.36545e-07,0,32768,32768
284.551,2.86411e-07,0,32768,32768
284.601,2.39579e-07,0,32768,32768
284.65,1.96201e-07,0,32768,32768
284.7,1.56261e-07,0,32768,32768
284.75,1.197e-07,0,32768,32768
284.801,8.55852e-08,0,32768,32768
284.851,5.59308e-08,0,32768,32768
284.901,2.97935e-08,0,32768,32768
284.951,7.17101e-09,0,32768,32768
285.001,-1.21098e-08,0,32768,32768
285.05,-2.84085e-08,0,32768,32768
285.1,-4.21952e-08,0,32768,32768
285.151,-5.42341e-08,0,32768,32768
285.201,-6.41475e-08,0,32768,32768
285.251,-7.24297e-08,0,32768,32768
285.301,-7.90859e-08,0,32768,32768
285.351,-8.41218e-08,0,32768,32768
285.4,-8.76452e-08,0,32768,32768
285.45,-8.98958e-08,0,32768,32768
285.501,-9.12178e-08,0,32768,32768
285.551,-9.18308e-08,0,32768,32768
285.601,-9.19468e-08,0,32768,32768
285.651,-9.15692e-08,0,32768,32768
285.701,-9.05863e-08,0,32768,32768
285.75,-8.88643e-08,0,32768,32768
285.8,-8.63398e-08,0,32768,32768
285.85,-8.30673e-08,0,32768,32768
285.901,-7.90891e-08,0,32768,32768
285.951,-7.48572e-08,0,32768,32768
286.001,-7.04833e-08,0,32768,32768
286.051,-6.61446e-08,0,32768,32768
286.1,-6.19662e-08,0,32768,32768
286.15,-5.80274e-08,0,32768,32768
286.2,-5.43727e-08,0,32768,32768
286.251,-5.09274e-08,0,32768,32768
286.301,-4.78875e-08,0,32768,32768
286.351,-4.51353e-08,0,32768,32768
286.401,-4.265e-08,0,32768,32768
286.451,-4.04119e-08,0,32768,32768
286.5,-3.84071e-08,0,32768,32768
286.55,-3.6627e-08,0,32768,32768
286.601,-3.5023e-08,0,32768,32768
286.651,-3.368e-08,0,32768,32768
286.701,-3.25395e-08,0,32768,32768
286.751,-3.15891e-08,0,32768,32768
286.801,-3.08139e-08,0,32768,32768
286.85,-3.01978e-08,0,32768,32768
286.9,-2.97241e-08,0,32768,32768
286.951,-2.93674e-08,0,32768,32768
287.001,-2.91311e-08,0,32768,32768
287.051,-2.89873e-08,0,32768,32768
287.101,-2.89216e-08,0,32768,32768
287.151,-2.89209e-08,0,32768,32768
287.2,-2.89737e-08,0,32768,32768
287.25,-2.90704e-08,0,32768,32768
287.301,-2.92067e-08,0,32768,32768
287.351,-2.9367e-08,0,32768,32768
287.401,-2.95473e-08,0,32768,32768
287.451,-2.97413e-08,0,32768,32768
287.501,-2.99431e-08,0,32768,32768
287.55,-3.01478e-08,0,32768,32768
287.6,-3.03516e-08,0,32768,32768
287.65,-3.05515e-08,0,32768,32768
287.701,-3.07503e-08,0,32768,32768
287.751,-3.09344e-08,0,32768,32768
287.801,-3.1107e-08,0,32768,32768
287.851,-3.12653e-08,0,32768,32768
287.9,-3.1407e-08,0,32768,32768
287.95,-3.15297e-08,0,32768,32768
288,-3.16319e-08,0,32768,32768
288.051,-3.17147e-08,0,32768,32768
288.101,-3.17732e-08,0,32768,32768
288.151,-3.18105e-08,0,32768,32768
288.201,-3.18277e-08,0,32768,32768
288.251,-3.18261e-08,0,32768,32768
288.3,-3.18071e-08,0,32768,32768
288.35,-3.17724e-08,0,32768,32768
288.401,-3.17219e-08,0,32768,32768
288.451,-3.16601e-08,0,32768,32768
288.501,-3.15873e-08,0,32768,32768
288.551,-3.15049e-08,0,32768,32768
288.601,-3.14143e-08,0,32768,32768
288.65,-3.13165e-08,0,32768,32768
288.7,-3.12127e-08,0,32768,32768
288.751,-3.11005e-08,0,32768,32768
288.801,-3.09872e-08,0,32768,32768
288.851,-3.08701e-08,0,32768,32768
288.901,-3.075e-08,0,32768,32768
288.951,-3.06274e-08,0,32768,32768
289,-3.05028e-08,0,32768,32768
289.05,-3.03768e-08,0,32768,32768
289.1,-3.02497e-08,0,32768,32768
289.151,-3.0118e-08,0,32768,32768
289.201,-2.99893e-08,0,32768,32768
289.251,-2.98594e-08,0,32768,32768
289.301,-2.97276e-08,0,32768,32768
289.35,-2.95928e-08,0,32768,32768
289.4,-2.94537e-08,0,32768,32768
289.45,-2.93085e-08,0,32768,32768
289.501,-2.91504e-08,0,32768,32768
289.551,-2.89857e-08,0,32768,32768
289.601,-2.88074e-08,0,32768,32768
289.651,-2.86124e-08,0,32768,32768
289.701,-2.83977e-08,0,32768,32768
289.75,-2.81601e-08,0,32768,32768
289.8,-2.78972e-08,0,32768,32768
289.851,-2.75978e-08,0,32768,32768
289.901,-2.72776e-08,0,32768,32768
289.951,-2.69278e-08,0,32768,32768
290.001,-2.65488e-08,0,32768,32768
290.051,-2.61421e-08,0,32768,32768
290.1,-2.57104e-08,0,32768,32768
290.15,-2.52577e-08,0,32768,32768
290.201,-2.47755e-08,0,32768,32768
290.251,-2.42976e-08,0,32768,32768
290.301,-2.38178e-08,0,32768,32768
290.351,-2.33433e-08,0,32768,32768
290.401,-2.28817e-08,0,32768,32768
290.45,-2.24399e-08,0,32768,32768
290.5,-2.20242e-08,0,32768,32768
290.551,-2.16295e-08,0,32768,32768
290.601,-2.12831e-08,0,32768,32768
290.651,-2.09774e-08,0,32768,32768
290.701,-2.07157e-08,0,32768,32768
290.751,-2.05006e-08,0,32768,32768
290.8,-2.03338e-08,0,32768,32768
290.85,-2.02163e-08,0,32768,32768
290.9,-2.0148e-08,0,32768,32768
290.951,-2.01281e-08,0,32768,32768
291.001,-2.01554e-08,0,32768,32768
291.051,-2.02254e-08,0,32768,32768
291.101,-2.0334e-08,0,32768,32768
291.15,-2.04767e-08,0,32768,32768
291.2,-2.06481e-08,0,32768,32768
291.25,-2.08428e-08,0,32768,32768
291.301,-2.10616e-08,0,32768,32768
291.351,-2.12862e-08,0,32768,32768
291.401,-2.1517e-08,0,32768,32768
291.451,-2.17485e-08,0,32768,32768
291.501,-2.19754e-08,0,32768,32768
291.55,-2.21926e-08,0,32768,32768
291.6,-2.23955e-08,0,32768,32768
291.651,-2.25854e-08,0,32768,32768
291.701,-2.27482e-08,0,32768,32768
291.751,-2.28872e-08,0,32768,32768
291.801,-2.30013e-08,0,32768,32768
291.851,-2.30897e-08,0,32768,32768
291.9,-2.31528e-08,0,32768,32768
291.95,-2.31911e-08,0,32768,32768
292.001,-2.32059e-08,0,32768,32768
292.051,-2.31979e-08,0,32768,32768
292.101,-2.31698e-08,0,32768,32768
292.151,-2.31234e-08,0,32768,32768
292.201,-2.30607e-08,0,32768,32768
292.25,-2.29837e-08,0,32768,32768
292.3,-2.28938e-08,0,32768,32768
292.35,-2.27925e-08,0,32768,32768
292.401,-2.26773e-08,0,32768,32768
292.451,-2.25555e-08,0,32768,32768
292.501,-2.24249e-08,0,32768,32768
292.551,-2.22861e-08,0,32768,32768
292.6,-2.21401e-08,0,32768,32768
292.65,-2.19877e-08,0,32768,32768
292.7,-2.183e-08,0,32768,32768
292.751,-2.16633e-08,0,32768,32768
292.801,-2.14983e-08,0,32768,32768
292.851,-2.13318e-08,0,32768,32768
292.901,-2.11653e-08,0,32768,32768
292.951,-2.10003e-08,0,32768,32768
293,-2.08384e-08,0,32768,32768
293.05,-2.0681e-08,0,32768,32768
293.101,-2.05252e-08,0,32768,32768
293.151,-2.0381e-08,0,32768,32768
293.201,-2.02452e-08,0,32768,32768
293.251,-2.01186e-08,0,32768,32768
293.301,-2.00025e-08,0,32768,32768
293.35,-1.98974e-08,0,32768,32768
293.4,-1.98036e-08,0,32768,32768
293.451,-1.97182e-08,0,32768,32768
293.501,-1.96449e-08,0,32768,32768
293.551,-1.95792e-08,0,32768,32768
293.601,-1.9519e-08,0,32768,32768
293.651,-1.94624e-08,0,32768,32768
293.7,-1.94077e-08,0,32768,32768
293.75,-1.9354e-08,0,32768,32768
293.8,-1.93009e-08,0,32768,32768
293.851,-1.92471e-08,0,32768,32768
293.901,-1.91958e-08,0,32768,32768
293.951,-1.91457e-08,0,32768,32768
294.001,-1.90967e-08,0,32768,32768
294.05,-1.90479e-08,0,32768,32768
294.1,-1.89985e-08,0,32768,32768
294.15,-1.89468e-08,0,32768,32768
294.201,-1.88897e-08,0,32768,32768
294.251,-1.88291e-08,0,32768,32768
294.301,-1.87628e-08,0,32768,32768
294.351,-1.86903e-08,0,32768,32768
294.4,-1.86121e-08,0,32768,32768
294.45,-1.85289e-08,0,32768,32768
294.5,-1.84416e-08,0,32768,32768
294.551,-1.83485e-08,0,32768,32768
294.601,-1.82558e-08,0,32768,32768
294.651,-1.81614e-08,0,32768,32768
294.701,-1.80654e-08,0,32768,32768
294.751,-1.79681e-08,0,32768,32768
294.8,-1.78695e-08,0,32768,32768
294.85,-1.77697e-08,0,32768,32768
294.901,-1.76659e-08,0,32768,32768
294.951,-1.75643e-08,0,32768,32768
295.001,-1.74619e-08,0,32768,32768
295.051,-1.73586e-08,0,32768,32768
295.101,-1.72541e-08,0,32768,32768
295.15,-1.71478e-08,0,32768,32768
295.2,-1.70393e-08,0,32768,32768
295.251,-1.69248e-08,0,32768,32768
295.301,-1.68106e-08,0,32768,32768
295.351,-1.66933e-08,0,32768,32768
295.401,-1.65727e-08,0,32768,32768
295.451,-1.64484e-08,0,32768,32768
295.5,-1.63201e-08,0,32768,32768
295.55,-1.61873e-08,0,32768,32768
295.6,-1.60497e-08,0,32768,32768
295.651,-1.59026e-08,0,32768,32768
295.701,-1.57543e-08,0,32768,32768
295.751,-1.56009e-08,0,32768,32768
295.801,-1.54425e-08,0,32768,32768
295.85,-1.52792e-08,0,32768,32768
295.9,-1.51111e-08,0,32768,32768
295.95,-1.49382e-08,0,32768,32768
296.001,-1.4755e-08,0,32768,32768
296.051,-1.45717e-08,0,32768,32768
296.101,-1.43829e-08,0,32768,32768
296.151,-1.41883e-08,0,32768,32768
296.201,-1.39878e-08,0,32768,32768
296.25,-1.37811e-08,0,32768,32768
296.3,-1.35683e-08,0,32768,32768
296.351,-1.33426e-08,0,32768,32768
296.401,-1.3117e-08,0,32768,32768
296.451,-1.2885e-08,0,32768,32768
296.501,-1.26464e-08,0,32768,32768
296.551,-1.24009e-08,0,32768,32768
296.6,-1.21479e-08,0,32768,32768
296.65,-1.18864e-08,0,32768,32768
296.701,-1.16073e-08,0,32768,32768
296.751,-1.13251e-08,0,32768,32768
296.801,-1.10301e-08,0,32768,32768
296.851,-1.07206e-08,0,32768,32768
296.901,-1.03943e-08,0,32768,32768
296.95,-1.0049e-08,0,32768,32768
297,-9.68262e-09,0,32768,32768
297.05,-9.2929e-09,0,32768,32768
297.101,-8.86536e-09,0,32768,32768
297.151,-8.42278e-09,0,32768,32768
297.201,-7.95218e-09,0,32768,32768
297.251,-7.45295e-09,0,32768,32768
297.3,-6.92512e-09,0,32768,32768
297.35,-6.36945e-09,0,32768,32768
297.4,-5.78747e-09,0,32768,32768
297.451,-5.16337e-09,0,32768,32768
297.501,-4.53604e-09,0,32768,32768
297.551,-3.89182e-09,0,32768,32768
297.601,-3.23514e-09,0,32768,32768
297.651,-2.5708e-09,0,32768,32768
297.7,-1.90382e-09,0,32768,32768
297.75,-1.23925e-09,0,32768,32768
297.801,-5.62852e-10,0,32768,32768
297.851,8.19027e-11,0,32768,32768
297.901,7.10025e-10,0,32768,32768
297.951,1.31727e-09,0,32768,32768
298.001,1.89958e-09,0,32768,32768
298.05,2.4532e-09,0,32768,32768
298.1,2.97485e-09,0,32768,32768
298.151,3.47539e-09,0,32768,32768
298.201,3.92344e-09,0,32768,32768
298.251,4.33141e-09,0,32768,32768
298.301,4.69749e-09,0,32768,32768
298.351,5.02062e-09,0,32768,32768
298.4,5.30056e-09,0,32768,32768
298.45,5.53778e-09,0,32768,32768
298.501,5.73854e-09,0,32768,32768
298.551,5.89315e-09,0,32768,32768
298.601,6.01012e-09,0,32768,32768
298.651,6.09202e-09,0,32768,32768
298.701,6.14162e-09,0,32768,32768
298.75,6.16188e-09,0,32768,32768
298.8,6.15577e-09,0,32768,32768
298.85,6.12631e-09,0,32768,32768
298.901,6.07472e-09,0,32768,32768
298.951,6.00689e-09,0,32768,32768
299.001,5.92437e-09,0,32768,32768
299.051,5.82977e-09,0,32768,32768
299.1,5.72548e-09,0,32768,32768
299.15,5.6137e-09,0,32768,32768
299.2,5.49641e-09,0,32768,32768
299.251,5.37177e-09,0,32768,32768
299.301,5.24847e-09,0,32768,32768
299.351,5.12432e-09,0,32768,32768
299.401,5.00047e-09,0,32768,32768
299.451,4.87792e-09,0,32768,32768
299.5,4.75754e-09,0,32768,32768
299.55,4.64018e-09,0,32768,32768
299.601,4.52337e-09,0,32768,32768
299.651,4.41462e-09,0,32768,32768
299.701,4.31136e-09,0,32768,32768
299.751,4.21434e-09,0,32768,32768
299.801,4.12427e-09,0,32768,32768
299.85,4.04173e-09,0,32768,32768
299.9,3.96713e-09,0,32768,32768
299.951,3.89885e-09,0,32768,32768
300.001,3.84077e-09,0,32768,32768
300.051,3.7906e-09,0,32768,32768
300.101,3.74785e-09,0,32768,32768
300.151,3.71185e-09,0,32768,32768
300.2,3.68172e-09,0,32768,32768
300.25,3.65645e-09,0,32768,32768
300.3,3.63492e-09,0,32768,32768
300.351,3.6154e-09,0,32768,32768
300.401,3.59782e-09,0,32768,32768
300.451,3.58041e-09,0,32768,32768
300.501,3.56209e-09,0,32768,32768
300.55,3.54184e-09,0,32768,32768
300.6,3.51883e-09,0,32768,32768
300.65,3.4924e-09,0,32768,32768
300.701,3.46126e-09,0,32768,32768
300.751,3.42715e-09,0,32768,32768
300.801,3.3896e-09,0,32768,32768
300.851,3.34925e-09,0,32768,32768
300.901,3.30697e-09,0,32768,32768
300.95,3.26367e-09,0,32768,32768
301,3.22024e-09,0,32768,32768
301.051,3.17608e-09,0,32768,32768
301.101,3.13415e-09,0,32768,32768
301.151,3.09333e-09,0,32768,32768
301.201,3.05364e-09,0,32768,32768
301.251,3.015e-09,0,32768,32768
301.3,2.97743e-09,0,32768,32768
301.35,2.94108e-09,0,32768,32768
301.401,2.90534e-09,0,32768,32768
301.451,2.87279e-09,0,32768,32768
301.501,2.84302e-09,0,32768,32768
301.551,2.81662e-09,0,32768,32768
301.601,2.79408e-09,0,32768,32768
301.65,2.7756e-09,0,32768,32768
301.7,2.76115e-09,0,32768,32768
301.75,2.75039e-09,0,32768,32768
301.801,2.74258e-09,0,32768,32768
301.851,2.7375e-09,0,32768,32768
301.901,2.73416e-09,0,32768,32768
301.951,2.73191e-09,0,32768,32768
302,2.73018e-09,0,32768,32768
302.05,2.72851e-09,0,32768,32768
302.1,2.72654e-09,0,32768,32768
302.151,2.72387e-09,0,32768,32768
302.201,2.7204e-09,0,32768,32768
302.251,2.71588e-09,0,32768,32768
302.301,2.71014e-09,0,32768,32768
302.351,2.70312e-09,0,32768,32768
302.4,2.6948e-09,0,32768,32768
302.45,2.68521e-09,0,32768,32768
302.501,2.67413e-09,0,32768,32768
302.551,2.66226e-09,0,32768,32768
302.601,2.6494e-09,0,32768,32768
302.651,2.63563e-09,0,32768,32768
302.701,2.62099e-09,0,32768,32768
302.75,2.60557e-09,0,32768,32768
302.8,2.58945e-09,0,32768,32768
302.851,2.57222e-09,0,32768,32768
302.901,2.55499e-09,0,32768,32768
302.951,2.53734e-09,0,32768,32768
303.001,2.51931e-09,0,32768,32768
303.051,2.50091e-09,0,32768,32768
303.1,2.48208e-09,0,32768,32768
303.15,2.46277e-09,0,32768,32768
303.201,2.44232e-09,0,32768,32768
303.251,2.42187e-09,0,32768,32768
303.301,2.40086e-09,0,32768,32768
303.351,2.37932e-09,0,32768,32768
303.401,2.35735e-09,0,32768,32768
303.45,2.33504e-09,0,32768,32768
303.5,2.31251e-09,0,32768,32768
303.55,2.28985e-09,0,32768,32768
303.601,2.2665e-09,0,32768,32768
303.651,2.24386e-09,0,32768,32768
303.701,2.22133e-09,0,32768,32768
303.751,2.19897e-09,0,32768,32768
303.8,2.1768e-09,0,32768,32768
303.85,2.15486e-09,0,32768,32768
303.9,2.13317e-09,0,32768,32768
303.951,2.11113e-09,0,32768,32768
304.001,2.09002e-09,0,32768,32768
304.051,2.06922e-09,0,32768,32768
304.101,2.04873e-09,0,32768,32768
304.151,2.02856e-09,0,32768,32768
304.2,2.00871e-09,0,32768,32768
304.25,1.98915e-09,0,32768,32768
304.301,1.96932e-09,0,32768,32768
304.351,1.9503e-09,0,32768,32768
304.401,1.93151e-09,0,32768,32768
304.451,1.91289e-09,0,32768,32768
304.501,1.8944e-09,0,32768,32768
304.55,1.876e-09,0,32768,32768
304.6,1.85763e-09,0,32768,32768
304.651,1.83869e-09,0,32768,32768
304.701,1.82021e-09,0,32768,32768
304.751,1.8016e-09,0,32768,32768
304.801,1.7828e-09,0,32768,32768
304.851,1.76376e-09,0,32768,32768
304.9,1.74444e-09,0,32768,32768
304.95,1.7248e-09,0,32768,32768
