250,0,0,512,512
250.012,0,0,512,512
250.059,0,0,512,512
250.105,0,0,512,512
250.152,0,0,512,512
250.211,0,0,512,512
250.258,0,0,512,512
250.305,0,0,512,512
250.352,0,0,512,512
250.41,0,0,512,512
250.457,0,0,512,512
250.504,0,0,512,512
250.551,0,0,512,512
250.609,0,0,512,512
250.656,0,0,512,512
250.703,0,0,512,512
250.762,0,0,512,512
250.808,0,0,512,512
250.855,0,0,512,512
250.902,0,0,512,512
250.961,0,0,512,512
251.008,0,0,512,512
251.055,0,0,512,512
251.101,0,0,512,512
251.16,0,0,512,512
251.207,0,0,512,512
251.254,0,0,512,512
251.301,0,0,512,512
251.359,0,0,512,512
251.406,0,0,512,512
251.453,0,0,512,512
251.511,0,0,512,512
251.558,0,0,512,512
251.605,0,0,512,512
251.652,0,0,512,512
251.711,0,0,512,512
251.758,0,0,512,512
251.804,0,0,512,512
251.851,0,0,512,512
251.91,0,0,512,512
251.957,0,0,512,512
252.004,0,0,512,512
252.05,0,0,512,512
252.109,0,0,512,512
252.156,0,0,512,512
252.203,0,0,512,512
252.261,0,0,512,512
252.308,0,0,512,512
252.355,0,0,512,512
252.402,0,0,512,512
252.461,0,0,512,512
252.507,0,0,512,512
252.554,0,0,512,512
252.601,0,0,512,512
252.66,0,0,512,512
252.707,0,0,512,512
252.754,0,0,512,512
252.8,0,0,512,512
252.859,0,0,512,512
252.906,0,0,512,512
252.953,0,0,512,512
253.011,0,0,512,512
253.058,0,0,512,512
253.105,0,0,512,512
253.152,0,0,512,512
253.21,0,0,512,512
253.257,0,0,512,512
253.304,0,0,512,512
253.351,0,0,512,512
253.41,0,0,512,512
253.457,0,0,512,512
253.503,0,0,512,512
253.55,0,0,512,512
253.609,0,0,512,512
253.656,0,0,512,512
253.703,0,0,512,512
253.761,0,0,512,512
253.808,0,0,512,512
253.855,0,0,512,512
253.902,0,0,512,512
253.96,0,0,512,512
254.007,0,0,512,512
254.054,0,0,512,512
254.101,0,0,512,512
254.16,0,0,512,512
254.206,0,0,512,512
254.253,0,0,512,512
254.3,0,0,512,512
254.359,0,0,512,512
254.406,0,0,512,512
254.452,0,0,512,512
254.511,0,0,512,512
254.558,0,0,512,512
254.605,0,0,512,512
254.652,0,0,512,512
254.71,0,0,512,512
254.757,0,0,512,512
254.804,0,0,512,512
254.851,0,0,512,512
254.909,0,0,512,512
254.956,0,0,512,512
255.003,0,0,512,512
255.05,0,0,512,512
255.109,0,0,512,512
255.155,0,0,512,512
255.202,0,0,512,512
255.261,0,0,512,512
255.308,0,0,512,512
255.355,0,0,512,512
255.402,0,0,512,512
255.46,0,0,512,512
255.507,0,0,512,512
255.554,0,0,512,512
255.601,0,0,512,512
255.659,0,0,512,512
255.706,0,0,512,512
255.753,0,0,512,512
255.812,0,0,512,512
255.859,0,0,512,512
255.905,0,0,512,512
255.952,0,0,512,512
256.011,0,0,512,512
256.058,0,0,512,512
256.105,0,0,512,512
256.151,0,0,512,512
256.21,0,0,512,512
256.257,0,0,512,512
256.304,0,0,512,512
256.351,0,0,512,512
256.409,0,0,512,512
256.456,0,0,512,512
256.503,0,0,512,512
256.562,0,0,512,512
256.608,0,0,512,512
256.655,0,0,512,512
256.702,0,0,512,512
256.761,0,0,512,512
256.808,0,0,512,512
256.854,0,0,512,512
256.901,0,0,512,512
256.96,0,0,512,512
257.007,0,0,512,512
257.054,0,0,512,512
257.101,0,0,512,512
257.159,0,0,512,512
257.206,0,0,512,512
257.253,0,0,512,512
257.311,0,0,512,512
257.358,0,0,512,512
257.405,0,0,512,512
257.452,0,0,512,512
257.511,0,0,512,512
257.557,0,0,512,512
257.604,0,0,512,512
257.651,0,0,512,512
257.71,0,0,512,512
257.757,0,0,512,512
257.804,0,0,512,512
257.85,0,0,512,512
257.909,0,0,512,512
257.956,0,0,512,512
258.003,0,0,512,512
258.061,0,0,512,512
258.108,0,0,512,512
258.155,0,0,512,512
258.202,0,0,512,512
258.261,0,0,512,512
258.307,0,0,512,512
258.354,0,0,512,512
258.401,0,0,512,512
258.46,0,0,512,512
258.507,0,0,512,512
258.553,0,0,512,512
258.6,0,0,512,512
258.659,0,0,512,512
258.706,0,0,512,512
258.753,0,0,512,512
258.811,0,0,512,512
258.858,0,0,512,512
258.905,0,0,512,512
258.952,0,0,512,512
259.01,0,0,512,512
259.057,0,0,512,512
259.104,0,0,512,512
259.151,0,0,512,512
259.21,0,0,512,512
259.256,0,0,512,512
259.303,0,0,512,512
259.35,0,0,512,512
259.409,0,0,512,512
259.456,0,0,512,512
259.503,0,0,512,512
259.561,0,0,512,512
259.608,0,0,512,512
259.655,0,0,512,512
259.702,0,0,512,512
259.76,0,0,512,512
259.807,0,0,512,512
259.854,0,0,512,512
259.901,0,0,512,512
259.959,0,0,512,512
260.006,0,0,512,512
260.053,0,0,512,512
260.1,0,0,512,512
260.159,0,0,512,512
260.206,0,0,512,512
260.252,-5.55112e-17,0,512,512
260.311,-5.55112e-17,0,512,512
260.358,-5.55112e-17,0,512,512
260.405,-5.55112e-17,0,512,512
260.452,-5.55112e-17,0,512,512
260.51,-2.77556e-17,0,512,512
260.557,-2.77556e-17,0,512,512
260.604,-2.77556e-17,0,512,512
260.651,-2.77556e-17,0,512,512
260.709,-2.77556e-17,0,512,512
260.756,-2.77556e-17,0,512,512
260.803,-2.77556e-17,0,512,512
260.862,-2.77556e-17,0,512,512
260.909,-2.77556e-17,0,512,512
260.955,-2.77556e-17,0,512,512
261.002,-2.77556e-17,0,512,512
261.061,-2.77556e-17,0,512,512
261.108,-2.77556e-17,0,512,512
261.155,-2.77556e-17,0,512,512
261.201,-2.77556e-17,0,512,512
261.26,0,0,512,512
261.307,0,0,512,512
261.354,0,0,512,512
261.401,0,0,512,512
261.459,0,0,512,512
261.506,0,0,512,512
261.553,0,0,512,512
261.612,2.77556e-17,0,512,512
261.658,2.77556e-17,0,512,512
261.705,2.77556e-17,0,512,512
261.752,2.77556e-17,0,512,512
261.811,2.77556e-17,0,512,512
261.858,2.77556e-17,0,512,512
261.905,2.77556e-17,0,512,512
261.951,2.77556e-17,0,512,512
262.01,5.55112e-17,0,512,512
262.057,5.55112e-17,0,512,512
262.104,5.55112e-17,0,512,512
262.151,5.55112e-17,0,512,512
262.209,5.55112e-17,0,512,512
262.256,2.77556e-17,0,512,512
262.303,2.77556e-17,0,512,512
262.361,2.77556e-17,0,512,512
262.408,2.77556e-17,0,512,512
262.455,5.55112e-17,0,512,512
262.502,5.55112e-17,0,512,512
262.561,5.55112e-17,0,512,512
262.608,5.55112e-17,0,512,512
262.654,5.55112e-17,0,512,512
262.701,5.55112e-17,0,512,512
262.76,5.55112e-17,0,512,512
262.807,5.55112e-17,0,512,512
262.854,5.55112e-17,0,512,512
262.9,5.55112e-17,0,512,512
262.959,5.55112e-17,0,512,512
263.006,5.55112e-17,0,512,512
263.053,5.55112e-17,0,512,512
263.111,5.55112e-17,0,512,512
263.158,2.77556e-17,0,512,512
263.205,2.77556e-17,0,512,512
263.252,5.55112e-17,0,512,512
263.311,2.77556e-17,0,512,512
263.357,0,0,512,512
263.404,0,0,512,512
263.451,0,0,512,512
263.51,0,0,512,512
263.557,0,0,512,512
263.603,0,0,512,512
263.65,0,0,512,512
263.709,0,0,512,512
263.756,0,0,512,512
263.803,0,0,512,512
263.861,0,0,512,512
263.908,0,0,512,512
263.955,0,0,512,512
264.002,0,0,512,512
264.06,0,0,512,512
264.107,0,0,512,512
264.154,0,0,512,512
264.201,0,0,512,512
264.26,0,0,512,512
264.306,0,0,512,512
264.353,0,0,512,512
264.4,2.77556e-17,0,512,512
264.459,2.77556e-17,0,512,512
264.506,2.77556e-17,0,512,512
264.553,0,0,512,512
264.611,0,0,512,512
264.658,0,0,512,512
264.705,0,0,512,512
264.752,0,0,512,512
264.81,0,0,512,512
264.857,0,0,512,512
264.904,0,0,512,512
264.951,0,0,512,512
265.01,0,0,512,512
265.056,0,0,512,512
265.103,0,0,512,512
265.15,0,0,512,512
265.209,0,0,512,512
265.256,0,0,512,512
265.302,0,0,512,512
265.361,0,0,512,512
265.408,0,0,512,512
265.455,0,0,512,512
265.502,0,0,512,512
265.56,0,0,512,512
265.607,0,0,512,512
265.654,0,0,512,512
265.701,0,0,512,512
265.759,0,0,512,512
265.806,0,0,512,512
265.853,0,0,512,512
265.9,0,0,512,512
265.959,0,0,512,512
266.005,0,0,512,512
266.052,0,0,512,512
266.111,0,0,512,512
266.158,0,0,512,512
266.205,0,0,512,512
266.252,0,0,512,512
266.31,0,0,512,512
266.357,0,0,512,512
266.404,0,0,512,512
266.451,0,0,512,512
266.509,0,0,512,512
266.556,0,0,512,512
266.603,0,0,512,512
266.662,0,0,512,512
266.708,0,0,512,512
266.755,0,0,512,512
266.802,0,0,512,512
266.861,0,0,512,512
266.908,0,0,512,512
266.955,0,0,512,512
267.001,0,0,512,512
267.06,0,0,512,512
267.107,0,0,512,512
267.154,0,0,512,512
267.201,0,0,512,512
267.259,0,0,512,512
267.306,0,0,512,512
267.353,0,0,512,512
267.412,0,0,512,512
267.458,0,0,512,512
267.505,0,0,512,512
267.552,0,0,512,512
267.611,0,0,512,512
267.658,0,0,512,512
267.704,0,0,512,512
267.751,0,0,512,512
267.81,0,0,512,512
267.857,0,0,512,512
267.904,0,0,512,512
267.95,0,0,512,512
268.009,0,0,512,512
268.056,0,0,512,512
268.104,0,0,519,519
268.151,0,0,531,531
268.204,0,0,543,543
268.251,0,0,555,555
268.303,0,0,567,567
268.35,0,0,573,573
268.403,0,0,585,585
268.456,0,0,597,597
268.503,0,0,609,609
268.555,0,0,621,621
268.602,0,0,633,633
268.655,0,0,645,645
268.702,0,0,651,651
268.755,0,0,663,663
268.801,0,0,675,675
268.854,0,0,687,687
268.901,0,0,699,699
268.954,0,0,705,705
269.001,0,0,717,717
269.053,0,0,729,729
269.1,0,0,741,741
269.153,0,0,753,753
269.206,0,0,765,765
269.253,0,0,771,771
269.305,0,0,783,783
269.352,0,0,795,795
269.405,0,0,807,807
269.452,0,0,813,813
269.504,0,0,825,825
269.551,0,0,837,837
269.604,0,0,849,849
269.651,0,0,861,861
269.704,0,0,867,867
269.75,0,0,879,879
269.803,0,0,891,891
269.85,0,0,903,903
269.903,0,0,915,915
269.956,0,0,921,921
270.002,0,0,933,933
270.055,0,0,945,945
270.102,0,0,957,957
270.155,0,0,963,963
270.202,0,0,975,975
270.254,0,0,971,971
270.301,0,0,983,983
270.354,0,0,973,973
270.401,0,0,973,973
270.453,0,0,987,987
270.5,0,0,1009,1009
270.553,0,0,1031,1031
270.606,0,0,1055,1055
270.653,0,0,1065,1065
270.705,0,0,1077,1077
270.752,0,0,1089,1089
270.805,0,0,1101,1101
270.852,0,0,1107,1107
270.905,0,0,1119,1119
270.951,0,0,1125,1125
271.004,0,0,1137,1137
271.051,0,0,1149,1149
271.104,0,0,1155,1155
271.151,0,0,1167,1167
271.203,0,0,1179,1179
271.25,0,0,1185,1185
271.303,0,0,1197,1197
271.356,0,0,1203,1203
271.403,0,0,1215,1215
271.455,0,0,1227,1227
271.502,0,0,1233,1233
271.555,0,0,1245,1245
271.602,0,0,1251,1251
271.654,0,0,1263,1263
271.701,0,0,1259,1259
271.754,0,0,1267,1267
271.801,0,0,1283,1283
271.854,-1.11022e-16,0,1299,1299
271.901,-3.33067e-16,0,1305,1305
271.953,-7.49401e-16,0,1317,1317
272,-1.83187e-15,0,1323,1323
272.053,-5.32907e-15,0,1335,1335
272.106,-1.49047e-14,0,1341,1341
272.152,-3.50553e-14,0,1353,1353
272.205,-8.62921e-14,0,1359,1359
272.252,-1.82049e-13,0,1371,1371
272.305,-3.97793e-13,0,1377,1377
272.352,-7.57894e-13,0,1385,1385
272.404,-1.48273e-12,0,1395,1395
272.451,-2.57064e-12,0,1407,1407
272.504,-4.54137e-12,0,1413,1413
272.551,-7.21587e-12,0,1419,1419
272.604,-1.15984e-11,0,1431,1431
272.65,-1.69956e-11,0,1437,1437
272.703,-2.50182e-11,0,1449,1449
272.75,-3.39899e-11,0,1455,1455
272.803,-4.60657e-11,0,1467,1467
272.855,-5.98301e-11,0,1473,1473
272.902,-7.29207e-11,0,1479,1479
272.955,-8.74943e-11,0,1491,1491
273.002,-1.09754e-10,0,1497,1497
273.055,-1.31023e-10,0,1509,1509
273.102,-1.29757e-10,0,1515,1515
273.154,-1.01729e-10,0,1521,1521
273.201,-6.33397e-11,0,1533,1533
273.254,-1.56661e-11,0,1539,1539
273.301,2.03195e-11,0,1545,1545
273.353,4.76635e-11,0,1557,1557
273.4,6.32852e-11,0,1563,1563
273.453,7.51945e-11,0,1569,1569
273.506,8.49743e-11,0,1581,1581
273.553,9.30968e-11,0,1583,1583
273.605,9.89752e-11,0,1581,1581
273.652,1.00781e-10,0,1589,1589
273.705,1.01203e-10,0,1587,1587
273.752,1.02065e-10,0,1589,1589
273.805,1.05138e-10,0,1591,1591
273.851,1.09917e-10,0,1595,1595
273.904,1.14225e-10,0,1601,1601
273.951,1.15139e-10,0,1607,1607
274.004,1.13457e-10,0,1615,1615
274.051,1.1189e-10,0,1625,1625
274.103,1.1301e-10,0,1627,1627
274.15,1.16741e-10,0,1633,1633
274.203,1.20866e-10,0,1643,1643
274.256,1.21232e-10,0,1651,1651
274.303,1.18188e-10,0,1651,1651
274.355,1.15064e-10,0,1655,1655
274.402,1.17158e-10,0,1651,1651
274.455,1.28235e-10,0,1651,1651
274.502,1.50537e-10,0,1649,1649
274.554,2.15563e-10,0,1657,1657
274.601,3.70865e-10,0,1661,1661
274.654,7.93092e-10,0,1665,1665
274.701,1.55385e-09,0,1669,1669
274.754,3.04571e-09,0,1677,1677
274.8,5.05923e-09,0,1681,1681
274.853,8.1206e-09,0,1689,1689
274.9,1.14521e-08,0,1695,1695
274.953,1.56782e-08,0,1701,1701
275.006,2.01859e-08,0,1707,1707
275.052,2.43269e-08,0,1719,1719
275.105,2.91956e-08,0,1725,1725
275.152,3.39177e-08,0,1731,1731
275.205,4.00603e-08,0,1743,1743
275.252,4.66559e-08,0,1749,1749
275.304,5.58419e-08,0,1755,1755
275.351,6.59971e-08,0,1761,1761
275.404,8.01669e-08,0,1773,1773
275.451,9.56644e-08,0,1779,1779
275.504,1.16931e-07,0,1785,1785
275.55,1.39701e-07,0,1791,1791
275.603,1.70091e-07,0,1803,1803
275.656,2.05755e-07,0,1809,1809
275.703,2.41839e-07,0,1815,1815
275.755,2.87063e-07,0,1821,1821
275.802,3.30976e-07,0,1833,1833
275.855,3.83978e-07,0,1839,1839
275.902,4.33729e-07,0,1845,1845
275.955,4.91862e-07,0,1851,1851
276.001,5.44573e-07,0,1857,1857
276.054,6.03696e-07,0,1863,1863
276.101,6.54705e-07,0,1875,1875
276.154,7.08585e-07,0,1881,1881
276.201,7.51933e-07,0,1887,1887
276.253,7.94239e-07,0,1893,1893
276.3,8.25388e-07,0,1899,1899
276.353,8.52885e-07,0,1911,1911
276.406,8.72615e-07,0,1942,1942
276.453,8.84074e-07,0,1954,1954
276.505,8.90699e-07,0,1960,1960
276.552,8.91401e-07,0,1966,1966
276.605,8.86566e-07,0,1972,1972
276.652,8.77228e-07,0,1978,1978
276.705,8.60825e-07,0,1984,1984
276.751,8.40766e-07,0,1990,1990
276.804,8.11893e-07,0,1990,1990
276.851,7.80747e-07,0,1990,1990
276.904,7.40084e-07,0,1980,1980
276.951,6.99756e-07,0,1965,1965
277.003,6.50965e-07,0,1965,1965
277.05,6.05804e-07,0,1965,1965
277.103,5.54432e-07,0,1984,1984
277.156,5.03793e-07,0,2002,2002
277.202,4.60251e-07,0,2014,2014
277.255,4.13543e-07,0,2032,2032
277.302,3.74341e-07,0,2048,2048
277.355,3.32999e-07,0,2048,2048
277.402,2.9877e-07,0,2048,2048
277.454,2.63183e-07,0,2048,2048
277.501,2.34245e-07,0,2048,2048
277.554,2.04831e-07,0,2048,2048
277.601,1.81492e-07,0,2048,2048
277.654,1.5826e-07,0,2048,2048
277.7,1.4004e-07,0,2048,2048
277.753,1.21882e-07,0,2048,2048
277.8,1.07491e-07,0,2048,2048
277.853,9.29848e-08,0,2048,2048
277.906,8.01084e-08,0,2048,2048
277.952,6.9984e-08,0,2048,2048
278.005,6.00329e-08,0,2048,2048
278.052,5.23648e-08,0,2048,2048
278.105,4.48508e-08,0,2048,2048
278.152,3.89356e-08,0,2048,2048
278.204,3.29081e-08,0,2048,2048
278.251,2.79974e-08,0,2048,2048
278.304,2.29783e-08,0,2048,2048
278.351,1.90532e-08,0,2048,2048
278.403,1.53704e-08,0,2048,2048
278.45,1.28197e-08,0,2048,2048
278.503,1.0757e-08,0,2048,2048
278.556,9.44344e-09,0,2048,2048
278.603,8.76415e-09,0,2048,2048
278.655,8.37493e-09,0,2048,2048
278.702,8.22855e-09,0,2048,2048
278.755,8.16727e-09,0,2048,2048
278.802,8.13435e-09,0,2048,2048
278.855,8.07433e-09,0,2048,2048
278.901,7.98508e-09,0,2048,2048
278.954,7.84802e-09,0,2048,2048
279.001,7.70841e-09,0,2048,2048
279.054,7.55323e-09,0,2048,2048
279.101,7.43301e-09,0,2048,2048
279.153,7.32876e-09,0,2048,2048
279.2,7.26592e-09,0,2048,2048
279.253,7.22505e-09,0,2048,2048
279.306,7.20839e-09,0,2048,2048
279.353,7.20738e-09,0,2048,2048
279.405,7.21567e-09,0,2048,2048
279.452,7.22774e-09,0,2048,2048
279.505,7.24391e-09,0,2048,2048
279.552,7.25931e-09,0,2048,2048
279.604,7.27705e-09,0,2048,2048
279.651,7.29303e-09,0,2048,2048
279.704,7.31136e-09,0,2048,2048
279.751,7.32831e-09,0,2048,2048
279.804,7.34875e-09,0,2048,2048
279.851,7.36891e-09,0,2048,2048
279.903,7.39502e-09,0,2048,2048
279.95,7.42254e-09,0,2048,2048
280.003,7.46007e-09,0,2048,2048
280.056,7.50666e-09,0,2048,2048
280.102,7.55758e-09,0,2048,2048
280.155,7.62791e-09,0,2048,2048
280.202,7.70411e-09,0,2048,2048
280.255,7.80793e-09,0,2048,2048
280.302,7.91881e-09,0,2048,2048
280.354,8.06783e-09,0,2048,2048
280.401,8.22526e-09,0,2048,2048
280.454,8.43517e-09,0,2048,2048
280.501,8.65581e-09,0,2048,2048
280.554,8.94926e-09,0,2048,2048
280.6,9.25741e-09,0,2048,2048
280.653,9.66715e-09,0,2048,2048
280.7,1.00972e-08,0,2048,2048
280.753,1.06679e-08,0,2048,2048
280.805,1.13459e-08,0,2048,2048
280.852,1.20524e-08,0,2048,2048
280.905,1.29801e-08,0,2048,2048
280.952,1.39371e-08,0,2048,2048
281.005,1.51788e-08,0,2048,2048
281.052,1.64424e-08,0,2048,2048
281.104,1.80578e-08,0,2048,2048
281.151,1.96763e-08,0,2048,2048
281.204,2.1712e-08,0,2048,2048
281.251,2.37179e-08,0,2048,2048
281.303,2.61987e-08,0,2048,2048
281.35,2.86032e-08,0,2048,2048
281.403,3.15296e-08,0,2048,2048
281.456,3.46846e-08,0,2048,2048
281.503,3.76751e-08,0,2048,2048
281.555,4.12424e-08,0,2048,2048
281.602,4.45892e-08,0,2048,2048
281.655,4.855e-08,0,2048,2048
281.702,5.2246e-08,0,2048,2048
281.755,5.66074e-08,0,2048,2048
281.801,6.06738e-08,0,2048,2048
281.854,6.54763e-08,0,2048,2048
281.901,6.99622e-08,0,2048,2048
281.954,7.52716e-08,0,2048,2048
282.001,8.0241e-08,0,2048,2048
282.053,8.61329e-08,0,2048,2048
282.1,9.16571e-08,0,2048,2048
282.153,9.82221e-08,0,2048,2048
282.206,1.05198e-07,0,2048,2048
282.253,1.11791e-07,0,2048,2048
282.305,1.19726e-07,0,2048,2048
282.352,1.27328e-07,0,2048,2048
282.405,1.36633e-07,0,2048,2048
282.452,1.45718e-07,0,2048,2048
282.504,1.57058e-07,0,2048,2048
282.551,1.68331e-07,0,2048,2048
282.604,1.82606e-07,0,2048,2048
282.651,1.96934e-07,0,2048,2048
282.704,2.15153e-07,0,2048,2048
282.751,2.33414e-07,0,2048,2048
282.803,2.56476e-07,0,2048,2048
282.85,2.79329e-07,0,2048,2048
282.903,3.07747e-07,0,2048,2048
282.956,3.38997e-07,0,2048,2048
283.002,3.6903e-07,0,2048,2048
283.055,4.051e-07,0,2048,2048
283.102,4.38876e-07,0,2048,2048
283.155,4.78319e-07,0,2048,2048
283.202,5.14164e-07,0,2048,2048
283.254,5.54695e-07,0,2048,2048
283.301,5.90272e-07,0,2048,2048
283.354,6.29006e-07,0,2048,2048
283.401,6.61613e-07,0,2048,2048
283.454,6.95473e-07,0,2048,2048
283.5,7.22447e-07,0,2048,2048
283.553,7.48637e-07,0,2048,2048
283.606,7.69853e-07,0,2048,2048
283.653,7.84149e-07,0,2048,2048
283.705,7.94784e-07,0,2048,2048
283.752,7.99219e-07,0,2048,2048
283.805,7.98465e-07,0,2048,2048
283.852,7.92691e-07,0,2048,2048
283.905,7.80546e-07,0,2048,2048
283.951,7.6488e-07,0,2048,2048
284.004,7.42039e-07,0,2048,2048
284.051,7.17389e-07,0,2048,2048
284.104,6.85187e-07,0,2048,2048
284.151,6.53012e-07,0,2048,2048
284.203,6.13383e-07,0,2048,2048
284.25,5.7564e-07,0,2048,2048
284.303,5.31014e-07,0,2048,2048
284.356,4.84828e-07,0,2048,2048
284.403,4.43084e-07,0,2048,2048
284.455,3.96023e-07,0,2048,2048
284.502,3.54647e-07,0,2048,2048
284.555,3.09192e-07,0,2048,2048
284.602,2.70193e-07,0,2048,2048
284.655,2.28326e-07,0,2048,2048
284.701,1.93186e-07,0,2048,2048
284.754,1.56245e-07,0,2048,2048
284.801,1.25858e-07,0,2048,2048
284.854,9.45262e-08,0,2048,2048
284.901,6.92373e-08,0,2048,2048
284.953,4.36398e-08,0,2048,2048
285,2.33562e-08,0,2048,2048
285.053,3.20093e-09,0,2048,2048
285.106,-1.42859e-08,0,2048,2048
285.152,-2.77339e-08,0,2048,2048
285.205,-4.06788e-08,0,2048,2048
285.252,-5.03963e-08,0,2048,2048
285.305,-5.94924e-08,0,2048,2048
285.352,-6.60922e-08,0,2048,2048
285.404,-7.20085e-08,0,2048,2048
285.451,-7.60565e-08,0,2048,2048
285.504,-7.93885e-08,0,2048,2048
285.551,-8.13742e-08,0,2048,2048
285.604,-8.26286e-08,0,2048,2048
285.65,-8.29666e-08,0,2048,2048
285.703,-8.25756e-08,0,2048,2048
285.75,-8.16266e-08,0,2048,2048
285.803,-7.99777e-08,0,2048,2048
285.856,-7.78126e-08,0,2048,2048
285.902,-7.55366e-08,0,2048,2048
285.955,-7.26707e-08,0,2048,2048
286.002,-6.9926e-08,0,2048,2048
286.055,-6.6698e-08,0,2048,2048
286.102,-6.37684e-08,0,2048,2048
286.154,-6.04718e-08,0,2048,2048
286.201,-5.75901e-08,0,2048,2048
286.254,-5.44508e-08,0,2048,2048
286.301,-5.17841e-08,0,2048,2048
286.353,-4.89519e-08,0,2048,2048
286.4,-4.66011e-08,0,2048,2048
286.453,-4.41567e-08,0,2048,2048
286.506,-4.19312e-08,0,2048,2048
286.553,-4.01381e-08,0,2048,2048
286.605,-3.83265e-08,0,2048,2048
286.652,-3.68941e-08,0,2048,2048
286.705,-3.54748e-08,0,2048,2048
286.752,-3.43758e-08,0,2048,2048
286.805,-3.33112e-08,0,2048,2048
286.851,-3.25075e-08,0,2048,2048
286.904,-3.17511e-08,0,2048,2048
286.951,-3.11992e-08,0,2048,2048
287.004,-3.07009e-08,0,2048,2048
287.051,-3.03559e-08,0,2048,2048
287.103,-3.00655e-08,0,2048,2048
287.15,-2.98838e-08,0,2048,2048
287.203,-2.97541e-08,0,2048,2048
287.256,-2.96918e-08,0,2048,2048
287.303,-2.96842e-08,0,2048,2048
287.355,-2.97199e-08,0,2048,2048
287.402,-2.9784e-08,0,2048,2048
287.455,-2.98844e-08,0,2048,2048
287.502,-2.99931e-08,0,2048,2048
287.554,-3.0131e-08,0,2048,2048
287.601,-3.02625e-08,0,2048,2048
287.654,-3.04158e-08,0,2048,2048
287.701,-3.0553e-08,0,2048,2048
287.754,-3.07047e-08,0,2048,2048
287.801,-3.08343e-08,0,2048,2048
287.853,-3.09716e-08,0,2048,2048
287.9,-3.1084e-08,0,2048,2048
287.953,-3.11979e-08,0,2048,2048
288.006,-3.12969e-08,0,2048,2048
288.052,-3.13714e-08,0,2048,2048
288.105,-3.14395e-08,0,2048,2048
288.152,-3.14858e-08,0,2048,2048
288.205,-3.15217e-08,0,2048,2048
288.252,-3.15395e-08,0,2048,2048
288.304,-3.15441e-08,0,2048,2048
288.351,-3.1535e-08,0,2048,2048
288.404,-3.15107e-08,0,2048,2048
288.451,-3.14774e-08,0,2048,2048
288.504,-3.14276e-08,0,2048,2048
288.55,-3.13734e-08,0,2048,2048
288.603,-3.1302e-08,0,2048,2048
288.65,-3.12303e-08,0,2048,2048
288.703,-3.11412e-08,0,2048,2048
288.755,-3.10442e-08,0,2048,2048
288.802,-3.0952e-08,0,2048,2048
288.855,-3.08422e-08,0,2048,2048
288.902,-3.07397e-08,0,2048,2048
288.955,-3.06194e-08,0,2048,2048
289.002,-3.05082e-08,0,2048,2048
289.054,-3.03785e-08,0,2048,2048
289.101,-3.0259e-08,0,2048,2048
289.154,-3.01197e-08,0,2048,2048
289.201,-2.9991e-08,0,2048,2048
289.253,-2.98404e-08,0,2048,2048
289.3,-2.97004e-08,0,2048,2048
289.353,-2.95351e-08,0,2048,2048
289.406,-2.93603e-08,0,2048,2048
289.453,-2.91958e-08,0,2048,2048
289.505,-2.89991e-08,0,2048,2048
289.552,-2.88126e-08,0,2048,2048
289.605,-2.85885e-08,0,2048,2048
289.652,-2.83754e-08,0,2048,2048
289.705,-2.81189e-08,0,2048,2048
289.751,-2.78753e-08,0,2048,2048
289.804,-2.75833e-08,0,2048,2048
289.851,-2.73076e-08,0,2048,2048
289.904,-2.69796e-08,0,2048,2048
289.951,-2.66729e-08,0,2048,2048
290.003,-2.63123e-08,0,2048,2048
290.05,-2.59794e-08,0,2048,2048
290.103,-2.55934e-08,0,2048,2048
290.156,-2.51984e-08,0,2048,2048
290.203,-2.48426e-08,0,2048,2048
290.255,-2.44408e-08,0,2048,2048
290.302,-2.40857e-08,0,2048,2048
290.355,-2.36926e-08,0,2048,2048
290.402,-2.33524e-08,0,2048,2048
290.454,-2.29843e-08,0,2048,2048
290.501,-2.26735e-08,0,2048,2048
290.554,-2.23461e-08,0,2048,2048
290.601,-2.20778e-08,0,2048,2048
290.654,-2.18045e-08,0,2048,2048
290.7,-2.15891e-08,0,2048,2048
290.753,-2.13798e-08,0,2048,2048
290.8,-2.12242e-08,0,2048,2048
290.853,-2.10842e-08,0,2048,2048
290.906,-2.09814e-08,0,2048,2048
290.952,-2.09209e-08,0,2048,2048
291.005,-2.08863e-08,0,2048,2048
291.052,-2.08839e-08,0,2048,2048
291.105,-2.09108e-08,0,2048,2048
291.152,-2.09587e-08,0,2048,2048
291.204,-2.10365e-08,0,2048,2048
291.251,-2.1124e-08,0,2048,2048
291.304,-2.12394e-08,0,2048,2048
291.351,-2.13537e-08,0,2048,2048
291.404,-2.14919e-08,0,2048,2048
291.45,-2.16198e-08,0,2048,2048
291.503,-2.17657e-08,0,2048,2048
291.556,-2.19101e-08,0,2048,2048
291.603,-2.20342e-08,0,2048,2048
291.655,-2.21662e-08,0,2048,2048
291.702,-2.22744e-08,0,2048,2048
291.755,-2.23837e-08,0,2048,2048
291.802,-2.24682e-08,0,2048,2048
291.855,-2.25476e-08,0,2048,2048
291.901,-2.26033e-08,0,2048,2048
291.954,-2.26484e-08,0,2048,2048
292.001,-2.26726e-08,0,2048,2048
292.054,-2.26818e-08,0,2048,2048
292.101,-2.26738e-08,0,2048,2048
292.153,-2.26471e-08,0,2048,2048
292.2,-2.26079e-08,0,2048,2048
292.253,-2.2547e-08,0,2048,2048
292.306,-2.24689e-08,0,2048,2048
292.353,-2.23859e-08,0,2048,2048
292.405,-2.2278e-08,0,2048,2048
292.452,-2.217e-08,0,2048,2048
292.505,-2.20361e-08,0,2048,2048
292.552,-2.19071e-08,0,2048,2048
292.605,-2.17521e-08,0,2048,2048
292.651,-2.1607e-08,0,2048,2048
292.704,-2.14372e-08,0,2048,2048
292.751,-2.1282e-08,0,2048,2048
292.804,-2.11048e-08,0,2048,2048
292.851,-2.09466e-08,0,2048,2048
292.903,-2.07703e-08,0,2048,2048
292.95,-2.06169e-08,0,2048,2048
293.003,-2.04503e-08,0,2048,2048
293.056,-2.02922e-08,0,2048,2048
293.102,-2.01605e-08,0,2048,2048
293.155,-2.0024e-08,0,2048,2048
293.202,-1.99141e-08,0,2048,2048
293.255,-1.98043e-08,0,2048,2048
293.302,-1.97196e-08,0,2048,2048
293.354,-1.96389e-08,0,2048,2048
293.401,-1.958e-08,0,2048,2048
293.454,-1.95276e-08,0,2048,2048
293.501,-1.94924e-08,0,2048,2048
293.554,-1.94645e-08,0,2048,2048
293.6,-1.94488e-08,0,2048,2048
293.653,-1.94396e-08,0,2048,2048
293.7,-1.94374e-08,0,2048,2048
293.753,-1.94397e-08,0,2048,2048
293.806,-1.94451e-08,0,2048,2048
293.852,-1.94506e-08,0,2048,2048
293.905,-1.94557e-08,0,2048,2048
293.952,-1.94578e-08,0,2048,2048
294.005,-1.94557e-08,0,2048,2048
294.052,-1.94484e-08,0,2048,2048
294.104,-1.94328e-08,0,2048,2048
294.151,-1.94114e-08,0,2048,2048
294.204,-1.93778e-08,0,2048,2048
294.251,-1.93389e-08,0,2048,2048
294.303,-1.92846e-08,0,2048,2048
294.35,-1.92267e-08,0,2048,2048
294.403,-1.91509e-08,0,2048,2048
294.456,-1.90641e-08,0,2048,2048
294.503,-1.89783e-08,0,2048,2048
294.555,-1.88727e-08,0,2048,2048
294.602,-1.87715e-08,0,2048,2048
294.655,-1.86504e-08,0,2048,2048
294.702,-1.85371e-08,0,2048,2048
294.755,-1.84044e-08,0,2048,2048
294.801,-1.82825e-08,0,2048,2048
294.854,-1.81418e-08,0,2048,2048
294.901,-1.80143e-08,0,2048,2048
294.954,-1.78688e-08,0,2048,2048
295.001,-1.7738e-08,0,2048,2048
295.053,-1.75896e-08,0,2048,2048
295.1,-1.74568e-08,0,2048,2048
295.153,-1.73066e-08,0,2048,2048
295.206,-1.71556e-08,0,2048,2048
295.253,-1.70205e-08,0,2048,2048
295.305,-1.68676e-08,0,2048,2048
295.352,-1.67306e-08,0,2048,2048
295.405,-1.65749e-08,0,2048,2048
295.452,-1.6435e-08,0,2048,2048
295.504,-1.62755e-08,0,2048,2048
295.551,-1.61317e-08,0,2048,2048
295.604,-1.59672e-08,0,2048,2048
295.651,-1.58183e-08,0,2048,2048
295.704,-1.56477e-08,0,2048,2048
295.751,-1.54929e-08,0,2048,2048
295.803,-1.5315e-08,0,2048,2048
295.85,-1.51532e-08,0,2048,2048
295.903,-1.4967e-08,0,2048,2048
295.956,-1.4776e-08,0,2048,2048
296.002,-1.46018e-08,0,2048,2048
296.055,-1.44007e-08,0,2048,2048
296.102,-1.4217e-08,0,2048,2048
296.155,-1.40043e-08,0,2048,2048
296.202,-1.38096e-08,0,2048,2048
296.254,-1.35836e-08,0,2048,2048
296.301,-1.33761e-08,0,2048,2048
296.354,-1.31347e-08,0,2048,2048
296.401,-1.29124e-08,0,2048,2048
296.454,-1.26529e-08,0,2048,2048
296.5,-1.24133e-08,0,2048,2048
296.553,-1.21326e-08,0,2048,2048
296.6,-1.18726e-08,0,2048,2048
296.653,-1.15673e-08,0,2048,2048
296.705,-1.12474e-08,0,2048,2048
296.752,-1.095e-08,0,2048,2048
296.805,-1.05997e-08,0,2048,2048
296.852,-1.02737e-08,0,2048,2048
296.905,-9.88952e-09,0,2048,2048
296.952,-9.53199e-09,0,2048,2048
297.004,-9.11116e-09,0,2048,2048
297.051,-8.72023e-09,0,2048,2048
297.104,-8.26129e-09,0,2048,2048
297.151,-7.83641e-09,0,2048,2048
297.203,-7.33972e-09,0,2048,2048
297.25,-6.88215e-09,0,2048,2048
297.303,-6.35029e-09,0,2048,2048
297.356,-5.8017e-09,0,2048,2048
297.403,-5.30144e-09,0,2048,2048
297.455,-4.72638e-09,0,2048,2048
297.502,-4.20621e-09,0,2048,2048
297.555,-3.61337e-09,0,2048,2048
297.602,-3.08191e-09,0,2048,2048
297.655,-2.48189e-09,0,2048,2048
297.701,-1.94924e-09,0,2048,2048
297.754,-1.35398e-09,0,2048,2048
297.801,-8.31098e-10,0,2048,2048
297.854,-2.53096e-10,0,2048,2048
297.901,2.48897e-10,0,2048,2048
297.953,7.97338e-10,0,2048,2048
298,1.26788e-09,0,2048,2048
298.053,1.77548e-09,0,2048,2048
298.106,2.25744e-09,0,2048,2048
298.153,2.6624e-09,0,2048,2048
298.205,3.08975e-09,0,2048,2048
298.252,3.4432e-09,0,2048,2048
298.305,3.80995e-09,0,2048,2048
298.352,4.10777e-09,0,2048,2048
298.404,4.41063e-09,0,2048,2048
298.451,4.65111e-09,0,2048,2048
298.504,4.88954e-09,0,2048,2048
298.551,5.07336e-09,0,2048,2048
298.604,5.24934e-09,0,2048,2048
298.65,5.3793e-09,0,2048,2048
298.703,5.49703e-09,0,2048,2048
298.75,5.57768e-09,0,2048,2048
298.803,5.64309e-09,0,2048,2048
298.856,5.68363e-09,0,2048,2048
298.902,5.70051e-09,0,2048,2048
298.955,5.69994e-09,0,2048,2048
299.002,5.68379e-09,0,2048,2048
299.055,5.65009e-09,0,2048,2048
299.102,5.60807e-09,0,2048,2048
299.154,5.54922e-09,0,2048,2048
299.201,5.48831e-09,0,2048,2048
299.254,5.41198e-09,0,2048,2048
299.301,5.33874e-09,0,2048,2048
299.354,5.25201e-09,0,2048,2048
299.4,5.17242e-09,0,2048,2048
299.453,5.08158e-09,0,2048,2048
299.506,4.9908e-09,0,2048,2048
299.553,4.91125e-09,0,2048,2048
299.605,4.82412e-09,0,2048,2048
299.652,4.74954e-09,0,2048,2048
299.705,4.66961e-09,0,2048,2048
299.752,4.60258e-09,0,2048,2048
299.805,4.53206e-09,0,2048,2048
299.851,4.47386e-09,0,2048,2048
299.904,4.41343e-09,0,2048,2048
299.951,4.364e-09,0,2048,2048
300.004,4.31281e-09,0,2048,2048
300.051,4.27074e-09,0,2048,2048
300.103,4.22655e-09,0,2048,2048
300.15,4.18931e-09,0,2048,2048
300.203,4.14877e-09,0,2048,2048
300.256,4.10857e-09,0,2048,2048
300.303,4.0722e-09,0,2048,2048
300.355,4.02953e-09,0,2048,2048
300.402,3.98922e-09,0,2048,2048
300.455,3.94032e-09,0,2048,2048
300.502,3.89305e-09,0,2048,2048
300.555,3.83503e-09,0,2048,2048
300.601,3.77881e-09,0,2048,2048
300.654,3.71012e-09,0,2048,2048
300.701,3.64426e-09,0,2048,2048
300.754,3.56495e-09,0,2048,2048
300.801,3.49019e-09,0,2048,2048
300.853,3.4019e-09,0,2048,2048
300.9,3.32034e-09,0,2048,2048
300.953,3.22604e-09,0,2048,2048
301.006,3.13013e-09,0,2048,2048
301.052,3.04451e-09,0,2048,2048
301.105,2.94893e-09,0,2048,2048
301.152,2.86563e-09,0,2048,2048
301.205,2.77492e-09,0,2048,2048
301.252,2.6979e-09,0,2048,2048
301.304,2.61635e-09,0,2048,2048
301.351,2.54917e-09,0,2048,2048
301.404,2.48036e-09,0,2048,2048
301.451,2.42576e-09,0,2048,2048
301.504,2.37221e-09,0,2048,2048
301.55,2.3319e-09,0,2048,2048
301.603,2.2949e-09,0,2048,2048
301.65,2.26942e-09,0,2048,2048
301.703,2.2489e-09,0,2048,2048
301.756,2.23664e-09,0,2048,2048
301.802,2.23226e-09,0,2048,2048
301.855,2.23405e-09,0,2048,2048
301.902,2.24102e-09,0,2048,2048
301.955,2.25412e-09,0,2048,2048
302.002,2.26974e-09,0,2048,2048
302.054,2.29093e-09,0,2048,2048
302.101,2.31224e-09,0,2048,2048
302.154,2.33816e-09,0,2048,2048
302.201,2.36225e-09,0,2048,2048
302.253,2.38977e-09,0,2048,2048
302.3,2.41404e-09,0,2048,2048
302.353,2.4405e-09,0,2048,2048
302.406,2.46552e-09,0,2048,2048
302.453,2.48616e-09,0,2048,2048
302.505,2.5072e-09,0,2048,2048
302.552,2.52373e-09,0,2048,2048
302.605,2.53967e-09,0,2048,2048
302.652,2.55136e-09,0,2048,2048
302.705,2.56162e-09,0,2048,2048
302.751,2.56815e-09,0,2048,2048
302.804,2.57257e-09,0,2048,2048
302.851,2.57394e-09,0,2048,2048
302.904,2.57267e-09,0,2048,2048
302.951,2.56913e-09,0,2048,2048
303.003,2.56252e-09,0,2048,2048
303.05,2.55444e-09,0,2048,2048
303.103,2.54299e-09,0,2048,2048
303.156,2.52921e-09,0,2048,2048
303.203,2.51513e-09,0,2048,2048
303.255,2.4974e-09,0,2048,2048
303.302,2.48011e-09,0,2048,2048
303.355,2.45909e-09,0,2048,2048
303.402,2.43918e-09,0,2048,2048
303.454,2.41555e-09,0,2048,2048
303.501,2.39362e-09,0,2048,2048
303.554,2.36806e-09,0,2048,2048
303.601,2.34471e-09,0,2048,2048
303.654,2.31787e-09,0,2048,2048
303.701,2.29366e-09,0,2048,2048
303.753,2.26615e-09,0,2048,2048
303.8,2.24158e-09,0,2048,2048
303.853,2.21391e-09,0,2048,2048
303.906,2.18635e-09,0,2048,2048
303.952,2.16201e-09,0,2048,2048
304.005,2.13489e-09,0,2048,2048
304.052,2.11108e-09,0,2048,2048
304.105,2.08467e-09,0,2048,2048
304.152,2.06156e-09,0,2048,2048
304.204,2.036e-09,0,2048,2048
304.251,2.01367e-09,0,2048,2048
304.304,1.989e-09,0,2048,2048
304.351,1.96747e-09,0,2048,2048
304.404,1.94366e-09,0,2048,2048
304.45,1.92284e-09,0,2048,2048
304.503,1.89978e-09,0,2048,2048
304.55,1.87957e-09,0,2048,2048
304.603,1.85711e-09,0,2048,2048
304.655,1.8349e-09,0,2048,2048
304.702,1.81531e-09,0,2048,2048
304.755,1.79342e-09,0,2048,2048
304.802,1.77403e-09,0,2048,2048
304.855,1.75225e-09,0,2048,2048
304.902,1.73289e-09,0,2048,2048
304.954,1.71106e-09,0,2048,2048
