250,0,0,8192,8192
250.003,0,0,8192,8192
250.053,0,0,8192,8192
250.103,0,0,8192,8192
250.152,0,0,8192,8192
250.202,2.77556e-17,0,8192,8192
250.252,0,0,8192,8192
250.302,0,0,8192,8192
250.352,-2.77556e-17,0,8192,8192
250.401,-2.77556e-17,0,8192,8192
250.451,-2.77556e-17,0,8192,8192
250.501,-2.77556e-17,0,8192,8192
250.551,-2.77556e-17,0,8192,8192
250.6,-2.77556e-17,0,8192,8192
250.65,-2.77556e-17,0,8192,8192
250.7,-2.77556e-17,0,8192,8192
250.753,-2.77556e-17,0,8192,8192
250.803,-2.77556e-17,0,8192,8192
250.852,-2.77556e-17,0,8192,8192
250.902,-2.77556e-17,0,8192,8192
250.952,-2.77556e-17,0,8192,8192
251.002,-2.77556e-17,0,8192,8192
251.052,-2.77556e-17,0,8192,8192
251.101,-2.77556e-17,0,8192,8192
251.151,-2.77556e-17,0,8192,8192
251.201,-2.77556e-17,0,8192,8192
251.251,-2.77556e-17,0,8192,8192
251.301,-2.77556e-17,0,8192,8192
251.35,-2.77556e-17,0,8192,8192
251.4,-2.77556e-17,0,8192,8192
251.453,-2.77556e-17,0,8192,8192
251.503,-2.77556e-17,0,8192,8192
251.553,0,0,8192,8192
251.602,2.77556e-17,0,8192,8192
251.652,2.77556e-17,0,8192,8192
251.702,5.55112e-17,0,8192,8192
251.752,5.55112e-17,0,8192,8192
251.801,0,0,8192,8192
251.851,0,0,8192,8192
251.901,0,0,8192,8192
251.951,0,0,8192,8192
252.001,0,0,8192,8192
252.05,0,0,8192,8192
252.1,0,0,8192,8192
252.15,2.77556e-17,0,8192,8192
252.203,2.77556e-17,0,8192,8192
252.253,-2.77556e-17,0,8192,8192
252.302,-2.77556e-17,0,8192,8192
252.352,-2.77556e-17,0,8192,8192
252.402,-2.77556e-17,0,8192,8192
252.452,-2.77556e-17,0,8192,8192
252.502,-2.77556e-17,0,8192,8192
252.551,-2.77556e-17,0,8192,8192
252.601,-2.77556e-17,0,8192,8192
252.651,-2.77556e-17,0,8192,8192
252.701,-2.77556e-17,0,8192,8192
252.751,-2.77556e-17,0,8192,8192
252.8,-2.77556e-17,0,8192,8192
252.85,-2.77556e-17,0,8192,8192
252.903,-2.77556e-17,0,8192,8192
252.953,-2.77556e-17,0,8192,8192
253.002,-2.77556e-17,0,8192,8192
253.052,2.77556e-17,0,8192,8192
253.102,0,0,8192,8192
253.152,2.77556e-17,0,8192,8192
253.202,2.77556e-17,0,8192,8192
253.251,2.77556e-17,0,8192,8192
253.301,2.77556e-17,0,8192,8192
253.351,2.77556e-17,0,8192,8192
253.401,2.77556e-17,0,8192,8192
253.451,2.77556e-17,0,8192,8192
253.5,2.77556e-17,0,8192,8192
253.55,2.77556e-17,0,8192,8192
253.6,2.77556e-17,0,8192,8192
253.653,2.77556e-17,0,8192,8192
253.703,2.77556e-17,0,8192,8192
253.752,5.55112e-17,0,8192,8192
253.802,5.55112e-17,0,8192,8192
253.852,5.55112e-17,0,8192,8192
253.902,5.55112e-17,0,8192,8192
253.952,2.77556e-17,0,8192,8192
254.001,2.77556e-17,0,8192,8192
254.051,5.55112e-17,0,8192,8192
254.101,5.55112e-17,0,8192,8192
254.151,5.55112e-17,0,8192,8192
254.201,5.55112e-17,0,8192,8192
254.25,2.77556e-17,0,8192,8192
254.3,2.77556e-17,0,8192,8192
254.353,2.77556e-17,0,8192,8192
254.403,2.77556e-17,0,8192,8192
254.452,2.77556e-17,0,8192,8192
254.502,2.77556e-17,0,8192,8192
254.552,2.77556e-17,0,8192,8192
254.602,2.77556e-17,0,8192,8192
254.652,0,0,8192,8192
254.701,2.77556e-17,0,8192,8192
254.751,0,0,8192,8192
254.801,0,0,8192,8192
254.851,0,0,8192,8192
254.901,0,0,8192,8192
254.95,0,0,8192,8192
255,0,0,8192,8192
255.05,0,0,8192,8192
255.103,0,0,8192,8192
255.153,2.77556e-17,0,8192,8192
255.202,2.77556e-17,0,8192,8192
255.252,2.77556e-17,0,8192,8192
255.302,2.77556e-17,0,8192,8192
255.352,2.77556e-17,0,8192,8192
255.402,2.77556e-17,0,8192,8192
255.451,2.77556e-17,0,8192,8192
255.501,2.77556e-17,0,8192,8192
255.551,2.77556e-17,0,8192,8192
255.601,0,0,8192,8192
255.651,2.77556e-17,0,8192,8192
255.7,0,0,8192,8192
255.75,2.77556e-17,0,8192,8192
255.803,0,0,8192,8192
255.853,0,0,8192,8192
255.902,2.77556e-17,0,8192,8192
255.952,2.77556e-17,0,8192,8192
256.002,0,0,8192,8192
256.052,0,0,8192,8192
256.102,0,0,8192,8192
256.151,0,0,8192,8192
256.201,0,0,8192,8192
256.251,0,0,8192,8192
256.301,2.77556e-17,0,8192,8192
256.351,0,0,8192,8192
256.4,5.55112e-17,0,8192,8192
256.45,5.55112e-17,0,8192,8192
256.5,5.55112e-17,0,8192,8192
256.553,2.77556e-17,0,8192,8192
256.603,2.77556e-17,0,8192,8192
256.652,2.77556e-17,0,8192,8192
256.702,2.77556e-17,0,8192,8192
256.752,2.77556e-17,0,8192,8192
256.802,2.77556e-17,0,8192,8192
256.852,-2.77556e-17,0,8192,8192
256.901,-2.77556e-17,0,8192,8192
256.951,-2.77556e-17,0,8192,8192
257.001,-5.55112e-17,0,8192,8192
257.051,-5.55112e-17,0,8192,8192
257.101,-5.55112e-17,0,8192,8192
257.15,-2.77556e-17,0,8192,8192
257.2,-2.77556e-17,0,8192,8192
257.253,-2.77556e-17,0,8192,8192
257.303,-2.77556e-17,0,8192,8192
257.352,-2.77556e-17,0,8192,8192
257.402,-2.77556e-17,0,8192,8192
257.452,-2.77556e-17,0,8192,8192
257.502,-2.77556e-17,0,8192,8192
257.552,-2.77556e-17,0,8192,8192
257.601,-2.77556e-17,0,8192,8192
257.651,-2.77556e-17,0,8192,8192
257.701,-2.77556e-17,0,8192,8192
257.751,-2.77556e-17,0,8192,8192
257.801,-2.77556e-17,0,8192,8192
257.85,-2.77556e-17,0,8192,8192
257.9,-2.77556e-17,0,8192,8192
257.95,-2.77556e-17,0,8192,8192
258.003,-2.77556e-17,0,8192,8192
258.053,-2.77556e-17,0,8192,8192
258.102,-2.77556e-17,0,8192,8192
258.152,-2.77556e-17,0,8192,8192
258.202,-2.77556e-17,0,8192,8192
258.252,-2.77556e-17,0,8192,8192
258.302,-2.77556e-17,0,8192,8192
258.351,-2.77556e-17,0,8192,8192
258.401,-2.77556e-17,0,8192,8192
258.451,-2.77556e-17,0,8192,8192
258.501,-2.77556e-17,0,8192,8192
258.551,-2.77556e-17,0,8192,8192
258.6,-2.77556e-17,0,8192,8192
258.65,-2.77556e-17,0,8192,8192
258.703,-2.77556e-17,0,8192,8192
258.753,-2.77556e-17,0,8192,8192
258.802,-2.77556e-17,0,8192,8192
258.852,-2.77556e-17,0,8192,8192
258.902,-2.77556e-17,0,8192,8192
258.952,-2.77556e-17,0,8192,8192
259.002,-2.77556e-17,0,8192,8192
259.051,-2.77556e-17,0,8192,8192
259.101,-2.77556e-17,0,8192,8192
259.151,-2.77556e-17,0,8192,8192
259.201,-2.77556e-17,0,8192,8192
259.251,2.77556e-17,0,8192,8192
259.3,5.55112e-17,0,8192,8192
259.35,5.55112e-17,0,8192,8192
259.403,5.55112e-17,0,8192,8192
259.453,5.55112e-17,0,8192,8192
259.503,5.55112e-17,0,8192,8192
259.552,5.55112e-17,0,8192,8192
259.602,5.55112e-17,0,8192,8192
259.652,5.55112e-17,0,8192,8192
259.702,5.55112e-17,0,8192,8192
259.751,5.55112e-17,0,8192,8192
259.801,5.55112e-17,0,8192,8192
259.851,5.55112e-17,0,8192,8192
259.901,5.55112e-17,0,8192,8192
259.951,5.55112e-17,0,8192,8192
260,2.77556e-17,0,8192,8192
260.05,2.77556e-17,0,8192,8192
260.1,2.77556e-17,0,8192,8192
260.153,2.77556e-17,0,8192,8192
260.203,2.77556e-17,0,8192,8192
260.252,5.55112e-17,0,8192,8192
260.302,5.55112e-17,0,8192,8192
260.352,2.77556e-17,0,8192,8192
260.402,5.55112e-17,0,8192,8192
260.452,5.55112e-17,0,8192,8192
260.501,5.55112e-17,0,8192,8192
260.551,5.55112e-17,0,8192,8192
260.601,5.55112e-17,0,8192,8192
260.651,5.55112e-17,0,8192,8192
260.701,5.55112e-17,0,8192,8192
260.75,5.55112e-17,0,8192,8192
260.8,5.55112e-17,0,8192,8192
260.853,2.77556e-17,0,8192,8192
260.903,2.77556e-17,0,8192,8192
260.952,5.55112e-17,0,8192,8192
261.002,5.55112e-17,0,8192,8192
261.052,5.55112e-17,0,8192,8192
261.102,2.77556e-17,0,8192,8192
261.152,2.77556e-17,0,8192,8192
261.201,2.77556e-17,0,8192,8192
261.251,2.77556e-17,0,8192,8192
261.301,2.77556e-17,0,8192,8192
261.351,2.77556e-17,0,8192,8192
261.401,2.77556e-17,0,8192,8192
261.45,2.77556e-17,0,8192,8192
261.5,2.77556e-17,0,8192,8192
261.55,2.77556e-17,0,8192,8192
261.603,2.77556e-17,0,8192,8192
261.653,2.77556e-17,0,8192,8192
261.702,2.77556e-17,0,8192,8192
261.752,2.77556e-17,0,8192,8192
261.802,2.77556e-17,0,8192,8192
261.852,2.77556e-17,0,8192,8192
261.902,2.77556e-17,0,8192,8192
261.951,2.77556e-17,0,8192,8192
262.001,2.77556e-17,0,8192,8192
262.051,2.77556e-17,0,8192,8192
262.101,2.77556e-17,0,8192,8192
262.151,0,0,8192,8192
262.2,0,0,8192,8192
262.25,0,0,8192,8192
262.303,-2.77556e-17,0,8192,8192
262.353,-2.77556e-17,0,8192,8192
262.402,-2.77556e-17,0,8192,8192
262.452,-2.77556e-17,0,8192,8192
262.502,-2.77556e-17,0,8192,8192
262.552,-2.77556e-17,0,8192,8192
262.602,2.77556e-17,0,8192,8192
262.651,2.77556e-17,0,8192,8192
262.701,2.77556e-17,0,8192,8192
262.751,2.77556e-17,0,8192,8192
262.801,2.77556e-17,0,8192,8192
262.851,2.77556e-17,0,8192,8192
262.9,2.77556e-17,0,8192,8192
262.95,0,0,8192,8192
263,0,0,8192,8192
263.053,0,0,8192,8192
263.103,2.77556e-17,0,8192,8192
263.152,2.77556e-17,0,8192,8192
263.202,2.77556e-17,0,8192,8192
263.252,0,0,8192,8192
263.302,0,0,8192,8192
263.352,2.77556e-17,0,8192,8192
263.401,2.77556e-17,0,8192,8192
263.451,0,0,8192,8192
263.501,0,0,8192,8192
263.551,2.77556e-17,0,8192,8192
263.601,2.77556e-17,0,8192,8192
263.65,0,0,8192,8192
263.7,0,0,8192,8192
263.753,2.77556e-17,0,8192,8192
263.803,0,0,8192,8192
263.852,0,0,8192,8192
263.902,0,0,8192,8192
263.952,0,0,8192,8192
264.002,-2.77556e-17,0,8192,8192
264.052,-2.77556e-17,0,8192,8192
264.101,-8.32667e-17,0,8192,8192
264.151,-8.32667e-17,0,8192,8192
264.201,-8.32667e-17,0,8192,8192
264.251,-8.32667e-17,0,8192,8192
264.301,-8.32667e-17,0,8192,8192
264.35,-8.32667e-17,0,8192,8192
264.4,-8.32667e-17,0,8192,8192
264.45,-5.55112e-17,0,8192,8192
264.503,-2.77556e-17,0,8192,8192
264.553,-2.77556e-17,0,8192,8192
264.602,-2.77556e-17,0,8192,8192
264.652,-2.77556e-17,0,8192,8192
264.702,-2.77556e-17,0,8192,8192
264.752,-2.77556e-17,0,8192,8192
264.802,-2.77556e-17,0,8192,8192
264.851,-2.77556e-17,0,8192,8192
264.901,-2.77556e-17,0,8192,8192
264.951,-5.55112e-17,0,8192,8192
265.001,-2.77556e-17,0,8192,8192
265.051,-5.55112e-17,0,8192,8192
265.1,-5.55112e-17,0,8192,8192
265.15,-5.55112e-17,0,8192,8192
265.203,-5.55112e-17,0,8192,8192
265.253,-5.55112e-17,0,8192,8192
265.302,-2.77556e-17,0,8192,8192
265.352,-5.55112e-17,0,8192,8192
265.402,-2.77556e-17,0,8192,8192
265.452,-5.55112e-17,0,8192,8192
265.502,-5.55112e-17,0,8192,8192
265.551,-2.77556e-17,0,8192,8192
265.601,0,0,8192,8192
265.651,0,0,8192,8192
265.701,0,0,8192,8192
265.751,0,0,8192,8192
265.8,0,0,8192,8192
265.85,0,0,8192,8192
265.9,0,0,8192,8192
265.953,0,0,8192,8192
266.003,0,0,8192,8192
266.052,0,0,8192,8192
266.102,0,0,8192,8192
266.152,2.77556e-17,0,8192,8192
266.202,0,0,8192,8192
266.252,0,0,8192,8192
266.301,0,0,8192,8192
266.351,0,0,8192,8192
266.401,-2.77556e-17,0,8192,8192
266.451,-2.77556e-17,0,8192,8192
266.501,0,0,8192,8192
266.55,0,0,8192,8192
266.6,0,0,8192,8192
266.653,0,0,8192,8192
266.703,0,0,8192,8192
266.752,0,0,8192,8192
266.802,0,0,8192,8192
266.852,0,0,8192,8192
266.902,0,0,8192,8192
266.952,0,0,8192,8192
267.001,0,0,8192,8192
267.051,0,0,8192,8192
267.101,-2.77556e-17,0,8192,8192
267.151,-2.77556e-17,0,8192,8192
267.201,0,0,8192,8192
267.25,0,0,8192,8192
267.3,0,0,8192,8192
267.353,0,0,8192,8192
267.403,0,0,8192,8192
267.453,0,0,8192,8192
267.502,2.77556e-17,0,8192,8192
267.552,2.77556e-17,0,8192,8192
267.602,0,0,8192,8192
267.652,0,0,8192,8192
267.702,0,0,8192,8192
267.751,0,0,8192,8192
267.801,0,0,8192,8192
267.851,0,0,8192,8192
267.901,0,0,8192,8192
267.95,2.77556e-17,0,8192,8192
268,0,0,8192,8192
268.05,0,0,8192,8192
268.1,0,0,9236,9236
268.151,0,0,9964,9964
268.2,0,0,10572,10572
268.25,0,0,11372,11372
268.301,0,0,12108,12108
268.351,0,0,12596,12596
268.4,0,0,12980,12980
268.45,0,0,13820,13820
268.501,0,0,14444,14444
268.55,0,0,14868,14868
268.6,0,0,15540,15540
268.65,0,0,16252,16252
268.701,0,0,16556,16556
268.75,0,0,17284,17284
268.8,0,0,18116,18116
268.851,0,0,18412,18412
268.9,0,0,18828,18828
268.95,0,0,19396,19396
269,0,0,19524,19524
269.051,0,0,19900,19900
269.1,0,0,20356,20356
269.15,0,0,20780,20780
269.201,0,0,20732,20732
269.251,0,0,20948,20948
269.3,0,0,21412,21412
269.35,0,0,21828,21828
269.401,0,0,22012,22012
269.45,0,0,22780,22780
269.5,0,0,23540,23540
269.55,0,0,24044,24044
269.601,0,0,24828,24828
269.65,0,0,25516,25516
269.7,0,0,26288,26288
269.751,0,0,26884,26884
269.8,0,0,27694,27694
269.85,0,0,28366,28366
269.9,0,0,29144,29144
269.951,0,0,29816,29816
270,0,0,30612,30612
270.05,0,0,31362,31362
270.1,0,0,32062,32062
270.151,0,0,32692,32692
270.2,0,0,33522,33522
270.25,0,0,34168,34168
270.301,0,0,34924,34924
270.35,0,0,35542,35542
270.4,0,0,36350,36350
270.45,0,0,37092,37092
270.501,0,0,37816,37816
270.55,0,0,38538,38538
270.6,0,0,39310,39310
270.651,0,0,39984,39984
270.701,0,0,40680,40680
270.75,0,0,41326,41326
270.8,0,0,42220,42220
270.851,0,0,42916,42916
270.9,0,0,43650,43650
270.95,0,0,44472,44472
271,0,0,45260,45260
271.051,0,0,45912,45912
271.1,0,0,46808,46808
271.15,0,0,47490,47490
271.201,0,0,48182,48182
271.25,0,0,48932,48932
271.3,0,0,49632,49632
271.35,0,0,50390,50390
271.401,0,0,51162,51162
271.45,0,0,51792,51792
271.5,0,0,52564,52564
271.551,0,0,53310,53310
271.601,0,0,54018,54018
271.65,0,0,54498,54498
271.7,0,0,55260,55260
271.751,0,0,56022,56022
271.8,0,0,56704,56704
271.85,0,0,57272,57272
271.9,0,0,58084,58084
271.951,4.996e-16,0,58828,58828
272,2.35922e-15,0,59468,59468
272.05,4.2466e-15,0,60014,60014
272.101,6.16174e-15,0,60898,60898
272.15,8.04912e-15,0,61540,61540
272.2,9.9365e-15,0,62262,62262
272.25,1.17684e-14,0,62800,62800
272.301,1.36557e-14,0,63518,63518
272.35,1.55431e-14,0,63962,63962
272.4,1.74305e-14,0,64884,64884
272.451,1.93456e-14,0,65598,65598
272.501,2.42029e-14,0,66160,66160
272.55,3.83582e-14,0,66886,66886
272.6,6.28386e-14,0,67574,67574
272.651,5.44564e-14,0,68274,68274
272.7,-1.87517e-13,0,68942,68942
272.75,-1.24228e-12,0,69514,69514
272.8,-4.38746e-12,0,70290,70290
272.851,-1.20135e-11,0,70966,70966
272.9,-2.70606e-11,0,71598,71598
272.95,-5.29386e-11,0,72144,72144
273.001,-1.00392e-10,0,72762,72762
273.05,-2.31932e-10,0,73532,73532
273.1,-4.23629e-10,0,73968,73968
273.15,-4.317e-10,0,74546,74546
273.201,-2.32196e-10,0,75184,75184
273.25,1.55828e-10,0,75626,75626
273.3,3.09046e-10,0,76412,76412
273.35,2.74731e-10,0,77004,77004
273.401,1.52392e-10,0,77792,77792
273.45,-7.5256e-11,0,78286,78286
273.5,-7.7727e-11,0,78816,78816
273.551,2.08621e-11,0,79388,79388
273.6,2.16868e-10,0,80114,80114
273.65,2.42993e-10,0,80748,80748
273.7,1.7205e-10,0,80576,80576
273.751,4.88709e-11,0,80472,80472
273.8,7.6083e-12,0,80988,80988
273.85,5.12053e-11,0,81946,81946
273.901,1.32578e-10,0,82582,82582
273.951,1.75399e-10,0,83128,83128
274,1.5504e-10,0,83610,83610
274.05,1.13884e-10,0,84534,84534
274.101,7.5182e-11,0,86012,86012
274.15,7.73669e-11,0,86592,86592
274.2,1.09445e-10,0,87212,87212
274.25,1.92998e-10,0,87666,87666
274.301,2.39245e-10,0,88282,88282
274.35,2.18641e-10,0,88894,88894
274.4,8.10915e-11,0,89630,89630
274.451,-2.40184e-10,0,90220,90220
274.5,-2.0648e-10,0,90826,90826
274.55,2.90677e-10,0,91354,91354
274.6,8.38684e-10,0,91704,91704
274.651,7.29858e-10,0,92222,92222
274.7,-3.42974e-10,0,92880,92880
274.75,-1.39026e-09,0,93402,93402
274.801,-7.95365e-10,0,93508,93508
274.851,2.64975e-09,0,93718,93718
274.9,8.61276e-09,0,93226,93226
274.95,1.56415e-08,0,92808,92808
275.001,2.22251e-08,0,92018,92018
275.05,2.71824e-08,0,91378,91378
275.1,3.04075e-08,0,90934,90934
275.15,3.2457e-08,0,90742,90742
275.201,3.47214e-08,0,90454,90454
275.25,3.88765e-08,0,90158,90158
275.3,4.61196e-08,0,90118,90118
275.351,5.66054e-08,0,90002,90002
275.4,6.92134e-08,0,90032,90032
275.45,8.36074e-08,0,89578,89578
275.5,1.00432e-07,0,89342,89342
275.551,1.21556e-07,0,88792,88792
275.6,1.48017e-07,0,88238,88238
275.65,1.81247e-07,0,87464,87464
275.7,2.21678e-07,0,86438,86438
275.751,2.69367e-07,0,85744,85744
275.8,3.20877e-07,0,84746,84746
275.85,3.74293e-07,0,84064,84064
275.901,4.29057e-07,0,83244,83244
275.95,4.84525e-07,0,82700,82700
276,5.43572e-07,0,81924,81924
276.05,6.06817e-07,0,81408,81408
276.101,6.72746e-07,0,80616,80616
276.15,7.34806e-07,0,79976,79976
276.2,7.89517e-07,0,79378,79378
276.251,8.34606e-07,0,78944,78944
276.3,8.67452e-07,0,78684,78684
276.351,8.89553e-07,0,78364,78364
276.4,9.02319e-07,0,78188,78188
276.45,9.08787e-07,0,77986,77986
276.5,9.11132e-07,0,77706,77706
276.55,9.10434e-07,0,77432,77432
276.601,9.06438e-07,0,77314,77314
276.65,8.98651e-07,0,77024,77024
276.7,8.85945e-07,0,76972,76972
276.75,8.67033e-07,0,76948,76948
276.8,8.40676e-07,0,76660,76660
276.85,8.0651e-07,0,76682,76682
276.901,7.63085e-07,0,76654,76654
276.95,7.12652e-07,0,76548,76548
277.001,6.57083e-07,0,76154,76154
277.05,6.0067e-07,0,75942,75942
277.1,5.44556e-07,0,75696,75696
277.15,4.92316e-07,0,75180,75180
277.2,4.43849e-07,0,75022,75022
277.25,3.99301e-07,0,74978,74978
277.301,3.58304e-07,0,75642,75642
277.35,3.20779e-07,0,75990,75990
277.4,2.85382e-07,0,76910,76910
277.451,2.51091e-07,0,77840,77840
277.5,2.1888e-07,0,79194,79194
277.55,1.88893e-07,0,79660,79660
277.601,1.62379e-07,0,80026,80026
277.65,1.41877e-07,0,80656,80656
277.7,1.26646e-07,0,81474,81474
277.751,1.14641e-07,0,82566,82566
277.8,1.02647e-07,0,83198,83198
277.85,8.90278e-08,0,84064,84064
277.901,7.44273e-08,0,84886,84886
277.951,6.12996e-08,0,85580,85580
278.001,5.12841e-08,0,86346,86346
278.051,4.45791e-08,0,86788,86788
278.1,4.03339e-08,0,87390,87390
278.151,3.71528e-08,0,88044,88044
278.201,3.35406e-08,0,88816,88816
278.251,2.83218e-08,0,89518,89518
278.301,2.15452e-08,0,90264,90264
278.35,1.46616e-08,0,91218,91218
278.4,9.46389e-09,0,91588,91588
278.451,7.00018e-09,0,91812,91812
278.501,6.70522e-09,0,91786,91786
278.55,7.2631e-09,0,91274,91274
278.601,7.84468e-09,0,90748,90748
278.65,8.09029e-09,0,89944,89944
278.7,8.17825e-09,0,89302,89302
278.75,8.25579e-09,0,88614,88614
278.801,8.33747e-09,0,87876,87876
278.85,8.39208e-09,0,87250,87250
278.9,8.37619e-09,0,86532,86532
278.95,8.14725e-09,0,85856,85856
279,7.58811e-09,0,85158,85158
279.051,7.2103e-09,0,84332,84332
279.1,7.11172e-09,0,83676,83676
279.15,7.11958e-09,0,82920,82920
279.2,7.13361e-09,0,82162,82162
279.251,7.15058e-09,0,81384,81384
279.3,7.16826e-09,0,80720,80720
279.35,7.18621e-09,0,79958,79958
279.4,7.20423e-09,0,79132,79132
279.451,7.22259e-09,0,78662,78662
279.5,7.24068e-09,0,78396,78396
279.55,7.25874e-09,0,78126,78126
279.601,7.27706e-09,0,77666,77666
279.65,7.29506e-09,0,76948,76948
279.7,7.31287e-09,0,76512,76512
279.75,7.33055e-09,0,75878,75878
279.801,7.34854e-09,0,75150,75150
279.85,7.36633e-09,0,75574,75574
279.9,7.38364e-09,0,75716,75716
279.95,7.39955e-09,0,76404,76404
280.001,7.41384e-09,0,76956,76956
280.05,7.42744e-09,0,77488,77488
280.1,7.44415e-09,0,78082,78082
280.151,7.46884e-09,0,78718,78718
280.2,7.50324e-09,0,79404,79404
280.25,7.55869e-09,0,80028,80028
280.3,7.62902e-09,0,80662,80662
280.351,7.7161e-09,0,81404,81404
280.4,7.84038e-09,0,82134,82134
280.45,7.98709e-09,0,82806,82806
280.501,8.17299e-09,0,83566,83566
280.551,8.45802e-09,0,84286,84286
280.6,8.76995e-09,0,85018,85018
280.65,9.10698e-09,0,85590,85590
280.701,9.45524e-09,0,86148,86148
280.75,9.83143e-09,0,86628,86628
280.8,1.02873e-08,0,87150,87150
280.85,1.08304e-08,0,87614,87614
280.901,1.1505e-08,0,87988,87988
280.95,1.23176e-08,0,88144,88144
281,1.32975e-08,0,88190,88190
281.051,1.44856e-08,0,88352,88352
281.1,1.58663e-08,0,88484,88484
281.15,1.74697e-08,0,88432,88432
281.2,1.9307e-08,0,88214,88214
281.251,2.14224e-08,0,88058,88058
281.3,2.3767e-08,0,87956,87956
281.35,2.63794e-08,0,87866,87866
281.401,2.93064e-08,0,87762,87762
281.451,3.24529e-08,0,87622,87622
281.5,3.58345e-08,0,87464,87464
281.55,3.94162e-08,0,87340,87340
281.601,4.32144e-08,0,87228,87228
281.65,4.70795e-08,0,87128,87128
281.7,5.1036e-08,0,87016,87016
281.75,5.50704e-08,0,86950,86950
281.801,5.92469e-08,0,86804,86804
281.85,6.34425e-08,0,86734,86734
281.9,6.76634e-08,0,86762,86762
281.951,7.18661e-08,0,86670,86670
282,7.59113e-08,0,86566,86566
282.05,8.01069e-08,0,86536,86536
282.1,8.49546e-08,0,86388,86388
282.151,9.1051e-08,0,86310,86310
282.2,9.83777e-08,0,86236,86236
282.25,1.0667e-07,0,86110,86110
282.3,1.15222e-07,0,86080,86080
282.351,1.23407e-07,0,85916,85916
282.4,1.3054e-07,0,85796,85796
282.45,1.36807e-07,0,85732,85732
282.501,1.42848e-07,0,85690,85690
282.55,1.49342e-07,0,85530,85530
282.6,1.57201e-07,0,85196,85196
282.65,1.66979e-07,0,84888,84888
282.7,1.79052e-07,0,85146,85146
282.75,1.93245e-07,0,85712,85712
282.8,2.10209e-07,0,85928,85928
282.851,2.30332e-07,0,86628,86628
282.901,2.54441e-07,0,87096,87096
282.95,2.83302e-07,0,87770,87770
283,3.17282e-07,0,88360,88360
283.05,3.56757e-07,0,89144,89144
283.1,4.00333e-07,0,89788,89788
283.15,4.46792e-07,0,90628,90628
283.2,4.95079e-07,0,91580,91580
283.25,5.4542e-07,0,92558,92558
283.301,5.96926e-07,0,93480,93480
283.351,6.49274e-07,0,94206,94206
283.401,7.01355e-07,0,94408,94408
283.45,7.51089e-07,0,94610,94610
283.501,7.96456e-07,0,95466,95466
283.55,8.33599e-07,0,96698,96698
283.6,8.61938e-07,0,97810,97810
283.651,8.80518e-07,0,98474,98474
283.7,8.89436e-07,0,99208,99208
283.751,8.90426e-07,0,99996,99996
283.8,8.85137e-07,0,100684,100684
283.85,8.74846e-07,0,101366,101366
283.901,8.60192e-07,0,102048,102048
283.95,8.41734e-07,0,102576,102576
284,8.18903e-07,0,103388,103388
284.05,7.91007e-07,0,104138,104138
284.101,7.56747e-07,0,104856,104856
284.15,7.16547e-07,0,105774,105774
284.2,6.69872e-07,0,106656,106656
284.251,6.1653e-07,0,107366,107366
284.3,5.59484e-07,0,108030,108030
284.35,5.00009e-07,0,108606,108606
284.4,4.40325e-07,0,109256,109256
284.451,3.81576e-07,0,109882,109882
284.5,3.26896e-07,0,110472,110472
284.55,2.76162e-07,0,111040,111040
284.601,2.28883e-07,0,111676,111676
284.651,1.86186e-07,0,112256,112256
284.7,1.4693e-07,0,112598,112598
284.75,1.10728e-07,0,112650,112650
284.801,7.69728e-08,0,112516,112516
284.85,4.68659e-08,0,112380,112380
284.9,2.04087e-08,0,112268,112268
284.95,-1.90823e-09,0,112224,112224
285.001,-2.02702e-08,0,112282,112282
285.05,-3.47806e-08,0,113008,113008
285.1,-4.68572e-08,0,114550,114550
285.151,-5.77215e-08,0,116986,116986
285.2,-6.75564e-08,0,117800,117800
285.25,-7.63086e-08,0,118296,118296
285.3,-8.33762e-08,0,118926,118926
285.351,-8.83304e-08,0,119778,119778
285.4,-9.10172e-08,0,120312,120312
285.45,-9.20388e-08,0,120540,120540
285.501,-9.22312e-08,0,121232,121232
285.551,-9.22066e-08,0,121514,121514
285.6,-9.24111e-08,0,121364,121364
285.65,-9.26292e-08,0,121742,121742
285.701,-9.23487e-08,0,121670,121670
285.75,-9.09113e-08,0,121562,121562
285.8,-8.81121e-08,0,121420,121420
285.85,-8.41823e-08,0,121750,121750
285.901,-7.94944e-08,0,121650,121650
285.95,-7.46403e-08,0,121552,121552
286,-6.98706e-08,0,121472,121472
286.051,-6.52576e-08,0,121694,121694
286.1,-6.09757e-08,0,121984,121984
286.15,-5.69745e-08,0,122336,122336
286.2,-5.32874e-08,0,122482,122482
286.251,-4.98991e-08,0,122820,122820
286.3,-4.69186e-08,0,122836,122836
286.35,-4.42526e-08,0,123680,123680
286.4,-4.18439e-08,0,123328,123328
286.451,-3.96215e-08,0,123608,123608
286.5,-3.76448e-08,0,123536,123536
286.55,-3.58921e-08,0,121456,121456
286.601,-3.43498e-08,0,119610,119610
286.65,-3.30553e-08,0,117410,117410
286.7,-3.19704e-08,0,115466,115466
286.75,-3.1075e-08,0,114666,114666
286.801,-3.03305e-08,0,114402,114402
286.85,-2.97638e-08,0,113266,113266
286.9,-2.93681e-08,0,112142,112142
286.951,-2.90855e-08,0,111216,111216
287,-2.89175e-08,0,109908,109908
287.05,-2.88534e-08,0,109238,109238
287.1,-2.88379e-08,0,108912,108912
287.151,-2.88279e-08,0,108742,108742
287.2,-2.884e-08,0,107638,107638
287.25,-2.90064e-08,0,107338,107338
287.3,-2.91625e-08,0,106646,106646
287.351,-2.93401e-08,0,105840,105840
287.4,-2.9513e-08,0,105202,105202
287.45,-2.97472e-08,0,104550,104550
287.501,-2.99743e-08,0,104100,104100
287.55,-3.0188e-08,0,103302,103302
287.6,-3.03975e-08,0,102626,102626
287.65,-3.06005e-08,0,102092,102092
287.701,-3.08004e-08,0,101588,101588
287.75,-3.09894e-08,0,101092,101092
287.8,-3.1168e-08,0,101088,101088
287.851,-3.1336e-08,0,101628,101628
287.901,-3.14835e-08,0,100474,100474
287.95,-3.16102e-08,0,99758,99758
288,-3.17159e-08,0,99034,99034
288.051,-3.18005e-08,0,99388,99388
288.1,-3.18674e-08,0,98644,98644
288.15,-3.19065e-08,0,98680,98680
288.2,-3.19083e-08,0,98142,98142
288.251,-3.18736e-08,0,97290,97290
288.3,-3.18368e-08,0,96208,96208
288.35,-3.17925e-08,0,94504,94504
288.401,-3.17363e-08,0,93266,93266
288.45,-3.16671e-08,0,92794,92794
288.5,-3.15913e-08,0,93004,93004
288.55,-3.15085e-08,0,92502,92502
288.601,-3.14182e-08,0,93836,93836
288.65,-3.13198e-08,0,94966,94966
288.7,-3.12173e-08,0,95362,95362
288.751,-3.11036e-08,0,96054,96054
288.801,-3.09913e-08,0,97622,97622
288.85,-3.08747e-08,0,99840,99840
288.9,-3.07549e-08,0,101222,101222
288.951,-3.06307e-08,0,103362,103362
289,-3.05046e-08,0,103814,103814
289.05,-3.03773e-08,0,105146,105146
289.1,-3.02511e-08,0,106208,106208
289.151,-3.01246e-08,0,106482,106482
289.2,-3.00007e-08,0,106604,106604
289.25,-2.98763e-08,0,106282,106282
289.301,-2.9747e-08,0,103362,103362
289.35,-2.96173e-08,0,101732,101732
289.4,-2.94907e-08,0,100798,100798
289.45,-2.93555e-08,0,100164,100164
289.501,-2.91996e-08,0,101418,101418
289.55,-2.90402e-08,0,101294,101294
289.6,-2.88754e-08,0,101868,101868
289.651,-2.86751e-08,0,100596,100596
289.701,-2.84576e-08,0,101752,101752
289.75,-2.82225e-08,0,101468,101468
289.8,-2.79875e-08,0,101266,101266
289.851,-2.77335e-08,0,102214,102214
289.9,-2.74029e-08,0,102276,102276
289.95,-2.70462e-08,0,102498,102498
290,-2.66645e-08,0,101842,101842
290.051,-2.6247e-08,0,101066,101066
290.1,-2.58067e-08,0,100008,100008
290.15,-2.53407e-08,0,98406,98406
290.201,-2.48435e-08,0,96986,96986
290.25,-2.43417e-08,0,95200,95200
290.3,-2.38342e-08,0,93144,93144
290.35,-2.3321e-08,0,91094,91094
290.401,-2.27979e-08,0,88916,88916
290.45,-2.23196e-08,0,86526,86526
290.5,-2.19344e-08,0,83782,83782
290.55,-2.15489e-08,0,79468,79468
290.601,-2.11832e-08,0,77314,77314
290.65,-2.08658e-08,0,76390,76390
290.7,-2.0581e-08,0,75786,75786
290.751,-2.03519e-08,0,76814,76814
290.8,-2.02004e-08,0,76178,76178
290.85,-2.00927e-08,0,74678,74678
290.9,-2.00089e-08,0,75514,75514
290.951,-2.00286e-08,0,76286,76286
291,-2.00084e-08,0,78206,78206
291.05,-2.01022e-08,0,78834,78834
291.101,-2.02747e-08,0,78416,78416
291.151,-2.0419e-08,0,77996,77996
291.2,-2.06079e-08,0,78162,78162
291.25,-2.08333e-08,0,78350,78350
291.301,-2.10739e-08,0,78038,78038
291.35,-2.13082e-08,0,77520,77520
291.4,-2.15557e-08,0,78228,78228
291.45,-2.18061e-08,0,78388,78388
291.501,-2.20566e-08,0,78228,78228
291.55,-2.22935e-08,0,77880,77880
291.6,-2.25127e-08,0,77734,77734
291.651,-2.27146e-08,0,77474,77474
291.7,-2.28927e-08,0,77664,77664
291.75,-2.30375e-08,0,77848,77848
291.8,-2.31427e-08,0,77916,77916
291.851,-2.31998e-08,0,78484,78484
291.9,-2.32361e-08,0,78356,78356
291.95,-2.3261e-08,0,78158,78158
292.001,-2.32746e-08,0,78152,78152
292.051,-2.32692e-08,0,78730,78730
292.1,-2.32459e-08,0,79284,79284
292.15,-2.31831e-08,0,79784,79784
292.201,-2.31175e-08,0,80510,80510
292.25,-2.30357e-08,0,80806,80806
292.3,-2.29384e-08,0,81036,81036
292.35,-2.28333e-08,0,80994,80994
292.401,-2.27184e-08,0,80934,80934
292.45,-2.25968e-08,0,81022,81022
292.5,-2.2467e-08,0,81142,81142
292.551,-2.23272e-08,0,81488,81488
292.6,-2.21828e-08,0,81398,81398
292.65,-2.2033e-08,0,81260,81260
292.7,-2.18789e-08,0,80834,80834
292.751,-2.17192e-08,0,78544,78544
292.8,-2.156e-08,0,77190,77190
292.85,-2.14001e-08,0,76610,76610
292.9,-2.12403e-08,0,75826,75826
292.951,-2.10795e-08,0,74790,74790
293,-2.09239e-08,0,73506,73506
293.05,-2.07722e-08,0,72178,72178
293.101,-2.06232e-08,0,71078,71078
293.151,-2.04815e-08,0,70238,70238
293.2,-2.03461e-08,0,69736,69736
293.25,-2.0218e-08,0,69482,69482
293.301,-2.00956e-08,0,69250,69250
293.351,-1.99817e-08,0,69178,69178
293.401,-1.98801e-08,0,69234,69234
293.451,-1.97872e-08,0,69242,69242
293.5,-1.97018e-08,0,69178,69178
293.551,-1.96222e-08,0,68942,68942
293.601,-1.95477e-08,0,68658,68658
293.651,-1.9476e-08,0,68908,68908
293.7,-1.94056e-08,0,69168,69168
293.75,-1.93355e-08,0,69320,69320
293.8,-1.9267e-08,0,69578,69578
293.851,-1.92005e-08,0,69836,69836
293.9,-1.91361e-08,0,70064,70064
293.95,-1.90731e-08,0,70302,70302
294,-1.90119e-08,0,70518,70518
294.051,-1.89511e-08,0,70736,70736
294.1,-1.88918e-08,0,70964,70964
294.15,-1.88321e-08,0,71232,71232
294.201,-1.87695e-08,0,71426,71426
294.25,-1.87045e-08,0,71658,71658
294.3,-1.86355e-08,0,71854,71854
294.35,-1.85623e-08,0,72094,72094
294.401,-1.84841e-08,0,72334,72334
294.45,-1.84041e-08,0,72564,72564
294.5,-1.83219e-08,0,72750,72750
294.551,-1.82371e-08,0,72992,72992
294.601,-1.81524e-08,0,73076,73076
294.65,-1.80667e-08,0,73164,73164
294.7,-1.798e-08,0,73236,73236
294.751,-1.78905e-08,0,73360,73360
294.8,-1.78007e-08,0,73414,73414
294.85,-1.77093e-08,0,73416,73416
294.9,-1.76164e-08,0,73600,73600
294.951,-1.7521e-08,0,74114,74114
295,-1.7426e-08,0,74466,74466
295.05,-1.733e-08,0,74800,74800
295.101,-1.72311e-08,0,74448,74448
295.15,-1.71314e-08,0,74104,74104
295.2,-1.70287e-08,0,74760,74760
295.25,-1.69225e-08,0,74830,74830
295.301,-1.68111e-08,0,75070,75070
295.35,-1.66975e-08,0,75286,75286
295.4,-1.65802e-08,0,74956,74956
295.451,-1.64572e-08,0,74824,74824
295.501,-1.63317e-08,0,74444,74444
295.55,-1.62016e-08,0,73914,73914
295.6,-1.60664e-08,0,73542,73542
295.651,-1.59236e-08,0,73098,73098
295.7,-1.57774e-08,0,72608,72608
295.75,-1.56258e-08,0,71980,71980
295.8,-1.54687e-08,0,71360,71360
295.851,-1.53039e-08,0,70718,70718
295.9,-1.51369e-08,0,69962,69962
295.95,-1.49677e-08,0,69218,69218
296.001,-1.47955e-08,0,68488,68488
296.05,-1.45959e-08,0,67788,67788
296.1,-1.44105e-08,0,67010,67010
296.15,-1.42141e-08,0,66344,66344
296.201,-1.4005e-08,0,65674,65674
296.25,-1.37961e-08,0,64978,64978
296.3,-1.35818e-08,0,64306,64306
296.35,-1.33612e-08,0,63534,63534
296.401,-1.31311e-08,0,63090,63090
296.45,-1.28984e-08,0,62684,62684
296.5,-1.26595e-08,0,62092,62092
296.551,-1.24111e-08,0,61410,61410
296.6,-1.21605e-08,0,60692,60692
296.65,-1.19034e-08,0,60052,60052
296.7,-1.1639e-08,0,59462,59462
296.751,-1.13611e-08,0,58810,58810
296.801,-1.10745e-08,0,58296,58296
296.85,-1.07751e-08,0,58262,58262
296.901,-1.04565e-08,0,58444,58444
296.95,-1.01331e-08,0,58666,58666
297,-9.81395e-09,0,58850,58850
297.05,-9.40273e-09,0,58972,58972
297.1,-8.98281e-09,0,59054,59054
297.151,-8.53956e-09,0,59066,59066
297.2,-8.07641e-09,0,59066,59066
297.25,-7.57483e-09,0,58874,58874
297.3,-7.04246e-09,0,58814,58814
297.351,-6.47044e-09,0,58738,58738
297.4,-5.87849e-09,0,58700,58700
297.45,-5.24795e-09,0,58582,58582
297.501,-4.593e-09,0,58554,58554
297.55,-3.9205e-09,0,58498,58498
297.6,-3.23763e-09,0,58376,58376
297.651,-2.53904e-09,0,58230,58230
297.701,-1.84178e-09,0,58008,58008
297.751,-1.15133e-09,0,57824,57824
297.801,-4.72736e-10,0,57620,57620
297.85,1.89504e-10,0,57422,57422
297.901,8.41876e-10,0,57180,57180
297.951,1.46971e-09,0,56976,56976
298.001,2.06971e-09,0,56786,56786
298.051,2.63888e-09,0,56664,56664
298.1,3.17435e-09,0,56518,56518
298.15,3.68051e-09,0,56318,56318
298.201,4.14411e-09,0,56212,56212
298.25,4.56106e-09,0,56074,56074
298.3,4.92887e-09,0,55942,55942
298.351,5.25161e-09,0,55896,55896
298.4,5.52049e-09,0,55814,55814
298.45,5.74674e-09,0,55774,55774
298.5,5.92996e-09,0,55658,55658
298.551,6.07689e-09,0,55674,55674
298.6,6.18199e-09,0,55596,55596
298.65,6.25753e-09,0,55564,55564
298.7,6.24359e-09,0,55514,55514
298.75,6.21989e-09,0,55500,55500
298.801,6.18729e-09,0,55450,55450
298.85,6.14636e-09,0,55442,55442
298.9,6.09144e-09,0,55438,55438
298.95,6.02004e-09,0,55350,55350
299,5.93793e-09,0,55324,55324
299.051,5.83577e-09,0,55300,55300
299.1,5.72395e-09,0,55248,55248
299.15,5.60238e-09,0,55252,55252
299.2,5.47705e-09,0,55250,55250
299.251,5.34848e-09,0,55250,55250
299.3,5.22131e-09,0,55262,55262
299.351,5.09263e-09,0,55226,55226
299.401,4.96531e-09,0,55214,55214
299.45,4.84021e-09,0,55228,55228
299.5,4.71794e-09,0,55274,55274
299.55,4.59884e-09,0,55354,55354
299.601,4.48188e-09,0,55442,55442
299.65,4.37117e-09,0,55494,55494
299.7,4.26574e-09,0,55520,55520
299.751,4.16491e-09,0,55620,55620
299.801,4.07226e-09,0,55652,55652
299.85,3.98686e-09,0,55730,55730
299.9,3.90907e-09,0,55810,55810
299.951,3.83805e-09,0,55856,55856
300,3.77583e-09,0,55904,55904
300.05,3.72116e-09,0,55938,55938
300.1,3.67386e-09,0,56014,56014
300.151,3.63309e-09,0,56068,56068
300.2,3.59935e-09,0,56112,56112
300.25,3.57078e-09,0,56164,56164
300.301,3.54557e-09,0,56162,56162
300.35,3.52323e-09,0,56152,56152
300.4,3.50258e-09,0,56158,56158
300.45,3.48303e-09,0,56130,56130
300.501,3.4638e-09,0,56114,56114
300.55,3.44489e-09,0,56114,56114
300.6,3.42518e-09,0,55714,55714
300.65,3.40492e-09,0,55278,55278
300.701,3.38306e-09,0,55088,55088
300.75,3.36006e-09,0,54840,54840
300.8,3.33578e-09,0,54540,54540
300.851,3.31e-09,0,54310,54310
300.9,3.28378e-09,0,54082,54082
300.95,3.25711e-09,0,53830,53830
301,3.23028e-09,0,53582,53582
301.051,3.20311e-09,0,53382,53382
301.1,3.17662e-09,0,53146,53146
301.15,3.15045e-09,0,52948,52948
301.201,3.12414e-09,0,52146,52146
301.25,3.09846e-09,0,51642,51642
301.3,3.07304e-09,0,50888,50888
301.35,3.04798e-09,0,50356,50356
301.401,3.0231e-09,0,49604,49604
301.45,2.99937e-09,0,49046,49046
301.5,2.97671e-09,0,48396,48396
301.55,2.95585e-09,0,48010,48010
301.601,2.93604e-09,0,47498,47498
301.65,2.91771e-09,0,47026,47026
301.7,2.90111e-09,0,46508,46508
301.751,2.88564e-09,0,45978,45978
301.8,2.87161e-09,0,45448,45448
301.85,2.85854e-09,0,44898,44898
301.9,2.84615e-09,0,44302,44302
301.951,2.83401e-09,0,43720,43720
302,2.82223e-09,0,43184,43184
302.05,2.81042e-09,0,42592,42592
302.101,2.79822e-09,0,41878,41878
302.151,2.78585e-09,0,41148,41148
302.2,2.77301e-09,0,40272,40272
302.25,2.75965e-09,0,39376,39376
302.301,2.74549e-09,0,38544,38544
302.35,2.73093e-09,0,37778,37778
302.4,2.71577e-09,0,36982,36982
302.45,2.70003e-09,0,36122,36122
302.501,2.6835e-09,0,35208,35208
302.55,2.66672e-09,0,34276,34276
302.6,2.64948e-09,0,33380,33380
302.651,2.63156e-09,0,32504,32504
302.7,2.61353e-09,0,31668,31668
302.75,2.5952e-09,0,30822,30822
302.8,2.5766e-09,0,30018,30018
302.851,2.55747e-09,0,29098,29098
302.9,2.5383e-09,0,28182,28182
302.95,2.51886e-09,0,27150,27150
303.001,2.49922e-09,0,26312,26312
303.051,2.47977e-09,0,25520,25520
303.1,2.46007e-09,0,24694,24694
303.15,2.44015e-09,0,23866,23866
303.201,2.41973e-09,0,23080,23080
303.25,2.39938e-09,0,22224,22224
303.3,2.37882e-09,0,21440,21440
303.35,2.35806e-09,0,20596,20596
303.401,2.33681e-09,0,19798,19798
303.45,2.31574e-09,0,18980,18980
303.5,2.29457e-09,0,18142,18142
303.551,2.27302e-09,0,17342,17342
303.6,2.25177e-09,0,16504,16504
303.651,2.2303e-09,0,16106,16106
303.701,2.20916e-09,0,16114,16114
303.75,2.18811e-09,0,16162,16162
303.801,2.16675e-09,0,16148,16148
303.851,2.14598e-09,0,16144,16144
303.9,2.12539e-09,0,16148,16148
303.95,2.10501e-09,0,16140,16140
304.001,2.08445e-09,0,16074,16074
304.051,2.06454e-09,0,15958,15958
304.1,2.04487e-09,0,15854,15854
304.15,2.02544e-09,0,15732,15732
304.201,2.00584e-09,0,15562,15562
304.25,1.98686e-09,0,15336,15336
304.3,1.96809e-09,0,15110,15110
304.351,1.94912e-09,0,14884,14884
304.401,1.93071e-09,0,14668,14668
304.45,1.91243e-09,0,14440,14440
304.5,1.89424e-09,0,14208,14208
304.551,1.87574e-09,0,13984,13984
304.601,1.85763e-09,0,13760,13760
304.65,1.83949e-09,0,13544,13544
304.701,1.82088e-09,0,13280,13280
304.751,1.80249e-09,0,13082,13082
304.8,1.78391e-09,0,12840,12840
304.85,1.76506e-09,0,12632,12632
304.901,1.74552e-09,0,12378,12378
304.951,1.72584e-09,0,12184,12184
