250,0,0,512,512
250.012,0,0,512,512
250.059,0,0,512,512
250.105,0,0,512,512
250.152,0,0,512,512
250.211,0,0,512,512
250.258,0,0,512,512
250.305,0,0,512,512
250.352,0,0,512,512
250.41,2.77556e-17,0,512,512
250.457,2.77556e-17,0,512,512
250.504,0,0,512,512
250.551,0,0,512,512
250.609,0,0,512,512
250.656,0,0,512,512
250.703,0,0,512,512
250.762,0,0,512,512
250.808,0,0,512,512
250.855,0,0,512,512
250.902,2.77556e-17,0,512,512
250.961,2.77556e-17,0,512,512
251.008,2.77556e-17,0,512,512
251.055,2.77556e-17,0,512,512
251.101,0,0,512,512
251.16,0,0,512,512
251.207,2.77556e-17,0,512,512
251.254,0,0,512,512
251.301,0,0,512,512
251.359,0,0,512,512
251.406,0,0,512,512
251.453,0,0,512,512
251.511,0,0,512,512
251.558,0,0,512,512
251.605,2.77556e-17,0,512,512
251.652,2.77556e-17,0,512,512
251.711,0,0,512,512
251.758,0,0,512,512
251.804,0,0,512,512
251.851,0,0,512,512
251.91,0,0,512,512
251.957,0,0,512,512
252.004,-2.77556e-17,0,512,512
252.05,-2.77556e-17,0,512,512
252.109,-2.77556e-17,0,512,512
252.156,0,0,512,512
252.203,0,0,512,512
252.261,0,0,512,512
252.308,0,0,512,512
252.355,2.77556e-17,0,512,512
252.402,2.77556e-17,0,512,512
252.461,0,0,512,512
252.507,0,0,512,512
252.554,0,0,512,512
252.601,0,0,512,512
252.66,0,0,512,512
252.707,0,0,512,512
252.754,0,0,512,512
252.8,0,0,512,512
252.859,2.77556e-17,0,512,512
252.906,0,0,512,512
252.953,0,0,512,512
253.011,0,0,512,512
253.058,0,0,512,512
253.105,0,0,512,512
253.152,0,0,512,512
253.21,0,0,512,512
253.257,0,0,512,512
253.304,2.77556e-17,0,512,512
253.351,2.77556e-17,0,512,512
253.41,0,0,512,512
253.457,0,0,512,512
253.503,0,0,512,512
253.55,2.77556e-17,0,512,512
253.609,2.77556e-17,0,512,512
253.656,2.77556e-17,0,512,512
253.703,2.77556e-17,0,512,512
253.761,0,0,512,512
253.808,0,0,512,512
253.855,0,0,512,512
253.902,-2.77556e-17,0,512,512
253.96,-2.77556e-17,0,512,512
254.007,0,0,512,512
254.054,0,0,512,512
254.101,-2.77556e-17,0,512,512
254.16,0,0,512,512
254.206,-2.77556e-17,0,512,512
254.253,0,0,512,512
254.3,0,0,512,512
254.359,0,0,512,512
254.406,0,0,512,512
254.452,0,0,512,512
254.511,-2.77556e-17,0,512,512
254.558,-2.77556e-17,0,512,512
254.605,-2.77556e-17,0,512,512
254.652,-2.77556e-17,0,512,512
254.71,-2.77556e-17,0,512,512
254.757,0,0,512,512
254.804,0,0,512,512
254.851,-2.77556e-17,0,512,512
254.909,-5.55112e-17,0,512,512
254.956,-2.77556e-17,0,512,512
255.003,-2.77556e-17,0,512,512
255.05,-2.77556e-17,0,512,512
255.109,-2.77556e-17,0,512,512
255.155,-2.77556e-17,0,512,512
255.202,-2.77556e-17,0,512,512
255.261,-2.77556e-17,0,512,512
255.308,-2.77556e-17,0,512,512
255.355,-2.77556e-17,0,512,512
255.402,-2.77556e-17,0,512,512
255.46,-2.77556e-17,0,512,512
255.507,-2.77556e-17,0,512,512
255.554,-2.77556e-17,0,512,512
255.601,0,0,512,512
255.659,0,0,512,512
255.706,0,0,512,512
255.753,0,0,512,512
255.812,0,0,512,512
255.859,0,0,512,512
255.905,2.77556e-17,0,512,512
255.952,0,0,512,512
256.011,0,0,512,512
256.058,0,0,512,512
256.105,0,0,512,512
256.151,0,0,512,512
256.21,0,0,512,512
256.257,2.77556e-17,0,512,512
256.304,2.77556e-17,0,512,512
256.351,0,0,512,512
256.409,0,0,512,512
256.456,0,0,512,512
256.503,0,0,512,512
256.562,0,0,512,512
256.608,0,0,512,512
256.655,-2.77556e-17,0,512,512
256.702,0,0,512,512
256.761,-2.77556e-17,0,512,512
256.808,0,0,512,512
256.854,-2.77556e-17,0,512,512
256.901,-2.77556e-17,0,512,512
256.96,-2.77556e-17,0,512,512
257.007,-2.77556e-17,0,512,512
257.054,0,0,512,512
257.101,-2.77556e-17,0,512,512
257.159,-2.77556e-17,0,512,512
257.206,0,0,512,512
257.253,0,0,512,512
257.311,0,0,512,512
257.358,2.77556e-17,0,512,512
257.405,2.77556e-17,0,512,512
257.452,0,0,512,512
257.511,0,0,512,512
257.557,0,0,512,512
257.604,0,0,512,512
257.651,0,0,512,512
257.71,-2.77556e-17,0,512,512
257.757,0,0,512,512
257.804,0,0,512,512
257.85,0,0,512,512
257.909,-2.77556e-17,0,512,512
257.956,-2.77556e-17,0,512,512
258.003,-2.77556e-17,0,512,512
258.061,0,0,512,512
258.108,0,0,512,512
258.155,0,0,512,512
258.202,0,0,512,512
258.261,0,0,512,512
258.307,-2.77556e-17,0,512,512
258.354,0,0,512,512
258.401,-2.77556e-17,0,512,512
258.46,-2.77556e-17,0,512,512
258.507,-2.77556e-17,0,512,512
258.553,-2.77556e-17,0,512,512
258.6,-2.77556e-17,0,512,512
258.659,-2.77556e-17,0,512,512
258.706,-5.55112e-17,0,512,512
258.753,-5.55112e-17,0,512,512
258.811,-5.55112e-17,0,512,512
258.858,-5.55112e-17,0,512,512
258.905,-2.77556e-17,0,512,512
258.952,0,0,512,512
259.01,0,0,512,512
259.057,-2.77556e-17,0,512,512
259.104,0,0,512,512
259.151,0,0,512,512
259.21,-2.77556e-17,0,512,512
259.256,-2.77556e-17,0,512,512
259.303,0,0,512,512
259.35,0,0,512,512
259.409,2.77556e-17,0,512,512
259.456,2.77556e-17,0,512,512
259.503,0,0,512,512
259.561,0,0,512,512
259.608,0,0,512,512
259.655,-2.77556e-17,0,512,512
259.702,-2.77556e-17,0,512,512
259.76,0,0,512,512
259.807,0,0,512,512
259.854,2.77556e-17,0,512,512
259.901,0,0,512,512
259.959,0,0,512,512
260.006,0,0,512,512
260.053,0,0,512,512
260.1,-2.77556e-17,0,512,512
260.159,-2.77556e-17,0,512,512
260.206,-2.77556e-17,0,512,512
260.252,-2.77556e-17,0,512,512
260.311,-2.77556e-17,0,512,512
260.358,-2.77556e-17,0,512,512
260.405,-2.77556e-17,0,512,512
260.452,-2.77556e-17,0,512,512
260.51,-2.77556e-17,0,512,512
260.557,-2.77556e-17,0,512,512
260.604,0,0,512,512
260.651,0,0,512,512
260.709,0,0,512,512
260.756,0,0,512,512
260.803,0,0,512,512
260.862,0,0,512,512
260.909,2.77556e-17,0,512,512
260.955,2.77556e-17,0,512,512
261.002,2.77556e-17,0,512,512
261.061,2.77556e-17,0,512,512
261.108,2.77556e-17,0,512,512
261.155,2.77556e-17,0,512,512
261.201,2.77556e-17,0,512,512
261.26,0,0,512,512
261.307,0,0,512,512
261.354,0,0,512,512
261.401,0,0,512,512
261.459,0,0,512,512
261.506,0,0,512,512
261.553,0,0,512,512
261.612,0,0,512,512
261.658,0,0,512,512
261.705,0,0,512,512
261.752,2.77556e-17,0,512,512
261.811,2.77556e-17,0,512,512
261.858,-2.77556e-17,0,512,512
261.905,0,0,512,512
261.951,0,0,512,512
262.01,0,0,512,512
262.057,0,0,512,512
262.104,0,0,512,512
262.151,0,0,512,512
262.209,0,0,512,512
262.256,2.77556e-17,0,512,512
262.303,2.77556e-17,0,512,512
262.361,0,0,512,512
262.408,0,0,512,512
262.455,0,0,512,512
262.502,0,0,512,512
262.561,0,0,512,512
262.608,2.77556e-17,0,512,512
262.654,2.77556e-17,0,512,512
262.701,2.77556e-17,0,512,512
262.76,2.77556e-17,0,512,512
262.807,0,0,512,512
262.854,0,0,512,512
262.9,2.77556e-17,0,512,512
262.959,0,0,512,512
263.006,0,0,512,512
263.053,0,0,512,512
263.111,0,0,512,512
263.158,0,0,512,512
263.205,0,0,512,512
263.252,0,0,512,512
263.311,0,0,512,512
263.357,2.77556e-17,0,512,512
263.404,2.77556e-17,0,512,512
263.451,2.77556e-17,0,512,512
263.51,0,0,512,512
263.557,0,0,512,512
263.603,0,0,512,512
263.65,0,0,512,512
263.709,-2.77556e-17,0,512,512
263.756,-2.77556e-17,0,512,512
263.803,-2.77556e-17,0,512,512
263.861,0,0,512,512
263.908,0,0,512,512
263.955,2.77556e-17,0,512,512
264.002,0,0,512,512
264.06,0,0,512,512
264.107,0,0,512,512
264.154,0,0,512,512
264.201,0,0,512,512
264.26,0,0,512,512
264.306,2.77556e-17,0,512,512
264.353,2.77556e-17,0,512,512
264.4,2.77556e-17,0,512,512
264.459,2.77556e-17,0,512,512
264.506,2.77556e-17,0,512,512
264.553,2.77556e-17,0,512,512
264.611,2.77556e-17,0,512,512
264.658,2.77556e-17,0,512,512
264.705,2.77556e-17,0,512,512
264.752,2.77556e-17,0,512,512
264.81,2.77556e-17,0,512,512
264.857,2.77556e-17,0,512,512
264.904,2.77556e-17,0,512,512
264.951,2.77556e-17,0,512,512
265.01,2.77556e-17,0,512,512
265.056,2.77556e-17,0,512,512
265.103,2.77556e-17,0,512,512
265.15,2.77556e-17,0,512,512
265.209,2.77556e-17,0,512,512
265.256,2.77556e-17,0,512,512
265.302,2.77556e-17,0,512,512
265.361,5.55112e-17,0,512,512
265.408,5.55112e-17,0,512,512
265.455,5.55112e-17,0,512,512
265.502,5.55112e-17,0,512,512
265.56,2.77556e-17,0,512,512
265.607,2.77556e-17,0,512,512
265.654,2.77556e-17,0,512,512
265.701,2.77556e-17,0,512,512
265.759,2.77556e-17,0,512,512
265.806,2.77556e-17,0,512,512
265.853,2.77556e-17,0,512,512
265.9,2.77556e-17,0,512,512
265.959,2.77556e-17,0,512,512
266.005,2.77556e-17,0,512,512
266.052,2.77556e-17,0,512,512
266.111,0,0,512,512
266.158,2.77556e-17,0,512,512
266.205,0,0,512,512
266.252,2.77556e-17,0,512,512
266.31,2.77556e-17,0,512,512
266.357,2.77556e-17,0,512,512
266.404,2.77556e-17,0,512,512
266.451,2.77556e-17,0,512,512
266.509,0,0,512,512
266.556,0,0,512,512
266.603,-2.77556e-17,0,512,512
266.662,-2.77556e-17,0,512,512
266.708,-2.77556e-17,0,512,512
266.755,0,0,512,512
266.802,-2.77556e-17,0,512,512
266.861,-2.77556e-17,0,512,512
266.908,-2.77556e-17,0,512,512
266.955,-2.77556e-17,0,512,512
267.001,-2.77556e-17,0,512,512
267.06,-2.77556e-17,0,512,512
267.107,-2.77556e-17,0,512,512
267.154,-2.77556e-17,0,512,512
267.201,-2.77556e-17,0,512,512
267.259,-2.77556e-17,0,512,512
267.306,-2.77556e-17,0,512,512
267.353,-2.77556e-17,0,512,512
267.412,-2.77556e-17,0,512,512
267.458,-2.77556e-17,0,512,512
267.505,-2.77556e-17,0,512,512
267.552,0,0,512,512
267.611,2.77556e-17,0,512,512
267.658,2.77556e-17,0,512,512
267.704,2.77556e-17,0,512,512
267.751,2.77556e-17,0,512,512
267.81,2.77556e-17,0,512,512
267.857,2.77556e-17,0,512,512
267.904,2.77556e-17,0,512,512
267.95,2.77556e-17,0,512,512
268.009,2.77556e-17,0,512,512
268.056,2.77556e-17,0,512,512
268.105,2.77556e-17,0,519,519
268.152,2.77556e-17,0,531,531
268.205,2.77556e-17,0,529,529
268.252,2.77556e-17,0,541,541
268.304,2.77556e-17,0,549,549
268.351,2.77556e-17,0,550,550
268.404,2.77556e-17,0,551,551
268.451,2.77556e-17,0,543,543
268.504,2.77556e-17,0,539,539
268.55,2.77556e-17,0,540,540
268.603,2.77556e-17,0,545,545
268.65,2.77556e-17,0,543,543
268.703,2.77556e-17,0,544,544
268.756,2.77556e-17,0,547,547
268.807,2.77556e-17,0,543,543
268.857,2.77556e-17,0,540,540
268.907,2.77556e-17,0,539,539
268.956,2.77556e-17,0,533,533
269.006,2.77556e-17,0,528,528
269.056,2.77556e-17,0,526,526
269.106,2.77556e-17,0,524,524
269.155,0,0,522,522
269.205,0,0,516,516
269.255,0,0,514,514
269.304,0,0,514,514
269.36,0,0,512,512
269.406,0,0,512,512
269.452,-2.77556e-17,0,521,521
269.505,-2.77556e-17,0,527,527
269.552,-2.77556e-17,0,531,531
269.605,-2.77556e-17,0,541,541
269.651,-2.77556e-17,0,553,553
269.704,-2.77556e-17,0,565,565
269.751,-2.77556e-17,0,571,571
269.804,-2.77556e-17,0,579,579
269.851,-2.77556e-17,0,589,589
269.903,-2.77556e-17,0,589,589
269.95,-2.77556e-17,0,597,597
270.003,-2.77556e-17,0,609,609
270.056,-2.77556e-17,0,621,621
270.103,2.77556e-17,0,627,627
270.155,0,0,639,639
270.202,0,0,645,645
270.255,0,0,657,657
270.302,0,0,669,669
270.354,0,0,675,675
270.401,-8.32667e-17,0,687,687
270.454,-4.44089e-16,0,699,699
270.501,-2.02616e-15,0,705,705
270.554,-1.04916e-14,0,713,713
270.601,-3.90521e-14,0,721,721
270.653,-1.47243e-13,0,731,731
270.7,-4.22634e-13,0,737,737
270.753,-1.21489e-12,0,741,741
270.806,-3.07177e-12,0,753,753
270.852,-6.33246e-12,0,759,759
270.905,-1.28325e-11,0,771,771
270.952,-2.19448e-11,0,783,783
271.005,-3.6368e-11,0,789,789
271.052,-5.23551e-11,0,801,801
271.104,-7.18903e-11,0,813,813
271.151,-8.78585e-11,0,819,819
271.204,-1.00491e-10,0,831,831
271.251,-1.04239e-10,0,839,839
271.304,-9.84175e-11,0,849,849
271.35,-8.47127e-11,0,857,857
271.403,-6.20079e-11,0,865,865
271.45,-3.82077e-11,0,875,875
271.503,-1.07288e-11,0,881,881
271.555,1.47347e-11,0,891,891
271.602,3.42786e-11,0,897,897
271.655,5.21729e-11,0,909,909
271.702,6.44803e-11,0,921,921
271.755,7.47429e-11,0,927,927
271.802,8.13015e-11,0,939,939
271.854,8.66465e-11,0,951,951
271.901,9.02867e-11,0,959,959
271.954,9.37446e-11,0,969,969
272.001,9.65286e-11,0,981,981
272.053,9.94085e-11,0,993,993
272.1,1.017e-10,0,999,999
272.153,1.03904e-10,0,1011,1011
272.206,1.05627e-10,0,1023,1023
272.253,1.06634e-10,0,1035,1035
272.305,1.07014e-10,0,1047,1047
272.352,1.06726e-10,0,1053,1053
272.405,1.06296e-10,0,1065,1065
272.452,1.0688e-10,0,1077,1077
272.505,1.09992e-10,0,1083,1083
272.551,1.15212e-10,0,1095,1095
272.604,1.2199e-10,0,1107,1107
272.651,1.25678e-10,0,1113,1113
272.704,1.24867e-10,0,1125,1125
272.751,1.23556e-10,0,1137,1137
272.803,1.37729e-10,0,1149,1149
272.85,1.88262e-10,0,1155,1155
272.903,3.22327e-10,0,1167,1167
272.956,6.29985e-10,0,1179,1179
273.002,1.78669e-09,0,1185,1185
273.055,4.30982e-09,0,1197,1197
273.102,7.5977e-09,0,1203,1203
273.155,1.21005e-08,0,1215,1215
273.202,1.64024e-08,0,1227,1227
273.254,2.10452e-08,0,1233,1233
273.301,2.481e-08,0,1245,1245
273.354,2.88078e-08,0,1251,1251
273.401,3.25617e-08,0,1263,1263
273.454,3.77158e-08,0,1275,1275
273.5,4.36524e-08,0,1281,1281
273.553,5.23266e-08,0,1293,1293
273.6,6.20888e-08,0,1299,1299
273.653,7.56962e-08,0,1311,1311
273.706,9.26171e-08,0,1308,1308
273.752,1.1105e-07,0,1312,1312
273.805,1.36384e-07,0,1320,1320
273.852,1.63531e-07,0,1318,1318
273.905,1.99509e-07,0,1330,1330
273.952,2.36097e-07,0,1336,1336
274.004,2.81748e-07,0,1349,1349
274.051,3.25604e-07,0,1367,1367
274.104,3.77958e-07,0,1382,1382
274.151,4.26819e-07,0,1393,1393
274.203,4.84024e-07,0,1405,1405
274.25,5.36225e-07,0,1411,1411
274.303,5.95058e-07,0,1423,1423
274.356,6.51788e-07,0,1415,1415
274.403,6.98325e-07,0,1431,1431
274.455,7.44149e-07,0,1433,1433
274.502,7.77835e-07,0,1435,1435
274.555,8.07287e-07,0,1453,1453
274.602,8.26274e-07,0,1457,1457
274.655,8.40503e-07,0,1463,1463
274.701,8.4779e-07,0,1465,1465
274.754,8.50908e-07,0,1459,1459
274.801,8.49612e-07,0,1455,1455
274.854,8.43604e-07,0,1457,1457
274.901,8.3388e-07,0,1451,1451
274.953,8.17358e-07,0,1447,1447
275,7.97125e-07,0,1445,1445
275.053,7.67672e-07,0,1441,1441
275.106,7.31186e-07,0,1441,1441
275.153,6.93468e-07,0,1443,1443
275.205,6.46449e-07,0,1431,1431
275.252,6.02116e-07,0,1413,1413
275.305,5.51298e-07,0,1395,1395
275.352,5.06743e-07,0,1391,1391
275.404,4.58573e-07,0,1381,1381
275.451,4.1812e-07,0,1375,1375
275.504,3.75528e-07,0,1371,1371
275.551,3.40193e-07,0,1359,1359
275.604,3.03052e-07,0,1351,1351
275.651,2.72209e-07,0,1341,1341
275.703,2.39997e-07,0,1337,1337
275.75,2.13834e-07,0,1321,1321
275.803,1.87597e-07,0,1311,1311
275.856,1.65004e-07,0,1297,1297
275.902,1.47827e-07,0,1285,1285
275.955,1.31137e-07,0,1277,1277
276.002,1.1793e-07,0,1261,1261
276.055,1.04167e-07,0,1247,1247
276.105,9.22447e-08,0,1245,1245
276.154,8.13576e-08,0,1235,1235
276.204,7.1833e-08,0,1233,1233
276.254,6.38789e-08,0,1229,1229
276.304,5.73844e-08,0,1223,1223
276.355,5.19301e-08,0,1215,1215
276.405,4.69628e-08,0,1211,1211
276.456,4.20521e-08,0,1208,1208
276.5,3.77184e-08,0,1202,1202
276.551,3.29373e-08,0,1202,1202
276.602,2.876e-08,0,1196,1196
276.654,2.55683e-08,0,1200,1200
276.705,2.34985e-08,0,1194,1194
276.75,2.25003e-08,0,1192,1192
276.802,2.20057e-08,0,1192,1192
276.854,2.19772e-08,0,1192,1192
276.906,2.19866e-08,0,1186,1186
276.952,2.19971e-08,0,1192,1192
277.005,2.19943e-08,0,1188,1188
277.051,2.19559e-08,0,1186,1186
277.104,2.18794e-08,0,1192,1192
277.157,2.17663e-08,0,1190,1190
277.203,2.16462e-08,0,1196,1196
277.256,2.1495e-08,0,1208,1208
277.303,2.13556e-08,0,1214,1214
277.356,2.11952e-08,0,1220,1220
277.402,2.10552e-08,0,1230,1230
277.455,2.08932e-08,0,1242,1242
277.502,2.07459e-08,0,1250,1250
277.555,2.05682e-08,0,1258,1258
277.602,2.04013e-08,0,1266,1266
277.655,2.01824e-08,0,1276,1276
277.701,1.99673e-08,0,1288,1288
277.753,1.97107e-08,0,1298,1298
277.805,1.94172e-08,0,1310,1310
277.851,1.90898e-08,0,1322,1322
277.902,1.86974e-08,0,1332,1332
277.954,1.83196e-08,0,1344,1344
278.006,1.78794e-08,0,1358,1358
278.051,1.74923e-08,0,1372,1372
278.102,1.7032e-08,0,1381,1381
278.153,1.65401e-08,0,1393,1393
278.203,1.60535e-08,0,1403,1403
278.254,1.55478e-08,0,1407,1407
278.305,1.50411e-08,0,1403,1403
278.355,1.45372e-08,0,1397,1397
278.405,1.40315e-08,0,1397,1397
278.455,1.35377e-08,0,1397,1397
278.505,1.30506e-08,0,1387,1387
278.555,1.25787e-08,0,1351,1351
278.604,1.2124e-08,0,1339,1339
278.654,1.16871e-08,0,1311,1311
278.703,1.12739e-08,0,1299,1299
278.752,1.08841e-08,0,1277,1277
278.801,1.0521e-08,0,1265,1265
278.856,1.01448e-08,0,1247,1247
278.904,9.83907e-09,0,1231,1231
278.953,9.56056e-09,0,1227,1227
279.001,9.30791e-09,0,1215,1215
279.055,9.05398e-09,0,1203,1203
279.103,8.85344e-09,0,1201,1201
279.151,8.67514e-09,0,1199,1199
279.205,8.49788e-09,0,1195,1195
279.252,8.35369e-09,0,1191,1191
279.306,8.20389e-09,0,1191,1191
279.353,8.09343e-09,0,1185,1185
279.4,8.01838e-09,0,1173,1173
279.453,7.94216e-09,0,1159,1159
279.506,7.87288e-09,0,1149,1149
279.552,7.8379e-09,0,1139,1139
279.605,7.79967e-09,0,1133,1133
279.652,7.76598e-09,0,1125,1125
279.705,7.73661e-09,0,1115,1115
279.752,7.71433e-09,0,1103,1103
279.804,7.69512e-09,0,1115,1115
279.851,7.68293e-09,0,1123,1123
279.904,7.67376e-09,0,1143,1143
279.951,7.66929e-09,0,1153,1153
280.004,7.66792e-09,0,1161,1161
280.05,7.67029e-09,0,1169,1169
280.103,7.67625e-09,0,1181,1181
280.15,7.68383e-09,0,1193,1193
280.203,7.6944e-09,0,1197,1197
280.256,7.70689e-09,0,1209,1209
280.302,7.71939e-09,0,1219,1219
280.355,7.73454e-09,0,1227,1227
280.402,7.7486e-09,0,1237,1237
280.455,7.7648e-09,0,1243,1243
280.502,7.77951e-09,0,1251,1251
280.554,7.79632e-09,0,1259,1259
280.601,7.81138e-09,0,1273,1273
280.654,7.82833e-09,0,1281,1281
280.701,7.84337e-09,0,1285,1285
280.753,7.86029e-09,0,1299,1299
280.8,7.8753e-09,0,1305,1305
280.853,7.89208e-09,0,1307,1307
280.906,7.90865e-09,0,1319,1319
280.953,7.92321e-09,0,1331,1331
281.005,7.93936e-09,0,1343,1343
281.052,7.95351e-09,0,1345,1345
281.105,7.96914e-09,0,1357,1357
281.152,7.98277e-09,0,1364,1364
281.205,7.9978e-09,0,1356,1356
281.251,8.01094e-09,0,1362,1362
281.304,8.02559e-09,0,1370,1370
281.351,8.03866e-09,0,1360,1360
281.404,8.05376e-09,0,1366,1366
281.451,8.0679e-09,0,1370,1370
281.503,8.08518e-09,0,1374,1374
281.55,8.10237e-09,0,1368,1368
281.603,8.1246e-09,0,1372,1372
281.656,8.15099e-09,0,1376,1376
281.703,8.17902e-09,0,1384,1384
281.755,8.21709e-09,0,1376,1376
281.802,8.25812e-09,0,1382,1382
281.855,8.31413e-09,0,1382,1382
281.902,8.3743e-09,0,1388,1388
281.954,8.45553e-09,0,1388,1388
282.001,8.54124e-09,0,1388,1388
282.054,8.65428e-09,0,1392,1392
282.101,8.77034e-09,0,1400,1400
282.154,8.91893e-09,0,1396,1396
282.201,9.06707e-09,0,1398,1398
282.253,9.25168e-09,0,1402,1402
282.3,9.43164e-09,0,1404,1404
282.353,9.65223e-09,0,1402,1402
282.406,9.89116e-09,0,1408,1408
282.452,1.01131e-08,0,1414,1414
282.505,1.06063e-08,0,1410,1410
282.552,1.12819e-08,0,1416,1416
282.602,1.2009e-08,0,1418,1418
282.653,1.2886e-08,0,1426,1426
282.705,1.38409e-08,0,1434,1434
282.756,1.49379e-08,0,1441,1441
282.8,1.60227e-08,0,1445,1445
282.851,1.73928e-08,0,1457,1457
282.902,1.89575e-08,0,1469,1469
282.952,2.06904e-08,0,1481,1481
283.003,2.26184e-08,0,1487,1487
283.053,2.4737e-08,0,1493,1493
283.103,2.70389e-08,0,1505,1505
283.153,2.95372e-08,0,1517,1517
283.202,3.22098e-08,0,1527,1527
283.252,3.50616e-08,0,1535,1535
283.301,3.80795e-08,0,1545,1545
283.35,4.12547e-08,0,1553,1553
283.405,4.50188e-08,0,1565,1565
283.454,4.85253e-08,0,1577,1577
283.503,5.21932e-08,0,1585,1585
283.551,5.60232e-08,0,1578,1578
283.606,6.05408e-08,0,1582,1582
283.654,6.47561e-08,0,1590,1590
283.702,6.91701e-08,0,1599,1599
283.756,7.43969e-08,0,1613,1613
283.804,7.92887e-08,0,1619,1619
283.851,8.44311e-08,0,1623,1623
283.905,9.05409e-08,0,1629,1629
283.952,9.62885e-08,0,1641,1641
284.005,1.03161e-07,0,1649,1649
284.052,1.09685e-07,0,1653,1653
284.105,1.17584e-07,0,1659,1659
284.152,1.25213e-07,0,1665,1665
284.204,1.34625e-07,0,1671,1671
284.251,1.43875e-07,0,1673,1673
284.304,1.5547e-07,0,1677,1677
284.351,1.67015e-07,0,1679,1679
284.403,1.8162e-07,0,1685,1685
284.45,1.96227e-07,0,1683,1683
284.503,2.14693e-07,0,1685,1685
284.556,2.35495e-07,0,1691,1691
284.603,2.56059e-07,0,1695,1695
284.655,2.81588e-07,0,1697,1697
284.702,3.06398e-07,0,1697,1697
284.755,3.36594e-07,0,1697,1697
284.802,3.65298e-07,0,1697,1697
284.855,3.99393e-07,0,1694,1694
284.901,4.30968e-07,0,1694,1694
284.954,4.6743e-07,0,1688,1688
285.001,5.00195e-07,0,1690,1690
285.054,5.36822e-07,0,1692,1692
285.101,5.68596e-07,0,1698,1698
285.153,6.02767e-07,0,1718,1718
285.2,6.31154e-07,0,1736,1736
285.253,6.60197e-07,0,1746,1746
285.306,6.85541e-07,0,1752,1752
285.353,7.04496e-07,0,1758,1758
285.405,7.21361e-07,0,1762,1762
285.452,7.32096e-07,0,1778,1778
285.505,7.39137e-07,0,1792,1792
285.552,7.40796e-07,0,1808,1808
285.604,7.37431e-07,0,1824,1824
285.651,7.29822e-07,0,1828,1828
285.704,7.16186e-07,0,1841,1841
285.751,6.99724e-07,0,1851,1851
285.804,6.76599e-07,0,1851,1851
285.85,6.5225e-07,0,1845,1845
285.903,6.21011e-07,0,1849,1849
285.95,5.90236e-07,0,1843,1843
286.003,5.52769e-07,0,1847,1847
286.056,5.12907e-07,0,1843,1843
286.102,4.76003e-07,0,1843,1843
286.155,4.33453e-07,0,1847,1847
286.202,3.95234e-07,0,1841,1841
286.255,3.52378e-07,0,1833,1833
286.302,3.14874e-07,0,1835,1835
286.354,2.73837e-07,0,1831,1831
286.401,2.38748e-07,0,1837,1837
286.454,2.01189e-07,0,1828,1828
286.501,1.69745e-07,0,1824,1824
286.553,1.3676e-07,0,1810,1810
286.6,1.09679e-07,0,1790,1790
286.653,8.18043e-08,0,1774,1774
286.706,5.66851e-08,0,1764,1764
286.753,3.66382e-08,0,1746,1746
286.805,1.65746e-08,0,1746,1746
286.852,8.60533e-10,0,1722,1722
286.905,-1.45634e-08,0,1710,1710
286.952,-2.63946e-08,0,1696,1696
287.005,-3.77457e-08,0,1684,1684
287.051,-4.62292e-08,0,1672,1672
287.104,-5.41226e-08,0,1656,1656
287.151,-5.98014e-08,0,1648,1648
287.204,-6.48295e-08,0,1630,1630
287.251,-6.82051e-08,0,1620,1620
287.303,-7.08982e-08,0,1614,1614
287.35,-7.24097e-08,0,1602,1602
287.403,-7.32259e-08,0,1596,1596
287.456,-7.32125e-08,0,1588,1588
287.503,-7.2589e-08,0,1578,1578
287.555,-7.12901e-08,0,1568,1568
287.602,-6.96794e-08,0,1564,1564
287.655,-6.74386e-08,0,1554,1554
287.702,-6.51356e-08,0,1548,1548
287.754,-6.2273e-08,0,1540,1540
287.801,-5.95504e-08,0,1530,1530
287.854,-5.63563e-08,0,1520,1520
287.901,-5.3454e-08,0,1518,1518
287.954,-5.01737e-08,0,1508,1508
288.001,-4.72854e-08,0,1504,1504
288.053,-4.41069e-08,0,1494,1494
288.1,-4.13723e-08,0,1488,1488
288.153,-3.84227e-08,0,1482,1482
288.206,-3.56265e-08,0,1476,1476
288.252,-3.32806e-08,0,1472,1472
288.305,-3.08054e-08,0,1472,1472
288.352,-2.87532e-08,0,1454,1454
288.405,-2.661e-08,0,1441,1441
288.452,-2.48492e-08,0,1437,1437
288.504,-2.30251e-08,0,1431,1431
288.551,-2.15382e-08,0,1433,1433
288.604,-2.00115e-08,0,1431,1431
288.651,-1.87808e-08,0,1429,1429
288.704,-1.75347e-08,0,1429,1429
288.75,-1.65463e-08,0,1431,1431
288.803,-1.55624e-08,0,1425,1425
288.85,-1.47936e-08,0,1427,1427
288.903,-1.40344e-08,0,1421,1421
288.955,-1.33708e-08,0,1423,1423
289.002,-1.28474e-08,0,1434,1434
289.055,-1.23205e-08,0,1432,1432
289.102,-1.19e-08,0,1454,1454
289.155,-1.14777e-08,0,1472,1472
289.202,-1.11471e-08,0,1474,1474
289.254,-1.08254e-08,0,1484,1484
289.301,-1.05823e-08,0,1492,1492
289.354,-1.03538e-08,0,1498,1498
289.401,-1.01882e-08,0,1468,1468
289.453,-1.00408e-08,0,1440,1440
289.5,-9.88746e-09,0,1430,1430
289.553,-9.80379e-09,0,1422,1422
289.606,-9.75314e-09,0,1410,1410
289.653,-9.73092e-09,0,1404,1404
289.705,-9.74181e-09,0,1394,1394
289.752,-9.76846e-09,0,1380,1380
289.805,-9.7928e-09,0,1368,1368
289.852,-9.82675e-09,0,1356,1356
289.905,-9.8725e-09,0,1352,1352
289.951,-9.91457e-09,0,1346,1346
290.004,-9.96741e-09,0,1338,1338
290.051,-1.00183e-08,0,1326,1326
290.104,-1.00738e-08,0,1312,1312
290.151,-1.01217e-08,0,1296,1296
290.203,-1.01753e-08,0,1274,1274
290.25,-1.02215e-08,0,1244,1244
290.303,-1.02715e-08,0,1210,1210
290.356,-1.03191e-08,0,1178,1178
290.403,-1.03589e-08,0,1120,1120
290.455,-1.04005e-08,0,1094,1094
290.502,-1.04337e-08,0,1054,1054
290.555,-1.04664e-08,0,1014,1014
290.602,-1.04919e-08,0,996,996
290.654,-1.05166e-08,0,972,972
290.701,-1.05352e-08,0,948,948
290.754,-1.05529e-08,0,914,914
290.801,-1.05662e-08,0,918,918
290.854,-1.05789e-08,0,964,964
290.901,-1.05889e-08,0,982,982
290.953,-1.06003e-08,0,994,994
291,-1.06119e-08,0,978,978
291.053,-1.06282e-08,0,962,962
291.106,-1.06497e-08,0,962,962
291.152,-1.06748e-08,0,952,952
291.205,-1.07119e-08,0,976,976
291.252,-1.07542e-08,0,980,980
291.305,-1.08143e-08,0,988,988
291.352,-1.08798e-08,0,992,992
291.404,-1.09686e-08,0,992,992
291.451,-1.10617e-08,0,992,992
291.504,-1.11836e-08,0,996,996
291.551,-1.13078e-08,0,992,992
291.604,-1.1466e-08,0,994,994
291.65,-1.16231e-08,0,1000,1000
291.703,-1.18181e-08,0,994,994
291.756,-1.20318e-08,0,998,998
291.803,-1.22366e-08,0,1006,1006
291.855,-1.24828e-08,0,1010,1010
291.902,-1.27151e-08,0,1010,1010
291.955,-1.29905e-08,0,1026,1026
292.002,-1.32468e-08,0,1036,1036
292.055,-1.35414e-08,0,1026,1026
292.101,-1.37997e-08,0,1020,1020
292.156,-1.41414e-08,0,1016,1016
292.203,-1.44381e-08,0,1015,1015
292.257,-1.4775e-08,0,1019,1019
292.304,-1.50652e-08,0,1021,1021
292.351,-1.5352e-08,0,1025,1025
292.405,-1.56838e-08,0,1029,1029
292.452,-1.59963e-08,0,1039,1039
292.505,-1.63929e-08,0,1041,1041
292.552,-1.67584e-08,0,1051,1051
292.603,-1.71728e-08,0,1051,1051
292.655,-1.75767e-08,0,1065,1065
292.706,-1.7959e-08,0,1071,1071
292.751,-1.82991e-08,0,1059,1059
292.802,-1.86719e-08,0,1051,1051
292.853,-1.90247e-08,0,1047,1047
292.904,-1.9376e-08,0,1027,1027
292.954,-1.97044e-08,0,1025,1025
293.005,-2.00149e-08,0,1025,1025
293.055,-2.03157e-08,0,1009,1009
293.105,-2.0593e-08,0,1037,1037
293.155,-2.08569e-08,0,1033,1033
293.205,-2.11045e-08,0,1027,1027
293.255,-2.13317e-08,0,1023,1023
293.304,-2.15428e-08,0,1023,1023
293.353,-2.17315e-08,0,1015,1015
293.403,-2.18991e-08,0,1019,1019
293.452,-2.20455e-08,0,1021,1021
293.5,-2.21688e-08,0,1023,1023
293.555,-2.22863e-08,0,1023,1023
293.604,-2.23711e-08,0,1013,1013
293.652,-2.24156e-08,0,1003,1003
293.7,-2.2422e-08,0,1005,1005
293.754,-2.24217e-08,0,1001,1001
293.802,-2.24074e-08,0,1001,1001
293.85,-2.23812e-08,0,1003,1003
293.904,-2.23427e-08,0,993,993
293.951,-2.22946e-08,0,993,993
294.005,-2.22313e-08,0,993,993
294.052,-2.21663e-08,0,999,999
294.105,-2.2083e-08,0,995,995
294.152,-2.20021e-08,0,995,995
294.204,-2.19028e-08,0,995,995
294.251,-2.18082e-08,0,985,985
294.304,-2.16962e-08,0,985,985
294.351,-2.15924e-08,0,991,991
294.404,-2.14711e-08,0,991,991
294.45,-2.136e-08,0,987,987
294.503,-2.12324e-08,0,987,987
294.55,-2.11174e-08,0,987,987
294.603,-2.09867e-08,0,989,989
294.655,-2.08558e-08,0,981,981
294.702,-2.07395e-08,0,987,987
294.755,-2.06093e-08,0,987,987
294.802,-2.04944e-08,0,987,987
294.855,-2.03666e-08,0,987,987
294.902,-2.02547e-08,0,987,987
294.954,-2.01311e-08,0,989,989
295.001,-2.00235e-08,0,983,983
295.054,-1.99052e-08,0,987,987
295.101,-1.98027e-08,0,987,987
295.153,-1.96907e-08,0,989,989
295.2,-1.9594e-08,0,979,979
295.253,-1.94885e-08,0,968,968
295.306,-1.93863e-08,0,956,956
295.353,-1.92983e-08,0,954,954
295.405,-1.92022e-08,0,936,936
295.452,-1.91192e-08,0,940,940
295.505,-1.90284e-08,0,934,934
295.552,-1.89499e-08,0,930,930
295.605,-1.88638e-08,0,936,936
295.651,-1.87891e-08,0,930,930
295.704,-1.87071e-08,0,930,930
295.751,-1.86357e-08,0,924,924
295.804,-1.85571e-08,0,931,931
295.851,-1.84884e-08,0,915,915
295.903,-1.84125e-08,0,907,907
295.95,-1.83458e-08,0,905,905
296.003,-1.82717e-08,0,891,891
296.056,-1.81983e-08,0,895,895
296.103,-1.81334e-08,0,881,881
296.155,-1.80607e-08,0,873,873
296.202,-1.79961e-08,0,871,871
296.255,-1.79233e-08,0,873,873
296.302,-1.78583e-08,0,869,869
296.354,-1.77848e-08,0,865,865
296.401,-1.77187e-08,0,861,861
296.454,-1.76435e-08,0,857,857
296.501,-1.75757e-08,0,853,853
296.554,-1.74981e-08,0,849,849
296.601,-1.74279e-08,0,837,837
296.653,-1.73472e-08,0,833,833
296.7,-1.72739e-08,0,835,835
296.753,-1.71894e-08,0,827,827
296.804,-1.71046e-08,0,823,823
296.856,-1.70178e-08,0,818,818
296.907,-1.69286e-08,0,822,822
296.95,-1.68502e-08,0,820,820
297.001,-1.67562e-08,0,816,816
297.052,-1.66594e-08,0,810,810
297.102,-1.65595e-08,0,812,812
297.152,-1.64564e-08,0,814,814
297.202,-1.63499e-08,0,814,814
297.252,-1.62398e-08,0,814,814
297.302,-1.6126e-08,0,814,814
297.352,-1.60082e-08,0,812,812
297.401,-1.58863e-08,0,810,810
297.45,-1.57603e-08,0,806,806
297.506,-1.56109e-08,0,814,814
297.555,-1.54754e-08,0,812,812
297.604,-1.53354e-08,0,806,806
297.652,-1.51911e-08,0,814,814
297.7,-1.5042e-08,0,814,814
297.755,-1.48659e-08,0,814,814
297.803,-1.47072e-08,0,814,814
297.851,-1.45439e-08,0,810,810
297.906,-1.43519e-08,0,814,814
297.953,-1.41795e-08,0,810,810
298,-1.40033e-08,0,814,814
298.054,-1.37973e-08,0,814,814
298.101,-1.36131e-08,0,814,814
298.155,-1.33987e-08,0,810,810
298.202,-1.32073e-08,0,816,816
298.255,-1.2984e-08,0,814,814
298.301,-1.27844e-08,0,816,816
298.354,-1.25515e-08,0,810,810
298.406,-1.23136e-08,0,816,816
298.452,-1.21004e-08,0,816,816
298.505,-1.18508e-08,0,820,820
298.55,-1.15636e-08,0,816,816
298.602,-1.10876e-08,0,818,818
298.654,-1.07071e-08,0,820,820
298.705,-1.03501e-08,0,816,816
298.75,-1.00186e-08,0,820,820
298.802,-9.65697e-09,0,822,822
298.853,-9.26525e-09,0,816,816
298.904,-8.8677e-09,0,822,822
298.954,-8.45725e-09,0,824,824
299.005,-8.03014e-09,0,822,822
299.055,-7.59953e-09,0,824,824
299.105,-7.15389e-09,0,826,826
299.155,-6.70291e-09,0,828,828
299.205,-6.24069e-09,0,830,830
299.255,-5.7673e-09,0,828,828
299.305,-5.28449e-09,0,824,824
299.354,-4.61676e-09,0,828,828
299.403,-4.01979e-09,0,830,830
299.452,-3.45066e-09,0,834,834
299.501,-2.91159e-09,0,826,826
299.556,-2.31678e-09,0,834,834
299.605,-1.80056e-09,0,836,836
299.653,-1.30192e-09,0,834,834
299.701,-8.1025e-10,0,832,832
299.756,-2.81273e-10,0,836,836
299.804,1.71827e-10,0,832,832
299.852,6.04756e-10,0,840,840
299.905,1.06273e-09,0,842,842
299.953,1.44756e-09,0,838,838
300,1.80452e-09,0,842,842
300.053,2.1761e-09,0,842,842
300.101,2.47737e-09,0,842,842
300.153,2.78314e-09,0,842,842
300.2,3.028e-09,0,844,844
300.253,3.27069e-09,0,842,842
300.306,3.48214e-09,0,846,846
300.353,3.64385e-09,0,848,848
300.405,3.79806e-09,0,844,844
300.452,3.91179e-09,0,842,842
300.505,4.03578e-09,0,848,848
300.552,4.07729e-09,0,850,850
300.604,4.07691e-09,0,846,846
300.651,4.07316e-09,0,848,848
300.704,4.06212e-09,0,854,854
300.751,4.04683e-09,0,846,846
300.804,4.02309e-09,0,844,844
300.851,3.99517e-09,0,850,850
300.903,3.959e-09,0,854,854
300.95,3.92268e-09,0,854,854
301.003,3.87715e-09,0,854,854
301.056,3.82782e-09,0,854,854
301.102,3.78142e-09,0,852,852
301.155,3.7264e-09,0,850,850
301.202,3.67526e-09,0,850,850
301.255,3.61643e-09,0,852,852
301.302,3.56393e-09,0,854,854
301.354,3.50505e-09,0,854,854
301.401,3.45296e-09,0,856,856
301.454,3.39508e-09,0,852,852
301.501,3.34476e-09,0,854,854
301.554,3.28977e-09,0,856,856
301.6,3.2424e-09,0,856,856
301.653,3.19082e-09,0,854,854
301.7,3.1465e-09,0,856,856
301.753,3.09827e-09,0,856,856
301.805,3.05158e-09,0,852,852
301.852,3.01126e-09,0,853,853
301.905,2.96702e-09,0,847,847
301.952,2.92836e-09,0,843,843
302.005,2.88517e-09,0,835,835
302.052,2.84675e-09,0,829,829
302.104,2.80324e-09,0,817,817
302.151,2.76406e-09,0,813,813
302.204,2.71909e-09,0,797,797
302.251,2.67809e-09,0,799,799
302.303,2.63067e-09,0,791,791
302.35,2.58733e-09,0,787,787
302.403,2.53723e-09,0,771,771
302.456,2.48572e-09,0,765,765
302.503,2.43885e-09,0,757,757
302.555,2.3851e-09,0,753,753
302.602,2.33667e-09,0,745,745
302.655,2.28179e-09,0,741,741
302.702,2.23295e-09,0,731,731
302.755,2.17836e-09,0,719,719
302.801,2.13054e-09,0,711,711
302.854,2.078e-09,0,695,695
302.901,2.03284e-09,0,689,689
302.954,1.98425e-09,0,677,677
303.001,1.94341e-09,0,669,669
303.053,1.90059e-09,0,649,649
303.1,1.86565e-09,0,647,647
303.153,1.83023e-09,0,635,635
303.206,1.79923e-09,0,623,623
303.253,1.77559e-09,0,611,611
303.305,1.75356e-09,0,599,599
303.352,1.73814e-09,0,593,593
303.405,1.72552e-09,0,581,581
303.452,1.7185e-09,0,571,571
303.504,1.71522e-09,0,561,561
303.551,1.71628e-09,0,547,547
303.604,1.7217e-09,0,535,535
303.651,1.73004e-09,0,525,525
303.704,1.74308e-09,0,517,517
303.76,1.76082e-09,0,512,512
303.807,1.77818e-09,0,512,512
303.854,1.79767e-09,0,512,512
303.901,1.81897e-09,0,512,512
303.959,1.84762e-09,0,512,512
304.006,1.87177e-09,0,512,512
304.053,1.89666e-09,0,512,512
304.1,1.92202e-09,0,512,512
304.159,1.95391e-09,0,512,512
304.205,1.97925e-09,0,512,512
304.252,2.00417e-09,0,512,512
304.311,2.03437e-09,0,512,512
304.358,2.05751e-09,0,512,512
304.405,2.07955e-09,0,512,512
304.452,2.10035e-09,0,512,512
304.51,2.12441e-09,0,512,512
304.557,2.14197e-09,0,512,512
304.604,2.15794e-09,0,512,512
304.651,2.17226e-09,0,512,512
304.709,2.18779e-09,0,512,512
304.756,2.1983e-09,0,512,512
304.803,2.20712e-09,0,512,512
304.862,2.21578e-09,0,512,512
304.908,2.22085e-09,0,512,512
304.955,2.22432e-09,0,512,512
