250,0,0,8192,8192
250.003,0,0,8192,8192
250.053,0,0,8192,8192
250.103,0,0,8192,8192
250.152,0,0,8192,8192
250.202,2.77556e-17,0,8192,8192
250.252,0,0,8192,8192
250.302,0,0,8192,8192
250.352,-2.77556e-17,0,8192,8192
250.401,-2.77556e-17,0,8192,8192
250.451,-2.77556e-17,0,8192,8192
250.501,-2.77556e-17,0,8192,8192
250.551,-2.77556e-17,0,8192,8192
250.6,-2.77556e-17,0,8192,8192
250.65,-2.77556e-17,0,8192,8192
250.7,-2.77556e-17,0,8192,8192
250.753,-2.77556e-17,0,8192,8192
250.803,-2.77556e-17,0,8192,8192
250.852,-2.77556e-17,0,8192,8192
250.902,-2.77556e-17,0,8192,8192
250.952,-2.77556e-17,0,8192,8192
251.002,-2.77556e-17,0,8192,8192
251.052,-2.77556e-17,0,8192,8192
251.101,-2.77556e-17,0,8192,8192
251.151,-2.77556e-17,0,8192,8192
251.201,-2.77556e-17,0,8192,8192
251.251,-2.77556e-17,0,8192,8192
251.301,-2.77556e-17,0,8192,8192
251.35,-2.77556e-17,0,8192,8192
251.4,-2.77556e-17,0,8192,8192
251.453,-2.77556e-17,0,8192,8192
251.503,-2.77556e-17,0,8192,8192
251.553,0,0,8192,8192
251.602,2.77556e-17,0,8192,8192
251.652,2.77556e-17,0,8192,8192
251.702,5.55112e-17,0,8192,8192
251.752,5.55112e-17,0,8192,8192
251.801,0,0,8192,8192
251.851,0,0,8192,8192
251.901,0,0,8192,8192
251.951,0,0,8192,8192
252.001,0,0,8192,8192
252.05,0,0,8192,8192
252.1,0,0,8192,8192
252.15,2.77556e-17,0,8192,8192
252.203,2.77556e-17,0,8192,8192
252.253,-2.77556e-17,0,8192,8192
252.302,-2.77556e-17,0,8192,8192
252.352,-2.77556e-17,0,8192,8192
252.402,-2.77556e-17,0,8192,8192
252.452,-2.77556e-17,0,8192,8192
252.502,-2.77556e-17,0,8192,8192
252.551,-2.77556e-17,0,8192,8192
252.601,-2.77556e-17,0,8192,8192
252.651,-2.77556e-17,0,8192,8192
252.701,-2.77556e-17,0,8192,8192
252.751,-2.77556e-17,0,8192,8192
252.8,-2.77556e-17,0,8192,8192
252.85,-2.77556e-17,0,8192,8192
252.903,-2.77556e-17,0,8192,8192
252.953,-2.77556e-17,0,8192,8192
253.002,-2.77556e-17,0,8192,8192
253.052,2.77556e-17,0,8192,8192
253.102,0,0,8192,8192
253.152,2.77556e-17,0,8192,8192
253.202,2.77556e-17,0,8192,8192
253.251,2.77556e-17,0,8192,8192
253.301,2.77556e-17,0,8192,8192
253.351,2.77556e-17,0,8192,8192
253.401,2.77556e-17,0,8192,8192
253.451,2.77556e-17,0,8192,8192
253.5,2.77556e-17,0,8192,8192
253.55,2.77556e-17,0,8192,8192
253.6,2.77556e-17,0,8192,8192
253.653,2.77556e-17,0,8192,8192
253.703,2.77556e-17,0,8192,8192
253.752,5.55112e-17,0,8192,8192
253.802,5.55112e-17,0,8192,8192
253.852,5.55112e-17,0,8192,8192
253.902,5.55112e-17,0,8192,8192
253.952,2.77556e-17,0,8192,8192
254.001,2.77556e-17,0,8192,8192
254.051,5.55112e-17,0,8192,8192
254.101,5.55112e-17,0,8192,8192
254.151,5.55112e-17,0,8192,8192
254.201,5.55112e-17,0,8192,8192
254.25,2.77556e-17,0,8192,8192
254.3,2.77556e-17,0,8192,8192
254.353,2.77556e-17,0,8192,8192
254.403,2.77556e-17,0,8192,8192
254.452,2.77556e-17,0,8192,8192
254.502,2.77556e-17,0,8192,8192
254.552,2.77556e-17,0,8192,8192
254.602,2.77556e-17,0,8192,8192
254.652,0,0,8192,8192
254.701,2.77556e-17,0,8192,8192
254.751,0,0,8192,8192
254.801,0,0,8192,8192
254.851,0,0,8192,8192
254.901,0,0,8192,8192
254.95,0,0,8192,8192
255,0,0,8192,8192
255.05,0,0,8192,8192
255.103,0,0,8192,8192
255.153,2.77556e-17,0,8192,8192
255.202,2.77556e-17,0,8192,8192
255.252,2.77556e-17,0,8192,8192
255.302,2.77556e-17,0,8192,8192
255.352,2.77556e-17,0,8192,8192
255.402,2.77556e-17,0,8192,8192
255.451,2.77556e-17,0,8192,8192
255.501,2.77556e-17,0,8192,8192
255.551,2.77556e-17,0,8192,8192
255.601,0,0,8192,8192
255.651,2.77556e-17,0,8192,8192
255.7,0,0,8192,8192
255.75,2.77556e-17,0,8192,8192
255.803,0,0,8192,8192
255.853,0,0,8192,8192
255.902,2.77556e-17,0,8192,8192
255.952,2.77556e-17,0,8192,8192
256.002,0,0,8192,8192
256.052,0,0,8192,8192
256.102,0,0,8192,8192
256.151,0,0,8192,8192
256.201,0,0,8192,8192
256.251,0,0,8192,8192
256.301,2.77556e-17,0,8192,8192
256.351,0,0,8192,8192
256.4,5.55112e-17,0,8192,8192
256.45,5.55112e-17,0,8192,8192
256.5,5.55112e-17,0,8192,8192
256.553,2.77556e-17,0,8192,8192
256.603,2.77556e-17,0,8192,8192
256.652,2.77556e-17,0,8192,8192
256.702,2.77556e-17,0,8192,8192
256.752,2.77556e-17,0,8192,8192
256.802,2.77556e-17,0,8192,8192
256.852,-2.77556e-17,0,8192,8192
256.901,-2.77556e-17,0,8192,8192
256.951,-2.77556e-17,0,8192,8192
257.001,-5.55112e-17,0,8192,8192
257.051,-5.55112e-17,0,8192,8192
257.101,-5.55112e-17,0,8192,8192
257.15,-2.77556e-17,0,8192,8192
257.2,-2.77556e-17,0,8192,8192
257.253,-2.77556e-17,0,8192,8192
257.303,-2.77556e-17,0,8192,8192
257.352,-2.77556e-17,0,8192,8192
257.402,-2.77556e-17,0,8192,8192
257.452,-2.77556e-17,0,8192,8192
257.502,-2.77556e-17,0,8192,8192
257.552,-2.77556e-17,0,8192,8192
257.601,-2.77556e-17,0,8192,8192
257.651,-2.77556e-17,0,8192,8192
257.701,-2.77556e-17,0,8192,8192
257.751,-2.77556e-17,0,8192,8192
257.801,-2.77556e-17,0,8192,8192
257.85,-2.77556e-17,0,8192,8192
257.9,-2.77556e-17,0,8192,8192
257.95,-2.77556e-17,0,8192,8192
258.003,-2.77556e-17,0,8192,8192
258.053,-2.77556e-17,0,8192,8192
258.102,-2.77556e-17,0,8192,8192
258.152,-2.77556e-17,0,8192,8192
258.202,-2.77556e-17,0,8192,8192
258.252,-2.77556e-17,0,8192,8192
258.302,-2.77556e-17,0,8192,8192
258.351,-2.77556e-17,0,8192,8192
258.401,-2.77556e-17,0,8192,8192
258.451,-2.77556e-17,0,8192,8192
258.501,-2.77556e-17,0,8192,8192
258.551,-2.77556e-17,0,8192,8192
258.6,-2.77556e-17,0,8192,8192
258.65,-2.77556e-17,0,8192,8192
258.703,-2.77556e-17,0,8192,8192
258.753,-2.77556e-17,0,8192,8192
258.802,-2.77556e-17,0,8192,8192
258.852,-2.77556e-17,0,8192,8192
258.902,-2.77556e-17,0,8192,8192
258.952,-2.77556e-17,0,8192,8192
259.002,-2.77556e-17,0,8192,8192
259.051,-2.77556e-17,0,8192,8192
259.101,-2.77556e-17,0,8192,8192
259.151,-2.77556e-17,0,8192,8192
259.201,-2.77556e-17,0,8192,8192
259.251,2.77556e-17,0,8192,8192
259.3,5.55112e-17,0,8192,8192
259.35,5.55112e-17,0,8192,8192
259.403,5.55112e-17,0,8192,8192
259.453,5.55112e-17,0,8192,8192
259.503,5.55112e-17,0,8192,8192
259.552,5.55112e-17,0,8192,8192
259.602,5.55112e-17,0,8192,8192
259.652,5.55112e-17,0,8192,8192
259.702,5.55112e-17,0,8192,8192
259.751,5.55112e-17,0,8192,8192
259.801,5.55112e-17,0,8192,8192
259.851,5.55112e-17,0,8192,8192
259.901,5.55112e-17,0,8192,8192
259.951,5.55112e-17,0,8192,8192
260,2.77556e-17,0,8192,8192
260.05,2.77556e-17,0,8192,8192
260.1,2.77556e-17,0,8192,8192
260.153,2.77556e-17,0,8192,8192
260.203,2.77556e-17,0,8192,8192
260.252,5.55112e-17,0,8192,8192
260.302,5.55112e-17,0,8192,8192
260.352,2.77556e-17,0,8192,8192
260.402,5.55112e-17,0,8192,8192
260.452,5.55112e-17,0,8192,8192
260.501,5.55112e-17,0,8192,8192
260.551,5.55112e-17,0,8192,8192
260.601,5.55112e-17,0,8192,8192
260.651,5.55112e-17,0,8192,8192
260.701,5.55112e-17,0,8192,8192
260.75,5.55112e-17,0,8192,8192
260.8,5.55112e-17,0,8192,8192
260.853,2.77556e-17,0,8192,8192
260.903,2.77556e-17,0,8192,8192
260.952,5.55112e-17,0,8192,8192
261.002,5.55112e-17,0,8192,8192
261.052,5.55112e-17,0,8192,8192
261.102,2.77556e-17,0,8192,8192
261.152,2.77556e-17,0,8192,8192
261.201,2.77556e-17,0,8192,8192
261.251,2.77556e-17,0,8192,8192
261.301,2.77556e-17,0,8192,8192
261.351,2.77556e-17,0,8192,8192
261.401,2.77556e-17,0,8192,8192
261.45,2.77556e-17,0,8192,8192
261.5,2.77556e-17,0,8192,8192
261.55,2.77556e-17,0,8192,8192
261.603,2.77556e-17,0,8192,8192
261.653,2.77556e-17,0,8192,8192
261.702,2.77556e-17,0,8192,8192
261.752,2.77556e-17,0,8192,8192
261.802,2.77556e-17,0,8192,8192
261.852,2.77556e-17,0,8192,8192
261.902,2.77556e-17,0,8192,8192
261.951,2.77556e-17,0,8192,8192
262.001,2.77556e-17,0,8192,8192
262.051,2.77556e-17,0,8192,8192
262.101,2.77556e-17,0,8192,8192
262.151,0,0,8192,8192
262.2,0,0,8192,8192
262.25,0,0,8192,8192
262.303,-2.77556e-17,0,8192,8192
262.353,-2.77556e-17,0,8192,8192
262.402,-2.77556e-17,0,8192,8192
262.452,-2.77556e-17,0,8192,8192
262.502,-2.77556e-17,0,8192,8192
262.552,-2.77556e-17,0,8192,8192
262.602,2.77556e-17,0,8192,8192
262.651,2.77556e-17,0,8192,8192
262.701,2.77556e-17,0,8192,8192
262.751,2.77556e-17,0,8192,8192
262.801,2.77556e-17,0,8192,8192
262.851,2.77556e-17,0,8192,8192
262.9,2.77556e-17,0,8192,8192
262.95,0,0,8192,8192
263,0,0,8192,8192
263.053,0,0,8192,8192
263.103,2.77556e-17,0,8192,8192
263.152,2.77556e-17,0,8192,8192
263.202,2.77556e-17,0,8192,8192
263.252,0,0,8192,8192
263.302,0,0,8192,8192
263.352,2.77556e-17,0,8192,8192
263.401,2.77556e-17,0,8192,8192
263.451,0,0,8192,8192
263.501,0,0,8192,8192
263.551,2.77556e-17,0,8192,8192
263.601,2.77556e-17,0,8192,8192
263.65,0,0,8192,8192
263.7,0,0,8192,8192
263.753,2.77556e-17,0,8192,8192
263.803,0,0,8192,8192
263.852,0,0,8192,8192
263.902,0,0,8192,8192
263.952,0,0,8192,8192
264.002,-2.77556e-17,0,8192,8192
264.052,-2.77556e-17,0,8192,8192
264.101,-8.32667e-17,0,8192,8192
264.151,-8.32667e-17,0,8192,8192
264.201,-8.32667e-17,0,8192,8192
264.251,-8.32667e-17,0,8192,8192
264.301,-8.32667e-17,0,8192,8192
264.35,-8.32667e-17,0,8192,8192
264.4,-8.32667e-17,0,8192,8192
264.45,-5.55112e-17,0,8192,8192
264.503,-2.77556e-17,0,8192,8192
264.553,-2.77556e-17,0,8192,8192
264.602,-2.77556e-17,0,8192,8192
264.652,-2.77556e-17,0,8192,8192
264.702,-2.77556e-17,0,8192,8192
264.752,-2.77556e-17,0,8192,8192
264.802,-2.77556e-17,0,8192,8192
264.851,-2.77556e-17,0,8192,8192
264.901,-2.77556e-17,0,8192,8192
264.951,-5.55112e-17,0,8192,8192
265.001,-2.77556e-17,0,8192,8192
265.051,-5.55112e-17,0,8192,8192
265.1,-5.55112e-17,0,8192,8192
265.15,-5.55112e-17,0,8192,8192
265.203,-5.55112e-17,0,8192,8192
265.253,-5.55112e-17,0,8192,8192
265.302,-2.77556e-17,0,8192,8192
265.352,-5.55112e-17,0,8192,8192
265.402,-2.77556e-17,0,8192,8192
265.452,-5.55112e-17,0,8192,8192
265.502,-5.55112e-17,0,8192,8192
265.551,-2.77556e-17,0,8192,8192
265.601,0,0,8192,8192
265.651,0,0,8192,8192
265.701,0,0,8192,8192
265.751,0,0,8192,8192
265.8,0,0,8192,8192
265.85,0,0,8192,8192
265.9,0,0,8192,8192
265.953,0,0,8192,8192
266.003,0,0,8192,8192
266.052,0,0,8192,8192
266.102,0,0,8192,8192
266.152,2.77556e-17,0,8192,8192
266.202,0,0,8192,8192
266.252,0,0,8192,8192
266.301,0,0,8192,8192
266.351,0,0,8192,8192
266.401,-2.77556e-17,0,8192,8192
266.451,-2.77556e-17,0,8192,8192
266.501,0,0,8192,8192
266.55,0,0,8192,8192
266.6,0,0,8192,8192
266.653,0,0,8192,8192
266.703,0,0,8192,8192
266.752,0,0,8192,8192
266.802,0,0,8192,8192
266.852,0,0,8192,8192
266.902,0,0,8192,8192
266.952,0,0,8192,8192
267.001,0,0,8192,8192
267.051,0,0,8192,8192
267.101,-2.77556e-17,0,8192,8192
267.151,-2.77556e-17,0,8192,8192
267.201,0,0,8192,8192
267.25,0,0,8192,8192
267.3,0,0,8192,8192
267.353,0,0,8192,8192
267.403,0,0,8192,8192
267.453,0,0,8192,8192
267.502,2.77556e-17,0,8192,8192
267.552,2.77556e-17,0,8192,8192
267.602,0,0,8192,8192
267.652,0,0,8192,8192
267.702,0,0,8192,8192
267.751,0,0,8192,8192
267.801,0,0,8192,8192
267.851,0,0,8192,8192
267.901,0,0,8192,8192
267.95,2.77556e-17,0,8192,8192
268,0,0,8192,8192
268.05,0,0,8192,8192
268.1,-2.77556e-17,0,8192,8192
268.15,-2.77556e-17,0,8192,8192
268.203,-2.77556e-17,0,8192,8192
268.253,-2.77556e-17,0,8192,8192
268.302,-2.77556e-17,0,8192,8192
268.352,-2.77556e-17,0,8192,8192
268.402,-2.77556e-17,0,8192,8192
268.452,-2.77556e-17,0,8192,8192
268.502,-2.77556e-17,0,8192,8192
268.551,-2.77556e-17,0,8192,8192
268.601,0,0,8192,8192
268.651,0,0,8192,8192
268.701,-2.77556e-17,0,8192,8192
268.751,0,0,8192,8192
268.8,0,0,8192,8192
268.85,-2.77556e-17,0,8192,8192
268.903,0,0,8192,8192
268.953,0,0,8192,8192
269.002,2.77556e-17,0,8192,8192
269.052,2.77556e-17,0,8192,8192
269.102,2.77556e-17,0,8192,8192
269.152,5.55112e-17,0,8192,8192
269.202,2.77556e-17,0,8192,8192
269.251,0,0,8192,8192
269.301,0,0,8192,8192
269.351,0,0,8192,8192
269.401,0,0,8192,8192
269.451,2.77556e-17,0,8192,8192
269.5,2.77556e-17,0,8192,8192
269.55,2.77556e-17,0,8192,8192
269.6,2.77556e-17,0,8192,8192
269.653,2.77556e-17,0,8192,8192
269.703,2.77556e-17,0,8192,8192
269.752,2.77556e-17,0,8192,8192
269.802,2.77556e-17,0,8192,8192
269.852,2.77556e-17,0,8192,8192
269.9,2.77556e-17,0,8260,8260
269.951,2.77556e-17,0,8356,8356
270.001,2.77556e-17,0,8476,8476
270.051,2.77556e-17,0,8572,8572
270.101,2.77556e-17,0,8676,8676
270.15,2.77556e-17,0,8760,8760
270.2,2.77556e-17,0,8768,8768
270.25,2.77556e-17,0,8744,8744
270.301,2.77556e-17,0,8804,8804
270.351,2.77556e-17,0,8892,8892
270.4,2.77556e-17,0,9100,9100
270.451,2.77556e-17,0,9332,9332
270.5,2.77556e-17,0,9556,9556
270.551,2.77556e-17,0,9836,9836
270.6,2.77556e-17,0,10260,10260
270.65,2.77556e-17,0,10892,10892
270.7,2.77556e-17,0,11516,11516
270.751,2.77556e-17,0,12324,12324
270.8,2.77556e-17,0,13204,13204
270.85,2.77556e-17,0,14084,14084
270.901,2.77556e-17,0,14868,14868
270.95,2.77556e-17,0,15756,15756
271,2.77556e-17,0,16660,16660
271.05,2.77556e-17,0,17500,17500
271.101,2.77556e-17,0,18404,18404
271.15,2.77556e-17,0,19292,19292
271.2,2.77556e-17,0,20148,20148
271.251,2.77556e-17,0,20972,20972
271.301,2.77556e-17,0,21812,21812
271.35,2.77556e-17,0,22644,22644
271.4,2.77556e-17,0,23484,23484
271.451,2.77556e-17,0,24060,24060
271.5,2.77556e-17,0,24276,24276
271.55,2.77556e-17,0,24264,24264
271.6,2.77556e-17,0,24248,24248
271.651,2.77556e-17,0,24308,24308
271.7,2.77556e-17,0,24444,24444
271.75,2.77556e-17,0,24636,24636
271.801,2.77556e-17,0,25164,25164
271.85,2.77556e-17,0,25772,25772
271.9,2.77556e-17,0,26436,26436
271.95,2.77556e-17,0,27340,27340
272.001,2.77556e-17,0,28100,28100
272.05,2.77556e-17,0,28932,28932
272.1,2.77556e-17,0,29676,29676
272.151,2.77556e-17,0,30428,30428
272.201,2.77556e-17,0,31172,31172
272.25,2.77556e-17,0,32084,32084
272.3,2.77556e-17,0,33020,33020
272.351,2.77556e-17,0,33884,33884
272.4,-1.27676e-15,0,34924,34924
272.45,-3.05311e-15,0,35708,35708
272.5,-5.13478e-15,0,36572,36572
272.551,-1.86517e-14,0,37332,37332
272.6,-1.02474e-13,0,38132,38132
272.65,-4.85445e-13,0,38956,38956
272.701,-1.91186e-12,0,39764,39764
272.75,-6.08588e-12,0,40540,40540
272.8,-1.61941e-11,0,41356,41356
272.85,-3.63625e-11,0,42164,42164
272.901,-6.99385e-11,0,43028,43028
272.95,-1.13492e-10,0,43820,43820
273,-1.57045e-10,0,44564,44564
273.051,-1.8443e-10,0,45180,45180
273.101,-1.79878e-10,0,45604,45604
273.15,-1.40085e-10,0,45852,45852
273.2,-7.62245e-11,0,45828,45828
273.251,-8.56373e-12,0,45700,45700
273.3,4.12309e-11,0,45676,45676
273.35,6.67473e-11,0,45732,45732
273.4,7.42963e-11,0,45796,45796
273.451,7.67427e-11,0,45844,45844
273.5,8.32867e-11,0,45992,45992
273.55,9.41952e-11,0,46096,46096
273.601,1.03629e-10,0,46032,46032
273.65,1.06272e-10,0,46064,46064
273.7,1.032e-10,0,46080,46080
273.75,1.00074e-10,0,45648,45648
273.801,1.02074e-10,0,45536,45536
273.85,1.09203e-10,0,45368,45368
273.9,1.16701e-10,0,45176,45176
273.95,1.19407e-10,0,45088,45088
274.001,1.16174e-10,0,45028,45028
274.05,1.11087e-10,0,44920,44920
274.1,1.09647e-10,0,44816,44816
274.151,1.14179e-10,0,44800,44800
274.2,1.21283e-10,0,44864,44864
274.25,1.24973e-10,0,44840,44840
274.3,1.2202e-10,0,44848,44848
274.351,1.15414e-10,0,44872,44872
274.4,1.12649e-10,0,44912,44912
274.45,1.18982e-10,0,44880,44880
274.501,1.36777e-10,0,44752,44752
274.551,1.7603e-10,0,44576,44576
274.6,2.80429e-10,0,44544,44544
274.65,5.50412e-10,0,44456,44456
274.701,1.15867e-09,0,44240,44240
274.751,2.28279e-09,0,44152,44152
274.801,4.09742e-09,0,43928,43928
274.85,6.63908e-09,0,43832,43832
274.9,9.93773e-09,0,43728,43728
274.95,1.36063e-08,0,43664,43664
275,1.9891e-08,0,43520,43520
275.05,2.50915e-08,0,43336,43336
275.101,2.93775e-08,0,43304,43304
275.15,3.32661e-08,0,43160,43160
275.2,3.74846e-08,0,43040,43040
275.25,4.27223e-08,0,42856,42856
275.3,4.94623e-08,0,42808,42808
275.35,5.87426e-08,0,42632,42632
275.4,7.13625e-08,0,42528,42528
275.45,8.56934e-08,0,42408,42408
275.5,1.01322e-07,0,42272,42272
275.55,1.17706e-07,0,42152,42152
275.6,1.34527e-07,0,41992,41992
275.651,1.78047e-07,0,41912,41912
275.701,2.20748e-07,0,41808,41808
275.751,2.68859e-07,0,41600,41600
275.8,3.20541e-07,0,41616,41616
275.851,3.74765e-07,0,41456,41456
275.9,4.28779e-07,0,41368,41368
275.95,4.84457e-07,0,41200,41200
276.001,5.43965e-07,0,41144,41144
276.05,6.06931e-07,0,41000,41000
276.101,6.72896e-07,0,40952,40952
276.151,7.35122e-07,0,40832,40832
276.201,7.90112e-07,0,40792,40792
276.25,8.34242e-07,0,40568,40568
276.3,8.67678e-07,0,40560,40560
276.35,8.89692e-07,0,40376,40376
276.4,9.02439e-07,0,40320,40320
276.45,9.06423e-07,0,40248,40248
276.501,9.06023e-07,0,40160,40160
276.55,9.04338e-07,0,40048,40048
276.6,9.01377e-07,0,39992,39992
276.65,8.97196e-07,0,39968,39968
276.7,8.84105e-07,0,39800,39800
276.751,8.68793e-07,0,39824,39824
276.8,8.52782e-07,0,39640,39640
276.85,8.10878e-07,0,39624,39624
276.9,7.64773e-07,0,39560,39560
276.951,7.13029e-07,0,39376,39376
277,6.57585e-07,0,39272,39272
277.051,5.99743e-07,0,39304,39304
277.101,5.44163e-07,0,39312,39312
277.15,4.92451e-07,0,39128,39128
277.2,4.43645e-07,0,39144,39144
277.251,3.98808e-07,0,38976,38976
277.301,3.58237e-07,0,38984,38984
277.351,3.20459e-07,0,38840,38840
277.401,2.84768e-07,0,38816,38816
277.45,2.51215e-07,0,38784,38784
277.5,2.19021e-07,0,38696,38696
277.551,1.88385e-07,0,38608,38608
277.601,1.62119e-07,0,38568,38568
277.65,1.41721e-07,0,38512,38512
277.701,1.26501e-07,0,38336,38336
277.75,1.14673e-07,0,38352,38352
277.8,1.02725e-07,0,38336,38336
277.851,8.89557e-08,0,38288,38288
277.901,7.42592e-08,0,38168,38168
277.95,6.1028e-08,0,38120,38120
278,5.0313e-08,0,38152,38152
278.05,4.22348e-08,0,37944,37944
278.1,3.90646e-08,0,37976,37976
278.151,3.5774e-08,0,37896,37896
278.2,3.16938e-08,0,37744,37744
278.25,2.67426e-08,0,37768,37768
278.301,2.13486e-08,0,37672,37672
278.35,1.63047e-08,0,37504,37504
278.4,1.22341e-08,0,37448,37448
278.451,9.5162e-09,0,37484,37484
278.5,8.09524e-09,0,37340,37340
278.55,7.86742e-09,0,37156,37156
278.6,7.82983e-09,0,37044,37044
278.65,7.89572e-09,0,36956,36956
278.7,7.99076e-09,0,36948,36948
278.75,8.06793e-09,0,37324,37324
278.801,8.09465e-09,0,37308,37308
278.851,8.06063e-09,0,37100,37100
278.9,7.96797e-09,0,36868,36868
278.951,7.82907e-09,0,36708,36708
279,7.67238e-09,0,36460,36460
279.051,7.51772e-09,0,36180,36180
279.101,7.38893e-09,0,35668,35668
279.15,7.2942e-09,0,35348,35348
279.2,7.23437e-09,0,35220,35220
279.25,7.20392e-09,0,34748,34748
279.3,7.19485e-09,0,34268,34268
279.35,7.19919e-09,0,33828,33828
279.4,7.21082e-09,0,33548,33548
279.45,7.22643e-09,0,33268,33268
279.501,7.24407e-09,0,32748,32748
279.55,7.26198e-09,0,31828,31828
279.601,7.28044e-09,0,31316,31316
279.65,7.29854e-09,0,30820,30820
279.701,7.31706e-09,0,30108,30108
279.751,7.33525e-09,0,29292,29292
279.801,7.35354e-09,0,28652,28652
279.85,7.37223e-09,0,28188,28188
279.9,7.39191e-09,0,27300,27300
279.951,7.41298e-09,0,25964,25964
280.001,7.43636e-09,0,24556,24556
280.05,7.46339e-09,0,23420,23420
280.101,7.49747e-09,0,21524,21524
280.151,7.53938e-09,0,18852,18852
280.201,7.59278e-09,0,15484,15484
280.251,7.66177e-09,0,15676,15676
280.301,7.75022e-09,0,18228,18228
280.351,7.86094e-09,0,19364,19364
280.4,7.99703e-09,0,20716,20716
280.451,8.16429e-09,0,21140,21140
280.501,8.35823e-09,0,22612,22612
280.55,8.58358e-09,0,23508,23508
280.601,8.84959e-09,0,24172,24172
280.65,9.15085e-09,0,24732,24732
280.7,9.50573e-09,0,25244,25244
280.751,9.91704e-09,0,25708,25708
280.8,1.03869e-08,0,26180,26180
280.85,1.09524e-08,0,26580,26580
280.901,1.16298e-08,0,26988,26988
280.951,1.24475e-08,0,27204,27204
281.001,1.34321e-08,0,27388,27388
281.051,1.46057e-08,0,27988,27988
281.101,1.59851e-08,0,28284,28284
281.151,1.75835e-08,0,28772,28772
281.2,1.94118e-08,0,29084,29084
281.25,2.14799e-08,0,29484,29484
281.301,2.38427e-08,0,30004,30004
281.35,2.64103e-08,0,30660,30660
281.401,2.92774e-08,0,31340,31340
281.45,3.23236e-08,0,31972,31972
281.5,3.56539e-08,0,32636,32636
281.551,3.91902e-08,0,33276,33276
281.601,4.29064e-08,0,33964,33964
281.651,4.6775e-08,0,34588,34588
281.701,5.07686e-08,0,35156,35156
281.751,5.48544e-08,0,35348,35348
281.801,5.89844e-08,0,35480,35480
281.85,6.30924e-08,0,35688,35688
281.9,6.71149e-08,0,34952,34952
281.951,7.11013e-08,0,34920,34920
282,7.77389e-08,0,35256,35256
282.051,8.35225e-08,0,35680,35680
282.1,8.91337e-08,0,35900,35900
282.15,9.49915e-08,0,36436,36436
282.201,1.01087e-07,0,36900,36900
282.251,1.07447e-07,0,37244,37244
282.301,1.14101e-07,0,37420,37420
282.35,1.2093e-07,0,37572,37572
282.401,1.28328e-07,0,37684,37684
282.451,1.35858e-07,0,37876,37876
282.501,1.43615e-07,0,37932,37932
282.55,1.51546e-07,0,38028,38028
282.6,1.5963e-07,0,38092,38092
282.651,1.70048e-07,0,38156,38156
282.7,1.81529e-07,0,38268,38268
282.751,1.9442e-07,0,38308,38308
282.801,2.08634e-07,0,38444,38444
282.85,2.23535e-07,0,38548,38548
282.9,2.39286e-07,0,38588,38588
282.95,2.69285e-07,0,38652,38652
283,3.07904e-07,0,38796,38796
283.05,3.52347e-07,0,38892,38892
283.101,3.98557e-07,0,38884,38884
283.151,4.4593e-07,0,38868,38868
283.201,4.94669e-07,0,38964,38964
283.251,5.44551e-07,0,38976,38976
283.3,5.95818e-07,0,39024,39024
283.351,6.49242e-07,0,39080,39080
283.4,7.01401e-07,0,39096,39096
283.45,7.52301e-07,0,39192,39192
283.501,7.98982e-07,0,39256,39256
283.55,8.36364e-07,0,39312,39312
283.601,8.64404e-07,0,39384,39384
283.651,8.81804e-07,0,39424,39424
283.701,8.86287e-07,0,39560,39560
283.75,8.84337e-07,0,39584,39584
283.8,8.79159e-07,0,39664,39664
283.85,8.68269e-07,0,39696,39696
283.9,8.54665e-07,0,39832,39832
283.95,8.39799e-07,0,39824,39824
284.001,8.23952e-07,0,39824,39824
284.05,7.96187e-07,0,39904,39904
284.1,7.67251e-07,0,40056,40056
284.15,7.28914e-07,0,40120,40120
284.2,6.7883e-07,0,40208,40208
284.251,6.22084e-07,0,40288,40288
284.3,5.62582e-07,0,40360,40360
284.35,5.00784e-07,0,40360,40360
284.4,4.39732e-07,0,40472,40472
284.451,3.80229e-07,0,40592,40592
284.5,3.25371e-07,0,40688,40688
284.551,2.7399e-07,0,40656,40656
284.601,2.27368e-07,0,40712,40712
284.651,1.85286e-07,0,40816,40816
284.7,1.46849e-07,0,40888,40888
284.751,1.10542e-07,0,40976,40976
284.801,7.66818e-08,0,40992,40992
284.851,4.59731e-08,0,40992,40992
284.901,1.91995e-08,0,40904,40904
284.95,-3.15249e-09,0,40896,40896
285,-2.13202e-08,0,40848,40848
285.051,-3.57119e-08,0,40856,40856
285.1,-4.75921e-08,0,40816,40816
285.15,-5.81153e-08,0,40840,40840
285.201,-6.81755e-08,0,40944,40944
285.25,-7.75184e-08,0,40976,40976
285.3,-8.59578e-08,0,41136,41136
285.351,-9.1607e-08,0,41072,41072
285.4,-9.27986e-08,0,41168,41168
285.45,-9.30319e-08,0,41288,41288
285.5,-9.288e-08,0,41456,41456
285.55,-9.23747e-08,0,41520,41520
285.6,-9.15158e-08,0,41632,41632
285.65,-9.02805e-08,0,41768,41768
285.701,-8.86588e-08,0,41824,41824
285.75,-8.66721e-08,0,41912,41912
285.801,-8.42156e-08,0,41984,41984
285.85,-8.14055e-08,0,42152,42152
285.9,-7.82441e-08,0,42192,42192
285.95,-7.47188e-08,0,42352,42352
286,-7.09228e-08,0,42448,42448
286.05,-6.6927e-08,0,42600,42600
286.101,-6.27935e-08,0,42608,42608
286.15,-5.88073e-08,0,42728,42728
286.2,-5.49911e-08,0,42824,42824
286.25,-5.14768e-08,0,42968,42968
286.3,-4.82756e-08,0,42984,42984
286.351,-4.5329e-08,0,43152,43152
286.401,-4.27109e-08,0,43192,43192
286.45,-4.03712e-08,0,43240,43240
286.5,-3.83024e-08,0,43320,43320
286.551,-3.64712e-08,0,43520,43520
286.6,-3.49222e-08,0,43544,43544
286.65,-3.36153e-08,0,43592,43592
286.7,-3.25307e-08,0,43728,43728
286.751,-3.16301e-08,0,43744,43744
286.8,-3.09111e-08,0,43872,43872
286.85,-3.03341e-08,0,43888,43888
286.901,-2.98733e-08,0,43976,43976
286.95,-2.95269e-08,0,44104,44104
287,-2.92763e-08,0,44216,44216
287.05,-2.91116e-08,0,44204,44204
287.101,-2.90224e-08,0,44196,44196
287.15,-2.90006e-08,0,44148,44148
287.2,-2.90347e-08,0,44060,44060
287.251,-2.91168e-08,0,43980,43980
287.301,-2.92359e-08,0,43956,43956
287.35,-2.93849e-08,0,43772,43772
287.4,-2.95558e-08,0,43804,43804
287.451,-2.97449e-08,0,43756,43756
287.5,-2.99404e-08,0,43564,43564
287.55,-3.01395e-08,0,43636,43636
287.6,-3.03374e-08,0,43308,43308
287.651,-3.05335e-08,0,43020,43020
287.7,-3.07191e-08,0,43052,43052
287.75,-3.08943e-08,0,43020,43020
287.801,-3.10595e-08,0,42612,42612
287.85,-3.1208e-08,0,42300,42300
287.9,-3.13405e-08,0,42564,42564
287.95,-3.14554e-08,0,41988,41988
288.001,-3.15529e-08,0,41316,41316
288.05,-3.16297e-08,0,40588,40588
288.1,-3.16873e-08,0,39740,39740
288.151,-3.17265e-08,0,38940,38940
288.201,-3.17466e-08,0,38092,38092
288.25,-3.1749e-08,0,37212,37212
288.3,-3.17347e-08,0,36420,36420
288.351,-3.17043e-08,0,35572,35572
288.4,-3.16601e-08,0,34700,34700
288.45,-3.1603e-08,0,33964,33964
288.5,-3.15343e-08,0,33092,33092
288.551,-3.1454e-08,0,32276,32276
288.6,-3.13659e-08,0,31396,31396
288.65,-3.127e-08,0,30636,30636
288.701,-3.1166e-08,0,30616,30616
288.75,-3.10579e-08,0,30624,30624
288.8,-3.09453e-08,0,30620,30620
288.85,-3.08291e-08,0,30452,30452
288.901,-3.07084e-08,0,30236,30236
288.95,-3.05874e-08,0,29924,29924
289,-3.04647e-08,0,29700,29700
289.05,-3.03405e-08,0,29364,29364
289.101,-3.02133e-08,0,28540,28540
289.15,-3.00866e-08,0,27700,27700
289.2,-2.99586e-08,0,26828,26828
289.251,-2.98271e-08,0,25956,25956
289.3,-2.96956e-08,0,25084,25084
289.35,-2.95619e-08,0,24276,24276
289.4,-2.9425e-08,0,23412,23412
289.451,-2.92818e-08,0,22604,22604
289.5,-2.91343e-08,0,21724,21724
289.55,-2.89779e-08,0,20900,20900
289.601,-2.88062e-08,0,19972,19972
289.651,-2.86197e-08,0,19076,19076
289.7,-2.84117e-08,0,18284,18284
289.75,-2.81784e-08,0,17516,17516
289.801,-2.79133e-08,0,16604,16604
289.85,-2.76223e-08,0,15676,15676
289.9,-2.73011e-08,0,14924,14924
289.95,-2.69493e-08,0,14036,14036
290.001,-2.65616e-08,0,13188,13188
290.05,-2.61506e-08,0,12324,12324
290.1,-2.57139e-08,0,11444,11444
290.151,-2.52488e-08,0,10652,10652
290.2,-2.47748e-08,0,9812,9812
290.25,-2.42921e-08,0,8972,8972
290.301,-2.38004e-08,0,8292,8292
290.351,-2.33224e-08,0,8192,8192
290.401,-2.28592e-08,0,8192,8192
290.45,-2.24162e-08,0,8192,8192
290.5,-2.19991e-08,0,8192,8192
290.553,-2.15909e-08,0,8192,8192
290.603,-2.12409e-08,0,8192,8192
290.653,-2.09288e-08,0,8192,8192
290.702,-2.06577e-08,0,8192,8192
290.752,-2.04306e-08,0,8192,8192
290.802,-2.025e-08,0,8192,8192
290.852,-2.01179e-08,0,8192,8192
290.902,-2.00353e-08,0,8192,8192
290.951,-2.00019e-08,0,8192,8192
291.001,-2.00162e-08,0,8192,8192
291.051,-2.00751e-08,0,8192,8192
291.101,-2.01748e-08,0,8192,8192
291.15,-2.03103e-08,0,8192,8192
291.2,-2.04762e-08,0,8192,8192
291.25,-2.06667e-08,0,8192,8192
291.303,-2.08886e-08,0,8192,8192
291.353,-2.11111e-08,0,8192,8192
291.402,-2.13406e-08,0,8192,8192
291.452,-2.15719e-08,0,8192,8192
291.502,-2.18001e-08,0,8192,8192
291.552,-2.20205e-08,0,8192,8192
291.602,-2.22281e-08,0,8192,8192
291.651,-2.24184e-08,0,8192,8192
291.701,-2.25882e-08,0,8192,8192
291.751,-2.27353e-08,0,8192,8192
291.801,-2.28589e-08,0,8192,8192
291.851,-2.29586e-08,0,8192,8192
291.9,-2.30341e-08,0,8192,8192
291.95,-2.30859e-08,0,8192,8192
292.003,-2.31157e-08,0,8192,8192
292.053,-2.31211e-08,0,8192,8192
292.103,-2.31054e-08,0,8192,8192
292.152,-2.30699e-08,0,8192,8192
292.202,-2.30161e-08,0,8192,8192
292.252,-2.29457e-08,0,8192,8192
292.302,-2.28605e-08,0,8192,8192
292.351,-2.27624e-08,0,8192,8192
292.401,-2.26531e-08,0,8192,8192
292.451,-2.25339e-08,0,8192,8192
292.501,-2.24064e-08,0,8192,8192
292.551,-2.22717e-08,0,8192,8192
292.6,-2.21312e-08,0,8192,8192
292.65,-2.19864e-08,0,8192,8192
292.7,-2.18381e-08,0,8192,8192
292.753,-2.16785e-08,0,8192,8192
292.803,-2.15263e-08,0,8192,8192
292.852,-2.13737e-08,0,8192,8192
292.902,-2.12223e-08,0,8192,8192
292.952,-2.1073e-08,0,8192,8192
293.002,-2.09268e-08,0,8192,8192
293.052,-2.07839e-08,0,8192,8192
293.101,-2.06446e-08,0,8192,8192
293.151,-2.05091e-08,0,8192,8192
293.201,-2.03783e-08,0,8192,8192
293.251,-2.02532e-08,0,8192,8192
293.301,-2.01347e-08,0,8192,8192
293.35,-2.00239e-08,0,8192,8192
293.4,-1.99214e-08,0,8192,8192
293.453,-1.9822e-08,0,8192,8192
293.503,-1.9736e-08,0,8192,8192
293.552,-1.96566e-08,0,8192,8192
293.602,-1.95821e-08,0,8192,8192
293.652,-1.95111e-08,0,8192,8192
293.702,-1.9442e-08,0,8192,8192
293.752,-1.93738e-08,0,8192,8192
293.801,-1.9306e-08,0,8192,8192
293.851,-1.92381e-08,0,8192,8192
293.901,-1.917e-08,0,8192,8192
293.951,-1.91022e-08,0,8192,8192
294.001,-1.90351e-08,0,8192,8192
294.05,-1.8969e-08,0,8192,8192
294.1,-1.89038e-08,0,8192,8192
294.15,-1.88387e-08,0,8192,8192
294.203,-1.87684e-08,0,8192,8192
294.253,-1.86994e-08,0,8192,8192
294.302,-1.86271e-08,0,8192,8192
294.352,-1.85512e-08,0,8192,8192
294.402,-1.84721e-08,0,8192,8192
294.452,-1.83904e-08,0,8192,8192
294.502,-1.83067e-08,0,8192,8192
294.551,-1.82217e-08,0,8192,8192
294.601,-1.81358e-08,0,8192,8192
294.651,-1.80491e-08,0,8192,8192
294.701,-1.79612e-08,0,8192,8192
294.751,-1.78721e-08,0,8192,8192
294.8,-1.77813e-08,0,8192,8192
294.85,-1.7689e-08,0,8192,8192
294.903,-1.75897e-08,0,8192,8192
294.953,-1.74947e-08,0,8192,8192
295.002,-1.73986e-08,0,8192,8192
295.052,-1.73014e-08,0,8192,8192
295.102,-1.72026e-08,0,8192,8192
295.152,-1.71015e-08,0,8192,8192
295.202,-1.69972e-08,0,8192,8192
295.251,-1.68892e-08,0,8192,8192
295.301,-1.6777e-08,0,8192,8192
295.351,-1.66607e-08,0,8192,8192
295.401,-1.65403e-08,0,8192,8192
295.451,-1.64157e-08,0,8192,8192
295.5,-1.62869e-08,0,8192,8192
295.55,-1.61536e-08,0,8192,8192
295.6,-1.60154e-08,0,8192,8192
295.653,-1.58638e-08,0,8192,8192
295.703,-1.57154e-08,0,8192,8192
295.752,-1.5562e-08,0,8192,8192
295.802,-1.54034e-08,0,8192,8192
295.852,-1.52397e-08,0,8192,8192
295.902,-1.50709e-08,0,8192,8192
295.952,-1.4897e-08,0,8192,8192
296.001,-1.4718e-08,0,8192,8192
296.051,-1.45337e-08,0,8192,8192
296.101,-1.43441e-08,0,8192,8192
296.151,-1.41491e-08,0,8192,8192
296.201,-1.39486e-08,0,8192,8192
296.25,-1.37423e-08,0,8192,8192
296.3,-1.35302e-08,0,8192,8192
296.353,-1.32989e-08,0,8192,8192
296.403,-1.30741e-08,0,8192,8192
296.452,-1.28429e-08,0,8192,8192
296.502,-1.26048e-08,0,8192,8192
296.552,-1.23595e-08,0,8192,8192
296.602,-1.21064e-08,0,8192,8192
296.652,-1.18448e-08,0,8192,8192
296.701,-1.15736e-08,0,8192,8192
296.751,-1.12915e-08,0,8192,8192
296.801,-1.09969e-08,0,8192,8192
296.851,-1.0688e-08,0,8192,8192
296.901,-1.03627e-08,0,8192,8192
296.95,-1.00188e-08,0,8192,8192
297,-9.65407e-09,0,8192,8192
297.05,-9.26631e-09,0,8192,8192
297.103,-8.82857e-09,0,8192,8192
297.153,-8.38791e-09,0,8192,8192
297.202,-7.91977e-09,0,8192,8192
297.252,-7.42374e-09,0,8192,8192
297.302,-6.90008e-09,0,8192,8192
297.352,-6.34977e-09,0,8192,8192
297.402,-5.77449e-09,0,8192,8192
297.451,-5.17665e-09,0,8192,8192
297.501,-4.55932e-09,0,8192,8192
297.551,-3.92613e-09,0,8192,8192
297.601,-3.28116e-09,0,8192,8192
297.651,-2.62881e-09,0,8192,8192
297.7,-1.97362e-09,0,8192,8192
297.75,-1.32018e-09,0,8192,8192
297.803,-6.3524e-10,0,8192,8192
297.853,4.74037e-13,0,8192,8192
297.902,6.21006e-10,0,8192,8192
297.952,1.22227e-09,0,8192,8192
298.002,1.80034e-09,0,8192,8192
298.052,2.35146e-09,0,8192,8192
298.102,2.87209e-09,0,8192,8192
298.151,3.35897e-09,0,8192,8192
298.201,3.80923e-09,0,8192,8192
298.251,4.22049e-09,0,8192,8192
298.301,4.59094e-09,0,8192,8192
298.351,4.91949e-09,0,8192,8192
298.4,5.20571e-09,0,8192,8192
298.45,5.44992e-09,0,8192,8192
298.503,5.66379e-09,0,8192,8192
298.553,5.8252e-09,0,8192,8192
298.603,5.94927e-09,0,8192,8192
298.652,6.03841e-09,0,8192,8192
298.702,6.09528e-09,0,8192,8192
298.752,6.1227e-09,0,8192,8192
298.802,6.12358e-09,0,8192,8192
298.852,6.10082e-09,0,8192,8192
298.901,6.0573e-09,0,8192,8192
298.951,5.99581e-09,0,8192,8192
299.001,5.91899e-09,0,8192,8192
299.051,5.82936e-09,0,8192,8192
299.1,5.72926e-09,0,8192,8192
299.15,5.62083e-09,0,8192,8192
299.2,5.50608e-09,0,8192,8192
299.253,5.37972e-09,0,8192,8192
299.303,5.25755e-09,0,8192,8192
299.352,5.13419e-09,0,8192,8192
299.402,5.01103e-09,0,8192,8192
299.452,4.88931e-09,0,8192,8192
299.502,4.77011e-09,0,8192,8192
299.552,4.65437e-09,0,8192,8192
299.601,4.54287e-09,0,8192,8192
299.651,4.43624e-09,0,8192,8192
299.701,4.335e-09,0,8192,8192
299.751,4.23951e-09,0,8192,8192
299.801,4.15006e-09,0,8192,8192
299.85,4.0668e-09,0,8192,8192
299.9,3.9898e-09,0,8192,8192
299.953,3.91508e-09,0,8192,8192
300.003,3.85081e-09,0,8192,8192
300.053,3.79246e-09,0,8192,8192
300.102,3.73975e-09,0,8192,8192
300.152,3.69231e-09,0,8192,8192
300.202,3.64973e-09,0,8192,8192
300.252,3.61154e-09,0,8192,8192
300.301,3.57721e-09,0,8192,8192
300.351,3.54621e-09,0,8192,8192
300.401,3.51794e-09,0,8192,8192
300.451,3.49179e-09,0,8192,8192
300.501,3.46712e-09,0,8192,8192
300.55,3.44328e-09,0,8192,8192
300.6,3.41967e-09,0,8192,8192
300.65,3.39575e-09,0,8192,8192
300.703,3.36961e-09,0,8192,8192
300.753,3.34388e-09,0,8192,8192
300.802,3.31706e-09,0,8192,8192
300.852,3.28926e-09,0,8192,8192
300.902,3.26072e-09,0,8192,8192
300.952,3.2318e-09,0,8192,8192
301.002,3.2029e-09,0,8192,8192
301.051,3.17438e-09,0,8192,8192
301.101,3.14656e-09,0,8192,8192
301.151,3.11962e-09,0,8192,8192
301.201,3.09368e-09,0,8192,8192
301.251,3.06874e-09,0,8192,8192
301.3,3.04477e-09,0,8192,8192
301.35,3.02175e-09,0,8192,8192
301.403,2.9984e-09,0,8192,8192
301.453,2.97736e-09,0,8192,8192
301.502,2.95743e-09,0,8192,8192
301.552,2.9387e-09,0,8192,8192
301.602,2.92129e-09,0,8192,8192
301.652,2.90524e-09,0,8192,8192
301.702,2.89051e-09,0,8192,8192
301.751,2.877e-09,0,8192,8192
301.801,2.86451e-09,0,8192,8192
301.851,2.85279e-09,0,8192,8192
301.901,2.84158e-09,0,8192,8192
301.951,2.83063e-09,0,8192,8192
302,2.81971e-09,0,8192,8192
302.05,2.80864e-09,0,8192,8192
302.1,2.79725e-09,0,8192,8192
302.153,2.78471e-09,0,8192,8192
302.203,2.7723e-09,0,8192,8192
302.252,2.75926e-09,0,8192,8192
302.302,2.74558e-09,0,8192,8192
302.352,2.73124e-09,0,8192,8192
302.402,2.71629e-09,0,8192,8192
302.452,2.70082e-09,0,8192,8192
302.501,2.68492e-09,0,8192,8192
302.551,2.66869e-09,0,8192,8192
302.601,2.65224e-09,0,8192,8192
302.651,2.63562e-09,0,8192,8192
302.701,2.61888e-09,0,8192,8192
302.75,2.60203e-09,0,8192,8192
302.8,2.58506e-09,0,8192,8192
302.853,2.56693e-09,0,8192,8192
302.903,2.54962e-09,0,8192,8192
302.952,2.53209e-09,0,8192,8192
303.002,2.5143e-09,0,8192,8192
303.052,2.49621e-09,0,8192,8192
303.102,2.47778e-09,0,8192,8192
303.152,2.45896e-09,0,8192,8192
303.201,2.43972e-09,0,8192,8192
303.251,2.42003e-09,0,8192,8192
303.301,2.39987e-09,0,8192,8192
303.351,2.37923e-09,0,8192,8192
303.401,2.35813e-09,0,8192,8192
303.45,2.33659e-09,0,8192,8192
303.5,2.31468e-09,0,8192,8192
303.55,2.29245e-09,0,8192,8192
303.603,2.26867e-09,0,8192,8192
303.653,2.24605e-09,0,8192,8192
303.702,2.22337e-09,0,8192,8192
303.752,2.20071e-09,0,8192,8192
303.802,2.17815e-09,0,8192,8192
303.852,2.15575e-09,0,8192,8192
303.902,2.13359e-09,0,8192,8192
303.951,2.11169e-09,0,8192,8192
304.001,2.0901e-09,0,8192,8192
304.051,2.06884e-09,0,8192,8192
304.101,2.04791e-09,0,8192,8192
304.151,2.02733e-09,0,8192,8192
304.2,2.00708e-09,0,8192,8192
304.25,1.98715e-09,0,8192,8192
304.303,1.96637e-09,0,8192,8192
304.353,1.94701e-09,0,8192,8192
304.402,1.92788e-09,0,8192,8192
304.452,1.90893e-09,0,8192,8192
304.502,1.89013e-09,0,8192,8192
304.552,1.87143e-09,0,8192,8192
304.602,1.85278e-09,0,8192,8192
304.651,1.83413e-09,0,8192,8192
304.701,1.81544e-09,0,8192,8192
304.751,1.79665e-09,0,8192,8192
304.801,1.77771e-09,0,8192,8192
304.851,1.75859e-09,0,8192,8192
304.9,1.73923e-09,0,8192,8192
304.95,1.71959e-09,0,8192,8192
