250,0,0,512,512
250.012,0,0,512,512
250.059,0,0,512,512
250.105,0,0,512,512
250.152,0,0,512,512
250.211,0,0,512,512
250.258,0,0,512,512
250.305,0,0,512,512
250.352,0,0,512,512
250.41,0,0,512,512
250.457,0,0,512,512
250.504,0,0,512,512
250.551,0,0,512,512
250.609,0,0,512,512
250.656,0,0,512,512
250.703,0,0,512,512
250.762,0,0,512,512
250.808,0,0,512,512
250.855,0,0,512,512
250.902,0,0,512,512
250.961,0,0,512,512
251.008,0,0,512,512
251.055,0,0,512,512
251.101,0,0,512,512
251.16,0,0,512,512
251.207,0,0,512,512
251.254,0,0,512,512
251.301,0,0,512,512
251.359,0,0,512,512
251.406,0,0,512,512
251.453,0,0,512,512
251.511,0,0,512,512
251.558,0,0,512,512
251.605,0,0,512,512
251.652,0,0,512,512
251.711,0,0,512,512
251.758,0,0,512,512
251.804,0,0,512,512
251.851,0,0,512,512
251.91,0,0,512,512
251.957,0,0,512,512
252.004,0,0,512,512
252.05,0,0,512,512
252.109,0,0,512,512
252.156,0,0,512,512
252.203,0,0,512,512
252.261,0,0,512,512
252.308,0,0,512,512
252.355,0,0,512,512
252.402,0,0,512,512
252.461,0,0,512,512
252.507,0,0,512,512
252.554,0,0,512,512
252.601,0,0,512,512
252.66,0,0,512,512
252.707,0,0,512,512
252.754,0,0,512,512
252.8,0,0,512,512
252.859,0,0,512,512
252.906,0,0,512,512
252.953,0,0,512,512
253.011,0,0,512,512
253.058,0,0,512,512
253.105,0,0,512,512
253.152,0,0,512,512
253.21,0,0,512,512
253.257,-1.38778e-17,0,512,512
253.304,-1.38778e-17,0,512,512
253.351,-1.38778e-17,0,512,512
253.41,-1.38778e-17,0,512,512
253.457,-1.38778e-17,0,512,512
253.503,-1.38778e-17,0,512,512
253.55,-1.38778e-17,0,512,512
253.609,-1.38778e-17,0,512,512
253.656,-1.38778e-17,0,512,512
253.703,-1.38778e-17,0,512,512
253.761,-1.38778e-17,0,512,512
253.808,-1.38778e-17,0,512,512
253.855,-1.38778e-17,0,512,512
253.902,-1.38778e-17,0,512,512
253.96,-1.38778e-17,0,512,512
254.007,-1.38778e-17,0,512,512
254.054,-1.38778e-17,0,512,512
254.101,-1.38778e-17,0,512,512
254.16,-1.38778e-17,0,512,512
254.206,-1.38778e-17,0,512,512
254.253,0,0,512,512
254.3,1.38778e-17,0,512,512
254.359,1.38778e-17,0,512,512
254.406,1.38778e-17,0,512,512
254.452,2.77556e-17,0,512,512
254.511,2.77556e-17,0,512,512
254.558,1.38778e-17,0,512,512
254.605,0,0,512,512
254.652,0,0,512,512
254.71,0,0,512,512
254.757,0,0,512,512
254.804,0,0,512,512
254.851,0,0,512,512
254.909,0,0,512,512
254.956,0,0,512,512
255.003,0,0,512,512
255.05,-1.38778e-17,0,512,512
255.109,-1.38778e-17,0,512,512
255.155,-1.38778e-17,0,512,512
255.202,-2.77556e-17,0,512,512
255.261,-2.77556e-17,0,512,512
255.308,-2.77556e-17,0,512,512
255.355,-2.77556e-17,0,512,512
255.402,-2.77556e-17,0,512,512
255.46,-1.38778e-17,0,512,512
255.507,-1.38778e-17,0,512,512
255.554,-1.38778e-17,0,512,512
255.601,-1.38778e-17,0,512,512
255.659,-1.38778e-17,0,512,512
255.706,-1.38778e-17,0,512,512
255.753,-1.38778e-17,0,512,512
255.812,-1.38778e-17,0,512,512
255.859,-1.38778e-17,0,512,512
255.905,-1.38778e-17,0,512,512
255.952,-1.38778e-17,0,512,512
256.011,0,0,512,512
256.058,1.38778e-17,0,512,512
256.105,1.38778e-17,0,512,512
256.151,1.38778e-17,0,512,512
256.21,1.38778e-17,0,512,512
256.257,1.38778e-17,0,512,512
256.304,1.38778e-17,0,512,512
256.351,1.38778e-17,0,512,512
256.409,1.38778e-17,0,512,512
256.456,1.38778e-17,0,512,512
256.503,1.38778e-17,0,512,512
256.562,1.38778e-17,0,512,512
256.608,1.38778e-17,0,512,512
256.655,1.38778e-17,0,512,512
256.702,1.38778e-17,0,512,512
256.761,0,0,512,512
256.808,0,0,512,512
256.854,0,0,512,512
256.901,0,0,512,512
256.96,0,0,512,512
257.007,0,0,512,512
257.054,0,0,512,512
257.101,0,0,512,512
257.159,0,0,512,512
257.206,0,0,512,512
257.253,0,0,512,512
257.311,0,0,512,512
257.358,1.38778e-17,0,512,512
257.405,0,0,512,512
257.452,0,0,512,512
257.511,1.38778e-17,0,512,512
257.557,0,0,512,512
257.604,0,0,512,512
257.651,0,0,512,512
257.71,1.38778e-17,0,512,512
257.757,0,0,512,512
257.804,0,0,512,512
257.85,1.38778e-17,0,512,512
257.909,0,0,512,512
257.956,0,0,512,512
258.003,0,0,512,512
258.061,0,0,512,512
258.108,0,0,512,512
258.155,0,0,512,512
258.202,0,0,512,512
258.261,0,0,512,512
258.307,0,0,512,512
258.354,0,0,512,512
258.401,0,0,512,512
258.46,0,0,512,512
258.507,-1.38778e-17,0,512,512
258.553,-1.38778e-17,0,512,512
258.6,-1.38778e-17,0,512,512
258.659,-1.38778e-17,0,512,512
258.706,-1.38778e-17,0,512,512
258.753,-1.38778e-17,0,512,512
258.811,-1.38778e-17,0,512,512
258.858,-1.38778e-17,0,512,512
258.905,-1.38778e-17,0,512,512
258.952,-1.38778e-17,0,512,512
259.01,-1.38778e-17,0,512,512
259.057,-1.38778e-17,0,512,512
259.104,-1.38778e-17,0,512,512
259.151,-1.38778e-17,0,512,512
259.21,1.38778e-17,0,512,512
259.256,1.38778e-17,0,512,512
259.303,1.38778e-17,0,512,512
259.35,2.77556e-17,0,512,512
259.409,2.77556e-17,0,512,512
259.456,2.77556e-17,0,512,512
259.503,2.77556e-17,0,512,512
259.561,2.77556e-17,0,512,512
259.608,2.77556e-17,0,512,512
259.655,2.77556e-17,0,512,512
259.702,2.77556e-17,0,512,512
259.76,2.77556e-17,0,512,512
259.807,2.77556e-17,0,512,512
259.854,2.77556e-17,0,512,512
259.901,2.77556e-17,0,512,512
259.959,2.77556e-17,0,512,512
260.006,2.77556e-17,0,512,512
260.053,2.77556e-17,0,512,512
260.1,2.77556e-17,0,512,512
260.159,2.77556e-17,0,512,512
260.206,2.77556e-17,0,512,512
260.252,2.77556e-17,0,512,512
260.311,1.38778e-17,0,512,512
260.358,1.38778e-17,0,512,512
260.405,0,0,512,512
260.452,0,0,512,512
260.51,0,0,512,512
260.557,0,0,512,512
260.604,0,0,512,512
260.651,-1.38778e-17,0,512,512
260.709,-1.38778e-17,0,512,512
260.756,-1.38778e-17,0,512,512
260.803,-1.38778e-17,0,512,512
260.862,0,0,512,512
260.909,0,0,512,512
260.955,0,0,512,512
261.002,1.38778e-17,0,512,512
261.061,0,0,512,512
261.108,0,0,512,512
261.155,1.38778e-17,0,512,512
261.201,1.38778e-17,0,512,512
261.26,1.38778e-17,0,512,512
261.307,1.38778e-17,0,512,512
261.354,1.38778e-17,0,512,512
261.401,1.38778e-17,0,512,512
261.459,2.77556e-17,0,512,512
261.506,2.77556e-17,0,512,512
261.553,1.38778e-17,0,512,512
261.612,1.38778e-17,0,512,512
261.658,1.38778e-17,0,512,512
261.705,1.38778e-17,0,512,512
261.752,1.38778e-17,0,512,512
261.811,1.38778e-17,0,512,512
261.858,0,0,512,512
261.905,0,0,512,512
261.951,0,0,512,512
262.01,0,0,512,512
262.057,0,0,512,512
262.104,0,0,512,512
262.151,-1.38778e-17,0,512,512
262.209,0,0,512,512
262.256,-1.38778e-17,0,512,512
262.303,-1.38778e-17,0,512,512
262.361,-1.38778e-17,0,512,512
262.408,-1.38778e-17,0,512,512
262.455,-1.38778e-17,0,512,512
262.502,-1.38778e-17,0,512,512
262.561,-1.38778e-17,0,512,512
262.608,-1.38778e-17,0,512,512
262.654,-1.38778e-17,0,512,512
262.701,-1.38778e-17,0,512,512
262.76,-1.38778e-17,0,512,512
262.807,-1.38778e-17,0,512,512
262.854,-1.38778e-17,0,512,512
262.9,-1.38778e-17,0,512,512
262.959,-1.38778e-17,0,512,512
263.006,-1.38778e-17,0,512,512
263.053,-1.38778e-17,0,512,512
263.111,-1.38778e-17,0,512,512
263.158,-1.38778e-17,0,512,512
263.205,-1.38778e-17,0,512,512
263.252,-1.38778e-17,0,512,512
263.311,-1.38778e-17,0,512,512
263.357,-1.38778e-17,0,512,512
263.404,-2.77556e-17,0,512,512
263.451,-1.38778e-17,0,512,512
263.51,-2.77556e-17,0,512,512
263.557,-1.38778e-17,0,512,512
263.603,-2.77556e-17,0,512,512
263.65,-2.77556e-17,0,512,512
263.709,-2.77556e-17,0,512,512
263.756,-2.77556e-17,0,512,512
263.803,-2.77556e-17,0,512,512
263.861,-1.38778e-17,0,512,512
263.908,-2.77556e-17,0,512,512
263.955,-2.77556e-17,0,512,512
264.002,-1.38778e-17,0,512,512
264.06,-1.38778e-17,0,512,512
264.107,-1.38778e-17,0,512,512
264.154,-2.77556e-17,0,512,512
264.201,-1.38778e-17,0,512,512
264.26,-1.38778e-17,0,512,512
264.306,-1.38778e-17,0,512,512
264.353,-2.77556e-17,0,512,512
264.4,-1.38778e-17,0,512,512
264.459,-1.38778e-17,0,512,512
264.506,-1.38778e-17,0,512,512
264.553,-2.77556e-17,0,512,512
264.611,-1.38778e-17,0,512,512
264.658,0,0,512,512
264.705,0,0,512,512
264.752,0,0,512,512
264.81,0,0,512,512
264.857,0,0,512,512
264.904,0,0,512,512
264.951,0,0,512,512
265.01,0,0,512,512
265.056,0,0,512,512
265.103,-1.38778e-17,0,512,512
265.15,-1.38778e-17,0,512,512
265.209,-1.38778e-17,0,512,512
265.256,-1.38778e-17,0,512,512
265.302,-1.38778e-17,0,512,512
265.361,-1.38778e-17,0,512,512
265.408,-1.38778e-17,0,512,512
265.455,-1.38778e-17,0,512,512
265.502,-1.38778e-17,0,512,512
265.56,-1.38778e-17,0,512,512
265.607,-1.38778e-17,0,512,512
265.654,-1.38778e-17,0,512,512
265.701,-1.38778e-17,0,512,512
265.759,-1.38778e-17,0,512,512
265.806,-1.38778e-17,0,512,512
265.853,-1.38778e-17,0,512,512
265.9,-1.38778e-17,0,512,512
265.959,-1.38778e-17,0,512,512
266.005,-1.38778e-17,0,512,512
266.052,-1.38778e-17,0,512,512
266.111,-1.38778e-17,0,512,512
266.158,-1.38778e-17,0,512,512
266.205,-1.38778e-17,0,512,512
266.252,0,0,512,512
266.31,1.38778e-17,0,512,512
266.357,2.77556e-17,0,512,512
266.404,4.16334e-17,0,512,512
266.451,2.77556e-17,0,512,512
266.509,1.38778e-17,0,512,512
266.556,2.77556e-17,0,512,512
266.603,2.77556e-17,0,512,512
266.662,2.77556e-17,0,512,512
266.708,1.38778e-17,0,512,512
266.755,2.77556e-17,0,512,512
266.802,1.38778e-17,0,512,512
266.861,1.38778e-17,0,512,512
266.908,1.38778e-17,0,512,512
266.955,2.77556e-17,0,512,512
267.001,2.77556e-17,0,512,512
267.06,1.38778e-17,0,512,512
267.107,1.38778e-17,0,512,512
267.154,1.38778e-17,0,512,512
267.201,1.38778e-17,0,512,512
267.259,1.38778e-17,0,512,512
267.306,1.38778e-17,0,512,512
267.353,1.38778e-17,0,512,512
267.412,1.38778e-17,0,512,512
267.458,1.38778e-17,0,512,512
267.505,1.38778e-17,0,512,512
267.552,1.38778e-17,0,512,512
267.611,1.38778e-17,0,512,512
267.658,1.38778e-17,0,512,512
267.704,1.38778e-17,0,512,512
267.751,1.38778e-17,0,512,512
267.81,1.38778e-17,0,512,512
267.857,1.38778e-17,0,512,512
267.904,1.38778e-17,0,512,512
267.95,1.38778e-17,0,512,512
268.009,1.38778e-17,0,512,512
268.056,1.38778e-17,0,512,512
268.103,1.38778e-17,0,512,512
268.161,1.38778e-17,0,512,512
268.208,1.38778e-17,0,512,512
268.255,1.38778e-17,0,512,512
268.302,1.38778e-17,0,512,512
268.361,0,0,512,512
268.407,0,0,512,512
268.454,0,0,512,512
268.501,0,0,512,512
268.56,0,0,512,512
268.607,0,0,512,512
268.654,0,0,512,512
268.7,0,0,512,512
268.759,-1.38778e-17,0,512,512
268.806,0,0,512,512
268.853,0,0,512,512
268.911,0,0,512,512
268.958,0,0,512,512
269.005,0,0,512,512
269.052,0,0,512,512
269.11,0,0,512,512
269.157,0,0,512,512
269.204,0,0,512,512
269.251,1.38778e-17,0,512,512
269.31,1.38778e-17,0,512,512
269.357,0,0,512,512
269.403,0,0,512,512
269.45,1.38778e-17,0,512,512
269.509,1.38778e-17,0,512,512
269.556,1.38778e-17,0,512,512
269.603,1.38778e-17,0,512,512
269.661,1.38778e-17,0,512,512
269.708,1.38778e-17,0,512,512
269.755,2.77556e-17,0,512,512
269.802,2.77556e-17,0,512,512
269.86,1.38778e-17,0,512,512
269.907,1.38778e-17,0,512,512
269.954,1.38778e-17,0,512,512
270.001,1.38778e-17,0,512,512
270.06,1.38778e-17,0,512,512
270.106,1.38778e-17,0,512,512
270.153,1.38778e-17,0,512,512
270.2,1.38778e-17,0,512,512
270.259,1.38778e-17,0,512,512
270.306,1.38778e-17,0,512,512
270.352,1.38778e-17,0,512,512
270.411,1.38778e-17,0,512,512
270.458,1.38778e-17,0,512,512
270.505,1.38778e-17,0,512,512
270.552,1.38778e-17,0,512,512
270.61,1.38778e-17,0,512,512
270.657,1.38778e-17,0,512,512
270.704,1.38778e-17,0,512,512
270.751,1.38778e-17,0,512,512
270.809,1.38778e-17,0,512,512
270.856,1.38778e-17,0,512,512
270.903,1.38778e-17,0,512,512
270.95,1.38778e-17,0,512,512
271.009,2.77556e-17,0,512,512
271.056,2.77556e-17,0,512,512
271.102,1.38778e-17,0,512,512
271.161,1.38778e-17,0,512,512
271.208,1.38778e-17,0,512,512
271.255,1.38778e-17,0,512,512
271.302,1.38778e-17,0,512,512
271.36,1.38778e-17,0,512,512
271.407,1.38778e-17,0,512,512
271.454,1.38778e-17,0,512,512
271.501,1.38778e-17,0,512,512
271.559,1.38778e-17,0,512,512
271.606,2.77556e-17,0,512,512
271.653,2.77556e-17,0,512,512
271.712,1.38778e-17,0,512,512
271.759,2.77556e-17,0,512,512
271.805,2.77556e-17,0,512,512
271.852,2.77556e-17,0,512,512
271.911,2.77556e-17,0,512,512
271.958,2.77556e-17,0,512,512
272.005,1.38778e-17,0,512,512
272.051,1.38778e-17,0,512,512
272.11,1.38778e-17,0,512,512
272.157,1.38778e-17,0,512,512
272.204,1.38778e-17,0,512,512
272.251,1.38778e-17,0,512,512
272.309,1.38778e-17,0,512,512
272.356,1.38778e-17,0,512,512
272.403,2.77556e-17,0,512,512
272.462,2.77556e-17,0,512,512
272.508,2.77556e-17,0,512,512
272.555,1.38778e-17,0,512,512
272.602,1.38778e-17,0,512,512
272.661,1.38778e-17,0,512,512
272.708,1.38778e-17,0,512,512
272.754,1.38778e-17,0,512,512
272.801,1.38778e-17,0,512,512
272.86,1.38778e-17,0,512,512
272.907,1.38778e-17,0,512,512
272.954,1.38778e-17,0,512,512
273.001,1.38778e-17,0,512,512
273.059,1.38778e-17,0,512,512
273.106,1.38778e-17,0,512,512
273.153,1.38778e-17,0,512,512
273.211,1.38778e-17,0,512,512
273.258,0,0,512,512
273.305,0,0,512,512
273.352,0,0,512,512
273.411,0,0,512,512
273.457,0,0,512,512
273.504,0,0,512,512
273.551,0,0,512,512
273.61,0,0,512,512
273.657,0,0,512,512
273.704,0,0,512,512
273.75,0,0,512,512
273.809,0,0,512,512
273.856,0,0,512,512
273.903,0,0,512,512
273.961,1.38778e-17,0,512,512
274.008,1.38778e-17,0,512,512
274.055,1.38778e-17,0,512,512
274.102,1.38778e-17,0,512,512
274.161,1.38778e-17,0,512,512
274.207,1.38778e-17,0,512,512
274.254,1.38778e-17,0,512,512
274.301,1.38778e-17,0,512,512
274.36,-1.38778e-17,0,512,512
274.407,-9.71445e-17,0,512,512
274.453,-3.33067e-16,0,512,512
274.5,-9.57567e-16,0,512,512
274.559,-3.35842e-15,0,512,512
274.606,-8.49321e-15,0,512,512
274.653,-2.03171e-14,0,512,512
274.711,-5.60663e-14,0,512,512
274.758,-1.19321e-13,0,512,512
274.805,-2.41751e-13,0,512,512
274.852,-4.67085e-13,0,512,512
274.91,-9.97313e-13,0,512,512
274.957,-1.74009e-12,0,512,512
275.004,-2.90748e-12,0,512,512
275.051,-4.65759e-12,0,512,512
275.11,-7.92412e-12,0,512,512
275.156,-1.15905e-11,0,512,512
275.203,-1.6307e-11,0,512,512
275.25,-2.20865e-11,0,512,512
275.309,-3.06245e-11,0,512,512
275.356,-3.81718e-11,0,512,512
275.403,-4.58908e-11,0,512,512
275.461,-5.49244e-11,0,512,512
275.508,-6.08939e-11,0,512,512
275.555,-6.50769e-11,0,512,512
275.602,-6.69483e-11,0,512,512
275.66,-6.54907e-11,0,512,512
275.707,-6.11103e-11,0,512,512
275.754,-5.39634e-11,0,512,512
275.801,-4.43452e-11,0,512,512
275.859,-2.95477e-11,0,512,512
275.906,-1.61738e-11,0,512,512
275.953,-2.07867e-12,0,512,512
276,1.21718e-11,0,512,512
276.059,2.94624e-11,0,512,512
276.106,4.2416e-11,0,512,512
276.152,5.43086e-11,0,512,512
276.211,6.74735e-11,0,512,512
276.258,7.6597e-11,0,512,512
276.305,8.45097e-11,0,512,512
276.352,9.13049e-11,0,512,512
276.41,9.84307e-11,0,512,512
276.457,1.03244e-10,0,512,512
276.504,1.07514e-10,0,512,512
276.551,1.11577e-10,0,512,512
276.609,1.17224e-10,0,512,512
276.656,1.23416e-10,0,512,512
276.703,1.33005e-10,0,512,512
276.762,1.54498e-10,0,512,512
276.809,1.85455e-10,0,512,512
276.855,2.37086e-10,0,512,512
276.902,3.20758e-10,0,512,512
276.961,4.94393e-10,0,512,512
277.008,7.13679e-10,0,512,512
277.055,1.03215e-09,0,512,512
277.101,1.47999e-09,0,512,512
277.16,2.27316e-09,0,512,512
277.207,3.13835e-09,0,512,512
277.254,4.24875e-09,0,512,512
277.301,5.64152e-09,0,512,512
277.359,7.83618e-09,0,512,512
277.406,1.00016e-08,0,512,512
277.453,1.25766e-08,0,512,512
277.512,1.64475e-08,0,512,512
277.558,2.01422e-08,0,512,512
277.605,2.44555e-08,0,512,512
277.652,2.94902e-08,0,512,512
277.711,3.69954e-08,0,512,512
277.758,4.41612e-08,0,512,512
277.804,5.25613e-08,0,512,512
277.851,6.24069e-08,0,512,512
277.91,7.70975e-08,0,512,512
277.957,9.10503e-08,0,512,512
278.004,1.07219e-07,0,512,512
278.051,1.25831e-07,0,512,512
278.109,1.52831e-07,0,512,512
278.156,1.7761e-07,0,512,512
278.203,2.05319e-07,0,512,512
278.261,2.44106e-07,0,512,512
278.308,2.7838e-07,0,512,512
278.355,3.15369e-07,0,512,512
278.402,3.54822e-07,0,512,512
278.461,4.07068e-07,0,512,512
278.508,4.50671e-07,0,512,512
278.554,4.95315e-07,0,512,512
278.601,5.40412e-07,0,512,512
278.66,5.96465e-07,0,512,512
278.707,6.40265e-07,0,512,512
278.754,6.82445e-07,0,512,512
278.8,7.22396e-07,0,512,512
278.859,7.68356e-07,0,512,512
278.906,8.01343e-07,0,512,512
278.953,8.30525e-07,0,512,512
279.011,8.61157e-07,0,512,512
279.058,8.8069e-07,0,512,512
279.105,8.95627e-07,0,512,512
279.152,9.0588e-07,0,512,512
279.211,9.12088e-07,0,512,512
279.257,9.11839e-07,0,512,512
279.304,9.07097e-07,0,512,512
279.351,8.98069e-07,0,512,512
279.41,8.81189e-07,0,512,512
279.457,8.63647e-07,0,512,512
279.503,8.42988e-07,0,512,512
279.55,8.19712e-07,0,512,512
279.609,7.87789e-07,0,512,512
279.656,7.6072e-07,0,512,512
279.703,7.32971e-07,0,512,512
279.761,6.98295e-07,0,512,512
279.808,6.71324e-07,0,512,512
279.855,6.45684e-07,0,512,512
279.902,6.21928e-07,0,512,512
279.96,5.95638e-07,0,512,512
280.007,5.77849e-07,0,512,512
280.054,5.63321e-07,0,512,512
280.101,5.52317e-07,0,512,512
280.16,5.43779e-07,0,512,512
280.206,5.41218e-07,0,512,512
280.253,5.42434e-07,0,512,512
280.3,5.47316e-07,0,512,512
280.359,5.58268e-07,0,512,512
280.406,5.70562e-07,0,512,512
280.453,5.85601e-07,0,512,512
280.511,6.076e-07,0,512,512
280.558,6.27164e-07,0,512,512
280.605,6.47903e-07,0,512,512
280.652,6.6926e-07,0,512,512
280.71,6.95966e-07,0,512,512
280.757,7.16657e-07,0,512,512
280.804,7.36165e-07,0,512,512
280.851,7.53982e-07,0,512,512
280.91,7.73168e-07,0,512,512
280.956,7.85546e-07,0,512,512
281.003,7.94899e-07,0,512,512
281.05,8.00934e-07,0,512,512
281.109,8.03465e-07,0,512,512
281.156,8.01284e-07,0,512,512
281.202,7.95263e-07,0,512,512
281.261,7.82308e-07,0,512,512
281.308,7.67659e-07,0,512,512
281.355,7.49324e-07,0,512,512
281.402,7.27481e-07,0,512,512
281.46,6.95606e-07,0,512,512
281.507,6.66803e-07,0,512,512
281.554,6.35431e-07,0,512,512
281.601,6.01865e-07,0,512,512
281.659,5.57434e-07,0,512,512
281.706,5.20422e-07,0,512,512
281.753,4.82563e-07,0,512,512
281.8,4.44277e-07,0,512,512
281.859,3.96429e-07,0,512,512
281.905,3.58616e-07,0,512,512
281.952,3.2159e-07,0,512,512
282.011,2.7687e-07,0,512,512
282.058,2.42659e-07,0,512,512
282.105,2.1007e-07,0,512,512
282.152,1.79269e-07,0,512,512
282.21,1.43468e-07,0,512,512
282.257,1.17084e-07,0,512,512
282.304,9.27513e-08,0,512,512
282.351,7.04755e-08,0,512,512
282.409,4.54874e-08,0,512,512
282.456,2.77231e-08,0,512,512
282.503,1.18633e-08,0,512,512
282.562,-5.41231e-09,0,512,512
282.608,-1.73101e-08,0,512,512
282.655,-2.76098e-08,0,512,512
282.702,-3.64181e-08,0,512,512
282.761,-4.54947e-08,0,512,512
282.808,-5.13392e-08,0,512,512
282.855,-5.60374e-08,0,512,512
282.901,-5.96904e-08,0,512,512
282.96,-6.29353e-08,0,512,512
283.007,-6.45881e-08,0,512,512
283.054,-6.54992e-08,0,512,512
283.101,-6.5754e-08,0,512,512
283.159,-6.52738e-08,0,512,512
283.206,-6.4345e-08,0,512,512
283.253,-6.30119e-08,0,512,512
283.312,-6.08819e-08,0,512,512
283.358,-5.88859e-08,0,512,512
283.405,-5.66951e-08,0,512,512
283.452,-5.43644e-08,0,512,512
283.511,-5.13298e-08,0,512,512
283.558,-4.88588e-08,0,512,512
283.604,-4.63908e-08,0,512,512
283.651,-4.3959e-08,0,512,512
283.71,-4.10119e-08,0,512,512
283.757,-3.87558e-08,0,512,512
283.804,-3.6609e-08,0,512,512
283.85,-3.4585e-08,0,512,512
283.909,-3.22418e-08,0,512,512
283.956,-3.0524e-08,0,512,512
284.003,-2.89486e-08,0,512,512
284.061,-2.71802e-08,0,512,512
284.108,-2.59239e-08,0,512,512
284.155,-2.48045e-08,0,512,512
284.202,-2.38171e-08,0,512,512
284.261,-2.27595e-08,0,512,512
284.307,-2.20464e-08,0,512,512
284.354,-2.14436e-08,0,512,512
284.401,-2.09434e-08,0,512,512
284.46,-2.04507e-08,0,512,512
284.507,-2.01528e-08,0,512,512
284.554,-1.99322e-08,0,512,512
284.6,-1.97814e-08,0,512,512
284.659,-1.96799e-08,0,512,512
284.706,-1.96601e-08,0,512,512
284.753,-1.96878e-08,0,512,512
284.811,-1.97803e-08,0,512,512
284.858,-1.9894e-08,0,512,512
284.905,-2.00376e-08,0,512,512
284.952,-2.02068e-08,0,512,512
285.01,-2.04482e-08,0,512,512
285.057,-2.06612e-08,0,512,512
285.104,-2.08888e-08,0,512,512
285.151,-2.11285e-08,0,512,512
285.21,-2.14422e-08,0,512,512
285.257,-2.17026e-08,0,512,512
285.303,-2.19701e-08,0,512,512
285.35,-2.2244e-08,0,512,512
285.409,-2.25946e-08,0,512,512
285.456,-2.28815e-08,0,512,512
285.503,-2.31742e-08,0,512,512
285.561,-2.35485e-08,0,512,512
285.608,-2.38552e-08,0,512,512
285.655,-2.41689e-08,0,512,512
285.702,-2.44902e-08,0,512,512
285.76,-2.49033e-08,0,512,512
285.807,-2.52435e-08,0,512,512
285.854,-2.55929e-08,0,512,512
285.901,-2.59517e-08,0,512,512
285.96,-2.64138e-08,0,512,512
286.006,-2.67944e-08,0,512,512
286.053,-2.71845e-08,0,512,512
286.1,-2.75838e-08,0,512,512
286.159,-2.8095e-08,0,512,512
286.206,-2.85127e-08,0,512,512
286.252,-2.89374e-08,0,512,512
286.311,-2.94763e-08,0,512,512
286.358,-2.99125e-08,0,512,512
286.405,-3.03518e-08,0,512,512
286.452,-3.07927e-08,0,512,512
286.51,-3.1344e-08,0,512,512
286.557,-3.17834e-08,0,512,512
286.604,-3.22198e-08,0,512,512
286.651,-3.26517e-08,0,512,512
286.709,-3.31834e-08,0,512,512
286.756,-3.36005e-08,0,512,512
286.803,-3.40092e-08,0,512,512
286.85,-3.44085e-08,0,512,512
286.909,-3.48933e-08,0,512,512
286.955,-3.52689e-08,0,512,512
287.002,-3.56331e-08,0,512,512
287.061,-3.60723e-08,0,512,512
287.108,-3.64107e-08,0,512,512
287.155,-3.6738e-08,0,512,512
287.202,-3.70545e-08,0,512,512
287.26,-3.74359e-08,0,512,512
287.307,-3.77306e-08,0,512,512
287.354,-3.80171e-08,0,512,512
287.401,-3.82963e-08,0,512,512
287.459,-3.86368e-08,0,512,512
287.506,-3.89039e-08,0,512,512
287.553,-3.91674e-08,0,512,512
287.612,-3.94936e-08,0,512,512
287.659,-3.97535e-08,0,512,512
287.705,-4.00134e-08,0,512,512
287.752,-4.02745e-08,0,512,512
287.811,-4.06035e-08,0,512,512
287.858,-4.08697e-08,0,512,512
287.905,-4.11391e-08,0,512,512
287.951,-4.1412e-08,0,512,512
288.01,-4.17584e-08,0,512,512
288.057,-4.20395e-08,0,512,512
288.104,-4.23238e-08,0,512,512
288.151,-4.2611e-08,0,512,512
288.209,-4.2973e-08,0,512,512
288.256,-4.3264e-08,0,512,512
288.303,-4.35551e-08,0,512,512
288.362,-4.39176e-08,0,512,512
288.408,-4.42049e-08,0,512,512
288.455,-4.44884e-08,0,512,512
288.502,-4.47666e-08,0,512,512
288.561,-4.5105e-08,0,512,512
288.608,-4.53664e-08,0,512,512
288.654,-4.56179e-08,0,512,512
288.701,-4.58583e-08,0,512,512
288.76,-4.6141e-08,0,512,512
288.807,-4.63516e-08,0,512,512
288.854,-4.6547e-08,0,512,512
288.901,-4.67264e-08,0,512,512
288.959,-4.69268e-08,0,512,512
289.006,-4.70673e-08,0,512,512
289.053,-4.71895e-08,0,512,512
289.111,-4.7316e-08,0,512,512
289.158,-4.73961e-08,0,512,512
289.205,-4.74573e-08,0,512,512
289.252,-4.74999e-08,0,512,512
289.311,-4.75272e-08,0,512,512
289.357,-4.75289e-08,0,512,512
289.404,-4.75133e-08,0,512,512
289.451,-4.7481e-08,0,512,512
289.51,-4.74183e-08,0,512,512
289.557,-4.73514e-08,0,512,512
289.604,-4.72704e-08,0,512,512
289.65,-4.71764e-08,0,512,512
289.709,-4.70421e-08,0,512,512
289.756,-4.69223e-08,0,512,512
289.803,-4.67927e-08,0,512,512
289.861,-4.66184e-08,0,512,512
289.908,-4.64702e-08,0,512,512
289.955,-4.63154e-08,0,512,512
290.002,-4.61546e-08,0,512,512
290.06,-4.59468e-08,0,512,512
290.107,-4.5776e-08,0,512,512
290.154,-4.56019e-08,0,512,512
290.201,-4.54251e-08,0,512,512
290.26,-4.52013e-08,0,512,512
290.307,-4.50207e-08,0,512,512
290.353,-4.48392e-08,0,512,512
290.4,-4.46571e-08,0,512,512
290.459,-4.44292e-08,0,512,512
290.506,-4.4247e-08,0,512,512
290.553,-4.40651e-08,0,512,512
290.611,-4.38383e-08,0,512,512
290.658,-4.36574e-08,0,512,512
290.705,-4.34771e-08,0,512,512
290.752,-4.32973e-08,0,512,512
290.81,-4.30731e-08,0,512,512
290.857,-4.2894e-08,0,512,512
290.904,-4.2715e-08,0,512,512
290.951,-4.25359e-08,0,512,512
291.01,-4.23114e-08,0,512,512
291.056,-4.21309e-08,0,512,512
291.103,-4.19494e-08,0,512,512
291.15,-4.17664e-08,0,512,512
291.209,-4.1535e-08,0,512,512
291.256,-4.13473e-08,0,512,512
291.303,-4.11566e-08,0,512,512
291.361,-4.09134e-08,0,512,512
291.408,-4.07143e-08,0,512,512
291.455,-4.05106e-08,0,512,512
291.502,-4.03015e-08,0,512,512
291.56,-4.00316e-08,0,512,512
291.607,-3.9808e-08,0,512,512
291.654,-3.95767e-08,0,512,512
291.701,-3.9337e-08,0,512,512
291.759,-3.90242e-08,0,512,512
291.806,-3.87624e-08,0,512,512
291.853,-3.84893e-08,0,512,512
291.9,-3.82041e-08,0,512,512
291.959,-3.78292e-08,0,512,512
292.006,-3.75134e-08,0,512,512
292.052,-3.71826e-08,0,512,512
292.111,-3.67466e-08,0,512,512
292.158,-3.6379e-08,0,512,512
292.205,-3.59938e-08,0,512,512
292.252,-3.55905e-08,0,512,512
292.31,-3.50599e-08,0,512,512
292.357,-3.46139e-08,0,512,512
292.404,-3.41485e-08,0,512,512
292.451,-3.36635e-08,0,512,512
292.509,-3.30297e-08,0,512,512
292.556,-3.2501e-08,0,512,512
292.603,-3.19535e-08,0,512,512
292.662,-3.12435e-08,0,512,512
292.709,-3.06559e-08,0,512,512
292.755,-3.00519e-08,0,512,512
292.802,-2.94327e-08,0,512,512
292.861,-2.86392e-08,0,512,512
292.908,-2.79905e-08,0,512,512
292.955,-2.73311e-08,0,512,512
293.001,-2.66625e-08,0,512,512
293.06,-2.58166e-08,0,512,512
293.107,-2.51338e-08,0,512,512
293.154,-2.44476e-08,0,512,512
293.201,-2.37597e-08,0,512,512
293.259,-2.29e-08,0,512,512
293.306,-2.22145e-08,0,512,512
293.353,-2.15326e-08,0,512,512
293.412,-2.06875e-08,0,512,512
293.458,-2.00189e-08,0,512,512
293.505,-1.93582e-08,0,512,512
293.552,-1.87064e-08,0,512,512
293.611,-1.79052e-08,0,512,512
293.658,-1.72758e-08,0,512,512
293.704,-1.66572e-08,0,512,512
293.751,-1.60494e-08,0,512,512
293.81,-1.5305e-08,0,512,512
293.857,-1.47215e-08,0,512,512
293.904,-1.41481e-08,0,512,512
293.951,-1.35844e-08,0,512,512
294.009,-1.28922e-08,0,512,512
294.056,-1.23474e-08,0,512,512
294.103,-1.18095e-08,0,512,512
294.161,-1.11454e-08,0,512,512
294.208,-1.06193e-08,0,512,512
294.255,-1.00968e-08,0,512,512
294.302,-9.57678e-09,0,512,512
294.361,-8.92858e-09,0,512,512
294.408,-8.41035e-09,0,512,512
294.454,-7.89147e-09,0,512,512
294.501,-7.37119e-09,0,512,512
294.56,-6.71793e-09,0,512,512
294.607,-6.19244e-09,0,512,512
294.654,-5.6641e-09,0,512,512
294.7,-5.13283e-09,0,512,512
294.759,-4.46479e-09,0,512,512
294.806,-3.92761e-09,0,512,512
294.853,-3.38858e-09,0,512,512
294.911,-2.71338e-09,0,512,512
294.958,-2.1733e-09,0,512,512
295.005,-1.63457e-09,0,512,512
295.052,-1.09858e-09,0,512,512
295.111,-4.34824e-10,0,512,512
295.157,8.91177e-11,0,512,512
295.204,6.04788e-10,0,512,512
295.251,1.11025e-09,0,512,512
295.31,1.72466e-09,0,512,512
295.357,2.19978e-09,0,512,512
295.403,2.65812e-09,0,512,512
295.45,3.09767e-09,0,512,512
295.509,3.6178e-09,0,512,512
295.556,4.00828e-09,0,512,512
295.603,4.37422e-09,0,512,512
295.661,4.79498e-09,0,512,512
295.708,5.10081e-09,0,512,512
295.755,5.37826e-09,0,512,512
295.802,5.62668e-09,0,512,512
295.86,5.89584e-09,0,512,512
295.907,6.07801e-09,0,512,512
295.954,6.231e-09,0,512,512
296.001,6.35538e-09,0,512,512
296.06,6.47197e-09,0,512,512
296.106,6.53556e-09,0,512,512
296.153,6.57433e-09,0,512,512
296.2,6.58994e-09,0,512,512
296.259,6.5798e-09,0,512,512
296.306,6.55048e-09,0,512,512
296.353,6.5047e-09,0,512,512
296.411,6.42787e-09,0,512,512
296.458,6.35358e-09,0,512,512
296.505,6.27049e-09,0,512,512
296.552,6.18092e-09,0,512,512
296.61,6.06333e-09,0,512,512
296.657,5.96739e-09,0,512,512
296.704,5.87196e-09,0,512,512
296.751,5.77888e-09,0,512,512
296.81,5.66831e-09,0,512,512
296.856,5.5862e-09,0,512,512
296.903,5.51095e-09,0,512,512
296.95,5.44348e-09,0,512,512
297.009,5.37101e-09,0,512,512
297.056,5.32299e-09,0,512,512
297.102,5.28391e-09,0,512,512
297.161,5.2474e-09,0,512,512
297.208,5.22759e-09,0,512,512
297.255,5.21549e-09,0,512,512
297.302,5.2103e-09,0,512,512
297.36,5.21211e-09,0,512,512
297.407,5.2189e-09,0,512,512
297.454,5.22917e-09,0,512,512
297.501,5.24174e-09,0,512,512
297.559,5.25876e-09,0,512,512
297.606,5.27196e-09,0,512,512
297.653,5.28351e-09,0,512,512
297.712,5.29394e-09,0,512,512
297.759,5.29787e-09,0,512,512
297.805,5.29695e-09,0,512,512
297.852,5.29043e-09,0,512,512
297.911,5.27357e-09,0,512,512
297.958,5.25264e-09,0,512,512
298.005,5.22486e-09,0,512,512
298.052,5.1902e-09,0,512,512
298.11,5.13739e-09,0,512,512
298.157,5.08795e-09,0,512,512
298.204,5.03261e-09,0,512,512
298.251,4.97198e-09,0,512,512
298.309,4.88985e-09,0,512,512
298.356,4.82009e-09,0,512,512
298.403,4.74771e-09,0,512,512
298.462,4.65503e-09,0,512,512
298.508,4.58034e-09,0,512,512
298.555,4.50626e-09,0,512,512
298.602,4.43378e-09,0,512,512
298.661,4.34688e-09,0,512,512
298.708,4.28141e-09,0,512,512
298.755,4.22042e-09,0,512,512
298.801,4.16464e-09,0,512,512
298.86,4.10317e-09,0,512,512
298.907,4.06122e-09,0,512,512
298.954,4.02611e-09,0,512,512
299.001,3.99808e-09,0,512,512
299.059,3.9732e-09,0,512,512
299.106,3.96143e-09,0,512,512
299.153,3.95677e-09,0,512,512
299.211,3.96058e-09,0,512,512
299.258,3.97094e-09,0,512,512
299.305,3.98735e-09,0,512,512
299.352,4.00931e-09,0,512,512
299.411,4.04373e-09,0,512,512
299.458,4.07609e-09,0,512,512
299.504,4.11207e-09,0,512,512
299.551,4.15099e-09,0,512,512
299.61,4.20278e-09,0,512,512
299.657,4.24591e-09,0,512,512
299.704,4.28987e-09,0,512,512
299.75,4.33402e-09,0,512,512
299.809,4.38862e-09,0,512,512
299.856,4.43115e-09,0,512,512
299.903,4.47212e-09,0,512,512
299.961,4.52048e-09,0,512,512
300.008,4.5564e-09,0,512,512
300.055,4.58949e-09,0,512,512
300.102,4.61947e-09,0,512,512
300.161,4.65223e-09,0,512,512
300.207,4.67444e-09,0,512,512
300.254,4.69295e-09,0,512,512
300.301,4.70768e-09,0,512,512
300.36,4.72072e-09,0,512,512
300.407,4.72685e-09,0,512,512
300.454,4.72918e-09,0,512,512
300.5,4.72779e-09,0,512,512
300.559,4.72096e-09,0,512,512
300.606,4.71155e-09,0,512,512
300.653,4.6988e-09,0,512,512
300.711,4.67838e-09,0,512,512
300.758,4.65866e-09,0,512,512
300.805,4.63614e-09,0,512,512
300.852,4.611e-09,0,512,512
300.91,4.57617e-09,0,512,512
300.957,4.54582e-09,0,512,512
301.004,4.51346e-09,0,512,512
301.051,4.47929e-09,0,512,512
301.11,4.43429e-09,0,512,512
301.157,4.39669e-09,0,512,512
301.203,4.35783e-09,0,512,512
301.25,4.31788e-09,0,512,512
301.309,4.26665e-09,0,512,512
301.356,4.22478e-09,0,512,512
301.403,4.18227e-09,0,512,512
301.461,4.1284e-09,0,512,512
301.508,4.08484e-09,0,512,512
301.555,4.04098e-09,0,512,512
301.602,3.99688e-09,0,512,512
301.66,3.94153e-09,0,512,512
301.707,3.89714e-09,0,512,512
301.754,3.8527e-09,0,512,512
301.801,3.80824e-09,0,512,512
301.86,3.7527e-09,0,512,512
301.906,3.70831e-09,0,512,512
301.953,3.66397e-09,0,512,512
302,3.61969e-09,0,512,512
302.059,3.56442e-09,0,512,512
302.106,3.52027e-09,0,512,512
302.152,3.47616e-09,0,512,512
302.211,3.42109e-09,0,512,512
302.258,3.37706e-09,0,512,512
302.305,3.33303e-09,0,512,512
302.352,3.28901e-09,0,512,512
302.41,3.23396e-09,0,512,512
302.457,3.18988e-09,0,512,512
302.504,3.14576e-09,0,512,512
302.551,3.10159e-09,0,512,512
302.609,3.04628e-09,0,512,512
302.656,3.00196e-09,0,512,512
302.703,2.95757e-09,0,512,512
302.75,2.91311e-09,0,512,512
302.809,2.85743e-09,0,512,512
302.855,2.81281e-09,0,512,512
302.902,2.76814e-09,0,512,512
302.961,2.71222e-09,0,512,512
303.008,2.66745e-09,0,512,512
303.055,2.62266e-09,0,512,512
303.102,2.57787e-09,0,512,512
303.16,2.52189e-09,0,512,512
303.207,2.47715e-09,0,512,512
303.254,2.43247e-09,0,512,512
303.301,2.38786e-09,0,512,512
303.359,2.33223e-09,0,512,512
303.406,2.28787e-09,0,512,512
303.453,2.24364e-09,0,512,512
303.512,2.1886e-09,0,512,512
303.559,2.14477e-09,0,512,512
303.605,2.10114e-09,0,512,512
303.652,2.05773e-09,0,512,512
303.711,2.00381e-09,0,512,512
303.758,1.96095e-09,0,512,512
303.805,1.91836e-09,0,512,512
303.851,1.87604e-09,0,512,512
303.91,1.82354e-09,0,512,512
303.957,1.78187e-09,0,512,512
304.004,1.7405e-09,0,512,512
304.051,1.69942e-09,0,512,512
304.109,1.6485e-09,0,512,512
304.156,1.6081e-09,0,512,512
304.203,1.568e-09,0,512,512
304.262,1.5183e-09,0,512,512
304.308,1.47887e-09,0,512,512
304.355,1.43973e-09,0,512,512
304.402,1.40088e-09,0,512,512
304.461,1.35271e-09,0,512,512
304.508,1.31448e-09,0,512,512
304.554,1.27653e-09,0,512,512
304.601,1.23885e-09,0,512,512
304.66,1.19212e-09,0,512,512
304.707,1.15503e-09,0,512,512
304.754,1.1182e-09,0,512,512
304.801,1.08162e-09,0,512,512
304.859,1.03627e-09,0,512,512
304.906,1.00028e-09,0,512,512
304.953,9.64546e-10,0,512,512
