250,0,0,512,512
250.012,0,0,512,512
250.059,0,0,512,512
250.105,0,0,512,512
250.152,0,0,512,512
250.211,0,0,512,512
250.258,0,0,512,512
250.305,0,0,512,512
250.352,0,0,512,512
250.41,0,0,512,512
250.457,0,0,512,512
250.504,0,0,512,512
250.551,0,0,512,512
250.609,0,0,512,512
250.656,0,0,512,512
250.703,0,0,512,512
250.762,0,0,512,512
250.808,0,0,512,512
250.855,0,0,512,512
250.902,0,0,512,512
250.961,0,0,512,512
251.008,0,0,512,512
251.055,0,0,512,512
251.101,0,0,512,512
251.16,0,0,512,512
251.207,0,0,512,512
251.254,0,0,512,512
251.301,0,0,512,512
251.359,0,0,512,512
251.406,0,0,512,512
251.453,0,0,512,512
251.511,0,0,512,512
251.558,0,0,512,512
251.605,0,0,512,512
251.652,0,0,512,512
251.711,0,0,512,512
251.758,0,0,512,512
251.804,0,0,512,512
251.851,0,0,512,512
251.91,0,0,512,512
251.957,0,0,512,512
252.004,0,0,512,512
252.05,0,0,512,512
252.109,0,0,512,512
252.156,0,0,512,512
252.203,0,0,512,512
252.261,0,0,512,512
252.308,0,0,512,512
252.355,0,0,512,512
252.402,0,0,512,512
252.461,0,0,512,512
252.507,0,0,512,512
252.554,0,0,512,512
252.601,0,0,512,512
252.66,0,0,512,512
252.707,0,0,512,512
252.754,0,0,512,512
252.8,0,0,512,512
252.859,0,0,512,512
252.906,0,0,512,512
252.953,0,0,512,512
253.011,0,0,512,512
253.058,0,0,512,512
253.105,0,0,512,512
253.152,0,0,512,512
253.21,0,0,512,512
253.257,0,0,512,512
253.304,0,0,512,512
253.351,0,0,512,512
253.41,0,0,512,512
253.457,0,0,512,512
253.503,0,0,512,512
253.55,0,0,512,512
253.609,0,0,512,512
253.656,0,0,512,512
253.703,0,0,512,512
253.761,0,0,512,512
253.808,0,0,512,512
253.855,0,0,512,512
253.902,0,0,512,512
253.96,0,0,512,512
254.007,0,0,512,512
254.054,0,0,512,512
254.101,0,0,512,512
254.16,0,0,512,512
254.206,0,0,512,512
254.253,0,0,512,512
254.3,0,0,512,512
254.359,0,0,512,512
254.406,0,0,512,512
254.452,0,0,512,512
254.511,0,0,512,512
254.558,0,0,512,512
254.605,0,0,512,512
254.652,0,0,512,512
254.71,0,0,512,512
254.757,0,0,512,512
254.804,0,0,512,512
254.851,0,0,512,512
254.909,0,0,512,512
254.956,0,0,512,512
255.003,0,0,512,512
255.05,0,0,512,512
255.109,0,0,512,512
255.155,0,0,512,512
255.202,0,0,512,512
255.261,0,0,512,512
255.308,0,0,512,512
255.355,0,0,512,512
255.402,0,0,512,512
255.46,0,0,512,512
255.507,0,0,512,512
255.554,0,0,512,512
255.601,0,0,512,512
255.659,0,0,512,512
255.706,0,0,512,512
255.753,0,0,512,512
255.812,0,0,512,512
255.859,0,0,512,512
255.905,0,0,512,512
255.952,0,0,512,512
256.011,0,0,512,512
256.058,0,0,512,512
256.105,0,0,512,512
256.151,0,0,512,512
256.21,0,0,512,512
256.257,0,0,512,512
256.304,0,0,512,512
256.351,0,0,512,512
256.409,0,0,512,512
256.456,0,0,512,512
256.503,0,0,512,512
256.562,0,0,512,512
256.608,0,0,512,512
256.655,0,0,512,512
256.702,0,0,512,512
256.761,0,0,512,512
256.808,0,0,512,512
256.854,0,0,512,512
256.901,0,0,512,512
256.96,0,0,512,512
257.007,0,0,512,512
257.054,0,0,512,512
257.101,0,0,512,512
257.159,0,0,512,512
257.206,0,0,512,512
257.253,0,0,512,512
257.311,0,0,512,512
257.358,0,0,512,512
257.405,0,0,512,512
257.452,0,0,512,512
257.511,0,0,512,512
257.557,0,0,512,512
257.604,0,0,512,512
257.651,0,0,512,512
257.71,0,0,512,512
257.757,0,0,512,512
257.804,0,0,512,512
257.85,2.77556e-17,0,512,512
257.909,2.77556e-17,0,512,512
257.956,2.77556e-17,0,512,512
258.003,2.77556e-17,0,512,512
258.061,2.77556e-17,0,512,512
258.108,2.77556e-17,0,512,512
258.155,2.77556e-17,0,512,512
258.202,2.77556e-17,0,512,512
258.261,2.77556e-17,0,512,512
258.307,2.77556e-17,0,512,512
258.354,2.77556e-17,0,512,512
258.401,2.77556e-17,0,512,512
258.46,2.77556e-17,0,512,512
258.507,2.77556e-17,0,512,512
258.553,2.77556e-17,0,512,512
258.6,2.77556e-17,0,512,512
258.659,2.77556e-17,0,512,512
258.706,2.77556e-17,0,512,512
258.753,2.77556e-17,0,512,512
258.811,2.77556e-17,0,512,512
258.858,2.77556e-17,0,512,512
258.905,2.77556e-17,0,512,512
258.952,0,0,512,512
259.01,0,0,512,512
259.057,0,0,512,512
259.104,0,0,512,512
259.151,2.77556e-17,0,512,512
259.21,2.77556e-17,0,512,512
259.256,2.77556e-17,0,512,512
259.303,2.77556e-17,0,512,512
259.35,2.77556e-17,0,512,512
259.409,2.77556e-17,0,512,512
259.456,2.77556e-17,0,512,512
259.503,2.77556e-17,0,512,512
259.561,2.77556e-17,0,512,512
259.608,2.77556e-17,0,512,512
259.655,2.77556e-17,0,512,512
259.702,2.77556e-17,0,512,512
259.76,2.77556e-17,0,512,512
259.807,2.77556e-17,0,512,512
259.854,2.77556e-17,0,512,512
259.901,2.77556e-17,0,512,512
259.959,2.77556e-17,0,512,512
260.006,2.77556e-17,0,512,512
260.053,2.77556e-17,0,512,512
260.1,2.77556e-17,0,512,512
260.159,2.77556e-17,0,512,512
260.206,0,0,512,512
260.252,0,0,512,512
260.311,0,0,512,512
260.358,0,0,512,512
260.405,0,0,512,512
260.452,0,0,512,512
260.51,0,0,512,512
260.557,0,0,512,512
260.604,0,0,512,512
260.651,0,0,512,512
260.709,0,0,512,512
260.756,0,0,512,512
260.803,0,0,512,512
260.862,0,0,512,512
260.909,0,0,512,512
260.955,0,0,512,512
261.002,0,0,512,512
261.061,0,0,512,512
261.108,0,0,512,512
261.155,0,0,512,512
261.201,0,0,512,512
261.26,0,0,512,512
261.307,0,0,512,512
261.354,0,0,512,512
261.401,0,0,512,512
261.459,0,0,512,512
261.506,0,0,512,512
261.553,0,0,512,512
261.612,0,0,512,512
261.658,0,0,512,512
261.705,0,0,512,512
261.752,0,0,512,512
261.811,0,0,512,512
261.858,0,0,512,512
261.905,0,0,512,512
261.951,0,0,512,512
262.01,0,0,512,512
262.057,0,0,512,512
262.104,0,0,512,512
262.151,0,0,512,512
262.209,0,0,512,512
262.256,0,0,512,512
262.303,0,0,512,512
262.361,0,0,512,512
262.408,0,0,512,512
262.455,0,0,512,512
262.502,0,0,512,512
262.561,0,0,512,512
262.608,0,0,512,512
262.654,0,0,512,512
262.701,0,0,512,512
262.76,0,0,512,512
262.807,0,0,512,512
262.854,0,0,512,512
262.9,0,0,512,512
262.959,0,0,512,512
263.006,0,0,512,512
263.053,0,0,512,512
263.111,-2.77556e-17,0,512,512
263.158,-2.77556e-17,0,512,512
263.205,-2.77556e-17,0,512,512
263.252,-2.77556e-17,0,512,512
263.311,-2.77556e-17,0,512,512
263.357,-2.77556e-17,0,512,512
263.404,-2.77556e-17,0,512,512
263.451,-2.77556e-17,0,512,512
263.51,-2.77556e-17,0,512,512
263.557,-2.77556e-17,0,512,512
263.603,-2.77556e-17,0,512,512
263.65,-2.77556e-17,0,512,512
263.709,-2.77556e-17,0,512,512
263.756,-2.77556e-17,0,512,512
263.803,-2.77556e-17,0,512,512
263.861,-2.77556e-17,0,512,512
263.908,-2.77556e-17,0,512,512
263.955,-2.77556e-17,0,512,512
264.002,-2.77556e-17,0,512,512
264.06,-2.77556e-17,0,512,512
264.107,-2.77556e-17,0,512,512
264.154,-2.77556e-17,0,512,512
264.201,-2.77556e-17,0,512,512
264.26,-2.77556e-17,0,512,512
264.306,-2.77556e-17,0,512,512
264.353,-2.77556e-17,0,512,512
264.4,-2.77556e-17,0,512,512
264.459,0,0,512,512
264.506,0,0,512,512
264.553,0,0,512,512
264.611,0,0,512,512
264.658,0,0,512,512
264.705,0,0,512,512
264.752,0,0,512,512
264.81,0,0,512,512
264.857,0,0,512,512
264.904,0,0,512,512
264.951,0,0,512,512
265.01,0,0,512,512
265.056,0,0,512,512
265.103,0,0,512,512
265.15,0,0,512,512
265.209,0,0,512,512
265.256,0,0,512,512
265.302,0,0,512,512
265.361,0,0,512,512
265.408,0,0,512,512
265.455,0,0,512,512
265.502,0,0,512,512
265.56,0,0,512,512
265.607,0,0,512,512
265.654,0,0,512,512
265.701,0,0,512,512
265.759,0,0,512,512
265.806,0,0,512,512
265.853,0,0,512,512
265.9,0,0,512,512
265.959,0,0,512,512
266.005,0,0,512,512
266.052,0,0,512,512
266.111,0,0,512,512
266.158,0,0,512,512
266.205,0,0,512,512
266.252,0,0,512,512
266.31,0,0,512,512
266.357,0,0,512,512
266.404,0,0,512,512
266.451,0,0,512,512
266.509,0,0,512,512
266.556,0,0,512,512
266.603,0,0,512,512
266.662,0,0,512,512
266.708,0,0,512,512
266.755,0,0,512,512
266.802,0,0,512,512
266.861,0,0,512,512
266.908,0,0,512,512
266.955,0,0,512,512
267.001,0,0,512,512
267.06,0,0,512,512
267.107,0,0,512,512
267.154,0,0,512,512
267.201,0,0,512,512
267.259,0,0,512,512
267.306,0,0,512,512
267.353,0,0,512,512
267.412,0,0,512,512
267.458,0,0,512,512
267.505,0,0,512,512
267.552,2.77556e-17,0,512,512
267.611,2.77556e-17,0,512,512
267.658,2.77556e-17,0,512,512
267.704,2.77556e-17,0,512,512
267.751,2.77556e-17,0,512,512
267.81,2.77556e-17,0,512,512
267.857,2.77556e-17,0,512,512
267.904,2.77556e-17,0,512,512
267.95,2.77556e-17,0,512,512
268.009,2.77556e-17,0,512,512
268.056,2.77556e-17,0,512,512
268.103,2.77556e-17,0,512,512
268.161,2.77556e-17,0,512,512
268.208,2.77556e-17,0,512,512
268.255,2.77556e-17,0,512,512
268.302,2.77556e-17,0,512,512
268.361,2.77556e-17,0,512,512
268.407,2.77556e-17,0,512,512
268.454,2.77556e-17,0,512,512
268.501,2.77556e-17,0,512,512
268.56,2.77556e-17,0,512,512
268.607,2.77556e-17,0,512,512
268.654,2.77556e-17,0,512,512
268.7,2.77556e-17,0,512,512
268.759,2.77556e-17,0,512,512
268.806,2.77556e-17,0,512,512
268.853,2.77556e-17,0,512,512
268.911,2.77556e-17,0,512,512
268.958,2.77556e-17,0,512,512
269.005,0,0,512,512
269.052,0,0,512,512
269.11,0,0,512,512
269.157,0,0,512,512
269.204,0,0,512,512
269.251,2.77556e-17,0,512,512
269.31,2.77556e-17,0,512,512
269.357,2.77556e-17,0,512,512
269.403,2.77556e-17,0,512,512
269.45,2.77556e-17,0,512,512
269.509,2.77556e-17,0,512,512
269.556,2.77556e-17,0,512,512
269.603,2.77556e-17,0,512,512
269.652,2.77556e-17,0,535,535
269.703,2.77556e-17,0,607,607
269.753,2.77556e-17,0,653,653
269.802,2.77556e-17,0,701,701
269.852,2.77556e-17,0,743,743
269.902,2.77556e-17,0,791,791
269.952,2.77556e-17,0,851,851
270.002,2.77556e-17,0,893,893
270.051,2.77556e-17,0,941,941
270.101,2.77556e-17,0,977,977
270.151,2.77556e-17,0,983,983
270.201,2.77556e-17,0,1001,1001
270.251,2.77556e-17,0,1043,1043
270.3,2.77556e-17,0,1091,1091
270.35,2.77556e-17,0,1151,1151
270.4,2.77556e-17,0,1193,1193
270.453,2.77556e-17,0,1253,1253
270.503,2.77556e-17,0,1301,1301
270.552,2.77556e-17,0,1343,1343
270.602,2.77556e-17,0,1403,1403
270.652,2.77556e-17,0,1451,1451
270.702,2.77556e-17,0,1511,1511
270.752,2.77556e-17,0,1553,1553
270.801,2.77556e-17,0,1601,1601
270.851,2.77556e-17,0,1661,1661
270.901,2.77556e-17,0,1703,1703
270.951,2.77556e-17,0,1751,1751
271.001,2.77556e-17,0,1807,1807
271.05,2.77556e-17,0,1853,1853
271.1,2.77556e-17,0,1883,1883
271.153,2.77556e-17,0,1883,1883
271.203,2.77556e-17,0,1943,1943
271.252,2.77556e-17,0,1991,1991
271.302,2.77556e-17,0,2051,2051
271.352,2.77556e-17,0,2093,2093
271.402,2.77556e-17,0,2153,2153
271.452,2.77556e-17,0,2201,2201
271.501,2.77556e-17,0,2261,2261
271.551,2.77556e-17,0,2303,2303
271.601,2.77556e-17,0,2363,2363
271.651,2.77556e-17,0,2411,2411
271.701,2.77556e-17,0,2471,2471
271.75,2.77556e-17,0,2513,2513
271.8,2.77556e-17,0,2573,2573
271.85,2.77556e-17,0,2621,2621
271.903,2.77556e-17,0,2681,2681
271.953,2.77556e-17,0,2741,2741
272.002,2.77556e-17,0,2783,2783
272.052,2.77556e-17,0,2843,2843
272.102,2.77556e-17,0,2891,2891
272.152,2.77556e-17,0,2947,2947
272.202,2.77556e-17,0,2993,2993
272.251,2.77556e-17,0,3041,3041
272.301,2.77556e-17,0,3101,3101
272.351,2.77556e-17,0,3143,3143
272.401,2.77556e-17,0,3203,3203
272.451,2.77556e-17,0,3251,3251
272.5,2.77556e-17,0,3293,3293
272.55,2.77556e-17,0,3353,3353
272.603,2.77556e-17,0,3401,3401
272.653,2.77556e-17,0,3461,3461
272.702,2.77556e-17,0,3503,3503
272.752,2.77556e-17,0,3551,3551
272.802,-2.22045e-16,0,3611,3611
272.852,-6.93889e-16,0,3653,3653
272.902,-1.11022e-15,0,3701,3701
272.951,-1.55431e-15,0,3757,3757
273.001,-2.22045e-15,0,3803,3803
273.051,-3.747e-15,0,3851,3851
273.101,-7.35523e-15,0,3893,3893
273.151,-1.55431e-14,0,3947,3947
273.2,-3.28904e-14,0,4001,4001
273.25,-6.77236e-14,0,4043,4043
273.3,-1.34504e-13,0,4091,4091
273.353,-2.66093e-13,0,4151,4151
273.403,-4.86167e-13,0,4193,4193
273.452,-8.53512e-13,0,4241,4241
273.502,-1.44074e-12,0,4283,4283
273.552,-2.34046e-12,0,4331,4331
273.602,-3.6621e-12,0,4373,4373
273.652,-5.52428e-12,0,4421,4421
273.701,-8.04021e-12,0,4481,4481
273.751,-1.12988e-11,0,4499,4499
273.801,-1.53411e-11,0,4539,4539
273.851,-2.01369e-11,0,4613,4613
273.901,-2.55646e-11,0,4661,4661
273.95,-3.14008e-11,0,4703,4703
274,-3.73216e-11,0,4751,4751
274.053,-4.323e-11,0,4793,4793
274.103,-4.79877e-11,0,4841,4841
274.152,-5.14715e-11,0,4883,4883
274.202,-5.32589e-11,0,4931,4931
274.252,-5.30172e-11,0,4973,4973
274.302,-5.05409e-11,0,5021,5021
274.352,-4.57743e-11,0,5063,5063
274.401,-3.88168e-11,0,5111,5111
274.451,-2.99091e-11,0,5153,5153
274.501,-1.94057e-11,0,5201,5201
274.551,-7.73645e-12,0,5243,5243
274.601,4.63604e-12,0,5291,5291
274.65,1.72567e-11,0,5333,5333
274.7,2.97129e-11,0,5377,5377
274.753,4.23401e-11,0,5423,5423
274.803,5.34608e-11,0,5453,5453
274.853,6.36212e-11,0,5501,5501
274.902,7.27265e-11,0,5543,5543
274.952,8.07479e-11,0,5591,5591
275.002,8.77058e-11,0,5633,5633
275.052,9.36518e-11,0,5681,5681
275.102,9.86523e-11,0,5711,5711
275.151,1.02781e-10,0,5753,5753
275.201,1.06123e-10,0,5801,5801
275.251,1.08792e-10,0,5843,5843
275.301,1.10981e-10,0,5891,5891
275.35,1.13022e-10,0,5927,5927
275.4,1.15476e-10,0,5963,5963
275.45,1.19229e-10,0,6011,6011
275.503,1.26065e-10,0,6053,6053
275.553,1.37091e-10,0,6101,6101
275.602,1.54852e-10,0,6143,6143
275.652,1.81992e-10,0,6173,6173
275.702,2.21378e-10,0,6221,6221
275.752,2.75863e-10,0,6263,6263
275.802,3.47999e-10,0,6311,6311
275.851,4.39754e-10,0,6347,6347
275.901,5.52046e-10,0,6383,6383
275.951,6.85498e-10,0,6431,6431
276.001,8.78442e-10,0,6473,6473
276.051,1.93423e-09,0,6503,6503
276.1,4.19705e-09,0,6551,6551
276.15,7.55478e-09,0,6593,6593
276.203,1.2032e-08,0,6641,6641
276.253,1.67576e-08,0,6683,6683
276.302,2.15308e-08,0,6713,6713
276.352,2.60857e-08,0,6761,6761
276.402,3.04989e-08,0,6803,6803
276.452,3.51231e-08,0,6847,6847
276.502,4.05063e-08,0,6881,6881
276.551,4.72638e-08,0,6923,6923
276.601,5.59077e-08,0,6971,6971
276.651,6.68558e-08,0,7001,7001
276.701,8.0516e-08,0,7043,7043
276.751,9.73502e-08,0,7091,7091
276.8,1.17951e-07,0,7121,7121
276.85,1.42986e-07,0,7163,7163
276.9,1.73014e-07,0,7211,7211
276.953,2.10567e-07,0,7247,7247
277.003,2.51359e-07,0,7283,7283
277.052,2.96828e-07,0,7331,7331
277.102,3.46288e-07,0,7361,7361
277.152,3.99069e-07,0,7403,7403
277.202,4.54586e-07,0,7451,7451
277.252,5.12269e-07,0,7481,7481
277.301,5.71316e-07,0,7523,7523
277.351,6.30446e-07,0,7571,7571
277.401,6.87867e-07,0,7601,7601
277.451,7.41479e-07,0,7643,7643
277.501,7.89252e-07,0,7687,7687
277.55,8.29645e-07,0,7721,7721
277.6,8.61868e-07,0,7763,7763
277.653,8.871e-07,0,7793,7793
277.703,9.03213e-07,0,7841,7841
277.752,9.12791e-07,0,7871,7871
277.802,9.16729e-07,0,7901,7901
277.852,9.15618e-07,0,7943,7943
277.902,9.09633e-07,0,7973,7973
277.952,8.98544e-07,0,8003,8003
278.001,8.81861e-07,0,8051,8051
278.051,8.59032e-07,0,8081,8081
278.101,8.29671e-07,0,8123,8123
278.151,7.93784e-07,0,8192,8192
278.201,7.5192e-07,0,8192,8192
278.25,7.05191e-07,0,8192,8192
278.3,6.55153e-07,0,8192,8192
278.35,6.03557e-07,0,8192,8192
278.403,5.49075e-07,0,8192,8192
278.453,4.99158e-07,0,8192,8192
278.502,4.51632e-07,0,8192,8192
278.552,4.06923e-07,0,8192,8192
278.602,3.65111e-07,0,8192,8192
278.652,3.26089e-07,0,8192,8192
278.702,2.89743e-07,0,8192,8192
278.751,2.56083e-07,0,8192,8192
278.801,2.25293e-07,0,8192,8192
278.851,1.97644e-07,0,8192,8192
278.901,1.73324e-07,0,8192,8192
278.951,1.52247e-07,0,8192,8192
279,1.33999e-07,0,8192,8192
279.05,1.17954e-07,0,8192,8192
279.103,1.02704e-07,0,8192,8192
279.153,8.95856e-08,0,8192,8192
279.202,7.76977e-08,0,8192,8192
279.252,6.72213e-08,0,8192,8192
279.302,5.83166e-08,0,8192,8192
279.352,5.09442e-08,0,8192,8192
279.402,4.48205e-08,0,8192,8192
279.451,3.95202e-08,0,8192,8192
279.501,3.46616e-08,0,8192,8192
279.551,3.00753e-08,0,8192,8192
279.601,2.58632e-08,0,8192,8192
279.651,2.23196e-08,0,8192,8192
279.7,1.97645e-08,0,8192,8192
279.75,1.83867e-08,0,8192,8192
279.8,1.81748e-08,0,8192,8192
279.853,1.90228e-08,0,8192,8192
279.903,2.05776e-08,0,8192,8192
279.952,2.2637e-08,0,8192,8192
280.002,2.50446e-08,0,8192,8192
280.052,2.7707e-08,0,8192,8192
280.102,3.057e-08,0,8192,8192
280.152,3.36008e-08,0,8192,8192
280.201,3.67817e-08,0,8192,8192
280.251,4.0111e-08,0,8192,8192
280.301,4.35987e-08,0,8192,8192
280.351,4.72556e-08,0,8192,8192
280.401,5.10816e-08,0,8192,8192
280.45,5.50632e-08,0,8192,8192
280.5,5.91825e-08,0,8192,8192
280.553,6.36877e-08,0,8192,8192
280.603,6.81013e-08,0,8192,8192
280.652,7.2726e-08,0,8192,8192
280.702,7.76416e-08,0,8192,8192
280.752,8.29309e-08,0,8192,8192
280.802,8.86534e-08,0,8192,8192
280.852,9.48263e-08,0,8192,8192
280.901,1.01419e-07,0,8192,8192
280.951,1.08364e-07,0,8192,8192
281.001,1.15585e-07,0,8192,8192
281.051,1.23031e-07,0,8192,8192
281.101,1.3071e-07,0,8192,8192
281.15,1.38716e-07,0,8192,8192
281.2,1.47237e-07,0,8192,8192
281.25,1.56547e-07,0,8192,8192
281.303,1.67652e-07,0,8192,8192
281.353,1.79733e-07,0,8192,8192
281.402,1.93792e-07,0,8192,8192
281.452,2.1026e-07,0,8192,8192
281.502,2.29549e-07,0,8192,8192
281.552,2.52025e-07,0,8192,8192
281.602,2.77979e-07,0,8192,8192
281.651,3.07587e-07,0,8192,8192
281.701,3.40884e-07,0,8192,8192
281.751,3.77746e-07,0,8192,8192
281.801,4.17888e-07,0,8192,8192
281.851,4.60868e-07,0,8192,8192
281.9,5.0609e-07,0,8192,8192
281.95,5.52808e-07,0,8192,8192
282.003,6.02909e-07,0,8192,8192
282.053,6.49732e-07,0,8192,8192
282.102,6.94894e-07,0,8192,8192
282.152,7.3718e-07,0,8192,8192
282.202,7.75406e-07,0,8192,8192
282.252,8.08524e-07,0,8192,8192
282.302,8.35708e-07,0,8192,8192
282.351,8.56419e-07,0,8192,8192
282.401,8.70415e-07,0,8192,8192
282.451,8.77716e-07,0,8192,8192
282.501,8.7852e-07,0,8192,8192
282.551,8.73116e-07,0,8192,8192
282.6,8.61794e-07,0,8192,8192
282.65,8.44792e-07,0,8192,8192
282.703,8.20792e-07,0,8192,8192
282.753,7.92607e-07,0,8192,8192
282.803,7.59238e-07,0,8192,8192
282.852,7.20961e-07,0,8192,8192
282.902,6.78223e-07,0,8192,8192
282.952,6.3167e-07,0,8192,8192
283.002,5.82144e-07,0,8192,8192
283.052,5.30632e-07,0,8192,8192
283.101,4.78191e-07,0,8192,8192
283.151,4.2586e-07,0,8192,8192
283.201,3.74578e-07,0,8192,8192
283.251,3.25124e-07,0,8192,8192
283.3,2.78097e-07,0,8192,8192
283.35,2.33919e-07,0,8192,8192
283.4,1.92864e-07,0,8192,8192
283.453,1.52979e-07,0,8192,8192
283.503,1.18782e-07,0,8192,8192
283.552,8.79729e-08,0,8192,8192
283.602,6.05093e-08,0,8192,8192
283.652,3.62836e-08,0,8192,8192
283.702,1.51256e-08,0,8192,8192
283.752,-3.18667e-09,0,8192,8192
283.801,-1.89045e-08,0,8192,8192
283.851,-3.22818e-08,0,8192,8192
283.901,-4.35529e-08,0,8192,8192
283.951,-5.29232e-08,0,8192,8192
284.001,-6.05737e-08,0,8192,8192
284.05,-6.66737e-08,0,8192,8192
284.1,-7.1392e-08,0,8192,8192
284.153,-7.50722e-08,0,8192,8192
284.203,-7.74785e-08,0,8192,8192
284.253,-7.89919e-08,0,8192,8192
284.302,-7.97209e-08,0,8192,8192
284.352,-7.97362e-08,0,8192,8192
284.402,-7.90795e-08,0,8192,8192
284.452,-7.77823e-08,0,8192,8192
284.501,-7.58854e-08,0,8192,8192
284.551,-7.34537e-08,0,8192,8192
284.601,-7.05816e-08,0,8192,8192
284.651,-6.73866e-08,0,8192,8192
284.701,-6.39983e-08,0,8192,8192
284.75,-6.05431e-08,0,8192,8192
284.8,-5.71328e-08,0,8192,8192
284.85,-5.38568e-08,0,8192,8192
284.903,-5.06051e-08,0,8192,8192
284.953,-4.77804e-08,0,8192,8192
285.002,-4.52146e-08,0,8192,8192
285.052,-4.29116e-08,0,8192,8192
285.102,-4.08661e-08,0,8192,8192
285.152,-3.90673e-08,0,8192,8192
285.202,-3.75021e-08,0,8192,8192
285.251,-3.61571e-08,0,8192,8192
285.301,-3.5019e-08,0,8192,8192
285.351,-3.40744e-08,0,8192,8192
285.401,-3.33095e-08,0,8192,8192
285.451,-3.27095e-08,0,8192,8192
285.5,-3.22589e-08,0,8192,8192
285.55,-3.19415e-08,0,8192,8192
285.603,-3.17321e-08,0,8192,8192
285.653,-3.16368e-08,0,8192,8192
285.702,-3.16249e-08,0,8192,8192
285.752,-3.16817e-08,0,8192,8192
285.802,-3.17937e-08,0,8192,8192
285.852,-3.1949e-08,0,8192,8192
285.902,-3.21371e-08,0,8192,8192
285.951,-3.2349e-08,0,8192,8192
286.001,-3.25767e-08,0,8192,8192
286.051,-3.28138e-08,0,8192,8192
286.101,-3.30546e-08,0,8192,8192
286.151,-3.32945e-08,0,8192,8192
286.2,-3.35297e-08,0,8192,8192
286.25,-3.37571e-08,0,8192,8192
286.3,-3.39742e-08,0,8192,8192
286.353,-3.41904e-08,0,8192,8192
286.403,-3.43802e-08,0,8192,8192
286.452,-3.45543e-08,0,8192,8192
286.502,-3.47116e-08,0,8192,8192
286.552,-3.48512e-08,0,8192,8192
286.602,-3.49721e-08,0,8192,8192
286.652,-3.50739e-08,0,8192,8192
286.701,-3.51563e-08,0,8192,8192
286.751,-3.52194e-08,0,8192,8192
286.801,-3.52636e-08,0,8192,8192
286.851,-3.52899e-08,0,8192,8192
286.901,-3.52992e-08,0,8192,8192
286.95,-3.52931e-08,0,8192,8192
287,-3.52732e-08,0,8192,8192
287.053,-3.52389e-08,0,8192,8192
287.103,-3.5196e-08,0,8192,8192
287.152,-3.51448e-08,0,8192,8192
287.202,-3.5087e-08,0,8192,8192
287.252,-3.50244e-08,0,8192,8192
287.302,-3.49583e-08,0,8192,8192
287.352,-3.48904e-08,0,8192,8192
287.401,-3.48219e-08,0,8192,8192
287.451,-3.47539e-08,0,8192,8192
287.501,-3.46876e-08,0,8192,8192
287.551,-3.46238e-08,0,8192,8192
287.601,-3.45634e-08,0,8192,8192
287.65,-3.4507e-08,0,8192,8192
287.7,-3.44553e-08,0,8192,8192
287.75,-3.44087e-08,0,8192,8192
287.803,-3.43656e-08,0,8192,8192
287.853,-3.4331e-08,0,8192,8192
287.902,-3.43027e-08,0,8192,8192
287.952,-3.42809e-08,0,8192,8192
288.002,-3.42658e-08,0,8192,8192
288.052,-3.42575e-08,0,8192,8192
288.102,-3.42562e-08,0,8192,8192
288.151,-3.42619e-08,0,8192,8192
288.201,-3.42747e-08,0,8192,8192
288.251,-3.42946e-08,0,8192,8192
288.301,-3.43216e-08,0,8192,8192
288.351,-3.43559e-08,0,8192,8192
288.4,-3.43973e-08,0,8192,8192
288.45,-3.4446e-08,0,8192,8192
288.503,-3.45057e-08,0,8192,8192
288.553,-3.457e-08,0,8192,8192
288.602,-3.46424e-08,0,8192,8192
288.652,-3.47233e-08,0,8192,8192
288.702,-3.48134e-08,0,8192,8192
288.752,-3.49136e-08,0,8192,8192
288.802,-3.50248e-08,0,8192,8192
288.851,-3.51482e-08,0,8192,8192
288.901,-3.52851e-08,0,8192,8192
288.951,-3.54367e-08,0,8192,8192
289.001,-3.56043e-08,0,8192,8192
289.051,-3.57894e-08,0,8192,8192
289.1,-3.59929e-08,0,8192,8192
289.15,-3.6216e-08,0,8192,8192
289.2,-3.64592e-08,0,8192,8192
289.253,-3.6739e-08,0,8192,8192
289.303,-3.70243e-08,0,8192,8192
289.352,-3.73295e-08,0,8192,8192
289.402,-3.76534e-08,0,8192,8192
289.452,-3.79945e-08,0,8192,8192
289.502,-3.83506e-08,0,8192,8192
289.552,-3.87192e-08,0,8192,8192
289.601,-3.90972e-08,0,8192,8192
289.651,-3.94813e-08,0,8192,8192
289.701,-3.98678e-08,0,8192,8192
289.751,-4.0253e-08,0,8192,8192
289.8,-4.06329e-08,0,8192,8192
289.85,-4.10036e-08,0,8192,8192
289.9,-4.13612e-08,0,8192,8192
289.953,-4.17213e-08,0,8192,8192
290.003,-4.20401e-08,0,8192,8192
290.052,-4.23346e-08,0,8192,8192
290.102,-4.26017e-08,0,8192,8192
290.152,-4.28383e-08,0,8192,8192
290.202,-4.30418e-08,0,8192,8192
290.252,-4.32099e-08,0,8192,8192
290.301,-4.33406e-08,0,8192,8192
290.351,-4.34326e-08,0,8192,8192
290.401,-4.34845e-08,0,8192,8192
290.451,-4.34956e-08,0,8192,8192
290.501,-4.34656e-08,0,8192,8192
290.55,-4.3394e-08,0,8192,8192
290.6,-4.3281e-08,0,8192,8192
290.653,-4.31162e-08,0,8192,8192
290.703,-4.29182e-08,0,8192,8192
290.753,-4.2679e-08,0,8192,8192
290.802,-4.23988e-08,0,8192,8192
290.852,-4.20775e-08,0,8192,8192
290.902,-4.17153e-08,0,8192,8192
290.952,-4.1312e-08,0,8192,8192
291.001,-4.08676e-08,0,8192,8192
291.051,-4.03822e-08,0,8192,8192
291.101,-3.98561e-08,0,8192,8192
291.151,-3.92899e-08,0,8192,8192
291.201,-3.86844e-08,0,8192,8192
291.25,-3.8041e-08,0,8192,8192
291.3,-3.73615e-08,0,8192,8192
291.35,-3.66482e-08,0,8192,8192
291.403,-3.58595e-08,0,8192,8192
291.453,-3.50867e-08,0,8192,8192
291.502,-3.42907e-08,0,8192,8192
291.552,-3.34761e-08,0,8192,8192
291.602,-3.26475e-08,0,8192,8192
291.652,-3.181e-08,0,8192,8192
291.702,-3.09685e-08,0,8192,8192
291.751,-3.01282e-08,0,8192,8192
291.801,-2.92941e-08,0,8192,8192
291.851,-2.8471e-08,0,8192,8192
291.901,-2.76636e-08,0,8192,8192
291.951,-2.68764e-08,0,8192,8192
292,-2.61134e-08,0,8192,8192
292.05,-2.53786e-08,0,8192,8192
292.103,-2.46349e-08,0,8192,8192
292.153,-2.39681e-08,0,8192,8192
292.202,-2.33385e-08,0,8192,8192
292.252,-2.27479e-08,0,8192,8192
292.302,-2.21976e-08,0,8192,8192
292.352,-2.16884e-08,0,8192,8192
292.402,-2.12203e-08,0,8192,8192
292.451,-2.07928e-08,0,8192,8192
292.501,-2.0405e-08,0,8192,8192
292.551,-2.00552e-08,0,8192,8192
292.601,-1.97418e-08,0,8192,8192
292.651,-1.94624e-08,0,8192,8192
292.7,-1.92147e-08,0,8192,8192
292.75,-1.89961e-08,0,8192,8192
292.8,-1.88039e-08,0,8192,8192
292.853,-1.86264e-08,0,8192,8192
292.903,-1.84805e-08,0,8192,8192
292.952,-1.8353e-08,0,8192,8192
293.002,-1.82415e-08,0,8192,8192
293.052,-1.81436e-08,0,8192,8192
293.102,-1.80573e-08,0,8192,8192
293.152,-1.79805e-08,0,8192,8192
293.201,-1.79115e-08,0,8192,8192
293.251,-1.78487e-08,0,8192,8192
293.301,-1.77905e-08,0,8192,8192
293.351,-1.77358e-08,0,8192,8192
293.401,-1.76833e-08,0,8192,8192
293.45,-1.76318e-08,0,8192,8192
293.5,-1.75803e-08,0,8192,8192
293.553,-1.75243e-08,0,8192,8192
293.603,-1.74688e-08,0,8192,8192
293.652,-1.74097e-08,0,8192,8192
293.702,-1.73458e-08,0,8192,8192
293.752,-1.72758e-08,0,8192,8192
293.802,-1.7199e-08,0,8192,8192
293.852,-1.71144e-08,0,8192,8192
293.901,-1.70213e-08,0,8192,8192
293.951,-1.69195e-08,0,8192,8192
294.001,-1.68087e-08,0,8192,8192
294.051,-1.66892e-08,0,8192,8192
294.101,-1.65614e-08,0,8192,8192
294.15,-1.64259e-08,0,8192,8192
294.2,-1.62838e-08,0,8192,8192
294.25,-1.61361e-08,0,8192,8192
294.303,-1.59751e-08,0,8192,8192
294.353,-1.58199e-08,0,8192,8192
294.402,-1.56631e-08,0,8192,8192
294.452,-1.55058e-08,0,8142,8142
294.502,-1.5349e-08,0,8168,8168
294.552,-1.51936e-08,0,8184,8184
294.602,-1.50398e-08,0,8192,8192
294.651,-1.48879e-08,0,8192,8192
294.701,-1.47375e-08,0,8192,8192
294.751,-1.45878e-08,0,8192,8192
294.801,-1.44377e-08,0,8192,8192
294.851,-1.42862e-08,0,8192,8192
294.9,-1.41317e-08,0,8192,8192
294.95,-1.39729e-08,0,8192,8192
295.003,-1.37986e-08,0,8192,8192
295.053,-1.36268e-08,0,8192,8192
295.102,-1.34471e-08,0,8192,8192
295.152,-1.32581e-08,0,8192,8192
295.202,-1.30588e-08,0,8184,8184
295.252,-1.2848e-08,0,8184,8184
295.302,-1.2624e-08,0,8176,8176
295.351,-1.23853e-08,0,8176,8176
295.401,-1.21299e-08,0,8168,8168
295.451,-1.18558e-08,0,8160,8160
295.501,-1.15609e-08,0,8168,8168
295.551,-1.12431e-08,0,8184,8184
295.6,-1.09006e-08,0,8192,8192
295.65,-1.05317e-08,0,8176,8176
295.7,-1.01352e-08,0,8168,8168
295.753,-9.68439e-09,0,8160,8160
295.803,-9.2288e-09,0,8160,8160
295.852,-8.74424e-09,0,8152,8152
295.902,-8.23114e-09,0,8160,8160
295.952,-7.69036e-09,0,8160,8160
296.002,-7.12321e-09,0,8160,8160
296.052,-6.53146e-09,0,8152,8152
296.101,-5.91732e-09,0,8152,8152
296.151,-5.28344e-09,0,8152,8152
296.201,-4.63288e-09,0,8152,8152
296.251,-3.96907e-09,0,8152,8152
296.301,-3.29559e-09,0,8152,8152
296.35,-2.61545e-09,0,8152,8152
296.4,-1.92865e-09,0,8160,8160
296.453,-1.19294e-09,0,8176,8176
296.503,-4.92437e-10,0,8184,8184
296.552,1.55011e-10,0,8176,8176
296.602,7.1553e-10,0,8168,8168
296.652,1.27633e-09,0,8152,8152
296.702,1.92587e-09,0,8152,8152
296.752,2.53924e-09,0,8152,8152
296.801,3.09222e-09,0,8160,8160
296.851,3.60317e-09,0,8160,8160
296.901,4.0794e-09,0,8160,8160
296.951,4.5213e-09,0,8152,8152
297.001,4.92576e-09,0,8152,8152
297.05,5.289e-09,0,8144,8144
297.1,5.61596e-09,0,8144,8144
297.15,5.90308e-09,0,8152,8152
297.203,6.16128e-09,0,8152,8152
297.253,6.36854e-09,0,8144,8144
297.302,6.53871e-09,0,8152,8152
297.352,6.67217e-09,0,8144,8144
297.402,6.77472e-09,0,8144,8144
297.452,6.84748e-09,0,8144,8144
297.502,6.89218e-09,0,8144,8144
297.551,6.91164e-09,0,8144,8144
297.601,6.90878e-09,0,8144,8144
297.651,6.88621e-09,0,8144,8144
297.701,6.84653e-09,0,8144,8144
297.751,6.79228e-09,0,8144,8144
297.8,6.72574e-09,0,8144,8144
297.85,6.6491e-09,0,8144,8144
297.903,6.55923e-09,0,8144,8144
297.953,6.46809e-09,0,8144,8144
298.002,6.37251e-09,0,8144,8144
298.052,6.27411e-09,0,8144,8144
298.102,6.17422e-09,0,8144,8144
298.152,6.07413e-09,0,8144,8144
298.202,5.9751e-09,0,8144,8144
298.251,5.87816e-09,0,8144,8144
298.301,5.78431e-09,0,8144,8144
298.351,5.6945e-09,0,8144,8144
298.401,5.60953e-09,0,8144,8144
298.451,5.53017e-09,0,8144,8144
298.5,5.45709e-09,0,8144,8144
298.55,5.39071e-09,0,8144,8144
298.603,5.32803e-09,0,8136,8136
298.653,5.27611e-09,0,8144,8144
298.703,5.23109e-09,0,8144,8144
298.752,5.19256e-09,0,8144,8144
298.802,5.15991e-09,0,8136,8136
298.852,5.13232e-09,0,8144,8144
298.902,5.10881e-09,0,8142,8142
298.952,5.08821e-09,0,8142,8142
299.001,5.06921e-09,0,8132,8132
299.051,5.05046e-09,0,8132,8132
299.101,5.03063e-09,0,8132,8132
299.151,5.0084e-09,0,8140,8140
299.2,4.98263e-09,0,8136,8136
299.25,4.95233e-09,0,8134,8134
299.3,4.91675e-09,0,8130,8130
299.353,4.87277e-09,0,8132,8132
299.403,4.82515e-09,0,8132,8132
299.452,4.77177e-09,0,8128,8128
299.502,4.71311e-09,0,8132,8132
299.552,4.64983e-09,0,8132,8132
299.602,4.58271e-09,0,8120,8120
299.652,4.51261e-09,0,8120,8120
299.701,4.44045e-09,0,8120,8120
299.751,4.36716e-09,0,8116,8116
299.801,4.29369e-09,0,8120,8120
299.851,4.22091e-09,0,8114,8114
299.901,4.14963e-09,0,8118,8118
299.95,4.08066e-09,0,8114,8114
300,4.01471e-09,0,8116,8116
300.053,3.94893e-09,0,8112,8112
300.103,3.89132e-09,0,8108,8108
300.152,3.83867e-09,0,8104,8104
300.202,3.79148e-09,0,8104,8104
300.252,3.75016e-09,0,8104,8104
300.302,3.71492e-09,0,8104,8104
300.352,3.68585e-09,0,8100,8100
300.401,3.66284e-09,0,8100,8100
300.451,3.64559e-09,0,8092,8092
300.501,3.63366e-09,0,8096,8096
300.551,3.62645e-09,0,8092,8092
300.601,3.62325e-09,0,8096,8096
300.65,3.62331e-09,0,8100,8100
300.7,3.62583e-09,0,8084,8084
300.75,3.63003e-09,0,8088,8088
300.803,3.6355e-09,0,8088,8088
300.853,3.6409e-09,0,8084,8084
300.902,3.64593e-09,0,8096,8096
300.952,3.65005e-09,0,8092,8092
301.002,3.65278e-09,0,8084,8084
301.052,3.65378e-09,0,8084,8084
301.102,3.65293e-09,0,8084,8084
301.151,3.65024e-09,0,8084,8084
301.201,3.64571e-09,0,8084,8084
301.251,3.6394e-09,0,8088,8088
301.301,3.6314e-09,0,8092,8092
301.351,3.62153e-09,0,8088,8088
301.4,3.60948e-09,0,8100,8100
301.45,3.59544e-09,0,8094,8094
301.503,3.57917e-09,0,8102,8102
301.553,3.56271e-09,0,8104,8104
301.602,3.54474e-09,0,8104,8104
301.652,3.52487e-09,0,8104,8104
301.702,3.50314e-09,0,8104,8104
301.752,3.4799e-09,0,8104,8104
301.802,3.45558e-09,0,8080,8080
301.851,3.43061e-09,0,8068,8068
301.901,3.40509e-09,0,8052,8052
301.951,3.37862e-09,0,8052,8052
302.001,3.35067e-09,0,8044,8044
302.051,3.32124e-09,0,8040,8040
302.1,3.29087e-09,0,8044,8044
302.15,3.26002e-09,0,8040,8040
302.2,3.22875e-09,0,8040,8040
302.253,3.19512e-09,0,8044,8044
302.303,3.16288e-09,0,8040,8040
302.352,3.13024e-09,0,8040,8040
302.402,3.09735e-09,0,8040,8040
302.452,3.06426e-09,0,8024,8024
302.502,3.03102e-09,0,8024,8024
302.552,2.99768e-09,0,8028,8028
302.601,2.96439e-09,0,8024,8024
302.651,2.9313e-09,0,8024,8024
302.701,2.89838e-09,0,8040,8040
302.751,2.86541e-09,0,8028,8028
302.801,2.83224e-09,0,8040,8040
302.85,2.79909e-09,0,8028,8028
302.9,2.76619e-09,0,8040,8040
302.953,2.73158e-09,0,8044,8044
303.003,2.6988e-09,0,8054,8054
303.052,2.66573e-09,0,8090,8090
303.102,2.6324e-09,0,8134,8134
303.152,2.59893e-09,0,8170,8170
303.202,2.56536e-09,0,8192,8192
303.252,2.53161e-09,0,8192,8192
303.301,2.49757e-09,0,8192,8192
303.351,2.46318e-09,0,8192,8192
303.401,2.42837e-09,0,8192,8192
303.451,2.39313e-09,0,8192,8192
303.501,2.35745e-09,0,8192,8192
303.55,2.32132e-09,0,8192,8192
303.6,2.28473e-09,0,8192,8192
303.65,2.24767e-09,0,8192,8192
303.703,2.20788e-09,0,8192,8192
303.753,2.16982e-09,0,8192,8192
303.802,2.13131e-09,0,8192,8192
303.852,2.09238e-09,0,8192,8192
303.902,2.05301e-09,0,8192,8192
303.952,2.01314e-09,0,8192,8192
304.002,1.97277e-09,0,8192,8192
304.051,1.932e-09,0,8192,8192
304.101,1.89094e-09,0,8192,8192
304.151,1.8497e-09,0,8192,8192
304.201,1.8083e-09,0,8192,8192
304.251,1.76674e-09,0,8192,8192
304.3,1.72506e-09,0,8192,8192
304.35,1.68331e-09,0,8192,8192
304.403,1.63909e-09,0,8192,8192
304.453,1.59736e-09,0,8192,8192
304.502,1.55565e-09,0,8192,8192
304.552,1.51398e-09,0,8192,8192
304.602,1.4724e-09,0,8192,8192
304.652,1.43102e-09,0,8192,8192
304.702,1.38997e-09,0,8192,8192
304.751,1.34936e-09,0,8192,8192
304.801,1.30924e-09,0,8192,8192
304.851,1.26965e-09,0,8192,8192
304.901,1.2306e-09,0,8192,8192
304.951,1.1921e-09,0,8192,8192
