250,0,0,8192,8192
250.003,0,0,8192,8192
250.053,0,0,8192,8192
250.103,0,0,8192,8192
250.152,0,0,8192,8192
250.202,0,0,8192,8192
250.252,0,0,8192,8192
250.302,0,0,8192,8192
250.352,-1.38778e-17,0,8192,8192
250.401,-1.38778e-17,0,8192,8192
250.451,-2.77556e-17,0,8192,8192
250.501,-2.77556e-17,0,8192,8192
250.551,-1.38778e-17,0,8192,8192
250.6,-1.38778e-17,0,8192,8192
250.65,-1.38778e-17,0,8192,8192
250.7,-4.16334e-17,0,8192,8192
250.753,-1.38778e-17,0,8192,8192
250.803,0,0,8192,8192
250.852,0,0,8192,8192
250.902,0,0,8192,8192
250.952,0,0,8192,8192
251.002,-1.38778e-17,0,8192,8192
251.052,0,0,8192,8192
251.101,0,0,8192,8192
251.151,0,0,8192,8192
251.201,0,0,8192,8192
251.251,0,0,8192,8192
251.301,0,0,8192,8192
251.35,1.38778e-17,0,8192,8192
251.4,1.38778e-17,0,8192,8192
251.453,1.38778e-17,0,8192,8192
251.503,1.38778e-17,0,8192,8192
251.553,1.38778e-17,0,8192,8192
251.602,1.38778e-17,0,8192,8192
251.652,0,0,8192,8192
251.702,0,0,8192,8192
251.752,0,0,8192,8192
251.801,0,0,8192,8192
251.851,0,0,8192,8192
251.901,0,0,8192,8192
251.951,0,0,8192,8192
252.001,-1.38778e-17,0,8192,8192
252.05,0,0,8192,8192
252.1,-1.38778e-17,0,8192,8192
252.15,0,0,8192,8192
252.203,0,0,8192,8192
252.253,0,0,8192,8192
252.302,0,0,8192,8192
252.352,0,0,8192,8192
252.402,0,0,8192,8192
252.452,0,0,8192,8192
252.502,0,0,8192,8192
252.551,0,0,8192,8192
252.601,0,0,8192,8192
252.651,-1.38778e-17,0,8192,8192
252.701,0,0,8192,8192
252.751,0,0,8192,8192
252.8,0,0,8192,8192
252.85,-1.38778e-17,0,8192,8192
252.903,1.38778e-17,0,8192,8192
252.953,2.77556e-17,0,8192,8192
253.002,2.77556e-17,0,8192,8192
253.052,2.77556e-17,0,8192,8192
253.102,2.77556e-17,0,8192,8192
253.152,4.16334e-17,0,8192,8192
253.202,4.16334e-17,0,8192,8192
253.251,2.77556e-17,0,8192,8192
253.301,2.77556e-17,0,8192,8192
253.351,4.16334e-17,0,8192,8192
253.401,2.77556e-17,0,8192,8192
253.451,2.77556e-17,0,8192,8192
253.5,2.77556e-17,0,8192,8192
253.55,2.77556e-17,0,8192,8192
253.6,1.38778e-17,0,8192,8192
253.653,1.38778e-17,0,8192,8192
253.703,1.38778e-17,0,8192,8192
253.752,1.38778e-17,0,8192,8192
253.802,0,0,8192,8192
253.852,-1.38778e-17,0,8192,8192
253.902,-1.38778e-17,0,8192,8192
253.952,0,0,8192,8192
254.001,0,0,8192,8192
254.051,1.38778e-17,0,8192,8192
254.101,1.38778e-17,0,8192,8192
254.151,2.77556e-17,0,8192,8192
254.201,1.38778e-17,0,8192,8192
254.25,2.77556e-17,0,8192,8192
254.3,2.77556e-17,0,8192,8192
254.353,2.77556e-17,0,8192,8192
254.403,1.38778e-17,0,8192,8192
254.452,1.38778e-17,0,8192,8192
254.502,1.38778e-17,0,8192,8192
254.552,1.38778e-17,0,8192,8192
254.602,1.38778e-17,0,8192,8192
254.652,2.77556e-17,0,8192,8192
254.701,2.77556e-17,0,8192,8192
254.751,0,0,8192,8192
254.801,0,0,8192,8192
254.851,-1.38778e-17,0,8192,8192
254.901,0,0,8192,8192
254.95,-2.77556e-17,0,8192,8192
255,-1.38778e-17,0,8192,8192
255.05,0,0,8192,8192
255.103,0,0,8192,8192
255.153,1.38778e-17,0,8192,8192
255.202,2.77556e-17,0,8192,8192
255.252,1.38778e-17,0,8192,8192
255.302,1.38778e-17,0,8192,8192
255.352,1.38778e-17,0,8192,8192
255.402,2.77556e-17,0,8192,8192
255.451,2.77556e-17,0,8192,8192
255.501,2.77556e-17,0,8192,8192
255.551,1.38778e-17,0,8192,8192
255.601,1.38778e-17,0,8192,8192
255.651,1.38778e-17,0,8192,8192
255.7,2.77556e-17,0,8192,8192
255.75,2.77556e-17,0,8192,8192
255.803,1.38778e-17,0,8192,8192
255.853,1.38778e-17,0,8192,8192
255.902,1.38778e-17,0,8192,8192
255.952,1.38778e-17,0,8192,8192
256.002,1.38778e-17,0,8192,8192
256.052,1.38778e-17,0,8192,8192
256.102,0,0,8192,8192
256.151,-1.38778e-17,0,8192,8192
256.201,0,0,8192,8192
256.251,0,0,8192,8192
256.301,-1.38778e-17,0,8192,8192
256.351,0,0,8192,8192
256.4,0,0,8192,8192
256.45,0,0,8192,8192
256.5,-1.38778e-17,0,8192,8192
256.553,-1.38778e-17,0,8192,8192
256.603,-2.77556e-17,0,8192,8192
256.652,-1.38778e-17,0,8192,8192
256.702,-1.38778e-17,0,8192,8192
256.752,-2.77556e-17,0,8192,8192
256.802,0,0,8192,8192
256.852,0,0,8192,8192
256.901,0,0,8192,8192
256.951,0,0,8192,8192
257.001,0,0,8192,8192
257.051,0,0,8192,8192
257.101,0,0,8192,8192
257.15,0,0,8192,8192
257.2,0,0,8192,8192
257.253,0,0,8192,8192
257.303,0,0,8192,8192
257.352,1.38778e-17,0,8192,8192
257.402,2.77556e-17,0,8192,8192
257.452,1.38778e-17,0,8192,8192
257.502,2.77556e-17,0,8192,8192
257.552,1.38778e-17,0,8192,8192
257.601,2.77556e-17,0,8192,8192
257.651,4.16334e-17,0,8192,8192
257.701,4.16334e-17,0,8192,8192
257.751,2.77556e-17,0,8192,8192
257.801,2.77556e-17,0,8192,8192
257.85,4.16334e-17,0,8192,8192
257.9,4.16334e-17,0,8192,8192
257.95,2.77556e-17,0,8192,8192
258.003,1.38778e-17,0,8192,8192
258.053,1.38778e-17,0,8192,8192
258.102,1.38778e-17,0,8192,8192
258.152,2.77556e-17,0,8192,8192
258.202,2.77556e-17,0,8192,8192
258.252,2.77556e-17,0,8192,8192
258.302,2.77556e-17,0,8192,8192
258.351,2.77556e-17,0,8192,8192
258.401,1.38778e-17,0,8192,8192
258.451,1.38778e-17,0,8192,8192
258.501,1.38778e-17,0,8192,8192
258.551,1.38778e-17,0,8192,8192
258.6,1.38778e-17,0,8192,8192
258.65,1.38778e-17,0,8192,8192
258.703,2.77556e-17,0,8192,8192
258.753,2.77556e-17,0,8192,8192
258.802,2.77556e-17,0,8192,8192
258.852,1.38778e-17,0,8192,8192
258.902,1.38778e-17,0,8192,8192
258.952,2.77556e-17,0,8192,8192
259.002,2.77556e-17,0,8192,8192
259.051,1.38778e-17,0,8192,8192
259.101,1.38778e-17,0,8192,8192
259.151,2.77556e-17,0,8192,8192
259.201,2.77556e-17,0,8192,8192
259.251,1.38778e-17,0,8192,8192
259.3,2.77556e-17,0,8192,8192
259.35,2.77556e-17,0,8192,8192
259.403,1.38778e-17,0,8192,8192
259.453,2.77556e-17,0,8192,8192
259.503,2.77556e-17,0,8192,8192
259.552,2.77556e-17,0,8192,8192
259.602,4.16334e-17,0,8192,8192
259.652,2.77556e-17,0,8192,8192
259.702,2.77556e-17,0,8192,8192
259.751,2.77556e-17,0,8192,8192
259.801,2.77556e-17,0,8192,8192
259.851,4.16334e-17,0,8192,8192
259.901,4.16334e-17,0,8192,8192
259.951,4.16334e-17,0,8192,8192
260,2.77556e-17,0,8192,8192
260.05,4.16334e-17,0,8192,8192
260.1,4.16334e-17,0,8192,8192
260.153,4.16334e-17,0,8192,8192
260.203,2.77556e-17,0,8192,8192
260.252,5.55112e-17,0,8192,8192
260.302,5.55112e-17,0,8192,8192
260.352,2.77556e-17,0,8192,8192
260.402,1.38778e-17,0,8192,8192
260.452,1.38778e-17,0,8192,8192
260.501,1.38778e-17,0,8192,8192
260.551,1.38778e-17,0,8192,8192
260.601,1.38778e-17,0,8192,8192
260.651,2.77556e-17,0,8192,8192
260.701,2.77556e-17,0,8192,8192
260.75,2.77556e-17,0,8192,8192
260.8,2.77556e-17,0,8192,8192
260.853,2.77556e-17,0,8192,8192
260.903,2.77556e-17,0,8192,8192
260.952,2.77556e-17,0,8192,8192
261.002,2.77556e-17,0,8192,8192
261.052,4.16334e-17,0,8192,8192
261.102,1.38778e-17,0,8192,8192
261.152,1.38778e-17,0,8192,8192
261.201,1.38778e-17,0,8192,8192
261.251,2.77556e-17,0,8192,8192
261.301,2.77556e-17,0,8192,8192
261.351,2.77556e-17,0,8192,8192
261.401,2.77556e-17,0,8192,8192
261.45,2.77556e-17,0,8192,8192
261.5,4.16334e-17,0,8192,8192
261.55,2.77556e-17,0,8192,8192
261.603,0,0,8192,8192
261.653,2.77556e-17,0,8192,8192
261.702,4.16334e-17,0,8192,8192
261.752,2.77556e-17,0,8192,8192
261.802,0,0,8192,8192
261.852,0,0,8192,8192
261.902,0,0,8192,8192
261.951,0,0,8192,8192
262.001,0,0,8192,8192
262.051,0,0,8192,8192
262.101,0,0,8192,8192
262.151,0,0,8192,8192
262.2,0,0,8192,8192
262.25,0,0,8192,8192
262.303,0,0,8192,8192
262.353,-1.38778e-17,0,8192,8192
262.402,-1.38778e-17,0,8192,8192
262.452,-1.38778e-17,0,8192,8192
262.502,-1.38778e-17,0,8192,8192
262.552,-1.38778e-17,0,8192,8192
262.602,0,0,8192,8192
262.651,0,0,8192,8192
262.701,0,0,8192,8192
262.751,0,0,8192,8192
262.801,0,0,8192,8192
262.851,0,0,8192,8192
262.9,0,0,8192,8192
262.95,0,0,8192,8192
263,-1.38778e-17,0,8192,8192
263.053,-1.38778e-17,0,8192,8192
263.103,-4.16334e-17,0,8192,8192
263.152,-2.77556e-17,0,8192,8192
263.202,-2.77556e-17,0,8192,8192
263.252,-2.77556e-17,0,8192,8192
263.302,-2.77556e-17,0,8192,8192
263.352,-2.77556e-17,0,8192,8192
263.401,-2.77556e-17,0,8192,8192
263.451,-2.77556e-17,0,8192,8192
263.501,-1.38778e-17,0,8192,8192
263.551,-1.38778e-17,0,8192,8192
263.601,-2.77556e-17,0,8192,8192
263.65,-2.77556e-17,0,8192,8192
263.7,1.38778e-17,0,8192,8192
263.753,1.38778e-17,0,8192,8192
263.803,-1.38778e-17,0,8192,8192
263.852,-1.38778e-17,0,8192,8192
263.902,-1.38778e-17,0,8192,8192
263.952,-1.38778e-17,0,8192,8192
264.002,0,0,8192,8192
264.052,-2.77556e-17,0,8192,8192
264.101,-1.38778e-17,0,8192,8192
264.151,-4.16334e-17,0,8192,8192
264.201,0,0,8192,8192
264.251,-1.38778e-17,0,8192,8192
264.301,0,0,8192,8192
264.35,-1.38778e-17,0,8192,8192
264.4,0,0,8192,8192
264.45,0,0,8192,8192
264.503,0,0,8192,8192
264.553,0,0,8192,8192
264.602,0,0,8192,8192
264.652,0,0,8192,8192
264.702,1.38778e-17,0,8192,8192
264.752,0,0,8192,8192
264.802,0,0,8192,8192
264.851,0,0,8192,8192
264.901,-1.38778e-17,0,8192,8192
264.951,-1.38778e-17,0,8192,8192
265.001,-1.38778e-17,0,8192,8192
265.051,0,0,8192,8192
265.1,0,0,8192,8192
265.15,0,0,8192,8192
265.203,1.38778e-17,0,8192,8192
265.253,1.38778e-17,0,8192,8192
265.302,1.38778e-17,0,8192,8192
265.352,1.38778e-17,0,8192,8192
265.402,0,0,8192,8192
265.452,0,0,8192,8192
265.502,0,0,8192,8192
265.551,0,0,8192,8192
265.601,0,0,8192,8192
265.651,0,0,8192,8192
265.701,1.38778e-17,0,8192,8192
265.751,1.38778e-17,0,8192,8192
265.8,2.77556e-17,0,8192,8192
265.85,2.77556e-17,0,8192,8192
265.9,1.38778e-17,0,8192,8192
265.953,2.77556e-17,0,8192,8192
266.003,2.77556e-17,0,8192,8192
266.052,2.77556e-17,0,8192,8192
266.102,1.38778e-17,0,8192,8192
266.152,1.38778e-17,0,8192,8192
266.202,2.77556e-17,0,8192,8192
266.252,1.38778e-17,0,8192,8192
266.301,1.38778e-17,0,8192,8192
266.351,0,0,8192,8192
266.401,0,0,8192,8192
266.451,-1.38778e-17,0,8192,8192
266.501,0,0,8192,8192
266.55,0,0,8192,8192
266.6,0,0,8192,8192
266.653,0,0,8192,8192
266.703,1.38778e-17,0,8192,8192
266.752,0,0,8192,8192
266.802,2.77556e-17,0,8192,8192
266.852,2.77556e-17,0,8192,8192
266.902,1.38778e-17,0,8192,8192
266.952,1.38778e-17,0,8192,8192
267.001,0,0,8192,8192
267.051,0,0,8192,8192
267.101,0,0,8192,8192
267.151,1.38778e-17,0,8192,8192
267.201,2.77556e-17,0,8192,8192
267.25,2.77556e-17,0,8192,8192
267.3,4.16334e-17,0,8192,8192
267.353,4.16334e-17,0,8192,8192
267.403,6.93889e-17,0,8192,8192
267.453,6.93889e-17,0,8192,8192
267.502,5.55112e-17,0,8192,8192
267.552,2.77556e-17,0,8192,8192
267.602,2.77556e-17,0,8192,8192
267.652,2.77556e-17,0,8192,8192
267.702,1.38778e-17,0,8192,8192
267.751,1.38778e-17,0,8192,8192
267.801,1.38778e-17,0,8192,8192
267.851,2.77556e-17,0,8192,8192
267.901,1.38778e-17,0,8192,8192
267.95,1.38778e-17,0,8192,8192
268,1.38778e-17,0,8192,8192
268.05,2.77556e-17,0,8192,8192
268.103,2.77556e-17,0,8192,8192
268.153,1.38778e-17,0,8192,8192
268.202,1.38778e-17,0,8192,8192
268.252,1.38778e-17,0,8192,8192
268.302,1.38778e-17,0,8192,8192
268.352,1.38778e-17,0,8192,8192
268.402,1.38778e-17,0,8192,8192
268.451,2.77556e-17,0,8192,8192
268.501,2.77556e-17,0,8192,8192
268.551,4.16334e-17,0,8192,8192
268.601,2.77556e-17,0,8192,8192
268.651,2.77556e-17,0,8192,8192
268.7,4.16334e-17,0,8192,8192
268.75,2.77556e-17,0,8192,8192
268.803,2.77556e-17,0,8192,8192
268.853,4.16334e-17,0,8192,8192
268.902,4.16334e-17,0,8192,8192
268.952,4.16334e-17,0,8192,8192
269.002,4.16334e-17,0,8192,8192
269.052,4.16334e-17,0,8192,8192
269.102,2.77556e-17,0,8192,8192
269.151,2.77556e-17,0,8192,8192
269.201,2.77556e-17,0,8192,8192
269.251,1.38778e-17,0,8192,8192
269.301,1.38778e-17,0,8192,8192
269.351,1.38778e-17,0,8192,8192
269.4,1.38778e-17,0,8192,8192
269.45,1.38778e-17,0,8192,8192
269.5,1.38778e-17,0,8192,8192
269.553,1.38778e-17,0,8192,8192
269.603,0,0,8192,8192
269.652,-2.77556e-17,0,8192,8192
269.702,-5.55112e-17,0,8192,8192
269.752,-4.16334e-17,0,8192,8192
269.802,-2.77556e-17,0,8192,8192
269.852,-2.77556e-17,0,8192,8192
269.901,-2.77556e-17,0,8192,8192
269.951,0,0,8192,8192
270.001,0,0,8192,8192
270.051,0,0,8192,8192
270.101,0,0,8192,8192
270.15,0,0,8192,8192
270.2,0,0,8192,8192
270.253,0,0,8192,8192
270.303,-1.38778e-17,0,8192,8192
270.352,-1.38778e-17,0,8192,8192
270.402,-1.38778e-17,0,8192,8192
270.452,-2.77556e-17,0,8192,8192
270.502,-2.77556e-17,0,8192,8192
270.552,-4.16334e-17,0,8192,8192
270.601,-2.77556e-17,0,8192,8192
270.651,-2.77556e-17,0,8192,8192
270.701,-2.77556e-17,0,8192,8192
270.751,-2.77556e-17,0,8192,8192
270.801,-1.38778e-17,0,8204,8204
270.85,-1.38778e-17,0,8300,8300
270.901,-1.38778e-17,0,8412,8412
270.951,-1.38778e-17,0,8508,8508
271.001,-1.38778e-17,0,8612,8612
271.051,-1.38778e-17,0,8716,8716
271.101,-1.38778e-17,0,8828,8828
271.15,-1.38778e-17,0,8932,8932
271.2,-1.38778e-17,0,9036,9036
271.25,-1.38778e-17,0,9148,9148
271.301,-1.38778e-17,0,9252,9252
271.351,-1.38778e-17,0,9372,9372
271.401,-1.38778e-17,0,9424,9424
271.451,-1.38778e-17,0,9432,9432
271.5,-1.38778e-17,0,9416,9416
271.55,-1.38778e-17,0,9416,9416
271.6,-1.38778e-17,0,9432,9432
271.651,-1.38778e-17,0,9408,9408
271.701,-1.38778e-17,0,9432,9432
271.751,-1.38778e-17,0,9408,9408
271.801,-1.38778e-17,0,9408,9408
271.85,-1.38778e-17,0,9416,9416
271.9,-1.38778e-17,0,9400,9400
271.95,-1.38778e-17,0,9396,9396
272.001,-1.38778e-17,0,9492,9492
272.051,-1.38778e-17,0,9588,9588
272.101,0,0,9692,9692
272.151,0,0,9796,9796
272.201,0,0,9884,9884
272.25,0,0,9972,9972
272.3,0,0,10108,10108
272.351,-1.38778e-17,0,10220,10220
272.401,-1.38778e-17,0,10316,10316
272.451,0,0,10412,10412
272.501,0,0,10500,10500
272.551,0,0,10628,10628
272.6,0,0,10732,10732
272.65,0,0,10852,10852
272.701,0,0,10908,10908
272.751,0,0,10928,10928
272.801,0,0,10936,10936
272.851,0,0,10904,10904
272.901,0,0,10920,10920
272.95,-1.38778e-17,0,10928,10928
273,-1.38778e-17,0,10912,10912
273.05,-1.38778e-17,0,10912,10912
273.101,0,0,10888,10888
273.151,0,0,10888,10888
273.201,0,0,10880,10880
273.251,0,0,10896,10896
273.3,0,0,10864,10864
273.35,0,0,10864,10864
273.4,0,0,10848,10848
273.451,-1.38778e-17,0,10856,10856
273.501,-1.38778e-17,0,10824,10824
273.551,-1.38778e-17,0,10824,10824
273.601,0,0,10808,10808
273.651,0,0,10808,10808
273.7,0,0,10816,10816
273.75,0,0,10800,10800
273.801,0,0,10800,10800
273.851,-1.38778e-17,0,10784,10784
273.901,-1.38778e-17,0,10784,10784
273.951,-1.38778e-17,0,10784,10784
274.001,0,0,10792,10792
274.05,0,0,10768,10768
274.1,0,0,10760,10760
274.151,0,0,10744,10744
274.201,0,0,10776,10776
274.251,-1.38778e-17,0,10760,10760
274.301,-1.38778e-17,0,10728,10728
274.351,-1.38778e-17,0,10752,10752
274.401,-1.38778e-17,0,10760,10760
274.451,0,0,10744,10744
274.501,0,0,10784,10784
274.55,0,0,10856,10856
274.601,0,0,10896,10896
274.65,-1.38778e-17,0,10896,10896
274.701,-5.55112e-17,0,10904,10904
274.751,-4.16334e-16,0,10888,10888
274.8,-7.91034e-16,0,10872,10872
274.85,-1.19349e-15,0,10848,10848
274.901,-1.59595e-15,0,10832,10832
274.951,-2.23432e-15,0,10840,10840
275.001,-4.81559e-15,0,10808,10808
275.05,-1.60705e-14,0,10832,10832
275.101,-6.17284e-14,0,10808,10808
275.15,-2.1276e-13,0,10800,10800
275.2,-6.60305e-13,0,10808,10808
275.251,-1.89088e-12,0,10792,10792
275.301,-4.69363e-12,0,10792,10792
275.351,-1.04638e-11,0,10768,10768
275.401,-2.09815e-11,0,10744,10744
275.45,-3.72408e-11,0,10736,10736
275.501,-6.07355e-11,0,10720,10720
275.552,-8.91112e-11,0,10736,10736
275.601,-1.16535e-10,0,10704,10704
275.65,-1.37123e-10,0,10704,10704
275.7,-1.44103e-10,0,10704,10704
275.751,-1.3276e-10,0,10680,10680
275.801,-1.04636e-10,0,10688,10688
275.852,-6.54514e-11,0,10696,10696
275.9,-2.48254e-11,0,10656,10656
275.951,1.26259e-11,0,10680,10680
276.002,4.14974e-11,0,10632,10632
276.051,6.11981e-11,0,10640,10640
276.1,7.4961e-11,0,10632,10632
276.151,8.54094e-11,0,10632,10632
276.201,9.31315e-11,0,10608,10608
276.251,9.87653e-11,0,10592,10592
276.301,1.02487e-10,0,10592,10592
276.351,1.05055e-10,0,10584,10584
276.4,1.07493e-10,0,10576,10576
276.451,1.10649e-10,0,10568,10568
276.5,1.14084e-10,0,10560,10560
276.551,1.17126e-10,0,10552,10552
276.601,1.18893e-10,0,10536,10536
276.65,1.19677e-10,0,10536,10536
276.7,1.2038e-10,0,10528,10528
276.75,1.21854e-10,0,10528,10528
276.8,1.24126e-10,0,10520,10520
276.851,1.26422e-10,0,10512,10512
276.901,1.28136e-10,0,10504,10504
276.95,1.30111e-10,0,10528,10528
277.001,1.3614e-10,0,10488,10488
277.051,1.53563e-10,0,10496,10496
277.1,1.97961e-10,0,10488,10488
277.15,3.00096e-10,0,10480,10480
277.202,5.27471e-10,0,10488,10488
277.25,9.38438e-10,0,10480,10480
277.3,1.69086e-09,0,10472,10472
277.351,2.91763e-09,0,10464,10464
277.402,4.74812e-09,0,10456,10456
277.451,7.15949e-09,0,10448,10448
277.5,1.02125e-08,0,10440,10440
277.551,1.39917e-08,0,10432,10432
277.601,1.81284e-08,0,10424,10424
277.651,2.267e-08,0,10408,10408
277.701,2.7616e-08,0,10416,10416
277.751,3.30676e-08,0,10400,10400
277.802,3.9259e-08,0,10408,10408
277.85,4.6246e-08,0,10408,10408
277.9,5.49818e-08,0,10392,10392
277.951,6.56912e-08,0,10400,10400
278.001,7.88628e-08,0,10416,10416
278.05,9.43239e-08,0,10384,10384
278.101,1.1369e-07,0,10376,10376
278.152,1.36787e-07,0,10376,10376
278.2,1.62772e-07,0,10376,10376
278.251,1.93651e-07,0,10376,10376
278.3,2.26921e-07,0,10384,10384
278.351,2.64648e-07,0,10376,10376
278.401,3.03352e-07,0,10368,10368
278.452,3.45144e-07,0,10368,10368
278.501,3.8603e-07,0,10336,10336
278.551,4.44647e-07,0,10344,10344
278.6,5.25074e-07,0,10360,10360
278.652,6.01778e-07,0,10360,10360
278.701,6.69831e-07,0,10336,10336
278.751,7.33654e-07,0,10320,10320
278.801,7.92548e-07,0,10344,10344
278.851,8.45002e-07,0,10328,10328
278.901,8.89559e-07,0,10304,10304
278.951,9.25466e-07,0,10392,10392
279.001,9.5235e-07,0,10504,10504
279.051,9.68906e-07,0,10504,10504
279.101,9.76153e-07,0,10560,10560
279.151,9.8011e-07,0,10556,10556
279.202,9.80334e-07,0,10484,10484
279.25,9.76681e-07,0,10444,10444
279.301,9.6857e-07,0,10444,10444
279.351,9.55886e-07,0,10420,10420
279.4,9.39421e-07,0,10452,10452
279.451,9.17907e-07,0,10484,10484
279.502,8.92347e-07,0,10476,10476
279.551,8.64711e-07,0,10444,10444
279.602,8.33479e-07,0,10412,10412
279.651,8.01632e-07,0,10244,10244
279.7,7.68088e-07,0,10172,10172
279.751,7.04686e-07,0,10196,10196
279.801,6.44495e-07,0,10116,10116
279.851,5.98799e-07,0,10108,10108
279.9,5.61229e-07,0,10044,10044
279.95,5.2929e-07,0,10012,10012
280,5.01713e-07,0,10076,10076
280.051,4.78501e-07,0,9996,9996
280.101,4.61641e-07,0,9488,9488
280.152,4.48209e-07,0,9016,9016
280.202,4.44136e-07,0,8344,8344
280.252,4.42674e-07,0,8208,8208
280.302,4.47793e-07,0,8252,8252
280.353,4.58918e-07,0,8436,8436
280.401,4.75088e-07,0,8708,8708
280.451,4.95492e-07,0,8708,8708
280.501,5.20296e-07,0,8740,8740
280.551,5.50731e-07,0,8996,8996
280.601,5.89345e-07,0,9228,9228
280.65,6.33051e-07,0,9364,9364
280.701,6.81484e-07,0,9524,9524
280.751,7.37111e-07,0,9556,9556
280.801,7.87554e-07,0,9604,9604
280.851,8.30251e-07,0,9604,9604
280.901,8.63922e-07,0,9652,9652
280.951,8.89688e-07,0,9668,9668
281,9.09538e-07,0,9700,9700
281.052,9.16711e-07,0,9692,9692
281.101,9.17707e-07,0,9748,9748
281.151,9.12355e-07,0,9796,9796
281.2,9.01582e-07,0,9876,9876
281.251,8.85349e-07,0,9940,9940
281.301,8.65616e-07,0,10004,10004
281.352,8.411e-07,0,10068,10068
281.401,8.13636e-07,0,10132,10132
281.452,7.81771e-07,0,10188,10188
281.501,7.48593e-07,0,10276,10276
281.552,7.10489e-07,0,10332,10332
281.6,6.6511e-07,0,10204,10204
281.651,6.19717e-07,0,10188,10188
281.702,5.71186e-07,0,10172,10172
281.75,5.20427e-07,0,10080,10080
281.801,4.62335e-07,0,10072,10072
281.851,3.99622e-07,0,10032,10032
281.901,3.36879e-07,0,10040,10040
281.952,2.7961e-07,0,10072,10072
282.002,2.29742e-07,0,10104,10104
282.05,1.87667e-07,0,10088,10088
282.1,1.48444e-07,0,10120,10120
282.152,1.11576e-07,0,10120,10120
282.202,7.94548e-08,0,10128,10128
282.252,5.079e-08,0,10136,10136
282.301,2.57993e-08,0,10160,10160
282.351,4.21717e-09,0,10144,10144
282.401,-1.38679e-08,0,10152,10152
282.45,-2.7602e-08,0,10160,10160
282.501,-4.08207e-08,0,10152,10152
282.551,-5.18738e-08,0,10152,10152
282.6,-5.88075e-08,0,10168,10168
282.651,-6.53959e-08,0,10128,10128
282.7,-7.05612e-08,0,10136,10136
282.751,-7.4552e-08,0,10160,10160
282.8,-7.72221e-08,0,10152,10152
282.851,-7.89344e-08,0,10128,10128
282.9,-7.97459e-08,0,10136,10136
282.951,-7.98617e-08,0,10152,10152
283.001,-7.93025e-08,0,10136,10136
283.05,-7.81773e-08,0,10136,10136
283.101,-7.64062e-08,0,10136,10136
283.151,-7.4067e-08,0,10128,10128
283.201,-7.1209e-08,0,10136,10136
283.252,-6.79094e-08,0,10136,10136
283.3,-6.44234e-08,0,10120,10120
283.35,-6.0591e-08,0,10112,10112
283.4,-5.66677e-08,0,10120,10120
283.452,-5.26214e-08,0,10136,10136
283.501,-4.8821e-08,0,10120,10120
283.551,-4.51881e-08,0,10096,10096
283.602,-4.16423e-08,0,10144,10144
283.651,-3.84655e-08,0,10120,10120
283.701,-3.54418e-08,0,10128,10128
283.75,-3.27879e-08,0,10128,10128
283.8,-3.03058e-08,0,10104,10104
283.85,-2.8094e-08,0,10112,10112
283.9,-2.61469e-08,0,10112,10112
283.952,-2.4403e-08,0,10080,10080
284.001,-2.29679e-08,0,10120,10120
284.05,-2.17595e-08,0,10120,10120
284.101,-2.07275e-08,0,10112,10112
284.15,-1.99224e-08,0,10096,10096
284.201,-1.92671e-08,0,10128,10128
284.251,-1.87732e-08,0,10096,10096
284.301,-1.84188e-08,0,10120,10120
284.351,-1.81862e-08,0,10112,10112
284.401,-1.806e-08,0,10144,10144
284.451,-1.80235e-08,0,10128,10128
284.5,-1.80603e-08,0,10128,10128
284.551,-1.81616e-08,0,10128,10128
284.6,-1.83094e-08,0,10128,10128
284.651,-1.85047e-08,0,10128,10128
284.701,-1.87334e-08,0,10120,10120
284.751,-1.89862e-08,0,10112,10112
284.801,-1.9257e-08,0,10104,10104
284.851,-1.95409e-08,0,10128,10128
284.901,-1.98336e-08,0,10128,10128
284.95,-2.0132e-08,0,10104,10104
285.001,-2.0443e-08,0,10112,10112
285.051,-2.07432e-08,0,10112,10112
285.101,-2.10496e-08,0,10112,10112
285.15,-2.1341e-08,0,10112,10112
285.2,-2.16362e-08,0,10104,10104
285.25,-2.19249e-08,0,10136,10136
285.3,-2.22064e-08,0,10136,10136
285.35,-2.24802e-08,0,10136,10136
285.401,-2.27552e-08,0,10152,10152
285.451,-2.30158e-08,0,10152,10152
285.5,-2.32728e-08,0,10128,10128
285.551,-2.35363e-08,0,10136,10136
285.601,-2.38004e-08,0,10144,10144
285.65,-2.406e-08,0,10144,10144
285.7,-2.43349e-08,0,10152,10152
285.75,-2.46194e-08,0,10136,10136
285.8,-2.49163e-08,0,10160,10160
285.85,-2.52285e-08,0,10144,10144
285.901,-2.55704e-08,0,10152,10152
285.951,-2.59251e-08,0,10104,10104
286.001,-2.63181e-08,0,10136,10136
286.05,-2.67268e-08,0,10136,10136
286.101,-2.71758e-08,0,10144,10144
286.151,-2.76504e-08,0,10104,10104
286.201,-2.81474e-08,0,10144,10144
286.251,-2.86635e-08,0,10136,10136
286.301,-2.91942e-08,0,10136,10136
286.351,-2.97345e-08,0,10160,10160
286.4,-3.0279e-08,0,10144,10144
286.451,-3.08402e-08,0,10120,10120
286.5,-3.13822e-08,0,10128,10128
286.551,-3.19358e-08,0,10144,10144
286.601,-3.24822e-08,0,10144,10144
286.651,-3.30186e-08,0,10168,10168
286.7,-3.35271e-08,0,10112,10112
286.751,-3.40514e-08,0,10176,10176
286.801,-3.45446e-08,0,10144,10144
286.851,-3.50211e-08,0,10152,10152
286.901,-3.54782e-08,0,10136,10136
286.951,-3.5913e-08,0,10120,10120
287,-3.63227e-08,0,10136,10136
287.05,-3.67057e-08,0,10120,10120
287.1,-3.7061e-08,0,10120,10120
287.151,-3.73978e-08,0,10104,10104
287.201,-3.76971e-08,0,10120,10120
287.251,-3.79706e-08,0,10096,10096
287.301,-3.82211e-08,0,10088,10088
287.35,-3.84524e-08,0,10112,10112
287.4,-3.86681e-08,0,10128,10128
287.45,-3.88714e-08,0,10072,10072
287.501,-3.90711e-08,0,10112,10112
287.551,-3.92593e-08,0,10088,10088
287.601,-3.94457e-08,0,10080,10080
287.651,-3.96342e-08,0,10120,10120
287.701,-3.98277e-08,0,10080,10080
287.75,-4.00288e-08,0,10056,10056
287.8,-4.02403e-08,0,10080,10080
287.851,-4.04722e-08,0,10056,10056
287.901,-4.07144e-08,0,10072,10072
287.951,-4.09759e-08,0,10080,10080
288.001,-4.12581e-08,0,10088,10088
288.051,-4.15613e-08,0,10040,10040
288.1,-4.18855e-08,0,10056,10056
288.15,-4.223e-08,0,10064,10064
288.201,-4.26039e-08,0,10072,10072
288.251,-4.2983e-08,0,10024,10024
288.301,-4.33735e-08,0,10024,10024
288.351,-4.3771e-08,0,10048,10048
288.401,-4.41711e-08,0,10032,10032
288.45,-4.45698e-08,0,10032,10032
288.5,-4.49634e-08,0,9900,9900
288.551,-4.53596e-08,0,9804,9804
288.601,-4.57321e-08,0,9684,9684
288.651,-4.60892e-08,0,9680,9680
288.701,-4.64284e-08,0,9648,9648
288.751,-4.67474e-08,0,9664,9664
288.8,-4.70445e-08,0,9664,9664
288.85,-4.73176e-08,0,9664,9664
288.9,-4.75644e-08,0,9664,9664
288.951,-4.77884e-08,0,9680,9680
289.001,-4.79748e-08,0,9664,9664
289.051,-4.81286e-08,0,9664,9664
289.101,-4.82488e-08,0,9648,9648
289.15,-4.83351e-08,0,9632,9632
289.2,-4.83876e-08,0,9648,9648
289.25,-4.84067e-08,0,9632,9632
289.301,-4.83926e-08,0,9632,9632
289.351,-4.83481e-08,0,9632,9632
289.401,-4.82755e-08,0,9632,9632
289.451,-4.81778e-08,0,9580,9580
289.501,-4.80578e-08,0,9460,9460
289.55,-4.79184e-08,0,9356,9356
289.6,-4.77618e-08,0,9236,9236
289.651,-4.75852e-08,0,9116,9116
289.701,-4.74009e-08,0,9012,9012
289.751,-4.72062e-08,0,8900,8900
289.801,-4.70033e-08,0,8764,8764
289.851,-4.67944e-08,0,8660,8660
289.9,-4.65813e-08,0,8540,8540
289.95,-4.63653e-08,0,8436,8436
290.002,-4.61404e-08,0,8348,8348
290.051,-4.59222e-08,0,8292,8292
290.101,-4.57037e-08,0,8236,8236
290.152,-4.54798e-08,0,8192,8192
290.202,-4.52629e-08,0,8192,8192
290.252,-4.50481e-08,0,8192,8192
290.302,-4.48362e-08,0,8192,8192
290.351,-4.46277e-08,0,8192,8192
290.401,-4.44228e-08,0,8192,8192
290.451,-4.42213e-08,0,8192,8192
290.501,-4.40233e-08,0,8192,8192
290.551,-4.38283e-08,0,8192,8192
290.6,-4.36361e-08,0,8192,8192
290.65,-4.34467e-08,0,8192,8192
290.703,-4.32489e-08,0,8192,8192
290.753,-4.30649e-08,0,8192,8192
290.802,-4.28836e-08,0,8192,8192
290.852,-4.27047e-08,0,8192,8192
290.902,-4.2528e-08,0,8192,8192
290.952,-4.23532e-08,0,8192,8192
291.002,-4.21795e-08,0,8192,8192
291.051,-4.20061e-08,0,8192,8192
291.101,-4.18324e-08,0,8192,8192
291.151,-4.16578e-08,0,8192,8192
291.201,-4.14817e-08,0,8192,8192
291.251,-4.13036e-08,0,8192,8192
291.3,-4.11232e-08,0,8192,8192
291.35,-4.09399e-08,0,8192,8192
291.4,-4.07533e-08,0,8192,8192
291.453,-4.05516e-08,0,8192,8192
291.503,-4.03566e-08,0,8192,8192
291.552,-4.01565e-08,0,8192,8192
291.602,-3.99508e-08,0,8192,8192
291.652,-3.97385e-08,0,8192,8192
291.702,-3.95191e-08,0,8192,8192
291.752,-3.92917e-08,0,8192,8192
291.801,-3.90555e-08,0,8192,8192
291.851,-3.88096e-08,0,8192,8192
291.901,-3.85531e-08,0,8192,8192
291.951,-3.82848e-08,0,8192,8192
292.001,-3.8003e-08,0,8192,8192
292.05,-3.77064e-08,0,8192,8192
292.1,-3.73931e-08,0,8192,8192
292.153,-3.70411e-08,0,8192,8192
292.203,-3.66874e-08,0,8192,8192
292.252,-3.63113e-08,0,8192,8192
292.302,-3.59109e-08,0,8192,8192
292.352,-3.54842e-08,0,8192,8192
292.402,-3.50294e-08,0,8192,8192
292.452,-3.45445e-08,0,8192,8192
292.501,-3.40275e-08,0,8192,8192
292.551,-3.34763e-08,0,8192,8192
292.601,-3.2889e-08,0,8192,8192
292.651,-3.22642e-08,0,8192,8192
292.701,-3.16012e-08,0,8192,8192
292.75,-3.09005e-08,0,8192,8192
292.8,-3.01639e-08,0,8192,8192
292.853,-2.93486e-08,0,8192,8192
292.903,-2.85496e-08,0,8192,8192
292.953,-2.77278e-08,0,8192,8192
293.002,-2.68887e-08,0,8192,8192
293.052,-2.60376e-08,0,8192,8192
293.102,-2.51797e-08,0,8192,8192
293.152,-2.43193e-08,0,8192,8192
293.202,-2.34606e-08,0,8192,8192
293.251,-2.26073e-08,0,8192,8192
293.301,-2.17627e-08,0,8192,8192
293.351,-2.09298e-08,0,8192,8192
293.401,-2.01115e-08,0,8192,8192
293.45,-1.93106e-08,0,8192,8192
293.5,-1.85295e-08,0,8192,8192
293.55,-1.77709e-08,0,8192,8192
293.603,-1.69951e-08,0,8192,8192
293.653,-1.62909e-08,0,8192,8192
293.702,-1.5617e-08,0,8192,8192
293.752,-1.49751e-08,0,8192,8192
293.802,-1.43662e-08,0,8192,8192
293.852,-1.379e-08,0,8192,8192
293.902,-1.32451e-08,0,8192,8192
293.951,-1.27289e-08,0,8192,8192
294.001,-1.22382e-08,0,8192,8192
294.051,-1.17694e-08,0,8192,8192
294.101,-1.13184e-08,0,8192,8192
294.151,-1.08811e-08,0,8192,8192
294.2,-1.04532e-08,0,8192,8192
294.25,-1.00306e-08,0,8192,8192
294.303,-9.58437e-09,0,8192,8192
294.353,-9.16008e-09,0,8192,8192
294.402,-8.72914e-09,0,8192,8192
294.452,-8.28796e-09,0,8192,8192
294.502,-7.83317e-09,0,8192,8192
294.552,-7.36174e-09,0,8192,8192
294.602,-6.87112e-09,0,8192,8192
294.651,-6.35929e-09,0,8192,8192
294.701,-5.825e-09,0,8192,8192
294.751,-5.2678e-09,0,8192,8192
294.801,-4.68821e-09,0,8192,8192
294.851,-4.0877e-09,0,8192,8192
294.9,-3.46872e-09,0,8192,8192
294.95,-2.83453e-09,0,8192,8192
295,-2.18907e-09,0,8192,8192
295.053,-1.49818e-09,0,8192,8192
295.103,-8.43375e-10,0,8192,8192
295.152,-1.90884e-10,0,8192,8192
295.202,4.55021e-10,0,8192,8192
295.252,1.09034e-09,0,8192,8192
295.302,1.71139e-09,0,8192,8192
295.352,2.31472e-09,0,8192,8192
295.401,2.89714e-09,0,8192,8192
295.451,3.45564e-09,0,8192,8192
295.501,3.98732e-09,0,8192,8192
295.551,4.48939e-09,0,8192,8192
295.601,4.9591e-09,0,8192,8192
295.65,5.3937e-09,0,8192,8192
295.7,5.79043e-09,0,8192,8192
295.753,6.16615e-09,0,8192,8192
295.803,6.47617e-09,0,8192,8192
295.852,6.73995e-09,0,8192,8192
295.902,6.95523e-09,0,8192,8192
295.952,7.12064e-09,0,8192,8192
296.002,7.23631e-09,0,8192,8192
296.052,7.30433e-09,0,8192,8192
296.101,7.32891e-09,0,8192,8192
296.151,7.31595e-09,0,8192,8192
296.201,7.27218e-09,0,8192,8192
296.251,7.20424e-09,0,8192,8192
296.301,7.11792e-09,0,8192,8192
296.35,7.01783e-09,0,8192,8192
296.4,6.90751e-09,0,8192,8192
296.45,6.78966e-09,0,8192,8192
296.503,6.65913e-09,0,8192,8192
296.553,6.53243e-09,0,8192,8192
296.602,6.40415e-09,0,8192,8192
296.652,6.27583e-09,0,8192,8192
296.702,6.14893e-09,0,8192,8192
296.752,6.02491e-09,0,8192,8192
296.802,5.90548e-09,0,8192,8192
296.851,5.79271e-09,0,8192,8192
296.901,5.68899e-09,0,8192,8192
296.951,5.59671e-09,0,8192,8192
297.001,5.51771e-09,0,8192,8192
297.051,5.45281e-09,0,8192,8192
297.1,5.40151e-09,0,8192,8192
297.15,5.36227e-09,0,8192,8192
297.203,5.33151e-09,0,8192,8192
297.253,5.31048e-09,0,8192,8192
297.302,5.29559e-09,0,8192,8192
297.352,5.28579e-09,0,8192,8192
297.402,5.28051e-09,0,8192,8192
297.452,5.27945e-09,0,8192,8192
297.502,5.28243e-09,0,8192,8192
297.551,5.28923e-09,0,8192,8192
297.601,5.29944e-09,0,8192,8192
297.651,5.31241e-09,0,8192,8192
297.701,5.32719e-09,0,8192,8192
297.751,5.34253e-09,0,8192,8192
297.8,5.35686e-09,0,8192,8192
297.85,5.36844e-09,0,8192,8192
297.9,5.37538e-09,0,8192,8192
297.953,5.37572e-09,0,8192,8192
298.003,5.36788e-09,0,8192,8192
298.052,5.35125e-09,0,8192,8192
298.102,5.32582e-09,0,8192,8192
298.152,5.29242e-09,0,8192,8192
298.202,5.25266e-09,0,8192,8192
298.252,5.20859e-09,0,8192,8192
298.301,5.16239e-09,0,8192,8192
298.351,5.11602e-09,0,8192,8192
298.401,5.07095e-09,0,8192,8192
298.451,5.02817e-09,0,8192,8192
298.501,4.98813e-09,0,8192,8192
298.55,4.95097e-09,0,8192,8192
298.6,4.91659e-09,0,8192,8192
298.653,4.88304e-09,0,8192,8192
298.703,4.85395e-09,0,8192,8192
298.752,4.82742e-09,0,8192,8192
298.802,4.80376e-09,0,8192,8192
298.852,4.78349e-09,0,8192,8192
298.902,4.76738e-09,0,8192,8192
298.952,4.75628e-09,0,8192,8192
299.001,4.7509e-09,0,8192,8192
299.051,4.75165e-09,0,8192,8192
299.101,4.75838e-09,0,8192,8192
299.151,4.77039e-09,0,8192,8192
299.201,4.78646e-09,0,8192,8192
299.25,4.80509e-09,0,8192,8192
299.3,4.82472e-09,0,8192,8192
299.35,4.844e-09,0,8192,8192
299.403,4.86289e-09,0,8192,8192
299.453,4.87863e-09,0,8192,8192
299.502,4.89202e-09,0,8192,8192
299.552,4.90304e-09,0,8192,8192
299.602,4.91177e-09,0,8192,8192
299.652,4.91837e-09,0,8192,8192
299.702,4.92297e-09,0,8192,8192
299.751,4.92564e-09,0,8192,8192
299.801,4.92645e-09,0,8192,8192
299.851,4.9254e-09,0,8192,8192
299.901,4.92251e-09,0,8192,8192
299.951,4.91779e-09,0,8192,8192
300,4.91128e-09,0,8192,8192
300.05,4.90302e-09,0,8192,8192
300.103,4.89241e-09,0,8192,8192
300.153,4.88065e-09,0,8192,8192
300.202,4.8672e-09,0,8192,8192
300.252,4.85206e-09,0,8192,8192
300.302,4.8352e-09,0,8192,8192
300.352,4.81658e-09,0,8192,8192
300.402,4.79618e-09,0,8192,8192
300.451,4.774e-09,0,8192,8192
300.501,4.75003e-09,0,8192,8192
300.551,4.72429e-09,0,8192,8192
300.601,4.69682e-09,0,8192,8192
300.651,4.66767e-09,0,8192,8192
300.7,4.63693e-09,0,8192,8192
300.75,4.60468e-09,0,8192,8192
300.803,4.56901e-09,0,8192,8192
300.853,4.534e-09,0,8192,8192
300.903,4.49783e-09,0,8192,8192
300.952,4.46065e-09,0,8192,8192
301.002,4.42258e-09,0,8192,8192
301.052,4.38376e-09,0,8192,8192
301.102,4.34432e-09,0,8192,8192
301.152,4.30437e-09,0,8192,8192
301.201,4.26402e-09,0,8192,8192
301.251,4.22338e-09,0,8192,8192
301.301,4.18252e-09,0,8192,8192
301.351,4.14151e-09,0,8192,8192
301.4,4.1004e-09,0,8192,8192
301.45,4.05923e-09,0,8192,8192
301.5,4.01802e-09,0,8192,8192
301.553,3.97436e-09,0,8192,8192
301.603,3.9331e-09,0,8192,8192
301.652,3.89181e-09,0,8192,8192
301.702,3.85047e-09,0,8192,8192
301.752,3.80907e-09,0,8192,8192
301.802,3.76757e-09,0,8192,8192
301.852,3.72595e-09,0,8192,8192
301.901,3.68418e-09,0,8192,8192
301.951,3.64222e-09,0,8192,8192
302.001,3.60004e-09,0,8192,8192
302.051,3.5576e-09,0,8192,8192
302.101,3.51486e-09,0,8192,8192
302.15,3.4718e-09,0,8192,8192
302.2,3.42838e-09,0,8192,8192
302.253,3.38199e-09,0,8192,8192
302.303,3.33776e-09,0,8192,8192
302.353,3.29311e-09,0,8192,8192
302.402,3.24802e-09,0,8192,8192
302.452,3.20249e-09,0,8192,8192
302.502,3.15651e-09,0,8192,8192
302.552,3.1101e-09,0,8192,8192
302.601,3.06325e-09,0,8192,8192
302.651,3.01598e-09,0,8192,8192
302.701,2.96831e-09,0,8192,8192
302.751,2.92026e-09,0,8192,8192
302.801,2.87186e-09,0,8192,8192
302.85,2.82315e-09,0,8192,8192
302.9,2.77415e-09,0,8192,8192
302.95,2.72491e-09,0,8192,8192
303.003,2.67256e-09,0,8192,8192
303.053,2.62296e-09,0,8192,8192
303.102,2.57326e-09,0,8192,8192
303.152,2.52351e-09,0,8192,8192
303.202,2.47378e-09,0,8192,8192
303.252,2.4241e-09,0,8192,8192
303.302,2.37454e-09,0,8192,8192
303.351,2.32515e-09,0,8192,8192
303.401,2.27597e-09,0,8192,8192
303.451,2.22707e-09,0,8192,8192
303.501,2.17847e-09,0,8192,8192
303.551,2.13022e-09,0,8192,8192
303.6,2.08234e-09,0,8192,8192
303.65,2.03487e-09,0,8192,8192
303.703,1.98506e-09,0,8192,8192
303.753,1.93848e-09,0,8192,8192
303.802,1.89235e-09,0,8192,8192
303.852,1.84667e-09,0,8192,8192
303.902,1.80146e-09,0,8192,8192
303.952,1.7567e-09,0,8192,8192
304.002,1.71241e-09,0,8192,8192
304.051,1.66856e-09,0,8192,8192
304.101,1.62515e-09,0,8192,8192
304.151,1.58218e-09,0,8192,8192
304.201,1.53963e-09,0,8192,8192
304.251,1.49749e-09,0,8192,8192
304.3,1.45573e-09,0,8192,8192
304.35,1.41435e-09,0,8192,8192
304.4,1.37333e-09,0,8192,8192
304.453,1.33026e-09,0,8192,8192
304.503,1.28992e-09,0,8192,8192
304.552,1.24989e-09,0,8192,8192
304.602,1.21014e-09,0,8192,8192
304.652,1.17068e-09,0,8192,8192
304.702,1.13148e-09,0,8192,8192
304.752,1.09254e-09,0,8192,8192
304.801,1.05385e-09,0,8192,8192
304.851,1.0154e-09,0,8192,8192
304.901,9.77194e-10,0,8192,8192
304.951,9.39225e-10,0,8192,8192
