250,0,0,8192,8192
250.003,0,0,8192,8192
250.053,0,0,8192,8192
250.103,0,0,8192,8192
250.152,0,0,8192,8192
250.202,0,0,8192,8192
250.252,2.77556e-17,0,8192,8192
250.302,0,0,8192,8192
250.352,0,0,8192,8192
250.401,0,0,8192,8192
250.451,0,0,8192,8192
250.501,0,0,8192,8192
250.551,0,0,8192,8192
250.6,0,0,8192,8192
250.65,2.77556e-17,0,8192,8192
250.7,0,0,8192,8192
250.753,0,0,8192,8192
250.803,0,0,8192,8192
250.852,0,0,8192,8192
250.902,2.77556e-17,0,8192,8192
250.952,0,0,8192,8192
251.002,2.77556e-17,0,8192,8192
251.052,2.77556e-17,0,8192,8192
251.101,2.77556e-17,0,8192,8192
251.151,2.77556e-17,0,8192,8192
251.201,2.77556e-17,0,8192,8192
251.251,2.77556e-17,0,8192,8192
251.301,2.77556e-17,0,8192,8192
251.35,2.77556e-17,0,8192,8192
251.4,0,0,8192,8192
251.453,-2.77556e-17,0,8192,8192
251.503,-2.77556e-17,0,8192,8192
251.553,2.77556e-17,0,8192,8192
251.602,2.77556e-17,0,8192,8192
251.652,2.77556e-17,0,8192,8192
251.702,5.55112e-17,0,8192,8192
251.752,5.55112e-17,0,8192,8192
251.801,5.55112e-17,0,8192,8192
251.851,5.55112e-17,0,8192,8192
251.901,5.55112e-17,0,8192,8192
251.951,5.55112e-17,0,8192,8192
252.001,2.77556e-17,0,8192,8192
252.05,2.77556e-17,0,8192,8192
252.1,2.77556e-17,0,8192,8192
252.15,-2.77556e-17,0,8192,8192
252.203,-2.77556e-17,0,8192,8192
252.253,-5.55112e-17,0,8192,8192
252.302,-2.77556e-17,0,8192,8192
252.352,-5.55112e-17,0,8192,8192
252.402,0,0,8192,8192
252.452,-2.77556e-17,0,8192,8192
252.502,-2.77556e-17,0,8192,8192
252.551,2.77556e-17,0,8192,8192
252.601,2.77556e-17,0,8192,8192
252.651,5.55112e-17,0,8192,8192
252.701,2.77556e-17,0,8192,8192
252.751,2.77556e-17,0,8192,8192
252.8,0,0,8192,8192
252.85,-2.77556e-17,0,8192,8192
252.903,-5.55112e-17,0,8192,8192
252.953,-5.55112e-17,0,8192,8192
253.002,-2.77556e-17,0,8192,8192
253.052,-2.77556e-17,0,8192,8192
253.102,-5.55112e-17,0,8192,8192
253.152,-5.55112e-17,0,8192,8192
253.202,-2.77556e-17,0,8192,8192
253.251,-2.77556e-17,0,8192,8192
253.301,0,0,8192,8192
253.351,2.77556e-17,0,8192,8192
253.401,0,0,8192,8192
253.451,2.77556e-17,0,8192,8192
253.5,5.55112e-17,0,8192,8192
253.55,5.55112e-17,0,8192,8192
253.6,5.55112e-17,0,8192,8192
253.653,2.77556e-17,0,8192,8192
253.703,2.77556e-17,0,8192,8192
253.752,2.77556e-17,0,8192,8192
253.802,2.77556e-17,0,8192,8192
253.852,2.77556e-17,0,8192,8192
253.902,-5.55112e-17,0,8192,8192
253.952,-2.77556e-17,0,8192,8192
254.001,0,0,8192,8192
254.051,-2.77556e-17,0,8192,8192
254.101,-2.77556e-17,0,8192,8192
254.151,-2.77556e-17,0,8192,8192
254.201,-2.77556e-17,0,8192,8192
254.25,-2.77556e-17,0,8192,8192
254.3,-2.77556e-17,0,8192,8192
254.353,-2.77556e-17,0,8192,8192
254.403,-5.55112e-17,0,8192,8192
254.452,-2.77556e-17,0,8192,8192
254.502,2.77556e-17,0,8192,8192
254.552,8.32667e-17,0,8192,8192
254.602,5.55112e-17,0,8192,8192
254.652,2.77556e-17,0,8192,8192
254.701,2.77556e-17,0,8192,8192
254.751,2.77556e-17,0,8192,8192
254.801,0,0,8192,8192
254.851,2.77556e-17,0,8192,8192
254.901,5.55112e-17,0,8192,8192
254.95,5.55112e-17,0,8192,8192
255,8.32667e-17,0,8192,8192
255.05,2.77556e-17,0,8192,8192
255.103,5.55112e-17,0,8192,8192
255.153,5.55112e-17,0,8192,8192
255.202,5.55112e-17,0,8192,8192
255.252,8.32667e-17,0,8192,8192
255.302,8.32667e-17,0,8192,8192
255.352,8.32667e-17,0,8192,8192
255.402,8.32667e-17,0,8192,8192
255.451,8.32667e-17,0,8192,8192
255.501,8.32667e-17,0,8192,8192
255.551,5.55112e-17,0,8192,8192
255.601,5.55112e-17,0,8192,8192
255.651,5.55112e-17,0,8192,8192
255.7,5.55112e-17,0,8192,8192
255.75,5.55112e-17,0,8192,8192
255.803,2.77556e-17,0,8192,8192
255.853,-2.77556e-17,0,8192,8192
255.902,0,0,8192,8192
255.952,-2.77556e-17,0,8192,8192
256.002,-2.77556e-17,0,8192,8192
256.052,-2.77556e-17,0,8192,8192
256.102,-2.77556e-17,0,8192,8192
256.151,-5.55112e-17,0,8192,8192
256.201,-5.55112e-17,0,8192,8192
256.251,-8.32667e-17,0,8192,8192
256.301,-8.32667e-17,0,8192,8192
256.351,-5.55112e-17,0,8192,8192
256.4,-2.77556e-17,0,8192,8192
256.45,-2.77556e-17,0,8192,8192
256.5,-5.55112e-17,0,8192,8192
256.553,-5.55112e-17,0,8192,8192
256.603,-2.77556e-17,0,8192,8192
256.652,-5.55112e-17,0,8192,8192
256.702,-5.55112e-17,0,8192,8192
256.752,0,0,8192,8192
256.802,-2.77556e-17,0,8192,8192
256.852,-2.77556e-17,0,8192,8192
256.901,-2.77556e-17,0,8192,8192
256.951,-2.77556e-17,0,8192,8192
257.001,-2.77556e-17,0,8192,8192
257.051,0,0,8192,8192
257.101,0,0,8192,8192
257.15,0,0,8192,8192
257.2,5.55112e-17,0,8192,8192
257.253,0,0,8192,8192
257.303,-2.77556e-17,0,8192,8192
257.352,-2.77556e-17,0,8192,8192
257.402,2.77556e-17,0,8192,8192
257.452,5.55112e-17,0,8192,8192
257.502,5.55112e-17,0,8192,8192
257.552,8.32667e-17,0,8192,8192
257.601,5.55112e-17,0,8192,8192
257.651,5.55112e-17,0,8192,8192
257.701,2.77556e-17,0,8192,8192
257.751,0,0,8192,8192
257.801,-2.77556e-17,0,8192,8192
257.85,-2.77556e-17,0,8192,8192
257.9,-2.77556e-17,0,8192,8192
257.95,-2.77556e-17,0,8192,8192
258.003,-2.77556e-17,0,8192,8192
258.053,0,0,8192,8192
258.102,0,0,8192,8192
258.152,-2.77556e-17,0,8192,8192
258.202,-5.55112e-17,0,8192,8192
258.252,-2.77556e-17,0,8192,8192
258.302,2.77556e-17,0,8192,8192
258.351,2.77556e-17,0,8192,8192
258.401,2.77556e-17,0,8192,8192
258.451,2.77556e-17,0,8192,8192
258.501,2.77556e-17,0,8192,8192
258.551,2.77556e-17,0,8192,8192
258.6,2.77556e-17,0,8192,8192
258.65,2.77556e-17,0,8192,8192
258.703,0,0,8192,8192
258.753,5.55112e-17,0,8192,8192
258.802,2.77556e-17,0,8192,8192
258.852,0,0,8192,8192
258.902,2.77556e-17,0,8192,8192
258.952,2.77556e-17,0,8192,8192
259.002,0,0,8192,8192
259.051,0,0,8192,8192
259.101,0,0,8192,8192
259.151,2.77556e-17,0,8192,8192
259.201,0,0,8192,8192
259.251,-2.77556e-17,0,8192,8192
259.3,-2.77556e-17,0,8192,8192
259.35,-2.77556e-17,0,8192,8192
259.403,-5.55112e-17,0,8192,8192
259.453,0,0,8192,8192
259.503,0,0,8192,8192
259.552,0,0,8192,8192
259.602,0,0,8192,8192
259.652,-2.77556e-17,0,8192,8192
259.702,-2.77556e-17,0,8192,8192
259.751,-2.77556e-17,0,8192,8192
259.801,-2.77556e-17,0,8192,8192
259.851,-2.77556e-17,0,8192,8192
259.901,-2.77556e-17,0,8192,8192
259.951,0,0,8192,8192
260,5.55112e-17,0,8192,8192
260.05,-2.77556e-17,0,8192,8192
260.1,-2.77556e-17,0,8192,8192
260.153,-2.77556e-17,0,8192,8192
260.203,5.55112e-17,0,8192,8192
260.252,0,0,8192,8192
260.302,-2.77556e-17,0,8192,8192
260.352,-2.77556e-17,0,8192,8192
260.402,-2.77556e-17,0,8192,8192
260.452,-5.55112e-17,0,8192,8192
260.501,-5.55112e-17,0,8192,8192
260.551,-5.55112e-17,0,8192,8192
260.601,-2.77556e-17,0,8192,8192
260.651,-8.32667e-17,0,8192,8192
260.701,-2.77556e-17,0,8192,8192
260.75,-2.77556e-17,0,8192,8192
260.8,0,0,8192,8192
260.853,0,0,8192,8192
260.903,2.77556e-17,0,8192,8192
260.952,0,0,8192,8192
261.002,0,0,8192,8192
261.052,0,0,8192,8192
261.102,0,0,8192,8192
261.152,-2.77556e-17,0,8192,8192
261.201,-2.77556e-17,0,8192,8192
261.251,-2.77556e-17,0,8192,8192
261.301,-2.77556e-17,0,8192,8192
261.351,-5.55112e-17,0,8192,8192
261.401,-2.77556e-17,0,8192,8192
261.45,-2.77556e-17,0,8192,8192
261.5,-5.55112e-17,0,8192,8192
261.55,-2.77556e-17,0,8192,8192
261.603,-2.77556e-17,0,8192,8192
261.653,-5.55112e-17,0,8192,8192
261.702,-2.77556e-17,0,8192,8192
261.752,0,0,8192,8192
261.802,0,0,8192,8192
261.852,-5.55112e-17,0,8192,8192
261.902,-5.55112e-17,0,8192,8192
261.951,-2.77556e-17,0,8192,8192
262.001,0,0,8192,8192
262.051,-2.77556e-17,0,8192,8192
262.101,-2.77556e-17,0,8192,8192
262.151,-2.77556e-17,0,8192,8192
262.2,-2.77556e-17,0,8192,8192
262.25,-2.77556e-17,0,8192,8192
262.303,5.55112e-17,0,8192,8192
262.353,5.55112e-17,0,8192,8192
262.402,2.77556e-17,0,8192,8192
262.452,5.55112e-17,0,8192,8192
262.502,5.55112e-17,0,8192,8192
262.552,0,0,8192,8192
262.602,0,0,8192,8192
262.651,2.77556e-17,0,8192,8192
262.701,2.77556e-17,0,8192,8192
262.751,0,0,8192,8192
262.801,2.77556e-17,0,8192,8192
262.851,0,0,8192,8192
262.9,5.55112e-17,0,8192,8192
262.95,5.55112e-17,0,8192,8192
263,5.55112e-17,0,8192,8192
263.053,8.32667e-17,0,8192,8192
263.103,8.32667e-17,0,8192,8192
263.152,8.32667e-17,0,8192,8192
263.202,5.55112e-17,0,8192,8192
263.252,1.11022e-16,0,8192,8192
263.302,1.11022e-16,0,8192,8192
263.352,8.32667e-17,0,8192,8192
263.401,5.55112e-17,0,8192,8192
263.451,2.77556e-17,0,8192,8192
263.501,0,0,8192,8192
263.551,0,0,8192,8192
263.601,0,0,8192,8192
263.65,0,0,8192,8192
263.7,0,0,8192,8192
263.753,2.77556e-17,0,8192,8192
263.803,5.55112e-17,0,8192,8192
263.852,2.77556e-17,0,8192,8192
263.902,2.77556e-17,0,8192,8192
263.952,0,0,8192,8192
264.002,0,0,8192,8192
264.052,-2.77556e-17,0,8192,8192
264.101,-5.55112e-17,0,8192,8192
264.151,-2.77556e-17,0,8192,8192
264.201,-2.77556e-17,0,8192,8192
264.251,-2.77556e-17,0,8192,8192
264.301,0,0,8192,8192
264.35,0,0,8192,8192
264.4,5.55112e-17,0,8192,8192
264.45,1.11022e-16,0,8192,8192
264.503,1.11022e-16,0,8192,8192
264.553,1.11022e-16,0,8192,8192
264.602,1.11022e-16,0,8192,8192
264.652,8.32667e-17,0,8192,8192
264.702,8.32667e-17,0,8192,8192
264.752,1.11022e-16,0,8192,8192
264.802,1.38778e-16,0,8192,8192
264.851,1.66533e-16,0,8192,8192
264.901,1.11022e-16,0,8192,8192
264.951,1.38778e-16,0,8192,8192
265.001,1.38778e-16,0,8192,8192
265.051,1.11022e-16,0,8192,8192
265.1,8.32667e-17,0,8192,8192
265.15,1.11022e-16,0,8192,8192
265.203,8.32667e-17,0,8192,8192
265.253,1.11022e-16,0,8192,8192
265.302,1.11022e-16,0,8192,8192
265.352,8.32667e-17,0,8192,8192
265.402,5.55112e-17,0,8192,8192
265.452,5.55112e-17,0,8192,8192
265.502,5.55112e-17,0,8192,8192
265.551,8.32667e-17,0,8192,8192
265.601,8.32667e-17,0,8192,8192
265.651,5.55112e-17,0,8192,8192
265.701,5.55112e-17,0,8192,8192
265.751,5.55112e-17,0,8192,8192
265.8,2.77556e-17,0,8192,8192
265.85,2.77556e-17,0,8192,8192
265.9,2.77556e-17,0,8192,8192
265.953,2.77556e-17,0,8192,8192
266.003,0,0,8192,8192
266.052,0,0,8192,8192
266.102,0,0,8192,8192
266.152,-5.55112e-17,0,8192,8192
266.202,-5.55112e-17,0,8192,8192
266.252,-5.55112e-17,0,8192,8192
266.301,-5.55112e-17,0,8192,8192
266.351,-8.32667e-17,0,8192,8192
266.401,-8.32667e-17,0,8192,8192
266.451,-8.32667e-17,0,8192,8192
266.501,-8.32667e-17,0,8192,8192
266.55,-1.11022e-16,0,8192,8192
266.6,-1.11022e-16,0,8192,8192
266.653,-1.11022e-16,0,8192,8192
266.703,-1.11022e-16,0,8192,8192
266.752,-1.38778e-16,0,8192,8192
266.802,-1.38778e-16,0,8192,8192
266.852,-1.38778e-16,0,8192,8192
266.902,-1.11022e-16,0,8192,8192
266.952,-1.38778e-16,0,8192,8192
267.001,-1.38778e-16,0,8192,8192
267.051,-8.32667e-17,0,8192,8192
267.101,-1.11022e-16,0,8192,8192
267.151,-5.55112e-17,0,8192,8192
267.201,-5.55112e-17,0,8192,8192
267.25,-8.32667e-17,0,8192,8192
267.3,-5.55112e-17,0,8192,8192
267.353,-5.55112e-17,0,8192,8192
267.403,-2.77556e-17,0,8192,8192
267.453,-5.55112e-17,0,8192,8192
267.502,-8.32667e-17,0,8192,8192
267.552,-1.11022e-16,0,8192,8192
267.602,-1.11022e-16,0,8192,8192
267.652,-8.32667e-17,0,8192,8192
267.702,-1.11022e-16,0,8192,8192
267.751,-8.32667e-17,0,8192,8192
267.801,-1.11022e-16,0,8192,8192
267.851,-1.11022e-16,0,8192,8192
267.901,-1.38778e-16,0,8192,8192
267.95,-1.38778e-16,0,8192,8192
268,-1.38778e-16,0,8192,8192
268.05,-1.11022e-16,0,8192,8192
268.1,-1.11022e-16,0,9356,9356
268.151,-1.11022e-16,0,10316,10316
268.2,-1.11022e-16,0,11228,11228
268.25,-1.11022e-16,0,12116,12116
268.301,-1.11022e-16,0,13028,13028
268.351,-1.11022e-16,0,13916,13916
268.4,-1.11022e-16,0,14828,14828
268.45,-1.11022e-16,0,15668,15668
268.501,-1.11022e-16,0,16556,16556
268.55,-1.11022e-16,0,17468,17468
268.6,-1.11022e-16,0,18356,18356
268.65,-1.11022e-16,0,19196,19196
268.701,-1.11022e-16,0,20108,20108
268.75,-1.11022e-16,0,20996,20996
268.8,-1.11022e-16,0,21836,21836
268.851,-1.11022e-16,0,22748,22748
268.9,-1.11022e-16,0,23588,23588
268.95,-1.11022e-16,0,24476,24476
269,-1.11022e-16,0,25316,25316
269.051,-1.11022e-16,0,26228,26228
269.1,-1.11022e-16,0,27068,27068
269.15,-1.11022e-16,0,27956,27956
269.201,-1.11022e-16,0,28852,28852
269.251,-1.11022e-16,0,29708,29708
269.3,-1.11022e-16,0,30548,30548
269.35,-1.11022e-16,0,31436,31436
269.401,-1.11022e-16,0,32276,32276
269.45,-1.11022e-16,0,33188,33188
269.5,-1.11022e-16,0,34028,34028
269.55,-1.11022e-16,0,34892,34892
269.601,-1.11022e-16,0,35756,35756
269.65,-1.11022e-16,0,36596,36596
269.7,-1.11022e-16,0,37508,37508
269.751,-1.11022e-16,0,38348,38348
269.8,-1.11022e-16,0,39188,39188
269.85,-1.11022e-16,0,40076,40076
269.9,-1.11022e-16,0,40916,40916
269.951,-1.11022e-16,0,41756,41756
270,-1.11022e-16,0,42596,42596
270.05,-1.11022e-16,0,43436,43436
270.1,-1.11022e-16,0,44276,44276
270.151,-1.11022e-16,0,45116,45116
270.2,-1.11022e-16,0,45956,45956
270.25,-1.11022e-16,0,46748,46748
270.301,-1.11022e-16,0,47588,47588
270.35,-1.11022e-16,0,48428,48428
270.4,-1.11022e-16,0,49268,49268
270.45,-1.11022e-16,0,50036,50036
270.501,-1.11022e-16,0,50876,50876
270.55,-2.77556e-17,0,51668,51668
270.6,1.58207e-15,0,52508,52508
270.651,3.27516e-15,0,53276,53276
270.701,5.07927e-15,0,54116,54116
270.75,6.91114e-15,0,54908,54908
270.8,8.79852e-15,0,55676,55676
270.851,1.07137e-14,0,56516,56516
270.9,1.29619e-14,0,57308,57308
270.95,2.22322e-14,0,58076,58076
271,5.82034e-14,0,58868,58868
271.051,1.62009e-13,0,59636,59636
271.1,3.86163e-13,0,60428,60428
271.15,7.69329e-13,0,61196,61196
271.201,3.2806e-12,0,61988,61988
271.25,-7.22715e-11,0,62756,62756
271.3,-3.7176e-10,0,63476,63476
271.35,-5.88242e-10,0,64268,64268
271.401,-4.21278e-10,0,65036,65036
271.45,-3.74524e-11,0,65756,65756
271.5,3.07992e-10,0,66548,66548
271.551,4.24106e-10,0,67268,67268
271.601,2.49623e-10,0,68036,68036
271.65,-5.75835e-11,0,68756,68756
271.7,-2.2985e-10,0,69476,69476
271.751,-1.10584e-10,0,70268,70268
271.8,1.79888e-10,0,70988,70988
271.85,3.71014e-10,0,71708,71708
271.9,2.96196e-10,0,72428,72428
271.951,4.2945e-11,0,73148,73148
272,-1.37387e-10,0,73868,73868
272.05,-9.27839e-11,0,74572,74572
272.101,1.15866e-10,0,75236,75236
272.15,2.88999e-10,0,75812,75812
272.2,2.96392e-10,0,76268,76268
272.25,1.61531e-10,0,76988,76988
272.301,3.08531e-13,0,77708,77708
272.35,-7.74689e-11,0,78428,78428
272.4,-3.4501e-11,0,79148,79148
272.451,1.19962e-10,0,79868,79868
272.501,3.11513e-10,0,80588,80588
272.55,4.00179e-10,0,81308,81308
272.6,2.41046e-10,0,82028,82028
272.651,-1.43636e-10,0,82748,82748
272.7,-4.21819e-10,0,83396,83396
272.75,-1.99084e-10,0,84116,84116
272.8,5.3242e-10,0,84836,84836
272.851,1.12004e-09,0,85508,85508
272.9,6.82422e-10,0,86228,86228
272.95,-7.96135e-10,0,86876,86876
273.001,-1.95923e-09,0,87596,87596
273.05,-8.32305e-10,0,88268,88268
273.1,3.45749e-09,0,88988,88988
273.15,1.00038e-08,0,89636,89636
273.201,1.70697e-08,0,90356,90356
273.25,2.29341e-08,0,91028,91028
273.3,2.70607e-08,0,91676,91676
273.35,2.94597e-08,0,92348,92348
273.401,3.08829e-08,0,93068,93068
273.45,3.29197e-08,0,93716,93716
273.5,3.74375e-08,0,94388,94388
273.551,4.54816e-08,0,95108,95108
273.6,5.6247e-08,0,95756,95756
273.65,6.86973e-08,0,96428,96428
273.7,8.25399e-08,0,97076,97076
273.751,9.91506e-08,0,97796,97796
273.8,1.19847e-07,0,98468,98468
273.85,1.4637e-07,0,99116,99116
273.901,1.80179e-07,0,99788,99788
273.951,2.20563e-07,0,100436,100436
274,2.66975e-07,0,101108,101108
274.05,3.16882e-07,0,101756,101756
274.101,3.68244e-07,0,102428,102428
274.15,4.18757e-07,0,103076,103076
274.2,4.71138e-07,0,103748,103748
274.25,5.28002e-07,0,104396,104396
274.301,5.9028e-07,0,105068,105068
274.35,6.52424e-07,0,105716,105716
274.4,7.1017e-07,0,106388,106388
274.451,7.60186e-07,0,107036,107036
274.5,7.98974e-07,0,107708,107708
274.55,8.26658e-07,0,108356,108356
274.6,8.44073e-07,0,109028,109028
274.651,8.53767e-07,0,109676,109676
274.7,8.58386e-07,0,110348,110348
274.75,8.59987e-07,0,110948,110948
274.801,8.58941e-07,0,111596,111596
274.851,8.54882e-07,0,112268,112268
274.9,8.47023e-07,0,112916,112916
274.95,8.34243e-07,0,113588,113588
275.001,8.14998e-07,0,114188,114188
275.05,7.88776e-07,0,114836,114836
275.1,7.54578e-07,0,115508,115508
275.15,7.12224e-07,0,116108,116108
275.201,6.62272e-07,0,116756,116756
275.25,6.09237e-07,0,117428,117428
275.3,5.55934e-07,0,118028,118028
275.351,5.04153e-07,0,118676,118676
275.4,4.56587e-07,0,119348,119348
275.45,4.129e-07,0,119948,119948
275.5,3.7301e-07,0,120596,120596
275.551,3.35835e-07,0,121196,121196
275.6,3.01703e-07,0,121868,121868
275.65,2.69385e-07,0,122468,122468
275.7,2.38387e-07,0,123068,123068
275.751,2.08217e-07,0,123668,123668
275.8,1.80745e-07,0,124196,124196
275.85,1.57539e-07,0,124796,124796
275.901,1.40045e-07,0,125348,125348
275.95,1.28055e-07,0,125876,125876
276,1.18058e-07,0,126428,126428
276.05,1.06711e-07,0,126908,126908
276.101,9.29504e-08,0,127436,127436
276.15,7.90886e-08,0,127916,127916
276.2,6.74432e-08,0,128396,128396
276.251,5.91143e-08,0,128876,128876
276.301,5.39914e-08,0,129356,129356
276.35,5.087e-08,0,129812,129812
276.4,4.83611e-08,0,130268,130268
276.451,4.48448e-08,0,130796,130796
276.5,3.93588e-08,0,131072,131072
276.55,3.23627e-08,0,131072,131072
276.6,2.58162e-08,0,131072,131072
276.651,2.16221e-08,0,131072,131072
276.7,2.03364e-08,0,131072,131072
276.75,2.07855e-08,0,131072,131072
276.801,2.15916e-08,0,131072,131072
276.85,2.20201e-08,0,131072,131072
276.9,2.21202e-08,0,131072,131072
276.95,2.21475e-08,0,131072,131072
277.001,2.22362e-08,0,131072,131072
277.05,2.23617e-08,0,131072,131072
277.1,2.2463e-08,0,131072,131072
277.151,2.24213e-08,0,131072,131072
277.201,2.19327e-08,0,131072,131072
277.25,2.12953e-08,0,131072,131072
277.3,2.10469e-08,0,131072,131072
277.351,2.09832e-08,0,131072,131072
277.4,2.09268e-08,0,131072,131072
277.45,2.08503e-08,0,131072,131072
277.5,2.07486e-08,0,131072,131072
277.551,2.06161e-08,0,131072,131072
277.6,2.04541e-08,0,131072,131072
277.65,2.02598e-08,0,131072,131072
277.701,2.00287e-08,0,131072,131072
277.75,1.97662e-08,0,131072,131072
277.8,1.94671e-08,0,131072,131072
277.85,1.91296e-08,0,131072,131072
277.901,1.87475e-08,0,131072,131072
277.95,1.83341e-08,0,131072,131072
278,1.78886e-08,0,131072,131072
278.051,1.74101e-08,0,131072,131072
278.101,1.69191e-08,0,131072,131072
278.15,1.6415e-08,0,131072,131072
278.2,1.59029e-08,0,131072,131072
278.251,1.53787e-08,0,131072,131072
278.3,1.48603e-08,0,131072,131072
278.35,1.4342e-08,0,131072,131072
278.4,1.38259e-08,0,131072,131072
278.451,1.3307e-08,0,131072,131072
278.5,1.28037e-08,0,131072,131072
278.55,1.2312e-08,0,131072,131072
278.601,1.18297e-08,0,131072,131072
278.65,1.13757e-08,0,131072,131072
278.7,1.09477e-08,0,131072,131072
278.75,1.05498e-08,0,131072,131072
278.801,1.01793e-08,0,131072,131072
278.85,9.84772e-09,0,131072,131072
278.9,9.54858e-09,0,131072,131072
278.95,9.28007e-09,0,131072,131072
279.001,9.03659e-09,0,131072,131072
279.05,8.8229e-09,0,131072,131072
279.1,8.63323e-09,0,131072,131072
279.151,8.46363e-09,0,131072,131072
279.2,8.31772e-09,0,131072,131072
279.25,8.19186e-09,0,131072,131072
279.3,8.08496e-09,0,131072,131072
279.351,7.99417e-09,0,131072,131072
279.4,7.91962e-09,0,131072,131072
279.45,7.85682e-09,0,131072,131072
279.501,7.80231e-09,0,131072,131072
279.551,7.75625e-09,0,131072,131072
279.6,7.71775e-09,0,131072,131072
279.65,7.68742e-09,0,131072,131072
279.701,7.66504e-09,0,131072,131072
279.75,7.65032e-09,0,131072,131072
279.8,7.64121e-09,0,131072,131072
279.85,7.63598e-09,0,131072,131072
279.901,7.63336e-09,0,131072,131072
279.95,7.63291e-09,0,131072,131072
280,7.63481e-09,0,131072,131072
280.051,7.63982e-09,0,131072,131072
280.1,7.64831e-09,0,131072,131072
280.15,7.66025e-09,0,131072,131072
280.2,7.67493e-09,0,131072,131072
280.251,7.69161e-09,0,131072,131072
280.3,7.70892e-09,0,131072,131072
280.35,7.72647e-09,0,131072,131072
280.401,7.74412e-09,0,131072,131072
280.451,7.76116e-09,0,131072,131072
280.5,7.77786e-09,0,131072,131072
280.55,7.79438e-09,0,131072,131072
280.601,7.81121e-09,0,131072,131072
280.65,7.82794e-09,0,131072,131072
280.7,7.84474e-09,0,131072,131072
280.75,7.86152e-09,0,131072,131072
280.801,7.87844e-09,0,131072,131072
280.85,7.89501e-09,0,131072,131072
280.9,7.91155e-09,0,131072,131072
280.951,7.92832e-09,0,131072,131072
281,7.94472e-09,0,131072,131072
281.05,7.96079e-09,0,131072,131072
281.1,7.97637e-09,0,131072,131072
281.151,7.99164e-09,0,131072,131072
281.2,8.00628e-09,0,131072,131072
281.25,8.0207e-09,0,131072,131072
281.3,8.03494e-09,0,131072,131072
281.351,8.04909e-09,0,131072,131072
281.4,8.06249e-09,0,131072,131072
281.45,8.07514e-09,0,131072,131072
281.501,8.08732e-09,0,131072,131072
281.55,8.09908e-09,0,131072,131072
281.6,8.11096e-09,0,131072,131072
281.65,8.12281e-09,0,131072,131072
281.701,8.13409e-09,0,131072,131072
281.75,8.14408e-09,0,131072,131072
281.8,8.15413e-09,0,131072,131072
281.851,8.1678e-09,0,131072,131072
281.901,8.18883e-09,0,131072,131072
281.95,8.21889e-09,0,131072,131072
282,8.25448e-09,0,131072,131072
282.051,8.29028e-09,0,131072,131072
282.1,8.32706e-09,0,131072,131072
282.15,8.38453e-09,0,131072,131072
282.2,8.49548e-09,0,131072,131072
282.251,8.68892e-09,0,131072,131072
282.3,8.95486e-09,0,131072,131072
282.35,9.25994e-09,0,131072,131072
282.401,9.56725e-09,0,131072,131072
282.45,9.85409e-09,0,131072,131072
282.5,1.01534e-08,0,131072,131072
282.55,1.05195e-08,0,131072,131072
282.601,1.10084e-08,0,131072,131072
282.65,1.16241e-08,0,131072,131072
282.7,1.23658e-08,0,131072,131072
282.751,1.32427e-08,0,131072,131072
282.801,1.42497e-08,0,131072,131072
282.85,1.54414e-08,0,131072,131072
282.9,1.68593e-08,0,131072,131072
282.951,1.85468e-08,0,131072,131072
283,2.04468e-08,0,131072,131072
283.05,2.25668e-08,0,131072,131072
283.1,2.49047e-08,0,131072,131072
283.151,2.75163e-08,0,131072,131072
283.2,3.03451e-08,0,131072,131072
283.25,3.34287e-08,0,131072,131072
283.301,3.67871e-08,0,131072,131072
283.35,4.02642e-08,0,131072,131072
283.4,4.3843e-08,0,131072,131072
283.45,4.74842e-08,0,131072,131072
283.501,5.12456e-08,0,131072,131072
283.55,5.50467e-08,0,131072,131072
283.6,5.89462e-08,0,131072,131072
283.65,6.2888e-08,0,131072,131072
283.701,6.68388e-08,0,131072,131072
283.75,7.0668e-08,0,131072,131072
283.8,7.46063e-08,0,131072,131072
283.851,7.90934e-08,0,131072,131072
283.9,8.44141e-08,0,131072,131072
283.95,9.08352e-08,0,131072,131072
284,9.81936e-08,0,131072,131072
284.051,1.06102e-07,0,131072,131072
284.1,1.13699e-07,0,131072,131072
284.15,1.20639e-07,0,131072,131072
284.201,1.26921e-07,0,131072,131072
284.251,1.32713e-07,0,131072,131072
284.3,1.38766e-07,0,131072,131072
284.35,1.45813e-07,0,131072,131072
284.401,1.54576e-07,0,131072,131072
284.45,1.65143e-07,0,131072,131072
284.5,1.77816e-07,0,131072,131072
284.55,1.92842e-07,0,131072,131072
284.601,2.10977e-07,0,131072,131072
284.65,2.32384e-07,0,131072,131072
284.7,2.58011e-07,0,131072,131072
284.751,2.88794e-07,0,131072,131072
284.8,3.23817e-07,0,131072,131072
284.85,3.62927e-07,0,131072,131072
284.9,4.05203e-07,0,131072,131072
284.951,4.50378e-07,0,131072,131072
285,4.96495e-07,0,131072,131072
285.05,5.43876e-07,0,131072,131072
285.101,5.92897e-07,0,131072,131072
285.151,6.41288e-07,0,131072,131072
285.2,6.88142e-07,0,131072,131072
285.25,7.31236e-07,0,131072,131072
285.301,7.6874e-07,0,131072,131072
285.35,7.9773e-07,0,131072,131072
285.4,8.17906e-07,0,131072,131072
285.45,8.29387e-07,0,131072,131072
285.501,8.33109e-07,0,131072,131072
285.55,8.30318e-07,0,131072,131072
285.6,8.22408e-07,0,131072,131072
285.651,8.10063e-07,0,131072,131072
285.7,7.93989e-07,0,131072,131072
285.75,7.73871e-07,0,131072,131072
285.8,7.49196e-07,0,131072,131072
285.851,7.18839e-07,0,131072,131072
285.9,6.83138e-07,0,131072,131072
285.95,6.41515e-07,0,131072,131072
286,5.94359e-07,0,131072,131072
286.051,5.41937e-07,0,131072,131072
286.1,4.87428e-07,0,131072,131072
286.15,4.32034e-07,0,131072,131072
286.201,3.76831e-07,0,131072,131072
286.25,3.24896e-07,0,131072,131072
286.3,2.7632e-07,0,131072,131072
286.35,2.31458e-07,0,131072,131072
286.401,1.89666e-07,0,131072,131072
286.45,1.51851e-07,0,131072,131072
286.5,1.17044e-07,0,131072,131072
286.551,8.46165e-08,0,131072,131072
286.6,5.56043e-08,0,131072,131072
286.65,2.98662e-08,0,131072,131072
286.7,7.7995e-09,0,131072,131072
286.751,-1.07069e-08,0,131072,131072
286.8,-2.54938e-08,0,131072,131072
286.85,-3.76817e-08,0,131072,131072
286.9,-4.81947e-08,0,131072,131072
286.951,-5.77583e-08,0,131072,131072
287,-6.61412e-08,0,131072,131072
287.05,-7.31198e-08,0,131072,131072
287.101,-7.83362e-08,0,131072,131072
287.15,-8.15102e-08,0,131072,131072
287.2,-8.30276e-08,0,131072,131072
287.25,-8.34936e-08,0,131072,131072
287.301,-8.35548e-08,0,131072,131072
287.35,-8.36132e-08,0,131072,131072
287.4,-8.36613e-08,0,131072,131072
287.451,-8.33301e-08,0,131072,131072
287.501,-8.21599e-08,0,131072,131072
287.55,-7.98656e-08,0,131072,131072
287.6,-7.64862e-08,0,131072,131072
287.651,-7.22628e-08,0,131072,131072
287.7,-6.77179e-08,0,131072,131072
287.75,-6.31147e-08,0,131072,131072
287.8,-5.86359e-08,0,131072,131072
287.851,-5.42961e-08,0,131072,131072
287.9,-5.02534e-08,0,131072,131072
287.95,-4.64721e-08,0,131072,131072
288.001,-4.2931e-08,0,131072,131072
288.05,-3.97384e-08,0,131072,131072
288.1,-3.6813e-08,0,131072,131072
288.15,-3.41069e-08,0,131072,131072
288.201,-3.15448e-08,0,131072,131072
288.25,-2.91854e-08,0,131072,131072
288.3,-2.69938e-08,0,131072,131072
288.351,-2.49489e-08,0,131072,131072
288.401,-2.3111e-08,0,131072,131072
288.45,-2.14434e-08,0,131072,131072
288.5,-1.99368e-08,0,131072,131072
288.551,-1.85626e-08,0,131072,131072
288.6,-1.73513e-08,0,131072,131072
288.65,-1.62725e-08,0,131072,131072
288.7,-1.5316e-08,0,131072,131072
288.751,-1.4458e-08,0,131072,131072
288.8,-1.37102e-08,0,131072,131072
288.85,-1.30466e-08,0,131072,131072
288.901,-1.24484e-08,0,131072,131072
288.95,-1.19255e-08,0,131072,131072
289,-1.14648e-08,0,131072,131072
289.05,-1.10646e-08,0,131072,131072
289.101,-1.07189e-08,0,131072,131072
289.15,-1.04352e-08,0,131072,131072
289.2,-1.02043e-08,0,131072,131072
289.251,-1.00192e-08,0,131072,131072
289.301,-9.88069e-09,0,131072,131072
289.35,-9.78186e-09,0,131072,131072
289.4,-9.71959e-09,0,131072,131072
289.451,-9.69073e-09,0,131072,131072
289.5,-9.69249e-09,0,131072,131072
289.55,-9.7195e-09,0,131072,131072
289.6,-9.76611e-09,0,131072,131072
289.651,-9.82735e-09,0,131072,131072
289.7,-9.896e-09,0,131072,131072
289.75,-9.96851e-09,0,131072,131072
289.801,-1.00427e-08,0,131072,131072
289.85,-1.01139e-08,0,131072,131072
289.9,-1.01813e-08,0,131072,131072
289.95,-1.02436e-08,0,131072,131072
290.001,-1.03012e-08,0,131072,131072
290.05,-1.03526e-08,0,131072,131072
290.1,-1.03995e-08,0,131072,131072
290.15,-1.04423e-08,0,131072,131072
290.201,-1.04819e-08,0,131072,131072
290.25,-1.05171e-08,0,131072,131072
290.3,-1.05485e-08,0,131072,131072
290.351,-1.05769e-08,0,131072,131072
290.4,-1.06027e-08,0,131072,131072
290.45,-1.06275e-08,0,131072,131072
290.5,-1.06526e-08,0,131072,131072
290.551,-1.06791e-08,0,131072,131072
290.6,-1.07062e-08,0,131072,131072
290.65,-1.07337e-08,0,131072,131072
290.701,-1.07617e-08,0,131072,131072
290.751,-1.07889e-08,0,131072,131072
290.8,-1.0816e-08,0,131072,131072
290.85,-1.08435e-08,0,131072,131072
290.901,-1.08721e-08,0,131072,131072
290.95,-1.09012e-08,0,131072,131072
291,-1.09312e-08,0,131072,131072
291.05,-1.09623e-08,0,131072,131072
291.101,-1.09953e-08,0,131072,131072
291.15,-1.10304e-08,0,131072,131072
291.2,-1.10696e-08,0,131072,131072
291.251,-1.1115e-08,0,131072,131072
291.3,-1.11667e-08,0,131072,131072
291.35,-1.12256e-08,0,131072,131072
291.4,-1.12916e-08,0,131072,131072
291.451,-1.13654e-08,0,131072,131072
291.5,-1.14453e-08,0,131072,131072
291.55,-1.1533e-08,0,131072,131072
291.601,-1.16314e-08,0,131072,131072
291.651,-1.17386e-08,0,131072,131072
291.7,-1.18565e-08,0,131072,131072
291.75,-1.19846e-08,0,131072,131072
291.801,-1.21239e-08,0,131072,131072
291.85,-1.22695e-08,0,131072,131072
291.9,-1.2423e-08,0,131072,131072
291.95,-1.25852e-08,0,131072,131072
292.001,-1.27607e-08,0,131072,131072
292.05,-1.29475e-08,0,131072,131072
292.1,-1.31514e-08,0,131072,131072
292.151,-1.33791e-08,0,131072,131072
292.2,-1.36268e-08,0,131072,131072
292.25,-1.38994e-08,0,131072,131072
292.3,-1.41979e-08,0,131072,131072
292.351,-1.45268e-08,0,131072,131072
292.4,-1.48758e-08,0,131072,131072
292.45,-1.52476e-08,0,131072,131072
292.5,-1.56404e-08,0,131072,131072
292.551,-1.60579e-08,0,131072,131072
292.6,-1.64856e-08,0,131072,131072
292.65,-1.69265e-08,0,131072,131072
292.701,-1.7384e-08,0,131072,131072
292.75,-1.78409e-08,0,131072,131072
292.8,-1.82995e-08,0,131072,131072
292.85,-1.87556e-08,0,131072,131072
292.901,-1.92114e-08,0,131072,131072
292.95,-1.96498e-08,0,131072,131072
293,-2.00738e-08,0,131072,131072
293.051,-2.0486e-08,0,131072,131072
293.101,-2.08718e-08,0,131072,131072
293.15,-2.12354e-08,0,131072,131072
293.2,-2.15748e-08,0,131072,131072
293.251,-2.1892e-08,0,131072,131072
293.3,-2.21751e-08,0,131072,131072
293.35,-2.24256e-08,0,131072,131072
293.4,-2.26406e-08,0,131072,131072
293.451,-2.28206e-08,0,131072,131072
293.5,-2.29601e-08,0,131072,131072
293.55,-2.30634e-08,0,131072,131072
293.601,-2.31334e-08,0,131072,131072
293.65,-2.31708e-08,0,131072,131072
293.7,-2.31795e-08,0,131072,131072
293.75,-2.31616e-08,0,131072,131072
293.801,-2.31181e-08,0,131072,131072
293.85,-2.30522e-08,0,131072,131072
293.9,-2.29658e-08,0,131072,131072
293.951,-2.28599e-08,0,131072,131072
294.001,-2.27407e-08,0,131072,131072
294.05,-2.26095e-08,0,131072,131072
294.1,-2.24691e-08,0,131072,131072
294.151,-2.23193e-08,0,131072,131072
294.2,-2.21661e-08,0,131072,131072
294.25,-2.20088e-08,0,131072,131072
294.3,-2.18485e-08,0,131072,131072
294.351,-2.16838e-08,0,131072,131072
294.4,-2.15206e-08,0,131072,131072
294.45,-2.13576e-08,0,131072,131072
294.501,-2.11934e-08,0,131072,131072
294.55,-2.10337e-08,0,131072,131072
294.6,-2.08769e-08,0,131072,131072
294.65,-2.07235e-08,0,131072,131072
294.701,-2.05717e-08,0,131072,131072
294.75,-2.04261e-08,0,131072,131072
294.8,-2.02848e-08,0,131072,131072
294.85,-2.01481e-08,0,131072,131072
294.901,-2.00144e-08,0,131072,131072
294.95,-1.98881e-08,0,131072,131072
295,-1.97674e-08,0,131072,131072
295.051,-1.96508e-08,0,131072,131072
295.1,-1.95417e-08,0,131072,131072
295.15,-1.94381e-08,0,131072,131072
295.2,-1.93399e-08,0,131072,131072
295.251,-1.92453e-08,0,131072,131072
295.3,-1.91567e-08,0,131072,131072
295.35,-1.90723e-08,0,131072,131072
295.401,-1.89906e-08,0,131072,131072
295.451,-1.89136e-08,0,131072,131072
295.5,-1.88396e-08,0,131072,131072
295.55,-1.87684e-08,0,131072,131072
295.601,-1.86986e-08,0,131072,131072
295.65,-1.86319e-08,0,131072,131072
295.7,-1.8567e-08,0,131072,131072
295.75,-1.85036e-08,0,131072,131072
295.801,-1.84404e-08,0,131072,131072
295.85,-1.83792e-08,0,131072,131072
295.9,-1.83187e-08,0,131072,131072
295.951,-1.82579e-08,0,131072,131072
296,-1.81982e-08,0,131072,131072
296.05,-1.81387e-08,0,131072,131072
296.1,-1.80791e-08,0,131072,131072
296.151,-1.80184e-08,0,131072,131072
296.2,-1.79582e-08,0,131072,131072
296.25,-1.78976e-08,0,131072,131072
296.301,-1.78355e-08,0,131072,131072
296.351,-1.77736e-08,0,131072,131072
296.4,-1.77109e-08,0,131072,131072
296.45,-1.76472e-08,0,131072,131072
296.501,-1.75816e-08,0,131072,131072
296.55,-1.75158e-08,0,131072,131072
296.6,-1.74487e-08,0,131072,131072
296.65,-1.73802e-08,0,131072,131072
296.701,-1.7309e-08,0,131072,131072
296.75,-1.72369e-08,0,131072,131072
296.8,-1.71628e-08,0,131072,131072
296.851,-1.70853e-08,0,131072,131072
296.9,-1.70063e-08,0,131072,131072
296.95,-1.69244e-08,0,131072,131072
297,-1.68394e-08,0,131072,131072
297.051,-1.67496e-08,0,131072,131072
297.1,-1.66573e-08,0,131072,131072
297.15,-1.6561e-08,0,131072,131072
297.2,-1.64604e-08,0,131072,131072
297.251,-1.63536e-08,0,131072,131072
297.3,-1.62436e-08,0,131072,131072
297.35,-1.61286e-08,0,131072,131072
297.401,-1.60067e-08,0,131072,131072
297.45,-1.58813e-08,0,131072,131072
297.5,-1.57507e-08,0,131072,131072
297.55,-1.56148e-08,0,131072,131072
297.601,-1.54716e-08,0,131072,131072
297.65,-1.53251e-08,0,131072,131072
297.7,-1.51735e-08,0,131072,131072
297.751,-1.50142e-08,0,131072,131072
297.801,-1.48519e-08,0,131072,131072
297.85,-1.46841e-08,0,131072,131072
297.9,-1.45106e-08,0,131072,131072
297.951,-1.43284e-08,0,131072,131072
298,-1.41426e-08,0,131072,131072
298.05,-1.39505e-08,0,131072,131072
298.1,-1.37522e-08,0,131072,131072
298.151,-1.35449e-08,0,131072,131072
298.2,-1.33348e-08,0,131072,131072
298.25,-1.31192e-08,0,131072,131072
298.301,-1.28948e-08,0,131072,131072
298.35,-1.26678e-08,0,131072,131072
298.4,-1.24344e-08,0,131072,131072
298.45,-1.21935e-08,0,131072,131072
298.501,-1.19402e-08,0,131072,131072
298.55,-1.16802e-08,0,131072,131072
298.6,-1.14079e-08,0,131072,131072
298.651,-1.11169e-08,0,131072,131072
298.701,-1.0813e-08,0,131072,131072
298.75,-1.04895e-08,0,131072,131072
298.8,-1.01439e-08,0,131072,131072
298.851,-9.76805e-09,0,131072,131072
298.9,-9.37074e-09,0,131072,131072
298.95,-8.94508e-09,0,131072,131072
299,-8.48997e-09,0,131072,131072
299.051,-7.99748e-09,0,131072,131072
299.1,-7.48197e-09,0,131072,131072
299.15,-6.9374e-09,0,131072,131072
299.201,-6.35697e-09,0,131072,131072
299.25,-5.7604e-09,0,131072,131072
299.3,-5.14343e-09,0,131072,131072
299.35,-4.51094e-09,0,131072,131072
299.401,-3.85899e-09,0,131072,131072
299.45,-3.21232e-09,0,131072,131072
299.5,-2.5672e-09,0,131072,131072
299.551,-1.91957e-09,0,131072,131072
299.601,-1.2929e-09,0,131072,131072
299.65,-6.81816e-10,0,131072,131072
299.7,-8.99495e-11,0,131072,131072
299.751,4.87494e-10,0,131072,131072
299.8,1.03041e-09,0,131072,131072
299.85,1.54396e-09,0,131072,131072
299.9,2.02472e-09,0,131072,131072
299.951,2.47562e-09,0,131072,131072
300,2.88054e-09,0,131072,131072
300.05,3.24385e-09,0,131072,131072
300.101,3.56833e-09,0,131072,131072
300.15,3.84397e-09,0,131072,131072
300.2,4.07621e-09,0,131072,131072
300.25,4.26645e-09,0,131072,131072
300.301,4.41876e-09,0,131072,131072
300.35,4.53142e-09,0,131072,131072
300.4,4.6099e-09,0,131072,131072
300.45,4.65721e-09,0,131072,131072
300.501,4.67644e-09,0,131072,131072
300.55,4.67003e-09,0,131072,131072
300.6,4.64135e-09,0,131072,131072
300.651,4.59247e-09,0,131072,131072
300.7,4.52774e-09,0,131072,131072
300.75,4.4494e-09,0,131072,131072
300.8,4.36009e-09,0,131072,131072
300.851,4.26067e-09,0,131072,131072
300.9,4.15611e-09,0,131072,131072
300.95,4.04681e-09,0,131072,131072
301.001,3.93268e-09,0,131072,131072
301.051,3.8185e-09,0,131072,131072
301.1,3.70399e-09,0,131072,131072
301.15,3.59029e-09,0,131072,131072
301.201,3.47672e-09,0,131072,131072
301.25,3.36727e-09,0,131072,131072
301.3,3.26079e-09,0,131072,131072
301.35,3.15777e-09,0,131072,131072
301.401,3.05734e-09,0,131072,131072
301.45,2.96313e-09,0,131072,131072
301.5,2.87444e-09,0,131072,131072
301.551,2.79091e-09,0,131072,131072
301.6,2.71562e-09,0,131072,131072
301.65,2.64775e-09,0,131072,131072
301.7,2.5875e-09,0,131072,131072
301.751,2.53417e-09,0,131072,131072
301.8,2.4892e-09,0,131072,131072
301.85,2.45149e-09,0,131072,131072
301.901,2.42025e-09,0,131072,131072
301.951,2.39577e-09,0,131072,131072
302,2.37673e-09,0,131072,131072
302.05,2.36218e-09,0,131072,131072
302.101,2.35098e-09,0,131072,131072
302.15,2.34256e-09,0,131072,131072
302.2,2.33602e-09,0,131072,131072
302.25,2.33075e-09,0,131072,131072
302.301,2.3261e-09,0,131072,131072
302.35,2.32153e-09,0,131072,131072
302.4,2.31619e-09,0,131072,131072
302.451,2.30916e-09,0,131072,131072
302.5,2.30011e-09,0,131072,131072
302.55,2.28881e-09,0,131072,131072
302.6,2.27566e-09,0,131072,131072
302.651,2.26127e-09,0,131072,131072
302.7,2.2471e-09,0,131072,131072
302.75,2.23391e-09,0,131072,131072
302.8,2.22234e-09,0,131072,131072
302.851,2.21245e-09,0,131072,131072
302.9,2.20426e-09,0,131072,131072
302.95,2.19705e-09,0,131072,131072
303.001,2.19008e-09,0,131072,131072
303.05,2.18301e-09,0,131072,131072
303.1,2.1755e-09,0,131072,131072
303.15,2.16767e-09,0,131072,131072
303.201,2.15989e-09,0,131072,131072
303.25,2.15312e-09,0,131072,131072
303.3,2.14806e-09,0,131072,131072
303.351,2.14538e-09,0,131072,131072
303.401,2.14554e-09,0,131072,131072
303.45,2.1485e-09,0,131072,131072
303.5,2.15388e-09,0,131072,131072
303.551,2.16114e-09,0,131072,131072
303.6,2.1693e-09,0,131072,131072
303.65,2.17776e-09,0,131072,131072
303.7,2.18601e-09,0,131072,131072
303.751,2.19392e-09,0,131072,131072
303.8,2.2012e-09,0,131072,131072
303.85,2.20805e-09,0,131072,131072
303.901,2.21462e-09,0,131072,131072
303.95,2.22065e-09,0,131072,131072
304,2.22604e-09,0,131072,131072
304.05,2.23053e-09,0,131072,131072
304.101,2.23392e-09,0,131072,131072
304.15,2.23609e-09,0,131072,131072
304.2,2.23724e-09,0,131072,131072
304.251,2.23765e-09,0,131072,131072
304.301,2.23757e-09,0,131072,131072
304.35,2.23715e-09,0,131072,131072
304.4,2.23633e-09,0,131072,131072
304.451,2.23493e-09,0,131072,131072
304.5,2.23282e-09,0,131072,131072
304.55,2.22996e-09,0,131072,131072
304.6,2.22647e-09,0,131072,131072
304.651,2.22253e-09,0,131072,131072
304.7,2.21848e-09,0,131072,131072
304.75,2.21439e-09,0,131072,131072
304.801,2.21017e-09,0,131072,131072
304.85,2.20579e-09,0,131072,131072
304.9,2.201e-09,0,131072,131072
304.95,2.19564e-09,0,131072,131072
