250,0,0,512,512
250.012,0,0,512,512
250.059,0,0,512,512
250.105,0,0,512,512
250.152,0,0,512,512
250.211,0,0,512,512
250.258,0,0,512,512
250.305,0,0,512,512
250.352,0,0,512,512
250.41,0,0,512,512
250.457,0,0,512,512
250.504,0,0,512,512
250.551,0,0,512,512
250.609,0,0,512,512
250.656,0,0,512,512
250.703,0,0,512,512
250.762,0,0,512,512
250.808,0,0,512,512
250.855,0,0,512,512
250.902,0,0,512,512
250.961,2.77556e-17,0,512,512
251.008,2.77556e-17,0,512,512
251.055,2.77556e-17,0,512,512
251.101,0,0,512,512
251.16,0,0,512,512
251.207,0,0,512,512
251.254,0,0,512,512
251.301,0,0,512,512
251.359,0,0,512,512
251.406,0,0,512,512
251.453,0,0,512,512
251.511,0,0,512,512
251.558,0,0,512,512
251.605,0,0,512,512
251.652,0,0,512,512
251.711,0,0,512,512
251.758,0,0,512,512
251.804,0,0,512,512
251.851,0,0,512,512
251.91,0,0,512,512
251.957,0,0,512,512
252.004,0,0,512,512
252.05,0,0,512,512
252.109,0,0,512,512
252.156,0,0,512,512
252.203,0,0,512,512
252.261,0,0,512,512
252.308,0,0,512,512
252.355,0,0,512,512
252.402,0,0,512,512
252.461,0,0,512,512
252.507,-2.77556e-17,0,512,512
252.554,-2.77556e-17,0,512,512
252.601,-2.77556e-17,0,512,512
252.66,-2.77556e-17,0,512,512
252.707,-2.77556e-17,0,512,512
252.754,-2.77556e-17,0,512,512
252.8,0,0,512,512
252.859,0,0,512,512
252.906,-2.77556e-17,0,512,512
252.953,-2.77556e-17,0,512,512
253.011,-2.77556e-17,0,512,512
253.058,-2.77556e-17,0,512,512
253.105,-2.77556e-17,0,512,512
253.152,-2.77556e-17,0,512,512
253.21,-2.77556e-17,0,512,512
253.257,-2.77556e-17,0,512,512
253.304,-2.77556e-17,0,512,512
253.351,0,0,512,512
253.41,0,0,512,512
253.457,0,0,512,512
253.503,0,0,512,512
253.55,0,0,512,512
253.609,0,0,512,512
253.656,0,0,512,512
253.703,0,0,512,512
253.761,0,0,512,512
253.808,0,0,512,512
253.855,0,0,512,512
253.902,-2.77556e-17,0,512,512
253.96,-2.77556e-17,0,512,512
254.007,-2.77556e-17,0,512,512
254.054,0,0,512,512
254.101,-2.77556e-17,0,512,512
254.16,0,0,512,512
254.206,0,0,512,512
254.253,0,0,512,512
254.3,0,0,512,512
254.359,0,0,512,512
254.406,0,0,512,512
254.452,0,0,512,512
254.511,0,0,512,512
254.558,0,0,512,512
254.605,0,0,512,512
254.652,-2.77556e-17,0,512,512
254.71,-2.77556e-17,0,512,512
254.757,-2.77556e-17,0,512,512
254.804,-2.77556e-17,0,512,512
254.851,-2.77556e-17,0,512,512
254.909,-2.77556e-17,0,512,512
254.956,0,0,512,512
255.003,0,0,512,512
255.05,0,0,512,512
255.109,0,0,512,512
255.155,0,0,512,512
255.202,0,0,512,512
255.261,0,0,512,512
255.308,0,0,512,512
255.355,0,0,512,512
255.402,0,0,512,512
255.46,0,0,512,512
255.507,0,0,512,512
255.554,0,0,512,512
255.601,0,0,512,512
255.659,0,0,512,512
255.706,0,0,512,512
255.753,0,0,512,512
255.812,0,0,512,512
255.859,0,0,512,512
255.905,0,0,512,512
255.952,-2.77556e-17,0,512,512
256.011,-2.77556e-17,0,512,512
256.058,-2.77556e-17,0,512,512
256.105,-2.77556e-17,0,512,512
256.151,-2.77556e-17,0,512,512
256.21,-2.77556e-17,0,512,512
256.257,-2.77556e-17,0,512,512
256.304,-2.77556e-17,0,512,512
256.351,-2.77556e-17,0,512,512
256.409,-2.77556e-17,0,512,512
256.456,-2.77556e-17,0,512,512
256.503,0,0,512,512
256.562,0,0,512,512
256.608,0,0,512,512
256.655,-2.77556e-17,0,512,512
256.702,-2.77556e-17,0,512,512
256.761,-2.77556e-17,0,512,512
256.808,-5.55112e-17,0,512,512
256.854,-5.55112e-17,0,512,512
256.901,-5.55112e-17,0,512,512
256.96,-5.55112e-17,0,512,512
257.007,-5.55112e-17,0,512,512
257.054,-5.55112e-17,0,512,512
257.101,-5.55112e-17,0,512,512
257.159,-5.55112e-17,0,512,512
257.206,-5.55112e-17,0,512,512
257.253,-5.55112e-17,0,512,512
257.311,-2.77556e-17,0,512,512
257.358,-2.77556e-17,0,512,512
257.405,-2.77556e-17,0,512,512
257.452,-2.77556e-17,0,512,512
257.511,-2.77556e-17,0,512,512
257.557,0,0,512,512
257.604,-2.77556e-17,0,512,512
257.651,0,0,512,512
257.71,0,0,512,512
257.757,0,0,512,512
257.804,0,0,512,512
257.85,-2.77556e-17,0,512,512
257.909,-2.77556e-17,0,512,512
257.956,0,0,512,512
258.003,0,0,512,512
258.061,0,0,512,512
258.108,0,0,512,512
258.155,0,0,512,512
258.202,0,0,512,512
258.261,2.77556e-17,0,512,512
258.307,0,0,512,512
258.354,0,0,512,512
258.401,0,0,512,512
258.46,0,0,512,512
258.507,0,0,512,512
258.553,0,0,512,512
258.6,-2.77556e-17,0,512,512
258.659,2.77556e-17,0,512,512
258.706,5.55112e-17,0,512,512
258.753,2.77556e-17,0,512,512
258.811,2.77556e-17,0,512,512
258.858,5.55112e-17,0,512,512
258.905,2.77556e-17,0,512,512
258.952,2.77556e-17,0,512,512
259.01,2.77556e-17,0,512,512
259.057,2.77556e-17,0,512,512
259.104,2.77556e-17,0,512,512
259.151,2.77556e-17,0,512,512
259.21,0,0,512,512
259.256,0,0,512,512
259.303,0,0,512,512
259.35,0,0,512,512
259.409,0,0,512,512
259.456,0,0,512,512
259.503,0,0,512,512
259.561,0,0,512,512
259.608,0,0,512,512
259.655,0,0,512,512
259.702,0,0,512,512
259.76,0,0,512,512
259.807,0,0,512,512
259.854,0,0,512,512
259.901,2.77556e-17,0,512,512
259.959,0,0,512,512
260.006,2.77556e-17,0,512,512
260.053,2.77556e-17,0,512,512
260.1,2.77556e-17,0,512,512
260.159,2.77556e-17,0,512,512
260.206,2.77556e-17,0,512,512
260.252,2.77556e-17,0,512,512
260.311,2.77556e-17,0,512,512
260.358,2.77556e-17,0,512,512
260.405,2.77556e-17,0,512,512
260.452,2.77556e-17,0,512,512
260.51,2.77556e-17,0,512,512
260.557,5.55112e-17,0,512,512
260.604,5.55112e-17,0,512,512
260.651,5.55112e-17,0,512,512
260.709,2.77556e-17,0,512,512
260.756,0,0,512,512
260.803,0,0,512,512
260.862,0,0,512,512
260.909,0,0,512,512
260.955,0,0,512,512
261.002,0,0,512,512
261.061,2.77556e-17,0,512,512
261.108,2.77556e-17,0,512,512
261.155,0,0,512,512
261.201,2.77556e-17,0,512,512
261.26,-2.77556e-17,0,512,512
261.307,0,0,512,512
261.354,0,0,512,512
261.401,0,0,512,512
261.459,0,0,512,512
261.506,2.77556e-17,0,512,512
261.553,2.77556e-17,0,512,512
261.612,0,0,512,512
261.658,-2.77556e-17,0,512,512
261.705,0,0,512,512
261.752,2.77556e-17,0,512,512
261.811,2.77556e-17,0,512,512
261.858,0,0,512,512
261.905,2.77556e-17,0,512,512
261.951,2.77556e-17,0,512,512
262.01,-5.55112e-17,0,512,512
262.057,-2.77556e-17,0,512,512
262.104,0,0,512,512
262.151,0,0,512,512
262.209,-2.77556e-17,0,512,512
262.256,-2.77556e-17,0,512,512
262.303,-2.77556e-17,0,512,512
262.361,-2.77556e-17,0,512,512
262.408,0,0,512,512
262.455,0,0,512,512
262.502,0,0,512,512
262.561,0,0,512,512
262.608,0,0,512,512
262.654,2.77556e-17,0,512,512
262.701,2.77556e-17,0,512,512
262.76,0,0,512,512
262.807,0,0,512,512
262.854,0,0,512,512
262.9,0,0,512,512
262.959,0,0,512,512
263.006,0,0,512,512
263.053,0,0,512,512
263.111,0,0,512,512
263.158,-2.77556e-17,0,512,512
263.205,0,0,512,512
263.252,0,0,512,512
263.311,0,0,512,512
263.357,0,0,512,512
263.404,0,0,512,512
263.451,2.77556e-17,0,512,512
263.51,2.77556e-17,0,512,512
263.557,0,0,512,512
263.603,-2.77556e-17,0,512,512
263.65,-2.77556e-17,0,512,512
263.709,-2.77556e-17,0,512,512
263.756,0,0,512,512
263.803,0,0,512,512
263.861,0,0,512,512
263.908,0,0,512,512
263.955,-2.77556e-17,0,512,512
264.002,-2.77556e-17,0,512,512
264.06,-2.77556e-17,0,512,512
264.107,-2.77556e-17,0,512,512
264.154,0,0,512,512
264.201,-2.77556e-17,0,512,512
264.26,0,0,512,512
264.306,0,0,512,512
264.353,-5.55112e-17,0,512,512
264.4,-2.77556e-17,0,512,512
264.459,-2.77556e-17,0,512,512
264.506,-2.77556e-17,0,512,512
264.553,-2.77556e-17,0,512,512
264.611,-2.77556e-17,0,512,512
264.658,-2.77556e-17,0,512,512
264.705,0,0,512,512
264.752,0,0,512,512
264.81,-2.77556e-17,0,512,512
264.857,-2.77556e-17,0,512,512
264.904,0,0,512,512
264.951,0,0,512,512
265.01,0,0,512,512
265.056,0,0,512,512
265.103,0,0,512,512
265.15,0,0,512,512
265.209,0,0,512,512
265.256,0,0,512,512
265.302,0,0,512,512
265.361,0,0,512,512
265.408,0,0,512,512
265.455,0,0,512,512
265.502,0,0,512,512
265.56,0,0,512,512
265.607,0,0,512,512
265.654,0,0,512,512
265.701,0,0,512,512
265.759,0,0,512,512
265.806,0,0,512,512
265.853,0,0,512,512
265.9,0,0,512,512
265.959,0,0,512,512
266.005,0,0,512,512
266.052,2.77556e-17,0,512,512
266.111,2.77556e-17,0,512,512
266.158,2.77556e-17,0,512,512
266.205,0,0,512,512
266.252,0,0,512,512
266.31,2.77556e-17,0,512,512
266.357,2.77556e-17,0,512,512
266.404,2.77556e-17,0,512,512
266.451,2.77556e-17,0,512,512
266.509,2.77556e-17,0,512,512
266.556,2.77556e-17,0,512,512
266.603,2.77556e-17,0,512,512
266.662,2.77556e-17,0,512,512
266.708,2.77556e-17,0,512,512
266.755,2.77556e-17,0,512,512
266.802,2.77556e-17,0,512,512
266.861,2.77556e-17,0,512,512
266.908,2.77556e-17,0,512,512
266.955,2.77556e-17,0,512,512
267.001,2.77556e-17,0,512,512
267.06,2.77556e-17,0,512,512
267.107,2.77556e-17,0,512,512
267.154,2.77556e-17,0,512,512
267.201,2.77556e-17,0,512,512
267.259,2.77556e-17,0,512,512
267.306,2.77556e-17,0,512,512
267.353,2.77556e-17,0,512,512
267.412,2.77556e-17,0,512,512
267.458,2.77556e-17,0,512,512
267.505,2.77556e-17,0,512,512
267.552,2.77556e-17,0,512,512
267.611,2.77556e-17,0,512,512
267.658,2.77556e-17,0,512,512
267.704,2.77556e-17,0,512,512
267.751,5.55112e-17,0,512,512
267.81,5.55112e-17,0,512,512
267.857,5.55112e-17,0,512,512
267.904,8.32667e-17,0,512,512
267.95,8.32667e-17,0,512,512
268.009,5.55112e-17,0,512,512
268.056,5.55112e-17,0,512,512
268.1,5.55112e-17,0,1979,1979
268.151,5.55112e-17,0,2867,2867
268.2,5.55112e-17,0,3767,3767
268.25,5.55112e-17,0,4669,4669
268.301,5.55112e-17,0,5597,5597
268.35,5.55112e-17,0,6485,6485
268.4,5.55112e-17,0,7385,7385
268.45,5.55112e-17,0,8341,8341
268.501,5.55112e-17,0,9239,9239
268.55,5.55112e-17,0,10139,10139
268.6,5.55112e-17,0,11027,11027
268.65,5.55112e-17,0,11927,11927
268.701,5.55112e-17,0,12857,12857
268.75,5.55112e-17,0,13757,13757
268.8,5.55112e-17,0,14645,14645
268.851,5.55112e-17,0,15545,15545
268.9,5.55112e-17,0,16427,16427
268.95,5.55112e-17,0,17327,17327
269,5.55112e-17,0,18215,18215
269.051,5.55112e-17,0,19187,19187
269.1,1.36002e-15,0,20087,20087
269.15,3.2474e-15,0,20961,20961
269.201,7.46625e-15,0,21869,21869
269.251,2.15938e-14,0,22745,22745
269.3,6.18949e-14,0,23567,23567
269.35,1.59373e-13,0,24467,24467
269.401,3.68927e-13,0,25355,25355
269.45,7.54119e-13,0,26199,26199
269.5,1.39527e-12,0,26765,26765
269.55,2.37427e-12,0,27647,27647
269.601,3.62954e-12,0,28547,28547
269.65,3.45751e-12,0,29519,29519
269.7,-6.6884e-11,0,30407,30407
269.751,-5.04864e-10,0,31307,31307
269.8,-6.19344e-10,0,32237,32237
269.85,-3.13818e-10,0,33137,33137
269.9,1.04736e-10,0,34025,34025
269.951,4.12365e-10,0,34925,34925
270,4.29798e-10,0,35807,35807
270.05,1.56204e-10,0,36707,36707
270.101,-1.78446e-10,0,37679,37679
270.151,-2.71086e-10,0,38495,38495
270.2,-4.11657e-11,0,39377,39377
270.25,2.87717e-10,0,40277,40277
270.301,4.13498e-10,0,41165,41165
270.35,2.29845e-10,0,42065,42065
270.4,-6.1595e-11,0,42943,42943
270.45,-1.89645e-10,0,43799,43799
270.501,-5.15722e-11,0,44687,44687
270.55,1.94349e-10,0,45587,45587
270.6,3.32182e-10,0,46397,46397
270.651,2.69175e-10,0,47285,47285
270.7,9.4862e-11,0,48137,48137
270.75,-5.49231e-11,0,48947,48947
270.8,-9.55296e-11,0,49835,49835
270.851,-1.25277e-11,0,50687,50687
270.9,1.70756e-10,0,51497,51497
270.95,3.68383e-10,0,52385,52385
271,4.15285e-10,0,53237,53237
271.051,1.57525e-10,0,54047,54047
271.1,-2.93007e-10,0,54887,54887
271.15,-5.14244e-10,0,55697,55697
271.201,-7.77479e-11,0,56549,56549
271.25,8.29303e-10,0,57365,57365
271.3,1.30249e-09,0,58199,58199
271.35,4.48342e-10,0,59015,59015
271.401,-1.41447e-09,0,59867,59867
271.45,-2.35013e-09,0,60629,60629
271.5,-3.96265e-10,0,61445,61445
271.551,4.90782e-09,0,62279,62279
271.6,1.18177e-08,0,63059,63059
271.65,1.84279e-08,0,63857,63857
271.7,2.35475e-08,0,64693,64693
271.751,2.69222e-08,0,65477,65477
271.8,2.85808e-08,0,66239,66239
271.85,2.95605e-08,0,67055,67055
271.9,3.17422e-08,0,67817,67817
271.951,3.70625e-08,0,68657,68657
272,4.57859e-08,0,69419,69419
272.05,5.68427e-08,0,70187,70187
272.101,6.92114e-08,0,70949,70949
272.15,8.26872e-08,0,71717,71717
272.2,9.90406e-08,0,72479,72479
272.25,1.20094e-07,0,73247,73247
272.301,1.47577e-07,0,74021,74021
272.35,1.81374e-07,0,74777,74777
272.4,2.21996e-07,0,75539,75539
272.451,2.6868e-07,0,76307,76307
272.501,3.16996e-07,0,77069,77069
272.55,3.64904e-07,0,77837,77837
272.6,4.12584e-07,0,78527,78527
272.651,4.63744e-07,0,79295,79295
272.7,5.19525e-07,0,80057,80057
272.75,5.79404e-07,0,80777,80777
272.8,6.38496e-07,0,81539,81539
272.851,6.92335e-07,0,82217,82217
272.9,7.36187e-07,0,82985,82985
272.95,7.69658e-07,0,83699,83699
273.001,7.92597e-07,0,84395,84395
273.05,8.0574e-07,0,85157,85157
273.1,8.12426e-07,0,85877,85877
273.15,8.15488e-07,0,86555,86555
273.201,8.16191e-07,0,87317,87317
273.25,8.14389e-07,0,88037,88037
273.3,8.09597e-07,0,88727,88727
273.351,8.00774e-07,0,89447,89447
273.401,7.86981e-07,0,90125,90125
273.45,7.66953e-07,0,90887,90887
273.5,7.39785e-07,0,91607,91607
273.551,7.04211e-07,0,92297,92297
273.6,6.61198e-07,0,93017,93017
273.65,6.12237e-07,0,93695,93695
273.7,5.6084e-07,0,94409,94409
273.751,5.09634e-07,0,95105,95105
273.8,4.62034e-07,0,95819,95819
273.85,4.1797e-07,0,96527,96527
273.901,3.77177e-07,0,97241,97241
273.95,3.40536e-07,0,97907,97907
274,3.06734e-07,0,98627,98627
274.05,2.75048e-07,0,99305,99305
274.101,2.44455e-07,0,100025,100025
274.15,2.15391e-07,0,100715,100715
274.2,1.87437e-07,0,101429,101429
274.251,1.61653e-07,0,102107,102107
274.301,1.41147e-07,0,102827,102827
274.35,1.26944e-07,0,103517,103517
274.4,1.17277e-07,0,104237,104237
274.451,1.0807e-07,0,104915,104915
274.5,9.64618e-08,0,105591,105591
274.55,8.27168e-08,0,106277,106277
274.6,6.95558e-08,0,106955,106955
274.651,5.92794e-08,0,107669,107669
274.7,5.26754e-08,0,108365,108365
274.75,4.87524e-08,0,108995,108995
274.801,4.63618e-08,0,109709,109709
274.85,4.41232e-08,0,110405,110405
274.9,4.04199e-08,0,111103,111103
274.95,3.44e-08,0,111749,111749
275.001,2.71205e-08,0,112445,112445
275.05,2.11848e-08,0,113147,113147
275.1,1.82388e-08,0,113789,113789
275.15,1.79805e-08,0,114485,114485
275.201,1.89044e-08,0,115115,115115
275.25,1.96498e-08,0,115829,115829
275.3,1.9897e-08,0,116477,116477
275.351,1.99091e-08,0,117155,117155
275.4,1.99531e-08,0,117869,117869
275.45,2.00831e-08,0,118517,118517
275.5,2.02305e-08,0,119159,119159
275.551,2.03446e-08,0,119837,119837
275.6,2.03388e-08,0,120557,120557
275.65,1.96156e-08,0,121187,121187
275.701,1.91154e-08,0,121829,121829
275.751,1.91104e-08,0,122459,122459
275.8,1.91423e-08,0,123107,123107
275.85,1.91747e-08,0,123665,123665
275.901,1.92075e-08,0,124295,124295
275.95,1.924e-08,0,124889,124889
276,1.92727e-08,0,125447,125447
276.05,1.93054e-08,0,126029,126029
276.101,1.93387e-08,0,126583,126583
276.15,1.93716e-08,0,127097,127097
276.2,1.94046e-08,0,127637,127637
276.251,1.94382e-08,0,128207,128207
276.3,1.94713e-08,0,128717,128717
276.35,1.95046e-08,0,129227,129227
276.4,1.95381e-08,0,129737,129737
276.451,1.95722e-08,0,130384,130384
276.5,1.9606e-08,0,131072,131072
276.55,1.96397e-08,0,131072,131072
276.601,1.96738e-08,0,130800,130800
276.651,1.97075e-08,0,130680,130680
276.7,1.97413e-08,0,131072,131072
276.75,1.97752e-08,0,131072,131072
276.801,1.98098e-08,0,131072,131072
276.85,1.9844e-08,0,131072,131072
276.9,1.98783e-08,0,131072,131072
276.95,1.99125e-08,0,131072,131072
277.001,1.99473e-08,0,131072,131072
277.05,1.99818e-08,0,131072,131072
277.1,2.00165e-08,0,131072,131072
277.151,2.00519e-08,0,131072,131072
277.2,2.00868e-08,0,131040,131040
277.25,2.01217e-08,0,131072,131072
277.3,2.01567e-08,0,131040,131040
277.351,2.01924e-08,0,131072,131072
277.4,2.02278e-08,0,131072,131072
277.45,2.02633e-08,0,131072,131072
277.5,2.02989e-08,0,131072,131072
277.551,2.03351e-08,0,131072,131072
277.6,2.03709e-08,0,131072,131072
277.65,2.04067e-08,0,131072,131072
277.701,2.04432e-08,0,131072,131072
277.75,2.04794e-08,0,131072,131072
277.8,2.05159e-08,0,131072,131072
277.85,2.05524e-08,0,131072,131072
277.901,2.05893e-08,0,131072,131072
277.95,2.06257e-08,0,131072,131072
278,2.06623e-08,0,131072,131072
278.051,2.07e-08,0,131072,131072
278.101,2.07374e-08,0,131072,131072
278.15,2.07745e-08,0,131072,131072
278.2,2.081e-08,0,131072,131072
278.251,2.08431e-08,0,131072,131072
278.3,2.08722e-08,0,131072,131072
278.35,2.0898e-08,0,131072,131072
278.4,2.09209e-08,0,131072,131072
278.451,2.09421e-08,0,131072,131072
278.5,2.09616e-08,0,131072,131072
278.55,2.09794e-08,0,131072,131072
278.601,2.09951e-08,0,131072,131072
278.65,2.10065e-08,0,131072,131072
278.7,2.10125e-08,0,131072,131072
278.75,2.10116e-08,0,131072,131072
278.801,2.10023e-08,0,131072,131072
278.85,2.09832e-08,0,131072,131072
278.9,2.09521e-08,0,131072,131072
278.951,2.09051e-08,0,131072,131072
279.001,2.08399e-08,0,131072,131072
279.05,2.07521e-08,0,131072,131072
279.1,2.0638e-08,0,131072,131072
279.151,2.04928e-08,0,131072,131072
279.2,2.03189e-08,0,131072,131072
279.25,2.01137e-08,0,131072,131072
279.3,1.98758e-08,0,131072,131072
279.351,1.95995e-08,0,131072,131072
279.4,1.92908e-08,0,131072,131072
279.45,1.89453e-08,0,131072,131072
279.501,1.85584e-08,0,131072,131072
279.55,1.81449e-08,0,131072,131072
279.6,1.77045e-08,0,131072,131072
279.65,1.72433e-08,0,131072,131072
279.701,1.67601e-08,0,131072,131072
279.75,1.62742e-08,0,131072,131072
279.8,1.57824e-08,0,131072,131072
279.85,1.52877e-08,0,131072,131072
279.901,1.47847e-08,0,131072,131072
279.95,1.42901e-08,0,131072,131072
280,1.37988e-08,0,131072,131072
280.051,1.33065e-08,0,131072,131072
280.1,1.2831e-08,0,131072,131072
280.15,1.23692e-08,0,131072,131072
280.2,1.19255e-08,0,131072,131072
280.251,1.14985e-08,0,131072,131072
280.3,1.11046e-08,0,131072,131072
280.35,1.07405e-08,0,131072,131072
280.401,1.04026e-08,0,131072,131072
280.451,1.01005e-08,0,131072,131072
280.5,9.82781e-09,0,131072,131072
280.55,9.58244e-09,0,131072,131072
280.601,9.35927e-09,0,131072,131072
280.65,9.16276e-09,0,131072,131072
280.7,8.98783e-09,0,131072,131072
280.75,8.83316e-09,0,131072,131072
280.801,8.69585e-09,0,131072,131072
280.85,8.57884e-09,0,131072,131072
280.9,8.47859e-09,0,131072,131072
280.951,8.39189e-09,0,131072,131072
281,8.31856e-09,0,131072,131072
281.05,8.25463e-09,0,131072,131072
281.1,8.19838e-09,0,131072,131072
281.151,8.14863e-09,0,131072,131072
281.2,8.10713e-09,0,131072,131072
281.25,8.07331e-09,0,131072,131072
281.301,8.04624e-09,0,131072,131072
281.351,8.0254e-09,0,131072,131072
281.4,8.00877e-09,0,131072,131072
281.45,7.99504e-09,0,131072,131072
281.501,7.98335e-09,0,131072,131072
281.55,7.97402e-09,0,131072,131072
281.6,7.96734e-09,0,131072,131072
281.65,7.96381e-09,0,131072,131072
281.701,7.96354e-09,0,131072,131072
281.75,7.96609e-09,0,131072,131072
281.8,7.9706e-09,0,131072,131072
281.851,7.97632e-09,0,131072,131072
281.9,7.98239e-09,0,131072,131072
281.95,7.98848e-09,0,131072,131072
282,7.99433e-09,0,131072,131072
282.051,7.99997e-09,0,131072,131072
282.1,8.00537e-09,0,131072,131072
282.15,8.01079e-09,0,131072,131072
282.2,8.01639e-09,0,131072,131072
282.251,8.02226e-09,0,131072,131072
282.3,8.02815e-09,0,131072,131072
282.35,8.03411e-09,0,131072,131072
282.401,8.04024e-09,0,131072,131072
282.45,8.04641e-09,0,131072,131072
282.5,8.05277e-09,0,131072,131072
282.55,8.05929e-09,0,131072,131072
282.601,8.06593e-09,0,131072,131072
282.65,8.07236e-09,0,131072,131072
282.7,8.07862e-09,0,131072,131072
282.751,8.08492e-09,0,131072,131072
282.801,8.09122e-09,0,131072,131072
282.85,8.0977e-09,0,131072,131072
282.9,8.10432e-09,0,131072,131072
282.951,8.11099e-09,0,131072,131072
283,8.11731e-09,0,131072,131072
283.05,8.12339e-09,0,131072,131072
283.1,8.12949e-09,0,131072,131072
283.151,8.13601e-09,0,131072,131072
283.2,8.14278e-09,0,131072,131072
283.25,8.14945e-09,0,131072,131072
283.301,8.15571e-09,0,131072,131072
283.35,8.16214e-09,0,131072,131072
283.4,8.17138e-09,0,131072,131072
283.45,8.18719e-09,0,131072,131072
283.501,8.21243e-09,0,131072,131072
283.55,8.24461e-09,0,131072,131072
283.6,8.27908e-09,0,131072,131072
283.651,8.31546e-09,0,131072,131072
283.701,8.36507e-09,0,131072,131072
283.75,8.45433e-09,0,131072,131072
283.8,8.60869e-09,0,131072,131072
283.851,8.83733e-09,0,131072,131072
283.9,9.11109e-09,0,131072,131072
283.95,9.39775e-09,0,131072,131072
284,9.67687e-09,0,131072,131072
284.051,9.96565e-09,0,131072,131072
284.1,1.02975e-08,0,131072,131072
284.15,1.07222e-08,0,131072,131072
284.201,1.12751e-08,0,131072,131072
284.25,1.19429e-08,0,131072,131072
284.3,1.27295e-08,0,131072,131072
284.35,1.36466e-08,0,131072,131072
284.401,1.47436e-08,0,131072,131072
284.45,1.60276e-08,0,131072,131072
284.5,1.75367e-08,0,131072,131072
284.551,1.92995e-08,0,131072,131072
284.601,2.12539e-08,0,131072,131072
284.65,2.34188e-08,0,131072,131072
284.7,2.5803e-08,0,131072,131072
284.751,2.84631e-08,0,131072,131072
284.8,3.1328e-08,0,131072,131072
284.85,3.44159e-08,0,131072,131072
284.9,3.76817e-08,0,131072,131072
284.951,4.1119e-08,0,131072,131072
285,4.45842e-08,0,131072,131072
285.05,4.81151e-08,0,131072,131072
285.101,5.17817e-08,0,131072,131072
285.15,5.5487e-08,0,131072,131072
285.2,5.92499e-08,0,131072,131072
285.25,6.30021e-08,0,131072,131072
285.301,6.67673e-08,0,131072,131072
285.35,7.0545e-08,0,131072,131072
285.4,7.46716e-08,0,131072,131072
285.45,7.95086e-08,0,131072,131072
285.501,8.5398e-08,0,131072,131072
285.55,9.213e-08,0,131072,131072
285.6,9.94232e-08,0,131072,131072
285.651,1.06847e-07,0,131072,131072
285.7,1.13708e-07,0,131072,131072
285.75,1.19924e-07,0,131072,131072
285.8,1.25682e-07,0,131072,131072
285.851,1.31581e-07,0,131072,131072
285.9,1.38112e-07,0,131072,131072
285.95,1.4595e-07,0,131072,131072
286.001,1.55651e-07,0,131072,131072
286.051,1.67176e-07,0,131072,131072
286.1,1.80882e-07,0,131072,131072
286.15,1.9715e-07,0,131072,131072
286.201,2.16865e-07,0,131072,131072
286.25,2.4011e-07,0,131072,131072
286.3,2.67644e-07,0,131072,131072
286.35,2.9959e-07,0,131072,131072
286.401,3.36152e-07,0,131072,131072
286.45,3.75526e-07,0,131072,131072
286.5,4.17352e-07,0,131072,131072
286.551,4.61594e-07,0,131072,131072
286.6,5.06543e-07,0,131072,131072
286.65,5.52483e-07,0,131072,131072
286.7,5.98754e-07,0,131072,131072
286.751,6.44727e-07,0,131072,131072
286.8,6.87158e-07,0,131072,131072
286.85,7.24589e-07,0,131072,131072
286.901,7.55559e-07,0,131072,131072
286.951,7.78026e-07,0,131072,131072
287,7.9228e-07,0,131072,131072
287.05,7.98924e-07,0,131072,131072
287.101,7.99024e-07,0,131072,131072
287.15,7.93799e-07,0,131072,131072
287.2,7.84246e-07,0,131072,131072
287.25,7.70858e-07,0,131072,131072
287.301,7.53361e-07,0,131072,131072
287.35,7.31891e-07,0,131072,131072
287.4,7.05667e-07,0,131072,131072
287.451,6.73654e-07,0,131072,131072
287.5,6.36507e-07,0,131072,131072
287.55,5.94001e-07,0,131072,131072
287.6,5.46924e-07,0,131072,131072
287.651,4.95874e-07,0,131072,131072
287.7,4.44067e-07,0,131072,131072
287.75,3.92548e-07,0,131072,131072
287.8,3.42812e-07,0,131072,131072
287.851,2.9523e-07,0,131072,131072
287.9,2.51705e-07,0,131072,131072
287.95,2.11608e-07,0,131072,131072
288.001,1.74222e-07,0,131072,131072
288.05,1.40336e-07,0,131072,131072
288.1,1.09178e-07,0,131072,131072
288.15,8.07532e-08,0,131072,131072
288.201,5.49545e-08,0,131072,131072
288.25,3.28775e-08,0,131072,131072
288.3,1.43168e-08,0,131072,131072
288.351,-1.12375e-09,0,131072,131072
288.4,-1.36234e-08,0,131072,131072
288.45,-2.42449e-08,0,131072,131072
288.5,-3.36339e-08,0,131072,131072
288.551,-4.2123e-08,0,131072,131072
288.6,-4.92635e-08,0,131072,131072
288.65,-5.48267e-08,0,131072,131072
288.7,-5.86114e-08,0,131072,131072
288.751,-6.07803e-08,0,131072,131072
288.8,-6.17363e-08,0,131072,131072
288.85,-6.21026e-08,0,131072,131072
288.901,-6.23255e-08,0,131072,131072
288.95,-6.25185e-08,0,131072,131072
289,-6.24656e-08,0,131072,131072
289.05,-6.17768e-08,0,131072,131072
289.101,-6.01041e-08,0,131072,131072
289.15,-5.74296e-08,0,131072,131072
289.2,-5.39351e-08,0,131072,131072
289.251,-4.9898e-08,0,131072,131072
289.301,-4.57628e-08,0,131072,131072
289.35,-4.16922e-08,0,131072,131072
289.4,-3.77978e-08,0,131072,131072
289.451,-3.40772e-08,0,131072,131072
289.5,-3.06711e-08,0,131072,131072
289.55,-2.7553e-08,0,131072,131072
289.6,-2.4738e-08,0,131072,131072
289.651,-2.21793e-08,0,131072,131072
289.7,-1.9916e-08,0,131072,131072
289.75,-1.7872e-08,0,131072,131072
289.801,-1.6e-08,0,131072,131072
289.85,-1.43509e-08,0,131072,131072
289.9,-1.29003e-08,0,131072,131072
289.95,-1.16496e-08,0,131072,131072
290.001,-1.05794e-08,0,131072,131072
290.05,-9.70976e-09,0,131072,131072
290.1,-9.00977e-09,0,131072,131072
290.151,-8.45702e-09,0,131072,131072
290.201,-8.05111e-09,0,131072,131072
290.25,-7.76606e-09,0,131072,131072
290.3,-7.58461e-09,0,131072,131072
290.351,-7.48894e-09,0,131072,131072
290.4,-7.4659e-09,0,131072,131072
290.45,-7.50022e-09,0,131072,131072
290.5,-7.58173e-09,0,131072,131072
290.551,-7.70522e-09,0,131072,131072
290.6,-7.86156e-09,0,131072,131072
290.65,-8.04706e-09,0,131072,131072
290.701,-8.25888e-09,0,131072,131072
290.75,-8.48358e-09,0,131072,131072
290.8,-8.71636e-09,0,131072,131072
290.85,-8.95012e-09,0,131072,131072
290.901,-9.18278e-09,0,131072,131072
290.95,-9.40438e-09,0,131072,131072
291,-9.61706e-09,0,131072,131072
291.05,-9.82048e-09,0,131072,131072
291.101,-1.0017e-08,0,131072,131072
291.15,-1.01996e-08,0,131072,131072
291.2,-1.03692e-08,0,131072,131072
291.251,-1.05258e-08,0,131072,131072
291.3,-1.06628e-08,0,131072,131072
291.35,-1.07815e-08,0,131072,131072
291.4,-1.08813e-08,0,131072,131072
291.451,-1.09634e-08,0,131072,131072
291.5,-1.10266e-08,0,131072,131072
291.55,-1.10737e-08,0,131072,131072
291.601,-1.11076e-08,0,131072,131072
291.651,-1.11299e-08,0,131072,131072
291.7,-1.11434e-08,0,131072,131072
291.75,-1.11495e-08,0,131072,131072
291.801,-1.11487e-08,0,131072,131072
291.85,-1.11415e-08,0,131072,131072
291.9,-1.11287e-08,0,131072,131072
291.95,-1.11116e-08,0,131072,131072
292.001,-1.10917e-08,0,131072,131072
292.05,-1.10717e-08,0,131072,131072
292.1,-1.10528e-08,0,131072,131072
292.151,-1.10354e-08,0,131072,131072
292.2,-1.10204e-08,0,131072,131072
292.25,-1.10075e-08,0,131072,131072
292.3,-1.0997e-08,0,131072,131072
292.351,-1.09894e-08,0,131072,131072
292.4,-1.09858e-08,0,131072,131072
292.45,-1.09871e-08,0,131072,131072
292.501,-1.09942e-08,0,131072,131072
292.551,-1.1007e-08,0,131072,131072
292.6,-1.10257e-08,0,131072,131072
292.65,-1.10501e-08,0,131072,131072
292.701,-1.10808e-08,0,131072,131072
292.75,-1.11168e-08,0,131072,131072
292.8,-1.1159e-08,0,131072,131072
292.85,-1.12076e-08,0,131072,131072
292.901,-1.12635e-08,0,131072,131072
292.95,-1.13253e-08,0,131072,131072
293,-1.13936e-08,0,131072,131072
293.051,-1.14694e-08,0,131072,131072
293.1,-1.155e-08,0,131072,131072
293.15,-1.16364e-08,0,131072,131072
293.2,-1.17285e-08,0,131072,131072
293.251,-1.1828e-08,0,131072,131072
293.3,-1.19323e-08,0,131072,131072
293.35,-1.20437e-08,0,131072,131072
293.4,-1.2163e-08,0,131072,131072
293.451,-1.22935e-08,0,131072,131072
293.5,-1.24328e-08,0,131072,131072
293.55,-1.25843e-08,0,131072,131072
293.601,-1.27526e-08,0,131072,131072
293.65,-1.29348e-08,0,131072,131072
293.7,-1.31354e-08,0,131072,131072
293.75,-1.33564e-08,0,131072,131072
293.801,-1.3603e-08,0,131072,131072
293.85,-1.38695e-08,0,131072,131072
293.9,-1.41601e-08,0,131072,131072
293.951,-1.44799e-08,0,131072,131072
294,-1.48198e-08,0,131072,131072
294.05,-1.51835e-08,0,131072,131072
294.1,-1.55697e-08,0,131072,131072
294.151,-1.59822e-08,0,131072,131072
294.2,-1.6406e-08,0,131072,131072
294.25,-1.68427e-08,0,131072,131072
294.3,-1.72878e-08,0,131072,131072
294.351,-1.77432e-08,0,131072,131072
294.4,-1.81908e-08,0,131072,131072
294.45,-1.86331e-08,0,131072,131072
294.501,-1.90726e-08,0,131072,131072
294.55,-1.94935e-08,0,131072,131072
294.6,-1.98995e-08,0,131072,131072
294.65,-2.02879e-08,0,131072,131072
294.701,-2.06615e-08,0,131072,131072
294.75,-2.10067e-08,0,131072,131072
294.8,-2.13262e-08,0,131072,131072
294.851,-2.16215e-08,0,131072,131072
294.901,-2.18814e-08,0,131072,131072
294.95,-2.21083e-08,0,131072,131072
295,-2.23009e-08,0,131072,131072
295.051,-2.24606e-08,0,131072,131072
295.1,-2.25833e-08,0,131072,131072
295.15,-2.26727e-08,0,131072,131072
295.2,-2.27307e-08,0,131072,131072
295.251,-2.27596e-08,0,131072,131072
295.3,-2.27613e-08,0,131072,131072
295.35,-2.27386e-08,0,131072,131072
295.401,-2.26933e-08,0,131072,131072
295.45,-2.26289e-08,0,131072,131072
295.5,-2.25472e-08,0,131072,131072
295.55,-2.24505e-08,0,131072,131072
295.601,-2.23394e-08,0,131072,131072
295.65,-2.22195e-08,0,131072,131072
295.7,-2.20912e-08,0,131072,131072
295.751,-2.19545e-08,0,131072,131072
295.801,-2.18149e-08,0,131072,131072
295.85,-2.16717e-08,0,131072,131072
295.9,-2.15262e-08,0,131072,131072
295.951,-2.13771e-08,0,131072,131072
296,-2.12297e-08,0,131072,131072
296.05,-2.10831e-08,0,131072,131072
296.1,-2.0938e-08,0,131072,131072
296.151,-2.07932e-08,0,131072,131072
296.2,-2.06535e-08,0,131072,131072
296.25,-2.05171e-08,0,131072,131072
296.301,-2.03823e-08,0,131072,131072
296.35,-2.02532e-08,0,131072,131072
296.4,-2.01283e-08,0,131072,131072
296.45,-2.00077e-08,0,131072,131072
296.501,-1.98903e-08,0,131072,131072
296.55,-1.97798e-08,0,131072,131072
296.6,-1.96745e-08,0,131072,131072
296.65,-1.95745e-08,0,131072,131072
296.701,-1.94783e-08,0,131072,131072
296.75,-1.93885e-08,0,131072,131072
296.8,-1.93033e-08,0,131072,131072
296.851,-1.92212e-08,0,131072,131072
296.9,-1.91443e-08,0,131072,131072
296.95,-1.9071e-08,0,131072,131072
297,-1.90008e-08,0,131072,131072
297.051,-1.89324e-08,0,131072,131072
297.1,-1.88674e-08,0,131072,131072
297.15,-1.88045e-08,0,131072,131072
297.201,-1.87425e-08,0,131072,131072
297.251,-1.86828e-08,0,131072,131072
297.3,-1.86243e-08,0,131072,131072
297.35,-1.85667e-08,0,131072,131072
297.401,-1.85088e-08,0,131072,131072
297.45,-1.84521e-08,0,131072,131072
297.5,-1.83956e-08,0,131072,131072
297.55,-1.8339e-08,0,131072,131072
297.601,-1.82814e-08,0,131072,131072
297.65,-1.82242e-08,0,131072,131072
297.7,-1.81665e-08,0,131072,131072
297.751,-1.81073e-08,0,131072,131072
297.8,-1.80481e-08,0,131072,131072
297.85,-1.79881e-08,0,131072,131072
297.9,-1.79271e-08,0,131072,131072
297.951,-1.78642e-08,0,131072,131072
298,-1.7801e-08,0,131072,131072
298.05,-1.77366e-08,0,131072,131072
298.101,-1.767e-08,0,131072,131072
298.151,-1.76029e-08,0,131072,131072
298.2,-1.75343e-08,0,131072,131072
298.25,-1.7464e-08,0,131072,131072
298.301,-1.73909e-08,0,131072,131072
298.35,-1.73168e-08,0,131072,131072
298.4,-1.72405e-08,0,131072,131072
298.45,-1.71617e-08,0,131072,131072
298.501,-1.70791e-08,0,131072,131072
298.55,-1.69947e-08,0,131072,131072
298.6,-1.69071e-08,0,131072,131072
298.651,-1.68147e-08,0,131072,131072
298.7,-1.67199e-08,0,131072,131072
298.75,-1.6621e-08,0,131072,131072
298.8,-1.6518e-08,0,131072,131072
298.851,-1.64089e-08,0,131072,131072
298.9,-1.62967e-08,0,131072,131072
298.95,-1.61797e-08,0,131072,131072
299,-1.60578e-08,0,131072,131072
299.051,-1.59291e-08,0,131072,131072
299.1,-1.57973e-08,0,131072,131072
299.15,-1.56605e-08,0,131072,131072
299.201,-1.55165e-08,0,131072,131072
299.25,-1.53697e-08,0,131072,131072
299.3,-1.52179e-08,0,131072,131072
299.35,-1.5061e-08,0,131072,131072
299.401,-1.48966e-08,0,131072,131072
299.45,-1.47291e-08,0,131072,131072
299.5,-1.4556e-08,0,131072,131072
299.551,-1.43743e-08,0,131072,131072
299.601,-1.41893e-08,0,131072,131072
299.65,-1.39982e-08,0,131072,131072
299.7,-1.38014e-08,0,131072,131072
299.751,-1.3596e-08,0,131072,131072
299.8,-1.33881e-08,0,131072,131072
299.85,-1.31748e-08,0,131072,131072
299.9,-1.2956e-08,0,131072,131072
299.951,-1.27278e-08,0,131072,131072
300,-1.2496e-08,0,131072,131072
300.05,-1.22562e-08,0,131072,131072
300.101,-1.20031e-08,0,131072,131072
300.15,-1.17424e-08,0,131072,131072
300.2,-1.14685e-08,0,131072,131072
300.25,-1.11792e-08,0,131072,131072
300.301,-1.08672e-08,0,131072,131072
300.35,-1.05392e-08,0,131072,131072
300.4,-1.01883e-08,0,131072,131072
300.451,-9.80688e-09,0,131072,131072
300.501,-9.40413e-09,0,131072,131072
300.55,-8.97351e-09,0,131072,131072
300.6,-8.51431e-09,0,131072,131072
300.651,-8.019e-09,0,131072,131072
300.7,-7.50252e-09,0,131072,131072
300.75,-6.95931e-09,0,131072,131072
300.8,-6.39174e-09,0,131072,131072
300.851,-5.79439e-09,0,131072,131072
300.9,-5.18896e-09,0,131072,131072
300.95,-4.57194e-09,0,131072,131072
301.001,-3.93953e-09,0,131072,131072
301.05,-3.31552e-09,0,131072,131072
301.1,-2.69586e-09,0,131072,131072
301.15,-2.08514e-09,0,131072,131072
301.201,-1.47878e-09,0,131072,131072
301.25,-8.97996e-10,0,131072,131072
301.3,-3.3722e-10,0,131072,131072
301.35,2.00344e-10,0,131072,131072
301.401,7.18786e-10,0,131072,131072
301.45,1.19979e-09,0,131072,131072
301.5,1.64788e-09,0,131072,131072
301.551,2.06585e-09,0,131072,131072
301.6,2.43907e-09,0,131072,131072
301.65,2.77205e-09,0,131072,131072
301.7,3.0639e-09,0,131072,131072
301.751,3.31802e-09,0,131072,131072
301.8,3.52803e-09,0,131072,131072
301.85,3.69968e-09,0,131072,131072
301.901,3.83702e-09,0,131072,131072
301.951,3.93876e-09,0,131072,131072
302,4.00999e-09,0,131072,131072
302.05,4.05351e-09,0,131072,131072
302.101,4.07222e-09,0,131072,131072
302.15,4.06837e-09,0,131072,131072
302.2,4.04512e-09,0,131072,131072
302.25,4.00522e-09,0,131072,131072
302.301,3.95044e-09,0,131072,131072
302.35,3.88495e-09,0,131072,131072
302.4,3.81036e-09,0,131072,131072
302.451,3.72746e-09,0,131072,131072
302.5,3.64044e-09,0,131072,131072
302.55,3.54972e-09,0,131072,131072
302.6,3.45672e-09,0,131072,131072
302.651,3.36134e-09,0,131072,131072
302.7,3.26752e-09,0,131072,131072
302.75,3.17483e-09,0,131072,131072
302.801,3.08268e-09,0,131072,131072
302.851,2.9943e-09,0,131072,131072
302.9,2.90882e-09,0,131072,131072
302.95,2.82675e-09,0,131072,131072
303.001,2.74758e-09,0,131072,131072
303.05,2.67435e-09,0,131072,131072
303.1,2.60662e-09,0,131072,131072
303.15,2.54505e-09,0,131072,131072
303.201,2.48936e-09,0,131072,131072
303.25,2.44144e-09,0,131072,131072
303.3,2.40051e-09,0,131072,131072
303.351,2.36604e-09,0,131072,131072
303.4,2.33883e-09,0,131072,131072
303.45,2.31799e-09,0,131072,131072
303.5,2.30299e-09,0,131072,131072
303.551,2.29302e-09,0,131072,131072
303.6,2.28747e-09,0,131072,131072
303.65,2.28522e-09,0,131072,131072
303.7,2.2854e-09,0,131072,131072
303.751,2.28727e-09,0,131072,131072
303.8,2.29014e-09,0,131072,131072
303.85,2.29344e-09,0,131072,131072
303.901,2.29657e-09,0,131072,131072
303.95,2.2987e-09,0,131072,131072
304,2.29914e-09,0,131072,131072
304.05,2.29728e-09,0,131072,131072
304.101,2.29279e-09,0,131072,131072
304.15,2.28598e-09,0,131072,131072
304.2,2.27745e-09,0,131072,131072
304.251,2.26796e-09,0,131072,131072
304.301,2.25871e-09,0,131072,131072
304.35,2.25028e-09,0,131072,131072
304.4,2.243e-09,0,131072,131072
304.451,2.23669e-09,0,131072,131072
304.5,2.23113e-09,0,131072,131072
304.55,2.22568e-09,0,131072,131072
304.6,2.21983e-09,0,131072,131072
304.651,2.21318e-09,0,131072,131072
304.7,2.20597e-09,0,131072,131072
304.75,2.19846e-09,0,131072,131072
304.801,2.1912e-09,0,131072,131072
304.85,2.18516e-09,0,131072,131072
304.9,2.18095e-09,0,131072,131072
304.95,2.17907e-09,0,131072,131072
