250,0,0,512,512
250.012,0,0,512,512
250.059,0,0,512,512
250.105,0,0,512,512
250.152,0,0,512,512
250.211,0,0,512,512
250.258,0,0,512,512
250.305,0,0,512,512
250.352,0,0,512,512
250.41,0,0,512,512
250.457,0,0,512,512
250.504,0,0,512,512
250.551,0,0,512,512
250.609,0,0,512,512
250.656,0,0,512,512
250.703,0,0,512,512
250.762,0,0,512,512
250.808,0,0,512,512
250.855,0,0,512,512
250.902,0,0,512,512
250.961,2.77556e-17,0,512,512
251.008,2.77556e-17,0,512,512
251.055,2.77556e-17,0,512,512
251.101,0,0,512,512
251.16,0,0,512,512
251.207,0,0,512,512
251.254,0,0,512,512
251.301,0,0,512,512
251.359,0,0,512,512
251.406,0,0,512,512
251.453,0,0,512,512
251.511,0,0,512,512
251.558,0,0,512,512
251.605,0,0,512,512
251.652,0,0,512,512
251.711,0,0,512,512
251.758,0,0,512,512
251.804,0,0,512,512
251.851,0,0,512,512
251.91,0,0,512,512
251.957,0,0,512,512
252.004,0,0,512,512
252.05,0,0,512,512
252.109,0,0,512,512
252.156,0,0,512,512
252.203,0,0,512,512
252.261,0,0,512,512
252.308,0,0,512,512
252.355,0,0,512,512
252.402,0,0,512,512
252.461,0,0,512,512
252.507,-2.77556e-17,0,512,512
252.554,-2.77556e-17,0,512,512
252.601,-2.77556e-17,0,512,512
252.66,-2.77556e-17,0,512,512
252.707,-2.77556e-17,0,512,512
252.754,-2.77556e-17,0,512,512
252.8,0,0,512,512
252.859,0,0,512,512
252.906,-2.77556e-17,0,512,512
252.953,-2.77556e-17,0,512,512
253.011,-2.77556e-17,0,512,512
253.058,-2.77556e-17,0,512,512
253.105,-2.77556e-17,0,512,512
253.152,-2.77556e-17,0,512,512
253.21,-2.77556e-17,0,512,512
253.257,-2.77556e-17,0,512,512
253.304,-2.77556e-17,0,512,512
253.351,0,0,512,512
253.41,0,0,512,512
253.457,0,0,512,512
253.503,0,0,512,512
253.55,0,0,512,512
253.609,0,0,512,512
253.656,0,0,512,512
253.703,0,0,512,512
253.761,0,0,512,512
253.808,0,0,512,512
253.855,0,0,512,512
253.902,-2.77556e-17,0,512,512
253.96,-2.77556e-17,0,512,512
254.007,-2.77556e-17,0,512,512
254.054,0,0,512,512
254.101,-2.77556e-17,0,512,512
254.16,0,0,512,512
254.206,0,0,512,512
254.253,0,0,512,512
254.3,0,0,512,512
254.359,0,0,512,512
254.406,0,0,512,512
254.452,0,0,512,512
254.511,0,0,512,512
254.558,0,0,512,512
254.605,0,0,512,512
254.652,-2.77556e-17,0,512,512
254.71,-2.77556e-17,0,512,512
254.757,-2.77556e-17,0,512,512
254.804,-2.77556e-17,0,512,512
254.851,-2.77556e-17,0,512,512
254.909,-2.77556e-17,0,512,512
254.956,0,0,512,512
255.003,0,0,512,512
255.05,0,0,512,512
255.109,0,0,512,512
255.155,0,0,512,512
255.202,0,0,512,512
255.261,0,0,512,512
255.308,0,0,512,512
255.355,0,0,512,512
255.402,0,0,512,512
255.46,0,0,512,512
255.507,0,0,512,512
255.554,0,0,512,512
255.601,0,0,512,512
255.659,0,0,512,512
255.706,0,0,512,512
255.753,0,0,512,512
255.812,0,0,512,512
255.859,0,0,512,512
255.905,0,0,512,512
255.952,-2.77556e-17,0,512,512
256.011,-2.77556e-17,0,512,512
256.058,-2.77556e-17,0,512,512
256.105,-2.77556e-17,0,512,512
256.151,-2.77556e-17,0,512,512
256.21,-2.77556e-17,0,512,512
256.257,-2.77556e-17,0,512,512
256.304,-2.77556e-17,0,512,512
256.351,-2.77556e-17,0,512,512
256.409,-2.77556e-17,0,512,512
256.456,-2.77556e-17,0,512,512
256.503,0,0,512,512
256.562,0,0,512,512
256.608,0,0,512,512
256.655,-2.77556e-17,0,512,512
256.702,-2.77556e-17,0,512,512
256.761,-2.77556e-17,0,512,512
256.808,-5.55112e-17,0,512,512
256.854,-5.55112e-17,0,512,512
256.901,-5.55112e-17,0,512,512
256.96,-5.55112e-17,0,512,512
257.007,-5.55112e-17,0,512,512
257.054,-5.55112e-17,0,512,512
257.101,-5.55112e-17,0,512,512
257.159,-5.55112e-17,0,512,512
257.206,-5.55112e-17,0,512,512
257.253,-5.55112e-17,0,512,512
257.311,-2.77556e-17,0,512,512
257.358,-2.77556e-17,0,512,512
257.405,-2.77556e-17,0,512,512
257.452,-2.77556e-17,0,512,512
257.511,-2.77556e-17,0,512,512
257.557,0,0,512,512
257.604,-2.77556e-17,0,512,512
257.651,0,0,512,512
257.71,0,0,512,512
257.757,0,0,512,512
257.804,0,0,512,512
257.85,-2.77556e-17,0,512,512
257.909,-2.77556e-17,0,512,512
257.956,0,0,512,512
258.003,0,0,512,512
258.061,0,0,512,512
258.108,0,0,512,512
258.155,0,0,512,512
258.202,0,0,512,512
258.261,2.77556e-17,0,512,512
258.307,0,0,512,512
258.354,0,0,512,512
258.401,0,0,512,512
258.46,0,0,512,512
258.507,0,0,512,512
258.553,0,0,512,512
258.6,-2.77556e-17,0,512,512
258.659,2.77556e-17,0,512,512
258.706,5.55112e-17,0,512,512
258.753,2.77556e-17,0,512,512
258.811,2.77556e-17,0,512,512
258.858,5.55112e-17,0,512,512
258.905,2.77556e-17,0,512,512
258.952,2.77556e-17,0,512,512
259.01,2.77556e-17,0,512,512
259.057,2.77556e-17,0,512,512
259.104,2.77556e-17,0,512,512
259.151,2.77556e-17,0,512,512
259.21,0,0,512,512
259.256,0,0,512,512
259.303,0,0,512,512
259.35,0,0,512,512
259.409,0,0,512,512
259.456,0,0,512,512
259.503,0,0,512,512
259.561,0,0,512,512
259.608,0,0,512,512
259.655,0,0,512,512
259.702,0,0,512,512
259.76,0,0,512,512
259.807,0,0,512,512
259.854,0,0,512,512
259.901,2.77556e-17,0,512,512
259.959,0,0,512,512
260.006,2.77556e-17,0,512,512
260.053,2.77556e-17,0,512,512
260.1,2.77556e-17,0,512,512
260.159,2.77556e-17,0,512,512
260.206,2.77556e-17,0,512,512
260.252,2.77556e-17,0,512,512
260.311,2.77556e-17,0,512,512
260.358,2.77556e-17,0,512,512
260.405,2.77556e-17,0,512,512
260.452,2.77556e-17,0,512,512
260.51,2.77556e-17,0,512,512
260.557,5.55112e-17,0,512,512
260.604,5.55112e-17,0,512,512
260.651,5.55112e-17,0,512,512
260.709,2.77556e-17,0,512,512
260.756,0,0,512,512
260.803,0,0,512,512
260.862,0,0,512,512
260.909,0,0,512,512
260.955,0,0,512,512
261.002,0,0,512,512
261.061,2.77556e-17,0,512,512
261.108,2.77556e-17,0,512,512
261.155,0,0,512,512
261.201,2.77556e-17,0,512,512
261.26,-2.77556e-17,0,512,512
261.307,0,0,512,512
261.354,0,0,512,512
261.401,0,0,512,512
261.459,0,0,512,512
261.506,2.77556e-17,0,512,512
261.553,2.77556e-17,0,512,512
261.612,0,0,512,512
261.658,-2.77556e-17,0,512,512
261.705,0,0,512,512
261.752,2.77556e-17,0,512,512
261.811,2.77556e-17,0,512,512
261.858,0,0,512,512
261.905,2.77556e-17,0,512,512
261.951,2.77556e-17,0,512,512
262.01,-5.55112e-17,0,512,512
262.057,-2.77556e-17,0,512,512
262.104,0,0,512,512
262.151,0,0,512,512
262.209,-2.77556e-17,0,512,512
262.256,-2.77556e-17,0,512,512
262.303,-2.77556e-17,0,512,512
262.361,-2.77556e-17,0,512,512
262.408,0,0,512,512
262.455,0,0,512,512
262.502,0,0,512,512
262.561,0,0,512,512
262.608,0,0,512,512
262.654,2.77556e-17,0,512,512
262.701,2.77556e-17,0,512,512
262.76,0,0,512,512
262.807,0,0,512,512
262.854,0,0,512,512
262.9,0,0,512,512
262.959,0,0,512,512
263.006,0,0,512,512
263.053,0,0,512,512
263.111,0,0,512,512
263.158,-2.77556e-17,0,512,512
263.205,0,0,512,512
263.252,0,0,512,512
263.311,0,0,512,512
263.357,0,0,512,512
263.404,0,0,512,512
263.451,2.77556e-17,0,512,512
263.51,2.77556e-17,0,512,512
263.557,0,0,512,512
263.603,-2.77556e-17,0,512,512
263.65,-2.77556e-17,0,512,512
263.709,-2.77556e-17,0,512,512
263.756,0,0,512,512
263.803,0,0,512,512
263.861,0,0,512,512
263.908,0,0,512,512
263.955,-2.77556e-17,0,512,512
264.002,-2.77556e-17,0,512,512
264.06,-2.77556e-17,0,512,512
264.107,-2.77556e-17,0,512,512
264.154,0,0,512,512
264.201,-2.77556e-17,0,512,512
264.26,0,0,512,512
264.306,0,0,512,512
264.353,-5.55112e-17,0,512,512
264.4,-2.77556e-17,0,512,512
264.459,-2.77556e-17,0,512,512
264.506,-2.77556e-17,0,512,512
264.553,-2.77556e-17,0,512,512
264.611,-2.77556e-17,0,512,512
264.658,-2.77556e-17,0,512,512
264.705,0,0,512,512
264.752,0,0,512,512
264.81,-2.77556e-17,0,512,512
264.857,-2.77556e-17,0,512,512
264.904,0,0,512,512
264.951,0,0,512,512
265.01,0,0,512,512
265.056,0,0,512,512
265.103,0,0,512,512
265.15,0,0,512,512
265.209,0,0,512,512
265.256,0,0,512,512
265.302,0,0,512,512
265.361,0,0,512,512
265.408,0,0,512,512
265.455,0,0,512,512
265.502,0,0,512,512
265.56,0,0,512,512
265.607,0,0,512,512
265.654,0,0,512,512
265.701,0,0,512,512
265.759,0,0,512,512
265.806,0,0,512,512
265.853,0,0,512,512
265.9,0,0,512,512
265.959,0,0,512,512
266.005,0,0,512,512
266.052,2.77556e-17,0,512,512
266.111,2.77556e-17,0,512,512
266.158,2.77556e-17,0,512,512
266.205,0,0,512,512
266.252,0,0,512,512
266.31,2.77556e-17,0,512,512
266.357,2.77556e-17,0,512,512
266.404,2.77556e-17,0,512,512
266.451,2.77556e-17,0,512,512
266.509,2.77556e-17,0,512,512
266.556,2.77556e-17,0,512,512
266.603,2.77556e-17,0,512,512
266.662,2.77556e-17,0,512,512
266.708,2.77556e-17,0,512,512
266.755,2.77556e-17,0,512,512
266.802,2.77556e-17,0,512,512
266.861,2.77556e-17,0,512,512
266.908,2.77556e-17,0,512,512
266.955,2.77556e-17,0,512,512
267.001,2.77556e-17,0,512,512
267.06,2.77556e-17,0,512,512
267.107,2.77556e-17,0,512,512
267.154,2.77556e-17,0,512,512
267.201,2.77556e-17,0,512,512
267.259,2.77556e-17,0,512,512
267.306,2.77556e-17,0,512,512
267.353,2.77556e-17,0,512,512
267.412,2.77556e-17,0,512,512
267.458,2.77556e-17,0,512,512
267.505,2.77556e-17,0,512,512
267.552,2.77556e-17,0,512,512
267.611,2.77556e-17,0,512,512
267.658,2.77556e-17,0,512,512
267.704,2.77556e-17,0,512,512
267.751,5.55112e-17,0,512,512
267.81,5.55112e-17,0,512,512
267.857,5.55112e-17,0,512,512
267.904,8.32667e-17,0,512,512
267.95,8.32667e-17,0,512,512
268.009,5.55112e-17,0,512,512
268.056,5.55112e-17,0,512,512
268.103,5.55112e-17,0,512,512
268.161,2.77556e-17,0,512,512
268.208,2.77556e-17,0,512,512
268.255,2.77556e-17,0,512,512
268.302,0,0,512,512
268.361,2.77556e-17,0,512,512
268.407,0,0,512,512
268.454,0,0,512,512
268.501,0,0,512,512
268.56,0,0,512,512
268.607,0,0,512,512
268.654,0,0,512,512
268.7,0,0,512,512
268.759,2.77556e-17,0,512,512
268.806,0,0,512,512
268.853,0,0,512,512
268.911,-2.77556e-17,0,512,512
268.958,0,0,512,512
269.005,0,0,512,512
269.052,2.77556e-17,0,512,512
269.11,0,0,512,512
269.157,2.77556e-17,0,512,512
269.204,0,0,512,512
269.251,2.77556e-17,0,512,512
269.31,4.44089e-16,0,512,512
269.357,4.55191e-15,0,512,512
269.403,-9.35363e-15,0,512,512
269.45,-4.55219e-13,0,512,512
269.509,-5.61912e-12,0,512,512
269.556,-2.24128e-11,0,512,512
269.603,-6.09579e-11,0,512,512
269.661,-1.38834e-10,0,512,512
269.708,-2.00483e-10,0,512,512
269.755,-2.27584e-10,0,512,512
269.802,-1.99253e-10,0,512,512
269.86,-9.75159e-11,0,512,512
269.907,-3.79732e-12,0,512,512
269.954,6.01119e-11,0,512,512
270.002,7.56477e-11,0,563,563
270.051,5.98034e-11,0,617,617
270.101,4.70093e-11,0,671,671
270.151,5.57636e-11,0,713,713
270.201,7.96016e-11,0,773,773
270.251,9.94521e-11,0,821,821
270.3,1.02787e-10,0,863,863
270.35,9.27256e-11,0,923,923
270.4,8.23003e-11,0,971,971
270.453,8.24084e-11,0,1031,1031
270.503,9.29849e-11,0,1073,1073
270.552,1.05128e-10,0,1133,1133
270.602,1.10154e-10,0,1181,1181
270.652,1.05991e-10,0,1237,1237
270.702,9.80149e-11,0,1283,1283
270.752,9.41287e-11,0,1331,1331
270.801,9.8185e-11,0,1391,1391
270.851,1.06872e-10,0,1433,1433
270.901,1.12717e-10,0,1493,1493
270.951,1.10951e-10,0,1541,1541
271.001,1.04197e-10,0,1601,1601
271.05,1.00152e-10,0,1643,1643
271.1,1.04276e-10,0,1703,1703
271.153,1.17124e-10,0,1751,1751
271.203,1.39794e-10,0,1811,1811
271.252,1.96934e-10,0,1853,1853
271.302,3.48374e-10,0,1913,1913
271.352,6.8509e-10,0,1961,1961
271.402,1.30281e-09,0,2021,2021
271.452,2.26562e-09,0,2063,2063
271.501,3.5788e-09,0,2123,2123
271.551,5.18114e-09,0,2171,2171
271.601,6.94396e-09,0,2231,2231
271.651,1.13987e-08,0,2273,2273
271.701,2.06616e-08,0,2333,2333
271.75,2.55616e-08,0,2381,2381
271.8,2.79616e-08,0,2423,2423
271.85,2.97606e-08,0,2483,2483
271.903,3.28271e-08,0,2543,2543
271.953,3.80422e-08,0,2591,2591
272.002,4.61784e-08,0,2647,2647
272.052,5.64491e-08,0,2693,2693
272.102,6.85743e-08,0,2741,2741
272.152,8.24279e-08,0,2801,2801
272.202,9.9271e-08,0,2843,2843
272.251,1.20441e-07,0,2891,2891
272.301,1.47162e-07,0,2951,2951
272.351,1.8025e-07,0,2993,2993
272.401,2.19445e-07,0,3053,3053
272.451,2.63628e-07,0,3101,3101
272.5,3.10465e-07,0,3143,3143
272.55,3.58284e-07,0,3197,3197
272.603,4.09864e-07,0,3251,3251
272.653,4.61106e-07,0,3293,3293
272.702,5.1609e-07,0,3353,3353
272.752,5.73692e-07,0,3401,3401
272.802,6.30608e-07,0,3443,3443
272.852,6.82654e-07,0,3491,3491
272.902,7.26744e-07,0,3551,3551
272.951,7.6112e-07,0,3593,3593
273.001,7.85479e-07,0,3641,3641
273.051,8.00962e-07,0,3683,3683
273.101,8.09681e-07,0,3743,3743
273.151,8.13928e-07,0,3791,3791
273.2,8.15037e-07,0,3833,3833
273.25,8.13406e-07,0,3881,3881
273.3,8.08674e-07,0,3923,3923
273.353,7.994e-07,0,3983,3983
273.403,7.8556e-07,0,4031,4031
273.452,7.6567e-07,0,4051,4051
273.502,7.38864e-07,0,4044,4044
273.552,7.04589e-07,0,4036,4036
273.602,6.63181e-07,0,4032,4032
273.652,6.16294e-07,0,4022,4022
273.701,5.6665e-07,0,4022,4022
273.751,5.17086e-07,0,4022,4022
273.801,4.69598e-07,0,4052,4052
273.851,4.25276e-07,0,4112,4112
273.901,3.84488e-07,0,4154,4154
273.95,3.47077e-07,0,4202,4202
274,3.12553e-07,0,4244,4244
274.053,2.78438e-07,0,4292,4292
274.103,2.47945e-07,0,4334,4334
274.152,2.18795e-07,0,4382,4382
274.202,1.91276e-07,0,4424,4424
274.252,1.66535e-07,0,4472,4472
274.302,1.4611e-07,0,4514,4514
274.352,1.30672e-07,0,4562,4562
274.401,1.18992e-07,0,4592,4592
274.451,1.08491e-07,0,4634,4634
274.501,9.70583e-08,0,4682,4682
274.551,8.44993e-08,0,4724,4724
274.601,7.23039e-08,0,4772,4772
274.65,6.21733e-08,0,4832,4832
274.7,5.48774e-08,0,4922,4922
274.753,4.98966e-08,0,5024,5024
274.803,4.67541e-08,0,5120,5120
274.853,4.38096e-08,0,5198,5198
274.902,3.98461e-08,0,5282,5282
274.952,3.43977e-08,0,5389,5389
275.002,2.81944e-08,0,5453,5453
275.052,2.29008e-08,0,5501,5501
275.102,1.98956e-08,0,5531,5531
275.151,1.89611e-08,0,5573,5573
275.201,1.90167e-08,0,5621,5621
275.251,1.93253e-08,0,5663,5663
275.301,1.96061e-08,0,5711,5711
275.35,1.98061e-08,0,5741,5741
275.4,1.99505e-08,0,5783,5783
275.45,2.00663e-08,0,5831,5831
275.503,2.01415e-08,0,5873,5873
275.553,2.01048e-08,0,5903,5903
275.602,1.99299e-08,0,5951,5951
275.652,1.96708e-08,0,5993,5993
275.702,1.94309e-08,0,6041,6041
275.752,1.92759e-08,0,6071,6071
275.802,1.92059e-08,0,6113,6113
275.851,1.91926e-08,0,6161,6161
275.901,1.9208e-08,0,6203,6203
275.951,1.9236e-08,0,6233,6233
276.001,1.92747e-08,0,6281,6281
276.051,1.93177e-08,0,6323,6323
276.1,1.93546e-08,0,6353,6353
276.15,1.93901e-08,0,6401,6401
276.203,1.94268e-08,0,6443,6443
276.253,1.94611e-08,0,6491,6491
276.302,1.94958e-08,0,6521,6521
276.352,1.95291e-08,0,6563,6563
276.402,1.95633e-08,0,6611,6611
276.452,1.9596e-08,0,6641,6641
276.502,1.96283e-08,0,6683,6683
276.551,1.96586e-08,0,6731,6731
276.601,1.96861e-08,0,6761,6761
276.651,1.97152e-08,0,6803,6803
276.701,1.97468e-08,0,6851,6851
276.751,1.97796e-08,0,6881,6881
276.8,1.98133e-08,0,6923,6923
276.85,1.98471e-08,0,6971,6971
276.9,1.98811e-08,0,7001,7001
276.953,1.99172e-08,0,7043,7043
277.003,1.99514e-08,0,7091,7091
277.052,1.99858e-08,0,7121,7121
277.102,2.00203e-08,0,7163,7163
277.152,2.00549e-08,0,7211,7211
277.202,2.00896e-08,0,7241,7241
277.252,2.01241e-08,0,7283,7283
277.301,2.01587e-08,0,7313,7313
277.351,2.01936e-08,0,7361,7361
277.401,2.02289e-08,0,7403,7403
277.451,2.02644e-08,0,7433,7433
277.501,2.02998e-08,0,7481,7481
277.55,2.03351e-08,0,7511,7511
277.6,2.03705e-08,0,7553,7553
277.653,2.04082e-08,0,7601,7601
277.703,2.0444e-08,0,7643,7643
277.752,2.04798e-08,0,7673,7673
277.802,2.05155e-08,0,7721,7721
277.852,2.05511e-08,0,7751,7751
277.902,2.05866e-08,0,7793,7793
277.952,2.06219e-08,0,7823,7823
278.001,2.0657e-08,0,7853,7853
278.051,2.06919e-08,0,7901,7901
278.101,2.07263e-08,0,7931,7931
278.151,2.07603e-08,0,7961,7961
278.201,2.07937e-08,0,8003,8003
278.25,2.0826e-08,0,8051,8051
278.3,2.08566e-08,0,8170,8170
278.35,2.0885e-08,0,8192,8192
278.403,2.0912e-08,0,8192,8192
278.453,2.09345e-08,0,8192,8192
278.502,2.09538e-08,0,8192,8192
278.552,2.09696e-08,0,8192,8192
278.602,2.09816e-08,0,8192,8192
278.652,2.09887e-08,0,8192,8192
278.702,2.09898e-08,0,8192,8192
278.751,2.09834e-08,0,8192,8192
278.801,2.09676e-08,0,8192,8192
278.851,2.09405e-08,0,8192,8192
278.901,2.08998e-08,0,8192,8192
278.951,2.08427e-08,0,8192,8192
279,2.07665e-08,0,8192,8192
279.05,2.06684e-08,0,8192,8192
279.103,2.05375e-08,0,8192,8192
279.153,2.03859e-08,0,8192,8192
279.202,2.0205e-08,0,8192,8192
279.252,1.99931e-08,0,8192,8192
279.302,1.97489e-08,0,8192,8192
279.352,1.94718e-08,0,8192,8192
279.402,1.91615e-08,0,8192,8192
279.451,1.88189e-08,0,8192,8192
279.501,1.84456e-08,0,8192,8192
279.551,1.80445e-08,0,8192,8192
279.601,1.76192e-08,0,8192,8192
279.651,1.71736e-08,0,8192,8192
279.7,1.67122e-08,0,8192,8192
279.75,1.62388e-08,0,8192,8192
279.8,1.57573e-08,0,8192,8192
279.853,1.52425e-08,0,8192,8192
279.903,1.47548e-08,0,8192,8192
279.952,1.42688e-08,0,8192,8192
280.002,1.37873e-08,0,8192,8192
280.052,1.33135e-08,0,8192,8192
280.102,1.28508e-08,0,8192,8192
280.152,1.24027e-08,0,8192,8192
280.201,1.19726e-08,0,8192,8192
280.251,1.15638e-08,0,8192,8192
280.301,1.1179e-08,0,8192,8192
280.351,1.08203e-08,0,8192,8192
280.401,1.04889e-08,0,8192,8192
280.45,1.01851e-08,0,8192,8192
280.5,9.90859e-09,0,8192,8192
280.553,9.64445e-09,0,8192,8192
280.603,9.42073e-09,0,8192,8192
280.652,9.22059e-09,0,8192,8192
280.702,9.0425e-09,0,8192,8192
280.752,8.88494e-09,0,8192,8192
280.802,8.74634e-09,0,8192,8192
280.852,8.62509e-09,0,8192,8192
280.901,8.51953e-09,0,8192,8192
280.951,8.42795e-09,0,8192,8192
281.001,8.3487e-09,0,8192,8192
281.051,8.28028e-09,0,8192,8192
281.101,8.22143e-09,0,8192,8192
281.15,8.17112e-09,0,8192,8192
281.2,8.12849e-09,0,8192,8192
281.25,8.09274e-09,0,8192,8192
281.303,8.06152e-09,0,8192,8192
281.353,8.03749e-09,0,8192,8192
281.402,8.01798e-09,0,8192,8192
281.452,8.00239e-09,0,8192,8192
281.502,7.99028e-09,0,8192,8192
281.552,7.98134e-09,0,8192,8192
281.602,7.97537e-09,0,8192,8192
281.651,7.97215e-09,0,8192,8192
281.701,7.97141e-09,0,8192,8192
281.751,7.97273e-09,0,8192,8192
281.801,7.97564e-09,0,8192,8192
281.851,7.97964e-09,0,8192,8192
281.9,7.98433e-09,0,8192,8192
281.95,7.98941e-09,0,8192,8192
282.003,7.995e-09,0,8192,8192
282.053,8.00039e-09,0,8192,8192
282.102,8.00582e-09,0,8192,8192
282.152,8.01129e-09,0,8192,8192
282.202,8.01682e-09,0,8192,8192
282.252,8.02238e-09,0,8192,8192
282.302,8.028e-09,0,8192,8192
282.351,8.03367e-09,0,8192,8192
282.401,8.03941e-09,0,8192,8192
282.451,8.04522e-09,0,8192,8192
282.501,8.05112e-09,0,8192,8192
282.551,8.05711e-09,0,8192,8192
282.6,8.0632e-09,0,8192,8192
282.65,8.06943e-09,0,8192,8192
282.703,8.07621e-09,0,8192,8192
282.753,8.08286e-09,0,8192,8192
282.803,8.08986e-09,0,8192,8192
282.852,8.0973e-09,0,8192,8192
282.902,8.10534e-09,0,8192,8192
282.952,8.11415e-09,0,8192,8192
283.002,8.12392e-09,0,8192,8192
283.052,8.13487e-09,0,8192,8192
283.101,8.14726e-09,0,8192,8192
283.151,8.16135e-09,0,8192,8192
283.201,8.17746e-09,0,8192,8192
283.251,8.19592e-09,0,8192,8192
283.3,8.21722e-09,0,8192,8192
283.35,8.242e-09,0,8192,8192
283.4,8.27126e-09,0,8192,8192
283.453,8.30876e-09,0,8192,8192
283.503,8.35246e-09,0,8192,8192
283.552,8.40678e-09,0,8192,8192
283.602,8.47463e-09,0,8192,8192
283.652,8.55908e-09,0,8192,8192
283.702,8.66328e-09,0,8192,8192
283.752,8.79053e-09,0,8192,8192
283.801,8.94452e-09,0,8192,8192
283.851,9.12963e-09,0,8192,8192
283.901,9.35133e-09,0,8192,8192
283.951,9.61649e-09,0,8192,8192
284.001,9.93366e-09,0,8192,8192
284.05,1.03131e-08,0,8192,8192
284.1,1.0767e-08,0,8192,8192
284.153,1.13438e-08,0,8192,8192
284.203,1.19953e-08,0,8192,8192
284.253,1.27667e-08,0,8192,8192
284.302,1.36745e-08,0,8192,8192
284.352,1.47348e-08,0,8192,8192
284.402,1.59634e-08,0,8192,8192
284.452,1.73749e-08,0,8192,8192
284.501,1.89821e-08,0,8192,8192
284.551,2.07955e-08,0,8192,8192
284.601,2.28228e-08,0,8192,8192
284.651,2.50682e-08,0,8192,8192
284.701,2.75323e-08,0,8192,8192
284.75,3.02113e-08,0,8192,8192
284.8,3.30975e-08,0,8192,8192
284.85,3.61797e-08,0,8192,8192
284.903,3.96405e-08,0,8192,8192
284.953,4.30776e-08,0,8192,8192
285.002,4.66596e-08,0,8192,8192
285.052,5.0367e-08,0,8192,8192
285.102,5.41805e-08,0,8192,8192
285.152,5.80819e-08,0,8192,8192
285.202,6.20573e-08,0,8192,8192
285.251,6.61005e-08,0,8192,8192
285.301,7.02185e-08,0,8192,8192
285.351,7.44373e-08,0,8192,8192
285.401,7.88051e-08,0,8192,8192
285.451,8.33898e-08,0,8192,8192
285.5,8.82723e-08,0,8192,8192
285.55,9.35337e-08,0,8192,8192
285.603,9.95963e-08,0,8192,8192
285.653,1.05846e-07,0,8192,8192
285.702,1.12653e-07,0,8192,8192
285.752,1.20078e-07,0,8192,8192
285.802,1.28207e-07,0,8192,8192
285.852,1.37176e-07,0,8192,8192
285.902,1.47178e-07,0,8192,8192
285.951,1.58462e-07,0,8192,8192
286.001,1.71319e-07,0,8192,8192
286.051,1.86061e-07,0,8192,8192
286.101,2.02999e-07,0,8192,8192
286.151,2.22412e-07,0,8192,8192
286.2,2.44524e-07,0,8192,8192
286.25,2.69475e-07,0,8192,8192
286.3,2.97306e-07,0,8192,8192
286.353,3.29825e-07,0,8192,8192
286.403,3.63203e-07,0,8192,8192
286.452,3.98825e-07,0,8192,8192
286.502,4.36222e-07,0,8192,8192
286.552,4.74798e-07,0,8192,8192
286.602,5.13843e-07,0,8192,8192
286.652,5.52553e-07,0,8192,8192
286.701,5.90058e-07,0,8192,8192
286.751,6.25466e-07,0,8192,8192
286.801,6.57908e-07,0,8192,8192
286.851,6.86596e-07,0,8192,8192
286.901,7.10868e-07,0,8192,8192
286.95,7.3022e-07,0,8192,8192
287,7.44324e-07,0,8192,8192
287.053,7.53355e-07,0,8192,8192
287.103,7.56286e-07,0,8192,8192
287.152,7.53856e-07,0,8192,8192
287.202,7.46205e-07,0,8192,8192
287.252,7.33501e-07,0,8192,8192
287.302,7.15929e-07,0,8192,8192
287.352,6.93698e-07,0,8192,8192
287.401,6.67055e-07,0,8192,8192
287.451,6.36317e-07,0,8192,8192
287.501,6.0189e-07,0,8192,8192
287.551,5.64286e-07,0,8192,8192
287.601,5.24123e-07,0,8192,8192
287.65,4.82101e-07,0,8192,8192
287.7,4.38974e-07,0,8192,8192
287.75,3.95501e-07,0,8192,8192
287.803,3.49899e-07,0,8192,8192
287.853,3.07914e-07,0,8192,8192
287.902,2.67539e-07,0,8192,8192
287.952,2.29209e-07,0,8192,8192
288.002,1.93248e-07,0,8192,8192
288.052,1.59881e-07,0,8192,8192
288.102,1.29242e-07,0,8192,8192
288.151,1.01392e-07,0,8192,8192
288.201,7.63262e-08,0,8192,8192
288.251,5.39833e-08,0,8192,8192
288.301,3.42573e-08,0,8192,8192
288.351,1.70052e-08,0,8192,8192
288.4,2.0593e-09,0,8192,8192
288.45,-1.07611e-08,0,8192,8192
288.503,-2.22229e-08,0,8192,8192
288.553,-3.124e-08,0,8192,8192
288.602,-3.8674e-08,0,8192,8192
288.652,-4.46846e-08,0,8192,8192
288.702,-4.94221e-08,0,8192,8192
288.752,-5.30261e-08,0,8192,8192
288.802,-5.56245e-08,0,8192,8192
288.851,-5.73301e-08,0,8192,8192
288.901,-5.82394e-08,0,8192,8192
288.951,-5.84322e-08,0,8192,8192
289.001,-5.79748e-08,0,8192,8192
289.051,-5.69261e-08,0,8192,8192
289.1,-5.53441e-08,0,8192,8192
289.15,-5.3292e-08,0,8192,8192
289.2,-5.08422e-08,0,8192,8192
289.253,-4.79055e-08,0,8192,8192
289.303,-4.49005e-08,0,8192,8192
289.352,-4.17618e-08,0,8192,8192
289.402,-3.85739e-08,0,8192,8192
289.452,-3.54122e-08,0,8192,8192
289.502,-3.23394e-08,0,8192,8192
289.552,-2.94041e-08,0,8192,8192
289.601,-2.6641e-08,0,8192,8192
289.651,-2.40728e-08,0,8192,8192
289.701,-2.17121e-08,0,8192,8192
289.751,-1.95642e-08,0,8192,8192
289.8,-1.7629e-08,0,8192,8192
289.85,-1.59026e-08,0,8192,8192
289.9,-1.43789e-08,0,8192,8192
289.953,-1.29779e-08,0,8192,8192
290.003,-1.18455e-08,0,8192,8192
290.052,-1.08878e-08,0,8192,8192
290.102,-1.00932e-08,0,8192,8192
290.152,-9.44919e-09,0,8192,8192
290.202,-8.94237e-09,0,8192,8192
290.252,-8.55898e-09,0,8192,8192
290.301,-8.28516e-09,0,8192,8192
290.351,-8.10736e-09,0,8192,8192
290.401,-8.01264e-09,0,8192,8192
290.451,-7.98894e-09,0,8192,8192
290.501,-8.02511e-09,0,8192,8192
290.55,-8.11102e-09,0,8192,8192
290.6,-8.23737e-09,0,8192,8192
290.653,-8.40582e-09,0,8192,8192
290.703,-8.58947e-09,0,8192,8192
290.753,-8.78971e-09,0,8192,8192
290.802,-9.00004e-09,0,8192,8192
290.852,-9.21463e-09,0,8192,8192
290.902,-9.4284e-09,0,8192,8192
290.952,-9.63705e-09,0,8192,8192
291.001,-9.83712e-09,0,8192,8192
291.051,-1.00259e-08,0,8192,8192
291.101,-1.02015e-08,0,8192,8192
291.151,-1.03624e-08,0,8192,8192
291.201,-1.0508e-08,0,8192,8192
291.25,-1.06377e-08,0,8192,8192
291.3,-1.07516e-08,0,8192,8192
291.35,-1.08498e-08,0,8192,8192
291.403,-1.09372e-08,0,8192,8192
291.453,-1.10049e-08,0,8192,8192
291.502,-1.1059e-08,0,8192,8192
291.552,-1.11006e-08,0,8192,8192
291.602,-1.11309e-08,0,8192,8192
291.652,-1.11512e-08,0,8192,8192
291.702,-1.11627e-08,0,8192,8192
291.751,-1.11668e-08,0,8192,8192
291.801,-1.11647e-08,0,8192,8192
291.851,-1.11575e-08,0,8192,8192
291.901,-1.11464e-08,0,8192,8192
291.951,-1.11326e-08,0,8192,8192
292,-1.1117e-08,0,8192,8192
292.05,-1.11006e-08,0,8192,8192
292.103,-1.10833e-08,0,8192,8192
292.153,-1.1068e-08,0,8192,8192
292.202,-1.10542e-08,0,8192,8192
292.252,-1.10428e-08,0,8192,8192
292.302,-1.10343e-08,0,8192,8192
292.352,-1.10293e-08,0,8192,8192
292.402,-1.10284e-08,0,8192,8192
292.451,-1.1032e-08,0,8192,8192
292.501,-1.10406e-08,0,8192,8192
292.551,-1.10546e-08,0,8192,8192
292.601,-1.10743e-08,0,8192,8192
292.651,-1.10998e-08,0,8192,8192
292.7,-1.11315e-08,0,8192,8192
292.75,-1.11692e-08,0,8192,8192
292.8,-1.12131e-08,0,8192,8192
292.853,-1.12663e-08,0,8192,8192
292.903,-1.13229e-08,0,8192,8192
292.952,-1.13858e-08,0,8192,8192
293.002,-1.14552e-08,0,8192,8192
293.052,-1.15311e-08,0,8192,8192
293.102,-1.16139e-08,0,8192,8192
293.152,-1.17039e-08,0,8192,8192
293.201,-1.18014e-08,0,8192,8192
293.251,-1.19071e-08,0,8192,8192
293.301,-1.20216e-08,0,8192,8192
293.351,-1.21456e-08,0,8192,8192
293.401,-1.228e-08,0,8192,8192
293.45,-1.24258e-08,0,8192,8192
293.5,-1.2584e-08,0,8192,8192
293.553,-1.27663e-08,0,8192,8192
293.603,-1.29537e-08,0,8192,8192
293.652,-1.31569e-08,0,8192,8192
293.702,-1.3377e-08,0,8192,8192
293.752,-1.36148e-08,0,8192,8192
293.802,-1.3871e-08,0,8192,8192
293.852,-1.41459e-08,0,8192,8192
293.901,-1.44397e-08,0,8192,8192
293.951,-1.4752e-08,0,8192,8192
294.001,-1.50822e-08,0,8192,8192
294.051,-1.54291e-08,0,8192,8192
294.101,-1.57912e-08,0,8192,8192
294.15,-1.61667e-08,0,8192,8192
294.2,-1.65532e-08,0,8192,8192
294.25,-1.69483e-08,0,8192,8192
294.303,-1.73728e-08,0,8192,8192
294.353,-1.77764e-08,0,8192,8192
294.402,-1.81794e-08,0,8184,8184
294.452,-1.85786e-08,0,8043,8043
294.502,-1.89711e-08,0,7975,7975
294.552,-1.93535e-08,0,7923,7923
294.602,-1.97231e-08,0,7875,7875
294.651,-2.0077e-08,0,7841,7841
294.701,-2.04126e-08,0,7803,7803
294.751,-2.07276e-08,0,7765,7765
294.801,-2.10198e-08,0,7733,7733
294.851,-2.12875e-08,0,7699,7699
294.9,-2.15291e-08,0,7661,7661
294.95,-2.17438e-08,0,7631,7631
295.003,-2.19407e-08,0,7593,7593
295.053,-2.20978e-08,0,7553,7553
295.102,-2.22268e-08,0,7515,7515
295.152,-2.23283e-08,0,7481,7481
295.202,-2.2403e-08,0,7439,7439
295.252,-2.24521e-08,0,7403,7403
295.302,-2.24767e-08,0,7361,7361
295.351,-2.24787e-08,0,7319,7319
295.401,-2.24595e-08,0,7275,7275
295.451,-2.24212e-08,0,7241,7241
295.501,-2.23654e-08,0,7199,7199
295.551,-2.22942e-08,0,7163,7163
295.6,-2.22095e-08,0,7121,7121
295.65,-2.2113e-08,0,7091,7091
295.7,-2.20065e-08,0,7049,7049
295.753,-2.18847e-08,0,7013,7013
295.803,-2.17627e-08,0,6975,6975
295.852,-2.16356e-08,0,6941,6941
295.902,-2.15045e-08,0,6911,6911
295.952,-2.13708e-08,0,6865,6865
296.002,-2.12354e-08,0,6833,6833
296.052,-2.10994e-08,0,6791,6791
296.101,-2.09636e-08,0,6753,6753
296.151,-2.08289e-08,0,6713,6713
296.201,-2.06958e-08,0,6671,6671
296.251,-2.0565e-08,0,6623,6623
296.301,-2.0437e-08,0,6581,6581
296.35,-2.03121e-08,0,6539,6539
296.4,-2.01908e-08,0,6491,6491
296.453,-2.00665e-08,0,6449,6449
296.503,-1.99533e-08,0,6405,6405
296.552,-1.98442e-08,0,6371,6371
296.602,-1.97394e-08,0,6323,6323
296.652,-1.96388e-08,0,6281,6281
296.702,-1.95425e-08,0,6239,6239
296.752,-1.94503e-08,0,6199,6199
296.801,-1.9362e-08,0,6161,6161
296.851,-1.92776e-08,0,6113,6113
296.901,-1.91967e-08,0,6071,6071
296.951,-1.91191e-08,0,6033,6033
297.001,-1.90445e-08,0,5993,5993
297.05,-1.89727e-08,0,5951,5951
297.1,-1.89034e-08,0,5909,5909
297.15,-1.88362e-08,0,5865,5865
297.203,-1.87671e-08,0,5831,5831
297.253,-1.87035e-08,0,5783,5783
297.302,-1.86412e-08,0,5741,5741
297.352,-1.85799e-08,0,5699,5699
297.402,-1.85195e-08,0,5663,5663
297.452,-1.84596e-08,0,5621,5621
297.502,-1.84001e-08,0,5575,5575
297.551,-1.83407e-08,0,5531,5531
297.601,-1.82813e-08,0,5501,5501
297.651,-1.82216e-08,0,5453,5453
297.701,-1.81617e-08,0,5411,5411
297.751,-1.81012e-08,0,5373,5373
297.8,-1.80401e-08,0,5333,5333
297.85,-1.79782e-08,0,5291,5291
297.903,-1.79117e-08,0,5243,5243
297.953,-1.78479e-08,0,5201,5201
298.002,-1.77829e-08,0,5163,5163
298.052,-1.77167e-08,0,5123,5123
298.102,-1.7649e-08,0,5081,5081
298.152,-1.75798e-08,0,5039,5039
298.202,-1.75089e-08,0,4995,4995
298.251,-1.74361e-08,0,4961,4961
298.301,-1.73614e-08,0,4913,4913
298.351,-1.72844e-08,0,4871,4871
298.401,-1.7205e-08,0,4829,4829
298.451,-1.7123e-08,0,4785,4785
298.5,-1.70383e-08,0,4751,4751
298.55,-1.69505e-08,0,4703,4703
298.603,-1.6854e-08,0,4661,4661
298.653,-1.67594e-08,0,4613,4613
298.703,-1.6661e-08,0,4571,4571
298.752,-1.65588e-08,0,4529,4529
298.802,-1.64526e-08,0,4481,4481
298.852,-1.63421e-08,0,4443,4443
298.902,-1.62273e-08,0,4395,4395
298.952,-1.61079e-08,0,4361,4361
299.001,-1.59839e-08,0,4313,4313
299.051,-1.58551e-08,0,4271,4271
299.101,-1.57215e-08,0,4223,4223
299.151,-1.5583e-08,0,4181,4181
299.2,-1.54396e-08,0,4133,4133
299.25,-1.52911e-08,0,4091,4091
299.3,-1.51376e-08,0,4045,4045
299.353,-1.49694e-08,0,4001,4001
299.403,-1.48053e-08,0,3953,3953
299.452,-1.46359e-08,0,3911,3911
299.502,-1.4461e-08,0,3863,3863
299.552,-1.42806e-08,0,3821,3821
299.602,-1.40945e-08,0,3773,3773
299.652,-1.39023e-08,0,3731,3731
299.701,-1.37037e-08,0,3683,3683
299.751,-1.34984e-08,0,3641,3641
299.801,-1.32859e-08,0,3585,3585
299.851,-1.30656e-08,0,3543,3543
299.901,-1.28367e-08,0,3491,3491
299.95,-1.25985e-08,0,3449,3449
300,-1.235e-08,0,3401,3401
300.053,-1.20745e-08,0,3353,3353
300.103,-1.18015e-08,0,3311,3311
300.152,-1.15146e-08,0,3255,3255
300.202,-1.12127e-08,0,3213,3213
300.252,-1.08945e-08,0,3161,3161
300.302,-1.05588e-08,0,3115,3115
300.352,-1.02044e-08,0,3071,3071
300.401,-9.83043e-09,0,3023,3023
300.451,-9.43613e-09,0,2973,2973
300.501,-9.02104e-09,0,2921,2921
300.551,-8.58494e-09,0,2873,2873
300.601,-8.12772e-09,0,2831,2831
300.65,-7.64875e-09,0,2773,2773
300.7,-7.14558e-09,0,2729,2729
300.75,-6.61138e-09,0,2681,2681
300.803,-5.99569e-09,0,2621,2621
300.853,-5.34371e-09,0,2575,2575
300.902,-4.6045e-09,0,2531,2531
300.952,-3.78688e-09,0,2471,2471
301.002,-2.94307e-09,0,2423,2423
301.052,-2.15269e-09,0,2373,2373
301.102,-1.48379e-09,0,2321,2321
301.151,-8.21949e-10,0,2265,2265
301.201,-3.37811e-10,0,2215,2215
301.251,-2.50729e-10,0,2167,2167
301.301,-7.33341e-11,0,2111,2111
301.351,1.24309e-10,0,2055,2055
301.4,3.6365e-10,0,2005,2005
301.45,6.17567e-10,0,1961,1961
301.503,8.97154e-10,0,1901,1901
301.553,1.16294e-09,0,1841,1841
301.602,1.42413e-09,0,1793,1793
301.652,1.67671e-09,0,1743,1743
301.702,1.91612e-09,0,1691,1691
301.752,2.14066e-09,0,1631,1631
301.802,2.34815e-09,0,1583,1583
301.851,2.53765e-09,0,1533,1533
301.901,2.70814e-09,0,1481,1481
301.951,2.85927e-09,0,1421,1421
302.001,2.99094e-09,0,1373,1373
302.051,3.10362e-09,0,1323,1323
302.1,3.19801e-09,0,1271,1271
302.15,3.27487e-09,0,1211,1211
302.2,3.33499e-09,0,1163,1163
302.253,3.38156e-09,0,1109,1109
302.303,3.41069e-09,0,1061,1061
302.352,3.42676e-09,0,1001,1001
302.402,3.43106e-09,0,949,949
302.452,3.42486e-09,0,895,895
302.502,3.40946e-09,0,843,843
302.552,3.38612e-09,0,787,787
302.601,3.35607e-09,0,731,731
302.651,3.32055e-09,0,671,671
302.701,3.2807e-09,0,615,615
302.751,3.23755e-09,0,563,563
302.801,3.19145e-09,0,512,512
302.86,3.13621e-09,0,512,512
302.907,3.09134e-09,0,512,512
302.954,3.0465e-09,0,512,512
303,3.0022e-09,0,512,512
303.059,2.94826e-09,0,512,512
303.106,2.90671e-09,0,512,512
303.153,2.86686e-09,0,512,512
303.211,2.81969e-09,0,512,512
303.258,2.78418e-09,0,512,512
303.305,2.75068e-09,0,512,512
303.352,2.71917e-09,0,512,512
303.411,2.68247e-09,0,512,512
303.457,2.65511e-09,0,512,512
303.504,2.62933e-09,0,512,512
303.551,2.60496e-09,0,512,512
303.61,2.57623e-09,0,512,512
303.657,2.55448e-09,0,512,512
303.703,2.53356e-09,0,512,512
303.75,2.513e-09,0,512,512
303.809,2.48702e-09,0,512,512
303.856,2.4656e-09,0,512,512
303.903,2.44354e-09,0,512,512
303.961,2.41527e-09,0,512,512
304.008,2.39225e-09,0,512,512
304.055,2.36894e-09,0,512,512
304.102,2.3453e-09,0,512,512
304.16,2.31526e-09,0,512,512
304.207,2.29089e-09,0,512,512
304.254,2.26641e-09,0,512,512
304.301,2.242e-09,0,512,512
304.36,2.2118e-09,0,512,512
304.406,2.1879e-09,0,512,512
304.453,2.16433e-09,0,512,512
304.5,2.14132e-09,0,512,512
304.559,2.11389e-09,0,512,512
304.606,2.09348e-09,0,512,512
304.653,2.07479e-09,0,512,512
304.711,2.05412e-09,0,512,512
304.758,2.03985e-09,0,512,512
304.805,2.02764e-09,0,512,512
304.852,2.0175e-09,0,512,512
304.91,2.00776e-09,0,512,512
304.957,2.00231e-09,0,512,512
