250,0,0,131072,131072
250.001,0,0,131072,131072
250.051,0,0,131072,131072
250.1,0,0,131072,131072
250.15,0,0,131072,131072
250.201,0,0,131072,131072
250.25,0,0,131072,131072
250.3,-1.38778e-17,0,131072,131072
250.35,-1.38778e-17,0,131072,131072
250.401,-1.38778e-17,0,131072,131072
250.45,0,0,131072,131072
250.5,0,0,131072,131072
250.551,-1.38778e-17,0,131072,131072
250.6,-1.38778e-17,0,131072,131072
250.65,-1.38778e-17,0,131072,131072
250.7,0,0,131072,131072
250.751,-1.38778e-17,0,131072,131072
250.8,-1.38778e-17,0,131072,131072
250.85,-2.77556e-17,0,131072,131072
250.9,-1.38778e-17,0,131072,131072
250.951,-2.77556e-17,0,131072,131072
251,-1.38778e-17,0,131072,131072
251.05,0,0,131072,131072
251.101,0,0,131072,131072
251.15,1.38778e-17,0,131072,131072
251.2,0,0,131072,131072
251.25,0,0,131072,131072
251.301,0,0,131072,131072
251.35,0,0,131072,131072
251.4,0,0,131072,131072
251.451,1.38778e-17,0,131072,131072
251.501,1.38778e-17,0,131072,131072
251.55,-5.55112e-17,0,131072,131072
251.6,-2.77556e-17,0,131072,131072
251.651,-2.77556e-17,0,131072,131072
251.7,-5.55112e-17,0,131072,131072
251.75,-5.55112e-17,0,131072,131072
251.8,-5.55112e-17,0,131072,131072
251.851,-2.77556e-17,0,131072,131072
251.9,-4.16334e-17,0,131072,131072
251.95,-4.16334e-17,0,131072,131072
252.001,-4.16334e-17,0,131072,131072
252.05,-5.55112e-17,0,131072,131072
252.1,-2.77556e-17,0,131072,131072
252.15,1.38778e-17,0,131072,131072
252.201,1.38778e-17,0,131072,131072
252.25,-1.38778e-17,0,131072,131072
252.3,-1.38778e-17,0,131072,131072
252.351,-1.38778e-17,0,131072,131072
252.401,-1.38778e-17,0,131072,131072
252.45,0,0,131072,131072
252.5,2.77556e-17,0,131072,131072
252.551,1.38778e-17,0,131072,131072
252.6,-2.77556e-17,0,131072,131072
252.65,0,0,131072,131072
252.7,-4.16334e-17,0,131072,131072
252.751,-2.77556e-17,0,131072,131072
252.8,0,0,131072,131072
252.85,1.38778e-17,0,131072,131072
252.901,1.38778e-17,0,131072,131072
252.95,-1.38778e-17,0,131072,131072
253,1.38778e-17,0,131072,131072
253.05,1.38778e-17,0,131072,131072
253.101,1.38778e-17,0,131072,131072
253.15,0,0,131072,131072
253.2,1.38778e-17,0,131072,131072
253.25,0,0,131072,131072
253.301,0,0,131072,131072
253.35,1.38778e-17,0,131072,131072
253.4,1.38778e-17,0,131072,131072
253.451,0,0,131072,131072
253.5,0,0,131072,131072
253.55,1.38778e-17,0,131072,131072
253.6,-2.77556e-17,0,131072,131072
253.651,0,0,131072,131072
253.7,-2.77556e-17,0,131072,131072
253.75,-1.38778e-17,0,131072,131072
253.801,-2.77556e-17,0,131072,131072
253.851,-2.77556e-17,0,131072,131072
253.9,-4.16334e-17,0,131072,131072
253.95,-5.55112e-17,0,131072,131072
254.001,-4.16334e-17,0,131072,131072
254.05,-4.16334e-17,0,131072,131072
254.1,-2.77556e-17,0,131072,131072
254.15,-1.38778e-17,0,131072,131072
254.201,-1.38778e-17,0,131072,131072
254.25,-1.38778e-17,0,131072,131072
254.3,-2.77556e-17,0,131072,131072
254.351,-1.38778e-17,0,131072,131072
254.4,-1.38778e-17,0,131072,131072
254.45,-1.38778e-17,0,131072,131072
254.5,-1.38778e-17,0,131072,131072
254.551,-1.38778e-17,0,131072,131072
254.6,-1.38778e-17,0,131072,131072
254.65,-1.38778e-17,0,131072,131072
254.701,-4.16334e-17,0,131072,131072
254.751,-1.38778e-17,0,131072,131072
254.8,-2.77556e-17,0,131072,131072
254.85,-1.38778e-17,0,131072,131072
254.901,0,0,131072,131072
254.95,-1.38778e-17,0,131072,131072
255,2.77556e-17,0,131072,131072
255.05,2.77556e-17,0,131072,131072
255.101,2.77556e-17,0,131072,131072
255.15,2.77556e-17,0,131072,131072
255.2,2.77556e-17,0,131072,131072
255.251,2.77556e-17,0,131072,131072
255.3,1.38778e-17,0,131072,131072
255.35,1.38778e-17,0,131072,131072
255.4,-1.38778e-17,0,131072,131072
255.451,-2.77556e-17,0,131072,131072
255.5,0,0,131072,131072
255.55,-2.77556e-17,0,131072,131072
255.6,1.38778e-17,0,131072,131072
255.651,2.77556e-17,0,131072,131072
255.7,4.16334e-17,0,131072,131072
255.75,2.77556e-17,0,131072,131072
255.801,2.77556e-17,0,131072,131072
255.85,2.77556e-17,0,131072,131072
255.9,1.38778e-17,0,131072,131072
255.95,0,0,131072,131072
256.001,-1.38778e-17,0,131072,131072
256.05,0,0,131072,131072
256.1,4.16334e-17,0,131072,131072
256.151,5.55112e-17,0,131072,131072
256.201,5.55112e-17,0,131072,131072
256.25,5.55112e-17,0,131072,131072
256.3,5.55112e-17,0,131072,131072
256.351,4.16334e-17,0,131072,131072
256.4,2.77556e-17,0,131072,131072
256.45,1.38778e-17,0,131072,131072
256.5,0,0,131072,131072
256.551,-4.16334e-17,0,131072,131072
256.6,-4.16334e-17,0,131072,131072
256.65,-2.77556e-17,0,131072,131072
256.701,0,0,131072,131072
256.75,-1.38778e-17,0,131072,131072
256.8,2.77556e-17,0,131072,131072
256.85,1.38778e-17,0,131072,131072
256.901,2.77556e-17,0,131072,131072
256.95,1.38778e-17,0,131072,131072
257,2.77556e-17,0,131072,131072
257.051,0,0,131072,131072
257.101,-1.38778e-17,0,131072,131072
257.15,-1.38778e-17,0,131072,131072
257.2,-5.55112e-17,0,131072,131072
257.251,-4.16334e-17,0,131072,131072
257.3,-1.38778e-17,0,131072,131072
257.35,0,0,131072,131072
257.4,1.38778e-17,0,131072,131072
257.451,-1.38778e-17,0,131072,131072
257.5,-1.38778e-17,0,131072,131072
257.55,-2.77556e-17,0,131072,131072
257.601,0,0,131072,131072
257.65,-1.38778e-17,0,131072,131072
257.7,2.77556e-17,0,131072,131072
257.75,6.93889e-17,0,131072,131072
257.801,8.32667e-17,0,131072,131072
257.85,9.71445e-17,0,131072,131072
257.9,8.32667e-17,0,131072,131072
257.95,6.93889e-17,0,131072,131072
258.001,5.55112e-17,0,131072,131072
258.05,5.55112e-17,0,131072,131072
258.1,2.77556e-17,0,131072,131072
258.151,4.16334e-17,0,131072,131072
258.2,5.55112e-17,0,131072,131072
258.25,2.77556e-17,0,131072,131072
258.3,1.38778e-17,0,131072,131072
258.351,-1.38778e-17,0,131072,131072
258.4,-4.16334e-17,0,131072,131072
258.45,-5.55112e-17,0,131072,131072
258.501,-6.93889e-17,0,131072,131072
258.551,-8.32667e-17,0,131072,131072
258.6,-6.93889e-17,0,131072,131072
258.65,-4.16334e-17,0,131072,131072
258.701,-4.16334e-17,0,131072,131072
258.75,-4.16334e-17,0,131072,131072
258.8,-1.38778e-17,0,131072,131072
258.85,-2.77556e-17,0,131072,131072
258.901,0,0,131072,131072
258.95,0,0,131072,131072
259,0,0,131072,131072
259.051,1.38778e-17,0,131072,131072
259.1,2.77556e-17,0,131072,131072
259.15,2.77556e-17,0,131072,131072
259.2,1.38778e-17,0,131072,131072
259.251,-2.77556e-17,0,131072,131072
259.3,-4.16334e-17,0,131072,131072
259.35,-4.16334e-17,0,131072,131072
259.401,-2.77556e-17,0,131072,131072
259.451,-4.16334e-17,0,131072,131072
259.5,-4.16334e-17,0,131072,131072
259.55,0,0,131072,131072
259.601,-1.38778e-17,0,131072,131072
259.65,-4.16334e-17,0,131072,131072
259.7,-1.38778e-17,0,131072,131072
259.75,-4.16334e-17,0,131072,131072
259.801,-4.16334e-17,0,131072,131072
259.85,-4.16334e-17,0,131072,131072
259.9,2.77556e-17,0,131072,131072
259.951,6.93889e-17,0,131072,131072
260,8.32667e-17,0,131072,131072
260.05,1.11022e-16,0,131072,131072
260.1,6.93889e-17,0,131072,131072
260.151,5.55112e-17,0,131072,131072
260.2,6.93889e-17,0,131072,131072
260.25,6.93889e-17,0,131072,131072
260.3,2.77556e-17,0,131072,131072
260.351,1.38778e-17,0,131072,131072
260.4,1.38778e-17,0,131072,131072
260.45,2.77556e-17,0,131072,131072
260.501,1.38778e-17,0,131072,131072
260.55,1.38778e-17,0,131072,131072
260.6,1.38778e-17,0,131072,131072
260.65,0,0,131072,131072
260.701,-1.38778e-17,0,131072,131072
260.75,-1.38778e-17,0,131072,131072
260.8,-1.38778e-17,0,131072,131072
260.851,-2.77556e-17,0,131072,131072
260.9,-1.38778e-17,0,131072,131072
260.95,-1.38778e-17,0,131072,131072
261,-2.77556e-17,0,131072,131072
261.051,-4.16334e-17,0,131072,131072
261.1,-1.38778e-17,0,131072,131072
261.15,-2.77556e-17,0,131072,131072
261.2,-4.16334e-17,0,131072,131072
261.251,-2.77556e-17,0,131072,131072
261.3,2.77556e-17,0,131072,131072
261.35,2.77556e-17,0,131072,131072
261.401,1.38778e-17,0,131072,131072
261.45,0,0,131072,131072
261.5,1.38778e-17,0,131072,131072
261.55,-2.77556e-17,0,131072,131072
261.601,0,0,131072,131072
261.65,0,0,131072,131072
261.7,-2.77556e-17,0,131072,131072
261.751,-1.38778e-17,0,131072,131072
261.801,1.38778e-17,0,131072,131072
261.85,1.38778e-17,0,131072,131072
261.9,1.38778e-17,0,131072,131072
261.951,2.77556e-17,0,131072,131072
262,2.77556e-17,0,131072,131072
262.05,1.38778e-17,0,131072,131072
262.1,-1.38778e-17,0,131072,131072
262.151,0,0,131072,131072
262.2,1.38778e-17,0,131072,131072
262.25,1.38778e-17,0,131072,131072
262.301,4.16334e-17,0,131072,131072
262.35,2.77556e-17,0,131072,131072
262.4,0,0,131072,131072
262.45,0,0,131072,131072
262.501,0,0,131072,131072
262.55,0,0,131072,131072
262.6,1.38778e-17,0,131072,131072
262.651,1.38778e-17,0,131072,131072
262.701,0,0,131072,131072
262.75,-2.77556e-17,0,131072,131072
262.8,-2.77556e-17,0,131072,131072
262.851,1.38778e-17,0,131072,131072
262.9,1.38778e-17,0,131072,131072
262.95,1.38778e-17,0,131072,131072
263,-4.16334e-17,0,131072,131072
263.051,-4.16334e-17,0,131072,131072
263.1,-2.77556e-17,0,131072,131072
263.15,-4.16334e-17,0,131072,131072
263.201,-4.16334e-17,0,131072,131072
263.25,-2.77556e-17,0,131072,131072
263.3,-1.38778e-17,0,131072,131072
263.35,-2.77556e-17,0,131072,131072
263.401,-1.38778e-17,0,131072,131072
263.45,-4.16334e-17,0,131072,131072
263.5,-4.16334e-17,0,131072,131072
263.55,-2.77556e-17,0,131072,131072
263.601,-4.16334e-17,0,131072,131072
263.65,1.38778e-17,0,131072,131072
263.7,-4.16334e-17,0,131072,131072
263.751,-4.16334e-17,0,131072,131072
263.8,-2.77556e-17,0,131072,131072
263.85,1.38778e-17,0,131072,131072
263.9,2.77556e-17,0,131072,131072
263.951,4.16334e-17,0,131072,131072
264,6.93889e-17,0,131072,131072
264.05,1.11022e-16,0,131072,131072
264.101,9.71445e-17,0,131072,131072
264.151,8.32667e-17,0,131072,131072
264.2,9.71445e-17,0,131072,131072
264.25,8.32667e-17,0,131072,131072
264.301,8.32667e-17,0,131072,131072
264.35,8.32667e-17,0,131072,131072
264.4,8.32667e-17,0,131072,131072
264.45,8.32667e-17,0,131072,131072
264.501,8.32667e-17,0,131072,131072
264.55,9.71445e-17,0,131072,131072
264.6,5.55112e-17,0,131072,131072
264.651,2.77556e-17,0,131072,131072
264.7,0,0,131072,131072
264.75,1.38778e-17,0,131072,131072
264.8,1.38778e-17,0,131072,131072
264.851,-1.38778e-17,0,131072,131072
264.9,0,0,131072,131072
264.95,1.38778e-17,0,131072,131072
265.001,1.38778e-17,0,131072,131072
265.051,0,0,131072,131072
265.1,0,0,131072,131072
265.15,2.77556e-17,0,131072,131072
265.201,5.55112e-17,0,131072,131072
265.25,4.16334e-17,0,131072,131072
265.3,2.77556e-17,0,131072,131072
265.35,2.77556e-17,0,131072,131072
265.401,4.16334e-17,0,131072,131072
265.45,6.93889e-17,0,131072,131072
265.5,2.77556e-17,0,131072,131072
265.551,0,0,131072,131072
265.6,-1.38778e-17,0,131072,131072
265.65,-1.38778e-17,0,131072,131072
265.7,0,0,131072,131072
265.751,-1.38778e-17,0,131072,131072
265.8,-1.38778e-17,0,131072,131072
265.85,0,0,131072,131072
265.9,1.38778e-17,0,131072,131072
265.951,0,0,131072,131072
266,1.38778e-17,0,131072,131072
266.05,1.38778e-17,0,131072,131072
266.101,-1.38778e-17,0,131072,131072
266.15,-4.16334e-17,0,131072,131072
266.2,-1.38778e-17,0,131072,131072
266.25,1.38778e-17,0,131072,131072
266.301,-1.38778e-17,0,131072,131072
266.35,1.38778e-17,0,131072,131072
266.4,5.55112e-17,0,131072,131072
266.451,8.32667e-17,0,131072,131072
266.501,8.32667e-17,0,131072,131072
266.55,6.93889e-17,0,131072,131072
266.6,5.55112e-17,0,131072,131072
266.651,2.77556e-17,0,131072,131072
266.7,2.77556e-17,0,131072,131072
266.75,2.77556e-17,0,131072,131072
266.8,2.77556e-17,0,131072,131072
266.851,4.16334e-17,0,131072,131072
266.9,2.77556e-17,0,131072,131072
266.95,2.77556e-17,0,131072,131072
267.001,5.55112e-17,0,131072,131072
267.05,4.16334e-17,0,131072,131072
267.1,4.16334e-17,0,131072,131072
267.15,5.55112e-17,0,131072,131072
267.201,2.77556e-17,0,131072,131072
267.25,1.38778e-17,0,131072,131072
267.3,-1.38778e-17,0,131072,131072
267.351,-1.38778e-17,0,131072,131072
267.401,-4.16334e-17,0,131072,131072
267.45,-2.77556e-17,0,131072,131072
267.5,-2.77556e-17,0,131072,131072
267.551,-1.38778e-17,0,131072,131072
267.6,-4.16334e-17,0,131072,131072
267.65,-4.16334e-17,0,131072,131072
267.7,-4.16334e-17,0,131072,131072
267.751,-4.16334e-17,0,131072,131072
267.8,-5.55112e-17,0,131072,131072
267.85,-8.32667e-17,0,131072,131072
267.901,-5.55112e-17,0,131072,131072
267.95,-5.55112e-17,0,131072,131072
268,-5.55112e-17,0,131072,131072
268.05,-4.16334e-17,0,131072,131072
268.101,-4.16334e-17,0,131072,131072
268.15,0,0,131072,131072
268.2,2.77556e-17,0,131072,131072
268.25,4.16334e-17,0,131072,131072
268.301,5.55112e-17,0,131072,131072
268.35,6.93889e-17,0,131072,131072
268.4,6.93889e-17,0,131072,131072
268.451,5.55112e-17,0,131072,131072
268.5,5.55112e-17,0,131072,131072
268.55,4.16334e-17,0,131072,131072
268.6,5.55112e-17,0,131072,131072
268.651,2.77556e-17,0,131072,131072
268.7,6.93889e-17,0,131072,131072
268.75,8.32667e-17,0,131072,131072
268.801,8.32667e-17,0,131072,131072
268.851,6.93889e-17,0,131072,131072
268.9,8.32667e-17,0,131072,131072
268.95,8.32667e-17,0,131072,131072
269.001,8.32667e-17,0,131072,131072
269.05,6.93889e-17,0,131072,131072
269.1,8.32667e-17,0,131072,131072
269.15,5.55112e-17,0,131072,131072
269.201,4.16334e-17,0,131072,131072
269.25,2.77556e-17,0,131072,131072
269.3,1.38778e-17,0,131072,131072
269.351,0,0,131072,131072
269.4,-1.38778e-17,0,131072,131072
269.45,0,0,131072,131072
269.5,1.38778e-17,0,131072,131072
269.551,4.16334e-17,0,131072,131072
269.6,2.77556e-17,0,131072,131072
269.65,2.77556e-17,0,131072,131072
269.701,0,0,131072,131072
269.751,0,0,131072,131072
269.8,-2.77556e-17,0,131072,131072
269.85,-2.77556e-17,0,131072,131072
269.901,1.38778e-17,0,131072,131072
269.95,1.38778e-17,0,131072,131072
270,-2.77556e-17,0,131072,131072
270.05,-4.16334e-17,0,131072,131072
270.101,-5.55112e-17,0,131072,131072
270.15,-6.93889e-17,0,131072,131072
270.2,-6.93889e-17,0,131072,131072
270.251,-9.71445e-17,0,131072,131072
270.3,-5.55112e-17,0,131072,131072
270.35,0,0,131072,131072
270.4,4.16334e-17,0,131072,131072
270.451,6.93889e-17,0,131072,131072
270.5,5.55112e-17,0,131072,131072
270.55,8.32667e-17,0,131072,131072
270.6,8.32667e-17,0,131072,131072
270.651,5.55112e-17,0,131072,131072
270.7,5.55112e-17,0,131072,131072
270.75,8.32667e-17,0,131072,131072
270.801,6.93889e-17,0,131072,131072
270.85,5.55112e-17,0,131072,131072
270.9,1.38778e-17,0,131072,131072
270.95,2.77556e-17,0,131072,131072
271.001,2.77556e-17,0,131072,131072
271.05,2.77556e-17,0,131072,131072
271.1,6.93889e-17,0,131072,131072
271.151,8.32667e-17,0,131072,131072
271.201,9.71445e-17,0,131072,131072
271.25,9.71445e-17,0,131072,131072
271.3,5.55112e-17,0,131072,131072
271.351,5.55112e-17,0,131072,131072
271.4,5.55112e-17,0,131072,131072
271.45,4.16334e-17,0,131072,131072
271.5,6.93889e-17,0,131072,131072
271.551,5.55112e-17,0,131072,131072
271.6,5.55112e-17,0,131072,131072
271.65,2.77556e-17,0,131072,131072
271.701,2.77556e-17,0,131072,131072
271.75,2.77556e-17,0,131072,131072
271.8,6.93889e-17,0,131072,131072
271.85,5.55112e-17,0,131072,131072
271.901,5.55112e-17,0,131072,131072
271.95,5.55112e-17,0,131072,131072
272,6.93889e-17,0,131072,131072
272.051,9.71445e-17,0,131072,131072
272.101,1.249e-16,0,131072,131072
272.15,8.32667e-17,0,131072,131072
272.2,9.71445e-17,0,131072,131072
272.251,5.55112e-17,0,131072,131072
272.3,4.16334e-17,0,131072,131072
272.35,2.77556e-17,0,131072,131072
272.4,2.77556e-17,0,131072,131072
272.451,2.77556e-17,0,131072,131072
272.5,1.38778e-17,0,131072,131072
272.55,1.38778e-17,0,131072,131072
272.601,4.16334e-17,0,131072,131072
272.65,2.77556e-17,0,131072,131072
272.7,6.93889e-17,0,131072,131072
272.75,5.55112e-17,0,131072,131072
272.801,4.16334e-17,0,131072,131072
272.85,2.77556e-17,0,131072,131072
272.9,1.38778e-17,0,131072,131072
272.951,-1.38778e-17,0,131072,131072
273.001,-4.16334e-17,0,131072,131072
273.05,-5.55112e-17,0,131072,131072
273.1,-4.16334e-17,0,131072,131072
273.151,-4.16334e-17,0,131072,131072
273.2,-5.55112e-17,0,131072,131072
273.25,-5.55112e-17,0,131072,131072
273.3,-5.55112e-17,0,131072,131072
273.351,-5.55112e-17,0,131072,131072
273.4,-4.16334e-17,0,131072,131072
273.45,0,0,131072,131072
273.501,1.38778e-17,0,131072,131072
273.55,2.77556e-17,0,131072,131072
273.6,4.16334e-17,0,131072,131072
273.65,4.16334e-17,0,131072,131072
273.701,5.55112e-17,0,131072,131072
273.75,5.55112e-17,0,131072,131072
273.8,8.32667e-17,0,131072,131072
273.851,8.32667e-17,0,131072,131072
273.901,8.32667e-17,0,131072,131072
273.95,8.32667e-17,0,131072,131072
274,6.93889e-17,0,131072,131072
274.051,6.93889e-17,0,131072,131072
274.1,4.16334e-17,0,131072,131072
274.15,2.77556e-17,0,131072,131072
274.2,2.77556e-17,0,131072,131072
274.251,2.77556e-17,0,131072,131072
274.3,1.38778e-17,0,131072,131072
274.35,1.38778e-17,0,131072,131072
274.401,1.38778e-17,0,131072,131072
274.45,-2.77556e-17,0,131072,131072
274.5,0,0,131072,131072
274.55,0,0,131072,131072
274.601,0,0,131072,131072
274.65,-1.38778e-17,0,131072,131072
274.7,-2.77556e-17,0,131072,131072
274.75,-2.77556e-17,0,131072,131072
274.801,1.38778e-17,0,131072,131072
274.85,0,0,131072,131072
274.9,0,0,131072,131072
274.951,1.38778e-17,0,131072,131072
275,2.77556e-17,0,131072,131072
275.05,4.16334e-17,0,131072,131072
275.1,2.77556e-17,0,131072,131072
275.151,2.77556e-17,0,131072,131072
275.2,2.77556e-17,0,131072,131072
275.25,2.77556e-17,0,131072,131072
275.301,4.16334e-17,0,131072,131072
275.351,1.51268e-15,0,131072,131072
275.4,1.62509e-14,0,131072,131072
275.45,4.56718e-14,0,131072,131072
275.501,-9.78828e-13,0,131072,131072
275.55,-1.16789e-11,0,131072,131072
275.6,-6.05694e-11,0,131072,131072
275.65,-1.81694e-10,0,131072,131072
275.701,-3.46957e-10,0,131072,131072
275.75,-4.26551e-10,0,131072,131072
275.8,-3.20804e-10,0,131072,131072
275.851,-6.56217e-11,0,131072,131072
275.9,1.77881e-10,0,131072,131072
275.95,2.72452e-10,0,131072,131072
276,1.87757e-10,0,131072,131072
276.051,1.96174e-11,0,131072,131072
276.1,-7.43362e-11,0,131072,131072
276.15,-1.68279e-11,0,131072,131072
276.201,1.36673e-10,0,131072,131072
276.251,2.42051e-10,0,131072,131072
276.3,2.13002e-10,0,131072,131072
276.35,8.8266e-11,0,131072,131072
276.401,-1.1981e-11,0,131072,131072
276.45,3.03278e-12,0,131072,131072
276.5,1.10678e-10,0,131072,131072
276.55,2.14401e-10,0,131072,131072
276.601,2.31933e-10,0,131072,131072
276.65,1.58288e-10,0,131072,131072
276.7,5.70347e-11,0,131072,131072
276.751,3.37616e-12,0,131072,131072
276.8,4.02665e-11,0,131072,131072
276.85,1.51282e-10,0,131072,131072
276.9,2.65061e-10,0,131072,131072
276.951,2.81861e-10,0,131072,131072
277,1.47983e-10,0,131072,131072
277.05,-5.77931e-11,0,131072,131072
277.1,-1.3638e-10,0,131072,131072
277.151,7.1911e-11,0,131072,131072
277.2,4.47092e-10,0,131072,131072
277.25,5.957e-10,0,131072,131072
277.301,1.86402e-10,0,131072,131072
277.35,-5.11753e-10,0,131072,131072
277.4,-5.37173e-10,0,131072,131072
277.45,1.26139e-09,0,131072,131072
277.501,5.49109e-09,0,131072,131072
277.55,1.15161e-08,0,131072,131072
277.6,1.81536e-08,0,131072,131072
277.651,2.4231e-08,0,131072,131072
277.701,2.88387e-08,0,131072,131072
277.75,3.21251e-08,0,131072,131072
277.8,3.49347e-08,0,131072,131072
277.851,3.87115e-08,0,131072,131072
277.9,4.46787e-08,0,131072,131072
277.95,5.35199e-08,0,131072,131072
278,6.50819e-08,0,131072,131072
278.051,7.918e-08,0,131072,131072
278.1,9.55096e-08,0,131072,131072
278.15,1.15194e-07,0,131072,131072
278.201,1.40082e-07,0,131072,131072
278.25,1.70835e-07,0,131072,131072
278.3,2.08577e-07,0,131072,131072
278.35,2.53248e-07,0,131072,131072
278.401,3.04555e-07,0,131072,131072
278.45,3.59177e-07,0,131072,131072
278.5,4.16167e-07,0,131072,131072
278.551,4.75903e-07,0,131072,131072
278.601,5.37428e-07,0,131072,131072
278.65,6.02423e-07,0,131072,131072
278.7,6.70202e-07,0,131072,131072
278.751,7.38981e-07,0,131072,131072
278.8,8.02759e-07,0,131072,131072
278.85,8.58872e-07,0,131072,131072
278.9,9.04906e-07,0,131072,131072
278.951,9.40453e-07,0,131072,131072
279,9.65173e-07,0,131072,131072
279.05,9.81529e-07,0,131072,131072
279.101,9.91918e-07,0,131072,131072
279.15,9.97881e-07,0,131072,131072
279.2,1.00044e-06,0,131072,131072
279.25,9.99389e-07,0,131072,131072
279.301,9.93671e-07,0,131072,131072
279.35,9.822e-07,0,131072,131072
279.4,9.63924e-07,0,131072,131072
279.45,9.38406e-07,0,131072,131072
279.501,9.05299e-07,0,131072,131072
279.55,8.66306e-07,0,131072,131072
279.6,8.22287e-07,0,131072,131072
279.651,7.74303e-07,0,131072,131072
279.7,7.25718e-07,0,131072,131072
279.75,6.77611e-07,0,131072,131072
279.8,6.31416e-07,0,131072,131072
279.851,5.87724e-07,0,131072,131072
279.9,5.48809e-07,0,131072,131072
279.95,5.14662e-07,0,131072,131072
280.001,4.85011e-07,0,131072,131072
280.051,4.60364e-07,0,131072,131072
280.1,4.39884e-07,0,131072,131072
280.15,4.23894e-07,0,131072,131072
280.201,4.13775e-07,0,131072,131072
280.25,4.12086e-07,0,131072,131072
280.3,4.20366e-07,0,131072,131072
280.35,4.3858e-07,0,131072,131072
280.401,4.65154e-07,0,131072,131072
280.45,4.9643e-07,0,131072,131072
280.5,5.30601e-07,0,131072,131072
280.551,5.67641e-07,0,131072,131072
280.6,6.07207e-07,0,131072,131072
280.65,6.50858e-07,0,131072,131072
280.7,6.98831e-07,0,131072,131072
280.751,7.50468e-07,0,131072,131072
280.8,8.00988e-07,0,131072,131072
280.85,8.46854e-07,0,131072,131072
280.901,8.84746e-07,0,131072,131072
280.951,9.11578e-07,0,131072,131072
281,9.28149e-07,0,131072,131072
281.05,9.36027e-07,0,131072,131072
281.101,9.37053e-07,0,131072,131072
281.15,9.32663e-07,0,131072,131072
281.2,9.23791e-07,0,131072,131072
281.25,9.10861e-07,0,131072,131072
281.301,8.93651e-07,0,131072,131072
281.35,8.72342e-07,0,131072,131072
281.4,8.46037e-07,0,131072,131072
281.451,8.13312e-07,0,131072,131072
281.5,7.74236e-07,0,131072,131072
281.55,7.27875e-07,0,131072,131072
281.6,6.7452e-07,0,131072,131072
281.651,6.14648e-07,0,131072,131072
281.7,5.52296e-07,0,131072,131072
281.75,4.89211e-07,0,131072,131072
281.8,4.277e-07,0,131072,131072
281.851,3.68627e-07,0,131072,131072
281.9,3.14653e-07,0,131072,131072
281.95,2.65147e-07,0,131072,131072
282.001,2.19231e-07,0,131072,131072
282.05,1.77717e-07,0,131072,131072
282.1,1.39366e-07,0,131072,131072
282.15,1.03849e-07,0,131072,131072
282.201,7.08039e-08,0,131072,131072
282.25,4.17718e-08,0,131072,131072
282.3,1.70493e-08,0,131072,131072
282.351,-3.17433e-09,0,131072,131072
282.401,-1.87538e-08,0,131072,131072
282.45,-3.13384e-08,0,131072,131072
282.5,-4.24707e-08,0,131072,131072
282.551,-5.32074e-08,0,131072,131072
282.6,-6.30971e-08,0,131072,131072
282.65,-7.14506e-08,0,131072,131072
282.7,-7.74359e-08,0,131072,131072
282.751,-8.08312e-08,0,131072,131072
282.8,-8.20098e-08,0,131072,131072
282.85,-8.19933e-08,0,131072,131072
282.901,-8.17972e-08,0,131072,131072
282.95,-8.2055e-08,0,131072,131072
283,-8.2692e-08,0,131072,131072
283.05,-8.30273e-08,0,131072,131072
283.101,-8.21953e-08,0,131072,131072
283.15,-7.97459e-08,0,131072,131072
283.2,-7.5819e-08,0,131072,131072
283.251,-7.09077e-08,0,131072,131072
283.301,-6.5778e-08,0,131072,131072
283.35,-6.07593e-08,0,131072,131072
283.4,-5.59954e-08,0,131072,131072
283.451,-5.14322e-08,0,131072,131072
283.5,-4.72016e-08,0,131072,131072
283.55,-4.32795e-08,0,131072,131072
283.6,-3.97341e-08,0,131072,131072
283.651,-3.65527e-08,0,131072,131072
283.7,-3.37791e-08,0,131072,131072
283.75,-3.12728e-08,0,131072,131072
283.801,-2.89408e-08,0,131072,131072
283.85,-2.68495e-08,0,131072,131072
283.9,-2.49896e-08,0,131072,131072
283.95,-2.33767e-08,0,131072,131072
284.001,-2.19882e-08,0,131072,131072
284.05,-2.08478e-08,0,131072,131072
284.1,-1.99141e-08,0,131072,131072
284.151,-1.91587e-08,0,131072,131072
284.201,-1.85863e-08,0,131072,131072
284.25,-1.81683e-08,0,131072,131072
284.3,-1.78881e-08,0,131072,131072
284.351,-1.77259e-08,0,131072,131072
284.4,-1.76666e-08,0,131072,131072
284.45,-1.76881e-08,0,131072,131072
284.5,-1.77738e-08,0,131072,131072
284.551,-1.79144e-08,0,131072,131072
284.6,-1.80984e-08,0,131072,131072
284.65,-1.83222e-08,0,131072,131072
284.701,-1.85844e-08,0,131072,131072
284.75,-1.88701e-08,0,131072,131072
284.8,-1.91744e-08,0,131072,131072
284.85,-1.94889e-08,0,131072,131072
284.901,-1.98119e-08,0,131072,131072
284.95,-2.01307e-08,0,131072,131072
285,-2.04488e-08,0,131072,131072
285.05,-2.07666e-08,0,131072,131072
285.101,-2.10882e-08,0,131072,131072
285.15,-2.14021e-08,0,131072,131072
285.2,-2.17091e-08,0,131072,131072
285.251,-2.20092e-08,0,131072,131072
285.3,-2.22908e-08,0,131072,131072
285.35,-2.25573e-08,0,131072,131072
285.4,-2.28096e-08,0,131072,131072
285.451,-2.3054e-08,0,131072,131072
285.5,-2.32868e-08,0,131072,131072
285.55,-2.3516e-08,0,131072,131072
285.601,-2.37497e-08,0,131072,131072
285.651,-2.39866e-08,0,131072,131072
285.7,-2.42351e-08,0,131072,131072
285.75,-2.45002e-08,0,131072,131072
285.801,-2.47901e-08,0,131072,131072
285.85,-2.50999e-08,0,131072,131072
285.9,-2.5436e-08,0,131072,131072
285.95,-2.58006e-08,0,131072,131072
286.001,-2.62019e-08,0,131072,131072
286.05,-2.66292e-08,0,131072,131072
286.1,-2.70883e-08,0,131072,131072
286.151,-2.75849e-08,0,131072,131072
286.2,-2.81013e-08,0,131072,131072
286.25,-2.86398e-08,0,131072,131072
286.3,-2.91952e-08,0,131072,131072
286.351,-2.97706e-08,0,131072,131072
286.4,-3.03442e-08,0,131072,131072
286.45,-3.09205e-08,0,131072,131072
286.501,-3.15044e-08,0,131072,131072
286.551,-3.20762e-08,0,131072,131072
286.6,-3.26418e-08,0,131072,131072
286.65,-3.31981e-08,0,131072,131072
286.701,-3.375e-08,0,131072,131072
286.75,-3.42777e-08,0,131072,131072
286.8,-3.47856e-08,0,131072,131072
286.85,-3.527e-08,0,131072,131072
286.901,-3.57341e-08,0,131072,131072
286.95,-3.61617e-08,0,131072,131072
287,-3.6558e-08,0,131072,131072
287.051,-3.69274e-08,0,131072,131072
287.1,-3.72595e-08,0,131072,131072
287.15,-3.75611e-08,0,131072,131072
287.2,-3.7834e-08,0,131072,131072
287.251,-3.80844e-08,0,131072,131072
287.3,-3.83078e-08,0,131072,131072
287.35,-3.85113e-08,0,131072,131072
287.4,-3.86979e-08,0,131072,131072
287.451,-3.88734e-08,0,131072,131072
287.5,-3.90364e-08,0,131072,131072
287.55,-3.91936e-08,0,131072,131072
287.601,-3.93519e-08,0,131072,131072
287.65,-3.95119e-08,0,131072,131072
287.7,-3.96808e-08,0,131072,131072
287.75,-3.98632e-08,0,131072,131072
287.801,-4.00655e-08,0,131072,131072
287.85,-4.02847e-08,0,131072,131072
287.9,-4.05257e-08,0,131072,131072
287.951,-4.07943e-08,0,131072,131072
288,-4.10844e-08,0,131072,131072
288.05,-4.14009e-08,0,131072,131072
288.1,-4.17443e-08,0,131072,131072
288.151,-4.21191e-08,0,131072,131072
288.2,-4.25118e-08,0,131072,131072
288.25,-4.29235e-08,0,131072,131072
288.3,-4.33488e-08,0,131072,131072
288.351,-4.37885e-08,0,131072,131072
288.4,-4.42243e-08,0,131072,131072
288.45,-4.46579e-08,0,131072,131072
288.501,-4.50913e-08,0,131072,131072
288.55,-4.55085e-08,0,131072,131072
288.6,-4.59129e-08,0,131072,131072
288.65,-4.63017e-08,0,131072,131072
288.701,-4.66773e-08,0,131072,131072
288.75,-4.70257e-08,0,131072,131072
288.8,-4.7349e-08,0,131072,131072
288.851,-4.76479e-08,0,131072,131072
288.901,-4.79098e-08,0,131072,131072
288.95,-4.81361e-08,0,131072,131072
289,-4.83242e-08,0,131072,131072
289.051,-4.84742e-08,0,131072,131072
289.1,-4.85814e-08,0,131072,131072
289.15,-4.86492e-08,0,131072,131072
289.2,-4.86794e-08,0,131072,131072
289.251,-4.86741e-08,0,131072,131072
289.3,-4.86364e-08,0,131072,131072
289.35,-4.85693e-08,0,131072,131072
289.401,-4.84741e-08,0,131072,131072
289.45,-4.83561e-08,0,131072,131072
289.5,-4.82167e-08,0,131072,131072
289.55,-4.80583e-08,0,131072,131072
289.601,-4.78809e-08,0,131072,131072
289.65,-4.76924e-08,0,131072,131072
289.7,-4.74929e-08,0,131072,131072
289.751,-4.72818e-08,0,131072,131072
289.801,-4.70673e-08,0,131072,131072
289.85,-4.68479e-08,0,131072,131072
289.9,-4.66249e-08,0,131072,131072
289.951,-4.63959e-08,0,131072,131072
290,-4.61687e-08,0,131072,131072
290.05,-4.59413e-08,0,131072,131072
290.1,-4.57149e-08,0,131072,131072
290.151,-4.54872e-08,0,131072,131072
290.2,-4.52656e-08,0,131072,131072
290.25,-4.50472e-08,0,131072,131072
290.301,-4.4829e-08,0,131072,131072
290.35,-4.46172e-08,0,131072,131072
290.4,-4.44089e-08,0,131072,131072
290.45,-4.42042e-08,0,131072,131072
290.501,-4.40006e-08,0,131072,131072
290.55,-4.38042e-08,0,131072,131072
290.6,-4.36122e-08,0,131072,131072
290.65,-4.34247e-08,0,131072,131072
290.701,-4.32387e-08,0,131072,131072
290.75,-4.30591e-08,0,131072,131072
290.8,-4.28827e-08,0,131072,131072
290.851,-4.27065e-08,0,131072,131072
290.9,-4.25348e-08,0,131072,131072
290.95,-4.23647e-08,0,131072,131072
291,-4.21955e-08,0,131072,131072
291.051,-4.20242e-08,0,131072,131072
291.1,-4.18554e-08,0,131072,131072
291.15,-4.1686e-08,0,131072,131072
291.201,-4.15132e-08,0,131072,131072
291.251,-4.13415e-08,0,131072,131072
291.3,-4.11681e-08,0,131072,131072
291.35,-4.09923e-08,0,131072,131072
291.401,-4.0811e-08,0,131072,131072
291.45,-4.06283e-08,0,131072,131072
291.5,-4.04408e-08,0,131072,131072
291.55,-4.02477e-08,0,131072,131072
291.601,-4.00454e-08,0,131072,131072
291.65,-3.98394e-08,0,131072,131072
291.7,-3.96271e-08,0,131072,131072
291.751,-3.94052e-08,0,131072,131072
291.8,-3.91802e-08,0,131072,131072
291.85,-3.89486e-08,0,131072,131072
291.9,-3.87096e-08,0,131072,131072
291.951,-3.84582e-08,0,131072,131072
292,-3.82002e-08,0,131072,131072
292.05,-3.79301e-08,0,131072,131072
292.101,-3.76414e-08,0,131072,131072
292.151,-3.73397e-08,0,131072,131072
292.2,-3.7018e-08,0,131072,131072
292.25,-3.66728e-08,0,131072,131072
292.301,-3.62944e-08,0,131072,131072
292.35,-3.589e-08,0,131072,131072
292.4,-3.54507e-08,0,131072,131072
292.45,-3.49733e-08,0,131072,131072
292.501,-3.44475e-08,0,131072,131072
292.55,-3.38864e-08,0,131072,131072
292.6,-3.32813e-08,0,131072,131072
292.651,-3.26214e-08,0,131072,131072
292.7,-3.19258e-08,0,131072,131072
292.75,-3.11865e-08,0,131072,131072
292.8,-3.04061e-08,0,131072,131072
292.851,-2.95767e-08,0,131072,131072
292.9,-2.8728e-08,0,131072,131072
292.95,-2.78547e-08,0,131072,131072
293,-2.69635e-08,0,131072,131072
293.051,-2.60477e-08,0,131072,131072
293.1,-2.51396e-08,0,131072,131072
293.15,-2.42309e-08,0,131072,131072
293.201,-2.33127e-08,0,131072,131072
293.25,-2.24154e-08,0,131072,131072
293.3,-2.15296e-08,0,131072,131072
293.35,-2.06593e-08,0,131072,131072
293.401,-1.97963e-08,0,131072,131072
293.45,-1.89703e-08,0,131072,131072
293.5,-1.81728e-08,0,131072,131072
293.551,-1.73969e-08,0,131072,131072
293.601,-1.66684e-08,0,131072,131072
293.65,-1.59781e-08,0,131072,131072
293.7,-1.53273e-08,0,131072,131072
293.751,-1.47073e-08,0,131072,131072
293.8,-1.41352e-08,0,131072,131072
293.85,-1.35997e-08,0,131072,131072
293.9,-1.3098e-08,0,131072,131072
293.951,-1.26203e-08,0,131072,131072
294,-1.21766e-08,0,131072,131072
294.05,-1.1756e-08,0,131072,131072
294.101,-1.13486e-08,0,131072,131072
294.15,-1.09616e-08,0,131072,131072
294.2,-1.05841e-08,0,131072,131072
294.25,-1.02106e-08,0,131072,131072
294.301,-9.82969e-09,0,131072,131072
294.35,-9.4466e-09,0,131072,131072
294.4,-9.05045e-09,0,131072,131072
294.451,-8.63035e-09,0,131072,131072
294.501,-8.19454e-09,0,131072,131072
294.55,-7.7338e-09,0,131072,131072
294.6,-7.2454e-09,0,131072,131072
294.651,-6.71933e-09,0,131072,131072
294.7,-6.16953e-09,0,131072,131072
294.75,-5.58852e-09,0,131072,131072
294.8,-4.97775e-09,0,131072,131072
294.851,-4.33062e-09,0,131072,131072
294.9,-3.67017e-09,0,131072,131072
294.95,-2.99234e-09,0,131072,131072
295.001,-2.29245e-09,0,131072,131072
295.05,-1.59637e-09,0,131072,131072
295.1,-8.99381e-10,0,131072,131072
295.15,-2.0647e-10,0,131072,131072
295.201,4.87729e-10,0,131072,131072
295.25,1.15887e-09,0,131072,131072
295.3,1.81331e-09,0,131072,131072
295.351,2.4567e-09,0,131072,131072
295.401,3.06678e-09,0,131072,131072
295.45,3.64916e-09,0,131072,131072
295.5,4.19943e-09,0,131072,131072
295.551,4.72006e-09,0,131072,131072
295.6,5.19116e-09,0,131072,131072
295.65,5.61653e-09,0,131072,131072
295.7,5.99342e-09,0,131072,131072
295.751,6.32514e-09,0,131072,131072
295.8,6.6025e-09,0,131072,131072
295.85,6.83214e-09,0,131072,131072
295.901,7.01841e-09,0,131072,131072
295.95,7.15805e-09,0,131072,131072
296,7.25632e-09,0,131072,131072
296.05,7.31583e-09,0,131072,131072
296.101,7.34e-09,0,131072,131072
296.15,7.33231e-09,0,131072,131072
296.2,7.29812e-09,0,131072,131072
296.25,7.24245e-09,0,131072,131072
296.301,7.16886e-09,0,131072,131072
296.35,7.08355e-09,0,131072,131072
296.4,6.98859e-09,0,131072,131072
296.451,6.8844e-09,0,131072,131072
296.5,6.77524e-09,0,131072,131072
296.55,6.66053e-09,0,131072,131072
296.6,6.54122e-09,0,131072,131072
296.651,6.4169e-09,0,131072,131072
296.7,6.29306e-09,0,131072,131072
296.75,6.17017e-09,0,131072,131072
296.801,6.04876e-09,0,131072,131072
296.851,5.93438e-09,0,131072,131072
296.9,5.82671e-09,0,131072,131072
296.95,5.72666e-09,0,131072,131072
297.001,5.63335e-09,0,131072,131072
297.05,5.54957e-09,0,131072,131072
297.1,5.47386e-09,0,131072,131072
297.15,5.40612e-09,0,131072,131072
297.201,5.34541e-09,0,131072,131072
297.25,5.29344e-09,0,131072,131072
297.3,5.24931e-09,0,131072,131072
297.351,5.21271e-09,0,131072,131072
297.4,5.18486e-09,0,131072,131072
297.45,5.16513e-09,0,131072,131072
297.5,5.15299e-09,0,131072,131072
297.551,5.14725e-09,0,131072,131072
297.6,5.14643e-09,0,131072,131072
297.65,5.14872e-09,0,131072,131072
297.701,5.15291e-09,0,131072,131072
297.751,5.15823e-09,0,131072,131072
297.8,5.16459e-09,0,131072,131072
297.85,5.17193e-09,0,131072,131072
297.901,5.1799e-09,0,131072,131072
297.95,5.1872e-09,0,131072,131072
298,5.19244e-09,0,131072,131072
298.05,5.19415e-09,0,131072,131072
298.101,5.19139e-09,0,131072,131072
298.15,5.18438e-09,0,131072,131072
298.2,5.17414e-09,0,131072,131072
298.251,5.16209e-09,0,131072,131072
298.3,5.15019e-09,0,131072,131072
298.35,5.13936e-09,0,131072,131072
298.4,5.13004e-09,0,131072,131072
298.451,5.1219e-09,0,131072,131072
298.5,5.11455e-09,0,131072,131072
298.55,5.10706e-09,0,131072,131072
298.6,5.09867e-09,0,131072,131072
298.651,5.08868e-09,0,131072,131072
298.7,5.0772e-09,0,131072,131072
298.75,5.06436e-09,0,131072,131072
298.801,5.05069e-09,0,131072,131072
298.85,5.03765e-09,0,131072,131072
298.9,5.02621e-09,0,131072,131072
298.95,5.01733e-09,0,131072,131072
299.001,5.01153e-09,0,131072,131072
299.05,5.00896e-09,0,131072,131072
299.1,5.00898e-09,0,131072,131072
299.151,5.01075e-09,0,131072,131072
299.201,5.01324e-09,0,131072,131072
299.25,5.01558e-09,0,131072,131072
299.3,5.0172e-09,0,131072,131072
299.351,5.01786e-09,0,131072,131072
299.4,5.01761e-09,0,131072,131072
299.45,5.01667e-09,0,131072,131072
299.5,5.01522e-09,0,131072,131072
299.551,5.01315e-09,0,131072,131072
299.6,5.01023e-09,0,131072,131072
299.65,5.00596e-09,0,131072,131072
299.701,4.99982e-09,0,131072,131072
299.75,4.99188e-09,0,131072,131072
299.8,4.98226e-09,0,131072,131072
299.85,4.97139e-09,0,131072,131072
299.901,4.95948e-09,0,131072,131072
299.95,4.94701e-09,0,131072,131072
300,4.93363e-09,0,131072,131072
300.051,4.91877e-09,0,131072,131072
300.101,4.90249e-09,0,131072,131072
300.15,4.8845e-09,0,131072,131072
300.2,4.86494e-09,0,131072,131072
300.251,4.84385e-09,0,131072,131072
300.3,4.8222e-09,0,131072,131072
300.35,4.79987e-09,0,131072,131072
300.4,4.77678e-09,0,131072,131072
300.451,4.75232e-09,0,131072,131072
300.5,4.72689e-09,0,131072,131072
300.55,4.69995e-09,0,131072,131072
300.601,4.67102e-09,0,131072,131072
300.65,4.64102e-09,0,131072,131072
300.7,4.60972e-09,0,131072,131072
300.75,4.57728e-09,0,131072,131072
300.801,4.54335e-09,0,131072,131072
300.85,4.50903e-09,0,131072,131072
300.9,4.47396e-09,0,131072,131072
300.95,4.43821e-09,0,131072,131072
301.001,4.40136e-09,0,131072,131072
301.05,4.36453e-09,0,131072,131072
301.1,4.32724e-09,0,131072,131072
301.151,4.289e-09,0,131072,131072
301.2,4.25096e-09,0,131072,131072
301.25,4.21261e-09,0,131072,131072
301.3,4.174e-09,0,131072,131072
301.351,4.13459e-09,0,131072,131072
301.4,4.09558e-09,0,131072,131072
301.45,4.05641e-09,0,131072,131072
301.501,4.01653e-09,0,131072,131072
301.551,3.97709e-09,0,131072,131072
301.6,3.93753e-09,0,131072,131072
301.65,3.89785e-09,0,131072,131072
301.701,3.85743e-09,0,131072,131072
301.75,3.81743e-09,0,131072,131072
301.8,3.77723e-09,0,131072,131072
301.85,3.7368e-09,0,131072,131072
301.901,3.69551e-09,0,131072,131072
301.95,3.6545e-09,0,131072,131072
302,3.61314e-09,0,131072,131072
302.051,3.57079e-09,0,131072,131072
302.1,3.52863e-09,0,131072,131072
302.15,3.48602e-09,0,131072,131072
302.2,3.44292e-09,0,131072,131072
302.251,3.39865e-09,0,131072,131072
302.3,3.35448e-09,0,131072,131072
302.35,3.30975e-09,0,131072,131072
302.401,3.2638e-09,0,131072,131072
302.451,3.21796e-09,0,131072,131072
302.5,3.17158e-09,0,131072,131072
302.55,3.12468e-09,0,131072,131072
302.601,3.07656e-09,0,131072,131072
302.65,3.02865e-09,0,131072,131072
302.7,2.98028e-09,0,131072,131072
302.75,2.93149e-09,0,131072,131072
302.801,2.88158e-09,0,131072,131072
302.85,2.83204e-09,0,131072,131072
302.9,2.78221e-09,0,131072,131072
302.951,2.73139e-09,0,131072,131072
303,2.68113e-09,0,131072,131072
303.05,2.63075e-09,0,131072,131072
303.1,2.58031e-09,0,131072,131072
303.151,2.52914e-09,0,131072,131072
303.2,2.47877e-09,0,131072,131072
303.25,2.42853e-09,0,131072,131072
303.3,2.37847e-09,0,131072,131072
303.351,2.3279e-09,0,131072,131072
303.4,2.27835e-09,0,131072,131072
303.45,2.22912e-09,0,131072,131072
303.501,2.17954e-09,0,131072,131072
303.55,2.13106e-09,0,131072,131072
303.6,2.08299e-09,0,131072,131072
303.65,2.03535e-09,0,131072,131072
303.701,1.98747e-09,0,131072,131072
303.75,1.94074e-09,0,131072,131072
303.8,1.89447e-09,0,131072,131072
303.851,1.84799e-09,0,131072,131072
303.901,1.80265e-09,0,131072,131072
303.95,1.75777e-09,0,131072,131072
304,1.71335e-09,0,131072,131072
304.051,1.66875e-09,0,131072,131072
304.1,1.62524e-09,0,131072,131072
304.15,1.58217e-09,0,131072,131072
304.2,1.53953e-09,0,131072,131072
304.251,1.49668e-09,0,131072,131072
304.3,1.45485e-09,0,131072,131072
304.35,1.41341e-09,0,131072,131072
304.401,1.37173e-09,0,131072,131072
304.45,1.33101e-09,0,131072,131072
304.5,1.29062e-09,0,131072,131072
304.55,1.25057e-09,0,131072,131072
304.601,1.21024e-09,0,131072,131072
304.65,1.17079e-09,0,131072,131072
304.7,1.13164e-09,0,131072,131072
304.751,1.09218e-09,0,131072,131072
304.801,1.05357e-09,0,131072,131072
304.85,1.01522e-09,0,131072,131072
304.9,9.77117e-10,0,131072,131072
304.951,9.38704e-10,0,131072,131072
