250,0,0,512,512
250.012,0,0,512,512
250.059,0,0,512,512
250.105,0,0,512,512
250.152,0,0,512,512
250.211,0,0,512,512
250.258,0,0,512,512
250.305,0,0,512,512
250.352,0,0,512,512
250.41,2.77556e-17,0,512,512
250.457,2.77556e-17,0,512,512
250.504,0,0,512,512
250.551,0,0,512,512
250.609,0,0,512,512
250.656,0,0,512,512
250.703,0,0,512,512
250.762,0,0,512,512
250.808,0,0,512,512
250.855,0,0,512,512
250.902,2.77556e-17,0,512,512
250.961,2.77556e-17,0,512,512
251.008,2.77556e-17,0,512,512
251.055,2.77556e-17,0,512,512
251.101,0,0,512,512
251.16,0,0,512,512
251.207,2.77556e-17,0,512,512
251.254,0,0,512,512
251.301,0,0,512,512
251.359,0,0,512,512
251.406,0,0,512,512
251.453,0,0,512,512
251.511,0,0,512,512
251.558,0,0,512,512
251.605,2.77556e-17,0,512,512
251.652,2.77556e-17,0,512,512
251.711,0,0,512,512
251.758,0,0,512,512
251.804,0,0,512,512
251.851,0,0,512,512
251.91,0,0,512,512
251.957,0,0,512,512
252.004,-2.77556e-17,0,512,512
252.05,-2.77556e-17,0,512,512
252.109,-2.77556e-17,0,512,512
252.156,0,0,512,512
252.203,0,0,512,512
252.261,0,0,512,512
252.308,0,0,512,512
252.355,2.77556e-17,0,512,512
252.402,2.77556e-17,0,512,512
252.461,0,0,512,512
252.507,0,0,512,512
252.554,0,0,512,512
252.601,0,0,512,512
252.66,0,0,512,512
252.707,0,0,512,512
252.754,0,0,512,512
252.8,0,0,512,512
252.859,2.77556e-17,0,512,512
252.906,0,0,512,512
252.953,0,0,512,512
253.011,0,0,512,512
253.058,0,0,512,512
253.105,0,0,512,512
253.152,0,0,512,512
253.21,0,0,512,512
253.257,0,0,512,512
253.304,2.77556e-17,0,512,512
253.351,2.77556e-17,0,512,512
253.41,0,0,512,512
253.457,0,0,512,512
253.503,0,0,512,512
253.55,2.77556e-17,0,512,512
253.609,2.77556e-17,0,512,512
253.656,2.77556e-17,0,512,512
253.703,2.77556e-17,0,512,512
253.761,0,0,512,512
253.808,0,0,512,512
253.855,0,0,512,512
253.902,-2.77556e-17,0,512,512
253.96,-2.77556e-17,0,512,512
254.007,0,0,512,512
254.054,0,0,512,512
254.101,-2.77556e-17,0,512,512
254.16,0,0,512,512
254.206,-2.77556e-17,0,512,512
254.253,0,0,512,512
254.3,0,0,512,512
254.359,0,0,512,512
254.406,0,0,512,512
254.452,0,0,512,512
254.511,-2.77556e-17,0,512,512
254.558,-2.77556e-17,0,512,512
254.605,-2.77556e-17,0,512,512
254.652,-2.77556e-17,0,512,512
254.71,-2.77556e-17,0,512,512
254.757,0,0,512,512
254.804,0,0,512,512
254.851,-2.77556e-17,0,512,512
254.909,-5.55112e-17,0,512,512
254.956,-2.77556e-17,0,512,512
255.003,-2.77556e-17,0,512,512
255.05,-2.77556e-17,0,512,512
255.109,-2.77556e-17,0,512,512
255.155,-2.77556e-17,0,512,512
255.202,-2.77556e-17,0,512,512
255.261,-2.77556e-17,0,512,512
255.308,-2.77556e-17,0,512,512
255.355,-2.77556e-17,0,512,512
255.402,-2.77556e-17,0,512,512
255.46,-2.77556e-17,0,512,512
255.507,-2.77556e-17,0,512,512
255.554,-2.77556e-17,0,512,512
255.601,0,0,512,512
255.659,0,0,512,512
255.706,0,0,512,512
255.753,0,0,512,512
255.812,0,0,512,512
255.859,0,0,512,512
255.905,2.77556e-17,0,512,512
255.952,0,0,512,512
256.011,0,0,512,512
256.058,0,0,512,512
256.105,0,0,512,512
256.151,0,0,512,512
256.21,0,0,512,512
256.257,2.77556e-17,0,512,512
256.304,2.77556e-17,0,512,512
256.351,0,0,512,512
256.409,0,0,512,512
256.456,0,0,512,512
256.503,0,0,512,512
256.562,0,0,512,512
256.608,0,0,512,512
256.655,-2.77556e-17,0,512,512
256.702,0,0,512,512
256.761,-2.77556e-17,0,512,512
256.808,0,0,512,512
256.854,-2.77556e-17,0,512,512
256.901,-2.77556e-17,0,512,512
256.96,-2.77556e-17,0,512,512
257.007,-2.77556e-17,0,512,512
257.054,0,0,512,512
257.101,-2.77556e-17,0,512,512
257.159,-2.77556e-17,0,512,512
257.206,0,0,512,512
257.253,0,0,512,512
257.311,0,0,512,512
257.358,2.77556e-17,0,512,512
257.405,2.77556e-17,0,512,512
257.452,0,0,512,512
257.511,0,0,512,512
257.557,0,0,512,512
257.604,0,0,512,512
257.651,0,0,512,512
257.71,-2.77556e-17,0,512,512
257.757,0,0,512,512
257.804,0,0,512,512
257.85,0,0,512,512
257.909,-2.77556e-17,0,512,512
257.956,-2.77556e-17,0,512,512
258.003,-2.77556e-17,0,512,512
258.061,0,0,512,512
258.108,0,0,512,512
258.155,0,0,512,512
258.202,0,0,512,512
258.261,0,0,512,512
258.307,-2.77556e-17,0,512,512
258.354,0,0,512,512
258.401,-2.77556e-17,0,512,512
258.46,-2.77556e-17,0,512,512
258.507,-2.77556e-17,0,512,512
258.553,-2.77556e-17,0,512,512
258.6,-2.77556e-17,0,512,512
258.659,-2.77556e-17,0,512,512
258.706,-5.55112e-17,0,512,512
258.753,-5.55112e-17,0,512,512
258.811,-5.55112e-17,0,512,512
258.858,-5.55112e-17,0,512,512
258.905,-2.77556e-17,0,512,512
258.952,0,0,512,512
259.01,0,0,512,512
259.057,-2.77556e-17,0,512,512
259.104,0,0,512,512
259.151,0,0,512,512
259.21,-2.77556e-17,0,512,512
259.256,-2.77556e-17,0,512,512
259.303,0,0,512,512
259.35,0,0,512,512
259.409,2.77556e-17,0,512,512
259.456,2.77556e-17,0,512,512
259.503,0,0,512,512
259.561,0,0,512,512
259.608,0,0,512,512
259.655,-2.77556e-17,0,512,512
259.702,-2.77556e-17,0,512,512
259.76,0,0,512,512
259.807,0,0,512,512
259.854,2.77556e-17,0,512,512
259.901,0,0,512,512
259.959,0,0,512,512
260.006,0,0,512,512
260.053,0,0,512,512
260.1,-2.77556e-17,0,512,512
260.159,-2.77556e-17,0,512,512
260.206,-2.77556e-17,0,512,512
260.252,-2.77556e-17,0,512,512
260.311,-2.77556e-17,0,512,512
260.358,-2.77556e-17,0,512,512
260.405,-2.77556e-17,0,512,512
260.452,-2.77556e-17,0,512,512
260.51,-2.77556e-17,0,512,512
260.557,-2.77556e-17,0,512,512
260.604,0,0,512,512
260.651,0,0,512,512
260.709,0,0,512,512
260.756,0,0,512,512
260.803,0,0,512,512
260.862,0,0,512,512
260.909,2.77556e-17,0,512,512
260.955,2.77556e-17,0,512,512
261.002,2.77556e-17,0,512,512
261.061,2.77556e-17,0,512,512
261.108,2.77556e-17,0,512,512
261.155,2.77556e-17,0,512,512
261.201,2.77556e-17,0,512,512
261.26,0,0,512,512
261.307,0,0,512,512
261.354,0,0,512,512
261.401,0,0,512,512
261.459,0,0,512,512
261.506,0,0,512,512
261.553,0,0,512,512
261.612,0,0,512,512
261.658,0,0,512,512
261.705,0,0,512,512
261.752,2.77556e-17,0,512,512
261.811,2.77556e-17,0,512,512
261.858,-2.77556e-17,0,512,512
261.905,0,0,512,512
261.951,0,0,512,512
262.01,0,0,512,512
262.057,0,0,512,512
262.104,0,0,512,512
262.151,0,0,512,512
262.209,0,0,512,512
262.256,2.77556e-17,0,512,512
262.303,2.77556e-17,0,512,512
262.361,0,0,512,512
262.408,0,0,512,512
262.455,0,0,512,512
262.502,0,0,512,512
262.561,0,0,512,512
262.608,2.77556e-17,0,512,512
262.654,2.77556e-17,0,512,512
262.701,2.77556e-17,0,512,512
262.76,2.77556e-17,0,512,512
262.807,0,0,512,512
262.854,0,0,512,512
262.9,2.77556e-17,0,512,512
262.959,0,0,512,512
263.006,0,0,512,512
263.053,0,0,512,512
263.111,0,0,512,512
263.158,0,0,512,512
263.205,0,0,512,512
263.252,0,0,512,512
263.311,0,0,512,512
263.357,2.77556e-17,0,512,512
263.404,2.77556e-17,0,512,512
263.451,2.77556e-17,0,512,512
263.51,0,0,512,512
263.557,0,0,512,512
263.603,0,0,512,512
263.65,0,0,512,512
263.709,-2.77556e-17,0,512,512
263.756,-2.77556e-17,0,512,512
263.803,-2.77556e-17,0,512,512
263.861,0,0,512,512
263.908,0,0,512,512
263.955,2.77556e-17,0,512,512
264.002,0,0,512,512
264.06,0,0,512,512
264.107,0,0,512,512
264.154,0,0,512,512
264.201,0,0,512,512
264.26,0,0,512,512
264.306,2.77556e-17,0,512,512
264.353,2.77556e-17,0,512,512
264.4,2.77556e-17,0,512,512
264.459,2.77556e-17,0,512,512
264.506,2.77556e-17,0,512,512
264.553,2.77556e-17,0,512,512
264.611,2.77556e-17,0,512,512
264.658,2.77556e-17,0,512,512
264.705,2.77556e-17,0,512,512
264.752,2.77556e-17,0,512,512
264.81,2.77556e-17,0,512,512
264.857,2.77556e-17,0,512,512
264.904,2.77556e-17,0,512,512
264.951,2.77556e-17,0,512,512
265.01,2.77556e-17,0,512,512
265.056,2.77556e-17,0,512,512
265.103,2.77556e-17,0,512,512
265.15,2.77556e-17,0,512,512
265.209,2.77556e-17,0,512,512
265.256,2.77556e-17,0,512,512
265.302,2.77556e-17,0,512,512
265.361,5.55112e-17,0,512,512
265.408,5.55112e-17,0,512,512
265.455,5.55112e-17,0,512,512
265.502,5.55112e-17,0,512,512
265.56,2.77556e-17,0,512,512
265.607,2.77556e-17,0,512,512
265.654,2.77556e-17,0,512,512
265.701,2.77556e-17,0,512,512
265.759,2.77556e-17,0,512,512
265.806,2.77556e-17,0,512,512
265.853,2.77556e-17,0,512,512
265.9,2.77556e-17,0,512,512
265.959,2.77556e-17,0,512,512
266.005,2.77556e-17,0,512,512
266.052,2.77556e-17,0,512,512
266.111,0,0,512,512
266.158,2.77556e-17,0,512,512
266.205,0,0,512,512
266.252,2.77556e-17,0,512,512
266.31,2.77556e-17,0,512,512
266.357,2.77556e-17,0,512,512
266.404,2.77556e-17,0,512,512
266.451,2.77556e-17,0,512,512
266.509,0,0,512,512
266.556,0,0,512,512
266.603,-2.77556e-17,0,512,512
266.662,-2.77556e-17,0,512,512
266.708,-2.77556e-17,0,512,512
266.755,0,0,512,512
266.802,-2.77556e-17,0,512,512
266.861,-2.77556e-17,0,512,512
266.908,-2.77556e-17,0,512,512
266.955,-2.77556e-17,0,512,512
267.001,-2.77556e-17,0,512,512
267.06,-2.77556e-17,0,512,512
267.107,-2.77556e-17,0,512,512
267.154,-2.77556e-17,0,512,512
267.201,-2.77556e-17,0,512,512
267.259,-2.77556e-17,0,512,512
267.306,-2.77556e-17,0,512,512
267.353,-2.77556e-17,0,512,512
267.412,-2.77556e-17,0,512,512
267.458,-2.77556e-17,0,512,512
267.505,-2.77556e-17,0,512,512
267.552,0,0,512,512
267.611,2.77556e-17,0,512,512
267.658,2.77556e-17,0,512,512
267.704,2.77556e-17,0,512,512
267.751,2.77556e-17,0,512,512
267.81,2.77556e-17,0,512,512
267.857,2.77556e-17,0,512,512
267.904,2.77556e-17,0,512,512
267.95,2.77556e-17,0,512,512
268.009,2.77556e-17,0,512,512
268.056,2.77556e-17,0,512,512
268.103,2.77556e-17,0,512,512
268.161,2.77556e-17,0,512,512
268.208,2.77556e-17,0,512,512
268.255,0,0,512,512
268.302,0,0,512,512
268.361,0,0,512,512
268.407,0,0,512,512
268.454,0,0,512,512
268.501,0,0,512,512
268.56,0,0,512,512
268.607,0,0,512,512
268.654,-2.77556e-17,0,512,512
268.7,-2.77556e-17,0,512,512
268.759,-2.77556e-17,0,512,512
268.806,-2.77556e-17,0,512,512
268.853,0,0,512,512
268.911,0,0,512,512
268.958,2.77556e-17,0,512,512
269.005,2.77556e-17,0,512,512
269.052,2.77556e-17,0,512,512
269.11,0,0,512,512
269.157,0,0,512,512
269.204,0,0,512,512
269.251,2.77556e-17,0,512,512
269.31,2.77556e-17,0,512,512
269.357,0,0,512,512
269.403,2.77556e-17,0,512,512
269.45,2.77556e-17,0,512,512
269.509,2.77556e-17,0,512,512
269.556,2.77556e-17,0,512,512
269.603,2.77556e-17,0,512,512
269.661,2.77556e-17,0,512,512
269.708,2.77556e-17,0,512,512
269.755,2.77556e-17,0,512,512
269.802,2.77556e-17,0,512,512
269.86,2.77556e-17,0,512,512
269.907,2.77556e-17,0,512,512
269.954,2.77556e-17,0,512,512
270.002,2.77556e-17,0,563,563
270.051,2.77556e-17,0,617,617
270.101,2.77556e-17,0,671,671
270.151,2.77556e-17,0,713,713
270.201,2.77556e-17,0,773,773
270.251,2.77556e-17,0,821,821
270.3,2.77556e-17,0,863,863
270.35,2.77556e-17,0,923,923
270.4,2.77556e-17,0,971,971
270.453,2.77556e-17,0,1031,1031
270.503,-5.55112e-17,0,1073,1073
270.552,-7.21645e-16,0,1133,1133
270.602,-4.7462e-15,0,1181,1181
270.652,-2.69784e-14,0,1237,1237
270.702,-1.22236e-13,0,1283,1283
270.752,-4.51916e-13,0,1331,1331
270.801,-1.39663e-12,0,1391,1391
270.851,-3.67695e-12,0,1433,1433
270.901,-8.3791e-12,0,1493,1493
270.951,-1.67415e-11,0,1541,1541
271.001,-2.96384e-11,0,1601,1601
271.05,-4.68935e-11,0,1643,1643
271.1,-6.67633e-11,0,1703,1703
271.153,-8.70019e-11,0,1751,1751
271.203,-1.01126e-10,0,1811,1811
271.252,-1.06829e-10,0,1853,1853
271.302,-1.02337e-10,0,1913,1913
271.352,-8.81257e-11,0,1961,1961
271.402,-6.6596e-11,0,2021,2021
271.452,-4.11348e-11,0,2063,2063
271.501,-1.50378e-11,0,2123,2123
271.551,9.23819e-12,0,2171,2171
271.601,3.03106e-11,0,2231,2231
271.651,4.77002e-11,0,2273,2273
271.701,6.15082e-11,0,2333,2333
271.75,7.21436e-11,0,2381,2381
271.8,8.01652e-11,0,2423,2423
271.85,8.61885e-11,0,2483,2483
271.903,9.10367e-11,0,2543,2543
271.953,9.46558e-11,0,2591,2591
272.002,9.76368e-11,0,2647,2647
272.052,1.00119e-10,0,2693,2693
272.102,1.02169e-10,0,2741,2741
272.152,1.03858e-10,0,2801,2801
272.202,1.05285e-10,0,2843,2843
272.251,1.06561e-10,0,2891,2891
272.301,1.07805e-10,0,2951,2951
272.351,1.09208e-10,0,2993,2993
272.401,1.11248e-10,0,3053,3053
272.451,1.1511e-10,0,3101,3101
272.5,1.23392e-10,0,3143,3143
272.55,1.41181e-10,0,3197,3197
272.603,1.80444e-10,0,3251,3251
272.653,2.52097e-10,0,3293,3293
272.702,3.78836e-10,0,3353,3353
272.752,5.8805e-10,0,3401,3401
272.802,9.11219e-10,0,3443,3443
272.852,1.37975e-09,0,3491,3491
272.902,2.01916e-09,0,3551,3551
272.951,2.8427e-09,0,3593,3593
273.001,3.84596e-09,0,3641,3641
273.051,5.00387e-09,0,3683,3683
273.101,6.27093e-09,0,3743,3743
273.151,7.58176e-09,0,3791,3791
273.2,9.22808e-09,0,3833,3833
273.25,1.67414e-08,0,3881,3881
273.3,2.36525e-08,0,3923,3923
273.353,2.81498e-08,0,3983,3983
273.403,3.12672e-08,0,4031,4031
273.452,3.49938e-08,0,4051,4051
273.502,4.02441e-08,0,4044,4044
273.552,4.79179e-08,0,4036,4036
273.602,5.78734e-08,0,4032,4032
273.652,7.00718e-08,0,4022,4022
273.701,8.47278e-08,0,4022,4022
273.751,1.02368e-07,0,4022,4022
273.801,1.24268e-07,0,4052,4052
273.851,1.51401e-07,0,4112,4112
273.901,1.84466e-07,0,4154,4154
273.95,2.23489e-07,0,4202,4202
274,2.67434e-07,0,4244,4244
274.053,3.17818e-07,0,4292,4292
274.103,3.67663e-07,0,4334,4334
274.152,4.19302e-07,0,4382,4382
274.202,4.73258e-07,0,4424,4424
274.252,5.29795e-07,0,4472,4472
274.302,5.88146e-07,0,4514,4514
274.352,6.45968e-07,0,4562,4562
274.401,7.00023e-07,0,4592,4592
274.451,7.47349e-07,0,4634,4634
274.501,7.85842e-07,0,4682,4682
274.551,8.14792e-07,0,4724,4724
274.601,8.3479e-07,0,4772,4772
274.65,8.47295e-07,0,4832,4832
274.7,8.54139e-07,0,4922,4922
274.753,8.56776e-07,0,5024,5024
274.803,8.5564e-07,0,5120,5120
274.853,8.50975e-07,0,5198,5198
274.902,8.42173e-07,0,5282,5282
274.952,8.28366e-07,0,5389,5389
275.002,8.08581e-07,0,5453,5453
275.052,7.81964e-07,0,5501,5501
275.102,7.48122e-07,0,5531,5531
275.151,7.0739e-07,0,5573,5573
275.201,6.61082e-07,0,5621,5621
275.251,6.11353e-07,0,5663,5663
275.301,5.60609e-07,0,5711,5711
275.35,5.10957e-07,0,5741,5741
275.4,4.63826e-07,0,5783,5783
275.45,4.1991e-07,0,5831,5831
275.503,3.77043e-07,0,5873,5873
275.553,3.39669e-07,0,5903,5903
275.602,3.0481e-07,0,5951,5951
275.652,2.72002e-07,0,5993,5993
275.702,2.41016e-07,0,6041,6041
275.752,2.12116e-07,0,6071,6071
275.802,1.86083e-07,0,6113,6113
275.851,1.63833e-07,0,6161,6161
275.901,1.45748e-07,0,6203,6203
275.951,1.31134e-07,0,6233,6233
276.001,1.1844e-07,0,6281,6281
276.051,1.06173e-07,0,6323,6323
276.1,9.37616e-08,0,6353,6353
276.15,8.17308e-08,0,6401,6401
276.203,7.05584e-08,0,6443,6443
276.253,6.22651e-08,0,6491,6491
276.302,5.62015e-08,0,6521,6521
276.352,5.17244e-08,0,6563,6563
276.402,4.78158e-08,0,6611,6611
276.452,4.35276e-08,0,6641,6641
276.502,3.84368e-08,0,6683,6683
276.551,3.29065e-08,0,6731,6731
276.601,2.78888e-08,0,6761,6761
276.651,2.42694e-08,0,6803,6803
276.701,2.22934e-08,0,6851,6851
276.751,2.1576e-08,0,6881,6881
276.8,2.1528e-08,0,6923,6923
276.85,2.17109e-08,0,6971,6971
276.9,2.19154e-08,0,7001,7001
276.953,2.20846e-08,0,7043,7043
277.003,2.21892e-08,0,7091,7091
277.052,2.22273e-08,0,7121,7121
277.102,2.21714e-08,0,7163,7163
277.152,2.20088e-08,0,7211,7211
277.202,2.17665e-08,0,7241,7241
277.252,2.15003e-08,0,7283,7283
277.301,2.12629e-08,0,7313,7313
277.351,2.10764e-08,0,7361,7361
277.401,2.09316e-08,0,7403,7403
277.451,2.08076e-08,0,7433,7433
277.501,2.06845e-08,0,7481,7481
277.55,2.05476e-08,0,7511,7511
277.6,2.03871e-08,0,7553,7553
277.653,2.01834e-08,0,7601,7601
277.703,1.99551e-08,0,7643,7643
277.752,1.96912e-08,0,7673,7673
277.802,1.93913e-08,0,7721,7721
277.852,1.90556e-08,0,7751,7751
277.902,1.86855e-08,0,7793,7793
277.952,1.82829e-08,0,7823,7823
278.001,1.78507e-08,0,7853,7853
278.051,1.73931e-08,0,7901,7901
278.101,1.69143e-08,0,7931,7931
278.151,1.64191e-08,0,7961,7961
278.201,1.59133e-08,0,8003,8003
278.25,1.54017e-08,0,8051,8051
278.3,1.48882e-08,0,8170,8170
278.35,1.43754e-08,0,8192,8192
278.403,1.3836e-08,0,8192,8192
278.453,1.33328e-08,0,8192,8192
278.502,1.2839e-08,0,8192,8192
278.552,1.23581e-08,0,8192,8192
278.602,1.18939e-08,0,8192,8192
278.652,1.14505e-08,0,8192,8192
278.702,1.1031e-08,0,8192,8192
278.751,1.06386e-08,0,8192,8192
278.801,1.02751e-08,0,8192,8192
278.851,9.94163e-09,0,8192,8192
278.901,9.63812e-09,0,8192,8192
278.951,9.36381e-09,0,8192,8192
279,9.11732e-09,0,8192,8192
279.05,8.89717e-09,0,8192,8192
279.103,8.69109e-09,0,8192,8192
279.153,8.52018e-09,0,8192,8192
279.202,8.37064e-09,0,8192,8192
279.252,8.24086e-09,0,8192,8192
279.302,8.12908e-09,0,8192,8192
279.352,8.03353e-09,0,8192,8192
279.402,7.95231e-09,0,8192,8192
279.451,7.88355e-09,0,8192,8192
279.501,7.82571e-09,0,8192,8192
279.551,7.77755e-09,0,8192,8192
279.601,7.73806e-09,0,8192,8192
279.651,7.70646e-09,0,8192,8192
279.7,7.68199e-09,0,8192,8192
279.75,7.66379e-09,0,8192,8192
279.8,7.65099e-09,0,8192,8192
279.853,7.64237e-09,0,8192,8192
279.903,7.63821e-09,0,8192,8192
279.952,7.63753e-09,0,8192,8192
280.002,7.64011e-09,0,8192,8192
280.052,7.6458e-09,0,8192,8192
280.102,7.65442e-09,0,8192,8192
280.152,7.66568e-09,0,8192,8192
280.201,7.67906e-09,0,8192,8192
280.251,7.69396e-09,0,8192,8192
280.301,7.7098e-09,0,8192,8192
280.351,7.72612e-09,0,8192,8192
280.401,7.7427e-09,0,8192,8192
280.45,7.75938e-09,0,8192,8192
280.5,7.77606e-09,0,8192,8192
280.553,7.79371e-09,0,8192,8192
280.603,7.81038e-09,0,8192,8192
280.652,7.82703e-09,0,8192,8192
280.702,7.84365e-09,0,8192,8192
280.752,7.8602e-09,0,8192,8192
280.802,7.87668e-09,0,8192,8192
280.852,7.89307e-09,0,8192,8192
280.901,7.90936e-09,0,8192,8192
280.951,7.92551e-09,0,8192,8192
281.001,7.94151e-09,0,8192,8192
281.051,7.95733e-09,0,8192,8192
281.101,7.97296e-09,0,8192,8192
281.15,7.98843e-09,0,8192,8192
281.2,8.00378e-09,0,8192,8192
281.25,8.01909e-09,0,8192,8192
281.303,8.03536e-09,0,8192,8192
281.353,8.05094e-09,0,8192,8192
281.402,8.0669e-09,0,8192,8192
281.452,8.08346e-09,0,8192,8192
281.502,8.10085e-09,0,8192,8192
281.552,8.11936e-09,0,8192,8192
281.602,8.13928e-09,0,8192,8192
281.651,8.16094e-09,0,8192,8192
281.701,8.18469e-09,0,8192,8192
281.751,8.211e-09,0,8192,8192
281.801,8.24054e-09,0,8192,8192
281.851,8.27434e-09,0,8192,8192
281.9,8.31407e-09,0,8192,8192
281.95,8.36204e-09,0,8192,8192
282.003,8.42511e-09,0,8192,8192
282.053,8.49974e-09,0,8192,8192
282.102,8.59244e-09,0,8192,8192
282.152,8.70648e-09,0,8192,8192
282.202,8.84523e-09,0,8192,8192
282.252,9.01241e-09,0,8192,8192
282.302,9.21261e-09,0,8192,8192
282.351,9.45169e-09,0,8192,8192
282.401,9.73714e-09,0,8192,8192
282.451,1.00783e-08,0,8192,8192
282.501,1.04867e-08,0,8192,8192
282.551,1.09754e-08,0,8192,8192
282.6,1.15596e-08,0,8192,8192
282.65,1.22555e-08,0,8192,8192
282.703,1.31333e-08,0,8192,8192
282.753,1.4114e-08,0,8192,8192
282.803,1.52597e-08,0,8192,8192
282.852,1.6587e-08,0,8192,8192
282.902,1.8111e-08,0,8192,8192
282.952,1.9845e-08,0,8192,8192
283.002,2.17995e-08,0,8192,8192
283.052,2.39821e-08,0,8192,8192
283.101,2.63962e-08,0,8192,8192
283.151,2.90413e-08,0,8192,8192
283.201,3.1912e-08,0,8192,8192
283.251,3.49987e-08,0,8192,8192
283.3,3.82877e-08,0,8192,8192
283.35,4.17621e-08,0,8192,8192
283.4,4.5403e-08,0,8192,8192
283.453,4.94166e-08,0,8192,8192
283.503,5.33346e-08,0,8192,8192
283.552,5.73547e-08,0,8192,8192
283.602,6.14568e-08,0,8192,8192
283.652,6.56244e-08,0,8192,8192
283.702,6.98491e-08,0,8192,8192
283.752,7.41382e-08,0,8192,8192
283.801,7.85221e-08,0,8192,8192
283.851,8.30591e-08,0,8192,8192
283.901,8.78333e-08,0,8192,8192
283.951,9.29424e-08,0,8192,8192
284.001,9.84799e-08,0,8192,8192
284.05,1.04519e-07,0,8192,8192
284.1,1.1111e-07,0,8192,8192
284.153,1.18728e-07,0,8192,8192
284.203,1.26577e-07,0,8192,8192
284.253,1.35152e-07,0,8192,8192
284.302,1.44605e-07,0,8192,8192
284.352,1.55158e-07,0,8192,8192
284.402,1.67097e-07,0,8192,8192
284.452,1.80755e-07,0,8192,8192
284.501,1.96484e-07,0,8192,8192
284.551,2.14624e-07,0,8192,8192
284.601,2.35476e-07,0,8192,8192
284.651,2.5927e-07,0,8192,8192
284.701,2.86141e-07,0,8192,8192
284.75,3.16107e-07,0,8192,8192
284.8,3.49057e-07,0,8192,8192
284.85,3.84741e-07,0,8192,8192
284.903,4.25068e-07,0,8192,8192
284.953,4.64997e-07,0,8192,8192
285.002,5.06034e-07,0,8192,8192
285.052,5.47386e-07,0,8192,8192
285.102,5.88159e-07,0,8192,8192
285.152,6.27391e-07,0,8192,8192
285.202,6.64103e-07,0,8192,8192
285.251,6.97356e-07,0,8192,8192
285.301,7.26316e-07,0,8192,8192
285.351,7.50305e-07,0,8192,8192
285.401,7.68838e-07,0,8192,8192
285.451,7.81633e-07,0,8192,8192
285.5,7.88589e-07,0,8192,8192
285.55,7.89749e-07,0,8192,8192
285.603,7.84812e-07,0,8192,8192
285.653,7.74521e-07,0,8192,8192
285.702,7.5896e-07,0,8192,8192
285.752,7.38328e-07,0,8192,8192
285.802,7.12839e-07,0,8192,8192
285.852,6.82749e-07,0,8192,8192
285.902,6.48398e-07,0,8192,8192
285.951,6.10234e-07,0,8192,8192
286.001,5.68836e-07,0,8192,8192
286.051,5.24901e-07,0,8192,8192
286.101,4.79221e-07,0,8192,8192
286.151,4.32633e-07,0,8192,8192
286.2,3.85969e-07,0,8192,8192
286.25,3.40005e-07,0,8192,8192
286.3,2.95417e-07,0,8192,8192
286.353,2.50323e-07,0,8192,8192
286.403,2.10178e-07,0,8192,8192
286.452,1.72716e-07,0,8192,8192
286.502,1.38133e-07,0,8192,8192
286.552,1.06536e-07,0,8192,8192
286.602,7.79582e-08,0,8192,8192
286.652,5.23699e-08,0,8192,8192
286.701,2.96839e-08,0,8192,8192
286.751,9.76644e-09,0,8192,8192
286.801,-7.55304e-09,0,8192,8192
286.851,-2.24679e-08,0,8192,8192
286.901,-3.51808e-08,0,8192,8192
286.95,-4.58913e-08,0,8192,8192
287,-5.47897e-08,0,8192,8192
287.053,-6.24339e-08,0,8192,8192
287.103,-6.81494e-08,0,8192,8192
287.152,-7.25638e-08,0,8192,8192
287.202,-7.58238e-08,0,8192,8192
287.252,-7.80632e-08,0,8192,8192
287.302,-7.93988e-08,0,8192,8192
287.352,-7.99271e-08,0,8192,8192
287.401,-7.97248e-08,0,8192,8192
287.451,-7.88537e-08,0,8192,8192
287.501,-7.73686e-08,0,8192,8192
287.551,-7.53263e-08,0,8192,8192
287.601,-7.27929e-08,0,8192,8192
287.65,-6.98472e-08,0,8192,8192
287.7,-6.65793e-08,0,8192,8192
287.75,-6.30859e-08,0,8192,8192
287.803,-5.92482e-08,0,8192,8192
287.853,-5.55856e-08,0,8192,8192
287.902,-5.19633e-08,0,8192,8192
287.952,-4.84409e-08,0,8192,8192
288.002,-4.50618e-08,0,8192,8192
288.052,-4.18541e-08,0,8192,8192
288.102,-3.88338e-08,0,8192,8192
288.151,-3.60073e-08,0,8192,8192
288.201,-3.33747e-08,0,8192,8192
288.251,-3.09322e-08,0,8192,8192
288.301,-2.86737e-08,0,8192,8192
288.351,-2.65923e-08,0,8192,8192
288.4,-2.46806e-08,0,8192,8192
288.45,-2.29309e-08,0,8192,8192
288.503,-2.12463e-08,0,8192,8192
288.553,-1.98057e-08,0,8192,8192
288.602,-1.85025e-08,0,8192,8192
288.652,-1.73281e-08,0,8192,8192
288.702,-1.62738e-08,0,8192,8192
288.752,-1.53307e-08,0,8192,8192
288.802,-1.449e-08,0,8192,8192
288.851,-1.37436e-08,0,8192,8192
288.901,-1.30835e-08,0,8192,8192
288.951,-1.25028e-08,0,8192,8192
289.001,-1.19948e-08,0,8192,8192
289.051,-1.15537e-08,0,8192,8192
289.1,-1.11743e-08,0,8192,8192
289.15,-1.08519e-08,0,8192,8192
289.2,-1.0582e-08,0,8192,8192
289.253,-1.03487e-08,0,8192,8192
289.303,-1.0174e-08,0,8192,8192
289.352,-1.00393e-08,0,8192,8192
289.402,-9.94076e-09,0,8192,8192
289.452,-9.87434e-09,0,8192,8192
289.502,-9.83599e-09,0,8192,8192
289.552,-9.82169e-09,0,8192,8192
289.601,-9.82747e-09,0,8192,8192
289.651,-9.84951e-09,0,8192,8192
289.701,-9.8842e-09,0,8192,8192
289.751,-9.92825e-09,0,8192,8192
289.8,-9.9787e-09,0,8192,8192
289.85,-1.0033e-08,0,8192,8192
289.9,-1.00892e-08,0,8192,8192
289.953,-1.01487e-08,0,8192,8192
290.003,-1.02036e-08,0,8192,8192
290.052,-1.02564e-08,0,8192,8192
290.102,-1.03063e-08,0,8192,8192
290.152,-1.03531e-08,0,8192,8192
290.202,-1.03964e-08,0,8192,8192
290.252,-1.04363e-08,0,8192,8192
290.301,-1.04728e-08,0,8192,8192
290.351,-1.05062e-08,0,8192,8192
290.401,-1.0537e-08,0,8192,8192
290.451,-1.05654e-08,0,8192,8192
290.501,-1.0592e-08,0,8192,8192
290.55,-1.06172e-08,0,8192,8192
290.6,-1.06411e-08,0,8192,8192
290.653,-1.06651e-08,0,8192,8192
290.703,-1.06866e-08,0,8192,8192
290.753,-1.07068e-08,0,8192,8192
290.802,-1.07256e-08,0,8192,8192
290.852,-1.0743e-08,0,8192,8192
290.902,-1.07593e-08,0,8192,8192
290.952,-1.07748e-08,0,8192,8192
291.001,-1.07903e-08,0,8192,8192
291.051,-1.08066e-08,0,8192,8192
291.101,-1.08248e-08,0,8192,8192
291.151,-1.08464e-08,0,8192,8192
291.201,-1.08728e-08,0,8192,8192
291.25,-1.09056e-08,0,8192,8192
291.3,-1.09465e-08,0,8192,8192
291.35,-1.0997e-08,0,8192,8192
291.403,-1.10629e-08,0,8192,8192
291.453,-1.11381e-08,0,8192,8192
291.502,-1.12273e-08,0,8192,8192
291.552,-1.13313e-08,0,8192,8192
291.602,-1.14507e-08,0,8192,8192
291.652,-1.15856e-08,0,8192,8192
291.702,-1.1736e-08,0,8192,8192
291.751,-1.19014e-08,0,8192,8192
291.801,-1.20814e-08,0,8192,8192
291.851,-1.22756e-08,0,8192,8192
291.901,-1.24837e-08,0,8192,8192
291.951,-1.27056e-08,0,8192,8192
292,-1.29416e-08,0,8192,8192
292.05,-1.31924e-08,0,8192,8192
292.103,-1.34746e-08,0,8192,8192
292.153,-1.37575e-08,0,8192,8192
292.202,-1.40569e-08,0,8192,8192
292.252,-1.43726e-08,0,8192,8192
292.302,-1.47044e-08,0,8192,8192
292.352,-1.50514e-08,0,8192,8192
292.402,-1.54122e-08,0,8192,8192
292.451,-1.57853e-08,0,8192,8192
292.501,-1.61688e-08,0,8192,8192
292.551,-1.65605e-08,0,8192,8192
292.601,-1.69584e-08,0,8192,8192
292.651,-1.73604e-08,0,8192,8192
292.7,-1.77642e-08,0,8192,8192
292.75,-1.81676e-08,0,8192,8192
292.8,-1.85684e-08,0,8192,8192
292.853,-1.89874e-08,0,8192,8192
292.903,-1.93754e-08,0,8192,8192
292.952,-1.97535e-08,0,8192,8192
293.002,-2.01192e-08,0,8192,8192
293.052,-2.04701e-08,0,8192,8192
293.102,-2.08039e-08,0,8192,8192
293.152,-2.11184e-08,0,8192,8192
293.201,-2.14113e-08,0,8192,8192
293.251,-2.1681e-08,0,8192,8192
293.301,-2.19256e-08,0,8192,8192
293.351,-2.21439e-08,0,8192,8192
293.401,-2.23347e-08,0,8192,8192
293.45,-2.24975e-08,0,8192,8192
293.5,-2.26319e-08,0,8192,8192
293.553,-2.27433e-08,0,8192,8192
293.603,-2.282e-08,0,8192,8192
293.652,-2.28697e-08,0,8192,8192
293.702,-2.28937e-08,0,8192,8192
293.752,-2.28933e-08,0,8192,8192
293.802,-2.28701e-08,0,8192,8192
293.852,-2.2826e-08,0,8192,8192
293.901,-2.27629e-08,0,8192,8192
293.951,-2.26828e-08,0,8192,8192
294.001,-2.25878e-08,0,8192,8192
294.051,-2.248e-08,0,8192,8192
294.101,-2.23613e-08,0,8192,8192
294.15,-2.22337e-08,0,8192,8192
294.2,-2.20988e-08,0,8192,8192
294.25,-2.19582e-08,0,8192,8192
294.303,-2.18048e-08,0,8192,8192
294.353,-2.16569e-08,0,8192,8192
294.402,-2.15072e-08,0,8184,8184
294.452,-2.13568e-08,0,8043,8043
294.502,-2.12064e-08,0,7975,7975
294.552,-2.10569e-08,0,7923,7923
294.602,-2.0909e-08,0,7875,7875
294.651,-2.07633e-08,0,7841,7841
294.701,-2.06204e-08,0,7803,7803
294.751,-2.04806e-08,0,7765,7765
294.801,-2.03446e-08,0,7733,7733
294.851,-2.02124e-08,0,7699,7699
294.9,-2.00845e-08,0,7661,7661
294.95,-1.9961e-08,0,7631,7631
295.003,-1.98353e-08,0,7593,7593
295.053,-1.97212e-08,0,7553,7553
295.102,-1.96118e-08,0,7515,7515
295.152,-1.95069e-08,0,7481,7481
295.202,-1.94065e-08,0,7439,7439
295.252,-1.93103e-08,0,7403,7403
295.302,-1.92182e-08,0,7361,7361
295.351,-1.913e-08,0,7319,7319
295.401,-1.90454e-08,0,7275,7275
295.451,-1.89641e-08,0,7241,7241
295.501,-1.88858e-08,0,7199,7199
295.551,-1.88103e-08,0,7163,7163
295.6,-1.87373e-08,0,7121,7121
295.65,-1.86664e-08,0,7091,7091
295.7,-1.85975e-08,0,7049,7049
295.753,-1.85262e-08,0,7013,7013
295.803,-1.84603e-08,0,6975,6975
295.852,-1.83956e-08,0,6941,6941
295.902,-1.83317e-08,0,6911,6911
295.952,-1.82686e-08,0,6865,6865
296.002,-1.82059e-08,0,6833,6833
296.052,-1.81436e-08,0,6791,6791
296.101,-1.80813e-08,0,6753,6753
296.151,-1.8019e-08,0,6713,6713
296.201,-1.79566e-08,0,6671,6671
296.251,-1.78938e-08,0,6623,6623
296.301,-1.78305e-08,0,6581,6581
296.35,-1.77666e-08,0,6539,6539
296.4,-1.77019e-08,0,6491,6491
296.453,-1.76324e-08,0,6449,6449
296.503,-1.75657e-08,0,6405,6405
296.552,-1.74977e-08,0,6371,6371
296.602,-1.74283e-08,0,6323,6323
296.652,-1.73572e-08,0,6281,6281
296.702,-1.72844e-08,0,6239,6239
296.752,-1.72096e-08,0,6199,6199
296.801,-1.71326e-08,0,6161,6161
296.851,-1.70531e-08,0,6113,6113
296.901,-1.69709e-08,0,6071,6071
296.951,-1.68857e-08,0,6033,6033
297.001,-1.67974e-08,0,5993,5993
297.05,-1.67057e-08,0,5951,5951
297.1,-1.66103e-08,0,5909,5909
297.15,-1.6511e-08,0,5865,5865
297.203,-1.64013e-08,0,5831,5831
297.253,-1.62933e-08,0,5783,5783
297.302,-1.61808e-08,0,5741,5741
297.352,-1.60636e-08,0,5699,5699
297.402,-1.59415e-08,0,5663,5663
297.452,-1.58145e-08,0,5621,5621
297.502,-1.56824e-08,0,5575,5575
297.551,-1.55452e-08,0,5531,5531
297.601,-1.54028e-08,0,5501,5501
297.651,-1.52552e-08,0,5453,5453
297.701,-1.51022e-08,0,5411,5411
297.751,-1.4944e-08,0,5373,5373
297.8,-1.47803e-08,0,5333,5333
297.85,-1.46112e-08,0,5291,5291
297.903,-1.44261e-08,0,5243,5243
297.953,-1.42454e-08,0,5201,5201
298.002,-1.40589e-08,0,5163,5163
298.052,-1.38664e-08,0,5123,5123
298.102,-1.36676e-08,0,5081,5081
298.152,-1.34621e-08,0,5039,5039
298.202,-1.32496e-08,0,4995,4995
298.251,-1.30294e-08,0,4961,4961
298.301,-1.28011e-08,0,4913,4913
298.351,-1.25637e-08,0,4871,4871
298.401,-1.23165e-08,0,4829,4829
298.451,-1.20584e-08,0,4785,4785
298.5,-1.17883e-08,0,4751,4751
298.55,-1.15049e-08,0,4703,4703
298.603,-1.1189e-08,0,4661,4661
298.653,-1.08741e-08,0,4613,4613
298.703,-1.05419e-08,0,4571,4571
298.752,-1.0191e-08,0,4529,4529
298.802,-9.82025e-09,0,4481,4481
298.852,-9.42872e-09,0,4443,4443
298.902,-9.01566e-09,0,4395,4395
298.952,-8.58066e-09,0,4361,4361
299.001,-8.12367e-09,0,4313,4313
299.051,-7.64488e-09,0,4271,4271
299.101,-7.14433e-09,0,4223,4223
299.151,-6.62065e-09,0,4181,4181
299.2,-6.06826e-09,0,4133,4133
299.25,-5.47189e-09,0,4091,4091
299.3,-4.80039e-09,0,4045,4045
299.353,-3.96246e-09,0,4001,4001
299.403,-3.04449e-09,0,3953,3953
299.452,-2.08836e-09,0,3911,3911
299.502,-1.24087e-09,0,3863,3863
299.552,-6.10196e-10,0,3821,3821
299.602,-3.49189e-10,0,3773,3773
299.652,-2.03506e-10,0,3731,3731
299.701,3.02603e-11,0,3683,3683
299.751,2.90627e-10,0,3641,3641
299.801,5.74402e-10,0,3585,3585
299.851,8.78873e-10,0,3543,3543
299.901,1.18302e-09,0,3491,3491
299.95,1.48888e-09,0,3449,3449
300,1.78584e-09,0,3401,3401
300.053,2.08786e-09,0,3353,3353
300.103,2.3576e-09,0,3311,3311
300.152,2.60915e-09,0,3255,3255
300.202,2.84112e-09,0,3213,3213
300.252,3.05168e-09,0,3161,3161
300.302,3.24019e-09,0,3115,3115
300.352,3.40611e-09,0,3071,3071
300.401,3.54947e-09,0,3023,3023
300.451,3.67066e-09,0,2973,2973
300.501,3.77026e-09,0,2921,2921
300.551,3.84917e-09,0,2873,2873
300.601,3.90849e-09,0,2831,2831
300.65,3.94945e-09,0,2773,2773
300.7,3.97337e-09,0,2729,2729
300.75,3.98169e-09,0,2681,2681
300.803,3.97516e-09,0,2621,2621
300.853,3.95613e-09,0,2575,2575
300.902,3.92615e-09,0,2531,2531
300.952,3.88671e-09,0,2471,2471
301.002,3.83926e-09,0,2423,2423
301.052,3.7852e-09,0,2373,2373
301.102,3.72587e-09,0,2321,2321
301.151,3.66251e-09,0,2265,2265
301.201,3.59631e-09,0,2215,2215
301.251,3.52837e-09,0,2167,2167
301.301,3.45968e-09,0,2111,2111
301.351,3.39111e-09,0,2055,2055
301.4,3.32343e-09,0,2005,2005
301.45,3.25726e-09,0,1961,1961
301.503,3.18944e-09,0,1901,1901
301.553,3.12794e-09,0,1841,1841
301.602,3.06925e-09,0,1793,1793
301.652,3.01356e-09,0,1743,1743
301.702,2.96098e-09,0,1691,1691
301.752,2.91153e-09,0,1631,1631
301.802,2.8651e-09,0,1583,1583
301.851,2.82155e-09,0,1533,1533
301.901,2.78063e-09,0,1481,1481
301.951,2.74209e-09,0,1421,1421
302.001,2.70561e-09,0,1373,1373
302.051,2.67085e-09,0,1323,1323
302.1,2.63748e-09,0,1271,1271
302.15,2.60513e-09,0,1211,1211
302.2,2.5735e-09,0,1163,1163
302.253,2.54046e-09,0,1109,1109
302.303,2.50945e-09,0,1061,1061
302.352,2.47843e-09,0,1001,1001
302.402,2.44726e-09,0,949,949
302.452,2.41588e-09,0,895,895
302.502,2.38426e-09,0,843,843
302.552,2.35243e-09,0,787,787
302.601,2.32045e-09,0,731,731
302.651,2.28844e-09,0,671,671
302.701,2.25654e-09,0,615,615
302.751,2.22493e-09,0,563,563
302.801,2.19338e-09,0,512,512
302.86,2.15768e-09,0,512,512
302.907,2.13012e-09,0,512,512
302.954,2.1037e-09,0,512,512
303,2.07866e-09,0,512,512
303.059,2.04968e-09,0,512,512
303.106,2.02861e-09,0,512,512
303.153,2.00965e-09,0,512,512
303.211,1.98918e-09,0,512,512
303.258,1.97554e-09,0,512,512
303.305,1.96446e-09,0,512,512
303.352,1.95598e-09,0,512,512
303.411,1.94904e-09,0,512,512
303.457,1.94638e-09,0,512,512
303.504,1.94621e-09,0,512,512
303.551,1.94842e-09,0,512,512
303.61,1.95432e-09,0,512,512
303.657,1.96131e-09,0,512,512
303.703,1.97013e-09,0,512,512
303.75,1.98053e-09,0,512,512
303.809,1.99542e-09,0,512,512
303.856,2.00856e-09,0,512,512
303.903,2.02252e-09,0,512,512
303.961,2.04078e-09,0,512,512
304.008,2.05576e-09,0,512,512
304.055,2.07082e-09,0,512,512
304.102,2.08577e-09,0,512,512
304.16,2.10403e-09,0,512,512
304.207,2.1181e-09,0,512,512
304.254,2.13152e-09,0,512,512
304.301,2.14418e-09,0,512,512
304.36,2.15878e-09,0,512,512
304.406,2.16937e-09,0,512,512
304.453,2.17893e-09,0,512,512
304.5,2.18741e-09,0,512,512
304.559,2.19646e-09,0,512,512
304.606,2.20244e-09,0,512,512
304.653,2.20729e-09,0,512,512
304.711,2.21178e-09,0,512,512
304.758,2.21414e-09,0,512,512
304.805,2.21543e-09,0,512,512
304.852,2.21569e-09,0,512,512
304.91,2.21461e-09,0,512,512
304.957,2.21271e-09,0,512,512
