250,0,0,2048,2048
250.006,0,0,2048,2048
250.053,0,0,2048,2048
250.105,0,0,2048,2048
250.152,0,0,2048,2048
250.205,0,0,2048,2048
250.252,0,0,2048,2048
250.305,0,0,2048,2048
250.352,0,0,2048,2048
250.404,2.77556e-17,0,2048,2048
250.451,0,0,2048,2048
250.504,0,0,2048,2048
250.551,0,0,2048,2048
250.603,0,0,2048,2048
250.65,2.77556e-17,0,2048,2048
250.703,0,0,2048,2048
250.756,0,0,2048,2048
250.803,0,0,2048,2048
250.855,-2.77556e-17,0,2048,2048
250.902,-2.77556e-17,0,2048,2048
250.955,0,0,2048,2048
251.002,0,0,2048,2048
251.055,0,0,2048,2048
251.101,0,0,2048,2048
251.154,0,0,2048,2048
251.201,0,0,2048,2048
251.254,2.77556e-17,0,2048,2048
251.301,5.55112e-17,0,2048,2048
251.353,5.55112e-17,0,2048,2048
251.4,0,0,2048,2048
251.453,0,0,2048,2048
251.506,0,0,2048,2048
251.553,0,0,2048,2048
251.605,0,0,2048,2048
251.652,0,0,2048,2048
251.705,0,0,2048,2048
251.752,0,0,2048,2048
251.804,0,0,2048,2048
251.851,2.77556e-17,0,2048,2048
251.904,2.77556e-17,0,2048,2048
251.951,2.77556e-17,0,2048,2048
252.004,2.77556e-17,0,2048,2048
252.05,5.55112e-17,0,2048,2048
252.103,5.55112e-17,0,2048,2048
252.15,5.55112e-17,0,2048,2048
252.203,5.55112e-17,0,2048,2048
252.256,5.55112e-17,0,2048,2048
252.302,5.55112e-17,0,2048,2048
252.355,5.55112e-17,0,2048,2048
252.402,5.55112e-17,0,2048,2048
252.455,5.55112e-17,0,2048,2048
252.502,5.55112e-17,0,2048,2048
252.554,0,0,2048,2048
252.601,0,0,2048,2048
252.654,-2.77556e-17,0,2048,2048
252.701,-2.77556e-17,0,2048,2048
252.754,-2.77556e-17,0,2048,2048
252.8,-2.77556e-17,0,2048,2048
252.853,-2.77556e-17,0,2048,2048
252.906,-2.77556e-17,0,2048,2048
252.953,-2.77556e-17,0,2048,2048
253.005,-2.77556e-17,0,2048,2048
253.052,-2.77556e-17,0,2048,2048
253.105,-2.77556e-17,0,2048,2048
253.152,-2.77556e-17,0,2048,2048
253.205,-2.77556e-17,0,2048,2048
253.251,-2.77556e-17,0,2048,2048
253.304,-2.77556e-17,0,2048,2048
253.351,2.77556e-17,0,2048,2048
253.404,5.55112e-17,0,2048,2048
253.451,2.77556e-17,0,2048,2048
253.503,2.77556e-17,0,2048,2048
253.55,2.77556e-17,0,2048,2048
253.603,0,0,2048,2048
253.656,-2.77556e-17,0,2048,2048
253.703,-2.77556e-17,0,2048,2048
253.755,-2.77556e-17,0,2048,2048
253.802,-2.77556e-17,0,2048,2048
253.855,-2.77556e-17,0,2048,2048
253.902,-2.77556e-17,0,2048,2048
253.954,-2.77556e-17,0,2048,2048
254.001,-2.77556e-17,0,2048,2048
254.054,-2.77556e-17,0,2048,2048
254.101,-2.77556e-17,0,2048,2048
254.154,0,0,2048,2048
254.201,2.77556e-17,0,2048,2048
254.253,2.77556e-17,0,2048,2048
254.3,0,0,2048,2048
254.353,2.77556e-17,0,2048,2048
254.406,0,0,2048,2048
254.452,2.77556e-17,0,2048,2048
254.505,0,0,2048,2048
254.552,-2.77556e-17,0,2048,2048
254.605,-2.77556e-17,0,2048,2048
254.652,-2.77556e-17,0,2048,2048
254.704,-2.77556e-17,0,2048,2048
254.751,-2.77556e-17,0,2048,2048
254.804,-2.77556e-17,0,2048,2048
254.851,-2.77556e-17,0,2048,2048
254.904,-2.77556e-17,0,2048,2048
254.95,-2.77556e-17,0,2048,2048
255.003,-2.77556e-17,0,2048,2048
255.05,-2.77556e-17,0,2048,2048
255.103,-2.77556e-17,0,2048,2048
255.155,-2.77556e-17,0,2048,2048
255.202,-2.77556e-17,0,2048,2048
255.255,0,0,2048,2048
255.302,0,0,2048,2048
255.355,0,0,2048,2048
255.402,0,0,2048,2048
255.454,0,0,2048,2048
255.501,-2.77556e-17,0,2048,2048
255.554,-2.77556e-17,0,2048,2048
255.601,-2.77556e-17,0,2048,2048
255.653,-2.77556e-17,0,2048,2048
255.7,0,0,2048,2048
255.753,2.77556e-17,0,2048,2048
255.806,5.55112e-17,0,2048,2048
255.853,2.77556e-17,0,2048,2048
255.905,0,0,2048,2048
255.952,0,0,2048,2048
256.005,2.77556e-17,0,2048,2048
256.052,2.77556e-17,0,2048,2048
256.105,2.77556e-17,0,2048,2048
256.151,2.77556e-17,0,2048,2048
256.204,2.77556e-17,0,2048,2048
256.251,2.77556e-17,0,2048,2048
256.304,2.77556e-17,0,2048,2048
256.351,2.77556e-17,0,2048,2048
256.403,8.32667e-17,0,2048,2048
256.45,8.32667e-17,0,2048,2048
256.503,5.55112e-17,0,2048,2048
256.556,8.32667e-17,0,2048,2048
256.603,5.55112e-17,0,2048,2048
256.655,8.32667e-17,0,2048,2048
256.702,5.55112e-17,0,2048,2048
256.755,5.55112e-17,0,2048,2048
256.802,5.55112e-17,0,2048,2048
256.854,2.77556e-17,0,2048,2048
256.901,2.77556e-17,0,2048,2048
256.954,2.77556e-17,0,2048,2048
257.001,2.77556e-17,0,2048,2048
257.054,2.77556e-17,0,2048,2048
257.101,2.77556e-17,0,2048,2048
257.153,0,0,2048,2048
257.2,0,0,2048,2048
257.253,-2.77556e-17,0,2048,2048
257.306,-2.77556e-17,0,2048,2048
257.352,-2.77556e-17,0,2048,2048
257.405,2.77556e-17,0,2048,2048
257.452,2.77556e-17,0,2048,2048
257.505,0,0,2048,2048
257.552,2.77556e-17,0,2048,2048
257.604,0,0,2048,2048
257.651,0,0,2048,2048
257.704,0,0,2048,2048
257.751,0,0,2048,2048
257.804,0,0,2048,2048
257.85,0,0,2048,2048
257.903,2.77556e-17,0,2048,2048
257.95,0,0,2048,2048
258.003,2.77556e-17,0,2048,2048
258.055,2.77556e-17,0,2048,2048
258.102,0,0,2048,2048
258.155,2.77556e-17,0,2048,2048
258.202,-2.77556e-17,0,2048,2048
258.255,-2.77556e-17,0,2048,2048
258.302,-2.77556e-17,0,2048,2048
258.354,0,0,2048,2048
258.401,5.55112e-17,0,2048,2048
258.454,5.55112e-17,0,2048,2048
258.501,5.55112e-17,0,2048,2048
258.553,5.55112e-17,0,2048,2048
258.6,5.55112e-17,0,2048,2048
258.653,5.55112e-17,0,2048,2048
258.706,5.55112e-17,0,2048,2048
258.753,5.55112e-17,0,2048,2048
258.805,5.55112e-17,0,2048,2048
258.852,5.55112e-17,0,2048,2048
258.905,5.55112e-17,0,2048,2048
258.952,5.55112e-17,0,2048,2048
259.005,5.55112e-17,0,2048,2048
259.051,5.55112e-17,0,2048,2048
259.104,2.77556e-17,0,2048,2048
259.151,2.77556e-17,0,2048,2048
259.204,2.77556e-17,0,2048,2048
259.251,2.77556e-17,0,2048,2048
259.303,2.77556e-17,0,2048,2048
259.35,2.77556e-17,0,2048,2048
259.403,0,0,2048,2048
259.456,2.77556e-17,0,2048,2048
259.503,0,0,2048,2048
259.555,0,0,2048,2048
259.602,0,0,2048,2048
259.655,0,0,2048,2048
259.702,-2.77556e-17,0,2048,2048
259.754,0,0,2048,2048
259.801,0,0,2048,2048
259.854,-5.55112e-17,0,2048,2048
259.901,-5.55112e-17,0,2048,2048
259.954,-5.55112e-17,0,2048,2048
260,-5.55112e-17,0,2048,2048
260.053,-2.77556e-17,0,2048,2048
260.1,-5.55112e-17,0,2048,2048
260.153,-5.55112e-17,0,2048,2048
260.206,-5.55112e-17,0,2048,2048
260.252,-5.55112e-17,0,2048,2048
260.305,-5.55112e-17,0,2048,2048
260.352,-5.55112e-17,0,2048,2048
260.405,-5.55112e-17,0,2048,2048
260.452,-5.55112e-17,0,2048,2048
260.504,-5.55112e-17,0,2048,2048
260.551,-5.55112e-17,0,2048,2048
260.604,-2.77556e-17,0,2048,2048
260.651,-2.77556e-17,0,2048,2048
260.704,-2.77556e-17,0,2048,2048
260.75,-2.77556e-17,0,2048,2048
260.803,-2.77556e-17,0,2048,2048
260.856,-2.77556e-17,0,2048,2048
260.903,-2.77556e-17,0,2048,2048
260.955,-2.77556e-17,0,2048,2048
261.002,-2.77556e-17,0,2048,2048
261.055,-5.55112e-17,0,2048,2048
261.102,-5.55112e-17,0,2048,2048
261.155,-5.55112e-17,0,2048,2048
261.201,-5.55112e-17,0,2048,2048
261.254,-5.55112e-17,0,2048,2048
261.301,-5.55112e-17,0,2048,2048
261.354,-5.55112e-17,0,2048,2048
261.401,-5.55112e-17,0,2048,2048
261.453,-5.55112e-17,0,2048,2048
261.5,-5.55112e-17,0,2048,2048
261.553,-5.55112e-17,0,2048,2048
261.606,-5.55112e-17,0,2048,2048
261.653,-5.55112e-17,0,2048,2048
261.705,-5.55112e-17,0,2048,2048
261.752,-5.55112e-17,0,2048,2048
261.805,-2.77556e-17,0,2048,2048
261.852,-2.77556e-17,0,2048,2048
261.905,-2.77556e-17,0,2048,2048
261.951,-2.77556e-17,0,2048,2048
262.004,-2.77556e-17,0,2048,2048
262.051,-2.77556e-17,0,2048,2048
262.104,-2.77556e-17,0,2048,2048
262.151,-2.77556e-17,0,2048,2048
262.203,-2.77556e-17,0,2048,2048
262.25,-2.77556e-17,0,2048,2048
262.303,-2.77556e-17,0,2048,2048
262.356,-5.55112e-17,0,2048,2048
262.402,-2.77556e-17,0,2048,2048
262.455,0,0,2048,2048
262.502,0,0,2048,2048
262.555,0,0,2048,2048
262.602,0,0,2048,2048
262.654,0,0,2048,2048
262.701,2.77556e-17,0,2048,2048
262.754,5.55112e-17,0,2048,2048
262.801,5.55112e-17,0,2048,2048
262.854,5.55112e-17,0,2048,2048
262.9,5.55112e-17,0,2048,2048
262.953,5.55112e-17,0,2048,2048
263,5.55112e-17,0,2048,2048
263.053,5.55112e-17,0,2048,2048
263.105,5.55112e-17,0,2048,2048
263.152,5.55112e-17,0,2048,2048
263.205,5.55112e-17,0,2048,2048
263.252,0,0,2048,2048
263.305,0,0,2048,2048
263.352,2.77556e-17,0,2048,2048
263.404,5.55112e-17,0,2048,2048
263.451,5.55112e-17,0,2048,2048
263.504,5.55112e-17,0,2048,2048
263.551,2.77556e-17,0,2048,2048
263.603,0,0,2048,2048
263.65,0,0,2048,2048
263.703,0,0,2048,2048
263.756,0,0,2048,2048
263.803,2.77556e-17,0,2048,2048
263.855,0,0,2048,2048
263.902,2.77556e-17,0,2048,2048
263.955,-2.77556e-17,0,2048,2048
264.002,-2.77556e-17,0,2048,2048
264.055,-2.77556e-17,0,2048,2048
264.101,-2.77556e-17,0,2048,2048
264.154,-2.77556e-17,0,2048,2048
264.201,-2.77556e-17,0,2048,2048
264.254,-2.77556e-17,0,2048,2048
264.301,0,0,2048,2048
264.353,2.77556e-17,0,2048,2048
264.4,2.77556e-17,0,2048,2048
264.453,0,0,2048,2048
264.506,0,0,2048,2048
264.553,0,0,2048,2048
264.605,2.77556e-17,0,2048,2048
264.652,2.77556e-17,0,2048,2048
264.705,-2.77556e-17,0,2048,2048
264.752,-2.77556e-17,0,2048,2048
264.804,-2.77556e-17,0,2048,2048
264.851,-2.77556e-17,0,2048,2048
264.904,-2.77556e-17,0,2048,2048
264.951,-2.77556e-17,0,2048,2048
265.004,-2.77556e-17,0,2048,2048
265.051,-2.77556e-17,0,2048,2048
265.103,-2.77556e-17,0,2048,2048
265.15,-2.77556e-17,0,2048,2048
265.203,-2.77556e-17,0,2048,2048
265.256,-2.77556e-17,0,2048,2048
265.302,0,0,2048,2048
265.355,2.77556e-17,0,2048,2048
265.402,2.77556e-17,0,2048,2048
265.455,2.77556e-17,0,2048,2048
265.502,2.77556e-17,0,2048,2048
265.554,2.77556e-17,0,2048,2048
265.601,2.77556e-17,0,2048,2048
265.654,0,0,2048,2048
265.701,-2.77556e-17,0,2048,2048
265.754,-5.55112e-17,0,2048,2048
265.8,-5.55112e-17,0,2048,2048
265.853,-5.55112e-17,0,2048,2048
265.9,-2.77556e-17,0,2048,2048
265.953,-2.77556e-17,0,2048,2048
266.005,-2.77556e-17,0,2048,2048
266.052,-2.77556e-17,0,2048,2048
266.105,-2.77556e-17,0,2048,2048
266.152,0,0,2048,2048
266.205,0,0,2048,2048
266.252,0,0,2048,2048
266.304,-2.77556e-17,0,2048,2048
266.351,-8.32667e-17,0,2048,2048
266.404,-8.32667e-17,0,2048,2048
266.451,-5.55112e-17,0,2048,2048
266.503,-8.32667e-17,0,2048,2048
266.55,-5.55112e-17,0,2048,2048
266.603,-5.55112e-17,0,2048,2048
266.656,-5.55112e-17,0,2048,2048
266.703,-5.55112e-17,0,2048,2048
266.755,-5.55112e-17,0,2048,2048
266.802,-2.77556e-17,0,2048,2048
266.855,-5.55112e-17,0,2048,2048
266.902,-5.55112e-17,0,2048,2048
266.955,-2.77556e-17,0,2048,2048
267.001,-2.77556e-17,0,2048,2048
267.054,-2.77556e-17,0,2048,2048
267.101,-2.77556e-17,0,2048,2048
267.154,-2.77556e-17,0,2048,2048
267.201,-2.77556e-17,0,2048,2048
267.253,-2.77556e-17,0,2048,2048
267.3,-2.77556e-17,0,2048,2048
267.353,-5.55112e-17,0,2048,2048
267.406,-5.55112e-17,0,2048,2048
267.453,-5.55112e-17,0,2048,2048
267.505,-1.11022e-16,0,2048,2048
267.552,-5.55112e-17,0,2048,2048
267.605,-8.32667e-17,0,2048,2048
267.652,-8.32667e-17,0,2048,2048
267.704,-5.55112e-17,0,2048,2048
267.751,-5.55112e-17,0,2048,2048
267.804,-2.77556e-17,0,2048,2048
267.851,-5.55112e-17,0,2048,2048
267.904,-8.32667e-17,0,2048,2048
267.95,-5.55112e-17,0,2048,2048
268.003,-5.55112e-17,0,2048,2048
268.05,-5.55112e-17,0,2048,2048
268.1,-5.55112e-17,0,2426,2426
268.15,-5.55112e-17,0,2666,2666
268.201,-5.55112e-17,0,2918,2918
268.251,-5.55112e-17,0,3146,3146
268.301,-5.55112e-17,0,3386,3386
268.351,-5.55112e-17,0,3626,3626
268.4,-5.55112e-17,0,3830,3830
268.45,-5.55112e-17,0,4070,4070
268.5,-5.55112e-17,0,4310,4310
268.551,-5.55112e-17,0,4526,4526
268.601,-5.55112e-17,0,4766,4766
268.651,-5.55112e-17,0,4970,4970
268.701,-5.55112e-17,0,5210,5210
268.751,-5.55112e-17,0,5426,5426
268.8,-5.55112e-17,0,5666,5666
268.85,-5.55112e-17,0,5870,5870
268.901,-5.55112e-17,0,6110,6110
268.951,-5.55112e-17,0,6326,6326
269.001,-5.55112e-17,0,6566,6566
269.051,-5.55112e-17,0,6770,6770
269.101,-5.55112e-17,0,6986,6986
269.15,-5.55112e-17,0,7226,7226
269.2,-5.55112e-17,0,7430,7430
269.251,-5.55112e-17,0,7670,7670
269.301,-5.55112e-17,0,7886,7886
269.351,-5.55112e-17,0,8090,8090
269.401,-5.55112e-17,0,8330,8330
269.451,-5.55112e-17,0,8546,8546
269.5,-5.55112e-17,0,8750,8750
269.55,-5.55112e-17,0,8990,8990
269.6,-5.55112e-17,0,9206,9206
269.651,-5.55112e-17,0,9446,9446
269.701,-5.55112e-17,0,9650,9650
269.751,-5.55112e-17,0,9866,9866
269.801,-5.55112e-17,0,10070,10070
269.85,-5.55112e-17,0,10286,10286
269.9,-5.55112e-17,0,10526,10526
269.95,-5.55112e-17,0,10730,10730
270.001,-5.55112e-17,0,10946,10946
270.051,-5.55112e-17,0,11150,11150
270.101,-5.55112e-17,0,11366,11366
270.151,-5.55112e-17,0,11570,11570
270.201,-5.55112e-17,0,11786,11786
270.25,-5.55112e-17,0,11990,11990
270.3,-5.55112e-17,0,12206,12206
270.351,-5.55112e-17,0,12410,12410
270.401,-5.55112e-17,0,12626,12626
270.451,-5.55112e-17,0,12830,12830
270.501,1.94289e-16,0,13046,13046
270.551,1.08247e-15,0,13250,13250
270.6,2.02616e-15,0,13430,13430
270.65,2.96985e-15,0,13646,13646
270.701,3.85803e-15,0,13850,13850
270.751,4.69069e-15,0,14066,14066
270.801,5.63438e-15,0,14270,14270
270.851,7.46625e-15,0,14450,14450
270.901,1.18239e-14,0,14666,14666
270.95,2.14551e-14,0,14846,14846
271,3.93297e-14,0,15050,15050
271.051,6.8362e-14,0,15266,15266
271.101,4.44006e-13,0,15446,15446
271.151,6.45151e-13,0,15650,15650
271.201,-2.26802e-11,0,15830,15830
271.251,-1.40375e-10,0,16046,16046
271.3,-3.51486e-10,0,16226,16226
271.35,-4.68463e-10,0,16430,16430
271.4,-3.39209e-10,0,16610,16610
271.451,-2.92704e-11,0,16826,16826
271.501,2.43142e-10,0,17006,17006
271.551,3.27118e-10,0,17186,17186
271.601,1.95331e-10,0,17366,17366
271.65,-2.39334e-11,0,17570,17570
271.7,-1.37189e-10,0,17750,17750
271.75,-4.80856e-11,0,17930,17930
271.801,1.61561e-10,0,18110,18110
271.851,2.87741e-10,0,18326,18326
271.901,2.29404e-10,0,18506,18506
271.951,5.53776e-11,0,18686,18686
272.001,-6.7327e-11,0,18866,18866
272.05,-3.40316e-11,0,19046,19046
272.1,1.11924e-10,0,19226,19226
272.151,2.39851e-10,0,19406,19406
272.201,2.45029e-10,0,19586,19586
272.251,1.44229e-10,0,19766,19766
272.301,2.21618e-11,0,19910,19910
272.351,-3.69947e-11,0,20090,20090
272.4,6.09615e-12,0,20270,20270
272.45,1.36214e-10,0,20450,20450
272.501,2.82883e-10,0,20606,20606
272.551,3.1628e-10,0,20786,20786
272.601,1.57317e-10,0,20870,20870
272.651,-1.20223e-10,0,21026,21026
272.701,-2.59555e-10,0,21170,21170
272.75,-1.92078e-11,0,21350,21350
272.8,5.0535e-10,0,21530,21530
272.85,7.94719e-10,0,21710,21710
272.901,3.03409e-10,0,21890,21890
272.951,-7.43799e-10,0,22070,22070
273.001,-1.205e-09,0,22250,22250
273.051,3.22333e-10,0,22418,22418
273.1,4.42346e-09,0,22586,22586
273.15,1.04066e-08,0,22766,22766
273.2,1.68397e-08,0,22946,22946
273.251,2.25751e-08,0,23126,23126
273.301,2.66163e-08,0,23306,23306
273.351,2.92068e-08,0,23450,23450
273.401,3.11472e-08,0,23630,23630
273.451,3.38581e-08,0,23810,23810
273.5,3.87929e-08,0,23966,23966
273.55,4.66426e-08,0,24146,24146
273.601,5.74304e-08,0,24326,24326
273.651,6.98546e-08,0,24506,24506
273.701,8.41469e-08,0,24650,24650
273.751,1.0125e-07,0,24830,24830
273.801,1.22648e-07,0,25010,25010
273.85,1.49711e-07,0,25166,25166
273.9,1.83293e-07,0,25346,25346
273.951,2.24728e-07,0,25526,25526
274.001,2.70511e-07,0,25670,25670
274.051,3.19581e-07,0,25850,25850
274.101,3.69911e-07,0,26030,26030
274.151,4.21057e-07,0,26186,26186
274.2,4.7438e-07,0,26366,26366
274.25,5.31401e-07,0,26510,26510
274.301,5.93428e-07,0,26690,26690
274.351,6.53731e-07,0,26858,26858
274.401,7.09761e-07,0,27026,27026
274.451,7.57914e-07,0,27206,27206
274.501,7.96089e-07,0,27350,27350
274.55,8.23697e-07,0,27530,27530
274.6,8.41636e-07,0,27686,27686
274.65,8.52011e-07,0,27866,27866
274.701,8.57324e-07,0,28010,28010
274.751,8.5897e-07,0,28190,28190
274.801,8.57709e-07,0,28346,28346
274.851,8.53265e-07,0,28526,28526
274.9,8.44875e-07,0,28670,28670
274.95,8.3149e-07,0,28826,28826
275,8.11981e-07,0,29006,29006
275.051,7.84454e-07,0,29150,29150
275.101,7.49831e-07,0,29330,29330
275.151,7.07587e-07,0,29486,29486
275.201,6.59173e-07,0,29658,29658
275.251,6.07275e-07,0,29810,29810
275.3,5.54909e-07,0,29966,29966
275.35,5.04409e-07,0,30146,30146
275.401,4.55749e-07,0,30290,30290
275.451,4.12226e-07,0,30446,30446
275.501,3.7232e-07,0,30618,30618
275.551,3.3555e-07,0,30770,30770
275.601,3.01253e-07,0,30926,30926
275.65,2.68814e-07,0,31046,31046
275.7,2.37845e-07,0,31190,31190
275.751,2.07662e-07,0,31346,31346
275.801,1.81016e-07,0,31490,31490
275.851,1.58594e-07,0,31610,31610
275.901,1.41353e-07,0,31758,31758
275.951,1.28433e-07,0,31886,31886
276,1.17326e-07,0,32006,32006
276.05,1.05591e-07,0,32126,32126
276.1,9.25773e-08,0,32246,32246
276.151,7.92039e-08,0,32366,32366
276.201,6.81262e-08,0,32486,32486
276.251,5.99651e-08,0,32606,32606
276.301,5.45698e-08,0,32768,32768
276.35,5.10065e-08,0,32768,32768
276.4,4.79572e-08,0,32768,32768
276.45,4.40989e-08,0,32768,32768
276.501,3.85539e-08,0,32768,32768
276.551,3.21767e-08,0,32768,32768
276.601,2.63494e-08,0,32768,32768
276.651,2.24902e-08,0,32768,32768
276.701,2.09421e-08,0,32768,32768
276.75,2.09619e-08,0,32768,32768
276.8,2.14994e-08,0,32768,32768
276.851,2.19188e-08,0,32768,32768
276.901,2.20886e-08,0,32768,32768
276.951,2.21629e-08,0,32768,32768
277.001,2.22491e-08,0,32768,32768
277.051,2.23528e-08,0,32768,32768
277.1,2.24071e-08,0,32768,32768
277.15,2.22719e-08,0,32768,32768
277.201,2.18505e-08,0,32768,32768
277.251,2.13831e-08,0,32768,32768
277.301,2.11031e-08,0,32768,32768
277.351,2.09856e-08,0,32768,32768
277.401,2.09147e-08,0,32768,32768
277.45,2.08349e-08,0,32768,32768
277.5,2.07318e-08,0,32768,32768
277.55,2.06012e-08,0,32768,32768
277.601,2.04353e-08,0,32768,32768
277.651,2.02416e-08,0,32768,32768
277.701,2.00147e-08,0,32768,32768
277.751,1.97529e-08,0,32768,32768
277.8,1.94549e-08,0,32768,32768
277.85,1.91197e-08,0,32768,32768
277.9,1.87475e-08,0,32768,32768
277.951,1.8328e-08,0,32768,32768
278.001,1.7889e-08,0,32768,32768
278.051,1.74243e-08,0,32768,32768
278.101,1.69397e-08,0,32768,32768
278.151,1.64408e-08,0,32768,32768
278.2,1.59325e-08,0,32768,32768
278.25,1.54187e-08,0,32768,32768
278.301,1.48871e-08,0,32768,32768
278.351,1.43707e-08,0,32768,32768
278.401,1.38566e-08,0,32768,32768
278.451,1.33477e-08,0,32768,32768
278.501,1.2847e-08,0,32768,32768
278.55,1.23582e-08,0,32768,32768
278.6,1.18858e-08,0,32768,32768
278.651,1.14211e-08,0,32768,32768
278.701,1.09952e-08,0,32768,32768
278.751,1.0598e-08,0,32768,32768
278.801,1.02318e-08,0,32768,32768
278.851,9.89765e-09,0,32768,32768
278.9,9.5951e-09,0,32768,32768
278.95,9.32283e-09,0,32768,32768
279.001,9.07221e-09,0,32768,32768
279.051,8.85548e-09,0,32768,32768
279.101,8.66315e-09,0,32768,32768
279.151,8.49356e-09,0,32768,32768
279.201,8.34532e-09,0,32768,32768
279.25,8.21713e-09,0,32768,32768
279.3,8.10758e-09,0,32768,32768
279.35,8.01489e-09,0,32768,32768
279.401,7.93472e-09,0,32768,32768
279.451,7.86917e-09,0,32768,32768
279.501,7.81365e-09,0,32768,32768
279.551,7.76678e-09,0,32768,32768
279.6,7.72799e-09,0,32768,32768
279.65,7.69709e-09,0,32768,32768
279.7,7.67379e-09,0,32768,32768
279.751,7.6569e-09,0,32768,32768
279.801,7.64615e-09,0,32768,32768
279.851,7.63965e-09,0,32768,32768
279.901,7.63637e-09,0,32768,32768
279.951,7.63578e-09,0,32768,32768
280,7.63788e-09,0,32768,32768
280.05,7.64296e-09,0,32768,32768
280.101,7.65153e-09,0,32768,32768
280.151,7.66299e-09,0,32768,32768
280.201,7.67697e-09,0,32768,32768
280.251,7.69268e-09,0,32768,32768
280.301,7.70934e-09,0,32768,32768
280.35,7.72638e-09,0,32768,32768
280.4,7.74346e-09,0,32768,32768
280.451,7.76093e-09,0,32768,32768
280.501,7.77777e-09,0,32768,32768
280.551,7.79451e-09,0,32768,32768
280.601,7.81118e-09,0,32768,32768
280.651,7.82783e-09,0,32768,32768
280.7,7.84449e-09,0,32768,32768
280.75,7.86116e-09,0,32768,32768
280.8,7.87783e-09,0,32768,32768
280.851,7.89496e-09,0,32768,32768
280.901,7.91151e-09,0,32768,32768
280.951,7.92792e-09,0,32768,32768
281.001,7.94411e-09,0,32768,32768
281.05,7.96e-09,0,32768,32768
281.1,7.97554e-09,0,32768,32768
281.15,7.99071e-09,0,32768,32768
281.201,8.00595e-09,0,32768,32768
281.251,8.0204e-09,0,32768,32768
281.301,8.03449e-09,0,32768,32768
281.351,8.04818e-09,0,32768,32768
281.401,8.06143e-09,0,32768,32768
281.45,8.07422e-09,0,32768,32768
281.5,8.08659e-09,0,32768,32768
281.551,8.09896e-09,0,32768,32768
281.601,8.11067e-09,0,32768,32768
281.651,8.12211e-09,0,32768,32768
281.701,8.13348e-09,0,32768,32768
281.751,8.14532e-09,0,32768,32768
281.8,8.15869e-09,0,32768,32768
281.85,8.17499e-09,0,32768,32768
281.901,8.19648e-09,0,32768,32768
281.951,8.2237e-09,0,32768,32768
282.001,8.25974e-09,0,32768,32768
282.051,8.30914e-09,0,32768,32768
282.101,8.37905e-09,0,32768,32768
282.15,8.47842e-09,0,32768,32768
282.2,8.61525e-09,0,32768,32768
282.251,8.7993e-09,0,32768,32768
282.301,9.01834e-09,0,32768,32768
282.351,9.27197e-09,0,32768,32768
282.401,9.55672e-09,0,32768,32768
282.451,9.87576e-09,0,32768,32768
282.5,1.02408e-08,0,32768,32768
282.55,1.06702e-08,0,32768,32768
282.6,1.11848e-08,0,32768,32768
282.651,1.18247e-08,0,32768,32768
282.701,1.25725e-08,0,32768,32768
282.751,1.34631e-08,0,32768,32768
282.801,1.45161e-08,0,32768,32768
282.85,1.57516e-08,0,32768,32768
282.9,1.71874e-08,0,32768,32768
282.95,1.88373e-08,0,32768,32768
283.001,2.07689e-08,0,32768,32768
283.051,2.28777e-08,0,32768,32768
283.101,2.52196e-08,0,32768,32768
283.151,2.77954e-08,0,32768,32768
283.201,3.06006e-08,0,32768,32768
283.25,3.36215e-08,0,32768,32768
283.3,3.68353e-08,0,32768,32768
283.351,4.03145e-08,0,32768,32768
283.401,4.38295e-08,0,32768,32768
283.451,4.74519e-08,0,32768,32768
283.501,5.11619e-08,0,32768,32768
283.551,5.49438e-08,0,32768,32768
283.6,5.8788e-08,0,32768,32768
283.65,6.26996e-08,0,32768,32768
283.701,6.68357e-08,0,32768,32768
283.751,7.10453e-08,0,32768,32768
283.801,7.55722e-08,0,32768,32768
283.851,8.05567e-08,0,32768,32768
283.901,8.60992e-08,0,32768,32768
283.95,9.22086e-08,0,32768,32768
284,9.87797e-08,0,32768,32768
284.05,1.05621e-07,0,32768,32768
284.101,1.12726e-07,0,32768,32768
284.151,1.19555e-07,0,32768,32768
284.201,1.26326e-07,0,32768,32768
284.251,1.33227e-07,0,32768,32768
284.3,1.40586e-07,0,32768,32768
284.35,1.48815e-07,0,32768,32768
284.4,1.58349e-07,0,32768,32768
284.451,1.69971e-07,0,32768,32768
284.501,1.83441e-07,0,32768,32768
284.551,1.99481e-07,0,32768,32768
284.601,2.1852e-07,0,32768,32768
284.651,2.40965e-07,0,32768,32768
284.7,2.67133e-07,0,32768,32768
284.75,2.97172e-07,0,32768,32768
284.801,3.32062e-07,0,32768,32768
284.851,3.69501e-07,0,32768,32768
284.901,4.09958e-07,0,32768,32768
284.951,4.52852e-07,0,32768,32768
285.001,4.97537e-07,0,32768,32768
285.05,5.43278e-07,0,32768,32768
285.1,5.89184e-07,0,32768,32768
285.151,6.35439e-07,0,32768,32768
285.201,6.78028e-07,0,32768,32768
285.251,7.16828e-07,0,32768,32768
285.301,7.50439e-07,0,32768,32768
285.351,7.77737e-07,0,32768,32768
285.4,7.98043e-07,0,32768,32768
285.45,8.11185e-07,0,32768,32768
285.5,8.17433e-07,0,32768,32768
285.551,8.17254e-07,0,32768,32768
285.601,8.11314e-07,0,32768,32768
285.651,8.00239e-07,0,32768,32768
285.701,7.84354e-07,0,32768,32768
285.75,7.63746e-07,0,32768,32768
285.8,7.38319e-07,0,32768,32768
285.85,7.07919e-07,0,32768,32768
285.901,6.71367e-07,0,32768,32768
285.951,6.30935e-07,0,32768,32768
286.001,5.86167e-07,0,32768,32768
286.051,5.37929e-07,0,32768,32768
286.101,4.87375e-07,0,32768,32768
286.15,4.35816e-07,0,32768,32768
286.2,3.84549e-07,0,32768,32768
286.251,3.33267e-07,0,32768,32768
286.301,2.85774e-07,0,32768,32768
286.351,2.41117e-07,0,32768,32768
286.401,1.99565e-07,0,32768,32768
286.451,1.61201e-07,0,32768,32768
286.5,1.26021e-07,0,32768,32768
286.55,9.40214e-08,0,32768,32768
286.601,6.44312e-08,0,32768,32768
286.651,3.89829e-08,0,32768,32768
286.701,1.67726e-08,0,32768,32768
286.751,-2.32591e-09,0,32768,32768
286.801,-1.85772e-08,0,32768,32768
286.85,-3.23464e-08,0,32768,32768
286.9,-4.40126e-08,0,32768,32768
286.951,-5.41439e-08,0,32768,32768
287.001,-6.23439e-08,0,32768,32768
287.051,-6.90019e-08,0,32768,32768
287.101,-7.41622e-08,0,32768,32768
287.151,-7.79152e-08,0,32768,32768
287.2,-8.04372e-08,0,32768,32768
287.25,-8.19695e-08,0,32768,32768
287.3,-8.27547e-08,0,32768,32768
287.351,-8.2962e-08,0,32768,32768
287.401,-8.26383e-08,0,32768,32768
287.451,-8.17544e-08,0,32768,32768
287.501,-8.02252e-08,0,32768,32768
287.55,-7.79937e-08,0,32768,32768
287.6,-7.5079e-08,0,32768,32768
287.65,-7.15866e-08,0,32768,32768
287.701,-6.75633e-08,0,32768,32768
287.751,-6.34286e-08,0,32768,32768
287.801,-5.92394e-08,0,32768,32768
287.851,-5.51246e-08,0,32768,32768
287.901,-5.11722e-08,0,32768,32768
287.95,-4.74349e-08,0,32768,32768
288,-4.39382e-08,0,32768,32768
288.051,-4.05955e-08,0,32768,32768
288.101,-3.75886e-08,0,32768,32768
288.151,-3.48021e-08,0,32768,32768
288.201,-3.22187e-08,0,32768,32768
288.251,-2.98239e-08,0,32768,32768
288.3,-2.76083e-08,0,32768,32768
288.35,-2.55661e-08,0,32768,32768
288.401,-2.36405e-08,0,32768,32768
288.451,-2.19371e-08,0,32768,32768
288.501,-2.03921e-08,0,32768,32768
288.551,-1.8998e-08,0,32768,32768
288.601,-1.77457e-08,0,32768,32768
288.65,-1.66253e-08,0,32768,32768
288.7,-1.56263e-08,0,32768,32768
288.75,-1.47378e-08,0,32768,32768
288.801,-1.39274e-08,0,32768,32768
288.851,-1.32312e-08,0,32768,32768
288.901,-1.26159e-08,0,32768,32768
288.951,-1.20741e-08,0,32768,32768
289,-1.16002e-08,0,32768,32768
289.05,-1.11893e-08,0,32768,32768
289.1,-1.08377e-08,0,32768,32768
289.151,-1.05339e-08,0,32768,32768
289.201,-1.02916e-08,0,32768,32768
289.251,-1.00976e-08,0,32768,32768
289.301,-9.94825e-09,0,32768,32768
289.351,-9.83967e-09,0,32768,32768
289.4,-9.76793e-09,0,32768,32768
289.45,-9.72898e-09,0,32768,32768
289.501,-9.71862e-09,0,32768,32768
289.551,-9.73285e-09,0,32768,32768
289.601,-9.76635e-09,0,32768,32768
289.651,-9.81451e-09,0,32768,32768
289.701,-9.87293e-09,0,32768,32768
289.75,-9.93768e-09,0,32768,32768
289.8,-1.00054e-08,0,32768,32768
289.851,-1.00753e-08,0,32768,32768
289.901,-1.01413e-08,0,32768,32768
289.951,-1.0204e-08,0,32768,32768
290.001,-1.02626e-08,0,32768,32768
290.051,-1.03167e-08,0,32768,32768
290.1,-1.03662e-08,0,32768,32768
290.15,-1.04111e-08,0,32768,32768
290.201,-1.04528e-08,0,32768,32768
290.251,-1.04894e-08,0,32768,32768
290.301,-1.05225e-08,0,32768,32768
290.351,-1.05531e-08,0,32768,32768
290.401,-1.05818e-08,0,32768,32768
290.45,-1.06094e-08,0,32768,32768
290.5,-1.06365e-08,0,32768,32768
290.55,-1.06634e-08,0,32768,32768
290.601,-1.06909e-08,0,32768,32768
290.651,-1.07171e-08,0,32768,32768
290.701,-1.07428e-08,0,32768,32768
290.751,-1.07677e-08,0,32768,32768
290.8,-1.07917e-08,0,32768,32768
290.85,-1.0815e-08,0,32768,32768
290.9,-1.08378e-08,0,32768,32768
290.951,-1.0861e-08,0,32768,32768
291.001,-1.08839e-08,0,32768,32768
291.051,-1.09077e-08,0,32768,32768
291.101,-1.09333e-08,0,32768,32768
291.151,-1.09621e-08,0,32768,32768
291.2,-1.09953e-08,0,32768,32768
291.25,-1.10341e-08,0,32768,32768
291.301,-1.10812e-08,0,32768,32768
291.351,-1.11348e-08,0,32768,32768
291.401,-1.1197e-08,0,32768,32768
291.451,-1.12687e-08,0,32768,32768
291.501,-1.13507e-08,0,32768,32768
291.55,-1.1444e-08,0,32768,32768
291.6,-1.15494e-08,0,32768,32768
291.651,-1.16709e-08,0,32768,32768
291.701,-1.18016e-08,0,32768,32768
291.751,-1.19441e-08,0,32768,32768
291.801,-1.20976e-08,0,32768,32768
291.851,-1.22614e-08,0,32768,32768
291.9,-1.2435e-08,0,32768,32768
291.95,-1.26191e-08,0,32768,32768
292,-1.2815e-08,0,32768,32768
292.051,-1.30309e-08,0,32768,32768
292.101,-1.32572e-08,0,32768,32768
292.151,-1.35022e-08,0,32768,32768
292.201,-1.37678e-08,0,32768,32768
292.25,-1.40555e-08,0,32768,32768
292.3,-1.43656e-08,0,32768,32768
292.35,-1.46977e-08,0,32768,32768
292.401,-1.50611e-08,0,32768,32768
292.451,-1.54332e-08,0,32768,32768
292.501,-1.58219e-08,0,32768,32768
292.551,-1.62247e-08,0,32768,32768
292.601,-1.66393e-08,0,32768,32768
292.65,-1.70631e-08,0,32768,32768
292.7,-1.74936e-08,0,32768,32768
292.751,-1.79409e-08,0,32768,32768
292.801,-1.83762e-08,0,32768,32768
292.851,-1.8809e-08,0,32768,32768
292.901,-1.92357e-08,0,32768,32768
292.951,-1.9653e-08,0,32768,32768
293,-2.00574e-08,0,32768,32768
293.05,-2.04458e-08,0,32768,32768
293.101,-2.08261e-08,0,32768,32768
293.151,-2.11739e-08,0,32768,32768
293.201,-2.1498e-08,0,32768,32768
293.251,-2.17963e-08,0,32768,32768
293.301,-2.20663e-08,0,32768,32768
293.35,-2.2306e-08,0,32768,32768
293.4,-2.25138e-08,0,32768,32768
293.451,-2.26931e-08,0,32768,32768
293.501,-2.28335e-08,0,32768,32768
293.551,-2.29409e-08,0,32768,32768
293.601,-2.30166e-08,0,32768,32768
293.651,-2.30621e-08,0,32768,32768
293.7,-2.30792e-08,0,32768,32768
293.75,-2.30698e-08,0,32768,32768
293.8,-2.30358e-08,0,32768,32768
293.851,-2.29774e-08,0,32768,32768
293.901,-2.29004e-08,0,32768,32768
293.951,-2.28057e-08,0,32768,32768
294.001,-2.2696e-08,0,32768,32768
294.05,-2.25737e-08,0,32768,32768
294.1,-2.24413e-08,0,32768,32768
294.15,-2.23008e-08,0,32768,32768
294.201,-2.21496e-08,0,32768,32768
294.251,-2.19979e-08,0,32768,32768
294.301,-2.18428e-08,0,32768,32768
294.351,-2.16855e-08,0,32768,32768
294.401,-2.15271e-08,0,32768,32768
294.45,-2.13685e-08,0,32768,32768
294.5,-2.12106e-08,0,32768,32768
294.551,-2.10497e-08,0,32768,32768
294.601,-2.08957e-08,0,32768,32768
294.651,-2.07445e-08,0,32768,32768
294.701,-2.05966e-08,0,32768,32768
294.751,-2.04526e-08,0,32768,32768
294.8,-2.03128e-08,0,32768,32768
294.85,-2.01775e-08,0,32768,32768
294.901,-2.00432e-08,0,32768,32768
294.951,-1.99178e-08,0,32768,32768
295.001,-1.97977e-08,0,32768,32768
295.051,-1.96828e-08,0,32768,32768
295.101,-1.95731e-08,0,32768,32768
295.15,-1.94686e-08,0,32768,32768
295.2,-1.93691e-08,0,32768,32768
295.25,-1.92744e-08,0,32768,32768
295.301,-1.91815e-08,0,32768,32768
295.351,-1.90955e-08,0,32768,32768
295.401,-1.90133e-08,0,32768,32768
295.451,-1.89346e-08,0,32768,32768
295.5,-1.8859e-08,0,32768,32768
295.55,-1.87862e-08,0,32768,32768
295.6,-1.87159e-08,0,32768,32768
295.651,-1.86457e-08,0,32768,32768
295.701,-1.85794e-08,0,32768,32768
295.751,-1.85147e-08,0,32768,32768
295.801,-1.84512e-08,0,32768,32768
295.851,-1.83888e-08,0,32768,32768
295.9,-1.83272e-08,0,32768,32768
295.95,-1.82662e-08,0,32768,32768
296.001,-1.82038e-08,0,32768,32768
296.051,-1.81434e-08,0,32768,32768
296.101,-1.8083e-08,0,32768,32768
296.151,-1.80225e-08,0,32768,32768
296.201,-1.79616e-08,0,32768,32768
296.25,-1.79004e-08,0,32768,32768
296.3,-1.78386e-08,0,32768,32768
296.351,-1.77743e-08,0,32768,32768
296.401,-1.77111e-08,0,32768,32768
296.451,-1.76469e-08,0,32768,32768
296.501,-1.75817e-08,0,32768,32768
296.551,-1.75153e-08,0,32768,32768
296.6,-1.74476e-08,0,32768,32768
296.65,-1.73784e-08,0,32768,32768
296.7,-1.73075e-08,0,32768,32768
296.751,-1.72325e-08,0,32768,32768
296.801,-1.71575e-08,0,32768,32768
296.851,-1.70801e-08,0,32768,32768
296.901,-1.70002e-08,0,32768,32768
296.95,-1.69173e-08,0,32768,32768
297,-1.68313e-08,0,32768,32768
297.05,-1.67419e-08,0,32768,32768
297.101,-1.66461e-08,0,32768,32768
297.151,-1.65489e-08,0,32768,32768
297.201,-1.64476e-08,0,32768,32768
297.251,-1.63418e-08,0,32768,32768
297.301,-1.62314e-08,0,32768,32768
297.35,-1.61162e-08,0,32768,32768
297.4,-1.59961e-08,0,32768,32768
297.451,-1.58672e-08,0,32768,32768
297.501,-1.57367e-08,0,32768,32768
297.551,-1.56011e-08,0,32768,32768
297.601,-1.54601e-08,0,32768,32768
297.651,-1.53139e-08,0,32768,32768
297.7,-1.51624e-08,0,32768,32768
297.75,-1.50054e-08,0,32768,32768
297.801,-1.48379e-08,0,32768,32768
297.851,-1.46696e-08,0,32768,32768
297.901,-1.44955e-08,0,32768,32768
297.951,-1.43156e-08,0,32768,32768
298.001,-1.41298e-08,0,32768,32768
298.05,-1.39381e-08,0,32768,32768
298.1,-1.37404e-08,0,32768,32768
298.151,-1.35306e-08,0,32768,32768
298.201,-1.33206e-08,0,32768,32768
298.251,-1.31044e-08,0,32768,32768
298.301,-1.28815e-08,0,32768,32768
298.351,-1.26516e-08,0,32768,32768
298.4,-1.24138e-08,0,32768,32768
298.45,-1.21673e-08,0,32768,32768
298.5,-1.19107e-08,0,32768,32768
298.551,-1.16344e-08,0,32768,32768
298.601,-1.13526e-08,0,32768,32768
298.651,-1.10555e-08,0,32768,32768
298.701,-1.07412e-08,0,32768,32768
298.75,-1.04076e-08,0,32768,32768
298.8,-1.00527e-08,0,32768,32768
298.85,-9.67467e-09,0,32768,32768
298.901,-9.2597e-09,0,32768,32768
298.951,-8.83027e-09,0,32768,32768
299.001,-8.37418e-09,0,32768,32768
299.051,-7.89129e-09,0,32768,32768
299.101,-7.38209e-09,0,32768,32768
299.15,-6.84779e-09,0,32768,32768
299.2,-6.29031e-09,0,32768,32768
299.251,-5.69503e-09,0,32768,32768
299.301,-5.09938e-09,0,32768,32768
299.351,-4.49052e-09,0,32768,32768
299.401,-3.87277e-09,0,32768,32768
299.451,-3.25068e-09,0,32768,32768
299.5,-2.62891e-09,0,32768,32768
299.55,-2.01208e-09,0,32768,32768
299.601,-1.38696e-09,0,32768,32768
299.651,-7.93627e-10,0,32768,32768
299.701,-2.18081e-10,0,32768,32768
299.751,3.35907e-10,0,32768,32768
299.801,8.64796e-10,0,32768,32768
299.85,1.36529e-09,0,32768,32768
299.9,1.83437e-09,0,32768,32768
299.95,2.26936e-09,0,32768,32768
300.001,2.67915e-09,0,32768,32768
300.051,3.03854e-09,0,32768,32768
300.101,3.35865e-09,0,32768,32768
300.151,3.63897e-09,0,32768,32768
300.2,3.87968e-09,0,32768,32768
300.25,4.08155e-09,0,32768,32768
300.3,4.24596e-09,0,32768,32768
300.351,4.37801e-09,0,32768,32768
300.401,4.47241e-09,0,32768,32768
300.451,4.53593e-09,0,32768,32768
300.501,4.57123e-09,0,32768,32768
300.551,4.58106e-09,0,32768,32768
300.6,4.56817e-09,0,32768,32768
300.65,4.53535e-09,0,32768,32768
300.701,4.48356e-09,0,32768,32768
300.751,4.41843e-09,0,32768,32768
300.801,4.34117e-09,0,32768,32768
300.851,4.25407e-09,0,32768,32768
300.901,4.15924e-09,0,32768,32768
300.95,4.05859e-09,0,32768,32768
301,3.95383e-09,0,32768,32768
301.051,3.8433e-09,0,32768,32768
301.101,3.73465e-09,0,32768,32768
301.151,3.6259e-09,0,32768,32768
301.201,3.51804e-09,0,32768,32768
301.251,3.41196e-09,0,32768,32768
301.3,3.30848e-09,0,32768,32768
301.35,3.20839e-09,0,32768,32768
301.4,3.11244e-09,0,32768,32768
301.451,3.01882e-09,0,32768,32768
301.501,2.93362e-09,0,32768,32768
301.551,2.85475e-09,0,32768,32768
301.601,2.7828e-09,0,32768,32768
301.65,2.71818e-09,0,32768,32768
301.7,2.66117e-09,0,32768,32768
301.75,2.61182e-09,0,32768,32768
301.801,2.56889e-09,0,32768,32768
301.851,2.53447e-09,0,32768,32768
301.901,2.50668e-09,0,32768,32768
301.951,2.48478e-09,0,32768,32768
302.001,2.46792e-09,0,32768,32768
302.05,2.45511e-09,0,32768,32768
302.1,2.4453e-09,0,32768,32768
302.151,2.43721e-09,0,32768,32768
302.201,2.43022e-09,0,32768,32768
302.251,2.42307e-09,0,32768,32768
302.301,2.41483e-09,0,32768,32768
302.351,2.4047e-09,0,32768,32768
302.4,2.39206e-09,0,32768,32768
302.45,2.37652e-09,0,32768,32768
302.501,2.3574e-09,0,32768,32768
302.551,2.336e-09,0,32768,32768
302.601,2.3123e-09,0,32768,32768
302.651,2.28701e-09,0,32768,32768
302.701,2.26091e-09,0,32768,32768
302.75,2.23477e-09,0,32768,32768
302.8,2.20923e-09,0,32768,32768
302.851,2.18404e-09,0,32768,32768
302.901,2.16088e-09,0,32768,32768
302.951,2.13908e-09,0,32768,32768
303.001,2.11862e-09,0,32768,32768
303.051,2.09951e-09,0,32768,32768
303.1,2.08185e-09,0,32768,32768
303.15,2.06589e-09,0,32768,32768
303.2,2.05203e-09,0,32768,32768
303.251,2.04048e-09,0,32768,32768
303.301,2.0324e-09,0,32768,32768
303.351,2.02784e-09,0,32768,32768
303.401,2.02703e-09,0,32768,32768
303.45,2.02996e-09,0,32768,32768
303.5,2.0364e-09,0,32768,32768
303.55,2.04589e-09,0,32768,32768
303.601,2.05825e-09,0,32768,32768
303.651,2.07211e-09,0,32768,32768
303.701,2.08715e-09,0,32768,32768
303.751,2.10282e-09,0,32768,32768
303.801,2.11863e-09,0,32768,32768
303.85,2.13419e-09,0,32768,32768
303.9,2.14917e-09,0,32768,32768
303.951,2.1637e-09,0,32768,32768
304.001,2.17675e-09,0,32768,32768
304.051,2.18857e-09,0,32768,32768
304.101,2.19908e-09,0,32768,32768
304.151,2.20821e-09,0,32768,32768
304.2,2.21599e-09,0,32768,32768
304.25,2.22247e-09,0,32768,32768
304.301,2.22785e-09,0,32768,32768
304.351,2.2319e-09,0,32768,32768
304.401,2.23487e-09,0,32768,32768
304.451,2.23681e-09,0,32768,32768
304.501,2.23779e-09,0,32768,32768
304.55,2.23788e-09,0,32768,32768
304.6,2.23717e-09,0,32768,32768
304.65,2.23576e-09,0,32768,32768
304.701,2.23363e-09,0,32768,32768
304.751,2.23097e-09,0,32768,32768
304.801,2.22773e-09,0,32768,32768
304.851,2.22389e-09,0,32768,32768
304.9,2.21941e-09,0,32768,32768
304.95,2.21425e-09,0,32768,32768
