250,0,0,512,512
250.012,0,0,512,512
250.059,0,0,512,512
250.105,0,0,512,512
250.152,0,0,512,512
250.211,0,0,512,512
250.258,0,0,512,512
250.305,0,0,512,512
250.352,0,0,512,512
250.41,0,0,512,512
250.457,0,0,512,512
250.504,0,0,512,512
250.551,0,0,512,512
250.609,0,0,512,512
250.656,0,0,512,512
250.703,0,0,512,512
250.762,0,0,512,512
250.808,0,0,512,512
250.855,0,0,512,512
250.902,0,0,512,512
250.961,0,0,512,512
251.008,0,0,512,512
251.055,0,0,512,512
251.101,0,0,512,512
251.16,0,0,512,512
251.207,0,0,512,512
251.254,0,0,512,512
251.301,0,0,512,512
251.359,0,0,512,512
251.406,0,0,512,512
251.453,0,0,512,512
251.511,0,0,512,512
251.558,0,0,512,512
251.605,0,0,512,512
251.652,0,0,512,512
251.711,0,0,512,512
251.758,0,0,512,512
251.804,0,0,512,512
251.851,0,0,512,512
251.91,0,0,512,512
251.957,0,0,512,512
252.004,0,0,512,512
252.05,0,0,512,512
252.109,0,0,512,512
252.156,0,0,512,512
252.203,0,0,512,512
252.261,0,0,512,512
252.308,0,0,512,512
252.355,0,0,512,512
252.402,0,0,512,512
252.461,0,0,512,512
252.507,0,0,512,512
252.554,0,0,512,512
252.601,0,0,512,512
252.66,0,0,512,512
252.707,0,0,512,512
252.754,0,0,512,512
252.8,0,0,512,512
252.859,0,0,512,512
252.906,0,0,512,512
252.953,0,0,512,512
253.011,0,0,512,512
253.058,0,0,512,512
253.105,0,0,512,512
253.152,0,0,512,512
253.21,0,0,512,512
253.257,0,0,512,512
253.304,0,0,512,512
253.351,0,0,512,512
253.41,0,0,512,512
253.457,0,0,512,512
253.503,0,0,512,512
253.55,0,0,512,512
253.609,0,0,512,512
253.656,0,0,512,512
253.703,0,0,512,512
253.761,0,0,512,512
253.808,0,0,512,512
253.855,0,0,512,512
253.902,0,0,512,512
253.96,0,0,512,512
254.007,0,0,512,512
254.054,0,0,512,512
254.101,0,0,512,512
254.16,0,0,512,512
254.206,0,0,512,512
254.253,0,0,512,512
254.3,0,0,512,512
254.359,0,0,512,512
254.406,0,0,512,512
254.452,0,0,512,512
254.511,0,0,512,512
254.558,0,0,512,512
254.605,0,0,512,512
254.652,0,0,512,512
254.71,0,0,512,512
254.757,0,0,512,512
254.804,0,0,512,512
254.851,0,0,512,512
254.909,0,0,512,512
254.956,0,0,512,512
255.003,0,0,512,512
255.05,0,0,512,512
255.109,0,0,512,512
255.155,0,0,512,512
255.202,0,0,512,512
255.261,0,0,512,512
255.308,0,0,512,512
255.355,0,0,512,512
255.402,0,0,512,512
255.46,0,0,512,512
255.507,0,0,512,512
255.554,0,0,512,512
255.601,0,0,512,512
255.659,0,0,512,512
255.706,0,0,512,512
255.753,0,0,512,512
255.812,0,0,512,512
255.859,0,0,512,512
255.905,0,0,512,512
255.952,0,0,512,512
256.011,0,0,512,512
256.058,0,0,512,512
256.105,0,0,512,512
256.151,0,0,512,512
256.21,0,0,512,512
256.257,0,0,512,512
256.304,0,0,512,512
256.351,0,0,512,512
256.409,0,0,512,512
256.456,0,0,512,512
256.503,0,0,512,512
256.562,0,0,512,512
256.608,0,0,512,512
256.655,0,0,512,512
256.702,0,0,512,512
256.761,0,0,512,512
256.808,0,0,512,512
256.854,0,0,512,512
256.901,0,0,512,512
256.96,0,0,512,512
257.007,0,0,512,512
257.054,0,0,512,512
257.101,0,0,512,512
257.159,0,0,512,512
257.206,0,0,512,512
257.253,0,0,512,512
257.311,0,0,512,512
257.358,0,0,512,512
257.405,0,0,512,512
257.452,0,0,512,512
257.511,0,0,512,512
257.557,0,0,512,512
257.604,0,0,512,512
257.651,0,0,512,512
257.71,0,0,512,512
257.757,0,0,512,512
257.804,0,0,512,512
257.85,2.77556e-17,0,512,512
257.909,2.77556e-17,0,512,512
257.956,2.77556e-17,0,512,512
258.003,2.77556e-17,0,512,512
258.061,2.77556e-17,0,512,512
258.108,2.77556e-17,0,512,512
258.155,2.77556e-17,0,512,512
258.202,2.77556e-17,0,512,512
258.261,2.77556e-17,0,512,512
258.307,2.77556e-17,0,512,512
258.354,2.77556e-17,0,512,512
258.401,2.77556e-17,0,512,512
258.46,2.77556e-17,0,512,512
258.507,2.77556e-17,0,512,512
258.553,2.77556e-17,0,512,512
258.6,2.77556e-17,0,512,512
258.659,2.77556e-17,0,512,512
258.706,2.77556e-17,0,512,512
258.753,2.77556e-17,0,512,512
258.811,2.77556e-17,0,512,512
258.858,2.77556e-17,0,512,512
258.905,2.77556e-17,0,512,512
258.952,0,0,512,512
259.01,0,0,512,512
259.057,0,0,512,512
259.104,0,0,512,512
259.151,2.77556e-17,0,512,512
259.21,2.77556e-17,0,512,512
259.256,2.77556e-17,0,512,512
259.303,2.77556e-17,0,512,512
259.35,2.77556e-17,0,512,512
259.409,2.77556e-17,0,512,512
259.456,2.77556e-17,0,512,512
259.503,2.77556e-17,0,512,512
259.561,2.77556e-17,0,512,512
259.608,2.77556e-17,0,512,512
259.655,2.77556e-17,0,512,512
259.702,2.77556e-17,0,512,512
259.76,2.77556e-17,0,512,512
259.807,2.77556e-17,0,512,512
259.854,2.77556e-17,0,512,512
259.901,2.77556e-17,0,512,512
259.959,2.77556e-17,0,512,512
260.006,2.77556e-17,0,512,512
260.053,2.77556e-17,0,512,512
260.1,2.77556e-17,0,512,512
260.159,2.77556e-17,0,512,512
260.206,0,0,512,512
260.252,0,0,512,512
260.311,0,0,512,512
260.358,0,0,512,512
260.405,0,0,512,512
260.452,0,0,512,512
260.51,0,0,512,512
260.557,0,0,512,512
260.604,0,0,512,512
260.651,0,0,512,512
260.709,0,0,512,512
260.756,0,0,512,512
260.803,0,0,512,512
260.862,0,0,512,512
260.909,0,0,512,512
260.955,0,0,512,512
261.002,0,0,512,512
261.061,0,0,512,512
261.108,0,0,512,512
261.155,0,0,512,512
261.201,0,0,512,512
261.26,0,0,512,512
261.307,0,0,512,512
261.354,0,0,512,512
261.401,0,0,512,512
261.459,0,0,512,512
261.506,0,0,512,512
261.553,0,0,512,512
261.612,0,0,512,512
261.658,0,0,512,512
261.705,0,0,512,512
261.752,0,0,512,512
261.811,0,0,512,512
261.858,0,0,512,512
261.905,0,0,512,512
261.951,0,0,512,512
262.01,0,0,512,512
262.057,0,0,512,512
262.104,0,0,512,512
262.151,0,0,512,512
262.209,0,0,512,512
262.256,0,0,512,512
262.303,0,0,512,512
262.361,0,0,512,512
262.408,0,0,512,512
262.455,0,0,512,512
262.502,0,0,512,512
262.561,0,0,512,512
262.608,0,0,512,512
262.654,0,0,512,512
262.701,0,0,512,512
262.76,0,0,512,512
262.807,0,0,512,512
262.854,0,0,512,512
262.9,0,0,512,512
262.959,0,0,512,512
263.006,0,0,512,512
263.053,0,0,512,512
263.111,-2.77556e-17,0,512,512
263.158,-2.77556e-17,0,512,512
263.205,-2.77556e-17,0,512,512
263.252,-2.77556e-17,0,512,512
263.311,-2.77556e-17,0,512,512
263.357,-2.77556e-17,0,512,512
263.404,-2.77556e-17,0,512,512
263.451,-2.77556e-17,0,512,512
263.51,-2.77556e-17,0,512,512
263.557,-2.77556e-17,0,512,512
263.603,-2.77556e-17,0,512,512
263.65,-2.77556e-17,0,512,512
263.709,-2.77556e-17,0,512,512
263.756,-2.77556e-17,0,512,512
263.803,-2.77556e-17,0,512,512
263.861,-2.77556e-17,0,512,512
263.908,-2.77556e-17,0,512,512
263.955,-2.77556e-17,0,512,512
264.002,-2.77556e-17,0,512,512
264.06,-2.77556e-17,0,512,512
264.107,-2.77556e-17,0,512,512
264.154,-2.77556e-17,0,512,512
264.201,-2.77556e-17,0,512,512
264.26,-2.77556e-17,0,512,512
264.306,-2.77556e-17,0,512,512
264.353,-2.77556e-17,0,512,512
264.4,-2.77556e-17,0,512,512
264.459,0,0,512,512
264.506,0,0,512,512
264.553,0,0,512,512
264.611,0,0,512,512
264.658,0,0,512,512
264.705,0,0,512,512
264.752,0,0,512,512
264.81,0,0,512,512
264.857,0,0,512,512
264.904,0,0,512,512
264.951,0,0,512,512
265.01,0,0,512,512
265.056,0,0,512,512
265.103,0,0,512,512
265.15,0,0,512,512
265.209,0,0,512,512
265.256,0,0,512,512
265.302,0,0,512,512
265.361,0,0,512,512
265.408,0,0,512,512
265.455,0,0,512,512
265.502,0,0,512,512
265.56,0,0,512,512
265.607,0,0,512,512
265.654,0,0,512,512
265.701,0,0,512,512
265.759,0,0,512,512
265.806,0,0,512,512
265.853,0,0,512,512
265.9,0,0,512,512
265.959,0,0,512,512
266.005,0,0,512,512
266.052,0,0,512,512
266.111,0,0,512,512
266.158,0,0,512,512
266.205,0,0,512,512
266.252,0,0,512,512
266.31,0,0,512,512
266.357,0,0,512,512
266.404,0,0,512,512
266.451,0,0,512,512
266.509,0,0,512,512
266.556,0,0,512,512
266.603,0,0,512,512
266.662,0,0,512,512
266.708,0,0,512,512
266.755,0,0,512,512
266.802,0,0,512,512
266.861,0,0,512,512
266.908,0,0,512,512
266.955,0,0,512,512
267.001,0,0,512,512
267.06,0,0,512,512
267.107,0,0,512,512
267.154,0,0,512,512
267.201,0,0,512,512
267.259,0,0,512,512
267.306,0,0,512,512
267.353,0,0,512,512
267.412,0,0,512,512
267.458,0,0,512,512
267.505,0,0,512,512
267.552,2.77556e-17,0,512,512
267.611,2.77556e-17,0,512,512
267.658,2.77556e-17,0,512,512
267.704,2.77556e-17,0,512,512
267.751,2.77556e-17,0,512,512
267.81,2.77556e-17,0,512,512
267.857,2.77556e-17,0,512,512
267.904,2.77556e-17,0,512,512
267.95,2.77556e-17,0,512,512
268.009,2.77556e-17,0,512,512
268.056,2.77556e-17,0,512,512
268.101,2.77556e-17,0,875,875
268.151,2.77556e-17,0,1107,1107
268.201,2.77556e-17,0,1327,1327
268.251,2.77556e-17,0,1539,1539
268.3,2.77556e-17,0,1777,1777
268.35,2.77556e-17,0,1977,1977
268.401,2.77556e-17,0,2185,2185
268.451,2.77556e-17,0,2373,2373
268.501,2.77556e-17,0,2597,2597
268.551,2.77556e-17,0,2809,2809
268.601,2.77556e-17,0,3025,3025
268.65,2.77556e-17,0,3223,3223
268.7,2.77556e-17,0,3455,3455
268.75,2.77556e-17,0,3671,3671
268.801,2.77556e-17,0,3911,3911
268.851,2.77556e-17,0,4131,4131
268.901,2.77556e-17,0,4339,4339
268.951,2.77556e-17,0,4575,4575
269,2.77556e-17,0,4809,4809
269.05,2.77556e-17,0,4971,4971
269.1,2.77556e-17,0,5185,5185
269.151,2.77556e-17,0,5405,5405
269.201,2.77556e-17,0,5589,5589
269.251,2.77556e-17,0,5739,5739
269.301,2.77556e-17,0,5959,5959
269.351,2.77556e-17,0,6155,6155
269.4,2.77556e-17,0,6365,6365
269.45,2.77556e-17,0,6515,6515
269.501,2.77556e-17,0,6735,6735
269.551,2.77556e-17,0,6973,6973
269.601,2.77556e-17,0,7171,7171
269.651,2.77556e-17,0,7357,7357
269.701,2.77556e-17,0,7567,7567
269.75,2.77556e-17,0,7759,7759
269.8,2.77556e-17,0,8015,8015
269.851,2.77556e-17,0,8253,8253
269.901,2.77556e-17,0,8453,8453
269.951,2.77556e-17,0,8651,8651
270.001,2.77556e-17,0,8895,8895
270.051,2.77556e-17,0,9121,9121
270.1,2.77556e-17,0,9329,9329
270.15,2.77556e-17,0,9527,9527
270.2,2.77556e-17,0,9703,9703
270.251,2.77556e-17,0,9933,9933
270.301,2.77556e-17,0,10165,10165
270.351,2.77556e-17,0,10333,10333
270.401,2.77556e-17,0,10583,10583
270.45,2.77556e-17,0,10785,10785
270.5,2.77556e-17,0,10947,10947
270.55,2.77556e-17,0,11157,11157
270.601,2.77556e-17,0,11373,11373
270.651,2.77556e-17,0,11535,11535
270.701,2.77556e-17,0,11761,11761
270.751,2.77556e-17,0,12003,12003
270.801,2.77556e-17,0,12163,12163
270.85,2.77556e-17,0,12373,12373
270.9,2.77556e-17,0,12593,12593
270.951,2.77556e-17,0,12791,12791
271.001,2.77556e-17,0,13017,13017
271.051,2.77556e-17,0,13237,13237
271.101,2.77556e-17,0,13443,13443
271.151,2.77556e-17,0,13599,13599
271.2,2.77556e-17,0,13813,13813
271.25,2.77556e-17,0,13991,13991
271.301,2.77556e-17,0,14225,14225
271.351,2.77556e-17,0,14445,14445
271.401,2.77556e-17,0,14627,14627
271.451,2.77556e-17,0,14801,14801
271.501,2.77556e-17,0,14993,14993
271.55,2.77556e-17,0,15221,15221
271.6,2.77556e-17,0,15429,15429
271.651,2.77556e-17,0,15605,15605
271.701,2.77556e-17,0,15797,15797
271.751,2.77556e-17,0,15953,15953
271.801,2.77556e-17,0,16169,16169
271.851,2.77556e-17,0,16365,16365
271.9,2.77556e-17,0,16545,16545
271.95,2.77556e-17,0,16703,16703
272,2.77556e-17,0,16921,16921
272.051,2.77556e-17,0,17065,17065
272.101,2.77556e-17,0,17291,17291
272.151,2.77556e-17,0,17507,17507
272.201,2.77556e-17,0,17655,17655
272.25,2.77556e-17,0,17815,17815
272.3,2.77556e-17,0,18007,18007
272.35,2.77556e-17,0,18213,18213
272.401,2.77556e-17,0,18397,18397
272.451,2.77556e-17,0,18583,18583
272.501,1.66533e-16,0,18735,18735
272.551,9.15934e-16,0,18947,18947
272.601,1.80411e-15,0,19155,19155
272.65,2.7478e-15,0,19305,19305
272.7,3.58047e-15,0,19461,19461
272.751,4.46865e-15,0,19647,19647
272.801,5.2458e-15,0,19801,19801
272.851,6.13398e-15,0,19997,19997
272.901,7.02216e-15,0,20151,20151
272.951,7.85483e-15,0,20355,20355
273,8.52096e-15,0,20489,20489
273.05,8.79852e-15,0,20649,20649
273.101,8.9373e-15,0,20847,20847
273.151,9.15934e-15,0,21025,21025
273.201,9.29812e-15,0,21183,21183
273.251,9.35363e-15,0,21307,21307
273.301,9.07607e-15,0,21549,21549
273.35,6.82787e-15,0,21667,21667
273.4,-2.498e-16,0,21857,21857
273.45,-1.66811e-14,0,22039,22039
273.501,-5.12368e-14,0,22173,22173
273.551,-1.13604e-13,0,22303,22303
273.601,-2.20962e-13,0,22479,22479
273.651,-3.95683e-13,0,22653,22653
273.7,-6.67716e-13,0,22757,22757
273.75,-1.07414e-12,0,22803,22803
273.8,-1.65976e-12,0,23063,23063
273.851,-2.50402e-12,0,23217,23217
273.901,-3.617e-12,0,23399,23399
273.951,-5.08024e-12,0,23589,23589
274.001,-6.95899e-12,0,23679,23679
274.051,-9.53065e-12,0,23853,23853
274.1,-1.38732e-11,0,24073,24073
274.15,-2.16706e-11,0,24175,24175
274.201,-3.45935e-11,0,24351,24351
274.251,-6.66907e-11,0,24489,24489
274.301,-1.70284e-10,0,24635,24635
274.351,-2.77525e-10,0,24779,24779
274.401,-3.10393e-10,0,24837,24837
274.45,-2.4505e-10,0,25017,25017
274.5,-6.70887e-11,0,25135,25135
274.551,1.03646e-10,0,25193,25193
274.601,1.72181e-10,0,25403,25403
274.651,1.49482e-10,0,25549,25549
274.701,6.72515e-11,0,25607,25607
274.751,1.5859e-11,0,25763,25763
274.8,2.77233e-11,0,25847,25847
274.85,1.00646e-10,0,25977,25977
274.901,1.62971e-10,0,26087,26087
274.951,1.59626e-10,0,26235,26235
275.001,1.14726e-10,0,26337,26337
275.051,6.03168e-11,0,26445,26445
275.101,5.79505e-11,0,26671,26671
275.15,8.5335e-11,0,26691,26691
275.2,1.49685e-10,0,26709,26709
275.25,1.65261e-10,0,26785,26785
275.301,1.46933e-10,0,26873,26873
275.351,1.01085e-10,0,26893,26893
275.401,6.87886e-11,0,26915,26915
275.451,7.83104e-11,0,26865,26865
275.5,1.2198e-10,0,26905,26905
275.55,1.89924e-10,0,26723,26723
275.6,1.9231e-10,0,26767,26767
275.651,1.1854e-10,0,26703,26703
275.701,9.27169e-12,0,26703,26703
275.751,-2.53098e-12,0,26701,26701
275.801,1.35972e-10,0,26645,26645
275.851,3.19632e-10,0,26647,26647
275.9,3.22792e-10,0,26701,26701
275.95,6.74901e-11,0,26667,26667
276.001,-1.38856e-10,0,26665,26665
276.051,4.28508e-10,0,26687,26687
276.101,2.48833e-09,0,26725,26725
276.151,6.33091e-09,0,26717,26717
276.201,1.1583e-08,0,26736,26736
276.25,1.7385e-08,0,26648,26648
276.3,2.28208e-08,0,26678,26678
276.351,2.74491e-08,0,26614,26614
276.401,3.10488e-08,0,26615,26615
276.451,3.44153e-08,0,26648,26648
276.501,3.85652e-08,0,26636,26636
276.551,4.44878e-08,0,26692,26692
276.6,5.27875e-08,0,26600,26600
276.65,6.36169e-08,0,26540,26540
276.7,7.69633e-08,0,26472,26472
276.751,9.35868e-08,0,26428,26428
276.801,1.13273e-07,0,26256,26256
276.851,1.37525e-07,0,26306,26306
276.901,1.67393e-07,0,26298,26298
276.95,2.03501e-07,0,26324,26324
277,2.45735e-07,0,26484,26484
277.05,2.93184e-07,0,26600,26600
277.101,3.46019e-07,0,26674,26674
277.151,4.00003e-07,0,26504,26504
277.201,4.56152e-07,0,26382,26382
277.251,5.14668e-07,0,26478,26478
277.301,5.75623e-07,0,26708,26708
277.35,6.3804e-07,0,26744,26744
277.4,6.99583e-07,0,26980,26980
277.451,7.58676e-07,0,26781,26781
277.501,8.08817e-07,0,26918,26918
277.551,8.4968e-07,0,26974,26974
277.601,8.80509e-07,0,27010,27010
277.651,9.01856e-07,0,27268,27268
277.7,9.15191e-07,0,27371,27371
277.75,9.22283e-07,0,27631,27631
277.801,9.24585e-07,0,27796,27796
277.851,9.22738e-07,0,27954,27954
277.901,9.16877e-07,0,28481,28481
277.951,9.06442e-07,0,28362,28362
278.001,8.90534e-07,0,28474,28474
278.05,8.68164e-07,0,28808,28808
278.1,8.38517e-07,0,28840,28840
278.15,8.01251e-07,0,29246,29246
278.201,7.5541e-07,0,29194,29194
278.251,7.05049e-07,0,29558,29558
278.301,6.51145e-07,0,29596,29596
278.351,5.96154e-07,0,29904,29904
278.4,5.42245e-07,0,29804,29804
278.45,4.90937e-07,0,29860,29860
278.5,4.43011e-07,0,30070,30070
278.551,3.97372e-07,0,30224,30224
278.601,3.56343e-07,0,30092,30092
278.651,3.18089e-07,0,30144,30144
278.701,2.82162e-07,0,29800,29800
278.75,2.48392e-07,0,29414,29414
278.8,2.17068e-07,0,29162,29162
278.85,1.88913e-07,0,29090,29090
278.901,1.64078e-07,0,28810,28810
278.951,1.4424e-07,0,28570,28570
279.001,1.27928e-07,0,28330,28330
279.051,1.13723e-07,0,28424,28424
279.101,1.00267e-07,0,27962,27962
279.15,8.70108e-08,0,27632,27632
279.2,7.43811e-08,0,27300,27300
279.251,6.29922e-08,0,27002,27002
279.301,5.41945e-08,0,26724,26724
279.351,4.76637e-08,0,26412,26412
279.401,4.27876e-08,0,26072,26072
279.451,3.86099e-08,0,25742,25742
279.5,3.42595e-08,0,25440,25440
279.55,2.93685e-08,0,25238,25238
279.601,2.41227e-08,0,24984,24984
279.651,1.96782e-08,0,24704,24704
279.701,1.67075e-08,0,24464,24464
279.751,1.55551e-08,0,24224,24224
279.801,1.59894e-08,0,24200,24200
279.85,1.74635e-08,0,24576,24576
279.9,1.94711e-08,0,24368,24368
279.95,2.17376e-08,0,24332,24332
280.001,2.42708e-08,0,24314,24314
280.051,2.69452e-08,0,24554,24554
280.101,2.98343e-08,0,24520,24520
280.151,3.29044e-08,0,24518,24518
280.2,3.60868e-08,0,24676,24676
280.25,3.93647e-08,0,24816,24816
280.3,4.27895e-08,0,24972,24972
280.351,4.65294e-08,0,25162,25162
280.401,5.03864e-08,0,25320,25320
280.451,5.44223e-08,0,25388,25388
280.501,5.85755e-08,0,25500,25500
280.551,6.28002e-08,0,25640,25640
280.6,6.70748e-08,0,25798,25798
280.65,7.14137e-08,0,25822,25822
280.701,7.60357e-08,0,25846,25846
280.751,8.08503e-08,0,25874,25874
280.801,8.62136e-08,0,25804,25804
280.851,9.23136e-08,0,25738,25738
280.901,9.91909e-08,0,25666,25666
280.95,1.06694e-07,0,25608,25608
281,1.14512e-07,0,25548,25548
281.051,1.22521e-07,0,25614,25614
281.101,1.30025e-07,0,25462,25462
281.151,1.37253e-07,0,25376,25376
281.201,1.44466e-07,0,25316,25316
281.251,1.52119e-07,0,25402,25402
281.3,1.60751e-07,0,25256,25256
281.35,1.70877e-07,0,25194,25194
281.4,1.82943e-07,0,25286,25286
281.451,1.9782e-07,0,25096,25096
281.501,2.15103e-07,0,24996,24996
281.551,2.35682e-07,0,24928,24928
281.601,2.6009e-07,0,25112,25112
281.65,2.88781e-07,0,24850,24850
281.7,3.21988e-07,0,24782,24782
281.75,3.59624e-07,0,24716,24716
281.801,4.0255e-07,0,24640,24640
281.851,4.47668e-07,0,24660,24660
281.901,4.95454e-07,0,24584,24584
281.951,5.45224e-07,0,24510,24510
282.001,5.9628e-07,0,24432,24432
282.05,6.47765e-07,0,24380,24380
282.1,6.98489e-07,0,24348,24348
282.151,7.48241e-07,0,24310,24310
282.201,7.92288e-07,0,24260,24260
282.251,8.30291e-07,0,24204,24204
282.301,8.60824e-07,0,24142,24142
282.351,8.83098e-07,0,24094,24094
282.4,8.97039e-07,0,24084,24084
282.45,9.03174e-07,0,24062,24062
282.501,9.0226e-07,0,24026,24026
282.551,8.95294e-07,0,23986,23986
282.601,8.83053e-07,0,23956,23956
282.651,8.65895e-07,0,23956,23956
282.701,8.43814e-07,0,23914,23914
282.75,8.16542e-07,0,23882,23882
282.8,7.8372e-07,0,23882,23882
282.851,7.43887e-07,0,23838,23838
282.901,6.9941e-07,0,23814,23814
282.951,6.49787e-07,0,23768,23768
283.001,5.96059e-07,0,23754,23754
283.051,5.39667e-07,0,23744,23744
283.1,4.82458e-07,0,23840,23840
283.151,4.24083e-07,0,24050,24050
283.201,3.69237e-07,0,24220,24220
283.251,3.17432e-07,0,24410,24410
283.3,2.69154e-07,0,24678,24678
283.351,2.23237e-07,0,24836,24836
283.4,1.82294e-07,0,25032,25032
283.451,1.43698e-07,0,25176,25176
283.501,1.08655e-07,0,25438,25438
283.551,7.72048e-08,0,25654,25654
283.601,4.94558e-08,0,25874,25874
283.651,2.54619e-08,0,26126,26126
283.701,5.05654e-09,0,26288,26288
283.751,-1.21408e-08,0,26504,26504
283.801,-2.66597e-08,0,26696,26696
283.85,-3.90478e-08,0,26916,26916
283.9,-4.96972e-08,0,27084,27084
283.951,-5.90035e-08,0,27308,27308
284.001,-6.63994e-08,0,27484,27484
284.051,-7.21036e-08,0,27724,27724
284.101,-7.61638e-08,0,27904,27904
284.151,-7.8812e-08,0,28168,28168
284.2,-8.04165e-08,0,28300,28300
284.25,-8.13514e-08,0,28500,28500
284.3,-8.18581e-08,0,28696,28696
284.351,-8.19716e-08,0,28912,28912
284.401,-8.15472e-08,0,29108,29108
284.451,-8.04009e-08,0,29340,29340
284.501,-7.841e-08,0,29552,29552
284.55,-7.55982e-08,0,29760,29760
284.6,-7.21328e-08,0,29940,29940
284.65,-6.82611e-08,0,30164,30164
284.701,-6.41151e-08,0,30392,30392
284.751,-6.01367e-08,0,30604,30604
284.801,-5.63427e-08,0,30796,30796
284.851,-5.28134e-08,0,30868,30868
284.901,-4.95925e-08,0,30932,30932
284.95,-4.66978e-08,0,31084,31084
285,-4.41265e-08,0,31278,31278
285.051,-4.17964e-08,0,31376,31376
285.101,-3.98115e-08,0,31540,31540
285.151,-3.80735e-08,0,31632,31632
285.201,-3.65628e-08,0,31696,31696
285.251,-3.52679e-08,0,31836,31836
285.3,-3.41815e-08,0,31964,31964
285.35,-3.32952e-08,0,31952,31952
285.401,-3.25793e-08,0,31964,31964
285.451,-3.20582e-08,0,31956,31956
285.501,-3.16901e-08,0,31964,31964
285.551,-3.14537e-08,0,31936,31936
285.601,-3.13317e-08,0,31932,31932
285.65,-3.12982e-08,0,31782,31782
285.7,-3.13552e-08,0,31980,31980
285.751,-3.14897e-08,0,31982,31982
285.801,-3.16541e-08,0,32062,32062
285.851,-3.18535e-08,0,32202,32202
285.901,-3.20777e-08,0,32240,32240
285.951,-3.23193e-08,0,32304,32304
286,-3.25725e-08,0,32460,32460
286.05,-3.2832e-08,0,32656,32656
286.1,-3.30909e-08,0,32688,32688
286.151,-3.33532e-08,0,32704,32704
286.201,-3.35999e-08,0,32688,32688
286.251,-3.38352e-08,0,32608,32608
286.301,-3.40575e-08,0,32728,32728
286.35,-3.42658e-08,0,32704,32704
286.4,-3.44596e-08,0,32600,32600
286.45,-3.46375e-08,0,32648,32648
286.501,-3.48033e-08,0,32624,32624
286.551,-3.49464e-08,0,32504,32504
286.601,-3.507e-08,0,32496,32496
286.651,-3.51743e-08,0,32102,32102
286.701,-3.52555e-08,0,31706,31706
286.75,-3.53152e-08,0,31364,31364
286.8,-3.53537e-08,0,31300,31300
286.851,-3.53772e-08,0,31538,31538
286.901,-3.53993e-08,0,31482,31482
286.951,-3.53734e-08,0,31456,31456
287.001,-3.53252e-08,0,31538,31538
287.051,-3.52814e-08,0,31530,31530
287.1,-3.52291e-08,0,31290,31290
287.15,-3.51675e-08,0,31410,31410
287.201,-3.50965e-08,0,31262,31262
287.251,-3.50232e-08,0,31366,31366
287.301,-3.49491e-08,0,31066,31066
287.351,-3.48742e-08,0,30982,30982
287.401,-3.47985e-08,0,30812,30812
287.45,-3.4726e-08,0,30834,30834
287.5,-3.46561e-08,0,30866,30866
287.55,-3.45896e-08,0,30778,30778
287.601,-3.45237e-08,0,30520,30520
287.651,-3.44635e-08,0,30526,30526
287.701,-3.44095e-08,0,30532,30532
287.751,-3.43628e-08,0,30172,30172
287.8,-3.43211e-08,0,30010,30010
287.85,-3.42845e-08,0,29802,29802
287.9,-3.42559e-08,0,29672,29672
287.951,-3.42347e-08,0,29528,29528
288.001,-3.42306e-08,0,29552,29552
288.051,-3.42218e-08,0,30004,30004
288.101,-3.42105e-08,0,30176,30176
288.151,-3.42255e-08,0,30148,30148
288.2,-3.42408e-08,0,30224,30224
288.25,-3.42614e-08,0,30156,30156
288.301,-3.42838e-08,0,29950,29950
288.351,-3.43124e-08,0,29874,29874
288.401,-3.43391e-08,0,29936,29936
288.451,-3.43766e-08,0,30148,30148
288.501,-3.44447e-08,0,30090,30090
288.55,-3.45019e-08,0,30024,30024
288.6,-3.45657e-08,0,29964,29964
288.651,-3.46371e-08,0,30256,30256
288.701,-3.47273e-08,0,30620,30620
288.751,-3.4829e-08,0,31052,31052
288.801,-3.49318e-08,0,31452,31452
288.851,-3.50436e-08,0,31528,31528
288.9,-3.51687e-08,0,31682,31682
288.95,-3.53089e-08,0,31704,31704
289.001,-3.54693e-08,0,31834,31834
289.051,-3.56426e-08,0,31840,31840
289.101,-3.58348e-08,0,31822,31822
289.151,-3.60494e-08,0,31804,31804
289.201,-3.6286e-08,0,31792,31792
289.25,-3.6546e-08,0,31852,31852
289.3,-3.68302e-08,0,31576,31576
289.35,-3.71395e-08,0,31146,31146
289.401,-3.74795e-08,0,31276,31276
289.451,-3.78305e-08,0,31286,31286
289.501,-3.82039e-08,0,31412,31412
289.551,-3.85936e-08,0,31578,31578
289.6,-3.89954e-08,0,31508,31508
289.65,-3.94058e-08,0,31572,31572
289.7,-3.98206e-08,0,31556,31556
289.751,-4.02467e-08,0,31680,31680
289.801,-4.0655e-08,0,31638,31638
289.851,-4.10525e-08,0,31628,31628
289.901,-4.14358e-08,0,31678,31678
289.951,-4.18011e-08,0,31804,31804
290,-4.21461e-08,0,31766,31766
290.05,-4.24655e-08,0,31692,31692
290.101,-4.27645e-08,0,31652,31652
290.151,-4.30216e-08,0,31542,31542
290.201,-4.32417e-08,0,31476,31476
290.251,-4.34249e-08,0,31462,31462
290.301,-4.35683e-08,0,31342,31342
290.35,-4.36702e-08,0,31086,31086
290.4,-4.37296e-08,0,30952,30952
290.451,-4.37543e-08,0,30644,30644
290.501,-4.37326e-08,0,30436,30436
290.551,-4.36412e-08,0,30320,30320
290.601,-4.35124e-08,0,29564,29564
290.651,-4.33449e-08,0,29132,29132
290.7,-4.31454e-08,0,28928,28928
290.75,-4.29117e-08,0,28658,28658
290.8,-4.26367e-08,0,28512,28512
290.851,-4.231e-08,0,29070,29070
290.901,-4.19478e-08,0,29612,29612
290.951,-4.15412e-08,0,29540,29540
291.001,-4.1093e-08,0,29504,29504
291.05,-4.06038e-08,0,29618,29618
291.1,-4.00708e-08,0,29558,29558
291.15,-3.94968e-08,0,29732,29732
291.201,-3.88626e-08,0,29496,29496
291.251,-3.82046e-08,0,29376,29376
291.301,-3.75053e-08,0,29340,29340
291.351,-3.6768e-08,0,29114,29114
291.401,-3.5996e-08,0,28596,28596
291.45,-3.5193e-08,0,28398,28398
291.5,-3.43635e-08,0,28328,28328
291.551,-3.34874e-08,0,28478,28478
291.601,-3.26209e-08,0,28614,28614
291.651,-3.17455e-08,0,28638,28638
291.701,-3.08677e-08,0,28476,28476
291.751,-2.99932e-08,0,28224,28224
291.8,-2.9127e-08,0,28126,28126
291.85,-2.82741e-08,0,28002,28002
291.901,-2.74149e-08,0,27848,27848
291.951,-2.66032e-08,0,27748,27748
292.001,-2.58183e-08,0,27632,27632
292.051,-2.50642e-08,0,27452,27452
292.101,-2.43449e-08,0,27562,27562
292.15,-2.36637e-08,0,27564,27564
292.2,-2.3024e-08,0,27412,27412
292.251,-2.2412e-08,0,27384,27384
292.301,-2.18636e-08,0,27552,27552
292.351,-2.13606e-08,0,27248,27248
292.401,-2.09027e-08,0,27416,27416
292.451,-2.04893e-08,0,27436,27436
292.5,-2.0119e-08,0,27378,27378
292.55,-1.97902e-08,0,27470,27470
292.6,-1.95009e-08,0,27502,27502
292.651,-1.92399e-08,0,27406,27406
292.701,-1.90175e-08,0,27336,27336
292.751,-1.88236e-08,0,27660,27660
292.801,-1.86561e-08,0,27364,27364
292.85,-1.85118e-08,0,27310,27310
292.9,-1.83878e-08,0,27108,27108
292.95,-1.8281e-08,0,27174,27174
293.001,-1.81861e-08,0,27440,27440
293.051,-1.81054e-08,0,27242,27242
293.101,-1.80338e-08,0,27472,27472
293.151,-1.79697e-08,0,27296,27296
293.201,-1.79121e-08,0,27338,27338
293.25,-1.78599e-08,0,27414,27414
293.3,-1.78119e-08,0,27594,27594
293.351,-1.77654e-08,0,27656,27656
293.401,-1.77218e-08,0,27732,27732
293.451,-1.76787e-08,0,27878,27878
293.501,-1.76361e-08,0,28093,28093
293.551,-1.75928e-08,0,28280,28280
293.6,-1.75476e-08,0,28506,28506
293.65,-1.74996e-08,0,28668,28668
293.701,-1.74458e-08,0,28904,28904
293.751,-1.73882e-08,0,29056,29056
293.801,-1.73236e-08,0,29254,29254
293.851,-1.72515e-08,0,29452,29452
293.901,-1.71714e-08,0,29636,29636
293.95,-1.70822e-08,0,29846,29846
294,-1.69834e-08,0,30053,30053
294.05,-1.68755e-08,0,30232,30232
294.101,-1.67556e-08,0,30466,30466
294.151,-1.66309e-08,0,30652,30652
294.201,-1.64987e-08,0,30868,30868
294.251,-1.63597e-08,0,31006,31006
294.3,-1.62148e-08,0,31184,31184
294.35,-1.6065e-08,0,31308,31308
294.4,-1.59112e-08,0,31452,31452
294.451,-1.57494e-08,0,31606,31606
294.501,-1.55897e-08,0,31790,31790
294.551,-1.54282e-08,0,31910,31910
294.601,-1.52653e-08,0,31984,31984
294.651,-1.51015e-08,0,32022,32022
294.7,-1.49373e-08,0,32078,32078
294.75,-1.47728e-08,0,32110,32110
294.801,-1.46019e-08,0,32178,32178
294.851,-1.44323e-08,0,32178,32178
294.901,-1.42573e-08,0,32148,32148
294.951,-1.40755e-08,0,32116,32116
295.001,-1.3886e-08,0,32266,32266
295.05,-1.36881e-08,0,32148,32148
295.1,-1.34821e-08,0,32074,32074
295.151,-1.32621e-08,0,32150,32150
295.201,-1.30404e-08,0,31788,31788
295.251,-1.2811e-08,0,32090,32090
295.301,-1.25734e-08,0,32056,32056
295.351,-1.23265e-08,0,31942,31942
295.4,-1.20682e-08,0,31992,31992
295.45,-1.17964e-08,0,31944,31944
295.5,-1.15083e-08,0,31946,31946
295.551,-1.11917e-08,0,31928,31928
295.601,-1.08618e-08,0,31848,31848
295.651,-1.05075e-08,0,31828,31828
295.701,-1.01268e-08,0,31766,31766
295.75,-9.71822e-09,0,31696,31696
295.8,-9.28053e-09,0,31670,31670
295.85,-8.81304e-09,0,31638,31638
295.901,-8.30029e-09,0,31572,31572
295.951,-7.77144e-09,0,31566,31566
296.001,-7.21242e-09,0,31462,31462
296.051,-6.624e-09,0,31404,31404
296.101,-6.0078e-09,0,31366,31366
296.15,-5.36616e-09,0,31412,31412
296.2,-4.70225e-09,0,31458,31458
296.251,-3.99977e-09,0,31538,31538
296.301,-3.30363e-09,0,31548,31548
296.351,-2.59894e-09,0,31542,31542
296.401,-1.89078e-09,0,31528,31528
296.451,-1.18426e-09,0,31550,31550
296.5,-4.84429e-10,0,31430,31430
296.55,2.03934e-10,0,31246,31246
296.601,8.95771e-10,0,31056,31056
296.651,1.54714e-09,0,30970,30970
296.701,2.17404e-09,0,30830,30830
296.751,2.77271e-09,0,30800,30800
296.801,3.33961e-09,0,30738,30738
296.85,3.87149e-09,0,30690,30690
296.9,4.36555e-09,0,30608,30608
296.951,4.83206e-09,0,30758,30758
297.001,5.24228e-09,0,30914,30914
297.051,5.60869e-09,0,31110,31110
297.101,5.93057e-09,0,31176,31176
297.151,6.20804e-09,0,31224,31224
297.2,6.44201e-09,0,30948,30948
297.25,6.6343e-09,0,30704,30704
297.3,6.7876e-09,0,30350,30350
297.351,6.9069e-09,0,30208,30208
297.401,6.98618e-09,0,30110,30110
297.451,7.02913e-09,0,29960,29960
297.501,7.03567e-09,0,29858,29858
297.55,7.02337e-09,0,29728,29728
297.6,7.00254e-09,0,29642,29642
297.65,6.96779e-09,0,29518,29518
297.701,6.91403e-09,0,29390,29390
297.751,6.83211e-09,0,29188,29188
297.801,6.74518e-09,0,29038,29038
297.851,6.65645e-09,0,28752,28752
297.901,6.55603e-09,0,28450,28450
297.95,6.45012e-09,0,28238,28238
298,6.3421e-09,0,28076,28076
298.051,6.22964e-09,0,27932,27932
298.101,6.12001e-09,0,27994,27994
298.151,6.01097e-09,0,27858,27858
298.201,5.90326e-09,0,27762,27762
298.251,5.79767e-09,0,27794,27794
298.3,5.69538e-09,0,27804,27804
298.35,5.59712e-09,0,27708,27708
298.401,5.50092e-09,0,27638,27638
298.451,5.41299e-09,0,27590,27590
298.501,5.33129e-09,0,27552,27552
298.551,5.25653e-09,0,27464,27464
298.601,5.18922e-09,0,27346,27346
298.65,5.12941e-09,0,27252,27252
298.7,5.07653e-09,0,27178,27178
298.75,5.03057e-09,0,27092,27092
298.801,4.99218e-09,0,27022,27022
298.851,4.96364e-09,0,26932,26932
298.901,4.94115e-09,0,26828,26828
298.951,4.92168e-09,0,26764,26764
299,4.90376e-09,0,26688,26688
299.05,4.88547e-09,0,26666,26666
299.1,4.86699e-09,0,26648,26648
299.151,4.84698e-09,0,26544,26544
299.201,4.82605e-09,0,26484,26484
299.251,4.80325e-09,0,26365,26365
299.301,4.77813e-09,0,26341,26341
299.351,4.75024e-09,0,26261,26261
299.4,4.71917e-09,0,26264,26264
299.45,4.68465e-09,0,26258,26258
299.501,4.64534e-09,0,26210,26210
299.551,4.60328e-09,0,26146,26146
299.601,4.5577e-09,0,26122,26122
299.651,4.50954e-09,0,26074,26074
299.701,4.45984e-09,0,26220,26220
299.75,4.4095e-09,0,26246,26246
299.8,4.35924e-09,0,26148,26148
299.851,4.30816e-09,0,26148,26148
299.901,4.2595e-09,0,26164,26164
299.951,4.21198e-09,0,26206,26206
300.001,4.16582e-09,0,26220,26220
300.051,4.12131e-09,0,26230,26230
300.1,4.07892e-09,0,26246,26246
300.15,4.03918e-09,0,26402,26402
300.2,4.00264e-09,0,26410,26410
300.251,3.96884e-09,0,26418,26418
300.301,3.93983e-09,0,26418,26418
300.351,3.91437e-09,0,26410,26410
300.401,3.89208e-09,0,26434,26434
300.45,3.87255e-09,0,26676,26676
300.5,3.85546e-09,0,26648,26648
300.55,3.84018e-09,0,26522,26522
300.601,3.82636e-09,0,26424,26424
300.651,3.81473e-09,0,26318,26318
300.701,3.80447e-09,0,26256,26256
300.751,3.79758e-09,0,26058,26058
300.8,3.78883e-09,0,25840,25840
300.85,3.77941e-09,0,25652,25652
300.9,3.76936e-09,0,25432,25432
300.951,3.75783e-09,0,25146,25146
301.001,3.7456e-09,0,24780,24780
301.051,3.73262e-09,0,24460,24460
301.101,3.71894e-09,0,24318,24318
301.151,3.70425e-09,0,24048,24048
301.2,3.68824e-09,0,23746,23746
301.25,3.67091e-09,0,23422,23422
301.301,3.65188e-09,0,23176,23176
301.351,3.63246e-09,0,22938,22938
301.401,3.6123e-09,0,22650,22650
301.451,3.59144e-09,0,22466,22466
301.501,3.56984e-09,0,22284,22284
301.55,3.5475e-09,0,22182,22182
301.6,3.52443e-09,0,21994,21994
301.651,3.50002e-09,0,21728,21728
301.701,3.47574e-09,0,21504,21504
301.751,3.45094e-09,0,21288,21288
301.801,3.42562e-09,0,21010,21010
301.851,3.39977e-09,0,20746,20746
301.9,3.37335e-09,0,20460,20460
301.95,3.34636e-09,0,20152,20152
302,3.31877e-09,0,19852,19852
302.051,3.28975e-09,0,19612,19612
302.101,3.26096e-09,0,19428,19428
302.151,3.23164e-09,0,19230,19230
302.201,3.20187e-09,0,18976,18976
302.25,3.17175e-09,0,18620,18620
302.3,3.14135e-09,0,18364,18364
302.35,3.11074e-09,0,18010,18010
302.401,3.07907e-09,0,17776,17776
302.451,3.04822e-09,0,17512,17512
302.501,3.01728e-09,0,17156,17156
302.551,2.9862e-09,0,16882,16882
302.601,2.95498e-09,0,16568,16568
302.65,2.92358e-09,0,16264,16264
302.7,2.89204e-09,0,16172,16172
302.751,2.85954e-09,0,15732,15732
302.801,2.82801e-09,0,15372,15372
302.851,2.79647e-09,0,15156,15156
302.901,2.76481e-09,0,14804,14804
302.951,2.73296e-09,0,14386,14386
303,2.70089e-09,0,14244,14244
303.05,2.66858e-09,0,13864,13864
303.101,2.63505e-09,0,13888,13888
303.151,2.60221e-09,0,13562,13562
303.201,2.56909e-09,0,13348,13348
303.251,2.5357e-09,0,13124,13124
303.301,2.50201e-09,0,12894,12894
303.35,2.468e-09,0,12660,12660
303.4,2.4336e-09,0,12490,12490
303.45,2.39869e-09,0,12316,12316
303.501,2.36211e-09,0,12138,12138
303.551,2.32588e-09,0,11966,11966
303.601,2.28895e-09,0,11814,11814
303.651,2.25143e-09,0,11648,11648
303.7,2.21346e-09,0,11464,11464
303.75,2.17514e-09,0,11370,11370
303.8,2.13644e-09,0,11368,11368
303.851,2.09612e-09,0,11404,11404
303.901,2.05648e-09,0,11372,11372
303.951,2.01648e-09,0,11332,11332
304.001,1.97623e-09,0,11262,11262
304.051,1.93585e-09,0,11134,11134
304.1,1.89482e-09,0,10994,10994
304.15,1.85206e-09,0,10828,10828
304.201,1.80782e-09,0,10634,10634
304.251,1.76521e-09,0,10444,10444
304.301,1.72261e-09,0,10240,10240
304.351,1.68001e-09,0,10042,10042
304.401,1.63747e-09,0,9800,9800
304.45,1.59503e-09,0,9586,9586
304.5,1.55277e-09,0,9392,9392
304.551,1.50949e-09,0,9164,9164
304.601,1.46769e-09,0,8936,8936
304.651,1.42612e-09,0,8740,8740
304.701,1.38483e-09,0,8560,8560
304.751,1.34389e-09,0,8362,8362
304.8,1.30342e-09,0,8142,8142
304.85,1.26347e-09,0,7938,7938
304.901,1.22288e-09,0,7764,7764
304.951,1.18398e-09,0,7580,7580
