250,0,0,512,512
250.012,0,0,512,512
250.059,0,0,512,512
250.105,0,0,512,512
250.152,0,0,512,512
250.211,0,0,512,512
250.258,0,0,512,512
250.305,0,0,512,512
250.352,0,0,512,512
250.41,0,0,512,512
250.457,0,0,512,512
250.504,0,0,512,512
250.551,0,0,512,512
250.609,0,0,512,512
250.656,0,0,512,512
250.703,0,0,512,512
250.762,0,0,512,512
250.808,0,0,512,512
250.855,0,0,512,512
250.902,0,0,512,512
250.961,0,0,512,512
251.008,0,0,512,512
251.055,0,0,512,512
251.101,0,0,512,512
251.16,0,0,512,512
251.207,0,0,512,512
251.254,0,0,512,512
251.301,0,0,512,512
251.359,0,0,512,512
251.406,0,0,512,512
251.453,0,0,512,512
251.511,0,0,512,512
251.558,0,0,512,512
251.605,0,0,512,512
251.652,0,0,512,512
251.711,0,0,512,512
251.758,0,0,512,512
251.804,0,0,512,512
251.851,0,0,512,512
251.91,0,0,512,512
251.957,0,0,512,512
252.004,0,0,512,512
252.05,0,0,512,512
252.109,0,0,512,512
252.156,0,0,512,512
252.203,0,0,512,512
252.261,0,0,512,512
252.308,0,0,512,512
252.355,0,0,512,512
252.402,0,0,512,512
252.461,0,0,512,512
252.507,0,0,512,512
252.554,0,0,512,512
252.601,0,0,512,512
252.66,0,0,512,512
252.707,0,0,512,512
252.754,0,0,512,512
252.8,0,0,512,512
252.859,0,0,512,512
252.906,0,0,512,512
252.953,0,0,512,512
253.011,0,0,512,512
253.058,0,0,512,512
253.105,0,0,512,512
253.152,0,0,512,512
253.21,0,0,512,512
253.257,0,0,512,512
253.304,0,0,512,512
253.351,0,0,512,512
253.41,0,0,512,512
253.457,0,0,512,512
253.503,0,0,512,512
253.55,0,0,512,512
253.609,0,0,512,512
253.656,0,0,512,512
253.703,0,0,512,512
253.761,0,0,512,512
253.808,0,0,512,512
253.855,0,0,512,512
253.902,0,0,512,512
253.96,0,0,512,512
254.007,0,0,512,512
254.054,0,0,512,512
254.101,0,0,512,512
254.16,0,0,512,512
254.206,0,0,512,512
254.253,0,0,512,512
254.3,0,0,512,512
254.359,0,0,512,512
254.406,0,0,512,512
254.452,0,0,512,512
254.511,0,0,512,512
254.558,0,0,512,512
254.605,0,0,512,512
254.652,0,0,512,512
254.71,0,0,512,512
254.757,0,0,512,512
254.804,0,0,512,512
254.851,0,0,512,512
254.909,0,0,512,512
254.956,0,0,512,512
255.003,0,0,512,512
255.05,0,0,512,512
255.109,0,0,512,512
255.155,0,0,512,512
255.202,0,0,512,512
255.261,0,0,512,512
255.308,0,0,512,512
255.355,0,0,512,512
255.402,0,0,512,512
255.46,0,0,512,512
255.507,0,0,512,512
255.554,0,0,512,512
255.601,0,0,512,512
255.659,0,0,512,512
255.706,0,0,512,512
255.753,0,0,512,512
255.812,0,0,512,512
255.859,0,0,512,512
255.905,0,0,512,512
255.952,0,0,512,512
256.011,0,0,512,512
256.058,0,0,512,512
256.105,0,0,512,512
256.151,0,0,512,512
256.21,0,0,512,512
256.257,0,0,512,512
256.304,0,0,512,512
256.351,0,0,512,512
256.409,0,0,512,512
256.456,0,0,512,512
256.503,0,0,512,512
256.562,0,0,512,512
256.608,0,0,512,512
256.655,0,0,512,512
256.702,0,0,512,512
256.761,0,0,512,512
256.808,0,0,512,512
256.854,0,0,512,512
256.901,0,0,512,512
256.96,0,0,512,512
257.007,0,0,512,512
257.054,0,0,512,512
257.101,0,0,512,512
257.159,0,0,512,512
257.206,0,0,512,512
257.253,0,0,512,512
257.311,0,0,512,512
257.358,0,0,512,512
257.405,0,0,512,512
257.452,0,0,512,512
257.511,0,0,512,512
257.557,0,0,512,512
257.604,0,0,512,512
257.651,0,0,512,512
257.71,0,0,512,512
257.757,0,0,512,512
257.804,0,0,512,512
257.85,2.77556e-17,0,512,512
257.909,2.77556e-17,0,512,512
257.956,2.77556e-17,0,512,512
258.003,2.77556e-17,0,512,512
258.061,2.77556e-17,0,512,512
258.108,2.77556e-17,0,512,512
258.155,2.77556e-17,0,512,512
258.202,2.77556e-17,0,512,512
258.261,2.77556e-17,0,512,512
258.307,2.77556e-17,0,512,512
258.354,2.77556e-17,0,512,512
258.401,2.77556e-17,0,512,512
258.46,2.77556e-17,0,512,512
258.507,2.77556e-17,0,512,512
258.553,2.77556e-17,0,512,512
258.6,2.77556e-17,0,512,512
258.659,2.77556e-17,0,512,512
258.706,2.77556e-17,0,512,512
258.753,2.77556e-17,0,512,512
258.811,2.77556e-17,0,512,512
258.858,2.77556e-17,0,512,512
258.905,2.77556e-17,0,512,512
258.952,0,0,512,512
259.01,0,0,512,512
259.057,0,0,512,512
259.104,0,0,512,512
259.151,2.77556e-17,0,512,512
259.21,2.77556e-17,0,512,512
259.256,2.77556e-17,0,512,512
259.303,2.77556e-17,0,512,512
259.35,2.77556e-17,0,512,512
259.409,2.77556e-17,0,512,512
259.456,2.77556e-17,0,512,512
259.503,2.77556e-17,0,512,512
259.561,2.77556e-17,0,512,512
259.608,2.77556e-17,0,512,512
259.655,2.77556e-17,0,512,512
259.702,2.77556e-17,0,512,512
259.76,2.77556e-17,0,512,512
259.807,2.77556e-17,0,512,512
259.854,2.77556e-17,0,512,512
259.901,2.77556e-17,0,512,512
259.959,2.77556e-17,0,512,512
260.006,2.77556e-17,0,512,512
260.053,2.77556e-17,0,512,512
260.1,2.77556e-17,0,512,512
260.159,2.77556e-17,0,512,512
260.206,0,0,512,512
260.252,0,0,512,512
260.311,0,0,512,512
260.358,0,0,512,512
260.405,0,0,512,512
260.452,0,0,512,512
260.51,0,0,512,512
260.557,0,0,512,512
260.604,0,0,512,512
260.651,0,0,512,512
260.709,0,0,512,512
260.756,0,0,512,512
260.803,0,0,512,512
260.862,0,0,512,512
260.909,0,0,512,512
260.955,0,0,512,512
261.002,0,0,512,512
261.061,0,0,512,512
261.108,0,0,512,512
261.155,0,0,512,512
261.201,0,0,512,512
261.26,0,0,512,512
261.307,0,0,512,512
261.354,0,0,512,512
261.401,0,0,512,512
261.459,0,0,512,512
261.506,0,0,512,512
261.553,0,0,512,512
261.612,0,0,512,512
261.658,0,0,512,512
261.705,0,0,512,512
261.752,0,0,512,512
261.811,0,0,512,512
261.858,0,0,512,512
261.905,0,0,512,512
261.951,0,0,512,512
262.01,0,0,512,512
262.057,0,0,512,512
262.104,0,0,512,512
262.151,0,0,512,512
262.209,0,0,512,512
262.256,0,0,512,512
262.303,0,0,512,512
262.361,0,0,512,512
262.408,0,0,512,512
262.455,0,0,512,512
262.502,0,0,512,512
262.561,0,0,512,512
262.608,0,0,512,512
262.654,0,0,512,512
262.701,0,0,512,512
262.76,0,0,512,512
262.807,0,0,512,512
262.854,0,0,512,512
262.9,0,0,512,512
262.959,0,0,512,512
263.006,0,0,512,512
263.053,0,0,512,512
263.111,-2.77556e-17,0,512,512
263.158,-2.77556e-17,0,512,512
263.205,-2.77556e-17,0,512,512
263.252,-2.77556e-17,0,512,512
263.311,-2.77556e-17,0,512,512
263.357,-2.77556e-17,0,512,512
263.404,-2.77556e-17,0,512,512
263.451,-2.77556e-17,0,512,512
263.51,-2.77556e-17,0,512,512
263.557,-2.77556e-17,0,512,512
263.603,-2.77556e-17,0,512,512
263.65,-2.77556e-17,0,512,512
263.709,-2.77556e-17,0,512,512
263.756,-2.77556e-17,0,512,512
263.803,-2.77556e-17,0,512,512
263.861,-2.77556e-17,0,512,512
263.908,-2.77556e-17,0,512,512
263.955,-2.77556e-17,0,512,512
264.002,-2.77556e-17,0,512,512
264.06,-2.77556e-17,0,512,512
264.107,-2.77556e-17,0,512,512
264.154,-2.77556e-17,0,512,512
264.201,-2.77556e-17,0,512,512
264.26,-2.77556e-17,0,512,512
264.306,-2.77556e-17,0,512,512
264.353,-2.77556e-17,0,512,512
264.4,-2.77556e-17,0,512,512
264.459,0,0,512,512
264.506,0,0,512,512
264.553,0,0,512,512
264.611,0,0,512,512
264.658,0,0,512,512
264.705,0,0,512,512
264.752,0,0,512,512
264.81,0,0,512,512
264.857,0,0,512,512
264.904,0,0,512,512
264.951,0,0,512,512
265.01,0,0,512,512
265.056,0,0,512,512
265.103,0,0,512,512
265.15,0,0,512,512
265.209,0,0,512,512
265.256,0,0,512,512
265.302,0,0,512,512
265.361,0,0,512,512
265.408,0,0,512,512
265.455,0,0,512,512
265.502,0,0,512,512
265.56,0,0,512,512
265.607,0,0,512,512
265.654,0,0,512,512
265.701,0,0,512,512
265.759,0,0,512,512
265.806,0,0,512,512
265.853,0,0,512,512
265.9,0,0,512,512
265.959,0,0,512,512
266.005,0,0,512,512
266.052,0,0,512,512
266.111,0,0,512,512
266.158,0,0,512,512
266.205,0,0,512,512
266.252,0,0,512,512
266.31,0,0,512,512
266.357,0,0,512,512
266.404,0,0,512,512
266.451,0,0,512,512
266.509,0,0,512,512
266.556,0,0,512,512
266.603,0,0,512,512
266.662,0,0,512,512
266.708,0,0,512,512
266.755,0,0,512,512
266.802,0,0,512,512
266.861,0,0,512,512
266.908,0,0,512,512
266.955,0,0,512,512
267.001,0,0,512,512
267.06,0,0,512,512
267.107,0,0,512,512
267.154,0,0,512,512
267.201,0,0,512,512
267.259,0,0,512,512
267.306,0,0,512,512
267.353,0,0,512,512
267.412,0,0,512,512
267.458,0,0,512,512
267.505,0,0,512,512
267.552,2.77556e-17,0,512,512
267.611,2.77556e-17,0,512,512
267.658,2.77556e-17,0,512,512
267.704,2.77556e-17,0,512,512
267.751,2.77556e-17,0,512,512
267.81,2.77556e-17,0,512,512
267.857,2.77556e-17,0,512,512
267.904,2.77556e-17,0,512,512
267.95,2.77556e-17,0,512,512
268.009,2.77556e-17,0,512,512
268.056,2.77556e-17,0,512,512
268.1,2.77556e-17,0,739,739
268.15,2.77556e-17,0,851,851
268.2,2.77556e-17,0,897,897
268.251,2.77556e-17,0,943,943
268.301,2.77556e-17,0,1065,1065
268.351,2.77556e-17,0,1115,1115
268.4,2.77556e-17,0,1145,1145
268.45,2.77556e-17,0,1185,1185
268.501,2.77556e-17,0,1223,1223
268.551,2.77556e-17,0,1229,1229
268.601,2.77556e-17,0,1183,1183
268.651,2.77556e-17,0,1227,1227
268.701,2.77556e-17,0,1267,1267
268.751,2.77556e-17,0,1339,1339
268.801,2.77556e-17,0,1399,1399
268.85,2.77556e-17,0,1415,1415
268.9,2.77556e-17,0,1505,1505
268.952,2.77556e-17,0,1573,1573
269.002,2.77556e-17,0,1609,1609
269.051,2.77556e-17,0,1647,1647
269.101,2.77556e-17,0,1641,1641
269.151,2.77556e-17,0,1655,1655
269.2,2.77556e-17,0,1669,1669
269.25,2.77556e-17,0,1663,1663
269.302,2.77556e-17,0,1711,1711
269.352,2.77556e-17,0,1747,1747
269.401,2.77556e-17,0,1747,1747
269.451,2.77556e-17,0,1855,1855
269.501,2.77556e-17,0,1961,1961
269.55,2.77556e-17,0,1949,1949
269.601,2.77556e-17,0,2045,2045
269.65,2.77556e-17,0,2251,2251
269.701,2.77556e-17,0,2369,2369
269.751,2.77556e-17,0,2919,2919
269.8,2.77556e-17,0,3571,3571
269.85,2.77556e-17,0,3875,3875
269.901,2.77556e-17,0,4607,4607
269.95,2.77556e-17,0,5383,5383
270,2.77556e-17,0,6225,6225
270.05,2.77556e-17,0,6935,6935
270.101,2.77556e-17,0,7743,7743
270.15,2.77556e-17,0,8515,8515
270.2,2.77556e-17,0,8971,8971
270.251,2.77556e-17,0,9417,9417
270.3,2.77556e-17,0,10053,10053
270.35,2.77556e-17,0,11021,11021
270.4,2.77556e-17,0,11845,11845
270.451,2.77556e-17,0,12697,12697
270.5,2.77556e-17,0,13441,13441
270.55,2.77556e-17,0,14371,14371
270.6,2.77556e-17,0,15139,15139
270.651,2.77556e-17,0,16007,16007
270.7,2.77556e-17,0,16935,16935
270.75,2.77556e-17,0,18139,18139
270.801,2.77556e-17,0,19237,19237
270.85,2.77556e-17,0,20063,20063
270.9,2.77556e-17,0,20955,20955
270.95,2.77556e-17,0,21831,21831
271.001,2.77556e-17,0,22719,22719
271.05,2.77556e-17,0,23553,23553
271.1,2.77556e-17,0,24413,24413
271.151,2.77556e-17,0,25205,25205
271.201,2.77556e-17,0,26017,26017
271.25,2.77556e-17,0,26855,26855
271.3,2.77556e-17,0,27733,27733
271.351,2.77556e-17,0,28619,28619
271.4,2.77556e-17,0,29495,29495
271.45,2.77556e-17,0,30353,30353
271.5,2.77556e-17,0,31253,31253
271.551,2.77556e-17,0,31717,31717
271.6,2.77556e-17,0,32157,32157
271.65,2.77556e-17,0,32971,32971
271.701,2.77556e-17,0,33757,33757
271.75,2.77556e-17,0,34607,34607
271.8,2.77556e-17,0,35447,35447
271.85,2.77556e-17,0,36265,36265
271.901,2.77556e-17,0,37149,37149
271.95,2.77556e-17,0,37945,37945
272,2.77556e-17,0,38849,38849
272.051,2.77556e-17,0,39685,39685
272.101,2.77556e-17,0,40547,40547
272.15,2.77556e-17,0,41361,41361
272.2,2.77556e-17,0,42129,42129
272.251,2.77556e-17,0,42989,42989
272.3,2.77556e-17,0,43823,43823
272.35,2.77556e-17,0,44625,44625
272.4,2.77556e-17,0,45507,45507
272.451,2.77556e-17,0,46309,46309
272.5,2.77556e-17,0,47119,47119
272.55,2.77556e-17,0,47993,47993
272.601,-4.44089e-16,0,48785,48785
272.65,-2.27596e-15,0,49563,49563
272.7,-4.16334e-15,0,50357,50357
272.75,-6.02296e-15,0,51151,51151
272.801,-7.74381e-15,0,51935,51935
272.85,-9.35363e-15,0,52775,52775
272.9,-1.12133e-14,0,53571,53571
272.951,-1.30729e-14,0,54389,54389
273.001,-1.49603e-14,0,55199,55199
273.05,-1.80134e-14,0,56025,56025
273.1,-2.48412e-14,0,56855,56855
273.151,-3.91631e-14,0,57537,57537
273.2,-6.65024e-14,0,58377,58377
273.25,-1.17018e-13,0,59483,59483
273.3,-2.06279e-13,0,59977,59977
273.351,-3.61378e-13,0,61001,61001
273.4,-6.14175e-13,0,61539,61539
273.45,-1.01777e-12,0,62495,62495
273.501,-1.65318e-12,0,62699,62699
273.55,-2.59423e-12,0,62773,62773
273.6,-3.96022e-12,0,63023,63023
273.65,-5.88007e-12,0,63083,63083
273.701,-8.53417e-12,0,63067,63067
273.75,-1.19734e-11,0,62711,62711
273.8,-1.6324e-11,0,62885,62885
273.85,-2.16163e-11,0,62595,62595
273.901,-2.78841e-11,0,62649,62649
273.95,-3.47593e-11,0,62849,62849
274,-4.2004e-11,0,63225,63225
274.051,-4.92613e-11,0,63545,63545
274.1,-5.57402e-11,0,63935,63935
274.15,-6.09037e-11,0,64251,64251
274.2,-6.41007e-11,0,64509,64509
274.251,-6.47356e-11,0,65063,65063
274.3,-6.23474e-11,0,65371,65371
274.35,-5.67442e-11,0,65453,65453
274.401,-4.78167e-11,0,65543,65543
274.45,-3.61495e-11,0,65545,65545
274.5,-2.22121e-11,0,65519,65519
274.55,-6.76487e-12,0,65557,65557
274.601,9.58242e-12,0,64973,64973
274.65,2.55207e-11,0,64905,64905
274.7,4.05789e-11,0,64313,64313
274.75,5.42371e-11,0,64011,64011
274.801,6.63505e-11,0,63765,63765
274.85,7.64605e-11,0,63829,63829
274.9,8.48121e-11,0,63125,63125
274.951,9.16587e-11,0,62819,62819
275,9.7029e-11,0,62675,62675
275.05,1.01277e-10,0,62427,62427
275.1,1.04645e-10,0,61963,61963
275.151,1.07399e-10,0,61675,61675
275.201,1.09685e-10,0,61547,61547
275.25,1.1172e-10,0,61039,61039
275.3,1.13745e-10,0,61031,61031
275.35,1.1582e-10,0,60549,60549
275.401,1.18024e-10,0,60149,60149
275.45,1.20101e-10,0,60029,60029
275.5,1.21752e-10,0,59777,59777
275.551,1.22262e-10,0,59251,59251
275.6,1.20705e-10,0,59083,59083
275.65,1.15967e-10,0,58473,58473
275.7,1.06848e-10,0,58269,58269
275.751,9.2324e-11,0,57733,57733
275.8,7.24375e-11,0,57595,57595
275.85,4.44642e-11,0,57271,57271
275.9,9.5137e-12,0,57245,57245
275.95,-5.97111e-12,0,56711,56711
276.001,1.87315e-11,0,56603,56603
276.05,1.05127e-10,0,56621,56621
276.1,7.23134e-10,0,56017,56017
276.15,4.00981e-09,0,55889,55889
276.201,1.06016e-08,0,55515,55515
276.25,1.7542e-08,0,55891,55891
276.3,2.3678e-08,0,55235,55235
276.351,2.83587e-08,0,55379,55379
276.4,3.13958e-08,0,55463,55463
276.45,3.37318e-08,0,55073,55073
276.5,3.66753e-08,0,54655,54655
276.551,4.19094e-08,0,54509,54509
276.601,5.01517e-08,0,54273,54273
276.65,6.10946e-08,0,54167,54167
276.7,7.45022e-08,0,54017,54017
276.75,8.98618e-08,0,53903,53903
276.8,1.08249e-07,0,53671,53671
276.85,1.31207e-07,0,53571,53571
276.9,1.6029e-07,0,53411,53411
276.951,1.96553e-07,0,53411,53411
277.001,2.39411e-07,0,53177,53177
277.05,2.88402e-07,0,53029,53029
277.101,3.41444e-07,0,52977,52977
277.15,3.95505e-07,0,52889,52889
277.201,4.51743e-07,0,52669,52669
277.25,5.09406e-07,0,52603,52603
277.3,5.70898e-07,0,52803,52803
277.35,6.35954e-07,0,52639,52639
277.401,7.01584e-07,0,52889,52889
277.45,7.62228e-07,0,53007,53007
277.5,8.1503e-07,0,53081,53081
277.55,8.57415e-07,0,53273,53273
277.6,8.8844e-07,0,53389,53389
277.651,9.08787e-07,0,53425,53425
277.701,9.20311e-07,0,53487,53487
277.75,9.25674e-07,0,53223,53223
277.801,9.26772e-07,0,53029,53029
277.851,9.26761e-07,0,53153,53153
277.9,9.21836e-07,0,52969,52969
277.95,9.12021e-07,0,52971,52971
278,8.97121e-07,0,52993,52993
278.051,8.75717e-07,0,52927,52927
278.1,8.47065e-07,0,52829,52829
278.151,8.09265e-07,0,52811,52811
278.201,7.63693e-07,0,52784,52784
278.251,7.11072e-07,0,52702,52702
278.301,6.54118e-07,0,52596,52596
278.35,5.97145e-07,0,52468,52468
278.4,5.41714e-07,0,52298,52298
278.45,4.89403e-07,0,52172,52172
278.5,4.4094e-07,0,51868,51868
278.551,3.96428e-07,0,51216,51216
278.601,3.55406e-07,0,50612,50612
278.65,3.17869e-07,0,49990,49990
278.701,2.81724e-07,0,49404,49404
278.75,2.47877e-07,0,48828,48828
278.801,2.15175e-07,0,48228,48228
278.85,1.85824e-07,0,47648,47648
278.9,1.60819e-07,0,47042,47042
278.95,1.41294e-07,0,46364,46364
279.001,1.26358e-07,0,45600,45600
279.051,1.1404e-07,0,44856,44856
279.101,1.01344e-07,0,44136,44136
279.15,8.75976e-08,0,43454,43454
279.2,7.34332e-08,0,42686,42686
279.251,6.11138e-08,0,41944,41944
279.301,5.19359e-08,0,41342,41342
279.35,4.59887e-08,0,40682,40682
279.401,4.21146e-08,0,39984,39984
279.45,3.90797e-08,0,39280,39280
279.5,3.53916e-08,0,38556,38556
279.551,3.01113e-08,0,37934,37934
279.601,2.38729e-08,0,37250,37250
279.651,1.81865e-08,0,36548,36548
279.701,1.47808e-08,0,35860,35860
279.751,1.41037e-08,0,34886,34886
279.801,1.53262e-08,0,33800,33800
279.85,1.69904e-08,0,33880,33880
279.9,1.90692e-08,0,33792,33792
279.95,2.13081e-08,0,34566,34566
280,2.37657e-08,0,34652,34652
280.051,2.65139e-08,0,35918,35918
280.101,2.94048e-08,0,36176,36176
280.15,3.24411e-08,0,37640,37640
280.2,3.56606e-08,0,38507,38507
280.251,3.93534e-08,0,38725,38725
280.3,4.29474e-08,0,39445,39445
280.351,4.68166e-08,0,40487,40487
280.4,5.0632e-08,0,41017,41017
280.45,5.47816e-08,0,41971,41971
280.501,5.88724e-08,0,43261,43261
280.551,6.31164e-08,0,44050,44050
280.601,6.74035e-08,0,44780,44780
280.651,7.1722e-08,0,45464,45464
280.701,7.60849e-08,0,46172,46172
280.751,8.04601e-08,0,46834,46834
280.801,8.5071e-08,0,47532,47532
280.85,9.03629e-08,0,48128,48128
280.901,9.72795e-08,0,48764,48764
280.95,1.05824e-07,0,49434,49434
281.001,1.15263e-07,0,50102,50102
281.05,1.24046e-07,0,50696,50696
281.101,1.31837e-07,0,51206,51206
281.15,1.38234e-07,0,51812,51812
281.2,1.44101e-07,0,52384,52384
281.25,1.50202e-07,0,53056,53056
281.3,1.57534e-07,0,53704,53704
281.351,1.67195e-07,0,54306,54306
281.4,1.78842e-07,0,54780,54780
281.451,1.9287e-07,0,55358,55358
281.501,2.09291e-07,0,55944,55944
281.551,2.28566e-07,0,56446,56446
281.6,2.51585e-07,0,57088,57088
281.651,2.79872e-07,0,57586,57586
281.701,3.13699e-07,0,58222,58222
281.751,3.53003e-07,0,58788,58788
281.801,3.96916e-07,0,59106,59106
281.85,4.44042e-07,0,59624,59624
281.901,4.9391e-07,0,60126,60126
281.951,5.44942e-07,0,60476,60476
282.001,5.97141e-07,0,61312,61312
282.05,6.50631e-07,0,61624,61624
282.101,7.05684e-07,0,62546,62546
282.15,7.58422e-07,0,63144,63144
282.2,8.07708e-07,0,63626,63626
282.25,8.49544e-07,0,64146,64146
282.301,8.82202e-07,0,64486,64486
282.35,9.03699e-07,0,64902,64902
282.4,9.15195e-07,0,65334,65334
282.45,9.17669e-07,0,65572,65572
282.5,9.13728e-07,0,65568,65568
282.55,9.04586e-07,0,65594,65594
282.6,8.916e-07,0,66294,66294
282.65,8.74809e-07,0,66564,66564
282.7,8.5354e-07,0,67438,67438
282.75,8.27194e-07,0,67948,67948
282.801,7.94601e-07,0,68516,68516
282.85,7.56179e-07,0,69154,69154
282.9,7.10306e-07,0,69784,69784
282.95,6.5796e-07,0,70536,70536
283.001,5.99483e-07,0,71216,71216
283.05,5.38894e-07,0,71996,71996
283.1,4.76752e-07,0,72748,72748
283.15,4.16383e-07,0,73517,73517
283.2,3.59457e-07,0,74315,74315
283.25,3.06841e-07,0,74655,74655
283.3,2.57979e-07,0,74969,74969
283.351,2.13459e-07,0,75215,75215
283.4,1.72724e-07,0,75145,75145
283.45,1.35212e-07,0,75431,75431
283.501,1.00061e-07,0,75857,75857
283.55,6.84594e-08,0,76201,76201
283.6,3.99602e-08,0,76507,76507
283.65,1.58302e-08,0,76903,76903
283.7,-3.57598e-09,0,77403,77403
283.75,-1.89789e-08,0,77749,77749
283.801,-3.14236e-08,0,78167,78167
283.851,-4.24506e-08,0,78479,78479
283.901,-5.29128e-08,0,78801,78801
283.95,-6.26458e-08,0,79259,79259
284.001,-7.09732e-08,0,79543,79543
284.051,-7.69377e-08,0,79915,79915
284.101,-8.0174e-08,0,80263,80263
284.151,-8.12528e-08,0,80611,80611
284.2,-8.15035e-08,0,80953,80953
284.25,-8.17092e-08,0,81269,81269
284.301,-8.19861e-08,0,81585,81585
284.35,-8.22592e-08,0,82177,82177
284.4,-8.23595e-08,0,82617,82617
284.451,-8.22602e-08,0,83143,83143
284.5,-8.06955e-08,0,83537,83537
284.55,-7.67811e-08,0,83939,83939
284.6,-7.24571e-08,0,84123,84123
284.651,-6.79634e-08,0,84469,84469
284.7,-6.36279e-08,0,84529,84529
284.75,-5.94943e-08,0,84575,84575
284.801,-5.55797e-08,0,84599,84599
284.851,-5.20196e-08,0,84556,84556
284.9,-4.87588e-08,0,84334,84334
284.95,-4.58112e-08,0,84062,84062
285.001,-4.31397e-08,0,83645,83645
285.05,-4.08196e-08,0,83575,83575
285.1,-3.88051e-08,0,83590,83590
285.15,-3.7081e-08,0,83578,83578
285.201,-3.56044e-08,0,83790,83790
285.25,-3.43969e-08,0,84472,84472
285.3,-3.34065e-08,0,84932,84932
285.351,-3.25459e-08,0,85338,85338
285.4,-3.19906e-08,0,85732,85732
285.45,-3.14535e-08,0,86214,86214
285.5,-3.11157e-08,0,86740,86740
285.551,-3.09993e-08,0,87262,87262
285.6,-3.10621e-08,0,87768,87768
285.65,-3.11626e-08,0,88253,88253
285.701,-3.13412e-08,0,88971,88971
285.751,-3.15219e-08,0,89419,89419
285.8,-3.17206e-08,0,89824,89824
285.85,-3.19362e-08,0,90124,90124
285.901,-3.21598e-08,0,90368,90368
285.95,-3.23891e-08,0,90562,90562
286,-3.26338e-08,0,90740,90740
286.05,-3.28897e-08,0,90770,90770
286.101,-3.31529e-08,0,90834,90834
286.15,-3.34114e-08,0,90906,90906
286.2,-3.36548e-08,0,91016,91016
286.251,-3.38919e-08,0,90998,90998
286.3,-3.41102e-08,0,90588,90588
286.35,-3.4316e-08,0,90040,90040
286.4,-3.45073e-08,0,89252,89252
286.451,-3.46867e-08,0,88612,88612
286.5,-3.48447e-08,0,87968,87968
286.55,-3.49851e-08,0,87050,87050
286.601,-3.51072e-08,0,86218,86218
286.651,-3.5207e-08,0,85400,85400
286.7,-3.52858e-08,0,84712,84712
286.75,-3.53455e-08,0,84020,84020
286.801,-3.53975e-08,0,83138,83138
286.85,-3.54123e-08,0,82346,82346
286.9,-3.5377e-08,0,81496,81496
286.95,-3.53501e-08,0,80714,80714
287.001,-3.53033e-08,0,80034,80034
287.05,-3.52566e-08,0,79476,79476
287.1,-3.52047e-08,0,78798,78798
287.151,-3.51415e-08,0,78050,78050
287.2,-3.50717e-08,0,77192,77192
287.25,-3.49985e-08,0,76498,76498
287.3,-3.49242e-08,0,75668,75668
287.351,-3.48486e-08,0,74870,74870
287.4,-3.47752e-08,0,74190,74190
287.45,-3.47046e-08,0,73352,73352
287.5,-3.46369e-08,0,72606,72606
287.551,-3.45708e-08,0,71888,71888
287.6,-3.45096e-08,0,71202,71202
287.65,-3.44535e-08,0,70472,70472
287.701,-3.44021e-08,0,69790,69790
287.75,-3.43566e-08,0,69174,69174
287.8,-3.43164e-08,0,68538,68538
287.85,-3.42826e-08,0,67682,67682
287.901,-3.42579e-08,0,67074,67074
287.95,-3.42401e-08,0,66408,66408
288,-3.42151e-08,0,65748,65748
288.051,-3.42216e-08,0,65040,65040
288.101,-3.42288e-08,0,64834,64834
288.15,-3.42246e-08,0,63938,63938
288.2,-3.42131e-08,0,63406,63406
288.251,-3.42291e-08,0,62620,62620
288.3,-3.42386e-08,0,61622,61622
288.35,-3.42978e-08,0,60740,60740
288.4,-3.42945e-08,0,59922,59922
288.451,-3.43495e-08,0,59394,59394
288.5,-3.4409e-08,0,58750,58750
288.55,-3.44733e-08,0,58476,58476
288.601,-3.45571e-08,0,58210,58210
288.65,-3.46398e-08,0,58102,58102
288.7,-3.47238e-08,0,57582,57582
288.75,-3.48153e-08,0,57432,57432
288.801,-3.49134e-08,0,57204,57204
288.85,-3.50121e-08,0,56592,56592
288.9,-3.51046e-08,0,55982,55982
288.951,-3.5268e-08,0,55548,55548
289.001,-3.5439e-08,0,55224,55224
289.05,-3.56191e-08,0,54444,54444
289.1,-3.58119e-08,0,52442,52442
289.151,-3.60043e-08,0,51534,51534
289.2,-3.62442e-08,0,49952,49952
289.25,-3.65244e-08,0,48712,48712
289.3,-3.68108e-08,0,47422,47422
289.351,-3.71128e-08,0,46064,46064
289.4,-3.74352e-08,0,45224,45224
289.45,-3.77837e-08,0,44288,44288
289.501,-3.8168e-08,0,43570,43570
289.55,-3.85705e-08,0,42636,42636
289.6,-3.89831e-08,0,41832,41832
289.65,-3.93866e-08,0,41030,41030
289.701,-3.97849e-08,0,40894,40894
289.75,-4.01868e-08,0,39620,39620
289.8,-4.06555e-08,0,38744,38744
289.851,-4.10623e-08,0,37744,37744
289.901,-4.14509e-08,0,36848,36848
289.95,-4.18269e-08,0,35864,35864
290,-4.21786e-08,0,34856,34856
290.051,-4.25067e-08,0,34154,34154
290.1,-4.27997e-08,0,33158,33158
290.15,-4.30586e-08,0,32052,32052
290.2,-4.32832e-08,0,31072,31072
290.251,-4.34767e-08,0,30124,30124
290.3,-4.36351e-08,0,29030,29030
290.35,-4.37512e-08,0,27700,27700
290.401,-4.38696e-08,0,26716,26716
290.45,-4.38398e-08,0,25982,25982
290.5,-4.37977e-08,0,25496,25496
290.55,-4.36659e-08,0,25404,25404
290.601,-4.35109e-08,0,25474,25474
290.65,-4.3324e-08,0,25040,25040
290.7,-4.31152e-08,0,24722,24722
290.75,-4.28824e-08,0,24316,24316
290.801,-4.26206e-08,0,23730,23730
290.85,-4.23244e-08,0,22994,22994
290.9,-4.19825e-08,0,21886,21886
290.951,-4.15805e-08,0,21408,21408
291,-4.11378e-08,0,21438,21438
291.05,-4.06504e-08,0,20636,20636
291.1,-4.01325e-08,0,19460,19460
291.151,-3.95674e-08,0,18790,18790
291.2,-3.89722e-08,0,17848,17848
291.25,-3.83315e-08,0,17040,17040
291.301,-3.76366e-08,0,16288,16288
291.351,-3.69062e-08,0,15534,15534
291.4,-3.6119e-08,0,14982,14982
291.45,-3.52902e-08,0,14102,14102
291.501,-3.44284e-08,0,13328,13328
291.55,-3.35622e-08,0,12586,12586
291.6,-3.26856e-08,0,11844,11844
291.65,-3.18041e-08,0,11146,11146
291.701,-3.09074e-08,0,10416,10416
291.75,-3.00259e-08,0,9652,9652
291.8,-2.91464e-08,0,9446,9446
291.85,-2.82807e-08,0,9410,9410
291.901,-2.74045e-08,0,9359,9359
291.951,-2.65777e-08,0,9488,9488
292.001,-2.57803e-08,0,9609,9609
292.05,-2.50145e-08,0,9773,9773
292.101,-2.42591e-08,0,9965,9965
292.15,-2.35737e-08,0,10040,10040
292.201,-2.29184e-08,0,10206,10206
292.251,-2.23129e-08,0,10136,10136
292.301,-2.1754e-08,0,10132,10132
292.351,-2.12467e-08,0,10124,10124
292.401,-2.07921e-08,0,10152,10152
292.451,-2.03856e-08,0,10188,10188
292.5,-2.00258e-08,0,10246,10246
292.551,-1.97041e-08,0,10306,10306
292.601,-1.94372e-08,0,10384,10384
292.651,-1.91982e-08,0,10302,10302
292.7,-1.89956e-08,0,10090,10090
292.75,-1.88119e-08,0,9938,9938
292.801,-1.86543e-08,0,9868,9868
292.851,-1.8519e-08,0,9858,9858
292.901,-1.84026e-08,0,9840,9840
292.95,-1.83002e-08,0,9758,9758
293.001,-1.8207e-08,0,9628,9628
293.051,-1.81275e-08,0,9600,9600
293.102,-1.80535e-08,0,9568,9568
293.151,-1.79892e-08,0,9546,9546
293.201,-1.79308e-08,0,9678,9678
293.251,-1.78791e-08,0,9822,9822
293.301,-1.78303e-08,0,9934,9934
293.351,-1.77826e-08,0,10040,10040
293.401,-1.77435e-08,0,10132,10132
293.451,-1.76972e-08,0,10267,10267
293.5,-1.76536e-08,0,10577,10577
293.551,-1.76081e-08,0,10621,10621
293.6,-1.75626e-08,0,10643,10643
293.651,-1.75135e-08,0,10631,10631
293.701,-1.74607e-08,0,10631,10631
293.75,-1.74053e-08,0,10633,10633
293.8,-1.7343e-08,0,10695,10695
293.85,-1.72744e-08,0,10723,10723
293.901,-1.71967e-08,0,10727,10727
293.951,-1.71143e-08,0,10753,10753
294,-1.70239e-08,0,10799,10799
294.051,-1.69224e-08,0,10853,10853
294.1,-1.68166e-08,0,10877,10877
294.151,-1.67e-08,0,10907,10907
294.201,-1.65761e-08,0,10931,10931
294.251,-1.64456e-08,0,10965,10965
294.301,-1.63089e-08,0,11003,11003
294.351,-1.61665e-08,0,11051,11051
294.401,-1.60187e-08,0,11076,11076
294.451,-1.58656e-08,0,11106,11106
294.501,-1.57077e-08,0,11124,11124
294.55,-1.55451e-08,0,11120,11120
294.6,-1.53782e-08,0,11170,11170
294.65,-1.52071e-08,0,11194,11194
294.701,-1.50271e-08,0,11224,11224
294.751,-1.48482e-08,0,11216,11216
294.801,-1.46648e-08,0,11218,11218
294.851,-1.44764e-08,0,11258,11258
294.901,-1.42825e-08,0,11236,11236
294.95,-1.40828e-08,0,11268,11268
295,-1.38771e-08,0,11264,11264
295.051,-1.36587e-08,0,11082,11082
295.101,-1.34398e-08,0,10896,10896
295.151,-1.32168e-08,0,10688,10688
295.201,-1.29707e-08,0,10616,10616
295.251,-1.27177e-08,0,10560,10560
295.3,-1.24641e-08,0,10454,10454
295.35,-1.22036e-08,0,10398,10398
295.401,-1.19254e-08,0,10348,10348
295.451,-1.16453e-08,0,10354,10354
295.501,-1.13535e-08,0,10306,10306
295.551,-1.1048e-08,0,10264,10264
295.601,-1.07267e-08,0,10260,10260
295.65,-1.03871e-08,0,10188,10188
295.7,-1.00259e-08,0,10172,10172
295.75,-9.63769e-09,0,10106,10106
295.801,-9.20925e-09,0,10040,10040
295.851,-8.78508e-09,0,9928,9928
295.901,-8.36434e-09,0,9808,9808
295.951,-7.76758e-09,0,9686,9686
296,-7.20947e-09,0,9588,9588
296.05,-6.62763e-09,0,9506,9506
296.1,-6.01711e-09,0,9318,9318
296.151,-5.3586e-09,0,9134,9134
296.201,-4.69215e-09,0,8958,8958
296.251,-4.00352e-09,0,8836,8836
296.301,-3.29894e-09,0,8692,8692
296.351,-2.58502e-09,0,8584,8584
296.4,-1.86807e-09,0,8500,8500
296.45,-1.15443e-09,0,8448,8448
296.501,-4.27562e-10,0,8320,8320
296.551,2.67346e-10,0,8234,8234
296.601,9.46906e-10,0,8148,8148
296.651,1.60697e-09,0,8068,8068
296.702,2.25943e-09,0,8019,8019
296.751,2.85654e-09,0,8003,8003
296.802,3.44258e-09,0,8057,8057
296.85,3.97029e-09,0,8076,8076
296.901,4.47676e-09,0,8134,8134
296.951,4.9381e-09,0,8180,8180
297,5.33803e-09,0,8182,8182
297.05,5.70705e-09,0,8196,8196
297.101,6.03072e-09,0,8187,8187
297.151,6.31152e-09,0,8197,8197
297.201,6.55067e-09,0,8181,8181
297.251,6.7471e-09,0,8151,8151
297.301,6.87573e-09,0,8125,8125
297.351,6.94394e-09,0,8095,8095
297.4,6.97297e-09,0,8055,8055
297.452,6.96883e-09,0,8023,8023
297.501,6.95895e-09,0,7981,7981
297.552,6.94146e-09,0,7941,7941
297.6,6.91837e-09,0,7917,7917
297.651,6.88345e-09,0,7869,7869
297.701,6.8323e-09,0,7837,7837
297.751,6.75949e-09,0,7805,7805
297.801,6.67896e-09,0,7755,7755
297.85,6.59307e-09,0,7739,7739
297.901,6.49961e-09,0,7695,7695
297.951,6.40518e-09,0,7655,7655
298.002,6.30427e-09,0,7607,7607
298.05,6.20464e-09,0,7567,7567
298.101,6.0995e-09,0,7537,7537
298.151,5.99356e-09,0,7485,7485
298.201,5.88846e-09,0,7469,7469
298.251,5.78568e-09,0,7405,7405
298.301,5.6864e-09,0,7377,7377
298.35,5.59128e-09,0,7355,7355
298.401,5.49781e-09,0,7329,7329
298.451,5.41269e-09,0,7309,7309
298.501,5.33036e-09,0,7323,7323
298.55,5.25643e-09,0,7311,7311
298.6,5.18592e-09,0,7303,7303
298.651,5.1215e-09,0,7297,7297
298.701,5.06314e-09,0,7301,7301
298.75,5.01076e-09,0,7321,7321
298.8,4.96428e-09,0,7335,7335
298.851,4.9222e-09,0,7347,7347
298.9,4.88667e-09,0,7359,7359
298.951,4.85431e-09,0,7383,7383
299,4.82617e-09,0,7381,7381
299.051,4.79935e-09,0,7403,7403
299.101,4.77401e-09,0,7381,7381
299.151,4.74949e-09,0,7395,7395
299.201,4.72524e-09,0,7397,7397
299.25,4.70091e-09,0,7387,7387
299.302,4.67552e-09,0,7399,7399
299.351,4.65048e-09,0,7391,7391
299.4,4.62485e-09,0,7383,7383
299.451,4.5977e-09,0,7359,7359
299.501,4.5698e-09,0,7365,7365
299.551,4.54109e-09,0,7359,7359
299.6,4.51256e-09,0,7323,7323
299.65,4.48247e-09,0,7317,7317
299.701,4.45092e-09,0,7303,7303
299.751,4.41999e-09,0,7267,7267
299.8,4.38891e-09,0,7267,7267
299.851,4.35687e-09,0,7233,7233
299.9,4.32596e-09,0,7239,7239
299.951,4.29435e-09,0,7201,7201
300.001,4.26317e-09,0,7183,7183
300.051,4.23255e-09,0,7191,7191
300.102,4.20264e-09,0,7187,7187
300.151,4.17354e-09,0,7155,7155
300.201,4.14533e-09,0,7163,7163
300.251,4.11802e-09,0,7171,7171
300.3,4.09164e-09,0,7145,7145
300.351,4.0654e-09,0,7159,7159
300.401,4.04009e-09,0,7133,7133
300.45,4.01635e-09,0,7183,7183
300.501,3.99268e-09,0,7179,7179
300.551,3.96976e-09,0,7163,7163
300.601,3.9475e-09,0,7217,7217
300.65,3.92579e-09,0,7243,7243
300.7,3.9045e-09,0,7239,7239
300.751,3.88288e-09,0,7231,7231
300.801,3.86207e-09,0,7207,7207
300.851,3.84133e-09,0,7175,7175
300.901,3.82059e-09,0,7161,7161
300.951,3.79976e-09,0,7140,7140
301,3.77879e-09,0,7128,7128
301.05,3.75763e-09,0,7112,7112
301.1,3.73622e-09,0,7018,7018
301.151,3.71386e-09,0,6982,6982
301.201,3.69177e-09,0,6960,6960
301.251,3.66931e-09,0,6926,6926
301.301,3.64651e-09,0,6856,6856
301.35,3.62336e-09,0,6836,6836
301.4,3.59983e-09,0,6786,6786
301.45,3.57588e-09,0,6746,6746
301.501,3.55081e-09,0,6692,6692
301.551,3.52612e-09,0,6634,6634
301.601,3.50115e-09,0,6556,6556
301.651,3.4759e-09,0,6522,6522
301.701,3.45038e-09,0,6436,6436
301.75,3.42454e-09,0,6364,6364
301.8,3.39835e-09,0,6298,6298
301.851,3.37103e-09,0,6246,6246
301.901,3.34412e-09,0,6178,6178
301.951,3.31688e-09,0,6122,6122
302.001,3.28934e-09,0,6080,6080
302.051,3.26158e-09,0,5992,5992
302.1,3.23368e-09,0,5972,5972
302.15,3.20566e-09,0,5900,5900
302.201,3.17671e-09,0,5850,5850
302.251,3.14843e-09,0,5804,5804
302.301,3.11997e-09,0,5734,5734
302.351,3.09129e-09,0,5572,5572
302.401,3.06238e-09,0,5396,5396
302.45,3.03323e-09,0,5238,5238
302.5,3.00384e-09,0,5084,5084
302.551,2.97334e-09,0,4894,4894
302.601,2.94347e-09,0,4698,4698
302.651,2.91338e-09,0,4496,4496
302.701,2.88307e-09,0,4274,4274
302.751,2.85253e-09,0,4102,4102
302.8,2.82176e-09,0,3948,3948
302.85,2.79076e-09,0,3784,3784
302.9,2.7595e-09,0,3628,3628
302.951,2.72706e-09,0,3442,3442
303.001,2.69527e-09,0,3242,3242
303.051,2.6632e-09,0,3064,3064
303.101,2.63084e-09,0,2902,2902
303.15,2.59817e-09,0,2742,2742
303.2,2.56517e-09,0,2572,2572
303.25,2.53183e-09,0,2416,2416
303.301,2.49713e-09,0,2226,2226
303.351,2.46301e-09,0,2066,2066
303.401,2.42848e-09,0,1882,1882
303.451,2.39349e-09,0,1714,1714
303.501,2.35754e-09,0,1572,1572
303.552,2.32106e-09,0,1472,1472
303.602,2.28464e-09,0,1424,1424
303.653,2.24654e-09,0,1405,1405
303.703,2.20922e-09,0,1407,1407
303.752,2.17142e-09,0,1407,1407
303.802,2.13316e-09,0,1403,1403
303.852,2.09445e-09,0,1407,1407
303.902,2.0553e-09,0,1403,1403
303.951,2.01574e-09,0,1405,1405
304.001,1.9758e-09,0,1400,1400
304.051,1.93551e-09,0,1396,1396
304.1,1.8949e-09,0,1388,1388
304.15,1.854e-09,0,1374,1374
304.204,1.80939e-09,0,1358,1358
304.254,1.76794e-09,0,1346,1346
304.303,1.72624e-09,0,1334,1334
304.353,1.68433e-09,0,1312,1312
304.403,1.64225e-09,0,1298,1298
304.453,1.6001e-09,0,1280,1280
304.502,1.55798e-09,0,1268,1268
304.552,1.51601e-09,0,1258,1258
304.602,1.47428e-09,0,1240,1240
304.651,1.43288e-09,0,1228,1228
304.701,1.39186e-09,0,1216,1216
304.751,1.3513e-09,0,1200,1200
304.801,1.31121e-09,0,1184,1184
304.85,1.27163e-09,0,1174,1174
304.904,1.22936e-09,0,1158,1158
304.954,1.19092e-09,0,1142,1142
