250,0,0,512,512
250.012,0,0,512,512
250.059,0,0,512,512
250.105,0,0,512,512
250.152,0,0,512,512
250.211,0,0,512,512
250.258,0,0,512,512
250.305,0,0,512,512
250.352,0,0,512,512
250.41,0,0,512,512
250.457,0,0,512,512
250.504,0,0,512,512
250.551,0,0,512,512
250.609,0,0,512,512
250.656,0,0,512,512
250.703,0,0,512,512
250.762,0,0,512,512
250.808,0,0,512,512
250.855,0,0,512,512
250.902,0,0,512,512
250.961,2.77556e-17,0,512,512
251.008,2.77556e-17,0,512,512
251.055,2.77556e-17,0,512,512
251.101,0,0,512,512
251.16,0,0,512,512
251.207,0,0,512,512
251.254,0,0,512,512
251.301,0,0,512,512
251.359,0,0,512,512
251.406,0,0,512,512
251.453,0,0,512,512
251.511,0,0,512,512
251.558,0,0,512,512
251.605,0,0,512,512
251.652,0,0,512,512
251.711,0,0,512,512
251.758,0,0,512,512
251.804,0,0,512,512
251.851,0,0,512,512
251.91,0,0,512,512
251.957,0,0,512,512
252.004,0,0,512,512
252.05,0,0,512,512
252.109,0,0,512,512
252.156,0,0,512,512
252.203,0,0,512,512
252.261,0,0,512,512
252.308,0,0,512,512
252.355,0,0,512,512
252.402,0,0,512,512
252.461,0,0,512,512
252.507,-2.77556e-17,0,512,512
252.554,-2.77556e-17,0,512,512
252.601,-2.77556e-17,0,512,512
252.66,-2.77556e-17,0,512,512
252.707,-2.77556e-17,0,512,512
252.754,-2.77556e-17,0,512,512
252.8,0,0,512,512
252.859,0,0,512,512
252.906,-2.77556e-17,0,512,512
252.953,-2.77556e-17,0,512,512
253.011,-2.77556e-17,0,512,512
253.058,-2.77556e-17,0,512,512
253.105,-2.77556e-17,0,512,512
253.152,-2.77556e-17,0,512,512
253.21,-2.77556e-17,0,512,512
253.257,-2.77556e-17,0,512,512
253.304,-2.77556e-17,0,512,512
253.351,0,0,512,512
253.41,0,0,512,512
253.457,0,0,512,512
253.503,0,0,512,512
253.55,0,0,512,512
253.609,0,0,512,512
253.656,0,0,512,512
253.703,0,0,512,512
253.761,0,0,512,512
253.808,0,0,512,512
253.855,0,0,512,512
253.902,-2.77556e-17,0,512,512
253.96,-2.77556e-17,0,512,512
254.007,-2.77556e-17,0,512,512
254.054,0,0,512,512
254.101,-2.77556e-17,0,512,512
254.16,0,0,512,512
254.206,0,0,512,512
254.253,0,0,512,512
254.3,0,0,512,512
254.359,0,0,512,512
254.406,0,0,512,512
254.452,0,0,512,512
254.511,0,0,512,512
254.558,0,0,512,512
254.605,0,0,512,512
254.652,-2.77556e-17,0,512,512
254.71,-2.77556e-17,0,512,512
254.757,-2.77556e-17,0,512,512
254.804,-2.77556e-17,0,512,512
254.851,-2.77556e-17,0,512,512
254.909,-2.77556e-17,0,512,512
254.956,0,0,512,512
255.003,0,0,512,512
255.05,0,0,512,512
255.109,0,0,512,512
255.155,0,0,512,512
255.202,0,0,512,512
255.261,0,0,512,512
255.308,0,0,512,512
255.355,0,0,512,512
255.402,0,0,512,512
255.46,0,0,512,512
255.507,0,0,512,512
255.554,0,0,512,512
255.601,0,0,512,512
255.659,0,0,512,512
255.706,0,0,512,512
255.753,0,0,512,512
255.812,0,0,512,512
255.859,0,0,512,512
255.905,0,0,512,512
255.952,-2.77556e-17,0,512,512
256.011,-2.77556e-17,0,512,512
256.058,-2.77556e-17,0,512,512
256.105,-2.77556e-17,0,512,512
256.151,-2.77556e-17,0,512,512
256.21,-2.77556e-17,0,512,512
256.257,-2.77556e-17,0,512,512
256.304,-2.77556e-17,0,512,512
256.351,-2.77556e-17,0,512,512
256.409,-2.77556e-17,0,512,512
256.456,-2.77556e-17,0,512,512
256.503,0,0,512,512
256.562,0,0,512,512
256.608,0,0,512,512
256.655,-2.77556e-17,0,512,512
256.702,-2.77556e-17,0,512,512
256.761,-2.77556e-17,0,512,512
256.808,-5.55112e-17,0,512,512
256.854,-5.55112e-17,0,512,512
256.901,-5.55112e-17,0,512,512
256.96,-5.55112e-17,0,512,512
257.007,-5.55112e-17,0,512,512
257.054,-5.55112e-17,0,512,512
257.101,-5.55112e-17,0,512,512
257.159,-5.55112e-17,0,512,512
257.206,-5.55112e-17,0,512,512
257.253,-5.55112e-17,0,512,512
257.311,-2.77556e-17,0,512,512
257.358,-2.77556e-17,0,512,512
257.405,-2.77556e-17,0,512,512
257.452,-2.77556e-17,0,512,512
257.511,-2.77556e-17,0,512,512
257.557,0,0,512,512
257.604,-2.77556e-17,0,512,512
257.651,0,0,512,512
257.71,0,0,512,512
257.757,0,0,512,512
257.804,0,0,512,512
257.85,-2.77556e-17,0,512,512
257.909,-2.77556e-17,0,512,512
257.956,0,0,512,512
258.003,0,0,512,512
258.061,0,0,512,512
258.108,0,0,512,512
258.155,0,0,512,512
258.202,0,0,512,512
258.261,2.77556e-17,0,512,512
258.307,0,0,512,512
258.354,0,0,512,512
258.401,0,0,512,512
258.46,0,0,512,512
258.507,0,0,512,512
258.553,0,0,512,512
258.6,-2.77556e-17,0,512,512
258.659,2.77556e-17,0,512,512
258.706,5.55112e-17,0,512,512
258.753,2.77556e-17,0,512,512
258.811,2.77556e-17,0,512,512
258.858,5.55112e-17,0,512,512
258.905,2.77556e-17,0,512,512
258.952,2.77556e-17,0,512,512
259.01,2.77556e-17,0,512,512
259.057,2.77556e-17,0,512,512
259.104,2.77556e-17,0,512,512
259.151,2.77556e-17,0,512,512
259.21,0,0,512,512
259.256,0,0,512,512
259.303,0,0,512,512
259.35,0,0,512,512
259.409,0,0,512,512
259.456,0,0,512,512
259.503,0,0,512,512
259.561,0,0,512,512
259.608,0,0,512,512
259.655,0,0,512,512
259.702,0,0,512,512
259.76,0,0,512,512
259.807,0,0,512,512
259.854,0,0,512,512
259.901,2.77556e-17,0,512,512
259.959,0,0,512,512
260.006,2.77556e-17,0,512,512
260.053,2.77556e-17,0,512,512
260.1,2.77556e-17,0,512,512
260.159,2.77556e-17,0,512,512
260.206,2.77556e-17,0,512,512
260.252,2.77556e-17,0,512,512
260.311,2.77556e-17,0,512,512
260.358,2.77556e-17,0,512,512
260.405,2.77556e-17,0,512,512
260.452,2.77556e-17,0,512,512
260.51,2.77556e-17,0,512,512
260.557,5.55112e-17,0,512,512
260.604,5.55112e-17,0,512,512
260.651,5.55112e-17,0,512,512
260.709,2.77556e-17,0,512,512
260.756,0,0,512,512
260.803,0,0,512,512
260.862,0,0,512,512
260.909,0,0,512,512
260.955,0,0,512,512
261.002,0,0,512,512
261.061,2.77556e-17,0,512,512
261.108,2.77556e-17,0,512,512
261.155,0,0,512,512
261.201,2.77556e-17,0,512,512
261.26,-2.77556e-17,0,512,512
261.307,0,0,512,512
261.354,0,0,512,512
261.401,0,0,512,512
261.459,0,0,512,512
261.506,2.77556e-17,0,512,512
261.553,2.77556e-17,0,512,512
261.612,0,0,512,512
261.658,-2.77556e-17,0,512,512
261.705,0,0,512,512
261.752,2.77556e-17,0,512,512
261.811,2.77556e-17,0,512,512
261.858,0,0,512,512
261.905,2.77556e-17,0,512,512
261.951,2.77556e-17,0,512,512
262.01,-5.55112e-17,0,512,512
262.057,-2.77556e-17,0,512,512
262.104,0,0,512,512
262.151,0,0,512,512
262.209,-2.77556e-17,0,512,512
262.256,-2.77556e-17,0,512,512
262.303,-2.77556e-17,0,512,512
262.361,-2.77556e-17,0,512,512
262.408,0,0,512,512
262.455,0,0,512,512
262.502,0,0,512,512
262.561,0,0,512,512
262.608,0,0,512,512
262.654,2.77556e-17,0,512,512
262.701,2.77556e-17,0,512,512
262.76,0,0,512,512
262.807,0,0,512,512
262.854,0,0,512,512
262.9,0,0,512,512
262.959,0,0,512,512
263.006,0,0,512,512
263.053,0,0,512,512
263.111,0,0,512,512
263.158,-2.77556e-17,0,512,512
263.205,0,0,512,512
263.252,0,0,512,512
263.311,0,0,512,512
263.357,0,0,512,512
263.404,0,0,512,512
263.451,2.77556e-17,0,512,512
263.51,2.77556e-17,0,512,512
263.557,0,0,512,512
263.603,-2.77556e-17,0,512,512
263.65,-2.77556e-17,0,512,512
263.709,-2.77556e-17,0,512,512
263.756,0,0,512,512
263.803,0,0,512,512
263.861,0,0,512,512
263.908,0,0,512,512
263.955,-2.77556e-17,0,512,512
264.002,-2.77556e-17,0,512,512
264.06,-2.77556e-17,0,512,512
264.107,-2.77556e-17,0,512,512
264.154,0,0,512,512
264.201,-2.77556e-17,0,512,512
264.26,0,0,512,512
264.306,0,0,512,512
264.353,-5.55112e-17,0,512,512
264.4,-2.77556e-17,0,512,512
264.459,-2.77556e-17,0,512,512
264.506,-2.77556e-17,0,512,512
264.553,-2.77556e-17,0,512,512
264.611,-2.77556e-17,0,512,512
264.658,-2.77556e-17,0,512,512
264.705,0,0,512,512
264.752,0,0,512,512
264.81,-2.77556e-17,0,512,512
264.857,-2.77556e-17,0,512,512
264.904,0,0,512,512
264.951,0,0,512,512
265.01,0,0,512,512
265.056,0,0,512,512
265.103,0,0,512,512
265.15,0,0,512,512
265.209,0,0,512,512
265.256,0,0,512,512
265.302,0,0,512,512
265.361,0,0,512,512
265.408,0,0,512,512
265.455,0,0,512,512
265.502,0,0,512,512
265.56,0,0,512,512
265.607,0,0,512,512
265.654,0,0,512,512
265.701,0,0,512,512
265.759,0,0,512,512
265.806,0,0,512,512
265.853,0,0,512,512
265.9,0,0,512,512
265.959,0,0,512,512
266.005,0,0,512,512
266.052,2.77556e-17,0,512,512
266.111,2.77556e-17,0,512,512
266.158,2.77556e-17,0,512,512
266.205,0,0,512,512
266.252,0,0,512,512
266.31,2.77556e-17,0,512,512
266.357,2.77556e-17,0,512,512
266.404,2.77556e-17,0,512,512
266.451,2.77556e-17,0,512,512
266.509,2.77556e-17,0,512,512
266.556,2.77556e-17,0,512,512
266.603,2.77556e-17,0,512,512
266.662,2.77556e-17,0,512,512
266.708,2.77556e-17,0,512,512
266.755,2.77556e-17,0,512,512
266.802,2.77556e-17,0,512,512
266.861,2.77556e-17,0,512,512
266.908,2.77556e-17,0,512,512
266.955,2.77556e-17,0,512,512
267.001,2.77556e-17,0,512,512
267.06,2.77556e-17,0,512,512
267.107,2.77556e-17,0,512,512
267.154,2.77556e-17,0,512,512
267.201,2.77556e-17,0,512,512
267.259,2.77556e-17,0,512,512
267.306,2.77556e-17,0,512,512
267.353,2.77556e-17,0,512,512
267.412,2.77556e-17,0,512,512
267.458,2.77556e-17,0,512,512
267.505,2.77556e-17,0,512,512
267.552,2.77556e-17,0,512,512
267.611,2.77556e-17,0,512,512
267.658,2.77556e-17,0,512,512
267.704,2.77556e-17,0,512,512
267.751,5.55112e-17,0,512,512
267.81,5.55112e-17,0,512,512
267.857,5.55112e-17,0,512,512
267.904,8.32667e-17,0,512,512
267.95,8.32667e-17,0,512,512
268.009,5.55112e-17,0,512,512
268.056,5.55112e-17,0,512,512
268.101,5.55112e-17,0,623,623
268.15,5.55112e-17,0,683,683
268.2,5.55112e-17,0,743,743
268.253,5.55112e-17,0,803,803
268.303,5.55112e-17,0,863,863
268.353,5.55112e-17,0,911,911
268.402,5.55112e-17,0,971,971
268.452,5.55112e-17,0,1031,1031
268.502,5.55112e-17,0,1091,1091
268.552,5.55112e-17,0,1151,1151
268.601,5.55112e-17,0,1193,1193
268.651,5.55112e-17,0,1253,1253
268.701,5.55112e-17,0,1313,1313
268.751,5.55112e-17,0,1361,1361
268.801,5.55112e-17,0,1421,1421
268.85,5.55112e-17,0,1481,1481
268.9,5.55112e-17,0,1523,1523
268.95,5.55112e-17,0,1583,1583
269.003,5.55112e-17,0,1643,1643
269.053,5.55112e-17,0,1703,1703
269.102,5.55112e-17,0,1751,1751
269.152,3.33067e-16,0,1811,1811
269.202,9.71445e-16,0,1853,1853
269.252,3.4972e-15,0,1913,1913
269.302,1.18239e-14,0,1961,1961
269.351,3.40838e-14,0,2021,2021
269.401,8.471e-14,0,2063,2063
269.451,1.83076e-13,0,2093,2093
269.501,3.475e-13,0,2141,2141
269.551,4.86444e-13,0,2201,2201
269.6,-3.77476e-14,0,2261,2261
269.65,-2.94536e-11,0,2321,2321
269.703,-1.7531e-10,0,2381,2381
269.753,-3.8085e-10,0,2423,2423
269.802,-4.44242e-10,0,2483,2483
269.852,-2.68131e-10,0,2543,2543
269.902,3.27776e-11,0,2591,2591
269.952,2.68314e-10,0,2651,2651
270.002,3.04502e-10,0,2711,2711
270.051,1.45069e-10,0,2753,2753
270.101,-6.17203e-11,0,2813,2813
270.151,-1.33629e-10,0,2873,2873
270.201,-1.15607e-11,0,2921,2921
270.251,1.87157e-10,0,2981,2981
270.3,2.80864e-10,0,3023,3023
270.35,1.94544e-10,0,3083,3083
270.4,2.2058e-11,0,3131,3131
270.453,-7.44915e-11,0,3191,3191
270.503,-7.37171e-12,0,3251,3251
270.552,1.41712e-10,0,3293,3293
270.602,2.41646e-10,0,3347,3347
270.652,2.21376e-10,0,3401,3401
270.702,1.12483e-10,0,3443,3443
270.752,1.54912e-12,0,3503,3503
270.801,-3.78054e-11,0,3551,3551
270.851,2.24018e-11,0,3611,3611
270.901,1.58372e-10,0,3653,3653
270.951,2.88793e-10,0,3701,3701
271.001,2.95058e-10,0,3761,3761
271.05,1.10331e-10,0,3803,3803
271.1,-1.61663e-10,0,3851,3851
271.153,-2.44179e-10,0,3911,3911
271.203,7.94841e-11,0,3953,3953
271.252,6.01794e-10,0,4013,4013
271.302,7.55123e-10,0,4061,4061
271.352,1.18824e-10,0,4103,4103
271.402,-9.2338e-10,0,4151,4151
271.452,-1.13192e-09,0,4211,4211
271.501,7.76817e-10,0,4253,4253
271.551,5.12094e-09,0,4301,4301
271.601,1.10212e-08,0,4343,4343
271.651,1.70715e-08,0,4403,4403
271.701,2.21438e-08,0,4451,4451
271.75,2.57318e-08,0,4493,4493
271.8,2.79932e-08,0,4541,4541
271.85,2.98051e-08,0,4583,4583
271.903,3.28217e-08,0,4643,4643
271.953,3.80809e-08,0,4691,4691
272.002,4.61264e-08,0,4733,4733
272.052,5.64783e-08,0,4781,4781
272.102,6.85374e-08,0,4823,4823
272.152,8.24503e-08,0,4871,4871
272.202,9.92713e-08,0,4913,4913
272.251,1.20439e-07,0,4961,4961
272.301,1.47186e-07,0,5003,5003
272.351,1.8023e-07,0,5051,5051
272.401,2.19469e-07,0,5093,5093
272.451,2.63611e-07,0,5141,5141
272.5,3.10479e-07,0,5183,5183
272.55,3.58282e-07,0,5231,5231
272.603,4.09866e-07,0,5273,5273
272.653,4.61117e-07,0,5321,5321
272.702,5.16081e-07,0,5363,5363
272.752,5.73707e-07,0,5411,5411
272.802,6.30598e-07,0,5453,5453
272.852,6.82664e-07,0,5501,5501
272.902,7.26743e-07,0,5543,5543
272.951,7.6112e-07,0,5591,5591
273.001,7.85486e-07,0,5633,5633
273.051,8.00956e-07,0,5681,5681
273.101,8.09691e-07,0,5711,5711
273.151,8.13924e-07,0,5753,5753
273.2,8.15044e-07,0,5801,5801
273.25,8.13409e-07,0,5843,5843
273.3,8.08673e-07,0,5891,5891
273.353,7.99406e-07,0,5933,5933
273.403,7.85556e-07,0,5981,5981
273.452,7.65676e-07,0,6023,6023
273.502,7.38863e-07,0,6071,6071
273.552,7.04593e-07,0,6101,6101
273.602,6.63185e-07,0,6143,6143
273.652,6.16294e-07,0,6191,6191
273.701,5.66656e-07,0,6233,6233
273.751,5.17086e-07,0,6281,6281
273.801,4.69601e-07,0,6317,6317
273.851,4.25277e-07,0,6353,6353
273.901,3.84489e-07,0,6401,6401
273.95,3.47082e-07,0,6443,6443
274,3.12553e-07,0,6491,6491
274.053,2.78442e-07,0,6533,6533
274.103,2.47946e-07,0,6563,6563
274.152,2.18797e-07,0,6611,6611
274.202,1.91279e-07,0,6653,6653
274.252,1.66536e-07,0,6701,6701
274.302,1.46113e-07,0,6743,6743
274.352,1.30674e-07,0,6773,6773
274.401,1.18994e-07,0,6821,6821
274.451,1.08494e-07,0,6863,6863
274.501,9.70592e-08,0,6911,6911
274.551,8.4502e-08,0,6941,6941
274.601,7.23053e-08,0,6983,6983
274.65,6.21758e-08,0,7031,7031
274.7,5.48804e-08,0,7073,7073
274.753,4.98982e-08,0,7103,7103
274.803,4.67566e-08,0,7151,7151
274.853,4.38111e-08,0,7193,7193
274.902,3.98495e-08,0,7241,7241
274.952,3.4419e-08,0,7271,7271
275.002,2.82861e-08,0,7313,7313
275.052,2.30002e-08,0,7361,7361
275.102,1.97732e-08,0,7391,7391
275.151,1.86829e-08,0,7433,7433
275.201,1.88809e-08,0,7481,7481
275.251,1.94021e-08,0,7511,7511
275.301,1.97494e-08,0,7553,7553
275.35,1.98951e-08,0,7601,7601
275.4,1.99786e-08,0,7631,7631
275.45,2.00837e-08,0,7673,7673
275.503,2.02104e-08,0,7721,7721
275.553,2.02676e-08,0,7751,7751
275.602,2.01083e-08,0,7793,7793
275.652,1.97092e-08,0,7823,7823
275.702,1.93399e-08,0,7853,7853
275.752,1.91781e-08,0,7901,7901
275.802,1.91566e-08,0,7931,7931
275.851,1.91799e-08,0,7961,7961
275.901,1.92116e-08,0,7991,7991
275.951,1.92444e-08,0,8027,8027
276.001,1.92773e-08,0,8063,8063
276.051,1.93104e-08,0,8093,8093
276.1,1.93435e-08,0,8123,8123
276.15,1.93767e-08,0,8170,8170
276.203,1.9412e-08,0,8192,8192
276.253,1.94453e-08,0,8192,8192
276.302,1.94787e-08,0,8192,8192
276.352,1.95121e-08,0,8192,8192
276.402,1.95456e-08,0,8192,8192
276.452,1.95792e-08,0,8192,8192
276.502,1.96128e-08,0,8192,8192
276.551,1.96465e-08,0,8192,8192
276.601,1.96802e-08,0,8192,8192
276.651,1.97139e-08,0,8192,8192
276.701,1.97477e-08,0,8192,8192
276.751,1.97815e-08,0,8192,8192
276.8,1.98154e-08,0,8192,8192
276.85,1.98494e-08,0,8192,8192
276.9,1.98834e-08,0,8192,8192
276.953,1.99194e-08,0,8192,8192
277.003,1.99536e-08,0,8192,8192
277.052,1.99878e-08,0,8192,8192
277.102,2.00222e-08,0,8192,8192
277.152,2.00567e-08,0,8192,8192
277.202,2.00913e-08,0,8192,8192
277.252,2.01261e-08,0,8192,8192
277.301,2.0161e-08,0,8192,8192
277.351,2.0196e-08,0,8192,8192
277.401,2.02312e-08,0,8192,8192
277.451,2.02665e-08,0,8192,8192
277.501,2.03019e-08,0,8192,8192
277.55,2.03374e-08,0,8192,8192
277.6,2.03731e-08,0,8192,8192
277.653,2.04111e-08,0,8192,8192
277.703,2.0447e-08,0,8192,8192
277.752,2.04832e-08,0,8192,8192
277.802,2.05194e-08,0,8192,8192
277.852,2.05557e-08,0,8192,8192
277.902,2.05921e-08,0,8192,8192
277.952,2.06286e-08,0,8192,8192
278.001,2.06651e-08,0,8192,8192
278.051,2.07013e-08,0,8192,8192
278.101,2.07369e-08,0,8192,8192
278.151,2.07714e-08,0,8192,8192
278.201,2.08044e-08,0,8192,8192
278.25,2.08354e-08,0,8192,8192
278.3,2.08642e-08,0,8192,8192
278.35,2.08905e-08,0,8192,8192
278.403,2.09157e-08,0,8192,8192
278.453,2.09369e-08,0,8192,8192
278.502,2.09555e-08,0,8192,8192
278.552,2.0971e-08,0,8192,8192
278.602,2.09827e-08,0,8192,8192
278.652,2.09896e-08,0,8192,8192
278.702,2.09906e-08,0,8192,8192
278.751,2.09842e-08,0,8192,8192
278.801,2.09685e-08,0,8192,8192
278.851,2.09415e-08,0,8192,8192
278.901,2.09008e-08,0,8192,8192
278.951,2.08438e-08,0,8192,8192
279,2.07675e-08,0,8192,8192
279.05,2.06693e-08,0,8192,8192
279.103,2.05383e-08,0,8192,8192
279.153,2.03867e-08,0,8192,8192
279.202,2.02058e-08,0,8192,8192
279.252,1.99939e-08,0,8192,8192
279.302,1.97499e-08,0,8192,8192
279.352,1.94728e-08,0,8192,8192
279.402,1.91625e-08,0,8192,8192
279.451,1.88199e-08,0,8192,8192
279.501,1.84466e-08,0,8192,8192
279.551,1.80455e-08,0,8192,8192
279.601,1.762e-08,0,8192,8192
279.651,1.71744e-08,0,8192,8192
279.7,1.67128e-08,0,8192,8192
279.75,1.62394e-08,0,8192,8192
279.8,1.5758e-08,0,8192,8192
279.853,1.52432e-08,0,8192,8192
279.903,1.47556e-08,0,8192,8192
279.952,1.42696e-08,0,8192,8192
280.002,1.37881e-08,0,8192,8192
280.052,1.33144e-08,0,8192,8192
280.102,1.28517e-08,0,8192,8192
280.152,1.24035e-08,0,8192,8192
280.201,1.19734e-08,0,8192,8192
280.251,1.15646e-08,0,8192,8192
280.301,1.11798e-08,0,8192,8192
280.351,1.08212e-08,0,8192,8192
280.401,1.04898e-08,0,8192,8192
280.45,1.0186e-08,0,8192,8192
280.5,9.90956e-09,0,8192,8192
280.553,9.64549e-09,0,8192,8192
280.603,9.42183e-09,0,8192,8192
280.652,9.22167e-09,0,8192,8192
280.702,9.04353e-09,0,8192,8192
280.752,8.88589e-09,0,8192,8192
280.802,8.74724e-09,0,8192,8192
280.852,8.62599e-09,0,8192,8192
280.901,8.52047e-09,0,8192,8192
280.951,8.42898e-09,0,8192,8192
281.001,8.34983e-09,0,8192,8192
281.051,8.2815e-09,0,8192,8192
281.101,8.2227e-09,0,8192,8192
281.15,8.17241e-09,0,8192,8192
281.2,8.12977e-09,0,8192,8192
281.25,8.09402e-09,0,8192,8192
281.303,8.06283e-09,0,8192,8192
281.353,8.03883e-09,0,8192,8192
281.402,8.01938e-09,0,8192,8192
281.452,8.00381e-09,0,8192,8192
281.502,7.99164e-09,0,8192,8192
281.552,7.98255e-09,0,8192,8192
281.602,7.97634e-09,0,8192,8192
281.651,7.97283e-09,0,8192,8192
281.701,7.97175e-09,0,8192,8192
281.751,7.97277e-09,0,8192,8192
281.801,7.97544e-09,0,8192,8192
281.851,7.97931e-09,0,8192,8192
281.9,7.98396e-09,0,8192,8192
281.95,7.98908e-09,0,8192,8192
282.003,7.99476e-09,0,8192,8192
282.053,8.00022e-09,0,8192,8192
282.102,8.00573e-09,0,8192,8192
282.152,8.01126e-09,0,8192,8192
282.202,8.01682e-09,0,8192,8192
282.252,8.02245e-09,0,8192,8192
282.302,8.02816e-09,0,8192,8192
282.351,8.03396e-09,0,8192,8192
282.401,8.03985e-09,0,8192,8192
282.451,8.04582e-09,0,8192,8192
282.501,8.05185e-09,0,8192,8192
282.551,8.05792e-09,0,8192,8192
282.6,8.06402e-09,0,8192,8192
282.65,8.07014e-09,0,8192,8192
282.703,8.07664e-09,0,8192,8192
282.753,8.08281e-09,0,8192,8192
282.803,8.089e-09,0,8192,8192
282.852,8.09523e-09,0,8192,8192
282.902,8.1015e-09,0,8192,8192
282.952,8.10782e-09,0,8192,8192
283.002,8.11422e-09,0,8192,8192
283.052,8.12073e-09,0,8192,8192
283.101,8.12743e-09,0,8192,8192
283.151,8.13451e-09,0,8192,8192
283.201,8.14226e-09,0,8192,8192
283.251,8.15122e-09,0,8192,8192
283.3,8.16224e-09,0,8192,8192
283.35,8.17654e-09,0,8192,8192
283.4,8.19585e-09,0,8192,8192
283.453,8.22424e-09,0,8192,8192
283.503,8.26141e-09,0,8192,8192
283.552,8.31186e-09,0,8192,8192
283.602,8.37899e-09,0,8192,8192
283.652,8.46626e-09,0,8192,8192
283.702,8.57704e-09,0,8192,8192
283.752,8.71452e-09,0,8192,8192
283.801,8.88186e-09,0,8192,8192
283.851,9.08247e-09,0,8192,8192
283.901,9.3205e-09,0,8192,8192
283.951,9.6014e-09,0,8192,8192
284.001,9.93234e-09,0,8192,8192
284.05,1.03226e-08,0,8192,8192
284.1,1.07835e-08,0,8192,8192
284.153,1.13634e-08,0,8192,8192
284.203,1.20137e-08,0,8192,8192
284.253,1.27797e-08,0,8192,8192
284.302,1.3678e-08,0,8192,8192
284.352,1.47245e-08,0,8192,8192
284.402,1.59345e-08,0,8192,8192
284.452,1.73216e-08,0,8192,8192
284.501,1.88973e-08,0,8192,8192
284.551,2.06705e-08,0,8192,8192
284.601,2.26469e-08,0,8192,8192
284.651,2.48286e-08,0,8192,8192
284.701,2.72134e-08,0,8192,8192
284.75,2.97954e-08,0,8192,8192
284.8,3.25646e-08,0,8192,8192
284.85,3.55081e-08,0,8192,8192
284.903,3.87984e-08,0,8192,8192
284.953,4.20554e-08,0,8192,8192
285.002,4.54461e-08,0,8192,8192
285.052,4.89653e-08,0,8192,8192
285.102,5.2616e-08,0,8192,8192
285.152,5.64112e-08,0,8192,8192
285.202,6.03742e-08,0,8192,8192
285.251,6.45364e-08,0,8192,8192
285.301,6.89334e-08,0,8192,8192
285.351,7.35987e-08,0,8192,8192
285.401,7.8557e-08,0,8192,8192
285.451,8.38204e-08,0,8192,8192
285.5,8.93876e-08,0,8192,8192
285.55,9.52495e-08,0,8192,8192
285.603,1.0177e-07,0,8192,8192
285.653,1.08237e-07,0,8192,8192
285.702,1.15048e-07,0,8192,8192
285.752,1.22294e-07,0,8192,8192
285.802,1.30121e-07,0,8192,8192
285.852,1.38727e-07,0,8192,8192
285.902,1.48361e-07,0,8192,8192
285.951,1.59313e-07,0,8192,8192
286.001,1.71895e-07,0,8192,8192
286.051,1.86427e-07,0,8192,8192
286.101,2.03214e-07,0,8192,8192
286.151,2.22525e-07,0,8192,8192
286.2,2.44571e-07,0,8192,8192
286.25,2.69482e-07,0,8192,8192
286.3,2.9729e-07,0,8192,8192
286.353,3.29796e-07,0,8192,8192
286.403,3.63168e-07,0,8192,8192
286.452,3.98788e-07,0,8192,8192
286.502,4.36184e-07,0,8192,8192
286.552,4.7476e-07,0,8192,8192
286.602,5.13805e-07,0,8192,8192
286.652,5.52515e-07,0,8192,8192
286.701,5.9002e-07,0,8192,8192
286.751,6.25427e-07,0,8192,8192
286.801,6.57868e-07,0,8192,8192
286.851,6.86555e-07,0,8192,8192
286.901,7.10826e-07,0,8192,8192
286.95,7.30176e-07,0,8192,8192
287,7.44277e-07,0,8192,8192
287.053,7.53304e-07,0,8192,8192
287.103,7.56231e-07,0,8192,8192
287.152,7.53798e-07,0,8192,8192
287.202,7.46142e-07,0,8192,8192
287.252,7.33433e-07,0,8192,8192
287.302,7.15858e-07,0,8192,8192
287.352,6.93624e-07,0,8192,8192
287.401,6.6698e-07,0,8192,8192
287.451,6.36242e-07,0,8192,8192
287.501,6.01817e-07,0,8192,8192
287.551,5.64217e-07,0,8192,8192
287.601,5.2406e-07,0,8192,8192
287.65,4.82046e-07,0,8192,8192
287.7,4.38927e-07,0,8192,8192
287.75,3.95463e-07,0,8192,8192
287.803,3.4987e-07,0,8192,8192
287.853,3.07893e-07,0,8192,8192
287.902,2.67525e-07,0,8192,8192
287.952,2.29201e-07,0,8192,8192
288.002,1.93245e-07,0,8192,8192
288.052,1.59881e-07,0,8192,8192
288.102,1.29245e-07,0,8192,8192
288.151,1.01397e-07,0,8192,8192
288.201,7.63313e-08,0,8192,8192
288.251,5.39889e-08,0,8192,8192
288.301,3.42631e-08,0,8192,8192
288.351,1.70112e-08,0,8192,8192
288.4,2.06575e-09,0,8192,8192
288.45,-1.0754e-08,0,8192,8192
288.503,-2.22147e-08,0,8192,8192
288.553,-3.12305e-08,0,8192,8192
288.602,-3.86631e-08,0,8192,8192
288.652,-4.46727e-08,0,8192,8192
288.702,-4.94097e-08,0,8192,8192
288.752,-5.30144e-08,0,8192,8192
288.802,-5.56147e-08,0,8192,8192
288.851,-5.73235e-08,0,8192,8192
288.901,-5.82367e-08,0,8192,8192
288.951,-5.84334e-08,0,8192,8192
289.001,-5.79793e-08,0,8192,8192
289.051,-5.69322e-08,0,8192,8192
289.1,-5.53495e-08,0,8192,8192
289.15,-5.32943e-08,0,8192,8192
289.2,-5.08391e-08,0,8192,8192
289.253,-4.78951e-08,0,8192,8192
289.303,-4.48826e-08,0,8192,8192
289.352,-4.17371e-08,0,8192,8192
289.402,-3.85442e-08,0,8192,8192
289.452,-3.53801e-08,0,8192,8192
289.502,-3.23078e-08,0,8192,8192
289.552,-2.93756e-08,0,8192,8192
289.601,-2.66179e-08,0,8192,8192
289.651,-2.40564e-08,0,8192,8192
289.701,-2.1703e-08,0,8192,8192
289.751,-1.95621e-08,0,8192,8192
289.8,-1.76328e-08,0,8192,8192
289.85,-1.59112e-08,0,8192,8192
289.9,-1.4391e-08,0,8192,8192
289.953,-1.29924e-08,0,8192,8192
290.003,-1.18614e-08,0,8192,8192
290.052,-1.09045e-08,0,8192,8192
290.102,-1.01103e-08,0,8192,8192
290.152,-9.46655e-09,0,8192,8192
290.202,-8.95981e-09,0,8192,8192
290.252,-8.57631e-09,0,8192,8192
290.301,-8.30216e-09,0,8192,8192
290.351,-8.12374e-09,0,8192,8192
290.401,-8.0281e-09,0,8192,8192
290.451,-8.00317e-09,0,8192,8192
290.501,-8.03786e-09,0,8192,8192
290.55,-8.1221e-09,0,8192,8192
290.6,-8.24668e-09,0,8192,8192
290.653,-8.41326e-09,0,8192,8192
290.703,-8.59524e-09,0,8192,8192
290.753,-8.79396e-09,0,8192,8192
290.802,-9.00297e-09,0,8192,8192
290.852,-9.21647e-09,0,8192,8192
290.902,-9.42938e-09,0,8192,8192
290.952,-9.63738e-09,0,8192,8192
291.001,-9.83697e-09,0,8192,8192
291.051,-1.00254e-08,0,8192,8192
291.101,-1.02007e-08,0,8192,8192
291.151,-1.03616e-08,0,8192,8192
291.201,-1.0507e-08,0,8192,8192
291.25,-1.06367e-08,0,8192,8192
291.3,-1.07505e-08,0,8192,8192
291.35,-1.08487e-08,0,8192,8192
291.403,-1.0936e-08,0,8192,8192
291.453,-1.10036e-08,0,8192,8192
291.502,-1.10576e-08,0,8192,8192
291.552,-1.10991e-08,0,8192,8192
291.602,-1.11293e-08,0,8192,8192
291.652,-1.11495e-08,0,8192,8192
291.702,-1.1161e-08,0,8192,8192
291.751,-1.1165e-08,0,8192,8192
291.801,-1.11628e-08,0,8192,8192
291.851,-1.11555e-08,0,8192,8192
291.901,-1.11444e-08,0,8192,8192
291.951,-1.11305e-08,0,8192,8192
292,-1.11148e-08,0,8192,8192
292.05,-1.10982e-08,0,8192,8192
292.103,-1.10807e-08,0,8192,8192
292.153,-1.1065e-08,0,8192,8192
292.202,-1.1051e-08,0,8192,8192
292.252,-1.10391e-08,0,8192,8192
292.302,-1.10301e-08,0,8192,8192
292.352,-1.10245e-08,0,8192,8192
292.402,-1.10229e-08,0,8192,8192
292.451,-1.10259e-08,0,8192,8192
292.501,-1.10339e-08,0,8192,8192
292.551,-1.10474e-08,0,8192,8192
292.601,-1.10667e-08,0,8192,8192
292.651,-1.1092e-08,0,8192,8192
292.7,-1.11236e-08,0,8192,8192
292.75,-1.11615e-08,0,8192,8192
292.8,-1.12057e-08,0,8192,8192
292.853,-1.12596e-08,0,8192,8192
292.903,-1.1317e-08,0,8192,8192
292.952,-1.13809e-08,0,8192,8192
293.002,-1.14513e-08,0,8192,8192
293.052,-1.15283e-08,0,8192,8192
293.102,-1.16122e-08,0,8192,8192
293.152,-1.17032e-08,0,8192,8192
293.201,-1.18016e-08,0,8192,8192
293.251,-1.19081e-08,0,8192,8192
293.301,-1.20232e-08,0,8192,8192
293.351,-1.21478e-08,0,8192,8192
293.401,-1.22826e-08,0,8192,8192
293.45,-1.24286e-08,0,8192,8192
293.5,-1.2587e-08,0,8192,8192
293.553,-1.27694e-08,0,8192,8192
293.603,-1.29569e-08,0,8192,8192
293.652,-1.31601e-08,0,8192,8192
293.702,-1.33801e-08,0,8192,8192
293.752,-1.36179e-08,0,8192,8192
293.802,-1.3874e-08,0,8192,8192
293.852,-1.41489e-08,0,8192,8192
293.901,-1.44427e-08,0,8192,8192
293.951,-1.47549e-08,0,8192,8192
294.001,-1.5085e-08,0,8192,8192
294.051,-1.54318e-08,0,8192,8192
294.101,-1.57939e-08,0,8192,8192
294.15,-1.61693e-08,0,8192,8192
294.2,-1.65558e-08,0,8192,8192
294.25,-1.69508e-08,0,8192,8192
294.303,-1.73751e-08,0,8192,8192
294.353,-1.77786e-08,0,8192,8192
294.402,-1.81816e-08,0,8192,8192
294.452,-1.85808e-08,0,8192,8192
294.502,-1.89731e-08,0,8192,8192
294.552,-1.93555e-08,0,8192,8192
294.602,-1.9725e-08,0,8192,8192
294.651,-2.00788e-08,0,8192,8192
294.701,-2.04143e-08,0,8192,8192
294.751,-2.07292e-08,0,8192,8192
294.801,-2.10213e-08,0,8192,8192
294.851,-2.12888e-08,0,8192,8192
294.9,-2.15305e-08,0,8192,8192
294.95,-2.1745e-08,0,8192,8192
295.003,-2.19419e-08,0,8192,8192
295.053,-2.20989e-08,0,8192,8192
295.102,-2.22279e-08,0,8192,8192
295.152,-2.23293e-08,0,8192,8192
295.202,-2.2404e-08,0,8192,8192
295.252,-2.2453e-08,0,8192,8192
295.302,-2.24777e-08,0,8192,8192
295.351,-2.24796e-08,0,8192,8192
295.401,-2.24605e-08,0,8192,8192
295.451,-2.24222e-08,0,8192,8192
295.501,-2.23664e-08,0,8192,8192
295.551,-2.22953e-08,0,8192,8192
295.6,-2.22105e-08,0,8192,8192
295.65,-2.2114e-08,0,8192,8192
295.7,-2.20075e-08,0,8192,8192
295.753,-2.18857e-08,0,8192,8192
295.803,-2.17638e-08,0,8192,8192
295.852,-2.16367e-08,0,8192,8192
295.902,-2.15056e-08,0,8192,8192
295.952,-2.13719e-08,0,8192,8192
296.002,-2.12365e-08,0,8192,8192
296.052,-2.11005e-08,0,8192,8192
296.101,-2.09648e-08,0,8192,8192
296.151,-2.08301e-08,0,8192,8192
296.201,-2.0697e-08,0,8192,8192
296.251,-2.05662e-08,0,8192,8192
296.301,-2.04382e-08,0,8192,8192
296.35,-2.03133e-08,0,8192,8192
296.4,-2.0192e-08,0,8192,8192
296.453,-2.00677e-08,0,8192,8192
296.503,-1.99545e-08,0,8192,8192
296.552,-1.98455e-08,0,8192,8192
296.602,-1.97407e-08,0,8192,8192
296.652,-1.96401e-08,0,8192,8192
296.702,-1.95438e-08,0,8192,8192
296.752,-1.94516e-08,0,8192,8192
296.801,-1.93634e-08,0,8192,8192
296.851,-1.92789e-08,0,8192,8192
296.901,-1.91981e-08,0,8192,8192
296.951,-1.91205e-08,0,8192,8192
297.001,-1.9046e-08,0,8192,8192
297.05,-1.89742e-08,0,8192,8192
297.1,-1.8905e-08,0,8192,8192
297.15,-1.88378e-08,0,8192,8192
297.203,-1.87688e-08,0,8192,8192
297.253,-1.87053e-08,0,8192,8192
297.302,-1.8643e-08,0,8192,8192
297.352,-1.85819e-08,0,8192,8192
297.402,-1.85215e-08,0,8192,8192
297.452,-1.84617e-08,0,8192,8192
297.502,-1.84022e-08,0,8192,8192
297.551,-1.83429e-08,0,8192,8192
297.601,-1.82836e-08,0,8192,8192
297.651,-1.8224e-08,0,8192,8192
297.701,-1.81641e-08,0,8192,8192
297.751,-1.81037e-08,0,8192,8192
297.8,-1.80426e-08,0,8192,8192
297.85,-1.79808e-08,0,8192,8192
297.903,-1.79143e-08,0,8192,8192
297.953,-1.78505e-08,0,8192,8192
298.002,-1.77855e-08,0,8192,8192
298.052,-1.77192e-08,0,8192,8192
298.102,-1.76516e-08,0,8192,8192
298.152,-1.75824e-08,0,8192,8192
298.202,-1.75115e-08,0,8192,8192
298.251,-1.74387e-08,0,8192,8192
298.301,-1.7364e-08,0,8192,8192
298.351,-1.7287e-08,0,8192,8192
298.401,-1.72077e-08,0,8192,8192
298.451,-1.71258e-08,0,8192,8192
298.5,-1.70411e-08,0,8192,8192
298.55,-1.69535e-08,0,8192,8192
298.603,-1.68572e-08,0,8192,8192
298.653,-1.67628e-08,0,8192,8192
298.703,-1.66647e-08,0,8192,8192
298.752,-1.65629e-08,0,8192,8192
298.802,-1.64571e-08,0,8192,8192
298.852,-1.63471e-08,0,8192,8192
298.902,-1.62328e-08,0,8192,8192
298.952,-1.61141e-08,0,8192,8192
299.001,-1.59907e-08,0,8192,8192
299.051,-1.58626e-08,0,8192,8192
299.101,-1.57297e-08,0,8192,8192
299.151,-1.55919e-08,0,8192,8192
299.2,-1.5449e-08,0,8192,8192
299.25,-1.5301e-08,0,8192,8192
299.3,-1.51478e-08,0,8192,8192
299.353,-1.49798e-08,0,8192,8192
299.403,-1.48155e-08,0,8192,8192
299.452,-1.46457e-08,0,8192,8192
299.502,-1.44704e-08,0,8192,8192
299.552,-1.42892e-08,0,8192,8192
299.602,-1.41021e-08,0,8192,8192
299.652,-1.39089e-08,0,8192,8192
299.701,-1.37093e-08,0,8192,8192
299.751,-1.35029e-08,0,8192,8192
299.801,-1.32893e-08,0,8192,8192
299.851,-1.30679e-08,0,8192,8192
299.901,-1.28381e-08,0,8192,8192
299.95,-1.2599e-08,0,8192,8192
300,-1.23498e-08,0,8192,8192
300.053,-1.20738e-08,0,8192,8192
300.103,-1.18003e-08,0,8192,8192
300.152,-1.15131e-08,0,8192,8192
300.202,-1.1211e-08,0,8192,8192
300.252,-1.08926e-08,0,8192,8192
300.302,-1.05568e-08,0,8192,8192
300.352,-1.02024e-08,0,8192,8192
300.401,-9.82842e-09,0,8192,8192
300.451,-9.43414e-09,0,8192,8192
300.501,-9.01912e-09,0,8192,8192
300.551,-8.58325e-09,0,8192,8192
300.601,-8.12679e-09,0,8192,8192
300.65,-7.65045e-09,0,8192,8192
300.7,-7.15533e-09,0,8192,8192
300.75,-6.643e-09,0,8192,8192
300.803,-6.08398e-09,0,8192,8192
300.853,-5.54287e-09,0,8192,8192
300.902,-4.99179e-09,0,8192,8192
300.952,-4.43376e-09,0,8192,8192
301.002,-3.87205e-09,0,8192,8192
301.052,-3.31006e-09,0,8192,8192
301.102,-2.75132e-09,0,8192,8192
301.151,-2.19935e-09,0,8192,8192
301.201,-1.65767e-09,0,8192,8192
301.251,-1.12967e-09,0,8192,8192
301.301,-6.18605e-10,0,8192,8192
301.351,-1.27509e-10,0,8192,8192
301.4,3.40822e-10,0,8192,8192
301.45,7.83894e-10,0,8192,8192
301.503,1.2231e-09,0,8192,8192
301.553,1.60775e-09,0,8192,8192
301.602,1.9617e-09,0,8192,8192
301.652,2.28397e-09,0,8192,8192
301.702,2.574e-09,0,8192,8192
301.752,2.83165e-09,0,8192,8192
301.802,3.05716e-09,0,8192,8192
301.851,3.25118e-09,0,8192,8192
301.901,3.41468e-09,0,8192,8192
301.951,3.54896e-09,0,8192,8192
302.001,3.65556e-09,0,8192,8192
302.051,3.73625e-09,0,8192,8192
302.1,3.79297e-09,0,8192,8192
302.15,3.82774e-09,0,8192,8192
302.2,3.84267e-09,0,8192,8192
302.253,3.83924e-09,0,8192,8192
302.303,3.82005e-09,0,8192,8192
302.352,3.78745e-09,0,8192,8192
302.402,3.74345e-09,0,8192,8192
302.452,3.68993e-09,0,8192,8192
302.502,3.62866e-09,0,8192,8192
302.552,3.56131e-09,0,8192,8192
302.601,3.48942e-09,0,8192,8192
302.651,3.41439e-09,0,8192,8192
302.701,3.33754e-09,0,8192,8192
302.751,3.26007e-09,0,8192,8192
302.801,3.18309e-09,0,8192,8192
302.85,3.10761e-09,0,8192,8192
302.9,3.03459e-09,0,8192,8192
302.953,2.96089e-09,0,8192,8192
303.003,2.89551e-09,0,8192,8192
303.052,2.83491e-09,0,8192,8192
303.102,2.77963e-09,0,8192,8192
303.152,2.73011e-09,0,8192,8192
303.202,2.68662e-09,0,8192,8192
303.252,2.64926e-09,0,8192,8192
303.301,2.61799e-09,0,8192,8192
303.351,2.59256e-09,0,8192,8192
303.401,2.57256e-09,0,8192,8192
303.451,2.55738e-09,0,8192,8192
303.501,2.54631e-09,0,8192,8192
303.55,2.53845e-09,0,8192,8192
303.6,2.53284e-09,0,8192,8192
303.65,2.52845e-09,0,8192,8192
303.703,2.52398e-09,0,8192,8192
303.753,2.51886e-09,0,8192,8192
303.802,2.51194e-09,0,8192,8192
303.852,2.5024e-09,0,8192,8192
303.902,2.48961e-09,0,8192,8192
303.952,2.47311e-09,0,8192,8192
304.002,2.45265e-09,0,8192,8192
304.051,2.4282e-09,0,8192,8192
304.101,2.39991e-09,0,8192,8192
304.151,2.36813e-09,0,8192,8192
304.201,2.33333e-09,0,8192,8192
304.251,2.29612e-09,0,8192,8192
304.3,2.25715e-09,0,8192,8192
304.35,2.21715e-09,0,8192,8192
304.403,2.17447e-09,0,8192,8192
304.453,2.1346e-09,0,8192,8192
304.502,2.09584e-09,0,8192,8192
304.552,2.05886e-09,0,8192,8192
304.602,2.02427e-09,0,8192,8192
304.652,1.99262e-09,0,8192,8192
304.702,1.96445e-09,0,8192,8192
304.751,1.9402e-09,0,8192,8192
304.801,1.92027e-09,0,8192,8192
304.851,1.90495e-09,0,8192,8192
304.901,1.89442e-09,0,8192,8192
304.951,1.88876e-09,0,8192,8192
