250,0,0,2048,2048
250.006,0,0,2048,2048
250.053,0,0,2048,2048
250.105,0,0,2048,2048
250.152,0,0,2048,2048
250.205,0,0,2048,2048
250.252,0,0,2048,2048
250.305,0,0,2048,2048
250.352,0,0,2048,2048
250.404,0,0,2048,2048
250.451,1.38778e-17,0,2048,2048
250.504,0,0,2048,2048
250.551,0,0,2048,2048
250.603,0,0,2048,2048
250.65,0,0,2048,2048
250.703,0,0,2048,2048
250.756,0,0,2048,2048
250.803,0,0,2048,2048
250.855,0,0,2048,2048
250.902,-1.38778e-17,0,2048,2048
250.955,-1.38778e-17,0,2048,2048
251.002,-1.38778e-17,0,2048,2048
251.055,-1.38778e-17,0,2048,2048
251.101,-1.38778e-17,0,2048,2048
251.154,0,0,2048,2048
251.201,0,0,2048,2048
251.254,0,0,2048,2048
251.301,0,0,2048,2048
251.353,0,0,2048,2048
251.4,0,0,2048,2048
251.453,0,0,2048,2048
251.506,0,0,2048,2048
251.553,0,0,2048,2048
251.605,1.38778e-17,0,2048,2048
251.652,0,0,2048,2048
251.705,0,0,2048,2048
251.752,-1.38778e-17,0,2048,2048
251.804,-1.38778e-17,0,2048,2048
251.851,-1.38778e-17,0,2048,2048
251.904,-1.38778e-17,0,2048,2048
251.951,0,0,2048,2048
252.004,0,0,2048,2048
252.05,0,0,2048,2048
252.103,0,0,2048,2048
252.15,0,0,2048,2048
252.203,0,0,2048,2048
252.256,0,0,2048,2048
252.302,0,0,2048,2048
252.355,1.38778e-17,0,2048,2048
252.402,1.38778e-17,0,2048,2048
252.455,0,0,2048,2048
252.502,0,0,2048,2048
252.554,-1.38778e-17,0,2048,2048
252.601,-1.38778e-17,0,2048,2048
252.654,-1.38778e-17,0,2048,2048
252.701,0,0,2048,2048
252.754,0,0,2048,2048
252.8,0,0,2048,2048
252.853,0,0,2048,2048
252.906,0,0,2048,2048
252.953,0,0,2048,2048
253.005,0,0,2048,2048
253.052,0,0,2048,2048
253.105,0,0,2048,2048
253.152,0,0,2048,2048
253.205,0,0,2048,2048
253.251,0,0,2048,2048
253.304,0,0,2048,2048
253.351,0,0,2048,2048
253.404,0,0,2048,2048
253.451,0,0,2048,2048
253.503,0,0,2048,2048
253.55,0,0,2048,2048
253.603,0,0,2048,2048
253.656,0,0,2048,2048
253.703,0,0,2048,2048
253.755,0,0,2048,2048
253.802,0,0,2048,2048
253.855,0,0,2048,2048
253.902,0,0,2048,2048
253.954,0,0,2048,2048
254.001,0,0,2048,2048
254.054,0,0,2048,2048
254.101,0,0,2048,2048
254.154,-1.38778e-17,0,2048,2048
254.201,0,0,2048,2048
254.253,0,0,2048,2048
254.3,-1.38778e-17,0,2048,2048
254.353,-1.38778e-17,0,2048,2048
254.406,-1.38778e-17,0,2048,2048
254.452,-1.38778e-17,0,2048,2048
254.505,0,0,2048,2048
254.552,0,0,2048,2048
254.605,0,0,2048,2048
254.652,0,0,2048,2048
254.704,0,0,2048,2048
254.751,1.38778e-17,0,2048,2048
254.804,2.77556e-17,0,2048,2048
254.851,2.77556e-17,0,2048,2048
254.904,2.77556e-17,0,2048,2048
254.95,2.77556e-17,0,2048,2048
255.003,1.38778e-17,0,2048,2048
255.05,1.38778e-17,0,2048,2048
255.103,0,0,2048,2048
255.155,0,0,2048,2048
255.202,1.38778e-17,0,2048,2048
255.255,1.38778e-17,0,2048,2048
255.302,1.38778e-17,0,2048,2048
255.355,1.38778e-17,0,2048,2048
255.402,1.38778e-17,0,2048,2048
255.454,1.38778e-17,0,2048,2048
255.501,1.38778e-17,0,2048,2048
255.554,2.77556e-17,0,2048,2048
255.601,2.77556e-17,0,2048,2048
255.653,2.77556e-17,0,2048,2048
255.7,1.38778e-17,0,2048,2048
255.753,1.38778e-17,0,2048,2048
255.806,1.38778e-17,0,2048,2048
255.853,1.38778e-17,0,2048,2048
255.905,1.38778e-17,0,2048,2048
255.952,1.38778e-17,0,2048,2048
256.005,1.38778e-17,0,2048,2048
256.052,1.38778e-17,0,2048,2048
256.105,1.38778e-17,0,2048,2048
256.151,1.38778e-17,0,2048,2048
256.204,1.38778e-17,0,2048,2048
256.251,1.38778e-17,0,2048,2048
256.304,1.38778e-17,0,2048,2048
256.351,2.77556e-17,0,2048,2048
256.403,1.38778e-17,0,2048,2048
256.45,1.38778e-17,0,2048,2048
256.503,1.38778e-17,0,2048,2048
256.556,1.38778e-17,0,2048,2048
256.603,1.38778e-17,0,2048,2048
256.655,1.38778e-17,0,2048,2048
256.702,1.38778e-17,0,2048,2048
256.755,0,0,2048,2048
256.802,0,0,2048,2048
256.854,0,0,2048,2048
256.901,0,0,2048,2048
256.954,0,0,2048,2048
257.001,0,0,2048,2048
257.054,-1.38778e-17,0,2048,2048
257.101,0,0,2048,2048
257.153,0,0,2048,2048
257.2,0,0,2048,2048
257.253,0,0,2048,2048
257.306,0,0,2048,2048
257.352,0,0,2048,2048
257.405,0,0,2048,2048
257.452,-1.38778e-17,0,2048,2048
257.505,-1.38778e-17,0,2048,2048
257.552,-2.77556e-17,0,2048,2048
257.604,-2.77556e-17,0,2048,2048
257.651,-2.77556e-17,0,2048,2048
257.704,-2.77556e-17,0,2048,2048
257.751,-2.77556e-17,0,2048,2048
257.804,-2.77556e-17,0,2048,2048
257.85,-2.77556e-17,0,2048,2048
257.903,-2.77556e-17,0,2048,2048
257.95,-2.77556e-17,0,2048,2048
258.003,-2.77556e-17,0,2048,2048
258.055,-2.77556e-17,0,2048,2048
258.102,-2.77556e-17,0,2048,2048
258.155,-2.77556e-17,0,2048,2048
258.202,-2.77556e-17,0,2048,2048
258.255,-2.77556e-17,0,2048,2048
258.302,-2.77556e-17,0,2048,2048
258.354,-1.38778e-17,0,2048,2048
258.401,-1.38778e-17,0,2048,2048
258.454,-1.38778e-17,0,2048,2048
258.501,-1.38778e-17,0,2048,2048
258.553,-1.38778e-17,0,2048,2048
258.6,-1.38778e-17,0,2048,2048
258.653,-1.38778e-17,0,2048,2048
258.706,-1.38778e-17,0,2048,2048
258.753,-1.38778e-17,0,2048,2048
258.805,-1.38778e-17,0,2048,2048
258.852,-1.38778e-17,0,2048,2048
258.905,-2.77556e-17,0,2048,2048
258.952,-4.16334e-17,0,2048,2048
259.005,-4.16334e-17,0,2048,2048
259.051,-2.77556e-17,0,2048,2048
259.104,-2.77556e-17,0,2048,2048
259.151,-1.38778e-17,0,2048,2048
259.204,-1.38778e-17,0,2048,2048
259.251,-1.38778e-17,0,2048,2048
259.303,-1.38778e-17,0,2048,2048
259.35,-1.38778e-17,0,2048,2048
259.403,-1.38778e-17,0,2048,2048
259.456,-1.38778e-17,0,2048,2048
259.503,-1.38778e-17,0,2048,2048
259.555,-1.38778e-17,0,2048,2048
259.602,-1.38778e-17,0,2048,2048
259.655,-1.38778e-17,0,2048,2048
259.702,0,0,2048,2048
259.754,0,0,2048,2048
259.801,0,0,2048,2048
259.854,1.38778e-17,0,2048,2048
259.901,1.38778e-17,0,2048,2048
259.954,1.38778e-17,0,2048,2048
260,1.38778e-17,0,2048,2048
260.053,1.38778e-17,0,2048,2048
260.1,1.38778e-17,0,2048,2048
260.153,1.38778e-17,0,2048,2048
260.206,1.38778e-17,0,2048,2048
260.252,1.38778e-17,0,2048,2048
260.305,0,0,2048,2048
260.352,0,0,2048,2048
260.405,-1.38778e-17,0,2048,2048
260.452,-1.38778e-17,0,2048,2048
260.504,0,0,2048,2048
260.551,0,0,2048,2048
260.604,0,0,2048,2048
260.651,0,0,2048,2048
260.704,0,0,2048,2048
260.75,1.38778e-17,0,2048,2048
260.803,1.38778e-17,0,2048,2048
260.856,1.38778e-17,0,2048,2048
260.903,1.38778e-17,0,2048,2048
260.955,1.38778e-17,0,2048,2048
261.002,0,0,2048,2048
261.055,0,0,2048,2048
261.102,0,0,2048,2048
261.155,1.38778e-17,0,2048,2048
261.201,0,0,2048,2048
261.254,-1.38778e-17,0,2048,2048
261.301,-1.38778e-17,0,2048,2048
261.354,-1.38778e-17,0,2048,2048
261.401,-1.38778e-17,0,2048,2048
261.453,0,0,2048,2048
261.5,0,0,2048,2048
261.553,0,0,2048,2048
261.606,0,0,2048,2048
261.653,0,0,2048,2048
261.705,0,0,2048,2048
261.752,0,0,2048,2048
261.805,-1.38778e-17,0,2048,2048
261.852,0,0,2048,2048
261.905,-1.38778e-17,0,2048,2048
261.951,-1.38778e-17,0,2048,2048
262.004,-1.38778e-17,0,2048,2048
262.051,-1.38778e-17,0,2048,2048
262.104,-1.38778e-17,0,2048,2048
262.151,-1.38778e-17,0,2048,2048
262.203,-1.38778e-17,0,2048,2048
262.25,-1.38778e-17,0,2048,2048
262.303,-1.38778e-17,0,2048,2048
262.356,-1.38778e-17,0,2048,2048
262.402,-1.38778e-17,0,2048,2048
262.455,-1.38778e-17,0,2048,2048
262.502,-1.38778e-17,0,2048,2048
262.555,-1.38778e-17,0,2048,2048
262.602,-2.77556e-17,0,2048,2048
262.654,-2.77556e-17,0,2048,2048
262.701,-2.77556e-17,0,2048,2048
262.754,-2.77556e-17,0,2048,2048
262.801,-4.16334e-17,0,2048,2048
262.854,-2.77556e-17,0,2048,2048
262.9,-2.77556e-17,0,2048,2048
262.953,-2.77556e-17,0,2048,2048
263,-2.77556e-17,0,2048,2048
263.053,-5.55112e-17,0,2048,2048
263.105,-4.16334e-17,0,2048,2048
263.152,-4.16334e-17,0,2048,2048
263.205,-4.16334e-17,0,2048,2048
263.252,-2.77556e-17,0,2048,2048
263.305,-2.77556e-17,0,2048,2048
263.352,-2.77556e-17,0,2048,2048
263.404,-2.77556e-17,0,2048,2048
263.451,-2.77556e-17,0,2048,2048
263.504,-2.77556e-17,0,2048,2048
263.551,-2.77556e-17,0,2048,2048
263.603,-2.77556e-17,0,2048,2048
263.65,-2.77556e-17,0,2048,2048
263.703,-2.77556e-17,0,2048,2048
263.756,-2.77556e-17,0,2048,2048
263.803,-2.77556e-17,0,2048,2048
263.855,-2.77556e-17,0,2048,2048
263.902,-1.38778e-17,0,2048,2048
263.955,-1.38778e-17,0,2048,2048
264.002,-1.38778e-17,0,2048,2048
264.055,-1.38778e-17,0,2048,2048
264.101,-1.38778e-17,0,2048,2048
264.154,-1.38778e-17,0,2048,2048
264.201,-1.38778e-17,0,2048,2048
264.254,-1.38778e-17,0,2048,2048
264.301,-1.38778e-17,0,2048,2048
264.353,-1.38778e-17,0,2048,2048
264.4,-1.38778e-17,0,2048,2048
264.453,-1.38778e-17,0,2048,2048
264.506,-1.38778e-17,0,2048,2048
264.553,-1.38778e-17,0,2048,2048
264.605,-1.38778e-17,0,2048,2048
264.652,-1.38778e-17,0,2048,2048
264.705,-1.38778e-17,0,2048,2048
264.752,-1.38778e-17,0,2048,2048
264.804,-1.38778e-17,0,2048,2048
264.851,-1.38778e-17,0,2048,2048
264.904,-2.77556e-17,0,2048,2048
264.951,-2.77556e-17,0,2048,2048
265.004,-2.77556e-17,0,2048,2048
265.051,-4.16334e-17,0,2048,2048
265.103,-2.77556e-17,0,2048,2048
265.15,-2.77556e-17,0,2048,2048
265.203,-2.77556e-17,0,2048,2048
265.256,-2.77556e-17,0,2048,2048
265.302,-2.77556e-17,0,2048,2048
265.355,-2.77556e-17,0,2048,2048
265.402,-2.77556e-17,0,2048,2048
265.455,-2.77556e-17,0,2048,2048
265.502,-2.77556e-17,0,2048,2048
265.554,-2.77556e-17,0,2048,2048
265.601,-2.77556e-17,0,2048,2048
265.654,-2.77556e-17,0,2048,2048
265.701,-2.77556e-17,0,2048,2048
265.754,-2.77556e-17,0,2048,2048
265.8,-2.77556e-17,0,2048,2048
265.853,-2.77556e-17,0,2048,2048
265.9,-2.77556e-17,0,2048,2048
265.953,-2.77556e-17,0,2048,2048
266.005,-2.77556e-17,0,2048,2048
266.052,-2.77556e-17,0,2048,2048
266.105,-2.77556e-17,0,2048,2048
266.152,-2.77556e-17,0,2048,2048
266.205,-4.16334e-17,0,2048,2048
266.252,-4.16334e-17,0,2048,2048
266.304,-4.16334e-17,0,2048,2048
266.351,-4.16334e-17,0,2048,2048
266.404,-5.55112e-17,0,2048,2048
266.451,-2.77556e-17,0,2048,2048
266.503,-2.77556e-17,0,2048,2048
266.55,-2.77556e-17,0,2048,2048
266.603,-4.16334e-17,0,2048,2048
266.656,-2.77556e-17,0,2048,2048
266.703,-2.77556e-17,0,2048,2048
266.755,-2.77556e-17,0,2048,2048
266.802,-1.38778e-17,0,2048,2048
266.855,-1.38778e-17,0,2048,2048
266.902,-1.38778e-17,0,2048,2048
266.955,-2.77556e-17,0,2048,2048
267.001,-5.55112e-17,0,2048,2048
267.054,-5.55112e-17,0,2048,2048
267.101,-4.16334e-17,0,2048,2048
267.154,-4.16334e-17,0,2048,2048
267.201,-2.77556e-17,0,2048,2048
267.253,-2.77556e-17,0,2048,2048
267.3,-2.77556e-17,0,2048,2048
267.353,-4.16334e-17,0,2048,2048
267.406,-4.16334e-17,0,2048,2048
267.453,-2.77556e-17,0,2048,2048
267.505,-2.77556e-17,0,2048,2048
267.552,-1.38778e-17,0,2048,2048
267.605,-1.38778e-17,0,2048,2048
267.652,-1.38778e-17,0,2048,2048
267.704,-2.77556e-17,0,2048,2048
267.751,-2.77556e-17,0,2048,2048
267.804,-5.55112e-17,0,2048,2048
267.851,-4.16334e-17,0,2048,2048
267.904,-5.55112e-17,0,2048,2048
267.95,-5.55112e-17,0,2048,2048
268.003,-4.16334e-17,0,2048,2048
268.05,-4.16334e-17,0,2048,2048
268.103,-4.16334e-17,0,2048,2048
268.156,-1.38778e-17,0,2048,2048
268.202,-1.38778e-17,0,2048,2048
268.255,-1.38778e-17,0,2048,2048
268.302,-1.38778e-17,0,2048,2048
268.355,-2.77556e-17,0,2048,2048
268.402,-2.77556e-17,0,2048,2048
268.454,-2.77556e-17,0,2048,2048
268.501,-1.38778e-17,0,2048,2048
268.554,-1.38778e-17,0,2048,2048
268.601,-1.38778e-17,0,2048,2048
268.654,-1.38778e-17,0,2048,2048
268.7,-1.38778e-17,0,2048,2048
268.753,0,0,2048,2048
268.806,0,0,2048,2048
268.853,0,0,2048,2048
268.905,0,0,2048,2048
268.952,0,0,2048,2048
269.005,0,0,2048,2048
269.052,-1.38778e-17,0,2048,2048
269.105,0,0,2048,2048
269.151,0,0,2048,2048
269.204,0,0,2048,2048
269.251,0,0,2048,2048
269.304,1.38778e-17,0,2048,2048
269.351,1.38778e-17,0,2048,2048
269.403,1.38778e-17,0,2048,2048
269.45,1.38778e-17,0,2048,2048
269.503,1.38778e-17,0,2048,2048
269.556,1.38778e-17,0,2048,2048
269.603,0,0,2048,2048
269.655,0,0,2048,2048
269.702,1.38778e-17,0,2048,2048
269.755,1.38778e-17,0,2048,2048
269.802,0,0,2048,2048
269.855,-1.38778e-17,0,2048,2048
269.901,-1.38778e-17,0,2048,2048
269.954,-1.38778e-17,0,2050,2050
270.001,-1.38778e-17,0,2270,2270
270.051,-1.38778e-17,0,2486,2486
270.101,-1.38778e-17,0,2666,2666
270.151,-1.38778e-17,0,2870,2870
270.201,-1.38778e-17,0,3086,3086
270.25,-1.38778e-17,0,3290,3290
270.3,-1.38778e-17,0,3470,3470
270.351,-1.38778e-17,0,3686,3686
270.401,-1.38778e-17,0,3890,3890
270.451,-1.38778e-17,0,4106,4106
270.501,-1.38778e-17,0,4310,4310
270.551,-1.38778e-17,0,4526,4526
270.6,-1.38778e-17,0,4730,4730
270.65,-1.38778e-17,0,4946,4946
270.701,-1.38778e-17,0,5150,5150
270.751,-1.38778e-17,0,5366,5366
270.801,-1.38778e-17,0,5570,5570
270.851,-1.38778e-17,0,5750,5750
270.901,-1.38778e-17,0,5966,5966
270.95,-1.38778e-17,0,6170,6170
271,-1.38778e-17,0,6386,6386
271.051,-1.38778e-17,0,6590,6590
271.101,-1.38778e-17,0,6806,6806
271.151,-1.38778e-17,0,7010,7010
271.201,-1.38778e-17,0,7226,7226
271.251,-1.38778e-17,0,7430,7430
271.3,-1.38778e-17,0,7646,7646
271.35,-1.38778e-17,0,7850,7850
271.4,-1.38778e-17,0,8066,8066
271.451,-1.38778e-17,0,8270,8270
271.501,-1.38778e-17,0,8486,8486
271.551,-1.38778e-17,0,8690,8690
271.601,-1.38778e-17,0,8906,8906
271.65,-1.38778e-17,0,9110,9110
271.7,-1.38778e-17,0,9326,9326
271.75,-1.38778e-17,0,9530,9530
271.801,-1.38778e-17,0,9746,9746
271.851,-1.38778e-17,0,9950,9950
271.901,-1.38778e-17,0,10166,10166
271.951,-1.38778e-17,0,10370,10370
272.001,-1.38778e-17,0,10586,10586
272.05,-1.38778e-17,0,10766,10766
272.1,-1.38778e-17,0,10970,10970
272.151,-1.38778e-17,0,11186,11186
272.201,-1.38778e-17,0,11390,11390
272.251,-1.38778e-17,0,11606,11606
272.301,-1.38778e-17,0,11798,11798
272.351,-1.38778e-17,0,11990,11990
272.4,-1.38778e-17,0,12206,12206
272.45,-1.38778e-17,0,12410,12410
272.501,-1.38778e-17,0,12590,12590
272.551,-1.38778e-17,0,12806,12806
272.601,-1.38778e-17,0,13010,13010
272.651,-1.38778e-17,0,13190,13190
272.701,-1.38778e-17,0,13406,13406
272.75,-1.38778e-17,0,13586,13586
272.8,-1.38778e-17,0,13790,13790
272.85,-1.38778e-17,0,13970,13970
272.901,-1.38778e-17,0,14186,14186
272.951,-1.38778e-17,0,14366,14366
273.001,-1.38778e-17,0,14570,14570
273.051,-1.38778e-17,0,14750,14750
273.1,-1.38778e-17,0,14966,14966
273.15,-1.38778e-17,0,15146,15146
273.2,-1.38778e-17,0,15326,15326
273.251,-1.38778e-17,0,15530,15530
273.301,-1.38778e-17,0,15710,15710
273.351,-1.38778e-17,0,15926,15926
273.401,-1.38778e-17,0,16106,16106
273.451,-1.38778e-17,0,16184,16184
273.5,-1.38778e-17,0,16140,16140
273.55,-1.38778e-17,0,16108,16108
273.601,-1.38778e-17,0,16088,16088
273.651,-1.38778e-17,0,16072,16072
273.701,-1.38778e-17,0,16052,16052
273.751,-1.38778e-17,0,16052,16052
273.801,-1.38778e-17,0,16140,16140
273.85,-1.38778e-17,0,16292,16292
273.9,-1.38778e-17,0,16500,16500
273.951,-1.38778e-17,0,16688,16688
274.001,-1.38778e-17,0,16868,16868
274.051,-1.38778e-17,0,17048,17048
274.101,-1.38778e-17,0,17228,17228
274.151,-1.38778e-17,0,17408,17408
274.2,-9.71445e-17,0,17588,17588
274.25,-4.996e-16,0,17732,17732
274.301,-9.85323e-16,0,17940,17940
274.351,-1.42941e-15,0,18092,18092
274.401,-1.90126e-15,0,18272,18272
274.451,-2.3731e-15,0,18452,18452
274.501,-2.84495e-15,0,18632,18632
274.55,-3.71925e-15,0,18800,18800
274.6,-4.85723e-15,0,18968,18968
274.65,-7.20257e-15,0,19304,19304
274.701,-1.32949e-14,0,19664,19664
274.751,-2.80193e-14,0,20048,20048
274.801,-6.23807e-14,0,20408,20408
274.851,-1.37917e-13,0,20780,20780
274.9,-2.94181e-13,0,21128,21128
274.95,-5.9916e-13,0,21524,21524
275,-1.16114e-12,0,21806,21806
275.051,-2.17676e-12,0,21950,21950
275.101,-3.80936e-12,0,22130,22130
275.151,-6.34461e-12,0,22286,22286
275.201,-1.00641e-11,0,22466,22466
275.251,-1.52144e-11,0,22646,22646
275.3,-2.19331e-11,0,22790,22790
275.35,-3.01651e-11,0,22970,22970
275.401,-3.9881e-11,0,23126,23126
275.451,-4.98867e-11,0,23306,23306
275.501,-5.95407e-11,0,23450,23450
275.551,-6.77554e-11,0,23630,23630
275.601,-7.34106e-11,0,23786,23786
275.65,-7.55338e-11,0,23966,23966
275.7,-7.34713e-11,0,24110,24110
275.751,-6.67509e-11,0,24290,24290
275.801,-5.60282e-11,0,24446,24446
275.851,-4.18706e-11,0,24590,24590
275.901,-2.52713e-11,0,24770,24770
275.951,-7.35884e-12,0,24926,24926
276,1.07677e-11,0,25106,25106
276.05,2.81716e-11,0,25250,25250
276.1,4.41613e-11,0,25406,25406
276.151,5.8703e-11,0,25586,25586
276.201,7.07972e-11,0,25758,25758
276.251,8.09264e-11,0,25910,25910
276.301,8.92655e-11,0,26066,26066
276.35,9.60643e-11,0,26246,26246
276.4,1.016e-10,0,26390,26390
276.45,1.0615e-10,0,26546,26546
276.501,1.10092e-10,0,26726,26726
276.551,1.135e-10,0,26870,26870
276.601,1.16872e-10,0,27026,27026
276.651,1.20778e-10,0,27206,27206
276.701,1.26164e-10,0,27350,27350
276.75,1.34626e-10,0,27506,27506
276.8,1.48797e-10,0,27678,27678
276.851,1.73754e-10,0,27830,27830
276.901,2.14517e-10,0,27986,27986
276.951,2.80607e-10,0,28158,28158
277.001,3.8405e-10,0,28310,28310
277.051,5.39969e-10,0,28466,28466
277.1,7.6611e-10,0,28610,28610
277.15,1.08171e-09,0,28766,28766
277.201,1.52002e-09,0,28946,28946
277.251,2.07264e-09,0,29090,29090
277.301,2.7614e-09,0,29246,29246
277.351,3.58979e-09,0,29390,29390
277.401,4.55215e-09,0,29570,29570
277.45,5.63319e-09,0,29726,29726
277.5,6.80827e-09,0,29870,29870
277.55,8.04363e-09,0,30026,30026
277.601,1.13735e-08,0,30206,30206
277.651,1.88234e-08,0,30350,30350
277.701,2.56041e-08,0,30506,30506
277.751,3.10935e-08,0,30650,30650
277.8,3.58104e-08,0,30806,30806
277.85,4.10301e-08,0,30950,30950
277.9,4.7748e-08,0,31106,31106
277.951,5.69467e-08,0,31250,31250
278.001,6.84879e-08,0,31370,31370
278.051,8.27406e-08,0,31526,31526
278.101,1.00133e-07,0,31646,31646
278.151,1.21371e-07,0,31790,31790
278.2,1.47375e-07,0,31910,31910
278.25,1.79064e-07,0,32030,32030
278.301,2.18095e-07,0,32186,32186
278.351,2.62101e-07,0,32390,32390
278.401,3.11314e-07,0,32768,32768
278.451,3.64639e-07,0,32768,32768
278.501,4.2116e-07,0,32768,32768
278.55,4.80402e-07,0,32768,32768
278.6,5.42254e-07,0,32768,32768
278.651,6.0825e-07,0,32768,32768
278.701,6.73403e-07,0,32768,32768
278.751,7.37342e-07,0,32768,32768
278.801,7.97262e-07,0,32768,32768
278.851,8.50461e-07,0,32768,32768
278.9,8.95038e-07,0,32768,32768
278.95,9.30239e-07,0,32768,32768
279.001,9.57104e-07,0,32768,32768
279.051,9.75329e-07,0,32768,32768
279.101,9.87294e-07,0,32768,32768
279.151,9.94242e-07,0,32768,32768
279.201,9.96857e-07,0,32768,32768
279.25,9.95187e-07,0,32768,32768
279.3,9.88743e-07,0,32768,32768
279.35,9.76709e-07,0,32768,32768
279.401,9.57535e-07,0,32768,32768
279.451,9.31594e-07,0,32768,32768
279.501,8.9825e-07,0,32768,32768
279.551,8.58194e-07,0,32768,32768
279.6,8.13281e-07,0,32768,32768
279.65,7.66169e-07,0,32768,32768
279.7,7.19196e-07,0,32768,32768
279.751,6.72393e-07,0,32768,32768
279.801,6.29136e-07,0,32768,32768
279.851,5.88652e-07,0,32768,32768
279.901,5.51554e-07,0,32768,32768
279.951,5.18349e-07,0,32768,32768
280,4.89344e-07,0,32768,32768
280.05,4.6474e-07,0,32768,32768
280.101,4.44377e-07,0,32768,32768
280.151,4.3016e-07,0,32768,32768
280.201,4.22534e-07,0,32768,32768
280.251,4.22625e-07,0,32768,32768
280.301,4.31032e-07,0,32768,32768
280.35,4.47431e-07,0,32768,32768
280.4,4.70651e-07,0,32768,32768
280.451,5.00106e-07,0,32768,32768
280.501,5.32911e-07,0,32768,32768
280.551,5.69307e-07,0,32768,32768
280.601,6.09216e-07,0,32768,32768
280.651,6.525e-07,0,32768,32768
280.7,6.98415e-07,0,32768,32768
280.75,7.45313e-07,0,32768,32768
280.8,7.90755e-07,0,32768,32768
280.851,8.33129e-07,0,32768,32768
280.901,8.67626e-07,0,32768,32768
280.951,8.9416e-07,0,32768,32768
281.001,9.12449e-07,0,32768,32768
281.05,9.23022e-07,0,32768,32768
281.1,9.26768e-07,0,32768,32768
281.15,9.24567e-07,0,32768,32768
281.201,9.16819e-07,0,32768,32768
281.251,9.04403e-07,0,32768,32768
281.301,8.87298e-07,0,32768,32768
281.351,8.65336e-07,0,32768,32768
281.401,8.38108e-07,0,32732,32732
281.45,8.05112e-07,0,32768,32768
281.5,7.65964e-07,0,32768,32768
281.551,7.19213e-07,0,32768,32768
281.601,6.68066e-07,0,32768,32768
281.651,6.12408e-07,0,32768,32768
281.701,5.53853e-07,0,32768,32768
281.751,4.94244e-07,0,32768,32768
281.8,4.35356e-07,0,32768,32768
281.85,3.78644e-07,0,32768,32768
281.901,3.23578e-07,0,32768,32768
281.951,2.73814e-07,0,32768,32768
282.001,2.27825e-07,0,32768,32768
282.051,1.85474e-07,0,32768,32768
282.101,1.46566e-07,0,32768,32768
282.15,1.11007e-07,0,32768,32768
282.2,7.88772e-08,0,32768,32768
282.251,4.96108e-08,0,32768,32768
282.301,2.50636e-08,0,32768,32768
282.351,4.29995e-09,0,32768,32768
282.401,-1.30016e-08,0,32768,32768
282.451,-2.74772e-08,0,32768,32768
282.5,-3.98816e-08,0,32768,32768
282.55,-5.06689e-08,0,32768,32768
282.6,-5.99438e-08,0,32768,32768
282.651,-6.77837e-08,0,32768,32768
282.701,-7.35675e-08,0,32768,32768
282.751,-7.7536e-08,0,32768,32768
282.801,-7.99405e-08,0,32768,32768
282.85,-8.12304e-08,0,32768,32768
282.9,-8.1876e-08,0,32768,32768
282.95,-8.21777e-08,0,32768,32768
283.001,-8.21582e-08,0,32768,32768
283.051,-8.16109e-08,0,32768,32768
283.101,-8.02642e-08,0,32768,32768
283.151,-7.79439e-08,0,32768,32768
283.201,-7.46725e-08,0,32768,32768
283.25,-7.06526e-08,0,32768,32768
283.3,-6.61758e-08,0,32768,32768
283.351,-6.13867e-08,0,32768,32768
283.401,-5.67771e-08,0,32768,32768
283.451,-5.23474e-08,0,32768,32768
283.501,-4.81768e-08,0,32768,32768
283.551,-4.43093e-08,0,32768,32768
283.6,-4.07659e-08,0,32768,32768
283.65,-3.75481e-08,0,32768,32768
283.701,-3.45598e-08,0,32768,32768
283.751,-3.19467e-08,0,32768,32768
283.801,-2.95951e-08,0,32768,32768
283.851,-2.74885e-08,0,32768,32768
283.901,-2.5618e-08,0,32768,32768
283.95,-2.39789e-08,0,32768,32768
284,-2.25657e-08,0,32768,32768
284.05,-2.137e-08,0,32768,32768
284.101,-2.03531e-08,0,32768,32768
284.151,-1.95576e-08,0,32768,32768
284.201,-1.89348e-08,0,32768,32768
284.251,-1.84676e-08,0,32768,32768
284.3,-1.81385e-08,0,32768,32768
284.35,-1.79298e-08,0,32768,32768
284.4,-1.78245e-08,0,32768,32768
284.451,-1.78074e-08,0,32768,32768
284.501,-1.78647e-08,0,32768,32768
284.551,-1.79827e-08,0,32768,32768
284.601,-1.81513e-08,0,32768,32768
284.651,-1.83617e-08,0,32768,32768
284.7,-1.86058e-08,0,32768,32768
284.75,-1.88761e-08,0,32768,32768
284.801,-1.91741e-08,0,32768,32768
284.851,-1.94764e-08,0,32768,32768
284.901,-1.97863e-08,0,32768,32768
284.951,-2.01e-08,0,32768,32768
285.001,-2.04152e-08,0,32768,32768
285.05,-2.07301e-08,0,32768,32768
285.1,-2.10429e-08,0,32768,32768
285.151,-2.13604e-08,0,32768,32768
285.201,-2.16622e-08,0,32768,32768
285.251,-2.19552e-08,0,32768,32768
285.301,-2.22377e-08,0,32768,32768
285.351,-2.2509e-08,0,32768,32768
285.4,-2.27697e-08,0,32768,32768
285.45,-2.30216e-08,0,32768,32768
285.5,-2.32676e-08,0,32768,32768
285.551,-2.35183e-08,0,32768,32768
285.601,-2.37639e-08,0,32768,32768
285.651,-2.40157e-08,0,32768,32768
285.701,-2.42784e-08,0,32768,32768
285.75,-2.45561e-08,0,32768,32768
285.8,-2.48525e-08,0,32768,32768
285.85,-2.5171e-08,0,32768,32768
285.901,-2.55248e-08,0,32768,32768
285.951,-2.58958e-08,0,32768,32768
286.001,-2.6295e-08,0,32768,32768
286.051,-2.67229e-08,0,32768,32768
286.101,-2.71788e-08,0,32768,32768
286.15,-2.76613e-08,0,32768,32768
286.2,-2.81674e-08,0,32768,32768
286.251,-2.87097e-08,0,32768,32768
286.301,-2.92529e-08,0,32768,32768
286.351,-2.9808e-08,0,32768,32768
286.401,-3.03709e-08,0,32768,32768
286.451,-3.09378e-08,0,32768,32768
286.5,-3.15048e-08,0,32768,32768
286.55,-3.20688e-08,0,32768,32768
286.601,-3.26428e-08,0,32768,32768
286.651,-3.31906e-08,0,32768,32768
286.701,-3.37253e-08,0,32768,32768
286.751,-3.42436e-08,0,32768,32768
286.801,-3.4742e-08,0,32768,32768
286.85,-3.52172e-08,0,32768,32768
286.9,-3.56665e-08,0,32768,32768
286.951,-3.60997e-08,0,32736,32736
287.001,-3.64906e-08,0,32752,32752
287.051,-3.68516e-08,0,32720,32720
287.101,-3.71833e-08,0,32720,32720
287.151,-3.74866e-08,0,32704,32704
287.2,-3.77633e-08,0,32704,32704
287.25,-3.80155e-08,0,32688,32688
287.3,-3.82458e-08,0,32688,32688
287.351,-3.84629e-08,0,32688,32688
287.401,-3.86577e-08,0,32688,32688
287.451,-3.88401e-08,0,32672,32672
287.501,-3.90136e-08,0,32672,32672
287.55,-3.91824e-08,0,32688,32688
287.6,-3.93506e-08,0,32688,32688
287.65,-3.95225e-08,0,32688,32688
287.701,-3.97076e-08,0,32672,32672
287.751,-3.98992e-08,0,32688,32688
287.801,-4.01058e-08,0,32688,32688
287.851,-4.03303e-08,0,32688,32688
287.901,-4.05751e-08,0,32672,32672
287.95,-4.0842e-08,0,32656,32656
288,-4.11322e-08,0,32664,32664
288.051,-4.14558e-08,0,32656,32656
288.101,-4.1794e-08,0,32660,32660
288.151,-4.21542e-08,0,32656,32656
288.201,-4.25342e-08,0,32632,32632
288.251,-4.29305e-08,0,32648,32648
288.3,-4.33395e-08,0,32624,32624
288.35,-4.37568e-08,0,32616,32616
288.401,-4.41903e-08,0,32624,32624
288.451,-4.4611e-08,0,32624,32624
288.501,-4.50271e-08,0,32624,32624
288.551,-4.54349e-08,0,32616,32616
288.601,-4.58307e-08,0,32608,32608
288.65,-4.62114e-08,0,32600,32600
288.7,-4.65735e-08,0,32608,32608
288.75,-4.69138e-08,0,32608,32608
288.801,-4.72381e-08,0,32612,32612
288.851,-4.75245e-08,0,32604,32604
288.901,-4.77799e-08,0,32600,32600
288.951,-4.80017e-08,0,32588,32588
289,-4.8188e-08,0,32584,32584
289.05,-4.83375e-08,0,32592,32592
289.1,-4.84499e-08,0,32588,32588
289.151,-4.85272e-08,0,32580,32580
289.201,-4.85661e-08,0,32604,32604
289.251,-4.85709e-08,0,32580,32580
289.301,-4.8544e-08,0,32596,32596
289.351,-4.84875e-08,0,32592,32592
289.4,-4.84041e-08,0,32592,32592
289.45,-4.82963e-08,0,32592,32592
289.501,-4.81627e-08,0,32588,32588
289.551,-4.80135e-08,0,32588,32588
289.601,-4.78477e-08,0,32568,32568
289.651,-4.76679e-08,0,32560,32560
289.701,-4.74763e-08,0,32596,32596
289.75,-4.72752e-08,0,32592,32592
289.8,-4.70665e-08,0,32592,32592
289.851,-4.68455e-08,0,32600,32600
289.901,-4.66266e-08,0,32584,32584
289.951,-4.64048e-08,0,32592,32592
290.001,-4.61813e-08,0,32580,32580
290.051,-4.59573e-08,0,32716,32716
290.1,-4.57337e-08,0,32768,32768
290.15,-4.55114e-08,0,32768,32768
290.201,-4.52846e-08,0,32768,32768
290.251,-4.50669e-08,0,32768,32768
290.301,-4.48521e-08,0,32768,32768
290.351,-4.46406e-08,0,32768,32768
290.401,-4.44325e-08,0,32768,32768
290.45,-4.42281e-08,0,32768,32768
290.5,-4.40275e-08,0,32768,32768
290.55,-4.38308e-08,0,32768,32768
290.601,-4.36325e-08,0,32768,32768
290.651,-4.34438e-08,0,32768,32768
290.701,-4.32588e-08,0,32768,32768
290.751,-4.30772e-08,0,32768,32768
290.8,-4.28985e-08,0,32768,32768
290.85,-4.27223e-08,0,32768,32768
290.9,-4.25481e-08,0,32768,32768
290.951,-4.23702e-08,0,32768,32768
291.001,-4.21984e-08,0,32768,32768
291.051,-4.20269e-08,0,32768,32768
291.101,-4.18553e-08,0,32768,32768
291.151,-4.1683e-08,0,32768,32768
291.2,-4.15095e-08,0,32768,32768
291.25,-4.13345e-08,0,32768,32768
291.301,-4.11521e-08,0,32768,32768
291.351,-4.09723e-08,0,32768,32768
291.401,-4.07893e-08,0,32768,32768
291.451,-4.06029e-08,0,32768,32768
291.501,-4.04131e-08,0,32768,32768
291.55,-4.02192e-08,0,32768,32768
291.6,-4.00201e-08,0,32768,32768
291.651,-3.98087e-08,0,32768,32768
291.701,-3.95969e-08,0,32768,32768
291.751,-3.93785e-08,0,32768,32768
291.801,-3.91531e-08,0,32768,32768
291.851,-3.89195e-08,0,32768,32768
291.9,-3.86768e-08,0,32768,32768
291.95,-3.84238e-08,0,32768,32768
292,-3.81592e-08,0,32768,32768
292.051,-3.7873e-08,0,32768,32768
292.101,-3.7579e-08,0,32768,32768
292.151,-3.72665e-08,0,32768,32768
292.201,-3.69327e-08,0,32768,32768
292.25,-3.65745e-08,0,32768,32768
292.3,-3.61887e-08,0,32768,32768
292.35,-3.57723e-08,0,32768,32768
292.401,-3.53083e-08,0,32768,32768
292.451,-3.48206e-08,0,32768,32768
292.501,-3.42942e-08,0,32768,32768
292.551,-3.37275e-08,0,32768,32768
292.601,-3.31193e-08,0,32768,32768
292.65,-3.24694e-08,0,32768,32768
292.7,-3.17785e-08,0,32768,32768
292.751,-3.10262e-08,0,32768,32768
292.801,-3.02584e-08,0,32768,32768
292.851,-2.94577e-08,0,32768,32768
292.901,-2.86286e-08,0,32768,32768
292.951,-2.77761e-08,0,32768,32768
293,-2.69056e-08,0,32768,32768
293.05,-2.60226e-08,0,32768,32768
293.101,-2.51062e-08,0,32768,32768
293.151,-2.42138e-08,0,32768,32768
293.201,-2.33241e-08,0,32768,32768
293.251,-2.24411e-08,0,32768,32768
293.301,-2.15688e-08,0,32768,32768
293.35,-2.07116e-08,0,32768,32768
293.4,-1.98743e-08,0,32768,32768
293.451,-1.90386e-08,0,32768,32768
293.501,-1.82558e-08,0,32768,32768
293.551,-1.75033e-08,0,32768,32768
293.601,-1.67826e-08,0,32768,32768
293.651,-1.60972e-08,0,32768,32768
293.7,-1.545e-08,0,32768,32768
293.75,-1.48407e-08,0,32768,32768
293.8,-1.42665e-08,0,32768,32768
293.851,-1.37086e-08,0,32768,32768
293.901,-1.31972e-08,0,32768,32768
293.951,-1.27147e-08,0,32768,32768
294.001,-1.22587e-08,0,32768,32768
294.05,-1.18245e-08,0,32768,32768
294.1,-1.14067e-08,0,32768,32768
294.15,-1.10008e-08,0,32768,32768
294.201,-1.05911e-08,0,32768,32768
294.251,-1.01971e-08,0,32768,32768
294.301,-9.80216e-09,0,32768,32768
294.351,-9.40153e-09,0,32768,32768
294.401,-8.99053e-09,0,32402,32402
294.45,-8.5644e-09,0,32034,32034
294.5,-8.11875e-09,0,31794,31794
294.551,-7.63626e-09,0,31610,31610
294.601,-7.14242e-09,0,31450,31450
294.651,-6.62225e-09,0,31294,31294
294.701,-6.07481e-09,0,31166,31166
294.751,-5.50056e-09,0,31022,31022
294.8,-4.90099e-09,0,30890,30890
294.85,-4.27816e-09,0,30754,30754
294.901,-3.61576e-09,0,30626,30626
294.951,-2.95596e-09,0,30482,30482
295.001,-2.26028e-09,0,30350,30350
295.051,-1.26455e-09,0,30206,30206
295.101,-3.70021e-10,0,30054,30054
295.15,1.02794e-10,0,29906,29906
295.2,6.87889e-10,0,29762,29762
295.25,1.28987e-09,0,29606,29606
295.301,1.91374e-09,0,29450,29450
295.351,2.50794e-09,0,29290,29290
295.401,3.08149e-09,0,29126,29126
295.451,3.62983e-09,0,28970,28970
295.5,4.148e-09,0,28810,28810
295.55,4.6319e-09,0,28646,28646
295.6,5.07831e-09,0,28502,28502
295.651,5.49629e-09,0,28346,28346
295.701,5.86028e-09,0,28194,28194
295.751,6.1813e-09,0,28046,28046
295.801,6.45815e-09,0,27890,27890
295.851,6.69042e-09,0,27746,27746
295.9,6.8789e-09,0,27590,27590
295.95,7.02525e-09,0,27446,27446
296.001,7.13418e-09,0,27274,27274
296.051,7.20209e-09,0,27122,27122
296.101,7.23562e-09,0,26966,26966
296.151,7.23828e-09,0,26786,26786
296.201,7.21407e-09,0,26630,26630
296.25,7.1672e-09,0,26454,26454
296.3,7.10165e-09,0,26306,26306
296.351,7.01828e-09,0,26126,26126
296.401,6.9247e-09,0,25946,25946
296.451,6.82101e-09,0,25790,25790
296.501,6.70923e-09,0,25622,25622
296.551,6.59137e-09,0,25466,25466
296.6,6.46957e-09,0,25286,25286
296.65,6.34605e-09,0,25130,25130
296.7,6.22294e-09,0,24962,24962
296.751,6.09868e-09,0,24806,24806
296.801,5.98203e-09,0,24626,24626
296.851,5.87087e-09,0,24470,24470
296.901,5.76658e-09,0,24294,24294
296.95,5.67045e-09,0,24146,24146
297,5.58353e-09,0,23966,23966
297.05,5.50646e-09,0,23810,23810
297.101,5.43758e-09,0,23630,23630
297.151,5.38055e-09,0,23478,23478
297.201,5.33272e-09,0,23306,23306
297.251,5.29347e-09,0,23134,23134
297.301,5.26217e-09,0,22974,22974
297.35,5.23822e-09,0,22826,22826
297.4,5.22102e-09,0,22646,22646
297.451,5.2097e-09,0,22474,22474
297.501,5.20418e-09,0,22310,22310
297.551,5.20329e-09,0,22150,22150
297.601,5.20614e-09,0,21986,21986
297.651,5.21176e-09,0,21814,21814
297.7,5.21908e-09,0,21654,21654
297.75,5.22698e-09,0,21506,21506
297.801,5.23453e-09,0,21326,21326
297.851,5.24026e-09,0,21170,21170
297.901,5.24355e-09,0,20994,20994
297.951,5.24377e-09,0,20846,20846
298.001,5.24053e-09,0,20666,20666
298.05,5.23372e-09,0,20510,20510
298.1,5.22344e-09,0,20342,20342
298.151,5.2096e-09,0,20186,20186
298.201,5.19343e-09,0,20006,20006
298.251,5.17513e-09,0,19834,19834
298.301,5.1552e-09,0,19670,19670
298.351,5.13413e-09,0,19510,19510
298.4,5.11231e-09,0,19346,19346
298.45,5.09008e-09,0,19166,19166
298.5,5.06772e-09,0,19010,19010
298.551,5.04486e-09,0,18830,18830
298.601,5.0231e-09,0,18662,18662
298.651,5.00212e-09,0,18506,18506
298.701,4.98229e-09,0,18326,18326
298.75,4.96398e-09,0,18146,18146
298.8,4.94758e-09,0,17974,17974
298.85,4.93344e-09,0,17810,17810
298.901,4.92154e-09,0,17630,17630
298.951,4.91275e-09,0,17454,17454
299.001,4.90676e-09,0,17282,17282
299.051,4.9035e-09,0,17110,17110
299.101,4.90277e-09,0,16946,16946
299.15,4.90424e-09,0,16766,16766
299.2,4.90753e-09,0,16586,16586
299.251,4.91232e-09,0,16406,16406
299.301,4.91786e-09,0,16226,16226
299.351,4.92383e-09,0,16046,16046
299.401,4.92981e-09,0,15866,15866
299.451,4.93547e-09,0,15686,15686
299.5,4.9405e-09,0,15506,15506
299.55,4.94468e-09,0,15326,15326
299.601,4.9479e-09,0,15146,15146
299.651,4.94981e-09,0,14966,14966
299.701,4.9504e-09,0,14786,14786
299.751,4.94956e-09,0,14582,14582
299.801,4.9472e-09,0,14394,14394
299.85,4.94323e-09,0,14194,14194
299.9,4.93761e-09,0,14002,14002
299.95,4.93028e-09,0,13854,13854
300.001,4.92091e-09,0,13638,13638
300.051,4.91005e-09,0,13442,13442
300.101,4.89744e-09,0,13242,13242
300.151,4.88312e-09,0,13102,13102
300.2,4.86711e-09,0,12894,12894
300.25,4.84944e-09,0,12722,12722
300.3,4.83016e-09,0,12542,12542
300.351,4.80865e-09,0,12334,12334
300.401,4.7862e-09,0,12138,12138
300.451,4.76226e-09,0,11958,11958
300.501,4.73686e-09,0,11762,11762
300.551,4.71006e-09,0,11562,11562
300.6,4.6819e-09,0,11386,11386
300.65,4.65243e-09,0,11166,11166
300.701,4.62081e-09,0,10994,10994
300.751,4.5889e-09,0,10782,10782
300.801,4.55591e-09,0,10602,10602
300.851,4.52193e-09,0,10358,10358
300.901,4.48704e-09,0,10178,10178
300.95,4.45133e-09,0,9958,9958
301,4.4149e-09,0,9758,9758
301.051,4.37674e-09,0,9566,9566
301.101,4.33912e-09,0,9350,9350
301.151,4.30101e-09,0,9110,9110
301.201,4.2625e-09,0,8914,8914
301.251,4.22363e-09,0,8686,8686
301.3,4.18447e-09,0,8478,8478
301.35,4.14504e-09,0,8274,8274
301.4,4.10539e-09,0,8026,8026
301.451,4.06437e-09,0,7822,7822
301.501,4.02433e-09,0,7602,7602
301.551,3.98413e-09,0,7398,7398
301.601,3.94376e-09,0,7182,7182
301.65,3.90321e-09,0,6962,6962
301.7,3.86249e-09,0,6746,6746
301.75,3.82157e-09,0,6526,6526
301.801,3.77922e-09,0,6314,6314
301.851,3.73785e-09,0,6102,6102
301.901,3.69621e-09,0,5902,5902
301.951,3.65428e-09,0,5698,5698
302.001,3.61203e-09,0,5458,5458
302.05,3.56944e-09,0,5258,5258
302.1,3.52647e-09,0,5038,5038
302.151,3.48181e-09,0,4826,4826
302.201,3.438e-09,0,4602,4602
302.251,3.39375e-09,0,4374,4374
302.301,3.34905e-09,0,4190,4190
302.351,3.3039e-09,0,3962,3962
302.4,3.25829e-09,0,3738,3738
302.45,3.21224e-09,0,3530,3530
302.501,3.16438e-09,0,3302,3302
302.551,3.11747e-09,0,3086,3086
302.601,3.07016e-09,0,2890,2890
302.651,3.02249e-09,0,2650,2650
302.701,2.97448e-09,0,2418,2418
302.75,2.92616e-09,0,2222,2222
302.805,2.87316e-09,0,2048,2048
302.852,2.82718e-09,0,2048,2048
302.904,2.77523e-09,0,2048,2048
302.951,2.72889e-09,0,2048,2048
303.004,2.67662e-09,0,2048,2048
303.051,2.63007e-09,0,2048,2048
303.103,2.57765e-09,0,2048,2048
303.15,2.53105e-09,0,2048,2048
303.203,2.47867e-09,0,2048,2048
303.256,2.42639e-09,0,2048,2048
303.303,2.38004e-09,0,2048,2048
303.355,2.32809e-09,0,2048,2048
303.402,2.2821e-09,0,2048,2048
303.455,2.23064e-09,0,2048,2048
303.502,2.18516e-09,0,2048,2048
303.555,2.13432e-09,0,2048,2048
303.601,2.08945e-09,0,2048,2048
303.654,2.03936e-09,0,2048,2048
303.701,1.9952e-09,0,2048,2048
303.754,1.94593e-09,0,2048,2048
303.801,1.90253e-09,0,2048,2048
303.853,1.85415e-09,0,2048,2048
303.9,1.81155e-09,0,2048,2048
303.953,1.76408e-09,0,2048,2048
304.006,1.7171e-09,0,2048,2048
304.053,1.67574e-09,0,2048,2048
304.105,1.62966e-09,0,2048,2048
304.152,1.58909e-09,0,2048,2048
304.205,1.54388e-09,0,2048,2048
304.252,1.50406e-09,0,2048,2048
304.304,1.45965e-09,0,2048,2048
304.351,1.42052e-09,0,2048,2048
304.404,1.37687e-09,0,2048,2048
304.451,1.33839e-09,0,2048,2048
304.504,1.29544e-09,0,2048,2048
304.551,1.25755e-09,0,2048,2048
304.603,1.21525e-09,0,2048,2048
304.65,1.17792e-09,0,2048,2048
304.703,1.13623e-09,0,2048,2048
304.756,1.09485e-09,0,2048,2048
304.802,1.05833e-09,0,2048,2048
304.855,1.01752e-09,0,2048,2048
304.902,9.81493e-10,0,2048,2048
304.955,9.41244e-10,0,2048,2048
