250,0,0,512,512
250.012,0,0,512,512
250.059,0,0,512,512
250.105,0,0,512,512
250.152,0,0,512,512
250.211,0,0,512,512
250.258,0,0,512,512
250.305,0,0,512,512
250.352,0,0,512,512
250.41,0,0,512,512
250.457,0,0,512,512
250.504,0,0,512,512
250.551,0,0,512,512
250.609,0,0,512,512
250.656,0,0,512,512
250.703,0,0,512,512
250.762,0,0,512,512
250.808,0,0,512,512
250.855,0,0,512,512
250.902,0,0,512,512
250.961,0,0,512,512
251.008,0,0,512,512
251.055,0,0,512,512
251.101,0,0,512,512
251.16,0,0,512,512
251.207,0,0,512,512
251.254,0,0,512,512
251.301,0,0,512,512
251.359,0,0,512,512
251.406,0,0,512,512
251.453,0,0,512,512
251.511,0,0,512,512
251.558,0,0,512,512
251.605,0,0,512,512
251.652,0,0,512,512
251.711,0,0,512,512
251.758,0,0,512,512
251.804,0,0,512,512
251.851,0,0,512,512
251.91,0,0,512,512
251.957,0,0,512,512
252.004,0,0,512,512
252.05,0,0,512,512
252.109,0,0,512,512
252.156,0,0,512,512
252.203,0,0,512,512
252.261,0,0,512,512
252.308,0,0,512,512
252.355,0,0,512,512
252.402,0,0,512,512
252.461,0,0,512,512
252.507,0,0,512,512
252.554,0,0,512,512
252.601,0,0,512,512
252.66,0,0,512,512
252.707,0,0,512,512
252.754,0,0,512,512
252.8,0,0,512,512
252.859,0,0,512,512
252.906,0,0,512,512
252.953,0,0,512,512
253.011,0,0,512,512
253.058,0,0,512,512
253.105,0,0,512,512
253.152,0,0,512,512
253.21,0,0,512,512
253.257,0,0,512,512
253.304,0,0,512,512
253.351,0,0,512,512
253.41,0,0,512,512
253.457,0,0,512,512
253.503,0,0,512,512
253.55,0,0,512,512
253.609,0,0,512,512
253.656,0,0,512,512
253.703,0,0,512,512
253.761,0,0,512,512
253.808,0,0,512,512
253.855,0,0,512,512
253.902,0,0,512,512
253.96,0,0,512,512
254.007,0,0,512,512
254.054,0,0,512,512
254.101,0,0,512,512
254.16,0,0,512,512
254.206,0,0,512,512
254.253,0,0,512,512
254.3,0,0,512,512
254.359,0,0,512,512
254.406,0,0,512,512
254.452,0,0,512,512
254.511,0,0,512,512
254.558,0,0,512,512
254.605,0,0,512,512
254.652,0,0,512,512
254.71,0,0,512,512
254.757,0,0,512,512
254.804,0,0,512,512
254.851,0,0,512,512
254.909,0,0,512,512
254.956,0,0,512,512
255.003,0,0,512,512
255.05,0,0,512,512
255.109,0,0,512,512
255.155,0,0,512,512
255.202,0,0,512,512
255.261,0,0,512,512
255.308,0,0,512,512
255.355,0,0,512,512
255.402,0,0,512,512
255.46,0,0,512,512
255.507,0,0,512,512
255.554,0,0,512,512
255.601,0,0,512,512
255.659,0,0,512,512
255.706,0,0,512,512
255.753,0,0,512,512
255.812,0,0,512,512
255.859,0,0,512,512
255.905,0,0,512,512
255.952,0,0,512,512
256.011,0,0,512,512
256.058,0,0,512,512
256.105,0,0,512,512
256.151,0,0,512,512
256.21,0,0,512,512
256.257,0,0,512,512
256.304,0,0,512,512
256.351,0,0,512,512
256.409,0,0,512,512
256.456,0,0,512,512
256.503,0,0,512,512
256.562,0,0,512,512
256.608,0,0,512,512
256.655,0,0,512,512
256.702,0,0,512,512
256.761,0,0,512,512
256.808,0,0,512,512
256.854,0,0,512,512
256.901,0,0,512,512
256.96,0,0,512,512
257.007,0,0,512,512
257.054,0,0,512,512
257.101,0,0,512,512
257.159,0,0,512,512
257.206,0,0,512,512
257.253,0,0,512,512
257.311,0,0,512,512
257.358,0,0,512,512
257.405,0,0,512,512
257.452,0,0,512,512
257.511,0,0,512,512
257.557,0,0,512,512
257.604,0,0,512,512
257.651,0,0,512,512
257.71,0,0,512,512
257.757,0,0,512,512
257.804,0,0,512,512
257.85,0,0,512,512
257.909,0,0,512,512
257.956,0,0,512,512
258.003,0,0,512,512
258.061,0,0,512,512
258.108,0,0,512,512
258.155,0,0,512,512
258.202,0,0,512,512
258.261,0,0,512,512
258.307,0,0,512,512
258.354,0,0,512,512
258.401,0,0,512,512
258.46,0,0,512,512
258.507,0,0,512,512
258.553,0,0,512,512
258.6,0,0,512,512
258.659,0,0,512,512
258.706,0,0,512,512
258.753,0,0,512,512
258.811,0,0,512,512
258.858,0,0,512,512
258.905,0,0,512,512
258.952,0,0,512,512
259.01,0,0,512,512
259.057,0,0,512,512
259.104,0,0,512,512
259.151,0,0,512,512
259.21,0,0,512,512
259.256,0,0,512,512
259.303,0,0,512,512
259.35,0,0,512,512
259.409,0,0,512,512
259.456,0,0,512,512
259.503,0,0,512,512
259.561,0,0,512,512
259.608,0,0,512,512
259.655,0,0,512,512
259.702,0,0,512,512
259.76,0,0,512,512
259.807,0,0,512,512
259.854,0,0,512,512
259.901,0,0,512,512
259.959,0,0,512,512
260.006,0,0,512,512
260.053,0,0,512,512
260.1,0,0,512,512
260.159,0,0,512,512
260.206,0,0,512,512
260.252,-5.55112e-17,0,512,512
260.311,-5.55112e-17,0,512,512
260.358,-5.55112e-17,0,512,512
260.405,-5.55112e-17,0,512,512
260.452,-5.55112e-17,0,512,512
260.51,-2.77556e-17,0,512,512
260.557,-2.77556e-17,0,512,512
260.604,-2.77556e-17,0,512,512
260.651,-2.77556e-17,0,512,512
260.709,-2.77556e-17,0,512,512
260.756,-2.77556e-17,0,512,512
260.803,-2.77556e-17,0,512,512
260.862,-2.77556e-17,0,512,512
260.909,-2.77556e-17,0,512,512
260.955,-2.77556e-17,0,512,512
261.002,-2.77556e-17,0,512,512
261.061,-2.77556e-17,0,512,512
261.108,-2.77556e-17,0,512,512
261.155,-2.77556e-17,0,512,512
261.201,-2.77556e-17,0,512,512
261.26,0,0,512,512
261.307,0,0,512,512
261.354,0,0,512,512
261.401,0,0,512,512
261.459,0,0,512,512
261.506,0,0,512,512
261.553,0,0,512,512
261.612,2.77556e-17,0,512,512
261.658,2.77556e-17,0,512,512
261.705,2.77556e-17,0,512,512
261.752,2.77556e-17,0,512,512
261.811,2.77556e-17,0,512,512
261.858,2.77556e-17,0,512,512
261.905,2.77556e-17,0,512,512
261.951,2.77556e-17,0,512,512
262.01,5.55112e-17,0,512,512
262.057,5.55112e-17,0,512,512
262.104,5.55112e-17,0,512,512
262.151,5.55112e-17,0,512,512
262.209,5.55112e-17,0,512,512
262.256,2.77556e-17,0,512,512
262.303,2.77556e-17,0,512,512
262.361,2.77556e-17,0,512,512
262.408,2.77556e-17,0,512,512
262.455,5.55112e-17,0,512,512
262.502,5.55112e-17,0,512,512
262.561,5.55112e-17,0,512,512
262.608,5.55112e-17,0,512,512
262.654,5.55112e-17,0,512,512
262.701,5.55112e-17,0,512,512
262.76,5.55112e-17,0,512,512
262.807,5.55112e-17,0,512,512
262.854,5.55112e-17,0,512,512
262.9,5.55112e-17,0,512,512
262.959,5.55112e-17,0,512,512
263.006,5.55112e-17,0,512,512
263.053,5.55112e-17,0,512,512
263.111,5.55112e-17,0,512,512
263.158,2.77556e-17,0,512,512
263.205,2.77556e-17,0,512,512
263.252,5.55112e-17,0,512,512
263.311,2.77556e-17,0,512,512
263.357,0,0,512,512
263.404,0,0,512,512
263.451,0,0,512,512
263.51,0,0,512,512
263.557,0,0,512,512
263.603,0,0,512,512
263.65,0,0,512,512
263.709,0,0,512,512
263.756,0,0,512,512
263.803,0,0,512,512
263.861,0,0,512,512
263.908,0,0,512,512
263.955,0,0,512,512
264.002,0,0,512,512
264.06,0,0,512,512
264.107,0,0,512,512
264.154,0,0,512,512
264.201,0,0,512,512
264.26,0,0,512,512
264.306,0,0,512,512
264.353,0,0,512,512
264.4,2.77556e-17,0,512,512
264.459,2.77556e-17,0,512,512
264.506,2.77556e-17,0,512,512
264.553,0,0,512,512
264.611,0,0,512,512
264.658,0,0,512,512
264.705,0,0,512,512
264.752,0,0,512,512
264.81,0,0,512,512
264.857,0,0,512,512
264.904,0,0,512,512
264.951,0,0,512,512
265.01,0,0,512,512
265.056,0,0,512,512
265.103,0,0,512,512
265.15,0,0,512,512
265.209,0,0,512,512
265.256,0,0,512,512
265.302,0,0,512,512
265.361,0,0,512,512
265.408,0,0,512,512
265.455,0,0,512,512
265.502,0,0,512,512
265.56,0,0,512,512
265.607,0,0,512,512
265.654,0,0,512,512
265.701,0,0,512,512
265.759,0,0,512,512
265.806,0,0,512,512
265.853,0,0,512,512
265.9,0,0,512,512
265.959,0,0,512,512
266.005,0,0,512,512
266.052,0,0,512,512
266.111,0,0,512,512
266.158,0,0,512,512
266.205,0,0,512,512
266.252,0,0,512,512
266.31,0,0,512,512
266.357,0,0,512,512
266.404,0,0,512,512
266.451,0,0,512,512
266.509,0,0,512,512
266.556,0,0,512,512
266.603,0,0,512,512
266.662,0,0,512,512
266.708,0,0,512,512
266.755,0,0,512,512
266.802,0,0,512,512
266.861,0,0,512,512
266.908,0,0,512,512
266.955,0,0,512,512
267.001,0,0,512,512
267.06,0,0,512,512
267.107,0,0,512,512
267.154,0,0,512,512
267.201,0,0,512,512
267.259,0,0,512,512
267.306,0,0,512,512
267.353,0,0,512,512
267.412,0,0,512,512
267.458,0,0,512,512
267.505,0,0,512,512
267.552,0,0,512,512
267.611,0,0,512,512
267.658,0,0,512,512
267.704,0,0,512,512
267.751,0,0,512,512
267.81,0,0,512,512
267.857,0,0,512,512
267.904,0,0,512,512
267.95,0,0,512,512
268.009,0,0,512,512
268.056,0,0,512,512
268.1,0,0,527,527
268.152,0,0,539,539
268.202,0,0,537,537
268.254,0,0,541,541
268.301,0,0,547,547
268.354,0,0,551,551
268.401,0,0,539,539
268.454,0,0,537,537
268.507,0,0,533,533
268.555,0,0,541,541
268.602,0,0,547,547
268.655,0,0,547,547
268.702,0,0,548,548
268.754,0,0,551,551
268.804,0,0,549,549
268.853,0,0,548,548
268.903,0,0,549,549
268.953,0,0,545,545
269.002,0,0,542,542
269.052,0,0,536,536
269.102,0,0,530,530
269.152,0,0,524,524
269.201,0,0,520,520
269.251,0,0,516,516
269.308,0,0,512,512
269.354,0,0,512,512
269.401,0,0,512,512
269.452,0,0,523,523
269.502,0,0,537,537
269.552,0,0,535,535
269.603,0,0,543,543
269.653,0,0,575,575
269.7,0,0,571,571
269.751,0,0,613,613
269.8,0,0,663,663
269.85,0,0,703,703
269.9,0,0,807,807
269.951,0,0,951,951
270.001,0,0,1087,1087
270.051,0,0,1255,1255
270.101,0,0,1401,1401
270.151,0,0,1521,1521
270.2,0,0,1575,1575
270.25,0,0,1611,1611
270.3,0,0,1695,1695
270.351,0,0,1851,1851
270.401,0,0,2073,2073
270.451,0,0,2263,2263
270.501,0,0,2477,2477
270.55,0,0,2667,2667
270.6,0,0,2891,2891
270.65,0,0,3135,3135
270.701,0,0,3343,3343
270.751,0,0,3565,3565
270.801,0,0,3769,3769
270.851,0,0,4053,4053
270.901,0,0,4323,4323
270.95,0,0,4571,4571
271,0,0,4797,4797
271.051,0,0,5021,5021
271.101,0,0,5241,5241
271.151,0,0,5467,5467
271.201,0,0,5711,5711
271.251,0,0,5897,5897
271.3,0,0,6139,6139
271.35,0,0,6363,6363
271.401,0,0,6607,6607
271.451,0,0,6835,6835
271.501,0,0,7023,7023
271.551,0,0,7047,7047
271.601,0,0,7073,7073
271.65,0,0,7237,7237
271.7,-5.27356e-16,0,7395,7395
271.75,-1.41553e-15,0,7603,7603
271.801,-2.35922e-15,0,7823,7823
271.851,-3.30291e-15,0,8051,8051
271.901,-4.7462e-15,0,8231,8231
271.951,-8.60423e-15,0,8455,8455
272,-1.82354e-14,0,8643,8643
272.05,-4.06342e-14,0,8877,8877
272.1,-8.92064e-14,0,9097,9097
272.151,-1.92291e-13,0,9297,9297
272.201,-3.86635e-13,0,9503,9503
272.251,-7.40213e-13,0,9803,9803
272.301,-1.34998e-12,0,10047,10047
272.351,-2.34751e-12,0,10335,10335
272.4,-3.89666e-12,0,10525,10525
272.45,-6.18178e-12,0,10713,10713
272.501,-9.49341e-12,0,10939,10939
272.551,-1.37856e-11,0,11131,11131
272.601,-1.91927e-11,0,11345,11345
272.651,-2.56397e-11,0,11535,11535
272.701,-3.2888e-11,0,11751,11751
272.75,-4.0524e-11,0,11941,11941
272.8,-4.79765e-11,0,12151,12151
272.851,-5.474e-11,0,12365,12365
272.901,-5.97e-11,0,12555,12555
272.951,-6.2418e-11,0,12763,12763
273.001,-6.2396e-11,0,12943,12943
273.051,-5.93548e-11,0,13145,13145
273.1,-5.32716e-11,0,13331,13331
273.15,-4.4378e-11,0,13587,13587
273.201,-3.27628e-11,0,13711,13711
273.251,-1.97092e-11,0,13815,13815
273.301,-5.5978e-12,0,14029,14029
273.351,8.89444e-12,0,14177,14177
273.401,2.31593e-11,0,14379,14379
273.45,3.67031e-11,0,14591,14591
273.5,4.91698e-11,0,14677,14677
273.55,6.03434e-11,0,14781,14781
273.601,7.04007e-11,0,14705,14705
273.651,7.87798e-11,0,14581,14581
273.701,8.58751e-11,0,14456,14456
273.751,9.18167e-11,0,14298,14298
273.8,9.67546e-11,0,14134,14134
273.85,1.00839e-10,0,14032,14032
273.9,1.04204e-10,0,14032,14032
273.951,1.07038e-10,0,13996,13996
274.001,1.09274e-10,0,13981,13981
274.051,1.111e-10,0,14053,14053
274.101,1.1267e-10,0,14007,14007
274.151,1.14296e-10,0,14029,14029
274.2,1.16606e-10,0,14039,14039
274.25,1.20751e-10,0,14047,14047
274.301,1.28975e-10,0,14115,14115
274.351,1.43849e-10,0,14279,14279
274.401,1.6973e-10,0,14329,14329
274.451,2.12081e-10,0,14487,14487
274.501,2.77499e-10,0,14567,14567
274.55,3.73394e-10,0,14481,14481
274.6,5.07479e-10,0,14505,14505
274.651,6.93497e-10,0,14405,14405
274.701,9.38369e-10,0,14413,14413
274.751,1.60892e-09,0,14357,14357
274.801,2.70779e-09,0,14261,14261
274.851,5.19758e-09,0,14183,14183
274.9,8.67149e-09,0,14099,14099
274.95,1.35091e-08,0,14095,14095
275,2.03998e-08,0,14029,14029
275.051,2.57804e-08,0,13957,13957
275.101,2.97938e-08,0,13955,13955
275.151,3.31393e-08,0,13869,13869
275.201,3.67304e-08,0,13839,13839
275.251,4.14015e-08,0,13751,13751
275.301,4.77485e-08,0,13743,13743
275.35,5.6788e-08,0,13685,13685
275.401,7.04006e-08,0,13635,13635
275.45,8.55578e-08,0,13567,13567
275.501,1.03977e-07,0,13497,13497
275.551,1.25923e-07,0,13461,13461
275.601,1.53334e-07,0,13431,13431
275.651,1.87214e-07,0,13353,13353
275.701,2.278e-07,0,13321,13321
275.751,2.74385e-07,0,13249,13249
275.8,3.23764e-07,0,13207,13207
275.851,3.77341e-07,0,13155,13155
275.901,4.32849e-07,0,13109,13109
275.951,4.88956e-07,0,13045,13045
276,5.48081e-07,0,13053,13053
276.05,6.10002e-07,0,12955,12955
276.1,6.72583e-07,0,12921,12921
276.15,7.32289e-07,0,12883,12883
276.2,7.85425e-07,0,12821,12821
276.251,8.29209e-07,0,12801,12801
276.301,8.6235e-07,0,12739,12739
276.351,8.84504e-07,0,12721,12721
276.401,8.98336e-07,0,12688,12688
276.451,9.04505e-07,0,12658,12658
276.501,9.05704e-07,0,12622,12622
276.55,9.05386e-07,0,12584,12584
276.6,9.04595e-07,0,12546,12546
276.651,9.01028e-07,0,12544,12544
276.701,8.8351e-07,0,12472,12472
276.752,8.61854e-07,0,12452,12452
276.801,8.348e-07,0,12428,12428
276.852,7.99087e-07,0,12416,12416
276.901,7.56758e-07,0,12358,12358
276.951,7.07799e-07,0,12326,12326
277,6.54337e-07,0,12326,12326
277.05,5.99011e-07,0,12294,12294
277.1,5.44451e-07,0,12284,12284
277.151,4.92335e-07,0,12230,12230
277.201,4.43657e-07,0,12204,12204
277.25,4.00103e-07,0,12242,12242
277.301,3.58416e-07,0,12240,12240
277.35,3.20848e-07,0,12234,12234
277.401,2.84198e-07,0,12228,12228
277.451,2.50587e-07,0,12246,12246
277.501,2.1881e-07,0,12208,12208
277.551,1.89637e-07,0,12254,12254
277.601,1.64317e-07,0,12256,12256
277.652,1.43712e-07,0,12226,12226
277.7,1.27965e-07,0,12196,12196
277.751,1.14252e-07,0,12188,12188
277.8,1.01549e-07,0,12216,12216
277.852,8.78276e-08,0,12178,12178
277.901,7.44925e-08,0,12146,12146
277.951,6.23841e-08,0,12116,12116
278.001,5.26478e-08,0,12094,12094
278.051,4.55661e-08,0,12036,12036
278.102,4.05658e-08,0,12003,12003
278.15,3.66473e-08,0,11979,11979
278.201,3.23395e-08,0,11915,11915
278.25,2.72553e-08,0,11895,11895
278.301,2.11613e-08,0,11837,11837
278.351,1.54476e-08,0,11735,11735
278.401,1.10921e-08,0,11685,11685
278.451,8.67043e-09,0,11587,11587
278.501,7.75813e-09,0,11567,11567
278.551,7.61165e-09,0,11419,11419
278.601,7.65179e-09,0,11377,11377
278.652,7.68376e-09,0,11305,11305
278.7,7.71028e-09,0,11239,11239
278.751,7.73061e-09,0,11071,11071
278.801,7.7423e-09,0,10921,10921
278.852,7.73883e-09,0,10823,10823
278.901,7.72101e-09,0,10687,10687
278.951,7.68965e-09,0,10563,10563
279,7.64756e-09,0,10467,10467
279.051,7.59524e-09,0,10285,10285
279.1,7.54184e-09,0,10155,10155
279.151,7.48808e-09,0,9953,9953
279.201,7.44132e-09,0,9793,9793
279.252,7.39988e-09,0,9607,9607
279.301,7.36754e-09,0,9435,9435
279.351,7.34274e-09,0,9299,9299
279.4,7.32508e-09,0,9169,9169
279.452,7.31364e-09,0,9001,9001
279.501,7.30859e-09,0,8841,8841
279.551,7.3087e-09,0,8649,8649
279.601,7.31322e-09,0,8455,8455
279.651,7.32141e-09,0,8317,8317
279.701,7.33265e-09,0,8159,8159
279.751,7.34654e-09,0,7851,7851
279.801,7.36289e-09,0,7511,7511
279.851,7.38185e-09,0,7125,7125
279.902,7.40395e-09,0,6781,6781
279.95,7.42909e-09,0,6777,6777
280.001,7.46075e-09,0,6647,6647
280.05,7.49803e-09,0,6767,6767
280.101,7.54578e-09,0,6643,6643
280.151,7.60493e-09,0,6315,6315
280.2,7.67474e-09,0,6561,6561
280.251,7.763e-09,0,6379,6379
280.301,7.86927e-09,0,6633,6633
280.352,7.99558e-09,0,7089,7089
280.4,8.13762e-09,0,7457,7457
280.45,8.30791e-09,0,7571,7571
280.501,8.50082e-09,0,7747,7747
280.551,8.71365e-09,0,7883,7883
280.601,8.94217e-09,0,8131,8131
280.651,9.18508e-09,0,8259,8259
280.701,9.49463e-09,0,8371,8371
280.751,9.96607e-09,0,8527,8527
280.801,1.04697e-08,0,8667,8667
280.851,1.11009e-08,0,8811,8811
280.901,1.18528e-08,0,8971,8971
280.95,1.26872e-08,0,9147,9147
281.002,1.36124e-08,0,9367,9367
281.051,1.45617e-08,0,9485,9485
281.101,1.58608e-08,0,9626,9626
281.15,1.76663e-08,0,9726,9726
281.201,1.95861e-08,0,9896,9896
281.251,2.15067e-08,0,10098,10098
281.302,2.36341e-08,0,10246,10246
281.351,2.64386e-08,0,10420,10420
281.402,2.94701e-08,0,10610,10610
281.451,3.25635e-08,0,10752,10752
281.501,3.59732e-08,0,10914,10914
281.55,3.94297e-08,0,11074,11074
281.601,4.31884e-08,0,11246,11246
281.652,4.70981e-08,0,11438,11438
281.7,5.09609e-08,0,11562,11562
281.751,5.50337e-08,0,11754,11754
281.801,5.9121e-08,0,11916,11916
281.851,6.31738e-08,0,12002,12002
281.902,6.71606e-08,0,12046,12046
281.952,7.10555e-08,0,11942,11942
282.002,7.74993e-08,0,12088,12088
282.052,8.26343e-08,0,12234,12234
282.101,8.7908e-08,0,12438,12438
282.151,9.34358e-08,0,12638,12638
282.2,9.93094e-08,0,12746,12746
282.251,1.05926e-07,0,12916,12916
282.3,1.12767e-07,0,13022,13022
282.351,1.20197e-07,0,13120,13120
282.401,1.27795e-07,0,13158,13158
282.451,1.35389e-07,0,13200,13200
282.501,1.4293e-07,0,13276,13276
282.551,1.50515e-07,0,13340,13340
282.601,1.58232e-07,0,13396,13396
282.65,1.68173e-07,0,13440,13440
282.701,1.81334e-07,0,13584,13584
282.75,1.96067e-07,0,13705,13705
282.801,2.1421e-07,0,13809,13809
282.851,2.35794e-07,0,13957,13957
282.902,2.6117e-07,0,14057,14057
282.95,2.89569e-07,0,14175,14175
283.002,3.24427e-07,0,14307,14307
283.051,3.62323e-07,0,14449,14449
283.101,4.03838e-07,0,14451,14451
283.15,4.48274e-07,0,14461,14461
283.201,4.96548e-07,0,14485,14485
283.25,5.4477e-07,0,14545,14545
283.301,5.95547e-07,0,14639,14639
283.351,6.46293e-07,0,14675,14675
283.402,6.95696e-07,0,14716,14716
283.452,7.42076e-07,0,14704,14704
283.501,7.83591e-07,0,14786,14786
283.551,8.18547e-07,0,14901,14901
283.601,8.45687e-07,0,14937,14937
283.652,8.64815e-07,0,14993,14993
283.701,8.74673e-07,0,15045,15045
283.751,8.76944e-07,0,15125,15125
283.8,8.74725e-07,0,15209,15209
283.851,8.68089e-07,0,15239,15239
283.901,8.53942e-07,0,15305,15305
283.951,8.36119e-07,0,15357,15357
284,8.1351e-07,0,15403,15403
284.05,7.85328e-07,0,15413,15413
284.101,7.50045e-07,0,15463,15463
284.15,7.10056e-07,0,15489,15489
284.201,6.63316e-07,0,15507,15507
284.25,6.13561e-07,0,15577,15577
284.3,5.58775e-07,0,15601,15601
284.351,5.02015e-07,0,15633,15633
284.401,4.44931e-07,0,15713,15713
284.451,3.89072e-07,0,15753,15753
284.5,3.35658e-07,0,15815,15815
284.551,2.83954e-07,0,15857,15857
284.601,2.37455e-07,0,15829,15829
284.65,1.94577e-07,0,15801,15801
284.701,1.54018e-07,0,15857,15857
284.751,1.17024e-07,0,15846,15846
284.8,8.4498e-08,0,15812,15812
284.85,5.44763e-08,0,15824,15824
284.9,2.81538e-08,0,15790,15790
284.951,4.93154e-09,0,15746,15746
285.001,-1.40322e-08,0,15668,15668
285.051,-2.99102e-08,0,15598,15598
285.101,-4.36671e-08,0,15588,15588
285.151,-5.50566e-08,0,15592,15592
285.201,-6.51518e-08,0,15574,15574
285.25,-7.34947e-08,0,15618,15618
285.3,-8.05159e-08,0,15570,15570
285.35,-8.577e-08,0,15616,15616
285.4,-8.91804e-08,0,15674,15674
285.45,-9.10351e-08,0,15676,15676
285.501,-9.1068e-08,0,15720,15720
285.551,-9.0832e-08,0,15780,15780
285.601,-9.04675e-08,0,15806,15806
285.651,-8.99396e-08,0,15838,15838
285.7,-8.92039e-08,0,15881,15881
285.75,-8.82434e-08,0,15935,15935
285.8,-8.60879e-08,0,15939,15939
285.851,-8.29416e-08,0,15967,15967
285.901,-7.95003e-08,0,15995,15995
285.951,-7.57625e-08,0,16017,16017
286.001,-7.17777e-08,0,16013,16013
286.051,-6.75929e-08,0,16049,16049
286.1,-6.33511e-08,0,16079,16079
286.15,-5.92531e-08,0,16041,16041
286.201,-5.53206e-08,0,16053,16053
286.251,-5.1809e-08,0,15993,15993
286.301,-4.8591e-08,0,16041,16041
286.351,-4.5653e-08,0,15967,15967
286.401,-4.29863e-08,0,15927,15927
286.45,-4.05904e-08,0,15865,15865
286.5,-3.84638e-08,0,15854,15854
286.551,-3.6544e-08,0,15794,15794
286.601,-3.49286e-08,0,15734,15734
286.651,-3.35454e-08,0,15710,15710
286.701,-3.2376e-08,0,15626,15626
286.751,-3.14204e-08,0,15602,15602
286.8,-3.06927e-08,0,15568,15568
286.85,-3.01668e-08,0,15518,15518
286.901,-2.98041e-08,0,15476,15476
286.951,-2.96695e-08,0,15410,15410
287.001,-2.95483e-08,0,15362,15362
287.051,-2.94984e-08,0,15334,15334
287.101,-2.94667e-08,0,15226,15226
287.15,-2.94658e-08,0,15072,15072
287.2,-2.94835e-08,0,14896,14896
287.25,-2.953e-08,0,14766,14766
287.301,-2.96025e-08,0,14606,14606
287.351,-2.96932e-08,0,14486,14486
287.401,-2.98034e-08,0,14360,14360
287.451,-2.99291e-08,0,14210,14210
287.5,-3.00667e-08,0,14072,14072
287.55,-3.02128e-08,0,13946,13946
287.6,-3.03641e-08,0,13780,13780
287.651,-3.0522e-08,0,13596,13596
287.701,-3.06742e-08,0,13404,13404
287.751,-3.0822e-08,0,13214,13214
287.801,-3.09627e-08,0,13002,13002
287.851,-3.10939e-08,0,12812,12812
287.9,-3.12134e-08,0,12630,12630
287.95,-3.13194e-08,0,12430,12430
288.001,-3.14128e-08,0,12260,12260
288.051,-3.14873e-08,0,12058,12058
288.101,-3.15451e-08,0,11858,11858
288.151,-3.15863e-08,0,11658,11658
288.201,-3.16113e-08,0,11460,11460
288.25,-3.16206e-08,0,11240,11240
288.3,-3.16154e-08,0,11030,11030
288.351,-3.15958e-08,0,10799,10799
288.401,-3.15641e-08,0,10589,10589
288.451,-3.15211e-08,0,10407,10407
288.501,-3.1468e-08,0,10213,10213
288.551,-3.1406e-08,0,10023,10023
288.6,-3.1336e-08,0,9843,9843
288.65,-3.12589e-08,0,9685,9685
288.7,-3.11755e-08,0,9525,9525
288.751,-3.10837e-08,0,9469,9469
288.801,-3.09895e-08,0,9514,9514
288.851,-3.08909e-08,0,9450,9450
288.901,-3.07887e-08,0,9290,9290
288.95,-3.06834e-08,0,9160,9160
289,-3.05755e-08,0,8944,8944
289.05,-3.0465e-08,0,8662,8662
289.101,-3.03489e-08,0,8382,8382
289.151,-3.02337e-08,0,8188,8188
289.201,-3.01161e-08,0,7882,7882
289.251,-2.99957e-08,0,7658,7658
289.301,-2.98718e-08,0,7442,7442
289.35,-2.97434e-08,0,7210,7210
289.4,-2.96089e-08,0,6970,6970
289.451,-2.94624e-08,0,6746,6746
289.501,-2.93107e-08,0,6546,6546
289.551,-2.9149e-08,0,6342,6342
289.601,-2.89789e-08,0,6082,6082
289.651,-2.88043e-08,0,5870,5870
289.7,-2.86275e-08,0,5662,5662
289.75,-2.84459e-08,0,5434,5434
289.801,-2.82401e-08,0,5208,5208
289.851,-2.8026e-08,0,4974,4974
289.901,-2.76192e-08,0,4776,4776
289.951,-2.71973e-08,0,4560,4560
290.001,-2.68526e-08,0,4306,4306
290.05,-2.64898e-08,0,4098,4098
290.1,-2.60754e-08,0,3880,3880
290.151,-2.56723e-08,0,3654,3654
290.201,-2.52829e-08,0,3390,3390
290.251,-2.4831e-08,0,3144,3144
290.301,-2.43423e-08,0,2910,2910
290.351,-2.38754e-08,0,2668,2668
290.4,-2.34128e-08,0,2408,2408
290.451,-2.29401e-08,0,2280,2280
290.501,-2.2504e-08,0,2238,2238
290.55,-2.2103e-08,0,2216,2216
290.6,-2.17286e-08,0,2180,2180
290.652,-2.13731e-08,0,2134,2134
290.702,-2.10801e-08,0,2112,2112
290.751,-2.08498e-08,0,2062,2062
290.801,-2.06595e-08,0,2062,2062
290.851,-2.05296e-08,0,2148,2148
290.9,-2.04189e-08,0,2054,2054
290.95,-2.03209e-08,0,1992,1992
291.002,-2.03495e-08,0,1914,1914
291.052,-2.0389e-08,0,1856,1856
291.101,-2.03822e-08,0,1808,1808
291.151,-2.04403e-08,0,1772,1772
291.201,-2.05608e-08,0,1716,1716
291.25,-2.07131e-08,0,1660,1660
291.3,-2.09105e-08,0,1594,1594
291.352,-2.11324e-08,0,1542,1542
291.402,-2.13332e-08,0,1484,1484
291.451,-2.15236e-08,0,1428,1428
291.501,-2.17107e-08,0,1364,1364
291.551,-2.18943e-08,0,1294,1294
291.6,-2.20699e-08,0,1250,1250
291.65,-2.22311e-08,0,1180,1180
291.703,-2.23797e-08,0,1122,1122
291.753,-2.24963e-08,0,1094,1094
291.802,-2.25895e-08,0,1042,1042
291.85,-2.26589e-08,0,1006,1006
291.904,-2.27148e-08,0,1000,1000
291.951,-2.27468e-08,0,1000,1000
292.004,-2.27658e-08,0,1007,1007
292.052,-2.27675e-08,0,1013,1013
292.105,-2.27555e-08,0,1013,1013
292.153,-2.27338e-08,0,1019,1019
292.201,-2.26979e-08,0,1021,1021
292.255,-2.26456e-08,0,1027,1027
292.303,-2.25877e-08,0,1029,1029
292.352,-2.25187e-08,0,1035,1035
292.4,-2.24396e-08,0,1039,1039
292.456,-2.23375e-08,0,1051,1051
292.501,-2.2245e-08,0,1057,1057
292.553,-2.21314e-08,0,1049,1049
292.604,-2.20099e-08,0,1029,1029
292.655,-2.18814e-08,0,1023,1023
292.7,-2.17638e-08,0,1025,1025
292.751,-2.16247e-08,0,1023,1023
292.802,-2.14827e-08,0,1019,1019
292.853,-2.13384e-08,0,1025,1025
292.903,-2.11937e-08,0,1017,1017
292.954,-2.10497e-08,0,1017,1017
293.004,-2.0908e-08,0,1007,1007
293.054,-2.07696e-08,0,997,997
293.104,-2.06355e-08,0,993,993
293.153,-2.05069e-08,0,1007,1007
293.203,-2.03842e-08,0,1009,1009
293.252,-2.02678e-08,0,1009,1009
293.302,-2.0158e-08,0,1001,1001
293.351,-2.00549e-08,0,993,993
293.406,-1.99467e-08,0,989,989
293.455,-1.98574e-08,0,979,979
293.503,-1.97741e-08,0,979,979
293.552,-1.96962e-08,0,981,981
293.606,-1.96141e-08,0,977,977
293.654,-1.95448e-08,0,993,993
293.702,-1.94781e-08,0,1029,1029
293.75,-1.94139e-08,0,1035,1035
293.804,-1.93449e-08,0,1043,1043
293.851,-1.92863e-08,0,1043,1043
293.905,-1.92224e-08,0,1045,1045
293.952,-1.91659e-08,0,1041,1041
294.005,-1.91016e-08,0,1033,1033
294.052,-1.90441e-08,0,1031,1031
294.105,-1.89782e-08,0,1031,1031
294.151,-1.89181e-08,0,1037,1037
294.204,-1.88479e-08,0,1035,1035
294.251,-1.87828e-08,0,1037,1037
294.304,-1.87064e-08,0,1037,1037
294.351,-1.86352e-08,0,1031,1031
294.403,-1.85516e-08,0,1037,1037
294.45,-1.84743e-08,0,1033,1033
294.503,-1.83842e-08,0,1037,1037
294.556,-1.82911e-08,0,1035,1035
294.603,-1.82061e-08,0,1037,1037
294.655,-1.81078e-08,0,1037,1037
294.702,-1.80183e-08,0,1031,1031
294.755,-1.79154e-08,0,1037,1037
294.802,-1.78221e-08,0,1033,1033
294.855,-1.77151e-08,0,1037,1037
294.901,-1.76183e-08,0,1037,1037
294.954,-1.75076e-08,0,1037,1037
295.001,-1.74075e-08,0,1031,1031
295.054,-1.72929e-08,0,1005,1005
295.101,-1.71892e-08,0,991,991
295.153,-1.70703e-08,0,964,964
295.2,-1.69623e-08,0,942,942
295.253,-1.6838e-08,0,926,926
295.306,-1.67105e-08,0,912,912
295.352,-1.65942e-08,0,910,910
295.405,-1.64598e-08,0,902,902
295.452,-1.6337e-08,0,904,904
295.505,-1.61948e-08,0,900,900
295.552,-1.60646e-08,0,908,908
295.604,-1.59136e-08,0,904,904
295.651,-1.57752e-08,0,912,912
295.701,-1.56238e-08,0,926,926
295.751,-1.54679e-08,0,927,927
295.8,-1.53073e-08,0,927,927
295.855,-1.51233e-08,0,931,931
295.905,-1.49528e-08,0,927,927
295.954,-1.47775e-08,0,931,931
296.003,-1.45974e-08,0,939,939
296.053,-1.44123e-08,0,921,921
296.102,-1.42223e-08,0,925,925
296.151,-1.40272e-08,0,919,919
296.205,-1.38043e-08,0,915,915
296.254,-1.35979e-08,0,905,905
296.303,-1.33857e-08,0,903,903
296.352,-1.31674e-08,0,903,903
296.401,-1.29431e-08,0,897,897
296.455,-1.26874e-08,0,893,893
296.504,-1.24527e-08,0,893,893
296.552,-1.22157e-08,0,881,881
296.601,-1.19781e-08,0,889,889
296.654,-1.17155e-08,0,881,881
296.703,-1.14817e-08,0,873,873
296.751,-1.12515e-08,0,869,869
296.804,-1.09551e-08,0,865,865
296.853,-1.05318e-08,0,858,858
296.901,-1.01734e-08,0,854,854
296.954,-9.74615e-09,0,854,854
297.002,-9.39655e-09,0,846,846
297.055,-8.98227e-09,0,846,846
297.103,-8.58462e-09,0,850,850
297.151,-8.19049e-09,0,846,846
297.203,-7.72283e-09,0,842,842
297.251,-7.2852e-09,0,850,850
297.304,-6.79546e-09,0,846,846
297.351,-6.33745e-09,0,846,846
297.404,-5.81624e-09,0,850,850
297.451,-5.30165e-09,0,850,850
297.504,-4.59145e-09,0,846,846
297.551,-3.9812e-09,0,846,846
297.603,-3.31278e-09,0,850,850
297.655,-2.64121e-09,0,846,846
297.702,-2.04485e-09,0,848,848
297.753,-1.39255e-09,0,846,846
297.804,-7.42974e-10,0,844,844
297.85,-1.72858e-10,0,846,846
297.901,4.43902e-10,0,840,840
297.952,1.04323e-09,0,842,842
298.003,1.61461e-09,0,844,844
298.053,2.15839e-09,0,848,848
298.103,2.67027e-09,0,846,846
298.153,3.14551e-09,0,848,848
298.203,3.58531e-09,0,848,848
298.253,3.98569e-09,0,840,840
298.302,4.34503e-09,0,848,848
298.351,4.66461e-09,0,852,852
298.401,4.94263e-09,0,844,844
298.454,5.20115e-09,0,848,848
298.503,5.39622e-09,0,848,848
298.552,5.55157e-09,0,854,854
298.6,5.67698e-09,0,848,848
298.653,5.8097e-09,0,850,850
298.701,5.84178e-09,0,854,854
298.754,5.84174e-09,0,854,854
298.801,5.82037e-09,0,856,856
298.854,5.78861e-09,0,850,850
298.901,5.75242e-09,0,852,852
298.953,5.70049e-09,0,858,858
299,5.64624e-09,0,856,856
299.052,5.58017e-09,0,852,852
299.103,5.50616e-09,0,856,856
299.154,5.42694e-09,0,862,862
299.201,5.35076e-09,0,856,856
299.252,5.26294e-09,0,862,862
299.302,5.17231e-09,0,866,866
299.353,5.07967e-09,0,866,866
299.403,4.98613e-09,0,862,862
299.453,4.89263e-09,0,864,864
299.503,4.79973e-09,0,866,866
299.553,4.70817e-09,0,868,868
299.603,4.61859e-09,0,868,868
299.652,4.53164e-09,0,864,864
299.702,4.44774e-09,0,868,868
299.751,4.36718e-09,0,868,868
299.8,4.29017e-09,0,876,876
299.853,4.21041e-09,0,874,874
299.902,4.14134e-09,0,870,870
299.951,4.07607e-09,0,870,870
300.003,4.00917e-09,0,870,870
300.052,3.95168e-09,0,880,880
300.104,3.89294e-09,0,878,878
300.152,3.84251e-09,0,876,876
300.204,3.79087e-09,0,880,880
300.252,3.7463e-09,0,878,878
300.304,3.70039e-09,0,880,880
300.351,3.66047e-09,0,882,882
300.402,3.61897e-09,0,878,878
300.454,3.57926e-09,0,876,876
300.5,3.54414e-09,0,882,882
300.551,3.50697e-09,0,886,886
300.602,3.47074e-09,0,886,886
300.653,3.43528e-09,0,886,886
300.703,3.40044e-09,0,886,886
300.754,3.36611e-09,0,882,882
300.804,3.33223e-09,0,884,884
300.854,3.29876e-09,0,890,890
300.904,3.2657e-09,0,892,892
300.954,3.23307e-09,0,892,892
301.003,3.20088e-09,0,890,890
301.053,3.1692e-09,0,888,888
301.103,3.1381e-09,0,888,888
301.152,3.10771e-09,0,890,890
301.202,3.07813e-09,0,892,892
301.252,3.04948e-09,0,892,892
301.302,3.02187e-09,0,896,896
301.351,2.99539e-09,0,892,892
301.401,2.97013e-09,0,888,888
301.451,2.94615e-09,0,894,894
301.5,2.92349e-09,0,890,890
301.55,2.9022e-09,0,896,896
301.604,2.88067e-09,0,896,896
301.654,2.8622e-09,0,898,898
301.703,2.84503e-09,0,898,898
301.753,2.82911e-09,0,888,888
301.803,2.81434e-09,0,894,894
301.853,2.80063e-09,0,894,894
301.902,2.78786e-09,0,893,893
301.952,2.77592e-09,0,889,889
302.002,2.76467e-09,0,883,883
302.051,2.75399e-09,0,875,875
302.101,2.74372e-09,0,863,863
302.151,2.73374e-09,0,857,857
302.201,2.72391e-09,0,853,853
302.25,2.7141e-09,0,845,845
302.304,2.70337e-09,0,841,841
302.354,2.69326e-09,0,829,829
302.403,2.68287e-09,0,827,827
302.453,2.67212e-09,0,819,819
302.503,2.66095e-09,0,803,803
302.553,2.64929e-09,0,797,797
302.602,2.63713e-09,0,789,789
302.652,2.62441e-09,0,781,781
302.702,2.61113e-09,0,765,765
302.751,2.59727e-09,0,751,751
302.801,2.58281e-09,0,737,737
302.851,2.56775e-09,0,723,723
302.901,2.5521e-09,0,709,709
302.95,2.53586e-09,0,691,691
303,2.51903e-09,0,677,677
303.054,2.50016e-09,0,665,665
303.104,2.48216e-09,0,649,649
303.153,2.46364e-09,0,637,637
303.203,2.44462e-09,0,621,621
303.253,2.42513e-09,0,611,611
303.302,2.40519e-09,0,595,595
303.352,2.38484e-09,0,579,579
303.401,2.36442e-09,0,567,567
303.454,2.34209e-09,0,553,553
303.501,2.32197e-09,0,545,545
303.553,2.29907e-09,0,533,533
303.6,2.27852e-09,0,527,527
303.655,2.25417e-09,0,515,515
303.704,2.23274e-09,0,512,512
303.751,2.21188e-09,0,512,512
303.809,2.18577e-09,0,512,512
303.856,2.16487e-09,0,512,512
303.903,2.14401e-09,0,512,512
303.962,2.11801e-09,0,512,512
304.008,2.0973e-09,0,512,512
304.055,2.07668e-09,0,512,512
304.102,2.05618e-09,0,512,512
304.161,2.03073e-09,0,512,512
304.208,2.01054e-09,0,512,512
304.254,1.99049e-09,0,512,512
304.301,1.97059e-09,0,512,512
304.36,1.94593e-09,0,512,512
304.407,1.92636e-09,0,512,512
304.454,1.90692e-09,0,512,512
304.501,1.8876e-09,0,512,512
304.559,1.8636e-09,0,512,512
304.606,1.84448e-09,0,512,512
304.653,1.82543e-09,0,512,512
304.711,1.80167e-09,0,512,512
304.758,1.78266e-09,0,512,512
304.805,1.76365e-09,0,512,512
304.852,1.74459e-09,0,512,512
304.911,1.72068e-09,0,512,512
304.958,1.70144e-09,0,512,512
