250,0,0,512,512
250.012,0,0,512,512
250.059,0,0,512,512
250.105,0,0,512,512
250.152,0,0,512,512
250.211,0,0,512,512
250.258,0,0,512,512
250.305,0,0,512,512
250.352,0,0,512,512
250.41,2.77556e-17,0,512,512
250.457,2.77556e-17,0,512,512
250.504,0,0,512,512
250.551,0,0,512,512
250.609,0,0,512,512
250.656,0,0,512,512
250.703,0,0,512,512
250.762,0,0,512,512
250.808,0,0,512,512
250.855,0,0,512,512
250.902,2.77556e-17,0,512,512
250.961,2.77556e-17,0,512,512
251.008,2.77556e-17,0,512,512
251.055,2.77556e-17,0,512,512
251.101,0,0,512,512
251.16,0,0,512,512
251.207,2.77556e-17,0,512,512
251.254,0,0,512,512
251.301,0,0,512,512
251.359,0,0,512,512
251.406,0,0,512,512
251.453,0,0,512,512
251.511,0,0,512,512
251.558,0,0,512,512
251.605,2.77556e-17,0,512,512
251.652,2.77556e-17,0,512,512
251.711,0,0,512,512
251.758,0,0,512,512
251.804,0,0,512,512
251.851,0,0,512,512
251.91,0,0,512,512
251.957,0,0,512,512
252.004,-2.77556e-17,0,512,512
252.05,-2.77556e-17,0,512,512
252.109,-2.77556e-17,0,512,512
252.156,0,0,512,512
252.203,0,0,512,512
252.261,0,0,512,512
252.308,0,0,512,512
252.355,2.77556e-17,0,512,512
252.402,2.77556e-17,0,512,512
252.461,0,0,512,512
252.507,0,0,512,512
252.554,0,0,512,512
252.601,0,0,512,512
252.66,0,0,512,512
252.707,0,0,512,512
252.754,0,0,512,512
252.8,0,0,512,512
252.859,2.77556e-17,0,512,512
252.906,0,0,512,512
252.953,0,0,512,512
253.011,0,0,512,512
253.058,0,0,512,512
253.105,0,0,512,512
253.152,0,0,512,512
253.21,0,0,512,512
253.257,0,0,512,512
253.304,2.77556e-17,0,512,512
253.351,2.77556e-17,0,512,512
253.41,0,0,512,512
253.457,0,0,512,512
253.503,0,0,512,512
253.55,2.77556e-17,0,512,512
253.609,2.77556e-17,0,512,512
253.656,2.77556e-17,0,512,512
253.703,2.77556e-17,0,512,512
253.761,0,0,512,512
253.808,0,0,512,512
253.855,0,0,512,512
253.902,-2.77556e-17,0,512,512
253.96,-2.77556e-17,0,512,512
254.007,0,0,512,512
254.054,0,0,512,512
254.101,-2.77556e-17,0,512,512
254.16,0,0,512,512
254.206,-2.77556e-17,0,512,512
254.253,0,0,512,512
254.3,0,0,512,512
254.359,0,0,512,512
254.406,0,0,512,512
254.452,0,0,512,512
254.511,-2.77556e-17,0,512,512
254.558,-2.77556e-17,0,512,512
254.605,-2.77556e-17,0,512,512
254.652,-2.77556e-17,0,512,512
254.71,-2.77556e-17,0,512,512
254.757,0,0,512,512
254.804,0,0,512,512
254.851,-2.77556e-17,0,512,512
254.909,-5.55112e-17,0,512,512
254.956,-2.77556e-17,0,512,512
255.003,-2.77556e-17,0,512,512
255.05,-2.77556e-17,0,512,512
255.109,-2.77556e-17,0,512,512
255.155,-2.77556e-17,0,512,512
255.202,-2.77556e-17,0,512,512
255.261,-2.77556e-17,0,512,512
255.308,-2.77556e-17,0,512,512
255.355,-2.77556e-17,0,512,512
255.402,-2.77556e-17,0,512,512
255.46,-2.77556e-17,0,512,512
255.507,-2.77556e-17,0,512,512
255.554,-2.77556e-17,0,512,512
255.601,0,0,512,512
255.659,0,0,512,512
255.706,0,0,512,512
255.753,0,0,512,512
255.812,0,0,512,512
255.859,0,0,512,512
255.905,2.77556e-17,0,512,512
255.952,0,0,512,512
256.011,0,0,512,512
256.058,0,0,512,512
256.105,0,0,512,512
256.151,0,0,512,512
256.21,0,0,512,512
256.257,2.77556e-17,0,512,512
256.304,2.77556e-17,0,512,512
256.351,0,0,512,512
256.409,0,0,512,512
256.456,0,0,512,512
256.503,0,0,512,512
256.562,0,0,512,512
256.608,0,0,512,512
256.655,-2.77556e-17,0,512,512
256.702,0,0,512,512
256.761,-2.77556e-17,0,512,512
256.808,0,0,512,512
256.854,-2.77556e-17,0,512,512
256.901,-2.77556e-17,0,512,512
256.96,-2.77556e-17,0,512,512
257.007,-2.77556e-17,0,512,512
257.054,0,0,512,512
257.101,-2.77556e-17,0,512,512
257.159,-2.77556e-17,0,512,512
257.206,0,0,512,512
257.253,0,0,512,512
257.311,0,0,512,512
257.358,2.77556e-17,0,512,512
257.405,2.77556e-17,0,512,512
257.452,0,0,512,512
257.511,0,0,512,512
257.557,0,0,512,512
257.604,0,0,512,512
257.651,0,0,512,512
257.71,-2.77556e-17,0,512,512
257.757,0,0,512,512
257.804,0,0,512,512
257.85,0,0,512,512
257.909,-2.77556e-17,0,512,512
257.956,-2.77556e-17,0,512,512
258.003,-2.77556e-17,0,512,512
258.061,0,0,512,512
258.108,0,0,512,512
258.155,0,0,512,512
258.202,0,0,512,512
258.261,0,0,512,512
258.307,-2.77556e-17,0,512,512
258.354,0,0,512,512
258.401,-2.77556e-17,0,512,512
258.46,-2.77556e-17,0,512,512
258.507,-2.77556e-17,0,512,512
258.553,-2.77556e-17,0,512,512
258.6,-2.77556e-17,0,512,512
258.659,-2.77556e-17,0,512,512
258.706,-5.55112e-17,0,512,512
258.753,-5.55112e-17,0,512,512
258.811,-5.55112e-17,0,512,512
258.858,-5.55112e-17,0,512,512
258.905,-2.77556e-17,0,512,512
258.952,0,0,512,512
259.01,0,0,512,512
259.057,-2.77556e-17,0,512,512
259.104,0,0,512,512
259.151,0,0,512,512
259.21,-2.77556e-17,0,512,512
259.256,-2.77556e-17,0,512,512
259.303,0,0,512,512
259.35,0,0,512,512
259.409,2.77556e-17,0,512,512
259.456,2.77556e-17,0,512,512
259.503,0,0,512,512
259.561,0,0,512,512
259.608,0,0,512,512
259.655,-2.77556e-17,0,512,512
259.702,-2.77556e-17,0,512,512
259.76,0,0,512,512
259.807,0,0,512,512
259.854,2.77556e-17,0,512,512
259.901,0,0,512,512
259.959,0,0,512,512
260.006,0,0,512,512
260.053,0,0,512,512
260.1,-2.77556e-17,0,512,512
260.159,-2.77556e-17,0,512,512
260.206,-2.77556e-17,0,512,512
260.252,-2.77556e-17,0,512,512
260.311,-2.77556e-17,0,512,512
260.358,-2.77556e-17,0,512,512
260.405,-2.77556e-17,0,512,512
260.452,-2.77556e-17,0,512,512
260.51,-2.77556e-17,0,512,512
260.557,-2.77556e-17,0,512,512
260.604,0,0,512,512
260.651,0,0,512,512
260.709,0,0,512,512
260.756,0,0,512,512
260.803,0,0,512,512
260.862,0,0,512,512
260.909,2.77556e-17,0,512,512
260.955,2.77556e-17,0,512,512
261.002,2.77556e-17,0,512,512
261.061,2.77556e-17,0,512,512
261.108,2.77556e-17,0,512,512
261.155,2.77556e-17,0,512,512
261.201,2.77556e-17,0,512,512
261.26,0,0,512,512
261.307,0,0,512,512
261.354,0,0,512,512
261.401,0,0,512,512
261.459,0,0,512,512
261.506,0,0,512,512
261.553,0,0,512,512
261.612,0,0,512,512
261.658,0,0,512,512
261.705,0,0,512,512
261.752,2.77556e-17,0,512,512
261.811,2.77556e-17,0,512,512
261.858,-2.77556e-17,0,512,512
261.905,0,0,512,512
261.951,0,0,512,512
262.01,0,0,512,512
262.057,0,0,512,512
262.104,0,0,512,512
262.151,0,0,512,512
262.209,0,0,512,512
262.256,2.77556e-17,0,512,512
262.303,2.77556e-17,0,512,512
262.361,0,0,512,512
262.408,0,0,512,512
262.455,0,0,512,512
262.502,0,0,512,512
262.561,0,0,512,512
262.608,2.77556e-17,0,512,512
262.654,2.77556e-17,0,512,512
262.701,2.77556e-17,0,512,512
262.76,2.77556e-17,0,512,512
262.807,0,0,512,512
262.854,0,0,512,512
262.9,2.77556e-17,0,512,512
262.959,0,0,512,512
263.006,0,0,512,512
263.053,0,0,512,512
263.111,0,0,512,512
263.158,0,0,512,512
263.205,0,0,512,512
263.252,0,0,512,512
263.311,0,0,512,512
263.357,2.77556e-17,0,512,512
263.404,2.77556e-17,0,512,512
263.451,2.77556e-17,0,512,512
263.51,0,0,512,512
263.557,0,0,512,512
263.603,0,0,512,512
263.65,0,0,512,512
263.709,-2.77556e-17,0,512,512
263.756,-2.77556e-17,0,512,512
263.803,-2.77556e-17,0,512,512
263.861,0,0,512,512
263.908,0,0,512,512
263.955,2.77556e-17,0,512,512
264.002,0,0,512,512
264.06,0,0,512,512
264.107,0,0,512,512
264.154,0,0,512,512
264.201,0,0,512,512
264.26,0,0,512,512
264.306,2.77556e-17,0,512,512
264.353,2.77556e-17,0,512,512
264.4,2.77556e-17,0,512,512
264.459,2.77556e-17,0,512,512
264.506,2.77556e-17,0,512,512
264.553,2.77556e-17,0,512,512
264.611,2.77556e-17,0,512,512
264.658,2.77556e-17,0,512,512
264.705,2.77556e-17,0,512,512
264.752,2.77556e-17,0,512,512
264.81,2.77556e-17,0,512,512
264.857,2.77556e-17,0,512,512
264.904,2.77556e-17,0,512,512
264.951,2.77556e-17,0,512,512
265.01,2.77556e-17,0,512,512
265.056,2.77556e-17,0,512,512
265.103,2.77556e-17,0,512,512
265.15,2.77556e-17,0,512,512
265.209,2.77556e-17,0,512,512
265.256,2.77556e-17,0,512,512
265.302,2.77556e-17,0,512,512
265.361,5.55112e-17,0,512,512
265.408,5.55112e-17,0,512,512
265.455,5.55112e-17,0,512,512
265.502,5.55112e-17,0,512,512
265.56,2.77556e-17,0,512,512
265.607,2.77556e-17,0,512,512
265.654,2.77556e-17,0,512,512
265.701,2.77556e-17,0,512,512
265.759,2.77556e-17,0,512,512
265.806,2.77556e-17,0,512,512
265.853,2.77556e-17,0,512,512
265.9,2.77556e-17,0,512,512
265.959,2.77556e-17,0,512,512
266.005,2.77556e-17,0,512,512
266.052,2.77556e-17,0,512,512
266.111,0,0,512,512
266.158,2.77556e-17,0,512,512
266.205,0,0,512,512
266.252,2.77556e-17,0,512,512
266.31,2.77556e-17,0,512,512
266.357,2.77556e-17,0,512,512
266.404,2.77556e-17,0,512,512
266.451,2.77556e-17,0,512,512
266.509,0,0,512,512
266.556,0,0,512,512
266.603,-2.77556e-17,0,512,512
266.662,-2.77556e-17,0,512,512
266.708,-2.77556e-17,0,512,512
266.755,0,0,512,512
266.802,-2.77556e-17,0,512,512
266.861,-2.77556e-17,0,512,512
266.908,-2.77556e-17,0,512,512
266.955,-2.77556e-17,0,512,512
267.001,-2.77556e-17,0,512,512
267.06,-2.77556e-17,0,512,512
267.107,-2.77556e-17,0,512,512
267.154,-2.77556e-17,0,512,512
267.201,-2.77556e-17,0,512,512
267.259,-2.77556e-17,0,512,512
267.306,-2.77556e-17,0,512,512
267.353,-2.77556e-17,0,512,512
267.412,-2.77556e-17,0,512,512
267.458,-2.77556e-17,0,512,512
267.505,-2.77556e-17,0,512,512
267.552,0,0,512,512
267.611,2.77556e-17,0,512,512
267.658,2.77556e-17,0,512,512
267.704,2.77556e-17,0,512,512
267.751,2.77556e-17,0,512,512
267.81,2.77556e-17,0,512,512
267.857,2.77556e-17,0,512,512
267.904,2.77556e-17,0,512,512
267.95,2.77556e-17,0,512,512
268.009,2.77556e-17,0,512,512
268.056,2.77556e-17,0,512,512
268.101,2.77556e-17,0,623,623
268.15,2.77556e-17,0,683,683
268.2,2.77556e-17,0,743,743
268.253,2.77556e-17,0,803,803
268.303,2.77556e-17,0,863,863
268.353,2.77556e-17,0,923,923
268.402,2.77556e-17,0,983,983
268.452,2.77556e-17,0,1031,1031
268.502,2.77556e-17,0,1091,1091
268.552,2.77556e-17,0,1151,1151
268.601,2.77556e-17,0,1211,1211
268.651,2.77556e-17,0,1253,1253
268.701,2.77556e-17,0,1313,1313
268.751,2.77556e-17,0,1373,1373
268.801,2.77556e-17,0,1427,1427
268.85,2.77556e-17,0,1481,1481
268.9,2.77556e-17,0,1541,1541
268.95,2.77556e-17,0,1585,1585
269.003,2.77556e-17,0,1645,1645
269.053,2.77556e-17,0,1695,1695
269.102,2.77556e-17,0,1753,1753
269.152,2.77556e-17,0,1811,1811
269.202,2.77556e-17,0,1859,1859
269.252,2.77556e-17,0,1909,1909
269.302,2.77556e-17,0,1955,1955
269.351,2.77556e-17,0,2001,2001
269.401,2.77556e-17,0,2057,2057
269.451,2.77556e-17,0,2117,2117
269.501,2.77556e-17,0,2155,2155
269.551,2.77556e-17,0,2213,2213
269.6,2.77556e-17,0,2273,2273
269.65,2.77556e-17,0,2321,2321
269.703,2.77556e-17,0,2381,2381
269.753,2.77556e-17,0,2441,2441
269.802,2.77556e-17,0,2501,2501
269.852,2.77556e-17,0,2543,2543
269.902,2.77556e-17,0,2603,2603
269.952,2.77556e-17,0,2663,2663
270.002,2.77556e-17,0,2711,2711
270.051,2.77556e-17,0,2771,2771
270.101,2.77556e-17,0,2815,2815
270.151,2.77556e-17,0,2873,2873
270.201,2.77556e-17,0,2927,2927
270.251,2.77556e-17,0,2981,2981
270.3,2.77556e-17,0,3041,3041
270.35,8.32667e-17,0,3083,3083
270.4,4.71845e-16,0,3143,3143
270.453,9.4369e-16,0,3193,3193
270.503,1.41553e-15,0,3251,3251
270.552,2.19269e-15,0,3295,3295
270.602,4.10783e-15,0,3353,3353
270.652,8.24341e-15,0,3403,3403
270.702,1.59872e-14,0,3461,3461
270.752,2.82552e-14,0,3503,3503
270.801,4.36873e-14,0,3553,3553
270.851,5.57054e-14,0,3611,3611
270.901,4.91274e-14,0,3655,3655
270.951,-1.36002e-15,0,3713,3713
271.001,-1.29563e-13,0,3761,3761
271.05,-4.10783e-13,0,3805,3805
271.1,-2.0518e-12,0,3857,3857
271.153,-1.91812e-11,0,3911,3911
271.203,-7.34584e-11,0,3955,3955
271.252,-1.78205e-10,0,4013,4013
271.302,-2.93797e-10,0,4061,4061
271.352,-3.33849e-10,0,4109,4109
271.402,-2.41675e-10,0,4151,4151
271.452,-5.27745e-11,0,4207,4207
271.501,1.26496e-10,0,4255,4255
271.551,1.98398e-10,0,4301,4301
271.601,1.44202e-10,0,4353,4353
271.651,3.52104e-11,0,4391,4391
271.701,-2.49079e-11,0,4443,4443
271.75,1.54221e-11,0,4495,4495
271.8,1.15718e-10,0,4541,4541
271.85,1.84933e-10,0,4589,4589
271.903,1.62263e-10,0,4631,4631
271.953,7.94523e-11,0,4683,4683
272.002,1.77577e-11,0,4725,4725
272.052,3.13406e-11,0,4773,4773
272.102,1.04493e-10,0,4821,4821
272.152,1.73055e-10,0,4863,4863
272.202,1.83043e-10,0,4911,4911
272.251,1.31224e-10,0,4961,4961
272.301,6.0382e-11,0,5005,5005
272.351,2.46826e-11,0,5043,5043
272.401,5.4478e-11,0,5095,5095
272.451,1.36344e-10,0,5137,5137
272.5,2.13242e-10,0,5185,5185
272.55,2.13562e-10,0,5223,5223
272.603,1.01858e-10,0,5275,5275
272.653,-3.37577e-11,0,5313,5313
272.702,-5.44611e-11,0,5363,5363
272.752,1.16679e-10,0,5403,5403
272.802,3.58494e-10,0,5443,5443
272.852,3.93172e-10,0,5489,5489
272.902,6.43327e-11,0,5533,5533
272.951,-3.43669e-10,0,5583,5583
273.001,-7.91729e-11,0,5621,5621
273.051,1.68039e-09,0,5669,5669
273.101,5.28018e-09,0,5703,5703
273.151,1.03304e-08,0,5743,5743
273.2,1.59203e-08,0,5789,5789
273.25,2.10925e-08,0,5837,5837
273.3,2.52613e-08,0,5883,5883
273.353,2.86019e-08,0,5923,5923
273.403,3.14163e-08,0,5969,5969
273.452,3.49671e-08,0,6003,6003
273.502,4.0271e-08,0,6045,6045
273.552,4.78961e-08,0,6089,6089
273.602,5.78845e-08,0,6137,6137
273.652,7.00971e-08,0,6183,6183
273.701,8.46983e-08,0,6223,6223
273.751,1.02391e-07,0,6263,6263
273.801,1.24262e-07,0,6303,6303
273.851,1.51398e-07,0,6343,6343
273.901,1.84485e-07,0,6389,6389
273.95,2.23471e-07,0,6425,6425
274,2.67447e-07,0,6463,6463
274.053,3.17818e-07,0,6509,6509
274.103,3.67659e-07,0,6557,6557
274.152,4.19317e-07,0,6603,6603
274.202,4.73249e-07,0,6635,6635
274.252,5.29803e-07,0,6679,6679
274.302,5.88151e-07,0,6723,6723
274.352,6.45962e-07,0,6763,6763
274.401,7.00035e-07,0,6805,6805
274.451,7.47345e-07,0,6843,6843
274.501,7.85843e-07,0,6883,6883
274.551,8.148e-07,0,6929,6929
274.601,8.34786e-07,0,6969,6969
274.65,8.47302e-07,0,7003,7003
274.7,8.5414e-07,0,7049,7049
274.753,8.56775e-07,0,7097,7097
274.803,8.55647e-07,0,7131,7131
274.853,8.50973e-07,0,7171,7171
274.902,8.42176e-07,0,7217,7217
274.952,8.2837e-07,0,7255,7255
275.002,8.0858e-07,0,7291,7291
275.052,7.81969e-07,0,7337,7337
275.102,7.48124e-07,0,7371,7371
275.151,7.0739e-07,0,7395,7395
275.201,6.61087e-07,0,7449,7449
275.251,6.11353e-07,0,7495,7495
275.301,5.60611e-07,0,7531,7531
275.35,5.1096e-07,0,7577,7577
275.4,4.63827e-07,0,7611,7611
275.45,4.19914e-07,0,7651,7651
275.503,3.77045e-07,0,7697,7697
275.553,3.3967e-07,0,7731,7731
275.602,3.04813e-07,0,7769,7769
275.652,2.72002e-07,0,7803,7803
275.702,2.41018e-07,0,7835,7835
275.752,2.1212e-07,0,7877,7877
275.802,1.86085e-07,0,7903,7903
275.851,1.63836e-07,0,7937,7937
275.901,1.4575e-07,0,7967,7967
275.951,1.31134e-07,0,8003,8003
276.001,1.18443e-07,0,8039,8039
276.051,1.06176e-07,0,8065,8065
276.1,9.37639e-08,0,8101,8101
276.15,8.17345e-08,0,8130,8130
276.203,7.05614e-08,0,8158,8158
276.253,6.22689e-08,0,8176,8176
276.302,5.62069e-08,0,8192,8192
276.352,5.17299e-08,0,8192,8192
276.402,4.78248e-08,0,8192,8192
276.452,4.35466e-08,0,8192,8192
276.502,3.84774e-08,0,8192,8192
276.551,3.29668e-08,0,8192,8192
276.601,2.79185e-08,0,8168,8168
276.651,2.42085e-08,0,8160,8160
276.701,2.21627e-08,0,8156,8156
276.751,2.14718e-08,0,8160,8160
276.8,2.15186e-08,0,8164,8164
276.85,2.17773e-08,0,8176,8176
276.9,2.19955e-08,0,8184,8184
276.953,2.21434e-08,0,8168,8168
277.003,2.22419e-08,0,8192,8192
277.052,2.23067e-08,0,8192,8192
277.102,2.22883e-08,0,8192,8192
277.152,2.2125e-08,0,8192,8192
277.202,2.18234e-08,0,8192,8192
277.252,2.14811e-08,0,8192,8192
277.301,2.12029e-08,0,8192,8192
277.351,2.10201e-08,0,8192,8192
277.401,2.08996e-08,0,8192,8192
277.451,2.07967e-08,0,8192,8192
277.501,2.06833e-08,0,8184,8184
277.55,2.05467e-08,0,8184,8184
277.6,2.03814e-08,0,8184,8184
277.653,2.01724e-08,0,8168,8168
277.703,1.9941e-08,0,8176,8176
277.752,1.96751e-08,0,8150,8150
277.802,1.93739e-08,0,8186,8186
277.852,1.90374e-08,0,8192,8192
277.902,1.86666e-08,0,8156,8156
277.952,1.82637e-08,0,8184,8184
278.001,1.7832e-08,0,8192,8192
278.051,1.73758e-08,0,8192,8192
278.101,1.68999e-08,0,8192,8192
278.151,1.6409e-08,0,8192,8192
278.201,1.59074e-08,0,8192,8192
278.25,1.53991e-08,0,8192,8192
278.3,1.48875e-08,0,8192,8192
278.35,1.43756e-08,0,8192,8192
278.403,1.38366e-08,0,8192,8192
278.453,1.33336e-08,0,8192,8192
278.502,1.28397e-08,0,8192,8192
278.552,1.23588e-08,0,8192,8192
278.602,1.18947e-08,0,8192,8192
278.652,1.14511e-08,0,8192,8192
278.702,1.10317e-08,0,8192,8192
278.751,1.06393e-08,0,8192,8192
278.801,1.02759e-08,0,8192,8192
278.851,9.94243e-09,0,8192,8192
278.901,9.63896e-09,0,8192,8192
278.951,9.36468e-09,0,8192,8192
279,9.11832e-09,0,8192,8192
279.05,8.89828e-09,0,8192,8192
279.103,8.69214e-09,0,8192,8192
279.153,8.52111e-09,0,8192,8192
279.202,8.37147e-09,0,8192,8192
279.252,8.24162e-09,0,8192,8192
279.302,8.12987e-09,0,8192,8192
279.352,8.03439e-09,0,8192,8192
279.402,7.95328e-09,0,8192,8192
279.451,7.88467e-09,0,8192,8192
279.501,7.82694e-09,0,8192,8192
279.551,7.77881e-09,0,8192,8192
279.601,7.73931e-09,0,8192,8192
279.651,7.70769e-09,0,8184,8184
279.7,7.68321e-09,0,8184,8184
279.75,7.66505e-09,0,8192,8192
279.8,7.65233e-09,0,8192,8192
279.853,7.64383e-09,0,8192,8192
279.903,7.63985e-09,0,8192,8192
279.952,7.63889e-09,0,8192,8192
280.002,7.64133e-09,0,8192,8192
280.052,7.64668e-09,0,8192,8192
280.102,7.655e-09,0,8192,8192
280.152,7.66589e-09,0,8184,8184
280.201,7.67891e-09,0,8184,8184
280.251,7.69356e-09,0,8192,8192
280.301,7.70929e-09,0,8192,8192
280.351,7.72565e-09,0,8192,8192
280.401,7.74229e-09,0,8192,8192
280.45,7.75913e-09,0,8192,8192
280.5,7.77584e-09,0,8192,8192
280.553,7.79361e-09,0,8192,8192
280.603,7.81032e-09,0,8192,8192
280.652,7.827e-09,0,8184,8184
280.702,7.84368e-09,0,8192,8192
280.752,7.86034e-09,0,8192,8192
280.802,7.87694e-09,0,8176,8176
280.852,7.89354e-09,0,8192,8192
280.901,7.91001e-09,0,8184,8184
280.951,7.92631e-09,0,8192,8192
281.001,7.94242e-09,0,8192,8192
281.051,7.95823e-09,0,8184,8184
281.101,7.97373e-09,0,8184,8184
281.15,7.98893e-09,0,8184,8184
281.2,8.00377e-09,0,8188,8188
281.25,8.01825e-09,0,8172,8172
281.303,8.03313e-09,0,8192,8192
281.353,8.04673e-09,0,8170,8170
281.402,8.05999e-09,0,8192,8192
281.452,8.07287e-09,0,8176,8176
281.502,8.08541e-09,0,8188,8188
281.552,8.09761e-09,0,8180,8180
281.602,8.10974e-09,0,8192,8192
281.651,8.12218e-09,0,8168,8168
281.701,8.13542e-09,0,8192,8192
281.751,8.15034e-09,0,8162,8162
281.801,8.1684e-09,0,8160,8160
281.851,8.1915e-09,0,8164,8164
281.9,8.22213e-09,0,8160,8160
281.95,8.26338e-09,0,8152,8152
282.003,8.32258e-09,0,8152,8152
282.053,8.39718e-09,0,8142,8142
282.102,8.49381e-09,0,8144,8144
282.152,8.61599e-09,0,8144,8144
282.202,8.76699e-09,0,8146,8146
282.252,8.94988e-09,0,8144,8144
282.302,9.168e-09,0,8144,8144
282.351,9.42552e-09,0,8144,8144
282.401,9.72819e-09,0,8140,8140
282.451,1.00839e-08,0,8144,8144
282.501,1.05031e-08,0,8136,8136
282.551,1.09983e-08,0,8144,8144
282.6,1.15844e-08,0,8136,8136
282.65,1.2278e-08,0,8136,8136
282.703,1.31488e-08,0,8136,8136
282.753,1.41185e-08,0,8136,8136
282.803,1.52489e-08,0,8136,8136
282.852,1.65557e-08,0,8136,8136
282.902,1.80532e-08,0,8136,8136
282.952,1.97531e-08,0,8136,8136
283.002,2.16642e-08,0,8136,8136
283.052,2.37916e-08,0,8136,8136
283.101,2.61366e-08,0,8136,8136
283.151,2.86957e-08,0,8136,8136
283.201,3.14609e-08,0,8136,8136
283.251,3.44199e-08,0,8136,8136
283.3,3.75571e-08,0,8160,8160
283.35,4.08554e-08,0,8188,8188
283.4,4.42982e-08,0,8192,8192
283.453,4.80868e-08,0,8192,8192
283.503,5.17938e-08,0,8192,8192
283.552,5.56303e-08,0,8192,8192
283.602,5.96128e-08,0,8192,8192
283.652,6.377e-08,0,8192,8192
283.702,6.81406e-08,0,8192,8192
283.752,7.27674e-08,0,8192,8192
283.801,7.76892e-08,0,8192,8192
283.851,8.29323e-08,0,8192,8192
283.901,8.85054e-08,0,8192,8192
283.951,9.43988e-08,0,8192,8192
284.001,1.00592e-07,0,8192,8192
284.05,1.07069e-07,0,8192,8192
284.1,1.13834e-07,0,8192,8192
284.153,1.21364e-07,0,8192,8192
284.203,1.2893e-07,0,8192,8192
284.253,1.37106e-07,0,8192,8192
284.302,1.46124e-07,0,8192,8192
284.352,1.56266e-07,0,8192,8192
284.402,1.67856e-07,0,8192,8192
284.452,1.81242e-07,0,8192,8192
284.501,1.96773e-07,0,8192,8192
284.551,2.14778e-07,0,8192,8192
284.601,2.35544e-07,0,8192,8192
284.651,2.59286e-07,0,8192,8192
284.701,2.86127e-07,0,8192,8192
284.75,3.16077e-07,0,8192,8192
284.8,3.49019e-07,0,8192,8192
284.85,3.84699e-07,0,8192,8192
284.903,4.25025e-07,0,8192,8192
284.953,4.64954e-07,0,8192,8192
285.002,5.05992e-07,0,8192,8192
285.052,5.47344e-07,0,8192,8192
285.102,5.88116e-07,0,8192,8192
285.152,6.27348e-07,0,8192,8192
285.202,6.64059e-07,0,8192,8192
285.251,6.97312e-07,0,8192,8192
285.301,7.2627e-07,0,8192,8192
285.351,7.50258e-07,0,8192,8192
285.401,7.68789e-07,0,8192,8192
285.451,7.8158e-07,0,8192,8192
285.5,7.88532e-07,0,8192,8192
285.55,7.89688e-07,0,8192,8192
285.603,7.84747e-07,0,8192,8192
285.653,7.74451e-07,0,8192,8192
285.702,7.58885e-07,0,8192,8192
285.752,7.3825e-07,0,8192,8192
285.802,7.12757e-07,0,8192,8192
285.852,6.82666e-07,0,8192,8192
285.902,6.48315e-07,0,8192,8192
285.951,6.10154e-07,0,8192,8192
286.001,5.68762e-07,0,8192,8192
286.051,5.24834e-07,0,8192,8192
286.101,4.79162e-07,0,8192,8192
286.151,4.32584e-07,0,8192,8192
286.2,3.8593e-07,0,8192,8192
286.25,3.39975e-07,0,8192,8192
286.3,2.95396e-07,0,8192,8192
286.353,2.50309e-07,0,8192,8192
286.403,2.1017e-07,0,8192,8192
286.452,1.72712e-07,0,8192,8192
286.502,1.38131e-07,0,8192,8192
286.552,1.06536e-07,0,8192,8192
286.602,7.79588e-08,0,8192,8192
286.652,5.237e-08,0,8192,8192
286.701,2.96832e-08,0,8192,8192
286.751,9.76443e-09,0,8192,8192
286.801,-7.55647e-09,0,8192,8192
286.851,-2.24727e-08,0,8192,8192
286.901,-3.51867e-08,0,8192,8192
286.95,-4.58979e-08,0,8192,8192
287,-5.47965e-08,0,8192,8192
287.053,-6.24404e-08,0,8192,8192
287.103,-6.81552e-08,0,8192,8192
287.152,-7.25687e-08,0,8192,8192
287.202,-7.58281e-08,0,8192,8192
287.252,-7.80674e-08,0,8192,8192
287.302,-7.94036e-08,0,8192,8192
287.352,-7.99329e-08,0,8192,8192
287.401,-7.97318e-08,0,8192,8192
287.451,-7.88613e-08,0,8192,8192
287.501,-7.73753e-08,0,8192,8192
287.551,-7.53301e-08,0,8192,8192
287.601,-7.27917e-08,0,8192,8192
287.65,-6.9839e-08,0,8192,8192
287.7,-6.65628e-08,0,8192,8192
287.75,-6.30612e-08,0,8192,8192
287.803,-5.9216e-08,0,8192,8192
287.853,-5.55488e-08,0,8192,8192
287.902,-5.1925e-08,0,8192,8192
287.952,-4.84044e-08,0,8192,8192
288.002,-4.50301e-08,0,8192,8192
288.052,-4.18295e-08,0,8192,8192
288.102,-3.88174e-08,0,8192,8192
288.151,-3.59993e-08,0,8192,8192
288.201,-3.33744e-08,0,8192,8192
288.251,-3.09381e-08,0,8192,8192
288.301,-2.86842e-08,0,8192,8192
288.351,-2.66059e-08,0,8192,8192
288.4,-2.4696e-08,0,8192,8192
288.45,-2.29474e-08,0,8192,8192
288.503,-2.12635e-08,0,8192,8192
288.553,-1.98232e-08,0,8192,8192
288.602,-1.85202e-08,0,8192,8192
288.652,-1.73459e-08,0,8192,8192
288.702,-1.62914e-08,0,8192,8192
288.752,-1.53479e-08,0,8192,8192
288.802,-1.45066e-08,0,8192,8192
288.851,-1.37592e-08,0,8192,8192
288.901,-1.30978e-08,0,8192,8192
288.951,-1.25154e-08,0,8192,8192
289.001,-1.20056e-08,0,8192,8192
289.051,-1.15627e-08,0,8192,8192
289.1,-1.11815e-08,0,8192,8192
289.15,-1.08574e-08,0,8192,8192
289.2,-1.0586e-08,0,8192,8192
289.253,-1.03515e-08,0,8192,8192
289.303,-1.01758e-08,0,8192,8192
289.352,-1.00404e-08,0,8192,8192
289.402,-9.94143e-09,0,8192,8192
289.452,-9.87473e-09,0,8192,8192
289.502,-9.83626e-09,0,8192,8192
289.552,-9.82195e-09,0,8192,8192
289.601,-9.82768e-09,0,8192,8192
289.651,-9.85002e-09,0,8192,8192
289.701,-9.88481e-09,0,8192,8192
289.751,-9.92889e-09,0,8192,8192
289.8,-9.97935e-09,0,8192,8192
289.85,-1.00336e-08,0,8192,8192
289.9,-1.00893e-08,0,8192,8192
289.953,-1.01482e-08,0,8192,8192
290.003,-1.02023e-08,0,8192,8192
290.052,-1.02539e-08,0,8192,8192
290.102,-1.03025e-08,0,8192,8192
290.152,-1.03478e-08,0,8192,8192
290.202,-1.03898e-08,0,8192,8192
290.252,-1.04287e-08,0,8192,8192
290.301,-1.04648e-08,0,8192,8192
290.351,-1.04984e-08,0,8192,8192
290.401,-1.05299e-08,0,8192,8192
290.451,-1.05595e-08,0,8192,8192
290.501,-1.05876e-08,0,8192,8192
290.55,-1.06142e-08,0,8192,8192
290.6,-1.06392e-08,0,8192,8192
290.653,-1.0664e-08,0,8144,8144
290.703,-1.06856e-08,0,8192,8192
290.753,-1.07054e-08,0,8192,8192
290.802,-1.07235e-08,0,8192,8192
290.852,-1.074e-08,0,8192,8192
290.902,-1.0755e-08,0,8192,8192
290.952,-1.07694e-08,0,8192,8192
291.001,-1.07837e-08,0,8192,8192
291.051,-1.07992e-08,0,8192,8192
291.101,-1.08169e-08,0,8184,8184
291.151,-1.08382e-08,0,8192,8192
291.201,-1.08647e-08,0,8192,8192
291.25,-1.08978e-08,0,8192,8192
291.3,-1.09393e-08,0,8192,8192
291.35,-1.09908e-08,0,8192,8192
291.403,-1.10577e-08,0,8192,8192
291.453,-1.11342e-08,0,8192,8192
291.502,-1.12246e-08,0,8192,8192
291.552,-1.13298e-08,0,8192,8192
291.602,-1.14502e-08,0,8192,8192
291.652,-1.15861e-08,0,8192,8192
291.702,-1.17373e-08,0,8192,8192
291.751,-1.19034e-08,0,8192,8192
291.801,-1.2084e-08,0,8192,8192
291.851,-1.22785e-08,0,8192,8192
291.901,-1.24869e-08,0,8192,8192
291.951,-1.27089e-08,0,8192,8192
292,-1.29451e-08,0,8192,8192
292.05,-1.31959e-08,0,8192,8192
292.103,-1.34781e-08,0,8192,8192
292.153,-1.3761e-08,0,8192,8192
292.202,-1.40603e-08,0,8192,8192
292.252,-1.4376e-08,0,8192,8192
292.302,-1.47077e-08,0,8192,8192
292.352,-1.50545e-08,0,8192,8192
292.402,-1.54153e-08,0,8176,8176
292.451,-1.57883e-08,0,8144,8144
292.501,-1.61717e-08,0,8144,8144
292.551,-1.65633e-08,0,8128,8128
292.601,-1.69611e-08,0,8132,8132
292.651,-1.7363e-08,0,8164,8164
292.7,-1.77667e-08,0,8160,8160
292.75,-1.817e-08,0,8160,8160
292.8,-1.85708e-08,0,8168,8168
292.853,-1.89897e-08,0,8176,8176
292.903,-1.93776e-08,0,8160,8160
292.952,-1.97556e-08,0,8152,8152
293.002,-2.01213e-08,0,8152,8152
293.052,-2.04721e-08,0,8152,8152
293.102,-2.08059e-08,0,8144,8144
293.152,-2.11202e-08,0,8152,8152
293.201,-2.1413e-08,0,8152,8152
293.251,-2.16825e-08,0,8152,8152
293.301,-2.1927e-08,0,8152,8152
293.351,-2.21452e-08,0,8136,8136
293.401,-2.2336e-08,0,8160,8160
293.45,-2.24987e-08,0,8144,8144
293.5,-2.26331e-08,0,8144,8144
293.553,-2.27445e-08,0,8160,8160
293.603,-2.28211e-08,0,8168,8168
293.652,-2.28708e-08,0,8160,8160
293.702,-2.28948e-08,0,8168,8168
293.752,-2.28943e-08,0,8160,8160
293.802,-2.28711e-08,0,8160,8160
293.852,-2.2827e-08,0,8160,8160
293.901,-2.27639e-08,0,8172,8172
293.951,-2.26838e-08,0,8188,8188
294.001,-2.25888e-08,0,8192,8192
294.051,-2.2481e-08,0,8192,8192
294.101,-2.23623e-08,0,8192,8192
294.15,-2.22347e-08,0,8192,8192
294.2,-2.20998e-08,0,8192,8192
294.25,-2.19593e-08,0,8192,8192
294.303,-2.18059e-08,0,8192,8192
294.353,-2.16581e-08,0,8192,8192
294.402,-2.15084e-08,0,8192,8192
294.452,-2.1358e-08,0,8192,8192
294.502,-2.12076e-08,0,8192,8192
294.552,-2.10581e-08,0,8192,8192
294.602,-2.09102e-08,0,8192,8192
294.651,-2.07645e-08,0,8192,8192
294.701,-2.06216e-08,0,8192,8192
294.751,-2.04818e-08,0,8192,8192
294.801,-2.03457e-08,0,8192,8192
294.851,-2.02136e-08,0,8192,8192
294.9,-2.00857e-08,0,8192,8192
294.95,-1.99622e-08,0,8192,8192
295.003,-1.98365e-08,0,8192,8192
295.053,-1.97224e-08,0,8192,8192
295.102,-1.9613e-08,0,8192,8192
295.152,-1.95082e-08,0,8192,8192
295.202,-1.94078e-08,0,8192,8192
295.252,-1.93116e-08,0,8192,8192
295.302,-1.92196e-08,0,8192,8192
295.351,-1.91314e-08,0,8192,8192
295.401,-1.90468e-08,0,8192,8192
295.451,-1.89656e-08,0,8192,8192
295.501,-1.88874e-08,0,8192,8192
295.551,-1.88119e-08,0,8192,8192
295.6,-1.87389e-08,0,8192,8192
295.65,-1.86681e-08,0,8192,8192
295.7,-1.85993e-08,0,8192,8192
295.753,-1.85281e-08,0,8192,8192
295.803,-1.84623e-08,0,8192,8192
295.852,-1.83976e-08,0,8192,8192
295.902,-1.83339e-08,0,8192,8192
295.952,-1.82708e-08,0,8192,8192
296.002,-1.82082e-08,0,8192,8192
296.052,-1.81459e-08,0,8192,8192
296.101,-1.80837e-08,0,8192,8192
296.151,-1.80215e-08,0,8192,8192
296.201,-1.79591e-08,0,8192,8192
296.251,-1.78964e-08,0,8192,8192
296.301,-1.78331e-08,0,8192,8192
296.35,-1.77692e-08,0,8192,8192
296.4,-1.77045e-08,0,8192,8192
296.453,-1.76351e-08,0,8192,8192
296.503,-1.75683e-08,0,8192,8192
296.552,-1.75003e-08,0,8192,8192
296.602,-1.74309e-08,0,8192,8192
296.652,-1.73599e-08,0,8192,8192
296.702,-1.72871e-08,0,8192,8192
296.752,-1.72123e-08,0,8192,8192
296.801,-1.71352e-08,0,8192,8192
296.851,-1.70558e-08,0,8192,8192
296.901,-1.69737e-08,0,8192,8192
296.951,-1.68886e-08,0,8192,8192
297.001,-1.68005e-08,0,8192,8192
297.05,-1.67089e-08,0,8192,8192
297.1,-1.66138e-08,0,8192,8192
297.15,-1.65148e-08,0,8192,8192
297.203,-1.64056e-08,0,8192,8192
297.253,-1.6298e-08,0,8192,8192
297.302,-1.6186e-08,0,8184,8184
297.352,-1.60694e-08,0,8192,8192
297.402,-1.5948e-08,0,8192,8192
297.452,-1.58218e-08,0,8192,8192
297.502,-1.56904e-08,0,8192,8192
297.551,-1.5554e-08,0,8192,8192
297.601,-1.54123e-08,0,8192,8192
297.651,-1.52652e-08,0,8192,8192
297.701,-1.51127e-08,0,8192,8192
297.751,-1.49548e-08,0,8192,8192
297.8,-1.47912e-08,0,8192,8192
297.85,-1.46219e-08,0,8192,8192
297.903,-1.44364e-08,0,8192,8192
297.953,-1.4255e-08,0,8192,8192
298.002,-1.40677e-08,0,8192,8192
298.052,-1.38741e-08,0,8192,8192
298.102,-1.36742e-08,0,8126,8126
298.152,-1.34675e-08,0,8188,8188
298.202,-1.32537e-08,0,8192,8192
298.251,-1.30324e-08,0,8192,8192
298.301,-1.28029e-08,0,8192,8192
298.351,-1.25646e-08,0,8192,8192
298.401,-1.23165e-08,0,8192,8192
298.451,-1.20577e-08,0,8192,8192
298.5,-1.1787e-08,0,8192,8192
298.55,-1.15032e-08,0,8192,8192
298.603,-1.1187e-08,0,8192,8192
298.653,-1.08719e-08,0,8192,8192
298.703,-1.05396e-08,0,8192,8192
298.752,-1.01886e-08,0,8192,8192
298.802,-9.8179e-09,0,8192,8192
298.852,-9.42639e-09,0,8192,8192
298.902,-9.01338e-09,0,8192,8192
298.952,-8.57844e-09,0,8192,8192
299.001,-8.12155e-09,0,8192,8192
299.051,-7.64312e-09,0,8192,8192
299.101,-7.14398e-09,0,8192,8192
299.151,-6.62547e-09,0,8192,8192
299.2,-6.08937e-09,0,8192,8192
299.25,-5.53791e-09,0,8192,8192
299.3,-4.97375e-09,0,8192,8192
299.353,-4.36591e-09,0,8192,8192
299.403,-3.7854e-09,0,8192,8192
299.452,-3.20225e-09,0,8132,8132
299.502,-2.62014e-09,0,8184,8184
299.552,-2.04285e-09,0,8192,8192
299.602,-1.47414e-09,0,8192,8192
299.652,-9.17724e-10,0,8192,8192
299.701,-3.77177e-10,0,8192,8192
299.751,1.44106e-10,0,8192,8192
299.801,6.42963e-10,0,8192,8192
299.851,1.11652e-09,0,8192,8192
299.901,1.56222e-09,0,8192,8192
299.95,1.97789e-09,0,8192,8192
300,2.36174e-09,0,8192,8192
300.053,2.73199e-09,0,8192,8192
300.103,3.04655e-09,0,8184,8184
300.152,3.32654e-09,0,8192,8192
300.202,3.57196e-09,0,8192,8192
300.252,3.78323e-09,0,8192,8192
300.302,3.9612e-09,0,8192,8192
300.352,4.10704e-09,0,8192,8192
300.401,4.22226e-09,0,8184,8184
300.451,4.30863e-09,0,8192,8192
300.501,4.36812e-09,0,8192,8192
300.551,4.40287e-09,0,8192,8192
300.601,4.41511e-09,0,8188,8188
300.65,4.40714e-09,0,8192,8192
300.7,4.38124e-09,0,8192,8192
300.75,4.33969e-09,0,8184,8184
300.803,4.28106e-09,0,8192,8192
300.853,4.21409e-09,0,8192,8192
300.902,4.13787e-09,0,8188,8188
300.952,4.05426e-09,0,8188,8188
301.002,3.96498e-09,0,8192,8192
301.052,3.87163e-09,0,8192,8192
301.102,3.77566e-09,0,8184,8184
301.151,3.67842e-09,0,8192,8192
301.201,3.58115e-09,0,8192,8192
301.251,3.485e-09,0,8192,8192
301.301,3.39101e-09,0,8192,8192
301.351,3.30017e-09,0,8192,8192
301.4,3.21335e-09,0,8190,8190
301.45,3.13134e-09,0,8192,8192
301.503,3.05054e-09,0,8192,8192
301.553,2.98049e-09,0,8190,8190
301.602,2.91698e-09,0,8192,8192
301.652,2.86025e-09,0,8192,8192
301.702,2.8104e-09,0,8192,8192
301.752,2.76731e-09,0,8186,8186
301.802,2.7307e-09,0,8192,8192
301.851,2.70007e-09,0,8192,8192
301.901,2.67475e-09,0,8192,8192
301.951,2.6539e-09,0,8192,8192
302.001,2.63656e-09,0,8192,8192
302.051,2.62167e-09,0,8192,8192
302.1,2.60812e-09,0,8192,8192
302.15,2.59481e-09,0,8192,8192
302.2,2.58067e-09,0,8184,8184
302.253,2.56373e-09,0,8192,8192
302.303,2.545e-09,0,8192,8192
302.352,2.52299e-09,0,8192,8192
302.402,2.49729e-09,0,8190,8190
302.452,2.4677e-09,0,8192,8192
302.502,2.43428e-09,0,8192,8192
302.552,2.39727e-09,0,8192,8192
302.601,2.35712e-09,0,8192,8192
302.651,2.3144e-09,0,8184,8184
302.701,2.26979e-09,0,8180,8180
302.751,2.22405e-09,0,8192,8192
302.801,2.17795e-09,0,8192,8192
302.85,2.13225e-09,0,8192,8192
302.9,2.08769e-09,0,8192,8192
302.953,2.04252e-09,0,8188,8188
303.003,2.00246e-09,0,8192,8192
303.052,1.96555e-09,0,8192,8192
303.102,1.93235e-09,0,8192,8192
303.152,1.90336e-09,0,8188,8188
303.202,1.87903e-09,0,8192,8192
303.252,1.85972e-09,0,8188,8188
303.301,1.8457e-09,0,8180,8180
303.351,1.83711e-09,0,8188,8188
303.401,1.83395e-09,0,8180,8180
303.451,1.83613e-09,0,8192,8192
303.501,1.84336e-09,0,8176,8176
303.55,1.8551e-09,0,8188,8188
303.6,1.87089e-09,0,8184,8184
303.65,1.89024e-09,0,8180,8180
303.703,1.91383e-09,0,8172,8172
303.753,1.93831e-09,0,8168,8168
303.802,1.96424e-09,0,8192,8192
303.852,1.99094e-09,0,8192,8192
303.902,2.01783e-09,0,8160,8160
303.952,2.04436e-09,0,8174,8174
304.002,2.07007e-09,0,8180,8180
304.051,2.09458e-09,0,8150,8150
304.101,2.11762e-09,0,8180,8180
304.151,2.13896e-09,0,8168,8168
304.201,2.15847e-09,0,8172,8172
304.251,2.17605e-09,0,8132,8132
304.3,2.19168e-09,0,8192,8192
304.35,2.20539e-09,0,8176,8176
304.403,2.21786e-09,0,8176,8176
304.453,2.22772e-09,0,8152,8152
304.502,2.23581e-09,0,8172,8172
304.552,2.24228e-09,0,8192,8192
304.602,2.24719e-09,0,8188,8188
304.652,2.25058e-09,0,8142,8142
304.702,2.25254e-09,0,8160,8160
304.751,2.25322e-09,0,8176,8176
304.801,2.25234e-09,0,8192,8192
304.851,2.2508e-09,0,8152,8152
304.901,2.24778e-09,0,8160,8160
304.951,2.24345e-09,0,8176,8176
