250,0,0,8192,8192
250.003,0,0,8192,8192
250.053,0,0,8192,8192
250.103,2.77556e-17,0,8192,8192
250.152,2.77556e-17,0,8192,8192
250.202,0,0,8192,8192
250.252,0,0,8192,8192
250.302,-2.77556e-17,0,8192,8192
250.352,0,0,8192,8192
250.401,0,0,8192,8192
250.451,2.77556e-17,0,8192,8192
250.501,2.77556e-17,0,8192,8192
250.551,2.77556e-17,0,8192,8192
250.6,0,0,8192,8192
250.65,2.77556e-17,0,8192,8192
250.7,-2.77556e-17,0,8192,8192
250.753,0,0,8192,8192
250.803,-2.77556e-17,0,8192,8192
250.852,0,0,8192,8192
250.902,0,0,8192,8192
250.952,0,0,8192,8192
251.002,0,0,8192,8192
251.052,0,0,8192,8192
251.101,0,0,8192,8192
251.151,0,0,8192,8192
251.201,2.77556e-17,0,8192,8192
251.251,2.77556e-17,0,8192,8192
251.301,2.77556e-17,0,8192,8192
251.35,0,0,8192,8192
251.4,5.55112e-17,0,8192,8192
251.453,0,0,8192,8192
251.503,0,0,8192,8192
251.553,-2.77556e-17,0,8192,8192
251.602,0,0,8192,8192
251.652,0,0,8192,8192
251.702,0,0,8192,8192
251.752,0,0,8192,8192
251.801,5.55112e-17,0,8192,8192
251.851,0,0,8192,8192
251.901,2.77556e-17,0,8192,8192
251.951,2.77556e-17,0,8192,8192
252.001,2.77556e-17,0,8192,8192
252.05,0,0,8192,8192
252.1,0,0,8192,8192
252.15,0,0,8192,8192
252.203,-5.55112e-17,0,8192,8192
252.253,-2.77556e-17,0,8192,8192
252.302,0,0,8192,8192
252.352,2.77556e-17,0,8192,8192
252.402,2.77556e-17,0,8192,8192
252.452,2.77556e-17,0,8192,8192
252.502,0,0,8192,8192
252.551,2.77556e-17,0,8192,8192
252.601,0,0,8192,8192
252.651,0,0,8192,8192
252.701,-2.77556e-17,0,8192,8192
252.751,0,0,8192,8192
252.8,2.77556e-17,0,8192,8192
252.85,2.77556e-17,0,8192,8192
252.903,2.77556e-17,0,8192,8192
252.953,2.77556e-17,0,8192,8192
253.002,0,0,8192,8192
253.052,2.77556e-17,0,8192,8192
253.102,0,0,8192,8192
253.152,2.77556e-17,0,8192,8192
253.202,0,0,8192,8192
253.251,2.77556e-17,0,8192,8192
253.301,2.77556e-17,0,8192,8192
253.351,0,0,8192,8192
253.401,2.77556e-17,0,8192,8192
253.451,2.77556e-17,0,8192,8192
253.5,2.77556e-17,0,8192,8192
253.55,2.77556e-17,0,8192,8192
253.6,0,0,8192,8192
253.653,2.77556e-17,0,8192,8192
253.703,2.77556e-17,0,8192,8192
253.752,0,0,8192,8192
253.802,0,0,8192,8192
253.852,0,0,8192,8192
253.902,-2.77556e-17,0,8192,8192
253.952,-5.55112e-17,0,8192,8192
254.001,-8.32667e-17,0,8192,8192
254.051,-2.77556e-17,0,8192,8192
254.101,2.77556e-17,0,8192,8192
254.151,0,0,8192,8192
254.201,-2.77556e-17,0,8192,8192
254.25,-5.55112e-17,0,8192,8192
254.3,-5.55112e-17,0,8192,8192
254.353,-5.55112e-17,0,8192,8192
254.403,-2.77556e-17,0,8192,8192
254.452,-2.77556e-17,0,8192,8192
254.502,0,0,8192,8192
254.552,-2.77556e-17,0,8192,8192
254.602,-2.77556e-17,0,8192,8192
254.652,-2.77556e-17,0,8192,8192
254.701,2.77556e-17,0,8192,8192
254.751,2.77556e-17,0,8192,8192
254.801,5.55112e-17,0,8192,8192
254.851,5.55112e-17,0,8192,8192
254.901,5.55112e-17,0,8192,8192
254.95,8.32667e-17,0,8192,8192
255,5.55112e-17,0,8192,8192
255.05,2.77556e-17,0,8192,8192
255.103,5.55112e-17,0,8192,8192
255.153,2.77556e-17,0,8192,8192
255.202,2.77556e-17,0,8192,8192
255.252,0,0,8192,8192
255.302,0,0,8192,8192
255.352,2.77556e-17,0,8192,8192
255.402,2.77556e-17,0,8192,8192
255.451,2.77556e-17,0,8192,8192
255.501,5.55112e-17,0,8192,8192
255.551,2.77556e-17,0,8192,8192
255.601,8.32667e-17,0,8192,8192
255.651,5.55112e-17,0,8192,8192
255.7,8.32667e-17,0,8192,8192
255.75,5.55112e-17,0,8192,8192
255.803,2.77556e-17,0,8192,8192
255.853,2.77556e-17,0,8192,8192
255.902,0,0,8192,8192
255.952,-2.77556e-17,0,8192,8192
256.002,0,0,8192,8192
256.052,0,0,8192,8192
256.102,0,0,8192,8192
256.151,2.77556e-17,0,8192,8192
256.201,2.77556e-17,0,8192,8192
256.251,2.77556e-17,0,8192,8192
256.301,0,0,8192,8192
256.351,-2.77556e-17,0,8192,8192
256.4,0,0,8192,8192
256.45,2.77556e-17,0,8192,8192
256.5,2.77556e-17,0,8192,8192
256.553,-2.77556e-17,0,8192,8192
256.603,2.77556e-17,0,8192,8192
256.652,2.77556e-17,0,8192,8192
256.702,5.55112e-17,0,8192,8192
256.752,5.55112e-17,0,8192,8192
256.802,5.55112e-17,0,8192,8192
256.852,2.77556e-17,0,8192,8192
256.901,2.77556e-17,0,8192,8192
256.951,2.77556e-17,0,8192,8192
257.001,5.55112e-17,0,8192,8192
257.051,8.32667e-17,0,8192,8192
257.101,1.11022e-16,0,8192,8192
257.15,8.32667e-17,0,8192,8192
257.2,8.32667e-17,0,8192,8192
257.253,1.11022e-16,0,8192,8192
257.303,2.77556e-17,0,8192,8192
257.352,2.77556e-17,0,8192,8192
257.402,2.77556e-17,0,8192,8192
257.452,2.77556e-17,0,8192,8192
257.502,0,0,8192,8192
257.552,2.77556e-17,0,8192,8192
257.601,0,0,8192,8192
257.651,-2.77556e-17,0,8192,8192
257.701,0,0,8192,8192
257.751,2.77556e-17,0,8192,8192
257.801,0,0,8192,8192
257.85,0,0,8192,8192
257.9,0,0,8192,8192
257.95,-2.77556e-17,0,8192,8192
258.003,-2.77556e-17,0,8192,8192
258.053,2.77556e-17,0,8192,8192
258.102,0,0,8192,8192
258.152,0,0,8192,8192
258.202,0,0,8192,8192
258.252,0,0,8192,8192
258.302,-2.77556e-17,0,8192,8192
258.351,-2.77556e-17,0,8192,8192
258.401,-2.77556e-17,0,8192,8192
258.451,-2.77556e-17,0,8192,8192
258.501,-2.77556e-17,0,8192,8192
258.551,-2.77556e-17,0,8192,8192
258.6,2.77556e-17,0,8192,8192
258.65,2.77556e-17,0,8192,8192
258.703,-5.55112e-17,0,8192,8192
258.753,-2.77556e-17,0,8192,8192
258.802,0,0,8192,8192
258.852,-2.77556e-17,0,8192,8192
258.902,-2.77556e-17,0,8192,8192
258.952,0,0,8192,8192
259.002,0,0,8192,8192
259.051,0,0,8192,8192
259.101,0,0,8192,8192
259.151,-2.77556e-17,0,8192,8192
259.201,2.77556e-17,0,8192,8192
259.251,0,0,8192,8192
259.3,0,0,8192,8192
259.35,5.55112e-17,0,8192,8192
259.403,0,0,8192,8192
259.453,2.77556e-17,0,8192,8192
259.503,0,0,8192,8192
259.552,0,0,8192,8192
259.602,0,0,8192,8192
259.652,-2.77556e-17,0,8192,8192
259.702,-2.77556e-17,0,8192,8192
259.751,-2.77556e-17,0,8192,8192
259.801,-2.77556e-17,0,8192,8192
259.851,-2.77556e-17,0,8192,8192
259.901,-2.77556e-17,0,8192,8192
259.951,0,0,8192,8192
260,-2.77556e-17,0,8192,8192
260.05,-5.55112e-17,0,8192,8192
260.1,-8.32667e-17,0,8192,8192
260.153,-5.55112e-17,0,8192,8192
260.203,-2.77556e-17,0,8192,8192
260.252,0,0,8192,8192
260.302,0,0,8192,8192
260.352,0,0,8192,8192
260.402,0,0,8192,8192
260.452,2.77556e-17,0,8192,8192
260.501,2.77556e-17,0,8192,8192
260.551,0,0,8192,8192
260.601,-2.77556e-17,0,8192,8192
260.651,-2.77556e-17,0,8192,8192
260.701,-2.77556e-17,0,8192,8192
260.75,-2.77556e-17,0,8192,8192
260.8,-2.77556e-17,0,8192,8192
260.853,-5.55112e-17,0,8192,8192
260.903,-5.55112e-17,0,8192,8192
260.952,-2.77556e-17,0,8192,8192
261.002,-2.77556e-17,0,8192,8192
261.052,-2.77556e-17,0,8192,8192
261.102,-8.32667e-17,0,8192,8192
261.152,-5.55112e-17,0,8192,8192
261.201,-5.55112e-17,0,8192,8192
261.251,-2.77556e-17,0,8192,8192
261.301,-2.77556e-17,0,8192,8192
261.351,-2.77556e-17,0,8192,8192
261.401,-2.77556e-17,0,8192,8192
261.45,2.77556e-17,0,8192,8192
261.5,0,0,8192,8192
261.55,2.77556e-17,0,8192,8192
261.603,5.55112e-17,0,8192,8192
261.653,5.55112e-17,0,8192,8192
261.702,5.55112e-17,0,8192,8192
261.752,8.32667e-17,0,8192,8192
261.802,5.55112e-17,0,8192,8192
261.852,5.55112e-17,0,8192,8192
261.902,8.32667e-17,0,8192,8192
261.951,5.55112e-17,0,8192,8192
262.001,2.77556e-17,0,8192,8192
262.051,2.77556e-17,0,8192,8192
262.101,2.77556e-17,0,8192,8192
262.151,2.77556e-17,0,8192,8192
262.2,2.77556e-17,0,8192,8192
262.25,2.77556e-17,0,8192,8192
262.303,0,0,8192,8192
262.353,0,0,8192,8192
262.402,0,0,8192,8192
262.452,0,0,8192,8192
262.502,2.77556e-17,0,8192,8192
262.552,2.77556e-17,0,8192,8192
262.602,2.77556e-17,0,8192,8192
262.651,2.77556e-17,0,8192,8192
262.701,2.77556e-17,0,8192,8192
262.751,2.77556e-17,0,8192,8192
262.801,2.77556e-17,0,8192,8192
262.851,2.77556e-17,0,8192,8192
262.9,5.55112e-17,0,8192,8192
262.95,5.55112e-17,0,8192,8192
263,5.55112e-17,0,8192,8192
263.053,5.55112e-17,0,8192,8192
263.103,0,0,8192,8192
263.152,2.77556e-17,0,8192,8192
263.202,0,0,8192,8192
263.252,2.77556e-17,0,8192,8192
263.302,-5.55112e-17,0,8192,8192
263.352,-2.77556e-17,0,8192,8192
263.401,-1.11022e-16,0,8192,8192
263.451,-1.11022e-16,0,8192,8192
263.501,-8.32667e-17,0,8192,8192
263.551,-8.32667e-17,0,8192,8192
263.601,-5.55112e-17,0,8192,8192
263.65,-8.32667e-17,0,8192,8192
263.7,0,0,8192,8192
263.753,-5.55112e-17,0,8192,8192
263.803,-8.32667e-17,0,8192,8192
263.852,-5.55112e-17,0,8192,8192
263.902,-2.77556e-17,0,8192,8192
263.952,0,0,8192,8192
264.002,2.77556e-17,0,8192,8192
264.052,0,0,8192,8192
264.101,0,0,8192,8192
264.151,2.77556e-17,0,8192,8192
264.201,2.77556e-17,0,8192,8192
264.251,2.77556e-17,0,8192,8192
264.301,0,0,8192,8192
264.35,0,0,8192,8192
264.4,0,0,8192,8192
264.45,0,0,8192,8192
264.503,0,0,8192,8192
264.553,2.77556e-17,0,8192,8192
264.602,-2.77556e-17,0,8192,8192
264.652,-2.77556e-17,0,8192,8192
264.702,0,0,8192,8192
264.752,0,0,8192,8192
264.802,0,0,8192,8192
264.851,0,0,8192,8192
264.901,0,0,8192,8192
264.951,0,0,8192,8192
265.001,0,0,8192,8192
265.051,2.77556e-17,0,8192,8192
265.1,2.77556e-17,0,8192,8192
265.15,5.55112e-17,0,8192,8192
265.203,5.55112e-17,0,8192,8192
265.253,2.77556e-17,0,8192,8192
265.302,2.77556e-17,0,8192,8192
265.352,2.77556e-17,0,8192,8192
265.402,2.77556e-17,0,8192,8192
265.452,2.77556e-17,0,8192,8192
265.502,2.77556e-17,0,8192,8192
265.551,0,0,8192,8192
265.601,-2.77556e-17,0,8192,8192
265.651,-2.77556e-17,0,8192,8192
265.701,-2.77556e-17,0,8192,8192
265.751,-2.77556e-17,0,8192,8192
265.8,-5.55112e-17,0,8192,8192
265.85,-8.32667e-17,0,8192,8192
265.9,-8.32667e-17,0,8192,8192
265.953,-8.32667e-17,0,8192,8192
266.003,-1.11022e-16,0,8192,8192
266.052,-1.38778e-16,0,8192,8192
266.102,-8.32667e-17,0,8192,8192
266.152,-8.32667e-17,0,8192,8192
266.202,-5.55112e-17,0,8192,8192
266.252,-5.55112e-17,0,8192,8192
266.301,-2.77556e-17,0,8192,8192
266.351,-2.77556e-17,0,8192,8192
266.401,-2.77556e-17,0,8192,8192
266.451,-2.77556e-17,0,8192,8192
266.501,5.55112e-17,0,8192,8192
266.55,5.55112e-17,0,8192,8192
266.6,8.32667e-17,0,8192,8192
266.653,8.32667e-17,0,8192,8192
266.703,8.32667e-17,0,8192,8192
266.752,1.11022e-16,0,8192,8192
266.802,5.55112e-17,0,8192,8192
266.852,2.77556e-17,0,8192,8192
266.902,2.77556e-17,0,8192,8192
266.952,2.77556e-17,0,8192,8192
267.001,2.77556e-17,0,8192,8192
267.051,2.77556e-17,0,8192,8192
267.101,2.77556e-17,0,8192,8192
267.151,5.55112e-17,0,8192,8192
267.201,5.55112e-17,0,8192,8192
267.25,5.55112e-17,0,8192,8192
267.3,5.55112e-17,0,8192,8192
267.353,0,0,8192,8192
267.403,2.77556e-17,0,8192,8192
267.453,-2.77556e-17,0,8192,8192
267.502,2.77556e-17,0,8192,8192
267.552,0,0,8192,8192
267.602,0,0,8192,8192
267.652,0,0,8192,8192
267.702,2.77556e-17,0,8192,8192
267.751,2.77556e-17,0,8192,8192
267.801,5.55112e-17,0,8192,8192
267.851,5.55112e-17,0,8192,8192
267.901,-2.77556e-17,0,8192,8192
267.95,-2.77556e-17,0,8192,8192
268,0,0,8192,8192
268.05,0,0,8192,8192
268.1,2.77556e-17,0,8460,8460
268.15,2.77556e-17,0,8652,8652
268.2,2.77556e-17,0,8844,8844
268.251,2.77556e-17,0,9036,9036
268.301,2.77556e-17,0,9228,9228
268.351,2.77556e-17,0,9420,9420
268.401,2.77556e-17,0,9612,9612
268.451,2.77556e-17,0,9780,9780
268.5,2.77556e-17,0,9972,9972
268.55,2.77556e-17,0,10140,10140
268.601,2.77556e-17,0,10332,10332
268.651,2.77556e-17,0,10524,10524
268.701,2.77556e-17,0,10692,10692
268.751,2.77556e-17,0,10884,10884
268.801,2.77556e-17,0,11052,11052
268.85,2.77556e-17,0,11244,11244
268.9,2.77556e-17,0,11412,11412
268.951,2.77556e-17,0,11604,11604
269.001,2.77556e-17,0,11772,11772
269.051,2.77556e-17,0,11964,11964
269.101,2.77556e-17,0,12132,12132
269.151,2.77556e-17,0,12300,12300
269.2,2.77556e-17,0,12492,12492
269.25,2.77556e-17,0,12660,12660
269.3,2.77556e-17,0,12828,12828
269.351,2.77556e-17,0,13020,13020
269.401,2.77556e-17,0,13188,13188
269.451,8.60423e-16,0,13380,13380
269.501,7.24421e-15,0,13548,13548
269.55,5.14311e-14,0,13716,13716
269.6,1.52101e-12,0,13908,13908
269.65,2.84237e-12,0,14076,14076
269.701,-1.31331e-10,0,14244,14244
269.751,-4.51021e-10,0,14436,14436
269.801,-5.52317e-10,0,14604,14604
269.851,-3.04999e-10,0,14772,14772
269.901,7.40537e-11,0,14940,14940
269.95,3.56115e-10,0,15108,15108
270,3.84861e-10,0,15276,15276
270.051,1.50209e-10,0,15468,15468
270.101,-1.32215e-10,0,15636,15636
270.151,-2.17283e-10,0,15804,15804
270.201,-3.15146e-11,0,15972,15972
270.251,2.47011e-10,0,16140,16140
270.3,3.61833e-10,0,16308,16308
270.35,2.20907e-10,0,16476,16476
270.401,-3.1151e-11,0,16644,16644
270.451,-1.44302e-10,0,16812,16812
270.501,-3.80211e-11,0,16956,16956
270.551,1.70464e-10,0,17124,17124
270.601,2.96541e-10,0,17292,17292
270.65,2.5493e-10,0,17460,17460
270.7,1.06148e-10,0,17604,17604
270.75,-3.16858e-11,0,17772,17772
270.801,-7.50502e-11,0,17940,17940
270.851,4.87416e-13,0,18108,18108
270.901,1.67569e-10,0,18252,18252
270.951,3.39658e-10,0,18420,18420
271,3.68071e-10,0,18564,18564
271.05,1.39407e-10,0,18732,18732
271.1,-2.40709e-10,0,18900,18900
271.151,-4.07489e-10,0,19044,19044
271.201,-1.572e-11,0,19212,19212
271.251,7.39055e-10,0,19356,19356
271.301,1.08504e-09,0,19524,19524
271.35,3.17079e-10,0,19668,19668
271.4,-1.20699e-09,0,19812,19812
271.45,-1.88961e-09,0,19980,19980
271.501,9.3423e-11,0,20124,20124
271.551,4.99111e-09,0,20268,20268
271.601,1.15355e-08,0,20412,20412
271.651,1.79648e-08,0,20580,20580
271.701,2.30887e-08,0,20724,20724
271.75,2.65051e-08,0,20868,20868
271.8,2.83828e-08,0,21012,21012
271.851,2.97151e-08,0,21156,21156
271.901,3.2174e-08,0,21300,21300
271.951,3.74102e-08,0,21444,21444
272.001,4.58433e-08,0,21588,21588
272.051,5.66245e-08,0,21708,21708
272.1,6.87733e-08,0,21780,21780
272.15,8.2408e-08,0,21924,21924
272.201,9.94262e-08,0,22068,22068
272.251,1.20594e-07,0,22236,22236
272.301,1.4762e-07,0,22380,22380
272.351,1.81211e-07,0,22524,22524
272.401,2.21378e-07,0,22668,22668
272.45,2.66705e-07,0,22812,22812
272.5,3.14503e-07,0,22956,22956
272.55,3.62435e-07,0,23100,23100
272.601,4.11973e-07,0,23244,23244
272.651,4.62726e-07,0,23388,23388
272.701,5.18173e-07,0,23532,23532
272.751,5.77177e-07,0,23676,23676
272.8,6.3548e-07,0,23820,23820
272.85,6.8831e-07,0,23964,23964
272.9,7.3245e-07,0,24084,24084
272.951,7.67225e-07,0,24228,24228
273.001,7.90345e-07,0,24372,24372
273.051,8.04271e-07,0,24516,24516
273.101,8.11637e-07,0,24660,24660
273.151,8.15043e-07,0,24804,24804
273.2,8.15829e-07,0,24924,24924
273.25,8.14083e-07,0,25068,25068
273.301,8.09123e-07,0,25212,25212
273.351,8.00357e-07,0,25356,25356
273.401,7.86569e-07,0,25500,25500
273.451,7.66625e-07,0,25620,25620
273.501,7.39598e-07,0,25764,25764
273.55,7.04854e-07,0,25908,25908
273.6,6.62516e-07,0,26028,26028
273.651,6.12899e-07,0,26172,26172
273.701,5.62097e-07,0,26316,26316
273.751,5.11922e-07,0,26436,26436
273.801,4.6434e-07,0,26580,26580
273.851,4.20199e-07,0,26724,26724
273.9,3.7978e-07,0,26844,26844
273.95,3.42852e-07,0,26988,26988
274.001,3.07831e-07,0,27132,27132
274.051,2.76e-07,0,27252,27252
274.101,2.45727e-07,0,27396,27396
274.151,2.16618e-07,0,27516,27516
274.201,1.88829e-07,0,27660,27660
274.25,1.63658e-07,0,27804,27804
274.3,1.43134e-07,0,27924,27924
274.35,1.28375e-07,0,28068,28068
274.401,1.17632e-07,0,28188,28188
274.451,1.08035e-07,0,28332,28332
274.501,9.65469e-08,0,28452,28452
274.551,8.32847e-08,0,28596,28596
274.6,7.0487e-08,0,28716,28716
274.65,6.0317e-08,0,28860,28860
274.7,5.34214e-08,0,28980,28980
274.751,4.91048e-08,0,29124,29124
274.801,4.64824e-08,0,29244,29244
274.851,4.39965e-08,0,29388,29388
274.901,4.01994e-08,0,29508,29508
274.951,3.44257e-08,0,29652,29652
275,2.76498e-08,0,29772,29772
275.05,2.19232e-08,0,29892,29892
275.101,1.87474e-08,0,30036,30036
275.151,1.8192e-08,0,30156,30156
275.201,1.8856e-08,0,30300,30300
275.251,1.95484e-08,0,30420,30420
275.301,1.98507e-08,0,30540,30540
275.35,1.99135e-08,0,30684,30684
275.4,1.99654e-08,0,30804,30804
275.451,2.00856e-08,0,30948,30948
275.501,2.02238e-08,0,31068,31068
275.551,2.03283e-08,0,31188,31188
275.601,2.02291e-08,0,31308,31308
275.651,1.96764e-08,0,31428,31428
275.7,1.92126e-08,0,31524,31524
275.75,1.91216e-08,0,31644,31644
275.8,1.91435e-08,0,31764,31764
275.851,1.91765e-08,0,31860,31860
275.901,1.9209e-08,0,31980,31980
275.951,1.92416e-08,0,32076,32076
276.001,1.92744e-08,0,32172,32172
276.05,1.93072e-08,0,32268,32268
276.1,1.93402e-08,0,32364,32364
276.15,1.93732e-08,0,32460,32460
276.201,1.94072e-08,0,32556,32556
276.251,1.94404e-08,0,32652,32652
276.301,1.94736e-08,0,32768,32768
276.351,1.9507e-08,0,32768,32768
276.401,1.95405e-08,0,32768,32768
276.45,1.95741e-08,0,32768,32768
276.5,1.96077e-08,0,32768,32768
276.551,1.96424e-08,0,32768,32768
276.601,1.96761e-08,0,32768,32768
276.651,1.97098e-08,0,32768,32768
276.701,1.97436e-08,0,32768,32768
276.751,1.97775e-08,0,32768,32768
276.8,1.98115e-08,0,32768,32768
276.85,1.98456e-08,0,32768,32768
276.901,1.98807e-08,0,32768,32768
276.951,1.9915e-08,0,32768,32768
277.001,1.99492e-08,0,32768,32768
277.051,1.99837e-08,0,32768,32768
277.101,2.00182e-08,0,32768,32768
277.15,2.00529e-08,0,32768,32768
277.2,2.00877e-08,0,32768,32768
277.25,2.01226e-08,0,32768,32768
277.301,2.01587e-08,0,32768,32768
277.351,2.01938e-08,0,32768,32768
277.401,2.02291e-08,0,32768,32768
277.451,2.02645e-08,0,32768,32768
277.5,2.03e-08,0,32768,32768
277.55,2.03357e-08,0,32768,32768
277.6,2.03714e-08,0,32768,32768
277.651,2.04083e-08,0,32768,32768
277.701,2.04443e-08,0,32768,32768
277.751,2.04805e-08,0,32768,32768
277.801,2.05168e-08,0,32768,32768
277.851,2.05532e-08,0,32768,32768
277.9,2.05897e-08,0,32768,32768
277.95,2.06262e-08,0,32768,32768
278.001,2.0664e-08,0,32768,32768
278.051,2.07009e-08,0,32768,32768
278.101,2.07377e-08,0,32768,32768
278.151,2.07736e-08,0,32768,32768
278.201,2.08079e-08,0,32768,32768
278.25,2.08399e-08,0,32768,32768
278.3,2.0869e-08,0,32768,32768
278.351,2.08959e-08,0,32768,32768
278.401,2.09194e-08,0,32768,32768
278.451,2.09407e-08,0,32768,32768
278.501,2.096e-08,0,32768,32768
278.551,2.0977e-08,0,32768,32768
278.6,2.0991e-08,0,32768,32768
278.65,2.10009e-08,0,32768,32768
278.701,2.10053e-08,0,32768,32768
278.751,2.10026e-08,0,32768,32768
278.801,2.09914e-08,0,32768,32768
278.851,2.09697e-08,0,32768,32768
278.901,2.09352e-08,0,32768,32768
278.95,2.0885e-08,0,32768,32768
279,2.08158e-08,0,32768,32768
279.05,2.07242e-08,0,32768,32768
279.101,2.06034e-08,0,32768,32768
279.151,2.04576e-08,0,32768,32768
279.201,2.02818e-08,0,32768,32768
279.251,2.00746e-08,0,32768,32768
279.3,1.98346e-08,0,32768,32768
279.35,1.95604e-08,0,32768,32768
279.4,1.92511e-08,0,32768,32768
279.451,1.88962e-08,0,32768,32768
279.501,1.85176e-08,0,32768,32768
279.551,1.81086e-08,0,32768,32768
279.601,1.76738e-08,0,32768,32768
279.651,1.72184e-08,0,32768,32768
279.7,1.67475e-08,0,32768,32768
279.75,1.62658e-08,0,32768,32768
279.801,1.57628e-08,0,32768,32768
279.851,1.52705e-08,0,32768,32768
279.901,1.47771e-08,0,32768,32768
279.951,1.4285e-08,0,32768,32768
280.001,1.37968e-08,0,32768,32768
280.05,1.33154e-08,0,32768,32768
280.1,1.28442e-08,0,32768,32768
280.151,1.23739e-08,0,32768,32768
280.201,1.19355e-08,0,32768,32768
280.251,1.15194e-08,0,32768,32768
280.301,1.11291e-08,0,32768,32768
280.351,1.07669e-08,0,32768,32768
280.4,1.04342e-08,0,32768,32768
280.45,1.01311e-08,0,32768,32768
280.5,9.85657e-09,0,32768,32768
280.551,9.60228e-09,0,32768,32768
280.601,9.3809e-09,0,32768,32768
280.651,9.18301e-09,0,32768,32768
280.701,9.00698e-09,0,32768,32768
280.75,8.85142e-09,0,32768,32768
280.8,8.71504e-09,0,32768,32768
280.85,8.59648e-09,0,32768,32768
280.901,8.49136e-09,0,32768,32768
280.951,8.40367e-09,0,32768,32768
281.001,8.32804e-09,0,32768,32768
281.051,8.26251e-09,0,32768,32768
281.101,8.20565e-09,0,32768,32768
281.15,8.15665e-09,0,32768,32768
281.2,8.11512e-09,0,32768,32768
281.251,8.07982e-09,0,32768,32768
281.301,8.05211e-09,0,32768,32768
281.351,8.02989e-09,0,32768,32768
281.401,8.01204e-09,0,32768,32768
281.451,7.99757e-09,0,32768,32768
281.5,7.98589e-09,0,32768,32768
281.55,7.97682e-09,0,32768,32768
281.601,7.97034e-09,0,32768,32768
281.651,7.967e-09,0,32768,32768
281.701,7.9665e-09,0,32768,32768
281.751,7.96847e-09,0,32768,32768
281.801,7.97226e-09,0,32768,32768
281.85,7.97719e-09,0,32768,32768
281.9,7.98269e-09,0,32768,32768
281.95,7.98838e-09,0,32768,32768
282.001,7.99423e-09,0,32768,32768
282.051,7.99984e-09,0,32768,32768
282.101,8.0054e-09,0,32768,32768
282.151,8.01094e-09,0,32768,32768
282.2,8.01652e-09,0,32768,32768
282.25,8.02218e-09,0,32768,32768
282.3,8.02796e-09,0,32768,32768
282.351,8.03404e-09,0,32768,32768
282.401,8.04009e-09,0,32768,32768
282.451,8.04625e-09,0,32768,32768
282.501,8.05249e-09,0,32768,32768
282.55,8.05879e-09,0,32768,32768
282.6,8.06511e-09,0,32768,32768
282.65,8.07141e-09,0,32768,32768
282.701,8.07789e-09,0,32768,32768
282.751,8.08419e-09,0,32768,32768
282.801,8.09053e-09,0,32768,32768
282.851,8.09693e-09,0,32768,32768
282.901,8.10336e-09,0,32768,32768
282.95,8.10981e-09,0,32768,32768
283,8.11625e-09,0,32768,32768
283.051,8.12291e-09,0,32768,32768
283.101,8.12945e-09,0,32768,32768
283.151,8.13608e-09,0,32768,32768
283.201,8.14288e-09,0,32768,32768
283.251,8.15003e-09,0,32768,32768
283.3,8.15796e-09,0,32768,32768
283.35,8.16753e-09,0,32768,32768
283.401,8.18032e-09,0,32768,32768
283.451,8.19706e-09,0,32768,32768
283.501,8.21979e-09,0,32768,32768
283.551,8.25101e-09,0,32768,32768
283.601,8.29474e-09,0,32768,32768
283.65,8.35705e-09,0,32768,32768
283.7,8.44544e-09,0,32768,32768
283.75,8.56699e-09,0,32768,32768
283.801,8.73115e-09,0,32768,32768
283.851,8.9286e-09,0,32768,32768
283.901,9.1605e-09,0,32768,32768
283.951,9.42439e-09,0,32768,32768
284,9.72234e-09,0,32768,32768
284.05,1.00632e-08,0,32768,32768
284.1,1.04619e-08,0,32768,32768
284.151,1.09521e-08,0,32768,32768
284.201,1.15253e-08,0,32768,32768
284.251,1.22125e-08,0,32768,32768
284.301,1.30317e-08,0,32768,32768
284.351,1.40012e-08,0,32768,32768
284.4,1.51395e-08,0,32768,32768
284.45,1.64636e-08,0,32768,32768
284.501,1.80356e-08,0,32768,32768
284.551,1.9776e-08,0,32768,32768
284.601,2.17334e-08,0,32768,32768
284.651,2.3912e-08,0,32768,32768
284.701,2.6313e-08,0,32768,32768
284.75,2.89328e-08,0,32768,32768
284.8,3.17606e-08,0,32768,32768
284.851,3.48692e-08,0,32768,32768
284.901,3.80554e-08,0,32768,32768
284.951,4.13785e-08,0,32768,32768
285.001,4.4814e-08,0,32768,32768
285.051,4.83415e-08,0,32768,32768
285.1,5.19455e-08,0,32768,32768
285.15,5.56173e-08,0,32768,32768
285.2,5.93621e-08,0,32768,32768
285.251,6.33259e-08,0,32768,32768
285.301,6.73521e-08,0,32768,32768
285.351,7.16569e-08,0,32768,32768
285.401,7.63585e-08,0,32768,32768
285.45,8.15493e-08,0,32768,32768
285.5,8.72531e-08,0,32768,32768
285.55,9.34021e-08,0,32768,32768
285.601,1.00043e-07,0,32768,32768
285.651,1.06622e-07,0,32768,32768
285.701,1.132e-07,0,32768,32768
285.751,1.19768e-07,0,32768,32768
285.801,1.26456e-07,0,32768,32768
285.85,1.33529e-07,0,32768,32768
285.9,1.41344e-07,0,32768,32768
285.951,1.50582e-07,0,32768,32768
286.001,1.61128e-07,0,32768,32768
286.051,1.73627e-07,0,32768,32768
286.101,1.88476e-07,0,32768,32768
286.151,2.06076e-07,0,32768,32768
286.2,2.26806e-07,0,32768,32768
286.25,2.50973e-07,0,32768,32768
286.301,2.7962e-07,0,32768,32768
286.351,3.11089e-07,0,32768,32768
286.401,3.45926e-07,0,32768,32768
286.451,3.83741e-07,0,32768,32768
286.501,4.24022e-07,0,32768,32768
286.55,4.66172e-07,0,32768,32768
286.6,5.09501e-07,0,32768,32768
286.651,5.54469e-07,0,32768,32768
286.701,5.97472e-07,0,32768,32768
286.751,6.38595e-07,0,32768,32768
286.801,6.76517e-07,0,32768,32768
286.851,7.09941e-07,0,32768,32768
286.9,7.37776e-07,0,32768,32768
286.95,7.59286e-07,0,32768,32768
287,7.74169e-07,0,32768,32768
287.051,7.82686e-07,0,32768,32768
287.101,7.84769e-07,0,32768,32768
287.151,7.81294e-07,0,32768,32768
287.201,7.7276e-07,0,32768,32768
287.25,7.59513e-07,0,32768,32768
287.3,7.41697e-07,0,32768,32768
287.35,7.19291e-07,0,32768,32768
287.401,6.91326e-07,0,32768,32768
287.451,6.59354e-07,0,32768,32768
287.501,6.22783e-07,0,32768,32768
287.551,5.82026e-07,0,32768,32768
287.601,5.37805e-07,0,32768,32768
287.65,4.91115e-07,0,32768,32768
287.7,4.43118e-07,0,32768,32768
287.751,3.93602e-07,0,32768,32768
287.801,3.46502e-07,0,32768,32768
287.851,3.01258e-07,0,32768,32768
287.901,2.58464e-07,0,32768,32768
287.951,2.18461e-07,0,32768,32768
288,1.814e-07,0,32768,32768
288.05,1.47323e-07,0,32768,32768
288.101,1.15373e-07,0,32768,32768
288.151,8.73942e-08,0,32768,32768
288.201,6.24559e-08,0,32768,32768
288.251,4.05461e-08,0,32768,32768
288.301,2.15674e-08,0,32768,32768
288.35,5.31026e-09,0,32768,32768
288.4,-8.52655e-09,0,32768,32768
288.45,-2.02753e-08,0,32768,32768
288.501,-3.04938e-08,0,32768,32768
288.551,-3.88017e-08,0,32768,32768
288.601,-4.56255e-08,0,32768,32768
288.651,-5.10322e-08,0,32768,32768
288.7,-5.51079e-08,0,32768,32768
288.75,-5.7997e-08,0,32768,32768
288.8,-5.98992e-08,0,32768,32768
288.851,-6.10496e-08,0,32768,32768
288.901,-6.15527e-08,0,32768,32768
288.951,-6.15316e-08,0,32768,32768
289.001,-6.09803e-08,0,32768,32768
289.051,-5.98448e-08,0,32768,32768
289.1,-5.80772e-08,0,32768,32768
289.15,-5.56825e-08,0,32768,32768
289.201,-5.26424e-08,0,32768,32768
289.251,-4.92692e-08,0,32768,32768
289.301,-4.56473e-08,0,32768,32768
289.351,-4.19354e-08,0,32768,32768
289.401,-3.82658e-08,0,32768,32768
289.45,-3.47357e-08,0,32768,32768
289.5,-3.14089e-08,0,32768,32768
289.551,-2.82344e-08,0,32768,32768
289.601,-2.54087e-08,0,32768,32768
289.651,-2.28371e-08,0,32768,32768
289.701,-2.05099e-08,0,32768,32768
289.751,-1.8414e-08,0,32768,32768
289.8,-1.65365e-08,0,32768,32768
289.85,-1.48674e-08,0,32768,32768
289.901,-1.3359e-08,0,32768,32768
289.951,-1.20911e-08,0,32768,32768
290.001,-1.10108e-08,0,32768,32768
290.051,-1.01093e-08,0,32768,32768
290.101,-9.37514e-09,0,32768,32768
290.15,-8.79461e-09,0,32768,32768
290.2,-8.35229e-09,0,32768,32768
290.25,-8.03182e-09,0,32768,32768
290.301,-7.81193e-09,0,32768,32768
290.351,-7.68922e-09,0,32768,32768
290.401,-7.64182e-09,0,32768,32768
290.451,-7.65747e-09,0,32768,32768
290.5,-7.72576e-09,0,32768,32768
290.55,-7.83793e-09,0,32768,32768
290.6,-7.98635e-09,0,32768,32768
290.651,-8.16962e-09,0,32768,32768
290.701,-8.3703e-09,0,32768,32768
290.751,-8.58653e-09,0,32768,32768
290.801,-8.81177e-09,0,32768,32768
290.851,-9.04001e-09,0,32768,32768
290.9,-9.26605e-09,0,32768,32768
290.95,-9.4858e-09,0,32768,32768
291.001,-9.70232e-09,0,32768,32768
291.051,-9.9012e-09,0,32768,32768
291.101,-1.00875e-08,0,32768,32768
291.151,-1.02601e-08,0,32768,32768
291.201,-1.04183e-08,0,32768,32768
291.25,-1.05613e-08,0,32768,32768
291.3,-1.06883e-08,0,32768,32768
291.351,-1.08016e-08,0,32768,32768
291.401,-1.08946e-08,0,32768,32768
291.451,-1.0971e-08,0,32768,32768
291.501,-1.10316e-08,0,32768,32768
291.551,-1.10777e-08,0,32768,32768
291.6,-1.11111e-08,0,32768,32768
291.65,-1.11336e-08,0,32768,32768
291.7,-1.11468e-08,0,32768,32768
291.751,-1.11522e-08,0,32768,32768
291.801,-1.11507e-08,0,32768,32768
291.851,-1.11434e-08,0,32768,32768
291.901,-1.11314e-08,0,32768,32768
291.95,-1.11161e-08,0,32768,32768
292,-1.10986e-08,0,32768,32768
292.05,-1.10804e-08,0,32768,32768
292.101,-1.1062e-08,0,32768,32768
292.151,-1.10453e-08,0,32768,32768
292.201,-1.10304e-08,0,32768,32768
292.251,-1.10177e-08,0,32768,32768
292.301,-1.10078e-08,0,32768,32768
292.35,-1.1001e-08,0,32768,32768
292.4,-1.09981e-08,0,32768,32768
292.451,-1.09999e-08,0,32768,32768
292.501,-1.10069e-08,0,32768,32768
292.551,-1.10195e-08,0,32768,32768
292.601,-1.10381e-08,0,32768,32768
292.651,-1.10628e-08,0,32768,32768
292.7,-1.10937e-08,0,32768,32768
292.75,-1.11308e-08,0,32768,32768
292.801,-1.11755e-08,0,32768,32768
292.851,-1.12253e-08,0,32768,32768
292.901,-1.12814e-08,0,32768,32768
292.951,-1.13437e-08,0,32768,32768
293.001,-1.14122e-08,0,32768,32768
293.05,-1.1487e-08,0,32768,32768
293.1,-1.15679e-08,0,32768,32768
293.15,-1.1655e-08,0,32768,32768
293.201,-1.17515e-08,0,32768,32768
293.251,-1.18521e-08,0,32768,32768
293.301,-1.196e-08,0,32768,32768
293.351,-1.20759e-08,0,32768,32768
293.4,-1.22007e-08,0,32768,32768
293.45,-1.23356e-08,0,32768,32768
293.5,-1.2482e-08,0,32768,32768
293.551,-1.26462e-08,0,32768,32768
293.601,-1.28205e-08,0,32768,32768
293.651,-1.30111e-08,0,32768,32768
293.701,-1.32196e-08,0,32768,32768
293.75,-1.34474e-08,0,32768,32768
293.8,-1.36959e-08,0,32768,32768
293.85,-1.3966e-08,0,32768,32768
293.901,-1.42673e-08,0,32768,32768
293.951,-1.45827e-08,0,32768,32768
294.001,-1.492e-08,0,32768,32768
294.051,-1.52782e-08,0,32768,32768
294.101,-1.56559e-08,0,32768,32768
294.15,-1.60507e-08,0,32768,32768
294.2,-1.64599e-08,0,32768,32768
294.251,-1.68926e-08,0,32768,32768
294.301,-1.73206e-08,0,32768,32768
294.351,-1.7752e-08,0,32768,32768
294.401,-1.81832e-08,0,32768,32768
294.451,-1.86104e-08,0,32768,32768
294.5,-1.90299e-08,0,32768,32768
294.55,-1.94384e-08,0,32768,32768
294.601,-1.98441e-08,0,32768,32768
294.651,-2.02208e-08,0,32768,32768
294.701,-2.05775e-08,0,32768,32768
294.751,-2.09116e-08,0,32768,32768
294.801,-2.12206e-08,0,32768,32768
294.85,-2.15024e-08,0,32768,32768
294.9,-2.1755e-08,0,32768,32768
294.95,-2.1977e-08,0,32768,32768
295.001,-2.21727e-08,0,32768,32768
295.051,-2.23303e-08,0,32768,32768
295.101,-2.24563e-08,0,32768,32768
295.151,-2.25513e-08,0,32768,32768
295.2,-2.26166e-08,0,32768,32768
295.25,-2.26538e-08,0,32768,32768
295.3,-2.26648e-08,0,32768,32768
295.351,-2.2651e-08,0,32768,32768
295.401,-2.26154e-08,0,32768,32768
295.451,-2.25602e-08,0,32768,32768
295.501,-2.24876e-08,0,32768,32768
295.551,-2.23999e-08,0,32768,32768
295.6,-2.22992e-08,0,32768,32768
295.65,-2.21875e-08,0,32768,32768
295.701,-2.20631e-08,0,32768,32768
295.751,-2.19349e-08,0,32768,32768
295.801,-2.1801e-08,0,32768,32768
295.851,-2.16629e-08,0,32768,32768
295.901,-2.1522e-08,0,32768,32768
295.95,-2.13793e-08,0,32768,32768
296,-2.1236e-08,0,32768,32768
296.051,-2.10887e-08,0,32768,32768
296.101,-2.09467e-08,0,32768,32768
296.151,-2.08065e-08,0,32768,32768
296.201,-2.06688e-08,0,32768,32768
296.251,-2.05339e-08,0,32768,32768
296.3,-2.04024e-08,0,32768,32768
296.35,-2.02747e-08,0,32768,32768
296.4,-2.0151e-08,0,32768,32768
296.451,-2.00282e-08,0,32768,32768
296.501,-1.99135e-08,0,32768,32768
296.551,-1.98035e-08,0,32768,32768
296.601,-1.96984e-08,0,32768,32768
296.65,-1.95981e-08,0,32768,32768
296.7,-1.95026e-08,0,32768,32768
296.75,-1.94117e-08,0,32768,32768
296.801,-1.93228e-08,0,32768,32768
296.851,-1.92405e-08,0,32768,32768
296.901,-1.91621e-08,0,32768,32768
296.951,-1.90872e-08,0,32768,32768
297.001,-1.90154e-08,0,32768,32768
297.05,-1.89465e-08,0,32768,32768
297.1,-1.888e-08,0,32768,32768
297.151,-1.88138e-08,0,32768,32768
297.201,-1.87513e-08,0,32768,32768
297.251,-1.86903e-08,0,32768,32768
297.301,-1.86305e-08,0,32768,32768
297.351,-1.85717e-08,0,32768,32768
297.4,-1.85135e-08,0,32768,32768
297.45,-1.84558e-08,0,32768,32768
297.501,-1.83966e-08,0,32768,32768
297.551,-1.83391e-08,0,32768,32768
297.601,-1.82815e-08,0,32768,32768
297.651,-1.82236e-08,0,32768,32768
297.701,-1.81651e-08,0,32768,32768
297.75,-1.81061e-08,0,32768,32768
297.8,-1.80464e-08,0,32768,32768
297.851,-1.7984e-08,0,32768,32768
297.901,-1.79225e-08,0,32768,32768
297.951,-1.78599e-08,0,32768,32768
298.001,-1.77962e-08,0,32768,32768
298.051,-1.77313e-08,0,32768,32768
298.1,-1.7665e-08,0,32768,32768
298.15,-1.75972e-08,0,32768,32768
298.2,-1.75279e-08,0,32768,32768
298.251,-1.74547e-08,0,32768,32768
298.301,-1.73817e-08,0,32768,32768
298.351,-1.73066e-08,0,32768,32768
298.401,-1.72293e-08,0,32768,32768
298.45,-1.71494e-08,0,32768,32768
298.5,-1.70668e-08,0,32768,32768
298.55,-1.69813e-08,0,32768,32768
298.601,-1.68898e-08,0,32768,32768
298.651,-1.67976e-08,0,32768,32768
298.701,-1.67016e-08,0,32768,32768
298.751,-1.66017e-08,0,32768,32768
298.801,-1.64977e-08,0,32768,32768
298.85,-1.63893e-08,0,32768,32768
298.9,-1.62765e-08,0,32768,32768
298.951,-1.61556e-08,0,32768,32768
299.001,-1.60332e-08,0,32768,32768
299.051,-1.59061e-08,0,32768,32768
299.101,-1.57741e-08,0,32768,32768
299.151,-1.56371e-08,0,32768,32768
299.2,-1.5495e-08,0,32768,32768
299.25,-1.53479e-08,0,32768,32768
299.301,-1.51911e-08,0,32768,32768
299.351,-1.50335e-08,0,32768,32768
299.401,-1.48705e-08,0,32768,32768
299.451,-1.4702e-08,0,32768,32768
299.501,-1.45281e-08,0,32768,32768
299.55,-1.43485e-08,0,32768,32768
299.6,-1.41632e-08,0,32768,32768
299.65,-1.39722e-08,0,32768,32768
299.701,-1.37696e-08,0,32768,32768
299.751,-1.35668e-08,0,32768,32768
299.801,-1.3358e-08,0,32768,32768
299.851,-1.31428e-08,0,32768,32768
299.9,-1.29209e-08,0,32768,32768
299.95,-1.26916e-08,0,32768,32768
300,-1.24539e-08,0,32768,32768
300.051,-1.21993e-08,0,32768,32768
300.101,-1.19411e-08,0,32768,32768
300.151,-1.16704e-08,0,32768,32768
300.201,-1.13855e-08,0,32768,32768
300.251,-1.10845e-08,0,32768,32768
300.3,-1.07655e-08,0,32768,32768
300.35,-1.04266e-08,0,32768,32768
300.401,-1.00551e-08,0,32768,32768
300.451,-9.67058e-09,0,32768,32768
300.501,-9.26158e-09,0,32768,32768
300.551,-8.82731e-09,0,32768,32768
300.601,-8.3675e-09,0,32768,32768
300.65,-7.88244e-09,0,32768,32768
300.7,-7.37311e-09,0,32768,32768
300.751,-6.82517e-09,0,32768,32768
300.801,-6.27231e-09,0,32768,32768
300.851,-5.70216e-09,0,32768,32768
300.901,-5.11824e-09,0,32768,32768
300.951,-4.52449e-09,0,32768,32768
301,-3.92512e-09,0,32768,32768
301.05,-3.32449e-09,0,32768,32768
301.1,-2.72696e-09,0,32768,32768
301.151,-2.11958e-09,0,32768,32768
301.201,-1.54126e-09,0,32768,32768
301.251,-9.78365e-10,0,32768,32768
301.301,-4.34568e-10,0,32768,32768
301.35,8.67029e-11,0,32768,32768
301.4,5.82248e-10,0,32768,32768
301.45,1.04913e-09,0,32768,32768
301.501,1.49702e-09,0,32768,32768
301.551,1.89804e-09,0,32768,32768
301.601,2.26367e-09,0,32768,32768
301.651,2.59268e-09,0,32768,32768
301.701,2.8844e-09,0,32768,32768
301.75,3.1388e-09,0,32768,32768
301.8,3.35643e-09,0,32768,32768
301.851,3.5432e-09,0,32768,32768
301.901,3.69007e-09,0,32768,32768
301.951,3.80483e-09,0,32768,32768
302.001,3.88973e-09,0,32768,32768
302.051,3.94719e-09,0,32768,32768
302.1,3.97975e-09,0,32768,32768
302.15,3.99e-09,0,32768,32768
302.201,3.97998e-09,0,32768,32768
302.251,3.95286e-09,0,32768,32768
302.301,3.91109e-09,0,32768,32768
302.351,3.85701e-09,0,32768,32768
302.401,3.79282e-09,0,32768,32768
302.45,3.72054e-09,0,32768,32768
302.5,3.64202e-09,0,32768,32768
302.551,3.55644e-09,0,32768,32768
302.601,3.47019e-09,0,32768,32768
302.651,3.38217e-09,0,32768,32768
302.701,3.29352e-09,0,32768,32768
302.751,3.20521e-09,0,32768,32768
302.8,3.11813e-09,0,32768,32768
302.85,3.03306e-09,0,32768,32768
302.9,2.95078e-09,0,32768,32768
302.951,2.86974e-09,0,32768,32768
303.001,2.79533e-09,0,32768,32768
303.051,2.72586e-09,0,32768,32768
303.101,2.66198e-09,0,32768,32768
303.15,2.60424e-09,0,32768,32768
303.2,2.55307e-09,0,32768,32768
303.25,2.50875e-09,0,32768,32768
303.301,2.4704e-09,0,32768,32768
303.351,2.44011e-09,0,32768,32768
303.401,2.41641e-09,0,32768,32768
303.451,2.39881e-09,0,32768,32768
303.501,2.38668e-09,0,32768,32768
303.55,2.37921e-09,0,32768,32768
303.6,2.3755e-09,0,32768,32768
303.651,2.37457e-09,0,32768,32768
303.701,2.37543e-09,0,32768,32768
303.751,2.377e-09,0,32768,32768
303.801,2.3783e-09,0,32768,32768
303.851,2.37843e-09,0,32768,32768
303.9,2.37657e-09,0,32768,32768
303.95,2.37209e-09,0,32768,32768
304.001,2.3643e-09,0,32768,32768
304.051,2.35346e-09,0,32768,32768
304.101,2.33951e-09,0,32768,32768
304.151,2.32281e-09,0,32768,32768
304.201,2.30395e-09,0,32768,32768
304.25,2.28362e-09,0,32768,32768
304.3,2.26254e-09,0,32768,32768
304.35,2.24133e-09,0,32768,32768
304.401,2.21986e-09,0,32768,32768
304.451,2.19967e-09,0,32768,32768
304.501,2.18027e-09,0,32768,32768
304.551,2.16173e-09,0,32768,32768
304.6,2.14407e-09,0,32768,32768
304.65,2.12743e-09,0,32768,32768
304.7,2.11202e-09,0,32768,32768
304.751,2.09785e-09,0,32768,32768
304.801,2.08618e-09,0,32768,32768
304.851,2.07707e-09,0,32768,32768
304.901,2.07093e-09,0,32768,32768
304.951,2.06806e-09,0,32768,32768
