250,0,0,512,512
250.012,0,0,512,512
250.059,0,0,512,512
250.105,0,0,512,512
250.152,0,0,512,512
250.211,0,0,512,512
250.258,0,0,512,512
250.305,0,0,512,512
250.352,0,0,512,512
250.41,0,0,512,512
250.457,0,0,512,512
250.504,0,0,512,512
250.551,0,0,512,512
250.609,0,0,512,512
250.656,0,0,512,512
250.703,0,0,512,512
250.762,0,0,512,512
250.808,0,0,512,512
250.855,0,0,512,512
250.902,0,0,512,512
250.961,0,0,512,512
251.008,0,0,512,512
251.055,0,0,512,512
251.101,0,0,512,512
251.16,0,0,512,512
251.207,0,0,512,512
251.254,0,0,512,512
251.301,0,0,512,512
251.359,0,0,512,512
251.406,0,0,512,512
251.453,0,0,512,512
251.511,0,0,512,512
251.558,0,0,512,512
251.605,0,0,512,512
251.652,0,0,512,512
251.711,0,0,512,512
251.758,0,0,512,512
251.804,0,0,512,512
251.851,0,0,512,512
251.91,0,0,512,512
251.957,0,0,512,512
252.004,0,0,512,512
252.05,0,0,512,512
252.109,0,0,512,512
252.156,0,0,512,512
252.203,0,0,512,512
252.261,0,0,512,512
252.308,0,0,512,512
252.355,0,0,512,512
252.402,0,0,512,512
252.461,0,0,512,512
252.507,0,0,512,512
252.554,0,0,512,512
252.601,0,0,512,512
252.66,0,0,512,512
252.707,0,0,512,512
252.754,0,0,512,512
252.8,0,0,512,512
252.859,0,0,512,512
252.906,0,0,512,512
252.953,0,0,512,512
253.011,0,0,512,512
253.058,0,0,512,512
253.105,0,0,512,512
253.152,0,0,512,512
253.21,0,0,512,512
253.257,-1.38778e-17,0,512,512
253.304,-1.38778e-17,0,512,512
253.351,-1.38778e-17,0,512,512
253.41,-1.38778e-17,0,512,512
253.457,-1.38778e-17,0,512,512
253.503,-1.38778e-17,0,512,512
253.55,-1.38778e-17,0,512,512
253.609,-1.38778e-17,0,512,512
253.656,-1.38778e-17,0,512,512
253.703,-1.38778e-17,0,512,512
253.761,-1.38778e-17,0,512,512
253.808,-1.38778e-17,0,512,512
253.855,-1.38778e-17,0,512,512
253.902,-1.38778e-17,0,512,512
253.96,-1.38778e-17,0,512,512
254.007,-1.38778e-17,0,512,512
254.054,-1.38778e-17,0,512,512
254.101,-1.38778e-17,0,512,512
254.16,-1.38778e-17,0,512,512
254.206,-1.38778e-17,0,512,512
254.253,0,0,512,512
254.3,1.38778e-17,0,512,512
254.359,1.38778e-17,0,512,512
254.406,1.38778e-17,0,512,512
254.452,2.77556e-17,0,512,512
254.511,2.77556e-17,0,512,512
254.558,1.38778e-17,0,512,512
254.605,0,0,512,512
254.652,0,0,512,512
254.71,0,0,512,512
254.757,0,0,512,512
254.804,0,0,512,512
254.851,0,0,512,512
254.909,0,0,512,512
254.956,0,0,512,512
255.003,0,0,512,512
255.05,-1.38778e-17,0,512,512
255.109,-1.38778e-17,0,512,512
255.155,-1.38778e-17,0,512,512
255.202,-2.77556e-17,0,512,512
255.261,-2.77556e-17,0,512,512
255.308,-2.77556e-17,0,512,512
255.355,-2.77556e-17,0,512,512
255.402,-2.77556e-17,0,512,512
255.46,-1.38778e-17,0,512,512
255.507,-1.38778e-17,0,512,512
255.554,-1.38778e-17,0,512,512
255.601,-1.38778e-17,0,512,512
255.659,-1.38778e-17,0,512,512
255.706,-1.38778e-17,0,512,512
255.753,-1.38778e-17,0,512,512
255.812,-1.38778e-17,0,512,512
255.859,-1.38778e-17,0,512,512
255.905,-1.38778e-17,0,512,512
255.952,-1.38778e-17,0,512,512
256.011,0,0,512,512
256.058,1.38778e-17,0,512,512
256.105,1.38778e-17,0,512,512
256.151,1.38778e-17,0,512,512
256.21,1.38778e-17,0,512,512
256.257,1.38778e-17,0,512,512
256.304,1.38778e-17,0,512,512
256.351,1.38778e-17,0,512,512
256.409,1.38778e-17,0,512,512
256.456,1.38778e-17,0,512,512
256.503,1.38778e-17,0,512,512
256.562,1.38778e-17,0,512,512
256.608,1.38778e-17,0,512,512
256.655,1.38778e-17,0,512,512
256.702,1.38778e-17,0,512,512
256.761,0,0,512,512
256.808,0,0,512,512
256.854,0,0,512,512
256.901,0,0,512,512
256.96,0,0,512,512
257.007,0,0,512,512
257.054,0,0,512,512
257.101,0,0,512,512
257.159,0,0,512,512
257.206,0,0,512,512
257.253,0,0,512,512
257.311,0,0,512,512
257.358,1.38778e-17,0,512,512
257.405,0,0,512,512
257.452,0,0,512,512
257.511,1.38778e-17,0,512,512
257.557,0,0,512,512
257.604,0,0,512,512
257.651,0,0,512,512
257.71,1.38778e-17,0,512,512
257.757,0,0,512,512
257.804,0,0,512,512
257.85,1.38778e-17,0,512,512
257.909,0,0,512,512
257.956,0,0,512,512
258.003,0,0,512,512
258.061,0,0,512,512
258.108,0,0,512,512
258.155,0,0,512,512
258.202,0,0,512,512
258.261,0,0,512,512
258.307,0,0,512,512
258.354,0,0,512,512
258.401,0,0,512,512
258.46,0,0,512,512
258.507,-1.38778e-17,0,512,512
258.553,-1.38778e-17,0,512,512
258.6,-1.38778e-17,0,512,512
258.659,-1.38778e-17,0,512,512
258.706,-1.38778e-17,0,512,512
258.753,-1.38778e-17,0,512,512
258.811,-1.38778e-17,0,512,512
258.858,-1.38778e-17,0,512,512
258.905,-1.38778e-17,0,512,512
258.952,-1.38778e-17,0,512,512
259.01,-1.38778e-17,0,512,512
259.057,-1.38778e-17,0,512,512
259.104,-1.38778e-17,0,512,512
259.151,-1.38778e-17,0,512,512
259.21,1.38778e-17,0,512,512
259.256,1.38778e-17,0,512,512
259.303,1.38778e-17,0,512,512
259.35,2.77556e-17,0,512,512
259.409,2.77556e-17,0,512,512
259.456,2.77556e-17,0,512,512
259.503,2.77556e-17,0,512,512
259.561,2.77556e-17,0,512,512
259.608,2.77556e-17,0,512,512
259.655,2.77556e-17,0,512,512
259.702,2.77556e-17,0,512,512
259.76,2.77556e-17,0,512,512
259.807,2.77556e-17,0,512,512
259.854,2.77556e-17,0,512,512
259.901,2.77556e-17,0,512,512
259.959,2.77556e-17,0,512,512
260.006,2.77556e-17,0,512,512
260.053,2.77556e-17,0,512,512
260.1,2.77556e-17,0,512,512
260.159,2.77556e-17,0,512,512
260.206,2.77556e-17,0,512,512
260.252,2.77556e-17,0,512,512
260.311,1.38778e-17,0,512,512
260.358,1.38778e-17,0,512,512
260.405,0,0,512,512
260.452,0,0,512,512
260.51,0,0,512,512
260.557,0,0,512,512
260.604,0,0,512,512
260.651,-1.38778e-17,0,512,512
260.709,-1.38778e-17,0,512,512
260.756,-1.38778e-17,0,512,512
260.803,-1.38778e-17,0,512,512
260.862,0,0,512,512
260.909,0,0,512,512
260.955,0,0,512,512
261.002,1.38778e-17,0,512,512
261.061,0,0,512,512
261.108,0,0,512,512
261.155,1.38778e-17,0,512,512
261.201,1.38778e-17,0,512,512
261.26,1.38778e-17,0,512,512
261.307,1.38778e-17,0,512,512
261.354,1.38778e-17,0,512,512
261.401,1.38778e-17,0,512,512
261.459,2.77556e-17,0,512,512
261.506,2.77556e-17,0,512,512
261.553,1.38778e-17,0,512,512
261.612,1.38778e-17,0,512,512
261.658,1.38778e-17,0,512,512
261.705,1.38778e-17,0,512,512
261.752,1.38778e-17,0,512,512
261.811,1.38778e-17,0,512,512
261.858,0,0,512,512
261.905,0,0,512,512
261.951,0,0,512,512
262.01,0,0,512,512
262.057,0,0,512,512
262.104,0,0,512,512
262.151,-1.38778e-17,0,512,512
262.209,0,0,512,512
262.256,-1.38778e-17,0,512,512
262.303,-1.38778e-17,0,512,512
262.361,-1.38778e-17,0,512,512
262.408,-1.38778e-17,0,512,512
262.455,-1.38778e-17,0,512,512
262.502,-1.38778e-17,0,512,512
262.561,-1.38778e-17,0,512,512
262.608,-1.38778e-17,0,512,512
262.654,-1.38778e-17,0,512,512
262.701,-1.38778e-17,0,512,512
262.76,-1.38778e-17,0,512,512
262.807,-1.38778e-17,0,512,512
262.854,-1.38778e-17,0,512,512
262.9,-1.38778e-17,0,512,512
262.959,-1.38778e-17,0,512,512
263.006,-1.38778e-17,0,512,512
263.053,-1.38778e-17,0,512,512
263.111,-1.38778e-17,0,512,512
263.158,-1.38778e-17,0,512,512
263.205,-1.38778e-17,0,512,512
263.252,-1.38778e-17,0,512,512
263.311,-1.38778e-17,0,512,512
263.357,-1.38778e-17,0,512,512
263.404,-2.77556e-17,0,512,512
263.451,-1.38778e-17,0,512,512
263.51,-2.77556e-17,0,512,512
263.557,-1.38778e-17,0,512,512
263.603,-2.77556e-17,0,512,512
263.65,-2.77556e-17,0,512,512
263.709,-2.77556e-17,0,512,512
263.756,-2.77556e-17,0,512,512
263.803,-2.77556e-17,0,512,512
263.861,-1.38778e-17,0,512,512
263.908,-2.77556e-17,0,512,512
263.955,-2.77556e-17,0,512,512
264.002,-1.38778e-17,0,512,512
264.06,-1.38778e-17,0,512,512
264.107,-1.38778e-17,0,512,512
264.154,-2.77556e-17,0,512,512
264.201,-1.38778e-17,0,512,512
264.26,-1.38778e-17,0,512,512
264.306,-1.38778e-17,0,512,512
264.353,-2.77556e-17,0,512,512
264.4,-1.38778e-17,0,512,512
264.459,-1.38778e-17,0,512,512
264.506,-1.38778e-17,0,512,512
264.553,-2.77556e-17,0,512,512
264.611,-1.38778e-17,0,512,512
264.658,0,0,512,512
264.705,0,0,512,512
264.752,0,0,512,512
264.81,0,0,512,512
264.857,0,0,512,512
264.904,0,0,512,512
264.951,0,0,512,512
265.01,0,0,512,512
265.056,0,0,512,512
265.103,-1.38778e-17,0,512,512
265.15,-1.38778e-17,0,512,512
265.209,-1.38778e-17,0,512,512
265.256,-1.38778e-17,0,512,512
265.302,-1.38778e-17,0,512,512
265.361,-1.38778e-17,0,512,512
265.408,-1.38778e-17,0,512,512
265.455,-1.38778e-17,0,512,512
265.502,-1.38778e-17,0,512,512
265.56,-1.38778e-17,0,512,512
265.607,-1.38778e-17,0,512,512
265.654,-1.38778e-17,0,512,512
265.701,-1.38778e-17,0,512,512
265.759,-1.38778e-17,0,512,512
265.806,-1.38778e-17,0,512,512
265.853,-1.38778e-17,0,512,512
265.9,-1.38778e-17,0,512,512
265.959,-1.38778e-17,0,512,512
266.005,-1.38778e-17,0,512,512
266.052,-1.38778e-17,0,512,512
266.111,-1.38778e-17,0,512,512
266.158,-1.38778e-17,0,512,512
266.205,-1.38778e-17,0,512,512
266.252,0,0,512,512
266.31,1.38778e-17,0,512,512
266.357,2.77556e-17,0,512,512
266.404,4.16334e-17,0,512,512
266.451,2.77556e-17,0,512,512
266.509,1.38778e-17,0,512,512
266.556,2.77556e-17,0,512,512
266.603,2.77556e-17,0,512,512
266.662,2.77556e-17,0,512,512
266.708,1.38778e-17,0,512,512
266.755,2.77556e-17,0,512,512
266.802,1.38778e-17,0,512,512
266.861,1.38778e-17,0,512,512
266.908,1.38778e-17,0,512,512
266.955,2.77556e-17,0,512,512
267.001,2.77556e-17,0,512,512
267.06,1.38778e-17,0,512,512
267.107,1.38778e-17,0,512,512
267.154,1.38778e-17,0,512,512
267.201,1.38778e-17,0,512,512
267.259,1.38778e-17,0,512,512
267.306,1.38778e-17,0,512,512
267.353,1.38778e-17,0,512,512
267.412,1.38778e-17,0,512,512
267.458,1.38778e-17,0,512,512
267.505,1.38778e-17,0,512,512
267.552,1.38778e-17,0,512,512
267.611,1.38778e-17,0,512,512
267.658,1.38778e-17,0,512,512
267.704,1.38778e-17,0,512,512
267.751,1.38778e-17,0,512,512
267.81,1.38778e-17,0,512,512
267.857,1.38778e-17,0,512,512
267.904,1.38778e-17,0,512,512
267.95,1.38778e-17,0,512,512
268.009,1.38778e-17,0,512,512
268.056,1.38778e-17,0,512,512
268.103,1.38778e-17,0,512,512
268.161,1.38778e-17,0,512,512
268.208,1.38778e-17,0,512,512
268.255,1.38778e-17,0,512,512
268.302,1.38778e-17,0,512,512
268.361,0,0,512,512
268.407,0,0,512,512
268.454,0,0,512,512
268.501,0,0,512,512
268.56,0,0,512,512
268.607,0,0,512,512
268.654,0,0,512,512
268.7,0,0,512,512
268.759,-1.38778e-17,0,512,512
268.806,0,0,512,512
268.853,0,0,512,512
268.911,0,0,512,512
268.958,0,0,512,512
269.005,0,0,512,512
269.052,0,0,512,512
269.11,0,0,512,512
269.157,0,0,512,512
269.204,0,0,512,512
269.251,1.38778e-17,0,512,512
269.31,1.38778e-17,0,512,512
269.357,0,0,512,512
269.403,0,0,512,512
269.45,1.38778e-17,0,512,512
269.509,1.38778e-17,0,512,512
269.556,1.38778e-17,0,512,512
269.603,1.38778e-17,0,512,512
269.661,1.38778e-17,0,512,512
269.708,1.38778e-17,0,512,512
269.755,2.77556e-17,0,512,512
269.802,2.77556e-17,0,512,512
269.86,1.38778e-17,0,512,512
269.903,1.38778e-17,0,523,523
269.953,1.38778e-17,0,539,539
270.002,1.38778e-17,0,549,549
270.052,1.38778e-17,0,557,557
270.102,1.38778e-17,0,573,573
270.151,1.38778e-17,0,579,579
270.201,1.38778e-17,0,586,586
270.251,1.38778e-17,0,594,594
270.3,1.38778e-17,0,595,595
270.35,1.38778e-17,0,611,611
270.404,1.38778e-17,0,639,639
270.452,1.38778e-17,0,679,679
270.501,1.38778e-17,0,705,705
270.551,1.38778e-17,0,741,741
270.601,1.38778e-17,0,777,777
270.652,1.38778e-17,0,833,833
270.702,1.38778e-17,0,883,883
270.751,1.38778e-17,0,963,963
270.8,1.38778e-17,0,1067,1067
270.85,1.38778e-17,0,1219,1219
270.901,1.38778e-17,0,1377,1377
270.951,1.38778e-17,0,1529,1529
271.001,1.38778e-17,0,1693,1693
271.051,1.38778e-17,0,1845,1845
271.1,1.38778e-17,0,2003,2003
271.15,1.38778e-17,0,2159,2159
271.2,1.38778e-17,0,2323,2323
271.251,1.38778e-17,0,2475,2475
271.301,1.38778e-17,0,2621,2621
271.351,1.38778e-17,0,2793,2793
271.401,1.38778e-17,0,2869,2869
271.45,1.38778e-17,0,2947,2947
271.5,1.38778e-17,0,2961,2961
271.55,1.38778e-17,0,2964,2964
271.601,1.38778e-17,0,2978,2978
271.651,1.38778e-17,0,2967,2967
271.701,1.38778e-17,0,2999,2999
271.751,1.38778e-17,0,3003,3003
271.801,1.38778e-17,0,3029,3029
271.85,1.38778e-17,0,3073,3073
271.9,1.38778e-17,0,3145,3145
271.951,1.38778e-17,0,3245,3245
272.001,1.38778e-17,0,3367,3367
272.051,1.38778e-17,0,3523,3523
272.101,1.38778e-17,0,3687,3687
272.151,1.38778e-17,0,3827,3827
272.2,1.38778e-17,0,4005,4005
272.25,1.38778e-17,0,4139,4139
272.301,1.38778e-17,0,4301,4301
272.351,1.38778e-17,0,4481,4481
272.401,1.38778e-17,0,4615,4615
272.451,1.38778e-17,0,4763,4763
272.501,1.38778e-17,0,4933,4933
272.55,1.38778e-17,0,5089,5089
272.6,1.38778e-17,0,5211,5211
272.65,1.38778e-17,0,5385,5385
272.701,1.38778e-17,0,5509,5509
272.751,1.38778e-17,0,5603,5603
272.801,1.38778e-17,0,5641,5641
272.851,1.38778e-17,0,5715,5715
272.9,1.38778e-17,0,5731,5731
272.95,1.38778e-17,0,5769,5769
273,1.38778e-17,0,5827,5827
273.051,1.38778e-17,0,5853,5853
273.101,1.38778e-17,0,5909,5909
273.151,1.38778e-17,0,5871,5871
273.201,1.38778e-17,0,5901,5901
273.251,1.38778e-17,0,5907,5907
273.3,1.38778e-17,0,5889,5889
273.35,1.38778e-17,0,5921,5921
273.401,1.38778e-17,0,5907,5907
273.451,1.38778e-17,0,5895,5895
273.501,1.38778e-17,0,5892,5892
273.551,1.38778e-17,0,5906,5906
273.601,1.38778e-17,0,5882,5882
273.65,1.38778e-17,0,5832,5832
273.7,1.38778e-17,0,5836,5836
273.751,-4.16334e-17,0,5790,5790
273.801,-4.30211e-16,0,5840,5840
273.851,-9.02056e-16,0,5806,5806
273.901,-1.3739e-15,0,5798,5798
273.951,-1.84575e-15,0,5810,5810
274,-2.31759e-15,0,5744,5744
274.05,-2.78944e-15,0,5778,5778
274.101,-3.27516e-15,0,5772,5772
274.151,-4.14946e-15,0,5770,5770
274.201,-5.7454e-15,0,5774,5774
274.251,-8.75688e-15,0,5770,5770
274.301,-1.45578e-14,0,5766,5766
274.35,-2.54657e-14,0,5780,5780
274.4,-4.54359e-14,0,5776,5776
274.451,-8.08797e-14,0,5828,5828
274.501,-1.41817e-13,0,5902,5902
274.551,-2.43403e-13,0,5946,5946
274.601,-4.01512e-13,0,5926,5926
274.651,-6.55295e-13,0,5954,5954
274.701,-1.02718e-12,0,5912,5912
274.75,-1.56951e-12,0,5934,5934
274.8,-2.33756e-12,0,5894,5894
274.85,-3.39408e-12,0,5920,5920
274.9,-4.80477e-12,0,5906,5906
274.951,-6.63324e-12,0,5886,5886
275.001,-8.93147e-12,0,5860,5860
275.05,-1.16384e-11,0,5842,5842
275.101,-1.49229e-11,0,5844,5844
275.15,-1.85447e-11,0,5810,5810
275.201,-2.26413e-11,0,5778,5778
275.251,-2.68251e-11,0,5764,5764
275.301,-3.10314e-11,0,5736,5736
275.351,-3.50329e-11,0,5712,5712
275.401,-3.85696e-11,0,5718,5718
275.451,-4.13665e-11,0,5698,5698
275.5,-4.31161e-11,0,5686,5686
275.551,-4.36926e-11,0,5666,5666
275.601,-4.28748e-11,0,5664,5664
275.652,-4.04785e-11,0,5670,5670
275.701,-3.65997e-11,0,5606,5606
275.751,-3.121e-11,0,5604,5604
275.801,-2.43987e-11,0,5578,5578
275.851,-1.63273e-11,0,5580,5580
275.902,-7.21138e-12,0,5570,5570
275.95,2.38262e-12,0,5528,5528
276.001,1.28412e-11,0,5526,5526
276.05,2.32585e-11,0,5518,5518
276.101,3.41301e-11,0,5492,5492
276.151,4.46238e-11,0,5458,5458
276.201,5.50586e-11,0,5494,5494
276.251,6.55373e-11,0,5440,5440
276.301,7.63508e-11,0,5460,5460
276.351,8.80643e-11,0,5414,5414
276.401,1.01606e-10,0,5418,5418
276.45,1.17762e-10,0,5378,5378
276.501,1.39679e-10,0,5372,5372
276.55,1.68621e-10,0,5406,5406
276.602,2.10491e-10,0,5350,5350
276.651,2.6749e-10,0,5368,5368
276.701,3.47112e-10,0,5342,5342
276.751,4.5725e-10,0,5338,5338
276.801,6.07714e-10,0,5324,5324
276.852,8.10252e-10,0,5290,5290
276.9,1.06799e-09,0,5294,5294
276.951,1.41445e-09,0,5288,5288
277,1.84162e-09,0,5286,5286
277.052,2.39771e-09,0,5266,5266
277.101,3.06216e-09,0,5254,5254
277.151,3.86921e-09,0,5268,5268
277.201,4.836e-09,0,5278,5278
277.251,5.97803e-09,0,5248,5248
277.301,7.30909e-09,0,5256,5256
277.352,8.8416e-09,0,5226,5226
277.401,1.05185e-08,0,5222,5222
277.452,1.24716e-08,0,5242,5242
277.501,1.45606e-08,0,5198,5198
277.55,1.68419e-08,0,5196,5196
277.6,1.96274e-08,0,5202,5202
277.652,2.36634e-08,0,5168,5168
277.702,2.83517e-08,0,5172,5172
277.75,3.34365e-08,0,5190,5190
277.8,3.96093e-08,0,5138,5138
277.851,4.69292e-08,0,5128,5128
277.901,5.48998e-08,0,5124,5124
277.951,6.35365e-08,0,5120,5120
278,7.24351e-08,0,5092,5092
278.051,8.22679e-08,0,5116,5116
278.101,1.02133e-07,0,5088,5088
278.15,1.23412e-07,0,5060,5060
278.201,1.53332e-07,0,5082,5082
278.25,1.85416e-07,0,5028,5028
278.301,2.21862e-07,0,5037,5037
278.35,2.59233e-07,0,5025,5025
278.401,3.00103e-07,0,5009,5009
278.451,3.40643e-07,0,5039,5039
278.502,3.82974e-07,0,4997,4997
278.551,4.51613e-07,0,4975,4975
278.601,5.30254e-07,0,4991,4991
278.65,6.0185e-07,0,4933,4933
278.702,6.71675e-07,0,4923,4923
278.751,7.35099e-07,0,4947,4947
278.801,7.93912e-07,0,4865,4865
278.851,8.46209e-07,0,4845,4845
278.901,8.90312e-07,0,4809,4809
278.951,9.25093e-07,0,4849,4849
279.001,9.49373e-07,0,4987,4987
279.051,9.61897e-07,0,5003,5003
279.101,9.6787e-07,0,4963,4963
279.152,9.72376e-07,0,4999,4999
279.2,9.75803e-07,0,4855,4855
279.251,9.76708e-07,0,4765,4765
279.301,9.77423e-07,0,4749,4749
279.352,9.77037e-07,0,4641,4641
279.401,9.55975e-07,0,4631,4631
279.451,9.30836e-07,0,4641,4641
279.5,9.0144e-07,0,4559,4559
279.551,8.70035e-07,0,4409,4409
279.6,8.37611e-07,0,4331,4331
279.651,8.025e-07,0,4071,4071
279.7,7.66424e-07,0,3999,3999
279.751,7.04516e-07,0,3889,3889
279.801,6.46821e-07,0,3859,3859
279.85,6.01721e-07,0,3763,3763
279.901,5.62213e-07,0,3655,3655
279.951,5.28212e-07,0,3495,3495
280.001,4.9826e-07,0,3527,3527
280.05,4.73424e-07,0,3231,3231
280.1,4.52002e-07,0,2871,2871
280.152,4.37036e-07,0,2307,2307
280.2,4.37279e-07,0,1719,1719
280.251,4.32503e-07,0,1833,1833
280.3,4.4166e-07,0,2113,2113
280.351,4.54909e-07,0,1999,1999
280.402,4.69904e-07,0,2271,2271
280.45,4.89518e-07,0,2323,2323
280.501,5.16354e-07,0,2355,2355
280.55,5.48454e-07,0,2679,2679
280.601,5.87141e-07,0,3011,3011
280.651,6.3138e-07,0,3043,3043
280.701,6.82076e-07,0,3199,3199
280.75,7.36243e-07,0,3281,3281
280.8,7.85293e-07,0,3339,3339
280.851,8.29172e-07,0,3407,3407
280.9,8.61947e-07,0,3445,3445
280.951,8.8725e-07,0,3495,3495
281,9.06156e-07,0,3533,3533
281.051,9.13975e-07,0,3563,3563
281.1,9.11219e-07,0,3651,3651
281.151,9.04815e-07,0,3735,3735
281.2,8.95195e-07,0,3821,3821
281.251,8.80191e-07,0,3937,3937
281.3,8.63638e-07,0,4015,4015
281.351,8.43587e-07,0,4143,4143
281.401,8.20379e-07,0,4241,4241
281.451,7.91397e-07,0,4367,4367
281.501,7.58376e-07,0,4495,4495
281.552,7.19009e-07,0,4551,4551
281.602,6.71816e-07,0,4445,4445
281.65,6.26727e-07,0,4487,4487
281.701,5.75981e-07,0,4481,4481
281.751,5.20628e-07,0,4477,4477
281.802,4.60445e-07,0,4467,4467
281.85,3.99548e-07,0,4457,4457
281.901,3.37233e-07,0,4468,4468
281.951,2.80307e-07,0,4506,4506
282.001,2.30728e-07,0,4543,4543
282.051,1.87365e-07,0,4573,4573
282.101,1.48532e-07,0,4619,4619
282.151,1.13039e-07,0,4655,4655
282.201,8.05766e-08,0,4683,4683
282.251,5.16891e-08,0,4737,4737
282.3,2.64566e-08,0,4757,4757
282.352,3.8159e-09,0,4779,4779
282.401,-1.41223e-08,0,4809,4809
282.451,-2.83687e-08,0,4841,4841
282.5,-4.12483e-08,0,4833,4833
282.551,-5.34406e-08,0,4843,4843
282.601,-6.09238e-08,0,4873,4873
282.652,-6.839e-08,0,4863,4863
282.701,-7.43369e-08,0,4857,4857
282.75,-7.80076e-08,0,4881,4881
282.801,-7.90049e-08,0,4883,4883
282.852,-7.92296e-08,0,4869,4869
282.901,-7.8943e-08,0,4901,4901
282.951,-7.83801e-08,0,4885,4885
283,-7.7405e-08,0,4921,4921
283.051,-7.59539e-08,0,4915,4915
283.101,-7.41211e-08,0,4899,4899
283.151,-7.19649e-08,0,4953,4953
283.202,-6.96401e-08,0,4907,4907
283.25,-6.62417e-08,0,4919,4919
283.3,-6.24673e-08,0,4929,4929
283.35,-5.8935e-08,0,4916,4916
283.4,-5.5567e-08,0,4916,4916
283.452,-5.18998e-08,0,4908,4908
283.501,-4.84398e-08,0,4926,4926
283.551,-4.51581e-08,0,4946,4946
283.602,-4.18241e-08,0,4942,4942
283.65,-3.87773e-08,0,4950,4950
283.701,-3.58792e-08,0,4990,4990
283.751,-3.31919e-08,0,4972,4972
283.802,-3.07423e-08,0,4980,4980
283.852,-2.85727e-08,0,4982,4982
283.901,-2.66492e-08,0,4962,4962
283.951,-2.49544e-08,0,5002,5002
284,-2.34845e-08,0,5000,5000
284.051,-2.21716e-08,0,4996,4996
284.1,-2.10949e-08,0,5010,5010
284.151,-2.02783e-08,0,5014,5014
284.201,-1.95908e-08,0,5066,5066
284.252,-1.92601e-08,0,5028,5028
284.3,-1.89919e-08,0,5030,5030
284.352,-1.87506e-08,0,5056,5056
284.401,-1.86117e-08,0,5026,5026
284.451,-1.85377e-08,0,5054,5054
284.5,-1.85192e-08,0,5060,5060
284.551,-1.85634e-08,0,5066,5066
284.6,-1.86537e-08,0,5068,5068
284.651,-1.87884e-08,0,5054,5054
284.701,-1.89602e-08,0,5080,5080
284.751,-1.91605e-08,0,5094,5094
284.801,-1.93837e-08,0,5086,5086
284.851,-1.9625e-08,0,5086,5086
284.9,-1.98796e-08,0,5092,5092
284.952,-2.01524e-08,0,5094,5094
285.001,-2.04224e-08,0,5122,5122
285.052,-2.07045e-08,0,5102,5102
285.1,-2.0978e-08,0,5108,5108
285.151,-2.12591e-08,0,5116,5116
285.201,-2.15372e-08,0,5138,5138
285.251,-2.18114e-08,0,5138,5138
285.301,-2.20815e-08,0,5166,5166
285.351,-2.23479e-08,0,5154,5154
285.4,-2.26114e-08,0,5184,5184
285.451,-2.28817e-08,0,5200,5200
285.5,-2.31439e-08,0,5210,5210
285.551,-2.34168e-08,0,5232,5232
285.602,-2.36943e-08,0,5210,5210
285.65,-2.39698e-08,0,5228,5228
285.7,-2.42636e-08,0,5234,5234
285.75,-2.45694e-08,0,5266,5266
285.8,-2.48896e-08,0,5250,5250
285.851,-2.52372e-08,0,5246,5246
285.901,-2.55928e-08,0,5300,5300
285.95,-2.59679e-08,0,5266,5266
286.001,-2.63759e-08,0,5288,5288
286.051,-2.68051e-08,0,5292,5292
286.1,-2.72408e-08,0,5314,5314
286.15,-2.77085e-08,0,5302,5302
286.2,-2.81929e-08,0,5302,5302
286.25,-2.86913e-08,0,5352,5352
286.3,-2.92008e-08,0,5348,5348
286.351,-2.97343e-08,0,5340,5340
286.401,-3.02573e-08,0,5356,5356
286.451,-3.07984e-08,0,5342,5342
286.5,-3.1323e-08,0,5382,5382
286.551,-3.18599e-08,0,5391,5391
286.601,-3.23906e-08,0,5363,5363
286.651,-3.29123e-08,0,5345,5345
286.701,-3.34225e-08,0,5367,5367
286.751,-3.39188e-08,0,5379,5379
286.801,-3.44e-08,0,5345,5345
286.851,-3.48643e-08,0,5375,5375
286.901,-3.53095e-08,0,5363,5363
286.95,-3.57341e-08,0,5357,5357
287,-3.61368e-08,0,5367,5367
287.051,-3.65276e-08,0,5361,5361
287.101,-3.6884e-08,0,5355,5355
287.151,-3.7218e-08,0,5333,5333
287.201,-3.75303e-08,0,5343,5343
287.251,-3.78226e-08,0,5335,5335
287.3,-3.80966e-08,0,5305,5305
287.35,-3.83547e-08,0,5299,5299
287.401,-3.86065e-08,0,5273,5273
287.451,-3.88405e-08,0,5257,5257
287.501,-3.9067e-08,0,5245,5245
287.551,-3.92889e-08,0,5251,5251
287.601,-3.95091e-08,0,5201,5201
287.65,-3.97302e-08,0,5173,5173
287.7,-3.99549e-08,0,5171,5171
287.75,-4.01854e-08,0,5145,5145
287.801,-4.04308e-08,0,5109,5109
287.851,-4.06789e-08,0,5061,5061
287.901,-4.09379e-08,0,5007,5007
287.951,-4.12086e-08,0,4959,4959
288,-4.14916e-08,0,4871,4871
288.05,-4.17869e-08,0,4819,4819
288.1,-4.20942e-08,0,4753,4753
288.151,-4.2422e-08,0,4661,4661
288.201,-4.27503e-08,0,4605,4605
288.251,-4.30865e-08,0,4549,4549
288.301,-4.34286e-08,0,4471,4471
288.351,-4.37741e-08,0,4377,4377
288.4,-4.41206e-08,0,4315,4315
288.45,-4.44653e-08,0,4201,4201
288.501,-4.48154e-08,0,4035,4035
288.551,-4.5148e-08,0,3861,3861
288.601,-4.54707e-08,0,3747,3747
288.651,-4.57808e-08,0,3704,3704
288.701,-4.6076e-08,0,3664,3664
288.75,-4.6354e-08,0,3700,3700
288.8,-4.66127e-08,0,3675,3675
288.851,-4.68571e-08,0,3701,3701
288.901,-4.70714e-08,0,3653,3653
288.951,-4.72616e-08,0,3637,3637
289.001,-4.74266e-08,0,3585,3585
289.051,-4.75656e-08,0,3529,3529
289.1,-4.76781e-08,0,3445,3445
289.15,-4.7764e-08,0,3387,3387
289.201,-4.78248e-08,0,3285,3285
289.251,-4.78574e-08,0,3211,3211
289.301,-4.78646e-08,0,3131,3131
289.351,-4.78475e-08,0,3075,3075
289.401,-4.78074e-08,0,2991,2991
289.45,-4.77454e-08,0,2821,2821
289.5,-4.76633e-08,0,2661,2661
289.55,-4.75625e-08,0,2487,2487
289.601,-4.7441e-08,0,2307,2307
289.651,-4.73076e-08,0,2127,2127
289.701,-4.71606e-08,0,1981,1981
289.751,-4.70016e-08,0,1799,1799
289.8,-4.68323e-08,0,1653,1653
289.85,-4.66542e-08,0,1469,1469
289.9,-4.64688e-08,0,1313,1313
289.951,-4.62716e-08,0,1143,1143
290.001,-4.60745e-08,0,999,999
290.051,-4.5875e-08,0,895,895
290.101,-4.56731e-08,0,787,787
290.15,-4.54697e-08,0,675,675
290.202,-4.52568e-08,0,615,615
290.252,-4.50524e-08,0,573,573
290.302,-4.48478e-08,0,527,527
290.354,-4.46372e-08,0,515,515
290.407,-4.44224e-08,0,512,512
290.454,-4.42344e-08,0,512,512
290.501,-4.4048e-08,0,512,512
290.559,-4.38172e-08,0,512,512
290.606,-4.36344e-08,0,512,512
290.653,-4.34531e-08,0,512,512
290.712,-4.32285e-08,0,512,512
290.759,-4.30503e-08,0,512,512
290.805,-4.28731e-08,0,512,512
290.852,-4.26968e-08,0,512,512
290.911,-4.24773e-08,0,512,512
290.958,-4.23021e-08,0,512,512
291.005,-4.21269e-08,0,512,512
291.051,-4.19514e-08,0,512,512
291.11,-4.17313e-08,0,512,512
291.157,-4.1554e-08,0,512,512
291.204,-4.13755e-08,0,512,512
291.251,-4.11952e-08,0,512,512
291.309,-4.09669e-08,0,512,512
291.356,-4.07813e-08,0,512,512
291.403,-4.05927e-08,0,512,512
291.462,-4.03521e-08,0,512,512
291.508,-4.01551e-08,0,512,512
291.555,-3.99536e-08,0,512,512
291.602,-3.97469e-08,0,512,512
291.661,-3.94806e-08,0,512,512
291.708,-3.92602e-08,0,512,512
291.754,-3.90325e-08,0,512,512
291.801,-3.87968e-08,0,512,512
291.86,-3.84894e-08,0,512,512
291.907,-3.8232e-08,0,512,512
291.954,-3.79632e-08,0,512,512
292.001,-3.76818e-08,0,512,512
292.059,-3.73104e-08,0,512,512
292.106,-3.6996e-08,0,512,512
292.153,-3.66646e-08,0,512,512
292.211,-3.62244e-08,0,512,512
292.258,-3.58497e-08,0,512,512
292.305,-3.54535e-08,0,512,512
292.352,-3.50346e-08,0,512,512
292.411,-3.44772e-08,0,512,512
292.458,-3.4003e-08,0,512,512
292.504,-3.3503e-08,0,512,512
292.551,-3.29765e-08,0,512,512
292.61,-3.22812e-08,0,512,512
292.657,-3.16953e-08,0,512,512
292.704,-3.10837e-08,0,512,512
292.75,-3.04474e-08,0,512,512
292.809,-2.96194e-08,0,512,512
292.856,-2.8933e-08,0,512,512
292.903,-2.82274e-08,0,512,512
292.961,-2.73222e-08,0,512,512
293.008,-2.65825e-08,0,512,512
293.055,-2.5832e-08,0,512,512
293.102,-2.50735e-08,0,512,512
293.161,-2.41187e-08,0,512,512
293.207,-2.33531e-08,0,512,512
293.254,-2.25891e-08,0,512,512
293.301,-2.18296e-08,0,512,512
293.36,-2.08906e-08,0,512,512
293.407,-2.0151e-08,0,512,512
293.453,-1.94242e-08,0,512,512
293.5,-1.87126e-08,0,512,512
293.559,-1.78472e-08,0,512,512
293.606,-1.71761e-08,0,512,512
293.653,-1.65254e-08,0,512,512
293.711,-1.57416e-08,0,512,512
293.758,-1.5139e-08,0,512,512
293.805,-1.45579e-08,0,512,512
293.852,-1.3998e-08,0,512,512
293.91,-1.33265e-08,0,512,512
293.957,-1.28104e-08,0,512,512
294.004,-1.23114e-08,0,512,512
294.051,-1.18274e-08,0,512,512
294.11,-1.12402e-08,0,512,512
294.156,-1.07817e-08,0,512,512
294.203,-1.03305e-08,0,512,512
294.25,-9.884e-09,0,512,512
294.309,-9.32852e-09,0,512,512
294.356,-8.88329e-09,0,512,512
294.403,-8.43484e-09,0,512,512
294.461,-7.86669e-09,0,512,512
294.508,-7.40402e-09,0,512,512
294.555,-6.93263e-09,0,512,512
294.602,-6.45154e-09,0,512,512
294.66,-5.83565e-09,0,512,512
294.707,-5.3311e-09,0,512,512
294.754,-4.81624e-09,0,512,512
294.801,-4.29169e-09,0,512,512
294.859,-3.62377e-09,0,512,512
294.906,-3.08121e-09,0,512,512
294.953,-2.533e-09,0,512,512
295,-1.98092e-09,0,512,512
295.059,-1.28842e-09,0,512,512
295.106,-7.35117e-10,0,512,512
295.152,-1.84913e-10,0,512,512
295.211,4.94842e-10,0,512,512
295.258,1.02925e-09,0,512,512
295.305,1.55259e-09,0,512,512
295.352,2.06236e-09,0,512,512
295.41,2.67667e-09,0,512,512
295.457,3.14683e-09,0,512,512
295.504,3.59549e-09,0,512,512
295.551,4.02042e-09,0,512,512
295.609,4.51505e-09,0,512,512
295.656,4.87928e-09,0,512,512
295.703,5.21383e-09,0,512,512
295.762,5.58842e-09,0,512,512
295.809,5.85219e-09,0,512,512
295.855,6.08359e-09,0,512,512
295.902,6.28266e-09,0,512,512
295.961,6.48677e-09,0,512,512
296.008,6.61539e-09,0,512,512
296.055,6.71465e-09,0,512,512
296.102,6.78622e-09,0,512,512
296.16,6.83977e-09,0,512,512
296.207,6.85655e-09,0,512,512
296.254,6.85269e-09,0,512,512
296.301,6.83062e-09,0,512,512
296.359,6.78111e-09,0,512,512
296.406,6.7269e-09,0,512,512
296.453,6.66224e-09,0,512,512
296.512,6.5701e-09,0,512,512
296.558,6.48991e-09,0,512,512
296.605,6.4061e-09,0,512,512
296.652,6.32049e-09,0,512,512
296.711,6.21343e-09,0,512,512
296.758,6.12953e-09,0,512,512
296.805,6.04852e-09,0,512,512
296.851,5.97143e-09,0,512,512
296.91,5.88178e-09,0,512,512
296.957,5.81612e-09,0,512,512
297.004,5.75621e-09,0,512,512
297.051,5.7022e-09,0,512,512
297.109,5.64291e-09,0,512,512
297.156,5.60182e-09,0,512,512
297.203,5.56603e-09,0,512,512
297.261,5.52814e-09,0,512,512
297.308,5.50271e-09,0,512,512
297.355,5.48109e-09,0,512,512
297.402,5.46274e-09,0,512,512
297.461,5.44358e-09,0,512,512
297.508,5.43061e-09,0,512,512
297.554,5.41915e-09,0,512,512
297.601,5.4087e-09,0,512,512
297.66,5.39627e-09,0,512,512
297.707,5.38626e-09,0,512,512
297.754,5.37572e-09,0,512,512
297.8,5.36426e-09,0,512,512
297.859,5.34813e-09,0,512,512
297.906,5.33346e-09,0,512,512
297.953,5.31701e-09,0,512,512
298.011,5.2938e-09,0,512,512
298.058,5.27309e-09,0,512,512
298.105,5.25055e-09,0,512,512
298.152,5.22633e-09,0,512,512
298.211,5.19404e-09,0,512,512
298.257,5.16693e-09,0,512,512
298.304,5.13905e-09,0,512,512
298.351,5.11076e-09,0,512,512
298.41,5.0754e-09,0,512,512
298.457,5.04758e-09,0,512,512
298.503,5.02059e-09,0,512,512
298.55,4.99478e-09,0,512,512
298.609,4.96467e-09,0,512,512
298.656,4.94264e-09,0,512,512
298.703,4.9227e-09,0,512,512
298.761,4.90097e-09,0,512,512
298.808,4.8863e-09,0,512,512
298.855,4.87408e-09,0,512,512
298.902,4.86433e-09,0,512,512
298.96,4.85549e-09,0,512,512
299.007,4.85096e-09,0,512,512
299.054,4.84849e-09,0,512,512
299.101,4.84789e-09,0,512,512
299.16,4.84937e-09,0,512,512
299.207,4.85201e-09,0,512,512
299.253,4.85566e-09,0,512,512
299.3,4.86003e-09,0,512,512
299.359,4.8661e-09,0,512,512
299.406,4.87113e-09,0,512,512
299.453,4.87606e-09,0,512,512
299.511,4.88179e-09,0,512,512
299.558,4.88581e-09,0,512,512
299.605,4.88917e-09,0,512,512
299.652,4.89175e-09,0,512,512
299.71,4.89376e-09,0,512,512
299.757,4.89428e-09,0,512,512
299.804,4.89378e-09,0,512,512
299.851,4.89222e-09,0,512,512
299.91,4.88871e-09,0,512,512
299.956,4.88462e-09,0,512,512
300.003,4.87935e-09,0,512,512
300.05,4.87288e-09,0,512,512
300.109,4.86305e-09,0,512,512
300.156,4.85376e-09,0,512,512
300.202,4.84318e-09,0,512,512
300.261,4.82809e-09,0,512,512
300.308,4.81449e-09,0,512,512
300.355,4.79951e-09,0,512,512
300.402,4.78312e-09,0,512,512
300.46,4.76062e-09,0,512,512
300.507,4.74099e-09,0,512,512
300.554,4.7199e-09,0,512,512
300.601,4.69733e-09,0,512,512
300.659,4.66707e-09,0,512,512
300.706,4.64121e-09,0,512,512
300.753,4.61391e-09,0,512,512
300.8,4.58519e-09,0,512,512
300.859,4.54736e-09,0,512,512
300.905,4.5156e-09,0,512,512
300.952,4.48257e-09,0,512,512
301.011,4.43962e-09,0,512,512
301.058,4.40401e-09,0,512,512
301.105,4.36739e-09,0,512,512
301.152,4.32985e-09,0,512,512
301.21,4.28177e-09,0,512,512
301.257,4.24251e-09,0,512,512
301.304,4.20263e-09,0,512,512
301.351,4.16225e-09,0,512,512
301.409,4.11118e-09,0,512,512
301.456,4.06995e-09,0,512,512
301.503,4.02847e-09,0,512,512
301.562,3.97637e-09,0,512,512
301.609,3.93454e-09,0,512,512
301.655,3.89264e-09,0,512,512
301.702,3.85069e-09,0,512,512
301.761,3.79822e-09,0,512,512
301.808,3.75624e-09,0,512,512
301.855,3.71425e-09,0,512,512
301.901,3.67225e-09,0,512,512
301.96,3.61974e-09,0,512,512
302.007,3.57769e-09,0,512,512
302.054,3.5356e-09,0,512,512
302.101,3.49345e-09,0,512,512
302.159,3.44065e-09,0,512,512
302.206,3.39828e-09,0,512,512
302.253,3.3558e-09,0,512,512
302.312,3.3025e-09,0,512,512
302.358,3.25968e-09,0,512,512
302.405,3.21669e-09,0,512,512
302.452,3.17352e-09,0,512,512
302.511,3.11929e-09,0,512,512
302.558,3.07569e-09,0,512,512
302.604,3.0319e-09,0,512,512
302.651,2.98791e-09,0,512,512
302.71,2.93267e-09,0,512,512
302.757,2.88828e-09,0,512,512
302.804,2.84372e-09,0,512,512
302.851,2.79901e-09,0,512,512
302.909,2.74294e-09,0,512,512
302.956,2.69795e-09,0,512,512
303.003,2.65288e-09,0,512,512
303.061,2.59643e-09,0,512,512
303.108,2.55124e-09,0,512,512
303.155,2.50603e-09,0,512,512
303.202,2.46083e-09,0,512,512
303.261,2.40439e-09,0,512,512
303.307,2.35932e-09,0,512,512
303.354,2.31436e-09,0,512,512
303.401,2.26952e-09,0,512,512
303.46,2.21368e-09,0,512,512
303.507,2.16922e-09,0,512,512
303.554,2.12496e-09,0,512,512
303.6,2.08093e-09,0,512,512
303.659,2.02624e-09,0,512,512
303.706,1.98279e-09,0,512,512
303.753,1.93962e-09,0,512,512
303.811,1.88607e-09,0,512,512
303.858,1.84358e-09,0,512,512
303.905,1.8014e-09,0,512,512
303.952,1.75955e-09,0,512,512
304.01,1.7077e-09,0,512,512
304.057,1.66658e-09,0,512,512
304.104,1.6258e-09,0,512,512
304.151,1.58534e-09,0,512,512
304.21,1.53522e-09,0,512,512
304.257,1.49548e-09,0,512,512
304.303,1.45605e-09,0,512,512
304.35,1.41693e-09,0,512,512
304.409,1.36845e-09,0,512,512
304.456,1.32999e-09,0,512,512
304.503,1.29182e-09,0,512,512
304.561,1.24449e-09,0,512,512
304.608,1.20693e-09,0,512,512
304.655,1.16964e-09,0,512,512
304.702,1.1326e-09,0,512,512
304.76,1.08667e-09,0,512,512
304.807,1.0502e-09,0,512,512
304.854,1.01398e-09,0,512,512
304.901,9.78015e-10,0,512,512
304.96,9.33405e-10,0,512,512
