250,0,0,2048,2048
250.006,0,0,2048,2048
250.053,0,0,2048,2048
250.105,0,0,2048,2048
250.152,0,0,2048,2048
250.205,0,0,2048,2048
250.252,0,0,2048,2048
250.305,0,0,2048,2048
250.352,0,0,2048,2048
250.404,0,0,2048,2048
250.451,0,0,2048,2048
250.504,0,0,2048,2048
250.551,0,0,2048,2048
250.603,0,0,2048,2048
250.65,0,0,2048,2048
250.703,0,0,2048,2048
250.756,0,0,2048,2048
250.803,0,0,2048,2048
250.855,0,0,2048,2048
250.902,0,0,2048,2048
250.955,0,0,2048,2048
251.002,0,0,2048,2048
251.055,0,0,2048,2048
251.101,0,0,2048,2048
251.154,0,0,2048,2048
251.201,0,0,2048,2048
251.254,0,0,2048,2048
251.301,0,0,2048,2048
251.353,0,0,2048,2048
251.4,0,0,2048,2048
251.453,0,0,2048,2048
251.506,0,0,2048,2048
251.553,0,0,2048,2048
251.605,0,0,2048,2048
251.652,0,0,2048,2048
251.705,0,0,2048,2048
251.752,0,0,2048,2048
251.804,0,0,2048,2048
251.851,0,0,2048,2048
251.904,0,0,2048,2048
251.951,0,0,2048,2048
252.004,0,0,2048,2048
252.05,0,0,2048,2048
252.103,0,0,2048,2048
252.15,0,0,2048,2048
252.203,0,0,2048,2048
252.256,0,0,2048,2048
252.302,0,0,2048,2048
252.355,0,0,2048,2048
252.402,0,0,2048,2048
252.455,0,0,2048,2048
252.502,0,0,2048,2048
252.554,0,0,2048,2048
252.601,0,0,2048,2048
252.654,0,0,2048,2048
252.701,0,0,2048,2048
252.754,0,0,2048,2048
252.8,0,0,2048,2048
252.853,0,0,2048,2048
252.906,0,0,2048,2048
252.953,0,0,2048,2048
253.005,0,0,2048,2048
253.052,0,0,2048,2048
253.105,0,0,2048,2048
253.152,0,0,2048,2048
253.205,0,0,2048,2048
253.251,0,0,2048,2048
253.304,0,0,2048,2048
253.351,0,0,2048,2048
253.404,0,0,2048,2048
253.451,0,0,2048,2048
253.503,0,0,2048,2048
253.55,0,0,2048,2048
253.603,0,0,2048,2048
253.656,0,0,2048,2048
253.703,0,0,2048,2048
253.755,0,0,2048,2048
253.802,0,0,2048,2048
253.855,0,0,2048,2048
253.902,0,0,2048,2048
253.954,0,0,2048,2048
254.001,0,0,2048,2048
254.054,0,0,2048,2048
254.101,0,0,2048,2048
254.154,0,0,2048,2048
254.201,0,0,2048,2048
254.253,0,0,2048,2048
254.3,0,0,2048,2048
254.353,0,0,2048,2048
254.406,0,0,2048,2048
254.452,0,0,2048,2048
254.505,0,0,2048,2048
254.552,0,0,2048,2048
254.605,0,0,2048,2048
254.652,0,0,2048,2048
254.704,0,0,2048,2048
254.751,0,0,2048,2048
254.804,0,0,2048,2048
254.851,0,0,2048,2048
254.904,0,0,2048,2048
254.95,0,0,2048,2048
255.003,0,0,2048,2048
255.05,0,0,2048,2048
255.103,0,0,2048,2048
255.155,0,0,2048,2048
255.202,0,0,2048,2048
255.255,0,0,2048,2048
255.302,0,0,2048,2048
255.355,0,0,2048,2048
255.402,0,0,2048,2048
255.454,0,0,2048,2048
255.501,0,0,2048,2048
255.554,0,0,2048,2048
255.601,0,0,2048,2048
255.653,0,0,2048,2048
255.7,0,0,2048,2048
255.753,0,0,2048,2048
255.806,0,0,2048,2048
255.853,0,0,2048,2048
255.905,0,0,2048,2048
255.952,0,0,2048,2048
256.005,0,0,2048,2048
256.052,0,0,2048,2048
256.105,0,0,2048,2048
256.151,0,0,2048,2048
256.204,0,0,2048,2048
256.251,0,0,2048,2048
256.304,0,0,2048,2048
256.351,0,0,2048,2048
256.403,0,0,2048,2048
256.45,0,0,2048,2048
256.503,0,0,2048,2048
256.556,0,0,2048,2048
256.603,0,0,2048,2048
256.655,0,0,2048,2048
256.702,0,0,2048,2048
256.755,0,0,2048,2048
256.802,0,0,2048,2048
256.854,0,0,2048,2048
256.901,0,0,2048,2048
256.954,0,0,2048,2048
257.001,0,0,2048,2048
257.054,0,0,2048,2048
257.101,0,0,2048,2048
257.153,0,0,2048,2048
257.2,0,0,2048,2048
257.253,0,0,2048,2048
257.306,0,0,2048,2048
257.352,0,0,2048,2048
257.405,0,0,2048,2048
257.452,0,0,2048,2048
257.505,0,0,2048,2048
257.552,0,0,2048,2048
257.604,0,0,2048,2048
257.651,0,0,2048,2048
257.704,0,0,2048,2048
257.751,0,0,2048,2048
257.804,0,0,2048,2048
257.85,0,0,2048,2048
257.903,0,0,2048,2048
257.95,0,0,2048,2048
258.003,0,0,2048,2048
258.055,0,0,2048,2048
258.102,0,0,2048,2048
258.155,0,0,2048,2048
258.202,0,0,2048,2048
258.255,0,0,2048,2048
258.302,0,0,2048,2048
258.354,0,0,2048,2048
258.401,0,0,2048,2048
258.454,0,0,2048,2048
258.501,0,0,2048,2048
258.553,0,0,2048,2048
258.6,0,0,2048,2048
258.653,0,0,2048,2048
258.706,0,0,2048,2048
258.753,0,0,2048,2048
258.805,0,0,2048,2048
258.852,0,0,2048,2048
258.905,0,0,2048,2048
258.952,0,0,2048,2048
259.005,0,0,2048,2048
259.051,0,0,2048,2048
259.104,0,0,2048,2048
259.151,0,0,2048,2048
259.204,0,0,2048,2048
259.251,0,0,2048,2048
259.303,0,0,2048,2048
259.35,0,0,2048,2048
259.403,0,0,2048,2048
259.456,0,0,2048,2048
259.503,0,0,2048,2048
259.555,0,0,2048,2048
259.602,0,0,2048,2048
259.655,0,0,2048,2048
259.702,0,0,2048,2048
259.754,0,0,2048,2048
259.801,0,0,2048,2048
259.854,0,0,2048,2048
259.901,0,0,2048,2048
259.954,0,0,2048,2048
260,0,0,2048,2048
260.053,0,0,2048,2048
260.1,0,0,2048,2048
260.153,0,0,2048,2048
260.206,0,0,2048,2048
260.252,0,0,2048,2048
260.305,-2.77556e-17,0,2048,2048
260.352,-5.55112e-17,0,2048,2048
260.405,-5.55112e-17,0,2048,2048
260.452,-5.55112e-17,0,2048,2048
260.504,-5.55112e-17,0,2048,2048
260.551,-5.55112e-17,0,2048,2048
260.604,-5.55112e-17,0,2048,2048
260.651,-5.55112e-17,0,2048,2048
260.704,-5.55112e-17,0,2048,2048
260.75,-5.55112e-17,0,2048,2048
260.803,-2.77556e-17,0,2048,2048
260.856,-2.77556e-17,0,2048,2048
260.903,-2.77556e-17,0,2048,2048
260.955,-2.77556e-17,0,2048,2048
261.002,-2.77556e-17,0,2048,2048
261.055,-2.77556e-17,0,2048,2048
261.102,-2.77556e-17,0,2048,2048
261.155,-2.77556e-17,0,2048,2048
261.201,-2.77556e-17,0,2048,2048
261.254,-2.77556e-17,0,2048,2048
261.301,-2.77556e-17,0,2048,2048
261.354,-2.77556e-17,0,2048,2048
261.401,0,0,2048,2048
261.453,0,0,2048,2048
261.5,0,0,2048,2048
261.553,0,0,2048,2048
261.606,0,0,2048,2048
261.653,0,0,2048,2048
261.705,0,0,2048,2048
261.752,0,0,2048,2048
261.805,0,0,2048,2048
261.852,0,0,2048,2048
261.905,0,0,2048,2048
261.951,0,0,2048,2048
262.004,0,0,2048,2048
262.051,0,0,2048,2048
262.104,0,0,2048,2048
262.151,0,0,2048,2048
262.203,0,0,2048,2048
262.25,0,0,2048,2048
262.303,0,0,2048,2048
262.356,0,0,2048,2048
262.402,0,0,2048,2048
262.455,0,0,2048,2048
262.502,0,0,2048,2048
262.555,0,0,2048,2048
262.602,0,0,2048,2048
262.654,0,0,2048,2048
262.701,0,0,2048,2048
262.754,0,0,2048,2048
262.801,0,0,2048,2048
262.854,0,0,2048,2048
262.9,0,0,2048,2048
262.953,0,0,2048,2048
263,0,0,2048,2048
263.053,0,0,2048,2048
263.105,0,0,2048,2048
263.152,0,0,2048,2048
263.205,0,0,2048,2048
263.252,0,0,2048,2048
263.305,0,0,2048,2048
263.352,0,0,2048,2048
263.404,0,0,2048,2048
263.451,0,0,2048,2048
263.504,0,0,2048,2048
263.551,0,0,2048,2048
263.603,0,0,2048,2048
263.65,0,0,2048,2048
263.703,0,0,2048,2048
263.756,0,0,2048,2048
263.803,0,0,2048,2048
263.855,0,0,2048,2048
263.902,0,0,2048,2048
263.955,0,0,2048,2048
264.002,0,0,2048,2048
264.055,0,0,2048,2048
264.101,0,0,2048,2048
264.154,0,0,2048,2048
264.201,0,0,2048,2048
264.254,0,0,2048,2048
264.301,0,0,2048,2048
264.353,0,0,2048,2048
264.4,0,0,2048,2048
264.453,0,0,2048,2048
264.506,0,0,2048,2048
264.553,0,0,2048,2048
264.605,0,0,2048,2048
264.652,0,0,2048,2048
264.705,0,0,2048,2048
264.752,0,0,2048,2048
264.804,0,0,2048,2048
264.851,0,0,2048,2048
264.904,0,0,2048,2048
264.951,0,0,2048,2048
265.004,-2.77556e-17,0,2048,2048
265.051,-5.55112e-17,0,2048,2048
265.103,-5.55112e-17,0,2048,2048
265.15,-5.55112e-17,0,2048,2048
265.203,-5.55112e-17,0,2048,2048
265.256,-5.55112e-17,0,2048,2048
265.302,-5.55112e-17,0,2048,2048
265.355,-5.55112e-17,0,2048,2048
265.402,-5.55112e-17,0,2048,2048
265.455,-5.55112e-17,0,2048,2048
265.502,-5.55112e-17,0,2048,2048
265.554,-2.77556e-17,0,2048,2048
265.601,-2.77556e-17,0,2048,2048
265.654,-2.77556e-17,0,2048,2048
265.701,-2.77556e-17,0,2048,2048
265.754,-2.77556e-17,0,2048,2048
265.8,-2.77556e-17,0,2048,2048
265.853,-2.77556e-17,0,2048,2048
265.9,-2.77556e-17,0,2048,2048
265.953,-2.77556e-17,0,2048,2048
266.005,-2.77556e-17,0,2048,2048
266.052,-2.77556e-17,0,2048,2048
266.105,-5.55112e-17,0,2048,2048
266.152,-5.55112e-17,0,2048,2048
266.205,-5.55112e-17,0,2048,2048
266.252,-5.55112e-17,0,2048,2048
266.304,-5.55112e-17,0,2048,2048
266.351,-5.55112e-17,0,2048,2048
266.404,-5.55112e-17,0,2048,2048
266.451,-5.55112e-17,0,2048,2048
266.503,-5.55112e-17,0,2048,2048
266.55,-5.55112e-17,0,2048,2048
266.603,-5.55112e-17,0,2048,2048
266.656,-5.55112e-17,0,2048,2048
266.703,-5.55112e-17,0,2048,2048
266.755,-5.55112e-17,0,2048,2048
266.802,-5.55112e-17,0,2048,2048
266.855,-2.77556e-17,0,2048,2048
266.902,-2.77556e-17,0,2048,2048
266.955,-2.77556e-17,0,2048,2048
267.001,-2.77556e-17,0,2048,2048
267.054,-2.77556e-17,0,2048,2048
267.101,-2.77556e-17,0,2048,2048
267.154,-2.77556e-17,0,2048,2048
267.201,-2.77556e-17,0,2048,2048
267.253,-2.77556e-17,0,2048,2048
267.3,-2.77556e-17,0,2048,2048
267.353,-2.77556e-17,0,2048,2048
267.406,-2.77556e-17,0,2048,2048
267.453,-2.77556e-17,0,2048,2048
267.505,-2.77556e-17,0,2048,2048
267.552,-2.77556e-17,0,2048,2048
267.605,-2.77556e-17,0,2048,2048
267.652,-2.77556e-17,0,2048,2048
267.704,-2.77556e-17,0,2048,2048
267.751,-2.77556e-17,0,2048,2048
267.804,-2.77556e-17,0,2048,2048
267.851,-2.77556e-17,0,2048,2048
267.904,-2.77556e-17,0,2048,2048
267.95,-2.77556e-17,0,2048,2048
268.003,-2.77556e-17,0,2048,2048
268.05,-2.77556e-17,0,2048,2048
268.101,-2.77556e-17,0,2314,2314
268.151,-2.77556e-17,0,2386,2386
268.2,-2.77556e-17,0,2402,2402
268.251,-2.77556e-17,0,2426,2426
268.301,-2.77556e-17,0,2562,2562
268.351,-2.77556e-17,0,2600,2600
268.401,-2.77556e-17,0,2626,2626
268.451,-2.77556e-17,0,2670,2670
268.5,-2.77556e-17,0,2714,2714
268.55,-2.77556e-17,0,2742,2742
268.6,-2.77556e-17,0,2770,2770
268.651,-2.77556e-17,0,2730,2730
268.701,-2.77556e-17,0,2674,2674
268.75,-2.77556e-17,0,2710,2710
268.802,-2.77556e-17,0,2750,2750
268.852,-2.77556e-17,0,2762,2762
268.901,-2.77556e-17,0,2846,2846
268.951,-2.77556e-17,0,2914,2914
269.001,-2.77556e-17,0,2892,2892
269.051,-2.77556e-17,0,2914,2914
269.1,-2.77556e-17,0,2938,2938
269.15,-2.77556e-17,0,2932,2932
269.202,-2.77556e-17,0,2944,2944
269.252,-2.77556e-17,0,2922,2922
269.301,-2.77556e-17,0,2974,2974
269.351,-2.77556e-17,0,2994,2994
269.401,-2.77556e-17,0,2982,2982
269.45,-2.77556e-17,0,3086,3086
269.501,-2.77556e-17,0,3190,3190
269.551,-2.77556e-17,0,3154,3154
269.6,-2.77556e-17,0,3234,3234
269.651,-2.77556e-17,0,3422,3422
269.701,-2.77556e-17,0,3522,3522
269.75,-2.77556e-17,0,4086,4086
269.8,-2.77556e-17,0,4722,4722
269.851,-2.77556e-17,0,5018,5018
269.9,-2.77556e-17,0,5750,5750
269.95,-2.77556e-17,0,6498,6498
270,-2.77556e-17,0,7326,7326
270.051,-2.77556e-17,0,8034,8034
270.1,-2.77556e-17,0,8786,8786
270.15,-2.77556e-17,0,9558,9558
270.201,-2.77556e-17,0,10082,10082
270.25,-2.77556e-17,0,10390,10390
270.3,-2.77556e-17,0,11102,11102
270.35,-2.77556e-17,0,12066,12066
270.401,-2.77556e-17,0,12866,12866
270.45,-2.77556e-17,0,13670,13670
270.5,-2.77556e-17,0,14534,14534
270.551,-2.77556e-17,0,15366,15366
270.6,-2.77556e-17,0,16210,16210
270.65,-2.77556e-17,0,17046,17046
270.7,-2.77556e-17,0,17998,17998
270.751,-2.77556e-17,0,19006,19006
270.8,-2.77556e-17,0,20202,20202
270.85,-2.77556e-17,0,21178,21178
270.9,-2.77556e-17,0,22066,22066
270.951,-2.77556e-17,0,22950,22950
271,-2.77556e-17,0,23830,23830
271.05,-2.77556e-17,0,24650,24650
271.101,-2.77556e-17,0,25486,25486
271.15,-2.77556e-17,0,26278,26278
271.2,-2.77556e-17,0,27058,27058
271.25,-2.77556e-17,0,27898,27898
271.301,-2.77556e-17,0,28802,28802
271.35,-2.77556e-17,0,29662,29662
271.4,-2.77556e-17,0,30534,30534
271.451,-2.77556e-17,0,31410,31410
271.501,-2.77556e-17,0,32302,32302
271.55,-2.77556e-17,0,32734,32734
271.6,-2.77556e-17,0,33122,33122
271.651,-2.77556e-17,0,33922,33922
271.7,-2.77556e-17,0,34830,34830
271.75,-2.77556e-17,0,35598,35598
271.8,-2.77556e-17,0,36378,36378
271.851,-2.77556e-17,0,37310,37310
271.9,-2.77556e-17,0,38134,38134
271.95,-2.77556e-17,0,38954,38954
272.001,-2.77556e-17,0,39790,39790
272.05,-2.77556e-17,0,40638,40638
272.1,-2.77556e-17,0,41406,41406
272.15,-2.77556e-17,0,42326,42326
272.201,-2.77556e-17,0,43082,43082
272.25,-2.77556e-17,0,43938,43938
272.3,-2.77556e-17,0,44750,44750
272.351,-2.77556e-17,0,45554,45554
272.401,-2.77556e-17,0,46402,46402
272.45,-2.77556e-17,0,47166,47166
272.5,-2.77556e-17,0,47978,47978
272.551,-2.77556e-17,0,48846,48846
272.6,-2.77556e-17,0,49662,49662
272.65,-2.77556e-17,0,50446,50446
272.7,-2.77556e-17,0,51182,51182
272.751,-2.77556e-17,0,51986,51986
272.8,-2.77556e-17,0,52758,52758
272.85,-2.77556e-17,0,53562,53562
272.901,-2.77556e-17,0,54382,54382
272.95,-2.77556e-17,0,55150,55150
273,-1.38778e-16,0,56002,56002
273.05,-1.77636e-15,0,56798,56798
273.101,-3.66374e-15,0,57674,57674
273.15,-5.46785e-15,0,58334,58334
273.2,-7.32747e-15,0,59138,59138
273.251,-9.21485e-15,0,59954,59954
273.301,-1.09357e-14,0,60822,60822
273.35,-1.27953e-14,0,61490,61490
273.4,-1.62648e-14,0,62302,62302
273.451,-2.76446e-14,0,63234,63234
273.5,-5.87863e-14,0,63602,63602
273.55,-1.34948e-13,0,63554,63554
273.6,-3.05589e-13,0,63730,63730
273.651,-6.67993e-13,0,64078,64078
273.7,-1.36582e-12,0,63808,63808
273.75,-2.63853e-12,0,63460,63460
273.801,-4.8575e-12,0,63470,63470
273.85,-8.37699e-12,0,63570,63570
273.9,-1.36669e-11,0,63306,63306
273.95,-2.11024e-11,0,63706,63706
274.001,-3.1002e-11,0,63706,63706
274.05,-4.28516e-11,0,64378,64378
274.1,-5.60375e-11,0,64622,64622
274.15,-6.92724e-11,0,65070,65070
274.201,-8.09808e-11,0,65594,65594
274.25,-8.89067e-11,0,65506,65506
274.3,-9.15536e-11,0,66022,66022
274.351,-8.77294e-11,0,66286,66286
274.4,-7.73322e-11,0,66350,66350
274.45,-6.1097e-11,0,66338,66338
274.5,-4.05517e-11,0,66142,66142
274.551,-1.73327e-11,0,66270,66270
274.6,5.83719e-12,0,65458,65458
274.65,2.75725e-11,0,65130,65130
274.701,4.69562e-11,0,65390,65390
274.751,6.28431e-11,0,64482,64482
274.8,7.54825e-11,0,64378,64378
274.85,8.51899e-11,0,63874,63874
274.901,9.25729e-11,0,63410,63410
274.95,9.79971e-11,0,63370,63370
275,1.02114e-10,0,62938,62938
275.05,1.05351e-10,0,62738,62738
275.101,1.08045e-10,0,62642,62642
275.15,1.10294e-10,0,62106,62106
275.2,1.12212e-10,0,61686,61686
275.251,1.13799e-10,0,61622,61622
275.3,1.15038e-10,0,61182,61182
275.351,1.16051e-10,0,60838,60838
275.4,1.17036e-10,0,60826,60826
275.451,1.18375e-10,0,60234,60234
275.5,1.20382e-10,0,59970,59970
275.55,1.23112e-10,0,59562,59562
275.6,1.25665e-10,0,59226,59226
275.65,1.26019e-10,0,59170,59170
275.7,1.20734e-10,0,58442,58442
275.75,1.05599e-10,0,58262,58262
275.8,7.81343e-11,0,58058,58058
275.85,3.99459e-11,0,57586,57586
275.9,1.35675e-12,0,57506,57506
275.95,-1.72987e-11,0,57254,57254
276.001,1.05523e-11,0,56966,56966
276.05,1.04777e-10,0,56626,56626
276.1,7.17557e-10,0,56334,56334
276.15,3.98286e-09,0,56290,56290
276.2,1.05713e-08,0,55862,55862
276.25,1.75148e-08,0,56134,56134
276.301,2.37412e-08,0,55546,55546
276.351,2.83423e-08,0,55286,55286
276.401,3.14267e-08,0,55194,55194
276.45,3.37228e-08,0,55442,55442
276.501,3.67206e-08,0,54878,54878
276.55,4.18802e-08,0,54778,54778
276.6,5.0107e-08,0,54506,54506
276.651,6.12377e-08,0,54366,54366
276.7,7.4437e-08,0,54290,54290
276.751,9.00588e-08,0,54174,54174
276.801,1.08493e-07,0,53922,53922
276.851,1.31518e-07,0,53814,53814
276.9,1.60149e-07,0,53674,53674
276.951,1.96378e-07,0,53662,53662
277,2.3921e-07,0,53438,53438
277.05,2.88181e-07,0,53306,53306
277.1,3.41209e-07,0,53234,53234
277.151,3.96183e-07,0,53142,53142
277.2,4.5148e-07,0,52850,52850
277.25,5.09127e-07,0,52798,52798
277.3,5.70624e-07,0,52810,52810
277.35,6.35692e-07,0,52766,52766
277.401,7.01341e-07,0,53050,53050
277.45,7.6202e-07,0,53142,53142
277.5,8.14856e-07,0,53414,53414
277.55,8.5728e-07,0,53550,53550
277.6,8.88348e-07,0,53758,53758
277.651,9.08732e-07,0,53718,53718
277.7,9.20284e-07,0,53690,53690
277.75,9.25673e-07,0,53534,53534
277.8,9.2679e-07,0,53462,53462
277.851,9.26812e-07,0,53318,53318
277.9,9.2188e-07,0,53454,53454
277.95,9.12046e-07,0,53278,53278
278,8.97184e-07,0,53130,53130
278.05,8.75812e-07,0,53118,53118
278.101,8.46577e-07,0,53130,53130
278.15,8.09413e-07,0,53002,53002
278.2,7.6387e-07,0,53018,53018
278.25,7.11266e-07,0,52982,52982
278.301,6.54328e-07,0,52848,52848
278.35,5.97361e-07,0,52572,52572
278.4,5.4191e-07,0,52352,52352
278.45,4.89579e-07,0,52236,52236
278.5,4.41099e-07,0,51912,51912
278.55,3.96569e-07,0,51304,51304
278.601,3.55534e-07,0,50660,50660
278.65,3.17985e-07,0,50068,50068
278.7,2.81829e-07,0,49532,49532
278.75,2.47977e-07,0,48936,48936
278.801,2.15267e-07,0,48372,48372
278.85,1.85899e-07,0,47832,47832
278.9,1.60873e-07,0,47236,47236
278.951,1.41009e-07,0,46524,46524
279.001,1.26375e-07,0,45824,45824
279.051,1.14051e-07,0,45084,45084
279.101,1.01359e-07,0,44348,44348
279.151,8.73457e-08,0,43692,43692
279.2,7.34531e-08,0,42980,42980
279.25,6.11302e-08,0,42288,42288
279.301,5.19455e-08,0,41704,41704
279.35,4.59944e-08,0,40992,40992
279.401,4.21213e-08,0,40324,40324
279.45,3.90914e-08,0,39640,39640
279.501,3.53257e-08,0,38916,38916
279.551,3.01389e-08,0,38296,38296
279.601,2.39036e-08,0,37672,37672
279.65,1.8213e-08,0,36956,36956
279.7,1.47971e-08,0,36284,36284
279.75,1.41677e-08,0,35388,35388
279.801,1.5389e-08,0,34468,34468
279.851,1.70954e-08,0,34304,34304
279.901,1.90786e-08,0,34396,34396
279.951,2.13212e-08,0,34660,34660
280.001,2.37755e-08,0,35076,35076
280.051,2.64556e-08,0,36338,36338
280.101,2.93459e-08,0,36270,36270
280.15,3.24069e-08,0,37894,37894
280.2,3.56403e-08,0,38738,38738
280.251,3.9308e-08,0,39126,39126
280.3,4.29628e-08,0,39820,39820
280.351,4.67771e-08,0,40762,40762
280.401,5.07572e-08,0,41386,41386
280.45,5.47383e-08,0,42326,42326
280.5,5.88675e-08,0,43658,43658
280.551,6.30882e-08,0,44410,44410
280.601,6.73682e-08,0,45126,45126
280.651,7.17152e-08,0,45810,45810
280.701,7.60433e-08,0,46530,46530
280.751,8.04679e-08,0,47234,47234
280.8,8.50362e-08,0,47804,47804
280.85,9.03305e-08,0,48484,48484
280.901,9.72256e-08,0,49152,49152
280.95,1.05807e-07,0,49756,49756
281.001,1.15228e-07,0,50476,50476
281.05,1.24019e-07,0,50992,50992
281.101,1.318e-07,0,51632,51632
281.151,1.38331e-07,0,52184,52184
281.2,1.44079e-07,0,52732,52732
281.25,1.50173e-07,0,53452,53452
281.3,1.5749e-07,0,54036,54036
281.351,1.67131e-07,0,54660,54660
281.4,1.7879e-07,0,55152,55152
281.45,1.92802e-07,0,55800,55800
281.5,2.09209e-07,0,56364,56364
281.55,2.28471e-07,0,56896,56896
281.601,2.51928e-07,0,57500,57500
281.65,2.79732e-07,0,58028,58028
281.701,3.13531e-07,0,58620,58620
281.751,3.52808e-07,0,59200,59200
281.8,3.96698e-07,0,59540,59540
281.851,4.44667e-07,0,59980,59980
281.9,4.9366e-07,0,60452,60452
281.95,5.44677e-07,0,60780,60780
282,5.96861e-07,0,61680,61680
282.05,6.50341e-07,0,61976,61976
282.101,7.05394e-07,0,62968,62968
282.151,7.59041e-07,0,63468,63468
282.2,8.07462e-07,0,64000,64000
282.251,8.49985e-07,0,64460,64460
282.3,8.82057e-07,0,64836,64836
282.35,9.03611e-07,0,65268,65268
282.4,9.15161e-07,0,65680,65680
282.45,9.17681e-07,0,66016,66016
282.5,9.13781e-07,0,66036,66036
282.551,9.04478e-07,0,65976,65976
282.6,8.91685e-07,0,66568,66568
282.65,8.74906e-07,0,66932,66932
282.7,8.53663e-07,0,67560,67560
282.751,8.26872e-07,0,68348,68348
282.8,7.94807e-07,0,68908,68908
282.851,7.55733e-07,0,69536,69536
282.901,7.09794e-07,0,70264,70264
282.951,6.57393e-07,0,70950,70950
283,5.99853e-07,0,71710,71710
283.051,5.38276e-07,0,72410,72410
283.1,4.77139e-07,0,73134,73134
283.15,4.16755e-07,0,73934,73934
283.2,3.59805e-07,0,74754,74754
283.251,3.06349e-07,0,75318,75318
283.3,2.58272e-07,0,75306,75306
283.35,2.13726e-07,0,75498,75498
283.4,1.72971e-07,0,75496,75496
283.451,1.34869e-07,0,75786,75786
283.5,1.00274e-07,0,76094,76094
283.551,6.81806e-08,0,76530,76530
283.601,3.97191e-08,0,76838,76838
283.651,1.56337e-08,0,77170,77170
283.7,-3.73043e-09,0,77694,77694
283.75,-1.88894e-08,0,78022,78022
283.8,-3.13475e-08,0,78490,78490
283.85,-4.23795e-08,0,78818,78818
283.9,-5.28454e-08,0,79014,79014
283.951,-6.2727e-08,0,79522,79522
284,-7.09295e-08,0,79758,79758
284.05,-7.69064e-08,0,80082,80082
284.1,-8.01577e-08,0,80434,80434
284.15,-8.12553e-08,0,80822,80822
284.201,-8.15045e-08,0,81102,81102
284.25,-8.17093e-08,0,81454,81454
284.3,-8.19784e-08,0,81770,81770
284.35,-8.22548e-08,0,82274,82274
284.401,-8.23639e-08,0,82766,82766
284.45,-8.22704e-08,0,83246,83246
284.5,-8.06879e-08,0,83770,83770
284.551,-7.67424e-08,0,84142,84142
284.6,-7.24203e-08,0,84182,84182
284.65,-6.79942e-08,0,84514,84514
284.7,-6.36552e-08,0,84638,84638
284.751,-5.94618e-08,0,84698,84698
284.8,-5.56061e-08,0,84588,84588
284.85,-5.20425e-08,0,84448,84448
284.901,-4.87346e-08,0,84404,84404
284.95,-4.5791e-08,0,84024,84024
285,-4.3157e-08,0,83608,83608
285.05,-4.08367e-08,0,83536,83536
285.101,-3.87939e-08,0,83464,83464
285.15,-3.70664e-08,0,83648,83648
285.2,-3.56141e-08,0,83900,83900
285.251,-3.43848e-08,0,84452,84452
285.301,-3.33981e-08,0,84920,84920
285.35,-3.25623e-08,0,85192,85192
285.4,-3.20289e-08,0,85742,85742
285.451,-3.15069e-08,0,86182,86182
285.5,-3.11339e-08,0,86708,86708
285.55,-3.10053e-08,0,87154,87154
285.6,-3.10496e-08,0,87606,87606
285.651,-3.11761e-08,0,88096,88096
285.7,-3.1336e-08,0,88576,88576
285.75,-3.15191e-08,0,89214,89214
285.801,-3.17229e-08,0,89718,89718
285.85,-3.19337e-08,0,90140,90140
285.9,-3.21564e-08,0,90364,90364
285.95,-3.23853e-08,0,90578,90578
286.001,-3.26353e-08,0,90668,90668
286.05,-3.28931e-08,0,90828,90828
286.1,-3.3152e-08,0,90882,90882
286.15,-3.34104e-08,0,90936,90936
286.201,-3.36565e-08,0,91060,91060
286.25,-3.38898e-08,0,91032,91032
286.3,-3.41081e-08,0,90612,90612
286.351,-3.43167e-08,0,90052,90052
286.4,-3.45075e-08,0,89272,89272
286.45,-3.46838e-08,0,88652,88652
286.5,-3.48421e-08,0,87996,87996
286.551,-3.49843e-08,0,87072,87072
286.6,-3.51048e-08,0,86284,86284
286.65,-3.52054e-08,0,85538,85538
286.701,-3.52861e-08,0,84798,84798
286.751,-3.53454e-08,0,84008,84008
286.8,-3.54009e-08,0,83206,83206
286.85,-3.53786e-08,0,82448,82448
286.901,-3.53638e-08,0,81668,81668
286.95,-3.53452e-08,0,80866,80866
287,-3.53106e-08,0,80170,80170
287.05,-3.52639e-08,0,79634,79634
287.101,-3.52066e-08,0,78940,78940
287.15,-3.51425e-08,0,78246,78246
287.2,-3.50734e-08,0,77406,77406
287.251,-3.50005e-08,0,76642,76642
287.3,-3.49272e-08,0,75872,75872
287.35,-3.48536e-08,0,75132,75132
287.4,-3.47808e-08,0,74446,74446
287.451,-3.47085e-08,0,73696,73696
287.5,-3.46395e-08,0,72916,72916
287.55,-3.45737e-08,0,72164,72164
287.601,-3.45107e-08,0,71446,71446
287.651,-3.44533e-08,0,70820,70820
287.7,-3.4401e-08,0,70140,70140
287.75,-3.43546e-08,0,69462,69462
287.801,-3.43137e-08,0,68868,68868
287.85,-3.42796e-08,0,68154,68154
287.9,-3.42518e-08,0,67458,67458
287.95,-3.42303e-08,0,66732,66732
288.001,-3.42151e-08,0,66036,66036
288.05,-3.42068e-08,0,65342,65342
288.1,-3.42052e-08,0,64696,64696
288.151,-3.42104e-08,0,64016,64016
288.2,-3.42225e-08,0,63496,63496
288.25,-3.42416e-08,0,62646,62646
288.3,-3.42676e-08,0,61742,61742
288.351,-3.43009e-08,0,61020,61020
288.4,-3.43402e-08,0,60066,60066
288.45,-3.4386e-08,0,59504,59504
288.501,-3.44391e-08,0,58952,58952
288.551,-3.44981e-08,0,58368,58368
288.6,-3.45642e-08,0,58010,58010
288.65,-3.46379e-08,0,57738,57738
288.701,-3.47208e-08,0,57342,57342
288.75,-3.48109e-08,0,57792,57792
288.8,-3.4908e-08,0,57424,57424
288.85,-3.50086e-08,0,56652,56652
288.901,-3.51083e-08,0,56024,56024
288.95,-3.51986e-08,0,55756,55756
289,-3.53516e-08,0,55290,55290
289.051,-3.55954e-08,0,54344,54344
289.1,-3.58133e-08,0,52526,52526
289.15,-3.60359e-08,0,51428,51428
289.2,-3.62641e-08,0,50012,50012
289.251,-3.65203e-08,0,48518,48518
289.3,-3.68003e-08,0,47220,47220
289.35,-3.71024e-08,0,45926,45926
289.4,-3.7431e-08,0,44960,44960
289.451,-3.77907e-08,0,44286,44286
289.5,-3.81687e-08,0,43510,43510
289.55,-3.85663e-08,0,42610,42610
289.601,-3.8982e-08,0,42080,42080
289.65,-3.93926e-08,0,41206,41206
289.7,-3.97955e-08,0,40484,40484
289.75,-4.0195e-08,0,39762,39762
289.801,-4.06148e-08,0,38990,38990
289.85,-4.10562e-08,0,38172,38172
289.9,-4.1448e-08,0,37184,37184
289.951,-4.18262e-08,0,36248,36248
290.001,-4.21773e-08,0,35142,35142
290.05,-4.25025e-08,0,34134,34134
290.1,-4.27982e-08,0,33098,33098
290.151,-4.30651e-08,0,32096,32096
290.2,-4.32927e-08,0,31026,31026
290.25,-4.34854e-08,0,30238,30238
290.3,-4.36399e-08,0,28960,28960
290.351,-4.37542e-08,0,27844,27844
290.4,-4.3865e-08,0,27084,27084
290.45,-4.3825e-08,0,26162,26162
290.501,-4.37558e-08,0,25924,25924
290.55,-4.36646e-08,0,25382,25382
290.6,-4.34999e-08,0,25312,25312
290.65,-4.3333e-08,0,24800,24800
290.701,-4.31129e-08,0,24460,24460
290.75,-4.28918e-08,0,24260,24260
290.8,-4.26355e-08,0,23962,23962
290.851,-4.23109e-08,0,22874,22874
290.901,-4.19448e-08,0,22076,22076
290.95,-4.15418e-08,0,21658,21658
291,-4.11089e-08,0,21128,21128
291.051,-4.06501e-08,0,20186,20186
291.1,-4.01503e-08,0,19816,19816
291.15,-3.96018e-08,0,19012,19012
291.2,-3.90087e-08,0,18230,18230
291.251,-3.83441e-08,0,17476,17476
291.3,-3.7635e-08,0,16434,16434
291.35,-3.68905e-08,0,15726,15726
291.401,-3.61017e-08,0,15254,15254
291.45,-3.52892e-08,0,14610,14610
291.5,-3.44431e-08,0,13808,13808
291.55,-3.35751e-08,0,13042,13042
291.601,-3.26822e-08,0,12328,12328
291.65,-3.17927e-08,0,11544,11544
291.7,-3.09023e-08,0,10824,10824
291.751,-3.00094e-08,0,10062,10062
291.801,-2.91316e-08,0,9806,9806
291.851,-2.82729e-08,0,9758,9758
291.9,-2.74358e-08,0,9711,9711
291.952,-2.65831e-08,0,9780,9780
292.001,-2.57846e-08,0,9890,9890
292.05,-2.50178e-08,0,10026,10026
292.101,-2.42637e-08,0,10146,10146
292.15,-2.35774e-08,0,10234,10234
292.201,-2.29173e-08,0,10218,10218
292.251,-2.23056e-08,0,10246,10246
292.302,-2.17449e-08,0,10258,10258
292.352,-2.12422e-08,0,10248,10248
292.401,-2.07966e-08,0,10300,10300
292.451,-2.04007e-08,0,10348,10348
292.501,-2.00422e-08,0,10404,10404
292.552,-1.97107e-08,0,10480,10480
292.601,-1.94373e-08,0,10596,10596
292.651,-1.91991e-08,0,10476,10476
292.7,-1.89993e-08,0,10352,10352
292.751,-1.88175e-08,0,10320,10320
292.801,-1.866e-08,0,10272,10272
292.851,-1.85239e-08,0,10200,10200
292.901,-1.84053e-08,0,10152,10152
292.95,-1.83004e-08,0,10096,10096
293.002,-1.82035e-08,0,9948,9948
293.051,-1.81217e-08,0,9948,9948
293.1,-1.80498e-08,0,9892,9892
293.151,-1.79843e-08,0,9840,9840
293.201,-1.79274e-08,0,10044,10044
293.251,-1.78763e-08,0,10152,10152
293.302,-1.7831e-08,0,10224,10224
293.351,-1.7784e-08,0,10346,10346
293.401,-1.77386e-08,0,10502,10502
293.451,-1.76933e-08,0,10682,10682
293.5,-1.76499e-08,0,10866,10866
293.551,-1.76057e-08,0,10918,10918
293.6,-1.75605e-08,0,10882,10882
293.651,-1.75111e-08,0,10878,10878
293.701,-1.74579e-08,0,10874,10874
293.75,-1.74019e-08,0,10902,10902
293.8,-1.73392e-08,0,10942,10942
293.85,-1.72701e-08,0,10926,10926
293.901,-1.71921e-08,0,10974,10974
293.951,-1.71092e-08,0,10978,10978
294,-1.70186e-08,0,10986,10986
294.051,-1.69178e-08,0,11010,11010
294.1,-1.68128e-08,0,11030,11030
294.151,-1.66971e-08,0,11050,11050
294.201,-1.65739e-08,0,11114,11114
294.251,-1.64438e-08,0,11118,11118
294.301,-1.63072e-08,0,11150,11150
294.351,-1.61649e-08,0,11182,11182
294.401,-1.60169e-08,0,11202,11202
294.451,-1.58636e-08,0,11234,11234
294.501,-1.57055e-08,0,11270,11270
294.55,-1.55428e-08,0,11286,11286
294.6,-1.53759e-08,0,11310,11310
294.651,-1.52001e-08,0,11338,11338
294.701,-1.50258e-08,0,11382,11382
294.751,-1.48475e-08,0,11394,11394
294.801,-1.46648e-08,0,11442,11442
294.851,-1.44772e-08,0,11434,11434
294.9,-1.42841e-08,0,11462,11462
294.95,-1.40848e-08,0,11498,11498
295,-1.38789e-08,0,11478,11478
295.051,-1.36599e-08,0,11326,11326
295.101,-1.34403e-08,0,11168,11168
295.151,-1.32168e-08,0,10970,10970
295.201,-1.29696e-08,0,10882,10882
295.25,-1.27178e-08,0,10790,10790
295.3,-1.24661e-08,0,10728,10728
295.35,-1.22059e-08,0,10684,10684
295.401,-1.19283e-08,0,10620,10620
295.451,-1.16476e-08,0,10604,10604
295.501,-1.13537e-08,0,10564,10564
295.551,-1.10445e-08,0,10532,10532
295.601,-1.07181e-08,0,10492,10492
295.65,-1.0373e-08,0,10456,10456
295.7,-1.00075e-08,0,10440,10440
295.751,-9.60957e-09,0,10352,10352
295.801,-9.19877e-09,0,10324,10324
295.851,-8.77073e-09,0,10212,10212
295.901,-8.3529e-09,0,10108,10108
295.951,-7.8007e-09,0,10048,10048
296,-7.23319e-09,0,9936,9936
296.05,-6.6429e-09,0,9836,9836
296.101,-6.0073e-09,0,9660,9660
296.151,-5.36376e-09,0,9476,9476
296.201,-4.69621e-09,0,9296,9296
296.251,-4.00809e-09,0,9164,9164
296.301,-3.30353e-09,0,9028,9028
296.35,-2.58848e-09,0,8928,8928
296.4,-1.86992e-09,0,8840,8840
296.451,-1.13413e-09,0,8780,8780
296.501,-4.27532e-10,0,8688,8688
296.551,2.6642e-10,0,8576,8576
296.601,9.44098e-10,0,8486,8486
296.651,1.60217e-09,0,8414,8414
296.702,2.2535e-09,0,8378,8378
296.751,2.85051e-09,0,8362,8362
296.801,3.43752e-09,0,8390,8390
296.85,3.96709e-09,0,8404,8404
296.901,4.47613e-09,0,8428,8428
296.952,4.94008e-09,0,8448,8448
297,5.34185e-09,0,8448,8448
297.051,5.71159e-09,0,8440,8440
297.101,6.03469e-09,0,8416,8416
297.151,6.31442e-09,0,8400,8400
297.201,6.55076e-09,0,8392,8392
297.252,6.74594e-09,0,8388,8388
297.302,6.87144e-09,0,8364,8364
297.351,6.9418e-09,0,8320,8320
297.401,6.97945e-09,0,8308,8308
297.45,6.98071e-09,0,8290,8290
297.501,6.97255e-09,0,8238,8238
297.55,6.95244e-09,0,8202,8202
297.601,6.91939e-09,0,8158,8158
297.652,6.8742e-09,0,8114,8114
297.7,6.81952e-09,0,8106,8106
297.75,6.75263e-09,0,8066,8066
297.802,6.674e-09,0,8034,8034
297.851,6.59065e-09,0,7998,7998
297.901,6.50155e-09,0,7990,7990
297.95,6.4079e-09,0,7938,7938
298.001,6.30676e-09,0,7914,7914
298.05,6.20605e-09,0,7882,7882
298.101,6.09993e-09,0,7858,7858
298.151,5.99349e-09,0,7842,7842
298.201,5.88817e-09,0,7810,7810
298.251,5.78524e-09,0,7778,7778
298.301,5.68572e-09,0,7738,7738
298.351,5.59039e-09,0,7738,7738
298.402,5.49675e-09,0,7690,7690
298.451,5.41142e-09,0,7674,7674
298.502,5.32887e-09,0,7642,7642
298.551,5.25484e-09,0,7638,7638
298.601,5.18439e-09,0,7618,7618
298.651,5.12032e-09,0,7606,7606
298.701,5.06263e-09,0,7614,7614
298.751,5.01114e-09,0,7614,7614
298.801,4.96548e-09,0,7602,7602
298.85,4.92511e-09,0,7606,7606
298.901,4.88825e-09,0,7598,7598
298.95,4.85648e-09,0,7590,7590
299.001,4.82682e-09,0,7614,7614
299.052,4.79958e-09,0,7566,7566
299.1,4.77483e-09,0,7602,7602
299.15,4.75022e-09,0,7574,7574
299.2,4.72603e-09,0,7574,7574
299.25,4.70198e-09,0,7562,7562
299.301,4.67705e-09,0,7566,7566
299.351,4.65243e-09,0,7558,7558
299.401,4.62621e-09,0,7554,7554
299.451,4.59993e-09,0,7538,7538
299.501,4.57186e-09,0,7538,7538
299.551,4.54289e-09,0,7542,7542
299.6,4.51405e-09,0,7550,7550
299.65,4.48357e-09,0,7526,7526
299.701,4.45153e-09,0,7514,7514
299.751,4.42002e-09,0,7526,7526
299.801,4.38825e-09,0,7510,7510
299.85,4.35636e-09,0,7502,7502
299.901,4.32354e-09,0,7510,7510
299.951,4.29095e-09,0,7498,7498
300,4.25973e-09,0,7482,7482
300.05,4.22811e-09,0,7502,7502
300.101,4.19722e-09,0,7466,7466
300.15,4.16722e-09,0,7462,7462
300.2,4.13823e-09,0,7458,7458
300.251,4.10951e-09,0,7442,7442
300.301,4.0828e-09,0,7434,7434
300.35,4.05728e-09,0,7422,7422
300.401,4.03218e-09,0,7418,7418
300.451,4.00826e-09,0,7422,7422
300.501,3.98542e-09,0,7422,7422
300.55,3.96415e-09,0,7430,7430
300.6,3.94303e-09,0,7438,7438
300.651,3.92195e-09,0,7446,7446
300.701,3.90191e-09,0,7418,7418
300.751,3.88213e-09,0,7382,7382
300.801,3.86246e-09,0,7358,7358
300.851,3.84277e-09,0,7330,7330
300.9,3.82295e-09,0,7330,7330
300.95,3.80291e-09,0,7254,7254
301.001,3.78198e-09,0,7218,7218
301.051,3.76128e-09,0,7182,7182
301.101,3.74018e-09,0,7150,7150
301.151,3.71861e-09,0,7066,7066
301.201,3.69657e-09,0,7018,7018
301.25,3.67412e-09,0,6986,6986
301.3,3.6513e-09,0,6902,6902
301.351,3.62744e-09,0,6886,6886
301.401,3.60388e-09,0,6854,6854
301.451,3.57995e-09,0,6838,6838
301.501,3.55564e-09,0,6790,6790
301.551,3.53096e-09,0,6766,6766
301.6,3.50592e-09,0,6694,6694
301.65,3.48054e-09,0,6658,6658
301.7,3.45482e-09,0,6598,6598
301.751,3.42799e-09,0,6542,6542
301.801,3.40157e-09,0,6482,6482
301.851,3.37482e-09,0,6450,6450
301.901,3.34776e-09,0,6390,6390
301.95,3.32039e-09,0,6334,6334
302,3.29277e-09,0,6274,6274
302.05,3.2649e-09,0,6234,6234
302.101,3.23599e-09,0,6142,6142
302.151,3.2077e-09,0,6106,6106
302.201,3.17922e-09,0,6026,6026
302.251,3.15056e-09,0,5998,5998
302.301,3.12172e-09,0,5914,5914
302.35,3.09271e-09,0,5766,5766
302.4,3.06353e-09,0,5622,5622
302.451,3.03332e-09,0,5462,5462
302.501,3.00381e-09,0,5298,5298
302.551,2.97413e-09,0,5130,5130
302.601,2.94427e-09,0,4998,4998
302.651,2.91422e-09,0,4830,4830
302.7,2.88397e-09,0,4682,4682
302.75,2.85352e-09,0,4522,4522
302.801,2.82194e-09,0,4358,4358
302.851,2.79105e-09,0,4206,4206
302.901,2.75993e-09,0,4050,4050
302.951,2.72856e-09,0,3902,3902
303.001,2.69692e-09,0,3758,3758
303.05,2.66499e-09,0,3582,3582
303.1,2.63273e-09,0,3442,3442
303.151,2.59917e-09,0,3266,3266
303.201,2.56619e-09,0,3122,3122
303.251,2.53281e-09,0,2958,2958
303.301,2.49901e-09,0,2814,2814
303.351,2.46477e-09,0,2650,2650
303.4,2.43006e-09,0,2502,2502
303.45,2.39487e-09,0,2358,2358
303.502,2.35777e-09,0,2190,2190
303.552,2.3216e-09,0,2102,2102
303.604,2.28305e-09,0,2054,2054
303.654,2.24562e-09,0,2048,2048
303.701,2.21007e-09,0,2048,2048
303.753,2.16956e-09,0,2048,2048
303.8,2.13309e-09,0,2048,2048
303.853,2.09158e-09,0,2048,2048
303.906,2.04959e-09,0,2048,2048
303.953,2.01188e-09,0,2048,2048
304.005,1.96907e-09,0,2048,2048
304.052,1.9307e-09,0,2048,2048
304.105,1.88723e-09,0,2048,2048
304.152,1.84836e-09,0,2048,2048
304.205,1.80441e-09,0,2048,2048
304.251,1.76519e-09,0,2048,2048
304.304,1.72095e-09,0,2048,2048
304.351,1.68156e-09,0,2048,2048
304.404,1.63724e-09,0,2048,2048
304.451,1.59789e-09,0,2048,2048
304.503,1.55372e-09,0,2048,2048
304.55,1.51461e-09,0,2048,2048
304.603,1.47085e-09,0,2048,2048
304.656,1.42738e-09,0,2048,2048
304.703,1.38905e-09,0,2048,2048
304.755,1.34631e-09,0,2048,2048
304.802,1.30871e-09,0,2048,2048
304.855,1.26688e-09,0,2048,2048
304.902,1.23016e-09,0,2048,2048
304.954,1.18939e-09,0,2048,2048
