250,0,0,512,512
250.012,0,0,512,512
250.059,0,0,512,512
250.105,0,0,512,512
250.152,0,0,512,512
250.211,0,0,512,512
250.258,0,0,512,512
250.305,0,0,512,512
250.352,0,0,512,512
250.41,0,0,512,512
250.457,0,0,512,512
250.504,0,0,512,512
250.551,0,0,512,512
250.609,0,0,512,512
250.656,0,0,512,512
250.703,0,0,512,512
250.762,0,0,512,512
250.808,0,0,512,512
250.855,0,0,512,512
250.902,0,0,512,512
250.961,0,0,512,512
251.008,0,0,512,512
251.055,0,0,512,512
251.101,0,0,512,512
251.16,0,0,512,512
251.207,0,0,512,512
251.254,0,0,512,512
251.301,0,0,512,512
251.359,0,0,512,512
251.406,0,0,512,512
251.453,0,0,512,512
251.511,0,0,512,512
251.558,0,0,512,512
251.605,0,0,512,512
251.652,0,0,512,512
251.711,0,0,512,512
251.758,0,0,512,512
251.804,0,0,512,512
251.851,0,0,512,512
251.91,0,0,512,512
251.957,0,0,512,512
252.004,0,0,512,512
252.05,0,0,512,512
252.109,0,0,512,512
252.156,0,0,512,512
252.203,0,0,512,512
252.261,0,0,512,512
252.308,0,0,512,512
252.355,0,0,512,512
252.402,0,0,512,512
252.461,0,0,512,512
252.507,0,0,512,512
252.554,0,0,512,512
252.601,0,0,512,512
252.66,0,0,512,512
252.707,0,0,512,512
252.754,0,0,512,512
252.8,0,0,512,512
252.859,0,0,512,512
252.906,0,0,512,512
252.953,0,0,512,512
253.011,0,0,512,512
253.058,0,0,512,512
253.105,0,0,512,512
253.152,0,0,512,512
253.21,0,0,512,512
253.257,0,0,512,512
253.304,0,0,512,512
253.351,0,0,512,512
253.41,0,0,512,512
253.457,0,0,512,512
253.503,0,0,512,512
253.55,0,0,512,512
253.609,0,0,512,512
253.656,0,0,512,512
253.703,0,0,512,512
253.761,0,0,512,512
253.808,0,0,512,512
253.855,0,0,512,512
253.902,0,0,512,512
253.96,0,0,512,512
254.007,0,0,512,512
254.054,0,0,512,512
254.101,0,0,512,512
254.16,0,0,512,512
254.206,0,0,512,512
254.253,0,0,512,512
254.3,0,0,512,512
254.359,0,0,512,512
254.406,0,0,512,512
254.452,0,0,512,512
254.511,0,0,512,512
254.558,0,0,512,512
254.605,0,0,512,512
254.652,0,0,512,512
254.71,0,0,512,512
254.757,0,0,512,512
254.804,0,0,512,512
254.851,0,0,512,512
254.909,0,0,512,512
254.956,0,0,512,512
255.003,0,0,512,512
255.05,0,0,512,512
255.109,0,0,512,512
255.155,0,0,512,512
255.202,0,0,512,512
255.261,0,0,512,512
255.308,0,0,512,512
255.355,0,0,512,512
255.402,0,0,512,512
255.46,0,0,512,512
255.507,0,0,512,512
255.554,0,0,512,512
255.601,0,0,512,512
255.659,0,0,512,512
255.706,0,0,512,512
255.753,0,0,512,512
255.812,0,0,512,512
255.859,0,0,512,512
255.905,0,0,512,512
255.952,0,0,512,512
256.011,0,0,512,512
256.058,0,0,512,512
256.105,0,0,512,512
256.151,0,0,512,512
256.21,0,0,512,512
256.257,0,0,512,512
256.304,0,0,512,512
256.351,0,0,512,512
256.409,0,0,512,512
256.456,0,0,512,512
256.503,0,0,512,512
256.562,0,0,512,512
256.608,0,0,512,512
256.655,0,0,512,512
256.702,0,0,512,512
256.761,0,0,512,512
256.808,0,0,512,512
256.854,0,0,512,512
256.901,0,0,512,512
256.96,0,0,512,512
257.007,0,0,512,512
257.054,0,0,512,512
257.101,0,0,512,512
257.159,0,0,512,512
257.206,0,0,512,512
257.253,0,0,512,512
257.311,0,0,512,512
257.358,0,0,512,512
257.405,0,0,512,512
257.452,0,0,512,512
257.511,0,0,512,512
257.557,0,0,512,512
257.604,0,0,512,512
257.651,0,0,512,512
257.71,0,0,512,512
257.757,0,0,512,512
257.804,0,0,512,512
257.85,0,0,512,512
257.909,0,0,512,512
257.956,0,0,512,512
258.003,0,0,512,512
258.061,0,0,512,512
258.108,0,0,512,512
258.155,0,0,512,512
258.202,0,0,512,512
258.261,0,0,512,512
258.307,0,0,512,512
258.354,0,0,512,512
258.401,0,0,512,512
258.46,0,0,512,512
258.507,0,0,512,512
258.553,0,0,512,512
258.6,0,0,512,512
258.659,0,0,512,512
258.706,0,0,512,512
258.753,0,0,512,512
258.811,0,0,512,512
258.858,0,0,512,512
258.905,0,0,512,512
258.952,0,0,512,512
259.01,0,0,512,512
259.057,0,0,512,512
259.104,0,0,512,512
259.151,0,0,512,512
259.21,0,0,512,512
259.256,0,0,512,512
259.303,0,0,512,512
259.35,0,0,512,512
259.409,0,0,512,512
259.456,0,0,512,512
259.503,0,0,512,512
259.561,0,0,512,512
259.608,0,0,512,512
259.655,0,0,512,512
259.702,0,0,512,512
259.76,0,0,512,512
259.807,0,0,512,512
259.854,0,0,512,512
259.901,0,0,512,512
259.959,0,0,512,512
260.006,0,0,512,512
260.053,0,0,512,512
260.1,0,0,512,512
260.159,0,0,512,512
260.206,0,0,512,512
260.252,-5.55112e-17,0,512,512
260.311,-5.55112e-17,0,512,512
260.358,-5.55112e-17,0,512,512
260.405,-5.55112e-17,0,512,512
260.452,-5.55112e-17,0,512,512
260.51,-2.77556e-17,0,512,512
260.557,-2.77556e-17,0,512,512
260.604,-2.77556e-17,0,512,512
260.651,-2.77556e-17,0,512,512
260.709,-2.77556e-17,0,512,512
260.756,-2.77556e-17,0,512,512
260.803,-2.77556e-17,0,512,512
260.862,-2.77556e-17,0,512,512
260.909,-2.77556e-17,0,512,512
260.955,-2.77556e-17,0,512,512
261.002,-2.77556e-17,0,512,512
261.061,-2.77556e-17,0,512,512
261.108,-2.77556e-17,0,512,512
261.155,-2.77556e-17,0,512,512
261.201,-2.77556e-17,0,512,512
261.26,0,0,512,512
261.307,0,0,512,512
261.354,0,0,512,512
261.401,0,0,512,512
261.459,0,0,512,512
261.506,0,0,512,512
261.553,0,0,512,512
261.612,2.77556e-17,0,512,512
261.658,2.77556e-17,0,512,512
261.705,2.77556e-17,0,512,512
261.752,2.77556e-17,0,512,512
261.811,2.77556e-17,0,512,512
261.858,2.77556e-17,0,512,512
261.905,2.77556e-17,0,512,512
261.951,2.77556e-17,0,512,512
262.01,5.55112e-17,0,512,512
262.057,5.55112e-17,0,512,512
262.104,5.55112e-17,0,512,512
262.151,5.55112e-17,0,512,512
262.209,5.55112e-17,0,512,512
262.256,2.77556e-17,0,512,512
262.303,2.77556e-17,0,512,512
262.361,2.77556e-17,0,512,512
262.408,2.77556e-17,0,512,512
262.455,5.55112e-17,0,512,512
262.502,5.55112e-17,0,512,512
262.561,5.55112e-17,0,512,512
262.608,5.55112e-17,0,512,512
262.654,5.55112e-17,0,512,512
262.701,5.55112e-17,0,512,512
262.76,5.55112e-17,0,512,512
262.807,5.55112e-17,0,512,512
262.854,5.55112e-17,0,512,512
262.9,5.55112e-17,0,512,512
262.959,5.55112e-17,0,512,512
263.006,5.55112e-17,0,512,512
263.053,5.55112e-17,0,512,512
263.111,5.55112e-17,0,512,512
263.158,2.77556e-17,0,512,512
263.205,2.77556e-17,0,512,512
263.252,5.55112e-17,0,512,512
263.311,2.77556e-17,0,512,512
263.357,0,0,512,512
263.404,0,0,512,512
263.451,0,0,512,512
263.51,0,0,512,512
263.557,0,0,512,512
263.603,0,0,512,512
263.65,0,0,512,512
263.709,0,0,512,512
263.756,0,0,512,512
263.803,0,0,512,512
263.861,0,0,512,512
263.908,0,0,512,512
263.955,0,0,512,512
264.002,0,0,512,512
264.06,0,0,512,512
264.107,0,0,512,512
264.154,0,0,512,512
264.201,0,0,512,512
264.26,0,0,512,512
264.306,0,0,512,512
264.353,0,0,512,512
264.4,2.77556e-17,0,512,512
264.459,2.77556e-17,0,512,512
264.506,2.77556e-17,0,512,512
264.553,0,0,512,512
264.611,0,0,512,512
264.658,0,0,512,512
264.705,0,0,512,512
264.752,0,0,512,512
264.81,0,0,512,512
264.857,0,0,512,512
264.904,0,0,512,512
264.951,0,0,512,512
265.01,0,0,512,512
265.056,0,0,512,512
265.103,0,0,512,512
265.15,0,0,512,512
265.209,0,0,512,512
265.256,0,0,512,512
265.302,0,0,512,512
265.361,0,0,512,512
265.408,0,0,512,512
265.455,0,0,512,512
265.502,0,0,512,512
265.56,0,0,512,512
265.607,0,0,512,512
265.654,0,0,512,512
265.701,0,0,512,512
265.759,0,0,512,512
265.806,0,0,512,512
265.853,0,0,512,512
265.9,0,0,512,512
265.959,0,0,512,512
266.005,0,0,512,512
266.052,0,0,512,512
266.111,0,0,512,512
266.158,0,0,512,512
266.205,0,0,512,512
266.252,0,0,512,512
266.31,0,0,512,512
266.357,0,0,512,512
266.404,0,0,512,512
266.451,0,0,512,512
266.509,0,0,512,512
266.556,0,0,512,512
266.603,0,0,512,512
266.662,0,0,512,512
266.708,0,0,512,512
266.755,0,0,512,512
266.802,0,0,512,512
266.861,0,0,512,512
266.908,0,0,512,512
266.955,0,0,512,512
267.001,0,0,512,512
267.06,0,0,512,512
267.107,0,0,512,512
267.154,0,0,512,512
267.201,0,0,512,512
267.259,0,0,512,512
267.306,0,0,512,512
267.353,0,0,512,512
267.412,0,0,512,512
267.458,0,0,512,512
267.505,0,0,512,512
267.552,0,0,512,512
267.611,0,0,512,512
267.658,0,0,512,512
267.704,0,0,512,512
267.751,0,0,512,512
267.81,0,0,512,512
267.857,0,0,512,512
267.904,0,0,512,512
267.95,0,0,512,512
268.009,0,0,512,512
268.056,0,0,512,512
268.101,0,0,579,579
268.15,0,0,613,613
268.2,0,0,671,671
268.253,0,0,731,731
268.303,0,0,773,773
268.353,0,0,825,825
268.402,0,0,883,883
268.452,0,0,941,941
268.502,0,0,983,983
268.552,0,0,1043,1043
268.601,0,0,1087,1087
268.651,0,0,1135,1135
268.701,0,0,1171,1171
268.751,0,0,1215,1215
268.801,0,0,1269,1269
268.85,0,0,1289,1289
268.9,0,0,1337,1337
268.95,0,0,1361,1361
269.003,0,0,1393,1393
269.053,0,0,1383,1383
269.102,0,0,1419,1419
269.152,0,0,1429,1429
269.202,0,0,1441,1441
269.252,0,0,1443,1443
269.302,0,0,1495,1495
269.351,0,0,1551,1551
269.401,0,0,1577,1577
269.451,0,0,1605,1605
269.501,0,0,1665,1665
269.551,0,0,1717,1717
269.6,0,0,1735,1735
269.65,0,0,1779,1779
269.703,0,0,1839,1839
269.753,0,0,1871,1871
269.802,0,0,1897,1897
269.852,0,0,1959,1959
269.902,0,0,1981,1981
269.952,0,0,2017,2017
270.002,0,0,2037,2037
270.051,0,0,2037,2037
270.101,0,0,2083,2083
270.151,0,0,2103,2103
270.201,0,0,2113,2113
270.251,0,0,2117,2117
270.3,0,0,2147,2147
270.35,0,0,2203,2203
270.4,0,0,2251,2251
270.453,0,0,2299,2299
270.503,0,0,2329,2329
270.552,0,0,2329,2329
270.602,0,0,2347,2347
270.652,0,0,2379,2379
270.702,0,0,2399,2399
270.752,0,0,2451,2451
270.801,0,0,2483,2483
270.851,0,0,2477,2477
270.901,0,0,2497,2497
270.951,0,0,2545,2545
271.001,0,0,2585,2585
271.05,0,0,2619,2619
271.1,0,0,2659,2659
271.153,0,0,2719,2719
271.203,0,0,2757,2757
271.252,0,0,2793,2793
271.302,0,0,2815,2815
271.352,0,0,2843,2843
271.402,0,0,2863,2863
271.452,0,0,2901,2901
271.501,0,0,2895,2895
271.551,0,0,2921,2921
271.601,0,0,2973,2973
271.651,0,0,3017,3017
271.701,0,0,3061,3061
271.75,0,0,3089,3089
271.8,0,0,3131,3131
271.85,-2.22045e-16,0,3167,3167
271.903,-6.93889e-16,0,3211,3211
271.953,-1.33227e-15,0,3257,3257
272.002,-3.08087e-15,0,3297,3297
272.052,-7.85483e-15,0,3335,3335
272.102,-1.95399e-14,0,3381,3381
272.152,-4.6102e-14,0,3415,3415
272.202,-1.02696e-13,0,3419,3419
272.251,-2.16271e-13,0,3461,3461
272.301,-4.32793e-13,0,3487,3487
272.351,-8.25701e-13,0,3541,3541
272.401,-1.50677e-12,0,3593,3593
272.451,-2.63675e-12,0,3623,3623
272.5,-4.43492e-12,0,3661,3661
272.55,-7.18386e-12,0,3707,3707
272.603,-1.15122e-11,0,3755,3755
272.653,-1.73452e-11,0,3785,3785
272.702,-2.52768e-11,0,3835,3835
272.752,-3.56489e-11,0,3887,3887
272.802,-4.86318e-11,0,3905,3905
272.852,-6.40011e-11,0,3951,3951
272.902,-8.08205e-11,0,4001,4001
272.951,-9.72109e-11,0,4055,4055
273.001,-1.10466e-10,0,4087,4087
273.051,-1.17611e-10,0,4135,4135
273.101,-1.16189e-10,0,4161,4161
273.151,-1.04939e-10,0,4201,4201
273.2,-8.47462e-11,0,4235,4235
273.25,-4.1396e-11,0,4285,4285
273.3,9.26983e-12,0,4319,4319
273.353,4.94327e-11,0,4367,4367
273.403,7.34996e-11,0,4403,4403
273.452,8.81502e-11,0,4441,4441
273.502,9.41828e-11,0,4481,4481
273.552,9.66835e-11,0,4519,4519
273.602,9.86325e-11,0,4563,4563
273.652,1.00081e-10,0,4609,4609
273.701,1.01931e-10,0,4615,4615
273.751,1.03821e-10,0,4613,4613
273.801,1.05781e-10,0,4651,4651
273.851,1.07975e-10,0,4701,4701
273.901,1.102e-10,0,4783,4783
273.95,1.1234e-10,0,4815,4815
274,1.14153e-10,0,4879,4879
274.053,1.1529e-10,0,4901,4901
274.103,1.15346e-10,0,4935,4935
274.152,1.14384e-10,0,4981,4981
274.202,1.12811e-10,0,5017,5017
274.252,1.116e-10,0,5057,5057
274.302,1.1216e-10,0,5107,5107
274.352,1.15894e-10,0,5133,5133
274.401,1.23257e-10,0,5175,5175
274.451,1.32626e-10,0,5223,5223
274.501,1.40365e-10,0,5257,5257
274.551,1.4387e-10,0,5303,5303
274.601,1.46317e-10,0,5339,5339
274.65,1.57424e-10,0,5385,5385
274.7,2.75e-10,0,5423,5423
274.753,1.19062e-09,0,5471,5471
274.803,3.23406e-09,0,5513,5513
274.853,6.61632e-09,0,5561,5561
274.902,1.11042e-08,0,5587,5587
274.952,1.61453e-08,0,5615,5615
275.002,2.11148e-08,0,5625,5625
275.052,2.55965e-08,0,5653,5653
275.102,2.95797e-08,0,5651,5651
275.151,3.3497e-08,0,5671,5671
275.201,3.8065e-08,0,5677,5677
275.251,4.40338e-08,0,5697,5697
275.301,5.19776e-08,0,5695,5695
275.35,6.22315e-08,0,5715,5715
275.4,7.50298e-08,0,5731,5731
275.45,9.07273e-08,0,5731,5731
275.503,1.11183e-07,0,5737,5737
275.553,1.34974e-07,0,5725,5725
275.602,1.6391e-07,0,5727,5727
275.652,1.98453e-07,0,5723,5723
275.702,2.38527e-07,0,5701,5701
275.752,2.8351e-07,0,5703,5703
275.802,3.32463e-07,0,5673,5673
275.851,3.84521e-07,0,5647,5647
275.901,4.39157e-07,0,5607,5607
275.951,4.96111e-07,0,5603,5603
276.001,5.54968e-07,0,5577,5577
276.051,6.14672e-07,0,5527,5527
276.1,6.73332e-07,0,5515,5515
276.15,7.28473e-07,0,5497,5497
276.203,7.80265e-07,0,5461,5461
276.253,8.20982e-07,0,5421,5421
276.302,8.52833e-07,0,5417,5417
276.352,8.75981e-07,0,5385,5385
276.402,8.91371e-07,0,5339,5339
276.452,9.00296e-07,0,5327,5327
276.502,9.03935e-07,0,5285,5285
276.551,9.03035e-07,0,5255,5255
276.601,8.97879e-07,0,5251,5251
276.65,8.88098e-07,0,5245,5245
276.703,8.71874e-07,0,5253,5253
276.753,8.50243e-07,0,5255,5255
276.803,8.21741e-07,0,5241,5241
276.853,7.86099e-07,0,5245,5245
276.9,7.46523e-07,0,5253,5253
276.951,6.98833e-07,0,5250,5250
277.001,6.47216e-07,0,5248,5248
277.052,5.93814e-07,0,5260,5260
277.103,5.40642e-07,0,5256,5256
277.151,4.9242e-07,0,5210,5210
277.202,4.43668e-07,0,5168,5168
277.251,4.00846e-07,0,5164,5164
277.302,3.58217e-07,0,5252,5252
277.351,3.20885e-07,0,5352,5352
277.403,2.83612e-07,0,5406,5406
277.451,2.51019e-07,0,5438,5438
277.503,2.18991e-07,0,5468,5468
277.552,1.91993e-07,0,5518,5518
277.6,1.68364e-07,0,5560,5560
277.652,1.47032e-07,0,5630,5630
277.7,1.30161e-07,0,5684,5684
277.752,1.14504e-07,0,5746,5746
277.803,1.00237e-07,0,5836,5836
277.851,8.76386e-08,0,5878,5878
277.901,7.51077e-08,0,5954,5954
277.952,6.39927e-08,0,6024,6024
278.002,5.47222e-08,0,6070,6070
278.053,4.73454e-08,0,6094,6094
278.103,4.1448e-08,0,6128,6128
278.153,3.63312e-08,0,6150,6150
278.203,3.13447e-08,0,6198,6198
278.252,2.61759e-08,0,6240,6240
278.302,2.09749e-08,0,6256,6256
278.351,1.62226e-08,0,6302,6302
278.4,1.24303e-08,0,6334,6334
278.452,9.74975e-09,0,6366,6366
278.501,8.4125e-09,0,6410,6410
278.553,7.89382e-09,0,6414,6414
278.602,7.87126e-09,0,6394,6394
278.653,7.96364e-09,0,6346,6346
278.701,8.07057e-09,0,6274,6274
278.752,8.1582e-09,0,6232,6232
278.8,8.19424e-09,0,6168,6168
278.851,8.18241e-09,0,6112,6112
278.902,8.126e-09,0,6036,6036
278.952,7.93356e-09,0,5954,5954
279.002,7.66028e-09,0,5926,5926
279.052,7.43182e-09,0,5854,5854
279.102,7.27206e-09,0,5782,5782
279.152,7.18982e-09,0,5750,5750
279.202,7.16419e-09,0,5668,5668
279.252,7.17178e-09,0,5616,5616
279.302,7.18086e-09,0,5568,5568
279.351,7.19306e-09,0,5506,5506
279.401,7.20706e-09,0,5446,5446
279.451,7.22238e-09,0,5420,5420
279.501,7.2381e-09,0,5366,5366
279.551,7.25398e-09,0,5326,5326
279.6,7.27001e-09,0,5298,5298
279.65,7.28588e-09,0,5250,5250
279.7,7.30162e-09,0,5210,5210
279.753,7.31838e-09,0,5122,5122
279.803,7.33462e-09,0,5100,5100
279.852,7.35188e-09,0,5160,5160
279.902,7.37117e-09,0,5198,5198
279.952,7.39386e-09,0,5226,5226
280.002,7.42178e-09,0,5274,5274
280.052,7.45666e-09,0,5282,5282
280.101,7.49906e-09,0,5318,5318
280.151,7.54627e-09,0,5360,5360
280.201,7.61996e-09,0,5379,5379
280.251,7.70841e-09,0,5423,5423
280.301,7.80444e-09,0,5481,5481
280.35,7.90547e-09,0,5525,5525
280.4,8.04582e-09,0,5585,5585
280.453,8.23644e-09,0,5609,5609
280.503,8.4272e-09,0,5663,5663
280.552,8.63153e-09,0,5700,5700
280.602,8.90007e-09,0,5724,5724
280.652,9.22441e-09,0,5758,5758
280.702,9.60203e-09,0,5806,5806
280.752,1.00474e-08,0,5856,5856
280.801,1.05777e-08,0,5868,5868
280.851,1.12098e-08,0,5866,5866
280.901,1.196e-08,0,5866,5866
280.951,1.28488e-08,0,5876,5876
281.001,1.38936e-08,0,5876,5876
281.05,1.51138e-08,0,5862,5862
281.1,1.65272e-08,0,5870,5870
281.15,1.81474e-08,0,5856,5856
281.203,2.01043e-08,0,5838,5838
281.253,2.21904e-08,0,5826,5826
281.302,2.45128e-08,0,5818,5818
281.352,2.70736e-08,0,5818,5818
281.402,2.98681e-08,0,5816,5816
281.452,3.28869e-08,0,5796,5796
281.502,3.61154e-08,0,5796,5796
281.551,3.95339e-08,0,5794,5794
281.601,4.31205e-08,0,5778,5778
281.651,4.68531e-08,0,5774,5774
281.701,5.07128e-08,0,5764,5764
281.751,5.46888e-08,0,5764,5764
281.8,5.8783e-08,0,5752,5752
281.85,6.30144e-08,0,5756,5756
281.903,6.76855e-08,0,5734,5734
281.953,7.23321e-08,0,5736,5736
282.002,7.72678e-08,0,5724,5724
282.052,8.25476e-08,0,5738,5738
282.102,8.82064e-08,0,5710,5710
282.152,9.4249e-08,0,5714,5714
282.202,1.0065e-07,0,5694,5694
282.251,1.07364e-07,0,5704,5704
282.301,1.14349e-07,0,5698,5698
282.351,1.21589e-07,0,5682,5682
282.401,1.29122e-07,0,5676,5676
282.451,1.37058e-07,0,5672,5672
282.5,1.45584e-07,0,5674,5674
282.55,1.54965e-07,0,5668,5668
282.6,1.65527e-07,0,5666,5666
282.653,1.78414e-07,0,5648,5648
282.703,1.92611e-07,0,5640,5640
282.752,2.09183e-07,0,5650,5650
282.802,2.28508e-07,0,5640,5640
282.852,2.50911e-07,0,5642,5642
282.9,2.75698e-07,0,5632,5632
282.953,3.06519e-07,0,5664,5664
283.002,3.38962e-07,0,5712,5712
283.051,3.74558e-07,0,5756,5756
283.1,4.12997e-07,0,5800,5800
283.152,4.56455e-07,0,5864,5864
283.201,4.99193e-07,0,5891,5891
283.253,5.4574e-07,0,5955,5955
283.301,5.89763e-07,0,6011,6011
283.352,6.35695e-07,0,6047,6047
283.4,6.77099e-07,0,6099,6099
283.451,7.18014e-07,0,6159,6159
283.502,7.54657e-07,0,6167,6167
283.553,7.86067e-07,0,6237,6237
283.6,8.10205e-07,0,6289,6289
283.651,8.29648e-07,0,6353,6353
283.701,8.42515e-07,0,6411,6411
283.751,8.48849e-07,0,6451,6451
283.801,8.48853e-07,0,6503,6503
283.851,8.42796e-07,0,6559,6559
283.9,8.30929e-07,0,6601,6601
283.95,8.13473e-07,0,6645,6645
284.003,7.89113e-07,0,6705,6705
284.053,7.60749e-07,0,6741,6741
284.102,7.27414e-07,0,6781,6781
284.152,6.89441e-07,0,6831,6831
284.202,6.47309e-07,0,6875,6875
284.252,6.01663e-07,0,6915,6915
284.302,5.5331e-07,0,6955,6955
284.351,5.03173e-07,0,7017,7017
284.401,4.52226e-07,0,7065,7065
284.451,4.01424e-07,0,7105,7105
284.501,3.51632e-07,0,7149,7149
284.551,3.03583e-07,0,7203,7203
284.6,2.57852e-07,0,7257,7257
284.65,2.14858e-07,0,7319,7319
284.7,1.74884e-07,0,7355,7355
284.753,1.36045e-07,0,7413,7413
284.803,1.02744e-07,0,7437,7437
284.852,7.27435e-08,0,7463,7463
284.902,4.59928e-08,0,7472,7472
284.952,2.23821e-08,0,7504,7504
285.002,1.74748e-09,0,7548,7548
285.052,-1.61174e-08,0,7597,7597
285.101,-3.14423e-08,0,7652,7652
285.151,-4.44607e-08,0,7694,7694
285.201,-5.53941e-08,0,7692,7692
285.251,-6.44443e-08,0,7744,7744
285.3,-7.17954e-08,0,7786,7786
285.35,-7.762e-08,0,7808,7808
285.4,-8.20848e-08,0,7840,7840
285.453,-8.55092e-08,0,7860,7860
285.503,-8.76696e-08,0,7882,7882
285.552,-8.89181e-08,0,7878,7878
285.602,-8.93549e-08,0,7867,7867
285.652,-8.9052e-08,0,7855,7855
285.702,-8.80605e-08,0,7875,7875
285.752,-8.64243e-08,0,7879,7879
285.801,-8.41951e-08,0,7890,7890
285.851,-8.14424e-08,0,7888,7888
285.901,-7.82578e-08,0,7876,7876
285.951,-7.47503e-08,0,7894,7894
286.001,-7.10376e-08,0,7886,7886
286.05,-6.72349e-08,0,7894,7894
286.1,-6.34455e-08,0,7910,7910
286.153,-5.95424e-08,0,7932,7932
286.203,-5.60265e-08,0,7936,7936
286.253,-5.27207e-08,0,7940,7940
286.302,-4.96508e-08,0,7960,7960
286.352,-4.68288e-08,0,7996,7996
286.402,-4.42568e-08,0,8018,8018
286.452,-4.19302e-08,0,8008,8008
286.501,-3.98413e-08,0,8014,8014
286.551,-3.79806e-08,0,7992,7992
286.601,-3.63381e-08,0,8070,8070
286.651,-3.49034e-08,0,7876,7876
286.701,-3.36649e-08,0,7678,7678
286.75,-3.26096e-08,0,7562,7562
286.8,-3.17225e-08,0,7622,7622
286.85,-3.09917e-08,0,7486,7486
286.903,-3.03805e-08,0,7374,7374
286.953,-2.99456e-08,0,7408,7408
287.002,-2.96294e-08,0,7340,7340
287.052,-2.9414e-08,0,7336,7336
287.102,-2.9306e-08,0,7358,7358
287.152,-2.92957e-08,0,7250,7250
287.202,-2.93016e-08,0,7194,7194
287.251,-2.92857e-08,0,7204,7204
287.301,-2.92922e-08,0,7128,7128
287.351,-2.93485e-08,0,7048,7048
287.401,-2.95074e-08,0,7036,7036
287.451,-2.96911e-08,0,6970,6970
287.5,-2.98906e-08,0,6984,6984
287.55,-3.00751e-08,0,6958,6958
287.603,-3.02714e-08,0,6876,6876
287.653,-3.0457e-08,0,6946,6946
287.702,-3.0638e-08,0,6830,6830
287.752,-3.08108e-08,0,6808,6808
287.802,-3.09706e-08,0,6718,6718
287.852,-3.11165e-08,0,6784,6784
287.902,-3.1259e-08,0,6652,6652
287.951,-3.13779e-08,0,6672,6672
288.001,-3.14779e-08,0,6666,6666
288.051,-3.15665e-08,0,6706,6706
288.101,-3.16415e-08,0,6668,6668
288.151,-3.17028e-08,0,6666,6666
288.2,-3.17631e-08,0,6652,6652
288.25,-3.17838e-08,0,6660,6660
288.3,-3.17422e-08,0,6818,6818
288.353,-3.16938e-08,0,6744,6744
288.403,-3.16428e-08,0,6602,6602
288.452,-3.15846e-08,0,6510,6510
288.502,-3.15202e-08,0,6462,6462
288.552,-3.14484e-08,0,6298,6298
288.602,-3.13676e-08,0,6336,6336
288.652,-3.12832e-08,0,6508,6508
288.701,-3.11916e-08,0,6640,6640
288.751,-3.10912e-08,0,6920,6920
288.801,-3.09862e-08,0,6876,6876
288.851,-3.08779e-08,0,6934,6934
288.901,-3.07689e-08,0,6974,6974
288.95,-3.06641e-08,0,7030,7030
289,-3.05136e-08,0,7074,7074
289.053,-3.03806e-08,0,7260,7260
289.103,-3.02558e-08,0,7302,7302
289.152,-3.01222e-08,0,7364,7364
289.202,-2.99912e-08,0,7374,7374
289.252,-2.98562e-08,0,7368,7368
289.302,-2.97211e-08,0,7370,7370
289.352,-2.9575e-08,0,7342,7342
289.401,-2.94243e-08,0,7202,7202
289.451,-2.9264e-08,0,7040,7040
289.501,-2.91033e-08,0,7030,7030
289.551,-2.89443e-08,0,7088,7088
289.601,-2.87721e-08,0,7258,7258
289.65,-2.85212e-08,0,7136,7136
289.7,-2.82708e-08,0,7076,7076
289.75,-2.80015e-08,0,7050,7050
289.803,-2.77061e-08,0,7120,7120
289.853,-2.74048e-08,0,7200,7200
289.902,-2.70843e-08,0,7178,7178
289.952,-2.67281e-08,0,7158,7158
290.002,-2.63489e-08,0,7126,7126
290.052,-2.59449e-08,0,7090,7090
290.102,-2.55157e-08,0,7022,7022
290.151,-2.50713e-08,0,6980,6980
290.201,-2.46167e-08,0,6862,6862
290.251,-2.41696e-08,0,6806,6806
290.301,-2.37464e-08,0,6772,6772
290.351,-2.33445e-08,0,6698,6698
290.4,-2.29366e-08,0,6582,6582
290.45,-2.25295e-08,0,6530,6530
290.503,-2.21215e-08,0,6456,6456
290.553,-2.17559e-08,0,6244,6244
290.602,-2.14325e-08,0,6160,6160
290.652,-2.11433e-08,0,6068,6068
290.702,-2.08975e-08,0,6088,6088
290.752,-2.06885e-08,0,6074,6074
290.802,-2.05241e-08,0,6040,6040
290.851,-2.04028e-08,0,5990,5990
290.901,-2.03338e-08,0,6144,6144
290.951,-2.03327e-08,0,6248,6248
291.001,-2.04745e-08,0,6264,6264
291.051,-2.03768e-08,0,6272,6272
291.1,-2.04734e-08,0,6306,6306
291.15,-2.05796e-08,0,6346,6346
291.2,-2.06994e-08,0,6372,6372
291.253,-2.08503e-08,0,6388,6388
291.303,-2.09789e-08,0,6250,6250
291.352,-2.12315e-08,0,6174,6174
291.402,-2.14304e-08,0,6052,6052
291.452,-2.16417e-08,0,5934,5934
291.502,-2.18478e-08,0,5882,5882
291.552,-2.20513e-08,0,5850,5850
291.601,-2.22447e-08,0,5936,5936
291.651,-2.24168e-08,0,5940,5940
291.701,-2.25644e-08,0,5918,5918
291.751,-2.26944e-08,0,5898,5898
291.801,-2.28035e-08,0,5864,5864
291.85,-2.2886e-08,0,5848,5848
291.9,-2.29473e-08,0,5800,5800
291.953,-2.29753e-08,0,5790,5790
292.003,-2.29781e-08,0,5778,5778
292.052,-2.29726e-08,0,5752,5752
292.102,-2.29527e-08,0,5705,5705
292.152,-2.29217e-08,0,5717,5717
292.202,-2.28854e-08,0,5696,5696
292.252,-2.28128e-08,0,5746,5746
292.301,-2.27412e-08,0,5782,5782
292.351,-2.26391e-08,0,5796,5796
292.401,-2.25439e-08,0,5820,5820
292.451,-2.24505e-08,0,5892,5892
292.501,-2.232e-08,0,5866,5866
292.55,-2.21789e-08,0,5874,5874
292.6,-2.20301e-08,0,5850,5850
292.653,-2.18666e-08,0,5818,5818
292.703,-2.17042e-08,0,5814,5814
292.753,-2.15379e-08,0,5794,5794
292.802,-2.13691e-08,0,5830,5830
292.852,-2.12005e-08,0,5836,5836
292.902,-2.10332e-08,0,5774,5774
292.952,-2.08676e-08,0,5720,5720
293.002,-2.07074e-08,0,5670,5670
293.051,-2.05531e-08,0,5734,5734
293.101,-2.04062e-08,0,5588,5588
293.151,-2.02675e-08,0,5514,5514
293.201,-2.01373e-08,0,5456,5456
293.25,-2.00173e-08,0,5390,5390
293.301,-1.99084e-08,0,5402,5402
293.351,-1.98111e-08,0,5480,5480
293.401,-1.97246e-08,0,5544,5544
293.451,-1.96499e-08,0,5628,5628
293.501,-1.95885e-08,0,5697,5697
293.551,-1.95382e-08,0,5721,5721
293.601,-1.94946e-08,0,5713,5713
293.65,-1.94578e-08,0,5731,5731
293.7,-1.94232e-08,0,5743,5743
293.75,-1.93912e-08,0,5749,5749
293.803,-1.93601e-08,0,5731,5731
293.853,-1.93327e-08,0,5731,5731
293.902,-1.93028e-08,0,5727,5727
293.952,-1.92678e-08,0,5729,5729
294.002,-1.92343e-08,0,5735,5735
294.052,-1.92052e-08,0,5751,5751
294.102,-1.91705e-08,0,5763,5763
294.151,-1.91281e-08,0,5771,5771
294.201,-1.9079e-08,0,5789,5789
294.251,-1.90234e-08,0,5831,5831
294.301,-1.89602e-08,0,5869,5869
294.35,-1.88891e-08,0,5907,5907
294.4,-1.8811e-08,0,5940,5940
294.45,-1.87272e-08,0,5974,5974
294.503,-1.8633e-08,0,6010,6010
294.553,-1.85391e-08,0,6026,6026
294.602,-1.84405e-08,0,6042,6042
294.652,-1.83377e-08,0,6052,6052
294.702,-1.82313e-08,0,6070,6070
294.752,-1.81222e-08,0,6084,6084
294.802,-1.80112e-08,0,6088,6088
294.851,-1.78986e-08,0,6232,6232
294.901,-1.77855e-08,0,6272,6272
294.951,-1.76733e-08,0,6292,6292
295.001,-1.75561e-08,0,6308,6308
295.051,-1.74391e-08,0,6332,6332
295.1,-1.73218e-08,0,6350,6350
295.15,-1.72042e-08,0,6366,6366
295.203,-1.7078e-08,0,6294,6294
295.253,-1.69565e-08,0,6248,6248
295.303,-1.68323e-08,0,6238,6238
295.352,-1.67049e-08,0,6284,6284
295.402,-1.65741e-08,0,6336,6336
295.452,-1.64405e-08,0,6364,6364
295.502,-1.63042e-08,0,6358,6358
295.551,-1.61649e-08,0,6334,6334
295.601,-1.6022e-08,0,6340,6340
295.651,-1.5875e-08,0,6306,6306
295.701,-1.57236e-08,0,6274,6274
295.751,-1.55677e-08,0,6254,6254
295.8,-1.5407e-08,0,6204,6204
295.85,-1.52417e-08,0,6168,6168
295.9,-1.50716e-08,0,6138,6138
295.953,-1.48865e-08,0,6090,6090
296.003,-1.4707e-08,0,6050,6050
296.052,-1.45233e-08,0,6038,6038
296.102,-1.43372e-08,0,5982,5982
296.152,-1.41512e-08,0,5978,5978
296.202,-1.39654e-08,0,5954,5954
296.252,-1.3779e-08,0,5928,5928
296.301,-1.35479e-08,0,5948,5948
296.351,-1.33252e-08,0,5964,5964
296.401,-1.30994e-08,0,5956,5956
296.451,-1.28643e-08,0,5928,5928
296.501,-1.26199e-08,0,5898,5898
296.55,-1.23654e-08,0,5849,5849
296.6,-1.21024e-08,0,5831,5831
296.653,-1.18151e-08,0,5783,5783
296.703,-1.1534e-08,0,5765,5765
296.752,-1.12419e-08,0,5729,5729
296.802,-1.09366e-08,0,5701,5701
296.852,-1.06161e-08,0,5649,5649
296.902,-1.02782e-08,0,5648,5648
296.952,-9.92121e-09,0,5655,5655
297.001,-9.54324e-09,0,5681,5681
297.051,-9.1434e-09,0,5719,5719
297.101,-8.7209e-09,0,5720,5720
297.151,-8.27535e-09,0,5748,5748
297.201,-7.80594e-09,0,5750,5750
297.25,-7.31228e-09,0,5694,5694
297.3,-6.79456e-09,0,5638,5638
297.35,-6.25363e-09,0,5614,5614
297.403,-5.65743e-09,0,5602,5602
297.453,-5.07466e-09,0,5596,5596
297.502,-4.47572e-09,0,5584,5584
297.552,-3.86386e-09,0,5546,5546
297.602,-3.24266e-09,0,5530,5530
297.652,-2.61598e-09,0,5510,5510
297.702,-1.98765e-09,0,5496,5496
297.751,-1.36165e-09,0,5466,5466
297.801,-7.42004e-10,0,5432,5432
297.851,-1.32614e-10,0,5406,5406
297.901,4.62471e-10,0,5384,5384
297.951,1.03949e-09,0,5306,5306
298,1.59501e-09,0,5247,5247
298.05,2.1256e-09,0,5215,5215
298.103,2.65682e-09,0,5180,5180
298.153,3.12681e-09,0,5218,5218
298.202,3.56354e-09,0,5194,5194
298.252,3.96503e-09,0,5180,5180
298.302,4.32977e-09,0,5156,5156
298.352,4.65676e-09,0,5136,5136
298.402,4.94569e-09,0,5126,5126
298.451,5.19681e-09,0,5108,5108
298.501,5.41078e-09,0,5096,5096
298.551,5.58865e-09,0,5074,5074
298.601,5.73141e-09,0,5060,5060
298.651,5.83924e-09,0,5028,5028
298.7,5.91282e-09,0,5020,5020
298.75,5.97275e-09,0,4998,4998
298.8,5.95869e-09,0,4990,4990
298.853,5.92868e-09,0,4968,4968
298.903,5.89098e-09,0,4942,4942
298.952,5.84572e-09,0,4926,4926
299.002,5.7921e-09,0,4904,4904
299.052,5.72884e-09,0,4876,4876
299.102,5.65532e-09,0,4858,4858
299.152,5.57179e-09,0,4836,4836
299.201,5.47982e-09,0,4822,4822
299.251,5.38143e-09,0,4800,4800
299.301,5.27873e-09,0,4766,4766
299.351,5.1735e-09,0,4739,4739
299.401,5.06714e-09,0,4719,4719
299.45,4.96094e-09,0,4689,4689
299.5,4.85599e-09,0,4675,4675
299.553,4.74729e-09,0,4645,4645
299.603,4.64778e-09,0,4637,4637
299.652,4.55213e-09,0,4611,4611
299.702,4.46107e-09,0,4589,4589
299.752,4.37522e-09,0,4575,4575
299.802,4.29515e-09,0,4541,4541
299.852,4.2213e-09,0,4519,4519
299.901,4.154e-09,0,4491,4491
299.951,4.09337e-09,0,4467,4467
300.001,4.03921e-09,0,4437,4437
300.051,3.99104e-09,0,4401,4401
300.101,3.94807e-09,0,4383,4383
300.15,3.90935e-09,0,4333,4333
300.2,3.87381e-09,0,4309,4309
300.25,3.84045e-09,0,4289,4289
300.303,3.80647e-09,0,4247,4247
300.353,3.77477e-09,0,4215,4215
300.402,3.74272e-09,0,4191,4191
300.452,3.70969e-09,0,4153,4153
300.502,3.67518e-09,0,4119,4119
300.552,3.63876e-09,0,4087,4087
300.602,3.6001e-09,0,4055,4055
300.651,3.55891e-09,0,4029,4029
300.701,3.515e-09,0,4017,4017
300.751,3.46824e-09,0,3987,3987
300.801,3.41863e-09,0,3975,3975
300.851,3.36633e-09,0,3953,3953
300.9,3.31163e-09,0,3919,3919
300.95,3.25496e-09,0,3894,3894
301.003,3.19342e-09,0,3868,3868
301.053,3.13454e-09,0,3854,3854
301.102,3.07569e-09,0,3806,3806
301.152,3.01768e-09,0,3766,3766
301.202,2.96137e-09,0,3734,3734
301.252,2.90758e-09,0,3700,3700
301.302,2.8571e-09,0,3652,3652
301.351,2.81062e-09,0,3618,3618
301.401,2.76867e-09,0,3586,3586
301.451,2.73161e-09,0,3548,3548
301.501,2.6996e-09,0,3500,3500
301.551,2.67278e-09,0,3448,3448
301.6,2.65132e-09,0,3398,3398
301.65,2.64028e-09,0,3352,3352
301.7,2.6311e-09,0,3302,3302
301.753,2.62377e-09,0,3256,3256
301.803,2.61905e-09,0,3206,3206
301.852,2.61364e-09,0,3156,3156
301.902,2.60821e-09,0,3108,3108
301.952,2.60507e-09,0,3050,3050
302.002,2.60291e-09,0,3012,3012
302.052,2.60225e-09,0,2966,2966
302.101,2.60269e-09,0,2922,2922
302.151,2.6037e-09,0,2874,2874
302.201,2.60474e-09,0,2834,2834
302.251,2.60558e-09,0,2796,2796
302.301,2.60625e-09,0,2746,2746
302.35,2.60668e-09,0,2710,2710
302.4,2.60665e-09,0,2648,2648
302.453,2.60577e-09,0,2586,2586
302.503,2.60395e-09,0,2544,2544
302.552,2.60109e-09,0,2492,2492
302.602,2.5971e-09,0,2446,2446
302.652,2.59191e-09,0,2420,2420
302.702,2.58549e-09,0,2362,2362
302.752,2.5778e-09,0,2314,2314
302.801,2.56878e-09,0,2266,2266
302.851,2.55837e-09,0,2226,2226
302.901,2.54661e-09,0,2172,2172
302.951,2.53363e-09,0,2126,2126
303.001,2.51955e-09,0,2070,2070
303.05,2.50448e-09,0,2020,2020
303.1,2.48849e-09,0,1956,1956
303.153,2.47061e-09,0,1898,1898
303.203,2.45289e-09,0,1848,1848
303.253,2.43439e-09,0,1800,1800
303.302,2.41516e-09,0,1738,1738
303.352,2.39526e-09,0,1696,1696
303.402,2.37478e-09,0,1650,1650
303.452,2.35379e-09,0,1604,1604
303.501,2.33236e-09,0,1544,1544
303.551,2.31054e-09,0,1498,1498
303.601,2.28837e-09,0,1442,1442
303.651,2.26592e-09,0,1382,1382
303.701,2.24327e-09,0,1324,1324
303.753,2.21928e-09,0,1280,1280
303.803,2.1965e-09,0,1287,1287
303.853,2.17372e-09,0,1289,1289
303.902,2.15099e-09,0,1287,1287
303.952,2.12835e-09,0,1283,1283
304.002,2.10586e-09,0,1287,1287
304.051,2.08355e-09,0,1288,1288
304.101,2.06148e-09,0,1278,1278
304.151,2.03967e-09,0,1282,1282
304.201,2.01813e-09,0,1270,1270
304.25,1.99687e-09,0,1260,1260
304.304,1.97413e-09,0,1240,1240
304.354,1.95342e-09,0,1224,1224
304.404,1.93296e-09,0,1214,1214
304.453,1.91271e-09,0,1198,1198
304.503,1.89267e-09,0,1190,1190
304.553,1.87277e-09,0,1174,1174
304.602,1.853e-09,0,1160,1160
304.652,1.83329e-09,0,1140,1140
304.702,1.81361e-09,0,1124,1124
304.751,1.79393e-09,0,1114,1114
304.801,1.77423e-09,0,1098,1098
304.851,1.75448e-09,0,1086,1086
304.901,1.73458e-09,0,1066,1066
304.95,1.71441e-09,0,1052,1052
