250,0,0,32768,32768
250.001,0,0,32768,32768
250.051,0,0,32768,32768
250.101,0,0,32768,32768
250.151,0,0,32768,32768
250.201,0,0,32768,32768
250.25,0,0,32768,32768
250.3,0,0,32768,32768
250.35,0,0,32768,32768
250.401,0,0,32768,32768
250.451,0,0,32768,32768
250.501,0,0,32768,32768
250.551,0,0,32768,32768
250.6,0,0,32768,32768
250.65,0,0,32768,32768
250.7,0,0,32768,32768
250.751,0,0,32768,32768
250.801,0,0,32768,32768
250.851,0,0,32768,32768
250.901,0,0,32768,32768
250.951,0,0,32768,32768
251,0,0,32768,32768
251.05,0,0,32768,32768
251.101,0,0,32768,32768
251.151,0,0,32768,32768
251.201,0,0,32768,32768
251.251,0,0,32768,32768
251.301,0,0,32768,32768
251.35,0,0,32768,32768
251.4,0,0,32768,32768
251.451,0,0,32768,32768
251.501,0,0,32768,32768
251.551,0,0,32768,32768
251.601,0,0,32768,32768
251.651,2.77556e-17,0,32768,32768
251.7,2.77556e-17,0,32768,32768
251.75,2.77556e-17,0,32768,32768
251.8,2.77556e-17,0,32768,32768
251.851,2.77556e-17,0,32768,32768
251.901,2.77556e-17,0,32768,32768
251.951,5.55112e-17,0,32768,32768
252.001,2.77556e-17,0,32768,32768
252.05,2.77556e-17,0,32768,32768
252.1,0,0,32768,32768
252.15,0,0,32768,32768
252.201,0,0,32768,32768
252.251,0,0,32768,32768
252.301,0,0,32768,32768
252.351,0,0,32768,32768
252.401,0,0,32768,32768
252.45,0,0,32768,32768
252.5,0,0,32768,32768
252.551,0,0,32768,32768
252.601,0,0,32768,32768
252.651,0,0,32768,32768
252.701,0,0,32768,32768
252.751,0,0,32768,32768
252.8,0,0,32768,32768
252.85,0,0,32768,32768
252.901,0,0,32768,32768
252.951,0,0,32768,32768
253.001,0,0,32768,32768
253.051,0,0,32768,32768
253.101,0,0,32768,32768
253.15,0,0,32768,32768
253.2,0,0,32768,32768
253.25,0,0,32768,32768
253.301,2.77556e-17,0,32768,32768
253.351,2.77556e-17,0,32768,32768
253.401,2.77556e-17,0,32768,32768
253.451,2.77556e-17,0,32768,32768
253.5,-2.77556e-17,0,32768,32768
253.55,-2.77556e-17,0,32768,32768
253.6,0,0,32768,32768
253.651,-2.77556e-17,0,32768,32768
253.701,0,0,32768,32768
253.751,0,0,32768,32768
253.801,0,0,32768,32768
253.851,0,0,32768,32768
253.9,0,0,32768,32768
253.95,0,0,32768,32768
254.001,-2.77556e-17,0,32768,32768
254.051,-2.77556e-17,0,32768,32768
254.101,-2.77556e-17,0,32768,32768
254.151,-2.77556e-17,0,32768,32768
254.201,-2.77556e-17,0,32768,32768
254.25,-2.77556e-17,0,32768,32768
254.3,0,0,32768,32768
254.351,0,0,32768,32768
254.401,0,0,32768,32768
254.451,0,0,32768,32768
254.501,0,0,32768,32768
254.551,0,0,32768,32768
254.6,0,0,32768,32768
254.65,2.77556e-17,0,32768,32768
254.701,2.77556e-17,0,32768,32768
254.751,5.55112e-17,0,32768,32768
254.801,2.77556e-17,0,32768,32768
254.851,0,0,32768,32768
254.901,-2.77556e-17,0,32768,32768
254.95,-2.77556e-17,0,32768,32768
255,-2.77556e-17,0,32768,32768
255.05,-2.77556e-17,0,32768,32768
255.101,-2.77556e-17,0,32768,32768
255.151,-2.77556e-17,0,32768,32768
255.201,-5.55112e-17,0,32768,32768
255.251,-2.77556e-17,0,32768,32768
255.3,-2.77556e-17,0,32768,32768
255.35,-2.77556e-17,0,32768,32768
255.4,-2.77556e-17,0,32768,32768
255.451,-2.77556e-17,0,32768,32768
255.501,-2.77556e-17,0,32768,32768
255.551,-2.77556e-17,0,32768,32768
255.601,-2.77556e-17,0,32768,32768
255.651,-2.77556e-17,0,32768,32768
255.7,-2.77556e-17,0,32768,32768
255.75,-2.77556e-17,0,32768,32768
255.801,-2.77556e-17,0,32768,32768
255.851,-2.77556e-17,0,32768,32768
255.901,-2.77556e-17,0,32768,32768
255.951,-2.77556e-17,0,32768,32768
256.001,-2.77556e-17,0,32768,32768
256.05,-2.77556e-17,0,32768,32768
256.1,-2.77556e-17,0,32768,32768
256.151,-2.77556e-17,0,32768,32768
256.201,-2.77556e-17,0,32768,32768
256.251,-2.77556e-17,0,32768,32768
256.301,-2.77556e-17,0,32768,32768
256.351,-2.77556e-17,0,32768,32768
256.4,-2.77556e-17,0,32768,32768
256.45,-2.77556e-17,0,32768,32768
256.5,-2.77556e-17,0,32768,32768
256.551,-2.77556e-17,0,32768,32768
256.601,-2.77556e-17,0,32768,32768
256.651,-2.77556e-17,0,32768,32768
256.701,-2.77556e-17,0,32768,32768
256.75,-2.77556e-17,0,32768,32768
256.8,-2.77556e-17,0,32768,32768
256.85,-2.77556e-17,0,32768,32768
256.901,-2.77556e-17,0,32768,32768
256.951,-2.77556e-17,0,32768,32768
257.001,-2.77556e-17,0,32768,32768
257.051,-2.77556e-17,0,32768,32768
257.101,-2.77556e-17,0,32768,32768
257.15,-2.77556e-17,0,32768,32768
257.2,-2.77556e-17,0,32768,32768
257.251,-2.77556e-17,0,32768,32768
257.301,-2.77556e-17,0,32768,32768
257.351,2.77556e-17,0,32768,32768
257.401,2.77556e-17,0,32768,32768
257.451,2.77556e-17,0,32768,32768
257.5,2.77556e-17,0,32768,32768
257.55,2.77556e-17,0,32768,32768
257.601,0,0,32768,32768
257.651,0,0,32768,32768
257.701,0,0,32768,32768
257.751,0,0,32768,32768
257.801,0,0,32768,32768
257.85,0,0,32768,32768
257.9,0,0,32768,32768
257.95,0,0,32768,32768
258.001,0,0,32768,32768
258.051,0,0,32768,32768
258.101,0,0,32768,32768
258.151,0,0,32768,32768
258.2,0,0,32768,32768
258.25,0,0,32768,32768
258.3,0,0,32768,32768
258.351,0,0,32768,32768
258.401,0,0,32768,32768
258.451,0,0,32768,32768
258.501,0,0,32768,32768
258.551,0,0,32768,32768
258.6,0,0,32768,32768
258.65,0,0,32768,32768
258.701,0,0,32768,32768
258.751,0,0,32768,32768
258.801,0,0,32768,32768
258.851,0,0,32768,32768
258.901,0,0,32768,32768
258.95,0,0,32768,32768
259,0,0,32768,32768
259.051,0,0,32768,32768
259.101,0,0,32768,32768
259.151,5.55112e-17,0,32768,32768
259.201,5.55112e-17,0,32768,32768
259.251,2.77556e-17,0,32768,32768
259.3,2.77556e-17,0,32768,32768
259.35,-2.77556e-17,0,32768,32768
259.401,-2.77556e-17,0,32768,32768
259.451,2.77556e-17,0,32768,32768
259.501,2.77556e-17,0,32768,32768
259.551,5.55112e-17,0,32768,32768
259.601,8.32667e-17,0,32768,32768
259.65,5.55112e-17,0,32768,32768
259.7,5.55112e-17,0,32768,32768
259.75,8.32667e-17,0,32768,32768
259.801,1.11022e-16,0,32768,32768
259.851,1.11022e-16,0,32768,32768
259.901,1.11022e-16,0,32768,32768
259.951,1.11022e-16,0,32768,32768
260,8.32667e-17,0,32768,32768
260.05,8.32667e-17,0,32768,32768
260.1,1.11022e-16,0,32768,32768
260.151,1.11022e-16,0,32768,32768
260.201,1.11022e-16,0,32768,32768
260.251,1.11022e-16,0,32768,32768
260.301,8.32667e-17,0,32768,32768
260.351,1.11022e-16,0,32768,32768
260.4,1.11022e-16,0,32768,32768
260.45,1.11022e-16,0,32768,32768
260.501,8.32667e-17,0,32768,32768
260.551,8.32667e-17,0,32768,32768
260.601,1.11022e-16,0,32768,32768
260.651,1.11022e-16,0,32768,32768
260.701,5.55112e-17,0,32768,32768
260.75,8.32667e-17,0,32768,32768
260.8,8.32667e-17,0,32768,32768
260.851,8.32667e-17,0,32768,32768
260.901,8.32667e-17,0,32768,32768
260.951,8.32667e-17,0,32768,32768
261.001,8.32667e-17,0,32768,32768
261.051,8.32667e-17,0,32768,32768
261.1,8.32667e-17,0,32768,32768
261.15,8.32667e-17,0,32768,32768
261.2,8.32667e-17,0,32768,32768
261.251,8.32667e-17,0,32768,32768
261.301,5.55112e-17,0,32768,32768
261.351,5.55112e-17,0,32768,32768
261.401,2.77556e-17,0,32768,32768
261.45,2.77556e-17,0,32768,32768
261.5,2.77556e-17,0,32768,32768
261.55,2.77556e-17,0,32768,32768
261.601,5.55112e-17,0,32768,32768
261.651,5.55112e-17,0,32768,32768
261.701,5.55112e-17,0,32768,32768
261.751,5.55112e-17,0,32768,32768
261.801,5.55112e-17,0,32768,32768
261.85,5.55112e-17,0,32768,32768
261.9,5.55112e-17,0,32768,32768
261.951,0,0,32768,32768
262.001,0,0,32768,32768
262.051,0,0,32768,32768
262.101,0,0,32768,32768
262.151,2.77556e-17,0,32768,32768
262.2,2.77556e-17,0,32768,32768
262.25,2.77556e-17,0,32768,32768
262.301,2.77556e-17,0,32768,32768
262.351,2.77556e-17,0,32768,32768
262.401,0,0,32768,32768
262.451,0,0,32768,32768
262.501,0,0,32768,32768
262.55,0,0,32768,32768
262.6,0,0,32768,32768
262.651,0,0,32768,32768
262.701,0,0,32768,32768
262.751,0,0,32768,32768
262.801,0,0,32768,32768
262.851,0,0,32768,32768
262.9,0,0,32768,32768
262.95,0,0,32768,32768
263,0,0,32768,32768
263.051,0,0,32768,32768
263.101,0,0,32768,32768
263.151,0,0,32768,32768
263.201,0,0,32768,32768
263.25,5.55112e-17,0,32768,32768
263.3,5.55112e-17,0,32768,32768
263.35,2.77556e-17,0,32768,32768
263.401,0,0,32768,32768
263.451,0,0,32768,32768
263.501,0,0,32768,32768
263.551,0,0,32768,32768
263.601,0,0,32768,32768
263.65,0,0,32768,32768
263.7,0,0,32768,32768
263.751,0,0,32768,32768
263.801,0,0,32768,32768
263.851,0,0,32768,32768
263.901,0,0,32768,32768
263.951,0,0,32768,32768
264,0,0,32768,32768
264.05,0,0,32768,32768
264.101,0,0,32768,32768
264.151,0,0,32768,32768
264.201,0,0,32768,32768
264.251,0,0,32768,32768
264.301,0,0,32768,32768
264.35,0,0,32768,32768
264.4,0,0,32768,32768
264.45,0,0,32768,32768
264.501,0,0,32768,32768
264.551,0,0,32768,32768
264.601,0,0,32768,32768
264.651,0,0,32768,32768
264.7,0,0,32768,32768
264.75,0,0,32768,32768
264.8,0,0,32768,32768
264.851,0,0,32768,32768
264.901,0,0,32768,32768
264.951,0,0,32768,32768
265.001,0,0,32768,32768
265.051,0,0,32768,32768
265.1,0,0,32768,32768
265.15,0,0,32768,32768
265.201,0,0,32768,32768
265.251,0,0,32768,32768
265.301,0,0,32768,32768
265.351,0,0,32768,32768
265.401,0,0,32768,32768
265.45,0,0,32768,32768
265.5,0,0,32768,32768
265.551,0,0,32768,32768
265.601,0,0,32768,32768
265.651,0,0,32768,32768
265.701,0,0,32768,32768
265.751,0,0,32768,32768
265.8,0,0,32768,32768
265.85,0,0,32768,32768
265.9,0,0,32768,32768
265.951,0,0,32768,32768
266.001,0,0,32768,32768
266.051,2.77556e-17,0,32768,32768
266.101,2.77556e-17,0,32768,32768
266.15,2.77556e-17,0,32768,32768
266.2,2.77556e-17,0,32768,32768
266.25,0,0,32768,32768
266.301,0,0,32768,32768
266.351,0,0,32768,32768
266.401,0,0,32768,32768
266.451,0,0,32768,32768
266.501,0,0,32768,32768
266.55,0,0,32768,32768
266.6,0,0,32768,32768
266.651,0,0,32768,32768
266.701,0,0,32768,32768
266.751,0,0,32768,32768
266.801,0,0,32768,32768
266.851,0,0,32768,32768
266.9,2.77556e-17,0,32768,32768
266.95,8.32667e-17,0,32768,32768
267.001,8.32667e-17,0,32768,32768
267.051,5.55112e-17,0,32768,32768
267.101,8.32667e-17,0,32768,32768
267.151,8.32667e-17,0,32768,32768
267.201,8.32667e-17,0,32768,32768
267.25,5.55112e-17,0,32768,32768
267.3,2.77556e-17,0,32768,32768
267.351,2.77556e-17,0,32768,32768
267.401,2.77556e-17,0,32768,32768
267.451,2.77556e-17,0,32768,32768
267.501,2.77556e-17,0,32768,32768
267.551,2.77556e-17,0,32768,32768
267.6,2.77556e-17,0,32768,32768
267.65,2.77556e-17,0,32768,32768
267.7,2.77556e-17,0,32768,32768
267.751,2.77556e-17,0,32768,32768
267.801,2.77556e-17,0,32768,32768
267.851,2.77556e-17,0,32768,32768
267.901,2.77556e-17,0,32768,32768
267.95,2.77556e-17,0,32768,32768
268,2.77556e-17,0,32768,32768
268.05,2.77556e-17,0,32768,32768
268.101,2.77556e-17,0,32768,32768
268.151,2.77556e-17,0,32768,32768
268.201,2.77556e-17,0,32768,32768
268.251,2.77556e-17,0,32768,32768
268.301,2.77556e-17,0,32768,32768
268.35,2.77556e-17,0,32768,32768
268.4,2.77556e-17,0,32768,32768
268.451,2.77556e-17,0,32768,32768
268.501,2.77556e-17,0,32768,32768
268.551,2.77556e-17,0,32768,32768
268.601,2.77556e-17,0,32768,32768
268.651,2.77556e-17,0,32768,32768
268.7,5.55112e-17,0,32768,32768
268.75,5.55112e-17,0,32768,32768
268.801,8.32667e-17,0,32768,32768
268.851,5.55112e-17,0,32768,32768
268.901,8.32667e-17,0,32768,32768
268.951,8.32667e-17,0,32768,32768
269.001,8.32667e-17,0,32768,32768
269.05,5.55112e-17,0,32768,32768
269.1,5.55112e-17,0,32768,32768
269.15,5.55112e-17,0,32768,32768
269.201,5.55112e-17,0,32768,32768
269.251,5.55112e-17,0,32768,32768
269.301,5.55112e-17,0,32768,32768
269.351,5.55112e-17,0,32768,32768
269.4,5.55112e-17,0,32768,32768
269.45,5.55112e-17,0,32768,32768
269.5,5.55112e-17,0,32768,32768
269.551,8.32667e-17,0,32768,32768
269.601,8.32667e-17,0,32768,32768
269.651,8.32667e-17,0,32768,32768
269.701,8.32667e-17,0,32768,32768
269.751,5.55112e-17,0,32768,32768
269.8,8.32667e-17,0,32768,32768
269.85,5.55112e-17,0,32768,32768
269.901,5.55112e-17,0,32768,32768
269.951,5.55112e-17,0,32768,32768
270.001,5.55112e-17,0,32768,32768
270.051,5.55112e-17,0,32768,32768
270.101,-2.77556e-17,0,32768,32768
270.15,-2.77556e-17,0,32768,32768
270.2,2.77556e-17,0,32768,32768
270.251,0,0,32768,32768
270.301,2.77556e-17,0,32768,32768
270.351,5.55112e-17,0,32768,32768
270.401,2.77556e-17,0,32768,32768
270.451,5.55112e-17,0,32768,32768
270.5,2.77556e-17,0,32768,32768
270.551,2.77556e-17,0,32776,32776
270.6,2.77556e-17,0,33144,33144
270.651,2.77556e-17,0,33544,33544
270.7,2.77556e-17,0,34008,34008
270.75,2.77556e-17,0,34568,34568
270.801,2.77556e-17,0,35208,35208
270.851,2.77556e-17,0,35864,35864
270.9,2.77556e-17,0,36536,36536
270.95,2.77556e-17,0,37208,37208
271.001,2.77556e-17,0,37848,37848
271.05,2.77556e-17,0,38504,38504
271.1,2.77556e-17,0,39176,39176
271.15,2.77556e-17,0,39848,39848
271.201,2.77556e-17,0,40552,40552
271.25,2.77556e-17,0,41208,41208
271.3,2.77556e-17,0,41880,41880
271.351,2.77556e-17,0,42552,42552
271.4,2.77556e-17,0,43224,43224
271.45,2.77556e-17,0,43632,43632
271.5,2.77556e-17,0,43632,43632
271.551,2.77556e-17,0,43632,43632
271.6,2.77556e-17,0,43648,43648
271.65,2.77556e-17,0,43632,43632
271.701,2.77556e-17,0,43616,43616
271.751,2.77556e-17,0,43624,43624
271.8,2.77556e-17,0,43896,43896
271.85,2.77556e-17,0,44280,44280
271.901,2.77556e-17,0,44808,44808
271.95,2.77556e-17,0,45432,45432
272,2.77556e-17,0,46072,46072
272.05,2.77556e-17,0,46744,46744
272.101,2.77556e-17,0,47368,47368
272.15,2.77556e-17,0,48120,48120
272.2,2.77556e-17,0,48936,48936
272.251,2.77556e-17,0,49560,49560
272.3,2.77556e-17,0,50344,50344
272.35,2.77556e-17,0,51064,51064
272.4,2.77556e-17,0,51864,51864
272.451,2.77556e-17,0,52536,52536
272.5,0,0,53144,53144
272.55,0,0,53800,53800
272.6,0,0,54504,54504
272.651,0,0,55112,55112
272.7,0,0,55768,55768
272.75,0,0,56440,56440
272.801,0,0,57096,57096
272.85,0,0,57736,57736
272.9,0,0,58344,58344
272.95,0,0,59064,59064
273.001,0,0,59784,59784
273.05,0,0,60240,60240
273.1,0,0,60480,60480
273.151,0,0,60400,60400
273.201,0,0,60480,60480
273.25,0,0,60544,60544
273.3,0,0,60400,60400
273.351,0,0,60400,60400
273.4,0,0,60304,60304
273.45,0,0,60224,60224
273.5,0,0,60224,60224
273.551,0,0,60016,60016
273.6,0,0,60016,60016
273.65,0,0,59952,59952
273.701,0,0,59856,59856
273.75,0,0,59792,59792
273.8,0,0,59840,59840
273.85,8.32667e-17,0,59696,59696
273.901,1.66533e-16,0,59664,59664
273.95,-8.88178e-15,0,59568,59568
274,-1.29757e-13,0,59512,59512
274.051,-9.70002e-13,0,59520,59520
274.101,-4.84102e-12,0,59440,59440
274.15,-1.78852e-11,0,59440,59440
274.2,-5.04665e-11,0,59296,59296
274.251,-1.11823e-10,0,59184,59184
274.3,-1.9194e-10,0,59232,59232
274.35,-2.58296e-10,0,59104,59104
274.4,-2.66601e-10,0,59040,59040
274.451,-1.93123e-10,0,59056,59056
274.5,-6.47727e-11,0,58928,58928
274.55,5.89412e-11,0,58896,58896
274.601,1.23603e-10,0,58848,58848
274.65,1.15352e-10,0,58608,58608
274.7,7.15021e-11,0,58656,58656
274.75,4.41585e-11,0,58544,58544
274.8,6.08773e-11,0,58448,58448
274.85,1.06109e-10,0,58320,58320
274.9,1.39304e-10,0,58224,58224
274.951,1.34756e-10,0,58160,58160
275.001,1.01861e-10,0,58032,58032
275.051,7.4434e-11,0,58000,58000
275.1,7.85455e-11,0,57856,57856
275.151,1.1112e-10,0,57808,57808
275.2,1.43925e-10,0,57648,57648
275.25,1.50756e-10,0,57648,57648
275.301,1.27283e-10,0,57584,57584
275.35,9.45182e-11,0,57424,57424
275.401,8.01404e-11,0,57360,57360
275.451,9.90646e-11,0,57280,57280
275.501,1.38712e-10,0,57152,57152
275.55,1.66137e-10,0,57168,57168
275.601,1.53487e-10,0,57104,57104
275.65,1.04797e-10,0,56960,56960
275.7,6.2712e-11,0,56864,56864
275.75,7.69032e-11,0,56816,56816
275.801,1.49612e-10,0,56720,56720
275.85,2.13861e-10,0,56624,56624
275.9,2.05086e-10,0,56480,56480
275.95,1.88668e-10,0,56400,56400
276,4.6291e-10,0,56336,56336
276.051,1.51347e-09,0,56400,56400
276.1,3.74921e-09,0,56256,56256
276.15,7.3324e-09,0,56064,56064
276.2,1.20088e-08,0,56064,56064
276.251,1.72055e-08,0,55952,55952
276.3,2.22144e-08,0,55888,55888
276.35,2.67492e-08,0,55904,55904
276.4,3.08544e-08,0,55792,55792
276.45,3.50049e-08,0,55760,55760
276.5,3.9949e-08,0,55744,55744
276.55,4.63223e-08,0,55616,55616
276.601,5.48624e-08,0,55568,55568
276.65,6.52804e-08,0,55520,55520
276.7,7.79434e-08,0,55488,55488
276.751,9.23683e-08,0,55408,55408
276.8,1.07775e-07,0,55312,55312
276.85,1.23724e-07,0,55280,55280
276.9,1.48035e-07,0,55232,55232
276.951,1.9277e-07,0,55184,55184
277,2.37679e-07,0,55104,55104
277.051,2.8811e-07,0,55072,55072
277.101,3.41378e-07,0,54960,54960
277.151,3.96299e-07,0,54992,54992
277.2,4.514e-07,0,54896,54896
277.251,5.09864e-07,0,54864,54864
277.301,5.71214e-07,0,54752,54752
277.351,6.36145e-07,0,54752,54752
277.401,7.01666e-07,0,54672,54672
277.45,7.62194e-07,0,54672,54672
277.5,8.1493e-07,0,54608,54608
277.551,8.57951e-07,0,54592,54592
277.601,8.88863e-07,0,54512,54512
277.65,9.08975e-07,0,54416,54416
277.701,9.20788e-07,0,54480,54480
277.75,9.24382e-07,0,54400,54400
277.8,9.23829e-07,0,54384,54384
277.851,9.2074e-07,0,54288,54288
277.9,9.14826e-07,0,54304,54304
277.951,9.05631e-07,0,54160,54160
278,8.9362e-07,0,54224,54224
278.05,8.7928e-07,0,54192,54192
278.101,8.63696e-07,0,54112,54112
278.151,8.14264e-07,0,54128,54128
278.2,7.65347e-07,0,54144,54144
278.251,7.11538e-07,0,54096,54096
278.3,6.55212e-07,0,54080,54080
278.351,5.97069e-07,0,54032,54032
278.4,5.41743e-07,0,54000,54000
278.451,4.8872e-07,0,53952,53952
278.501,4.40628e-07,0,53920,53920
278.55,3.96441e-07,0,53760,53760
278.6,3.557e-07,0,53760,53760
278.65,3.17725e-07,0,53680,53680
278.7,2.81836e-07,0,53552,53552
278.751,2.47595e-07,0,53504,53504
278.801,2.15115e-07,0,54304,54304
278.85,1.85938e-07,0,54064,54064
278.901,1.606e-07,0,53792,53792
278.95,1.41216e-07,0,53784,53784
279.001,1.26376e-07,0,53512,53512
279.05,1.1415e-07,0,53320,53320
279.101,1.01305e-07,0,53064,53064
279.151,8.73635e-08,0,52792,52792
279.2,7.32198e-08,0,52744,52744
279.25,6.06658e-08,0,52376,52376
279.3,5.07155e-08,0,51992,51992
279.35,4.30363e-08,0,51816,51816
279.4,4.06213e-08,0,51400,51400
279.451,3.74438e-08,0,50840,50840
279.5,3.35494e-08,0,50504,50504
279.55,2.90243e-08,0,50008,50008
279.601,2.44185e-08,0,49672,49672
279.65,2.04698e-08,0,49496,49496
279.7,1.76872e-08,0,49128,49128
279.751,1.63337e-08,0,48904,48904
279.801,1.63849e-08,0,48568,48568
279.851,1.74891e-08,0,48296,48296
279.901,1.92688e-08,0,48136,48136
279.951,2.14558e-08,0,46584,46584
280.001,2.39207e-08,0,45000,45000
280.05,2.65724e-08,0,43592,43592
280.1,2.94474e-08,0,42320,42320
280.151,3.25866e-08,0,39280,39280
280.201,3.58387e-08,0,36904,36904
280.25,3.91919e-08,0,35704,35704
280.301,4.27676e-08,0,37400,37400
280.351,4.65358e-08,0,40264,40264
280.4,5.03615e-08,0,40952,40952
280.45,5.43982e-08,0,41288,41288
280.501,5.86316e-08,0,42104,42104
280.551,6.28653e-08,0,42856,42856
280.6,6.7173e-08,0,43304,43304
280.65,7.16231e-08,0,43688,43688
280.701,7.63996e-08,0,44488,44488
280.751,8.15434e-08,0,44680,44680
280.8,8.70784e-08,0,45224,45224
280.851,9.33139e-08,0,45448,45448
280.901,1.00161e-07,0,45816,45816
280.95,1.07363e-07,0,45848,45848
281,1.15005e-07,0,46152,46152
281.05,1.22678e-07,0,46488,46488
281.101,1.30331e-07,0,46872,46872
281.151,1.37741e-07,0,47320,47320
281.201,1.45258e-07,0,47560,47560
281.25,1.53173e-07,0,47816,47816
281.301,1.62025e-07,0,48296,48296
281.35,1.71808e-07,0,48728,48728
281.401,1.83111e-07,0,49240,49240
281.45,1.95558e-07,0,49720,49720
281.501,2.09664e-07,0,50360,50360
281.551,2.25197e-07,0,50712,50712
281.6,2.41171e-07,0,51320,51320
281.65,2.68053e-07,0,51832,51832
281.7,3.03842e-07,0,52360,52360
281.75,3.48501e-07,0,52304,52304
281.801,3.95327e-07,0,52528,52528
281.851,4.42981e-07,0,52528,52528
281.9,4.92551e-07,0,51696,51696
281.95,5.44144e-07,0,51856,51856
282.001,5.97471e-07,0,51936,51936
282.05,6.50748e-07,0,52160,52160
282.101,7.05558e-07,0,52464,52464
282.151,7.5932e-07,0,52864,52864
282.2,8.07915e-07,0,53088,53088
282.25,8.5036e-07,0,53232,53232
282.301,8.82001e-07,0,53360,53360
282.351,9.03824e-07,0,53520,53520
282.401,9.14722e-07,0,53616,53616
282.45,9.14234e-07,0,53696,53696
282.5,9.09158e-07,0,53728,53728
282.55,8.99544e-07,0,53808,53808
282.601,8.86133e-07,0,53840,53840
282.65,8.71209e-07,0,53856,53856
282.701,8.49588e-07,0,53840,53840
282.75,8.24998e-07,0,53952,53952
282.801,7.98922e-07,0,53904,53904
282.851,7.67034e-07,0,53968,53968
282.9,7.19131e-07,0,53952,53952
282.95,6.62753e-07,0,54016,54016
283,6.01983e-07,0,54032,54032
283.051,5.38975e-07,0,54096,54096
283.1,4.77472e-07,0,54080,54080
283.151,4.165e-07,0,54112,54112
283.201,3.58892e-07,0,54176,54176
283.251,3.05691e-07,0,54208,54208
283.3,2.57242e-07,0,54176,54176
283.351,2.12733e-07,0,54240,54240
283.401,1.7235e-07,0,54288,54288
283.45,1.35694e-07,0,54320,54320
283.501,1.0048e-07,0,54288,54288
283.55,6.88549e-08,0,54416,54416
283.601,4.01121e-08,0,54384,54384
283.651,1.56005e-08,0,54480,54480
283.701,-4.12537e-09,0,54448,54448
283.751,-1.94378e-08,0,54560,54560
283.8,-3.16979e-08,0,54576,54576
283.85,-4.27144e-08,0,54624,54624
283.9,-5.31356e-08,0,54656,54656
283.95,-6.31239e-08,0,54688,54688
284,-7.2157e-08,0,54720,54720
284.05,-7.90339e-08,0,54784,54784
284.101,-8.09459e-08,0,54816,54816
284.151,-8.21734e-08,0,54928,54928
284.2,-8.26563e-08,0,54960,54960
284.25,-8.26291e-08,0,54928,54928
284.3,-8.23199e-08,0,55104,55104
284.35,-8.17711e-08,0,55088,55088
284.4,-8.0862e-08,0,55184,55184
284.45,-7.94192e-08,0,55248,55248
284.501,-7.72841e-08,0,55312,55312
284.55,-7.45363e-08,0,55296,55296
284.6,-7.12035e-08,0,55424,55424
284.651,-6.74523e-08,0,55440,55440
284.7,-6.36056e-08,0,55504,55504
284.75,-5.97706e-08,0,55552,55552
284.8,-5.6015e-08,0,55616,55616
284.85,-5.24915e-08,0,55664,55664
284.9,-4.92546e-08,0,55696,55696
284.951,-4.62869e-08,0,55744,55744
285.001,-4.36507e-08,0,55808,55808
285.05,-4.13685e-08,0,55904,55904
285.1,-3.93474e-08,0,55952,55952
285.151,-3.75771e-08,0,56016,56016
285.2,-3.60911e-08,0,56080,56080
285.25,-3.48252e-08,0,56144,56144
285.3,-3.37855e-08,0,56240,56240
285.35,-3.29538e-08,0,56336,56336
285.4,-3.23134e-08,0,56480,56480
285.45,-3.18368e-08,0,56432,56432
285.501,-3.15121e-08,0,56528,56528
285.551,-3.13169e-08,0,56688,56688
285.6,-3.12324e-08,0,56704,56704
285.65,-3.12385e-08,0,56816,56816
285.7,-3.13198e-08,0,56784,56784
285.75,-3.14593e-08,0,56992,56992
285.8,-3.16412e-08,0,57056,57056
285.85,-3.18537e-08,0,57072,57072
285.901,-3.20903e-08,0,57136,57136
285.951,-3.23422e-08,0,57248,57248
286,-3.26006e-08,0,57328,57328
286.051,-3.28723e-08,0,57344,57344
286.1,-3.31404e-08,0,57456,57456
286.151,-3.34071e-08,0,57504,57504
286.2,-3.3658e-08,0,57600,57600
286.25,-3.38975e-08,0,57600,57600
286.301,-3.41239e-08,0,57776,57776
286.35,-3.43312e-08,0,57776,57776
286.4,-3.45222e-08,0,57856,57856
286.45,-3.46958e-08,0,57936,57936
286.501,-3.48531e-08,0,58016,58016
286.55,-3.49886e-08,0,58144,58144
286.6,-3.51039e-08,0,58176,58176
286.651,-3.51998e-08,0,58160,58160
286.7,-3.52739e-08,0,58288,58288
286.75,-3.53279e-08,0,58336,58336
286.8,-3.53622e-08,0,58288,58288
286.851,-3.53782e-08,0,58480,58480
286.9,-3.53764e-08,0,58512,58512
286.95,-3.5358e-08,0,58464,58464
287.001,-3.53246e-08,0,58576,58576
287.051,-3.52796e-08,0,58624,58624
287.1,-3.52246e-08,0,58624,58624
287.15,-3.51618e-08,0,58704,58704
287.201,-3.50917e-08,0,58736,58736
287.25,-3.5018e-08,0,58768,58768
287.3,-3.49419e-08,0,58688,58688
287.35,-3.4865e-08,0,58864,58864
287.401,-3.47873e-08,0,58848,58848
287.45,-3.4712e-08,0,58880,58880
287.5,-3.46391e-08,0,58928,58928
287.551,-3.45687e-08,0,58768,58768
287.6,-3.45037e-08,0,58912,58912
287.65,-3.44438e-08,0,58864,58864
287.7,-3.43891e-08,0,58688,58688
287.751,-3.43395e-08,0,58816,58816
287.8,-3.42969e-08,0,58960,58960
287.85,-3.42607e-08,0,59056,59056
287.901,-3.42311e-08,0,59056,59056
287.951,-3.42089e-08,0,58856,58856
288,-3.41937e-08,0,58200,58200
288.05,-3.41854e-08,0,57496,57496
288.101,-3.41843e-08,0,56856,56856
288.15,-3.41904e-08,0,56264,56264
288.2,-3.42039e-08,0,55592,55592
288.25,-3.4225e-08,0,55096,55096
288.301,-3.42539e-08,0,54424,54424
288.35,-3.42896e-08,0,53848,53848
288.4,-3.43322e-08,0,53368,53368
288.451,-3.43825e-08,0,52712,52712
288.5,-3.44389e-08,0,51992,51992
288.55,-3.45019e-08,0,51336,51336
288.6,-3.45715e-08,0,50712,50712
288.651,-3.46491e-08,0,49976,49976
288.7,-3.47328e-08,0,49968,49968
288.75,-3.48241e-08,0,49984,49984
288.8,-3.49236e-08,0,49952,49952
288.851,-3.50337e-08,0,49856,49856
288.9,-3.51528e-08,0,49920,49920
288.95,-3.52846e-08,0,49904,49904
289.001,-3.54339e-08,0,49936,49936
289.05,-3.55992e-08,0,49496,49496
289.1,-3.57851e-08,0,48728,48728
289.15,-3.59934e-08,0,48120,48120
289.201,-3.62294e-08,0,47384,47384
289.25,-3.64873e-08,0,46776,46776
289.3,-3.67709e-08,0,46104,46104
289.351,-3.70846e-08,0,45400,45400
289.401,-3.74185e-08,0,44712,44712
289.45,-3.77756e-08,0,44040,44040
289.5,-3.81536e-08,0,43384,43384
289.551,-3.85553e-08,0,42696,42696
289.6,-3.89649e-08,0,42008,42008
289.65,-3.93834e-08,0,41336,41336
289.7,-3.98054e-08,0,40664,40664
289.751,-4.02318e-08,0,39928,39928
289.8,-4.06453e-08,0,39256,39256
289.85,-4.10478e-08,0,38584,38584
289.901,-4.1441e-08,0,37944,37944
289.95,-4.18099e-08,0,37224,37224
290,-4.21572e-08,0,36584,36584
290.05,-4.24798e-08,0,35896,35896
290.101,-4.27785e-08,0,35208,35208
290.15,-4.30414e-08,0,34568,34568
290.2,-4.32693e-08,0,33832,33832
290.251,-4.34612e-08,0,33192,33192
290.301,-4.36092e-08,0,32768,32768
290.351,-4.37127e-08,0,32768,32768
290.4,-4.37707e-08,0,32768,32768
290.45,-4.37829e-08,0,32768,32768
290.501,-4.3748e-08,0,32768,32768
290.551,-4.36691e-08,0,32768,32768
290.601,-4.35476e-08,0,32768,32768
290.651,-4.33849e-08,0,32768,32768
290.701,-4.3183e-08,0,32768,32768
290.75,-4.29435e-08,0,32768,32768
290.8,-4.26675e-08,0,32768,32768
290.85,-4.23549e-08,0,32768,32768
290.901,-4.19928e-08,0,32768,32768
290.951,-4.15991e-08,0,32768,32768
291.001,-4.11619e-08,0,32768,32768
291.051,-4.068e-08,0,32768,32768
291.1,-4.01532e-08,0,32768,32768
291.15,-3.95813e-08,0,32768,32768
291.2,-3.89645e-08,0,32768,32768
291.251,-3.82834e-08,0,32768,32768
291.301,-3.75786e-08,0,32768,32768
291.351,-3.68336e-08,0,32768,32768
291.401,-3.60511e-08,0,32768,32768
291.451,-3.52348e-08,0,32768,32768
291.5,-3.43901e-08,0,32768,32768
291.55,-3.35236e-08,0,32768,32768
291.601,-3.26167e-08,0,32768,32768
291.651,-3.17291e-08,0,32768,32768
291.701,-3.08417e-08,0,32768,32768
291.751,-2.99602e-08,0,32768,32768
291.801,-2.90887e-08,0,32768,32768
291.85,-2.82305e-08,0,32768,32768
291.9,-2.73889e-08,0,32768,32768
291.951,-2.65434e-08,0,32768,32768
292.001,-2.57468e-08,0,32768,32768
292.051,-2.49792e-08,0,32768,32768
292.101,-2.42456e-08,0,32768,32768
292.151,-2.3551e-08,0,32768,32768
292.2,-2.29003e-08,0,32768,32768
292.25,-2.2297e-08,0,32768,32768
292.3,-2.17432e-08,0,32768,32768
292.351,-2.12252e-08,0,32768,32768
292.401,-2.0772e-08,0,32768,32768
292.451,-2.03658e-08,0,32768,32768
292.501,-2.00041e-08,0,32768,32768
292.55,-1.96837e-08,0,32768,32768
292.6,-1.94014e-08,0,32768,32768
292.65,-1.91539e-08,0,32768,32768
292.701,-1.89324e-08,0,32768,32768
292.751,-1.87463e-08,0,32768,32768
292.801,-1.85862e-08,0,32768,32768
292.851,-1.84488e-08,0,32768,32768
292.901,-1.83313e-08,0,32768,32768
292.95,-1.82306e-08,0,32768,32768
293,-1.81438e-08,0,32768,32768
293.051,-1.80663e-08,0,32768,32768
293.101,-1.80005e-08,0,32768,32768
293.151,-1.79425e-08,0,32768,32768
293.201,-1.78908e-08,0,32768,32768
293.251,-1.78442e-08,0,32768,32768
293.3,-1.7801e-08,0,32768,32768
293.35,-1.77599e-08,0,32768,32768
293.401,-1.77186e-08,0,32768,32768
293.451,-1.76786e-08,0,32768,32768
293.501,-1.7638e-08,0,32768,32768
293.551,-1.75961e-08,0,32768,32768
293.601,-1.75514e-08,0,32768,32768
293.65,-1.75025e-08,0,32768,32768
293.7,-1.74487e-08,0,32768,32768
293.751,-1.73888e-08,0,32768,32768
293.801,-1.73266e-08,0,32768,32768
293.851,-1.72595e-08,0,32768,32768
293.901,-1.7185e-08,0,32768,32768
293.951,-1.71019e-08,0,32768,32768
294,-1.70106e-08,0,32768,32768
294.05,-1.69114e-08,0,32768,32768
294.1,-1.68041e-08,0,32768,32768
294.151,-1.66853e-08,0,32768,32768
294.201,-1.65627e-08,0,32768,32768
294.251,-1.64344e-08,0,32768,32768
294.301,-1.63007e-08,0,32768,32768
294.35,-1.61612e-08,0,32768,32768
294.4,-1.6015e-08,0,32768,32768
294.45,-1.58622e-08,0,32768,32768
294.501,-1.56985e-08,0,32768,32768
294.551,-1.55343e-08,0,32768,32768
294.601,-1.53662e-08,0,32768,32768
294.651,-1.51952e-08,0,32768,32768
294.701,-1.50222e-08,0,32768,32768
294.75,-1.48472e-08,0,32768,32768
294.8,-1.46694e-08,0,32768,32768
294.851,-1.44823e-08,0,32768,32768
294.901,-1.42949e-08,0,32768,32768
294.951,-1.41e-08,0,32768,32768
295.001,-1.38964e-08,0,32768,32768
295.051,-1.36835e-08,0,32768,32768
295.1,-1.34615e-08,0,32768,32768
295.15,-1.32307e-08,0,32768,32768
295.201,-1.29843e-08,0,32768,32768
295.251,-1.27366e-08,0,32768,32768
295.301,-1.2482e-08,0,32768,32768
295.351,-1.22215e-08,0,32768,32768
295.401,-1.19546e-08,0,32768,32768
295.45,-1.16786e-08,0,32768,32768
295.5,-1.13899e-08,0,32768,32768
295.55,-1.10851e-08,0,32768,32768
295.601,-1.07517e-08,0,32768,32768
295.651,-1.04062e-08,0,32768,32768
295.701,-1.00369e-08,0,32768,32768
295.751,-9.64133e-09,0,32768,32768
295.8,-9.21728e-09,0,32768,32768
295.85,-8.76325e-09,0,32768,32768
295.9,-8.2781e-09,0,32768,32768
295.951,-7.74527e-09,0,32768,32768
296.001,-7.19476e-09,0,32768,32768
296.051,-6.61209e-09,0,32768,32768
296.101,-5.99853e-09,0,32768,32768
296.151,-5.35647e-09,0,32768,32768
296.2,-4.68955e-09,0,32768,32768
296.25,-4.00258e-09,0,32768,32768
296.301,-3.28038e-09,0,32768,32768
296.351,-2.57029e-09,0,32768,32768
296.401,-1.85743e-09,0,32768,32768
296.451,-1.14681e-09,0,32768,32768
296.501,-4.42866e-10,0,32768,32768
296.55,2.50139e-10,0,32768,32768
296.6,9.2796e-10,0,32768,32768
296.651,1.60546e-09,0,32768,32768
296.701,2.2399e-09,0,32768,32768
296.751,2.84723e-09,0,32768,32768
296.801,3.42369e-09,0,32768,32768
296.851,3.96544e-09,0,32768,32768
296.9,4.46869e-09,0,32768,32768
296.95,4.92997e-09,0,32768,32768
297,5.34648e-09,0,32768,32768
297.051,5.72649e-09,0,32768,32768
297.101,6.04745e-09,0,32768,32768
297.151,6.32124e-09,0,32768,32768
297.201,6.54922e-09,0,32768,32768
297.25,6.73354e-09,0,32768,32768
297.3,6.87697e-09,0,32768,32768
297.35,6.9826e-09,0,32768,32768
297.401,7.05533e-09,0,32768,32768
297.451,7.09437e-09,0,32768,32768
297.501,7.10558e-09,0,32768,32768
297.551,7.09216e-09,0,32768,32768
297.601,7.05727e-09,0,32768,32768
297.65,7.00398e-09,0,32768,32768
297.7,6.93522e-09,0,32768,32768
297.751,6.85122e-09,0,32768,32768
297.801,6.75934e-09,0,32768,32768
297.851,6.65958e-09,0,32768,32768
297.901,6.55391e-09,0,32768,32768
297.951,6.44405e-09,0,32768,32768
298,6.33158e-09,0,32768,32768
298.05,6.21789e-09,0,32768,32768
298.101,6.10094e-09,0,32768,32768
298.151,5.98857e-09,0,32768,32768
298.201,5.87843e-09,0,32768,32768
298.251,5.77142e-09,0,32768,32768
298.301,5.66836e-09,0,32768,32768
298.35,5.56998e-09,0,32768,32768
298.4,5.47684e-09,0,32768,32768
298.451,5.38681e-09,0,32768,32768
298.501,5.30527e-09,0,32768,32768
298.551,5.22972e-09,0,32768,32768
298.601,5.16039e-09,0,32768,32768
298.651,5.09754e-09,0,32768,32768
298.7,5.0413e-09,0,32768,32768
298.75,4.99161e-09,0,32768,32768
298.8,4.94812e-09,0,32768,32768
298.851,4.90918e-09,0,32768,32768
298.901,4.87622e-09,0,32768,32768
298.951,4.84714e-09,0,32768,32768
299.001,4.82107e-09,0,32768,32768
299.05,4.79728e-09,0,32768,32768
299.1,4.7752e-09,0,32768,32768
299.15,4.75436e-09,0,32768,32768
299.201,4.73368e-09,0,32768,32768
299.251,4.71371e-09,0,32768,32768
299.301,4.69303e-09,0,32768,32768
299.351,4.67076e-09,0,32768,32768
299.401,4.64609e-09,0,32768,32768
299.45,4.61845e-09,0,32768,32768
299.5,4.58762e-09,0,32768,32768
299.551,4.55284e-09,0,32768,32768
299.601,4.51675e-09,0,32768,32768
299.651,4.47935e-09,0,32768,32768
299.701,4.44165e-09,0,32768,32768
299.751,4.40455e-09,0,32768,32768
299.8,4.36867e-09,0,32768,32768
299.85,4.33428e-09,0,32768,32768
299.901,4.30038e-09,0,32768,32768
299.951,4.26857e-09,0,32768,32768
300.001,4.23735e-09,0,32768,32768
300.051,4.20621e-09,0,32768,32768
300.101,4.17486e-09,0,32768,32768
300.15,4.1434e-09,0,32768,32768
300.2,4.11238e-09,0,32768,32768
300.25,4.08257e-09,0,32768,32768
300.301,4.05397e-09,0,32768,32768
300.351,4.02871e-09,0,32768,32768
300.401,4.00602e-09,0,32768,32768
300.451,3.98562e-09,0,32768,32768
300.5,3.967e-09,0,32768,32768
300.55,3.94954e-09,0,32768,32768
300.6,3.93265e-09,0,32768,32768
300.651,3.9154e-09,0,32768,32768
300.701,3.8985e-09,0,32768,32768
300.751,3.88135e-09,0,32768,32768
300.801,3.86392e-09,0,32768,32768
300.851,3.8462e-09,0,32768,32768
300.9,3.82812e-09,0,32768,32768
300.95,3.80951e-09,0,32768,32768
301.001,3.78959e-09,0,32768,32768
301.051,3.76933e-09,0,32768,32768
301.101,3.74815e-09,0,32768,32768
301.151,3.72616e-09,0,32768,32768
301.201,3.7036e-09,0,32768,32768
301.25,3.68074e-09,0,32768,32768
301.3,3.65775e-09,0,32768,32768
301.351,3.63402e-09,0,32768,32768
301.401,3.61085e-09,0,32768,32768
301.451,3.58745e-09,0,32768,32768
301.501,3.56375e-09,0,32768,32768
301.551,3.53971e-09,0,32768,32768
301.6,3.51535e-09,0,32768,32768
301.65,3.49069e-09,0,32768,32768
301.7,3.46576e-09,0,32768,32768
301.751,3.4398e-09,0,32768,32768
301.801,3.41423e-09,0,32768,32768
301.851,3.38827e-09,0,32768,32768
301.901,3.36183e-09,0,32768,32768
301.95,3.33487e-09,0,32768,32768
302,3.30737e-09,0,32768,32768
302.05,3.27931e-09,0,32768,32768
302.101,3.2499e-09,0,32768,32768
302.151,3.22087e-09,0,32768,32768
302.201,3.19146e-09,0,32768,32768
302.251,3.16173e-09,0,32768,32768
302.301,3.13176e-09,0,32768,32768
302.35,3.10159e-09,0,32768,32768
302.4,3.07128e-09,0,32768,32768
302.451,3.03996e-09,0,32768,32768
302.501,3.00944e-09,0,32768,32768
302.551,2.97885e-09,0,32768,32768
302.601,2.94818e-09,0,32768,32768
302.651,2.91744e-09,0,32768,32768
302.7,2.88662e-09,0,32768,32768
302.75,2.85572e-09,0,32768,32768
302.801,2.82379e-09,0,32768,32768
302.851,2.79266e-09,0,32768,32768
302.901,2.76138e-09,0,32768,32768
302.951,2.72994e-09,0,32768,32768
303.001,2.6983e-09,0,32768,32768
303.05,2.66643e-09,0,32768,32768
303.1,2.6343e-09,0,32768,32768
303.151,2.6009e-09,0,32768,32768
303.201,2.56811e-09,0,32768,32768
303.251,2.53493e-09,0,32768,32768
303.301,2.50134e-09,0,32768,32768
303.351,2.4673e-09,0,32768,32768
303.4,2.43278e-09,0,32768,32768
303.45,2.39774e-09,0,32768,32768
303.5,2.36217e-09,0,32768,32768
303.551,2.32497e-09,0,32768,32768
303.601,2.28826e-09,0,32768,32768
303.651,2.25097e-09,0,32768,32768
303.701,2.21311e-09,0,32768,32768
303.75,2.17467e-09,0,32768,32768
303.8,2.13568e-09,0,32768,32768
303.85,2.09615e-09,0,32768,32768
303.901,2.05493e-09,0,32768,32768
303.951,2.0144e-09,0,32768,32768
304.001,1.97342e-09,0,32768,32768
304.051,1.93204e-09,0,32768,32768
304.101,1.8903e-09,0,32768,32768
304.15,1.84825e-09,0,32768,32768
304.2,1.80594e-09,0,32768,32768
304.251,1.76219e-09,0,32768,32768
304.301,1.71954e-09,0,32768,32768
304.351,1.67682e-09,0,32768,32768
304.401,1.63409e-09,0,32768,32768
304.451,1.59142e-09,0,32768,32768
304.5,1.54887e-09,0,32768,32768
304.55,1.5065e-09,0,32768,32768
304.601,1.46314e-09,0,32768,32768
304.651,1.42133e-09,0,32768,32768
304.701,1.37988e-09,0,32768,32768
304.751,1.33884e-09,0,32768,32768
304.801,1.29826e-09,0,32768,32768
304.85,1.25819e-09,0,32768,32768
304.9,1.21866e-09,0,32768,32768
304.95,1.17973e-09,0,32768,32768
