250,0,0,8192,8192
250.003,0,0,8192,8192
250.053,0,0,8192,8192
250.103,2.77556e-17,0,8192,8192
250.152,2.77556e-17,0,8192,8192
250.202,0,0,8192,8192
250.252,0,0,8192,8192
250.302,-2.77556e-17,0,8192,8192
250.352,0,0,8192,8192
250.401,0,0,8192,8192
250.451,2.77556e-17,0,8192,8192
250.501,2.77556e-17,0,8192,8192
250.551,2.77556e-17,0,8192,8192
250.6,0,0,8192,8192
250.65,2.77556e-17,0,8192,8192
250.7,-2.77556e-17,0,8192,8192
250.753,0,0,8192,8192
250.803,-2.77556e-17,0,8192,8192
250.852,0,0,8192,8192
250.902,0,0,8192,8192
250.952,0,0,8192,8192
251.002,0,0,8192,8192
251.052,0,0,8192,8192
251.101,0,0,8192,8192
251.151,0,0,8192,8192
251.201,2.77556e-17,0,8192,8192
251.251,2.77556e-17,0,8192,8192
251.301,2.77556e-17,0,8192,8192
251.35,0,0,8192,8192
251.4,5.55112e-17,0,8192,8192
251.453,0,0,8192,8192
251.503,0,0,8192,8192
251.553,-2.77556e-17,0,8192,8192
251.602,0,0,8192,8192
251.652,0,0,8192,8192
251.702,0,0,8192,8192
251.752,0,0,8192,8192
251.801,5.55112e-17,0,8192,8192
251.851,0,0,8192,8192
251.901,2.77556e-17,0,8192,8192
251.951,2.77556e-17,0,8192,8192
252.001,2.77556e-17,0,8192,8192
252.05,0,0,8192,8192
252.1,0,0,8192,8192
252.15,0,0,8192,8192
252.203,-5.55112e-17,0,8192,8192
252.253,-2.77556e-17,0,8192,8192
252.302,0,0,8192,8192
252.352,2.77556e-17,0,8192,8192
252.402,2.77556e-17,0,8192,8192
252.452,2.77556e-17,0,8192,8192
252.502,0,0,8192,8192
252.551,2.77556e-17,0,8192,8192
252.601,0,0,8192,8192
252.651,0,0,8192,8192
252.701,-2.77556e-17,0,8192,8192
252.751,0,0,8192,8192
252.8,2.77556e-17,0,8192,8192
252.85,2.77556e-17,0,8192,8192
252.903,2.77556e-17,0,8192,8192
252.953,2.77556e-17,0,8192,8192
253.002,0,0,8192,8192
253.052,2.77556e-17,0,8192,8192
253.102,0,0,8192,8192
253.152,2.77556e-17,0,8192,8192
253.202,0,0,8192,8192
253.251,2.77556e-17,0,8192,8192
253.301,2.77556e-17,0,8192,8192
253.351,0,0,8192,8192
253.401,2.77556e-17,0,8192,8192
253.451,2.77556e-17,0,8192,8192
253.5,2.77556e-17,0,8192,8192
253.55,2.77556e-17,0,8192,8192
253.6,0,0,8192,8192
253.653,2.77556e-17,0,8192,8192
253.703,2.77556e-17,0,8192,8192
253.752,0,0,8192,8192
253.802,0,0,8192,8192
253.852,0,0,8192,8192
253.902,-2.77556e-17,0,8192,8192
253.952,-5.55112e-17,0,8192,8192
254.001,-8.32667e-17,0,8192,8192
254.051,-2.77556e-17,0,8192,8192
254.101,2.77556e-17,0,8192,8192
254.151,0,0,8192,8192
254.201,-2.77556e-17,0,8192,8192
254.25,-5.55112e-17,0,8192,8192
254.3,-5.55112e-17,0,8192,8192
254.353,-5.55112e-17,0,8192,8192
254.403,-2.77556e-17,0,8192,8192
254.452,-2.77556e-17,0,8192,8192
254.502,0,0,8192,8192
254.552,-2.77556e-17,0,8192,8192
254.602,-2.77556e-17,0,8192,8192
254.652,-2.77556e-17,0,8192,8192
254.701,2.77556e-17,0,8192,8192
254.751,2.77556e-17,0,8192,8192
254.801,5.55112e-17,0,8192,8192
254.851,5.55112e-17,0,8192,8192
254.901,5.55112e-17,0,8192,8192
254.95,8.32667e-17,0,8192,8192
255,5.55112e-17,0,8192,8192
255.05,2.77556e-17,0,8192,8192
255.103,5.55112e-17,0,8192,8192
255.153,2.77556e-17,0,8192,8192
255.202,2.77556e-17,0,8192,8192
255.252,0,0,8192,8192
255.302,0,0,8192,8192
255.352,2.77556e-17,0,8192,8192
255.402,2.77556e-17,0,8192,8192
255.451,2.77556e-17,0,8192,8192
255.501,5.55112e-17,0,8192,8192
255.551,2.77556e-17,0,8192,8192
255.601,8.32667e-17,0,8192,8192
255.651,5.55112e-17,0,8192,8192
255.7,8.32667e-17,0,8192,8192
255.75,5.55112e-17,0,8192,8192
255.803,2.77556e-17,0,8192,8192
255.853,2.77556e-17,0,8192,8192
255.902,0,0,8192,8192
255.952,-2.77556e-17,0,8192,8192
256.002,0,0,8192,8192
256.052,0,0,8192,8192
256.102,0,0,8192,8192
256.151,2.77556e-17,0,8192,8192
256.201,2.77556e-17,0,8192,8192
256.251,2.77556e-17,0,8192,8192
256.301,0,0,8192,8192
256.351,-2.77556e-17,0,8192,8192
256.4,0,0,8192,8192
256.45,2.77556e-17,0,8192,8192
256.5,2.77556e-17,0,8192,8192
256.553,-2.77556e-17,0,8192,8192
256.603,2.77556e-17,0,8192,8192
256.652,2.77556e-17,0,8192,8192
256.702,5.55112e-17,0,8192,8192
256.752,5.55112e-17,0,8192,8192
256.802,5.55112e-17,0,8192,8192
256.852,2.77556e-17,0,8192,8192
256.901,2.77556e-17,0,8192,8192
256.951,2.77556e-17,0,8192,8192
257.001,5.55112e-17,0,8192,8192
257.051,8.32667e-17,0,8192,8192
257.101,1.11022e-16,0,8192,8192
257.15,8.32667e-17,0,8192,8192
257.2,8.32667e-17,0,8192,8192
257.253,1.11022e-16,0,8192,8192
257.303,2.77556e-17,0,8192,8192
257.352,2.77556e-17,0,8192,8192
257.402,2.77556e-17,0,8192,8192
257.452,2.77556e-17,0,8192,8192
257.502,0,0,8192,8192
257.552,2.77556e-17,0,8192,8192
257.601,0,0,8192,8192
257.651,-2.77556e-17,0,8192,8192
257.701,0,0,8192,8192
257.751,2.77556e-17,0,8192,8192
257.801,0,0,8192,8192
257.85,0,0,8192,8192
257.9,0,0,8192,8192
257.95,-2.77556e-17,0,8192,8192
258.003,-2.77556e-17,0,8192,8192
258.053,2.77556e-17,0,8192,8192
258.102,0,0,8192,8192
258.152,0,0,8192,8192
258.202,0,0,8192,8192
258.252,0,0,8192,8192
258.302,-2.77556e-17,0,8192,8192
258.351,-2.77556e-17,0,8192,8192
258.401,-2.77556e-17,0,8192,8192
258.451,-2.77556e-17,0,8192,8192
258.501,-2.77556e-17,0,8192,8192
258.551,-2.77556e-17,0,8192,8192
258.6,2.77556e-17,0,8192,8192
258.65,2.77556e-17,0,8192,8192
258.703,-5.55112e-17,0,8192,8192
258.753,-2.77556e-17,0,8192,8192
258.802,0,0,8192,8192
258.852,-2.77556e-17,0,8192,8192
258.902,-2.77556e-17,0,8192,8192
258.952,0,0,8192,8192
259.002,0,0,8192,8192
259.051,0,0,8192,8192
259.101,0,0,8192,8192
259.151,-2.77556e-17,0,8192,8192
259.201,2.77556e-17,0,8192,8192
259.251,0,0,8192,8192
259.3,0,0,8192,8192
259.35,5.55112e-17,0,8192,8192
259.403,0,0,8192,8192
259.453,2.77556e-17,0,8192,8192
259.503,0,0,8192,8192
259.552,0,0,8192,8192
259.602,0,0,8192,8192
259.652,-2.77556e-17,0,8192,8192
259.702,-2.77556e-17,0,8192,8192
259.751,-2.77556e-17,0,8192,8192
259.801,-2.77556e-17,0,8192,8192
259.851,-2.77556e-17,0,8192,8192
259.901,-2.77556e-17,0,8192,8192
259.951,0,0,8192,8192
260,-2.77556e-17,0,8192,8192
260.05,-5.55112e-17,0,8192,8192
260.1,-8.32667e-17,0,8192,8192
260.153,-5.55112e-17,0,8192,8192
260.203,-2.77556e-17,0,8192,8192
260.252,0,0,8192,8192
260.302,0,0,8192,8192
260.352,0,0,8192,8192
260.402,0,0,8192,8192
260.452,2.77556e-17,0,8192,8192
260.501,2.77556e-17,0,8192,8192
260.551,0,0,8192,8192
260.601,-2.77556e-17,0,8192,8192
260.651,-2.77556e-17,0,8192,8192
260.701,-2.77556e-17,0,8192,8192
260.75,-2.77556e-17,0,8192,8192
260.8,-2.77556e-17,0,8192,8192
260.853,-5.55112e-17,0,8192,8192
260.903,-5.55112e-17,0,8192,8192
260.952,-2.77556e-17,0,8192,8192
261.002,-2.77556e-17,0,8192,8192
261.052,-2.77556e-17,0,8192,8192
261.102,-8.32667e-17,0,8192,8192
261.152,-5.55112e-17,0,8192,8192
261.201,-5.55112e-17,0,8192,8192
261.251,-2.77556e-17,0,8192,8192
261.301,-2.77556e-17,0,8192,8192
261.351,-2.77556e-17,0,8192,8192
261.401,-2.77556e-17,0,8192,8192
261.45,2.77556e-17,0,8192,8192
261.5,0,0,8192,8192
261.55,2.77556e-17,0,8192,8192
261.603,5.55112e-17,0,8192,8192
261.653,5.55112e-17,0,8192,8192
261.702,5.55112e-17,0,8192,8192
261.752,8.32667e-17,0,8192,8192
261.802,5.55112e-17,0,8192,8192
261.852,5.55112e-17,0,8192,8192
261.902,8.32667e-17,0,8192,8192
261.951,5.55112e-17,0,8192,8192
262.001,2.77556e-17,0,8192,8192
262.051,2.77556e-17,0,8192,8192
262.101,2.77556e-17,0,8192,8192
262.151,2.77556e-17,0,8192,8192
262.2,2.77556e-17,0,8192,8192
262.25,2.77556e-17,0,8192,8192
262.303,0,0,8192,8192
262.353,0,0,8192,8192
262.402,0,0,8192,8192
262.452,0,0,8192,8192
262.502,2.77556e-17,0,8192,8192
262.552,2.77556e-17,0,8192,8192
262.602,2.77556e-17,0,8192,8192
262.651,2.77556e-17,0,8192,8192
262.701,2.77556e-17,0,8192,8192
262.751,2.77556e-17,0,8192,8192
262.801,2.77556e-17,0,8192,8192
262.851,2.77556e-17,0,8192,8192
262.9,5.55112e-17,0,8192,8192
262.95,5.55112e-17,0,8192,8192
263,5.55112e-17,0,8192,8192
263.053,5.55112e-17,0,8192,8192
263.103,0,0,8192,8192
263.152,2.77556e-17,0,8192,8192
263.202,0,0,8192,8192
263.252,2.77556e-17,0,8192,8192
263.302,-5.55112e-17,0,8192,8192
263.352,-2.77556e-17,0,8192,8192
263.401,-1.11022e-16,0,8192,8192
263.451,-1.11022e-16,0,8192,8192
263.501,-8.32667e-17,0,8192,8192
263.551,-8.32667e-17,0,8192,8192
263.601,-5.55112e-17,0,8192,8192
263.65,-8.32667e-17,0,8192,8192
263.7,0,0,8192,8192
263.753,-5.55112e-17,0,8192,8192
263.803,-8.32667e-17,0,8192,8192
263.852,-5.55112e-17,0,8192,8192
263.902,-2.77556e-17,0,8192,8192
263.952,0,0,8192,8192
264.002,2.77556e-17,0,8192,8192
264.052,0,0,8192,8192
264.101,0,0,8192,8192
264.151,2.77556e-17,0,8192,8192
264.201,2.77556e-17,0,8192,8192
264.251,2.77556e-17,0,8192,8192
264.301,0,0,8192,8192
264.35,0,0,8192,8192
264.4,0,0,8192,8192
264.45,0,0,8192,8192
264.503,0,0,8192,8192
264.553,2.77556e-17,0,8192,8192
264.602,-2.77556e-17,0,8192,8192
264.652,-2.77556e-17,0,8192,8192
264.702,0,0,8192,8192
264.752,0,0,8192,8192
264.802,0,0,8192,8192
264.851,0,0,8192,8192
264.901,0,0,8192,8192
264.951,0,0,8192,8192
265.001,0,0,8192,8192
265.051,2.77556e-17,0,8192,8192
265.1,2.77556e-17,0,8192,8192
265.15,5.55112e-17,0,8192,8192
265.203,5.55112e-17,0,8192,8192
265.253,2.77556e-17,0,8192,8192
265.302,2.77556e-17,0,8192,8192
265.352,2.77556e-17,0,8192,8192
265.402,2.77556e-17,0,8192,8192
265.452,2.77556e-17,0,8192,8192
265.502,2.77556e-17,0,8192,8192
265.551,0,0,8192,8192
265.601,-2.77556e-17,0,8192,8192
265.651,-2.77556e-17,0,8192,8192
265.701,-2.77556e-17,0,8192,8192
265.751,-2.77556e-17,0,8192,8192
265.8,-5.55112e-17,0,8192,8192
265.85,-8.32667e-17,0,8192,8192
265.9,-8.32667e-17,0,8192,8192
265.953,-8.32667e-17,0,8192,8192
266.003,-1.11022e-16,0,8192,8192
266.052,-1.38778e-16,0,8192,8192
266.102,-8.32667e-17,0,8192,8192
266.152,-8.32667e-17,0,8192,8192
266.202,-5.55112e-17,0,8192,8192
266.252,-5.55112e-17,0,8192,8192
266.301,-2.77556e-17,0,8192,8192
266.351,-2.77556e-17,0,8192,8192
266.401,-2.77556e-17,0,8192,8192
266.451,-2.77556e-17,0,8192,8192
266.501,5.55112e-17,0,8192,8192
266.55,5.55112e-17,0,8192,8192
266.6,8.32667e-17,0,8192,8192
266.653,8.32667e-17,0,8192,8192
266.703,8.32667e-17,0,8192,8192
266.752,1.11022e-16,0,8192,8192
266.802,5.55112e-17,0,8192,8192
266.852,2.77556e-17,0,8192,8192
266.902,2.77556e-17,0,8192,8192
266.952,2.77556e-17,0,8192,8192
267.001,2.77556e-17,0,8192,8192
267.051,2.77556e-17,0,8192,8192
267.101,2.77556e-17,0,8192,8192
267.151,5.55112e-17,0,8192,8192
267.201,5.55112e-17,0,8192,8192
267.25,5.55112e-17,0,8192,8192
267.3,5.55112e-17,0,8192,8192
267.353,0,0,8192,8192
267.403,2.77556e-17,0,8192,8192
267.453,-2.77556e-17,0,8192,8192
267.502,2.77556e-17,0,8192,8192
267.552,0,0,8192,8192
267.602,0,0,8192,8192
267.652,0,0,8192,8192
267.702,2.77556e-17,0,8192,8192
267.751,2.77556e-17,0,8192,8192
267.801,5.55112e-17,0,8192,8192
267.851,5.55112e-17,0,8192,8192
267.901,-2.77556e-17,0,8192,8192
267.95,-2.77556e-17,0,8192,8192
268,0,0,8192,8192
268.05,0,0,8192,8192
268.1,2.77556e-17,0,8436,8436
268.15,2.77556e-17,0,8628,8628
268.2,2.77556e-17,0,8820,8820
268.251,2.77556e-17,0,9012,9012
268.301,2.77556e-17,0,9180,9180
268.351,2.77556e-17,0,9372,9372
268.401,2.77556e-17,0,9540,9540
268.451,2.77556e-17,0,9732,9732
268.5,2.77556e-17,0,9900,9900
268.55,2.77556e-17,0,10076,10076
268.601,2.77556e-17,0,10260,10260
268.651,2.77556e-17,0,10428,10428
268.701,2.77556e-17,0,10596,10596
268.751,2.77556e-17,0,10788,10788
268.801,2.77556e-17,0,10956,10956
268.85,2.77556e-17,0,11124,11124
268.9,2.77556e-17,0,11292,11292
268.951,2.77556e-17,0,11484,11484
269.001,2.77556e-17,0,11652,11652
269.051,2.77556e-17,0,11820,11820
269.101,2.77556e-17,0,11988,11988
269.151,2.77556e-17,0,12156,12156
269.2,2.77556e-17,0,12324,12324
269.25,2.77556e-17,0,12492,12492
269.3,2.77556e-17,0,12660,12660
269.351,2.77556e-17,0,12828,12828
269.401,3.88578e-16,0,13004,13004
269.451,4.08007e-15,0,13164,13164
269.501,5.78149e-14,0,13300,13300
269.55,4.60132e-13,0,13452,13452
269.6,2.10379e-12,0,13620,13620
269.65,2.67239e-12,0,13788,13788
269.701,-1.31503e-10,0,13956,13956
269.751,-4.51028e-10,0,14124,14124
269.801,-5.52315e-10,0,14316,14316
269.851,-3.05003e-10,0,14484,14484
269.901,7.40538e-11,0,14652,14652
269.95,3.56117e-10,0,14820,14820
270,3.84863e-10,0,14988,14988
270.051,1.5021e-10,0,15164,15164
270.101,-1.32215e-10,0,15348,15348
270.151,-2.17283e-10,0,15516,15516
270.201,-3.15143e-11,0,15684,15684
270.251,2.47012e-10,0,15852,15852
270.3,3.61833e-10,0,16020,16020
270.35,2.20907e-10,0,16172,16172
270.401,-3.11502e-11,0,16356,16356
270.451,-1.44302e-10,0,16508,16508
270.501,-3.80211e-11,0,16668,16668
270.551,1.70465e-10,0,16836,16836
270.601,2.96541e-10,0,17004,17004
270.65,2.54931e-10,0,17172,17172
270.7,1.06148e-10,0,17340,17340
270.75,-3.16847e-11,0,17484,17484
270.801,-7.50504e-11,0,17652,17652
270.851,4.88387e-13,0,17820,17820
270.901,1.67569e-10,0,17988,17988
270.951,3.39658e-10,0,18132,18132
271,3.68072e-10,0,18300,18300
271.05,1.39407e-10,0,18444,18444
271.1,-2.40709e-10,0,18612,18612
271.151,-4.07489e-10,0,18780,18780
271.201,-1.57194e-11,0,18924,18924
271.251,7.39055e-10,0,19092,19092
271.301,1.08504e-09,0,19236,19236
271.35,3.17079e-10,0,19388,19388
271.4,-1.20699e-09,0,19548,19548
271.45,-1.88961e-09,0,19692,19692
271.501,9.34234e-11,0,19860,19860
271.551,4.99111e-09,0,20004,20004
271.601,1.15355e-08,0,20156,20156
271.651,1.79648e-08,0,20316,20316
271.701,2.30887e-08,0,20460,20460
271.75,2.65051e-08,0,20604,20604
271.8,2.83828e-08,0,20756,20756
271.851,2.97151e-08,0,20916,20916
271.901,3.2174e-08,0,21060,21060
271.951,3.74102e-08,0,21204,21204
272.001,4.58433e-08,0,21348,21348
272.051,5.66245e-08,0,21500,21500
272.1,6.87733e-08,0,21644,21644
272.15,8.2408e-08,0,21788,21788
272.201,9.94262e-08,0,21948,21948
272.251,1.20594e-07,0,22092,22092
272.301,1.4762e-07,0,22236,22236
272.351,1.81211e-07,0,22380,22380
272.401,2.21378e-07,0,22524,22524
272.45,2.66705e-07,0,22652,22652
272.5,3.14503e-07,0,22796,22796
272.55,3.62435e-07,0,22932,22932
272.601,4.11973e-07,0,23076,23076
272.651,4.62726e-07,0,23220,23220
272.701,5.18173e-07,0,23364,23364
272.751,5.77177e-07,0,23508,23508
272.8,6.3548e-07,0,23636,23636
272.85,6.8831e-07,0,23772,23772
272.9,7.3245e-07,0,23916,23916
272.951,7.67225e-07,0,24060,24060
273.001,7.90345e-07,0,24188,24188
273.051,8.04271e-07,0,24324,24324
273.101,8.11637e-07,0,24468,24468
273.151,8.15043e-07,0,24596,24596
273.2,8.15829e-07,0,24732,24732
273.25,8.14083e-07,0,24876,24876
273.301,8.09123e-07,0,24996,24996
273.351,8.00357e-07,0,25140,25140
273.401,7.86569e-07,0,25284,25284
273.451,7.66625e-07,0,25404,25404
273.501,7.39598e-07,0,25548,25548
273.55,7.04854e-07,0,25676,25676
273.6,6.62516e-07,0,25812,25812
273.651,6.12899e-07,0,25956,25956
273.701,5.62097e-07,0,26076,26076
273.751,5.11922e-07,0,26220,26220
273.801,4.6434e-07,0,26340,26340
273.851,4.20199e-07,0,26484,26484
273.9,3.7978e-07,0,26604,26604
273.95,3.42852e-07,0,26748,26748
274.001,3.07831e-07,0,26876,26876
274.051,2.76e-07,0,27012,27012
274.101,2.45727e-07,0,27140,27140
274.151,2.16618e-07,0,27276,27276
274.201,1.88829e-07,0,27404,27404
274.25,1.63658e-07,0,27540,27540
274.3,1.43134e-07,0,27660,27660
274.35,1.28375e-07,0,27804,27804
274.401,1.17632e-07,0,27924,27924
274.451,1.08035e-07,0,28068,28068
274.501,9.65469e-08,0,28188,28188
274.551,8.32847e-08,0,28332,28332
274.6,7.0487e-08,0,28452,28452
274.65,6.0317e-08,0,28572,28572
274.7,5.34214e-08,0,28716,28716
274.751,4.91048e-08,0,28836,28836
274.801,4.64824e-08,0,28964,28964
274.851,4.39965e-08,0,29100,29100
274.901,4.01994e-08,0,29220,29220
274.951,3.44257e-08,0,29348,29348
275,2.76498e-08,0,29484,29484
275.05,2.19232e-08,0,29604,29604
275.101,1.87474e-08,0,29732,29732
275.151,1.8192e-08,0,29868,29868
275.201,1.8856e-08,0,29996,29996
275.251,1.95484e-08,0,30116,30116
275.301,1.98507e-08,0,30252,30252
275.35,1.99135e-08,0,30372,30372
275.4,1.99654e-08,0,30500,30500
275.451,2.00856e-08,0,30636,30636
275.501,2.02238e-08,0,30756,30756
275.551,2.03283e-08,0,30876,30876
275.601,2.02291e-08,0,30996,30996
275.651,1.96764e-08,0,31116,31116
275.7,1.92126e-08,0,31236,31236
275.75,1.91216e-08,0,31356,31356
275.8,1.91435e-08,0,31460,31460
275.851,1.91765e-08,0,31596,31596
275.901,1.9209e-08,0,31692,31692
275.951,1.92416e-08,0,31796,31796
276.001,1.92744e-08,0,31892,31892
276.05,1.93072e-08,0,32004,32004
276.1,1.93402e-08,0,32100,32100
276.15,1.93732e-08,0,32196,32196
276.201,1.94072e-08,0,32300,32300
276.251,1.94404e-08,0,32388,32388
276.301,1.94736e-08,0,32484,32484
276.351,1.9507e-08,0,32564,32564
276.401,1.95405e-08,0,32660,32660
276.45,1.95741e-08,0,32752,32752
276.5,1.96077e-08,0,32768,32768
276.551,1.96424e-08,0,32768,32768
276.601,1.96761e-08,0,32768,32768
276.651,1.97098e-08,0,32768,32768
276.701,1.97436e-08,0,32768,32768
276.751,1.97775e-08,0,32768,32768
276.8,1.98115e-08,0,32768,32768
276.85,1.98456e-08,0,32768,32768
276.901,1.98807e-08,0,32768,32768
276.951,1.9915e-08,0,32752,32752
277.001,1.99492e-08,0,32768,32768
277.051,1.99837e-08,0,32752,32752
277.101,2.00182e-08,0,32768,32768
277.15,2.00529e-08,0,32768,32768
277.2,2.00877e-08,0,32768,32768
277.25,2.01226e-08,0,32720,32720
277.301,2.01587e-08,0,32616,32616
277.351,2.01938e-08,0,32752,32752
277.401,2.02291e-08,0,32672,32672
277.451,2.02645e-08,0,32704,32704
277.5,2.03e-08,0,32680,32680
277.55,2.03357e-08,0,32768,32768
277.6,2.03714e-08,0,32720,32720
277.651,2.04083e-08,0,32720,32720
277.701,2.04443e-08,0,32736,32736
277.751,2.04805e-08,0,32624,32624
277.801,2.05168e-08,0,32768,32768
277.851,2.05532e-08,0,32656,32656
277.9,2.05897e-08,0,32768,32768
277.95,2.06262e-08,0,32680,32680
278.001,2.0664e-08,0,32768,32768
278.051,2.07009e-08,0,32720,32720
278.101,2.07377e-08,0,32656,32656
278.151,2.07736e-08,0,32672,32672
278.201,2.08079e-08,0,32736,32736
278.25,2.08399e-08,0,32768,32768
278.3,2.0869e-08,0,32736,32736
278.351,2.08959e-08,0,32736,32736
278.401,2.09194e-08,0,32624,32624
278.451,2.09407e-08,0,32704,32704
278.501,2.096e-08,0,32752,32752
278.551,2.0977e-08,0,32688,32688
278.6,2.0991e-08,0,32624,32624
278.65,2.10011e-08,0,32736,32736
278.701,2.10058e-08,0,32632,32632
278.751,2.10021e-08,0,32576,32576
278.801,2.09912e-08,0,32392,32392
278.851,2.09697e-08,0,32342,32342
278.901,2.09352e-08,0,32552,32552
278.95,2.0885e-08,0,32412,32412
279,2.08158e-08,0,32324,32324
279.05,2.07242e-08,0,32474,32474
279.101,2.06034e-08,0,32458,32458
279.151,2.04576e-08,0,32418,32418
279.201,2.02818e-08,0,32306,32306
279.251,2.00746e-08,0,32506,32506
279.3,1.98346e-08,0,32476,32476
279.35,1.95604e-08,0,32392,32392
279.4,1.92511e-08,0,32320,32320
279.451,1.88962e-08,0,32384,32384
279.501,1.85175e-08,0,32296,32296
279.551,1.81086e-08,0,32368,32368
279.601,1.76739e-08,0,32224,32224
279.651,1.72184e-08,0,32472,32472
279.7,1.67475e-08,0,32384,32384
279.75,1.62658e-08,0,32336,32336
279.801,1.57628e-08,0,32448,32448
279.851,1.52705e-08,0,32352,32352
279.901,1.47771e-08,0,32264,32264
279.951,1.4285e-08,0,32256,32256
280.001,1.37969e-08,0,32304,32304
280.05,1.33155e-08,0,32296,32296
280.1,1.28442e-08,0,32344,32344
280.151,1.23739e-08,0,32304,32304
280.201,1.19355e-08,0,32448,32448
280.251,1.15194e-08,0,32392,32392
280.301,1.11291e-08,0,32344,32344
280.351,1.07669e-08,0,32592,32592
280.4,1.04343e-08,0,32560,32560
280.45,1.01311e-08,0,32544,32544
280.5,9.85657e-09,0,32488,32488
280.551,9.60228e-09,0,32616,32616
280.601,9.3809e-09,0,32650,32650
280.651,9.18301e-09,0,32614,32614
280.701,9.00698e-09,0,32574,32574
280.75,8.85142e-09,0,32528,32528
280.8,8.71504e-09,0,32554,32554
280.85,8.59648e-09,0,32634,32634
280.901,8.49136e-09,0,32492,32492
280.951,8.40367e-09,0,32370,32370
281.001,8.32805e-09,0,32554,32554
281.051,8.26252e-09,0,32434,32434
281.101,8.20565e-09,0,32698,32698
281.15,8.15665e-09,0,32534,32534
281.2,8.11512e-09,0,32490,32490
281.251,8.07982e-09,0,32522,32522
281.301,8.05211e-09,0,32544,32544
281.351,8.02988e-09,0,32434,32434
281.401,8.01192e-09,0,32316,32316
281.451,7.99688e-09,0,32492,32492
281.5,7.98442e-09,0,32316,32316
281.55,7.97645e-09,0,32570,32570
281.601,7.97123e-09,0,32302,32302
281.651,7.96796e-09,0,32158,32158
281.701,7.96754e-09,0,32398,32398
281.751,7.96874e-09,0,32176,32176
281.801,7.97171e-09,0,32152,32152
281.85,7.97712e-09,0,32042,32042
281.9,7.98263e-09,0,31964,31964
281.95,7.98834e-09,0,31900,31900
282.001,7.99424e-09,0,31828,31828
282.051,7.99989e-09,0,31784,31784
282.101,8.00541e-09,0,31700,31700
282.151,8.01094e-09,0,31638,31638
282.2,8.01652e-09,0,31590,31590
282.25,8.02218e-09,0,31508,31508
282.3,8.02796e-09,0,31442,31442
282.351,8.03404e-09,0,31388,31388
282.401,8.04008e-09,0,31324,31324
282.451,8.04624e-09,0,31268,31268
282.501,8.05248e-09,0,31196,31196
282.55,8.05878e-09,0,31140,31140
282.6,8.0651e-09,0,31084,31084
282.65,8.0714e-09,0,31020,31020
282.701,8.07788e-09,0,30972,30972
282.751,8.08418e-09,0,30922,30922
282.801,8.09052e-09,0,30874,30874
282.851,8.09692e-09,0,30820,30820
282.901,8.10336e-09,0,30774,30774
282.95,8.1098e-09,0,30726,30726
283,8.11624e-09,0,30674,30674
283.051,8.12288e-09,0,30636,30636
283.101,8.12937e-09,0,30582,30582
283.151,8.13594e-09,0,30566,30566
283.201,8.14265e-09,0,30494,30494
283.251,8.14968e-09,0,30482,30482
283.3,8.15746e-09,0,30516,30516
283.35,8.16703e-09,0,30724,30724
283.401,8.18003e-09,0,31000,31000
283.451,8.19701e-09,0,31064,31064
283.501,8.22e-09,0,31128,31128
283.551,8.2514e-09,0,31192,31192
283.601,8.2952e-09,0,31240,31240
283.65,8.35746e-09,0,31304,31304
283.7,8.44576e-09,0,31352,31352
283.75,8.56719e-09,0,31416,31416
283.801,8.73127e-09,0,31464,31464
283.851,8.92866e-09,0,31528,31528
283.901,9.16052e-09,0,31576,31576
283.951,9.4244e-09,0,31640,31640
284,9.72234e-09,0,31688,31688
284.05,1.00632e-08,0,31752,31752
284.1,1.04619e-08,0,31800,31800
284.151,1.09521e-08,0,31864,31864
284.201,1.15253e-08,0,31912,31912
284.251,1.22125e-08,0,31976,31976
284.301,1.30317e-08,0,32024,32024
284.351,1.40012e-08,0,32088,32088
284.4,1.51395e-08,0,32136,32136
284.45,1.64636e-08,0,32200,32200
284.501,1.80356e-08,0,32264,32264
284.551,1.9776e-08,0,32312,32312
284.601,2.17333e-08,0,32376,32376
284.651,2.39119e-08,0,32424,32424
284.701,2.6313e-08,0,32488,32488
284.75,2.89328e-08,0,32536,32536
284.8,3.17607e-08,0,32600,32600
284.851,3.48692e-08,0,32648,32648
284.901,3.80553e-08,0,32664,32664
284.951,4.13785e-08,0,32752,32752
285.001,4.4814e-08,0,32768,32768
285.051,4.83415e-08,0,32768,32768
285.1,5.19455e-08,0,32752,32752
285.15,5.56173e-08,0,32720,32720
285.2,5.93621e-08,0,32720,32720
285.251,6.33259e-08,0,32704,32704
285.301,6.73521e-08,0,32720,32720
285.351,7.16569e-08,0,32720,32720
285.401,7.63585e-08,0,32720,32720
285.45,8.15493e-08,0,32712,32712
285.5,8.72531e-08,0,32752,32752
285.55,9.34021e-08,0,32688,32688
285.601,1.00043e-07,0,32608,32608
285.651,1.06622e-07,0,32500,32500
285.701,1.132e-07,0,32768,32768
285.751,1.19768e-07,0,32768,32768
285.801,1.26456e-07,0,32768,32768
285.85,1.33529e-07,0,32768,32768
285.9,1.41344e-07,0,32768,32768
285.951,1.50582e-07,0,32768,32768
286.001,1.61128e-07,0,32768,32768
286.051,1.73627e-07,0,32768,32768
286.101,1.88476e-07,0,32768,32768
286.151,2.06076e-07,0,32768,32768
286.2,2.26806e-07,0,32768,32768
286.25,2.50973e-07,0,32768,32768
286.301,2.7962e-07,0,32768,32768
286.351,3.11089e-07,0,32768,32768
286.401,3.45926e-07,0,32768,32768
286.451,3.83741e-07,0,32768,32768
286.501,4.24022e-07,0,32768,32768
286.55,4.66172e-07,0,32768,32768
286.6,5.09501e-07,0,32768,32768
286.651,5.54469e-07,0,32768,32768
286.701,5.97472e-07,0,32720,32720
286.751,6.38595e-07,0,32736,32736
286.801,6.76517e-07,0,32712,32712
286.851,7.09941e-07,0,32736,32736
286.9,7.37776e-07,0,32768,32768
286.95,7.59286e-07,0,32768,32768
287,7.74169e-07,0,32736,32736
287.051,7.82686e-07,0,32752,32752
287.101,7.84769e-07,0,32736,32736
287.151,7.81294e-07,0,32736,32736
287.201,7.7276e-07,0,32752,32752
287.25,7.59513e-07,0,32768,32768
287.3,7.41697e-07,0,32768,32768
287.35,7.19291e-07,0,32768,32768
287.401,6.91326e-07,0,32768,32768
287.451,6.59354e-07,0,32768,32768
287.501,6.22783e-07,0,32768,32768
287.551,5.82026e-07,0,32768,32768
287.601,5.37805e-07,0,32768,32768
287.65,4.91115e-07,0,32768,32768
287.7,4.43118e-07,0,32768,32768
287.751,3.93602e-07,0,32768,32768
287.801,3.46502e-07,0,32768,32768
287.851,3.01258e-07,0,32752,32752
287.901,2.58464e-07,0,32768,32768
287.951,2.18461e-07,0,32768,32768
288,1.814e-07,0,32768,32768
288.05,1.47323e-07,0,32768,32768
288.101,1.15373e-07,0,32768,32768
288.151,8.73942e-08,0,32768,32768
288.201,6.24559e-08,0,32752,32752
288.251,4.05461e-08,0,32768,32768
288.301,2.15674e-08,0,32768,32768
288.35,5.31026e-09,0,32720,32720
288.4,-8.52655e-09,0,32768,32768
288.45,-2.02753e-08,0,32768,32768
288.501,-3.04938e-08,0,32768,32768
288.551,-3.88017e-08,0,32768,32768
288.601,-4.56255e-08,0,32752,32752
288.651,-5.10322e-08,0,32768,32768
288.7,-5.51079e-08,0,32752,32752
288.75,-5.7997e-08,0,32768,32768
288.8,-5.98992e-08,0,32768,32768
288.851,-6.10496e-08,0,32768,32768
288.901,-6.15527e-08,0,32768,32768
288.951,-6.15316e-08,0,32768,32768
289.001,-6.09803e-08,0,32768,32768
289.051,-5.98448e-08,0,32768,32768
289.1,-5.80772e-08,0,32768,32768
289.15,-5.56825e-08,0,32768,32768
289.201,-5.26424e-08,0,32768,32768
289.251,-4.92692e-08,0,32768,32768
289.301,-4.56473e-08,0,32768,32768
289.351,-4.19354e-08,0,32768,32768
289.401,-3.82658e-08,0,32768,32768
289.45,-3.47357e-08,0,32768,32768
289.5,-3.14089e-08,0,32768,32768
289.551,-2.82344e-08,0,32768,32768
289.601,-2.54087e-08,0,32768,32768
289.651,-2.28371e-08,0,32768,32768
289.701,-2.05099e-08,0,32768,32768
289.751,-1.8414e-08,0,32768,32768
289.8,-1.65365e-08,0,32768,32768
289.85,-1.48673e-08,0,32768,32768
289.901,-1.33589e-08,0,32768,32768
289.951,-1.20911e-08,0,32768,32768
290.001,-1.10108e-08,0,32752,32752
290.051,-1.01093e-08,0,32736,32736
290.101,-9.37514e-09,0,32720,32720
290.15,-8.79462e-09,0,32680,32680
290.2,-8.3523e-09,0,32736,32736
290.25,-8.03183e-09,0,32768,32768
290.301,-7.81194e-09,0,32720,32720
290.351,-7.68923e-09,0,32704,32704
290.401,-7.64183e-09,0,32736,32736
290.451,-7.65749e-09,0,32728,32728
290.5,-7.72581e-09,0,32752,32752
290.55,-7.83797e-09,0,32752,32752
290.6,-7.98635e-09,0,32768,32768
290.651,-8.1696e-09,0,32704,32704
290.701,-8.37029e-09,0,32576,32576
290.751,-8.58652e-09,0,32576,32576
290.801,-8.81175e-09,0,32614,32614
290.851,-9.04e-09,0,32670,32670
290.9,-9.26606e-09,0,32552,32552
290.95,-9.48581e-09,0,32544,32544
291.001,-9.70233e-09,0,32622,32622
291.051,-9.90121e-09,0,32524,32524
291.101,-1.00875e-08,0,32514,32514
291.151,-1.02601e-08,0,32758,32758
291.201,-1.04183e-08,0,32768,32768
291.25,-1.05613e-08,0,32768,32768
291.3,-1.06883e-08,0,32768,32768
291.351,-1.08016e-08,0,32768,32768
291.401,-1.08946e-08,0,32720,32720
291.451,-1.0971e-08,0,32696,32696
291.501,-1.10316e-08,0,32702,32702
291.551,-1.10778e-08,0,32706,32706
291.6,-1.11112e-08,0,32710,32710
291.65,-1.11336e-08,0,32632,32632
291.7,-1.1147e-08,0,32628,32628
291.751,-1.11521e-08,0,32712,32712
291.801,-1.11506e-08,0,32640,32640
291.851,-1.1143e-08,0,32622,32622
291.901,-1.11312e-08,0,32570,32570
291.95,-1.1116e-08,0,32542,32542
292,-1.10986e-08,0,32448,32448
292.05,-1.10803e-08,0,32426,32426
292.101,-1.1062e-08,0,32470,32470
292.151,-1.10453e-08,0,32436,32436
292.201,-1.10304e-08,0,32306,32306
292.251,-1.10177e-08,0,32308,32308
292.301,-1.10078e-08,0,32368,32368
292.35,-1.10012e-08,0,32162,32162
292.4,-1.09991e-08,0,32350,32350
292.451,-1.1e-08,0,32184,32184
292.501,-1.10068e-08,0,32006,32006
292.551,-1.10194e-08,0,32022,32022
292.601,-1.10381e-08,0,32006,32006
292.651,-1.1063e-08,0,32044,32044
292.7,-1.10939e-08,0,32082,32082
292.75,-1.1131e-08,0,32070,32070
292.801,-1.11756e-08,0,32056,32056
292.851,-1.12253e-08,0,32008,32008
292.901,-1.12813e-08,0,32016,32016
292.951,-1.13436e-08,0,32012,32012
293.001,-1.14121e-08,0,31960,31960
293.05,-1.14868e-08,0,31980,31980
293.1,-1.15677e-08,0,31978,31978
293.15,-1.1655e-08,0,31986,31986
293.201,-1.17515e-08,0,31948,31948
293.251,-1.18521e-08,0,31960,31960
293.301,-1.196e-08,0,31960,31960
293.351,-1.20759e-08,0,31952,31952
293.4,-1.22007e-08,0,31948,31948
293.45,-1.23356e-08,0,31984,31984
293.5,-1.2482e-08,0,32182,32182
293.551,-1.26462e-08,0,32314,32314
293.601,-1.28205e-08,0,32348,32348
293.651,-1.30111e-08,0,32348,32348
293.701,-1.32196e-08,0,32312,32312
293.75,-1.34474e-08,0,32332,32332
293.8,-1.36959e-08,0,32320,32320
293.85,-1.3966e-08,0,32328,32328
293.901,-1.42673e-08,0,32304,32304
293.951,-1.45827e-08,0,32336,32336
294.001,-1.492e-08,0,32364,32364
294.051,-1.52782e-08,0,32524,32524
294.101,-1.56559e-08,0,32700,32700
294.15,-1.60507e-08,0,32766,32766
294.2,-1.64599e-08,0,32764,32764
294.251,-1.68926e-08,0,32768,32768
294.301,-1.73205e-08,0,32768,32768
294.351,-1.7752e-08,0,32756,32756
294.401,-1.81832e-08,0,32768,32768
294.451,-1.86104e-08,0,32756,32756
294.5,-1.90299e-08,0,32760,32760
294.55,-1.94384e-08,0,32768,32768
294.601,-1.98442e-08,0,32768,32768
294.651,-2.02209e-08,0,32768,32768
294.701,-2.05776e-08,0,32766,32766
294.751,-2.09116e-08,0,32766,32766
294.801,-2.12206e-08,0,32768,32768
294.85,-2.15024e-08,0,32758,32758
294.9,-2.1755e-08,0,32758,32758
294.95,-2.1977e-08,0,32768,32768
295.001,-2.21726e-08,0,32760,32760
295.051,-2.23303e-08,0,32764,32764
295.101,-2.24563e-08,0,32764,32764
295.151,-2.25513e-08,0,32764,32764
295.2,-2.26167e-08,0,32760,32760
295.25,-2.2654e-08,0,32758,32758
295.3,-2.26649e-08,0,32768,32768
295.351,-2.26508e-08,0,32720,32720
295.401,-2.26153e-08,0,32704,32704
295.451,-2.25601e-08,0,32706,32706
295.501,-2.24876e-08,0,32712,32712
295.551,-2.23999e-08,0,32716,32716
295.6,-2.22992e-08,0,32708,32708
295.65,-2.21875e-08,0,32708,32708
295.701,-2.20631e-08,0,32706,32706
295.751,-2.19349e-08,0,32704,32704
295.801,-2.1801e-08,0,32704,32704
295.851,-2.1663e-08,0,32704,32704
295.901,-2.1522e-08,0,32704,32704
295.95,-2.13794e-08,0,32688,32688
296,-2.1236e-08,0,32688,32688
296.051,-2.10887e-08,0,32688,32688
296.101,-2.09467e-08,0,32688,32688
296.151,-2.08065e-08,0,32688,32688
296.201,-2.06688e-08,0,32704,32704
296.251,-2.05339e-08,0,32688,32688
296.3,-2.04024e-08,0,32688,32688
296.35,-2.02747e-08,0,32704,32704
296.4,-2.0151e-08,0,32688,32688
296.451,-2.00282e-08,0,32688,32688
296.501,-1.99135e-08,0,32704,32704
296.551,-1.98035e-08,0,32704,32704
296.601,-1.96984e-08,0,32640,32640
296.65,-1.95981e-08,0,32592,32592
296.7,-1.95026e-08,0,32594,32594
296.75,-1.94117e-08,0,32592,32592
296.801,-1.93228e-08,0,32600,32600
296.851,-1.92405e-08,0,32568,32568
296.901,-1.91621e-08,0,32504,32504
296.951,-1.90872e-08,0,32580,32580
297.001,-1.90154e-08,0,32680,32680
297.05,-1.89465e-08,0,32680,32680
297.1,-1.888e-08,0,32688,32688
297.151,-1.88138e-08,0,32704,32704
297.201,-1.87513e-08,0,32704,32704
297.251,-1.86903e-08,0,32720,32720
297.301,-1.86305e-08,0,32304,32304
297.351,-1.85717e-08,0,32600,32600
297.4,-1.85135e-08,0,32608,32608
297.45,-1.84558e-08,0,32584,32584
297.501,-1.83966e-08,0,32584,32584
297.551,-1.83391e-08,0,32552,32552
297.601,-1.82815e-08,0,32488,32488
297.651,-1.82236e-08,0,32536,32536
297.701,-1.81651e-08,0,32432,32432
297.75,-1.81061e-08,0,32416,32416
297.8,-1.80464e-08,0,32192,32192
297.851,-1.7984e-08,0,32232,32232
297.901,-1.79225e-08,0,32128,32128
297.951,-1.78599e-08,0,32008,32008
298.001,-1.77962e-08,0,31800,31800
298.051,-1.77313e-08,0,31768,31768
298.1,-1.7665e-08,0,31912,31912
298.15,-1.75972e-08,0,31880,31880
298.2,-1.75279e-08,0,31824,31824
298.251,-1.74547e-08,0,31944,31944
298.301,-1.73817e-08,0,32104,32104
298.351,-1.73066e-08,0,32288,32288
298.401,-1.72293e-08,0,32312,32312
298.45,-1.71494e-08,0,32424,32424
298.5,-1.70668e-08,0,32440,32440
298.55,-1.69813e-08,0,32472,32472
298.601,-1.68898e-08,0,32568,32568
298.651,-1.67975e-08,0,32576,32576
298.701,-1.67016e-08,0,32592,32592
298.751,-1.66017e-08,0,32584,32584
298.801,-1.64977e-08,0,32632,32632
298.85,-1.63893e-08,0,32616,32616
298.9,-1.62765e-08,0,32640,32640
298.951,-1.61555e-08,0,32624,32624
299.001,-1.60332e-08,0,32640,32640
299.051,-1.59061e-08,0,32600,32600
299.101,-1.5774e-08,0,32600,32600
299.151,-1.5637e-08,0,32648,32648
299.2,-1.5495e-08,0,32504,32504
299.25,-1.53479e-08,0,32108,32108
299.301,-1.51911e-08,0,31812,31812
299.351,-1.50335e-08,0,31596,31596
299.401,-1.48705e-08,0,31692,31692
299.451,-1.4702e-08,0,31928,31928
299.501,-1.45281e-08,0,32000,32000
299.55,-1.43485e-08,0,31992,31992
299.6,-1.41632e-08,0,32208,32208
299.65,-1.39722e-08,0,32088,32088
299.701,-1.37696e-08,0,32000,32000
299.751,-1.35668e-08,0,31920,31920
299.801,-1.3358e-08,0,31784,31784
299.851,-1.31428e-08,0,31956,31956
299.9,-1.29209e-08,0,32000,32000
299.95,-1.26915e-08,0,32216,32216
300,-1.24539e-08,0,32412,32412
300.051,-1.21993e-08,0,32504,32504
300.101,-1.19411e-08,0,32616,32616
300.151,-1.16704e-08,0,32756,32756
300.201,-1.13855e-08,0,32760,32760
300.251,-1.10845e-08,0,32768,32768
300.3,-1.07655e-08,0,32768,32768
300.35,-1.04266e-08,0,32764,32764
300.401,-1.00551e-08,0,32756,32756
300.451,-9.67059e-09,0,32768,32768
300.501,-9.2616e-09,0,32756,32756
300.551,-8.82734e-09,0,32768,32768
300.601,-8.36752e-09,0,32764,32764
300.65,-7.88247e-09,0,32760,32760
300.7,-7.37313e-09,0,32760,32760
300.751,-6.82518e-09,0,32764,32764
300.801,-6.27231e-09,0,32760,32760
300.851,-5.70217e-09,0,32760,32760
300.901,-5.11825e-09,0,32756,32756
300.951,-4.52449e-09,0,32758,32758
301,-3.92512e-09,0,32764,32764
301.05,-3.32449e-09,0,32758,32758
301.1,-2.72696e-09,0,32756,32756
301.151,-2.11958e-09,0,32758,32758
301.201,-1.54126e-09,0,32758,32758
301.251,-9.78366e-10,0,32756,32756
301.301,-4.34567e-10,0,32754,32754
301.35,8.67059e-11,0,32758,32758
301.4,5.82254e-10,0,32754,32754
301.45,1.04914e-09,0,32748,32748
301.501,1.49703e-09,0,32754,32754
301.551,1.89805e-09,0,32744,32744
301.601,2.26369e-09,0,32746,32746
301.651,2.59269e-09,0,32734,32734
301.701,2.88441e-09,0,32740,32740
301.75,3.13881e-09,0,32738,32738
301.8,3.35643e-09,0,32742,32742
301.851,3.5432e-09,0,32740,32740
301.901,3.69006e-09,0,32736,32736
301.951,3.80482e-09,0,32718,32718
302.001,3.88973e-09,0,32582,32582
302.051,3.94727e-09,0,32506,32506
302.1,3.97989e-09,0,32386,32386
302.15,3.98936e-09,0,32248,32248
302.201,3.97986e-09,0,32172,32172
302.251,3.95291e-09,0,32060,32060
302.301,3.91116e-09,0,32016,32016
302.351,3.85704e-09,0,31942,31942
302.401,3.79282e-09,0,32056,32056
302.45,3.72053e-09,0,31750,31750
302.5,3.64202e-09,0,31542,31542
302.551,3.55645e-09,0,31216,31216
302.601,3.47021e-09,0,31036,31036
302.651,3.38219e-09,0,30690,30690
302.701,3.29354e-09,0,30498,30498
302.751,3.20523e-09,0,30280,30280
302.8,3.11814e-09,0,30222,30222
302.85,3.03307e-09,0,30262,30262
302.9,2.95078e-09,0,30070,30070
302.951,2.86974e-09,0,30560,30560
303.001,2.79533e-09,0,30464,30464
303.051,2.72586e-09,0,30350,30350
303.101,2.66197e-09,0,30474,30474
303.15,2.60422e-09,0,30404,30404
303.2,2.55304e-09,0,30538,30538
303.25,2.50871e-09,0,30532,30532
303.301,2.47033e-09,0,30516,30516
303.351,2.44002e-09,0,30492,30492
303.401,2.41631e-09,0,30586,30586
303.451,2.39879e-09,0,30620,30620
303.501,2.38681e-09,0,30538,30538
303.55,2.3795e-09,0,30596,30596
303.6,2.37599e-09,0,30496,30496
303.651,2.37529e-09,0,30428,30428
303.701,2.37595e-09,0,30314,30314
303.751,2.37679e-09,0,30300,30300
303.801,2.37726e-09,0,30202,30202
303.851,2.37675e-09,0,30180,30180
303.9,2.37497e-09,0,30092,30092
303.95,2.37215e-09,0,30014,30014
304.001,2.36482e-09,0,29908,29908
304.051,2.35356e-09,0,29770,29770
304.101,2.33977e-09,0,29674,29674
304.151,2.3232e-09,0,29636,29636
304.201,2.30432e-09,0,29580,29580
304.25,2.28389e-09,0,29438,29438
304.3,2.2627e-09,0,29346,29346
304.35,2.2414e-09,0,29294,29294
304.401,2.21988e-09,0,29320,29320
304.451,2.19964e-09,0,29288,29288
304.501,2.18019e-09,0,29240,29240
304.551,2.16156e-09,0,29202,29202
304.6,2.14383e-09,0,29172,29172
304.65,2.12714e-09,0,29122,29122
304.7,2.11178e-09,0,29130,29130
304.751,2.09774e-09,0,29192,29192
304.801,2.08627e-09,0,29206,29206
304.851,2.07738e-09,0,29258,29258
304.901,2.07148e-09,0,29312,29312
304.951,2.0698e-09,0,29298,29298
