250,0,0,32768,32768
250.001,0,0,32768,32768
250.051,0,0,32768,32768
250.101,0,0,32768,32768
250.151,0,0,32768,32768
250.201,0,0,32768,32768
250.25,0,0,32768,32768
250.3,0,0,32768,32768
250.35,0,0,32768,32768
250.401,0,0,32768,32768
250.451,0,0,32768,32768
250.501,0,0,32768,32768
250.551,0,0,32768,32768
250.6,0,0,32768,32768
250.65,0,0,32768,32768
250.7,0,0,32768,32768
250.751,2.77556e-17,0,32768,32768
250.801,2.77556e-17,0,32768,32768
250.851,2.77556e-17,0,32768,32768
250.901,2.77556e-17,0,32768,32768
250.951,2.77556e-17,0,32768,32768
251,2.77556e-17,0,32768,32768
251.05,0,0,32768,32768
251.101,0,0,32768,32768
251.151,0,0,32768,32768
251.201,0,0,32768,32768
251.251,0,0,32768,32768
251.301,0,0,32768,32768
251.35,0,0,32768,32768
251.4,0,0,32768,32768
251.451,0,0,32768,32768
251.501,0,0,32768,32768
251.551,2.77556e-17,0,32768,32768
251.601,0,0,32768,32768
251.651,2.77556e-17,0,32768,32768
251.7,0,0,32768,32768
251.75,2.77556e-17,0,32768,32768
251.8,0,0,32768,32768
251.851,0,0,32768,32768
251.901,0,0,32768,32768
251.951,0,0,32768,32768
252.001,0,0,32768,32768
252.05,0,0,32768,32768
252.1,0,0,32768,32768
252.15,0,0,32768,32768
252.201,0,0,32768,32768
252.251,0,0,32768,32768
252.301,0,0,32768,32768
252.351,0,0,32768,32768
252.401,0,0,32768,32768
252.45,0,0,32768,32768
252.5,0,0,32768,32768
252.551,2.77556e-17,0,32768,32768
252.601,2.77556e-17,0,32768,32768
252.651,2.77556e-17,0,32768,32768
252.701,0,0,32768,32768
252.751,2.77556e-17,0,32768,32768
252.8,0,0,32768,32768
252.85,0,0,32768,32768
252.901,-2.77556e-17,0,32768,32768
252.951,0,0,32768,32768
253.001,0,0,32768,32768
253.051,0,0,32768,32768
253.101,0,0,32768,32768
253.15,0,0,32768,32768
253.2,0,0,32768,32768
253.25,2.77556e-17,0,32768,32768
253.301,2.77556e-17,0,32768,32768
253.351,2.77556e-17,0,32768,32768
253.401,2.77556e-17,0,32768,32768
253.451,2.77556e-17,0,32768,32768
253.5,2.77556e-17,0,32768,32768
253.55,2.77556e-17,0,32768,32768
253.6,2.77556e-17,0,32768,32768
253.651,2.77556e-17,0,32768,32768
253.701,2.77556e-17,0,32768,32768
253.751,2.77556e-17,0,32768,32768
253.801,2.77556e-17,0,32768,32768
253.851,2.77556e-17,0,32768,32768
253.9,2.77556e-17,0,32768,32768
253.95,2.77556e-17,0,32768,32768
254.001,2.77556e-17,0,32768,32768
254.051,5.55112e-17,0,32768,32768
254.101,8.32667e-17,0,32768,32768
254.151,5.55112e-17,0,32768,32768
254.201,-2.77556e-17,0,32768,32768
254.25,-2.77556e-17,0,32768,32768
254.3,-2.77556e-17,0,32768,32768
254.351,-2.77556e-17,0,32768,32768
254.401,-2.77556e-17,0,32768,32768
254.451,0,0,32768,32768
254.501,0,0,32768,32768
254.551,-2.77556e-17,0,32768,32768
254.6,0,0,32768,32768
254.65,-2.77556e-17,0,32768,32768
254.701,-2.77556e-17,0,32768,32768
254.751,-2.77556e-17,0,32768,32768
254.801,-2.77556e-17,0,32768,32768
254.851,-5.55112e-17,0,32768,32768
254.901,-5.55112e-17,0,32768,32768
254.95,-5.55112e-17,0,32768,32768
255,-5.55112e-17,0,32768,32768
255.05,-2.77556e-17,0,32768,32768
255.101,0,0,32768,32768
255.151,0,0,32768,32768
255.201,0,0,32768,32768
255.251,0,0,32768,32768
255.3,0,0,32768,32768
255.35,0,0,32768,32768
255.4,0,0,32768,32768
255.451,0,0,32768,32768
255.501,0,0,32768,32768
255.551,0,0,32768,32768
255.601,0,0,32768,32768
255.651,0,0,32768,32768
255.7,0,0,32768,32768
255.75,0,0,32768,32768
255.801,0,0,32768,32768
255.851,0,0,32768,32768
255.901,0,0,32768,32768
255.951,0,0,32768,32768
256.001,0,0,32768,32768
256.05,-2.77556e-17,0,32768,32768
256.1,0,0,32768,32768
256.151,0,0,32768,32768
256.201,0,0,32768,32768
256.251,0,0,32768,32768
256.301,0,0,32768,32768
256.351,0,0,32768,32768
256.4,2.77556e-17,0,32768,32768
256.45,2.77556e-17,0,32768,32768
256.5,5.55112e-17,0,32768,32768
256.551,5.55112e-17,0,32768,32768
256.601,8.32667e-17,0,32768,32768
256.651,2.77556e-17,0,32768,32768
256.701,1.11022e-16,0,32768,32768
256.75,5.55112e-17,0,32768,32768
256.8,2.77556e-17,0,32768,32768
256.85,2.77556e-17,0,32768,32768
256.901,-2.77556e-17,0,32768,32768
256.951,0,0,32768,32768
257.001,0,0,32768,32768
257.051,2.77556e-17,0,32768,32768
257.101,0,0,32768,32768
257.15,0,0,32768,32768
257.2,0,0,32768,32768
257.251,0,0,32768,32768
257.301,2.77556e-17,0,32768,32768
257.351,5.55112e-17,0,32768,32768
257.401,5.55112e-17,0,32768,32768
257.451,8.32667e-17,0,32768,32768
257.5,8.32667e-17,0,32768,32768
257.55,5.55112e-17,0,32768,32768
257.601,5.55112e-17,0,32768,32768
257.651,5.55112e-17,0,32768,32768
257.701,5.55112e-17,0,32768,32768
257.751,2.77556e-17,0,32768,32768
257.801,5.55112e-17,0,32768,32768
257.85,2.77556e-17,0,32768,32768
257.9,0,0,32768,32768
257.95,2.77556e-17,0,32768,32768
258.001,5.55112e-17,0,32768,32768
258.051,2.77556e-17,0,32768,32768
258.101,2.77556e-17,0,32768,32768
258.151,-5.55112e-17,0,32768,32768
258.2,-5.55112e-17,0,32768,32768
258.25,-2.77556e-17,0,32768,32768
258.3,-2.77556e-17,0,32768,32768
258.351,-5.55112e-17,0,32768,32768
258.401,0,0,32768,32768
258.451,-2.77556e-17,0,32768,32768
258.501,0,0,32768,32768
258.551,0,0,32768,32768
258.6,0,0,32768,32768
258.65,0,0,32768,32768
258.701,0,0,32768,32768
258.751,-2.77556e-17,0,32768,32768
258.801,-2.77556e-17,0,32768,32768
258.851,-2.77556e-17,0,32768,32768
258.901,-2.77556e-17,0,32768,32768
258.95,0,0,32768,32768
259,2.77556e-17,0,32768,32768
259.051,0,0,32768,32768
259.101,0,0,32768,32768
259.151,-2.77556e-17,0,32768,32768
259.201,0,0,32768,32768
259.251,0,0,32768,32768
259.3,0,0,32768,32768
259.35,-5.55112e-17,0,32768,32768
259.401,-2.77556e-17,0,32768,32768
259.451,0,0,32768,32768
259.501,0,0,32768,32768
259.551,-5.55112e-17,0,32768,32768
259.601,-5.55112e-17,0,32768,32768
259.65,-5.55112e-17,0,32768,32768
259.7,0,0,32768,32768
259.75,-2.77556e-17,0,32768,32768
259.801,-5.55112e-17,0,32768,32768
259.851,-8.32667e-17,0,32768,32768
259.901,-8.32667e-17,0,32768,32768
259.951,-8.32667e-17,0,32768,32768
260,-8.32667e-17,0,32768,32768
260.05,-8.32667e-17,0,32768,32768
260.1,-5.55112e-17,0,32768,32768
260.151,-5.55112e-17,0,32768,32768
260.201,-5.55112e-17,0,32768,32768
260.251,0,0,32768,32768
260.301,-2.77556e-17,0,32768,32768
260.351,0,0,32768,32768
260.4,5.55112e-17,0,32768,32768
260.45,8.32667e-17,0,32768,32768
260.501,5.55112e-17,0,32768,32768
260.551,5.55112e-17,0,32768,32768
260.601,2.77556e-17,0,32768,32768
260.651,2.77556e-17,0,32768,32768
260.701,5.55112e-17,0,32768,32768
260.75,5.55112e-17,0,32768,32768
260.8,8.32667e-17,0,32768,32768
260.851,1.11022e-16,0,32768,32768
260.901,8.32667e-17,0,32768,32768
260.951,8.32667e-17,0,32768,32768
261.001,1.11022e-16,0,32768,32768
261.051,1.11022e-16,0,32768,32768
261.1,1.11022e-16,0,32768,32768
261.15,5.55112e-17,0,32768,32768
261.2,5.55112e-17,0,32768,32768
261.251,5.55112e-17,0,32768,32768
261.301,2.77556e-17,0,32768,32768
261.351,2.77556e-17,0,32768,32768
261.401,2.77556e-17,0,32768,32768
261.45,2.77556e-17,0,32768,32768
261.5,2.77556e-17,0,32768,32768
261.55,5.55112e-17,0,32768,32768
261.601,5.55112e-17,0,32768,32768
261.651,8.32667e-17,0,32768,32768
261.701,5.55112e-17,0,32768,32768
261.751,5.55112e-17,0,32768,32768
261.801,2.77556e-17,0,32768,32768
261.85,2.77556e-17,0,32768,32768
261.9,5.55112e-17,0,32768,32768
261.951,2.77556e-17,0,32768,32768
262.001,2.77556e-17,0,32768,32768
262.051,5.55112e-17,0,32768,32768
262.101,5.55112e-17,0,32768,32768
262.151,5.55112e-17,0,32768,32768
262.2,2.77556e-17,0,32768,32768
262.25,2.77556e-17,0,32768,32768
262.301,5.55112e-17,0,32768,32768
262.351,5.55112e-17,0,32768,32768
262.401,2.77556e-17,0,32768,32768
262.451,2.77556e-17,0,32768,32768
262.501,2.77556e-17,0,32768,32768
262.55,2.77556e-17,0,32768,32768
262.6,5.55112e-17,0,32768,32768
262.651,5.55112e-17,0,32768,32768
262.701,8.32667e-17,0,32768,32768
262.751,8.32667e-17,0,32768,32768
262.801,1.11022e-16,0,32768,32768
262.851,8.32667e-17,0,32768,32768
262.9,8.32667e-17,0,32768,32768
262.95,1.11022e-16,0,32768,32768
263,8.32667e-17,0,32768,32768
263.051,8.32667e-17,0,32768,32768
263.101,8.32667e-17,0,32768,32768
263.151,8.32667e-17,0,32768,32768
263.201,2.77556e-17,0,32768,32768
263.25,0,0,32768,32768
263.3,0,0,32768,32768
263.35,0,0,32768,32768
263.401,0,0,32768,32768
263.451,0,0,32768,32768
263.501,0,0,32768,32768
263.551,-2.77556e-17,0,32768,32768
263.601,-2.77556e-17,0,32768,32768
263.65,2.77556e-17,0,32768,32768
263.7,2.77556e-17,0,32768,32768
263.751,5.55112e-17,0,32768,32768
263.801,5.55112e-17,0,32768,32768
263.851,5.55112e-17,0,32768,32768
263.901,8.32667e-17,0,32768,32768
263.951,8.32667e-17,0,32768,32768
264,8.32667e-17,0,32768,32768
264.05,8.32667e-17,0,32768,32768
264.101,8.32667e-17,0,32768,32768
264.151,8.32667e-17,0,32768,32768
264.201,8.32667e-17,0,32768,32768
264.251,8.32667e-17,0,32768,32768
264.301,8.32667e-17,0,32768,32768
264.35,5.55112e-17,0,32768,32768
264.4,5.55112e-17,0,32768,32768
264.45,2.77556e-17,0,32768,32768
264.501,5.55112e-17,0,32768,32768
264.551,5.55112e-17,0,32768,32768
264.601,5.55112e-17,0,32768,32768
264.651,5.55112e-17,0,32768,32768
264.7,5.55112e-17,0,32768,32768
264.75,5.55112e-17,0,32768,32768
264.8,5.55112e-17,0,32768,32768
264.851,5.55112e-17,0,32768,32768
264.901,5.55112e-17,0,32768,32768
264.951,5.55112e-17,0,32768,32768
265.001,5.55112e-17,0,32768,32768
265.051,1.11022e-16,0,32768,32768
265.1,8.32667e-17,0,32768,32768
265.15,5.55112e-17,0,32768,32768
265.201,8.32667e-17,0,32768,32768
265.251,2.77556e-17,0,32768,32768
265.301,2.77556e-17,0,32768,32768
265.351,2.77556e-17,0,32768,32768
265.401,0,0,32768,32768
265.45,2.77556e-17,0,32768,32768
265.5,2.77556e-17,0,32768,32768
265.551,2.77556e-17,0,32768,32768
265.601,2.77556e-17,0,32768,32768
265.651,2.77556e-17,0,32768,32768
265.701,0,0,32768,32768
265.751,5.55112e-17,0,32768,32768
265.8,2.77556e-17,0,32768,32768
265.85,2.77556e-17,0,32768,32768
265.9,2.77556e-17,0,32768,32768
265.951,2.77556e-17,0,32768,32768
266.001,0,0,32768,32768
266.051,2.77556e-17,0,32768,32768
266.101,5.55112e-17,0,32768,32768
266.15,2.77556e-17,0,32768,32768
266.2,2.77556e-17,0,32768,32768
266.25,2.77556e-17,0,32768,32768
266.301,2.77556e-17,0,32768,32768
266.351,0,0,32768,32768
266.401,0,0,32768,32768
266.451,-2.77556e-17,0,32768,32768
266.501,0,0,32768,32768
266.55,0,0,32768,32768
266.6,0,0,32768,32768
266.651,0,0,32768,32768
266.701,5.55112e-17,0,32768,32768
266.751,5.55112e-17,0,32768,32768
266.801,2.77556e-17,0,32768,32768
266.851,5.55112e-17,0,32768,32768
266.9,2.77556e-17,0,32768,32768
266.95,2.77556e-17,0,32768,32768
267.001,0,0,32768,32768
267.051,5.55112e-17,0,32768,32768
267.101,8.32667e-17,0,32768,32768
267.151,5.55112e-17,0,32768,32768
267.201,5.55112e-17,0,32768,32768
267.25,5.55112e-17,0,32768,32768
267.3,2.77556e-17,0,32768,32768
267.351,2.77556e-17,0,32768,32768
267.401,2.77556e-17,0,32768,32768
267.451,2.77556e-17,0,32768,32768
267.501,5.55112e-17,0,32768,32768
267.551,5.55112e-17,0,32768,32768
267.6,5.55112e-17,0,32768,32768
267.65,2.77556e-17,0,32768,32768
267.7,5.55112e-17,0,32768,32768
267.751,5.55112e-17,0,32768,32768
267.801,2.77556e-17,0,32768,32768
267.851,5.55112e-17,0,32768,32768
267.901,5.55112e-17,0,32768,32768
267.95,5.55112e-17,0,32768,32768
268,5.55112e-17,0,32768,32768
268.05,5.55112e-17,0,32768,32768
268.1,5.55112e-17,0,33544,33544
268.151,5.55112e-17,0,34232,34232
268.201,2.77556e-17,0,34520,34520
268.25,2.77556e-17,0,35128,35128
268.3,2.77556e-17,0,35752,35752
268.351,2.77556e-17,0,35984,35984
268.4,2.77556e-17,0,36216,36216
268.45,2.77556e-17,0,36904,36904
268.5,2.77556e-17,0,37456,37456
268.551,2.77556e-17,0,37720,37720
268.6,2.77556e-17,0,38296,38296
268.65,2.77556e-17,0,38832,38832
268.701,2.77556e-17,0,39016,39016
268.75,2.77556e-17,0,39400,39400
268.8,2.77556e-17,0,39808,39808
268.85,2.77556e-17,0,39784,39784
268.901,2.77556e-17,0,40160,40160
268.95,2.77556e-17,0,40520,40520
269,2.77556e-17,0,40704,40704
269.051,2.77556e-17,0,41040,41040
269.101,2.77556e-17,0,41420,41420
269.15,2.77556e-17,0,41608,41608
269.2,2.77556e-17,0,41436,41436
269.251,2.77556e-17,0,41484,41484
269.3,2.77556e-17,0,41880,41880
269.35,2.77556e-17,0,42144,42144
269.4,2.77556e-17,0,42296,42296
269.451,2.77556e-17,0,42824,42824
269.5,2.77556e-17,0,43360,43360
269.55,2.77556e-17,0,43792,43792
269.601,2.77556e-17,0,44260,44260
269.65,2.77556e-17,0,44810,44810
269.7,2.77556e-17,0,45236,45236
269.75,2.77556e-17,0,45860,45860
269.801,2.77556e-17,0,46444,46444
269.85,2.77556e-17,0,47056,47056
269.9,2.77556e-17,0,47540,47540
269.95,2.77556e-17,0,48020,48020
270.001,2.77556e-17,0,48628,48628
270.05,2.77556e-17,0,49176,49176
270.1,2.77556e-17,0,49852,49852
270.151,2.77556e-17,0,50476,50476
270.2,2.77556e-17,0,50980,50980
270.25,2.77556e-17,0,51584,51584
270.3,2.77556e-17,0,52068,52068
270.351,2.77556e-17,0,52668,52668
270.4,2.77556e-17,0,53240,53240
270.45,2.77556e-17,0,53818,53818
270.501,2.77556e-17,0,54368,54368
270.551,2.77556e-17,0,54946,54946
270.6,2.77556e-17,0,55560,55560
270.65,2.77556e-17,0,56106,56106
270.701,2.77556e-17,0,56466,56466
270.75,2.77556e-17,0,57094,57094
270.8,2.77556e-17,0,57620,57620
270.85,2.77556e-17,0,58188,58188
270.901,2.77556e-17,0,58782,58782
270.95,2.77556e-17,0,59410,59410
271,2.77556e-17,0,59952,59952
271.051,2.77556e-17,0,60598,60598
271.1,2.77556e-17,0,61308,61308
271.15,2.77556e-17,0,61738,61738
271.2,2.77556e-17,0,62412,62412
271.251,2.77556e-17,0,62892,62892
271.3,2.77556e-17,0,63460,63460
271.35,2.77556e-17,0,64050,64050
271.401,2.77556e-17,0,64562,64562
271.451,2.77556e-17,0,65196,65196
271.5,2.77556e-17,0,65766,65766
271.55,2.77556e-17,0,66292,66292
271.601,2.77556e-17,0,66806,66806
271.65,2.77556e-17,0,67256,67256
271.7,2.77556e-17,0,67808,67808
271.75,2.77556e-17,0,68420,68420
271.801,2.77556e-17,0,69014,69014
271.85,2.77556e-17,0,69570,69570
271.9,2.77556e-17,0,70036,70036
271.951,2.77556e-17,0,70684,70684
272,2.77556e-17,0,71308,71308
272.05,2.77556e-17,0,71886,71886
272.1,2.77556e-17,0,72446,72446
272.151,2.77556e-17,0,72858,72858
272.2,2.77556e-17,0,73306,73306
272.25,2.77556e-17,0,73730,73730
272.3,2.77556e-17,0,74278,74278
272.351,7.49401e-16,0,74908,74908
272.4,2.30371e-15,0,75408,75408
272.45,3.96905e-15,0,75962,75962
272.501,5.85643e-15,0,76446,76446
272.55,7.71605e-15,0,77038,77038
272.6,9.60343e-15,0,77556,77556
272.65,1.28231e-14,0,78062,78062
272.701,3.20854e-14,0,78640,78640
272.75,8.26839e-14,0,79274,79274
272.8,-9.59788e-14,0,79792,79792
272.851,-2.43369e-12,0,80262,80262
272.9,-1.35784e-11,0,80876,80876
272.95,-4.78022e-11,0,81234,81234
273,-1.22957e-10,0,81744,81744
273.051,-2.48878e-10,0,82246,82246
273.1,-4.24306e-10,0,82752,82752
273.15,-4.28877e-10,0,83152,83152
273.2,-2.38345e-10,0,83414,83414
273.251,1.58114e-10,0,84094,84094
273.3,3.18283e-10,0,84476,84476
273.35,2.69089e-10,0,85130,85130
273.401,1.37334e-10,0,85620,85620
273.45,-8.20945e-11,0,86162,86162
273.5,-7.74578e-11,0,86564,86564
273.55,3.32301e-11,0,87086,87086
273.601,2.2022e-10,0,87650,87650
273.65,2.45332e-10,0,88282,88282
273.7,1.5559e-10,0,88092,88092
273.751,4.09731e-11,0,88022,88022
273.801,4.76968e-12,0,88186,88186
273.85,6.22994e-11,0,88622,88622
273.9,1.44667e-10,0,89386,89386
273.951,1.8439e-10,0,89826,89826
274,1.59067e-10,0,90586,90586
274.05,9.99165e-11,0,91410,91410
274.1,5.63664e-11,0,92588,92588
274.151,6.38422e-11,0,93098,93098
274.2,1.24102e-10,0,93520,93520
274.25,2.03481e-10,0,93982,93982
274.301,2.47612e-10,0,94670,94670
274.35,2.08878e-10,0,95176,95176
274.4,7.30923e-11,0,95694,95694
274.45,-2.36793e-10,0,96280,96280
274.501,-2.05762e-10,0,96716,96716
274.55,2.92403e-10,0,97278,97278
274.6,8.39524e-10,0,97638,97638
274.651,7.2791e-10,0,98210,98210
274.701,-3.46674e-10,0,98470,98470
274.75,-1.39205e-09,0,98802,98802
274.8,-8.19253e-10,0,99080,99080
274.851,2.66103e-09,0,98982,98982
274.9,8.62836e-09,0,98504,98504
274.95,1.56579e-08,0,97970,97970
275,2.21532e-08,0,96988,96988
275.051,2.71924e-08,0,96330,96330
275.1,3.04138e-08,0,95854,95854
275.15,3.24618e-08,0,95626,95626
275.201,3.4729e-08,0,95430,95430
275.25,3.88912e-08,0,95280,95280
275.3,4.61429e-08,0,95058,95058
275.35,5.64641e-08,0,94832,94832
275.401,6.9246e-08,0,94580,94580
275.45,8.3644e-08,0,94178,94178
275.5,1.00477e-07,0,93880,93880
275.55,1.21271e-07,0,93418,93418
275.601,1.48093e-07,0,92688,92688
275.65,1.81342e-07,0,91994,91994
275.7,2.21796e-07,0,91152,91152
275.751,2.69503e-07,0,90254,90254
275.8,3.21018e-07,0,89324,89324
275.85,3.74429e-07,0,88414,88414
275.9,4.28392e-07,0,87534,87534
275.951,4.84663e-07,0,86670,86670
276,5.43718e-07,0,86044,86044
276.05,6.06974e-07,0,85280,85280
276.101,6.72911e-07,0,84672,84672
276.151,7.34961e-07,0,84054,84054
276.2,7.89647e-07,0,83246,83246
276.25,8.34116e-07,0,82810,82810
276.301,8.67617e-07,0,82577,82577
276.35,8.89397e-07,0,82231,82231
276.401,9.02375e-07,0,81913,81913
276.45,9.08813e-07,0,81533,81533
276.5,9.11135e-07,0,81249,81249
276.551,9.10419e-07,0,80881,80881
276.6,9.06491e-07,0,80587,80587
276.651,8.98586e-07,0,80131,80131
276.7,8.85843e-07,0,80000,80000
276.751,8.66886e-07,0,79822,79822
276.801,8.40479e-07,0,79550,79550
276.85,8.06261e-07,0,79662,79662
276.9,7.63527e-07,0,79422,79422
276.95,7.13158e-07,0,79200,79200
277,6.57631e-07,0,78772,78772
277.05,6.0032e-07,0,78582,78582
277.101,5.44219e-07,0,78252,78252
277.151,4.91998e-07,0,77836,77836
277.201,4.43553e-07,0,77462,77462
277.251,3.99026e-07,0,77744,77744
277.3,3.58684e-07,0,77896,77896
277.351,3.20542e-07,0,78428,78428
277.4,2.85165e-07,0,79650,79650
277.45,2.51434e-07,0,80834,80834
277.501,2.18701e-07,0,82206,82206
277.55,1.88737e-07,0,82532,82532
277.6,1.62643e-07,0,82974,82974
277.651,1.41788e-07,0,83156,83156
277.701,1.26579e-07,0,84194,84194
277.751,1.1458e-07,0,84856,84856
277.801,1.02578e-07,0,85620,85620
277.85,8.89505e-08,0,86468,86468
277.9,7.45768e-08,0,87256,87256
277.95,6.14218e-08,0,87782,87782
278,5.13699e-08,0,88344,88344
278.05,4.46336e-08,0,88854,88854
278.101,4.03146e-08,0,89386,89386
278.15,3.71841e-08,0,90066,90066
278.2,3.35822e-08,0,91098,91098
278.25,2.83791e-08,0,91866,91866
278.3,2.16098e-08,0,92558,92558
278.351,1.46185e-08,0,93380,93380
278.4,9.49617e-09,0,93698,93698
278.45,7.00965e-09,0,93752,93752
278.5,6.70007e-09,0,93710,93710
278.551,7.26897e-09,0,93100,93100
278.6,7.84275e-09,0,92674,92674
278.651,8.0875e-09,0,92188,92188
278.701,8.17206e-09,0,91736,91736
278.751,8.25353e-09,0,91340,91340
278.8,8.34061e-09,0,90856,90856
278.851,8.40295e-09,0,90520,90520
278.9,8.37551e-09,0,90066,90066
278.95,8.1501e-09,0,89716,89716
279.001,7.5869e-09,0,89386,89386
279.05,7.21296e-09,0,89244,89244
279.101,7.113e-09,0,88926,88926
279.15,7.11735e-09,0,88486,88486
279.201,7.13229e-09,0,88028,88028
279.251,7.14987e-09,0,87528,87528
279.3,7.16789e-09,0,87112,87112
279.35,7.18586e-09,0,86652,86652
279.401,7.20411e-09,0,86102,86102
279.45,7.22209e-09,0,85650,85650
279.5,7.24021e-09,0,85342,85342
279.55,7.25831e-09,0,85108,85108
279.601,7.27665e-09,0,84744,84744
279.65,7.29471e-09,0,84404,84404
279.7,7.31264e-09,0,84154,84154
279.751,7.33072e-09,0,83616,83616
279.801,7.34878e-09,0,83098,83098
279.85,7.36736e-09,0,83540,83540
279.9,7.38611e-09,0,83322,83322
279.951,7.40425e-09,0,84210,84210
280,7.42038e-09,0,85072,85072
280.05,7.43562e-09,0,85834,85834
280.1,7.45298e-09,0,86580,86580
280.151,7.4771e-09,0,87146,87146
280.2,7.51114e-09,0,87668,87668
280.25,7.55815e-09,0,88172,88172
280.301,7.62223e-09,0,88604,88604
280.35,7.70711e-09,0,89118,89118
280.4,7.82208e-09,0,89594,89594
280.45,7.96865e-09,0,90128,90128
280.501,8.1815e-09,0,90692,90692
280.55,8.46475e-09,0,91308,91308
280.6,8.77663e-09,0,91828,91828
280.65,9.10917e-09,0,92424,92424
280.701,9.45478e-09,0,92964,92964
280.75,9.82025e-09,0,93618,93618
280.8,1.02745e-08,0,94312,94312
280.851,1.08295e-08,0,95024,95024
280.9,1.15021e-08,0,95502,95502
280.95,1.23208e-08,0,95596,95596
281,1.33019e-08,0,95620,95620
281.051,1.44859e-08,0,95616,95616
281.1,1.58613e-08,0,95636,95636
281.15,1.74623e-08,0,95546,95546
281.201,1.93303e-08,0,95468,95468
281.251,2.14196e-08,0,95288,95288
281.3,2.37645e-08,0,95224,95224
281.35,2.63738e-08,0,95140,95140
281.401,2.92966e-08,0,95090,95090
281.45,3.2442e-08,0,94984,94984
281.5,3.58275e-08,0,94904,94904
281.55,3.94157e-08,0,94716,94716
281.601,4.32174e-08,0,94598,94598
281.65,4.70794e-08,0,94516,94516
281.7,5.10287e-08,0,94420,94420
281.751,5.5118e-08,0,94260,94260
281.8,5.92351e-08,0,94102,94102
281.85,6.34332e-08,0,93994,93994
281.9,6.76554e-08,0,94010,94010
281.951,7.18586e-08,0,93898,93898
282,7.59045e-08,0,93874,93874
282.05,8.00995e-08,0,93768,93768
282.101,8.50239e-08,0,93634,93634
282.151,9.10384e-08,0,93552,93552
282.2,9.83626e-08,0,93420,93420
282.25,1.06654e-07,0,93432,93432
282.301,1.1533e-07,0,93344,93344
282.35,1.23392e-07,0,93208,93208
282.4,1.30528e-07,0,93098,93098
282.45,1.36796e-07,0,93006,93006
282.501,1.42837e-07,0,92916,92916
282.55,1.49329e-07,0,92822,92822
282.6,1.57186e-07,0,92422,92422
282.651,1.67119e-07,0,92416,92416
282.7,1.79056e-07,0,92637,92637
282.75,1.93241e-07,0,92786,92786
282.8,2.10193e-07,0,93546,93546
282.85,2.30301e-07,0,94152,94152
282.9,2.54391e-07,0,94760,94760
282.95,2.8323e-07,0,95224,95224
283.001,3.1775e-07,0,96072,96072
283.05,3.56623e-07,0,96744,96744
283.1,4.00166e-07,0,97432,97432
283.15,4.46593e-07,0,98056,98056
283.201,4.95603e-07,0,98760,98760
283.25,5.45162e-07,0,99410,99410
283.3,5.96639e-07,0,100178,100178
283.35,6.48964e-07,0,100742,100742
283.4,7.01034e-07,0,100906,100906
283.45,7.50772e-07,0,100814,100814
283.5,7.96166e-07,0,101654,101654
283.551,8.33852e-07,0,102554,102554
283.6,8.62104e-07,0,103528,103528
283.65,8.80407e-07,0,103958,103958
283.701,8.89465e-07,0,104510,104510
283.75,8.90447e-07,0,105150,105150
283.8,8.85095e-07,0,105674,105674
283.85,8.74786e-07,0,106336,106336
283.9,8.60358e-07,0,106694,106694
283.951,8.4164e-07,0,107138,107138
284,8.18786e-07,0,107476,107476
284.05,7.90865e-07,0,108166,108166
284.1,7.57118e-07,0,108726,108726
284.151,7.16345e-07,0,109606,109606
284.2,6.69642e-07,0,110254,110254
284.25,6.17087e-07,0,110712,110712
284.301,5.59218e-07,0,111190,111190
284.35,4.99739e-07,0,111662,111662
284.4,4.4006e-07,0,112230,112230
284.45,3.82155e-07,0,112662,112662
284.501,3.26661e-07,0,113168,113168
284.55,2.75945e-07,0,113510,113510
284.6,2.29338e-07,0,114024,114024
284.651,1.86001e-07,0,114500,114500
284.701,1.46759e-07,0,114494,114494
284.75,1.10571e-07,0,114406,114406
284.8,7.72957e-08,0,113974,113974
284.851,4.67372e-08,0,113940,113940
284.9,2.02979e-08,0,113936,113936
284.95,-1.99951e-09,0,113716,113716
285,-2.01059e-08,0,113668,113668
285.051,-3.48402e-08,0,114188,114188
285.1,-4.69089e-08,0,115730,115730
285.15,-5.76182e-08,0,118010,118010
285.201,-6.75998e-08,0,118914,118914
285.25,-7.63457e-08,0,119194,119194
285.3,-8.34042e-08,0,119698,119698
285.35,-8.82926e-08,0,120278,120278
285.401,-9.10245e-08,0,120978,120978
285.45,-9.20394e-08,0,121554,121554
285.5,-9.22263e-08,0,122034,122034
285.55,-9.22161e-08,0,122202,122202
285.601,-9.23977e-08,0,122350,122350
285.65,-9.2635e-08,0,122268,122268
285.7,-9.2356e-08,0,122264,122264
285.751,-9.09015e-08,0,122152,122152
285.8,-8.80972e-08,0,122000,122000
285.85,-8.41644e-08,0,121864,121864
285.9,-7.95429e-08,0,121648,121648
285.951,-7.46207e-08,0,121552,121552
286,-6.98525e-08,0,121506,121506
286.05,-6.53045e-08,0,121410,121410
286.101,-6.09565e-08,0,121522,121522
286.151,-5.69547e-08,0,121708,121708
286.2,-5.32676e-08,0,121922,121922
286.25,-4.99289e-08,0,122350,122350
286.301,-4.69036e-08,0,122632,122632
286.35,-4.42402e-08,0,123074,123074
286.4,-4.18332e-08,0,122966,122966
286.45,-3.96434e-08,0,122960,122960
286.501,-3.76376e-08,0,123004,123004
286.55,-3.58861e-08,0,121080,121080
286.6,-3.43648e-08,0,119440,119440
286.651,-3.30504e-08,0,117890,117890
286.7,-3.19663e-08,0,116660,116660
286.75,-3.10713e-08,0,115598,115598
286.8,-3.03366e-08,0,114664,114664
286.851,-2.97613e-08,0,113720,113720
286.9,-2.93667e-08,0,112750,112750
286.95,-2.90902e-08,0,111726,111726
287.001,-2.89175e-08,0,110876,110876
287.051,-2.88441e-08,0,110126,110126
287.1,-2.88186e-08,0,109462,109462
287.15,-2.88362e-08,0,108858,108858
287.201,-2.89009e-08,0,108360,108360
287.25,-2.90106e-08,0,107858,107858
287.3,-2.91574e-08,0,107130,107130
287.35,-2.93273e-08,0,106938,106938
287.401,-2.95006e-08,0,106394,106394
287.45,-2.97269e-08,0,106138,106138
287.5,-2.99766e-08,0,105858,105858
287.551,-3.01948e-08,0,105324,105324
287.6,-3.04043e-08,0,105158,105158
287.65,-3.06075e-08,0,104840,104840
287.7,-3.08044e-08,0,104828,104828
287.751,-3.0996e-08,0,104614,104614
287.8,-3.11744e-08,0,104752,104752
287.85,-3.13391e-08,0,104350,104350
287.901,-3.14881e-08,0,103878,103878
287.951,-3.16147e-08,0,103444,103444
288,-3.17214e-08,0,102778,102778
288.05,-3.1805e-08,0,102266,102266
288.101,-3.18673e-08,0,101728,101728
288.15,-3.18805e-08,0,101302,101302
288.2,-3.18813e-08,0,101030,101030
288.25,-3.18713e-08,0,100552,100552
288.301,-3.18456e-08,0,99556,99556
288.35,-3.18042e-08,0,98362,98362
288.4,-3.17494e-08,0,97420,97420
288.451,-3.16815e-08,0,96168,96168
288.5,-3.16043e-08,0,94436,94436
288.55,-3.15183e-08,0,93898,93898
288.6,-3.14244e-08,0,93964,93964
288.651,-3.13224e-08,0,94716,94716
288.7,-3.12165e-08,0,94972,94972
288.75,-3.11062e-08,0,95396,95396
288.8,-3.09921e-08,0,95982,95982
288.851,-3.08729e-08,0,96918,96918
288.9,-3.0752e-08,0,100406,100406
288.95,-3.06284e-08,0,102152,102152
289.001,-3.05008e-08,0,103654,103654
289.05,-3.03737e-08,0,104566,104566
289.1,-3.02462e-08,0,105124,105124
289.15,-3.01186e-08,0,106038,106038
289.201,-2.99893e-08,0,107034,107034
289.25,-2.98615e-08,0,106276,106276
289.3,-2.97325e-08,0,102822,102822
289.351,-2.96011e-08,0,101976,101976
289.401,-2.94798e-08,0,101494,101494
289.45,-2.93477e-08,0,100794,100794
289.5,-2.91927e-08,0,101034,101034
289.551,-2.90392e-08,0,102408,102408
289.6,-2.88722e-08,0,102480,102480
289.65,-2.86899e-08,0,102208,102208
289.7,-2.84888e-08,0,102228,102228
289.751,-2.8259e-08,0,102420,102420
289.8,-2.80138e-08,0,102568,102568
289.85,-2.77272e-08,0,102688,102688
289.901,-2.74062e-08,0,102846,102846
289.95,-2.70503e-08,0,102872,102872
290,-2.66689e-08,0,102768,102768
290.05,-2.62573e-08,0,101922,101922
290.101,-2.58101e-08,0,100814,100814
290.15,-2.5339e-08,0,99324,99324
290.2,-2.48487e-08,0,97676,97676
290.251,-2.43395e-08,0,96094,96094
290.301,-2.38318e-08,0,94302,94302
290.35,-2.33189e-08,0,92298,92298
290.4,-2.28021e-08,0,89882,89882
290.451,-2.23018e-08,0,87090,87090
290.5,-2.1923e-08,0,83926,83926
290.55,-2.15466e-08,0,80570,80570
290.6,-2.11861e-08,0,77746,77746
290.651,-2.08657e-08,0,78084,78084
290.7,-2.059e-08,0,79524,79524
290.75,-2.03683e-08,0,82774,82774
290.801,-2.02055e-08,0,80206,80206
290.85,-2.00957e-08,0,77840,77840
290.9,-1.99797e-08,0,77216,77216
290.95,-1.99701e-08,0,77674,77674
291.001,-2.00077e-08,0,79848,79848
291.05,-2.00955e-08,0,82552,82552
291.1,-2.02656e-08,0,82776,82776
291.15,-2.04239e-08,0,82696,82696
291.201,-2.06118e-08,0,82692,82692
291.25,-2.08285e-08,0,82384,82384
291.3,-2.10622e-08,0,82064,82064
291.351,-2.132e-08,0,82228,82228
291.4,-2.15609e-08,0,82868,82868
291.45,-2.18095e-08,0,82788,82788
291.5,-2.20529e-08,0,82784,82784
291.551,-2.22903e-08,0,82792,82792
291.6,-2.25099e-08,0,82912,82912
291.65,-2.27096e-08,0,83184,83184
291.701,-2.28877e-08,0,83552,83552
291.751,-2.30305e-08,0,83808,83808
291.8,-2.31302e-08,0,83936,83936
291.85,-2.31943e-08,0,83920,83920
291.901,-2.32389e-08,0,83780,83780
291.95,-2.32673e-08,0,83536,83536
292,-2.32774e-08,0,83496,83496
292.05,-2.3267e-08,0,83912,83912
292.101,-2.32358e-08,0,84248,84248
292.15,-2.31867e-08,0,84568,84568
292.2,-2.31215e-08,0,84746,84746
292.251,-2.30385e-08,0,84952,84952
292.3,-2.29422e-08,0,85070,85070
292.35,-2.28359e-08,0,85340,85340
292.4,-2.27217e-08,0,85390,85390
292.451,-2.25974e-08,0,85192,85192
292.5,-2.24669e-08,0,84942,84942
292.55,-2.2329e-08,0,84834,84834
292.601,-2.21826e-08,0,85154,85154
292.651,-2.2033e-08,0,85154,85154
292.7,-2.18792e-08,0,84334,84334
292.75,-2.1722e-08,0,82398,82398
292.801,-2.15602e-08,0,80748,80748
292.85,-2.13998e-08,0,80758,80758
292.9,-2.12394e-08,0,79766,79766
292.95,-2.10805e-08,0,78666,78666
293.001,-2.09222e-08,0,77060,77060
293.05,-2.07704e-08,0,75630,75630
293.1,-2.06238e-08,0,74314,74314
293.15,-2.04815e-08,0,73610,73610
293.2,-2.03464e-08,0,73050,73050
293.251,-2.02164e-08,0,72530,72530
293.3,-2.00954e-08,0,72398,72398
293.35,-1.9981e-08,0,72260,72260
293.4,-1.98792e-08,0,72028,72028
293.45,-1.9787e-08,0,71942,71942
293.5,-1.97013e-08,0,71876,71876
293.551,-1.96225e-08,0,71702,71702
293.601,-1.95484e-08,0,71276,71276
293.651,-1.94772e-08,0,71286,71286
293.7,-1.94073e-08,0,71346,71346
293.75,-1.93373e-08,0,71390,71390
293.8,-1.92686e-08,0,71448,71448
293.851,-1.92008e-08,0,71502,71502
293.9,-1.91357e-08,0,71568,71568
293.95,-1.90726e-08,0,71548,71548
294.001,-1.90107e-08,0,71626,71626
294.05,-1.89512e-08,0,71648,71648
294.1,-1.88924e-08,0,71682,71682
294.15,-1.8833e-08,0,71734,71734
294.201,-1.87706e-08,0,71752,71752
294.25,-1.87057e-08,0,71780,71780
294.3,-1.86366e-08,0,71822,71822
294.351,-1.85621e-08,0,71836,71836
294.401,-1.84849e-08,0,71876,71876
294.45,-1.84047e-08,0,71906,71906
294.5,-1.83223e-08,0,71902,71902
294.551,-1.82371e-08,0,71918,71918
294.6,-1.81521e-08,0,71926,71926
294.65,-1.80664e-08,0,71950,71950
294.7,-1.79796e-08,0,71978,71978
294.751,-1.78903e-08,0,71984,71984
294.8,-1.78005e-08,0,72006,72006
294.85,-1.77091e-08,0,72024,72024
294.901,-1.76148e-08,0,72378,72378
294.95,-1.75207e-08,0,72946,72946
295,-1.74257e-08,0,73268,73268
295.05,-1.73297e-08,0,73584,73584
295.101,-1.72306e-08,0,73286,73286
295.15,-1.71307e-08,0,72938,72938
295.2,-1.70277e-08,0,73814,73814
295.251,-1.69198e-08,0,73568,73568
295.301,-1.68098e-08,0,73510,73510
295.35,-1.66963e-08,0,73092,73092
295.4,-1.65792e-08,0,72870,72870
295.451,-1.64566e-08,0,72520,72520
295.5,-1.63315e-08,0,72194,72194
295.55,-1.62017e-08,0,71754,71754
295.6,-1.60664e-08,0,71358,71358
295.651,-1.59234e-08,0,70912,70912
295.7,-1.57767e-08,0,70482,70482
295.75,-1.56244e-08,0,69674,69674
295.801,-1.54647e-08,0,68944,68944
295.85,-1.53023e-08,0,68460,68460
295.9,-1.51359e-08,0,67852,67852
295.95,-1.49664e-08,0,67192,67192
296.001,-1.47894e-08,0,66514,66514
296.05,-1.45991e-08,0,65712,65712
296.1,-1.44103e-08,0,64976,64976
296.15,-1.4213e-08,0,64360,64360
296.201,-1.40041e-08,0,63760,63760
296.25,-1.37954e-08,0,63078,63078
296.3,-1.35813e-08,0,62438,62438
296.351,-1.33577e-08,0,61848,61848
296.4,-1.31311e-08,0,61418,61418
296.45,-1.28983e-08,0,60964,60964
296.5,-1.26593e-08,0,60344,60344
296.551,-1.24109e-08,0,59720,59720
296.6,-1.21605e-08,0,59194,59194
296.65,-1.1904e-08,0,58656,58656
296.701,-1.1636e-08,0,58068,58068
296.751,-1.13623e-08,0,57544,57544
296.8,-1.10767e-08,0,56916,56916
296.85,-1.07772e-08,0,56852,56852
296.901,-1.04594e-08,0,56884,56884
296.95,-1.01379e-08,0,56940,56940
297,-9.82133e-09,0,56952,56952
297.05,-9.39895e-09,0,57012,57012
297.1,-8.97963e-09,0,57078,57078
297.151,-8.53367e-09,0,57088,57088
297.2,-8.06788e-09,0,57144,57144
297.25,-7.56472e-09,0,57152,57152
297.3,-7.03242e-09,0,57220,57220
297.35,-6.47184e-09,0,57286,57286
297.401,-5.87333e-09,0,57304,57304
297.45,-5.25783e-09,0,57364,57364
297.5,-4.60652e-09,0,57412,57412
297.55,-3.93381e-09,0,57460,57460
297.6,-3.24687e-09,0,57504,57504
297.65,-2.54294e-09,0,57568,57568
297.701,-1.84149e-09,0,57622,57622
297.751,-1.14846e-09,0,57656,57656
297.801,-4.68444e-10,0,57744,57744
297.85,1.94541e-10,0,57776,57776
297.9,8.36834e-10,0,57818,57818
297.95,1.4651e-09,0,57884,57884
298,2.06564e-09,0,57918,57918
298.05,2.6358e-09,0,57952,57952
298.101,3.18129e-09,0,58022,58022
298.15,3.68127e-09,0,58094,58094
298.2,4.14682e-09,0,58124,58124
298.25,4.5642e-09,0,58194,58194
298.3,4.93031e-09,0,58250,58250
298.351,5.25016e-09,0,58348,58348
298.4,5.51662e-09,0,58360,58360
298.45,5.74162e-09,0,58474,58474
298.5,5.92466e-09,0,58532,58532
298.55,6.06912e-09,0,58634,58634
298.601,6.17467e-09,0,58712,58712
298.65,6.24803e-09,0,58808,58808
298.7,6.24642e-09,0,58866,58866
298.75,6.23374e-09,0,58950,58950
298.801,6.20611e-09,0,59056,59056
298.85,6.16193e-09,0,59134,59134
298.9,6.09971e-09,0,59210,59210
298.95,6.02176e-09,0,59294,59294
299,5.93055e-09,0,59384,59384
299.05,5.82863e-09,0,59490,59490
299.1,5.71662e-09,0,59530,59530
299.151,5.59816e-09,0,59632,59632
299.201,5.47518e-09,0,59720,59720
299.25,5.34942e-09,0,59810,59810
299.3,5.22239e-09,0,59894,59894
299.35,5.09354e-09,0,59978,59978
299.401,4.9659e-09,0,60032,60032
299.451,4.84042e-09,0,60136,60136
299.5,4.71786e-09,0,60202,60202
299.55,4.59862e-09,0,60304,60304
299.601,4.48166e-09,0,60394,60394
299.65,4.37106e-09,0,60436,60436
299.7,4.26578e-09,0,60530,60530
299.75,4.16654e-09,0,60624,60624
299.801,4.07265e-09,0,60682,60682
299.85,3.98733e-09,0,60726,60726
299.9,3.90951e-09,0,60806,60806
299.95,3.83938e-09,0,60886,60886
300.001,3.77613e-09,0,60964,60964
300.05,3.72147e-09,0,61054,61054
300.1,3.67406e-09,0,61106,61106
300.151,3.63276e-09,0,61132,61132
300.2,3.59799e-09,0,61208,61208
300.25,3.56827e-09,0,61288,61288
300.3,3.54272e-09,0,61356,61356
300.351,3.52013e-09,0,61408,61408
300.4,3.50026e-09,0,61434,61434
300.45,3.48193e-09,0,61492,61492
300.501,3.46412e-09,0,61540,61540
300.551,3.4466e-09,0,61602,61602
300.6,3.42842e-09,0,61650,61650
300.65,3.40897e-09,0,61730,61730
300.701,3.38748e-09,0,61752,61752
300.75,3.36437e-09,0,61788,61788
300.8,3.33941e-09,0,61840,61840
300.85,3.31296e-09,0,61884,61884
300.901,3.28514e-09,0,61920,61920
300.95,3.25736e-09,0,61958,61958
301,3.22974e-09,0,62004,62004
301.051,3.20222e-09,0,62038,62038
301.1,3.17573e-09,0,62030,62030
301.15,3.14978e-09,0,62050,62050
301.2,3.12415e-09,0,61694,61694
301.251,3.09825e-09,0,61314,61314
301.3,3.07269e-09,0,60882,60882
301.35,3.04712e-09,0,60472,60472
301.401,3.02136e-09,0,60032,60032
301.451,2.99657e-09,0,59600,59600
301.5,2.97284e-09,0,59188,59188
301.55,2.95064e-09,0,58752,58752
301.601,2.93006e-09,0,58312,58312
301.65,2.91187e-09,0,57888,57888
301.7,2.89574e-09,0,57454,57454
301.75,2.88143e-09,0,57016,57016
301.801,2.86839e-09,0,56570,56570
301.85,2.85655e-09,0,56120,56120
301.9,2.84528e-09,0,55684,55684
301.951,2.83408e-09,0,55220,55220
302,2.823e-09,0,54776,54776
302.05,2.81172e-09,0,54194,54194
302.1,2.80014e-09,0,53510,53510
302.151,2.78797e-09,0,52840,52840
302.2,2.77546e-09,0,52158,52158
302.25,2.76235e-09,0,51476,51476
302.301,2.74833e-09,0,50804,50804
302.351,2.73376e-09,0,50116,50116
302.4,2.71847e-09,0,49450,49450
302.45,2.70253e-09,0,48772,48772
302.501,2.68578e-09,0,48082,48082
302.55,2.6688e-09,0,47412,47412
302.6,2.65142e-09,0,46730,46730
302.65,2.63366e-09,0,46056,46056
302.701,2.61525e-09,0,45372,45372
302.75,2.59676e-09,0,44698,44698
302.8,2.57796e-09,0,44022,44022
302.851,2.55865e-09,0,43334,43334
302.9,2.53947e-09,0,42664,42664
302.95,2.5202e-09,0,41980,41980
303,2.50086e-09,0,41312,41312
303.051,2.48114e-09,0,40624,40624
303.1,2.46156e-09,0,39954,39954
303.15,2.44177e-09,0,39278,39278
303.2,2.4217e-09,0,38602,38602
303.251,2.40103e-09,0,37918,37918
303.3,2.38036e-09,0,37230,37230
303.35,2.35942e-09,0,36564,36564
303.401,2.33797e-09,0,35870,35870
303.45,2.31667e-09,0,35204,35204
303.5,2.2953e-09,0,34510,34510
303.55,2.27389e-09,0,33848,33848
303.601,2.25218e-09,0,33158,33158
303.651,2.23063e-09,0,32768,32768
303.701,2.20938e-09,0,32768,32768
303.75,2.18823e-09,0,32768,32768
303.8,2.16723e-09,0,32768,32768
303.85,2.14639e-09,0,32768,32768
303.901,2.12514e-09,0,32768,32768
303.951,2.10469e-09,0,32768,32768
304.001,2.08447e-09,0,32768,32768
304.051,2.06448e-09,0,32768,32768
304.101,2.04474e-09,0,32768,32768
304.15,2.02526e-09,0,32768,32768
304.2,2.00603e-09,0,32768,32768
304.251,1.98649e-09,0,32768,32768
304.301,1.96774e-09,0,32768,32768
304.351,1.9492e-09,0,32768,32768
304.401,1.93084e-09,0,32768,32768
304.451,1.91262e-09,0,32768,32768
304.5,1.89449e-09,0,32768,32768
304.55,1.87641e-09,0,32768,32768
304.601,1.8578e-09,0,32768,32768
304.651,1.83967e-09,0,32768,32768
304.701,1.82143e-09,0,32768,32768
304.751,1.80303e-09,0,32768,32768
304.801,1.78442e-09,0,32768,32768
304.85,1.76554e-09,0,32768,32768
304.9,1.74634e-09,0,32768,32768
304.951,1.7262e-09,0,32768,32768
