250,0,0,8192,8192
250.003,0,0,8192,8192
250.053,0,0,8192,8192
250.103,0,0,8192,8192
250.152,0,0,8192,8192
250.202,0,0,8192,8192
250.252,0,0,8192,8192
250.302,0,0,8192,8192
250.352,0,0,8192,8192
250.401,0,0,8192,8192
250.451,0,0,8192,8192
250.501,0,0,8192,8192
250.551,0,0,8192,8192
250.6,0,0,8192,8192
250.65,0,0,8192,8192
250.7,0,0,8192,8192
250.753,0,0,8192,8192
250.803,0,0,8192,8192
250.852,0,0,8192,8192
250.902,0,0,8192,8192
250.952,0,0,8192,8192
251.002,0,0,8192,8192
251.052,0,0,8192,8192
251.101,0,0,8192,8192
251.151,0,0,8192,8192
251.201,0,0,8192,8192
251.251,0,0,8192,8192
251.301,0,0,8192,8192
251.35,0,0,8192,8192
251.4,0,0,8192,8192
251.453,0,0,8192,8192
251.503,0,0,8192,8192
251.553,0,0,8192,8192
251.602,0,0,8192,8192
251.652,0,0,8192,8192
251.702,0,0,8192,8192
251.752,0,0,8192,8192
251.801,0,0,8192,8192
251.851,0,0,8192,8192
251.901,0,0,8192,8192
251.951,0,0,8192,8192
252.001,0,0,8192,8192
252.05,0,0,8192,8192
252.1,0,0,8192,8192
252.15,0,0,8192,8192
252.203,0,0,8192,8192
252.253,0,0,8192,8192
252.302,0,0,8192,8192
252.352,0,0,8192,8192
252.402,0,0,8192,8192
252.452,0,0,8192,8192
252.502,0,0,8192,8192
252.551,0,0,8192,8192
252.601,0,0,8192,8192
252.651,0,0,8192,8192
252.701,0,0,8192,8192
252.751,0,0,8192,8192
252.8,0,0,8192,8192
252.85,0,0,8192,8192
252.903,0,0,8192,8192
252.953,0,0,8192,8192
253.002,0,0,8192,8192
253.052,0,0,8192,8192
253.102,0,0,8192,8192
253.152,0,0,8192,8192
253.202,0,0,8192,8192
253.251,0,0,8192,8192
253.301,0,0,8192,8192
253.351,0,0,8192,8192
253.401,0,0,8192,8192
253.451,0,0,8192,8192
253.5,0,0,8192,8192
253.55,0,0,8192,8192
253.6,0,0,8192,8192
253.653,0,0,8192,8192
253.703,0,0,8192,8192
253.752,0,0,8192,8192
253.802,0,0,8192,8192
253.852,0,0,8192,8192
253.902,0,0,8192,8192
253.952,0,0,8192,8192
254.001,0,0,8192,8192
254.051,0,0,8192,8192
254.101,0,0,8192,8192
254.151,0,0,8192,8192
254.201,0,0,8192,8192
254.25,0,0,8192,8192
254.3,0,0,8192,8192
254.353,0,0,8192,8192
254.403,0,0,8192,8192
254.452,0,0,8192,8192
254.502,0,0,8192,8192
254.552,0,0,8192,8192
254.602,0,0,8192,8192
254.652,0,0,8192,8192
254.701,0,0,8192,8192
254.751,0,0,8192,8192
254.801,0,0,8192,8192
254.851,0,0,8192,8192
254.901,0,0,8192,8192
254.95,0,0,8192,8192
255,0,0,8192,8192
255.05,0,0,8192,8192
255.103,0,0,8192,8192
255.153,0,0,8192,8192
255.202,0,0,8192,8192
255.252,0,0,8192,8192
255.302,2.77556e-17,0,8192,8192
255.352,2.77556e-17,0,8192,8192
255.402,5.55112e-17,0,8192,8192
255.451,2.77556e-17,0,8192,8192
255.501,2.77556e-17,0,8192,8192
255.551,2.77556e-17,0,8192,8192
255.601,2.77556e-17,0,8192,8192
255.651,2.77556e-17,0,8192,8192
255.7,2.77556e-17,0,8192,8192
255.75,2.77556e-17,0,8192,8192
255.803,2.77556e-17,0,8192,8192
255.853,2.77556e-17,0,8192,8192
255.902,2.77556e-17,0,8192,8192
255.952,2.77556e-17,0,8192,8192
256.002,5.55112e-17,0,8192,8192
256.052,5.55112e-17,0,8192,8192
256.102,5.55112e-17,0,8192,8192
256.151,5.55112e-17,0,8192,8192
256.201,2.77556e-17,0,8192,8192
256.251,2.77556e-17,0,8192,8192
256.301,2.77556e-17,0,8192,8192
256.351,2.77556e-17,0,8192,8192
256.4,2.77556e-17,0,8192,8192
256.45,2.77556e-17,0,8192,8192
256.5,0,0,8192,8192
256.553,0,0,8192,8192
256.603,0,0,8192,8192
256.652,0,0,8192,8192
256.702,0,0,8192,8192
256.752,0,0,8192,8192
256.802,0,0,8192,8192
256.852,0,0,8192,8192
256.901,0,0,8192,8192
256.951,0,0,8192,8192
257.001,0,0,8192,8192
257.051,0,0,8192,8192
257.101,0,0,8192,8192
257.15,0,0,8192,8192
257.2,0,0,8192,8192
257.253,0,0,8192,8192
257.303,2.77556e-17,0,8192,8192
257.352,2.77556e-17,0,8192,8192
257.402,5.55112e-17,0,8192,8192
257.452,5.55112e-17,0,8192,8192
257.502,5.55112e-17,0,8192,8192
257.552,5.55112e-17,0,8192,8192
257.601,5.55112e-17,0,8192,8192
257.651,5.55112e-17,0,8192,8192
257.701,5.55112e-17,0,8192,8192
257.751,5.55112e-17,0,8192,8192
257.801,5.55112e-17,0,8192,8192
257.85,5.55112e-17,0,8192,8192
257.9,5.55112e-17,0,8192,8192
257.95,5.55112e-17,0,8192,8192
258.003,5.55112e-17,0,8192,8192
258.053,5.55112e-17,0,8192,8192
258.102,5.55112e-17,0,8192,8192
258.152,5.55112e-17,0,8192,8192
258.202,5.55112e-17,0,8192,8192
258.252,5.55112e-17,0,8192,8192
258.302,5.55112e-17,0,8192,8192
258.351,5.55112e-17,0,8192,8192
258.401,5.55112e-17,0,8192,8192
258.451,5.55112e-17,0,8192,8192
258.501,5.55112e-17,0,8192,8192
258.551,5.55112e-17,0,8192,8192
258.6,5.55112e-17,0,8192,8192
258.65,2.77556e-17,0,8192,8192
258.703,0,0,8192,8192
258.753,0,0,8192,8192
258.802,0,0,8192,8192
258.852,2.77556e-17,0,8192,8192
258.902,2.77556e-17,0,8192,8192
258.952,5.55112e-17,0,8192,8192
259.002,5.55112e-17,0,8192,8192
259.051,2.77556e-17,0,8192,8192
259.101,2.77556e-17,0,8192,8192
259.151,2.77556e-17,0,8192,8192
259.201,2.77556e-17,0,8192,8192
259.251,2.77556e-17,0,8192,8192
259.3,2.77556e-17,0,8192,8192
259.35,2.77556e-17,0,8192,8192
259.403,2.77556e-17,0,8192,8192
259.453,2.77556e-17,0,8192,8192
259.503,2.77556e-17,0,8192,8192
259.552,2.77556e-17,0,8192,8192
259.602,2.77556e-17,0,8192,8192
259.652,2.77556e-17,0,8192,8192
259.702,2.77556e-17,0,8192,8192
259.751,2.77556e-17,0,8192,8192
259.801,2.77556e-17,0,8192,8192
259.851,2.77556e-17,0,8192,8192
259.901,0,0,8192,8192
259.951,-2.77556e-17,0,8192,8192
260,-2.77556e-17,0,8192,8192
260.05,-2.77556e-17,0,8192,8192
260.1,-2.77556e-17,0,8192,8192
260.153,-2.77556e-17,0,8192,8192
260.203,-2.77556e-17,0,8192,8192
260.252,-2.77556e-17,0,8192,8192
260.302,-2.77556e-17,0,8192,8192
260.352,-2.77556e-17,0,8192,8192
260.402,-2.77556e-17,0,8192,8192
260.452,-2.77556e-17,0,8192,8192
260.501,-2.77556e-17,0,8192,8192
260.551,-2.77556e-17,0,8192,8192
260.601,-2.77556e-17,0,8192,8192
260.651,-2.77556e-17,0,8192,8192
260.701,-2.77556e-17,0,8192,8192
260.75,-2.77556e-17,0,8192,8192
260.8,-2.77556e-17,0,8192,8192
260.853,-2.77556e-17,0,8192,8192
260.903,-2.77556e-17,0,8192,8192
260.952,-2.77556e-17,0,8192,8192
261.002,-8.32667e-17,0,8192,8192
261.052,-8.32667e-17,0,8192,8192
261.102,-8.32667e-17,0,8192,8192
261.152,-5.55112e-17,0,8192,8192
261.201,-2.77556e-17,0,8192,8192
261.251,-2.77556e-17,0,8192,8192
261.301,-2.77556e-17,0,8192,8192
261.351,-2.77556e-17,0,8192,8192
261.401,-2.77556e-17,0,8192,8192
261.45,-2.77556e-17,0,8192,8192
261.5,-2.77556e-17,0,8192,8192
261.55,-2.77556e-17,0,8192,8192
261.603,-2.77556e-17,0,8192,8192
261.653,0,0,8192,8192
261.702,-2.77556e-17,0,8192,8192
261.752,-2.77556e-17,0,8192,8192
261.802,-2.77556e-17,0,8192,8192
261.852,-2.77556e-17,0,8192,8192
261.902,-2.77556e-17,0,8192,8192
261.951,-2.77556e-17,0,8192,8192
262.001,-2.77556e-17,0,8192,8192
262.051,-2.77556e-17,0,8192,8192
262.101,-2.77556e-17,0,8192,8192
262.151,-2.77556e-17,0,8192,8192
262.2,-2.77556e-17,0,8192,8192
262.25,-2.77556e-17,0,8192,8192
262.303,-2.77556e-17,0,8192,8192
262.353,-2.77556e-17,0,8192,8192
262.402,-2.77556e-17,0,8192,8192
262.452,-2.77556e-17,0,8192,8192
262.502,-2.77556e-17,0,8192,8192
262.552,-2.77556e-17,0,8192,8192
262.602,-2.77556e-17,0,8192,8192
262.651,-2.77556e-17,0,8192,8192
262.701,-2.77556e-17,0,8192,8192
262.751,0,0,8192,8192
262.801,0,0,8192,8192
262.851,0,0,8192,8192
262.9,0,0,8192,8192
262.95,-2.77556e-17,0,8192,8192
263,-2.77556e-17,0,8192,8192
263.053,0,0,8192,8192
263.103,0,0,8192,8192
263.152,0,0,8192,8192
263.202,0,0,8192,8192
263.252,0,0,8192,8192
263.302,2.77556e-17,0,8192,8192
263.352,0,0,8192,8192
263.401,0,0,8192,8192
263.451,0,0,8192,8192
263.501,2.77556e-17,0,8192,8192
263.551,5.55112e-17,0,8192,8192
263.601,5.55112e-17,0,8192,8192
263.65,0,0,8192,8192
263.7,0,0,8192,8192
263.753,0,0,8192,8192
263.803,0,0,8192,8192
263.852,0,0,8192,8192
263.902,0,0,8192,8192
263.952,0,0,8192,8192
264.002,0,0,8192,8192
264.052,0,0,8192,8192
264.101,0,0,8192,8192
264.151,0,0,8192,8192
264.201,0,0,8192,8192
264.251,0,0,8192,8192
264.301,2.77556e-17,0,8192,8192
264.35,2.77556e-17,0,8192,8192
264.4,2.77556e-17,0,8192,8192
264.45,2.77556e-17,0,8192,8192
264.503,2.77556e-17,0,8192,8192
264.553,2.77556e-17,0,8192,8192
264.602,2.77556e-17,0,8192,8192
264.652,2.77556e-17,0,8192,8192
264.702,2.77556e-17,0,8192,8192
264.752,2.77556e-17,0,8192,8192
264.802,2.77556e-17,0,8192,8192
264.851,2.77556e-17,0,8192,8192
264.901,2.77556e-17,0,8192,8192
264.951,2.77556e-17,0,8192,8192
265.001,2.77556e-17,0,8192,8192
265.051,2.77556e-17,0,8192,8192
265.1,2.77556e-17,0,8192,8192
265.15,2.77556e-17,0,8192,8192
265.203,2.77556e-17,0,8192,8192
265.253,2.77556e-17,0,8192,8192
265.302,2.77556e-17,0,8192,8192
265.352,2.77556e-17,0,8192,8192
265.402,2.77556e-17,0,8192,8192
265.452,2.77556e-17,0,8192,8192
265.502,2.77556e-17,0,8192,8192
265.551,2.77556e-17,0,8192,8192
265.601,2.77556e-17,0,8192,8192
265.651,2.77556e-17,0,8192,8192
265.701,5.55112e-17,0,8192,8192
265.751,5.55112e-17,0,8192,8192
265.8,2.77556e-17,0,8192,8192
265.85,2.77556e-17,0,8192,8192
265.9,2.77556e-17,0,8192,8192
265.953,2.77556e-17,0,8192,8192
266.003,2.77556e-17,0,8192,8192
266.052,2.77556e-17,0,8192,8192
266.102,2.77556e-17,0,8192,8192
266.152,2.77556e-17,0,8192,8192
266.202,2.77556e-17,0,8192,8192
266.252,2.77556e-17,0,8192,8192
266.301,2.77556e-17,0,8192,8192
266.351,2.77556e-17,0,8192,8192
266.401,2.77556e-17,0,8192,8192
266.451,2.77556e-17,0,8192,8192
266.501,2.77556e-17,0,8192,8192
266.55,2.77556e-17,0,8192,8192
266.6,2.77556e-17,0,8192,8192
266.653,2.77556e-17,0,8192,8192
266.703,2.77556e-17,0,8192,8192
266.752,2.77556e-17,0,8192,8192
266.802,2.77556e-17,0,8192,8192
266.852,2.77556e-17,0,8192,8192
266.902,2.77556e-17,0,8192,8192
266.952,-2.77556e-17,0,8192,8192
267.001,-2.77556e-17,0,8192,8192
267.051,-2.77556e-17,0,8192,8192
267.101,-2.77556e-17,0,8192,8192
267.151,0,0,8192,8192
267.201,0,0,8192,8192
267.25,-2.77556e-17,0,8192,8192
267.3,0,0,8192,8192
267.353,-2.77556e-17,0,8192,8192
267.403,-2.77556e-17,0,8192,8192
267.453,-2.77556e-17,0,8192,8192
267.502,-2.77556e-17,0,8192,8192
267.552,-2.77556e-17,0,8192,8192
267.602,-2.77556e-17,0,8192,8192
267.652,-2.77556e-17,0,8192,8192
267.702,-2.77556e-17,0,8192,8192
267.751,0,0,8192,8192
267.801,0,0,8192,8192
267.851,0,0,8192,8192
267.901,0,0,8192,8192
267.95,0,0,8192,8192
268,0,0,8192,8192
268.05,0,0,8192,8192
268.103,0,0,8192,8192
268.153,0,0,8192,8192
268.202,0,0,8192,8192
268.252,0,0,8192,8192
268.302,0,0,8192,8192
268.352,0,0,8192,8192
268.402,0,0,8192,8192
268.451,0,0,8192,8192
268.501,0,0,8192,8192
268.551,0,0,8192,8192
268.601,0,0,8192,8192
268.651,0,0,8192,8192
268.7,0,0,8192,8192
268.75,0,0,8192,8192
268.803,0,0,8192,8192
268.853,0,0,8192,8192
268.902,0,0,8192,8192
268.952,0,0,8192,8192
269.002,0,0,8192,8192
269.052,0,0,8192,8192
269.102,0,0,8192,8192
269.151,0,0,8192,8192
269.201,0,0,8192,8192
269.251,0,0,8192,8192
269.301,0,0,8192,8192
269.351,0,0,8192,8192
269.4,0,0,8192,8192
269.45,0,0,8192,8192
269.5,0,0,8192,8192
269.553,0,0,8192,8192
269.603,0,0,8192,8192
269.652,2.77556e-17,0,8192,8192
269.702,2.77556e-17,0,8192,8192
269.752,2.77556e-17,0,8192,8192
269.802,0,0,8192,8192
269.852,2.77556e-17,0,8192,8192
269.901,2.77556e-17,0,8192,8192
269.951,2.77556e-17,0,8196,8196
270,2.77556e-17,0,9068,9068
270.05,2.77556e-17,0,9908,9908
270.1,2.77556e-17,0,10676,10676
270.151,2.77556e-17,0,11516,11516
270.2,2.77556e-17,0,12356,12356
270.25,2.77556e-17,0,13148,13148
270.301,2.77556e-17,0,13988,13988
270.35,2.77556e-17,0,14828,14828
270.4,2.77556e-17,0,15668,15668
270.45,2.77556e-17,0,16492,16492
270.501,2.77556e-17,0,17276,17276
270.55,2.77556e-17,0,18116,18116
270.6,2.77556e-17,0,18956,18956
270.651,2.77556e-17,0,19796,19796
270.701,2.77556e-17,0,20636,20636
270.75,2.77556e-17,0,21476,21476
270.8,2.77556e-17,0,22316,22316
270.851,2.77556e-17,0,23156,23156
270.9,2.77556e-17,0,23996,23996
270.95,2.77556e-17,0,24836,24836
271,2.77556e-17,0,25628,25628
271.051,2.77556e-17,0,26516,26516
271.1,2.77556e-17,0,27308,27308
271.15,2.77556e-17,0,28148,28148
271.201,2.77556e-17,0,29012,29012
271.25,2.77556e-17,0,29828,29828
271.3,2.77556e-17,0,30668,30668
271.35,2.77556e-17,0,31508,31508
271.401,2.77556e-17,0,32348,32348
271.45,2.77556e-17,0,33188,33188
271.5,2.77556e-17,0,34028,34028
271.551,2.77556e-17,0,34892,34892
271.601,2.77556e-17,0,35708,35708
271.65,2.77556e-17,0,36548,36548
271.7,2.77556e-17,0,37388,37388
271.751,2.77556e-17,0,38228,38228
271.8,2.77556e-17,0,39068,39068
271.85,2.77556e-17,0,39908,39908
271.9,2.77556e-17,0,40748,40748
271.951,2.77556e-17,0,41588,41588
272,2.77556e-17,0,42412,42412
272.05,2.77556e-17,0,43196,43196
272.101,2.77556e-17,0,44036,44036
272.15,2.77556e-17,0,44852,44852
272.2,2.77556e-17,0,45668,45668
272.25,2.77556e-17,0,46508,46508
272.301,2.77556e-17,0,47276,47276
272.35,2.77556e-17,0,48116,48116
272.4,2.77556e-17,0,48908,48908
272.451,2.77556e-17,0,49676,49676
272.501,2.77556e-17,0,50516,50516
272.55,2.77556e-17,0,51308,51308
272.6,2.77556e-17,0,52076,52076
272.651,2.77556e-17,0,52892,52892
272.7,2.77556e-17,0,53708,53708
272.75,2.77556e-17,0,54476,54476
272.8,2.77556e-17,0,55268,55268
272.851,2.77556e-17,0,56036,56036
272.9,2.77556e-17,0,56828,56828
272.95,2.77556e-17,0,57596,57596
273.001,2.77556e-17,0,58388,58388
273.05,2.77556e-17,0,59156,59156
273.1,2.77556e-17,0,59876,59876
273.15,2.77556e-17,0,60668,60668
273.201,2.77556e-17,0,61436,61436
273.25,2.77556e-17,0,62228,62228
273.3,2.77556e-17,0,62948,62948
273.35,2.77556e-17,0,63716,63716
273.401,-6.93889e-16,0,64436,64436
273.45,-2.47025e-15,0,64736,64736
273.5,-4.27436e-15,0,64592,64592
273.551,-6.13398e-15,0,64472,64472
273.6,-7.96585e-15,0,64352,64352
273.65,-9.65894e-15,0,64232,64232
273.7,-1.25178e-14,0,64240,64240
273.751,-2.89213e-14,0,64240,64240
273.8,-1.00087e-13,0,64448,64448
273.85,-3.4886e-13,0,64992,64992
273.901,-1.10975e-12,0,65760,65760
273.951,-3.06508e-12,0,66480,66480
274,-7.48826e-12,0,67200,67200
274.05,-1.62345e-11,0,67920,67920
274.101,-3.15987e-11,0,68640,68640
274.15,-5.42712e-11,0,69360,69360
274.2,-8.31882e-11,0,70032,70032
274.25,-1.13719e-10,0,70752,70752
274.301,-1.38496e-10,0,71472,71472
274.35,-1.48387e-10,0,72192,72192
274.4,-1.3843e-10,0,72840,72840
274.451,-1.08484e-10,0,73560,73560
274.5,-6.60638e-11,0,74280,74280
274.55,-2.07979e-11,0,74952,74952
274.6,1.84151e-11,0,75752,75752
274.651,4.74428e-11,0,77192,77192
274.7,6.60216e-11,0,78680,78680
274.75,7.81183e-11,0,80192,80192
274.801,8.71855e-11,0,81688,81688
274.851,9.44104e-11,0,83192,83192
274.9,9.97623e-11,0,84704,84704
274.95,1.02937e-10,0,86120,86120
275.001,1.04609e-10,0,87188,87188
275.05,1.06158e-10,0,87892,87892
275.1,1.08666e-10,0,88556,88556
275.15,1.11961e-10,0,89228,89228
275.201,1.14915e-10,0,89876,89876
275.25,1.16375e-10,0,90548,90548
275.3,1.16433e-10,0,91196,91196
275.351,1.16214e-10,0,91868,91868
275.4,1.16941e-10,0,92516,92516
275.45,1.18808e-10,0,93188,93188
275.5,1.20865e-10,0,93836,93836
275.551,1.22033e-10,0,94508,94508
275.6,1.22485e-10,0,95156,95156
275.65,1.24657e-10,0,95828,95828
275.7,1.33617e-10,0,96476,96476
275.751,1.59198e-10,0,97148,97148
275.8,2.18802e-10,0,97796,97796
275.85,3.46107e-10,0,98452,98452
275.901,6.00215e-10,0,99068,99068
275.95,1.04709e-09,0,99716,99716
276,1.76505e-09,0,100388,100388
276.05,2.8076e-09,0,101036,101036
276.101,4.20266e-09,0,101708,101708
276.15,5.85323e-09,0,102356,102356
276.2,7.66938e-09,0,102956,102956
276.251,1.04222e-08,0,103628,103628
276.301,2.09702e-08,0,104276,104276
276.35,2.77018e-08,0,104948,104948
276.4,3.12891e-08,0,105548,105548
276.451,3.37139e-08,0,106196,106196
276.5,3.67302e-08,0,106868,106868
276.55,4.19004e-08,0,107468,107468
276.6,5.00653e-08,0,108116,108116
276.651,6.12442e-08,0,108788,108788
276.7,7.45034e-08,0,109388,109388
276.75,8.98969e-08,0,110036,110036
276.801,1.0857e-07,0,110636,110636
276.85,1.31482e-07,0,111308,111308
276.9,1.60343e-07,0,111956,111956
276.95,1.96108e-07,0,112556,112556
277.001,2.39559e-07,0,113228,113228
277.05,2.88364e-07,0,113828,113828
277.1,3.41011e-07,0,114476,114476
277.151,3.9623e-07,0,115076,115076
277.201,4.51745e-07,0,115748,115748
277.25,5.0944e-07,0,116348,116348
277.3,5.70726e-07,0,116948,116948
277.351,6.36216e-07,0,117596,117596
277.4,7.01045e-07,0,118196,118196
277.45,7.61788e-07,0,118868,118868
277.5,8.14513e-07,0,119468,119468
277.551,8.57287e-07,0,120116,120116
277.6,8.88052e-07,0,120716,120716
277.65,9.08303e-07,0,121316,121316
277.701,9.20229e-07,0,121988,121988
277.75,9.26001e-07,0,122588,122588
277.8,9.27706e-07,0,123188,123188
277.85,9.26104e-07,0,123772,123772
277.901,9.20924e-07,0,124316,124316
277.95,9.11553e-07,0,124916,124916
278,8.96854e-07,0,125468,125468
278.051,8.75268e-07,0,125996,125996
278.101,8.46338e-07,0,126548,126548
278.15,8.09123e-07,0,127028,127028
278.2,7.63751e-07,0,127556,127556
278.251,7.10832e-07,0,128036,128036
278.3,6.54617e-07,0,128516,128516
278.35,5.97522e-07,0,128996,128996
278.4,5.42136e-07,0,129596,129596
278.451,4.89286e-07,0,131072,131072
278.5,4.41165e-07,0,131072,131072
278.55,3.96978e-07,0,131072,131072
278.601,3.55696e-07,0,131072,131072
278.65,3.17832e-07,0,131072,131072
278.7,2.82104e-07,0,131072,131072
278.75,2.48098e-07,0,131072,131072
278.801,2.15493e-07,0,131072,131072
278.85,1.86206e-07,0,131072,131072
278.9,1.6127e-07,0,131072,131072
278.95,1.41688e-07,0,131072,131072
279.001,1.26599e-07,0,131072,131072
279.05,1.14073e-07,0,131072,131072
279.1,1.01365e-07,0,131072,131072
279.151,8.73532e-08,0,131072,131072
279.2,7.3499e-08,0,131072,131072
279.25,6.14278e-08,0,131072,131072
279.3,5.2332e-08,0,131072,131072
279.351,4.61686e-08,0,131072,131072
279.4,4.22247e-08,0,131072,131072
279.45,3.90442e-08,0,131072,131072
279.501,3.52016e-08,0,131072,131072
279.551,3.00482e-08,0,131072,131072
279.6,2.39621e-08,0,131072,131072
279.65,1.84278e-08,0,131072,131072
279.701,1.49598e-08,0,131072,131072
279.75,1.41211e-08,0,131072,131072
279.8,1.51487e-08,0,131072,131072
279.85,1.70749e-08,0,131072,131072
279.901,1.93143e-08,0,131072,131072
279.95,2.16075e-08,0,131072,131072
280,2.4043e-08,0,131072,131072
280.051,2.67618e-08,0,131072,131072
280.1,2.97143e-08,0,131072,131072
280.15,3.28743e-08,0,131072,131072
280.2,3.61251e-08,0,131072,131072
280.251,3.946e-08,0,131072,131072
280.3,4.28761e-08,0,131072,131072
280.35,4.65524e-08,0,131072,131072
280.401,5.0565e-08,0,131072,131072
280.451,5.47226e-08,0,131072,131072
280.5,5.90189e-08,0,131072,131072
280.55,6.34346e-08,0,131072,131072
280.601,6.80437e-08,0,131072,131072
280.65,7.27265e-08,0,131072,131072
280.7,7.7558e-08,0,131072,131072
280.75,8.25329e-08,0,131072,131072
280.801,8.76955e-08,0,131072,131072
280.85,9.28388e-08,0,131072,131072
280.9,9.8071e-08,0,131072,131072
280.951,1.03995e-07,0,131072,131072
281,1.11386e-07,0,131072,131072
281.05,1.20322e-07,0,131072,131072
281.1,1.29332e-07,0,131072,131072
281.151,1.37218e-07,0,131072,131072
281.2,1.43834e-07,0,131072,131072
281.25,1.50354e-07,0,131072,131072
281.3,1.57948e-07,0,131072,131072
281.351,1.67569e-07,0,131072,131072
281.4,1.79262e-07,0,130880,130880
281.45,1.93217e-07,0,131072,131072
281.501,2.09868e-07,0,131072,131072
281.55,2.29281e-07,0,131072,131072
281.6,2.52556e-07,0,131072,131072
281.65,2.80631e-07,0,131072,131072
281.701,3.14655e-07,0,131072,131072
281.75,3.53621e-07,0,131072,131072
281.8,3.97231e-07,0,131072,131072
281.851,4.44951e-07,0,131072,131072
281.901,4.94163e-07,0,131072,131072
281.95,5.44849e-07,0,131072,131072
282,5.96907e-07,0,131072,131072
282.051,6.51082e-07,0,130944,130944
282.1,7.0502e-07,0,130912,130912
282.15,7.57574e-07,0,130912,130912
282.2,8.05954e-07,0,130912,130912
282.251,8.47817e-07,0,130848,130848
282.3,8.79759e-07,0,130816,130816
282.35,9.01495e-07,0,130768,130768
282.401,9.13454e-07,0,130768,130768
282.45,9.16611e-07,0,130752,130752
282.5,9.12948e-07,0,130752,130752
282.55,9.04043e-07,0,130736,130736
282.601,8.90678e-07,0,130720,130720
282.65,8.73538e-07,0,130720,130720
282.7,8.52147e-07,0,130720,130720
282.751,8.25379e-07,0,130688,130688
282.801,7.93167e-07,0,130688,130688
282.85,7.54453e-07,0,130624,130624
282.9,7.08941e-07,0,130608,130608
282.951,6.56215e-07,0,130608,130608
283,5.99059e-07,0,130616,130616
283.05,5.38745e-07,0,130560,130560
283.1,4.77623e-07,0,130608,130608
283.151,4.17031e-07,0,130560,130560
283.2,3.60385e-07,0,130576,130576
283.25,3.07715e-07,0,130560,130560
283.301,2.58615e-07,0,130560,130560
283.35,2.14306e-07,0,130528,130528
283.4,1.73595e-07,0,130560,130560
283.45,1.36014e-07,0,130512,130512
283.501,1.00816e-07,0,130512,130512
283.55,6.91463e-08,0,130560,130560
283.6,4.09127e-08,0,130512,130512
283.65,1.56562e-08,0,130512,130512
283.701,-3.23112e-09,0,130512,130512
283.75,-1.55807e-08,0,130512,130512
283.8,-3.07083e-08,0,130480,130480
283.851,-4.2273e-08,0,130480,130480
283.9,-5.2708e-08,0,130520,130520
283.95,-6.22549e-08,0,130544,130544
284,-7.02643e-08,0,130560,130560
284.051,-7.61428e-08,0,130592,130592
284.1,-7.95468e-08,0,130624,130624
284.15,-8.099e-08,0,130640,130640
284.201,-8.13871e-08,0,130720,130720
284.251,-8.15174e-08,0,130720,130720
284.3,-8.19796e-08,0,130784,130784
284.35,-8.26662e-08,0,130784,130784
284.401,-8.29972e-08,0,130816,130816
284.45,-8.22361e-08,0,130816,130816
284.5,-8.01305e-08,0,130848,130848
284.55,-7.67005e-08,0,130816,130816
284.601,-7.24318e-08,0,130848,130848
284.65,-6.79315e-08,0,130816,130816
284.7,-6.35154e-08,0,130816,130816
284.751,-5.92775e-08,0,130848,130848
284.8,-5.53893e-08,0,130848,130848
284.85,-5.18047e-08,0,130816,130816
284.9,-4.85535e-08,0,130816,130816
284.951,-4.56297e-08,0,130816,130816
285,-4.3124e-08,0,130816,130816
285.05,-4.09491e-08,0,130800,130800
285.101,-3.90161e-08,0,130744,130744
285.151,-3.73337e-08,0,130720,130720
285.2,-3.58599e-08,0,130720,130720
285.25,-3.46013e-08,0,130688,130688
285.301,-3.35458e-08,0,130736,130736
285.35,-3.27184e-08,0,130680,130680
285.4,-3.20861e-08,0,130656,130656
285.45,-3.16271e-08,0,130624,130624
285.501,-3.13156e-08,0,130640,130640
285.55,-3.11412e-08,0,130592,130592
285.6,-3.10786e-08,0,130560,130560
285.651,-3.1109e-08,0,130544,130544
285.7,-3.12146e-08,0,130560,130560
285.75,-3.13813e-08,0,130560,130560
285.8,-3.15852e-08,0,130512,130512
285.851,-3.18121e-08,0,130512,130512
285.9,-3.20546e-08,0,130512,130512
285.95,-3.23172e-08,0,130512,130512
286,-3.25914e-08,0,130464,130464
286.051,-3.28693e-08,0,130512,130512
286.1,-3.314e-08,0,130464,130464
286.15,-3.34082e-08,0,130432,130432
286.201,-3.36704e-08,0,130464,130464
286.25,-3.39082e-08,0,130464,130464
286.3,-3.41266e-08,0,130464,130464
286.35,-3.43332e-08,0,130416,130416
286.401,-3.45328e-08,0,130416,130416
286.45,-3.47123e-08,0,130416,130416
286.5,-3.4874e-08,0,130416,130416
286.551,-3.5022e-08,0,130368,130368
286.6,-3.51523e-08,0,130416,130416
286.65,-3.52565e-08,0,130368,130368
286.7,-3.53413e-08,0,130416,130416
286.751,-3.53952e-08,0,130368,130368
286.8,-3.54289e-08,0,130368,130368
286.85,-3.5438e-08,0,130336,130336
286.9,-3.54311e-08,0,130368,130368
286.951,-3.54067e-08,0,130368,130368
287,-3.53611e-08,0,130320,130320
287.05,-3.53079e-08,0,130288,130288
287.101,-3.52496e-08,0,130288,130288
287.15,-3.51835e-08,0,130176,130176
287.2,-3.51105e-08,0,130176,130176
287.25,-3.50374e-08,0,130192,130192
287.301,-3.49557e-08,0,130152,130152
287.35,-3.48715e-08,0,130160,130160
287.4,-3.47926e-08,0,130152,130152
287.451,-3.47184e-08,0,130112,130112
287.501,-3.4644e-08,0,130112,130112
287.55,-3.45715e-08,0,130168,130168
287.6,-3.4507e-08,0,130184,130184
287.651,-3.44453e-08,0,130192,130192
287.7,-3.43892e-08,0,130280,130280
287.75,-3.43399e-08,0,130280,130280
287.8,-3.42973e-08,0,130352,130352
287.851,-3.4261e-08,0,130328,130328
287.9,-3.42321e-08,0,130360,130360
287.95,-3.42101e-08,0,130320,130320
288.001,-3.41951e-08,0,130320,130320
288.05,-3.41875e-08,0,130296,130296
288.1,-3.41868e-08,0,130280,130280
288.15,-3.41931e-08,0,130256,130256
288.201,-3.42066e-08,0,130168,130168
288.25,-3.42267e-08,0,130192,130192
288.3,-3.42539e-08,0,130096,130096
288.351,-3.42888e-08,0,130096,130096
288.401,-3.43307e-08,0,130064,130064
288.45,-3.43794e-08,0,130048,130048
288.5,-3.44349e-08,0,130048,130048
288.551,-3.44979e-08,0,130000,130000
288.6,-3.45661e-08,0,129984,129984
288.65,-3.46407e-08,0,129984,129984
288.7,-3.47219e-08,0,129952,129952
288.751,-3.48123e-08,0,129936,129936
288.8,-3.49103e-08,0,129936,129936
288.85,-3.50185e-08,0,129936,129936
288.901,-3.51405e-08,0,129872,129872
288.95,-3.52738e-08,0,129872,129872
289,-3.54219e-08,0,129872,129872
289.05,-3.55878e-08,0,129840,129840
289.101,-3.57777e-08,0,129824,129824
289.15,-3.59878e-08,0,129824,129824
289.2,-3.62226e-08,0,129824,129824
289.251,-3.64879e-08,0,129776,129776
289.301,-3.67747e-08,0,129760,129760
289.35,-3.70856e-08,0,129760,129760
289.4,-3.74211e-08,0,129760,129760
289.451,-3.77869e-08,0,129712,129712
289.5,-3.81706e-08,0,129712,129712
289.55,-3.85741e-08,0,129712,129712
289.6,-3.89926e-08,0,129728,129728
289.651,-3.94274e-08,0,129728,129728
289.7,-3.98599e-08,0,129712,129712
289.75,-4.02901e-08,0,129712,129712
289.801,-4.07192e-08,0,129712,129712
289.85,-4.11301e-08,0,129680,129680
289.9,-4.15249e-08,0,129664,129664
289.95,-4.19003e-08,0,129664,129664
290.001,-4.22584e-08,0,130076,130076
290.05,-4.25858e-08,0,130868,130868
290.1,-4.2885e-08,0,131072,131072
290.15,-4.31524e-08,0,131072,131072
290.201,-4.33874e-08,0,131072,131072
290.25,-4.35794e-08,0,131072,131072
290.3,-4.37281e-08,0,131072,131072
290.351,-4.3832e-08,0,131072,131072
290.4,-4.38887e-08,0,131072,131072
290.45,-4.39e-08,0,131072,131072
290.5,-4.38644e-08,0,131072,131072
290.551,-4.37817e-08,0,131072,131072
290.6,-4.3659e-08,0,131072,131072
290.65,-4.34968e-08,0,131072,131072
290.701,-4.32907e-08,0,131072,131072
290.751,-4.30474e-08,0,131072,131072
290.8,-4.2765e-08,0,131072,131072
290.85,-4.24434e-08,0,131072,131072
290.901,-4.20762e-08,0,131072,131072
290.95,-4.1673e-08,0,131072,131072
291,-4.12281e-08,0,131072,131072
291.05,-4.07397e-08,0,131072,131072
291.101,-4.01968e-08,0,131072,131072
291.15,-3.96196e-08,0,131072,131072
291.2,-3.90053e-08,0,131072,131072
291.251,-3.83376e-08,0,131072,131072
291.3,-3.76341e-08,0,131072,131072
291.35,-3.68891e-08,0,131072,131072
291.4,-3.61059e-08,0,131072,131072
291.451,-3.52761e-08,0,131072,131072
291.5,-3.44289e-08,0,131072,131072
291.55,-3.35585e-08,0,131072,131072
291.601,-3.2659e-08,0,131072,131072
291.651,-3.17636e-08,0,131072,131072
291.7,-3.08659e-08,0,131072,131072
291.75,-2.99728e-08,0,131072,131072
291.801,-2.90774e-08,0,131072,131072
291.85,-2.82103e-08,0,131072,131072
291.9,-2.73624e-08,0,131072,131072
291.95,-2.65395e-08,0,131072,131072
292.001,-2.57314e-08,0,131072,131072
292.05,-2.49632e-08,0,131072,131072
292.1,-2.42311e-08,0,131072,131072
292.151,-2.35266e-08,0,131072,131072
292.2,-2.28773e-08,0,131072,131072
292.25,-2.22792e-08,0,131072,131072
292.3,-2.1727e-08,0,131072,131072
292.351,-2.12108e-08,0,131072,131072
292.4,-2.07574e-08,0,131072,131072
292.45,-2.03598e-08,0,131072,131072
292.5,-2.00025e-08,0,131072,131072
292.551,-1.96759e-08,0,131072,131072
292.6,-1.93915e-08,0,131072,131072
292.65,-1.91474e-08,0,131072,131072
292.701,-1.89353e-08,0,131072,131072
292.75,-1.87525e-08,0,131072,131072
292.8,-1.8591e-08,0,131072,131072
292.85,-1.84523e-08,0,131072,131072
292.901,-1.83363e-08,0,131072,131072
292.95,-1.82398e-08,0,131072,131072
293,-1.81545e-08,0,131072,131072
293.051,-1.80779e-08,0,131072,131072
293.101,-1.80119e-08,0,131072,131072
293.15,-1.79544e-08,0,131072,131072
293.2,-1.79038e-08,0,131072,131072
293.251,-1.78577e-08,0,131072,131072
293.3,-1.7816e-08,0,131072,131072
293.35,-1.77764e-08,0,131072,131072
293.4,-1.77371e-08,0,131072,131072
293.451,-1.76966e-08,0,131072,131072
293.5,-1.76555e-08,0,131072,131072
293.55,-1.76136e-08,0,131072,131072
293.601,-1.75703e-08,0,131072,131072
293.65,-1.7526e-08,0,131072,131072
293.7,-1.74788e-08,0,131072,131072
293.75,-1.74269e-08,0,131072,131072
293.801,-1.73676e-08,0,131072,131072
293.85,-1.73019e-08,0,131072,131072
293.9,-1.72284e-08,0,131072,131072
293.951,-1.71456e-08,0,131072,131072
294.001,-1.70555e-08,0,131072,131072
294.05,-1.69566e-08,0,131072,131072
294.1,-1.68487e-08,0,131072,131072
294.151,-1.67301e-08,0,131072,131072
294.2,-1.66048e-08,0,131072,131072
294.25,-1.64721e-08,0,131072,131072
294.3,-1.63329e-08,0,131072,131072
294.351,-1.61859e-08,0,131072,131072
294.4,-1.60355e-08,0,129092,129092
294.45,-1.58796e-08,0,127868,127868
294.501,-1.57157e-08,0,126980,126980
294.55,-1.55493e-08,0,126308,126308
294.6,-1.5379e-08,0,125708,125708
294.65,-1.52062e-08,0,125108,125108
294.701,-1.50293e-08,0,124556,124556
294.75,-1.48535e-08,0,124028,124028
294.8,-1.46752e-08,0,123500,123500
294.85,-1.44929e-08,0,122972,122972
294.901,-1.43016e-08,0,122492,122492
294.95,-1.41051e-08,0,121972,121972
295,-1.38995e-08,0,121444,121444
295.051,-1.36815e-08,0,120900,120900
295.1,-1.34581e-08,0,120372,120372
295.15,-1.32276e-08,0,119772,119772
295.2,-1.29913e-08,0,119196,119196
295.251,-1.27461e-08,0,118548,118548
295.3,-1.24993e-08,0,117924,117924
295.35,-1.22465e-08,0,117252,117252
295.401,-1.19821e-08,0,116604,116604
295.451,-1.17108e-08,0,115972,115972
295.5,-1.14254e-08,0,115340,115340
295.55,-1.1123e-08,0,114732,114732
295.601,-1.07956e-08,0,114100,114100
295.65,-1.045e-08,0,113460,113460
295.7,-1.00791e-08,0,112852,112852
295.75,-9.68096e-09,0,112252,112252
295.801,-9.24722e-09,0,111620,111620
295.85,-8.78953e-09,0,111012,111012
295.9,-8.30172e-09,0,110348,110348
295.951,-7.77566e-09,0,109732,109732
296,-7.2255e-09,0,109108,109108
296.05,-6.64241e-09,0,108412,108412
296.1,-6.02565e-09,0,107772,107772
296.151,-5.36706e-09,0,107060,107060
296.2,-4.69156e-09,0,106428,106428
296.25,-3.99757e-09,0,105756,105756
296.301,-3.27019e-09,0,105092,105092
296.351,-2.46073e-09,0,104436,104436
296.4,-1.36437e-09,0,103788,103788
296.45,-5.62021e-10,0,103116,103116
296.501,-9.83089e-11,0,102436,102436
296.55,4.52903e-10,0,101796,101796
296.6,1.05771e-09,0,101116,101116
296.65,1.67941e-09,0,100460,100460
296.701,2.30017e-09,0,99788,99788
296.75,2.88837e-09,0,99140,99140
296.8,3.44631e-09,0,98492,98492
296.851,3.9779e-09,0,97804,97804
296.9,4.46421e-09,0,97148,97148
296.95,4.91136e-09,0,96500,96500
297,5.31597e-09,0,95844,95844
297.051,5.6809e-09,0,95180,95180
297.1,5.99469e-09,0,94508,94508
297.15,6.26301e-09,0,93892,93892
297.2,6.48689e-09,0,93244,93244
297.251,6.67099e-09,0,92612,92612
297.3,6.8127e-09,0,91940,91940
297.35,6.91796e-09,0,91260,91260
297.401,6.99056e-09,0,90612,90612
297.45,7.03158e-09,0,89956,89956
297.5,7.04551e-09,0,89300,89300
297.55,7.0355e-09,0,88660,88660
297.601,7.00391e-09,0,87996,87996
297.65,6.95458e-09,0,87372,87372
297.7,6.89002e-09,0,86716,86716
297.751,6.81165e-09,0,86076,86076
297.801,6.72406e-09,0,85468,85468
297.85,6.62838e-09,0,84796,84796
297.9,6.52658e-09,0,84156,84156
297.951,6.41873e-09,0,83532,83532
298,6.30951e-09,0,82876,82876
298.05,6.1989e-09,0,82244,82244
298.1,6.08822e-09,0,81604,81604
298.151,5.97695e-09,0,80988,80988
298.2,5.86921e-09,0,80324,80324
298.25,5.76417e-09,0,79692,79692
298.301,5.66108e-09,0,79044,79044
298.35,5.56357e-09,0,78380,78380
298.4,5.47074e-09,0,77756,77756
298.45,5.38313e-09,0,77100,77100
298.501,5.30009e-09,0,76452,76452
298.55,5.22445e-09,0,75756,75756
298.6,5.15525e-09,0,75116,75116
298.651,5.09179e-09,0,74420,74420
298.701,5.03593e-09,0,73724,73724
298.75,4.98654e-09,0,73084,73084
298.8,4.94326e-09,0,72412,72412
298.851,4.90507e-09,0,71708,71708
298.9,4.87239e-09,0,71036,71036
298.95,4.84389e-09,0,70340,70340
299,4.81876e-09,0,69636,69636
299.051,4.7959e-09,0,68924,68924
299.1,4.77516e-09,0,68284,68284
299.15,4.75543e-09,0,67564,67564
299.201,4.73568e-09,0,66844,66844
299.25,4.71576e-09,0,66156,66156
299.3,4.69473e-09,0,65436,65436
299.35,4.67202e-09,0,64732,64732
299.401,4.64689e-09,0,64012,64012
299.45,4.6199e-09,0,63300,63300
299.5,4.59079e-09,0,62588,62588
299.551,4.55939e-09,0,61852,61852
299.601,4.52701e-09,0,61132,61132
299.65,4.49369e-09,0,60396,60396
299.7,4.45989e-09,0,59676,59676
299.751,4.42546e-09,0,58948,58948
299.8,4.3916e-09,0,58228,58228
299.85,4.35788e-09,0,57500,57500
299.9,4.32431e-09,0,56772,56772
299.951,4.29034e-09,0,55948,55948
300,4.25698e-09,0,55196,55196
300.05,4.22382e-09,0,54380,54380
300.101,4.19059e-09,0,53540,53540
300.15,4.15855e-09,0,52796,52796
300.2,4.12756e-09,0,52012,52012
300.25,4.098e-09,0,51228,51228
300.301,4.06975e-09,0,50508,50508
300.35,4.0438e-09,0,49708,49708
300.4,4.01974e-09,0,48964,48964
300.45,3.99744e-09,0,48212,48212
300.501,3.97634e-09,0,47420,47420
300.55,3.95672e-09,0,46708,46708
300.6,3.93793e-09,0,45780,45780
300.651,3.91935e-09,0,45124,45124
300.7,3.90123e-09,0,44276,44276
300.75,3.88306e-09,0,43404,43404
300.8,3.86467e-09,0,42644,42644
300.851,3.84567e-09,0,41740,41740
300.9,3.82653e-09,0,41100,41100
300.95,3.80696e-09,0,40228,40228
301.001,3.78667e-09,0,39300,39300
301.051,3.7663e-09,0,38412,38412
301.1,3.74559e-09,0,37676,37676
301.15,3.72456e-09,0,36828,36828
301.201,3.70286e-09,0,35820,35820
301.25,3.68109e-09,0,34932,34932
301.3,3.65888e-09,0,34076,34076
301.35,3.63616e-09,0,33156,33156
301.401,3.61258e-09,0,32356,32356
301.45,3.58881e-09,0,31492,31492
301.5,3.56456e-09,0,30620,30620
301.551,3.53953e-09,0,29732,29732
301.6,3.5145e-09,0,28876,28876
301.65,3.48916e-09,0,28028,28028
301.7,3.46355e-09,0,27156,27156
301.751,3.43728e-09,0,26308,26308
301.8,3.41111e-09,0,25452,25452
301.85,3.38461e-09,0,24604,24604
301.901,3.35736e-09,0,23692,23692
301.951,3.33013e-09,0,22852,22852
302,3.30252e-09,0,22012,22012
302.05,3.27455e-09,0,21148,21148
302.101,3.24581e-09,0,20300,20300
302.15,3.21719e-09,0,19444,19444
302.2,3.18831e-09,0,18604,18604
302.25,3.15921e-09,0,17748,17748
302.301,3.12948e-09,0,16860,16860
302.35,3.10002e-09,0,15988,15988
302.4,3.07042e-09,0,15156,15156
302.451,3.04024e-09,0,14276,14276
302.5,3.01036e-09,0,13436,13436
302.55,2.98036e-09,0,12612,12612
302.6,2.95022e-09,0,11732,11732
302.651,2.91949e-09,0,10876,10876
302.7,2.88906e-09,0,10020,10020
302.75,2.85847e-09,0,9156,9156
302.8,2.82771e-09,0,8292,8292
302.851,2.79603e-09,0,8192,8192
302.901,2.76488e-09,0,8192,8192
302.951,2.73352e-09,0,8192,8192
303,2.70192e-09,0,8192,8192
303.05,2.67007e-09,0,8192,8192
303.103,2.63603e-09,0,8192,8192
303.153,2.60354e-09,0,8192,8192
303.203,2.57069e-09,0,8192,8192
303.252,2.53743e-09,0,8192,8192
303.302,2.50371e-09,0,8192,8192
303.352,2.46949e-09,0,8192,8192
303.402,2.43473e-09,0,8192,8192
303.451,2.39939e-09,0,8192,8192
303.501,2.36346e-09,0,8192,8192
303.551,2.32693e-09,0,8192,8192
303.601,2.28981e-09,0,8192,8192
303.651,2.25214e-09,0,8192,8192
303.7,2.21392e-09,0,8192,8192
303.75,2.17517e-09,0,8192,8192
303.8,2.13591e-09,0,8192,8192
303.853,2.09379e-09,0,8192,8192
303.903,2.05354e-09,0,8192,8192
303.952,2.01285e-09,0,8192,8192
304.002,1.97177e-09,0,8192,8192
304.052,1.93032e-09,0,8192,8192
304.102,1.88856e-09,0,8192,8192
304.152,1.84651e-09,0,8192,8192
304.201,1.80425e-09,0,8192,8192
304.251,1.76183e-09,0,8192,8192
304.301,1.71931e-09,0,8192,8192
304.351,1.67673e-09,0,8192,8192
304.401,1.63417e-09,0,8192,8192
304.45,1.59165e-09,0,8192,8192
304.5,1.54924e-09,0,8192,8192
304.553,1.50453e-09,0,8192,8192
304.603,1.46256e-09,0,8192,8192
304.652,1.42091e-09,0,8192,8192
304.702,1.3796e-09,0,8192,8192
304.752,1.33869e-09,0,8192,8192
304.802,1.29823e-09,0,8192,8192
304.852,1.25825e-09,0,8192,8192
304.901,1.21881e-09,0,8192,8192
304.951,1.17995e-09,0,8192,8192
