250,0,0,8192,8192
250.003,0,0,8192,8192
250.053,0,0,8192,8192
250.103,0,0,8192,8192
250.152,0,0,8192,8192
250.202,0,0,8192,8192
250.252,0,0,8192,8192
250.302,0,0,8192,8192
250.352,-1.38778e-17,0,8192,8192
250.401,-1.38778e-17,0,8192,8192
250.451,-2.77556e-17,0,8192,8192
250.501,-2.77556e-17,0,8192,8192
250.551,-1.38778e-17,0,8192,8192
250.6,-1.38778e-17,0,8192,8192
250.65,-1.38778e-17,0,8192,8192
250.7,-4.16334e-17,0,8192,8192
250.753,-1.38778e-17,0,8192,8192
250.803,0,0,8192,8192
250.852,0,0,8192,8192
250.902,0,0,8192,8192
250.952,0,0,8192,8192
251.002,-1.38778e-17,0,8192,8192
251.052,0,0,8192,8192
251.101,0,0,8192,8192
251.151,0,0,8192,8192
251.201,0,0,8192,8192
251.251,0,0,8192,8192
251.301,0,0,8192,8192
251.35,1.38778e-17,0,8192,8192
251.4,1.38778e-17,0,8192,8192
251.453,1.38778e-17,0,8192,8192
251.503,1.38778e-17,0,8192,8192
251.553,1.38778e-17,0,8192,8192
251.602,1.38778e-17,0,8192,8192
251.652,0,0,8192,8192
251.702,0,0,8192,8192
251.752,0,0,8192,8192
251.801,0,0,8192,8192
251.851,0,0,8192,8192
251.901,0,0,8192,8192
251.951,0,0,8192,8192
252.001,-1.38778e-17,0,8192,8192
252.05,0,0,8192,8192
252.1,-1.38778e-17,0,8192,8192
252.15,0,0,8192,8192
252.203,0,0,8192,8192
252.253,0,0,8192,8192
252.302,0,0,8192,8192
252.352,0,0,8192,8192
252.402,0,0,8192,8192
252.452,0,0,8192,8192
252.502,0,0,8192,8192
252.551,0,0,8192,8192
252.601,0,0,8192,8192
252.651,-1.38778e-17,0,8192,8192
252.701,0,0,8192,8192
252.751,0,0,8192,8192
252.8,0,0,8192,8192
252.85,-1.38778e-17,0,8192,8192
252.903,1.38778e-17,0,8192,8192
252.953,2.77556e-17,0,8192,8192
253.002,2.77556e-17,0,8192,8192
253.052,2.77556e-17,0,8192,8192
253.102,2.77556e-17,0,8192,8192
253.152,4.16334e-17,0,8192,8192
253.202,4.16334e-17,0,8192,8192
253.251,2.77556e-17,0,8192,8192
253.301,2.77556e-17,0,8192,8192
253.351,4.16334e-17,0,8192,8192
253.401,2.77556e-17,0,8192,8192
253.451,2.77556e-17,0,8192,8192
253.5,2.77556e-17,0,8192,8192
253.55,2.77556e-17,0,8192,8192
253.6,1.38778e-17,0,8192,8192
253.653,1.38778e-17,0,8192,8192
253.703,1.38778e-17,0,8192,8192
253.752,1.38778e-17,0,8192,8192
253.802,0,0,8192,8192
253.852,-1.38778e-17,0,8192,8192
253.902,-1.38778e-17,0,8192,8192
253.952,0,0,8192,8192
254.001,0,0,8192,8192
254.051,1.38778e-17,0,8192,8192
254.101,1.38778e-17,0,8192,8192
254.151,2.77556e-17,0,8192,8192
254.201,1.38778e-17,0,8192,8192
254.25,2.77556e-17,0,8192,8192
254.3,2.77556e-17,0,8192,8192
254.353,2.77556e-17,0,8192,8192
254.403,1.38778e-17,0,8192,8192
254.452,1.38778e-17,0,8192,8192
254.502,1.38778e-17,0,8192,8192
254.552,1.38778e-17,0,8192,8192
254.602,1.38778e-17,0,8192,8192
254.652,2.77556e-17,0,8192,8192
254.701,2.77556e-17,0,8192,8192
254.751,0,0,8192,8192
254.801,0,0,8192,8192
254.851,-1.38778e-17,0,8192,8192
254.901,0,0,8192,8192
254.95,-2.77556e-17,0,8192,8192
255,-1.38778e-17,0,8192,8192
255.05,0,0,8192,8192
255.103,0,0,8192,8192
255.153,1.38778e-17,0,8192,8192
255.202,2.77556e-17,0,8192,8192
255.252,1.38778e-17,0,8192,8192
255.302,1.38778e-17,0,8192,8192
255.352,1.38778e-17,0,8192,8192
255.402,2.77556e-17,0,8192,8192
255.451,2.77556e-17,0,8192,8192
255.501,2.77556e-17,0,8192,8192
255.551,1.38778e-17,0,8192,8192
255.601,1.38778e-17,0,8192,8192
255.651,1.38778e-17,0,8192,8192
255.7,2.77556e-17,0,8192,8192
255.75,2.77556e-17,0,8192,8192
255.803,1.38778e-17,0,8192,8192
255.853,1.38778e-17,0,8192,8192
255.902,1.38778e-17,0,8192,8192
255.952,1.38778e-17,0,8192,8192
256.002,1.38778e-17,0,8192,8192
256.052,1.38778e-17,0,8192,8192
256.102,0,0,8192,8192
256.151,-1.38778e-17,0,8192,8192
256.201,0,0,8192,8192
256.251,0,0,8192,8192
256.301,-1.38778e-17,0,8192,8192
256.351,0,0,8192,8192
256.4,0,0,8192,8192
256.45,0,0,8192,8192
256.5,-1.38778e-17,0,8192,8192
256.553,-1.38778e-17,0,8192,8192
256.603,-2.77556e-17,0,8192,8192
256.652,-1.38778e-17,0,8192,8192
256.702,-1.38778e-17,0,8192,8192
256.752,-2.77556e-17,0,8192,8192
256.802,0,0,8192,8192
256.852,0,0,8192,8192
256.901,0,0,8192,8192
256.951,0,0,8192,8192
257.001,0,0,8192,8192
257.051,0,0,8192,8192
257.101,0,0,8192,8192
257.15,0,0,8192,8192
257.2,0,0,8192,8192
257.253,0,0,8192,8192
257.303,0,0,8192,8192
257.352,1.38778e-17,0,8192,8192
257.402,2.77556e-17,0,8192,8192
257.452,1.38778e-17,0,8192,8192
257.502,2.77556e-17,0,8192,8192
257.552,1.38778e-17,0,8192,8192
257.601,2.77556e-17,0,8192,8192
257.651,4.16334e-17,0,8192,8192
257.701,4.16334e-17,0,8192,8192
257.751,2.77556e-17,0,8192,8192
257.801,2.77556e-17,0,8192,8192
257.85,4.16334e-17,0,8192,8192
257.9,4.16334e-17,0,8192,8192
257.95,2.77556e-17,0,8192,8192
258.003,1.38778e-17,0,8192,8192
258.053,1.38778e-17,0,8192,8192
258.102,1.38778e-17,0,8192,8192
258.152,2.77556e-17,0,8192,8192
258.202,2.77556e-17,0,8192,8192
258.252,2.77556e-17,0,8192,8192
258.302,2.77556e-17,0,8192,8192
258.351,2.77556e-17,0,8192,8192
258.401,1.38778e-17,0,8192,8192
258.451,1.38778e-17,0,8192,8192
258.501,1.38778e-17,0,8192,8192
258.551,1.38778e-17,0,8192,8192
258.6,1.38778e-17,0,8192,8192
258.65,1.38778e-17,0,8192,8192
258.703,2.77556e-17,0,8192,8192
258.753,2.77556e-17,0,8192,8192
258.802,2.77556e-17,0,8192,8192
258.852,1.38778e-17,0,8192,8192
258.902,1.38778e-17,0,8192,8192
258.952,2.77556e-17,0,8192,8192
259.002,2.77556e-17,0,8192,8192
259.051,1.38778e-17,0,8192,8192
259.101,1.38778e-17,0,8192,8192
259.151,2.77556e-17,0,8192,8192
259.201,2.77556e-17,0,8192,8192
259.251,1.38778e-17,0,8192,8192
259.3,2.77556e-17,0,8192,8192
259.35,2.77556e-17,0,8192,8192
259.403,1.38778e-17,0,8192,8192
259.453,2.77556e-17,0,8192,8192
259.503,2.77556e-17,0,8192,8192
259.552,2.77556e-17,0,8192,8192
259.602,4.16334e-17,0,8192,8192
259.652,2.77556e-17,0,8192,8192
259.702,2.77556e-17,0,8192,8192
259.751,2.77556e-17,0,8192,8192
259.801,2.77556e-17,0,8192,8192
259.851,4.16334e-17,0,8192,8192
259.901,4.16334e-17,0,8192,8192
259.951,4.16334e-17,0,8192,8192
260,2.77556e-17,0,8192,8192
260.05,4.16334e-17,0,8192,8192
260.1,4.16334e-17,0,8192,8192
260.153,4.16334e-17,0,8192,8192
260.203,2.77556e-17,0,8192,8192
260.252,5.55112e-17,0,8192,8192
260.302,5.55112e-17,0,8192,8192
260.352,2.77556e-17,0,8192,8192
260.402,1.38778e-17,0,8192,8192
260.452,1.38778e-17,0,8192,8192
260.501,1.38778e-17,0,8192,8192
260.551,1.38778e-17,0,8192,8192
260.601,1.38778e-17,0,8192,8192
260.651,2.77556e-17,0,8192,8192
260.701,2.77556e-17,0,8192,8192
260.75,2.77556e-17,0,8192,8192
260.8,2.77556e-17,0,8192,8192
260.853,2.77556e-17,0,8192,8192
260.903,2.77556e-17,0,8192,8192
260.952,2.77556e-17,0,8192,8192
261.002,2.77556e-17,0,8192,8192
261.052,4.16334e-17,0,8192,8192
261.102,1.38778e-17,0,8192,8192
261.152,1.38778e-17,0,8192,8192
261.201,1.38778e-17,0,8192,8192
261.251,2.77556e-17,0,8192,8192
261.301,2.77556e-17,0,8192,8192
261.351,2.77556e-17,0,8192,8192
261.401,2.77556e-17,0,8192,8192
261.45,2.77556e-17,0,8192,8192
261.5,4.16334e-17,0,8192,8192
261.55,2.77556e-17,0,8192,8192
261.603,0,0,8192,8192
261.653,2.77556e-17,0,8192,8192
261.702,4.16334e-17,0,8192,8192
261.752,2.77556e-17,0,8192,8192
261.802,0,0,8192,8192
261.852,0,0,8192,8192
261.902,0,0,8192,8192
261.951,0,0,8192,8192
262.001,0,0,8192,8192
262.051,0,0,8192,8192
262.101,0,0,8192,8192
262.151,0,0,8192,8192
262.2,0,0,8192,8192
262.25,0,0,8192,8192
262.303,0,0,8192,8192
262.353,-1.38778e-17,0,8192,8192
262.402,-1.38778e-17,0,8192,8192
262.452,-1.38778e-17,0,8192,8192
262.502,-1.38778e-17,0,8192,8192
262.552,-1.38778e-17,0,8192,8192
262.602,0,0,8192,8192
262.651,0,0,8192,8192
262.701,0,0,8192,8192
262.751,0,0,8192,8192
262.801,0,0,8192,8192
262.851,0,0,8192,8192
262.9,0,0,8192,8192
262.95,0,0,8192,8192
263,-1.38778e-17,0,8192,8192
263.053,-1.38778e-17,0,8192,8192
263.103,-4.16334e-17,0,8192,8192
263.152,-2.77556e-17,0,8192,8192
263.202,-2.77556e-17,0,8192,8192
263.252,-2.77556e-17,0,8192,8192
263.302,-2.77556e-17,0,8192,8192
263.352,-2.77556e-17,0,8192,8192
263.401,-2.77556e-17,0,8192,8192
263.451,-2.77556e-17,0,8192,8192
263.501,-1.38778e-17,0,8192,8192
263.551,-1.38778e-17,0,8192,8192
263.601,-2.77556e-17,0,8192,8192
263.65,-2.77556e-17,0,8192,8192
263.7,1.38778e-17,0,8192,8192
263.753,1.38778e-17,0,8192,8192
263.803,-1.38778e-17,0,8192,8192
263.852,-1.38778e-17,0,8192,8192
263.902,-1.38778e-17,0,8192,8192
263.952,-1.38778e-17,0,8192,8192
264.002,0,0,8192,8192
264.052,-2.77556e-17,0,8192,8192
264.101,-1.38778e-17,0,8192,8192
264.151,-4.16334e-17,0,8192,8192
264.201,0,0,8192,8192
264.251,-1.38778e-17,0,8192,8192
264.301,0,0,8192,8192
264.35,-1.38778e-17,0,8192,8192
264.4,0,0,8192,8192
264.45,0,0,8192,8192
264.503,0,0,8192,8192
264.553,0,0,8192,8192
264.602,0,0,8192,8192
264.652,0,0,8192,8192
264.702,1.38778e-17,0,8192,8192
264.752,0,0,8192,8192
264.802,0,0,8192,8192
264.851,0,0,8192,8192
264.901,-1.38778e-17,0,8192,8192
264.951,-1.38778e-17,0,8192,8192
265.001,-1.38778e-17,0,8192,8192
265.051,0,0,8192,8192
265.1,0,0,8192,8192
265.15,0,0,8192,8192
265.203,1.38778e-17,0,8192,8192
265.253,1.38778e-17,0,8192,8192
265.302,1.38778e-17,0,8192,8192
265.352,1.38778e-17,0,8192,8192
265.402,0,0,8192,8192
265.452,0,0,8192,8192
265.502,0,0,8192,8192
265.551,0,0,8192,8192
265.601,0,0,8192,8192
265.651,0,0,8192,8192
265.701,1.38778e-17,0,8192,8192
265.751,1.38778e-17,0,8192,8192
265.8,2.77556e-17,0,8192,8192
265.85,2.77556e-17,0,8192,8192
265.9,1.38778e-17,0,8192,8192
265.953,2.77556e-17,0,8192,8192
266.003,2.77556e-17,0,8192,8192
266.052,2.77556e-17,0,8192,8192
266.102,1.38778e-17,0,8192,8192
266.152,1.38778e-17,0,8192,8192
266.202,2.77556e-17,0,8192,8192
266.252,1.38778e-17,0,8192,8192
266.301,1.38778e-17,0,8192,8192
266.351,0,0,8192,8192
266.401,0,0,8192,8192
266.451,-1.38778e-17,0,8192,8192
266.501,0,0,8192,8192
266.55,0,0,8192,8192
266.6,0,0,8192,8192
266.653,0,0,8192,8192
266.703,1.38778e-17,0,8192,8192
266.752,0,0,8192,8192
266.802,2.77556e-17,0,8192,8192
266.852,2.77556e-17,0,8192,8192
266.902,1.38778e-17,0,8192,8192
266.952,1.38778e-17,0,8192,8192
267.001,0,0,8192,8192
267.051,0,0,8192,8192
267.101,0,0,8192,8192
267.151,1.38778e-17,0,8192,8192
267.201,2.77556e-17,0,8192,8192
267.25,2.77556e-17,0,8192,8192
267.3,4.16334e-17,0,8192,8192
267.353,4.16334e-17,0,8192,8192
267.403,6.93889e-17,0,8192,8192
267.453,6.93889e-17,0,8192,8192
267.502,5.55112e-17,0,8192,8192
267.552,2.77556e-17,0,8192,8192
267.602,2.77556e-17,0,8192,8192
267.652,2.77556e-17,0,8192,8192
267.702,1.38778e-17,0,8192,8192
267.751,1.38778e-17,0,8192,8192
267.801,1.38778e-17,0,8192,8192
267.851,2.77556e-17,0,8192,8192
267.901,1.38778e-17,0,8192,8192
267.95,1.38778e-17,0,8192,8192
268,1.38778e-17,0,8192,8192
268.05,2.77556e-17,0,8192,8192
268.1,2.77556e-17,0,8460,8460
268.15,2.77556e-17,0,8652,8652
268.2,2.77556e-17,0,8844,8844
268.251,2.77556e-17,0,9036,9036
268.301,2.77556e-17,0,9228,9228
268.351,2.77556e-17,0,9420,9420
268.401,2.77556e-17,0,9612,9612
268.451,1.38778e-17,0,9780,9780
268.5,1.38778e-17,0,9972,9972
268.55,1.38778e-17,0,10140,10140
268.601,1.38778e-17,0,10332,10332
268.651,1.38778e-17,0,10524,10524
268.701,1.38778e-17,0,10692,10692
268.751,1.38778e-17,0,10884,10884
268.801,1.38778e-17,0,11052,11052
268.85,1.38778e-17,0,11244,11244
268.9,1.38778e-17,0,11412,11412
268.951,1.38778e-17,0,11604,11604
269.001,1.38778e-17,0,11772,11772
269.051,1.38778e-17,0,11964,11964
269.101,1.38778e-17,0,12132,12132
269.151,1.38778e-17,0,12300,12300
269.2,1.38778e-17,0,12492,12492
269.25,1.38778e-17,0,12660,12660
269.3,1.38778e-17,0,12828,12828
269.351,1.38778e-17,0,13020,13020
269.401,1.38778e-17,0,13188,13188
269.451,1.38778e-17,0,13380,13380
269.501,1.38778e-17,0,13548,13548
269.55,1.38778e-17,0,13716,13716
269.6,1.38778e-17,0,13908,13908
269.65,1.38778e-17,0,14076,14076
269.701,1.38778e-17,0,14244,14244
269.751,1.38778e-17,0,14436,14436
269.801,1.38778e-17,0,14604,14604
269.851,1.38778e-17,0,14772,14772
269.901,1.38778e-17,0,14940,14940
269.95,1.38778e-17,0,15108,15108
270,1.38778e-17,0,15276,15276
270.051,1.38778e-17,0,15468,15468
270.101,1.38778e-17,0,15636,15636
270.151,1.38778e-17,0,15804,15804
270.201,1.38778e-17,0,15972,15972
270.251,1.38778e-17,0,16140,16140
270.3,1.38778e-17,0,16308,16308
270.35,1.38778e-17,0,16476,16476
270.401,2.77556e-17,0,16644,16644
270.451,2.77556e-17,0,16812,16812
270.501,2.77556e-17,0,16956,16956
270.551,2.77556e-17,0,17124,17124
270.601,2.77556e-17,0,17292,17292
270.65,2.77556e-17,0,17460,17460
270.7,2.77556e-17,0,17604,17604
270.75,2.77556e-17,0,17772,17772
270.801,2.77556e-17,0,17940,17940
270.851,2.77556e-17,0,18108,18108
270.901,2.77556e-17,0,18252,18252
270.951,2.77556e-17,0,18420,18420
271,2.77556e-17,0,18564,18564
271.05,2.77556e-17,0,18732,18732
271.1,2.77556e-17,0,18900,18900
271.151,2.77556e-17,0,19044,19044
271.201,2.77556e-17,0,19212,19212
271.251,2.77556e-17,0,19356,19356
271.301,2.77556e-17,0,19524,19524
271.35,2.77556e-17,0,19668,19668
271.4,2.77556e-17,0,19812,19812
271.45,2.77556e-17,0,19980,19980
271.501,2.77556e-17,0,20124,20124
271.551,2.77556e-17,0,20268,20268
271.601,2.77556e-17,0,20412,20412
271.651,2.77556e-17,0,20580,20580
271.701,2.77556e-17,0,20724,20724
271.75,2.77556e-17,0,20868,20868
271.8,2.77556e-17,0,21012,21012
271.851,2.77556e-17,0,21156,21156
271.901,2.77556e-17,0,21300,21300
271.951,2.77556e-17,0,21444,21444
272.001,2.77556e-17,0,21588,21588
272.051,2.77556e-17,0,21708,21708
272.1,2.77556e-17,0,21780,21780
272.15,2.77556e-17,0,21924,21924
272.201,2.77556e-17,0,22068,22068
272.251,2.77556e-17,0,22236,22236
272.301,2.77556e-17,0,22380,22380
272.351,2.77556e-17,0,22524,22524
272.401,2.77556e-17,0,22668,22668
272.45,2.77556e-17,0,22812,22812
272.5,2.77556e-17,0,22956,22956
272.55,2.77556e-17,0,23100,23100
272.601,2.77556e-17,0,23244,23244
272.651,2.77556e-17,0,23388,23388
272.701,2.77556e-17,0,23532,23532
272.751,2.77556e-17,0,23676,23676
272.8,2.77556e-17,0,23820,23820
272.85,2.77556e-17,0,23964,23964
272.9,2.77556e-17,0,24084,24084
272.951,2.77556e-17,0,24228,24228
273.001,2.77556e-17,0,24372,24372
273.051,2.77556e-17,0,24516,24516
273.101,2.77556e-17,0,24660,24660
273.151,2.77556e-17,0,24804,24804
273.2,2.77556e-17,0,24924,24924
273.25,2.77556e-17,0,25068,25068
273.301,2.77556e-17,0,25212,25212
273.351,2.77556e-17,0,25356,25356
273.401,2.77556e-17,0,25500,25500
273.451,2.77556e-17,0,25620,25620
273.501,2.77556e-17,0,25764,25764
273.55,2.77556e-17,0,25908,25908
273.6,2.77556e-17,0,26028,26028
273.651,2.77556e-17,0,26172,26172
273.701,2.77556e-17,0,26316,26316
273.751,2.77556e-17,0,26436,26436
273.801,2.77556e-17,0,26580,26580
273.851,2.77556e-17,0,26724,26724
273.9,2.77556e-17,0,26844,26844
273.95,2.77556e-17,0,26988,26988
274.001,2.77556e-17,0,27132,27132
274.051,2.77556e-17,0,27252,27252
274.101,2.77556e-17,0,27396,27396
274.151,2.77556e-17,0,27516,27516
274.201,2.77556e-17,0,27660,27660
274.25,2.77556e-17,0,27804,27804
274.3,2.77556e-17,0,27924,27924
274.35,2.77556e-17,0,28068,28068
274.401,2.77556e-17,0,28188,28188
274.451,2.77556e-17,0,28332,28332
274.501,2.77556e-17,0,28452,28452
274.551,2.91434e-16,0,28596,28596
274.6,7.35523e-16,0,28716,28716
274.65,1.17961e-15,0,28860,28860
274.7,1.65146e-15,0,28980,28980
274.751,2.13718e-15,0,29124,29124
274.801,2.66454e-15,0,29244,29244
274.851,3.19189e-15,0,29388,29388
274.901,3.73312e-15,0,29508,29508
274.951,4.27436e-15,0,29652,29652
275,4.88498e-15,0,29772,29772
275.05,5.46785e-15,0,29892,29892
275.101,6.02296e-15,0,30036,30036
275.151,6.4948e-15,0,30156,30156
275.201,5.39846e-15,0,30300,30300
275.251,-2.22045e-15,0,30420,30420
275.301,-2.72837e-14,0,30540,30540
275.35,-1.04888e-13,0,30684,30684
275.4,-9.24968e-13,0,30804,30804
275.451,-5.06663e-12,0,30948,30948
275.501,-1.89978e-11,0,31068,31068
275.551,-5.39157e-11,0,31188,31188
275.601,-1.18362e-10,0,31308,31308
275.651,-2.03121e-10,0,31428,31428
275.7,-2.72174e-10,0,31524,31524
275.75,-2.78282e-10,0,31644,31644
275.8,-1.99192e-10,0,31764,31764
275.851,-5.85672e-11,0,31860,31860
275.901,6.88137e-11,0,31980,31980
275.951,1.29276e-10,0,32076,32076
276.001,1.13505e-10,0,32172,32172
276.05,6.31553e-11,0,32268,32268
276.1,3.54946e-11,0,32364,32364
276.15,5.80318e-11,0,32460,32460
276.201,1.11726e-10,0,32556,32556
276.251,1.46858e-10,0,32652,32652
276.301,1.37586e-10,0,32768,32768
276.351,9.79961e-11,0,32768,32768
276.401,6.78647e-11,0,32768,32768
276.45,7.58253e-11,0,32768,32768
276.5,1.15505e-10,0,32768,32768
276.551,1.5447e-10,0,32768,32768
276.601,1.5969e-10,0,32768,32768
276.651,1.30082e-10,0,32768,32768
276.701,9.10788e-11,0,32768,32768
276.751,7.59104e-11,0,32768,32768
276.8,1.00652e-10,0,32768,32768
276.85,1.50197e-10,0,32768,32768
276.901,1.85386e-10,0,32768,32768
276.951,1.68074e-10,0,32768,32768
277.001,1.04462e-10,0,32768,32768
277.051,4.93966e-11,0,32768,32768
277.101,6.8651e-11,0,32768,32768
277.15,1.67503e-10,0,32768,32768
277.2,2.56866e-10,0,32768,32768
277.25,2.27891e-10,0,32768,32768
277.301,1.19155e-10,0,32768,32768
277.351,2.73469e-10,0,32768,32768
277.401,1.24867e-09,0,32768,32768
277.451,3.56629e-09,0,32768,32768
277.5,7.39405e-09,0,32768,32768
277.55,1.24047e-08,0,32768,32768
277.6,1.79098e-08,0,32768,32768
277.651,2.33315e-08,0,32768,32768
277.701,2.79354e-08,0,32768,32768
277.751,3.19815e-08,0,32768,32768
277.801,3.60603e-08,0,32768,32768
277.851,4.10391e-08,0,32768,32768
277.9,4.77451e-08,0,32768,32768
277.95,5.67245e-08,0,32768,32768
278.001,6.8607e-08,0,32768,32768
278.051,8.28965e-08,0,32768,32768
278.101,1.00289e-07,0,32768,32768
278.151,1.2152e-07,0,32768,32768
278.201,1.47552e-07,0,32768,32768
278.25,1.79267e-07,0,32768,32768
278.3,2.17137e-07,0,32768,32768
278.351,2.62374e-07,0,32768,32768
278.401,3.11595e-07,0,32768,32768
278.451,3.64926e-07,0,32768,32768
278.501,4.2145e-07,0,32768,32768
278.551,4.80713e-07,0,32768,32768
278.6,5.42579e-07,0,32768,32768
278.65,6.06675e-07,0,32768,32768
278.701,6.73715e-07,0,32768,32768
278.751,7.37615e-07,0,32768,32768
278.801,7.97476e-07,0,32768,32768
278.851,8.5061e-07,0,32768,32768
278.901,8.95107e-07,0,32768,32768
278.95,9.30201e-07,0,32768,32768
279,9.56266e-07,0,32768,32768
279.05,9.74494e-07,0,32768,32768
279.101,9.86641e-07,0,32768,32768
279.151,9.93302e-07,0,32768,32768
279.201,9.95581e-07,0,32768,32768
279.251,9.93493e-07,0,32768,32768
279.3,9.86546e-07,0,32768,32768
279.35,9.74006e-07,0,32768,32768
279.4,9.55193e-07,0,32768,32768
279.451,9.28879e-07,0,32768,32768
279.501,8.96675e-07,0,32768,32768
279.551,8.58607e-07,0,32768,32768
279.601,8.15909e-07,0,32768,32768
279.651,7.70214e-07,0,32768,32768
279.7,7.23307e-07,0,32768,32768
279.75,6.76869e-07,0,32768,32768
279.801,6.31052e-07,0,32768,32768
279.851,5.89589e-07,0,32768,32768
279.901,5.51889e-07,0,32768,32768
279.951,5.18382e-07,0,32768,32768
280.001,4.89255e-07,0,32768,32768
280.05,4.64619e-07,0,32768,32768
280.1,4.4477e-07,0,32768,32768
280.151,4.30073e-07,0,32768,32768
280.201,4.22484e-07,0,32768,32768
280.251,4.22617e-07,0,32768,32768
280.301,4.31068e-07,0,32768,32768
280.351,4.47507e-07,0,32768,32768
280.4,4.7076e-07,0,32768,32768
280.45,4.99334e-07,0,32768,32768
280.5,5.32049e-07,0,32768,32768
280.551,5.6948e-07,0,32768,32768
280.601,6.09406e-07,0,32768,32768
280.651,6.52704e-07,0,32768,32768
280.701,6.98627e-07,0,32768,32768
280.75,7.45525e-07,0,32768,32768
280.8,7.90956e-07,0,32768,32768
280.85,8.32187e-07,0,32768,32768
280.901,8.67776e-07,0,32768,32768
280.951,8.94263e-07,0,32768,32768
281.001,9.12487e-07,0,32768,32768
281.051,9.22991e-07,0,32768,32768
281.101,9.26689e-07,0,32768,32768
281.15,9.24476e-07,0,32768,32768
281.2,9.17032e-07,0,32768,32768
281.251,9.04328e-07,0,32768,32768
281.301,8.87207e-07,0,32768,32768
281.351,8.65212e-07,0,32768,32768
281.401,8.3795e-07,0,32768,32768
281.451,8.04924e-07,0,32768,32768
281.5,7.65744e-07,0,32768,32768
281.55,7.20372e-07,0,32768,32768
281.601,6.67748e-07,0,32768,32768
281.651,6.12047e-07,0,32768,32768
281.701,5.53474e-07,0,32768,32768
281.751,4.93876e-07,0,32768,32768
281.801,4.35019e-07,0,32768,32768
281.85,3.78343e-07,0,32768,32768
281.9,3.24828e-07,0,32768,32768
281.95,2.74978e-07,0,32768,32768
282.001,2.27601e-07,0,32768,32768
282.051,1.85267e-07,0,32768,32768
282.101,1.46374e-07,0,32768,32768
282.151,1.1083e-07,0,32768,32768
282.2,7.87183e-08,0,32768,32768
282.25,5.02517e-08,0,32768,32768
282.3,2.5619e-08,0,32768,32768
282.351,4.23041e-09,0,32768,32768
282.401,-1.30679e-08,0,32768,32768
282.451,-2.75776e-08,0,32768,32768
282.501,-3.99761e-08,0,32768,32768
282.55,-5.07335e-08,0,32768,32768
282.6,-5.99885e-08,0,32768,32768
282.65,-6.76181e-08,0,32768,32768
282.701,-7.3589e-08,0,32768,32768
282.751,-7.75475e-08,0,32768,32768
282.801,-7.99431e-08,0,32768,32768
282.851,-8.12256e-08,0,32768,32768
282.901,-8.18659e-08,0,32768,32768
282.95,-8.21662e-08,0,32768,32768
283,-8.21579e-08,0,32768,32768
283.051,-8.1614e-08,0,32768,32768
283.101,-8.0278e-08,0,32768,32768
283.151,-7.79609e-08,0,32768,32768
283.201,-7.46801e-08,0,32768,32768
283.251,-7.06403e-08,0,32768,32768
283.3,-6.61408e-08,0,32768,32768
283.35,-6.1471e-08,0,32768,32768
283.401,-5.67139e-08,0,32768,32768
283.451,-5.22792e-08,0,32768,32768
283.501,-4.81066e-08,0,32768,32768
283.551,-4.42411e-08,0,32768,32768
283.601,-4.07069e-08,0,32768,32768
283.65,-3.75062e-08,0,32768,32768
283.7,-3.462e-08,0,32768,32768
283.75,-3.20176e-08,0,32768,32768
283.801,-2.96047e-08,0,32768,32768
283.851,-2.75013e-08,0,32768,32768
283.901,-2.56291e-08,0,32768,32768
283.951,-2.39868e-08,0,32768,32768
284,-2.25715e-08,0,32768,32768
284.05,-2.13753e-08,0,32768,32768
284.1,-2.03851e-08,0,32768,32768
284.151,-1.95646e-08,0,32768,32768
284.201,-1.8943e-08,0,32768,32768
284.251,-1.84767e-08,0,32768,32768
284.301,-1.81481e-08,0,32768,32768
284.351,-1.79396e-08,0,32768,32768
284.4,-1.7834e-08,0,32768,32768
284.45,-1.78152e-08,0,32768,32768
284.501,-1.78716e-08,0,32768,32768
284.551,-1.79874e-08,0,32768,32768
284.601,-1.81532e-08,0,32768,32768
284.651,-1.83606e-08,0,32768,32768
284.701,-1.8602e-08,0,32768,32768
284.75,-1.88701e-08,0,32768,32768
284.8,-1.91583e-08,0,32768,32768
284.851,-1.94693e-08,0,32768,32768
284.901,-1.978e-08,0,32768,32768
284.951,-2.00953e-08,0,32768,32768
285.001,-2.04122e-08,0,32768,32768
285.051,-2.07286e-08,0,32768,32768
285.1,-2.10427e-08,0,32768,32768
285.15,-2.13521e-08,0,32768,32768
285.2,-2.16547e-08,0,32768,32768
285.251,-2.19568e-08,0,32768,32768
285.301,-2.22394e-08,0,32768,32768
285.351,-2.25107e-08,0,32768,32768
285.401,-2.27714e-08,0,32768,32768
285.45,-2.30232e-08,0,32768,32768
285.5,-2.3269e-08,0,32768,32768
285.55,-2.35124e-08,0,32768,32768
285.601,-2.37649e-08,0,32768,32768
285.651,-2.40167e-08,0,32768,32768
285.701,-2.42794e-08,0,32768,32768
285.751,-2.45571e-08,0,32768,32768
285.801,-2.48536e-08,0,32768,32768
285.85,-2.51723e-08,0,32768,32768
285.9,-2.55158e-08,0,32768,32768
285.951,-2.58975e-08,0,32768,32768
286.001,-2.62969e-08,0,32768,32768
286.051,-2.67249e-08,0,32768,32768
286.101,-2.71811e-08,0,32768,32768
286.151,-2.76636e-08,0,32768,32768
286.2,-2.81698e-08,0,32768,32768
286.25,-2.86963e-08,0,32768,32768
286.301,-2.92552e-08,0,32768,32768
286.351,-2.98102e-08,0,32768,32768
286.401,-3.03728e-08,0,32768,32768
286.451,-3.09392e-08,0,32768,32768
286.501,-3.15057e-08,0,32768,32768
286.55,-3.20689e-08,0,32768,32768
286.6,-3.26256e-08,0,32768,32768
286.651,-3.31885e-08,0,32768,32768
286.701,-3.37221e-08,0,32768,32768
286.751,-3.42393e-08,0,32768,32768
286.801,-3.4737e-08,0,32768,32768
286.851,-3.52119e-08,0,32768,32768
286.9,-3.56615e-08,0,32768,32768
286.95,-3.60835e-08,0,32768,32768
287,-3.64765e-08,0,32768,32768
287.051,-3.68501e-08,0,32768,32768
287.101,-3.71832e-08,0,32768,32768
287.151,-3.74877e-08,0,32768,32768
287.201,-3.77654e-08,0,32768,32768
287.25,-3.80182e-08,0,32768,32768
287.3,-3.82489e-08,0,32768,32768
287.35,-3.84603e-08,0,32768,32768
287.401,-3.86611e-08,0,32768,32768
287.451,-3.88434e-08,0,32768,32768
287.501,-3.9017e-08,0,32768,32768
287.551,-3.91857e-08,0,32768,32768
287.601,-3.93539e-08,0,32768,32768
287.65,-3.95258e-08,0,32768,32768
287.7,-3.97054e-08,0,32768,32768
287.751,-3.99024e-08,0,32768,32768
287.801,-4.01091e-08,0,32768,32768
287.851,-4.03336e-08,0,32768,32768
287.901,-4.05785e-08,0,32768,32768
287.951,-4.08454e-08,0,32768,32768
288,-4.11357e-08,0,32768,32768
288.05,-4.14499e-08,0,32768,32768
288.101,-4.17977e-08,0,32768,32768
288.151,-4.2158e-08,0,32768,32768
288.201,-4.2538e-08,0,32768,32768
288.251,-4.29344e-08,0,32768,32768
288.301,-4.33434e-08,0,32768,32768
288.35,-4.37606e-08,0,32768,32768
288.4,-4.41817e-08,0,32768,32768
288.45,-4.46024e-08,0,32768,32768
288.501,-4.50308e-08,0,32768,32768
288.551,-4.54384e-08,0,32768,32768
288.601,-4.58342e-08,0,32768,32768
288.651,-4.62147e-08,0,32768,32768
288.7,-4.65767e-08,0,32768,32768
288.75,-4.69169e-08,0,32768,32768
288.8,-4.72321e-08,0,32768,32768
288.851,-4.75271e-08,0,32768,32768
288.901,-4.77823e-08,0,32768,32768
288.951,-4.80038e-08,0,32768,32768
289.001,-4.81899e-08,0,32768,32768
289.051,-4.83392e-08,0,32768,32768
289.1,-4.84514e-08,0,32768,32768
289.15,-4.85267e-08,0,32768,32768
289.201,-4.85671e-08,0,32768,32768
289.251,-4.85718e-08,0,32768,32768
289.301,-4.85446e-08,0,32768,32768
289.351,-4.8488e-08,0,32768,32768
289.401,-4.84045e-08,0,32768,32768
289.45,-4.82967e-08,0,32768,32768
289.5,-4.81671e-08,0,32768,32768
289.551,-4.80138e-08,0,32768,32768
289.601,-4.7848e-08,0,32768,32768
289.651,-4.76682e-08,0,32768,32768
289.701,-4.74766e-08,0,32768,32768
289.751,-4.72756e-08,0,32768,32768
289.8,-4.70669e-08,0,32768,32768
289.85,-4.68523e-08,0,32768,32768
289.901,-4.6627e-08,0,32768,32768
289.951,-4.64052e-08,0,32768,32768
290.001,-4.61817e-08,0,32768,32768
290.051,-4.59576e-08,0,32768,32768
290.101,-4.5734e-08,0,32768,32768
290.15,-4.55117e-08,0,32768,32768
290.2,-4.52914e-08,0,32768,32768
290.25,-4.50736e-08,0,32768,32768
290.301,-4.48525e-08,0,32768,32768
290.351,-4.46409e-08,0,32768,32768
290.401,-4.44328e-08,0,32768,32768
290.451,-4.42284e-08,0,32768,32768
290.5,-4.40279e-08,0,32768,32768
290.55,-4.38312e-08,0,32768,32768
290.6,-4.36386e-08,0,32768,32768
290.651,-4.34443e-08,0,32768,32768
290.701,-4.32594e-08,0,32768,32768
290.751,-4.30778e-08,0,32768,32768
290.801,-4.28993e-08,0,32768,32768
290.851,-4.27233e-08,0,32768,32768
290.9,-4.25494e-08,0,32768,32768
290.95,-4.2377e-08,0,32768,32768
291.001,-4.22006e-08,0,32768,32768
291.051,-4.20298e-08,0,32768,32768
291.101,-4.1859e-08,0,32768,32768
291.151,-4.16878e-08,0,32768,32768
291.201,-4.15155e-08,0,32768,32768
291.25,-4.13419e-08,0,32768,32768
291.3,-4.11662e-08,0,32768,32768
291.351,-4.09825e-08,0,32768,32768
291.401,-4.08009e-08,0,32768,32768
291.451,-4.06153e-08,0,32768,32768
291.501,-4.04251e-08,0,32768,32768
291.551,-4.02299e-08,0,32768,32768
291.6,-4.00291e-08,0,32768,32768
291.65,-3.98224e-08,0,32768,32768
291.7,-3.96094e-08,0,32768,32768
291.751,-3.93832e-08,0,32768,32768
291.801,-3.91562e-08,0,32768,32768
291.851,-3.89215e-08,0,32768,32768
291.901,-3.86781e-08,0,32768,32768
291.95,-3.84247e-08,0,32768,32768
292,-3.81599e-08,0,32768,32768
292.05,-3.78816e-08,0,32768,32768
292.101,-3.75787e-08,0,32768,32768
292.151,-3.72659e-08,0,32768,32768
292.201,-3.69319e-08,0,32768,32768
292.251,-3.65735e-08,0,32768,32768
292.301,-3.61875e-08,0,32768,32768
292.35,-3.57709e-08,0,32768,32768
292.4,-3.53206e-08,0,32768,32768
292.451,-3.48189e-08,0,32768,32768
292.501,-3.42924e-08,0,32768,32768
292.551,-3.37254e-08,0,32768,32768
292.601,-3.3117e-08,0,32768,32768
292.651,-3.24669e-08,0,32768,32768
292.7,-3.17759e-08,0,32768,32768
292.75,-3.10455e-08,0,32768,32768
292.801,-3.02555e-08,0,32768,32768
292.851,-2.94547e-08,0,32768,32768
292.901,-2.86257e-08,0,32768,32768
292.951,-2.77733e-08,0,32768,32768
293.001,-2.69031e-08,0,32768,32768
293.05,-2.60204e-08,0,32768,32768
293.1,-2.51306e-08,0,32768,32768
293.15,-2.42387e-08,0,32768,32768
293.201,-2.33232e-08,0,32768,32768
293.251,-2.24412e-08,0,32768,32768
293.301,-2.15707e-08,0,32768,32768
293.351,-2.07159e-08,0,32768,32768
293.4,-1.98809e-08,0,32768,32768
293.45,-1.90695e-08,0,32768,32768
293.5,-1.82853e-08,0,32768,32768
293.551,-1.75099e-08,0,32768,32768
293.601,-1.67901e-08,0,32768,32768
293.651,-1.61053e-08,0,32768,32768
293.701,-1.54563e-08,0,32768,32768
293.75,-1.48435e-08,0,32768,32768
293.8,-1.42659e-08,0,32768,32768
293.85,-1.37222e-08,0,32768,32768
293.901,-1.31955e-08,0,32768,32768
293.951,-1.27131e-08,0,32768,32768
294.001,-1.22561e-08,0,32768,32768
294.051,-1.18207e-08,0,32768,32768
294.101,-1.14029e-08,0,32768,32768
294.15,-1.09982e-08,0,32768,32768
294.2,-1.06019e-08,0,32768,32768
294.251,-1.01975e-08,0,32768,32768
294.301,-9.80297e-09,0,32768,32768
294.351,-9.40189e-09,0,32768,32768
294.401,-8.9896e-09,0,32768,32768
294.451,-8.56184e-09,0,32768,32768
294.5,-8.11483e-09,0,32768,32768
294.55,-7.64545e-09,0,32768,32768
294.601,-7.13637e-09,0,32768,32768
294.651,-6.61513e-09,0,32768,32768
294.701,-6.06701e-09,0,32768,32768
294.751,-5.49248e-09,0,32768,32768
294.801,-4.89297e-09,0,32768,32768
294.85,-4.27083e-09,0,32768,32768
294.9,-3.62918e-09,0,32768,32768
294.95,-2.97172e-09,0,32768,32768
295.001,-2.28271e-09,0,32768,32768
295.051,-1.60599e-09,0,32768,32768
295.101,-9.26463e-10,0,32768,32768
295.151,-2.48582e-10,0,32768,32768
295.2,4.23271e-10,0,32768,32768
295.25,1.08481e-09,0,32768,32768
295.3,1.73182e-09,0,32768,32768
295.351,2.37829e-09,0,32768,32768
295.401,2.98299e-09,0,32768,32768
295.451,3.56047e-09,0,32768,32768
295.501,4.10651e-09,0,32768,32768
295.551,4.61704e-09,0,32768,32768
295.6,5.08831e-09,0,32768,32768
295.65,5.51711e-09,0,32768,32768
295.701,5.91155e-09,0,32768,32768
295.751,6.24742e-09,0,32768,32768
295.801,6.53588e-09,0,32768,32768
295.851,6.77695e-09,0,32768,32768
295.901,6.9714e-09,0,32768,32768
295.95,7.12066e-09,0,32768,32768
296,7.22691e-09,0,32768,32768
296.051,7.29437e-09,0,32768,32768
296.101,7.32284e-09,0,32768,32768
296.151,7.31899e-09,0,32768,32768
296.201,7.28731e-09,0,32768,32768
296.251,7.23241e-09,0,32768,32768
296.3,7.15863e-09,0,32768,32768
296.35,7.06981e-09,0,32768,32768
296.4,6.96915e-09,0,32768,32768
296.451,6.85585e-09,0,32768,32768
296.501,6.73848e-09,0,32768,32768
296.551,6.61565e-09,0,32768,32768
296.601,6.48903e-09,0,32768,32768
296.65,6.36036e-09,0,32768,32768
296.7,6.23157e-09,0,32768,32768
296.75,6.1047e-09,0,32768,32768
296.801,5.97832e-09,0,32768,32768
296.851,5.86161e-09,0,32768,32768
296.901,5.75252e-09,0,32768,32768
296.951,5.65229e-09,0,32768,32768
297.001,5.56169e-09,0,32768,32768
297.05,5.48109e-09,0,32768,32768
297.1,5.41055e-09,0,32768,32768
297.151,5.34828e-09,0,32768,32768
297.201,5.29759e-09,0,32768,32768
297.251,5.2563e-09,0,32768,32768
297.301,5.22414e-09,0,32768,32768
297.351,5.20077e-09,0,32768,32768
297.4,5.18573e-09,0,32768,32768
297.45,5.17832e-09,0,32768,32768
297.501,5.17767e-09,0,32768,32768
297.551,5.1826e-09,0,32768,32768
297.601,5.19168e-09,0,32768,32768
297.651,5.20354e-09,0,32768,32768
297.701,5.21692e-09,0,32768,32768
297.75,5.23065e-09,0,32768,32768
297.8,5.24364e-09,0,32768,32768
297.851,5.25514e-09,0,32768,32768
297.901,5.26344e-09,0,32768,32768
297.951,5.2679e-09,0,32768,32768
298.001,5.2677e-09,0,32768,32768
298.051,5.26229e-09,0,32768,32768
298.1,5.2516e-09,0,32768,32768
298.15,5.23602e-09,0,32768,32768
298.2,5.2164e-09,0,32768,32768
298.251,5.1932e-09,0,32768,32768
298.301,5.16895e-09,0,32768,32768
298.351,5.14408e-09,0,32768,32768
298.401,5.11932e-09,0,32768,32768
298.45,5.09504e-09,0,32768,32768
298.5,5.07127e-09,0,32768,32768
298.55,5.04785e-09,0,32768,32768
298.601,5.02391e-09,0,32768,32768
298.651,5.00072e-09,0,32768,32768
298.701,4.97775e-09,0,32768,32768
298.751,4.95544e-09,0,32768,32768
298.801,4.93449e-09,0,32768,32768
298.85,4.91576e-09,0,32768,32768
298.9,4.90012e-09,0,32768,32768
298.951,4.888e-09,0,32768,32768
299.001,4.88053e-09,0,32768,32768
299.051,4.87735e-09,0,32768,32768
299.101,4.87814e-09,0,32768,32768
299.151,4.88228e-09,0,32768,32768
299.2,4.889e-09,0,32768,32768
299.25,4.89744e-09,0,32768,32768
299.301,4.90711e-09,0,32768,32768
299.351,4.9168e-09,0,32768,32768
299.401,4.92626e-09,0,32768,32768
299.451,4.9351e-09,0,32768,32768
299.501,4.94299e-09,0,32768,32768
299.55,4.94964e-09,0,32768,32768
299.6,4.9548e-09,0,32768,32768
299.65,4.95822e-09,0,32768,32768
299.701,4.95976e-09,0,32768,32768
299.751,4.95925e-09,0,32768,32768
299.801,4.95677e-09,0,32768,32768
299.851,4.95239e-09,0,32768,32768
299.9,4.94618e-09,0,32768,32768
299.95,4.93819e-09,0,32768,32768
300,4.92846e-09,0,32768,32768
300.051,4.91661e-09,0,32768,32768
300.101,4.90335e-09,0,32768,32768
300.151,4.88838e-09,0,32768,32768
300.201,4.87181e-09,0,32768,32768
300.251,4.85372e-09,0,32768,32768
300.3,4.83423e-09,0,32768,32768
300.35,4.8134e-09,0,32768,32768
300.401,4.79056e-09,0,32768,32768
300.451,4.76695e-09,0,32768,32768
300.501,4.74187e-09,0,32768,32768
300.551,4.71523e-09,0,32768,32768
300.601,4.68699e-09,0,32768,32768
300.65,4.65716e-09,0,32768,32768
300.7,4.62582e-09,0,32768,32768
300.751,4.5921e-09,0,32768,32768
300.801,4.55808e-09,0,32768,32768
300.851,4.52298e-09,0,32768,32768
300.901,4.48697e-09,0,32768,32768
300.951,4.45018e-09,0,32768,32768
301,4.41275e-09,0,32768,32768
301.05,4.37479e-09,0,32768,32768
301.1,4.33637e-09,0,32768,32768
301.151,4.29644e-09,0,32768,32768
301.201,4.25733e-09,0,32768,32768
301.251,4.21798e-09,0,32768,32768
301.301,4.17841e-09,0,32768,32768
301.35,4.13869e-09,0,32768,32768
301.4,4.09884e-09,0,32768,32768
301.45,4.05888e-09,0,32768,32768
301.501,4.01766e-09,0,32768,32768
301.551,3.97755e-09,0,32768,32768
301.601,3.93736e-09,0,32768,32768
301.651,3.8971e-09,0,32768,32768
301.701,3.85673e-09,0,32768,32768
301.75,3.81625e-09,0,32768,32768
301.8,3.77561e-09,0,32768,32768
301.851,3.73359e-09,0,32768,32768
301.901,3.69255e-09,0,32768,32768
301.951,3.65125e-09,0,32768,32768
302.001,3.60964e-09,0,32768,32768
302.051,3.56771e-09,0,32768,32768
302.1,3.52539e-09,0,32768,32768
302.15,3.48268e-09,0,32768,32768
302.201,3.43824e-09,0,32768,32768
302.251,3.3946e-09,0,32768,32768
302.301,3.35048e-09,0,32768,32768
302.351,3.30586e-09,0,32768,32768
302.401,3.26073e-09,0,32768,32768
302.45,3.21509e-09,0,32768,32768
302.5,3.16893e-09,0,32768,32768
302.551,3.1209e-09,0,32768,32768
302.601,3.07375e-09,0,32768,32768
302.651,3.02612e-09,0,32768,32768
302.701,2.97806e-09,0,32768,32768
302.751,2.92957e-09,0,32768,32768
302.8,2.88071e-09,0,32768,32768
302.85,2.8315e-09,0,32768,32768
302.9,2.782e-09,0,32768,32768
302.951,2.73078e-09,0,32768,32768
303.001,2.68083e-09,0,32768,32768
303.051,2.63074e-09,0,32768,32768
303.101,2.58057e-09,0,32768,32768
303.15,2.53038e-09,0,32768,32768
303.2,2.48023e-09,0,32768,32768
303.25,2.43018e-09,0,32768,32768
303.301,2.37881e-09,0,32768,32768
303.351,2.32912e-09,0,32768,32768
303.401,2.27969e-09,0,32768,32768
303.451,2.23055e-09,0,32768,32768
303.501,2.18175e-09,0,32768,32768
303.55,2.13332e-09,0,32768,32768
303.6,2.08528e-09,0,32768,32768
303.651,2.03627e-09,0,32768,32768
303.701,1.98911e-09,0,32768,32768
303.751,1.94239e-09,0,32768,32768
303.801,1.89614e-09,0,32768,32768
303.851,1.85034e-09,0,32768,32768
303.9,1.80502e-09,0,32768,32768
303.95,1.76016e-09,0,32768,32768
304.001,1.71447e-09,0,32768,32768
304.051,1.67054e-09,0,32768,32768
304.101,1.62707e-09,0,32768,32768
304.151,1.58403e-09,0,32768,32768
304.201,1.54142e-09,0,32768,32768
304.25,1.49922e-09,0,32768,32768
304.3,1.45742e-09,0,32768,32768
304.35,1.416e-09,0,32768,32768
304.401,1.37374e-09,0,32768,32768
304.451,1.33305e-09,0,32768,32768
304.501,1.29268e-09,0,32768,32768
304.551,1.25264e-09,0,32768,32768
304.6,1.21289e-09,0,32768,32768
304.65,1.17344e-09,0,32768,32768
304.7,1.13426e-09,0,32768,32768
304.751,1.09421e-09,0,32768,32768
304.801,1.05556e-09,0,32768,32768
304.851,1.01716e-09,0,32768,32768
304.901,9.79009e-10,0,32768,32768
304.951,9.41094e-10,0,32768,32768
