250,0,0,8192,8192
250.003,0,0,8192,8192
250.053,0,0,8192,8192
250.103,2.77556e-17,0,8192,8192
250.152,2.77556e-17,0,8192,8192
250.202,0,0,8192,8192
250.252,0,0,8192,8192
250.302,-2.77556e-17,0,8192,8192
250.352,0,0,8192,8192
250.401,0,0,8192,8192
250.451,2.77556e-17,0,8192,8192
250.501,2.77556e-17,0,8192,8192
250.551,2.77556e-17,0,8192,8192
250.6,0,0,8192,8192
250.65,2.77556e-17,0,8192,8192
250.7,-2.77556e-17,0,8192,8192
250.753,0,0,8192,8192
250.803,-2.77556e-17,0,8192,8192
250.852,0,0,8192,8192
250.902,0,0,8192,8192
250.952,0,0,8192,8192
251.002,0,0,8192,8192
251.052,0,0,8192,8192
251.101,0,0,8192,8192
251.151,0,0,8192,8192
251.201,2.77556e-17,0,8192,8192
251.251,2.77556e-17,0,8192,8192
251.301,2.77556e-17,0,8192,8192
251.35,0,0,8192,8192
251.4,5.55112e-17,0,8192,8192
251.453,0,0,8192,8192
251.503,0,0,8192,8192
251.553,-2.77556e-17,0,8192,8192
251.602,0,0,8192,8192
251.652,0,0,8192,8192
251.702,0,0,8192,8192
251.752,0,0,8192,8192
251.801,5.55112e-17,0,8192,8192
251.851,0,0,8192,8192
251.901,2.77556e-17,0,8192,8192
251.951,2.77556e-17,0,8192,8192
252.001,2.77556e-17,0,8192,8192
252.05,0,0,8192,8192
252.1,0,0,8192,8192
252.15,0,0,8192,8192
252.203,-5.55112e-17,0,8192,8192
252.253,-2.77556e-17,0,8192,8192
252.302,0,0,8192,8192
252.352,2.77556e-17,0,8192,8192
252.402,2.77556e-17,0,8192,8192
252.452,2.77556e-17,0,8192,8192
252.502,0,0,8192,8192
252.551,2.77556e-17,0,8192,8192
252.601,0,0,8192,8192
252.651,0,0,8192,8192
252.701,-2.77556e-17,0,8192,8192
252.751,0,0,8192,8192
252.8,2.77556e-17,0,8192,8192
252.85,2.77556e-17,0,8192,8192
252.903,2.77556e-17,0,8192,8192
252.953,2.77556e-17,0,8192,8192
253.002,0,0,8192,8192
253.052,2.77556e-17,0,8192,8192
253.102,0,0,8192,8192
253.152,2.77556e-17,0,8192,8192
253.202,0,0,8192,8192
253.251,2.77556e-17,0,8192,8192
253.301,2.77556e-17,0,8192,8192
253.351,0,0,8192,8192
253.401,2.77556e-17,0,8192,8192
253.451,2.77556e-17,0,8192,8192
253.5,2.77556e-17,0,8192,8192
253.55,2.77556e-17,0,8192,8192
253.6,0,0,8192,8192
253.653,2.77556e-17,0,8192,8192
253.703,2.77556e-17,0,8192,8192
253.752,0,0,8192,8192
253.802,0,0,8192,8192
253.852,0,0,8192,8192
253.902,-2.77556e-17,0,8192,8192
253.952,-5.55112e-17,0,8192,8192
254.001,-8.32667e-17,0,8192,8192
254.051,-2.77556e-17,0,8192,8192
254.101,2.77556e-17,0,8192,8192
254.151,0,0,8192,8192
254.201,-2.77556e-17,0,8192,8192
254.25,-5.55112e-17,0,8192,8192
254.3,-5.55112e-17,0,8192,8192
254.353,-5.55112e-17,0,8192,8192
254.403,-2.77556e-17,0,8192,8192
254.452,-2.77556e-17,0,8192,8192
254.502,0,0,8192,8192
254.552,-2.77556e-17,0,8192,8192
254.602,-2.77556e-17,0,8192,8192
254.652,-2.77556e-17,0,8192,8192
254.701,2.77556e-17,0,8192,8192
254.751,2.77556e-17,0,8192,8192
254.801,5.55112e-17,0,8192,8192
254.851,5.55112e-17,0,8192,8192
254.901,5.55112e-17,0,8192,8192
254.95,8.32667e-17,0,8192,8192
255,5.55112e-17,0,8192,8192
255.05,2.77556e-17,0,8192,8192
255.103,5.55112e-17,0,8192,8192
255.153,2.77556e-17,0,8192,8192
255.202,2.77556e-17,0,8192,8192
255.252,0,0,8192,8192
255.302,0,0,8192,8192
255.352,2.77556e-17,0,8192,8192
255.402,2.77556e-17,0,8192,8192
255.451,2.77556e-17,0,8192,8192
255.501,5.55112e-17,0,8192,8192
255.551,2.77556e-17,0,8192,8192
255.601,8.32667e-17,0,8192,8192
255.651,5.55112e-17,0,8192,8192
255.7,8.32667e-17,0,8192,8192
255.75,5.55112e-17,0,8192,8192
255.803,2.77556e-17,0,8192,8192
255.853,2.77556e-17,0,8192,8192
255.902,0,0,8192,8192
255.952,-2.77556e-17,0,8192,8192
256.002,0,0,8192,8192
256.052,0,0,8192,8192
256.102,0,0,8192,8192
256.151,2.77556e-17,0,8192,8192
256.201,2.77556e-17,0,8192,8192
256.251,2.77556e-17,0,8192,8192
256.301,0,0,8192,8192
256.351,-2.77556e-17,0,8192,8192
256.4,0,0,8192,8192
256.45,2.77556e-17,0,8192,8192
256.5,2.77556e-17,0,8192,8192
256.553,-2.77556e-17,0,8192,8192
256.603,2.77556e-17,0,8192,8192
256.652,2.77556e-17,0,8192,8192
256.702,5.55112e-17,0,8192,8192
256.752,5.55112e-17,0,8192,8192
256.802,5.55112e-17,0,8192,8192
256.852,2.77556e-17,0,8192,8192
256.901,2.77556e-17,0,8192,8192
256.951,2.77556e-17,0,8192,8192
257.001,5.55112e-17,0,8192,8192
257.051,8.32667e-17,0,8192,8192
257.101,1.11022e-16,0,8192,8192
257.15,8.32667e-17,0,8192,8192
257.2,8.32667e-17,0,8192,8192
257.253,1.11022e-16,0,8192,8192
257.303,2.77556e-17,0,8192,8192
257.352,2.77556e-17,0,8192,8192
257.402,2.77556e-17,0,8192,8192
257.452,2.77556e-17,0,8192,8192
257.502,0,0,8192,8192
257.552,2.77556e-17,0,8192,8192
257.601,0,0,8192,8192
257.651,-2.77556e-17,0,8192,8192
257.701,0,0,8192,8192
257.751,2.77556e-17,0,8192,8192
257.801,0,0,8192,8192
257.85,0,0,8192,8192
257.9,0,0,8192,8192
257.95,-2.77556e-17,0,8192,8192
258.003,-2.77556e-17,0,8192,8192
258.053,2.77556e-17,0,8192,8192
258.102,0,0,8192,8192
258.152,0,0,8192,8192
258.202,0,0,8192,8192
258.252,0,0,8192,8192
258.302,-2.77556e-17,0,8192,8192
258.351,-2.77556e-17,0,8192,8192
258.401,-2.77556e-17,0,8192,8192
258.451,-2.77556e-17,0,8192,8192
258.501,-2.77556e-17,0,8192,8192
258.551,-2.77556e-17,0,8192,8192
258.6,2.77556e-17,0,8192,8192
258.65,2.77556e-17,0,8192,8192
258.703,-5.55112e-17,0,8192,8192
258.753,-2.77556e-17,0,8192,8192
258.802,0,0,8192,8192
258.852,-2.77556e-17,0,8192,8192
258.902,-2.77556e-17,0,8192,8192
258.952,0,0,8192,8192
259.002,0,0,8192,8192
259.051,0,0,8192,8192
259.101,0,0,8192,8192
259.151,-2.77556e-17,0,8192,8192
259.201,2.77556e-17,0,8192,8192
259.251,0,0,8192,8192
259.3,0,0,8192,8192
259.35,5.55112e-17,0,8192,8192
259.403,0,0,8192,8192
259.453,2.77556e-17,0,8192,8192
259.503,0,0,8192,8192
259.552,0,0,8192,8192
259.602,0,0,8192,8192
259.652,-2.77556e-17,0,8192,8192
259.702,-2.77556e-17,0,8192,8192
259.751,-2.77556e-17,0,8192,8192
259.801,-2.77556e-17,0,8192,8192
259.851,-2.77556e-17,0,8192,8192
259.901,-2.77556e-17,0,8192,8192
259.951,0,0,8192,8192
260,-2.77556e-17,0,8192,8192
260.05,-5.55112e-17,0,8192,8192
260.1,-8.32667e-17,0,8192,8192
260.153,-5.55112e-17,0,8192,8192
260.203,-2.77556e-17,0,8192,8192
260.252,0,0,8192,8192
260.302,0,0,8192,8192
260.352,0,0,8192,8192
260.402,0,0,8192,8192
260.452,2.77556e-17,0,8192,8192
260.501,2.77556e-17,0,8192,8192
260.551,0,0,8192,8192
260.601,-2.77556e-17,0,8192,8192
260.651,-2.77556e-17,0,8192,8192
260.701,-2.77556e-17,0,8192,8192
260.75,-2.77556e-17,0,8192,8192
260.8,-2.77556e-17,0,8192,8192
260.853,-5.55112e-17,0,8192,8192
260.903,-5.55112e-17,0,8192,8192
260.952,-2.77556e-17,0,8192,8192
261.002,-2.77556e-17,0,8192,8192
261.052,-2.77556e-17,0,8192,8192
261.102,-8.32667e-17,0,8192,8192
261.152,-5.55112e-17,0,8192,8192
261.201,-5.55112e-17,0,8192,8192
261.251,-2.77556e-17,0,8192,8192
261.301,-2.77556e-17,0,8192,8192
261.351,-2.77556e-17,0,8192,8192
261.401,-2.77556e-17,0,8192,8192
261.45,2.77556e-17,0,8192,8192
261.5,0,0,8192,8192
261.55,2.77556e-17,0,8192,8192
261.603,5.55112e-17,0,8192,8192
261.653,5.55112e-17,0,8192,8192
261.702,5.55112e-17,0,8192,8192
261.752,8.32667e-17,0,8192,8192
261.802,5.55112e-17,0,8192,8192
261.852,5.55112e-17,0,8192,8192
261.902,8.32667e-17,0,8192,8192
261.951,5.55112e-17,0,8192,8192
262.001,2.77556e-17,0,8192,8192
262.051,2.77556e-17,0,8192,8192
262.101,2.77556e-17,0,8192,8192
262.151,2.77556e-17,0,8192,8192
262.2,2.77556e-17,0,8192,8192
262.25,2.77556e-17,0,8192,8192
262.303,0,0,8192,8192
262.353,0,0,8192,8192
262.402,0,0,8192,8192
262.452,0,0,8192,8192
262.502,2.77556e-17,0,8192,8192
262.552,2.77556e-17,0,8192,8192
262.602,2.77556e-17,0,8192,8192
262.651,2.77556e-17,0,8192,8192
262.701,2.77556e-17,0,8192,8192
262.751,2.77556e-17,0,8192,8192
262.801,2.77556e-17,0,8192,8192
262.851,2.77556e-17,0,8192,8192
262.9,5.55112e-17,0,8192,8192
262.95,5.55112e-17,0,8192,8192
263,5.55112e-17,0,8192,8192
263.053,5.55112e-17,0,8192,8192
263.103,0,0,8192,8192
263.152,2.77556e-17,0,8192,8192
263.202,0,0,8192,8192
263.252,2.77556e-17,0,8192,8192
263.302,-5.55112e-17,0,8192,8192
263.352,-2.77556e-17,0,8192,8192
263.401,-1.11022e-16,0,8192,8192
263.451,-1.11022e-16,0,8192,8192
263.501,-8.32667e-17,0,8192,8192
263.551,-8.32667e-17,0,8192,8192
263.601,-5.55112e-17,0,8192,8192
263.65,-8.32667e-17,0,8192,8192
263.7,0,0,8192,8192
263.753,-5.55112e-17,0,8192,8192
263.803,-8.32667e-17,0,8192,8192
263.852,-5.55112e-17,0,8192,8192
263.902,-2.77556e-17,0,8192,8192
263.952,0,0,8192,8192
264.002,2.77556e-17,0,8192,8192
264.052,0,0,8192,8192
264.101,0,0,8192,8192
264.151,2.77556e-17,0,8192,8192
264.201,2.77556e-17,0,8192,8192
264.251,2.77556e-17,0,8192,8192
264.301,0,0,8192,8192
264.35,0,0,8192,8192
264.4,0,0,8192,8192
264.45,0,0,8192,8192
264.503,0,0,8192,8192
264.553,2.77556e-17,0,8192,8192
264.602,-2.77556e-17,0,8192,8192
264.652,-2.77556e-17,0,8192,8192
264.702,0,0,8192,8192
264.752,0,0,8192,8192
264.802,0,0,8192,8192
264.851,0,0,8192,8192
264.901,0,0,8192,8192
264.951,0,0,8192,8192
265.001,0,0,8192,8192
265.051,2.77556e-17,0,8192,8192
265.1,2.77556e-17,0,8192,8192
265.15,5.55112e-17,0,8192,8192
265.203,5.55112e-17,0,8192,8192
265.253,2.77556e-17,0,8192,8192
265.302,2.77556e-17,0,8192,8192
265.352,2.77556e-17,0,8192,8192
265.402,2.77556e-17,0,8192,8192
265.452,2.77556e-17,0,8192,8192
265.502,2.77556e-17,0,8192,8192
265.551,0,0,8192,8192
265.601,-2.77556e-17,0,8192,8192
265.651,-2.77556e-17,0,8192,8192
265.701,-2.77556e-17,0,8192,8192
265.751,-2.77556e-17,0,8192,8192
265.8,-5.55112e-17,0,8192,8192
265.85,-8.32667e-17,0,8192,8192
265.9,-8.32667e-17,0,8192,8192
265.953,-8.32667e-17,0,8192,8192
266.003,-1.11022e-16,0,8192,8192
266.052,-1.38778e-16,0,8192,8192
266.102,-8.32667e-17,0,8192,8192
266.152,-8.32667e-17,0,8192,8192
266.202,-5.55112e-17,0,8192,8192
266.252,-5.55112e-17,0,8192,8192
266.301,-2.77556e-17,0,8192,8192
266.351,-2.77556e-17,0,8192,8192
266.401,-2.77556e-17,0,8192,8192
266.451,-2.77556e-17,0,8192,8192
266.501,5.55112e-17,0,8192,8192
266.55,5.55112e-17,0,8192,8192
266.6,8.32667e-17,0,8192,8192
266.653,8.32667e-17,0,8192,8192
266.703,8.32667e-17,0,8192,8192
266.752,1.11022e-16,0,8192,8192
266.802,5.55112e-17,0,8192,8192
266.852,2.77556e-17,0,8192,8192
266.902,2.77556e-17,0,8192,8192
266.952,2.77556e-17,0,8192,8192
267.001,2.77556e-17,0,8192,8192
267.051,2.77556e-17,0,8192,8192
267.101,2.77556e-17,0,8192,8192
267.151,5.55112e-17,0,8192,8192
267.201,5.55112e-17,0,8192,8192
267.25,5.55112e-17,0,8192,8192
267.3,5.55112e-17,0,8192,8192
267.353,0,0,8192,8192
267.403,2.77556e-17,0,8192,8192
267.453,-2.77556e-17,0,8192,8192
267.502,2.77556e-17,0,8192,8192
267.552,0,0,8192,8192
267.602,0,0,8192,8192
267.652,0,0,8192,8192
267.702,2.77556e-17,0,8192,8192
267.751,2.77556e-17,0,8192,8192
267.801,5.55112e-17,0,8192,8192
267.851,5.55112e-17,0,8192,8192
267.901,-2.77556e-17,0,8192,8192
267.95,-2.77556e-17,0,8192,8192
268,0,0,8192,8192
268.05,0,0,8192,8192
268.1,2.77556e-17,0,9308,9308
268.151,2.77556e-17,0,10196,10196
268.2,2.77556e-17,0,11108,11108
268.25,2.77556e-17,0,11948,11948
268.301,2.77556e-17,0,12836,12836
268.351,2.77556e-17,0,13748,13748
268.4,2.77556e-17,0,14588,14588
268.45,2.77556e-17,0,15428,15428
268.501,2.77556e-17,0,16316,16316
268.55,2.77556e-17,0,17212,17212
268.6,2.77556e-17,0,18068,18068
268.65,2.77556e-17,0,18908,18908
268.701,2.77556e-17,0,19796,19796
268.75,2.77556e-17,0,20636,20636
268.8,2.77556e-17,0,21476,21476
268.851,2.77556e-17,0,22388,22388
268.9,2.77556e-17,0,23228,23228
268.95,2.77556e-17,0,24068,24068
269,2.77556e-17,0,24908,24908
269.051,2.77556e-17,0,25796,25796
269.1,2.77556e-17,0,26636,26636
269.15,2.77556e-17,0,27476,27476
269.201,2.77556e-17,0,28316,28316
269.251,2.77556e-17,0,29228,29228
269.3,7.21645e-16,0,30068,30068
269.35,2.58127e-15,0,30908,30908
269.401,4.52416e-15,0,31748,31748
269.45,2.28151e-14,0,32588,32588
269.5,1.76886e-13,0,33428,33428
269.55,9.30173e-13,0,34268,34268
269.601,3.27097e-12,0,35108,35108
269.65,7.61083e-12,0,35948,35948
269.7,-7.30196e-11,0,36716,36716
269.751,-5.17136e-10,0,37556,37556
269.8,-6.20018e-10,0,38036,38036
269.85,-3.13734e-10,0,38876,38876
269.9,1.04911e-10,0,39716,39716
269.951,4.12355e-10,0,40556,40556
270,4.29628e-10,0,41396,41396
270.05,1.56058e-10,0,42236,42236
270.1,-1.74821e-10,0,43076,43076
270.151,-2.70984e-10,0,43916,43916
270.2,-4.10213e-11,0,44756,44756
270.25,2.87873e-10,0,45596,45596
270.301,4.13426e-10,0,46436,46436
270.35,2.29713e-10,0,47276,47276
270.4,-6.17322e-11,0,48116,48116
270.45,-1.89691e-10,0,48908,48908
270.501,-5.14115e-11,0,49748,49748
270.55,1.94355e-10,0,50588,50588
270.6,3.32207e-10,0,51356,51356
270.651,2.69054e-10,0,52196,52196
270.701,9.47443e-11,0,52988,52988
270.75,-5.4954e-11,0,53828,53828
270.8,-9.55552e-11,0,54596,54596
270.851,-1.24204e-11,0,55388,55388
270.9,1.70833e-10,0,56228,56228
270.95,3.6848e-10,0,56996,56996
271,4.15151e-10,0,57788,57788
271.051,1.57274e-10,0,58556,58556
271.1,-2.93263e-10,0,59372,59372
271.15,-5.14369e-10,0,60188,60188
271.201,-7.74909e-11,0,60956,60956
271.25,8.29702e-10,0,61748,61748
271.3,1.30247e-09,0,62492,62492
271.35,4.47829e-10,0,63236,63236
271.401,-1.41469e-09,0,64028,64028
271.45,-2.34978e-09,0,64796,64796
271.5,-3.9319e-10,0,65588,65588
271.551,4.91264e-09,0,66356,66356
271.601,1.182e-08,0,67076,67076
271.65,1.84309e-08,0,67868,67868
271.7,2.35499e-08,0,68588,68588
271.751,2.69235e-08,0,69356,69356
271.8,2.85811e-08,0,70076,70076
271.85,2.9561e-08,0,70868,70868
271.9,3.17442e-08,0,71588,71588
271.951,3.70657e-08,0,72308,72308
272,4.57879e-08,0,73076,73076
272.05,5.68482e-08,0,73796,73796
272.101,6.92192e-08,0,74516,74516
272.15,8.26954e-08,0,75236,75236
272.2,9.90473e-08,0,75956,75956
272.25,1.20104e-07,0,76676,76676
272.301,1.47594e-07,0,77452,77452
272.35,1.81395e-07,0,78116,78116
272.4,2.22006e-07,0,78836,78836
272.451,2.68685e-07,0,79556,79556
272.501,3.17018e-07,0,80276,80276
272.55,3.64937e-07,0,80996,80996
272.6,4.12605e-07,0,81668,81668
272.651,4.63752e-07,0,82388,82388
272.7,5.19554e-07,0,83108,83108
272.75,5.79437e-07,0,83756,83756
272.8,6.38514e-07,0,84476,84476
272.851,6.92346e-07,0,85148,85148
272.9,7.36207e-07,0,85868,85868
272.95,7.69674e-07,0,86516,86516
273.001,7.92605e-07,0,87236,87236
273.05,8.05743e-07,0,87908,87908
273.1,8.12429e-07,0,88556,88556
273.15,8.1549e-07,0,89228,89228
273.201,8.16191e-07,0,89948,89948
273.25,8.14388e-07,0,90596,90596
273.3,8.09594e-07,0,91268,91268
273.35,8.0093e-07,0,91972,91972
273.401,7.86977e-07,0,92636,92636
273.45,7.66951e-07,0,93308,93308
273.5,7.39771e-07,0,93956,93956
273.551,7.04189e-07,0,94628,94628
273.6,6.61182e-07,0,95332,95332
273.65,6.12226e-07,0,95996,95996
273.7,5.60807e-07,0,96668,96668
273.751,5.09606e-07,0,97316,97316
273.8,4.62018e-07,0,97988,97988
273.85,4.17961e-07,0,98636,98636
273.901,3.77157e-07,0,99308,99308
273.951,3.40516e-07,0,99956,99956
274,3.06719e-07,0,100628,100628
274.05,2.75037e-07,0,101276,101276
274.101,2.44439e-07,0,101948,101948
274.15,2.15373e-07,0,102596,102596
274.2,1.87422e-07,0,103268,103268
274.25,1.61992e-07,0,103916,103916
274.301,1.4114e-07,0,104588,104588
274.35,1.26938e-07,0,105236,105236
274.4,1.17274e-07,0,105892,105892
274.451,1.0807e-07,0,106508,106508
274.5,9.64559e-08,0,107156,107156
274.55,8.27091e-08,0,107828,107828
274.6,6.9551e-08,0,108476,108476
274.651,5.92778e-08,0,109148,109148
274.7,5.26731e-08,0,109748,109748
274.75,4.87503e-08,0,110396,110396
274.801,4.63606e-08,0,111068,111068
274.851,4.41224e-08,0,111716,111716
274.9,4.04173e-08,0,112316,112316
274.95,3.43961e-08,0,112988,112988
275.001,2.7117e-08,0,113636,113636
275.05,2.11836e-08,0,114236,114236
275.1,1.82381e-08,0,114908,114908
275.15,1.79808e-08,0,115556,115556
275.201,1.89048e-08,0,116156,116156
275.25,1.96499e-08,0,116828,116828
275.3,1.9897e-08,0,117428,117428
275.351,1.99091e-08,0,118076,118076
275.4,1.99531e-08,0,118748,118748
275.45,2.0083e-08,0,119348,119348
275.5,2.02305e-08,0,119948,119948
275.551,2.03446e-08,0,120596,120596
275.6,2.03388e-08,0,121268,121268
275.65,1.96156e-08,0,121868,121868
275.7,1.9117e-08,0,122468,122468
275.751,1.91104e-08,0,123068,123068
275.8,1.91423e-08,0,123668,123668
275.85,1.91746e-08,0,124196,124196
275.901,1.92075e-08,0,124796,124796
275.95,1.924e-08,0,125348,125348
276,1.92727e-08,0,125876,125876
276.05,1.93054e-08,0,126428,126428
276.101,1.93387e-08,0,126908,126908
276.15,1.93716e-08,0,127436,127436
276.2,1.94046e-08,0,127916,127916
276.251,1.94382e-08,0,128396,128396
276.301,1.94713e-08,0,128876,128876
276.35,1.95046e-08,0,129356,129356
276.4,1.95381e-08,0,129788,129788
276.451,1.95722e-08,0,130268,130268
276.5,1.9606e-08,0,131072,131072
276.55,1.96397e-08,0,131040,131040
276.6,1.96733e-08,0,130816,130816
276.651,1.97075e-08,0,130680,130680
276.7,1.97413e-08,0,131072,131072
276.75,1.97752e-08,0,131072,131072
276.801,1.98098e-08,0,131072,131072
276.85,1.9844e-08,0,131072,131072
276.9,1.98783e-08,0,131072,131072
276.95,1.99125e-08,0,131072,131072
277.001,1.99474e-08,0,131072,131072
277.05,1.99818e-08,0,131072,131072
277.1,2.00165e-08,0,131072,131072
277.151,2.00519e-08,0,131072,131072
277.201,2.00868e-08,0,131008,131008
277.25,2.01217e-08,0,131072,131072
277.3,2.01567e-08,0,131040,131040
277.351,2.01924e-08,0,131072,131072
277.4,2.02278e-08,0,131072,131072
277.45,2.02633e-08,0,131072,131072
277.5,2.02989e-08,0,131072,131072
277.551,2.03351e-08,0,131072,131072
277.6,2.03709e-08,0,131072,131072
277.65,2.04067e-08,0,131072,131072
277.701,2.04432e-08,0,131072,131072
277.75,2.04795e-08,0,131072,131072
277.8,2.05159e-08,0,131072,131072
277.85,2.05524e-08,0,131072,131072
277.901,2.05893e-08,0,131072,131072
277.95,2.06257e-08,0,131072,131072
278,2.06623e-08,0,131072,131072
278.051,2.07e-08,0,131072,131072
278.101,2.07374e-08,0,131072,131072
278.15,2.07745e-08,0,131072,131072
278.2,2.081e-08,0,131072,131072
278.251,2.08431e-08,0,131072,131072
278.3,2.08722e-08,0,131072,131072
278.35,2.0898e-08,0,131072,131072
278.4,2.09209e-08,0,131072,131072
278.451,2.09421e-08,0,131072,131072
278.5,2.09616e-08,0,131072,131072
278.55,2.09794e-08,0,131072,131072
278.601,2.0995e-08,0,131072,131072
278.65,2.10065e-08,0,131072,131072
278.7,2.10125e-08,0,131072,131072
278.75,2.10116e-08,0,131072,131072
278.801,2.10022e-08,0,131072,131072
278.85,2.09832e-08,0,131072,131072
278.9,2.09521e-08,0,131072,131072
278.95,2.09059e-08,0,131072,131072
279.001,2.08399e-08,0,131072,131072
279.05,2.0752e-08,0,131072,131072
279.1,2.06379e-08,0,131072,131072
279.151,2.04927e-08,0,131072,131072
279.2,2.03188e-08,0,131072,131072
279.25,2.01136e-08,0,131072,131072
279.3,1.98757e-08,0,131072,131072
279.351,1.95994e-08,0,131072,131072
279.4,1.92907e-08,0,131072,131072
279.45,1.89452e-08,0,131072,131072
279.501,1.85582e-08,0,131072,131072
279.551,1.81447e-08,0,131072,131072
279.6,1.77043e-08,0,131072,131072
279.65,1.72431e-08,0,131072,131072
279.701,1.67599e-08,0,131072,131072
279.75,1.6274e-08,0,131072,131072
279.8,1.57822e-08,0,131072,131072
279.85,1.52875e-08,0,131072,131072
279.901,1.47845e-08,0,131072,131072
279.95,1.42898e-08,0,131072,131072
280,1.37985e-08,0,131072,131072
280.051,1.33063e-08,0,131072,131072
280.1,1.28308e-08,0,131072,131072
280.15,1.2369e-08,0,131072,131072
280.2,1.19253e-08,0,131072,131072
280.251,1.14983e-08,0,131072,131072
280.3,1.11045e-08,0,131072,131072
280.35,1.07403e-08,0,131072,131072
280.401,1.04025e-08,0,131072,131072
280.451,1.01004e-08,0,131072,131072
280.5,9.82768e-09,0,131072,131072
280.55,9.58233e-09,0,131072,131072
280.601,9.35917e-09,0,131072,131072
280.65,9.16267e-09,0,131072,131072
280.7,8.98775e-09,0,131072,131072
280.75,8.83309e-09,0,131072,131072
280.801,8.69579e-09,0,131072,131072
280.85,8.57878e-09,0,131072,131072
280.9,8.47854e-09,0,131072,131072
280.951,8.39185e-09,0,131072,131072
281,8.31853e-09,0,131072,131072
281.05,8.2546e-09,0,131072,131072
281.1,8.19835e-09,0,131072,131072
281.151,8.14861e-09,0,131072,131072
281.2,8.10712e-09,0,131072,131072
281.25,8.0733e-09,0,131072,131072
281.3,8.04659e-09,0,131072,131072
281.351,8.02541e-09,0,131072,131072
281.4,8.00878e-09,0,131072,131072
281.45,7.99505e-09,0,131072,131072
281.501,7.98336e-09,0,131072,131072
281.55,7.97402e-09,0,131072,131072
281.6,7.96733e-09,0,131072,131072
281.65,7.96378e-09,0,131072,131072
281.701,7.96349e-09,0,131072,131072
281.75,7.96602e-09,0,131072,131072
281.8,7.97053e-09,0,131072,131072
281.851,7.97624e-09,0,131072,131072
281.901,7.98231e-09,0,131072,131072
281.95,7.98839e-09,0,131072,131072
282,7.99424e-09,0,131072,131072
282.051,7.99989e-09,0,131072,131072
282.1,8.00528e-09,0,131072,131072
282.15,8.0107e-09,0,131072,131072
282.2,8.0163e-09,0,131072,131072
282.251,8.02216e-09,0,131072,131072
282.3,8.02806e-09,0,131072,131072
282.35,8.03402e-09,0,131072,131072
282.401,8.04014e-09,0,131072,131072
282.45,8.04631e-09,0,131072,131072
282.5,8.05268e-09,0,131072,131072
282.55,8.0592e-09,0,131072,131072
282.601,8.06584e-09,0,131072,131072
282.65,8.07228e-09,0,131072,131072
282.7,8.07856e-09,0,131072,131072
282.751,8.08488e-09,0,131072,131072
282.801,8.09121e-09,0,131072,131072
282.85,8.09774e-09,0,131072,131072
282.9,8.10442e-09,0,131072,131072
282.951,8.11118e-09,0,131072,131072
283,8.11762e-09,0,131072,131072
283.05,8.12384e-09,0,131072,131072
283.1,8.13011e-09,0,131072,131072
283.151,8.13683e-09,0,131072,131072
283.2,8.14379e-09,0,131072,131072
283.25,8.1506e-09,0,131072,131072
283.301,8.15693e-09,0,131072,131072
283.35,8.16324e-09,0,131072,131072
283.4,8.17214e-09,0,131072,131072
283.45,8.18731e-09,0,131072,131072
283.501,8.21156e-09,0,131072,131072
283.55,8.24251e-09,0,131072,131072
283.6,8.27574e-09,0,131072,131072
283.65,8.31066e-09,0,131072,131072
283.701,8.36062e-09,0,131072,131072
283.75,8.45034e-09,0,131072,131072
283.8,8.60567e-09,0,131072,131072
283.851,8.83545e-09,0,131072,131072
283.9,9.11016e-09,0,131072,131072
283.95,9.39745e-09,0,131072,131072
284,9.67692e-09,0,131072,131072
284.051,9.96587e-09,0,131072,131072
284.1,1.02978e-08,0,131072,131072
284.15,1.07226e-08,0,131072,131072
284.201,1.12755e-08,0,131072,131072
284.251,1.19434e-08,0,131072,131072
284.3,1.27301e-08,0,131072,131072
284.35,1.36472e-08,0,131072,131072
284.401,1.47443e-08,0,131072,131072
284.45,1.60283e-08,0,131072,131072
284.5,1.75375e-08,0,131072,131072
284.55,1.92732e-08,0,131072,131072
284.601,2.12549e-08,0,131072,131072
284.65,2.34198e-08,0,131072,131072
284.7,2.58042e-08,0,131072,131072
284.751,2.84644e-08,0,131072,131072
284.8,3.13294e-08,0,131072,131072
284.85,3.44173e-08,0,131072,131072
284.9,3.76832e-08,0,131072,131072
284.951,4.11206e-08,0,131072,131072
285,4.45857e-08,0,131072,131072
285.05,4.81167e-08,0,131072,131072
285.101,5.17833e-08,0,131072,131072
285.151,5.54887e-08,0,131072,131072
285.2,5.92516e-08,0,131072,131072
285.25,6.30038e-08,0,131072,131072
285.301,6.67692e-08,0,131072,131072
285.35,7.05471e-08,0,131072,131072
285.4,7.46741e-08,0,131072,131072
285.45,7.95115e-08,0,131072,131072
285.501,8.54015e-08,0,131072,131072
285.55,9.21338e-08,0,131072,131072
285.6,9.9427e-08,0,131072,131072
285.651,1.06851e-07,0,131072,131072
285.7,1.13711e-07,0,131072,131072
285.75,1.19927e-07,0,131072,131072
285.8,1.25685e-07,0,131072,131072
285.851,1.31583e-07,0,131072,131072
285.9,1.38115e-07,0,131072,131072
285.95,1.45954e-07,0,131072,131072
286,1.55502e-07,0,131072,131072
286.051,1.67182e-07,0,131072,131072
286.1,1.80889e-07,0,131072,131072
286.15,1.97158e-07,0,131072,131072
286.201,2.16874e-07,0,131072,131072
286.25,2.40121e-07,0,131072,131072
286.3,2.67656e-07,0,131072,131072
286.35,2.99603e-07,0,131072,131072
286.401,3.36167e-07,0,131072,131072
286.45,3.75541e-07,0,131072,131072
286.5,4.17369e-07,0,131072,131072
286.551,4.61612e-07,0,131072,131072
286.6,5.06562e-07,0,131072,131072
286.65,5.52502e-07,0,131072,131072
286.7,5.98773e-07,0,131072,131072
286.751,6.44745e-07,0,131072,131072
286.8,6.87174e-07,0,131072,131072
286.85,7.24603e-07,0,131072,131072
286.9,7.55178e-07,0,131072,131072
286.951,7.78034e-07,0,131072,131072
287,7.92285e-07,0,131072,131072
287.05,7.98926e-07,0,131072,131072
287.101,7.99023e-07,0,131072,131072
287.15,7.93797e-07,0,131072,131072
287.2,7.84242e-07,0,131072,131072
287.25,7.70852e-07,0,131072,131072
287.301,7.53353e-07,0,131072,131072
287.35,7.31882e-07,0,131072,131072
287.4,7.05656e-07,0,131072,131072
287.451,6.73641e-07,0,131072,131072
287.501,6.36491e-07,0,131072,131072
287.55,5.93983e-07,0,131072,131072
287.6,5.46904e-07,0,131072,131072
287.651,4.95852e-07,0,131072,131072
287.7,4.44044e-07,0,131072,131072
287.75,3.92525e-07,0,131072,131072
287.8,3.42791e-07,0,131072,131072
287.851,2.95211e-07,0,131072,131072
287.9,2.51687e-07,0,131072,131072
287.95,2.1159e-07,0,131072,131072
288.001,1.74206e-07,0,131072,131072
288.05,1.40321e-07,0,131072,131072
288.1,1.09163e-07,0,131072,131072
288.15,8.07403e-08,0,131072,131072
288.201,5.49434e-08,0,131072,131072
288.25,3.28685e-08,0,131072,131072
288.3,1.43099e-08,0,131072,131072
288.351,-1.12903e-09,0,131072,131072
288.401,-1.36276e-08,0,131072,131072
288.45,-2.42485e-08,0,131072,131072
288.5,-3.36372e-08,0,131072,131072
288.551,-4.2126e-08,0,131072,131072
288.6,-4.9266e-08,0,131072,131072
288.65,-5.48285e-08,0,131072,131072
288.7,-5.86126e-08,0,131072,131072
288.751,-6.0781e-08,0,131072,131072
288.8,-6.17367e-08,0,131072,131072
288.85,-6.21029e-08,0,131072,131072
288.901,-6.23258e-08,0,131072,131072
288.95,-6.25188e-08,0,131072,131072
289,-6.24657e-08,0,131072,131072
289.05,-6.17764e-08,0,131072,131072
289.101,-6.01032e-08,0,131072,131072
289.15,-5.74282e-08,0,131072,131072
289.2,-5.39334e-08,0,131072,131072
289.251,-4.98962e-08,0,131072,131072
289.301,-4.5761e-08,0,131072,131072
289.35,-4.16905e-08,0,131072,131072
289.4,-3.77961e-08,0,131072,131072
289.451,-3.40756e-08,0,131072,131072
289.5,-3.06696e-08,0,131072,131072
289.55,-2.75516e-08,0,131072,131072
289.6,-2.47367e-08,0,131072,131072
289.651,-2.21782e-08,0,131072,131072
289.7,-1.9915e-08,0,131072,131072
289.75,-1.7871e-08,0,131072,131072
289.801,-1.59992e-08,0,131072,131072
289.85,-1.43502e-08,0,131072,131072
289.9,-1.28996e-08,0,131072,131072
289.95,-1.1649e-08,0,131072,131072
290.001,-1.05789e-08,0,131072,131072
290.05,-9.7094e-09,0,131072,131072
290.1,-9.00948e-09,0,131072,131072
290.15,-8.46376e-09,0,131072,131072
290.201,-8.05096e-09,0,131072,131072
290.25,-7.76596e-09,0,131072,131072
290.3,-7.58456e-09,0,131072,131072
290.351,-7.48892e-09,0,131072,131072
290.4,-7.4659e-09,0,131072,131072
290.45,-7.50024e-09,0,131072,131072
290.5,-7.58177e-09,0,131072,131072
290.551,-7.70528e-09,0,131072,131072
290.6,-7.86163e-09,0,131072,131072
290.65,-8.04714e-09,0,131072,131072
290.701,-8.25896e-09,0,131072,131072
290.751,-8.48367e-09,0,131072,131072
290.8,-8.71645e-09,0,131072,131072
290.85,-8.95021e-09,0,131072,131072
290.901,-9.18287e-09,0,131072,131072
290.95,-9.40446e-09,0,131072,131072
291,-9.61713e-09,0,131072,131072
291.05,-9.82055e-09,0,131072,131072
291.101,-1.0017e-08,0,131072,131072
291.15,-1.01996e-08,0,131072,131072
291.2,-1.03693e-08,0,131072,131072
291.251,-1.05258e-08,0,131072,131072
291.3,-1.06629e-08,0,131072,131072
291.35,-1.07815e-08,0,131072,131072
291.4,-1.08813e-08,0,131072,131072
291.451,-1.09635e-08,0,131072,131072
291.5,-1.10266e-08,0,131072,131072
291.55,-1.10737e-08,0,131072,131072
291.601,-1.11076e-08,0,131072,131072
291.651,-1.11299e-08,0,131072,131072
291.7,-1.11434e-08,0,131072,131072
291.75,-1.11495e-08,0,131072,131072
291.801,-1.11487e-08,0,131072,131072
291.85,-1.11415e-08,0,131072,131072
291.9,-1.11286e-08,0,131072,131072
291.95,-1.11115e-08,0,131072,131072
292.001,-1.10917e-08,0,131072,131072
292.05,-1.10717e-08,0,131072,131072
292.1,-1.10527e-08,0,131072,131072
292.151,-1.10354e-08,0,131072,131072
292.2,-1.10204e-08,0,131072,131072
292.25,-1.10075e-08,0,131072,131072
292.3,-1.0997e-08,0,131072,131072
292.351,-1.09894e-08,0,131072,131072
292.4,-1.09858e-08,0,131072,131072
292.45,-1.09871e-08,0,131072,131072
292.5,-1.0994e-08,0,131072,131072
292.551,-1.1007e-08,0,131072,131072
292.6,-1.10257e-08,0,131072,131072
292.65,-1.10501e-08,0,131072,131072
292.701,-1.10808e-08,0,131072,131072
292.75,-1.11168e-08,0,131072,131072
292.8,-1.1159e-08,0,131072,131072
292.85,-1.12076e-08,0,131072,131072
292.901,-1.12635e-08,0,131072,131072
292.95,-1.13253e-08,0,131072,131072
293,-1.13936e-08,0,131072,131072
293.051,-1.14694e-08,0,131072,131072
293.101,-1.155e-08,0,131072,131072
293.15,-1.16365e-08,0,131072,131072
293.2,-1.17286e-08,0,131072,131072
293.251,-1.1828e-08,0,131072,131072
293.3,-1.19324e-08,0,131072,131072
293.35,-1.20437e-08,0,131072,131072
293.4,-1.21631e-08,0,131072,131072
293.451,-1.22935e-08,0,131072,131072
293.5,-1.24328e-08,0,131072,131072
293.55,-1.25843e-08,0,131072,131072
293.601,-1.27526e-08,0,131072,131072
293.65,-1.29349e-08,0,131072,131072
293.7,-1.31355e-08,0,131072,131072
293.75,-1.33565e-08,0,131072,131072
293.801,-1.36031e-08,0,131072,131072
293.85,-1.38696e-08,0,131072,131072
293.9,-1.41602e-08,0,131072,131072
293.951,-1.44801e-08,0,131072,131072
294.001,-1.48199e-08,0,131072,131072
294.05,-1.51836e-08,0,131072,131072
294.1,-1.55698e-08,0,131072,131072
294.151,-1.59824e-08,0,131072,131072
294.2,-1.64061e-08,0,131072,131072
294.25,-1.68429e-08,0,131072,131072
294.3,-1.7288e-08,0,131072,131072
294.351,-1.77433e-08,0,131072,131072
294.4,-1.8191e-08,0,131072,131072
294.45,-1.86332e-08,0,131072,131072
294.501,-1.90728e-08,0,131072,131072
294.55,-1.94937e-08,0,131072,131072
294.6,-1.98997e-08,0,131072,131072
294.65,-2.02881e-08,0,131072,131072
294.701,-2.06616e-08,0,131072,131072
294.75,-2.10068e-08,0,131072,131072
294.8,-2.13264e-08,0,131072,131072
294.85,-2.16176e-08,0,131072,131072
294.901,-2.18815e-08,0,131072,131072
294.95,-2.21084e-08,0,131072,131072
295,-2.23009e-08,0,131072,131072
295.051,-2.24606e-08,0,131072,131072
295.1,-2.25833e-08,0,131072,131072
295.15,-2.26727e-08,0,131072,131072
295.2,-2.27307e-08,0,131072,131072
295.251,-2.27596e-08,0,131072,131072
295.3,-2.27613e-08,0,131072,131072
295.35,-2.27386e-08,0,131072,131072
295.401,-2.26932e-08,0,131072,131072
295.451,-2.26288e-08,0,131072,131072
295.5,-2.25471e-08,0,131072,131072
295.55,-2.24504e-08,0,131072,131072
295.601,-2.23394e-08,0,131072,131072
295.65,-2.22194e-08,0,131072,131072
295.7,-2.20911e-08,0,131072,131072
295.75,-2.19564e-08,0,131072,131072
295.801,-2.18148e-08,0,131072,131072
295.85,-2.16717e-08,0,131072,131072
295.9,-2.15261e-08,0,131072,131072
295.951,-2.1377e-08,0,131072,131072
296,-2.12297e-08,0,131072,131072
296.05,-2.1083e-08,0,131072,131072
296.1,-2.09379e-08,0,131072,131072
296.151,-2.07932e-08,0,131072,131072
296.2,-2.06534e-08,0,131072,131072
296.25,-2.0517e-08,0,131072,131072
296.301,-2.03822e-08,0,131072,131072
296.351,-2.02532e-08,0,131072,131072
296.4,-2.01282e-08,0,131072,131072
296.45,-2.00077e-08,0,131072,131072
296.501,-1.98903e-08,0,131072,131072
296.55,-1.97797e-08,0,131072,131072
296.6,-1.96744e-08,0,131072,131072
296.65,-1.95744e-08,0,131072,131072
296.701,-1.94782e-08,0,131072,131072
296.75,-1.93884e-08,0,131072,131072
296.8,-1.93032e-08,0,131072,131072
296.851,-1.92212e-08,0,131072,131072
296.9,-1.91443e-08,0,131072,131072
296.95,-1.90709e-08,0,131072,131072
297,-1.90007e-08,0,131072,131072
297.051,-1.89323e-08,0,131072,131072
297.1,-1.88673e-08,0,131072,131072
297.15,-1.88045e-08,0,131072,131072
297.2,-1.87433e-08,0,131072,131072
297.251,-1.86828e-08,0,131072,131072
297.3,-1.86243e-08,0,131072,131072
297.35,-1.85666e-08,0,131072,131072
297.401,-1.85087e-08,0,131072,131072
297.45,-1.84521e-08,0,131072,131072
297.5,-1.83956e-08,0,131072,131072
297.55,-1.8339e-08,0,131072,131072
297.601,-1.82814e-08,0,131072,131072
297.65,-1.82242e-08,0,131072,131072
297.7,-1.81665e-08,0,131072,131072
297.751,-1.81072e-08,0,131072,131072
297.801,-1.80481e-08,0,131072,131072
297.85,-1.79881e-08,0,131072,131072
297.9,-1.79271e-08,0,131072,131072
297.951,-1.78642e-08,0,131072,131072
298,-1.7801e-08,0,131072,131072
298.05,-1.77366e-08,0,131072,131072
298.1,-1.76709e-08,0,131072,131072
298.151,-1.76029e-08,0,131072,131072
298.2,-1.75343e-08,0,131072,131072
298.25,-1.7464e-08,0,131072,131072
298.301,-1.73908e-08,0,131072,131072
298.35,-1.73167e-08,0,131072,131072
298.4,-1.72404e-08,0,131072,131072
298.45,-1.71617e-08,0,131072,131072
298.501,-1.70791e-08,0,131072,131072
298.55,-1.69947e-08,0,131072,131072
298.6,-1.69071e-08,0,131072,131072
298.651,-1.68147e-08,0,131072,131072
298.701,-1.67198e-08,0,131072,131072
298.75,-1.6621e-08,0,131072,131072
298.8,-1.65179e-08,0,131072,131072
298.851,-1.64088e-08,0,131072,131072
298.9,-1.62966e-08,0,131072,131072
298.95,-1.61796e-08,0,131072,131072
299,-1.60578e-08,0,131072,131072
299.051,-1.59291e-08,0,131072,131072
299.1,-1.57972e-08,0,131072,131072
299.15,-1.56604e-08,0,131072,131072
299.201,-1.55165e-08,0,131072,131072
299.25,-1.53696e-08,0,131072,131072
299.3,-1.52178e-08,0,131072,131072
299.35,-1.5061e-08,0,131072,131072
299.401,-1.48965e-08,0,131072,131072
299.45,-1.4729e-08,0,131072,131072
299.5,-1.45559e-08,0,131072,131072
299.551,-1.43742e-08,0,131072,131072
299.601,-1.41892e-08,0,131072,131072
299.65,-1.39982e-08,0,131072,131072
299.7,-1.38013e-08,0,131072,131072
299.751,-1.35959e-08,0,131072,131072
299.8,-1.3388e-08,0,131072,131072
299.85,-1.31747e-08,0,131072,131072
299.9,-1.29559e-08,0,131072,131072
299.951,-1.27277e-08,0,131072,131072
300,-1.24959e-08,0,131072,131072
300.05,-1.22561e-08,0,131072,131072
300.101,-1.2003e-08,0,131072,131072
300.15,-1.17423e-08,0,131072,131072
300.2,-1.14684e-08,0,131072,131072
300.25,-1.1179e-08,0,131072,131072
300.301,-1.08671e-08,0,131072,131072
300.35,-1.0539e-08,0,131072,131072
300.4,-1.01882e-08,0,131072,131072
300.45,-9.81243e-09,0,131072,131072
300.501,-9.40395e-09,0,131072,131072
300.55,-8.97332e-09,0,131072,131072
300.6,-8.51411e-09,0,131072,131072
300.651,-8.01879e-09,0,131072,131072
300.7,-7.5023e-09,0,131072,131072
300.75,-6.95908e-09,0,131072,131072
300.8,-6.39149e-09,0,131072,131072
300.851,-5.79414e-09,0,131072,131072
300.9,-5.18871e-09,0,131072,131072
300.95,-4.57168e-09,0,131072,131072
301.001,-3.93927e-09,0,131072,131072
301.051,-3.31526e-09,0,131072,131072
301.1,-2.69559e-09,0,131072,131072
301.15,-2.08489e-09,0,131072,131072
301.201,-1.47853e-09,0,131072,131072
301.25,-8.97754e-10,0,131072,131072
301.3,-3.36986e-10,0,131072,131072
301.35,2.00567e-10,0,131072,131072
301.401,7.18998e-10,0,131072,131072
301.45,1.19999e-09,0,131072,131072
301.5,1.64806e-09,0,131072,131072
301.551,2.06602e-09,0,131072,131072
301.6,2.43922e-09,0,131072,131072
301.65,2.77219e-09,0,131072,131072
301.7,3.06402e-09,0,131072,131072
301.751,3.31812e-09,0,131072,131072
301.8,3.52812e-09,0,131072,131072
301.85,3.69975e-09,0,131072,131072
301.901,3.83707e-09,0,131072,131072
301.951,3.9388e-09,0,131072,131072
302,4.01001e-09,0,131072,131072
302.05,4.05352e-09,0,131072,131072
302.101,4.07222e-09,0,131072,131072
302.15,4.06836e-09,0,131072,131072
302.2,4.04511e-09,0,131072,131072
302.25,4.00519e-09,0,131072,131072
302.301,3.95041e-09,0,131072,131072
302.35,3.88492e-09,0,131072,131072
302.4,3.81032e-09,0,131072,131072
302.451,3.72742e-09,0,131072,131072
302.5,3.6404e-09,0,131072,131072
302.55,3.54968e-09,0,131072,131072
302.6,3.45667e-09,0,131072,131072
302.651,3.3613e-09,0,131072,131072
302.7,3.26748e-09,0,131072,131072
302.75,3.17479e-09,0,131072,131072
302.8,3.08396e-09,0,131072,131072
302.851,2.99426e-09,0,131072,131072
302.9,2.90878e-09,0,131072,131072
302.95,2.82671e-09,0,131072,131072
303.001,2.74755e-09,0,131072,131072
303.05,2.67432e-09,0,131072,131072
303.1,2.60659e-09,0,131072,131072
303.15,2.54502e-09,0,131072,131072
303.201,2.48934e-09,0,131072,131072
303.25,2.44142e-09,0,131072,131072
303.3,2.40049e-09,0,131072,131072
303.351,2.36602e-09,0,131072,131072
303.401,2.33882e-09,0,131072,131072
303.45,2.31798e-09,0,131072,131072
303.5,2.30299e-09,0,131072,131072
303.551,2.29301e-09,0,131072,131072
303.6,2.28746e-09,0,131072,131072
303.65,2.28522e-09,0,131072,131072
303.7,2.2854e-09,0,131072,131072
303.751,2.28727e-09,0,131072,131072
303.8,2.29014e-09,0,131072,131072
303.85,2.29344e-09,0,131072,131072
303.901,2.29657e-09,0,131072,131072
303.95,2.2987e-09,0,131072,131072
304,2.29913e-09,0,131072,131072
304.05,2.29728e-09,0,131072,131072
304.101,2.29278e-09,0,131072,131072
304.15,2.28598e-09,0,131072,131072
304.2,2.27745e-09,0,131072,131072
304.251,2.26796e-09,0,131072,131072
304.301,2.25871e-09,0,131072,131072
304.35,2.25028e-09,0,131072,131072
304.4,2.24299e-09,0,131072,131072
304.451,2.23669e-09,0,131072,131072
304.5,2.23113e-09,0,131072,131072
304.55,2.22568e-09,0,131072,131072
304.6,2.21982e-09,0,131072,131072
304.651,2.21318e-09,0,131072,131072
304.7,2.20596e-09,0,131072,131072
304.75,2.19845e-09,0,131072,131072
304.801,2.19119e-09,0,131072,131072
304.85,2.18516e-09,0,131072,131072
304.9,2.18095e-09,0,131072,131072
304.95,2.17907e-09,0,131072,131072
