250,0,0,8192,8192
250.003,0,0,8192,8192
250.053,0,0,8192,8192
250.103,0,0,8192,8192
250.152,0,0,8192,8192
250.202,0,0,8192,8192
250.252,0,0,8192,8192
250.302,0,0,8192,8192
250.352,0,0,8192,8192
250.401,0,0,8192,8192
250.451,0,0,8192,8192
250.501,0,0,8192,8192
250.551,0,0,8192,8192
250.6,0,0,8192,8192
250.65,0,0,8192,8192
250.7,0,0,8192,8192
250.753,0,0,8192,8192
250.803,0,0,8192,8192
250.852,0,0,8192,8192
250.902,0,0,8192,8192
250.952,0,0,8192,8192
251.002,0,0,8192,8192
251.052,0,0,8192,8192
251.101,0,0,8192,8192
251.151,0,0,8192,8192
251.201,0,0,8192,8192
251.251,0,0,8192,8192
251.301,0,0,8192,8192
251.35,0,0,8192,8192
251.4,0,0,8192,8192
251.453,0,0,8192,8192
251.503,0,0,8192,8192
251.553,0,0,8192,8192
251.602,0,0,8192,8192
251.652,0,0,8192,8192
251.702,0,0,8192,8192
251.752,0,0,8192,8192
251.801,0,0,8192,8192
251.851,0,0,8192,8192
251.901,0,0,8192,8192
251.951,0,0,8192,8192
252.001,0,0,8192,8192
252.05,0,0,8192,8192
252.1,0,0,8192,8192
252.15,0,0,8192,8192
252.203,0,0,8192,8192
252.253,0,0,8192,8192
252.302,0,0,8192,8192
252.352,0,0,8192,8192
252.402,0,0,8192,8192
252.452,0,0,8192,8192
252.502,0,0,8192,8192
252.551,0,0,8192,8192
252.601,0,0,8192,8192
252.651,0,0,8192,8192
252.701,0,0,8192,8192
252.751,0,0,8192,8192
252.8,0,0,8192,8192
252.85,0,0,8192,8192
252.903,0,0,8192,8192
252.953,0,0,8192,8192
253.002,0,0,8192,8192
253.052,0,0,8192,8192
253.102,0,0,8192,8192
253.152,0,0,8192,8192
253.202,0,0,8192,8192
253.251,0,0,8192,8192
253.301,0,0,8192,8192
253.351,0,0,8192,8192
253.401,0,0,8192,8192
253.451,0,0,8192,8192
253.5,0,0,8192,8192
253.55,0,0,8192,8192
253.6,0,0,8192,8192
253.653,0,0,8192,8192
253.703,0,0,8192,8192
253.752,0,0,8192,8192
253.802,0,0,8192,8192
253.852,0,0,8192,8192
253.902,0,0,8192,8192
253.952,0,0,8192,8192
254.001,0,0,8192,8192
254.051,0,0,8192,8192
254.101,0,0,8192,8192
254.151,0,0,8192,8192
254.201,0,0,8192,8192
254.25,0,0,8192,8192
254.3,0,0,8192,8192
254.353,0,0,8192,8192
254.403,0,0,8192,8192
254.452,0,0,8192,8192
254.502,0,0,8192,8192
254.552,0,0,8192,8192
254.602,0,0,8192,8192
254.652,0,0,8192,8192
254.701,0,0,8192,8192
254.751,0,0,8192,8192
254.801,0,0,8192,8192
254.851,0,0,8192,8192
254.901,0,0,8192,8192
254.95,0,0,8192,8192
255,0,0,8192,8192
255.05,0,0,8192,8192
255.103,0,0,8192,8192
255.153,0,0,8192,8192
255.202,0,0,8192,8192
255.252,0,0,8192,8192
255.302,2.77556e-17,0,8192,8192
255.352,2.77556e-17,0,8192,8192
255.402,5.55112e-17,0,8192,8192
255.451,2.77556e-17,0,8192,8192
255.501,2.77556e-17,0,8192,8192
255.551,2.77556e-17,0,8192,8192
255.601,2.77556e-17,0,8192,8192
255.651,2.77556e-17,0,8192,8192
255.7,2.77556e-17,0,8192,8192
255.75,2.77556e-17,0,8192,8192
255.803,2.77556e-17,0,8192,8192
255.853,2.77556e-17,0,8192,8192
255.902,2.77556e-17,0,8192,8192
255.952,2.77556e-17,0,8192,8192
256.002,5.55112e-17,0,8192,8192
256.052,5.55112e-17,0,8192,8192
256.102,5.55112e-17,0,8192,8192
256.151,5.55112e-17,0,8192,8192
256.201,2.77556e-17,0,8192,8192
256.251,2.77556e-17,0,8192,8192
256.301,2.77556e-17,0,8192,8192
256.351,2.77556e-17,0,8192,8192
256.4,2.77556e-17,0,8192,8192
256.45,2.77556e-17,0,8192,8192
256.5,0,0,8192,8192
256.553,0,0,8192,8192
256.603,0,0,8192,8192
256.652,0,0,8192,8192
256.702,0,0,8192,8192
256.752,0,0,8192,8192
256.802,0,0,8192,8192
256.852,0,0,8192,8192
256.901,0,0,8192,8192
256.951,0,0,8192,8192
257.001,0,0,8192,8192
257.051,0,0,8192,8192
257.101,0,0,8192,8192
257.15,0,0,8192,8192
257.2,0,0,8192,8192
257.253,0,0,8192,8192
257.303,2.77556e-17,0,8192,8192
257.352,2.77556e-17,0,8192,8192
257.402,5.55112e-17,0,8192,8192
257.452,5.55112e-17,0,8192,8192
257.502,5.55112e-17,0,8192,8192
257.552,5.55112e-17,0,8192,8192
257.601,5.55112e-17,0,8192,8192
257.651,5.55112e-17,0,8192,8192
257.701,5.55112e-17,0,8192,8192
257.751,5.55112e-17,0,8192,8192
257.801,5.55112e-17,0,8192,8192
257.85,5.55112e-17,0,8192,8192
257.9,5.55112e-17,0,8192,8192
257.95,5.55112e-17,0,8192,8192
258.003,5.55112e-17,0,8192,8192
258.053,5.55112e-17,0,8192,8192
258.102,5.55112e-17,0,8192,8192
258.152,5.55112e-17,0,8192,8192
258.202,5.55112e-17,0,8192,8192
258.252,5.55112e-17,0,8192,8192
258.302,5.55112e-17,0,8192,8192
258.351,5.55112e-17,0,8192,8192
258.401,5.55112e-17,0,8192,8192
258.451,5.55112e-17,0,8192,8192
258.501,5.55112e-17,0,8192,8192
258.551,5.55112e-17,0,8192,8192
258.6,5.55112e-17,0,8192,8192
258.65,2.77556e-17,0,8192,8192
258.703,0,0,8192,8192
258.753,0,0,8192,8192
258.802,0,0,8192,8192
258.852,2.77556e-17,0,8192,8192
258.902,2.77556e-17,0,8192,8192
258.952,5.55112e-17,0,8192,8192
259.002,5.55112e-17,0,8192,8192
259.051,2.77556e-17,0,8192,8192
259.101,2.77556e-17,0,8192,8192
259.151,2.77556e-17,0,8192,8192
259.201,2.77556e-17,0,8192,8192
259.251,2.77556e-17,0,8192,8192
259.3,2.77556e-17,0,8192,8192
259.35,2.77556e-17,0,8192,8192
259.403,2.77556e-17,0,8192,8192
259.453,2.77556e-17,0,8192,8192
259.503,2.77556e-17,0,8192,8192
259.552,2.77556e-17,0,8192,8192
259.602,2.77556e-17,0,8192,8192
259.652,2.77556e-17,0,8192,8192
259.702,2.77556e-17,0,8192,8192
259.751,2.77556e-17,0,8192,8192
259.801,2.77556e-17,0,8192,8192
259.851,2.77556e-17,0,8192,8192
259.901,0,0,8192,8192
259.951,-2.77556e-17,0,8192,8192
260,-2.77556e-17,0,8192,8192
260.05,-2.77556e-17,0,8192,8192
260.1,-2.77556e-17,0,8192,8192
260.153,-2.77556e-17,0,8192,8192
260.203,-2.77556e-17,0,8192,8192
260.252,-2.77556e-17,0,8192,8192
260.302,-2.77556e-17,0,8192,8192
260.352,-2.77556e-17,0,8192,8192
260.402,-2.77556e-17,0,8192,8192
260.452,-2.77556e-17,0,8192,8192
260.501,-2.77556e-17,0,8192,8192
260.551,-2.77556e-17,0,8192,8192
260.601,-2.77556e-17,0,8192,8192
260.651,-2.77556e-17,0,8192,8192
260.701,-2.77556e-17,0,8192,8192
260.75,-2.77556e-17,0,8192,8192
260.8,-2.77556e-17,0,8192,8192
260.853,-2.77556e-17,0,8192,8192
260.903,-2.77556e-17,0,8192,8192
260.952,-2.77556e-17,0,8192,8192
261.002,-8.32667e-17,0,8192,8192
261.052,-8.32667e-17,0,8192,8192
261.102,-8.32667e-17,0,8192,8192
261.152,-5.55112e-17,0,8192,8192
261.201,-2.77556e-17,0,8192,8192
261.251,-2.77556e-17,0,8192,8192
261.301,-2.77556e-17,0,8192,8192
261.351,-2.77556e-17,0,8192,8192
261.401,-2.77556e-17,0,8192,8192
261.45,-2.77556e-17,0,8192,8192
261.5,-2.77556e-17,0,8192,8192
261.55,-2.77556e-17,0,8192,8192
261.603,-2.77556e-17,0,8192,8192
261.653,0,0,8192,8192
261.702,-2.77556e-17,0,8192,8192
261.752,-2.77556e-17,0,8192,8192
261.802,-2.77556e-17,0,8192,8192
261.852,-2.77556e-17,0,8192,8192
261.902,-2.77556e-17,0,8192,8192
261.951,-2.77556e-17,0,8192,8192
262.001,-2.77556e-17,0,8192,8192
262.051,-2.77556e-17,0,8192,8192
262.101,-2.77556e-17,0,8192,8192
262.151,-2.77556e-17,0,8192,8192
262.2,-2.77556e-17,0,8192,8192
262.25,-2.77556e-17,0,8192,8192
262.303,-2.77556e-17,0,8192,8192
262.353,-2.77556e-17,0,8192,8192
262.402,-2.77556e-17,0,8192,8192
262.452,-2.77556e-17,0,8192,8192
262.502,-2.77556e-17,0,8192,8192
262.552,-2.77556e-17,0,8192,8192
262.602,-2.77556e-17,0,8192,8192
262.651,-2.77556e-17,0,8192,8192
262.701,-2.77556e-17,0,8192,8192
262.751,0,0,8192,8192
262.801,0,0,8192,8192
262.851,0,0,8192,8192
262.9,0,0,8192,8192
262.95,-2.77556e-17,0,8192,8192
263,-2.77556e-17,0,8192,8192
263.053,0,0,8192,8192
263.103,0,0,8192,8192
263.152,0,0,8192,8192
263.202,0,0,8192,8192
263.252,0,0,8192,8192
263.302,2.77556e-17,0,8192,8192
263.352,0,0,8192,8192
263.401,0,0,8192,8192
263.451,0,0,8192,8192
263.501,2.77556e-17,0,8192,8192
263.551,5.55112e-17,0,8192,8192
263.601,5.55112e-17,0,8192,8192
263.65,0,0,8192,8192
263.7,0,0,8192,8192
263.753,0,0,8192,8192
263.803,0,0,8192,8192
263.852,0,0,8192,8192
263.902,0,0,8192,8192
263.952,0,0,8192,8192
264.002,0,0,8192,8192
264.052,0,0,8192,8192
264.101,0,0,8192,8192
264.151,0,0,8192,8192
264.201,0,0,8192,8192
264.251,0,0,8192,8192
264.301,2.77556e-17,0,8192,8192
264.35,2.77556e-17,0,8192,8192
264.4,2.77556e-17,0,8192,8192
264.45,2.77556e-17,0,8192,8192
264.503,2.77556e-17,0,8192,8192
264.553,2.77556e-17,0,8192,8192
264.602,2.77556e-17,0,8192,8192
264.652,2.77556e-17,0,8192,8192
264.702,2.77556e-17,0,8192,8192
264.752,2.77556e-17,0,8192,8192
264.802,2.77556e-17,0,8192,8192
264.851,2.77556e-17,0,8192,8192
264.901,2.77556e-17,0,8192,8192
264.951,2.77556e-17,0,8192,8192
265.001,2.77556e-17,0,8192,8192
265.051,2.77556e-17,0,8192,8192
265.1,2.77556e-17,0,8192,8192
265.15,2.77556e-17,0,8192,8192
265.203,2.77556e-17,0,8192,8192
265.253,2.77556e-17,0,8192,8192
265.302,2.77556e-17,0,8192,8192
265.352,2.77556e-17,0,8192,8192
265.402,2.77556e-17,0,8192,8192
265.452,2.77556e-17,0,8192,8192
265.502,2.77556e-17,0,8192,8192
265.551,2.77556e-17,0,8192,8192
265.601,2.77556e-17,0,8192,8192
265.651,2.77556e-17,0,8192,8192
265.701,5.55112e-17,0,8192,8192
265.751,5.55112e-17,0,8192,8192
265.8,2.77556e-17,0,8192,8192
265.85,2.77556e-17,0,8192,8192
265.9,2.77556e-17,0,8192,8192
265.953,2.77556e-17,0,8192,8192
266.003,2.77556e-17,0,8192,8192
266.052,2.77556e-17,0,8192,8192
266.102,2.77556e-17,0,8192,8192
266.152,2.77556e-17,0,8192,8192
266.202,2.77556e-17,0,8192,8192
266.252,2.77556e-17,0,8192,8192
266.301,2.77556e-17,0,8192,8192
266.351,2.77556e-17,0,8192,8192
266.401,2.77556e-17,0,8192,8192
266.451,2.77556e-17,0,8192,8192
266.501,2.77556e-17,0,8192,8192
266.55,2.77556e-17,0,8192,8192
266.6,2.77556e-17,0,8192,8192
266.653,2.77556e-17,0,8192,8192
266.703,2.77556e-17,0,8192,8192
266.752,2.77556e-17,0,8192,8192
266.802,2.77556e-17,0,8192,8192
266.852,2.77556e-17,0,8192,8192
266.902,2.77556e-17,0,8192,8192
266.952,-2.77556e-17,0,8192,8192
267.001,-2.77556e-17,0,8192,8192
267.051,-2.77556e-17,0,8192,8192
267.101,-2.77556e-17,0,8192,8192
267.151,0,0,8192,8192
267.201,0,0,8192,8192
267.25,-2.77556e-17,0,8192,8192
267.3,0,0,8192,8192
267.353,-2.77556e-17,0,8192,8192
267.403,-2.77556e-17,0,8192,8192
267.453,-2.77556e-17,0,8192,8192
267.502,-2.77556e-17,0,8192,8192
267.552,-2.77556e-17,0,8192,8192
267.602,-2.77556e-17,0,8192,8192
267.652,-2.77556e-17,0,8192,8192
267.702,-2.77556e-17,0,8192,8192
267.751,0,0,8192,8192
267.801,0,0,8192,8192
267.851,0,0,8192,8192
267.901,0,0,8192,8192
267.95,0,0,8192,8192
268,0,0,8192,8192
268.05,0,0,8192,8192
268.1,0,0,8192,8192
268.15,0,0,8192,8192
268.203,0,0,8192,8192
268.253,0,0,8192,8192
268.302,0,0,8192,8192
268.352,0,0,8192,8192
268.402,0,0,8192,8192
268.452,0,0,8192,8192
268.502,0,0,8192,8192
268.551,0,0,8192,8192
268.601,0,0,8192,8192
268.651,0,0,8192,8192
268.701,0,0,8192,8192
268.751,0,0,8192,8192
268.8,0,0,8192,8192
268.85,0,0,8192,8192
268.903,0,0,8192,8192
268.953,0,0,8192,8192
269.002,0,0,8192,8192
269.052,0,0,8192,8192
269.102,0,0,8192,8192
269.152,0,0,8192,8192
269.202,0,0,8192,8192
269.251,0,0,8192,8192
269.301,0,0,8192,8192
269.351,0,0,8192,8192
269.401,0,0,8192,8192
269.451,0,0,8192,8192
269.5,0,0,8192,8192
269.55,0,0,8192,8192
269.6,0,0,8192,8192
269.653,0,0,8192,8192
269.703,0,0,8192,8192
269.752,0,0,8192,8192
269.802,0,0,8192,8192
269.852,0,0,8192,8192
269.9,0,0,8260,8260
269.951,0,0,8356,8356
270.001,0,0,8476,8476
270.051,0,0,8572,8572
270.101,0,0,8676,8676
270.15,0,0,8760,8760
270.2,0,0,8768,8768
270.25,0,0,8744,8744
270.301,0,0,8804,8804
270.351,0,0,8892,8892
270.4,0,0,9100,9100
270.451,0,0,9332,9332
270.5,0,0,9556,9556
270.551,0,0,9836,9836
270.6,0,0,10260,10260
270.65,0,0,10892,10892
270.7,0,0,11516,11516
270.751,0,0,12324,12324
270.8,0,0,13204,13204
270.85,0,0,14084,14084
270.901,0,0,14868,14868
270.95,0,0,15756,15756
271,0,0,16660,16660
271.05,0,0,17500,17500
271.101,0,0,18404,18404
271.15,0,0,19292,19292
271.2,0,0,20148,20148
271.251,0,0,20972,20972
271.301,0,0,21812,21812
271.35,0,0,22644,22644
271.4,0,0,23484,23484
271.451,0,0,24060,24060
271.5,0,0,24276,24276
271.55,0,0,24264,24264
271.6,0,0,24248,24248
271.651,0,0,24308,24308
271.7,0,0,24444,24444
271.75,0,0,24636,24636
271.801,0,0,25164,25164
271.85,0,0,25772,25772
271.9,0,0,26436,26436
271.95,0,0,27340,27340
272.001,0,0,28100,28100
272.05,0,0,28932,28932
272.1,0,0,29676,29676
272.151,0,0,30428,30428
272.201,0,0,31172,31172
272.25,0,0,32084,32084
272.3,0,0,33020,33020
272.351,0,0,33884,33884
272.4,0,0,34924,34924
272.45,0,0,35708,35708
272.5,0,0,36572,36572
272.551,0,0,37332,37332
272.6,0,0,38132,38132
272.65,0,0,38956,38956
272.701,0,0,39764,39764
272.75,0,0,40540,40540
272.8,0,0,41356,41356
272.85,0,0,42164,42164
272.901,0,0,43028,43028
272.95,0,0,43820,43820
273,0,0,44564,44564
273.051,0,0,45180,45180
273.101,0,0,45604,45604
273.15,0,0,45852,45852
273.2,0,0,45828,45828
273.251,0,0,45700,45700
273.3,0,0,45676,45676
273.35,0,0,45732,45732
273.4,-9.99201e-16,0,45796,45796
273.451,-2.72005e-15,0,45844,45844
273.5,-4.57967e-15,0,45992,45992
273.55,-6.43929e-15,0,46096,46096
273.601,-8.21565e-15,0,46032,46032
273.65,-1.00198e-14,0,46064,46064
273.7,-1.26288e-14,0,46080,46080
273.75,-2.7367e-14,0,45648,45648
273.801,-9.54792e-14,0,45536,45536
273.85,-3.35371e-13,0,45368,45368
273.9,-1.0601e-12,0,45176,45176
273.95,-2.95947e-12,0,45088,45088
274.001,-7.39062e-12,0,45028,45028
274.05,-1.61287e-11,0,44920,44920
274.1,-3.12885e-11,0,44816,44816
274.151,-5.44571e-11,0,44800,44800
274.2,-8.37592e-11,0,44864,44864
274.25,-1.14784e-10,0,44840,44840
274.3,-1.39737e-10,0,44848,44848
274.351,-1.50107e-10,0,44872,44872
274.4,-1.39975e-10,0,44912,44912
274.45,-1.10059e-10,0,44880,44880
274.501,-6.64024e-11,0,44752,44752
274.551,-2.05673e-11,0,44576,44576
274.6,1.89297e-11,0,44544,44544
274.65,4.76057e-11,0,44456,44456
274.701,6.63535e-11,0,44240,44240
274.751,7.8311e-11,0,44152,44152
274.801,8.72404e-11,0,43928,43928
274.85,9.44545e-11,0,43832,43832
274.9,9.98955e-11,0,43728,43728
274.95,1.03021e-10,0,43664,43664
275,1.04582e-10,0,43520,43520
275.05,1.06063e-10,0,43336,43336
275.101,1.08591e-10,0,43304,43304
275.15,1.11938e-10,0,43160,43160
275.2,1.14915e-10,0,43040,43040
275.25,1.16397e-10,0,42856,42856
275.3,1.16402e-10,0,42808,42808
275.35,1.16118e-10,0,42632,42632
275.4,1.16828e-10,0,42528,42528
275.45,1.1874e-10,0,42408,42408
275.5,1.20827e-10,0,42272,42272
275.55,1.21824e-10,0,42152,42152
275.6,1.21702e-10,0,41992,41992
275.651,1.22526e-10,0,41912,41912
275.701,1.28835e-10,0,41808,41808
275.751,1.49577e-10,0,41600,41600
275.8,2.02836e-10,0,41616,41616
275.851,3.29965e-10,0,41456,41456
275.9,5.97118e-10,0,41368,41368
275.95,1.11058e-09,0,41200,41200
276.001,2.00202e-09,0,41144,41144
276.05,3.3781e-09,0,41000,41000
276.101,5.38267e-09,0,40952,40952
276.151,7.98695e-09,0,40832,40832
276.201,1.11771e-08,0,40792,40792
276.25,1.47839e-08,0,40568,40568
276.3,2.06042e-08,0,40560,40560
276.35,2.60586e-08,0,40376,40376
276.4,3.07066e-08,0,40320,40320
276.45,3.52477e-08,0,40248,40248
276.501,4.02765e-08,0,40160,40160
276.55,4.62263e-08,0,40048,40048
276.6,5.35208e-08,0,39992,39992
276.65,6.41717e-08,0,39968,39968
276.7,7.7376e-08,0,39800,39800
276.751,9.22037e-08,0,39824,39824
276.8,1.07867e-07,0,39640,39640
276.85,1.23968e-07,0,39624,39624
276.9,1.47532e-07,0,39560,39560
276.951,1.92584e-07,0,39376,39376
277,2.37722e-07,0,39272,39272
277.051,2.88209e-07,0,39304,39304
277.101,3.41485e-07,0,39312,39312
277.15,3.95452e-07,0,39128,39128
277.2,4.51486e-07,0,39144,39144
277.251,5.09942e-07,0,38976,38976
277.301,5.71289e-07,0,38984,38984
277.351,6.36202e-07,0,38840,38840
277.401,7.01705e-07,0,38816,38816
277.45,7.62227e-07,0,38784,38784
277.5,8.14943e-07,0,38696,38696
277.551,8.57953e-07,0,38608,38608
277.601,8.8884e-07,0,38568,38568
277.65,9.08803e-07,0,38512,38512
277.701,9.19915e-07,0,38336,38336
277.75,9.21837e-07,0,38352,38352
277.8,9.21299e-07,0,38336,38336
277.851,9.19539e-07,0,38288,38288
277.901,9.16575e-07,0,38168,38168
277.95,9.09002e-07,0,38120,38120
278,8.95754e-07,0,38152,38152
278.05,8.80736e-07,0,37944,37944
278.1,8.64378e-07,0,37976,37976
278.151,8.14076e-07,0,37896,37896
278.2,7.65656e-07,0,37744,37744
278.25,7.11782e-07,0,37768,37768
278.301,6.54326e-07,0,37672,37672
278.35,5.97239e-07,0,37504,37504
278.4,5.419e-07,0,37448,37448
278.451,4.88878e-07,0,37484,37484
278.5,4.40768e-07,0,37340,37340
278.55,3.96573e-07,0,37156,37156
278.6,3.55834e-07,0,37044,37044
278.65,3.17849e-07,0,36956,36956
278.7,2.81954e-07,0,36948,36948
278.75,2.47716e-07,0,37324,37324
278.801,2.1524e-07,0,37308,37308
278.851,1.85533e-07,0,37100,37100
278.9,1.60716e-07,0,36868,36868
278.951,1.41004e-07,0,36708,36708
279,1.2649e-07,0,36460,36460
279.051,1.14049e-07,0,36180,36180
279.101,1.01455e-07,0,35668,35668
279.15,8.75206e-08,0,35348,35348
279.2,7.33592e-08,0,35220,35220
279.25,6.07651e-08,0,34748,34748
279.3,5.07486e-08,0,34268,34268
279.35,4.29915e-08,0,33828,33828
279.4,4.04318e-08,0,33548,33548
279.45,3.72711e-08,0,33268,33268
279.501,3.33431e-08,0,32748,32748
279.55,2.89816e-08,0,31828,31828
279.601,2.44853e-08,0,31316,31316
279.65,2.06423e-08,0,30820,30820
279.701,1.78632e-08,0,30108,30108
279.751,1.66382e-08,0,29292,29292
279.801,1.68436e-08,0,28652,28652
279.85,1.79996e-08,0,28188,28188
279.9,1.96682e-08,0,27300,27300
279.951,2.17101e-08,0,25964,25964
280.001,2.40831e-08,0,24556,24556
280.05,2.6704e-08,0,23420,23420
280.101,2.96514e-08,0,21524,21524
280.151,3.27242e-08,0,18852,18852
280.201,3.60167e-08,0,15484,15484
280.251,3.95335e-08,0,15676,15676
280.301,4.32288e-08,0,18228,18228
280.351,4.704e-08,0,19364,19364
280.4,5.09954e-08,0,20716,20716
280.451,5.51716e-08,0,21140,21140
280.501,5.93843e-08,0,22612,22612
280.55,6.36967e-08,0,23508,23508
280.601,6.80069e-08,0,24172,24172
280.65,7.23058e-08,0,24732,24732
280.7,7.79618e-08,0,25244,25244
280.751,8.341e-08,0,25708,25708
280.8,8.90204e-08,0,26180,26180
280.85,9.49698e-08,0,26580,26580
280.901,1.0114e-07,0,26988,26988
280.951,1.07585e-07,0,27204,27204
281.001,1.14325e-07,0,27388,27388
281.051,1.21391e-07,0,27988,27988
281.101,1.28816e-07,0,28284,28284
281.151,1.36541e-07,0,28772,28772
281.2,1.44471e-07,0,29084,29084
281.25,1.52647e-07,0,29484,29484
281.301,1.61161e-07,0,30004,30004
281.35,1.70537e-07,0,30660,30660
281.401,1.81879e-07,0,31340,31340
281.45,1.94265e-07,0,31972,31972
281.5,2.08735e-07,0,32636,32636
281.551,2.2452e-07,0,33276,33276
281.601,2.40763e-07,0,33964,33964
281.651,2.68674e-07,0,34588,34588
281.701,3.03191e-07,0,35156,35156
281.751,3.49307e-07,0,35348,35348
281.801,3.9574e-07,0,35480,35480
281.85,4.43261e-07,0,35688,35688
281.9,4.92591e-07,0,34952,34952
281.951,5.44081e-07,0,34920,34920
282,5.96001e-07,0,35256,35256
282.051,6.50924e-07,0,35680,35680
282.1,7.05153e-07,0,35900,35900
282.15,7.58938e-07,0,36436,36436
282.201,8.08884e-07,0,36900,36900
282.251,8.50856e-07,0,37244,37244
282.301,8.82149e-07,0,37420,37420
282.35,9.03529e-07,0,37572,37572
282.401,9.13079e-07,0,37684,37684
282.451,9.11868e-07,0,37876,37876
282.501,9.0808e-07,0,37932,37932
282.55,8.98089e-07,0,38028,38028
282.6,8.84838e-07,0,38092,38092
282.651,8.69845e-07,0,38156,38156
282.7,8.54492e-07,0,38268,38268
282.751,8.28199e-07,0,38308,38308
282.801,8.01454e-07,0,38444,38444
282.85,7.67457e-07,0,38548,38548
282.9,7.18862e-07,0,38588,38588
282.95,6.62883e-07,0,38652,38652
283,6.02312e-07,0,38796,38796
283.05,5.39956e-07,0,38892,38892
283.101,4.76678e-07,0,38884,38884
283.151,4.15673e-07,0,38868,38868
283.201,3.58327e-07,0,38964,38964
283.251,3.05296e-07,0,38976,38976
283.3,2.57075e-07,0,39024,39024
283.351,2.12884e-07,0,39080,39080
283.4,1.73549e-07,0,39096,39096
283.45,1.36329e-07,0,39192,39192
283.501,1.00671e-07,0,39256,39256
283.55,6.84932e-08,0,39312,39312
283.601,3.967e-08,0,39384,39384
283.651,1.53942e-08,0,39424,39424
283.701,-4.04264e-09,0,39560,39560
283.75,-1.93052e-08,0,39584,39584
283.8,-3.1698e-08,0,39664,39664
283.85,-4.27562e-08,0,39696,39696
283.9,-5.31472e-08,0,39832,39832
283.95,-6.31594e-08,0,39824,39824
284.001,-7.25115e-08,0,39824,39824
284.05,-8.01951e-08,0,39904,39904
284.1,-8.20881e-08,0,40056,40056
284.15,-8.25368e-08,0,40120,40120
284.2,-8.26173e-08,0,40208,40208
284.251,-8.23535e-08,0,40288,40288
284.3,-8.17832e-08,0,40360,40360
284.35,-8.08891e-08,0,40360,40360
284.4,-7.96461e-08,0,40472,40472
284.451,-7.79869e-08,0,40592,40592
284.5,-7.59344e-08,0,40688,40688
284.551,-7.34314e-08,0,40656,40656
284.601,-7.05607e-08,0,40712,40712
284.651,-6.74045e-08,0,40816,40816
284.7,-6.40499e-08,0,40888,40888
284.751,-6.04561e-08,0,40976,40976
284.801,-5.68642e-08,0,40992,40992
284.851,-5.26633e-08,0,40992,40992
284.901,-4.94225e-08,0,40904,40904
284.95,-4.64727e-08,0,40896,40896
285,-4.37825e-08,0,40848,40848
285.051,-4.14055e-08,0,40856,40856
285.1,-3.9326e-08,0,40816,40816
285.15,-3.74282e-08,0,40840,40840
285.201,-3.59362e-08,0,40944,40944
285.25,-3.46955e-08,0,40976,40976
285.3,-3.35831e-08,0,41136,41136
285.351,-3.2732e-08,0,41072,41072
285.4,-3.2164e-08,0,41168,41168
285.45,-3.17875e-08,0,41288,41288
285.5,-3.15568e-08,0,41456,41456
285.55,-3.14268e-08,0,41520,41520
285.6,-3.13719e-08,0,41632,41632
285.65,-3.13828e-08,0,41768,41768
285.701,-3.14531e-08,0,41824,41824
285.75,-3.15728e-08,0,41912,41912
285.801,-3.17392e-08,0,41984,41984
285.85,-3.19362e-08,0,42152,42152
285.9,-3.21576e-08,0,42192,42192
285.95,-3.24002e-08,0,42352,42352
286,-3.26542e-08,0,42448,42448
286.05,-3.29133e-08,0,42600,42600
286.101,-3.31757e-08,0,42608,42608
286.15,-3.34287e-08,0,42728,42728
286.2,-3.36755e-08,0,42824,42824
286.25,-3.3909e-08,0,42968,42968
286.3,-3.41269e-08,0,42984,42984
286.351,-3.43317e-08,0,43152,43152
286.401,-3.45172e-08,0,43192,43192
286.45,-3.4686e-08,0,43240,43240
286.5,-3.48369e-08,0,43320,43320
286.551,-3.49703e-08,0,43520,43520
286.6,-3.50813e-08,0,43544,43544
286.65,-3.51719e-08,0,43592,43592
286.7,-3.52426e-08,0,43728,43728
286.751,-3.52947e-08,0,43744,43744
286.8,-3.53278e-08,0,43872,43872
286.85,-3.53437e-08,0,43888,43888
286.901,-3.53437e-08,0,43976,43976
286.95,-3.5329e-08,0,44104,44104
287,-3.53011e-08,0,44216,44216
287.05,-3.52616e-08,0,44204,44204
287.101,-3.52113e-08,0,44196,44196
287.15,-3.5153e-08,0,44148,44148
287.2,-3.5088e-08,0,44060,44060
287.251,-3.50169e-08,0,43980,43980
287.301,-3.49436e-08,0,43956,43956
287.35,-3.48687e-08,0,43772,43772
287.4,-3.47937e-08,0,43804,43804
287.451,-3.4719e-08,0,43756,43756
287.5,-3.4648e-08,0,43564,43564
287.55,-3.45808e-08,0,43636,43636
287.6,-3.45182e-08,0,43308,43308
287.651,-3.44601e-08,0,43020,43020
287.7,-3.44086e-08,0,43052,43052
287.75,-3.4363e-08,0,43020,43020
287.801,-3.4323e-08,0,42612,42612
287.85,-3.42897e-08,0,42300,42300
287.9,-3.42626e-08,0,42564,42564
287.95,-3.42417e-08,0,41988,41988
288.001,-3.42272e-08,0,41316,41316
288.05,-3.42197e-08,0,40588,40588
288.1,-3.42193e-08,0,39740,39740
288.151,-3.42262e-08,0,38940,38940
288.201,-3.42403e-08,0,38092,38092
288.25,-3.42617e-08,0,37212,37212
288.3,-3.42902e-08,0,36420,36420
288.351,-3.43262e-08,0,35572,35572
288.4,-3.43687e-08,0,34700,34700
288.45,-3.44181e-08,0,33964,33964
288.5,-3.44742e-08,0,33092,33092
288.551,-3.45382e-08,0,32276,32276
288.6,-3.46084e-08,0,31396,31396
288.65,-3.46859e-08,0,30636,30636
288.701,-3.47726e-08,0,30616,30616
288.75,-3.48666e-08,0,30624,30624
288.8,-3.49702e-08,0,30620,30620
288.85,-3.50846e-08,0,30452,30452
288.901,-3.52132e-08,0,30236,30236
288.95,-3.53542e-08,0,29924,29924
289,-3.55112e-08,0,29700,29700
289.05,-3.56862e-08,0,29364,29364
289.101,-3.5884e-08,0,28540,28540
289.15,-3.61006e-08,0,27700,27700
289.2,-3.63398e-08,0,26828,26828
289.251,-3.66064e-08,0,25956,25956
289.3,-3.6893e-08,0,25084,25084
289.35,-3.72028e-08,0,24276,24276
289.4,-3.75349e-08,0,23412,23412
289.451,-3.78928e-08,0,22604,22604
289.5,-3.82637e-08,0,21724,21724
289.55,-3.86493e-08,0,20900,20900
289.601,-3.90519e-08,0,19972,19972
289.651,-3.94553e-08,0,19076,19076
289.7,-3.98611e-08,0,18284,18284
289.75,-4.02646e-08,0,17516,17516
289.801,-4.06674e-08,0,16604,16604
289.85,-4.10537e-08,0,15676,15676
289.9,-4.14254e-08,0,14924,14924
289.95,-4.17789e-08,0,14036,14036
290.001,-4.21155e-08,0,13188,13188
290.05,-4.2422e-08,0,12324,12324
290.1,-4.27004e-08,0,11444,11444
290.151,-4.29509e-08,0,10652,10652
290.2,-4.31633e-08,0,9812,9812
290.25,-4.33389e-08,0,8972,8972
290.301,-4.34775e-08,0,8292,8292
290.351,-4.35734e-08,0,8192,8192
290.401,-4.36275e-08,0,8192,8192
290.45,-4.36391e-08,0,8192,8192
290.5,-4.36083e-08,0,8192,8192
290.553,-4.353e-08,0,8192,8192
290.603,-4.34137e-08,0,8192,8192
290.653,-4.32575e-08,0,8192,8192
290.702,-4.30622e-08,0,8192,8192
290.752,-4.28285e-08,0,8192,8192
290.802,-4.25567e-08,0,8192,8192
290.852,-4.22463e-08,0,8192,8192
290.902,-4.18963e-08,0,8192,8192
290.951,-4.15054e-08,0,8192,8192
291.001,-4.10721e-08,0,8192,8192
291.051,-4.05952e-08,0,8192,8192
291.101,-4.00741e-08,0,8192,8192
291.15,-3.95089e-08,0,8192,8192
291.2,-3.88999e-08,0,8192,8192
291.25,-3.8248e-08,0,8192,8192
291.303,-3.75129e-08,0,8192,8192
291.353,-3.67786e-08,0,8192,8192
291.402,-3.60086e-08,0,8192,8192
291.452,-3.52071e-08,0,8192,8192
291.502,-3.43791e-08,0,8192,8192
291.552,-3.35305e-08,0,8192,8192
291.602,-3.26674e-08,0,8192,8192
291.651,-3.17959e-08,0,8192,8192
291.701,-3.09219e-08,0,8192,8192
291.751,-3.00506e-08,0,8192,8192
291.801,-2.91869e-08,0,8192,8192
291.851,-2.8335e-08,0,8192,8192
291.9,-2.74989e-08,0,8192,8192
291.95,-2.66826e-08,0,8192,8192
292.003,-2.58447e-08,0,8192,8192
292.053,-2.50829e-08,0,8192,8192
292.103,-2.43545e-08,0,8192,8192
292.152,-2.36639e-08,0,8192,8192
292.202,-2.30151e-08,0,8192,8192
292.252,-2.24111e-08,0,8192,8192
292.302,-2.18538e-08,0,8192,8192
292.351,-2.1344e-08,0,8192,8192
292.401,-2.08815e-08,0,8192,8192
292.451,-2.04649e-08,0,8192,8192
292.501,-2.00921e-08,0,8192,8192
292.551,-1.97604e-08,0,8192,8192
292.6,-1.9467e-08,0,8192,8192
292.65,-1.92087e-08,0,8192,8192
292.7,-1.89826e-08,0,8192,8192
292.753,-1.87751e-08,0,8192,8192
292.803,-1.86063e-08,0,8192,8192
292.852,-1.84608e-08,0,8192,8192
292.902,-1.83354e-08,0,8192,8192
292.952,-1.82272e-08,0,8192,8192
293.002,-1.81337e-08,0,8192,8192
293.052,-1.80526e-08,0,8192,8192
293.101,-1.7982e-08,0,8192,8192
293.151,-1.79203e-08,0,8192,8192
293.201,-1.78658e-08,0,8192,8192
293.251,-1.78168e-08,0,8192,8192
293.301,-1.77718e-08,0,8192,8192
293.35,-1.77293e-08,0,8192,8192
293.4,-1.76878e-08,0,8192,8192
293.453,-1.76434e-08,0,8192,8192
293.503,-1.76002e-08,0,8192,8192
293.552,-1.75547e-08,0,8192,8192
293.602,-1.75063e-08,0,8192,8192
293.652,-1.74544e-08,0,8192,8192
293.702,-1.73983e-08,0,8192,8192
293.752,-1.73375e-08,0,8192,8192
293.801,-1.72714e-08,0,8192,8192
293.851,-1.71997e-08,0,8192,8192
293.901,-1.71217e-08,0,8192,8192
293.951,-1.70374e-08,0,8192,8192
294.001,-1.69462e-08,0,8192,8192
294.05,-1.6848e-08,0,8192,8192
294.1,-1.67426e-08,0,8192,8192
294.15,-1.66302e-08,0,8192,8192
294.203,-1.65037e-08,0,8192,8192
294.253,-1.63774e-08,0,8192,8192
294.302,-1.62447e-08,0,8192,8192
294.352,-1.61055e-08,0,8192,8192
294.402,-1.59598e-08,0,8192,8192
294.452,-1.5808e-08,0,8192,8192
294.502,-1.56504e-08,0,8192,8192
294.551,-1.54879e-08,0,8192,8192
294.601,-1.53213e-08,0,8192,8192
294.651,-1.51512e-08,0,8192,8192
294.701,-1.4978e-08,0,8192,8192
294.751,-1.48019e-08,0,8192,8192
294.8,-1.46223e-08,0,8192,8192
294.85,-1.44383e-08,0,8192,8192
294.903,-1.42375e-08,0,8192,8192
294.953,-1.4041e-08,0,8192,8192
295.002,-1.3837e-08,0,8192,8192
295.052,-1.36246e-08,0,8192,8192
295.102,-1.34035e-08,0,8192,8192
295.152,-1.31737e-08,0,8192,8192
295.202,-1.2935e-08,0,8192,8192
295.251,-1.26879e-08,0,8192,8192
295.301,-1.24322e-08,0,8192,8192
295.351,-1.21677e-08,0,8192,8192
295.401,-1.18933e-08,0,8192,8192
295.451,-1.16073e-08,0,8192,8192
295.5,-1.13074e-08,0,8192,8192
295.55,-1.09907e-08,0,8192,8192
295.6,-1.06549e-08,0,8192,8192
295.653,-1.02755e-08,0,8192,8192
295.703,-9.89258e-09,0,8192,8192
295.752,-9.48394e-09,0,8192,8192
295.802,-9.04815e-09,0,8192,8192
295.852,-8.58411e-09,0,8192,8192
295.902,-8.09105e-09,0,8192,8192
295.952,-7.5686e-09,0,8192,8192
296.001,-7.01689e-09,0,8192,8192
296.051,-6.43677e-09,0,8192,8192
296.101,-5.82987e-09,0,8192,8192
296.151,-5.19875e-09,0,8192,8192
296.201,-4.54676e-09,0,8192,8192
296.25,-3.87793e-09,0,8192,8192
296.3,-3.19672e-09,0,8192,8192
296.353,-2.46706e-09,0,8192,8192
296.403,-1.77483e-09,0,8192,8192
296.452,-1.08408e-09,0,8192,8192
296.502,-3.99108e-10,0,8192,8192
296.552,2.75834e-10,0,8192,8192
296.602,9.36467e-10,0,8192,8192
296.652,1.5785e-09,0,8192,8192
296.701,2.19771e-09,0,8192,8192
296.751,2.79006e-09,0,8192,8192
296.801,3.35174e-09,0,8192,8192
296.851,3.87927e-09,0,8192,8192
296.901,4.36954e-09,0,8192,8192
296.95,4.81991e-09,0,8192,8192
297,5.22834e-09,0,8192,8192
297.05,5.59345e-09,0,8192,8192
297.103,5.93215e-09,0,8192,8192
297.153,6.20697e-09,0,8192,8192
297.202,6.43892e-09,0,8192,8192
297.252,6.62956e-09,0,8192,8192
297.302,6.78093e-09,0,8192,8192
297.352,6.89551e-09,0,8192,8192
297.402,6.97606e-09,0,8192,8192
297.451,7.02554e-09,0,8192,8192
297.501,7.04701e-09,0,8192,8192
297.551,7.04353e-09,0,8192,8192
297.601,7.01816e-09,0,8192,8192
297.651,6.97384e-09,0,8192,8192
297.7,6.91339e-09,0,8192,8192
297.75,6.83943e-09,0,8192,8192
297.803,6.74911e-09,0,8192,8192
297.853,6.65478e-09,0,8192,8192
297.902,6.55377e-09,0,8192,8192
297.952,6.44794e-09,0,8192,8192
298.002,6.339e-09,0,8192,8192
298.052,6.2285e-09,0,8192,8192
298.102,6.11785e-09,0,8192,8192
298.151,6.0083e-09,0,8192,8192
298.201,5.90096e-09,0,8192,8192
298.251,5.79675e-09,0,8192,8192
298.301,5.69644e-09,0,8192,8192
298.351,5.60065e-09,0,8192,8192
298.4,5.50987e-09,0,8192,8192
298.45,5.42443e-09,0,8192,8192
298.503,5.34007e-09,0,8192,8192
298.553,5.2663e-09,0,8192,8192
298.603,5.19829e-09,0,8192,8192
298.652,5.13601e-09,0,8192,8192
298.702,5.07931e-09,0,8192,8192
298.752,5.02795e-09,0,8192,8192
298.802,4.98163e-09,0,8192,8192
298.852,4.93997e-09,0,8192,8192
298.901,4.90251e-09,0,8192,8192
298.951,4.86876e-09,0,8192,8192
299.001,4.83818e-09,0,8192,8192
299.051,4.81022e-09,0,8192,8192
299.1,4.78428e-09,0,8192,8192
299.15,4.75975e-09,0,8192,8192
299.2,4.73598e-09,0,8192,8192
299.253,4.71089e-09,0,8192,8192
299.303,4.6866e-09,0,8192,8192
299.352,4.66115e-09,0,8192,8192
299.402,4.63407e-09,0,8192,8192
299.452,4.60512e-09,0,8192,8192
299.502,4.57421e-09,0,8192,8192
299.552,4.54153e-09,0,8192,8192
299.601,4.50739e-09,0,8192,8192
299.651,4.47227e-09,0,8192,8192
299.701,4.43669e-09,0,8192,8192
299.751,4.40113e-09,0,8192,8192
299.801,4.36601e-09,0,8192,8192
299.85,4.33159e-09,0,8192,8192
299.9,4.29803e-09,0,8192,8192
299.953,4.26345e-09,0,8192,8192
300.003,4.23166e-09,0,8192,8192
300.053,4.20069e-09,0,8192,8192
300.102,4.17055e-09,0,8192,8192
300.152,4.14132e-09,0,8192,8192
300.202,4.11316e-09,0,8192,8192
300.252,4.08626e-09,0,8192,8192
300.301,4.0608e-09,0,8192,8192
300.351,4.03688e-09,0,8192,8192
300.401,4.0145e-09,0,8192,8192
300.451,3.99357e-09,0,8192,8192
300.501,3.97388e-09,0,8192,8192
300.55,3.95515e-09,0,8192,8192
300.6,3.9371e-09,0,8192,8192
300.65,3.91944e-09,0,8192,8192
300.703,3.90092e-09,0,8192,8192
300.753,3.88338e-09,0,8192,8192
300.802,3.86562e-09,0,8192,8192
300.852,3.84752e-09,0,8192,8192
300.902,3.82895e-09,0,8192,8192
300.952,3.80983e-09,0,8192,8192
301.002,3.7901e-09,0,8192,8192
301.051,3.76974e-09,0,8192,8192
301.101,3.74878e-09,0,8192,8192
301.151,3.7273e-09,0,8192,8192
301.201,3.70539e-09,0,8192,8192
301.251,3.68317e-09,0,8192,8192
301.3,3.66073e-09,0,8192,8192
301.35,3.63814e-09,0,8192,8192
301.403,3.61409e-09,0,8192,8192
301.453,3.59123e-09,0,8192,8192
301.502,3.5682e-09,0,8192,8192
301.552,3.54496e-09,0,8192,8192
301.602,3.52146e-09,0,8192,8192
301.652,3.49764e-09,0,8192,8192
301.702,3.47347e-09,0,8192,8192
301.751,3.44889e-09,0,8192,8192
301.801,3.42386e-09,0,8192,8192
301.851,3.39833e-09,0,8192,8192
301.901,3.37225e-09,0,8192,8192
301.951,3.34558e-09,0,8192,8192
302,3.31829e-09,0,8192,8192
302.05,3.29037e-09,0,8192,8192
302.1,3.26183e-09,0,8192,8192
302.153,3.23095e-09,0,8192,8192
302.203,3.20122e-09,0,8192,8192
302.252,3.17099e-09,0,8192,8192
302.302,3.14034e-09,0,8192,8192
302.352,3.10935e-09,0,8192,8192
302.402,3.07808e-09,0,8192,8192
302.452,3.0466e-09,0,8192,8192
302.501,3.01498e-09,0,8192,8192
302.551,2.98326e-09,0,8192,8192
302.601,2.95148e-09,0,8192,8192
302.651,2.91968e-09,0,8192,8192
302.701,2.88785e-09,0,8192,8192
302.75,2.856e-09,0,8192,8192
302.8,2.82413e-09,0,8192,8192
302.853,2.79033e-09,0,8192,8192
302.903,2.75833e-09,0,8192,8192
302.952,2.72623e-09,0,8192,8192
303.002,2.69399e-09,0,8192,8192
303.052,2.66157e-09,0,8192,8192
303.102,2.62893e-09,0,8192,8192
303.152,2.59602e-09,0,8192,8192
303.201,2.56282e-09,0,8192,8192
303.251,2.52928e-09,0,8192,8192
303.301,2.49537e-09,0,8192,8192
303.351,2.46105e-09,0,8192,8192
303.401,2.4263e-09,0,8192,8192
303.45,2.39109e-09,0,8192,8192
303.5,2.35539e-09,0,8192,8192
303.55,2.3192e-09,0,8192,8192
303.603,2.28031e-09,0,8192,8192
303.653,2.24306e-09,0,8192,8192
303.702,2.20529e-09,0,8192,8192
303.752,2.167e-09,0,8192,8192
303.802,2.12821e-09,0,8192,8192
303.852,2.08893e-09,0,8192,8192
303.902,2.04918e-09,0,8192,8192
303.951,2.009e-09,0,8192,8192
304.001,1.96841e-09,0,8192,8192
304.051,1.92745e-09,0,8192,8192
304.101,1.88615e-09,0,8192,8192
304.151,1.84457e-09,0,8192,8192
304.2,1.80276e-09,0,8192,8192
304.25,1.76076e-09,0,8192,8192
304.303,1.71614e-09,0,8192,8192
304.353,1.67393e-09,0,8192,8192
304.402,1.63171e-09,0,8192,8192
304.452,1.58953e-09,0,8192,8192
304.502,1.54745e-09,0,8192,8192
304.552,1.50553e-09,0,8192,8192
304.602,1.46383e-09,0,8192,8192
304.651,1.4224e-09,0,8192,8192
304.701,1.3813e-09,0,8192,8192
304.751,1.34058e-09,0,8192,8192
304.801,1.30028e-09,0,8192,8192
304.851,1.26046e-09,0,8192,8192
304.9,1.22117e-09,0,8192,8192
304.95,1.18243e-09,0,8192,8192
