250,0,0,2048,2048
250.006,0,0,2048,2048
250.053,0,0,2048,2048
250.105,0,0,2048,2048
250.152,0,0,2048,2048
250.205,0,0,2048,2048
250.252,0,0,2048,2048
250.305,0,0,2048,2048
250.352,0,0,2048,2048
250.404,0,0,2048,2048
250.451,0,0,2048,2048
250.504,0,0,2048,2048
250.551,0,0,2048,2048
250.603,0,0,2048,2048
250.65,0,0,2048,2048
250.703,0,0,2048,2048
250.756,0,0,2048,2048
250.803,0,0,2048,2048
250.855,0,0,2048,2048
250.902,0,0,2048,2048
250.955,0,0,2048,2048
251.002,0,0,2048,2048
251.055,0,0,2048,2048
251.101,0,0,2048,2048
251.154,0,0,2048,2048
251.201,0,0,2048,2048
251.254,0,0,2048,2048
251.301,0,0,2048,2048
251.353,0,0,2048,2048
251.4,0,0,2048,2048
251.453,0,0,2048,2048
251.506,0,0,2048,2048
251.553,0,0,2048,2048
251.605,0,0,2048,2048
251.652,0,0,2048,2048
251.705,0,0,2048,2048
251.752,0,0,2048,2048
251.804,0,0,2048,2048
251.851,0,0,2048,2048
251.904,0,0,2048,2048
251.951,0,0,2048,2048
252.004,0,0,2048,2048
252.05,0,0,2048,2048
252.103,0,0,2048,2048
252.15,0,0,2048,2048
252.203,0,0,2048,2048
252.256,0,0,2048,2048
252.302,0,0,2048,2048
252.355,0,0,2048,2048
252.402,0,0,2048,2048
252.455,0,0,2048,2048
252.502,0,0,2048,2048
252.554,0,0,2048,2048
252.601,0,0,2048,2048
252.654,0,0,2048,2048
252.701,0,0,2048,2048
252.754,0,0,2048,2048
252.8,0,0,2048,2048
252.853,0,0,2048,2048
252.906,0,0,2048,2048
252.953,0,0,2048,2048
253.005,0,0,2048,2048
253.052,0,0,2048,2048
253.105,0,0,2048,2048
253.152,0,0,2048,2048
253.205,0,0,2048,2048
253.251,0,0,2048,2048
253.304,0,0,2048,2048
253.351,0,0,2048,2048
253.404,0,0,2048,2048
253.451,0,0,2048,2048
253.503,0,0,2048,2048
253.55,0,0,2048,2048
253.603,0,0,2048,2048
253.656,0,0,2048,2048
253.703,0,0,2048,2048
253.755,0,0,2048,2048
253.802,0,0,2048,2048
253.855,0,0,2048,2048
253.902,0,0,2048,2048
253.954,0,0,2048,2048
254.001,0,0,2048,2048
254.054,0,0,2048,2048
254.101,0,0,2048,2048
254.154,0,0,2048,2048
254.201,0,0,2048,2048
254.253,0,0,2048,2048
254.3,0,0,2048,2048
254.353,0,0,2048,2048
254.406,0,0,2048,2048
254.452,0,0,2048,2048
254.505,0,0,2048,2048
254.552,0,0,2048,2048
254.605,0,0,2048,2048
254.652,0,0,2048,2048
254.704,0,0,2048,2048
254.751,0,0,2048,2048
254.804,0,0,2048,2048
254.851,0,0,2048,2048
254.904,0,0,2048,2048
254.95,0,0,2048,2048
255.003,0,0,2048,2048
255.05,0,0,2048,2048
255.103,0,0,2048,2048
255.155,0,0,2048,2048
255.202,0,0,2048,2048
255.255,0,0,2048,2048
255.302,0,0,2048,2048
255.355,0,0,2048,2048
255.402,0,0,2048,2048
255.454,0,0,2048,2048
255.501,0,0,2048,2048
255.554,0,0,2048,2048
255.601,0,0,2048,2048
255.653,0,0,2048,2048
255.7,0,0,2048,2048
255.753,0,0,2048,2048
255.806,0,0,2048,2048
255.853,0,0,2048,2048
255.905,0,0,2048,2048
255.952,0,0,2048,2048
256.005,0,0,2048,2048
256.052,0,0,2048,2048
256.105,0,0,2048,2048
256.151,0,0,2048,2048
256.204,0,0,2048,2048
256.251,0,0,2048,2048
256.304,0,0,2048,2048
256.351,0,0,2048,2048
256.403,0,0,2048,2048
256.45,0,0,2048,2048
256.503,0,0,2048,2048
256.556,0,0,2048,2048
256.603,0,0,2048,2048
256.655,0,0,2048,2048
256.702,0,0,2048,2048
256.755,0,0,2048,2048
256.802,0,0,2048,2048
256.854,0,0,2048,2048
256.901,0,0,2048,2048
256.954,0,0,2048,2048
257.001,0,0,2048,2048
257.054,0,0,2048,2048
257.101,0,0,2048,2048
257.153,0,0,2048,2048
257.2,0,0,2048,2048
257.253,0,0,2048,2048
257.306,0,0,2048,2048
257.352,0,0,2048,2048
257.405,0,0,2048,2048
257.452,0,0,2048,2048
257.505,0,0,2048,2048
257.552,0,0,2048,2048
257.604,0,0,2048,2048
257.651,0,0,2048,2048
257.704,0,0,2048,2048
257.751,0,0,2048,2048
257.804,0,0,2048,2048
257.85,0,0,2048,2048
257.903,0,0,2048,2048
257.95,0,0,2048,2048
258.003,0,0,2048,2048
258.055,0,0,2048,2048
258.102,0,0,2048,2048
258.155,0,0,2048,2048
258.202,0,0,2048,2048
258.255,0,0,2048,2048
258.302,0,0,2048,2048
258.354,0,0,2048,2048
258.401,0,0,2048,2048
258.454,0,0,2048,2048
258.501,0,0,2048,2048
258.553,0,0,2048,2048
258.6,0,0,2048,2048
258.653,0,0,2048,2048
258.706,0,0,2048,2048
258.753,0,0,2048,2048
258.805,0,0,2048,2048
258.852,0,0,2048,2048
258.905,0,0,2048,2048
258.952,0,0,2048,2048
259.005,0,0,2048,2048
259.051,0,0,2048,2048
259.104,0,0,2048,2048
259.151,0,0,2048,2048
259.204,0,0,2048,2048
259.251,0,0,2048,2048
259.303,0,0,2048,2048
259.35,0,0,2048,2048
259.403,0,0,2048,2048
259.456,0,0,2048,2048
259.503,0,0,2048,2048
259.555,0,0,2048,2048
259.602,0,0,2048,2048
259.655,0,0,2048,2048
259.702,0,0,2048,2048
259.754,0,0,2048,2048
259.801,0,0,2048,2048
259.854,0,0,2048,2048
259.901,0,0,2048,2048
259.954,0,0,2048,2048
260,0,0,2048,2048
260.053,0,0,2048,2048
260.1,0,0,2048,2048
260.153,0,0,2048,2048
260.206,0,0,2048,2048
260.252,0,0,2048,2048
260.305,-2.77556e-17,0,2048,2048
260.352,-5.55112e-17,0,2048,2048
260.405,-5.55112e-17,0,2048,2048
260.452,-5.55112e-17,0,2048,2048
260.504,-5.55112e-17,0,2048,2048
260.551,-5.55112e-17,0,2048,2048
260.604,-5.55112e-17,0,2048,2048
260.651,-5.55112e-17,0,2048,2048
260.704,-5.55112e-17,0,2048,2048
260.75,-5.55112e-17,0,2048,2048
260.803,-2.77556e-17,0,2048,2048
260.856,-2.77556e-17,0,2048,2048
260.903,-2.77556e-17,0,2048,2048
260.955,-2.77556e-17,0,2048,2048
261.002,-2.77556e-17,0,2048,2048
261.055,-2.77556e-17,0,2048,2048
261.102,-2.77556e-17,0,2048,2048
261.155,-2.77556e-17,0,2048,2048
261.201,-2.77556e-17,0,2048,2048
261.254,-2.77556e-17,0,2048,2048
261.301,-2.77556e-17,0,2048,2048
261.354,-2.77556e-17,0,2048,2048
261.401,0,0,2048,2048
261.453,0,0,2048,2048
261.5,0,0,2048,2048
261.553,0,0,2048,2048
261.606,0,0,2048,2048
261.653,0,0,2048,2048
261.705,0,0,2048,2048
261.752,0,0,2048,2048
261.805,0,0,2048,2048
261.852,0,0,2048,2048
261.905,0,0,2048,2048
261.951,0,0,2048,2048
262.004,0,0,2048,2048
262.051,0,0,2048,2048
262.104,0,0,2048,2048
262.151,0,0,2048,2048
262.203,0,0,2048,2048
262.25,0,0,2048,2048
262.303,0,0,2048,2048
262.356,0,0,2048,2048
262.402,0,0,2048,2048
262.455,0,0,2048,2048
262.502,0,0,2048,2048
262.555,0,0,2048,2048
262.602,0,0,2048,2048
262.654,0,0,2048,2048
262.701,0,0,2048,2048
262.754,0,0,2048,2048
262.801,0,0,2048,2048
262.854,0,0,2048,2048
262.9,0,0,2048,2048
262.953,0,0,2048,2048
263,0,0,2048,2048
263.053,0,0,2048,2048
263.105,0,0,2048,2048
263.152,0,0,2048,2048
263.205,0,0,2048,2048
263.252,0,0,2048,2048
263.305,0,0,2048,2048
263.352,0,0,2048,2048
263.404,0,0,2048,2048
263.451,0,0,2048,2048
263.504,0,0,2048,2048
263.551,0,0,2048,2048
263.603,0,0,2048,2048
263.65,0,0,2048,2048
263.703,0,0,2048,2048
263.756,0,0,2048,2048
263.803,0,0,2048,2048
263.855,0,0,2048,2048
263.902,0,0,2048,2048
263.955,0,0,2048,2048
264.002,0,0,2048,2048
264.055,0,0,2048,2048
264.101,0,0,2048,2048
264.154,0,0,2048,2048
264.201,0,0,2048,2048
264.254,0,0,2048,2048
264.301,0,0,2048,2048
264.353,0,0,2048,2048
264.4,0,0,2048,2048
264.453,0,0,2048,2048
264.506,0,0,2048,2048
264.553,0,0,2048,2048
264.605,0,0,2048,2048
264.652,0,0,2048,2048
264.705,0,0,2048,2048
264.752,0,0,2048,2048
264.804,0,0,2048,2048
264.851,0,0,2048,2048
264.904,0,0,2048,2048
264.951,0,0,2048,2048
265.004,-2.77556e-17,0,2048,2048
265.051,-5.55112e-17,0,2048,2048
265.103,-5.55112e-17,0,2048,2048
265.15,-5.55112e-17,0,2048,2048
265.203,-5.55112e-17,0,2048,2048
265.256,-5.55112e-17,0,2048,2048
265.302,-5.55112e-17,0,2048,2048
265.355,-5.55112e-17,0,2048,2048
265.402,-5.55112e-17,0,2048,2048
265.455,-5.55112e-17,0,2048,2048
265.502,-5.55112e-17,0,2048,2048
265.554,-2.77556e-17,0,2048,2048
265.601,-2.77556e-17,0,2048,2048
265.654,-2.77556e-17,0,2048,2048
265.701,-2.77556e-17,0,2048,2048
265.754,-2.77556e-17,0,2048,2048
265.8,-2.77556e-17,0,2048,2048
265.853,-2.77556e-17,0,2048,2048
265.9,-2.77556e-17,0,2048,2048
265.953,-2.77556e-17,0,2048,2048
266.005,-2.77556e-17,0,2048,2048
266.052,-2.77556e-17,0,2048,2048
266.105,-5.55112e-17,0,2048,2048
266.152,-5.55112e-17,0,2048,2048
266.205,-5.55112e-17,0,2048,2048
266.252,-5.55112e-17,0,2048,2048
266.304,-5.55112e-17,0,2048,2048
266.351,-5.55112e-17,0,2048,2048
266.404,-5.55112e-17,0,2048,2048
266.451,-5.55112e-17,0,2048,2048
266.503,-5.55112e-17,0,2048,2048
266.55,-5.55112e-17,0,2048,2048
266.603,-5.55112e-17,0,2048,2048
266.656,-5.55112e-17,0,2048,2048
266.703,-5.55112e-17,0,2048,2048
266.755,-5.55112e-17,0,2048,2048
266.802,-5.55112e-17,0,2048,2048
266.855,-2.77556e-17,0,2048,2048
266.902,-2.77556e-17,0,2048,2048
266.955,-2.77556e-17,0,2048,2048
267.001,-2.77556e-17,0,2048,2048
267.054,-2.77556e-17,0,2048,2048
267.101,-2.77556e-17,0,2048,2048
267.154,-2.77556e-17,0,2048,2048
267.201,-2.77556e-17,0,2048,2048
267.253,-2.77556e-17,0,2048,2048
267.3,-2.77556e-17,0,2048,2048
267.353,-2.77556e-17,0,2048,2048
267.406,-2.77556e-17,0,2048,2048
267.453,-2.77556e-17,0,2048,2048
267.505,-2.77556e-17,0,2048,2048
267.552,-2.77556e-17,0,2048,2048
267.605,-2.77556e-17,0,2048,2048
267.652,-2.77556e-17,0,2048,2048
267.704,-2.77556e-17,0,2048,2048
267.751,-2.77556e-17,0,2048,2048
267.804,-2.77556e-17,0,2048,2048
267.851,-2.77556e-17,0,2048,2048
267.904,-2.77556e-17,0,2048,2048
267.95,-2.77556e-17,0,2048,2048
268.003,-2.77556e-17,0,2048,2048
268.05,-2.77556e-17,0,2048,2048
268.102,-2.77556e-17,0,2054,2054
268.153,-2.77556e-17,0,2048,2048
268.206,-2.77556e-17,0,2048,2048
268.253,-2.77556e-17,0,2048,2048
268.305,0,0,2048,2048
268.352,0,0,2048,2048
268.405,0,0,2048,2048
268.452,0,0,2048,2048
268.504,0,0,2048,2048
268.551,0,0,2048,2048
268.604,0,0,2048,2048
268.651,0,0,2048,2048
268.704,0,0,2048,2048
268.751,2.77556e-17,0,2048,2048
268.803,2.77556e-17,0,2048,2048
268.85,2.77556e-17,0,2048,2048
268.903,2.77556e-17,0,2048,2048
268.956,2.77556e-17,0,2048,2048
269.002,2.77556e-17,0,2048,2048
269.055,2.77556e-17,0,2048,2048
269.102,2.77556e-17,0,2048,2048
269.155,2.77556e-17,0,2048,2048
269.202,2.77556e-17,0,2048,2048
269.254,2.77556e-17,0,2048,2048
269.301,2.77556e-17,0,2048,2048
269.354,2.77556e-17,0,2048,2048
269.401,2.77556e-17,0,2048,2048
269.454,2.77556e-17,0,2048,2048
269.5,2.77556e-17,0,2048,2048
269.553,2.77556e-17,0,2048,2048
269.604,2.77556e-17,0,2050,2050
269.654,2.77556e-17,0,2050,2050
269.703,2.77556e-17,0,2050,2050
269.752,2.77556e-17,0,2094,2094
269.802,2.77556e-17,0,2134,2134
269.851,2.77556e-17,0,2166,2166
269.901,2.77556e-17,0,2258,2258
269.951,2.77556e-17,0,2402,2402
270.001,2.77556e-17,0,2534,2534
270.051,2.77556e-17,0,2682,2682
270.1,2.77556e-17,0,2826,2826
270.15,2.77556e-17,0,2938,2938
270.201,2.77556e-17,0,2966,2966
270.251,2.77556e-17,0,3042,3042
270.301,2.77556e-17,0,3090,3090
270.351,2.77556e-17,0,3226,3226
270.401,2.77556e-17,0,3446,3446
270.45,2.77556e-17,0,3614,3614
270.5,2.77556e-17,0,3834,3834
270.551,2.77556e-17,0,4018,4018
270.601,2.77556e-17,0,4250,4250
270.651,2.77556e-17,0,4466,4466
270.701,2.77556e-17,0,4658,4658
270.751,2.77556e-17,0,4870,4870
270.8,2.77556e-17,0,5082,5082
270.85,2.77556e-17,0,5378,5378
270.901,2.77556e-17,0,5646,5646
270.951,2.77556e-17,0,5874,5874
271.001,2.77556e-17,0,6062,6062
271.051,2.77556e-17,0,6290,6290
271.101,2.77556e-17,0,6494,6494
271.15,2.77556e-17,0,6682,6682
271.2,2.77556e-17,0,6906,6906
271.25,2.77556e-17,0,7122,7122
271.301,2.77556e-17,0,7342,7342
271.351,2.77556e-17,0,7542,7542
271.401,2.77556e-17,0,7766,7766
271.451,2.77556e-17,0,7998,7998
271.5,2.77556e-17,0,8198,8198
271.55,2.77556e-17,0,8232,8232
271.6,2.77556e-17,0,8262,8262
271.651,2.77556e-17,0,8370,8370
271.701,2.77556e-17,0,8522,8522
271.751,2.77556e-17,0,8702,8702
271.801,2.77556e-17,0,8902,8902
271.851,2.77556e-17,0,9114,9114
271.9,2.77556e-17,0,9318,9318
271.95,2.77556e-17,0,9550,9550
272.001,2.77556e-17,0,9714,9714
272.051,2.77556e-17,0,9946,9946
272.101,2.77556e-17,0,10102,10102
272.151,2.77556e-17,0,10330,10330
272.201,2.77556e-17,0,10546,10546
272.25,2.77556e-17,0,10806,10806
272.3,2.77556e-17,0,11062,11062
272.351,2.77556e-17,0,11306,11306
272.401,2.77556e-17,0,11498,11498
272.451,2.77556e-17,0,11670,11670
272.501,2.77556e-17,0,11902,11902
272.551,2.77556e-17,0,12090,12090
272.6,2.77556e-17,0,12258,12258
272.65,2.77556e-17,0,12474,12474
272.7,2.77556e-17,0,12642,12642
272.751,2.77556e-17,0,12854,12854
272.801,2.77556e-17,0,13070,13070
272.851,2.77556e-17,0,13246,13246
272.901,2.77556e-17,0,13434,13434
272.95,2.77556e-17,0,13638,13638
273,2.77556e-17,0,13794,13794
273.05,2.77556e-17,0,14010,14010
273.101,-8.32667e-17,0,14182,14182
273.151,-8.60423e-16,0,14418,14418
273.201,-1.72085e-15,0,14542,14542
273.251,-2.66454e-15,0,14682,14682
273.301,-3.60822e-15,0,14874,14874
273.35,-4.52416e-15,0,15030,15030
273.4,-5.9952e-15,0,15214,15214
273.451,-1.113e-14,0,15438,15438
273.501,-2.65621e-14,0,15488,15488
273.551,-6.87783e-14,0,15502,15502
273.601,-1.73389e-13,0,15398,15398
273.651,-4.11865e-13,0,15264,15264
273.7,-9.15268e-13,0,15156,15156
273.75,-1.90048e-12,0,15020,15020
273.801,-3.75999e-12,0,14796,14796
273.851,-6.82629e-12,0,14768,14768
273.901,-1.16234e-11,0,14720,14720
273.951,-1.85857e-11,0,14724,14724
274.001,-2.79361e-11,0,14674,14674
274.05,-3.95045e-11,0,14704,14704
274.1,-5.25815e-11,0,14604,14604
274.151,-6.62602e-11,0,14676,14676
274.201,-7.79752e-11,0,14672,14672
274.251,-8.62209e-11,0,14680,14680
274.301,-8.93324e-11,0,14772,14772
274.351,-8.62619e-11,0,14904,14904
274.4,-7.68275e-11,0,14924,14924
274.45,-6.1752e-11,0,15056,15056
274.5,-4.24831e-11,0,15100,15100
274.551,-2.02089e-11,0,14992,14992
274.601,1.89534e-12,0,14996,14996
274.651,2.28847e-11,0,14948,14948
274.701,4.16782e-11,0,14936,14936
274.75,5.77086e-11,0,14880,14880
274.8,7.08543e-11,0,14740,14740
274.85,8.13142e-11,0,14704,14704
274.901,8.96814e-11,0,14620,14620
274.951,9.59391e-11,0,14640,14640
275.001,1.00789e-10,0,14632,14632
275.051,1.04595e-10,0,14508,14508
275.101,1.07639e-10,0,14504,14504
275.15,1.1013e-10,0,14448,14448
275.2,1.12221e-10,0,14436,14436
275.251,1.14018e-10,0,14360,14360
275.301,1.15601e-10,0,14344,14344
275.351,1.17032e-10,0,14304,14304
275.401,1.18351e-10,0,14276,14276
275.451,1.19846e-10,0,14252,14252
275.501,1.21996e-10,0,14212,14212
275.55,1.26217e-10,0,14152,14152
275.6,1.35438e-10,0,14128,14128
275.65,1.55208e-10,0,14096,14096
275.7,1.94971e-10,0,14032,14032
275.751,2.69328e-10,0,14020,14020
275.801,3.98895e-10,0,13968,13968
275.85,6.02343e-10,0,13944,13944
275.901,9.22733e-10,0,13880,13880
275.95,1.3716e-09,0,13856,13856
276.001,2.00735e-09,0,13824,13824
276.051,2.81488e-09,0,13740,13740
276.101,3.94074e-09,0,13732,13732
276.151,6.54045e-09,0,13696,13696
276.201,9.91816e-09,0,13672,13672
276.25,1.45372e-08,0,13612,13612
276.301,2.13342e-08,0,13608,13608
276.352,2.66881e-08,0,13556,13556
276.401,3.09049e-08,0,13540,13540
276.45,3.47862e-08,0,13516,13516
276.5,3.90589e-08,0,13464,13464
276.552,4.46042e-08,0,13440,13440
276.602,5.14971e-08,0,13388,13388
276.65,6.20797e-08,0,13408,13408
276.701,7.63317e-08,0,13344,13344
276.751,9.31513e-08,0,13312,13312
276.8,1.12653e-07,0,13272,13272
276.851,1.37423e-07,0,13252,13252
276.9,1.67055e-07,0,13236,13236
276.95,2.02974e-07,0,13216,13216
277.002,2.46668e-07,0,13168,13168
277.051,2.9443e-07,0,13156,13156
277.102,3.46194e-07,0,13140,13140
277.15,3.98902e-07,0,13116,13116
277.201,4.5577e-07,0,13104,13104
277.251,5.15288e-07,0,13100,13100
277.3,5.75478e-07,0,13092,13092
277.351,6.39545e-07,0,13092,13092
277.401,7.00829e-07,0,13052,13052
277.451,7.58274e-07,0,13084,13084
277.5,8.08728e-07,0,13068,13068
277.55,8.49954e-07,0,13048,13048
277.601,8.81015e-07,0,13032,13032
277.651,9.02215e-07,0,13036,13036
277.702,9.1474e-07,0,12988,12988
277.751,9.20094e-07,0,12968,12968
277.802,9.21169e-07,0,12952,12952
277.851,9.20746e-07,0,12916,12916
277.901,9.20138e-07,0,12880,12880
277.951,9.1117e-07,0,12836,12836
278.001,8.93091e-07,0,12800,12800
278.051,8.69334e-07,0,12736,12736
278.101,8.38807e-07,0,12684,12684
278.152,8.00521e-07,0,12692,12692
278.201,7.56499e-07,0,12608,12608
278.252,7.04655e-07,0,12568,12568
278.301,6.5094e-07,0,12482,12482
278.351,5.95988e-07,0,12430,12430
278.4,5.4191e-07,0,12366,12366
278.45,4.90337e-07,0,12286,12286
278.501,4.42105e-07,0,12326,12326
278.551,3.97452e-07,0,12170,12170
278.601,3.56045e-07,0,12130,12130
278.651,3.1744e-07,0,12090,12090
278.702,2.81146e-07,0,12026,12026
278.75,2.48144e-07,0,11878,11878
278.801,2.16238e-07,0,11746,11746
278.852,1.8753e-07,0,11690,11690
278.9,1.63862e-07,0,11530,11530
278.951,1.43708e-07,0,11458,11458
279,1.27886e-07,0,11322,11322
279.051,1.13643e-07,0,11138,11138
279.1,1.00501e-07,0,11018,11018
279.151,8.68243e-08,0,10842,10842
279.2,7.4142e-08,0,10658,10658
279.252,6.25691e-08,0,10506,10506
279.301,5.37405e-08,0,10346,10346
279.35,4.72566e-08,0,10190,10190
279.4,4.249e-08,0,10074,10074
279.452,3.83016e-08,0,9898,9898
279.501,3.40616e-08,0,9746,9746
279.551,2.92098e-08,0,9582,9582
279.601,2.41078e-08,0,9374,9374
279.651,1.96687e-08,0,9230,9230
279.701,1.67731e-08,0,9046,9046
279.751,1.58048e-08,0,8758,8758
279.801,1.62591e-08,0,8378,8378
279.851,1.76749e-08,0,8082,8082
279.902,1.94872e-08,0,7730,7730
279.95,2.1495e-08,0,7674,7674
280.001,2.39906e-08,0,7550,7550
280.051,2.67408e-08,0,7450,7450
280.101,2.96033e-08,0,7662,7662
280.152,3.28436e-08,0,7182,7182
280.2,3.60585e-08,0,7498,7498
280.251,3.96323e-08,0,7178,7178
280.301,4.33627e-08,0,7074,7074
280.351,4.71961e-08,0,7618,7618
280.402,5.13367e-08,0,7982,7982
280.45,5.54122e-08,0,8182,8182
280.5,5.97286e-08,0,8522,8522
280.551,6.40279e-08,0,8646,8646
280.601,6.82555e-08,0,8798,8798
280.651,7.21471e-08,0,8926,8926
280.701,7.77889e-08,0,9014,9014
280.751,8.28082e-08,0,9190,9190
280.801,8.79458e-08,0,9378,9378
280.851,9.35192e-08,0,9506,9506
280.901,9.95602e-08,0,9674,9674
280.95,1.06029e-07,0,9786,9786
281.002,1.1331e-07,0,10002,10002
281.051,1.20788e-07,0,10158,10158
281.101,1.28527e-07,0,10274,10274
281.15,1.36303e-07,0,10458,10458
281.202,1.44194e-07,0,10558,10558
281.251,1.51771e-07,0,10734,10734
281.3,1.59609e-07,0,10918,10918
281.351,1.68016e-07,0,11058,11058
281.4,1.80774e-07,0,11230,11230
281.451,1.95791e-07,0,11382,11382
281.5,2.1285e-07,0,11534,11534
281.551,2.33647e-07,0,11698,11698
281.602,2.58607e-07,0,11886,11886
281.65,2.86965e-07,0,12014,12014
281.701,3.20652e-07,0,12174,12174
281.751,3.58848e-07,0,12374,12374
281.8,3.99858e-07,0,12526,12526
281.85,4.45854e-07,0,12622,12622
281.901,4.94393e-07,0,12674,12674
281.951,5.4484e-07,0,12522,12522
282.001,5.96589e-07,0,12658,12658
282.051,6.48788e-07,0,12830,12830
282.101,7.00218e-07,0,13100,13100
282.15,7.49274e-07,0,13238,13238
282.202,7.95594e-07,0,13306,13306
282.251,8.33864e-07,0,13478,13478
282.302,8.65215e-07,0,13570,13570
282.351,8.86697e-07,0,13678,13678
282.401,8.99852e-07,0,13710,13710
282.451,9.04211e-07,0,13774,13774
282.502,9.02221e-07,0,13814,13814
282.551,8.97191e-07,0,13890,13890
282.601,8.84634e-07,0,13966,13966
282.651,8.68628e-07,0,13998,13998
282.7,8.48064e-07,0,14110,14110
282.751,8.20813e-07,0,14238,14238
282.8,7.88398e-07,0,14346,14346
282.851,7.48599e-07,0,14442,14442
282.901,7.02895e-07,0,14566,14566
282.951,6.52014e-07,0,14654,14654
283.001,5.97088e-07,0,14782,14782
283.051,5.3967e-07,0,14902,14902
283.101,4.81503e-07,0,14950,14950
283.15,4.24294e-07,0,14966,14966
283.201,3.67558e-07,0,15050,15050
283.251,3.15988e-07,0,15086,15086
283.301,2.66483e-07,0,15130,15130
283.352,2.20925e-07,0,15158,15158
283.4,1.80478e-07,0,15212,15212
283.45,1.42154e-07,0,15232,15232
283.5,1.07315e-07,0,15272,15272
283.55,7.60028e-08,0,15352,15352
283.601,4.74731e-08,0,15412,15412
283.651,2.36963e-08,0,15452,15452
283.7,3.63484e-09,0,15460,15460
283.751,-1.36162e-08,0,15520,15520
283.801,-2.79989e-08,0,15552,15552
283.85,-3.99029e-08,0,15600,15600
283.9,-5.06125e-08,0,15648,15648
283.95,-5.991e-08,0,15724,15724
284,-6.77435e-08,0,15752,15752
284.05,-7.38642e-08,0,15788,15788
284.101,-7.80575e-08,0,15832,15832
284.151,-8.03688e-08,0,15844,15844
284.201,-8.08757e-08,0,15884,15884
284.25,-8.10163e-08,0,15916,15916
284.301,-8.09965e-08,0,15964,15964
284.351,-8.07864e-08,0,15976,15976
284.401,-8.03592e-08,0,16032,16032
284.451,-7.96724e-08,0,16028,16028
284.501,-7.75499e-08,0,16116,16116
284.551,-7.4784e-08,0,16160,16160
284.6,-7.18738e-08,0,16160,16160
284.651,-6.85368e-08,0,16188,16188
284.7,-6.50748e-08,0,16168,16168
284.751,-6.1555e-08,0,16268,16268
284.801,-5.67265e-08,0,16228,16228
284.851,-5.30697e-08,0,16172,16172
284.901,-4.97795e-08,0,16148,16148
284.951,-4.68282e-08,0,16120,16120
285.001,-4.414e-08,0,16048,16048
285.05,-4.17749e-08,0,16008,16008
285.101,-3.96285e-08,0,15972,15972
285.151,-3.77351e-08,0,15932,15932
285.201,-3.61804e-08,0,15856,15856
285.25,-3.49131e-08,0,15876,15876
285.3,-3.37718e-08,0,15864,15864
285.35,-3.28866e-08,0,15828,15828
285.4,-3.22229e-08,0,15848,15848
285.45,-3.16284e-08,0,15860,15860
285.501,-3.14818e-08,0,15876,15876
285.551,-3.14908e-08,0,15908,15908
285.601,-3.15106e-08,0,15960,15960
285.651,-3.15609e-08,0,15948,15948
285.701,-3.16526e-08,0,15968,15968
285.75,-3.1784e-08,0,16016,16016
285.8,-3.19377e-08,0,16060,16060
285.85,-3.21101e-08,0,16088,16088
285.901,-3.23039e-08,0,16072,16072
285.951,-3.25048e-08,0,16096,16096
286.001,-3.27157e-08,0,16164,16164
286.051,-3.29329e-08,0,16196,16196
286.1,-3.31524e-08,0,16190,16190
286.15,-3.3371e-08,0,16182,16182
286.2,-3.35861e-08,0,16190,16190
286.251,-3.38004e-08,0,16218,16218
286.301,-3.39994e-08,0,16178,16178
286.351,-3.41874e-08,0,16154,16154
286.401,-3.43627e-08,0,16106,16106
286.451,-3.45238e-08,0,16050,16050
286.5,-3.46697e-08,0,16050,16050
286.55,-3.47996e-08,0,16022,16022
286.601,-3.49156e-08,0,15978,15978
286.651,-3.50107e-08,0,15966,15966
286.701,-3.50885e-08,0,15902,15902
286.751,-3.5149e-08,0,15906,15906
286.801,-3.51927e-08,0,15870,15870
286.85,-3.522e-08,0,15806,15806
286.9,-3.52316e-08,0,15822,15822
286.951,-3.52283e-08,0,15746,15746
287.001,-3.52115e-08,0,15742,15742
287.051,-3.51829e-08,0,15682,15682
287.101,-3.51443e-08,0,15594,15594
287.151,-3.50971e-08,0,15486,15486
287.2,-3.50431e-08,0,15338,15338
287.25,-3.49839e-08,0,15238,15238
287.3,-3.4921e-08,0,15080,15080
287.351,-3.4854e-08,0,14964,14964
287.401,-3.47881e-08,0,14820,14820
287.451,-3.47227e-08,0,14692,14692
287.501,-3.46588e-08,0,14572,14572
287.55,-3.45973e-08,0,14456,14456
287.6,-3.45391e-08,0,14300,14300
287.65,-3.44846e-08,0,14112,14112
287.701,-3.44332e-08,0,13932,13932
287.751,-3.43884e-08,0,13764,13764
287.801,-3.4349e-08,0,13536,13536
287.851,-3.43154e-08,0,13396,13396
287.901,-3.4288e-08,0,13192,13192
287.95,-3.42669e-08,0,13020,13020
288,-3.42524e-08,0,12848,12848
288.051,-3.42445e-08,0,12648,12648
288.101,-3.42437e-08,0,12484,12484
288.151,-3.42496e-08,0,12276,12276
288.201,-3.42623e-08,0,12072,12072
288.251,-3.42819e-08,0,11850,11850
288.3,-3.43082e-08,0,11658,11658
288.35,-3.43415e-08,0,11442,11442
288.401,-3.4383e-08,0,11230,11230
288.451,-3.44307e-08,0,11022,11022
288.501,-3.44859e-08,0,10842,10842
288.551,-3.45489e-08,0,10646,10646
288.601,-3.46203e-08,0,10502,10502
288.65,-3.47005e-08,0,10330,10330
288.7,-3.47903e-08,0,10162,10162
288.751,-3.48934e-08,0,10126,10126
288.801,-3.50051e-08,0,10154,10154
288.851,-3.5129e-08,0,10094,10094
288.901,-3.52665e-08,0,9942,9942
288.951,-3.54187e-08,0,9790,9790
289,-3.55869e-08,0,9618,9618
289.05,-3.5772e-08,0,9174,9174
289.1,-3.59752e-08,0,8938,8938
289.151,-3.62039e-08,0,8758,8758
289.201,-3.64455e-08,0,8426,8426
289.251,-3.67064e-08,0,8210,8210
289.301,-3.6986e-08,0,8002,8002
289.35,-3.72837e-08,0,7802,7802
289.4,-3.7598e-08,0,7570,7570
289.45,-3.79274e-08,0,7362,7362
289.501,-3.82799e-08,0,7162,7162
289.551,-3.86333e-08,0,6958,6958
289.601,-3.8995e-08,0,6730,6730
289.651,-3.93623e-08,0,6502,6502
289.701,-3.97326e-08,0,6306,6306
289.75,-4.01026e-08,0,6102,6102
289.8,-4.04691e-08,0,5858,5858
289.851,-4.08387e-08,0,5638,5638
289.901,-4.11864e-08,0,5458,5458
289.951,-4.1519e-08,0,5214,5214
290.001,-4.18326e-08,0,4966,4966
290.051,-4.21237e-08,0,4758,4758
290.1,-4.23887e-08,0,4566,4566
290.15,-4.26247e-08,0,4362,4362
290.201,-4.28346e-08,0,4138,4138
290.251,-4.3004e-08,0,3934,3934
290.301,-4.31377e-08,0,3698,3698
290.351,-4.32341e-08,0,3514,3514
290.401,-4.32922e-08,0,3314,3314
290.451,-4.33113e-08,0,3220,3220
290.501,-4.32902e-08,0,3216,3216
290.551,-4.32292e-08,0,3236,3236
290.6,-4.31278e-08,0,3228,3228
290.65,-4.29858e-08,0,3220,3220
290.702,-4.27947e-08,0,3220,3220
290.752,-4.25694e-08,0,3222,3222
290.801,-4.2303e-08,0,3194,3194
290.851,-4.19952e-08,0,3146,3146
290.901,-4.16457e-08,0,3078,3078
290.95,-4.12543e-08,0,3034,3034
291,-4.08207e-08,0,2978,2978
291.052,-4.03241e-08,0,2914,2914
291.102,-3.98044e-08,0,2862,2862
291.151,-3.9243e-08,0,2790,2790
291.201,-3.86408e-08,0,2746,2746
291.251,-3.79991e-08,0,2694,2694
291.3,-3.73197e-08,0,2630,2630
291.35,-3.66052e-08,0,2574,2574
291.402,-3.5827e-08,0,2522,2522
291.452,-3.5051e-08,0,2458,2458
291.501,-3.4251e-08,0,2402,2402
291.551,-3.34315e-08,0,2342,2342
291.601,-3.25975e-08,0,2294,2294
291.65,-3.17539e-08,0,2234,2234
291.702,-3.08776e-08,0,2194,2194
291.752,-3.00289e-08,0,2150,2150
291.801,-2.91865e-08,0,2102,2102
291.851,-2.83556e-08,0,2066,2066
291.9,-2.75571e-08,0,2048,2048
291.953,-2.67165e-08,0,2048,2048
292.005,-2.59044e-08,0,2048,2048
292.052,-2.52101e-08,0,2048,2048
292.105,-2.44637e-08,0,2048,2048
292.152,-2.38339e-08,0,2048,2048
292.205,-2.31663e-08,0,2048,2048
292.252,-2.26114e-08,0,2048,2048
292.304,-2.20325e-08,0,2048,2048
292.351,-2.15591e-08,0,2048,2048
292.404,-2.10729e-08,0,2048,2048
292.451,-2.0681e-08,0,2048,2048
292.503,-2.02837e-08,0,2048,2048
292.55,-1.99671e-08,0,2048,2048
292.603,-1.96492e-08,0,2048,2048
292.656,-1.93687e-08,0,2048,2048
292.703,-1.91481e-08,0,2048,2048
292.755,-1.89294e-08,0,2048,2048
292.802,-1.87586e-08,0,2048,2048
292.855,-1.85904e-08,0,2048,2048
292.902,-1.84599e-08,0,2048,2048
292.955,-1.83317e-08,0,2048,2048
293.001,-1.82324e-08,0,2048,2048
293.054,-1.81346e-08,0,2048,2048
293.101,-1.80583e-08,0,2048,2048
293.154,-1.79824e-08,0,2048,2048
293.201,-1.79221e-08,0,2048,2048
293.253,-1.78607e-08,0,2048,2048
293.3,-1.78104e-08,0,2048,2048
293.353,-1.77572e-08,0,2048,2048
293.406,-1.7706e-08,0,2048,2048
293.453,-1.76611e-08,0,2048,2048
293.505,-1.76101e-08,0,2048,2048
293.552,-1.75633e-08,0,2048,2048
293.605,-1.7508e-08,0,2048,2048
293.652,-1.74558e-08,0,2090,2090
293.704,-1.73926e-08,0,2102,2102
293.751,-1.73317e-08,0,2114,2114
293.804,-1.72571e-08,0,2122,2122
293.851,-1.71848e-08,0,2130,2130
293.904,-1.70962e-08,0,2130,2130
293.951,-1.70104e-08,0,2130,2130
294.003,-1.6906e-08,0,2130,2130
294.05,-1.68059e-08,0,2130,2130
294.103,-1.66853e-08,0,2130,2130
294.156,-1.65565e-08,0,2130,2130
294.202,-1.64356e-08,0,2130,2130
294.255,-1.6293e-08,0,2130,2130
294.302,-1.61609e-08,0,2130,2130
294.355,-1.60071e-08,0,2130,2130
294.402,-1.58665e-08,0,2130,2130
294.454,-1.57046e-08,0,2130,2130
294.501,-1.55581e-08,0,2130,2130
294.554,-1.53907e-08,0,2130,2130
294.601,-1.52399e-08,0,2130,2130
294.654,-1.50681e-08,0,2130,2130
294.7,-1.49132e-08,0,2130,2130
294.753,-1.4736e-08,0,2130,2130
294.806,-1.45549e-08,0,2130,2130
294.853,-1.43899e-08,0,2130,2130
294.905,-1.41989e-08,0,2130,2130
294.952,-1.40235e-08,0,2130,2130
295.005,-1.3819e-08,0,2130,2130
295.052,-1.36304e-08,0,2108,2108
295.105,-1.34098e-08,0,2092,2092
295.152,-1.32055e-08,0,2084,2084
295.204,-1.29657e-08,0,2068,2068
295.251,-1.27429e-08,0,2060,2060
295.304,-1.248e-08,0,2052,2052
295.351,-1.22343e-08,0,2048,2048
295.403,-1.19427e-08,0,2048,2048
295.45,-1.16687e-08,0,2048,2048
295.503,-1.13421e-08,0,2048,2048
295.556,-1.09941e-08,0,2048,2048
295.603,-1.06652e-08,0,2048,2048
295.655,-1.02714e-08,0,2048,2048
295.702,-9.89908e-09,0,2048,2048
295.755,-9.45459e-09,0,2048,2048
295.802,-9.03667e-09,0,2048,2048
295.855,-8.5412e-09,0,2048,2048
295.901,-8.07861e-09,0,2048,2048
295.954,-7.53354e-09,0,2048,2048
296.001,-7.02728e-09,0,2048,2048
296.054,-6.4336e-09,0,2048,2048
296.101,-5.88514e-09,0,2048,2048
296.153,-5.24635e-09,0,2048,2048
296.2,-4.66126e-09,0,2048,2048
296.253,-3.98677e-09,0,2048,2048
296.306,-3.29906e-09,0,2048,2048
296.352,-2.68031e-09,0,2048,2048
296.405,-1.98016e-09,0,2048,2048
296.452,-1.35798e-09,0,2048,2048
296.505,-6.62655e-10,0,2048,2048
296.552,-5.2479e-11,0,2048,2048
296.604,6.20693e-10,0,2048,2048
296.651,1.20356e-09,0,2048,2048
296.704,1.83761e-09,0,2048,2048
296.751,2.37846e-09,0,2048,2048
296.804,2.95757e-09,0,2048,2048
296.85,3.4434e-09,0,2048,2048
296.903,3.95471e-09,0,2048,2048
296.95,4.37614e-09,0,2048,2048
297.003,4.81153e-09,0,2048,2048
297.056,5.20444e-09,0,2048,2048
297.102,5.51671e-09,0,2048,2048
297.155,5.82513e-09,0,2048,2048
297.202,6.06088e-09,0,2048,2048
297.255,6.28388e-09,0,2048,2048
297.302,6.44647e-09,0,2048,2048
297.354,6.5922e-09,0,2048,2048
297.401,6.69129e-09,0,2048,2048
297.454,6.77145e-09,0,2048,2048
297.501,6.81725e-09,0,2048,2048
297.553,6.84285e-09,0,2048,2048
297.6,6.84487e-09,0,2048,2048
297.653,6.82647e-09,0,2048,2048
297.706,6.78896e-09,0,2048,2048
297.753,6.74182e-09,0,2048,2048
297.805,6.67569e-09,0,2048,2048
297.852,6.6072e-09,0,2048,2048
297.905,6.52136e-09,0,2048,2048
297.952,6.43894e-09,0,2048,2048
298.005,6.34114e-09,0,2048,2048
298.051,6.25111e-09,0,2048,2048
298.104,6.14784e-09,0,2048,2048
298.151,6.05542e-09,0,2048,2048
298.204,5.95193e-09,0,2048,2048
298.251,5.86126e-09,0,2048,2048
298.303,5.76169e-09,0,2048,2048
298.35,5.67606e-09,0,2048,2048
298.403,5.58368e-09,0,2048,2048
298.456,5.49618e-09,0,2048,2048
298.503,5.42293e-09,0,2048,2048
298.555,5.34603e-09,0,2048,2048
298.602,5.28276e-09,0,2048,2048
298.655,5.21743e-09,0,2048,2048
298.702,5.16452e-09,0,2048,2048
298.754,5.11061e-09,0,2048,2048
298.801,5.06739e-09,0,2048,2048
298.854,5.02361e-09,0,2048,2048
298.901,4.98848e-09,0,2048,2048
298.954,4.95256e-09,0,2048,2048
299.001,4.92317e-09,0,2048,2048
299.053,4.89218e-09,0,2048,2048
299.1,4.86578e-09,0,2048,2048
299.153,4.83656e-09,0,2048,2048
299.206,4.80708e-09,0,2048,2048
299.252,4.78007e-09,0,2048,2048
299.305,4.74826e-09,0,2048,2048
299.352,4.71836e-09,0,2048,2048
299.405,4.68264e-09,0,2048,2048
299.452,4.64893e-09,0,2048,2048
299.504,4.60884e-09,0,2048,2048
299.551,4.5714e-09,0,2048,2048
299.604,4.52747e-09,0,2048,2048
299.651,4.48711e-09,0,2048,2048
299.704,4.44057e-09,0,2048,2048
299.75,4.39854e-09,0,2048,2048
299.803,4.35093e-09,0,2048,2048
299.85,4.30866e-09,0,2048,2048
299.903,4.26158e-09,0,2048,2048
299.955,4.21541e-09,0,2048,2048
300.002,4.17547e-09,0,2048,2048
300.055,4.13215e-09,0,2048,2048
300.102,4.09535e-09,0,2048,2048
300.155,4.05617e-09,0,2048,2048
300.202,4.02354e-09,0,2048,2048
300.254,3.98949e-09,0,2048,2048
300.301,3.9617e-09,0,2048,2048
300.354,3.93325e-09,0,2048,2048
300.401,3.91044e-09,0,2048,2048
300.453,3.88745e-09,0,2048,2048
300.5,3.8692e-09,0,2048,2048
300.553,3.85088e-09,0,2048,2048
300.606,3.83455e-09,0,2048,2048
300.653,3.8214e-09,0,2048,2048
300.705,3.80777e-09,0,2048,2048
300.752,3.79638e-09,0,2048,2048
300.805,3.78404e-09,0,2048,2048
300.852,3.7732e-09,0,2048,2048
300.905,3.76089e-09,0,2048,2048
300.951,3.74964e-09,0,2048,2048
301.004,3.73643e-09,0,2048,2048
301.051,3.72408e-09,0,2048,2048
301.104,3.70938e-09,0,2048,2048
301.151,3.69555e-09,0,2048,2048
301.203,3.67909e-09,0,2048,2048
301.25,3.66365e-09,0,2048,2048
301.303,3.64537e-09,0,2048,2048
301.356,3.62615e-09,0,2048,2048
301.403,3.6083e-09,0,2048,2048
301.455,3.5874e-09,0,2048,2048
301.502,3.56812e-09,0,2048,2048
301.555,3.54565e-09,0,2048,2048
301.602,3.52503e-09,0,2048,2048
301.654,3.5011e-09,0,2048,2048
301.701,3.47918e-09,0,2048,2048
301.754,3.45381e-09,0,2048,2048
301.801,3.43062e-09,0,2048,2048
301.854,3.40379e-09,0,2048,2048
301.901,3.37928e-09,0,2048,2048
301.953,3.35097e-09,0,2048,2048
302,3.32516e-09,0,2048,2048
302.053,3.2954e-09,0,2048,2048
302.106,3.26491e-09,0,2048,2048
302.152,3.23724e-09,0,2048,2048
302.205,3.20552e-09,0,2048,2048
302.252,3.17686e-09,0,2048,2048
302.305,3.14416e-09,0,2048,2048
302.352,3.11474e-09,0,2048,2048
302.404,3.08133e-09,0,2048,2048
302.451,3.05141e-09,0,2048,2048
302.504,3.01756e-09,0,2048,2048
302.551,2.98735e-09,0,2048,2048
302.604,2.95326e-09,0,2048,2048
302.65,2.92291e-09,0,2048,2048
302.703,2.88871e-09,0,2048,2048
302.756,2.85447e-09,0,2048,2048
302.803,2.82401e-09,0,2048,2048
302.855,2.78968e-09,0,2048,2048
302.902,2.75911e-09,0,2048,2048
302.955,2.72462e-09,0,2048,2048
303.002,2.69385e-09,0,2048,2048
303.055,2.65908e-09,0,2048,2048
303.102,2.62799e-09,0,2048,2048
303.154,2.59279e-09,0,2048,2048
303.201,2.56126e-09,0,2048,2048
303.254,2.52549e-09,0,2048,2048
303.301,2.49339e-09,0,2048,2048
303.353,2.45692e-09,0,2048,2048
303.4,2.42416e-09,0,2048,2048
303.453,2.38689e-09,0,2048,2048
303.506,2.34916e-09,0,2048,2048
303.553,2.31523e-09,0,2048,2048
303.605,2.2766e-09,0,2048,2048
303.652,2.24186e-09,0,2048,2048
303.705,2.20231e-09,0,2048,2048
303.752,2.16676e-09,0,2048,2048
303.805,2.12631e-09,0,2048,2048
303.851,2.08996e-09,0,2048,2048
303.904,2.04866e-09,0,2048,2048
303.951,2.01159e-09,0,2048,2048
304.004,1.96952e-09,0,2048,2048
304.051,1.93182e-09,0,2048,2048
304.103,1.8891e-09,0,2048,2048
304.15,1.85089e-09,0,2048,2048
304.203,1.80768e-09,0,2048,2048
304.256,1.76427e-09,0,2048,2048
304.303,1.72557e-09,0,2048,2048
304.355,1.68195e-09,0,2048,2048
304.402,1.64315e-09,0,2048,2048
304.455,1.59953e-09,0,2048,2048
304.502,1.56081e-09,0,2048,2048
304.554,1.5174e-09,0,2048,2048
304.601,1.47897e-09,0,2048,2048
304.654,1.43597e-09,0,2048,2048
304.701,1.39802e-09,0,2048,2048
304.754,1.35566e-09,0,2048,2048
304.8,1.31837e-09,0,2048,2048
304.853,1.27686e-09,0,2048,2048
304.9,1.24039e-09,0,2048,2048
304.953,1.19991e-09,0,2048,2048
