250,0,0,512,512
250.012,0,0,512,512
250.059,0,0,512,512
250.105,0,0,512,512
250.152,0,0,512,512
250.211,0,0,512,512
250.258,0,0,512,512
250.305,0,0,512,512
250.352,0,0,512,512
250.41,0,0,512,512
250.457,0,0,512,512
250.504,0,0,512,512
250.551,0,0,512,512
250.609,0,0,512,512
250.656,0,0,512,512
250.703,0,0,512,512
250.762,0,0,512,512
250.808,0,0,512,512
250.855,0,0,512,512
250.902,0,0,512,512
250.961,0,0,512,512
251.008,0,0,512,512
251.055,0,0,512,512
251.101,0,0,512,512
251.16,0,0,512,512
251.207,0,0,512,512
251.254,0,0,512,512
251.301,0,0,512,512
251.359,0,0,512,512
251.406,0,0,512,512
251.453,0,0,512,512
251.511,0,0,512,512
251.558,0,0,512,512
251.605,0,0,512,512
251.652,0,0,512,512
251.711,0,0,512,512
251.758,0,0,512,512
251.804,0,0,512,512
251.851,0,0,512,512
251.91,0,0,512,512
251.957,0,0,512,512
252.004,0,0,512,512
252.05,0,0,512,512
252.109,0,0,512,512
252.156,0,0,512,512
252.203,0,0,512,512
252.261,0,0,512,512
252.308,0,0,512,512
252.355,0,0,512,512
252.402,0,0,512,512
252.461,0,0,512,512
252.507,0,0,512,512
252.554,0,0,512,512
252.601,0,0,512,512
252.66,0,0,512,512
252.707,0,0,512,512
252.754,0,0,512,512
252.8,0,0,512,512
252.859,0,0,512,512
252.906,0,0,512,512
252.953,0,0,512,512
253.011,0,0,512,512
253.058,0,0,512,512
253.105,0,0,512,512
253.152,0,0,512,512
253.21,0,0,512,512
253.257,0,0,512,512
253.304,0,0,512,512
253.351,0,0,512,512
253.41,0,0,512,512
253.457,0,0,512,512
253.503,0,0,512,512
253.55,0,0,512,512
253.609,0,0,512,512
253.656,0,0,512,512
253.703,0,0,512,512
253.761,0,0,512,512
253.808,0,0,512,512
253.855,0,0,512,512
253.902,0,0,512,512
253.96,0,0,512,512
254.007,0,0,512,512
254.054,0,0,512,512
254.101,0,0,512,512
254.16,0,0,512,512
254.206,0,0,512,512
254.253,0,0,512,512
254.3,0,0,512,512
254.359,0,0,512,512
254.406,0,0,512,512
254.452,0,0,512,512
254.511,0,0,512,512
254.558,0,0,512,512
254.605,0,0,512,512
254.652,0,0,512,512
254.71,0,0,512,512
254.757,0,0,512,512
254.804,0,0,512,512
254.851,0,0,512,512
254.909,0,0,512,512
254.956,0,0,512,512
255.003,0,0,512,512
255.05,0,0,512,512
255.109,0,0,512,512
255.155,0,0,512,512
255.202,0,0,512,512
255.261,0,0,512,512
255.308,0,0,512,512
255.355,0,0,512,512
255.402,0,0,512,512
255.46,0,0,512,512
255.507,0,0,512,512
255.554,0,0,512,512
255.601,0,0,512,512
255.659,0,0,512,512
255.706,0,0,512,512
255.753,0,0,512,512
255.812,0,0,512,512
255.859,0,0,512,512
255.905,0,0,512,512
255.952,0,0,512,512
256.011,0,0,512,512
256.058,0,0,512,512
256.105,0,0,512,512
256.151,0,0,512,512
256.21,0,0,512,512
256.257,0,0,512,512
256.304,0,0,512,512
256.351,0,0,512,512
256.409,0,0,512,512
256.456,0,0,512,512
256.503,0,0,512,512
256.562,0,0,512,512
256.608,0,0,512,512
256.655,0,0,512,512
256.702,0,0,512,512
256.761,0,0,512,512
256.808,0,0,512,512
256.854,0,0,512,512
256.901,0,0,512,512
256.96,0,0,512,512
257.007,0,0,512,512
257.054,0,0,512,512
257.101,0,0,512,512
257.159,0,0,512,512
257.206,0,0,512,512
257.253,0,0,512,512
257.311,0,0,512,512
257.358,0,0,512,512
257.405,0,0,512,512
257.452,0,0,512,512
257.511,0,0,512,512
257.557,0,0,512,512
257.604,0,0,512,512
257.651,0,0,512,512
257.71,0,0,512,512
257.757,0,0,512,512
257.804,0,0,512,512
257.85,2.77556e-17,0,512,512
257.909,2.77556e-17,0,512,512
257.956,2.77556e-17,0,512,512
258.003,2.77556e-17,0,512,512
258.061,2.77556e-17,0,512,512
258.108,2.77556e-17,0,512,512
258.155,2.77556e-17,0,512,512
258.202,2.77556e-17,0,512,512
258.261,2.77556e-17,0,512,512
258.307,2.77556e-17,0,512,512
258.354,2.77556e-17,0,512,512
258.401,2.77556e-17,0,512,512
258.46,2.77556e-17,0,512,512
258.507,2.77556e-17,0,512,512
258.553,2.77556e-17,0,512,512
258.6,2.77556e-17,0,512,512
258.659,2.77556e-17,0,512,512
258.706,2.77556e-17,0,512,512
258.753,2.77556e-17,0,512,512
258.811,2.77556e-17,0,512,512
258.858,2.77556e-17,0,512,512
258.905,2.77556e-17,0,512,512
258.952,0,0,512,512
259.01,0,0,512,512
259.057,0,0,512,512
259.104,0,0,512,512
259.151,2.77556e-17,0,512,512
259.21,2.77556e-17,0,512,512
259.256,2.77556e-17,0,512,512
259.303,2.77556e-17,0,512,512
259.35,2.77556e-17,0,512,512
259.409,2.77556e-17,0,512,512
259.456,2.77556e-17,0,512,512
259.503,2.77556e-17,0,512,512
259.561,2.77556e-17,0,512,512
259.608,2.77556e-17,0,512,512
259.655,2.77556e-17,0,512,512
259.702,2.77556e-17,0,512,512
259.76,2.77556e-17,0,512,512
259.807,2.77556e-17,0,512,512
259.854,2.77556e-17,0,512,512
259.901,2.77556e-17,0,512,512
259.959,2.77556e-17,0,512,512
260.006,2.77556e-17,0,512,512
260.053,2.77556e-17,0,512,512
260.1,2.77556e-17,0,512,512
260.159,2.77556e-17,0,512,512
260.206,0,0,512,512
260.252,0,0,512,512
260.311,0,0,512,512
260.358,0,0,512,512
260.405,0,0,512,512
260.452,0,0,512,512
260.51,0,0,512,512
260.557,0,0,512,512
260.604,0,0,512,512
260.651,0,0,512,512
260.709,0,0,512,512
260.756,0,0,512,512
260.803,0,0,512,512
260.862,0,0,512,512
260.909,0,0,512,512
260.955,0,0,512,512
261.002,0,0,512,512
261.061,0,0,512,512
261.108,0,0,512,512
261.155,0,0,512,512
261.201,0,0,512,512
261.26,0,0,512,512
261.307,0,0,512,512
261.354,0,0,512,512
261.401,0,0,512,512
261.459,0,0,512,512
261.506,0,0,512,512
261.553,0,0,512,512
261.612,0,0,512,512
261.658,0,0,512,512
261.705,0,0,512,512
261.752,0,0,512,512
261.811,0,0,512,512
261.858,0,0,512,512
261.905,0,0,512,512
261.951,0,0,512,512
262.01,0,0,512,512
262.057,0,0,512,512
262.104,0,0,512,512
262.151,0,0,512,512
262.209,0,0,512,512
262.256,0,0,512,512
262.303,0,0,512,512
262.361,0,0,512,512
262.408,0,0,512,512
262.455,0,0,512,512
262.502,0,0,512,512
262.561,0,0,512,512
262.608,0,0,512,512
262.654,0,0,512,512
262.701,0,0,512,512
262.76,0,0,512,512
262.807,0,0,512,512
262.854,0,0,512,512
262.9,0,0,512,512
262.959,0,0,512,512
263.006,0,0,512,512
263.053,0,0,512,512
263.111,-2.77556e-17,0,512,512
263.158,-2.77556e-17,0,512,512
263.205,-2.77556e-17,0,512,512
263.252,-2.77556e-17,0,512,512
263.311,-2.77556e-17,0,512,512
263.357,-2.77556e-17,0,512,512
263.404,-2.77556e-17,0,512,512
263.451,-2.77556e-17,0,512,512
263.51,-2.77556e-17,0,512,512
263.557,-2.77556e-17,0,512,512
263.603,-2.77556e-17,0,512,512
263.65,-2.77556e-17,0,512,512
263.709,-2.77556e-17,0,512,512
263.756,-2.77556e-17,0,512,512
263.803,-2.77556e-17,0,512,512
263.861,-2.77556e-17,0,512,512
263.908,-2.77556e-17,0,512,512
263.955,-2.77556e-17,0,512,512
264.002,-2.77556e-17,0,512,512
264.06,-2.77556e-17,0,512,512
264.107,-2.77556e-17,0,512,512
264.154,-2.77556e-17,0,512,512
264.201,-2.77556e-17,0,512,512
264.26,-2.77556e-17,0,512,512
264.306,-2.77556e-17,0,512,512
264.353,-2.77556e-17,0,512,512
264.4,-2.77556e-17,0,512,512
264.459,0,0,512,512
264.506,0,0,512,512
264.553,0,0,512,512
264.611,0,0,512,512
264.658,0,0,512,512
264.705,0,0,512,512
264.752,0,0,512,512
264.81,0,0,512,512
264.857,0,0,512,512
264.904,0,0,512,512
264.951,0,0,512,512
265.01,0,0,512,512
265.056,0,0,512,512
265.103,0,0,512,512
265.15,0,0,512,512
265.209,0,0,512,512
265.256,0,0,512,512
265.302,0,0,512,512
265.361,0,0,512,512
265.408,0,0,512,512
265.455,0,0,512,512
265.502,0,0,512,512
265.56,0,0,512,512
265.607,0,0,512,512
265.654,0,0,512,512
265.701,0,0,512,512
265.759,0,0,512,512
265.806,0,0,512,512
265.853,0,0,512,512
265.9,0,0,512,512
265.959,0,0,512,512
266.005,0,0,512,512
266.052,0,0,512,512
266.111,0,0,512,512
266.158,0,0,512,512
266.205,0,0,512,512
266.252,0,0,512,512
266.31,0,0,512,512
266.357,0,0,512,512
266.404,0,0,512,512
266.451,0,0,512,512
266.509,0,0,512,512
266.556,0,0,512,512
266.603,0,0,512,512
266.662,0,0,512,512
266.708,0,0,512,512
266.755,0,0,512,512
266.802,0,0,512,512
266.861,0,0,512,512
266.908,0,0,512,512
266.955,0,0,512,512
267.001,0,0,512,512
267.06,0,0,512,512
267.107,0,0,512,512
267.154,0,0,512,512
267.201,0,0,512,512
267.259,0,0,512,512
267.306,0,0,512,512
267.353,0,0,512,512
267.412,0,0,512,512
267.458,0,0,512,512
267.505,0,0,512,512
267.552,2.77556e-17,0,512,512
267.611,2.77556e-17,0,512,512
267.658,2.77556e-17,0,512,512
267.704,2.77556e-17,0,512,512
267.751,2.77556e-17,0,512,512
267.81,2.77556e-17,0,512,512
267.857,2.77556e-17,0,512,512
267.904,2.77556e-17,0,512,512
267.95,2.77556e-17,0,512,512
268.009,2.77556e-17,0,512,512
268.056,2.77556e-17,0,512,512
268.101,2.77556e-17,0,623,623
268.15,2.77556e-17,0,683,683
268.2,2.77556e-17,0,743,743
268.253,2.77556e-17,0,803,803
268.303,2.77556e-17,0,863,863
268.353,2.77556e-17,0,923,923
268.402,2.77556e-17,0,983,983
268.452,2.77556e-17,0,1031,1031
268.502,2.77556e-17,0,1091,1091
268.552,2.77556e-17,0,1151,1151
268.601,2.77556e-17,0,1211,1211
268.651,2.77556e-17,0,1253,1253
268.701,2.77556e-17,0,1313,1313
268.751,2.77556e-17,0,1373,1373
268.801,2.77556e-17,0,1427,1427
268.85,2.77556e-17,0,1481,1481
268.9,2.77556e-17,0,1541,1541
268.95,2.77556e-17,0,1585,1585
269.003,2.77556e-17,0,1645,1645
269.053,2.77556e-17,0,1695,1695
269.102,2.77556e-17,0,1753,1753
269.152,2.77556e-17,0,1811,1811
269.202,2.77556e-17,0,1859,1859
269.252,2.77556e-17,0,1909,1909
269.302,2.77556e-17,0,1955,1955
269.351,2.77556e-17,0,2001,2001
269.401,2.77556e-17,0,2057,2057
269.451,2.77556e-17,0,2117,2117
269.501,2.77556e-17,0,2155,2155
269.551,2.77556e-17,0,2213,2213
269.6,2.77556e-17,0,2273,2273
269.65,2.77556e-17,0,2321,2321
269.703,2.77556e-17,0,2381,2381
269.753,2.77556e-17,0,2441,2441
269.802,2.77556e-17,0,2501,2501
269.852,2.77556e-17,0,2543,2543
269.902,2.77556e-17,0,2603,2603
269.952,2.77556e-17,0,2663,2663
270.002,2.77556e-17,0,2711,2711
270.051,2.77556e-17,0,2771,2771
270.101,2.77556e-17,0,2815,2815
270.151,2.77556e-17,0,2873,2873
270.201,2.77556e-17,0,2927,2927
270.251,2.77556e-17,0,2981,2981
270.3,2.77556e-17,0,3041,3041
270.35,2.77556e-17,0,3083,3083
270.4,2.77556e-17,0,3143,3143
270.453,2.77556e-17,0,3193,3193
270.503,2.77556e-17,0,3251,3251
270.552,2.77556e-17,0,3295,3295
270.602,2.77556e-17,0,3353,3353
270.652,2.77556e-17,0,3403,3403
270.702,2.77556e-17,0,3461,3461
270.752,2.77556e-17,0,3503,3503
270.801,2.77556e-17,0,3553,3553
270.851,2.77556e-17,0,3611,3611
270.901,2.77556e-17,0,3655,3655
270.951,2.77556e-17,0,3713,3713
271.001,2.77556e-17,0,3761,3761
271.05,2.77556e-17,0,3805,3805
271.1,2.77556e-17,0,3857,3857
271.153,2.77556e-17,0,3911,3911
271.203,2.77556e-17,0,3955,3955
271.252,2.77556e-17,0,4013,4013
271.302,2.77556e-17,0,4061,4061
271.352,2.77556e-17,0,4109,4109
271.402,2.77556e-17,0,4151,4151
271.452,2.77556e-17,0,4207,4207
271.501,2.77556e-17,0,4255,4255
271.551,2.77556e-17,0,4301,4301
271.601,2.77556e-17,0,4353,4353
271.651,2.77556e-17,0,4391,4391
271.701,2.77556e-17,0,4443,4443
271.75,2.77556e-17,0,4495,4495
271.8,2.77556e-17,0,4541,4541
271.85,2.77556e-17,0,4589,4589
271.903,2.77556e-17,0,4631,4631
271.953,2.77556e-17,0,4683,4683
272.002,2.77556e-17,0,4725,4725
272.052,2.77556e-17,0,4773,4773
272.102,2.77556e-17,0,4821,4821
272.152,2.77556e-17,0,4863,4863
272.202,2.77556e-17,0,4911,4911
272.251,2.77556e-17,0,4961,4961
272.301,2.77556e-17,0,5005,5005
272.351,2.77556e-17,0,5043,5043
272.401,2.77556e-17,0,5095,5095
272.451,2.77556e-17,0,5137,5137
272.5,2.77556e-17,0,5185,5185
272.55,2.77556e-17,0,5223,5223
272.603,2.77556e-17,0,5275,5275
272.653,2.77556e-17,0,5313,5313
272.702,2.77556e-17,0,5363,5363
272.752,1.66533e-16,0,5403,5403
272.802,5.27356e-16,0,5443,5443
272.852,9.99201e-16,0,5489,5489
272.902,1.41553e-15,0,5533,5533
272.951,1.88738e-15,0,5583,5583
273.001,2.33147e-15,0,5621,5621
273.051,2.7478e-15,0,5669,5669
273.101,3.02536e-15,0,5703,5703
273.151,3.08087e-15,0,5743,5743
273.2,3.19189e-15,0,5789,5789
273.25,3.2474e-15,0,5837,5837
273.3,3.35842e-15,0,5883,5883
273.353,3.35842e-15,0,5923,5923
273.403,3.27516e-15,0,5969,5969
273.452,2.38698e-15,0,6003,6003
273.502,-4.16334e-16,0,6045,6045
273.552,-6.77236e-15,0,6089,6089
273.602,-1.93456e-14,0,6137,6137
273.652,-4.19387e-14,0,6183,6183
273.701,-7.98805e-14,0,6223,6223
273.751,-1.40082e-13,0,6263,6263
273.801,-2.31148e-13,0,6303,6303
273.851,-3.63348e-13,0,6343,6343
273.901,-5.47729e-13,0,6389,6389
273.95,-8.35942e-13,0,6425,6425
274,-1.5089e-12,0,6463,6463
274.053,-4.45885e-12,0,6509,6509
274.103,-1.42547e-11,0,6557,6557
274.152,-3.53322e-11,0,6603,6603
274.202,-7.17568e-11,0,6635,6635
274.252,-1.21706e-10,0,6679,6679
274.302,-1.72945e-10,0,6723,6723
274.352,-2.0467e-10,0,6763,6763
274.401,-1.97507e-10,0,6805,6805
274.451,-1.46609e-10,0,6843,6843
274.501,-6.78222e-11,0,6883,6883
274.551,9.73396e-12,0,6929,6929
274.601,6.07344e-11,0,6969,6969
274.65,7.82705e-11,0,7003,7003
274.7,7.53662e-11,0,7049,7049
274.753,7.27484e-11,0,7097,7097
274.803,8.27982e-11,0,7131,7131
274.853,1.0068e-10,0,7171,7171
274.902,1.13417e-10,0,7217,7217
274.952,1.12745e-10,0,7255,7255
275.002,1.02615e-10,0,7291,7291
275.052,9.50734e-11,0,7337,7337
275.102,9.91877e-11,0,7371,7371
275.151,1.13228e-10,0,7395,7395
275.201,1.26523e-10,0,7449,7449
275.251,1.2882e-10,0,7495,7495
275.301,1.19047e-10,0,7531,7531
275.35,1.06387e-10,0,7577,7577
275.4,1.02947e-10,0,7611,7611
275.45,1.13569e-10,0,7651,7651
275.503,1.31581e-10,0,7697,7697
275.553,1.39271e-10,0,7731,7731
275.602,1.28858e-10,0,7769,7769
275.652,1.08333e-10,0,7803,7803
275.702,9.85803e-11,0,7835,7835
275.752,1.14344e-10,0,7877,7877
275.802,1.46997e-10,0,7903,7903
275.851,1.75687e-10,0,7937,7937
275.901,2.18262e-10,0,7967,7967
275.951,3.9685e-10,0,8003,8003
276.001,9.63761e-10,0,8039,8039
276.051,2.2439e-09,0,8065,8065
276.1,4.50304e-09,0,8101,8101
276.15,7.80982e-09,0,8130,8130
276.203,1.22406e-08,0,8158,8158
276.253,1.69009e-08,0,8176,8176
276.302,2.16094e-08,0,8192,8192
276.352,2.61299e-08,0,8192,8192
276.402,3.05177e-08,0,8192,8192
276.452,3.51277e-08,0,8192,8192
276.502,4.05116e-08,0,8192,8192
276.551,4.72646e-08,0,8192,8192
276.601,5.59065e-08,0,8168,8168
276.651,6.68588e-08,0,8160,8160
276.701,8.05162e-08,0,8156,8156
276.751,9.73497e-08,0,8160,8160
276.8,1.17954e-07,0,8164,8164
276.85,1.42986e-07,0,8176,8176
276.9,1.73014e-07,0,8184,8184
276.953,2.10569e-07,0,8168,8168
277.003,2.51359e-07,0,8192,8192
277.052,2.96827e-07,0,8192,8192
277.102,3.46289e-07,0,8192,8192
277.152,3.99067e-07,0,8192,8192
277.202,4.54584e-07,0,8192,8192
277.252,5.12269e-07,0,8192,8192
277.301,5.71314e-07,0,8192,8192
277.351,6.30444e-07,0,8192,8192
277.401,6.87866e-07,0,8192,8192
277.451,7.41477e-07,0,8192,8192
277.501,7.89251e-07,0,8184,8184
277.55,8.29644e-07,0,8184,8184
277.6,8.61867e-07,0,8184,8184
277.653,8.871e-07,0,8168,8168
277.703,9.03213e-07,0,8176,8176
277.752,9.12791e-07,0,8150,8150
277.802,9.16729e-07,0,8186,8186
277.852,9.15619e-07,0,8192,8192
277.902,9.09633e-07,0,8156,8156
277.952,8.98545e-07,0,8184,8184
278.001,8.81863e-07,0,8192,8192
278.051,8.59034e-07,0,8192,8192
278.101,8.29674e-07,0,8192,8192
278.151,7.93788e-07,0,8192,8192
278.201,7.51924e-07,0,8192,8192
278.25,7.05197e-07,0,8192,8192
278.3,6.5516e-07,0,8192,8192
278.35,6.03566e-07,0,8192,8192
278.403,5.49084e-07,0,8192,8192
278.453,4.99168e-07,0,8192,8192
278.502,4.51644e-07,0,8192,8192
278.552,4.06936e-07,0,8192,8192
278.602,3.65124e-07,0,8192,8192
278.652,3.26101e-07,0,8192,8192
278.702,2.89753e-07,0,8192,8192
278.751,2.56088e-07,0,8192,8192
278.801,2.25288e-07,0,8192,8192
278.851,1.97626e-07,0,8192,8192
278.901,1.73288e-07,0,8192,8192
278.951,1.52191e-07,0,8192,8192
279,1.33926e-07,0,8192,8192
279.05,1.17868e-07,0,8192,8192
279.103,1.02613e-07,0,8192,8192
279.153,8.95015e-08,0,8192,8192
279.202,7.76291e-08,0,8192,8192
279.252,6.71745e-08,0,8192,8192
279.302,5.82937e-08,0,8192,8192
279.352,5.09438e-08,0,8192,8192
279.402,4.48387e-08,0,8192,8192
279.451,3.95513e-08,0,8192,8192
279.501,3.47004e-08,0,8192,8192
279.551,3.01175e-08,0,8192,8192
279.601,2.59053e-08,0,8192,8192
279.651,2.23592e-08,0,8184,8184
279.7,1.98004e-08,0,8184,8184
279.75,1.84187e-08,0,8192,8192
279.8,1.82024e-08,0,8192,8192
279.853,1.90455e-08,0,8192,8192
279.903,2.05948e-08,0,8192,8192
279.952,2.26472e-08,0,8192,8192
280.002,2.5046e-08,0,8192,8192
280.052,2.76976e-08,0,8192,8192
280.102,3.05477e-08,0,8192,8192
280.152,3.35626e-08,0,8184,8184
280.201,3.67242e-08,0,8184,8184
280.251,4.003e-08,0,8192,8192
280.301,4.34905e-08,0,8192,8192
280.351,4.71183e-08,0,8192,8192
280.401,5.09179e-08,0,8192,8192
280.45,5.48836e-08,0,8192,8192
280.5,5.90069e-08,0,8192,8192
280.553,6.35465e-08,0,8192,8192
280.603,6.8022e-08,0,8192,8192
280.652,7.27276e-08,0,8184,8184
280.702,7.77273e-08,0,8192,8192
280.752,8.30869e-08,0,8192,8192
280.802,8.88547e-08,0,8176,8176
280.852,9.50449e-08,0,8192,8192
280.901,1.01631e-07,0,8184,8184
280.951,1.08552e-07,0,8192,8192
281.001,1.15741e-07,0,8192,8192
281.051,1.23151e-07,0,8184,8184
281.101,1.30797e-07,0,8184,8184
281.15,1.38775e-07,0,8184,8184
281.2,1.47274e-07,0,8188,8188
281.25,1.56568e-07,0,8172,8172
281.303,1.67662e-07,0,8192,8192
281.353,1.79736e-07,0,8170,8170
281.402,1.93791e-07,0,8192,8192
281.452,2.10257e-07,0,8176,8176
281.502,2.29545e-07,0,8188,8188
281.552,2.52021e-07,0,8180,8180
281.602,2.77975e-07,0,8192,8192
281.651,3.07583e-07,0,8168,8168
281.701,3.4088e-07,0,8192,8192
281.751,3.77742e-07,0,8162,8162
281.801,4.17885e-07,0,8160,8160
281.851,4.60865e-07,0,8164,8164
281.9,5.06087e-07,0,8160,8160
281.95,5.52805e-07,0,8152,8152
282.003,6.02907e-07,0,8152,8152
282.053,6.4973e-07,0,8142,8142
282.102,6.94891e-07,0,8144,8144
282.152,7.37177e-07,0,8144,8144
282.202,7.75404e-07,0,8146,8146
282.252,8.08521e-07,0,8144,8144
282.302,8.35705e-07,0,8144,8144
282.351,8.56415e-07,0,8144,8144
282.401,8.70411e-07,0,8140,8140
282.451,8.77711e-07,0,8144,8144
282.501,8.78515e-07,0,8136,8136
282.551,8.73111e-07,0,8144,8144
282.6,8.61789e-07,0,8136,8136
282.65,8.44786e-07,0,8136,8136
282.703,8.20786e-07,0,8136,8136
282.753,7.92602e-07,0,8136,8136
282.803,7.59233e-07,0,8136,8136
282.852,7.20957e-07,0,8136,8136
282.902,6.78219e-07,0,8136,8136
282.952,6.31668e-07,0,8136,8136
283.002,5.82142e-07,0,8136,8136
283.052,5.30631e-07,0,8136,8136
283.101,4.7819e-07,0,8136,8136
283.151,4.2586e-07,0,8136,8136
283.201,3.74578e-07,0,8136,8136
283.251,3.25125e-07,0,8136,8136
283.3,2.78098e-07,0,8160,8160
283.35,2.3392e-07,0,8188,8188
283.4,1.92865e-07,0,8192,8192
283.453,1.5298e-07,0,8192,8192
283.503,1.18782e-07,0,8192,8192
283.552,8.79736e-08,0,8192,8192
283.602,6.05099e-08,0,8192,8192
283.652,3.6284e-08,0,8192,8192
283.702,1.51259e-08,0,8192,8192
283.752,-3.1864e-09,0,8192,8192
283.801,-1.89043e-08,0,8192,8192
283.851,-3.22816e-08,0,8192,8192
283.901,-4.35527e-08,0,8192,8192
283.951,-5.29231e-08,0,8192,8192
284.001,-6.05737e-08,0,8192,8192
284.05,-6.66738e-08,0,8192,8192
284.1,-7.13921e-08,0,8192,8192
284.153,-7.50724e-08,0,8192,8192
284.203,-7.74788e-08,0,8192,8192
284.253,-7.89924e-08,0,8192,8192
284.302,-7.97215e-08,0,8192,8192
284.352,-7.97368e-08,0,8192,8192
284.402,-7.90801e-08,0,8192,8192
284.452,-7.77828e-08,0,8192,8192
284.501,-7.58856e-08,0,8192,8192
284.551,-7.34538e-08,0,8192,8192
284.601,-7.05814e-08,0,8192,8192
284.651,-6.73863e-08,0,8192,8192
284.701,-6.39978e-08,0,8192,8192
284.75,-6.05426e-08,0,8192,8192
284.8,-5.71324e-08,0,8192,8192
284.85,-5.38565e-08,0,8192,8192
284.903,-5.0605e-08,0,8192,8192
284.953,-4.77804e-08,0,8192,8192
285.002,-4.52147e-08,0,8192,8192
285.052,-4.29118e-08,0,8192,8192
285.102,-4.08663e-08,0,8192,8192
285.152,-3.90675e-08,0,8192,8192
285.202,-3.75023e-08,0,8192,8192
285.251,-3.61574e-08,0,8192,8192
285.301,-3.50193e-08,0,8192,8192
285.351,-3.40747e-08,0,8192,8192
285.401,-3.33097e-08,0,8192,8192
285.451,-3.27097e-08,0,8192,8192
285.5,-3.22592e-08,0,8192,8192
285.55,-3.19417e-08,0,8192,8192
285.603,-3.17324e-08,0,8192,8192
285.653,-3.1637e-08,0,8192,8192
285.702,-3.16251e-08,0,8192,8192
285.752,-3.16819e-08,0,8192,8192
285.802,-3.17939e-08,0,8192,8192
285.852,-3.19493e-08,0,8192,8192
285.902,-3.21374e-08,0,8192,8192
285.951,-3.23492e-08,0,8192,8192
286.001,-3.25769e-08,0,8192,8192
286.051,-3.2814e-08,0,8192,8192
286.101,-3.30548e-08,0,8192,8192
286.151,-3.32947e-08,0,8192,8192
286.2,-3.35299e-08,0,8192,8192
286.25,-3.37572e-08,0,8192,8192
286.3,-3.39743e-08,0,8192,8192
286.353,-3.41905e-08,0,8192,8192
286.403,-3.43802e-08,0,8192,8192
286.452,-3.45543e-08,0,8192,8192
286.502,-3.47116e-08,0,8192,8192
286.552,-3.48511e-08,0,8192,8192
286.602,-3.49721e-08,0,8192,8192
286.652,-3.50738e-08,0,8192,8192
286.701,-3.51562e-08,0,8192,8192
286.751,-3.52193e-08,0,8192,8192
286.801,-3.52636e-08,0,8192,8192
286.851,-3.52898e-08,0,8192,8192
286.901,-3.52992e-08,0,8192,8192
286.95,-3.52931e-08,0,8192,8192
287,-3.52732e-08,0,8192,8192
287.053,-3.5239e-08,0,8192,8192
287.103,-3.51961e-08,0,8192,8192
287.152,-3.51448e-08,0,8192,8192
287.202,-3.50871e-08,0,8192,8192
287.252,-3.50244e-08,0,8192,8192
287.302,-3.49584e-08,0,8192,8192
287.352,-3.48905e-08,0,8192,8192
287.401,-3.48219e-08,0,8192,8192
287.451,-3.4754e-08,0,8192,8192
287.501,-3.46876e-08,0,8192,8192
287.551,-3.46237e-08,0,8192,8192
287.601,-3.45633e-08,0,8192,8192
287.65,-3.45068e-08,0,8192,8192
287.7,-3.4455e-08,0,8192,8192
287.75,-3.44084e-08,0,8192,8192
287.803,-3.43652e-08,0,8192,8192
287.853,-3.43306e-08,0,8192,8192
287.902,-3.43023e-08,0,8192,8192
287.952,-3.42804e-08,0,8192,8192
288.002,-3.42653e-08,0,8192,8192
288.052,-3.42571e-08,0,8192,8192
288.102,-3.42559e-08,0,8192,8192
288.151,-3.42617e-08,0,8192,8192
288.201,-3.42746e-08,0,8192,8192
288.251,-3.42946e-08,0,8192,8192
288.301,-3.43218e-08,0,8192,8192
288.351,-3.43561e-08,0,8192,8192
288.4,-3.43977e-08,0,8192,8192
288.45,-3.44465e-08,0,8192,8192
288.503,-3.45063e-08,0,8192,8192
288.553,-3.45707e-08,0,8192,8192
288.602,-3.46431e-08,0,8192,8192
288.652,-3.4724e-08,0,8192,8192
288.702,-3.48141e-08,0,8192,8192
288.752,-3.49143e-08,0,8192,8192
288.802,-3.50255e-08,0,8192,8192
288.851,-3.51489e-08,0,8192,8192
288.901,-3.52857e-08,0,8192,8192
288.951,-3.54372e-08,0,8192,8192
289.001,-3.56049e-08,0,8192,8192
289.051,-3.57899e-08,0,8192,8192
289.1,-3.59934e-08,0,8192,8192
289.15,-3.62165e-08,0,8192,8192
289.2,-3.64597e-08,0,8192,8192
289.253,-3.67395e-08,0,8192,8192
289.303,-3.70248e-08,0,8192,8192
289.352,-3.733e-08,0,8192,8192
289.402,-3.7654e-08,0,8192,8192
289.452,-3.79951e-08,0,8192,8192
289.502,-3.83512e-08,0,8192,8192
289.552,-3.87199e-08,0,8192,8192
289.601,-3.9098e-08,0,8192,8192
289.651,-3.94821e-08,0,8192,8192
289.701,-3.98688e-08,0,8192,8192
289.751,-4.0254e-08,0,8192,8192
289.8,-4.0634e-08,0,8192,8192
289.85,-4.10047e-08,0,8192,8192
289.9,-4.13623e-08,0,8192,8192
289.953,-4.17223e-08,0,8192,8192
290.003,-4.20411e-08,0,8192,8192
290.052,-4.23355e-08,0,8192,8192
290.102,-4.26024e-08,0,8192,8192
290.152,-4.28389e-08,0,8192,8192
290.202,-4.30423e-08,0,8192,8192
290.252,-4.32103e-08,0,8192,8192
290.301,-4.3341e-08,0,8192,8192
290.351,-4.34328e-08,0,8192,8192
290.401,-4.34847e-08,0,8192,8192
290.451,-4.34958e-08,0,8192,8192
290.501,-4.34657e-08,0,8192,8192
290.55,-4.33941e-08,0,8192,8192
290.6,-4.32811e-08,0,8192,8192
290.653,-4.31163e-08,0,8144,8144
290.703,-4.29182e-08,0,8192,8192
290.753,-4.2679e-08,0,8192,8192
290.802,-4.23988e-08,0,8192,8192
290.852,-4.20776e-08,0,8192,8192
290.902,-4.17152e-08,0,8192,8192
290.952,-4.13116e-08,0,8192,8192
291.001,-4.08678e-08,0,8192,8192
291.051,-4.03825e-08,0,8192,8192
291.101,-3.98562e-08,0,8184,8184
291.151,-3.929e-08,0,8192,8192
291.201,-3.86845e-08,0,8192,8192
291.25,-3.80411e-08,0,8192,8192
291.3,-3.73616e-08,0,8192,8192
291.35,-3.66484e-08,0,8192,8192
291.403,-3.58597e-08,0,8192,8192
291.453,-3.50869e-08,0,8192,8192
291.502,-3.42909e-08,0,8192,8192
291.552,-3.34762e-08,0,8192,8192
291.602,-3.26476e-08,0,8192,8192
291.652,-3.18101e-08,0,8192,8192
291.702,-3.09686e-08,0,8192,8192
291.751,-3.01283e-08,0,8192,8192
291.801,-2.92941e-08,0,8192,8192
291.851,-2.8471e-08,0,8192,8192
291.901,-2.76636e-08,0,8192,8192
291.951,-2.68764e-08,0,8192,8192
292,-2.61135e-08,0,8192,8192
292.05,-2.53786e-08,0,8192,8192
292.103,-2.4635e-08,0,8192,8192
292.153,-2.39682e-08,0,8192,8192
292.202,-2.33386e-08,0,8192,8192
292.252,-2.27481e-08,0,8192,8192
292.302,-2.21978e-08,0,8192,8192
292.352,-2.16886e-08,0,8192,8192
292.402,-2.12205e-08,0,8176,8176
292.451,-2.0793e-08,0,8144,8144
292.501,-2.04052e-08,0,8144,8144
292.551,-2.00555e-08,0,8128,8128
292.601,-1.9742e-08,0,8132,8132
292.651,-1.94626e-08,0,8164,8164
292.7,-1.92149e-08,0,8160,8160
292.75,-1.89964e-08,0,8160,8160
292.8,-1.88042e-08,0,8168,8168
292.853,-1.86267e-08,0,8176,8176
292.903,-1.84807e-08,0,8160,8160
292.952,-1.83532e-08,0,8152,8152
293.002,-1.82416e-08,0,8152,8152
293.052,-1.81437e-08,0,8152,8152
293.102,-1.80573e-08,0,8144,8144
293.152,-1.79805e-08,0,8152,8152
293.201,-1.79115e-08,0,8152,8152
293.251,-1.78487e-08,0,8152,8152
293.301,-1.77907e-08,0,8152,8152
293.351,-1.7736e-08,0,8136,8136
293.401,-1.76836e-08,0,8160,8160
293.45,-1.76322e-08,0,8144,8144
293.5,-1.75807e-08,0,8144,8144
293.553,-1.75248e-08,0,8160,8160
293.603,-1.74694e-08,0,8168,8168
293.652,-1.74102e-08,0,8160,8160
293.702,-1.73463e-08,0,8168,8168
293.752,-1.72763e-08,0,8160,8160
293.802,-1.71994e-08,0,8160,8160
293.852,-1.71148e-08,0,8160,8160
293.901,-1.70217e-08,0,8172,8172
293.951,-1.69198e-08,0,8188,8188
294.001,-1.6809e-08,0,8192,8192
294.051,-1.66895e-08,0,8192,8192
294.101,-1.65617e-08,0,8192,8192
294.15,-1.64263e-08,0,8192,8192
294.2,-1.62842e-08,0,8192,8192
294.25,-1.61366e-08,0,8192,8192
294.303,-1.59756e-08,0,8192,8192
294.353,-1.58204e-08,0,8192,8192
294.402,-1.56637e-08,0,8192,8192
294.452,-1.55064e-08,0,8192,8192
294.502,-1.53497e-08,0,8192,8192
294.552,-1.51943e-08,0,8192,8192
294.602,-1.50406e-08,0,8192,8192
294.651,-1.48886e-08,0,8192,8192
294.701,-1.47382e-08,0,8192,8192
294.751,-1.45884e-08,0,8192,8192
294.801,-1.44383e-08,0,8192,8192
294.851,-1.42866e-08,0,8192,8192
294.9,-1.41321e-08,0,8192,8192
294.95,-1.39732e-08,0,8192,8192
295.003,-1.37988e-08,0,8192,8192
295.053,-1.3627e-08,0,8192,8192
295.102,-1.34471e-08,0,8192,8192
295.152,-1.32581e-08,0,8192,8192
295.202,-1.30588e-08,0,8192,8192
295.252,-1.28479e-08,0,8192,8192
295.302,-1.26239e-08,0,8192,8192
295.351,-1.23852e-08,0,8192,8192
295.401,-1.21298e-08,0,8192,8192
295.451,-1.18556e-08,0,8192,8192
295.501,-1.15607e-08,0,8192,8192
295.551,-1.12429e-08,0,8192,8192
295.6,-1.09004e-08,0,8192,8192
295.65,-1.05315e-08,0,8192,8192
295.7,-1.01351e-08,0,8192,8192
295.753,-9.68423e-09,0,8192,8192
295.803,-9.22866e-09,0,8192,8192
295.852,-8.74413e-09,0,8192,8192
295.902,-8.23105e-09,0,8192,8192
295.952,-7.69029e-09,0,8192,8192
296.002,-7.12315e-09,0,8192,8192
296.052,-6.5314e-09,0,8192,8192
296.101,-5.91726e-09,0,8192,8192
296.151,-5.28337e-09,0,8192,8192
296.201,-4.63282e-09,0,8192,8192
296.251,-3.96901e-09,0,8192,8192
296.301,-3.29568e-09,0,8192,8192
296.35,-2.61679e-09,0,8192,8192
296.4,-1.93647e-09,0,8192,8192
296.453,-1.21927e-09,0,8192,8192
296.503,-5.49304e-10,0,8192,8192
296.552,1.09216e-10,0,8192,8192
296.602,7.52232e-10,0,8192,8192
296.652,1.37586e-09,0,8192,8192
296.702,1.97643e-09,0,8192,8192
296.752,2.55056e-09,0,8192,8192
296.801,3.09517e-09,0,8192,8192
296.851,3.60752e-09,0,8192,8192
296.901,4.08527e-09,0,8192,8192
296.951,4.52649e-09,0,8192,8192
297.001,4.92969e-09,0,8192,8192
297.05,5.29387e-09,0,8192,8192
297.1,5.61854e-09,0,8192,8192
297.15,5.90369e-09,0,8192,8192
297.203,6.16313e-09,0,8192,8192
297.253,6.36907e-09,0,8192,8192
297.302,6.53851e-09,0,8184,8184
297.352,6.67329e-09,0,8192,8192
297.402,6.77553e-09,0,8192,8192
297.452,6.84762e-09,0,8192,8192
297.502,6.89209e-09,0,8192,8192
297.551,6.91157e-09,0,8192,8192
297.601,6.90874e-09,0,8192,8192
297.651,6.88624e-09,0,8192,8192
297.701,6.84664e-09,0,8192,8192
297.751,6.79242e-09,0,8192,8192
297.8,6.72592e-09,0,8192,8192
297.85,6.64933e-09,0,8192,8192
297.903,6.55949e-09,0,8192,8192
297.953,6.46831e-09,0,8192,8192
298.002,6.37273e-09,0,8192,8192
298.052,6.27428e-09,0,8192,8192
298.102,6.17436e-09,0,8126,8126
298.152,6.07426e-09,0,8188,8188
298.202,5.97517e-09,0,8192,8192
298.251,5.87818e-09,0,8192,8192
298.301,5.7843e-09,0,8192,8192
298.351,5.69448e-09,0,8192,8192
298.401,5.60955e-09,0,8192,8192
298.451,5.53026e-09,0,8192,8192
298.5,5.4572e-09,0,8192,8192
298.55,5.39085e-09,0,8192,8192
298.603,5.32819e-09,0,8192,8192
298.653,5.27627e-09,0,8192,8192
298.703,5.23124e-09,0,8192,8192
298.752,5.19272e-09,0,8192,8192
298.802,5.16008e-09,0,8192,8192
298.852,5.1325e-09,0,8192,8192
298.902,5.10897e-09,0,8192,8192
298.952,5.08832e-09,0,8192,8192
299.001,5.06926e-09,0,8192,8192
299.051,5.05042e-09,0,8192,8192
299.101,5.03049e-09,0,8192,8192
299.151,5.00822e-09,0,8192,8192
299.2,4.98246e-09,0,8192,8192
299.25,4.95219e-09,0,8192,8192
299.3,4.91668e-09,0,8192,8192
299.353,4.87287e-09,0,8192,8192
299.403,4.82545e-09,0,8192,8192
299.452,4.77228e-09,0,8132,8132
299.502,4.71377e-09,0,8184,8184
299.552,4.65052e-09,0,8192,8192
299.602,4.58334e-09,0,8192,8192
299.652,4.51311e-09,0,8192,8192
299.701,4.44082e-09,0,8192,8192
299.751,4.36741e-09,0,8192,8192
299.801,4.29383e-09,0,8192,8192
299.851,4.22096e-09,0,8192,8192
299.901,4.14962e-09,0,8192,8192
299.95,4.0806e-09,0,8192,8192
300,4.0146e-09,0,8192,8192
300.053,3.9488e-09,0,8192,8192
300.103,3.89117e-09,0,8184,8184
300.152,3.83851e-09,0,8192,8192
300.202,3.79133e-09,0,8192,8192
300.252,3.75e-09,0,8192,8192
300.302,3.71477e-09,0,8192,8192
300.352,3.68571e-09,0,8192,8192
300.401,3.6627e-09,0,8184,8184
300.451,3.64547e-09,0,8192,8192
300.501,3.63355e-09,0,8192,8192
300.551,3.62635e-09,0,8192,8192
300.601,3.62334e-09,0,8188,8188
300.65,3.62277e-09,0,8192,8192
300.7,3.62554e-09,0,8192,8192
300.75,3.62973e-09,0,8184,8184
300.803,3.63525e-09,0,8192,8192
300.853,3.64066e-09,0,8192,8192
300.902,3.64565e-09,0,8188,8188
300.952,3.64989e-09,0,8188,8188
301.002,3.65273e-09,0,8192,8192
301.052,3.65421e-09,0,8192,8192
301.102,3.65311e-09,0,8184,8184
301.151,3.65117e-09,0,8192,8192
301.201,3.64671e-09,0,8192,8192
301.251,3.64033e-09,0,8192,8192
301.301,3.63212e-09,0,8192,8192
301.351,3.62186e-09,0,8192,8192
301.4,3.60978e-09,0,8190,8190
301.45,3.596e-09,0,8192,8192
301.503,3.57958e-09,0,8192,8192
301.553,3.56246e-09,0,8190,8190
301.602,3.54392e-09,0,8192,8192
301.652,3.524e-09,0,8192,8192
301.702,3.50276e-09,0,8192,8192
301.752,3.48028e-09,0,8186,8186
301.802,3.45658e-09,0,8192,8192
301.851,3.4317e-09,0,8192,8192
301.901,3.40568e-09,0,8192,8192
301.951,3.37857e-09,0,8192,8192
302.001,3.35044e-09,0,8192,8192
302.051,3.32136e-09,0,8192,8192
302.1,3.29139e-09,0,8192,8192
302.15,3.26067e-09,0,8192,8192
302.2,3.2293e-09,0,8184,8184
302.253,3.19548e-09,0,8192,8192
302.303,3.16309e-09,0,8192,8192
302.352,3.13039e-09,0,8192,8192
302.402,3.09745e-09,0,8190,8190
302.452,3.06437e-09,0,8192,8192
302.502,3.03121e-09,0,8192,8192
302.552,2.99802e-09,0,8192,8192
302.601,2.96484e-09,0,8192,8192
302.651,2.93171e-09,0,8184,8184
302.701,2.89863e-09,0,8180,8180
302.751,2.86562e-09,0,8192,8192
302.801,2.83265e-09,0,8192,8192
302.85,2.79971e-09,0,8192,8192
302.9,2.76678e-09,0,8192,8192
302.953,2.7319e-09,0,8188,8188
303.003,2.69892e-09,0,8192,8192
303.052,2.66584e-09,0,8192,8192
303.102,2.63264e-09,0,8192,8192
303.152,2.59927e-09,0,8188,8188
303.202,2.56568e-09,0,8192,8192
303.252,2.53184e-09,0,8188,8188
303.301,2.49771e-09,0,8180,8180
303.351,2.46324e-09,0,8188,8188
303.401,2.4284e-09,0,8180,8180
303.451,2.39316e-09,0,8192,8192
303.501,2.35748e-09,0,8176,8176
303.55,2.32136e-09,0,8188,8188
303.6,2.28477e-09,0,8184,8184
303.65,2.2477e-09,0,8180,8180
303.703,2.20792e-09,0,8172,8172
303.753,2.16986e-09,0,8168,8168
303.802,2.13132e-09,0,8192,8192
303.852,2.09232e-09,0,8192,8192
303.902,2.05287e-09,0,8160,8160
303.952,2.01301e-09,0,8174,8174
304.002,1.97275e-09,0,8180,8180
304.051,1.93213e-09,0,8150,8150
304.101,1.89119e-09,0,8180,8180
304.151,1.84997e-09,0,8168,8168
304.201,1.80851e-09,0,8172,8172
304.251,1.76686e-09,0,8132,8132
304.3,1.72509e-09,0,8192,8192
304.35,1.68323e-09,0,8176,8176
304.403,1.63888e-09,0,8176,8176
304.453,1.59702e-09,0,8152,8152
304.502,1.55524e-09,0,8172,8172
304.552,1.51361e-09,0,8192,8192
304.602,1.47219e-09,0,8188,8188
304.652,1.43103e-09,0,8142,8142
304.702,1.39016e-09,0,8160,8160
304.751,1.34966e-09,0,8176,8176
304.801,1.30955e-09,0,8192,8192
304.851,1.26991e-09,0,8152,8152
304.901,1.23078e-09,0,8160,8160
304.951,1.1922e-09,0,8176,8176
