250,0,0,512,512
250.012,0,0,512,512
250.059,0,0,512,512
250.105,0,0,512,512
250.152,0,0,512,512
250.211,0,0,512,512
250.258,0,0,512,512
250.305,0,0,512,512
250.352,0,0,512,512
250.41,2.77556e-17,0,512,512
250.457,2.77556e-17,0,512,512
250.504,0,0,512,512
250.551,0,0,512,512
250.609,0,0,512,512
250.656,0,0,512,512
250.703,0,0,512,512
250.762,0,0,512,512
250.808,0,0,512,512
250.855,0,0,512,512
250.902,2.77556e-17,0,512,512
250.961,2.77556e-17,0,512,512
251.008,2.77556e-17,0,512,512
251.055,2.77556e-17,0,512,512
251.101,0,0,512,512
251.16,0,0,512,512
251.207,2.77556e-17,0,512,512
251.254,0,0,512,512
251.301,0,0,512,512
251.359,0,0,512,512
251.406,0,0,512,512
251.453,0,0,512,512
251.511,0,0,512,512
251.558,0,0,512,512
251.605,2.77556e-17,0,512,512
251.652,2.77556e-17,0,512,512
251.711,0,0,512,512
251.758,0,0,512,512
251.804,0,0,512,512
251.851,0,0,512,512
251.91,0,0,512,512
251.957,0,0,512,512
252.004,-2.77556e-17,0,512,512
252.05,-2.77556e-17,0,512,512
252.109,-2.77556e-17,0,512,512
252.156,0,0,512,512
252.203,0,0,512,512
252.261,0,0,512,512
252.308,0,0,512,512
252.355,2.77556e-17,0,512,512
252.402,2.77556e-17,0,512,512
252.461,0,0,512,512
252.507,0,0,512,512
252.554,0,0,512,512
252.601,0,0,512,512
252.66,0,0,512,512
252.707,0,0,512,512
252.754,0,0,512,512
252.8,0,0,512,512
252.859,2.77556e-17,0,512,512
252.906,0,0,512,512
252.953,0,0,512,512
253.011,0,0,512,512
253.058,0,0,512,512
253.105,0,0,512,512
253.152,0,0,512,512
253.21,0,0,512,512
253.257,0,0,512,512
253.304,2.77556e-17,0,512,512
253.351,2.77556e-17,0,512,512
253.41,0,0,512,512
253.457,0,0,512,512
253.503,0,0,512,512
253.55,2.77556e-17,0,512,512
253.609,2.77556e-17,0,512,512
253.656,2.77556e-17,0,512,512
253.703,2.77556e-17,0,512,512
253.761,0,0,512,512
253.808,0,0,512,512
253.855,0,0,512,512
253.902,-2.77556e-17,0,512,512
253.96,-2.77556e-17,0,512,512
254.007,0,0,512,512
254.054,0,0,512,512
254.101,-2.77556e-17,0,512,512
254.16,0,0,512,512
254.206,-2.77556e-17,0,512,512
254.253,0,0,512,512
254.3,0,0,512,512
254.359,0,0,512,512
254.406,0,0,512,512
254.452,0,0,512,512
254.511,-2.77556e-17,0,512,512
254.558,-2.77556e-17,0,512,512
254.605,-2.77556e-17,0,512,512
254.652,-2.77556e-17,0,512,512
254.71,-2.77556e-17,0,512,512
254.757,0,0,512,512
254.804,0,0,512,512
254.851,-2.77556e-17,0,512,512
254.909,-5.55112e-17,0,512,512
254.956,-2.77556e-17,0,512,512
255.003,-2.77556e-17,0,512,512
255.05,-2.77556e-17,0,512,512
255.109,-2.77556e-17,0,512,512
255.155,-2.77556e-17,0,512,512
255.202,-2.77556e-17,0,512,512
255.261,-2.77556e-17,0,512,512
255.308,-2.77556e-17,0,512,512
255.355,-2.77556e-17,0,512,512
255.402,-2.77556e-17,0,512,512
255.46,-2.77556e-17,0,512,512
255.507,-2.77556e-17,0,512,512
255.554,-2.77556e-17,0,512,512
255.601,0,0,512,512
255.659,0,0,512,512
255.706,0,0,512,512
255.753,0,0,512,512
255.812,0,0,512,512
255.859,0,0,512,512
255.905,2.77556e-17,0,512,512
255.952,0,0,512,512
256.011,0,0,512,512
256.058,0,0,512,512
256.105,0,0,512,512
256.151,0,0,512,512
256.21,0,0,512,512
256.257,2.77556e-17,0,512,512
256.304,2.77556e-17,0,512,512
256.351,0,0,512,512
256.409,0,0,512,512
256.456,0,0,512,512
256.503,0,0,512,512
256.562,0,0,512,512
256.608,0,0,512,512
256.655,-2.77556e-17,0,512,512
256.702,0,0,512,512
256.761,-2.77556e-17,0,512,512
256.808,0,0,512,512
256.854,-2.77556e-17,0,512,512
256.901,-2.77556e-17,0,512,512
256.96,-2.77556e-17,0,512,512
257.007,-2.77556e-17,0,512,512
257.054,0,0,512,512
257.101,-2.77556e-17,0,512,512
257.159,-2.77556e-17,0,512,512
257.206,0,0,512,512
257.253,0,0,512,512
257.311,0,0,512,512
257.358,2.77556e-17,0,512,512
257.405,2.77556e-17,0,512,512
257.452,0,0,512,512
257.511,0,0,512,512
257.557,0,0,512,512
257.604,0,0,512,512
257.651,0,0,512,512
257.71,-2.77556e-17,0,512,512
257.757,0,0,512,512
257.804,0,0,512,512
257.85,0,0,512,512
257.909,-2.77556e-17,0,512,512
257.956,-2.77556e-17,0,512,512
258.003,-2.77556e-17,0,512,512
258.061,0,0,512,512
258.108,0,0,512,512
258.155,0,0,512,512
258.202,0,0,512,512
258.261,0,0,512,512
258.307,-2.77556e-17,0,512,512
258.354,0,0,512,512
258.401,-2.77556e-17,0,512,512
258.46,-2.77556e-17,0,512,512
258.507,-2.77556e-17,0,512,512
258.553,-2.77556e-17,0,512,512
258.6,-2.77556e-17,0,512,512
258.659,-2.77556e-17,0,512,512
258.706,-5.55112e-17,0,512,512
258.753,-5.55112e-17,0,512,512
258.811,-5.55112e-17,0,512,512
258.858,-5.55112e-17,0,512,512
258.905,-2.77556e-17,0,512,512
258.952,0,0,512,512
259.01,0,0,512,512
259.057,-2.77556e-17,0,512,512
259.104,0,0,512,512
259.151,0,0,512,512
259.21,-2.77556e-17,0,512,512
259.256,-2.77556e-17,0,512,512
259.303,0,0,512,512
259.35,0,0,512,512
259.409,2.77556e-17,0,512,512
259.456,2.77556e-17,0,512,512
259.503,0,0,512,512
259.561,0,0,512,512
259.608,0,0,512,512
259.655,-2.77556e-17,0,512,512
259.702,-2.77556e-17,0,512,512
259.76,0,0,512,512
259.807,0,0,512,512
259.854,2.77556e-17,0,512,512
259.901,0,0,512,512
259.959,0,0,512,512
260.006,0,0,512,512
260.053,0,0,512,512
260.1,-2.77556e-17,0,512,512
260.159,-2.77556e-17,0,512,512
260.206,-2.77556e-17,0,512,512
260.252,-2.77556e-17,0,512,512
260.311,-2.77556e-17,0,512,512
260.358,-2.77556e-17,0,512,512
260.405,-2.77556e-17,0,512,512
260.452,-2.77556e-17,0,512,512
260.51,-2.77556e-17,0,512,512
260.557,-2.77556e-17,0,512,512
260.604,0,0,512,512
260.651,0,0,512,512
260.709,0,0,512,512
260.756,0,0,512,512
260.803,0,0,512,512
260.862,0,0,512,512
260.909,2.77556e-17,0,512,512
260.955,2.77556e-17,0,512,512
261.002,2.77556e-17,0,512,512
261.061,2.77556e-17,0,512,512
261.108,2.77556e-17,0,512,512
261.155,2.77556e-17,0,512,512
261.201,2.77556e-17,0,512,512
261.26,0,0,512,512
261.307,0,0,512,512
261.354,0,0,512,512
261.401,0,0,512,512
261.459,0,0,512,512
261.506,0,0,512,512
261.553,0,0,512,512
261.612,0,0,512,512
261.658,0,0,512,512
261.705,0,0,512,512
261.752,2.77556e-17,0,512,512
261.811,2.77556e-17,0,512,512
261.858,-2.77556e-17,0,512,512
261.905,0,0,512,512
261.951,0,0,512,512
262.01,0,0,512,512
262.057,0,0,512,512
262.104,0,0,512,512
262.151,0,0,512,512
262.209,0,0,512,512
262.256,2.77556e-17,0,512,512
262.303,2.77556e-17,0,512,512
262.361,0,0,512,512
262.408,0,0,512,512
262.455,0,0,512,512
262.502,0,0,512,512
262.561,0,0,512,512
262.608,2.77556e-17,0,512,512
262.654,2.77556e-17,0,512,512
262.701,2.77556e-17,0,512,512
262.76,2.77556e-17,0,512,512
262.807,0,0,512,512
262.854,0,0,512,512
262.9,2.77556e-17,0,512,512
262.959,0,0,512,512
263.006,0,0,512,512
263.053,0,0,512,512
263.111,0,0,512,512
263.158,0,0,512,512
263.205,0,0,512,512
263.252,0,0,512,512
263.311,0,0,512,512
263.357,2.77556e-17,0,512,512
263.404,2.77556e-17,0,512,512
263.451,2.77556e-17,0,512,512
263.51,0,0,512,512
263.557,0,0,512,512
263.603,0,0,512,512
263.65,0,0,512,512
263.709,-2.77556e-17,0,512,512
263.756,-2.77556e-17,0,512,512
263.803,-2.77556e-17,0,512,512
263.861,0,0,512,512
263.908,0,0,512,512
263.955,2.77556e-17,0,512,512
264.002,0,0,512,512
264.06,0,0,512,512
264.107,0,0,512,512
264.154,0,0,512,512
264.201,0,0,512,512
264.26,0,0,512,512
264.306,2.77556e-17,0,512,512
264.353,2.77556e-17,0,512,512
264.4,2.77556e-17,0,512,512
264.459,2.77556e-17,0,512,512
264.506,2.77556e-17,0,512,512
264.553,2.77556e-17,0,512,512
264.611,2.77556e-17,0,512,512
264.658,2.77556e-17,0,512,512
264.705,2.77556e-17,0,512,512
264.752,2.77556e-17,0,512,512
264.81,2.77556e-17,0,512,512
264.857,2.77556e-17,0,512,512
264.904,2.77556e-17,0,512,512
264.951,2.77556e-17,0,512,512
265.01,2.77556e-17,0,512,512
265.056,2.77556e-17,0,512,512
265.103,2.77556e-17,0,512,512
265.15,2.77556e-17,0,512,512
265.209,2.77556e-17,0,512,512
265.256,2.77556e-17,0,512,512
265.302,2.77556e-17,0,512,512
265.361,5.55112e-17,0,512,512
265.408,5.55112e-17,0,512,512
265.455,5.55112e-17,0,512,512
265.502,5.55112e-17,0,512,512
265.56,2.77556e-17,0,512,512
265.607,2.77556e-17,0,512,512
265.654,2.77556e-17,0,512,512
265.701,2.77556e-17,0,512,512
265.759,2.77556e-17,0,512,512
265.806,2.77556e-17,0,512,512
265.853,2.77556e-17,0,512,512
265.9,2.77556e-17,0,512,512
265.959,2.77556e-17,0,512,512
266.005,2.77556e-17,0,512,512
266.052,2.77556e-17,0,512,512
266.111,0,0,512,512
266.158,2.77556e-17,0,512,512
266.205,0,0,512,512
266.252,2.77556e-17,0,512,512
266.31,2.77556e-17,0,512,512
266.357,2.77556e-17,0,512,512
266.404,2.77556e-17,0,512,512
266.451,2.77556e-17,0,512,512
266.509,0,0,512,512
266.556,0,0,512,512
266.603,-2.77556e-17,0,512,512
266.662,-2.77556e-17,0,512,512
266.708,-2.77556e-17,0,512,512
266.755,0,0,512,512
266.802,-2.77556e-17,0,512,512
266.861,-2.77556e-17,0,512,512
266.908,-2.77556e-17,0,512,512
266.955,-2.77556e-17,0,512,512
267.001,-2.77556e-17,0,512,512
267.06,-2.77556e-17,0,512,512
267.107,-2.77556e-17,0,512,512
267.154,-2.77556e-17,0,512,512
267.201,-2.77556e-17,0,512,512
267.259,-2.77556e-17,0,512,512
267.306,-2.77556e-17,0,512,512
267.353,-2.77556e-17,0,512,512
267.412,-2.77556e-17,0,512,512
267.458,-2.77556e-17,0,512,512
267.505,-2.77556e-17,0,512,512
267.552,0,0,512,512
267.611,2.77556e-17,0,512,512
267.658,2.77556e-17,0,512,512
267.704,2.77556e-17,0,512,512
267.751,2.77556e-17,0,512,512
267.81,2.77556e-17,0,512,512
267.857,2.77556e-17,0,512,512
267.904,2.77556e-17,0,512,512
267.95,2.77556e-17,0,512,512
268.009,2.77556e-17,0,512,512
268.056,2.77556e-17,0,512,512
268.103,2.77556e-17,0,512,512
268.161,2.77556e-17,0,512,512
268.208,2.77556e-17,0,512,512
268.255,0,0,512,512
268.302,0,0,512,512
268.361,0,0,512,512
268.407,0,0,512,512
268.454,0,0,512,512
268.501,0,0,512,512
268.56,0,0,512,512
268.607,0,0,512,512
268.654,-2.77556e-17,0,512,512
268.7,-2.77556e-17,0,512,512
268.759,-2.77556e-17,0,512,512
268.806,-2.77556e-17,0,512,512
268.853,0,0,512,512
268.911,0,0,512,512
268.958,2.77556e-17,0,512,512
269.005,2.77556e-17,0,512,512
269.052,2.77556e-17,0,512,512
269.11,0,0,512,512
269.157,0,0,512,512
269.204,0,0,512,512
269.251,2.77556e-17,0,512,512
269.31,2.77556e-17,0,512,512
269.357,0,0,512,512
269.403,2.77556e-17,0,512,512
269.45,2.77556e-17,0,512,512
269.509,2.77556e-17,0,512,512
269.556,2.77556e-17,0,512,512
269.603,2.77556e-17,0,512,512
269.661,2.77556e-17,0,512,512
269.708,2.77556e-17,0,512,512
269.755,2.77556e-17,0,512,512
269.802,2.77556e-17,0,512,512
269.86,2.77556e-17,0,512,512
269.907,2.77556e-17,0,512,512
269.954,2.77556e-17,0,512,512
270.003,2.77556e-17,0,525,525
270.05,2.77556e-17,0,531,531
270.103,2.77556e-17,0,543,543
270.156,2.77556e-17,0,555,555
270.203,2.77556e-17,0,567,567
270.255,2.77556e-17,0,573,573
270.302,2.77556e-17,0,585,585
270.355,2.77556e-17,0,597,597
270.402,2.77556e-17,0,603,603
270.455,2.77556e-17,0,615,615
270.501,2.77556e-17,0,627,627
270.554,-1.38778e-16,0,639,639
270.601,-1.22125e-15,0,645,645
270.654,-1.00198e-14,0,657,657
270.701,-5.10425e-14,0,669,669
270.753,-2.46358e-13,0,681,681
270.8,-8.19705e-13,0,687,687
270.853,-2.60944e-12,0,699,699
270.906,-6.91264e-12,0,711,711
270.952,-1.42962e-11,0,723,723
271.005,-2.80564e-11,0,735,735
271.052,-4.53977e-11,0,741,741
271.105,-6.8894e-11,0,753,753
271.152,-8.98638e-11,0,765,765
271.204,-1.08116e-10,0,771,771
271.251,-1.15293e-10,0,783,783
271.304,-1.10458e-10,0,795,795
271.351,-9.51711e-11,0,807,807
271.404,-6.90643e-11,0,819,819
271.45,-4.20844e-11,0,825,825
271.503,-1.19566e-11,0,837,837
271.55,1.20911e-11,0,849,849
271.603,3.4794e-11,0,861,861
271.655,5.28008e-11,0,867,867
271.702,6.52341e-11,0,879,879
271.755,7.57536e-11,0,891,891
271.802,8.25625e-11,0,903,903
271.855,8.81175e-11,0,909,909
271.902,9.1864e-11,0,921,921
271.954,9.53672e-11,0,933,933
272.001,9.81042e-11,0,939,939
272.054,1.00757e-10,0,951,951
272.101,1.02648e-10,0,963,963
272.153,1.04269e-10,0,975,975
272.2,1.05424e-10,0,981,981
272.253,1.06639e-10,0,993,993
272.306,1.07883e-10,0,1005,1005
272.353,1.08983e-10,0,1017,1017
272.405,1.10241e-10,0,1023,1023
272.452,1.1179e-10,0,1035,1035
272.505,1.15592e-10,0,1047,1047
272.552,1.24006e-10,0,1053,1053
272.605,1.47048e-10,0,1065,1065
272.651,1.92406e-10,0,1077,1077
272.704,2.96795e-10,0,1083,1083
272.751,4.69312e-10,0,1095,1095
272.804,8.02074e-10,0,1107,1107
272.851,1.26761e-09,0,1113,1113
272.903,2.03154e-09,0,1125,1125
272.95,2.95125e-09,0,1131,1131
273.003,4.26054e-09,0,1143,1143
273.056,5.83014e-09,0,1155,1155
273.103,7.39277e-09,0,1161,1161
273.155,9.36306e-09,0,1173,1173
273.202,1.30437e-08,0,1185,1185
273.255,1.88236e-08,0,1191,1191
273.302,2.35878e-08,0,1203,1203
273.354,2.81858e-08,0,1209,1209
273.401,3.23189e-08,0,1221,1221
273.454,3.77011e-08,0,1229,1229
273.501,4.36379e-08,0,1228,1228
273.554,5.2413e-08,0,1228,1228
273.601,6.21714e-08,0,1222,1222
273.653,7.58201e-08,0,1228,1228
273.7,9.07189e-08,0,1222,1222
273.753,1.11218e-07,0,1228,1228
273.806,1.3663e-07,0,1240,1240
273.852,1.63804e-07,0,1246,1246
273.905,1.99842e-07,0,1258,1258
273.952,2.36485e-07,0,1264,1264
274.005,2.82157e-07,0,1276,1276
274.052,3.26051e-07,0,1282,1282
274.104,3.78416e-07,0,1294,1294
274.151,4.27288e-07,0,1300,1300
274.204,4.8451e-07,0,1312,1312
274.251,5.36707e-07,0,1318,1318
274.304,5.95537e-07,0,1330,1330
274.35,6.46126e-07,0,1336,1336
274.403,6.98735e-07,0,1348,1348
274.456,7.44505e-07,0,1354,1354
274.503,7.78125e-07,0,1360,1360
274.555,8.07508e-07,0,1372,1372
274.602,8.26435e-07,0,1378,1378
274.655,8.40601e-07,0,1390,1390
274.702,8.47845e-07,0,1402,1402
274.755,8.50916e-07,0,1420,1420
274.802,8.49583e-07,0,1438,1438
274.854,8.43534e-07,0,1462,1462
274.901,8.33769e-07,0,1474,1474
274.954,8.17195e-07,0,1492,1492
275.001,7.96908e-07,0,1509,1509
275.053,7.67387e-07,0,1515,1515
275.1,7.35223e-07,0,1527,1527
275.153,6.93059e-07,0,1533,1533
275.206,6.45997e-07,0,1545,1545
275.253,6.01649e-07,0,1551,1551
275.305,5.50839e-07,0,1557,1557
275.352,5.06307e-07,0,1569,1569
275.405,4.5817e-07,0,1575,1575
275.452,4.17748e-07,0,1581,1581
275.505,3.75188e-07,0,1593,1593
275.551,3.39876e-07,0,1599,1599
275.604,3.02756e-07,0,1611,1611
275.651,2.7193e-07,0,1617,1617
275.704,2.39738e-07,0,1623,1623
275.751,2.13595e-07,0,1635,1635
275.803,1.87384e-07,0,1641,1641
275.85,1.6715e-07,0,1647,1647
275.903,1.47669e-07,0,1659,1659
275.956,1.31001e-07,0,1665,1665
276.003,1.17807e-07,0,1677,1677
276.055,1.04135e-07,0,1683,1683
276.102,9.2831e-08,0,1689,1689
276.155,8.12546e-08,0,1701,1701
276.202,7.22758e-08,0,1707,1707
276.254,6.38537e-08,0,1719,1719
276.301,5.77507e-08,0,1725,1725
276.354,5.19906e-08,0,1731,1731
276.401,4.73532e-08,0,1737,1737
276.454,4.22301e-08,0,1749,1749
276.5,3.76641e-08,0,1755,1755
276.553,3.27583e-08,0,1767,1767
276.6,2.89674e-08,0,1773,1773
276.653,2.56955e-08,0,1779,1779
276.706,2.35818e-08,0,1791,1791
276.752,2.25436e-08,0,1797,1797
276.805,2.20362e-08,0,1803,1803
276.852,2.19268e-08,0,1815,1815
276.905,2.19749e-08,0,1821,1821
276.952,2.20587e-08,0,1827,1827
277.004,2.21277e-08,0,1839,1839
277.051,2.21324e-08,0,1845,1845
277.104,2.20551e-08,0,1851,1851
277.151,2.19153e-08,0,1863,1863
277.203,2.17022e-08,0,1869,1869
277.25,2.14938e-08,0,1875,1875
277.303,2.12701e-08,0,1887,1887
277.356,2.10753e-08,0,1893,1893
277.403,2.09267e-08,0,1899,1899
277.455,2.0776e-08,0,1911,1911
277.502,2.06442e-08,0,1917,1917
277.555,2.04853e-08,0,1923,1923
277.602,2.03258e-08,0,1935,1935
277.655,2.01189e-08,0,1941,1941
277.701,1.99066e-08,0,1947,1947
277.754,1.96337e-08,0,1959,1959
277.801,1.936e-08,0,1965,1965
277.854,1.90173e-08,0,1971,1971
277.901,1.86828e-08,0,1977,1977
277.953,1.8275e-08,0,1983,1983
278,1.78867e-08,0,1995,1995
278.053,1.74239e-08,0,2001,2001
278.106,1.6938e-08,0,2007,2007
278.153,1.64905e-08,0,2013,2013
278.205,1.59743e-08,0,2025,2025
278.252,1.55076e-08,0,2037,2037
278.305,1.49779e-08,0,2048,2048
278.352,1.4506e-08,0,2048,2048
278.404,1.39775e-08,0,2048,2048
278.451,1.35131e-08,0,2048,2048
278.504,1.30003e-08,0,2048,2048
278.551,1.25561e-08,0,2048,2048
278.604,1.2073e-08,0,2048,2048
278.651,1.16613e-08,0,2048,2048
278.703,1.12208e-08,0,2048,2048
278.75,1.08518e-08,0,2048,2048
278.803,1.04639e-08,0,2048,2048
278.856,1.01061e-08,0,2048,2048
278.902,9.81398e-09,0,2048,2048
278.955,9.51438e-09,0,2048,2048
279.002,9.2733e-09,0,2048,2048
279.055,9.02937e-09,0,2048,2048
279.102,8.83564e-09,0,2048,2048
279.154,8.6422e-09,0,2048,2048
279.201,8.49066e-09,0,2048,2048
279.254,8.34139e-09,0,2048,2048
279.301,8.22597e-09,0,2048,2048
279.354,8.1137e-09,0,2048,2048
279.4,8.02799e-09,0,2048,2048
279.453,7.94575e-09,0,2048,2048
279.5,7.88397e-09,0,2048,2048
279.553,7.82584e-09,0,2048,2048
279.605,7.77844e-09,0,2048,2048
279.652,7.74426e-09,0,2048,2048
279.705,7.7137e-09,0,2048,2048
279.752,7.69268e-09,0,2048,2048
279.805,7.67508e-09,0,2048,2048
279.852,7.66419e-09,0,2048,2048
279.904,7.6567e-09,0,2048,2048
279.951,7.65385e-09,0,2048,2048
280.004,7.65452e-09,0,2048,2048
280.051,7.65821e-09,0,2048,2048
280.103,7.6654e-09,0,2048,2048
280.15,7.67409e-09,0,2048,2048
280.203,7.68599e-09,0,2048,2048
280.256,7.69965e-09,0,2048,2048
280.303,7.71292e-09,0,2048,2048
280.355,7.72877e-09,0,2048,2048
280.402,7.74348e-09,0,2048,2048
280.455,7.76052e-09,0,2048,2048
280.502,7.77595e-09,0,2048,2048
280.555,7.79348e-09,0,2048,2048
280.601,7.80912e-09,0,2048,2048
280.654,7.82669e-09,0,2048,2048
280.701,7.84222e-09,0,2048,2048
280.754,7.85958e-09,0,2048,2048
280.801,7.8749e-09,0,2048,2048
280.853,7.89201e-09,0,2048,2048
280.9,7.90711e-09,0,2048,2048
280.953,7.92395e-09,0,2048,2048
281.006,7.94062e-09,0,2048,2048
281.053,7.95529e-09,0,2048,2048
281.105,7.97162e-09,0,2048,2048
281.152,7.98601e-09,0,2048,2048
281.205,8.00212e-09,0,2048,2048
281.252,8.01646e-09,0,2048,2048
281.304,8.03276e-09,0,2048,2048
281.351,8.04755e-09,0,2048,2048
281.404,8.06476e-09,0,2048,2048
281.451,8.0808e-09,0,2048,2048
281.504,8.10001e-09,0,2048,2048
281.551,8.11845e-09,0,2048,2048
281.603,8.1412e-09,0,2048,2048
281.65,8.16371e-09,0,2048,2048
281.703,8.19235e-09,0,2048,2048
281.756,8.22557e-09,0,2048,2048
281.802,8.2601e-09,0,2048,2048
281.855,8.30627e-09,0,2048,2048
281.902,8.35557e-09,0,2048,2048
281.955,8.42281e-09,0,2048,2048
282.002,8.49547e-09,0,2048,2048
282.054,8.59495e-09,0,2048,2048
282.101,8.70225e-09,0,2048,2048
282.154,8.84834e-09,0,2048,2048
282.201,9.00479e-09,0,2048,2048
282.254,9.21624e-09,0,2048,2048
282.3,9.44123e-09,0,2048,2048
282.353,9.74358e-09,0,2048,2048
282.406,1.01075e-08,0,2048,2048
282.453,1.04916e-08,0,2048,2048
282.505,1.10035e-08,0,2048,2048
282.552,1.15404e-08,0,2048,2048
282.605,1.225e-08,0,2048,2048
282.652,1.29873e-08,0,2048,2048
282.705,1.39514e-08,0,2048,2048
282.752,1.4941e-08,0,2048,2048
282.804,1.62182e-08,0,2048,2048
282.851,1.7511e-08,0,2048,2048
282.904,1.91551e-08,0,2048,2048
282.951,2.07946e-08,0,2048,2048
283.003,2.28478e-08,0,2048,2048
283.05,2.48638e-08,0,2048,2048
283.103,2.735e-08,0,2048,2048
283.156,3.00676e-08,0,2048,2048
283.203,3.26752e-08,0,2048,2048
283.255,3.58191e-08,0,2048,2048
283.302,3.87935e-08,0,2048,2048
283.355,4.23318e-08,0,2048,2048
283.402,4.56376e-08,0,2048,2048
283.455,4.95251e-08,0,2048,2048
283.501,5.31214e-08,0,2048,2048
283.554,5.73182e-08,0,2048,2048
283.601,6.11816e-08,0,2048,2048
283.654,6.56838e-08,0,2048,2048
283.701,6.98381e-08,0,2048,2048
283.753,7.47101e-08,0,2048,2048
283.8,7.92495e-08,0,2048,2048
283.853,8.46388e-08,0,2048,2048
283.906,9.03877e-08,0,2048,2048
283.953,9.58576e-08,0,2048,2048
284.005,1.0249e-07,0,2048,2048
284.052,1.08883e-07,0,2048,2048
284.105,1.16733e-07,0,2048,2048
284.152,1.24394e-07,0,2048,2048
284.204,1.33915e-07,0,2048,2048
284.251,1.43314e-07,0,2048,2048
284.304,1.55119e-07,0,2048,2048
284.351,1.66872e-07,0,2048,2048
284.404,1.81715e-07,0,2048,2048
284.45,1.96526e-07,0,2048,2048
284.503,2.15197e-07,0,2048,2048
284.55,2.3372e-07,0,2048,2048
284.603,2.56844e-07,0,2048,2048
284.656,2.82451e-07,0,2048,2048
284.702,3.07286e-07,0,2048,2048
284.755,3.37456e-07,0,2048,2048
284.802,3.66091e-07,0,2048,2048
284.855,4.00058e-07,0,2048,2048
284.902,4.31477e-07,0,2048,2048
284.954,4.67725e-07,0,2048,2048
285.001,5.00269e-07,0,2048,2048
285.054,5.36626e-07,0,2048,2048
285.101,5.68148e-07,0,2048,2048
285.154,6.02035e-07,0,2048,2048
285.2,6.30178e-07,0,2048,2048
285.253,6.58964e-07,0,2048,2048
285.306,6.84082e-07,0,2048,2048
285.353,7.02864e-07,0,2048,2048
285.405,7.19572e-07,0,2048,2048
285.452,7.30201e-07,0,2048,2048
285.505,7.37164e-07,0,2048,2048
285.552,7.38786e-07,0,2048,2048
285.605,7.35417e-07,0,2048,2048
285.651,7.27834e-07,0,2048,2048
285.704,7.14261e-07,0,2048,2048
285.751,6.97883e-07,0,2048,2048
285.804,6.74883e-07,0,2048,2048
285.851,6.50671e-07,0,2048,2048
285.903,6.19611e-07,0,2048,2048
285.95,5.89017e-07,0,2048,2048
286.003,5.51773e-07,0,2048,2048
286.056,5.12148e-07,0,2048,2048
286.103,4.7546e-07,0,2048,2048
286.155,4.33152e-07,0,2048,2048
286.202,3.95141e-07,0,2048,2048
286.255,3.52506e-07,0,2048,2048
286.302,3.1518e-07,0,2048,2048
286.354,2.74319e-07,0,2048,2048
286.401,2.39363e-07,0,2048,2048
286.454,2.01925e-07,0,2048,2048
286.501,1.70563e-07,0,2048,2048
286.554,1.37643e-07,0,2048,2048
286.601,1.10597e-07,0,2048,2048
286.653,8.27385e-08,0,2048,2048
286.7,6.02721e-08,0,2048,2048
286.753,3.75495e-08,0,2048,2048
286.806,1.74522e-08,0,2048,2048
286.852,1.69932e-09,0,2048,2048
286.905,-1.37753e-08,0,2048,2048
286.952,-2.56556e-08,0,2048,2048
287.005,-3.7064e-08,0,2048,2048
287.052,-4.55987e-08,0,2048,2048
287.104,-5.35484e-08,0,2048,2048
287.151,-5.92749e-08,0,2048,2048
287.204,-6.43532e-08,0,2048,2048
287.251,-6.77701e-08,0,2048,2048
287.304,-7.05053e-08,0,2048,2048
287.35,-7.20508e-08,0,2048,2048
287.403,-7.29017e-08,0,2048,2048
287.45,-7.29558e-08,0,2048,2048
287.503,-7.23228e-08,0,2048,2048
287.555,-7.10521e-08,0,2048,2048
287.602,-6.94657e-08,0,2048,2048
287.655,-6.72521e-08,0,2048,2048
287.702,-6.49735e-08,0,2048,2048
287.755,-6.21389e-08,0,2048,2048
287.802,-5.94417e-08,0,2048,2048
287.854,-5.62764e-08,0,2048,2048
287.901,-5.33998e-08,0,2048,2048
287.954,-5.0148e-08,0,2048,2048
288.001,-4.72841e-08,0,2048,2048
288.053,-4.41317e-08,0,2048,2048
288.1,-4.14182e-08,0,2048,2048
288.153,-3.84896e-08,0,2048,2048
288.206,-3.57109e-08,0,2048,2048
288.253,-3.33773e-08,0,2048,2048
288.305,-3.09122e-08,0,2048,2048
288.352,-2.88659e-08,0,2048,2048
288.405,-2.67268e-08,0,2048,2048
288.452,-2.49681e-08,0,2048,2048
288.505,-2.31458e-08,0,2048,2048
288.551,-2.16601e-08,0,2048,2048
288.604,-2.01332e-08,0,2048,2048
288.651,-1.88983e-08,0,2048,2048
288.704,-1.76392e-08,0,2048,2048
288.751,-1.66291e-08,0,2048,2048
288.803,-1.56077e-08,0,2048,2048
288.85,-1.47954e-08,0,2048,2048
288.903,-1.39817e-08,0,2048,2048
288.956,-1.32663e-08,0,2048,2048
289.003,-1.27066e-08,0,2048,2048
289.055,-1.21561e-08,0,2048,2048
289.102,-1.17316e-08,0,2048,2048
289.155,-1.13209e-08,0,2048,2048
289.202,-1.10104e-08,0,2048,2048
289.254,-1.0717e-08,0,2048,2048
289.301,-1.05014e-08,0,2048,2048
289.354,-1.03047e-08,0,2048,2048
289.401,-1.01665e-08,0,2048,2048
289.454,-1.00476e-08,0,2048,2048
289.501,-9.97072e-09,0,2048,2048
289.553,-9.9124e-09,0,2048,2048
289.6,-9.8822e-09,0,2048,2048
289.653,-9.86881e-09,0,2048,2048
289.706,-9.87349e-09,0,2048,2048
289.752,-9.88994e-09,0,2048,2048
289.805,-9.91933e-09,0,2048,2048
289.852,-9.95284e-09,0,2048,2048
289.905,-9.9965e-09,0,2048,2048
289.952,-1.00388e-08,0,2048,2048
290.004,-1.00886e-08,0,2048,2048
290.051,-1.01336e-08,0,2048,2048
290.104,-1.01837e-08,0,2048,2048
290.151,-1.02269e-08,0,2048,2048
290.204,-1.02734e-08,0,2048,2048
290.25,-1.03123e-08,0,2048,2048
290.303,-1.0353e-08,0,2048,2048
290.356,-1.03901e-08,0,2048,2048
290.403,-1.04199e-08,0,2048,2048
290.455,-1.04498e-08,0,2048,2048
290.502,-1.04731e-08,0,2048,2048
290.555,-1.04957e-08,0,2048,2048
290.602,-1.05126e-08,0,2048,2048
290.655,-1.05281e-08,0,2048,2048
290.701,-1.0539e-08,0,2048,2048
290.754,-1.05484e-08,0,2048,2048
290.801,-1.05546e-08,0,2048,2048
290.854,-1.05597e-08,0,2048,2048
290.901,-1.05635e-08,0,2048,2048
290.953,-1.05678e-08,0,2048,2048
291,-1.05729e-08,0,2048,2048
291.053,-1.05815e-08,0,2048,2048
291.106,-1.05951e-08,0,2048,2048
291.153,-1.06129e-08,0,2048,2048
291.205,-1.06413e-08,0,2048,2048
291.252,-1.06758e-08,0,2048,2048
291.305,-1.07269e-08,0,2048,2048
291.352,-1.07848e-08,0,2048,2048
291.405,-1.08655e-08,0,2048,2048
291.451,-1.09525e-08,0,2048,2048
291.504,-1.10685e-08,0,2048,2048
291.551,-1.11885e-08,0,2048,2048
291.604,-1.13429e-08,0,2048,2048
291.651,-1.14978e-08,0,2048,2048
291.703,-1.16916e-08,0,2048,2048
291.75,-1.18811e-08,0,2048,2048
291.803,-1.21133e-08,0,2048,2048
291.856,-1.23647e-08,0,2048,2048
291.902,-1.26037e-08,0,2048,2048
291.955,-1.28892e-08,0,2048,2048
292.002,-1.31569e-08,0,2048,2048
292.055,-1.34728e-08,0,2048,2048
292.102,-1.37658e-08,0,2048,2048
292.154,-1.41079e-08,0,2048,2048
292.201,-1.44221e-08,0,2048,2048
292.254,-1.47857e-08,0,2048,2048
292.301,-1.51166e-08,0,2048,2048
292.354,-1.54961e-08,0,2048,2048
292.4,-1.58386e-08,0,2048,2048
292.453,-1.6228e-08,0,2048,2048
292.5,-1.65765e-08,0,2048,2048
292.553,-1.69695e-08,0,2048,2048
292.606,-1.73618e-08,0,2048,2048
292.652,-1.77084e-08,0,2048,2048
292.705,-1.80945e-08,0,2048,2048
292.752,-1.84328e-08,0,2048,2048
292.805,-1.88063e-08,0,2048,2048
292.852,-1.91308e-08,0,2048,2048
292.904,-1.94858e-08,0,2048,2048
292.951,-1.9791e-08,0,2048,2048
293.004,-2.01213e-08,0,2048,2048
293.051,-2.0402e-08,0,2048,2048
293.103,-2.07018e-08,0,2048,2048
293.15,-2.09529e-08,0,2048,2048
293.203,-2.12166e-08,0,2048,2048
293.256,-2.14593e-08,0,2048,2048
293.303,-2.16564e-08,0,2048,2048
293.355,-2.18562e-08,0,2048,2048
293.402,-2.20138e-08,0,2048,2048
293.455,-2.21679e-08,0,2048,2048
293.502,-2.2284e-08,0,2048,2048
293.555,-2.23912e-08,0,2048,2048
293.601,-2.24658e-08,0,2048,2048
293.654,-2.25268e-08,0,2048,2048
293.701,-2.25611e-08,0,2048,2048
293.754,-2.25783e-08,0,2048,2048
293.801,-2.25754e-08,0,2048,2048
293.853,-2.25529e-08,0,2048,2048
293.9,-2.25169e-08,0,2048,2048
293.953,-2.246e-08,0,2048,2048
294.006,-2.23872e-08,0,2048,2048
294.053,-2.23106e-08,0,2048,2048
294.105,-2.22126e-08,0,2048,2048
294.152,-2.21163e-08,0,2048,2048
294.205,-2.19992e-08,0,2048,2048
294.252,-2.18886e-08,0,2048,2048
294.304,-2.1758e-08,0,2048,2048
294.351,-2.16378e-08,0,2048,2048
294.404,-2.14988e-08,0,2048,2048
294.451,-2.13731e-08,0,2039,2039
294.504,-2.12301e-08,0,2013,2013
294.551,-2.11024e-08,0,2001,2001
294.603,-2.09588e-08,0,1989,1989
294.65,-2.08319e-08,0,1983,1983
294.703,-2.06906e-08,0,1973,1973
294.756,-2.05514e-08,0,1965,1965
294.802,-2.04299e-08,0,1959,1959
294.855,-2.02961e-08,0,1953,1953
294.902,-2.018e-08,0,1947,1947
294.955,-2.00528e-08,0,1935,1935
295.002,-1.99429e-08,0,1929,1929
295.054,-1.98231e-08,0,1923,1923
295.101,-1.972e-08,0,1917,1917
295.154,-1.96079e-08,0,1905,1905
295.201,-1.95116e-08,0,1899,1899
295.254,-1.94071e-08,0,1889,1889
295.3,-1.93174e-08,0,1881,1881
295.353,-1.922e-08,0,1875,1875
295.4,-1.91365e-08,0,1865,1865
295.453,-1.90456e-08,0,1857,1857
295.505,-1.8958e-08,0,1851,1851
295.552,-1.88825e-08,0,1845,1845
295.605,-1.88001e-08,0,1835,1835
295.652,-1.87289e-08,0,1829,1829
295.705,-1.86509e-08,0,1821,1821
295.752,-1.85831e-08,0,1817,1817
295.804,-1.85085e-08,0,1809,1809
295.851,-1.84434e-08,0,1805,1805
295.904,-1.83713e-08,0,1797,1797
295.951,-1.83081e-08,0,1791,1791
296.003,-1.82376e-08,0,1785,1785
296.05,-1.81755e-08,0,1779,1779
296.103,-1.81059e-08,0,1773,1773
296.156,-1.80364e-08,0,1761,1761
296.203,-1.79746e-08,0,1755,1755
296.255,-1.79049e-08,0,1743,1743
296.302,-1.78425e-08,0,1737,1737
296.355,-1.77717e-08,0,1725,1725
296.402,-1.77081e-08,0,1719,1719
296.455,-1.76356e-08,0,1707,1707
296.501,-1.75701e-08,0,1701,1701
296.554,-1.7495e-08,0,1689,1689
296.601,-1.7427e-08,0,1683,1683
296.654,-1.73487e-08,0,1671,1671
296.701,-1.72774e-08,0,1665,1665
296.753,-1.7195e-08,0,1655,1655
296.8,-1.71196e-08,0,1647,1647
296.853,-1.70322e-08,0,1641,1641
296.906,-1.69419e-08,0,1629,1629
296.953,-1.68589e-08,0,1623,1623
297.005,-1.67623e-08,0,1613,1613
297.052,-1.66732e-08,0,1605,1605
297.105,-1.65694e-08,0,1599,1599
297.152,-1.64737e-08,0,1589,1589
297.204,-1.63618e-08,0,1581,1581
297.251,-1.62586e-08,0,1575,1575
297.304,-1.61379e-08,0,1563,1563
297.351,-1.60265e-08,0,1557,1557
297.404,-1.58964e-08,0,1547,1547
297.451,-1.57762e-08,0,1539,1539
297.503,-1.56359e-08,0,1533,1533
297.55,-1.55065e-08,0,1523,1523
297.603,-1.53554e-08,0,1515,1515
297.656,-1.51985e-08,0,1509,1509
297.702,-1.50538e-08,0,1499,1499
297.755,-1.48851e-08,0,1491,1491
297.802,-1.47297e-08,0,1485,1485
297.855,-1.45486e-08,0,1473,1473
297.902,-1.43817e-08,0,1467,1467
297.954,-1.41871e-08,0,1461,1461
298.001,-1.40077e-08,0,1451,1451
298.054,-1.37983e-08,0,1443,1443
298.101,-1.36051e-08,0,1437,1437
298.154,-1.33792e-08,0,1425,1425
298.2,-1.31703e-08,0,1419,1419
298.253,-1.29257e-08,0,1413,1413
298.306,-1.26702e-08,0,1401,1401
298.353,-1.24331e-08,0,1395,1395
298.405,-1.21545e-08,0,1385,1385
298.452,-1.18956e-08,0,1377,1377
298.505,-1.15909e-08,0,1371,1371
298.552,-1.13072e-08,0,1359,1359
298.605,-1.09731e-08,0,1353,1353
298.652,-1.06619e-08,0,1343,1343
298.704,-1.02955e-08,0,1335,1335
298.751,-9.95464e-09,0,1329,1329
298.804,-9.55381e-09,0,1317,1317
298.851,-9.1819e-09,0,1311,1311
298.903,-8.74585e-09,0,1301,1301
298.95,-8.34263e-09,0,1293,1293
299.003,-7.87151e-09,0,1287,1287
299.056,-7.38172e-09,0,1275,1275
299.103,-6.93009e-09,0,1269,1269
299.155,-6.40216e-09,0,1257,1257
299.202,-5.9127e-09,0,1251,1251
299.255,-5.33466e-09,0,1239,1239
299.302,-4.79139e-09,0,1233,1233
299.355,-4.14288e-09,0,1221,1221
299.401,-3.5361e-09,0,1215,1215
299.454,-2.83574e-09,0,1205,1205
299.501,-2.22249e-09,0,1197,1197
299.554,-1.57334e-09,0,1187,1187
299.601,-1.04086e-09,0,1179,1179
299.653,-4.98196e-10,0,1169,1169
299.7,-3.47139e-10,0,1161,1161
299.753,-7.80359e-11,0,1149,1149
299.806,2.27636e-10,0,1143,1143
299.852,5.13075e-10,0,1133,1133
299.905,8.58359e-10,0,1125,1125
299.952,1.14987e-09,0,1113,1113
300.005,1.47757e-09,0,1107,1107
300.052,1.75652e-09,0,1095,1095
300.104,2.05422e-09,0,1089,1089
300.151,2.30411e-09,0,1077,1077
300.204,2.56235e-09,0,1067,1067
300.251,2.77361e-09,0,1059,1059
300.304,2.98834e-09,0,1049,1049
300.35,3.15915e-09,0,1041,1041
300.403,3.32903e-09,0,1029,1029
300.45,3.45997e-09,0,1023,1023
300.503,3.58532e-09,0,1011,1011
300.556,3.68802e-09,0,999,999
300.602,3.76151e-09,0,993,993
300.655,3.82536e-09,0,981,981
300.702,3.86647e-09,0,971,971
300.755,3.89652e-09,0,963,963
300.802,3.91006e-09,0,951,951
300.854,3.91205e-09,0,941,941
300.901,3.90325e-09,0,933,933
300.954,3.88284e-09,0,921,921
301.001,3.85657e-09,0,911,911
301.053,3.8194e-09,0,903,903
301.1,3.7808e-09,0,891,891
301.153,3.7324e-09,0,879,879
301.206,3.67998e-09,0,869,869
301.253,3.63096e-09,0,861,861
301.305,3.57412e-09,0,849,849
301.352,3.52289e-09,0,837,837
301.405,3.46529e-09,0,827,827
301.452,3.41466e-09,0,819,819
301.505,3.35879e-09,0,807,807
301.551,3.31042e-09,0,795,795
301.604,3.25772e-09,0,785,785
301.651,3.21256e-09,0,777,777
301.704,3.16372e-09,0,765,765
301.751,3.12198e-09,0,753,753
301.803,3.07668e-09,0,743,743
301.85,3.03762e-09,0,735,735
301.903,2.99471e-09,0,723,723
301.956,2.95256e-09,0,711,711
302.003,2.91542e-09,0,701,701
302.055,2.87362e-09,0,693,693
302.102,2.83612e-09,0,681,681
302.155,2.79312e-09,0,669,669
302.202,2.75388e-09,0,659,659
302.254,2.70827e-09,0,647,647
302.301,2.66623e-09,0,639,639
302.354,2.6171e-09,0,627,627
302.401,2.57175e-09,0,617,617
302.454,2.51886e-09,0,609,609
302.501,2.47033e-09,0,597,597
302.553,2.41423e-09,0,585,585
302.6,2.36329e-09,0,575,575
302.653,2.30511e-09,0,563,563
302.706,2.24642e-09,0,551,551
302.752,2.19425e-09,0,543,543
302.805,2.13608e-09,0,531,531
302.852,2.08532e-09,0,519,519
302.907,2.02729e-09,0,512,512
302.954,1.97992e-09,0,512,512
303.001,1.93481e-09,0,512,512
303.06,1.8822e-09,0,512,512
303.106,1.8436e-09,0,512,512
303.153,1.8085e-09,0,512,512
303.2,1.77722e-09,0,512,512
303.259,1.74392e-09,0,512,512
303.306,1.72214e-09,0,512,512
303.352,1.70481e-09,0,512,512
303.411,1.68944e-09,0,512,512
303.458,1.68215e-09,0,512,512
303.505,1.67923e-09,0,512,512
303.552,1.68057e-09,0,512,512
303.61,1.68797e-09,0,512,512
303.657,1.69817e-09,0,512,512
303.704,1.71183e-09,0,512,512
303.751,1.72861e-09,0,512,512
303.809,1.7534e-09,0,512,512
303.856,1.77583e-09,0,512,512
303.903,1.80015e-09,0,512,512
303.95,1.82601e-09,0,512,512
304.009,1.85993e-09,0,512,512
304.055,1.8879e-09,0,512,512
304.102,1.91622e-09,0,512,512
304.161,1.95157e-09,0,512,512
304.208,1.97943e-09,0,512,512
304.255,2.00662e-09,0,512,512
304.302,2.03288e-09,0,512,512
304.36,2.0641e-09,0,512,512
304.407,2.08759e-09,0,512,512
304.454,2.1096e-09,0,512,512
304.501,2.13001e-09,0,512,512
304.559,2.15313e-09,0,512,512
304.606,2.16963e-09,0,512,512
304.653,2.18431e-09,0,512,512
304.712,2.20007e-09,0,512,512
304.759,2.21059e-09,0,512,512
304.805,2.21927e-09,0,512,512
304.852,2.22614e-09,0,512,512
304.911,2.23226e-09,0,512,512
304.958,2.23526e-09,0,512,512
