250,0,0,512,512
250.012,0,0,512,512
250.059,0,0,512,512
250.105,0,0,512,512
250.152,0,0,512,512
250.211,0,0,512,512
250.258,0,0,512,512
250.305,0,0,512,512
250.352,0,0,512,512
250.41,2.77556e-17,0,512,512
250.457,2.77556e-17,0,512,512
250.504,0,0,512,512
250.551,0,0,512,512
250.609,0,0,512,512
250.656,0,0,512,512
250.703,0,0,512,512
250.762,0,0,512,512
250.808,0,0,512,512
250.855,0,0,512,512
250.902,2.77556e-17,0,512,512
250.961,2.77556e-17,0,512,512
251.008,2.77556e-17,0,512,512
251.055,2.77556e-17,0,512,512
251.101,0,0,512,512
251.16,0,0,512,512
251.207,2.77556e-17,0,512,512
251.254,0,0,512,512
251.301,0,0,512,512
251.359,0,0,512,512
251.406,0,0,512,512
251.453,0,0,512,512
251.511,0,0,512,512
251.558,0,0,512,512
251.605,2.77556e-17,0,512,512
251.652,2.77556e-17,0,512,512
251.711,0,0,512,512
251.758,0,0,512,512
251.804,0,0,512,512
251.851,0,0,512,512
251.91,0,0,512,512
251.957,0,0,512,512
252.004,-2.77556e-17,0,512,512
252.05,-2.77556e-17,0,512,512
252.109,-2.77556e-17,0,512,512
252.156,0,0,512,512
252.203,0,0,512,512
252.261,0,0,512,512
252.308,0,0,512,512
252.355,2.77556e-17,0,512,512
252.402,2.77556e-17,0,512,512
252.461,0,0,512,512
252.507,0,0,512,512
252.554,0,0,512,512
252.601,0,0,512,512
252.66,0,0,512,512
252.707,0,0,512,512
252.754,0,0,512,512
252.8,0,0,512,512
252.859,2.77556e-17,0,512,512
252.906,0,0,512,512
252.953,0,0,512,512
253.011,0,0,512,512
253.058,0,0,512,512
253.105,0,0,512,512
253.152,0,0,512,512
253.21,0,0,512,512
253.257,0,0,512,512
253.304,2.77556e-17,0,512,512
253.351,2.77556e-17,0,512,512
253.41,0,0,512,512
253.457,0,0,512,512
253.503,0,0,512,512
253.55,2.77556e-17,0,512,512
253.609,2.77556e-17,0,512,512
253.656,2.77556e-17,0,512,512
253.703,2.77556e-17,0,512,512
253.761,0,0,512,512
253.808,0,0,512,512
253.855,0,0,512,512
253.902,-2.77556e-17,0,512,512
253.96,-2.77556e-17,0,512,512
254.007,0,0,512,512
254.054,0,0,512,512
254.101,-2.77556e-17,0,512,512
254.16,0,0,512,512
254.206,-2.77556e-17,0,512,512
254.253,0,0,512,512
254.3,0,0,512,512
254.359,0,0,512,512
254.406,0,0,512,512
254.452,0,0,512,512
254.511,-2.77556e-17,0,512,512
254.558,-2.77556e-17,0,512,512
254.605,-2.77556e-17,0,512,512
254.652,-2.77556e-17,0,512,512
254.71,-2.77556e-17,0,512,512
254.757,0,0,512,512
254.804,0,0,512,512
254.851,-2.77556e-17,0,512,512
254.909,-5.55112e-17,0,512,512
254.956,-2.77556e-17,0,512,512
255.003,-2.77556e-17,0,512,512
255.05,-2.77556e-17,0,512,512
255.109,-2.77556e-17,0,512,512
255.155,-2.77556e-17,0,512,512
255.202,-2.77556e-17,0,512,512
255.261,-2.77556e-17,0,512,512
255.308,-2.77556e-17,0,512,512
255.355,-2.77556e-17,0,512,512
255.402,-2.77556e-17,0,512,512
255.46,-2.77556e-17,0,512,512
255.507,-2.77556e-17,0,512,512
255.554,-2.77556e-17,0,512,512
255.601,0,0,512,512
255.659,0,0,512,512
255.706,0,0,512,512
255.753,0,0,512,512
255.812,0,0,512,512
255.859,0,0,512,512
255.905,2.77556e-17,0,512,512
255.952,0,0,512,512
256.011,0,0,512,512
256.058,0,0,512,512
256.105,0,0,512,512
256.151,0,0,512,512
256.21,0,0,512,512
256.257,2.77556e-17,0,512,512
256.304,2.77556e-17,0,512,512
256.351,0,0,512,512
256.409,0,0,512,512
256.456,0,0,512,512
256.503,0,0,512,512
256.562,0,0,512,512
256.608,0,0,512,512
256.655,-2.77556e-17,0,512,512
256.702,0,0,512,512
256.761,-2.77556e-17,0,512,512
256.808,0,0,512,512
256.854,-2.77556e-17,0,512,512
256.901,-2.77556e-17,0,512,512
256.96,-2.77556e-17,0,512,512
257.007,-2.77556e-17,0,512,512
257.054,0,0,512,512
257.101,-2.77556e-17,0,512,512
257.159,-2.77556e-17,0,512,512
257.206,0,0,512,512
257.253,0,0,512,512
257.311,0,0,512,512
257.358,2.77556e-17,0,512,512
257.405,2.77556e-17,0,512,512
257.452,0,0,512,512
257.511,0,0,512,512
257.557,0,0,512,512
257.604,0,0,512,512
257.651,0,0,512,512
257.71,-2.77556e-17,0,512,512
257.757,0,0,512,512
257.804,0,0,512,512
257.85,0,0,512,512
257.909,-2.77556e-17,0,512,512
257.956,-2.77556e-17,0,512,512
258.003,-2.77556e-17,0,512,512
258.061,0,0,512,512
258.108,0,0,512,512
258.155,0,0,512,512
258.202,0,0,512,512
258.261,0,0,512,512
258.307,-2.77556e-17,0,512,512
258.354,0,0,512,512
258.401,-2.77556e-17,0,512,512
258.46,-2.77556e-17,0,512,512
258.507,-2.77556e-17,0,512,512
258.553,-2.77556e-17,0,512,512
258.6,-2.77556e-17,0,512,512
258.659,-2.77556e-17,0,512,512
258.706,-5.55112e-17,0,512,512
258.753,-5.55112e-17,0,512,512
258.811,-5.55112e-17,0,512,512
258.858,-5.55112e-17,0,512,512
258.905,-2.77556e-17,0,512,512
258.952,0,0,512,512
259.01,0,0,512,512
259.057,-2.77556e-17,0,512,512
259.104,0,0,512,512
259.151,0,0,512,512
259.21,-2.77556e-17,0,512,512
259.256,-2.77556e-17,0,512,512
259.303,0,0,512,512
259.35,0,0,512,512
259.409,2.77556e-17,0,512,512
259.456,2.77556e-17,0,512,512
259.503,0,0,512,512
259.561,0,0,512,512
259.608,0,0,512,512
259.655,-2.77556e-17,0,512,512
259.702,-2.77556e-17,0,512,512
259.76,0,0,512,512
259.807,0,0,512,512
259.854,2.77556e-17,0,512,512
259.901,0,0,512,512
259.959,0,0,512,512
260.006,0,0,512,512
260.053,0,0,512,512
260.1,-2.77556e-17,0,512,512
260.159,-2.77556e-17,0,512,512
260.206,-2.77556e-17,0,512,512
260.252,-2.77556e-17,0,512,512
260.311,-2.77556e-17,0,512,512
260.358,-2.77556e-17,0,512,512
260.405,-2.77556e-17,0,512,512
260.452,-2.77556e-17,0,512,512
260.51,-2.77556e-17,0,512,512
260.557,-2.77556e-17,0,512,512
260.604,0,0,512,512
260.651,0,0,512,512
260.709,0,0,512,512
260.756,0,0,512,512
260.803,0,0,512,512
260.862,0,0,512,512
260.909,2.77556e-17,0,512,512
260.955,2.77556e-17,0,512,512
261.002,2.77556e-17,0,512,512
261.061,2.77556e-17,0,512,512
261.108,2.77556e-17,0,512,512
261.155,2.77556e-17,0,512,512
261.201,2.77556e-17,0,512,512
261.26,0,0,512,512
261.307,0,0,512,512
261.354,0,0,512,512
261.401,0,0,512,512
261.459,0,0,512,512
261.506,0,0,512,512
261.553,0,0,512,512
261.612,0,0,512,512
261.658,0,0,512,512
261.705,0,0,512,512
261.752,2.77556e-17,0,512,512
261.811,2.77556e-17,0,512,512
261.858,-2.77556e-17,0,512,512
261.905,0,0,512,512
261.951,0,0,512,512
262.01,0,0,512,512
262.057,0,0,512,512
262.104,0,0,512,512
262.151,0,0,512,512
262.209,0,0,512,512
262.256,2.77556e-17,0,512,512
262.303,2.77556e-17,0,512,512
262.361,0,0,512,512
262.408,0,0,512,512
262.455,0,0,512,512
262.502,0,0,512,512
262.561,0,0,512,512
262.608,2.77556e-17,0,512,512
262.654,2.77556e-17,0,512,512
262.701,2.77556e-17,0,512,512
262.76,2.77556e-17,0,512,512
262.807,0,0,512,512
262.854,0,0,512,512
262.9,2.77556e-17,0,512,512
262.959,0,0,512,512
263.006,0,0,512,512
263.053,0,0,512,512
263.111,0,0,512,512
263.158,0,0,512,512
263.205,0,0,512,512
263.252,0,0,512,512
263.311,0,0,512,512
263.357,2.77556e-17,0,512,512
263.404,2.77556e-17,0,512,512
263.451,2.77556e-17,0,512,512
263.51,0,0,512,512
263.557,0,0,512,512
263.603,0,0,512,512
263.65,0,0,512,512
263.709,-2.77556e-17,0,512,512
263.756,-2.77556e-17,0,512,512
263.803,-2.77556e-17,0,512,512
263.861,0,0,512,512
263.908,0,0,512,512
263.955,2.77556e-17,0,512,512
264.002,0,0,512,512
264.06,0,0,512,512
264.107,0,0,512,512
264.154,0,0,512,512
264.201,0,0,512,512
264.26,0,0,512,512
264.306,2.77556e-17,0,512,512
264.353,2.77556e-17,0,512,512
264.4,2.77556e-17,0,512,512
264.459,2.77556e-17,0,512,512
264.506,2.77556e-17,0,512,512
264.553,2.77556e-17,0,512,512
264.611,2.77556e-17,0,512,512
264.658,2.77556e-17,0,512,512
264.705,2.77556e-17,0,512,512
264.752,2.77556e-17,0,512,512
264.81,2.77556e-17,0,512,512
264.857,2.77556e-17,0,512,512
264.904,2.77556e-17,0,512,512
264.951,2.77556e-17,0,512,512
265.01,2.77556e-17,0,512,512
265.056,2.77556e-17,0,512,512
265.103,2.77556e-17,0,512,512
265.15,2.77556e-17,0,512,512
265.209,2.77556e-17,0,512,512
265.256,2.77556e-17,0,512,512
265.302,2.77556e-17,0,512,512
265.361,5.55112e-17,0,512,512
265.408,5.55112e-17,0,512,512
265.455,5.55112e-17,0,512,512
265.502,5.55112e-17,0,512,512
265.56,2.77556e-17,0,512,512
265.607,2.77556e-17,0,512,512
265.654,2.77556e-17,0,512,512
265.701,2.77556e-17,0,512,512
265.759,2.77556e-17,0,512,512
265.806,2.77556e-17,0,512,512
265.853,2.77556e-17,0,512,512
265.9,2.77556e-17,0,512,512
265.959,2.77556e-17,0,512,512
266.005,2.77556e-17,0,512,512
266.052,2.77556e-17,0,512,512
266.111,0,0,512,512
266.158,2.77556e-17,0,512,512
266.205,0,0,512,512
266.252,2.77556e-17,0,512,512
266.31,2.77556e-17,0,512,512
266.357,2.77556e-17,0,512,512
266.404,2.77556e-17,0,512,512
266.451,2.77556e-17,0,512,512
266.509,0,0,512,512
266.556,0,0,512,512
266.603,-2.77556e-17,0,512,512
266.662,-2.77556e-17,0,512,512
266.708,-2.77556e-17,0,512,512
266.755,0,0,512,512
266.802,-2.77556e-17,0,512,512
266.861,-2.77556e-17,0,512,512
266.908,-2.77556e-17,0,512,512
266.955,-2.77556e-17,0,512,512
267.001,-2.77556e-17,0,512,512
267.06,-2.77556e-17,0,512,512
267.107,-2.77556e-17,0,512,512
267.154,-2.77556e-17,0,512,512
267.201,-2.77556e-17,0,512,512
267.259,-2.77556e-17,0,512,512
267.306,-2.77556e-17,0,512,512
267.353,-2.77556e-17,0,512,512
267.412,-2.77556e-17,0,512,512
267.458,-2.77556e-17,0,512,512
267.505,-2.77556e-17,0,512,512
267.552,0,0,512,512
267.611,2.77556e-17,0,512,512
267.658,2.77556e-17,0,512,512
267.704,2.77556e-17,0,512,512
267.751,2.77556e-17,0,512,512
267.81,2.77556e-17,0,512,512
267.857,2.77556e-17,0,512,512
267.904,2.77556e-17,0,512,512
267.95,2.77556e-17,0,512,512
268.009,2.77556e-17,0,512,512
268.056,2.77556e-17,0,512,512
268.103,2.77556e-17,0,512,512
268.161,2.77556e-17,0,512,512
268.208,2.77556e-17,0,512,512
268.255,0,0,512,512
268.302,0,0,512,512
268.361,0,0,512,512
268.407,0,0,512,512
268.454,0,0,512,512
268.501,0,0,512,512
268.56,0,0,512,512
268.607,0,0,512,512
268.654,-2.77556e-17,0,512,512
268.7,-2.77556e-17,0,512,512
268.759,-2.77556e-17,0,512,512
268.806,-2.77556e-17,0,512,512
268.853,0,0,512,512
268.911,0,0,512,512
268.958,2.77556e-17,0,512,512
269.005,2.77556e-17,0,512,512
269.052,2.77556e-17,0,512,512
269.11,0,0,512,512
269.157,0,0,512,512
269.204,0,0,512,512
269.251,2.77556e-17,0,512,512
269.31,2.77556e-17,0,512,512
269.357,0,0,512,512
269.403,2.77556e-17,0,512,512
269.45,2.77556e-17,0,512,512
269.509,2.77556e-17,0,512,512
269.556,2.77556e-17,0,512,512
269.603,2.77556e-17,0,512,512
269.661,2.77556e-17,0,512,512
269.708,2.77556e-17,0,512,512
269.755,2.77556e-17,0,512,512
269.802,2.77556e-17,0,512,512
269.86,2.77556e-17,0,512,512
269.907,2.77556e-17,0,512,512
269.954,2.77556e-17,0,512,512
270.001,2.77556e-17,0,512,512
270.06,2.77556e-17,0,512,512
270.106,2.77556e-17,0,512,512
270.153,2.77556e-17,0,512,512
270.2,2.77556e-17,0,512,512
270.259,2.77556e-17,0,512,512
270.306,2.77556e-17,0,512,512
270.352,2.77556e-17,0,512,512
270.411,2.77556e-17,0,512,512
270.458,2.77556e-17,0,512,512
270.505,2.77556e-17,0,512,512
270.552,2.77556e-17,0,512,512
270.61,0,0,512,512
270.657,-3.88578e-16,0,512,512
270.701,-3.85803e-15,0,515,515
270.756,-4.52138e-14,0,521,521
270.803,-2.43139e-13,0,529,529
270.855,-1.14594e-12,0,537,537
270.902,-3.55801e-12,0,543,543
270.955,-1.01064e-11,0,551,551
271.002,-2.14068e-11,0,555,555
271.054,-4.17786e-11,0,561,561
271.101,-6.57467e-11,0,569,569
271.154,-9.46605e-11,0,581,581
271.201,-1.1585e-10,0,591,591
271.254,-1.27334e-10,0,603,603
271.301,-1.23009e-10,0,615,615
271.353,-1.0257e-10,0,623,623
271.4,-7.49303e-11,0,633,633
271.453,-4.00751e-11,0,636,636
271.506,-7.33266e-12,0,636,636
271.552,1.72999e-11,0,636,636
271.605,3.9534e-11,0,636,636
271.652,5.50925e-11,0,642,642
271.705,6.867e-11,0,638,638
271.752,7.76479e-11,0,640,640
271.804,8.47099e-11,0,636,636
271.851,8.89524e-11,0,638,638
271.904,9.24999e-11,0,643,643
271.951,9.53383e-11,0,651,651
272.004,9.8503e-11,0,655,655
272.05,1.01072e-10,0,661,661
272.103,1.03272e-10,0,671,671
272.15,1.04528e-10,0,675,675
272.203,1.05507e-10,0,685,685
272.255,1.06563e-10,0,693,693
272.302,1.07761e-10,0,693,693
272.355,1.09175e-10,0,701,701
272.402,1.10205e-10,0,711,711
272.455,1.11229e-10,0,719,719
272.502,1.13006e-10,0,719,719
272.554,1.19078e-10,0,731,731
272.601,1.34217e-10,0,737,737
272.654,1.77857e-10,0,741,741
272.701,2.66319e-10,0,753,753
272.753,4.73234e-10,0,755,755
272.8,8.16599e-10,0,751,751
272.853,1.47523e-09,0,763,763
272.906,2.52542e-09,0,767,767
272.953,3.86142e-09,0,767,767
273.005,5.86766e-09,0,767,767
273.052,8.1077e-09,0,773,773
273.105,1.11195e-08,0,778,778
273.152,1.42034e-08,0,766,766
273.205,1.81101e-08,0,774,774
273.251,2.19903e-08,0,778,778
273.304,2.68981e-08,0,768,768
273.351,3.18731e-08,0,774,774
273.404,3.83711e-08,0,764,764
273.451,4.51653e-08,0,772,772
273.503,5.42245e-08,0,774,774
273.55,6.37586e-08,0,784,784
273.603,7.63777e-08,0,786,786
273.656,9.11801e-08,0,776,776
273.703,1.06253e-07,0,772,772
273.755,1.25366e-07,0,778,778
273.802,1.44191e-07,0,784,784
273.855,1.67263e-07,0,786,786
273.902,1.89315e-07,0,786,786
273.954,2.19117e-07,0,784,784
274.001,2.61717e-07,0,786,786
274.054,3.13958e-07,0,788,788
274.101,3.7047e-07,0,804,804
274.154,4.25458e-07,0,800,800
274.201,4.75262e-07,0,812,812
274.253,5.31958e-07,0,822,822
274.3,5.79898e-07,0,818,818
274.353,6.37392e-07,0,832,832
274.406,6.91253e-07,0,830,830
274.452,7.3504e-07,0,828,828
274.505,7.75721e-07,0,834,834
274.552,8.01713e-07,0,834,834
274.605,8.22866e-07,0,832,832
274.652,8.34956e-07,0,838,838
274.705,8.38772e-07,0,840,840
274.753,8.37232e-07,0,844,844
274.8,8.32088e-07,0,836,836
274.854,8.23238e-07,0,840,840
274.901,8.12547e-07,0,840,840
274.955,7.96833e-07,0,842,842
275.003,7.80156e-07,0,834,834
275.052,7.60819e-07,0,830,830
275.1,7.39265e-07,0,836,836
275.155,7.12963e-07,0,838,838
275.203,6.80968e-07,0,828,828
275.252,6.27217e-07,0,830,830
275.301,5.65648e-07,0,830,830
275.35,5.12426e-07,0,828,828
275.405,4.61042e-07,0,830,830
275.455,4.16472e-07,0,824,824
275.504,3.77721e-07,0,822,822
275.554,3.39293e-07,0,816,816
275.604,3.03977e-07,0,814,814
275.654,2.71803e-07,0,824,824
275.705,2.40448e-07,0,818,818
275.755,2.13403e-07,0,818,818
275.805,1.88391e-07,0,818,818
275.856,1.6628e-07,0,816,816
275.901,1.49727e-07,0,818,818
275.952,1.32244e-07,0,810,810
276.003,1.17446e-07,0,804,804
276.054,1.0378e-07,0,822,822
276.106,9.06755e-08,0,812,812
276.151,8.04615e-08,0,808,808
276.203,6.69532e-08,0,808,808
276.255,5.87915e-08,0,810,810
276.301,5.47393e-08,0,802,802
276.353,5.02059e-08,0,804,804
276.406,4.61011e-08,0,808,808
276.452,4.23034e-08,0,804,804
276.505,3.83755e-08,0,804,804
276.552,3.53477e-08,0,804,804
276.605,3.2149e-08,0,808,808
276.652,2.96716e-08,0,800,800
276.706,2.74002e-08,0,798,798
276.753,2.58839e-08,0,800,800
276.8,2.46999e-08,0,804,804
276.854,2.36818e-08,0,798,798
276.902,2.30693e-08,0,796,796
276.957,2.25914e-08,0,800,800
277.005,2.2316e-08,0,798,798
277.053,2.21229e-08,0,794,794
277.101,2.19392e-08,0,798,798
277.157,2.17103e-08,0,800,800
277.205,2.1525e-08,0,794,794
277.254,2.13683e-08,0,792,792
277.303,2.12263e-08,0,792,792
277.353,2.1082e-08,0,788,788
277.402,2.09279e-08,0,794,794
277.452,2.07655e-08,0,796,796
277.501,2.05986e-08,0,788,788
277.551,2.04258e-08,0,788,788
277.601,2.02441e-08,0,792,792
277.652,2.00481e-08,0,786,786
277.702,1.9831e-08,0,786,786
277.753,1.95818e-08,0,786,786
277.804,1.92935e-08,0,784,784
277.856,1.89653e-08,0,784,784
277.907,1.86031e-08,0,786,786
277.951,1.82709e-08,0,784,784
278.003,1.78624e-08,0,786,786
278.055,1.74315e-08,0,782,782
278.107,1.69809e-08,0,782,782
278.151,1.65811e-08,0,786,786
278.204,1.60984e-08,0,772,772
278.256,1.55979e-08,0,774,774
278.301,1.51579e-08,0,784,784
278.353,1.46408e-08,0,774,774
278.406,1.41282e-08,0,780,780
278.451,1.36958e-08,0,784,784
278.503,1.31998e-08,0,772,772
278.556,1.27139e-08,0,780,780
278.601,1.2307e-08,0,782,782
278.654,1.18474e-08,0,772,772
278.707,1.14067e-08,0,782,782
278.753,1.10451e-08,0,770,770
278.806,1.06433e-08,0,770,770
278.851,1.03196e-08,0,784,784
278.904,9.96977e-09,0,776,776
278.95,9.69638e-09,0,791,791
279.004,9.40753e-09,0,793,793
279.057,9.14782e-09,0,777,777
279.103,8.94596e-09,0,773,773
279.157,8.73444e-09,0,777,777
279.203,8.57392e-09,0,775,775
279.256,8.41134e-09,0,771,771
279.303,8.29155e-09,0,769,769
279.357,8.17099e-09,0,763,763
279.403,8.0816e-09,0,757,757
279.457,7.99147e-09,0,751,751
279.504,7.92588e-09,0,747,747
279.55,7.87065e-09,0,731,731
279.605,7.81793e-09,0,721,721
279.652,7.78139e-09,0,717,717
279.706,7.74743e-09,0,713,713
279.753,7.72502e-09,0,709,709
279.8,7.70852e-09,0,703,703
279.855,7.69625e-09,0,691,691
279.903,7.69093e-09,0,687,687
279.95,7.68942e-09,0,689,689
280.006,7.69107e-09,0,679,679
280.053,7.69428e-09,0,675,675
280.101,7.69831e-09,0,653,653
280.157,7.70333e-09,0,622,622
280.205,7.70776e-09,0,580,580
280.256,7.71286e-09,0,533,533
280.301,7.71831e-09,0,537,537
280.355,7.72683e-09,0,545,545
280.406,7.73707e-09,0,559,559
280.455,7.74871e-09,0,569,569
280.501,7.76146e-09,0,577,577
280.553,7.77659e-09,0,601,601
280.601,7.79102e-09,0,623,623
280.657,7.80758e-09,0,625,625
280.705,7.82136e-09,0,633,633
280.753,7.83479e-09,0,627,627
280.801,7.84822e-09,0,629,629
280.857,7.86461e-09,0,633,633
280.904,7.87984e-09,0,637,637
280.952,7.89649e-09,0,637,637
281.007,7.91757e-09,0,635,635
281.055,7.93659e-09,0,635,635
281.102,7.95588e-09,0,639,639
281.157,7.97803e-09,0,633,633
281.204,7.99639e-09,0,649,649
281.252,8.01423e-09,0,651,651
281.307,8.0349e-09,0,653,653
281.354,8.05328e-09,0,663,663
281.4,8.07316e-09,0,669,669
281.455,8.09941e-09,0,675,675
281.502,8.12553e-09,0,685,685
281.557,8.16134e-09,0,687,687
281.603,8.19738e-09,0,693,693
281.658,8.24677e-09,0,705,705
281.704,8.29636e-09,0,707,707
281.751,8.35375e-09,0,705,705
281.805,8.43239e-09,0,706,706
281.851,8.51169e-09,0,698,698
281.905,8.62073e-09,0,700,700
281.951,8.73096e-09,0,704,704
282.005,8.88245e-09,0,704,704
282.051,9.03479e-09,0,700,700
282.105,9.2427e-09,0,704,704
282.151,9.44985e-09,0,696,696
282.204,9.7293e-09,0,702,702
282.25,1.00048e-08,0,706,706
282.304,1.03726e-08,0,698,698
282.357,1.07957e-08,0,700,700
282.402,1.12079e-08,0,704,704
282.456,1.17533e-08,0,690,690
282.501,1.22828e-08,0,694,694
282.554,1.29829e-08,0,692,692
282.607,1.37833e-08,0,688,688
282.652,1.45592e-08,0,688,688
282.705,1.5583e-08,0,682,682
282.75,1.6573e-08,0,682,682
282.803,1.78732e-08,0,680,680
282.855,1.9345e-08,0,680,680
282.9,2.07551e-08,0,676,676
282.953,2.25852e-08,0,680,680
283.005,2.46279e-08,0,674,674
283.057,2.68947e-08,0,682,682
283.102,2.90209e-08,0,680,680
283.154,3.1724e-08,0,674,674
283.206,3.46713e-08,0,680,680
283.251,3.73897e-08,0,676,676
283.302,4.07886e-08,0,676,676
283.354,4.44318e-08,0,680,680
283.405,4.83122e-08,0,678,678
283.457,5.24427e-08,0,676,676
283.5,5.61889e-08,0,686,686
283.551,6.0793e-08,0,670,670
283.602,6.56711e-08,0,676,676
283.652,7.08368e-08,0,680,680
283.702,7.62971e-08,0,670,670
283.752,8.20723e-08,0,676,676
283.802,8.81849e-08,0,680,680
283.852,9.46491e-08,0,676,676
283.901,1.0148e-07,0,674,674
283.95,1.08707e-07,0,680,680
284.007,1.1748e-07,0,680,680
284.056,1.25627e-07,0,674,674
284.104,1.34248e-07,0,674,674
284.153,1.43383e-07,0,676,676
284.201,1.53067e-07,0,676,676
284.256,1.64855e-07,0,676,676
284.304,1.75864e-07,0,676,676
284.352,1.87577e-07,0,676,676
284.4,2.00024e-07,0,680,680
284.454,2.1521e-07,0,674,674
284.502,2.29376e-07,0,676,676
284.556,2.46591e-07,0,682,682
284.603,2.62542e-07,0,674,674
284.656,2.8179e-07,0,680,680
284.703,2.99517e-07,0,678,678
284.756,3.20782e-07,0,678,678
284.803,3.40253e-07,0,680,680
284.855,3.63518e-07,0,674,674
284.901,3.84782e-07,0,678,678
284.954,4.10115e-07,0,682,682
285.006,4.36581e-07,0,682,682
285.052,4.65747e-07,0,676,676
285.104,5.19042e-07,0,678,678
285.156,5.631e-07,0,682,682
285.201,5.95426e-07,0,678,678
285.252,6.2871e-07,0,680,680
285.303,6.54301e-07,0,680,680
285.354,6.75478e-07,0,680,680
285.405,6.9017e-07,0,676,676
285.456,7.00525e-07,0,678,678
285.5,7.02645e-07,0,680,680
285.551,7.00512e-07,0,678,678
285.601,6.96058e-07,0,676,676
285.651,6.89351e-07,0,682,682
285.701,6.80079e-07,0,678,678
285.751,6.68759e-07,0,682,682
285.8,6.55204e-07,0,682,682
285.856,6.37754e-07,0,680,680
285.905,6.20332e-07,0,680,680
285.954,6.01241e-07,0,682,682
286.003,5.80563e-07,0,676,676
286.052,5.58334e-07,0,684,684
286.101,5.35071e-07,0,678,678
286.155,4.83643e-07,0,680,680
286.204,4.3456e-07,0,682,682
286.252,3.91467e-07,0,680,680
286.306,3.42227e-07,0,682,682
286.354,3.01406e-07,0,682,682
286.401,2.622e-07,0,680,680
286.455,2.19793e-07,0,684,684
286.502,1.85337e-07,0,682,682
286.556,1.48607e-07,0,680,680
286.603,1.19216e-07,0,686,686
286.656,8.91242e-08,0,686,686
286.703,6.50643e-08,0,686,686
286.755,4.10567e-08,0,680,680
286.802,2.1909e-08,0,682,682
286.855,3.11255e-09,0,686,686
286.902,-1.16366e-08,0,682,682
286.954,-2.61493e-08,0,686,686
287.001,-3.75004e-08,0,682,682
287.054,-4.87653e-08,0,682,682
287.101,-5.58698e-08,0,686,686
287.154,-5.88587e-08,0,686,686
287.201,-6.13146e-08,0,684,684
287.253,-6.36469e-08,0,680,680
287.3,-6.47419e-08,0,678,678
287.353,-6.56903e-08,0,682,682
287.406,-6.60291e-08,0,684,684
287.452,-6.59052e-08,0,682,682
287.505,-6.52929e-08,0,680,680
287.552,-6.44456e-08,0,684,684
287.605,-6.31712e-08,0,678,678
287.652,-6.17442e-08,0,676,676
287.704,-5.99166e-08,0,684,684
287.751,-5.8116e-08,0,682,682
287.804,-5.59145e-08,0,682,682
287.851,-5.38368e-08,0,682,682
287.904,-5.14188e-08,0,682,682
287.95,-4.92274e-08,0,678,678
288.003,-4.67272e-08,0,676,676
288.05,-4.449e-08,0,680,680
288.103,-4.19875e-08,0,680,680
288.155,-3.95322e-08,0,680,680
288.202,-3.74038e-08,0,682,682
288.255,-3.50779e-08,0,678,678
288.302,-3.30807e-08,0,676,676
288.355,-3.09262e-08,0,671,671
288.402,-2.91007e-08,0,675,675
288.454,-2.71514e-08,0,665,665
288.501,-2.55149e-08,0,655,655
288.554,-2.37876e-08,0,649,649
288.601,-2.23578e-08,0,637,637
288.653,-2.08693e-08,0,636,636
288.7,-1.96501e-08,0,636,636
288.753,-1.83914e-08,0,636,636
288.806,-1.72486e-08,0,638,638
288.853,-1.63261e-08,0,638,638
288.905,-1.53868e-08,0,636,636
288.952,-1.46328e-08,0,638,638
289.005,-1.38687e-08,0,634,634
289.052,-1.3259e-08,0,636,636
289.105,-1.26462e-08,0,632,632
289.151,-1.21623e-08,0,638,638
289.204,-1.16825e-08,0,636,636
289.251,-1.13108e-08,0,636,636
289.304,-1.09511e-08,0,638,638
289.351,-1.06795e-08,0,634,634
289.403,-1.04234e-08,0,629,629
289.45,-1.02359e-08,0,627,627
289.503,-1.00658e-08,0,615,615
289.556,-9.9348e-09,0,613,613
289.603,-9.84737e-09,0,601,601
289.655,-9.77755e-09,0,597,597
289.702,-9.73782e-09,0,589,589
289.755,-9.71512e-09,0,581,581
289.802,-9.71172e-09,0,575,575
289.854,-9.72318e-09,0,571,571
289.901,-9.74389e-09,0,559,559
289.954,-9.77602e-09,0,557,557
290.001,-9.81039e-09,0,549,549
290.054,-9.85351e-09,0,541,541
290.1,-9.89416e-09,0,535,535
290.153,-9.94078e-09,0,525,525
290.206,-9.9874e-09,0,519,519
290.256,-1.00298e-08,0,515,515
290.301,-1.00665e-08,0,512,512
290.36,-1.01113e-08,0,512,512
290.406,-1.01441e-08,0,512,512
290.453,-1.01735e-08,0,512,512
290.5,-1.01996e-08,0,512,512
290.559,-1.02278e-08,0,512,512
290.606,-1.02473e-08,0,512,512
290.652,-1.02648e-08,0,512,512
290.711,-1.02847e-08,0,512,512
290.758,-1.02999e-08,0,512,512
290.805,-1.03148e-08,0,512,512
290.852,-1.03297e-08,0,512,512
290.91,-1.03491e-08,0,512,512
290.957,-1.03656e-08,0,512,512
291.004,-1.03839e-08,0,512,512
291.051,-1.04048e-08,0,512,512
291.109,-1.04361e-08,0,512,512
291.156,-1.04669e-08,0,512,512
291.203,-1.05045e-08,0,512,512
291.25,-1.05505e-08,0,512,512
291.309,-1.06227e-08,0,512,512
291.355,-1.06945e-08,0,512,512
291.402,-1.07808e-08,0,512,512
291.461,-1.09119e-08,0,512,512
291.508,-1.10375e-08,0,512,512
291.555,-1.11833e-08,0,512,512
291.602,-1.13503e-08,0,512,512
291.66,-1.15887e-08,0,512,512
291.707,-1.1802e-08,0,512,512
291.754,-1.20335e-08,0,512,512
291.801,-1.22807e-08,0,512,512
291.859,-1.26079e-08,0,512,512
291.906,-1.28812e-08,0,512,512
291.953,-1.31627e-08,0,512,512
292.012,-1.3524e-08,0,512,512
292.058,-1.38195e-08,0,512,512
292.105,-1.41204e-08,0,512,512
292.152,-1.44269e-08,0,512,512
292.211,-1.4818e-08,0,512,512
292.258,-1.51369e-08,0,512,512
292.305,-1.54603e-08,0,512,512
292.351,-1.57868e-08,0,512,512
292.41,-1.61968e-08,0,512,512
292.457,-1.65247e-08,0,512,512
292.504,-1.6851e-08,0,512,512
292.551,-1.71744e-08,0,512,512
292.609,-1.75723e-08,0,512,512
292.656,-1.78832e-08,0,512,512
292.703,-1.81853e-08,0,512,512
292.761,-1.85486e-08,0,512,512
292.808,-1.88268e-08,0,512,512
292.855,-1.90941e-08,0,512,512
292.902,-1.93508e-08,0,512,512
292.961,-1.96579e-08,0,512,512
293.008,-1.98934e-08,0,512,512
293.054,-2.01205e-08,0,512,512
293.101,-2.03395e-08,0,512,512
293.16,-2.06017e-08,0,512,512
293.207,-2.08011e-08,0,512,512
293.254,-2.09896e-08,0,512,512
293.3,-2.11652e-08,0,512,512
293.359,-2.13642e-08,0,512,512
293.406,-2.15054e-08,0,512,512
293.453,-2.16303e-08,0,512,512
293.511,-2.17643e-08,0,512,512
293.558,-2.18547e-08,0,512,512
293.605,-2.1931e-08,0,512,512
293.652,-2.19937e-08,0,512,512
293.711,-2.20532e-08,0,512,512
293.757,-2.20857e-08,0,512,512
293.804,-2.21048e-08,0,512,512
293.851,-2.21106e-08,0,512,512
293.91,-2.20995e-08,0,512,512
293.957,-2.20764e-08,0,512,512
294.004,-2.20414e-08,0,512,512
294.05,-2.19952e-08,0,512,512
294.109,-2.1923e-08,0,512,512
294.156,-2.18548e-08,0,512,512
294.203,-2.17783e-08,0,512,512
294.261,-2.16725e-08,0,512,512
294.308,-2.15808e-08,0,512,512
294.355,-2.14839e-08,0,512,512
294.402,-2.13825e-08,0,512,512
294.46,-2.12509e-08,0,512,512
294.507,-2.11426e-08,0,512,512
294.554,-2.10323e-08,0,512,512
294.601,-2.09208e-08,0,512,512
294.66,-2.07805e-08,0,512,512
294.707,-2.06681e-08,0,512,512
294.753,-2.05562e-08,0,512,512
294.8,-2.0445e-08,0,512,512
294.859,-2.03078e-08,0,512,512
294.906,-2.01996e-08,0,512,512
294.953,-2.00931e-08,0,512,512
295.011,-1.99628e-08,0,512,512
295.058,-1.98608e-08,0,512,512
295.105,-1.9761e-08,0,512,512
295.152,-1.96633e-08,0,512,512
295.21,-1.95445e-08,0,512,512
295.257,-1.9452e-08,0,512,512
295.304,-1.93617e-08,0,512,512
295.351,-1.92735e-08,0,512,512
295.41,-1.91663e-08,0,512,512
295.456,-1.90829e-08,0,512,512
295.503,-1.90013e-08,0,512,512
295.55,-1.89216e-08,0,512,512
295.609,-1.88243e-08,0,512,512
295.656,-1.87482e-08,0,512,512
295.702,-1.86735e-08,0,512,512
295.761,-1.8582e-08,0,512,512
295.808,-1.851e-08,0,512,512
295.855,-1.8439e-08,0,512,512
295.902,-1.83689e-08,0,512,512
295.96,-1.82822e-08,0,512,512
296.007,-1.82134e-08,0,512,512
296.054,-1.8145e-08,0,512,512
296.101,-1.80769e-08,0,512,512
296.159,-1.7992e-08,0,512,512
296.206,-1.7924e-08,0,512,512
296.253,-1.78558e-08,0,512,512
296.3,-1.77872e-08,0,512,512
296.359,-1.7701e-08,0,512,512
296.405,-1.76312e-08,0,512,512
296.452,-1.75607e-08,0,512,512
296.511,-1.74713e-08,0,512,512
296.558,-1.73985e-08,0,512,512
296.605,-1.73245e-08,0,512,512
296.652,-1.7249e-08,0,512,512
296.71,-1.71525e-08,0,512,512
296.757,-1.70732e-08,0,512,512
296.804,-1.69921e-08,0,512,512
296.851,-1.69088e-08,0,512,512
296.909,-1.68015e-08,0,512,512
296.956,-1.67129e-08,0,512,512
297.003,-1.66216e-08,0,512,512
297.062,-1.65034e-08,0,512,512
297.109,-1.64055e-08,0,512,512
297.155,-1.63044e-08,0,512,512
297.202,-1.61998e-08,0,512,512
297.261,-1.6064e-08,0,512,512
297.308,-1.59511e-08,0,512,512
297.355,-1.58342e-08,0,512,512
297.401,-1.57131e-08,0,512,512
297.46,-1.55556e-08,0,512,512
297.507,-1.54244e-08,0,512,512
297.554,-1.52884e-08,0,512,512
297.601,-1.51474e-08,0,512,512
297.659,-1.49639e-08,0,512,512
297.706,-1.48111e-08,0,512,512
297.753,-1.46526e-08,0,512,512
297.812,-1.44464e-08,0,512,512
297.858,-1.42746e-08,0,512,512
297.905,-1.40966e-08,0,512,512
297.952,-1.39122e-08,0,512,512
298.011,-1.36722e-08,0,512,512
298.058,-1.34724e-08,0,512,512
298.104,-1.32655e-08,0,512,512
298.151,-1.30511e-08,0,512,512
298.21,-1.27723e-08,0,512,512
298.257,-1.25403e-08,0,512,512
298.304,-1.23e-08,0,512,512
298.351,-1.20512e-08,0,512,512
298.409,-1.17278e-08,0,512,512
298.456,-1.14589e-08,0,512,512
298.503,-1.11805e-08,0,512,512
298.561,-1.08191e-08,0,512,512
298.608,-1.05188e-08,0,512,512
298.655,-1.02084e-08,0,512,512
298.702,-9.88785e-09,0,512,512
298.761,-9.47267e-09,0,512,512
298.807,-9.12892e-09,0,512,512
298.854,-8.77492e-09,0,512,512
298.901,-8.41082e-09,0,512,512
298.96,-7.94189e-09,0,512,512
299.007,-7.55613e-09,0,512,512
299.054,-7.16145e-09,0,512,512
299.1,-6.75843e-09,0,512,512
299.159,-6.24403e-09,0,512,512
299.206,-5.82503e-09,0,512,512
299.253,-5.4004e-09,0,512,512
299.311,-4.86335e-09,0,512,512
299.358,-4.43012e-09,0,512,512
299.405,-3.99507e-09,0,512,512
299.452,-3.55955e-09,0,512,512
299.511,-3.01663e-09,0,512,512
299.557,-2.58526e-09,0,512,512
299.604,-2.15814e-09,0,512,512
299.651,-1.73677e-09,0,512,512
299.71,-1.22042e-09,0,512,512
299.757,-8.17427e-10,0,512,512
299.803,-4.24956e-10,0,512,512
299.85,-4.43752e-11,0,512,512
299.909,4.12659e-10,0,512,512
299.956,7.61872e-10,0,512,512
300.003,1.09531e-09,0,512,512
300.061,1.48848e-09,0,512,512
300.108,1.7831e-09,0,512,512
300.155,2.0593e-09,0,512,512
300.202,2.31655e-09,0,512,512
300.26,2.61095e-09,0,512,512
300.307,2.8245e-09,0,512,512
300.354,3.01849e-09,0,512,512
300.401,3.19306e-09,0,512,512
300.46,3.38443e-09,0,512,512
300.506,3.51658e-09,0,512,512
300.553,3.63076e-09,0,512,512
300.6,3.72767e-09,0,512,512
300.659,3.82578e-09,0,512,512
300.706,3.88697e-09,0,512,512
300.753,3.93385e-09,0,512,512
300.811,3.97395e-09,0,512,512
300.858,3.99256e-09,0,512,512
300.905,4.00042e-09,0,512,512
300.952,3.99866e-09,0,512,512
301.01,3.98463e-09,0,512,512
301.057,3.96526e-09,0,512,512
301.104,3.9398e-09,0,512,512
301.151,3.90923e-09,0,512,512
301.209,3.86528e-09,0,512,512
301.256,3.82656e-09,0,512,512
301.303,3.78553e-09,0,512,512
301.35,3.74287e-09,0,512,512
301.409,3.68817e-09,0,512,512
301.456,3.64392e-09,0,512,512
301.502,3.59966e-09,0,512,512
301.561,3.54479e-09,0,512,512
301.608,3.50148e-09,0,512,512
301.655,3.45881e-09,0,512,512
301.702,3.4168e-09,0,512,512
301.76,3.36507e-09,0,512,512
301.807,3.32414e-09,0,512,512
301.854,3.28337e-09,0,512,512
301.901,3.24249e-09,0,512,512
301.959,3.19076e-09,0,512,512
302.006,3.14844e-09,0,512,512
302.053,3.10493e-09,0,512,512
302.112,3.04832e-09,0,512,512
302.159,3.00088e-09,0,512,512
302.205,2.95121e-09,0,512,512
302.252,2.89911e-09,0,512,512
302.311,2.83032e-09,0,512,512
302.358,2.77227e-09,0,512,512
302.405,2.71154e-09,0,512,512
302.451,2.64822e-09,0,512,512
302.51,2.56575e-09,0,512,512
302.557,2.49743e-09,0,512,512
302.604,2.42742e-09,0,512,512
302.651,2.35616e-09,0,512,512
302.709,2.26607e-09,0,512,512
302.756,2.19385e-09,0,512,512
302.803,2.12214e-09,0,512,512
302.862,2.03412e-09,0,512,512
302.908,1.96577e-09,0,512,512
302.955,1.89991e-09,0,512,512
303.002,1.83713e-09,0,512,512
303.061,1.76384e-09,0,512,512
303.108,1.71e-09,0,512,512
303.155,1.66091e-09,0,512,512
303.201,1.61697e-09,0,512,512
303.26,1.56981e-09,0,512,512
303.307,1.53858e-09,0,512,512
303.354,1.51332e-09,0,512,512
303.401,1.49412e-09,0,512,512
303.459,1.47863e-09,0,512,512
303.506,1.47296e-09,0,512,512
303.553,1.47307e-09,0,512,512
303.611,1.48099e-09,0,512,512
303.658,1.49317e-09,0,512,512
303.705,1.51014e-09,0,512,512
303.752,1.53149e-09,0,512,512
303.811,1.56363e-09,0,512,512
303.858,1.59312e-09,0,512,512
303.904,1.62541e-09,0,512,512
303.951,1.66e-09,0,512,512
304.01,1.7057e-09,0,512,512
304.057,1.74361e-09,0,512,512
304.104,1.78221e-09,0,512,512
304.15,1.82104e-09,0,512,512
304.209,1.86927e-09,0,512,512
304.256,1.90714e-09,0,512,512
304.303,1.944e-09,0,512,512
304.361,1.98819e-09,0,512,512
304.408,2.02171e-09,0,512,512
304.455,2.05337e-09,0,512,512
304.502,2.08299e-09,0,512,512
304.561,2.11693e-09,0,512,512
304.607,2.1415e-09,0,512,512
304.654,2.16369e-09,0,512,512
304.701,2.18348e-09,0,512,512
304.76,2.20482e-09,0,512,512
304.807,2.2192e-09,0,512,512
304.853,2.23123e-09,0,512,512
304.9,2.24098e-09,0,512,512
304.959,2.25005e-09,0,512,512
