250,0,0,512,512
250.012,0,0,512,512
250.059,0,0,512,512
250.105,0,0,512,512
250.152,0,0,512,512
250.211,0,0,512,512
250.258,0,0,512,512
250.305,0,0,512,512
250.352,0,0,512,512
250.41,0,0,512,512
250.457,0,0,512,512
250.504,0,0,512,512
250.551,0,0,512,512
250.609,0,0,512,512
250.656,0,0,512,512
250.703,0,0,512,512
250.762,0,0,512,512
250.808,0,0,512,512
250.855,0,0,512,512
250.902,0,0,512,512
250.961,0,0,512,512
251.008,0,0,512,512
251.055,0,0,512,512
251.101,0,0,512,512
251.16,0,0,512,512
251.207,0,0,512,512
251.254,0,0,512,512
251.301,0,0,512,512
251.359,0,0,512,512
251.406,0,0,512,512
251.453,0,0,512,512
251.511,0,0,512,512
251.558,0,0,512,512
251.605,0,0,512,512
251.652,0,0,512,512
251.711,0,0,512,512
251.758,0,0,512,512
251.804,0,0,512,512
251.851,0,0,512,512
251.91,0,0,512,512
251.957,0,0,512,512
252.004,0,0,512,512
252.05,0,0,512,512
252.109,0,0,512,512
252.156,0,0,512,512
252.203,0,0,512,512
252.261,0,0,512,512
252.308,0,0,512,512
252.355,0,0,512,512
252.402,0,0,512,512
252.461,0,0,512,512
252.507,0,0,512,512
252.554,0,0,512,512
252.601,0,0,512,512
252.66,0,0,512,512
252.707,0,0,512,512
252.754,0,0,512,512
252.8,0,0,512,512
252.859,0,0,512,512
252.906,0,0,512,512
252.953,0,0,512,512
253.011,0,0,512,512
253.058,0,0,512,512
253.105,0,0,512,512
253.152,0,0,512,512
253.21,0,0,512,512
253.257,-1.38778e-17,0,512,512
253.304,-1.38778e-17,0,512,512
253.351,-1.38778e-17,0,512,512
253.41,-1.38778e-17,0,512,512
253.457,-1.38778e-17,0,512,512
253.503,-1.38778e-17,0,512,512
253.55,-1.38778e-17,0,512,512
253.609,-1.38778e-17,0,512,512
253.656,-1.38778e-17,0,512,512
253.703,-1.38778e-17,0,512,512
253.761,-1.38778e-17,0,512,512
253.808,-1.38778e-17,0,512,512
253.855,-1.38778e-17,0,512,512
253.902,-1.38778e-17,0,512,512
253.96,-1.38778e-17,0,512,512
254.007,-1.38778e-17,0,512,512
254.054,-1.38778e-17,0,512,512
254.101,-1.38778e-17,0,512,512
254.16,-1.38778e-17,0,512,512
254.206,-1.38778e-17,0,512,512
254.253,0,0,512,512
254.3,1.38778e-17,0,512,512
254.359,1.38778e-17,0,512,512
254.406,1.38778e-17,0,512,512
254.452,2.77556e-17,0,512,512
254.511,2.77556e-17,0,512,512
254.558,1.38778e-17,0,512,512
254.605,0,0,512,512
254.652,0,0,512,512
254.71,0,0,512,512
254.757,0,0,512,512
254.804,0,0,512,512
254.851,0,0,512,512
254.909,0,0,512,512
254.956,0,0,512,512
255.003,0,0,512,512
255.05,-1.38778e-17,0,512,512
255.109,-1.38778e-17,0,512,512
255.155,-1.38778e-17,0,512,512
255.202,-2.77556e-17,0,512,512
255.261,-2.77556e-17,0,512,512
255.308,-2.77556e-17,0,512,512
255.355,-2.77556e-17,0,512,512
255.402,-2.77556e-17,0,512,512
255.46,-1.38778e-17,0,512,512
255.507,-1.38778e-17,0,512,512
255.554,-1.38778e-17,0,512,512
255.601,-1.38778e-17,0,512,512
255.659,-1.38778e-17,0,512,512
255.706,-1.38778e-17,0,512,512
255.753,-1.38778e-17,0,512,512
255.812,-1.38778e-17,0,512,512
255.859,-1.38778e-17,0,512,512
255.905,-1.38778e-17,0,512,512
255.952,-1.38778e-17,0,512,512
256.011,0,0,512,512
256.058,1.38778e-17,0,512,512
256.105,1.38778e-17,0,512,512
256.151,1.38778e-17,0,512,512
256.21,1.38778e-17,0,512,512
256.257,1.38778e-17,0,512,512
256.304,1.38778e-17,0,512,512
256.351,1.38778e-17,0,512,512
256.409,1.38778e-17,0,512,512
256.456,1.38778e-17,0,512,512
256.503,1.38778e-17,0,512,512
256.562,1.38778e-17,0,512,512
256.608,1.38778e-17,0,512,512
256.655,1.38778e-17,0,512,512
256.702,1.38778e-17,0,512,512
256.761,0,0,512,512
256.808,0,0,512,512
256.854,0,0,512,512
256.901,0,0,512,512
256.96,0,0,512,512
257.007,0,0,512,512
257.054,0,0,512,512
257.101,0,0,512,512
257.159,0,0,512,512
257.206,0,0,512,512
257.253,0,0,512,512
257.311,0,0,512,512
257.358,1.38778e-17,0,512,512
257.405,0,0,512,512
257.452,0,0,512,512
257.511,1.38778e-17,0,512,512
257.557,0,0,512,512
257.604,0,0,512,512
257.651,0,0,512,512
257.71,1.38778e-17,0,512,512
257.757,0,0,512,512
257.804,0,0,512,512
257.85,1.38778e-17,0,512,512
257.909,0,0,512,512
257.956,0,0,512,512
258.003,0,0,512,512
258.061,0,0,512,512
258.108,0,0,512,512
258.155,0,0,512,512
258.202,0,0,512,512
258.261,0,0,512,512
258.307,0,0,512,512
258.354,0,0,512,512
258.401,0,0,512,512
258.46,0,0,512,512
258.507,-1.38778e-17,0,512,512
258.553,-1.38778e-17,0,512,512
258.6,-1.38778e-17,0,512,512
258.659,-1.38778e-17,0,512,512
258.706,-1.38778e-17,0,512,512
258.753,-1.38778e-17,0,512,512
258.811,-1.38778e-17,0,512,512
258.858,-1.38778e-17,0,512,512
258.905,-1.38778e-17,0,512,512
258.952,-1.38778e-17,0,512,512
259.01,-1.38778e-17,0,512,512
259.057,-1.38778e-17,0,512,512
259.104,-1.38778e-17,0,512,512
259.151,-1.38778e-17,0,512,512
259.21,1.38778e-17,0,512,512
259.256,1.38778e-17,0,512,512
259.303,1.38778e-17,0,512,512
259.35,2.77556e-17,0,512,512
259.409,2.77556e-17,0,512,512
259.456,2.77556e-17,0,512,512
259.503,2.77556e-17,0,512,512
259.561,2.77556e-17,0,512,512
259.608,2.77556e-17,0,512,512
259.655,2.77556e-17,0,512,512
259.702,2.77556e-17,0,512,512
259.76,2.77556e-17,0,512,512
259.807,2.77556e-17,0,512,512
259.854,2.77556e-17,0,512,512
259.901,2.77556e-17,0,512,512
259.959,2.77556e-17,0,512,512
260.006,2.77556e-17,0,512,512
260.053,2.77556e-17,0,512,512
260.1,2.77556e-17,0,512,512
260.159,2.77556e-17,0,512,512
260.206,2.77556e-17,0,512,512
260.252,2.77556e-17,0,512,512
260.311,1.38778e-17,0,512,512
260.358,1.38778e-17,0,512,512
260.405,0,0,512,512
260.452,0,0,512,512
260.51,0,0,512,512
260.557,0,0,512,512
260.604,0,0,512,512
260.651,-1.38778e-17,0,512,512
260.709,-1.38778e-17,0,512,512
260.756,-1.38778e-17,0,512,512
260.803,-1.38778e-17,0,512,512
260.862,0,0,512,512
260.909,0,0,512,512
260.955,0,0,512,512
261.002,1.38778e-17,0,512,512
261.061,0,0,512,512
261.108,0,0,512,512
261.155,1.38778e-17,0,512,512
261.201,1.38778e-17,0,512,512
261.26,1.38778e-17,0,512,512
261.307,1.38778e-17,0,512,512
261.354,1.38778e-17,0,512,512
261.401,1.38778e-17,0,512,512
261.459,2.77556e-17,0,512,512
261.506,2.77556e-17,0,512,512
261.553,1.38778e-17,0,512,512
261.612,1.38778e-17,0,512,512
261.658,1.38778e-17,0,512,512
261.705,1.38778e-17,0,512,512
261.752,1.38778e-17,0,512,512
261.811,1.38778e-17,0,512,512
261.858,0,0,512,512
261.905,0,0,512,512
261.951,0,0,512,512
262.01,0,0,512,512
262.057,0,0,512,512
262.104,0,0,512,512
262.151,-1.38778e-17,0,512,512
262.209,0,0,512,512
262.256,-1.38778e-17,0,512,512
262.303,-1.38778e-17,0,512,512
262.361,-1.38778e-17,0,512,512
262.408,-1.38778e-17,0,512,512
262.455,-1.38778e-17,0,512,512
262.502,-1.38778e-17,0,512,512
262.561,-1.38778e-17,0,512,512
262.608,-1.38778e-17,0,512,512
262.654,-1.38778e-17,0,512,512
262.701,-1.38778e-17,0,512,512
262.76,-1.38778e-17,0,512,512
262.807,-1.38778e-17,0,512,512
262.854,-1.38778e-17,0,512,512
262.9,-1.38778e-17,0,512,512
262.959,-1.38778e-17,0,512,512
263.006,-1.38778e-17,0,512,512
263.053,-1.38778e-17,0,512,512
263.111,-1.38778e-17,0,512,512
263.158,-1.38778e-17,0,512,512
263.205,-1.38778e-17,0,512,512
263.252,-1.38778e-17,0,512,512
263.311,-1.38778e-17,0,512,512
263.357,-1.38778e-17,0,512,512
263.404,-2.77556e-17,0,512,512
263.451,-1.38778e-17,0,512,512
263.51,-2.77556e-17,0,512,512
263.557,-1.38778e-17,0,512,512
263.603,-2.77556e-17,0,512,512
263.65,-2.77556e-17,0,512,512
263.709,-2.77556e-17,0,512,512
263.756,-2.77556e-17,0,512,512
263.803,-2.77556e-17,0,512,512
263.861,-1.38778e-17,0,512,512
263.908,-2.77556e-17,0,512,512
263.955,-2.77556e-17,0,512,512
264.002,-1.38778e-17,0,512,512
264.06,-1.38778e-17,0,512,512
264.107,-1.38778e-17,0,512,512
264.154,-2.77556e-17,0,512,512
264.201,-1.38778e-17,0,512,512
264.26,-1.38778e-17,0,512,512
264.306,-1.38778e-17,0,512,512
264.353,-2.77556e-17,0,512,512
264.4,-1.38778e-17,0,512,512
264.459,-1.38778e-17,0,512,512
264.506,-1.38778e-17,0,512,512
264.553,-2.77556e-17,0,512,512
264.611,-1.38778e-17,0,512,512
264.658,0,0,512,512
264.705,0,0,512,512
264.752,0,0,512,512
264.81,0,0,512,512
264.857,0,0,512,512
264.904,0,0,512,512
264.951,0,0,512,512
265.01,0,0,512,512
265.056,0,0,512,512
265.103,-1.38778e-17,0,512,512
265.15,-1.38778e-17,0,512,512
265.209,-1.38778e-17,0,512,512
265.256,-1.38778e-17,0,512,512
265.302,-1.38778e-17,0,512,512
265.361,-1.38778e-17,0,512,512
265.408,-1.38778e-17,0,512,512
265.455,-1.38778e-17,0,512,512
265.502,-1.38778e-17,0,512,512
265.56,-1.38778e-17,0,512,512
265.607,-1.38778e-17,0,512,512
265.654,-1.38778e-17,0,512,512
265.701,-1.38778e-17,0,512,512
265.759,-1.38778e-17,0,512,512
265.806,-1.38778e-17,0,512,512
265.853,-1.38778e-17,0,512,512
265.9,-1.38778e-17,0,512,512
265.959,-1.38778e-17,0,512,512
266.005,-1.38778e-17,0,512,512
266.052,-1.38778e-17,0,512,512
266.111,-1.38778e-17,0,512,512
266.158,-1.38778e-17,0,512,512
266.205,-1.38778e-17,0,512,512
266.252,0,0,512,512
266.31,1.38778e-17,0,512,512
266.357,2.77556e-17,0,512,512
266.404,4.16334e-17,0,512,512
266.451,2.77556e-17,0,512,512
266.509,1.38778e-17,0,512,512
266.556,2.77556e-17,0,512,512
266.603,2.77556e-17,0,512,512
266.662,2.77556e-17,0,512,512
266.708,1.38778e-17,0,512,512
266.755,2.77556e-17,0,512,512
266.802,1.38778e-17,0,512,512
266.861,1.38778e-17,0,512,512
266.908,1.38778e-17,0,512,512
266.955,2.77556e-17,0,512,512
267.001,2.77556e-17,0,512,512
267.06,1.38778e-17,0,512,512
267.107,1.38778e-17,0,512,512
267.154,1.38778e-17,0,512,512
267.201,1.38778e-17,0,512,512
267.259,1.38778e-17,0,512,512
267.306,1.38778e-17,0,512,512
267.353,1.38778e-17,0,512,512
267.412,1.38778e-17,0,512,512
267.458,1.38778e-17,0,512,512
267.505,1.38778e-17,0,512,512
267.552,1.38778e-17,0,512,512
267.611,1.38778e-17,0,512,512
267.658,1.38778e-17,0,512,512
267.704,1.38778e-17,0,512,512
267.751,1.38778e-17,0,512,512
267.81,1.38778e-17,0,512,512
267.857,1.38778e-17,0,512,512
267.904,1.38778e-17,0,512,512
267.95,1.38778e-17,0,512,512
268.009,1.38778e-17,0,512,512
268.056,1.38778e-17,0,512,512
268.101,1.38778e-17,0,981,981
268.151,1.38778e-17,0,1191,1191
268.201,1.38778e-17,0,1419,1419
268.251,1.38778e-17,0,1671,1671
268.3,1.38778e-17,0,1887,1887
268.35,1.38778e-17,0,2139,2139
268.401,1.38778e-17,0,2367,2367
268.451,1.38778e-17,0,2619,2619
268.501,1.38778e-17,0,2829,2829
268.551,1.38778e-17,0,3057,3057
268.601,1.38778e-17,0,3309,3309
268.65,1.38778e-17,0,3525,3525
268.7,1.38778e-17,0,3753,3753
268.75,1.38778e-17,0,4005,4005
268.801,1.38778e-17,0,4215,4215
268.851,1.38778e-17,0,4443,4443
268.901,1.38778e-17,0,4695,4695
268.951,1.38778e-17,0,4911,4911
269,1.38778e-17,0,5139,5139
269.05,1.38778e-17,0,5349,5349
269.1,1.38778e-17,0,5601,5601
269.151,1.38778e-17,0,5829,5829
269.201,1.38778e-17,0,6045,6045
269.251,1.38778e-17,0,6273,6273
269.301,1.38778e-17,0,6525,6525
269.351,1.38778e-17,0,6735,6735
269.4,1.38778e-17,0,6963,6963
269.45,1.38778e-17,0,7179,7179
269.501,1.38778e-17,0,7431,7431
269.551,1.38778e-17,0,7659,7659
269.601,1.38778e-17,0,7869,7869
269.651,1.38778e-17,0,8097,8097
269.701,1.38778e-17,0,8313,8313
269.75,1.38778e-17,0,8541,8541
269.8,1.38778e-17,0,8751,8751
269.851,1.38778e-17,0,9003,9003
269.901,1.38778e-17,0,9231,9231
269.951,1.38778e-17,0,9447,9447
270.001,1.38778e-17,0,9675,9675
270.051,1.38778e-17,0,9861,9861
270.1,1.38778e-17,0,10077,10077
270.15,1.38778e-17,0,10305,10305
270.2,1.38778e-17,0,10515,10515
270.251,1.38778e-17,0,10743,10743
270.301,1.38778e-17,0,10935,10935
270.351,1.38778e-17,0,11145,11145
270.401,1.38778e-17,0,11293,11293
270.45,1.38778e-17,0,11463,11463
270.5,1.38778e-17,0,11649,11649
270.55,1.38778e-17,0,11877,11877
270.601,1.38778e-17,0,12093,12093
270.651,1.38778e-17,0,12321,12321
270.701,1.38778e-17,0,12531,12531
270.751,1.38778e-17,0,12759,12759
270.801,1.38778e-17,0,12975,12975
270.85,1.38778e-17,0,13195,13195
270.9,1.38778e-17,0,13389,13389
270.951,1.38778e-17,0,13605,13605
271.001,1.38778e-17,0,13833,13833
271.051,1.38778e-17,0,14019,14019
271.101,1.38778e-17,0,14235,14235
271.151,1.38778e-17,0,14463,14463
271.2,1.38778e-17,0,14649,14649
271.25,1.38778e-17,0,14865,14865
271.301,1.38778e-17,0,15093,15093
271.351,1.38778e-17,0,15279,15279
271.401,1.38778e-17,0,15495,15495
271.451,1.38778e-17,0,15681,15681
271.501,1.38778e-17,0,15873,15873
271.55,1.38778e-17,0,16101,16101
271.6,1.38778e-17,0,16287,16287
271.651,1.38778e-17,0,16503,16503
271.701,1.38778e-17,0,16689,16689
271.751,1.38778e-17,0,16881,16881
271.801,1.38778e-17,0,17109,17109
271.851,1.38778e-17,0,17295,17295
271.9,1.38778e-17,0,17487,17487
271.95,1.38778e-17,0,17673,17673
272,1.38778e-17,0,17889,17889
272.051,1.38778e-17,0,18075,18075
272.101,1.38778e-17,0,18267,18267
272.151,1.38778e-17,0,18453,18453
272.201,1.38778e-17,0,18645,18645
272.25,1.38778e-17,0,18831,18831
272.3,1.38778e-17,0,19023,19023
272.35,1.38778e-17,0,19209,19209
272.401,1.38778e-17,0,19437,19437
272.451,1.38778e-17,0,19629,19629
272.501,1.38778e-17,0,19779,19779
272.551,1.38778e-17,0,19965,19965
272.601,1.38778e-17,0,20157,20157
272.65,1.38778e-17,0,20343,20343
272.7,1.38778e-17,0,20535,20535
272.751,1.38778e-17,0,20721,20721
272.801,1.38778e-17,0,20913,20913
272.851,1.38778e-17,0,21099,21099
272.901,1.38778e-17,0,21267,21267
272.951,1.38778e-17,0,21453,21453
273,1.38778e-17,0,21645,21645
273.05,1.38778e-17,0,21823,21823
273.101,1.38778e-17,0,22003,22003
273.151,1.38778e-17,0,22173,22173
273.201,1.38778e-17,0,22359,22359
273.251,1.38778e-17,0,22527,22527
273.301,1.38778e-17,0,22713,22713
273.35,1.38778e-17,0,22905,22905
273.4,1.38778e-17,0,23055,23055
273.45,1.38778e-17,0,23241,23241
273.501,1.38778e-17,0,23433,23433
273.551,1.249e-16,0,23615,23615
273.601,5.27356e-16,0,23787,23787
273.651,9.57567e-16,0,23973,23973
273.7,1.42941e-15,0,24123,24123
273.75,1.90126e-15,0,24315,24315
273.8,2.3731e-15,0,24501,24501
273.851,2.85882e-15,0,24669,24669
273.901,3.33067e-15,0,24855,24855
273.951,3.80251e-15,0,25027,25027
274.001,4.44089e-15,0,25197,25197
274.051,5.3707e-15,0,25365,25365
274.1,6.31439e-15,0,25551,25551
274.15,7.25808e-15,0,25737,25737
274.201,8.22953e-15,0,25887,25887
274.251,9.17322e-15,0,26079,26079
274.301,1.01169e-14,0,26241,26241
274.351,1.10606e-14,0,26433,26433
274.401,1.20043e-14,0,26583,26583
274.45,1.2948e-14,0,26769,26769
274.5,1.38917e-14,0,26937,26937
274.551,1.48631e-14,0,27123,27123
274.601,1.58068e-14,0,27273,27273
274.651,1.67505e-14,0,27465,27465
274.701,1.75554e-14,0,27627,27627
274.751,1.80272e-14,0,27799,27799
274.8,1.82077e-14,0,27969,27969
274.85,1.71113e-14,0,28131,28131
274.901,1.35586e-14,0,28323,28323
274.951,6.31439e-15,0,28473,28473
275.001,-6.52256e-15,0,28641,28641
275.051,-2.70894e-14,0,28827,28827
275.101,-5.7912e-14,0,28977,28977
275.15,-1.01599e-13,0,29151,29151
275.2,-1.60885e-13,0,29331,29331
275.25,-2.38115e-13,0,29481,29481
275.301,-3.38382e-13,0,29667,29667
275.351,-4.57315e-13,0,29835,29835
275.401,-6.32286e-13,0,29985,29985
275.451,-4.3951e-12,0,30171,30171
275.5,-1.79994e-11,0,30339,30339
275.55,-5.22275e-11,0,30489,30489
275.6,-1.157e-10,0,30651,30651
275.651,-2.02171e-10,0,30801,30801
275.701,-2.70261e-10,0,30969,30969
275.751,-2.75369e-10,0,31119,31119
275.801,-1.95725e-10,0,31245,31245
275.851,-5.96577e-11,0,31407,31407
275.9,6.78404e-11,0,31539,31539
275.95,1.2925e-10,0,31683,31683
276.001,1.13032e-10,0,31809,31809
276.051,6.257e-11,0,31969,31969
276.101,3.55153e-11,0,32103,32103
276.151,5.86992e-11,0,32229,32229
276.201,1.10955e-10,0,32355,32355
276.25,1.46624e-10,0,32481,32481
276.3,1.38029e-10,0,32630,32630
276.351,9.74096e-11,0,32768,32768
276.401,6.77066e-11,0,32768,32768
276.451,7.6276e-11,0,32768,32768
276.501,1.16224e-10,0,32768,32768
276.551,1.54177e-10,0,32768,32768
276.6,1.59989e-10,0,32768,32768
276.65,1.3077e-10,0,32768,32768
276.7,9.16462e-11,0,32768,32768
276.751,7.60534e-11,0,32768,32768
276.801,1.01325e-10,0,32768,32768
276.851,1.50973e-10,0,32768,32768
276.901,1.85277e-10,0,32768,32768
276.95,1.68844e-10,0,32768,32768
277,1.05637e-10,0,32768,32768
277.05,4.99072e-11,0,32768,32768
277.101,6.97214e-11,0,32768,32768
277.151,1.69242e-10,0,32768,32768
277.201,2.57488e-10,0,32768,32768
277.251,2.2643e-10,0,32768,32768
277.301,1.19837e-10,0,32768,32768
277.35,2.6635e-10,0,32768,32768
277.4,1.22496e-09,0,32768,32768
277.451,3.61106e-09,0,32768,32768
277.501,7.45969e-09,0,32768,32768
277.551,1.24831e-08,0,32768,32768
277.601,1.799e-08,0,32768,32768
277.651,2.32582e-08,0,32768,32768
277.7,2.78728e-08,0,32768,32768
277.75,3.1924e-08,0,32768,32768
277.801,3.6125e-08,0,32768,32768
277.851,4.1123e-08,0,32768,32768
277.901,4.78584e-08,0,32768,32768
277.951,5.68726e-08,0,32768,32768
278.001,6.84141e-08,0,32768,32768
278.05,8.26605e-08,0,32768,32768
278.1,1.00001e-07,0,32768,32768
278.15,1.21167e-07,0,32768,32768
278.201,1.47964e-07,0,32768,32768
278.251,1.79763e-07,0,32768,32768
278.301,2.1772e-07,0,32768,32768
278.351,2.61663e-07,0,32768,32768
278.4,3.10814e-07,0,32768,32768
278.45,3.64091e-07,0,32768,32768
278.5,4.20573e-07,0,32768,32768
278.551,4.8158e-07,0,32768,32768
278.601,5.43485e-07,0,32768,32768
278.651,6.07607e-07,0,32768,32768
278.701,6.72738e-07,0,32768,32768
278.75,7.36676e-07,0,32768,32768
278.8,7.96619e-07,0,32768,32768
278.85,8.4987e-07,0,32768,32768
278.901,8.95676e-07,0,32768,32768
278.951,9.30635e-07,0,32768,32768
279.001,9.56578e-07,0,32768,32768
279.051,9.74704e-07,0,32768,32768
279.101,9.86504e-07,0,32768,32768
279.15,9.93235e-07,0,32768,32768
279.2,9.95578e-07,0,32768,32768
279.251,9.93431e-07,0,32768,32768
279.301,9.8641e-07,0,32768,32768
279.351,9.73786e-07,0,32768,32768
279.401,9.54882e-07,0,32768,32768
279.451,9.29323e-07,0,32768,32768
279.5,8.97213e-07,0,32768,32768
279.55,8.59223e-07,0,32768,32768
279.601,8.15272e-07,0,32768,32768
279.651,7.69545e-07,0,32768,32768
279.701,7.22632e-07,0,32768,32768
279.751,6.76212e-07,0,32768,32768
279.801,6.317e-07,0,32768,32768
279.85,5.90187e-07,0,32768,32768
279.9,5.52426e-07,0,32768,32768
279.95,5.18855e-07,0,32768,32768
280.001,4.8887e-07,0,32768,32768
280.051,4.64301e-07,0,32768,32768
280.101,4.44525e-07,0,32768,32768
280.151,4.30243e-07,0,32768,32768
280.2,4.22545e-07,0,32768,32768
280.25,4.22555e-07,0,32768,32768
280.3,4.30878e-07,0,32768,32768
280.351,4.47793e-07,0,32768,32768
280.401,4.71132e-07,0,32768,32768
280.451,4.99771e-07,0,32768,32768
280.501,5.32541e-07,0,32768,32768
280.551,5.68902e-07,0,32768,32768
280.6,6.08777e-07,0,32768,32768
280.65,6.52029e-07,0,32768,32768
280.701,6.99299e-07,0,32768,32768
280.751,7.46195e-07,0,32768,32768
280.801,7.91585e-07,0,32768,32768
280.851,8.32737e-07,0,32768,32768
280.901,8.67315e-07,0,32768,32768
280.95,8.93926e-07,0,32768,32768
281,9.12272e-07,0,32768,32768
281.051,9.23089e-07,0,32768,32768
281.101,9.26696e-07,0,32768,32768
281.151,9.24405e-07,0,32768,32768
281.201,9.1689e-07,0,32768,32768
281.251,9.04551e-07,0,32768,32768
281.3,8.87503e-07,0,32768,32768
281.35,8.65584e-07,0,32768,32768
281.4,8.38406e-07,0,32768,32768
281.451,8.0441e-07,0,32768,32768
281.501,7.6514e-07,0,32768,32768
281.551,7.19679e-07,0,32768,32768
281.601,6.68556e-07,0,32768,32768
281.65,6.1291e-07,0,32768,32768
281.7,5.54366e-07,0,32768,32768
281.75,4.9477e-07,0,32768,32768
281.801,4.34186e-07,0,32768,32768
281.851,3.7755e-07,0,32768,32768
281.901,3.24086e-07,0,32768,32768
281.951,2.7429e-07,0,32768,32768
282.001,2.28266e-07,0,32768,32768
282.05,1.85879e-07,0,32768,32768
282.1,1.46936e-07,0,32768,32768
282.151,1.10346e-07,0,32768,32768
282.201,7.82852e-08,0,32768,32768
282.251,4.98727e-08,0,32768,32768
282.301,2.52953e-08,0,32768,32768
282.351,4.51711e-09,0,32768,32768
282.4,-1.28289e-08,0,32768,32768
282.45,-2.73758e-08,0,32768,32768
282.501,-4.01411e-08,0,32768,32768
282.551,-5.08768e-08,0,32768,32768
282.601,-6.01098e-08,0,32768,32768
282.651,-6.77148e-08,0,32768,32768
282.701,-7.35159e-08,0,32768,32768
282.75,-7.75006e-08,0,32768,32768
282.8,-7.99168e-08,0,32768,32768
282.851,-8.12385e-08,0,32768,32768
282.901,-8.18723e-08,0,32768,32768
282.951,-8.21686e-08,0,32768,32768
283.001,-8.21547e-08,0,32768,32768
283.051,-8.16274e-08,0,32768,32768
283.1,-8.03053e-08,0,32768,32768
283.15,-7.80035e-08,0,32768,32768
283.2,-7.47362e-08,0,32768,32768
283.251,-7.05787e-08,0,32768,32768
283.301,-6.60749e-08,0,32768,32768
283.351,-6.14045e-08,0,32768,32768
283.401,-5.67831e-08,0,32768,32768
283.45,-5.23455e-08,0,32768,32768
283.5,-4.81692e-08,0,32768,32768
283.55,-4.42998e-08,0,32768,32768
283.601,-4.06624e-08,0,32768,32768
283.651,-3.74668e-08,0,32768,32768
283.701,-3.45848e-08,0,32768,32768
283.751,-3.19856e-08,0,32768,32768
283.801,-2.96407e-08,0,32768,32768
283.85,-2.75329e-08,0,32768,32768
283.9,-2.56564e-08,0,32768,32768
283.951,-2.39652e-08,0,32768,32768
284.001,-2.25529e-08,0,32768,32768
284.051,-2.13596e-08,0,32768,32768
284.101,-2.03722e-08,0,32768,32768
284.151,-1.95751e-08,0,32768,32768
284.2,-1.8951e-08,0,32768,32768
284.25,-1.84825e-08,0,32768,32768
284.301,-1.81441e-08,0,32768,32768
284.351,-1.79372e-08,0,32768,32768
284.401,-1.7833e-08,0,32768,32768
284.451,-1.78154e-08,0,32768,32768
284.501,-1.78701e-08,0,32768,32768
284.55,-1.79851e-08,0,32768,32768
284.6,-1.81502e-08,0,32768,32768
284.65,-1.8357e-08,0,32768,32768
284.701,-1.86055e-08,0,32768,32768
284.751,-1.8874e-08,0,32768,32768
284.801,-1.91624e-08,0,32768,32768
284.851,-1.94645e-08,0,32768,32768
284.9,-1.97752e-08,0,32768,32768
284.95,-2.00904e-08,0,32768,32768
285,-2.04073e-08,0,32768,32768
285.051,-2.07331e-08,0,32768,32768
285.101,-2.1047e-08,0,32768,32768
285.151,-2.13564e-08,0,32768,32768
285.201,-2.16589e-08,0,32768,32768
285.251,-2.19523e-08,0,32768,32768
285.3,-2.22351e-08,0,32768,32768
285.35,-2.25066e-08,0,32768,32768
285.401,-2.2775e-08,0,32768,32768
285.451,-2.30267e-08,0,32768,32768
285.501,-2.32724e-08,0,32768,32768
285.551,-2.35158e-08,0,32768,32768
285.601,-2.37612e-08,0,32768,32768
285.65,-2.40128e-08,0,32768,32768
285.7,-2.42753e-08,0,32768,32768
285.751,-2.45612e-08,0,32768,32768
285.801,-2.4858e-08,0,32768,32768
285.851,-2.5177e-08,0,32768,32768
285.901,-2.55209e-08,0,32768,32768
285.951,-2.58917e-08,0,32768,32768
286,-2.62907e-08,0,32768,32768
286.05,-2.67183e-08,0,32768,32768
286.1,-2.7174e-08,0,32768,32768
286.151,-2.76707e-08,0,32768,32768
286.201,-2.81773e-08,0,32768,32768
286.251,-2.8704e-08,0,32768,32768
286.301,-2.9247e-08,0,32768,32768
286.35,-2.98018e-08,0,32768,32768
286.4,-3.03643e-08,0,32768,32768
286.45,-3.09307e-08,0,32768,32768
286.501,-3.15138e-08,0,32768,32768
286.551,-3.20769e-08,0,32768,32768
286.601,-3.26335e-08,0,32768,32768
286.651,-3.31803e-08,0,32768,32768
286.701,-3.37142e-08,0,32768,32768
286.75,-3.42317e-08,0,32768,32768
286.8,-3.47297e-08,0,32768,32768
286.851,-3.52186e-08,0,32768,32768
286.901,-3.56678e-08,0,32768,32768
286.951,-3.60894e-08,0,32768,32768
287.001,-3.6482e-08,0,32768,32768
287.051,-3.68449e-08,0,32768,32768
287.1,-3.71784e-08,0,32768,32768
287.15,-3.74833e-08,0,32768,32768
287.201,-3.77692e-08,0,32768,32768
287.251,-3.80217e-08,0,32768,32768
287.301,-3.82521e-08,0,32768,32768
287.351,-3.84632e-08,0,32768,32768
287.401,-3.86583e-08,0,32768,32768
287.45,-3.88408e-08,0,32768,32768
287.5,-3.90144e-08,0,32768,32768
287.551,-3.91881e-08,0,32768,32768
287.601,-3.93564e-08,0,32768,32768
287.651,-3.95283e-08,0,32768,32768
287.701,-3.97081e-08,0,32768,32768
287.751,-3.98995e-08,0,32768,32768
287.8,-4.01058e-08,0,32768,32768
287.85,-4.03301e-08,0,32768,32768
287.9,-4.05746e-08,0,32768,32768
287.951,-4.08494e-08,0,32768,32768
288.001,-4.11401e-08,0,32768,32768
288.051,-4.14546e-08,0,32768,32768
288.101,-4.17925e-08,0,32768,32768
288.15,-4.21524e-08,0,32768,32768
288.2,-4.25321e-08,0,32768,32768
288.25,-4.29283e-08,0,32768,32768
288.301,-4.33493e-08,0,32768,32768
288.351,-4.37666e-08,0,32768,32768
288.401,-4.41878e-08,0,32768,32768
288.451,-4.46084e-08,0,32768,32768
288.501,-4.50245e-08,0,32768,32768
288.55,-4.54324e-08,0,32768,32768
288.6,-4.58283e-08,0,32768,32768
288.651,-4.622e-08,0,32768,32768
288.701,-4.65817e-08,0,32768,32768
288.751,-4.69216e-08,0,32768,32768
288.801,-4.72364e-08,0,32768,32768
288.851,-4.75231e-08,0,32768,32768
288.9,-4.77787e-08,0,32768,32768
288.95,-4.80008e-08,0,32768,32768
289.001,-4.81923e-08,0,32768,32768
289.051,-4.83411e-08,0,32768,32768
289.101,-4.84527e-08,0,32768,32768
289.151,-4.85276e-08,0,32768,32768
289.201,-4.85667e-08,0,32768,32768
289.25,-4.85719e-08,0,32768,32768
289.3,-4.85453e-08,0,32768,32768
289.35,-4.84891e-08,0,32768,32768
289.401,-4.84032e-08,0,32768,32768
289.451,-4.8295e-08,0,32768,32768
289.501,-4.81651e-08,0,32768,32768
289.551,-4.80162e-08,0,32768,32768
289.6,-4.78506e-08,0,32768,32768
289.65,-4.7671e-08,0,32768,32768
289.7,-4.74796e-08,0,32768,32768
289.751,-4.72726e-08,0,32768,32768
289.801,-4.70638e-08,0,32768,32768
289.851,-4.68492e-08,0,32768,32768
289.901,-4.66303e-08,0,32768,32768
289.95,-4.64085e-08,0,32768,32768
290,-4.61851e-08,0,32768,32768
290.05,-4.5961e-08,0,32768,32768
290.101,-4.57308e-08,0,32768,32768
290.151,-4.55085e-08,0,32768,32768
290.201,-4.52883e-08,0,32768,32768
290.251,-4.50705e-08,0,32768,32768
290.301,-4.48557e-08,0,32768,32768
290.35,-4.46441e-08,0,32768,32768
290.4,-4.44359e-08,0,32768,32768
290.451,-4.42255e-08,0,32768,32768
290.501,-4.4025e-08,0,32768,32768
290.551,-4.38284e-08,0,32768,32768
290.601,-4.36358e-08,0,32768,32768
290.651,-4.34471e-08,0,32768,32768
290.7,-4.32621e-08,0,32768,32768
290.75,-4.30806e-08,0,32768,32768
290.801,-4.28968e-08,0,32768,32768
290.851,-4.27208e-08,0,32768,32768
290.901,-4.25469e-08,0,32768,32768
290.951,-4.23745e-08,0,32768,32768
291.001,-4.22032e-08,0,32768,32768
291.05,-4.20324e-08,0,32768,32768
291.1,-4.18616e-08,0,32768,32768
291.15,-4.16903e-08,0,32768,32768
291.201,-4.1513e-08,0,32768,32768
291.251,-4.13393e-08,0,32768,32768
291.301,-4.11636e-08,0,32768,32768
291.351,-4.09852e-08,0,32768,32768
291.4,-4.08036e-08,0,32768,32768
291.45,-4.06181e-08,0,32768,32768
291.5,-4.0428e-08,0,32768,32768
291.551,-4.02271e-08,0,32768,32768
291.601,-4.00262e-08,0,32768,32768
291.651,-3.98194e-08,0,32768,32768
291.701,-3.96063e-08,0,32768,32768
291.751,-3.93866e-08,0,32768,32768
291.8,-3.91597e-08,0,32768,32768
291.85,-3.89251e-08,0,32768,32768
291.901,-3.86745e-08,0,32768,32768
291.951,-3.8421e-08,0,32768,32768
292.001,-3.8156e-08,0,32768,32768
292.051,-3.78775e-08,0,32768,32768
292.101,-3.75833e-08,0,32768,32768
292.15,-3.72708e-08,0,32768,32768
292.2,-3.69371e-08,0,32768,32768
292.251,-3.65681e-08,0,32768,32768
292.301,-3.61818e-08,0,32768,32768
292.351,-3.57647e-08,0,32768,32768
292.401,-3.53138e-08,0,32768,32768
292.451,-3.48266e-08,0,32768,32768
292.5,-3.43006e-08,0,32768,32768
292.55,-3.37343e-08,0,32768,32768
292.6,-3.31265e-08,0,32768,32768
292.651,-3.24573e-08,0,32768,32768
292.701,-3.17657e-08,0,32768,32768
292.751,-3.10348e-08,0,32768,32768
292.801,-3.02673e-08,0,32768,32768
292.85,-2.9467e-08,0,32768,32768
292.9,-2.86383e-08,0,32768,32768
292.95,-2.77863e-08,0,32768,32768
293.001,-2.68905e-08,0,32768,32768
293.051,-2.60077e-08,0,32768,32768
293.101,-2.51178e-08,0,32768,32768
293.151,-2.42259e-08,0,32768,32768
293.201,-2.33366e-08,0,32768,32768
293.25,-2.24544e-08,0,32768,32768
293.3,-2.15837e-08,0,32768,32768
293.351,-2.07038e-08,0,32768,32768
293.401,-1.98691e-08,0,32768,32768
293.451,-1.9058e-08,0,32768,32768
293.501,-1.82743e-08,0,32768,32768
293.551,-1.7521e-08,0,32768,32768
293.6,-1.68007e-08,0,32768,32768
293.65,-1.61153e-08,0,32768,32768
293.701,-1.54473e-08,0,32768,32768
293.751,-1.48349e-08,0,32768,32768
293.801,-1.42579e-08,0,32768,32768
293.851,-1.37146e-08,0,32768,32768
293.901,-1.3203e-08,0,32768,32768
293.95,-1.27201e-08,0,32768,32768
294,-1.22628e-08,0,32768,32768
294.051,-1.18146e-08,0,32768,32768
294.101,-1.1397e-08,0,32768,32768
294.151,-1.09925e-08,0,32768,32768
294.201,-1.05963e-08,0,32768,32768
294.251,-1.02034e-08,0,32768,32768
294.3,-9.80893e-09,0,32768,32768
294.35,-9.40798e-09,0,32768,32768
294.4,-8.9959e-09,0,32768,32768
294.451,-8.55555e-09,0,32768,32768
294.501,-8.10825e-09,0,32768,32768
294.551,-7.63853e-09,0,32768,32768
294.601,-7.14401e-09,0,32768,32768
294.65,-6.62317e-09,0,32768,32768
294.7,-6.07546e-09,0,32768,32768
294.75,-5.50131e-09,0,32768,32768
294.801,-4.88418e-09,0,32768,32768
294.851,-4.26175e-09,0,32768,32768
294.901,-3.61984e-09,0,32768,32768
294.951,-2.96218e-09,0,32768,32768
295.001,-2.29285e-09,0,32768,32768
295.05,-1.6162e-09,0,32768,32768
295.1,-9.36688e-10,0,32768,32768
295.151,-2.38879e-10,0,32768,32768
295.201,4.32857e-10,0,32768,32768
295.251,1.09422e-09,0,32768,32768
295.301,1.74099e-09,0,32768,32768
295.351,2.36901e-09,0,32768,32768
295.4,2.97409e-09,0,32768,32768
295.45,3.55201e-09,0,32768,32768
295.501,4.11411e-09,0,32768,32768
295.551,4.62411e-09,0,32768,32768
295.601,5.09479e-09,0,32768,32768
295.651,5.52296e-09,0,32768,32768
295.701,5.90616e-09,0,32768,32768
295.75,6.24273e-09,0,32768,32768
295.8,6.53191e-09,0,32768,32768
295.85,6.77369e-09,0,32768,32768
295.901,6.97387e-09,0,32768,32768
295.951,7.12251e-09,0,32768,32768
296.001,7.22815e-09,0,32768,32768
296.051,7.29369e-09,0,32768,32768
296.1,7.32268e-09,0,32768,32768
296.15,7.31928e-09,0,32768,32768
296.2,7.28799e-09,0,32768,32768
296.251,7.2315e-09,0,32768,32768
296.301,7.15748e-09,0,32768,32768
296.351,7.06846e-09,0,32768,32768
296.401,6.96765e-09,0,32768,32768
296.451,6.85759e-09,0,32768,32768
296.5,6.74032e-09,0,32768,32768
296.55,6.61756e-09,0,32768,32768
296.601,6.48722e-09,0,32768,32768
296.651,6.35853e-09,0,32768,32768
296.701,6.22975e-09,0,32768,32768
296.751,6.10293e-09,0,32768,32768
296.801,5.98014e-09,0,32768,32768
296.85,5.86333e-09,0,32768,32768
296.9,5.75412e-09,0,32768,32768
296.951,5.65094e-09,0,32768,32768
297.001,5.56048e-09,0,32768,32768
297.051,5.48003e-09,0,32768,32768
297.101,5.40963e-09,0,32768,32768
297.151,5.34913e-09,0,32768,32768
297.2,5.2983e-09,0,32768,32768
297.25,5.25687e-09,0,32768,32768
297.3,5.22457e-09,0,32768,32768
297.351,5.20051e-09,0,32768,32768
297.401,5.18559e-09,0,32768,32768
297.451,5.17828e-09,0,32768,32768
297.501,5.17764e-09,0,32768,32768
297.55,5.1825e-09,0,32768,32768
297.6,5.19152e-09,0,32768,32768
297.65,5.20335e-09,0,32768,32768
297.701,5.21712e-09,0,32768,32768
297.751,5.23084e-09,0,32768,32768
297.801,5.24381e-09,0,32768,32768
297.851,5.25499e-09,0,32768,32768
297.901,5.26334e-09,0,32768,32768
297.95,5.26787e-09,0,32768,32768
298,5.26774e-09,0,32768,32768
298.051,5.26217e-09,0,32768,32768
298.101,5.2514e-09,0,32768,32768
298.151,5.23576e-09,0,32768,32768
298.201,5.21609e-09,0,32768,32768
298.251,5.19355e-09,0,32768,32768
298.3,5.16932e-09,0,32768,32768
298.35,5.14445e-09,0,32768,32768
298.401,5.11897e-09,0,32768,32768
298.451,5.09469e-09,0,32768,32768
298.501,5.07093e-09,0,32768,32768
298.551,5.04752e-09,0,32768,32768
298.601,5.02426e-09,0,32768,32768
298.65,5.00107e-09,0,32768,32768
298.7,4.97809e-09,0,32768,32768
298.751,4.95512e-09,0,32768,32768
298.801,4.9342e-09,0,32768,32768
298.851,4.91551e-09,0,32768,32768
298.901,4.89992e-09,0,32768,32768
298.951,4.88815e-09,0,32768,32768
299,4.88061e-09,0,32768,32768
299.05,4.87736e-09,0,32768,32768
299.1,4.8781e-09,0,32768,32768
299.151,4.88236e-09,0,32768,32768
299.201,4.88911e-09,0,32768,32768
299.251,4.89757e-09,0,32768,32768
299.301,4.90697e-09,0,32768,32768
299.35,4.91666e-09,0,32768,32768
299.4,4.92612e-09,0,32768,32768
299.45,4.93497e-09,0,32768,32768
299.501,4.94309e-09,0,32768,32768
299.551,4.94973e-09,0,32768,32768
299.601,4.95486e-09,0,32768,32768
299.651,4.95825e-09,0,32768,32768
299.701,4.95975e-09,0,32768,32768
299.75,4.95927e-09,0,32768,32768
299.8,4.95682e-09,0,32768,32768
299.851,4.95231e-09,0,32768,32768
299.901,4.94607e-09,0,32768,32768
299.951,4.93806e-09,0,32768,32768
300.001,4.92831e-09,0,32768,32768
300.051,4.9168e-09,0,32768,32768
300.1,4.90356e-09,0,32768,32768
300.15,4.88862e-09,0,32768,32768
300.201,4.87156e-09,0,32768,32768
300.251,4.85345e-09,0,32768,32768
300.301,4.83394e-09,0,32768,32768
300.351,4.81309e-09,0,32768,32768
300.401,4.7909e-09,0,32768,32768
300.45,4.76732e-09,0,32768,32768
300.5,4.74226e-09,0,32768,32768
300.55,4.71564e-09,0,32768,32768
300.601,4.68657e-09,0,32768,32768
300.651,4.65672e-09,0,32768,32768
300.701,4.62536e-09,0,32768,32768
300.751,4.5926e-09,0,32768,32768
300.8,4.5586e-09,0,32768,32768
300.85,4.52351e-09,0,32768,32768
300.9,4.48751e-09,0,32768,32768
300.951,4.44965e-09,0,32768,32768
301.001,4.41221e-09,0,32768,32768
301.051,4.37424e-09,0,32768,32768
301.101,4.33582e-09,0,32768,32768
301.151,4.29703e-09,0,32768,32768
301.2,4.25793e-09,0,32768,32768
301.25,4.21857e-09,0,32768,32768
301.301,4.17785e-09,0,32768,32768
301.351,4.13812e-09,0,32768,32768
301.401,4.09826e-09,0,32768,32768
301.451,4.05831e-09,0,32768,32768
301.501,4.01827e-09,0,32768,32768
301.55,3.97815e-09,0,32768,32768
301.6,3.93797e-09,0,32768,32768
301.651,3.89652e-09,0,32768,32768
301.701,3.85615e-09,0,32768,32768
301.751,3.81566e-09,0,32768,32768
301.801,3.77503e-09,0,32768,32768
301.851,3.73421e-09,0,32768,32768
301.9,3.69317e-09,0,32768,32768
301.95,3.65187e-09,0,32768,32768
302.001,3.60904e-09,0,32768,32768
302.051,3.5671e-09,0,32768,32768
302.101,3.52478e-09,0,32768,32768
302.151,3.48206e-09,0,32768,32768
302.201,3.43889e-09,0,32768,32768
302.25,3.39526e-09,0,32768,32768
302.3,3.35115e-09,0,32768,32768
302.35,3.30654e-09,0,32768,32768
302.401,3.26008e-09,0,32768,32768
302.451,3.21443e-09,0,32768,32768
302.501,3.16827e-09,0,32768,32768
302.551,3.12161e-09,0,32768,32768
302.6,3.07446e-09,0,32768,32768
302.65,3.02684e-09,0,32768,32768
302.7,2.97878e-09,0,32768,32768
302.751,2.92887e-09,0,32768,32768
302.801,2.88e-09,0,32768,32768
302.851,2.83079e-09,0,32768,32768
302.901,2.78129e-09,0,32768,32768
302.951,2.73153e-09,0,32768,32768
303,2.68158e-09,0,32768,32768
303.05,2.63149e-09,0,32768,32768
303.101,2.57985e-09,0,32768,32768
303.151,2.52966e-09,0,32768,32768
303.201,2.47951e-09,0,32768,32768
303.251,2.42946e-09,0,32768,32768
303.301,2.37956e-09,0,32768,32768
303.35,2.32987e-09,0,32768,32768
303.4,2.28043e-09,0,32768,32768
303.451,2.22985e-09,0,32768,32768
303.501,2.18105e-09,0,32768,32768
303.551,2.13262e-09,0,32768,32768
303.601,2.08459e-09,0,32768,32768
303.651,2.03698e-09,0,32768,32768
303.7,1.98981e-09,0,32768,32768
303.75,1.94309e-09,0,32768,32768
303.8,1.89683e-09,0,32768,32768
303.851,1.84969e-09,0,32768,32768
303.901,1.80437e-09,0,32768,32768
303.951,1.75952e-09,0,32768,32768
304.001,1.71513e-09,0,32768,32768
304.05,1.6712e-09,0,32768,32768
304.1,1.62772e-09,0,32768,32768
304.15,1.58467e-09,0,32768,32768
304.201,1.54081e-09,0,32768,32768
304.251,1.49862e-09,0,32768,32768
304.301,1.45682e-09,0,32768,32768
304.351,1.41541e-09,0,32768,32768
304.401,1.37436e-09,0,32768,32768
304.45,1.33365e-09,0,32768,32768
304.5,1.29329e-09,0,32768,32768
304.551,1.25206e-09,0,32768,32768
304.601,1.21232e-09,0,32768,32768
304.651,1.17287e-09,0,32768,32768
304.701,1.1337e-09,0,32768,32768
304.751,1.09479e-09,0,32768,32768
304.8,1.05614e-09,0,32768,32768
304.85,1.01774e-09,0,32768,32768
304.901,9.78462e-10,0,32768,32768
304.951,9.4055e-10,0,32768,32768
