250,0,0,512,512
250.012,0,0,512,512
250.059,0,0,512,512
250.105,0,0,512,512
250.152,0,0,512,512
250.211,0,0,512,512
250.258,0,0,512,512
250.305,0,0,512,512
250.352,0,0,512,512
250.41,0,0,512,512
250.457,0,0,512,512
250.504,0,0,512,512
250.551,0,0,512,512
250.609,0,0,512,512
250.656,0,0,512,512
250.703,0,0,512,512
250.762,0,0,512,512
250.808,0,0,512,512
250.855,0,0,512,512
250.902,0,0,512,512
250.961,0,0,512,512
251.008,0,0,512,512
251.055,0,0,512,512
251.101,0,0,512,512
251.16,0,0,512,512
251.207,0,0,512,512
251.254,0,0,512,512
251.301,0,0,512,512
251.359,0,0,512,512
251.406,0,0,512,512
251.453,0,0,512,512
251.511,0,0,512,512
251.558,0,0,512,512
251.605,0,0,512,512
251.652,0,0,512,512
251.711,0,0,512,512
251.758,0,0,512,512
251.804,0,0,512,512
251.851,0,0,512,512
251.91,0,0,512,512
251.957,0,0,512,512
252.004,0,0,512,512
252.05,0,0,512,512
252.109,0,0,512,512
252.156,0,0,512,512
252.203,0,0,512,512
252.261,0,0,512,512
252.308,0,0,512,512
252.355,0,0,512,512
252.402,0,0,512,512
252.461,0,0,512,512
252.507,0,0,512,512
252.554,0,0,512,512
252.601,0,0,512,512
252.66,0,0,512,512
252.707,0,0,512,512
252.754,0,0,512,512
252.8,0,0,512,512
252.859,0,0,512,512
252.906,0,0,512,512
252.953,0,0,512,512
253.011,0,0,512,512
253.058,0,0,512,512
253.105,0,0,512,512
253.152,0,0,512,512
253.21,0,0,512,512
253.257,0,0,512,512
253.304,0,0,512,512
253.351,0,0,512,512
253.41,0,0,512,512
253.457,0,0,512,512
253.503,0,0,512,512
253.55,0,0,512,512
253.609,0,0,512,512
253.656,0,0,512,512
253.703,0,0,512,512
253.761,0,0,512,512
253.808,0,0,512,512
253.855,0,0,512,512
253.902,0,0,512,512
253.96,0,0,512,512
254.007,0,0,512,512
254.054,0,0,512,512
254.101,0,0,512,512
254.16,0,0,512,512
254.206,0,0,512,512
254.253,0,0,512,512
254.3,0,0,512,512
254.359,0,0,512,512
254.406,0,0,512,512
254.452,0,0,512,512
254.511,0,0,512,512
254.558,0,0,512,512
254.605,0,0,512,512
254.652,0,0,512,512
254.71,0,0,512,512
254.757,0,0,512,512
254.804,0,0,512,512
254.851,0,0,512,512
254.909,0,0,512,512
254.956,0,0,512,512
255.003,0,0,512,512
255.05,0,0,512,512
255.109,0,0,512,512
255.155,0,0,512,512
255.202,0,0,512,512
255.261,0,0,512,512
255.308,0,0,512,512
255.355,0,0,512,512
255.402,0,0,512,512
255.46,0,0,512,512
255.507,0,0,512,512
255.554,0,0,512,512
255.601,0,0,512,512
255.659,0,0,512,512
255.706,0,0,512,512
255.753,0,0,512,512
255.812,0,0,512,512
255.859,0,0,512,512
255.905,0,0,512,512
255.952,0,0,512,512
256.011,0,0,512,512
256.058,0,0,512,512
256.105,0,0,512,512
256.151,0,0,512,512
256.21,0,0,512,512
256.257,0,0,512,512
256.304,0,0,512,512
256.351,0,0,512,512
256.409,0,0,512,512
256.456,0,0,512,512
256.503,0,0,512,512
256.562,0,0,512,512
256.608,0,0,512,512
256.655,0,0,512,512
256.702,0,0,512,512
256.761,0,0,512,512
256.808,0,0,512,512
256.854,0,0,512,512
256.901,0,0,512,512
256.96,0,0,512,512
257.007,0,0,512,512
257.054,0,0,512,512
257.101,0,0,512,512
257.159,0,0,512,512
257.206,0,0,512,512
257.253,0,0,512,512
257.311,0,0,512,512
257.358,0,0,512,512
257.405,0,0,512,512
257.452,0,0,512,512
257.511,0,0,512,512
257.557,0,0,512,512
257.604,0,0,512,512
257.651,0,0,512,512
257.71,0,0,512,512
257.757,0,0,512,512
257.804,0,0,512,512
257.85,0,0,512,512
257.909,0,0,512,512
257.956,0,0,512,512
258.003,0,0,512,512
258.061,0,0,512,512
258.108,0,0,512,512
258.155,0,0,512,512
258.202,0,0,512,512
258.261,0,0,512,512
258.307,0,0,512,512
258.354,0,0,512,512
258.401,0,0,512,512
258.46,0,0,512,512
258.507,0,0,512,512
258.553,0,0,512,512
258.6,0,0,512,512
258.659,0,0,512,512
258.706,0,0,512,512
258.753,0,0,512,512
258.811,0,0,512,512
258.858,0,0,512,512
258.905,0,0,512,512
258.952,0,0,512,512
259.01,0,0,512,512
259.057,0,0,512,512
259.104,0,0,512,512
259.151,0,0,512,512
259.21,0,0,512,512
259.256,0,0,512,512
259.303,0,0,512,512
259.35,0,0,512,512
259.409,0,0,512,512
259.456,0,0,512,512
259.503,0,0,512,512
259.561,0,0,512,512
259.608,0,0,512,512
259.655,0,0,512,512
259.702,0,0,512,512
259.76,0,0,512,512
259.807,0,0,512,512
259.854,0,0,512,512
259.901,0,0,512,512
259.959,0,0,512,512
260.006,0,0,512,512
260.053,0,0,512,512
260.1,0,0,512,512
260.159,0,0,512,512
260.206,0,0,512,512
260.252,-5.55112e-17,0,512,512
260.311,-5.55112e-17,0,512,512
260.358,-5.55112e-17,0,512,512
260.405,-5.55112e-17,0,512,512
260.452,-5.55112e-17,0,512,512
260.51,-2.77556e-17,0,512,512
260.557,-2.77556e-17,0,512,512
260.604,-2.77556e-17,0,512,512
260.651,-2.77556e-17,0,512,512
260.709,-2.77556e-17,0,512,512
260.756,-2.77556e-17,0,512,512
260.803,-2.77556e-17,0,512,512
260.862,-2.77556e-17,0,512,512
260.909,-2.77556e-17,0,512,512
260.955,-2.77556e-17,0,512,512
261.002,-2.77556e-17,0,512,512
261.061,-2.77556e-17,0,512,512
261.108,-2.77556e-17,0,512,512
261.155,-2.77556e-17,0,512,512
261.201,-2.77556e-17,0,512,512
261.26,0,0,512,512
261.307,0,0,512,512
261.354,0,0,512,512
261.401,0,0,512,512
261.459,0,0,512,512
261.506,0,0,512,512
261.553,0,0,512,512
261.612,2.77556e-17,0,512,512
261.658,2.77556e-17,0,512,512
261.705,2.77556e-17,0,512,512
261.752,2.77556e-17,0,512,512
261.811,2.77556e-17,0,512,512
261.858,2.77556e-17,0,512,512
261.905,2.77556e-17,0,512,512
261.951,2.77556e-17,0,512,512
262.01,5.55112e-17,0,512,512
262.057,5.55112e-17,0,512,512
262.104,5.55112e-17,0,512,512
262.151,5.55112e-17,0,512,512
262.209,5.55112e-17,0,512,512
262.256,2.77556e-17,0,512,512
262.303,2.77556e-17,0,512,512
262.361,2.77556e-17,0,512,512
262.408,2.77556e-17,0,512,512
262.455,5.55112e-17,0,512,512
262.502,5.55112e-17,0,512,512
262.561,5.55112e-17,0,512,512
262.608,5.55112e-17,0,512,512
262.654,5.55112e-17,0,512,512
262.701,5.55112e-17,0,512,512
262.76,5.55112e-17,0,512,512
262.807,5.55112e-17,0,512,512
262.854,5.55112e-17,0,512,512
262.9,5.55112e-17,0,512,512
262.959,5.55112e-17,0,512,512
263.006,5.55112e-17,0,512,512
263.053,5.55112e-17,0,512,512
263.111,5.55112e-17,0,512,512
263.158,2.77556e-17,0,512,512
263.205,2.77556e-17,0,512,512
263.252,5.55112e-17,0,512,512
263.311,2.77556e-17,0,512,512
263.357,0,0,512,512
263.404,0,0,512,512
263.451,0,0,512,512
263.51,0,0,512,512
263.557,0,0,512,512
263.603,0,0,512,512
263.65,0,0,512,512
263.709,0,0,512,512
263.756,0,0,512,512
263.803,0,0,512,512
263.861,0,0,512,512
263.908,0,0,512,512
263.955,0,0,512,512
264.002,0,0,512,512
264.06,0,0,512,512
264.107,0,0,512,512
264.154,0,0,512,512
264.201,0,0,512,512
264.26,0,0,512,512
264.306,0,0,512,512
264.353,0,0,512,512
264.4,2.77556e-17,0,512,512
264.459,2.77556e-17,0,512,512
264.506,2.77556e-17,0,512,512
264.553,0,0,512,512
264.611,0,0,512,512
264.658,0,0,512,512
264.705,0,0,512,512
264.752,0,0,512,512
264.81,0,0,512,512
264.857,0,0,512,512
264.904,0,0,512,512
264.951,0,0,512,512
265.01,0,0,512,512
265.056,0,0,512,512
265.103,0,0,512,512
265.15,0,0,512,512
265.209,0,0,512,512
265.256,0,0,512,512
265.302,0,0,512,512
265.361,0,0,512,512
265.408,0,0,512,512
265.455,0,0,512,512
265.502,0,0,512,512
265.56,0,0,512,512
265.607,0,0,512,512
265.654,0,0,512,512
265.701,0,0,512,512
265.759,0,0,512,512
265.806,0,0,512,512
265.853,0,0,512,512
265.9,0,0,512,512
265.959,0,0,512,512
266.005,0,0,512,512
266.052,0,0,512,512
266.111,0,0,512,512
266.158,0,0,512,512
266.205,0,0,512,512
266.252,0,0,512,512
266.31,0,0,512,512
266.357,0,0,512,512
266.404,0,0,512,512
266.451,0,0,512,512
266.509,0,0,512,512
266.556,0,0,512,512
266.603,0,0,512,512
266.662,0,0,512,512
266.708,0,0,512,512
266.755,0,0,512,512
266.802,0,0,512,512
266.861,0,0,512,512
266.908,0,0,512,512
266.955,0,0,512,512
267.001,0,0,512,512
267.06,0,0,512,512
267.107,0,0,512,512
267.154,0,0,512,512
267.201,0,0,512,512
267.259,0,0,512,512
267.306,0,0,512,512
267.353,0,0,512,512
267.412,0,0,512,512
267.458,0,0,512,512
267.505,0,0,512,512
267.552,0,0,512,512
267.611,0,0,512,512
267.658,0,0,512,512
267.704,0,0,512,512
267.751,0,0,512,512
267.81,0,0,512,512
267.857,0,0,512,512
267.904,0,0,512,512
267.95,0,0,512,512
268.009,0,0,512,512
268.056,0,0,512,512
268.101,0,0,1005,1005
268.151,0,0,1257,1257
268.201,0,0,1485,1485
268.251,0,0,1737,1737
268.3,0,0,1989,1989
268.35,0,0,2199,2199
268.401,0,0,2451,2451
268.451,0,0,2679,2679
268.501,0,0,2931,2931
268.551,0,0,3147,3147
268.601,0,0,3399,3399
268.65,0,0,3627,3627
268.7,0,0,3859,3859
268.75,0,0,4089,4089
268.801,0,0,4317,4317
268.851,0,0,4569,4569
268.901,0,0,4785,4785
268.951,0,0,5037,5037
269,0,0,5265,5265
269.05,0,0,5475,5475
269.1,0,0,5727,5727
269.151,0,0,5955,5955
269.201,0,0,6203,6203
269.251,0,0,6423,6423
269.301,0,0,6651,6651
269.351,0,0,6895,6895
269.4,0,0,7113,7113
269.45,0,0,7341,7341
269.501,0,0,7593,7593
269.551,0,0,7809,7809
269.601,0,0,8037,8037
269.651,0,0,8247,8247
269.701,0,0,8499,8499
269.75,0,0,8727,8727
269.8,0,0,8943,8943
269.851,0,0,9171,9171
269.901,0,0,9423,9423
269.951,0,0,9633,9633
270.001,0,0,9861,9861
270.051,0,0,10077,10077
270.1,0,0,10305,10305
270.15,0,0,10515,10515
270.2,0,0,10743,10743
270.251,0,0,10959,10959
270.301,0,0,11187,11187
270.351,0,0,11397,11397
270.401,0,0,11625,11625
270.45,0,0,11817,11817
270.5,0,0,12027,12027
270.55,0,0,12255,12255
270.601,0,0,12471,12471
270.651,0,0,12699,12699
270.701,0,0,12905,12905
270.751,0,0,13101,13101
270.801,0,0,13329,13329
270.85,0,0,13521,13521
270.9,0,0,13731,13731
270.951,0,0,13959,13959
271.001,0,0,14145,14145
271.051,0,0,14361,14361
271.101,0,0,14569,14569
271.151,0,0,14775,14775
271.2,0,0,14967,14967
271.25,0,0,15177,15177
271.301,0,0,15369,15369
271.351,0,0,15597,15597
271.401,0,0,15783,15783
271.451,0,0,15975,15975
271.501,0,0,16185,16185
271.55,0,0,16377,16377
271.6,0,0,16563,16563
271.651,0,0,16755,16755
271.701,6.10623e-16,0,16983,16983
271.751,1.4988e-15,0,17169,17169
271.801,2.44249e-15,0,17361,17361
271.851,3.38618e-15,0,17547,17547
271.9,4.30211e-15,0,17739,17739
271.95,5.2458e-15,0,17889,17889
272,6.18949e-15,0,18075,18075
272.051,7.16094e-15,0,18177,18177
272.101,8.10463e-15,0,18369,18369
272.151,9.04832e-15,0,18555,18555
272.201,9.99201e-15,0,18747,18747
272.25,1.09357e-14,0,18933,18933
272.3,1.18794e-14,0,19125,19125
272.35,1.28231e-14,0,19317,19317
272.401,1.42386e-14,0,19527,19527
272.451,1.6348e-14,0,19713,19713
272.501,1.94567e-14,0,19905,19905
272.551,2.35367e-14,0,20091,20091
272.601,2.80331e-14,0,20283,20283
272.65,3.14748e-14,0,20469,20469
272.7,3.1003e-14,0,20661,20661
272.751,2.18436e-14,0,20847,20847
272.801,-5.05151e-15,0,21039,21039
272.851,-8.02719e-13,0,21201,21201
272.901,-9.38072e-12,0,21393,21393
272.951,-4.77642e-11,0,21579,21579
273,-1.44929e-10,0,21771,21771
273.05,-2.86031e-10,0,21957,21957
273.101,-3.79906e-10,0,22149,22149
273.151,-3.20885e-10,0,22299,22299
273.201,-1.1859e-10,0,22485,22485
273.251,1.11686e-10,0,22677,22677
273.301,2.3632e-10,0,22851,22851
273.35,2.0084e-10,0,23031,23031
273.4,6.63158e-11,0,23217,23217
273.45,-3.91307e-11,0,23409,23409
273.501,-2.12677e-11,0,23587,23587
273.551,9.71549e-11,0,23745,23745
273.601,2.05173e-10,0,23937,23937
273.651,2.09579e-10,0,24111,24111
273.7,1.16431e-10,0,24291,24291
273.75,1.81629e-11,0,24477,24477
273.8,3.55829e-12,0,24627,24627
273.851,8.31771e-11,0,24819,24819
273.901,1.79561e-10,0,25005,25005
273.951,2.14996e-10,0,25173,25173
274.001,1.67465e-10,0,25359,25359
274.051,7.92512e-11,0,25551,25551
274.1,1.77019e-11,0,25701,25701
274.15,2.97186e-11,0,25887,25887
274.201,1.18148e-10,0,26055,26055
274.251,2.22556e-10,0,26241,26241
274.301,2.58274e-10,0,26433,26433
274.351,1.6689e-10,0,26583,26583
274.401,-7.7546e-12,0,26769,26769
274.45,-1.08231e-10,0,26937,26937
274.5,1.72075e-11,0,27123,27123
274.551,3.33063e-10,0,27273,27273
274.601,5.12479e-10,0,27465,27465
274.651,2.55967e-10,0,27627,27627
274.701,-3.19009e-10,0,27819,27819
274.751,-4.72094e-10,0,27969,27969
274.8,8.26678e-10,0,28137,28137
274.85,4.21429e-09,0,28323,28323
274.901,9.63761e-09,0,28501,28501
274.951,1.5787e-08,0,28659,28659
275.001,2.16341e-08,0,28827,28827
275.051,2.63807e-08,0,29013,29013
275.101,2.98757e-08,0,29163,29163
275.15,3.26775e-08,0,29331,29331
275.2,3.59005e-08,0,29517,29517
275.25,4.07902e-08,0,29667,29667
275.301,4.8436e-08,0,29859,29859
275.351,5.85451e-08,0,30021,30021
275.401,7.10388e-08,0,30171,30171
275.451,8.58841e-08,0,30363,30363
275.5,1.03687e-07,0,30525,30525
275.55,1.25608e-07,0,30675,30675
275.6,1.52933e-07,0,30843,30843
275.651,1.87689e-07,0,30993,30993
275.701,2.28081e-07,0,31133,31133
275.751,2.74211e-07,0,31281,31281
275.801,3.24475e-07,0,31431,31431
275.851,3.77206e-07,0,31557,31557
275.9,4.3162e-07,0,31725,31725
275.95,4.88126e-07,0,31851,31851
276.001,5.49287e-07,0,31977,31977
276.051,6.11295e-07,0,32103,32103
276.101,6.73684e-07,0,32229,32229
276.151,7.32948e-07,0,32355,32355
276.201,7.85505e-07,0,32481,32481
276.25,8.2876e-07,0,32630,32630
276.3,8.61571e-07,0,32768,32768
276.351,8.84815e-07,0,32768,32768
276.401,8.9875e-07,0,32768,32768
276.451,9.06247e-07,0,32768,32768
276.501,9.0908e-07,0,32768,32768
276.551,9.0822e-07,0,32768,32768
276.6,9.0378e-07,0,32768,32768
276.65,8.95226e-07,0,32768,32768
276.7,8.81634e-07,0,32768,32768
276.751,8.61242e-07,0,32768,32768
276.801,8.34193e-07,0,32768,32768
276.851,7.99363e-07,0,32768,32768
276.901,7.56845e-07,0,32768,32768
276.95,7.07789e-07,0,32768,32768
277,6.54389e-07,0,32768,32768
277.05,5.99353e-07,0,32768,32768
277.101,5.43599e-07,0,32768,32768
277.151,4.92086e-07,0,32768,32768
277.201,4.44085e-07,0,32768,32768
277.251,3.99794e-07,0,32768,32768
277.301,3.58925e-07,0,32768,32768
277.35,3.20934e-07,0,32768,32768
277.4,2.85242e-07,0,32768,32768
277.451,2.50508e-07,0,32768,32768
277.501,2.18814e-07,0,32768,32768
277.551,1.89872e-07,0,32768,32768
277.601,1.64799e-07,0,32768,32768
277.651,1.44358e-07,0,32768,32768
277.7,1.2815e-07,0,32768,32768
277.75,1.1455e-07,0,32768,32768
277.801,1.01231e-07,0,32768,32768
277.851,8.79163e-08,0,32768,32768
277.901,7.46351e-08,0,32768,32768
277.951,6.26285e-08,0,32768,32768
278.001,5.29681e-08,0,32768,32768
278.05,4.59242e-08,0,32768,32768
278.1,4.09281e-08,0,32768,32768
278.15,3.68849e-08,0,32768,32768
278.201,3.24849e-08,0,32768,32768
278.251,2.72501e-08,0,32768,32768
278.301,2.12282e-08,0,32768,32768
278.351,1.53825e-08,0,32768,32768
278.4,1.08569e-08,0,32768,32768
278.45,8.2463e-09,0,32768,32768
278.5,7.32671e-09,0,32768,32768
278.551,7.38556e-09,0,32768,32768
278.601,7.72164e-09,0,32768,32768
278.651,7.98816e-09,0,32768,32768
278.701,8.14205e-09,0,32768,32768
278.75,8.2471e-09,0,32768,32768
278.8,8.33633e-09,0,32768,32768
278.85,8.37095e-09,0,32768,32768
278.901,8.26259e-09,0,32768,32768
278.951,7.98258e-09,0,32768,32768
279.001,7.62343e-09,0,32768,32768
279.051,7.33418e-09,0,32768,32768
279.101,7.18233e-09,0,32768,32768
279.15,7.13493e-09,0,32768,32768
279.2,7.13518e-09,0,32768,32768
279.251,7.15037e-09,0,32768,32768
279.301,7.16814e-09,0,32768,32768
279.351,7.18629e-09,0,32768,32768
279.401,7.20447e-09,0,32768,32768
279.451,7.22268e-09,0,32768,32768
279.5,7.24094e-09,0,32768,32768
279.55,7.25926e-09,0,32768,32768
279.601,7.27808e-09,0,32768,32768
279.651,7.29625e-09,0,32768,32768
279.701,7.31434e-09,0,32768,32768
279.751,7.33244e-09,0,32768,32768
279.801,7.35065e-09,0,32768,32768
279.85,7.36901e-09,0,32768,32768
279.9,7.38744e-09,0,32768,32768
279.95,7.40607e-09,0,32768,32768
280.001,7.42612e-09,0,32768,32768
280.051,7.44785e-09,0,32768,32768
280.101,7.4736e-09,0,32768,32768
280.151,7.50505e-09,0,32768,32768
280.2,7.5437e-09,0,32768,32768
280.25,7.59193e-09,0,32768,32768
280.3,7.65492e-09,0,32768,32768
280.351,7.74485e-09,0,32768,32768
280.401,7.86849e-09,0,32768,32768
280.451,8.0376e-09,0,32768,32768
280.501,8.25492e-09,0,32768,32768
280.551,8.51506e-09,0,32768,32768
280.6,8.80875e-09,0,32768,32768
280.65,9.1308e-09,0,32768,32768
280.701,9.4978e-09,0,32768,32768
280.751,9.90653e-09,0,32768,32768
280.801,1.03911e-08,0,32768,32768
280.851,1.09755e-08,0,32768,32768
280.901,1.16804e-08,0,32768,32768
280.95,1.25236e-08,0,32768,32768
281,1.35245e-08,0,32768,32768
281.051,1.47429e-08,0,32768,32768
281.101,1.61327e-08,0,32768,32768
281.151,1.77451e-08,0,32768,32768
281.201,1.95926e-08,0,32768,32768
281.251,2.16822e-08,0,32768,32768
281.3,2.40187e-08,0,32768,32768
281.35,2.66061e-08,0,32768,32768
281.4,2.94466e-08,0,32768,32768
281.451,3.26289e-08,0,32768,32768
281.501,3.59533e-08,0,32768,32768
281.551,3.9477e-08,0,32768,32768
281.601,4.31639e-08,0,32768,32768
281.65,4.698e-08,0,32768,32768
281.7,5.08999e-08,0,32768,32768
281.75,5.49059e-08,0,32768,32768
281.801,5.91033e-08,0,32768,32768
281.851,6.32384e-08,0,32768,32768
281.901,6.74321e-08,0,32768,32768
281.951,7.17283e-08,0,32768,32768
282.001,7.62357e-08,0,32768,32768
282.05,8.11228e-08,0,32768,32768
282.1,8.65702e-08,0,32768,32768
282.151,9.28848e-08,0,32768,32768
282.201,9.96856e-08,0,32768,32768
282.251,1.06968e-07,0,32768,32768
282.301,1.14459e-07,0,32768,32768
282.351,1.21893e-07,0,32768,32768
282.4,1.29134e-07,0,32768,32768
282.45,1.36247e-07,0,32768,32768
282.501,1.43731e-07,0,32768,32768
282.551,1.51599e-07,0,32768,32768
282.601,1.60552e-07,0,32768,32768
282.651,1.71065e-07,0,32768,32768
282.701,1.83575e-07,0,32768,32768
282.75,1.98506e-07,0,32768,32768
282.8,2.16307e-07,0,32768,32768
282.851,2.38137e-07,0,32768,32768
282.901,2.63223e-07,0,32768,32768
282.951,2.92475e-07,0,32768,32768
283.001,3.26008e-07,0,32768,32768
283.051,3.6365e-07,0,32768,32768
283.1,4.04975e-07,0,32768,32768
283.15,4.49386e-07,0,32768,32768
283.2,4.96219e-07,0,32768,32768
283.251,5.46233e-07,0,32768,32768
283.301,5.95775e-07,0,32768,32768
283.351,6.45275e-07,0,32768,32768
283.401,6.93454e-07,0,32768,32768
283.45,7.38746e-07,0,32768,32768
283.5,7.79454e-07,0,32768,32768
283.55,8.14012e-07,0,32768,32768
283.601,8.41938e-07,0,32768,32768
283.651,8.6105e-07,0,32768,32768
283.701,8.72306e-07,0,32768,32768
283.751,8.76232e-07,0,32768,32768
283.801,8.73607e-07,0,32768,32768
283.85,8.65205e-07,0,32768,32768
283.9,8.516e-07,0,32768,32768
283.951,8.32439e-07,0,32768,32768
284.001,8.08787e-07,0,32768,32768
284.051,7.79945e-07,0,32768,32768
284.101,7.45669e-07,0,32768,32768
284.151,7.05878e-07,0,32768,32768
284.2,6.60817e-07,0,32768,32768
284.25,6.11152e-07,0,32768,32768
284.301,5.56361e-07,0,32768,32768
284.351,5.01005e-07,0,32768,32768
284.401,4.45085e-07,0,32768,32768
284.451,3.90033e-07,0,32768,32768
284.501,3.3702e-07,0,32768,32768
284.55,2.86859e-07,0,32768,32768
284.6,2.39995e-07,0,32768,32768
284.65,1.96584e-07,0,32768,32768
284.701,1.55487e-07,0,32768,32768
284.751,1.18994e-07,0,32768,32768
284.801,8.5872e-08,0,32768,32768
284.851,5.61856e-08,0,32768,32768
284.9,3.00162e-08,0,32768,32768
284.95,7.36245e-09,0,32768,32768
285,-1.1947e-08,0,32768,32768
285.051,-2.87102e-08,0,32768,32768
285.101,-4.24507e-08,0,32768,32768
285.151,-5.41343e-08,0,32768,32768
285.201,-6.4063e-08,0,32768,32768
285.251,-7.23603e-08,0,32768,32768
285.3,-7.90317e-08,0,32768,32768
285.35,-8.40824e-08,0,32768,32768
285.401,-8.77021e-08,0,32768,32768
285.451,-8.99302e-08,0,32768,32768
285.501,-9.12092e-08,0,32768,32768
285.551,-9.18272e-08,0,32768,32768
285.601,-9.19474e-08,0,32768,32768
285.65,-9.15747e-08,0,32768,32768
285.7,-9.0598e-08,0,32768,32768
285.751,-8.88208e-08,0,32768,32768
285.801,-8.62803e-08,0,32768,32768
285.851,-8.29942e-08,0,32768,32768
285.901,-7.91265e-08,0,32768,32768
285.951,-7.48971e-08,0,32768,32768
286,-7.05238e-08,0,32768,32768
286.05,-6.61844e-08,0,32768,32768
286.1,-6.20045e-08,0,32768,32768
286.151,-5.79518e-08,0,32768,32768
286.201,-5.43036e-08,0,32768,32768
286.251,-5.09588e-08,0,32768,32768
286.301,-4.79163e-08,0,32768,32768
286.35,-4.51614e-08,0,32768,32768
286.4,-4.26733e-08,0,32768,32768
286.45,-4.04326e-08,0,32768,32768
286.501,-3.83697e-08,0,32768,32768
286.551,-3.65936e-08,0,32768,32768
286.601,-3.50364e-08,0,32768,32768
286.651,-3.36913e-08,0,32768,32768
286.701,-3.25489e-08,0,32768,32768
286.75,-3.15967e-08,0,32768,32768
286.8,-3.082e-08,0,32768,32768
286.851,-3.01866e-08,0,32768,32768
286.901,-2.97156e-08,0,32768,32768
286.951,-2.93698e-08,0,32768,32768
287.001,-2.91326e-08,0,32768,32768
287.051,-2.89881e-08,0,32768,32768
287.1,-2.89218e-08,0,32768,32768
287.15,-2.89205e-08,0,32768,32768
287.201,-2.89752e-08,0,32768,32768
287.251,-2.90727e-08,0,32768,32768
287.301,-2.92054e-08,0,32768,32768
287.351,-2.93654e-08,0,32768,32768
287.401,-2.95456e-08,0,32768,32768
287.45,-2.97395e-08,0,32768,32768
287.5,-2.99413e-08,0,32768,32768
287.551,-3.0152e-08,0,32768,32768
287.601,-3.03557e-08,0,32768,32768
287.651,-3.05555e-08,0,32768,32768
287.701,-3.07486e-08,0,32768,32768
287.751,-3.09328e-08,0,32768,32768
287.8,-3.11054e-08,0,32768,32768
287.85,-3.12639e-08,0,32768,32768
287.9,-3.14057e-08,0,32768,32768
287.951,-3.15319e-08,0,32768,32768
288.001,-3.16336e-08,0,32768,32768
288.051,-3.17139e-08,0,32768,32768
288.101,-3.17726e-08,0,32768,32768
288.15,-3.18102e-08,0,32768,32768
288.2,-3.18276e-08,0,32768,32768
288.25,-3.18261e-08,0,32768,32768
288.301,-3.18065e-08,0,32768,32768
288.351,-3.17714e-08,0,32768,32768
288.401,-3.17223e-08,0,32768,32768
288.451,-3.16607e-08,0,32768,32768
288.501,-3.1588e-08,0,32768,32768
288.55,-3.15057e-08,0,32768,32768
288.6,-3.14151e-08,0,32768,32768
288.651,-3.13144e-08,0,32768,32768
288.701,-3.12105e-08,0,32768,32768
288.751,-3.11015e-08,0,32768,32768
288.801,-3.09882e-08,0,32768,32768
288.851,-3.08712e-08,0,32768,32768
288.9,-3.07511e-08,0,32768,32768
288.95,-3.06285e-08,0,32768,32768
289.001,-3.05002e-08,0,32768,32768
289.051,-3.03741e-08,0,32768,32768
289.101,-3.0247e-08,0,32768,32768
289.151,-3.01191e-08,0,32768,32768
289.201,-2.99904e-08,0,32768,32768
289.25,-2.98605e-08,0,32768,32768
289.3,-2.97287e-08,0,32768,32768
289.35,-2.9594e-08,0,32768,32768
289.401,-2.94508e-08,0,32768,32768
289.451,-2.93055e-08,0,32768,32768
289.501,-2.91518e-08,0,32768,32768
289.551,-2.89873e-08,0,32768,32768
289.6,-2.88091e-08,0,32768,32768
289.65,-2.86143e-08,0,32768,32768
289.7,-2.83997e-08,0,32768,32768
289.751,-2.8155e-08,0,32768,32768
289.801,-2.78916e-08,0,32768,32768
289.851,-2.76006e-08,0,32768,32768
289.901,-2.72806e-08,0,32768,32768
289.95,-2.69311e-08,0,32768,32768
290,-2.65524e-08,0,32768,32768
290.05,-2.61459e-08,0,32768,32768
290.101,-2.57015e-08,0,32768,32768
290.151,-2.52484e-08,0,32768,32768
290.201,-2.47799e-08,0,32768,32768
290.251,-2.43021e-08,0,32768,32768
290.301,-2.38222e-08,0,32768,32768
290.35,-2.33476e-08,0,32768,32768
290.4,-2.28858e-08,0,32768,32768
290.451,-2.24311e-08,0,32768,32768
290.501,-2.2016e-08,0,32768,32768
290.551,-2.16327e-08,0,32768,32768
290.601,-2.12861e-08,0,32768,32768
290.651,-2.098e-08,0,32768,32768
290.7,-2.07179e-08,0,32768,32768
290.75,-2.05023e-08,0,32768,32768
290.801,-2.03308e-08,0,32768,32768
290.851,-2.02144e-08,0,32768,32768
290.901,-2.01471e-08,0,32768,32768
290.951,-2.0128e-08,0,32768,32768
291.001,-2.01549e-08,0,32768,32768
291.05,-2.02245e-08,0,32768,32768
291.1,-2.03328e-08,0,32768,32768
291.15,-2.04752e-08,0,32768,32768
291.201,-2.06518e-08,0,32768,32768
291.251,-2.08469e-08,0,32768,32768
291.301,-2.10596e-08,0,32768,32768
291.351,-2.12841e-08,0,32768,32768
291.4,-2.15148e-08,0,32768,32768
291.45,-2.17464e-08,0,32768,32768
291.5,-2.19733e-08,0,32768,32768
291.551,-2.21968e-08,0,32768,32768
291.601,-2.23994e-08,0,32768,32768
291.651,-2.25838e-08,0,32768,32768
291.701,-2.27468e-08,0,32768,32768
291.751,-2.28861e-08,0,32768,32768
291.8,-2.30003e-08,0,32768,32768
291.85,-2.3089e-08,0,32768,32768
291.901,-2.31537e-08,0,32768,32768
291.951,-2.31916e-08,0,32768,32768
292.001,-2.32058e-08,0,32768,32768
292.051,-2.31981e-08,0,32768,32768
292.101,-2.31701e-08,0,32768,32768
292.15,-2.31238e-08,0,32768,32768
292.2,-2.30613e-08,0,32768,32768
292.251,-2.29819e-08,0,32768,32768
292.301,-2.28919e-08,0,32768,32768
292.351,-2.27903e-08,0,32768,32768
292.401,-2.26783e-08,0,32768,32768
292.451,-2.25566e-08,0,32768,32768
292.5,-2.24261e-08,0,32768,32768
292.55,-2.22874e-08,0,32768,32768
292.6,-2.21414e-08,0,32768,32768
292.651,-2.19845e-08,0,32768,32768
292.701,-2.18267e-08,0,32768,32768
292.751,-2.16647e-08,0,32768,32768
292.801,-2.14998e-08,0,32768,32768
292.85,-2.13333e-08,0,32768,32768
292.9,-2.11668e-08,0,32768,32768
292.95,-2.10017e-08,0,32768,32768
293.001,-2.08351e-08,0,32768,32768
293.051,-2.06779e-08,0,32768,32768
293.101,-2.05265e-08,0,32768,32768
293.151,-2.03823e-08,0,32768,32768
293.201,-2.02463e-08,0,32768,32768
293.25,-2.01197e-08,0,32768,32768
293.3,-2.00035e-08,0,32768,32768
293.351,-1.98954e-08,0,32768,32768
293.401,-1.98018e-08,0,32768,32768
293.451,-1.97189e-08,0,32768,32768
293.501,-1.96455e-08,0,32768,32768
293.551,-1.95797e-08,0,32768,32768
293.6,-1.95195e-08,0,32768,32768
293.65,-1.94628e-08,0,32768,32768
293.701,-1.94065e-08,0,32768,32768
293.751,-1.93528e-08,0,32768,32768
293.801,-1.92998e-08,0,32768,32768
293.851,-1.92475e-08,0,32768,32768
293.901,-1.91962e-08,0,32768,32768
293.95,-1.91461e-08,0,32768,32768
294,-1.9097e-08,0,32768,32768
294.051,-1.90468e-08,0,32768,32768
294.101,-1.89973e-08,0,32768,32768
294.151,-1.89455e-08,0,32768,32768
294.201,-1.889e-08,0,32768,32768
294.251,-1.88296e-08,0,32768,32768
294.3,-1.87633e-08,0,32768,32768
294.35,-1.86909e-08,0,32768,32768
294.4,-1.86127e-08,0,32768,32768
294.451,-1.85271e-08,0,32768,32768
294.501,-1.84397e-08,0,32768,32768
294.551,-1.83493e-08,0,32768,32768
294.601,-1.82567e-08,0,32768,32768
294.65,-1.81623e-08,0,32768,32768
294.7,-1.80664e-08,0,32768,32768
294.75,-1.79691e-08,0,32768,32768
294.801,-1.78675e-08,0,32768,32768
294.851,-1.77677e-08,0,32768,32768
294.901,-1.76669e-08,0,32768,32768
294.951,-1.75652e-08,0,32768,32768
295.001,-1.74629e-08,0,32768,32768
295.05,-1.73596e-08,0,32768,32768
295.1,-1.72551e-08,0,32768,32768
295.151,-1.71457e-08,0,32768,32768
295.201,-1.70371e-08,0,32768,32768
295.251,-1.69259e-08,0,32768,32768
295.301,-1.68117e-08,0,32768,32768
295.351,-1.66944e-08,0,32768,32768
295.4,-1.65738e-08,0,32768,32768
295.45,-1.64496e-08,0,32768,32768
295.501,-1.63175e-08,0,32768,32768
295.551,-1.61846e-08,0,32768,32768
295.601,-1.60469e-08,0,32768,32768
295.651,-1.59039e-08,0,32768,32768
295.701,-1.57557e-08,0,32768,32768
295.75,-1.56024e-08,0,32768,32768
295.8,-1.5444e-08,0,32768,32768
295.85,-1.52807e-08,0,32768,32768
295.901,-1.51077e-08,0,32768,32768
295.951,-1.49347e-08,0,32768,32768
296.001,-1.47567e-08,0,32768,32768
296.051,-1.45734e-08,0,32768,32768
296.1,-1.43847e-08,0,32768,32768
296.15,-1.41901e-08,0,32768,32768
296.2,-1.39897e-08,0,32768,32768
296.251,-1.37769e-08,0,32768,32768
296.301,-1.35639e-08,0,32768,32768
296.351,-1.33446e-08,0,32768,32768
296.401,-1.3119e-08,0,32768,32768
296.451,-1.28871e-08,0,32768,32768
296.5,-1.26486e-08,0,32768,32768
296.55,-1.24032e-08,0,32768,32768
296.601,-1.21426e-08,0,32768,32768
296.651,-1.1881e-08,0,32768,32768
296.701,-1.16099e-08,0,32768,32768
296.751,-1.13277e-08,0,32768,32768
296.801,-1.10329e-08,0,32768,32768
296.85,-1.07235e-08,0,32768,32768
296.9,-1.03973e-08,0,32768,32768
296.951,-1.00418e-08,0,32768,32768
297.001,-9.67496e-09,0,32768,32768
297.051,-9.28475e-09,0,32768,32768
297.101,-8.86929e-09,0,32768,32768
297.151,-8.42697e-09,0,32768,32768
297.2,-7.95663e-09,0,32768,32768
297.25,-7.45768e-09,0,32768,32768
297.3,-6.93012e-09,0,32768,32768
297.351,-6.35796e-09,0,32768,32768
297.401,-5.77548e-09,0,32768,32768
297.451,-5.16909e-09,0,32768,32768
297.501,-4.54193e-09,0,32768,32768
297.55,-3.89785e-09,0,32768,32768
297.6,-3.24125e-09,0,32768,32768
297.65,-2.57695e-09,0,32768,32768
297.701,-1.89035e-09,0,32768,32768
297.751,-1.22587e-09,0,32768,32768
297.801,-5.68841e-10,0,32768,32768
297.851,7.60196e-11,0,32768,32768
297.901,7.04248e-10,0,32768,32768
297.95,1.31165e-09,0,32768,32768
298,1.89429e-09,0,32768,32768
298.051,2.4643e-09,0,32768,32768
298.101,2.98558e-09,0,32768,32768
298.151,3.47174e-09,0,32768,32768
298.201,3.92002e-09,0,32768,32768
298.251,4.32815e-09,0,32768,32768
298.3,4.69444e-09,0,32768,32768
298.35,5.01788e-09,0,32768,32768
298.401,5.30578e-09,0,32768,32768
298.451,5.54213e-09,0,32768,32768
298.501,5.73693e-09,0,32768,32768
298.551,5.89189e-09,0,32768,32768
298.601,6.0092e-09,0,32768,32768
298.65,6.09141e-09,0,32768,32768
298.7,6.1413e-09,0,32768,32768
298.751,6.16199e-09,0,32768,32768
298.801,6.15539e-09,0,32768,32768
298.851,6.12549e-09,0,32768,32768
298.901,6.07526e-09,0,32768,32768
298.951,6.00757e-09,0,32768,32768
299,5.92518e-09,0,32768,32768
299.05,5.83068e-09,0,32768,32768
299.1,5.72647e-09,0,32768,32768
299.151,5.61137e-09,0,32768,32768
299.201,5.49398e-09,0,32768,32768
299.251,5.37288e-09,0,32768,32768
299.301,5.2496e-09,0,32768,32768
299.35,5.12545e-09,0,32768,32768
299.4,5.0016e-09,0,32768,32768
299.45,4.87902e-09,0,32768,32768
299.501,4.75512e-09,0,32768,32768
299.551,4.63783e-09,0,32768,32768
299.601,4.52438e-09,0,32768,32768
299.651,4.41559e-09,0,32768,32768
299.701,4.31227e-09,0,32768,32768
299.75,4.21519e-09,0,32768,32768
299.8,4.12506e-09,0,32768,32768
299.851,4.04014e-09,0,32768,32768
299.901,3.9657e-09,0,32768,32768
299.951,3.89941e-09,0,32768,32768
300.001,3.84126e-09,0,32768,32768
300.051,3.79101e-09,0,32768,32768
300.1,3.7482e-09,0,32768,32768
300.15,3.71214e-09,0,32768,32768
300.201,3.68116e-09,0,32768,32768
300.251,3.65598e-09,0,32768,32768
300.301,3.63451e-09,0,32768,32768
300.351,3.61556e-09,0,32768,32768
300.401,3.59797e-09,0,32768,32768
300.45,3.58057e-09,0,32768,32768
300.5,3.56226e-09,0,32768,32768
300.55,3.54203e-09,0,32768,32768
300.601,3.51832e-09,0,32768,32768
300.651,3.49182e-09,0,32768,32768
300.701,3.46154e-09,0,32768,32768
300.751,3.42748e-09,0,32768,32768
300.8,3.38995e-09,0,32768,32768
300.85,3.34963e-09,0,32768,32768
300.9,3.30735e-09,0,32768,32768
300.951,3.26279e-09,0,32768,32768
301.001,3.21936e-09,0,32768,32768
301.051,3.17647e-09,0,32768,32768
301.101,3.13452e-09,0,32768,32768
301.151,3.0937e-09,0,32768,32768
301.2,3.05399e-09,0,32768,32768
301.25,3.01534e-09,0,32768,32768
301.301,2.97667e-09,0,32768,32768
301.351,2.94036e-09,0,32768,32768
301.401,2.90564e-09,0,32768,32768
301.451,2.87307e-09,0,32768,32768
301.501,2.84327e-09,0,32768,32768
301.55,2.81684e-09,0,32768,32768
301.6,2.79426e-09,0,32768,32768
301.651,2.77526e-09,0,32768,32768
301.701,2.76089e-09,0,32768,32768
301.751,2.75019e-09,0,32768,32768
301.801,2.74263e-09,0,32768,32768
301.851,2.73753e-09,0,32768,32768
301.9,2.73418e-09,0,32768,32768
301.95,2.73192e-09,0,32768,32768
302.001,2.73014e-09,0,32768,32768
302.051,2.72847e-09,0,32768,32768
302.101,2.72648e-09,0,32768,32768
302.151,2.72389e-09,0,32768,32768
302.201,2.72043e-09,0,32768,32768
302.25,2.71592e-09,0,32768,32768
302.3,2.7102e-09,0,32768,32768
302.35,2.70319e-09,0,32768,32768
302.401,2.69461e-09,0,32768,32768
302.451,2.685e-09,0,32768,32768
302.501,2.67422e-09,0,32768,32768
302.551,2.66237e-09,0,32768,32768
302.6,2.64952e-09,0,32768,32768
302.65,2.63575e-09,0,32768,32768
302.7,2.62112e-09,0,32768,32768
302.751,2.60524e-09,0,32768,32768
302.801,2.58911e-09,0,32768,32768
302.851,2.57237e-09,0,32768,32768
302.901,2.55514e-09,0,32768,32768
302.951,2.53749e-09,0,32768,32768
303,2.51947e-09,0,32768,32768
303.05,2.50107e-09,0,32768,32768
303.101,2.48169e-09,0,32768,32768
303.151,2.46236e-09,0,32768,32768
303.201,2.4425e-09,0,32768,32768
303.251,2.42205e-09,0,32768,32768
303.301,2.40104e-09,0,32768,32768
303.35,2.37951e-09,0,32768,32768
303.4,2.35755e-09,0,32768,32768
303.451,2.33458e-09,0,32768,32768
303.501,2.31205e-09,0,32768,32768
303.551,2.28939e-09,0,32768,32768
303.601,2.2667e-09,0,32768,32768
303.651,2.24406e-09,0,32768,32768
303.7,2.22154e-09,0,32768,32768
303.75,2.19917e-09,0,32768,32768
303.8,2.177e-09,0,32768,32768
303.851,2.15441e-09,0,32768,32768
303.901,2.13273e-09,0,32768,32768
303.951,2.11132e-09,0,32768,32768
304.001,2.09021e-09,0,32768,32768
304.05,2.0694e-09,0,32768,32768
304.1,2.04892e-09,0,32768,32768
304.15,2.02874e-09,0,32768,32768
304.201,2.00831e-09,0,32768,32768
304.251,1.98876e-09,0,32768,32768
304.301,1.96949e-09,0,32768,32768
304.351,1.95047e-09,0,32768,32768
304.401,1.93167e-09,0,32768,32768
304.45,1.91306e-09,0,32768,32768
304.5,1.89457e-09,0,32768,32768
304.551,1.87562e-09,0,32768,32768
304.601,1.85725e-09,0,32768,32768
304.651,1.83885e-09,0,32768,32768
304.701,1.82037e-09,0,32768,32768
304.751,1.80176e-09,0,32768,32768
304.8,1.78297e-09,0,32768,32768
304.85,1.76393e-09,0,32768,32768
304.901,1.74404e-09,0,32768,32768
304.951,1.72439e-09,0,32768,32768
