250,0,0,32768,32768
250.001,0,0,32768,32768
250.051,0,0,32768,32768
250.101,0,0,32768,32768
250.151,-2.77556e-17,0,32768,32768
250.201,-2.77556e-17,0,32768,32768
250.25,-2.77556e-17,0,32768,32768
250.3,0,0,32768,32768
250.35,0,0,32768,32768
250.401,-2.77556e-17,0,32768,32768
250.451,-2.77556e-17,0,32768,32768
250.501,-2.77556e-17,0,32768,32768
250.551,-2.77556e-17,0,32768,32768
250.6,-2.77556e-17,0,32768,32768
250.65,-2.77556e-17,0,32768,32768
250.7,-2.77556e-17,0,32768,32768
250.751,0,0,32768,32768
250.801,0,0,32768,32768
250.851,0,0,32768,32768
250.901,0,0,32768,32768
250.951,-2.77556e-17,0,32768,32768
251,2.77556e-17,0,32768,32768
251.05,2.77556e-17,0,32768,32768
251.101,2.77556e-17,0,32768,32768
251.151,0,0,32768,32768
251.201,0,0,32768,32768
251.251,0,0,32768,32768
251.301,0,0,32768,32768
251.35,-2.77556e-17,0,32768,32768
251.4,0,0,32768,32768
251.451,2.77556e-17,0,32768,32768
251.501,0,0,32768,32768
251.551,0,0,32768,32768
251.601,2.77556e-17,0,32768,32768
251.651,2.77556e-17,0,32768,32768
251.7,2.77556e-17,0,32768,32768
251.75,2.77556e-17,0,32768,32768
251.8,2.77556e-17,0,32768,32768
251.851,0,0,32768,32768
251.901,0,0,32768,32768
251.951,2.77556e-17,0,32768,32768
252.001,5.55112e-17,0,32768,32768
252.05,2.77556e-17,0,32768,32768
252.1,2.77556e-17,0,32768,32768
252.15,0,0,32768,32768
252.201,-2.77556e-17,0,32768,32768
252.251,-5.55112e-17,0,32768,32768
252.301,-2.77556e-17,0,32768,32768
252.351,0,0,32768,32768
252.401,0,0,32768,32768
252.45,0,0,32768,32768
252.5,0,0,32768,32768
252.551,0,0,32768,32768
252.601,-2.77556e-17,0,32768,32768
252.651,-2.77556e-17,0,32768,32768
252.701,0,0,32768,32768
252.751,0,0,32768,32768
252.8,0,0,32768,32768
252.85,-2.77556e-17,0,32768,32768
252.901,2.77556e-17,0,32768,32768
252.951,0,0,32768,32768
253.001,0,0,32768,32768
253.051,2.77556e-17,0,32768,32768
253.101,2.77556e-17,0,32768,32768
253.15,0,0,32768,32768
253.2,2.77556e-17,0,32768,32768
253.25,2.77556e-17,0,32768,32768
253.301,-2.77556e-17,0,32768,32768
253.351,2.77556e-17,0,32768,32768
253.401,-2.77556e-17,0,32768,32768
253.451,2.77556e-17,0,32768,32768
253.5,0,0,32768,32768
253.55,2.77556e-17,0,32768,32768
253.6,0,0,32768,32768
253.651,0,0,32768,32768
253.701,0,0,32768,32768
253.751,2.77556e-17,0,32768,32768
253.801,5.55112e-17,0,32768,32768
253.851,1.11022e-16,0,32768,32768
253.9,8.32667e-17,0,32768,32768
253.95,8.32667e-17,0,32768,32768
254.001,5.55112e-17,0,32768,32768
254.051,5.55112e-17,0,32768,32768
254.101,5.55112e-17,0,32768,32768
254.151,8.32667e-17,0,32768,32768
254.201,1.11022e-16,0,32768,32768
254.25,5.55112e-17,0,32768,32768
254.3,2.77556e-17,0,32768,32768
254.351,2.77556e-17,0,32768,32768
254.401,2.77556e-17,0,32768,32768
254.451,2.77556e-17,0,32768,32768
254.501,2.77556e-17,0,32768,32768
254.551,2.77556e-17,0,32768,32768
254.6,8.32667e-17,0,32768,32768
254.65,2.77556e-17,0,32768,32768
254.701,8.32667e-17,0,32768,32768
254.751,8.32667e-17,0,32768,32768
254.801,8.32667e-17,0,32768,32768
254.851,8.32667e-17,0,32768,32768
254.901,5.55112e-17,0,32768,32768
254.95,2.77556e-17,0,32768,32768
255,-2.77556e-17,0,32768,32768
255.05,-2.77556e-17,0,32768,32768
255.101,-2.77556e-17,0,32768,32768
255.151,-2.77556e-17,0,32768,32768
255.201,-2.77556e-17,0,32768,32768
255.251,-5.55112e-17,0,32768,32768
255.3,0,0,32768,32768
255.35,-2.77556e-17,0,32768,32768
255.4,0,0,32768,32768
255.451,5.55112e-17,0,32768,32768
255.501,5.55112e-17,0,32768,32768
255.551,1.11022e-16,0,32768,32768
255.601,8.32667e-17,0,32768,32768
255.651,5.55112e-17,0,32768,32768
255.7,5.55112e-17,0,32768,32768
255.75,5.55112e-17,0,32768,32768
255.801,5.55112e-17,0,32768,32768
255.851,5.55112e-17,0,32768,32768
255.901,5.55112e-17,0,32768,32768
255.951,5.55112e-17,0,32768,32768
256.001,5.55112e-17,0,32768,32768
256.05,5.55112e-17,0,32768,32768
256.1,5.55112e-17,0,32768,32768
256.151,5.55112e-17,0,32768,32768
256.201,1.11022e-16,0,32768,32768
256.251,8.32667e-17,0,32768,32768
256.301,5.55112e-17,0,32768,32768
256.351,5.55112e-17,0,32768,32768
256.4,0,0,32768,32768
256.45,5.55112e-17,0,32768,32768
256.5,5.55112e-17,0,32768,32768
256.551,2.77556e-17,0,32768,32768
256.601,2.77556e-17,0,32768,32768
256.651,5.55112e-17,0,32768,32768
256.701,0,0,32768,32768
256.75,2.77556e-17,0,32768,32768
256.8,2.77556e-17,0,32768,32768
256.85,5.55112e-17,0,32768,32768
256.901,8.32667e-17,0,32768,32768
256.951,5.55112e-17,0,32768,32768
257.001,5.55112e-17,0,32768,32768
257.051,2.77556e-17,0,32768,32768
257.101,2.77556e-17,0,32768,32768
257.15,5.55112e-17,0,32768,32768
257.2,5.55112e-17,0,32768,32768
257.251,8.32667e-17,0,32768,32768
257.301,2.77556e-17,0,32768,32768
257.351,0,0,32768,32768
257.401,2.77556e-17,0,32768,32768
257.451,2.77556e-17,0,32768,32768
257.5,0,0,32768,32768
257.55,-2.77556e-17,0,32768,32768
257.601,-5.55112e-17,0,32768,32768
257.651,-2.77556e-17,0,32768,32768
257.701,-2.77556e-17,0,32768,32768
257.751,-5.55112e-17,0,32768,32768
257.801,-2.77556e-17,0,32768,32768
257.85,-2.77556e-17,0,32768,32768
257.9,-2.77556e-17,0,32768,32768
257.95,-5.55112e-17,0,32768,32768
258.001,-5.55112e-17,0,32768,32768
258.051,-5.55112e-17,0,32768,32768
258.101,-8.32667e-17,0,32768,32768
258.151,-5.55112e-17,0,32768,32768
258.2,2.77556e-17,0,32768,32768
258.25,0,0,32768,32768
258.3,2.77556e-17,0,32768,32768
258.351,2.77556e-17,0,32768,32768
258.401,2.77556e-17,0,32768,32768
258.451,2.77556e-17,0,32768,32768
258.501,5.55112e-17,0,32768,32768
258.551,5.55112e-17,0,32768,32768
258.6,5.55112e-17,0,32768,32768
258.65,2.77556e-17,0,32768,32768
258.701,2.77556e-17,0,32768,32768
258.751,0,0,32768,32768
258.801,-2.77556e-17,0,32768,32768
258.851,-2.77556e-17,0,32768,32768
258.901,0,0,32768,32768
258.95,0,0,32768,32768
259,0,0,32768,32768
259.051,2.77556e-17,0,32768,32768
259.101,2.77556e-17,0,32768,32768
259.151,5.55112e-17,0,32768,32768
259.201,8.32667e-17,0,32768,32768
259.251,2.77556e-17,0,32768,32768
259.3,2.77556e-17,0,32768,32768
259.35,2.77556e-17,0,32768,32768
259.401,5.55112e-17,0,32768,32768
259.451,2.77556e-17,0,32768,32768
259.501,5.55112e-17,0,32768,32768
259.551,5.55112e-17,0,32768,32768
259.601,5.55112e-17,0,32768,32768
259.65,2.77556e-17,0,32768,32768
259.7,0,0,32768,32768
259.75,-5.55112e-17,0,32768,32768
259.801,-2.77556e-17,0,32768,32768
259.851,-2.77556e-17,0,32768,32768
259.901,-5.55112e-17,0,32768,32768
259.951,0,0,32768,32768
260,2.77556e-17,0,32768,32768
260.05,0,0,32768,32768
260.1,-2.77556e-17,0,32768,32768
260.151,-2.77556e-17,0,32768,32768
260.201,-2.77556e-17,0,32768,32768
260.251,-2.77556e-17,0,32768,32768
260.301,-2.77556e-17,0,32768,32768
260.351,-2.77556e-17,0,32768,32768
260.4,0,0,32768,32768
260.45,2.77556e-17,0,32768,32768
260.501,5.55112e-17,0,32768,32768
260.551,2.77556e-17,0,32768,32768
260.601,0,0,32768,32768
260.651,2.77556e-17,0,32768,32768
260.701,2.77556e-17,0,32768,32768
260.75,2.77556e-17,0,32768,32768
260.8,5.55112e-17,0,32768,32768
260.851,5.55112e-17,0,32768,32768
260.901,8.32667e-17,0,32768,32768
260.951,5.55112e-17,0,32768,32768
261.001,5.55112e-17,0,32768,32768
261.051,5.55112e-17,0,32768,32768
261.1,5.55112e-17,0,32768,32768
261.15,5.55112e-17,0,32768,32768
261.2,8.32667e-17,0,32768,32768
261.251,1.11022e-16,0,32768,32768
261.301,8.32667e-17,0,32768,32768
261.351,8.32667e-17,0,32768,32768
261.401,8.32667e-17,0,32768,32768
261.45,2.77556e-17,0,32768,32768
261.5,2.77556e-17,0,32768,32768
261.55,2.77556e-17,0,32768,32768
261.601,2.77556e-17,0,32768,32768
261.651,-2.77556e-17,0,32768,32768
261.701,-2.77556e-17,0,32768,32768
261.751,-2.77556e-17,0,32768,32768
261.801,0,0,32768,32768
261.85,5.55112e-17,0,32768,32768
261.9,5.55112e-17,0,32768,32768
261.951,5.55112e-17,0,32768,32768
262.001,2.77556e-17,0,32768,32768
262.051,0,0,32768,32768
262.101,0,0,32768,32768
262.151,-5.55112e-17,0,32768,32768
262.2,-2.77556e-17,0,32768,32768
262.25,-2.77556e-17,0,32768,32768
262.301,2.77556e-17,0,32768,32768
262.351,-2.77556e-17,0,32768,32768
262.401,-5.55112e-17,0,32768,32768
262.451,-5.55112e-17,0,32768,32768
262.501,-5.55112e-17,0,32768,32768
262.55,-8.32667e-17,0,32768,32768
262.6,-5.55112e-17,0,32768,32768
262.651,-2.77556e-17,0,32768,32768
262.701,-5.55112e-17,0,32768,32768
262.751,0,0,32768,32768
262.801,0,0,32768,32768
262.851,0,0,32768,32768
262.9,0,0,32768,32768
262.95,2.77556e-17,0,32768,32768
263,5.55112e-17,0,32768,32768
263.051,5.55112e-17,0,32768,32768
263.101,2.77556e-17,0,32768,32768
263.151,5.55112e-17,0,32768,32768
263.201,2.77556e-17,0,32768,32768
263.25,5.55112e-17,0,32768,32768
263.3,2.77556e-17,0,32768,32768
263.35,2.77556e-17,0,32768,32768
263.401,2.77556e-17,0,32768,32768
263.451,-2.77556e-17,0,32768,32768
263.501,-5.55112e-17,0,32768,32768
263.551,-2.77556e-17,0,32768,32768
263.601,-5.55112e-17,0,32768,32768
263.65,-5.55112e-17,0,32768,32768
263.7,-5.55112e-17,0,32768,32768
263.751,-5.55112e-17,0,32768,32768
263.801,-2.77556e-17,0,32768,32768
263.851,-5.55112e-17,0,32768,32768
263.901,-5.55112e-17,0,32768,32768
263.951,-5.55112e-17,0,32768,32768
264,-2.77556e-17,0,32768,32768
264.05,-5.55112e-17,0,32768,32768
264.101,-5.55112e-17,0,32768,32768
264.151,-2.77556e-17,0,32768,32768
264.201,-5.55112e-17,0,32768,32768
264.251,-8.32667e-17,0,32768,32768
264.301,-5.55112e-17,0,32768,32768
264.35,-5.55112e-17,0,32768,32768
264.4,-5.55112e-17,0,32768,32768
264.45,-2.77556e-17,0,32768,32768
264.501,-5.55112e-17,0,32768,32768
264.551,-5.55112e-17,0,32768,32768
264.601,2.77556e-17,0,32768,32768
264.651,2.77556e-17,0,32768,32768
264.7,2.77556e-17,0,32768,32768
264.75,5.55112e-17,0,32768,32768
264.8,2.77556e-17,0,32768,32768
264.851,0,0,32768,32768
264.901,2.77556e-17,0,32768,32768
264.951,2.77556e-17,0,32768,32768
265.001,5.55112e-17,0,32768,32768
265.051,1.11022e-16,0,32768,32768
265.1,1.66533e-16,0,32768,32768
265.15,1.94289e-16,0,32768,32768
265.201,1.66533e-16,0,32768,32768
265.251,1.94289e-16,0,32768,32768
265.301,1.66533e-16,0,32768,32768
265.351,1.38778e-16,0,32768,32768
265.401,1.11022e-16,0,32768,32768
265.45,1.11022e-16,0,32768,32768
265.5,1.11022e-16,0,32768,32768
265.551,8.32667e-17,0,32768,32768
265.601,8.32667e-17,0,32768,32768
265.651,8.32667e-17,0,32768,32768
265.701,8.32667e-17,0,32768,32768
265.751,8.32667e-17,0,32768,32768
265.8,8.32667e-17,0,32768,32768
265.85,5.55112e-17,0,32768,32768
265.9,2.77556e-17,0,32768,32768
265.951,2.77556e-17,0,32768,32768
266.001,2.77556e-17,0,32768,32768
266.051,5.55112e-17,0,32768,32768
266.101,0,0,32768,32768
266.15,2.77556e-17,0,32768,32768
266.2,5.55112e-17,0,32768,32768
266.25,5.55112e-17,0,32768,32768
266.301,5.55112e-17,0,32768,32768
266.351,8.32667e-17,0,32768,32768
266.401,5.55112e-17,0,32768,32768
266.451,5.55112e-17,0,32768,32768
266.501,5.55112e-17,0,32768,32768
266.55,5.55112e-17,0,32768,32768
266.6,2.77556e-17,0,32768,32768
266.651,8.32667e-17,0,32768,32768
266.701,8.32667e-17,0,32768,32768
266.751,8.32667e-17,0,32768,32768
266.801,1.38778e-16,0,32768,32768
266.851,1.38778e-16,0,32768,32768
266.9,1.38778e-16,0,32768,32768
266.95,1.66533e-16,0,32768,32768
267.001,1.66533e-16,0,32768,32768
267.051,1.38778e-16,0,32768,32768
267.101,8.32667e-17,0,32768,32768
267.151,8.32667e-17,0,32768,32768
267.201,1.11022e-16,0,32768,32768
267.25,8.32667e-17,0,32768,32768
267.3,5.55112e-17,0,32768,32768
267.351,8.32667e-17,0,32768,32768
267.401,1.11022e-16,0,32768,32768
267.451,8.32667e-17,0,32768,32768
267.501,8.32667e-17,0,32768,32768
267.551,2.77556e-17,0,32768,32768
267.6,5.55112e-17,0,32768,32768
267.65,5.55112e-17,0,32768,32768
267.7,5.55112e-17,0,32768,32768
267.751,2.77556e-17,0,32768,32768
267.801,5.55112e-17,0,32768,32768
267.851,1.11022e-16,0,32768,32768
267.901,1.11022e-16,0,32768,32768
267.95,1.11022e-16,0,32768,32768
268,1.11022e-16,0,32768,32768
268.05,8.32667e-17,0,32768,32768
268.101,8.32667e-17,0,32768,32768
268.151,1.66533e-16,0,32768,32768
268.201,1.94289e-16,0,32768,32768
268.251,1.38778e-16,0,32768,32768
268.301,1.38778e-16,0,32768,32768
268.35,5.55112e-17,0,32768,32768
268.4,8.32667e-17,0,32768,32768
268.451,5.55112e-17,0,32768,32768
268.501,8.32667e-17,0,32768,32768
268.551,1.11022e-16,0,32768,32768
268.601,1.11022e-16,0,32768,32768
268.651,1.11022e-16,0,32768,32768
268.7,1.11022e-16,0,32768,32768
268.75,8.32667e-17,0,32768,32768
268.801,5.55112e-17,0,32768,32768
268.851,2.77556e-17,0,32768,32768
268.901,5.55112e-17,0,32768,32768
268.951,2.77556e-17,0,32768,32768
269.001,5.55112e-17,0,32768,32768
269.05,5.55112e-17,0,32768,32768
269.1,2.77556e-17,0,32768,32768
269.15,2.77556e-17,0,32768,32768
269.201,2.77556e-17,0,32768,32768
269.251,2.77556e-17,0,32768,32768
269.301,0,0,32768,32768
269.351,0,0,32768,32768
269.4,0,0,32768,32768
269.45,0,0,32768,32768
269.5,8.32667e-17,0,32768,32768
269.551,2.19824e-14,0,32768,32768
269.601,1.51926e-12,0,32768,32768
269.651,2.06765e-12,0,32768,32768
269.701,-1.28164e-10,0,32768,32768
269.751,-4.47466e-10,0,32768,32768
269.8,-5.53483e-10,0,32768,32768
269.85,-3.09348e-10,0,32768,32768
269.901,8.03048e-11,0,32768,32768
269.951,3.59042e-10,0,32768,32768
270.001,3.82812e-10,0,32768,32768
270.051,1.53868e-10,0,32768,32768
270.101,-1.29564e-10,0,32768,32768
270.15,-2.1803e-10,0,32768,32768
270.2,-3.49484e-11,0,32768,32768
270.251,2.50904e-10,0,32768,32768
270.301,3.61411e-10,0,32768,32768
270.351,2.16883e-10,0,32768,32768
270.401,-2.8521e-11,0,32768,32768
270.451,-1.4426e-10,0,32768,32768
270.5,-4.02859e-11,0,32768,32768
270.55,1.68141e-10,0,32768,32768
270.6,2.96048e-10,0,32768,32768
270.651,2.52955e-10,0,32768,32768
270.701,1.03339e-10,0,32768,32768
270.751,-3.34064e-11,0,32768,32768
270.801,-7.52912e-11,0,32768,32768
270.85,-1.1259e-12,0,32768,32768
270.9,1.65237e-10,0,32768,32768
270.95,3.3813e-10,0,32768,32768
271.001,3.66442e-10,0,32768,32768
271.051,1.33392e-10,0,32768,32768
271.101,-2.4665e-10,0,32768,32768
271.151,-4.08436e-10,0,32768,32768
271.201,-2.35701e-11,0,32768,32768
271.25,7.30497e-10,0,32768,32768
271.3,1.0868e-09,0,32768,32768
271.351,2.94061e-10,0,32768,32768
271.401,-1.23159e-09,0,32768,32768
271.451,-1.88307e-09,0,32768,32768
271.501,5.03002e-11,0,32768,32768
271.551,4.91932e-09,0,32768,32768
271.6,1.14551e-08,0,32768,32768
271.65,1.78936e-08,0,32768,32768
271.701,2.31624e-08,0,32768,32768
271.751,2.65492e-08,0,32768,32768
271.801,2.8406e-08,0,32768,32768
271.851,2.9696e-08,0,32768,32768
271.901,3.21288e-08,0,32768,32768
271.95,3.73265e-08,0,32768,32768
272,4.57267e-08,0,32768,32768
272.051,5.68263e-08,0,32768,32768
272.101,6.8994e-08,0,32768,32768
272.151,8.26651e-08,0,32768,32768
272.201,9.9205e-08,0,32768,32768
272.251,1.20307e-07,0,32768,32768
272.3,1.47253e-07,0,32768,32768
272.35,1.80762e-07,0,32768,32768
272.4,2.20854e-07,0,32768,32768
272.451,2.67514e-07,0,32768,32768
272.501,3.15323e-07,0,32768,32768
272.551,3.63248e-07,0,32768,32768
272.601,4.11382e-07,0,32768,32768
272.65,4.62094e-07,0,32768,32768
272.7,5.17476e-07,0,32768,32768
272.75,5.76456e-07,0,32768,32768
272.801,6.36462e-07,0,32768,32768
272.851,6.89163e-07,0,32768,32768
272.901,7.33126e-07,0,32768,32768
272.951,7.66875e-07,0,32768,32768
273.001,7.90118e-07,0,32768,32768
273.05,8.04144e-07,0,32768,32768
273.1,8.11574e-07,0,32768,32768
273.151,8.15077e-07,0,32768,32768
273.201,8.15822e-07,0,32768,32768
273.251,8.14028e-07,0,32768,32768
273.301,8.09203e-07,0,32768,32768
273.351,8.00491e-07,0,32768,32768
273.4,7.86772e-07,0,32768,32768
273.45,7.66914e-07,0,32768,32768
273.501,7.39074e-07,0,32768,32768
273.551,7.04195e-07,0,32768,32768
273.601,6.61733e-07,0,32768,32768
273.651,6.13514e-07,0,32768,32768
273.701,5.62725e-07,0,32768,32768
273.75,5.12519e-07,0,32768,32768
273.8,4.64889e-07,0,32768,32768
273.851,4.19462e-07,0,32768,32768
273.901,3.79113e-07,0,32768,32768
273.951,3.42242e-07,0,32768,32768
274.001,3.08231e-07,0,32768,32768
274.051,2.76381e-07,0,32768,32768
274.1,2.46096e-07,0,32768,32768
274.15,2.1697e-07,0,32768,32768
274.2,1.89156e-07,0,32768,32768
274.251,1.6326e-07,0,32768,32768
274.301,1.42831e-07,0,32768,32768
274.351,1.28166e-07,0,32768,32768
274.401,1.17745e-07,0,32768,32768
274.45,1.08158e-07,0,32768,32768
274.5,9.66998e-08,0,32768,32768
274.55,8.34485e-08,0,32768,32768
274.601,7.02851e-08,0,32768,32768
274.651,6.01712e-08,0,32768,32768
274.701,5.33296e-08,0,32768,32768
274.751,4.91445e-08,0,32768,32768
274.801,4.65103e-08,0,32768,32768
274.85,4.40316e-08,0,32768,32768
274.9,4.02575e-08,0,32768,32768
274.951,3.43123e-08,0,32768,32768
275.001,2.75361e-08,0,32768,32768
275.051,2.18451e-08,0,32768,32768
275.101,1.87676e-08,0,32768,32768
275.151,1.81883e-08,0,32768,32768
275.2,1.88459e-08,0,32768,32768
275.25,1.95423e-08,0,32768,32768
275.301,1.98531e-08,0,32768,32768
275.351,1.9914e-08,0,32768,32768
275.401,1.99669e-08,0,32768,32768
275.451,2.0084e-08,0,32768,32768
275.501,2.02222e-08,0,32768,32768
275.55,2.0327e-08,0,32768,32768
275.6,2.02278e-08,0,32768,32768
275.65,1.96755e-08,0,32768,32768
275.701,1.92052e-08,0,32768,32768
275.751,1.91213e-08,0,32768,32768
275.801,1.9144e-08,0,32768,32768
275.851,1.91761e-08,0,32768,32768
275.9,1.92087e-08,0,32768,32768
275.95,1.92413e-08,0,32768,32768
276,1.9274e-08,0,32768,32768
276.051,1.93078e-08,0,32768,32768
276.101,1.93408e-08,0,32768,32768
276.151,1.93738e-08,0,32768,32768
276.201,1.94069e-08,0,32768,32768
276.251,1.944e-08,0,32768,32768
276.3,1.94733e-08,0,32768,32768
276.35,1.95066e-08,0,32768,32768
276.401,1.95411e-08,0,32768,32768
276.451,1.95747e-08,0,32768,32768
276.501,1.96083e-08,0,32768,32768
276.551,1.9642e-08,0,32768,32768
276.601,1.96757e-08,0,32768,32768
276.65,1.97094e-08,0,32768,32768
276.7,1.97432e-08,0,32768,32768
276.751,1.97781e-08,0,32768,32768
276.801,1.98122e-08,0,32768,32768
276.851,1.98462e-08,0,32768,32768
276.901,1.98804e-08,0,32768,32768
276.951,1.99146e-08,0,32768,32768
277,1.99489e-08,0,32768,32768
277.05,1.99833e-08,0,32768,32768
277.1,2.00179e-08,0,32768,32768
277.151,2.00536e-08,0,32768,32768
277.201,2.00884e-08,0,32768,32768
277.251,2.01233e-08,0,32768,32768
277.301,2.01583e-08,0,32768,32768
277.35,2.01934e-08,0,32768,32768
277.4,2.02287e-08,0,32768,32768
277.45,2.02641e-08,0,32768,32768
277.501,2.03007e-08,0,32768,32768
277.551,2.03363e-08,0,32768,32768
277.601,2.03721e-08,0,32768,32768
277.651,2.04079e-08,0,32768,32768
277.701,2.0444e-08,0,32768,32768
277.75,2.04801e-08,0,32768,32768
277.8,2.05164e-08,0,32768,32768
277.851,2.05539e-08,0,32768,32768
277.901,2.05903e-08,0,32768,32768
277.951,2.06269e-08,0,32768,32768
278.001,2.06636e-08,0,32768,32768
278.051,2.07005e-08,0,32768,32768
278.1,2.07373e-08,0,32768,32768
278.15,2.07732e-08,0,32768,32768
278.201,2.08086e-08,0,32768,32768
278.251,2.08405e-08,0,32768,32768
278.301,2.08695e-08,0,32768,32768
278.351,2.08957e-08,0,32768,32768
278.401,2.09192e-08,0,32768,32768
278.45,2.09405e-08,0,32768,32768
278.5,2.09598e-08,0,32768,32768
278.551,2.09773e-08,0,32768,32768
278.601,2.09913e-08,0,32768,32768
278.651,2.10011e-08,0,32768,32768
278.701,2.10054e-08,0,32768,32768
278.751,2.10027e-08,0,32768,32768
278.8,2.09916e-08,0,32768,32768
278.85,2.09701e-08,0,32768,32768
278.9,2.09357e-08,0,32768,32768
278.951,2.0884e-08,0,32768,32768
279.001,2.08144e-08,0,32768,32768
279.051,2.07225e-08,0,32768,32768
279.101,2.0605e-08,0,32768,32768
279.15,2.04596e-08,0,32768,32768
279.2,2.02842e-08,0,32768,32768
279.25,2.00774e-08,0,32768,32768
279.301,1.98302e-08,0,32768,32768
279.351,1.95554e-08,0,32768,32768
279.401,1.92455e-08,0,32768,32768
279.451,1.89007e-08,0,32768,32768
279.501,1.85224e-08,0,32768,32768
279.55,1.81138e-08,0,32768,32768
279.6,1.76793e-08,0,32768,32768
279.651,1.72104e-08,0,32768,32768
279.701,1.67393e-08,0,32768,32768
279.751,1.62574e-08,0,32768,32768
279.801,1.57688e-08,0,32768,32768
279.851,1.52765e-08,0,32768,32768
279.9,1.47831e-08,0,32768,32768
279.95,1.4291e-08,0,32768,32768
280.001,1.37885e-08,0,32768,32768
280.051,1.33073e-08,0,32768,32768
280.101,1.28363e-08,0,32768,32768
280.151,1.23794e-08,0,32768,32768
280.201,1.19408e-08,0,32768,32768
280.25,1.15244e-08,0,32768,32768
280.3,1.11337e-08,0,32768,32768
280.35,1.07712e-08,0,32768,32768
280.401,1.04288e-08,0,32768,32768
280.451,1.01261e-08,0,32768,32768
280.501,9.85209e-09,0,32768,32768
280.551,9.60513e-09,0,32768,32768
280.6,9.38346e-09,0,32768,32768
280.65,9.18529e-09,0,32768,32768
280.7,9.00901e-09,0,32768,32768
280.751,8.84892e-09,0,32768,32768
280.801,8.71286e-09,0,32768,32768
280.851,8.59459e-09,0,32768,32768
280.901,8.49251e-09,0,32768,32768
280.951,8.40466e-09,0,32768,32768
281,8.3289e-09,0,32768,32768
281.05,8.26326e-09,0,32768,32768
281.101,8.20474e-09,0,32768,32768
281.151,8.15587e-09,0,32768,32768
281.201,8.11448e-09,0,32768,32768
281.251,8.0802e-09,0,32768,32768
281.301,8.05242e-09,0,32768,32768
281.35,8.03014e-09,0,32768,32768
281.4,8.01224e-09,0,32768,32768
281.451,7.99735e-09,0,32768,32768
281.501,7.98571e-09,0,32768,32768
281.551,7.97669e-09,0,32768,32768
281.601,7.9704e-09,0,32768,32768
281.651,7.96702e-09,0,32768,32768
281.7,7.9665e-09,0,32768,32768
281.75,7.96844e-09,0,32768,32768
281.8,7.97221e-09,0,32768,32768
281.851,7.97729e-09,0,32768,32768
281.901,7.98279e-09,0,32768,32768
281.951,7.98848e-09,0,32768,32768
282.001,7.99416e-09,0,32768,32768
282.05,7.99978e-09,0,32768,32768
282.1,8.00534e-09,0,32768,32768
282.15,8.01088e-09,0,32768,32768
282.201,8.01662e-09,0,32768,32768
282.251,8.02229e-09,0,32768,32768
282.301,8.02807e-09,0,32768,32768
282.351,8.03398e-09,0,32768,32768
282.401,8.04002e-09,0,32768,32768
282.45,8.04618e-09,0,32768,32768
282.5,8.05243e-09,0,32768,32768
282.551,8.05892e-09,0,32768,32768
282.601,8.06523e-09,0,32768,32768
282.651,8.07153e-09,0,32768,32768
282.701,8.07782e-09,0,32768,32768
282.751,8.08412e-09,0,32768,32768
282.8,8.09047e-09,0,32768,32768
282.85,8.09686e-09,0,32768,32768
282.901,8.10348e-09,0,32768,32768
282.951,8.10993e-09,0,32768,32768
283.001,8.11638e-09,0,32768,32768
283.051,8.12285e-09,0,32768,32768
283.101,8.12938e-09,0,32768,32768
283.15,8.13602e-09,0,32768,32768
283.2,8.14282e-09,0,32768,32768
283.251,8.15017e-09,0,32768,32768
283.301,8.15812e-09,0,32768,32768
283.351,8.16771e-09,0,32768,32768
283.401,8.18013e-09,0,32768,32768
283.451,8.1968e-09,0,32768,32768
283.5,8.21944e-09,0,32768,32768
283.55,8.25053e-09,0,32768,32768
283.6,8.29407e-09,0,32768,32768
283.651,8.3583e-09,0,32768,32768
283.701,8.44722e-09,0,32768,32768
283.751,8.56939e-09,0,32768,32768
283.801,8.72898e-09,0,32768,32768
283.85,8.926e-09,0,32768,32768
283.9,9.1575e-09,0,32768,32768
283.95,9.42101e-09,0,32768,32768
284.001,9.72785e-09,0,32768,32768
284.051,1.00695e-08,0,32768,32768
284.101,1.04694e-08,0,32768,32768
284.151,1.09458e-08,0,32768,32768
284.201,1.15178e-08,0,32768,32768
284.25,1.22035e-08,0,32768,32768
284.3,1.30209e-08,0,32768,32768
284.351,1.40194e-08,0,32768,32768
284.401,1.51608e-08,0,32768,32768
284.451,1.64883e-08,0,32768,32768
284.501,1.80159e-08,0,32768,32768
284.551,1.97536e-08,0,32768,32768
284.6,2.17083e-08,0,32768,32768
284.65,2.38842e-08,0,32768,32768
284.701,2.63565e-08,0,32768,32768
284.751,2.898e-08,0,32768,32768
284.801,3.18113e-08,0,32768,32768
284.851,3.48315e-08,0,32768,32768
284.901,3.80159e-08,0,32768,32768
284.95,4.13375e-08,0,32768,32768
285,4.47718e-08,0,32768,32768
285.05,4.82983e-08,0,32768,32768
285.101,5.20084e-08,0,32768,32768
285.151,5.56815e-08,0,32768,32768
285.201,5.94276e-08,0,32768,32768
285.251,6.32783e-08,0,32768,32768
285.3,6.7302e-08,0,32768,32768
285.35,7.16027e-08,0,32768,32768
285.4,7.62989e-08,0,32768,32768
285.451,8.16439e-08,0,32768,32768
285.501,8.73563e-08,0,32768,32768
285.551,9.35119e-08,0,32768,32768
285.601,9.99644e-08,0,32768,32768
285.651,1.06542e-07,0,32768,32768
285.7,1.13121e-07,0,32768,32768
285.75,1.19688e-07,0,32768,32768
285.801,1.26574e-07,0,32768,32768
285.851,1.33657e-07,0,32768,32768
285.901,1.41488e-07,0,32768,32768
285.951,1.50465e-07,0,32768,32768
286.001,1.60991e-07,0,32768,32768
286.05,1.73463e-07,0,32768,32768
286.1,1.88281e-07,0,32768,32768
286.151,2.06407e-07,0,32768,32768
286.201,2.27195e-07,0,32768,32768
286.251,2.51423e-07,0,32768,32768
286.301,2.79259e-07,0,32768,32768
286.351,3.10685e-07,0,32768,32768
286.4,3.45483e-07,0,32768,32768
286.45,3.83265e-07,0,32768,32768
286.501,4.24735e-07,0,32768,32768
286.551,4.66912e-07,0,32768,32768
286.601,5.10256e-07,0,32768,32768
286.651,5.53942e-07,0,32768,32768
286.701,5.96962e-07,0,32768,32768
286.75,6.38115e-07,0,32768,32768
286.8,6.76084e-07,0,32768,32768
286.85,7.09569e-07,0,32768,32768
286.901,7.38204e-07,0,32768,32768
286.951,7.59599e-07,0,32768,32768
287.001,7.74367e-07,0,32768,32768
287.051,7.82623e-07,0,32768,32768
287.1,7.84778e-07,0,32768,32768
287.15,7.81367e-07,0,32768,32768
287.2,7.72892e-07,0,32768,32768
287.251,7.59244e-07,0,32768,32768
287.301,7.41351e-07,0,32768,32768
287.351,7.18866e-07,0,32768,32768
287.401,6.91689e-07,0,32768,32768
287.451,6.59775e-07,0,32768,32768
287.5,6.23258e-07,0,32768,32768
287.55,5.82548e-07,0,32768,32768
287.601,5.37021e-07,0,32768,32768
287.651,4.90298e-07,0,32768,32768
287.701,4.42288e-07,0,32768,32768
287.751,3.94183e-07,0,32768,32768
287.801,3.47064e-07,0,32768,32768
287.85,3.01794e-07,0,32768,32768
287.9,2.58967e-07,0,32768,32768
287.951,2.17796e-07,0,32768,32768
288.001,1.80787e-07,0,32768,32768
288.051,1.46762e-07,0,32768,32768
288.101,1.15733e-07,0,32768,32768
288.151,8.77177e-08,0,32768,32768
288.2,6.27421e-08,0,32768,32768
288.25,4.07954e-08,0,32768,32768
288.3,2.17816e-08,0,32768,32768
288.351,5.05185e-09,0,32768,32768
288.401,-8.74647e-09,0,32768,32768
288.451,-2.04621e-08,0,32768,32768
288.501,-3.03839e-08,0,32768,32768
288.55,-3.87104e-08,0,32768,32768
288.6,-4.55517e-08,0,32768,32768
288.65,-5.09751e-08,0,32768,32768
288.701,-5.51676e-08,0,32768,32768
288.751,-5.80379e-08,0,32768,32768
288.801,-5.99249e-08,0,32768,32768
288.851,-6.10403e-08,0,32768,32768
288.901,-6.15501e-08,0,32768,32768
288.95,-6.15352e-08,0,32768,32768
289,-6.09908e-08,0,32768,32768
289.051,-5.98201e-08,0,32768,32768
289.101,-5.80415e-08,0,32768,32768
289.151,-5.56364e-08,0,32768,32768
289.201,-5.26816e-08,0,32768,32768
289.251,-4.93125e-08,0,32768,32768
289.3,-4.56927e-08,0,32768,32768
289.35,-4.19812e-08,0,32768,32768
289.401,-3.82045e-08,0,32768,32768
289.451,-3.46779e-08,0,32768,32768
289.501,-3.13553e-08,0,32768,32768
289.551,-2.82724e-08,0,32768,32768
289.601,-2.54439e-08,0,32768,32768
289.65,-2.28692e-08,0,32768,32768
289.7,-2.05389e-08,0,32768,32768
289.751,-1.83815e-08,0,32768,32768
289.801,-1.65073e-08,0,32768,32768
289.851,-1.48412e-08,0,32768,32768
289.901,-1.33761e-08,0,32768,32768
289.951,-1.21056e-08,0,32768,32768
290,-1.10229e-08,0,32768,32768
290.05,-1.01192e-08,0,32768,32768
290.1,-9.38304e-09,0,32768,32768
290.151,-8.78576e-09,0,32768,32768
290.201,-8.34567e-09,0,32768,32768
290.251,-8.02715e-09,0,32768,32768
290.301,-7.81382e-09,0,32768,32768
290.35,-7.69011e-09,0,32768,32768
290.4,-7.64188e-09,0,32768,32768
290.45,-7.65682e-09,0,32768,32768
290.501,-7.72723e-09,0,32768,32768
290.551,-7.84009e-09,0,32768,32768
290.601,-7.98908e-09,0,32768,32768
290.651,-8.1672e-09,0,32768,32768
290.701,-8.36766e-09,0,32768,32768
290.75,-8.58375e-09,0,32768,32768
290.8,-8.80892e-09,0,32768,32768
290.851,-9.04386e-09,0,32768,32768
290.901,-9.26983e-09,0,32768,32768
290.951,-9.48945e-09,0,32768,32768
291.001,-9.69977e-09,0,32768,32768
291.051,-9.89879e-09,0,32768,32768
291.1,-1.00852e-08,0,32768,32768
291.15,-1.0258e-08,0,32768,32768
291.201,-1.04209e-08,0,32768,32768
291.251,-1.05636e-08,0,32768,32768
291.301,-1.06903e-08,0,32768,32768
291.351,-1.08003e-08,0,32768,32768
291.401,-1.08935e-08,0,32768,32768
291.45,-1.09701e-08,0,32768,32768
291.5,-1.10309e-08,0,32768,32768
291.55,-1.10772e-08,0,32768,32768
291.601,-1.11116e-08,0,32768,32768
291.651,-1.11339e-08,0,32768,32768
291.701,-1.1147e-08,0,32768,32768
291.751,-1.11522e-08,0,32768,32768
291.8,-1.11507e-08,0,32768,32768
291.85,-1.11435e-08,0,32768,32768
291.9,-1.11316e-08,0,32768,32768
291.951,-1.11158e-08,0,32768,32768
292.001,-1.10983e-08,0,32768,32768
292.051,-1.10801e-08,0,32768,32768
292.101,-1.10622e-08,0,32768,32768
292.151,-1.10455e-08,0,32768,32768
292.2,-1.10306e-08,0,32768,32768
292.25,-1.10179e-08,0,32768,32768
292.301,-1.10076e-08,0,32768,32768
292.351,-1.10009e-08,0,32768,32768
292.401,-1.09981e-08,0,32768,32768
292.451,-1.09999e-08,0,32768,32768
292.501,-1.10068e-08,0,32768,32768
292.55,-1.10194e-08,0,32768,32768
292.6,-1.10379e-08,0,32768,32768
292.651,-1.10633e-08,0,32768,32768
292.701,-1.10943e-08,0,32768,32768
292.751,-1.11316e-08,0,32768,32768
292.801,-1.1175e-08,0,32768,32768
292.851,-1.12247e-08,0,32768,32768
292.9,-1.12807e-08,0,32768,32768
292.95,-1.13429e-08,0,32768,32768
293,-1.14114e-08,0,32768,32768
293.051,-1.14883e-08,0,32768,32768
293.101,-1.15693e-08,0,32768,32768
293.151,-1.16566e-08,0,32768,32768
293.201,-1.17504e-08,0,32768,32768
293.25,-1.18509e-08,0,32768,32768
293.3,-1.19586e-08,0,32768,32768
293.35,-1.20744e-08,0,32768,32768
293.401,-1.2203e-08,0,32768,32768
293.451,-1.23381e-08,0,32768,32768
293.501,-1.24846e-08,0,32768,32768
293.551,-1.26442e-08,0,32768,32768
293.601,-1.28183e-08,0,32768,32768
293.65,-1.30087e-08,0,32768,32768
293.7,-1.3217e-08,0,32768,32768
293.751,-1.34516e-08,0,32768,32768
293.801,-1.37004e-08,0,32768,32768
293.851,-1.39709e-08,0,32768,32768
293.901,-1.42636e-08,0,32768,32768
293.951,-1.45787e-08,0,32768,32768
294,-1.49158e-08,0,32768,32768
294.05,-1.52738e-08,0,32768,32768
294.101,-1.56626e-08,0,32768,32768
294.151,-1.60577e-08,0,32768,32768
294.201,-1.64671e-08,0,32768,32768
294.251,-1.68875e-08,0,32768,32768
294.301,-1.73154e-08,0,32768,32768
294.35,-1.77468e-08,0,32768,32768
294.4,-1.8178e-08,0,32768,32768
294.451,-1.86177e-08,0,32768,32768
294.501,-1.90371e-08,0,32768,32768
294.551,-1.94454e-08,0,32768,32768
294.601,-1.98395e-08,0,32768,32768
294.651,-2.02164e-08,0,32768,32768
294.7,-2.05734e-08,0,32768,32768
294.75,-2.09078e-08,0,32768,32768
294.8,-2.12171e-08,0,32768,32768
294.851,-2.15071e-08,0,32768,32768
294.901,-2.17592e-08,0,32768,32768
294.951,-2.19806e-08,0,32768,32768
295.001,-2.21706e-08,0,32768,32768
295.05,-2.23286e-08,0,32768,32768
295.1,-2.2455e-08,0,32768,32768
295.15,-2.25504e-08,0,32768,32768
295.201,-2.26175e-08,0,32768,32768
295.251,-2.26543e-08,0,32768,32768
295.301,-2.26648e-08,0,32768,32768
295.351,-2.26514e-08,0,32768,32768
295.401,-2.2616e-08,0,32768,32768
295.45,-2.2561e-08,0,32768,32768
295.5,-2.24886e-08,0,32768,32768
295.551,-2.23983e-08,0,32768,32768
295.601,-2.22974e-08,0,32768,32768
295.651,-2.21855e-08,0,32768,32768
295.701,-2.20647e-08,0,32768,32768
295.751,-2.19365e-08,0,32768,32768
295.8,-2.18027e-08,0,32768,32768
295.85,-2.16647e-08,0,32768,32768
295.901,-2.15196e-08,0,32768,32768
295.951,-2.13769e-08,0,32768,32768
296.001,-2.12336e-08,0,32768,32768
296.051,-2.10905e-08,0,32768,32768
296.101,-2.09485e-08,0,32768,32768
296.15,-2.08083e-08,0,32768,32768
296.2,-2.06705e-08,0,32768,32768
296.25,-2.05356e-08,0,32768,32768
296.301,-2.04002e-08,0,32768,32768
296.351,-2.02726e-08,0,32768,32768
296.401,-2.01489e-08,0,32768,32768
296.451,-2.00296e-08,0,32768,32768
296.5,-1.99149e-08,0,32768,32768
296.55,-1.98049e-08,0,32768,32768
296.6,-1.96997e-08,0,32768,32768
296.651,-1.95965e-08,0,32768,32768
296.701,-1.95011e-08,0,32768,32768
296.751,-1.94102e-08,0,32768,32768
296.801,-1.93238e-08,0,32768,32768
296.851,-1.92415e-08,0,32768,32768
296.9,-1.91631e-08,0,32768,32768
296.95,-1.90881e-08,0,32768,32768
297.001,-1.90143e-08,0,32768,32768
297.051,-1.89453e-08,0,32768,32768
297.101,-1.88789e-08,0,32768,32768
297.151,-1.88146e-08,0,32768,32768
297.201,-1.87521e-08,0,32768,32768
297.25,-1.86911e-08,0,32768,32768
297.3,-1.86313e-08,0,32768,32768
297.351,-1.85707e-08,0,32768,32768
297.401,-1.85125e-08,0,32768,32768
297.451,-1.84548e-08,0,32768,32768
297.501,-1.83973e-08,0,32768,32768
297.551,-1.83399e-08,0,32768,32768
297.6,-1.82823e-08,0,32768,32768
297.65,-1.82243e-08,0,32768,32768
297.701,-1.81642e-08,0,32768,32768
297.751,-1.81051e-08,0,32768,32768
297.801,-1.80454e-08,0,32768,32768
297.851,-1.79848e-08,0,32768,32768
297.901,-1.79232e-08,0,32768,32768
297.95,-1.78607e-08,0,32768,32768
298,-1.7797e-08,0,32768,32768
298.05,-1.77321e-08,0,32768,32768
298.101,-1.76639e-08,0,32768,32768
298.151,-1.75961e-08,0,32768,32768
298.201,-1.75267e-08,0,32768,32768
298.251,-1.74557e-08,0,32768,32768
298.3,-1.73827e-08,0,32768,32768
298.35,-1.73076e-08,0,32768,32768
298.4,-1.72303e-08,0,32768,32768
298.451,-1.7148e-08,0,32768,32768
298.501,-1.70654e-08,0,32768,32768
298.551,-1.69798e-08,0,32768,32768
298.601,-1.6891e-08,0,32768,32768
298.651,-1.67987e-08,0,32768,32768
298.7,-1.67028e-08,0,32768,32768
298.75,-1.66029e-08,0,32768,32768
298.801,-1.64959e-08,0,32768,32768
298.851,-1.63875e-08,0,32768,32768
298.901,-1.62746e-08,0,32768,32768
298.951,-1.6157e-08,0,32768,32768
299.001,-1.60348e-08,0,32768,32768
299.05,-1.59077e-08,0,32768,32768
299.1,-1.57757e-08,0,32768,32768
299.151,-1.56347e-08,0,32768,32768
299.201,-1.54926e-08,0,32768,32768
299.251,-1.53454e-08,0,32768,32768
299.301,-1.5193e-08,0,32768,32768
299.351,-1.50354e-08,0,32768,32768
299.4,-1.48725e-08,0,32768,32768
299.45,-1.47042e-08,0,32768,32768
299.5,-1.45303e-08,0,32768,32768
299.551,-1.43454e-08,0,32768,32768
299.601,-1.416e-08,0,32768,32768
299.651,-1.39689e-08,0,32768,32768
299.701,-1.37721e-08,0,32768,32768
299.75,-1.35693e-08,0,32768,32768
299.8,-1.33606e-08,0,32768,32768
299.85,-1.31455e-08,0,32768,32768
299.901,-1.2917e-08,0,32768,32768
299.951,-1.26875e-08,0,32768,32768
300.001,-1.24497e-08,0,32768,32768
300.051,-1.22024e-08,0,32768,32768
300.101,-1.19443e-08,0,32768,32768
300.15,-1.16738e-08,0,32768,32768
300.2,-1.1389e-08,0,32768,32768
300.251,-1.10792e-08,0,32768,32768
300.301,-1.07599e-08,0,32768,32768
300.351,-1.04206e-08,0,32768,32768
300.401,-1.00596e-08,0,32768,32768
300.451,-9.67541e-09,0,32768,32768
300.5,-9.26671e-09,0,32768,32768
300.55,-8.83276e-09,0,32768,32768
300.601,-8.35935e-09,0,32768,32768
300.651,-7.87386e-09,0,32768,32768
300.701,-7.36412e-09,0,32768,32768
300.751,-6.83177e-09,0,32768,32768
300.801,-6.27914e-09,0,32768,32768
300.85,-5.70918e-09,0,32768,32768
300.9,-5.12541e-09,0,32768,32768
300.95,-4.53175e-09,0,32768,32768
301.001,-3.91475e-09,0,32768,32768
301.051,-3.31414e-09,0,32768,32768
301.101,-2.7167e-09,0,32768,32768
301.151,-2.12669e-09,0,32768,32768
301.2,-1.5482e-09,0,32768,32768
301.25,-9.85096e-10,0,32768,32768
301.3,-4.41045e-10,0,32768,32768
301.351,9.54881e-11,0,32768,32768
301.401,5.90564e-10,0,32768,32768
301.451,1.05693e-09,0,32768,32768
301.501,1.49195e-09,0,32768,32768
301.551,1.89339e-09,0,32768,32768
301.6,2.25946e-09,0,32768,32768
301.65,2.58892e-09,0,32768,32768
301.701,2.88913e-09,0,32768,32768
301.751,3.14289e-09,0,32768,32768
301.801,3.35989e-09,0,32768,32768
301.851,3.54124e-09,0,32768,32768
301.901,3.6885e-09,0,32768,32768
301.95,3.80364e-09,0,32768,32768
302,3.88889e-09,0,32768,32768
302.051,3.94798e-09,0,32768,32768
302.101,3.98013e-09,0,32768,32768
302.151,3.99002e-09,0,32768,32768
302.201,3.98023e-09,0,32768,32768
302.251,3.95331e-09,0,32768,32768
302.3,3.9117e-09,0,32768,32768
302.35,3.85776e-09,0,32768,32768
302.401,3.79166e-09,0,32768,32768
302.451,3.71925e-09,0,32768,32768
302.501,3.64064e-09,0,32768,32768
302.551,3.55749e-09,0,32768,32768
302.601,3.47127e-09,0,32768,32768
302.65,3.38327e-09,0,32768,32768
302.7,3.29462e-09,0,32768,32768
302.75,3.2063e-09,0,32768,32768
302.801,3.11666e-09,0,32768,32768
302.851,3.03164e-09,0,32768,32768
302.901,2.9494e-09,0,32768,32768
302.951,2.87069e-09,0,32768,32768
303,2.79622e-09,0,32768,32768
303.05,2.72669e-09,0,32768,32768
303.1,2.66274e-09,0,32768,32768
303.151,2.60331e-09,0,32768,32768
303.201,2.55226e-09,0,32768,32768
303.251,2.50806e-09,0,32768,32768
303.301,2.47082e-09,0,32768,32768
303.351,2.44045e-09,0,32768,32768
303.4,2.41667e-09,0,32768,32768
303.45,2.399e-09,0,32768,32768
303.501,2.38652e-09,0,32768,32768
303.551,2.37912e-09,0,32768,32768
303.601,2.37547e-09,0,32768,32768
303.651,2.37457e-09,0,32768,32768
303.701,2.37542e-09,0,32768,32768
303.75,2.37699e-09,0,32768,32768
303.8,2.3783e-09,0,32768,32768
303.851,2.37842e-09,0,32768,32768
303.901,2.37652e-09,0,32768,32768
303.951,2.37199e-09,0,32768,32768
304.001,2.36441e-09,0,32768,32768
304.051,2.35361e-09,0,32768,32768
304.1,2.33969e-09,0,32768,32768
304.15,2.32303e-09,0,32768,32768
304.2,2.30419e-09,0,32768,32768
304.251,2.28326e-09,0,32768,32768
304.301,2.26217e-09,0,32768,32768
304.351,2.24096e-09,0,32768,32768
304.401,2.22011e-09,0,32768,32768
304.45,2.19991e-09,0,32768,32768
304.5,2.18051e-09,0,32768,32768
304.55,2.16195e-09,0,32768,32768
304.601,2.14378e-09,0,32768,32768
304.651,2.12715e-09,0,32768,32768
304.701,2.11177e-09,0,32768,32768
304.751,2.09801e-09,0,32768,32768
304.801,2.08631e-09,0,32768,32768
304.85,2.07716e-09,0,32768,32768
304.9,2.07099e-09,0,32768,32768
304.951,2.06804e-09,0,32768,32768
