%%MatrixMarket matrix array real general
10 10
.5000000000
0.
0.
0.
0.
0.
0.
0.
0.
0.
.5000000000
-.5000000000
0.
0.
-.5000000000
0.
0.
0.
0.
0.
.5000000000
-1.
.5000000000
0.
-1.
1.
0.
.5000000000
0.
0.
.5000000000
-1.500000000
1.500000000
-.5000000000
-1.500000000
3.
-1.500000000
1.500000000
-1.500000000
-.5000000000
0.
.5000000000
0.
0.
-.5000000000
0.
0.
0.
0.
0.
0.
.5000000000
-.5000000000
0.
-.5000000000
0.
0.
.5000000000
0.
0.
0.
.5000000000
-1.
.5000000000
-.5000000000
0.
.5000000000
1.
-.5000000000
-.5000000000
0.
0.
.5000000000
0.
0.
-1.
0.
.5000000000
0.
0.
0.
0.
.5000000000
-.5000000000
0.
-1.
.5000000000
.5000000000
.5000000000
-.5000000000
0.
0.
0.
.5000000000
0.
0.
-1.500000000
0.
1.500000000
-.5000000000
