%%MatrixMarket matrix array real general
10 10
200.
-1200.
2100.
-1120.
-1200.
4200.
-3360.
2100.
-3360.
-1120.
-1200.
10800.
-22680.
13440.
5400.
-30240.
30240.
-7560.
20160.
3360.
2100.
-22680.
52920.
-33600.
-7560.
52920.
-60480.
8820.
-30240.
-3360.
-1120.
13440.
-33600.
22400.
3360.
-26880.
33600.
-3360.
13440.
1120.
-1200.
5400.
-7560.
3360.
10800.
-30240.
20160.
-22680.
30240.
13440.
4200.
-30240.
52920.
-26880.
-30240.
141120.
-120960.
52920.
-120960.
-26880.
-3360.
30240.
-60480.
33600.
20160.
-120960.
120960.
-30240.
90720.
13440.
2100.
-7560.
8820.
-3360.
-22680.
52920.
-30240.
52920.
-60480.
-33600.
-3360.
20160.
-30240.
13440.
30240.
-120960.
90720.
-60480.
120960.
33600.
-1120.
3360.
-3360.
1120.
13440.
-26880.
13440.
-33600.
33600.
22400.
