THREADS	MTPS	TIMESTEPS	TIMESTEP_SIZE	SECONDS_FOR_SIMULATION	AVERAGE_TRIANGLES	AVERAGE_PARTITIONS
64	69.0045	100	0.000491318	27.6024	1.90469e+07	1158.74
63	68.4039	100	0.000491318	27.8448	1.90469e+07	1158.74
62	68.3014	100	0.000491318	27.8866	1.90469e+07	1158.74
61	67.5088	100	0.000491318	28.214	1.90469e+07	1158.74
60	66.925	100	0.000491318	28.4601	1.90469e+07	1158.74
59	66.4273	100	0.000491318	28.6733	1.90469e+07	1158.74
58	65.3884	100	0.000491318	29.1289	1.90469e+07	1158.74
57	64.9225	100	0.000491318	29.3379	1.90469e+07	1158.74
56	64.4468	100	0.000491318	29.5545	1.90469e+07	1158.74
55	62.7035	100	0.000491318	30.3762	1.90469e+07	1158.74
54	62.6895	100	0.000491318	30.3829	1.90469e+07	1158.74
53	61.2387	100	0.000491318	31.1028	1.90469e+07	1158.74
52	59.3055	100	0.000491318	32.1166	1.90469e+07	1158.74
51	58.0369	100	0.000491318	32.8186	1.90469e+07	1158.74
50	57.9105	100	0.000491318	32.8903	1.90469e+07	1158.74
49	56.3211	100	0.000491318	33.8184	1.90469e+07	1158.74
48	54.0132	100	0.000491318	35.2635	1.90469e+07	1158.74
47	52.877	100	0.000491318	36.0212	1.90469e+07	1158.74
46	53.2383	100	0.000491318	35.7767	1.90469e+07	1158.74
45	51.5644	100	0.000491318	36.9381	1.90469e+07	1158.74
44	51.8775	100	0.000491318	36.7151	1.90469e+07	1158.74
43	50.1236	100	0.000491318	37.9999	1.90469e+07	1158.74
42	50.2126	100	0.000491318	37.9326	1.90469e+07	1158.74
41	48.3618	100	0.000491318	39.3842	1.90469e+07	1158.74
40	47.3722	100	0.000491318	40.207	1.90469e+07	1158.74
39	45.5019	100	0.000491318	41.8596	1.90469e+07	1158.74
38	45.7311	100	0.000491318	41.6498	1.90469e+07	1158.74
37	43.0943	100	0.000491318	44.1982	1.90469e+07	1158.74
36	41.3941	100	0.000491318	46.0136	1.90469e+07	1158.74
35	40.3851	100	0.000491318	47.1632	1.90469e+07	1158.74
34	37.9398	100	0.000491318	50.203	1.90469e+07	1158.74
33	35.8734	100	0.000491318	53.0948	1.90469e+07	1158.74
32	33.3946	100	0.000491318	57.036	1.90469e+07	1158.74
31	32.8427	100	0.000491318	57.9943	1.90469e+07	1158.74
30	32.6298	100	0.000491318	58.3728	1.90469e+07	1158.74
29	31.8132	100	0.000491318	59.8712	1.90469e+07	1158.74
28	31.6561	100	0.000491318	60.1682	1.90469e+07	1158.74
27	30.6357	100	0.000491318	62.1723	1.90469e+07	1158.74
26	30.3465	100	0.000491318	62.7648	1.90469e+07	1158.74
25	29.4063	100	0.000491318	64.7716	1.90469e+07	1158.74
24	28.7573	100	0.000491318	66.2332	1.90469e+07	1158.74
23	28.1448	100	0.000491318	67.6748	1.90469e+07	1158.74
22	26.7063	100	0.000491318	71.32	1.90469e+07	1158.74
21	26.2599	100	0.000491318	72.5324	1.90469e+07	1158.74
20	24.8429	100	0.000491318	76.6694	1.90469e+07	1158.74
19	23.8334	100	0.000491318	79.9169	1.90469e+07	1158.74
18	22.9027	100	0.000491318	83.1647	1.90469e+07	1158.74
17	21.5956	100	0.000491318	88.1981	1.90469e+07	1158.74
16	19.9984	100	0.000491318	95.2424	1.90469e+07	1158.74
15	19.5113	100	0.000491318	97.6199	1.90469e+07	1158.74
14	19.0674	100	0.000491318	99.8925	1.90469e+07	1158.74
13	18.682	100	0.000491318	101.953	1.90469e+07	1158.74
12	17.9909	100	0.000491318	105.87	1.90469e+07	1158.74
11	17.4961	100	0.000491318	108.864	1.90469e+07	1158.74
10	16.696	100	0.000491318	114.081	1.90469e+07	1158.74
9	15.7455	100	0.000491318	120.967	1.90469e+07	1158.74
8	14.4356	100	0.000491318	131.944	1.90469e+07	1158.74
7	13.5091	100	0.000491318	140.993	1.90469e+07	1158.74
6	12.4032	100	0.000491318	153.565	1.90469e+07	1158.74
5	10.7457	100	0.000491318	177.251	1.90469e+07	1158.74
4	8.72379	100	0.000491318	218.333	1.90469e+07	1158.74
3	7.55856	100	0.000491318	251.991	1.90469e+07	1158.74
2	6.46766	100	0.000491318	294.495	1.90469e+07	1158.74
1	3.32737	100	0.000491318	572.431	1.90469e+07	1158.74
