Executable + params: ../../build/sierpi_intel_tbb_sacsp_tsunami_parallel_release -o 32768 -A 1 -d 20 -a 8 -t 100
Problem size with different number of CPUs using function optimization
THREADS	MTPS	TIMESTEPS	TIMESTEP_SIZE	SECONDS_FOR_SIMULATION	AVERAGE_TRIANGLES	AVERAGE_PARTITIONS
40	72.3428	100	0.000491318		1.9047e+07	1158.74
32	62.2994	100	0.000491318		1.9047e+07	1158.74
30	48.1879	100	0.000491318		1.9047e+07	1158.74
20	28.3052	100	0.000491318		1.9047e+07	1158.74
16	24.3347	100	0.000491318		1.9047e+07	1158.74
10	14.2886	100	0.000491318		1.9047e+07	1158.74
8	13.4695	100	0.000491318		1.9047e+07	1158.74
4	11.7323	100	0.000491318		1.9047e+07	1158.74
2	6.10363	100	0.000491318		1.9047e+07	1158.74
1	3.09874	100	0.000491318		1.9047e+07	1158.74
