0	0
17.7294	0
26.5942	0
35.4589	0
44.3236	0
53.1883	0
62.053	0
70.9178	0
88.6472	0
97.5119	0
106.377	0
115.241	0
124.106	0
132.971	0
141.836	0
150.7	0
168.43	0
177.294	0
186.159	0
195.024	0
203.889	0
212.753	0
221.618	0
230.483	0
248.212	0
257.077	0
265.942	0
274.806	0
283.671	0
292.536	0
301.401	0
310.265	0
327.995	0
336.859	0
345.724	0
354.589	0
363.454	0
372.318	0
381.183	0
390.048	0
407.777	0
416.642	0
425.507	0
434.371	0
443.236	0
452.101	0
460.966	0
478.695	0
487.56	0
496.424	0
505.289	0
514.154	0
523.019	0
531.883	0
540.748	0
558.477	0
567.342	0
576.207	0
585.072	0
593.936	0
602.801	0
611.666	0
620.53	0
638.26	0
647.125	0
655.989	0
664.854	0
673.719	0
682.584	0
691.448	0
700.313	0
718.042	0
726.907	0
735.772	0
744.637	0
753.501	0
762.366	0
771.231	0
780.095	0
797.825	0
806.69	0
815.554	0
824.419	0
833.284	0
842.149	0
851.013	0
868.743	0
877.607	0
886.472	0
895.337	0
904.202	0
913.066	0
921.931	0
930.796	0
948.525	0
957.39	0
966.255	0
975.119	0
983.984	0
992.849	0
1001.71	0
1010.58	0
1028.31	0
1037.17	0
1046.04	0
1054.9	0
1063.77	0
1072.63	0
1081.5	0
1090.36	0
1108.09	0
1116.95	0
1125.82	0
1134.68	0
1143.55	0
1152.41	0
1161.28	0
1170.14	0
1187.87	0
1196.74	0
1205.6	0
1214.47	0
1223.33	0
1232.2	0
1241.06	0
1258.79	0
1267.66	0
1276.52	0
1285.38	0
1294.25	0
1303.11	0
1311.98	0
1320.84	0
1338.57	0
1347.44	0
1356.3	0
1365.17	0
1374.03	0
1382.9	0
1391.76	0
1400.63	0
1418.36	0
1427.22	0
1436.08	0
1444.95	0
1453.81	0
1462.68	0
1471.54	0
1480.41	0
1498.14	0
1507	0
1515.87	0
1524.73	0
1533.6	0
1542.46	0
1551.33	0
1560.19	0
1577.92	0
1586.79	0
1595.65	0
1604.51	0
1613.38	0
1622.24	0
1631.11	0
1648.84	0
1657.7	0
1666.57	0
1675.43	0
1684.3	0
1693.16	0
1702.03	0
1710.89	0
1728.62	0
1737.49	0
1746.35	0
1755.21	0
1764.08	0
1772.94	0
1781.81	0
1790.67	0
1808.4	0
1817.27	0
1826.13	0
1835	0
1843.86	0
1852.73	0
1861.59	0
1870.46	0
1888.19	0
1897.05	0
1905.92	0
1914.78	0
1923.64	0
1932.51	0
1941.37	0
1950.24	0
1967.97	0
1976.83	0
1985.7	0
1994.56	0
2003.43	0
2012.29	0
2021.16	0
2030.02	0
2047.75	0
2056.62	0
2065.48	0
2074.34	0
2083.21	0
2092.07	0
2100.94	0
2118.67	0
2127.53	0
2136.4	0
2145.26	0
2154.13	-9.09495e-13
2162.99	-9.09495e-13
2171.86	-1.81899e-12
2180.72	-1.81899e-12
2198.45	-3.63798e-12
2207.32	-4.54747e-12
2216.18	-6.36646e-12
2225.05	-8.18545e-12
2233.91	-1.00044e-11
2242.77	-1.27329e-11
2251.64	-1.54614e-11
2260.5	-1.90994e-11
2278.23	-3.00133e-11
2287.1	-3.72893e-11
2295.96	-4.63842e-11
2304.83	-5.82077e-11
2313.69	-7.18501e-11
2322.56	-8.91305e-11
2331.42	-1.10049e-10
2340.29	-1.35515e-10
2358.02	-2.04636e-10
2366.88	-2.50111e-10
2375.75	-3.065e-10
2384.61	-3.73802e-10
2393.47	-4.55657e-10
2402.34	-5.53882e-10
2411.2	-6.72117e-10
2420.07	-8.14907e-10
2437.8	-1.19144e-09
2446.66	-1.437e-09
2455.53	-1.72986e-09
2464.39	-2.0782e-09
2473.26	-2.49292e-09
2482.12	-2.98587e-09
2490.99	-3.56977e-09
2508.72	-5.07953e-09
2517.58	-6.04359e-09
2526.45	-7.17955e-09
2535.31	-8.5156e-09
2544.17	-1.00845e-08
2553.04	-1.19244e-08
2561.9	-1.40781e-08
2570.77	-1.65955e-08
2588.5	-2.29547e-08
2597.36	-2.69365e-08
2606.23	-3.15622e-08
2615.09	-3.69273e-08
2623.96	-4.31419e-08
2632.82	-5.03296e-08
2641.69	-5.86306e-08
2650.55	-6.8203e-08
2668.28	-9.19044e-08
2677.15	-1.06463e-07
2686.01	-1.23158e-07
2694.88	-1.42279e-07
2703.74	-1.64145e-07
2712.6	-1.89118e-07
2721.47	-2.17601e-07
2730.33	-2.50045e-07
2748.06	-3.28876e-07
2756.93	-3.76444e-07
2765.79	-4.30345e-07
2774.66	-4.91341e-07
2783.52	-5.60279e-07
2792.39	-6.38096e-07
2801.25	-7.25827e-07
2810.12	-8.2461e-07
2827.85	-1.06048e-06
2836.71	-1.20047e-06
2845.58	-1.35733e-06
2854.44	-1.53288e-06
2863.3	-1.72913e-06
2872.17	-1.94824e-06
2881.03	-2.19261e-06
2898.76	-2.7677e-06
2907.63	-3.10432e-06
2916.49	-3.47801e-06
2925.36	-3.8924e-06
2934.22	-4.35139e-06
2943.09	-4.85923e-06
2951.95	-5.4205e-06
2960.82	-6.04014e-06
2978.55	-7.47622e-06
2987.41	-8.30457e-06
2996.27	-9.21512e-06
3005.14	-1.0215e-05
3014	-1.13118e-05
3022.87	-1.25136e-05
3031.73	-1.38291e-05
3040.6	-1.52677e-05
3058.33	-1.85541e-05
3067.19	-2.04236e-05
3076.06	-2.24595e-05
3084.92	-2.46746e-05
3093.79	-2.7082e-05
3102.65	-2.9696e-05
3111.52	-3.25313e-05
3120.38	-3.56038e-05
3138.11	-4.25271e-05
3146.97	-4.64137e-05
3155.84	-5.06088e-05
3164.7	-5.51325e-05
3173.57	-6.00059e-05
3182.43	-6.52509e-05
3191.3	-7.08905e-05
3200.16	-7.69483e-05
3217.89	-9.04191e-05
3226.76	-9.78844e-05
3235.62	-0.000105873
3244.48	-0.000114412
3253.35	-0.000123533
3262.21	-0.000133265
3271.08	-0.000143638
3288.81	-0.000166438
3297.67	-0.000178929
3306.54	-0.000192194
3315.4	-0.000206265
3324.27	-0.000221176
3333.13	-0.000236964
3342	-0.000253662
3350.86	-0.000271305
3368.59	-0.000309568
3377.45	-0.000330255
3386.32	-0.000352025
3395.18	-0.000374911
3404.05	-0.000398943
3412.91	-0.000424153
3421.78	-0.00045057
3430.64	-0.000478222
3448.37	-0.000537326
3457.23	-0.000568824
3466.1	-0.000601642
3474.96	-0.000635796
3483.83	-0.000671297
3492.69	-0.00070815
3501.56	-0.00074636
3510.42	-0.000785922
3528.15	-0.00086907
3537.01	-0.000912623
3545.88	-0.000957463
3554.74	-0.00100355
3563.61	-0.00105086
3572.47	-0.00109932
3581.34	-0.00114889
3590.2	-0.0011995
3607.93	-0.00130349
3616.79	-0.00135669
3625.66	-0.00141055
3634.52	-0.00146494
3643.39	-0.00151972
3652.25	-0.00157475
3661.12	-0.00162986
3678.85	-0.00173955
3687.71	-0.00179373
3696.57	-0.00184717
3705.44	-0.0018996
3714.3	-0.00195076
3723.17	-0.00200038
3732.03	-0.00204812
3740.9	-0.00209368
3758.62	-0.00217679
3767.49	-0.00221358
3776.35	-0.00224665
3785.22	-0.00227555
3794.08	-0.00229982
3802.95	-0.00231896
3811.81	-0.00233247
3820.68	-0.0023398
3838.4	-0.00233364
3847.27	-0.00231894
3856.13	-0.00229564
3865	-0.00226308
3873.86	-0.00222056
3882.73	-0.00216735
3891.59	-0.0021027
3900.45	-0.00202584
3918.18	-0.00183226
3927.05	-0.00171386
3935.91	-0.0015799
3944.78	-0.00142947
3953.64	-0.00126165
3962.51	-0.00107551
3971.37	-0.000870063
3980.23	-0.000644337
3997.96	-0.000128
4006.83	0.000164673
4015.69	0.000481748
4024.56	0.000824293
4033.42	0.00119339
4042.28	0.00159012
4051.15	0.00201559
4060.01	0.00247089
4077.74	0.00347545
4086.61	0.00402691
4095.47	0.00461264
4104.34	0.00523373
4113.2	0.00589128
4122.06	0.00658637
4130.93	0.00732007
4148.66	0.00890745
4157.52	0.00976318
4166.39	0.0106616
4175.25	0.0116036
4184.12	0.0125902
4192.98	0.0136223
4201.84	0.0147006
4210.71	0.0158261
4228.44	0.0182213
4237.3	0.0194925
4246.17	0.0208136
4255.03	0.0221851
4263.9	0.0236075
4272.76	0.0250812
4281.62	0.0266067
4290.49	0.0281842
4308.22	0.0314961
4317.08	0.0332307
4325.95	0.0350177
4334.81	0.0368571
4343.68	0.0387487
4352.54	0.0406921
4361.41	0.0426871
4370.27	0.0447331
4388	0.0489761
4396.86	0.0511717
4405.73	0.0534156
4414.59	0.0557069
4423.46	0.0580445
4432.32	0.0604272
4441.19	0.0628538
4450.05	0.0653231
4467.78	0.0703833
4476.65	0.0729711
4485.51	0.075595
4494.38	0.0782533
4503.24	0.0809438
4512.1	0.0836646
4520.97	0.0864135
4538.7	0.0919865
4547.56	0.0948058
4556.43	0.0976437
4565.29	0.100498
4574.16	0.103365
4583.02	0.106242
4591.89	0.109127
4600.75	0.112017
4618.48	0.117799
4627.35	0.120685
4636.21	0.123564
4645.07	0.126431
4653.94	0.129285
4662.8	0.132121
4671.67	0.134937
4680.53	0.137728
4698.26	0.143226
4707.13	0.145925
4715.99	0.148587
4724.86	0.151208
4733.72	0.153784
4742.59	0.156313
4751.45	0.15879
4760.32	0.161213
4778.05	0.165881
4786.91	0.16812
4795.77	0.170292
4804.64	0.172393
4813.5	0.17442
4822.37	0.17637
4831.23	0.178241
4840.1	0.180029
4857.83	0.183346
4866.69	0.184869
4875.56	0.1863
4884.42	0.187635
4893.29	0.188872
4902.15	0.190009
4911.02	0.191044
4928.75	0.1928
4937.61	0.193517
4946.47	0.194126
4955.34	0.194624
4964.2	0.195011
4973.07	0.195285
4981.93	0.195445
4990.8	0.19549
5008.53	0.195235
5017.39	0.194934
5026.26	0.194516
5035.12	0.193981
5043.99	0.19333
5052.85	0.192564
5061.72	0.191681
5070.58	0.190683
5088.31	0.188345
5097.17	0.187007
5106.04	0.185557
5114.9	0.183997
5123.77	0.182328
5132.63	0.180552
5141.5	0.17867
5150.36	0.176685
5168.09	0.172412
5176.96	0.170128
5185.82	0.16775
5194.69	0.165278
5203.55	0.162717
5212.42	0.160069
5221.28	0.157336
5230.14	0.154522
5247.87	0.14866
5256.74	0.145618
5265.6	0.142508
5274.47	0.139332
5283.33	0.136093
5292.2	0.132794
5301.06	0.12944
5318.79	0.122579
5327.66	0.119078
5336.52	0.115536
5345.39	0.111956
5354.25	0.108342
5363.12	0.104697
5371.98	0.101025
5380.84	0.0973295
5398.57	0.0898828
5407.44	0.0861388
5416.3	0.0823858
5425.17	0.0786274
5434.03	0.074867
5442.9	0.0711082
5451.76	0.0673543
5460.63	0.0636087
5478.36	0.0561557
5487.22	0.0524548
5496.09	0.048775
5504.95	0.0451194
5513.82	0.0414911
5522.68	0.0378929
5531.54	0.0343276
5540.41	0.0307979
5558.14	0.0238559
5567	0.0204484
5575.87	0.0170866
5584.73	0.0137725
5593.6	0.0105084
5602.46	0.00729634
5611.33	0.00413814
5620.19	0.00103567
5637.92	-0.00499529
5646.79	-0.00792067
5655.65	-0.0107841
5664.52	-0.0135843
5673.38	-0.0163201
5682.24	-0.0189904
5691.11	-0.0215942
5708.84	-0.0265993
5717.7	-0.0289992
5726.57	-0.0313299
5735.43	-0.0335909
5744.3	-0.0357819
5753.16	-0.0379028
5762.03	-0.0399533
5770.89	-0.0419335
5788.62	-0.0456829
5797.49	-0.0474526
5806.35	-0.0491526
5815.21	-0.0507834
5824.08	-0.0523455
5832.94	-0.0538393
5841.81	-0.0552656
5850.67	-0.056625
5868.4	-0.0591464
5877.27	-0.0603102
5886.13	-0.0614105
5895	-0.0624484
5903.86	-0.0634249
5912.73	-0.0643413
5921.59	-0.0651986
5930.46	-0.065998
5948.19	-0.0674283
5957.05	-0.0680617
5965.92	-0.0686424
5974.78	-0.0691718
5983.64	-0.0696511
5992.51	-0.070082
6001.37	-0.0704656
6010.24	-0.0708036
6027.97	-0.0713482
6036.83	-0.0715577
6045.7	-0.0717273
6054.56	-0.0718585
6063.43	-0.0719527
6072.29	-0.0720113
6081.16	-0.0720358
6090.02	-0.0720277
6107.75	-0.0719191
6116.62	-0.0718214
6125.48	-0.0716966
6134.34	-0.0715461
6143.21	-0.0713712
6152.07	-0.0711731
6160.94	-0.0709533
6178.67	-0.070453
6187.53	-0.070175
6196.4	-0.06988
6205.26	-0.0695692
6214.13	-0.0692436
6222.99	-0.0689043
6231.86	-0.0685524
6240.72	-0.0681888
6258.45	-0.0674305
6267.32	-0.0670376
6276.18	-0.0666367
6285.04	-0.0662287
6293.91	-0.0658143
6302.77	-0.0653944
6311.64	-0.0649695
6320.5	-0.0645404
6338.23	-0.0636722
6347.1	-0.0632343
6355.96	-0.0627946
6364.83	-0.0623536
6373.69	-0.0619117
6382.56	-0.0614695
6391.42	-0.0610274
6400.29	-0.0605857
6418.02	-0.0597051
6426.88	-0.0592667
6435.74	-0.0588301
6444.61	-0.0583954
6453.47	-0.0579628
6462.34	-0.0575326
6471.2	-0.0571048
6480.07	-0.0566798
6497.8	-0.055838
6506.66	-0.0554215
6515.53	-0.055008
6524.39	-0.0545976
6533.26	-0.0541902
6542.12	-0.0537859
6550.99	-0.0533847
6568.72	-0.0525914
6577.58	-0.0521991
6586.45	-0.0518098
6595.31	-0.0514233
6604.17	-0.0510395
6613.04	-0.0506584
6621.9	-0.0502798
6630.77	-0.0499036
6648.5	-0.0491582
6657.36	-0.0487887
6666.23	-0.0484211
6675.09	-0.0480554
6683.96	-0.0476914
6692.82	-0.0473289
6701.69	-0.0469679
6710.55	-0.0466081
6728.28	-0.045892
6737.15	-0.0455353
6746.01	-0.0451795
6754.88	-0.0448242
6763.74	-0.0444695
6772.6	-0.0441152
6781.47	-0.0437612
6790.33	-0.0434073
6808.06	-0.0426998
6816.93	-0.0423458
6825.79	-0.0419917
6834.66	-0.0416373
6843.52	-0.0412825
6852.39	-0.0409272
6861.25	-0.0405715
6870.12	-0.0402152
6887.85	-0.0395009
6896.71	-0.0391427
6905.58	-0.0387838
6914.44	-0.0384242
6923.31	-0.0380639
6932.17	-0.0377028
6941.03	-0.0373411
6958.76	-0.0366155
6967.63	-0.0362517
6976.49	-0.0358873
6985.36	-0.0355223
6994.22	-0.0351568
7003.09	-0.0347908
7011.95	-0.0344245
7020.82	-0.0340578
7038.55	-0.0333237
7047.41	-0.0329565
7056.28	-0.0325893
7065.14	-0.0322223
7074.01	-0.0318555
7082.87	-0.031489
7091.74	-0.031123
7100.6	-0.0307576
7118.33	-0.030029
7127.19	-0.0296661
7136.06	-0.0293043
7144.92	-0.0289438
7153.79	-0.0285846
7162.65	-0.028227
7171.52	-0.0278711
7180.38	-0.0275171
7198.11	-0.0268151
7206.98	-0.0264675
7215.84	-0.0261224
7224.71	-0.0257799
7233.57	-0.0254401
7242.44	-0.0251033
7251.3	-0.0247696
7260.16	-0.0244391
7277.89	-0.0237884
7286.76	-0.0234686
7295.62	-0.0231525
7304.49	-0.0228405
7313.35	-0.0225326
7322.22	-0.022229
7331.08	-0.0219298
7348.81	-0.0213452
7357.68	-0.02106
7366.54	-0.0207797
7375.41	-0.0205045
7384.27	-0.0202345
7393.14	-0.0199697
7402	-0.0197103
7410.86	-0.0194564
7428.59	-0.0189653
7437.46	-0.0187283
7446.32	-0.0184972
7455.19	-0.0182719
7464.05	-0.0180526
7472.92	-0.0178393
7481.78	-0.017632
7490.65	-0.0174309
7508.38	-0.0170471
7517.24	-0.0168646
7526.11	-0.0166882
7534.97	-0.0165182
7543.84	-0.0163543
7552.7	-0.0161968
7561.56	-0.0160455
7570.43	-0.0159004
7588.16	-0.0156289
7597.02	-0.0155025
7605.89	-0.0153821
7614.75	-0.0152679
7623.62	-0.0151596
7632.48	-0.0150574
7641.35	-0.014961
7650.21	-0.0148705
7667.94	-0.0147066
7676.81	-0.0146332
7685.67	-0.0145652
7694.53	-0.0145025
7703.4	-0.0144452
7712.26	-0.0143931
7721.13	-0.014346
7738.86	-0.0142665
7747.72	-0.0142338
7756.59	-0.0142057
7765.45	-0.014182
7774.32	-0.0141625
7783.18	-0.0141471
7792.05	-0.0141357
7800.91	-0.0141281
7818.64	-0.0141236
7827.5	-0.0141264
7836.37	-0.0141323
7845.23	-0.0141412
7854.1	-0.0141529
7862.96	-0.0141672
7871.83	-0.0141839
7880.69	-0.0142029
7898.42	-0.0142469
7907.29	-0.0142716
7916.15	-0.0142978
7925.02	-0.0143253
7933.88	-0.0143539
7942.75	-0.0143835
7951.61	-0.0144139
7960.47	-0.0144449
7978.2	-0.0145078
7987.07	-0.0145394
7995.93	-0.0145709
8004.8	-0.014602
8013.66	-0.0146326
8022.53	-0.0146625
8031.39	-0.0146915
8040.26	-0.0147195
8057.99	-0.0147716
8066.85	-0.0147954
8075.72	-0.0148174
8084.58	-0.0148376
8093.45	-0.0148557
8102.31	-0.0148717
8111.17	-0.0148852
8120.04	-0.0148963
8137.77	-0.0149103
8146.63	-0.0149129
8155.5	-0.0149125
8164.36	-0.014909
8173.23	-0.014902
8182.09	-0.0148917
8190.96	-0.0148778
8208.69	-0.0148388
8217.55	-0.0148136
8226.42	-0.0147844
8235.28	-0.0147511
8244.14	-0.0147137
8253.01	-0.014672
8261.87	-0.014626
8270.74	-0.0145757
8288.47	-0.0144615
8297.33	-0.0143976
8306.2	-0.0143291
8315.06	-0.0142559
8323.93	-0.014178
8332.79	-0.0140954
8341.66	-0.014008
8350.52	-0.0139158
8368.25	-0.013717
8377.11	-0.0136103
8385.98	-0.0134988
8394.84	-0.0133825
8403.71	-0.0132613
8412.57	-0.0131353
8421.44	-0.0130045
8430.3	-0.012869
8448.03	-0.0125836
8456.9	-0.0124339
8465.76	-0.0122796
8474.63	-0.0121206
8483.49	-0.0119571
8492.36	-0.0117891
8501.22	-0.0116167
8510.08	-0.0114399
8527.81	-0.0110735
8536.68	-0.010884
8545.54	-0.0106904
8554.41	-0.0104929
8563.27	-0.0102914
8572.14	-0.0100862
8581	-0.00987716
8598.73	-0.00944839
8607.6	-0.00922881
8616.46	-0.00900592
8625.33	-0.00877982
8634.19	-0.00855062
8643.05	-0.00831843
8651.92	-0.00808338
8660.78	-0.00784557
8678.51	-0.00736219
8687.38	-0.00711686
8696.24	-0.00686927
8705.11	-0.00661954
8713.97	-0.00636782
8722.84	-0.00611422
8731.7	-0.00585889
8740.57	-0.00560194
8758.3	-0.00508376
8767.16	-0.0048228
8776.02	-0.00456076
8784.89	-0.00429779
8793.75	-0.00403403
8802.62	-0.0037696
8811.48	-0.00350465
8820.35	-0.00323931
8838.08	-0.00270801
8846.94	-0.00244232
8855.81	-0.00217679
8864.67	-0.00191155
8873.54	-0.00164674
8882.4	-0.00138248
8891.27	-0.00111891
8900.13	-0.00085616
8917.86	-0.000333645
8926.72	-7.41341e-05
8935.59	0.000184043
8944.45	0.000440762
8953.32	0.000695901
8962.18	0.000949336
8971.05	0.00120095
8988.78	0.00169824
8997.64	0.00194368
9006.51	0.00218684
9015.37	0.00242761
9024.24	0.00266588
9033.1	0.00290154
9041.97	0.00313449
9050.83	0.00336463
9068.56	0.00381608
9077.42	0.0040372
9086.29	0.00425512
9095.15	0.00446977
9104.02	0.00468104
9112.88	0.00488886
9121.75	0.00509314
9130.61	0.00529381
9148.34	0.005684
9157.21	0.00587338
9166.07	0.00605886
9174.94	0.00624036
9183.8	0.00641783
9192.67	0.00659121
9201.53	0.00676043
9210.39	0.00692545
9228.12	0.00724266
9236.99	0.00739475
9245.85	0.00754244
9254.72	0.00768569
9263.58	0.00782446
9272.45	0.00795871
9281.31	0.0080884
9290.18	0.00821352
9307.91	0.00844987
9316.77	0.00856106
9325.64	0.00866757
9334.5	0.00876937
9343.37	0.00886645
9352.23	0.0089588
9361.09	0.00904639
9378.82	0.00920729
9387.69	0.00928059
9396.55	0.00934911
9405.42	0.00941285
9414.28	0.00947182
9423.15	0.00952601
9432.01	0.00957543
9440.88	0.00962009
9458.61	0.00969516
9467.47	0.00972559
9476.34	0.0097513
9485.2	0.0097723
9494.07	0.00978863
9502.93	0.00980028
9511.79	0.00980729
9520.66	0.00980967
9538.39	0.00980065
9547.25	0.00978931
9556.12	0.00977343
9564.98	0.00975307
9573.85	0.00972823
9582.71	0.00969896
9591.58	0.00966529
9600.44	0.00962724
9618.17	0.00953818
9627.04	0.00948723
9635.9	0.00943206
9644.77	0.00937269
9653.63	0.00930917
9662.49	0.00924154
9671.36	0.00916983
9680.22	0.00909409
9697.95	0.00893068
9706.82	0.0088431
9715.68	0.00875165
9724.55	0.00865638
9733.41	0.00855733
9742.28	0.00845455
9751.14	0.00834809
9760.01	0.00823798
9777.74	0.00800703
9786.6	0.00788627
9795.47	0.00776206
9804.33	0.00763444
9813.19	0.00750345
9822.06	0.00736915
9830.92	0.00723158
9848.65	0.00694682
9857.52	0.00679973
9866.38	0.00664956
9875.25	0.00649636
9884.11	0.00634018
9892.98	0.00618107
9901.84	0.00601907
9910.71	0.00585423
9928.44	0.00551623
9937.3	0.00534317
9946.17	0.00516747
9955.03	0.00498917
9963.89	0.00480832
9972.76	0.00462497
9981.62	0.00443917
9990.49	0.00425096
10008.2	0.00386753
10017.1	0.00367239
10025.9	0.00347505
10034.8	0.00327554
10043.7	0.00307391
10052.5	0.0028702
10061.4	0.00266448
10070.3	0.00245678
10088	0.00203563
10096.9	0.00182228
10105.7	0.00160714
10114.6	0.00139026
10123.5	0.00117168
10132.3	0.000951455
10141.2	0.000729624
10150.1	0.000506234
10167.8	5.49664e-05
10176.6	-0.000172821
10185.5	-0.000401983
10194.4	-0.000632474
10203.2	-0.000864249
10212.1	-0.00109726
10221	-0.00133147
10238.7	-0.00180329
10247.6	-0.00204081
10256.4	-0.00227935
10265.3	-0.00251886
10274.2	-0.0027593
10283	-0.00300061
10291.9	-0.00324277
10300.8	-0.00348573
10318.5	-0.00397386
10327.3	-0.00421894
10336.2	-0.00446465
10345.1	-0.00471094
10353.9	-0.00495777
10362.8	-0.00520509
10371.7	-0.00545287
10380.5	-0.00570106
10398.3	-0.00619851
10407.1	-0.00644769
10416	-0.00669712
10424.9	-0.00694675
10433.7	-0.00719655
10442.6	-0.00744647
10451.5	-0.00769648
10460.3	-0.00794654
10478	-0.00844663
10486.9	-0.00869658
10495.8	-0.00894642
10504.6	-0.00919612
10513.5	-0.00944562
10522.4	-0.0096949
10531.2	-0.00994391
10540.1	-0.0101926
10557.8	-0.010689
10566.7	-0.0109366
10575.6	-0.0111837
10584.4	-0.0114304
10593.3	-0.0116765
10602.2	-0.0119221
10611	-0.012167
10628.7	-0.0126551
10637.6	-0.0128981
10646.5	-0.0131404
10655.3	-0.0133819
10664.2	-0.0136226
10673.1	-0.0138624
10681.9	-0.0141014
10690.8	-0.0143396
10708.5	-0.014813
10717.4	-0.0150482
10726.3	-0.0152824
10735.1	-0.0155156
10744	-0.0157476
10752.9	-0.0159786
10761.7	-0.0162084
10770.6	-0.016437
10788.3	-0.0168906
10797.2	-0.0171155
10806	-0.0173391
10814.9	-0.0175613
10823.8	-0.0177822
10832.6	-0.0180018
10841.5	-0.0182199
10850.4	-0.0184366
10868.1	-0.0188655
10877	-0.0190776
10885.8	-0.0192882
10894.7	-0.0194973
10903.6	-0.0197047
10912.4	-0.0199105
10921.3	-0.0201146
10930.1	-0.020317
10947.9	-0.0207166
10956.7	-0.0209138
10965.6	-0.0211092
10974.5	-0.0213027
10983.3	-0.0214943
10992.2	-0.0216841
11001.1	-0.021872
11018.8	-0.0222419
11027.7	-0.0224239
11036.5	-0.0226038
11045.4	-0.0227817
11054.3	-0.0229575
11063.1	-0.0231312
11072	-0.0233028
11080.8	-0.0234722
11098.6	-0.0238044
11107.4	-0.0239672
11116.3	-0.0241277
11125.2	-0.0242859
11134	-0.0244418
11142.9	-0.0245953
11151.8	-0.0247464
11160.6	-0.0248951
11178.4	-0.0251851
11187.2	-0.0253264
11196.1	-0.0254652
11205	-0.0256014
11213.8	-0.025735
11222.7	-0.025866
11231.5	-0.0259943
11240.4	-0.02612
11258.1	-0.0263631
11267	-0.0264806
11275.9	-0.0265952
11284.7	-0.026707
11293.6	-0.026816
11302.5	-0.026922
11311.3	-0.0270252
11320.2	-0.0271253
11337.9	-0.0273167
11346.8	-0.0274078
11355.7	-0.0274959
11364.5	-0.0275808
11373.4	-0.0276626
11382.2	-0.0277412
11391.1	-0.0278166
11408.8	-0.0279577
11417.7	-0.0280233
11426.6	-0.0280856
11435.4	-0.0281445
11444.3	-0.0282001
11453.2	-0.0282522
11462	-0.0283008
11470.9	-0.028346
11488.6	-0.0284257
11497.5	-0.0284602
11506.4	-0.0284911
11515.2	-0.0285184
11524.1	-0.028542
11532.9	-0.0285619
11541.8	-0.0285781
11550.7	-0.0285905
11568.4	-0.0286039
11577.3	-0.0286049
11586.1	-0.028602
11595	-0.0285952
11603.9	-0.0285845
11612.7	-0.0285699
11621.6	-0.0285512
11630.5	-0.0285286
11648.2	-0.0284713
11657.1	-0.0284365
11665.9	-0.0283976
11674.8	-0.0283547
11683.7	-0.0283075
11692.5	-0.0282563
11701.4	-0.0282008
11710.2	-0.0281411
11728	-0.0280092
11736.8	-0.0279368
11745.7	-0.0278601
11754.6	-0.0277792
11763.4	-0.027694
11772.3	-0.0276044
11781.2	-0.0275106
11790	-0.0274123
11807.8	-0.0272028
11816.6	-0.0270915
11825.5	-0.0269758
11834.4	-0.0268557
11843.2	-0.0267312
11852.1	-0.0266023
11860.9	-0.026469
11878.7	-0.0261892
11887.5	-0.0260426
11896.4	-0.0258917
11905.3	-0.0257363
11914.1	-0.0255765
11923	-0.0254123
11931.9	-0.0252437
11940.7	-0.0250707
11958.5	-0.0247114
11967.3	-0.0245252
11976.2	-0.0243347
11985.1	-0.0241397
11993.9	-0.0239405
12002.8	-0.0237369
12011.6	-0.0235289
12020.5	-0.0233167
12038.2	-0.0228794
12047.1	-0.0226544
12056	-0.0224251
12064.8	-0.0221916
12073.7	-0.0219539
12082.6	-0.0217121
12091.4	-0.0214661
12100.3	-0.0212161
12118	-0.0207037
12126.9	-0.0204415
12135.8	-0.0201753
12144.6	-0.0199051
12153.5	-0.0196311
12162.3	-0.0193531
12171.2	-0.0190713
12180.1	-0.0187857
12197.8	-0.0182031
12206.7	-0.0179063
12215.5	-0.0176059
12224.4	-0.0173018
12233.3	-0.0169942
12242.1	-0.0166831
12251	-0.0163685
12268.7	-0.0157291
12277.6	-0.0154044
12286.5	-0.0150765
12295.3	-0.0147453
12304.2	-0.014411
12313	-0.0140736
12321.9	-0.0137332
12330.8	-0.0133897
12348.5	-0.0126942
12357.4	-0.0123421
12366.2	-0.0119874
12375.1	-0.0116299
12384	-0.0112698
12392.8	-0.0109072
12401.7	-0.0105421
12410.6	-0.0101746
12428.3	-0.00943249
12437.2	-0.00905809
12446	-0.00868155
12454.9	-0.00830293
12463.7	-0.0079223
12472.6	-0.00753974
12481.5	-0.00715531
12490.3	-0.0067691
12508.1	-0.00599162
12516.9	-0.0056005
12525.8	-0.0052079
12534.7	-0.00481388
12543.5	-0.00441854
12552.4	-0.00402194
12561.3	-0.00362417
12570.1	-0.00322531
12587.9	-0.00242463
12596.7	-0.00202297
12605.6	-0.00162054
12614.4	-0.00121743
12623.3	-0.000813708
12632.2	-0.000409465
12641	-4.78346e-06
12658.8	0.000805561
12667.6	0.00121106
12676.5	0.00161665
12685.4	0.00202227
12694.2	0.00242781
12703.1	0.00283321
12712	0.00323836
12720.8	0.00364319
12738.6	0.00445154
12747.4	0.00485488
12756.3	0.00525755
12765.1	0.00565947
12774	0.00606055
12782.9	0.00646069
12791.7	0.00685983
12800.6	0.00725786
12818.3	0.00805028
12827.2	0.00844449
12836.1	0.00883726
12844.9	0.00922849
12853.8	0.00961811
12862.7	0.010006
12871.5	0.0103922
12880.4	0.0107764
12898.1	0.011539
12907	0.0119171
12915.8	0.012293
12924.7	0.0126666
12933.6	0.0130378
12942.4	0.0134066
12951.3	0.0137728
12960.2	0.0141364
12977.9	0.0148554
12986.8	0.0152107
12995.6	0.0155629
13004.5	0.0159122
13013.4	0.0162583
13022.2	0.0166013
13031.1	0.016941
13048.8	0.0176102
13057.7	0.0179396
13066.5	0.0182654
13075.4	0.0185876
13084.3	0.0189061
13093.1	0.0192207
13102	0.0195315
13110.9	0.0198384
13128.6	0.0204399
13137.5	0.0207345
13146.3	0.0210249
13155.2	0.0213109
13164.1	0.0215926
13172.9	0.0218699
13181.8	0.0221427
13190.7	0.0224109
13208.4	0.0229334
13217.2	0.0231875
13226.1	0.0234369
13235	0.0236813
13243.8	0.0239209
13252.7	0.0241554
13261.6	0.0243849
13270.4	0.0246093
13288.2	0.0250426
13297	0.0252513
13305.9	0.0254548
13314.8	0.0256528
13323.6	0.0258455
13332.5	0.0260326
13341.4	0.0262143
13350.2	0.0263904
13367.9	0.0267257
13376.8	0.0268848
13385.7	0.0270382
13394.5	0.0271858
13403.4	0.0273275
13412.3	0.0274635
13421.1	0.0275935
13438.9	0.0278357
13447.7	0.0279478
13456.6	0.0280539
13465.5	0.0281539
13474.3	0.0282478
13483.2	0.0283356
13492.1	0.0284172
13500.9	0.0284926
13518.6	0.0286249
13527.5	0.0286817
13536.4	0.0287322
13545.2	0.0287764
13554.1	0.0288144
13563	0.028846
13571.8	0.0288712
13580.7	0.0288901
13598.4	0.0289088
13607.3	0.0289086
13616.2	0.028902
13625	0.028889
13633.9	0.0288696
13642.8	0.0288438
13651.6	0.0288115
13660.5	0.0287729
13678.2	0.0286764
13687.1	0.0286185
13695.9	0.0285543
13704.8	0.0284836
13713.7	0.0284066
13722.5	0.0283232
13731.4	0.0282334
13740.3	0.0281373
13758	0.0279261
13766.9	0.027811
13775.7	0.0276897
13784.6	0.0275621
13793.5	0.0274282
13802.3	0.0272881
13811.2	0.0271419
13820	0.0269894
13837.8	0.0266662
13846.6	0.0264955
13855.5	0.0263187
13864.4	0.0261359
13873.2	0.0259471
13882.1	0.0257524
13891	0.0255519
13908.7	0.0251332
13917.6	0.0249152
13926.4	0.0246914
13935.3	0.024462
13944.2	0.024227
13953	0.0239864
13961.9	0.0237403
13970.7	0.0234887
13988.5	0.0229693
13997.3	0.0227017
14006.2	0.0224288
14015.1	0.0221507
14023.9	0.0218676
14032.8	0.0215793
14041.7	0.0212861
14050.5	0.020988
14068.3	0.0203773
14077.1	0.0200649
14086	0.0197478
14094.9	0.0194262
14103.7	0.0191001
14112.6	0.0187696
14121.4	0.0184348
14130.3	0.0180957
14148	0.0174052
14156.9	0.0170539
14165.8	0.0166987
14174.6	0.0163396
14183.5	0.0159769
14192.4	0.0156105
14201.2	0.0152406
14210.1	0.0148672
14227.8	0.0141104
14236.7	0.0137272
14245.6	0.0133409
14254.4	0.0129516
14263.3	0.0125595
14272.1	0.0121645
14281	0.0117669
14298.7	0.0109641
14307.6	0.0105591
14316.5	0.0101518
14325.3	0.00974235
14334.2	0.00933084
14343.1	0.00891739
14351.9	0.0085021
14360.8	0.00808509
14378.5	0.0072463
14387.4	0.00682475
14396.3	0.00640191
14405.1	0.0059779
14414	0.00555282
14422.8	0.00512679
14431.7	0.00469992
14440.6	0.00427232
14458.3	0.00341541
14467.2	0.00298632
14476	0.00255696
14484.9	0.00212745
14493.8	0.0016979
14502.6	0.00126842
14511.5	0.000839135
14520.4	0.000410152
14538.1	-0.000446442
14547	-0.000873824
14555.8	-0.00130044
14564.7	-0.00172619
14573.5	-0.00215094
14582.4	-0.00257459
14591.3	-0.00299703
14600.1	-0.00341814
14617.9	-0.00425592
14626.7	-0.00467238
14635.6	-0.00508706
14644.5	-0.00549987
14653.3	-0.00591068
14662.2	-0.0063194
14671.1	-0.00672592
14688.8	-0.00753191
14697.7	-0.00793118
14706.5	-0.00832784
14715.4	-0.00872176
14724.2	-0.00911287
14733.1	-0.00950105
14742	-0.00988621
14750.8	-0.0102682
14768.6	-0.0110226
14777.4	-0.0113947
14786.3	-0.0117633
14795.2	-0.0121284
14804	-0.0124897
14812.9	-0.0128473
14821.8	-0.0132011
14830.6	-0.0135509
14848.4	-0.0142385
14857.2	-0.0145761
14866.1	-0.0149094
14874.9	-0.0152384
14883.8	-0.0155631
14892.7	-0.0158832
14901.5	-0.0161988
14910.4	-0.0165099
14928.1	-0.0171179
14937	-0.0174147
14945.9	-0.0177067
14954.7	-0.0179938
14963.6	-0.018276
14972.5	-0.0185531
14981.3	-0.0188252
14990.2	-0.0190922
15007.9	-0.0196106
15016.8	-0.019862
15025.6	-0.0201081
15034.5	-0.0203489
15043.4	-0.0205843
15052.2	-0.0208144
15061.1	-0.021039
15078.8	-0.021472
15087.7	-0.0216802
15096.6	-0.021883
15105.4	-0.0220802
15114.3	-0.0222718
15123.2	-0.022458
15132	-0.0226385
15140.9	-0.0228135
15158.6	-0.0231467
15167.5	-0.0233049
15176.3	-0.0234575
15185.2	-0.0236045
15194.1	-0.0237459
15202.9	-0.0238818
15211.8	-0.0240121
15220.7	-0.0241368
15238.4	-0.0243696
15247.3	-0.0244777
15256.1	-0.0245804
15265	-0.0246775
15273.9	-0.0247692
15282.7	-0.0248555
15291.6	-0.0249364
15300.5	-0.025012
15318.2	-0.025147
15327	-0.0252066
15335.9	-0.025261
15344.8	-0.0253102
15353.6	-0.0253542
15362.5	-0.0253932
15371.4	-0.025427
15380.2	-0.0254559
15398	-0.0254987
15406.8	-0.0255127
15415.7	-0.025522
15424.6	-0.0255264
15433.4	-0.0255262
15442.3	-0.0255213
15451.2	-0.0255117
15460	-0.0254977
15477.7	-0.0254561
15486.6	-0.0254287
15495.5	-0.0253971
15504.3	-0.0253611
15513.2	-0.0253211
15522.1	-0.0252768
15530.9	-0.0252286
15548.7	-0.0251202
15557.5	-0.0250602
15566.4	-0.0249964
15575.3	-0.0249289
15584.1	-0.0248578
15593	-0.0247831
15601.9	-0.0247049
15610.7	-0.0246233
15628.4	-0.02445
15637.3	-0.0243585
15646.2	-0.0242639
15655	-0.0241662
15663.9	-0.0240655
15672.8	-0.0239619
15681.6	-0.0238554
15690.5	-0.0237461
15708.2	-0.0235195
15717.1	-0.0234023
15726	-0.0232827
15734.8	-0.0231606
15743.7	-0.0230361
15752.6	-0.0229094
15761.4	-0.0227804
15770.3	-0.0226493
15788	-0.0223809
15796.9	-0.0222438
15805.7	-0.0221048
15814.6	-0.021964
15823.5	-0.0218214
15832.3	-0.0216772
15841.2	-0.0215314
15850.1	-0.021384
15867.8	-0.0210848
15876.7	-0.0209332
15885.5	-0.0207802
15894.4	-0.020626
15903.3	-0.0204707
15912.1	-0.0203142
15921	-0.0201566
15938.7	-0.0198385
15947.6	-0.0196781
15956.4	-0.0195168
15965.3	-0.0193548
15974.2	-0.019192
15983	-0.0190285
15991.9	-0.0188643
16000.8	-0.0186995
16018.5	-0.0183684
16027.4	-0.0182021
16036.2	-0.0180354
16045.1	-0.0178684
16054	-0.0177009
16062.8	-0.0175332
16071.7	-0.0173653
16080.5	-0.0171971
16098.3	-0.0168602
16107.1	-0.0166915
16116	-0.0165228
16124.9	-0.0163541
16133.7	-0.0161853
16142.6	-0.0160165
16151.5	-0.0158478
16160.3	-0.0156791
16178.1	-0.0153421
16186.9	-0.0151738
16195.8	-0.0150057
16204.7	-0.0148378
16213.5	-0.0146701
16222.4	-0.0145026
16231.2	-0.0143354
16240.1	-0.0141684
16257.8	-0.0138354
16266.7	-0.0136694
16275.6	-0.0135037
16284.4	-0.0133384
16293.3	-0.0131734
16302.2	-0.0130089
16311	-0.0128447
16328.8	-0.0125175
16337.6	-0.0123546
16346.5	-0.0121921
16355.4	-0.01203
16364.2	-0.0118684
16373.1	-0.0117073
16382	-0.0115466
16390.8	-0.0113863
16408.5	-0.0110673
16417.4	-0.0109085
16426.3	-0.0107502
16435.1	-0.0105924
16444	-0.010435
16452.9	-0.0102782
16461.7	-0.0101219
16470.6	-0.00996603
16488.3	-0.00965585
16497.2	-0.0095015
16506.1	-0.00934765
16514.9	-0.00919431
16523.8	-0.00904146
16532.7	-0.00888911
16541.5	-0.00873726
16550.4	-0.00858591
16568.1	-0.00828469
16577	-0.00813481
16585.8	-0.00798543
16594.7	-0.00783654
16603.6	-0.00768814
16612.4	-0.00754022
16621.3	-0.00739279
16630.2	-0.00724584
16647.9	-0.00695337
16656.8	-0.00680786
16665.6	-0.00666282
16674.5	-0.00651825
16683.4	-0.00637416
16692.2	-0.00623054
16701.1	-0.00608738
16718.8	-0.00580248
16727.7	-0.00566073
16736.5	-0.00551945
16745.4	-0.00537862
16754.3	-0.00523827
16763.1	-0.00509838
16772	-0.00495895
16780.9	-0.00481999
16798.6	-0.00454346
16807.5	-0.00440589
16816.3	-0.00426879
16825.2	-0.00413216
16834.1	-0.00399601
16842.9	-0.00386032
16851.8	-0.00372511
16860.6	-0.00359038
16878.4	-0.00332235
16887.2	-0.00318907
16896.1	-0.00305627
16905	-0.00292397
16913.8	-0.00279217
16922.7	-0.00266086
16931.6	-0.00253007
16940.4	-0.00239978
16958.2	-0.00214076
16967	-0.00201204
16975.9	-0.00188386
16984.8	-0.00175621
16993.6	-0.00162911
17002.5	-0.00150257
17011.3	-0.00137658
17020.2	-0.00125116
17037.9	-0.00100205
17046.8	-0.000878383
17055.7	-0.000755311
17064.5	-0.000632846
17073.4	-0.000510998
17082.3	-0.000389774
17091.1	-0.000269185
17108.9	-2.99463e-05
17117.7	8.86841e-05
17126.6	0.000206642
17135.5	0.000323918
17144.3	0.000440501
17153.2	0.000556381
17162	0.000671548
17170.9	0.000785991
17188.6	0.00101266
17197.5	0.00112487
17206.4	0.00123631
17215.2	0.00134697
17224.1	0.00145684
17233	0.00156591
17241.8	0.00167417
17250.7	0.0017816
17268.4	0.00199396
17277.3	0.00209885
17286.2	0.00220288
17295	0.00230602
17303.9	0.00240828
17312.7	0.00250963
17321.6	0.00261007
17330.5	0.00270958
17348.2	0.00290577
17357.1	0.00300244
17365.9	0.00309814
17374.8	0.00319285
17383.7	0.00328657
17392.5	0.00337929
17401.4	0.00347099
17410.3	0.00356168
17428	0.00373992
17436.9	0.00382747
17445.7	0.00391396
17454.6	0.00399936
17463.4	0.00408369
17472.3	0.00416692
17481.2	0.00424905
17490	0.00433007
17507.8	0.00448874
17516.6	0.00456637
17525.5	0.00464286
17534.4	0.0047182
17543.2	0.00479238
17552.1	0.00486539
17561	0.00493722
17578.7	0.00507734
17587.6	0.00514561
17596.4	0.00521268
17605.3	0.00527855
17614.1	0.00534321
17623	0.00540664
17631.9	0.00546886
17640.7	0.00552985
17658.5	0.00564814
17667.3	0.00570543
17676.2	0.00576148
17685.1	0.00581629
17693.9	0.00586984
17702.8	0.00592216
17711.7	0.00597321
17720.5	0.00602302
17738.3	0.00611887
17747.1	0.00616492
17756	0.0062097
17764.8	0.00625323
17773.7	0.00629551
17782.6	0.00633653
17791.4	0.0063763
17800.3	0.00641481
17818	0.00648808
17826.9	0.00652285
17835.8	0.00655637
17844.6	0.00658865
17853.5	0.00661969
17862.4	0.0066495
17871.2	0.00667808
17880.1	0.00670543
17897.8	0.00675647
17906.7	0.00678017
17915.5	0.00680266
17924.4	0.00682395
17933.3	0.00684405
17942.1	0.00686296
17951	0.00688068
17968.7	0.00691262
17977.6	0.00692685
17986.5	0.00693993
17995.3	0.00695186
18004.2	0.00696265
18013.1	0.00697232
18021.9	0.00698087
18030.8	0.00698831
18048.5	0.00699991
18057.4	0.00700409
18066.2	0.00700719
18075.1	0.00700924
18084	0.00701024
18092.8	0.0070102
18101.7	0.00700913
18110.6	0.00700705
18128.3	0.00699988
18137.2	0.00699482
18146	0.00698879
18154.9	0.00698181
18163.8	0.00697388
18172.6	0.00696502
18181.5	0.00695524
18190.4	0.00694456
18208.1	0.00692052
18216.9	0.00690719
18225.8	0.00689301
18234.7	0.00687799
18243.5	0.00686214
18252.4	0.00684548
18261.3	0.00682802
18270.1	0.00680978
18287.9	0.00677098
18296.7	0.00675046
18305.6	0.0067292
18314.5	0.00670723
18323.3	0.00668456
18332.2	0.0066612
18341.1	0.00663717
18358.8	0.00658713
18367.6	0.00656116
18376.5	0.00653456
18385.4	0.00650737
18394.2	0.00647958
18403.1	0.00645122
18412	0.0064223
18420.8	0.00639282
18438.6	0.00633229
18447.4	0.00630125
18456.3	0.00626972
18465.2	0.00623771
18474	0.00620524
18482.9	0.0061723
18491.8	0.00613893
18500.6	0.00610514
18518.3	0.00603631
18527.2	0.00600131
18536.1	0.00596593
18544.9	0.00593018
18553.8	0.00589408
18562.7	0.00585765
18571.5	0.00582088
18580.4	0.0057838
18598.1	0.00570873
18607	0.00567077
18615.9	0.00563253
18624.7	0.00559404
18633.6	0.00555529
18642.5	0.0055163
18651.3	0.00547708
18660.2	0.00543764
18677.9	0.00535813
18686.8	0.00531808
18695.6	0.00527785
18704.5	0.00523745
18713.4	0.00519687
18722.2	0.00515614
18731.1	0.00511525
18748.8	0.00503306
18757.7	0.00499176
18766.6	0.00495034
18775.4	0.00490881
18784.3	0.00486716
18793.2	0.00482541
18802	0.00478356
18810.9	0.00474162
18828.6	0.00465747
18837.5	0.00461528
18846.3	0.00457301
18855.2	0.00453067
18864.1	0.00448826
18872.9	0.00444578
18881.8	0.00440324
18890.7	0.00436065
18908.4	0.00427529
18917.3	0.00423253
18926.1	0.00418972
18935	0.00414686
18943.9	0.00410395
18952.7	0.004061
18961.6	0.00401799
18970.4	0.00397494
18988.2	0.00388869
18997	0.00384549
19005.9	0.00380224
19014.8	0.00375894
19023.6	0.00371558
19032.5	0.00367218
19041.4	0.00362871
19050.2	0.00358519
19068	0.00349795
19076.8	0.00345423
19085.7	0.00341045
19094.6	0.00336658
19103.4	0.00332264
19112.3	0.00327862
19121.1	0.00323451
19130	0.00319031
19147.7	0.00310162
19156.6	0.00305712
19165.5	0.00301251
19174.3	0.00296778
19183.2	0.00292294
19192.1	0.00287797
19200.9	0.00283286
19218.7	0.00274223
19227.5	0.00269669
19236.4	0.00265099
19245.3	0.00260513
19254.1	0.0025591
19263	0.0025129
19271.8	0.0024665
19280.7	0.00241992
19298.4	0.00232615
19307.3	0.00227896
19316.2	0.00223154
19325	0.00218389
19333.9	0.00213602
19342.8	0.0020879
19351.6	0.00203953
19360.5	0.0019909
19378.2	0.00189286
19387.1	0.00184342
19396	0.00179369
19404.8	0.00174368
19413.7	0.00169336
19422.5	0.00164274
19431.4	0.0015918
19440.3	0.00154054
19458	0.00143702
19466.9	0.00138475
19475.7	0.00133213
19484.6	0.00127915
19493.5	0.00122581
19502.3	0.0011721
19511.2	0.00111802
19520.1	0.00106355
19537.8	0.000953443
19546.7	0.000897793
19555.5	0.000841737
19564.4	0.000785271
19573.2	0.000728388
19582.1	0.000671084
19591	0.000613354
19608.7	0.000496597
19617.6	0.000437562
19626.4	0.000378084
19635.3	0.000318159
19644.2	0.000257783
19653	0.000196954
19661.9	0.000135669
19670.8	7.39243e-05
19688.5	-5.09517e-05
19697.4	-0.000114087
19706.2	-0.00017769
19715.1	-0.000241761
19723.9	-0.000306302
19732.8	-0.000371313
19741.7	-0.000436794
19750.5	-0.000502746
19768.3	-0.000636061
19777.1	-0.000703422
19786	-0.000771251
19794.9	-0.000839546
19803.7	-0.000908305
19812.6	-0.000977527
19821.5	-0.00104721
19830.3	-0.00111735
19848.1	-0.00125898
19856.9	-0.00133046
19865.8	-0.00140239
19874.6	-0.00147476
19883.5	-0.00154755
19892.4	-0.00162078
19901.2	-0.00169442
19910.1	-0.00176848
19927.8	-0.00191782
19936.7	-0.00199308
19945.6	-0.00206874
19954.4	-0.00214477
19963.3	-0.00222117
19972.2	-0.00229793
19981	-0.00237505
19998.8	-0.00253031
