0	0
10.2954	0
20.5908	0
30.8863	0
41.1817	0
51.4771	0
61.7725	0
72.068	0
82.3634	0
90.0849	0
100.38	0
110.676	0
120.971	0
131.267	0
141.562	0
151.857	0
162.153	0
172.448	0
180.17	0
190.465	0
200.761	0
211.056	0
221.352	0
231.647	0
241.942	0
252.238	0
262.533	0
270.255	0
280.55	0
290.846	0
301.141	0
311.437	0
321.732	0
332.027	0
342.323	0
350.044	0
360.34	0
370.635	0
380.931	0
391.226	0
401.521	0
411.817	0
422.112	0
432.408	0
440.129	0
450.425	0
460.72	0
471.016	0
481.311	0
491.606	0
501.902	0
512.197	0
522.493	0
530.214	0
540.51	0
550.805	0
561.1	0
571.396	0
581.691	0
591.987	0
602.282	0
610.004	0
620.299	0
630.595	0
640.89	0
651.185	0
661.481	0
671.776	0
682.072	0
692.367	0
700.089	0
710.384	0
720.68	0
730.975	0
741.27	0
751.566	0
761.861	0
772.157	0
782.452	0
790.174	0
800.469	0
810.764	0
821.06	0
831.355	0
841.651	0
851.946	0
862.242	0
872.537	0
880.259	0
890.554	0
900.849	0
911.145	0
921.44	0
931.736	0
942.031	0
952.327	0
960.048	0
970.343	0
980.639	0
990.934	0
1001.23	0
1011.53	0
1021.82	0
1032.12	0
1042.41	0
1050.13	0
1060.43	0
1070.72	0
1081.02	0
1091.31	0
1101.61	0
1111.91	0
1122.2	0
1132.5	0
1140.22	0
1150.51	0
1160.81	0
1171.1	0
1181.4	0
1191.7	0
1201.99	0
1212.29	0
1220.01	0
1230.3	0
1240.6	0
1250.89	0
1261.19	0
1271.48	0
1281.78	0
1292.08	0
1302.37	0
1310.09	0
1320.39	0
1330.68	0
1340.98	0
1351.27	0
1361.57	0
1371.86	0
1382.16	0
1392.46	0
1400.18	0
1410.47	0
1420.77	0
1431.06	0
1441.36	0
1451.65	0
1461.95	0
1472.25	0
1482.54	0
1490.26	0
1500.56	0
1510.85	0
1521.15	0
1531.44	0
1541.74	0
1552.03	0
1562.33	0
1570.05	0
1580.35	0
1590.64	0
1600.94	0
1611.23	0
1621.53	0
1631.82	0
1642.12	0
1652.42	0
1660.14	0
1670.43	0
1680.73	0
1691.02	0
1701.32	0
1711.61	0
1721.91	0
1732.2	0
1742.5	0
1750.22	0
1760.52	0
1770.81	0
1781.11	0
1791.4	0
1801.7	0
1811.99	0
1822.29	0
1830.01	0
1840.31	0
1850.6	0
1860.9	0
1871.19	0
1881.49	0
1891.78	0
1902.08	0
1912.37	0
1920.1	0
1930.39	0
1940.69	0
1950.98	0
1961.28	0
1971.57	0
1981.87	0
1992.16	0
2002.46	0
2010.18	0
2020.48	0
2030.77	0
2041.07	0
2051.36	0
2061.66	0
2071.95	0
2082.25	0
2092.54	0
2100.27	0
2110.56	0
2120.86	0
2131.15	0
2141.45	0
2151.74	0
2162.04	0
2172.33	0
2180.06	0
2190.35	0
2200.65	0
2210.94	0
2221.24	0
2231.53	0
2241.83	0
2252.12	0
2262.42	0
2270.14	0
2280.44	0
2290.73	0
2301.03	0
2311.32	0
2321.62	0
2331.91	0
2342.21	0
2352.5	0
2360.23	0
2370.52	0
2380.82	0
2391.11	0
2401.41	0
2411.7	0
2422	0
2432.29	0
2440.01	0
2450.31	0
2460.61	0
2470.9	0
2481.2	0
2491.49	0
2501.79	0
2512.08	0
2522.38	0
2530.1	0
2540.4	0
2550.69	0
2560.99	0
2571.28	0
2581.58	0
2591.87	0
2602.17	0
2612.46	0
2620.18	0
2630.48	0
2640.78	0
2651.07	0
2661.37	0
2671.66	0
2681.96	0
2692.25	0
2702.55	0
2710.27	0
2720.56	0
2730.86	0
2741.16	0
2751.45	0
2761.75	0
2772.04	0
2782.34	0
2790.06	0
2800.35	0
2810.65	0
2820.95	0
2831.24	0
2841.54	0
2851.83	0
2862.13	0
2872.42	0
2880.14	0
2890.44	0
2900.73	0
2911.03	0
2921.32	0
2931.62	0
2941.92	0
2952.21	0
2962.51	0
2970.23	0
2980.52	0
2990.82	0
3001.11	0
3011.41	0
3021.7	0
3032	0
3042.3	0
3050.02	0
3060.31	0
3070.61	0
3080.9	0
3091.2	0
3101.49	0
3111.79	-1.81899e-12
3122.08	-5.45697e-12
3132.38	-8.18545e-12
3140.1	-1.09139e-11
3150.4	-1.72804e-11
3160.69	-2.63753e-11
3170.99	-4.00178e-11
3181.28	-6.36646e-11
3191.58	-1.00044e-10
3201.87	-1.56433e-10
3212.17	-2.44654e-10
3222.46	-3.79259e-10
3230.18	-5.24778e-10
3240.48	-8.03993e-10
3250.77	-1.22054e-09
3261.07	-1.84082e-09
3271.36	-2.75486e-09
3281.66	-4.09e-09
3291.96	-6.02449e-09
3302.25	-8.80755e-09
3312.55	-1.27775e-08
3320.27	-1.68075e-08
3330.56	-2.40652e-08
3340.86	-3.42034e-08
3351.15	-4.82605e-08
3361.45	-6.761e-08
3371.74	-9.40454e-08
3382.04	-1.29906e-07
3392.33	-1.78205e-07
3400.05	-2.24878e-07
3410.35	-3.04855e-07
3420.64	-4.1054e-07
3430.94	-5.49255e-07
3441.23	-7.30113e-07
3451.53	-9.64374e-07
3461.82	-1.26585e-06
3472.12	-1.65135e-06
3482.42	-2.14123e-06
3490.14	-2.59164e-06
3500.43	-3.32571e-06
3510.73	-4.24299e-06
3521.02	-5.38246e-06
3531.32	-6.78973e-06
3541.61	-8.51783e-06
3551.91	-1.0628e-05
3562.2	-1.31907e-05
3572.5	-1.6286e-05
3580.22	-1.90114e-05
3590.51	-2.32647e-05
3600.81	-2.8329e-05
3611.1	-3.4329e-05
3621.4	-4.14028e-05
3631.69	-4.97027e-05
3641.99	-5.93958e-05
3652.28	-7.06644e-05
3660	-8.02684e-05
3670.3	-9.47802e-05
3680.59	-0.00011145
3690.89	-0.00013052
3701.18	-0.000152249
3711.48	-0.000176909
3721.77	-0.000204792
3732.07	-0.000236201
3742.36	-0.000271458
3750.09	-0.000300626
3760.38	-0.00034343
3770.68	-0.000391036
3780.97	-0.000443815
3791.27	-0.000502152
3801.56	-0.000566442
3811.86	-0.000637091
3822.15	-0.000714515
3832.45	-0.000799139
3840.17	-0.000867591
3850.46	-0.000965856
3860.76	-0.00107252
3871.05	-0.00118804
3881.35	-0.00131285
3891.64	-0.00144741
3901.94	-0.00159216
3912.23	-0.00174756
3922.53	-0.00191404
3930.25	-0.00204643
3940.54	-0.00223334
3950.84	-0.0024325
3961.13	-0.00264431
3971.43	-0.00286916
3981.72	-0.00310739
3992.02	-0.00335936
4002.31	-0.00362537
4010.03	-0.00383426
4020.33	-0.00412548
4030.62	-0.00443142
4040.92	-0.00475225
4051.21	-0.00508808
4061.51	-0.00543898
4071.8	-0.00580497
4082.1	-0.00618598
4092.4	-0.00658191
4100.12	-0.00688851
4110.41	-0.00730998
4120.71	-0.0077456
4131	-0.00819491
4141.3	-0.00865735
4151.59	-0.00913224
4161.89	-0.00961877
4172.18	-0.010116
4182.48	-0.0106227
4190.2	-0.0110083
4200.5	-0.0115286
4210.79	-0.0120545
4221.09	-0.012584
4231.38	-0.0131151
4241.68	-0.0136454
4251.97	-0.0141722
4262.27	-0.0146925
4272.56	-0.0152031
4280.28	-0.0155773
4290.58	-0.0160615
4300.88	-0.0165246
4311.17	-0.0169618
4321.47	-0.0173676
4331.76	-0.0177362
4342.06	-0.018061
4352.35	-0.0183351
4360.07	-0.0185028
4370.37	-0.0186692
4380.66	-0.0187624
4390.96	-0.0187728
4401.26	-0.0186904
4411.55	-0.0185044
4421.85	-0.0182035
4432.14	-0.0177755
4442.44	-0.0172077
4450.16	-0.0166822
4460.45	-0.0158375
4470.75	-0.0148151
4481.04	-0.0136004
4491.34	-0.0121781
4501.63	-0.010533
4511.93	-0.0086495
4522.23	-0.00651192
4532.52	-0.00410469
4540.24	-0.00211307
4550.54	0.0008028
4560.83	0.00402964
4571.13	0.00758146
4581.42	0.0114715
4591.72	0.0157119
4602.01	0.0203138
4612.31	0.025287
4620.03	0.0292655
4630.33	0.034907
4640.62	0.0409384
4650.92	0.0473628
4661.21	0.0541816
4671.51	0.0613937
4681.8	0.068996
4692.1	0.076983
4702.39	0.0853467
4710.11	0.0918605
4720.41	0.100857
4730.71	0.110196
4741	0.11986
4751.3	0.129831
4761.59	0.140085
4771.89	0.1506
4782.18	0.161349
4792.48	0.172304
4800.2	0.180637
4810.49	0.191879
4820.79	0.203241
4831.09	0.214688
4841.38	0.226185
4851.68	0.237693
4861.97	0.249176
4872.27	0.260595
4882.56	0.271909
4890.28	0.280303
4900.58	0.291339
4910.87	0.30216
4921.17	0.312725
4931.46	0.322995
4941.76	0.332929
4952.06	0.342487
4962.35	0.351631
4970.07	0.358193
4980.37	0.36652
4990.66	0.374329
5000.96	0.381587
5011.25	0.388258
5021.55	0.394313
5031.84	0.399722
5042.14	0.404455
5052.44	0.40849
5060.16	0.411042
5070.45	0.413799
5080.75	0.4158
5091.04	0.41703
5101.34	0.417477
5111.63	0.417133
5121.93	0.415991
5132.22	0.41405
5142.52	0.41131
5150.24	0.408734
5160.54	0.404611
5170.83	0.39971
5181.13	0.394045
5191.42	0.387633
5201.72	0.380495
5212.01	0.372654
5222.31	0.364134
5230.03	0.357316
5240.33	0.34768
5250.62	0.337448
5260.92	0.326655
5271.21	0.315335
5281.51	0.303527
5291.8	0.291266
5302.1	0.278591
5312.39	0.265541
5320.11	0.25553
5330.41	0.241915
5340.71	0.22803
5351	0.213913
5361.3	0.1996
5371.59	0.185127
5381.89	0.170529
5392.18	0.15584
5402.48	0.141093
5410.2	0.130013
5420.49	0.115238
5430.79	0.100488
5441.09	0.0857921
5451.38	0.0711765
5461.68	0.0566678
5471.97	0.0422918
5482.27	0.0280733
5492.56	0.0140369
5500.28	0.00364352
5510.58	-0.0100166
5520.87	-0.023429
5531.17	-0.03657
5541.46	-0.0494158
5551.76	-0.0619424
5562.06	-0.0741258
5572.35	-0.0859416
5580.07	-0.0945476
5590.37	-0.105661
5600.66	-0.11634
5610.96	-0.12656
5621.25	-0.136295
5631.55	-0.145523
5641.84	-0.154219
5652.14	-0.162362
5662.44	-0.16993
5670.16	-0.175216
5680.45	-0.18173
5690.75	-0.187618
5701.04	-0.192864
5711.34	-0.197456
5721.63	-0.201384
5731.93	-0.204641
5742.22	-0.207222
5752.52	-0.209127
5760.24	-0.210113
5770.54	-0.210842
5780.83	-0.21091
5791.13	-0.210329
5801.42	-0.209115
5811.72	-0.207288
5822.01	-0.20487
5832.31	-0.201887
5840.03	-0.199296
5850.33	-0.195397
5860.62	-0.191021
5870.92	-0.186203
5881.21	-0.180984
5891.51	-0.175403
5901.8	-0.169503
5912.1	-0.163327
5922.39	-0.156918
5930.11	-0.151987
5940.41	-0.145279
5950.71	-0.138461
5961	-0.131576
5971.3	-0.124667
5981.59	-0.117776
5991.89	-0.110942
6002.18	-0.104204
6012.48	-0.0975968
6020.2	-0.0927486
6030.49	-0.0864522
6040.79	-0.0803747
6051.09	-0.074543
6061.38	-0.0689811
6071.68	-0.0637103
6081.97	-0.0587491
6092.27	-0.054113
6102.56	-0.0498146
6110.28	-0.0468185
6120.58	-0.0431331
6130.87	-0.0398058
6141.17	-0.0368389
6151.47	-0.0342322
6161.76	-0.0319831
6172.06	-0.0300867
6182.35	-0.0285359
6190.07	-0.0275943
6200.37	-0.0266254
6210.66	-0.0259729
6220.96	-0.0256229
6231.25	-0.0255604
6241.55	-0.0257691
6251.85	-0.0262313
6262.14	-0.026929
6272.44	-0.027843
6280.16	-0.0286588
6290.45	-0.0299043
6300.75	-0.0313117
6311.04	-0.0328609
6321.34	-0.0345318
6331.63	-0.0363045
6341.93	-0.0381597
6352.23	-0.0400784
6362.52	-0.0420421
6370.24	-0.043534
6380.54	-0.045535
6390.83	-0.047535
6401.13	-0.0495189
6411.42	-0.051473
6421.72	-0.0533843
6432.01	-0.0552415
6442.31	-0.0570342
6450.03	-0.0583309
6460.33	-0.0599897
6470.62	-0.0615622
6480.92	-0.0630427
6491.21	-0.0644269
6501.51	-0.0657115
6511.8	-0.0668943
6522.1	-0.0679743
6532.39	-0.0689515
6540.12	-0.0696173
6550.41	-0.0704167
6560.71	-0.0711173
6571	-0.0717218
6581.3	-0.0722336
6591.59	-0.0726564
6601.89	-0.0729943
6612.18	-0.0732518
6622.48	-0.0734335
6630.2	-0.0735226
6640.5	-0.0735825
6650.79	-0.0735792
6661.09	-0.073517
6671.38	-0.0734003
6681.68	-0.0732329
6691.97	-0.0730187
6702.27	-0.072761
6712.56	-0.0724628
6720.29	-0.0722141
6730.58	-0.0718511
6740.88	-0.071454
6751.17	-0.0710242
6761.47	-0.0705631
6771.76	-0.0700715
6782.06	-0.06955
6792.35	-0.0689987
6800.07	-0.0685657
6810.37	-0.0679622
6820.66	-0.0673285
6830.96	-0.0666638
6841.26	-0.0659677
6851.55	-0.0652393
6861.85	-0.0644779
6872.14	-0.0636828
6882.44	-0.0628531
6890.16	-0.0622079
6900.45	-0.0613165
6910.75	-0.0603892
6921.04	-0.0594258
6931.34	-0.0584262
6941.64	-0.0573907
6951.93	-0.0563195
6962.23	-0.0552135
6972.52	-0.0540733
6980.24	-0.0531965
6990.54	-0.0519996
7000.83	-0.0507723
7011.13	-0.0495164
7021.43	-0.0482338
7031.72	-0.0469268
7042.02	-0.0455978
7052.31	-0.0442492
7060.03	-0.0432266
7070.33	-0.0418504
7080.62	-0.0404624
7090.92	-0.0390655
7101.21	-0.0376626
7111.51	-0.0362567
7121.81	-0.034851
7132.1	-0.0334482
7142.4	-0.0320513
7150.12	-0.0310092
7160.41	-0.0296294
7170.71	-0.0282628
7181	-0.026912
7191.3	-0.0255792
7201.59	-0.0242666
7211.89	-0.022976
7222.19	-0.0217091
7232.48	-0.0204675
7240.2	-0.0195536
7250.5	-0.0183591
7260.79	-0.0171928
7271.09	-0.0160554
7281.38	-0.0149473
7291.68	-0.0138688
7301.97	-0.01282
7312.27	-0.0118008
7322.56	-0.0108108
7330.29	-0.0100873
7340.58	-0.00914739
7350.88	-0.00823521
7361.17	-0.00734997
7371.47	-0.00649082
7381.76	-0.0056568
7392.06	-0.00484696
7402.35	-0.00406027
7410.07	-0.00348484
7420.37	-0.00273624
7430.67	-0.00200805
7440.96	-0.00129933
7451.26	-0.000609209
7461.55	6.31186e-05
7471.85	0.000718361
7482.14	0.00135713
7492.44	0.00197991
7500.16	0.00243674
7510.45	0.00303237
7520.75	0.00361274
7531.04	0.00417785
7541.34	0.00472759
7551.64	0.00526169
7561.93	0.00577975
7572.23	0.00628126
7582.52	0.00676559
7590.24	0.00711709
7600.54	0.00756945
7610.83	0.00800229
7621.13	0.0084146
7631.42	0.0088053
7641.72	0.00917324
7652.01	0.00951724
7662.31	0.00983608
7670.03	0.010058
7680.33	0.0103298
7690.62	0.0105731
7700.92	0.0107867
7711.21	0.0109695
7721.51	0.0111202
7731.8	0.011238
7742.1	0.0113218
7752.39	0.0113707
7760.12	0.0113842
7770.41	0.0113704
7780.71	0.01132
7791	0.0112325
7801.3	0.0111075
7811.59	0.0109449
7821.89	0.0107444
7832.18	0.0105062
7842.48	0.0102305
7850.2	0.00999916
7860.49	0.00965837
7870.79	0.00928105
7881.09	0.00886778
7891.38	0.00841925
7901.68	0.00793626
7911.97	0.00741968
7922.27	0.00687047
7932.56	0.00628967
7940.28	0.005834
7950.58	0.00520058
7960.87	0.00453873
7971.17	0.00384967
7981.46	0.00313467
7991.76	0.00239505
8002.06	0.00163211
8012.35	0.000847205
8020.07	0.000244917
8030.37	-0.000575192
8040.66	-0.00141356
8050.96	-0.00226883
8061.25	-0.00313966
8071.55	-0.00402471
8081.84	-0.00492267
8092.14	-0.00583223
8102.43	-0.00675209
8110.16	-0.00744797
8120.45	-0.0083828
8130.75	-0.00932446
8141.04	-0.0102717
8151.34	-0.0112234
8161.63	-0.0121783
8171.93	-0.0131352
8182.22	-0.014093
8192.52	-0.0150505
8200.24	-0.0157678
8210.54	-0.0167223
8220.83	-0.0176734
8231.13	-0.0186202
8241.42	-0.0195616
8251.72	-0.0204965
8262.01	-0.0214241
8272.31	-0.0223432
8280.03	-0.0230264
8290.33	-0.0239284
8300.62	-0.0248194
8310.92	-0.0256983
8321.21	-0.0265644
8331.51	-0.0274167
8341.8	-0.0282544
8352.1	-0.0290767
8362.39	-0.0298826
8370.11	-0.0304758
8380.41	-0.0312511
8390.71	-0.032008
8401	-0.0327455
8411.3	-0.0334628
8421.59	-0.0341593
8431.89	-0.034834
8442.18	-0.0354863
8452.48	-0.0361152
8460.2	-0.0365712
8470.49	-0.0371575
8480.79	-0.0377182
8491.09	-0.0382526
8501.38	-0.0387596
8511.68	-0.0392385
8521.97	-0.0396884
8532.27	-0.0401081
8542.56	-0.0404969
8550.28	-0.0407675
8560.58	-0.0410995
8570.87	-0.0413976
8581.17	-0.0416607
8591.47	-0.0418877
8601.76	-0.0420774
8612.06	-0.0422287
8622.35	-0.0423404
8630.07	-0.0423974
8640.37	-0.0424369
8650.66	-0.0424334
8660.96	-0.0423858
8671.26	-0.0422929
8681.55	-0.0421535
8691.85	-0.0419665
8702.14	-0.0417308
8712.44	-0.0414452
8720.16	-0.0411978
8730.45	-0.0408228
8740.75	-0.0403955
8751.04	-0.039915
8761.34	-0.0393806
8771.64	-0.0387918
8781.93	-0.0381481
8792.23	-0.037449
8802.52	-0.0366943
8810.24	-0.0360918
8820.54	-0.0352397
8830.83	-0.0343321
8841.13	-0.0333691
8851.42	-0.0323513
8861.72	-0.0312793
8872.02	-0.0301537
8882.31	-0.0289755
8890.03	-0.0280579
8900.33	-0.0267903
8910.62	-0.0254733
8920.92	-0.0241085
8931.21	-0.0226974
8941.51	-0.021242
8951.8	-0.019744
8962.1	-0.0182057
8972.4	-0.0166291
8980.12	-0.015423
8990.41	-0.0137853
9000.71	-0.012116
9011	-0.0104177
9021.3	-0.00869324
9031.59	-0.00694533
9041.89	-0.00517684
9052.18	-0.00339069
9062.48	-0.00158985
9070.2	-0.000231391
9080.5	0.0015879
9090.79	0.00341355
9101.09	0.00524249
9111.38	0.00707167
9121.68	0.00889803
9131.97	0.0107186
9142.27	0.0125303
9152.56	0.0143301
9160.29	0.0156706
9170.58	0.0174429
9180.88	0.0191955
9191.17	0.0209258
9201.47	0.022631
9211.76	0.0243086
9222.06	0.0259561
9232.35	0.0275712
9240.08	0.0287598
9250.37	0.0303126
9260.67	0.031827
9270.96	0.0333009
9281.26	0.0347325
9291.55	0.0361201
9301.85	0.0374619
9312.14	0.0387566
9322.44	0.0400028
9330.16	0.0409047
9340.46	0.042063
9350.75	0.0431695
9361.05	0.0442234
9371.34	0.0452239
9381.64	0.0461703
9391.93	0.0470621
9402.23	0.0478989
9412.52	0.0486802
9420.24	0.0492298
9430.54	0.0499139
9440.84	0.0505423
9451.13	0.0511152
9461.43	0.0516328
9471.72	0.0520953
9482.02	0.0525033
9492.31	0.0528571
9500.03	0.0530873
9510.33	0.053348
9520.63	0.0535564
9530.92	0.0537135
9541.22	0.0538201
9551.51	0.0538773
9561.81	0.053886
9572.1	0.0538476
9582.4	0.0537632
9590.12	0.0536705
9600.41	0.0535087
9610.71	0.0533046
9621.01	0.0530596
9631.3	0.0527753
9641.6	0.0524531
9651.89	0.0520947
9662.19	0.0517016
9672.48	0.0512756
9680.2	0.0509354
9690.5	0.0504557
9700.79	0.0499476
9711.09	0.0494129
9721.39	0.0488533
9731.68	0.0482705
9741.98	0.0476663
9752.27	0.0470423
9762.57	0.0464002
9770.29	0.0459078
9780.58	0.0452381
9790.88	0.0445547
9801.18	0.0438594
9811.47	0.0431535
9821.77	0.0424385
9832.06	0.0417158
9842.36	0.0409868
9850.08	0.0404366
9860.37	0.0396994
9870.67	0.0389592
9880.96	0.0382169
9891.26	0.0374736
9901.56	0.0367301
9911.85	0.0359872
9922.15	0.0352456
9932.44	0.0345059
9940.16	0.0339527
9950.46	0.0332175
9960.75	0.0324854
9971.05	0.0317566
9981.34	0.0310313
9991.64	0.0303097
10001.9	0.0295916
10012.2	0.0288771
10022.5	0.028166
10030.2	0.0276347
10040.5	0.0269289
10050.8	0.0262257
10061.1	0.0255247
10071.4	0.0248255
10081.7	0.0241276
10092	0.0234304
10102.3	0.0227334
10110	0.0222105
10120.3	0.0215125
10130.6	0.020813
10140.9	0.0201114
10151.2	0.0194072
10161.5	0.0186996
10171.8	0.0179881
10182.1	0.0172721
10192.4	0.0165509
10200.1	0.0160064
10210.4	0.015275
10220.7	0.014537
10231	0.013792
10241.3	0.0130395
10251.6	0.0122793
10261.9	0.0115109
10272.2	0.010734
10282.5	0.00994851
10290.2	0.00935358
10300.5	0.00855252
10310.8	0.00774245
10321.1	0.00692335
10331.4	0.00609526
10341.7	0.00525827
10352	0.00441255
10362.3	0.00355832
10372.6	0.00269584
10380.3	0.00204377
10390.6	0.0011677
10400.9	0.000284444
10411.2	-0.00060551
10421.5	-0.00150162
10431.8	-0.00240329
10442.1	-0.00330987
10452.4	-0.00422067
10460.1	-0.0049061
10470.4	-0.00582248
10480.7	-0.00674095
10491	-0.00766064
10501.3	-0.00858069
10511.6	-0.00950015
10521.9	-0.0104181
10532.1	-0.0113336
10542.4	-0.0122455
10550.2	-0.0129266
10560.5	-0.0138301
10570.8	-0.0147273
10581.1	-0.0156173
10591.3	-0.0164989
10601.6	-0.0173712
10611.9	-0.0182333
10622.2	-0.019084
10632.5	-0.0199225
10640.2	-0.0205429
10650.5	-0.0213578
10660.8	-0.0221581
10671.1	-0.0229429
10681.4	-0.0237115
10691.7	-0.0244631
10702	-0.0251972
10712.3	-0.0259132
10720	-0.0264379
10730.3	-0.027121
10740.6	-0.0277847
10750.9	-0.0284288
10761.2	-0.029053
10771.5	-0.0296572
10781.8	-0.0302414
10792.1	-0.0308057
10802.4	-0.0313502
10810.1	-0.0317456
10820.4	-0.032256
10830.7	-0.0327474
10841	-0.0332202
10851.3	-0.0336751
10861.6	-0.0341126
10871.9	-0.0345335
10882.2	-0.0349385
10892.5	-0.0353285
10900.2	-0.0356116
10910.5	-0.0359776
10920.8	-0.0363311
10931.1	-0.0366733
10941.4	-0.0370052
10951.7	-0.0373281
10962	-0.037643
10972.3	-0.0379511
10982.6	-0.0382536
10990.3	-0.0384775
11000.6	-0.0387731
11010.9	-0.0390663
11021.2	-0.0393584
11031.5	-0.0396504
11041.8	-0.0399435
11052.1	-0.0402388
11062.4	-0.0405373
11070.1	-0.0407639
11080.4	-0.0410703
11090.7	-0.0413825
11101	-0.0417013
11111.3	-0.0420274
11121.6	-0.0423615
11131.9	-0.0427042
11142.1	-0.0430561
11152.4	-0.0434176
11160.2	-0.0436953
11170.5	-0.0440744
11180.8	-0.044464
11191.1	-0.0448641
11201.3	-0.0452748
11211.6	-0.0456961
11221.9	-0.0461279
11232.2	-0.04657
11242.5	-0.0470222
11250.3	-0.0473677
11260.5	-0.0478367
11270.8	-0.0483147
11281.1	-0.0488011
11291.4	-0.0492956
11301.7	-0.0497975
11312	-0.0503061
11322.3	-0.0508207
11330	-0.0512102
11340.3	-0.0517337
11350.6	-0.0522612
11360.9	-0.052792
11371.2	-0.0533252
11381.5	-0.05386
11391.8	-0.0543957
11402.1	-0.0549314
11412.4	-0.0554663
11420.1	-0.0558666
11430.4	-0.0563983
11440.7	-0.0569271
11451	-0.0574522
11461.3	-0.057973
11471.6	-0.0584887
11481.9	-0.0589987
11492.2	-0.0595024
11502.5	-0.059999
11510.2	-0.0603665
11520.5	-0.0608495
11530.8	-0.0613239
11541.1	-0.0617893
11551.4	-0.0622452
11561.7	-0.0626911
11572	-0.0631266
11582.3	-0.0635512
11592.6	-0.0639646
11600.3	-0.064267
11610.6	-0.0646599
11620.9	-0.0650404
11631.2	-0.0654084
11641.5	-0.0657634
11651.8	-0.066105
11662.1	-0.066433
11672.4	-0.066747
11680.1	-0.066973
11690.4	-0.0672615
11700.7	-0.0675349
11711	-0.0677929
11721.3	-0.0680349
11731.6	-0.0682607
11741.9	-0.0684696
11752.1	-0.0686614
11762.4	-0.0688353
11770.2	-0.0689538
11780.5	-0.0690955
11790.8	-0.0692181
11801.1	-0.0693208
11811.3	-0.0694034
11821.6	-0.069465
11831.9	-0.0695052
11842.2	-0.0695234
11852.5	-0.069519
11860.3	-0.0695005
11870.5	-0.0694552
11880.8	-0.0693857
11891.1	-0.0692916
11901.4	-0.0691722
11911.7	-0.0690272
11922	-0.068856
11932.3	-0.0686583
11940	-0.0684924
11950.3	-0.0682473
11960.6	-0.0679748
11970.9	-0.0676746
11981.2	-0.0673465
11991.5	-0.0669904
12001.8	-0.0666062
12012.1	-0.066194
12022.4	-0.0657539
12030.1	-0.0654055
12040.4	-0.0649169
12050.7	-0.0644009
12061	-0.0638578
12071.3	-0.0632882
12081.6	-0.0626924
12091.9	-0.062071
12102.2	-0.0614247
12112.5	-0.0607541
12120.2	-0.0602356
12130.5	-0.0595242
12140.8	-0.0587907
12151.1	-0.0580359
12161.4	-0.0572607
12171.7	-0.056466
12182	-0.0556528
12192.3	-0.054822
12202.6	-0.0539748
12210.3	-0.0533291
12220.6	-0.0524552
12230.9	-0.0515676
12241.2	-0.0506672
12251.5	-0.0497549
12261.8	-0.0488318
12272.1	-0.0478986
12282.4	-0.0469563
12290.1	-0.046244
12300.4	-0.0452877
12310.7	-0.0443245
12321	-0.0433549
12331.3	-0.0423797
12341.6	-0.0413994
12351.9	-0.0404146
12362.1	-0.0394256
12372.4	-0.0384328
12380.2	-0.037686
12390.5	-0.0366873
12400.8	-0.0356854
12411.1	-0.0346805
12421.3	-0.0336727
12431.6	-0.0326618
12441.9	-0.0316477
12452.2	-0.0306304
12462.5	-0.0296096
12470.3	-0.0288415
12480.5	-0.0278139
12490.8	-0.0267819
12501.1	-0.0257451
12511.4	-0.0247031
12521.7	-0.0236554
12532	-0.0226016
12542.3	-0.0215411
12550	-0.020741
12560.3	-0.0196675
12570.6	-0.0185859
12580.9	-0.0174956
12591.2	-0.0163962
12601.5	-0.0152869
12611.8	-0.0141675
12622.1	-0.0130374
12632.4	-0.0118962
12640.1	-0.0110327
12650.4	-0.00987103
12660.7	-0.00869725
12671	-0.00751104
12681.3	-0.0063122
12691.6	-0.00510053
12701.9	-0.00387592
12712.2	-0.00263831
12722.5	-0.00138773
12730.2	-0.000441304
12740.5	0.000831791
12750.8	0.0021175
12761.1	0.00341557
12771.4	0.00472566
12781.7	0.00604738
12792	0.00738024
12802.3	0.00872371
12812.6	0.0100772
12820.3	0.0110984
12830.6	0.0124678
12840.9	0.013845
12851.2	0.0152295
12861.5	0.0166202
12871.8	0.0180161
12882.1	0.0194163
12892.4	0.0208197
12900.1	0.0218737
12910.4	0.02328
12920.7	0.0246864
12931	0.0260916
12941.3	0.0274944
12951.6	0.0288935
12961.9	0.0302878
12972.2	0.0316757
12982.4	0.0330561
12990.2	0.0340857
13000.5	0.0354497
13010.8	0.0368026
13021.1	0.0381429
13031.4	0.0394695
13041.6	0.0407809
13051.9	0.0420761
13062.2	0.0433536
13072.5	0.0446124
13080.3	0.0455435
13090.5	0.0467666
13100.8	0.0479677
13111.1	0.0491459
13121.4	0.0503001
13131.7	0.0514293
13142	0.0525327
13152.3	0.0536093
13160	0.0543988
13170.3	0.0554268
13180.6	0.0564261
13190.9	0.057396
13201.2	0.0583359
13211.5	0.0592455
13221.8	0.0601243
13232.1	0.0609719
13242.4	0.0617881
13250.1	0.0623795
13260.4	0.0631402
13270.7	0.0638692
13281	0.0645663
13291.3	0.0652316
13301.6	0.0658653
13311.9	0.0664675
13322.2	0.0670384
13332.5	0.0675785
13340.2	0.0679634
13350.5	0.0684502
13360.8	0.0689072
13371.1	0.069335
13381.4	0.0697339
13391.7	0.0701048
13402	0.0704481
13412.3	0.0707645
13420	0.0709846
13430.3	0.0712558
13440.6	0.071502
13450.9	0.0717241
13461.2	0.0719229
13471.5	0.0720991
13481.8	0.0722536
13492.1	0.072387
13502.4	0.0725003
13510.1	0.0725725
13520.4	0.0726524
13530.7	0.0727142
13541	0.0727588
13551.3	0.0727868
13561.6	0.0727991
13571.9	0.0727962
13582.2	0.0727788
13592.4	0.0727477
13600.2	0.0727156
13610.5	0.0726617
13620.8	0.0725955
13631.1	0.0725176
13641.4	0.0724284
13651.6	0.0723284
13661.9	0.0722179
13672.2	0.0720973
13682.5	0.0719668
13690.3	0.0718627
13700.6	0.0717158
13710.8	0.0715596
13721.1	0.0713945
13731.4	0.0712204
13741.7	0.0710375
13752	0.0708459
13762.3	0.0706456
13770	0.0704896
13780.3	0.0702739
13790.6	0.0700495
13800.9	0.0698161
13811.2	0.0695738
13821.5	0.0693223
13831.8	0.0690617
13842.1	0.0687917
13852.4	0.0685121
13860.1	0.0682961
13870.4	0.0679996
13880.7	0.0676931
13891	0.0673765
13901.3	0.0670496
13911.6	0.0667124
13921.9	0.0663646
13932.2	0.0660061
13942.5	0.0656369
13950.2	0.0653528
13960.5	0.0649644
13970.8	0.0645649
13981.1	0.0641544
13991.4	0.0637326
14001.7	0.0632997
14012	0.0628555
14022.3	0.0624001
14030	0.0620511
14040.3	0.0615761
14050.6	0.0610899
14060.9	0.0605926
14071.2	0.0600843
14081.5	0.059565
14091.8	0.0590348
14102.1	0.0584938
14112.4	0.057942
14120.1	0.0575212
14130.4	0.056951
14140.7	0.0563703
14151	0.0557792
14161.3	0.0551778
14171.6	0.0545662
14181.9	0.0539445
14192.2	0.0533127
14202.5	0.0526708
14210.2	0.0521828
14220.5	0.0515233
14230.8	0.0508538
14241.1	0.0501742
14251.4	0.0494845
14261.7	0.0487846
14271.9	0.0480743
14282.2	0.0473536
14292.5	0.0466223
14300.3	0.0460668
14310.6	0.0453165
14320.9	0.0445551
14331.1	0.0437822
14341.4	0.0429977
14351.7	0.0422012
14362	0.0413924
14372.3	0.040571
14380	0.0399464
14390.3	0.0391021
14400.6	0.0382441
14410.9	0.0373721
14421.2	0.0364857
14431.5	0.0355844
14441.8	0.0346679
14452.1	0.0337357
14462.4	0.0327874
14470.1	0.0320655
14480.4	0.0310881
14490.7	0.0300936
14501	0.0290815
14511.3	0.0280515
14521.6	0.0270033
14531.9	0.0259365
14542.2	0.0248508
14552.5	0.023746
14560.2	0.0229048
14570.5	0.021766
14580.8	0.0206076
14591.1	0.0194294
14601.4	0.0182313
14611.7	0.0170133
14622	0.0157754
14632.3	0.0145177
14640	0.0135614
14650.3	0.0122692
14660.6	0.0109576
14670.9	0.00962685
14681.2	0.00827721
14691.5	0.00690908
14701.8	0.00552287
14712.1	0.00411907
14722.4	0.00269822
14730.1	0.00162175
14740.4	0.000172541
14750.7	-0.00129193
14761	-0.0027709
14771.3	-0.00426354
14781.6	-0.00576899
14791.9	-0.00728629
14802.2	-0.00881445
14812.5	-0.0103524
14820.2	-0.0115117
14830.5	-0.0130641
14840.8	-0.0146232
14851.1	-0.0161876
14861.4	-0.0177562
14871.7	-0.0193274
14882	-0.0208999
14892.2	-0.0224723
14902.5	-0.024043
14910.3	-0.0252191
14920.6	-0.0267831
14930.9	-0.0283412
14941.1	-0.0298917
14951.4	-0.0314328
14961.7	-0.0329628
14972	-0.0344799
14982.3	-0.0359825
14990.1	-0.0370988
15000.3	-0.0385714
15010.6	-0.0400244
15020.9	-0.0414558
15031.2	-0.0428638
15041.5	-0.0442466
15051.8	-0.0456021
15062.1	-0.0469286
15072.4	-0.048224
15080.1	-0.0491741
15090.4	-0.0504106
15100.7	-0.051611
15111	-0.0527733
15121.3	-0.0538957
15131.6	-0.0549763
15141.9	-0.0560134
15152.2	-0.0570052
15162.5	-0.05795
15170.2	-0.0586268
15180.5	-0.0594854
15190.8	-0.0602926
15201.1	-0.0610469
15211.4	-0.0617468
15221.7	-0.062391
15232	-0.0629781
15242.3	-0.0635071
15250	-0.0638649
15260.3	-0.0642894
15270.6	-0.0646528
15280.9	-0.0649544
15291.2	-0.0651934
15301.5	-0.0653692
15311.8	-0.0654814
15322.1	-0.0655294
15332.4	-0.0655132
15340.1	-0.0654587
15350.4	-0.0653298
15360.7	-0.0651366
15371	-0.0648793
15381.3	-0.0645585
15391.6	-0.0641746
15401.9	-0.0637283
15412.2	-0.0632204
15422.5	-0.062652
15430.2	-0.0621867
15440.5	-0.0615151
15450.8	-0.0607865
15461.1	-0.0600022
15471.4	-0.059164
15481.7	-0.0582738
15492	-0.0573333
15502.2	-0.0563448
15512.5	-0.0553103
15520.3	-0.0545057
15530.6	-0.0533966
15540.9	-0.0522482
15551.2	-0.0510632
15561.4	-0.0498443
15571.7	-0.0485944
15582	-0.0473164
15592.3	-0.0460132
15600.1	-0.0450212
15610.3	-0.0436815
15620.6	-0.0423252
15630.9	-0.0409556
15641.2	-0.0395759
15651.5	-0.0381895
15661.8	-0.0367996
15672.1	-0.0354097
15682.4	-0.0340229
15690.1	-0.0329869
15700.4	-0.0316137
15710.7	-0.0302528
15721	-0.0289075
15731.3	-0.0275808
15741.6	-0.0262761
15751.9	-0.0249963
15762.2	-0.0237445
15772.5	-0.0225236
15780.2	-0.0216299
15790.5	-0.0204699
15800.8	-0.0193483
15811.1	-0.0182676
15821.4	-0.0172304
15831.7	-0.0162389
15842	-0.0152952
15852.3	-0.0144013
15860	-0.0137647
15870.3	-0.0129624
15880.6	-0.0122147
15890.9	-0.0115229
15901.2	-0.0108884
15911.5	-0.0103121
15921.8	-0.00979499
15932.1	-0.0093378
15942.4	-0.00894105
15950.1	-0.00868337
15960.4	-0.00839313
15970.7	-0.00816388
15981	-0.00799547
15991.3	-0.00788758
16001.6	-0.00783971
16011.9	-0.00785117
16022.2	-0.00792112
16032.5	-0.00804854
16040.2	-0.0081811
16050.5	-0.00840611
16060.8	-0.00868492
16071.1	-0.00901592
16081.4	-0.00939734
16091.7	-0.00982726
16102	-0.0103037
16112.3	-0.0108243
16122.5	-0.0113871
16130.3	-0.0118353
16140.6	-0.0124657
16150.9	-0.0131314
16161.2	-0.0138296
16171.4	-0.0145578
16181.7	-0.015313
16192	-0.0160925
16202.3	-0.0168934
16210.1	-0.0175063
16220.4	-0.0183376
16230.6	-0.0191823
16240.9	-0.0200375
16251.2	-0.0209001
16261.5	-0.0217673
16271.8	-0.0226363
16282.1	-0.0235041
16292.4	-0.0243679
16300.1	-0.0250116
16310.4	-0.0258621
16320.7	-0.0267013
16331	-0.0275266
16341.3	-0.0283358
16351.6	-0.0291263
16361.9	-0.029896
16372.2	-0.0306428
16382.5	-0.0313646
16390.2	-0.0318885
16400.5	-0.0325623
16410.8	-0.0332063
16421.1	-0.033819
16431.4	-0.0343991
16441.7	-0.0349452
16452	-0.0354565
16462.3	-0.0359319
16470	-0.0362644
16480.3	-0.0366751
16490.6	-0.0370482
16500.9	-0.0373832
16511.2	-0.0376799
16521.5	-0.0379382
16531.8	-0.0381581
16542.1	-0.0383399
16552.4	-0.0384836
16560.1	-0.0385669
16570.4	-0.0386454
16580.7	-0.0386874
16591	-0.0386937
16601.3	-0.0386651
16611.6	-0.0386025
16621.9	-0.0385069
16632.2	-0.0383795
16642.5	-0.0382213
16650.2	-0.0380833
16660.5	-0.0378743
16670.8	-0.0376382
16681.1	-0.0373762
16691.4	-0.0370897
16701.7	-0.0367803
16712	-0.0364492
16722.3	-0.0360981
16732.5	-0.0357282
16740.3	-0.0354395
16750.6	-0.0350404
16760.9	-0.0346267
16771.2	-0.0341997
16781.5	-0.0337607
16791.7	-0.0333112
16802	-0.0328524
16812.3	-0.0323856
16820.1	-0.032031
16830.4	-0.031553
16840.7	-0.0310703
16850.9	-0.0305839
16861.2	-0.0300947
16871.5	-0.0296038
16881.8	-0.029112
16892.1	-0.02862
16902.4	-0.0281288
16910.1	-0.0277613
16920.4	-0.0272728
16930.7	-0.0267868
16941	-0.0263037
16951.3	-0.025824
16961.6	-0.0253481
16971.9	-0.0248763
16982.2	-0.0244089
16992.5	-0.0239461
17000.2	-0.0236021
17010.5	-0.0231478
17020.8	-0.0226986
17031.1	-0.0222543
17041.4	-0.0218152
17051.7	-0.0213812
17062	-0.0209522
17072.3	-0.0205282
17080	-0.0202135
17090.3	-0.019798
17100.6	-0.0193872
17110.9	-0.0189811
17121.2	-0.0185794
17131.5	-0.0181819
17141.8	-0.0177887
17152.1	-0.0173995
17162.4	-0.0170142
17170.1	-0.0167277
17180.4	-0.0163488
17190.7	-0.0159735
17201	-0.0156017
17211.3	-0.0152331
17221.6	-0.0148678
17231.9	-0.0145057
17242.2	-0.0141468
17252.5	-0.0137909
17260.2	-0.013526
17270.5	-0.0131755
17280.8	-0.0128281
17291.1	-0.0124839
17301.4	-0.0121427
17311.7	-0.0118049
17322	-0.0114702
17332.3	-0.011139
17342.6	-0.0108112
17350.3	-0.0105677
17360.6	-0.0102463
17370.9	-0.00992859
17381.2	-0.00961479
17391.5	-0.00930501
17401.7	-0.00899936
17412	-0.00869796
17422.3	-0.00840095
17430.1	-0.00818114
17440.4	-0.00789206
17450.7	-0.00760765
17460.9	-0.00732801
17471.2	-0.00705321
17481.5	-0.00678332
17491.8	-0.00651837
17502.1	-0.0062584
17512.4	-0.00600342
17520.1	-0.00581545
17530.4	-0.00556916
17540.7	-0.00532778
17551	-0.00509124
17561.3	-0.00485944
17571.6	-0.00463227
17581.9	-0.00440958
17592.2	-0.00419121
17602.5	-0.00397698
17610.2	-0.00381888
17620.5	-0.00361136
17630.8	-0.00340732
17641.1	-0.00320651
17651.4	-0.00300862
17661.7	-0.00281336
17672	-0.00262039
17682.3	-0.00242937
17690	-0.00228718
17700.3	-0.00209871
17710.6	-0.00191118
17720.9	-0.00172421
17731.2	-0.00153742
17741.5	-0.00135041
17751.8	-0.00116278
17762.1	-0.000974153
17772.4	-0.000784134
17780.1	-0.000640478
17790.4	-0.000447115
17800.7	-0.000251338
17811	-5.27987e-05
17821.3	0.000148838
17831.6	0.000353887
17841.9	0.000562643
17852.2	0.000775381
17862.5	0.000992348
17870.2	0.00115798
17880.5	0.00138287
17890.8	0.00161253
17901.1	0.0018471
17911.4	0.0020867
17921.7	0.00233139
17932	0.00258123
17942.3	0.00283622
17952.6	0.00309633
17960.3	0.00329475
17970.6	0.00356366
17980.9	0.00383744
17991.2	0.00411594
18001.5	0.00439895
18011.8	0.00468626
18022	0.00497761
18032.3	0.00527271
18040.1	0.0054963
18050.4	0.00579717
18060.7	0.00610084
18071	0.00640693
18081.2	0.006715
18091.5	0.00702463
18101.8	0.00733536
18112.1	0.00764671
18122.4	0.0079582
18130.2	0.0081916
18140.4	0.00850211
18150.7	0.00881136
18161	0.00911882
18171.3	0.00942397
18181.6	0.00972629
18191.9	0.0100253
18202.2	0.0103203
18212.5	0.010611
18220.2	0.0108259
18230.5	0.0111077
18240.8	0.0113838
18251.1	0.0116538
18261.4	0.011917
18271.7	0.0121732
18282	0.012422
18292.3	0.0126628
18300	0.0128381
18310.3	0.0130644
18320.6	0.0132819
18330.9	0.0134903
18341.2	0.0136893
18351.5	0.0138788
18361.8	0.0140585
18372.1	0.0142282
18382.4	0.0143878
18390.1	0.0145008
18400.4	0.0146424
18410.7	0.0147736
18421	0.0148943
18431.3	0.0150046
18441.6	0.0151045
18451.9	0.0151939
18462.2	0.015273
18472.5	0.0153418
18480.2	0.0153867
18490.5	0.0154377
18500.8	0.0154788
18511.1	0.0155101
18521.4	0.0155318
18531.7	0.015544
18542	0.015547
18552.3	0.0155411
18562.6	0.0155264
18570.3	0.0155098
18580.6	0.0154805
18590.9	0.0154431
18601.2	0.015398
18611.5	0.0153454
18621.8	0.0152858
18632.1	0.0152193
18642.3	0.0151463
18650.1	0.0150875
18660.4	0.0150039
18670.7	0.0149148
18681	0.0148205
18691.3	0.0147212
18701.5	0.0146175
18711.8	0.0145096
18722.1	0.0143979
18732.4	0.0142828
18740.2	0.0141945
18750.4	0.0140743
18760.7	0.0139518
18771	0.0138274
18781.3	0.0137015
18791.6	0.0135744
18801.9	0.0134466
18812.2	0.0133186
18822.5	0.0131907
18830.2	0.0130951
18840.5	0.0129686
18850.8	0.0128434
18861.1	0.0127201
18871.4	0.0125991
18881.7	0.0124808
18892	0.0123658
18902.3	0.0122546
18910	0.0121739
18920.3	0.0120703
18930.6	0.0119719
18940.9	0.011879
18951.2	0.0117922
18961.5	0.0117119
18971.8	0.0116387
18982.1	0.011573
18992.4	0.0115154
19000.1	0.0114777
19010.4	0.0114352
19020.7	0.011402
19031	0.0113786
19041.3	0.0113653
19051.6	0.0113627
19061.9	0.011371
19072.2	0.0113907
19082.5	0.0114221
19090.2	0.0114535
19100.5	0.0115061
19110.8	0.0115713
19121.1	0.0116493
19131.4	0.0117402
19141.7	0.0118443
19152	0.0119617
19162.3	0.0120924
19172.6	0.0122366
19180.3	0.0123535
19190.6	0.0125212
19200.9	0.0127021
19211.2	0.0128963
19221.5	0.0131036
19231.8	0.0133236
19242.1	0.0135562
19252.4	0.013801
19260.1	0.0139925
19270.4	0.0142578
19280.7	0.0145342
19291	0.0148211
19301.3	0.0151181
19311.5	0.0154245
19321.8	0.0157397
19332.1	0.0160629
19342.4	0.0163934
19350.2	0.0166456
19360.5	0.0169871
19370.7	0.0173335
19381	0.0176842
19391.3	0.0180381
19401.6	0.0183943
19411.9	0.0187518
19422.2	0.0191096
19432.5	0.0194667
19440.2	0.0197335
19450.5	0.0200869
19460.8	0.0204367
19471.1	0.0207818
19481.4	0.0211213
19491.7	0.0214539
19502	0.0217786
19512.3	0.0220945
19520	0.0223249
19530.3	0.0226227
19540.6	0.0229087
19550.9	0.023182
19561.2	0.0234417
19571.5	0.0236867
19581.8	0.0239162
19592.1	0.0241293
19602.4	0.0243253
19610.1	0.0244605
19620.4	0.0246245
19630.7	0.0247694
19641	0.0248943
19651.3	0.0249989
19661.6	0.0250824
19671.9	0.0251445
19682.2	0.0251847
19692.5	0.0252027
19700.2	0.0252014
19710.5	0.0251797
19720.8	0.0251351
19731.1	0.0250675
19741.4	0.0249767
19751.7	0.0248627
19762	0.0247257
19772.3	0.0245656
19782.6	0.0243828
19790.3	0.0242308
19800.6	0.0240086
19810.9	0.0237643
19821.2	0.0234984
19831.5	0.0232112
19841.8	0.0229032
19852.1	0.0225749
19862.4	0.022227
19870.1	0.0219535
19880.4	0.0215726
19890.7	0.0211738
19901	0.0207578
19911.3	0.0203252
19921.5	0.0198769
19931.8	0.0194136
19942.1	0.0189362
19952.4	0.0184453
19960.2	0.0180689
19970.5	0.0175565
19980.7	0.0170331
19991	0.0164993
