0	0
17.7294	0
26.5942	0
35.4589	0
44.3236	0
53.1883	0
62.053	0
70.9178	0
88.6472	0
97.5119	0
106.377	0
115.241	0
124.106	0
132.971	0
141.836	0
150.7	0
168.43	0
177.294	0
186.159	0
195.024	0
203.889	0
212.753	0
221.618	0
230.483	0
248.212	0
257.077	0
265.942	0
274.806	0
283.671	0
292.536	0
301.401	0
310.265	0
327.995	0
336.859	0
345.724	0
354.589	0
363.454	0
372.318	0
381.183	0
390.048	0
407.777	0
416.642	0
425.507	0
434.371	0
443.236	0
452.101	0
460.966	0
478.695	0
487.56	0
496.424	9.09495e-13
505.289	2.72848e-12
514.154	5.45697e-12
523.019	1.18234e-11
531.883	2.45564e-11
540.748	4.82032e-11
558.477	1.78261e-10
567.342	3.31966e-10
576.207	6.03904e-10
585.072	1.07775e-09
593.936	1.88538e-09
602.801	3.24053e-09
611.666	5.47334e-09
620.53	9.09404e-09
638.26	2.39497e-08
647.125	3.80123e-08
655.989	5.949e-08
664.854	9.18571e-08
673.719	1.40006e-07
682.584	2.10747e-07
691.448	3.13446e-07
700.313	4.60837e-07
718.042	9.63833e-07
726.907	1.37221e-06
735.772	1.9343e-06
744.637	2.70063e-06
753.501	3.73593e-06
762.366	5.12235e-06
771.231	6.96335e-06
780.095	9.38814e-06
797.825	1.6667e-05
806.69	2.19596e-05
815.554	2.87275e-05
824.419	3.73247e-05
833.284	4.81756e-05
842.149	6.17872e-05
851.013	7.87615e-05
868.743	0.000125769
877.607	0.00015762
886.472	0.000196506
895.337	0.000243756
904.202	0.000300908
913.066	0.000369738
921.931	0.000452288
930.796	0.0005509
948.525	0.000807392
957.39	0.000971795
966.255	0.00116539
975.119	0.00139264
983.984	0.00165854
992.849	0.00196875
1001.71	0.0023296
1010.58	0.00274816
1028.31	0.00379095
1037.17	0.0044337
1046.04	0.00517139
1054.9	0.00601589
1063.77	0.00698025
1072.63	0.00807876
1081.5	0.00932698
1090.36	0.0107419
1108.09	0.0141465
1116.95	0.0161772
1125.82	0.0184567
1134.68	0.0210091
1143.55	0.0238602
1152.41	0.027037
1161.28	0.0305679
1170.14	0.0344827
1187.87	0.0435881
1196.74	0.0488434
1205.6	0.0546113
1214.47	0.0609257
1223.33	0.0678206
1232.2	0.0753299
1241.06	0.0834872
1258.79	0.101876
1267.66	0.11217
1276.52	0.123236
1285.38	0.135099
1294.25	0.147785
1303.11	0.161313
1311.98	0.175701
1320.84	0.190962
1338.57	0.224138
1347.44	0.242057
1356.3	0.260858
1365.17	0.280529
1374.03	0.301054
1382.9	0.322408
1391.76	0.344563
1400.63	0.367483
1418.36	0.415437
1427.22	0.440367
1436.08	0.46585
1444.95	0.491817
1453.81	0.518194
1462.68	0.544899
1471.54	0.571845
1480.41	0.598938
1498.14	0.653176
1507	0.680112
1515.87	0.706781
1524.73	0.733072
1533.6	0.758869
1542.46	0.784055
1551.33	0.808516
1560.19	0.832132
1577.92	0.876366
1586.79	0.896756
1595.65	0.915846
1604.51	0.933528
1613.38	0.949699
1622.24	0.964262
1631.11	0.977124
1648.84	0.997404
1657.7	1.00467
1666.57	1.00993
1675.43	1.01313
1684.3	1.01421
1693.16	1.01315
1702.03	1.00991
1710.89	1.00447
1728.62	0.986945
1737.49	0.974873
1746.35	0.960614
1755.21	0.944196
1764.08	0.925655
1772.94	0.905037
1781.81	0.882397
1790.67	0.857799
1808.4	0.803023
1817.27	0.773011
1826.13	0.741373
1835	0.708208
1843.86	0.673623
1852.73	0.637728
1861.59	0.600639
1870.46	0.562474
1888.19	0.483413
1897.05	0.442768
1905.92	0.401551
1914.78	0.35989
1923.64	0.317915
1932.51	0.275753
1941.37	0.233532
1950.24	0.191376
1967.97	0.107749
1976.83	0.0665135
1985.7	0.0258141
1994.56	-0.0142414
2003.43	-0.0535501
2012.29	-0.092014
2021.16	-0.129541
2030.02	-0.166044
2047.75	-0.235663
2056.62	-0.268636
2065.48	-0.300301
2074.34	-0.330603
2083.21	-0.359494
2092.07	-0.386931
2100.94	-0.41288
2118.67	-0.460205
2127.53	-0.481543
2136.4	-0.501317
2145.26	-0.519522
2154.13	-0.536161
2162.99	-0.551241
2171.86	-0.564775
2180.72	-0.576782
2198.45	-0.596307
2207.32	-0.603884
2216.18	-0.61005
2225.05	-0.614843
2233.91	-0.618305
2242.77	-0.620482
2251.64	-0.62142
2260.5	-0.621169
2278.23	-0.617311
2287.1	-0.613812
2295.96	-0.60934
2304.83	-0.603952
2313.69	-0.597705
2322.56	-0.590657
2331.42	-0.582865
2340.29	-0.574387
2358.02	-0.555598
2366.88	-0.545399
2375.75	-0.534736
2384.61	-0.523664
2393.47	-0.512233
2402.34	-0.500495
2411.2	-0.488499
2420.07	-0.476291
2437.8	-0.451424
2446.66	-0.438849
2455.53	-0.426234
2464.39	-0.413618
2473.26	-0.401035
2482.12	-0.388519
2490.99	-0.376103
2508.72	-0.351684
2517.58	-0.339735
2526.45	-0.327991
2535.31	-0.316474
2544.17	-0.305204
2553.04	-0.294198
2561.9	-0.283472
2570.77	-0.27304
2588.5	-0.253105
2597.36	-0.243621
2606.23	-0.23447
2615.09	-0.225658
2623.96	-0.217188
2632.82	-0.209065
2641.69	-0.201288
2650.55	-0.19386
2668.28	-0.180044
2677.15	-0.173652
2686.01	-0.167599
2694.88	-0.16188
2703.74	-0.156491
2712.6	-0.151424
2721.47	-0.146674
2730.33	-0.142233
2748.06	-0.134246
2756.93	-0.130683
2765.79	-0.127394
2774.66	-0.124371
2783.52	-0.121603
2792.39	-0.119081
2801.25	-0.116795
2810.12	-0.114733
2827.85	-0.111245
2836.71	-0.109797
2845.58	-0.108533
2854.44	-0.107443
2863.3	-0.106516
2872.17	-0.105742
2881.03	-0.105112
2898.76	-0.104242
2907.63	-0.103984
2916.49	-0.103831
2925.36	-0.103774
2934.22	-0.103805
2943.09	-0.103915
2951.95	-0.104096
2960.82	-0.104341
2978.55	-0.104988
2987.41	-0.105378
2996.28	-0.105801
3005.14	-0.106252
3014	-0.106725
3022.87	-0.107214
3031.73	-0.107713
3040.6	-0.108217
3058.33	-0.10922
3067.19	-0.10971
3076.06	-0.110186
3084.92	-0.110645
3093.79	-0.111084
3102.65	-0.111498
3111.52	-0.111884
3120.38	-0.112241
3138.11	-0.112853
3146.97	-0.113104
3155.84	-0.113316
3164.7	-0.113486
3173.57	-0.113614
3182.43	-0.113699
3191.3	-0.113738
3200.16	-0.113731
3217.89	-0.113576
3226.76	-0.113427
3235.62	-0.11323
3244.49	-0.112984
3253.35	-0.112691
3262.21	-0.112348
3271.08	-0.111958
3288.81	-0.111035
3297.67	-0.110504
3306.54	-0.109926
3315.4	-0.109303
3324.27	-0.108635
3333.13	-0.107924
3342	-0.10717
3350.86	-0.106374
3368.59	-0.104663
3377.45	-0.10375
3386.32	-0.102799
3395.18	-0.101813
3404.05	-0.100792
3412.91	-0.0997386
3421.78	-0.0986532
3430.64	-0.0975373
3448.37	-0.0952198
3457.23	-0.094021
3466.1	-0.0927973
3474.96	-0.09155
3483.83	-0.0902805
3492.69	-0.0889902
3501.56	-0.0876804
3510.42	-0.0863524
3528.15	-0.0836471
3537.01	-0.0822722
3545.88	-0.0808841
3554.74	-0.0794841
3563.61	-0.0780732
3572.47	-0.0766525
3581.34	-0.0752231
3590.2	-0.0737861
3607.93	-0.070893
3616.79	-0.0694387
3625.66	-0.0679805
3634.52	-0.0665191
3643.39	-0.0650554
3652.25	-0.06359
3661.12	-0.0621236
3678.85	-0.0591903
3687.71	-0.0577246
3696.57	-0.0562602
3705.44	-0.0547975
3714.3	-0.053337
3723.17	-0.051879
3732.03	-0.0504239
3740.9	-0.0489719
3758.63	-0.0460785
3767.49	-0.0446375
3776.35	-0.0432004
3785.22	-0.0417674
3794.08	-0.0403387
3802.95	-0.0389142
3811.81	-0.037494
3820.68	-0.0360782
3838.4	-0.0332594
3847.27	-0.0318563
3856.13	-0.0304575
3865	-0.0290627
3873.86	-0.0276719
3882.73	-0.026285
3891.59	-0.0249019
3900.45	-0.0235225
3918.18	-0.0207741
3927.05	-0.0194048
3935.91	-0.0180388
3944.78	-0.0166757
3953.64	-0.0153154
3962.51	-0.013958
3971.37	-0.0126031
3980.23	-0.0112508
3997.96	-0.00855315
4006.83	-0.00720769
4015.69	-0.00586436
4024.56	-0.00452308
4033.42	-0.0031838
4042.28	-0.00184646
4051.15	-0.000511037
4060.01	0.000822489
4077.74	0.00348386
4086.61	0.00481166
4095.47	0.00613751
4104.33	0.00746133
4113.2	0.00878306
4122.06	0.0101026
4130.93	0.0114199
4148.66	0.0140472
4157.52	0.0153569
4166.39	0.0166637
4175.25	0.0179676
4184.11	0.0192683
4192.98	0.0205656
4201.84	0.0218593
4210.71	0.0231491
4228.44	0.0257162
4237.3	0.026993
4246.17	0.0282649
4255.03	0.0295316
4263.89	0.0307929
4272.76	0.0320483
4281.62	0.0332977
4290.49	0.0345405
4308.22	0.0370056
4317.08	0.038227
4325.95	0.0394406
4334.81	0.040646
4343.67	0.0418427
4352.54	0.0430304
4361.4	0.0442087
4370.27	0.0453772
4388	0.0476831
4396.86	0.0488197
4405.73	0.0499448
4414.59	0.051058
4423.46	0.0521589
4432.32	0.053247
4441.19	0.0543219
4450.05	0.0553831
4467.78	0.0574628
4476.64	0.0584803
4485.51	0.0594825
4494.37	0.0604686
4503.24	0.0614385
4512.1	0.0623915
4520.97	0.0633272
4538.7	0.0651449
4547.56	0.066026
4556.43	0.0668881
4565.29	0.0677305
4574.16	0.068553
4583.02	0.069355
4591.88	0.0701362
4600.75	0.070896
4618.48	0.0723499
4627.34	0.0730432
4636.21	0.0737134
4645.07	0.0743603
4653.94	0.0749834
4662.8	0.0755822
4671.67	0.0761565
4680.53	0.0767059
4698.26	0.0777284
4707.13	0.0782009
4715.99	0.0786471
4724.86	0.0790668
4733.72	0.0794596
4742.58	0.0798253
4751.45	0.0801636
4760.31	0.0804744
4778.04	0.0810122
4786.91	0.0812389
4795.77	0.0814372
4804.64	0.0816071
4813.5	0.0817484
4822.37	0.0818609
4831.23	0.0819447
4840.1	0.0819998
4857.83	0.0820233
4866.69	0.0819918
4875.56	0.0819315
4884.42	0.0818426
4893.28	0.081725
4902.15	0.081579
4911.01	0.0814047
4928.74	0.0809717
4937.61	0.0807135
4946.47	0.0804278
4955.34	0.0801148
4964.2	0.079775
4973.07	0.0794085
4981.93	0.0790158
4990.8	0.0785972
5008.53	0.0776839
5017.39	0.07719
5026.26	0.076672
5035.12	0.0761302
5043.98	0.0755653
5052.85	0.0749776
5061.71	0.0743679
5070.58	0.0737365
5088.31	0.0724114
5097.17	0.0717189
5106.04	0.0710071
5114.9	0.0702769
5123.77	0.0695288
5132.63	0.0687636
5141.5	0.0679818
5150.36	0.0671842
5168.09	0.0655445
5176.95	0.0647037
5185.82	0.0638501
5194.68	0.0629842
5203.55	0.0621069
5212.41	0.0612189
5221.28	0.060321
5230.14	0.0594138
5247.87	0.057575
5256.74	0.0566448
5265.6	0.0557085
5274.47	0.0547667
5283.33	0.0538203
5292.2	0.05287
5301.06	0.0519166
5318.79	0.0500031
5327.65	0.0490445
5336.52	0.0480857
5345.38	0.0471274
5354.25	0.0461702
5363.11	0.0452148
5371.98	0.044262
5380.84	0.0433123
5398.57	0.0414251
5407.44	0.0404889
5416.3	0.0395583
5425.17	0.0386341
5434.03	0.0377167
5442.9	0.0368068
5451.76	0.0359048
5460.62	0.0350114
5478.35	0.0332522
5487.22	0.0323874
5496.08	0.031533
5504.95	0.0306895
5513.81	0.0298573
5522.68	0.0290368
5531.54	0.0282283
5540.41	0.0274323
5558.14	0.0258789
5567	0.0251221
5575.87	0.024379
5584.73	0.0236497
5593.6	0.0229345
5602.46	0.0222336
5611.32	0.0215472
5620.19	0.0208754
5637.92	0.0195763
5646.78	0.0189491
5655.65	0.018337
5664.51	0.01774
5673.38	0.0171581
5682.24	0.0165914
5691.11	0.0160397
5708.84	0.0149814
5717.7	0.0144747
5726.57	0.0139827
5735.43	0.0135055
5744.3	0.0130427
5753.16	0.0125944
5762.02	0.0121602
5770.89	0.01174
5788.62	0.0109405
5797.48	0.0105608
5806.35	0.0101941
5815.21	0.00984002
5824.08	0.00949833
5832.94	0.00916869
5841.81	0.00885075
5850.67	0.00854416
5868.4	0.00796356
5877.27	0.00768877
5886.13	0.00742379
5895	0.0071682
5903.86	0.00692156
5912.72	0.00668346
5921.59	0.00645344
5930.45	0.00623105
5948.18	0.00580732
5957.05	0.00560504
5965.91	0.00540852
5974.78	0.00521727
5983.64	0.00503082
5992.51	0.00484867
6001.37	0.00467035
6010.24	0.00449535
6027.97	0.0041534
6036.83	0.00398547
6045.7	0.00381892
6054.56	0.00365327
6063.42	0.00348806
6072.29	0.00332279
6081.15	0.00315701
6090.02	0.00299026
6107.75	0.00265202
6116.61	0.00247965
6125.48	0.00230453
6134.34	0.00212624
6143.21	0.00194438
6152.07	0.00175854
6160.94	0.00156833
6178.67	0.0011733
6187.53	0.000967767
6196.4	0.000756424
6205.26	0.000538947
6214.12	0.00031502
6222.99	8.43444e-05
6231.85	-0.000153367
6240.72	-0.000398385
6258.45	-0.000911351
6267.31	-0.00117977
6276.18	-0.00145643
6285.04	-0.00174152
6293.91	-0.00203524
6302.77	-0.00233773
6311.64	-0.00264916
6320.5	-0.00296966
6338.23	-0.00363829
6347.1	-0.00398662
6355.96	-0.00434439
6364.83	-0.00471167
6373.69	-0.00508848
6382.55	-0.00547486
6391.42	-0.00587082
6400.28	-0.00627635
6418.01	-0.00711607
6426.88	-0.00755018
6435.74	-0.00799372
6444.61	-0.00844662
6453.47	-0.00890879
6462.34	-0.00938014
6471.2	-0.00986057
6480.07	-0.01035
6497.8	-0.0113551
6506.66	-0.0118705
6515.53	-0.0123943
6524.39	-0.0129264
6533.25	-0.0134664
6542.12	-0.0140144
6550.98	-0.0145699
6568.71	-0.0157032
6577.58	-0.0162805
6586.44	-0.0168646
6595.31	-0.0174553
6604.17	-0.0180523
6613.04	-0.0186554
6621.9	-0.0192644
6630.77	-0.019879
6648.5	-0.0211241
6657.36	-0.021754
6666.23	-0.0223886
6675.09	-0.0230274
6683.96	-0.0236704
6692.82	-0.0243171
6701.68	-0.0249674
6710.55	-0.0256209
6728.28	-0.0269367
6737.14	-0.0275984
6746.01	-0.0282622
6754.87	-0.028928
6763.74	-0.0295955
6772.6	-0.0302643
6781.47	-0.0309342
6790.33	-0.0316049
6808.06	-0.0329479
6816.93	-0.0336196
6825.79	-0.0342911
6834.66	-0.034962
6843.52	-0.0356323
6852.39	-0.0363015
6861.25	-0.0369696
6870.11	-0.0376361
6887.84	-0.0389637
6896.71	-0.0396242
6905.57	-0.0402823
6914.44	-0.0409376
6923.3	-0.04159
6932.17	-0.0422392
6941.03	-0.042885
6958.76	-0.0441653
6967.63	-0.0447994
6976.49	-0.0454292
6985.36	-0.0460544
6994.22	-0.0466749
7003.09	-0.0472903
7011.95	-0.0479006
7020.82	-0.0485054
7038.54	-0.049698
7047.41	-0.0502854
7056.27	-0.0508665
7065.14	-0.0514412
7074	-0.0520092
7082.87	-0.0525704
7091.73	-0.0531245
7100.6	-0.0536715
7118.33	-0.054743
7127.19	-0.0552671
7136.06	-0.0557833
7144.92	-0.0562914
7153.79	-0.0567911
7162.65	-0.0572824
7171.52	-0.057765
7180.38	-0.0582387
7198.11	-0.0591589
7206.97	-0.0596051
7215.84	-0.0600418
7224.7	-0.0604689
7233.57	-0.0608861
7242.43	-0.0612933
7251.3	-0.0616904
7260.16	-0.0620773
7277.89	-0.0628196
7286.76	-0.0631747
7295.62	-0.0635191
7304.49	-0.0638524
7313.35	-0.0641747
7322.22	-0.0644857
7331.08	-0.0647854
7348.81	-0.0653502
7357.67	-0.0656151
7366.54	-0.0658682
7375.4	-0.0661094
7384.27	-0.0663386
7393.13	-0.0665557
7402	-0.0667606
7410.86	-0.0669532
7428.59	-0.0673011
7437.46	-0.0674564
7446.32	-0.067599
7455.19	-0.067729
7464.05	-0.0678463
7472.92	-0.0679508
7481.78	-0.0680425
7490.64	-0.0681213
7508.37	-0.0682402
7517.24	-0.0682802
7526.1	-0.0683072
7534.97	-0.0683212
7543.83	-0.0683222
7552.7	-0.0683102
7561.56	-0.0682851
7570.43	-0.068247
7588.16	-0.0681318
7597.02	-0.0680548
7605.89	-0.0679648
7614.75	-0.0678618
7623.62	-0.067746
7632.48	-0.0676174
7641.34	-0.067476
7650.21	-0.0673219
7667.94	-0.0669757
7676.8	-0.0667838
7685.67	-0.0665794
7694.53	-0.0663626
7703.4	-0.0661336
7712.26	-0.0658924
7721.13	-0.0656392
7738.86	-0.0650968
7747.72	-0.0648079
7756.59	-0.0645073
7765.45	-0.0641953
7774.31	-0.0638718
7783.18	-0.0635371
7792.04	-0.0631912
7800.91	-0.0628344
7818.64	-0.0620884
7827.5	-0.0616994
7836.37	-0.0613001
7845.23	-0.0608906
7854.1	-0.060471
7862.96	-0.0600415
7871.83	-0.0596022
7880.69	-0.0591534
7898.42	-0.0582277
7907.28	-0.0577512
7916.15	-0.0572659
7925.01	-0.0567719
7933.88	-0.0562693
7942.74	-0.0557585
7951.61	-0.0552395
7960.47	-0.0547126
7978.2	-0.0536358
7987.07	-0.0530862
7995.93	-0.0525295
8004.8	-0.0519658
8013.66	-0.0513953
8022.53	-0.0508182
8031.39	-0.0502347
8040.25	-0.049645
8057.98	-0.0484477
8066.85	-0.0478405
8075.71	-0.0472279
8084.58	-0.0466101
8093.44	-0.0459872
8102.31	-0.0453594
8111.17	-0.044727
8120.04	-0.0440901
8137.77	-0.0428036
8146.63	-0.0421544
8155.5	-0.0415014
8164.36	-0.0408449
8173.22	-0.040185
8182.09	-0.0395219
8190.95	-0.0388557
8208.68	-0.0375151
8217.55	-0.036841
8226.41	-0.0361645
8235.28	-0.0354859
8244.14	-0.0348053
8253.01	-0.0341229
8261.87	-0.0334388
8270.74	-0.0327532
8288.47	-0.0313781
8297.33	-0.030689
8306.19	-0.029999
8315.06	-0.0293083
8323.92	-0.028617
8332.79	-0.0279252
8341.65	-0.0272333
8350.52	-0.0265412
8368.25	-0.0251572
8377.11	-0.0244655
8385.98	-0.0237744
8394.84	-0.0230838
8403.71	-0.0223939
8412.57	-0.0217049
8421.44	-0.0210168
8430.3	-0.0203299
8448.03	-0.0189599
8456.89	-0.0182772
8465.76	-0.017596
8474.62	-0.0169166
8483.49	-0.0162391
8492.35	-0.0155637
8501.22	-0.0148903
8510.08	-0.0142192
8527.81	-0.0128844
8536.68	-0.0122208
8545.54	-0.01156
8554.41	-0.010902
8563.27	-0.0102471
8572.13	-0.00959525
8581	-0.00894663
8598.73	-0.00765954
8607.59	-0.00702131
8616.46	-0.00638677
8625.32	-0.00575604
8634.19	-0.00512925
8643.05	-0.0045065
8651.92	-0.00388792
8660.78	-0.00327362
8678.51	-0.00205831
8687.38	-0.00145753
8696.24	-0.000861495
8705.1	-0.000270315
8713.97	0.000315895
8722.83	0.000897023
8731.7	0.00147295
8740.56	0.00204357
8758.29	0.00316843
8767.16	0.00372244
8776.02	0.00427069
8784.89	0.00481307
8793.75	0.00534947
8802.62	0.00587977
8811.48	0.00640388
8820.35	0.00692167
8838.08	0.00793791
8846.94	0.00843614
8855.8	0.00892763
8864.67	0.00941229
8873.53	0.00989001
8882.4	0.0103607
8891.26	0.0108242
8900.13	0.0112805
8917.86	0.012171
8926.72	0.0126051
8935.59	0.0130315
8944.45	0.0134502
8953.32	0.0138611
8962.18	0.0142641
8971.05	0.0146592
8988.77	0.0154252
8997.64	0.0157959
9006.5	0.0161584
9015.37	0.0165125
9024.23	0.0168583
9033.1	0.0171955
9041.96	0.0175243
9050.83	0.0178444
9068.56	0.0184588
9077.42	0.0187529
9086.29	0.0190382
9095.15	0.0193146
9104.02	0.0195822
9112.88	0.0198409
9121.75	0.0200907
9130.61	0.0203315
9148.34	0.0207861
9157.2	0.0209999
9166.07	0.0212047
9174.93	0.0214005
9183.8	0.0215872
9192.66	0.0217649
9201.53	0.0219335
9210.39	0.0220932
9228.12	0.0223855
9236.99	0.0225182
9245.85	0.0226419
9254.72	0.0227568
9263.58	0.0228628
9272.44	0.02296
9281.31	0.0230485
9290.17	0.0231282
9307.9	0.0232616
9316.77	0.0233155
9325.63	0.023361
9334.5	0.023398
9343.36	0.0234267
9352.23	0.0234472
9361.09	0.0234595
9378.82	0.02346
9387.69	0.0234485
9396.55	0.0234291
9405.42	0.0234021
9414.28	0.0233676
9423.14	0.0233256
9432.01	0.0232763
9440.87	0.0232198
9458.6	0.0230858
9467.47	0.0230086
9476.33	0.0229246
9485.2	0.0228342
9494.06	0.0227373
9502.93	0.0226343
9511.79	0.0225251
9520.66	0.0224101
9538.39	0.0221627
9547.25	0.0220308
9556.12	0.0218936
9564.98	0.0217512
9573.84	0.0216039
9582.71	0.0214518
9591.57	0.021295
9600.44	0.0211338
9618.17	0.0207987
9627.03	0.0206251
9635.9	0.0204478
9644.76	0.0202669
9653.63	0.0200826
9662.49	0.019895
9671.36	0.0197044
9680.22	0.0195109
9697.95	0.019116
9706.82	0.018915
9715.68	0.0187117
9724.54	0.0185065
9733.41	0.0182994
9742.27	0.0180907
9751.14	0.0178805
9760	0.017669
9777.73	0.0172427
9786.6	0.0170283
9795.46	0.0168132
9804.33	0.0165977
9813.19	0.0163817
9822.06	0.0161657
9830.92	0.0159496
9848.65	0.0155179
9857.52	0.0153026
9866.38	0.0150879
9875.24	0.0148738
9884.11	0.0146606
9892.97	0.0144483
9901.84	0.0142371
9910.7	0.0140271
9928.43	0.0136112
9937.3	0.0134055
9946.16	0.0132014
9955.03	0.0129991
9963.89	0.0127986
9972.76	0.0126
9981.62	0.0124035
9990.49	0.012209
10008.2	0.0118267
10017.1	0.011639
10025.9	0.0114536
10034.8	0.0112707
10043.7	0.0110903
10052.5	0.0109124
10061.4	0.010737
10070.3	0.0105643
10088	0.0102268
10096.9	0.0100621
10105.7	0.00990009
10114.6	0.00974079
10123.5	0.00958422
10132.3	0.00943038
10141.2	0.00927926
10150.1	0.00913087
10167.8	0.00884219
10176.6	0.00870187
10185.5	0.00856419
10194.4	0.00842912
10203.2	0.00829664
10212.1	0.00816669
10221	0.00803924
10238.7	0.00779166
10247.6	0.00767141
10256.4	0.00755345
10265.3	0.00743771
10274.2	0.00732414
10283	0.00721265
10291.9	0.00710319
10300.8	0.00699567
10318.5	0.00678614
10327.3	0.00668398
10336.2	0.00658342
10345.1	0.0064844
10353.9	0.00638681
10362.8	0.00629057
10371.7	0.00619558
10380.5	0.00610174
10398.3	0.00591714
10407.1	0.00582617
10416	0.00573596
10424.9	0.00564639
10433.7	0.00555738
10442.6	0.00546881
10451.5	0.00538059
10460.3	0.0052926
10478	0.0051169
10486.9	0.00502898
10495.8	0.00494089
10504.6	0.0048525
10513.5	0.00476372
10522.4	0.00467445
10531.2	0.00458458
10540.1	0.00449401
10557.8	0.00431038
10566.7	0.00421713
10575.6	0.00412278
10584.4	0.00402726
10593.3	0.00393045
10602.2	0.00383228
10611	0.00373266
10628.7	0.0035287
10637.6	0.00342421
10646.5	0.00331792
10655.3	0.00320977
10664.2	0.00309969
10673.1	0.00298759
10681.9	0.00287341
10690.8	0.00275709
10708.5	0.00251776
10717.4	0.00239463
10726.3	0.00226912
10735.1	0.00214117
10744	0.00201075
10752.9	0.00187779
10761.7	0.00174227
10770.6	0.00160414
10788.3	0.00131992
10797.2	0.00117376
10806	0.00102487
10814.9	0.000873237
10823.8	0.000718827
10832.6	0.00056163
10841.5	0.000401633
10850.4	0.000238827
10868.1	-9.52313e-05
10877	-0.000266485
10885.8	-0.000440552
10894.7	-0.000617423
10903.6	-0.00079709
10912.4	-0.000979537
10921.3	-0.00116475
10930.1	-0.00135271
10947.9	-0.00173676
10956.7	-0.0019328
10965.6	-0.00213148
10974.5	-0.00233276
10983.3	-0.0025366
10992.2	-0.00274297
11001.1	-0.00295182
11018.8	-0.00337677
11027.7	-0.00359278
11036.5	-0.00381108
11045.4	-0.00403161
11054.3	-0.00425431
11063.1	-0.00447912
11072	-0.00470598
11080.8	-0.00493484
11098.6	-0.00539824
11107.4	-0.00563265
11116.3	-0.00586878
11125.2	-0.00610655
11134	-0.00634589
11142.9	-0.00658671
11151.8	-0.00682895
11160.6	-0.00707252
11178.4	-0.00756334
11187.2	-0.00781043
11196.1	-0.00805852
11205	-0.00830753
11213.8	-0.00855738
11222.7	-0.00880798
11231.5	-0.00905923
11240.4	-0.00931107
11258.1	-0.00981609
11267	-0.0100691
11275.9	-0.0103223
11284.7	-0.0105757
11293.6	-0.0108291
11302.5	-0.0110824
11311.3	-0.0113356
11320.2	-0.0115886
11337.9	-0.0120934
11346.8	-0.0123452
11355.7	-0.0125963
11364.5	-0.0128467
11373.4	-0.0130963
11382.2	-0.0133451
11391.1	-0.0135929
11408.8	-0.0140853
11417.7	-0.0143297
11426.6	-0.0145728
11435.4	-0.0148146
11444.3	-0.0150548
11453.2	-0.0152935
11462	-0.0155305
11470.9	-0.0157659
11488.6	-0.016231
11497.5	-0.0164607
11506.4	-0.0166884
11515.2	-0.0169139
11524.1	-0.0171372
11532.9	-0.0173583
11541.8	-0.0175771
11550.7	-0.0177934
11568.4	-0.0182187
11577.3	-0.0184274
11586.1	-0.0186335
11595	-0.0188369
11603.9	-0.0190374
11612.7	-0.0192352
11621.6	-0.01943
11630.5	-0.0196219
11648.2	-0.0199965
11657.1	-0.0201792
11665.9	-0.0203587
11674.8	-0.0205351
11683.6	-0.0207082
11692.5	-0.020878
11701.4	-0.0210445
11710.2	-0.0212076
11728	-0.0215237
11736.8	-0.0216765
11745.7	-0.0218259
11754.6	-0.0219718
11763.4	-0.0221141
11772.3	-0.0222529
11781.2	-0.0223881
11790	-0.0225198
11807.8	-0.0227722
11816.6	-0.022893
11825.5	-0.0230102
11834.3	-0.0231238
11843.2	-0.0232337
11852.1	-0.0233399
11860.9	-0.0234426
11878.7	-0.023637
11887.5	-0.0237288
11896.4	-0.0238169
11905.3	-0.0239015
11914.1	-0.0239826
11923	-0.02406
11931.9	-0.024134
11940.7	-0.0242044
11958.5	-0.0243349
11967.3	-0.0243949
11976.2	-0.0244516
11985	-0.0245049
11993.9	-0.0245549
12002.8	-0.0246016
12011.6	-0.024645
12020.5	-0.0246853
12038.2	-0.0247563
12047.1	-0.0247871
12056	-0.024815
12064.8	-0.0248398
12073.7	-0.0248618
12082.6	-0.0248808
12091.4	-0.0248971
12100.3	-0.0249106
12118	-0.0249295
12126.9	-0.024935
12135.7	-0.0249381
12144.6	-0.0249386
12153.5	-0.0249368
12162.3	-0.0249326
12171.2	-0.0249262
12180.1	-0.0249175
12197.8	-0.0248939
12206.7	-0.024879
12215.5	-0.0248623
12224.4	-0.0248436
12233.3	-0.0248232
12242.1	-0.024801
12251	-0.0247772
12268.7	-0.0247248
12277.6	-0.0246965
12286.4	-0.0246667
12295.3	-0.0246357
12304.2	-0.0246034
12313	-0.02457
12321.9	-0.0245354
12330.8	-0.0244999
12348.5	-0.0244259
12357.4	-0.0243877
12366.2	-0.0243487
12375.1	-0.024309
12384	-0.0242687
12392.8	-0.0242279
12401.7	-0.0241865
12410.6	-0.0241447
12428.3	-0.02406
12437.1	-0.0240172
12446	-0.0239742
12454.9	-0.0239311
12463.7	-0.0238879
12472.6	-0.0238446
12481.5	-0.0238014
12490.3	-0.0237582
12508.1	-0.0236722
12516.9	-0.0236294
12525.8	-0.0235869
12534.7	-0.0235447
12543.5	-0.0235028
12552.4	-0.0234613
12561.3	-0.0234202
12570.1	-0.0233795
12587.8	-0.0232995
12596.7	-0.0232602
12605.6	-0.0232216
12614.4	-0.0231835
12623.3	-0.0231459
12632.2	-0.023109
12641	-0.0230728
12658.8	-0.0230022
12667.6	-0.022968
12676.5	-0.0229344
12685.4	-0.0229015
12694.2	-0.0228693
12703.1	-0.0228378
12712	-0.0228071
12720.8	-0.0227771
12738.5	-0.0227191
12747.4	-0.0226912
12756.3	-0.022664
12765.1	-0.0226375
12774	-0.0226117
12782.9	-0.0225866
12791.7	-0.0225621
12800.6	-0.0225382
12818.3	-0.0224924
12827.2	-0.0224704
12836.1	-0.022449
12844.9	-0.0224281
12853.8	-0.0224078
12862.7	-0.0223879
12871.5	-0.0223685
12880.4	-0.0223496
12898.1	-0.022313
12907	-0.0222952
12915.8	-0.0222778
12924.7	-0.0222606
12933.6	-0.0222437
12942.4	-0.0222271
12951.3	-0.0222106
12960.2	-0.0221943
12977.9	-0.0221619
12986.8	-0.0221457
12995.6	-0.0221296
13004.5	-0.0221134
13013.4	-0.0220971
13022.2	-0.0220807
13031.1	-0.0220641
13048.8	-0.0220303
13057.7	-0.0220129
13066.5	-0.0219952
13075.4	-0.021977
13084.3	-0.0219585
13093.1	-0.0219394
13102	-0.0219198
13110.9	-0.0218997
13128.6	-0.0218575
13137.5	-0.0218353
13146.3	-0.0218125
13155.2	-0.0217888
13164.1	-0.0217642
13172.9	-0.0217388
13181.8	-0.0217124
13190.6	-0.0216851
13208.4	-0.0216274
13217.2	-0.0215969
13226.1	-0.0215652
13235	-0.0215324
13243.8	-0.0214983
13252.7	-0.021463
13261.6	-0.0214263
13270.4	-0.0213883
13288.2	-0.0213082
13297	-0.0212659
13305.9	-0.0212222
13314.8	-0.0211769
13323.6	-0.02113
13332.5	-0.0210816
13341.3	-0.0210315
13350.2	-0.0209797
13367.9	-0.020871
13376.8	-0.0208141
13385.7	-0.0207553
13394.5	-0.0206948
13403.4	-0.0206324
13412.3	-0.0205681
13421.1	-0.0205019
13438.9	-0.0203638
13447.7	-0.0202918
13456.6	-0.0202178
13465.5	-0.0201418
13474.3	-0.0200638
13483.2	-0.0199837
13492	-0.0199016
13500.9	-0.0198174
13518.6	-0.0196428
13527.5	-0.0195523
13536.4	-0.0194597
13545.2	-0.0193649
13554.1	-0.0192681
13563	-0.019169
13571.8	-0.0190679
13580.7	-0.0189645
13598.4	-0.0187514
13607.3	-0.0186416
13616.2	-0.0185296
13625	-0.0184155
13633.9	-0.0182992
13642.7	-0.0181808
13651.6	-0.0180602
13660.5	-0.0179375
13678.2	-0.0176856
13687.1	-0.0175566
13695.9	-0.0174254
13704.8	-0.0172921
13713.7	-0.0171568
13722.5	-0.0170194
13731.4	-0.0168799
13740.3	-0.0167385
13758	-0.0164495
13766.9	-0.0163021
13775.7	-0.0161528
13784.6	-0.0160015
13793.4	-0.0158483
13802.3	-0.0156933
13811.2	-0.0155364
13820	-0.0153777
13837.8	-0.0150551
13846.6	-0.0148912
13855.5	-0.0147255
13864.4	-0.0145583
13873.2	-0.0143894
13882.1	-0.0142189
13891	-0.0140469
13908.7	-0.0136984
13917.6	-0.0135219
13926.4	-0.0133441
13935.3	-0.0131649
13944.1	-0.0129844
13953	-0.0128027
13961.9	-0.0126197
13970.7	-0.0124355
13988.5	-0.0120639
13997.3	-0.0118764
14006.2	-0.011688
14015.1	-0.0114986
14023.9	-0.0113083
14032.8	-0.0111172
14041.7	-0.0109252
14050.5	-0.0107325
14068.3	-0.0103451
14077.1	-0.0101504
14086	-0.00995515
14094.8	-0.00975942
14103.7	-0.00956323
14112.6	-0.00936663
14121.4	-0.00916969
14130.3	-0.00897244
14148	-0.00857727
14156.9	-0.00837944
14165.8	-0.00818152
14174.6	-0.00798356
14183.5	-0.00778562
14192.4	-0.00758774
14201.2	-0.00738998
14210.1	-0.0071924
14227.8	-0.00679793
14236.7	-0.00660116
14245.5	-0.00640476
14254.4	-0.00620879
14263.3	-0.0060133
14272.1	-0.00581832
14281	-0.00562393
14298.7	-0.00523705
14307.6	-0.00504467
14316.5	-0.00485305
14325.3	-0.00466225
14334.2	-0.00447231
14343.1	-0.00428327
14351.9	-0.00409519
14360.8	-0.0039081
14378.5	-0.00353707
14387.4	-0.00335323
14396.2	-0.00317054
14405.1	-0.00298906
14414	-0.00280883
14422.8	-0.00262988
14431.7	-0.00245225
14440.6	-0.00227598
14458.3	-0.00192766
14467.2	-0.00175568
14476	-0.0015852
14484.9	-0.00141624
14493.8	-0.00124885
14502.6	-0.00108305
14511.5	-0.000918875
14520.4	-0.000756347
14538.1	-0.000436349
14547	-0.000278931
14555.8	-0.000123267
14564.7	3.06205e-05
14573.5	0.000182709
14582.4	0.000332978
14591.3	0.000481406
14600.1	0.000627976
14617.9	0.000915466
14626.7	0.00105635
14635.6	0.00119532
14644.5	0.00133234
14653.3	0.00146742
14662.2	0.00160053
14671.1	0.00173167
14688.8	0.00198799
14697.7	0.00211315
14706.5	0.00223631
14715.4	0.00235746
14724.2	0.0024766
14733.1	0.00259371
14742	0.00270881
14750.8	0.00282188
14768.6	0.00304196
14777.4	0.00314896
14786.3	0.00325395
14795.2	0.00335692
14804	0.00345788
14812.9	0.00355683
14821.8	0.00365378
14830.6	0.00374874
14848.4	0.00393269
14857.2	0.00402171
14866.1	0.00410877
14874.9	0.00419388
14883.8	0.00427705
14892.7	0.00435829
14901.5	0.00443762
14910.4	0.00451505
14928.1	0.00466427
14937	0.00473608
14945.9	0.00480606
14954.7	0.00487421
14963.6	0.00494055
14972.5	0.00500511
14981.3	0.00506789
14990.2	0.00512893
15007.9	0.00524581
15016.8	0.00530171
15025.6	0.00535593
15034.5	0.0054085
15043.4	0.00545944
15052.2	0.00550877
15061.1	0.00555652
15078.8	0.00564735
15087.7	0.00569048
15096.6	0.00573212
15105.4	0.00577229
15114.3	0.00581101
15123.2	0.00584831
15132	0.00588422
15140.9	0.00591876
15158.6	0.00598383
15167.5	0.0060144
15176.3	0.00604371
15185.2	0.00607178
15194.1	0.00609864
15202.9	0.0061243
15211.8	0.0061488
15220.7	0.00617216
15238.4	0.00621559
15247.3	0.0062357
15256.1	0.00625479
15265	0.00627287
15273.9	0.00628998
15282.7	0.00630614
15291.6	0.00632138
15300.5	0.00633572
15318.2	0.00636184
15327	0.00637367
15335.9	0.00638471
15344.8	0.006395
15353.6	0.00640456
15362.5	0.00641341
15371.4	0.00642159
15380.2	0.00642912
15398	0.00644235
15406.8	0.00644809
15415.7	0.0064533
15424.6	0.006458
15433.4	0.00646221
15442.3	0.00646595
15451.2	0.00646927
15460	0.00647218
15477.7	0.00647688
15486.6	0.00647873
15495.5	0.00648027
15504.3	0.00648154
15513.2	0.00648256
15522.1	0.00648335
15530.9	0.00648395
15548.7	0.00648464
15557.5	0.00648479
15566.4	0.00648485
15575.3	0.00648483
15584.1	0.00648476
15593	0.00648466
15601.9	0.00648456
15610.7	0.00648449
15628.4	0.00648451
15637.3	0.00648465
15646.2	0.0064849
15655	0.00648529
15663.9	0.00648585
15672.8	0.00648659
15681.6	0.00648753
15690.5	0.0064887
15708.2	0.00649181
15717.1	0.00649379
15726	0.00649609
15734.8	0.00649871
15743.7	0.00650168
15752.6	0.00650503
15761.4	0.00650876
15770.3	0.0065129
15788	0.00652248
15796.9	0.00652795
15805.7	0.0065339
15814.6	0.00654035
15823.5	0.00654731
15832.3	0.00655479
15841.2	0.00656281
15850.1	0.00657139
15867.8	0.00659028
15876.7	0.00660061
15885.5	0.00661155
15894.4	0.00662312
15903.3	0.00663531
15912.1	0.00664815
15921	0.00666165
15938.7	0.00669063
15947.6	0.00670614
15956.4	0.00672234
15965.3	0.00673923
15974.2	0.00675682
15983	0.00677512
15991.9	0.00679413
16000.8	0.00681385
16018.5	0.00685545
16027.4	0.00687733
16036.2	0.00689993
16045.1	0.00692325
16054	0.00694729
16062.8	0.00697206
16071.7	0.00699753
16080.5	0.00702372
16098.3	0.00707821
16107.1	0.0071065
16116	0.00713547
16124.9	0.00716513
16133.7	0.00719545
16142.6	0.00722643
16151.5	0.00725805
16160.3	0.00729031
16178.1	0.00735667
16186.9	0.00739073
16195.8	0.00742537
16204.7	0.00746057
16213.5	0.00749629
16222.4	0.00753253
16231.2	0.00756926
16240.1	0.00760646
16257.8	0.00768216
16266.7	0.00772061
16275.6	0.00775943
16284.4	0.00779858
16293.3	0.00783805
16302.2	0.00787778
16311	0.00791776
16328.8	0.00799832
16337.6	0.00803882
16346.5	0.00807942
16355.4	0.00812009
16364.2	0.00816079
16373.1	0.00820146
16381.9	0.00824208
16390.8	0.0082826
16408.5	0.00836315
16417.4	0.00840309
16426.3	0.00844274
16435.1	0.00848207
16444	0.00852101
16452.9	0.00855951
16461.7	0.00859753
16470.6	0.008635
16488.3	0.00870812
16497.2	0.00874365
16506.1	0.00877842
16514.9	0.00881237
16523.8	0.00884544
16532.6	0.00887757
16541.5	0.0089087
16550.4	0.00893877
16568.1	0.00899549
16577	0.00902201
16585.8	0.00904721
16594.7	0.00907104
16603.6	0.00909343
16612.4	0.00911431
16621.3	0.00913361
16630.2	0.00915127
16647.9	0.00918141
16656.8	0.00919375
16665.6	0.00920417
16674.5	0.00921262
16683.3	0.00921902
16692.2	0.00922331
16701.1	0.00922541
16718.8	0.0092228
16727.7	0.00921794
16736.5	0.00921064
16745.4	0.00920081
16754.3	0.0091884
16763.1	0.00917333
16772	0.00915554
16780.9	0.00913497
16798.6	0.00908522
16807.5	0.00905591
16816.3	0.00902357
16825.2	0.00898813
16834	0.00894954
16842.9	0.00890772
16851.8	0.00886264
16860.6	0.00881422
16878.4	0.00870718
16887.2	0.00864846
16896.1	0.00858619
16905	0.00852034
16913.8	0.00845085
16922.7	0.00837767
16931.6	0.00830078
16940.4	0.00822012
16958.2	0.00804735
16967	0.00795517
16975.9	0.00785908
16984.7	0.00775905
16993.6	0.00765505
17002.5	0.00754706
17011.3	0.00743505
17020.2	0.00731901
17037.9	0.00707475
17046.8	0.0069465
17055.7	0.00681416
17064.5	0.00667773
17073.4	0.00653719
17082.3	0.00639255
17091.1	0.00624381
17108.9	0.00593406
17117.7	0.00577307
17126.6	0.00560803
17135.4	0.00543894
17144.3	0.00526583
17153.2	0.00508873
17162	0.00490767
17170.9	0.00472267
17188.6	0.00434102
17197.5	0.00414445
17206.4	0.0039441
17215.2	0.00374004
17224.1	0.0035323
17233	0.00332095
17241.8	0.00310604
17250.7	0.00288764
17268.4	0.00244063
17277.3	0.00221217
17286.1	0.0019805
17295	0.0017457
17303.9	0.00150786
17312.7	0.00126706
17321.6	0.0010234
17330.5	0.000776965
17348.2	0.000276166
17357.1	2.20054e-05
17365.9	-0.000234523
17374.8	-0.000493309
17383.7	-0.000754241
17392.5	-0.00101721
17401.4	-0.00128208
17410.3	-0.00154875
17428	-0.00208698
17436.8	-0.00235827
17445.7	-0.00263086
17454.6	-0.00290459
17463.4	-0.00317934
17472.3	-0.00345497
17481.2	-0.00373134
17490	-0.0040083
17507.8	-0.00456344
17516.6	-0.00484133
17525.5	-0.00511922
17534.4	-0.00539698
17543.2	-0.00567445
17552.1	-0.00595148
17561	-0.00622791
17578.7	-0.00677837
17587.5	-0.00705208
17596.4	-0.00732457
17605.3	-0.00759569
17614.1	-0.00786528
17623	-0.00813317
17631.9	-0.00839922
17640.7	-0.00866326
17658.5	-0.00918468
17667.3	-0.00944176
17676.2	-0.0096962
17685.1	-0.00994786
17693.9	-0.0101966
17702.8	-0.0104422
17711.7	-0.0106845
17720.5	-0.0109235
17738.2	-0.0113906
17747.1	-0.0116185
17756	-0.0118424
17764.8	-0.0120622
17773.7	-0.0122776
17782.6	-0.0124887
17791.4	-0.0126953
17800.3	-0.0128971
17818	-0.0132863
17826.9	-0.0134733
17835.8	-0.0136552
17844.6	-0.0138317
17853.5	-0.0140029
17862.4	-0.0141685
17871.2	-0.0143285
17880.1	-0.0144827
17897.8	-0.0147735
17906.7	-0.0149099
17915.5	-0.0150401
17924.4	-0.0151641
17933.3	-0.0152818
17942.1	-0.0153932
17951	-0.015498
17968.7	-0.0156881
17977.6	-0.0157732
17986.5	-0.0158516
17995.3	-0.0159232
18004.2	-0.0159879
18013.1	-0.0160458
18021.9	-0.0160969
18030.8	-0.0161409
18048.5	-0.0162081
18057.4	-0.0162312
18066.2	-0.0162472
18075.1	-0.0162562
18084	-0.0162582
18092.8	-0.0162531
18101.7	-0.0162409
18110.6	-0.0162217
18128.3	-0.0161622
18137.2	-0.0161219
18146	-0.0160747
18154.9	-0.0160205
18163.8	-0.0159594
18172.6	-0.0158915
18181.5	-0.0158167
18190.3	-0.0157352
18208.1	-0.0155519
18216.9	-0.0154504
18225.8	-0.0153422
18234.7	-0.0152277
18243.5	-0.0151067
18252.4	-0.0149794
18261.3	-0.0148459
18270.1	-0.0147062
18287.9	-0.0144087
18296.7	-0.0142511
18305.6	-0.0140877
18314.5	-0.0139186
18323.3	-0.013744
18332.2	-0.0135639
18341	-0.0133784
18358.8	-0.012992
18367.6	-0.0127912
18376.5	-0.0125856
18385.4	-0.0123752
18394.2	-0.0121602
18403.1	-0.0119408
18412	-0.011717
18420.8	-0.0114889
18438.6	-0.0110208
18447.4	-0.010781
18456.3	-0.0105376
18465.2	-0.0102906
18474	-0.0100403
18482.9	-0.00978676
18491.8	-0.00953017
18500.6	-0.00927067
18518.3	-0.00874354
18527.2	-0.00847621
18536.1	-0.00820657
18544.9	-0.00793478
18553.8	-0.00766098
18562.7	-0.00738534
18571.5	-0.007108
18580.4	-0.00682913
18598.1	-0.00626735
18607	-0.00598476
18615.9	-0.00570124
18624.7	-0.00541693
18633.6	-0.005132
18642.5	-0.00484658
18651.3	-0.00456083
18660.2	-0.00427489
18677.9	-0.00370304
18686.8	-0.00341742
18695.6	-0.00313219
18704.5	-0.00284749
18713.4	-0.00256346
18722.2	-0.00228025
18731.1	-0.00199798
18748.8	-0.00143681
18757.7	-0.00115817
18766.6	-0.000880997
18775.4	-0.000605423
18784.3	-0.000331567
18793.2	-5.95508e-05
18802	0.000210506
18810.9	0.000478488
18828.6	0.00100777
18837.5	0.00126885
18846.3	0.00152741
18855.2	0.00178336
18864.1	0.00203658
18872.9	0.00228698
18881.8	0.00253446
18890.7	0.00277894
18908.4	0.00325851
18917.3	0.00349343
18926.1	0.00372501
18935	0.00395315
18943.9	0.00417778
18952.7	0.00439884
18961.6	0.00461625
18970.4	0.00482994
18988.2	0.00524594
18997	0.00544812
19005.9	0.00564635
19014.8	0.00584058
19023.6	0.00603075
19032.5	0.00621683
19041.4	0.00639876
19050.2	0.00657651
19068	0.00691933
19076.8	0.00708433
19085.7	0.00724501
19094.6	0.00740136
19103.4	0.00755334
19112.3	0.00770094
19121.1	0.00784414
19130	0.00798293
19147.7	0.00824721
19156.6	0.00837269
19165.5	0.00849372
19174.3	0.00861031
19183.2	0.00872244
19192.1	0.00883013
19200.9	0.00893339
19218.7	0.0091266
19227.5	0.00921659
19236.4	0.00930218
19245.3	0.0093834
19254.1	0.00946026
19263	0.00953278
19271.8	0.00960098
19280.7	0.0096649
19298.4	0.00977998
19307.3	0.0098312
19316.2	0.00987825
19325	0.00992116
19333.9	0.00995998
19342.8	0.00999473
19351.6	0.0100255
19360.5	0.0100522
19378.2	0.0100939
19387.1	0.010109
19396	0.0101203
19404.8	0.0101278
19413.7	0.0101316
19422.5	0.0101317
19431.4	0.0101283
19440.3	0.0101212
19458	0.0100968
19466.9	0.0100794
19475.7	0.0100587
19484.6	0.0100347
19493.5	0.0100075
19502.3	0.00997719
19511.2	0.00994373
19520.1	0.00990723
19537.8	0.00982535
19546.7	0.00978008
19555.5	0.00973202
19564.4	0.00968122
19573.2	0.00962775
19582.1	0.00957167
19591	0.00951304
19608.7	0.00938839
19617.6	0.0093225
19626.4	0.00925432
19635.3	0.00918391
19644.2	0.00911134
19653	0.00903668
19661.9	0.00895997
19670.8	0.0088813
19688.5	0.00871831
19697.4	0.00863411
19706.2	0.00854821
19715.1	0.00846065
19723.9	0.00837151
19732.8	0.00828085
19741.7	0.00818873
19750.5	0.00809522
19768.3	0.00790425
19777.1	0.00780693
19786	0.00770846
19794.9	0.0076089
19803.7	0.00750832
19812.6	0.00740678
19821.5	0.00730433
19830.3	0.00720103
19848.1	0.00699215
19856.9	0.00688668
19865.8	0.00678059
19874.6	0.00667395
19883.5	0.00656681
19892.4	0.00645923
19901.2	0.00635126
19910.1	0.00624296
19927.8	0.00602558
19936.7	0.00591661
19945.6	0.00580751
19954.4	0.00569835
19963.3	0.00558917
19972.2	0.00548002
19981	0.00537095
19998.8	0.00515326
