0	0
20.6843	0
41.3687	0
62.053	0
82.7374	0
103.422	0
124.106	0
144.79	0
165.475	0
186.159	0
206.843	0
227.528	0
248.212	0
268.897	0
289.581	0
310.265	0
330.95	0
351.634	0
372.318	1.81899e-12
393.003	9.09495e-12
413.687	4.54747e-11
434.371	1.95541e-10
455.056	7.44876e-10
475.74	2.57023e-09
496.424	8.10724e-09
517.109	2.36141e-08
537.793	6.4023e-08
558.477	1.62675e-07
579.162	3.89644e-07
599.846	8.84293e-07
620.53	1.91021e-06
641.215	3.94362e-06
661.899	7.81007e-06
682.584	1.48879e-05
703.268	2.7402e-05
723.952	4.88363e-05
744.637	8.44992e-05
765.321	0.000142282
785.791	0.000232533
805.793	0.000367782
825.097	0.000561884
843.411	0.000826878
860.509	0.00117074
872.714	0.001491
879.587	0.00170461
886.654	0.00195216
895.72	0.00231561
907.422	0.00287161
920.881	0.00365336
935.604	0.00471715
951.374	0.00614931
968.021	0.00806002
985.262	0.0105647
1002.58	0.013733
1019.93	0.0176952
1037.34	0.0226136
1054.84	0.0286714
1072.42	0.0360688
1090.08	0.0450218
1107.81	0.0557435
1125.56	0.0684466
1143.25	0.0832636
1160.85	0.100355
1178.36	0.119865
1195.79	0.14191
1213.09	0.166519
1230.16	0.193546
1246.97	0.222852
1263.4	0.254061
1279.4	0.286843
1294.9	0.320736
1309.82	0.35523
1324.27	0.390242
1338.77	0.426767
1353.7	0.465576
1368.96	0.506267
1384.59	0.548661
1400.52	0.592194
1416.69	0.63625
1432.98	0.68003
1449.38	0.722893
1465.85	0.764175
1482.38	0.803208
1498.95	0.839326
1515.52	0.871888
1532.06	0.900266
1548.55	0.923937
1564.97	0.942476
1581.15	0.955447
1596.96	0.962737
1612.41	0.964497
1627.78	0.960838
1643.23	0.951645
1658.65	0.936932
1674.02	0.916836
1689.39	0.891428
1704.88	0.860647
1720.54	0.824525
1736.37	0.783251
1752.34	0.737179
1768.46	0.686673
1784.69	0.632287
1801.01	0.574686
1817.49	0.514208
1834.05	0.451784
1850.64	0.388285
1867.17	0.324763
1883.61	0.261997
1899.97	0.200576
1916.11	0.141505
1932.11	0.0849761
1947.97	0.0312929
1963.71	-0.0193161
1979.31	-0.0666625
1994.76	-0.110541
2010.04	-0.150945
2025.19	-0.188
2040.24	-0.221878
2055.23	-0.252759
2070.18	-0.280843
2085.14	-0.306335
2100.17	-0.32948
2115.28	-0.350474
2130.49	-0.369495
2145.83	-0.386722
2161.31	-0.402336
2176.81	-0.41639
2192.39	-0.429109
2208.06	-0.440619
2223.82	-0.451043
2239.72	-0.460472
2255.72	-0.468919
2271.8	-0.47638
2287.96	-0.482818
2304.19	-0.488168
2320.5	-0.492335
2336.89	-0.495202
2353.34	-0.496631
2369.86	-0.496479
2386.45	-0.494607
2403.1	-0.490882
2419.8	-0.485198
2436.53	-0.477482
2453.26	-0.467719
2469.99	-0.455928
2486.7	-0.442174
2503.4	-0.426566
2520.07	-0.409259
2536.72	-0.390449
2553.34	-0.370371
2569.94	-0.349289
2586.49	-0.327493
2603.01	-0.305291
2619.48	-0.282998
2635.81	-0.261057
2652.04	-0.239714
2668.08	-0.219331
2683.83	-0.200266
2699.28	-0.182712
2714.43	-0.166776
2729.7	-0.152147
2745.12	-0.138982
2760.57	-0.127517
2776.02	-0.117857
2791.48	-0.110028
2806.99	-0.104041
2822.55	-0.0998827
2838.15	-0.0975056
2853.8	-0.096827
2869.48	-0.0977276
2885.21	-0.100053
2900.98	-0.103615
2916.8	-0.108194
2932.68	-0.113543
2948.61	-0.119378
2964.61	-0.125383
2980.64	-0.131211
2996.72	-0.136486
3012.84	-0.14081
3028.99	-0.143756
3045.17	-0.14488
3061.36	-0.143715
3077.54	-0.13979
3093.68	-0.132634
3109.71	-0.12183
3125.65	-0.106941
3141.52	-0.0875068
3157.33	-0.0630741
3173.09	-0.0331895
3188.86	0.00273627
3204.75	0.0455247
3220.6	0.0953125
3236.45	0.15259
3252.29	0.217832
3268.15	0.291539
3284.04	0.374165
3299.97	0.466069
3315.92	0.567534
3331.99	0.679365
3348.08	0.801175
3364.08	0.932007
3380.01	1.07169
3395.97	1.2208
3411.9	1.37835
3427.79	1.54369
3443.73	1.71714
3459.82	1.89893
3475.91	2.08659
3492	2.27892
3508.01	2.47357
3523.96	2.66936
3539.96	2.86604
3555.97	3.06172
3572	3.25458
3587.96	3.44181
3603.97	3.62293
3620	3.79587
3636.05	3.95864
3652.03	4.10861
3668.04	4.24497
3684.01	4.36561
3699.93	4.46907
3715.82	4.55423
3731.67	4.62002
3747.47	4.66559
3763.23	4.69037
3778.95	4.69399
3794.67	4.67624
3810.37	4.63709
3826.1	4.57657
3841.87	4.49485
3857.66	4.39252
3873.48	4.27036
3889.32	4.12938
3905.17	3.9708
3921.02	3.79632
3936.88	3.6073
3952.77	3.40545
3968.65	3.19291
3984.52	2.97174
4000.39	2.74395
4016.25	2.51168
4032.12	2.27693
4047.99	2.0417
4063.92	1.80715
4079.9	1.57571
4095.85	1.35015
4111.81	1.13202
4127.76	0.922983
4143.72	0.724551
4159.68	0.538022
4175.6	0.365177
4191.55	0.206213
4207.47	0.0625842
4223.43	-0.0656602
4239.47	-0.178195
4255.58	-0.274414
4271.7	-0.353674
4287.78	-0.415871
4303.84	-0.461352
4319.94	-0.490612
4336.05	-0.504035
4352.17	-0.502218
4368.29	-0.485877
4384.43	-0.455819
4400.56	-0.412973
4416.69	-0.358335
4432.84	-0.292864
4448.98	-0.217668
4465.13	-0.133858
4481.29	-0.0424298
4497.45	0.0554521
4513.61	0.15867
4529.77	0.266151
4545.94	0.376998
4562.12	0.490114
4578.29	0.604509
4594.46	0.719267
4610.62	0.83354
4626.78	0.946529
4642.96	1.05763
4659.13	1.16604
4675.31	1.27105
4691.47	1.37208
4707.62	1.46858
4723.77	1.56006
4739.91	1.64609
4756.04	1.72626
4772.16	1.80022
4788.27	1.86763
4804.38	1.92822
4820.47	1.98173
4836.55	2.02795
4852.62	2.06672
4868.67	2.09789
4884.71	2.12139
4900.74	2.13715
4916.75	2.14517
4932.75	2.14549
4948.7	2.13821
4964.6	2.12352
4980.51	2.10155
4996.43	2.07251
5012.29	2.03685
5028.16	1.99475
5044.1	1.94643
5060.03	1.89255
5075.96	1.83363
5091.88	1.77024
5107.75	1.70325
5123.63	1.63308
5139.58	1.5602
5155.57	1.48546
5171.56	1.40989
5187.57	1.3343
5203.59	1.25953
5219.63	1.18646
5235.69	1.11597
5251.77	1.04892
5267.87	0.986151
5283.99	0.928489
5300.13	0.876696
5316.29	0.831474
5332.5	0.793402
5348.74	0.763076
5365.01	0.740972
5381.3	0.727447
5397.62	0.722734
5413.95	0.726943
5430.31	0.740053
5446.68	0.761911
5463.05	0.792196
5479.42	0.830461
5495.75	0.876056
5512.06	0.928308
5528.3	0.98624
5544.47	1.04899
5560.6	1.11563
5576.68	1.18517
5592.8	1.25698
5608.92	1.32987
5625.02	1.40258
5641	1.47368
5656.96	1.54252
5672.82	1.60777
5688.6	1.66861
5704.33	1.72434
5720.12	1.77441
5735.92	1.8179
5751.74	1.85403
5767.52	1.88211
5783.3	1.90165
5799.08	1.91223
5814.86	1.91351
5830.63	1.90528
5846.33	1.88749
5862.06	1.86005
5877.82	1.82302
5893.61	1.77653
5909.44	1.72075
5925.33	1.65599
5941.27	1.58266
5957.29	1.50117
5973.36	1.41222
5989.47	1.31655
6005.64	1.215
6021.84	1.10842
6038.1	0.997756
6054.39	0.884044
6070.73	0.768353
6087.1	0.651785
6103.5	0.535462
6119.92	0.420616
6136.35	0.308383
6152.79	0.199845
6169.23	0.0960343
6185.66	-0.00205211
6202.1	-0.0935028
6218.5	-0.177322
6234.88	-0.252849
6251.22	-0.31947
6267.47	-0.376453
6283.64	-0.423527
6299.71	-0.460501
6315.78	-0.487397
6331.69	-0.503975
6347.46	-0.510486
6363.12	-0.507219
6378.69	-0.494498
6394.16	-0.472712
6409.53	-0.442336
6424.79	-0.403927
6439.95	-0.358055
6455.02	-0.305298
6470.02	-0.246242
6484.96	-0.181489
6499.91	-0.111369
6514.91	-0.0363399
6530.04	0.0434124
6545.28	0.127133
6560.59	0.213833
6575.96	0.302768
6591.41	0.39316
6606.93	0.484192
6622.52	0.575034
6638.18	0.664842
6653.93	0.752838
6669.76	0.838155
6685.67	0.91995
6701.68	0.997524
6717.76	1.06995
6733.91	1.13649
6750.11	1.19647
6766.38	1.24927
6782.71	1.29436
6799.1	1.33128
6815.55	1.35965
6832.06	1.37917
6848.63	1.38962
6865.26	1.39088
6881.95	1.38292
6898.7	1.36581
6915.5	1.3397
6932.36	1.30486
6949.26	1.26164
6966.19	1.21053
6983.12	1.15223
7000.03	1.08739
7016.94	1.01671
7033.84	0.940972
7050.74	0.860962
7067.63	0.777521
7084.51	0.691505
7101.38	0.603807
7118.24	0.515315
7134.96	0.427567
7151.52	0.34155
7167.91	0.258062
7184.13	0.177826
7200.05	0.102047
7215.73	0.0310054
7231.19	-0.0349893
7246.43	-0.0956251
7261.39	-0.150361
7276.09	-0.19913
7290.52	-0.241799
7304.7	-0.278402
7318.67	-0.309069
7332.5	-0.333898
7346.22	-0.352943
7359.93	-0.366261
7373.72	-0.373774
7387.69	-0.37529
7401.75	-0.370568
7415.91	-0.359456
7430.16	-0.34186
7444.51	-0.317706
7458.95	-0.286945
7473.52	-0.249539
7488.2	-0.205489
7503.01	-0.154843
7517.94	-0.0977577
7532.98	-0.0344104
7548.1	0.0348676
7563.32	0.109795
7578.63	0.190044
7594.03	0.275237
7609.52	0.364943
7625.09	0.458659
7640.74	0.555901
7656.48	0.656132
7672.3	0.758777
7688.19	0.863245
7704.17	0.968925
7720.21	1.07519
7736.33	1.18141
7752.52	1.28698
7768.76	1.39125
7785.07	1.49358
7801.42	1.59341
7817.83	1.69022
7834.3	1.78354
7850.82	1.87292
7867.39	1.95799
7884.02	2.03842
7900.7	2.11393
7917.45	2.18433
7934.25	2.24946
7951.11	2.30927
7968.02	2.36375
7984.97	2.41291
8001.94	2.45689
8018.93	2.49595
8035.95	2.5304
8052.99	2.56062
8070.06	2.58703
8087.16	2.6101
8104.28	2.63034
8121.43	2.64829
8138.61	2.6645
8155.82	2.67955
8173.06	2.694
8190.33	2.70842
8207.62	2.72334
8224.95	2.73925
8242.3	2.75664
8259.68	2.77589
8277.08	2.79736
8294.5	2.8213
8311.94	2.84793
8329.39	2.87735
8346.86	2.90958
8364.33	2.94457
8381.82	2.98215
8399.3	3.02211
8416.79	3.06412
8434.22	3.10766
8451.58	3.15227
8468.86	3.19745
8486.07	3.24268
8503.08	3.28712
8519.79	3.33004
8535.92	3.37033
8551.18	3.40702
8565.33	3.43951
8577.74	3.46661
8589.58	3.4911
8601.4	3.51408
8613.05	3.53524
8624.76	3.55494
8636.69	3.5733
8648.84	3.59021
8661.16	3.60549
8673.7	3.61911
8686.51	3.63106
8699.49	3.64122
8712.62	3.64961
8725.97	3.65636
8739.56	3.66158
8753.39	3.66545
8767.5	3.66822
8781.81	3.67018
8796.31	3.67174
8805.5	3.67276
8820.36	3.67472
8835.38	3.67768
8850.57	3.68229
8864.78	3.68869
8876.63	3.69595
8886.8	3.70384
8902.49	3.71936
8918.26	3.73978
8934.13	3.76583
8950.07	3.79818
8966.09	3.83744
8982.17	3.88414
8998.31	3.93868
9014.47	4.0013
9030.69	4.0722
9046.95	4.15141
9063.25	4.23885
9077.43	4.3211
9077.61	4.32214
9077.75	4.32297
9077.89	4.32381
9078.02	4.32464
9078.16	4.32547
9078.3	4.3263
9078.44	4.32714
9078.58	4.32799
9078.72	4.32883
9078.86	4.32967
9079	4.33052
9079.14	4.33136
9079.28	4.33221
9079.42	4.33306
9079.56	4.33391
9079.7	4.33476
9079.84	4.33561
9079.98	4.33646
9080.12	4.33731
9080.26	4.33817
9080.41	4.33902
9080.55	4.33988
9080.69	4.34073
9080.83	4.34159
9080.97	4.34245
9081.11	4.34331
9081.25	4.34417
9081.39	4.34503
9081.53	4.34589
9081.67	4.34675
9081.82	4.34761
9081.96	4.34848
9082.1	4.34934
9082.24	4.35021
9082.38	4.35107
9082.52	4.35194
9082.66	4.35281
9082.81	4.35367
9082.95	4.35454
9083.09	4.35541
9083.23	4.35628
9083.37	4.35715
9083.51	4.35802
9083.65	4.35889
9083.8	4.35977
9083.94	4.36064
9084.08	4.36151
9084.22	4.36239
9084.36	4.36326
9084.5	4.36414
9084.65	4.36501
9084.79	4.36589
9084.93	4.36677
9085.07	4.36764
9085.21	4.36852
9085.36	4.3694
9085.5	4.37028
9085.64	4.37116
9085.78	4.37204
9085.92	4.37293
9086.06	4.37381
9086.21	4.37469
9086.35	4.37557
9086.49	4.37646
9086.63	4.37734
9086.77	4.37823
9086.92	4.37911
9087.06	4.38
9087.2	4.38089
9087.34	4.38177
9087.48	4.38266
9087.63	4.38355
9087.77	4.38444
9087.91	4.38533
9088.05	4.38622
9088.19	4.38711
9088.34	4.388
9088.48	4.3889
9088.62	4.38979
9088.76	4.39069
9088.9	4.39158
9089.05	4.39248
9089.19	4.39338
9089.33	4.39428
9089.48	4.39518
9089.62	4.39608
9089.76	4.39699
9089.91	4.39789
9090.05	4.39879
9090.19	4.3997
9090.34	4.40061
9090.48	4.40152
9090.62	4.40243
9090.77	4.40334
9090.91	4.40426
9091.06	4.40517
9091.2	4.40609
9091.35	4.40701
9091.49	4.40794
9091.64	4.40886
9091.78	4.4098
9091.93	4.41073
9092.08	4.41167
9092.23	4.41262
9092.37	4.41357
9092.52	4.41453
9092.68	4.41549
9092.83	4.41646
9092.98	4.41743
9093.13	4.41842
9093.29	4.41943
9093.44	4.42039
9093.6	4.42144
9093.77	4.4225
9093.94	4.42359
9094.11	4.42469
9094.29	4.42585
9094.47	4.42698
9094.65	4.42813
9094.83	4.4293
9095.01	4.43048
9095.2	4.43168
9095.39	4.43295
9095.59	4.43419
9095.78	4.43544
9095.93	4.43643
9096.12	4.43763
9096.31	4.43884
9096.51	4.44017
9096.74	4.44165
9097.02	4.44345
9097.27	4.44508
9097.47	4.44637
9097.65	4.4476
9097.81	4.44862
9098	4.44985
9098.19	4.45109
9098.38	4.4523
9098.53	4.45332
9098.73	4.45464
9098.93	4.45589
9099.15	4.45738
9099.32	4.45845
9099.51	4.45974
9099.68	4.46081
9099.84	4.46188
9100.01	4.46296
9100.17	4.46404
9100.33	4.46512
9100.5	4.46618
9100.66	4.46726
9100.83	4.46836
9100.99	4.46943
9101.16	4.47054
9101.32	4.47162
9101.52	4.4729
9101.68	4.47396
9101.85	4.47513
9102.02	4.47625
9102.19	4.47735
9102.36	4.47846
9102.52	4.47957
9102.69	4.48066
9102.85	4.48176
9103.02	4.48285
9103.19	4.48398
9103.36	4.4851
9103.58	4.48657
9103.79	4.48795
9104.04	4.48965
9104.33	4.49154
9104.61	4.49346
9104.91	4.49542
9105.18	4.49726
9105.44	4.49901
9105.71	4.50079
9105.9	4.50202
9106.11	4.50346
9106.29	4.50468
9106.47	4.5059
9106.66	4.50713
9106.87	4.50858
9107.06	4.50981
9107.24	4.51105
9107.42	4.51229
9107.6	4.51351
9107.78	4.51471
9107.95	4.51587
9108.13	4.51706
9108.32	4.51832
9108.49	4.51951
9108.69	4.52082
9108.9	4.52222
9109.12	4.52374
9109.33	4.52515
9109.69	4.52764
9110	4.52971
9110.29	4.53165
9110.51	4.53318
9110.72	4.53462
9110.96	4.53626
9111.2	4.53787
9111.4	4.53925
9111.64	4.54086
9111.84	4.54221
9112.04	4.54359
9112.24	4.54496
9112.43	4.54629
9112.62	4.5476
9112.82	4.54893
9113.01	4.55023
9113.19	4.55151
9113.38	4.5528
9113.57	4.55406
9113.75	4.55534
9113.94	4.55663
9114.13	4.55793
9114.36	4.55954
9114.64	4.56144
9114.94	4.56352
9115.29	4.56592
9115.65	4.56839
9115.98	4.57066
9116.33	4.57313
9116.63	4.57522
9116.92	4.57717
9117.2	4.57915
9117.48	4.58107
9117.75	4.58299
9118.03	4.58494
9118.27	4.58661
9118.53	4.58841
9118.78	4.59012
9119	4.59163
9119.26	4.59345
9119.47	4.59497
9119.68	4.59643
9119.9	4.59793
9120.11	4.59941
9120.3	4.60073
9120.48	4.60201
9120.67	4.60334
9120.88	4.60479
9121.12	4.60649
9121.38	4.60835
9121.65	4.6102
9121.91	4.61207
9122.18	4.61396
9122.46	4.61589
9122.7	4.61759
9122.93	4.61919
9123.16	4.62086
9123.4	4.62253
9123.6	4.62398
9123.84	4.62563
9124.06	4.62723
9124.28	4.62877
9124.5	4.63034
9124.72	4.63188
9124.99	4.6338
9125.3	4.63598
9125.59	4.63806
9125.84	4.63981
9126.13	4.64191
9126.39	4.6437
9126.63	4.64544
9126.88	4.64722
9127.12	4.64895
9127.36	4.6506
9127.59	4.65231
9127.82	4.65394
9128.06	4.65561
9128.34	4.65765
9128.87	4.66144
9129.42	4.66534
9129.74	4.66767
9130.08	4.67011
9130.4	4.67238
9130.74	4.67485
9131.01	4.67679
9131.33	4.67907
9131.63	4.68125
9131.89	4.68309
9132.19	4.68528
9132.44	4.68708
9132.75	4.68934
9133.09	4.69177
9133.38	4.6939
9133.72	4.69638
9134.05	4.69875
9134.33	4.70076
9134.66	4.70313
9134.98	4.70547
9135.75	4.71105
9136.36	4.71552
9136.82	4.71883
9137.3	4.72237
9137.71	4.72537
9138.07	4.72801
9138.45	4.73076
9138.79	4.73327
9139.14	4.73584
9139.5	4.73841
9139.85	4.74102
9140.2	4.74355
9140.55	4.74611
9140.9	4.74872
9141.25	4.7513
9141.58	4.7537
9141.91	4.75615
9142.25	4.75864
9142.68	4.76185
9143.1	4.76489
9143.44	4.76747
9143.9	4.7708
9144.32	4.77396
9144.69	4.77665
9145.17	4.78026
9145.51	4.78277
9145.85	4.78528
9146.23	4.78807
9146.61	4.79094
9147.04	4.79408
9147.38	4.79664
9147.73	4.79921
9148.22	4.80292
9148.69	4.80637
9149.12	4.80957
9149.56	4.81287
9150.06	4.81663
9150.52	4.82002
9151.04	4.82397
9151.57	4.82791
9152.13	4.83211
9152.62	4.8358
9153.05	4.83901
9153.51	4.84246
9153.99	4.84603
9154.53	4.8501
9155.05	4.85401
9155.58	4.85799
9156.11	4.86204
9156.65	4.86608
9157.17	4.86997
9157.38	4.87157
9157.62	4.87342
9157.82	4.87493
9158.03	4.87646
9158.25	4.87815
9158.47	4.87982
9158.7	4.88154
9158.99	4.88374
9159.26	4.88582
9159.6	4.88834
9160.28	4.89351
9170.07	4.96807
9180.01	5.04437
9190.01	5.12138
9200.06	5.19875
9210.03	5.27517
9220.09	5.35148
9230.1	5.42638
9240.07	5.49953
9250.04	5.57085
9260	5.64003
9270.01	-nan
9280.02	-nan
9290.02	-nan
9300.04	-nan
9310.08	-nan
9320.1	-nan
9330.06	-nan
9340.18	-nan
9350.18	-nan
9360.15	-nan
9370.14	-nan
9380.05	-nan
9390.03	-nan
9400.28	-nan
9410.35	-nan
9420.08	-nan
9430.09	-nan
9440.35	-nan
9450.35	-nan
9460.42	-nan
9470.46	-nan
9480.42	-nan
9490.21	-nan
9500.34	-nan
9510.25	-nan
9520.52	-nan
9530.52	-nan
9540.23	-nan
9550.28	-nan
9560	-nan
9570.08	-nan
9580.57	-nan
9590.67	-nan
9600.29	-nan
9610.19	-nan
9620.42	-nan
9630.08	-nan
9640.03	-nan
9650.29	-nan
9660.87	-nan
9670.76	-nan
9680.91	-nan
9690.27	-nan
9700.93	-nan
9710.76	-nan
9720.82	-nan
9731.1	-nan
9740.44	-nan
9751.04	-nan
9760.74	-nan
9770.67	-nan
9780.8	-nan
9791.13	-nan
9800.32	-nan
9811.02	-nan
9820.54	-nan
9830.22	-nan
9840.06	-nan
9850.06	-nan
9860.23	-nan
9870.57	-nan
9881.07	-nan
9890.22	-nan
9901.06	-nan
9910.5	-nan
9920.09	-nan
9931.45	-nan
9941.35	-nan
9951.41	-nan
9961.62	-nan
9970.25	-nan
9980.75	-nan
9991.4	-nan
10000.4	-nan
10011.4	-nan
10020.7	-nan
10030.1	-nan
10041.5	-nan
10051.2	-nan
10061.1	-nan
10071.1	-nan
10081.2	-nan
10091.5	-nan
10102	-nan
10110.4	-nan
10121.1	-nan
10132	-nan
10140.8	-nan
10152	-nan
10161	-nan
10170.1	-nan
10181.7	-nan
10191.1	-nan
10200.6	-nan
10210.2	-nan
10222.3	-nan
10232.1	-nan
10242.1	-nan
10252.1	-nan
10262.3	-nan
10272.6	-nan
10280.4	-nan
10290.9	-nan
10301.5	-nan
10312.2	-nan
10320.4	-nan
10331.3	-nan
10342.4	-nan
10350.8	-nan
10362.1	-nan
10370.7	-nan
10382.3	-nan
10391	-nan
10402.8	-nan
10411.7	-nan
10420.7	-nan
10432.9	-nan
10442.1	-nan
10451.3	-nan
10460.7	-nan
10470.1	-nan
10482.8	-nan
10492.5	-nan
10502.2	-nan
10512	-nan
10521.9	-nan
10531.2	-nan
10541.3	-nan
10551.4	-nan
10561.6	-nan
10571.9	-nan
10582.4	-nan
10592.9	-nan
10603.4	-nan
10610.6	-nan
10621.3	-nan
10632.1	-nan
10643.1	-nan
10650.4	-nan
10661.5	-nan
10672.7	-nan
10680.2	-nan
10691.6	-nan
10703	-nan
10710.7	-nan
10722.3	-nan
10730.1	-nan
10741.9	-nan
10753.7	-nan
10761.7	-nan
10773.8	-nan
10780	-nan
10790.7	-nan
10800.8	-nan
10810.7	-nan
10820.7	-nan
10832.4	-nan
10840.3	-nan
10852.2	-nan
10862.1	-nan
10872.8	-nan
10880.4	-nan
10892.6	-nan
10900.9	-nan
10913.9	-nan
10922.8	-nan
10931.8	-nan
10940.7	-nan
10954.4	-nan
10963.5	-nan
10972.8	-nan
10982.2	-nan
10991.6	-nan
11001.2	-nan
11011	-nan
11020	-nan
11031	-nan
11040.5	-nan
11050.8	-nan
11061.2	-nan
11071	-nan
11082.2	-nan
11091.5	-nan
11101.3	-nan
11111.3	-nan
11121.7	-nan
11132.5	-nan
11140	-nan
11150	-nan
11160	-nan
11170	-nan
11180.1	-nan
11190.2	-nan
11200.1	-nan
11210.3	-nan
11220	-nan
11230.4	-nan
11240.1	-nan
11250.1	-nan
11260.1	-nan
11270.3	-nan
11280.2	-nan
11290.2	-nan
11300.2	-nan
11310.4	-nan
11320.2	-nan
11330	-nan
11340.4	-nan
11350.1	-nan
11360.3	-nan
11370.3	-nan
11380.1	-nan
11390.3	-nan
11400.2	-nan
11410.5	-nan
11420.4	-nan
11430.6	-nan
11440.5	-nan
11450.6	-nan
11460.2	-nan
11470.1	-nan
11480.2	-nan
11490.7	-nan
11500.5	-nan
11510.6	-nan
11520	-nan
11530	-nan
11540.1	-nan
11550	-nan
11560.2	-nan
11570.2	-nan
11580.3	-nan
11590.1	-nan
11600.2	-nan
11610.4	-nan
11620.1	-nan
11630.2	-nan
11640.2	-nan
11650	-nan
11660.1	-nan
11670.4	-nan
11680.7	-nan
11690.1	-nan
11700.8	-nan
11710.3	-nan
11720.2	-nan
11730.7	-nan
11740.6	-nan
11751	-nan
11760.7	-nan
11770.9	-nan
11780.4	-nan
11790.3	-nan
11800.6	-nan
11811.3	-nan
11821.1	-nan
11831.3	-nan
11840.3	-nan
11851.2	-nan
11860.9	-nan
11870.9	-nan
11881.3	-nan
11890.2	-nan
11901.1	-nan
11910.5	-nan
11920.2	-nan
11930.1	-nan
11940.3	-nan
11950.8	-nan
11961.5	-nan
11970.3	-nan
11981.6	-nan
11990.9	-nan
12000.3	-nan
12012.2	-nan
12021.8	-nan
12031.6	-nan
12041.4	-nan
12051.4	-nan
12061.5	-nan
12071.7	-nan
12082	-nan
12092.4	-nan
12100.3	-nan
12110.9	-nan
12121.5	-nan
12132.2	-nan
12140.3	-nan
12151.2	-nan
12162.2	-nan
12170.5	-nan
12181.6	-nan
12192.8	-nan
12201.3	-nan
12212.6	-nan
12221.2	-nan
12232.8	-nan
12241.5	-nan
12250.2	-nan
12262	-nan
12270.9	-nan
12282.8	-nan
12291.9	-nan
12300.9	-nan
12310.1	-nan
12322.3	-nan
12331.5	-nan
12340.8	-nan
12350.1	-nan
12362.7	-nan
12372.1	-nan
12381.6	-nan
12391.2	-nan
12400.2	-nan
12413.1	-nan
12422.8	-nan
12432.6	-nan
12442.5	-nan
12452.4	-nan
12462.3	-nan
12472.4	-nan
12482.5	-nan
12492.6	-nan
12502.9	-nan
12513.1	-nan
12520	-nan
12530.3	-nan
12540.4	-nan
12550.3	-nan
12560.2	-nan
12573.1	-nan
12582.7	-nan
12592.2	-nan
12601.5	-nan
12610.8	-nan
12622.9	-nan
12632	-nan
12640.9	-nan
12652.7	-nan
12661.4	-nan
12670	-nan
12681.4	-nan
12692.6	-nan
12701	-nan
12712	-nan
12720.2	-nan
12731	-nan
12741.7	-nan
12752.2	-nan
12760.1	-nan
12770.5	-nan
12780.7	-nan
12790.9	-nan
12801	-nan
12811	-nan
12820.9	-nan
12830.7	-nan
12840.4	-nan
12850	-nan
12862	-nan
12871.4	-nan
12880.8	-nan
12890.1	-nan
12900	-nan
12910.1	-nan
12920.3	-nan
12930.1	-nan
12940	-nan
12950.3	-nan
12960.2	-nan
12970.2	-nan
12980.2	-nan
12990.8	-nan
13001.1	-nan
13011.3	-nan
13021.4	-nan
13031.1	-nan
13040	-nan
13051.8	-nan
13060.3	-nan
13071.8	-nan
13081.7	-nan
13092.2	-nan
13100.7	-nan
13112.6	-nan
13122.1	-nan
13132.1	-nan
13142.6	-nan
13153.6	-nan
13161.3	-nan
13171.1	-nan
13183.7	-nan
13192.4	-nan
13201.4	-nan
13210.3	-nan
13223.7	-nan
13232.9	-nan
13242.5	-nan
13250.8	-nan
13262	-nan
13272.4	-nan
13280.4	-nan
13290.8	-nan
13301	-nan
13315.4	-nan
13322.1	-nan
13332.4	-nan
13344.9	-nan
13351.7	-nan
13365.3	-nan
13375.3	-nan
13381.8	-nan
13395.9	-nan
13403	-nan
13410.1	-nan
13426.5	-nan
13433.7	-nan
13444.2	-nan
13450.1	-nan
13460.1	-nan
13470.4	-nan
13480	-nan
13490.1	-nan
13500.1	-nan
13510	-nan
13520.2	-nan
13530.7	-nan
13540.7	-nan
13551.6	-nan
13561.1	-nan
13571.7	-nan
13580.3	-nan
13590.1	-nan
13600.3	-nan
13611	-nan
13620.3	-nan
13631.7	-nan
13640.9	-nan
13651	-nan
13661.2	-nan
13672	-nan
13680.9	-nan
13692.9	-nan
13702.3	-nan
13710.1	-nan
13720.1	-nan
13730.1	-nan
13740.1	-nan
13750.5	-nan
13761.3	-nan
13771.3	-nan
13781.1	-nan
13790.8	-nan
13800	-nan
13811.1	-nan
13824.8	-nan
13834.6	-nan
13844.1	-nan
13854.9	-nan
13860.4	-nan
13871.2	-nan
13880.7	-nan
13891.5	-nan
13903.5	-nan
13914.6	-nan
13921	-nan
13936.1	-nan
13940.7	-nan
13950.2	-nan
13961	-nan
13970.7	-nan
13981.5	-nan
13993.3	-nan
14004.9	-nan
14010.5	-nan
14023.4	-nan
14030.3	-nan
14040.5	-nan
14050	-nan
14060.8	-nan
14070.5	-nan
14080.7	-nan
14090	-nan
14100.5	-nan
14110.5	-nan
14121.7	-nan
14130	-nan
14141.4	-nan
14151.4	-nan
14162.1	-nan
14170.7	-nan
14183.1	-nan
14193.1	-nan
14203.5	-nan
14210.8	-nan
14222.1	-nan
14230	-nan
14242	-nan
14250.6	-nan
14262	-nan
14270.2	-nan
14283.3	-nan
14290.2	-nan
14303.4	-nan
14312.3	-nan
14320	-nan
14330	-nan
14340	-nan
14350	-nan
14360	-nan
14370.6	-nan
14380.2	-nan
14390.5	-nan
14400.8	-nan
14410.2	-nan
14420.5	-nan
14430.6	-nan
14440.1	-nan
14450.1	-nan
14460.3	-nan
14470.5	-nan
14480.9	-nan
14490	-nan
14500.6	-nan
14511.2	-nan
14520.4	-nan
14530.6	-nan
14540.9	-nan
14550.1	-nan
14560.8	-nan
14570.4	-nan
14580.2	-nan
14590.3	-nan
14600.6	-nan
14611.3	-nan
14620.7	-nan
14630.4	-nan
14640.4	-nan
14650.7	-nan
14661.3	-nan
14670.5	-nan
14681.8	-nan
14691.5	-nan
14701.6	-nan
14712	-nan
14720.5	-nan
14731.5	-nan
14740.5	-nan
14752.1	-nan
14761.6	-nan
14771.3	-nan
14781.3	-nan
14791.5	-nan
14802	-nan
14812.6	-nan
14820.8	-nan
14831.9	-nan
14840.3	-nan
14851.9	-nan
14860.6	-nan
14872.6	-nan
14881.7	-nan
14891	-nan
14900.4	-nan
14913.2	-nan
14922.9	-nan
14932.8	-nan
14942.9	-nan
14953.2	-nan
14960.1	-nan
14970.4	-nan
14981.1	-nan
14992	-nan
15003	-nan
15010.5	-nan
15021.9	-nan
15033.4	-nan
15041.2	-nan
15053	-nan
15060.9	-nan
15072.9	-nan
15081	-nan
15093.3	-nan
15101.5	-nan
15114	-nan
15122.4	-nan
15130.9	-nan
15143.7	-nan
15152.3	-nan
15161	-nan
15174.1	-nan
15183	-nan
15191.9	-nan
15200.9	-nan
15210.1	-nan
15223.9	-nan
15233.3	-nan
15242.7	-nan
15252.2	-nan
15261.8	-nan
15271.6	-nan
15281.6	-nan
15291.8	-nan
15302.1	-nan
15312.5	-nan
15323	-nan
15333.7	-nan
15344.5	-nan
15355.5	-nan
15361	-nan
15371.8	-nan
15383.3	-nan
15393.5	-nan
15405.4	-nan
15411.3	-nan
15420.5	-nan
15430.8	-nan
15440.1	-nan
15455	-nan
15461.4	-nan
15470.8	-nan
15481.8	-nan
15491.1	-nan
15502.3	-nan
15513.9	-nan
15526.2	-nan
15533	-nan
15540.3	-nan
15555	-nan
15562.4	-nan
15577.3	-nan
15584.7	-nan
15592	-nan
15606.7	-nan
15614	-nan
15621.3	-nan
15635.8	-nan
15643.2	-nan
15653.2	-nan
15664.2	-nan
15671.8	-nan
15681.6	-nan
15697.4	-nan
15706.1	-nan
15714.8	-nan
15723.6	-nan
15731.5	-nan
15740.3	-nan
15758	-nan
15766.8	-nan
15775.7	-nan
15784.6	-nan
15794.4	-nan
15800.9	-nan
15816.3	-nan
15825.3	-nan
15836.1	-nan
15845.3	-nan
15854.5	-nan
15863.8	-nan
15873.2	-nan
15882.5	-nan
15892	-nan
15901.5	-nan
15911	-nan
15920	-nan
15939.3	-nan
15949	-nan
15958.8	-nan
15968.6	-nan
15978.5	-nan
15988.1	-nan
15990.8	-nan
16000.8	-nan
16010.8	-nan
16020.8	-nan
16030.9	-nan
16046.9	-nan
16057.1	-nan
16064.3	-nan
16073.5	-nan
16080.4	-nan
16090.5	-nan
16100.5	-nan
16110.6	-nan
16120.1	-nan
16130.2	-nan
16140.2	-nan
16150.3	-nan
16168.2	-nan
16179.9	-nan
16191.6	-nan
16203.4	-nan
16204.2	-nan
16210.4	-nan
16220	-nan
16230.2	-nan
16240.3	-nan
16250.4	-nan
16260	-nan
16270.1	-nan
16280.5	-nan
16290.4	-nan
16305.7	-nan
16313.8	-nan
16323.5	-nan
16331.1	-nan
16349.5	-nan
16360.6	-nan
16363.4	-nan
16374.2	-nan
16384.9	-nan
16397	-nan
16409.1	-nan
16421.1	-nan
16433.2	-nan
16445.3	-nan
16457.4	-nan
16469.5	-nan
16481.6	-nan
16493.6	-nan
16505.7	-nan
16517.8	-nan
16529.9	-nan
16542	-nan
16554.1	-nan
16554.1	-nan
16554.2	-nan
16554.2	-nan
16560	-nan
16576	-nan
16588.1	-nan
16600.2	-nan
16612.2	-nan
16616.7	-nan
16623.9	-nan
16630.7	-nan
16648.1	-nan
16658.2	-nan
16669.9	-nan
16682	-nan
16694.1	-nan
16706.1	-nan
16718.2	-nan
16730.3	-nan
16742.4	-nan
16754.5	-nan
16766.6	-nan
16778.6	-nan
16778.7	-nan
16778.9	-nan
16780.1	-nan
16790.2	-nan
16800.6	-nan
16810.5	-nan
16820.5	-nan
16831.1	-nan
16841.2	-nan
16851.5	-nan
16860.4	-nan
16870.4	-nan
16881.2	-nan
16892.8	-nan
16902.3	-nan
16912.2	-nan
16922.8	-nan
16930.1	-nan
16941.5	-nan
16950	-nan
16964.2	-nan
16973.3	-nan
16982.6	-nan
16992.6	-nan
17002.8	-nan
17013.3	-nan
17024.5	-nan
17030.2	-nan
17041.7	-nan
17053.8	-nan
17060.2	-nan
17073.1	-nan
17086.3	-nan
17093	-nan
17106.5	-nan
17113.4	-nan
17120.4	-nan
17134.9	-nan
17142.2	-nan
17157.1	-nan
17164.8	-nan
17174.9	-nan
17183	-nan
17191.3	-nan
17208.5	-nan
17217.3	-nan
17226.4	-nan
17235.8	-nan
17245.4	-nan
17255.3	-nan
17265.3	-nan
17275.6	-nan
17286.1	-nan
17296.6	-nan
17307.4	-nan
17318.4	-nan
17329.7	-nan
17341.2	-nan
17352.9	-nan
17364.9	-nan
17377	-nan
17389	-nan
17401.1	-nan
17413.2	-nan
17425.3	-nan
17437.3	-nan
17437.4	-nan
17437.4	-nan
17440	-nan
17450	-nan
17460.1	-nan
17470.2	-nan
17480.1	-nan
17490.3	-nan
17500.3	-nan
17510.3	-nan
17520	-nan
17530.5	-nan
17540.2	-nan
17550.2	-nan
17560.1	-nan
17570.1	-nan
17580.2	-nan
17590.7	-nan
17600.5	-nan
17610	-nan
17620	-nan
17630	-nan
17640	-nan
17650	-nan
17660.2	-nan
17670.3	-nan
17680	-nan
17690.9	-nan
17701	-nan
17711.2	-nan
17720.3	-nan
17730.6	-nan
17740.5	-nan
17751.3	-nan
17760.9	-nan
17770.9	-nan
17780.2	-nan
17790	-nan
17800.7	-nan
17810.2	-nan
17820.1	-nan
17830	-nan
17840.8	-nan
17853.9	-nan
17864.4	-nan
17875.4	-nan
17881	-nan
17893.5	-nan
17905.5	-nan
17911.7	-nan
17924.2	-nan
17930.6	-nan
17944.1	-nan
17951.2	-nan
17965.6	-nan
17972.9	-nan
17980.3	-nan
17995.3	-nan
18002.9	-nan
18010.7	-nan
18026.6	-nan
18034.7	-nan
18042.9	-nan
18051.2	-nan
18068	-nan
18076.5	-nan
18085.1	-nan
18093.7	-nan
18102.5	-nan
18111.4	-nan
18120.6	-nan
18139.9	-nan
18150.2	-nan
18150.3	-nan
18160.7	-nan
18170.2	-nan
18181.8	-nan
18190.8	-nan
18200	-nan
18213.5	-nan
18223.4	-nan
18233.3	-nan
18240.1	-nan
18253.8	-nan
18263.2	-nan
18274.5	-nan
18286.6	-nan
18298.6	-nan
18310.7	-nan
18322.8	-nan
18334.9	-nan
18347	-nan
18359.1	-nan
18371.1	-nan
18383.2	-nan
18395.3	-nan
18407.4	-nan
18419.5	-nan
18431.6	-nan
18443.6	-nan
18455.7	-nan
18467.8	-nan
18468.3	-nan
18468.7	-nan
18469.1	-nan
18470.3	-nan
18480	-nan
18490.4	-nan
18500.6	-nan
18510.1	-nan
18521.9	-nan
18531.2	-nan
18541.5	-nan
18550.1	-nan
18560.5	-nan
18570.7	-nan
18580	-nan
18590.1	-nan
18600.2	-nan
18610	-nan
18620.6	-nan
18630.4	-nan
18640.4	-nan
18651.1	-nan
18661.1	-nan
18671	-nan
18680.5	-nan
18690.9	-nan
18700.5	-nan
18711	-nan
18720	-nan
18732.3	-nan
18740.3	-nan
18751.6	-nan
18760.6	-nan
18770.2	-nan
18780.4	-nan
18791.2	-nan
18802.7	-nan
18810.8	-nan
18823.4	-nan
18832	-nan
18840.7	-nan
18854	-nan
18863	-nan
18872.1	-nan
18881.5	-nan
18891.4	-nan
18902	-nan
18913.3	-nan
18924.6	-nan
18930.2	-nan
18941	-nan
18951.8	-nan
18962.7	-nan
18973.9	-nan
18985.4	-nan
18991.3	-nan
19003.5	-nan
19016.1	-nan
19022.5	-nan
19035.7	-nan
19042.5	-nan
19056.3	-nan
19063.4	-nan
19070.6	-nan
19085.4	-nan
19093.1	-nan
19101.1	-nan
19117.6	-nan
19126.2	-nan
19135.1	-nan
19144.2	-nan
19153.6	-nan
19163.3	-nan
19173.2	-nan
19183.5	-nan
19194.2	-nan
19205.2	-nan
19216.6	-nan
19228.3	-nan
19236.6	-nan
19248.7	-nan
19260.8	-nan
19272.9	-nan
19284.9	-nan
19297	-nan
19309.1	-nan
19321.2	-nan
19333.3	-nan
19345.4	-nan
19357.4	-nan
19369.5	-nan
19381.6	-nan
19393.7	-nan
19405.8	-nan
19417.8	-nan
19429.9	-nan
19442	-nan
19454.1	-nan
19466.2	-nan
19478.3	-nan
19490.3	-nan
19502.4	-nan
19514.5	-nan
19526.6	-nan
19538.7	-nan
19550.8	-nan
19562.8	-nan
19574.9	-nan
19587	-nan
19599.1	-nan
19611.2	-nan
19623.3	-nan
19635.3	-nan
19647.4	-nan
19659.5	-nan
19671.6	-nan
19683.7	-nan
19695.7	-nan
19707.8	-nan
19719.9	-nan
19732	-nan
19744.1	-nan
19756.2	-nan
19767.6	-nan
19779.7	-nan
19791.8	-nan
19803.8	-nan
19815.9	-nan
19828	-nan
19840.1	-nan
19852.2	-nan
19864.2	-nan
19876.3	-nan
19888.4	-nan
19900.5	-nan
19912.6	-nan
19924.7	-nan
19936.7	-nan
19948.8	-nan
19960.9	-nan
19973	-nan
19985.1	-nan
19997.2	-nan
