0	0
10.1663	0
20.3325	0
30.4987	0
40.6649	0
50.8311	0
60.9971	0
70.1464	0
80.3121	0
90.4777	0
100.643	0
110.808	0
120.974	0
130.123	0
140.289	0
150.455	0
160.429	0
170.394	0
180.358	0
190.322	0
200.286	0
210.25	0
220.215	0
230.179	0
240.143	0
250.107	0
260.071	0
270.035	0
280.996	0
290.959	0
300.921	0
310.883	0
320.845	0
330.807	0
340.769	0
350.731	0
360.693	0
370.655	0
380.617	0
390.579	0
400.541	0
410.495	0
420.369	0
430.184	0
440.974	0
450.777	0
460.501	0
470.142	0
480.715	0
490.327	0
500.9	0
510.512	0
520.124	0
530.675	0
540.201	0
550.652	0
560.15	0
570.596	0
580.083	0
590.512	0
600.931	0
610.395	0
620.804	0
630.268	0
640.677	0
650.14	0
660.55	0
670.013	0
680.422	0
690.832	0
700.295	0
710.704	0
720.167	0
730.576	0
740.029	0
750.409	0
760.787	0
770.222	0
780.6	0
790.035	0
800.414	0
810.793	0
820.228	0
830.606	0
840.041	0
850.42	0
860.798	0
870.233	0
880.612	0
890.047	0
900.425	0
910.804	0
920.239	0
930.617	0
940.052	0
950.43	0
960.809	0
970.244	0
980.622	0
990.057	0
1000.44	0
1010.81	0
1020.25	0
1030.63	0
1040.06	0
1050.44	0
1060.82	0
1070.25	0
1080.63	0
1090.07	0
1100.45	0
1110.82	0
1120.26	0
1130.64	0
1140.07	0
1150.45	0
1160.83	0
1170.26	0
1180.64	0
1190.08	0
1200.45	0
1210.83	0
1220.26	0
1230.64	0
1240.07	0
1250.45	0
1260.82	0
1270.26	0
1280.63	0
1290.07	0
1300.44	0
1310.82	0
1320.25	0
1330.59	0
1340.92	0
1350.32	0
1360.64	0
1370.02	0
1380.34	0
1390.66	0
1400.03	0
1410.32	0
1420.62	0
1430.91	0
1440.27	0
1450.55	0
1460.84	0
1470.2	0
1480.49	0
1490.77	0
1500.13	0
1510.4	0
1520.64	0
1530.87	0
1540.17	0
1550.41	0
1560.64	0
1570.87	0
1580.18	0
1590.41	0
1600.64	0
1610.87	0
1620.1	0
1630.19	0
1640.28	0
1650.37	0
1660.45	0
1670.54	0
1680.63	0
1690.71	0
1700.8	0
1710.89	0
1720.06	0
1730.14	0
1740.23	0
1750.31	0
1760.4	0
1770.49	0
1780.57	0
1790.66	0
1800.75	0
1810.83	0
1820	0
1830.09	0
1840.18	0
1850.26	0
1860.35	0
1870.43	0
1880.52	0
1890.61	0
1900.69	0
1910.78	1.81899e-12
1920.87	6.36646e-12
1930.04	1.09139e-11
1940.12	1.72804e-11
1950.21	2.63753e-11
1960.29	3.63798e-11
1970.38	4.63842e-11
1980.47	5.63887e-11
1990.55	6.63931e-11
2000.64	7.63976e-11
2010.73	8.6402e-11
2020.81	9.82254e-11
2030.9	1.18234e-10
2040.07	1.36424e-10
2050.15	1.60071e-10
2060.24	1.90084e-10
2070.33	2.30102e-10
2080.41	2.78305e-10
2090.5	3.41061e-10
2100.58	4.19277e-10
2110.67	5.17502e-10
2120.76	6.38465e-10
2130.84	7.88532e-10
2140.01	9.55879e-10
2150.1	1.18052e-09
2160.19	1.45701e-09
2170.27	1.79534e-09
2180.36	2.20916e-09
2190.44	2.71211e-09
2200.53	3.32511e-09
2210.62	4.06999e-09
2220.7	4.96948e-09
2230.79	6.05633e-09
2240.87	7.36509e-09
2250.04	8.78208e-09
2260.13	1.06356e-08
2270.22	1.2853e-08
2280.3	1.54987e-08
2290.39	1.86474e-08
2300.47	2.23854e-08
2310.56	2.68146e-08
2320.65	3.20524e-08
2330.73	3.82315e-08
2340.82	4.55047e-08
2350.9	5.40467e-08
2360.07	6.30826e-08
2370.16	7.46277e-08
2380.24	8.81037e-08
2390.33	1.038e-07
2400.42	1.22045e-07
2410.5	1.4321e-07
2420.59	1.67713e-07
2430.67	1.96022e-07
2440.76	2.28663e-07
2450.85	2.66228e-07
2460.02	3.05195e-07
2470.1	3.54039e-07
2480.19	4.09929e-07
2490.27	4.7376e-07
2500.36	5.46524e-07
2510.44	6.29311e-07
2520.53	7.23331e-07
2530.62	8.29911e-07
2540.7	9.50509e-07
2550.79	1.08672e-06
2560.87	1.2403e-06
2570.04	1.39658e-06
2580.13	1.58873e-06
2590.21	1.80428e-06
2600.3	2.04565e-06
2610.39	2.31548e-06
2620.47	2.61661e-06
2630.48	2.94955e-06
2640.57	3.32243e-06
2650.66	3.73652e-06
2660.74	4.1956e-06
2670.83	4.70377e-06
2680.91	5.26537e-06
2690.08	5.82618e-06
2700.17	6.50293e-06
2710.25	7.24745e-06
2720.33	8.0641e-06
2730.38	8.95809e-06
2740.43	9.93684e-06
2750.49	1.10069e-05
2760.54	1.2175e-05
2770.6	1.34484e-05
2780.65	1.48346e-05
2790.7	1.63415e-05
2800.76	1.79774e-05
2810.81	1.97507e-05
2820.87	2.16705e-05
2830	2.35508e-05
2840.06	2.57766e-05
2850.11	2.81771e-05
2860.17	3.07626e-05
2870.22	3.3544e-05
2880.27	3.65324e-05
2890.33	3.97392e-05
2900.38	4.31763e-05
2910.43	4.68558e-05
2920.49	5.07902e-05
2930.54	5.49924e-05
2940.6	5.94754e-05
2950.65	6.42529e-05
2960.7	6.93385e-05
2970.76	7.47464e-05
2980.81	8.04909e-05
2990.86	8.65867e-05
3000	9.24457e-05
3010.06	9.9254e-05
3020.11	0.000106458
3030.17	0.000114073
3040.65	0.000122471
3050.08	0.000130437
3060.13	0.000139375
3070.19	0.00014879
3080.24	0.000158698
3090.29	0.000169119
3100.35	0.000180069
3110.4	0.000191565
3120.46	0.000203628
3130.54	0.000216317
3140.59	0.000229569
3150.01	0.000242554
3160.41	0.000257553
3170.03	0.000272052
3180.17	0.000287996
3190.65	0.000305246
3200.28	0.000321778
3210.73	0.000340488
3220	0.000357791
