0	0
20.8604	0
41.7207	0
62.5811	0
83.4414	0
104.302	0
125.162	0
146.023	0
166.883	0
187.743	0
208.604	0
229.464	0
250.324	0
271.185	0
292.045	0
312.905	0
333.766	0
354.626	0
375.486	0
396.347	0
417.207	0
438.068	0
458.928	0
479.788	0
500.649	0
521.509	0
542.369	0
563.23	0
584.09	0
604.95	0
625.811	0
646.671	0
667.531	0
688.392	0
709.252	0
730.113	0
750.973	0
771.833	0
792.694	0
813.554	0
834.414	0
855.275	0
876.135	0
896.995	0
917.856	0
938.716	0
959.576	0
980.437	0
1001.3	0
1022.16	0
1043.02	0
1063.88	0
1084.74	0
1105.6	0
1126.46	0
1147.32	0
1168.18	0
1189.04	0
1209.9	0
1230.76	0
1251.62	0
1272.48	0
1293.34	0
1314.2	0
1335.06	0
1355.92	0
1376.78	0
1397.64	0
1418.5	0
1439.36	0
1460.23	0
1481.09	0
1501.95	0
1522.81	0
1543.67	0
1564.53	0
1585.39	0
1606.25	0
1627.11	0
1647.97	0
1668.83	0
1689.69	0
1710.55	0
1731.41	0
1752.27	0
1773.13	0
1793.99	0
1814.85	0
1835.71	0
1856.57	0
1877.43	0
1898.29	0
1919.15	0
1940.01	0
1960.87	0
1981.73	0
2002.59	0
2023.45	0
2044.31	0
2065.18	0
2086.04	0
2106.9	0
2127.76	0
2148.62	0
2169.48	0
2190.34	0
2211.2	0
2232.06	0
2252.92	0
2273.78	0
2294.64	0
2315.5	0
2336.36	0
2357.22	0
2378.08	0
2398.94	-9.09495e-13
2419.8	-2.72848e-12
2440.66	-5.45697e-12
2461.52	-1.27329e-11
2482.38	-2.54659e-11
2503.24	-5.09317e-11
2524.1	-9.73159e-11
2544.96	-1.82808e-10
2565.82	-3.35604e-10
2586.68	-6.03904e-10
2607.54	-1.06684e-09
2628.4	-1.85082e-09
2649.26	-3.15868e-09
2670.13	-5.30508e-09
2690.99	-8.77208e-09
2711.85	-1.42891e-08
2732.71	-2.29411e-08
2753.57	-3.63198e-08
2774.43	-5.67261e-08
2795.29	-8.74415e-08
2816.15	-1.33085e-07
2837.01	-2.00077e-07
2857.87	-2.97222e-07
2878.73	-4.36457e-07
2899.59	-6.33772e-07
2920.45	-9.10333e-07
2941.31	-1.29385e-06
2962.17	-1.82022e-06
2983.03	-2.53539e-06
3003.89	-3.49766e-06
3024.75	-4.78016e-06
3045.61	-6.47375e-06
3066.47	-8.69021e-06
3087.33	-1.15658e-05
3108.19	-1.52649e-05
3129.05	-1.99843e-05
3149.91	-2.59571e-05
3170.77	-3.34571e-05
3191.63	-4.2803e-05
3212.49	-5.43626e-05
3233.35	-6.85561e-05
3254.21	-8.586e-05
3275.07	-0.000106809
3295.93	-0.000131997
3316.79	-0.000162081
3337.64	-0.000197772
3358.5	-0.000239841
3379.36	-0.000289106
3400.22	-0.000346431
3421.08	-0.000412707
3441.94	-0.000488843
3462.8	-0.000575745
3483.66	-0.000674293
3504.52	-0.000785314
3525.38	-0.000909547
3546.24	-0.0010476
3567.1	-0.00119992
3587.96	-0.00136672
3608.82	-0.00154794
3629.68	-0.00174314
3650.54	-0.00195151
3671.4	-0.0021717
3692.26	-0.0024018
3713.12	-0.00263922
3733.98	-0.00288061
3754.84	-0.00312176
3775.7	-0.00335751
3796.56	-0.00358163
3817.42	-0.00378677
3838.28	-0.00396436
3859.14	-0.00410451
3880	-0.00419597
3900.86	-0.00422609
3921.72	-0.00418077
3942.58	-0.00404447
3963.44	-0.00380022
3984.3	-0.00342967
4005.16	-0.00291318
4026.02	-0.00222992
4046.88	-0.00135804
4067.74	-0.000274845
4088.6	0.00104297
4109.46	0.00261906
4130.32	0.00447711
4151.18	0.00664054
4172.04	0.00913207
4192.9	0.0119734
4213.76	0.0151846
4234.62	0.0187841
4255.48	0.0227878
4276.34	0.0272086
4297.2	0.0320564
4318.06	0.0373373
4338.92	0.0430533
4359.78	0.049202
4380.64	0.055776
4401.5	0.062763
4422.36	0.0701453
4443.22	0.0778996
4464.08	0.0859972
4484.94	0.0944038
4505.81	0.103079
4526.67	0.111979
4547.53	0.121052
4568.39	0.130244
4589.25	0.139495
4610.11	0.148741
4630.97	0.157916
4651.83	0.166951
4672.69	0.175775
4693.55	0.184314
4714.41	0.192496
4735.27	0.200249
4756.13	0.2075
4776.99	0.214181
4797.85	0.220225
4818.71	0.225569
4839.57	0.230156
4860.43	0.233932
4881.29	0.236849
4902.15	0.238869
4923.01	0.239957
4943.87	0.240087
4964.73	0.239242
4985.59	0.237412
5006.45	0.234595
5027.31	0.2308
5048.17	0.226042
5069.03	0.220345
5089.89	0.213741
5110.75	0.20627
5131.61	0.19798
5152.47	0.188925
5173.33	0.179165
5194.19	0.168767
5215.06	0.157802
5235.92	0.146346
5256.78	0.134476
5277.64	0.122274
5298.5	0.109822
5319.36	0.097205
5340.22	0.0845048
5361.08	0.0718042
5381.94	0.0591838
5402.8	0.0467214
5423.66	0.0344916
5444.52	0.0225648
5465.38	0.0110071
5486.24	-0.00012111
5507.1	-0.0107648
5527.96	-0.0208752
5548.82	-0.0304098
5569.68	-0.039333
5590.54	-0.0476158
5611.4	-0.055236
5632.26	-0.0621783
5653.12	-0.0684341
5673.98	-0.0740012
5694.84	-0.0788837
5715.7	-0.0830917
5736.56	-0.0866405
5757.42	-0.0895509
5778.28	-0.0918479
5799.14	-0.0935608
5820	-0.0947222
5840.87	-0.095368
5861.73	-0.095536
5882.59	-0.0952664
5903.45	-0.0946
5924.31	-0.0935789
5945.17	-0.0922449
5966.03	-0.0906399
5986.89	-0.0888047
6007.75	-0.0867792
6028.61	-0.0846014
6049.47	-0.0823077
6070.33	-0.0799322
6091.19	-0.0775066
6112.05	-0.0750601
6132.91	-0.0726189
6153.77	-0.0702068
6174.63	-0.0678444
6195.49	-0.0655496
6216.35	-0.0633375
6237.21	-0.0612203
6258.07	-0.0592077
6278.93	-0.057307
6299.79	-0.055523
6320.65	-0.0538583
6341.51	-0.0523136
6362.37	-0.0508879
6383.23	-0.0495785
6404.09	-0.0483814
6424.95	-0.0472916
6445.82	-0.0463029
6466.68	-0.0454086
6487.54	-0.0446013
6508.4	-0.0438733
6529.26	-0.0432168
6550.12	-0.0426237
6570.98	-0.0420863
6591.84	-0.0415967
6612.7	-0.0411477
6633.56	-0.0407324
6654.42	-0.040344
6675.28	-0.0399768
6696.14	-0.0396251
6717	-0.0392841
6737.86	-0.0389495
6758.72	-0.0386176
6779.58	-0.0382852
6800.44	-0.0379497
6821.3	-0.037609
6842.16	-0.0372616
6863.02	-0.0369063
6883.88	-0.0365425
6904.74	-0.0361698
6925.6	-0.0357882
6946.46	-0.0353981
6967.32	-0.035
6988.18	-0.0345946
7009.04	-0.0341829
7029.9	-0.0337658
7050.76	-0.0333447
7071.62	-0.0329205
7092.49	-0.0324947
7113.35	-0.0320683
7134.21	-0.0316427
7155.07	-0.031219
7175.93	-0.0307984
7196.79	-0.0303819
7217.65	-0.0299707
7238.51	-0.0295656
7259.37	-0.0291675
7280.23	-0.0287772
7301.09	-0.0283953
7321.95	-0.0280226
7342.81	-0.0276593
7363.67	-0.0273061
7384.53	-0.0269632
7405.39	-0.0266307
7426.25	-0.026309
7447.11	-0.0259979
7467.97	-0.0256975
7488.83	-0.0254075
7509.69	-0.0251279
7530.55	-0.0248582
7551.41	-0.024598
7572.27	-0.0243469
7593.13	-0.0241042
7613.99	-0.0238692
7634.85	-0.0236412
7655.71	-0.0234194
7676.57	-0.0232027
7697.43	-0.0229902
7718.29	-0.0227808
7739.15	-0.0225733
7760.01	-0.0223664
7780.87	-0.0221588
7801.73	-0.0219493
7822.59	-0.0217363
7843.46	-0.0215185
7864.32	-0.0212943
7885.18	-0.0210624
7906.04	-0.0208211
7926.9	-0.020569
7947.76	-0.0203047
7968.62	-0.0200267
7989.48	-0.0197336
8010.34	-0.019424
8031.2	-0.0190966
8052.06	-0.0187504
8072.92	-0.018384
8093.78	-0.0179966
8114.64	-0.0175871
8135.5	-0.0171549
8156.36	-0.0166992
8177.22	-0.0162196
8198.08	-0.0157156
8218.94	-0.015187
8239.8	-0.0146337
8260.66	-0.0140558
8281.52	-0.0134535
8302.38	-0.0128272
8323.24	-0.0121774
8344.1	-0.0115047
8364.96	-0.0108101
8385.82	-0.0100946
8406.68	-0.00935908
8427.54	-0.00860496
8448.4	-0.00783356
8469.26	-0.00704638
8490.12	-0.00624499
8510.98	-0.00543109
8531.84	-0.00460644
8552.7	-0.00377289
8573.57	-0.00293235
8594.43	-0.00208678
8615.29	-0.00123817
8636.15	-0.000388559
8657.01	0.000460016
8677.87	0.0013055
8698.73	0.00214586
8719.59	0.00297906
8740.45	0.0038031
8761.31	0.00461603
8782.17	0.00541593
8803.03	0.00620094
8823.89	0.00696927
8844.75	0.00771919
8865.61	0.00844907
8886.47	0.00915735
8907.33	0.00984254
8928.19	0.0105033
8949.05	0.0111383
8969.91	0.0117464
8990.77	0.0123266
9011.63	0.0128777
9032.49	0.0133991
9053.35	0.0138899
9074.21	0.0143495
9095.07	0.0147773
9115.93	0.0151728
9136.79	0.0155357
9157.65	0.0158658
9178.51	0.0161628
9199.37	0.0164266
9220.24	0.0166573
9241.1	0.016855
9261.96	0.0170196
9282.82	0.0171516
9303.68	0.017251
9324.54	0.0173183
9345.4	0.0173539
9366.26	0.017358
9387.12	0.0173312
9407.98	0.0172739
9428.84	0.0171868
9449.7	0.0170702
9470.56	0.0169248
9491.42	0.0167511
9512.28	0.0165497
9533.14	0.0163212
9554	0.0160663
9574.86	0.0157854
9595.72	0.0154792
9616.58	0.0151483
9637.44	0.0147933
9658.3	0.0144148
9679.16	0.0140134
9700.02	0.0135896
9720.88	0.013144
9741.74	0.0126773
9762.6	0.01219
9783.46	0.0116827
9804.32	0.0111559
9825.18	0.0106103
9846.05	0.0100464
9866.91	0.00946481
9887.77	0.0088662
9908.63	0.00825115
9929.49	0.00762031
9950.35	0.00697431
9971.21	0.00631382
9992.07	0.00563954
10012.9	0.00495217
10033.8	0.00425244
10054.6	0.0035411
10075.5	0.00281892
10096.4	0.00208672
10117.2	0.00134531
10138.1	0.000595533
10159	-0.000161734
10179.8	-0.000925603
10200.7	-0.00169516
10221.5	-0.00246949
10242.4	-0.00324764
10263.3	-0.00402866
10284.1	-0.00481158
10305	-0.00559543
10325.8	-0.00637923
10346.7	-0.00716202
10367.6	-0.00794281
10388.4	-0.00872066
10409.3	-0.00949459
10430.1	-0.0102637
10451	-0.011027
10471.9	-0.0117837
10492.7	-0.0125328
10513.6	-0.0132736
10534.4	-0.0140051
10555.3	-0.0147267
10576.2	-0.0154376
10597	-0.016137
10617.9	-0.0168244
10638.7	-0.0174991
10659.6	-0.0181605
10680.5	-0.018808
10701.3	-0.0194412
10722.2	-0.0200595
10743	-0.0206627
10763.9	-0.0212502
10784.8	-0.0218218
10805.6	-0.0223771
10826.5	-0.0229159
10847.3	-0.0234379
10868.2	-0.0239428
10889.1	-0.0244305
10909.9	-0.0249008
10930.8	-0.0253536
10951.6	-0.0257886
10972.5	-0.0262058
10993.4	-0.026605
11014.2	-0.0269861
11035.1	-0.027349
11055.9	-0.0276935
11076.8	-0.0280195
11097.7	-0.028327
11118.5	-0.0286156
11139.4	-0.0288854
11160.2	-0.029136
11181.1	-0.0293675
11202	-0.0295794
11222.8	-0.0297717
11243.7	-0.0299441
11264.5	-0.0300964
11285.4	-0.0302283
11306.3	-0.0303396
11327.1	-0.0304299
11348	-0.0304991
11368.8	-0.0305467
11389.7	-0.0305725
11410.6	-0.0305762
11431.4	-0.0305574
11452.3	-0.0305159
11473.2	-0.0304514
11494	-0.0303635
11514.9	-0.0302519
11535.7	-0.0301164
11556.6	-0.0299567
11577.5	-0.0297726
11598.3	-0.0295637
11619.2	-0.02933
11640	-0.0290712
11660.9	-0.0287872
11681.8	-0.0284778
11702.6	-0.028143
11723.5	-0.0277826
11744.3	-0.0273968
11765.2	-0.0269855
11786.1	-0.0265487
11806.9	-0.0260865
11827.8	-0.0255992
11848.6	-0.0250869
11869.5	-0.0245497
11890.4	-0.0239881
11911.2	-0.0234022
11932.1	-0.0227924
11952.9	-0.0221593
11973.8	-0.0215031
11994.7	-0.0208243
12015.5	-0.0201236
12036.4	-0.0194014
12057.2	-0.0186584
12078.1	-0.0178952
12099	-0.0171125
12119.8	-0.016311
12140.7	-0.0154915
12161.5	-0.0146547
12182.4	-0.0138015
12203.3	-0.0129327
12224.1	-0.0120491
12245	-0.0111518
12265.8	-0.0102415
12286.7	-0.00931937
12307.6	-0.00838623
12328.4	-0.00744312
12349.3	-0.00649104
12370.1	-0.00553103
12391	-0.00456413
12411.9	-0.00359139
12432.7	-0.00261389
12453.6	-0.00163269
12474.4	-0.000648895
12495.3	0.000336417
12516.2	0.00132214
12537	0.00230719
12557.9	0.00329045
12578.7	0.00427083
12599.6	0.00524724
12620.5	0.00621857
12641.3	0.00718373
12662.2	0.00814166
12683	0.00909128
12703.9	0.0100315
12724.8	0.0109613
12745.6	0.0118797
12766.5	0.0127856
12787.4	0.013678
12808.2	0.0145559
12829.1	0.0154184
12849.9	0.0162644
12870.8	0.0170932
12891.7	0.0179037
12912.5	0.0186952
12933.4	0.0194666
12954.2	0.0202172
12975.1	0.0209462
12996	0.0216527
13016.8	0.0223361
13037.7	0.0229956
13058.5	0.0236304
13079.4	0.0242398
13100.3	0.0248233
13121.1	0.0253801
13142	0.0259097
13162.8	0.0264114
13183.7	0.0268847
13204.6	0.0273291
13225.4	0.0277439
13246.3	0.0281288
13267.1	0.0284833
13288	0.0288069
13308.9	0.0290991
13329.7	0.0293595
13350.6	0.0295879
13371.4	0.0297837
13392.3	0.0299466
13413.2	0.0300764
13434	0.0301726
13454.9	0.0302351
13475.7	0.0302634
13496.6	0.0302574
13517.5	0.0302169
13538.3	0.0301415
13559.2	0.0300311
13580	0.0298856
13600.9	0.0297047
13621.8	0.0294884
13642.6	0.0292365
13663.5	0.0289489
13684.3	0.0286256
13705.2	0.0282665
13726.1	0.0278717
13746.9	0.0274412
13767.8	0.026975
13788.6	0.0264733
13809.5	0.0259361
13830.4	0.0253636
13851.2	0.0247561
13872.1	0.0241139
13893	0.0234371
13913.8	0.0227263
13934.7	0.0219818
13955.5	0.021204
13976.4	0.0203935
13997.3	0.0195509
14018.1	0.0186767
14039	0.0177719
14059.8	0.0168369
14080.7	0.0158729
14101.6	0.0148806
14122.4	0.013861
14143.3	0.0128152
14164.1	0.0117443
14185	0.0106495
14205.9	0.00953211
14226.7	0.00839349
14247.6	0.00723506
14268.4	0.00605831
14289.3	0.00486484
14310.2	0.00365629
14331	0.00243437
14351.9	0.00120088
14372.7	-4.2337e-05
14393.6	-0.00129336
14414.5	-0.00255021
14435.3	-0.00381088
14456.2	-0.00507328
14477	-0.0063353
14497.9	-0.00759477
14518.8	-0.00884951
14539.6	-0.0100973
14560.5	-0.0113359
14581.3	-0.0125631
14602.2	-0.0137766
14623.1	-0.0149741
14643.9	-0.0161535
14664.8	-0.0173125
14685.6	-0.0184488
14706.5	-0.0195604
14727.4	-0.0206452
14748.2	-0.021701
14769.1	-0.0227259
14789.9	-0.0237179
14810.8	-0.0246751
14831.7	-0.0255959
14852.5	-0.0264785
14873.4	-0.0273213
14894.2	-0.0281229
14915.1	-0.0288818
14936	-0.029597
14956.8	-0.0302672
14977.7	-0.0308914
14998.5	-0.0314689
15019.4	-0.0319989
15040.3	-0.0324808
15061.1	-0.0329142
15082	-0.0332989
15102.9	-0.0336346
15123.7	-0.0339214
15144.6	-0.0341595
15165.4	-0.0343492
15186.3	-0.0344908
15207.2	-0.034585
15228	-0.0346325
15248.9	-0.0346342
15269.7	-0.034591
15290.6	-0.034504
15311.5	-0.0343744
15332.3	-0.0342035
15353.2	-0.0339928
15374	-0.0337438
15394.9	-0.0334581
15415.8	-0.0331373
15436.6	-0.0327831
15457.5	-0.0323974
15478.3	-0.031982
15499.2	-0.0315388
15520.1	-0.0310697
15540.9	-0.0305767
15561.8	-0.0300616
15582.6	-0.0295265
15603.5	-0.0289732
15624.4	-0.0284037
15645.2	-0.0278199
15666.1	-0.0272237
15686.9	-0.0266168
15707.8	-0.0260012
15728.7	-0.0253784
15749.5	-0.0247502
15770.4	-0.0241182
15791.2	-0.0234838
15812.1	-0.0228487
15833	-0.022214
15853.8	-0.0215813
15874.7	-0.0209515
15895.5	-0.020326
15916.4	-0.0197056
15937.3	-0.0190914
15958.1	-0.0184842
15979	-0.0178847
15999.8	-0.0172937
16020.7	-0.0167118
16041.6	-0.0161394
16062.4	-0.0155769
16083.3	-0.0150247
16104.1	-0.0144831
16125	-0.0139522
16145.9	-0.0134322
16166.7	-0.012923
16187.6	-0.0124247
16208.4	-0.0119373
16229.3	-0.0114605
16250.2	-0.0109942
16271	-0.0105382
16291.9	-0.0100922
16312.8	-0.00965599
16333.6	-0.00922915
16354.5	-0.00881138
16375.3	-0.0084023
16396.2	-0.00800154
16417.1	-0.00760869
16437.9	-0.00722338
16458.8	-0.00684518
16479.6	-0.00647371
16500.5	-0.00610857
16521.4	-0.00574938
16542.2	-0.00539576
16563.1	-0.00504736
16583.9	-0.00470384
16604.8	-0.00436488
16625.7	-0.00403018
16646.5	-0.00369947
16667.4	-0.0033725
16688.2	-0.00304906
16709.1	-0.00272894
16730	-0.00241199
16750.8	-0.00209806
16771.7	-0.00178707
16792.5	-0.00147893
16813.4	-0.00117359
16834.3	-0.000871038
16855.1	-0.00057129
16876	-0.000274382
16896.8	1.96182e-05
16917.7	0.000310619
16938.6	0.000598504
16959.4	0.000883134
16980.3	0.00116435
17001.1	0.00144196
17022	0.00171577
17042.9	0.00198557
17063.7	0.00225113
17084.6	0.00251218
17105.4	0.00276849
17126.3	0.00301979
17147.2	0.00326579
17168	0.00350623
17188.9	0.00374082
17209.7	0.00396926
17230.6	0.00419129
17251.5	0.0044066
17272.3	0.00461493
17293.2	0.00481598
17314	0.0050095
17334.9	0.00519522
17355.8	0.00537288
17376.6	0.00554225
17397.5	0.00570309
17418.3	0.00585519
17439.2	0.00599833
17460.1	0.00613234
17480.9	0.00625705
17501.8	0.00637229
17522.7	0.00647795
17543.5	0.00657389
17564.4	0.00666002
17585.2	0.00673628
17606.1	0.0068026
17627	0.00685895
17647.8	0.00690532
17668.7	0.00694172
17689.5	0.00696818
17710.4	0.00698477
17731.3	0.00699154
17752.1	0.00698861
17773	0.00697609
17793.8	0.00695413
17814.7	0.0069229
17835.6	0.00688257
17856.4	0.00683336
17877.3	0.0067755
17898.1	0.00670922
17919	0.0066348
17939.9	0.00655253
17960.7	0.00646269
17981.6	0.00636562
18002.4	0.00626164
18023.3	0.00615111
18044.2	0.0060344
18065	0.00591186
18085.9	0.00578391
18106.7	0.00565092
18127.6	0.00551332
18148.5	0.00537152
18169.3	0.00522594
18190.2	0.005077
18211	0.00492515
18231.9	0.00477082
18252.8	0.00461444
18273.6	0.00445645
18294.5	0.00429728
18315.3	0.00413737
18336.2	0.00397715
18357.1	0.00381703
18377.9	0.00365744
18398.8	0.00349877
18419.6	0.00334142
18440.5	0.00318578
18461.4	0.00303222
18482.2	0.00288109
18503.1	0.00273274
18523.9	0.0025875
18544.8	0.00244567
18565.7	0.00230754
18586.5	0.00217339
18607.4	0.00204346
18628.2	0.00191799
18649.1	0.00179718
18670	0.00168122
18690.8	0.00157026
18711.7	0.00146446
18732.6	0.00136392
18753.4	0.00126873
18774.3	0.00117896
18795.1	0.00109466
18816	0.00101583
18836.9	0.000942484
18857.7	0.00087458
18878.6	0.000812069
18899.4	0.000754874
18920.3	0.000702897
18941.2	0.000656019
18962	0.000614098
18982.9	0.000576974
19003.7	0.000544467
19024.6	0.000516378
19045.5	0.000492492
19066.3	0.000472579
19087.2	0.000456393
19108	0.000443673
19128.9	0.00043415
19149.8	0.000427541
19170.6	0.000423555
19191.5	0.000421892
19212.3	0.000422246
19233.2	0.000424308
19254.1	0.000427763
19274.9	0.000432294
19295.8	0.000437585
19316.6	0.000443319
19337.5	0.000449184
19358.4	0.00045487
19379.2	0.000460071
19400.1	0.000464491
19420.9	0.000467838
19441.8	0.000469831
19462.7	0.0004702
19483.5	0.000468685
19504.4	0.000465038
19525.2	0.000459028
19546.1	0.000450434
19567	0.000439054
19587.8	0.000424699
19608.7	0.0004072
19629.5	0.000386403
19650.4	0.000362175
19671.3	0.000334398
19692.1	0.000302975
19713	0.00026783
19733.8	0.000228903
19754.7	0.000186157
19775.6	0.000139572
19796.4	8.91506e-05
19817.3	3.49132e-05
19838.1	-2.30995e-05
19859	-8.48274e-05
19879.9	-0.000150191
19900.7	-0.000219094
19921.6	-0.000291419
19942.5	-0.000367032
19963.3	-0.000445782
19984.2	-0.000527502
