0	0
256.387	0
512.774	0
769.161	0
1025.55	0
1281.94	0
1538.32	0
1794.71	0
2051.1	0
2307.48	0.00015707
2563.87	0.00523555
2820.26	0.0147252
3076.64	0.0300494
3333.03	0.0475421
3589.42	0.0636619
3845.81	0.0742273
4102.19	0.0776607
4358.58	0.0738306
4614.97	0.0643896
4871.35	0.0514144
5127.74	0.0371905
5384.12	0.0235477
5640.51	0.0118299
5896.9	0.00271899
6153.28	-0.00364172
6409.67	-0.00757428
6666.05	-0.00965974
6922.44	-0.0105727
7178.82	-0.0109095
7435.21	-0.0111037
7691.59	-0.0113976
7947.98	-0.0118786
8204.37	-0.0125343
8460.75	-0.0133114
8717.14	-0.0141563
8973.53	-0.0150374
9229.91	-0.0159457
9486.3	-0.0168823
9742.69	-0.0178396
9999.08	-0.0187855
10255.5	-0.0196574
10511.8	-0.0203675
10768.2	-0.0208185
11024.6	-0.0209244
11281	-0.0206292
11537.4	-0.0199191
11793.8	-0.0188263
12050.2	-0.0174215
12306.6	-0.0158014
12562.9	-0.0140711
12819.3	-0.012328
13075.7	-0.0106497
13332.1	-0.00908738
13588.5	-0.00766597
13844.9	-0.00638886
14101.3	-0.00524576
14357.7	-0.00422093
14614	-0.0032998
14870.4	-0.00247296
15126.8	-0.00173699
15383.2	-0.00109299
15639.6	-0.000543655
15896	-9.02283e-05
16152.4	0.000269738
16408.8	0.000543216
16665.1	0.000741097
16921.5	0.000876514
17177.9	0.00096271
17434.3	0.00101111
17690.7	0.00103009
17947.1	0.00102471
18203.5	0.000997327
18459.8	0.000948801
18716.2	0.000879934
18972.6	0.000792673
19229	0.000690809
19485.4	0.000580045
19741.8	0.000467478
19998.2	0.00036069
