0	0
29.6453	0
59.2907	0
88.936	0
118.581	0
148.227	0
177.872	0
207.517	0
237.163	0
266.808	0
296.453	0
326.099	0
355.744	0
385.389	0
415.035	0
444.68	0
474.325	0
503.971	0
533.616	0
563.261	0
592.907	0
622.552	0
652.197	0
681.843	0
711.488	0
741.133	0
770.779	0
800.424	0
830.069	0
859.715	0
889.36	0
919.005	0
948.651	0
978.296	0
1007.94	0
1037.59	0
1067.23	0
1096.88	0
1126.52	0
1156.17	0
1185.81	0
1215.46	0
1245.1	0
1274.75	0
1304.39	0
1334.04	0
1363.69	0
1393.33	0
1422.98	0
1452.62	0
1482.27	0
1511.91	0
1541.56	0
1571.2	0
1600.85	0
1630.49	0
1660.14	0
1689.78	0
1719.43	0
1749.07	0
1778.72	0
1808.37	0
1838.01	0
1867.66	0
1897.3	0
1926.95	0
1956.59	0
1986.24	0
2015.88	0
2045.53	0
2075.17	0
2104.82	0
2134.46	0
2164.11	0
2193.75	0
2223.4	0
2253.05	-9.09495e-13
2282.69	-1.81899e-12
2312.34	-3.63798e-12
2341.98	-1.00044e-11
2371.63	-2.45564e-11
2401.27	-6.27551e-11
2430.92	-1.53705e-10
2460.56	-3.5925e-10
2490.21	-8.06722e-10
2519.85	-1.74714e-09
2549.5	-3.65799e-09
2579.14	-7.41056e-09
2608.79	-1.45619e-08
2638.43	-2.77969e-08
2668.08	-5.16302e-08
2697.73	-9.34433e-08
2727.37	-1.65006e-07
2757.02	-2.84634e-07
2786.66	-4.8017e-07
2816.31	-7.93005e-07
2845.95	-1.28336e-06
2875.6	-2.03708e-06
2905.24	-3.17406e-06
2934.89	-4.8586e-06
2964.53	-7.31159e-06
2994.18	-1.08247e-05
3023.82	-1.57759e-05
3053.47	-2.26469e-05
3083.11	-3.20402e-05
3112.76	-4.46961e-05
3142.4	-6.15084e-05
3172.05	-8.35355e-05
3201.69	-0.000112006
3231.34	-0.000148317
3260.98	-0.000194019
3290.63	-0.000250783
3320.27	-0.00032036
3349.92	-0.000404498
3379.56	-0.000504849
3409.2	-0.000622835
3438.85	-0.000759478
3468.49	-0.000915195
3498.14	-0.00108955
3527.78	-0.00128096
3557.43	-0.00148638
3587.07	-0.00170092
3616.72	-0.00191748
3646.36	-0.00212633
3676	-0.00231471
3705.65	-0.00246646
3735.29	-0.00256162
3764.94	-0.0025762
3794.58	-0.00248195
3824.23	-0.00224631
3853.87	-0.0018324
3883.52	-0.00119931
3913.16	-0.000302498
3942.8	0.000905648
3972.45	0.00247494
4002.09	0.0044564
4031.74	0.00690101
4061.38	0.00985832
4091.03	0.0133749
4120.67	0.0174926
4150.32	0.022247
4179.96	0.0276654
4209.61	0.0337653
4239.25	0.0405527
4268.9	0.0480208
4298.54	0.0561487
4328.19	0.0649006
4357.83	0.074225
4387.48	0.084055
4417.12	0.094308
4446.77	0.104887
4476.41	0.11568
4506.06	0.126565
4535.7	0.137408
4565.35	0.148068
4594.99	0.158397
4624.64	0.168247
4654.28	0.177466
4683.93	0.185911
4713.57	0.19344
4743.22	0.199925
4772.86	0.205246
4802.51	0.209302
4832.15	0.212007
4861.8	0.213295
4891.45	0.213121
4921.09	0.21146
4950.74	0.208312
4980.38	0.2037
5010.03	0.197667
5039.67	0.190277
5069.32	0.181618
5098.96	0.171792
5128.61	0.16092
5158.25	0.149133
5187.9	0.136577
5217.54	0.123403
5247.19	0.109769
5276.83	0.0958323
5306.48	0.0817521
5336.12	0.067682
5365.77	0.0537697
5395.41	0.0401537
5425.06	0.026962
5454.7	0.0143094
5484.35	0.00229714
5513.99	-0.00898908
5543.64	-0.0194791
5573.28	-0.0291188
5602.93	-0.0378699
5632.57	-0.0457097
5662.22	-0.0526303
5691.86	-0.0586374
5721.51	-0.0637494
5751.15	-0.0679958
5780.8	-0.071416
5810.45	-0.0740574
5840.09	-0.075974
5869.74	-0.0772247
5899.38	-0.0778718
5929.03	-0.0779795
5958.67	-0.0776125
5988.32	-0.076835
6017.96	-0.0757091
6047.61	-0.0742943
6077.25	-0.0726467
6106.9	-0.0708182
6136.54	-0.0688558
6166.19	-0.0668021
6195.83	-0.0646943
6225.48	-0.0625644
6255.12	-0.0604397
6284.77	-0.0583424
6314.41	-0.0562903
6344.06	-0.0542966
6373.7	-0.052371
6403.35	-0.0505196
6432.99	-0.0487454
6462.64	-0.0470489
6492.29	-0.0454284
6521.93	-0.0438805
6551.58	-0.0424006
6581.22	-0.0409832
6610.87	-0.039622
6640.51	-0.0383107
6670.16	-0.0370428
6699.8	-0.0358124
6729.45	-0.0346136
6759.09	-0.0334414
6788.74	-0.0322913
6818.38	-0.0311597
6848.03	-0.0300438
6877.67	-0.0289417
6907.32	-0.0278521
6936.97	-0.0267747
6966.61	-0.0257097
6996.26	-0.0246583
7025.9	-0.0236218
7055.55	-0.0226025
7085.19	-0.0216026
7114.84	-0.0206249
7144.48	-0.0196723
7174.13	-0.0187477
7203.77	-0.017854
7233.42	-0.0169942
7263.06	-0.016171
7292.71	-0.0153868
7322.35	-0.0146439
7352	-0.013944
7381.64	-0.0132886
7411.29	-0.0126789
7440.94	-0.0121155
7470.58	-0.0115986
7500.23	-0.0111281
7529.87	-0.0107032
7559.52	-0.0103231
7589.16	-0.0099864
7618.81	-0.00969137
7648.45	-0.00943603
7678.1	-0.00921813
7707.74	-0.00903519
7737.39	-0.00888457
7767.03	-0.00876347
7796.68	-0.00866904
7826.32	-0.00859835
7855.97	-0.0085485
7885.61	-0.0085166
7915.26	-0.00849987
7944.91	-0.00849562
7974.55	-0.00850129
8004.2	-0.00851452
8033.84	-0.00853312
8063.49	-0.00855512
8093.13	-0.00857877
8122.78	-0.00860257
8152.42	-0.00862526
8182.07	-0.00864582
8211.71	-0.0086635
8241.36	-0.00867777
8271	-0.00868836
8300.65	-0.00869522
8330.29	-0.0086985
8359.94	-0.00869858
8389.58	-0.00869599
8419.23	-0.00869145
8448.88	-0.00868579
8478.52	-0.00868001
8508.17	-0.00867515
8537.81	-0.00867236
8567.46	-0.00867284
8597.1	-0.0086778
8626.75	-0.00868846
8656.39	-0.00870603
8686.04	-0.00873168
8715.68	-0.0087665
8745.33	-0.00881154
8774.97	-0.00886772
8804.62	-0.00893588
8834.26	-0.00901671
8863.91	-0.0091108
8893.55	-0.00921857
8923.2	-0.00934031
8952.85	-0.00947617
8982.49	-0.00962613
9012.14	-0.00979002
9041.78	-0.00996755
9071.43	-0.0101582
9101.07	-0.0103615
9130.72	-0.0105767
9160.36	-0.0108029
9190.01	-0.0110392
9219.65	-0.0112846
9249.3	-0.011538
9278.94	-0.0117982
9308.59	-0.0120639
9338.23	-0.0123339
9367.88	-0.012607
9397.52	-0.0128816
9427.17	-0.0131567
9456.81	-0.0134308
9486.46	-0.0137026
9516.11	-0.013971
9545.75	-0.0142347
9575.4	-0.0144925
9605.04	-0.0147433
9634.69	-0.014986
9664.33	-0.0152197
9693.98	-0.0154433
9723.62	-0.0156561
9753.27	-0.0158572
9782.91	-0.0160459
9812.56	-0.0162216
9842.2	-0.0163835
9871.85	-0.0165313
9901.49	-0.0166643
9931.14	-0.0167823
9960.78	-0.0168848
9990.43	-0.0169716
10020.1	-0.0170424
10049.7	-0.017097
10079.4	-0.0171353
10109	-0.0171573
10138.7	-0.0171628
10168.3	-0.0171519
10197.9	-0.0171246
10227.6	-0.017081
10257.2	-0.0170213
10286.9	-0.0169457
10316.5	-0.0168542
10346.2	-0.0167473
10375.8	-0.0166252
10405.5	-0.0164882
10435.1	-0.0163367
10464.8	-0.016171
10494.4	-0.0159916
10524	-0.0157989
10553.7	-0.0155933
10583.3	-0.0153754
10613	-0.0151456
10642.6	-0.0149044
10672.3	-0.0146523
10701.9	-0.0143899
10731.6	-0.0141175
10761.2	-0.0138358
10790.9	-0.0135451
10820.5	-0.013246
10850.1	-0.0129389
10879.8	-0.0126242
10909.4	-0.0123023
10939.1	-0.0119735
10968.7	-0.0116381
10998.4	-0.0112964
11028	-0.0109487
11057.7	-0.0105951
11087.3	-0.0102359
11117	-0.00987102
11146.6	-0.00950066
11176.2	-0.00912483
11205.9	-0.00874355
11235.5	-0.00835679
11265.2	-0.0079645
11294.8	-0.00756662
11324.5	-0.00716304
11354.1	-0.00675367
11383.8	-0.0063384
11413.4	-0.00591713
11443	-0.00548974
11472.7	-0.00505614
11502.3	-0.00461626
11532	-0.00417004
11561.6	-0.00371744
11591.3	-0.00325847
11620.9	-0.00279316
11650.6	-0.0023216
11680.2	-0.0018439
11709.9	-0.00136023
11739.5	-0.000870808
11769.1	-0.000375907
11798.8	0.000124152
11828.4	0.000628996
11858.1	0.00113819
11887.7	0.00165126
11917.4	0.00216767
11947	0.00268682
11976.7	0.00320809
12006.3	0.00373079
12036	0.00425419
12065.6	0.00477752
12095.2	0.00529997
12124.9	0.0058207
12154.5	0.00633882
12184.2	0.00685343
12213.8	0.00736359
12243.5	0.00786835
12273.1	0.00836672
12302.8	0.00885771
12332.4	0.0093403
12362.1	0.00981349
12391.7	0.0102762
12421.3	0.0107275
12451	0.0111662
12480.6	0.0115914
12510.3	0.0120019
12539.9	0.0123968
12569.6	0.0127751
12599.2	0.0131355
12628.9	0.0134772
12658.5	0.0137991
12688.2	0.0141002
12717.8	0.0143794
12747.4	0.0146358
12777.1	0.0148684
12806.7	0.0150762
12836.4	0.0152582
12866	0.0154135
12895.7	0.0155412
12925.3	0.0156403
12955	0.01571
12984.6	0.0157494
13014.3	0.0157577
13043.9	0.015734
13073.5	0.0156776
13103.2	0.0155878
13132.8	0.0154639
13162.5	0.0153053
13192.1	0.0151113
13221.8	0.0148814
13251.4	0.0146152
13281.1	0.0143123
13310.7	0.0139723
13340.4	0.0135949
13370	0.01318
13399.6	0.0127275
13429.3	0.0122374
13458.9	0.0117097
13488.6	0.0111446
13518.2	0.0105424
13547.9	0.00990352
13577.5	0.00922844
13607.2	0.00851777
13636.8	0.00777224
13666.4	0.0069927
13696.1	0.00618012
13725.7	0.00533558
13755.4	0.0044603
13785	0.00355562
13814.7	0.002623
13844.3	0.00166404
13874	0.000680435
13903.6	-0.000325973
13933.3	-0.00135324
13962.9	-0.00239929
13992.5	-0.00346196
14022.2	-0.00453895
14051.8	-0.00562788
14081.5	-0.00672627
14111.1	-0.00783154
14140.8	-0.00894105
14170.4	-0.0100521
14200.1	-0.0111618
14229.7	-0.0122673
14259.4	-0.0133659
14289	-0.0144545
14318.6	-0.0155301
14348.3	-0.0165899
14377.9	-0.0176309
14407.6	-0.0186501
14437.2	-0.0196446
14466.9	-0.0206115
14496.5	-0.0215481
14526.2	-0.0224515
14555.8	-0.0233191
14585.5	-0.0241483
14615.1	-0.0249367
14644.7	-0.0256819
14674.4	-0.0263818
14704	-0.0270342
14733.7	-0.0276374
14763.3	-0.0281895
14793	-0.0286891
14822.6	-0.0291348
14852.3	-0.0295255
14881.9	-0.0298603
14911.6	-0.0301384
14941.2	-0.0303593
14970.8	-0.0305228
15000.5	-0.0306288
15030.1	-0.0306774
15059.8	-0.0306691
15089.4	-0.0306045
15119.1	-0.0304843
15148.7	-0.0303096
15178.4	-0.0300816
15208	-0.0298018
15237.7	-0.0294717
15267.3	-0.029093
15296.9	-0.0286678
15326.6	-0.0281981
15356.2	-0.0276861
15385.9	-0.0271341
15415.5	-0.0265446
15445.2	-0.02592
15474.8	-0.0252629
15504.5	-0.0245759
15534.1	-0.0238618
15563.7	-0.0231232
15593.4	-0.0223628
15623	-0.0215833
15652.7	-0.0207873
15682.3	-0.0199775
15712	-0.0191565
15741.6	-0.0183267
15771.3	-0.0174905
15800.9	-0.0166504
15830.6	-0.0158086
15860.2	-0.0149672
15889.8	-0.0141283
15919.5	-0.0132937
15949.1	-0.0124654
15978.8	-0.011645
16008.4	-0.010834
16038.1	-0.0100339
16067.7	-0.00924598
16097.4	-0.00847149
16127	-0.00771147
16156.7	-0.00696686
16186.3	-0.00623852
16215.9	-0.00552717
16245.6	-0.00483345
16275.2	-0.00415788
16304.9	-0.0035009
16334.5	-0.00286288
16364.2	-0.00224408
16393.8	-0.00164473
16423.5	-0.00106496
16453.1	-0.000504856
16482.8	3.55355e-05
16512.4	0.000556223
16542	0.00105725
16571.7	0.00153869
16601.3	0.00200064
16631	0.00244323
16660.6	0.00286658
16690.3	0.00327085
16719.9	0.00365619
16749.6	0.00402277
16779.2	0.00437074
16808.9	0.00470027
16838.5	0.00501153
16868.1	0.00530467
16897.8	0.00557986
16927.4	0.00583725
16957.1	0.006077
16986.7	0.00629926
17016.4	0.00650418
17046	0.00669192
17075.7	0.00686263
17105.3	0.00701648
17135	0.00715364
17164.6	0.00727429
17194.2	0.0073786
17223.9	0.0074668
17253.5	0.00753909
17283.2	0.0075957
17312.8	0.00763691
17342.5	0.00766297
17372.1	0.0076742
17401.8	0.00767092
17431.4	0.00765348
17461	0.00762225
17490.7	0.00757766
17520.3	0.00752014
17550	0.00745015
17579.6	0.00736818
17609.3	0.00727478
17638.9	0.00717048
17668.6	0.00705588
17698.2	0.00693159
17727.9	0.00679823
17757.5	0.00665647
17787.1	0.006507
17816.8	0.00635051
17846.4	0.00618772
17876.1	0.00601938
17905.7	0.00584622
17935.4	0.00566902
17965	0.00548853
17994.7	0.00530552
18024.3	0.00512077
18054	0.00493504
18083.6	0.0047491
18113.2	0.0045637
18142.9	0.00437957
18172.5	0.00419746
18202.2	0.00401805
18231.8	0.00384203
18261.5	0.00367007
18291.1	0.00350278
18320.8	0.00334077
18350.4	0.00318459
18380.1	0.00303478
18409.7	0.00289181
18439.3	0.00275614
18469	0.00262815
18498.6	0.0025082
18528.3	0.0023966
18557.9	0.00229361
18587.6	0.00219942
18617.2	0.00211419
18646.9	0.00203803
18676.5	0.00197099
18706.2	0.00191307
18735.8	0.00186422
18765.4	0.00182433
18795.1	0.00179326
18824.7	0.0017708
18854.4	0.0017567
18884	0.00175067
18913.7	0.00175239
18943.3	0.00176146
18973	0.00177747
19002.6	0.00179999
19032.3	0.00182851
19061.9	0.00186253
19091.5	0.00190152
19121.2	0.00194491
19150.8	0.00199213
19180.5	0.00204259
19210.1	0.00209567
19239.8	0.00215078
19269.4	0.0022073
19299.1	0.00226462
19328.7	0.00232213
19358.3	0.00237925
19388	0.00243538
19417.6	0.00248996
19447.3	0.00254245
19476.9	0.00259232
19506.6	0.00263908
19536.2	0.00268226
19565.9	0.00272143
19595.5	0.00275619
19625.2	0.00278619
19654.8	0.0028111
19684.4	0.00283064
19714.1	0.00284458
19743.7	0.00285273
19773.4	0.00285493
19803	0.00285108
19832.7	0.00284112
19862.3	0.00282504
19892	0.00280287
19921.6	0.00277467
19951.3	0.00274056
19980.9	0.00270071
