0	0
11.8196	0
23.6393	0
35.4589	0
41.3687	0
53.1883	0
65.008	0
70.9178	0
82.7374	0
94.557	0
100.467	0
112.286	0
124.106	0
130.016	0
141.836	0
153.655	0
165.475	0
171.385	0
183.204	0
195.024	0
200.934	0
212.753	0
224.573	0
230.483	0
242.302	0
254.122	0
260.032	0
271.851	0
283.671	0
295.491	0
301.401	0
313.22	0
325.04	0
330.95	0
342.769	0
354.589	0
360.499	0
372.318	0
384.138	0
390.048	0
401.867	0
413.687	0
425.507	0
431.416	0
443.236	0
455.056	0
460.966	0
472.785	0
484.605	0
490.515	0
502.334	0
514.154	0
520.064	0
531.883	0
543.703	0
555.523	0
561.432	0
573.252	0
585.072	0
590.981	0
602.801	0
614.621	0
620.53	0
632.35	0
644.17	0
650.08	0
661.899	0
673.719	0
685.538	0
691.448	0
703.268	0
715.088	0
720.997	0
732.817	0
744.637	0
750.546	0
762.366	0
774.186	0
780.095	0
791.915	0
803.735	0
815.554	0
821.464	0
833.284	0
845.103	0
851.013	0
862.833	0
874.652	0
880.562	0
892.382	0
904.202	0
910.111	0
921.931	0
933.751	0
945.57	0
951.48	0
963.3	0
975.119	0
981.029	0
992.849	0
1004.67	0
1010.58	0
1022.4	0
1034.22	0
1040.13	0
1051.95	0
1063.77	0
1075.59	0
1081.5	0
1093.32	0
1105.14	0
1111.05	0
1122.86	0
1134.68	0
1140.59	0
1152.41	0
1164.23	0
1170.14	0
1181.96	0
1193.78	0
1205.6	0
1211.51	0
1223.33	0
1235.15	0
1241.06	0
1252.88	0
1264.7	0
1270.61	0
1282.43	0
1294.25	0
1300.16	0
1311.98	0
1323.8	0
1335.62	0
1341.53	0
1353.35	0
1365.17	0
1371.08	0
1382.9	0
1394.72	0
1400.63	0
1412.45	0
1424.27	0
1430.18	0
1441.99	0
1453.81	0
1465.63	0
1471.54	0
1483.36	0
1495.18	0
1501.09	0
1512.91	0
1524.73	0
1530.64	0
1542.46	0
1554.28	0
1560.19	0
1572.01	0
1583.83	0
1595.65	0
1601.56	0
1613.38	0
1625.2	0
1631.11	0
1642.93	0
1654.75	0
1660.66	0
1672.48	0
1684.3	0
1690.21	0
1702.03	0
1713.85	0
1725.67	0
1731.58	0
1743.4	0
1755.21	0
1761.12	0
1772.94	0
1784.76	0
1790.67	0
1802.49	0
1814.31	0
1820.22	0
1832.04	0
1843.86	0
1855.68	0
1861.59	0
1873.41	0
1885.23	0
1891.14	0
1902.96	0
1914.78	0
1920.69	0
1932.51	0
1944.33	0
1950.24	0
1962.06	0
1973.88	0
1985.7	0
1991.61	0
2003.43	0
2015.25	0
2021.16	0
2032.98	0
2044.8	0
2050.71	0
2062.53	0
2074.34	0
2080.25	0
2092.07	0
2103.89	0
2115.71	0
2121.62	0
2133.44	0
2145.26	0
2151.17	0
2162.99	0
2174.81	0
2180.72	0
2192.54	0
2204.36	0
2210.27	0
2222.09	0
2233.91	0
2245.73	0
2251.64	0
2263.46	0
2275.28	0
2281.19	0
2293.01	0
2304.83	0
2310.74	0
2322.56	0
2334.38	0
2340.29	0
2352.11	-1.81899e-12
2363.93	-3.63798e-12
2375.75	-4.54747e-12
2381.66	-5.45697e-12
2393.47	-7.27596e-12
2405.29	-1.00044e-11
2411.2	-1.18234e-11
2423.02	-1.63709e-11
2434.84	-2.27374e-11
2440.75	-2.63753e-11
2452.57	-3.63798e-11
2464.39	-5.00222e-11
2470.3	-5.82077e-11
2482.12	-7.82165e-11
2493.94	-1.06411e-10
2505.76	-1.437e-10
2511.67	-1.67347e-10
2523.49	-2.25555e-10
2535.31	-3.01952e-10
2541.22	-3.49246e-10
2553.04	-4.65661e-10
2564.86	-6.18456e-10
2570.77	-7.12134e-10
2582.59	-9.40418e-10
2594.41	-1.23691e-09
2600.32	-1.41699e-09
2612.14	-1.85446e-09
2623.96	-2.41926e-09
2635.78	-3.14412e-09
2641.69	-3.57977e-09
2653.51	-4.62751e-09
2665.33	-5.96174e-09
2671.24	-6.75846e-09
2683.06	-8.66385e-09
2694.88	-1.10695e-08
2700.79	-1.24965e-08
2712.6	-1.58871e-08
2724.42	-2.01326e-08
2730.33	-2.26364e-08
2742.15	-2.8549e-08
2753.97	-3.58941e-08
2765.79	-4.49872e-08
2771.7	-5.03069e-08
2783.52	-6.27651e-08
2795.34	-7.80728e-08
2801.25	-8.69768e-08
2813.07	-1.07709e-07
2824.89	-1.32994e-07
2830.8	-1.47622e-07
2842.62	-1.81493e-07
2854.44	-2.22505e-07
2860.35	-2.46107e-07
2872.17	-3.0046e-07
2883.99	-3.65811e-07
2895.81	-4.44168e-07
2901.72	-4.8894e-07
2913.54	-5.91296e-07
2925.36	-7.13201e-07
2931.27	-7.82512e-07
2943.09	-9.40176e-07
2954.91	-1.12673e-06
2960.82	-1.23228e-06
2972.64	-1.47123e-06
2984.46	-1.75217e-06
2990.37	-1.91039e-06
3002.19	-2.26687e-06
3014	-2.68341e-06
3025.82	-3.16895e-06
3031.73	-3.4407e-06
3043.55	-4.04903e-06
3055.37	-4.75393e-06
3061.28	-5.14674e-06
3073.1	-6.0222e-06
3084.92	-7.03081e-06
3090.83	-7.59049e-06
3102.65	-8.83249e-06
3114.47	-1.02554e-05
3120.38	-1.10417e-05
3132.2	-1.27794e-05
3144.02	-1.47594e-05
3155.84	-1.70106e-05
3161.75	-1.82477e-05
3173.57	-2.09662e-05
3185.39	-2.40408e-05
3191.3	-2.57239e-05
3203.12	-2.94078e-05
3214.94	-3.35531e-05
3220.85	-3.58137e-05
3232.67	-4.07428e-05
3244.49	-4.62613e-05
3250.4	-4.92598e-05
3262.21	-5.57732e-05
3274.03	-6.30298e-05
3285.85	-7.10989e-05
3291.76	-7.54609e-05
3303.58	-8.48881e-05
3315.4	-9.53206e-05
3321.31	-0.00010094
3333.13	-0.000113042
3344.95	-0.000126372
3350.86	-0.000133527
3362.68	-0.000148881
3374.5	-0.000165714
3380.41	-0.000174718
3392.23	-0.000193973
3404.05	-0.000214985
3415.87	-0.000237871
3421.78	-0.000250054
3433.6	-0.000275981
3445.42	-0.000304089
3451.33	-0.000319002
3463.14	-0.000350623
3474.96	-0.000384746
3480.87	-0.000402786
3492.69	-0.000440904
3504.51	-0.000481843
3510.42	-0.00050341
3522.24	-0.000548814
3534.06	-0.000597342
3545.88	-0.000649107
3551.79	-0.000676236
3563.61	-0.000733049
3575.43	-0.000793341
3581.34	-0.000824816
3593.16	-0.000890467
3604.98	-0.000959763
3610.89	-0.000995789
3622.7	-0.00107061
3634.52	-0.00114914
3640.43	-0.00118978
3652.25	-0.0012738
3664.07	-0.00136141
3675.89	-0.00145253
3681.8	-0.00149936
3693.62	-0.00159546
3705.44	-0.00169466
3711.35	-0.00174535
3723.17	-0.00184874
3734.99	-0.00195453
3740.9	-0.00200822
3752.72	-0.00211693
3764.54	-0.00222701
3770.44	-0.00228241
3782.26	-0.00239356
3794.08	-0.00250464
3805.9	-0.00261496
3811.81	-0.00266958
3823.63	-0.00277723
3835.45	-0.00288198
3841.36	-0.00293295
3853.18	-0.00303141
3865	-0.00312426
3870.91	-0.00316818
3882.73	-0.00325021
3894.55	-0.00332328
3900.46	-0.00335598
3912.27	-0.00341271
3924.09	-0.00345644
3930	-0.00347287
3941.82	-0.00349366
3953.64	-0.0034967
3965.46	-0.00347986
3971.37	-0.0034633
3983.19	-0.00341242
3995.01	-0.00333586
4000.92	-0.00328717
4012.74	-0.00316729
4024.56	-0.00301518
4030.47	-0.00292616
4042.29	-0.00272038
4054.1	-0.00247511
4060.01	-0.00233671
4071.83	-0.00202642
4083.65	-0.00166876
4095.47	-0.00126046
4101.38	-0.00103626
4113.2	-0.00054562
4125.02	4.21771e-06
4130.93	0.000302434
4142.75	0.000947673
4154.57	0.00166096
4160.48	0.00204423
4172.3	0.00286629
4184.12	0.00376532
4190.03	0.00424481
4201.84	0.00526595
4213.66	0.00637284
4225.48	0.00756891
4231.39	0.00820143
4243.21	0.00953748
4255.03	0.0109708
4260.94	0.0117249
4272.76	0.0133098
4284.58	0.0149993
4290.49	0.0158841
4302.31	0.0177352
4314.13	0.0196971
4320.04	0.0207202
4331.86	0.0228518
4343.68	0.0250988
4355.5	0.0274624
4361.41	0.0286884
4373.22	0.0312289
4385.04	0.0338882
4390.95	0.0352624
4402.77	0.0381
4414.59	0.0410561
4420.5	0.0425784
4432.32	0.0457107
4444.14	0.0489589
4450.05	0.0506259
4461.87	0.0540443
4473.69	0.0575731
4485.51	0.0612096
4491.42	0.0630671
4503.24	0.0668585
4515.06	0.0707481
4520.97	0.0727283
4532.79	0.0767567
4544.61	0.080871
4550.52	0.0829587
4562.34	0.0871913
4574.16	0.0914948
4580.07	0.093671
4591.89	0.0980681
4603.71	0.102518
4615.52	0.107014
4621.43	0.109276
4633.25	0.113823
4645.07	0.118395
4650.98	0.120687
4662.8	0.125277
4674.62	0.129868
4680.53	0.132161
4692.35	0.136734
4704.17	0.141282
4710.08	0.143544
4721.9	0.148036
4733.72	0.152477
4745.54	0.156857
4751.45	0.15902
4763.27	0.163287
4775.09	0.167464
4781	0.169517
4792.82	0.173541
4804.64	0.177449
4810.55	0.179356
4822.37	0.183071
4834.19	0.186643
4840.1	0.188373
4851.92	0.191713
4863.74	0.194885
4875.56	0.197881
4881.47	0.19931
4893.29	0.202023
4905.11	0.204538
4911.02	0.205718
4922.83	0.207918
4934.65	0.2099
4940.56	0.210807
4952.38	0.212449
4964.2	0.213855
4970.11	0.214468
4981.93	0.215512
4993.75	0.216308
5005.57	0.216851
5011.48	0.217028
5023.3	0.217187
5035.12	0.217088
5041.03	0.21694
5052.85	0.216449
5064.67	0.215695
5070.58	0.21522
5082.4	0.214072
5094.22	0.212664
5100.13	0.211862
5111.95	0.210065
5123.77	0.208012
5135.59	0.205707
5141.5	0.204461
5153.32	0.201785
5165.14	0.198868
5171.05	0.197321
5182.87	0.194052
5194.69	0.190558
5200.59	0.188729
5212.41	0.184909
5224.23	0.180882
5230.14	0.178793
5241.96	0.174471
5253.78	0.169963
5265.6	0.16528
5271.51	0.162875
5283.33	0.157946
5295.15	0.152866
5301.06	0.150273
5312.88	0.144988
5324.7	0.139579
5330.61	0.136832
5342.43	0.131259
5354.25	0.125592
5360.16	0.122726
5371.98	0.116939
5383.8	0.111086
5395.62	0.105179
5401.53	0.10221
5413.35	0.0962444
5425.17	0.090255
5431.08	0.0872547
5442.9	0.0812503
5454.72	0.0752502
5460.63	0.0722552
5472.45	0.0662822
5484.27	0.0603408
5490.17	0.0573853
5501.99	0.0515109
5513.81	0.0456939
5525.63	0.0399437
5531.54	0.0370967
5543.36	0.0314644
5555.18	0.0259216
5561.09	0.0231864
5572.91	0.0177932
5584.73	0.0125095
5590.64	0.00991092
5602.46	0.00480459
5614.28	-0.000175303
5620.19	-0.00261596
5632.01	-0.00739521
5643.83	-0.0120341
5655.65	-0.0165279
5661.56	-0.0187191
5673.38	-0.0229876
5685.2	-0.0271015
5691.11	-0.0290996
5702.93	-0.0329764
5714.75	-0.0366922
5720.66	-0.0384892
5732.48	-0.0419607
5744.3	-0.045268
5750.21	-0.0468599
5762.03	-0.0499201
5773.85	-0.0528158
5785.66	-0.0555475
5791.57	-0.0568523
5803.39	-0.0593402
5815.21	-0.0616677
5821.12	-0.0627718
5832.94	-0.0648623
5844.76	-0.066798
5850.67	-0.0677087
5862.49	-0.0694175
5874.31	-0.0709793
5880.22	-0.0717061
5892.04	-0.0730539
5903.86	-0.074264
5915.68	-0.0753405
5921.59	-0.07583
5933.41	-0.0767144
5945.23	-0.0774763
5951.14	-0.0778129
5962.96	-0.0784001
5974.78	-0.0788769
5980.69	-0.0790755
5992.51	-0.0793961
6004.33	-0.0796188
6010.24	-0.079695
6022.06	-0.0797804
6033.88	-0.0797807
6045.7	-0.0797008
6051.61	-0.0796324
6063.43	-0.0794419
6075.25	-0.0791838
6081.16	-0.0790309
6092.97	-0.0786805
6104.79	-0.0782745
6110.7	-0.0780522
6122.52	-0.0775716
6134.34	-0.0770468
6140.25	-0.0767692
6152.07	-0.0761862
6163.89	-0.0755695
6175.71	-0.0749232
6181.62	-0.0745901
6193.44	-0.0739064
6205.26	-0.0732021
6211.17	-0.0728433
6222.99	-0.0721145
6234.81	-0.0713733
6240.72	-0.0709989
6252.54	-0.0702444
6264.36	-0.0694844
6270.27	-0.0691032
6282.09	-0.0683395
6293.91	-0.0675762
6305.73	-0.0668153
6311.64	-0.0664363
6323.46	-0.0656823
6335.28	-0.0649349
6341.19	-0.0645641
6353.01	-0.0638293
6364.83	-0.0631043
6370.74	-0.0627458
6382.56	-0.0620374
6394.38	-0.0613412
6400.28	-0.0609979
6412.1	-0.060321
6423.92	-0.0596577
6435.74	-0.0590082
6441.65	-0.0586887
6453.47	-0.0580604
6465.29	-0.0574462
6471.2	-0.0571444
6483.02	-0.0565513
6494.84	-0.0559721
6500.75	-0.0556876
6512.57	-0.0551286
6524.39	-0.0545827
6530.3	-0.0543145
6542.12	-0.0537873
6553.94	-0.0532718
6565.76	-0.0527676
6571.67	-0.0525195
6583.49	-0.0520309
6595.31	-0.0515519
6601.22	-0.0513157
6613.04	-0.0508497
6624.86	-0.0503914
6630.77	-0.050165
6642.59	-0.0497169
6654.41	-0.0492747
6660.32	-0.0490556
6672.14	-0.0486207
6683.96	-0.0481898
6695.78	-0.0477621
6701.69	-0.0475492
6713.51	-0.0471249
6725.32	-0.046702
6731.23	-0.0464908
6743.05	-0.0460687
6754.87	-0.0456462
6760.78	-0.0454347
6772.6	-0.0450107
6784.42	-0.0445849
6790.33	-0.0443712
6802.15	-0.0439417
6813.97	-0.0435092
6825.79	-0.0430732
6831.7	-0.0428538
6843.52	-0.0424118
6855.34	-0.0419654
6861.25	-0.0417405
6873.07	-0.0412869
6884.89	-0.0408282
6890.8	-0.0405969
6902.62	-0.0401303
6914.44	-0.0396582
6920.35	-0.0394201
6932.17	-0.0389396
6943.99	-0.0384535
6955.81	-0.0379618
6961.72	-0.0377139
6973.54	-0.037214
6985.36	-0.0367087
6991.27	-0.0364542
7003.09	-0.0359412
7014.91	-0.0354233
7020.82	-0.0351626
7032.64	-0.0346379
7044.46	-0.0341091
7050.37	-0.0338432
7062.18	-0.0333087
7074	-0.0327709
7085.82	-0.0322302
7091.73	-0.0319589
7103.55	-0.0314147
7115.37	-0.0308688
7121.28	-0.0305954
7133.1	-0.0300478
7144.92	-0.0294997
7150.83	-0.0292256
7162.65	-0.0286778
7174.47	-0.0281308
7180.38	-0.0278579
7192.2	-0.0273133
7204.02	-0.0267711
7215.84	-0.0262318
7221.75	-0.0259634
7233.57	-0.0254296
7245.39	-0.0249001
7251.3	-0.0246373
7263.12	-0.0241155
7274.94	-0.0235997
7280.85	-0.0233442
7292.67	-0.0228383
7304.49	-0.0223397
7310.4	-0.0220933
7322.22	-0.0216068
7334.04	-0.021129
7345.86	-0.0206605
7351.77	-0.0204299
7363.59	-0.0199763
7375.4	-0.0195331
7381.31	-0.0193157
7393.13	-0.0188893
7404.95	-0.0184745
7410.86	-0.0182716
7422.68	-0.0178752
7434.5	-0.0174914
7440.41	-0.0173044
7452.23	-0.0169403
7464.05	-0.0165898
7475.87	-0.0162531
7481.78	-0.01609
7493.6	-0.0157745
7505.42	-0.0154734
7511.33	-0.0153284
7523.15	-0.0150493
7534.97	-0.0147851
7540.88	-0.0146586
7552.7	-0.0144168
7564.52	-0.0141901
7570.43	-0.0140825
7582.25	-0.0138784
7594.07	-0.0136895
7605.89	-0.0135156
7611.8	-0.0134343
7623.62	-0.0132828
7635.44	-0.0131462
7641.35	-0.0130833
7653.17	-0.0129686
7664.98	-0.0128682
7670.89	-0.0128233
7682.71	-0.0127441
7694.53	-0.0126785
7700.44	-0.0126508
7712.26	-0.0126053
7724.08	-0.0125728
7735.9	-0.0125529
7741.81	-0.0125475
7753.63	-0.0125457
7765.45	-0.0125555
7771.36	-0.0125646
7783.18	-0.0125909
7795	-0.0126276
7800.91	-0.0126498
7812.73	-0.0127012
7824.55	-0.0127618
7830.46	-0.0127954
7842.28	-0.0128688
7854.1	-0.0129499
7860.01	-0.0129932
7871.83	-0.013085
7883.65	-0.0131831
7895.47	-0.013287
7901.38	-0.013341
7913.2	-0.0134524
7925.02	-0.013568
7930.92	-0.0136272
7942.74	-0.0137481
7954.56	-0.0138717
7960.47	-0.0139343
7972.29	-0.0140607
7984.11	-0.0141883
7990.02	-0.0142524
8001.84	-0.0143805
8013.66	-0.0145083
8025.48	-0.0146352
8031.39	-0.014698
8043.21	-0.0148222
8055.03	-0.014944
8060.94	-0.0150038
8072.76	-0.0151208
8084.58	-0.0152339
8090.49	-0.0152888
8102.31	-0.0153951
8114.13	-0.0154961
8120.04	-0.0155445
8131.86	-0.0156368
8143.68	-0.0157227
8155.5	-0.0158016
8161.41	-0.0158383
8173.23	-0.015906
8185.05	-0.0159656
8190.96	-0.0159923
8202.77	-0.0160393
8214.59	-0.0160772
8220.5	-0.0160927
8232.32	-0.0161165
8244.14	-0.0161305
8250.05	-0.0161337
8261.87	-0.0161325
8273.69	-0.0161207
8285.51	-0.0160982
8291.42	-0.0160829
8303.24	-0.0160439
8315.06	-0.0159937
8320.97	-0.0159643
8332.79	-0.0158969
8344.61	-0.015818
8350.52	-0.0157741
8362.34	-0.0156776
8374.16	-0.0155694
8380.07	-0.0155108
8391.89	-0.0153848
8403.71	-0.015247
8415.53	-0.0150974
8421.44	-0.0150181
8433.26	-0.0148508
8445.08	-0.0146719
8450.99	-0.014578
8462.8	-0.0143817
8474.62	-0.014174
8480.53	-0.0140659
8492.35	-0.0138414
8504.17	-0.0136058
8510.08	-0.013484
8521.9	-0.0132323
8533.72	-0.0129701
8545.54	-0.0126976
8551.45	-0.0125576
8563.27	-0.0122702
8575.09	-0.0119733
8581	-0.0118213
8592.82	-0.0115104
8604.64	-0.0111907
8610.55	-0.0110277
8622.37	-0.0106953
8634.19	-0.0103549
8640.1	-0.0101818
8651.92	-0.00983009
8663.74	-0.00947122
8675.56	-0.00910562
8681.47	-0.00892041
8693.29	-0.00854542
8705.11	-0.00816466
8711.02	-0.00797225
8722.84	-0.00758361
8734.66	-0.00719023
8740.56	-0.00699189
8752.38	-0.00659217
8764.2	-0.00618875
8770.11	-0.00598579
8781.93	-0.00557763
8793.75	-0.00516683
8805.57	-0.00475383
8811.48	-0.00454664
8823.3	-0.00413113
8835.12	-0.00371449
8841.03	-0.00350588
8852.85	-0.00308833
8864.67	-0.00267071
8870.58	-0.002462
8882.4	-0.00204504
8894.22	-0.00162905
8900.13	-0.00142154
8911.95	-0.00100775
8923.77	-0.000595939
8935.59	-0.00018649
8941.5	1.72251e-05
8953.32	0.0004224
8965.14	0.000824254
8971.05	0.00102382
8982.87	0.00142
8994.69	0.00181196
9000.6	0.00200624
9012.42	0.00239121
9024.23	0.0027711
9030.14	0.00295904
9041.96	0.0033307
9053.78	0.0036965
9065.6	0.00405613
9071.51	0.00423354
9083.33	0.00458339
9095.15	0.00492637
9101.06	0.0050952
9112.88	0.0054274
9124.7	0.0057521
9130.61	0.00591157
9142.43	0.0062246
9154.25	0.00652959
9160.16	0.006679
9171.98	0.00697154
9183.8	0.00725555
9195.62	0.00753085
9201.53	0.00766519
9213.35	0.00792715
9225.17	0.00818002
9231.08	0.00830301
9242.9	0.00854203
9254.72	0.00877165
9260.63	0.00888291
9272.45	0.00909828
9284.27	0.00930402
9290.18	0.00940326
9302	0.00959444
9313.81	0.00977584
9325.63	0.0099474
9331.54	0.0100295
9343.36	0.0101862
9355.18	0.0103331
9361.09	0.0104028
9372.91	0.0105348
9384.73	0.0106568
9390.64	0.0107141
9402.46	0.0108213
9414.28	0.0109187
9420.19	0.0109636
9432.01	0.0110462
9443.83	0.011119
9455.65	0.0111821
9461.56	0.01121
9473.38	0.0112586
9485.2	0.0112976
9491.11	0.0113136
9502.93	0.0113384
9514.75	0.0113538
9520.66	0.011358
9532.48	0.0113596
9544.3	0.0113519
9550.21	0.0113447
9562.03	0.0113236
9573.85	0.0112936
9585.67	0.0112548
9591.58	0.0112321
9603.39	0.0111803
9615.21	0.0111201
9621.12	0.0110868
9632.94	0.011014
9644.76	0.0109331
9650.67	0.0108896
9662.49	0.0107966
9674.31	0.0106957
9680.22	0.0106423
9692.04	0.0105299
9703.86	0.0104099
9715.68	0.0102826
9721.59	0.0102161
9733.41	0.0100779
9745.23	0.00993251
9751.14	0.00985722
9762.96	0.00970149
9774.78	0.00953901
9780.69	0.00945527
9792.51	0.0092829
9804.33	0.0091041
9810.24	0.00901233
9822.06	0.00882414
9833.88	0.00862984
9845.7	0.00842956
9851.61	0.00832722
9863.43	0.00811822
9875.25	0.00790355
9881.16	0.00779414
9892.98	0.00757122
9904.8	0.00734295
9910.7	0.00722684
9922.52	0.00699077
9934.34	0.00674965
9940.25	0.00662723
9952.07	0.00637876
9963.89	0.00612554
9975.71	0.00586768
9981.62	0.00573705
9993.44	0.00547245
10005.3	0.00520351
10011.2	0.00506744
10023	0.00479218
10034.8	0.00451286
10040.7	0.00437171
10052.5	0.00408649
10064.4	0.00379748
10070.3	0.00365159
10082.1	0.00335711
10093.9	0.0030591
10105.7	0.00275769
10111.6	0.00260574
10123.5	0.00229942
10135.3	0.00198997
10141.2	0.00183409
10153	0.00152013
10164.8	0.0012033
10170.7	0.00104384
10182.6	0.000722906
10194.4	0.000399371
10200.3	0.000236661
10212.1	-9.05754e-05
10223.9	-0.000420145
10235.7	-0.000751941
10241.7	-0.00091864
10253.5	-0.00125357
10265.3	-0.00159046
10271.2	-0.00175961
10283	-0.00209923
10294.8	-0.00244055
10300.8	-0.0026118
10312.6	-0.00295545
10324.4	-0.00330051
10330.3	-0.00347354
10342.1	-0.00382053
10353.9	-0.00416866
10365.8	-0.00451784
10371.7	-0.00469279
10383.5	-0.00504332
10395.3	-0.00539463
10401.2	-0.00557054
10413	-0.00592281
10424.9	-0.00627558
10430.8	-0.00645212
10442.6	-0.00680544
10454.4	-0.00715901
10460.3	-0.00733585
10472.1	-0.00768957
10484	-0.00804328
10495.8	-0.00839685
10501.7	-0.00857356
10513.5	-0.00892676
10525.3	-0.00927957
10531.2	-0.0094558
10543.1	-0.00980786
10554.9	-0.0101593
10560.8	-0.0103347
10572.6	-0.010685
10584.4	-0.0110344
10590.3	-0.0112088
10602.2	-0.0115567
10614	-0.0119036
10625.8	-0.0122492
10631.7	-0.0124216
10643.5	-0.0127652
10655.3	-0.0131075
10661.3	-0.0132781
10673.1	-0.0136181
10684.9	-0.0139564
10690.8	-0.014125
10702.6	-0.0144608
10714.4	-0.0147947
10720.3	-0.014961
10732.2	-0.0152921
10744	-0.0156211
10755.8	-0.0159481
10761.7	-0.0161108
10773.5	-0.0164345
10785.4	-0.016756
10791.3	-0.0169159
10803.1	-0.0172338
10814.9	-0.0175494
10820.8	-0.0177062
10832.6	-0.018018
10844.5	-0.0183273
10850.4	-0.0184809
10862.2	-0.0187862
10874	-0.0190888
10885.8	-0.0193886
10891.7	-0.0195374
10903.6	-0.0198329
10915.4	-0.0201256
10921.3	-0.0202708
10933.1	-0.020559
10944.9	-0.0208441
10950.8	-0.0209856
10962.7	-0.0212661
10974.5	-0.0215434
10980.4	-0.0216809
10992.2	-0.0219535
11004	-0.0222227
11015.8	-0.0224887
11021.7	-0.0226204
11033.6	-0.0228813
11045.4	-0.0231387
11051.3	-0.0232661
11063.1	-0.0235183
11074.9	-0.0237669
11080.8	-0.0238898
11092.7	-0.024133
11104.5	-0.0243725
11110.4	-0.0244908
11122.2	-0.0247246
11134	-0.0249546
11145.9	-0.0251808
11151.8	-0.0252923
11163.6	-0.0255126
11175.4	-0.0257287
11181.3	-0.0258353
11193.1	-0.0260454
11205	-0.0262512
11210.9	-0.0263526
11222.7	-0.0265521
11234.5	-0.0267473
11240.4	-0.0268433
11252.2	-0.0270318
11264.1	-0.0272159
11275.9	-0.0273954
11281.8	-0.0274835
11293.6	-0.027656
11305.4	-0.0278238
11311.3	-0.0279059
11323.1	-0.0280664
11335	-0.028222
11340.9	-0.0282979
11352.7	-0.0284459
11364.5	-0.0285888
11370.4	-0.0286583
11382.2	-0.0287933
11394.1	-0.0289229
11405.9	-0.0290472
11411.8	-0.0291072
11423.6	-0.0292231
11435.4	-0.0293333
11441.3	-0.0293863
11453.2	-0.0294878
11465	-0.0295834
11470.9	-0.029629
11482.7	-0.0297157
11494.5	-0.0297962
11500.4	-0.0298341
11512.3	-0.0299052
11524.1	-0.0299699
11535.9	-0.0300282
11541.8	-0.0300549
11553.6	-0.0301033
11565.5	-0.030145
11571.4	-0.0301633
11583.2	-0.0301948
11595	-0.0302193
11600.9	-0.0302289
11612.7	-0.0302428
11624.6	-0.0302496
11630.5	-0.0302502
11642.3	-0.030246
11654.1	-0.0302345
11660	-0.0302259
11671.8	-0.030203
11683.6	-0.0301725
11695.5	-0.0301343
11701.4	-0.0301123
11713.2	-0.0300624
11725	-0.0300046
11730.9	-0.0299727
11742.7	-0.0299029
11754.6	-0.029825
11760.5	-0.029783
11772.3	-0.0296929
11784.1	-0.0295944
11790	-0.0295421
11801.8	-0.0294312
11813.7	-0.0293119
11825.5	-0.0291841
11831.4	-0.029117
11843.2	-0.0289764
11855	-0.0288273
11860.9	-0.0287495
11872.8	-0.0285874
11884.6	-0.0284166
11890.5	-0.0283279
11902.3	-0.0281441
11914.1	-0.0279515
11920	-0.0278519
11931.9	-0.0276462
11943.7	-0.0274317
11955.5	-0.0272084
11961.4	-0.0270934
11973.2	-0.0268569
11985	-0.0266116
11991	-0.0264856
12002.8	-0.0262272
12014.6	-0.0259599
12020.5	-0.025823
12032.3	-0.0255426
12044.1	-0.0252535
12050.1	-0.0251057
12061.9	-0.0248036
12073.7	-0.0244929
12085.5	-0.0241736
12091.4	-0.0240108
12103.2	-0.0236787
12115.1	-0.0233382
12121	-0.0231648
12132.8	-0.0228117
12144.6	-0.0224503
12150.5	-0.0222665
12162.3	-0.0218929
12174.2	-0.0215111
12180.1	-0.0213172
12191.9	-0.0209235
12203.7	-0.0205218
12215.5	-0.0201124
12221.4	-0.0199048
12233.3	-0.019484
12245.1	-0.0190556
12251	-0.0188386
12262.8	-0.0183991
12274.6	-0.0179524
12280.5	-0.0177264
12292.4	-0.0172691
12304.2	-0.0168049
12310.1	-0.0165703
12321.9	-0.016096
12333.7	-0.0156152
12345.5	-0.0151279
12351.5	-0.0148819
12363.3	-0.0143853
12375.1	-0.0138827
12381	-0.0136291
12392.8	-0.0131177
12404.6	-0.0126007
12410.6	-0.0123402
12422.4	-0.011815
12434.2	-0.0112847
12440.1	-0.0110176
12451.9	-0.0104798
12463.7	-0.00993728
12475.6	-0.00939016
12481.5	-0.00911495
12493.3	-0.00856134
12505.1	-0.00800364
12511	-0.00772332
12522.8	-0.00715985
12534.7	-0.00659279
12540.6	-0.00630798
12552.4	-0.00573591
12564.2	-0.00516075
12570.1	-0.00487208
12581.9	-0.00429268
12593.8	-0.00371073
12605.6	-0.00312643
12611.5	-0.00283346
12623.3	-0.00224605
12635.1	-0.00165682
12641	-0.0013616
12652.9	-0.000770086
12664.7	-0.000177315
12670.6	0.000119471
12682.4	0.000713702
12694.2	0.00130863
12700.1	0.00160628
12712	0.00220181
12723.8	0.00279747
12735.6	0.00339303
12741.5	0.0036907
12753.3	0.00428567
12765.1	0.00487996
12771.1	0.00517678
12782.9	0.00576963
12794.7	0.00636121
12800.6	0.00665646
12812.4	0.00724573
12824.2	0.00783317
12830.2	0.00812613
12842	0.00871038
12853.8	0.00929222
12865.6	0.00987142
12871.5	0.01016
12883.3	0.0107348
12895.2	0.0113064
12901.1	0.0115909
12912.9	0.0121572
12924.7	0.0127198
12930.6	0.0129996
12942.4	0.0135561
12954.3	0.0141082
12960.2	0.0143826
12972	0.0149278
12983.8	0.0154681
12995.6	0.0160033
13001.5	0.0162689
13013.4	0.016796
13025.2	0.0173174
13031.1	0.017576
13042.9	0.0180886
13054.7	0.018595
13060.6	0.0188458
13072.5	0.0193425
13084.3	0.0198326
13090.2	0.020075
13102	0.0205546
13113.8	0.0210271
13125.6	0.0214921
13131.6	0.0217218
13143.4	0.0221754
13155.2	0.0226211
13161.1	0.022841
13172.9	0.0232745
13184.7	0.0236998
13190.6	0.0239092
13202.5	0.0243217
13214.3	0.0247253
13220.2	0.0249238
13232	0.025314
13243.8	0.025695
13255.7	0.0260666
13261.6	0.0262489
13273.4	0.0266062
13285.2	0.0269538
13291.1	0.0271239
13302.9	0.0274565
13314.8	0.0277791
13320.7	0.0279365
13332.5	0.0282436
13344.3	0.0285403
13350.2	0.0286846
13362	0.0289653
13373.9	0.0292352
13385.7	0.0294942
13391.6	0.0296195
13403.4	0.0298619
13415.2	0.030093
13421.1	0.0302044
13433	0.0304185
13444.8	0.0306211
13450.7	0.0307181
13462.5	0.0309034
13474.3	0.0310769
13480.2	0.0311592
13492.1	0.031315
13503.9	0.0314588
13515.7	0.0315906
13521.6	0.0316519
13533.4	0.0317655
13545.2	0.0318669
13551.1	0.031913
13563	0.031996
13574.8	0.0320666
13580.7	0.0320972
13592.5	0.0321492
13604.3	0.0321887
13610.2	0.0322037
13622.1	0.0322244
13633.9	0.0322324
13645.7	0.0322279
13651.6	0.0322208
13663.4	0.0321973
13675.3	0.0321611
13681.2	0.0321382
13693	0.0320829
13704.8	0.0320149
13710.7	0.0319762
13722.5	0.0318891
13734.4	0.0317893
13740.3	0.0317346
13752.1	0.0316158
13763.9	0.0314843
13775.7	0.0313401
13781.6	0.0312633
13793.5	0.0311001
13805.3	0.0309244
13811.2	0.0308318
13823	0.0306373
13834.8	0.0304303
13840.7	0.0303221
13852.5	0.0300964
13864.4	0.0298584
13870.3	0.0297348
13882.1	0.0294784
13893.9	0.0292098
13905.7	0.0289292
13911.6	0.0287843
13923.5	0.0284857
13935.3	0.0281751
13941.2	0.0280154
13953	0.0276873
13964.8	0.0273475
13970.7	0.0271733
13982.6	0.0268163
13994.4	0.0264479
14000.3	0.0262595
14012.1	0.0258744
14023.9	0.0254783
14035.8	0.0250713
14041.7	0.0248638
14053.5	0.0244408
14065.3	0.0240073
14071.2	0.0237866
14083	0.0233377
14094.9	0.0228787
14100.8	0.0226455
14112.6	0.0221716
14124.4	0.0216882
14130.3	0.0214429
14142.1	0.0209454
14153.9	0.0204388
14165.8	0.0199232
14171.7	0.0196621
14183.5	0.0191335
14195.3	0.0185964
14201.2	0.0183249
14213	0.0177756
14224.9	0.0172186
14230.8	0.0169372
14242.6	0.0163689
14254.4	0.0157933
14260.3	0.0155029
14272.1	0.014917
14284	0.0143245
14295.8	0.0137256
14301.7	0.0134239
14313.5	0.0128161
14325.3	0.0122027
14331.2	0.0118939
14343.1	0.0112725
14354.9	0.0106462
14360.8	0.0103313
14372.6	0.00969819
14384.4	0.00906086
14390.3	0.00874072
14402.2	0.00809769
14414	0.00745124
14425.8	0.00680168
14431.7	0.00647584
14443.5	0.00582222
14455.3	0.0051663
14461.3	0.00483757
14473.1	0.0041788
14484.9	0.00351853
14490.8	0.00318794
14502.6	0.00252606
14514.4	0.00186351
14520.4	0.0015321
14532.2	0.000869197
14544	0.000206476
14555.8	-0.000455724
14561.7	-0.000786521
14573.5	-0.0014473
14585.4	-0.00210671
14591.3	-0.00243579
14603.1	-0.00309249
14614.9	-0.00374697
14620.8	-0.00407327
14632.6	-0.00472376
14644.5	-0.00537118
14650.4	-0.00569364
14662.2	-0.00633581
14674	-0.00697405
14685.8	-0.00760805
14691.7	-0.00792335
14703.6	-0.00855034
14715.4	-0.00917225
14721.3	-0.0094812
14733.1	-0.0100949
14744.9	-0.0107027
14750.8	-0.0110043
14762.7	-0.0116027
14774.5	-0.0121944
14780.4	-0.0124876
14792.2	-0.0130688
14804	-0.0136425
14815.8	-0.0142085
14821.8	-0.0144886
14833.6	-0.0150425
14845.4	-0.015588
14851.3	-0.0158575
14863.1	-0.0163899
14874.9	-0.0169132
14880.9	-0.0171714
14892.7	-0.0176806
14904.5	-0.0181802
14910.4	-0.0184262
14922.2	-0.0189108
14934	-0.0193851
14945.9	-0.0198489
14951.8	-0.0200768
14963.6	-0.0205245
14975.4	-0.0209613
14981.3	-0.0211755
14993.1	-0.0215955
15005	-0.022004
15010.9	-0.022204
15022.7	-0.0225952
15034.5	-0.0229746
15040.4	-0.0231598
15052.2	-0.0235213
15064.1	-0.0238707
15075.9	-0.0242079
15081.8	-0.0243718
15093.6	-0.0246906
15105.4	-0.0249969
15111.3	-0.0251454
15123.2	-0.0254329
15135	-0.0257079
15140.9	-0.0258407
15152.7	-0.0260968
15164.5	-0.0263402
15170.4	-0.0264571
15182.3	-0.0266815
15194.1	-0.0268933
15205.9	-0.0270924
15211.8	-0.0271872
15223.6	-0.0273673
15235.4	-0.0275349
15241.4	-0.027614
15253.2	-0.0277628
15265	-0.0278991
15270.9	-0.0279627
15282.7	-0.0280805
15294.5	-0.0281861
15300.5	-0.0282344
15312.3	-0.0283218
15324.1	-0.0283973
15330	-0.0284306
15341.8	-0.0284884
15353.6	-0.0285345
15365.5	-0.0285692
15371.4	-0.0285822
15383.2	-0.0285999
15395	-0.0286065
15400.9	-0.0286057
15412.7	-0.0285959
15424.6	-0.0285755
15430.5	-0.0285614
15442.3	-0.0285254
15454.1	-0.0284792
15460	-0.0284523
15471.8	-0.0283913
15483.7	-0.0283206
15495.5	-0.0282405
15501.4	-0.028197
15513.2	-0.0281032
15525	-0.0280006
15530.9	-0.027946
15542.8	-0.0278305
15554.6	-0.0277068
15560.5	-0.027642
15572.3	-0.0275063
15584.1	-0.0273631
15590	-0.0272887
15601.9	-0.0271344
15613.7	-0.0269732
15625.5	-0.0268052
15631.4	-0.0267188
15643.2	-0.0265411
15655	-0.0263574
15661	-0.0262633
15672.8	-0.0260709
15684.6	-0.025873
15690.5	-0.0257721
15702.3	-0.0255665
15714.1	-0.025356
15720	-0.0252491
15731.9	-0.0250318
15743.7	-0.0248104
15755.5	-0.024585
15761.4	-0.0244709
15773.2	-0.0242399
15785.1	-0.0240057
15791	-0.0238873
15802.8	-0.0236484
15814.6	-0.0234067
15820.5	-0.0232849
15832.3	-0.0230394
15844.2	-0.0227917
15850.1	-0.0226671
15861.9	-0.0224164
15873.7	-0.0221641
15885.5	-0.0219102
15891.4	-0.0217827
15903.3	-0.0215269
15915.1	-0.02127
15921	-0.0211412
15932.8	-0.0208831
15944.6	-0.0206244
15950.5	-0.0204949
15962.4	-0.0202356
15974.2	-0.0199761
15980.1	-0.0198463
15991.9	-0.0195868
16003.7	-0.0193274
16015.5	-0.0190684
16021.4	-0.018939
16033.3	-0.0186806
16045.1	-0.0184228
16051	-0.0182941
16062.8	-0.0180374
16074.6	-0.0177816
16080.5	-0.0176541
16092.4	-0.0173997
16104.2	-0.0171464
16110.1	-0.0170202
16121.9	-0.0167687
16133.7	-0.0165185
16145.6	-0.0162697
16151.5	-0.0161458
16163.3	-0.015899
16175.1	-0.0156538
16181	-0.0155317
16192.8	-0.0152887
16204.7	-0.0150473
16210.6	-0.0149273
16222.4	-0.0146883
16234.2	-0.014451
16240.1	-0.0143329
16251.9	-0.0140981
16263.8	-0.0138649
16275.6	-0.0136335
16281.5	-0.0135184
16293.3	-0.0132894
16305.1	-0.0130622
16311	-0.0129492
16322.9	-0.0127245
16334.7	-0.0125014
16340.6	-0.0123905
16352.4	-0.0121698
16364.2	-0.0119508
16370.1	-0.0118419
16381.9	-0.0116252
16393.8	-0.0114101
16405.6	-0.0111966
16411.5	-0.0110903
16423.3	-0.0108789
16435.1	-0.010669
16441	-0.0105646
16452.9	-0.0103567
16464.7	-0.0101502
16470.6	-0.0100474
16482.4	-0.00984278
16494.2	-0.00963942
16500.1	-0.00953819
16512	-0.0093366
16523.8	-0.00913614
16535.6	-0.00893677
16541.5	-0.00883748
16553.3	-0.00863966
16565.2	-0.00844282
16571.1	-0.00834475
16582.9	-0.00814931
16594.7	-0.00795473
16600.6	-0.00785777
16612.4	-0.00766443
16624.3	-0.00747188
16630.2	-0.00737588
16642	-0.00718441
16653.8	-0.00699363
16665.6	-0.0068035
16671.5	-0.00670867
16683.3	-0.00651944
16695.2	-0.00633079
16701.1	-0.00623666
16712.9	-0.0060488
16724.7	-0.00586143
16730.6	-0.00576793
16742.4	-0.00558126
16754.3	-0.00539503
16760.2	-0.00530208
16772	-0.00511647
16783.8	-0.00493125
16795.6	-0.00474641
16801.5	-0.00465412
16813.4	-0.00446983
16825.2	-0.00428588
16831.1	-0.00419403
16842.9	-0.0040106
16854.7	-0.0038275
16860.6	-0.00373608
16872.5	-0.00355349
16884.3	-0.00337123
16890.2	-0.00328023
16902	-0.0030985
16913.8	-0.00291711
16925.7	-0.00273609
16931.6	-0.00264572
16943.4	-0.00246527
16955.2	-0.00228522
16961.1	-0.00219535
16972.9	-0.00201593
16984.7	-0.00183695
16990.7	-0.00174764
17002.5	-0.00156938
17014.3	-0.00139162
17020.2	-0.00130293
17032	-0.00112598
17043.8	-0.000949606
17055.7	-0.000773837
17061.6	-0.00068619
17073.4	-0.000511393
17085.2	-0.000337288
17091.1	-0.000250506
17102.9	-7.75077e-05
17114.8	9.47058e-05
17120.7	0.000180506
17132.5	0.000351467
17144.3	0.000521541
17150.2	0.000606233
17162	0.000774898
17173.9	0.00094257
17185.7	0.0011092
17191.6	0.00119212
17203.4	0.00135711
17215.2	0.00152095
17221.1	0.00160242
17233	0.00176444
17244.8	0.0019252
17250.7	0.00200509
17262.5	0.00216385
17274.3	0.00232122
17280.2	0.00239937
17292.1	0.00255457
17303.9	0.00270827
17315.7	0.00286041
17321.6	0.00293588
17333.4	0.00308559
17345.2	0.00323363
17351.2	0.00330701
17363	0.00345245
17374.8	0.00359611
17380.7	0.00366725
17392.5	0.00380813
17404.3	0.00394711
17410.3	0.00401587
17422.1	0.00415192
17433.9	0.00428595
17445.7	0.00441792
17451.6	0.00448313
17463.4	0.00461195
17475.3	0.00473862
17481.2	0.00480113
17493	0.00492449
17504.8	0.00504561
17510.7	0.00510531
17522.5	0.00522299
17534.4	0.00533833
17540.3	0.00539511
17552.1	0.00550688
17563.9	0.00561624
17575.7	0.00572316
17581.6	0.00577569
17593.5	0.00587888
17605.3	0.00597957
17611.2	0.00602896
17623	0.00612583
17634.8	0.00622012
17640.7	0.0062663
17652.6	0.00635671
17664.4	0.00644449
17670.3	0.00648739
17682.1	0.00657122
17693.9	0.00665238
17705.7	0.00673087
17711.7	0.00676911
17723.5	0.00684357
17735.3	0.00691534
17741.2	0.0069502
17753	0.00701791
17764.8	0.0070829
17770.8	0.00711437
17782.6	0.00717529
17794.4	0.00723348
17800.3	0.00726156
17812.1	0.00731567
17823.9	0.00736707
17835.8	0.00741576
17841.7	0.00743909
17853.5	0.00748372
17865.3	0.00752567
17871.2	0.00754563
17883	0.00758355
17894.9	0.00761881
17900.8	0.00763544
17912.6	0.00766672
17924.4	0.00769537
17930.3	0.00770872
17942.1	0.00773346
17954	0.00775562
17965.8	0.00777522
17971.7	0.00778406
17983.5	0.00779985
17995.3	0.00781314
18001.2	0.00781886
18013.1	0.00782844
18024.9	0.00783558
18030.8	0.00783824
18042.6	0.00784178
18054.4	0.00784294
18060.3	0.00784265
18072.2	0.00784033
18084	0.00783573
18095.8	0.00782887
18101.7	0.00782461
18113.5	0.00781444
18125.3	0.00780211
18131.3	0.00779515
18143.1	0.00777965
18154.9	0.00776209
18160.8	0.00775254
18172.6	0.00773195
18184.4	0.0077094
18190.4	0.0076974
18202.2	0.00767198
18214	0.0076447
18225.8	0.00761561
18231.7	0.00760039
18243.5	0.00756866
18255.4	0.00753522
18261.3	0.00751788
18273.1	0.00748197
18284.9	0.00744448
18290.8	0.00742515
18302.6	0.00738535
18314.5	0.00734409
18320.4	0.00732292
18332.2	0.00727953
18344	0.0072348
18355.8	0.00718876
18361.7	0.00716526
18373.6	0.00711735
18385.4	0.00706826
18391.3	0.00704328
18403.1	0.0069925
18414.9	0.00694066
18420.8	0.00691435
18432.7	0.006861
18444.5	0.00680671
18450.4	0.00677922
18462.2	0.0067236
18474	0.00666716
18485.8	0.00660993
18491.8	0.00658104
18503.6	0.00652274
18515.4	0.00646377
18521.3	0.00643406
18533.1	0.00637418
18544.9	0.00631375
18550.8	0.00628335
18562.7	0.00622218
18574.5	0.00616057
18580.4	0.00612961
18592.2	0.00606742
18604	0.00600489
18615.9	0.00594207
18621.8	0.00591056
18633.6	0.00584736
18645.4	0.00578396
18651.3	0.0057522
18663.1	0.00568858
18675	0.00562485
18680.9	0.00559295
18692.7	0.00552912
18704.5	0.00546527
18710.4	0.00543334
18722.2	0.00536952
18734.1	0.00530574
18745.9	0.00524205
18751.8	0.00521024
18763.6	0.00514673
18775.4	0.00508336
18781.3	0.00505174
18793.2	0.00498865
18805	0.00492576
18810.9	0.0048944
18822.7	0.00483186
18834.5	0.00476958
18840.4	0.00473855
18852.3	0.00467669
18864.1	0.00461512
18875.9	0.00455387
18881.8	0.00452337
18893.6	0.00446261
18905.4	0.00440219
18911.3	0.00437211
18923.2	0.00431221
18935	0.00425268
18940.9	0.00422305
18952.7	0.00416405
18964.5	0.00410543
18970.4	0.00407626
18982.3	0.00401818
18994.1	0.00396048
19005.9	0.00390313
19011.8	0.0038746
19023.6	0.00381779
19035.5	0.00376133
19041.4	0.00373323
19053.2	0.00367728
19065	0.00362165
19070.9	0.00359396
19082.7	0.0035388
19094.6	0.00348393
19100.5	0.00345661
19112.3	0.00340215
19124.1	0.00334795
19130	0.00332094
19141.8	0.00326709
19153.7	0.00321344
19165.5	0.00315997
19171.4	0.00313329
19183.2	0.00308006
19195	0.00302694
19200.9	0.00300042
19212.7	0.00294744
19224.6	0.00289452
19230.5	0.00286808
19242.3	0.00281519
19254.1	0.00276228
19260	0.00273582
19271.8	0.00268284
19283.7	0.00262976
19295.5	0.00257656
19301.4	0.0025499
19313.2	0.00249646
19325	0.0024428
19330.9	0.00241588
19342.8	0.00236185
19354.6	0.00230752
19360.5	0.00228023
19372.3	0.0022254
19384.1	0.00217018
19390	0.00214241
19401.9	0.00208654
19413.7	0.0020302
19425.5	0.00197335
19431.4	0.00194472
19443.2	0.00188703
19455.1	0.00182873
19461	0.00179935
19472.8	0.00174009
19484.6	0.00168013
19490.5	0.00164988
19502.3	0.00158881
19514.1	0.00152697
19520.1	0.00149574
19531.9	0.00143265
19543.7	0.0013687
19555.5	0.00130385
19561.4	0.00127108
19573.2	0.00120481
19585.1	0.00113757
19591	0.00110357
19602.8	0.00103479
19614.6	0.000964961
19620.5	0.000929641
19632.3	0.000858174
19644.2	0.000785582
19650.1	0.000748856
19661.9	0.000674528
19673.7	0.000599013
19685.5	0.000522287
19691.4	0.000483464
19703.3	0.000404883
19715.1	0.000325041
19721	0.000284641
19732.8	0.000202873
19744.6	0.000119801
19750.5	7.77708e-05
19762.4	-7.28507e-06
19774.2	-9.36788e-05
19780.1	-0.000137381
19791.9	-0.000225801
19803.7	-0.000315582
19815.5	-0.000406732
19821.5	-0.000452821
19833.3	-0.000546032
19845.1	-0.000640619
19851	-0.00068843
19862.8	-0.000785084
19874.6	-0.000883113
19880.6	-0.000932642
19892.4	-0.00103273
19904.2	-0.00113417
19910.1	-0.00118541
19921.9	-0.00128888
19933.7	-0.00139369
19945.6	-0.00149983
19951.5	-0.00155339
19963.3	-0.00166148
19975.1	-0.00177086
19981	-0.00182603
19992.8	-0.0019373
