0	0
11.3034	0
20.9919	0
30.6804	0
40.3687	0
50.057	0
61.3599	0
71.048	0
80.736	0
90.4239	0
100.112	0
111.414	0
121.086	0
130.672	0
140.202	0
151.289	0
160.789	0
170.289	0
181.373	0
190.873	0
200.372	0
211.452	0
220.947	2.72848e-12
230.434	8.18545e-12
241.503	1.45519e-11
250.99	2.00089e-11
260.477	2.54659e-11
271.546	3.18323e-11
281.033	3.72893e-11
290.52	4.27463e-11
300.007	4.82032e-11
311.075	5.45697e-11
320.562	6.54836e-11
330.049	7.63976e-11
341.117	8.91305e-11
350.604	1.00044e-10
360.04	1.10958e-10
371.014	1.24601e-10
380.36	1.40972e-10
391.263	1.60071e-10
400.501	1.77351e-10
411.25	2.02817e-10
420.405	2.26464e-10
431.091	2.59206e-10
440.253	2.92857e-10
450.941	3.39242e-10
460.103	3.86535e-10
470.779	4.53838e-10
481.414	5.34783e-10
490.503	6.19366e-10
501.057	7.3851e-10
510.103	8.60382e-10
520.653	1.03137e-09
531.196	1.24146e-09
540.221	1.45701e-09
550.748	1.75351e-09
561.267	2.10912e-09
570.282	2.46655e-09
580.799	2.94585e-09
591.317	3.4961e-09
600.332	4.02724e-09
610.849	4.71755e-09
621.366	5.48789e-09
630.381	6.21367e-09
640.898	7.1368e-09
651.415	8.14362e-09
660.43	9.06948e-09
670.947	1.02191e-08
681.462	1.14369e-08
690.457	1.25265e-08
700.944	1.38443e-08
711.431	1.5204e-08
720.419	1.63955e-08
730.906	1.78061e-08
741.393	1.92294e-08
750.382	2.04518e-08
760.868	2.18715e-08
771.355	2.32767e-08
780.344	2.44636e-08
790.83	2.58215e-08
801.317	2.71448e-08
810.305	2.82498e-08
820.792	2.95013e-08
831.279	3.07109e-08
840.267	3.17177e-08
850.754	3.286e-08
861.24	3.3976e-08
870.228	3.49182e-08
880.715	3.60142e-08
891.201	3.71238e-08
900.19	3.81033e-08
910.676	3.93038e-08
921.162	4.05962e-08
930.15	4.18067e-08
940.637	4.33756e-08
951.123	4.51637e-08
960.111	4.69136e-08
970.597	4.92655e-08
981.084	5.20222e-08
990.072	5.47661e-08
1000.56	5.84896e-08
1011.04	6.28661e-08
1020.03	6.72126e-08
1030.52	7.30761e-08
1041	7.99046e-08
1051.49	8.78235e-08
1060.48	9.55861e-08
1070.96	1.05908e-07
1081.45	1.17744e-07
1090.44	1.29224e-07
1100.92	1.44333e-07
1111.41	1.61477e-07
1120.4	1.77946e-07
1130.88	1.99415e-07
1141.36	2.23549e-07
1150.34	2.46546e-07
1160.83	2.763e-07
1171.31	3.0947e-07
1180.3	3.40844e-07
1190.78	3.81156e-07
1201.26	4.25774e-07
1210.25	4.67709e-07
1220.73	5.21266e-07
1231.21	5.80174e-07
1240.2	6.35235e-07
1250.68	7.05179e-07
1261.16	7.81693e-07
1270.15	8.52851e-07
1280.62	9.42742e-07
1291.07	1.0404e-06
1300.02	1.13077e-06
1310.46	1.24451e-06
1320.9	1.36803e-06
1331.33	1.50248e-06
1340.25	1.62659e-06
1350.65	1.7823e-06
1361.05	1.95006e-06
1371.46	2.13017e-06
1380.37	2.29455e-06
1390.77	2.49817e-06
1401.18	2.71475e-06
1410.09	2.91086e-06
1420.49	3.15209e-06
1430.9	3.40699e-06
1441.3	3.67587e-06
1450.19	3.91719e-06
1460.56	4.21199e-06
1470.92	4.52169e-06
1481.28	4.84703e-06
1490.16	5.13882e-06
1500.51	5.49495e-06
1510.87	5.86872e-06
1521.23	6.26101e-06
1530.11	6.6127e-06
1540.47	7.04194e-06
1550.79	7.49103e-06
1561.12	7.96275e-06
1571.41	8.45658e-06
1580.16	8.89616e-06
1590.37	9.43305e-06
1600.58	9.99725e-06
1610.79	1.05904e-05
1621	1.1214e-05
1631.21	1.187e-05
1641.42	1.25602e-05
1650.17	1.31804e-05
1660.38	1.39391e-05
1670.59	1.47378e-05
1680.8	1.55784e-05
1691.01	1.64634e-05
1701.22	1.73947e-05
1711.43	1.8374e-05
1720.18	1.92528e-05
1730.39	2.03252e-05
1740.6	2.14496e-05
1750.81	2.26271e-05
1761.02	2.38587e-05
1771.23	2.51456e-05
1781.44	2.64888e-05
1790.19	2.76857e-05
1800.4	2.91364e-05
1810.61	3.06466e-05
1820.82	3.22177e-05
1831.03	3.3851e-05
1841.23	3.55479e-05
1851.44	3.73102e-05
1860.2	3.88739e-05
1870.4	4.07621e-05
1880.61	4.27209e-05
1890.82	4.47525e-05
1901.03	4.68593e-05
1911.24	4.90438e-05
1921.45	5.13087e-05
1930.2	5.33162e-05
1940.41	5.57382e-05
1950.62	5.82493e-05
1960.83	6.08527e-05
1971.04	6.35519e-05
1981.25	6.63506e-05
1990	6.88316e-05
2000.21	7.18252e-05
2010.42	7.49296e-05
2020.63	7.81492e-05
2030.84	8.14883e-05
2041.05	8.49518e-05
2051.26	8.47854e-05
2060.01	8.35666e-05
2070.22	8.23988e-05
2080.42	8.14864e-05
2090.63	8.08122e-05
2100.84	8.03606e-05
2111.05	8.01171e-05
2121.26	8.00687e-05
2130.01	8.01737e-05
2140.22	8.04579e-05
2150.43	8.09075e-05
2160.64	8.15146e-05
2170.85	8.22723e-05
2181.06	8.31748e-05
2191.27	8.42174e-05
2200.02	8.52195e-05
2210.23	8.65123e-05
2220.43	8.79363e-05
2230.64	8.94899e-05
2240.85	9.11721e-05
2251.06	9.29828e-05
2261.27	9.49225e-05
2270.02	9.66885e-05
2280.23	9.88709e-05
2290.44	0.000101187
2300.65	0.000103639
2310.86	0.00010623
2321.06	0.000108963
2331.27	0.000111843
2340.02	0.00011443
2350.23	0.000117593
2360.44	0.000120914
2370.65	0.000124399
2380.86	0.000128053
2391.07	0.000131881
2401.28	0.00013589
2410.03	0.000139475
2420.24	0.000143837
2430.45	0.000148397
2440.65	0.000153143
2450.86	0.00015806
2461.07	0.000163137
2471.28	0.000168366
2480.03	0.000172964
2490.24	0.000178462
2500.45	0.000184101
2510.66	0.000189882
2520.87	0.000195807
2531.08	0.000201879
2541.28	0.000208103
2550.04	0.000213564
2560.24	0.000220087
2570.45	0.000226781
2580.66	0.000233657
2590.87	0.000240723
2601.08	0.000247991
2611.29	0.000255473
2620.04	0.000262066
2630.23	0.000269964
2640.39	0.000278092
2650.55	0.000286485
2660.71	0.000295156
2670.87	0.000304122
2681.03	0.000313394
2691.19	0.000322987
2701.36	0.000332914
2710.06	0.000341699
2720.23	0.000352283
2730.39	0.00036324
2740.55	0.000374584
2750.71	0.000386332
2760.87	0.000398497
2771.03	0.000411097
2781.19	0.000424149
2791.35	0.000437671
2800.06	0.000463683
2810.22	0.000497254
2820.38	0.000530605
2830.54	0.000563662
2840.7	0.000596397
2850.86	0.000628817
2861.03	0.000660956
2871.19	0.000692872
2881.35	0.000724639
2890.06	0.000751817
2900.22	0.000783552
2910.38	0.000815418
2920.54	0.000847527
2930.7	0.000879994
2940.86	0.000912938
2951.02	0.000946476
2961.18	0.000980724
2971.34	0.0010158
2980.05	0.0010466
2990.21	0.00108351
3000.37	0.00112148
3010.53	0.00116036
3020.69	0.00120001
3030.85	0.00124033
3041.01	0.00128131
3051.17	0.00132297
3061.33	0.00136536
3070.04	0.00140234
3080.2	0.00144636
3090.36	0.00149145
3100.53	0.00153778
3110.69	0.00158553
3120.85	0.00163489
3131.01	0.00168601
3141.17	0.00173907
3151.33	0.00179424
3160.04	0.00184332
3170.2	0.00190284
3180.36	0.00199833
3190.52	0.00213385
3200.68	0.00226209
3210.84	0.00238393
3221	0.00250088
3231.16	0.00261476
3241.32	0.00272749
3250.03	0.00282463
3260.19	0.00294013
3270.35	0.00305952
3280.51	0.00318401
3290.67	0.00331276
3300.83	0.00344501
3310.99	0.00358096
3321.15	0.00372147
3331.31	0.00386792
3340.02	0.00399948
3350.18	0.00416151
3360.34	0.00433421
3370.5	0.00461991
3380.66	0.00497453
3390.82	0.0053162
3400.98	0.00565455
3411.14	0.00600196
3421.3	0.00636856
3430.01	0.00669454
3440.17	0.00708508
3450.33	0.00749533
3460.49	0.0079398
3470.65	0.00879968
3480.81	0.00954532
3490.97	0.0103256
3501.13	0.011173
3511.29	0.012496
3521.45	0.0141069
3530.15	0.0157488
3540.31	0.0198512
3550.47	0.02755
3560.63	0.0337355
3570.79	0.0394348
3580.96	0.0451178
3591.12	0.0504671
3601.28	0.055463
3611.44	0.0600952
3620.14	0.0641609
3630.3	0.0690409
3640.46	0.0739416
3650.63	0.0786637
3660.79	0.0832624
3670.95	0.0878686
3681.11	0.0924981
3691.27	0.0970728
3701.43	0.101596
3710.14	0.10552
3720.3	0.110178
3730.46	0.11482
3740.62	0.11933
3750.78	0.123718
3760.94	0.128057
3771.1	0.132375
3781.26	0.136654
3791.42	0.140915
3800.13	0.144598
3810.29	0.14897
3820.45	0.153404
3830.61	0.15786
3840.86	0.162366
3851.11	0.166902
3861.36	0.171487
3870.15	0.175465
3880.4	0.180177
3890.64	0.184983
3900.89	0.189884
3911.14	0.194855
3921.39	0.199873
3930.18	0.204204
3940.43	0.209296
3950.68	0.21444
3960.93	0.219651
3971.19	0.224952
3981.44	0.230365
3990.23	0.235099
4000.49	0.240726
4010.74	0.24646
4021	0.252302
4031.26	0.258269
4040.05	0.263498
4050.3	0.269751
4060.56	0.276189
4070.82	0.282835
4081.07	0.289707
4091.33	0.29683
4100.12	0.30316
4110.39	0.310853
4120.67	0.318938
4130.95	0.327478
4141.26	0.336579
4150.11	0.344876
4160.45	0.355215
4170.79	0.366332
4181.13	0.378322
4190.01	0.389379
4200.38	0.403285
4210.8	0.418419
4221.21	0.434835
4230.14	0.45
4240.55	0.469047
4250.97	0.489616
4261.38	0.511753
4270.31	0.531997
4280.72	0.557106
4291.14	0.58381
4300.06	0.607947
4310.48	0.637513
4320.89	0.668512
4331.31	0.700816
4340.23	0.729416
4350.65	0.763656
4361.06	0.798591
4371.48	0.833921
4380.4	0.864267
4390.82	0.899416
4401.23	0.933908
4410.16	0.962621
4420.57	0.994708
4430.99	1.02479
4441.4	1.05234
4450.33	1.07349
4460.74	1.09478
4471.16	1.11184
4480.09	1.12263
4490.5	1.13019
4500.91	1.13174
4511.33	1.12667
4520.26	1.1166
4530.67	1.09764
4541.09	1.07043
4550.01	1.04016
4560.43	0.996389
4570.84	0.943225
4581.26	0.880471
4590.18	0.81898
4600.6	0.738236
4611.01	0.647767
4621.43	0.547413
4630.35	0.453204
4640.77	0.333007
4651.18	0.200537
4660.11	0.0757312
4670.53	-0.0600241
4680.94	-0.111355
4691.36	-0.163922
4700.3	-0.17891
4710.76	-0.211792
4721.22	-0.236128
4730.2	-0.252654
4740.66	-0.269989
4751.15	-0.277211
4760.14	-0.291237
4770.62	-0.303923
4781.11	-0.31403
4790.1	-0.321488
4800.58	-0.328358
4811.07	-0.33488
4820.06	-0.340268
4830.55	-0.346143
4841.03	-0.351434
4850.02	-0.34223
4860.51	-0.3449
4870.99	-0.350723
4881.47	-0.355543
4890.46	-0.359002
4900.94	-0.362411
4911.42	-0.365291
4920.41	-0.367448
4930.89	-0.369703
4941.37	-0.371307
4950.36	-0.372612
4960.84	-0.374046
4971.32	-0.375425
4980.31	-0.376591
4990.79	-0.377903
5001.27	-0.379139
5010.26	-0.380122
5020.74	-0.381164
5031.23	-0.381992
5040.21	-0.3738
5050.69	-0.374875
5061.16	-0.376315
5070.11	-0.377587
5080.56	-0.378873
5090.99	-0.379953
5101.42	-0.380804
5110.36	-0.381371
5120.77	-0.381865
5131.18	-0.382194
5140.1	-0.382357
5150.5	-0.382422
5160.91	-0.382365
5171.31	-0.382198
5180.22	-0.381976
5190.63	-0.381632
5201.03	-0.381204
5211.43	-0.3807
5220.35	-0.380212
5230.75	-0.379587
5241.15	-0.378905
5250.07	-0.378285
5260.47	-0.377519
5270.84	-0.376539
5281.21	-0.375411
5290.1	-0.374424
5300.46	-0.373249
5310.82	-0.372046
5321.18	-0.370811
5330.06	-0.369726
5340.41	-0.368428
5350.77	-0.367095
5361.13	-0.365725
5370.01	-0.364522
5380.32	-0.363093
5390.62	-0.361622
5400.83	-0.360111
5411.04	-0.358558
5421.25	-0.348099
5430	-0.347327
5440.21	-0.346412
5450.42	-0.345485
5460.63	-0.344547
5470.84	-0.343602
5481.05	-0.342652
5491.26	-0.341697
5500.01	-0.340876
5510.22	-0.339918
5520.43	-0.338963
5530.64	-0.338017
5540.85	-0.337085
5551.06	-0.336169
5561.27	-0.335275
5570.02	-0.334525
5580.23	-0.333673
5590.44	-0.332844
5600.65	-0.332041
5610.86	-0.331261
5621.07	-0.330504
5631.28	-0.329766
5640.03	-0.329147
5650.24	-0.328436
5660.45	-0.327732
5670.66	-0.327031
5680.87	-0.326328
5691.08	-0.32562
5701.29	-0.3249
5710.04	-0.324271
5720.25	-0.32352
5730.46	-0.322745
5740.67	-0.321943
5750.88	-0.32111
5761.09	-0.320242
5771.3	-0.319336
5780.05	-0.318648
5790.26	-0.317807
5800.47	-0.316891
5810.68	-0.315902
5820.89	-0.314842
5831.1	-0.313712
5841.31	-0.312489
5850.06	-0.311264
5860.27	-0.309774
5870.48	-0.30822
5880.69	-0.306607
5890.9	-0.304935
5901.11	-0.303462
5911.32	-0.302519
5920.07	-0.301612
5930.28	-0.300453
5940.49	-0.299195
5950.7	-0.297849
5960.91	-0.296422
5971.12	-0.29492
5981.33	-0.293346
5990.08	-0.291943
6000.29	-0.290245
6010.5	-0.288484
6020.71	-0.286661
6030.92	-0.284777
6041.13	-0.282835
6051.34	-0.280835
6060.09	-0.279075
6070.3	-0.276971
6080.51	-0.274813
6090.72	-0.272602
6100.93	-0.270341
6111.14	-0.268031
6121.34	-0.265683
6130.1	-0.263647
6140.31	-0.26125
6150.51	-0.258835
6160.72	-0.256396
6170.93	-0.253932
6181.14	-0.251447
6191.35	-0.248945
6200.1	-0.246787
6210.31	-0.244256
6220.52	-0.241711
6230.73	-0.239151
6240.94	-0.236575
6251.15	-0.233984
6261.36	-0.231377
6270.11	-0.229129
6280.32	-0.22649
6290.53	-0.223835
6300.74	-0.221162
6310.95	-0.217204
6321.16	-0.213051
6331.37	-0.208959
6340.12	-0.205516
6350.33	-0.201577
6360.54	-0.197712
6370.75	-0.193903
6380.96	-0.190131
6391.17	-0.186374
6401.38	-0.182614
6410.13	-0.179375
6420.34	-0.175581
6430.55	-0.171797
6440.76	-0.168033
6450.97	-0.164283
6461.18	-0.160534
6471.39	-0.156762
6480.14	-0.153494
6490.35	-0.149623
6500.56	-0.144738
6510.77	-0.137758
6520.98	-0.131192
6531.19	-0.124933
6541.4	-0.118822
6550.15	-0.113595
6560.36	-0.107433
6570.57	-0.101278
6580.78	-0.0951965
6590.99	-0.0891084
6601.2	-0.0815457
6611.38	-0.0717706
6620.09	-0.0642926
6630.25	-0.0555309
6640.41	-0.0465194
6650.57	-0.0351836
6660.73	-0.0209943
6670.89	-0.00633416
6681.05	0.0194256
6691.21	0.0571134
6701.37	0.0788174
6710.08	0.0911762
6720.24	0.102383
6730.41	0.10879
6740.57	0.111386
6750.73	0.110415
6760.89	0.109654
6771.05	0.110313
6781.21	0.111519
6791.37	0.111718
6800.08	0.110966
6810.24	0.109989
6820.4	0.109594
6830.56	0.109691
6840.72	0.109688
6850.88	0.110036
6861.05	0.111458
6871.21	0.113562
6881.37	0.115203
6890.08	0.115819
6900.24	0.115997
6910.4	0.11618
6920.56	0.116452
6930.72	0.116466
6940.88	0.116154
6951.04	0.11588
6961.2	0.11589
6971.36	0.115942
6980.07	0.115701
6990.23	0.114968
7000.39	0.113955
7010.55	0.112951
7020.71	0.11211
7030.88	0.111506
7041.04	0.111176
7051.2	0.110999
7061.36	0.110654
7070.07	0.109968
7080.23	0.108587
7090.39	0.106647
7100.55	0.10432
7110.71	0.101789
7120.87	0.0992678
7131.03	0.0969792
7141.19	0.0950362
7151.35	0.0933545
7160.06	0.0919621
7170.22	0.0902452
7180.38	0.0884103
7190.54	0.0865717
7200.7	0.0848958
7210.87	0.0835311
7221.03	0.0825703
7231.19	0.0820197
7241.35	0.0817872
7250.06	0.0817222
7260.22	0.0816646
7270.38	0.0815309
7280.54	0.0812946
7290.7	0.0809927
7300.86	0.0807002
7311.02	0.0804984
7321.18	0.0804425
7331.34	0.0805425
7340.05	0.080734
7350.21	0.0810522
7360.37	0.081457
7370.53	0.081953
7380.69	0.0825553
7390.86	0.0832719
7401.02	0.0840873
7411.18	0.0849546
7421.34	0.0858008
7430.05	0.0864494
7440.21	0.0870634
7450.37	0.0875014
7460.53	0.0877788
7470.69	0.0879403
7480.85	0.0880397
7491.01	0.0881199
7501.17	0.0881991
7511.33	0.0882715
7520.04	0.0883156
7530.2	0.0883413
7540.36	0.0883602
7550.52	0.0884262
7560.68	0.0886134
7570.85	0.0889915
7581.01	0.0895978
7591.17	0.0904186
7601.33	0.0913889
7610.04	0.0922666
7620.2	0.0932582
7630.36	0.0941503
7640.52	0.0949238
7650.68	0.0956119
7660.84	0.096286
7671	0.0970304
7681.16	0.0979161
7691.32	0.0989833
7700.03	0.100047
7710.19	0.101444
7720.36	0.102982
7730.55	0.104644
7740.8	0.106423
7751.05	0.108308
7761.3	0.110294
7770.09	0.11206
7780.34	0.114153
7790.59	0.116215
7800.83	0.118165
7811.08	0.119929
7821.33	0.121456
7830.12	0.122561
7840.37	0.123627
7850.62	0.124491
7860.87	0.12521
7871.12	0.125842
7881.37	0.126432
7890.15	0.126929
7900.4	0.127518
7910.65	0.128124
7920.9	0.128754
7931.15	0.129409
7941.4	0.130091
7950.18	0.130691
7960.43	0.131399
7970.68	0.132094
7980.93	0.13275
7991.18	0.133337
8001.44	0.13383
8010.23	0.134165
8020.49	0.134447
8030.74	0.134613
8041	0.134672
8051.25	0.134632
8060.05	0.134526
8070.3	0.134322
8080.56	0.134032
8090.81	0.133653
8101.07	0.133176
8111.33	0.132589
8120.12	0.131985
8130.38	0.131146
8140.63	0.130134
8150.89	0.128919
8161.14	0.127467
8171.4	0.125749
8180.19	0.124048
8190.45	0.121786
8200.7	0.119224
8210.96	0.116373
8221.22	0.113249
8230.01	0.110373
8240.27	0.106806
8250.54	0.103037
8260.81	0.0990949
8271.09	0.0950097
8281.37	0.0908208
8290.18	0.0871776
8300.47	0.082897
8310.79	0.0786152
8321.11	0.0743794
8331.43	0.0702145
8340.29	0.0667154
8350.63	0.0627312
8360.98	0.0588577
8371.34	0.0550912
8380.26	0.0519411
8390.67	0.0483724
8401.09	0.0449248
8410.02	0.0420703
8420.43	0.0388638
8430.85	0.0357983
8441.26	0.0328816
8450.19	0.0305053
8460.6	0.0278822
8471.02	0.0254224
8481.43	0.0231256
8490.36	0.0212833
8500.77	0.0192731
8511.19	0.0173993
8520.12	0.0158877
8530.53	0.0142149
8540.95	0.0125342
8551.36	0.00905277
8560.28	0.00804057
8570.69	0.00481412
8581.1	0.00115532
8590.02	-4.23051e-06
8600.42	-0.00458491
8610.82	-0.00901701
8621.22	-0.013428
8630.14	-0.0168112
8640.54	-0.0176171
8650.94	-0.0217428
8661.35	-0.024996
8670.26	-0.0275166
8680.66	-0.0302961
8691.07	-0.0328547
8701.47	-0.0352571
8710.38	-0.0372177
8720.79	-0.0380899
8731.19	-0.0410975
8740.1	-0.0433762
8750.51	-0.0457588
8760.91	-0.0479083
8771.31	-0.0498761
8780.22	-0.0514412
8790.6	-0.0531443
8800.97	-0.054735
8811.33	-0.0561186
8820.21	-0.057243
8830.56	-0.058501
8840.92	-0.0596983
8851.28	-0.0608335
8860.16	-0.0617579
8870.52	-0.0627776
8880.88	-0.0636205
8891.24	-0.0643069
8900.1	-0.0648346
8910.42	-0.065364
8920.74	-0.0658188
8930.98	-0.0662109
8941.19	-0.0665526
8951.4	-0.0668584
8960.15	-0.0671005
8970.36	-0.0673679
8980.57	-0.0676254
8990.78	-0.0678785
9000.99	-0.068131
9011.2	-0.0684141
9021.41	-0.0688482
9030.16	-0.0691488
9040.37	-0.0694365
9050.58	-0.0697232
9060.79	-0.0700084
9071	-0.0702916
9081.21	-0.0705722
9091.42	-0.0708493
9100.17	-0.0710837
9110.38	-0.0713528
9120.59	-0.0716171
9130.8	-0.0718761
9141.01	-0.0721297
9151.22	-0.0723777
9161.43	-0.07262
9170.18	-0.070556
9180.39	-0.0710112
9190.6	-0.0704723
9200.81	-0.0709811
9211.02	-0.0714681
9221.23	-0.0719336
9231.44	-0.0723774
9240.19	-0.0727407
9250.4	-0.0731447
9260.61	-0.0735236
9270.82	-0.0738755
9281.03	-0.0742017
9291.24	-0.0745032
9301.45	-0.0747813
9310.2	-0.0750017
9320.41	-0.0752389
9330.62	-0.075454
9340.83	-0.0756462
9351.04	-0.0758164
9361.25	-0.0759663
9370	-0.0760799
9380.21	-0.0761961
9390.42	-0.0762961
9400.63	-0.0763809
9410.84	-0.0764514
9421.05	-0.0765085
9431.26	-0.076553
9440.01	-0.0765815
9450.22	-0.0766041
9460.43	-0.0766157
9470.64	-0.076617
9480.85	-0.0766081
9491.06	-0.0765896
9501.27	-0.0765599
9510.02	-0.0765227
9520.23	-0.0765554
9530.44	-0.0766339
9540.65	-0.0766909
9550.86	-0.0767278
9561.07	-0.0767334
9571.28	-0.0766502
9580.03	-0.0765705
9590.24	-0.0764679
9600.45	-0.0763555
9610.66	-0.0762334
9620.87	-0.076102
9631.08	-0.0759614
9641.29	-0.0758119
9650.04	-0.0756767
9660.25	-0.0755108
9670.46	-0.0753364
9680.67	-0.0751533
9690.88	-0.0749617
9701.09	-0.0747616
9711.3	-0.0745531
9720.05	-0.0743675
9730.26	-0.0741431
9740.47	-0.0739102
9750.68	-0.0736688
9760.89	-0.0734189
9771.1	-0.0731606
9781.31	-0.0728937
9790.06	-0.0726583
9800.27	-0.072376
9810.48	-0.0720852
9820.69	-0.0717863
9830.9	-0.0714792
9841.11	-0.0711641
9851.32	-0.0708412
9860.07	-0.0705583
9870.28	-0.0702215
9880.49	-0.0698777
9890.7	-0.069527
9900.91	-0.0695224
9911.12	-0.0691958
9921.33	-0.0688657
9930.08	-0.0685798
9940.29	-0.0682428
9950.5	-0.067902
9960.71	-0.0675575
9970.92	-0.0672091
9981.13	-0.0668556
9991.34	-0.0664957
10000.1	-0.0661821
10010.3	-0.0658106
10020.5	-0.065433
10030.7	-0.0650495
10040.9	-0.0646602
10051.1	-0.0642651
10061.3	-0.0638471
10070.1	-0.0633977
10080.3	-0.0628719
10090.5	-0.0623446
10100.7	-0.0618168
10110.9	-0.061289
10121	-0.0607615
10131.2	-0.0602352
10141.4	-0.0597097
10150.1	-0.0592595
10160.2	-0.0587344
10170.4	-0.058209
10180.5	-0.057683
10190.7	-0.0571561
10200.9	-0.0566281
10211	-0.0560989
10221.2	-0.0555683
10231.3	-0.0550362
10240.1	-0.0545788
10250.2	-0.0540437
10260.4	-0.0535071
10270.5	-0.0529688
10280.7	-0.0524289
10290.9	-0.0518873
10301	-0.0513442
10311.2	-0.0507995
10321.3	-0.0502531
10330.1	-0.0497834
10340.2	-0.049234
10350.4	-0.048683
10360.5	-0.0481304
10370.7	-0.0475764
10380.9	-0.0470211
10391	-0.0464648
10401.2	-0.0459077
10411.3	-0.0453499
10420.1	-0.0448713
10430.2	-0.0443125
10440.4	-0.0437535
10450.5	-0.0431943
10460.7	-0.0426351
10470.9	-0.0420761
10481	-0.0415173
10491.2	-0.0409588
10501.3	-0.0404008
10510	-0.039923
10520.2	-0.0393662
10530.4	-0.0388101
10540.5	-0.038255
10550.7	-0.0377008
10560.9	-0.0371478
10571	-0.0365959
10581.2	-0.0360454
10591.3	-0.0354964
10600	-0.0350272
10610.2	-0.0344817
10620.4	-0.0339387
10630.5	-0.0333874
10640.7	-0.032778
10650.9	-0.0321806
10661	-0.031595
10671.2	-0.0310205
10681.3	-0.0304564
10690	-0.0299806
10700.2	-0.0294341
10710.4	-0.0288962
10720.5	-0.0283663
10730.7	-0.0278439
10740.8	-0.0273285
10751	-0.0268198
10761.2	-0.0263172
10771.3	-0.0258203
10780	-0.0253136
10790.2	-0.0247526
10800.4	-0.0242199
10810.5	-0.0237113
10820.7	-0.0232233
10830.8	-0.0227531
10841	-0.0222978
10851.2	-0.0218551
10861.3	-0.0214231
10870	-0.0210621
10880.2	-0.020653
10890.4	-0.0202555
10900.5	-0.0198684
10910.7	-0.0194901
10920.8	-0.0191193
10931	-0.0187547
10941.2	-0.0183948
10951.3	-0.0180385
10960	-0.0177351
10970.2	-0.0173825
10980.4	-0.0170306
10990.5	-0.0166787
11000.7	-0.0163267
11010.8	-0.0159743
11021	-0.0156212
11031.2	-0.0152671
11041.3	-0.0149115
11050	-0.0146051
11060.2	-0.0142456
11070.3	-0.0138832
11080.5	-0.0135178
11090.7	-0.0131522
11100.8	-0.0127924
11111	-0.0124363
11121.2	-0.0120824
11131.3	-0.0117292
11140	-0.0114257
11150.2	-0.0110699
11160.3	-0.0107108
11170.5	-0.0103477
11180.7	-0.00991417
11190.8	-0.00936449
11201	-0.00878911
11211.2	-0.00819929
11221.3	-0.00760236
11230	-0.00708852
11240.2	-0.00648886
11250.3	-0.0058903
11260.5	-0.00529419
11270.7	-0.00470193
11280.8	-0.00411373
11291	-0.00352922
11301.1	-0.0029418
11311.3	-0.00234966
11320	-0.0018384
11330.2	-0.00123776
11340.3	-0.000634228
11350.5	-3.07982e-05
11360.7	0.000570938
11370.8	0.00144718
11381	0.00297961
11391.1	0.00440602
11401.3	0.00569863
11410	0.00669728
11420.2	0.00774341
11430.3	0.00869782
11440.5	0.00957735
11450.7	0.0103872
11460.8	0.0114034
11471	0.0123617
11481.1	0.0131812
11491.3	0.0139138
11500	0.0144907
11510.2	0.0151634
11520.3	0.0162581
11530.5	0.0173878
11540.7	0.0199604
11550.8	0.0230756
11561	0.0252704
11571.1	0.0277366
11581.3	0.0304732
11590	0.032886
11600.2	0.0358738
11610.3	0.0389396
11620.5	0.0421644
11630.6	0.0456053
11640.8	0.0490944
11651	0.0526365
11661.1	0.0563246
11671.3	0.060072
11680	0.0632443
11690.2	0.0668677
11700.3	0.0703831
11710.5	0.0737087
11720.6	0.0767009
11730.8	0.0792623
11741	0.0814078
11751.1	0.083213
11761.4	0.0847616
11770.1	0.0859184
11780.4	0.0870919
11790.6	0.0880894
11800.9	0.0889258
11811.1	0.0896325
11821.4	0.0902524
11830.2	0.0907406
11840.4	0.091274
11850.7	0.0917776
11860.9	0.0922645
11871.2	0.0927495
11881.4	0.0932405
11890.2	0.0936651
11900.5	0.094161
11910.7	0.0946581
11921	0.0951621
11931.2	0.0956745
11940	0.0961115
11950.3	0.0965935
11960.5	0.0970127
11970.8	0.0973456
11981.1	0.0975943
11991.3	0.0977859
