MODE: ipmo_prog0
PARCOUNT: 37
PROBLEMS: 1
Running on INWEST
Using iPMO

Programs:
 + ../../build/sierpi_intel_ipmo_tsunami_parallel_release  -u 10 -U 10 -T 1000 -n 4 -d 14
 + ../../build/sierpi_intel_ipmo_tsunami_parallel_release  -u 10 -U 10 -T 1000 -n 4 -d 14
 + ../../build/sierpi_intel_ipmo_tsunami_parallel_release  -u 10 -U 10 -T 1000 -n 4 -d 12
 + ../../build/sierpi_intel_ipmo_tsunami_parallel_release  -u 10 -U 10 -T 1000 -n 4 -d 12
 + ../../build/sierpi_intel_ipmo_tsunami_parallel_release  -u 10 -U 10 -T 1000 -n 4 -d 12
 + ../../build/sierpi_intel_ipmo_tsunami_parallel_release  -u 10 -U 10 -T 1000 -n 4 -d 12
 + ../../build/sierpi_intel_ipmo_tsunami_parallel_release  -u 10 -U 10 -T 1000 -n 4 -d 12
 + ../../build/sierpi_intel_ipmo_tsunami_parallel_release  -u 10 -U 10 -T 1000 -n 4 -d 12
 + ../../build/sierpi_intel_ipmo_tsunami_parallel_release  -u 10 -U 10 -T 1000 -n 4 -d 12
 + ../../build/sierpi_intel_ipmo_tsunami_parallel_release  -u 10 -U 10 -T 1000 -n 4 -d 12

Tue Apr  3 15:02:30 CEST 2012
iPMO: Prog0 parallel execution with ipmo (37 times)
Waiting for job 31369
31376: CHANGING RESSOURCES
31376: CHANGING RESSOURCES
31371: CHANGING RESSOURCES
31400: CHANGING RESSOURCES
31405: CHANGING RESSOURCES
31384: CHANGING RESSOURCES
31374: CHANGING RESSOURCES
31389: CHANGING RESSOURCES
31385: CHANGING RESSOURCES
31393: CHANGING RESSOURCES
31395: CHANGING RESSOURCES
31390: CHANGING RESSOURCES
31373: CHANGING RESSOURCES
31394: CHANGING RESSOURCES
31391: CHANGING RESSOURCES
31387: CHANGING RESSOURCES
31372: CHANGING RESSOURCES
31388: CHANGING RESSOURCES
31392: CHANGING RESSOURCES
31371: CHANGING RESSOURCES
31386: CHANGING RESSOURCES
31380: CHANGING RESSOURCES
31379: CHANGING RESSOURCES
31383: CHANGING RESSOURCES
31396: CHANGING RESSOURCES
31402: CHANGING RESSOURCES
31382: CHANGING RESSOURCES
31381: CHANGING RESSOURCES
31377: CHANGING RESSOURCES
31369: CHANGING RESSOURCES
31375: CHANGING RESSOURCES
31378: CHANGING RESSOURCES
31397: CHANGING RESSOURCES
31370: CHANGING RESSOURCES
31399: CHANGING RESSOURCES
31404: CHANGING RESSOURCES
31403: CHANGING RESSOURCES
31401: CHANGING RESSOURCES

 + Terminating after 1000 timesteps with equal number of triangles -> EXIT
 + Final timestep: 59579

59580 TS (Timesteps)
3022.12 ST (SIMULATION_TIME)
0.0500175 TSS (Timestep size)
3280.04 SFS (Overall seconds for Simulation)
20954211547 TP (Triangles processed)
0.0550527 ASPT (Averaged Seconds per Timestep)
351699 TPST (Triangles Processed in Average per Simulation Timestep)
95.0841 PPST (Partitions Processed in Average per Simulation Timestep)
6.3884 MTPS (Million Triangles per Second)
-6.3884 MTPSPT (Million Triangles per Second per Thread)
10.733 EDMBPT (ElementData Megabyte per Timestep (RW))
194.959 EDMBPS (ElementData Megabyte per Second (RW))
SUM CLIENT SHUTDOWN HINT: 20954.2
SUM CLIENT SHUTDOWN HINT DIV TIME: 0
31380: CHANGING RESSOURCES
31386: CHANGING RESSOURCES

 + Terminating after 1000 timesteps with equal number of triangles -> EXIT
 + Final timestep: 59579

59580 TS (Timesteps)
3022.12 ST (SIMULATION_TIME)
0.0500175 TSS (Timestep size)
3314.83 SFS (Overall seconds for Simulation)
20954211547 TP (Triangles processed)
0.0556366 ASPT (Averaged Seconds per Timestep)
351699 TPST (Triangles Processed in Average per Simulation Timestep)
95.0841 PPST (Partitions Processed in Average per Simulation Timestep)
6.32136 MTPS (Million Triangles per Second)
-6.32136 MTPSPT (Million Triangles per Second per Thread)
10.733 EDMBPT (ElementData Megabyte per Timestep (RW))
192.912 EDMBPS (ElementData Megabyte per Second (RW))
SUM CLIENT SHUTDOWN HINT: 41908.4
SUM CLIENT SHUTDOWN HINT DIV TIME: 0
31375: CHANGING RESSOURCES
31377: CHANGING RESSOURCES

 + Terminating after 1000 timesteps with equal number of triangles -> EXIT
 + Final timestep: 59579

59580 TS (Timesteps)
3022.12 ST (SIMULATION_TIME)
0.0500175 TSS (Timestep size)
3411.85 SFS (Overall seconds for Simulation)
20954211547 TP (Triangles processed)
0.057265 ASPT (Averaged Seconds per Timestep)
351699 TPST (Triangles Processed in Average per Simulation Timestep)
95.0841 PPST (Partitions Processed in Average per Simulation Timestep)
6.1416 MTPS (Million Triangles per Second)
-6.1416 MTPSPT (Million Triangles per Second per Thread)
10.733 EDMBPT (ElementData Megabyte per Timestep (RW))
187.427 EDMBPS (ElementData Megabyte per Second (RW))
SUM CLIENT SHUTDOWN HINT: 62862.6
SUM CLIENT SHUTDOWN HINT DIV TIME: 0
31379: CHANGING RESSOURCES
31377: CHANGING RESSOURCES
31370: CHANGING RESSOURCES
31397: CHANGING RESSOURCES

 + Terminating after 1000 timesteps with equal number of triangles -> EXIT
 + Final timestep: 59579

59580 TS (Timesteps)
3022.12 ST (SIMULATION_TIME)
0.0500175 TSS (Timestep size)
4813.34 SFS (Overall seconds for Simulation)
20954211547 TP (Triangles processed)
0.0807879 ASPT (Averaged Seconds per Timestep)
351699 TPST (Triangles Processed in Average per Simulation Timestep)
95.0841 PPST (Partitions Processed in Average per Simulation Timestep)
4.35336 MTPS (Million Triangles per Second)
-4.35336 MTPSPT (Million Triangles per Second per Thread)
10.733 EDMBPT (ElementData Megabyte per Timestep (RW))
132.854 EDMBPS (ElementData Megabyte per Second (RW))
SUM CLIENT SHUTDOWN HINT: 83816.8
SUM CLIENT SHUTDOWN HINT DIV TIME: 0
31398: CHANGING RESSOURCES
31377: CHANGING RESSOURCES

 + Terminating after 1000 timesteps with equal number of triangles -> EXIT
 + Final timestep: 59579

59580 TS (Timesteps)
3022.12 ST (SIMULATION_TIME)
0.0500175 TSS (Timestep size)
5062.5 SFS (Overall seconds for Simulation)
20954211547 TP (Triangles processed)
0.0849698 ASPT (Averaged Seconds per Timestep)
351699 TPST (Triangles Processed in Average per Simulation Timestep)
95.0841 PPST (Partitions Processed in Average per Simulation Timestep)
4.1391 MTPS (Million Triangles per Second)
-4.1391 MTPSPT (Million Triangles per Second per Thread)
10.733 EDMBPT (ElementData Megabyte per Timestep (RW))
126.315 EDMBPS (ElementData Megabyte per Second (RW))
SUM CLIENT SHUTDOWN HINT: 104771
SUM CLIENT SHUTDOWN HINT DIV TIME: 0
31403: CHANGING RESSOURCES
31401: CHANGING RESSOURCES

 + Terminating after 1000 timesteps with equal number of triangles -> EXIT
 + Final timestep: 59579

59580 TS (Timesteps)
3022.12 ST (SIMULATION_TIME)
0.0500175 TSS (Timestep size)
5274.5 SFS (Overall seconds for Simulation)
20954211547 TP (Triangles processed)
0.088528 ASPT (Averaged Seconds per Timestep)
351699 TPST (Triangles Processed in Average per Simulation Timestep)
95.0841 PPST (Partitions Processed in Average per Simulation Timestep)
3.97274 MTPS (Million Triangles per Second)
-3.97274 MTPSPT (Million Triangles per Second per Thread)
10.733 EDMBPT (ElementData Megabyte per Timestep (RW))
121.238 EDMBPS (ElementData Megabyte per Second (RW))
SUM CLIENT SHUTDOWN HINT: 125725
SUM CLIENT SHUTDOWN HINT DIV TIME: 0
31369: CHANGING RESSOURCES
31402: CHANGING RESSOURCES

 + Terminating after 1000 timesteps with equal number of triangles -> EXIT
 + Final timestep: 59579

59580 TS (Timesteps)
3022.12 ST (SIMULATION_TIME)
0.0500175 TSS (Timestep size)
5276.73 SFS (Overall seconds for Simulation)
20954211547 TP (Triangles processed)
0.0885654 ASPT (Averaged Seconds per Timestep)
351699 TPST (Triangles Processed in Average per Simulation Timestep)
95.0841 PPST (Partitions Processed in Average per Simulation Timestep)
3.97106 MTPS (Million Triangles per Second)
-3.97106 MTPSPT (Million Triangles per Second per Thread)
10.733 EDMBPT (ElementData Megabyte per Timestep (RW))
121.187 EDMBPS (ElementData Megabyte per Second (RW))
SUM CLIENT SHUTDOWN HINT: 146679
SUM CLIENT SHUTDOWN HINT DIV TIME: 0
31396: CHANGING RESSOURCES
31399: CHANGING RESSOURCES

 + Terminating after 1000 timesteps with equal number of triangles -> EXIT
 + Final timestep: 59579

59580 TS (Timesteps)
3022.12 ST (SIMULATION_TIME)
0.0500175 TSS (Timestep size)
5295.73 SFS (Overall seconds for Simulation)
20954211547 TP (Triangles processed)
0.0888843 ASPT (Averaged Seconds per Timestep)
351699 TPST (Triangles Processed in Average per Simulation Timestep)
95.0841 PPST (Partitions Processed in Average per Simulation Timestep)
3.95682 MTPS (Million Triangles per Second)
-3.95682 MTPSPT (Million Triangles per Second per Thread)
10.733 EDMBPT (ElementData Megabyte per Timestep (RW))
120.752 EDMBPS (ElementData Megabyte per Second (RW))
SUM CLIENT SHUTDOWN HINT: 167634
SUM CLIENT SHUTDOWN HINT DIV TIME: 0
31382: CHANGING RESSOURCES
31378: CHANGING RESSOURCES

 + Terminating after 1000 timesteps with equal number of triangles -> EXIT
 + Final timestep: 59579

59580 TS (Timesteps)
3022.12 ST (SIMULATION_TIME)
0.0500175 TSS (Timestep size)
5328.72 SFS (Overall seconds for Simulation)
20954211547 TP (Triangles processed)
0.089438 ASPT (Averaged Seconds per Timestep)
351699 TPST (Triangles Processed in Average per Simulation Timestep)
95.0841 PPST (Partitions Processed in Average per Simulation Timestep)
3.93232 MTPS (Million Triangles per Second)
-3.93232 MTPSPT (Million Triangles per Second per Thread)
10.733 EDMBPT (ElementData Megabyte per Timestep (RW))
120.005 EDMBPS (ElementData Megabyte per Second (RW))
SUM CLIENT SHUTDOWN HINT: 188588
SUM CLIENT SHUTDOWN HINT DIV TIME: 0
31381: CHANGING RESSOURCES
31400: CHANGING RESSOURCES
31369: CHANGING RESSOURCES
31371: CHANGING RESSOURCES

 + Terminating after 1000 timesteps with equal number of triangles -> EXIT
 + Final timestep: 59579

59580 TS (Timesteps)
3022.12 ST (SIMULATION_TIME)
0.0500175 TSS (Timestep size)
5351.15 SFS (Overall seconds for Simulation)
20954211547 TP (Triangles processed)
0.0898145 ASPT (Averaged Seconds per Timestep)
351699 TPST (Triangles Processed in Average per Simulation Timestep)
95.0841 PPST (Partitions Processed in Average per Simulation Timestep)
3.91583 MTPS (Million Triangles per Second)
-3.91583 MTPSPT (Million Triangles per Second per Thread)
10.733 EDMBPT (ElementData Megabyte per Timestep (RW))
119.502 EDMBPS (ElementData Megabyte per Second (RW))
SUM CLIENT SHUTDOWN HINT: 209542
SUM CLIENT SHUTDOWN HINT DIV TIME: 0
31384: CHANGING RESSOURCES
31394: CHANGING RESSOURCES
31405: CHANGING RESSOURCES

 + Terminating after 1000 timesteps with equal number of triangles -> EXIT
 + Final timestep: 59579

59580 TS (Timesteps)
3022.12 ST (SIMULATION_TIME)
0.0500175 TSS (Timestep size)
5442.11 SFS (Overall seconds for Simulation)
20954211547 TP (Triangles processed)
0.0913412 ASPT (Averaged Seconds per Timestep)
351699 TPST (Triangles Processed in Average per Simulation Timestep)
95.0841 PPST (Partitions Processed in Average per Simulation Timestep)
3.85039 MTPS (Million Triangles per Second)
-3.85039 MTPSPT (Million Triangles per Second per Thread)
10.733 EDMBPT (ElementData Megabyte per Timestep (RW))
117.504 EDMBPS (ElementData Megabyte per Second (RW))
SUM CLIENT SHUTDOWN HINT: 230496
SUM CLIENT SHUTDOWN HINT DIV TIME: 0
31399: CHANGING RESSOURCES
31374: CHANGING RESSOURCES
31369: CHANGING RESSOURCES
31389: CHANGING RESSOURCES

 + Terminating after 1000 timesteps with equal number of triangles -> EXIT
 + Final timestep: 59579

59580 TS (Timesteps)
3022.12 ST (SIMULATION_TIME)
0.0500175 TSS (Timestep size)
5562.33 SFS (Overall seconds for Simulation)
20954211547 TP (Triangles processed)
0.0933589 ASPT (Averaged Seconds per Timestep)
351699 TPST (Triangles Processed in Average per Simulation Timestep)
95.0841 PPST (Partitions Processed in Average per Simulation Timestep)
3.76717 MTPS (Million Triangles per Second)
-3.76717 MTPSPT (Million Triangles per Second per Thread)
10.733 EDMBPT (ElementData Megabyte per Timestep (RW))
114.965 EDMBPS (ElementData Megabyte per Second (RW))
SUM CLIENT SHUTDOWN HINT: 251451
SUM CLIENT SHUTDOWN HINT DIV TIME: 0
31393: CHANGING RESSOURCES
31385: CHANGING RESSOURCES

 + Terminating after 1000 timesteps with equal number of triangles -> EXIT
 + Final timestep: 59579

59580 TS (Timesteps)
3022.12 ST (SIMULATION_TIME)
0.0500175 TSS (Timestep size)
5583.31 SFS (Overall seconds for Simulation)
20954211547 TP (Triangles processed)
0.0937112 ASPT (Averaged Seconds per Timestep)
351699 TPST (Triangles Processed in Average per Simulation Timestep)
95.0841 PPST (Partitions Processed in Average per Simulation Timestep)
3.75301 MTPS (Million Triangles per Second)
-3.75301 MTPSPT (Million Triangles per Second per Thread)
10.733 EDMBPT (ElementData Megabyte per Timestep (RW))
114.533 EDMBPS (ElementData Megabyte per Second (RW))
SUM CLIENT SHUTDOWN HINT: 272405
SUM CLIENT SHUTDOWN HINT DIV TIME: 0
31396: CHANGING RESSOURCES
31382: CHANGING RESSOURCES
31390: CHANGING RESSOURCES
31395: CHANGING RESSOURCES

 + Terminating after 1000 timesteps with equal number of triangles -> EXIT
 + Final timestep: 59579

59580 TS (Timesteps)
3022.12 ST (SIMULATION_TIME)
0.0500175 TSS (Timestep size)
5615.38 SFS (Overall seconds for Simulation)
20954211547 TP (Triangles processed)
0.0942494 ASPT (Averaged Seconds per Timestep)
351699 TPST (Triangles Processed in Average per Simulation Timestep)
95.0841 PPST (Partitions Processed in Average per Simulation Timestep)
3.73158 MTPS (Million Triangles per Second)
-3.73158 MTPSPT (Million Triangles per Second per Thread)
10.733 EDMBPT (ElementData Megabyte per Timestep (RW))
113.879 EDMBPS (ElementData Megabyte per Second (RW))
SUM CLIENT SHUTDOWN HINT: 293359
SUM CLIENT SHUTDOWN HINT DIV TIME: 0
31391: CHANGING RESSOURCES
31373: CHANGING RESSOURCES

 + Terminating after 1000 timesteps with equal number of triangles -> EXIT
 + Final timestep: 59579

59580 TS (Timesteps)
3022.12 ST (SIMULATION_TIME)
0.0500175 TSS (Timestep size)
5619.32 SFS (Overall seconds for Simulation)
20954211547 TP (Triangles processed)
0.0943156 ASPT (Averaged Seconds per Timestep)
351699 TPST (Triangles Processed in Average per Simulation Timestep)
95.0841 PPST (Partitions Processed in Average per Simulation Timestep)
3.72896 MTPS (Million Triangles per Second)
-3.72896 MTPSPT (Million Triangles per Second per Thread)
10.733 EDMBPT (ElementData Megabyte per Timestep (RW))
113.799 EDMBPS (ElementData Megabyte per Second (RW))
SUM CLIENT SHUTDOWN HINT: 314313
SUM CLIENT SHUTDOWN HINT DIV TIME: 0
31372: CHANGING RESSOURCES
31387: CHANGING RESSOURCES

 + Terminating after 1000 timesteps with equal number of triangles -> EXIT
 + Final timestep: 59579

59580 TS (Timesteps)
3022.12 ST (SIMULATION_TIME)
0.0500175 TSS (Timestep size)
5623.86 SFS (Overall seconds for Simulation)
20954211547 TP (Triangles processed)
0.0943918 ASPT (Averaged Seconds per Timestep)
351699 TPST (Triangles Processed in Average per Simulation Timestep)
95.0841 PPST (Partitions Processed in Average per Simulation Timestep)
3.72595 MTPS (Million Triangles per Second)
-3.72595 MTPSPT (Million Triangles per Second per Thread)
10.733 EDMBPT (ElementData Megabyte per Timestep (RW))
113.707 EDMBPS (ElementData Megabyte per Second (RW))
SUM CLIENT SHUTDOWN HINT: 335267
SUM CLIENT SHUTDOWN HINT DIV TIME: 0
31388: CHANGING RESSOURCES
31392: CHANGING RESSOURCES

 + Terminating after 1000 timesteps with equal number of triangles -> EXIT
 + Final timestep: 59579

59580 TS (Timesteps)
3022.12 ST (SIMULATION_TIME)
0.0500175 TSS (Timestep size)
5689.56 SFS (Overall seconds for Simulation)
20954211547 TP (Triangles processed)
0.0954945 ASPT (Averaged Seconds per Timestep)
351699 TPST (Triangles Processed in Average per Simulation Timestep)
95.0841 PPST (Partitions Processed in Average per Simulation Timestep)
3.68292 MTPS (Million Triangles per Second)
-3.68292 MTPSPT (Million Triangles per Second per Thread)
10.733 EDMBPT (ElementData Megabyte per Timestep (RW))
112.394 EDMBPS (ElementData Megabyte per Second (RW))
SUM CLIENT SHUTDOWN HINT: 356222
SUM CLIENT SHUTDOWN HINT DIV TIME: 0
31399: CHANGING RESSOURCES
31382: CHANGING RESSOURCES

 + Terminating after 1000 timesteps with equal number of triangles -> EXIT
 + Final timestep: 59579

59580 TS (Timesteps)
3022.12 ST (SIMULATION_TIME)
0.0500175 TSS (Timestep size)
5796.85 SFS (Overall seconds for Simulation)
20954211547 TP (Triangles processed)
0.0972952 ASPT (Averaged Seconds per Timestep)
351699 TPST (Triangles Processed in Average per Simulation Timestep)
95.0841 PPST (Partitions Processed in Average per Simulation Timestep)
3.61476 MTPS (Million Triangles per Second)
-3.61476 MTPSPT (Million Triangles per Second per Thread)
10.733 EDMBPT (ElementData Megabyte per Timestep (RW))
110.314 EDMBPS (ElementData Megabyte per Second (RW))
SUM CLIENT SHUTDOWN HINT: 377176
SUM CLIENT SHUTDOWN HINT DIV TIME: 0
31369: CHANGING RESSOURCES
31403: CHANGING RESSOURCES

 + Terminating after 1000 timesteps with equal number of triangles -> EXIT
 + Final timestep: 59579

59580 TS (Timesteps)
3022.12 ST (SIMULATION_TIME)
0.0500175 TSS (Timestep size)
5821.36 SFS (Overall seconds for Simulation)
20954211547 TP (Triangles processed)
0.0977066 ASPT (Averaged Seconds per Timestep)
351699 TPST (Triangles Processed in Average per Simulation Timestep)
95.0841 PPST (Partitions Processed in Average per Simulation Timestep)
3.59954 MTPS (Million Triangles per Second)
-3.59954 MTPSPT (Million Triangles per Second per Thread)
10.733 EDMBPT (ElementData Megabyte per Timestep (RW))
109.849 EDMBPS (ElementData Megabyte per Second (RW))
SUM CLIENT SHUTDOWN HINT: 398130
SUM CLIENT SHUTDOWN HINT DIV TIME: 0
31399: CHANGING RESSOURCES
31396: CHANGING RESSOURCES

 + Terminating after 1000 timesteps with equal number of triangles -> EXIT
 + Final timestep: 59579

59580 TS (Timesteps)
3022.12 ST (SIMULATION_TIME)
0.0500175 TSS (Timestep size)
5841.88 SFS (Overall seconds for Simulation)
20954211547 TP (Triangles processed)
0.098051 ASPT (Averaged Seconds per Timestep)
351699 TPST (Triangles Processed in Average per Simulation Timestep)
95.0841 PPST (Partitions Processed in Average per Simulation Timestep)
3.5869 MTPS (Million Triangles per Second)
-3.5869 MTPSPT (Million Triangles per Second per Thread)
10.733 EDMBPT (ElementData Megabyte per Timestep (RW))
109.463 EDMBPS (ElementData Megabyte per Second (RW))
SUM CLIENT SHUTDOWN HINT: 419084
SUM CLIENT SHUTDOWN HINT DIV TIME: 0
31394: CHANGING RESSOURCES
31382: CHANGING RESSOURCES
Waiting for job 31370
Waiting for job 31371
Waiting for job 31372
31400: CHANGING RESSOURCES

 + Terminating after 1000 timesteps with equal number of triangles -> EXIT
 + Final timestep: 59579

59580 TS (Timesteps)
3022.12 ST (SIMULATION_TIME)
0.0500175 TSS (Timestep size)
5905.21 SFS (Overall seconds for Simulation)
20954211547 TP (Triangles processed)
0.099114 ASPT (Averaged Seconds per Timestep)
351699 TPST (Triangles Processed in Average per Simulation Timestep)
95.0841 PPST (Partitions Processed in Average per Simulation Timestep)
3.54843 MTPS (Million Triangles per Second)
-3.54843 MTPSPT (Million Triangles per Second per Thread)
10.733 EDMBPT (ElementData Megabyte per Timestep (RW))
108.289 EDMBPS (ElementData Megabyte per Second (RW))
SUM CLIENT SHUTDOWN HINT: 440038
SUM CLIENT SHUTDOWN HINT DIV TIME: 0
31393: CHANGING RESSOURCES
31374: CHANGING RESSOURCES

 + Terminating after 1000 timesteps with equal number of triangles -> EXIT
 + Final timestep: 59579

59580 TS (Timesteps)
3022.12 ST (SIMULATION_TIME)
0.0500175 TSS (Timestep size)
5981.77 SFS (Overall seconds for Simulation)
20954211547 TP (Triangles processed)
0.100399 ASPT (Averaged Seconds per Timestep)
351699 TPST (Triangles Processed in Average per Simulation Timestep)
95.0841 PPST (Partitions Processed in Average per Simulation Timestep)
3.50301 MTPS (Million Triangles per Second)
-3.50301 MTPSPT (Million Triangles per Second per Thread)
10.733 EDMBPT (ElementData Megabyte per Timestep (RW))
106.903 EDMBPS (ElementData Megabyte per Second (RW))
SUM CLIENT SHUTDOWN HINT: 460993
SUM CLIENT SHUTDOWN HINT DIV TIME: 0
31390: CHANGING RESSOURCES
31395: CHANGING RESSOURCES

 + Terminating after 1000 timesteps with equal number of triangles -> EXIT
 + Final timestep: 59579

59580 TS (Timesteps)
3022.12 ST (SIMULATION_TIME)
0.0500175 TSS (Timestep size)
5987.57 SFS (Overall seconds for Simulation)
20954211547 TP (Triangles processed)
0.100496 ASPT (Averaged Seconds per Timestep)
351699 TPST (Triangles Processed in Average per Simulation Timestep)
95.0841 PPST (Partitions Processed in Average per Simulation Timestep)
3.49962 MTPS (Million Triangles per Second)
-3.49962 MTPSPT (Million Triangles per Second per Thread)
10.733 EDMBPT (ElementData Megabyte per Timestep (RW))
106.8 EDMBPS (ElementData Megabyte per Second (RW))
SUM CLIENT SHUTDOWN HINT: 481947
SUM CLIENT SHUTDOWN HINT DIV TIME: 0
31387: CHANGING RESSOURCES
31373: CHANGING RESSOURCES

 + Terminating after 1000 timesteps with equal number of triangles -> EXIT
 + Final timestep: 59579

59580 TS (Timesteps)
3022.12 ST (SIMULATION_TIME)
0.0500175 TSS (Timestep size)
5988.97 SFS (Overall seconds for Simulation)
20954211547 TP (Triangles processed)
0.10052 ASPT (Averaged Seconds per Timestep)
351699 TPST (Triangles Processed in Average per Simulation Timestep)
95.0841 PPST (Partitions Processed in Average per Simulation Timestep)
3.4988 MTPS (Million Triangles per Second)
-3.4988 MTPSPT (Million Triangles per Second per Thread)
10.733 EDMBPT (ElementData Megabyte per Timestep (RW))
106.775 EDMBPS (ElementData Megabyte per Second (RW))
SUM CLIENT SHUTDOWN HINT: 502901
SUM CLIENT SHUTDOWN HINT DIV TIME: 0
31388: CHANGING RESSOURCES
31382: CHANGING RESSOURCES
Waiting for job 31373

 + Terminating after 1000 timesteps with equal number of triangles -> EXIT
 + Final timestep: 59579

59580 TS (Timesteps)
3022.12 ST (SIMULATION_TIME)
0.0500175 TSS (Timestep size)
5992.83 SFS (Overall seconds for Simulation)
20954211547 TP (Triangles processed)
0.100585 ASPT (Averaged Seconds per Timestep)
351699 TPST (Triangles Processed in Average per Simulation Timestep)
95.0841 PPST (Partitions Processed in Average per Simulation Timestep)
3.49655 MTPS (Million Triangles per Second)
-3.49655 MTPSPT (Million Triangles per Second per Thread)
10.733 EDMBPT (ElementData Megabyte per Timestep (RW))
106.706 EDMBPS (ElementData Megabyte per Second (RW))
SUM CLIENT SHUTDOWN HINT: 523855
SUM CLIENT SHUTDOWN HINT DIV TIME: 0
31394: CHANGING RESSOURCES
31400: CHANGING RESSOURCES
31374: CHANGING RESSOURCES

 + Terminating after 1000 timesteps with equal number of triangles -> EXIT
 + Final timestep: 59579

59580 TS (Timesteps)
3022.12 ST (SIMULATION_TIME)
0.0500175 TSS (Timestep size)
6025.82 SFS (Overall seconds for Simulation)
20954211547 TP (Triangles processed)
0.101138 ASPT (Averaged Seconds per Timestep)
351699 TPST (Triangles Processed in Average per Simulation Timestep)
95.0841 PPST (Partitions Processed in Average per Simulation Timestep)
3.4774 MTPS (Million Triangles per Second)
-3.4774 MTPSPT (Million Triangles per Second per Thread)
10.733 EDMBPT (ElementData Megabyte per Timestep (RW))
106.122 EDMBPS (ElementData Megabyte per Second (RW))
SUM CLIENT SHUTDOWN HINT: 544810
SUM CLIENT SHUTDOWN HINT DIV TIME: 0
31388: CHANGING RESSOURCES
31373: CHANGING RESSOURCES
31393: CHANGING RESSOURCES
31395: CHANGING RESSOURCES

 + Terminating after 1000 timesteps with equal number of triangles -> EXIT
 + Final timestep: 59579

59580 TS (Timesteps)
3022.12 ST (SIMULATION_TIME)
0.0500175 TSS (Timestep size)
6168.5 SFS (Overall seconds for Simulation)
20954211547 TP (Triangles processed)
0.103533 ASPT (Averaged Seconds per Timestep)
351699 TPST (Triangles Processed in Average per Simulation Timestep)
95.0841 PPST (Partitions Processed in Average per Simulation Timestep)
3.39697 MTPS (Million Triangles per Second)
-3.39697 MTPSPT (Million Triangles per Second per Thread)
10.733 EDMBPT (ElementData Megabyte per Timestep (RW))
103.667 EDMBPS (ElementData Megabyte per Second (RW))
SUM CLIENT SHUTDOWN HINT: 565764
SUM CLIENT SHUTDOWN HINT DIV TIME: 0
31387: CHANGING RESSOURCES
31399: CHANGING RESSOURCES
31396: CHANGING RESSOURCES

 + Terminating after 1000 timesteps with equal number of triangles -> EXIT
 + Final timestep: 59579

59580 TS (Timesteps)
3022.12 ST (SIMULATION_TIME)
0.0500175 TSS (Timestep size)
6193.53 SFS (Overall seconds for Simulation)
20954211547 TP (Triangles processed)
0.103953 ASPT (Averaged Seconds per Timestep)
351699 TPST (Triangles Processed in Average per Simulation Timestep)
95.0841 PPST (Partitions Processed in Average per Simulation Timestep)
3.38324 MTPS (Million Triangles per Second)
-3.38324 MTPSPT (Million Triangles per Second per Thread)
10.733 EDMBPT (ElementData Megabyte per Timestep (RW))
103.248 EDMBPS (ElementData Megabyte per Second (RW))
SUM CLIENT SHUTDOWN HINT: 586718
SUM CLIENT SHUTDOWN HINT DIV TIME: 0
31394: CHANGING RESSOURCES
31396: CHANGING RESSOURCES
31399: CHANGING RESSOURCES
31374: CHANGING RESSOURCES

 + Terminating after 1000 timesteps with equal number of triangles -> EXIT
 + Final timestep: 59579

59580 TS (Timesteps)
3022.12 ST (SIMULATION_TIME)
0.0500175 TSS (Timestep size)
6196.6 SFS (Overall seconds for Simulation)
20954211547 TP (Triangles processed)
0.104005 ASPT (Averaged Seconds per Timestep)
351699 TPST (Triangles Processed in Average per Simulation Timestep)
95.0841 PPST (Partitions Processed in Average per Simulation Timestep)
3.38156 MTPS (Million Triangles per Second)
-3.38156 MTPSPT (Million Triangles per Second per Thread)
10.733 EDMBPT (ElementData Megabyte per Timestep (RW))
103.197 EDMBPS (ElementData Megabyte per Second (RW))
SUM CLIENT SHUTDOWN HINT: 607672
SUM CLIENT SHUTDOWN HINT DIV TIME: 0
31387: CHANGING RESSOURCES
31393: CHANGING RESSOURCES
31388: CHANGING RESSOURCES
31373: CHANGING RESSOURCES
31395: CHANGING RESSOURCES

 + Terminating after 1000 timesteps with equal number of triangles -> EXIT
 + Final timestep: 59579

59580 TS (Timesteps)
3022.12 ST (SIMULATION_TIME)
0.0500175 TSS (Timestep size)
6206.84 SFS (Overall seconds for Simulation)
20954211547 TP (Triangles processed)
0.104177 ASPT (Averaged Seconds per Timestep)
351699 TPST (Triangles Processed in Average per Simulation Timestep)
95.0841 PPST (Partitions Processed in Average per Simulation Timestep)
3.37599 MTPS (Million Triangles per Second)
-3.37599 MTPSPT (Million Triangles per Second per Thread)
10.733 EDMBPT (ElementData Megabyte per Timestep (RW))
103.027 EDMBPS (ElementData Megabyte per Second (RW))
SUM CLIENT SHUTDOWN HINT: 628626
SUM CLIENT SHUTDOWN HINT DIV TIME: 0
31393: CHANGING RESSOURCES
31373: CHANGING RESSOURCES
31395: CHANGING RESSOURCES

 + Terminating after 1000 timesteps with equal number of triangles -> EXIT
 + Final timestep: 59579

59580 TS (Timesteps)
3022.12 ST (SIMULATION_TIME)
0.0500175 TSS (Timestep size)
6211.45 SFS (Overall seconds for Simulation)
20954211547 TP (Triangles processed)
0.104254 ASPT (Averaged Seconds per Timestep)
351699 TPST (Triangles Processed in Average per Simulation Timestep)
95.0841 PPST (Partitions Processed in Average per Simulation Timestep)
3.37348 MTPS (Million Triangles per Second)
-3.37348 MTPSPT (Million Triangles per Second per Thread)
10.733 EDMBPT (ElementData Megabyte per Timestep (RW))
102.95 EDMBPS (ElementData Megabyte per Second (RW))
SUM CLIENT SHUTDOWN HINT: 649581
SUM CLIENT SHUTDOWN HINT DIV TIME: 0
31388: CHANGING RESSOURCES
31395: CHANGING RESSOURCES
31393: CHANGING RESSOURCES
31374: CHANGING RESSOURCES
31387: CHANGING RESSOURCES

 + Terminating after 1000 timesteps with equal number of triangles -> EXIT
 + Final timestep: 59579

59580 TS (Timesteps)
3022.12 ST (SIMULATION_TIME)
0.0500175 TSS (Timestep size)
6223.78 SFS (Overall seconds for Simulation)
20954211547 TP (Triangles processed)
0.104461 ASPT (Averaged Seconds per Timestep)
351699 TPST (Triangles Processed in Average per Simulation Timestep)
95.0841 PPST (Partitions Processed in Average per Simulation Timestep)
3.3668 MTPS (Million Triangles per Second)
-3.3668 MTPSPT (Million Triangles per Second per Thread)
10.733 EDMBPT (ElementData Megabyte per Timestep (RW))
102.746 EDMBPS (ElementData Megabyte per Second (RW))
SUM CLIENT SHUTDOWN HINT: 670535
SUM CLIENT SHUTDOWN HINT DIV TIME: 0
31387: CHANGING RESSOURCES
31373: CHANGING RESSOURCES
31374: CHANGING RESSOURCES
31393: CHANGING RESSOURCES
31395: CHANGING RESSOURCES

 + Terminating after 1000 timesteps with equal number of triangles -> EXIT
 + Final timestep: 59579

59580 TS (Timesteps)
3022.12 ST (SIMULATION_TIME)
0.0500175 TSS (Timestep size)
6229.69 SFS (Overall seconds for Simulation)
20954211547 TP (Triangles processed)
0.10456 ASPT (Averaged Seconds per Timestep)
351699 TPST (Triangles Processed in Average per Simulation Timestep)
95.0841 PPST (Partitions Processed in Average per Simulation Timestep)
3.36361 MTPS (Million Triangles per Second)
-3.36361 MTPSPT (Million Triangles per Second per Thread)
10.733 EDMBPT (ElementData Megabyte per Timestep (RW))
102.649 EDMBPS (ElementData Megabyte per Second (RW))
SUM CLIENT SHUTDOWN HINT: 691489
SUM CLIENT SHUTDOWN HINT DIV TIME: 0
31387: CHANGING RESSOURCES
31393: CHANGING RESSOURCES
31374: CHANGING RESSOURCES
31395: CHANGING RESSOURCES
Waiting for job 31374

 + Terminating after 1000 timesteps with equal number of triangles -> EXIT
 + Final timestep: 59579

59580 TS (Timesteps)
3022.12 ST (SIMULATION_TIME)
0.0500175 TSS (Timestep size)
6237.86 SFS (Overall seconds for Simulation)
20954211547 TP (Triangles processed)
0.104697 ASPT (Averaged Seconds per Timestep)
351699 TPST (Triangles Processed in Average per Simulation Timestep)
95.0841 PPST (Partitions Processed in Average per Simulation Timestep)
3.3592 MTPS (Million Triangles per Second)
-3.3592 MTPSPT (Million Triangles per Second per Thread)
10.733 EDMBPT (ElementData Megabyte per Timestep (RW))
102.515 EDMBPS (ElementData Megabyte per Second (RW))
SUM CLIENT SHUTDOWN HINT: 712443
SUM CLIENT SHUTDOWN HINT DIV TIME: 0
31393: CHANGING RESSOURCES
31395: CHANGING RESSOURCES
31387: CHANGING RESSOURCES
Waiting for job 31375
Waiting for job 31376
Waiting for job 31377
Waiting for job 31378
Waiting for job 31379
Waiting for job 31380
Waiting for job 31381
Waiting for job 31382
Waiting for job 31383
Waiting for job 31384
Waiting for job 31385
Waiting for job 31386
Waiting for job 31387

 + Terminating after 1000 timesteps with equal number of triangles -> EXIT
 + Final timestep: 59579

59580 TS (Timesteps)
3022.12 ST (SIMULATION_TIME)
0.0500175 TSS (Timestep size)
6242.48 SFS (Overall seconds for Simulation)
20954211547 TP (Triangles processed)
0.104775 ASPT (Averaged Seconds per Timestep)
351699 TPST (Triangles Processed in Average per Simulation Timestep)
95.0841 PPST (Partitions Processed in Average per Simulation Timestep)
3.35671 MTPS (Million Triangles per Second)
-3.35671 MTPSPT (Million Triangles per Second per Thread)
10.733 EDMBPT (ElementData Megabyte per Timestep (RW))
102.439 EDMBPS (ElementData Megabyte per Second (RW))
SUM CLIENT SHUTDOWN HINT: 733397
SUM CLIENT SHUTDOWN HINT DIV TIME: 0
31395: CHANGING RESSOURCES
31387: CHANGING RESSOURCES

 + Terminating after 1000 timesteps with equal number of triangles -> EXIT
 + Final timestep: 59579

59580 TS (Timesteps)
3022.12 ST (SIMULATION_TIME)
0.0500175 TSS (Timestep size)
6265.72 SFS (Overall seconds for Simulation)
20954211547 TP (Triangles processed)
0.105165 ASPT (Averaged Seconds per Timestep)
351699 TPST (Triangles Processed in Average per Simulation Timestep)
95.0841 PPST (Partitions Processed in Average per Simulation Timestep)
3.34426 MTPS (Million Triangles per Second)
-3.34426 MTPSPT (Million Triangles per Second per Thread)
10.733 EDMBPT (ElementData Megabyte per Timestep (RW))
102.059 EDMBPS (ElementData Megabyte per Second (RW))
SUM CLIENT SHUTDOWN HINT: 754352
SUM CLIENT SHUTDOWN HINT DIV TIME: 0
31387: CHANGING RESSOURCES

 + Terminating after 1000 timesteps with equal number of triangles -> EXIT
 + Final timestep: 59579

59580 TS (Timesteps)
3022.12 ST (SIMULATION_TIME)
0.0500175 TSS (Timestep size)
6272.6 SFS (Overall seconds for Simulation)
20954211547 TP (Triangles processed)
0.10528 ASPT (Averaged Seconds per Timestep)
351699 TPST (Triangles Processed in Average per Simulation Timestep)
95.0841 PPST (Partitions Processed in Average per Simulation Timestep)
3.3406 MTPS (Million Triangles per Second)
-3.3406 MTPSPT (Million Triangles per Second per Thread)
10.733 EDMBPT (ElementData Megabyte per Timestep (RW))
101.947 EDMBPS (ElementData Megabyte per Second (RW))
SUM CLIENT SHUTDOWN HINT: 775306
SUM CLIENT SHUTDOWN HINT DIV TIME: 123.603
Waiting for job 31388
Waiting for job 31389
Waiting for job 31390
Waiting for job 31391
Waiting for job 31392
Waiting for job 31393
Waiting for job 31394
Waiting for job 31395
Waiting for job 31396
Waiting for job 31397
Waiting for job 31398
Waiting for job 31399
Waiting for job 31400
Waiting for job 31401
Waiting for job 31402
Waiting for job 31403
Waiting for job 31404
Waiting for job 31405
Tue Apr  3 16:47:03 CEST 2012
Seconds: 6273
