0	0
18.6583	0
27.9875	0
37.3166	0
46.6458	0
55.975	0
65.3041	0
74.6333	0
83.9624	0
93.2916	0
102.621	0
111.95	0
121.279	0
130.608	0
149.267	0
158.596	0
167.925	0
177.254	0
186.583	0
195.912	0
205.242	0
214.571	0
223.9	0
233.229	0
242.558	0
251.887	0
261.216	0
270.546	0
289.204	0
298.533	0
307.862	0
317.191	0
326.521	0
335.85	0
345.179	0
354.508	0
363.837	0
373.166	0
382.496	0
391.825	0
401.154	0
410.483	0
429.141	0
438.471	0
447.8	0
457.129	0
466.458	0
475.787	0
485.116	0
494.446	0
503.775	0
513.104	0
522.433	0
531.762	0
541.091	0
550.42	0
569.079	0
578.408	0
587.737	0
597.066	0
606.395	0
615.725	0
625.054	0
634.383	0
643.712	0
653.041	0
662.37	0
671.7	0
681.029	0
690.358	0
709.016	0
718.345	0
727.675	0
737.004	0
746.333	0
755.662	0
764.991	0
774.32	0
783.649	0
792.979	0
802.308	0
811.637	0
820.966	0
830.295	0
848.954	0
858.283	0
867.612	0
876.941	0
886.27	0
895.599	0
904.929	0
914.258	0
923.587	0
932.916	0
942.245	0
951.574	0
960.904	0
970.233	0
988.891	0
998.22	0
1007.55	0
1016.88	0
1026.21	0
1035.54	0
1044.87	0
1054.2	0
1063.52	0
1072.85	0
1082.18	0
1091.51	0
1100.84	0
1110.17	0
1128.83	0
1138.16	0
1147.49	0
1156.82	0
1166.15	0
1175.47	0
1184.8	0
1194.13	0
1203.46	0
1212.79	0
1222.12	0
1231.45	0
1240.78	0
1250.11	0
1268.77	0
1278.09	0
1287.42	0
1296.75	0
1306.08	0
1315.41	0
1324.74	0
1334.07	0
1343.4	0
1352.73	0
1362.06	0
1371.39	0
1380.72	0
1390.04	0
1408.7	0
1418.03	0
1427.36	0
1436.69	0
1446.02	0
1455.35	0
1464.68	0
1474.01	0
1483.34	0
1492.67	0
1501.99	0
1511.32	0
1520.65	0
1539.31	0
1548.64	0
1557.97	0
1567.3	0
1576.63	0
1585.96	0
1595.29	0
1604.62	0
1613.94	0
1623.27	0
1632.6	0
1641.93	0
1651.26	0
1660.59	0
1679.25	0
1688.58	0
1697.91	0
1707.24	0
1716.57	0
1725.89	0
1735.22	0
1744.55	0
1753.88	0
1763.21	0
1772.54	0
1781.87	0
1791.2	0
1800.53	0
1819.19	0
1828.52	0
1837.84	0
1847.17	0
1856.5	0
1865.83	0
1875.16	0
1884.49	0
1893.82	0
1903.15	0
1912.48	0
1921.81	0
1931.14	0
1940.47	0
1959.12	0
1968.45	0
1977.78	0
1987.11	0
1996.44	0
2005.77	0
2015.1	0
2024.43	0
2033.76	0
2043.09	0
2052.42	0
2061.74	0
2071.07	0
2080.4	0
2099.06	0
2108.39	0
2117.72	0
2127.05	0
2136.38	0
2145.71	0
2155.04	0
2164.37	0
2173.69	0
2183.02	0
2192.35	0
2201.68	0
2211.01	0
2220.34	0
2239	0
2248.33	0
2257.66	0
2266.99	0
2276.32	0
2285.64	0
2294.97	0
2304.3	0
2313.63	0
2322.96	0
2332.29	0
2341.62	0
2350.95	0
2360.28	0
2378.94	1.81899e-12
2388.27	3.63798e-12
2397.59	5.45697e-12
2406.92	7.27596e-12
2416.25	1.09139e-11
2425.58	1.54614e-11
2434.91	2.18279e-11
2444.24	3.09228e-11
2453.57	4.27463e-11
2462.9	5.91172e-11
2472.23	8.18545e-11
2481.56	1.12777e-10
2490.89	1.54614e-10
2500.22	2.10093e-10
2518.87	3.83807e-10
2528.2	5.13865e-10
2537.53	6.86668e-10
2546.86	9.12223e-10
2556.19	1.20781e-09
2565.52	1.59162e-09
2574.85	2.08911e-09
2584.18	2.73121e-09
2593.51	3.55612e-09
2602.84	4.61114e-09
2612.16	5.95628e-09
2621.49	7.6634e-09
2630.82	9.82254e-09
2640.15	1.25419e-08
2658.81	2.0219e-08
2668.14	2.55313e-08
2677.47	3.21234e-08
2686.8	4.02742e-08
2696.13	5.03151e-08
2705.46	6.26405e-08
2714.79	7.77191e-08
2724.11	9.61008e-08
2733.44	1.18433e-07
2742.77	1.45474e-07
2752.1	1.78105e-07
2761.43	2.17356e-07
2770.76	2.64412e-07
2780.09	3.20646e-07
2798.75	4.67181e-07
2808.08	5.61348e-07
2817.41	6.7248e-07
2826.74	8.03236e-07
2836.06	9.56617e-07
2845.39	1.13601e-06
2854.72	1.3452e-06
2864.05	1.58844e-06
2873.38	1.87046e-06
2882.71	2.19652e-06
2892.04	2.57244e-06
2901.37	3.00464e-06
2910.7	3.50021e-06
2920.03	4.06688e-06
2938.69	5.44824e-06
2948.01	6.2822e-06
2957.34	7.22588e-06
2966.67	8.29102e-06
2976	9.49022e-06
2985.33	1.0837e-05
2994.66	1.23459e-05
3003.99	1.40323e-05
3013.32	1.59126e-05
3022.65	1.80041e-05
3031.98	2.03252e-05
3041.31	2.28952e-05
3050.63	2.57344e-05
3069.29	3.23059e-05
3078.62	3.60834e-05
3087.95	4.02202e-05
3097.28	4.4741e-05
3106.61	4.96713e-05
3115.94	5.50371e-05
3125.27	6.08652e-05
3134.6	6.7183e-05
3143.93	7.40182e-05
3153.26	8.13993e-05
3162.58	8.93549e-05
3171.91	9.79138e-05
3181.24	0.000107105
3190.57	0.000116959
3209.23	0.000138769
3218.56	0.000150784
3227.89	0.000163579
3237.22	0.000177181
3246.55	0.000191621
3255.87	0.000206927
3265.2	0.000223127
3274.53	0.000240249
3283.86	0.000258322
3293.19	0.000277373
3302.52	0.000297431
3311.85	0.000318524
3321.18	0.00034068
3330.51	0.000363927
3349.17	0.000413817
3358.49	0.000440521
3367.82	0.000468443
3377.15	0.000497618
3386.48	0.000528084
3395.81	0.000559885
3405.14	0.000593065
3414.47	0.000627677
3423.8	0.000663777
3433.13	0.000701431
3442.46	0.000740712
3451.78	0.000781703
3461.11	0.000824497
3470.44	0.000869205
3489.1	0.00096487
3498.43	0.00101613
3507.76	0.00106992
3517.09	0.00112644
3526.42	0.00118594
3535.74	0.0012487
3545.07	0.00131504
3554.4	0.0013853
3563.73	0.0014599
3573.06	0.00153929
3582.39	0.00162401
3591.72	0.00171464
3601.05	0.00181185
3610.38	0.00191637
3629.03	0.00215085
3638.36	0.00228278
3647.69	0.00242603
3657.02	0.0025819
3666.35	0.00275183
3675.68	0.0029374
3685.01	0.00314039
3694.34	0.00336274
3703.66	0.00360658
3712.99	0.00387425
3722.32	0.0041683
3731.65	0.00449154
3740.98	0.004847
3750.31	0.00523798
3768.97	0.0061411
3778.3	0.00666125
3787.62	0.00723299
3796.95	0.00786112
3806.28	0.00855075
3815.61	0.00930736
3824.94	0.0101367
3834.27	0.0110451
3843.6	0.0120389
3852.93	0.0131249
3862.25	0.0143106
3871.58	0.0156033
3880.91	0.0170109
3890.24	0.0185418
3908.9	0.0220074
3918.23	0.0239601
3927.56	0.0260717
3936.88	0.0283518
3946.21	0.03081
3955.54	0.0334561
3964.87	0.0363001
3974.2	0.039352
3983.53	0.0426216
3992.86	0.0461188
4002.19	0.0498533
4011.51	0.0538347
4020.84	0.0580722
4030.17	0.0625746
4048.83	0.0724079
4058.16	0.0777541
4067.49	0.0833959
4076.82	0.0893392
4086.14	0.0955891
4095.47	0.10215
4104.8	0.109025
4114.13	0.116216
4123.46	0.123724
4132.79	0.131549
4142.12	0.139689
4151.45	0.148141
4160.78	0.156901
4170.1	0.165963
4188.76	0.184959
4198.09	0.194873
4207.42	0.205048
4216.75	0.215471
4226.08	0.226124
4235.41	0.236991
4244.74	0.248052
4254.06	0.259285
4263.39	0.270668
4272.72	0.282176
4282.05	0.293783
4291.38	0.305462
4300.71	0.317184
4310.04	0.328918
4328.7	0.352297
4338.02	0.363875
4347.35	0.375332
4356.68	0.386634
4366.01	0.397745
4375.34	0.408627
4384.67	0.419245
4394	0.429561
4403.33	0.439538
4412.66	0.44914
4421.99	0.458331
4431.32	0.467074
4440.64	0.475334
4459.3	0.490271
4468.63	0.496883
4477.96	0.502881
4487.29	0.508238
4496.62	0.512926
4505.95	0.516919
4515.28	0.520193
4524.61	0.522727
4533.94	0.524502
4543.26	0.5255
4552.59	0.525706
4561.92	0.525108
4571.25	0.523696
4580.58	0.521463
4599.24	0.514518
4608.57	0.509805
4617.9	0.504268
4627.23	0.497913
4636.56	0.490749
4645.89	0.482787
4655.21	0.474041
4664.54	0.464526
4673.87	0.454262
4683.2	0.443268
4692.53	0.43157
4701.86	0.419191
4711.19	0.406159
4720.52	0.392503
4739.18	0.363446
4748.51	0.348111
4757.84	0.332285
4767.16	0.316006
4776.49	0.299311
4785.82	0.282238
4795.15	0.264828
4804.48	0.24712
4813.81	0.229155
4823.14	0.210974
4832.47	0.192618
4841.8	0.174128
4851.13	0.155544
4860.46	0.136909
4879.11	0.0996427
4888.44	0.0810902
4897.77	0.0626431
4907.1	0.0443385
4916.43	0.0262131
4925.76	0.00830202
4935.09	-0.00936064
4944.42	-0.0267421
4953.75	-0.043811
4963.08	-0.0605374
4972.4	-0.0768928
4981.73	-0.0928505
4991.06	-0.108385
5000.39	-0.123473
5019.05	-0.152225
5028.38	-0.16585
5037.71	-0.178952
5047.04	-0.191517
5056.37	-0.20353
5065.7	-0.214982
5075.03	-0.225863
5084.35	-0.236165
5093.68	-0.245882
5103.01	-0.255011
5112.34	-0.263549
5121.67	-0.271495
5131	-0.278849
5140.33	-0.285615
5158.99	-0.297396
5168.32	-0.302424
5177.65	-0.306886
5186.97	-0.310793
5196.3	-0.314153
5205.63	-0.316979
5214.96	-0.319284
5224.29	-0.32108
5233.62	-0.322382
5242.95	-0.323206
5252.28	-0.323567
5261.61	-0.323482
5270.94	-0.322968
5280.27	-0.322043
5298.92	-0.319034
5308.25	-0.316987
5317.58	-0.314605
5326.91	-0.311906
5336.24	-0.30891
5345.57	-0.305636
5354.9	-0.302105
5364.23	-0.298335
5373.56	-0.294346
5382.89	-0.290158
5392.22	-0.285788
5401.54	-0.281257
5410.87	-0.276581
5420.2	-0.27178
5438.86	-0.261869
5448.19	-0.256794
5457.52	-0.25166
5466.85	-0.246484
5476.18	-0.24128
5485.51	-0.236062
5494.84	-0.230846
5504.17	-0.225643
5513.49	-0.220467
5522.82	-0.215329
5532.15	-0.21024
5541.48	-0.205212
5550.81	-0.200254
5560.14	-0.195376
5578.8	-0.185891
5588.13	-0.1813
5597.46	-0.176818
5606.79	-0.172453
5616.11	-0.168208
5625.44	-0.164089
5634.77	-0.1601
5644.1	-0.156244
5653.43	-0.152523
5662.76	-0.148941
5672.09	-0.145499
5681.42	-0.142198
5690.75	-0.139039
5700.08	-0.136021
5718.74	-0.13041
5728.06	-0.127814
5737.39	-0.125355
5746.72	-0.123033
5756.05	-0.120843
5765.38	-0.118784
5774.71	-0.116853
5784.04	-0.115045
5793.37	-0.113358
5802.7	-0.111786
5812.03	-0.110327
5821.36	-0.108975
5830.69	-0.107726
5840.01	-0.106576
5858.67	-0.104549
5868	-0.103663
5877.33	-0.102855
5886.66	-0.102118
5895.99	-0.101449
5905.32	-0.100842
5914.65	-0.10029
5923.98	-0.0997893
5933.31	-0.0993338
5942.64	-0.0989182
5951.96	-0.0985373
5961.29	-0.0981858
5970.62	-0.0978585
5989.28	-0.0972565
5998.61	-0.096972
6007.94	-0.0966924
6017.27	-0.0964129
6026.6	-0.0961293
6035.93	-0.0958373
6045.26	-0.0955329
6054.58	-0.0952123
6063.91	-0.0948719
6073.24	-0.0945081
6082.57	-0.0941177
6091.9	-0.0936977
6101.23	-0.0932453
6110.56	-0.0927578
6129.22	-0.0916684
6138.55	-0.0910624
6147.88	-0.0904132
6157.21	-0.0897192
6166.53	-0.0889792
6175.86	-0.0881922
6185.19	-0.0873573
6194.52	-0.086474
6203.85	-0.0855418
6213.18	-0.0845605
6222.51	-0.0835302
6231.84	-0.0824512
6241.17	-0.0813237
6250.5	-0.0801485
6269.16	-0.0776582
6278.48	-0.0763452
6287.81	-0.0749887
6297.14	-0.0735901
6306.47	-0.072151
6315.8	-0.0706732
6325.13	-0.0691585
6334.46	-0.067609
6343.79	-0.0660268
6353.12	-0.0644141
6362.45	-0.0627732
6371.78	-0.0611064
6381.11	-0.0594164
6390.43	-0.0577055
6409.09	-0.054232
6418.42	-0.0524746
6427.75	-0.0507071
6437.08	-0.0489323
6446.41	-0.0471529
6455.74	-0.0453716
6465.07	-0.0435914
6474.4	-0.0418148
6483.73	-0.0400447
6493.06	-0.0382838
6502.38	-0.0365347
6511.71	-0.0348001
6521.04	-0.0330827
6530.37	-0.0313849
6549.03	-0.0280582
6558.36	-0.026434
6567.69	-0.024839
6577.02	-0.0232754
6586.35	-0.0217453
6595.68	-0.0202508
6605.01	-0.0187936
6614.33	-0.0173757
6623.66	-0.0159988
6632.99	-0.0146644
6642.32	-0.0133741
6651.65	-0.0121293
6660.98	-0.0109313
6670.31	-0.00978116
6688.97	-0.0076287
6698.3	-0.0066281
6707.63	-0.00567887
6716.96	-0.00478156
6726.28	-0.00393662
6735.61	-0.00314436
6744.94	-0.00240497
6754.27	-0.00171852
6763.6	-0.00108496
6772.93	-0.000504125
6782.26	2.42872e-05
6791.59	0.00050068
6800.92	0.000925577
6810.25	0.00129962
6828.91	0.00189824
6838.23	0.00212464
6847.56	0.00230384
6856.89	0.002437
6866.22	0.00252539
6875.55	0.00257038
6884.88	0.00257342
6894.21	0.00253606
6903.54	0.00245992
6912.87	0.00234672
6922.2	0.00219823
6931.53	0.00201631
6940.86	0.00180287
6950.18	0.00155991
6968.84	0.000993612
6978.17	0.000674516
6987.5	0.000334353
6996.83	-2.46523e-05
7006.16	-0.000400243
7015.49	-0.000790135
7024.82	-0.00119202
7034.15	-0.00160357
7043.48	-0.00202244
7052.81	-0.0024463
7062.13	-0.00287279
7071.46	-0.00329956
7080.79	-0.00372428
7090.12	-0.00414462
7108.78	-0.00496296
7118.11	-0.00535642
7127.44	-0.00573643
7136.77	-0.00610081
7146.1	-0.00644741
7155.43	-0.00677415
7164.76	-0.00707898
7174.08	-0.0073599
7183.41	-0.00761501
7192.74	-0.00784243
7202.07	-0.00804037
7211.4	-0.00820711
7220.73	-0.00834101
7230.06	-0.00844051
7248.72	-0.00853043
7258.05	-0.00851817
7267.38	-0.00846609
7276.71	-0.00837309
7286.03	-0.00823814
7295.36	-0.00806031
7304.69	-0.00783877
7314.02	-0.00757282
7323.35	-0.00726181
7332.68	-0.00690524
7342.01	-0.0065027
7351.34	-0.00605388
7360.67	-0.00555859
7379.33	-0.00442831
7388.65	-0.00379346
7397.98	-0.0031124
7407.31	-0.00238547
7416.64	-0.0016131
7425.97	-0.000795815
7435.3	6.57374e-05
7444.63	0.000970825
7453.96	0.00191862
7463.29	0.00290818
7472.62	0.00393851
7481.95	0.00500849
7491.28	0.00611694
7500.6	0.00726256
7519.26	0.00965987
7528.59	0.0109086
7537.92	0.0121887
7547.25	0.0134984
7556.58	0.0148362
7565.91	0.0162001
7575.24	0.0175885
7584.57	0.0189995
7593.9	0.0204311
7603.22	0.0218815
7612.55	0.0233487
7621.88	0.0248306
7631.21	0.0263253
7640.54	0.0278307
7659.2	0.0308655
7668.53	0.0323907
7677.86	0.0339184
7687.19	0.0354464
7696.52	0.0369728
7705.84	0.0384956
7715.17	0.0400126
7724.5	0.0415218
7733.83	0.0430214
7743.16	0.0445093
7752.49	0.0459837
7761.82	0.0474427
7771.15	0.0488844
7780.48	0.0503071
7799.14	0.0530885
7808.46	0.0544439
7817.79	0.0557737
7827.12	0.0570763
7836.45	0.0583502
7845.78	0.0595942
7855.11	0.0608069
7864.44	0.061987
7873.77	0.0631334
7883.1	0.0642449
7892.43	0.0653204
7901.76	0.0663592
7911.08	0.0673601
7920.41	0.0683224
7939.07	0.0701282
7948.4	0.0709705
7957.73	0.0717715
7967.06	0.0725309
7976.39	0.0732482
7985.72	0.0739231
7995.05	0.0745553
8004.38	0.0751446
8013.7	0.0756909
8023.03	0.0761941
8032.36	0.0766542
8041.69	0.0770713
8051.02	0.0774453
8060.35	0.0777766
8079.01	0.0783115
8088.34	0.0785157
8097.67	0.0786782
8107	0.0787993
8116.32	0.0788796
8125.65	0.0789193
8134.98	0.0789192
8144.31	0.0788796
8153.64	0.0788011
8162.97	0.0786842
8172.3	0.0785297
8181.63	0.0783381
8190.96	0.0781101
8200.29	0.0778463
8218.94	0.0772139
8228.27	0.0768468
8237.6	0.0764466
8246.93	0.076014
8256.26	0.0755498
8265.59	0.0750546
8274.92	0.0745291
8284.25	0.0739741
8293.58	0.0733902
8302.91	0.0727781
8312.24	0.0721385
8321.56	0.071472
8330.89	0.0707794
8340.22	0.0700611
8358.88	0.0685505
8368.21	0.0677593
8377.54	0.066945
8386.87	0.0661082
8396.2	0.0652494
8405.53	0.0643691
8414.86	0.0634679
8424.19	0.0625463
8433.51	0.0616048
8442.84	0.0606439
8452.17	0.059664
8461.5	0.0586656
8470.83	0.057649
8480.16	0.0566149
8498.82	0.0544952
8508.15	0.0534104
8517.48	0.0523096
8526.81	0.051193
8536.13	0.050061
8545.46	0.048914
8554.79	0.0477523
8564.12	0.0465762
8573.45	0.0453861
8582.78	0.0441823
8592.11	0.0429652
8601.44	0.041735
8610.77	0.040492
8620.1	0.0392367
8638.76	0.0366903
8648.08	0.0353998
8657.41	0.0340983
8666.74	0.0327861
8676.07	0.0314636
8685.4	0.0301312
8694.73	0.0287892
8704.06	0.0274381
8713.39	0.0260782
8722.72	0.02471
8732.05	0.023334
8741.38	0.0219505
8750.7	0.02056
8760.03	0.0191631
8778.69	0.016352
8788.02	0.0149387
8797.35	0.0135212
8806.68	0.0120998
8816.01	0.0106753
8825.34	0.00924819
8834.67	0.00781913
8844	0.00638877
8853.33	0.00495775
8862.65	0.00352676
8871.98	0.0020965
8881.31	0.000667658
8890.64	-0.000759033
8909.3	-0.00360302
8918.63	-0.0050188
8927.96	-0.00642942
8937.29	-0.00783411
8946.62	-0.00923206
8955.95	-0.0106225
8965.28	-0.0120046
8974.6	-0.0133776
8983.93	-0.0147406
8993.26	-0.016093
9002.59	-0.0174337
9011.92	-0.0187621
9021.25	-0.0200774
9030.58	-0.0213787
9049.24	-0.0239363
9058.57	-0.0251911
9067.9	-0.0264288
9077.23	-0.0276487
9086.55	-0.0288501
9095.88	-0.0300322
9105.21	-0.0311944
9114.54	-0.0323361
9123.87	-0.0334564
9133.2	-0.0345549
9142.53	-0.0356308
9151.86	-0.0366837
9161.19	-0.037713
9170.52	-0.0387182
9189.17	-0.040654
9198.5	-0.0415839
9207.83	-0.0424878
9217.16	-0.0433654
9226.49	-0.0442164
9235.82	-0.0450405
9245.15	-0.0458374
9254.48	-0.0466069
9263.81	-0.0473488
9273.14	-0.0480629
9282.47	-0.0487492
9291.8	-0.0494076
9301.12	-0.050038
9310.45	-0.0506405
9329.11	-0.0517616
9338.44	-0.0522805
9347.77	-0.0527718
9357.1	-0.0532357
9366.43	-0.0536723
9375.76	-0.054082
9385.09	-0.054465
9394.42	-0.0548216
9403.75	-0.0551521
9413.07	-0.055457
9422.4	-0.0557367
9431.73	-0.0559915
9441.06	-0.0562219
9450.39	-0.0564283
9469.05	-0.0567716
9478.38	-0.0569094
9487.71	-0.0570255
9497.04	-0.0571204
9506.37	-0.0571946
9515.7	-0.0572488
9525.02	-0.0572837
9534.35	-0.0572998
9543.68	-0.0572978
9553.01	-0.0572783
9562.34	-0.0572421
9571.67	-0.0571896
9581	-0.0571217
9590.33	-0.057039
9608.99	-0.0568317
9618.32	-0.0567084
9627.65	-0.056573
9636.97	-0.056426
9646.3	-0.0562681
9655.63	-0.0560999
9664.96	-0.0559221
9674.29	-0.0557352
9683.62	-0.0555399
9692.95	-0.0553367
9702.28	-0.0551263
9711.61	-0.0549091
9720.94	-0.0546858
9730.27	-0.0544568
9748.92	-0.0539838
9758.25	-0.0537408
9767.58	-0.053494
9776.91	-0.053244
9786.24	-0.0529911
9795.57	-0.0527357
9804.9	-0.0524782
9814.23	-0.052219
9823.56	-0.0519584
9832.89	-0.0516966
9842.22	-0.0514341
9851.54	-0.0511711
9860.87	-0.0509078
9870.2	-0.0506445
9888.86	-0.0501187
9898.19	-0.0498567
9907.52	-0.0495954
9916.85	-0.049335
9926.18	-0.0490757
9935.51	-0.0488175
9944.84	-0.0485606
9954.17	-0.0483051
9963.49	-0.0480511
9972.82	-0.0477985
9982.15	-0.0475475
9991.48	-0.0472981
10000.8	-0.0470503
10010.1	-0.0468042
10028.8	-0.0463168
10038.1	-0.0460755
10047.5	-0.0458359
10056.8	-0.0455979
10066.1	-0.0453614
10075.4	-0.0451264
10084.8	-0.0448929
10094.1	-0.0446609
10103.4	-0.0444302
10112.8	-0.0442009
10122.1	-0.0439729
10131.4	-0.0437461
10140.7	-0.0435204
10150.1	-0.0432959
10168.7	-0.0428501
10178.1	-0.0426286
10187.4	-0.042408
10196.7	-0.0421883
10206.1	-0.0419694
10215.4	-0.0417513
10224.7	-0.0415338
10234	-0.0413171
10243.4	-0.041101
10252.7	-0.0408854
10262	-0.0406705
10271.4	-0.0404561
10280.7	-0.0402422
10290	-0.0400288
10308.7	-0.0396033
10318	-0.0393913
10327.3	-0.0391797
10336.7	-0.0389685
10346	-0.0387578
10355.3	-0.0385475
10364.6	-0.0383376
10374	-0.0381281
10383.3	-0.0379191
10392.6	-0.0377105
10402	-0.0375024
10411.3	-0.0372948
10420.6	-0.0370876
10439.3	-0.0366747
10448.6	-0.036469
10457.9	-0.0362638
10467.3	-0.0360592
10476.6	-0.0358551
10485.9	-0.0356515
10495.3	-0.0354485
10504.6	-0.0352461
10513.9	-0.0350442
10523.2	-0.0348429
10532.6	-0.0346421
10541.9	-0.0344419
10551.2	-0.0342422
10560.6	-0.034043
10579.2	-0.033646
10588.5	-0.0334482
10597.9	-0.0332508
10607.2	-0.0330537
10616.5	-0.032857
10625.9	-0.0326605
10635.2	-0.0324642
10644.5	-0.032268
10653.9	-0.0320719
10663.2	-0.0318758
10672.5	-0.0316796
10681.8	-0.0314832
10691.2	-0.0312865
10700.5	-0.0310894
10719.2	-0.0306935
10728.5	-0.0304946
10737.8	-0.0302947
10747.1	-0.0300939
10756.5	-0.0298918
10765.8	-0.0296885
10775.1	-0.0294837
10784.5	-0.0292773
10793.8	-0.0290691
10803.1	-0.028859
10812.4	-0.0286467
10821.8	-0.0284321
10831.1	-0.028215
10840.4	-0.0279952
10859.1	-0.0275467
10868.4	-0.0273176
10877.8	-0.027085
10887.1	-0.0268487
10896.4	-0.0266085
10905.7	-0.0263642
10915.1	-0.0261156
10924.4	-0.0258624
10933.7	-0.0256044
10943.1	-0.0253415
10952.4	-0.0250734
10961.7	-0.0247998
10971	-0.0245207
10980.4	-0.0242357
10999	-0.0236475
11008.4	-0.0233439
11017.7	-0.0230336
11027	-0.0227165
11036.3	-0.0223924
11045.7	-0.0220611
11055	-0.0217225
11064.3	-0.0213763
11073.7	-0.0210224
11083	-0.0206606
11092.3	-0.0202909
11101.7	-0.019913
11111	-0.0195268
11120.3	-0.0191322
11139	-0.0183174
11148.3	-0.017897
11157.6	-0.0174677
11167	-0.0170296
11176.3	-0.0165825
11185.6	-0.0161265
11194.9	-0.0156614
11204.3	-0.0151872
11213.6	-0.014704
11222.9	-0.0142117
11232.3	-0.0137103
11241.6	-0.0131998
11250.9	-0.0126803
11260.2	-0.0121519
11278.9	-0.0110682
11288.2	-0.0105132
11297.6	-0.00994952
11306.9	-0.00937727
11316.2	-0.00879658
11325.6	-0.00820758
11334.9	-0.00761042
11344.2	-0.00700527
11353.5	-0.00639229
11362.9	-0.00577167
11372.2	-0.00514362
11381.5	-0.00450833
11390.9	-0.00386603
11400.2	-0.00321695
11418.8	-0.00189944
11428.2	-0.00123153
11437.5	-0.000557869
11446.8	0.000121249
11456.2	0.000805534
11465.5	0.00149469
11474.8	0.0021884
11484.1	0.00288634
11493.5	0.00358821
11502.8	0.00429366
11512.1	0.00500236
11521.5	0.00571396
11530.8	0.00642812
11540.1	0.00714448
11558.8	0.0085824
11568.1	0.00930323
11577.4	0.0100248
11586.8	0.0107468
11596.1	0.0114689
11605.4	0.0121906
11614.8	0.0129116
11624.1	0.0136315
11633.4	0.0143501
11642.7	0.0150668
11652.1	0.0157814
11661.4	0.0164935
11670.7	0.0172028
11680.1	0.0179089
11698.7	0.0193102
11708	0.0200048
11717.4	0.0206948
11726.7	0.0213801
11736	0.0220602
11745.4	0.022735
11754.7	0.023404
11764	0.0240671
11773.4	0.024724
11782.7	0.0253744
11792	0.0260181
11801.3	0.0266548
11810.7	0.0272844
11829.3	0.0285211
11838.7	0.029128
11848	0.0297268
11857.3	0.0303176
11866.6	0.0309001
11876	0.0314742
11885.3	0.0320399
11894.6	0.0325968
11904	0.0331451
11913.3	0.0336846
11922.6	0.0342151
11931.9	0.0347367
11941.3	0.0352493
11950.6	0.0357529
11969.3	0.0367327
11978.6	0.037209
11987.9	0.0376762
11997.2	0.0381343
12006.6	0.0385834
12015.9	0.0390234
12025.2	0.0394544
12034.6	0.0398764
12043.9	0.0402896
12053.2	0.0406939
12062.6	0.0410894
12071.9	0.0414762
12081.2	0.0418545
12090.5	0.0422241
12109.2	0.0429381
12118.5	0.0432827
12127.9	0.043619
12137.2	0.0439473
12146.5	0.0442675
12155.8	0.0445798
12165.2	0.0448843
12174.5	0.045181
12183.8	0.0454701
12193.2	0.0457516
12202.5	0.0460255
12211.8	0.0462921
12221.1	0.0465513
12230.5	0.0468033
12249.1	0.0472855
12258.5	0.0475158
12267.8	0.0477391
12277.1	0.0479553
12286.5	0.0481644
12295.8	0.0483665
12305.1	0.0485615
12314.4	0.0487495
12323.8	0.0489304
12333.1	0.0491042
12342.4	0.0492709
12351.8	0.0494303
12361.1	0.0495825
12370.4	0.0497274
12389.1	0.0499948
12398.4	0.0501171
12407.7	0.0502318
12417.1	0.0503385
12426.4	0.0504373
12435.7	0.0505279
12445	0.0506103
12454.4	0.0506842
12463.7	0.0507494
12473	0.0508058
12482.4	0.0508532
12491.7	0.0508914
12501	0.0509202
12510.4	0.0509393
12529	0.0509478
12538.3	0.0509366
12547.7	0.0509149
12557	0.0508824
12566.3	0.0508388
12575.7	0.0507839
12585	0.0507174
12594.3	0.0506391
12603.6	0.0505488
12613	0.0504461
12622.3	0.0503309
12631.6	0.0502029
12641	0.0500617
12650.3	0.0499073
12668.9	0.0495575
12678.3	0.0493617
12687.6	0.0491517
12696.9	0.0489272
12706.3	0.048688
12715.6	0.048434
12724.9	0.048165
12734.3	0.0478807
12743.6	0.047581
12752.9	0.0472657
12762.2	0.0469348
12771.6	0.0465881
12780.9	0.0462254
12790.2	0.0458467
12808.9	0.0450408
12818.2	0.0446135
12827.5	0.0441699
12836.9	0.04371
12846.2	0.0432337
12855.5	0.0427412
12864.9	0.0422324
12874.2	0.0417073
12883.5	0.041166
12892.8	0.0406087
12902.2	0.0400354
12911.5	0.0394462
12920.8	0.0388412
12930.2	0.0382207
12948.8	0.0369336
12958.2	0.0362675
12967.5	0.0355866
12976.8	0.0348911
12986.1	0.0341814
12995.5	0.0334577
13004.8	0.0327202
13014.1	0.0319695
13023.5	0.0312056
13032.8	0.0304291
13042.1	0.0296402
13051.4	0.0288393
13060.8	0.0280269
13070.1	0.0272032
13088.8	0.0255241
13098.1	0.0246695
13107.4	0.0238054
13116.7	0.0229323
13126.1	0.0220508
13135.4	0.0211611
13144.7	0.020264
13154.1	0.0193597
13163.4	0.018449
13172.7	0.0175321
13182.1	0.0166098
13191.4	0.0156824
13200.7	0.0147505
13210	0.0138147
13228.7	0.0119332
13238	0.0109886
13247.4	0.0100421
13256.7	0.00909431
13266	0.0081457
13275.3	0.00719681
13284.7	0.00624814
13294	0.00530023
13303.3	0.00435358
13312.7	0.00340869
13322	0.00246608
13331.3	0.00152623
13340.6	0.000589625
13359.3	-0.00127191
13368.6	-0.0021959
13378	-0.00311477
13387.3	-0.00402808
13396.6	-0.00493538
13406	-0.00583626
13415.3	-0.00673029
13424.6	-0.00761708
13433.9	-0.00849624
13443.3	-0.00936738
13452.6	-0.0102301
13461.9	-0.0110842
13471.3	-0.0119291
13480.6	-0.0127647
13499.2	-0.0144063
13508.6	-0.0152118
13517.9	-0.0160067
13527.2	-0.0167907
13536.6	-0.0175637
13545.9	-0.0183253
13555.2	-0.0190753
13564.5	-0.0198136
13573.9	-0.0205399
13583.2	-0.0212541
13592.5	-0.0219559
13601.9	-0.0226453
13611.2	-0.0233221
13620.5	-0.0239861
13639.2	-0.0252754
13648.5	-0.0259005
13657.8	-0.0265125
13667.2	-0.0271112
13676.5	-0.0276967
13685.8	-0.0282689
13695.2	-0.0288277
13704.5	-0.0293731
13713.8	-0.0299052
13723.1	-0.0304238
13732.5	-0.0309291
13741.8	-0.0314209
13751.1	-0.0318995
13760.5	-0.0323647
13779.1	-0.0332553
13788.4	-0.0336808
13797.8	-0.0340932
13807.1	-0.0344925
13816.4	-0.0348789
13825.8	-0.0352525
13835.1	-0.0356132
13844.4	-0.0359613
13853.8	-0.0362968
13863.1	-0.0366199
13872.4	-0.0369306
13881.7	-0.037229
13891.1	-0.0375153
13900.4	-0.0377897
13919.1	-0.038303
13928.4	-0.0385422
13937.7	-0.03877
13947	-0.0389865
13956.4	-0.0391919
13965.7	-0.0393862
13975	-0.0395698
13984.4	-0.0397426
13993.7	-0.0399049
14003	-0.0400568
14012.3	-0.0401986
14021.7	-0.0403302
14031	-0.0404519
14040.3	-0.0405639
14059	-0.0407594
14068.3	-0.0408431
14077.7	-0.0409177
14087	-0.0409834
14096.3	-0.0410403
14105.6	-0.0410886
14115	-0.0411283
14124.3	-0.0411598
14133.6	-0.0411831
14143	-0.0411984
14152.3	-0.0412058
14161.6	-0.0412055
14170.9	-0.0411976
14180.3	-0.0411823
14198.9	-0.04113
14208.3	-0.0410933
14217.6	-0.0410497
14226.9	-0.0409993
14236.2	-0.0409424
14245.6	-0.0408789
14254.9	-0.0408091
14264.2	-0.040733
14273.6	-0.0406508
14282.9	-0.0405626
14292.2	-0.0404685
14301.6	-0.0403686
14310.9	-0.0402629
14320.2	-0.0401517
14338.9	-0.0399128
14348.2	-0.0397853
14357.5	-0.0396526
14366.9	-0.0395147
14376.2	-0.0393717
14385.5	-0.0392237
14394.8	-0.0390708
14404.2	-0.0389129
14413.5	-0.0387503
14422.8	-0.0385828
14432.2	-0.0384107
14441.5	-0.0382338
14450.8	-0.0380524
14460.1	-0.0378663
14478.8	-0.0374806
14488.1	-0.037281
14497.5	-0.0370769
14506.8	-0.0368684
14516.1	-0.0366555
14525.4	-0.0364381
14534.8	-0.0362164
14544.1	-0.0359903
14553.4	-0.0357599
14562.8	-0.0355251
14572.1	-0.0352859
14581.4	-0.0350424
14590.8	-0.0347945
14600.1	-0.0345423
14618.7	-0.0340248
14628.1	-0.0337595
14637.4	-0.0334898
14646.7	-0.0332158
14656.1	-0.0329373
14665.4	-0.0326545
14674.7	-0.0323672
14684	-0.0320756
14693.4	-0.0317795
14702.7	-0.031479
14712	-0.0311741
14721.4	-0.0308648
14730.7	-0.0305511
14740	-0.0302329
14758.7	-0.0295833
14768	-0.0292518
14777.3	-0.028916
14786.7	-0.0285758
14796	-0.0282313
14805.3	-0.0278824
14814.7	-0.0275291
14824	-0.0271716
14833.3	-0.0268099
14842.6	-0.0264439
14852	-0.0260737
14861.3	-0.0256995
14870.6	-0.0253211
14889.3	-0.0245525
14898.6	-0.0241623
14907.9	-0.0237683
14917.3	-0.0233706
14926.6	-0.0229692
14935.9	-0.0225643
14945.3	-0.0221559
14954.6	-0.0217442
14963.9	-0.0213293
14973.2	-0.0209112
14982.6	-0.0204901
14991.9	-0.0200661
15001.2	-0.0196394
15010.6	-0.0192101
15029.2	-0.0183443
15038.6	-0.0179081
15047.9	-0.0174699
15057.2	-0.0170298
15066.5	-0.0165881
15075.9	-0.0161449
15085.2	-0.0157004
15094.5	-0.0152548
15103.9	-0.0148082
15113.2	-0.014361
15122.5	-0.0139131
15131.8	-0.013465
15141.2	-0.0130167
15150.5	-0.0125684
15169.2	-0.011673
15178.5	-0.0112263
15187.8	-0.0107804
15197.1	-0.0103357
15206.5	-0.00989232
15215.8	-0.00945051
15225.1	-0.00901049
15234.5	-0.00857245
15243.8	-0.00813663
15253.1	-0.00770325
15262.5	-0.0072725
15271.8	-0.00684461
15281.1	-0.00641979
15290.4	-0.00599824
15309.1	-0.0051658
15318.4	-0.00475531
15327.8	-0.00434889
15337.1	-0.00394675
15346.4	-0.00354908
15355.7	-0.00315604
15365.1	-0.00276784
15374.4	-0.00238463
15383.7	-0.00200658
15393.1	-0.00163386
15402.4	-0.00126663
15411.7	-0.000905038
15421	-0.000549224
15430.4	-0.000199329
15449	0.000482184
15458.4	0.00081356
15467.7	0.00113853
15477	0.00145699
15486.4	0.00176885
15495.7	0.00207402
15505	0.00237241
15514.3	0.00266394
15523.7	0.00294856
15533	0.0032262
15542.3	0.00349681
15551.7	0.00376034
15561	0.00401676
15570.3	0.00426603
15589	0.00474304
15598.3	0.00497075
15607.6	0.00519126
15617	0.00540456
15626.3	0.00561067
15635.6	0.00580961
15644.9	0.00600138
15654.3	0.00618602
15663.6	0.00636355
15672.9	0.00653402
15682.3	0.00669747
15691.6	0.00685393
15700.9	0.00700347
15710.3	0.00714612
15728.9	0.00741104
15738.2	0.00753342
15747.6	0.00764918
15756.9	0.00775838
15766.2	0.00786109
15775.6	0.00795738
15784.9	0.00804734
15794.2	0.00813104
15803.5	0.00820855
15812.9	0.00827995
15822.2	0.00834532
15831.5	0.00840474
15840.9	0.00845829
15850.2	0.00850604
15868.8	0.00858446
15878.2	0.00861527
15887.5	0.00864059
15896.8	0.00866048
15906.2	0.00867501
15915.5	0.00868426
15924.8	0.00868827
15934.2	0.00868712
15943.5	0.00868086
15952.8	0.00866955
15962.1	0.00865324
15971.5	0.00863198
15980.8	0.00860581
15990.1	0.00857479
16008.8	0.00849831
16018.1	0.00845292
16027.4	0.0084028
16036.8	0.00834798
16046.1	0.00828847
16055.4	0.00822431
16064.8	0.00815548
16074.1	0.00808202
16083.4	0.00800392
16092.7	0.00792119
16102.1	0.00783382
16111.4	0.00774182
16120.7	0.00764517
16130.1	0.00754386
16148.7	0.00732723
16158.1	0.00721187
16167.4	0.00709179
16176.7	0.00696697
16186	0.00683737
16195.4	0.00670299
16204.7	0.00656378
16214	0.00641972
16223.4	0.00627079
16232.7	0.00611695
16242	0.00595817
16251.3	0.00579442
16260.7	0.00562567
16270	0.0054519
16288.7	0.00508915
16298	0.00490013
16307.3	0.00470598
16316.6	0.00450667
16326	0.00430218
16335.3	0.0040925
16344.6	0.00387762
16354	0.00365751
16363.3	0.00343219
16372.6	0.00320163
16382	0.00296584
16391.3	0.00272483
16400.6	0.00247861
16419.3	0.00197059
16428.6	0.00170883
16437.9	0.00144195
16447.3	0.00116998
16456.6	0.000892961
16465.9	0.000610951
16475.2	0.000324
16484.6	3.21721e-05
16493.9	-0.000264465
16503.2	-0.000565834
16512.6	-0.000871853
16521.9	-0.00118243
16531.2	-0.00149747
16540.5	-0.00181686
16559.2	-0.00246824
16568.5	-0.00279999
16577.9	-0.00313559
16587.2	-0.0034749
16596.5	-0.00381777
16605.9	-0.00416405
16615.2	-0.00451355
16624.5	-0.00486611
16633.8	-0.00522155
16643.2	-0.00557968
16652.5	-0.0059403
16661.8	-0.0063032
16671.2	-0.00666817
16680.5	-0.007035
16699.1	-0.00777331
16708.5	-0.00814433
16717.8	-0.00851626
16727.1	-0.00888886
16736.5	-0.00926187
16745.8	-0.00963502
16755.1	-0.0100081
16764.4	-0.0103807
16773.8	-0.0107527
16783.1	-0.0111238
16792.4	-0.0114936
16801.8	-0.0118619
16811.1	-0.0122284
16820.4	-0.0125928
16839.1	-0.0133141
16848.4	-0.0136705
16857.7	-0.0140235
16867.1	-0.014373
16876.4	-0.0147186
16885.7	-0.01506
16895.1	-0.0153969
16904.4	-0.015729
16913.7	-0.016056
16923	-0.0163776
16932.4	-0.0166936
16941.7	-0.0170036
16951	-0.0173073
16960.4	-0.0176044
16979	-0.018178
16988.3	-0.0184538
16997.7	-0.018722
17007	-0.0189823
17016.3	-0.0192344
17025.7	-0.0194781
17035	-0.0197131
17044.3	-0.0199392
17053.7	-0.0201562
17063	-0.0203638
17072.3	-0.0205619
17081.6	-0.0207502
17091	-0.0209285
17100.3	-0.0210966
17119	-0.0214017
17128.3	-0.0215383
17137.6	-0.0216641
17146.9	-0.021779
17156.3	-0.0218827
17165.6	-0.0219752
17174.9	-0.0220564
17184.3	-0.0221262
17193.6	-0.0221845
17202.9	-0.0222313
17212.2	-0.0222664
17221.6	-0.0222897
17230.9	-0.0223014
17240.2	-0.0223013
17258.9	-0.0222658
17268.2	-0.0222304
17277.6	-0.0221832
17286.9	-0.0221243
17296.2	-0.0220537
17305.5	-0.0219715
17314.9	-0.0218777
17324.2	-0.0217724
17333.5	-0.0216557
17342.9	-0.0215277
17352.2	-0.0213886
17361.5	-0.0212383
17370.8	-0.0210771
17380.2	-0.0209052
17398.8	-0.0205295
17408.2	-0.0203261
17417.5	-0.0201125
17426.8	-0.0198891
17436.1	-0.0196559
17445.5	-0.0194133
17454.8	-0.0191613
17464.1	-0.0189003
17473.5	-0.0186304
17482.8	-0.018352
17492.1	-0.0180652
17501.5	-0.0177704
17510.8	-0.0174678
17520.1	-0.0171577
17538.8	-0.016516
17548.1	-0.016185
17557.4	-0.0158477
17566.8	-0.0155043
17576.1	-0.0151553
17585.4	-0.0148007
17594.7	-0.0144411
17604.1	-0.0140767
17613.4	-0.0137078
17622.7	-0.0133349
17632.1	-0.0129581
17641.4	-0.0125779
17650.7	-0.0121945
17660	-0.0118084
17678.7	-0.0110293
17688	-0.0106369
17697.4	-0.0102431
17706.7	-0.0098483
17716	-0.00945277
17725.4	-0.00905688
17734.7	-0.00866097
17744	-0.00826539
17753.3	-0.00787049
17762.7	-0.00747661
17772	-0.00708408
17781.3	-0.00669325
17790.7	-0.00630445
17809.3	-0.0055343
17818.6	-0.00515361
17828	-0.00477627
17837.3	-0.00440262
17846.6	-0.00403297
17856	-0.00366763
17865.3	-0.00330693
17874.6	-0.00295117
17883.9	-0.00260064
17893.3	-0.00225566
17902.6	-0.00191652
17911.9	-0.0015835
17921.3	-0.00125689
17930.6	-0.000936967
17949.3	-0.000318287
17958.6	-2.00572e-05
17967.9	0.000270422
17977.2	0.000552899
17986.6	0.000827131
17995.9	0.00109288
18005.2	0.00134991
18014.6	0.00159801
18023.9	0.00183695
18033.2	0.00206652
18042.5	0.00228651
18051.9	0.00249674
18061.2	0.00269702
18070.5	0.00288715
18089.2	0.00323631
18098.5	0.00339501
18107.8	0.00354292
18117.2	0.0036799
18126.5	0.00380581
18135.8	0.00392053
18145.2	0.00402394
18154.5	0.00411592
18163.8	0.00419638
18173.2	0.00426523
18182.5	0.00432238
18191.8	0.00436775
18201.1	0.00440128
18210.5	0.00442292
18229.1	0.00443031
18238.5	0.004416
18247.8	0.00438965
18257.1	0.00435125
18266.4	0.0043008
18275.8	0.00423831
18285.1	0.00416379
18294.4	0.00407728
18303.8	0.0039788
18313.1	0.0038684
18322.4	0.00374614
18331.7	0.00361208
18341.1	0.00346629
18350.4	0.00330886
18369.1	0.00295948
18378.4	0.00276773
18387.7	0.00256478
18397.1	0.00235075
18406.4	0.00212579
18415.7	0.00189005
18425	0.00164369
18434.4	0.00138689
18443.7	0.00111981
18453	0.000842664
18462.4	0.000555634
18471.7	0.000258935
18481	-4.72167e-05
18490.3	-0.000362594
18509	-0.00102007
18518.3	-0.00136168
18527.7	-0.00171151
18537	-0.00206931
18546.3	-0.00243478
18555.6	-0.00280766
18565	-0.00318763
18574.3	-0.0035744
18583.6	-0.00396766
18593	-0.00436709
18602.3	-0.00477237
18611.6	-0.00518317
18621	-0.00559915
18630.3	-0.00601997
18648.9	-0.0068747
18658.3	-0.0073079
18667.6	-0.00774451
18676.9	-0.00818414
18686.3	-0.00862644
18695.6	-0.00907101
18704.9	-0.00951747
18714.2	-0.00996544
18723.6	-0.0104145
18732.9	-0.0108643
18742.2	-0.0113144
18751.6	-0.0117645
18760.9	-0.0122141
18770.2	-0.0126628
18788.9	-0.0135559
18798.2	-0.0139995
18807.5	-0.0144407
18816.9	-0.014879
18826.2	-0.0153139
18835.5	-0.0157452
18844.9	-0.0161723
18854.2	-0.016595
18863.5	-0.0170128
18872.8	-0.0174253
18882.2	-0.0178322
18891.5	-0.0182329
18900.8	-0.0186273
18910.2	-0.0190149
18928.8	-0.0197681
18938.1	-0.020133
18947.5	-0.0204897
18956.8	-0.0208378
18966.1	-0.021177
18975.5	-0.0215069
18984.8	-0.0218272
18994.1	-0.0221376
19003.4	-0.0224378
19012.8	-0.0227275
19022.1	-0.0230064
19031.4	-0.0232742
19040.8	-0.0235307
19050.1	-0.0237756
19068.7	-0.0242295
19078.1	-0.0244381
19087.4	-0.0246341
19096.7	-0.0248174
19106.1	-0.0249878
19115.4	-0.0251451
19124.7	-0.025289
19134.1	-0.0254196
19143.4	-0.0255365
19152.7	-0.0256397
19162	-0.0257291
19171.4	-0.0258046
19180.7	-0.025866
19190	-0.0259132
19208.7	-0.0259652
19218	-0.0259697
19227.3	-0.02596
19236.7	-0.0259359
19246	-0.0258975
19255.3	-0.0258448
19264.7	-0.0257778
19274	-0.0256966
19283.3	-0.0256011
19292.6	-0.0254915
19302	-0.0253679
19311.3	-0.0252303
19320.6	-0.0250788
19339.3	-0.0247346
19348.6	-0.0245423
19358	-0.0243365
19367.3	-0.0241176
19376.6	-0.0238857
19385.9	-0.023641
19395.3	-0.0233837
19404.6	-0.0231139
19413.9	-0.0228319
19423.3	-0.022538
19432.6	-0.0222323
19441.9	-0.0219151
19451.2	-0.0215866
19460.6	-0.0212472
19479.2	-0.0205365
19488.6	-0.0201658
19497.9	-0.0197853
19507.2	-0.0193952
19516.5	-0.0189959
19525.9	-0.0185877
19535.2	-0.0181709
19544.5	-0.0177458
19553.9	-0.0173128
19563.2	-0.0168722
19572.5	-0.0164243
19581.9	-0.0159695
19591.2	-0.0155082
19600.5	-0.0150406
19619.2	-0.0140883
19628.5	-0.0136043
19637.8	-0.0131155
19647.2	-0.0126223
19656.5	-0.012125
19665.8	-0.0116241
19675.1	-0.0111198
19684.5	-0.0106126
19693.8	-0.0101028
19703.1	-0.00959072
19712.5	-0.00907681
19721.8	-0.00856139
19731.1	-0.00804482
19740.4	-0.00752745
19759.1	-0.00649173
19768.4	-0.00597407
19777.8	-0.005457
19787.1	-0.00494087
19796.4	-0.004426
19805.8	-0.00391272
19815.1	-0.00340137
19824.4	-0.00289225
19833.7	-0.00238568
19843.1	-0.00188198
19852.4	-0.00138144
19861.7	-0.000884354
19871.1	-0.000391023
19880.4	9.82737e-05
19899	0.00106366
19908.4	0.00153922
19917.7	0.00200967
19927	0.00247478
19936.4	0.00293429
19945.7	0.00338798
19955	0.00383562
19964.3	0.00427698
19973.7	0.00471187
19983	0.00514007
19992.3	0.0055614
