0	0
26.5779	0
53.1558	0
79.7337	0
106.312	0
132.889	0
159.467	0
186.045	0
212.623	0
239.201	0
265.779	0
292.357	0
318.935	0
345.513	0
372.091	0
398.668	0
425.246	0
451.824	0
478.402	0
504.98	0
531.558	0
558.136	0
584.714	0
611.292	0
637.869	0
664.447	0
691.025	0
717.603	0
744.181	0
770.759	0
797.337	0
823.915	0
850.493	0
877.07	0
903.648	0
930.226	0
956.804	0
983.382	0
1009.96	0
1036.54	0
1063.12	0
1089.69	0
1116.27	0
1142.85	0
1169.43	0
1196.01	0
1222.58	0
1249.16	0
1275.74	0
1302.32	0
1328.89	0
1355.47	0
1382.05	0
1408.63	0
1435.21	0
1461.78	0
1488.36	0
1514.94	0
1541.52	0
1568.1	0
1594.67	0
1621.25	0
1647.83	0
1674.41	0
1700.99	0
1727.56	0
1754.14	0
1780.72	0
1807.3	0
1833.87	0
1860.45	0
1887.03	0
1913.61	0
1940.19	1.81899e-12
1966.76	6.36646e-12
1993.34	1.54614e-11
2019.92	3.72893e-11
2046.5	8.54925e-11
2073.07	1.87356e-10
2099.65	3.94721e-10
2126.23	8.03084e-10
2152.81	1.58434e-09
2179.38	3.03589e-09
2205.96	5.6607e-09
2232.54	1.02846e-08
2259.11	1.82299e-08
2285.69	3.1564e-08
2312.27	5.34455e-08
2338.85	8.85912e-08
2365.42	1.43896e-07
2392	2.29235e-07
2418.58	3.58476e-07
2445.15	5.50727e-07
2471.73	8.31841e-07
2498.31	1.23618e-06
2524.88	1.80865e-06
2551.46	2.607e-06
2578.04	3.70429e-06
2604.62	5.19164e-06
2631.19	7.18097e-06
2657.77	9.808e-06
2684.35	1.32351e-05
2710.92	1.76542e-05
2737.5	2.329e-05
2764.07	3.0403e-05
2790.65	3.92927e-05
2817.23	5.03022e-05
2843.8	6.38235e-05
2870.38	8.03047e-05
2896.96	0.000100261
2923.53	0.000124288
2950.11	0.000153085
2976.69	0.000187483
3003.26	0.000228486
3029.84	0.000277325
3056.42	0.00033553
3082.99	0.000405025
3109.57	0.000488242
3136.15	0.000588269
3162.73	0.00070903
3189.3	0.000855489
3215.88	0.0010339
3242.46	0.00125209
3269.03	0.00151975
3295.61	0.00184879
3322.19	0.00225367
3348.77	0.00275175
3375.34	0.00336365
3401.92	0.00411351
3428.5	0.00502931
3455.08	0.00614293
3481.65	0.00749032
3508.23	0.00911134
3534.81	0.0110496
3561.39	0.0133519
3587.97	0.0160678
3614.54	0.0192486
3641.12	0.0229463
3667.7	0.0272126
3694.28	0.0320969
3720.86	0.037645
3747.43	0.0438973
3774.01	0.0508868
3800.59	0.0586372
3827.17	0.0671611
3853.74	0.076458
3880.32	0.0865129
3906.9	0.0972951
3933.48	0.108757
3960.06	0.120832
3986.63	0.133439
4013.21	0.146475
4039.79	0.159823
4066.37	0.173351
4092.94	0.18691
4119.52	0.200342
4146.1	0.213479
4172.68	0.226147
4199.26	0.238168
4225.83	0.249366
4252.41	0.259568
4278.99	0.268609
4305.57	0.276334
4332.14	0.282603
4358.72	0.287293
4385.3	0.2903
4411.88	0.291541
4438.46	0.290958
4465.03	0.288516
4491.61	0.284208
4518.19	0.278049
4544.77	0.270081
4571.34	0.260368
4597.92	0.248999
4624.5	0.236082
4651.08	0.221744
4677.66	0.206127
4704.23	0.189389
4730.81	0.171696
4757.39	0.153221
4783.97	0.134144
4810.54	0.114645
4837.12	0.0949027
4863.7	0.0750926
4890.28	0.0553833
4916.86	0.0359349
4943.43	0.0168974
4970.01	-0.00159163
4996.59	-0.0194079
5023.17	-0.0364414
5049.74	-0.0525972
5076.32	-0.067796
5102.9	-0.0819738
5129.48	-0.0950819
5156.06	-0.107087
5182.63	-0.117968
5209.21	-0.12772
5235.79	-0.13635
5262.37	-0.143874
5288.94	-0.15032
5315.52	-0.155724
5342.1	-0.160131
5368.68	-0.16359
5395.26	-0.166157
5421.83	-0.167891
5448.41	-0.168852
5474.99	-0.169103
5501.57	-0.168708
5528.14	-0.167729
5554.72	-0.166228
5581.3	-0.164264
5607.88	-0.161894
5634.46	-0.159171
5661.03	-0.156147
5687.61	-0.152867
5714.19	-0.149375
5740.77	-0.145709
5767.34	-0.141904
5793.92	-0.137992
5820.5	-0.133999
5847.08	-0.129949
5873.66	-0.125862
5900.23	-0.121756
5926.81	-0.117645
5953.39	-0.11354
5979.97	-0.10945
6006.55	-0.105384
6033.12	-0.101347
6059.7	-0.0973436
6086.28	-0.0933767
6112.86	-0.0894488
6139.43	-0.0855617
6166.01	-0.0817166
6192.59	-0.0779146
6219.17	-0.0741564
6245.75	-0.0704429
6272.32	-0.0667751
6298.9	-0.0631539
6325.48	-0.0595808
6352.06	-0.0560572
6378.63	-0.0525849
6405.21	-0.0491657
6431.79	-0.045802
6458.37	-0.0424959
6484.95	-0.03925
6511.52	-0.0360667
6538.1	-0.0329484
6564.68	-0.0298976
6591.26	-0.0269165
6617.84	-0.0240073
6644.41	-0.0211718
6670.99	-0.0184117
6697.57	-0.0157281
6724.15	-0.0131221
6750.72	-0.0105941
6777.3	-0.00814437
6803.88	-0.0057727
6830.46	-0.00347851
6857.04	-0.00126084
6883.61	0.00088155
6910.19	0.00295025
6936.77	0.00494708
6963.35	0.00687409
6989.92	0.00873349
7016.5	0.0105276
7043.08	0.0122588
7069.66	0.0139295
7096.24	0.0155419
7122.81	0.0170984
7149.39	0.018601
7175.97	0.0200514
7202.55	0.0214514
7229.12	0.0228023
7255.7	0.0241049
7282.28	0.0253601
7308.86	0.026568
7335.44	0.0277287
7362.01	0.0288416
7388.59	0.029906
7415.17	0.0309207
7441.75	0.0318842
7468.33	0.0327946
7494.9	0.0336498
7521.48	0.0344476
7548.06	0.0351851
7574.64	0.0358598
7601.21	0.0364687
7627.79	0.0370088
7654.37	0.0374771
7680.95	0.0378705
7707.53	0.038186
7734.1	0.0384209
7760.68	0.0385722
7787.26	0.0386375
7813.84	0.0386145
7840.41	0.0385009
7866.99	0.038295
7893.57	0.0379953
7920.15	0.0376007
7946.72	0.0371103
7973.3	0.0365237
7999.88	0.0358409
8026.46	0.0350622
8053.04	0.0341884
8079.61	0.0332206
8106.19	0.0321604
8132.77	0.0310097
8159.35	0.0297708
8185.92	0.0284464
8212.5	0.0270395
8239.08	0.0255535
8265.66	0.023992
8292.24	0.0223591
8318.81	0.0206588
8345.39	0.0188958
8371.97	0.0170747
8398.55	0.0152004
8425.12	0.013278
8451.7	0.0113126
8478.28	0.00930969
8504.86	0.0072746
8531.44	0.00521286
8558.01	0.00313003
8584.59	0.00103167
8611.17	-0.00107662
8637.75	-0.00318929
8664.32	-0.00530081
8690.9	-0.00740573
8717.48	-0.00949864
8744.06	-0.0115743
8770.64	-0.0136274
8797.21	-0.0156531
8823.79	-0.0176463
8850.37	-0.0196023
8876.95	-0.0215166
8903.52	-0.0233847
8930.1	-0.0252025
8956.68	-0.0269659
8983.26	-0.0286712
9009.84	-0.0303147
9036.41	-0.0318932
9062.99	-0.0334035
9089.57	-0.0348428
9116.15	-0.0362085
9142.73	-0.0374981
9169.3	-0.0387095
9195.88	-0.039841
9222.46	-0.0408907
9249.04	-0.0418574
9275.61	-0.0427399
9302.19	-0.0435373
9328.77	-0.0442491
9355.35	-0.0448746
9381.93	-0.0454138
9408.5	-0.0458667
9435.08	-0.0462336
9461.66	-0.0465149
9488.24	-0.0467113
9514.81	-0.0468235
9541.39	-0.0468527
9567.97	-0.0468
9594.55	-0.0466668
9621.13	-0.0464546
9647.7	-0.0461649
9674.28	-0.0457996
9700.86	-0.0453606
9727.44	-0.0448498
9754.02	-0.0442692
9780.59	-0.043621
9807.17	-0.0429075
9833.75	-0.042131
9860.33	-0.0412936
9886.91	-0.040398
9913.48	-0.0394463
9940.06	-0.0384412
9966.64	-0.037385
9993.22	-0.0362803
10019.8	-0.0351295
10046.4	-0.0339352
10073	-0.0326998
10099.5	-0.0314258
10126.1	-0.0301158
10152.7	-0.0287723
10179.3	-0.0273977
10205.8	-0.0259945
10232.4	-0.0245652
10259	-0.0231123
10285.6	-0.0216382
10312.2	-0.0201453
10338.7	-0.0186362
10365.3	-0.0171132
10391.9	-0.0155787
10418.5	-0.0140351
10445	-0.012485
10471.6	-0.0109306
10498.2	-0.00937442
10524.8	-0.00781878
10551.4	-0.00626608
10577.9	-0.00471871
10604.5	-0.00317902
10631.1	-0.00164938
10657.7	-0.000132135
10684.2	0.00137039
10710.8	0.00285588
10737.4	0.00432204
10764	0.0057666
10790.6	0.00718731
10817.1	0.00858196
10843.7	0.00994837
10870.3	0.0112844
10896.9	0.012588
10923.4	0.013857
10950	0.0150895
10976.6	0.0162836
11003.2	0.0174374
11029.8	0.0185491
11056.3	0.019617
11082.9	0.0206395
11109.5	0.021615
11136.1	0.0225421
11162.6	0.0234194
11189.2	0.0242457
11215.8	0.0250199
11242.4	0.0257409
11269	0.0264078
11295.5	0.0270199
11322.1	0.0275765
11348.7	0.028077
11375.3	0.028521
11401.8	0.0289082
11428.4	0.0292385
11455	0.0295119
11481.6	0.0297283
11508.2	0.0298881
11534.7	0.0299916
11561.3	0.0300393
11587.9	0.0300316
11614.5	0.0299694
11641	0.0298533
11667.6	0.0296844
11694.2	0.0294635
11720.8	0.0291918
11747.4	0.0288705
11773.9	0.0285008
11800.5	0.028084
11827.1	0.0276214
11853.7	0.0271147
11880.2	0.0265652
11906.8	0.0259744
11933.4	0.025344
11960	0.0246756
11986.6	0.0239708
