0	0
37.5737	0
75.1473	0
112.721	0
150.295	0
187.868	0
225.442	0
263.016	0
300.589	0
338.163	0
375.737	0
413.31	0
450.884	0
488.458	0
526.031	0
563.605	0
601.179	0
638.752	0
676.326	0
713.9	0
751.473	0
789.047	0
826.621	0
864.194	0
901.768	0
939.342	0
976.915	0
1014.49	0
1052.06	0
1089.64	0
1127.21	0
1164.78	0
1202.36	0
1239.93	0
1277.5	0
1315.08	0
1352.65	0
1390.23	0
1427.8	0
1465.37	0
1502.95	0
1540.52	0
1578.09	0
1615.67	0
1653.24	0
1690.82	9.09495e-13
1728.39	2.72848e-12
1765.96	8.18545e-12
1803.54	2.54659e-11
1841.11	7.27596e-11
1878.68	1.94632e-10
1916.26	4.8567e-10
1953.83	1.14323e-09
1991.4	2.55295e-09
2028.98	5.42968e-09
2066.55	1.10522e-08
2104.13	2.16151e-08
2141.7	4.07517e-08
2179.27	7.4293e-08
2216.85	1.31325e-07
2254.42	2.25641e-07
2291.99	3.77728e-07
2329.57	6.17432e-07
2367.14	9.87611e-07
2404.71	1.54913e-06
2442.29	2.38789e-06
2479.86	3.62478e-06
2517.44	5.42999e-06
2555.01	8.0438e-06
2592.58	1.18065e-05
2630.16	1.72012e-05
2667.73	2.49142e-05
2705.3	3.59193e-05
2742.88	5.15905e-05
2780.45	7.38536e-05
2818.02	0.00010538
2855.6	0.000149833
2893.17	0.000212166
2930.74	0.000298982
2968.31	0.000418946
3005.89	0.000583241
3043.46	0.000806063
3081.03	0.00110513
3118.61	0.00150215
3156.18	0.00202329
3193.75	0.0026995
3231.32	0.00356668
3268.9	0.00466574
3306.47	0.00604234
3344.04	0.00774637
3381.61	0.0098311
3419.19	0.0123521
3456.76	0.0153654
3494.33	0.0189262
3531.9	0.0230861
3569.48	0.027891
3607.05	0.0333785
3644.62	0.0395752
3682.19	0.0464938
3719.77	0.0541314
3757.34	0.0624661
3794.91	0.0714566
3832.48	0.0810397
3870.06	0.0911305
3907.63	0.101622
3945.2	0.112387
3982.78	0.123279
4020.35	0.134132
4057.92	0.14477
4095.5	0.155005
4133.07	0.164643
4170.64	0.173492
4208.22	0.18136
4245.79	0.188068
4283.36	0.19345
4320.94	0.197357
4358.51	0.199665
4396.09	0.200277
4433.66	0.199125
4471.23	0.19617
4508.81	0.191411
4546.38	0.184874
4583.95	0.176622
4621.53	0.166746
4659.1	0.155366
4696.67	0.142628
4734.25	0.128699
4771.82	0.113763
4809.39	0.0980171
4846.97	0.0816685
4884.54	0.0649266
4922.12	0.0480008
4959.69	0.0310954
4997.26	0.014406
5034.84	-0.00188422
5072.41	-0.0176073
5109.98	-0.0326129
5147.56	-0.0467703
5185.13	-0.0599694
5222.7	-0.0721215
5260.28	-0.0831594
5297.85	-0.0930369
5335.42	-0.101728
5373	-0.109226
5410.57	-0.11554
5448.14	-0.120698
5485.72	-0.124738
5523.29	-0.127711
5560.87	-0.129679
5598.44	-0.130709
5636.01	-0.130874
5673.59	-0.130252
5711.16	-0.128921
5748.73	-0.12696
5786.31	-0.124447
5823.88	-0.121458
5861.45	-0.118065
5899.03	-0.114337
5936.6	-0.110337
5974.17	-0.106124
6011.75	-0.101752
6049.32	-0.0972692
6086.9	-0.0927193
6124.47	-0.0881399
6162.04	-0.0835641
6199.62	-0.0790201
6237.19	-0.0745318
6274.76	-0.0701189
6312.34	-0.0657973
6349.91	-0.0615797
6387.48	-0.0574754
6425.06	-0.0534913
6462.63	-0.0496317
6500.2	-0.0458988
6537.78	-0.0422931
6575.35	-0.0388134
6612.93	-0.0354574
6650.5	-0.0322215
6688.07	-0.0291015
6725.65	-0.0260924
6763.22	-0.0231888
6800.79	-0.020385
6838.37	-0.0176752
6875.94	-0.0150533
6913.51	-0.0125138
6951.09	-0.010051
6988.66	-0.00765995
7026.24	-0.00533579
7063.81	-0.0030744
7101.38	-0.000872179
7138.96	0.00127377
7176.53	0.00336568
7214.1	0.00540501
7251.68	0.0073925
7289.25	0.0093281
7326.82	0.011211
7364.4	0.0130397
7401.97	0.014812
7439.55	0.016525
7477.12	0.0181753
7514.69	0.0197587
7552.27	0.021271
7589.84	0.0227073
7627.41	0.0240625
7664.99	0.0253314
7702.56	0.0265087
7740.13	0.027589
7777.71	0.0285671
7815.28	0.0294381
7852.85	0.0301973
7890.43	0.0308405
7928	0.0313638
7965.57	0.0317641
8003.15	0.0320387
8040.72	0.0321857
8078.29	0.0322039
8115.87	0.0320929
8153.44	0.0318529
8191.01	0.0314852
8228.59	0.0309917
8266.16	0.0303752
8303.74	0.0296391
8341.31	0.0287877
8378.88	0.027826
8416.46	0.0267596
8454.03	0.0255949
8491.6	0.0243385
8529.18	0.0229979
8566.75	0.0215807
8604.32	0.020095
8641.9	0.0185492
8679.47	0.0169519
8717.04	0.0153116
8754.62	0.0136372
8792.19	0.0119375
8829.76	0.0102209
8867.34	0.00849618
8904.91	0.0067715
8942.48	0.00505493
8980.06	0.00335421
9017.63	0.00167673
9055.21	2.94764e-05
9092.78	-0.00158097
9130.35	-0.00314849
9167.93	-0.00466743
9205.5	-0.00613261
9243.07	-0.00753937
9280.65	-0.00888353
9318.22	-0.0101614
9355.79	-0.0113698
9393.37	-0.0125061
9430.94	-0.013568
9468.52	-0.0145537
9506.09	-0.015462
9543.66	-0.016292
9581.24	-0.0170431
9618.81	-0.0177152
9656.38	-0.0183087
9693.96	-0.0188241
9731.53	-0.0192623
9769.1	-0.0196245
9806.68	-0.0199121
9844.25	-0.0201269
9881.83	-0.0202708
9919.4	-0.0203458
9956.97	-0.0203544
9994.55	-0.0202988
10032.1	-0.0201819
10069.7	-0.0200062
10107.3	-0.0197745
10144.8	-0.0194899
10182.4	-0.0191553
10220	-0.0187737
10257.6	-0.0183483
10295.1	-0.0178823
10332.7	-0.0173786
10370.3	-0.0168407
10407.9	-0.0162716
10445.4	-0.0156746
10483	-0.0150528
10520.6	-0.0144094
10558.2	-0.0137475
10595.7	-0.0130703
10633.3	-0.0123807
10670.9	-0.0116819
10708.4	-0.0109768
10746	-0.0102684
10783.6	-0.00955935
10821.2	-0.00885257
10858.7	-0.00815076
10896.3	-0.00745653
10933.9	-0.00677245
10971.5	-0.00610097
11009	-0.00544448
11046.6	-0.00480524
11084.2	-0.00418543
11121.8	-0.00358712
11159.3	-0.00301229
11196.9	-0.00246277
11234.5	-0.0019403
11272	-0.0014465
11309.6	-0.00098286
11347.2	-0.000550735
11384.8	-0.000151363
11422.3	0.000214154
11459.9	0.000544852
11497.5	0.000839899
11535.1	0.00109861
11572.6	0.00132042
11610.2	0.00150493
11647.8	0.00165186
11685.4	0.00176108
11722.9	0.0018326
11760.5	0.00186656
11798.1	0.00186324
11835.7	0.00182306
11873.2	0.00174654
11910.8	0.00163437
11948.4	0.00148732
11985.9	0.0013063
