0	4.00178e-11	361780
39.4643	8.12906e-09	418436
75.8358	4.64615e-08	446708
112.421	1.45024e-07	464684
148.008	3.38908e-07	479754
183.487	6.85664e-07	493154
221.47	1.31885e-06	505426
258.095	2.37139e-06	517326
295.608	4.21061e-06	529848
331.304	7.05638e-06	541892
367	1.14149e-05	554762
400.841	2.26998e-05	568910
435.607	3.5135e-05	583482
469.547	4.76575e-05	596928
503.254	6.26897e-05	610362
536.443	8.31407e-05	623984
567.836	0.000109073	637372
600.181	0.000143758	651568
630.666	0.000184901	665526
661.17	0.000234714	679854
690.762	0.000266903	693970
721.25	0.000339574	708146
752.634	0.000454126	723622
781.327	0.000512737	737820
810.02	0.00058034	752602
839.609	0.000694168	768488
868.3	0.000867776	783936
895.309	0.00107871	798030
923.638	0.00130222	814204
951.897	0.00154327	830102
979.243	0.00205397	845868
1004.93	0.00314559	860698
1031.56	0.00508916	876380
1059.11	0.00687903	893016
1085.73	0.00817496	910164
1111.37	0.0102791	926880
1136.56	0.0139304	943682
1160.77	0.0185458	960088
1184.09	0.0252362	975694
1206.51	0.0308805	990989
1228.03	0.0407365	1006287
1249.55	0.0580195	1021163
1271.07	0.0806265	1035767
1293.49	0.105484	1050455
1316.1	0.148904	1064747
1339.9	0.204897	1079425
1362.78	0.276899	1093613
1385.43	0.340475	1107299
1408.75	0.400568	1121833
1429.38	0.454246	1134837
1450.01	0.515666	1147797
1470.63	0.59168	1160729
1492.16	0.726963	1173671
1512.78	0.93848	1186171
1533.41	1.22386	1198589
1553.14	1.60048	1208859
1573.76	2.11561	1218391
1593.49	2.69864	1227813
1613.22	3.30381	1237207
1633.85	3.86245	1247103
1653.58	4.24272	1257329
1674.2	4.43411	1267411
1693.93	4.42098	1276927
1714.56	4.23149	1287369
1735.18	3.90201	1297027
1755.81	3.47107	1306951
1774.64	3.01615	1315563
1794.38	2.49545	1324879
1813.42	1.96323	1334427
1832.85	1.40136	1343837
1852.3	0.834022	1353299
1871.51	0.27622	1361573
1890.62	-0.281891	1369651
1910.61	-0.88907	1377351
1930.33	-1.52849	1384955
1950.94	-2.23086	1392367
1970.66	-2.89616	1400136
1989.49	-3.47623	1407558
2008.34	-3.96062	1413932
2027.24	-4.32152	1420060
2046.45	-4.55005	1427360
2065.9	-4.64653	1435534
2086.44	-4.62358	1444532
2106.14	-4.50427	1452958
2125.86	-4.29879	1461264
2145.59	-3.99828	1468258
2165.21	-3.59227	1475266
2183.79	-3.11317	1481948
2203.3	-2.5456	1489650
2222.78	-1.97163	1496170
2241.35	-1.47306	1501662
2260.83	-1.03918	1508278
2279.37	-0.718853	1512844
2297.04	-0.486404	1517176
2315.64	-0.299232	1522106
2334.24	-0.154655	1528112
2352.93	-0.0408804	1532992
2371.66	0.0496149	1538814
2390.37	0.125417	1543643
2409.26	0.197212	1549228
2427.98	0.270509	1554616
2446.64	0.347897	1559974
2465.47	0.426786	1565512
2485.18	0.502068	1572646
2503.89	0.560384	1579218
2522.49	0.603749	1585578
2541.04	0.633329	1592560
2559.64	0.647503	1598947
2577.47	0.650146	1606181
2595.13	0.642765	1613430
2612.79	0.625858	1619378
2631.39	0.598732	1626424
2648.09	0.566661	1632868
2666.71	0.523754	1639620
2684.37	0.477444	1647169
2702.03	0.427244	1653267
2719.75	0.374162	1660330
2737.42	0.320156	1665790
2756.06	0.263613	1671557
2773.77	0.211578	1677447
2791.45	0.16239	1683619
2809.16	0.116658	1689089
2826.74	0.0752505	1695501
2844.14	0.0381887	1702124
2861.45	0.00513872	1706994
2878.73	-0.0242841	1713690
2895.98	-0.0502947	1719523
2913.23	-0.0730142	1726609
2930.49	-0.0924198	1733334
2947.74	-0.108512	1740874
2964.99	-0.121543	1747740
2982.25	-0.130361	1754939
2999.66	-0.132236	1761483
3016.26	-0.130353	1768839
3032.85	-0.125695	1776137
3050.37	-0.119545	1784235
3067.89	-0.112821	1791583
3084.54	-0.107485	1798804
3101.29	-0.102894	1805670
3119.23	-0.0993921	1813170
3136.26	-0.0974417	1820347
3153.29	-0.0969065	1826865
3171.27	-0.0976562	1834524
3188.35	-0.0992008	1841559
3205.49	-0.101065	1848215
3222.69	-0.102828	1854718
3239.93	-0.104135	1861757
3257.2	-0.104741	1868173
3273.47	-0.104392	1873577
3290.71	-0.103462	1879131
3306.97	-0.101374	1884632
3323.34	-0.098535	1890113
3339.78	-0.0947548	1896113
3357.2	-0.0898603	1902316
3374.61	-0.0836049	1908323
3391.06	-0.0762706	1914090
3407.51	-0.0674356	1920306
3424.92	-0.0565302	1926319
3441.39	-0.0450384	1932145
3457.65	-0.0327346	1937487
3473.71	-0.0202337	1943011
3489.73	-0.00762533	1948657
3506.68	0.00527907	1955230
3523.52	0.0171576	1961742
3539.43	0.0273753	1968107
3556.27	0.0370297	1974898
3572.18	0.0450204	1980873
3589.04	0.0523519	1988157
3605.02	0.0583422	1994453
3621.13	0.0635757	2001207
3637.28	0.06816	2008629
3653.43	0.0722113	2015689
3668.63	0.0755946	2021400
3683.86	0.0785514	2027784
3700.01	0.0811459	2034977
3716.89	0.0831617	2042386
3732.85	0.0842674	2049485
3748.8	0.0844495	2057140
3764.67	0.0836063	2064996
3780.44	0.0817659	2072841
3796.2	0.078729	2080959
3811	0.0749119	2088642
3826.71	0.0698462	2096169
3842.43	0.0637018	2104008
3857.22	0.0571432	2110850
3872.95	0.0493132	2117430
3887.57	0.0412234	2123093
3903	0.0323101	2129038
3918.42	0.0230952	2134834
3932.86	0.0143013	2140512
3948.17	0.0048836	2146252
3962.58	-0.00390147	2151721
3976.97	-0.0124217	2156951
3992.2	-0.0209742	2162756
4006.52	-0.0284632	2167920
4021.75	-0.035745	2173087
4036.07	-0.0419205	2178045
4051.3	-0.0477325	2183242
4065.64	-0.0524966	2188084
4080.97	-0.0568196	2193551
4095.44	-0.0601586	2197851
4110.82	-0.0629206	2202930
4125.29	-0.0648121	2208172
4139.77	-0.0660223	2212495
4155.22	-0.0665646	2217338
4169.78	-0.0662687	2221942
4184.33	-0.0652921	2227319
4198.88	-0.0638128	2232155
4213.44	-0.0619117	2237963
4228	-0.0596686	2243201
4242.56	-0.0571823	2248586
4257.12	-0.0545133	2254351
4271.74	-0.0516772	2260510
4286.33	-0.0487114	2266826
4300.91	-0.0455996	2272444
4315.49	-0.0422967	2278295
4330.08	-0.0387985	2284432
4344.63	-0.0348756	2290305
4359.12	-0.0305121	2296554
4373.55	-0.0258257	2303338
4387.97	-0.0208082	2309522
4401.48	-0.0155924	2315469
4415.89	-0.00728143	2321022
4430.29	0.00126013	2326384
4443.79	0.00889256	2332540
4457.29	0.0174081	2337568
4470.8	0.0256777	2342857
4484.3	0.0345056	2347770
4498.71	0.0444518	2353760
4512.25	0.0545071	2358682
4525.75	0.0652394	2363774
4540.11	0.0774389	2368373
4553.57	0.089632	2372615
4567.03	0.102463	2376802
4581.38	0.116739	2381187
4594.84	0.130563	2385613
4608.3	0.144693	2390134
4621.76	0.159016	2394712
4635.24	0.173444	2398752
4648.72	0.187849	2403680
4662.2	0.202126	2407698
4676.58	0.217106	2413147
4689.16	0.229897	2417210
4702.68	0.243186	2421403
4716.24	0.255865	2425647
4729.79	0.267683	2430142
4743.32	0.278439	2434293
4755.95	0.287354	2437318
4769.49	0.295547	2441125
4783.02	0.302218	2445411
4796.56	0.307295	2450423
4810.09	0.310744	2455493
4823.63	0.312563	2461386
4836.27	0.312829	2466804
4849.81	0.311638	2472224
4863.36	0.308861	2477131
4876.13	0.304766	2481131
4889.84	0.298887	2486251
4902.64	0.29201	2490512
4916.35	0.283154	2494896
4929.17	0.273507	2499385
4942.91	0.261705	2504440
4955.75	0.249342	2508869
4969.5	0.234699	2513829
4982.34	0.219794	2517816
4996.09	0.202611	2522732
5008.92	0.185575	2527198
5022.68	0.16639	2532267
5035.51	0.147689	2536806
5049.27	0.126823	2542243
5062.13	0.106315	2546616
5074.99	0.0802006	2550638
5088.94	0.051523	2555375
5101.98	0.0257815	2559329
5115.95	-0.000324597	2563839
5129.04	-0.0238112	2568499
5143.21	-0.0496743	2572682
5156.48	-0.0728313	2577562
5169.78	-0.0957622	2581684
5183.93	-0.118978	2586627
5197.12	-0.139636	2590876
5210.28	-0.159275	2595296
5224.21	-0.178643	2599694
5237.22	-0.195378	2603443
5250.32	-0.210637	2606754
5263.47	-0.224307	2609884
5277.56	-0.236926	2612681
5290.87	-0.246809	2616210
5304.21	-0.254973	2619148
5317.79	-0.259623	2622920
5330.3	-0.260608	2626194
5343.59	-0.259679	2629730
5357.87	-0.258514	2633146
5371.21	-0.255789	2636275
5384.26	-0.251821	2639099
5397.95	-0.246228	2642244
5412.02	-0.239037	2646062
5425.2	-0.231114	2649313
5438.46	-0.217628	2652774
5451.59	-0.20236	2655956
5465	-0.187745	2659899
5479.33	-0.170696	2664251
5492.75	-0.153759	2669268
5505.89	-0.136571	2673845
5519.21	-0.113181	2677481
5533.54	-0.0849572	2681161
5547.87	-0.0579003	2684677
5561.9	-0.0321733	2688632
5575.79	-0.0074131	2692282
5589.57	0.0173007	2695422
5602.7	0.0397889	2698586
5616.65	0.0630949	2702116
5630.16	0.0845086	2705546
5642.58	0.103028	2709071
5655.84	0.121502	2712445
5669.19	0.138393	2716568
5682.45	0.153511	2721125
5696.67	0.167653	2726097
5709.17	0.178264	2730095
5722.43	0.187642	2734306
5735.64	0.195474	2737838
5749.39	0.199453	2741664
5761.7	0.200873	2745085
5774.89	0.20142	2747421
5788.1	0.200607	2751541
5800.44	0.199215	2754501
5813.56	0.197108	2758558
5825.76	0.194542	2761422
5838.9	0.191129	2764139
5852.15	0.186807	2767212
5864.43	0.182132	2770881
5876.83	0.176752	2774366
5890.04	0.170316	2778969
5902.23	0.162701	2782308
5915.36	0.149848	2785892
5927.47	0.140732	2788414
5940.49	0.131786	2791832
5952.7	0.122329	2795169
5965.78	0.111775	2798654
5978.13	0.102009	2802429
5990.52	0.0921624	2806730
6003.93	0.0814294	2811775
6016.32	0.0716388	2816543
6029.9	0.0611275	2821543
6043.08	0.0513275	2826893
6056.01	0.0422283	2832977
6069.05	0.0335832	2838372
6082.45	0.025314	2843648
6094.84	0.0182597	2849130
6107.36	0.0117249	2854154
6119.88	0.0058136	2859843
6132.23	0.000646531	2866125
6144.6	-0.00383249	2872097
6157.3	-0.00765918	2878854
6169.7	-0.0105864	2885504
6182.04	-0.0128667	2893253
6194.36	-0.0133791	2900255
6206.68	-0.0140419	2907538
6219.06	-0.013875	2914313
6231.62	-0.0129405	2920921
6243.95	-0.0113819	2926383
6256.26	-0.00919911	2932831
6268.68	-0.0063918	2938480
6280.03	-0.0033313	2943584
6292.32	0.000468107	2948664
6304.75	0.00477122	2954803
6317.36	0.00958426	2959518
6329.81	0.0147409	2963064
6341.12	0.0197417	2966437
6353.56	0.0255349	2969777
6365.97	0.0315631	2973851
6377.3	0.0372316	2977517
6389.53	0.0434597	2981912
6401.73	0.0497111	2987535
6413.03	0.055461	2993382
6425.13	0.0614968	2999826
6436.4	0.066935	3006240
6448.6	0.0725579	3012168
6460.92	0.0779019	3018757
6472.5	0.0825669	3024293
6483.81	0.0867584	3030549
6495.92	0.0908067	3036506
6507.08	0.0941117	3040457
6518.26	0.0969886	3045832
6530.35	0.0995947	3051679
6541.64	0.101544	3056780
6553	0.103022	3061597
6565.12	0.104052	3067400
6576.57	0.104502	3072333
6588.14	0.104297	3077495
6599.98	0.102999	3083925
6611.59	0.101895	3089399
6624	0.10029	3095097
6635.94	0.0983377	3100627
6647.84	0.0959331	3105800
6659.68	0.0929472	3111185
6671.36	0.0895504	3117025
6683.16	0.0857364	3121745
6695.31	0.0813374	3127569
6707.47	0.0765125	3132063
6719.62	0.0713812	3137482
6731.77	0.0659815	3142600
6743.92	0.0603019	3148028
6756.08	0.0543537	3153518
6768.23	0.0481245	3158545
6780.38	0.0416125	3163392
6792.54	0.0347408	3168951
6804.69	0.0275576	3174297
6816.83	0.0202413	3180060
6828.93	0.0131697	3185735
6840.46	0.00478648	3192302
6851.83	-0.00378341	3197902
6862.39	-0.0109971	3202936
6873.94	-0.018447	3209522
6885.35	-0.0258542	3215649
6896.77	-0.0339845	3221414
6908.17	-0.0415759	3226706
6918.58	-0.0484243	3232148
6929.94	-0.0561086	3238046
6941.32	-0.0641434	3243294
6951.75	-0.0715406	3249304
6963.12	-0.0795324	3255135
6973.54	-0.0868434	3260936
6984.91	-0.094809	3267518
6996.33	-0.102732	3273499
7006.78	-0.109846	3279278
7018.26	-0.117486	3285598
7028.95	-0.124417	3290566
7040.48	-0.131634	3296131
7050.93	-0.13792	3300996
7062.32	-0.1445	3306128
7073.03	-0.150405	3311258
7084.6	-0.156455	3316626
7095.13	-0.161653	3321486
7106.69	-0.167024	3327927
7117.34	-0.171648	3333357
7128.96	-0.176323	3339542
7139.6	-0.180255	3345220
7150.27	-0.183849	3351210
7161.96	-0.187409	3357476
7172.61	-0.19095	3363202
7183.3	-0.193369	3368639
7193.84	-0.195425	3373103
7205.27	-0.19721	3378394
7215.89	-0.198494	3383347
7226.56	-0.199708	3388102
7237.23	-0.199889	3392611
7248.84	-0.199658	3397806
7259.42	-0.200062	3402281
7269.97	-0.199949	3406318
7280.31	-0.19936	3410273
7290.62	-0.198606	3413591
7301.95	-0.197525	3418495
7312.16	-0.196302	3423328
7322.37	-0.194915	3427795
7332.57	-0.193407	3432191
7342.79	-0.191785	3437005
7353.03	-0.190043	3441018
7363.24	-0.188202	3444750
7373.57	-0.186248	3448136
7383.8	-0.184237	3452024
7394.04	-0.182171	3455991
7404.3	-0.180065	3460274
7414.59	-0.177928	3464068
7424.9	-0.175786	3468037
7435.09	-0.173677	3472027
7445.3	-0.17159	3476158
7455.52	-0.169532	3480476
7465.84	-0.167495	3483803
7476.21	-0.165494	3487578
7486.47	-0.163563	3492447
7496.67	-0.161694	3496188
7506.96	-0.159861	3500881
7517.41	-0.158054	3504456
7527.96	-0.156285	3508975
7538.39	-0.154597	3512486
7547.68	-0.153148	3515588
7557.95	-0.151606	3520123
7568.44	-0.150103	3523919
7578.68	-0.148707	3527988
7589.14	-0.147359	3531322
7600.03	-0.14604	3535093
7609.82	-0.144931	3538552
7620.58	-0.143799	3542623
7631.31	-0.142763	3546085
7642.05	-0.141819	3549685
7652.93	-0.140959	3553415
7662.84	-0.140259	3556208
7673.74	-0.13958	3559412
7684.66	-0.138993	3562040
7695.72	-0.138491	3565631
7706.76	-0.13808	3569131
7716.8	-0.13778	3572977
7727.84	-0.137528	3577142
7738.88	-0.137355	3580763
7748.92	-0.137263	3584098
7759.96	-0.137235	3588215
7771	-0.137287	3592271
7782.04	-0.137419	3596873
7792.07	-0.137608	3600396
7803.11	-0.13789	3604827
7813.15	-0.138211	3608824
7823.97	-0.138621	3612534
7834.87	-0.139099	3617025
7844.77	-0.139587	3620199
7855.66	-0.140182	3624920
7866.56	-0.140837	3628774
7876.46	-0.141479	3632942
7887.25	-0.142227	3637793
7896.63	-0.142913	3641945
7906.95	-0.143701	3646707
7916.38	-0.144444	3650524
7926.7	-0.145276	3654969
7936.1	-0.146044	3659161
7946.52	-0.146898	3664585
7955.96	-0.147664	3669245
7966.7	-0.14852	3673819
7976.23	-0.149256	3677725
7986.79	-0.150036	3682279
7996.49	-0.150713	3686189
8007.28	-0.151406	3691221
8016.89	-0.151955	3695798
8027.33	-0.152469	3700655
8036.9	-0.152871	3704429
8047.26	-0.153268	3709031
8056.67	-0.153459	3713203
8066.1	-0.153432	3716549
8076.72	-0.15359	3721109
8086.31	-0.15325	3724859
8095.72	-0.152805	3728471
8105.56	-0.152232	3731129
8116.37	-0.151469	3735419
8126.07	-0.150638	3739001
8135.82	-0.14966	3743021
8145.65	-0.148537	3747842
8156.46	-0.147149	3751697
8166.37	-0.145737	3755027
8176.49	-0.144151	3759816
8186.45	-0.142445	3763874
8196.39	-0.140603	3767951
8207.06	-0.138473	3772289
8216.55	-0.13645	3776099
8226.12	-0.134296	3779213
8235.97	-0.131962	3782272
8245.53	-0.129588	3785781
8255.02	-0.127136	3789230
8265.4	-0.124351	3793277
8274.79	-0.121749	3798006
8284.22	-0.119069	3801832
8293.64	-0.116336	3806264
8303.07	-0.113557	3811046
8312.57	-0.110707	3815142
8322.08	-0.107885	3819246
8331.61	-0.104967	3824137
8341.19	-0.103507	3828799
8350.57	-0.100976	3832842
8360.89	-0.096923	3837331
8370.27	-0.0930989	3841041
8379.7	-0.0892787	3844463
8389.25	-0.0854363	3848244
8398.76	-0.0816269	3851735
8408.24	-0.0778493	3854654
8417.73	-0.0741009	3857250
8427.4	-0.0702995	3860255
8437.04	-0.0665126	3864122
8446.55	-0.0627555	3867148
8456.24	-0.0588874	3870770
8465.96	-0.054958	3874052
8475.66	-0.0509784	3877222
8485.3	-0.0469656	3880430
8494.86	-0.0429383	3883438
8504.44	-0.0388511	3885937
8514.07	-0.0346987	3888554
8523.87	-0.0304195	3891882
8533.55	-0.0261312	3894595
8543.21	-0.0217852	3897549
8552.81	-0.0173895	3900482
8562.33	-0.0129519	3904072
8570.94	-0.00885756	3906370
8580.52	-0.0042091	3909729
8590.01	0.000487637	3912374
8599.52	0.00529806	3915667
8609.2	0.0102989	3918555
8618.78	0.015358	3921642
8628.49	0.0205945	3925108
8637.07	0.0253158	3927782
8646.65	0.0306877	3931653
8656.07	0.0360762	3934350
8665.49	0.041561	3937445
8674.94	0.0471493	3940188
8683.45	0.0522515	3943219
8692.89	0.0579794	3946462
8702.41	0.0638141	3949581
8711.9	0.0696696	3952240
8721.49	0.0756143	3955021
8730.18	0.0810081	3957507
8739.87	0.0870172	3961441
8749.58	0.0930145	3963703
8759.22	0.098932	3966121
8767.93	0.104237	3967643
8777.73	0.110136	3970104
8787.6	0.115995	3972824
8797.25	0.121632	3975815
8805.9	0.126595	3978523
8815.42	0.131956	3980965
8825	0.137219	3983787
8834.65	0.142392	3986285
8843.22	0.146863	3988725
8852.56	0.151597	3990942
8861.84	0.15615	3993448
8870.19	0.160115	3995331
8879.47	0.164369	3997386
8888.75	0.168458	4000464
8897.21	0.172034	4002640
8906.97	0.175979	4005371
8915.35	0.179206	4007514
8924.82	0.182674	4009952
8934.37	0.185979	4012479
8942.9	0.188762	4015178
8952.22	0.19162	4017934
8961.49	0.194275	4020435
8969.92	0.196526	4022729
8979.22	0.198827	4024633
8988.49	0.200933	4026522
8996.84	0.202675	4028773
9006.12	0.204466	4030628
9014.47	0.205865	4032661
9023.76	0.20728	4034681
9032.12	0.208407	4036978
9041.41	0.209473	4040601
9050.74	0.210354	4043565
9059.13	0.211003	4046361
9068.49	0.211573	4049133
9076.98	0.211951	4051876
9086.47	0.212219	4054726
9094.94	0.21228	4058390
9104.36	0.212134	4062558
9112.85	0.211858	4066025
9122.25	0.211439	4070421
9130.6	0.210972	4074620
9139.99	0.210323	4078808
9148.5	0.209609	4083044
9157.96	0.208673	4087024
9166.47	0.207721	4090980
9175.92	0.206561	4096020
9184.43	0.205429	4100767
9192.93	0.204212	4104121
9202.25	0.202769	4109518
9210.65	0.201373	4112825
9220	0.199712	4117085
9228.45	0.198118	4120187
9236.97	0.196429	4123398
9246.44	0.19446	4127856
9254.94	0.192614	4131381
9263.41	0.190703	4134805
9272.74	0.188517	4138890
9281.11	0.186491	4141946
9289.49	0.184401	4144892
9298.87	0.181992	4147909
9307.32	0.179763	4150110
9316.72	0.177223	4152634
9325.09	0.174911	4156518
9333.45	0.172553	4158807
9341.84	0.170147	4162075
9351.17	0.167419	4164785
9359.58	0.16492	4168036
9368.01	0.162381	4170432
9377.39	0.159514	4174239
9385.86	0.156892	4175951
9394.44	0.15421	4178491
9403.92	0.15121	4180990
9412.43	0.148495	4183879
9420.93	0.145759	4186334
9429.39	0.143016	4188759
9438.77	0.139953	4191253
9447.22	0.137176	4192408
9455.64	0.134394	4193830
9463.99	0.131623	4195336
9473.28	0.128524	4196515
9481.87	0.125643	4197166
9490.41	0.122771	4198545
9498.94	0.119891	4200513
9508.34	0.116708	4202720
9516.69	0.113868	4203585
9525.04	0.111021	4205118
9533.39	0.108165	4206317
9542.69	0.104973	4207955
9551.18	0.102052	4209287
9559.53	0.0991685	4210669
9568.05	0.0962166	4211855
9576.53	0.0932724	4214180
9585.88	0.090011	4216186
9594.22	0.0870875	4217448
9602.57	0.0841526	4218759
9610.93	0.0812026	4219581
9620.22	0.0779081	4220180
9628.63	0.0749098	4221009
9637.04	0.0718992	4222871
9645.64	0.0688017	4223158
9654.2	0.0657065	4223868
9663.66	0.0622675	4224480
9672.03	0.0592058	4225038
9680.4	0.0561282	4225178
9688.76	0.053039	4226263
9697.12	0.0499347	4225784
9705.47	0.046815	4226038
9714.76	0.0433305	4226291
9723.16	0.040166	4226774
9731.62	0.0369633	4227552
9740.05	0.0337579	4228735
9748.5	0.0305355	4229080
9757.92	0.0269324	4229655
9766.3	0.0237214	4230083
9774.77	0.0204741	4230453
9783.19	0.01724	4230455
9791.57	0.0140245	4230107
9799.94	0.0108146	4229840
9809.35	0.00721727	4228784
9817.92	0.00395489	4228304
9826.41	0.000736378	4227897
9834.83	-0.00243543	4227092
9843.28	-0.00559258	4226871
9851.67	-0.00869739	4226599
9860.99	-0.0121056	4226784
9869.37	-0.0151285	4226946
9877.76	-0.0181089	4227201
9886.32	-0.0210982	4226529
9894.82	-0.0240078	4227466
9904.22	-0.0271539	4227977
9912.64	-0.0298958	4229531
9921.09	-0.0325711	4230421
9929.5	-0.0351553	4232758
9937.86	-0.0376401	4233414
9946.22	-0.040034	4235612
9955.53	-0.0425845	4236207
9963.91	-0.0447704	4237362
9972.45	-0.0468871	4239035
9980.97	-0.0488821	4240557
9989.38	-0.0507337	4243082
9997.72	-0.0524495	4244791
10007	-0.0542133	4247750
10015.3	-0.0556706	4249482
10023.7	-0.0570117	4251168
10032.2	-0.0582381	4251858
10040.7	-0.0593331	4253995
10049.1	-0.060296	4256660
10057.5	-0.061136	4258209
10066.9	-0.0619263	4260553
10075.3	-0.0625072	4261964
10083.8	-0.0629671	4263613
10092.3	-0.0633037	4265166
10100.7	-0.0635196	4267379
10109	-0.0636194	4268466
10117.3	-0.0636055	4269721
10125.7	-0.0634788	4271055
10135.2	-0.0632027	4272230
10143.7	-0.0628354	4274138
10152.1	-0.0623622	4275877
10160.4	-0.0617858	4277553
10168.8	-0.0611051	4279704
10177.3	-0.0603141	4281082
10185.7	-0.0594171	4283777
10194.2	-0.058413	4286937
10202.7	-0.0573067	4289336
10211.2	-0.0560966	4292910
10219.6	-0.0547927	4296032
10228	-0.0533825	4299747
10236.4	-0.0518629	4303309
10244.9	-0.0502156	4307389
10253.3	-0.0484628	4311071
10261.7	-0.0465955	4314539
10270.1	-0.0446254	4317635
10278.5	-0.0425423	4320524
10286.9	-0.0403497	4323609
10295.3	-0.0380509	4326507
10303.7	-0.0356453	4329018
10312.2	-0.0331382	4330965
10320.7	-0.0305035	4333044
10329.2	-0.027809	4334956
10337.7	-0.0250441	4337197
10346.2	-0.0222148	4340038
10354.7	-0.0193172	4341732
10363.2	-0.0163872	4342987
10371.6	-0.0134255	4345695
10380.1	-0.0104277	4347321
10388.6	-0.00741444	4350005
10397	-0.00438887	4353093
10405.4	-0.00135448	4355051
10413	0.00134728	4357335
10421.5	0.00439897	4359769
10430	0.0074358	4361999
10438.5	0.0104374	4364440
10447	0.0134073	4366660
10455.5	0.0163385	4368140
10464	0.019214	4371148
10472.3	0.0219936	4373557
10479.8	0.0244135	4375490
10488.1	0.0270724	4378207
10496.5	0.0296593	4381203
10504.9	0.0321884	4383396
10513.4	0.0346475	4386038
10521.9	0.0370106	4388910
10530.2	0.039252	4392579
10537.7	0.0411592	4396018
10546	0.043209	4399174
10554.4	0.0451587	4402699
10562.8	0.0470081	4405395
10571.1	0.048758	4408294
10579.6	0.0504271	4411682
10587	0.0518155	4415131
10595.5	0.0533024	4418410
10603.9	0.0546752	4423041
10612.2	0.0559536	4426314
10619.6	0.0570147	4429696
10628	0.0581238	4433700
10636.3	0.0591433	4436444
10644.7	0.0600735	4439409
10652.1	0.0608246	4442041
10660.5	0.0615858	4445048
10668.9	0.0622604	4446986
10677.3	0.0628506	4451141
10684.9	0.0633118	4453242
10693.5	0.0637516	4455521
10701.9	0.0641063	4458820
10709.5	0.0643628	4461316
10718	0.0645834	4464278
10726.5	0.0647334	4467272
10735	0.0648175	4469882
10742.5	0.0648364	4472840
10751	0.0647958	4475031
10759.7	0.0646857	4478092
10767.4	0.0645298	4481771
10775.9	0.0642936	4485641
10784.5	0.0639957	4488587
10792.1	0.0636819	4491535
10800.6	0.06328	4494579
10809	0.0628251	4497776
10816.6	0.0623752	4500323
10825	0.061815	4503261
10833.5	0.0611946	4506181
10841.1	0.0605891	4509030
10849.5	0.0598543	4512544
10856.9	0.0591522	4515207
10865.3	0.058301	4518534
10873.6	0.057385	4521317
10881	0.0565153	4523732
10889.5	0.0554585	4527176
10897.1	0.0544567	4529015
10905.5	0.0532688	4530805
10913.1	0.0521526	4532903
10921.5	0.0508337	4534498
10929.9	0.0494332	4537278
10937.5	0.0481118	4539810
10946	0.0465546	4542353
10953.4	0.0451078	4545775
10961.8	0.0434105	4548923
10969.3	0.0418325	4552228
10977.7	0.0399816	4554647
10985.1	0.038269	4557304
10993.5	0.0362697	4559004
11000.9	0.0344281	4561041
11009.4	0.0322713	4563550
11016.9	0.0302889	4564459
11025.3	0.0279913	4566231
11032.8	0.0258878	4567675
11041.3	0.0234566	4568519
11048.8	0.0212483	4568538
11057.3	0.0187102	4568679
11064.9	0.0163978	4569745
11073.4	0.0137693	4570429
11080.9	0.0114087	4571922
11089.3	0.00872033	4572991
11096.9	0.00629582	4573452
11105.3	0.00353164	4573845
11112.9	0.00104579	4574435
11121.3	-0.0017796	4574303
11128.9	-0.00432213	4575209
11137.4	-0.00721258	4576740
11145	-0.00978594	4577651
11152.7	-0.0123703	4579123
11161.1	-0.0152313	4580260
11168.6	-0.0177611	4580892
11177	-0.0205881	4581740
11184.6	-0.0230803	4582550
11193.1	-0.0258796	4584366
11200.6	-0.0283289	4584900
11209.1	-0.0310312	4586519
11216.6	-0.0334003	4588315
11225.1	-0.0360434	4590034
11232.6	-0.038349	4591356
11241.1	-0.0408938	4592808
11248.6	-0.0431046	4594150
11257.1	-0.0455403	4594887
11264.7	-0.0476584	4595468
11273.2	-0.0499926	4594585
11280.7	-0.0520017	4594970
11289.3	-0.0542125	4594752
11296.8	-0.0561159	4594612
11305.4	-0.0581858	4594487
11312.9	-0.0599539	4594291
11321.3	-0.0618522	4594053
11328.7	-0.0634613	4594197
11336.9	-0.0651873	4594904
11344.2	-0.0666531	4596300
11351.5	-0.0680527	4598024
11359.7	-0.0695552	4599575
11366.9	-0.070826	4601103
11375.1	-0.0721822	4602978
11382.4	-0.0733218	4605268
11390.6	-0.0745293	4606500
11397.8	-0.0755358	4609017
11405.1	-0.0764794	4611119
11413.3	-0.0774652	4612861
11420.6	-0.0782743	4614253
11428.7	-0.0791086	4615608
11436	-0.0797829	4617002
11443.3	-0.0803939	4617784
11451.5	-0.0810059	4619287
11458.7	-0.0814832	4620640
11466.9	-0.0819454	4621285
11474.2	-0.0822904	4622764
11482.4	-0.082605	4624679
11489.6	-0.0828201	4626550
11496.9	-0.0829752	4630055
11505.1	-0.083079	4632392
11512.3	-0.0831095	4634468
11519.6	-0.083083	4636836
11527.8	-0.0829867	4638540
11535.1	-0.0828433	4640840
11543.3	-0.0826189	4643015
11550.5	-0.0823652	4645996
11557.8	-0.082062	4648300
11566	-0.081664	4650584
11573.2	-0.0812617	4652994
11580.5	-0.0808154	4655315
11588.7	-0.0802635	4658048
11596	-0.0797309	4660059
11603.2	-0.0791611	4662476
11611.4	-0.0784782	4664048
11618.7	-0.0778341	4665471
11626.1	-0.0771545	4666925
11634.5	-0.0763499	4669107
11641.9	-0.0756056	4669834
11649.3	-0.0748378	4671145
11657.7	-0.0739489	4671479
11665.1	-0.0731388	4672099
11672.6	-0.0723115	4672245
11680.1	-0.0714666	4673806
11688.6	-0.0704861	4674465
11696.2	-0.0696086	4675954
11703.7	-0.0686962	4677949
11711.3	-0.0675983	4678581
11719.7	-0.0665598	4680315
11727.3	-0.0657695	4682008
11734.9	-0.0649945	4683245
11743.5	-0.0640672	4685327
11751.2	-0.0631964	4686887
11758.8	-0.0623098	4689158
11766.5	-0.0614226	4691642
11775.1	-0.0604367	4694389
11782.8	-0.0595722	4696118
11790.5	-0.0587173	4698640
11798.1	-0.057871	4700905
11806.7	-0.0569311	4703147
11814.4	-0.056106	4705337
11822	-0.0552885	4707462
11830.6	-0.0543751	4709592
11838.3	-0.0535698	4711793
11845.9	-0.0527707	4713531
11853.6	-0.0519678	4715394
11862.1	-0.0510724	4715961
11869.7	-0.0502746	4716821
11877.3	-0.0494719	4717188
11884.9	-0.0486618	4717679
11892.5	-0.0478371	4717826
11901.2	-0.0468923	4718694
11908.8	-0.0460458	4719275
11916.5	-0.0451886	4720064
11924.1	-0.0443204	4720907
11932.5	-0.0433183	4721024
11940.1	-0.042406	4722010
11947.6	-0.0414775	4722972
11955.2	-0.0405272	4723962
11963.6	-0.0394619	4725352
11971.1	-0.0385095	4726846
11978.6	-0.0375484	4727756
11986.1	-0.0365728	4728773
11993.6	-0.0355781	4729608
12002.1	-0.0344327	4730561
12009.6	-0.0333883	4731367
12017.1	-0.0323158	4732484
12024.6	-0.0312214	4733072
12033	-0.0299533	4733128
12040.4	-0.0287923	4733483
12048	-0.027591	4734603
12055.6	-0.0263485	4735535
12063.1	-0.0250948	4736220
12071.6	-0.023653	4737567
12079.1	-0.0223471	4738129
12086.5	-0.0210231	4739151
12094.1	-0.0196546	4740032
12101.7	-0.0182687	4741797
12110.2	-0.0166793	4743603
12117.8	-0.0152256	4745113
12125.3	-0.0137567	4746961
12132.9	-0.0122769	4748696
12140.5	-0.0107606	4750503
12148	-0.00924562	4752185
12156.5	-0.00753426	4753523
12164	-0.00600015	4754855
12171.6	-0.0044578	4755665
12179.1	-0.00291302	4757038
12186.6	-0.00137094	4757780
12194.1	0.000167813	4758523
12201.6	0.00169984	4759402
12210.1	0.00341931	4759521
12217.7	0.00494255	4760237
12225.4	0.00645225	4760603
12233	0.00794413	4760061
12240.7	0.00941711	4759433
12248.3	0.0108471	4759167
12255.8	0.0122332	4759183
12264.2	0.0137509	4759674
12271.8	0.0150617	4759911
12279.3	0.0163364	4759840
12286.9	0.0175755	4759930
12294.5	0.0187851	4760119
12302.1	0.0199283	4760146
12309.7	0.0210256	4760490
12317.3	0.022071	4760829
12325.8	0.0231823	4762235
12333.4	0.0241066	4762323
12341	0.0249684	4763119
12348.5	0.0257649	4763858
12356.1	0.0264999	4764538
12363.7	0.0271761	4765893
12371.2	0.0277867	4767598
12378.8	0.0283309	4768155
12386.5	0.0288087	4769022
12395.1	0.0292655	4769575
12402.8	0.0295951	4769905
12410.4	0.029851	4770550
12418	0.0300343	4771423
12425.6	0.0301451	4771592
12433.2	0.0301842	4771826
12440.7	0.0301524	4772337
12448.2	0.0300502	4773360
12455.8	0.0298777	4775324
12463.4	0.0296313	4776570
12471.1	0.0293112	4778003
12479.7	0.0288636	4779908
12487.4	0.0283876	4781678
12495	0.0278371	4783037
12502.7	0.0272113	4784977
12510.3	0.0265219	4787188
12517.9	0.0257455	4788858
12525.6	0.0248878	4790946
12533.3	0.0239496	4793205
12540.9	0.0229293	4794909
12548.6	0.0218255	4796724
12556.3	0.0206367	4798856
12563.9	0.0193617	4800959
12571.6	0.0179991	4803346
12580.2	0.0163602	4806098
12587.9	0.014808	4808457
12595.6	0.0131653	4810206
12603.3	0.0114317	4812682
12610.9	0.00960708	4814791
12618.6	0.00769183	4817164
12626.3	0.00568701	4819451
12634	0.00359434	4822181
12641.6	0.00141625	4824235
12649.3	-0.000843148	4827169
12656.7	-0.00311371	4829483
12664.4	-0.00551407	4830699
12672.1	-0.00799311	4832018
12679.7	-0.010536	4833107
12687.4	-0.0131242	4834793
12694.9	-0.0157248	4834665
12702.4	-0.0183721	4835134
12710	-0.0210808	4835877
12718.6	-0.0242155	4836506
12726.3	-0.0270386	4836917
12733.9	-0.0298915	4837849
12740.4	-0.032329	4838144
12747.9	-0.0351333	4838716
12756.2	-0.0383067	4838505
12763.7	-0.0411641	4838312
12771.4	-0.0440964	4837806
12779.1	-0.0470316	4837976
12786.7	-0.0499652	4837833
12794.4	-0.0528904	4838232
12801	-0.0553973	4838938
12808.4	-0.0582058	4839244
12815.9	-0.0610179	4840193
12823.5	-0.0638587	4840647
12831.2	-0.0666973	4841255
12838.8	-0.0695047	4841583
12846.5	-0.0722766	4841978
12854.2	-0.0750086	4843133
12861.6	-0.0776164	4844706
12869.1	-0.080179	4845981
12876.6	-0.0827213	4847019
12884.3	-0.0852567	4848549
12891.8	-0.0876862	4850141
12899.3	-0.0900532	4851820
12907	-0.0924001	4853396
12914.7	-0.0946761	4855052
12922.3	-0.096878	4856385
12930	-0.0989973	4858891
12937.5	-0.101003	4860333
12945	-0.102929	4861376
12952.6	-0.104774	4862576
12960.2	-0.106556	4864241
12967.8	-0.108257	4865875
12974.5	-0.109665	4866786
12982	-0.111173	4867849
12989.6	-0.112589	4868285
12997.1	-0.113911	4869305
13004.6	-0.115143	4869742
13012.1	-0.11629	4870580
13019.7	-0.117345	4871075
13027.2	-0.118329	4872164
13034.8	-0.119229	4872453
13042.3	-0.1201	4873423
13049.9	-0.120827	4873960
13057.4	-0.121312	4874670
13065	-0.122067	4875740
13072.6	-0.122402	4875554
13080.1	-0.122762	4876493
13087.7	-0.123091	4875891
13095.2	-0.123386	4876374
13102.7	-0.123652	4877158
13110.3	-0.123737	4877568
13117.8	-0.123656	4877976
13125.5	-0.123459	4878002
13133.1	-0.123153	4878773
13140.7	-0.122752	4879413
13148.3	-0.122291	4880558
13155.9	-0.121789	4881840
13163.4	-0.12126	4883826
13170.1	-0.12078	4886005
13177.6	-0.120214	4887943
13185.2	-0.119621	4890662
13192.9	-0.119006	4892937
13200.5	-0.118367	4894946
13208	-0.11771	4897563
13215.5	-0.117034	4899442
13223.1	-0.116337	4901612
13230.7	-0.115618	4903467
13238.3	-0.114886	4905699
13244.9	-0.114238	4907550
13252.5	-0.113493	4909619
13260.1	-0.112744	4911865
13267.7	-0.112002	4914044
13275.3	-0.11126	4916087
13283	-0.110518	4918172
13290.6	-0.109784	4919913
13298.3	-0.109065	4921380
13305.8	-0.108369	4923760
13312.5	-0.10777	4925360
13320.2	-0.10711	4927001
13327.8	-0.106486	4928887
13335.5	-0.105887	4930880
13343.1	-0.105317	4932397
13350.7	-0.104776	4935608
13358.3	-0.104261	4937947
13365.9	-0.10377	4939342
13372.6	-0.10336	4940777
13380.2	-0.102916	4943232
13387.9	-0.1025	4945913
13395.5	-0.102118	4947443
13403.1	-0.101772	4949926
13410.7	-0.101466	4951805
13418.3	-0.101202	4952609
13424.9	-0.101003	4954353
13432.4	-0.10081	4956571
13439.9	-0.100654	4957864
13447.4	-0.100532	4958606
13455	-0.100443	4959876
13461.6	-0.100392	4960936
13469.2	-0.100364	4962016
13476.8	-0.100368	4963455
13484.4	-0.100402	4964596
13492	-0.100466	4965322
13499.6	-0.100557	4965912
13507.2	-0.100674	4967626
13513.8	-0.100797	4967576
13521.4	-0.100957	4967782
13529	-0.101136	4969191
13536.5	-0.101329	4968514
13544.1	-0.101539	4968278
13551.6	-0.101759	4967360
13558.3	-0.101959	4967027
13565.8	-0.102188	4966186
13573.2	-0.102418	4965548
13580.6	-0.102647	4964755
13587.1	-0.102845	4964132
13594.5	-0.103066	4963319
13602	-0.10328	4963232
13609.6	-0.103485	4963635
13617.2	-0.103676	4963411
13623.8	-0.103829	4964040
13631.3	-0.103984	4964483
13638.7	-0.104117	4964799
13646.1	-0.104226	4965357
13653.6	-0.104311	4965911
13661	-0.104368	4966211
13667.5	-0.104395	4966128
13675	-0.104396	4967003
13682.4	-0.104363	4967169
13690	-0.104295	4967342
13697.6	-0.104188	4968319
13704.2	-0.104062	4968297
13711.8	-0.103879	4968784
13719.4	-0.103652	4968895
13726.9	-0.103387	4969658
13734.4	-0.103078	4971277
13740.9	-0.102773	4971477
13748.3	-0.102383	4972072
13755.7	-0.101949	4971956
13763.2	-0.101472	4972416
13770.6	-0.10095	4972596
13777.1	-0.100455	4972143
13784.5	-0.0998434	4972659
13792	-0.0991779	4972780
13799.5	-0.0984589	4974085
13806	-0.0977899	4974969
13813.5	-0.0969788	4975800
13820.9	-0.0961159	4976154
13828.3	-0.0951981	4976786
13835.6	-0.0942198	4977528
13842	-0.0933187	4978062
13849.3	-0.0922366	4978859
13856.5	-0.0911072	4979425
13863.8	-0.0899366	4980020
13870.1	-0.0889022	4980964
13877.3	-0.0877017	4982049
13884.5	-0.086457	4983367
13891.8	-0.0851582	4983994
13899	-0.0838129	4984984
13905.2	-0.0826114	4985468
13912.4	-0.0812145	4986708
13919.5	-0.0798003	4987026
13926.6	-0.0783741	4987570
13933.8	-0.0769279	4987685
13940	-0.075641	4988871
13947.2	-0.0741404	4990152
13954.3	-0.0725881	4990377
13961.4	-0.0709807	4990709
13967.7	-0.0695404	4991818
13974.8	-0.067848	4992142
13982	-0.0660949	4993137
13989.1	-0.0643172	4993472
13996.2	-0.0625486	4994746
14002.5	-0.0610147	4995805
14009.6	-0.0592637	4996135
14016.8	-0.0574946	4996606
14023	-0.0559209	4997427
14030.2	-0.0540903	4997958
14037.3	-0.0522314	4998476
14044.4	-0.0503523	4998701
14051.6	-0.0484587	4998957
14057.8	-0.0467916	4999330
14065	-0.0448746	5000140
14072.1	-0.0429441	5000598
14078.4	-0.0412434	5000516
14085.5	-0.0392866	5000586
14092.6	-0.0373154	5000458
14099.8	-0.0353327	5000060
14106.9	-0.0333404	5000574
14113.2	-0.031591	5001405
14120.3	-0.0295867	5001569
14127.6	-0.0275468	5002748
14134.9	-0.025494	5004122
14142.2	-0.0234378	5005825
14148.7	-0.0216114	5006889
14156.2	-0.0195052	5008232
14163.7	-0.0173855	5010444
14171.3	-0.0152477	5012458
14178.9	-0.0130921	5014025
14185.6	-0.0112025	5015798
14193.3	-0.00904135	5017014
14200.8	-0.00691261	5017111
14208.3	-0.00478802	5017257
14214.8	-0.00293539	5016842
14222.3	-0.000818868	5015790
14229.8	0.00129923	5014639
14237.2	0.00341196	5014305
14244.9	0.00557828	5012547
14251.5	0.00744847	5011647
14259	0.00956429	5010335
14266.4	0.0116588	5008588
14273.9	0.0137702	5006285
14280.6	0.015649	5004077
14288.2	0.0177695	5003316
14295.6	0.0198579	5001425
14302.2	0.021678	5000236
14309.6	0.0237559	4999821
14317.1	0.0258142	4999003
14324.5	0.0278543	4998778
14332	0.0298732	4997618
14338.5	0.0316248	4996423
14346.1	0.0336163	4995286
14353.6	0.0355888	4994400
14361.3	0.03754	4994001
14368.9	0.0394509	4992624
14375.6	0.0410891	4992937
14383.3	0.0429224	4992370
14390.9	0.0447142	4991556
14398.6	0.0464641	4990756
14405.3	0.0479603	4989502
14412.9	0.0496292	4988183
14420.5	0.0512265	4986202
14427.9	0.0527637	4984737
14434.4	0.0540723	4983999
14441.9	0.0555276	4982333
14449.3	0.0569377	4980234
14456.8	0.0582998	4976877
14463.3	0.0594508	4973977
14470.8	0.0607189	4971518
14478.3	0.0619345	4968596
14485.7	0.0630916	4965867
14493.2	0.0641935	4963146
14499.7	0.0651116	4961222
14507.2	0.0661079	4958267
14514.6	0.0670502	4955931
14522	0.0679232	4954383
14529.4	0.0687445	4952515
14537.1	0.0695257	4951071
14543.7	0.070156	4949845
14551.3	0.0708181	4947719
14558.9	0.0714121	4945068
14566.5	0.0719471	4943241
14574	0.0724177	4940493
14581.6	0.0728295	4936958
14589.1	0.0731778	4935201
14595.7	0.0734269	4933218
14603.2	0.0736509	4930223
14610.7	0.0738123	4927944
14618.1	0.073914	4924397
14625.5	0.0739573	4921553
14633	0.0739022	4919319
14640.4	0.0737297	4917174
14647	0.0735875	4915305
14654.5	0.0734205	4913353
14662	0.0732066	4912341
14669.5	0.072918	4910533
14677	0.072546	4909168
14684.5	0.0720924	4906994
14692.1	0.0715638	4903589
14699.6	0.0709711	4900188
14707.2	0.0703192	4896693
14714.8	0.0696213	4892275
14722.4	0.0688672	4888338
14729.9	0.0680718	4883343
14737.5	0.0672265	4879417
14744.1	0.066445	4875260
14751.6	0.0655049	4870343
14759.2	0.064517	4865564
14766.7	0.0634823	4860326
14774.2	0.0624126	4856054
14781.7	0.0613043	4851848
14789.2	0.0601597	4846794
14796.7	0.0589809	4841618
14804.3	0.0577659	4836922
14811.8	0.0565113	4832375
14819.4	0.0552248	4827903
14826.9	0.0539244	4822407
14834.5	0.0525857	4818053
14842.1	0.0512318	4812981
14849.7	0.0498429	4807552
14857.3	0.0484285	4802109
14865	0.0469972	4796605
14872.6	0.0455514	4790518
14880.3	0.0440936	4784619
14887.9	0.0426261	4779383
14895.6	0.0411514	4773981
14903.2	0.0396719	4769438
14910.9	0.0381956	4764544
14918.4	0.0367329	4759838
14926	0.0352721	4755452
14934.4	0.0336332	4751193
14942	0.0321827	4747012
14949.6	0.0307241	4743679
14957.3	0.029272	4738919
14964.9	0.0278427	4734987
14972.3	0.0264599	4731225
14979.7	0.0250868	4727779
14987.3	0.0237099	4724334
14994.8	0.0223565	4721443
15002.3	0.0210239	4718847
15009.8	0.0197188	4714793
15018.2	0.0182834	4710799
15025.7	0.0170327	4707118
15033.1	0.0158068	4703306
15040.7	0.0145837	4699988
15048.3	0.0133891	4695345
15055.9	0.0122262	4690240
15063.4	0.0111132	4685568
15070.8	0.0100292	4681527
15079.2	0.0088452	4675577
15086.6	0.00782471	4671125
15094.1	0.0068339	4665686
15101.5	0.00587954	4659733
15109.7	0.00484938	4653639
15117.1	0.0039684	4648473
15124.4	0.00312274	4642779
15131.7	0.00231124	4636544
15139.1	0.00153523	4630907
15147.3	0.000706038	4625151
15154.6	8.51033e-06	4620182
15162	-0.000652844	4615202
15170.2	-0.00135536	4609347
15177.5	-0.00194689	4604203
15184.9	-0.00252524	4600073
15192.2	-0.00305444	4594941
15200.4	-0.00359391	4589381
15207.8	-0.00403956	4583414
15215.1	-0.00454076	4578299
15223.4	-0.00488555	4572031
15230.7	-0.00520547	4566287
15238	-0.00549835	4560296
15246.3	-0.00587319	4555145
15253.6	-0.00606692	4549586
15261.8	-0.00627915	4542663
15269.2	-0.00644987	4537024
15277.4	-0.00661771	4530120
15284.7	-0.00674135	4524698
15293	-0.00685452	4517595
15300.3	-0.00693319	4511586
15308.5	-0.00699861	4506215
15315.9	-0.00703687	4500173
15324.1	-0.00705791	4494422
15331.5	-0.00705769	4489834
15338.8	-0.00704037	4484556
15347	-0.00700081	4478751
15355.3	-0.00693998	4472876
15362.6	-0.00686799	4467263
15370.8	-0.00676696	4461624
15378.2	-0.00665948	4456425
15386.5	-0.00651865	4450724
15393.8	-0.00637605	4445111
15402.1	-0.00619629	4439231
15409.5	-0.00601938	4433379
15417.9	-0.00580039	4427493
15426.4	-0.00556138	4421504
15433.9	-0.00533194	4415302
15442.4	-0.00505504	4408923
15450.9	-0.00476174	4403067
15458.4	-0.00448818	4397744
15466.9	-0.00416564	4392029
15475.3	-0.00382827	4386389
15482.9	-0.00351487	4381819
15491.4	-0.00314736	4375999
15499.9	-0.00276895	4370893
15507.5	-0.0024238	4366100
15516	-0.00202532	4360249
15524.4	-0.00161705	4353895
15532.9	-0.00119936	4347062
15540.6	-0.000814839	4341994
15549.1	-0.000380773	4335941
15557.6	6.12808e-05	4329762
15566	0.000507123	4324172
15573.5	0.000906262	4318964
15582	0.00135927	4313835
15590.4	0.00181675	4308196
15598.9	0.00227786	4301986
15607.4	0.00274073	4295924
15615	0.00315552	4290739
15623.6	0.0036264	4283745
15632.1	0.00409171	4277959
15640.6	0.00455434	4272213
15649.2	0.00502164	4266296
15657.8	0.00548629	4260900
15666.4	0.00594485	4255311
15674.8	0.00639349	4250334
15683.3	0.00683783	4245440
15691.7	0.0072774	4240972
15700.1	0.00771177	4234276
15708.6	0.00814061	4229203
15717.1	0.00856464	4223897
15725.6	0.00898468	4218463
15734.1	0.0094003	4213200
15741.8	0.0097664	4208443
15751.3	0.0102162	4201607
15759.9	0.0106139	4195959
15768.4	0.0109979	4190140
15776.7	0.0113707	4184825
15785.1	0.0117371	4179500
15793.4	0.0120985	4173520
15801.9	0.0124553	4167489
15810.3	0.0128062	4161324
15818.7	0.0131521	4154482
15827.2	0.0134954	4148361
15835.7	0.0138315	4140447
15844.1	0.0141622	4134099
15853.6	0.0145285	4127173
15862.1	0.014852	4120889
15870.5	0.0151677	4114466
15879	0.0154852	4108312
15887.5	0.0158009	4102031
15896.1	0.0161146	4095610
15905.6	0.0164617	4088454
15914.1	0.0167736	4081730
15922.6	0.0170849	4074644
15931	0.0173923	4067844
15940.3	0.0177374	4060798
15948.8	0.0180544	4053547
15957.3	0.0183772	4046839
15966.7	0.0187357	4039508
15975.1	0.0190652	4033135
15983.6	0.0194056	4026413
15993.1	0.0197924	4018855
16001.7	0.020151	4012738
16010.1	0.0205133	4005891
16019.5	0.0209259	3998670
16027.9	0.0213046	3993070
16037.1	0.0217344	3986154
16045.4	0.0221324	3980050
16054.8	0.022596	3973331
16063.3	0.0230259	3967277
16072.6	0.0235153	3960237
16081	0.0239683	3953117
16090.3	0.0244874	3945223
16099.6	0.0250235	3938340
16107.9	0.0255209	3931765
16117.2	0.0260903	3924270
16125.6	0.026618	3916963
16134.9	0.0272213	3908683
16143.2	0.0277798	3902357
16152.5	0.0284174	3894601
16161.8	0.029073	3887103
16170.2	0.0296782	3880642
16179.5	0.0303674	3873363
16188.8	0.0310737	3865854
16197.2	0.0317238	3859664
16206.5	0.0324614	3853710
16215.8	0.0332147	3847478
16224.1	0.0339056	3841547
16233.5	0.0346917	3834702
16242.9	0.0354936	3827316
16252.3	0.0363097	3820684
16261.7	0.0371314	3813884
16270	0.0378667	3807061
16279.2	0.0386912	3799803
16288.6	0.0395401	3791752
16298	0.0403918	3783784
16307.3	0.0412406	3776613
16316.6	0.0420933	3769264
16326	0.0429532	3760898
16335.4	0.0438138	3753633
16344.8	0.0446722	3746366
16354.4	0.0455435	3738841
16363.9	0.0464102	3731718
16373.5	0.0472674	3725027
16382.7	0.0480887	3718349
16392	0.0489119	3712908
16401.3	0.0497255	3707210
16410.7	0.0505272	3700849
16420	0.0513144	3694749
16429.3	0.0520885	3687674
16438.8	0.0528537	3681666
16448.2	0.0536004	3675345
16457.6	0.0543253	3668786
16468	0.0550972	3661935
16477.4	0.0557773	3655078
16486.9	0.0564333	3648945
16496.3	0.0570603	3643100
16505.4	0.057648	3637641
16514.7	0.0582132	3632048
16525	0.0588121	3625120
16534.4	0.0593262	3618925
16543.8	0.0598109	3612378
16554.1	0.0603088	3606533
16563.5	0.0607292	3601901
16572.9	0.0611183	3595836
16582.3	0.0614751	3590083
16592.5	0.0618278	3583956
16601.8	0.0621152	3578065
16611.1	0.062371	3572278
16621.3	0.062616	3566581
16630.7	0.0628067	3561684
16641.1	0.0629788	3556021
16650.4	0.0631014	3549793
16659.8	0.0631917	3543665
16670.2	0.0632543	3538295
16679.6	0.0632781	3533557
16689.9	0.0632684	3527713
16699.3	0.0632277	3522593
16709.6	0.0631483	3516486
16719	0.0630458	3510615
16729.4	0.0629007	3504201
16738.8	0.0627403	3498981
16749.2	0.0625306	3492867
16759.7	0.062289	3487654
16769.2	0.0620437	3481065
16779.5	0.0617558	3475434
16788.8	0.0614821	3470201
16799	0.0611682	3463766
16809.3	0.0608349	3456946
16818.7	0.0604937	3449568
16829	0.0601194	3441710
16839.5	0.0606603	3433379
16850	0.0607795	3425485
16859.5	0.0604976	3418730
16869.9	0.0599913	3411148
16880.4	0.0594114	3403327
16890.9	0.0588307	3395568
16901.5	0.0582754	3387411
16912	0.0577446	3379469
16921.5	0.0572801	3372086
16932.1	0.0568105	3363558
16942.6	0.0563766	3356299
16953.1	0.0559367	3348393
16963.6	0.0554796	3340829
16974	0.0550099	3333015
16984.4	0.0545387	3325949
16995.6	0.0540281	3317829
17005.9	0.0535667	3310697
17016.3	0.0531132	3303147
17026.7	0.0526684	3296651
17037.2	0.0522241	3289045
17047.7	0.0517849	3281583
17059.1	0.0513134	3273857
17069.6	0.0508797	3266068
17080.1	0.0504468	3257973
17090.6	0.0500146	3250423
17102.1	0.0495436	3242008
17112.6	0.0491114	3233989
17123.1	0.0486777	3226452
17134.6	0.0482009	3218595
17145.1	0.0477579	3211581
17156.6	0.047265	3203495
17167.1	0.0468014	3196196
17178.6	0.0462789	3189148
17189.1	0.0457811	3181907
17200.6	0.0452134	3174185
17211.1	0.0446667	3167115
17222.6	0.0440375	3159975
17234	0.0433695	3153858
17244.5	0.0427223	3148778
17255.8	0.041977	3142693
17267.2	0.0411812	3136632
17278.6	0.0403271	3130038
17289.1	0.0394854	3124548
17300.5	0.0385056	3118438
17312	0.0374597	3112012
17323.2	0.036366	3105573
17334.4	0.0351994	3100308
17344.8	0.0340482	3094682
17356.3	0.0327007	3088781
17367.8	0.0312667	3081727
17379.2	0.0297431	3073710
17390.7	0.0281265	3066716
17402.2	0.026414	3059393
17413.5	0.0246245	3052374
17424.7	0.0227683	3045096
17435.9	0.0208015	3038683
17447.4	0.018691	3032657
17458.9	0.0164781	3026534
17470.3	0.014164	3019987
17481.8	0.0117512	3013840
17493.3	0.00924581	3007601
17504.7	0.00664952	3002342
17516.2	0.00396784	2996944
17528.6	0.000998674	2991083
17540.1	-0.00188186	2985617
17551.6	-0.00484964	2979779
17563	-0.00860812	2974375
17574.5	-0.0126141	2969771
17586.9	-0.0170738	2963744
17598.4	-0.0213398	2959175
17609.9	-0.0256736	2953745
17621.4	-0.0300809	2949172
17633.8	-0.0351802	2944052
17645.2	-0.0423954	2939748
17657.7	-0.0496506	2934703
17669.1	-0.0559501	2930302
17680.6	-0.0625327	2926153
17693	-0.0701732	2921254
17704.5	-0.0771877	2916269
17716.9	-0.0847877	2910654
17728.4	-0.0920218	2906012
17740.7	-0.100002	2900872
17752	-0.107393	2895673
17764.2	-0.115458	2890644
17775.5	-0.12304	2886031
17787.7	-0.131659	2880056
17799.1	-0.140773	2874674
17811.5	-0.152032	2868044
17822.8	-0.161457	2862980
17835.1	-0.171442	2856812
17846.5	-0.180501	2850456
17858.9	-0.189351	2843318
17871.2	-0.197624	2836531
17883.4	-0.205584	2829658
17895.6	-0.213003	2822818
17906.9	-0.219166	2816720
17919.1	-0.225218	2810159
17931.3	-0.2307	2803588
17943.7	-0.235453	2796077
17956.1	-0.239406	2788955
17968.5	-0.242834	2782569
17980.8	-0.245016	2776594
17993.1	-0.245964	2770626
18005.4	-0.246193	2764581
18017.7	-0.245981	2758546
18030.1	-0.245242	2753222
18042.5	-0.243957	2747919
18054.8	-0.24201	2743435
18067.1	-0.239681	2739706
18079.3	-0.236927	2734408
18092.4	-0.233405	2729023
18104.7	-0.229665	2723902
18116.9	-0.225395	2719148
18129.3	-0.220451	2714212
18141.7	-0.213073	2708549
18154	-0.206093	2703780
18166.1	-0.199441	2699076
18179	-0.191488	2694182
18191.1	-0.183434	2688696
18203.1	-0.17521	2683555
18216.1	-0.166102	2677629
18228.2	-0.156875	2673253
18241.4	-0.144501	2667205
18253.7	-0.131092	2661540
18266.8	-0.117802	2656124
18279	-0.104622	2651918
18292.1	-0.090575	2647233
18304.5	-0.0778781	2643149
18317.9	-0.0641741	2638464
18330.9	-0.0506751	2634542
18343	-0.0384534	2630545
18356.3	-0.0254415	2625771
18368.5	-0.0136752	2621723
18381.6	-0.00120333	2617479
18394.7	0.010671	2612441
18406.9	0.0214783	2607106
18420.2	0.0328262	2601737
18433.3	0.0435211	2596156
18445.4	0.0530058	2591284
18458.8	0.0629363	2585617
18472.1	0.0722786	2580158
18484.4	0.0804491	2575111
18497.7	0.0887846	2569519
18511	0.0965985	2564134
18524.4	0.103865	2559066
18537.7	0.11061	2553628
18551.1	0.116872	2547557
18564.5	0.122637	2542240
18577.8	0.128592	2536971
18591.2	0.132947	2531636
18604.5	0.137093	2526134
18616.9	0.140385	2521029
18630.3	0.14347	2515512
18643.6	0.146272	2509774
18657	0.148651	2504073
18670.3	0.150668	2497961
18684.6	0.152562	2491873
18698	0.154103	2486304
18711.3	0.155412	2480594
18724.7	0.156516	2475003
18738	0.157433	2470314
18752.3	0.158197	2465332
18765.7	0.158706	2460729
18780	0.159043	2456521
18793.4	0.159166	2452893
18806.7	0.159111	2449157
18821	0.158879	2445230
18834.4	0.158517	2441728
18848.7	0.157977	2437470
18862	0.157317	2434565
18875.4	0.156471	2431674
18889.7	0.155312	2428008
18903	0.153967	2424501
18917.3	0.152242	2420874
18930.7	0.150393	2417385
18945	0.148207	2413634
18958.4	0.146027	2410292
18972.7	0.143596	2406893
18986	0.141276	2403114
19000.3	0.138769	2399727
19014.6	0.136261	2396803
19028	0.133935	2393960
19042.3	0.131467	2391596
19055.6	0.129197	2388885
19069.9	0.126807	2385813
19084.3	0.124469	2382671
19098.6	0.122194	2379530
19111.9	0.120134	2376491
19126.2	0.118006	2372432
19140.5	0.115969	2368532
19153.9	0.114152	2364952
19168.2	0.112296	2361009
19182.5	0.110526	2356550
19196.8	0.108836	2351989
19210.1	0.107328	2348061
19225.3	0.105697	2342700
19238.6	0.104345	2338615
19252.9	0.102972	2334199
19267.1	0.101684	2329892
19281.4	0.100476	2325606
19295.7	0.0993394	2320426
19310	0.0982374	2316097
19324.3	0.0969475	2311383
19338.6	0.0962526	2307031
19352.9	0.0953695	2303248
19367.1	0.0945294	2298725
19382.3	0.093585	2294203
19396.5	0.0927514	2289988
19410.7	0.091859	2286234
19424.9	0.090812	2282485
19440.1	0.0899148	2278179
19454.3	0.0890834	2274572
19468.5	0.0881117	2271185
19482.7	0.0870603	2267629
19496.9	0.0859626	2263667
19512.1	0.0847379	2259007
19526.3	0.0835346	2255478
19540.5	0.0822793	2252204
19555.7	0.0808872	2248544
19569.9	0.0795415	2244608
19585	0.0780576	2240401
19599.2	0.0766292	2236318
19613.4	0.0751676	2231999
19627.6	0.0736789	2228600
19642.7	0.0720657	2224438
19656.8	0.0705217	2221024
19671.8	0.0688394	2217332
19686	0.0672234	2213344
19701.2	0.0654618	2209228
19716.3	0.0636644	2205704
19730.5	0.0619401	2202266
19745.7	0.0600574	2198048
19759.9	0.058241	2193850
19775.1	0.0562486	2189858
19789.3	0.0543269	2185397
19804.4	0.0522189	2181318
19818.7	0.0501881	2177381
19833.8	0.0479639	2172857
19849	0.0456798	2168894
19863.2	0.043484	2165239
19878.4	0.0410833	2161118
19893.5	0.038622	2157958
19908.7	0.0360998	2154386
19922.9	0.0336806	2150713
19938.1	0.0310431	2146915
19953.2	0.0283499	2143035
19968.4	0.0256058	2139544
19983.4	0.0228503	2136531
19998.2	0.0200864	2133463
