%%MatrixMarket matrix array real general
20 20
.5000000000
0.
0.
0.
0.
0.
0.
0.
0.
0.
0.
0.
0.
0.
0.
0.
0.
0.
0.
0.
0.
.5000000000
0.
0.
0.
0.
0.
0.
0.
0.
0.
0.
0.
0.
0.
0.
0.
0.
0.
0.
0.
0.
.5000000000
0.
0.
0.
0.
0.
0.
0.
0.
0.
0.
0.
0.
0.
0.
0.
0.
0.
0.
0.
0.
.5000000000
0.
0.
0.
0.
0.
0.
0.
0.
0.
0.
0.
0.
0.
0.
0.
0.
-.7071067810
0.
0.
0.
-.7500000000
0.
0.
0.
0.
0.
.4330127020
0.
0.
0.
0.
0.
0.
0.
0.
0.
0.
-.7071067810
0.
0.
0.
-.7500000000
0.
0.
0.
0.
0.
.4330127020
0.
0.
0.
0.
0.
0.
0.
0.
0.
0.
-.7071067810
0.
0.
0.
-.7500000000
0.
0.
0.
0.
0.
.4330127020
0.
0.
0.
0.
0.
0.
0.
2.309401077
0.
0.
0.
2.857738034
0.
0.
1.166666667
0.
0.
-.7071067810
0.
0.
-.8660254040
0.
0.
.3726779962
0.
0.
0.
0.
2.309401077
0.
0.
0.
2.857738034
0.
0.
1.166666667
0.
0.
-.7071067810
0.
0.
-.8660254040
0.
0.
.3726779962
0.
0.
-8.500000000
0.
0.
0.
-12.37436867
0.
0.
-7.216878367
0.
-1.875000000
2.245365598
0.
0.
3.500000000
0.
1.659882024
-.6454972245
0.
-.8385254914
.3307189139
-.4082482906
0.
0.
0.
-.7216878367
0.
0.
0.
0.
0.
-.2500000000
0.
0.
0.
0.
0.
0.
0.
0.
0.
0.
-.4082482906
0.
0.
0.
-.7216878367
0.
0.
0.
0.
0.
-.2500000000
0.
0.
0.
0.
0.
0.
0.
0.
0.
0.
-.4082482906
0.
0.
0.
-.7216878367
0.
0.
0.
0.
0.
-.2500000000
0.
0.
0.
0.
0.
0.
0.
1.750000000
0.
0.
0.
2.828427124
0.
0.
1.587713241
0.
0.
0.
0.
0.
-.2500000000
0.
0.
-.3227486122
0.
0.
0.
0.
1.750000000
0.
0.
0.
2.828427124
0.
0.
1.587713241
0.
0.
0.
0.
0.
-.2500000000
0.
0.
-.3227486122
0.
0.
-7.678758582
0.
0.
0.
-13.26806944
0.
0.
-9.500000000
0.
-2.901185103
.4949747467
0.
0.
1.558845727
0.
1.275000000
.2236067977
0.
.9682458365e-1
-.3436931772
.3227486122
0.
0.
0.
.9128709293
0.
0.
.9316949905
0.
0.
.3162277660
0.
0.
.5809475019
0.
0.
.8333333333e-1
0.
0.
0.
0.
.3227486122
0.
0.
0.
.9128709295
0.
0.
.9316949905
0.
0.
.3162277660
0.
0.
.5809475019
0.
0.
.8333333333e-1
0.
0.
-2.459674775
0.
0.
0.
-5.850213671
0.
0.
-6.067673910
0.
-2.627379873
-1.004158022
0.
0.
-1.565247584
0.
-.5486726408
.2886751347
0.
.6250000000
.1479019946
-.2645751311
0.
0.
0.
-.9354143468
0.
0.
-1.636634177
0.
-1.218935425
-.3240370350
0.
0.
-1.020504077
0.
-.9983468483
-.1463850110
0.
-.2746751327
-.2500000000e-1
