%%MatrixMarket matrix array real general
20 20
1.
0.
0.
0.
0.
0.
0.
0.
0.
0.
0.
0.
0.
0.
0.
0.
0.
0.
0.
0.
0.
1.
0.
0.
0.
0.
0.
0.
0.
0.
0.
0.
0.
0.
0.
0.
0.
0.
0.
0.
0.
0.
1.
0.
0.
0.
0.
0.
0.
0.
0.
0.
0.
0.
0.
0.
0.
0.
0.
0.
0.
0.
0.
1.
0.
0.
0.
0.
0.
0.
0.
0.
0.
0.
0.
0.
0.
0.
0.
0.
-.7071067810
0.
0.
0.
-.2500000000
0.
0.
0.
0.
0.
-.4330127020
0.
0.
0.
0.
0.
0.
0.
0.
0.
0.
-.7071067810
0.
0.
0.
-.2500000000
0.
0.
0.
0.
0.
-.4330127020
0.
0.
0.
0.
0.
0.
0.
0.
0.
0.
-.7071067810
0.
0.
0.
-.2500000000
0.
0.
0.
0.
0.
-.4330127020
0.
0.
0.
0.
0.
0.
0.
.1443375673
0.
0.
0.
.4082482906
0.
0.
.8333333333e-1
0.
0.
.7071067810
0.
0.
.1443375673
0.
0.
.1863389981
0.
0.
0.
0.
.1443375673
0.
0.
0.
.4082482906
0.
0.
.8333333333e-1
0.
0.
.7071067810
0.
0.
.1443375673
0.
0.
.1863389981
0.
0.
.1250000000
0.
0.
0.
-.2651650429
0.
0.
-.2165063510
0.
-.3125000000e-1
-.4592793268
0.
0.
-.3750000000
0.
-.5412658775e-1
-.4841229182
0.
-.6987712428e-1
-.8267972847e-1
.4082482906
0.
0.
0.
.7216878367
0.
0.
0.
0.
0.
-.7500000000
0.
0.
0.
0.
0.
0.
0.
0.
0.
0.
.4082482906
0.
0.
0.
.7216878367
0.
0.
0.
0.
0.
-.7500000000
0.
0.
0.
0.
0.
0.
0.
0.
0.
0.
.4082482906
0.
0.
0.
.7216878367
0.
0.
0.
0.
0.
-.7500000000
0.
0.
0.
0.
0.
0.
0.
.1250000000
0.
0.
0.
-.7071067810
0.
0.
-.2165063510
0.
0.
0.
0.
0.
-.1250000000
0.
0.
.4841229182
0.
0.
0.
0.
.1250000000
0.
0.
0.
-.7071067810
0.
0.
-.2165063510
0.
0.
0.
0.
0.
-.1250000000
0.
0.
.4841229182
0.
0.
-.2453738645
0.
0.
0.
.3163924252
0.
0.
.4250000000
0.
.7577722285e-1
.1237436867
0.
0.
.3897114318
0.
.8125000000e-1
-.3913118960
0.
-.2420614591e-1
-.2577698829
-.1613743061
0.
0.
0.
.3651483717
0.
0.
.5776508940
0.
0.
-.3162277660
0.
0.
-.7423218081
0.
0.
.5416666667
0.
0.
0.
0.
-.1613743061
0.
0.
0.
.3651483718
0.
0.
.5776508940
0.
0.
-.3162277660
0.
0.
-.7423218081
0.
0.
.5416666667
0.
0.
.5590169942e-1
0.
0.
0.
.3952847075e-1
0.
0.
-.6132223630
0.
-.1816805231
-.1141088661
0.
0.
.2795084971
0.
.8068715303e-2
.3608439183
0.
.3437500000
-.4806814823
.6614378278e-1
0.
0.
0.
-.1403121520
0.
0.
.3218713882
0.
.4937160930
.1890216038
0.
0.
-.3496171374
0.
-.6942056633
.1341862601
0.
.5968901920
-.3937500000
