%%MatrixMarket matrix array real general
10 20
1.414213562
1.414213562
1.414213562
1.414213562
1.414213562
1.414213562
1.414213562
1.414213562
1.414213562
1.414213562
-2.449489743
-2.449489743
-2.449489743
-2.449489743
-2.449489743
-2.449489743
-2.449489743
-2.449489743
-2.449489743
-2.449489743
3.162277660
3.162277660
3.162277660
3.162277660
3.162277660
3.162277660
3.162277660
3.162277660
3.162277660
3.162277660
-3.741657387
-3.741657387
-3.741657387
-3.741657387
-3.741657387
-3.741657387
-3.741657387
-3.741657387
-3.741657387
-3.741657387
-2.
-2.
-2.
-2.
-.3036806991
0.
-.3036806991
2.303680699
2.303680699
4.
3.464101616
3.464101616
3.464101616
3.464101616
.5259903999
0.
.5259903999
-3.990092015
-3.990092015
-6.928203232
-4.472135954
-4.472135954
-4.472135954
-4.472135954
-.6790506860
0.
-.6790506860
5.151186639
5.151186639
8.944271908
2.449489743
2.449489743
2.449489743
2.449489743
-1.132775699
-1.360827635
-1.132775699
.9961259674
.9961259674
7.348469229
-4.242640686
-4.242640686
-4.242640686
-4.242640686
1.962025064
2.357022604
1.962025064
-1.725340785
-1.725340785
-12.72792206
-2.828427124
-2.828427124
-2.828427124
-2.828427124
1.229948799
.8380524812
1.229948799
-1.348290938
-1.348290938
11.31370850
-3.464101616
-1.505360805
1.505360805
3.464101616
-2.484731210
0.
2.484731210
-.9793704052
.9793704052
0.
6.
2.607361398
-2.607361398
-6.
4.303680699
0.
-4.303680699
1.696319301
-1.696319301
0.
-7.745966692
-3.366089089
3.366089089
7.745966692
-5.556027890
0.
5.556027890
-2.189938801
2.189938801
0.
4.242640686
1.843682925
-1.843682925
-4.242640686
-1.258649951
0.
1.258649951
-3.102332876
3.102332876
0.
-7.348469229
-3.193352500
3.193352500
7.348469229
2.180045665
0.
-2.180045665
5.373398163
-5.373398163
0.
-4.898979486
-2.128901666
2.128901666
4.898979486
2.509295895
0.
-2.509295895
-4.427892772
4.427892772
0.
5.477225575
-1.187112542
-1.187112542
5.477225575
2.817981978
-1.217161239
2.817981978
.4377975572
.4377975572
0.
-9.486832980
2.056139236
2.056139236
-9.486832980
-4.880887957
2.108185107
-4.880887957
-.7582876121
-.7582876121
0.
-6.324555320
1.370759491
1.370759491
-6.324555320
3.185720379
-1.873942317
3.185720379
2.032696517
2.032696517
0.
-7.483314774
3.342659338
-3.342659338
7.483314774
-2.761597556
0.
2.761597556
-.1691075797
.1691075797
0.
