%%MatrixMarket matrix array real general
16 20
1.414213562
1.414213562
1.414213562
1.414213562
1.414213562
1.414213562
1.414213562
1.414213562
1.414213562
1.414213562
1.414213562
1.414213562
1.414213562
1.414213562
1.414213562
1.414213562
-2.449489743
-1.095445115
1.095445115
2.449489743
-2.449489743
-1.095445115
1.095445115
2.449489743
-2.449489743
-1.095445115
1.095445115
2.449489743
-2.449489743
-1.095445115
1.095445115
2.449489743
3.162277660
-.6324555318
-.6324555318
3.162277660
3.162277660
-.6324555318
-.6324555318
3.162277660
3.162277660
-.6324555318
-.6324555318
3.162277660
3.162277660
-.6324555318
-.6324555318
3.162277660
-3.741657387
1.673320053
-1.673320053
3.741657387
-3.741657387
1.673320053
-1.673320053
3.741657387
-3.741657387
1.673320053
-1.673320053
3.741657387
-3.741657387
1.673320053
-1.673320053
3.741657387
-2.
-2.
-2.
-2.
-2.
-2.
-2.
-2.
-2.
-2.
-2.
-2.
-2.
-2.
-2.
-2.
3.464101616
1.549193338
-1.549193338
-3.464101616
3.464101616
1.549193338
-1.549193338
-3.464101616
3.464101616
1.549193338
-1.549193338
-3.464101616
3.464101616
1.549193338
-1.549193338
-3.464101616
-4.472135954
.8944271908
.8944271908
-4.472135954
-4.472135954
.8944271908
.8944271908
-4.472135954
-4.472135954
.8944271908
.8944271908
-4.472135954
-4.472135954
.8944271908
.8944271908
-4.472135954
2.449489743
2.449489743
2.449489743
2.449489743
2.449489743
2.449489743
2.449489743
2.449489743
2.449489743
2.449489743
2.449489743
2.449489743
2.449489743
2.449489743
2.449489743
2.449489743
-4.242640686
-1.897366595
1.897366595
4.242640686
-4.242640686
-1.897366595
1.897366595
4.242640686
-4.242640686
-1.897366595
1.897366595
4.242640686
-4.242640686
-1.897366595
1.897366595
4.242640686
-2.828427124
-2.828427124
-2.828427124
-2.828427124
-2.828427124
-2.828427124
-2.828427124
-2.828427124
-2.828427124
-2.828427124
-2.828427124
-2.828427124
-2.828427124
-2.828427124
-2.828427124
-2.828427124
-3.464101616
-3.464101616
-3.464101616
-3.464101616
-1.549193338
-1.549193338
-1.549193338
-1.549193338
1.549193338
1.549193338
1.549193338
1.549193338
3.464101616
3.464101616
3.464101616
3.464101616
6.
2.683281572
-2.683281572
-6.
2.683281572
1.200000000
-1.200000000
-2.683281572
-2.683281572
-1.200000000
1.200000000
2.683281572
-6.
-2.683281572
2.683281572
6.
-7.745966692
1.549193338
1.549193338
-7.745966692
-3.464101616
.6928203232
.6928203232
-3.464101616
3.464101616
-.6928203232
-.6928203232
3.464101616
7.745966692
-1.549193338
-1.549193338
7.745966692
4.242640686
4.242640686
4.242640686
4.242640686
1.897366595
1.897366595
1.897366595
1.897366595
-1.897366595
-1.897366595
-1.897366595
-1.897366595
-4.242640686
-4.242640686
-4.242640686
-4.242640686
-7.348469229
-3.286335344
3.286335344
7.348469229
-3.286335344
-1.469693846
1.469693846
3.286335344
3.286335344
1.469693846
-1.469693846
-3.286335344
7.348469229
3.286335344
-3.286335344
-7.348469229
-4.898979486
-4.898979486
-4.898979486
-4.898979486
-2.190890230
-2.190890230
-2.190890230
-2.190890230
2.190890230
2.190890230
2.190890230
2.190890230
4.898979486
4.898979486
4.898979486
4.898979486
5.477225575
5.477225575
5.477225575
5.477225575
-1.095445115
-1.095445115
-1.095445115
-1.095445115
-1.095445115
-1.095445115
-1.095445115
-1.095445115
5.477225575
5.477225575
5.477225575
5.477225575
-9.486832980
-4.242640686
4.242640686
9.486832980
1.897366595
.8485281372
-.8485281372
-1.897366595
1.897366595
.8485281372
-.8485281372
-1.897366595
-9.486832980
-4.242640686
4.242640686
9.486832980
-6.324555320
-6.324555320
-6.324555320
-6.324555320
1.264911064
1.264911064
1.264911064
1.264911064
1.264911064
1.264911064
1.264911064
1.264911064
-6.324555320
-6.324555320
-6.324555320
-6.324555320
-7.483314774
-7.483314774
-7.483314774
-7.483314774
3.346640106
3.346640106
3.346640106
3.346640106
-3.346640106
-3.346640106
-3.346640106
-3.346640106
7.483314774
7.483314774
7.483314774
7.483314774
