%%MatrixMarket matrix array real general
20 16
-.9820927513e-2
.1701034544e-1
-.2196026153e-1
.1113588508e-1
.1388888889e-1
-.2405626122e-1
.3105649968e-1
-.1701034544e-1
.2946278254e-1
.1964185503e-1
.2405626122e-1
-.4166666667e-1
.5379143537e-1
-.2946278254e-1
.5103103630e-1
.3402069088e-1
-.3803628871e-1
.6588078457e-1
.4392052306e-1
.2227177016e-1
-.4910463757e-1
.3803628867e-1
.2196026152e-1
-.2490059601e-1
.6944444444e-1
-.5379143531e-1
-.3105649968e-1
-.8505172722e-1
.6588078447e-1
.9820927513e-1
.1202813062
-.9316949897e-1
-.5379143537e-1
-.1473139128
.1141088660
.1701034544
-.1901814436
.1473139125
.2196026152
.1113588508
-.4910463757e-1
-.3803628871e-1
.2196026152e-1
.2490059602e-1
.6944444444e-1
.5379143537e-1
-.3105649968e-1
-.8505172718e-1
-.6588078455e-1
.9820927513e-1
.1202813061
.9316949905e-1
-.5379143537e-1
-.1473139128
-.1141088661
.1701034544
-.1901814435
-.1473139128
.2196026152
.1113588508
-.9820927513e-2
-.1701034544e-1
-.2196026153e-1
-.1113588508e-1
.1388888889e-1
.2405626122e-1
.3105649968e-1
-.1701034544e-1
-.2946278254e-1
.1964185503e-1
.2405626122e-1
.4166666667e-1
.5379143537e-1
-.2946278254e-1
-.5103103630e-1
.3402069088e-1
-.3803628871e-1
-.6588078457e-1
.4392052306e-1
.2227177016e-1
-.4910463757e-1
.8505172722e-1
-.1098013076
.5567942541e-1
.6944444444e-1
-.1202813062
.1552824984
-.8505172722e-1
.1473139128
.9820927513e-1
.5379143531e-1
-.9316949897e-1
.1202813059
-.6588078447e-1
.1141088660
.7607257735e-1
.3803628871e-1
-.6588078455e-1
-.4392052305e-1
-.4980119202e-1
-.2455231880
.1901814434
.1098013076
-.1245029801
.3472222222
-.2689571766
-.1552824984
-.4252586363
.3294039226
.4910463760
.2689571766
-.2083333333
-.1202813059
-.3294039226
.2551551810
.3803628869
.1901814436
-.1473139125
-.2196026152
-.2490059603
-.2455231878
-.1901814436
.1098013076
.1245029801
.3472222222
.2689571769
-.1552824984
-.4252586361
-.3294039229
.4910463757
.2689571765
.2083333333
-.1202813059
-.3294039225
-.2551551812
.3803628867
.1901814435
.1473139128
-.2196026152
-.2490059601
-.4910463757e-1
-.8505172722e-1
-.1098013076
-.5567942541e-1
.6944444444e-1
.1202813062
.1552824984
-.8505172722e-1
-.1473139128
.9820927513e-1
.5379143531e-1
.9316949897e-1
.1202813059
-.6588078447e-1
-.1141088660
.7607257735e-1
.3803628871e-1
.6588078455e-1
-.4392052305e-1
-.4980119202e-1
-.4910463757e-1
.8505172718e-1
-.1098013076
.5567942540e-1
.6944444444e-1
-.1202813061
.1552824984
-.8505172718e-1
.1473139128
.9820927513e-1
-.5379143537e-1
.9316949905e-1
-.1202813061
.6588078455e-1
-.1141088661
-.7607257742e-1
.3803628871e-1
-.6588078455e-1
-.4392052305e-1
.4980119204e-1
-.2455231878
.1901814434
.1098013076
-.1245029801
.3472222222
-.2689571765
-.1552824984
-.4252586361
.3294039225
.4910463757
-.2689571769
.2083333333
.1202813061
.3294039229
-.2551551812
-.3803628873
.1901814436
-.1473139125
-.2196026152
.2490059603
-.2455231878
-.1901814435
.1098013076
.1245029801
.3472222222
.2689571768
-.1552824984
-.4252586359
-.3294039229
.4910463757
-.2689571768
-.2083333333
.1202813061
.3294039229
.2551551816
-.3803628871
.1901814435
.1473139128
-.2196026152
.2490059602
-.4910463757e-1
-.8505172718e-1
-.1098013076
-.5567942540e-1
.6944444444e-1
.1202813061
.1552824984
-.8505172718e-1
-.1473139128
.9820927513e-1
-.5379143537e-1
-.9316949905e-1
-.1202813061
.6588078455e-1
.1141088661
-.7607257742e-1
.3803628871e-1
.6588078455e-1
-.4392052305e-1
.4980119204e-1
-.9820927513e-2
.1701034544e-1
-.2196026153e-1
.1113588508e-1
.1388888889e-1
-.2405626122e-1
.3105649968e-1
-.1701034544e-1
.2946278254e-1
.1964185503e-1
-.2405626122e-1
.4166666667e-1
-.5379143537e-1
.2946278254e-1
-.5103103630e-1
-.3402069088e-1
-.3803628871e-1
.6588078457e-1
.4392052306e-1
-.2227177016e-1
-.4910463757e-1
.3803628867e-1
.2196026152e-1
-.2490059601e-1
.6944444444e-1
-.5379143531e-1
-.3105649968e-1
-.8505172722e-1
.6588078447e-1
.9820927513e-1
-.1202813062
.9316949897e-1
.5379143537e-1
.1473139128
-.1141088660
-.1701034544
-.1901814436
.1473139125
.2196026152
-.1113588508
-.4910463757e-1
-.3803628871e-1
.2196026152e-1
.2490059602e-1
.6944444444e-1
.5379143537e-1
-.3105649968e-1
-.8505172718e-1
-.6588078455e-1
.9820927513e-1
-.1202813061
-.9316949905e-1
.5379143537e-1
.1473139128
.1141088661
-.1701034544
-.1901814435
-.1473139128
.2196026152
-.1113588508
-.9820927513e-2
-.1701034544e-1
-.2196026153e-1
-.1113588508e-1
.1388888889e-1
.2405626122e-1
.3105649968e-1
-.1701034544e-1
-.2946278254e-1
.1964185503e-1
-.2405626122e-1
-.4166666667e-1
-.5379143537e-1
.2946278254e-1
.5103103630e-1
-.3402069088e-1
-.3803628871e-1
-.6588078457e-1
.4392052306e-1
-.2227177016e-1
