CPUS: 0 1 2 3 4 5 6 7 8 9 10 11
Problem size with different number of CPUs using function optimization

THREADS	INITIAL_DEPTH	MTPS	SPEEDUP_PER	TIMESTEPS	TIMESTEP_SIZE	AVERAGE_TRIANGLES	AVERAGE_PARTITIONS
1	12	4.33754	1.0000	12753	0.278857	66293.4	48.4983
2	12	8.42762	.9714	12753	0.278857	66293.4	48.4983
3	12	12.2451	.9410	12753	0.278857	66293.4	48.4983
4	12	16.0286	.9238	12753	0.278857	66293.4	48.4983
5	12	19.5438	.9011	12753	0.278857	66293.4	48.4983
6	12	22.943	.8815	12753	0.278857	66293.4	48.4983
7	12	24.8642	.8189	12753	0.278857	66293.4	48.4983
8	12	27.0807	.7804	12753	0.278857	66293.4	48.4983
9	12	29.0704	.7446	12753	0.278857	66293.4	48.4983
10	12	30.8987	.7123	12753	0.278857	66293.4	48.4983
11	12	32.8493	.6884	12753	0.278857	66293.4	48.4983
12	12	34.3147	.6592	12753	0.278857	66293.4	48.4983

THREADS	INITIAL_DEPTH	MTPS	SPEEDUP_PER	TIMESTEPS	TIMESTEP_SIZE	AVERAGE_TRIANGLES	AVERAGE_PARTITIONS
1	13	4.06044	1.0000	17919	0.197186	122848	64.1522
2	13	7.86468	.9684	17919	0.197186	122848	64.1522
3	13	11.4865	.9429	17919	0.197186	122848	64.1522
4	13	14.8606	.9149	17919	0.197186	122848	64.1522
5	13	18.3156	.9021	17919	0.197186	122848	64.1522
6	13	21.3664	.8770	17919	0.197186	122848	64.1522
7	13	24.2189	.8520	17919	0.197186	122848	64.1522
8	13	26.9054	.8282	17919	0.197186	122848	64.1522
9	13	29.5839	.8095	17919	0.197186	122848	64.1522
10	13	31.5451	.7768	17919	0.197186	122848	64.1522
11	13	34.0614	.7625	17919	0.197186	122848	64.1522
12	13	35.5047	.7286	17919	0.197186	122848	64.1522

THREADS	INITIAL_DEPTH	MTPS	SPEEDUP_PER	TIMESTEPS	TIMESTEP_SIZE	AVERAGE_TRIANGLES	AVERAGE_PARTITIONS
1	14	4.06865	1.0000	25312	0.139428	238091	84.484
2	14	7.82089	.9611	25312	0.139428	238091	84.484
3	14	11.3223	.9276	25312	0.139428	238091	84.484
4	14	14.5576	.8944	25312	0.139428	238091	84.484
5	14	17.5443	.8624	25312	0.139428	238091	84.484
6	14	20.4233	.8366	25312	0.139428	238091	84.484
7	14	23.8903	.8388	25312	0.139428	238091	84.484
8	14	27.1503	.8341	25312	0.139428	238091	84.484
9	14	30.0019	.8193	25312	0.139428	238091	84.484
10	14	32.2856	.7935	25312	0.139428	238091	84.484
11	14	34.4534	.7698	25312	0.139428	238091	84.484
12	14	35.842	.7341	25312	0.139428	238091	84.484

THREADS	INITIAL_DEPTH	MTPS	SPEEDUP_PER	TIMESTEPS	TIMESTEP_SIZE	AVERAGE_TRIANGLES	AVERAGE_PARTITIONS
1	15	3.95611	1.0000	35594	0.0985922	454542	124.192
2	15	7.58649	.9588	35594	0.0985922	454542	124.192
3	15	11.0153	.9281	35594	0.0985922	454542	124.192
4	15	14.0959	.8907	35594	0.0985922	454542	124.192
5	15	16.9642	.8576	35594	0.0985922	454542	124.192
6	15	19.3435	.8149	35594	0.0985922	454542	124.192
7	15	23.096	.8340	35594	0.0985922	454542	124.192
8	15	26.3549	.8327	35594	0.0985922	454542	124.192
9	15	28.9157	.8121	35594	0.0985922	454542	124.192
10	15	31.0041	.7837	35594	0.0985922	454542	124.192
11	15	32.9389	.7569	35594	0.0985922	454542	124.192
12	15	34.285	.7221	35594	0.0985922	454542	124.192

THREADS	INITIAL_DEPTH	MTPS	SPEEDUP_PER	TIMESTEPS	TIMESTEP_SIZE	AVERAGE_TRIANGLES	AVERAGE_PARTITIONS
1	16	4.09653	1.0000	50210	0.069714	844746	148.832
2	16	7.84892	.9579	50210	0.069714	844746	148.832
3	16	11.3427	.9229	50210	0.069714	844746	148.832
4	16	14.4493	.8818	50210	0.069714	844746	148.832
5	16	19.316	.9430	50210	0.069714	844746	148.832
6	16	19.6432	.7991	50210	0.069714	844746	148.832
7	16	23.4653	.8182	50210	0.069714	844746	148.832
8	16	26.6479	.8131	50210	0.069714	844746	148.832
9	16	29.206	.7921	50210	0.069714	844746	148.832
10	16	31.1003	.7591	50210	0.069714	844746	148.832
11	16	32.7807	.7274	50210	0.069714	844746	148.832
12	16	37.5286	.7634	50210	0.069714	844746	148.832

THREADS	INITIAL_DEPTH	MTPS	SPEEDUP_PER	TIMESTEPS	TIMESTEP_SIZE	AVERAGE_TRIANGLES	AVERAGE_PARTITIONS
