STARTING WORLD SCHEDULER SERVER
CLIENT SETUP: adding client 39095
 + TIMESTAMP: 0.364678
START TIMESTAMP: 0.364726
+++++++++++++++++++++++++++++++++++++++++++++++++++++++++++
+ Client Mapping:
  > Client 39095 (0):	

+ Core Mapping:	0 0 0 0 0 0 0 0 0 0 0 0 0 0 0 0 0 0 0 0 0 0 0 0 0 0 0 0 0 0 0 0 0 0 0 0 0 0 0 0 
+ Optimal point: 
+++++++++++++++++++++++++++++++++++++++++++++++++++++++++++
INVADE: client 39095
 + TIMESTAMP: 0.364875
RESSOURCE DISTRIBUTION CHANGED
++++++++++++++++++++++++++++++++++++++++++++++++
INVADE (39095)
  + pid: 39095
  + min_cores: 1
  + max_cores: 512
  + scalability graph: 
1, 1.39494, 1.5699, 1.6742, 1.74538, 1.79792, 1.83875, 1.87167, 1.89893, 1.922, 1.94184, 1.95915, 1.97442, 1.98802, 2.00024, 2.0113, 2.02136, 2.03058, 2.03906, 2.04689, 2.05415, 2.06092, 2.06724, 2.07316, 2.07872, 2.08396, 2.0889, 2.09358, 2.09801, 2.10222, 2.10622, 2.11003, 2.11367, 2.11715, 2.12048, 2.12367, 2.12672, 2.12966, 2.13248, 2.1352, 
Number of clients: 1

+++++++++++++++++++++++++++++++++++++++++++++++++++++++++++
+ Client Mapping:
  > Client 39095 (40):	0 1 2 3 4 5 6 7 8 9 10 11 12 13 14 15 16 17 18 19 20 21 22 23 24 25 26 27 28 29 30 31 32 33 34 35 36 37 38 39 

+ Core Mapping:	39095 39095 39095 39095 39095 39095 39095 39095 39095 39095 39095 39095 39095 39095 39095 39095 39095 39095 39095 39095 39095 39095 39095 39095 39095 39095 39095 39095 39095 39095 39095 39095 39095 39095 39095 39095 39095 39095 39095 39095 
+ Optimal point: 40 
+++++++++++++++++++++++++++++++++++++++++++++++++++++++++++
CLIENT SETUP: adding client 39092
 + TIMESTAMP: 0.3881
+++++++++++++++++++++++++++++++++++++++++++++++++++++++++++
+ Client Mapping:
  > Client 39095 (40):	0 1 2 3 4 5 6 7 8 9 10 11 12 13 14 15 16 17 18 19 20 21 22 23 24 25 26 27 28 29 30 31 32 33 34 35 36 37 38 39 
  > Client 39092 (0):	

+ Core Mapping:	39095 39095 39095 39095 39095 39095 39095 39095 39095 39095 39095 39095 39095 39095 39095 39095 39095 39095 39095 39095 39095 39095 39095 39095 39095 39095 39095 39095 39095 39095 39095 39095 39095 39095 39095 39095 39095 39095 39095 39095 
+ Optimal point: 40 
+++++++++++++++++++++++++++++++++++++++++++++++++++++++++++
INVADE: client 39092
 + TIMESTAMP: 0.388189
CLIENT SETUP: adding client 39096
 + TIMESTAMP: 0.388637
+++++++++++++++++++++++++++++++++++++++++++++++++++++++++++
+ Client Mapping:
  > Client 39095 (40):	0 1 2 3 4 5 6 7 8 9 10 11 12 13 14 15 16 17 18 19 20 21 22 23 24 25 26 27 28 29 30 31 32 33 34 35 36 37 38 39 
  > Client 39092 (0):	
  > Client 39096 (0):	

+ Core Mapping:	39095 39095 39095 39095 39095 39095 39095 39095 39095 39095 39095 39095 39095 39095 39095 39095 39095 39095 39095 39095 39095 39095 39095 39095 39095 39095 39095 39095 39095 39095 39095 39095 39095 39095 39095 39095 39095 39095 39095 39095 
+ Optimal point: 20 20 
+++++++++++++++++++++++++++++++++++++++++++++++++++++++++++
INVADE: client 39096
 + TIMESTAMP: 0.388751
CLIENT SETUP: adding client 39094
 + TIMESTAMP: 0.391434
+++++++++++++++++++++++++++++++++++++++++++++++++++++++++++
+ Client Mapping:
  > Client 39095 (40):	0 1 2 3 4 5 6 7 8 9 10 11 12 13 14 15 16 17 18 19 20 21 22 23 24 25 26 27 28 29 30 31 32 33 34 35 36 37 38 39 
  > Client 39092 (0):	
  > Client 39096 (0):	
  > Client 39094 (0):	

+ Core Mapping:	39095 39095 39095 39095 39095 39095 39095 39095 39095 39095 39095 39095 39095 39095 39095 39095 39095 39095 39095 39095 39095 39095 39095 39095 39095 39095 39095 39095 39095 39095 39095 39095 39095 39095 39095 39095 39095 39095 39095 39095 
+ Optimal point: 14 13 13 
+++++++++++++++++++++++++++++++++++++++++++++++++++++++++++
INVADE: client 39094
 + TIMESTAMP: 0.391552
CLIENT SETUP: adding client 39093
 + TIMESTAMP: 0.395827
+++++++++++++++++++++++++++++++++++++++++++++++++++++++++++
+ Client Mapping:
  > Client 39095 (40):	0 1 2 3 4 5 6 7 8 9 10 11 12 13 14 15 16 17 18 19 20 21 22 23 24 25 26 27 28 29 30 31 32 33 34 35 36 37 38 39 
  > Client 39092 (0):	
  > Client 39096 (0):	
  > Client 39094 (0):	
  > Client 39093 (0):	

+ Core Mapping:	39095 39095 39095 39095 39095 39095 39095 39095 39095 39095 39095 39095 39095 39095 39095 39095 39095 39095 39095 39095 39095 39095 39095 39095 39095 39095 39095 39095 39095 39095 39095 39095 39095 39095 39095 39095 39095 39095 39095 39095 
+ Optimal point: 10 10 10 10 
+++++++++++++++++++++++++++++++++++++++++++++++++++++++++++
INVADE: client 39093
 + TIMESTAMP: 0.396055
++++++++++++++++++++++++++++++++++++++++++++++++
 + TIMESTAMP: 0.464577
REINVADE (39095)
  + pid: 39095
  + min_cores: 1
  + max_cores: 512
  + scalability graph: 
1, 1.39494, 1.5699, 1.6742, 1.74538, 1.79792, 1.83875, 1.87167, 1.89893, 1.922, 1.94184, 1.95915, 1.97442, 1.98802, 2.00024, 2.0113, 2.02136, 2.03058, 2.03906, 2.04689, 2.05415, 2.06092, 2.06724, 2.07316, 2.07872, 2.08396, 2.0889, 2.09358, 2.09801, 2.10222, 2.10622, 2.11003, 2.11367, 2.11715, 2.12048, 2.12367, 2.12672, 2.12966, 2.13248, 2.1352, 
Number of clients: 5

+++++++++++++++++++++++++++++++++++++++++++++++++++++++++++
+ Client Mapping:
  > Client 39095 (8):	32 33 34 35 36 37 38 39 
  > Client 39092 (0):	
  > Client 39096 (0):	
  > Client 39094 (0):	
  > Client 39093 (0):	

+ Core Mapping:	0 0 0 0 0 0 0 0 0 0 0 0 0 0 0 0 0 0 0 0 0 0 0 0 0 0 0 0 0 0 0 0 39095 39095 39095 39095 39095 39095 39095 39095 
+ Optimal point: 8 8 8 8 8 
+++++++++++++++++++++++++++++++++++++++++++++++++++++++++++
CLIENT SETUP: adding client 39097
 + TIMESTAMP: 0.493049
+++++++++++++++++++++++++++++++++++++++++++++++++++++++++++
+ Client Mapping:
  > Client 39095 (8):	32 33 34 35 36 37 38 39 
  > Client 39092 (0):	
  > Client 39096 (0):	
  > Client 39094 (0):	
  > Client 39093 (0):	
  > Client 39097 (0):	

+ Core Mapping:	0 0 0 0 0 0 0 0 0 0 0 0 0 0 0 0 0 0 0 0 0 0 0 0 0 0 0 0 0 0 0 0 39095 39095 39095 39095 39095 39095 39095 39095 
+ Optimal point: 8 8 8 8 8 
+++++++++++++++++++++++++++++++++++++++++++++++++++++++++++
INVADE: client 39097
 + TIMESTAMP: 0.493507
RESSOURCE DISTRIBUTION CHANGED
++++++++++++++++++++++++++++++++++++++++++++++++
INVADE (39097)
  + pid: 39097
  + min_cores: 1
  + max_cores: 512
  + scalability graph: 
1, 1.39494, 1.5699, 1.6742, 1.74538, 1.79792, 1.83875, 1.87167, 1.89893, 1.922, 1.94184, 1.95915, 1.97442, 1.98802, 2.00024, 2.0113, 2.02136, 2.03058, 2.03906, 2.04689, 2.05415, 2.06092, 2.06724, 2.07316, 2.07872, 2.08396, 2.0889, 2.09358, 2.09801, 2.10222, 2.10622, 2.11003, 2.11367, 2.11715, 2.12048, 2.12367, 2.12672, 2.12966, 2.13248, 2.1352, 
Number of clients: 6

+++++++++++++++++++++++++++++++++++++++++++++++++++++++++++
+ Client Mapping:
  > Client 39095 (8):	32 33 34 35 36 37 38 39 
  > Client 39092 (0):	
  > Client 39096 (0):	
  > Client 39094 (0):	
  > Client 39093 (0):	
  > Client 39097 (7):	0 1 2 3 4 5 6 

+ Core Mapping:	39097 39097 39097 39097 39097 39097 39097 0 0 0 0 0 0 0 0 0 0 0 0 0 0 0 0 0 0 0 0 0 0 0 0 0 39095 39095 39095 39095 39095 39095 39095 39095 
+ Optimal point: 7 7 7 6 6 7 
+++++++++++++++++++++++++++++++++++++++++++++++++++++++++++
++++++++++++++++++++++++++++++++++++++++++++++++
 + TIMESTAMP: 0.524061
REINVADE (39095)
  + pid: 39095
  + min_cores: 1
  + max_cores: 512
  + scalability graph: 
1, 1.39494, 1.5699, 1.6742, 1.74538, 1.79792, 1.83875, 1.87167, 1.89893, 1.922, 1.94184, 1.95915, 1.97442, 1.98802, 2.00024, 2.0113, 2.02136, 2.03058, 2.03906, 2.04689, 2.05415, 2.06092, 2.06724, 2.07316, 2.07872, 2.08396, 2.0889, 2.09358, 2.09801, 2.10222, 2.10622, 2.11003, 2.11367, 2.11715, 2.12048, 2.12367, 2.12672, 2.12966, 2.13248, 2.1352, 
Number of clients: 6

+++++++++++++++++++++++++++++++++++++++++++++++++++++++++++
+ Client Mapping:
  > Client 39095 (7):	33 34 35 36 37 38 39 
  > Client 39092 (0):	
  > Client 39096 (0):	
  > Client 39094 (0):	
  > Client 39093 (0):	
  > Client 39097 (7):	0 1 2 3 4 5 6 

+ Core Mapping:	39097 39097 39097 39097 39097 39097 39097 0 0 0 0 0 0 0 0 0 0 0 0 0 0 0 0 0 0 0 0 0 0 0 0 0 0 39095 39095 39095 39095 39095 39095 39095 
+ Optimal point: 7 7 7 6 6 7 
+++++++++++++++++++++++++++++++++++++++++++++++++++++++++++
++++++++++++++++++++++++++++++++++++++++++++++++
 + TIMESTAMP: 0.771241
REINVADE (39092)
  + pid: 39092
  + min_cores: 1
  + max_cores: 512
  + scalability graph: 
1, 1.39494, 1.5699, 1.6742, 1.74538, 1.79792, 1.83875, 1.87167, 1.89893, 1.922, 1.94184, 1.95915, 1.97442, 1.98802, 2.00024, 2.0113, 2.02136, 2.03058, 2.03906, 2.04689, 2.05415, 2.06092, 2.06724, 2.07316, 2.07872, 2.08396, 2.0889, 2.09358, 2.09801, 2.10222, 2.10622, 2.11003, 2.11367, 2.11715, 2.12048, 2.12367, 2.12672, 2.12966, 2.13248, 2.1352, 
Number of clients: 6

+++++++++++++++++++++++++++++++++++++++++++++++++++++++++++
+ Client Mapping:
  > Client 39095 (7):	33 34 35 36 37 38 39 
  > Client 39092 (7):	7 8 9 10 11 12 13 
  > Client 39096 (0):	
  > Client 39094 (0):	
  > Client 39093 (0):	
  > Client 39097 (7):	0 1 2 3 4 5 6 

+ Core Mapping:	39097 39097 39097 39097 39097 39097 39097 39092 39092 39092 39092 39092 39092 39092 0 0 0 0 0 0 0 0 0 0 0 0 0 0 0 0 0 0 0 39095 39095 39095 39095 39095 39095 39095 
+ Optimal point: 7 7 7 6 6 7 
+++++++++++++++++++++++++++++++++++++++++++++++++++++++++++
++++++++++++++++++++++++++++++++++++++++++++++++
 + TIMESTAMP: 0.900721
REINVADE (39096)
  + pid: 39096
  + min_cores: 1
  + max_cores: 512
  + scalability graph: 
1, 1.39494, 1.5699, 1.6742, 1.74538, 1.79792, 1.83875, 1.87167, 1.89893, 1.922, 1.94184, 1.95915, 1.97442, 1.98802, 2.00024, 2.0113, 2.02136, 2.03058, 2.03906, 2.04689, 2.05415, 2.06092, 2.06724, 2.07316, 2.07872, 2.08396, 2.0889, 2.09358, 2.09801, 2.10222, 2.10622, 2.11003, 2.11367, 2.11715, 2.12048, 2.12367, 2.12672, 2.12966, 2.13248, 2.1352, 
Number of clients: 6

+++++++++++++++++++++++++++++++++++++++++++++++++++++++++++
+ Client Mapping:
  > Client 39095 (7):	33 34 35 36 37 38 39 
  > Client 39092 (7):	7 8 9 10 11 12 13 
  > Client 39096 (7):	14 15 16 17 18 19 20 
  > Client 39094 (0):	
  > Client 39093 (0):	
  > Client 39097 (7):	0 1 2 3 4 5 6 

+ Core Mapping:	39097 39097 39097 39097 39097 39097 39097 39092 39092 39092 39092 39092 39092 39092 39096 39096 39096 39096 39096 39096 39096 0 0 0 0 0 0 0 0 0 0 0 0 39095 39095 39095 39095 39095 39095 39095 
+ Optimal point: 7 7 7 6 6 7 
+++++++++++++++++++++++++++++++++++++++++++++++++++++++++++
++++++++++++++++++++++++++++++++++++++++++++++++
 + TIMESTAMP: 0.913745
REINVADE (39094)
  + pid: 39094
  + min_cores: 1
  + max_cores: 512
  + scalability graph: 
1, 1.39494, 1.5699, 1.6742, 1.74538, 1.79792, 1.83875, 1.87167, 1.89893, 1.922, 1.94184, 1.95915, 1.97442, 1.98802, 2.00024, 2.0113, 2.02136, 2.03058, 2.03906, 2.04689, 2.05415, 2.06092, 2.06724, 2.07316, 2.07872, 2.08396, 2.0889, 2.09358, 2.09801, 2.10222, 2.10622, 2.11003, 2.11367, 2.11715, 2.12048, 2.12367, 2.12672, 2.12966, 2.13248, 2.1352, 
Number of clients: 6

+++++++++++++++++++++++++++++++++++++++++++++++++++++++++++
+ Client Mapping:
  > Client 39095 (7):	33 34 35 36 37 38 39 
  > Client 39092 (7):	7 8 9 10 11 12 13 
  > Client 39096 (7):	14 15 16 17 18 19 20 
  > Client 39094 (6):	21 22 23 24 25 26 
  > Client 39093 (0):	
  > Client 39097 (7):	0 1 2 3 4 5 6 

+ Core Mapping:	39097 39097 39097 39097 39097 39097 39097 39092 39092 39092 39092 39092 39092 39092 39096 39096 39096 39096 39096 39096 39096 39094 39094 39094 39094 39094 39094 0 0 0 0 0 0 39095 39095 39095 39095 39095 39095 39095 
+ Optimal point: 7 7 7 6 6 7 
+++++++++++++++++++++++++++++++++++++++++++++++++++++++++++
++++++++++++++++++++++++++++++++++++++++++++++++
 + TIMESTAMP: 0.932713
REINVADE (39093)
  + pid: 39093
  + min_cores: 1
  + max_cores: 512
  + scalability graph: 
1, 1.39494, 1.5699, 1.6742, 1.74538, 1.79792, 1.83875, 1.87167, 1.89893, 1.922, 1.94184, 1.95915, 1.97442, 1.98802, 2.00024, 2.0113, 2.02136, 2.03058, 2.03906, 2.04689, 2.05415, 2.06092, 2.06724, 2.07316, 2.07872, 2.08396, 2.0889, 2.09358, 2.09801, 2.10222, 2.10622, 2.11003, 2.11367, 2.11715, 2.12048, 2.12367, 2.12672, 2.12966, 2.13248, 2.1352, 
Number of clients: 6

+++++++++++++++++++++++++++++++++++++++++++++++++++++++++++
+ Client Mapping:
  > Client 39095 (7):	33 34 35 36 37 38 39 
  > Client 39092 (7):	7 8 9 10 11 12 13 
  > Client 39096 (7):	14 15 16 17 18 19 20 
  > Client 39094 (6):	21 22 23 24 25 26 
  > Client 39093 (6):	27 28 29 30 31 32 
  > Client 39097 (7):	0 1 2 3 4 5 6 

+ Core Mapping:	39097 39097 39097 39097 39097 39097 39097 39092 39092 39092 39092 39092 39092 39092 39096 39096 39096 39096 39096 39096 39096 39094 39094 39094 39094 39094 39094 39093 39093 39093 39093 39093 39093 39095 39095 39095 39095 39095 39095 39095 
+ Optimal point: 7 7 7 6 6 7 
+++++++++++++++++++++++++++++++++++++++++++++++++++++++++++
CLIENT SHUTDOWN: client 39095
 + TIMESTAMP: 1022.55
+++++++++++++++++++++++++++++++++++++++++++++++++++++++++++
+ Client Mapping:
  > Client 39095 (0):	
  > Client 39092 (7):	7 8 9 10 11 12 13 
  > Client 39096 (7):	14 15 16 17 18 19 20 
  > Client 39094 (6):	21 22 23 24 25 26 
  > Client 39093 (6):	27 28 29 30 31 32 
  > Client 39097 (7):	0 1 2 3 4 5 6 

+ Core Mapping:	39097 39097 39097 39097 39097 39097 39097 39092 39092 39092 39092 39092 39092 39092 39096 39096 39096 39096 39096 39096 39096 39094 39094 39094 39094 39094 39094 39093 39093 39093 39093 39093 39093 0 0 0 0 0 0 0 
+ Optimal point: 7 7 7 6 6 7 
+++++++++++++++++++++++++++++++++++++++++++++++++++++++++++
client (39095) shutdown hint: 20954.2
sum_client_shutdown_hint: 20954.2
sum_client_shutdown_hint_div_time: 0
++++++++++++++++++++++++++++++++++++++++++++++++
 + TIMESTAMP: 1022.55
REINVADE (39093)
  + pid: 39093
  + min_cores: 1
  + max_cores: 512
  + scalability graph: 
1, 1.39494, 1.5699, 1.6742, 1.74538, 1.79792, 1.83875, 1.87167, 1.89893, 1.922, 1.94184, 1.95915, 1.97442, 1.98802, 2.00024, 2.0113, 2.02136, 2.03058, 2.03906, 2.04689, 2.05415, 2.06092, 2.06724, 2.07316, 2.07872, 2.08396, 2.0889, 2.09358, 2.09801, 2.10222, 2.10622, 2.11003, 2.11367, 2.11715, 2.12048, 2.12367, 2.12672, 2.12966, 2.13248, 2.1352, 
Number of clients: 5

+++++++++++++++++++++++++++++++++++++++++++++++++++++++++++
+ Client Mapping:
  > Client 39092 (7):	7 8 9 10 11 12 13 
  > Client 39096 (7):	14 15 16 17 18 19 20 
  > Client 39094 (6):	21 22 23 24 25 26 
  > Client 39093 (8):	27 28 29 30 31 32 33 34 
  > Client 39097 (7):	0 1 2 3 4 5 6 

+ Core Mapping:	39097 39097 39097 39097 39097 39097 39097 39092 39092 39092 39092 39092 39092 39092 39096 39096 39096 39096 39096 39096 39096 39094 39094 39094 39094 39094 39094 39093 39093 39093 39093 39093 39093 39093 39093 0 0 0 0 0 
+ Optimal point: 8 8 8 8 8 
+++++++++++++++++++++++++++++++++++++++++++++++++++++++++++
++++++++++++++++++++++++++++++++++++++++++++++++
 + TIMESTAMP: 1022.56
REINVADE (39094)
  + pid: 39094
  + min_cores: 1
  + max_cores: 512
  + scalability graph: 
1, 1.39494, 1.5699, 1.6742, 1.74538, 1.79792, 1.83875, 1.87167, 1.89893, 1.922, 1.94184, 1.95915, 1.97442, 1.98802, 2.00024, 2.0113, 2.02136, 2.03058, 2.03906, 2.04689, 2.05415, 2.06092, 2.06724, 2.07316, 2.07872, 2.08396, 2.0889, 2.09358, 2.09801, 2.10222, 2.10622, 2.11003, 2.11367, 2.11715, 2.12048, 2.12367, 2.12672, 2.12966, 2.13248, 2.1352, 
Number of clients: 5

+++++++++++++++++++++++++++++++++++++++++++++++++++++++++++
+ Client Mapping:
  > Client 39092 (7):	7 8 9 10 11 12 13 
  > Client 39096 (7):	14 15 16 17 18 19 20 
  > Client 39094 (8):	21 22 23 24 25 26 35 36 
  > Client 39093 (8):	27 28 29 30 31 32 33 34 
  > Client 39097 (7):	0 1 2 3 4 5 6 

+ Core Mapping:	39097 39097 39097 39097 39097 39097 39097 39092 39092 39092 39092 39092 39092 39092 39096 39096 39096 39096 39096 39096 39096 39094 39094 39094 39094 39094 39094 39093 39093 39093 39093 39093 39093 39093 39093 39094 39094 0 0 0 
+ Optimal point: 8 8 8 8 8 
+++++++++++++++++++++++++++++++++++++++++++++++++++++++++++
++++++++++++++++++++++++++++++++++++++++++++++++
 + TIMESTAMP: 1022.56
REINVADE (39096)
  + pid: 39096
  + min_cores: 1
  + max_cores: 512
  + scalability graph: 
1, 1.39494, 1.5699, 1.6742, 1.74538, 1.79792, 1.83875, 1.87167, 1.89893, 1.922, 1.94184, 1.95915, 1.97442, 1.98802, 2.00024, 2.0113, 2.02136, 2.03058, 2.03906, 2.04689, 2.05415, 2.06092, 2.06724, 2.07316, 2.07872, 2.08396, 2.0889, 2.09358, 2.09801, 2.10222, 2.10622, 2.11003, 2.11367, 2.11715, 2.12048, 2.12367, 2.12672, 2.12966, 2.13248, 2.1352, 
Number of clients: 5

+++++++++++++++++++++++++++++++++++++++++++++++++++++++++++
+ Client Mapping:
  > Client 39092 (7):	7 8 9 10 11 12 13 
  > Client 39096 (8):	14 15 16 17 18 19 20 37 
  > Client 39094 (8):	21 22 23 24 25 26 35 36 
  > Client 39093 (8):	27 28 29 30 31 32 33 34 
  > Client 39097 (7):	0 1 2 3 4 5 6 

+ Core Mapping:	39097 39097 39097 39097 39097 39097 39097 39092 39092 39092 39092 39092 39092 39092 39096 39096 39096 39096 39096 39096 39096 39094 39094 39094 39094 39094 39094 39093 39093 39093 39093 39093 39093 39093 39093 39094 39094 39096 0 0 
+ Optimal point: 8 8 8 8 8 
+++++++++++++++++++++++++++++++++++++++++++++++++++++++++++
++++++++++++++++++++++++++++++++++++++++++++++++
 + TIMESTAMP: 1022.57
REINVADE (39097)
  + pid: 39097
  + min_cores: 1
  + max_cores: 512
  + scalability graph: 
1, 1.39494, 1.5699, 1.6742, 1.74538, 1.79792, 1.83875, 1.87167, 1.89893, 1.922, 1.94184, 1.95915, 1.97442, 1.98802, 2.00024, 2.0113, 2.02136, 2.03058, 2.03906, 2.04689, 2.05415, 2.06092, 2.06724, 2.07316, 2.07872, 2.08396, 2.0889, 2.09358, 2.09801, 2.10222, 2.10622, 2.11003, 2.11367, 2.11715, 2.12048, 2.12367, 2.12672, 2.12966, 2.13248, 2.1352, 
Number of clients: 5

+++++++++++++++++++++++++++++++++++++++++++++++++++++++++++
+ Client Mapping:
  > Client 39092 (7):	7 8 9 10 11 12 13 
  > Client 39096 (8):	14 15 16 17 18 19 20 37 
  > Client 39094 (8):	21 22 23 24 25 26 35 36 
  > Client 39093 (8):	27 28 29 30 31 32 33 34 
  > Client 39097 (8):	0 1 2 3 4 5 6 38 

+ Core Mapping:	39097 39097 39097 39097 39097 39097 39097 39092 39092 39092 39092 39092 39092 39092 39096 39096 39096 39096 39096 39096 39096 39094 39094 39094 39094 39094 39094 39093 39093 39093 39093 39093 39093 39093 39093 39094 39094 39096 39097 0 
+ Optimal point: 8 8 8 8 8 
+++++++++++++++++++++++++++++++++++++++++++++++++++++++++++
++++++++++++++++++++++++++++++++++++++++++++++++
 + TIMESTAMP: 1022.57
REINVADE (39092)
  + pid: 39092
  + min_cores: 1
  + max_cores: 512
  + scalability graph: 
1, 1.39494, 1.5699, 1.6742, 1.74538, 1.79792, 1.83875, 1.87167, 1.89893, 1.922, 1.94184, 1.95915, 1.97442, 1.98802, 2.00024, 2.0113, 2.02136, 2.03058, 2.03906, 2.04689, 2.05415, 2.06092, 2.06724, 2.07316, 2.07872, 2.08396, 2.0889, 2.09358, 2.09801, 2.10222, 2.10622, 2.11003, 2.11367, 2.11715, 2.12048, 2.12367, 2.12672, 2.12966, 2.13248, 2.1352, 
Number of clients: 5

+++++++++++++++++++++++++++++++++++++++++++++++++++++++++++
+ Client Mapping:
  > Client 39092 (8):	7 8 9 10 11 12 13 39 
  > Client 39096 (8):	14 15 16 17 18 19 20 37 
  > Client 39094 (8):	21 22 23 24 25 26 35 36 
  > Client 39093 (8):	27 28 29 30 31 32 33 34 
  > Client 39097 (8):	0 1 2 3 4 5 6 38 

+ Core Mapping:	39097 39097 39097 39097 39097 39097 39097 39092 39092 39092 39092 39092 39092 39092 39096 39096 39096 39096 39096 39096 39096 39094 39094 39094 39094 39094 39094 39093 39093 39093 39093 39093 39093 39093 39093 39094 39094 39096 39097 39092 
+ Optimal point: 8 8 8 8 8 
+++++++++++++++++++++++++++++++++++++++++++++++++++++++++++
CLIENT SHUTDOWN: client 39096
 + TIMESTAMP: 1037.36
+++++++++++++++++++++++++++++++++++++++++++++++++++++++++++
+ Client Mapping:
  > Client 39092 (8):	7 8 9 10 11 12 13 39 
  > Client 39096 (0):	
  > Client 39094 (8):	21 22 23 24 25 26 35 36 
  > Client 39093 (8):	27 28 29 30 31 32 33 34 
  > Client 39097 (8):	0 1 2 3 4 5 6 38 

+ Core Mapping:	39097 39097 39097 39097 39097 39097 39097 39092 39092 39092 39092 39092 39092 39092 0 0 0 0 0 0 0 39094 39094 39094 39094 39094 39094 39093 39093 39093 39093 39093 39093 39093 39093 39094 39094 0 39097 39092 
+ Optimal point: 8 8 8 8 8 
+++++++++++++++++++++++++++++++++++++++++++++++++++++++++++
client (39096) shutdown hint: 20954.2
sum_client_shutdown_hint: 41908.4
sum_client_shutdown_hint_div_time: 0
++++++++++++++++++++++++++++++++++++++++++++++++
 + TIMESTAMP: 1037.37
REINVADE (39097)
  + pid: 39097
  + min_cores: 1
  + max_cores: 512
  + scalability graph: 
1, 1.39494, 1.5699, 1.6742, 1.74538, 1.79792, 1.83875, 1.87167, 1.89893, 1.922, 1.94184, 1.95915, 1.97442, 1.98802, 2.00024, 2.0113, 2.02136, 2.03058, 2.03906, 2.04689, 2.05415, 2.06092, 2.06724, 2.07316, 2.07872, 2.08396, 2.0889, 2.09358, 2.09801, 2.10222, 2.10622, 2.11003, 2.11367, 2.11715, 2.12048, 2.12367, 2.12672, 2.12966, 2.13248, 2.1352, 
Number of clients: 4

+++++++++++++++++++++++++++++++++++++++++++++++++++++++++++
+ Client Mapping:
  > Client 39092 (8):	7 8 9 10 11 12 13 39 
  > Client 39094 (8):	21 22 23 24 25 26 35 36 
  > Client 39093 (8):	27 28 29 30 31 32 33 34 
  > Client 39097 (10):	0 1 2 3 4 5 6 38 14 15 

+ Core Mapping:	39097 39097 39097 39097 39097 39097 39097 39092 39092 39092 39092 39092 39092 39092 39097 39097 0 0 0 0 0 39094 39094 39094 39094 39094 39094 39093 39093 39093 39093 39093 39093 39093 39093 39094 39094 0 39097 39092 
+ Optimal point: 10 10 10 10 
+++++++++++++++++++++++++++++++++++++++++++++++++++++++++++
++++++++++++++++++++++++++++++++++++++++++++++++
 + TIMESTAMP: 1037.37
REINVADE (39092)
  + pid: 39092
  + min_cores: 1
  + max_cores: 512
  + scalability graph: 
1, 1.39494, 1.5699, 1.6742, 1.74538, 1.79792, 1.83875, 1.87167, 1.89893, 1.922, 1.94184, 1.95915, 1.97442, 1.98802, 2.00024, 2.0113, 2.02136, 2.03058, 2.03906, 2.04689, 2.05415, 2.06092, 2.06724, 2.07316, 2.07872, 2.08396, 2.0889, 2.09358, 2.09801, 2.10222, 2.10622, 2.11003, 2.11367, 2.11715, 2.12048, 2.12367, 2.12672, 2.12966, 2.13248, 2.1352, 
Number of clients: 4

+++++++++++++++++++++++++++++++++++++++++++++++++++++++++++
+ Client Mapping:
  > Client 39092 (10):	7 8 9 10 11 12 13 39 16 17 
  > Client 39094 (8):	21 22 23 24 25 26 35 36 
  > Client 39093 (8):	27 28 29 30 31 32 33 34 
  > Client 39097 (10):	0 1 2 3 4 5 6 38 14 15 

+ Core Mapping:	39097 39097 39097 39097 39097 39097 39097 39092 39092 39092 39092 39092 39092 39092 39097 39097 39092 39092 0 0 0 39094 39094 39094 39094 39094 39094 39093 39093 39093 39093 39093 39093 39093 39093 39094 39094 0 39097 39092 
+ Optimal point: 10 10 10 10 
+++++++++++++++++++++++++++++++++++++++++++++++++++++++++++
++++++++++++++++++++++++++++++++++++++++++++++++
 + TIMESTAMP: 1037.37
REINVADE (39094)
  + pid: 39094
  + min_cores: 1
  + max_cores: 512
  + scalability graph: 
1, 1.39494, 1.5699, 1.6742, 1.74538, 1.79792, 1.83875, 1.87167, 1.89893, 1.922, 1.94184, 1.95915, 1.97442, 1.98802, 2.00024, 2.0113, 2.02136, 2.03058, 2.03906, 2.04689, 2.05415, 2.06092, 2.06724, 2.07316, 2.07872, 2.08396, 2.0889, 2.09358, 2.09801, 2.10222, 2.10622, 2.11003, 2.11367, 2.11715, 2.12048, 2.12367, 2.12672, 2.12966, 2.13248, 2.1352, 
Number of clients: 4

+++++++++++++++++++++++++++++++++++++++++++++++++++++++++++
+ Client Mapping:
  > Client 39092 (10):	7 8 9 10 11 12 13 39 16 17 
  > Client 39094 (10):	21 22 23 24 25 26 35 36 18 19 
  > Client 39093 (8):	27 28 29 30 31 32 33 34 
  > Client 39097 (10):	0 1 2 3 4 5 6 38 14 15 

+ Core Mapping:	39097 39097 39097 39097 39097 39097 39097 39092 39092 39092 39092 39092 39092 39092 39097 39097 39092 39092 39094 39094 0 39094 39094 39094 39094 39094 39094 39093 39093 39093 39093 39093 39093 39093 39093 39094 39094 0 39097 39092 
+ Optimal point: 10 10 10 10 
+++++++++++++++++++++++++++++++++++++++++++++++++++++++++++
++++++++++++++++++++++++++++++++++++++++++++++++
 + TIMESTAMP: 1037.38
REINVADE (39093)
  + pid: 39093
  + min_cores: 1
  + max_cores: 512
  + scalability graph: 
1, 1.39494, 1.5699, 1.6742, 1.74538, 1.79792, 1.83875, 1.87167, 1.89893, 1.922, 1.94184, 1.95915, 1.97442, 1.98802, 2.00024, 2.0113, 2.02136, 2.03058, 2.03906, 2.04689, 2.05415, 2.06092, 2.06724, 2.07316, 2.07872, 2.08396, 2.0889, 2.09358, 2.09801, 2.10222, 2.10622, 2.11003, 2.11367, 2.11715, 2.12048, 2.12367, 2.12672, 2.12966, 2.13248, 2.1352, 
Number of clients: 4

+++++++++++++++++++++++++++++++++++++++++++++++++++++++++++
+ Client Mapping:
  > Client 39092 (10):	7 8 9 10 11 12 13 39 16 17 
  > Client 39094 (10):	21 22 23 24 25 26 35 36 18 19 
  > Client 39093 (10):	27 28 29 30 31 32 33 34 20 37 
  > Client 39097 (10):	0 1 2 3 4 5 6 38 14 15 

+ Core Mapping:	39097 39097 39097 39097 39097 39097 39097 39092 39092 39092 39092 39092 39092 39092 39097 39097 39092 39092 39094 39094 39093 39094 39094 39094 39094 39094 39094 39093 39093 39093 39093 39093 39093 39093 39093 39094 39094 39093 39097 39092 
+ Optimal point: 10 10 10 10 
+++++++++++++++++++++++++++++++++++++++++++++++++++++++++++
CLIENT SHUTDOWN: client 39092
 + TIMESTAMP: 1037.42
+++++++++++++++++++++++++++++++++++++++++++++++++++++++++++
+ Client Mapping:
  > Client 39092 (0):	
  > Client 39094 (10):	21 22 23 24 25 26 35 36 18 19 
  > Client 39093 (10):	27 28 29 30 31 32 33 34 20 37 
  > Client 39097 (10):	0 1 2 3 4 5 6 38 14 15 

+ Core Mapping:	39097 39097 39097 39097 39097 39097 39097 0 0 0 0 0 0 0 39097 39097 0 0 39094 39094 39093 39094 39094 39094 39094 39094 39094 39093 39093 39093 39093 39093 39093 39093 39093 39094 39094 39093 39097 0 
+ Optimal point: 10 10 10 10 
+++++++++++++++++++++++++++++++++++++++++++++++++++++++++++
client (39092) shutdown hint: 20954.2
sum_client_shutdown_hint: 62862.6
sum_client_shutdown_hint_div_time: 0
++++++++++++++++++++++++++++++++++++++++++++++++
 + TIMESTAMP: 1037.43
REINVADE (39093)
  + pid: 39093
  + min_cores: 1
  + max_cores: 512
  + scalability graph: 
1, 1.39494, 1.5699, 1.6742, 1.74538, 1.79792, 1.83875, 1.87167, 1.89893, 1.922, 1.94184, 1.95915, 1.97442, 1.98802, 2.00024, 2.0113, 2.02136, 2.03058, 2.03906, 2.04689, 2.05415, 2.06092, 2.06724, 2.07316, 2.07872, 2.08396, 2.0889, 2.09358, 2.09801, 2.10222, 2.10622, 2.11003, 2.11367, 2.11715, 2.12048, 2.12367, 2.12672, 2.12966, 2.13248, 2.1352, 
Number of clients: 3

+++++++++++++++++++++++++++++++++++++++++++++++++++++++++++
+ Client Mapping:
  > Client 39094 (10):	21 22 23 24 25 26 35 36 18 19 
  > Client 39093 (13):	27 28 29 30 31 32 33 34 20 37 7 8 9 
  > Client 39097 (10):	0 1 2 3 4 5 6 38 14 15 

+ Core Mapping:	39097 39097 39097 39097 39097 39097 39097 39093 39093 39093 0 0 0 0 39097 39097 0 0 39094 39094 39093 39094 39094 39094 39094 39094 39094 39093 39093 39093 39093 39093 39093 39093 39093 39094 39094 39093 39097 0 
+ Optimal point: 14 13 13 
+++++++++++++++++++++++++++++++++++++++++++++++++++++++++++
++++++++++++++++++++++++++++++++++++++++++++++++
 + TIMESTAMP: 1037.43
REINVADE (39094)
  + pid: 39094
  + min_cores: 1
  + max_cores: 512
  + scalability graph: 
1, 1.39494, 1.5699, 1.6742, 1.74538, 1.79792, 1.83875, 1.87167, 1.89893, 1.922, 1.94184, 1.95915, 1.97442, 1.98802, 2.00024, 2.0113, 2.02136, 2.03058, 2.03906, 2.04689, 2.05415, 2.06092, 2.06724, 2.07316, 2.07872, 2.08396, 2.0889, 2.09358, 2.09801, 2.10222, 2.10622, 2.11003, 2.11367, 2.11715, 2.12048, 2.12367, 2.12672, 2.12966, 2.13248, 2.1352, 
Number of clients: 3

+++++++++++++++++++++++++++++++++++++++++++++++++++++++++++
+ Client Mapping:
  > Client 39094 (14):	21 22 23 24 25 26 35 36 18 19 10 11 12 13 
  > Client 39093 (13):	27 28 29 30 31 32 33 34 20 37 7 8 9 
  > Client 39097 (10):	0 1 2 3 4 5 6 38 14 15 

+ Core Mapping:	39097 39097 39097 39097 39097 39097 39097 39093 39093 39093 39094 39094 39094 39094 39097 39097 0 0 39094 39094 39093 39094 39094 39094 39094 39094 39094 39093 39093 39093 39093 39093 39093 39093 39093 39094 39094 39093 39097 0 
+ Optimal point: 14 13 13 
+++++++++++++++++++++++++++++++++++++++++++++++++++++++++++
++++++++++++++++++++++++++++++++++++++++++++++++
 + TIMESTAMP: 1037.44
REINVADE (39097)
  + pid: 39097
  + min_cores: 1
  + max_cores: 512
  + scalability graph: 
1, 1.39494, 1.5699, 1.6742, 1.74538, 1.79792, 1.83875, 1.87167, 1.89893, 1.922, 1.94184, 1.95915, 1.97442, 1.98802, 2.00024, 2.0113, 2.02136, 2.03058, 2.03906, 2.04689, 2.05415, 2.06092, 2.06724, 2.07316, 2.07872, 2.08396, 2.0889, 2.09358, 2.09801, 2.10222, 2.10622, 2.11003, 2.11367, 2.11715, 2.12048, 2.12367, 2.12672, 2.12966, 2.13248, 2.1352, 
Number of clients: 3

+++++++++++++++++++++++++++++++++++++++++++++++++++++++++++
+ Client Mapping:
  > Client 39094 (14):	21 22 23 24 25 26 35 36 18 19 10 11 12 13 
  > Client 39093 (13):	27 28 29 30 31 32 33 34 20 37 7 8 9 
  > Client 39097 (13):	0 1 2 3 4 5 6 38 14 15 16 17 39 

+ Core Mapping:	39097 39097 39097 39097 39097 39097 39097 39093 39093 39093 39094 39094 39094 39094 39097 39097 39097 39097 39094 39094 39093 39094 39094 39094 39094 39094 39094 39093 39093 39093 39093 39093 39093 39093 39093 39094 39094 39093 39097 39097 
+ Optimal point: 14 13 13 
+++++++++++++++++++++++++++++++++++++++++++++++++++++++++++
CLIENT SHUTDOWN: client 39097
 + TIMESTAMP: 1049.55
+++++++++++++++++++++++++++++++++++++++++++++++++++++++++++
+ Client Mapping:
  > Client 39094 (14):	21 22 23 24 25 26 35 36 18 19 10 11 12 13 
  > Client 39093 (13):	27 28 29 30 31 32 33 34 20 37 7 8 9 
  > Client 39097 (0):	

+ Core Mapping:	0 0 0 0 0 0 0 39093 39093 39093 39094 39094 39094 39094 0 0 0 0 39094 39094 39093 39094 39094 39094 39094 39094 39094 39093 39093 39093 39093 39093 39093 39093 39093 39094 39094 39093 0 0 
+ Optimal point: 14 13 13 
+++++++++++++++++++++++++++++++++++++++++++++++++++++++++++
client (39097) shutdown hint: 20954.2
sum_client_shutdown_hint: 83816.8
sum_client_shutdown_hint_div_time: 0
++++++++++++++++++++++++++++++++++++++++++++++++
 + TIMESTAMP: 1049.57
REINVADE (39094)
  + pid: 39094
  + min_cores: 1
  + max_cores: 512
  + scalability graph: 
1, 1.39494, 1.5699, 1.6742, 1.74538, 1.79792, 1.83875, 1.87167, 1.89893, 1.922, 1.94184, 1.95915, 1.97442, 1.98802, 2.00024, 2.0113, 2.02136, 2.03058, 2.03906, 2.04689, 2.05415, 2.06092, 2.06724, 2.07316, 2.07872, 2.08396, 2.0889, 2.09358, 2.09801, 2.10222, 2.10622, 2.11003, 2.11367, 2.11715, 2.12048, 2.12367, 2.12672, 2.12966, 2.13248, 2.1352, 
Number of clients: 2

+++++++++++++++++++++++++++++++++++++++++++++++++++++++++++
+ Client Mapping:
  > Client 39094 (20):	21 22 23 24 25 26 35 36 18 19 10 11 12 13 0 1 2 3 4 5 
  > Client 39093 (13):	27 28 29 30 31 32 33 34 20 37 7 8 9 

+ Core Mapping:	39094 39094 39094 39094 39094 39094 0 39093 39093 39093 39094 39094 39094 39094 0 0 0 0 39094 39094 39093 39094 39094 39094 39094 39094 39094 39093 39093 39093 39093 39093 39093 39093 39093 39094 39094 39093 0 0 
+ Optimal point: 20 20 
+++++++++++++++++++++++++++++++++++++++++++++++++++++++++++
++++++++++++++++++++++++++++++++++++++++++++++++
 + TIMESTAMP: 1049.57
REINVADE (39093)
  + pid: 39093
  + min_cores: 1
  + max_cores: 512
  + scalability graph: 
1, 1.39494, 1.5699, 1.6742, 1.74538, 1.79792, 1.83875, 1.87167, 1.89893, 1.922, 1.94184, 1.95915, 1.97442, 1.98802, 2.00024, 2.0113, 2.02136, 2.03058, 2.03906, 2.04689, 2.05415, 2.06092, 2.06724, 2.07316, 2.07872, 2.08396, 2.0889, 2.09358, 2.09801, 2.10222, 2.10622, 2.11003, 2.11367, 2.11715, 2.12048, 2.12367, 2.12672, 2.12966, 2.13248, 2.1352, 
Number of clients: 2

+++++++++++++++++++++++++++++++++++++++++++++++++++++++++++
+ Client Mapping:
  > Client 39094 (20):	21 22 23 24 25 26 35 36 18 19 10 11 12 13 0 1 2 3 4 5 
  > Client 39093 (20):	27 28 29 30 31 32 33 34 20 37 7 8 9 6 14 15 16 17 38 39 

+ Core Mapping:	39094 39094 39094 39094 39094 39094 39093 39093 39093 39093 39094 39094 39094 39094 39093 39093 39093 39093 39094 39094 39093 39094 39094 39094 39094 39094 39094 39093 39093 39093 39093 39093 39093 39093 39093 39094 39094 39093 39093 39093 
+ Optimal point: 20 20 
+++++++++++++++++++++++++++++++++++++++++++++++++++++++++++
CLIENT SHUTDOWN: client 39094
 + TIMESTAMP: 1090.16
+++++++++++++++++++++++++++++++++++++++++++++++++++++++++++
+ Client Mapping:
  > Client 39094 (0):	
  > Client 39093 (20):	27 28 29 30 31 32 33 34 20 37 7 8 9 6 14 15 16 17 38 39 

+ Core Mapping:	0 0 0 0 0 0 39093 39093 39093 39093 0 0 0 0 39093 39093 39093 39093 0 0 39093 0 0 0 0 0 0 39093 39093 39093 39093 39093 39093 39093 39093 0 0 39093 39093 39093 
+ Optimal point: 20 20 
+++++++++++++++++++++++++++++++++++++++++++++++++++++++++++
client (39094) shutdown hint: 20954.2
sum_client_shutdown_hint: 104771
sum_client_shutdown_hint_div_time: 0
++++++++++++++++++++++++++++++++++++++++++++++++
 + TIMESTAMP: 1090.16
REINVADE (39093)
  + pid: 39093
  + min_cores: 1
  + max_cores: 512
  + scalability graph: 
1, 1.39494, 1.5699, 1.6742, 1.74538, 1.79792, 1.83875, 1.87167, 1.89893, 1.922, 1.94184, 1.95915, 1.97442, 1.98802, 2.00024, 2.0113, 2.02136, 2.03058, 2.03906, 2.04689, 2.05415, 2.06092, 2.06724, 2.07316, 2.07872, 2.08396, 2.0889, 2.09358, 2.09801, 2.10222, 2.10622, 2.11003, 2.11367, 2.11715, 2.12048, 2.12367, 2.12672, 2.12966, 2.13248, 2.1352, 
Number of clients: 1

+++++++++++++++++++++++++++++++++++++++++++++++++++++++++++
+ Client Mapping:
  > Client 39093 (40):	27 28 29 30 31 32 33 34 20 37 7 8 9 6 14 15 16 17 38 39 0 1 2 3 4 5 10 11 12 13 18 19 21 22 23 24 25 26 35 36 

+ Core Mapping:	39093 39093 39093 39093 39093 39093 39093 39093 39093 39093 39093 39093 39093 39093 39093 39093 39093 39093 39093 39093 39093 39093 39093 39093 39093 39093 39093 39093 39093 39093 39093 39093 39093 39093 39093 39093 39093 39093 39093 39093 
+ Optimal point: 40 
+++++++++++++++++++++++++++++++++++++++++++++++++++++++++++
CLIENT SHUTDOWN: client 39093
 + TIMESTAMP: 1099.91
+++++++++++++++++++++++++++++++++++++++++++++++++++++++++++
+ Client Mapping:
  > Client 39093 (0):	

+ Core Mapping:	0 0 0 0 0 0 0 0 0 0 0 0 0 0 0 0 0 0 0 0 0 0 0 0 0 0 0 0 0 0 0 0 0 0 0 0 0 0 0 0 
+ Optimal point: 40 
+++++++++++++++++++++++++++++++++++++++++++++++++++++++++++
client (39093) shutdown hint: 20954.2
sum_client_shutdown_hint: 125725
sum_client_shutdown_hint_div_time: 0
END TIMESTAMP: 1099.91
OVERALL TIME: 1099.55
 + sum_client_shutdown_hint: 125725
 + sum_client_shutdown_hint/time: 114.343
sum_client_shutdown_hint: 125725
sum_client_shutdown_hint_div_time: 114.343
