0	0
14.662	0
29.324	0
43.986	0
58.648	0
73.31	0
87.972	0
102.634	0
117.296	0
131.958	0
146.62	0
161.282	0
175.944	0
190.606	0
205.268	0
219.93	0
234.592	0
249.254	0
263.916	0
278.578	0
293.24	0
307.902	0
322.564	0
337.226	0
351.888	0
366.55	0
381.212	0
395.874	0
410.536	0
425.198	0
439.86	0
454.522	0
469.184	0
483.846	0
498.508	0
513.17	0
527.832	0
542.494	0
557.156	0
571.818	0
586.48	0
601.142	0
615.804	0
630.466	0
645.128	0
659.79	0
674.452	0
689.114	0
703.776	0
718.438	0
733.1	0
747.762	0
762.424	0
777.086	0
791.748	0
806.41	0
821.072	0
835.734	0
850.396	0
865.058	0
879.72	0
894.382	0
909.044	0
923.706	0
938.368	0
953.03	0
967.692	0
982.354	0
997.016	0
1011.68	0
1026.34	0
1041	0
1055.66	0
1070.33	0
1084.99	0
1099.65	0
1114.31	0
1128.97	0
1143.64	0
1158.3	0
1172.96	0
1187.62	0
1202.28	0
1216.95	0
1231.61	0
1246.27	0
1260.93	0
1275.59	0
1290.26	0
1304.92	0
1319.58	0
1334.24	0
1348.9	0
1363.57	0
1378.23	0
1392.89	0
1407.55	0
1422.21	0
1436.88	0
1451.54	0
1466.2	0
1480.86	0
1495.52	0
1510.19	0
1524.85	0
1539.51	0
1554.17	0
1568.83	0
1583.5	0
1598.16	0
1612.82	0
1627.48	0
1642.14	0
1656.81	0
1671.47	0
1686.13	0
1700.79	0
1715.45	0
1730.12	0
1744.78	0
1759.44	0
1774.1	0
1788.76	0
1803.43	0
1818.09	0
1832.75	0
1847.41	0
1862.07	0
1876.74	0
1891.4	0
1906.06	0
1920.72	0
1935.38	0
1950.05	0
1964.71	0
1979.37	0
1994.03	0
2008.69	0
2023.36	0
2038.02	0
2052.68	0
2067.34	0
2082	0
2096.67	0
2111.33	0
2125.99	0
2140.65	0
2155.31	0
2169.98	0
2184.64	0
2199.3	0
2213.96	0
2228.62	0
2243.29	0
2257.95	0
2272.61	0
2287.27	0
2301.93	9.09495e-13
2316.6	1.81899e-12
2331.26	2.72848e-12
2345.92	4.54747e-12
2360.58	9.09495e-12
2375.24	1.63709e-11
2389.91	2.91038e-11
2404.57	5.00222e-11
2419.23	8.36735e-11
2433.89	1.40062e-10
2448.55	2.30102e-10
2463.22	3.73802e-10
2477.88	5.98448e-10
2492.54	9.49512e-10
2507.2	1.48702e-09
2521.86	2.30466e-09
2536.53	3.53157e-09
2551.19	5.35601e-09
2565.85	8.03811e-09
2580.51	1.19417e-08
2595.17	1.75651e-08
2609.84	2.55868e-08
2624.5	3.69182e-08
2639.16	5.27752e-08
2653.82	7.47586e-08
2668.48	1.0496e-07
2683.15	1.46085e-07
2697.81	2.01595e-07
2712.47	2.75886e-07
2727.13	3.74481e-07
2741.79	5.0426e-07
2756.45	6.73716e-07
2771.12	8.93238e-07
2785.78	1.17542e-06
2800.44	1.53541e-06
2815.1	1.99123e-06
2829.76	2.5642e-06
2844.43	3.27928e-06
2859.09	4.16542e-06
2873.75	5.256e-06
2888.41	6.58909e-06
2903.07	8.20779e-06
2917.74	1.01605e-05
2932.4	1.2501e-05
2947.06	1.52886e-05
2961.72	1.85885e-05
2976.38	2.2471e-05
2991.05	2.70118e-05
3005.71	3.22917e-05
3020.37	3.83959e-05
3035.03	4.54136e-05
3049.69	5.34372e-05
3064.35	6.25618e-05
3079.02	7.28841e-05
3093.68	8.45013e-05
3108.34	9.75107e-05
3123	0.000112008
3137.66	0.000128088
3152.33	0.000145842
3166.99	0.000165356
3181.65	0.000186715
3196.31	0.000209999
3210.97	0.000235284
3225.63	0.000262641
3240.3	0.000292141
3254.96	0.000323855
3269.62	0.000357854
3284.28	0.000394217
3298.94	0.00043303
3313.6	0.000474396
3328.27	0.00051844
3342.93	0.000565319
3357.59	0.000615228
3372.25	0.000668418
3386.91	0.000725206
3401.57	0.000785996
3416.23	0.0008513
3430.9	0.000921759
3445.56	0.000998175
3460.22	0.00108154
3474.88	0.00117308
3489.54	0.00127431
3504.2	0.00138703
3518.87	0.00151346
3533.53	0.00165626
3548.19	0.00181859
3562.85	0.0020042
3577.51	0.00221752
3592.17	0.00246376
3606.83	0.00274898
3621.5	0.0030802
3636.16	0.0034655
3650.82	0.00391415
3665.48	0.00443671
3680.14	0.00504509
3694.8	0.00575271
3709.46	0.00657455
3724.13	0.00752726
3738.79	0.00862917
3753.45	0.00990037
3768.11	0.0113627
3782.77	0.0130399
3797.43	0.0149571
3812.09	0.0171413
3826.76	0.019621
3841.42	0.0224259
3856.08	0.0255868
3870.74	0.0291355
3885.4	0.0331041
3900.06	0.0375249
3914.72	0.04243
3929.39	0.0478507
3944.05	0.0538171
3958.71	0.0603574
3973.37	0.0674974
3988.03	0.0752602
4002.69	0.0836649
4017.36	0.0927266
4032.02	0.102455
4046.68	0.112856
4061.34	0.123928
4076	0.135663
4090.66	0.148045
4105.33	0.161054
4119.99	0.174658
4134.65	0.188821
4149.31	0.203495
4163.97	0.218627
4178.64	0.234154
4193.3	0.250006
4207.96	0.266105
4222.62	0.282366
4237.28	0.298697
4251.94	0.315002
4266.61	0.331176
4281.27	0.347113
4295.93	0.362702
4310.59	0.377831
4325.25	0.392386
4339.92	0.406252
4354.58	0.419316
4369.24	0.431467
4383.9	0.442598
4398.56	0.452606
4413.23	0.461393
4427.89	0.468869
4442.55	0.474952
4457.21	0.479568
4471.87	0.482651
4486.54	0.484149
4501.2	0.484017
4515.86	0.482224
4530.52	0.478749
4545.18	0.473585
4559.85	0.466734
4574.51	0.458214
4589.17	0.448051
4603.83	0.436285
4618.49	0.422967
4633.16	0.408157
4647.82	0.391927
4662.48	0.374358
4677.14	0.355538
4691.8	0.335565
4706.46	0.314543
4721.13	0.292581
4735.79	0.269793
4750.45	0.246297
4765.11	0.222216
4779.77	0.197671
4794.44	0.172786
4809.1	0.147684
4823.76	0.122487
4838.42	0.0973161
4853.08	0.0722873
4867.75	0.0475141
4882.41	0.0231052
4897.07	-0.00083607
4911.73	-0.024212
4926.39	-0.0469315
4941.05	-0.06891
4955.72	-0.0900702
4970.38	-0.110343
4985.04	-0.129665
4999.7	-0.147984
5014.36	-0.165253
5029.03	-0.181433
5043.69	-0.196496
5058.35	-0.210417
5073.01	-0.223184
5087.67	-0.234788
5102.34	-0.245229
5117	-0.254514
5131.66	-0.262656
5146.32	-0.269674
5160.98	-0.275592
5175.65	-0.280442
5190.31	-0.284257
5204.97	-0.287077
5219.63	-0.288944
5234.29	-0.289904
5248.95	-0.290006
5263.62	-0.289301
5278.28	-0.287843
5292.94	-0.285685
5307.6	-0.282882
5322.26	-0.279492
5336.93	-0.275569
5351.59	-0.271169
5366.25	-0.266347
5380.91	-0.261159
5395.57	-0.255655
5410.24	-0.249888
5424.9	-0.243907
5439.56	-0.23776
5454.22	-0.231491
5468.88	-0.225144
5483.55	-0.21876
5498.21	-0.212374
5512.87	-0.206024
5527.53	-0.19974
5542.19	-0.193552
5556.85	-0.187486
5571.52	-0.181566
5586.18	-0.175813
5600.84	-0.170244
5615.5	-0.164874
5630.16	-0.159717
5644.83	-0.154782
5659.49	-0.150075
5674.15	-0.145603
5688.81	-0.141368
5703.47	-0.13737
5718.14	-0.133609
5732.8	-0.13008
5747.46	-0.126779
5762.12	-0.1237
5776.78	-0.120833
5791.45	-0.118171
5806.11	-0.115703
5820.77	-0.113417
5835.43	-0.111302
5850.09	-0.109345
5864.76	-0.107532
5879.42	-0.105851
5894.08	-0.104286
5908.74	-0.102825
5923.4	-0.101452
5938.06	-0.100156
5952.73	-0.0989209
5967.39	-0.0977347
5982.05	-0.0965843
5996.71	-0.0954575
6011.37	-0.0943425
6026.04	-0.0932283
6040.7	-0.0921047
6055.36	-0.090962
6070.02	-0.0897915
6084.68	-0.0885855
6099.35	-0.0873368
6114.01	-0.0860394
6128.67	-0.0846881
6143.33	-0.0832787
6157.99	-0.0818079
6172.66	-0.0802731
6187.32	-0.0786728
6201.98	-0.0770063
6216.64	-0.0752737
6231.3	-0.0734761
6245.97	-0.0716151
6260.63	-0.0696931
6275.29	-0.0677133
6289.95	-0.0656794
6304.61	-0.0635958
6319.28	-0.0614672
6333.94	-0.0592991
6348.6	-0.057097
6363.26	-0.0548672
6377.92	-0.052616
6392.58	-0.05035
6407.25	-0.048076
6421.91	-0.0458009
6436.57	-0.0435316
6451.23	-0.0412752
6465.89	-0.0390386
6480.56	-0.0368286
6495.22	-0.0346518
6509.88	-0.0325148
6524.54	-0.0304237
6539.2	-0.0283846
6553.87	-0.026403
6568.53	-0.0244841
6583.19	-0.0226329
6597.85	-0.0208538
6612.51	-0.0191508
6627.18	-0.0175273
6641.84	-0.0159864
6656.5	-0.0145307
6671.16	-0.013162
6685.82	-0.0118819
6700.49	-0.0106913
6715.15	-0.00959064
6729.81	-0.00857977
6744.47	-0.00765804
6759.13	-0.00682429
6773.8	-0.00607685
6788.46	-0.00541357
6803.12	-0.00483181
6817.78	-0.00432851
6832.44	-0.00390016
6847.11	-0.00354284
6861.77	-0.00325229
6876.43	-0.00302386
6891.09	-0.00285262
6905.75	-0.00273335
6920.42	-0.00266056
6935.08	-0.00262856
6949.74	-0.0026315
6964.4	-0.00266335
6979.06	-0.00271801
6993.73	-0.00278928
7008.39	-0.00287095
7023.05	-0.0029568
7037.71	-0.00304067
7052.37	-0.00311644
7067.04	-0.00317814
7081.7	-0.00321992
7096.36	-0.0032361
7111.02	-0.00322122
7125.68	-0.00317006
7140.35	-0.00307765
7155.01	-0.00293932
7169.67	-0.00275069
7184.33	-0.00250775
7198.99	-0.00220681
7213.65	-0.00184457
7228.32	-0.00141812
7242.98	-0.000924924
7257.64	-0.000362885
7272.3	0.000269695
7286.96	0.000974089
7301.63	0.00175114
7316.29	0.00260128
7330.95	0.00352451
7345.61	0.0045204
7360.27	0.00558812
7374.94	0.00672644
7389.6	0.00793373
7404.26	0.00920798
7418.92	0.0105468
7433.58	0.0119475
7448.25	0.0134071
7462.91	0.0149221
7477.57	0.0164889
7492.23	0.0181036
7506.89	0.0197621
7521.56	0.02146
7536.22	0.0231926
7550.88	0.0249553
7565.54	0.0267433
7580.2	0.0285514
7594.86	0.0303746
7609.53	0.0322079
7624.19	0.0340459
7638.85	0.0358836
7653.51	0.0377157
7668.17	0.0395371
7682.84	0.0413427
7697.5	0.0431276
7712.16	0.0448869
7726.82	0.0466157
7741.48	0.0483095
7756.15	0.0499637
7770.81	0.0515742
7785.47	0.0531369
7800.13	0.0546477
7814.79	0.0561031
7829.46	0.0574996
7844.12	0.0588339
7858.78	0.0601031
7873.44	0.0613044
7888.1	0.0624353
7902.77	0.0634935
7917.43	0.064477
7932.09	0.065384
7946.75	0.0662129
7961.41	0.0669625
7976.07	0.0676316
7990.74	0.0682194
8005.4	0.0687253
8020.06	0.0691487
8034.72	0.0694896
8049.38	0.0697477
8064.05	0.0699233
8078.71	0.0700166
8093.37	0.070028
8108.03	0.0699583
8122.69	0.069808
8137.36	0.0695782
8152.02	0.0692697
8166.68	0.0688836
8181.34	0.0684212
8196	0.0678837
8210.67	0.0672723
8225.33	0.0665886
8239.99	0.065834
8254.65	0.06501
8269.31	0.0641182
8283.98	0.0631602
8298.64	0.0621376
8313.3	0.0610521
8327.96	0.0599054
8342.62	0.0586992
8357.29	0.0574352
8371.95	0.0561151
8386.61	0.0547408
8401.27	0.053314
8415.93	0.0518365
8430.59	0.05031
8445.26	0.0487365
8459.92	0.0471177
8474.58	0.0454555
8489.24	0.0437518
8503.9	0.0420084
8518.57	0.0402272
8533.23	0.0384103
8547.89	0.0365595
8562.55	0.0346769
8577.21	0.0327644
8591.88	0.0308241
8606.54	0.0288582
8621.2	0.0268688
8635.86	0.024858
8650.52	0.022828
8665.19	0.0207811
8679.85	0.0187196
8694.51	0.0166459
8709.17	0.0145622
8723.83	0.0124711
8738.5	0.010375
8753.16	0.00827636
8767.82	0.00617771
8782.48	0.00408162
8797.14	0.00199067
8811.81	-9.25372e-05
8826.47	-0.00216538
8841.13	-0.00422521
8855.79	-0.00626941
8870.45	-0.00829533
8885.12	-0.0103003
8899.78	-0.0122818
8914.44	-0.0142372
8929.1	-0.0161638
8943.76	-0.0180593
8958.43	-0.019921
8973.09	-0.0217466
8987.75	-0.0235337
9002.41	-0.02528
9017.07	-0.0269832
9031.74	-0.0286413
9046.4	-0.0302523
9061.06	-0.0318141
9075.72	-0.0333249
9090.38	-0.0347831
9105.05	-0.0361871
9119.71	-0.0375354
9134.37	-0.0388267
9149.03	-0.0400599
9163.69	-0.0412338
9178.35	-0.0423477
9193.02	-0.0434007
9207.68	-0.0443924
9222.34	-0.0453223
9237	-0.0461902
9251.66	-0.0469959
9266.33	-0.0477396
9280.99	-0.0484214
9295.65	-0.0490418
9310.31	-0.0496011
9324.97	-0.0501002
9339.64	-0.0505398
9354.3	-0.0509209
9368.96	-0.0512446
9383.62	-0.051512
9398.28	-0.0517245
9412.95	-0.0518836
9427.61	-0.0519908
9442.27	-0.0520478
9456.93	-0.0520562
9471.59	-0.052018
9486.26	-0.0519349
9500.92	-0.051809
9515.58	-0.0516422
9530.24	-0.0514366
9544.9	-0.0511942
9559.57	-0.0509172
9574.23	-0.0506077
9588.89	-0.0502677
9603.55	-0.0498995
9618.21	-0.0495051
9632.88	-0.0490865
9647.54	-0.048646
9662.2	-0.0481854
9676.86	-0.0477068
9691.52	-0.0472121
9706.19	-0.0467031
9720.85	-0.0461819
9735.51	-0.04565
9750.17	-0.0451091
9764.83	-0.044561
9779.5	-0.0440071
9794.16	-0.043449
9808.82	-0.0428879
9823.48	-0.0423253
9838.14	-0.0417623
9852.81	-0.0412002
9867.47	-0.0406399
9882.13	-0.0400825
9896.79	-0.0395288
9911.45	-0.0389798
9926.12	-0.0384361
9940.78	-0.0378984
9955.44	-0.0373673
9970.1	-0.0368434
9984.76	-0.0363271
9999.43	-0.0358188
10014.1	-0.0353189
10028.7	-0.0348277
10043.4	-0.0343453
10058.1	-0.033872
10072.7	-0.0334079
10087.4	-0.032953
10102.1	-0.0325075
10116.7	-0.0320714
10131.4	-0.0316445
10146	-0.031227
10160.7	-0.0308187
10175.4	-0.0304195
10190	-0.0300293
10204.7	-0.0296479
10219.4	-0.0292753
10234	-0.0289112
10248.7	-0.0285555
10263.3	-0.0282079
10278	-0.0278684
10292.7	-0.0275366
10307.3	-0.0272124
10322	-0.0268956
10336.7	-0.026586
10351.3	-0.0262833
10366	-0.0259873
10380.6	-0.0256977
10395.3	-0.0254145
10410	-0.0251372
10424.6	-0.0248657
10439.3	-0.0245998
10453.9	-0.0243392
10468.6	-0.0240836
10483.3	-0.0238328
10497.9	-0.0235865
10512.6	-0.0233444
10527.3	-0.0231063
10541.9	-0.0228719
10556.6	-0.0226408
10571.2	-0.0224128
10585.9	-0.0221875
10600.6	-0.0219645
10615.2	-0.0217436
10629.9	-0.0215244
10644.6	-0.0213064
10659.2	-0.0210894
10673.9	-0.0208728
10688.5	-0.0206562
10703.2	-0.0204393
10717.9	-0.0202216
10732.5	-0.0200026
10747.2	-0.0197818
10761.8	-0.0195587
10776.5	-0.0193329
10791.2	-0.0191038
10805.8	-0.0188709
10820.5	-0.0186336
10835.2	-0.0183916
10849.8	-0.0181441
10864.5	-0.0178906
10879.1	-0.0176307
10893.8	-0.0173638
10908.5	-0.0170892
10923.1	-0.0168066
10937.8	-0.0165153
10952.5	-0.0162149
10967.1	-0.0159048
10981.8	-0.0155846
10996.4	-0.0152538
11011.1	-0.0149118
11025.8	-0.0145584
11040.4	-0.014193
11055.1	-0.0138153
11069.7	-0.0134249
11084.4	-0.0130215
11099.1	-0.0126049
11113.7	-0.0121747
11128.4	-0.0117308
11143.1	-0.0112729
11157.7	-0.0108009
11172.4	-0.0103148
11187	-0.00981436
11201.7	-0.0092997
11216.4	-0.00877081
11231	-0.00822777
11245.7	-0.00767069
11260.4	-0.00709973
11275	-0.00651512
11289.7	-0.00591711
11304.3	-0.00530599
11319	-0.00468211
11333.7	-0.00404586
11348.3	-0.00339766
11363	-0.00273799
11377.7	-0.00206735
11392.3	-0.00138629
11407	-0.000695374
11421.6	4.77248e-06
11436.3	0.000713513
11451	0.00143018
11465.6	0.00215408
11480.3	0.00288449
11494.9	0.00362068
11509.6	0.00436191
11524.3	0.00510741
11538.9	0.00585639
11553.6	0.0066081
11568.3	0.00736173
11582.9	0.00811651
11597.6	0.00887166
11612.2	0.0096264
11626.9	0.01038
11641.6	0.0111316
11656.2	0.0118806
11670.9	0.0126261
11685.6	0.0133676
11700.2	0.0141043
11714.9	0.0148356
11729.5	0.0155608
11744.2	0.0162793
11758.9	0.0169906
11773.5	0.0176941
11788.2	0.0183893
11802.8	0.0190757
11817.5	0.0197529
11832.2	0.0204205
11846.8	0.021078
11861.5	0.0217252
11876.2	0.0223617
11890.8	0.0229872
11905.5	0.0236015
11920.1	0.0242043
11934.8	0.0247955
11949.5	0.0253749
11964.1	0.0259423
11978.8	0.0264976
11993.5	0.0270407
12008.1	0.0275716
12022.8	0.0280901
12037.4	0.0285962
12052.1	0.0290899
12066.8	0.0295711
12081.4	0.0300397
12096.1	0.0304959
12110.7	0.0309394
12125.4	0.0313704
12140.1	0.0317887
12154.7	0.0321944
12169.4	0.0325873
12184.1	0.0329675
12198.7	0.0333348
12213.4	0.0336892
12228	0.0340305
12242.7	0.0343586
12257.4	0.0346734
12272	0.0349748
12286.7	0.0352624
12301.4	0.0355362
12316	0.0357959
12330.7	0.0360413
12345.3	0.036272
12360	0.0364878
12374.7	0.0366884
12389.3	0.0368735
12404	0.0370426
12418.7	0.0371955
12433.3	0.0373317
12448	0.0374508
12462.6	0.0375525
12477.3	0.0376363
12492	0.0377018
12506.6	0.0377485
12521.3	0.0377761
12535.9	0.037784
12550.6	0.037772
12565.3	0.0377394
12579.9	0.037686
12594.6	0.0376114
12609.3	0.0375151
12623.9	0.0373968
12638.6	0.0372561
12653.2	0.0370927
12667.9	0.0369064
12682.6	0.0366968
12697.2	0.0364638
12711.9	0.036207
12726.6	0.0359264
12741.2	0.0356219
12755.9	0.0352933
12770.5	0.0349406
12785.2	0.0345638
12799.9	0.0341629
12814.5	0.0337381
12829.2	0.0332895
12843.8	0.0328172
12858.5	0.0323215
12873.2	0.0318026
12887.8	0.031261
12902.5	0.0306969
12917.2	0.0301108
12931.8	0.0295032
12946.5	0.0288746
12961.1	0.0282254
12975.8	0.0275564
12990.5	0.0268681
13005.1	0.0261612
13019.8	0.0254365
13034.5	0.0246947
13049.1	0.0239365
13063.8	0.0231629
13078.4	0.0223745
13093.1	0.0215723
13107.8	0.0207572
13122.4	0.01993
13137.1	0.0190917
13151.7	0.0182432
13166.4	0.0173855
13181.1	0.0165195
13195.7	0.0156461
13210.4	0.0147664
13225.1	0.0138813
13239.7	0.0129917
13254.4	0.0120986
13269	0.0112029
13283.7	0.0103056
13298.4	0.00940762
13313	0.00850979
13327.7	0.00761304
13342.4	0.00671821
13357	0.00582616
13371.7	0.0049377
13386.3	0.00405363
13401	0.0031747
13415.7	0.00230166
13430.3	0.00143521
13445	0.000576026
13459.7	-0.000275245
13474.3	-0.00111799
13489	-0.00195164
13503.6	-0.00277564
13518.3	-0.00358949
13533	-0.00439271
13547.6	-0.00518485
13562.3	-0.00596552
13576.9	-0.00673434
13591.6	-0.00749098
13606.3	-0.00823513
13620.9	-0.00896652
13635.6	-0.00968492
13650.3	-0.0103901
13664.9	-0.0110819
13679.6	-0.0117603
13694.2	-0.012425
13708.9	-0.0130759
13723.6	-0.0137132
13738.2	-0.0143366
13752.9	-0.0149462
13767.6	-0.0155421
13782.2	-0.0161242
13796.9	-0.0166926
13811.5	-0.0172475
13826.2	-0.0177889
13840.9	-0.0183169
13855.5	-0.0188317
13870.2	-0.0193334
13884.8	-0.0198222
13899.5	-0.0202983
13914.2	-0.0207619
13928.8	-0.0212131
13943.5	-0.0216522
13958.2	-0.0220793
13972.8	-0.0224947
13987.5	-0.0228987
14002.1	-0.0232913
14016.8	-0.0236729
14031.5	-0.0240436
14046.1	-0.0244038
14060.8	-0.0247535
14075.5	-0.025093
14090.1	-0.0254225
14104.8	-0.0257423
14119.4	-0.0260524
14134.1	-0.0263531
14148.8	-0.0266446
14163.4	-0.026927
14178.1	-0.0272005
14192.8	-0.0274651
14207.4	-0.0277212
14222.1	-0.0279687
14236.7	-0.0282078
14251.4	-0.0284385
14266.1	-0.028661
14280.7	-0.0288753
14295.4	-0.0290814
14310	-0.0292795
14324.7	-0.0294694
14339.4	-0.0296513
14354	-0.0298252
14368.7	-0.0299909
14383.4	-0.0301486
14398	-0.0302981
14412.7	-0.0304393
14427.3	-0.0305724
14442	-0.0306971
14456.7	-0.0308133
14471.3	-0.0309211
14486	-0.0310203
14500.7	-0.0311108
14515.3	-0.0311924
14530	-0.0312652
14544.6	-0.0313289
14559.3	-0.0313835
14574	-0.0314288
14588.6	-0.0314648
14603.3	-0.0314912
14617.9	-0.0315081
14632.6	-0.0315152
14647.3	-0.0315126
14661.9	-0.0315
14676.6	-0.0314775
14691.3	-0.0314449
14705.9	-0.0314022
14720.6	-0.0313493
14735.2	-0.0312862
14749.9	-0.0312129
14764.6	-0.0311293
14779.2	-0.0310354
14793.9	-0.0309314
14808.6	-0.0308171
14823.2	-0.0306927
14837.9	-0.0305582
14852.5	-0.0304137
14867.2	-0.0302593
14881.9	-0.0300952
14896.5	-0.0299215
14911.2	-0.0297383
14925.9	-0.0295459
14940.5	-0.0293444
14955.2	-0.0291341
14969.8	-0.0289151
14984.5	-0.0286878
14999.2	-0.0284524
15013.8	-0.0282092
15028.5	-0.0279585
15043.1	-0.0277006
15057.8	-0.0274358
15072.5	-0.0271645
15087.1	-0.0268871
15101.8	-0.0266038
15116.5	-0.0263151
15131.1	-0.0260214
15145.8	-0.025723
15160.4	-0.0254202
15175.1	-0.0251137
15189.8	-0.0248036
15204.4	-0.0244904
15219.1	-0.0241745
15233.8	-0.0238563
15248.4	-0.0235363
15263.1	-0.0232147
15277.7	-0.022892
15292.4	-0.0225686
15307.1	-0.0222449
15321.7	-0.0219212
15336.4	-0.0215978
15351	-0.0212752
15365.7	-0.0209537
15380.4	-0.0206335
15395	-0.0203152
15409.7	-0.0199988
15424.4	-0.0196848
15439	-0.0193735
15453.7	-0.019065
15468.3	-0.0187598
15483	-0.0184579
15497.7	-0.0181597
15512.3	-0.0178654
15527	-0.0175752
15541.7	-0.0172893
15556.3	-0.0170078
15571	-0.0167311
15585.6	-0.0164591
15600.3	-0.0161921
15615	-0.0159303
15629.6	-0.0156737
15644.3	-0.0154226
15658.9	-0.0151769
15673.6	-0.0149369
15688.3	-0.0147026
15702.9	-0.0144741
15717.6	-0.0142515
15732.3	-0.014035
15746.9	-0.0138246
15761.6	-0.0136203
15776.2	-0.0134224
15790.9	-0.0132308
15805.6	-0.0130456
15820.2	-0.0128669
15834.9	-0.0126947
15849.6	-0.0125293
15864.2	-0.0123705
15878.9	-0.0122186
15893.5	-0.0120735
15908.2	-0.0119354
15922.9	-0.0118044
15937.5	-0.0116804
15952.2	-0.0115636
15966.9	-0.0114542
15981.5	-0.011352
15996.2	-0.0112573
16010.8	-0.0111702
16025.5	-0.0110906
16040.2	-0.0110187
16054.8	-0.0109546
16069.5	-0.0108982
16084.1	-0.0108498
16098.8	-0.0108093
16113.5	-0.0107769
16128.1	-0.0107525
16142.8	-0.0107363
16157.5	-0.0107282
16172.1	-0.0107283
16186.8	-0.0107366
16201.4	-0.0107531
16216.1	-0.0107779
16230.8	-0.0108108
16245.4	-0.010852
16260.1	-0.0109012
16274.8	-0.0109586
16289.4	-0.0110239
16304.1	-0.0110971
16318.7	-0.0111781
16333.4	-0.0112668
16348.1	-0.011363
16362.7	-0.0114665
16377.4	-0.0115771
16392	-0.0116947
16406.7	-0.011819
16421.4	-0.0119496
16436	-0.0120864
16450.7	-0.0122291
16465.4	-0.0123772
16480	-0.0125305
16494.7	-0.0126885
16509.3	-0.0128509
16524	-0.0130173
16538.7	-0.0131872
16553.3	-0.0133601
16568	-0.0135356
16582.7	-0.0137132
16597.3	-0.0138923
16612	-0.0140724
16626.6	-0.0142529
16641.3	-0.0144333
16656	-0.014613
16670.6	-0.0147914
16685.3	-0.0149679
16699.9	-0.0151418
16714.6	-0.0153126
16729.3	-0.0154796
16743.9	-0.0156421
16758.6	-0.0157996
16773.3	-0.0159513
16787.9	-0.0160967
16802.6	-0.0162351
16817.2	-0.0163659
16831.9	-0.0164884
16846.6	-0.0166021
16861.2	-0.0167062
16875.9	-0.0168004
16890.6	-0.0168838
16905.2	-0.0169561
16919.9	-0.0170166
16934.5	-0.0170649
16949.2	-0.0171003
16963.9	-0.0171225
16978.5	-0.017131
16993.2	-0.0171254
17007.9	-0.0171052
17022.5	-0.0170702
17037.2	-0.0170199
17051.8	-0.0169541
17066.5	-0.0168724
17081.2	-0.0167748
17095.8	-0.0166609
17110.5	-0.0165306
17125.1	-0.0163837
17139.8	-0.0162203
17154.5	-0.0160402
17169.1	-0.0158434
17183.8	-0.01563
17198.5	-0.0154001
17213.1	-0.0151536
17227.8	-0.0148909
17242.4	-0.0146121
17257.1	-0.0143174
17271.8	-0.014007
17286.4	-0.0136813
17301.1	-0.0133407
17315.8	-0.0129855
17330.4	-0.0126161
17345.1	-0.012233
17359.7	-0.0118367
17374.4	-0.0114276
17389.1	-0.0110064
17403.7	-0.0105736
17418.4	-0.0101299
17433	-0.00967582
17447.7	-0.0092121
17462.4	-0.00873943
17477	-0.00825852
17491.7	-0.0077701
17506.4	-0.00727495
17521	-0.00677384
17535.7	-0.00626757
17550.3	-0.00575694
17565	-0.00524279
17579.7	-0.00472595
17594.3	-0.00420727
17609	-0.0036876
17623.7	-0.00316781
17638.3	-0.00264876
17653	-0.00213132
17667.6	-0.00161636
17682.3	-0.00110475
17697	-0.000597358
17711.6	-9.504e-05
17726.3	0.000401346
17740.9	0.000890952
17755.6	0.00137294
17770.3	0.00184649
17784.9	0.00231078
17799.6	0.00276501
17814.3	0.0032084
17828.9	0.00364019
17843.6	0.00405963
17858.2	0.004466
17872.9	0.00485859
17887.6	0.00523671
17902.2	0.00559972
17916.9	0.00594699
17931.6	0.0062779
17946.2	0.00659189
17960.9	0.00688842
17975.5	0.00716695
17990.2	0.00742701
18004.9	0.00766815
18019.5	0.00788995
18034.2	0.00809201
18048.9	0.008274
18063.5	0.00843558
18078.2	0.00857649
18092.8	0.00869648
18107.5	0.00879534
18122.2	0.0088729
18136.8	0.00892903
18151.5	0.00896364
18166.1	0.00897667
18180.8	0.0089681
18195.5	0.00893796
18210.1	0.00888631
18224.8	0.00881325
18239.5	0.00871892
18254.1	0.0086035
18268.8	0.0084672
18283.4	0.00831029
18298.1	0.00813305
18312.8	0.00793582
18327.4	0.00771896
18342.1	0.00748289
18356.8	0.00722804
18371.4	0.0069549
18386.1	0.00666398
18400.7	0.00635583
18415.4	0.00603103
18430.1	0.0056902
18444.7	0.00533397
18459.4	0.00496304
18474	0.00457811
18488.7	0.00417991
18503.4	0.00376921
18518	0.00334679
18532.7	0.00291348
18547.4	0.0024701
18562	0.00201751
18576.7	0.0015566
18591.3	0.00108827
18606	0.000613424
18620.7	0.000132998
18635.3	-0.000352064
18650	-0.000840807
18664.7	-0.00133226
18679.3	-0.00182546
18694	-0.00231941
18708.6	-0.00281313
18723.3	-0.00330564
18738	-0.00379594
18752.6	-0.00428305
18767.3	-0.00476598
18782	-0.00524375
18796.6	-0.00571539
18811.3	-0.00617994
18825.9	-0.00663645
18840.6	-0.00708398
18855.3	-0.0075216
18869.9	-0.00794841
18884.6	-0.00836353
18899.2	-0.00876608
18913.9	-0.00915522
18928.6	-0.00953014
18943.2	-0.00989004
18957.9	-0.0102341
18972.6	-0.0105617
18987.2	-0.0108721
19001.9	-0.0111646
19016.5	-0.0114385
19031.2	-0.0116933
19045.9	-0.0119283
19060.5	-0.0121432
19075.2	-0.0123373
19089.9	-0.0125102
19104.5	-0.0126615
19119.2	-0.0127909
19133.8	-0.0128979
19148.5	-0.0129824
19163.2	-0.0130441
19177.8	-0.0130828
19192.5	-0.0130983
19207.1	-0.0130905
19221.8	-0.0130593
19236.5	-0.0130048
19251.1	-0.0129269
19265.8	-0.0128257
19280.5	-0.0127013
19295.1	-0.0125539
19309.8	-0.0123837
19324.4	-0.0121908
19339.1	-0.0119756
19353.8	-0.0117383
19368.4	-0.0114794
19383.1	-0.0111992
19397.8	-0.0108981
19412.4	-0.0105766
19427.1	-0.0102352
19441.7	-0.0098744
19456.4	-0.0094948
19471.1	-0.00909696
19485.7	-0.0086815
19500.4	-0.00824906
19515	-0.00780033
19529.7	-0.00733598
19544.4	-0.00685673
19559	-0.00636332
19573.7	-0.0058565
19588.4	-0.00533703
19603	-0.00480571
19617.7	-0.00426332
19632.3	-0.00371068
19647	-0.0031486
19661.7	-0.0025779
19676.3	-0.00199941
19691	-0.00141396
19705.7	-0.000822397
19720.3	-0.000225543
19735	0.000375766
19749.6	0.0009807
19764.3	0.00158844
19779	0.00219816
19793.6	0.00280905
19808.3	0.00342032
19823	0.00403117
19837.6	0.00464084
19852.3	0.00524856
19866.9	0.00585358
19881.6	0.00645517
19896.3	0.00705263
19910.9	0.00764526
19925.6	0.00823238
19940.2	0.00881336
19954.9	0.00938755
19969.6	0.00995436
19984.2	0.0105132
19998.9	0.0110635
