Problem size with different number of CPUs using function optimization
Depth: 20
Timesteps: 
Cache: cache-misses
THREADS	DEPTH	MTPS	CACHE_MISSES	SPEEDUP_PER	TIMESTEPS	TIMESTEP_SIZE	SECONDS_FOR_SIMULATION	AVERAGE_TRIANGLES	AVERAGE_PARTITIONS
361,229,023
1	20	5.64006	       361,229,023		500	0.0346964	185.916	2.09715e+06	303.872
440,617,488
2	20	10.9937	       440,617,488		500	0.0346964	95.3794	2.09715e+06	303.872
537,041,619
3	20	15.9419	       537,041,619		500	0.0346964	65.7749	2.09715e+06	303.872
686,397,316
4	20	20.4862	       686,397,316		500	0.0346964	51.1845	2.09715e+06	303.872
838,284,796
5	20	24.2409	       838,284,796		500	0.0346964	43.2564	2.09715e+06	303.872
983,980,786
6	20	27.3611	       983,980,786		500	0.0346964	38.3237	2.09715e+06	303.872
955,999,263
7	20	31.4684	       955,999,263		500	0.0346964	33.3215	2.09715e+06	303.872
947,345,826
8	20	35.7406	       947,345,826		500	0.0346964	29.3385	2.09715e+06	303.872
1,027,280,344
9	20	38.4246	     1,027,280,344		500	0.0346964	27.2892	2.09715e+06	303.872
1,048,393,370
10	20	42.0528	     1,048,393,370		500	0.0346964	24.9347	2.09715e+06	303.872
1,109,853,070
11	20	44.7289	     1,109,853,070		500	0.0346964	23.4429	2.09715e+06	303.872
1,171,763,053
12	20	47.0537	     1,171,763,053		500	0.0346964	22.2847	2.09715e+06	303.872
