0	0
13.1958	0
26.3916	0
39.5874	0
52.7832	0
65.979	0
79.1748	0
92.3706	0
105.566	0
118.762	0
131.958	0
145.154	0
158.35	0
171.545	0
184.741	0
197.937	0
211.133	0
224.329	0
237.524	0
250.72	0
263.916	0
277.112	0
290.308	0
303.503	0
316.699	0
329.895	0
343.091	0
356.287	0
369.482	0
382.678	0
395.874	0
409.07	0
422.266	0
435.461	0
448.657	0
461.853	0
475.049	0
488.244	0
501.44	0
514.636	0
527.832	0
541.028	0
554.223	0
567.419	0
580.615	0
593.811	0
607.007	0
620.202	0
633.398	0
646.594	0
659.79	0
672.986	0
686.181	0
699.377	0
712.573	0
725.769	0
738.965	0
752.16	0
765.356	0
778.552	0
791.748	0
804.944	0
818.139	0
831.335	0
844.531	0
857.727	0
870.923	0
884.118	0
897.314	0
910.51	0
923.706	0
936.902	0
950.097	0
963.293	0
976.489	0
989.685	0
1002.88	0
1016.08	0
1029.27	0
1042.47	0
1055.66	0
1068.86	0
1082.06	0
1095.25	0
1108.45	0
1121.64	0
1134.84	0
1148.03	0
1161.23	0
1174.43	0
1187.62	0
1200.82	0
1214.01	0
1227.21	0
1240.4	0
1253.6	0
1266.8	0
1279.99	0
1293.19	0
1306.38	0
1319.58	0
1332.78	0
1345.97	0
1359.17	0
1372.36	0
1385.56	0
1398.75	0
1411.95	0
1425.15	0
1438.34	0
1451.54	0
1464.73	0
1477.93	0
1491.13	0
1504.32	0
1517.52	0
1530.71	0
1543.91	0
1557.1	0
1570.3	0
1583.5	0
1596.69	0
1609.89	0
1623.08	0
1636.28	0
1649.47	0
1662.67	0
1675.87	0
1689.06	0
1702.26	0
1715.45	0
1728.65	0
1741.85	0
1755.04	0
1768.24	0
1781.43	0
1794.63	0
1807.82	0
1821.02	0
1834.22	0
1847.41	0
1860.61	0
1873.8	0
1887	0
1900.19	0
1913.39	0
1926.59	0
1939.78	0
1952.98	0
1966.17	0
1979.37	0
1992.57	0
2005.76	0
2018.96	0
2032.15	0
2045.35	0
2058.54	0
2071.74	0
2084.94	0
2098.13	0
2111.33	0
2124.52	0
2137.72	0
2150.91	0
2164.11	0
2177.31	0
2190.5	0
2203.7	0
2216.89	0
2230.09	0
2243.29	9.09495e-13
2256.48	9.09495e-13
2269.68	1.81899e-12
2282.87	3.63798e-12
2296.07	5.45697e-12
2309.26	8.18545e-12
2322.46	1.36424e-11
2335.66	2.18279e-11
2348.85	3.54703e-11
2362.05	5.63887e-11
2375.24	8.8221e-11
2388.44	1.36424e-10
2401.63	2.09184e-10
2414.83	3.15595e-10
2428.03	4.74756e-10
2441.22	7.06677e-10
2454.42	1.04319e-09
2467.61	1.52795e-09
2480.81	2.22099e-09
2494.01	3.20142e-09
2507.2	4.58022e-09
2520.4	6.50198e-09
2533.59	9.16225e-09
2546.79	1.28166e-08
2559.98	1.78015e-08
2573.18	2.45518e-08
2586.38	3.36286e-08
2599.57	4.57494e-08
2612.77	6.18256e-08
2625.96	8.30059e-08
2639.16	1.10729e-07
2652.36	1.46783e-07
2665.55	1.93376e-07
2678.75	2.53212e-07
2691.94	3.29589e-07
2705.14	4.26493e-07
2718.33	5.48713e-07
2731.53	7.01966e-07
2744.73	8.93036e-07
2757.92	1.12991e-06
2771.12	1.42195e-06
2784.31	1.78004e-06
2797.51	2.21676e-06
2810.7	2.74657e-06
2823.9	3.38597e-06
2837.1	4.15368e-06
2850.29	5.07081e-06
2863.49	6.16104e-06
2876.68	7.45069e-06
2889.88	8.96894e-06
2903.07	1.07479e-05
2916.27	1.28226e-05
2929.47	1.52311e-05
2942.66	1.80147e-05
2955.86	2.12174e-05
2969.05	2.48864e-05
2982.25	2.90717e-05
2995.44	3.38258e-05
3008.64	3.92037e-05
3021.84	4.52628e-05
3035.03	5.20622e-05
3048.23	5.96629e-05
3061.42	6.81268e-05
3074.62	7.75171e-05
3087.81	8.78974e-05
3101.01	9.93317e-05
3114.2	0.000111884
3127.4	0.000125617
3140.6	0.000140595
3153.79	0.00015688
3166.99	0.000174533
3180.18	0.000193617
3193.38	0.000214192
3206.57	0.000236321
3219.77	0.000260068
3232.96	0.000285499
3246.16	0.000312685
3259.36	0.000341702
3272.55	0.000372637
3285.75	0.000405586
3298.94	0.000440665
3312.14	0.000478006
3325.33	0.000517768
3338.53	0.000560144
3351.72	0.000605365
3364.92	0.00065371
3378.11	0.000705517
3391.31	0.000761194
3404.51	0.000821232
3417.7	0.000886223
3430.9	0.000956872
3444.09	0.00103402
3457.29	0.00111867
3470.48	0.001212
3483.68	0.0013154
3496.87	0.00143049
3510.07	0.00155918
3523.26	0.00170367
3536.46	0.0018665
3549.65	0.0020506
3562.85	0.00225934
3576.05	0.00249653
3589.24	0.00276653
3602.44	0.00307424
3615.63	0.0034252
3628.83	0.00382558
3642.02	0.0042823
3655.22	0.004803
3668.41	0.00539614
3681.61	0.00607103
3694.8	0.00683782
3708	0.00770759
3721.19	0.00869233
3734.39	0.00980496
3747.58	0.0110593
3760.78	0.0124702
3773.97	0.0140532
3787.17	0.0158249
3800.37	0.0178025
3813.56	0.0200041
3826.76	0.0224482
3839.95	0.0251539
3853.15	0.0281408
3866.34	0.0314284
3879.54	0.0350366
3892.73	0.0389849
3905.93	0.0432924
3919.12	0.0479777
3932.32	0.0530586
3945.51	0.0585516
3958.71	0.0644721
3971.91	0.0708336
3985.1	0.0776477
3998.3	0.0849239
4011.49	0.0926691
4024.69	0.100887
4037.88	0.10958
4051.08	0.118744
4064.27	0.128374
4077.47	0.13846
4090.66	0.14899
4103.86	0.159945
4117.06	0.171303
4130.25	0.183039
4143.45	0.195121
4156.64	0.207515
4169.84	0.220182
4183.03	0.233079
4196.23	0.246158
4209.43	0.259367
4222.62	0.272653
4235.82	0.285956
4249.01	0.299216
4262.21	0.312368
4275.4	0.325347
4288.6	0.338084
4301.8	0.35051
4314.99	0.362556
4328.19	0.37415
4341.38	0.385224
4354.58	0.395706
4367.77	0.40553
4380.97	0.414629
4394.17	0.422939
4407.36	0.430401
4420.56	0.436956
4433.75	0.442551
4446.95	0.447137
4460.15	0.450671
4473.34	0.453113
4486.54	0.454429
4499.73	0.454594
4512.93	0.453584
4526.12	0.451385
4539.32	0.447988
4552.52	0.44339
4565.71	0.437597
4578.91	0.430617
4592.1	0.42247
4605.3	0.413177
4618.49	0.402769
4631.69	0.39128
4644.89	0.378753
4658.08	0.365232
4671.28	0.35077
4684.47	0.335422
4697.67	0.319248
4710.86	0.302312
4724.06	0.284682
4737.26	0.266426
4750.45	0.247617
4763.65	0.22833
4776.84	0.20864
4790.04	0.188622
4803.23	0.168355
4816.43	0.147914
4829.63	0.127377
4842.82	0.106817
4856.02	0.0863093
4869.21	0.0659253
4882.41	0.045735
4895.6	0.0258055
4908.8	0.00620142
4922	-0.0130161
4935.19	-0.0317892
4948.39	-0.0500637
4961.58	-0.0677892
4974.78	-0.0849194
4987.97	-0.101412
5001.17	-0.117229
5014.36	-0.132338
5027.56	-0.146707
5040.76	-0.160314
5053.95	-0.173137
5067.15	-0.18516
5080.34	-0.196371
5093.54	-0.206763
5106.73	-0.216331
5119.93	-0.225075
5133.13	-0.232999
5146.32	-0.240111
5159.52	-0.246422
5172.71	-0.251944
5185.91	-0.256696
5199.11	-0.260696
5212.3	-0.263966
5225.5	-0.266532
5238.69	-0.268419
5251.89	-0.269656
5265.08	-0.270272
5278.28	-0.270299
5291.48	-0.269769
5304.67	-0.268714
5317.87	-0.26717
5331.06	-0.26517
5344.26	-0.262748
5357.45	-0.25994
5370.65	-0.256779
5383.85	-0.2533
5397.04	-0.249537
5410.24	-0.245522
5423.43	-0.241288
5436.63	-0.236866
5449.82	-0.232287
5463.02	-0.22758
5476.22	-0.222772
5489.41	-0.217891
5502.61	-0.212961
5515.8	-0.208007
5529	-0.203051
5542.19	-0.198115
5555.39	-0.193216
5568.59	-0.188373
5581.78	-0.183603
5594.98	-0.178919
5608.17	-0.174335
5621.37	-0.169862
5634.56	-0.165511
5647.76	-0.161289
5660.96	-0.157205
5674.15	-0.153263
5687.35	-0.149468
5700.54	-0.145823
5713.74	-0.14233
5726.93	-0.13899
5740.13	-0.135802
5753.33	-0.132764
5766.52	-0.129875
5779.72	-0.127131
5792.91	-0.124528
5806.11	-0.122061
5819.3	-0.119725
5832.5	-0.117514
5845.7	-0.115421
5858.89	-0.113439
5872.09	-0.111562
5885.28	-0.109781
5898.48	-0.108088
5911.67	-0.106477
5924.87	-0.104938
5938.07	-0.103463
5951.26	-0.102046
5964.46	-0.100677
5977.65	-0.0993486
5990.85	-0.0980538
6004.04	-0.0967851
6017.24	-0.0955352
6030.44	-0.0942973
6043.63	-0.0930652
6056.83	-0.0918327
6070.02	-0.0905941
6083.22	-0.0893443
6096.41	-0.0880785
6109.61	-0.0867924
6122.81	-0.085482
6136	-0.0841441
6149.2	-0.0827758
6162.39	-0.0813747
6175.59	-0.0799388
6188.78	-0.0784668
6201.98	-0.0769576
6215.18	-0.0754109
6228.37	-0.0738264
6241.57	-0.0722048
6254.76	-0.0705466
6267.96	-0.0688532
6281.15	-0.0671261
6294.35	-0.0653673
6307.55	-0.063579
6320.74	-0.0617638
6333.94	-0.0599245
6347.13	-0.0580644
6360.33	-0.0561866
6373.52	-0.0542947
6386.72	-0.0523924
6399.92	-0.0504836
6413.11	-0.0485722
6426.31	-0.0466622
6439.5	-0.0447576
6452.7	-0.0428626
6465.9	-0.0409813
6479.09	-0.0391177
6492.29	-0.0372758
6505.48	-0.0354596
6518.68	-0.033673
6531.87	-0.0319195
6545.07	-0.0302027
6558.27	-0.0285261
6571.46	-0.0268929
6584.66	-0.0253059
6597.85	-0.023768
6611.05	-0.0222817
6624.24	-0.0208494
6637.44	-0.019473
6650.64	-0.0181543
6663.83	-0.0168948
6677.03	-0.0156956
6690.22	-0.0145578
6703.42	-0.013482
6716.61	-0.0124684
6729.81	-0.0115171
6743.01	-0.0106279
6756.2	-0.00980024
6769.4	-0.00903332
6782.59	-0.00832605
6795.79	-0.00767707
6808.99	-0.00708476
6822.18	-0.00654726
6835.38	-0.00606247
6848.57	-0.00562804
6861.77	-0.00524145
6874.96	-0.00489993
6888.16	-0.00460056
6901.36	-0.00434024
6914.55	-0.00411571
6927.75	-0.00392359
6940.94	-0.00376037
6954.14	-0.00362243
6967.33	-0.00350608
6980.53	-0.00340756
6993.73	-0.00332306
7006.92	-0.00324875
7020.12	-0.00318077
7033.31	-0.0031153
7046.51	-0.00304852
7059.7	-0.00297665
7072.9	-0.002896
7086.1	-0.00280291
7099.29	-0.00269386
7112.49	-0.00256541
7125.68	-0.00241426
7138.88	-0.00223724
7152.08	-0.00203132
7165.27	-0.00179366
7178.47	-0.00152157
7191.66	-0.00121257
7204.86	-0.000864353
7218.05	-0.000474832
7231.25	-4.21284e-05
7244.45	0.000435419
7257.64	0.000959246
7270.84	0.00153056
7284.03	0.00215033
7297.23	0.0028193
7310.42	0.00353797
7323.62	0.0043066
7336.82	0.00512523
7350.01	0.00599366
7363.21	0.00691145
7376.4	0.00787794
7389.6	0.00889224
7402.79	0.00995327
7415.99	0.0110597
7429.19	0.0122101
7442.38	0.0134026
7455.58	0.0146355
7468.77	0.0159067
7481.97	0.0172138
7495.16	0.0185547
7508.36	0.0199266
7521.56	0.0213271
7534.75	0.0227532
7547.95	0.0242022
7561.14	0.0256711
7574.34	0.0271568
7587.53	0.0286561
7600.73	0.030166
7613.93	0.0316832
7627.12	0.0332044
7640.32	0.0347265
7653.51	0.036246
7666.71	0.0377598
7679.9	0.0392647
7693.1	0.0407573
7706.3	0.0422345
7719.49	0.0436933
7732.69	0.0451304
7745.88	0.0465431
7759.08	0.0479283
7772.28	0.0492831
7785.47	0.050605
7798.67	0.0518912
7811.86	0.0531393
7825.06	0.0543467
7838.25	0.0555113
7851.45	0.0566309
7864.65	0.0577034
7877.84	0.0587269
7891.04	0.0596996
7904.23	0.0606198
7917.43	0.0614861
7930.62	0.062297
7943.82	0.0630513
7957.02	0.0637479
7970.21	0.0643858
7983.41	0.0649641
7996.6	0.065482
8009.8	0.0659389
8022.99	0.0663345
8036.19	0.0666681
8049.39	0.0669397
8062.58	0.067149
8075.78	0.067296
8088.97	0.0673807
8102.17	0.0674032
8115.36	0.0673639
8128.56	0.067263
8141.76	0.0671009
8154.95	0.0668781
8168.15	0.0665951
8181.34	0.0662526
8194.54	0.0658513
8207.73	0.0653919
8220.93	0.0648751
8234.13	0.0643018
8247.32	0.063673
8260.52	0.0629896
8273.71	0.0622525
8286.91	0.0614628
8300.1	0.0606215
8313.3	0.0597297
8326.5	0.0587884
8339.69	0.057799
8352.89	0.0567624
8366.08	0.05568
8379.28	0.0545529
8392.47	0.0533823
8405.67	0.0521695
8418.87	0.0509157
8432.06	0.0496223
8445.26	0.0482906
8458.45	0.0469218
8471.65	0.0455174
8484.84	0.0440787
8498.04	0.042607
8511.24	0.0411038
8524.43	0.0395704
8537.63	0.0380084
8550.82	0.0364192
8564.02	0.0348042
8577.22	0.0331649
8590.41	0.0315029
8603.61	0.0298196
8616.8	0.0281167
8630	0.0263957
8643.19	0.0246583
8656.39	0.0229059
8669.59	0.0211404
8682.78	0.0193632
8695.98	0.0175762
8709.17	0.015781
8722.37	0.0139793
8735.56	0.0121728
8748.76	0.0103633
8761.96	0.00855258
8775.15	0.00674237
8788.35	0.00493446
8801.54	0.00313063
8814.74	0.00133267
8827.93	-0.000457628
8841.13	-0.00223846
8854.33	-0.00400805
8867.52	-0.0057646
8880.72	-0.00750635
8893.91	-0.00923154
8907.11	-0.0109384
8920.31	-0.0126253
8933.5	-0.0142904
8946.7	-0.0159321
8959.89	-0.0175488
8973.09	-0.0191388
8986.28	-0.0207006
8999.48	-0.0222327
9012.68	-0.0237336
9025.87	-0.0252019
9039.07	-0.0266361
9052.26	-0.0280351
9065.46	-0.0293975
9078.65	-0.0307222
9091.85	-0.032008
9105.05	-0.0332539
9118.24	-0.034459
9131.44	-0.0356223
9144.63	-0.036743
9157.83	-0.0378205
9171.02	-0.038854
9184.22	-0.039843
9197.42	-0.040787
9210.61	-0.0416857
9223.81	-0.0425387
9237	-0.0433457
9250.2	-0.0441068
9263.4	-0.0448218
9276.59	-0.0454908
9289.79	-0.0461139
9302.98	-0.0466914
9316.18	-0.0472235
9329.37	-0.0477107
9342.57	-0.0481534
9355.77	-0.0485522
9368.96	-0.0489076
9382.16	-0.0492204
9395.35	-0.0494914
9408.55	-0.0497213
9421.74	-0.049911
9434.94	-0.0500616
9448.14	-0.050174
9461.33	-0.0502492
9474.53	-0.0502884
9487.72	-0.0502927
9500.92	-0.0502634
9514.11	-0.0502015
9527.31	-0.0501084
9540.51	-0.0499853
9553.7	-0.0498335
9566.9	-0.0496544
9580.09	-0.0494493
9593.29	-0.0492194
9606.49	-0.0489661
9619.68	-0.0486908
9632.88	-0.0483947
9646.07	-0.0480793
9659.27	-0.0477458
9672.46	-0.0473954
9685.66	-0.0470296
9698.86	-0.0466494
9712.05	-0.0462563
9725.25	-0.0458512
9738.44	-0.0454355
9751.64	-0.0450103
9764.83	-0.0445766
9778.03	-0.0441355
9791.23	-0.0436881
9804.42	-0.0432354
9817.62	-0.0427783
9830.81	-0.0423177
9844.01	-0.0418544
9857.21	-0.0413894
9870.4	-0.0409233
9883.6	-0.040457
9896.79	-0.039991
9909.99	-0.0395262
9923.18	-0.039063
9936.38	-0.038602
9949.58	-0.0381439
9962.77	-0.037689
9975.97	-0.0372377
9989.16	-0.0367906
10002.4	-0.036348
10015.6	-0.0359102
10028.8	-0.0354775
10041.9	-0.0350502
10055.1	-0.0346285
10068.3	-0.0342126
10081.5	-0.0338027
10094.7	-0.0333989
10107.9	-0.0330014
10121.1	-0.0326103
10134.3	-0.0322256
10147.5	-0.0318473
10160.7	-0.0314756
10173.9	-0.0311104
10187.1	-0.0307517
10200.3	-0.0303996
10213.5	-0.0300539
10226.7	-0.0297146
10239.9	-0.0293816
10253.1	-0.0290549
10266.3	-0.0287345
10279.5	-0.0284201
10292.7	-0.0281117
10305.9	-0.0278092
10319.1	-0.0275124
10332.3	-0.0272213
10345.4	-0.0269356
10358.6	-0.0266553
10371.8	-0.0263802
10385	-0.0261101
10398.2	-0.025845
10411.4	-0.0255845
10424.6	-0.0253286
10437.8	-0.025077
10451	-0.0248296
10464.2	-0.0245863
10477.4	-0.0243467
10490.6	-0.0241107
10503.8	-0.0238781
10517	-0.0236487
10530.2	-0.0234223
10543.4	-0.0231986
10556.6	-0.0229774
10569.8	-0.0227585
10583	-0.0225416
10596.2	-0.0223265
10609.4	-0.0221129
10622.6	-0.0219006
10635.8	-0.0216893
10649	-0.0214787
10662.1	-0.0212685
10675.3	-0.0210584
10688.5	-0.0208481
10701.7	-0.0206374
10714.9	-0.0204259
10728.1	-0.0202133
10741.3	-0.0199993
10754.5	-0.0197835
10767.7	-0.0195657
10780.9	-0.0193454
10794.1	-0.0191223
10807.3	-0.0188962
10820.5	-0.0186666
10833.7	-0.0184332
10846.9	-0.0181957
10860.1	-0.0179537
10873.3	-0.0177068
10886.5	-0.0174548
10899.7	-0.0171973
10912.9	-0.0169339
10926.1	-0.0166643
10939.3	-0.0163882
10952.5	-0.0161052
10965.7	-0.0158152
10978.8	-0.0155176
10992	-0.0152124
11005.2	-0.0148991
11018.4	-0.0145776
11031.6	-0.0142475
11044.8	-0.0139086
11058	-0.0135607
11071.2	-0.0132037
11084.4	-0.0128372
11097.6	-0.0124612
11110.8	-0.0120755
11124	-0.0116799
11137.2	-0.0112744
11150.4	-0.0108588
11163.6	-0.0104331
11176.8	-0.00999728
11190	-0.00955127
11203.2	-0.00909509
11216.4	-0.00862878
11229.6	-0.00815237
11242.8	-0.00766595
11256	-0.00716962
11269.2	-0.0066635
11282.3	-0.00614774
11295.5	-0.00562252
11308.7	-0.00508802
11321.9	-0.00454448
11335.1	-0.00399213
11348.3	-0.00343123
11361.5	-0.00286208
11374.7	-0.00228498
11387.9	-0.00170025
11401.1	-0.00110824
11414.3	-0.00050932
11427.5	9.61383e-05
11440.7	0.000707736
11453.9	0.00132506
11467.1	0.0019477
11480.3	0.0025752
11493.5	0.00320712
11506.7	0.00384301
11519.9	0.00448241
11533.1	0.00512484
11546.3	0.00576982
11559.5	0.00641688
11572.7	0.00706554
11585.9	0.0077153
11599	0.0083657
11612.2	0.00901624
11625.4	0.00966645
11638.6	0.0103159
11651.8	0.010964
11665	0.0116104
11678.2	0.0122546
11691.4	0.0128962
11704.6	0.0135347
11717.8	0.0141698
11731	0.0148009
11744.2	0.0154278
11757.4	0.0160499
11770.6	0.016667
11783.8	0.0172787
11797	0.0178846
11810.2	0.0184845
11823.4	0.0190779
11836.6	0.0196646
11849.8	0.0202444
11863	0.0208169
11876.2	0.021382
11889.4	0.0219393
11902.6	0.0224886
11915.7	0.0230298
11928.9	0.0235626
11942.1	0.0240869
11955.3	0.0246025
11968.5	0.0251092
11981.7	0.0256069
11994.9	0.0260955
12008.1	0.0265748
12021.3	0.0270447
12034.5	0.0275051
12047.7	0.0279558
12060.9	0.0283969
12074.1	0.0288282
12087.3	0.0292495
12100.5	0.0296609
12113.7	0.0300622
12126.9	0.0304533
12140.1	0.0308342
12153.3	0.0312047
12166.5	0.0315648
12179.7	0.0319143
12192.9	0.0322532
12206.1	0.0325814
12219.2	0.0328986
12232.4	0.0332049
12245.6	0.0335001
12258.8	0.0337841
12272	0.0340567
12285.2	0.0343177
12298.4	0.0345671
12311.6	0.0348046
12324.8	0.03503
12338	0.0352433
12351.2	0.0354442
12364.4	0.0356325
12377.6	0.035808
12390.8	0.0359706
12404	0.0361198
12417.2	0.0362557
12430.4	0.0363778
12443.6	0.0364861
12456.8	0.0365802
12470	0.03666
12483.2	0.0367251
12496.4	0.0367753
12509.6	0.0368105
12522.8	0.0368303
12535.9	0.0368345
12549.1	0.0368229
12562.3	0.0367952
12575.5	0.0367513
12588.7	0.0366909
12601.9	0.0366137
12615.1	0.0365198
12628.3	0.0364087
12641.5	0.0362804
12654.7	0.0361346
12667.9	0.0359714
12681.1	0.0357904
12694.3	0.0355917
12707.5	0.0353751
12720.7	0.0351405
12733.9	0.0348879
12747.1	0.0346172
12760.3	0.0343285
12773.5	0.0340217
12786.7	0.0336969
12799.9	0.0333542
12813.1	0.0329935
12826.3	0.0326151
12839.5	0.032219
12852.6	0.0318055
12865.8	0.0313746
12879	0.0309265
12892.2	0.0304616
12905.4	0.0299801
12918.6	0.0294822
12931.8	0.0289682
12945	0.0284385
12958.2	0.0278935
12971.4	0.0273334
12984.6	0.0267586
12997.8	0.0261697
13011	0.025567
13024.2	0.024951
13037.4	0.0243221
13050.6	0.0236809
13063.8	0.0230278
13077	0.0223634
13090.2	0.0216881
13103.4	0.0210027
13116.6	0.0203076
13129.8	0.0196033
13143	0.0188905
13156.1	0.0181698
13169.3	0.0174417
13182.5	0.0167069
13195.7	0.015966
13208.9	0.0152195
13222.1	0.0144681
13235.3	0.0137123
13248.5	0.0129529
13261.7	0.0121904
13274.9	0.0114253
13288.1	0.0106584
13301.3	0.00989014
13314.5	0.00912116
13327.7	0.00835203
13340.9	0.00758332
13354.1	0.00681558
13367.3	0.00604935
13380.5	0.00528518
13393.7	0.00452357
13406.9	0.00376503
13420.1	0.00301006
13433.3	0.00225912
13446.5	0.00151269
13459.7	0.000771197
13472.8	3.50759e-05
13486	-0.000695267
13499.2	-0.00141944
13512.4	-0.00213707
13525.6	-0.0028478
13538.8	-0.0035513
13552	-0.00424725
13565.2	-0.00493534
13578.4	-0.00561531
13591.6	-0.00628689
13604.8	-0.00694983
13618	-0.00760392
13631.2	-0.00824895
13644.4	-0.00888473
13657.6	-0.00951109
13670.8	-0.0101279
13684	-0.010735
13697.2	-0.0113323
13710.4	-0.0119196
13723.6	-0.012497
13736.8	-0.0130643
13750	-0.0136214
13763.2	-0.0141685
13776.4	-0.0147053
13789.5	-0.0152319
13802.7	-0.0157483
13815.9	-0.0162546
13829.1	-0.0167507
13842.3	-0.0172367
13855.5	-0.0177126
13868.7	-0.0181784
13881.9	-0.0186344
13895.1	-0.0190804
13908.3	-0.0195167
13921.5	-0.0199432
13934.7	-0.0203601
13947.9	-0.0207675
13961.1	-0.0211655
13974.3	-0.0215541
13987.5	-0.0219335
14000.7	-0.0223039
14013.9	-0.0226652
14027.1	-0.0230177
14040.3	-0.0233614
14053.5	-0.0236965
14066.7	-0.0240231
14079.9	-0.0243412
14093.1	-0.0246511
14106.2	-0.0249528
14119.4	-0.0252463
14132.6	-0.0255319
14145.8	-0.0258096
14159	-0.0260796
14172.2	-0.0263418
14185.4	-0.0265964
14198.6	-0.0268436
14211.8	-0.0270832
14225	-0.0273155
14238.2	-0.0275405
14251.4	-0.0277582
14264.6	-0.0279687
14277.8	-0.028172
14291	-0.0283683
14304.2	-0.0285574
14317.4	-0.0287395
14330.6	-0.0289146
14343.8	-0.0290827
14357	-0.0292437
14370.2	-0.0293978
14383.4	-0.0295448
14396.6	-0.0296849
14409.7	-0.0298179
14422.9	-0.0299439
14436.1	-0.0300628
14449.3	-0.0301746
14462.5	-0.0302794
14475.7	-0.0303769
14488.9	-0.0304673
14502.1	-0.0305505
14515.3	-0.0306264
14528.5	-0.030695
14541.7	-0.0307562
14554.9	-0.0308101
14568.1	-0.0308565
14581.3	-0.0308955
14594.5	-0.0309269
14607.7	-0.0309507
14620.9	-0.030967
14634.1	-0.0309756
14647.3	-0.0309766
14660.5	-0.0309698
14673.7	-0.0309553
14686.9	-0.0309331
14700.1	-0.0309031
14713.3	-0.0308654
14726.4	-0.0308198
14739.6	-0.0307665
14752.8	-0.0307055
14766	-0.0306367
14779.2	-0.0305602
14792.4	-0.0304759
14805.6	-0.0303841
14818.8	-0.0302846
14832	-0.0301776
14845.2	-0.0300632
14858.4	-0.0299413
14871.6	-0.0298121
14884.8	-0.0296757
14898	-0.0295322
14911.2	-0.0293816
14924.4	-0.0292242
14937.6	-0.0290601
14950.8	-0.0288893
14964	-0.0287121
14977.2	-0.0285285
14990.4	-0.0283388
15003.6	-0.0281432
15016.8	-0.0279417
15030	-0.0277346
15043.1	-0.0275222
15056.3	-0.0273045
15069.5	-0.0270819
15082.7	-0.0268544
15095.9	-0.0266224
15109.1	-0.0263861
15122.3	-0.0261457
15135.5	-0.0259014
15148.7	-0.0256535
15161.9	-0.0254021
15175.1	-0.0251477
15188.3	-0.0248903
15201.5	-0.0246303
15214.7	-0.0243679
15227.9	-0.0241033
15241.1	-0.0238368
15254.3	-0.0235687
15267.5	-0.0232991
15280.7	-0.0230284
15293.9	-0.0227568
15307.1	-0.0224844
15320.3	-0.0222117
15333.5	-0.0219387
15346.6	-0.0216657
15359.8	-0.021393
15373	-0.0211208
15386.2	-0.0208493
15399.4	-0.0205787
15412.6	-0.0203092
15425.8	-0.0200411
15439	-0.0197745
15452.2	-0.0195096
15465.4	-0.0192466
15478.6	-0.0189857
15491.8	-0.0187271
15505	-0.018471
15518.2	-0.0182174
15531.4	-0.0179666
15544.6	-0.0177188
15557.8	-0.017474
15571	-0.0172324
15584.2	-0.0169942
15597.4	-0.0167595
15610.6	-0.0165283
15623.8	-0.016301
15637	-0.0160774
15650.2	-0.0158579
15663.3	-0.0156424
15676.5	-0.0154311
15689.7	-0.015224
15702.9	-0.0150214
15716.1	-0.0148232
15729.3	-0.0146295
15742.5	-0.0144406
15755.7	-0.0142563
15768.9	-0.0140768
15782.1	-0.0139022
15795.3	-0.0137326
15808.5	-0.013568
15821.7	-0.0134085
15834.9	-0.0132542
15848.1	-0.0131051
15861.3	-0.0129613
15874.5	-0.0128229
15887.7	-0.0126899
15900.9	-0.0125625
15914.1	-0.0124405
15927.3	-0.0123242
15940.5	-0.0122135
15953.7	-0.0121085
15966.9	-0.0120093
15980	-0.0119159
15993.2	-0.0118284
16006.4	-0.0117467
16019.6	-0.0116711
16032.8	-0.0116014
16046	-0.0115377
16059.2	-0.0114801
16072.4	-0.0114285
16085.6	-0.0113831
16098.8	-0.0113438
16112	-0.0113107
16125.2	-0.0112837
16138.4	-0.0112629
16151.6	-0.0112482
16164.8	-0.0112398
16178	-0.0112374
16191.2	-0.0112412
16204.4	-0.0112511
16217.6	-0.0112671
16230.8	-0.0112891
16244	-0.0113171
16257.2	-0.011351
16270.4	-0.0113907
16283.5	-0.0114363
16296.7	-0.0114875
16309.9	-0.0115443
16323.1	-0.0116066
16336.3	-0.0116743
16349.5	-0.0117472
16362.7	-0.0118253
16375.9	-0.0119082
16389.1	-0.011996
16402.3	-0.0120883
16415.5	-0.0121851
16428.7	-0.0122861
16441.9	-0.0123911
16455.1	-0.0124999
16468.3	-0.0126123
16481.5	-0.012728
16494.7	-0.0128467
16507.9	-0.0129682
16521.1	-0.0130923
16534.3	-0.0132186
16547.5	-0.0133468
16560.7	-0.0134766
16573.9	-0.0136077
16587.1	-0.0137398
16600.2	-0.0138725
16613.4	-0.0140055
16626.6	-0.0141385
16639.8	-0.014271
16653	-0.0144027
16666.2	-0.0145332
16679.4	-0.0146622
16692.6	-0.0147893
16705.8	-0.014914
16719	-0.0150361
16732.2	-0.015155
16745.4	-0.0152705
16758.6	-0.0153821
16771.8	-0.0154894
16785	-0.015592
16798.2	-0.0156896
16811.4	-0.0157818
16824.6	-0.0158681
16837.8	-0.0159482
16851	-0.0160218
16864.2	-0.0160884
16877.4	-0.0161477
16890.6	-0.0161994
16903.8	-0.0162431
16916.9	-0.0162785
16930.1	-0.0163052
16943.3	-0.0163231
16956.5	-0.0163317
16969.7	-0.0163307
16982.9	-0.0163201
16996.1	-0.0162993
17009.3	-0.0162684
17022.5	-0.0162269
17035.7	-0.0161748
17048.9	-0.0161118
17062.1	-0.0160377
17075.3	-0.0159525
17088.5	-0.015856
17101.7	-0.0157481
17114.9	-0.0156286
17128.1	-0.0154976
17141.3	-0.015355
17154.5	-0.0152008
17167.7	-0.0150349
17180.9	-0.0148574
17194.1	-0.0146683
17207.3	-0.0144676
17220.5	-0.0142556
17233.6	-0.0140322
17246.8	-0.0137975
17260	-0.0135519
17273.2	-0.0132953
17286.4	-0.013028
17299.6	-0.0127502
17312.8	-0.0124622
17326	-0.0121642
17339.2	-0.0118564
17352.4	-0.0115392
17365.6	-0.0112128
17378.8	-0.0108777
17392	-0.0105341
17405.2	-0.0101824
17418.4	-0.00982296
17431.6	-0.00945623
17444.8	-0.00908261
17458	-0.00870252
17471.2	-0.0083164
17484.4	-0.0079247
17497.6	-0.0075279
17510.8	-0.00712648
17524	-0.00672092
17537.1	-0.00631172
17550.3	-0.00589941
17563.5	-0.00548449
17576.7	-0.00506748
17589.9	-0.00464893
17603.1	-0.00422937
17616.3	-0.00380935
17629.5	-0.0033894
17642.7	-0.00297008
17655.9	-0.00255195
17669.1	-0.00213554
17682.3	-0.00172142
17695.5	-0.00131014
17708.7	-0.00090224
17721.9	-0.000498278
17735.1	-9.87925e-05
17748.3	0.000295676
17761.5	0.000684593
17774.7	0.00106743
17787.9	0.00144367
17801.1	0.0018128
17814.3	0.00217431
17827.5	0.00252771
17840.7	0.00287251
17853.8	0.00320824
17867	0.00353445
17880.2	0.00385068
17893.4	0.00415649
17906.6	0.00445147
17919.8	0.00473521
17933	0.00500731
17946.2	0.00526741
17959.4	0.00551515
17972.6	0.00575017
17985.8	0.00597217
17999	0.00618082
18012.2	0.00637586
18025.4	0.006557
18038.6	0.00672401
18051.8	0.00687666
18065	0.00701473
18078.2	0.00713804
18091.4	0.00724643
18104.6	0.00733975
18117.8	0.00741788
18131	0.00748073
18144.2	0.00752821
18157.4	0.00756027
18170.5	0.00757687
18183.7	0.00757802
18196.9	0.00756371
18210.1	0.00753398
18223.3	0.0074889
18236.5	0.00742855
18249.7	0.00735302
18262.9	0.00726245
18276.1	0.00715698
18289.3	0.00703679
18302.5	0.00690206
18315.7	0.00675303
18328.9	0.00658991
18342.1	0.00641298
18355.3	0.00622251
18368.5	0.0060188
18381.7	0.00580218
18394.9	0.00557299
18408.1	0.00533159
18421.3	0.00507836
18434.5	0.00481369
18447.7	0.00453801
18460.9	0.00425176
18474	0.00395537
18487.2	0.00364933
18500.4	0.00333412
18513.6	0.00301023
18526.8	0.00267818
18540	0.0023385
18553.2	0.00199173
18566.4	0.00163841
18579.6	0.00127912
18592.8	0.000914416
18606	0.000544897
18619.2	0.00017115
18632.4	-0.000206226
18645.6	-0.000586624
18658.8	-0.00096943
18672	-0.00135403
18685.2	-0.00173979
18698.4	-0.0021261
18711.6	-0.00251232
18724.8	-0.00289784
18738	-0.00328201
18751.2	-0.00366421
18764.4	-0.00404381
18777.6	-0.00442019
18790.7	-0.00479274
18803.9	-0.00516083
18817.1	-0.00552386
18830.3	-0.00588122
18843.5	-0.00623232
18856.7	-0.00657657
18869.9	-0.00691339
18883.1	-0.00724223
18896.3	-0.00756252
18909.5	-0.00787372
18922.7	-0.00817531
18935.9	-0.00846676
18949.1	-0.00874758
18962.3	-0.00901728
18975.5	-0.0092754
18988.7	-0.00952148
19001.9	-0.00975509
19015.1	-0.00997582
19028.3	-0.0101833
19041.5	-0.0103771
19054.7	-0.0105569
19067.9	-0.0107223
19081.1	-0.0108731
19094.3	-0.011009
19107.4	-0.0111296
19120.6	-0.0112348
19133.8	-0.0113243
19147	-0.011398
19160.2	-0.0114556
19173.4	-0.011497
19186.6	-0.011522
19199.8	-0.0115307
19213	-0.0115228
19226.2	-0.0114984
19239.4	-0.0114574
19252.6	-0.0113998
19265.8	-0.0113256
19279	-0.0112349
19292.2	-0.0111278
19305.4	-0.0110042
19318.6	-0.0108645
19331.8	-0.0107085
19345	-0.0105367
19358.2	-0.010349
19371.4	-0.0101458
19384.6	-0.00992722
19397.8	-0.00969353
19410.9	-0.009445
19424.1	-0.00918192
19437.3	-0.00890458
19450.5	-0.00861331
19463.7	-0.00830845
19476.9	-0.00799035
19490.1	-0.00765939
19503.3	-0.00731596
19516.5	-0.00696046
19529.7	-0.00659331
19542.9	-0.00621493
19556.1	-0.00582577
19569.3	-0.00542628
19582.5	-0.00501693
19595.7	-0.00459819
19608.9	-0.00417054
19622.1	-0.00373448
19635.3	-0.0032905
19648.5	-0.0028391
19661.7	-0.0023808
19674.9	-0.00191611
19688.1	-0.00144554
19701.3	-0.000969613
19714.5	-0.000488852
19727.6	-3.77965e-06
19740.8	0.000485084
19754	0.000977217
19767.2	0.0014721
19780.4	0.00196921
19793.6	0.00246805
19806.8	0.00296809
19820	0.00346884
19833.2	0.00396979
19846.4	0.00447046
19859.6	0.00497035
19872.8	0.00546899
19886	0.0059659
19899.2	0.00646064
19912.4	0.00695273
19925.6	0.00744176
19938.8	0.00792727
19952	0.00840886
19965.2	0.00888612
19978.4	0.00935865
19991.6	0.00982607
