%%MatrixMarket matrix array real general
20 20
.7071067810
0.
0.
0.
0.
0.
0.
0.
0.
0.
0.
0.
0.
0.
0.
0.
0.
0.
0.
0.
.2357022604
0.
0.
0.
-.8333333333e-1
0.
0.
0.
0.
0.
.1443375673
0.
0.
0.
0.
0.
0.
0.
0.
0.
.1178511302
0.
0.
0.
-.6666666667e-1
0.
0.
.1360827635e-1
0.
0.
.1154700539
0.
0.
-.2357022604e-1
0.
0.
.3042903097e-1
0.
0.
0.
.7071067810e-1
0.
0.
0.
-.5000000000e-1
0.
0.
.1749635531e-1
0.
-.2525381361e-2
.8660254040e-1
0.
0.
-.3030457633e-1
0.
.4374088827e-2
.3912303982e-1
0.
-.5646924394e-2
.6681531049e-2
.2357022604
0.
0.
0.
.1666666667
0.
0.
0.
0.
0.
0.
0.
0.
0.
0.
0.
0.
0.
0.
0.
.5892556509e-1
0.
0.
0.
.1666666667e-1
0.
0.
-.2041241452e-1
0.
0.
.2886751347e-1
0.
0.
.2357022604e-1
0.
0.
0.
0.
0.
0.
.2357022604e-1
0.
0.
0.
0.
0.
0.
-.9720197392e-2
0.
.3367175148e-2
.1924500898e-1
0.
0.
.1010152544e-1
0.
-.4860098696e-2
.4347004424e-2
0.
.3764616260e-2
0.
.1178511302
0.
0.
0.
.1333333333
0.
0.
.4082482906e-1
0.
0.
0.
0.
0.
0.
0.
0.
0.
0.
0.
0.
.2357022604e-1
0.
0.
0.
.1666666667e-1
0.
0.
-.5832118436e-2
0.
-.5050762721e-2
.9622504490e-2
0.
0.
.1346870059e-1
0.
.4860098696e-2
0.
0.
0.
0.
.7071067810e-1
0.
0.
0.
.1000000000
0.
0.
.5248906592e-1
0.
.1010152544e-1
0.
0.
0.
0.
0.
0.
0.
0.
0.
0.
.3535533905
.2041241452
0.
0.
0.
0.
0.
0.
0.
0.
0.
0.
0.
0.
0.
0.
0.
0.
0.
0.
.1178511302
.6804138176e-1
0.
0.
-.4166666667e-1
-.2405626122e-1
0.
0.
0.
0.
.7216878367e-1
.4166666667e-1
0.
0.
0.
0.
0.
0.
0.
0.
.5892556509e-1
.3402069088e-1
0.
0.
-.3333333333e-1
-.1924500898e-1
0.
.6804138176e-2
.3928371006e-2
0.
.5773502693e-1
.3333333333e-1
0.
-.1178511302e-1
-.6804138176e-2
0.
.1521451549e-1
.8784104612e-2
0.
0.
.1178511302
.6804138176e-1
0.
0.
.8333333333e-1
.4811252245e-1
0.
0.
0.
0.
0.
0.
0.
0.
0.
0.
0.
0.
0.
0.
.2946278254e-1
.1701034544e-1
0.
0.
.8333333333e-2
.4811252245e-2
0.
-.1020620726e-1
-.5892556509e-2
0.
.1443375673e-1
.8333333333e-2
0.
.1178511302e-1
.6804138176e-2
0.
0.
0.
0.
0.
.5892556509e-1
.3402069088e-1
0.
0.
.6666666667e-1
.3849001795e-1
0.
.2041241452e-1
.1178511302e-1
0.
0.
0.
0.
0.
0.
0.
0.
0.
0.
0.
.2357022604
.2041241452
.5270462768e-1
0.
0.
0.
0.
0.
0.
0.
0.
0.
0.
0.
0.
0.
0.
0.
0.
0.
.7856742012e-1
.6804138176e-1
.1756820922e-1
0.
-.2777777778e-1
-.2405626122e-1
-.6211299937e-2
0.
0.
0.
.4811252245e-1
.4166666667e-1
.1075828707e-1
0.
0.
0.
0.
0.
0.
0.
.7856742012e-1
.6804138176e-1
.1756820922e-1
0.
.5555555556e-1
.4811252245e-1
.1242259987e-1
0.
0.
0.
0.
0.
0.
0.
0.
0.
0.
0.
0.
0.
.1767766952
.1837117307
.7905694150e-1
.1336306209e-1
0.
0.
0.
0.
0.
0.
0.
0.
0.
0.
0.
0.
0.
0.
0.
0.
