%%MatrixMarket matrix array real general
18 18
1.
-3.
2.
-3.
4.
2.
-3.
9.
-6.
9.
-12.
-6.
2.
-6.
4.
-6.
8.
4.
0.
4.
-4.
0.
-4.
0.
0.
-12.
12.
0.
12.
0.
0.
8.
-8.
0.
-8.
0.
0.
-1.
2.
0.
0.
0.
0.
3.
-6.
0.
0.
0.
0.
-2.
4.
0.
0.
0.
0.
0.
0.
4.
-4.
-4.
0.
0.
0.
-12.
12.
12.
0.
0.
0.
8.
-8.
-8.
0.
0.
0.
0.
4.
0.
0.
0.
0.
0.
-12.
0.
0.
0.
0.
0.
8.
0.
0.
0.
0.
-1.
0.
2.
0.
0.
0.
3.
0.
-6.
0.
0.
0.
-2.
0.
4.
0.
0.
0.
0.
0.
0.
4.
-12.
8.
-12.
16.
8.
-4.
12.
-8.
12.
-16.
-8.
0.
0.
0.
0.
0.
0.
0.
16.
-16.
0.
-16.
0.
0.
-16.
16.
0.
16.
0.
0.
0.
0.
0.
0.
0.
0.
-4.
8.
0.
0.
0.
0.
4.
-8.
0.
0.
0.
0.
0.
0.
0.
0.
0.
0.
0.
0.
16.
-16.
-16.
0.
0.
0.
-16.
16.
16.
0.
0.
0.
0.
0.
0.
0.
0.
0.
0.
16.
0.
0.
0.
0.
0.
-16.
0.
0.
0.
0.
0.
0.
0.
0.
0.
0.
-4.
0.
8.
0.
0.
0.
4.
0.
-8.
0.
0.
0.
0.
0.
0.
-1.
3.
-2.
3.
-4.
-2.
2.
-6.
4.
-6.
8.
4.
0.
0.
0.
0.
0.
0.
0.
-4.
4.
0.
4.
0.
0.
8.
-8.
0.
-8.
0.
0.
0.
0.
0.
0.
0.
0.
1.
-2.
0.
0.
0.
0.
-2.
4.
0.
0.
0.
0.
0.
0.
0.
0.
0.
0.
0.
0.
-4.
4.
4.
0.
0.
0.
8.
-8.
-8.
0.
0.
0.
0.
0.
0.
0.
0.
0.
0.
-4.
0.
0.
0.
0.
0.
8.
0.
0.
0.
0.
0.
0.
0.
0.
0.
0.
1.
0.
-2.
0.
0.
0.
-2.
0.
4.
