time,surface_elevation,reference_data,number_of_local_cells,number_of_global_cells
0,0,0,2048,2048
154.538,0,0,2048,2048
309.076,0,0,2048,2048
463.615,0,0,2048,2048
618.153,0,0,2048,2048
772.691,0,0,2048,2048
927.229,0,0,2048,2048
1081.77,0,0,2048,2048
1236.31,0,0,2048,2048
1390.84,0,0,2048,2048
1545.38,0,0,2048,2048
1699.92,0,0,2048,2048
1854.46,0,0,2048,2048
2009,0,0,2048,2048
2163.54,2.02108e-08,0,2048,2048
2318.07,2.4059e-07,0,2048,2048
2472.61,2.49231e-06,0,2048,2048
2627.15,1.76017e-05,0,2048,2048
2781.69,8.07108e-05,0,2048,2048
2936.23,0.000273721,0,2048,2048
3090.76,0.000750723,0,2048,2048
3245.3,0.00176486,0,2048,2048
3399.84,0.00369124,0,2048,2048
3554.38,0.00701078,0,2048,2048
3708.92,0.0122211,0,2048,2048
3863.46,0.0196676,0,2048,2048
4017.99,0.0293472,0,2048,2048
4172.53,0.0407562,0,2048,2048
4327.07,0.0528518,0,2048,2048
4481.61,0.0641499,0,2048,2048
4636.15,0.0729561,0,2048,2048
4790.69,0.0776771,0,2048,2048
4945.22,0.0771459,0,2048,2048
5099.76,0.0708799,0,2048,2048
5254.3,0.0592103,0,2048,2048
5408.84,0.0432492,0,2048,2048
5563.38,0.0247043,0,2048,2048
5717.91,0.00558102,0,2048,2048
5872.45,-0.01216,0,2048,2048
6026.99,-0.0269172,0,2048,2048
6181.53,-0.0376703,0,2048,2048
6336.07,-0.0440724,0,2048,2048
6490.61,-0.0464061,0,2048,2048
6645.14,-0.0454292,0,2048,2048
6799.68,-0.0421576,0,2048,2048
6954.22,-0.0376395,0,2048,2048
7108.76,-0.0327698,0,2048,2048
7263.3,-0.0281764,0,2048,2048
7417.83,-0.0241864,0,2048,2048
7572.37,-0.0208631,0,2048,2048
7726.91,-0.0180877,0,2048,2048
7881.45,-0.0156575,0,2048,2048
8035.99,-0.0133712,0,2048,2048
8190.52,-0.0110871,0,2048,2048
8345.06,-0.00874603,0,2048,2048
8499.6,-0.00636485,0,2048,2048
8654.14,-0.00401102,0,2048,2048
8808.67,-0.0017711,0,2048,2048
8963.21,0.000276296,0,2048,2048
9117.75,0.0020768,0,2048,2048
9272.28,0.00360508,0,2048,2048
9426.82,0.00486054,0,2048,2048
9581.36,0.00585864,0,2048,2048
9735.89,0.00662193,0,2048,2048
9890.43,0.0071738,0,2048,2048
10045,0.00753547,0,2048,2048
10199.5,0.00772585,0,2048,2048
10354,0.00776242,0,2048,2048
10508.6,0.00766222,0,2048,2048
10663.1,0.00744181,0,2048,2048
10817.7,0.00711671,0,2048,2048
10972.2,0.00670058,0,2048,2048
11126.7,0.00620517,0,2048,2048
11281.3,0.00564116,0,2048,2048
11435.8,0.00501994,0,2048,2048
11590.4,0.00435537,0,2048,2048
11744.9,0.00366516,0,2048,2048
11899.4,0.00297069,0,2048,2048
12054,0.00229557,0,2048,2048
12208.5,0.00166289,0,2048,2048
12363,0.00109211,0,2048,2048
12517.6,0.000596422,0,2048,2048
12672.1,0.000181292,0,2048,2048
12826.7,-0.000155513,0,2048,2048
12981.2,-0.000422418,0,2048,2048
13135.7,-0.000631682,0,2048,2048
13290.3,-0.000796757,0,2048,2048
13444.8,-0.000930093,0,2048,2048
13599.3,-0.0010417,0,2048,2048
13753.9,-0.00113867,0,2048,2048
13908.4,-0.00122532,0,2048,2048
14063,-0.00130383,0,2048,2048
14217.5,-0.00137481,0,2048,2048
14372,-0.00143777,0,2048,2048
14526.6,-0.00149124,0,2048,2048
14681.1,-0.00153276,0,2048,2048
14835.7,-0.0015588,0,2048,2048
14990.2,-0.00156489,0,2048,2048
15144.7,-0.00154585,0,2048,2048
15299.3,-0.0014963,0,2048,2048
15453.8,-0.00141121,0,2048,2048
15608.3,-0.00128639,0,2048,2048
15762.9,-0.00111888,0,2048,2048
15917.4,-0.000907096,0,2048,2048
16072,-0.000650844,0,2048,2048
16226.5,-0.0003512,0,2048,2048
16381,-1.04352e-05,0,2048,2048
16535.6,0.000368009,0,2048,2048
16690.1,0.000779464,0,2048,2048
16844.6,0.00121791,0,2048,2048
16999.2,0.00167591,0,2048,2048
17153.7,0.00214455,0,2048,2048
17308.3,0.00261363,0,2048,2048
17462.8,0.00307196,0,2048,2048
17617.3,0.00350781,0,2048,2048
17771.9,0.00390947,0,2048,2048
17926.4,0.00426587,0,2048,2048
18081,0.00456713,0,2048,2048
18235.5,0.00480505,0,2048,2048
18390,0.00497355,0,2048,2048
18544.6,0.00506893,0,2048,2048
18699.1,0.00509004,0,2048,2048
18853.6,0.00503835,0,2048,2048
19008.2,0.00491776,0,2048,2048
19162.7,0.00473438,0,2048,2048
19317.3,0.00449609,0,2048,2048
19471.8,0.00421204,0,2048,2048
19626.3,0.00389202,0,2048,2048
19780.9,0.00354593,0,2048,2048
19935.4,0.00318323,0,2048,2048
