20488	
21490	
27368	
31266	
32036	
32694	
33564	
34426	
34968	
35430	
35936	
36550	
37184	
37890	
38550	
39070	
39680	
40214	
40578	
41132	
41486	
41886	
42224	
42800	
43026	
43078	
43306	
43808	
43914	
44092	
44440	
44774	
44854	
44870	
45038	
45160	
45540	
46066	
46628	
46900	
47296	
47432	
47570	
47624	
47812	
48090	
48164	
48464	
49242	
49662	
49554	
49618	
49934	
50172	
50124	
50410	
50816	
50918	
51480	
51420	
51446	
51704	
52030	
52604	
52816	
53548	
54206	
54456	
54716	
54844	
55584	
55964	
56476	
57020	
57376	
57754	
58030	
58222	
58666	
59074	
59544	
59702	
60124	
60394	
60528	
60774	
61000	
61046	
61178	
61344	
61640	
61842	
62122	
62462	
62602	
62674	
63014	
63228	
63592	
63786	
64008	
64144	
64296	
64632	
64896	
65176	
65508	
65522	
65626	
66052	
66536	
66978	
67180	
67234	
67404	
67546	
68348	
68418	
68390	
68560	
68750	
68944	
69402	
69854	
69998	
70104	
70270	
70482	
70708	
70778	
71058	
71220	
71394	
71626	
71786	
71788	
72004	
72124	
72334	
72542	
72832	
72948	
72926	
73210	
73292	
73470	
73606	
73820	
74006	
74216	
74382	
74334	
74524	
74770	
74914	
75258	
75252	
75268	
75458	
75536	
75838	
75932	
76010	
76168	
76342	
76548	
76744	
76704	
76790	
76848	
77194	
77724	
77630	
77872	
77996	
77972	
78164	
78392	
78274	
78472	
78776	
78628	
78848	
79252	
79484	
79564	
79518	
79634	
79782	
79940	
80240	
80476	
80534	
80628	
80672	
80894	
80934	
81188	
81212	
81336	
81766	
81748	
81646	
81844	
81800	
81960	
82126	
82158	
82160	
82308	
82734	
82938	
83138	
83394	
83334	
83546	
83642	
83614	
83430	
83502	
83736	
83582	
83638	
83948	
83932	
84124	
84126	
84228	
84360	
84478	
84942	
85062	
85234	
85716	
85712	
85674	
85836	
86136	
86218	
86182	
86178	
86370	
86438	
86826	
86876	
86892	
87108	
87376	
87564	
87580	
87672	
87852	
87836	
87960	
88264	
88312	
88650	
88914	
89036	
89292	
89374	
89470	
89494	
89862	
90032	
89910	
90094	
90240	
90238	
90258	
90268	
90346	
90318	
90328	
90338	
90332	
90372	
90546	
90462	
90512	
90592	
90786	
90882	
91024	
90914	
91078	
91316	
91412	
91620	
91638	
91644	
91731	
91781	
91727	
92033	
92161	
92157	
92317	
92217	
92447	
92573	
92895	
92909	
93093	
93121	
93007	
93038	
93206	
93398	
93598	
93680	
93640	
93634	
93755	
93625	
93967	
94191	
94223	
94155	
94307	
94225	
94125	
94433	
94641	
94505	
94529	
94617	
94603	
94607	
94585	
94815	
94603	
94805	
94877	
94990	
95284	
95244	
95262	
95284	
95462	
95474	
95484	
95724	
95856	
95764	
95848	
96080	
96028	
96117	
96169	
96445	
96481	
96536	
96809	
96783	
97015	
97001	
96926	
97052	
97346	
97368	
97208	
97156	
97250	
97172	
97236	
97594	
97926	
97860	
98142	
98392	
98174	
98292	
98298	
98284	
97988	
98033	
98155	
98125	
98241	
98347	
98193	
98161	
98485	
98407	
98381	
98487	
98633	
98709	
98669	
98557	
98416	
98676	
98746	
98832	
99028	
99246	
99280	
99252	
99444	
99384	
99158	
99256	
99226	
99436	
99748	
99732	
99631	
99597	
99726	
99644	
99610	
99660	
99760	
99920	
100040	
99914	
99912	
100314	
100352	
100180	
100008	
100104	
100068	
100030	
100026	
100297	
100328	
100434	
100374	
100244	
100354	
100522	
100442	
100284	
100076	
100132	
100268	
100084	
100180	
99924	
99886	
100084	
100008	
100000	
100038	
100132	
100091	
100031	
99850	
99847	
99937	
99983	
99819	
99957	
99953	
100075	
100075	
99965	
99889	
100091	
100178	
100086	
99956	
99836	
99937	
100001	
100322	
100423	
100239	
100137	
100319	
100423	
100353	
100379	
100552	
100422	
100438	
100492	
100474	
100552	
100832	
100978	
100700	
100738	
100795	
100731	
100496	
100580	
100642	
100310	
100274	
100459	
100568	
100706	
100606	
100650	
100552	
100651	
100621	
100911	
100809	
100408	
100413	
100564	
100337	
100561	
100319	
100389	
100357	
100223	
99969	
100181	
100254	
100214	
100225	
100119	
100203	
99905	
99853	
99865	
99670	
99640	
99806	
100125	
99833	
99898	
99917	
99859	
99756	
99686	
99686	
99596	
99586	
99385	
99251	
99096	
99224	
99426	
99183	
99104	
98866	
98702	
98634	
98485	
98584	
98566	
98130	
98170	
98129	
98015	
97825	
97886	
97942	
97877	
97510	
97821	
97605	
97653	
97395	
97480	
97268	
97108	
97096	
96980	
96864	
96717	
96896	
96814	
96758	
96729	
96662	
96505	
96431	
96468	
96353	
96296	
96346	
96253	
96065	
95820	
95881	
95812	
95605	
95325	
95366	
95449	
95407	
95230	
94951	
95037	
94915	
94704	
94729	
94630	
94624	
94441	
94330	
94088	
93913	
93848	
93757	
93754	
93530	
93700	
93555	
93477	
93309	
92974	
92846	
92756	
92938	
92888	
92524	
92477	
92235	
92130	
91926	
91926	
91794	
91641	
91509	
91379	
91470	
91434	
91266	
91406	
91279	
91262	
91180	
91053	
90809	
90675	
90700	
90520	
90188	
90062	
90042	
90101	
89909	
89983	
89737	
89829	
89907	
89932	
89663	
89573	
89725	
89633	
89525	
89513	
89546	
89347	
89214	
89112	
89110	
88857	
88744	
88730	
88640	
88366	
88435	
88562	
88514	
88571	
88788	
88786	
88823	
88992	
88777	
88593	
88667	
88778	
88711	
88661	
88780	
88831	
88727	
88488	
88555	
88488	
88608	
88873	
89229	
89177	
89026	
88816	
89134	
88915	
88936	
88971	
89079	
88921	
88693	
88596	
88719	
88708	
88301	
88305	
88508	
88474	
88367	
88401	
88382	
88234	
88082	
88024	
87918	
87871	
87780	
87716	
87698	
87640	
87697	
87740	
87988	
88001	
87718	
87698	
87702	
87505	
87391	
87660	
87740	
87527	
87351	
87331	
87597	
87479	
87338	
87273	
87355	
87344	
87446	
87489	
87318	
87339	
87248	
87267	
87026	
87168	
87050	
87022	
86996	
87000	
86923	
86685	
86563	
86775	
86810	
86666	
86884	
86934	
86822	
86547	
86695	
86789	
86715	
86572	
86413	
86501	
86467	
86580	
86496	
86410	
86278	
86172	
86204	
85888	
86005	
86284	
86164	
86097	
85925	
85883	
85929	
86073	
86113	
86137	
86175	
86192	
86018	
86100	
86048	
85734	
85760	
85498	
85493	
85407	
85726	
85591	
85564	
85490	
85448	
85248	
84973	
84957	
84955	
85128	
85356	
85206	
84951	
84915	
84973	
85053	
84899	
84693	
84475	
84331	
84186	
84060	
84100	
84268	
83882	
83866	
83748	
83771	
83732	
83829	
83844	
83690	
83552	
83284	
83311	
83186	
83312	
83192	
82887	
82915	
82806	
82601	
82507	
82515	
82348	
82327	
82264	
82100	
81963	
82004	
81892	
81725	
81535	
81461	
81376	
81300	
81230	
81191	
81173	
81307	
81276	
81119	
81053	
81050	
80906	
80938	
80790	
80824	
80728	
80658	
80375	
80379	
80400	
80366	
80265	
80102	
80226	
80093	
79976	
79965	
79838	
79720	
79667	
79655	
79420	
79245	
79168	
79200	
79183	
79301	
79225	
79219	
79186	
79065	
78908	
78944	
78899	
78780	
78708	
78414	
78331	
78284	
78099	
77976	
78063	
77867	
77813	
77856	
77912	
78038	
77978	
77727	
77702	
77601	
77594	
77831	
77690	
77748	
77685	
77573	
77484	
77345	
77300	
77014	
76770	
76652	
76536	
76664	
76657	
76685	
76722	
76805	
76703	
76575	
76455	
76549	
76740	
76540	
76632	
76677	
76684	
76744	
76616	
76396	
76554	
76970	
77010	
77058	
76902	
76819	
76697	
76666	
76424	
76253	
76264	
76257	
76152	
76173	
76129	
76046	
76132	
76094	
76066	
75997	
75837	
75585	
75387	
75315	
75143	
74997	
74811	
74723	
74590	
74532	
74674	
74762	
74730	
74486	
74451	
74369	
74215	
74105	
74128	
74239	
74208	
74121	
74039	
73929	
73976	
73972	
73746	
73679	
73680	
73670	
73573	
73381	
73157	
73115	
73127	
73128	
73147	
73185	
73036	
72850	
72647	
72598	
72488	
72632	
72287	
72399	
72234	
72049	
72069	
71922	
71812	
71811	
71851	
71578	
71334	
71252	
71267	
71157	
71083	
71060	
71008	
70884	
70686	
70324	
70104	
70187	
70376	
70230	
69941	
69846	
69734	
69591	
69418	
69182	
69163	
69009	
68802	
68822	
68741	
68655	
68513	
68306	
67820	
67775	
67704	
67469	
67249	
67318	
67375	
67524	
67840	
67624	
67284	
67291	
67339	
67300	
67290	
67437	
67293	
67121	
67145	
67042	
66981	
66952	
66925	
66873	
66794	
66670	
66636	
66496	
66342	
66215	
66041	
66074	
66026	
65838	
65742	
65533	
65517	
65576	
65413	
65415	
65182	
65140	
65206	
65193	
65026	
65039	
65141	
64922	
64882	
64766	
64695	
64652	
64714	
64752	
64499	
64386	
64456	
64070	
63934	
63933	
63979	
64070	
64339	
64178	
63978	
63942	
64019	
63803	
63603	
63296	
63149	
63014	
62876	
62763	
62532	
62515	
62515	
62244	
62166	
62385	
62250	
62311	
62210	
61947	
61874	
61818	
61673	
61452	
61479	
61408	
61212	
61030	
60899	
60859	
60851	
60750	
60695	
60752	
60654	
60769	
60650	
60660	
60552	
60522	
60467	
60399	
60312	
60383	
60311	
60152	
60137	
59898	
59834	
59486	
59407	
59358	
59333	
59355	
59483	
59495	
59339	
59033	
58854	
58808	
58779	
58537	
58517	
58430	
58510	
58348	
58288	
58312	
58440	
58486	
58471	
58433	
58237	
58046	
58101	
57932	
57802	
57752	
57627	
57639	
57467	
57433	
57458	
57382	
57372	
57157	
57099	
56975	
56897	
56938	
56942	
56904	
56744	
56692	
56610	
56566	
56429	
56219	
56008	
55895	
55898	
55700	
55552	
55376	
55253	
55104	
55150	
55087	
54790	
54583	
54471	
54387	
54340	
54242	
54173	
54018	
53884	
53846	
53678	
53866	
54097	
53800	
53416	
53266	
53101	
53001	
52919	
52889	
52881	
52910	
52778	
52723	
52496	
52295	
52249	
52162	
52081	
52008	
51812	
51855	
51695	
51561	
51549	
51542	
51313	
51161	
51167	
51087	
50843	
50748	
50467	
50350	
50444	
50479	
50570	
50436	
50217	
50197	
50090	
49923	
49812	
49878	
49739	
49684	
49499	
49509	
49423	
49407	
49280	
49509	
49610	
49497	
49355	
49131	
49033	
48918	
48795	
48829	
48845	
49159	
49023	
48995	
49122	
49085	
49019	
48953	
49013	
48949	
48838	
48898	
48956	
48876	
48829	
48712	
48520	
48289	
48215	
48155	
48016	
47905	
47816	
47744	
47708	
47785	
47723	
47761	
47768	
47798	
47861	
48052	
48049	
48048	
47920	
47676	
47499	
47326	
47167	
47080	
46900	
46844	
46741	
46733	
46681	
46622	
46633	
46429	
46299	
46104	
46268	
46176	
46072	
45996	
45966	
45965	
46015	
46111	
46068	
46135	
46195	
46122	
46115	
46130	
46162	
46106	
45954	
45865	
45718	
45670	
45628	
45603	
45665	
45373	
45274	
45311	
45322	
45273	
45237	
45197	
45037	
44922	
44867	
44848	
44870	
44912	
44826	
44878	
44825	
44716	
44678	
44656	
44641	
44508	
44377	
44341	
44204	
44146	
44181	
44249	
44266	
44164	
44107	
43974	
43860	
43829	
43786	
43990	
44195	
44062	
43964	
43845	
43645	
43524	
43500	
43455	
43167	
43144	
43096	
43043	
42995	
42899	
42883	
42796	
42708	
42562	
42557	
42602	
42457	
42260	
42275	
42121	
42108	
42182	
42066	
41806	
41537	
41439	
41493	
41455	
41385	
41323	
41198	
41136	
41333	
41139	
40973	
40828	
40617	
40589	
40491	
40338	
40343	
40066	
39954	
39828	
39791	
39703	
39824	
39831	
39992	
39974	
39938	
39760	
39634	
39402	
39270	
39077	
38886	
38732	
38646	
38463	
38311	
38143	
37979	
37879	
37835	
37818	
37853	
37829	
37743	
37749	
37754	
37675	
37380	
37072	
36863	
36864	
36739	
36602	
36535	
36372	
36264	
36232	
36174	
36043	
36090	
36061	
35931	
35856	
35884	
35776	
35637	
35593	
35463	
35282	
35153	
35101	
34921	
34826	
34610	
34496	
34367	
34260	
34134	
34081	
34091	
34229	
34140	
33947	
33735	
33540	
33384	
33245	
33165	
33085	
32871	
32608	
32603	
32469	
32262	
32186	
32198	
32252	
32108	
31939	
31763	
31719	
31605	
31405	
31240	
31031	
30864	
30619	
30334	
30220	
30121	
30124	
30090	
29801	
29567	
29480	
29427	
29327	
29066	
28861	
28695	
28469	
28298	
28156	
27990	
27816	
27737	
27720	
27640	
27544	
27432	
27282	
26946	
27002	
26981	
26965	
27061	
27020	
26851	
26704	
26471	
26268	
26101	
26020	
25973	
25811	
25594	
25413	
25266	
25154	
25095	
25089	
24981	
24828	
24635	
24498	
24432	
24585	
24510	
24435	
24326	
24192	
23959	
23692	
23430	
23298	
23154	
23088	
23032	
23072	
23061	
23084	
23190	
23145	
22968	
22886	
22672	
22505	
22265	
22228	
22109	
21933	
21935	
21753	
21715	
21535	
21485	
21364	
21259	
21244	
21133	
21092	
20932	
20825	
20635	
20558	
20337	
20211	
20123	
20161	
20016	
19977	
20005	
20011	
20005	
19935	
19887	
19880	
19852	
19791	
19574	
19566	
19711	
19678	
19556	
19473	
19404	
19366	
19176	
19046	
18963	
18808	
18721	
18643	
18563	
18510	
18573	
18532	
18501	
18480	
18423	
18338	
18298	
18203	
18114	
17983	
17884	
17903	
17920	
17848	
17826	
17686	
17615	
17535	
17536	
17604	
17597	
17593	
17500	
17453	
17399	
17292	
17234	
17185	
17064	
16906	
16837	
16777	
16742	
16627	
16582	
16636	
16807	
16812	
16712	
16692	
16603	
16507	
16374	
16216	
16130	
16049	
15967	
15932	
15885	
15839	
15799	
15649	
15426	
15377	
15293	
15240	
15236	
15138	
15100	
15041	
15003	
14978	
15028	
15264	
15409	
15511	
15501	
15472	
15381	
15299	
15177	
15085	
14912	
14919	
14927	
14909	
14900	
14803	
14755	
14714	
14576	
14549	
14525	
14508	
14463	
14527	
14574	
14506	
14453	
14414	
14279	
14189	
14133	
14099	
14106	
13946	
13871	
13778	
13683	
13690	
13737	
13772	
13766	
13804	
13880	
14046	
14153	
14231	
14228	
14267	
14173	
13924	
13827	
13707	
13644	
13653	
13628	
13663	
13639	
13590	
13529	
13489	
13451	
13456	
13491	
13555	
13594	
13486	
13386	
13295	
13214	
13132	
13009	
12935	
12891	
12939	
12976	
12988	
12991	
12987	
13029	
13024	
12887	
12845	
12761	
12696	
12706	
12888	
12955	
12925	
12871	
12739	
12626	
12442	
12420	
12444	
12485	
12503	
12499	
12507	
12430	
12389	
12349	
12374	
12466	
12511	
12512	
12465	
12390	
12332	
12247	
12137	
12044	
11902	
11891	
11923	
12009	
12025	
12091	
12142	
12294	
12374	
12361	
12319	
12253	
12177	
12008	
11906	
11759	
11652	
11438	
11323	
11258	
11150	
11085	
11040	
11075	
11111	
11269	
11330	
11338	
11299	
11307	
11307	
11248	
11168	
11053	
11069	
11026	
11011	
11000	
11076	
11103	
11080	
11144	
11166	
11414	
11456	
11382	
11272	
11149	
10991	
10923	
10786	
10690	
10722	
10844	
10816	
10774	
10775	
10720	
10743	
10832	
11040	
11064	
11014	
10935	
10994	
11096	
11113	
10961	
10763	
10636	
10649	
10740	
10818	
10921	
10931	
10904	
10907	
10846	
10709	
10640	
10699	
10695	
10685	
10848	
11008	
11111	
11039	
10820	
10744	
10595	
10614	
10673	
10839	
10841	
10756	
10734	
10718	
10700	
10662	
10571	
10599	
10625	
10615	
10569	
10495	
10402	
10286	
10257	
10198	
10208	
10166	
10176	
10054	
10010	
9933	
9915	
9894	
9959	
10081	
10173	
10386	
10644	
10828	
11029	
11114	
11120	
11047	
10881	
10747	
10619	
10611	
10586	
10537	
10418	
10351	
10263	
10191	
10119	
10191	
10274	
10319	
10324	
10293	
10241	
10273	
10287	
10339	
10227	
10243	
10157	
10043	
10035	
10012	
10000	
10072	
10130	
10060	
10060	
10054	
10112	
10158	
10300	
10352	
10388	
10210	
10052	
9888	
9838	
9861	
9854	
9910	
10062	
10093	
10111	
10013	
9975	
9933	
9844	
9808	
9767	
9729	
9765	
9943	
10132	
10266	
10530	
10490	
10352	
