threads	cells	MTPS
40	86694	9.5006
40	104856	12.4039
40	124415	15.0376
40	145443	17.4833
40	167994	21.1853
40	191968	22.7356
40	217656	24.8241
40	241286	25.5342
40	259151	28.4057
40	279994	29.061
40	301062	29.7305
40	321609	31.7494
40	341858	33.7974
40	360398	34.7825
40	376380	37.8305
40	390516	37.0981
40	403217	35.6692
40	414456	35.3339
40	421753	35.4274
40	425847	35.6703
40	427571	40.1333
40	426998	39.7771
40	424205	40.7089
40	419477	40.2075
40	412595	38.6127
40	403793	37.2817
40	395152	37.0846
40	387456	35.7655
40	379950	34.809
40	372543	34.9841
40	365863	35.8336
40	361846	35.2049
40	359446	34.6086
40	358266	35.2572
40	357922	35.6691
40	358478	34.1834
40	359804	33.2703
40	361778	33.7258
40	364166	36.1601
40	366635	36.0897
40	369221	37.5739
40	371887	36.7566
40	374644	35.8495
40	377411	36.3418
40	380081	36.2167
40	382874	34.8707
40	385513	34.9632
40	388216	37.1484
40	390860	37.3047
40	393507	36.5756
40	396295	37.6191
40	398885	38.6175
40	401713	36.8569
40	404275	37.0033
40	406777	38.1999
40	405196	37.5745
40	400840	37.5459
40	394255	35.9296
40	386039	35.7593
40	375430	35.1817
40	359933	35.1701
40	341114	36.4859
40	319918	35.2116
40	296294	34.0946
40	270494	32.0201
40	243278	30.0864
40	220417	29.7193
40	199127	27.579
40	178746	23.702
40	158541	20.3185
40	140109	18.4601
40	125900	17.4913
40	114489	16.3468
40	104696	15.624
40	96028	14.251
40	88295	13.1241
40	80784	12.4912
40	73614	11.7836
40	66695	13.1881
40	59941	11.991
40	53474	9.56115
40	47199	8.86895
40	41057	8.73278
40	35071	7.07065
40	29323	6.25471
40	23781	6.37632
40	18809	5.94731
40	14365	3.96078
40	10539	3.29026
40	7321	2.95021
40	4663	2.58068
40	2668	2.16261
40	1247	1.4184
40	401	0.961852
40	50	0.463968
40	38	0.105392
40	34	0.0814901

39	86694	11.5583
39	104856	13.0349
39	124415	14.9417
39	145443	16.8404
39	167994	21.6105
39	191968	23.1262
39	217656	25.0795
39	241286	26.7951
39	259151	28.2183
39	279994	29.4474
39	301062	29.5285
39	321609	30.8809
39	341858	33.698
39	360398	35.8589
39	376380	39.2473
39	390516	39.1071
39	403217	38.4539
39	414456	37.7195
39	421753	38.4206
39	425847	38.2176
39	427571	40.7295
39	426998	40.2484
39	424205	41.1959
39	419477	40.2727
39	412595	38.5124
39	403793	37.8883
39	395152	38.5944
39	387456	37.7695
39	379950	37.225
39	372543	37.1049
39	365863	37.7564
39	361846	37.0196
39	359446	35.9169
39	358266	36.7834
39	357922	37.6899
39	358478	35.8291
39	359804	34.9165
39	361778	36.1065
39	364166	36.8168
39	366635	37.3027
39	369221	37.9949
39	371887	37.7934
39	374644	36.2051
39	377411	35.609
39	380081	36.7016
39	382874	39.5069
39	385513	39.0458
39	388216	37.7989
39	390860	38.1369
39	393507	36.9987
39	396295	37.3557
39	398885	39.4901
39	401713	37.789
39	404275	37.5097
39	406777	38.6689
39	405196	38.7345
39	400840	38.8785
39	394255	37.7738
39	386039	36.9988
39	375430	38.0917
39	359933	37.0077
39	341114	36.6611
39	319918	35.992
39	296294	34.3197
39	270494	32.2486
39	243278	31.4172
39	220417	29.9447
39	199127	27.0496
39	178746	23.6568
39	158541	21.4866
39	140109	20.616
39	125900	20.0111
39	114489	18.5891
39	104696	17.2461
39	96028	15.8403
39	88295	13.7188
39	80784	12.3495
39	73614	12.5905
39	66695	13.7231
39	59941	11.6927
39	53474	9.27758
39	47199	9.02154
39	41057	8.7742
39	35071	7.20656
39	29323	6.34383
39	23781	6.48656
39	18809	6.06975
39	14365	4.01734
39	10539	3.25053
39	7321	2.9977
39	4663	2.70785
39	2668	2.17445
39	1247	1.60284
39	401	1.01681
39	50	0.471974
39	38	0.211129
39	34	0.290456

38	86694	11.5255
38	104856	12.8878
38	124415	14.701
38	145443	16.7073
38	167994	19.9722
38	191968	22.4985
38	217656	25.6893
38	241286	26.8606
38	259151	28.1802
38	279994	30.0275
38	301062	30.7384
38	321609	31.8535
38	341858	33.3955
38	360398	34.9161
38	376380	38.1428
38	390516	37.2588
38	403217	36.6727
38	414456	34.2176
38	421753	37.0291
38	425847	36.9834
38	427571	39.739
38	426998	39.8353
38	424205	41.5648
38	419477	41.8698
38	412595	40.7997
38	403793	38.4961
38	395152	33.8118
38	387456	33.4265
38	379950	35.8432
38	372543	37.6144
38	365863	37.1095
38	361846	35.996
38	359446	36.132
38	358266	36.3872
38	357922	37.194
38	358478	36.0991
38	359804	35.043
38	361778	36.9693
38	364166	38.099
38	366635	37.8792
38	369221	36.139
38	371887	37.8734
38	374644	36.4882
38	377411	35.6846
38	380081	36.0181
38	382874	38.5228
38	385513	38.495
38	388216	37.7997
38	390860	38.704
38	393507	37.72
38	396295	38.3484
38	398885	38.8939
38	401713	37.7407
38	404275	37.4655
38	406777	39.1761
38	405196	38.5546
38	400840	39.4346
38	394255	38.9698
38	386039	38.0311
38	375430	37.6381
38	359933	36.5452
38	341114	36.0437
38	319918	35.2408
38	296294	33.928
38	270494	32.7423
38	243278	31.2145
38	220417	30.8816
38	199127	28.7825
38	178746	24.8663
38	158541	22.5584
38	140109	20.2984
38	125900	19.441
38	114489	18.5041
38	104696	18.5167
38	96028	15.9896
38	88295	14.3575
38	80784	13.3174
38	73614	12.4274
38	66695	11.3287
38	59941	10.4957
38	53474	9.08648
38	47199	9.27925
38	41057	8.61129
38	35071	7.32417
38	29323	6.3966
38	23781	6.48008
38	18809	5.73243
38	14365	3.81297
38	10539	3.29751
38	7321	2.78689
38	4663	2.66024
38	2668	2.21345
38	1247	1.60045
38	401	1.0114
38	50	0.487076
38	38	0.103865
38	34	0.38674

37	86694	11.6405
37	104856	13.1974
37	124415	14.9074
37	145443	18.0211
37	167994	22.345
37	191968	24.5169
37	217656	25.8702
37	241286	26.5355
37	259151	28.4223
37	279994	30.0697
37	301062	31.6387
37	321609	32.2841
37	341858	34.8167
37	360398	35.6224
37	376380	39.0346
37	390516	38.384
37	403217	38.503
37	414456	37.3407
37	421753	37.6318
37	425847	37.4116
37	427571	39.502
37	426998	39.7442
37	424205	40.2226
37	419477	39.1143
37	412595	38.4916
37	403793	37.1909
37	395152	37.4139
37	387456	37.1527
37	379950	36.2943
37	372543	36.8277
37	365863	36.8777
37	361846	35.9385
37	359446	35.6468
37	358266	35.5792
37	357922	35.7838
37	358478	34.6405
37	359804	33.7476
37	361778	35.3714
37	364166	36.9227
37	366635	37.2002
37	369221	37.7409
37	371887	37.2087
37	374644	34.7386
37	377411	34.4482
37	380081	36.6756
37	382874	39.0484
37	385513	38.2656
37	388216	37.4419
37	390860	38.2196
37	393507	37.0343
37	396295	37.6964
37	398885	39.3201
37	401713	37.4726
37	404275	37.8603
37	406777	38.2689
37	405196	38.8823
37	400840	39.6427
37	394255	38.716
37	386039	37.4621
37	375430	37.8866
37	359933	37.1684
37	341114	36.8049
37	319918	36.0753
37	296294	34.4158
37	270494	32.9601
37	243278	31.2604
37	220417	30.9984
37	199127	29.0681
37	178746	25.676
37	158541	22.6135
37	140109	21.6936
37	125900	20.3906
37	114489	19.328
37	104696	17.6438
37	96028	15.5297
37	88295	14.7759
37	80784	13.5217
37	73614	12.58
37	66695	13.6149
37	59941	12.5546
37	53474	7.82854
37	47199	7.17115
37	41057	7.49752
37	35071	7.24867
37	29323	6.49433
37	23781	6.66909
37	18809	6.0076
37	14365	3.9779
37	10539	3.1838
37	7321	2.72462
37	4663	2.42482
37	2668	1.89832
37	1247	1.54085
37	401	0.87023
37	50	0.421896
37	38	0.551282
37	34	0.0749465

36	86694	11.4049
36	104856	12.6177
36	124415	14.229
36	145443	16.8347
36	167994	21.7383
36	191968	24.4508
36	217656	26.79
36	241286	28.0793
36	259151	29.7284
36	279994	30.5121
36	301062	31.1762
36	321609	31.6365
36	341858	32.679
36	360398	35.769
36	376380	39.406
36	390516	39.5166
36	403217	38.2088
36	414456	38.0009
36	421753	38.6791
36	425847	38.7649
36	427571	40.9306
36	426998	39.9035
36	424205	41.9083
36	419477	39.9089
36	412595	38.8173
36	403793	38.4853
36	395152	37.2124
36	387456	37.9146
36	379950	37.5361
36	372543	38.4721
36	365863	39.0087
36	361846	37.8596
36	359446	36.6564
36	358266	36.2174
36	357922	36.8393
36	358478	35.3478
36	359804	36.0255
36	361778	37.3431
36	364166	39.2528
36	366635	38.6416
36	369221	38.9609
36	371887	38.5601
36	374644	36.8619
36	377411	36.2095
36	380081	36.0849
36	382874	37.8648
36	385513	37.1311
36	388216	36.366
36	390860	37.7384
36	393507	37.2097
36	396295	36.8416
36	398885	37.0169
36	401713	34.8426
36	404275	36.248
36	406777	38.743
36	405196	39.1409
36	400840	39.4202
36	394255	38.3523
36	386039	37.0942
36	375430	37.785
36	359933	37.5296
36	341114	36.9523
36	319918	36.4408
36	296294	34.8446
36	270494	32.8605
36	243278	31.6541
36	220417	31.0442
36	199127	29.2676
36	178746	25.6817
36	158541	22.823
36	140109	21.6434
36	125900	20.4745
36	114489	20.1484
36	104696	19.0102
36	96028	17.0142
36	88295	15.1851
36	80784	13.4724
36	73614	13.3878
36	66695	14.8006
36	59941	13.0693
36	53474	9.82339
36	47199	9.53404
36	41057	9.06051
36	35071	7.62746
36	29323	6.47888
36	23781	6.68596
36	18809	6.10086
36	14365	4.08402
36	10539	3.48782
36	7321	3.11393
36	4663	2.74988
36	2668	2.25734
36	1247	1.63274
36	401	1.00785
36	50	0.527714
36	38	0.113257
36	34	0.104167

35	86694	12.0441
35	104856	13.5719
35	124415	15.0072
35	145443	17.8583
35	167994	23.9965
35	191968	25.6475
35	217656	27.142
35	241286	27.4744
35	259151	29.2528
35	279994	31.0241
35	301062	31.9989
35	321609	32.9108
35	341858	35.3261
35	360398	35.765
35	376380	39.9774
35	390516	39.1892
35	403217	38.9034
35	414456	38.5416
35	421753	37.7335
35	425847	38.089
35	427571	40.2893
35	426998	40.057
35	424205	41.2582
35	419477	40.7875
35	412595	39.283
35	403793	38.3278
35	395152	38.3216
35	387456	38.3358
35	379950	37.9018
35	372543	38.4709
35	365863	38.4319
35	361846	37.7529
35	359446	37.0534
35	358266	37.0606
35	357922	37.9193
35	358478	36.4324
35	359804	35.8128
35	361778	37.426
35	364166	38.8041
35	366635	38.8445
35	369221	38.7304
35	371887	38.3706
35	374644	36.5388
35	377411	36.4219
35	380081	38.1379
35	382874	39.6457
35	385513	38.4163
35	388216	37.8723
35	390860	37.8522
35	393507	37.5769
35	396295	38.1355
35	398885	39.5448
35	401713	38.1423
35	404275	37.8438
35	406777	39.611
35	405196	39.5803
35	400840	40.3337
35	394255	38.6924
35	386039	37.565
35	375430	37.2164
35	359933	37.2154
35	341114	36.6056
35	319918	35.7958
35	296294	34.0622
35	270494	32.9323
35	243278	31.9568
35	220417	30.774
35	199127	29.1495
35	178746	25.8372
35	158541	23.0018
35	140109	21.36
35	125900	20.0767
35	114489	17.209
35	104696	17.5772
35	96028	16.2868
35	88295	15.0579
35	80784	13.5437
35	73614	12.7151
35	66695	14.0295
35	59941	12.3557
35	53474	7.83505
35	47199	7.0053
35	41057	6.88441
35	35071	7.4205
35	29323	6.62914
35	23781	6.5017
35	18809	6.18396
35	14365	4.01035
35	10539	3.33435
35	7321	3.06372
35	4663	2.89079
35	2668	2.42268
35	1247	1.7274
35	401	1.11296
35	50	0.534139
35	38	0.141914
35	34	0.113452

34	86694	12.2998
34	104856	14.2196
34	124415	16.1639
34	145443	18.2918
34	167994	24.4479
34	191968	26.3183
34	217656	27.578
34	241286	27.9945
34	259151	29.163
34	279994	31.5189
34	301062	32.0431
34	321609	32.011
34	341858	34.2686
34	360398	35.0357
34	376380	38.1668
34	390516	37.9641
34	403217	37.3689
34	414456	37.403
34	421753	37.9745
34	425847	37.78
34	427571	40.3737
34	426998	40.6252
34	424205	41.0169
34	419477	40.8894
34	412595	39.9131
34	403793	38.6958
34	395152	38.8596
34	387456	38.048
34	379950	37.622
34	372543	38.1775
34	365863	38.2435
34	361846	37.012
34	359446	37.2279
34	358266	37.1919
34	357922	37.0819
34	358478	35.9859
34	359804	35.3772
34	361778	36.7565
34	364166	38.5548
34	366635	38.6855
34	369221	38.9864
34	371887	37.5115
34	374644	35.3244
34	377411	35.4395
34	380081	37.0828
34	382874	39.4774
34	385513	38.751
34	388216	38.3971
34	390860	38.6787
34	393507	37.5057
34	396295	37.529
34	398885	39.3816
34	401713	37.9849
34	404275	38.1945
34	406777	38.9903
34	405196	39.2346
34	400840	39.4805
34	394255	38.3495
34	386039	37.6458
34	375430	37.793
34	359933	36.4904
34	341114	36.751
34	319918	36.0557
34	296294	34.3634
34	270494	32.9041
34	243278	31.6063
34	220417	31.0036
34	199127	28.6868
34	178746	26.0074
34	158541	23.413
34	140109	21.9887
34	125900	21.2281
34	114489	19.913
34	104696	18.9304
34	96028	16.6356
34	88295	15.7707
34	80784	13.9661
34	73614	13.4102
34	66695	15.023
34	59941	13.2173
34	53474	10.0039
34	47199	9.25544
34	41057	8.73658
34	35071	7.49973
34	29323	6.41546
34	23781	5.71536
34	18809	5.04471
34	14365	3.74108
34	10539	3.28382
34	7321	2.78996
34	4663	2.66452
34	2668	2.41627
34	1247	1.5
34	401	1.005
34	50	0.522677
34	38	0.15995
34	34	0.3125

33	86694	12.9199
33	104856	13.9857
33	124415	15.9675
33	145443	18.1433
33	167994	24.7135
33	191968	25.9462
33	217656	26.8181
33	241286	27.4725
33	259151	29.9938
33	279994	30.7441
33	301062	30.9748
33	321609	31.4725
33	341858	33.2393
33	360398	35.4786
33	376380	38.1403
33	390516	37.908
33	403217	37.5472
33	414456	36.7395
33	421753	35.5094
33	425847	35.1828
33	427571	36.8588
33	426998	38.9873
33	424205	38.4113
33	419477	39.1188
33	412595	38.3264
33	403793	37.274
33	395152	37.7008
33	387456	37.7573
33	379950	37.0671
33	372543	35.3969
33	365863	35.1863
33	361846	36.0847
33	359446	36.4571
33	358266	35.7959
33	357922	35.8636
33	358478	34.7474
33	359804	34.5984
33	361778	35.348
33	364166	37.0679
33	366635	37.8179
33	369221	37.92
33	371887	37.3322
33	374644	35.7038
33	377411	34.5463
33	380081	35.9312
33	382874	37.7141
33	385513	37.2126
33	388216	37.227
33	390860	37.4078
33	393507	36.4353
33	396295	37.4724
33	398885	38.2776
33	401713	37.2065
33	404275	37.2197
33	406777	37.9118
33	405196	38.4285
33	400840	39.1799
33	394255	38.1022
33	386039	37.0676
33	375430	34.6118
33	359933	34.7427
33	341114	35.6965
33	319918	34.6658
33	296294	33.7819
33	270494	32.3707
33	243278	30.9608
33	220417	30.6649
33	199127	29.6242
33	178746	26.4407
33	158541	23.4682
33	140109	22.3518
33	125900	21.8816
33	114489	20.2486
33	104696	18.2791
33	96028	15.8577
33	88295	14.4411
33	80784	13.103
33	73614	13.0115
33	66695	14.529
33	59941	13.0227
33	53474	9.96811
33	47199	9.68948
33	41057	8.96882
33	35071	7.35528
33	29323	6.41592
33	23781	6.72106
33	18809	5.97944
33	14365	3.86809
33	10539	3.22464
33	7321	2.88553
33	4663	2.74856
33	2668	2.18857
33	1247	1.68656
33	401	0.947742
33	50	0.467593
33	38	0.135149
33	34	0.11236

32	86694	13.166
32	104856	14.3548
32	124415	16.263
32	145443	18.276
32	167994	24.133
32	191968	25.6138
32	217656	27.1369
32	241286	27.4531
32	259151	29.6294
32	279994	30.7816
32	301062	31.8506
32	321609	32.7689
32	341858	34.6235
32	360398	35.6315
32	376380	38.0634
32	390516	38.3149
32	403217	38.1458
32	414456	38.1774
32	421753	38.4702
32	425847	38.7853
32	427571	41.1134
32	426998	40.8267
32	424205	41.5005
32	419477	41.0737
32	412595	40.3134
32	403793	39.4386
32	395152	39.5515
32	387456	39.4838
32	379950	38.3125
32	372543	39.6946
32	365863	39.4084
32	361846	37.9872
32	359446	36.8787
32	358266	37.2871
32	357922	37.8672
32	358478	36.5681
32	359804	35.708
32	361778	37.3838
32	364166	39.1085
32	366635	39.0533
32	369221	39.5666
32	371887	38.936
32	374644	36.7534
32	377411	35.7975
32	380081	37.3698
32	382874	40.3257
32	385513	39.4609
32	388216	38.5445
32	390860	38.5953
32	393507	38.1568
32	396295	38.9989
32	398885	40.168
32	401713	38.6283
32	404275	38.545
32	406777	39.6112
32	405196	39.939
32	400840	40.7252
32	394255	39.3705
32	386039	38.0313
32	375430	38.2928
32	359933	37.1869
32	341114	37.1447
32	319918	36.2347
32	296294	34.7668
32	270494	33.1969
32	243278	31.847
32	220417	31.0535
32	199127	29.7073
32	178746	26.6269
32	158541	23.9488
32	140109	22.7513
32	125900	21.9113
32	114489	20.5044
32	104696	19.6502
32	96028	16.9027
32	88295	15.3298
32	80784	13.8643
32	73614	11.5595
32	66695	12.547
32	59941	12.1768
32	53474	9.95443
32	47199	9.70376
32	41057	8.86589
32	35071	7.68598
32	29323	6.50656
32	23781	7.06482
32	18809	6.3452
32	14365	4.14258
32	10539	3.2794
32	7321	2.94452
32	4663	2.8167
32	2668	2.36354
32	1247	1.57002
32	401	1.1362
32	50	0.525448
32	38	0.165067
32	34	0.588235

31	86694	13.022
31	104856	14.1595
31	124415	15.5353
31	145443	18.0322
31	167994	22.8683
31	191968	24.6167
31	217656	27.0098
31	241286	27.6143
31	259151	30.056
31	279994	31.272
31	301062	31.5129
31	321609	31.7938
31	341858	33.6843
31	360398	35.2693
31	376380	38.4252
31	390516	38.3195
31	403217	37.5208
31	414456	36.9902
31	421753	36.6714
31	425847	36.0446
31	427571	38.6984
31	426998	38.6321
31	424205	39.5273
31	419477	39.3917
31	412595	38.4406
31	403793	38.2966
31	395152	38.6863
31	387456	37.7323
31	379950	34.3843
31	372543	36.6414
31	365863	38.5782
31	361846	37.6356
31	359446	37.3662
31	358266	37.2318
31	357922	37.5428
31	358478	36.7256
31	359804	35.0661
31	361778	36.4417
31	364166	37.4833
31	366635	37.5918
31	369221	38.2495
31	371887	38.0834
31	374644	36.435
31	377411	35.7014
31	380081	37.4121
31	382874	38.8685
31	385513	38.0211
31	388216	36.1555
31	390860	35.9337
31	393507	34.4913
31	396295	36.9911
31	398885	37.9954
31	401713	36.7343
31	404275	37.0733
31	406777	38.7533
31	405196	38.9353
31	400840	39.4002
31	394255	37.8548
31	386039	37.6422
31	375430	35.8184
31	359933	35.5145
31	341114	36.2626
31	319918	34.5129
31	296294	33.9503
31	270494	32.7923
31	243278	31.2851
31	220417	30.9023
31	199127	29.2771
31	178746	26.6366
31	158541	24.2052
31	140109	23.0031
31	125900	22.6151
31	114489	20.7994
31	104696	20.1611
31	96028	17.2487
31	88295	15.5304
31	80784	14.1234
31	73614	12.5889
31	66695	13.3585
31	59941	12.9297
31	53474	10.2404
31	47199	9.95137
31	41057	9.37277
31	35071	7.92015
31	29323	6.8808
31	23781	7.1586
31	18809	6.58516
31	14365	4.0164
31	10539	3.20253
31	7321	2.98559
31	4663	2.70534
31	2668	2.30843
31	1247	1.70099
31	401	1.21256
31	50	0.601765
31	38	0.261663
31	34	0.108865

30	86694	10.4759
30	104856	13.9575
30	124415	16.3736
30	145443	18.817
30	167994	25.2745
30	191968	23.5674
30	217656	23.8586
30	241286	25.9098
30	259151	28.1554
30	279994	29.096
30	301062	29.8912
30	321609	30.5248
30	341858	31.9033
30	360398	33.3704
30	376380	38.1566
30	390516	37.8914
30	403217	37.4394
30	414456	37.4355
30	421753	36.8493
30	425847	36.592
30	427571	39.611
30	426998	39.8976
30	424205	40.2874
30	419477	39.8481
30	412595	39.1001
30	403793	38.3731
30	395152	38.1261
30	387456	38.2923
30	379950	37.6451
30	372543	36.7922
30	365863	37.7307
30	361846	36.6914
30	359446	35.5419
30	358266	36.9829
30	357922	37.6299
30	358478	37.191
30	359804	35.8163
30	361778	36.8323
30	364166	37.9278
30	366635	38.6587
30	369221	38.7265
30	371887	37.8002
30	374644	36.7445
30	377411	35.6349
30	380081	36.1776
30	382874	38.4612
30	385513	38.2186
30	388216	37.7814
30	390860	37.9025
30	393507	37.776
30	396295	38.5802
30	398885	39.8845
30	401713	38.3969
30	404275	38.4579
30	406777	39.12
30	405196	39.293
30	400840	39.4197
30	394255	38.3985
30	386039	37.3664
30	375430	36.8048
30	359933	36.7817
30	341114	36.0845
30	319918	35.7815
30	296294	34.6259
30	270494	33.5884
30	243278	32.1208
30	220417	31.4473
30	199127	28.7825
30	178746	25.9401
30	158541	22.9787
30	140109	22.1953
30	125900	21.3288
30	114489	21.0147
30	104696	18.9876
30	96028	16.3564
30	88295	15.7572
30	80784	14.1806
30	73614	13.2075
30	66695	14.872
30	59941	13.5776
30	53474	10.4387
30	47199	9.69291
30	41057	9.34827
30	35071	7.71124
30	29323	6.69853
30	23781	6.93877
30	18809	6.60334
30	14365	4.19214
30	10539	3.31538
30	7321	3.01509
30	4663	2.749
30	2668	2.28334
30	1247	1.58181
30	401	1.06035
30	50	0.556964
30	38	0.145189
30	34	0.245614

29	86694	13.4143
29	104856	14.4193
29	124415	16.481
29	145443	18.6222
29	167994	22.4453
29	191968	23.6755
29	217656	24.0589
29	241286	24.8878
29	259151	26.9041
29	279994	30.4476
29	301062	30.9788
29	321609	31.4792
29	341858	33.2317
29	360398	34.0592
29	376380	36.7574
29	390516	37.2935
29	403217	36.8101
29	414456	36.0133
29	421753	35.9134
29	425847	36.0186
29	427571	37.8739
29	426998	37.1777
29	424205	38.4288
29	419477	38.0889
29	412595	37.0122
29	403793	36.5362
29	395152	36.8037
29	387456	37.1429
29	379950	36.3627
29	372543	36.8829
29	365863	36.8936
29	361846	36.065
29	359446	35.0269
29	358266	33.7054
29	357922	32.7345
29	358478	30.6128
29	359804	29.8703
29	361778	34.9605
29	364166	36.4155
29	366635	36.8407
29	369221	36.9571
29	371887	35.5507
29	374644	32.3481
29	377411	33.0392
29	380081	33.9748
29	382874	35.2512
29	385513	35.7768
29	388216	36.4143
29	390860	36.3883
29	393507	35.5704
29	396295	35.0921
29	398885	36.455
29	401713	35.7061
29	404275	35.768
29	406777	36.3472
29	405196	35.0564
29	400840	37.3384
29	394255	36.2436
29	386039	35.6494
29	375430	35.8366
29	359933	35.1899
29	341114	34.852
29	319918	34.9774
29	296294	34.2524
29	270494	33.2355
29	243278	32.3354
29	220417	31.2942
29	199127	29.5763
29	178746	25.8768
29	158541	23.4087
29	140109	21.8314
29	125900	21.6057
29	114489	20.3126
29	104696	19.5772
29	96028	16.472
29	88295	15.3267
29	80784	13.7765
29	73614	13.6362
29	66695	14.6409
29	59941	13.3293
29	53474	10.2851
29	47199	9.31347
29	41057	9.05909
29	35071	7.76756
29	29323	6.93294
29	23781	7.29503
29	18809	6.61586
29	14365	4.08164
29	10539	3.15566
29	7321	2.9557
29	4663	2.74835
29	2668	2.49248
29	1247	1.78917
29	401	1.12542
29	50	0.630893
29	38	0.211823
29	34	0.159453

28	86694	12.5267
28	104856	13.8659
28	124415	15.2686
28	145443	17.9573
28	167994	22.6167
28	191968	23.1628
28	217656	24.6356
28	241286	25.0902
28	259151	27.1303
28	279994	28.3422
28	301062	29.0965
28	321609	29.4462
28	341858	31.4466
28	360398	32.2011
28	376380	35.6138
28	390516	34.5858
28	403217	34.0272
28	414456	34.2173
28	421753	34.3606
28	425847	34.1323
28	427571	35.6964
28	426998	36.1127
28	424205	36.9206
28	419477	36.1847
28	412595	34.9405
28	403793	34.2302
28	395152	34.1629
28	387456	33.974
28	379950	33.5433
28	372543	34.0158
28	365863	33.9323
28	361846	33.874
28	359446	32.7148
28	358266	32.9559
28	357922	33.5501
28	358478	32.6031
28	359804	31.8716
28	361778	33.1164
28	364166	34.2382
28	366635	34.5133
28	369221	34.6847
28	371887	33.986
28	374644	32.8453
28	377411	32.6387
28	380081	33.4123
28	382874	35.5163
28	385513	34.7165
28	388216	33.9549
28	390860	34.2531
28	393507	33.8991
28	396295	33.7615
28	398885	34.9206
28	401713	33.8734
28	404275	33.5944
28	406777	34.5601
28	405196	34.7693
28	400840	35.288
28	394255	34.535
28	386039	34.0899
28	375430	34.0116
28	359933	33.3503
28	341114	33.0216
28	319918	32.3074
28	296294	31.2364
28	270494	29.8801
28	243278	28.9459
28	220417	27.8697
28	199127	25.9936
28	178746	23.0903
28	158541	21.4304
28	140109	20.5808
28	125900	20.2786
28	114489	19.3972
28	104696	18.5974
28	96028	16.2029
28	88295	14.9935
28	80784	13.0485
28	73614	11.7075
28	66695	11.2973
28	59941	10.8066
28	53474	9.37222
28	47199	9.15028
28	41057	8.6021
28	35071	7.34267
28	29323	6.46289
28	23781	5.5077
28	18809	4.80693
28	14365	3.89203
28	10539	3.27381
28	7321	2.94127
28	4663	2.85725
28	2668	2.31177
28	1247	1.75311
28	401	1.20894
28	50	0.485289
28	38	0.192394
28	34	0.111821

27	86694	12.6488
27	104856	14.1671
27	124415	15.6026
27	145443	17.4469
27	167994	20.2245
27	191968	21.8139
27	217656	22.9807
27	241286	24.1984
27	259151	25.9363
27	279994	27.5537
27	301062	28.0367
27	321609	29.1628
27	341858	30.6063
27	360398	31.1003
27	376380	34.0763
27	390516	33.8231
27	403217	33.4633
27	414456	32.9595
27	421753	33.0736
27	425847	32.6559
27	427571	34.1602
27	426998	34.3084
27	424205	34.6404
27	419477	33.7373
27	412595	33.1228
27	403793	32.8289
27	395152	32.9573
27	387456	32.929
27	379950	32.8594
27	372543	32.9237
27	365863	33.242
27	361846	32.7781
27	359446	32.138
27	358266	32.1701
27	357922	32.1982
27	358478	31.5536
27	359804	31.6459
27	361778	33.0874
27	364166	34.6143
27	366635	34.8885
27	369221	35.6329
27	371887	33.6985
27	374644	32.3463
27	377411	31.9598
27	380081	32.8178
27	382874	33.9519
27	385513	33.3325
27	388216	32.2321
27	390860	32.8538
27	393507	32.7838
27	396295	32.7664
27	398885	33.6304
27	401713	32.7311
27	404275	32.7712
27	406777	33.5652
27	405196	33.7698
27	400840	33.9972
27	394255	33.4164
27	386039	33.0559
27	375430	33.118
27	359933	32.5687
27	341114	32.1212
27	319918	31.7085
27	296294	30.435
27	270494	29.7131
27	243278	27.9072
27	220417	27.5651
27	199127	26.3702
27	178746	23.4626
27	158541	21.4485
27	140109	20.6047
27	125900	20.4493
27	114489	19.1516
27	104696	18.653
27	96028	15.7926
27	88295	14.7302
27	80784	13.1785
27	73614	12.5164
27	66695	13.8694
27	59941	13.0719
27	53474	9.66309
27	47199	9.1469
27	41057	8.67512
27	35071	7.4403
27	29323	6.66954
27	23781	6.81131
27	18809	6.3979
27	14365	3.96225
27	10539	3.02802
27	7321	2.86215
27	4663	2.51418
27	2668	2.08425
27	1247	1.65807
27	401	1.03371
27	50	0.672177
27	38	0.145598
27	34	0.140281

26	86694	12.5988
26	104856	14.3629
26	124415	15.852
26	145443	17.2507
26	167994	18.2082
26	191968	19.2939
26	217656	22.6567
26	241286	25.0727
26	259151	25.6242
26	279994	26.678
26	301062	27.1087
26	321609	27.5503
26	341858	28.9671
26	360398	30.1743
26	376380	33.6942
26	390516	33.4706
26	403217	33.1648
26	414456	33.2614
26	421753	33.27
26	425847	33.1328
26	427571	34.7107
26	426998	34.5615
26	424205	35.1829
26	419477	35.1591
26	412595	34.3745
26	403793	33.5692
26	395152	33.2427
26	387456	33.4474
26	379950	32.8444
26	372543	33.1116
26	365863	33.2325
26	361846	32.0113
26	359446	31.1815
26	358266	31.7316
26	357922	32.7731
26	358478	31.5783
26	359804	30.67
26	361778	32.1033
26	364166	32.2428
26	366635	31.6758
26	369221	33.6637
26	371887	32.9121
26	374644	31.3794
26	377411	30.2904
26	380081	31.02
26	382874	33.0071
26	385513	32.6101
26	388216	32.5066
26	390860	32.8464
26	393507	32.424
26	396295	32.8381
26	398885	33.7711
26	401713	32.4681
26	404275	32.1849
26	406777	33.1924
26	405196	33.3371
26	400840	33.8101
26	394255	33.4369
26	386039	33.1953
26	375430	32.8181
26	359933	32.0869
26	341114	32.0127
26	319918	31.6855
26	296294	30.211
26	270494	29.1043
26	243278	27.9046
26	220417	27.5799
26	199127	25.8202
26	178746	23.1411
26	158541	21.2785
26	140109	20.3733
26	125900	18.6979
26	114489	16.7098
26	104696	15.0811
26	96028	13.8248
26	88295	14.3592
26	80784	13.8501
26	73614	13.0198
26	66695	14.3622
26	59941	12.7767
26	53474	9.65357
26	47199	9.32045
26	41057	8.91075
26	35071	7.87379
26	29323	6.79038
26	23781	7.12071
26	18809	6.11195
26	14365	3.90985
26	10539	3.10892
26	7321	2.95949
26	4663	2.588
26	2668	2.15157
26	1247	1.88849
26	401	1.26432
26	50	0.560137
26	38	0.3
26	34	0.180412

25	86694	12.7483
25	104856	14.6976
25	124415	15.9225
25	145443	17.971
25	167994	22.898
25	191968	24.1341
25	217656	26.2343
25	241286	27.0841
25	259151	28.5451
25	279994	29.7247
25	301062	30.157
25	321609	29.72
25	341858	30.5637
25	360398	31.1104
25	376380	33.1221
25	390516	33.0297
25	403217	32.7937
25	414456	32.553
25	421753	32.1983
25	425847	32.6362
25	427571	33.7881
25	426998	33.6708
25	424205	33.8938
25	419477	33.3591
25	412595	32.7602
25	403793	32.068
25	395152	31.8969
25	387456	31.8612
25	379950	32.2396
25	372543	32.0404
25	365863	32.1052
25	361846	31.4906
25	359446	31.4591
25	358266	31.265
25	357922	30.8428
25	358478	29.6332
25	359804	29.7582
25	361778	31.1434
25	364166	32.2421
25	366635	32.4171
25	369221	32.9916
25	371887	32.4437
25	374644	30.9269
25	377411	30.9292
25	380081	31.8597
25	382874	33.1034
25	385513	32.8472
25	388216	32.1169
25	390860	32.3946
25	393507	31.0368
25	396295	31.4504
25	398885	32.583
25	401713	31.9383
25	404275	31.8512
25	406777	32.368
25	405196	32.8697
25	400840	32.3696
25	394255	32.1961
25	386039	32.1713
25	375430	32.1093
25	359933	31.6175
25	341114	31.602
25	319918	31.3702
25	296294	30.2508
25	270494	29.2299
25	243278	28.4729
25	220417	27.5842
25	199127	26.4306
25	178746	23.8294
25	158541	21.9391
25	140109	21.325
25	125900	21.1783
25	114489	19.7525
25	104696	17.6231
25	96028	16.5565
25	88295	15.2682
25	80784	13.6978
25	73614	12.8828
25	66695	14.0873
25	59941	13.0107
25	53474	9.88329
25	47199	9.7633
25	41057	9.21607
25	35071	7.78703
25	29323	6.65977
25	23781	7.10532
25	18809	6.67081
25	14365	4.1912
25	10539	3.31639
25	7321	2.9082
25	4663	2.73779
25	2668	2.25385
25	1247	1.67108
25	401	1.05332
25	50	0.54027
25	38	0.458259
25	34	0.075431

24	86694	13.5237
24	104856	14.2927
24	124415	15.8715
24	145443	18.1193
24	167994	22.5621
24	191968	24.154
24	217656	25.0352
24	241286	25.4637
24	259151	26.9565
24	279994	27.6814
24	301062	28.7662
24	321609	29.2599
24	341858	30.6438
24	360398	30.887
24	376380	32.0139
24	390516	32.6933
24	403217	32.5239
24	414456	32.6532
24	421753	32.1299
24	425847	32.1724
24	427571	33.7088
24	426998	33.3957
24	424205	34.0344
24	419477	33.8486
24	412595	33.1421
24	403793	32.4853
24	395152	32.1659
24	387456	32.3705
24	379950	32.4677
24	372543	32.6237
24	365863	32.7275
24	361846	32.1961
24	359446	31.7238
24	358266	31.6487
24	357922	32.1394
24	358478	31.2907
24	359804	30.7069
24	361778	31.7281
24	364166	32.459
24	366635	32.5272
24	369221	32.6419
24	371887	32.2683
24	374644	31.0729
24	377411	30.5831
24	380081	31.1095
24	382874	32.7432
24	385513	32.462
24	388216	31.9251
24	390860	32.1536
24	393507	31.8943
24	396295	32.0825
24	398885	32.5982
24	401713	31.6003
24	404275	31.756
24	406777	32.3197
24	405196	32.4898
24	400840	33.0277
24	394255	32.3297
24	386039	32.3789
24	375430	32.1901
24	359933	31.367
24	341114	31.4722
24	319918	31.0173
24	296294	30.4869
24	270494	29.1532
24	243278	28.3717
24	220417	27.2165
24	199127	26.1714
24	178746	23.4253
24	158541	21.6546
24	140109	20.6745
24	125900	20.9897
24	114489	20.2223
24	104696	20.1123
24	96028	16.8663
24	88295	15.2484
24	80784	13.5024
24	73614	12.8705
24	66695	13.9813
24	59941	13.1388
24	53474	8.63694
24	47199	7.69929
24	41057	7.70466
24	35071	7.75201
24	29323	6.65509
24	23781	6.89159
24	18809	6.69643
24	14365	4.13269
24	10539	3.42674
24	7321	3.00642
24	4663	2.72002
24	2668	2.39398
24	1247	1.78804
24	401	1.21729
24	50	0.598909
24	38	0.0751967
24	34	0.630631

23	86694	12.9565
23	104856	14.4131
23	124415	15.8879
23	145443	18.2471
23	167994	22.3278
23	191968	23.5436
23	217656	24.6682
23	241286	25.0545
23	259151	26.1451
23	279994	27.3812
23	301062	27.7406
23	321609	28.2011
23	341858	29.9995
23	360398	30.9804
23	376380	32.7963
23	390516	32.8989
23	403217	32.5425
23	414456	32.106
23	421753	31.7035
23	425847	31.875
23	427571	33.1784
23	426998	33.0892
23	424205	33.6553
23	419477	32.9024
23	412595	32.3181
23	403793	32.0187
23	395152	31.8317
23	387456	31.6946
23	379950	31.6363
23	372543	31.6429
23	365863	31.8807
23	361846	31.4311
23	359446	30.9671
23	358266	30.978
23	357922	31.3606
23	358478	30.9269
23	359804	29.8105
23	361778	30.5624
23	364166	32.1266
23	366635	31.964
23	369221	31.8031
23	371887	31.2944
23	374644	30.1509
23	377411	29.8429
23	380081	30.7466
23	382874	31.7705
23	385513	31.6712
23	388216	31.1701
23	390860	30.9629
23	393507	30.8128
23	396295	30.8375
23	398885	31.6811
23	401713	30.866
23	404275	30.7775
23	406777	31.8919
23	405196	31.7407
23	400840	31.9133
23	394255	31.6213
23	386039	31.2249
23	375430	30.9968
23	359933	29.815
23	341114	29.9344
23	319918	29.5503
23	296294	29.9851
23	270494	28.7779
23	243278	27.4419
23	220417	26.9369
23	199127	25.8369
23	178746	23.0691
23	158541	21.3885
23	140109	20.5286
23	125900	19.8173
23	114489	19.969
23	104696	19.4792
23	96028	16.64
23	88295	15.5556
23	80784	13.9689
23	73614	13.6456
23	66695	15.134
23	59941	14.0775
23	53474	10.2519
23	47199	9.80764
23	41057	9.4536
23	35071	8.12623
23	29323	7.04089
23	23781	7.447
23	18809	7.03662
23	14365	4.22202
23	10539	3.59042
23	7321	3.23505
23	4663	3.00354
23	2668	2.78789
23	1247	2.09398
23	401	1.46773
23	50	0.695793
23	38	1
23	34	0.853659

22	86694	13.0557
22	104856	14.3211
22	124415	16.1233
22	145443	18.1907
22	167994	22.2042
22	191968	23.4775
22	217656	24.1138
22	241286	24.5233
22	259151	25.9656
22	279994	27.0144
22	301062	27.2858
22	321609	27.8219
22	341858	29.2836
22	360398	29.4959
22	376380	31.4886
22	390516	31.1399
22	403217	30.6446
22	414456	30.07
22	421753	30.1881
22	425847	30.3475
22	427571	31.1888
22	426998	31.1308
22	424205	32.1763
22	419477	31.8912
22	412595	31.175
22	403793	30.6107
22	395152	30.4293
22	387456	30.5724
22	379950	30.354
22	372543	29.9064
22	365863	30.5405
22	361846	29.8409
22	359446	29.551
22	358266	29.3916
22	357922	29.354
22	358478	28.8173
22	359804	28.1726
22	361778	28.8664
22	364166	30.5965
22	366635	30.6945
22	369221	30.7913
22	371887	30.18
22	374644	29.1103
22	377411	28.8901
22	380081	30.1039
22	382874	31.0691
22	385513	30.7391
22	388216	30.1028
22	390860	30.3831
22	393507	30.0561
22	396295	30.246
22	398885	30.7937
22	401713	30.1031
22	404275	29.9538
22	406777	30.6238
22	405196	30.8808
22	400840	31.6199
22	394255	32.4343
22	386039	32.4379
22	375430	32.4915
22	359933	32.2957
22	341114	30.7866
22	319918	30.1772
22	296294	29.5164
22	270494	28.6823
22	243278	27.3835
22	220417	26.5032
22	199127	25.1535
22	178746	22.9733
22	158541	21.3486
22	140109	20.2383
22	125900	19.9253
22	114489	19.6377
22	104696	19.3132
22	96028	16.7782
22	88295	15.2133
22	80784	13.227
22	73614	13.0326
22	66695	13.3217
22	59941	12.0161
22	53474	9.39234
22	47199	8.89803
22	41057	9.01442
22	35071	7.92611
22	29323	7.15398
22	23781	7.45491
22	18809	7.1846
22	14365	4.56617
22	10539	3.67112
22	7321	3.1847
22	4663	2.85672
22	2668	2.70888
22	1247	2.07918
22	401	1.45166
22	50	0.642636
22	38	0.324937
22	34	0.673077

21	86694	12.7565
21	104856	13.9324
21	124415	15.2098
21	145443	17.2689
21	167994	21.6834
21	191968	22.3793
21	217656	23.3481
21	241286	24.442
21	259151	25.3814
21	279994	26.8519
21	301062	27.6913
21	321609	27.8126
21	341858	28.8314
21	360398	29.668
21	376380	31.6517
21	390516	31.4493
21	403217	31.258
21	414456	31.0282
21	421753	30.4776
21	425847	30.448
21	427571	31.2347
21	426998	31.5301
21	424205	32.1673
21	419477	31.6912
21	412595	31.0983
21	403793	30.679
21	395152	30.589
21	387456	30.7852
21	379950	30.3314
21	372543	30.4574
21	365863	30.5956
21	361846	30.2333
21	359446	29.9383
21	358266	29.8492
21	357922	29.5161
21	358478	28.4955
21	359804	28.1702
21	361778	30.2536
21	364166	31.186
21	366635	31.3223
21	369221	31.4227
21	371887	30.9126
21	374644	29.5199
21	377411	29.52
21	380081	30.2926
21	382874	31.4786
21	385513	30.8864
21	388216	30.0325
21	390860	30.2623
21	393507	30.0981
21	396295	29.9621
21	398885	30.3299
21	401713	28.7325
21	404275	28.3747
21	406777	30.4327
21	405196	30.6742
21	400840	31.1217
21	394255	30.6002
21	386039	30.5349
21	375430	30.3834
21	359933	29.9103
21	341114	30.0615
21	319918	29.8528
21	296294	29.1394
21	270494	28.3163
21	243278	27.4534
21	220417	26.7939
21	199127	24.9455
21	178746	22.757
21	158541	21.3848
21	140109	20.2834
21	125900	20.0315
21	114489	19.7161
21	104696	19.9079
21	96028	16.727
21	88295	15.6089
21	80784	14.196
21	73614	12.8844
21	66695	12.7582
21	59941	12.8517
21	53474	10.4435
21	47199	10.1888
21	41057	10.3064
21	35071	8.51811
21	29323	7.39309
21	23781	7.9183
21	18809	7.51927
21	14365	4.75245
21	10539	3.72619
21	7321	3.36525
21	4663	3.17326
21	2668	2.8736
21	1247	2.59311
21	401	1.6073
21	50	0.792656
21	38	0.148789
21	34	0.100719

20	86694	13.7443
20	104856	14.7688
20	124415	16.1421
20	145443	17.7684
20	167994	22.1559
20	191968	23.2877
20	217656	23.8046
20	241286	24.4748
20	259151	25.7866
20	279994	26.494
20	301062	26.7755
20	321609	27.1506
20	341858	28.68
20	360398	28.9868
20	376380	30.8009
20	390516	30.298
20	403217	30.1387
20	414456	29.5962
20	421753	29.5757
20	425847	29.6391
20	427571	30.7944
20	426998	30.5559
20	424205	31.6381
20	419477	32.2755
20	412595	31.6851
20	403793	31.3729
20	395152	31.8318
20	387456	30.8701
20	379950	30.4064
20	372543	30.113
20	365863	30.0397
20	361846	29.11
20	359446	28.9149
20	358266	28.7891
20	357922	29.0072
20	358478	28.5879
20	359804	28.047
20	361778	28.8006
20	364166	29.8041
20	366635	30.0957
20	369221	30.0291
20	371887	29.4178
20	374644	28.5536
20	377411	28.2592
20	380081	28.9137
20	382874	30.0296
20	385513	29.8424
20	388216	29.2669
20	390860	29.3533
20	393507	29.2864
20	396295	29.4653
20	398885	29.5991
20	401713	28.979
20	404275	28.9264
20	406777	29.4192
20	405196	29.7089
20	400840	30.151
20	394255	29.8874
20	386039	29.6357
20	375430	29.8477
20	359933	29.4074
20	341114	29.7041
20	319918	29.5588
20	296294	29.0572
20	270494	28.0083
20	243278	27.1993
20	220417	26.7052
20	199127	25.4111
20	178746	22.8066
20	158541	21.1819
20	140109	19.4692
20	125900	19.4541
20	114489	19.6509
20	104696	19.5262
20	96028	16.9419
20	88295	15.5687
20	80784	14.1034
20	73614	13.8598
20	66695	15.6327
20	59941	14.7973
20	53474	10.5892
20	47199	10.452
20	41057	8.93495
20	35071	8.26731
20	29323	7.67649
20	23781	8.11868
20	18809	7.49486
20	14365	4.43668
20	10539	3.61524
20	7321	3.38115
20	4663	3.28604
20	2668	3.09098
20	1247	1.96959
20	401	1.42804
20	50	0.850226
20	38	0.527607
20	34	0.360825

19	86694	13.6772
19	104856	15.0257
19	124415	16.0492
19	145443	17.3421
19	167994	22.1357
19	191968	22.7256
19	217656	23.3645
19	241286	24.0611
19	259151	25.0215
19	279994	25.4749
19	301062	25.8359
19	321609	26.2505
19	341858	27.4331
19	360398	27.6337
19	376380	29.5217
19	390516	29.3484
19	403217	28.8798
19	414456	28.5926
19	421753	28.3807
19	425847	28.1488
19	427571	29.2487
19	426998	29.2513
19	424205	29.795
19	419477	29.3069
19	412595	28.7555
19	403793	28.4255
19	395152	28.2905
19	387456	28.4627
19	379950	28.677
19	372543	28.6715
19	365863	28.732
19	361846	28.0872
19	359446	27.653
19	358266	27.3644
19	357922	28.0524
19	358478	27.3274
19	359804	27.0632
19	361778	27.9784
19	364166	28.8619
19	366635	28.5475
19	369221	28.4738
19	371887	28.2495
19	374644	27.4011
19	377411	27.1529
19	380081	28.0652
19	382874	29.3674
19	385513	29.2821
19	388216	28.5492
19	390860	28.47
19	393507	28.0198
19	396295	27.8097
19	398885	29.079
19	401713	28.5413
19	404275	27.9801
19	406777	27.8052
19	405196	28.5563
19	400840	29.3432
19	394255	29.1092
19	386039	29.0478
19	375430	28.7539
19	359933	28.3869
19	341114	28.4772
19	319918	28.2666
19	296294	27.9108
19	270494	26.9495
19	243278	26.3365
19	220417	26.2905
19	199127	24.9723
19	178746	22.491
19	158541	20.9801
19	140109	19.9334
19	125900	19.4601
19	114489	18.8396
19	104696	19.0645
19	96028	16.3599
19	88295	15.2978
19	80784	14.0619
19	73614	13.9588
19	66695	15.5882
19	59941	14.3444
19	53474	10.4798
19	47199	10.231
19	41057	10.2166
19	35071	8.12692
19	29323	6.47446
19	23781	7.16187
19	18809	7.73608
19	14365	4.62992
19	10539	3.92615
19	7321	3.47594
19	4663	3.42428
19	2668	3.20611
19	1247	2.43729
19	401	1.66425
19	50	1.04362
19	38	0.446367
19	34	0.140281

18	86694	11.8916
18	104856	13.324
18	124415	14.7844
18	145443	17.7111
18	167994	22.0927
18	191968	22.4218
18	217656	23.3071
18	241286	23.7579
18	259151	25.1978
18	279994	25.7761
18	301062	25.6894
18	321609	25.8925
18	341858	27.1419
18	360398	27.4875
18	376380	29.0294
18	390516	28.7993
18	403217	28.5358
18	414456	28.0814
18	421753	28.0705
18	425847	27.8723
18	427571	28.7354
18	426998	29.1278
18	424205	29.0216
18	419477	28.289
18	412595	28.0579
18	403793	27.6663
18	395152	27.5964
18	387456	27.7993
18	379950	27.7046
18	372543	27.6094
18	365863	27.8836
18	361846	27.4099
18	359446	27.0052
18	358266	27.1175
18	357922	27.4685
18	358478	26.9291
18	359804	26.4509
18	361778	27.2692
18	364166	28.1027
18	366635	28.0998
18	369221	28.2403
18	371887	27.7169
18	374644	27.0099
18	377411	26.9405
18	380081	27.3591
18	382874	28.4022
18	385513	28.1508
18	388216	27.705
18	390860	27.9515
18	393507	27.7254
18	396295	27.7706
18	398885	28.1548
18	401713	27.2682
18	404275	27.4207
18	406777	27.4912
18	405196	27.6709
18	400840	28.0712
18	394255	27.7802
18	386039	27.7772
18	375430	27.7011
18	359933	27.6046
18	341114	27.7214
18	319918	27.5614
18	296294	27.0778
18	270494	26.5103
18	243278	25.7869
18	220417	25.5194
18	199127	24.4092
18	178746	22.4029
18	158541	20.8926
18	140109	19.9998
18	125900	19.7497
18	114489	19.3997
18	104696	19.1341
18	96028	16.4355
18	88295	15.4121
18	80784	13.8751
18	73614	13.9101
18	66695	16.0425
18	59941	13.4414
18	53474	10.0914
18	47199	10.0667
18	41057	10.0181
18	35071	8.45987
18	29323	7.51426
18	23781	7.97226
18	18809	7.58202
18	14365	4.59047
18	10539	3.74361
18	7321	3.41893
18	4663	3.21965
18	2668	3.04028
18	1247	2.40928
18	401	1.72379
18	50	0.827714
18	38	0.240896
18	34	0.321101

17	86694	13.3051
17	104856	14.8102
17	124415	15.9237
17	145443	17.3505
17	167994	21.4852
17	191968	22.0351
17	217656	23.3654
17	241286	23.5617
17	259151	24.7931
17	279994	25.2203
17	301062	25.2271
17	321609	25.3678
17	341858	26.4066
17	360398	26.748
17	376380	27.9102
17	390516	27.8454
17	403217	27.7925
17	414456	27.5217
17	421753	27.4227
17	425847	27.1764
17	427571	28.3888
17	426998	28.4672
17	424205	28.9932
17	419477	28.6117
17	412595	28.1797
17	403793	27.7745
17	395152	27.7906
17	387456	27.9255
17	379950	27.8898
17	372543	27.721
17	365863	27.7387
17	361846	27.409
17	359446	27.1073
17	358266	27.0888
17	357922	27.4799
17	358478	26.8626
17	359804	26.1442
17	361778	27.3034
17	364166	27.9028
17	366635	27.7808
17	369221	27.816
17	371887	27.4334
17	374644	26.6291
17	377411	26.476
17	380081	27.1368
17	382874	27.8859
17	385513	27.7217
17	388216	27.273
17	390860	27.7035
17	393507	27.5399
17	396295	27.2685
17	398885	28.3886
17	401713	28.8016
17	404275	28.7001
17	406777	29.4047
17	405196	28.9566
17	400840	28.3255
17	394255	28.1448
17	386039	27.9496
17	375430	27.7601
17	359933	27.5466
17	341114	27.921
17	319918	27.3334
17	296294	26.6951
17	270494	26.2102
17	243278	25.7163
17	220417	25.3859
17	199127	24.2746
17	178746	22.1949
17	158541	20.5717
17	140109	19.8085
17	125900	19.3059
17	114489	19.2752
17	104696	19.2778
17	96028	16.2891
17	88295	15.3806
17	80784	13.8777
17	73614	13.9056
17	66695	15.6258
17	59941	14.3511
17	53474	10.154
17	47199	9.95115
17	41057	10.0582
17	35071	8.55846
17	29323	7.27002
17	23781	7.84103
17	18809	7.47705
17	14365	4.59641
17	10539	3.66589
17	7321	3.45113
17	4663	3.2588
17	2668	3.00159
17	1247	2.45787
17	401	1.80597
17	50	0.828864
17	38	0.155985
17	34	0.35533

16	86694	14.716
16	104856	15.8516
16	124415	16.3518
16	145443	17.616
16	167994	21.6865
16	191968	22.4492
16	217656	23.04
16	241286	23.4124
16	259151	24.4974
16	279994	24.8448
16	301062	24.8855
16	321609	25.0313
16	341858	26.0153
16	360398	26.0538
16	376380	27.4577
16	390516	27.743
16	403217	27.4638
16	414456	27.2818
16	421753	27.0779
16	425847	27.1401
16	427571	27.7178
16	426998	27.8557
16	424205	28.0093
16	419477	27.7193
16	412595	27.4565
16	403793	27.1229
16	395152	27.0913
16	387456	27.0422
16	379950	26.999
16	372543	26.5739
16	365863	26.4186
16	361846	26.252
16	359446	25.8198
16	358266	26.1192
16	357922	26.6132
16	358478	26.1772
16	359804	25.8974
16	361778	26.5836
16	364166	27.5163
16	366635	27.485
16	369221	26.9803
16	371887	26.7365
16	374644	25.8339
16	377411	25.6729
16	380081	26.1926
16	382874	27.3049
16	385513	27.0349
16	388216	26.5604
16	390860	26.4684
16	393507	26.5838
16	396295	26.294
16	398885	26.6883
16	401713	26.2002
16	404275	26.1942
16	406777	26.7317
16	405196	26.7391
16	400840	26.9273
16	394255	26.8609
16	386039	27.1012
16	375430	26.9903
16	359933	26.8311
16	341114	27.4069
16	319918	27.0227
16	296294	26.0282
16	270494	25.4996
16	243278	25.0746
16	220417	24.9957
16	199127	24.0817
16	178746	22.0168
16	158541	20.4736
16	140109	19.6378
16	125900	19.2005
16	114489	18.4734
16	104696	18.9814
16	96028	15.8288
16	88295	15.1079
16	80784	14.0113
16	73614	13.9377
16	66695	15.4069
16	59941	14.2807
16	53474	10.3114
16	47199	10.1247
16	41057	10.0545
16	35071	8.52871
16	29323	7.51505
16	23781	8.07799
16	18809	8.02798
16	14365	4.70499
16	10539	3.78407
16	7321	3.46406
16	4663	3.27404
16	2668	2.99307
16	1247	2.60686
16	401	1.6768
16	50	1.11011
16	38	0.291855
16	34	0.251799

15	86694	13.6761
15	104856	15.2661
15	124415	15.9276
15	145443	17.2333
15	167994	21.1111
15	191968	22.0005
15	217656	22.5647
15	241286	22.4596
15	259151	23.6681
15	279994	24.9376
15	301062	25.3526
15	321609	25.1416
15	341858	26.2106
15	360398	25.5537
15	376380	26.1953
15	390516	26.0037
15	403217	25.5971
15	414456	25.5268
15	421753	25.473
15	425847	25.4278
15	427571	26.1969
15	426998	26.1851
15	424205	26.6105
15	419477	26.0573
15	412595	25.5399
15	403793	25.3692
15	395152	25.7696
15	387456	25.9209
15	379950	25.7915
15	372543	25.6642
15	365863	25.7438
15	361846	25.3081
15	359446	25.0708
15	358266	25.2242
15	357922	25.4755
15	358478	24.8395
15	359804	24.0762
15	361778	25.3069
15	364166	25.7446
15	366635	25.7177
15	369221	25.8926
15	371887	25.616
15	374644	25.0131
15	377411	24.9988
15	380081	25.4529
15	382874	26.1039
15	385513	25.475
15	388216	25.2067
15	390860	25.3856
15	393507	25.2483
15	396295	25.1816
15	398885	25.5002
15	401713	25.0195
15	404275	25.025
15	406777	25.5652
15	405196	25.7566
15	400840	26.217
15	394255	25.8577
15	386039	25.8351
15	375430	25.9803
15	359933	25.5715
15	341114	25.386
15	319918	25.1341
15	296294	24.712
15	270494	24.0077
15	243278	23.882
15	220417	24.4222
15	199127	23.2943
15	178746	21.5276
15	158541	20.1327
15	140109	19.2691
15	125900	19.0649
15	114489	18.8143
15	104696	18.652
15	96028	15.7905
15	88295	14.9842
15	80784	13.7869
15	73614	12.7565
15	66695	14.7273
15	59941	13.7782
15	53474	10.1047
15	47199	10.0118
15	41057	10.1878
15	35071	8.58568
15	29323	7.49975
15	23781	8.352
15	18809	7.87927
15	14365	4.69209
15	10539	3.97701
15	7321	3.58541
15	4663	3.41573
15	2668	3.08491
15	1247	2.87425
15	401	2.04383
15	50	1.22018
15	38	0.523327
15	34	0.344828

14	86694	12.8061
14	104856	14.7323
14	124415	15.9278
14	145443	17.478
14	167994	21.1657
14	191968	21.8938
14	217656	22.3712
14	241286	22.4379
14	259151	23.1393
14	279994	23.1687
14	301062	23.0941
14	321609	23.4713
14	341858	24.5492
14	360398	24.6727
14	376380	25.7211
14	390516	25.5047
14	403217	25.3001
14	414456	25.1308
14	421753	24.9264
14	425847	24.78
14	427571	25.4397
14	426998	25.6308
14	424205	26.0456
14	419477	25.8978
14	412595	25.4457
14	403793	24.8932
14	395152	24.8285
14	387456	25.149
14	379950	25.0255
14	372543	25.0664
14	365863	25.3041
14	361846	25.0926
14	359446	24.699
14	358266	24.763
14	357922	25.0517
14	358478	24.354
14	359804	24.0872
14	361778	24.9845
14	364166	25.6261
14	366635	25.5306
14	369221	25.397
14	371887	24.8404
14	374644	24.1773
14	377411	24.2659
14	380081	24.8296
14	382874	25.4838
14	385513	25.1215
14	388216	24.3924
14	390860	24.5642
14	393507	24.3748
14	396295	24.3416
14	398885	24.5197
14	401713	24.2524
14	404275	24.6998
14	406777	24.935
14	405196	25.1954
14	400840	25.4427
14	394255	25.3446
14	386039	25.3271
14	375430	25.1311
14	359933	24.8754
14	341114	25.0615
14	319918	25.1843
14	296294	24.8108
14	270494	25.2943
14	243278	25.347
14	220417	25.3384
14	199127	24.654
14	178746	23.6966
14	158541	21.4724
14	140109	20.128
14	125900	20.0092
14	114489	19.873
14	104696	19.2133
14	96028	16.4829
14	88295	15.5181
14	80784	14.2289
14	73614	13.5378
14	66695	14.9235
14	59941	13.7528
14	53474	10.2593
14	47199	9.84795
14	41057	9.84113
14	35071	8.37638
14	29323	7.45895
14	23781	8.12434
14	18809	7.96958
14	14365	4.82001
14	10539	3.90137
14	7321	3.51511
14	4663	3.42982
14	2668	3.45495
14	1247	2.59866
14	401	2.1289
14	50	1.06681
14	38	0.862876
14	34	0.207715

13	86694	14.3871
13	104856	15.2814
13	124415	15.7484
13	145443	17.0332
13	167994	19.8947
13	191968	20.6107
13	217656	21.0149
13	241286	21.2392
13	259151	22.2183
13	279994	22.9201
13	301062	22.5666
13	321609	22.7256
13	341858	23.3687
13	360398	22.8969
13	376380	23.7387
13	390516	23.409
13	403217	23.3843
13	414456	23.4351
13	421753	23.5859
13	425847	23.4706
13	427571	24.0578
13	426998	24.0672
13	424205	24.4297
13	419477	24.5106
13	412595	24.1422
13	403793	23.8524
13	395152	23.9372
13	387456	24.1129
13	379950	23.956
13	372543	23.7803
13	365863	24.1227
13	361846	23.9833
13	359446	23.4023
13	358266	23.4587
13	357922	23.786
13	358478	23.5825
13	359804	23.2488
13	361778	23.8247
13	364166	24.1398
13	366635	24.0567
13	369221	23.7706
13	371887	23.5881
13	374644	22.9331
13	377411	22.7222
13	380081	23.181
13	382874	23.699
13	385513	23.5281
13	388216	23.4056
13	390860	23.4199
13	393507	23.2871
13	396295	23.2791
13	398885	23.5326
13	401713	23.2145
13	404275	23.1946
13	406777	23.5498
13	405196	23.4922
13	400840	23.5244
13	394255	23.5089
13	386039	23.5808
13	375430	23.8557
13	359933	23.8464
13	341114	24.167
13	319918	24.1132
13	296294	23.6775
13	270494	23.5306
13	243278	23.4281
13	220417	23.2147
13	199127	22.7503
13	178746	21.2459
13	158541	20.1232
13	140109	19.7947
13	125900	19.8072
13	114489	19.603
13	104696	19.1655
13	96028	16.2374
13	88295	14.9748
13	80784	13.8747
13	73614	13.3479
13	66695	14.3389
13	59941	13.2534
13	53474	10.1258
13	47199	9.78941
13	41057	10.1103
13	35071	8.79745
13	29323	7.70157
13	23781	8.55399
13	18809	8.16675
13	14365	4.9696
13	10539	4.12457
13	7321	3.57775
13	4663	3.29031
13	2668	3.29173
13	1247	2.55472
13	401	1.88069
13	50	1.03257
13	38	0.262997
13	34	0.291667

12	86694	14.1982
12	104856	15.2487
12	124415	15.5579
12	145443	17.2535
12	167994	20.8593
12	191968	20.9394
12	217656	21.0899
12	241286	20.865
12	259151	21.4971
12	279994	21.5549
12	301062	21.1274
12	321609	20.9744
12	341858	21.5288
12	360398	21.9044
12	376380	22.4147
12	390516	22.2379
12	403217	21.5955
12	414456	21.4652
12	421753	21.4213
12	425847	21.2985
12	427571	21.6921
12	426998	22.2982
12	424205	22.2414
12	419477	22.1434
12	412595	21.8197
12	403793	21.6799
12	395152	21.7083
12	387456	21.7985
12	379950	21.6034
12	372543	21.5322
12	365863	21.7672
12	361846	21.5081
12	359446	21.3482
12	358266	21.5264
12	357922	21.7341
12	358478	21.2543
12	359804	20.8463
12	361778	21.8639
12	364166	21.9765
12	366635	21.7087
12	369221	21.6756
12	371887	21.2743
12	374644	20.8489
12	377411	20.9183
12	380081	21.2925
12	382874	21.6108
12	385513	21.4976
12	388216	21.2846
12	390860	21.6728
12	393507	21.8849
12	396295	21.3646
12	398885	21.8188
12	401713	21.4742
12	404275	21.411
12	406777	21.6594
12	405196	21.4297
12	400840	21.5957
12	394255	21.583
12	386039	21.5915
12	375430	21.6843
12	359933	21.5199
12	341114	21.8797
12	319918	21.8317
12	296294	21.4957
12	270494	21.5863
12	243278	21.999
12	220417	22.3797
12	199127	21.9291
12	178746	20.7474
12	158541	19.8854
12	140109	19.7427
12	125900	19.6204
12	114489	19.8314
12	104696	19.1879
12	96028	16.4317
12	88295	15.2165
12	80784	13.9745
12	73614	13.487
12	66695	14.3033
12	59941	13.5993
12	53474	10.093
12	47199	9.72969
12	41057	9.80337
12	35071	8.08049
12	29323	7.67926
12	23781	7.76421
12	18809	7.46808
12	14365	5.0818
12	10539	4.11728
12	7321	3.81529
12	4663	3.68583
12	2668	3.5143
12	1247	2.95571
12	401	2.49107
12	50	1.19405
12	38	0.516
12	34	0.48951

11	86694	13.9693
11	104856	14.9043
11	124415	15.4082
11	145443	17.2577
11	167994	20.404
11	191968	20.3384
11	217656	20.2179
11	241286	19.8841
11	259151	20.2668
11	279994	20.1866
11	301062	19.7857
11	321609	19.5096
11	341858	19.8868
11	360398	19.8411
11	376380	20.4137
11	390516	20.2983
11	403217	20.1977
11	414456	20.1075
11	421753	19.9242
11	425847	19.7792
11	427571	20.2506
11	426998	20.3402
11	424205	20.5129
11	419477	20.4751
11	412595	20.2311
11	403793	20.0769
11	395152	20.2157
11	387456	20.2416
11	379950	20.2924
11	372543	20.561
11	365863	20.7729
11	361846	20.5516
11	359446	20.396
11	358266	20.5634
11	357922	20.67
11	358478	20.1099
11	359804	19.5719
11	361778	20.147
11	364166	20.1717
11	366635	20.2408
11	369221	20.1093
11	371887	20.1954
11	374644	19.7239
11	377411	19.7349
11	380081	19.9139
11	382874	20.168
11	385513	20.1116
11	388216	20.0318
11	390860	20.4181
11	393507	20.6981
11	396295	20.7584
11	398885	20.3946
11	401713	20.2262
11	404275	20.4194
11	406777	20.695
11	405196	20.8558
11	400840	21.0111
11	394255	20.6083
11	386039	20.6618
11	375430	20.8646
11	359933	20.6877
11	341114	21.0605
11	319918	20.9581
11	296294	20.7302
11	270494	20.8277
11	243278	21.542
11	220417	21.8356
11	199127	21.2831
11	178746	20.0448
11	158541	19.2356
11	140109	19.3165
11	125900	19.0978
11	114489	19.313
11	104696	18.5389
11	96028	16.6748
11	88295	15.248
11	80784	14.1085
11	73614	13.795
11	66695	15.792
11	59941	14.3775
11	53474	10.2985
11	47199	10.0613
11	41057	10.0419
11	35071	8.2611
11	29323	7.76394
11	23781	8.7543
11	18809	8.33424
11	14365	4.98994
11	10539	4.10691
11	7321	3.81282
11	4663	3.70607
11	2668	3.69324
11	1247	3.2987
11	401	2.55319
11	50	1.28345
11	38	0.496154
11	34	0.37037

10	86694	13.7719
10	104856	14.6676
10	124415	15.1611
10	145443	16.4981
10	167994	19.1167
10	191968	19.1674
10	217656	19.3038
10	241286	19.1702
10	259151	19.5926
10	279994	19.5852
10	301062	19.4064
10	321609	19.2406
10	341858	19.2488
10	360398	19.213
10	376380	19.7007
10	390516	19.5793
10	403217	19.4552
10	414456	19.4055
10	421753	19.1761
10	425847	19.0775
10	427571	19.4805
10	426998	19.5547
10	424205	19.6997
10	419477	19.6573
10	412595	19.4168
10	403793	19.2765
10	395152	19.1088
10	387456	19.1548
10	379950	19.2967
10	372543	19.2369
10	365863	19.4552
10	361846	19.1045
10	359446	19.0833
10	358266	19.1697
10	357922	19.3167
10	358478	18.9115
10	359804	18.5815
10	361778	19.162
10	364166	19.2364
10	366635	19.3975
10	369221	19.3634
10	371887	19.1552
10	374644	18.8443
10	377411	18.8297
10	380081	18.8449
10	382874	19.1191
10	385513	19.1063
10	388216	18.7685
10	390860	18.622
10	393507	18.789
10	396295	18.7743
10	398885	18.745
10	401713	18.6189
10	404275	18.8358
10	406777	19.1182
10	405196	19.239
10	400840	19.3971
10	394255	19.1933
10	386039	19.3553
10	375430	19.4455
10	359933	19.4073
10	341114	19.6971
10	319918	19.6184
10	296294	19.2117
10	270494	19.3189
10	243278	19.7024
10	220417	20.562
10	199127	20.681
10	178746	19.59
10	158541	18.489
10	140109	18.3957
10	125900	18.52
10	114489	18.6498
10	104696	17.8172
10	96028	16.2355
10	88295	14.9495
10	80784	13.6038
10	73614	14.5036
10	66695	17.6585
10	59941	14.5353
10	53474	10.2484
10	47199	10.246
10	41057	10.3846
10	35071	8.11395
10	29323	7.83652
10	23781	8.94985
10	18809	8.78451
10	14365	5.1658
10	10539	4.12684
10	7321	3.94051
10	4663	3.78195
10	2668	3.61523
10	1247	3.12802
10	401	2.59199
10	50	1.54047
10	38	0.499033
10	34	0.376344

9	86694	13.9114
9	104856	14.0494
9	124415	14.4255
9	145443	16.0201
9	167994	18.2561
9	191968	18.1112
9	217656	18.301
9	241286	17.8105
9	259151	18.0809
9	279994	18.0197
9	301062	17.717
9	321609	17.5752
9	341858	17.7785
9	360398	17.6983
9	376380	18.1625
9	390516	18.1029
9	403217	18.0233
9	414456	17.9219
9	421753	17.9121
9	425847	17.8181
9	427571	18.1459
9	426998	18.2472
9	424205	18.3736
9	419477	18.2568
9	412595	18.1837
9	403793	18.0698
9	395152	18.0009
9	387456	18.0475
9	379950	17.9717
9	372543	17.9107
9	365863	18.126
9	361846	17.8059
9	359446	17.7179
9	358266	18.023
9	357922	18.0936
9	358478	17.7935
9	359804	17.5162
9	361778	17.9036
9	364166	18.0714
9	366635	18.154
9	369221	18.0112
9	371887	17.8702
9	374644	17.462
9	377411	17.4607
9	380081	17.7654
9	382874	17.8728
9	385513	18.1093
9	388216	17.9302
9	390860	17.8845
9	393507	17.9379
9	396295	18.0669
9	398885	18.0945
9	401713	17.8477
9	404275	17.987
9	406777	18.1344
9	405196	17.9284
9	400840	18.1088
9	394255	18.3972
9	386039	18.4213
9	375430	18.5266
9	359933	18.5228
9	341114	18.8721
9	319918	18.8455
9	296294	18.7599
9	270494	18.7003
9	243278	19.2297
9	220417	19.4119
9	199127	18.8583
9	178746	18.0934
9	158541	17.3249
9	140109	17.299
9	125900	17.2175
9	114489	17.1025
9	104696	16.9182
9	96028	15.5698
9	88295	14.3962
9	80784	12.9491
9	73614	13.5573
9	66695	15.712
9	59941	14.0653
9	53474	10.0747
9	47199	10.1766
9	41057	10.0744
9	35071	8.40453
9	29323	7.73162
9	23781	9.02066
9	18809	8.51071
9	14365	5.11735
9	10539	4.09828
9	7321	3.91059
9	4663	3.96583
9	2668	3.95245
9	1247	3.6256
9	401	2.87655
9	50	1.68083
9	38	0.701087
9	34	0.486111

8	86694	13.3382
8	104856	13.759
8	124415	13.6251
8	145443	14.8998
8	167994	16.6657
8	191968	16.7909
8	217656	16.6963
8	241286	16.8154
8	259151	17.4757
8	279994	17.5247
8	301062	17.561
8	321609	17.4033
8	341858	17.3488
8	360398	17.1422
8	376380	17.5008
8	390516	17.4119
8	403217	17.3123
8	414456	17.2518
8	421753	17.1947
8	425847	17.0962
8	427571	17.3645
8	426998	17.543
8	424205	17.5671
8	419477	17.5739
8	412595	17.3834
8	403793	17.6146
8	395152	17.5466
8	387456	17.4366
8	379950	17.2603
8	372543	17.1823
8	365863	17.3711
8	361846	17.1722
8	359446	16.9803
8	358266	17.049
8	357922	17.3147
8	358478	17.0093
8	359804	16.6821
8	361778	17.082
8	364166	17.3825
8	366635	17.2553
8	369221	17.1954
8	371887	17.2251
8	374644	16.7979
8	377411	16.8002
8	380081	16.9859
8	382874	17.1945
8	385513	17.2504
8	388216	16.9971
8	390860	17.0656
8	393507	16.9636
8	396295	16.8728
8	398885	16.9524
8	401713	16.7761
8	404275	16.857
8	406777	17.0626
8	405196	17.1623
8	400840	17.181
8	394255	17.2548
8	386039	17.293
8	375430	17.3874
8	359933	17.1231
8	341114	17.4434
8	319918	17.5165
8	296294	17.4888
8	270494	17.6281
8	243278	18.0314
8	220417	18.3145
8	199127	18.3179
8	178746	17.5811
8	158541	16.6458
8	140109	16.6654
8	125900	16.7583
8	114489	16.8453
8	104696	16.3927
8	96028	15.1296
8	88295	14.0615
8	80784	13.0221
8	73614	13.0001
8	66695	14.4511
8	59941	13.5888
8	53474	10.0997
8	47199	9.83248
8	41057	10.3662
8	35071	8.77247
8	29323	8.14822
8	23781	9.70871
8	18809	8.70295
8	14365	5.1371
8	10539	4.28072
8	7321	3.99803
8	4663	3.87869
8	2668	3.78328
8	1247	3.34504
8	401	2.7855
8	50	1.59736
8	38	0.427861
8	34	0.368421

7	86694	12.8812
7	104856	13.7889
7	124415	13.7958
7	145443	14.324
7	167994	15.7418
7	191968	15.6093
7	217656	15.6219
7	241286	15.4917
7	259151	15.6013
7	279994	15.5112
7	301062	15.3337
7	321609	15.2464
7	341858	15.4003
7	360398	15.3297
7	376380	15.5317
7	390516	15.4525
7	403217	15.2593
7	414456	15.224
7	421753	15.1584
7	425847	15.0368
7	427571	15.2913
7	426998	15.5089
7	424205	15.599
7	419477	15.6075
7	412595	15.4516
7	403793	15.3398
7	395152	15.2957
7	387456	15.6073
7	379950	15.4586
7	372543	15.1799
7	365863	15.3759
7	361846	15.2279
7	359446	15.2163
7	358266	15.634
7	357922	15.6874
7	358478	15.4692
7	359804	15.0997
7	361778	15.3304
7	364166	15.5384
7	366635	15.6148
7	369221	15.5657
7	371887	15.4712
7	374644	15.2594
7	377411	15.2777
7	380081	15.3815
7	382874	15.4382
7	385513	15.2903
7	388216	15.1188
7	390860	15.1995
7	393507	15.2453
7	396295	15.2367
7	398885	15.4092
7	401713	15.2408
7	404275	15.2893
7	406777	15.42
7	405196	15.4332
7	400840	15.4724
7	394255	15.5287
7	386039	15.5885
7	375430	15.707
7	359933	15.6993
7	341114	15.9175
7	319918	15.6419
7	296294	15.5186
7	270494	15.5527
7	243278	15.9667
7	220417	16.3455
7	199127	16.2647
7	178746	15.4943
7	158541	15.267
7	140109	15.5041
7	125900	15.1447
7	114489	15.3353
7	104696	15.1478
7	96028	14.3627
7	88295	13.4887
7	80784	12.2073
7	73614	12.9429
7	66695	14.3621
7	59941	12.9808
7	53474	10.2665
7	47199	9.88818
7	41057	10.6535
7	35071	8.54779
7	29323	7.70283
7	23781	9.135
7	18809	9.13443
7	14365	5.06435
7	10539	4.24185
7	7321	3.92901
7	4663	3.68727
7	2668	3.66444
7	1247	3.31979
7	401	2.79731
7	50	1.62883
7	38	0.461538
7	34	0.421687

6	86694	11.9314
6	104856	12.0012
6	124415	12.3795
6	145443	13.1331
6	167994	14.1145
6	191968	13.9354
6	217656	13.8386
6	241286	13.83
6	259151	14.0013
6	279994	14.0315
6	301062	14.0177
6	321609	13.9387
6	341858	14.1478
6	360398	14.131
6	376380	14.3512
6	390516	14.3078
6	403217	14.1958
6	414456	14.1558
6	421753	14.1144
6	425847	13.9765
6	427571	14.2244
6	426998	14.2809
6	424205	14.3759
6	419477	14.3357
6	412595	14.2511
6	403793	14.184
6	395152	14.1463
6	387456	14.2446
6	379950	14.1207
6	372543	13.9812
6	365863	14.1104
6	361846	14.0282
6	359446	14.1029
6	358266	14.2606
6	357922	14.3027
6	358478	14.0213
6	359804	13.7698
6	361778	13.9382
6	364166	14.1231
6	366635	14.1921
6	369221	14.2159
6	371887	14.1168
6	374644	13.943
6	377411	13.9935
6	380081	13.9273
6	382874	14.1025
6	385513	14.1809
6	388216	14.0746
6	390860	14.0848
6	393507	14.0681
6	396295	13.9576
6	398885	13.9459
6	401713	13.8398
6	404275	13.8697
6	406777	13.9991
6	405196	14.0561
6	400840	14.0189
6	394255	14.0245
6	386039	14.0744
6	375430	14.1754
6	359933	14.111
6	341114	14.31
6	319918	14.3758
6	296294	14.291
6	270494	14.2738
6	243278	14.4859
6	220417	14.6781
6	199127	14.7654
6	178746	14.1717
6	158541	13.8365
6	140109	13.7506
6	125900	13.6086
6	114489	13.4648
6	104696	13.2803
6	96028	12.8376
6	88295	12.1148
6	80784	11.5183
6	73614	11.8163
6	66695	13.089
6	59941	12.3473
6	53474	10.0489
6	47199	10.2821
6	41057	10.6869
6	35071	9.67817
6	29323	8.22031
6	23781	9.25327
6	18809	9.94162
6	14365	5.25664
6	10539	4.27285
6	7321	4.11302
6	4663	4.06556
6	2668	3.97533
6	1247	3.70778
6	401	3.04939
6	50	2.01283
6	38	0.626214
6	34	0.534351

5	86694	10.9563
5	104856	10.7421
5	124415	11.1205
5	145443	11.6146
5	167994	11.7239
5	191968	11.7393
5	217656	11.8428
5	241286	11.8621
5	259151	11.9458
5	279994	11.9324
5	301062	12.0157
5	321609	12.0397
5	341858	12.1828
5	360398	12.1514
5	376380	12.2433
5	390516	12.2536
5	403217	12.1881
5	414456	12.1399
5	421753	12.1074
5	425847	12.0082
5	427571	12.1803
5	426998	12.3511
5	424205	12.3437
5	419477	12.3138
5	412595	12.2522
5	403793	12.1957
5	395152	12.1737
5	387456	12.2613
5	379950	12.2383
5	372543	12.0934
5	365863	12.2647
5	361846	12.14
5	359446	12.1215
5	358266	12.2382
5	357922	12.3042
5	358478	12.1081
5	359804	11.8627
5	361778	12.0464
5	364166	12.2443
5	366635	12.3256
5	369221	12.2379
5	371887	12.1357
5	374644	12.0134
5	377411	12.036
5	380081	12.0492
5	382874	12.1045
5	385513	12.1897
5	388216	12.1075
5	390860	12.117
5	393507	12.2155
5	396295	12.0981
5	398885	12.1076
5	401713	12.0016
5	404275	12.0316
5	406777	12.1659
5	405196	12.1911
5	400840	12.1845
5	394255	12.1929
5	386039	12.1982
5	375430	12.2507
5	359933	12.2287
5	341114	12.4179
5	319918	12.4536
5	296294	12.4056
5	270494	12.2834
5	243278	12.3454
5	220417	12.4521
5	199127	12.3983
5	178746	11.9722
5	158541	11.6852
5	140109	11.731
5	125900	11.545
5	114489	11.5461
5	104696	11.4909
5	96028	11.1988
5	88295	11.0171
5	80784	10.8262
5	73614	11.1458
5	66695	11.7698
5	59941	11.1667
5	53474	9.27752
5	47199	9.35485
5	41057	9.58839
5	35071	9.01134
5	29323	8.26557
5	23781	8.20726
5	18809	8.46991
5	14365	5.30909
5	10539	4.26151
5	7321	4.20664
5	4663	4.14115
5	2668	4.04837
5	1247	3.49564
5	401	2.85274
5	50	1.70412
5	38	0.520161
5	34	0.4

4	86694	9.67986
4	104856	9.30214
4	124415	9.44368
4	145443	9.69169
4	167994	9.87957
4	191968	9.89934
4	217656	9.89108
4	241286	9.88432
4	259151	9.92542
4	279994	9.92283
4	301062	9.90046
4	321609	9.85952
4	341858	10.0161
4	360398	9.98117
4	376380	9.99188
4	390516	9.98407
4	403217	9.97016
4	414456	9.97487
4	421753	9.84435
4	425847	9.74943
4	427571	9.86345
4	426998	9.93001
4	424205	9.93247
4	419477	9.93554
4	412595	9.86195
4	403793	9.87529
4	395152	9.8631
4	387456	9.93354
4	379950	9.92589
4	372543	9.86638
4	365863	9.9821
4	361846	9.89439
4	359446	9.84615
4	358266	9.98287
4	357922	10.0322
4	358478	9.88822
4	359804	9.71185
4	361778	9.82161
4	364166	9.93823
4	366635	9.97682
4	369221	9.90407
4	371887	9.89214
4	374644	9.88204
4	377411	9.90643
4	380081	9.8334
4	382874	9.8474
4	385513	9.89147
4	388216	9.83044
4	390860	9.82879
4	393507	9.92316
4	396295	9.90799
4	398885	9.93739
4	401713	9.90058
4	404275	9.92766
4	406777	9.96904
4	405196	10.0139
4	400840	9.99883
4	394255	10.017
4	386039	10.0572
4	375430	10.0623
4	359933	10.055
4	341114	10.1654
4	319918	10.1404
4	296294	10.1055
4	270494	10.041
4	243278	10.0788
4	220417	10.1177
4	199127	10.122
4	178746	9.9444
4	158541	9.73333
4	140109	9.76152
4	125900	9.72899
4	114489	9.70261
4	104696	9.59982
4	96028	9.51941
4	88295	9.26689
4	80784	9.1705
4	73614	9.19717
4	66695	9.43007
4	59941	9.29961
4	53474	8.78988
4	47199	8.45405
4	41057	8.25573
4	35071	7.71119
4	29323	7.01229
4	23781	7.8678
4	18809	7.50315
4	14365	5.75588
4	10539	4.88963
4	7321	4.61921
4	4663	4.35351
4	2668	4.18723
4	1247	3.83466
4	401	3.30757
4	50	2.03053
4	38	0.6
4	34	0.463576

3	86694	7.41322
3	104856	7.40141
3	124415	7.43942
3	145443	7.53474
3	167994	7.60194
3	191968	7.59475
3	217656	7.58896
3	241286	7.64733
3	259151	7.62284
3	279994	7.63432
3	301062	7.6145
3	321609	7.62832
3	341858	7.68834
3	360398	7.62851
3	376380	7.61819
3	390516	7.58194
3	403217	7.58625
3	414456	7.60753
3	421753	7.54603
3	425847	7.44281
3	427571	7.52931
3	426998	7.58589
3	424205	7.57239
3	419477	7.56449
3	412595	7.52973
3	403793	7.51152
3	395152	7.48435
3	387456	7.52412
3	379950	7.5158
3	372543	7.51807
3	365863	7.57542
3	361846	7.51787
3	359446	7.63954
3	358266	7.66256
3	357922	7.72944
3	358478	7.63286
3	359804	7.48386
3	361778	7.56232
3	364166	7.58195
3	366635	7.62249
3	369221	7.7272
3	371887	7.7841
3	374644	7.59675
3	377411	7.60161
3	380081	7.54956
3	382874	7.55605
3	385513	7.57933
3	388216	7.52334
3	390860	7.61194
3	393507	7.68081
3	396295	7.61447
3	398885	7.63328
3	401713	7.59981
3	404275	7.59558
3	406777	7.5655
3	405196	7.59581
3	400840	7.60319
3	394255	7.61082
3	386039	7.75834
3	375430	7.72084
3	359933	7.68203
3	341114	7.70302
3	319918	7.75469
3	296294	7.72989
3	270494	7.72525
3	243278	7.80047
3	220417	7.82749
3	199127	7.86598
3	178746	7.62052
3	158541	7.56839
3	140109	7.58555
3	125900	7.64074
3	114489	7.68025
3	104696	7.69401
3	96028	7.63117
3	88295	7.46204
3	80784	7.41396
3	73614	7.41944
3	66695	7.47929
3	59941	7.47997
3	53474	6.54265
3	47199	6.66615
3	41057	7.01846
3	35071	6.97075
3	29323	6.42551
3	23781	6.39534
3	18809	6.58333
3	14365	5.40724
3	10539	4.96022
3	7321	4.3676
3	4663	3.87708
3	2668	3.79236
3	1247	3.31752
3	401	3.06024
3	50	1.965
3	38	0.597222
3	34	0.457516

2	86694	5.51707
2	104856	5.41032
2	124415	5.39978
2	145443	5.41895
2	167994	5.42358
2	191968	5.40704
2	217656	5.33999
2	241286	5.31246
2	259151	5.24463
2	279994	5.22672
2	301062	5.17092
2	321609	5.16552
2	341858	5.18155
2	360398	5.15373
2	376380	5.14335
2	390516	5.1677
2	403217	5.15822
2	414456	5.16941
2	421753	5.097
2	425847	5.04177
2	427571	5.09275
2	426998	5.12232
2	424205	5.13034
2	419477	5.19308
2	412595	5.29717
2	403793	5.26501
2	395152	5.27947
2	387456	5.33436
2	379950	5.36894
2	372543	5.34957
2	365863	5.37705
2	361846	5.3685
2	359446	5.40381
2	358266	5.43285
2	357922	5.42078
2	358478	5.34584
2	359804	5.28191
2	361778	5.35105
2	364166	5.36125
2	366635	5.42215
2	369221	5.42406
2	371887	5.40174
2	374644	5.35846
2	377411	5.38127
2	380081	5.32264
2	382874	5.30333
2	385513	5.31442
2	388216	5.28769
2	390860	5.32349
2	393507	5.35514
2	396295	5.31329
2	398885	5.35405
2	401713	5.29797
2	404275	5.34778
2	406777	5.33303
2	405196	5.37212
2	400840	5.39319
2	394255	5.37061
2	386039	5.41672
2	375430	5.44961
2	359933	5.42941
2	341114	5.42918
2	319918	5.49741
2	296294	5.45501
2	270494	5.5042
2	243278	5.53639
2	220417	5.53278
2	199127	5.50874
2	178746	5.26763
2	158541	5.36975
2	140109	5.4868
2	125900	5.52519
2	114489	5.39857
2	104696	5.4791
2	96028	5.53915
2	88295	5.40633
2	80784	5.33189
2	73614	5.31143
2	66695	5.32755
2	59941	5.50532
2	53474	5.48618
2	47199	5.37256
2	41057	5.33013
2	35071	5.29428
2	29323	5.27635
2	23781	5.22526
2	18809	5.2706
2	14365	5.28634
2	10539	5.16561
2	7321	5.00523
2	4663	5.11013
2	2668	4.93271
2	1247	4.57855
2	401	3.8285
2	50	2.3616
2	38	0.756598
2	34	0.564516

1	86694	2.8806
1	104856	2.84836
1	124415	2.78833
1	145443	2.77935
1	167994	2.77853
1	191968	2.76508
1	217656	2.742
1	241286	2.72397
1	259151	2.69468
1	279994	2.66829
1	301062	2.64693
1	321609	2.63127
1	341858	2.63233
1	360398	2.61015
1	376380	2.6139
1	390516	2.62324
1	403217	2.6268
1	414456	2.63366
1	421753	2.60175
1	425847	2.57373
1	427571	2.57907
1	426998	2.60043
1	424205	2.59514
1	419477	2.59258
1	412595	2.58574
1	403793	2.58207
1	395152	2.5713
1	387456	2.59478
1	379950	2.60685
1	372543	2.58621
1	365863	2.60663
1	361846	2.59617
1	359446	2.60429
1	358266	2.62797
1	357922	2.62926
1	358478	2.59968
1	359804	2.55993
1	361778	2.59646
1	364166	2.60089
1	366635	2.61032
1	369221	2.61224
1	371887	2.61187
1	374644	2.6113
1	377411	2.61205
1	380081	2.58366
1	382874	2.58186
1	385513	2.59586
1	388216	2.57136
1	390860	2.57581
1	393507	2.6019
1	396295	2.5803
1	398885	2.58887
1	401713	2.58021
1	404275	2.59233
1	406777	2.60127
1	405196	2.61022
1	400840	2.61108
1	394255	2.62074
1	386039	2.6368
1	375430	2.64571
1	359933	2.63477
1	341114	2.64136
1	319918	2.65678
1	296294	2.66909
1	270494	2.69146
1	243278	2.71728
1	220417	2.73857
1	199127	2.76374
1	178746	2.73957
1	158541	2.78201
1	140109	2.82285
1	125900	2.84028
1	114489	2.84764
1	104696	2.84635
1	96028	2.8532
1	88295	2.85499
1	80784	2.85647
1	73614	2.85485
1	66695	2.85567
1	59941	2.85581
1	53474	2.84878
1	47199	2.84563
1	41057	2.8486
1	35071	2.84878
1	29323	2.83675
1	23781	2.82954
1	18809	2.81336
1	14365	2.79639
1	10539	2.76417
1	7321	2.73476
1	4663	2.75557
1	2668	2.69157
1	1247	2.58243
1	401	2.39603
1	50	2.114
1	38	1.23445
1	34	0.945946
