Problem size with different number of CPUs using function optimization
THREADS	INITIAL_DEPTH	MTPS	TIMESTEPS	TIMESTEP_SIZE	SECONDS_FOR_SIMULATION	AVERAGE_TRIANGLES	AVERAGE_PARTITIONS
80	42.1596	100	0.000986073	45.4867	1.9177e+07	1162.24
79	42.0514	100	0.000986073	45.6037	1.9177e+07	1162.24
78	39.1826	100	0.000986073	48.9426	1.9177e+07	1162.24
77	42.2282	100	0.000986073	45.4127	1.9177e+07	1162.24
76	42.3782	100	0.000986073	45.2521	1.9177e+07	1162.24
75	31.4675	100	0.000986073	60.9422	1.9177e+07	1162.24
74	27.4723	100	0.000986073	69.8049	1.9177e+07	1162.24
73	26.1496	100	0.000986073	73.3356	1.9177e+07	1162.24
72	25.8904	100	0.000986073	74.0698	1.9177e+07	1162.24
71	25.4751	100	0.000986073	75.2774	1.9177e+07	1162.24
70	25.1437	100	0.000986073	76.2696	1.9177e+07	1162.24
69	25.7878	100	0.000986073	74.3647	1.9177e+07	1162.24
68	25.9786	100	0.000986073	73.8183	1.9177e+07	1162.24
67	25.0103	100	0.000986073	76.6763	1.9177e+07	1162.24
66	25.2682	100	0.000986073	75.8938	1.9177e+07	1162.24
65	25.2409	100	0.000986073	75.976	1.9177e+07	1162.24
64	26.1347	100	0.000986073	73.3777	1.9177e+07	1162.24
63	26.1987	100	0.000986073	73.1983	1.9177e+07	1162.24
62	25.9264	100	0.000986073	73.9671	1.9177e+07	1162.24
61	26.2403	100	0.000986073	73.0823	1.9177e+07	1162.24
60	25.9843	100	0.000986073	73.8024	1.9177e+07	1162.24
59	26.2263	100	0.000986073	73.1211	1.9177e+07	1162.24
58	25.0336	100	0.000986073	76.6049	1.9177e+07	1162.24
57	25.5327	100	0.000986073	75.1076	1.9177e+07	1162.24
56	26.3872	100	0.000986073	72.6753	1.9177e+07	1162.24
55	26.271	100	0.000986073	72.9969	1.9177e+07	1162.24
54	26.6211	100	0.000986073	72.0369	1.9177e+07	1162.24
53	25.9559	100	0.000986073	73.8829	1.9177e+07	1162.24
52	26.6577	100	0.000986073	71.9379	1.9177e+07	1162.24
51	25.6953	100	0.000986073	74.6323	1.9177e+07	1162.24
50	25.7763	100	0.000986073	74.3978	1.9177e+07	1162.24
49	25.3784	100	0.000986073	75.5644	1.9177e+07	1162.24
48	26.607	100	0.000986073	72.0749	1.9177e+07	1162.24
47	26.7921	100	0.000986073	71.577	1.9177e+07	1162.24
46	26.9191	100	0.000986073	71.2393	1.9177e+07	1162.24
45	26.8248	100	0.000986073	71.4899	1.9177e+07	1162.24
44	26.7859	100	0.000986073	71.5936	1.9177e+07	1162.24
43	27.0923	100	0.000986073	70.7839	1.9177e+07	1162.24
42	25.6889	100	0.000986073	74.6509	1.9177e+07	1162.24
41	25.6469	100	0.000986073	74.7731	1.9177e+07	1162.24
40	27.2131	100	0.000986073	70.4698	1.9177e+07	1162.24
39	27.2526	100	0.000986073	70.3677	1.9177e+07	1162.24
38	27.2287	100	0.000986073	70.4292	1.9177e+07	1162.24
37	27.0712	100	0.000986073	70.8391	1.9177e+07	1162.24
36	27.1611	100	0.000986073	70.6047	1.9177e+07	1162.24
35	25.9645	100	0.000986073	73.8585	1.9177e+07	1162.24
34	25.7725	100	0.000986073	74.4087	1.9177e+07	1162.24
33	25.8147	100	0.000986073	74.2872	1.9177e+07	1162.24
32	27.1304	100	0.000986073	70.6846	1.9177e+07	1162.24
31	27.2492	100	0.000986073	70.3764	1.9177e+07	1162.24
30	27.1324	100	0.000986073	70.6792	1.9177e+07	1162.24
29	27.039	100	0.000986073	70.9234	1.9177e+07	1162.24
28	27.1602	100	0.000986073	70.6069	1.9177e+07	1162.24
27	27.0587	100	0.000986073	70.8718	1.9177e+07	1162.24
26	27.1069	100	0.000986073	70.7459	1.9177e+07	1162.24
25	26.875	100	0.000986073	71.3563	1.9177e+07	1162.24
24	26.9033	100	0.000986073	71.2813	1.9177e+07	1162.24
23	26.8675	100	0.000986073	71.3762	1.9177e+07	1162.24
22	26.7203	100	0.000986073	71.7694	1.9177e+07	1162.24
21	26.5519	100	0.000986073	72.2245	1.9177e+07	1162.24
20	27.3002	100	0.000986073	70.2449	1.9177e+07	1162.24
19	26.6565	100	0.000986073	71.9411	1.9177e+07	1162.24
18	26.4846	100	0.000986073	72.408	1.9177e+07	1162.24
17	26.6158	100	0.000986073	72.0513	1.9177e+07	1162.24
16	27.5593	100	0.000986073	69.5845	1.9177e+07	1162.24
15	27.4636	100	0.000986073	69.8268	1.9177e+07	1162.24
14	26.3232	100	0.000986073	72.852	1.9177e+07	1162.24
13	25.7417	100	0.000986073	74.4978	1.9177e+07	1162.24
12	25.4253	100	0.000986073	75.4248	1.9177e+07	1162.24
11	25.2549	100	0.000986073	75.9336	1.9177e+07	1162.24
10	23.9409	100	0.000986073	80.1013	1.9177e+07	1162.24
9	23.7024	100	0.000986073	80.9074	1.9177e+07	1162.24
8	21.6168	100	0.000986073	88.7134	1.9177e+07	1162.24
7	19.2651	100	0.000986073	99.5425	1.9177e+07	1162.24
6	16.7777	100	0.000986073	114.3	1.9177e+07	1162.24
5	14.2072	100	0.000986073	134.981	1.9177e+07	1162.24
4	11.4715	100	0.000986073	167.171	1.9177e+07	1162.24
3	8.77793	100	0.000986073	218.468	1.9177e+07	1162.24
2	5.89582	100	0.000986073	325.264	1.9177e+07	1162.24
1	3.04413	100	0.000986073	629.966	1.9177e+07	1162.24
