4.700000000000000000e+01,-5.578786658588796854e-05
1.070000000000000000e+02,-1.486291619585244916e-03
1.670000000000000000e+02,8.340957992913899943e-05
2.270000000000000000e+02,-3.465328427409986034e-04
2.870000000000000000e+02,-1.775967574758396950e-03
3.469999999999999432e+02,5.795256575765961315e-03
4.070000000000000000e+02,-1.163270932738669217e-02
4.670000000000000000e+02,8.940285633798339404e-03
5.270000000000000000e+02,-4.485607772039656993e-03
5.870000000000000000e+02,-3.191023895851685666e-02
5.870000000000000000e+02,7.089761041243036743e-03
5.870000000000000000e+02,2.308976104177418165e-02
5.870000000000000000e+02,-1.499102389589097584e-01
6.470000000000000000e+02,4.166654248092527268e-02
6.470000000000000000e+02,2.856665424815219012e-01
6.470000000000000000e+02,-2.363334575184126152e-01
6.470000000000000000e+02,-2.313334575192129705e-01
6.470000000000000000e+02,3.496665424809179967e-01
7.070000000000000000e+02,5.924488676373584894e-02
7.070000000000000000e+02,2.532448867641505785e-01
7.070000000000000000e+02,-4.875511323643877404e-02
7.070000000000000000e+02,-1.275511323638056638e-02
7.070000000000000000e+02,4.624488676381588448e-02
7.670000000000000000e+02,-1.717505611122760456e-02
7.670000000000000000e+02,-3.175056111103913281e-03
7.670000000000000000e+02,2.582494388843770139e-02
7.670000000000000000e+02,-2.175056111809681170e-03
7.670000000000000000e+02,-8.817505611114029307e-02
8.270000000000000000e+02,-9.359313635559374234e-02
8.270000000000000000e+02,-5.659313635624130256e-02
8.870000000000000000e+02,3.799079557666118490e-02
9.470000000000000000e+02,-8.423111016782058869e-03
1.007000000000000000e+03,1.916529290610924363e-02
1.067000000000000000e+03,-2.924384387733880430e-02
1.127000000000000000e+03,1.934962710492982296e-02
1.187000000000000000e+03,-2.305414594775356818e-02
1.247000000000000000e+03,9.544984830426983535e-03
1.307000000000000000e+03,2.514716699806740507e-02
1.366999999999999773e+03,-9.247452225281449500e-03
1.426999999999999773e+03,2.361274032409710344e-03
1.487000000000000000e+03,-2.902650771648040973e-02
1.547000000000000000e+03,-2.341065133259689901e-02
1.607000000000000000e+03,-5.791011063593032304e-03
1.667000000000000000e+03,7.832558454538229853e-03
1.727000000000000000e+03,-1.253979783359682187e-02
1.787000000000000000e+03,4.092064604265033267e-03
1.847000000000000000e+03,1.072828986252716277e-02
1.907000000000000000e+03,-1.463097841042326763e-02
1.967000000000000000e+03,-1.298559701808699174e-02
2.027000000000000000e+03,-1.633542324361769715e-02
2.087000000000000000e+03,7.319685161746747326e-03
2.147000000000000000e+03,-6.020130056640482508e-03
2.207000000000000000e+03,-8.354727651749271899e-03
2.267000000000000000e+03,-1.268396689829387469e-02
2.327000000000000000e+03,1.899229240461863810e-02
2.387000000000000000e+03,-1.732581008582201321e-02
2.447000000000000000e+03,-1.363813526313606417e-02
2.507000000000000000e+03,-9.445445784876937978e-04
2.567000000000000000e+03,-2.244900068035349250e-03
2.627000000000000000e+03,-9.539064343698555604e-03
2.687000000000000455e+03,1.173099374682351481e-03
2.747000000000000455e+03,-1.510827272977621760e-02
2.807000000000000455e+03,-3.383045102964388207e-03
2.867000000000000455e+03,-3.651082818578288425e-03
2.927000000000000455e+03,-1.091225159325404093e-02
2.987000000000000455e+03,-1.116641779935889645e-02
3.047000000000000455e+03,-3.413448469473223668e-03
3.107000000000000455e+03,-1.265321131268137833e-02
3.167000000000000455e+03,-6.885574727675702889e-03
3.227000000000000455e+03,-3.110407806161674671e-03
3.287000000000000455e+03,-1.332758035005099373e-02
3.347000000000000455e+03,-7.536962879385100678e-03
3.406999999999999545e+03,-5.738426639254612383e-03
3.466999999999999545e+03,-6.931843621714506298e-03
3.526999999999999545e+03,-1.711708656421251362e-02
3.586999999999999545e+03,-9.294028965086909011e-03
3.646999999999999545e+03,-8.462545094516826794e-03
3.706999999999999545e+03,-1.362250999773095828e-02
3.766999999999999545e+03,-6.773799523216439411e-03
3.826999999999999545e+03,-1.191629031109187054e-02
3.886999999999999545e+03,-4.049859810947964434e-03
3.946999999999999545e+03,-9.174386303129722364e-03
4.006999999999999545e+03,-1.028974889322853414e-02
4.066999999999999545e+03,-1.439582752664136933e-02
4.127000000000000000e+03,-6.492503001027216669e-03
4.187000000000000000e+03,-1.257965697277541040e-02
4.247000000000000000e+03,-9.657171971412026323e-03
4.307000000000000000e+03,-9.724931400342029519e-03
4.367000000000000000e+03,-8.782819555563037284e-03
4.427000000000000000e+03,-1.583072163430188084e-02
4.487000000000000000e+03,-6.868523732009634841e-03
4.547000000000000000e+03,-1.789611286676517921e-02
4.607000000000000000e+03,-7.913376975011487957e-03
4.667000000000000000e+03,-9.920204939589893911e-03
4.727000000000000000e+03,-1.191648657459154492e-02
4.787000000000000000e+03,-1.390211265425023157e-02
4.847000000000000000e+03,-1.087697490947903134e-02
4.907000000000000000e+03,-1.384096603760553990e-02
4.967000000000000000e+03,-1.279397972393780947e-02
5.027000000000000000e+03,-1.473591062676860020e-02
5.087000000000000000e+03,-1.266665441289660521e-02
5.147000000000000000e+03,-1.358610773968393914e-02
5.207000000000000000e+03,-1.549416828129324131e-02
5.267000000000000000e+03,-1.439073473557073157e-02
5.327000000000000000e+03,-1.327570681860379409e-02
5.387000000000000000e+03,-1.414898528855701443e-02
5.447000000000000000e+03,-1.801047194203420077e-02
5.507000000000000000e+03,-1.286006963164254557e-02
5.567000000000000000e+03,-1.469768226615997264e-02
5.627000000000000000e+03,-1.652321481651597423e-02
5.687000000000000000e+03,-1.333657333452720195e-02
5.747000000000000000e+03,-1.613766494574520038e-02
5.807000000000000000e+03,-1.592639786667859880e-02
5.867000000000000000e+03,-1.570268141131236916e-02
5.927000000000000000e+03,-1.546642599259939743e-02
5.987000000000000000e+03,-2.021754313591372920e-02
6.047000000000000000e+03,-1.095594547859946033e-02
6.107000000000000000e+03,-2.368154678788414458e-02
6.167000000000000909e+03,-1.639426195470150560e-02
6.227000000000000909e+03,-1.509400700979313115e-02
6.287000000000000909e+03,-1.278069912223145366e-02
6.347000000000000909e+03,-2.045425661708577536e-02
6.407000000000000909e+03,-1.911459896928136004e-02
6.467000000000000909e+03,-2.276164682098169578e-02
6.527000000000000909e+03,-2.039532197704829741e-02
6.587000000000000909e+03,-2.101554741966538131e-02
6.647000000000000909e+03,-2.062224730889283819e-02
6.707000000000000909e+03,-1.521534699168114457e-02
6.767000000000000909e+03,-1.879477300917642424e-02
6.827000000000000909e+03,-1.936045309048495255e-02
6.887000000000000909e+03,-2.691231617791345343e-02
6.947000000000000909e+03,-1.445029241767770145e-02
7.007000000000000909e+03,-2.097431316815345781e-02
7.067000000000000909e+03,-2.148431100522429915e-02
7.127000000000000909e+03,-1.898021973374852678e-02
7.187000000000000909e+03,-1.946197437791852280e-02
7.247000000000000909e+03,-1.892951120407815324e-02
7.307000000000000909e+03,-1.938276771488744998e-02
7.367000000000000909e+03,-2.082168265678774333e-02
7.427000000000000909e+03,-2.424619601879385300e-02
7.487000000000000909e+03,-2.165624904591822997e-02
7.547000000000000909e+03,-1.905178423930919962e-02
7.607000000000000909e+03,-2.243274536067474401e-02
7.667000000000000909e+03,-2.179907743902731454e-02
7.727000000000000909e+03,-2.215072676699492149e-02
7.787000000000000909e+03,-1.948764091412158450e-02
7.847000000000000909e+03,-2.380976872427709168e-02
7.907000000000000909e+03,-2.111706032974325353e-02
7.967000000000000909e+03,-2.140946713370794896e-02
8.027000000000000909e+03,-1.868694183758634608e-02
8.087000000000000909e+03,-2.094943843439978082e-02
8.147000000000000909e+03,-2.219691220489039551e-02
8.207000000000000000e+03,-2.142931972957740072e-02
8.267000000000000000e+03,-2.064661889471608447e-02
8.327000000000000000e+03,-2.084876888875442091e-02
8.387000000000000000e+03,-1.803573020151816308e-02
8.447000000000000000e+03,-2.320746463919931557e-02
8.507000000000000000e+03,-1.736393531882640673e-02
8.567000000000000000e+03,-1.850510667009075405e-02
8.627000000000000000e+03,-2.163094444222224411e-02
8.687000000000000000e+03,-1.974141570462961681e-02
8.747000000000000000e+03,-2.183648884511057986e-02
8.807000000000000000e+03,-1.891613358748145401e-02
8.867000000000000000e+03,-2.098032096364477184e-02
8.927000000000000000e+03,-2.102902334809186868e-02
8.987000000000000000e+03,-2.206221444248512853e-02
9.047000000000000000e+03,-2.007986928038008045e-02
9.107000000000000000e+03,-2.008196422502805945e-02
9.167000000000000000e+03,-2.206847697743796743e-02
9.227000000000000000e+03,-2.003938657890103059e-02
9.287000000000000000e+03,-1.899467339899274521e-02
9.347000000000000000e+03,-2.093431916000554338e-02
9.407000000000000000e+03,-2.185830691541923443e-02
9.467000000000000000e+03,-1.676662105910509126e-02
9.527000000000000000e+03,-1.965924733394786017e-02
9.587000000000000000e+03,-2.053617281762853963e-02
9.647000000000000000e+03,-1.939738593682704959e-02
9.707000000000000000e+03,-2.124287646165612387e-02
9.767000000000000000e+03,-2.207263550735660829e-02
9.827000000000000000e+03,-1.988665553199098213e-02
9.887000000000000000e+03,-2.268493034262064612e-02
9.947000000000000000e+03,-2.046745508596359286e-02
1.000700000000000000e+04,-2.223422626047977246e-02
1.006700000000000000e+04,-1.998524170630844310e-02
1.012700000000000000e+04,-2.072050060996843968e-02
1.018700000000000000e+04,-2.044000350451824488e-02
1.024700000000000000e+04,-1.914375226533593377e-02
1.030700000000000000e+04,-1.983175011173443636e-02
1.036700000000000000e+04,-2.050400161169818603e-02
1.042700000000000000e+04,-1.916051266562135424e-02
1.048700000000000000e+04,-2.080129052956181113e-02
1.054700000000000000e+04,-1.942634379247465404e-02
1.060700000000000000e+04,-2.303568238312436733e-02
1.066700000000000000e+04,-2.062931757245678455e-02
1.072700000000000000e+04,-2.220726197265321389e-02
1.078700000000000000e+04,-2.176952952231658855e-02
1.084700000000000000e+04,-2.331613550541078439e-02
1.090700000000000000e+04,-2.284709653395111673e-02
1.096700000000000000e+04,-2.436243055308295880e-02
1.102700000000000000e+04,-2.386215684236958623e-02
1.108700000000000000e+04,-2.534629600449989084e-02
1.114700000000000000e+04,-2.381486997182946652e-02
1.120700000000000000e+04,-2.126790200054529123e-02
1.126700000000000000e+04,-1.470541666913049994e-02
1.132700000000000000e+04,-3.127439877061988227e-03
1.138700000000000000e+04,1.646600115782348439e-02
1.144700000000000000e+04,4.107487790133745875e-02
1.150700000000000000e+04,7.769916051074687857e-02
1.150700000000000000e+04,9.269916051107429666e-02
1.156700000000000000e+04,1.213388178293826059e-01
1.156700000000000000e+04,1.043388178295572288e-01
1.156700000000000000e+04,1.153388178290697397e-01
1.156700000000000000e+04,1.263388178294917452e-01
1.156700000000000000e+04,1.383388178292079829e-01
1.162700000000000000e+04,1.639938173912014463e-01
1.162700000000000000e+04,1.479938173915797961e-01
1.162700000000000000e+04,1.589938173910923069e-01
1.162700000000000000e+04,1.699938173915143125e-01
1.162700000000000000e+04,1.779938173913251376e-01
1.168700000000000000e+04,1.986641254316054983e-01
1.168700000000000000e+04,1.876641254311834928e-01
1.168700000000000000e+04,1.966641254311980447e-01
1.168700000000000000e+04,2.026641254315109109e-01
1.168700000000000000e+04,2.076641254316200502e-01
1.174700000000000000e+04,2.143497068727810984e-01
1.174700000000000000e+04,2.143497068727810984e-01
1.174700000000000000e+04,2.153497068729848252e-01
1.174700000000000000e+04,2.143497068727810984e-01
1.180700000000000000e+04,2.080505253479714156e-01
1.186700000000000000e+04,1.857665431971327052e-01
1.192700000000000000e+04,1.474977214538739645e-01
1.198700000000000000e+04,1.052440198764088564e-01
1.204700000000000000e+04,6.900539693015161902e-02
1.210700000000000000e+04,4.078180979377066251e-02
1.216700000000000000e+04,2.357321437921200413e-02
1.222700000000000000e+04,2.037956531421514228e-02
1.228700000000000000e+04,2.920081596039381111e-02
1.234700000000000000e+04,4.403691841071122326e-02
1.240700000000000000e+04,4.488782348744280171e-02
1.246700000000000000e+04,3.375348076497175498e-02
1.252700000000000000e+04,2.063383855420397595e-02
1.258700000000000000e+04,3.052884391854604473e-02
1.264700000000000000e+04,5.243844267624808708e-02
1.270700000000000000e+04,6.836257940085488372e-02
1.276700000000000000e+04,6.330119742779061198e-02
1.282700000000000000e+04,5.525423886319913436e-02
1.288700000000000000e+04,6.022164458318002289e-02
1.294700000000000000e+04,5.920335423888900550e-02
1.300700000000000000e+04,3.219930626255518291e-02
1.306700000000000000e+04,4.209437879580946174e-03
1.312700000000000000e+04,1.023368509868305409e-02
1.318700000000000000e+04,2.427198273016983876e-02
1.324700000000000000e+04,1.324264383583795279e-03
1.330700000000000000e+04,-5.860953752016939688e-02
1.336700000000000000e+04,-7.652949174735113047e-02
1.342700000000000000e+04,-4.443566825557354605e-02
1.348700000000000000e+04,-1.432813816609268542e-02
1.354700000000000000e+04,-2.020697377520264126e-02
1.360700000000000000e+04,-2.407224854050582508e-02
1.366700000000000000e+04,-1.192403708864731016e-02
1.372700000000000000e+04,-1.676241518543974962e-02
1.378700000000000000e+04,-3.558745975260535488e-02
1.384700000000000000e+04,-3.239924884928768734e-02
1.390700000000000000e+04,-3.119786166644189507e-02
1.396700000000000000e+04,-6.898337852999247843e-02
1.402700000000000000e+04,-1.137558808777612285e-01
1.408700000000000182e+04,-1.115154512744993553e-01
1.414700000000000000e+04,-7.726217338131391443e-02
1.420700000000000182e+04,-7.199613196644349955e-02
1.426700000000000000e+04,-9.371741290124191437e-02
1.432700000000000182e+04,-1.084261031319329049e-01
1.438700000000000000e+04,-1.081222906996117672e-01
1.444700000000000182e+04,-8.580606470786733553e-02
1.450700000000000000e+04,-4.647751533684640890e-02
1.456700000000000182e+04,-1.413673382285196567e-02
1.462700000000000000e+04,-8.783812461842899211e-03
1.468700000000000182e+04,-2.341884458382992307e-02
1.474700000000000000e+04,-4.404192457332101185e-02
1.480700000000000182e+04,-6.865314783772191731e-02
1.486700000000000000e+04,-5.625261080695054261e-02
1.492700000000000182e+04,-2.284041093389532762e-02
1.498700000000000000e+04,-4.141664667258737609e-02
1.504700000000000182e+04,-8.298141748946363805e-02
1.510700000000000000e+04,-6.153482383706432302e-02
1.516700000000000182e+04,-2.207696715231577400e-02
1.522700000000000000e+04,-4.460794985425309278e-02
1.528700000000000182e+04,-9.812787533246591920e-02
1.534700000000000000e+04,-9.763684793506399728e-02
1.540700000000000182e+04,-4.613497296668356284e-02
1.546700000000000000e+04,-3.062235667584900511e-02
1.552700000000000182e+04,-4.109910625084012281e-02
1.558700000000000000e+04,-3.056532980917836539e-02
1.564700000000000182e+04,-6.102113638553419150e-02
1.570700000000000000e+04,-9.546663593482662691e-02
1.576700000000000182e+04,-6.690193930990062654e-02
1.582700000000000000e+04,-7.032715825607738225e-02
1.588700000000000182e+04,-9.774240541446488351e-02
1.594700000000000000e+04,-5.814779429965710733e-02
1.600700000000000182e+04,-4.154343929621973075e-02
1.606700000000000000e+04,-6.292945564473484410e-02
1.612700000000000182e+04,-4.930595945188542828e-02
1.618700000000000000e+04,-4.867306765117973555e-02
1.624700000000000182e+04,-4.803089801953319693e-02
1.630700000000000000e+04,-3.637956915918039158e-02
1.636700000000000182e+04,-3.071920047750609228e-02
1.642700000000000000e+04,-8.049912203205167316e-03
1.648700000000000000e+04,1.262817464157706127e-02
1.654700000000000000e+04,1.131493825232610106e-02
1.660700000000000000e+04,2.101025604224560084e-02
1.666700000000000000e+04,4.571400465101760346e-02
1.672700000000000000e+04,4.142605996185011463e-02
1.678700000000000000e+04,5.414629710594454082e-02
1.684700000000000000e+04,7.087459047124866629e-02
1.690700000000000000e+04,2.561081371732143452e-02
1.696700000000000000e+04,9.354839778097812086e-03
1.702700000000000000e+04,8.106540880362445023e-03
1.708700000000000000e+04,8.657885382490349002e-04
1.714700000000000000e+04,4.632453578778950032e-03
1.720700000000000000e+04,-2.559359385213610949e-02
1.726700000000000000e+04,-2.481248428648541449e-02
1.732700000000000000e+04,-1.502434891699522268e-02
1.738700000000000000e+04,-1.522931959425477544e-02
1.744700000000000000e+04,7.572471193270757794e-03
1.750700000000000000e+04,-6.619109686653246172e-03
1.756700000000000000e+04,7.195804025286633987e-03
1.762700000000000000e+04,1.201707795644324506e-02
1.768700000000000000e+04,-3.155422853524214588e-03
1.774700000000000000e+04,1.167816603174287593e-02
1.780700000000000000e+04,1.551770847163425060e-02
1.786700000000000000e+04,3.336306774781405693e-02
1.792700000000000000e+04,3.521410658231616253e-02
1.798700000000000000e+04,2.407068714182969416e-02
1.804700000000000000e+04,3.993267105579434428e-02
1.810700000000000000e+04,3.079991941558546387e-02
1.816700000000000000e+04,3.367229279774619499e-02
1.822700000000000000e+04,5.054965126510069240e-02
1.828700000000000000e+04,3.443185438300133683e-02
1.834700000000000000e+04,2.331876122025278164e-02
1.840700000000000000e+04,5.210230376178515144e-03
1.846700000000000000e+04,1.210611997066735057e-02
1.852700000000000000e+04,3.100628767515445361e-02
1.858700000000000000e+04,2.491059071235213196e-02
1.864700000000000000e+04,1.781888586265267804e-02
1.870700000000000000e+04,-1.326897051876585465e-02
1.876700000000000000e+04,-1.135312248061381979e-02
1.882700000000000000e+04,-1.743371449356345693e-02
1.888700000000000000e+04,-3.051089140535623301e-02
1.894700000000000000e+04,-4.758479845804686192e-02
1.900700000000000000e+04,-6.965558126103132963e-02
1.906700000000000000e+04,-6.772338578866765602e-02
1.912700000000000000e+04,-7.778835835779318586e-02
1.918700000000000000e+04,-5.485064562981278868e-02
1.924700000000000000e+04,-4.591039460228785174e-02
1.930700000000000000e+04,-3.096775256835826440e-02
1.936700000000000000e+04,-1.002286715811351314e-02
1.942700000000000000e+04,-1.207588627039513085e-02
1.948700000000000000e+04,1.187304189716087421e-02
1.954700000000000000e+04,6.823768877438851632e-03
1.960700000000000000e+04,7.776145936986722518e-03
1.966700000000000000e+04,-2.426997590373503044e-02
1.972700000000000000e+04,-3.931474587534466991e-02
1.978700000000000000e+04,-1.635831341809534933e-02
1.984700000000000000e+04,-6.400828214282228146e-03
1.990700000000000000e+04,5.557559862609195989e-03
1.996700000000000000e+04,-1.048329926743463147e-02
2.002700000000000000e+04,-1.152355586327757919e-02
2.008700000000000000e+04,-2.256336035679851193e-02
2.014700000000000000e+04,-2.760286335069395136e-02
2.020700000000000000e+04,-4.064221559110592352e-02
2.026700000000000000e+04,-1.368156797252595425e-02
2.032700000000000000e+04,-2.872107151597447228e-02
2.038700000000000000e+04,-3.476087735725741368e-02
2.044700000000000000e+04,-2.980113674493622966e-02
2.050700000000000000e+04,-4.684200102201430127e-02
2.056700000000000000e+04,-3.988362161635450320e-02
2.062700000000000000e+04,-2.992615003495302517e-02
2.068700000000000000e+04,-4.296973783857538365e-02
2.074700000000000000e+04,-3.901453664457221748e-02
2.080700000000000000e+04,-2.406069810967892408e-02
2.086700000000000000e+04,-1.210837392591201933e-02
2.092700000000000000e+04,-2.157715794965042733e-03
2.098700000000000000e+04,-1.520887542756099720e-02
2.104700000000000000e+04,-1.726200453686033143e-02
2.110700000000000000e+04,-2.731725481680769008e-02
2.116700000000000000e+04,-3.237477793481957633e-02
2.122700000000000000e+04,-8.434725518782215659e-03
2.128700000000000000e+04,-5.497249149811977986e-03
2.134699999999999636e+04,-9.562500356878445018e-03
2.140700000000000000e+04,1.836936941799649503e-02
2.146700000000000000e+04,1.129820879941689782e-02
2.152700000000000000e+04,1.322386651008855551e-02
2.158699999999999636e+04,1.214619137499539647e-02
2.164700000000000000e+04,3.806503233863622881e-02
2.170700000000000000e+04,2.098023846792784752e-02
2.176700000000000000e+04,8.891658965694659855e-03
2.182699999999999636e+04,9.799143187592562754e-03
2.188700000000000000e+04,-1.529745936204562895e-02
2.194700000000000000e+04,-4.398298996420635376e-03
2.200700000000000000e+04,4.496474144616513513e-03
2.206699999999999636e+04,1.386710114275047090e-03
2.212700000000000000e+04,3.272259175901126582e-03
2.218700000000000000e+04,2.152971788746071979e-03
2.224700000000000000e+04,5.028698656133201439e-03
2.230699999999999636e+04,-1.110070929553330643e-02
2.236700000000000000e+04,-2.235400887911964674e-03
2.242700000000000000e+04,-3.375524685907294042e-03
2.248700000000000000e+04,-1.552122898920060834e-02
2.254699999999999636e+04,-1.672661816883191932e-03
2.260700000000000000e+04,1.817002910229348345e-02
2.266700000000000000e+04,3.300669633517827606e-02
2.272700000000000000e+04,1.683719277025375050e-02
2.278699999999999636e+04,1.766137160575453890e-02
2.284700000000000000e+04,2.647908637482032645e-02
2.290700000000000000e+04,4.029019096196861938e-02
2.296700000000000000e+04,3.609453959143138491e-02
2.302699999999999636e+04,2.489198686726012966e-02
2.308700000000000000e+04,1.468238775578356581e-02
2.314700000000000000e+04,1.646559761502430774e-02
2.320700000000000000e+04,9.241472193934896495e-03
2.326699999999999636e+04,1.009867651191598270e-03
2.332700000000000000e+04,-1.022935943547054194e-02
2.338700000000000000e+04,-1.147635206598351942e-02
2.344700000000000000e+04,-7.731252805569965858e-03
2.350699999999999636e+04,-5.994203765112615656e-03
2.356700000000000000e+04,2.734653398874797858e-03
2.362700000000000000e+04,7.455177502379228827e-03
2.368700000000000000e+04,-1.583277217014256166e-02
2.374699999999999636e+04,-1.212933583428821294e-02
2.380700000000000000e+04,-3.343465321449912153e-02
2.386700000000000000e+04,-1.674886351975146681e-02
2.392700000000000000e+04,-2.907210545072302921e-02
2.398699999999999636e+04,-2.540451716595271137e-02
2.404700000000000000e+04,-1.474623629746929510e-02
2.410700000000000000e+04,7.902600080342381261e-03
2.416700000000000000e+04,-1.145814455230720341e-02
2.422699999999999636e+04,-1.882860614387027454e-02
2.428700000000000000e+04,-1.720892007051588735e-02
2.434700000000000000e+04,-1.259922111148625845e-02
2.440700000000000000e+04,-4.999643452720192727e-03
2.446699999999999636e+04,-8.410320676375704352e-03
2.452700000000000000e+04,3.168614261085167527e-03
2.458700000000000000e+04,-6.262970980060345028e-03
2.464700000000000000e+04,-1.270520809066510992e-02
2.470699999999999636e+04,-1.815822812659462215e-02
2.476700000000000000e+04,-1.962216148513107328e-02
2.482700000000000000e+04,-2.209713789852685295e-02
2.488700000000000000e+04,-1.458328642274864251e-02
2.494699999999999636e+04,-2.208073543170030462e-02
2.500700000000000000e+04,-2.758961261224612826e-02
2.506700000000000000e+04,-2.611004493974178331e-02
2.512700000000000000e+04,-2.264215868672181387e-02
2.518699999999999636e+04,-1.918607940206129570e-02
2.524700000000000000e+04,-1.374193190531514119e-02
2.530700000000000000e+04,-1.230984027915837942e-02
2.536700000000000000e+04,-6.889927861266187392e-03
2.542699999999999636e+04,-9.482317226684244815e-03
2.548700000000000000e+04,-2.808713019294373225e-02
2.554700000000000000e+04,-3.370448780424339930e-02
2.560700000000000000e+04,-3.033451031387812691e-02
2.566699999999999636e+04,-7.977317195582145359e-03
2.572700000000000000e+04,-1.163302711574942805e-02
2.578700000000000000e+04,-2.130175793718080968e-02
2.584700000000000000e+04,-1.198362670766073279e-02
2.590699999999999636e+04,-1.678749639722809661e-03
2.596700000000000000e+04,1.461275787551130634e-02
2.602700000000000000e+04,1.389078128522669431e-02
2.608700000000000000e+04,3.155206907649699133e-03
2.614699999999999636e+04,2.640592189345625229e-02
2.620700000000000000e+04,4.664281427812966285e-02
2.626700000000000000e+04,3.986577295654569753e-02
2.632700000000000000e+04,2.607468772021093173e-02
2.638699999999999636e+04,2.026944923545670463e-02
2.644700000000000000e+04,1.244994908120133914e-02
2.650700000000000000e+04,-4.383920271720853634e-03
2.656700000000000000e+04,-8.232265426158846822e-03
2.662699999999999636e+04,-7.095192076121747959e-03
2.668700000000000000e+04,7.027195020782528445e-03
2.674700000000000000e+04,1.813479204156465130e-02
2.680700000000000000e+04,1.922749610548635246e-02
2.686699999999999636e+04,2.305205285665579140e-03
2.692700000000000000e+04,-1.263218139229138615e-02
2.698700000000000000e+04,-7.584763932754867710e-03
2.704700000000000000e+04,6.447358635341515765e-03
2.710699999999999636e+04,2.046408825481194071e-02
2.716700000000000000e+04,1.946532786132593174e-02
2.722700000000000000e+04,2.045098138660250697e-02
2.728700000000000000e+04,2.642095375722419703e-02
2.734699999999999636e+04,3.137515090838860488e-02
2.740700000000000000e+04,2.931347979483689414e-02
2.746700000000000000e+04,2.923584838845272316e-02
2.752700000000000000e+04,2.814216568822303088e-02
2.758699999999999636e+04,2.403234172925294843e-02
2.764700000000000000e+04,2.690628758773527807e-02
2.770700000000000000e+04,2.576391538696043426e-02
2.776700000000000000e+04,2.860513830000854796e-02
2.782699999999999636e+04,2.842987056556012249e-02
2.788700000000000000e+04,2.923802748682646779e-02
2.794700000000000000e+04,2.802952543788705952e-02
2.800700000000000000e+04,1.980428186925564660e-02
2.806699999999999636e+04,2.556221531722258078e-02
2.812700000000000000e+04,2.630324540950823575e-02
2.818700000000000000e+04,1.902729286939575104e-02
2.824700000000000000e+04,7.734279521173448302e-03
2.830700000000000000e+04,2.442412829623208381e-02
2.836700000000000000e+04,1.609676323369058082e-02
2.842700000000000000e+04,1.875210950038308511e-02
2.848700000000000000e+04,2.739009338074538391e-02
2.854700000000000000e+04,2.001064229261828586e-02
2.860700000000000000e+04,2.761368478240910918e-02
2.866700000000000000e+04,2.819915054078592220e-02
2.872700000000000000e+04,3.876697039413556922e-02
2.878700000000000000e+04,2.631707633554469794e-02
2.884700000000000000e+04,2.784940149649628438e-02
2.890700000000000000e+04,3.336388017487479374e-02
2.896700000000000000e+04,2.886044783190300222e-02
2.902700000000000000e+04,2.633904109916329617e-02
2.908700000000000000e+04,2.379959777590556769e-02
2.914700000000000000e+04,1.324205684886692325e-02
2.920700000000000000e+04,1.666635847868747078e-02
2.926700000000000000e+04,2.007244401738716988e-02
2.932700000000000000e+04,2.946025600704160752e-02
2.938700000000000000e+04,3.682973818740720162e-02
2.944700000000000000e+04,2.718083549098082585e-02
2.950700000000000000e+04,2.551349406530789565e-02
2.956700000000000000e+04,2.282766125063062645e-02
2.962700000000000000e+04,2.612328561099275248e-02
2.968700000000000000e+04,2.240031691962940386e-02
2.974700000000000000e+04,1.865870617166365264e-02
2.980700000000000364e+04,1.789840558558353223e-02
2.986700000000000000e+04,2.711936859941488365e-02
2.992700000000000000e+04,2.432154988673573826e-02
2.998700000000000000e+04,2.850490535274730064e-02
3.004700000000000364e+04,3.966939214024023386e-02
3.010700000000000000e+04,3.281496862655330915e-02
3.016700000000000000e+04,2.794159443692478817e-02
3.022700000000000000e+04,2.804923044004681287e-02
3.028700000000000364e+04,2.813783875171793625e-02
3.034700000000000000e+04,2.220738274081668351e-02
3.040700000000000000e+04,7.257827029206964653e-03
3.046700000000000000e+04,-7.108625031833071262e-04
3.052700000000000364e+04,-5.698718711755645927e-03
3.058700000000000000e+04,-2.705773204070283100e-03
3.064700000000000000e+04,1.267943690436368342e-03
3.070700000000000000e+04,1.222402900566521566e-03
3.076700000000000364e+04,-1.842423369453172199e-03
3.082700000000000000e+04,7.343834931816672906e-05
3.088700000000000000e+04,9.699628062662668526e-04
3.094700000000000000e+04,-8.152873981089214794e-03
3.100700000000000364e+04,-1.629509471422352362e-02
3.106700000000000000e+04,-2.445672081285010790e-02
3.112700000000000000e+04,-3.063777242095966358e-02
3.118700000000000000e+04,-2.483826840307301609e-02
3.124700000000000364e+04,-3.305822632955823792e-02
3.130700000000000000e+04,-2.929766249235399300e-02
3.136700000000000000e+04,-2.055659190136793768e-02
3.142700000000000000e+04,-2.083502826008043485e-02
3.148700000000000364e+04,-2.813298400724306703e-02
3.154700000000000000e+04,-4.045047027011605678e-02
3.160700000000000000e+04,-3.978749689667893108e-02
3.166700000000000000e+04,-3.514407244165340671e-02
3.172700000000000364e+04,-3.252020415857259650e-02
3.178700000000000000e+04,-3.591589801999361953e-02
3.184700000000000000e+04,-3.633115868615277577e-02
3.190700000000000000e+04,-3.276598953925713431e-02
3.196700000000000364e+04,-3.322039265640341910e-02
3.202700000000000000e+04,-3.869436881996080047e-02
3.208700000000000000e+04,-4.118791751352546271e-02
3.214700000000000000e+04,-4.570103693004057277e-02
3.220700000000000364e+04,-5.023372396317427047e-02
3.226700000000000000e+04,-3.578597420528240036e-02
3.232700000000000000e+04,-3.035778195408056490e-02
3.238700000000000000e+04,-2.494914021281147143e-02
3.244700000000000364e+04,-2.556004068446782185e-02
3.250700000000000000e+04,-2.619047378084360389e-02
3.256700000000000000e+04,-2.784042860730551183e-02
3.262700000000000000e+04,-1.850989298691274598e-02
3.268700000000000364e+04,-1.619885343916394049e-02
3.274700000000000000e+04,1.092704811526346020e-03
3.280700000000000000e+04,5.364797828406153712e-03
3.286700000000000000e+04,-2.382557027885923162e-03
3.292700000000000000e+04,-1.493411045885295607e-04
3.298700000000000000e+04,-8.935534458942129277e-03
3.304700000000000000e+04,-1.474111586139770225e-02
3.310700000000000000e+04,-1.256606278366234619e-02
3.316700000000000000e+04,-1.241035142538748914e-02
3.322700000000000000e+04,7.260433148985612206e-04
3.328700000000000000e+04,-2.156852182451984845e-03
3.334700000000000000e+04,9.409897447767434642e-04
3.340700000000000000e+04,3.019598038918047678e-03
3.346700000000000000e+04,4.079002930666320026e-03
3.352700000000000000e+04,-1.880764081761299167e-03
3.358700000000000000e+04,5.140329783898778260e-03
3.364700000000000000e+04,1.914231858700077282e-02
3.370700000000000000e+04,1.212523764752404531e-02
3.376700000000000000e+04,9.089123569538060110e-03
3.382700000000000000e+04,4.034014213175396435e-03
3.388700000000000000e+04,9.599487129889894277e-04
3.394700000000000000e+04,3.866967465910420287e-03
3.400700000000000000e+04,-1.244887876055145171e-03
3.406700000000000000e+04,5.624425607493321877e-03
3.412700000000000000e+04,3.474952084616234060e-03
3.418700000000000000e+04,4.306736982471193187e-03
3.424700000000000000e+04,5.119826973896124400e-03
3.430700000000000000e+04,5.914269981985853519e-03
3.436700000000000000e+04,9.690115174635138828e-03
3.442700000000000000e+04,1.544741296493157279e-02
3.448700000000000000e+04,1.218621499356231652e-02
3.454700000000000000e+04,1.190657414736051578e-02
3.460700000000000000e+04,1.360854454651416745e-02
3.466700000000000000e+04,8.292181524666375481e-03
3.472700000000000000e+04,4.957541660587594379e-03
3.478700000000000000e+04,1.160468273974402109e-02
3.484700000000000000e+04,1.723366377791535342e-02
3.490700000000000000e+04,7.844544994441093877e-03
3.496700000000000000e+04,-5.626121755994972773e-04
3.502700000000000000e+04,5.012254910070623737e-03
3.508700000000000000e+04,1.156921009805955691e-02
3.514700000000000000e+04,1.410831842895277077e-02
3.520700000000000000e+04,4.629646140529075637e-03
3.526700000000000000e+04,1.213326066863373853e-02
3.532700000000000000e+04,1.161923062136338558e-02
3.538700000000000000e+04,3.087625800617388450e-03
3.544700000000000000e+04,-1.461482822378457058e-03
3.550700000000000000e+04,8.971976909379009157e-03
3.556700000000000000e+04,1.038807830173027469e-02
3.562700000000000000e+04,7.786895848767017014e-03
3.568700000000000000e+04,1.016850518044520868e-02
3.574700000000000000e+04,9.532983096505631693e-03
3.580700000000000000e+04,1.988040754804387689e-02
3.586700000000000000e+04,1.921085761023277882e-02
3.592700000000000000e+04,1.752441352437017485e-02
3.598700000000000000e+04,1.982115664577577263e-02
3.604700000000000000e+04,2.010116947803908261e-02
3.610700000000000000e+04,2.436453563223039964e-02
3.616700000000000000e+04,1.661133984816842712e-02
3.622700000000000000e+04,2.184166796905628871e-02
3.628700000000000000e+04,2.305560695367603330e-02
3.634700000000000000e+04,2.025324486658064416e-02
3.640700000000000000e+04,1.943467086493910756e-02
3.646700000000000000e+04,7.599975193443242460e-03
3.652700000000000000e+04,-2.507508133930969052e-04
3.658700000000000000e+04,-1.117414743930567056e-03
3.664700000000000000e+04,1.000076885247835889e-03
3.670700000000000000e+04,-2.898181361160823144e-03
3.676700000000000000e+04,-6.812093880398606416e-03
3.682700000000000000e+04,-3.741563992662122473e-03
3.688700000000000000e+04,-4.686493981353123672e-03
3.694700000000000000e+04,-2.646785083925351501e-03
3.700700000000000000e+04,-1.362233749659935711e-02
3.706700000000000000e+04,-1.161305039568105713e-02
3.712700000000000000e+04,-2.618821919895708561e-03
3.718700000000000000e+04,-1.639549204810464289e-03
3.724700000000000000e+04,-1.367512836259265896e-02
3.730700000000000000e+04,-2.272545451069163391e-02
3.736700000000000000e+04,-1.979042176753864624e-02
3.742700000000000000e+04,-1.886992325580649776e-02
3.748700000000000000e+04,-1.196385112234565895e-02
3.754700000000000000e+04,-2.207209652715391712e-02
3.760700000000000000e+04,-2.919454967104684329e-02
3.766700000000000000e+04,-3.033109979151049629e-02
3.772700000000000000e+04,-1.948163515953638125e-02
3.778700000000000000e+04,-9.646043107750301715e-03
3.784700000000000000e+04,-9.824210025726642925e-03
3.790700000000000000e+04,-5.016021373194234911e-03
3.796700000000000000e+04,-1.322136167073040269e-02
3.802700000000000000e+04,-1.944011453542771051e-02
3.808700000000000000e+04,-3.067216265844763257e-02
3.814700000000000000e+04,-2.191738784040353494e-02
3.820700000000000000e+04,-1.417567097905703122e-02
3.826700000000000000e+04,-1.344689208144700387e-02
3.832700000000000000e+04,-2.473093028038420016e-02
3.838700000000000000e+04,-3.402766382805566536e-02
3.844700000000000000e+04,-3.033697011414915323e-02
3.850700000000000000e+04,-2.265872567477345001e-02
3.856700000000000000e+04,-1.299280619514320279e-02
3.862700000000000000e+04,-6.339086514344671741e-03
3.868700000000000000e+04,-1.569744064454425825e-02
3.874700000000000000e+04,-1.006774176858016290e-02
3.880700000000000000e+04,-3.449862249908619560e-03
3.886700000000000000e+04,-2.843673653842415661e-03
3.892700000000000000e+04,-1.424904673058335902e-02
3.898700000000000000e+04,-1.766585145196586382e-02
3.904700000000000000e+04,-1.309395699991000583e-02
3.910700000000000000e+04,-2.153323177844868042e-02
3.916700000000000000e+04,-2.698354343010578305e-02
3.922700000000000000e+04,-3.844475883306586184e-02
3.928700000000000000e+04,-2.991674412078282330e-02
3.934700000000000000e+04,-6.399364689968933817e-03
3.940700000000000000e+04,6.107514805080427323e-03
3.946700000000000000e+04,9.604030427908583079e-03
3.952700000000000000e+04,1.109031896066881018e-02
3.958700000000000000e+04,1.256651788662566105e-02
3.964700000000000000e+04,5.032765382566140033e-03
3.970700000000000000e+04,-5.510799673174915370e-03
3.976700000000000000e+04,-7.064037736199679784e-03
3.982700000000000000e+04,-2.626808582135709003e-03
3.988700000000000000e+04,4.801028663678152952e-03
3.994700000000000000e+04,1.521961553771689069e-02
4.000700000000000000e+04,1.362909421368385665e-02
4.006700000000000000e+04,1.702960749935300555e-02
4.012700000000000000e+04,1.542129882818699116e-02
4.018700000000000000e+04,1.880431224890344311e-02
4.024700000000000000e+04,1.917879241591435857e-02
4.030700000000000000e+04,2.154488458018022357e-02
4.036700000000000000e+04,1.990273457886360120e-02
4.042700000000000000e+04,2.425248882263986161e-02
4.048700000000000000e+04,2.059429429937154055e-02
4.054700000000000000e+04,2.692829854731826345e-02
4.060700000000000000e+04,2.825464966008439660e-02
4.066700000000000000e+04,3.057349626578798052e-02
4.072700000000000000e+04,2.288498752022860572e-02
4.078700000000000000e+04,1.218927311219886178e-02
4.084700000000000000e+04,3.486503226667991839e-03
4.090700000000000000e+04,7.776828552778169978e-03
4.096700000000000000e+04,8.060400279646273702e-03
4.102700000000000000e+04,1.233737006077717524e-02
4.108700000000000000e+04,1.660789004017715342e-02
4.114700000000000000e+04,1.587211281093914295e-02
4.120700000000000000e+04,5.130191417265450582e-03
4.126700000000000000e+04,5.382279355217178818e-03
4.132700000000000000e+04,4.628530545232933946e-03
4.138700000000000000e+04,-4.130900674681470264e-03
4.144700000000000000e+04,-2.895859545787971001e-03
4.150700000000000000e+04,-6.666190908617863897e-03
4.156700000000000000e+04,-2.044173921694891760e-02
4.162700000000000000e+04,-2.522234853859117720e-02
4.168700000000000000e+04,-1.700786257242725696e-02
4.174700000000000000e+04,-9.798124658118467778e-03
4.180700000000000000e+04,-1.159297777485335246e-02
4.186700000000000000e+04,-9.392264566486119293e-03
4.192700000000000000e+04,-8.195827349481987767e-03
4.198700000000000000e+04,-1.200350811450334731e-02
4.204700000000000000e+04,-1.881514854176202789e-02
4.210700000000000000e+04,-1.863059001698275097e-02
4.216700000000000000e+04,-1.744967362355964724e-02
4.222700000000000000e+04,-6.272240180805965792e-03
4.228700000000000000e+04,-7.098130225131171755e-03
4.234700000000000000e+04,-1.192718404581682989e-02
4.240700000000000000e+04,-2.175924167204357218e-02
4.246700000000000000e+04,-2.459414289933192777e-02
4.252700000000000000e+04,-1.343172730321384734e-02
4.258700000000000000e+04,-2.271834224302438088e-03
4.264700000000000000e+04,-2.114302816153212916e-03
4.270700000000000728e+04,-7.958972015330800787e-03
4.276700000000000000e+04,3.194319408976298291e-03
4.282700000000000000e+04,1.034573287779494422e-02
4.288699999999999272e+04,2.495429962436901405e-03
4.294700000000000000e+04,5.643572413646325003e-03
4.300700000000000000e+04,4.790322098415344954e-03
4.306700000000000000e+04,1.293584103677858366e-02
4.312700000000000000e+04,1.908029136211553123e-02
4.318700000000000728e+04,2.422383532666572137e-02
4.324700000000000000e+04,1.836663528411008883e-02
4.330700000000000000e+04,1.750885367619048338e-02
4.336699999999999272e+04,1.765065302879520459e-02
4.342700000000000000e+04,1.979219593977177283e-02
4.348700000000000000e+04,2.393364506588113727e-02
4.354700000000000000e+04,2.707516310783830704e-02
4.360700000000000000e+04,1.821691282020765357e-02
4.366700000000000728e+04,8.359056969311495777e-03
4.372700000000000000e+04,8.501758350575983059e-03
4.378700000000000000e+04,5.645179761813778896e-03
4.384699999999999272e+04,5.789483999251388013e-03
4.390700000000000000e+04,-2.065166150714503601e-03
4.396700000000000000e+04,5.081392066131229512e-03
4.402700000000000000e+04,5.229321374827122781e-03
4.408700000000000000e+04,2.378784451138926670e-03
4.414700000000000728e+04,5.299439217196777463e-04
4.420700000000000000e+04,6.829623389421612956e-04
4.426700000000000000e+04,-3.161997814459027722e-03
4.432699999999999272e+04,-3.004774148394062649e-03
4.438700000000000000e+04,-9.845204373050364666e-03
4.444700000000000000e+04,-9.683126299933064729e-03
4.450700000000000000e+04,-2.518377861633780412e-03
4.456700000000000000e+04,3.649202873020840343e-03
4.462700000000000728e+04,6.819777702730789315e-03
4.468700000000000000e+04,5.993508274514169898e-03
4.474700000000000000e+04,9.170556071694591083e-03
4.480699999999999272e+04,1.335108240346016828e-02
4.486700000000000000e+04,1.853524840498721460e-02
4.492700000000000000e+04,1.572321501225815155e-02
4.498700000000000000e+04,1.391514296301465947e-02
4.504700000000000000e+04,1.411119277327088639e-02
4.510700000000000728e+04,7.311524748729425482e-03
4.516700000000000000e+04,4.516298946327879094e-03
4.522700000000000000e+04,7.256751905515557155e-04
4.528699999999999272e+04,-6.060186956347024534e-03
4.534700000000000000e+04,-1.684112819657457294e-02
4.540700000000000000e+04,-1.061698950525169494e-02
4.546700000000000000e+04,2.612387856061104685e-03
4.552700000000000000e+04,2.847162327270780224e-03
4.558700000000000728e+04,2.087492041937366594e-03
4.564700000000000000e+04,1.133353482236998389e-02
4.570700000000000000e+04,1.458544814795459388e-02
4.576699999999999272e+04,1.184338918392313644e-02
4.582700000000000000e+04,1.710751473183336202e-02
4.588700000000000000e+04,1.537798123899847269e-02
4.594700000000000000e+04,1.465494478816253832e-02
4.600700000000000000e+04,5.938561077527992893e-03
4.606700000000000728e+04,-1.771014573023421690e-03
4.612700000000000000e+04,5.526372747226560023e-03
4.618700000000000000e+04,5.830877551488811150e-03
4.624699999999999272e+04,1.142653927672654390e-03
4.630700000000000000e+04,-1.538144467303936835e-03
4.636700000000000000e+04,3.788635593991784845e-03
4.642700000000000000e+04,-2.876853111047239508e-03
4.648700000000000000e+04,-8.534458266694855411e-03
4.654700000000000728e+04,-1.184028026727901306e-03
4.660700000000000000e+04,1.117458897988399258e-02
4.666700000000000000e+04,-4.584563585012801923e-04
4.672699999999999272e+04,-1.608301366013620282e-02
4.678700000000000000e+04,-4.698933044892328326e-03
4.684700000000000000e+04,-4.306065153286908753e-03
4.690700000000000000e+04,-1.290426114428555593e-02
4.696700000000000000e+04,-1.049337272434058832e-02
4.702700000000000728e+04,-5.073252138572570402e-03
4.708700000000000000e+04,-2.643752190124359913e-03
4.714700000000000000e+04,-1.020472624441026710e-02
4.720699999999999272e+04,-1.375602824828092707e-02
4.726700000000000000e+04,-7.297512727745925076e-03
4.732700000000000000e+04,5.170965202523802873e-03
4.738700000000000000e+04,3.649549813417252153e-03
4.744700000000000000e+04,-2.861615228539449163e-03
4.750700000000000728e+04,-4.362386881439306308e-03
4.756700000000000000e+04,-8.526227284164633602e-04
4.762700000000000000e+04,1.667818993155378848e-03
4.768699999999999272e+04,4.199079411591810640e-03
4.774700000000000000e+04,7.741298986729816534e-03
4.780700000000000000e+04,5.294617520121391863e-03
4.786700000000000000e+04,1.859174124547280371e-03
4.792700000000000000e+04,-2.564892764894466382e-03
4.798700000000000728e+04,-5.977445411190274172e-03
4.804700000000000000e+04,-1.137834677592763910e-02
4.810700000000000000e+04,-7.767460540890169796e-03
4.816699999999999272e+04,-1.446511078029288910e-04
4.822700000000000000e+04,-1.509783605797565542e-03
4.828700000000000000e+04,-3.862723903694131877e-03
4.834700000000000000e+04,-4.203338615297980141e-03
4.840700000000000000e+04,-1.053149512244999642e-02
4.846700000000000728e+04,-1.384706155567982933e-02
4.852700000000000000e+04,-8.149906833750719670e-03
4.858700000000000000e+04,-1.043990065045363735e-02
4.864699999999999272e+04,-8.716913491298328154e-03
4.870700000000000000e+04,-1.298081664117489709e-02
4.876700000000000000e+04,-2.023148219268477987e-02
4.882700000000000000e+04,-8.468783051284844987e-03
4.888700000000000000e+04,-6.692592956824228168e-03
4.894700000000000728e+04,-2.902786465710960329e-03
4.900700000000000000e+04,-3.099238984759722371e-03
4.906700000000000000e+04,-6.281826769736653659e-03
4.912699999999999272e+04,-1.245042693062714534e-02
4.918700000000000000e+04,-7.604917442222358659e-03
4.924700000000000000e+04,1.254822850569325965e-03
4.930700000000000000e+04,3.128914217086276039e-03
4.936700000000000000e+04,1.747604437696281821e-05
4.942700000000000728e+04,1.920626821629412007e-03
4.948700000000000000e+04,1.838484130530559923e-03
4.954700000000000000e+04,1.077116464148275554e-02
4.960699999999999272e+04,1.171878411605575820e-02
4.966700000000000000e+04,1.268145738322346006e-02
4.972700000000000000e+04,1.565929832850088133e-02
4.978700000000000000e+04,1.565241991465882165e-02
4.984700000000000000e+04,1.266093413778435206e-02
4.990700000000000728e+04,1.684952052528387867e-03
4.996700000000000000e+04,7.724583741946844384e-03
5.002700000000000000e+04,6.779938317777123302e-03
5.008699999999999272e+04,7.851123922591796145e-03
5.014700000000000000e+04,3.938247709811548702e-03
5.020700000000000000e+04,-4.958584159794554580e-03
5.026700000000000000e+04,1.607334743312094361e-04
5.032700000000000000e+04,9.296304772760777269e-03
5.038700000000000728e+04,1.144823288632323965e-02
5.044700000000000000e+04,1.561661993855523178e-02
5.050700000000000000e+04,1.280156703523971373e-02
5.056699999999999272e+04,9.003174245663103648e-03
5.062700000000000000e+04,6.221540605110931210e-03
5.068700000000000000e+04,4.567640962704899721e-04
5.074700000000000000e+04,1.708941665128804743e-03
5.080700000000000000e+04,-2.183081323892110959e-05
5.086700000000000728e+04,-2.735458525421563536e-03
5.092700000000000000e+04,-4.318477222113870084e-04
5.098700000000000000e+04,4.889094268946791999e-03
5.104699999999999272e+04,1.122745903194299899e-02
5.110700000000000000e+04,4.583337068652326707e-03
5.116700000000000000e+04,-4.318220999266486615e-05
5.122700000000000000e+04,-4.652010502468328923e-03
5.128700000000000000e+04,7.569394028905662708e-04
5.134700000000000728e+04,8.183753584489750210e-03
5.140700000000000000e+04,1.162851702520129038e-02
5.146700000000000000e+04,7.091313575983804185e-03
5.152699999999999272e+04,3.572225961761432700e-03
5.158700000000000000e+04,-1.928664225488319062e-03
5.164700000000000000e+04,-1.141127653318108059e-02
5.170700000000000000e+04,-1.887553164579003351e-02
5.176700000000000000e+04,-2.032135140962054720e-02
5.182700000000000728e+04,-8.748658808144682553e-03
5.188700000000000000e+04,-4.157377995397837367e-03
5.194700000000000000e+04,-7.547434289335797075e-03
5.200699999999999272e+04,-1.691875416236143792e-02
5.206700000000000000e+04,-1.627126527910149889e-02
5.212700000000000000e+04,-1.460489646706264466e-02
5.218700000000000000e+04,-2.191957774448383134e-02
5.224700000000000000e+04,-2.521524031544686295e-02
5.230700000000000728e+04,-2.349181657245935639e-02
5.236700000000000000e+04,-1.774924010624090442e-02
5.242700000000000000e+04,-1.298744571067800280e-02
5.248699999999999272e+04,-1.320636937452945858e-02
5.254700000000000000e+04,-1.140594830303598428e-02
5.260700000000000000e+04,-1.058612091674149269e-02
5.266700000000000000e+04,-4.746826842165319249e-03
5.272700000000000000e+04,-7.888006939538172446e-03
5.278700000000000728e+04,-1.200960328151268186e-02
5.284700000000000000e+04,-9.111559177654271480e-03
5.290700000000000000e+04,-2.193819162130239420e-03
5.296699999999999272e+04,1.743670991345425136e-03
5.302700000000000000e+04,-2.990357306771329604e-04
5.308700000000000000e+04,-7.321887585931108333e-03
5.314700000000000000e+04,1.675165929555078037e-03
5.320700000000000000e+04,6.692174066301959101e-03
5.326700000000000728e+04,8.729184827643621247e-03
5.332700000000000000e+04,-1.213755051139742136e-03
5.338700000000000000e+04,-9.136600082456425298e-03
5.344699999999999272e+04,-1.003930603656044696e-02
5.350700000000000000e+04,-1.192182996146584628e-02
5.356700000000000000e+04,-1.178413015713886125e-02
5.362700000000000000e+04,-1.262616620806511492e-02
5.368700000000000000e+04,-9.447898952203104272e-03
5.374700000000000728e+04,-6.249290519008354750e-03
5.380700000000000000e+04,-6.030304308296763338e-03
5.386700000000000000e+04,-3.790904997913457919e-03
5.392699999999999272e+04,-4.531058548309374601e-03
5.398700000000000000e+04,-2.250732204629457556e-03
5.404700000000000000e+04,8.050105496295145713e-03
5.410700000000000000e+04,5.371484744500776287e-03
5.416700000000000000e+04,4.713434424047591165e-03
5.422700000000000728e+04,6.075982139009283856e-03
5.428700000000000000e+04,3.459154194388247561e-03
5.434700000000000000e+04,1.386297559747617925e-02
5.440699999999999272e+04,1.328747006937192054e-02
5.446700000000000000e+04,2.732660019319155253e-03
5.452700000000000000e+04,-1.801433434593491256e-03
5.458700000000000000e+04,-3.314790480544616003e-03
5.464700000000000000e+04,3.192607401615532581e-03
5.470700000000000728e+04,8.720777414964686614e-03
5.476700000000000000e+04,1.026973546413501026e-02
5.482700000000000000e+04,8.839496152177162003e-03
5.488699999999999272e+04,7.430072771057893988e-03
5.494700000000000000e+04,1.004147730600379873e-02
5.500700000000000000e+04,1.267372043275827309e-02
5.506700000000000000e+04,1.132681152193981688e-02
5.512700000000000000e+04,7.000758636422688141e-03
5.518700000000000728e+04,9.695568520328379236e-03
5.524700000000000000e+04,1.641124662091897335e-02
5.530700000000000000e+04,1.214779706333501963e-02
5.536699999999999272e+04,5.905222669753129594e-03
5.542700000000000000e+04,-1.316475049861765001e-03
5.548700000000000000e+04,-4.517295898949669208e-03
5.644700000000000000e+04,-6.896088976645842195e-03
5.734700000000000000e+04,-1.144735623256565304e-02
5.824700000000000000e+04,-5.459931483528634999e-03
5.914700000000000000e+04,5.893504848245356698e-03
6.004700000000000000e+04,1.637911766920296941e-02
6.094699999999999272e+04,4.705479438598558772e-03
6.184700000000000000e+04,2.528009170418954454e-03
6.274700000000000000e+04,1.245422650117689045e-02
6.364700000000000728e+04,-1.095025354152312502e-02
6.454700000000000000e+04,-4.155071241257246584e-03
6.544700000000000000e+04,-7.657915140953264199e-03
6.634700000000000000e+04,2.023136417847126722e-03
6.724700000000000000e+04,1.135761087698483607e-02
6.814700000000000000e+04,-1.189146769320359454e-03
6.904700000000000000e+04,2.852328278095228598e-03
6.994700000000000000e+04,-3.611550255300244316e-05
7.084700000000000000e+04,-1.335215051494742511e-02
7.174700000000000000e+04,1.143482764746295288e-02
7.264700000000000000e+04,-1.110892658471129835e-02
7.354700000000000000e+04,5.625318104648613371e-03
7.444700000000000000e+04,1.294935113946849015e-03
7.534700000000000000e+04,8.611336835201655049e-03
7.624700000000000000e+04,1.334450726972136181e-02
7.714700000000000000e+04,1.432658664180053165e-02
7.804700000000000000e+04,-3.545561639839434065e-03
7.894700000000000000e+04,1.369114432600326836e-02
7.984700000000000000e+04,1.106639143927168334e-02
8.074700000000000000e+04,-3.324269718177674804e-03
8.164700000000000000e+04,-3.932129409531626152e-02
8.254700000000000000e+04,-5.704119792426354252e-03
8.344700000000000000e+04,4.804785327905847225e-03
8.434700000000000000e+04,5.348673539629089646e-04
8.524700000000000000e+04,-8.138500794302672148e-03
8.614700000000000000e+04,-6.800839604693464935e-03
