0	0
18.6951	0
37.3901	0
56.0852	0
74.7802	0
93.4753	0
112.17	0
130.865	0
149.56	0
168.256	0
186.951	0
205.646	0
224.341	0
243.036	0
261.731	0
280.426	0
299.121	0
317.816	0
336.511	0
355.206	0
373.901	0
392.596	0
411.291	0
429.986	0
448.681	0
467.376	0
486.072	-9.09495e-13
504.767	-9.09495e-13
523.462	-9.09495e-13
542.157	-9.09495e-13
560.852	0
579.547	0
598.242	0
616.937	0
635.632	0
654.327	0
673.022	0
691.717	0
710.412	0
729.107	0
747.802	0
766.497	0
785.192	0
803.887	0
822.583	0
841.278	0
859.973	0
878.668	0
897.363	0
916.058	0
934.753	0
953.448	0
972.143	0
990.838	0
1009.53	0
1028.23	0
1046.92	0
1065.62	0
1084.31	0
1103.01	0
1121.7	0
1140.4	0
1159.09	0
1177.79	0
1196.48	0
1215.18	0
1233.87	0
1252.57	0
1271.26	0
1289.96	0
1308.65	0
1327.35	0
1346.04	0
1364.74	0
1383.43	0
1402.13	0
1420.82	0
1439.52	0
1458.21	0
1476.91	0
1495.6	0
1514.3	0
1532.99	0
1551.69	0
1570.38	0
1589.08	0
1607.77	0
1626.47	0
1645.17	-9.09495e-13
1663.86	-9.09495e-13
1682.56	-9.09495e-13
1701.25	-9.09495e-13
1719.95	0
1738.64	0
1757.34	0
1776.03	0
1794.73	0
1813.42	0
1832.12	0
1850.81	0
1869.51	0
1888.2	0
1906.9	0
1925.59	0
1944.29	0
1962.98	0
1981.68	0
2000.37	0
2019.07	0
2037.76	9.09495e-13
2056.46	2.72848e-12
2075.15	5.45697e-12
2093.85	1.09139e-11
2112.54	2.09184e-11
2131.24	3.72893e-11
2149.93	6.54836e-11
2168.63	1.11868e-10
2187.32	1.90084e-10
2206.02	3.15595e-10
2224.71	5.16593e-10
2243.41	8.35826e-10
2262.1	1.33241e-09
2280.8	2.09639e-09
2299.49	3.2569e-09
2318.19	4.99858e-09
2336.88	7.58064e-09
2355.58	1.1366e-08
2374.27	1.68529e-08
2392.97	2.47201e-08
2411.66	3.58814e-08
2430.36	5.15565e-08
2449.05	7.33535e-08
2467.75	1.03369e-07
2486.44	1.44317e-07
2505.14	1.99673e-07
2523.83	2.73843e-07
2542.53	3.72369e-07
2561.22	5.02151e-07
2579.92	6.71714e-07
2598.61	8.91492e-07
2617.31	1.17416e-06
2636	1.53498e-06
2654.7	1.9922e-06
2673.39	2.56743e-06
2692.09	3.28613e-06
2710.78	4.17803e-06
2729.48	5.27761e-06
2748.17	6.62461e-06
2766.87	8.26448e-06
2785.56	1.02489e-05
2804.26	1.26365e-05
2822.95	1.54927e-05
2841.65	1.88913e-05
2860.34	2.2914e-05
2879.04	2.76516e-05
2897.73	3.32046e-05
2916.43	3.96836e-05
2935.12	4.72107e-05
2953.82	5.59203e-05
2972.51	6.59607e-05
2991.21	7.74959e-05
3009.9	9.07079e-05
3028.6	0.0001058
3047.29	0.000123
3065.99	0.000142568
3084.68	0.000164798
3103.38	0.00019003
3122.07	0.00021866
3140.77	0.000251149
3159.46	0.000288043
3178.16	0.000329986
3196.85	0.000377748
3215.55	0.000432246
3234.24	0.000494576
3252.94	0.00056605
3271.63	0.000648236
3290.33	0.000743003
3309.02	0.000852576
3327.72	0.000979593
3346.41	0.00112717
3365.11	0.00129897
3383.8	0.00149928
3402.5	0.0017331
3421.19	0.00200619
3439.89	0.00232522
3458.58	0.0026978
3477.28	0.00313259
3495.97	0.0036394
3514.66	0.00422922
3533.36	0.00491433
3552.05	0.00570836
3570.75	0.0066263
3589.44	0.00768453
3608.14	0.00890085
3626.83	0.0102944
3645.53	0.0118857
3664.22	0.0136964
3682.92	0.0157494
3701.61	0.0180684
3720.3	0.0206778
3739	0.0236027
3757.69	0.0268681
3776.39	0.0304993
3795.08	0.0345205
3813.78	0.0389556
3832.47	0.0438267
3851.17	0.0491542
3869.86	0.0549563
3888.55	0.0612482
3907.25	0.0680418
3925.94	0.0753451
3944.64	0.0831617
3963.33	0.0914903
3982.03	0.100324
4000.72	0.109652
4019.42	0.119454
4038.11	0.129706
4056.8	0.140376
4075.5	0.151427
4094.19	0.162812
4112.89	0.174482
4131.58	0.186376
4150.28	0.198431
4168.97	0.210576
4187.67	0.222734
4206.36	0.234825
4225.06	0.246762
4243.75	0.258458
4262.44	0.269821
4281.14	0.280757
4299.83	0.291172
4318.53	0.300973
4337.22	0.310066
4355.92	0.318363
4374.61	0.325776
4393.31	0.332223
4412	0.337627
4430.7	0.341919
4449.39	0.345035
4468.09	0.34692
4486.78	0.34753
4505.48	0.346827
4524.17	0.344787
4542.87	0.341393
4561.56	0.336641
4580.26	0.330537
4598.95	0.323097
4617.65	0.31435
4636.34	0.304334
4655.04	0.293097
4673.73	0.280697
4692.43	0.267202
4711.12	0.252687
4729.82	0.237235
4748.51	0.220935
4767.21	0.203883
4785.9	0.186179
4804.6	0.167926
4823.29	0.149232
4841.99	0.130203
4860.68	0.110949
4879.38	0.0915786
4898.07	0.0721974
4916.77	0.0529102
4935.46	0.0338179
4954.16	0.0150175
4972.85	-0.00339916
4991.55	-0.0213455
5010.24	-0.0387414
5028.94	-0.0555132
5047.63	-0.0715945
5066.33	-0.0869264
5085.02	-0.101458
5103.72	-0.115144
5122.41	-0.127952
5141.11	-0.139851
5159.8	-0.150824
5178.5	-0.160856
5197.19	-0.169944
5215.89	-0.178088
5234.58	-0.185298
5253.28	-0.191588
5271.97	-0.196978
5290.67	-0.201495
5309.36	-0.205168
5328.06	-0.208031
5346.75	-0.210123
5365.45	-0.211485
5384.14	-0.21216
5402.84	-0.212194
5421.53	-0.211633
5440.23	-0.210526
5458.92	-0.208919
5477.62	-0.206861
5496.31	-0.204399
5515.01	-0.201581
5533.7	-0.19845
5552.4	-0.19505
5571.09	-0.191424
5589.79	-0.18761
5608.48	-0.183647
5627.18	-0.179568
5645.87	-0.175405
5664.57	-0.171189
5683.26	-0.166946
5701.96	-0.1627
5720.65	-0.158471
5739.35	-0.154279
5758.04	-0.150139
5776.74	-0.146065
5795.43	-0.142067
5814.13	-0.138154
5832.82	-0.134333
5851.52	-0.130607
5870.21	-0.12698
5888.91	-0.123452
5907.6	-0.120023
5926.3	-0.116691
5944.99	-0.113454
5963.69	-0.110307
5982.38	-0.107247
6001.08	-0.104267
6019.77	-0.101363
6038.47	-0.0985285
6057.16	-0.0957578
6075.86	-0.0930449
6094.55	-0.0903841
6113.25	-0.0877698
6131.94	-0.0851966
6150.64	-0.0826598
6169.33	-0.0801547
6188.03	-0.0776776
6206.72	-0.0752249
6225.42	-0.0727939
6244.11	-0.0703823
6262.81	-0.0679885
6281.5	-0.0656113
6300.2	-0.0632503
6318.89	-0.0609055
6337.59	-0.0585774
6356.28	-0.0562671
6374.98	-0.053976
6393.67	-0.0517059
6412.37	-0.049459
6431.06	-0.0472377
6449.76	-0.0450448
6468.45	-0.0428829
6487.15	-0.0407549
6505.84	-0.0386639
6524.54	-0.0366127
6543.23	-0.0346041
6561.93	-0.0326409
6580.62	-0.0307256
6599.32	-0.0288606
6618.01	-0.0270477
6636.71	-0.0252889
6655.4	-0.0235855
6674.1	-0.0219386
6692.79	-0.0203488
6711.49	-0.0188165
6730.18	-0.0173414
6748.88	-0.0159231
6767.57	-0.0145606
6786.27	-0.0132525
6804.96	-0.0119971
6823.66	-0.0107923
6842.35	-0.00963548
6861.05	-0.00852388
6879.74	-0.00745434
6898.44	-0.00642344
6917.13	-0.00542751
6935.83	-0.00446265
6954.52	-0.00352482
6973.22	-0.00260983
6991.91	-0.00171341
7010.61	-0.000831212
7029.3	4.10824e-05
7048	0.00090778
7066.69	0.00177311
7085.39	0.00264118
7104.08	0.00351596
7122.78	0.00440121
7141.47	0.00530048
7160.17	0.00621706
7178.86	0.00715396
7197.56	0.00811385
7216.25	0.0090991
7234.95	0.0101117
7253.64	0.0111533
7272.34	0.0122251
7291.03	0.0133279
7309.73	0.0144622
7328.42	0.015628
7347.12	0.0168249
7365.81	0.0180521
7384.51	0.0193085
7403.2	0.0205924
7421.9	0.021902
7440.59	0.0232348
7459.29	0.0245883
7477.98	0.0259595
7496.68	0.0273451
7515.37	0.0287415
7534.07	0.030145
7552.76	0.0315517
7571.46	0.0329571
7590.15	0.0343571
7608.85	0.0357471
7627.54	0.0371225
7646.24	0.0384786
7664.93	0.0398107
7683.63	0.0411141
7702.32	0.0423841
7721.02	0.043616
7739.71	0.0448051
7758.41	0.0459471
7777.1	0.0470374
7795.8	0.0480719
7814.49	0.0490464
7833.19	0.0499571
7851.88	0.0508004
7870.58	0.0515726
7889.27	0.0522706
7907.97	0.0528914
7926.66	0.0534322
7945.36	0.0538906
7964.05	0.0542645
7982.75	0.0545518
8001.44	0.054751
8020.14	0.0548607
8038.83	0.0548799
8057.53	0.0548078
8076.22	0.054644
8094.92	0.0543882
8113.61	0.0540406
8132.31	0.0536015
8151	0.0530716
8169.7	0.0524517
8188.39	0.051743
8207.09	0.0509468
8225.78	0.0500649
8244.48	0.0490991
8263.17	0.0480514
8281.87	0.0469242
8300.56	0.0457199
8319.26	0.0444412
8337.95	0.0430908
8356.65	0.041672
8375.34	0.0401877
8394.04	0.0386412
8412.73	0.0370361
8431.43	0.0353759
8450.12	0.0336641
8468.82	0.0319046
8487.51	0.0301012
8506.21	0.0282577
8524.9	0.0263782
8543.6	0.0244666
8562.29	0.0225271
8580.99	0.0205636
8599.68	0.0185803
8618.38	0.0165813
8637.07	0.0145707
8655.77	0.0125524
8674.46	0.0105307
8693.16	0.00850941
8711.85	0.00649255
8730.55	0.00448398
8749.24	0.00248753
8767.94	0.000506907
8786.63	-0.00145424
8805.33	-0.0033924
8824.02	-0.00530415
8842.72	-0.00718621
8861.41	-0.00903542
8880.11	-0.0108488
8898.8	-0.0126234
8917.5	-0.0143566
8936.19	-0.0160458
8954.89	-0.0176887
8973.58	-0.019283
8992.28	-0.0208268
9010.97	-0.0223182
9029.67	-0.0237556
9048.36	-0.0251375
9067.06	-0.0264628
9085.75	-0.0277303
9104.45	-0.0289392
9123.14	-0.0300888
9141.84	-0.0311787
9160.53	-0.0322085
9179.23	-0.0331783
9197.92	-0.0340881
9216.62	-0.0349381
9235.31	-0.0357288
9254.01	-0.0364608
9272.7	-0.0371349
9291.4	-0.037752
9310.09	-0.0383132
9328.79	-0.0388197
9347.48	-0.0392727
9366.18	-0.0396737
9384.87	-0.0400243
9403.57	-0.040326
9422.26	-0.0405806
9440.96	-0.0407898
9459.65	-0.0409554
9478.35	-0.0410795
9497.04	-0.0411637
9515.74	-0.0412102
9534.43	-0.0412208
9553.13	-0.0411974
9571.82	-0.0411421
9590.52	-0.0410568
9609.21	-0.0409433
9627.91	-0.0408035
9646.6	-0.0406393
9665.3	-0.0404524
9683.99	-0.0402445
9702.69	-0.0400173
9721.38	-0.0397724
9740.08	-0.0395112
9758.77	-0.0392352
9777.47	-0.0389458
9796.16	-0.0386441
9814.86	-0.0383314
9833.56	-0.0380087
9852.25	-0.0376771
9870.95	-0.0373374
9889.64	-0.0369905
9908.34	-0.036637
9927.03	-0.0362776
9945.73	-0.0359129
9964.42	-0.0355434
9983.12	-0.0351694
10001.8	-0.0347912
10020.5	-0.0344091
10039.2	-0.0340233
10057.9	-0.0336338
10076.6	-0.0332408
10095.3	-0.0328443
10114	-0.0324441
10132.7	-0.0320402
10151.4	-0.0316324
10170.1	-0.0312207
10188.8	-0.0308046
10207.5	-0.0303842
10226.2	-0.029959
10244.8	-0.0295288
10263.5	-0.0290933
10282.2	-0.0286523
10300.9	-0.0282054
10319.6	-0.0277523
10338.3	-0.0272927
10357	-0.0268263
10375.7	-0.0263528
10394.4	-0.025872
10413.1	-0.0253836
10431.8	-0.0248873
10450.5	-0.0243828
10469.2	-0.02387
10487.9	-0.0233486
10506.6	-0.0228186
10525.3	-0.0222796
10544	-0.0217316
10562.7	-0.0211745
10581.4	-0.0206082
10600.1	-0.0200327
10618.7	-0.0194478
10637.4	-0.0188537
10656.1	-0.0182502
10674.8	-0.0176376
10693.5	-0.0170158
10712.2	-0.0163849
10730.9	-0.0157452
10749.6	-0.0150967
10768.3	-0.0144396
10787	-0.0137741
10805.7	-0.0131005
10824.4	-0.012419
10843.1	-0.0117299
10861.8	-0.0110336
10880.5	-0.0103303
10899.2	-0.00962037
10917.9	-0.00890425
10936.6	-0.00818231
10955.3	-0.00745498
10974	-0.0067227
10992.6	-0.00598594
11011.3	-0.00524518
11030	-0.00450093
11048.7	-0.0037537
11067.4	-0.00300404
11086.1	-0.0022525
11104.8	-0.00149967
11123.5	-0.000746112
11142.2	7.55619e-06
11160.9	0.000760724
11179.6	0.00151277
11198.3	0.00226304
11217	0.00301091
11235.7	0.00375572
11254.4	0.00449681
11273.1	0.00523351
11291.8	0.00596516
11310.5	0.00669107
11329.2	0.00741059
11347.9	0.00812303
11366.5	0.00882774
11385.2	0.00952403
11403.9	0.0102113
11422.6	0.0108888
11441.3	0.0115559
11460	0.0122121
11478.7	0.0128566
11497.4	0.0134889
11516.1	0.0141083
11534.8	0.0147143
11553.5	0.0153064
11572.2	0.0158839
11590.9	0.0164464
11609.6	0.0169933
11628.3	0.0175242
11647	0.0180386
11665.7	0.018536
11684.4	0.019016
11703.1	0.0194783
11721.8	0.0199224
11740.4	0.020348
11759.1	0.0207548
11777.8	0.0211426
11796.5	0.0215109
11815.2	0.0218596
11833.9	0.0221884
11852.6	0.0224971
11871.3	0.0227857
11890	0.0230537
11908.7	0.0233013
11927.4	0.0235282
11946.1	0.0237343
11964.8	0.0239196
11983.5	0.024084
