0	0
53.7405	0
107.481	0
161.222	0
214.962	0
268.703	0
322.443	0
376.184	0
429.924	0
483.665	0
537.405	0
591.146	0
644.887	0
698.627	0
752.368	0
806.108	0
859.849	0
913.589	0
967.33	0
1021.07	0
1074.81	0
1128.55	0
1182.29	0
1236.03	0
1289.77	0
1343.51	0
1397.25	0
1450.99	0
1504.74	0
1558.48	0
1612.22	9.09495e-13
1665.96	9.09495e-12
1719.7	5.82077e-11
1773.44	2.79215e-10
1827.18	1.0923e-09
1880.92	3.66254e-09
1934.66	1.08448e-08
1988.4	2.89692e-08
2042.14	7.09533e-08
2095.88	1.61353e-07
2149.62	3.44167e-07
2203.36	6.94543e-07
2257.1	1.33624e-06
2310.84	2.46831e-06
2364.58	4.40773e-06
2418.32	7.66028e-06
2472.06	1.30413e-05
2525.8	2.18809e-05
2579.55	3.63636e-05
2633.29	6.00701e-05
2687.03	9.87988e-05
2740.77	0.000161747
2794.5	0.000263114
2848.24	0.000424145
2901.98	0.00067556
2955.72	0.00106022
3009.46	0.00163577
3063.2	0.00247687
3116.94	0.00367648
3170.68	0.00534585
3224.42	0.00761244
3278.16	0.0106156
3331.9	0.0144995
3385.64	0.0194041
3439.38	0.0254528
3493.12	0.0327403
3546.85	0.0413183
3600.59	0.0511831
3654.33	0.062265
3708.07	0.0744211
3761.81	0.087432
3815.55	0.101005
3869.29	0.114783
3923.03	0.128355
3976.77	0.141278
4030.51	0.153095
4084.25	0.163363
4137.99	0.171671
4191.73	0.177666
4245.47	0.181072
4299.21	0.181698
4352.95	0.179457
4406.69	0.174357
4460.43	0.166507
4514.17	0.156103
4567.91	0.143419
4621.65	0.128789
4675.39	0.112587
4729.13	0.0952156
4782.87	0.0770819
4836.61	0.058585
4890.35	0.0401021
4944.09	0.0219777
4997.83	0.00451608
5051.57	-0.0120234
5105.31	-0.0274285
5159.06	-0.0415343
5212.8	-0.0542208
5266.54	-0.0654103
5320.28	-0.0750633
5374.02	-0.0831741
5427.76	-0.0897659
5481.5	-0.0948864
5535.24	-0.0986033
5588.98	-0.101
5642.72	-0.102172
5696.46	-0.102223
5750.2	-0.101263
5803.94	-0.0994042
5857.68	-0.0967591
5911.42	-0.0934396
5965.16	-0.0895544
6018.9	-0.0852083
6072.64	-0.0805011
6126.38	-0.075527
6180.12	-0.0703737
6233.86	-0.0651225
6287.6	-0.0598479
6341.34	-0.0546171
6395.08	-0.0494902
6448.82	-0.04452
6502.56	-0.0397515
6556.3	-0.0352226
6610.05	-0.0309636
6663.79	-0.0269975
6717.53	-0.02334
6771.27	-0.0200001
6825.01	-0.0169804
6878.75	-0.0142776
6932.49	-0.011883
6986.23	-0.00978347
7039.97	-0.0079619
7093.71	-0.00639824
7147.45	-0.00507016
7201.19	-0.00395387
7254.93	-0.00302486
7308.67	-0.00225858
7362.41	-0.00163108
7416.15	-0.00111954
7469.89	-0.000702694
7523.63	-0.000361235
7577.37	-7.8038e-05
7631.12	0.000161647
7684.86	0.000370104
7738.6	0.000557148
7792.34	0.000730178
7846.08	0.000894309
7899.82	0.00105254
7953.56	0.00120598
8007.3	0.0013541
8061.04	0.00149497
8114.78	0.00162561
8168.52	0.00174218
8222.26	0.00184035
8276	0.00191546
8329.74	0.00196285
8383.48	0.00197801
8437.22	0.00195681
8490.96	0.00189562
8544.7	0.00179147
8598.44	0.00164214
8652.18	0.00144622
8705.92	0.00120319
8759.66	0.00091338
8813.4	0.000578034
8867.14	0.000199249
8920.88	-0.000220056
8974.62	-0.000676195
9028.36	-0.00116479
9082.1	-0.00168083
9135.84	-0.00221881
9189.58	-0.00277277
9243.32	-0.00333643
9297.06	-0.00390328
9350.8	-0.00446671
9404.54	-0.00502007
9458.28	-0.00555679
9512.03	-0.0060705
9565.77	-0.00655508
9619.51	-0.00700475
9673.25	-0.00741418
9726.99	-0.00777852
9780.73	-0.00809346
9834.47	-0.00835532
9888.21	-0.00856104
9941.95	-0.00870824
9995.69	-0.00879522
10049.4	-0.00882099
10103.2	-0.00878528
10156.9	-0.00868849
10210.7	-0.00853172
10264.4	-0.00831672
10318.1	-0.00804586
10371.9	-0.00772208
10425.6	-0.00734889
10479.4	-0.00693027
10533.1	-0.00647061
10586.8	-0.00597472
10640.6	-0.00544768
10694.3	-0.00489485
10748.1	-0.00432175
10801.8	-0.00373404
10855.5	-0.00313742
10909.3	-0.00253762
10963	-0.00194027
11016.8	-0.00135091
11070.5	-0.000774889
11124.2	-0.000217353
11178	0.000316821
11231.7	0.000823061
11285.5	0.00129713
11339.2	0.00173516
11392.9	0.00213366
11446.7	0.00248959
11500.4	0.00280028
11554.2	0.00306354
11607.9	0.0032776
11661.6	0.00344113
11715.4	0.00355325
11769.1	0.0036135
11822.9	0.00362185
11876.6	0.00357866
11930.3	0.0034847
11984.1	0.0033411
