0	0	361780
39.4643	0	418436
75.8358	0	446708
112.421	0	464684
148.008	0	479754
183.487	0	493154
221.47	0	505426
258.095	0	517326
295.608	0	529848
331.304	0	541892
367	0	554762
400.841	0	568910
435.607	0	583482
469.547	0	596928
503.254	0	610362
536.443	0	623984
567.836	1.63709e-11	637372
600.181	4.91127e-11	651568
630.666	8.00355e-11	665526
661.17	1.36424e-10	679854
690.762	2.17369e-10	693970
721.25	3.50155e-10	708146
752.634	5.53882e-10	723622
781.327	8.2764e-10	737820
810.02	1.21872e-09	752602
839.609	1.7908e-09	768488
868.3	2.5675e-09	783936
895.309	3.56431e-09	798030
923.638	4.98221e-09	814204
951.897	6.88215e-09	830102
979.243	9.32596e-09	845868
1004.93	1.23127e-08	860698
1031.56	1.63018e-08	876380
1059.11	2.16251e-08	893016
1085.73	2.82153e-08	910164
1111.37	3.62179e-08	926880
1136.56	4.60241e-08	943682
1160.77	5.76201e-08	960088
1184.09	7.11907e-08	975694
1206.51	8.68531e-08	990989
1228.03	1.04691e-07	1006287
1249.55	1.25689e-07	1021163
1271.07	1.50313e-07	1035767
1293.49	1.80381e-07	1050455
1316.1	2.15896e-07	1064747
1339.9	2.59703e-07	1079425
1362.78	3.08887e-07	1093613
1385.43	3.65316e-07	1107299
1408.75	4.32494e-07	1121833
1429.38	5.00493e-07	1134837
1450.01	5.7747e-07	1147797
1470.63	6.64378e-07	1160729
1492.16	7.66773e-07	1173671
1512.78	8.77271e-07	1186171
1533.41	1.0011e-06	1198589
1553.14	1.13321e-06	1208859
1573.76	1.28695e-06	1218391
1593.49	1.45031e-06	1227813
1613.22	1.63104e-06	1237207
1633.85	1.84018e-06	1247103
1653.58	2.06121e-06	1257329
1674.2	2.31611e-06	1267411
1693.93	2.58463e-06	1276927
1714.56	2.89329e-06	1287369
1735.18	3.23277e-06	1297027
1755.81	3.60543e-06	1306951
1774.64	3.97676e-06	1315563
1794.38	4.39993e-06	1324879
1813.42	4.84279e-06	1334427
1832.85	5.33231e-06	1343837
1852.3	5.86193e-06	1353299
1871.51	6.42668e-06	1361573
1890.62	7.03131e-06	1369651
1910.61	7.71203e-06	1377351
1930.33	8.43587e-06	1384955
1950.94	9.25191e-06	1392367
1970.66	1.00934e-05	1400136
1989.49	1.09562e-05	1407558
2008.34	1.18826e-05	1413932
2027.24	1.2878e-05	1420060
2046.45	1.39628e-05	1427360
2065.9	1.51404e-05	1435534
2086.44	1.64767e-05	1444532
2106.14	1.78525e-05	1452958
2125.86	1.93272e-05	1461264
2145.59	2.09055e-05	1468258
2165.21	2.25818e-05	1475266
2183.79	2.42743e-05	1481948
2203.3	2.61664e-05	1489650
2222.78	2.81792e-05	1496170
2241.35	3.02218e-05	1501662
2260.83	3.25014e-05	1508278
2279.37	3.48107e-05	1512844
2297.04	3.71446e-05	1517176
2315.64	3.97543e-05	1522106
2334.24	4.25284e-05	1528112
2352.93	4.54956e-05	1532992
2371.66	4.8655e-05	1538814
2390.37	5.1967e-05	1543643
2409.26	5.54327e-05	1549228
2427.98	5.89636e-05	1554616
2446.64	6.25751e-05	1559974
2465.47	6.63086e-05	1565512
2485.18	7.03259e-05	1572646
2503.89	7.42539e-05	1579218
2522.49	7.82892e-05	1585578
2541.04	8.24691e-05	1592560
2559.64	8.68381e-05	1598947
2577.47	9.12219e-05	1606181
2595.13	9.57792e-05	1613430
2612.79	0.000100585	1619378
2631.39	0.000105941	1626424
2648.09	0.000111044	1632868
2666.71	0.000117088	1639620
2684.37	0.000123201	1647169
2702.03	0.0001297	1653267
2719.75	0.000136647	1660330
2737.42	0.000143997	1665790
2756.06	0.000151876	1671557
2773.77	0.000159695	1677447
2791.45	0.000167669	1683619
2809.16	0.000175764	1689089
2826.74	0.000183919	1695501
2844.14	0.000192198	1702124
2861.45	0.000200739	1706994
2878.73	0.000209689	1713690
2895.98	0.000219155	1719523
2913.23	0.000229249	1726609
2930.49	0.000240065	1733334
2947.74	0.000251693	1740874
2964.99	0.000264228	1747740
2982.25	0.00027777	1754939
2999.66	0.000292525	1761483
3016.26	0.000307556	1768839
3032.85	0.000323467	1776137
3050.37	0.000341097	1784235
3067.89	0.00035956	1791583
3084.54	0.000377927	1798804
3101.29	0.00039734	1805670
3119.23	0.000418651	1813170
3136.26	0.000439586	1820347
3153.29	0.000479691	1826865
3171.27	0.000533051	1834524
3188.35	0.000583034	1841559
3205.49	0.000633625	1848215
3222.69	0.000685285	1854718
3239.93	0.000736841	1861757
3257.2	0.000788753	1868173
3273.47	0.000839281	1873577
3290.71	0.000896038	1879131
3306.97	0.000953814	1884632
3323.34	0.00101695	1890113
3339.78	0.00108585	1896113
3357.2	0.00116544	1902316
3374.61	0.00125342	1908323
3391.06	0.00138204	1914090
3407.51	0.00157977	1920306
3424.92	0.00177975	1926319
3441.39	0.00195732	1932145
3457.65	0.00212241	1937487
3473.71	0.00227938	1943011
3489.73	0.00243455	1948657
3506.68	0.00260207	1955230
3523.52	0.00277569	1961742
3539.43	0.00294966	1968107
3556.27	0.00314845	1974898
3572.18	0.00335342	1980873
3589.04	0.00358479	1988157
3605.02	0.0038077	1994453
3621.13	0.00405323	2001207
3637.28	0.00433416	2008629
3653.43	0.00466195	2015689
3668.63	0.00503277	2021400
3683.86	0.00577036	2027784
3700.01	0.00642951	2034977
3716.89	0.00702029	2042386
3732.85	0.00753789	2049485
3748.8	0.00805408	2057140
3764.67	0.00859257	2064996
3780.44	0.00913182	2072841
3796.2	0.00967847	2080959
3811	0.0102553	2088642
3826.71	0.010975	2096169
3842.43	0.0118149	2104008
3857.22	0.0131426	2110850
3872.95	0.0145611	2117430
3887.57	0.0158919	2123093
3903	0.0174367	2129038
3918.42	0.0190868	2134834
3932.86	0.0207637	2140512
3948.17	0.0227152	2146252
3962.58	0.0246601	2151721
3976.97	0.0267032	2156951
3992.2	0.0290102	2162756
4006.52	0.0312619	2167920
4021.75	0.0342985	2173087
4036.07	0.0378698	2178045
4051.3	0.0423153	2183242
4065.64	0.0466442	2188084
4080.97	0.050593	2193551
4095.44	0.0569679	2197851
4110.82	0.0646955	2202930
4125.29	0.0726954	2208172
4139.77	0.080831	2212495
4155.22	0.0900432	2217338
4169.78	0.10085	2221942
4184.33	0.120932	2227319
4198.88	0.13747	2232155
4213.44	0.156771	2237963
4228	0.183388	2243201
4242.56	0.214002	2248586
4257.12	0.2468	2254351
4271.74	0.28257	2260510
4286.33	0.319909	2266826
4300.91	0.390869	2272444
4315.49	0.482161	2278295
4330.08	0.603544	2284432
4344.63	0.72751	2290305
4359.12	0.855574	2296554
4373.55	0.989851	2303338
4387.97	1.12796	2309522
4401.48	1.25721	2315469
4415.89	1.39145	2321022
4430.29	1.51853	2326384
4443.79	1.62815	2332540
4457.29	1.72663	2337568
4470.8	1.81221	2342857
4484.3	1.88315	2347770
4498.71	1.94094	2353760
4512.25	1.97657	2358682
4525.75	1.99399	2363774
4540.11	1.98952	2368373
4553.57	1.96965	2372615
4567.03	1.93666	2376802
4581.38	1.88648	2381187
4594.84	1.82268	2385613
4608.3	1.69311	2390134
4621.76	1.54693	2394712
4635.24	1.38659	2398752
4648.72	1.21354	2403680
4662.2	1.02927	2407698
4676.58	0.825033	2413147
4689.16	0.64333	2417210
4702.68	0.448528	2421403
4716.24	0.256645	2425647
4729.79	0.0705089	2430142
4743.32	-0.107727	2434293
4755.95	-0.265407	2437318
4769.49	-0.42371	2441125
4783.02	-0.569855	2445411
4796.56	-0.702959	2450423
4810.09	-0.822719	2455493
4823.63	-0.929179	2461386
4836.27	-1.01676	2466804
4849.81	-1.09884	2472224
4863.36	-1.1702	2477131
4876.13	-1.22927	2481131
4889.84	-1.28541	2486251
4902.64	-1.33227	2490512
4916.35	-1.37761	2494896
4929.17	-1.41595	2499385
4942.91	-1.45279	2504440
4955.75	-1.48279	2508869
4969.5	-1.50927	2513829
4982.34	-1.52741	2517816
4996.09	-1.53817	2522732
5008.92	-1.53472	2527198
5022.68	-1.52747	2532267
5035.51	-1.51754	2536806
5049.27	-1.5034	2542243
5062.13	-1.48662	2546616
5074.99	-1.46597	2550638
5088.94	-1.43938	2555375
5101.98	-1.41079	2559329
5115.95	-1.37649	2563839
5129.04	-1.3366	2568499
5143.21	-1.26727	2572682
5156.48	-1.20374	2577562
5169.78	-1.13494	2581684
5183.93	-1.03622	2586627
5197.12	-0.947514	2590876
5210.28	-0.86369	2595296
5224.21	-0.77733	2599694
5237.22	-0.698421	2603443
5250.32	-0.620354	2606754
5263.47	-0.543508	2609884
5277.56	-0.462852	2612681
5290.87	-0.388284	2616210
5304.21	-0.315245	2619148
5317.79	-0.24345	2622920
5330.3	-0.180246	2626194
5343.59	-0.116668	2629730
5357.87	-0.0528491	2633146
5371.21	0.00207065	2636275
5384.26	0.0509893	2639099
5397.95	0.0971183	2642244
5412.02	0.138557	2646062
5425.2	0.171708	2649313
5438.46	0.19963	2652774
5451.59	0.222067	2655956
5465	0.240592	2659899
5479.33	0.2495	2664251
5492.75	0.252626	2669268
5505.89	0.253913	2673845
5519.21	0.254184	2677481
5533.54	0.253714	2681161
5547.87	0.252303	2684677
5561.9	0.249899	2688632
5575.79	0.24669	2692282
5589.57	0.242841	2695422
5602.7	0.238674	2698586
5616.65	0.233906	2702116
5630.16	0.222057	2705546
5642.58	0.213979	2709071
5655.84	0.204233	2712445
5669.19	0.192967	2716568
5682.45	0.182115	2721125
5696.67	0.170506	2726097
5709.17	0.159536	2730095
5722.43	0.147281	2734306
5735.64	0.13472	2737838
5749.39	0.121275	2741664
5761.7	0.108914	2745085
5774.89	0.0953093	2747421
5788.1	0.0813287	2751541
5800.44	0.0680121	2754501
5813.56	0.0536425	2758558
5825.76	0.0401682	2761422
5838.9	0.0255792	2764139
5852.15	0.0108345	2767212
5864.43	-0.00277907	2770881
5876.83	-0.0164399	2774366
5890.04	-0.0308777	2778969
5902.23	-0.0440617	2782308
5915.36	-0.0581071	2785892
5927.47	-0.0708786	2788414
5940.49	-0.0843458	2791832
5952.7	-0.0965963	2795169
5965.78	-0.1092	2798654
5978.13	-0.120507	2802429
5990.52	-0.131257	2806730
6003.93	-0.142184	2811775
6016.32	-0.151588	2816543
6029.9	-0.161045	2821543
6043.08	-0.169232	2826893
6056.01	-0.17617	2832977
6069.05	-0.181954	2838372
6082.45	-0.186462	2843648
6094.84	-0.189175	2849130
6107.36	-0.190434	2854154
6119.88	-0.190167	2859843
6132.23	-0.188365	2866125
6144.6	-0.185074	2872097
6157.3	-0.180273	2878854
6169.7	-0.17454	2885504
6182.04	-0.167486	2893253
6194.36	-0.15901	2900255
6206.68	-0.149754	2907538
6219.06	-0.139514	2914313
6231.62	-0.128562	2920921
6243.95	-0.117088	2926383
6256.26	-0.105051	2932831
6268.68	-0.0925586	2938480
6280.03	-0.0809413	2943584
6292.32	-0.0682613	2948664
6304.75	-0.0554722	2954803
6317.36	-0.0426191	2959518
6329.81	-0.0301572	2963064
6341.12	-0.0191097	2966437
6353.56	-0.0073583	2969777
6365.97	0.00387896	2973851
6377.3	0.0136622	2977517
6389.53	0.0236545	2981912
6401.73	0.0329945	2987535
6413.03	0.041056	2993382
6425.13	0.0490377	2999826
6436.4	0.0558465	3006240
6448.6	0.0625262	3012168
6460.92	0.0685418	3018757
6472.5	0.0735302	3024293
6483.81	0.0778074	3030549
6495.92	0.0817595	3036506
6507.08	0.0848563	3040457
6518.26	0.0874562	3045832
6530.35	0.0897418	3051679
6541.64	0.0914184	3056780
6553	0.0926785	3061597
6565.12	0.093583	3067400
6576.57	0.0940539	3072333
6588.14	0.0944041	3077495
6599.98	0.0939188	3083925
6611.59	0.0941928	3089399
6624	0.0934587	3095097
6635.94	0.092718	3100627
6647.84	0.0919381	3105800
6659.68	0.0912208	3111185
6671.36	0.0904754	3117025
6683.16	0.0897216	3121745
6695.31	0.088957	3127569
6707.47	0.0881099	3132063
6719.62	0.0875612	3137482
6731.77	0.0870409	3142600
6743.92	0.0864273	3148028
6756.08	0.0857106	3153518
6768.23	0.0848721	3158545
6780.38	0.0838388	3163392
6792.54	0.0825433	3168951
6804.69	0.0809355	3174297
6816.83	0.0789797	3180060
6828.93	0.0764715	3185735
6840.46	0.0732844	3192302
6851.83	0.0699387	3197902
6862.39	0.0668312	3202936
6873.94	0.0624903	3209522
6885.35	0.05681	3215649
6896.77	0.0514442	3221414
6908.17	0.045756	3226706
6918.58	0.0403411	3232148
6929.94	0.0339739	3238046
6941.32	0.0270438	3243294
6951.75	0.020467	3249304
6963.12	0.013163	3255135
6973.54	0.00709126	3260936
6984.91	0.000394897	3267518
6996.33	-0.00885485	3273499
7006.78	-0.0165457	3279278
7018.26	-0.0245596	3285598
7028.95	-0.0314856	3290566
7040.48	-0.0386668	3296131
7050.93	-0.0448039	3300996
7062.32	-0.0510117	3306128
7073.03	-0.0564429	3311258
7084.6	-0.06185	3316626
7095.13	-0.0663519	3321486
7106.69	-0.0708441	3327927
7117.34	-0.0745402	3333357
7128.96	-0.0781042	3339542
7139.6	-0.0809072	3345220
7150.27	-0.0835709	3351210
7161.96	-0.0861355	3357476
7172.61	-0.0882465	3363202
7183.3	-0.0902466	3368639
7193.84	-0.0920169	3373103
7205.27	-0.0937491	3378394
7215.89	-0.09523	3383347
7226.56	-0.0965866	3388102
7237.23	-0.0978389	3392611
7248.84	-0.0992447	3397806
7259.42	-0.100553	3402281
7269.97	-0.10067	3406318
7280.31	-0.100719	3410273
7290.62	-0.100711	3413591
7301.95	-0.100308	3418495
7312.16	-0.100087	3423328
7322.37	-0.0993459	3427795
7332.57	-0.0985409	3432191
7342.79	-0.0975467	3437005
7353.03	-0.0963498	3441018
7363.24	-0.0949285	3444750
7373.57	-0.0932657	3448136
7383.8	-0.091401	3452024
7394.04	-0.0893198	3455991
7404.3	-0.0870144	3460274
7414.59	-0.0844699	3464068
7424.9	-0.0816938	3468037
7435.09	-0.0787299	3472027
7445.3	-0.0755599	3476158
7455.52	-0.072192	3480476
7465.84	-0.0686052	3483803
7476.21	-0.0648746	3487578
7486.47	-0.0606889	3492447
7496.67	-0.054817	3496188
7506.96	-0.0491145	3500881
7517.41	-0.0430362	3504456
7527.96	-0.0367392	3508975
7538.39	-0.0305847	3512486
7547.68	-0.0248136	3515588
7557.95	-0.0180541	3520123
7568.44	-0.0109466	3523919
7578.68	-0.00399154	3527988
7589.14	0.00309071	3531322
7600.03	0.0105825	3535093
7609.82	0.0175197	3538552
7620.58	0.0253698	3542623
7631.31	0.0333337	3546085
7642.05	0.0413308	3549685
7652.93	0.0493721	3553415
7662.84	0.0566446	3556208
7673.74	0.0646182	3559412
7684.66	0.0725672	3562040
7695.72	0.0805335	3565631
7706.76	0.0883445	3569131
7716.8	0.0953065	3572977
7727.84	0.102818	3577142
7738.88	0.110193	3580763
7748.92	0.116788	3584098
7759.96	0.123921	3588215
7771	0.130921	3592271
7782.04	0.137774	3596873
7792.07	0.143857	3600396
7803.11	0.150361	3604827
7813.15	0.156074	3608824
7823.97	0.161974	3612534
7834.87	0.16761	3617025
7844.77	0.172444	3620199
7855.66	0.177425	3624920
7866.56	0.18204	3628774
7876.46	0.185901	3632942
7887.25	0.189726	3637793
7896.63	0.192715	3641945
7906.95	0.195628	3646707
7916.38	0.197939	3650524
7926.7	0.200077	3654969
7936.1	0.201668	3659161
7946.52	0.203033	3664585
7955.96	0.203914	3669245
7966.7	0.204517	3673819
7976.23	0.204704	3677725
7986.79	0.204539	3682279
7996.49	0.204052	3686189
8007.28	0.203145	3691221
8016.89	0.202023	3695798
8027.33	0.200485	3700655
8036.9	0.198802	3704429
8047.26	0.196711	3709031
8056.67	0.194594	3713203
8066.1	0.192298	3716549
8076.72	0.189534	3721109
8086.31	0.186914	3724859
8095.72	0.184263	3728471
8105.56	0.181437	3731129
8116.37	0.178301	3735419
8126.07	0.175487	3739001
8135.82	0.172683	3743021
8145.65	0.169898	3747842
8156.46	0.1669	3751697
8166.37	0.164228	3755027
8176.49	0.161578	3759816
8186.45	0.159057	3763874
8196.39	0.156628	3767951
8207.06	0.154118	3772289
8216.55	0.151962	3776099
8226.12	0.149853	3779213
8235.97	0.147729	3782272
8245.53	0.145689	3785781
8255.02	0.143664	3789230
8265.4	0.141422	3793277
8274.79	0.139344	3798006
8284.22	0.137183	3801832
8293.64	0.134921	3806264
8303.07	0.132524	3811046
8312.57	0.129946	3815142
8322.08	0.12718	3819246
8331.61	0.124203	3824137
8341.19	0.12099	3828799
8350.57	0.117619	3832842
8360.89	0.113651	3837331
8370.27	0.10981	3841041
8379.7	0.105737	3844463
8389.25	0.101407	3848244
8398.76	0.0969142	3851735
8408.24	0.0922651	3854654
8417.73	0.0874714	3857250
8427.4	0.0824572	3860255
8437.04	0.0773598	3864122
8446.55	0.072255	3867148
8456.24	0.0669995	3870770
8465.96	0.0617035	3874052
8475.66	0.0564187	3877222
8485.3	0.0511953	3880430
8494.86	0.0460784	3883438
8504.44	0.0410326	3885937
8514.07	0.0360803	3888554
8523.87	0.0311863	3891882
8533.55	0.0265216	3894595
8543.21	0.022063	3897549
8552.81	0.0178474	3900482
8562.33	0.0139035	3904072
8570.94	0.0105466	3906370
8580.52	0.00706395	3909729
8590.01	0.00389693	3912374
8599.52	0.0010103	3915667
8609.2	-0.00162407	3918555
8618.78	-0.00392987	3921642
8628.49	-0.00596181	3925108
8637.07	-0.00750668	3927782
8646.65	-0.00895862	3931653
8656.07	-0.0101083	3934350
8665.49	-0.0110111	3937445
8674.94	-0.011703	3940188
8683.45	-0.0120018	3943219
8692.89	-0.0123934	3946462
8702.41	-0.0126732	3949581
8711.9	-0.0127764	3952240
8721.49	-0.012765	3955021
8730.18	-0.0124594	3957507
8739.87	-0.0120998	3961441
8749.58	-0.0115907	3963703
8759.22	-0.0112822	3966121
8767.93	-0.0110896	3967643
8777.73	-0.0108584	3970104
8787.6	-0.0106881	3972824
8797.25	-0.0106551	3975815
8805.9	-0.0106536	3978523
8815.42	-0.0113574	3980965
8825	-0.0117428	3983787
8834.65	-0.0122591	3986285
8843.22	-0.0129367	3988725
8852.56	-0.0138888	3990942
8861.84	-0.0148858	3993448
8870.19	-0.0159473	3995331
8879.47	-0.0174067	3997386
8888.75	-0.019103	4000464
8897.21	-0.0208133	4002640
8906.97	-0.0229609	4005371
8915.35	-0.0249542	4007514
8924.82	-0.0273787	4009952
8934.37	-0.0300255	4012479
8942.9	-0.0325397	4015178
8952.22	-0.0354375	4017934
8961.49	-0.0385392	4020435
8969.92	-0.0414684	4022729
8979.22	-0.0447359	4024633
8988.49	-0.0479943	4026522
8996.84	-0.0509246	4028773
9006.12	-0.0541918	4030628
9014.47	-0.0571519	4032661
9023.76	-0.0604536	4034681
9032.12	-0.063406	4036978
9041.41	-0.0666207	4040601
9050.74	-0.069733	4043565
9059.13	-0.0723974	4046361
9068.49	-0.075202	4049133
9076.98	-0.0775878	4051876
9086.47	-0.0800808	4054726
9094.94	-0.0821543	4058390
9104.36	-0.0842837	4062558
9112.85	-0.0860346	4066025
9122.25	-0.0877748	4070421
9130.6	-0.0891325	4074620
9139.99	-0.0904503	4078808
9148.5	-0.0914576	4083044
9157.96	-0.092385	4087024
9166.47	-0.0930644	4090980
9175.92	-0.0936702	4096020
9184.43	-0.0941002	4100767
9192.93	-0.0944369	4104121
9202.25	-0.0947164	4109518
9210.65	-0.0949013	4112825
9220	-0.0950489	4117085
9228.45	-0.0951435	4120187
9236.97	-0.0952153	4123398
9246.44	-0.0952836	4127856
9254.94	-0.0953491	4131381
9263.41	-0.0954313	4134805
9272.74	-0.0955564	4138890
9281.11	-0.0957115	4141946
9289.49	-0.095918	4144892
9298.87	-0.0962205	4147909
9307.32	-0.096564	4150110
9316.72	-0.0970295	4152634
9325.09	-0.0975186	4156518
9333.45	-0.0980766	4158807
9341.84	-0.0987015	4162075
9351.17	-0.0994692	4164785
9359.58	-0.100219	4168036
9368.01	-0.101018	4170432
9377.39	-0.101953	4174239
9385.86	-0.102828	4175951
9394.44	-0.103729	4178491
9403.92	-0.104733	4180990
9412.43	-0.105623	4183879
9420.93	-0.10649	4186334
9429.39	-0.107317	4188759
9438.77	-0.108176	4191253
9447.22	-0.108883	4192408
9455.64	-0.10951	4193830
9463.99	-0.110044	4195336
9473.28	-0.11052	4196515
9481.87	-0.110838	4197166
9490.41	-0.111026	4198545
9498.94	-0.11108	4200513
9508.34	-0.110975	4202720
9516.69	-0.110733	4203585
9525.04	-0.110349	4205118
9533.39	-0.109824	4206317
9542.69	-0.109075	4207955
9551.18	-0.108245	4209287
9559.53	-0.107295	4210669
9568.05	-0.106199	4211855
9576.53	-0.10499	4214180
9585.88	-0.103532	4216186
9594.22	-0.102132	4217448
9602.57	-0.100653	4218759
9610.93	-0.0991105	4219581
9620.22	-0.0973405	4220180
9628.63	-0.0957056	4221009
9637.04	-0.0940578	4222871
9645.64	-0.0923711	4223158
9654.2	-0.0907072	4223868
9663.66	-0.0889038	4224480
9672.03	-0.0873587	4225038
9680.4	-0.0858777	4225178
9688.76	-0.0844721	4226263
9697.12	-0.0831465	4225784
9705.47	-0.0819093	4226038
9714.76	-0.0806425	4226291
9723.16	-0.079593	4226774
9731.62	-0.0786264	4227552
9740.05	-0.0777552	4228735
9748.5	-0.0769743	4229080
9757.92	-0.0762069	4229655
9766.3	-0.0756131	4230083
9774.77	-0.0750878	4230453
9783.19	-0.0746274	4230455
9791.57	-0.0742246	4230107
9799.94	-0.0739282	4229840
9809.35	-0.0736664	4228784
9817.92	-0.0731672	4228304
9826.41	-0.0725364	4227897
9834.83	-0.0718426	4227092
9843.28	-0.0713623	4226871
9851.67	-0.0723157	4226599
9860.99	-0.070927	4226784
9869.37	-0.069614	4226946
9877.76	-0.0682359	4227201
9886.32	-0.066928	4226529
9894.82	-0.0655151	4227466
9904.22	-0.0637392	4227977
9912.64	-0.0620405	4229531
9921.09	-0.0601726	4230421
9929.5	-0.058084	4232758
9937.86	-0.0558196	4233414
9946.22	-0.0534232	4235612
9955.53	-0.0506219	4236207
9963.91	-0.0479681	4237362
9972.45	-0.0451118	4239035
9980.97	-0.0421017	4240557
9989.38	-0.0389857	4243082
9997.72	-0.0357852	4244791
10007	-0.0321409	4247750
10015.3	-0.0288197	4249482
10023.7	-0.0254659	4251168
10032.2	-0.0220795	4251858
10040.7	-0.0187076	4253995
10049.1	-0.0153664	4256660
10057.5	-0.0120444	4258209
10066.9	-0.00839814	4260553
10075.3	-0.0051953	4261964
10083.8	-0.00207912	4263613
10092.3	0.000905539	4265166
10100.7	0.00374079	4267379
10109	0.00643122	4268466
10117.3	0.00898117	4269721
10125.7	0.0113926	4271055
10135.2	0.0139221	4272230
10143.7	0.0160172	4274138
10152.1	0.0179166	4275877
10160.4	0.0196245	4277553
10168.8	0.021148	4279704
10177.3	0.0224942	4281082
10185.7	0.0236485	4283777
10194.2	0.0246087	4286937
10202.7	0.0253687	4289336
10211.2	0.0259327	4292910
10219.6	0.0263181	4296032
10228	0.0263432	4299747
10236.4	0.0262573	4303309
10244.9	0.0261084	4307389
10253.3	0.0257782	4311071
10261.7	0.0252355	4314539
10270.1	0.0244852	4317635
10278.5	0.023525	4320524
10286.9	0.0223838	4323609
10295.3	0.0210948	4326507
10303.7	0.0196723	4329018
10312.2	0.0181153	4330965
10320.7	0.016395	4333044
10329.2	0.0145455	4334956
10337.7	0.0125563	4337197
10346.2	0.0104328	4340038
10354.7	0.00817638	4341732
10363.2	0.00582058	4342987
10371.6	0.00337148	4345695
10380.1	0.000827582	4347321
10388.6	-0.00179419	4350005
10397	-0.00449301	4353093
10405.4	-0.00726855	4355051
10413	-0.00979917	4357335
10421.5	-0.0127256	4359769
10430	-0.0157116	4361999
10438.5	-0.018742	4364440
10447	-0.021829	4366660
10455.5	-0.0249757	4368140
10464	-0.0281703	4371148
10472.3	-0.0313595	4373557
10479.8	-0.0342239	4375490
10488.1	-0.0374846	4378207
10496.5	-0.0407781	4381203
10504.9	-0.0441282	4383396
10513.4	-0.04754	4386038
10521.9	-0.0509725	4388910
10530.2	-0.0543652	4392579
10537.7	-0.0573643	4396018
10546	-0.060723	4399174
10554.4	-0.0640761	4402699
10562.8	-0.0674286	4405395
10571.1	-0.0707822	4408294
10579.6	-0.0741719	4411682
10587	-0.0771551	4415131
10595.5	-0.0805364	4418410
10603.9	-0.0838521	4423041
10612.2	-0.0871308	4426314
10619.6	-0.0900138	4429696
10628	-0.0932175	4433700
10636.3	-0.0963775	4436444
10644.7	-0.0994944	4439409
10652.1	-0.102223	4442041
10660.5	-0.105243	4445048
10668.9	-0.108207	4446986
10677.3	-0.11111	4451141
10684.9	-0.113666	4453242
10693.5	-0.116454	4455521
10701.9	-0.119102	4458820
10709.5	-0.121404	4461316
10718	-0.123904	4464278
10726.5	-0.126284	4467272
10735	-0.128577	4469882
10742.5	-0.130482	4472840
10751	-0.132549	4475031
10759.7	-0.134523	4478092
10767.4	-0.136167	4481771
10775.9	-0.137875	4485641
10784.5	-0.139449	4488587
10792.1	-0.140736	4491535
10800.6	-0.142045	4494579
10809	-0.143215	4497776
10816.6	-0.144139	4500323
10825	-0.145055	4503261
10833.5	-0.145833	4506181
10841.1	-0.1464	4509030
10849.5	-0.146915	4512544
10856.9	-0.147274	4515207
10865.3	-0.147567	4518534
10873.6	-0.147749	4521317
10881	-0.147813	4523732
10889.5	-0.147764	4527176
10897.1	-0.147605	4529015
10905.5	-0.147302	4530805
10913.1	-0.146926	4532903
10921.5	-0.146393	4534498
10929.9	-0.145743	4537278
10937.5	-0.145063	4539810
10946	-0.144193	4542353
10953.4	-0.143329	4545775
10961.8	-0.142257	4548923
10969.3	-0.14121	4552228
10977.7	-0.139929	4554647
10985.1	-0.138698	4557304
10993.5	-0.137212	4559004
11000.9	-0.135801	4561041
11009.4	-0.134099	4563550
11016.9	-0.132491	4564459
11025.3	-0.130578	4566231
11032.8	-0.128781	4567675
11041.3	-0.126649	4568519
11048.8	-0.12466	4568538
11057.3	-0.122313	4568679
11064.9	-0.120116	4569745
11073.4	-0.117549	4570429
11080.9	-0.115181	4571922
11089.3	-0.112414	4572991
11096.9	-0.109856	4573452
11105.3	-0.10687	4573845
11112.9	-0.104122	4574435
11121.3	-0.100928	4574303
11128.9	-0.0979863	4575209
11137.4	-0.0945624	4576740
11145	-0.0914383	4577651
11152.7	-0.0882245	4579123
11161.1	-0.0845723	4580260
11168.6	-0.0812559	4580892
11177	-0.0774488	4581740
11184.6	-0.0740002	4582550
11193.1	-0.0700189	4584366
11200.6	-0.0664375	4584900
11209.1	-0.0623744	4586519
11216.6	-0.0587106	4588315
11225.1	-0.0545041	4590034
11232.6	-0.0507268	4591356
11241.1	-0.0464343	4592808
11248.6	-0.0425951	4594150
11257.1	-0.038241	4594887
11264.7	-0.0343435	4595468
11273.2	-0.0299226	4594585
11280.7	-0.0260061	4594970
11289.3	-0.0215693	4594752
11296.8	-0.0176354	4594612
11305.4	-0.0132277	4594487
11312.9	-0.00934606	4594291
11321.3	-0.00504754	4594053
11328.7	-0.00128587	4594197
11336.9	0.00288292	4594904
11344.2	0.00654533	4596300
11351.5	0.0101603	4598024
11359.7	0.0141873	4599575
11366.9	0.017729	4601103
11375.1	0.0216681	4602978
11382.4	0.0251271	4605268
11390.6	0.0289685	4606500
11397.8	0.0323369	4609017
11405.1	0.0356602	4611119
11413.3	0.0393436	4612861
11420.6	0.0425673	4614253
11428.7	0.0461363	4615608
11436	0.0492568	4617002
11443.3	0.052328	4617784
11451.5	0.0557234	4619287
11458.7	0.0586882	4620640
11466.9	0.0619629	4621285
11474.2	0.0648189	4622764
11482.4	0.0679694	4624679
11489.6	0.0707134	4626550
11496.9	0.0734035	4630055
11505.1	0.0763648	4632392
11512.3	0.0789389	4634468
11519.6	0.0814583	4636836
11527.8	0.0842279	4638540
11535.1	0.086633	4640840
11543.3	0.0892759	4643015
11550.5	0.0915707	4645996
11557.8	0.0938155	4648300
11566	0.0962827	4650584
11573.2	0.0984255	4652994
11580.5	0.100522	4655315
11588.7	0.102827	4658048
11596	0.10483	4660059
11603.2	0.10679	4662476
11611.4	0.108947	4664048
11618.7	0.110829	4665471
11626.1	0.112686	4666925
11634.5	0.114743	4669107
11641.9	0.116534	4669834
11649.3	0.118285	4671145
11657.7	0.120211	4671479
11665.1	0.121883	4672099
11672.6	0.123521	4672245
11680.1	0.12513	4673806
11688.6	0.126928	4674465
11696.2	0.128482	4675954
11703.7	0.12999	4677949
11711.3	0.131463	4678581
11719.7	0.133079	4680315
11727.3	0.134482	4682008
11734.9	0.135863	4683245
11743.5	0.13738	4685327
11751.2	0.138695	4686887
11758.8	0.139975	4689158
11766.5	0.141218	4691642
11775.1	0.142562	4694389
11782.8	0.143712	4696118
11790.5	0.144822	4698640
11798.1	0.145897	4700905
11806.7	0.147064	4703147
11814.4	0.14806	4705337
11822	0.149014	4707462
11830.6	0.150038	4709592
11838.3	0.150902	4711793
11845.9	0.151722	4713531
11853.6	0.152507	4715394
11862.1	0.153335	4715961
11869.7	0.154026	4716821
11877.3	0.154674	4717188
11884.9	0.155279	4717679
11892.5	0.155842	4717826
11901.2	0.156423	4718694
11908.8	0.15689	4719275
11916.5	0.15731	4720064
11924.1	0.15768	4720907
11932.5	0.158039	4721024
11940.1	0.158311	4722010
11947.6	0.158538	4722972
11955.2	0.158723	4723962
11963.6	0.158875	4725352
11971.1	0.158964	4726846
11978.6	0.159009	4727756
11986.1	0.159012	4728773
11993.6	0.158971	4729608
12002.1	0.158876	4730561
12009.6	0.158746	4731367
12017.1	0.158576	4732484
12024.6	0.158366	4733072
12033	0.158085	4733128
12040.4	0.157795	4733483
12048	0.157466	4734603
12055.6	0.157098	4735535
12063.1	0.1567	4736220
12071.6	0.156212	4737567
12079.1	0.155747	4738129
12086.5	0.155255	4739151
12094.1	0.154729	4740032
12101.7	0.154181	4741797
12110.2	0.153536	4743603
12117.8	0.152933	4745113
12125.3	0.152312	4746961
12132.9	0.151674	4748696
12140.5	0.151008	4750503
12148	0.150329	4752185
12156.5	0.149546	4753523
12164	0.148831	4754855
12171.6	0.1481	4755665
12179.1	0.147355	4757038
12186.6	0.146602	4757780
12194.1	0.145841	4758523
12201.6	0.145075	4759402
12210.1	0.144209	4759521
12217.7	0.143438	4760237
12225.4	0.142672	4760603
12233	0.141918	4760061
12240.7	0.141175	4759433
12248.3	0.140457	4759167
12255.8	0.139765	4759183
12264.2	0.139011	4759674
12271.8	0.138365	4759911
12279.3	0.137746	4759840
12286.9	0.137155	4759930
12294.5	0.136618	4760119
12302.1	0.13614	4760146
12309.7	0.135532	4760490
12317.3	0.13516	4760829
12325.8	0.134469	4762235
12333.4	0.134029	4762323
12341	0.133994	4763119
12348.5	0.133801	4763858
12356.1	0.133533	4764538
12363.7	0.133265	4765893
12371.2	0.133025	4767598
12378.8	0.132821	4768155
12386.5	0.132653	4769022
12395.1	0.132508	4769575
12402.8	0.132418	4769905
12410.4	0.132361	4770550
12418	0.132333	4771423
12425.6	0.132332	4771592
12433.2	0.13235	4771826
12440.7	0.132384	4772337
12448.2	0.132428	4773360
12455.8	0.132477	4775324
12463.4	0.132528	4776570
12471.1	0.132575	4778003
12479.7	0.132617	4779908
12487.4	0.132585	4781678
12495	0.132318	4783037
12502.7	0.132136	4784977
12510.3	0.132108	4787188
12517.9	0.132139	4788858
12525.6	0.132135	4790946
12533.3	0.132055	4793205
12540.9	0.131898	4794909
12548.6	0.131676	4796724
12556.3	0.131396	4798856
12563.9	0.131054	4800959
12571.6	0.130642	4803346
12580.2	0.130085	4806098
12587.9	0.1295	4808457
12595.6	0.128825	4810206
12603.3	0.128057	4812682
12610.9	0.127195	4814791
12618.6	0.126234	4817164
12626.3	0.125171	4819451
12634	0.124002	4822181
12641.6	0.122726	4824235
12649.3	0.121348	4827169
12656.7	0.119913	4829483
12664.4	0.118357	4830699
12672.1	0.116719	4832018
12679.7	0.115036	4833107
12687.4	0.113376	4834793
12694.9	0.111476	4834665
12702.4	0.110707	4835134
12710	0.109044	4835877
12718.6	0.105942	4836506
12726.3	0.102813	4836917
12733.9	0.0997512	4837849
12740.4	0.0972274	4838144
12747.9	0.0943087	4838716
12756.2	0.0910447	4838505
12763.7	0.0880621	4838312
12771.4	0.0848933	4837806
12779.1	0.0815574	4837976
12786.7	0.0780272	4837833
12794.4	0.0743622	4838232
12801	0.0711673	4838938
12808.4	0.0675767	4839244
12815.9	0.0639601	4840193
12823.5	0.0602531	4840647
12831.2	0.0564716	4841255
12838.8	0.0526454	4841583
12846.5	0.0487799	4841978
12854.2	0.0448803	4843133
12861.6	0.0410691	4844706
12869.1	0.0372327	4845981
12876.6	0.0333312	4847019
12884.3	0.0293382	4848549
12891.8	0.0254076	4850141
12899.3	0.0214699	4851820
12907	0.0174497	4853396
12914.7	0.0134287	4855052
12922.3	0.00941281	4856385
12930	0.0054191	4858891
12937.5	0.00151168	4860333
12945	-0.00237156	4861376
12952.6	-0.00622766	4862576
12960.2	-0.0100967	4864241
12967.8	-0.013939	4865875
12974.5	-0.0172502	4866786
12982	-0.0209515	4867849
12989.6	-0.0245923	4868285
12997.1	-0.0281697	4869305
13004.6	-0.0316906	4869742
13012.1	-0.0351693	4870580
13019.7	-0.0385737	4871075
13027.2	-0.0419232	4872164
13034.8	-0.0451938	4872453
13042.3	-0.0483955	4873423
13049.9	-0.0515072	4873960
13057.4	-0.0545486	4874670
13065	-0.0575229	4875740
13072.6	-0.0604106	4875554
13080.1	-0.0631978	4876493
13087.7	-0.0658986	4875891
13095.2	-0.0685115	4876374
13102.7	-0.0710342	4877158
13110.3	-0.0734465	4877568
13117.8	-0.0758058	4877976
13125.5	-0.0781075	4878002
13133.1	-0.0802969	4878773
13140.7	-0.0824171	4879413
13148.3	-0.0843964	4880558
13155.9	-0.0862726	4881840
13163.4	-0.0880532	4883826
13170.1	-0.0895366	4886005
13177.6	-0.0911445	4887943
13185.2	-0.09268	4890662
13192.9	-0.094124	4892937
13200.5	-0.095479	4894946
13208	-0.0967345	4897563
13215.5	-0.0978624	4899442
13223.1	-0.0988471	4901612
13230.7	-0.0999221	4903467
13238.3	-0.100942	4905699
13244.9	-0.101764	4907550
13252.5	-0.102539	4909619
13260.1	-0.103191	4911865
13267.7	-0.10363	4914044
13275.3	-0.104009	4916087
13283	-0.104471	4918172
13290.6	-0.104933	4919913
13298.3	-0.105595	4921380
13305.8	-0.105953	4923760
13312.5	-0.106115	4925360
13320.2	-0.106207	4927001
13327.8	-0.106089	4928887
13335.5	-0.106076	4930880
13343.1	-0.106022	4932397
13350.7	-0.105901	4935608
13358.3	-0.106077	4937947
13365.9	-0.105943	4939342
13372.6	-0.105786	4940777
13380.2	-0.105548	4943232
13387.9	-0.105245	4945913
13395.5	-0.104882	4947443
13403.1	-0.104463	4949926
13410.7	-0.103995	4951805
13418.3	-0.103481	4952609
13424.9	-0.102993	4954353
13432.4	-0.10239	4956571
13439.9	-0.10174	4957864
13447.4	-0.101043	4958606
13455	-0.100296	4959876
13461.6	-0.0996035	4960936
13469.2	-0.0987723	4962016
13476.8	-0.0978973	4963455
13484.4	-0.096984	4964596
13492	-0.0960341	4965322
13499.6	-0.0950497	4965912
13507.2	-0.0940226	4967626
13513.8	-0.0931	4967576
13521.4	-0.0920233	4967782
13529	-0.0909372	4969191
13536.5	-0.0898425	4968514
13544.1	-0.088715	4968278
13551.6	-0.087559	4967360
13558.3	-0.086522	4967027
13565.8	-0.0854165	4966186
13573.2	-0.0842144	4965548
13580.6	-0.0829584	4964755
13587.1	-0.0818482	4964132
13594.5	-0.0805816	4963319
13602	-0.0793112	4963232
13609.6	-0.0780432	4963635
13617.2	-0.0767935	4963411
13623.8	-0.0757165	4964040
13631.3	-0.0745232	4964483
13638.7	-0.0733553	4964799
13646.1	-0.0722066	4965357
13653.6	-0.0710776	4965911
13661	-0.0699693	4966211
13667.5	-0.0690177	4966128
13675	-0.0679507	4967003
13682.4	-0.0669092	4967169
13690	-0.0658854	4967342
13697.6	-0.0648911	4968319
13704.2	-0.0640513	4968297
13711.8	-0.0631311	4968784
13719.4	-0.0622548	4968895
13726.9	-0.0614364	4969658
13734.4	-0.0606668	4971277
13740.9	-0.0600352	4971477
13748.3	-0.0593606	4972072
13755.7	-0.0587384	4971956
13763.2	-0.0581708	4972416
13770.6	-0.0576599	4972596
13777.1	-0.0572604	4972143
13784.5	-0.056858	4972659
13792	-0.0565126	4972780
13799.5	-0.0562239	4974085
13806	-0.0560171	4974969
13813.5	-0.055833	4975800
13820.9	-0.0557062	4976154
13828.3	-0.0556392	4976786
13835.6	-0.0556327	4977528
13842	-0.0556759	4978062
13849.3	-0.0557792	4978859
13856.5	-0.0559371	4979425
13863.8	-0.0561469	4980020
13870.1	-0.0563698	4980964
13877.3	-0.0566671	4982049
13884.5	-0.0570078	4983367
13891.8	-0.0573888	4983994
13899	-0.0578059	4984984
13905.2	-0.0581957	4985468
13912.4	-0.0586681	4986708
13919.5	-0.0591676	4987026
13926.6	-0.0596908	4987570
13933.8	-0.0602342	4987685
13940	-0.0607233	4988871
13947.2	-0.0612952	4990152
13954.3	-0.0618784	4990377
13961.4	-0.0624708	4990709
13967.7	-0.0629949	4991818
13974.8	-0.0635983	4992142
13982	-0.0642032	4993137
13989.1	-0.0648061	4993472
13996.2	-0.0654029	4994746
14002.5	-0.0659166	4995805
14009.6	-0.0664901	4996135
14016.8	-0.0670451	4996606
14023	-0.0675122	4997427
14030.2	-0.0680216	4997958
14037.3	-0.0685014	4998476
14044.4	-0.068948	4998701
14051.6	-0.0693585	4998957
14057.8	-0.0696856	4999330
14065	-0.0700203	5000140
14072.1	-0.0703108	5000598
14078.4	-0.0705271	5000516
14085.5	-0.0707292	5000586
14092.6	-0.0708815	5000458
14099.8	-0.0709825	5000060
14106.9	-0.0710311	5000574
14113.2	-0.0710299	5001405
14120.3	-0.0709779	5001569
14127.6	-0.0708695	5002748
14134.9	-0.0707037	5004122
14142.2	-0.0704806	5005825
14148.7	-0.0702347	5006889
14156.2	-0.0698956	5008232
14163.7	-0.0694951	5010444
14171.3	-0.0690316	5012458
14178.9	-0.0685049	5014025
14185.6	-0.0679952	5015798
14193.3	-0.0673588	5017014
14200.8	-0.0666779	5017111
14208.3	-0.0659472	5017257
14214.8	-0.0652699	5016842
14222.3	-0.0644525	5015790
14229.8	-0.0635904	5014639
14237.2	-0.062689	5014305
14244.9	-0.0617248	5012547
14251.5	-0.0608618	5011647
14259	-0.0598533	5010335
14266.4	-0.0588237	5008588
14273.9	-0.057758	5006285
14280.6	-0.0567898	5004077
14288.2	-0.0556782	5003316
14295.6	-0.0545668	5001425
14302.2	-0.0535864	5000236
14309.6	-0.0524548	4999821
14317.1	-0.0513214	4999003
14324.5	-0.0501864	4998778
14332	-0.049053	4997618
14338.5	-0.0480624	4996423
14346.1	-0.0469284	4995286
14353.6	-0.0457969	4994400
14361.3	-0.0446697	4994001
14368.9	-0.0435588	4992624
14375.6	-0.0426023	4992937
14383.3	-0.041529	4992370
14390.9	-0.0404787	4991556
14398.6	-0.0394537	4990756
14405.3	-0.0385789	4989502
14412.9	-0.0376059	4988183
14420.5	-0.0366786	4986202
14427.9	-0.0357905	4984737
14434.4	-0.0350386	4983999
14441.9	-0.0342074	4982333
14449.3	-0.0334076	4980234
14456.8	-0.0326407	4976877
14463.3	-0.0319971	4973977
14470.8	-0.0312927	4971518
14478.3	-0.030622	4968596
14485.7	-0.0299879	4965867
14493.2	-0.0293879	4963146
14499.7	-0.0288907	4961222
14507.2	-0.0283542	4958267
14514.6	-0.0278492	4955931
14522	-0.0273829	4954383
14529.4	-0.0269448	4952515
14537.1	-0.0265271	4951071
14543.7	-0.0261881	4949845
14551.3	-0.0258284	4947719
14558.9	-0.0255001	4945068
14566.5	-0.0251974	4943241
14574	-0.0249238	4940493
14581.6	-0.0246752	4936958
14589.1	-0.0244504	4935201
14595.7	-0.0242734	4933218
14603.2	-0.0240914	4930223
14610.7	-0.0239307	4927944
14618.1	-0.0237904	4924397
14625.5	-0.0236686	4921553
14633	-0.0235641	4919319
14640.4	-0.0234761	4917174
14647	-0.0234116	4915305
14654.5	-0.023352	4913353
14662	-0.0233067	4912341
14669.5	-0.0232748	4910533
14677	-0.0232554	4909168
14684.5	-0.0232476	4906994
14692.1	-0.0232505	4903589
14699.6	-0.0232631	4900188
14707.2	-0.0232844	4896693
14714.8	-0.023313	4892275
14722.4	-0.0233481	4888338
14729.9	-0.0233878	4883343
14737.5	-0.023431	4879417
14744.1	-0.0234709	4875260
14751.6	-0.0235174	4870343
14759.2	-0.0235639	4865564
14766.7	-0.0236091	4860326
14774.2	-0.0236512	4856054
14781.7	-0.0236895	4851848
14789.2	-0.0237224	4846794
14796.7	-0.0237482	4841618
14804.3	-0.0237651	4836922
14811.8	-0.023772	4832375
14819.4	-0.0237686	4827903
14826.9	-0.0237556	4822407
14834.5	-0.0237332	4818053
14842.1	-0.0237013	4812981
14849.7	-0.0236584	4807552
14857.3	-0.0236031	4802109
14865	-0.0235336	4796605
14872.6	-0.0234478	4790518
14880.3	-0.0233438	4784619
14887.9	-0.0232197	4779383
14895.6	-0.0230737	4773981
14903.2	-0.0229043	4769438
14910.9	-0.0227109	4764544
14918.4	-0.0224938	4759838
14926	-0.0222501	4755452
14934.4	-0.0219422	4751193
14942	-0.0216368	4747012
14949.6	-0.0212957	4743679
14957.3	-0.0209191	4738919
14964.9	-0.0205089	4734987
14972.3	-0.0200713	4731225
14979.7	-0.0195933	4727779
14987.3	-0.0190668	4724334
14994.8	-0.0184988	4721443
15002.3	-0.0178865	4718847
15009.8	-0.0172311	4714793
15018.2	-0.0164406	4710799
15025.7	-0.0156867	4707118
15033.1	-0.014883	4703306
15040.7	-0.0140109	4699988
15048.3	-0.0130845	4695345
15055.9	-0.0121038	4690240
15063.4	-0.0110844	4685568
15070.8	-0.0100072	4681527
15079.2	-0.00872409	4675577
15086.6	-0.00751864	4671125
15094.1	-0.00624981	4665686
15101.5	-0.00492628	4659733
15109.7	-0.00337786	4653639
15117.1	-0.00194875	4648473
15124.4	-0.000473557	4642779
15131.7	0.00105485	4636544
15139.1	0.00263966	4630907
15147.3	0.00448887	4625151
15154.6	0.00619297	4620182
15162	0.00786679	4615202
15170.2	0.0097759	4609347
15177.5	0.0115385	4604203
15184.9	0.0134101	4600073
15192.2	0.0155546	4594941
15200.4	0.0184706	4589381
15207.8	0.0209584	4583414
15215.1	0.0233119	4578299
15223.4	0.0258221	4572031
15230.7	0.0280397	4566287
15238	0.0303076	4560296
15246.3	0.0328928	4555145
15253.6	0.0351812	4549586
15261.8	0.0377081	4542663
15269.2	0.0399028	4537024
15277.4	0.0423288	4530120
15284.7	0.0444621	4524698
15293	0.0468467	4517595
15300.3	0.0489568	4511586
15308.5	0.0513157	4506215
15315.9	0.0533872	4500173
15324.1	0.0556685	4494422
15331.5	0.0576346	4489834
15338.8	0.0595283	4484556
15347	0.06156	4478751
15355.3	0.0634798	4472876
15362.6	0.0650906	4467263
15370.8	0.0667962	4461624
15378.2	0.0682207	4456425
15386.5	0.069723	4450724
15393.8	0.070965	4445111
15402.1	0.0722508	4439231
15409.5	0.0732883	4433379
15417.9	0.0743305	4427493
15426.4	0.0752262	4421504
15433.9	0.0758966	4415302
15442.4	0.0765106	4408923
15450.9	0.0769779	4403067
15458.4	0.0772801	4397744
15466.9	0.0774585	4392029
15475.3	0.0774795	4386389
15482.9	0.0773193	4381819
15491.4	0.0772233	4375999
15499.9	0.076737	4370893
15507.5	0.0762057	4366100
15516	0.0754854	4360249
15524.4	0.074634	4353895
15532.9	0.0736511	4347062
15540.6	0.0726504	4341994
15549.1	0.0714159	4335941
15557.6	0.0700561	4329762
15566	0.0685933	4324172
15573.5	0.0672142	4318964
15582	0.0655742	4313835
15590.4	0.0638425	4308196
15598.9	0.0620306	4301986
15607.4	0.0601484	4295924
15615	0.0584019	4290739
15623.6	0.0563454	4283745
15632.1	0.0542234	4277959
15640.6	0.0520239	4272213
15649.2	0.0498601	4266296
15657.8	0.0476056	4260900
15666.4	0.0452124	4255311
15674.8	0.042619	4250334
15683.3	0.0397488	4245440
15691.7	0.0370192	4240972
15700.1	0.034416	4234276
15708.6	0.0318944	4229203
15717.1	0.0294199	4223897
15725.6	0.0269715	4218463
15734.1	0.0245441	4213200
15741.8	0.0224008	4208443
15751.3	0.019765	4201607
15759.9	0.017438	4195959
15768.4	0.0152021	4190140
15776.7	0.013048	4184825
15785.1	0.0109523	4179500
15793.4	0.00891341	4173520
15801.9	0.00693277	4167489
15810.3	0.00502421	4161324
15818.7	0.00318704	4154482
15827.2	0.00141393	4148361
15835.7	-0.000267705	4140447
15844.1	-0.00186418	4134099
15853.6	-0.00355704	4127173
15862.1	-0.00497959	4120889
15870.5	-0.00629693	4114466
15879	-0.00754682	4108312
15887.5	-0.0087116	4102031
15896.1	-0.00978938	4095610
15905.6	-0.0108877	4088454
15914.1	-0.0117894	4081730
15922.6	-0.0126088	4074644
15931	-0.0133403	4067844
15940.3	-0.0140715	4060798
15948.8	-0.0146627	4053547
15957.3	-0.0151891	4046839
15966.7	-0.0156903	4039508
15975.1	-0.016079	4033135
15983.6	-0.0164147	4026413
15993.1	-0.0167227	4018855
16001.7	-0.0169463	4012738
16010.1	-0.0171188	4005891
16019.5	-0.0172584	3998670
16027.9	-0.0173407	3993070
16037.1	-0.0173893	3986154
16045.4	-0.0173988	3980050
16054.8	-0.0173747	3973331
16063.3	-0.0173254	3967277
16072.6	-0.017245	3960237
16081	-0.0171535	3953117
16090.3	-0.0170349	3945223
16099.6	-0.0169032	3938340
16107.9	-0.0167775	3931765
16117.2	-0.0166342	3924270
16125.6	-0.0165059	3916963
16134.9	-0.016368	3908683
16143.2	-0.0162517	3902357
16152.5	-0.0161349	3894601
16161.8	-0.0160351	3887103
16170.2	-0.0159629	3880642
16179.5	-0.0159056	3873363
16188.8	-0.0158753	3865854
16197.2	-0.0158738	3859664
16206.5	-0.0159031	3853710
16215.8	-0.0159674	3847478
16224.1	-0.0160569	3841547
16233.5	-0.0161941	3834702
16242.9	-0.016373	3827316
16252.3	-0.0165952	3820684
16261.7	-0.0168596	3813884
16270	-0.0171307	3807061
16279.2	-0.017473	3799803
16288.6	-0.0178672	3791752
16298	-0.0183049	3783784
16307.3	-0.0187826	3776613
16316.6	-0.0193035	3769264
16326	-0.0198699	3760898
16335.4	-0.0204778	3753633
16344.8	-0.0211248	3746366
16354.4	-0.0218226	3738841
16363.9	-0.0225581	3731718
16373.5	-0.0233263	3725027
16382.7	-0.0241006	3718349
16392	-0.0249151	3712908
16401.3	-0.0257589	3707210
16410.7	-0.0266293	3700849
16420	-0.0275236	3694749
16429.3	-0.0284439	3687674
16438.8	-0.0293963	3681666
16448.2	-0.0303705	3675345
16457.6	-0.0313628	3668786
16468	-0.0324762	3661935
16477.4	-0.0335118	3655078
16486.9	-0.0345557	3648945
16496.3	-0.0356057	3643100
16505.4	-0.0366641	3637641
16514.7	-0.0377534	3632048
16525	-0.0389891	3625120
16534.4	-0.0401262	3618925
16543.8	-0.0412754	3612378
16554.1	-0.0425526	3606533
16563.5	-0.0437286	3601901
16572.9	-0.0449206	3595836
16582.3	-0.0461285	3590083
16592.5	-0.0474666	3583956
16601.8	-0.0487027	3578065
16611.1	-0.0499575	3572278
16621.3	-0.0513617	3566581
16630.7	-0.0526687	3561684
16641.1	-0.0541291	3556021
16650.4	-0.0554788	3549793
16659.8	-0.0568525	3543665
16670.2	-0.0583934	3538295
16679.6	-0.0598224	3533557
16689.9	-0.0614261	3527713
16699.3	-0.0629134	3522593
16709.6	-0.0645832	3516486
16719	-0.0661251	3510615
16729.4	-0.0678507	3504201
16738.8	-0.0694462	3498981
16749.2	-0.0712544	3492867
16759.7	-0.0730989	3487654
16769.2	-0.0748031	3481065
16779.5	-0.0766681	3475434
16788.8	-0.0783808	3470201
16799	-0.0802894	3463766
16809.3	-0.0822244	3456946
16818.7	-0.0840237	3449568
16829	-0.0860194	3441710
16839.5	-0.0880534	3433379
16850	-0.0901144	3425485
16859.5	-0.0919969	3418730
16869.9	-0.0940929	3411148
16880.4	-0.096223	3403327
16890.9	-0.0983889	3395568
16901.5	-0.100577	3387411
16912	-0.102777	3379469
16921.5	-0.104778	3372086
16932.1	-0.106965	3363558
16942.6	-0.109122	3356299
16953.1	-0.111234	3348393
16963.6	-0.113285	3340829
16974	-0.115263	3333015
16984.4	-0.117139	3325949
16995.6	-0.119059	3317829
17005.9	-0.12069	3310697
17016.3	-0.122181	3303147
17026.7	-0.123519	3296651
17037.2	-0.124714	3289045
17047.7	-0.12574	3281583
17059.1	-0.126655	3273857
17069.6	-0.127314	3266068
17080.1	-0.127787	3257973
17090.6	-0.128064	3250423
17102.1	-0.128133	3242008
17112.6	-0.127975	3233989
17123.1	-0.127596	3226452
17134.6	-0.126923	3218595
17145.1	-0.126065	3211581
17156.6	-0.124863	3203495
17167.1	-0.123522	3196196
17178.6	-0.121803	3189148
17189.1	-0.119999	3181907
17200.6	-0.117789	3174185
17211.1	-0.115549	3167115
17222.6	-0.112881	3159975
17234	-0.109987	3153858
17244.5	-0.107157	3148778
17255.8	-0.103898	3142693
17267.2	-0.100441	3136632
17278.6	-0.0967608	3130038
17289.1	-0.093157	3124548
17300.5	-0.0889835	3118438
17312	-0.0845611	3112012
17323.2	-0.0799972	3105573
17334.4	-0.07523	3100308
17344.8	-0.0706547	3094682
17356.3	-0.0654854	3088781
17367.8	-0.0602155	3081727
17379.2	-0.0548756	3073710
17390.7	-0.0494905	3066716
17402.2	-0.0440805	3059393
17413.5	-0.0387267	3052374
17424.7	-0.033471	3045096
17435.9	-0.0282053	3038683
17447.4	-0.0228713	3032657
17458.9	-0.0175996	3026534
17470.3	-0.0124073	3019987
17481.8	-0.00731105	3013840
17493.3	-0.00232707	3007601
17504.7	0.00252938	3002342
17516.2	0.007244	2996944
17528.6	0.0121761	2991083
17540.1	0.0165538	2985617
17551.6	0.0207526	2979779
17563	0.0247628	2974375
17574.5	0.0285766	2969771
17586.9	0.0324791	2963744
17598.4	0.0358652	2959175
17609.9	0.0390406	2953745
17621.4	0.0420042	2949172
17633.8	0.0449764	2944052
17645.2	0.0475022	2939748
17657.7	0.0500067	2934703
17669.1	0.0521097	2930302
17680.6	0.0540182	2926153
17693	0.055874	2921254
17704.5	0.0573994	2916269
17716.9	0.0588579	2910654
17728.4	0.0600338	2906012
17740.7	0.0611245	2900872
17752	0.0619745	2895673
17764.2	0.0627478	2890644
17775.5	0.0633347	2886031
17787.7	0.0638379	2880056
17799.1	0.0641918	2874674
17811.5	0.0644582	2868044
17822.8	0.0646062	2862980
17835.1	0.0646733	2856812
17846.5	0.0646588	2850456
17858.9	0.0645682	2843318
17871.2	0.0644094	2836531
17883.4	0.064194	2829658
17895.6	0.0639296	2822818
17906.9	0.0636506	2816720
17919.1	0.0633224	2810159
17931.3	0.062974	2803588
17943.7	0.0625166	2796077
17956.1	0.0620871	2788955
17968.5	0.0618932	2782569
17980.8	0.0616791	2776594
17993.1	0.0614062	2770626
18005.4	0.0610932	2764581
18017.7	0.0607601	2758546
18030.1	0.0604404	2753222
18042.5	0.0601562	2747919
18054.8	0.0599048	2743435
18067.1	0.0596788	2739706
18079.3	0.05947	2734408
18092.4	0.0592535	2729023
18104.7	0.059053	2723902
18116.9	0.0588489	2719148
18129.3	0.0586356	2714212
18141.7	0.0584121	2708549
18154	0.0581734	2703780
18166.1	0.057861	2699076
18179	0.0574647	2694182
18191.1	0.0570988	2688696
18203.1	0.0567389	2683555
18216.1	0.0563334	2677629
18228.2	0.0559112	2673253
18241.4	0.0553704	2667205
18253.7	0.0547731	2661540
18266.8	0.0540146	2656124
18279	0.0531876	2651918
18292.1	0.0521654	2647233
18304.5	0.0510658	2643149
18317.9	0.0497399	2638464
18330.9	0.0483014	2634542
18343	0.0467654	2630545
18356.3	0.044903	2625771
18368.5	0.0430915	2621723
18381.6	0.0410267	2617479
18394.7	0.0388832	2612441
18406.9	0.0367844	2607106
18420.2	0.0343886	2601737
18433.3	0.0319186	2596156
18445.4	0.0296542	2591284
18458.8	0.0268233	2585617
18472.1	0.0238109	2580158
18484.4	0.0202462	2575111
18497.7	0.017061	2569519
18511	0.0138001	2564134
18524.4	0.0105069	2559066
18537.7	0.007232	2553628
18551.1	0.00404698	2547557
18564.5	0.000885462	2542240
18577.8	-0.00225999	2536971
18591.2	-0.00535607	2531636
18604.5	-0.00840454	2526134
18616.9	-0.0112036	2521029
18630.3	-0.0141697	2515512
18643.6	-0.0170537	2509774
18657	-0.0198245	2504073
18670.3	-0.0224645	2497961
18684.6	-0.0251404	2491873
18698	-0.027492	2486304
18711.3	-0.0296995	2480594
18724.7	-0.0317615	2475003
18738	-0.0336799	2470314
18752.3	-0.035582	2465332
18765.7	-0.0372244	2460729
18780	-0.0388592	2456521
18793.4	-0.040292	2452893
18806.7	-0.0416663	2449157
18821	-0.0431164	2445230
18834.4	-0.0444893	2441728
18848.7	-0.0460153	2437470
18862	-0.0475291	2434565
18875.4	-0.0491061	2431674
18889.7	-0.0507566	2428008
18903	-0.0529524	2424501
18917.3	-0.0556094	2420874
18930.7	-0.060419	2417385
18945	-0.0634931	2413634
18958.4	-0.0657912	2410292
18972.7	-0.06836	2406893
18986	-0.0709214	2403114
19000.3	-0.0737143	2399727
19014.6	-0.0765124	2396803
19028	-0.0791291	2393960
19042.3	-0.0818933	2391596
19055.6	-0.0844088	2388885
19069.9	-0.0870358	2385813
19084.3	-0.0895681	2382671
19098.6	-0.0919412	2379530
19111.9	-0.093948	2376491
19126.2	-0.0958197	2372432
19140.5	-0.097358	2368532
19153.9	-0.0984535	2364952
19168.2	-0.0992154	2361009
19182.5	-0.0995023	2356550
19196.8	-0.0992735	2351989
19210.1	-0.0985662	2348061
19225.3	-0.0971166	2342700
19238.6	-0.0954718	2338615
19252.9	-0.0931894	2334199
19267.1	-0.0904035	2329892
19281.4	-0.0871871	2325606
19295.7	-0.0835237	2320426
19310	-0.0794087	2316097
19324.3	-0.0748283	2311383
19338.6	-0.0699084	2307031
19352.9	-0.0647415	2303248
19367.1	-0.0592863	2298725
19382.3	-0.0531767	2294203
19396.5	-0.0472434	2289988
19410.7	-0.0411554	2286234
19424.9	-0.0349427	2282485
19440.1	-0.0282134	2278179
19454.3	-0.0218343	2274572
19468.5	-0.0154239	2271185
19482.7	-0.00903963	2267629
19496.9	-0.00271207	2263667
19512.1	0.0040373	2259007
19526.3	0.0103921	2255478
19540.5	0.0167044	2252204
19555.7	0.0233538	2248544
19569.9	0.0294678	2244608
19585	0.0358808	2240401
19599.2	0.0417468	2236318
19613.4	0.0474434	2231999
19627.6	0.052932	2228600
19642.7	0.058528	2224438
19656.8	0.0635492	2221024
19671.8	0.0686659	2217332
19686	0.0732571	2213344
19701.2	0.0779224	2209228
19716.3	0.0823339	2205704
19730.5	0.0862462	2202266
19745.7	0.0901681	2198048
19759.9	0.0936158	2193850
19775.1	0.0970346	2189858
19789.3	0.0999908	2185397
19804.4	0.102869	2181318
19818.7	0.105302	2177381
19833.8	0.107596	2172857
19849	0.109534	2168894
19863.2	0.111174	2165239
19878.4	0.112563	2161118
19893.5	0.113543	2157958
19908.7	0.112679	2154386
19922.9	0.112701	2150713
19938.1	0.11303	2146915
19953.2	0.113162	2143035
19968.4	0.112572	2139544
19983.4	0.111788	2136531
19998.2	0.110763	2133463
