0	0
10.2954	0
20.5908	0
30.8863	0
41.1817	0
50.0063	0
60.3018	0
70.5972	0
80.8926	0
91.188	0
100.013	0
110.308	0
120.604	0
130.899	0
141.194	0
150.019	0
160.314	0
170.61	0
180.905	0
191.201	0
200.025	0
210.321	0
220.616	0
230.912	0
241.207	0
250.032	0
260.327	0
270.623	0
280.918	0
291.213	0
300.038	0
310.333	0
320.629	0
330.924	0
341.22	0
350.044	0
360.34	0
370.635	0
380.931	0
391.226	0
400.051	0
410.346	0
420.642	0
430.937	0
441.232	0
450.057	0
460.352	0
470.648	0
480.943	0
491.239	0
500.063	0
510.359	0
520.654	0
530.95	0
541.245	0
550.07	0
560.365	0
570.661	0
580.956	0
591.251	0
600.076	0
610.371	0
620.667	0
630.962	0
641.258	0
650.082	0
660.378	0
670.673	0
680.969	0
691.264	0
700.089	0
710.384	0
720.68	0
730.975	0
741.27	0
750.095	0
760.39	0
770.686	0
780.981	0
791.277	0
800.101	0
810.397	0
820.692	0
830.988	0
841.283	0
850.108	0
860.403	0
870.699	0
880.994	0
891.289	0
900.114	0
910.409	0
920.705	0
931	0
941.296	0
950.12	0
960.416	0
970.711	0
981.007	0
991.302	0
1000.13	0
1010.42	0
1020.72	0
1031.01	0
1041.31	0
1050.13	0
1060.43	0
1070.72	0
1081.02	0
1091.31	0
1100.14	0
1110.43	0
1120.73	0
1131.03	0
1141.32	0
1150.15	0
1160.44	0
1170.74	0
1181.03	0
1191.33	0
1200.15	0
1210.45	0
1220.74	0
1231.04	0
1241.33	0
1250.16	0
1260.45	0
1270.75	0
1281.04	0
1291.34	0
1300.16	0
1310.46	0
1320.76	0
1331.05	0
1341.35	0
1350.17	0
1360.47	0
1370.76	0
1381.06	0
1391.35	0
1400.18	0
1410.47	0
1420.77	0
1431.06	0
1441.36	0
1450.18	0
1460.48	0
1470.77	0
1481.07	0
1491.37	0
1500.19	0
1510.49	0
1520.78	0
1531.08	0
1541.37	0
1550.2	0
1560.49	0
1570.79	0
1581.08	0
1591.38	0
1600.2	0
1610.5	0
1620.79	0
1631.09	0
1641.38	0
1650.21	0
1660.5	0
1670.8	0
1681.1	0
1691.39	0
1700.22	0
1710.51	0
1720.81	0
1731.1	0
1741.4	0
1750.22	0
1760.52	0
1770.81	0
1781.11	0
1791.4	0
1800.23	0
1810.52	0
1820.82	0
1831.11	0
1841.41	0
1850.23	0
1860.53	0
1870.83	0
1881.12	0
1891.42	0
1900.24	0
1910.54	0
1920.83	0
1931.13	0
1941.42	0
1950.25	0
1960.54	0
1970.84	0
1981.13	0
1991.43	0
2000.25	0
2010.55	0
2020.84	0
2031.14	0
2041.44	0
2050.26	0
2060.56	0
2070.85	0
2081.15	0
2091.44	0
2100.27	0
2110.56	0
2120.86	0
2131.15	0
2141.45	0
2150.27	0
2160.57	0
2170.86	0
2181.16	0
2191.45	0
2200.28	0
2210.57	0
2220.87	0
2231.16	0
2241.46	0
2250.28	0
2260.58	0
2270.88	0
2281.17	0
2291.47	0
2300.29	0
2310.59	0
2320.88	0
2331.18	0
2340	0
2350.3	0
2360.59	0
2370.89	0
2381.18	0
2390.01	0
2400.3	0
2410.6	0
2420.89	0
2431.19	0
2440.01	0
2450.31	0
2460.61	0
2470.9	0
2481.2	0
2490.02	0
2500.32	0
2510.61	0
2520.91	0
2531.2	0
2540.03	0
2550.32	0
2560.62	0
2570.91	0
2581.21	0
2590.03	0
2600.33	0
2610.62	0
2620.92	0
2631.22	0
2640.04	0
2650.34	0
2660.63	0
2670.93	0
2681.22	0
2690.05	0
2700.34	0
2710.64	0
2720.93	0
2731.23	0
2740.05	0
2750.35	0
2760.64	0
2770.94	0
2781.23	0
2790.06	0
2800.35	0
2810.65	0
2820.95	0
2831.24	0
2840.07	0
2850.36	0
2860.66	0
2870.95	0
2881.25	0
2890.07	0
2900.37	0
2910.66	0
2920.96	0
2931.25	0
2940.08	0
2950.37	0
2960.67	0
2970.96	-9.09495e-13
2981.26	-5.45697e-12
2990.08	-1.00044e-11
3000.38	-1.63709e-11
3010.67	-2.27374e-11
3020.97	-2.81943e-11
3031.26	-3.45608e-11
3040.09	-3.91083e-11
3050.38	-4.54747e-11
3060.68	-5.18412e-11
3070.98	-5.72982e-11
3081.27	-6.36646e-11
3090.09	-6.91216e-11
3100.39	-7.82165e-11
3110.69	-9.27685e-11
3120.98	-1.15506e-10
3131.28	-1.49157e-10
3140.1	-1.92813e-10
3150.4	-2.66482e-10
3160.69	-3.76531e-10
3170.99	-5.38421e-10
3181.28	-7.7398e-10
3190.11	-1.05774e-09
3200.4	-1.52249e-09
3210.7	-2.18461e-09
3220.99	-3.1232e-09
3231.29	-4.44197e-09
3240.11	-5.98357e-09
3250.41	-8.42556e-09
3260.7	-1.1798e-08
3271	-1.64246e-08
3281.29	-2.27346e-08
3290.12	-2.99042e-08
3300.41	-4.09518e-08
3310.71	-5.57611e-08
3321	-7.54953e-08
3331.3	-1.01638e-07
3340.12	-1.30563e-07
3350.42	-1.73975e-07
3360.71	-2.3056e-07
3371.01	-3.03904e-07
3381.3	-3.98453e-07
3390.13	-5.00485e-07
3400.42	-6.49845e-07
3410.72	-8.39454e-07
3421.01	-1.0789e-06
3431.31	-1.37973e-06
3440.13	-1.69684e-06
3450.43	-2.15029e-06
3460.72	-2.71184e-06
3471.02	-3.40387e-06
3481.31	-4.25259e-06
3490.14	-5.12778e-06
3500.43	-6.35215e-06
3510.73	-7.83374e-06
3521.02	-9.61843e-06
3531.32	-1.17586e-05
3540.14	-1.3921e-05
3550.44	-1.68853e-05
3560.73	-2.03962e-05
3571.03	-2.45374e-05
3581.32	-2.94017e-05
3590.15	-3.42246e-05
3600.44	-4.07141e-05
3610.74	-4.8251e-05
3621.03	-5.69709e-05
3631.33	-6.70218e-05
3640.15	-7.6818e-05
3650.45	-8.97777e-05
3660.74	-0.000104563
3671.04	-0.000121374
3681.33	-0.000140424
3690.15	-0.000158706
3700.45	-0.000182528
3710.74	-0.000209275
3721.04	-0.000239217
3731.33	-0.000272634
3740.16	-0.000304267
3750.45	-0.000344932
3760.75	-0.000389951
3771.04	-0.000439656
3781.34	-0.000494391
3790.16	-0.000545579
3800.46	-0.000610604
3810.75	-0.000681701
3821.05	-0.000759251
3831.34	-0.000843646
3840.17	-0.000921731
3850.46	-0.00101989
3860.76	-0.00112604
3871.05	-0.0012406
3881.35	-0.00136396
3890.17	-0.00147702
3900.47	-0.00161782
3910.76	-0.0017686
3921.06	-0.00192975
3931.35	-0.00210165
3940.18	-0.00225785
3950.47	-0.00245072
3960.77	-0.0026554
3971.06	-0.00287221
3981.36	-0.00310146
3990.18	-0.00330808
4000.48	-0.00356117
4010.77	-0.00382743
4021.07	-0.00410706
4031.36	-0.0044002
4040.18	-0.0046623
4050.48	-0.00498077
4060.78	-0.0053129
4071.07	-0.00565864
4081.37	-0.00601786
4090.19	-0.00633634
4100.48	-0.00671998
4110.78	-0.00711628
4121.08	-0.00752478
4131.37	-0.0079449
4140.19	-0.00831373
4150.49	-0.00875349
4160.79	-0.00920252
4171.08	-0.0096597
4181.38	-0.0101238
4190.2	-0.0105259
4200.5	-0.0109987
4210.79	-0.0114737
4221.09	-0.0119488
4231.38	-0.0124215
4240.21	-0.0128229
4250.5	-0.0132843
4260.8	-0.0137351
4271.09	-0.0141717
4281.39	-0.0145905
4290.21	-0.0149319
4300.51	-0.0153056
4310.8	-0.0156481
4321.1	-0.015954
4331.39	-0.0162171
4340.22	-0.016404
4350.51	-0.0165706
4360.81	-0.016675
4371.1	-0.0167093
4381.4	-0.0166651
4390.22	-0.016558
4400.52	-0.016344
4410.82	-0.0160248
4421.11	-0.0155901
4431.41	-0.0150289
4440.23	-0.0144388
4450.53	-0.0136128
4460.82	-0.0126272
4471.12	-0.0114698
4481.41	-0.010128
4490.24	-0.00882154
4500.53	-0.00710355
4510.83	-0.00516464
4521.12	-0.00299204
4531.42	-0.000573115
4540.24	0.00170567
4550.54	0.00461455
4560.83	0.00780397
4571.13	0.0112849
4581.42	0.0150675
4590.25	0.0185571
4600.54	0.0229243
4610.84	0.0276174
4621.13	0.0326426
4631.43	0.038005
4640.25	0.0428724
4650.55	0.0488691
4660.85	0.0552089
4671.14	0.0618907
4681.44	0.0689117
4690.26	0.075196
4700.56	0.0828329
4710.85	0.0907904
4721.15	0.0990582
4731.44	0.107624
4740.27	0.115193
4750.56	0.124274
4760.86	0.133608
4771.15	0.143174
4781.45	0.152952
4790.27	0.161484
4800.57	0.171592
4810.86	0.181841
4821.16	0.192202
4831.45	0.202647
4840.28	0.211643
4850.57	0.222162
4860.87	0.232674
4871.16	0.243147
4881.46	0.253545
4890.28	0.262372
4900.58	0.27254
4910.87	0.282533
4921.17	0.292316
4931.47	0.301853
4940.29	0.309804
4950.59	0.31879
4960.88	0.32743
4971.18	0.335688
4980	0.342439
4990.3	0.349904
5000.59	0.356895
5010.89	0.363384
5021.18	0.369342
5030.01	0.374005
5040.3	0.378906
5050.6	0.383204
5060.89	0.386877
5071.19	0.389906
5080.01	0.391977
5090.31	0.393768
5100.6	0.394872
5110.9	0.395282
5121.19	0.394988
5130.02	0.394173
5140.31	0.392564
5150.61	0.390247
5160.9	0.387224
5171.2	0.383501
5180.02	0.37976
5190.32	0.374762
5200.62	0.369096
5210.91	0.362777
5221.21	0.355822
5230.03	0.349371
5240.33	0.341291
5250.62	0.332639
5260.92	0.323439
5271.21	0.313719
5280.04	0.304993
5290.33	0.294381
5300.63	0.283332
5310.92	0.271877
5321.22	0.260047
5330.04	0.249633
5340.34	0.237193
5350.63	0.224471
5360.93	0.2115
5371.22	0.198312
5380.05	0.18686
5390.34	0.173355
5400.64	0.159726
5410.94	0.146003
5421.23	0.132217
5430.06	0.120373
5440.35	0.106551
5450.65	0.0927514
5460.94	0.079003
5471.24	0.0653341
5480.06	0.0537023
5490.36	0.0402544
5500.65	0.0269639
5510.95	0.0138571
5521.24	0.000960027
5530.07	-0.0099085
5540.36	-0.0223491
5550.66	-0.0345085
5560.95	-0.0463625
5571.25	-0.0578873
5580.07	-0.0674859
5590.37	-0.0783379
5600.66	-0.0887956
5610.96	-0.0988375
5621.25	-0.108443
5630.08	-0.116313
5640.37	-0.125055
5650.67	-0.133305
5660.97	-0.141048
5671.26	-0.148267
5680.09	-0.154027
5690.38	-0.160237
5700.68	-0.165888
5710.97	-0.17097
5721.27	-0.175476
5730.09	-0.178876
5740.39	-0.182302
5750.68	-0.185144
5760.98	-0.187404
5771.27	-0.189086
5780.1	-0.190072
5790.39	-0.1907
5800.69	-0.190776
5810.98	-0.190313
5821.28	-0.189328
5830.1	-0.188083
5840.4	-0.18618
5850.69	-0.183815
5860.99	-0.181012
5871.28	-0.177798
5880.11	-0.174737
5890.4	-0.170837
5900.7	-0.166611
5911	-0.162091
5921.29	-0.157312
5930.12	-0.153034
5940.41	-0.147861
5950.71	-0.142526
5961	-0.137062
5971.3	-0.131505
5980.12	-0.126692
5990.42	-0.121049
6000.71	-0.115405
6011.01	-0.109793
6021.3	-0.104241
6030.13	-0.0995526
6040.42	-0.0941881
6050.72	-0.0889611
6061.01	-0.0838952
6071.31	-0.0790117
6080.13	-0.074986
6090.43	-0.0704916
6100.72	-0.06623
6111.02	-0.0622144
6121.31	-0.0584564
6130.14	-0.0554472
6140.43	-0.05219
6150.73	-0.0492109
6161.03	-0.0465131
6171.32	-0.0440978
6180.15	-0.042252
6190.44	-0.0403583
6200.74	-0.0387405
6211.03	-0.0373931
6221.33	-0.036309
6230.15	-0.0355829
6240.45	-0.0349645
6250.74	-0.0345819
6261.04	-0.0344236
6271.33	-0.0344769
6280.16	-0.0346809
6290.45	-0.0350914
6300.75	-0.0356738
6311.04	-0.0364133
6321.34	-0.0372951
6330.16	-0.0381525
6340.46	-0.0392582
6350.76	-0.0404629
6361.05	-0.0417517
6371.35	-0.0431102
6380.17	-0.0443194
6390.47	-0.0457701
6400.76	-0.0472515
6411.06	-0.0487509
6421.35	-0.0502566
6430.18	-0.0515436
6440.47	-0.0530319
6450.77	-0.0544966
6461.06	-0.055929
6471.36	-0.0573212
6480.18	-0.0584769
6490.48	-0.059776
6500.77	-0.0610167
6511.07	-0.0621943
6521.36	-0.0633049
6530.19	-0.0642012
6540.48	-0.0651796
6550.78	-0.066084
6561.08	-0.0669132
6571.37	-0.0676666
6580.2	-0.0682521
6590.49	-0.0688652
6600.79	-0.0694037
6611.08	-0.0698691
6621.38	-0.0702627
6630.2	-0.0705444
6640.5	-0.07081
6650.79	-0.0710097
6661.09	-0.0711458
6671.38	-0.0712208
6680.21	-0.0712382
6690.5	-0.071206
6700.8	-0.0711196
6711.09	-0.0709811
6721.39	-0.0707929
6730.21	-0.0705935
6740.51	-0.0703182
6750.8	-0.0699987
6761.1	-0.0696365
6771.39	-0.0692333
6780.22	-0.068856
6790.51	-0.0683798
6800.81	-0.0678658
6811.11	-0.067315
6821.4	-0.0667281
6830.23	-0.0661968
6840.52	-0.0655445
6850.82	-0.0648576
6861.11	-0.0641367
6871.41	-0.0633821
6880.23	-0.0627086
6890.53	-0.0618923
6900.82	-0.0610432
6911.12	-0.0601618
6921.41	-0.0592485
6930.24	-0.0584407
6940.53	-0.0574697
6950.83	-0.0564685
6961.12	-0.0554378
6971.42	-0.0543787
6980.24	-0.0534489
6990.54	-0.0523395
7000.84	-0.0512049
7011.13	-0.0500462
7021.43	-0.0488651
7030.25	-0.0478361
7040.55	-0.0466175
7050.84	-0.0453813
7061.14	-0.0441294
7071.43	-0.0428636
7080.26	-0.0417693
7090.55	-0.0404834
7100.85	-0.0391897
7111.14	-0.0378903
7121.44	-0.0365874
7130.26	-0.0354695
7140.56	-0.0341658
7150.85	-0.0328648
7161.15	-0.0315685
7171.44	-0.0302789
7180.27	-0.0291804
7190.56	-0.0279084
7200.86	-0.0266485
7211.16	-0.0254024
7221.45	-0.0241715
7230.28	-0.0231297
7240.57	-0.0219309
7250.87	-0.0207512
7261.16	-0.0195916
7271.46	-0.018453
7280.28	-0.0174945
7290.58	-0.016397
7300.87	-0.0153226
7311.17	-0.0142714
7321.46	-0.013244
7330.29	-0.0123824
7340.58	-0.0113993
7350.88	-0.0104403
7361.17	-0.00950502
7371.47	-0.00859347
7380.29	-0.00783081
7390.59	-0.00696257
7400.88	-0.00611719
7411.18	-0.00529432
7420	-0.00460662
7430.3	-0.00382451
7440.59	-0.00306379
7450.89	-0.00232406
7461.18	-0.00160496
7470.01	-0.00100476
7480.3	-0.000323121
7490.6	0.000338729
7500.9	0.000980996
7511.19	0.00160382
7520.02	0.00212227
7530.31	0.00270915
7540.61	0.00327664
7550.9	0.00382462
7561.2	0.00435289
7570.02	0.0047898
7580.32	0.00528072
7590.61	0.00575098
7600.91	0.00620014
7611.2	0.00662768
7620.03	0.00697649
7630.32	0.00736232
7640.62	0.00772477
7650.91	0.00806315
7661.21	0.00837674
7670.03	0.00862525
7680.33	0.00889084
7690.62	0.00912952
7700.92	0.00934055
7711.21	0.00952318
7720.04	0.00965658
7730.33	0.00978463
7740.63	0.00988236
7750.92	0.00994915
7761.22	0.00998446
7770.04	0.00998929
7780.34	0.00996488
7790.63	0.00990775
7800.93	0.00981761
7811.23	0.00969423
7820.05	0.0095619
7830.35	0.00937647
7840.64	0.00915761
7850.94	0.00890539
7861.23	0.00862001
7870.06	0.00834919
7880.35	0.00800295
7890.65	0.00762448
7900.94	0.00721427
7911.24	0.00677288
7920.06	0.00637021
7930.36	0.00587264
7940.65	0.00534586
7950.95	0.00479069
7961.24	0.00420801
7970.07	0.00368736
7980.36	0.00305606
7990.66	0.00239999
8000.95	0.00172021
8011.25	0.0010178
8020.07	0.000398559
8030.37	-0.000342925
8040.66	-0.00110381
8050.96	-0.00188292
8061.25	-0.00267907
8070.08	-0.00337414
8080.37	-0.00419876
8090.67	-0.00503698
8100.97	-0.00588759
8111.26	-0.00674939
8120.09	-0.00749606
8130.38	-0.00837543
8140.68	-0.00926255
8150.97	-0.0101562
8161.27	-0.0110553
8170.09	-0.0118294
8180.39	-0.0127354
8190.68	-0.0136434
8200.98	-0.0145525
8211.27	-0.0154614
8220.1	-0.0162395
8230.39	-0.0171452
8240.69	-0.0180477
8250.98	-0.0189459
8261.28	-0.0198388
8270.1	-0.0205991
8280.4	-0.0214793
8290.69	-0.0223514
8300.99	-0.0232143
8311.28	-0.0240671
8320.11	-0.0247892
8330.4	-0.0256206
8340.7	-0.0264392
8351	-0.027244
8361.29	-0.0280342
8370.12	-0.0286992
8380.41	-0.0294598
8390.71	-0.0302032
8401	-0.0309285
8411.3	-0.0316348
8420.12	-0.0322244
8430.42	-0.0328932
8440.71	-0.0335404
8451.01	-0.0341653
8461.3	-0.0347668
8470.13	-0.0352632
8480.42	-0.0358191
8490.72	-0.0363491
8501.01	-0.0368522
8511.31	-0.0373276
8520.13	-0.0377122
8530.43	-0.0381335
8540.73	-0.0385242
8551.02	-0.0388835
8561.32	-0.0392102
8570.14	-0.0394637
8580.44	-0.0397275
8590.73	-0.0399559
8601.03	-0.0401479
8611.32	-0.0403026
8620.15	-0.0404047
8630.44	-0.0404873
8640.74	-0.0405298
8651.03	-0.040531
8661.33	-0.0404902
8670.15	-0.040421
8680.45	-0.0402995
8690.74	-0.0401333
8701.04	-0.0399217
8711.33	-0.0396639
8720.16	-0.0394055
8730.45	-0.0390599
8740.75	-0.0386662
8751.05	-0.0382238
8761.34	-0.0377323
8770.17	-0.0372717
8780.46	-0.0366881
8790.76	-0.0360545
8801.05	-0.0353709
8811.35	-0.0346373
8820.17	-0.0339686
8830.47	-0.0331423
8840.76	-0.0322665
8851.06	-0.0313417
8861.35	-0.0303683
8870.18	-0.0294958
8880.47	-0.0284341
8890.77	-0.027326
8901.06	-0.0261725
8911.36	-0.0249749
8920.18	-0.023914
8930.48	-0.0226376
8940.77	-0.0213208
8951.07	-0.0199651
8961.37	-0.0185724
8970.19	-0.0173504
8980.49	-0.0158934
8990.78	-0.0144048
9001.08	-0.0128864
9011.37	-0.0113404
9020.2	-0.00999508
9030.49	-0.00840391
9040.79	-0.00679174
9051.08	-0.00516098
9061.38	-0.00351409
9070.2	-0.00209154
9080.5	-0.000421395
9090.79	0.0012576
9101.09	0.00294285
9111.38	0.00463174
9120.21	0.00608028
9130.5	0.007769
9140.8	0.00945389
9151.09	0.0111324
9161.39	0.0128019
9170.21	0.0142238
9180.51	0.0158699
9190.81	0.0174999
9201.1	0.0191113
9211.4	0.0207019
9220.22	0.0220469
9230.52	0.0235926
9240.81	0.0251111
9251.11	0.0266003
9261.4	0.0280582
9270.23	0.0292814
9280.52	0.0306761
9290.82	0.0320343
9301.11	0.0333543
9311.41	0.0346346
9320.23	0.0356993
9330.53	0.036902
9340.82	0.0380612
9351.12	0.0391758
9361.42	0.0402446
9370.24	0.0411235
9380.54	0.042105
9390.83	0.0430384
9401.13	0.043923
9411.42	0.0447585
9420.25	0.045435
9430.54	0.046178
9440.84	0.0468709
9451.13	0.0475136
9461.43	0.048106
9470.25	0.0485738
9480.55	0.0490732
9490.84	0.0495228
9501.14	0.0499231
9511.43	0.0502743
9520.26	0.0505369
9530.55	0.0507987
9540.85	0.0510133
9551.14	0.0511814
9561.44	0.0513038
9570.26	0.0513731
9580.56	0.0514132
9590.86	0.0514103
9601.15	0.0513656
9611.45	0.0512802
9620.27	0.0511754
9630.57	0.0510175
9640.86	0.0508224
9651.16	0.0505913
9661.45	0.0503256
9670.28	0.0500714
9680.57	0.0497451
9690.87	0.0493882
9701.16	0.049002
9711.46	0.048588
9720.28	0.0482122
9730.58	0.0477504
9740.87	0.047265
9751.17	0.0467573
9761.47	0.0462288
9770.29	0.0457602
9780.59	0.0451967
9790.88	0.0446163
9801.18	0.0440203
9810	0.043498
9820.3	0.0428765
9830.59	0.042243
9840.89	0.0415987
9851.18	0.0409448
9860.01	0.0403773
9870.3	0.0397081
9880.6	0.0390322
9890.89	0.0383504
9901.19	0.0376635
9910.01	0.0370714
9920.31	0.0363773
9930.6	0.0356802
9940.9	0.0349808
9951.19	0.0342795
9960.02	0.0336772
9970.31	0.0329737
9980.61	0.0322694
9990.91	0.0315648
10001.2	0.0308599
10010	0.0302556
10020.3	0.0295507
10030.6	0.0288458
10040.9	0.028141
10051.2	0.0274361
10060	0.0268318
10070.3	0.0261266
10080.6	0.0254209
10090.9	0.0247145
10101.2	0.0240071
10110	0.0233999
10120.3	0.02269
10130.6	0.0219782
10140.9	0.0212642
10151.2	0.0205477
10160	0.0199312
10170.3	0.0192089
10180.6	0.018483
10190.9	0.0177531
10201.2	0.0170188
10210.1	0.0163856
10220.3	0.0156422
10230.6	0.0148935
10240.9	0.0141392
10251.2	0.0133789
10260.1	0.0127224
10270.4	0.0119505
10280.6	0.0111721
10290.9	0.0103871
10301.2	0.00959525
10310.1	0.0089111
10320.4	0.00810655
10330.7	0.00729515
10340.9	0.00647695
10351.2	0.00565206
10360.1	0.00493979
10370.4	0.00410289
10380.7	0.00325985
10391	0.00241094
10401.3	0.00155649
10410.1	0.000819971
10420.4	-4.37524e-05
10430.7	-0.000911841
10441	-0.0017838
10451.3	-0.0026591
10460.1	-0.00341158
10470.4	-0.00429154
10480.7	-0.00517311
10491	-0.00605563
10501.3	-0.00693841
10510.1	-0.00769473
10520.4	-0.00857605
10530.7	-0.00945552
10541	-0.0103324
10551.3	-0.0112058
10560.1	-0.0119511
10570.4	-0.0128161
10580.7	-0.0136754
10591	-0.0145282
10601.3	-0.0153737
10610.1	-0.0160921
10620.4	-0.0169221
10630.7	-0.0177427
10641	-0.0185531
10651.3	-0.0193526
10660.1	-0.0200288
10670.4	-0.0208064
10680.7	-0.0215714
10691	-0.0223232
10701.3	-0.0230612
10710.1	-0.0236825
10720.4	-0.0243939
10730.7	-0.0250903
10741	-0.0257716
10751.3	-0.0264373
10760.1	-0.0269955
10770.4	-0.027632
10780.7	-0.0282526
10791	-0.0288574
10801.3	-0.0294462
10810.1	-0.0299384
10820.4	-0.0304981
10830.7	-0.0310424
10841	-0.0315715
10851.3	-0.0320858
10860.1	-0.0325152
10870.4	-0.0330031
10880.7	-0.0334774
10891	-0.0339388
10901.3	-0.0343877
10910.1	-0.0347631
10920.4	-0.0351907
10930.7	-0.0356077
10941	-0.036015
10951.3	-0.0364132
10960.1	-0.0367479
10970.4	-0.0371315
10980.7	-0.0375083
10991	-0.0378792
11001.3	-0.0382451
11010.1	-0.0385552
11020.4	-0.0389138
11030.7	-0.0392697
11041	-0.0396236
11051.3	-0.0399765
11060.2	-0.0402786
11070.5	-0.0406313
11080.7	-0.0409851
11091	-0.0413405
11101.3	-0.0416983
11110.2	-0.0420072
11120.5	-0.0423709
11130.8	-0.0427385
11141	-0.0431105
11151.3	-0.0434873
11160.2	-0.0438145
11170.5	-0.0442013
11180.8	-0.0445939
11191.1	-0.0449926
11201.3	-0.0453974
11210.2	-0.0457494
11220.5	-0.0461659
11230.8	-0.0465888
11241.1	-0.0470181
11251.4	-0.0474536
11260.2	-0.0478317
11270.5	-0.0482785
11280.8	-0.0487309
11291.1	-0.0491888
11301.4	-0.0496519
11310.2	-0.0500527
11320.5	-0.0505244
11330.8	-0.0510002
11341.1	-0.0514796
11351.4	-0.0519622
11360.2	-0.052378
11370.5	-0.0528651
11380.8	-0.0533539
11391.1	-0.0538439
11401.4	-0.0543345
11410.2	-0.054755
11420.5	-0.0552451
11430.8	-0.0557341
11441.1	-0.0562214
11451.4	-0.0567065
11460.2	-0.05712
11470.5	-0.0575993
11480.8	-0.0580746
11491.1	-0.0585454
11501.4	-0.0590111
11510.2	-0.0594057
11520.5	-0.0598604
11530.8	-0.0603083
11541.1	-0.0607489
11551.4	-0.0611818
11560.2	-0.0615461
11570.5	-0.061963
11580.8	-0.0623706
11591.1	-0.0627684
11601.4	-0.0631559
11610.2	-0.0634795
11620.5	-0.0638465
11630.8	-0.0642019
11641.1	-0.064545
11651.4	-0.0648756
11660.2	-0.0651485
11670.5	-0.0654543
11680.8	-0.0657461
11691.1	-0.0660236
11701.4	-0.0662861
11710.2	-0.066499
11720.5	-0.0667326
11730.8	-0.0669501
11741.1	-0.067151
11751.4	-0.0673347
11760.2	-0.0674782
11770.5	-0.067629
11780.8	-0.0677613
11791.1	-0.0678748
11801.4	-0.067969
11810.2	-0.0680341
11820.5	-0.0680913
11830.8	-0.068128
11841.1	-0.0681437
11851.4	-0.0681381
11860.3	-0.068116
11870.5	-0.0680698
11880.8	-0.0680011
11891.1	-0.0679097
11901.4	-0.0677952
11910.3	-0.0676785
11920.6	-0.0675205
11930.8	-0.0673386
11941.1	-0.0671327
11951.4	-0.0669026
11960.3	-0.066686
11970.6	-0.0664106
11980.9	-0.0661107
11991.2	-0.0657862
12001.4	-0.0654372
12010.3	-0.0651185
12020.6	-0.0647241
12030.9	-0.0643053
12041.2	-0.0638624
12051.5	-0.0633956
12060.3	-0.0629766
12070.6	-0.062466
12080.9	-0.0619323
12091.2	-0.0613759
12101.5	-0.0607972
12110.3	-0.0602836
12120.6	-0.0596646
12130.9	-0.0590245
12141.2	-0.058364
12151.5	-0.0576836
12160.3	-0.057085
12170.6	-0.0563692
12180.9	-0.0556351
12191.2	-0.0548835
12201.5	-0.054115
12210.3	-0.0534433
12220.6	-0.052645
12230.9	-0.0518317
12241.2	-0.051004
12250	-0.0502835
12260.3	-0.0494306
12270.6	-0.0485651
12280.9	-0.0476876
12291.2	-0.0467987
12300	-0.046028
12310.3	-0.0451192
12320.6	-0.0442005
12330.9	-0.0432723
12341.2	-0.042335
12350	-0.0415248
12360.3	-0.0405718
12370.6	-0.0396109
12380.9	-0.0386423
12391.2	-0.0376662
12400	-0.0368239
12410.3	-0.0358346
12420.6	-0.0348383
12430.9	-0.0338353
12441.2	-0.0328256
12450	-0.0319547
12460.3	-0.0309325
12470.6	-0.0299035
12480.9	-0.0288677
12491.2	-0.027825
12500	-0.0269257
12510.3	-0.0258699
12520.6	-0.0248067
12530.9	-0.0237361
12541.2	-0.0226577
12550	-0.0217272
12560.3	-0.0206341
12570.6	-0.0195327
12580.9	-0.0184228
12591.2	-0.0173043
12600	-0.0163384
12610.3	-0.0152032
12620.6	-0.0140587
12630.9	-0.0129047
12641.2	-0.0117413
12650.1	-0.0107363
12660.3	-0.00955477
12670.6	-0.00836342
12680.9	-0.00716219
12691.2	-0.0059511
12700.1	-0.00490519
12710.4	-0.00367589
12720.7	-0.00243693
12730.9	-0.00118846
12741.2	6.93252e-05
12750.1	0.00115466
12760.4	0.00242906
12770.7	0.00371196
12781	0.00500298
12791.2	0.0063017
12800.1	0.00742066
12810.4	0.0087324
12820.7	0.0100504
12831	0.011374
12841.3	0.0127025
12850.1	0.0138447
12860.4	0.0151807
12870.7	0.0165196
12881	0.0178605
12891.3	0.0192027
12900.1	0.0203536
12910.4	0.0216958
12920.7	0.0230367
12931	0.0243753
12941.3	0.0257107
12950.1	0.026852
12960.4	0.0281788
12970.7	0.0294994
12981	0.0308129
12991.3	0.0321182
13000.1	0.0332297
13010.4	0.034517
13020.7	0.0357932
13031	0.0370572
13041.3	0.038308
13050.1	0.0393688
13060.4	0.0405924
13070.7	0.0418
13081	0.0429906
13091.3	0.0441633
13100.1	0.0451535
13110.4	0.0462906
13120.7	0.0474073
13131	0.0485028
13141.3	0.0495764
13150.1	0.0504785
13160.4	0.0515095
13170.7	0.0525165
13181	0.053499
13191.3	0.0544565
13200.1	0.0552569
13210.4	0.0561665
13220.7	0.0570499
13231	0.0579065
13241.3	0.0587361
13250.1	0.0594255
13260.4	0.0602044
13270.7	0.0609556
13281	0.061679
13291.3	0.0623747
13300.1	0.0629489
13310.4	0.063593
13320.7	0.0642094
13331	0.0647982
13341.3	0.0653596
13350.1	0.0658191
13360.4	0.0663302
13370.7	0.0668145
13381	0.0672724
13391.3	0.0677042
13400.1	0.0680539
13410.4	0.0684383
13420.7	0.0687978
13431	0.0691329
13441.3	0.0694441
13450.2	0.069692
13460.4	0.06996
13470.7	0.0702054
13481	0.0704289
13491.3	0.070631
13500.2	0.0707876
13510.5	0.0709513
13520.8	0.0710953
13531	0.07122
13541.3	0.071326
13550.2	0.0714024
13560.5	0.0714751
13570.8	0.0715306
13581.1	0.0715696
13591.3	0.0715923
13600.2	0.0715994
13610.5	0.0715936
13620.8	0.071573
13631.1	0.0715381
13641.4	0.0714893
13650.2	0.0714367
13660.5	0.0713631
13670.8	0.0712767
13681.1	0.0711779
13691.4	0.0710669
13700.2	0.0709624
13710.5	0.0708296
13720.8	0.0706854
13731.1	0.0705301
13741.4	0.0703638
13750.2	0.0702127
13760.5	0.0700265
13770.8	0.0698298
13781.1	0.0696228
13791.4	0.0694054
13800.2	0.069211
13810.5	0.0689748
13820.8	0.0687285
13831.1	0.0684722
13841.4	0.0682059
13850.2	0.0679697
13860.5	0.0676848
13870.8	0.0673899
13881.1	0.067085
13891.4	0.0667702
13900.2	0.0664923
13910.5	0.0661587
13920.8	0.0658151
13931.1	0.0654613
13941.4	0.0650974
13950.2	0.0647773
13960.5	0.0643944
13970.8	0.0640013
13981.1	0.0635979
13991.4	0.0631841
14000.2	0.0628212
14010.5	0.0623883
14020.8	0.0619449
14031.1	0.0614911
14041.4	0.0610269
14050.2	0.0606207
14060.5	0.060137
14070.8	0.0596429
14081.1	0.0591383
14091.4	0.0586232
14100.2	0.0581733
14110.5	0.0576387
14120.8	0.0570936
14131.1	0.0565379
14141.4	0.0559716
14150.2	0.0554778
14160.5	0.0548919
14170.8	0.0542953
14181.1	0.0536881
14191.4	0.0530701
14200.2	0.0525319
14210.5	0.0518939
14220.8	0.051245
14231.1	0.0505851
14241.4	0.0499142
14250.3	0.0493303
14260.5	0.0486386
14270.8	0.0479356
14281.1	0.0472211
14291.4	0.046495
14300.3	0.0458632
14310.6	0.0451151
14320.9	0.0443548
14331.1	0.0435823
14341.4	0.0427973
14350.3	0.0421144
14360.6	0.0413057
14370.9	0.040484
14381.2	0.0396489
14391.4	0.0388003
14400.3	0.038062
14410.6	0.0371876
14420.9	0.036299
14431.2	0.0353959
14441.5	0.0344782
14450.3	0.0336797
14460.6	0.032734
14470.9	0.031773
14481.2	0.0307963
14491.5	0.0298039
14500.3	0.0289406
14510.6	0.0279184
14520.9	0.0268798
14531.2	0.0258248
14541.5	0.0247533
14550.3	0.0238215
14560.6	0.0227189
14570.9	0.0215995
14581.2	0.0204632
14590	0.0194759
14600.3	0.0183084
14610.6	0.0171241
14620.9	0.0159232
14631.2	0.0147057
14640	0.0136492
14650.3	0.0124015
14660.6	0.0111379
14670.9	0.00985871
14681.2	0.00856419
14690	0.0074427
14700.3	0.00612079
14710.6	0.00478476
14720.9	0.00343514
14731.2	0.00207247
14740	0.000894541
14750.3	-0.000490717
14760.6	-0.00188717
14770.9	-0.00329407
14781.2	-0.00471063
14790	-0.00593189
14800.3	-0.00736413
14810.6	-0.00880352
14820.9	-0.0102491
14831.2	-0.0116998
14840	-0.0129465
14850.3	-0.0144039
14860.6	-0.0158633
14870.9	-0.0173235
14881.2	-0.0187832
14890	-0.0200331
14900.3	-0.0214886
14910.6	-0.02294
14920.9	-0.0243858
14931.2	-0.0258247
14940	-0.0270514
14950.3	-0.0284735
14960.6	-0.0298845
14970.9	-0.0312828
14981.2	-0.032667
14990.1	-0.0338409
15000.3	-0.0351946
15010.6	-0.0365296
15020.9	-0.0378443
15031.2	-0.0391371
15040.1	-0.0402267
15050.4	-0.0414747
15060.7	-0.0426962
15070.9	-0.0438897
15081.2	-0.0450536
15090.1	-0.0460264
15100.4	-0.0471311
15110.7	-0.0482017
15121	-0.0492367
15131.2	-0.0502346
15140.1	-0.0510593
15150.4	-0.0519845
15160.7	-0.0528686
15171	-0.0537101
15181.3	-0.054508
15190.1	-0.0551561
15200.4	-0.0558694
15210.7	-0.0565356
15221	-0.0571536
15231.3	-0.0577224
15240.1	-0.0581701
15250.4	-0.0586452
15260.7	-0.0590686
15271	-0.0594398
15281.3	-0.0597581
15290.1	-0.0599884
15300.4	-0.0602071
15310.7	-0.0603717
15321	-0.060482
15331.3	-0.0605377
15340.1	-0.0605421
15350.4	-0.0604966
15360.7	-0.0603968
15371	-0.060243
15381.3	-0.0600355
15390.1	-0.0598153
15400.4	-0.0595096
15410.7	-0.0591519
15421	-0.058743
15431.3	-0.0582839
15440.1	-0.0578512
15450.4	-0.0573017
15460.7	-0.0567051
15471	-0.056063
15481.3	-0.0553766
15490.1	-0.0547543
15500.4	-0.05399
15510.7	-0.0531863
15521	-0.0523448
15531.3	-0.0514677
15540.1	-0.0506888
15550.4	-0.0497506
15560.7	-0.0487825
15571	-0.0477868
15581.3	-0.0467658
15590.1	-0.0458723
15600.4	-0.0448105
15610.7	-0.0437303
15621	-0.0426341
15631.3	-0.0415244
15640.1	-0.0405646
15650.4	-0.0394367
15660.7	-0.0383029
15671	-0.0371655
15681.3	-0.0360274
15690.1	-0.0350531
15700.4	-0.0339203
15710.7	-0.0327941
15721	-0.0316771
15731.3	-0.0305717
15740.1	-0.0296355
15750.4	-0.0285585
15760.7	-0.0275002
15771	-0.026463
15781.3	-0.0254491
15790.2	-0.0246003
15800.4	-0.0236355
15810.7	-0.0227003
15821	-0.0217965
15831.3	-0.020926
15840.2	-0.0202077
15850.5	-0.0194037
15860.8	-0.0186379
15871	-0.0179117
15881.3	-0.0172264
15890.2	-0.0166725
15900.5	-0.0160664
15910.8	-0.0155045
15921.1	-0.0149876
15931.3	-0.0145164
15940.2	-0.0141493
15950.5	-0.0137645
15960.8	-0.0134268
15971.1	-0.0131364
15981.4	-0.0128933
15990.2	-0.0127227
16000.5	-0.0125674
16010.8	-0.0124589
16021.1	-0.0123968
16031.4	-0.0123805
16040.2	-0.0124025
16050.5	-0.0124694
16060.8	-0.0125798
16071.1	-0.0127327
16081.4	-0.0129268
16090.2	-0.0131252
16100.5	-0.0133926
16110.8	-0.0136974
16121.1	-0.014038
16131.4	-0.0144129
16140.2	-0.0147601
16150.5	-0.0151939
16160.8	-0.0156568
16171.1	-0.0161469
16181.4	-0.0166621
16190.2	-0.0171223
16200.5	-0.017679
16210.8	-0.018255
16221.1	-0.0188482
16231.4	-0.0194564
16240.2	-0.0199881
16250.5	-0.0206185
16260.8	-0.0212578
16271.1	-0.0219038
16281.4	-0.0225543
16290.2	-0.023114
16300.5	-0.0237674
16310.8	-0.0244193
16321.1	-0.0250679
16331.4	-0.025711
16340.2	-0.0262564
16350.5	-0.0268844
16360.8	-0.0275016
16371.1	-0.0281062
16381.4	-0.0286968
16390.2	-0.0291904
16400.5	-0.0297504
16410.8	-0.0302919
16421.1	-0.0308136
16431.4	-0.0313141
16440.2	-0.0317255
16450.5	-0.0321837
16460.8	-0.0326178
16471.1	-0.0330269
16481.4	-0.03341
16490.2	-0.0337173
16500.5	-0.0340506
16510.8	-0.0343563
16521.1	-0.034634
16531.4	-0.0348834
16540.2	-0.0350745
16550.5	-0.0352708
16560.8	-0.0354384
16571.1	-0.0355774
16581.4	-0.0356878
16590.3	-0.0357599
16600.5	-0.035818
16610.8	-0.0358483
16621.1	-0.0358514
16631.4	-0.0358276
16640.3	-0.0357864
16650.6	-0.0357144
16660.9	-0.0356173
16671.1	-0.035496
16681.4	-0.035351
16690.3	-0.0352086
16700.6	-0.035022
16710.9	-0.0348143
16721.2	-0.0345862
16731.4	-0.0343388
16740.3	-0.034112
16750.6	-0.0338311
16760.9	-0.0335335
16771.2	-0.0332202
16781.5	-0.0328922
16790.3	-0.0326
16800.6	-0.0322472
16810.9	-0.0318823
16821.2	-0.0315064
16831.5	-0.0311203
16840.3	-0.030782
16850.6	-0.0303794
16860.9	-0.0299692
16871.2	-0.0295522
16881.5	-0.0291292
16890.3	-0.0287624
16900.6	-0.0283302
16910.9	-0.0278942
16921.2	-0.0274549
16930	-0.0270764
16940.3	-0.0266329
16950.6	-0.0261879
16960.9	-0.025742
16971.2	-0.0252957
16980	-0.0249133
16990.3	-0.0244675
17000.6	-0.0240226
17010.9	-0.023579
17021.2	-0.023137
17030	-0.0227597
17040.3	-0.0223214
17050.6	-0.0218857
17060.9	-0.0214526
17071.2	-0.0210224
17080	-0.0206561
17090.3	-0.0202318
17100.6	-0.0198109
17110.9	-0.0193935
17121.2	-0.0189797
17130	-0.0186279
17140.3	-0.0182211
17150.6	-0.0178182
17160.9	-0.0174192
17171.2	-0.0170241
17180	-0.0166887
17190.3	-0.0163012
17200.6	-0.0159178
17210.9	-0.0155385
17221.2	-0.0151633
17230	-0.0148451
17240.3	-0.0144776
17250.6	-0.0141144
17260.9	-0.0137554
17271.2	-0.0134006
17280	-0.0130998
17290.3	-0.0127529
17300.6	-0.0124102
17310.9	-0.0120718
17321.2	-0.0117378
17330.1	-0.0114548
17340.3	-0.0111288
17350.6	-0.0108071
17360.9	-0.0104897
17371.2	-0.0101768
17380.1	-0.00991199
17390.4	-0.00960718
17400.6	-0.00930678
17410.9	-0.00901079
17421.2	-0.00871922
17430.1	-0.00847282
17440.4	-0.00818945
17450.7	-0.00791047
17460.9	-0.00763586
17471.2	-0.00736561
17480.1	-0.0071374
17490.4	-0.00687513
17500.7	-0.00661708
17511	-0.0063632
17521.3	-0.00611343
17530.1	-0.00590253
17540.4	-0.00566014
17550.7	-0.0054216
17561	-0.00518678
17571.3	-0.00495557
17580.1	-0.00476016
17590.4	-0.00453528
17600.7	-0.00431361
17611	-0.00409496
17621.3	-0.00387917
17630.1	-0.00369635
17640.4	-0.00348537
17650.7	-0.00327669
17661	-0.00307011
17671.3	-0.00286541
17680.1	-0.00269128
17690.4	-0.00248947
17700.7	-0.00228889
17711	-0.00208929
17721.3	-0.00189045
17730.1	-0.00172042
17740.4	-0.00152232
17750.7	-0.00132429
17761	-0.00112607
17771.3	-0.000927448
17780.1	-0.000756693
17790.4	-0.000556691
17800.7	-0.000355635
17811	-0.000153312
17821.3	5.04762e-05
17830.1	0.000226464
17840.4	0.000433471
17850.7	0.000642455
17861	0.00085357
17871.3	0.00106695
17880.1	0.00125175
17890.4	0.00146966
17900.7	0.00169014
17911	0.00191327
17921.3	0.00213909
17930.1	0.00233483
17940.4	0.00256575
17950.7	0.00279941
17961	0.00303578
17971.3	0.00327484
17980.1	0.00348183
17990.4	0.00372567
18000.7	0.00397196
18011	0.00422056
18021.3	0.00447134
18030.1	0.0046879
18040.4	0.00494229
18050.7	0.00519834
18061	0.00545586
18071.3	0.0057146
18080.1	0.00593718
18090.4	0.00619755
18100.7	0.00645843
18111	0.00671952
18121.3	0.00698053
18130.2	0.00720397
18140.4	0.00746403
18150.7	0.00772313
18161	0.00798095
18171.3	0.00823714
18180.2	0.0084552
18190.5	0.00870752
18200.7	0.00895726
18211	0.00920409
18221.3	0.00944769
18230.2	0.00965366
18240.5	0.00989037
18250.8	0.0101229
18261.1	0.010351
18271.3	0.0105742
18280.2	0.0107616
18290.5	0.0109752
18300.8	0.0111832
18311.1	0.0113853
18321.4	0.0115813
18330.2	0.0117442
18340.5	0.0119282
18350.8	0.0121054
18361.1	0.0122756
18371.4	0.0124387
18380.2	0.0125727
18390.5	0.0127221
18400.8	0.0128639
18411.1	0.0129981
18421.4	0.0131245
18430.2	0.0132266
18440.5	0.0133383
18450.8	0.0134421
18461.1	0.013538
18471.4	0.0136258
18480.2	0.0136948
18490.5	0.0137678
18500.8	0.013833
18511.1	0.0138903
18521.4	0.0139399
18530.2	0.0139762
18540.5	0.0140116
18550.8	0.0140395
18561.1	0.0140602
18571.4	0.0140736
18580.2	0.0140795
18590.5	0.0140801
18600.8	0.0140741
18611.1	0.0140616
18621.4	0.0140429
18630.2	0.0140221
18640.5	0.0139924
18650.8	0.0139573
18661.1	0.0139169
18671.4	0.0138715
18680.2	0.0138288
18690.5	0.013775
18700.8	0.013717
18711.1	0.0136552
18721.4	0.0135899
18730.2	0.0135314
18740.5	0.0134605
18750.8	0.0133871
18761.1	0.0133115
18771.4	0.0132342
18780.2	0.0131667
18790.5	0.0130869
18800.8	0.0130064
18811.1	0.0129256
18821.4	0.0128448
18830.2	0.0127758
18840.5	0.012696
18850.8	0.0126174
18861.1	0.0125404
18871.4	0.0124653
18880.2	0.0124027
18890.5	0.0123323
18900.8	0.0122649
18911.1	0.012201
18921.4	0.012141
18930.3	0.0120929
18940.5	0.0120411
18950.8	0.0119942
18961.1	0.0119528
18971.4	0.011917
18980.3	0.0118911
18990.6	0.0118669
19000.8	0.0118494
19011.1	0.0118389
19021.4	0.0118358
19030.3	0.0118392
19040.6	0.0118506
19050.9	0.0118701
19061.2	0.011898
19071.4	0.0119346
19080.3	0.0119729
19090.6	0.0120261
19100.9	0.0120885
19111.2	0.0121603
19121.5	0.0122415
19130.3	0.0123187
19140.6	0.0124177
19150.9	0.0125264
19161.2	0.0126448
19171.5	0.0127728
19180.3	0.0128903
19190.6	0.0130361
19200.9	0.0131914
19211.2	0.0133561
19221.5	0.0135299
19230.3	0.013686
19240.6	0.0138763
19250.9	0.014075
19261.2	0.0142819
19270	0.0144655
19280.3	0.0146868
19290.6	0.0149152
19300.9	0.0151503
19311.2	0.0153917
19320	0.0156033
19330.3	0.0158551
19340.6	0.0161117
19350.9	0.0163725
19361.2	0.0166371
19370	0.0168662
19380.3	0.0171359
19390.6	0.0174075
19400.9	0.0176802
19411.2	0.0179534
19420	0.0181874
19430.3	0.0184596
19440.6	0.0187302
19450.9	0.0189985
19461.2	0.0192637
19470	0.019488
19480.3	0.0197454
19490.6	0.0199976
19500.9	0.0202439
19511.2	0.0204833
19520	0.0206826
19530.3	0.0209075
19540.6	0.0211236
19550.9	0.0213301
19561.2	0.0215263
19570	0.0216857
19580.3	0.0218611
19590.6	0.0220242
19600.9	0.0221746
19611.2	0.0223116
19620	0.0224179
19630.3	0.0225286
19640.6	0.0226244
19650.9	0.0227048
19661.2	0.0227695
19670	0.022812
19680.3	0.0228462
19690.6	0.0228636
19700.9	0.0228639
19711.2	0.0228468
19720.1	0.0228181
19730.4	0.0227681
19740.6	0.0227003
19750.9	0.0226144
19761.2	0.0225105
19770.1	0.0224071
19780.4	0.0222697
19790.7	0.0221143
19800.9	0.021941
19811.2	0.0217499
19820.1	0.0215722
19830.4	0.0213486
19840.7	0.0211078
19851	0.0208501
19861.2	0.0205758
19870.1	0.0203277
19880.4	0.0200235
19890.7	0.0197036
19901	0.0193684
19911.3	0.0190185
19920.1	0.0187072
19930.4	0.018331
19940.7	0.0179413
19951	0.0175387
19961.3	0.0171235
19970.1	0.0167581
19980.4	0.0163211
19990.7	0.0158732
