0	0
14.7745	0
22.1618	0
36.9363	0
44.3236	0
51.7109	0
66.4854	0
73.8727	0
81.2599	0
96.0345	0
103.422	0
110.809	0
125.584	0
132.971	0
140.358	0
155.133	0
162.52	0
177.294	0
184.682	0
192.069	0
206.843	0
214.231	0
221.618	0
236.393	0
243.78	0
251.167	0
265.942	0
273.329	0
280.716	0
295.491	0
302.878	0
310.265	0
325.04	0
332.427	0
347.202	0
354.589	0
361.976	0
376.751	0
384.138	0
391.525	0
406.3	0
413.687	0
421.074	0
435.849	0
443.236	0
450.623	0
465.398	0
472.785	9.09495e-13
480.172	1.81899e-12
494.947	6.36646e-12
502.334	1.09139e-11
517.109	3.36513e-11
524.496	5.82077e-11
531.883	9.91349e-11
546.658	2.74667e-10
554.045	4.47471e-10
561.432	7.1941e-10
576.207	1.79261e-09
583.594	2.77942e-09
590.981	4.26098e-09
605.756	9.6943e-09
613.143	1.43982e-08
620.53	2.11749e-08
635.305	4.45143e-08
642.692	6.36728e-08
650.08	9.0291e-08
664.854	1.77094e-07
672.241	2.45075e-07
687.016	4.58824e-07
694.403	6.21007e-07
701.79	8.3469e-07
716.565	1.47801e-06
723.952	1.94794e-06
731.34	2.55151e-06
746.114	4.30062e-06
753.501	5.53598e-06
760.889	7.08741e-06
775.663	1.14351e-05
783.05	1.44156e-05
790.438	1.80853e-05
805.212	2.8071e-05
812.599	3.47391e-05
827.374	5.25311e-05
834.761	6.42045e-05
842.149	7.81663e-05
856.923	0.000114564
864.31	0.000137951
871.698	0.00016554
886.472	0.000236025
893.859	0.000280493
901.247	0.000332328
916.021	0.000462444
923.408	0.000543231
930.796	0.00063642
945.57	0.000866776
952.958	0.0010078
960.345	0.00116899
975.119	0.00156203
982.507	0.00179966
997.281	0.00237375
1004.67	0.00271784
1012.06	0.00310565
1026.83	0.00403182
1034.22	0.00458096
1041.6	0.0051954
1056.38	0.00664697
1063.77	0.00749878
1071.15	0.00844529
1085.93	0.0106579
1093.32	0.0119433
1100.7	0.013362
1115.48	0.0166441
1122.86	0.0185317
1130.25	0.0206009
1145.03	0.0253389
1152.41	0.0280367
1167.19	0.034166
1174.58	0.0376295
1181.96	0.0413809
1196.74	0.0498155
1204.12	0.0545332
1211.51	0.0596079
1226.29	0.0708978
1233.67	0.0771478
1241.06	0.0838238
1255.84	0.0985197
1263.22	0.106571
1270.61	0.115111
1285.38	0.133709
1292.77	0.143792
1300.16	0.15441
1314.93	0.177288
1322.32	0.18956
1337.1	0.215784
1344.48	0.229736
1351.87	0.244246
1366.64	0.274914
1374.03	0.291053
1381.42	0.307713
1396.19	0.342527
1403.58	0.360642
1410.97	0.379199
1425.74	0.417524
1433.13	0.437232
1440.52	0.457257
1455.29	0.498107
1462.68	0.518848
1470.07	0.539741
1484.84	0.581792
1492.23	0.602848
1507	0.644758
1514.39	0.6655
1521.78	0.686024
1536.55	0.726184
1543.94	0.7457
1551.33	0.764761
1566.1	0.801274
1573.49	0.818607
1580.88	0.835245
1595.65	0.866206
1603.04	0.880417
1610.42	0.893709
1625.2	0.917329
1632.59	0.92756
1647.36	0.944641
1654.75	0.951409
1662.14	0.956947
1676.91	0.964201
1684.3	0.965862
1691.68	0.966183
1706.46	0.962731
1713.85	0.958935
1721.23	0.953747
1736.01	0.939192
1743.4	0.929833
1750.78	0.919097
1765.56	0.893555
1772.94	0.878787
1780.33	0.862721
1795.11	0.826812
1802.49	0.807038
1817.27	0.764047
1824.66	0.740918
1832.04	0.716764
1846.82	0.665583
1854.2	0.638666
1861.59	0.610941
1876.37	0.553305
1883.75	0.523517
1891.14	0.493167
1905.92	0.431039
1913.3	0.399391
1920.69	0.367442
1935.46	0.302903
1942.85	0.270444
1950.24	0.237945
1965.01	0.173081
1972.4	0.140842
1987.18	0.0770488
1994.56	0.0456113
2001.95	0.0145543
2016.72	-0.0462073
2024.11	-0.0758114
2031.5	-0.104834
2046.27	-0.160962
2053.66	-0.187986
2061.05	-0.214266
2075.82	-0.264462
2083.21	-0.288317
2090.6	-0.311309
2105.37	-0.354612
2112.76	-0.374885
2120.15	-0.394218
2134.92	-0.430016
2142.31	-0.446465
2157.08	-0.47644
2164.47	-0.489963
2171.86	-0.502514
2186.63	-0.524717
2194.02	-0.534386
2201.41	-0.543114
2216.18	-0.5578
2223.57	-0.563789
2230.95	-0.568899
2245.73	-0.57656
2253.12	-0.579154
2260.5	-0.580954
2275.28	-0.58227
2282.67	-0.581838
2290.05	-0.580714
2304.83	-0.576499
2312.21	-0.573465
2326.99	-0.565687
2334.38	-0.561
2341.76	-0.555821
2356.54	-0.5441
2363.93	-0.537616
2371.31	-0.530755
2386.09	-0.516013
2393.47	-0.508188
2400.86	-0.500096
2415.64	-0.483219
2423.02	-0.474485
2430.41	-0.465587
2445.19	-0.447393
2452.57	-0.438144
2467.35	-0.41945
2474.73	-0.410046
2482.12	-0.400629
2496.9	-0.381834
2504.28	-0.37249
2511.67	-0.363202
2526.45	-0.344857
2533.83	-0.335828
2541.22	-0.326911
2555.99	-0.309458
2563.38	-0.300945
2570.77	-0.292585
2585.54	-0.276361
2592.93	-0.268512
2600.32	-0.260847
2615.09	-0.246088
2622.48	-0.239004
2637.25	-0.225445
2644.64	-0.218975
2652.03	-0.212713
2666.8	-0.200822
2674.19	-0.195193
2681.58	-0.189774
2696.35	-0.179567
2703.74	-0.174775
2711.13	-0.170188
2725.9	-0.161622
2733.29	-0.157637
2740.68	-0.153846
2755.45	-0.146834
2762.84	-0.143605
2770.23	-0.140555
2785	-0.134975
2792.39	-0.132436
2807.16	-0.127837
2814.55	-0.125766
2821.94	-0.123842
2836.71	-0.120412
2844.1	-0.118896
2851.49	-0.117505
2866.26	-0.11508
2873.65	-0.114035
2881.03	-0.113096
2895.81	-0.11151
2903.2	-0.110854
2910.58	-0.110283
2925.36	-0.109376
2932.74	-0.109031
2940.13	-0.108751
2954.91	-0.10837
2962.29	-0.10826
2977.07	-0.108181
2984.46	-0.108203
2991.84	-0.108262
3006.62	-0.108472
3014	-0.108617
3021.39	-0.108783
3036.17	-0.109167
3043.55	-0.109379
3050.94	-0.1096
3065.72	-0.110059
3073.1	-0.110291
3080.49	-0.110522
3095.26	-0.110971
3102.65	-0.111184
3110.04	-0.111388
3124.81	-0.111758
3132.2	-0.111921
3146.97	-0.112195
3154.36	-0.112303
3161.75	-0.112391
3176.52	-0.112499
3183.91	-0.112517
3191.3	-0.112511
3206.07	-0.112422
3213.46	-0.112337
3220.85	-0.112224
3235.62	-0.111915
3243.01	-0.111718
3250.4	-0.111492
3265.17	-0.110953
3272.56	-0.110639
3287.33	-0.109924
3294.72	-0.109523
3302.11	-0.109093
3316.88	-0.108148
3324.27	-0.107632
3331.65	-0.107089
3346.43	-0.105921
3353.82	-0.105297
3361.2	-0.104646
3375.98	-0.103268
3383.36	-0.102543
3390.75	-0.101793
3405.52	-0.100223
3412.91	-0.0994041
3420.3	-0.098564
3435.07	-0.0968215
3442.46	-0.0959205
3457.23	-0.0940624
3464.62	-0.0931066
3472.01	-0.0921339
3486.78	-0.0901407
3494.17	-0.0891214
3501.56	-0.0880881
3516.33	-0.0859816
3523.72	-0.0849098
3531.11	-0.0838265
3545.88	-0.0816281
3553.27	-0.0805142
3560.65	-0.0793913
3575.43	-0.0771211
3582.81	-0.0759749
3590.2	-0.074822
3604.98	-0.0724985
3612.36	-0.0713289
3627.14	-0.0689764
3634.52	-0.0677945
3641.91	-0.0666094
3656.68	-0.0642312
3664.07	-0.0630389
3671.46	-0.061845
3686.23	-0.0594537
3693.62	-0.0582569
3701.01	-0.0570598
3715.78	-0.0546657
3723.17	-0.0534692
3730.55	-0.0522734
3745.33	-0.0498845
3752.72	-0.0486919
3760.1	-0.0475007
3774.88	-0.045123
3782.26	-0.0439369
3797.04	-0.0415703
3804.42	-0.0403901
3811.81	-0.0392121
3826.59	-0.0368627
3833.97	-0.0356914
3841.36	-0.0345224
3856.13	-0.0321914
3863.52	-0.0310294
3870.91	-0.0298697
3885.68	-0.0275574
3893.07	-0.0264046
3900.46	-0.0252541
3915.23	-0.0229597
3922.62	-0.0218158
3930	-0.020674
3944.78	-0.0183965
3952.16	-0.0172608
3966.94	-0.0149952
3974.32	-0.0138652
3981.71	-0.012737
3996.49	-0.0104861
4003.87	-0.00936322
4011.26	-0.00824206
4026.03	-0.00600477
4033.42	-0.00488859
4040.81	-0.00377404
4055.58	-0.00154981
4062.97	-0.00044012
4070.36	0.00066794
4085.13	0.00287912
4092.52	0.0039822
4107.29	0.00618318
4114.68	0.00728101
4122.06	0.00837699
4136.84	0.0105632
4144.23	0.0116533
4151.61	0.0127414
4166.39	0.0149108
4173.77	0.015992
4181.16	0.0170708
4195.93	0.0192206
4203.32	0.0202914
4210.71	0.0213592
4225.48	0.0234858
4232.87	0.0245442
4240.26	0.0255991
4255.03	0.027698
4262.42	0.0287416
4277.19	0.0308165
4284.58	0.0318474
4291.97	0.0328737
4306.74	0.0349117
4314.13	0.0359231
4321.51	0.0369291
4336.29	0.0389241
4343.68	0.0399128
4351.06	0.0408952
4365.84	0.0428407
4373.22	0.0438032
4380.61	0.0447587
4395.39	0.0466475
4402.77	0.0475804
4410.16	0.0485053
4424.93	0.0503301
4432.32	0.0512295
4447.1	0.0530013
4454.48	0.0538731
4461.87	0.0547352
4476.64	0.0564294
4484.03	0.057261
4491.42	0.0580818
4506.19	0.0596904
4513.58	0.0604777
4520.97	0.0612532
4535.74	0.0627682
4543.13	0.0635072
4550.52	0.0642334
4565.29	0.0656468
4572.68	0.0663335
4580.07	0.0670065
4594.84	0.0683104
4602.23	0.0689409
4617	0.0701578
4624.39	0.0707438
4631.78	0.0713144
4646.55	0.0724088
4653.94	0.0729322
4661.33	0.0734394
4676.1	0.0744045
4683.49	0.074862
4690.87	0.0753025
4705.65	0.0761321
4713.04	0.0765207
4720.42	0.0768917
4735.2	0.0775802
4742.59	0.0778974
4757.36	0.078477
4764.75	0.0787392
4772.13	0.0789828
4786.91	0.079414
4794.3	0.0796013
4801.68	0.0797697
4816.46	0.0800495
4823.85	0.0801608
4831.23	0.080253
4846.01	0.0803799
4853.39	0.0804147
4860.78	0.0804302
4875.56	0.0804039
4882.94	0.080362
4890.33	0.0803012
4905.1	0.0801226
4912.49	0.080005
4927.27	0.0797137
4934.65	0.0795403
4942.04	0.0793484
4956.82	0.0789099
4964.2	0.0786637
4971.59	0.0783996
4986.36	0.0778188
4993.75	0.0775025
5001.14	0.0771691
5015.91	0.0764521
5023.3	0.076069
5030.69	0.0756698
5045.46	0.0748241
5052.85	0.0743781
5060.24	0.0739172
5075.01	0.0729514
5082.4	0.0724472
5097.17	0.0713977
5104.56	0.0708531
5111.95	0.0702956
5126.72	0.0691437
5134.11	0.06855
5141.5	0.0679449
5156.27	0.0667019
5163.66	0.0660648
5171.05	0.0654178
5185.82	0.0640957
5193.21	0.0634214
5200.59	0.0627388
5215.37	0.0613501
5222.76	0.0606449
5230.14	0.059933
5244.92	0.0584906
5252.31	0.057761
5267.08	0.0562868
5274.47	0.0555431
5281.85	0.0547956
5296.63	0.0532904
5304.02	0.0525337
5311.4	0.0517747
5326.18	0.0502515
5333.56	0.0494881
5340.95	0.048724
5355.73	0.0471952
5363.11	0.0464313
5370.5	0.0456683
5385.28	0.0441461
5392.66	0.0433877
5400.05	0.0426315
5414.82	0.0411273
5422.21	0.04038
5436.99	0.0388964
5444.37	0.0381608
5451.76	0.0374297
5466.54	0.0359824
5473.92	0.0352666
5481.31	0.0345566
5496.08	0.0331545
5503.47	0.032463
5510.86	0.0317782
5525.63	0.0304296
5533.02	0.0297661
5540.41	0.0291103
5555.18	0.0278219
5562.57	0.0271898
5577.34	0.0259506
5584.73	0.0253437
5592.12	0.0247456
5606.89	0.0235759
5614.28	0.0230046
5621.67	0.0224424
5636.44	0.0213458
5643.83	0.0208116
5651.22	0.0202868
5665.99	0.0192656
5673.38	0.0187693
5680.77	0.0182826
5695.54	0.0173379
5702.93	0.0168799
5710.31	0.0164315
5725.09	0.015563
5732.48	0.0151429
5747.25	0.0143307
5754.64	0.0139384
5762.03	0.0135553
5776.8	0.0128161
5784.19	0.0124597
5791.57	0.0121121
5806.35	0.0114424
5813.74	0.0111201
5821.12	0.0108059
5835.9	0.0102014
5843.29	0.00991066
5850.67	0.00962743
5865.45	0.0090827
5872.83	0.0088208
5880.22	0.00856561
5895	0.00807457
5902.38	0.00783827
5917.16	0.00738306
5924.54	0.00716368
5931.93	0.00694949
5946.71	0.0065357
5954.09	0.00633562
5961.48	0.00613977
5976.26	0.00575974
5983.64	0.00557507
5991.03	0.00539363
6005.8	0.00503942
6013.19	0.00486615
6020.58	0.00469509
6035.35	0.0043586
6042.74	0.00419266
6050.13	0.00402793
6064.9	0.00370106
6072.29	0.00353843
6087.06	0.00321354
6094.45	0.00305079
6101.84	0.00288753
6116.61	0.0025585
6124	0.00239227
6131.39	0.00222459
6146.16	0.00188402
6153.55	0.00171069
6160.94	0.00153505
6175.71	0.00117601
6183.1	0.000992225
6190.49	0.000805332
6205.26	0.000421497
6212.65	0.000224201
6220.04	2.30925e-05
6234.81	-0.000391209
6242.2	-0.00060471
6256.97	-0.00104514
6264.36	-0.00127233
6271.75	-0.00150436
6286.52	-0.00198336
6293.91	-0.00223055
6301.3	-0.00248301
6316.07	-0.0030041
6323.46	-0.00327289
6330.84	-0.00354728
6345.62	-0.00411313
6353.01	-0.0044047
6360.39	-0.0047021
6375.17	-0.00531454
6382.56	-0.00562965
6397.33	-0.00627774
6404.72	-0.00661075
6412.1	-0.00694974
6426.88	-0.00764565
6434.27	-0.00800254
6441.65	-0.00836536
6456.43	-0.0091087
6463.81	-0.00948915
6471.2	-0.00987539
6485.98	-0.010665
6493.36	-0.0110684
6500.75	-0.0114772
6515.53	-0.0123115
6522.91	-0.0127366
6530.3	-0.0131671
6545.07	-0.0140435
6552.46	-0.0144892
6567.24	-0.0153954
6574.62	-0.0158556
6582.01	-0.0163203
6596.79	-0.0172632
6604.17	-0.0177412
6611.56	-0.0182232
6626.33	-0.0191992
6633.72	-0.019693
6641.11	-0.0201904
6655.88	-0.0211955
6663.27	-0.021703
6670.66	-0.0222137
6685.43	-0.0232437
6692.82	-0.0237629
6700.21	-0.0242846
6714.98	-0.0253351
6722.37	-0.0258636
6737.14	-0.0269264
6744.53	-0.0274604
6751.92	-0.027996
6766.69	-0.0290713
6774.08	-0.0296106
6781.47	-0.0301509
6796.24	-0.0312339
6803.63	-0.0317762
6811.02	-0.0323189
6825.79	-0.0334049
6833.18	-0.0339478
6840.57	-0.0344906
6855.34	-0.035575
6862.73	-0.0361163
6870.12	-0.0366568
6884.89	-0.037735
6892.28	-0.0382724
6907.05	-0.039343
6914.44	-0.039876
6921.83	-0.0404072
6936.6	-0.0414639
6943.99	-0.041989
6951.38	-0.0425119
6966.15	-0.0435503
6973.54	-0.0440656
6980.92	-0.044578
6995.7	-0.045594
7003.09	-0.0460973
7010.47	-0.0465973
7025.25	-0.0475868
7032.64	-0.0480761
7040.02	-0.0485616
7054.8	-0.0495208
7062.18	-0.0499942
7076.96	-0.0509281
7084.35	-0.0513884
7091.73	-0.051844
7106.51	-0.0527411
7113.9	-0.0531822
7121.28	-0.0536183
7136.06	-0.054475
7143.44	-0.0548953
7150.83	-0.0553101
7165.61	-0.056123
7172.99	-0.0565208
7180.38	-0.0569128
7195.16	-0.0576787
7202.54	-0.0580524
7217.32	-0.058781
7224.7	-0.0591357
7232.09	-0.0594839
7246.87	-0.0601603
7254.25	-0.0604883
7261.64	-0.0608095
7276.42	-0.0614308
7283.8	-0.0617309
7291.19	-0.0620237
7305.96	-0.0625875
7313.35	-0.0628583
7320.74	-0.0631216
7335.51	-0.0636254
7342.9	-0.0638658
7350.29	-0.0640984
7365.06	-0.0645401
7372.45	-0.0647491
7387.22	-0.0651429
7394.61	-0.0653277
7402	-0.0655043
7416.77	-0.0658328
7424.16	-0.0659846
7431.55	-0.066128
7446.32	-0.0663897
7453.71	-0.0665078
7461.1	-0.0666175
7475.87	-0.0668111
7483.26	-0.0668951
7490.65	-0.0669704
7505.42	-0.0670951
7512.81	-0.0671445
7520.19	-0.0671851
7534.97	-0.0672402
7542.36	-0.0672547
7557.13	-0.0672575
7564.52	-0.0672457
7571.91	-0.0672253
7586.68	-0.0671581
7594.07	-0.0671115
7601.45	-0.0670561
7616.23	-0.0669193
7623.62	-0.0668379
7631	-0.0667479
7645.78	-0.066542
7653.16	-0.0664263
7660.55	-0.0663019
7675.33	-0.0660279
7682.71	-0.0658782
7690.1	-0.0657202
7704.88	-0.0653791
7712.26	-0.0651962
7727.04	-0.0648059
7734.42	-0.0645986
7741.81	-0.0643833
7756.59	-0.0639288
7763.97	-0.0636897
7771.36	-0.0634429
7786.13	-0.0629262
7793.52	-0.0626565
7800.91	-0.0623793
7815.68	-0.0618026
7823.07	-0.0615034
7830.46	-0.061197
7845.23	-0.0605629
7852.62	-0.0602354
7860.01	-0.059901
7874.78	-0.0592122
7882.17	-0.0588578
7896.94	-0.0581297
7904.33	-0.0577562
7911.72	-0.0573764
7926.49	-0.0565987
7933.88	-0.0562009
7941.27	-0.0557973
7956.04	-0.054973
7963.43	-0.0545526
7970.82	-0.0541267
7985.59	-0.0532591
7992.98	-0.0528176
8000.36	-0.0523711
8015.14	-0.0514636
8022.53	-0.0510027
8037.3	-0.0500673
8044.69	-0.049593
8052.07	-0.0491145
8066.85	-0.048145
8074.24	-0.0476543
8081.62	-0.0471597
8096.4	-0.0461595
8103.79	-0.0456541
8111.17	-0.0451453
8125.95	-0.0441177
8133.33	-0.0435992
8140.72	-0.0430778
8155.5	-0.0420262
8162.88	-0.0414964
8170.27	-0.0409639
8185.04	-0.0398917
8192.43	-0.0393521
8207.21	-0.0382664
8214.59	-0.0377205
8221.98	-0.0371728
8236.76	-0.036072
8244.14	-0.0355191
8251.53	-0.0349648
8266.3	-0.033852
8273.69	-0.0332937
8281.08	-0.0327343
8295.85	-0.0316124
8303.24	-0.0310502
8310.63	-0.0304872
8325.4	-0.0293592
8332.79	-0.0287945
8340.18	-0.0282293
8354.95	-0.0270981
8362.34	-0.0265322
8377.11	-0.0254003
8384.5	-0.0248344
8391.89	-0.0242688
8406.66	-0.0231384
8414.05	-0.0225737
8421.44	-0.0220096
8436.21	-0.0208832
8443.6	-0.0203211
8450.98	-0.0197598
8465.76	-0.01864
8473.15	-0.0180816
8480.53	-0.0175244
8495.31	-0.0164136
8502.7	-0.0158601
8510.08	-0.0153082
8524.86	-0.0142088
8532.24	-0.0136615
8547.02	-0.0125722
8554.41	-0.0120303
8561.79	-0.0114904
8576.57	-0.0104165
8583.95	-0.00988281
8591.34	-0.00935131
8606.12	-0.00829522
8613.5	-0.00777078
8620.89	-0.00724884
8635.67	-0.00621272
8643.05	-0.00569867
8650.44	-0.0051874
8665.21	-0.00417342
8672.6	-0.00367086
8687.38	-0.00267491
8694.76	-0.00218166
8702.15	-0.00169165
8716.93	-0.000721606
8724.31	-0.000241702
8731.7	0.000234704
8746.47	0.00117676
8753.86	0.00164228
8761.25	0.00210404
8776.02	0.00301605
8783.41	0.00346617
8790.8	0.00391229
8805.57	0.00479225
8812.96	0.00522597
8820.35	0.00565545
8835.12	0.00650141
8842.51	0.00691778
8857.28	0.00773701
8864.67	0.00813975
8872.06	0.00853783
8886.83	0.00931982
8894.22	0.00970361
8901.61	0.0100825
8916.38	0.0108255
8923.77	0.0111895
8931.15	0.0115484
8945.93	0.0122508
8953.32	0.0125942
8960.7	0.0129324
8975.48	0.0135926
8982.87	0.0139147
8990.25	0.0142313
9005.03	0.0148481
9012.41	0.0151482
9027.19	0.0157316
9034.58	0.0160148
9041.96	0.0162923
9056.74	0.0168301
9064.13	0.0170903
9071.51	0.0173448
9086.29	0.0178362
9093.67	0.018073
9101.06	0.018304
9115.84	0.0187482
9123.22	0.0189614
9130.61	0.0191686
9145.38	0.0195652
9152.77	0.0197544
9160.16	0.0199377
9174.93	0.0202862
9182.32	0.0204515
9197.1	0.020764
9204.48	0.0209112
9211.87	0.0210525
9226.64	0.0213171
9234.03	0.0214404
9241.42	0.0215578
9256.19	0.0217748
9263.58	0.0218745
9270.97	0.0219682
9285.74	0.0221383
9293.13	0.0222146
9300.52	0.0222852
9315.29	0.0224092
9322.68	0.0224627
9330.07	0.0225105
9344.84	0.0225895
9352.23	0.0226208
9367	0.022667
9374.39	0.022682
9381.78	0.0226917
9396.55	0.0226955
9403.94	0.0226897
9411.33	0.0226787
9426.1	0.0226418
9433.49	0.022616
9440.87	0.0225854
9455.65	0.0225099
9463.04	0.0224651
9470.42	0.0224158
9485.2	0.0223039
9492.59	0.0222413
9507.36	0.0221036
9514.75	0.0220285
9522.13	0.0219494
9536.91	0.0217795
9544.3	0.0216888
9551.68	0.0215945
9566.46	0.021395
9573.85	0.0212901
9581.23	0.0211819
9596.01	0.0209557
9603.39	0.0208379
9610.78	0.0207172
9625.56	0.0204671
9632.94	0.020338
9640.33	0.0202062
9655.11	0.0199352
9662.49	0.0197962
9677.27	0.0195115
9684.65	0.019366
9692.04	0.0192185
9706.82	0.018918
9714.2	0.0187652
9721.59	0.0186108
9736.37	0.0182976
9743.75	0.018139
9751.14	0.0179792
9765.91	0.0176561
9773.3	0.0174931
9780.69	0.0173293
9795.46	0.0169992
9802.85	0.0168333
9810.24	0.0166668
9825.01	0.0163325
9832.4	0.0161649
9847.17	0.0158292
9854.56	0.0156612
9861.95	0.0154933
9876.72	0.0151578
9884.11	0.0149903
9891.5	0.0148232
9906.27	0.0144902
9913.66	0.0143244
9921.05	0.0141593
9935.82	0.0138309
9943.21	0.0136678
9950.6	0.0135055
9965.37	0.0131836
9972.76	0.0130241
9980.14	0.0128656
9994.92	0.0125518
10002.3	0.0123967
10017.1	0.0120899
10024.5	0.0119385
10031.9	0.0117883
10046.6	0.011492
10054	0.0113459
10061.4	0.0112012
10076.2	0.0109162
10083.6	0.0107759
10091	0.0106372
10105.7	0.0103642
10113.1	0.01023
10120.5	0.0100973
10135.3	0.00983671
10142.7	0.00970874
10150.1	0.00958235
10164.8	0.00933423
10172.2	0.00921251
10187	0.00897371
10194.4	0.0088566
10201.8	0.00874101
10216.5	0.00851432
10223.9	0.00840318
10231.3	0.00829349
10246.1	0.00807835
10253.5	0.00797286
10260.9	0.00786872
10275.6	0.00766438
10283	0.00756411
10290.4	0.00746507
10305.2	0.00727055
10312.6	0.00717499
10327.3	0.00698708
10334.7	0.00689466
10342.1	0.00680321
10356.9	0.00662302
10364.3	0.0065342
10371.7	0.00644617
10386.4	0.00627231
10393.8	0.00618637
10401.2	0.00610104
10416	0.005932
10423.4	0.00584818
10430.8	0.00576477
10445.5	0.00559897
10452.9	0.00551647
10460.3	0.00543418
10475.1	0.00526998
10482.5	0.00518798
10497.3	0.00502391
10504.6	0.00494173
10512	0.00485939
10526.8	0.00469403
10534.2	0.00461091
10541.6	0.00452741
10556.4	0.00435913
10563.7	0.00427424
10571.1	0.00418879
10585.9	0.004016
10593.3	0.00392857
10600.7	0.00384038
10615.4	0.00366157
10622.8	0.00357085
10630.2	0.00347921
10645	0.00329295
10652.4	0.00319825
10667.2	0.00300554
10674.5	0.00290745
10681.9	0.00280815
10696.7	0.00260578
10704.1	0.00250264
10711.5	0.00239817
10726.3	0.00218506
10733.6	0.00207638
10741	0.00196623
10755.8	0.00174147
10763.2	0.00162681
10770.6	0.00151059
10785.4	0.00127341
10792.7	0.00115241
10800.1	0.00102979
10814.9	0.000779604
10822.3	0.000652015
10837.1	0.000391792
10844.5	0.000259141
10851.8	0.000124786
10866.6	-0.000149052
10874	-0.000288541
10881.4	-0.000429747
10896.2	-0.000717301
10903.6	-0.000863646
10910.9	-0.0010117
10925.7	-0.0013129
10933.1	-0.00146603
10940.5	-0.00162083
10955.3	-0.00193543
10962.7	-0.00209519
10970	-0.00225657
10984.8	-0.00258415
10992.2	-0.0027503
11007	-0.00308725
11014.4	-0.00325799
11021.7	-0.00343022
11036.5	-0.00377905
11043.9	-0.00395559
11051.3	-0.00413351
11066.1	-0.00449338
11073.5	-0.00467527
11080.8	-0.00485843
11095.6	-0.00522839
11103	-0.00541513
11110.4	-0.005603
11125.2	-0.00598197
11132.6	-0.006173
11147.3	-0.00655796
11154.7	-0.00675181
11162.1	-0.00694652
11176.9	-0.00733835
11184.3	-0.00753539
11191.7	-0.00773312
11206.4	-0.00813049
11213.8	-0.00833004
11221.2	-0.00853011
11236	-0.00893161
11243.4	-0.00913295
11250.8	-0.00933463
11265.5	-0.0097388
11272.9	-0.00994121
11280.3	-0.0101438
11295.1	-0.0105491
11302.5	-0.0107518
11317.2	-0.0111571
11324.6	-0.0113595
11332	-0.0115617
11346.8	-0.0119655
11354.2	-0.0121669
11361.6	-0.0123679
11376.3	-0.0127686
11383.7	-0.0129682
11391.1	-0.0131672
11405.9	-0.0135634
11413.3	-0.0137604
11420.7	-0.0139567
11435.4	-0.0143469
11442.8	-0.0145406
11450.2	-0.0147334
11465	-0.015116
11472.4	-0.0153058
11487.1	-0.0156818
11494.5	-0.0158681
11501.9	-0.0160531
11516.7	-0.0164193
11524.1	-0.0166003
11531.5	-0.01678
11546.2	-0.0171349
11553.6	-0.0173101
11561	-0.0174838
11575.8	-0.0178263
11583.2	-0.017995
11590.6	-0.0181621
11605.3	-0.0184911
11612.7	-0.0186529
11620.1	-0.0188128
11634.9	-0.0191272
11642.3	-0.0192815
11657.1	-0.0195842
11664.4	-0.0197326
11671.8	-0.019879
11686.6	-0.0201657
11694	-0.0203058
11701.4	-0.0204439
11716.2	-0.0207136
11723.5	-0.0208453
11730.9	-0.0209747
11745.7	-0.0212269
11753.1	-0.0213497
11760.5	-0.0214702
11775.2	-0.0217045
11782.6	-0.0218182
11790	-0.0219296
11804.8	-0.0221455
11812.2	-0.0222499
11827	-0.0224519
11834.3	-0.0225494
11841.7	-0.0226446
11856.5	-0.0228279
11863.9	-0.022916
11871.3	-0.0230018
11886.1	-0.0231665
11893.4	-0.0232453
11900.8	-0.0233218
11915.6	-0.0234679
11923	-0.0235375
11930.4	-0.0236048
11945.2	-0.0237326
11952.5	-0.0237931
11967.3	-0.0239074
11974.7	-0.0239612
11982.1	-0.0240128
11996.9	-0.0241095
12004.3	-0.0241547
12011.6	-0.0241977
12026.4	-0.0242774
12033.8	-0.0243142
12041.2	-0.0243489
12056	-0.0244123
12063.4	-0.024441
12070.7	-0.0244678
12085.5	-0.0245157
12092.9	-0.0245368
12100.3	-0.0245561
12115.1	-0.0245892
12122.5	-0.0246032
12137.2	-0.024626
12144.6	-0.0246348
12152	-0.0246421
12166.8	-0.0246519
12174.2	-0.0246544
12181.5	-0.0246555
12196.3	-0.0246533
12203.7	-0.0246501
12211.1	-0.0246455
12225.9	-0.0246324
12233.3	-0.024624
12240.6	-0.0246144
12255.4	-0.0245915
12262.8	-0.0245784
12270.2	-0.0245642
12285	-0.0245328
12292.4	-0.0245156
12307.1	-0.0244784
12314.5	-0.0244585
12321.9	-0.0244378
12336.7	-0.024394
12344.1	-0.024371
12351.5	-0.0243473
12366.2	-0.0242979
12373.6	-0.0242724
12381	-0.0242462
12395.8	-0.0241925
12403.2	-0.0241649
12410.6	-0.0241369
12425.3	-0.0240797
12432.7	-0.0240506
12440.1	-0.0240212
12454.9	-0.0239616
12462.3	-0.0239315
12477	-0.0238707
12484.4	-0.0238401
12491.8	-0.0238094
12506.6	-0.0237477
12514	-0.0237168
12521.4	-0.0236859
12536.1	-0.0236242
12543.5	-0.0235934
12550.9	-0.0235627
12565.7	-0.0235016
12573.1	-0.0234712
12580.5	-0.023441
12595.2	-0.0233811
12602.6	-0.0233515
12610	-0.023322
12624.8	-0.0232639
12632.2	-0.0232352
12646.9	-0.0231786
12654.3	-0.0231507
12661.7	-0.0231231
12676.5	-0.0230689
12683.9	-0.0230422
12691.3	-0.0230159
12706	-0.0229643
12713.4	-0.022939
12720.8	-0.022914
12735.6	-0.022865
12743	-0.0228411
12750.4	-0.0228174
12765.1	-0.0227712
12772.5	-0.0227486
12787.3	-0.0227044
12794.7	-0.0226827
12802.1	-0.0226614
12816.9	-0.0226197
12824.2	-0.0225993
12831.6	-0.0225792
12846.4	-0.0225398
12853.8	-0.0225205
12861.2	-0.0225014
12876	-0.0224639
12883.3	-0.0224455
12890.7	-0.0224273
12905.5	-0.0223914
12912.9	-0.0223737
12920.3	-0.0223561
12935	-0.0223213
12942.4	-0.0223041
12957.2	-0.0222697
12964.6	-0.0222526
12972	-0.0222355
12986.8	-0.0222013
12994.1	-0.0221842
13001.5	-0.022167
13016.3	-0.0221323
13023.7	-0.0221147
13031.1	-0.0220971
13045.9	-0.0220612
13053.2	-0.022043
13060.6	-0.0220245
13075.4	-0.0219868
13082.8	-0.0219676
13090.2	-0.021948
13105	-0.0219077
13112.3	-0.021887
13127.1	-0.0218444
13134.5	-0.0218224
13141.9	-0.0217999
13156.7	-0.0217534
13164.1	-0.0217294
13171.4	-0.0217048
13186.2	-0.0216537
13193.6	-0.0216273
13201	-0.0216002
13215.8	-0.0215438
13223.2	-0.0215146
13230.5	-0.0214846
13245.3	-0.0214223
13252.7	-0.02139
13260.1	-0.0213568
13274.9	-0.0212879
13282.3	-0.021252
13297	-0.0211777
13304.4	-0.0211391
13311.8	-0.0210995
13326.6	-0.0210173
13334	-0.0209747
13341.3	-0.0209311
13356.1	-0.0208405
13363.5	-0.0207936
13370.9	-0.0207456
13385.7	-0.0206462
13393.1	-0.0205947
13400.4	-0.0205421
13415.2	-0.0204333
13422.6	-0.0203771
13437.4	-0.0202609
13444.8	-0.020201
13452.2	-0.0201397
13466.9	-0.0200135
13474.3	-0.0199484
13481.7	-0.019882
13496.5	-0.0197453
13503.9	-0.0196749
13511.3	-0.0196032
13526	-0.0194558
13533.4	-0.01938
13540.8	-0.0193029
13555.6	-0.0191445
13563	-0.0190632
13570.4	-0.0189806
13585.1	-0.0188112
13592.5	-0.0187244
13607.3	-0.0185466
13614.7	-0.0184556
13622.1	-0.0183632
13636.8	-0.0181743
13644.2	-0.0180778
13651.6	-0.0179799
13666.4	-0.0177799
13673.8	-0.0176778
13681.2	-0.0175744
13695.9	-0.0173635
13703.3	-0.017256
13710.7	-0.0171472
13725.5	-0.0169255
13732.9	-0.0168127
13740.3	-0.0166985
13755	-0.0164664
13762.4	-0.0163484
13777.2	-0.0161086
13784.6	-0.0159868
13792	-0.0158638
13806.7	-0.0156142
13814.1	-0.0154875
13821.5	-0.0153598
13836.3	-0.0151007
13843.7	-0.0149695
13851.1	-0.0148371
13865.8	-0.0145692
13873.2	-0.0144336
13880.6	-0.014297
13895.4	-0.0140207
13902.8	-0.0138811
13910.2	-0.0137405
13924.9	-0.0134566
13932.3	-0.0133132
13947.1	-0.0130239
13954.5	-0.012878
13961.9	-0.0127313
13976.7	-0.0124355
13984	-0.0122864
13991.4	-0.0121367
14006.2	-0.0118351
14013.6	-0.0116834
14021	-0.011531
14035.8	-0.0112245
14043.1	-0.0110704
14050.5	-0.0109158
14065.3	-0.0106051
14072.7	-0.0104491
14080.1	-0.0102927
14094.9	-0.00997874
14102.2	-0.00982124
14117	-0.00950536
14124.4	-0.00934703
14131.8	-0.00918848
14146.6	-0.00887081
14153.9	-0.00871175
14161.3	-0.00855258
14176.1	-0.008234
14183.5	-0.00807465
14190.9	-0.0079153
14205.7	-0.0075967
14213	-0.0074375
14220.4	-0.00727841
14235.2	-0.00696066
14242.6	-0.00680205
14257.4	-0.0064855
14264.8	-0.00632762
14272.1	-0.00617003
14286.9	-0.00585585
14294.3	-0.00569931
14301.7	-0.00554316
14316.5	-0.00523217
14323.9	-0.00507738
14331.2	-0.00492309
14346	-0.0046161
14353.4	-0.00446346
14360.8	-0.00431141
14375.6	-0.00400921
14383	-0.0038591
14390.3	-0.00370968
14405.1	-0.003413
14412.5	-0.00326579
14427.3	-0.00297372
14434.7	-0.0028289
14442.1	-0.00268492
14456.8	-0.00239957
14464.2	-0.00225824
14471.6	-0.00211782
14486.4	-0.00183981
14493.8	-0.00170225
14501.1	-0.00156569
14515.9	-0.00129559
14523.3	-0.00116209
14530.7	-0.00102964
14545.5	-0.000767969
14552.9	-0.000638772
14560.2	-0.000510687
14575	-0.000257903
14582.4	-0.00013323
14597.2	0.000112619
14604.6	0.000233773
14612	0.000353732
14626.7	0.000590025
14634.1	0.000706339
14641.5	0.000821422
14656.3	0.00104785
14663.7	0.00115919
14671.1	0.00126926
14685.8	0.00148559
14693.2	0.00159184
14700.6	0.0016968
14715.4	0.00190284
14722.8	0.00200391
14730.2	0.00210368
14744.9	0.0022993
14752.3	0.00239514
14767.1	0.0025829
14774.5	0.0026748
14781.9	0.0027654
14796.6	0.00294264
14804	0.00302929
14811.4	0.00311462
14826.2	0.00328137
14833.6	0.00336278
14841	0.00344289
14855.7	0.00359922
14863.1	0.00367544
14870.5	0.00375037
14885.3	0.00389638
14892.7	0.00396748
14900.1	0.0040373
14914.8	0.00417317
14922.2	0.00423923
14937	0.00436762
14944.4	0.00442997
14951.8	0.0044911
14966.5	0.00460972
14973.9	0.00466724
14981.3	0.00472357
14996.1	0.0048327
15003.5	0.00488553
15010.9	0.0049372
15025.6	0.00503715
15033	0.00508544
15040.4	0.00513262
15055.2	0.0052237
15062.6	0.00526763
15077.4	0.00535231
15084.7	0.00539308
15092.1	0.00543283
15106.9	0.0055093
15114.3	0.00554604
15121.7	0.00558181
15136.5	0.00565047
15143.8	0.00568338
15151.2	0.00571538
15166	0.00577664
15173.4	0.00580594
15180.8	0.00583437
15195.6	0.00588868
15202.9	0.00591459
15210.3	0.00593968
15225.1	0.00598749
15232.5	0.00601023
15247.3	0.00605345
15254.7	0.00607397
15262	0.00609377
15276.8	0.0061313
15284.2	0.00614905
15291.6	0.00616615
15306.4	0.00619845
15313.7	0.00621369
15321.1	0.00622832
15335.9	0.00625588
15343.3	0.00626883
15350.7	0.00628125
15365.5	0.00630454
15372.8	0.00631544
15380.2	0.00632587
15395	0.00634538
15402.4	0.00635448
15417.2	0.00637147
15424.6	0.00637937
15431.9	0.00638691
15446.7	0.00640095
15454.1	0.00640747
15461.5	0.00641369
15476.3	0.00642525
15483.7	0.00643062
15491	0.00643575
15505.8	0.00644531
15513.2	0.00644976
15520.6	0.00645403
15535.4	0.00646204
15542.8	0.00646581
15550.1	0.00646945
15564.9	0.00647637
15572.3	0.00647968
15587.1	0.00648606
15594.5	0.00648917
15601.9	0.00649223
15616.6	0.00649829
15624	0.00650131
15631.4	0.00650434
15646.2	0.00651048
15653.6	0.00651362
15661	0.00651682
15675.7	0.00652345
15683.1	0.00652691
15690.5	0.00653047
15705.3	0.00653798
15712.7	0.00654194
15720	0.00654606
15734.8	0.0065548
15742.2	0.00655945
15757	0.00656935
15764.4	0.00657462
15771.8	0.00658012
15786.5	0.00659185
15793.9	0.00659809
15801.3	0.0066046
15816.1	0.00661844
15823.5	0.0066258
15830.9	0.00663345
15845.6	0.00664969
15853	0.00665829
15860.4	0.00666722
15875.2	0.00668609
15882.6	0.00669604
15897.3	0.00671703
15904.7	0.00672807
15912.1	0.00673948
15926.9	0.00676343
15934.3	0.00677598
15941.7	0.00678893
15956.4	0.00681599
15963.8	0.00683012
15971.2	0.00684465
15986	0.00687493
15993.4	0.00689067
16000.8	0.00690683
16015.5	0.00694037
16022.9	0.00695775
16030.3	0.00697555
16045.1	0.00701236
16052.5	0.00703138
16067.3	0.00707062
16074.6	0.00709084
16082	0.00711145
16096.8	0.00715385
16104.2	0.00717563
16111.6	0.00719779
16126.3	0.00724322
16133.7	0.00726648
16141.1	0.00729009
16155.9	0.00733835
16163.3	0.00736298
16170.7	0.00738794
16185.4	0.00743878
16192.8	0.00746464
16200.2	0.00749079
16215	0.00754389
16222.4	0.00757082
16237.2	0.00762537
16244.5	0.00765297
16251.9	0.00768076
16266.7	0.00773688
16274.1	0.00776517
16281.5	0.00779359
16296.3	0.00785077
16303.6	0.0078795
16311	0.00790828
16325.8	0.00796598
16333.2	0.00799485
16340.6	0.00802371
16355.4	0.0080813
16362.7	0.00810999
16370.1	0.00813858
16384.9	0.00819539
16392.3	0.00822355
16407.1	0.00827927
16414.5	0.00830679
16421.8	0.00833404
16436.6	0.00838763
16444	0.00841393
16451.4	0.00843985
16466.2	0.00849046
16473.5	0.0085151
16480.9	0.00853926
16495.7	0.008586
16503.1	0.00860852
16510.5	0.00863045
16525.3	0.00867236
16532.6	0.00869229
16540	0.00871149
16554.8	0.00874759
16562.2	0.00876442
16577	0.00879549
16584.4	0.00880965
16591.7	0.00882286
16606.5	0.00884629
16613.9	0.00885644
16621.3	0.0088655
16636.1	0.00888022
16643.5	0.00888582
16650.8	0.00889018
16665.6	0.00889511
16673	0.0088956
16680.4	0.00889473
16695.2	0.00888877
16702.6	0.00888361
16717.3	0.00886877
16724.7	0.00885902
16732.1	0.00884768
16746.9	0.00882006
16754.3	0.00880372
16761.7	0.00878566
16776.4	0.00874422
16783.8	0.00872078
16791.2	0.00869548
16806	0.00863921
16813.4	0.00860816
16820.8	0.00857515
16835.5	0.00850307
16842.9	0.00846396
16850.3	0.00842276
16865.1	0.00833399
16872.5	0.00828637
16887.2	0.00818454
16894.6	0.00813028
16902	0.00807376
16916.8	0.00795386
16924.2	0.00789043
16931.6	0.00782466
16946.3	0.00768602
16953.7	0.00761312
16961.1	0.00753781
16975.9	0.00737989
16983.3	0.00729726
16990.7	0.00721217
17005.4	0.00703455
17012.8	0.00694201
17020.2	0.00684697
17035	0.00664936
17042.4	0.00654679
17057.1	0.00633408
17064.5	0.00622395
17071.9	0.0061113
17086.7	0.00587846
17094.1	0.00575827
17101.5	0.00563558
17116.2	0.00538272
17123.6	0.00525257
17131	0.00511996
17145.8	0.00484739
17153.2	0.00470746
17160.6	0.00456513
17175.3	0.00427332
17182.7	0.00412389
17190.1	0.00397213
17204.9	0.00366174
17212.3	0.00350315
17227.1	0.00317935
17234.4	0.0030142
17241.8	0.00284692
17256.6	0.00250611
17264	0.00233265
17271.4	0.00215721
17286.1	0.00180053
17293.5	0.00161938
17300.9	0.00143641
17315.7	0.0010652
17323.1	0.000877049
17330.5	0.000687267
17345.2	0.000303012
17352.6	0.000108642
17360	-8.71505e-05
17374.8	-0.000482784
17382.2	-0.000682512
17397	-0.00108549
17404.3	-0.00128863
17411.7	-0.00149278
17426.5	-0.00190386
17433.9	-0.00211066
17441.3	-0.00231822
17456.1	-0.00273534
17463.4	-0.00294476
17470.8	-0.00315466
17485.6	-0.00357562
17493	-0.00378654
17500.4	-0.00399766
17515.2	-0.00442018
17522.5	-0.00463144
17537.3	-0.00505357
17544.7	-0.00526429
17552.1	-0.00547469
17566.9	-0.00589417
17574.3	-0.00610311
17581.6	-0.0063114
17596.4	-0.00672576
17603.8	-0.00693166
17611.2	-0.0071366
17626	-0.00754331
17633.4	-0.00774491
17640.7	-0.00794525
17655.5	-0.00834178
17662.9	-0.00853783
17670.3	-0.00873229
17685.1	-0.00911615
17692.4	-0.00930539
17707.2	-0.0096781
17714.6	-0.00986143
17722	-0.0100426
17736.8	-0.0103984
17744.2	-0.0105728
17751.5	-0.0107447
17766.3	-0.0110812
17773.7	-0.0112454
17781.1	-0.011407
17795.9	-0.0117219
17803.3	-0.011875
17810.6	-0.0120251
17825.4	-0.0123162
17832.8	-0.012457
17840.2	-0.0125946
17855	-0.01286
17862.4	-0.0129876
17877.1	-0.0132325
17884.5	-0.0133496
17891.9	-0.0134631
17906.7	-0.0136791
17914.1	-0.0137815
17921.5	-0.0138801
17936.2	-0.0140658
17943.6	-0.0141528
17951	-0.0142358
17965.8	-0.0143898
17973.2	-0.0144607
17980.6	-0.0145275
17995.3	-0.0146488
18002.7	-0.0147031
18010.1	-0.0147533
18024.9	-0.0148409
18032.3	-0.0148783
18047	-0.0149402
18054.4	-0.0149647
18061.8	-0.0149849
18076.6	-0.0150123
18084	-0.0150194
18091.4	-0.0150222
18106.1	-0.0150148
18113.5	-0.0150045
18120.9	-0.0149899
18135.7	-0.0149477
18143.1	-0.0149201
18150.5	-0.0148882
18165.2	-0.0148115
18172.6	-0.0147667
18180	-0.0147177
18194.8	-0.014607
18202.2	-0.0145454
18216.9	-0.0144097
18224.3	-0.0143357
18231.7	-0.0142576
18246.5	-0.0140894
18253.9	-0.0139993
18261.3	-0.0139053
18276	-0.0137057
18283.4	-0.0136002
18290.8	-0.013491
18305.6	-0.0132613
18313	-0.0131411
18320.4	-0.0130173
18335.1	-0.0127592
18342.5	-0.012625
18357.3	-0.0123466
18364.7	-0.0122026
18372.1	-0.0120553
18386.9	-0.0117516
18394.2	-0.0115952
18401.6	-0.0114359
18416.4	-0.0111088
18423.8	-0.0109411
18431.2	-0.0107707
18445.9	-0.0104223
18453.3	-0.0102444
18460.7	-0.0100641
18475.5	-0.00969664
18482.9	-0.00950962
18490.3	-0.00932052
18505	-0.00893633
18512.4	-0.00874139
18527.2	-0.00834621
18534.6	-0.00814611
18542	-0.00794445
18556.8	-0.00753674
18564.1	-0.00733084
18571.5	-0.00712368
18586.3	-0.00670588
18593.7	-0.00649541
18601.1	-0.00628398
18615.9	-0.00585857
18623.2	-0.00564475
18630.6	-0.00543029
18645.4	-0.00499973
18652.8	-0.00478379
18660.2	-0.00456751
18675	-0.00413423
18682.3	-0.00391738
18697.1	-0.00348363
18704.5	-0.00326688
18711.9	-0.0030503
18726.7	-0.00261797
18734.1	-0.00240235
18741.4	-0.0021872
18756.2	-0.00175855
18763.6	-0.00154519
18771	-0.00133257
18785.8	-0.000909783
18793.2	-0.000699753
18800.5	-0.000490715
18815.3	-7.58706e-05
18822.7	0.000129814
18830.1	0.000334261
18844.9	0.000739204
18852.2	0.000939586
18867	0.00133589
18874.4	0.0015317
18881.8	0.00172589
18896.6	0.00210917
18904	0.00229816
18911.3	0.00248532
18926.1	0.00285398
18933.5	0.00303538
18940.9	0.00321477
18955.7	0.00356735
18963.1	0.00374046
18970.4	0.0039114
18985.2	0.00424661
18992.6	0.00441082
19007.4	0.00473224
19014.8	0.0048894
19022.2	0.00504415
19036.9	0.00534631
19044.3	0.00549366
19051.7	0.0056385
19066.5	0.00592052
19073.9	0.00605766
19081.3	0.00619219
19096	0.00645336
19103.4	0.00657996
19110.8	0.00670388
19125.6	0.00694364
19133	0.00705945
19140.4	0.00717253
19155.1	0.00739047
19162.5	0.0074953
19177.3	0.00769669
19184.7	0.00779323
19192.1	0.007887
19206.8	0.0080662
19214.2	0.00815164
19221.6	0.0082343
19236.4	0.00839129
19243.8	0.00846563
19251.2	0.00853721
19265.9	0.00867211
19273.3	0.00873544
19280.7	0.00879604
19295.5	0.00890908
19302.9	0.00896154
19310.3	0.00901131
19325	0.00910283
19332.4	0.00914461
19347.2	0.00922029
19354.6	0.00925422
19362	0.00928557
19376.7	0.0093406
19384.1	0.00936432
19391.5	0.00938554
19406.3	0.00942054
19413.7	0.00943437
19421.1	0.00944579
19435.8	0.00946147
19443.2	0.00946578
19450.6	0.00946778
19465.4	0.00946492
19472.8	0.00946012
19480.2	0.0094531
19494.9	0.00943255
19502.3	0.00941906
19517.1	0.00938583
19524.5	0.00936614
19531.9	0.00934443
19546.7	0.00929511
19554	0.00926756
19561.4	0.00923812
19576.2	0.0091737
19583.6	0.00913879
19591	0.00910211
19605.8	0.00902361
19613.1	0.00898185
19620.5	0.00893845
19635.3	0.00884691
19642.7	0.00879883
19650.1	0.00874925
19664.8	0.00864572
19672.2	0.00859185
19687	0.00848005
19694.4	0.00842219
19701.8	0.00836307
19716.6	0.00824118
19723.9	0.00817847
19731.3	0.00811464
19746.1	0.00798373
19753.5	0.00791673
19760.9	0.00784873
19775.7	0.00770988
19783	0.00763911
19790.4	0.00756747
19805.2	0.00742176
19812.6	0.00734775
19827.4	0.00719757
19834.8	0.00712148
19842.1	0.00704475
19856.9	0.00688954
19864.3	0.00681111
19871.7	0.00673219
19886.5	0.00657295
19893.9	0.0064927
19901.2	0.00641207
19916	0.0062498
19923.4	0.00616822
19930.8	0.00608638
19945.6	0.00592204
19953	0.00583959
19960.3	0.00575701
19975.1	0.00559153
19982.5	0.00550869
19997.3	0.00534294
