0	0
13.2971	0
26.5942	0
39.8912	0
53.1883	0
66.4854	0
79.7825	0
93.0796	0
106.377	0
119.674	0
132.971	0
146.268	0
159.565	0
172.862	0
186.159	0
199.456	0
212.753	0
226.05	0
239.347	0
252.645	0
265.942	0
279.239	0
292.536	0
305.833	0
319.13	0
332.427	0
345.724	0
359.021	0
372.318	0
385.615	0
398.912	0
412.21	0
425.507	0
438.804	0
452.101	0
465.398	0
478.695	0
491.992	0
505.289	0
518.586	0
531.883	0
545.18	0
558.477	0
571.775	0
585.072	0
598.369	0
611.666	0
624.963	0
638.26	0
651.557	0
664.854	0
678.151	0
691.448	0
704.745	0
718.042	0
731.34	0
744.637	0
757.934	0
771.231	0
784.528	0
797.825	0
811.122	0
824.419	0
837.716	0
851.013	0
864.31	0
877.607	0
890.904	0
904.202	0
917.499	0
930.796	0
944.093	0
957.39	0
970.687	0
983.984	0
997.281	0
1010.58	0
1023.88	0
1037.17	0
1050.47	0
1063.77	0
1077.06	0
1090.36	0
1103.66	0
1116.95	0
1130.25	0
1143.55	0
1156.85	0
1170.14	0
1183.44	0
1196.74	0
1210.03	0
1223.33	0
1236.63	0
1249.93	0
1263.22	0
1276.52	0
1289.82	0
1303.11	0
1316.41	0
1329.71	0
1343.01	0
1356.3	0
1369.6	0
1382.9	0
1396.19	0
1409.49	0
1422.79	0
1436.08	0
1449.38	0
1462.68	0
1475.98	0
1489.27	0
1502.57	0
1515.87	0
1529.16	0
1542.46	0
1555.76	0
1569.06	0
1582.35	0
1595.65	0
1608.95	0
1622.24	0
1635.54	0
1648.84	0
1662.14	0
1675.43	0
1688.73	0
1702.03	0
1715.32	0
1728.62	0
1741.92	0
1755.21	0
1768.51	0
1781.81	0
1795.11	0
1808.4	0
1821.7	0
1835	0
1848.29	0
1861.59	0
1874.89	0
1888.19	0
1901.48	0
1914.78	0
1928.08	0
1941.37	0
1954.67	0
1967.97	0
1981.27	0
1994.56	0
2007.86	0
2021.16	0
2034.45	0
2047.75	0
2061.05	0
2074.34	0
2087.64	0
2100.94	0
2114.24	0
2127.53	0
2140.83	0
2154.13	0
2167.42	0
2180.72	0
2194.02	0
2207.32	0
2220.61	0
2233.91	0
2247.21	9.09495e-13
2260.5	9.09495e-13
2273.8	1.81899e-12
2287.1	2.72848e-12
2300.4	5.45697e-12
2313.69	9.09495e-12
2326.99	1.54614e-11
2340.29	2.45564e-11
2353.58	3.91083e-11
2366.88	6.18456e-11
2380.18	9.64064e-11
2393.47	1.49157e-10
2406.77	2.29193e-10
2420.07	3.47427e-10
2433.37	5.2205e-10
2446.66	7.78527e-10
2459.96	1.15051e-09
2473.26	1.6862e-09
2486.55	2.45018e-09
2499.85	3.53339e-09
2513.15	5.05588e-09
2526.45	7.17864e-09
2539.74	1.01154e-08
2553.04	1.41481e-08
2566.34	1.9646e-08
2579.63	2.70857e-08
2592.93	3.70837e-08
2606.23	5.04242e-08
2619.53	6.81048e-08
2632.82	9.13788e-08
2646.12	1.21816e-07
2659.42	1.61361e-07
2672.71	2.12413e-07
2686.01	2.77912e-07
2699.31	3.61429e-07
2712.6	4.6728e-07
2725.9	6.00646e-07
2739.2	7.67702e-07
2752.5	9.75766e-07
2765.79	1.23345e-06
2779.09	1.55085e-06
2792.39	1.93966e-06
2805.68	2.41344e-06
2818.98	2.98775e-06
2832.28	3.68036e-06
2845.58	4.51143e-06
2858.87	5.50372e-06
2872.17	6.68278e-06
2885.47	8.07711e-06
2898.76	9.7183e-06
2912.06	1.16412e-05
2925.36	1.38842e-05
2938.65	1.64888e-05
2951.95	1.95006e-05
2965.25	2.29682e-05
2978.55	2.69443e-05
2991.84	3.14849e-05
3005.14	3.66496e-05
3018.44	4.25015e-05
3031.73	4.91069e-05
3045.03	5.65354e-05
3058.33	6.48593e-05
3071.63	7.4154e-05
3084.92	8.44974e-05
3098.22	9.59697e-05
3111.52	0.000108654
3124.81	0.000122634
3138.11	0.000137997
3151.41	0.000154831
3164.7	0.000173228
3178	0.000193281
3191.3	0.000215086
3204.59	0.000238742
3217.89	0.000264354
3231.19	0.00029203
3244.49	0.000321886
3257.78	0.000354049
3271.08	0.000388656
3284.38	0.000425858
3297.67	0.000465826
3310.97	0.000508755
3324.27	0.000554867
3337.56	0.000604423
3350.86	0.000657724
3364.16	0.000715128
3377.45	0.000777055
3390.75	0.000844003
3404.05	0.00091656
3417.34	0.000995424
3430.64	0.00108142
3443.94	0.00117552
3457.23	0.00127888
3470.53	0.00139283
3483.83	0.00151896
3497.12	0.0016591
3510.42	0.00181539
3523.72	0.0019903
3537.01	0.00218667
3550.31	0.00240778
3563.61	0.00265736
3576.9	0.00293967
3590.2	0.00325952
3603.5	0.00362233
3616.79	0.00403422
3630.09	0.00450198
3643.39	0.00503319
3656.68	0.00563624
3669.98	0.00632036
3683.28	0.00709567
3696.57	0.0079732
3709.87	0.00896491
3723.17	0.0100837
3736.46	0.0113435
3749.76	0.0127591
3763.06	0.0143461
3776.35	0.0161212
3789.65	0.0181017
3802.95	0.0203057
3816.24	0.022752
3829.54	0.0254597
3842.84	0.0284485
3856.13	0.0317383
3869.43	0.0353489
3882.72	0.0392999
3896.02	0.0436108
3909.32	0.0483002
3922.61	0.0533859
3935.91	0.0588847
3949.21	0.0648118
3962.5	0.0711808
3975.8	0.0780033
3989.1	0.0852886
4002.39	0.0930436
4015.69	0.101272
4028.99	0.109975
4042.28	0.119149
4055.58	0.128789
4068.88	0.138885
4082.17	0.149422
4095.47	0.160382
4108.76	0.171743
4122.06	0.183478
4135.36	0.195556
4148.65	0.20794
4161.95	0.220592
4175.25	0.233467
4188.54	0.246516
4201.84	0.259688
4215.14	0.272927
4228.43	0.286174
4241.73	0.299367
4255.03	0.31244
4268.32	0.325328
4281.62	0.337962
4294.92	0.350272
4308.21	0.362187
4321.51	0.373637
4334.81	0.384551
4348.11	0.39486
4361.4	0.404496
4374.7	0.413393
4388	0.421487
4401.29	0.428719
4414.59	0.43503
4427.89	0.44037
4441.18	0.444689
4454.48	0.447945
4467.78	0.450099
4481.07	0.45112
4494.37	0.450981
4507.67	0.449662
4520.97	0.447151
4534.26	0.443438
4547.56	0.438524
4560.86	0.432416
4574.15	0.425124
4587.45	0.416669
4600.75	0.407075
4614.05	0.396373
4627.34	0.384602
4640.64	0.371804
4653.94	0.358027
4667.23	0.343323
4680.53	0.327752
4693.83	0.311373
4707.12	0.294253
4720.42	0.27646
4733.72	0.258065
4747.02	0.239142
4760.31	0.219765
4773.61	0.200012
4786.91	0.179959
4800.2	0.159684
4813.5	0.139263
4826.8	0.118774
4840.09	0.0982908
4853.39	0.0778881
4866.69	0.0576372
4879.99	0.0376076
4893.28	0.0178659
4906.58	-0.00152434
4919.88	-0.0205027
4933.17	-0.0390125
4946.47	-0.0570007
4959.77	-0.0744185
4973.07	-0.0912209
4986.36	-0.107367
4999.66	-0.122822
5012.96	-0.137552
5026.25	-0.151531
5039.55	-0.164736
5052.85	-0.177149
5066.14	-0.188754
5079.44	-0.199542
5092.74	-0.209508
5106.04	-0.218649
5119.33	-0.226968
5132.63	-0.23447
5145.93	-0.241164
5159.22	-0.247064
5172.52	-0.252184
5185.82	-0.256543
5199.11	-0.260163
5212.41	-0.263066
5225.71	-0.265279
5239.01	-0.266829
5252.3	-0.267745
5265.6	-0.268058
5278.9	-0.2678
5292.19	-0.267003
5305.49	-0.265702
5318.79	-0.263931
5332.08	-0.261723
5345.38	-0.259115
5358.68	-0.256139
5371.98	-0.252831
5385.27	-0.249223
5398.57	-0.245351
5411.87	-0.241245
5425.16	-0.236938
5438.46	-0.23246
5451.76	-0.227841
5465.06	-0.223109
5478.35	-0.218292
5491.65	-0.213415
5504.95	-0.208502
5518.24	-0.203576
5531.54	-0.198659
5544.84	-0.19377
5558.13	-0.188929
5571.43	-0.18415
5584.73	-0.179451
5598.03	-0.174843
5611.32	-0.17034
5624.62	-0.165952
5637.92	-0.161687
5651.21	-0.157555
5664.51	-0.15356
5677.81	-0.149708
5691.11	-0.146003
5704.4	-0.142446
5717.7	-0.13904
5731	-0.135784
5744.29	-0.132677
5757.59	-0.129717
5770.89	-0.126902
5784.18	-0.124228
5797.48	-0.12169
5810.78	-0.119284
5824.08	-0.117004
5837.37	-0.114843
5850.67	-0.112796
5863.97	-0.110854
5877.26	-0.109011
5890.56	-0.107259
5903.86	-0.10559
5917.16	-0.103997
5930.45	-0.102471
5943.75	-0.101005
5957.05	-0.0995898
5970.34	-0.0982187
5983.64	-0.0968836
5996.94	-0.0955773
6010.23	-0.0942926
6023.53	-0.0930225
6036.83	-0.0917606
6050.13	-0.0905007
6063.42	-0.0892369
6076.72	-0.0879638
6090.02	-0.0866766
6103.31	-0.0853707
6116.61	-0.0840421
6129.91	-0.0826872
6143.21	-0.0813029
6156.5	-0.0798867
6169.8	-0.0784364
6183.1	-0.0769504
6196.39	-0.0754277
6209.69	-0.0738674
6222.99	-0.0722695
6236.29	-0.0706341
6249.58	-0.068962
6262.88	-0.0672542
6276.18	-0.0655123
6289.47	-0.063738
6302.77	-0.0619336
6316.07	-0.0601016
6329.36	-0.0582448
6342.66	-0.0563664
6355.96	-0.0544696
6369.26	-0.0525581
6382.55	-0.0506356
6395.85	-0.0487061
6409.15	-0.0467734
6422.44	-0.0448419
6435.74	-0.0429156
6449.04	-0.0409988
6462.34	-0.0390958
6475.63	-0.0372109
6488.93	-0.0353481
6502.23	-0.0335117
6515.52	-0.0317057
6528.82	-0.0299339
6542.12	-0.0282002
6555.41	-0.0265081
6568.71	-0.0248611
6582.01	-0.0232623
6595.31	-0.0217148
6608.6	-0.0202213
6621.9	-0.0187844
6635.2	-0.0174061
6648.49	-0.0160886
6661.79	-0.0148334
6675.09	-0.0136419
6688.39	-0.0125152
6701.68	-0.0114541
6714.98	-0.010459
6728.28	-0.00952995
6741.57	-0.0086669
6754.87	-0.00786932
6768.17	-0.00713643
6781.47	-0.00646713
6794.76	-0.00586004
6808.06	-0.0053135
6821.36	-0.00482555
6834.65	-0.00439399
6847.95	-0.00401634
6861.25	-0.00368989
6874.55	-0.00341171
6887.84	-0.00317865
6901.14	-0.00298736
6914.44	-0.00283433
6927.73	-0.00271586
6941.03	-0.00262813
6954.33	-0.00256719
6967.62	-0.00252899
6980.92	-0.00250937
6994.22	-0.00250415
7007.52	-0.00250907
7020.81	-0.00251986
7034.11	-0.00253224
7047.41	-0.00254197
7060.7	-0.00254482
7074	-0.00253662
7087.3	-0.00251331
7100.6	-0.00247088
7113.89	-0.00240546
7127.19	-0.0023133
7140.49	-0.00219083
7153.78	-0.0020346
7167.08	-0.00184137
7180.38	-0.0016081
7193.68	-0.00133193
7206.97	-0.00101025
7220.27	-0.000640665
7233.57	-0.000221034
7246.86	0.000250537
7260.16	0.000775684
7273.46	0.00135577
7286.76	0.0019919
7300.05	0.00268489
7313.35	0.00343529
7326.65	0.00424336
7339.94	0.00510909
7353.24	0.00603218
7366.54	0.00701207
7379.83	0.00804791
7393.13	0.00913862
7406.43	0.0102828
7419.73	0.0114789
7433.02	0.012725
7446.32	0.014019
7459.62	0.0153585
7472.91	0.0167412
7486.21	0.0181642
7499.51	0.0196246
7512.8	0.0211192
7526.1	0.022645
7539.4	0.0241983
7552.7	0.0257758
7565.99	0.0273738
7579.29	0.0289885
7592.59	0.0306161
7605.88	0.0322527
7619.18	0.0338944
7632.48	0.0355372
7645.77	0.0371771
7659.07	0.0388101
7672.37	0.0404322
7685.67	0.0420396
7698.96	0.0436282
7712.26	0.0451943
7725.56	0.046734
7738.85	0.0482437
7752.15	0.0497199
7765.45	0.051159
7778.74	0.0525576
7792.04	0.0539126
7805.34	0.0552208
7818.64	0.0564793
7831.93	0.0576854
7845.23	0.0588364
7858.53	0.0599299
7871.82	0.0609635
7885.12	0.0619352
7898.42	0.062843
7911.71	0.0636853
7925.01	0.0644603
7938.31	0.0651669
7951.61	0.0658037
7964.9	0.0663697
7978.2	0.0668642
7991.5	0.0672864
8004.79	0.0676359
8018.09	0.0679124
8031.39	0.0681156
8044.68	0.0682456
8057.98	0.0683025
8071.28	0.0682868
8084.58	0.0681987
8097.87	0.0680389
8111.17	0.067808
8124.47	0.067507
8137.76	0.0671368
8151.06	0.0666984
8164.36	0.0661929
8177.65	0.0656216
8190.95	0.0649858
8204.25	0.0642869
8217.55	0.0635264
8230.84	0.0627059
8244.14	0.0618268
8257.44	0.0608908
8270.73	0.0598997
8284.03	0.0588551
8297.33	0.0577588
8310.62	0.0566125
8323.92	0.0554181
8337.22	0.0541773
8350.52	0.052892
8363.81	0.051564
8377.11	0.0501952
8390.41	0.0487874
8403.7	0.0473423
8417	0.045862
8430.3	0.0443482
8443.59	0.0428026
8456.89	0.0412272
8470.19	0.0396238
8483.49	0.037994
8496.78	0.0363398
8510.08	0.0346628
8523.38	0.0329648
8536.67	0.0312476
8549.97	0.0295129
8563.27	0.0277624
8576.56	0.0259978
8589.86	0.0242208
8603.16	0.022433
8616.46	0.0206363
8629.75	0.0188321
8643.05	0.0170222
8656.35	0.0152082
8669.64	0.0133918
8682.94	0.0115745
8696.24	0.00975805
8709.53	0.00794396
8722.83	0.00613386
8736.13	0.00432935
8749.43	0.00253201
8762.72	0.000743421
8776.02	-0.00103486
8789.32	-0.00280126
8802.61	-0.00455426
8815.91	-0.00629231
8829.21	-0.0080139
8842.51	-0.00971753
8855.8	-0.0114017
8869.1	-0.013065
8882.4	-0.0147059
8895.69	-0.0163231
8908.99	-0.0179151
8922.29	-0.0194805
8935.58	-0.0210181
8948.88	-0.0225266
8962.18	-0.0240046
8975.48	-0.025451
8988.77	-0.0268645
9002.07	-0.0282441
9015.37	-0.0295887
9028.66	-0.0308972
9041.96	-0.0321686
9055.26	-0.033402
9068.55	-0.0345966
9081.85	-0.0357515
9095.15	-0.0368661
9108.45	-0.0379395
9121.74	-0.0389713
9135.04	-0.039961
9148.34	-0.0409079
9161.63	-0.0418118
9174.93	-0.0426723
9188.23	-0.0434893
9201.53	-0.0442625
9214.82	-0.0449918
9228.12	-0.0456773
9241.42	-0.0463191
9254.71	-0.0469172
9268.01	-0.0474719
9281.31	-0.0479835
9294.6	-0.0484524
9307.9	-0.0488791
9321.2	-0.049264
9334.5	-0.0496078
9347.79	-0.049911
9361.09	-0.0501745
9374.39	-0.050399
9387.68	-0.0505853
9400.98	-0.0507343
9414.28	-0.0508471
9427.57	-0.0509245
9440.87	-0.0509676
9454.17	-0.0509776
9467.47	-0.0509555
9480.76	-0.0509024
9494.06	-0.0508197
9507.36	-0.0507083
9520.65	-0.0505697
9533.95	-0.050405
9547.25	-0.0502155
9560.55	-0.0500025
9573.84	-0.0497671
9587.14	-0.0495108
9600.44	-0.0492347
9613.73	-0.0489401
9627.03	-0.0486282
9640.33	-0.0483003
9653.62	-0.0479576
9666.92	-0.0476012
9680.22	-0.0472324
9693.52	-0.0468523
9706.81	-0.0464619
9720.11	-0.0460624
9733.41	-0.0456547
9746.7	-0.0452399
9760	-0.0448189
9773.3	-0.0443928
9786.6	-0.0439622
9799.89	-0.0435281
9813.19	-0.0430913
9826.49	-0.0426524
9839.78	-0.0422123
9853.08	-0.0417716
9866.38	-0.0413308
9879.67	-0.0408906
9892.97	-0.0404515
9906.27	-0.0400139
9919.57	-0.0395783
9932.86	-0.039145
9946.16	-0.0387146
9959.46	-0.0382871
9972.75	-0.037863
9986.05	-0.0374424
9999.35	-0.0370256
10012.6	-0.0366127
10025.9	-0.0362039
10039.2	-0.0357993
10052.5	-0.0353988
10065.8	-0.0350027
10079.1	-0.0346108
10092.4	-0.0342233
10105.7	-0.03384
10119	-0.033461
10132.3	-0.0330861
10145.6	-0.0327154
10158.9	-0.0323486
10172.2	-0.0319856
10185.5	-0.0316265
10198.8	-0.0312709
10212.1	-0.0309189
10225.4	-0.0305701
10238.7	-0.0302246
10252	-0.029882
10265.3	-0.0295423
10278.6	-0.0292053
10291.9	-0.0288708
10305.2	-0.0285386
10318.5	-0.0282085
10331.8	-0.0278804
10345.1	-0.0275541
10358.4	-0.0272294
10371.7	-0.0269061
10385	-0.0265842
10398.3	-0.0262632
10411.6	-0.0259432
10424.9	-0.025624
10438.2	-0.0253053
10451.4	-0.0249869
10464.7	-0.0246688
10478	-0.0243508
10491.3	-0.0240326
10504.6	-0.0237142
10517.9	-0.0233953
10531.2	-0.0230758
10544.5	-0.0227555
10557.8	-0.0224342
10571.1	-0.0221118
10584.4	-0.0217881
10597.7	-0.0214629
10611	-0.0211361
10624.3	-0.0208075
10637.6	-0.0204768
10650.9	-0.020144
10664.2	-0.0198088
10677.5	-0.0194711
10690.8	-0.0191306
10704.1	-0.0187873
10717.4	-0.0184408
10730.7	-0.018091
10744	-0.0177378
10757.3	-0.0173808
10770.6	-0.01702
10783.9	-0.0166552
10797.2	-0.0162861
10810.5	-0.0159125
10823.8	-0.0155343
10837.1	-0.0151512
10850.4	-0.0147632
10863.7	-0.0143699
10877	-0.0139713
10890.3	-0.0135671
10903.5	-0.0131571
10916.8	-0.0127413
10930.1	-0.0123195
10943.4	-0.0118914
10956.7	-0.011457
10970	-0.0110161
10983.3	-0.0105687
10996.6	-0.0101145
11009.9	-0.0096536
11023.2	-0.00918581
11036.5	-0.00871108
11049.8	-0.00822937
11063.1	-0.00774064
11076.4	-0.00724486
11089.7	-0.00674205
11103	-0.00623222
11116.3	-0.0057154
11129.6	-0.00519165
11142.9	-0.00466105
11156.2	-0.00412368
11169.5	-0.00357967
11182.8	-0.00302916
11196.1	-0.00247229
11209.4	-0.00190927
11222.7	-0.00134027
11236	-0.000765535
11249.3	-0.000185302
11262.6	0.000400163
11275.9	0.000990573
11289.2	0.00158562
11302.5	0.00218498
11315.8	0.0027883
11329.1	0.00339522
11342.4	0.00400536
11355.7	0.00461831
11368.9	0.00523365
11382.2	0.00585097
11395.5	0.0064698
11408.8	0.00708969
11422.1	0.00771017
11435.4	0.00833075
11448.7	0.00895095
11462	0.00957026
11475.3	0.0101882
11488.6	0.0108042
11501.9	0.0114178
11515.2	0.0120284
11528.5	0.0126356
11541.8	0.0132388
11555.1	0.0138375
11568.4	0.0144312
11581.7	0.0150194
11595	0.0156016
11608.3	0.0161773
11621.6	0.016746
11634.9	0.0173072
11648.2	0.0178605
11661.5	0.0184054
11674.8	0.0189415
11688.1	0.0194684
11701.4	0.0199857
11714.7	0.0204929
11728	0.0209898
11741.3	0.021476
11754.6	0.0219511
11767.9	0.0224149
11781.2	0.022867
11794.5	0.0233073
11807.8	0.0237353
11821	0.0241511
11834.3	0.0245542
11847.6	0.0249446
11860.9	0.0253221
11874.2	0.0256866
11887.5	0.0260379
11900.8	0.026376
11914.1	0.0267007
11927.4	0.027012
11940.7	0.0273099
11954	0.0275943
11967.3	0.0278653
11980.6	0.0281228
11993.9	0.0283669
12007.2	0.0285976
12020.5	0.0288149
12033.8	0.029019
12047.1	0.0292098
12060.4	0.0293875
12073.7	0.0295521
12087	0.0297037
12100.3	0.0298424
12113.6	0.0299684
12126.9	0.0300816
12140.2	0.0301822
12153.5	0.0302703
12166.8	0.0303461
12180.1	0.0304095
12193.4	0.0304606
12206.7	0.0304996
12220	0.0305266
12233.3	0.0305415
12246.6	0.0305445
12259.9	0.0305356
12273.1	0.0305149
12286.4	0.0304824
12299.7	0.030438
12313	0.030382
12326.3	0.0303141
12339.6	0.0302346
12352.9	0.0301432
12366.2	0.03004
12379.5	0.0299251
12392.8	0.0297982
12406.1	0.0296594
12419.4	0.0295086
12432.7	0.0293458
12446	0.0291708
12459.3	0.0289836
12472.6	0.0287841
12485.9	0.0285722
12499.2	0.0283478
12512.5	0.0281108
12525.8	0.0278611
12539.1	0.0275985
12552.4	0.0273231
12565.7	0.0270347
12579	0.0267331
12592.3	0.0264184
12605.6	0.0260903
12618.9	0.0257489
12632.2	0.0253941
12645.5	0.0250258
12658.8	0.0246439
12672.1	0.0242484
12685.4	0.0238394
12698.7	0.0234167
12712	0.0229804
12725.2	0.0225306
12738.5	0.0220672
12751.8	0.0215903
12765.1	0.0211
12778.4	0.0205965
12791.7	0.0200797
12805	0.01955
12818.3	0.0190073
12831.6	0.018452
12844.9	0.0178843
12858.2	0.0173043
12871.5	0.0167123
12884.8	0.0161087
12898.1	0.0154936
12911.4	0.0148676
12924.7	0.0142308
12938	0.0135837
12951.3	0.0129267
12964.6	0.0122602
12977.9	0.0115846
12991.2	0.0109004
13004.5	0.0102081
13017.8	0.00950821
13031.1	0.00880119
13044.4	0.00808759
13057.7	0.00736796
13071	0.00664288
13084.3	0.00591292
13097.6	0.00517867
13110.9	0.00444073
13124.2	0.0036997
13137.5	0.00295622
13150.8	0.00221089
13164.1	0.00146436
13177.3	0.000717255
13190.6	-2.97871e-05
13203.9	-0.000776128
13217.2	-0.00152113
13230.5	-0.00226416
13243.8	-0.00300458
13257.1	-0.00374176
13270.4	-0.00447509
13283.7	-0.00520394
13297	-0.0059277
13310.3	-0.00664579
13323.6	-0.00735761
13336.9	-0.00806259
13350.2	-0.00876017
13363.5	-0.00944979
13376.8	-0.0101309
13390.1	-0.0108031
13403.4	-0.0114657
13416.7	-0.0121183
13430	-0.0127605
13443.3	-0.0133918
13456.6	-0.0140118
13469.9	-0.0146201
13483.2	-0.0152162
13496.5	-0.0157999
13509.8	-0.0163708
13523.1	-0.0169285
13536.4	-0.0174728
13549.7	-0.0180034
13563	-0.01852
13576.3	-0.0190224
13589.6	-0.0195104
13602.9	-0.0199838
13616.2	-0.0204424
13629.4	-0.0208861
13642.7	-0.0213148
13656	-0.0217284
13669.3	-0.0221267
13682.6	-0.0225097
13695.9	-0.0228775
13709.2	-0.0232298
13722.5	-0.0235668
13735.8	-0.0238885
13749.1	-0.0241949
13762.4	-0.024486
13775.7	-0.0247619
13789	-0.0250227
13802.3	-0.0252684
13815.6	-0.0254993
13828.9	-0.0257153
13842.2	-0.0259167
13855.5	-0.0261036
13868.8	-0.0262761
13882.1	-0.0264345
13895.4	-0.0265788
13908.7	-0.0267093
13922	-0.0268262
13935.3	-0.0269296
13948.6	-0.0270198
13961.9	-0.0270971
13975.2	-0.0271615
13988.5	-0.0272134
14001.8	-0.0272529
14015.1	-0.0272804
14028.4	-0.027296
14041.7	-0.0272999
14055	-0.0272924
14068.3	-0.0272738
14081.6	-0.0272442
14094.8	-0.027204
14108.1	-0.0271533
14121.4	-0.0270923
14134.7	-0.0270214
14148	-0.0269407
14161.3	-0.0268504
14174.6	-0.0267509
14187.9	-0.0266422
14201.2	-0.0265246
14214.5	-0.0263983
14227.8	-0.0262635
14241.1	-0.0261205
14254.4	-0.0259693
14267.7	-0.0258103
14281	-0.0256435
14294.3	-0.0254692
14307.6	-0.0252876
14320.9	-0.0250987
14334.2	-0.0249029
14347.5	-0.0247001
14360.8	-0.0244906
14374.1	-0.0242746
14387.4	-0.0240521
14400.7	-0.0238234
14414	-0.0235885
14427.3	-0.0233476
14440.6	-0.0231008
14453.9	-0.0228482
14467.2	-0.02259
14480.5	-0.0223262
14493.8	-0.0220571
14507.1	-0.0217826
14520.4	-0.021503
14533.7	-0.0212182
14546.9	-0.0209286
14560.2	-0.020634
14573.5	-0.0203348
14586.8	-0.0200308
14600.1	-0.0197224
14613.4	-0.0194096
14626.7	-0.0190924
14640	-0.0187711
14653.3	-0.0184458
14666.6	-0.0181165
14679.9	-0.0177833
14693.2	-0.0174465
14706.5	-0.0171062
14719.8	-0.0167624
14733.1	-0.0164154
14746.4	-0.0160652
14759.7	-0.015712
14773	-0.015356
14786.3	-0.0149974
14799.6	-0.0146363
14812.9	-0.0142728
14826.2	-0.0139073
14839.5	-0.0135397
14852.8	-0.0131704
14866.1	-0.0127995
14879.4	-0.0124273
14892.7	-0.0120539
14906	-0.0116796
14919.3	-0.0113045
14932.6	-0.0109289
14945.9	-0.0105531
14959.2	-0.0101772
14972.5	-0.00980157
14985.8	-0.00942635
14999	-0.00905183
15012.3	-0.00867826
15025.6	-0.00830589
15038.9	-0.00793498
15052.2	-0.00756578
15065.5	-0.00719857
15078.8	-0.0068336
15092.1	-0.00647113
15105.4	-0.00611144
15118.7	-0.00575477
15132	-0.00540141
15145.3	-0.00505161
15158.6	-0.00470563
15171.9	-0.00436373
15185.2	-0.00402617
15198.5	-0.0036932
15211.8	-0.00336508
15225.1	-0.00304203
15238.4	-0.00272431
15251.7	-0.00241216
15265	-0.00210579
15278.3	-0.00180545
15291.6	-0.00151133
15304.9	-0.00122366
15318.2	-0.00094264
15331.5	-0.000668463
15344.8	-0.00040132
15358.1	-0.000141391
15371.4	0.000111152
15384.7	0.000356146
15398	0.000593435
15411.3	0.000822873
15424.6	0.00104432
15437.9	0.00125766
15451.1	0.00146276
15464.4	0.00165951
15477.7	0.00184782
15491	0.00202759
15504.3	0.00219874
15517.6	0.0023612
15530.9	0.00251491
15544.2	0.00265979
15557.5	0.00279582
15570.8	0.00292295
15584.1	0.00304114
15597.4	0.00315038
15610.7	0.00325064
15624	0.00334193
15637.3	0.00342423
15650.6	0.00349756
15663.9	0.00356191
15677.2	0.00361732
15690.5	0.0036638
15703.8	0.00370138
15717.1	0.0037301
15730.4	0.00374999
15743.7	0.00376109
15757	0.00376345
15770.3	0.00375713
15783.6	0.00374216
15796.9	0.00371861
15810.2	0.00368655
15823.5	0.00364602
15836.8	0.00359709
15850.1	0.00353984
15863.4	0.00347432
15876.7	0.00340061
15890	0.00331879
15903.2	0.00322891
15916.5	0.00313106
15929.8	0.00302531
15943.1	0.00291174
15956.4	0.00279043
15969.7	0.00266146
15983	0.0025249
15996.3	0.00238084
16009.6	0.00222936
16022.9	0.00207055
16036.2	0.00190449
16049.5	0.00173127
16062.8	0.00155099
16076.1	0.00136373
16089.4	0.00116959
16102.7	0.000968671
16116	0.000761071
16129.3	0.000546896
16142.6	0.000326252
16155.9	9.92528e-05
16169.2	-0.000133986
16182.5	-0.000373344
16195.8	-0.000618695
16209.1	-0.000869907
16222.4	-0.00112684
16235.7	-0.00138936
16249	-0.00165732
16262.3	-0.00193055
16275.6	-0.00220889
16288.9	-0.00249218
16302.2	-0.00278024
16315.5	-0.00307287
16328.8	-0.0033699
16342.1	-0.00367111
16355.4	-0.00397629
16368.6	-0.00428523
16381.9	-0.00459769
16395.2	-0.00491344
16408.5	-0.00523223
16421.8	-0.00555381
16435.1	-0.0058779
16448.4	-0.00620423
16461.7	-0.00653253
16475	-0.00686248
16488.3	-0.0071938
16501.6	-0.00752616
16514.9	-0.00785924
16528.2	-0.00819272
16541.5	-0.00852625
16554.8	-0.00885949
16568.1	-0.00919209
16581.4	-0.00952367
16594.7	-0.00985387
16608	-0.0101823
16621.3	-0.0105086
16634.6	-0.0108324
16647.9	-0.0111533
16661.2	-0.0114708
16674.5	-0.0117846
16687.8	-0.0120943
16701.1	-0.0123995
16714.4	-0.0126997
16727.7	-0.0129945
16741	-0.0132836
16754.3	-0.0135666
16767.6	-0.0138429
16780.9	-0.0141123
16794.2	-0.0143743
16807.5	-0.0146284
16820.7	-0.0148744
16834	-0.0151118
16847.3	-0.0153403
16860.6	-0.0155594
16873.9	-0.0157689
16887.2	-0.0159682
16900.5	-0.0161572
16913.8	-0.0163354
16927.1	-0.0165026
16940.4	-0.0166584
16953.7	-0.0168025
16967	-0.0169346
16980.3	-0.0170545
16993.6	-0.0171619
17006.9	-0.0172566
17020.2	-0.0173383
17033.5	-0.0174069
17046.8	-0.0174621
17060.1	-0.0175038
17073.4	-0.0175319
17086.7	-0.0175462
17100	-0.0175466
17113.3	-0.017533
17126.6	-0.0175054
17139.9	-0.0174636
17153.2	-0.0174078
17166.5	-0.0173379
17179.8	-0.0172539
17193.1	-0.0171558
17206.4	-0.0170438
17219.7	-0.0169179
17233	-0.0167782
17246.3	-0.0166249
17259.6	-0.016458
17272.8	-0.0162779
17286.1	-0.0160847
17299.4	-0.0158786
17312.7	-0.0156598
17326	-0.0154287
17339.3	-0.0151855
17352.6	-0.0149305
17365.9	-0.0146641
17379.2	-0.0143865
17392.5	-0.0140982
17405.8	-0.0137996
17419.1	-0.0134909
17432.4	-0.0131727
17445.7	-0.0128454
17459	-0.0125095
17472.3	-0.0121653
17485.6	-0.0118134
17498.9	-0.0114542
17512.2	-0.0110884
17525.5	-0.0107163
17538.8	-0.0103385
17552.1	-0.00995555
17565.4	-0.00956799
17578.7	-0.00917637
17592	-0.00878124
17605.3	-0.00838317
17618.6	-0.00798274
17631.9	-0.00758051
17645.2	-0.00717707
17658.5	-0.00677299
17671.8	-0.00636886
17685.1	-0.00596526
17698.4	-0.00556277
17711.7	-0.00516198
17724.9	-0.00476347
17738.2	-0.0043678
17751.5	-0.00397555
17764.8	-0.00358728
17778.1	-0.00320357
17791.4	-0.00282495
17804.7	-0.00245198
17818	-0.00208519
17831.3	-0.00172512
17844.6	-0.00137228
17857.9	-0.00102717
17871.2	-0.000690303
17884.5	-0.000362148
17897.8	-4.31797e-05
17911.1	0.000266146
17924.4	0.000565388
17937.7	0.000854119
17951	0.00113193
17964.3	0.00139842
17977.6	0.00165323
17990.9	0.00189598
18004.2	0.00212634
18017.5	0.00234398
18030.8	0.0025486
18044.1	0.00273992
18057.4	0.00291767
18070.7	0.0030816
18084	0.0032315
18097.3	0.00336716
18110.6	0.0034884
18123.9	0.00359506
18137.2	0.00368701
18150.5	0.00376411
18163.8	0.00382629
18177.1	0.00387347
18190.3	0.0039056
18203.6	0.00392266
18216.9	0.00392463
18230.2	0.00391154
18243.5	0.00388344
18256.8	0.00384037
18270.1	0.00378243
18283.4	0.00370972
18296.7	0.00362238
18310	0.00352056
18323.3	0.00340443
18336.6	0.00327418
18349.9	0.00313004
18363.2	0.00297223
18376.5	0.00280103
18389.8	0.0026167
18403.1	0.00241955
18416.4	0.00220989
18429.7	0.00198806
18443	0.00175442
18456.3	0.00150934
18469.6	0.00125321
18482.9	0.000986444
18496.2	0.00070946
18509.5	0.000422702
18522.8	0.000126625
18536.1	-0.000178301
18549.4	-0.00049159
18562.7	-0.000812747
18576	-0.00114126
18589.3	-0.00147661
18602.6	-0.00181827
18615.9	-0.00216569
18629.2	-0.00251832
18642.4	-0.0028756
18655.7	-0.00323697
18669	-0.00360185
18682.3	-0.00396966
18695.6	-0.00433982
18708.9	-0.00471174
18722.2	-0.00508484
18735.5	-0.0054585
18748.8	-0.00583216
18762.1	-0.0062052
18775.4	-0.00657703
18788.7	-0.00694707
18802	-0.00731473
18815.3	-0.00767942
18828.6	-0.00804055
18841.9	-0.00839757
18855.2	-0.00874988
18868.5	-0.00909695
18881.8	-0.00943821
18895.1	-0.00977312
18908.4	-0.0101011
18921.7	-0.0104218
18935	-0.0107345
18948.3	-0.0110388
18961.6	-0.0113342
18974.9	-0.0116202
18988.2	-0.0118964
19001.5	-0.0121624
19014.8	-0.0124177
19028.1	-0.0126619
19041.4	-0.0128946
19054.7	-0.0131155
19068	-0.0133242
19081.3	-0.0135205
19094.5	-0.0137039
19107.8	-0.0138741
19121.1	-0.0140311
19134.4	-0.0141744
19147.7	-0.0143038
19161	-0.0144192
19174.3	-0.0145204
19187.6	-0.0146073
19200.9	-0.0146796
19214.2	-0.0147373
19227.5	-0.0147804
19240.8	-0.0148087
19254.1	-0.0148221
19267.4	-0.0148208
19280.7	-0.0148047
19294	-0.0147738
19307.3	-0.0147281
19320.6	-0.0146679
19333.9	-0.0145931
19347.2	-0.0145038
19360.5	-0.0144003
19373.8	-0.0142827
19387.1	-0.0141512
19400.4	-0.0140059
19413.7	-0.0138472
19427	-0.0136751
19440.3	-0.0134901
19453.6	-0.0132924
19466.9	-0.0130823
19480.2	-0.0128602
19493.5	-0.0126262
19506.8	-0.0123809
19520.1	-0.0121245
19533.4	-0.0118575
19546.6	-0.0115802
19559.9	-0.011293
19573.2	-0.0109964
19586.5	-0.0106908
19599.8	-0.0103765
19613.1	-0.0100542
19626.4	-0.0097241
19639.7	-0.00938681
19653	-0.00904277
19666.3	-0.00869243
19679.6	-0.00833628
19692.9	-0.0079748
19706.2	-0.00760847
19719.5	-0.00723777
19732.8	-0.00686319
19746.1	-0.00648522
19759.4	-0.00610434
19772.7	-0.00572104
19786	-0.00533579
19799.3	-0.00494907
19812.6	-0.00456135
19825.9	-0.00417311
19839.2	-0.00378481
19852.5	-0.00339689
19865.8	-0.00300981
19879.1	-0.00262402
19892.4	-0.00223993
19905.7	-0.00185797
19919	-0.00147857
19932.3	-0.00110211
19945.6	-0.000728982
19958.9	-0.000359576
19972.2	5.74566e-06
19985.5	0.000366629
19998.7	0.000722734
