0	0
75.9842	0
151.968	0
227.953	0
303.937	0
379.921	0
455.905	6.60417e-05
531.889	0.000422228
607.874	0.00155571
683.858	0.00510326
759.842	0.014015
835.826	0.0333423
911.81	0.0686665
987.794	0.123193
1063.78	0.195318
1139.76	0.278213
1215.75	0.361397
1291.73	0.433315
1367.72	0.483786
1443.7	0.505702
1519.68	0.495838
1595.67	0.45492
1671.65	0.387149
1747.63	0.299341
1823.62	0.199824
1899.6	0.0972576
1975.58	-0.000456455
2051.56	-0.0870163
2127.55	-0.158215
2203.53	-0.212071
2279.51	-0.248626
2355.49	-0.269518
2431.48	-0.277422
2507.46	-0.275474
2583.44	-0.266762
2659.42	-0.25395
2735.41	-0.239051
2811.39	-0.223366
2887.37	-0.207542
2963.36	-0.191732
3039.34	-0.175791
3115.32	-0.159471
3191.31	-0.142579
3267.29	-0.125078
3343.27	-0.107121
3419.26	-0.0890311
3495.24	-0.0712446
3571.23	-0.0542294
3647.21	-0.0384095
3723.2	-0.0241042
3799.18	-0.011494
3875.16	-0.000615491
3951.15	0.00861928
4027.13	0.0163852
4103.12	0.0228991
4179.1	0.0283769
4255.08	0.0329994
4331.07	0.0368923
4407.05	0.0401213
4483.04	0.0427
4559.02	0.0446065
4635	0.0458052
4710.99	0.0462665
4786.97	0.0459835
4862.96	0.0449809
4938.94	0.0433167
5014.92	0.0410782
5090.91	0.0383719
5166.89	0.0353132
5242.88	0.0320145
5318.86	0.0285766
5394.85	0.0250833
5470.83	0.021599
5546.81	0.0181698
5622.8	0.0148277
5698.78	0.0115944
5774.77	0.00848643
5850.75	0.00551875
5926.73	0.00270696
6002.72	6.80005e-05
6078.7	-0.00238052
6154.69	-0.00462198
6230.67	-0.0066427
6306.65	-0.00843376
6382.64	-0.00999223
6458.62	-0.0113216
6534.61	-0.0124313
6610.59	-0.0133355
6686.57	-0.0140519
6762.56	-0.0145995
6838.54	-0.0149975
6914.53	-0.0152641
6990.51	-0.0154152
7066.49	-0.0154651
7142.48	-0.0154257
7218.46	-0.0153076
7294.44	-0.0151203
7370.43	-0.0148729
7446.41	-0.0145743
7522.4	-0.0142334
7598.38	-0.0138591
7674.36	-0.0134603
7750.35	-0.0130456
7826.33	-0.0126229
7902.32	-0.0121992
7978.3	-0.0117807
8054.28	-0.0113725
8130.27	-0.0109789
8206.25	-0.0106034
8282.23	-0.0102486
8358.22	-0.00991707
8434.2	-0.00961068
8510.19	-0.00933116
8586.17	-0.00907998
8662.15	-0.00885836
8738.14	-0.0086672
8814.12	-0.00850705
8890.11	-0.00837811
8966.09	-0.00828021
9042.08	-0.00821288
9118.06	-0.00817536
9194.04	-0.00816675
9270.03	-0.00818606
9346.01	-0.00823231
9422	-0.00830455
9497.98	-0.00840189
9573.96	-0.00852348
9649.95	-0.00866845
9725.93	-0.00883583
9801.92	-0.00902442
9877.9	-0.00923276
9953.89	-0.00945897
10029.9	-0.00970075
10105.9	-0.00995528
10181.8	-0.0102193
10257.8	-0.010489
10333.8	-0.0107602
10409.8	-0.0110283
10485.8	-0.0112884
10561.8	-0.0115357
10637.7	-0.0117648
10713.7	-0.0119709
10789.7	-0.0121488
10865.7	-0.012294
10941.7	-0.012402
11017.7	-0.0124689
11093.6	-0.0124915
11169.6	-0.012467
11245.6	-0.0123934
11321.6	-0.0122694
11397.6	-0.0120946
11473.6	-0.0118692
11549.6	-0.0115946
11625.5	-0.0112724
11701.5	-0.0109054
11777.5	-0.0104967
11853.5	-0.0100502
11929.5	-0.00957021
12005.5	-0.00906132
12081.4	-0.00852849
12157.4	-0.00797684
12233.4	-0.00741157
12309.4	-0.0068379
12385.4	-0.00626099
12461.4	-0.00568583
12537.3	-0.00511723
12613.3	-0.00455974
12689.3	-0.00401758
12765.3	-0.00349465
12841.3	-0.0029945
12917.3	-0.00252024
12993.3	-0.0020746
13069.2	-0.00165989
13145.2	-0.00127799
13221.2	-0.000930356
13297.2	-0.000618055
13373.2	-0.000341736
13449.2	-0.000101669
13525.1	0.000102245
13601.1	0.000270448
13677.1	0.000403712
13753.1	0.000503107
13829.1	0.000569985
13905.1	0.00060595
13981	0.000612833
14057	0.000592667
14133	0.000547659
14209	0.000480159
14285	0.000392634
14361	0.000287639
14437	0.000167783
14512.9	3.57078e-05
14588.9	-0.000105949
14664.9	-0.000254574
14740.9	-0.000407608
14816.9	-0.00056257
14892.9	-0.000717074
14968.8	-0.000868856
15044.8	-0.00101578
15120.8	-0.00115587
15196.8	-0.00128728
15272.8	-0.00140837
15348.8	-0.00151764
15424.7	-0.00161378
15500.7	-0.00169565
15576.7	-0.00176228
15652.7	-0.00181287
15728.7	-0.00184679
15804.7	-0.00186356
15880.7	-0.00186285
15956.6	-0.00184448
16032.6	-0.00180841
16108.6	-0.0017547
16184.6	-0.00168356
16260.6	-0.00159529
16336.6	-0.00149033
16412.5	-0.00136918
16488.5	-0.00123247
16564.5	-0.00108092
16640.5	-0.00091532
16716.5	-0.000736574
16792.5	-0.000545661
16868.4	-0.000343644
16944.4	-0.000131669
17020.4	8.90415e-05
17096.4	0.000317192
17172.4	0.000551417
17248.4	0.000790291
17324.3	0.00103234
17400.3	0.00127602
17476.3	0.0015198
17552.3	0.00176208
17628.3	0.00200127
17704.3	0.0022358
17780.3	0.0024641
17856.2	0.00268464
17932.2	0.00289596
18008.2	0.00309665
18084.2	0.0032854
18160.2	0.00346101
18236.2	0.00362239
18312.1	0.00376857
18388.1	0.00389873
18464.1	0.00401222
18540.1	0.00410853
18616.1	0.00418732
18692.1	0.00424843
18768	0.00429185
18844	0.00431774
18920	0.00432643
18996	0.0043184
19072	0.00429427
19148	0.00425479
19224	0.00420083
19299.9	0.00413337
19375.9	0.00405347
19451.9	0.00396225
19527.9	0.00386089
19603.9	0.0037506
19679.9	0.00363263
19755.8	0.00350818
19831.8	0.00337848
19907.8	0.00324469
19983.8	0.00310796
