0	0
11.8196	0
23.6393	0
35.4589	0
47.2785	0
59.0981	0
70.9178	0
82.7374	0
94.557	0
106.377	0
118.196	0
130.016	0
141.836	0
153.655	0
165.475	0
177.294	0
189.114	0
200.934	0
212.753	0
224.573	0
236.393	0
248.212	0
260.032	0
271.851	0
283.671	0
295.491	0
307.31	0
319.13	0
330.95	0
342.769	0
354.589	0
366.408	0
378.228	0
390.048	0
401.867	0
413.687	0
425.507	0
437.326	0
449.146	0
460.966	0
472.785	0
484.605	0
496.424	0
508.244	0
520.064	0
531.883	0
543.703	0
555.523	0
567.342	0
579.162	0
590.981	0
602.801	0
614.621	0
626.44	0
638.26	0
650.08	0
661.899	0
673.719	0
685.538	0
697.358	0
709.178	0
720.997	0
732.817	0
744.637	0
756.456	0
768.276	0
780.095	0
791.915	0
803.735	0
815.554	0
827.374	0
839.194	0
851.013	0
862.833	0
874.652	0
886.472	0
898.292	0
910.111	0
921.931	0
933.751	0
945.57	0
957.39	0
969.21	0
981.029	0
992.849	0
1004.67	0
1016.49	0
1028.31	0
1040.13	0
1051.95	0
1063.77	0
1075.59	0
1087.41	0
1099.23	0
1111.05	0
1122.86	0
1134.68	0
1146.5	0
1158.32	0
1170.14	0
1181.96	0
1193.78	0
1205.6	0
1217.42	0
1229.24	0
1241.06	0
1252.88	0
1264.7	0
1276.52	0
1288.34	0
1300.16	0
1311.98	0
1323.8	0
1335.62	0
1347.44	0
1359.26	0
1371.08	0
1382.9	0
1394.72	0
1406.54	0
1418.36	0
1430.18	0
1441.99	0
1453.81	0
1465.63	0
1477.45	0
1489.27	0
1501.09	0
1512.91	0
1524.73	0
1536.55	0
1548.37	0
1560.19	0
1572.01	0
1583.83	-9.09495e-13
1595.65	-1.81899e-12
1607.47	-4.54747e-12
1619.29	-8.18545e-12
1631.11	-1.36424e-11
1642.93	-2.18279e-11
1654.75	-3.54703e-11
1666.57	-5.82077e-11
1678.39	-9.3678e-11
1690.21	-1.49157e-10
1702.03	-2.35559e-10
1713.85	-3.68345e-10
1725.67	-5.71163e-10
1737.49	-8.76753e-10
1749.3	-1.33423e-09
1761.12	-2.0118e-09
1772.94	-3.0077e-09
1784.76	-4.46016e-09
1796.58	-6.55928e-09
1808.4	-9.56788e-09
1820.22	-1.38489e-08
1832.04	-1.98916e-08
1843.86	-2.83571e-08
1855.68	-4.01278e-08
1867.5	-5.63778e-08
1879.32	-7.86513e-08
1891.14	-1.08971e-07
1902.96	-1.49961e-07
1914.78	-2.05009e-07
1926.6	-2.78452e-07
1938.42	-3.75808e-07
1950.24	-5.04055e-07
1962.06	-6.71952e-07
1973.88	-8.90431e-07
1985.7	-1.17304e-06
1997.52	-1.53648e-06
2009.34	-2.00121e-06
2021.16	-2.5921e-06
2032.98	-3.33928e-06
2044.8	-4.27897e-06
2056.62	-5.4545e-06
2068.43	-6.91738e-06
2080.25	-8.72852e-06
2092.07	-1.09595e-05
2103.89	-1.36941e-05
2115.71	-1.70297e-05
2127.53	-2.10788e-05
2139.35	-2.5971e-05
2151.17	-3.18545e-05
2162.99	-3.88979e-05
2174.81	-4.72921e-05
2186.63	-5.72521e-05
2198.45	-6.90187e-05
2210.27	-8.28604e-05
2222.09	-9.90745e-05
2233.91	-0.000117989
2245.73	-0.000139964
2257.55	-0.000165391
2269.37	-0.000194697
2281.19	-0.000228341
2293.01	-0.000266816
2304.83	-0.000310648
2316.65	-0.000360396
2328.47	-0.000416646
2340.29	-0.000480016
2352.11	-0.000551146
2363.93	-0.000630698
2375.75	-0.00071935
2387.56	-0.000817791
2399.38	-0.000926717
2411.2	-0.00104682
2423.02	-0.00117877
2434.84	-0.00132325
2446.66	-0.00148086
2458.48	-0.00165222
2470.3	-0.00183784
2482.12	-0.00203819
2493.94	-0.00225367
2505.76	-0.00248454
2517.58	-0.00273099
2529.4	-0.00299304
2541.22	-0.00327057
2553.04	-0.00356331
2564.86	-0.00387075
2576.68	-0.0041922
2588.5	-0.00452672
2600.32	-0.0048731
2612.14	-0.00522984
2623.96	-0.00559515
2635.78	-0.00596687
2647.6	-0.0063425
2659.42	-0.00671914
2671.24	-0.00709349
2683.06	-0.0074618
2694.88	-0.00781987
2706.69	-0.00816301
2718.51	-0.00848604
2730.33	-0.00878326
2742.15	-0.00904843
2753.97	-0.00927477
2765.79	-0.00945495
2777.61	-0.00958108
2789.43	-0.00964471
2801.25	-0.00963684
2813.07	-0.00954794
2824.89	-0.00936793
2836.71	-0.00908623
2848.53	-0.00869182
2860.35	-0.00817318
2872.17	-0.00751845
2883.99	-0.00671538
2895.81	-0.00575144
2907.63	-0.00461388
2919.45	-0.00328977
2931.27	-0.00176614
2943.09	-2.99743e-05
2954.91	0.00193161
2966.73	0.00413133
2978.55	0.00658159
2990.37	0.00929439
3002.19	0.0122812
3014	0.015553
3025.82	0.0191198
3037.64	0.0229909
3049.46	0.0271746
3061.28	0.0316781
3073.1	0.0365073
3084.92	0.041667
3096.74	0.0471603
3108.56	0.052989
3120.38	0.059153
3132.2	0.0656508
3144.02	0.0724789
3155.84	0.079632
3167.66	0.0871029
3179.48	0.0948823
3191.3	0.102959
3203.12	0.11132
3214.94	0.119949
3226.76	0.128831
3238.58	0.137944
3250.4	0.147268
3262.21	0.15678
3274.03	0.166455
3285.85	0.176266
3297.67	0.186184
3309.49	0.19618
3321.31	0.206222
3333.13	0.216277
3344.95	0.226311
3356.77	0.23629
3368.59	0.246177
3380.41	0.255936
3392.23	0.26553
3404.05	0.274922
3415.87	0.284074
3427.69	0.29295
3439.51	0.301512
3451.32	0.309724
3463.14	0.31755
3474.96	0.324955
3486.78	0.331906
3498.6	0.338369
3510.42	0.344314
3522.24	0.349711
3534.06	0.354532
3545.88	0.358752
3557.7	0.362346
3569.52	0.365294
3581.34	0.367576
3593.16	0.369176
3604.98	0.370078
3616.79	0.370272
3628.61	0.369748
3640.43	0.368501
3652.25	0.366527
3664.07	0.363826
3675.89	0.360399
3687.71	0.356251
3699.53	0.351391
3711.35	0.345829
3723.17	0.339578
3734.99	0.332654
3746.81	0.325075
3758.62	0.316863
3770.44	0.30804
3782.26	0.298633
3794.08	0.288668
3805.9	0.278175
3817.72	0.267186
3829.54	0.255734
3841.36	0.243854
3853.18	0.231582
3865	0.218955
3876.82	0.206011
3888.63	0.192791
3900.45	0.179334
3912.27	0.165681
3924.09	0.151872
3935.91	0.137948
3947.73	0.123951
3959.55	0.109921
3971.37	0.0958996
3983.19	0.0819253
3995.01	0.0680379
4006.83	0.0542757
4018.64	0.040676
4030.46	0.027275
4042.28	0.0141075
4054.1	0.001207
4065.92	-0.0113947
4077.74	-0.0236674
4089.56	-0.0355825
4101.38	-0.0471135
4113.2	-0.0582356
4125.02	-0.0689262
4136.84	-0.0791647
4148.66	-0.0889324
4160.47	-0.098213
4172.29	-0.106992
4184.11	-0.115258
4195.93	-0.123
4207.75	-0.130211
4219.57	-0.136885
4231.39	-0.143019
4243.21	-0.14861
4255.03	-0.15366
4266.85	-0.158171
4278.67	-0.162148
4290.49	-0.165596
4302.31	-0.168524
4314.13	-0.17094
4325.94	-0.172857
4337.76	-0.174286
4349.58	-0.175241
4361.4	-0.175738
4373.22	-0.175793
4385.04	-0.175423
4396.86	-0.174646
4408.68	-0.173482
4420.5	-0.171949
4432.32	-0.170069
4444.14	-0.167862
4455.96	-0.165349
4467.78	-0.162551
4479.6	-0.159491
4491.42	-0.156189
4503.24	-0.152667
4515.06	-0.148948
4526.88	-0.145051
4538.7	-0.140998
4550.52	-0.13681
4562.34	-0.132507
4574.15	-0.128109
4585.97	-0.123634
4597.79	-0.119102
4609.61	-0.11453
4621.43	-0.109936
4633.25	-0.105335
4645.07	-0.100744
4656.89	-0.0961779
4668.71	-0.0916504
4680.53	-0.087175
4692.35	-0.0827641
4704.17	-0.0784294
4715.99	-0.0741816
4727.81	-0.0700307
4739.63	-0.0659857
4751.45	-0.0620549
4763.27	-0.0582458
4775.09	-0.0545649
4786.91	-0.0510181
4798.73	-0.0476105
4810.55	-0.0443463
4822.37	-0.0412293
4834.19	-0.0382623
4846.01	-0.0354474
4857.82	-0.0327865
4869.64	-0.0302803
4881.46	-0.0279293
4893.28	-0.0257334
4905.1	-0.023692
4916.92	-0.0218038
4928.74	-0.0200672
4940.56	-0.0184804
4952.38	-0.0170407
4964.2	-0.0157455
4976.02	-0.0145917
4987.84	-0.0135759
4999.66	-0.0126944
5011.48	-0.0119432
5023.3	-0.0113183
5035.12	-0.0108153
5046.94	-0.0104298
5058.76	-0.0101571
5070.58	-0.00999252
5082.4	-0.00993123
5094.22	-0.00996831
5106.04	-0.0100988
5117.86	-0.0103178
5129.68	-0.0106202
5141.49	-0.011001
5153.31	-0.0114553
5165.13	-0.0119781
5176.95	-0.0125645
5188.77	-0.0132096
5200.59	-0.0139086
5212.41	-0.0146568
5224.23	-0.0154496
5236.05	-0.0162825
5247.87	-0.0171509
5259.69	-0.0180506
5271.51	-0.0189773
5283.33	-0.019927
5295.15	-0.0208956
5306.97	-0.0218793
5318.79	-0.0228744
5330.61	-0.0238773
5342.43	-0.0248844
5354.25	-0.0258925
5366.07	-0.0268984
5377.89	-0.0278989
5389.71	-0.0288913
5401.53	-0.0298727
5413.35	-0.0308404
5425.16	-0.0317919
5436.98	-0.0327249
5448.8	-0.0336371
5460.62	-0.0345264
5472.44	-0.0353909
5484.26	-0.0362286
5496.08	-0.0370378
5507.9	-0.0378171
5519.72	-0.0385648
5531.54	-0.0392797
5543.36	-0.0399605
5555.18	-0.0406061
5567	-0.0412157
5578.82	-0.0417881
5590.64	-0.0423229
5602.46	-0.0428192
5614.28	-0.0432765
5626.1	-0.0436945
5637.92	-0.0440728
5649.74	-0.0444111
5661.56	-0.0447094
5673.38	-0.0449675
5685.2	-0.0451857
5697.02	-0.0453639
5708.84	-0.0455024
5720.65	-0.0456016
5732.47	-0.0456618
5744.29	-0.0456835
5756.11	-0.0456673
5767.93	-0.0456137
5779.75	-0.0455234
5791.57	-0.0453972
5803.39	-0.0452358
5815.21	-0.04504
5827.03	-0.0448109
5838.85	-0.0445493
5850.67	-0.0442562
5862.49	-0.0439326
5874.31	-0.0435797
5886.13	-0.0431984
5897.95	-0.0427899
5909.77	-0.0423554
5921.59	-0.0418959
5933.41	-0.0414128
5945.23	-0.0409071
5957.05	-0.0403801
5968.87	-0.039833
5980.69	-0.0392669
5992.51	-0.0386831
6004.33	-0.0380828
6016.15	-0.0374672
6027.96	-0.0368374
6039.78	-0.0361946
6051.6	-0.03554
6063.42	-0.0348747
6075.24	-0.0341997
6087.06	-0.0335162
6098.88	-0.0328252
6110.7	-0.0321278
6122.52	-0.0314248
6134.34	-0.0307173
6146.16	-0.0300062
6157.98	-0.0292924
6169.8	-0.0285767
6181.62	-0.0278599
6193.44	-0.0271429
6205.26	-0.0264262
6217.08	-0.0257106
6228.9	-0.0249968
6240.72	-0.0242853
6252.54	-0.0235767
6264.36	-0.0228715
6276.18	-0.0221702
6288	-0.0214732
6299.82	-0.0207809
6311.64	-0.0200936
6323.46	-0.0194117
6335.27	-0.0187354
6347.09	-0.018065
6358.91	-0.0174006
6370.73	-0.0167424
6382.55	-0.0160906
6394.37	-0.0154451
6406.19	-0.0148062
6418.01	-0.0141738
6429.83	-0.0135478
6441.65	-0.0129284
6453.47	-0.0123155
6465.29	-0.0117089
6477.11	-0.0111086
6488.93	-0.0105146
6500.75	-0.00992658
6512.57	-0.00934454
6524.39	-0.00876829
6536.21	-0.0081977
6548.03	-0.00763259
6559.85	-0.0070728
6571.67	-0.00651817
6583.49	-0.00596853
6595.31	-0.00542369
6607.13	-0.00488351
6618.95	-0.00434782
6630.77	-0.00381647
6642.59	-0.0032893
6654.4	-0.00276618
6666.22	-0.002247
6678.04	-0.00173163
6689.86	-0.00121997
6701.68	-0.000711959
6713.5	-0.000207513
6725.32	0.000293411
6737.14	0.000790842
6748.96	0.00128479
6760.78	0.00177524
6772.6	0.00226218
6784.42	0.00274554
6796.24	0.00322525
6808.06	0.00370122
6819.88	0.00417335
6831.7	0.00464148
6843.52	0.00510546
6855.34	0.00556512
6867.16	0.00602026
6878.98	0.00647066
6890.8	0.00691609
6902.62	0.00735628
6914.44	0.00779098
6926.26	0.00821989
6938.08	0.00864271
6949.9	0.00905913
6961.72	0.00946881
6973.54	0.00987141
6985.36	0.0102666
6997.17	0.010654
7008.99	0.0110332
7020.81	0.0114039
7032.63	0.0117657
7044.45	0.0121183
7056.27	0.0124611
7068.09	0.0127939
7079.91	0.0131163
7091.73	0.0134279
7103.55	0.0137284
7115.37	0.0140172
7127.19	0.0142942
7139.01	0.014559
7150.83	0.0148112
7162.65	0.0150505
7174.47	0.0152765
7186.29	0.0154891
7198.11	0.0156878
7209.93	0.0158725
7221.75	0.0160428
7233.57	0.0161986
7245.39	0.0163396
7257.21	0.0164656
7269.03	0.0165765
7280.85	0.0166721
7292.67	0.0167522
7304.49	0.0168167
7316.3	0.0168656
7328.12	0.0168987
7339.94	0.016916
7351.76	0.0169174
7363.58	0.016903
7375.4	0.0168728
7387.22	0.0168267
7399.04	0.0167648
7410.86	0.0166871
7422.68	0.0165938
7434.5	0.016485
7446.32	0.0163606
7458.14	0.016221
7469.96	0.0160662
7481.78	0.0158963
7493.6	0.0157116
7505.42	0.0155122
7517.24	0.0152983
7529.06	0.0150701
7540.88	0.0148278
7552.7	0.0145717
7564.52	0.014302
7576.34	0.0140189
7588.16	0.0137226
7599.97	0.0134134
7611.79	0.0130916
7623.61	0.0127574
7635.43	0.0124111
7647.25	0.0120529
7659.07	0.0116831
7670.89	0.0113019
7682.71	0.0109097
7694.53	0.0105066
7706.35	0.0100929
7718.17	0.00966888
7729.99	0.00923482
7741.81	0.00879095
7753.63	0.00833751
7765.45	0.00787475
7777.27	0.00740292
7789.09	0.00692225
7800.91	0.00643297
7812.73	0.00593533
7824.55	0.00542955
7836.37	0.00491585
7848.19	0.00439446
7860	0.0038656
7871.82	0.00332948
7883.64	0.00278632
7895.46	0.00223633
7907.28	0.00167972
7919.1	0.0011167
7930.92	0.000547469
7942.74	-2.77534e-05
7954.56	-0.000608767
7966.38	-0.00119536
7978.2	-0.00178734
7990.02	-0.00238448
8001.84	-0.00298658
8013.66	-0.00359343
8025.48	-0.00420481
8037.3	-0.0048205
8049.12	-0.00544029
8060.94	-0.00606395
8072.76	-0.00669125
8084.58	-0.00732197
8096.4	-0.00795585
8108.22	-0.00859266
8120.03	-0.00923215
8131.85	-0.00987406
8143.67	-0.0105181
8155.49	-0.0111641
8167.31	-0.0118117
8179.13	-0.0124607
8190.95	-0.0131107
8202.77	-0.0137615
8214.59	-0.0144128
8226.41	-0.0150642
8238.23	-0.0157155
8250.05	-0.0163663
8261.87	-0.0170164
8273.69	-0.0176654
8285.51	-0.0183129
8297.33	-0.0189586
8309.15	-0.0196022
8320.97	-0.0202434
8332.79	-0.0208817
8344.61	-0.0215168
8356.43	-0.0221484
8368.25	-0.0227761
8380.07	-0.0233996
8391.88	-0.0240184
8403.7	-0.0246322
8415.52	-0.0252407
8427.34	-0.0258434
8439.16	-0.02644
8450.98	-0.0270302
8462.8	-0.0276136
8474.62	-0.0281898
8486.44	-0.0287584
8498.26	-0.0293192
8510.08	-0.0298717
8521.9	-0.0304156
8533.72	-0.0309506
8545.54	-0.0314763
8557.36	-0.0319925
8569.18	-0.0324987
8581	-0.0329947
8592.82	-0.0334802
8604.64	-0.0339549
8616.46	-0.0344184
8628.28	-0.0348706
8640.1	-0.035311
8651.92	-0.0357396
8663.73	-0.0361559
8675.55	-0.0365599
8687.37	-0.0369512
8699.19	-0.0373296
8711.01	-0.037695
8722.83	-0.038047
8734.65	-0.0383856
8746.47	-0.0387106
8758.29	-0.0390218
8770.11	-0.039319
8781.93	-0.0396021
8793.75	-0.039871
8805.57	-0.0401256
8817.39	-0.0403657
8829.21	-0.0405912
8841.03	-0.0408021
8852.85	-0.0409984
8864.67	-0.0411798
8876.49	-0.0413465
8888.31	-0.0414982
8900.13	-0.0416351
8911.95	-0.0417571
8923.77	-0.0418641
8935.59	-0.0419562
8947.4	-0.0420334
8959.22	-0.0420957
8971.04	-0.0421431
8982.86	-0.0421756
8994.68	-0.0421934
9006.5	-0.0421964
9018.32	-0.0421847
9030.14	-0.0421583
9041.96	-0.0421175
9053.78	-0.0420621
9065.6	-0.0419923
9077.42	-0.0419083
9089.24	-0.04181
9101.06	-0.0416977
9112.88	-0.0415714
9124.7	-0.0414312
9136.52	-0.0412773
9148.34	-0.0411098
9160.16	-0.0409288
9171.98	-0.0407346
9183.8	-0.0405271
9195.62	-0.0403066
9207.44	-0.0400733
9219.26	-0.0398272
9231.07	-0.0395686
9242.89	-0.0392977
9254.71	-0.0390145
9266.53	-0.0387194
9278.35	-0.0384124
9290.17	-0.0380938
9301.99	-0.0377637
9313.81	-0.0374224
9325.63	-0.03707
9337.45	-0.0367068
9349.27	-0.036333
9361.09	-0.0359488
9372.91	-0.0355544
9384.73	-0.03515
9396.55	-0.0347359
9408.37	-0.0343123
9420.19	-0.0338794
9432.01	-0.0334375
9443.83	-0.0329868
9455.65	-0.0325276
9467.47	-0.0320601
9479.29	-0.0315846
9491.11	-0.0311013
9502.93	-0.0306105
9514.75	-0.0301125
9526.56	-0.0296076
9538.38	-0.029096
9550.2	-0.028578
9562.02	-0.0280539
9573.84	-0.027524
9585.66	-0.0269886
9597.48	-0.026448
9609.3	-0.0259024
9621.12	-0.0253522
9632.94	-0.0247977
9644.76	-0.0242393
9656.58	-0.0236771
9668.4	-0.0231116
9680.22	-0.022543
9692.04	-0.0219717
9703.86	-0.021398
9715.68	-0.0208222
9727.5	-0.0202447
9739.32	-0.0196658
9751.14	-0.0190858
9762.96	-0.0185051
9774.78	-0.0179239
9786.6	-0.0173427
9798.42	-0.0167617
9810.24	-0.0161814
9822.06	-0.0156019
9833.87	-0.0150238
9845.69	-0.0144473
9857.51	-0.0138728
9869.33	-0.0133005
9881.15	-0.0127309
9892.97	-0.0121642
9904.79	-0.0116009
9916.61	-0.0110412
9928.43	-0.0104855
9940.25	-0.00993401
9952.07	-0.00938718
9963.89	-0.0088453
9975.71	-0.00830868
9987.53	-0.00777763
9999.35	-0.00725248
10011.2	-0.00673352
10023	-0.00622105
10034.8	-0.00571539
10046.6	-0.00521681
10058.4	-0.00472561
10070.3	-0.00424207
10082.1	-0.00376646
10093.9	-0.00329906
10105.7	-0.00284013
10117.5	-0.00238992
10129.4	-0.00194868
10141.2	-0.00151666
10153	-0.00109409
10164.8	-0.000681193
10176.6	-0.000278193
10188.5	0.000114702
10200.3	0.000497291
10212.1	0.00086938
10223.9	0.00123079
10235.7	0.00158133
10247.6	0.00192086
10259.4	0.0022492
10271.2	0.00256621
10283	0.00287176
10294.8	0.00316572
10306.7	0.00344797
10318.5	0.00371841
10330.3	0.00397693
10342.1	0.00422345
10353.9	0.0044579
10365.8	0.0046802
10377.6	0.0048903
10389.4	0.00508816
10401.2	0.00527373
10413	0.005447
10424.9	0.00560794
10436.7	0.00575656
10448.5	0.00589286
10460.3	0.00601685
10472.1	0.00612856
10484	0.00622802
10495.8	0.00631528
10507.6	0.00639039
10519.4	0.00645342
10531.2	0.00650444
10543.1	0.00654354
10554.9	0.0065708
10566.7	0.00658633
10578.5	0.00659023
10590.3	0.00658264
10602.1	0.00656366
10614	0.00653345
10625.8	0.00649215
10637.6	0.0064399
10649.4	0.00637687
10661.2	0.00630322
10673.1	0.00621914
10684.9	0.0061248
10696.7	0.0060204
10708.5	0.00590613
10720.3	0.0057822
10732.2	0.00564881
10744	0.0055062
10755.8	0.00535458
10767.6	0.00519418
10779.4	0.00502523
10791.3	0.004848
10803.1	0.00466271
10814.9	0.00446963
10826.7	0.00426901
10838.5	0.00406112
10850.4	0.00384624
10862.2	0.00362463
10874	0.00339658
10885.8	0.00316238
10897.6	0.0029223
10909.5	0.00267666
10921.3	0.00242574
10933.1	0.00216986
10944.9	0.00190931
10956.7	0.00164442
10968.6	0.00137548
10980.4	0.00110284
10992.2	0.000826797
11004	0.000547689
11015.8	0.000265842
11027.7	-1.84129e-05
11039.5	-0.00030474
11051.3	-0.000592804
11063.1	-0.000882264
11074.9	-0.00117278
11086.8	-0.00146401
11098.6	-0.0017556
11110.4	-0.00204722
11122.2	-0.00233851
11134	-0.00262913
11145.9	-0.00291872
11157.7	-0.00320695
11169.5	-0.00349345
11181.3	-0.00377788
11193.1	-0.0040599
11205	-0.00433916
11216.8	-0.00461531
11228.6	-0.00488801
11240.4	-0.00515692
11252.2	-0.00542171
11264	-0.00568202
11275.9	-0.00593755
11287.7	-0.00618794
11299.5	-0.0064329
11311.3	-0.00667208
11323.1	-0.00690519
11335	-0.0071319
11346.8	-0.00735193
11358.6	-0.00756497
11370.4	-0.00777074
11382.2	-0.00796895
11394.1	-0.00815933
11405.9	-0.00834162
11417.7	-0.00851555
11429.5	-0.00868089
11441.3	-0.00883738
11453.2	-0.00898481
11465	-0.00912296
11476.8	-0.00925161
11488.6	-0.00937057
11500.4	-0.00947966
11512.3	-0.00957871
11524.1	-0.00966754
11535.9	-0.00974602
11547.7	-0.009814
11559.5	-0.00987136
11571.4	-0.009918
11583.2	-0.00995381
11595	-0.00997871
11606.8	-0.00999263
11618.6	-0.00999551
11630.5	-0.00998731
11642.3	-0.00996801
11654.1	-0.00993758
11665.9	-0.00989603
11677.7	-0.00984337
11689.6	-0.00977963
11701.4	-0.00970484
11713.2	-0.00961907
11725	-0.00952238
11736.8	-0.00941485
11748.7	-0.00929659
11760.5	-0.00916769
11772.3	-0.00902829
11784.1	-0.0088785
11795.9	-0.00871849
11807.8	-0.00854842
11819.6	-0.00836844
11831.4	-0.00817874
11843.2	-0.00797952
11855	-0.00777098
11866.8	-0.00755334
11878.7	-0.00732681
11890.5	-0.00709163
11902.3	-0.00684805
11914.1	-0.0065963
11925.9	-0.00633666
11937.8	-0.00606939
11949.6	-0.00579475
11961.4	-0.00551303
11973.2	-0.00522451
11985	-0.00492948
11996.9	-0.00462824
12008.7	-0.00432108
12020.5	-0.00400831
12032.3	-0.00369023
12044.1	-0.00336715
12056	-0.00303938
12067.8	-0.00270723
12079.6	-0.00237102
12091.4	-0.00203106
12103.2	-0.00168765
12115.1	-0.00134112
12126.9	-0.000991778
12138.7	-0.000639929
12150.5	-0.000285885
12162.3	7.00495e-05
12174.2	0.00042757
12186	0.000786375
12197.8	0.00114617
12209.6	0.00150666
12221.4	0.00186755
12233.3	0.00222857
12245.1	0.00258942
12256.9	0.00294985
12268.7	0.00330956
12280.5	0.00366831
12292.4	0.00402583
12304.2	0.00438186
12316	0.00473617
12327.8	0.0050885
12339.6	0.00543863
12351.5	0.00578632
12363.3	0.00613134
12375.1	0.00647349
12386.9	0.00681255
12398.7	0.00714832
12410.6	0.00748059
12422.4	0.00780917
12434.2	0.00813388
12446	0.00845452
12457.8	0.00877094
12469.7	0.00908295
12481.5	0.00939039
12493.3	0.0096931
12505.1	0.00999092
12516.9	0.0102837
12528.7	0.0105713
12540.6	0.0108536
12552.4	0.0111304
12564.2	0.0114016
12576	0.011667
12587.8	0.0119266
12599.7	0.0121803
12611.5	0.0124278
12623.3	0.012669
12635.1	0.0129039
12646.9	0.0131324
12658.8	0.0133542
12670.6	0.0135694
12682.4	0.0137777
12694.2	0.0139791
12706	0.0141735
12717.9	0.0143607
12729.7	0.0145407
12741.5	0.0147132
12753.3	0.0148783
12765.1	0.0150358
12777	0.0151855
12788.8	0.0153275
12800.6	0.0154614
12812.4	0.0155873
12824.2	0.0157051
12836.1	0.0158145
12847.9	0.0159155
12859.7	0.016008
12871.5	0.0160918
12883.3	0.0161668
12895.2	0.0162329
12907	0.0162901
12918.8	0.016338
12930.6	0.0163767
12942.4	0.016406
12954.3	0.0164258
12966.1	0.016436
12977.9	0.0164364
12989.7	0.0164269
13001.5	0.0164075
13013.4	0.0163779
13025.2	0.0163381
13037	0.016288
13048.8	0.0162274
13060.6	0.0161563
13072.5	0.0160745
13084.3	0.015982
13096.1	0.0158787
13107.9	0.0157644
13119.7	0.0156391
13131.5	0.0155028
13143.4	0.0153553
13155.2	0.0151966
13167	0.0150267
13178.8	0.0148454
13190.6	0.0146529
13202.5	0.014449
13214.3	0.0142337
13226.1	0.014007
13237.9	0.013769
13249.7	0.0135196
13261.6	0.0132589
13273.4	0.0129869
13285.2	0.0127038
13297	0.0124094
13308.8	0.012104
13320.7	0.0117876
13332.5	0.0114604
13344.3	0.0111224
13356.1	0.0107738
13367.9	0.0104148
13379.8	0.0100455
13391.6	0.00966609
13403.4	0.00927679
13415.2	0.00887781
13427	0.00846939
13438.9	0.00805176
13450.7	0.00762519
13462.5	0.00718996
13474.3	0.00674635
13486.1	0.00629469
13498	0.00583527
13509.8	0.00536846
13521.6	0.00489458
13533.4	0.00441402
13545.2	0.00392715
13557.1	0.00343436
13568.9	0.00293606
13580.7	0.00243267
13592.5	0.0019246
13604.3	0.00141232
13616.2	0.000896256
13628	0.000376882
13639.8	-0.000145334
13651.6	-0.000669913
13663.4	-0.00119637
13675.3	-0.0017242
13687.1	-0.00225292
13698.9	-0.002782
13710.7	-0.00331095
13722.5	-0.00383925
13734.3	-0.00436637
13746.2	-0.0048918
13758	-0.00541502
13769.8	-0.00593549
13781.6	-0.00645271
13793.4	-0.00696614
13805.3	-0.00747528
13817.1	-0.0079796
13828.9	-0.00847859
13840.7	-0.00897175
13852.5	-0.00945857
13864.4	-0.00993857
13876.2	-0.0104113
13888	-0.0108761
13899.8	-0.0113328
13911.6	-0.0117807
13923.5	-0.0122194
13935.3	-0.0126486
13947.1	-0.0130677
13958.9	-0.0134764
13970.7	-0.0138743
13982.6	-0.0142609
13994.4	-0.014636
14006.2	-0.0149992
14018	-0.0153501
14029.8	-0.0156884
14041.7	-0.0160139
14053.5	-0.0163262
14065.3	-0.0166251
14077.1	-0.0169104
14088.9	-0.0171817
14100.8	-0.0174391
14112.6	-0.0176821
14124.4	-0.0179107
14136.2	-0.0181248
14148	-0.0183242
14159.9	-0.0185088
14171.7	-0.0186785
14183.5	-0.0188333
14195.3	-0.0189732
14207.1	-0.019098
14219	-0.0192079
14230.8	-0.0193029
14242.6	-0.0193829
14254.4	-0.0194482
14266.2	-0.0194986
14278.1	-0.0195345
14289.9	-0.0195558
14301.7	-0.0195628
14313.5	-0.0195556
14325.3	-0.0195343
14337.2	-0.0194993
14349	-0.0194506
14360.8	-0.0193887
14372.6	-0.0193136
14384.4	-0.0192257
14396.2	-0.0191254
14408.1	-0.0190128
14419.9	-0.0188883
14431.7	-0.0187522
14443.5	-0.018605
14455.3	-0.0184469
14467.2	-0.0182784
14479	-0.0180998
14490.8	-0.0179115
14502.6	-0.017714
14514.4	-0.0175077
14526.3	-0.017293
14538.1	-0.0170704
14549.9	-0.0168403
14561.7	-0.0166031
14573.5	-0.0163594
14585.4	-0.0161097
14597.2	-0.0158544
14609	-0.0155939
14620.8	-0.0153289
14632.6	-0.0150598
14644.5	-0.0147871
14656.3	-0.0145113
14668.1	-0.0142329
14679.9	-0.0139525
14691.7	-0.0136705
14703.6	-0.0133875
14715.4	-0.0131039
14727.2	-0.0128204
14739	-0.0125373
14750.8	-0.0122553
14762.7	-0.0119748
14774.5	-0.0116963
14786.3	-0.0114204
14798.1	-0.0111475
14809.9	-0.0108781
14821.8	-0.0106127
14833.6	-0.0103518
14845.4	-0.0100959
14857.2	-0.00984548
14869	-0.00960091
14880.9	-0.0093627
14892.7	-0.00913128
14904.5	-0.0089071
14916.3	-0.00869057
14928.1	-0.00848211
14940	-0.00828212
14951.8	-0.008091
14963.6	-0.00790912
14975.4	-0.00773685
14987.2	-0.00757454
14999	-0.00742253
15010.9	-0.00728116
15022.7	-0.00715072
15034.5	-0.00703151
15046.3	-0.00692382
15058.1	-0.00682791
15070	-0.00674401
15081.8	-0.00667237
15093.6	-0.0066132
15105.4	-0.00656668
15117.2	-0.006533
15129.1	-0.0065123
15140.9	-0.00650473
15152.7	-0.00651041
15164.5	-0.00652942
15176.3	-0.00656185
15188.2	-0.00660776
15200	-0.00666717
15211.8	-0.00674011
15223.6	-0.00682655
15235.4	-0.00692648
15247.3	-0.00703985
15259.1	-0.00716657
15270.9	-0.00730655
15282.7	-0.00745967
15294.5	-0.00762579
15306.4	-0.00780474
15318.2	-0.00799635
15330	-0.00820039
15341.8	-0.00841664
15353.6	-0.00864483
15365.5	-0.0088847
15377.3	-0.00913594
15389.1	-0.00939823
15400.9	-0.00967123
15412.7	-0.00995457
15424.6	-0.0102479
15436.4	-0.0105507
15448.2	-0.0108626
15460	-0.0111832
15471.8	-0.0115121
15483.7	-0.0118486
15495.5	-0.0121923
15507.3	-0.0125427
15519.1	-0.0128992
15530.9	-0.0132613
15542.8	-0.0136284
15554.6	-0.0139999
15566.4	-0.0143752
15578.2	-0.0147536
15590	-0.0151347
15601.9	-0.0155176
15613.7	-0.0159018
15625.5	-0.0162865
15637.3	-0.0166712
15649.1	-0.0170551
15660.9	-0.0174375
15672.8	-0.0178178
15684.6	-0.0181952
15696.4	-0.018569
15708.2	-0.0189386
15720	-0.0193032
15731.9	-0.0196621
15743.7	-0.0200146
15755.5	-0.0203601
15767.3	-0.0206977
15779.1	-0.0210268
15791	-0.0213468
15802.8	-0.0216569
15814.6	-0.0219564
15826.4	-0.0222448
15838.2	-0.0225213
15850.1	-0.0227852
15861.9	-0.0230361
15873.7	-0.0232733
15885.5	-0.0234961
15897.3	-0.0237039
15909.2	-0.0238964
15921	-0.0240727
15932.8	-0.0242326
15944.6	-0.0243754
15956.4	-0.0245007
15968.3	-0.024608
15980.1	-0.0246969
15991.9	-0.0247669
16003.7	-0.0248178
16015.5	-0.0248491
16027.4	-0.0248606
16039.2	-0.0248518
16051	-0.0248227
16062.8	-0.0247728
16074.6	-0.024702
16086.5	-0.0246101
16098.3	-0.0244971
16110.1	-0.0243626
16121.9	-0.0242067
16133.7	-0.0240294
16145.6	-0.0238305
16157.4	-0.0236101
16169.2	-0.0233683
16181	-0.023105
16192.8	-0.0228205
16204.7	-0.0225148
16216.5	-0.0221881
16228.3	-0.0218407
16240.1	-0.0214726
16251.9	-0.0210843
16263.7	-0.020676
16275.6	-0.020248
16287.4	-0.0198006
16299.2	-0.0193343
16311	-0.0188495
16322.8	-0.0183465
16334.7	-0.0178259
16346.5	-0.0172881
16358.3	-0.0167336
16370.1	-0.016163
16381.9	-0.0155768
16393.8	-0.0149756
16405.6	-0.01436
16417.4	-0.0137307
16429.2	-0.0130881
16441	-0.0124331
16452.9	-0.0117663
16464.7	-0.0110883
16476.5	-0.0103999
16488.3	-0.00970175
16500.1	-0.0089946
16512	-0.00827918
16523.8	-0.00755623
16535.6	-0.00682649
16547.4	-0.00609073
16559.2	-0.00534971
16571.1	-0.00460418
16582.9	-0.00385492
16594.7	-0.00310269
16606.5	-0.00234826
16618.3	-0.0015924
16630.2	-0.000835869
16642	-7.94301e-05
16653.8	0.000676163
16665.6	0.00143016
16677.4	0.00218182
16689.3	0.00293042
16701.1	0.00367522
16712.9	0.00441551
16724.7	0.0051506
16736.5	0.0058798
16748.4	0.00660242
16760.2	0.00731782
16772	0.00802533
16783.8	0.00872435
16795.6	0.00941425
16807.5	0.0100944
16819.3	0.0107643
16831.1	0.0114234
16842.9	0.0120711
16854.7	0.0127069
16866.5	0.0133302
16878.4	0.0139408
16890.2	0.014538
16902	0.0151214
16913.8	0.0156908
16925.6	0.0162455
16937.5	0.0167854
16949.3	0.01731
16961.1	0.0178191
16972.9	0.0183123
16984.7	0.0187894
16996.6	0.0192501
17008.4	0.0196942
17020.2	0.0201216
17032	0.020532
17043.8	0.0209253
17055.7	0.0213013
17067.5	0.02166
17079.3	0.0220013
17091.1	0.0223251
17102.9	0.0226313
17114.8	0.02292
17126.6	0.0231911
17138.4	0.0234447
17150.2	0.0236808
17162	0.0238995
17173.9	0.0241008
17185.7	0.0242849
17197.5	0.0244518
17209.3	0.0246017
17221.1	0.0247348
17233	0.0248512
17244.8	0.0249511
17256.6	0.0250347
17268.4	0.0251022
17280.2	0.0251538
17292.1	0.0251898
17303.9	0.0252104
17315.7	0.0252158
17327.5	0.0252064
17339.3	0.0251825
17351.2	0.0251442
17363	0.0250919
17374.8	0.025026
17386.6	0.0249466
17398.4	0.0248543
17410.3	0.0247491
17422.1	0.0246316
17433.9	0.0245021
17445.7	0.0243607
17457.5	0.0242081
17469.4	0.0240443
17481.2	0.0238699
17493	0.0236851
17504.8	0.0234903
17516.6	0.0232859
17528.4	0.0230721
17540.3	0.0228494
17552.1	0.0226181
17563.9	0.0223785
17575.7	0.022131
17587.5	0.0218759
17599.4	0.0216135
17611.2	0.0213442
17623	0.0210683
17634.8	0.0207861
17646.6	0.020498
17658.5	0.0202042
17670.3	0.019905
17682.1	0.0196008
17693.9	0.0192919
17705.7	0.0189785
17717.6	0.0186609
17729.4	0.0183393
17741.2	0.0180142
17753	0.0176856
17764.8	0.0173539
17776.7	0.0170194
17788.5	0.0166821
17800.3	0.0163425
17812.1	0.0160006
17823.9	0.0156568
17835.8	0.0153112
17847.6	0.014964
17859.4	0.0146154
17871.2	0.0142655
17883	0.0139147
17894.9	0.013563
17906.7	0.0132105
17918.5	0.0128575
17930.3	0.0125041
17942.1	0.0121504
17954	0.0117965
17965.8	0.0114426
17977.6	0.0110888
17989.4	0.0107352
18001.2	0.0103819
18013.1	0.010029
18024.9	0.00967656
18036.7	0.00932468
18048.5	0.00897345
18060.3	0.00862293
18072.2	0.0082732
18084	0.00792431
18095.8	0.00757632
18107.6	0.00722928
18119.4	0.00688325
18131.2	0.00653827
18143.1	0.00619437
18154.9	0.0058516
18166.7	0.00550999
18178.5	0.00516957
18190.3	0.00483038
18202.2	0.00449243
18214	0.00415575
18225.8	0.00382036
18237.6	0.00348629
18249.4	0.00315355
18261.3	0.00282216
18273.1	0.00249214
18284.9	0.00216351
18296.7	0.00183628
18308.5	0.00151047
18320.4	0.00118609
18332.2	0.000863173
18344	0.000541724
18355.8	0.000221766
18367.6	-9.66825e-05
18379.5	-0.000413601
18391.3	-0.000728966
18403.1	-0.00104275
18414.9	-0.00135494
18426.7	-0.0016655
18438.6	-0.0019744
18450.4	-0.0022816
18462.2	-0.00258709
18474	-0.00289081
18485.8	-0.00319273
18497.7	-0.00349281
18509.5	-0.00379101
18521.3	-0.00408727
18533.1	-0.00438156
18544.9	-0.00467381
18556.8	-0.00496397
18568.6	-0.00525198
18580.4	-0.00553779
18592.2	-0.00582132
18604	-0.00610252
18615.9	-0.00638131
18627.7	-0.00665762
18639.5	-0.00693138
18651.3	-0.0072025
18663.1	-0.00747091
18675	-0.00773653
18686.8	-0.00799927
18698.6	-0.00825904
18710.4	-0.00851575
18722.2	-0.00876932
18734.1	-0.00901965
18745.9	-0.00926665
18757.7	-0.00951022
18769.5	-0.00975025
18781.3	-0.00998666
18793.1	-0.0102193
18805	-0.0104482
18816.8	-0.0106731
18828.6	-0.010894
18840.4	-0.0111108
18852.2	-0.0113233
18864.1	-0.0115315
18875.9	-0.0117352
18887.7	-0.0119344
18899.5	-0.012129
18911.3	-0.0123188
18923.2	-0.0125038
18935	-0.0126839
18946.8	-0.0128589
18958.6	-0.0130288
18970.4	-0.0131935
18982.3	-0.0133529
18994.1	-0.0135069
19005.9	-0.0136555
19017.7	-0.0137984
19029.5	-0.0139358
19041.4	-0.0140675
19053.2	-0.0141934
19065	-0.0143134
19076.8	-0.0144276
19088.6	-0.0145358
19100.5	-0.014638
19112.3	-0.0147342
19124.1	-0.0148242
19135.9	-0.0149081
19147.7	-0.0149859
19159.6	-0.0150574
19171.4	-0.0151227
19183.2	-0.0151818
19195	-0.0152346
19206.8	-0.0152811
19218.7	-0.0153214
19230.5	-0.0153553
19242.3	-0.0153831
19254.1	-0.0154045
19265.9	-0.0154198
19277.8	-0.0154288
19289.6	-0.0154317
19301.4	-0.0154285
19313.2	-0.0154191
19325	-0.0154037
19336.9	-0.0153823
19348.7	-0.015355
19360.5	-0.0153219
19372.3	-0.0152829
19384.1	-0.0152382
19395.9	-0.0151879
19407.8	-0.015132
19419.6	-0.0150707
19431.4	-0.015004
19443.2	-0.0149321
19455	-0.014855
19466.9	-0.0147728
19478.7	-0.0146857
19490.5	-0.0145938
19502.3	-0.0144973
19514.1	-0.0143961
19526	-0.0142905
19537.8	-0.0141807
19549.6	-0.0140666
19561.4	-0.0139486
19573.2	-0.0138266
19585.1	-0.013701
19596.9	-0.0135717
19608.7	-0.013439
19620.5	-0.013303
19632.3	-0.0131639
19644.2	-0.0130218
19656	-0.0128769
19667.8	-0.0127294
19679.6	-0.0125793
19691.4	-0.0124269
19703.3	-0.0122723
19715.1	-0.0121157
19726.9	-0.0119572
19738.7	-0.011797
19750.5	-0.0116353
19762.4	-0.0114721
19774.2	-0.0113077
19786	-0.0111423
19797.8	-0.0109759
19809.6	-0.0108087
19821.5	-0.0106409
19833.3	-0.0104727
19845.1	-0.0103041
19856.9	-0.0101353
19868.7	-0.00996651
19880.6	-0.00979779
19892.4	-0.00962931
19904.2	-0.0094612
19916	-0.0092936
19927.8	-0.00912662
19939.7	-0.0089604
19951.5	-0.00879506
19963.3	-0.00863071
19975.1	-0.00846748
19986.9	-0.00830547
19998.8	-0.00814479
