0	0
256.387	0
512.774	4.54747e-12
769.161	0.116932
1025.55	0.104205
1281.94	0.0998387
1538.32	0.082669
1794.71	0.0905398
2051.1	0.0932102
2307.48	0.0921642
2563.87	0.0807638
2820.26	0.0660018
3076.64	0.0490686
3333.03	0.0330489
3589.42	0.0177808
3845.81	0.00399156
4102.19	-0.00827589
4358.58	-0.0183633
4614.97	-0.02601
4871.35	-0.031122
5127.74	-0.034122
5384.12	-0.035586
5640.51	-0.0361274
5896.9	-0.0361794
6153.28	-0.0360284
6409.67	-0.0358319
6666.05	-0.0356805
6922.44	-0.0356006
7178.82	-0.0355656
7435.21	-0.0355007
7691.59	-0.0353051
7947.98	-0.034871
8204.37	-0.0341012
8460.75	-0.0329175
8717.14	-0.0312694
8973.53	-0.0291408
9229.91	-0.0265554
9486.3	-0.0235798
9742.69	-0.0203188
9999.08	-0.0169055
10255.5	-0.0134871
10511.8	-0.0102082
10768.2	-0.00719685
11024.6	-0.00455265
11281	-0.00234055
11537.4	-0.000589013
11793.8	0.000707176
12050.2	0.00158069
12306.6	0.00208365
12562.9	0.00227919
12819.3	0.00223402
13075.7	0.0020126
13332.1	0.0016733
13588.5	0.0012662
13844.9	0.000832338
14101.3	0.000403696
14357.7	3.75503e-06
14614	-0.000351793
14870.4	-0.00065422
15126.8	-0.000900839
15383.2	-0.00109394
15639.6	-0.00123953
15896	-0.00134599
16152.4	-0.00142258
16408.8	-0.00147814
16665.1	-0.00151999
16921.5	-0.00155324
17177.9	-0.00158058
17434.3	-0.00160246
17690.7	-0.00161767
17947.1	-0.00162404
18203.5	-0.00161922
18459.8	-0.00160134
18716.2	-0.00156944
18972.6	-0.00152358
19229	-0.00146484
19485.4	-0.00139502
19741.8	-0.00131635
19998.2	-0.00123113
