Executable + params: ../../build/sierpi_intel_tbb_scan_tsunami_parallel_release -o 32768 -A 1 -d 20 -a 8 -t 100
Problem size with different number of CPUs using function optimization
THREADS	MTPS	TIMESTEPS	TIMESTEP_SIZE	SECONDS_FOR_SIMULATION	AVERAGE_TRIANGLES	AVERAGE_PARTITIONS
80	65.2372	100	0.000491318		1.9047e+07	1760.14
64	53.4715	100	0.000491318		1.9047e+07	1445.57
40	57.6958	100	0.000491318		1.9047e+07	963.71
32	39.0949	100	0.000491318		1.9047e+07	773.72
16	20.0451	100	0.000491318		1.9047e+07	433.08
8	12.3111	100	0.000491318		1.9047e+07	236.11
4	8.81331	100	0.000491318		1.9047e+07	133.26
2	4.76899	100	0.000491318		1.9047e+07	75.89
1	2.44007	100	0.000491318		1.9047e+07	48
