0	0
10.8906	0
20.8735	0
30.8564	0
40.1527	0
50.385	0
60.3421	0
70.3246	0
80.307	0
90.1623	0
100.652	0
110.026	0
120.648	0
130.453	0
140.239	0
150.025	0
160.701	0
170.487	0
180.273	0
190.059	0
200.735	1.09139e-11
210.52	2.09184e-11
220.304	3.09228e-11
230.088	4.09273e-11
240.76	5.18412e-11
250.544	6.18456e-11
260.327	7.18501e-11
270.11	8.54925e-11
280.783	1.0732e-10
290.566	1.27329e-10
300.35	1.47338e-10
310.133	1.67347e-10
320.805	2.00089e-10
330.588	2.30102e-10
340.371	2.61934e-10
350.119	3.01952e-10
360.677	3.46517e-10
370.317	3.9654e-10
380.832	4.56566e-10
390.438	5.19321e-10
400.819	5.97538e-10
410.28	6.80302e-10
420.389	7.82165e-10
430.686	9.03128e-10
440.125	1.03228e-09
450.422	1.19508e-09
460.719	1.38698e-09
470.152	1.59162e-09
480.366	1.84991e-09
490.546	2.14823e-09
500.719	2.4902e-09
510.044	2.84399e-09
520.208	3.276e-09
530.366	3.75621e-09
540.515	4.28645e-09
550.655	4.86943e-09
560.794	5.50517e-09
570.087	6.13727e-09
580.225	6.88487e-09
590.364	7.69342e-09
600.502	8.56653e-09
610.64	9.50149e-09
620.778	1.04956e-08
630.071	1.14542e-08
640.209	1.25456e-08
650.347	1.3677e-08
660.485	1.48402e-08
670.623	1.60253e-08
680.747	1.7224e-08
690.011	1.83245e-08
700.116	1.9515e-08
710.222	2.06892e-08
720.327	2.1837e-08
730.432	2.29475e-08
740.537	2.40107e-08
750.643	2.50193e-08
760.748	2.59633e-08
770.011	2.67664e-08
780.116	2.75695e-08
790.221	2.82917e-08
800.326	2.89292e-08
810.431	2.94822e-08
820.536	2.99497e-08
830.641	3.03362e-08
840.746	3.06482e-08
850.009	3.08755e-08
860.114	3.10711e-08
870.219	3.12266e-08
880.323	3.13612e-08
890.428	3.15013e-08
900.533	3.1675e-08
910.638	3.19178e-08
920.742	3.22707e-08
930.005	3.27254e-08
940.11	3.34148e-08
950.214	3.43598e-08
960.319	3.56231e-08
970.424	3.7272e-08
980.528	3.93766e-08
990.633	4.20168e-08
1000.74	4.52765e-08
1010	4.88844e-08
1020.1	5.35856e-08
1030.21	5.91826e-08
1040.31	6.57847e-08
1050.42	7.35108e-08
1060.52	8.24875e-08
1070.63	9.2854e-08
1080.73	1.04755e-07
1090.84	1.18351e-07
1100.1	1.32452e-07
1110.2	1.49787e-07
1120.31	1.69355e-07
1130.41	1.91367e-07
1140.52	2.16047e-07
1150.62	2.43633e-07
1160.73	2.74382e-07
1170.83	3.08567e-07
1180.09	3.43169e-07
1190.2	3.84764e-07
1200.3	4.30692e-07
1210.4	4.81295e-07
1220.51	5.36937e-07
1230.61	5.97998e-07
1240.72	6.64886e-07
1250.82	7.38029e-07
1260.07	8.10877e-07
1270.15	8.97008e-07
1280.21	9.90812e-07
1290.27	1.09333e-06
1300.33	1.20487e-06
1310.38	1.3257e-06
1320.43	1.45599e-06
1330.48	1.59581e-06
1340.52	1.74511e-06
1350.55	1.904e-06
1360.58	2.07268e-06
1370.61	2.25127e-06
1380.64	2.43991e-06
1390.67	2.63877e-06
1400.7	2.8481e-06
1410.73	3.06817e-06
1420.76	3.29934e-06
1430.79	3.54199e-06
1440.82	3.79646e-06
1450.81	4.06256e-06
1460.78	4.34113e-06
1470.76	4.63334e-06
1480.73	4.93995e-06
1490.71	5.26176e-06
1500.68	5.59969e-06
1510.65	5.95472e-06
1520.63	6.32791e-06
1530.6	6.72039e-06
1540.57	7.13337e-06
1550.52	7.56684e-06
1560.38	8.01941e-06
1570.21	8.49469e-06
1580.04	8.99533e-06
1590.7	9.5681e-06
1600.53	1.01266e-05
1610.36	1.07154e-05
1620.2	1.13362e-05
1630.03	1.19909e-05
1640.68	1.27405e-05
1650.52	1.34718e-05
1660.35	1.42428e-05
1670.18	1.50552e-05
1680.02	1.59104e-05
1690.67	1.68866e-05
1700.5	1.78347e-05
1710.34	1.88291e-05
1720.17	1.98707e-05
1730	2.09604e-05
1740.65	2.21962e-05
1750.49	2.3389e-05
1760.32	2.46327e-05
1770.15	2.59284e-05
1780.81	2.73917e-05
1790.64	2.87989e-05
1800.47	3.02614e-05
1810.3	3.17805e-05
1820.14	3.33576e-05
1830.79	3.51333e-05
1840.62	3.68362e-05
1850.46	3.8602e-05
1860.29	4.04327e-05
1870.12	4.23302e-05
1880.77	4.44639e-05
1890.61	4.65079e-05
1900.44	4.86259e-05
1910.27	5.08203e-05
1920.11	5.3094e-05
1930.76	5.56498e-05
1940.59	5.80975e-05
1950.42	6.06335e-05
1960.26	6.32607e-05
1970.09	6.59826e-05
1980.74	6.90421e-05
1990.57	7.19723e-05
2000.41	7.50082e-05
2010.24	7.81536e-05
2020.07	7.84854e-05
2030.72	7.68579e-05
2040.56	7.56283e-05
2050.39	7.46419e-05
2060.22	7.38826e-05
2070.05	7.33355e-05
2080.71	7.29663e-05
2090.54	7.28186e-05
2100.37	7.28447e-05
2110.2	7.30346e-05
2120.04	7.33794e-05
2130.69	7.39186e-05
2140.52	7.4562e-05
2150.35	7.53391e-05
2160.19	7.62451e-05
2170.02	7.72756e-05
2180.67	7.85286e-05
2190.5	7.98085e-05
2200.33	8.12047e-05
2210.17	8.27159e-05
2220.82	8.44817e-05
2230.65	8.62305e-05
2240.48	8.80936e-05
2250.32	9.00718e-05
2260.15	9.21666e-05
2270.8	9.45695e-05
2280.63	9.6913e-05
2290.46	9.93795e-05
2300.64	0.000102066
2310.48	0.000104791
2320.31	0.00010765
2330.14	0.000110644
2340.79	0.000114047
2350.62	0.000117338
2360.46	0.000120778
2370.29	0.000124371
2380.12	0.000128124
2390.77	0.000132374
2400.6	0.000136474
2410.44	0.000140736
2420.27	0.000145148
2430.1	0.000149698
2440.75	0.000154774
2450.59	0.00015959
2460.42	0.000164527
2470.25	0.000169583
2480.08	0.000174758
2490.73	0.000180501
2500.57	0.000185929
2510.4	0.000191484
2520.23	0.00019717
2530.06	0.000202993
2540.72	0.000209461
2550.55	0.000215589
2560.38	0.000221876
2570.16	0.000228295
2580.24	0.000235101
2590.29	0.000242076
2600.36	0.000249273
2610.58	0.000256805
2620.72	0.000264521
2630.68	0.000272334
2640.51	0.000280296
2650.09	0.000288304
2660.7	0.000297473
2670.35	0.000306097
2680.45	0.000315426
2690.25	0.000324773
2700.05	0.000334432
2710.66	0.000345259
2720.28	0.000355418
2730.08	0.000366101
2740.69	0.00037808
2750.48	0.000389526
2760.28	0.000401359
2770.08	0.000415169
2780.69	0.000449087
2790.48	0.000480274
2800.28	0.000511242
2810.07	0.000541938
2820.69	0.000574862
2830.48	0.000604957
2840.28	0.000634797
2850.07	0.00066443
2860.69	0.00069637
2870.48	0.000725778
2880.28	0.000755198
2890.07	0.000784716
2900.68	0.000816909
2910.48	0.000846924
2920.27	0.000877324
2930.07	0.000908201
2940.68	0.000942299
2950.48	0.00097447
2960.27	0.0010074
2970.07	0.00104118
2980.68	0.00107868
2990.47	0.00111399
3000.27	0.00114984
3010.07	0.00118621
3020.68	0.00122617
3030.47	0.0012636
3040.27	0.0013016
3050.06	0.00134026
3060.67	0.001383
3070.47	0.00142338
3080.26	0.00146478
3090.06	0.00150735
3100.67	0.00155494
3110.47	0.00160038
3120.26	0.00164738
3130.06	0.00169609
3140.67	0.00175092
3150.46	0.00180358
3160.26	0.00189307
3170.05	0.00201252
3180.66	0.00213428
3190.46	0.00224062
3200.25	0.00234254
3210.05	0.0024416
3220.4	0.00254488
3230.19	0.00264293
3240.81	0.00275115
3250.6	0.00285424
3260.4	0.00296126
3270.19	0.00307149
3280.8	0.00319399
3290.6	0.00331008
3300.39	0.00342976
3310.19	0.00355404
3320.8	0.00369534
3330.59	0.00383322
3340.39	0.00397941
3350.18	0.00419586
3360.79	0.00451898
3370.59	0.00480599
3380.38	0.0050883
3390.18	0.00537515
3400.79	0.00570075
3410.58	0.0060144
3420.38	0.00633618
3430.17	0.00667104
3440.78	0.00705961
3450.58	0.00766894
3460.02	0.00827707
3470.63	0.0089438
3480.43	0.00960171
3490.22	0.0103206
3500.02	0.0116056
3510.63	0.0130225
3520.43	0.0153165
3530.22	0.0196606
3540.01	0.0290496
3550.63	0.0366863
3560.42	0.0429278
3570.22	0.0480278
3580.01	0.0529655
3590.62	0.0576229
3600.42	0.0619978
3610.21	0.0667723
3620.01	0.071869
3630.62	0.0776246
3640.41	0.0829009
3650.49	0.0885115
3660.29	0.0940715
3670.08	0.0997002
3680.69	0.10558
3690.49	0.110875
3700.28	0.116168
3710.42	0.121596
3720.22	0.126609
3730.01	0.131265
3740.63	0.136064
3750.42	0.140384
3760.22	0.144637
3770.01	0.14879
3780.62	0.153241
3790.42	0.157446
3800.22	0.161829
3810.07	0.166366
3820.77	0.171317
3830.65	0.175892
3840.53	0.180503
3850.41	0.185157
3860.29	0.189812
3870.17	0.194469
3880.05	0.199187
3890.75	0.204399
3900.63	0.209254
3910.51	0.214112
3920.38	0.219
3930.27	0.223977
3940.15	0.22907
3950.04	0.234277
3960.74	0.240082
3970.63	0.245657
3980.51	0.251471
3990.4	0.257476
4000.28	0.263596
4010.17	0.269794
4020.05	0.276078
4030.76	0.282982
4040.65	0.289402
4050.53	0.295828
4060.42	0.302254
4070.31	0.308693
4080.2	0.315146
4090.09	0.321613
4100.81	0.328671
4110.72	0.335317
4120.67	0.342186
4130.62	0.349332
4140.59	0.35683
4150.56	0.364754
4160.53	0.373199
4170.53	0.382277
4180.56	0.392087
4190.58	0.402728
4200.61	0.414341
4210.64	0.42707
4220.66	0.441059
4230.69	0.456457
4240.72	0.47342
4250.74	0.492101
4260.77	0.512647
4270.8	0.535209
4280.82	0.559959
4290.02	0.584728
4300.04	0.614176
4310.07	0.646287
4320.1	0.681147
4330.12	0.718784
4340.15	0.759145
4350.18	0.802082
4360.2	0.847351
4370.23	0.894624
4380.26	0.943495
4390.28	0.993481
4400.31	1.04402
4410.34	1.09446
4420.36	1.14408
4430.39	1.1921
4440.42	1.2377
4450.44	1.28003
4460.47	1.31827
4470.5	1.35161
4480.52	1.37924
4490.55	1.40037
4500.58	1.41416
4510.6	1.41973
4520.63	1.41607
4530.66	1.40204
4540.68	1.37632
4550.71	1.33748
4560.74	1.28395
4570.77	1.21412
4580.79	1.1265
4590.82	1.01975
4600.01	0.90409
4610.04	0.756937
4620.07	0.584241
4630.09	0.377558
4640.12	0.120549
4650.15	-0.0896659
4660.18	-0.193002
4670.26	-0.238457
4680.35	-0.277356
4690.45	-0.291077
4700.54	-0.316826
4710.65	-0.334563
4720.75	-0.348547
4730.02	-0.360161
4740.12	-0.368604
4750.23	-0.379517
4760.33	-0.388052
4770.44	-0.395098
4780.54	-0.400734
4790.65	-0.405764
4800.75	-0.410662
4810.01	-0.414869
4820.12	-0.419055
4830.22	-0.410099
4840.33	-0.409289
4850.43	-0.414352
4860.54	-0.418579
4870.64	-0.422074
4880.75	-0.424975
4890.01	-0.427221
4900.11	-0.429335
4910.22	-0.4312
4920.32	-0.432544
4930.43	-0.433634
4940.53	-0.434779
4950.63	-0.435892
4960.74	-0.436989
4970	-0.437957
4980.11	-0.438952
4990.2	-0.439865
5000.28	-0.440683
5010.34	-0.441332
5020.41	-0.432551
5030.46	-0.433442
5040.52	-0.434385
5050.57	-0.435816
5060.62	-0.437052
5070.67	-0.438105
5080.73	-0.438947
5090.78	-0.439592
5100.82	-0.440066
5110.01	-0.44037
5120.04	-0.440577
5130.07	-0.440668
5140.1	-0.440654
5150.13	-0.440545
5160.16	-0.44035
5170.19	-0.440076
5180.22	-0.439727
5190.25	-0.439308
5200.27	-0.438835
5210.27	-0.438331
5220.24	-0.437765
5230.21	-0.437147
5240.19	-0.436475
5250.16	-0.435615
5260.13	-0.434468
5270.11	-0.433296
5280.08	-0.432093
5290.06	-0.430858
5300.82	-0.429484
5310.69	-0.428185
5320.52	-0.426848
5330.36	-0.425468
5340.19	-0.424041
5350.02	-0.422568
5360.68	-0.420919
5370.51	-0.419337
5380.34	-0.417682
5390.18	-0.415963
5400.01	-0.414193
5410.66	-0.399974
5420.49	-0.398856
5430.33	-0.397715
5440.16	-0.396559
5450.81	-0.395297
5460.65	-0.39413
5470.48	-0.392966
5480.31	-0.391807
5490.15	-0.39066
5500.8	-0.389437
5510.63	-0.388331
5520.47	-0.387251
5530.3	-0.3862
5540.13	-0.38518
5550.79	-0.384113
5560.62	-0.383164
5570.45	-0.382249
5580.28	-0.38137
5590.12	-0.380525
5600.77	-0.379647
5610.6	-0.378869
5620.44	-0.378117
5630.27	-0.377389
5640.1	-0.376677
5650.76	-0.375919
5660.59	-0.375226
5670.42	-0.374532
5680.26	-0.373832
5690.09	-0.373122
5700.74	-0.372334
5710.57	-0.371585
5720.41	-0.37081
5730.24	-0.370005
5740.07	-0.369165
5750.73	-0.368212
5760.56	-0.367289
5770.39	-0.36655
5780.23	-0.365724
5790.06	-0.364811
5800.71	-0.363727
5810.55	-0.363281
5820.38	-0.363327
5830.21	-0.362793
5840.04	-0.362121
5850.7	-0.36125
5860.53	-0.360324
5870.36	-0.359288
5880.2	-0.358148
5890.03	-0.356908
5900.68	-0.355457
5910.52	-0.35402
5920.35	-0.352493
5930.18	-0.350878
5940.01	-0.349176
5950.67	-0.347236
5960.5	-0.34536
5970.33	-0.343401
5980.17	-0.341363
5990.82	-0.339066
6000.65	-0.336867
6010.48	-0.334594
6020.32	-0.332255
6030.15	-0.329861
6040.8	-0.327214
6050.64	-0.324728
6060.47	-0.322205
6070.3	-0.319648
6080.13	-0.31706
6090.79	-0.314222
6100.62	-0.311572
6110.45	-0.308891
6120.29	-0.306179
6130.12	-0.303436
6140.77	-0.300424
6150.6	-0.297593
6160.44	-0.294717
6170.27	-0.291799
6180.1	-0.288842
6190.76	-0.285597
6200.59	-0.282565
6210.42	-0.278426
6220.25	-0.274019
6230.09	-0.269613
6240.74	-0.264879
6250.57	-0.260559
6260.41	-0.256287
6270.24	-0.252052
6280.07	-0.24784
6290.72	-0.243285
6300.56	-0.23907
6310.39	-0.234831
6320.22	-0.230577
6330.06	-0.226332
6340.71	-0.221754
6350.54	-0.217541
6360.37	-0.213326
6370.21	-0.209087
6380.04	-0.204801
6390.69	-0.200083
6400.53	-0.195315
6410.36	-0.187199
6420.19	-0.17958
6430.03	-0.172367
6440.68	-0.164823
6450.51	-0.157945
6460.34	-0.151053
6470.18	-0.144231
6480.01	-0.137503
6490.65	-0.130198
6500.45	-0.122048
6510.25	-0.111235
6520.04	-0.101543
6530.65	-0.0909934
6540.45	-0.0810587
6550.24	-0.067732
6560.04	-0.0521462
6570.65	-0.0345349
6580.45	-0.00574022
6590.24	0.053347
6600.04	0.0954778
6610.65	0.122967
6620.45	0.134702
6630.24	0.138814
6640.04	0.138838
6650.65	0.131746
6660.45	0.128176
6670.24	0.126879
6680.04	0.128022
6690.65	0.128077
6700.45	0.126823
6710.24	0.126436
6720.04	0.126878
6730.65	0.128092
6740.44	0.12746
6750.24	0.127117
6760.04	0.12884
6770.65	0.132662
6780.44	0.135541
6790.24	0.136433
6800.03	0.136951
6810.65	0.138358
6820.44	0.140291
6830.24	0.141525
6840.03	0.14186
6850.65	0.142417
6860.44	0.143851
6870.24	0.145536
6880.03	0.146202
6890.64	0.145429
6900.44	0.143892
6910.23	0.142203
6920.03	0.140381
6930.64	0.138111
6940.44	0.136211
6950.23	0.134914
6960.03	0.133803
6970.64	0.131894
6980.44	0.129257
6990.23	0.126132
7000.03	0.12279
7010.64	0.118841
7020.43	0.114985
7030.23	0.111557
7040.03	0.109176
7050.64	0.107643
7060.43	0.106372
7070.23	0.104646
7080.02	0.102591
7090.64	0.10054
7100.43	0.0990331
7110.23	0.0977726
7120.02	0.0967099
7130.63	0.0959744
7140.43	0.095733
7150.22	0.0956196
7160.02	0.0952767
7170.63	0.0945559
7180.43	0.0937546
7190.22	0.0929731
7200.02	0.09221
7210.63	0.0913979
7220.43	0.0907601
7230.22	0.0903111
7240.02	0.0900066
7250.63	0.0897547
7260.42	0.0896487
7270.22	0.0898148
7280.01	0.0903207
7290.63	0.0911521
7300.42	0.0920345
7310.22	0.092928
7320.01	0.0937264
7330.62	0.0942767
7340.42	0.0943131
7350.22	0.0938853
7360.01	0.0931652
7370.62	0.092312
7380.42	0.0916118
7390.21	0.0910479
7400.01	0.0906094
7410.62	0.0901834
7420.42	0.089675
7430.21	0.0889126
7440.01	0.0878921
7450.62	0.0867013
7460.41	0.0858273
7470.21	0.0854471
7480	0.085733
7490.62	0.086818
7500.41	0.0883482
7510.21	0.0900193
7520	0.0914197
7530.62	0.0923179
7540.41	0.0925617
7550.21	0.0924516
7560	0.0922713
7570.61	0.0922947
7580.41	0.0927144
7590.2	0.093595
7600	0.0948703
7610.61	0.0964697
7620.41	0.097901
7630.2	0.0991478
7640.82	0.100316
7650.61	0.101378
7660.41	0.102603
7670.28	0.104119
7680.16	0.105941
7690.04	0.107973
7700.74	0.110204
7710.62	0.112075
7720.5	0.113597
7730.38	0.114693
7740.26	0.115376
7750.14	0.115745
7760.02	0.115967
7770.72	0.11626
7780.6	0.116732
7790.47	0.11746
7800.35	0.118428
7810.23	0.119594
7820.11	0.120925
7830.81	0.122546
7840.69	0.124214
7850.57	0.126055
7860.45	0.128074
7870.33	0.130267
7880.21	0.13261
7890.09	0.13506
7900.79	0.137792
7910.68	0.140364
7920.56	0.142999
7930.45	0.145732
7940.34	0.148592
7950.22	0.151579
7960.11	0.154653
7970.81	0.158003
7980.7	0.161033
7990.59	0.163951
8000.47	0.166733
8010.36	0.169376
8020.24	0.171876
8030.13	0.174214
8040.01	0.176336
8050.72	0.178287
8060.61	0.17964
8070.49	0.18043
8080.38	0.180547
8090.26	0.17993
8100.15	0.178581
8110.03	0.176548
8120.74	0.173657
8130.63	0.170423
8140.51	0.166686
8150.4	0.162458
8160.28	0.157727
8170.17	0.152483
8180.05	0.146731
8190.76	0.139973
8200.65	0.133339
8210.53	0.12644
8220.42	0.119403
8230.3	0.112338
8240.19	0.105331
8250.08	0.0984379
8260.8	0.091146
8270.7	0.0846142
8280.62	0.078297
8290.58	0.0722441
8300.54	0.0665281
8310.54	0.0611993
8320.56	0.056303
8330.59	0.051886
8340.62	0.0479531
8350.64	0.0444895
8360.67	0.0414692
8370.7	0.038863
8380.73	0.0366434
8390.75	0.0347817
8400.78	0.0332397
8410.81	0.0319617
8420.83	0.0308714
8430.03	0.0299594
8440.05	0.0289738
8450.08	0.0279238
8460.11	0.0267634
8470.13	0.0254845
8480.16	0.0241115
8490.19	0.0226849
8500.22	0.0212412
8510.24	0.0197978
8520.27	0.0183402
8530.3	0.0167263
8540.32	0.014629
8550.35	0.0118606
8560.38	0.00927493
8570.41	0.00788366
8580.43	0.00638664
8590.46	0.00244637
8600.49	0.0015711
8610.51	-0.000459653
8620.54	-0.0053854
8630.57	-0.0089763
8640.59	-0.0124095
8650.62	-0.0122604
8660.65	-0.0162278
8670.68	-0.0198872
8680.7	-0.0234788
8690.73	-0.0270483
8700.76	-0.0305297
8710.78	-0.0338646
8720.81	-0.0370618
8730	-0.0434442
8740.03	-0.0467907
8750.06	-0.0497059
8760.08	-0.0522893
8770.11	-0.0545999
8780.14	-0.0566968
8790.17	-0.0585608
8800.19	-0.0603512
8810.22	-0.0621266
8820.25	-0.063845
8830.27	-0.065488
8840.3	-0.0670585
8850.33	-0.068541
8860.32	-0.0699222
8870.29	-0.0688653
8880.27	-0.0699431
8890.24	-0.0709255
8900.22	-0.071819
8910.19	-0.0726296
8920.16	-0.0733626
8930.14	-0.0739895
8940.11	-0.0745074
8950.08	-0.0749346
8960.81	-0.0753124
8970.66	-0.0755998
8980.49	-0.0759869
8990.33	-0.0762326
9000.16	-0.0763729
9010.81	-0.0765272
9020.65	-0.076675
9030.48	-0.0768301
9040.31	-0.0769941
9050.15	-0.0771678
9060.8	-0.0773677
9070.63	-0.0775635
9080.46	-0.0777701
9090.3	-0.0779874
9100.13	-0.0782151
9110.78	-0.0732993
9120.62	-0.0742196
9130.45	-0.0751008
9140.28	-0.0759442
9150.12	-0.0767515
9160.77	-0.0775866
9170.6	-0.0783226
9180.44	-0.0790261
9190.27	-0.0796984
9200.1	-0.0803405
9210.76	-0.0810035
9220.59	-0.0815865
9230.42	-0.0821427
9240.26	-0.0826733
9250.09	-0.0831781
9260.74	-0.0836905
9270.57	-0.0841331
9280.41	-0.0845489
9290.24	-0.0849401
9300.07	-0.0853095
9310.73	-0.0856876
9320.56	-0.0860181
9330.39	-0.0863323
9340.23	-0.0866312
9350.06	-0.0869157
9360.71	-0.0872085
9370.55	-0.087465
9380.38	-0.0877087
9390.21	-0.08794
9400.05	-0.0881591
9410.7	-0.0883829
9420.53	-0.0885771
9430.37	-0.0887591
9440.2	-0.0889275
9450.03	-0.0891215
9460.68	-0.0894317
9470.52	-0.0896883
9480.35	-0.089918
9490.18	-0.0901223
9500.02	-0.0902695
9510.67	-0.0903039
9520.5	-0.0903241
9530.34	-0.0903332
9540.17	-0.0903312
9550	-0.090318
9560.66	-0.0902911
9570.49	-0.0902546
9580.32	-0.0902068
9590.15	-0.0901476
9600.81	-0.0900707
9610.64	-0.0899877
9620.47	-0.0898931
9630.31	-0.0897869
9640.14	-0.0896685
9650.79	-0.089526
9660.63	-0.0893807
9670.46	-0.0892221
9680.29	-0.0890499
9690.13	-0.088864
9700.78	-0.088647
9710.61	-0.0884323
9720.44	-0.0882038
9730.28	-0.0879618
9740.11	-0.0877063
9750.76	-0.0874145
9760.6	-0.0871315
9770.43	-0.0868358
9780.26	-0.0865276
9790.1	-0.0862072
9800.75	-0.0858467
9810.58	-0.085502
9820.42	-0.0851466
9830.25	-0.0847807
9840.08	-0.084405
9850.73	-0.0837603
9860.57	-0.0834253
9870.4	-0.0830843
9880.23	-0.0827374
9890.07	-0.0823847
9900.72	-0.081996
9910.55	-0.0816312
9920.39	-0.0812605
9930.22	-0.0808816
9940.05	-0.0804945
9950.71	-0.0800664
9960.54	-0.0796636
9970.37	-0.0792539
9980.2	-0.0788374
9990.04	-0.0784146
10000.7	-0.0779495
10010.5	-0.077514
10020.4	-0.0770727
10030.2	-0.0766257
10040	-0.0761733
10050.7	-0.075677
10060.5	-0.0752135
10070.3	-0.0747448
10080.2	-0.0742712
10090	-0.0737947
10100.7	-0.0731662
10110.5	-0.0725574
10120.3	-0.0719505
10130.2	-0.0713452
10140.8	-0.0706907
10150.6	-0.0700876
10160.5	-0.0694851
10170.3	-0.0688833
10180.1	-0.0682818
10190.8	-0.0676306
10200.6	-0.0670298
10210.5	-0.0664292
10220.3	-0.0658301
10230.1	-0.065232
10240.7	-0.0645842
10250.5	-0.0639862
10260.3	-0.0633882
10270.1	-0.0627902
10280.7	-0.0621423
10290.5	-0.0615442
10300.3	-0.0609458
10310.1	-0.0603473
10320.7	-0.0596986
10330.5	-0.0590997
10340.3	-0.0585006
10350.1	-0.0579014
10360.7	-0.0572524
10370.5	-0.0566536
10380.3	-0.0560552
10390.1	-0.0554573
10400.7	-0.0548103
10410.5	-0.054214
10420.3	-0.0536186
10430.1	-0.0530244
10440.7	-0.0523819
10450.5	-0.0517902
10460.3	-0.0511999
10470.1	-0.0506111
10480.7	-0.0499751
10490.5	-0.0493897
10500.3	-0.0488061
10510.1	-0.0482243
10520.7	-0.0475963
10530.5	-0.0470188
10540.3	-0.0464436
10550.1	-0.0458707
10560.7	-0.0452531
10570.5	-0.0446861
10580.3	-0.0440795
10590.1	-0.0434512
10600.7	-0.042782
10610.5	-0.0421742
10620.3	-0.0415757
10630.1	-0.040986
10640.7	-0.0403567
10650.5	-0.0397861
10660.3	-0.0392257
10670.1	-0.0386748
10680.7	-0.0380882
10690.5	-0.0375555
10700.3	-0.0370306
10710.1	-0.0365131
10720.7	-0.0359603
10730.5	-0.0354567
10740.3	-0.0349591
10750.1	-0.0344671
10760.7	-0.03394
10770.5	-0.0334586
10780.3	-0.0329251
10790.1	-0.0324132
10800.7	-0.0318856
10810.5	-0.0314197
10820.3	-0.030971
10830.1	-0.0305369
10840.7	-0.0300807
10850.5	-0.0296734
10860.3	-0.0292794
10870.1	-0.0288976
10880.7	-0.028496
10890.5	-0.028135
10900.3	-0.0277819
10910.1	-0.0274352
10920.7	-0.0270653
10930.5	-0.0267278
10940.3	-0.026393
10950.1	-0.0260599
10960.7	-0.0256998
10970.5	-0.0253671
10980.3	-0.0250334
10990.1	-0.0246984
11000.7	-0.0243338
11010.5	-0.0239954
11020	-0.0236637
11030.6	-0.0232917
11040.4	-0.0229451
11050.2	-0.022595
11060	-0.0222411
11070.6	-0.0218528
11080.4	-0.02149
11090.2	-0.0211233
11100.8	-0.0207234
11110.6	-0.0203596
11120.4	-0.0199997
11130.2	-0.0196416
11140.8	-0.0192531
11150.6	-0.0188922
11160.4	-0.0185274
11170.2	-0.0181577
11180.8	-0.0177379
11190.6	-0.0171821
11200.4	-0.01659
11210.2	-0.0159755
11220.8	-0.0152955
11230.6	-0.0146608
11240.4	-0.0140234
11250.2	-0.0133851
11260.8	-0.0126946
11270.6	-0.0120607
11280.4	-0.0114314
11290.2	-0.010806
11300.8	-0.0101313
11310.6	-0.00950744
11320.4	-0.00887511
11330.2	-0.00823529
11340.8	-0.00753666
11350.6	-0.0068879
11360.4	-0.00623568
11370.2	-0.00548715
11380.8	-0.00360225
11390.6	-0.00197514
11400.4	-0.000490031
11410.2	0.000850173
11420.8	0.00214455
11430.6	0.00321284
11440.4	0.00420414
11450.2	0.00513303
11460.8	0.00623888
11470.6	0.007473
11480.4	0.00849387
11490.2	0.00938082
11500.8	0.0102995
11510.6	0.0110791
11520.4	0.012155
11530.2	0.0134879
11540.8	0.0157328
11550.6	0.019302
11560.4	0.0251866
11570.2	0.030745
11580.8	0.0371415
11590.6	0.0430504
11600.4	0.0496398
11610.2	0.0565334
11620.8	0.0641618
11630.6	0.071514
11640.4	0.0790452
11650.2	0.086247
11660.8	0.0937882
11670.6	0.100517
11680.4	0.10667
11690.2	0.112182
11700.8	0.11727
11710.6	0.121156
11720.4	0.124277
11730.2	0.126487
11740.8	0.127861
11750.6	0.128505
11760.4	0.128833
11770.2	0.12907
11780.8	0.129319
11790.6	0.129565
11800.4	0.129928
11810.2	0.130459
11820.1	0.131091
11830.8	0.13178
11840.6	0.132395
11850.5	0.133021
11860.4	0.13371
11870.3	0.13448
11880.2	0.135328
11890	0.136224
11900.7	0.137157
11910.6	0.137906
11920.5	0.138539
11930.4	0.139077
11940.2	0.13951
11950.1	0.139803
11960	0.139953
11970.7	0.140009
11980.6	0.139998
11990.5	0.139908
