0	0
10.2726	0
20.545	0
30.8174	0
41.0897	0
50.2205	0
60.4926	0
70.7647	0
81.0367	0
90.1673	0
100.439	0
110.711	0
120.983	0
130.113	0
140.385	0
150.657	0
160.929	0
170.059	0
180.324	0
190.556	0
200.654	0
210.753	0
220.839	0
230.917	0
240.995	0
251.072	0
260.03	0
270.106	4.54747e-12
280.174	1.27329e-11
290.244	2.09184e-11
300.32	2.91038e-11
310.397	3.72893e-11
320.475	5.27507e-11
330.552	6.91216e-11
340.63	9.09495e-11
350.707	1.16415e-10
360.784	1.49157e-10
370.861	1.89175e-10
380.938	2.38288e-10
391.015	2.99224e-10
401.093	3.72893e-10
410.035	4.502e-10
421.083	5.66615e-10
431.043	6.92125e-10
441.027	8.40373e-10
450.996	1.01591e-09
460.856	1.21963e-09
470.625	1.45519e-09
480.342	1.72713e-09
490.052	2.04182e-09
500.842	2.44836e-09
510.552	2.87037e-09
520.255	3.35149e-09
530.966	3.95903e-09
540.6	4.58203e-09
550.234	5.28598e-09
560.894	6.16728e-09
570.487	7.06132e-09
580.068	8.05903e-09
590.706	9.3014e-09
600.279	1.0551e-08
610.914	1.20981e-08
620.48	1.36451e-08
630.046	1.53505e-08
640.675	1.74477e-08
650.241	1.95305e-08
660.87	2.20825e-08
670.436	2.46073e-08
680.002	2.73667e-08
690.631	3.07282e-08
700.197	3.4036e-08
710.826	3.80442e-08
720.392	4.19632e-08
731.003	4.66671e-08
740.546	5.12291e-08
750.08	5.61104e-08
760.673	6.19229e-08
770.206	6.75136e-08
780.799	7.41366e-08
790.333	8.04803e-08
800.926	8.79672e-08
810.46	9.51122e-08
821.052	1.03511e-07
830.586	1.1149e-07
840.12	1.19868e-07
850.713	1.29643e-07
860.246	1.38857e-07
870.839	1.49555e-07
880.372	1.5959e-07
890.965	1.71186e-07
900.499	1.82017e-07
910.032	1.93219e-07
920.625	2.06093e-07
930.158	2.18059e-07
940.751	2.31772e-07
950.284	2.44487e-07
960.877	2.59027e-07
970.41	2.72486e-07
981.003	2.87855e-07
990.536	3.02066e-07
1000.07	3.16644e-07
1010.66	3.33277e-07
1020.2	3.48652e-07
1030.79	3.66203e-07
1040.32	3.8244e-07
1050.91	4.00995e-07
1060.45	4.18183e-07
1071.04	4.37861e-07
1080.57	4.56123e-07
1090.11	4.74951e-07
1100.7	4.96584e-07
1110.23	5.16748e-07
1120.82	5.39991e-07
1130.36	5.61734e-07
1140.95	5.86893e-07
1150.48	6.1052e-07
1160.02	6.35165e-07
1170.61	6.63847e-07
1180.14	6.90921e-07
1190.72	7.22552e-07
1200.25	7.52533e-07
1210.84	7.87682e-07
1220.36	8.21108e-07
1230.95	8.60407e-07
1240.48	8.97877e-07
1250	9.37494e-07
1260.59	9.8423e-07
1270.12	1.02892e-06
1280.7	1.08172e-06
1290.23	1.13227e-06
1300.82	1.19205e-06
1310.34	1.24935e-06
1320.93	1.31714e-06
1330.45	1.3821e-06
1341.01	1.45886e-06
1350.51	1.53239e-06
1360	1.61044e-06
1370.55	1.70281e-06
1380.04	1.79131e-06
1390.55	1.8957e-06
1400.02	1.9957e-06
1410.53	2.11394e-06
1421.05	2.24021e-06
1430.51	2.36159e-06
1441.02	2.50551e-06
1450.48	2.64338e-06
1461	2.80597e-06
1470.46	2.96087e-06
1480.97	3.14258e-06
1490.44	3.31482e-06
1500.93	3.51545e-06
1510.35	3.70452e-06
1520.82	3.92448e-06
1530.25	4.13147e-06
1540.72	4.37167e-06
1550.14	4.59726e-06
1560.62	4.85863e-06
1570.04	5.10381e-06
1580.51	5.38766e-06
1590.98	5.68401e-06
1600.39	5.96147e-06
1610.85	6.28274e-06
1620.27	6.58433e-06
1630.71	6.93285e-06
1640.1	7.2594e-06
1650.53	7.63822e-06
1660.96	8.0346e-06
1670.34	8.40725e-06
1680.77	8.84006e-06
1690.16	9.24746e-06
1700.59	9.72119e-06
1711.02	1.02185e-05
1720.4	1.06874e-05
1730.83	1.12336e-05
1740.22	1.17492e-05
1750.65	1.23503e-05
1760.04	1.29183e-05
1770.46	1.35809e-05
1780.89	1.42789e-05
1790.28	1.49389e-05
1800.71	1.57094e-05
1810.1	1.64379e-05
1820.53	1.72877e-05
1830.96	1.81812e-05
1840.34	1.90239e-05
1850.77	2.00036e-05
1860.14	2.09251e-05
1870.57	2.19953e-05
1880.99	2.31148e-05
1890.37	2.41652e-05
1900.79	2.53811e-05
1910.16	2.65198e-05
1920.57	2.78355e-05
1930.98	2.92063e-05
1940.35	3.04884e-05
1950.76	3.1968e-05
1960.13	3.33508e-05
1970.54	3.49457e-05
1980.95	3.66041e-05
1990.32	3.81529e-05
2000.73	3.99384e-05
2010.09	4.16057e-05
2020.5	4.35277e-05
2030.91	4.55259e-05
2040.28	4.7392e-05
2050.69	4.95436e-05
2060.06	5.15533e-05
2070.47	5.38709e-05
2080.88	5.62815e-05
2090.25	5.85339e-05
2100.66	6.11323e-05
2110.03	6.35606e-05
2120.44	6.63628e-05
2130.85	6.92793e-05
2140.21	7.2006e-05
2150.62	7.32518e-05
2161.03	7.18753e-05
2170.4	7.08587e-05
2180.81	6.99589e-05
2190.18	6.93429e-05
2200.59	6.88605e-05
2211	6.85781e-05
2220.37	6.84848e-05
2230.78	6.85496e-05
2240.15	6.87516e-05
2250.56	6.91276e-05
2260.96	6.96556e-05
2270.33	7.02553e-05
2280.74	7.10547e-05
2290.11	7.18901e-05
2300.52	7.29437e-05
2310.93	7.41263e-05
2320.3	7.52991e-05
2330.71	7.67213e-05
2340.08	7.81079e-05
2350.49	7.97669e-05
2360.89	8.15511e-05
2370.26	8.32649e-05
2380.67	8.52908e-05
2390.04	8.72255e-05
2400.45	8.95015e-05
2410.86	9.19138e-05
2420.23	9.42045e-05
2430.64	9.68864e-05
2440.01	9.94269e-05
2450.41	0.000102395
2460.82	0.000105521
2470.19	0.000108475
2480.6	0.000111917
2491.01	0.000115535
2500.38	0.000118947
2510.79	0.000122918
2520.16	0.000126658
2530.57	0.000131008
2540.95	0.000135543
2550.3	0.000139778
2560.68	0.000144639
2570.02	0.000149152
2580.41	0.000154315
2590.79	0.00015963
2600.14	0.000164542
2610.52	0.000170145
2620.91	0.0001759
2630.25	0.000181214
2640.63	0.000187273
2651.02	0.0001935
2660.36	0.000199256
2670.74	0.000205827
2680.05	0.000211882
2690.36	0.000218779
2700.64	0.000225872
2710.92	0.000233191
2720.17	0.000239983
2730.45	0.000247771
2740.73	0.00025583
2751.01	0.000264176
2760.26	0.000271945
2770.54	0.00028088
2780.82	0.000290149
2790.07	0.00029879
2800.35	0.000308738
2810.63	0.000319066
2820.91	0.000329791
2830.16	0.000339796
2840.44	0.000351321
2850.72	0.000363292
2861	0.000375728
2870.25	0.000387334
2880.53	0.000400708
2890.81	0.000414607
2900.06	0.000437322
2910.34	0.000471301
2920.62	0.000505096
2930.9	0.000538623
2940.15	0.000568545
2950.43	0.000601522
2960.71	0.000634255
2970.98	0.000666804
2980.24	0.000696009
2990.52	0.000728446
3000.79	0.000760973
3010.05	0.000790419
3020.33	0.000823441
3030.6	0.000856906
3040.88	0.000890944
3050.14	0.000922177
3060.41	0.000957666
3070.69	0.000994108
3080.97	0.00103163
3090.22	0.00106643
3100.5	0.00110631
3110.78	0.00114735
3120.03	0.00118514
3130.31	0.00122797
3140.59	0.00127164
3150.87	0.00131616
3160.12	0.001357
3170.4	0.00140331
3180.68	0.00145072
3190.96	0.00149938
3200.21	0.00154441
3210.49	0.00159598
3220.77	0.00164939
3230.02	0.0016992
3240.3	0.00175667
3250.58	0.00181656
3260.86	0.00187906
3270.11	0.0019377
3280.39	0.00200566
3290.67	0.00211065
3300.95	0.00226359
3310.2	0.00239473
3320.48	0.00253414
3330.75	0.00266861
3340.01	0.00278712
3350.28	0.00291801
3360.56	0.00305014
3370.84	0.00318554
3380.09	0.00331171
3390.37	0.00345743
3400.65	0.00360782
3410.93	0.00376231
3420.18	0.00390519
3430.46	0.00406928
3440.74	0.00424068
3451.02	0.00442138
3460.27	0.00459355
3470.55	0.00479698
3480.83	0.00521961
3490.08	0.00558592
3500.36	0.00598288
3510.63	0.00638159
3520.91	0.00679508
3530.16	0.00718372
3540.44	0.00762585
3550.72	0.00808349
3561	0.00857167
3570.25	0.00932974
3580.53	0.0101984
3590.81	0.0110382
3600.06	0.0118558
3610.34	0.0128508
3620.62	0.0146624
3630.9	0.0165794
3640.15	0.0196873
3650.43	0.0238711
3660.71	0.0281082
3670.98	0.0318777
3680.24	0.0351727
3690.51	0.038821
3700.79	0.0423337
3710.04	0.0452357
3720.32	0.0483191
3730.6	0.0514358
3740.88	0.0545725
3750.13	0.0573015
3760.41	0.0601833
3770.69	0.0629727
3780.97	0.0657392
3790.22	0.0682221
3800.5	0.070981
3810.78	0.0737672
3820.03	0.0763072
3830.31	0.0791405
3840.59	0.0819532
3850.87	0.0847408
3860.12	0.0872453
3870.4	0.0900449
3880.68	0.0928775
3890.96	0.0957586
3900.21	0.0984078
3910.49	0.101426
3920.77	0.104522
3930.02	0.107372
3940.3	0.110605
3950.58	0.113912
3960.86	0.117305
3970.11	0.120442
3980.47	0.124057
3990.83	0.127787
4000.15	0.131241
4010.51	0.135188
4020.87	0.13925
4030.19	0.143013
4040.55	0.147329
4050.91	0.151813
4060.23	0.156021
4070.59	0.16092
4080.95	0.16609
4090.27	0.171003
4100.64	0.176785
4111	0.182939
4120.33	0.188831
4130.69	0.19581
4140.01	0.202517
4150.38	0.210487
4160.74	0.219044
4170.07	0.227279
4180.43	0.237057
4190.79	0.247529
4200.12	0.257573
4210.48	0.269451
4220.84	0.282115
4230.17	0.294209
4240.54	0.30846
4250.93	0.323585
4260.29	0.337964
4270.72	0.354812
4280.12	0.370732
4290.56	0.389219
4301.01	0.408517
4310.41	0.426534
4320.85	0.447217
4330.3	0.46647
4340.8	0.488375
4350.25	0.508461
4360.75	0.53107
4370.2	0.551566
4380.7	0.574356
4390.15	0.594745
4400.65	0.617096
4410.1	0.636785
4420.6	0.658001
4430.05	0.67633
4440.55	0.695646
4450	0.711903
4460.5	0.7285
4471	0.743328
4480.45	0.754964
4490.95	0.76578
4500.4	0.77343
4510.9	0.779407
4520.35	0.782346
4530.85	0.782713
4540.31	0.780286
4550.81	0.774368
4560.26	0.766026
4570.76	0.753293
4580.21	0.73864
4590.71	0.718754
4600.16	0.697589
4610.66	0.670445
4620.11	0.642783
4630.61	0.608526
4640.06	0.57461
4650.56	0.533626
4660.01	0.493899
4670.51	0.446763
4681.01	0.396653
4690.46	0.349159
4700.96	0.293872
4710.41	0.241956
4720.91	0.181948
4730.36	0.125894
4740.86	0.0613449
4750.31	0.00472285
4760.81	-0.0491947
4770.26	-0.0749986
4780.76	-0.0901408
4790.22	-0.109249
4800.72	-0.125899
4810.17	-0.138205
4820.67	-0.150533
4830.12	-0.154684
4840.62	-0.165702
4850.07	-0.173598
4860.62	-0.181064
4870.15	-0.186682
4880.75	-0.192022
4890.28	-0.196699
4900.87	-0.201656
4910.41	-0.205808
4921	-0.199934
4930.53	-0.20273
4940.07	-0.207225
4950.66	-0.211423
4960.19	-0.2146
4970.79	-0.217609
4980.32	-0.219947
4990.91	-0.222231
5000.45	-0.224074
5011.04	-0.225752
5020.57	-0.227005
5030.11	-0.228197
5040.7	-0.229441
5050.23	-0.230559
5060.83	-0.231773
5070.36	-0.232823
5080.95	-0.233923
5090.49	-0.234845
5100.02	-0.235659
5110.61	-0.229611
5120.15	-0.230488
5130.74	-0.231703
5140.27	-0.232887
5150.86	-0.234034
5160.4	-0.234915
5170.99	-0.235719
5180.52	-0.236304
5190.06	-0.236772
5200.65	-0.237164
5210.18	-0.237412
5220.76	-0.237582
5230.29	-0.237647
5240.88	-0.237628
5250.4	-0.237537
5260.99	-0.23736
5270.52	-0.237138
5280.05	-0.236863
5290.63	-0.236499
5300.16	-0.236071
5310.75	-0.235548
5320.27	-0.235055
5330.86	-0.234483
5340.39	-0.233839
5350.97	-0.233058
5360.5	-0.232348
5370.03	-0.23163
5380.61	-0.230822
5390.12	-0.230086
5400.67	-0.229257
5410.16	-0.2285
5420.71	-0.227646
5430.2	-0.226867
5440.71	-0.225992
5450.17	-0.225196
5460.69	-0.224301
5470.15	-0.223481
5480.66	-0.222558
5490.13	-0.217564
5500.64	-0.216767
5510.1	-0.216047
5520.62	-0.215288
5530.08	-0.21464
5540.59	-0.213957
5550.06	-0.213373
5560.57	-0.212755
5570.01	-0.212228
5580.48	-0.211672
5590.96	-0.211145
5600.38	-0.210695
5610.85	-0.21022
5620.28	-0.209815
5630.75	-0.209386
5640.17	-0.209019
5650.65	-0.208629
5660.07	-0.208293
5670.54	-0.207935
5680.99	-0.20759
5690.4	-0.207288
5700.86	-0.206959
5710.27	-0.206666
5720.69	-0.206341
5730.08	-0.206045
5740.51	-0.20571
5750.94	-0.205364
5760.32	-0.205042
5770.75	-0.204669
5780.14	-0.204317
5790.57	-0.203905
5801	-0.203471
5810.38	-0.203058
5820.81	-0.202574
5830.2	-0.202112
5840.63	-0.201571
5850.02	-0.201088
5860.45	-0.200534
5870.88	-0.19993
5880.26	-0.199345
5890.69	-0.198649
5900.08	-0.197983
5910.51	-0.197189
5920.93	-0.196268
5930.31	-0.195407
5940.72	-0.194416
5950.11	-0.193496
5960.53	-0.192445
5970.96	-0.191367
5980.33	-0.190375
5990.75	-0.189251
6000.13	-0.188222
6010.54	-0.18706
6020.95	-0.185879
6030.32	-0.184802
6040.73	-0.18359
6050.1	-0.182487
6060.51	-0.181247
6070.92	-0.179994
6080.29	-0.178856
6090.7	-0.177581
6100.07	-0.176423
6110.48	-0.175128
6120.89	-0.173823
6130.26	-0.172642
6140.67	-0.171321
6150.03	-0.170126
6160.44	-0.168792
6170.85	-0.167453
6180.22	-0.166242
6190.63	-0.164894
6200	-0.163676
6210.41	-0.162321
6220.82	-0.164287
6230.19	-0.163575
6240.6	-0.16278
6251.01	-0.161919
6260.38	-0.161062
6270.79	-0.160115
6280.16	-0.159162
6290.57	-0.157851
6300.98	-0.156517
6310.34	-0.155303
6320.75	-0.153944
6330.12	-0.152716
6340.53	-0.151348
6350.94	-0.149979
6360.31	-0.148746
6370.72	-0.147377
6380.09	-0.146146
6390.5	-0.144779
6400.91	-0.143413
6410.28	-0.142183
6420.69	-0.140817
6430.05	-0.139587
6440.46	-0.138219
6450.87	-0.136849
6460.24	-0.135615
6470.65	-0.13424
6480.02	-0.133001
6490.43	-0.131621
6500.84	-0.130237
6510.21	-0.128989
6520.62	-0.127604
6531.03	-0.126225
6540.4	-0.12499
6550.81	-0.123626
6560.17	-0.122407
6570.58	-0.121061
6580.99	-0.119724
6590.36	-0.118526
6600.77	-0.1172
6610.14	-0.116009
6620.55	-0.114687
6630.96	-0.113364
6640.33	-0.11217
6650.74	-0.110838
6660.11	-0.109634
6670.52	-0.108287
6680.93	-0.10693
6690.29	-0.105699
6700.7	-0.102898
6710.07	-0.100526
6720.46	-0.0980479
6730.85	-0.0957173
6740.19	-0.0937241
6750.57	-0.0915995
6760.95	-0.0895461
6770.3	-0.0877391
6780.68	-0.0857573
6790.03	-0.0839822
6800.42	-0.0820051
6810.8	-0.080016
6820.15	-0.0782221
6830.53	-0.0762338
6840.91	-0.0742508
6850.26	-0.0724656
6860.64	-0.0704718
6871.02	-0.0684551
6880.37	-0.0666105
6890.75	-0.0645188
6900.09	-0.0615964
6910.42	-0.058146
6920.72	-0.0548326
6931	-0.0516104
6940.25	-0.0487273
6950.53	-0.0454903
6960.81	-0.0421838
6970.06	-0.0391665
6980.34	-0.0358287
6990.62	-0.0325071
7000.9	-0.0291434
7010.15	-0.0247391
7020.43	-0.0197144
7030.71	-0.0149714
7040.99	-0.010093
7050.24	-0.00564272
7060.52	0.00128756
7070.8	0.00863671
7080.05	0.0169564
7090.33	0.0280965
7100.61	0.0377218
7110.89	0.0441808
7120.14	0.0483484
7130.42	0.051872
7140.7	0.0543288
7150.98	0.0554412
7160.23	0.0557652
7170.51	0.0561759
7180.79	0.056823
7190.04	0.0573087
7200.32	0.0574579
7210.6	0.0572855
7220.88	0.0571172
7230.13	0.0571506
7240.41	0.0574052
7250.69	0.0578587
7260.97	0.0584956
7270.22	0.0591536
7280.5	0.0598221
7290.78	0.0602947
7300.03	0.0605449
7310.31	0.060705
7320.59	0.060814
7330.87	0.060891
7340.12	0.0609269
7350.4	0.0609315
7360.68	0.0609074
7370.96	0.0608504
7380.21	0.0607611
7390.49	0.0606273
7400.77	0.0605001
7410.02	0.0604469
7420.3	0.0605106
7430.58	0.0607243
7440.86	0.0610581
7450.11	0.0613989
7460.39	0.0617329
7470.67	0.0619366
7480.95	0.0619605
7490.2	0.0618262
7500.48	0.0615384
7510.76	0.0611614
7520.01	0.0607946
7530.29	0.0603956
7540.57	0.0600228
7550.85	0.0596729
7560.1	0.0593678
7570.38	0.0590364
7580.66	0.0587271
7590.94	0.0584743
7600.19	0.0583325
7610.47	0.0583089
7620.75	0.0584523
7631.02	0.0587664
7640.28	0.0591804
7650.56	0.0597568
7660.84	0.0604211
7670.09	0.0610697
7680.37	0.0618306
7690.65	0.0626288
7700.92	0.0634676
7710.18	0.0642628
7720.46	0.065196
7730.74	0.0661832
7741.01	0.0672223
7750.27	0.0681988
7760.55	0.0693249
7770.82	0.0704893
7780.08	0.0715649
7790.36	0.0727826
7800.64	0.0740124
7810.91	0.0752389
7820.17	0.0763256
7830.45	0.0774983
7840.72	0.0786208
7851	0.0796835
7860.26	0.0805844
7870.54	0.0815225
7880.81	0.0823947
7890.07	0.0831237
7900.35	0.0838718
7910.63	0.0845544
7920.9	0.085172
7930.16	0.0856742
7940.44	0.0861767
7950.72	0.0866265
7960.99	0.0870297
7970.25	0.0873563
7980.53	0.0876792
7990.81	0.0879566
8000.06	0.0881617
8010.34	0.0883326
8020.62	0.0884373
8030.9	0.0884728
8040.15	0.0884476
8050.43	0.0883635
8060.71	0.0882315
8070.99	0.0880656
8080.24	0.0878981
8090.52	0.0877018
8100.8	0.087501
8110.05	0.0873184
8120.33	0.0871109
8130.61	0.0868919
8140.89	0.0866507
8150.14	0.086403
8160.44	0.086078
8170.8	0.0856819
8180.12	0.0852511
8190.48	0.0846751
8200.84	0.0839843
8210.16	0.0832583
8220.52	0.0823343
8230.88	0.0812918
8240.2	0.0802614
8250.56	0.0790289
8260.92	0.0777232
8270.25	0.0765029
8280.6	0.0751163
8290.96	0.0737163
8300.29	0.0724584
8310.65	0.0710754
8321.01	0.0697172
8330.34	0.0685202
8340.7	0.0672196
8350.03	0.0660737
8360.39	0.0648237
8370.76	0.0635919
8380.08	0.0624934
8390.45	0.0612787
8400.81	0.0600665
8410.13	0.0589762
8420.5	0.0577666
8430.86	0.0565625
8440.19	0.0554882
8450.55	0.054311
8460.91	0.0531578
8470.25	0.0521443
8480.63	0.051051
8491.01	0.049995
8500.35	0.0490769
8510.75	0.0480886
8520.11	0.0472249
8530.51	0.0462873
8540.94	0.0453607
8550.34	0.0445266
8560.78	0.0435881
8570.18	0.042721
8580.62	0.041719
8590.02	0.0407712
8600.46	0.0396551
8610.97	0.0384559
8620.42	0.0373041
8630.92	0.0359394
8640.37	0.0346335
8650.87	0.0330979
8660.32	0.0316431
8670.82	0.0299514
8680.27	0.028367
8690.77	0.0265438
8700.22	0.0248498
8710.72	0.0229072
8720.17	0.0210934
8730.67	0.018971
8740.12	0.0168999
8750.62	0.0142713
8760.07	0.0110973
8770.57	0.00455682
8780.03	0.00128905
8790.53	-0.00443835
8801.03	-0.00899591
8810.48	-0.00992287
8820.98	-0.0139308
8830.43	-0.0172625
8840.93	-0.0204258
8850.38	-0.0229506
8860.88	-0.0254624
8870.33	-0.0275513
8880.83	-0.0297003
8890.28	-0.028428
8900.78	-0.030704
8910.23	-0.0324797
8920.73	-0.0341272
8930.18	-0.0353995
8940.68	-0.0366497
8950.14	-0.0376722
8960.64	-0.0387317
8970.09	-0.0396207
8980.59	-0.0405266
8990.04	-0.0413365
9000.54	-0.0422287
9011.04	-0.0431089
9020.49	-0.0438869
9030.99	-0.0447314
9040.44	-0.0454707
9050.94	-0.0462656
9060.39	-0.0452905
9070.89	-0.0462997
9080.34	-0.0471176
9090.84	-0.0479185
9100.29	-0.0485513
9110.8	-0.049166
9120.25	-0.0496502
9130.75	-0.0501225
9140.2	-0.0504963
9150.7	-0.0508633
9160.15	-0.0511567
9170.65	-0.051449
9180.1	-0.0516874
9190.6	-0.0519309
9200.05	-0.0521384
9210.55	-0.0523792
9221.03	-0.0526483
9230.45	-0.052855
9240.92	-0.0529926
9250.35	-0.05313
9260.82	-0.0532952
9270.24	-0.0534527
9280.72	-0.053635
9290.14	-0.0538034
9300.61	-0.053993
9310.04	-0.0541641
9320.51	-0.0543527
9330.95	-0.0545375
9340.38	-0.0547001
9350.85	-0.0548748
9360.27	-0.0550258
9370.73	-0.0551854
9380.16	-0.0533854
9390.62	-0.0536491
9400.04	-0.0529111
9410.51	-0.0532129
9420.94	-0.0534956
9430.33	-0.0537304
9440.75	-0.0539693
9450.13	-0.0541658
9460.56	-0.0543646
9470.98	-0.054543
9480.37	-0.0546844
9490.8	-0.0548216
9500.19	-0.0549281
9510.62	-0.055029
9520	-0.0551051
9530.43	-0.0551731
9540.86	-0.055222
9550.25	-0.0552499
9560.68	-0.0552619
9570.06	-0.0552561
9580.49	-0.0552323
9590.92	-0.0551912
9600.31	-0.0551402
9610.74	-0.0550688
9620.13	-0.0549923
9630.56	-0.0548942
9640.99	-0.0547834
9650.37	-0.0546735
9660.8	-0.0545408
9670.19	-0.0544124
9680.62	-0.0542607
9690	-0.0541164
9700.43	-0.0539463
9710.86	-0.0537662
9720.25	-0.0535968
9730.68	-0.0534013
9740.07	-0.0532196
9750.5	-0.0530754
9760.93	-0.0529474
9770.31	-0.0528231
9780.74	-0.0526617
9790.13	-0.0525059
9800.56	-0.0523251
9810.98	-0.0521373
9820.36	-0.0519629
9830.78	-0.0517635
9840.16	-0.0515796
9850.58	-0.051371
9861	-0.0511581
9870.37	-0.0509634
9880.78	-0.0507438
9890.15	-0.0505434
9900.56	-0.050318
9910.97	-0.0500898
9920.34	-0.0498822
9930.75	-0.0496492
9940.12	-0.0494374
9950.53	-0.0492
9960.94	-0.0489604
9970.3	-0.0487429
9980.71	-0.0484992
9990.08	-0.0482781
10000.5	-0.0480304
10010.9	-0.0477807
10020.3	-0.0475541
10030.7	-0.0473005
10040	-0.0470705
10050.5	-0.0468132
10060.9	-0.046554
10070.2	-0.0463193
10080.6	-0.0460568
10090	-0.0463439
10100.4	-0.0461158
10110.8	-0.0458862
10120.2	-0.0456782
10130.6	-0.0454454
10141	-0.0452108
10150.4	-0.044998
10160.8	-0.0447595
10170.2	-0.0445431
10180.6	-0.0443003
10191	-0.0440538
10200.4	-0.0438286
10210.8	-0.0435748
10220.1	-0.0433431
10230.5	-0.0430822
10241	-0.0428175
10250.3	-0.0425761
10260.7	-0.0423043
10270.1	-0.0420565
10280.5	-0.0417776
10290.9	-0.0414705
10300.3	-0.0411413
10310.7	-0.0407753
10320.1	-0.0404457
10330.5	-0.0400792
10340.9	-0.0397122
10350.3	-0.0393816
10360.7	-0.0390137
10370	-0.0386821
10380.4	-0.0383131
10390.9	-0.0379433
10400.2	-0.03761
10410.6	-0.0372388
10420	-0.036904
10430.4	-0.0365313
10440.8	-0.0361576
10450.2	-0.0358214
10460.6	-0.0354494
10471	-0.0350788
10480.4	-0.0347461
10490.8	-0.034377
10500.2	-0.0340452
10510.6	-0.0336767
10521	-0.0333088
10530.3	-0.0329776
10540.7	-0.0326092
10550	-0.0322771
10560.4	-0.0319071
10570.8	-0.0315361
10580.1	-0.0312013
10590.5	-0.0308283
10600.9	-0.0304541
10610.2	-0.0301163
10620.6	-0.0297399
10631	-0.0293623
10640.4	-0.0290214
10650.7	-0.0286416
10660.1	-0.0282988
10670.5	-0.027917
10680.9	-0.0275341
10690.2	-0.0271888
10700.6	-0.0268044
10711	-0.0264192
10720.3	-0.0260722
10730.7	-0.0256863
10740	-0.0253389
10750.4	-0.024954
10760.7	-0.0245702
10770	-0.0242254
10780.3	-0.0238443
10790.7	-0.0234651
10801	-0.0230791
10810.3	-0.0227049
10820.5	-0.0222945
10830.8	-0.0218894
10840.1	-0.0215292
10850.4	-0.0211337
10860.6	-0.0207429
10870.9	-0.0203569
10880.2	-0.0200135
10890.4	-0.0196363
10900.7	-0.0192637
10911	-0.0188955
10920.3	-0.0185679
10930.5	-0.0182079
10940.8	-0.0178521
10950.1	-0.0175353
10960.3	-0.0171871
10970.6	-0.0168427
10980.9	-0.0165019
10990.2	-0.0161984
11000.4	-0.0158644
11010.7	-0.0155342
11021	-0.0152093
11030.2	-0.0149211
11040.5	-0.0146051
11050.8	-0.0142931
11060.1	-0.0140155
11070.3	-0.0137102
11080.6	-0.013408
11090.9	-0.0130816
11100.1	-0.0127947
11110.4	-0.0124893
11120.7	-0.0121957
11131	-0.0119115
11140.2	-0.0116624
11150.5	-0.0113915
11160.8	-0.0111256
11170	-0.0108903
11180.3	-0.0106354
11190.6	-0.0103867
11200.9	-0.0101433
11210.1	-0.00992799
11220.4	-0.00969215
11230.7	-0.00945896
11241	-0.00922754
11250.2	-0.00902008
11260.5	-0.0087898
11270.8	-0.00855914
11280	-0.00835079
11290.3	-0.00811796
11300.6	-0.00788327
11310.9	-0.0076464
11320.1	-0.00743138
11330.4	-0.00719048
11340.7	-0.0069474
11351	-0.00670201
11360.2	-0.00647902
11370.5	-0.0062287
11380.8	-0.00597548
11390	-0.005745
11400.3	-0.00548589
11410.6	-0.00522362
11420.9	-0.00495853
11430.1	-0.00471855
11440.4	-0.00445585
11450.7	-0.00419636
11461	-0.00393829
11470.2	-0.00370596
11480.5	-0.00344657
11490.8	-0.00318485
11500	-0.00294663
11510.3	-0.00265046
11520.6	-0.00222805
11530.9	-0.00179213
11540.1	-0.00139455
11550.4	-0.000951209
11560.7	-0.000508772
11570.9	-6.85243e-05
11580.2	0.000325496
11590.5	0.000760874
11600.8	0.00119284
11610	0.00157795
11620.3	0.00200202
11630.6	0.00242301
11640.8	0.0028421
11650.1	0.00321884
11660.4	0.00364185
11670.7	0.004069
11680.9	0.00449957
11690.2	0.00488988
11700.5	0.00532665
11710.7	0.0061411
11721	0.00716457
11730.3	0.0080191
11740.6	0.00888823
11750.8	0.00967546
11760.1	0.0103192
11770.4	0.0109769
11780.6	0.0116022
11790.9	0.0122014
11800.2	0.0129459
11810.5	0.0137432
11820.7	0.0144375
11831	0.0150937
11840.3	0.0156615
11850.5	0.0164085
11860.8	0.0175147
11870.1	0.0188156
11880.4	0.0215026
11890.6	0.0235481
11901	0.0254141
11910.3	0.0271371
11920.7	0.029204
11931	0.0313604
11940.4	0.0332473
11950.7	0.0353094
11960	0.0372294
11970.4	0.0394442
11980.8	0.041682
11990.1	0.0436788
