0	0
19.6453	0
39.2899	0
58.9345	0
78.5793	0
98.2241	0
117.869	0
137.514	0
157.159	0
176.804	0
196.45	0
216.095	0
235.741	0
255.386	0
275.032	-9.09495e-13
294.678	-2.72848e-12
314.324	-7.27596e-12
332.519	-1.54614e-11
350.714	-2.81943e-11
368.909	-4.72937e-11
387.104	-7.45786e-11
405.298	-1.09139e-10
423.493	-1.50976e-10
441.688	-1.94632e-10
459.883	-2.32831e-10
478.078	-2.51021e-10
496.273	-2.25555e-10
514.468	-1.23691e-10
532.662	1.03682e-10
550.788	5.20231e-10
568.913	1.21236e-09
587.039	2.2892e-09
605.164	3.88809e-09
623.29	6.18002e-09
641.415	9.37325e-09
659.54	1.37197e-08
677.665	1.95223e-08
695.791	2.71439e-08
713.916	3.70164e-08
732.041	4.9653e-08
750.166	6.56619e-08
768.209	8.56689e-08
786.251	1.10365e-07
804.293	1.40362e-07
822.336	1.76292e-07
840.378	2.18837e-07
858.421	2.68758e-07
876.463	3.2669e-07
894.505	3.93206e-07
912.548	4.68866e-07
930.59	5.54261e-07
948.632	6.50042e-07
966.674	7.56959e-07
984.716	8.7588e-07
1002.76	1.00783e-06
1020.8	1.15401e-06
1038.84	1.31583e-06
1056.88	1.49497e-06
1074.93	1.69338e-06
1092.97	1.91334e-06
1111.01	2.15752e-06
1129.05	2.42902e-06
1147.09	2.73144e-06
1165.14	3.06891e-06
1183.18	3.44608e-06
1201.22	3.86817e-06
1219.26	4.34096e-06
1237.3	4.87083e-06
1255.34	5.46474e-06
1273.38	6.13029e-06
1291.43	6.87578e-06
1309.47	7.7102e-06
1327.51	8.64335e-06
1345.55	9.68583e-06
1363.59	1.08492e-05
1381.63	1.21461e-05
1399.67	1.35901e-05
1417.72	1.51962e-05
1435.76	1.69894e-05
1453.8	1.89998e-05
1471.84	2.12484e-05
1489.88	2.37517e-05
1507.92	2.65235e-05
1525.96	2.95761e-05
1544	3.29215e-05
1562.04	3.65723e-05
1580.09	4.05424e-05
1598.13	4.48476e-05
1616.17	4.95063e-05
1634.21	5.45399e-05
1652.25	5.99735e-05
1670.29	6.58362e-05
1688.33	7.21615e-05
1706.37	7.89879e-05
1724.41	8.6359e-05
1742.45	9.43237e-05
1760.5	0.000102936
1778.54	0.000112257
1796.58	0.00012235
1814.62	0.000133265
1832.66	0.000145041
1850.7	0.000157715
1868.74	0.000171322
1886.79	0.000185902
1904.83	0.000201496
1922.87	0.000218151
1940.91	0.000235918
1958.95	0.00025486
1976.99	0.000275045
1995.04	0.000296554
2013.08	0.000319481
2031.12	0.000343932
2049.16	0.000370024
2067.2	0.000397886
2085.24	0.00042766
2103.29	0.000421834
2121.33	0.000419012
2139.37	0.000418805
2157.41	0.000420925
2175.46	0.000425147
2193.5	0.00043131
2211.54	0.0004393
2229.58	0.000449052
2247.63	0.000460537
2265.67	0.000473761
2283.71	0.00048876
2301.42	0.000505285
2319.14	0.000523656
2336.85	0.000543973
2354.56	0.00056635
2372.27	0.000590921
2389.99	0.000617833
2407.7	0.000647247
2425.41	0.000679335
2443.12	0.000714283
2460.84	0.000752331
2478.55	0.000793429
2496.26	0.00083718
2513.97	0.000883362
2531.68	0.000931878
2549.4	0.000982723
2567.11	0.00103596
2584.82	0.00109169
2602.53	0.00115011
2620.24	0.00121145
2637.96	0.001276
2655.67	0.0013441
2673.38	0.00141619
2691.09	0.00149274
2708.81	0.00157425
2726.52	0.0016612
2744.23	0.00175408
2761.94	0.00185335
2779.65	0.0019595
2797.37	0.00220057
2815.08	0.00244197
2832.79	0.00268427
2850.5	0.00292311
2868.21	0.00315768
2885.92	0.00338957
2903.64	0.00362175
2921.35	0.00385791
2939.06	0.00410202
2956.77	0.0043581
2974.48	0.00463021
2992.2	0.00492247
3009.91	0.00523923
3027.62	0.00557286
3045.33	0.00592142
3063.04	0.00628537
3080.75	0.00666704
3098.47	0.00707067
3116.18	0.00750249
3133.89	0.00797057
3151.6	0.00908624
3169.31	0.0101636
3187.02	0.0111503
3204.73	0.01209
3222.45	0.0130453
3240.16	0.0140844
3257.87	0.0152619
3275.58	0.0166145
3293.29	0.0181631
3311	0.0199168
3328.72	0.0218713
3346.43	0.0264653
3364.14	0.0304401
3381.85	0.0342179
3399.56	0.0380151
3417.27	0.0419221
3434.99	0.0459682
3452.7	0.0501598
3470.41	0.0544981
3488.12	0.0589861
3505.83	0.063629
3523.54	0.0684338
3541.26	0.0734073
3558.97	0.0785555
3576.68	0.083876
3594.39	0.0893601
3612.1	0.0950002
3629.82	0.100793
3647.53	0.106741
3665.24	0.112846
3682.95	0.11911
3700.66	0.125534
3718.38	0.132111
3736.09	0.138831
3753.8	0.145681
3771.51	0.152642
3789.22	0.159695
3806.94	0.166815
3824.65	0.17398
3842.36	0.181162
3860.07	0.188336
3877.79	0.195473
3895.5	0.202544
3913.21	0.209518
3930.92	0.216366
3948.63	0.223056
3966.35	0.229556
3984.06	0.235832
4001.77	0.24185
4019.48	0.247574
4037.23	0.252978
4054.97	0.258013
4072.72	0.26264
4090.46	0.266823
4108.21	0.270521
4125.95	0.2737
4143.7	0.276321
4161.44	0.278353
4179.19	0.279761
4196.93	0.280518
4214.68	0.280597
4232.42	0.279975
4250.17	0.278633
4267.92	0.276555
4285.66	0.27373
4303.41	0.27015
4321.15	0.265813
4338.9	0.260717
4356.64	0.254866
4374.39	0.248268
4392.45	0.240799
4410.52	0.232579
4428.59	0.223628
4446.65	0.213968
4464.72	0.203625
4482.78	0.192627
4500.85	0.181004
4518.92	0.168798
4536.98	0.156064
4555.05	0.14287
4573.12	0.129135
4591.18	0.114902
4609.25	0.100291
4627.31	0.085491
4645.38	0.0707169
4663.45	0.0561658
4681.51	0.041992
4699.58	0.0221718
4717.65	0.00682477
4735.71	-0.00699014
4753.78	-0.0192993
4771.85	-0.0303457
4789.91	-0.0404317
4807.98	-0.0496597
4826.05	-0.0580984
4844.11	-0.0658082
4862.18	-0.0553349
4880.25	-0.0599443
4898.31	-0.0656432
4916.38	-0.0704904
4934.45	-0.0771532
4952.51	-0.0826969
4970.58	-0.087504
4988.65	-0.0918039
5006.71	-0.0958864
5024.78	-0.0997952
5042.85	-0.103553
5060.91	-0.107164
5078.98	-0.11045
5097.05	-0.113542
5115.11	-0.116152
5133.31	-0.118483
5151.5	-0.120568
5169.7	-0.122449
5187.89	-0.124157
5206.09	-0.125715
5224.28	-0.127141
5242.48	-0.128448
5260.67	-0.122633
5278.87	-0.123334
5297.06	-0.124686
5315.19	-0.125997
5333.31	-0.127073
5351.44	-0.127894
5369.56	-0.128489
5387.69	-0.128893
5405.81	-0.129133
5423.94	-0.129239
5442.06	-0.129235
5460.11	-0.129141
5478.15	-0.128972
5496.19	-0.128739
5514.23	-0.12845
5532.28	-0.128113
5550.32	-0.127732
5568.36	-0.127311
5586.4	-0.126854
5604.44	-0.126365
5622.49	-0.125844
5640.53	-0.125315
5658.57	-0.124741
5676.61	-0.124178
5694.66	-0.123616
5712.7	-0.123038
5730.74	-0.122431
5748.78	-0.121798
5766.83	-0.121137
5784.87	-0.120449
5802.91	-0.119735
5820.95	-0.118995
5839	-0.118229
5857.04	-0.117438
5875.08	-0.11662
5893.12	-0.115777
5911.17	-0.114908
5929.21	-0.114014
5947.25	-0.113121
5965.29	-0.11223
5983.34	-0.111339
6001.38	-0.110447
6019.42	-0.112076
6037.46	-0.111664
6055.51	-0.111219
6073.55	-0.110572
6091.59	-0.109908
6109.63	-0.109227
6127.67	-0.108527
6145.72	-0.107808
6163.76	-0.107066
6181.8	-0.106296
6199.84	-0.105499
6217.89	-0.104673
6235.93	-0.10382
6253.97	-0.102939
6272.01	-0.10203
6290.06	-0.101093
6308.1	-0.100127
6326.14	-0.0991333
6344.18	-0.0981106
6362.23	-0.0970593
6380.27	-0.0959797
6398.31	-0.094872
6416.35	-0.0937366
6434.4	-0.092573
6452.44	-0.0913843
6470.48	-0.0901765
6488.52	-0.0889536
6506.57	-0.0877187
6524.61	-0.0864739
6542.65	-0.0852203
6560.69	-0.0839586
6578.74	-0.0826889
6596.78	-0.0814107
6614.82	-0.0801236
6632.86	-0.0788265
6650.9	-0.0775184
6668.95	-0.0761981
6686.99	-0.0748645
6705.03	-0.0735165
6723.07	-0.0721536
6741.12	-0.0707752
6759.16	-0.0693811
6777.2	-0.0679711
6795.24	-0.0665456
6813.29	-0.0637592
6831.33	-0.0610368
6849.37	-0.0584073
6867.41	-0.0558788
6885.46	-0.0534466
6903.5	-0.0510983
6921.54	-0.0488208
6939.58	-0.0466005
6957.63	-0.0444237
6975.67	-0.0422787
6993.71	-0.0401553
7011.75	-0.0380451
7029.8	-0.0359418
7047.84	-0.0338405
7065.88	-0.0317378
7083.92	-0.0296319
7101.97	-0.0275214
7120.01	-0.0254335
7138.05	-0.0233798
7156.09	-0.0213642
7174.13	-0.0193848
7192.18	-0.0174362
7210.22	-0.0155112
7228.26	-0.0136023
7246.3	-0.0117022
7264.35	-0.00980544
7282.39	-0.0058854
7300.43	-0.00255937
7318.47	0.000375989
7336.52	0.0029757
7354.56	0.00538689
7372.6	0.00768383
7390.64	0.00991577
7408.69	0.0121164
7426.73	0.0143004
7444.77	0.0164651
7462.81	0.0186002
7480.86	0.0204884
7498.9	0.023277
7516.94	0.0256782
7534.98	0.0279734
7553.03	0.0301519
7571.07	0.0321633
7589.11	0.0339721
7607.15	0.0355981
7625.2	0.0370156
7643.24	0.0382033
7661.28	0.0391481
7678.99	0.0398337
7696.71	0.0402871
7714.42	0.0405189
7732.13	0.0405415
7749.84	0.0403681
7767.55	0.0400153
7785.27	0.0395082
7802.98	0.0388734
7820.69	0.0381362
7838.4	0.0373155
7856.12	0.0364255
7873.83	0.0354788
7891.54	0.0344872
7909.25	0.0334622
7926.96	0.0324147
7944.68	0.0313547
7962.39	0.0302908
7980.1	0.0292298
7997.81	0.0281768
8015.53	0.0271343
8033.24	0.026103
8050.95	0.0250814
8068.66	0.0240663
8086.38	0.0230533
8104.09	0.0220372
8121.8	0.021013
8139.51	0.0199759
8157.22	0.0189223
8174.94	0.0178499
8192.65	0.0167575
8210.36	0.0156211
8228.07	0.0144287
8245.79	0.0131844
8263.5	0.0109684
8281.21	0.00932791
8298.92	0.00791511
8316.63	0.00667511
8334.35	0.00554559
8352.06	0.00447046
8369.77	0.00342733
8387.48	0.00464726
8405.2	0.00388449
8422.91	0.00308552
8440.62	0.00224002
8458.33	0.00181595
8476.05	0.000935247
8493.76	-0.000131689
8511.47	-0.00111163
8529.18	-0.00214704
8546.89	-0.00310937
8564.61	-0.00405586
8582.32	-0.00511296
8600.03	-0.00605089
8617.74	-0.00690032
8635.46	-0.00768098
8653.17	-0.00840508
8670.88	-0.00907986
8688.59	-0.00970937
8706.3	-0.0102527
8724.02	-0.0107355
8741.73	-0.011173
8759.44	-0.00938893
8777.15	-0.00834428
8794.87	-0.00867015
8812.58	-0.00898573
8830.29	-0.00926988
8848	-0.00952468
8865.72	-0.00975209
8883.43	-0.00995403
8901.14	-0.0101105
8918.85	-0.01023
8936.56	-0.0103473
8954.28	-0.0104333
8971.99	-0.0104938
8989.7	-0.0105335
9007.41	-0.0105561
9025.13	-0.0105646
9042.84	-0.0105616
9060.55	-0.0105552
9078.26	-0.010543
9095.97	-0.0105325
9113.69	-0.0105221
9131.4	-0.0105106
9149.11	-0.0104972
9166.82	-0.0104814
9184.54	-0.0104931
9202.25	-0.0104956
9219.96	-0.0104903
9237.67	-0.0104784
9255.39	-0.0104609
9273.1	-0.00819143
9290.81	-0.0102255
9308.52	-0.0101764
9326.23	-0.0101251
9343.95	-0.0100717
9361.66	-0.0100158
9379.37	-0.00995742
9397.08	-0.00989649
9414.8	-0.00983293
9432.51	-0.0097667
9450.22	-0.00969779
9467.93	-0.0096262
9485.65	-0.00955195
9503.36	-0.00947507
9521.07	-0.0093956
9538.78	-0.00931361
9556.49	-0.00923068
9574.21	-0.00914668
9591.92	-0.00906148
9609.63	-0.00897498
9627.34	-0.00888579
9645.06	-0.00879408
9662.77	-0.00870002
9680.48	-0.00860373
9698.19	-0.00850535
9715.91	-0.00840499
9733.62	-0.00830274
9751.33	-0.00819869
9769.04	-0.00809305
9786.76	-0.00798599
9804.47	-0.00787764
9822.18	-0.00776811
9839.89	-0.0076575
9857.6	-0.00754586
9875.32	-0.00743327
9893.03	-0.00731974
9910.74	-0.00720533
9928.45	-0.00709004
9946.17	-0.00697389
9963.91	-0.00685668
9981.66	-0.00673861
9999.4	-0.00661969
10017.1	-0.00649992
10034.9	-0.0063793
10052.6	-0.00625782
10070.4	-0.00613549
10088.1	-0.00601232
10105.9	-0.00588831
10123.6	-0.00573166
10141.4	-0.00557721
10159.1	-0.00542472
10176.9	-0.00527395
10194.6	-0.00512471
10212.3	-0.00497683
10230.1	-0.00483012
10247.8	-0.00468446
10265.6	-0.00453971
10283.3	-0.00439576
10301.1	-0.00425251
10318.8	-0.00410989
10336.6	-0.00396781
10354.3	-0.00382622
10372.1	-0.00368508
10389.8	-0.00354435
10407.5	-0.00340399
10425.3	-0.003264
10443	-0.00312436
10460.8	-0.00298507
10478.5	-0.00284615
10496.3	-0.0027076
10514	-0.00256944
10531.8	-0.00243172
10549.5	-0.00229445
10567.2	-0.00215768
10585	-0.00202146
10603.1	-0.00188338
10621.1	-0.00174597
10639.2	-0.00160928
10657.3	-0.00147339
10675.3	-0.00133835
10693.4	-0.00120423
10711.5	-0.00107111
10729.5	-0.000939067
10747.6	-0.000808196
10765.7	-0.000678597
10783.7	-0.000550372
10801.8	-0.000423622
10819.9	-0.000296327
10837.9	-0.000168988
10856	-4.20593e-05
10874.1	8.38254e-05
10892.1	0.000208265
10910.2	0.000330897
10928.8	0.000454869
10947.4	0.000576257
10966	0.000694763
10984.6	0.000810086
11003.1	0.000921958
11021.7	0.00103014
11040.3	0.00113444
11058.9	0.00123467
11077.5	0.00133067
11096.1	0.00142233
11115.2	0.001512
11134.7	0.00159877
11154.3	0.00168043
11173.8	0.00175692
11193.4	0.00182821
11212.9	0.00189426
11232.5	0.00195506
11252	0.00201063
11271.6	0.00206097
11291.1	0.00210612
11310.7	0.0021461
11330.2	0.00218096
11349.7	0.00221076
11369.3	0.00223556
11388.8	0.00225543
11408.4	0.00227043
11427.9	0.00228066
11447.9	0.00228631
11467.9	0.00228714
11488	0.00228322
11508	0.00227468
11528	0.00226159
11548	0.00224409
11568.1	0.00222227
11588.1	0.00219626
11608.1	0.00216617
11628.2	0.00213196
11648.3	0.00209387
11668.5	0.00205202
11688.6	0.00200655
11708.7	0.00195757
11728.9	0.001905
11749.1	0.00184915
11769.3	0.00179015
11789.5	0.00172811
11809.7	0.00166317
11829.9	0.00159544
11850.1	0.00152506
11870.3	0.00145213
11890.4	0.00137679
11910.6	0.00129913
11930.8	0.00121929
11951	0.00113738
11971.2	0.00105349
11991.4	0.000967744
