THREADS	MTPS	TIMESTEPS	TIMESTEP_SIZE	SECONDS_FOR_SIMULATION	AVERAGE_TRIANGLES	AVERAGE_PARTITIONS
80	55.0872	100	0.000491318	34.5759	1.90469e+07	1158.74
79	55.5582	100	0.000491318	34.2828	1.90469e+07	1158.74
78	53.8566	100	0.000491318	35.366	1.90469e+07	1158.74
77	56.0932	100	0.000491318	33.9558	1.90469e+07	1158.74
76	52.9275	100	0.000491318	35.9868	1.90469e+07	1158.74
75	52.7719	100	0.000491318	36.0929	1.90469e+07	1158.74
74	54.4674	100	0.000491318	34.9694	1.90469e+07	1158.74
73	51.0369	100	0.000491318	37.3199	1.90469e+07	1158.74
72	52.399	100	0.000491318	36.3498	1.90469e+07	1158.74
71	53.8854	100	0.000491318	35.3471	1.90469e+07	1158.74
70	51.0541	100	0.000491318	37.3073	1.90469e+07	1158.74
69	49.3215	100	0.000491318	38.6179	1.90469e+07	1158.74
68	49.0819	100	0.000491318	38.8064	1.90469e+07	1158.74
67	51.8677	100	0.000491318	36.7221	1.90469e+07	1158.74
66	48.1557	100	0.000491318	39.5527	1.90469e+07	1158.74
65	49.2746	100	0.000491318	38.6546	1.90469e+07	1158.74
64	47.4206	100	0.000491318	40.1659	1.90469e+07	1158.74
63	48.9344	100	0.000491318	38.9233	1.90469e+07	1158.74
62	47.887	100	0.000491318	39.7747	1.90469e+07	1158.74
61	44.5603	100	0.000491318	42.7441	1.90469e+07	1158.74
60	46.768	100	0.000491318	40.7264	1.90469e+07	1158.74
59	48.6115	100	0.000491318	39.1819	1.90469e+07	1158.74
58	50.0287	100	0.000491318	38.0719	1.90469e+07	1158.74
57	46.0355	100	0.000491318	41.3744	1.90469e+07	1158.74
56	48.0128	100	0.000491318	39.6705	1.90469e+07	1158.74
55	49.868	100	0.000491318	38.1946	1.90469e+07	1158.74
54	45.4836	100	0.000491318	41.8765	1.90469e+07	1158.74
53	44.4457	100	0.000491318	42.8544	1.90469e+07	1158.74
52	45.5047	100	0.000491318	41.8571	1.90469e+07	1158.74
51	46.2282	100	0.000491318	41.2019	1.90469e+07	1158.74
50	46.4883	100	0.000491318	40.9714	1.90469e+07	1158.74
49	46.841	100	0.000491318	40.6629	1.90469e+07	1158.74
48	47.5008	100	0.000491318	40.0981	1.90469e+07	1158.74
47	49.6029	100	0.000491318	38.3988	1.90469e+07	1158.74
46	50.5284	100	0.000491318	37.6954	1.90469e+07	1158.74
45	49.0328	100	0.000491318	38.8452	1.90469e+07	1158.74
44	50.8999	100	0.000491318	37.4204	1.90469e+07	1158.74
43	50.3366	100	0.000491318	37.8391	1.90469e+07	1158.74
42	53.5361	100	0.000491318	35.5777	1.90469e+07	1158.74
41	53.4761	100	0.000491318	35.6176	1.90469e+07	1158.74
40	54.0634	100	0.000491318	35.2307	1.90469e+07	1158.74
39	54.0378	100	0.000491318	35.2474	1.90469e+07	1158.74
38	53.8882	100	0.000491318	35.3453	1.90469e+07	1158.74
37	53.425	100	0.000491318	35.6517	1.90469e+07	1158.74
36	49.9268	100	0.000491318	38.1497	1.90469e+07	1158.74
35	50.5976	100	0.000491318	37.6439	1.90469e+07	1158.74
34	48.3381	100	0.000491318	39.4035	1.90469e+07	1158.74
33	48.5579	100	0.000491318	39.2252	1.90469e+07	1158.74
32	46.8664	100	0.000491318	40.6408	1.90469e+07	1158.74
31	46.1525	100	0.000491318	41.2695	1.90469e+07	1158.74
30	44.5277	100	0.000491318	42.7754	1.90469e+07	1158.74
29	43.893	100	0.000491318	43.3939	1.90469e+07	1158.74
28	42.4681	100	0.000491318	44.8499	1.90469e+07	1158.74
27	41.3169	100	0.000491318	46.0996	1.90469e+07	1158.74
26	40.5495	100	0.000491318	46.972	1.90469e+07	1158.74
25	39.3798	100	0.000491318	48.3672	1.90469e+07	1158.74
24	38.1505	100	0.000491318	49.9257	1.90469e+07	1158.74
23	36.6957	100	0.000491318	51.905	1.90469e+07	1158.74
22	34.8268	100	0.000491318	54.6904	1.90469e+07	1158.74
21	33.4862	100	0.000491318	56.88	1.90469e+07	1158.74
20	31.9212	100	0.000491318	59.6686	1.90469e+07	1158.74
19	31.1072	100	0.000491318	61.2298	1.90469e+07	1158.74
18	30.0176	100	0.000491318	63.4525	1.90469e+07	1158.74
17	29.2024	100	0.000491318	65.2238	1.90469e+07	1158.74
16	27.579	100	0.000491318	69.0631	1.90469e+07	1158.74
15	26.5651	100	0.000491318	71.699	1.90469e+07	1158.74
14	25.147	100	0.000491318	75.7423	1.90469e+07	1158.74
13	23.4022	100	0.000491318	81.3893	1.90469e+07	1158.74
12	21.602	100	0.000491318	88.1721	1.90469e+07	1158.74
11	20.0589	100	0.000491318	94.9548	1.90469e+07	1158.74
10	18.1905	100	0.000491318	104.708	1.90469e+07	1158.74
9	17.2633	100	0.000491318	110.332	1.90469e+07	1158.74
8	16.1694	100	0.000491318	117.796	1.90469e+07	1158.74
7	14.8895	100	0.000491318	127.922	1.90469e+07	1158.74
6	13.4459	100	0.000491318	141.656	1.90469e+07	1158.74
5	11.7958	100	0.000491318	161.472	1.90469e+07	1158.74
4	9.88829	100	0.000491318	192.621	1.90469e+07	1158.74
3	7.68462	100	0.000491318	247.858	1.90469e+07	1158.74
2	5.2057	100	0.000491318	365.886	1.90469e+07	1158.74
1	2.66104	100	0.000491318	715.771	1.90469e+07	1158.74
