Problem size with different number of CPUs using function optimization
PINNING_CORE	MTPS
0	3.45844
1	3.48821
2	3.42825
3	3.43926
4	3.46017
5	3.45012
6	3.43989
7	3.45913
8	3.45252
9	3.48795
10	3.45906
11	3.46137
12	3.43982
13	3.48638
14	3.45987
15	3.4543
16	3.45931
17	3.48816
18	3.44398
19	3.44188
20	3.44327
21	3.4869
22	3.46092
23	3.45892
24	3.46073
25	3.44942
26	3.45178
27	3.45715
28	3.45808
29	3.45106
30	3.46098
31	3.46057
32	3.45964
33	3.47625
34	3.44538
35	3.4262
36	3.45471
37	3.47559
38	3.4468
39	3.45781
40	3.42413
41	3.45094
42	3.44678
43	3.45256
44	3.46487
45	3.48552
46	3.44188
47	3.4419
48	3.44692
49	3.4763
50	3.44895
51	3.42184
52	3.4228
53	3.48789
54	3.44674
55	3.46269
56	3.4609
57	3.47934
58	3.45933
59	3.42504
60	3.46092
61	3.49162
62	3.45433
63	3.46273
64	3.45933
65	3.48561
66	3.44868
67	3.43867
68	3.42484
69	3.47545
70	3.46086
71	3.46324
72	3.4486
73	3.49086
74	3.44381
75	3.45708
76	3.46108
77	3.45174
78	3.42799
79	3.46009
