0	0
109.03	0
218.061	0
327.091	0
436.122	0
545.152	0
654.182	0
763.212	0
872.242	0
981.271	0
1090.3	0
1199.33	0
1308.35	0
1417.38	0
1526.41	5.12046e-10
1635.43	1.54714e-08
1744.46	1.01481e-07
1853.49	4.43859e-07
1962.52	1.77989e-06
2071.55	6.87575e-06
2180.58	2.40499e-05
2289.61	7.45907e-05
2398.64	0.000205238
2507.67	0.000504289
2616.7	0.00111622
2725.73	0.00224718
2834.76	0.00415399
2943.79	0.00711278
3052.82	0.011369
3161.85	0.0170765
3270.88	0.0242377
3379.91	0.0326587
3488.94	0.0419311
3597.97	0.0514469
3707	0.0604488
3816.03	0.0681086
3925.06	0.0736225
4034.09	0.0763098
4143.12	0.075698
4252.15	0.0715851
4361.18	0.0640667
4470.21	0.0535288
4579.24	0.0406053
4688.27	0.0261099
4797.3	0.0109498
4906.33	-0.00396444
5015.36	-0.0178032
5124.39	-0.0298863
5233.42	-0.0397285
5342.45	-0.0470599
5451.48	-0.0518211
5560.51	-0.0541376
5669.54	-0.054279
5778.57	-0.05261
5887.6	-0.0495408
5996.63	-0.0454818
6105.66	-0.0408089
6214.69	-0.0358392
6323.72	-0.0308195
6432.75	-0.025926
6541.78	-0.0212709
6650.81	-0.0169162
6759.84	-0.0128875
6868.87	-0.00918892
6977.9	-0.00581463
7086.93	-0.002757
7195.96	-1.11542e-05
7304.99	0.00242381
7414.02	0.00454596
7523.05	0.00635298
7632.08	0.0078448
7741.11	0.00902585
7850.15	0.00990626
7959.18	0.010502
8068.21	0.0108339
8177.24	0.0109265
8286.27	0.0108061
8395.3	0.0104994
8504.33	0.0100322
8613.36	0.00942898
8722.39	0.00871266
8831.42	0.00790487
8940.45	0.00702652
9049.48	0.00609812
9158.51	0.00514016
9267.54	0.00417301
9376.57	0.00321662
9485.6	0.00228997
9594.63	0.00141032
9703.66	0.000592465
9812.69	-0.000151888
9921.72	-0.000814551
10030.8	-0.00139102
10139.8	-0.00188039
10248.8	-0.00228495
10357.8	-0.00260975
10466.9	-0.00286193
10575.9	-0.00305012
10684.9	-0.00318383
10794	-0.00327298
10903	-0.00332754
11012	-0.00335716
11121.1	-0.00337104
11230.1	-0.00337772
11339.1	-0.00338498
11448.1	-0.00339971
11557.2	-0.00342777
11666.2	-0.00347389
11775.2	-0.00354156
11884.3	-0.00363293
11993.3	-0.00374877
12102.3	-0.00388849
12211.4	-0.00405021
12320.4	-0.00423087
12429.4	-0.00442645
12538.5	-0.00463211
12647.5	-0.00484251
12756.5	-0.00505198
12865.5	-0.00525476
12974.6	-0.00544523
13083.6	-0.00561807
13192.6	-0.00576844
13301.7	-0.00589205
13410.7	-0.00598532
13519.7	-0.00604543
13628.8	-0.00607038
13737.8	-0.00605902
13846.8	-0.00601107
13955.8	-0.00592713
14064.9	-0.00580861
14173.9	-0.00565771
14282.9	-0.00547732
14392	-0.00527091
14501	-0.00504243
14610	-0.00479615
14719.1	-0.00453654
14828.1	-0.00426812
14937.1	-0.00399534
15046.2	-0.00372246
15155.2	-0.00345343
15264.2	-0.00319185
15373.2	-0.00294087
15482.3	-0.00270319
15591.3	-0.002481
15700.3	-0.00227602
15809.4	-0.00208946
15918.4	-0.00192208
16027.4	-0.0017742
16136.5	-0.00164572
16245.5	-0.00153618
16354.5	-0.00144479
16463.5	-0.00137045
16572.6	-0.00131184
16681.6	-0.00126743
16790.6	-0.00123552
16899.7	-0.0012143
17008.7	-0.00120186
17117.7	-0.00119627
17226.8	-0.00119557
17335.8	-0.0011978
17444.8	-0.00120108
17553.9	-0.00120355
17662.9	-0.00120348
17771.9	-0.0011992
17880.9	-0.00118919
17990	-0.00117204
18099	-0.0011465
18208	-0.00111147
18317.1	-0.00106603
18426.1	-0.00100941
18535.1	-0.000941055
18644.2	-0.000860572
18753.2	-0.000767775
18862.2	-0.000662667
18971.2	-0.000545444
19080.3	-0.00041649
19189.3	-0.00027637
19298.3	-0.000125827
19407.4	3.42355e-05
19516.4	0.000202761
19625.4	0.000378556
19734.5	0.000560305
19843.5	0.000746588
19952.5	0.000935898
