0	0
10.3534	0
20.7068	0
31.0603	0
41.4137	0
51.7671	0
62.1205	0
72.4739	0
82.8273	0
93.1808	0
103.534	0
113.888	0
124.241	0
134.594	0
144.948	0
150.125	0
160.478	0
170.831	0
181.185	0
191.538	0
201.892	0
212.245	0
222.598	0
232.952	0
243.305	0
253.659	0
264.012	0
274.366	0
284.719	0
295.072	0
300.249	0
310.603	0
320.956	0
331.309	0
341.663	0
352.016	0
362.37	0
372.723	0
383.076	0
393.43	0
403.783	0
414.137	0
424.49	0
434.844	0
440.02	0
450.374	0
460.727	0
471.081	0
481.434	0
491.787	0
502.141	0
512.494	0
522.848	0
533.201	0
543.554	0
553.908	0
564.261	0
574.615	0
584.968	0
590.145	0
600.498	0
610.852	0
621.205	0
631.559	0
641.912	0
652.265	0
662.619	0
672.972	0
683.326	0
693.679	0
704.032	0
714.386	0
724.739	0
735.093	0
740.269	0
750.623	0
760.976	0
771.33	0
781.683	0
792.037	0
802.39	0
812.743	0
823.097	0
833.45	0
843.804	0
854.157	0
864.51	1.81899e-12
874.864	3.63798e-12
880.041	6.36646e-12
890.394	2.00089e-11
900.747	6.36646e-11
911.101	1.9736e-10
921.454	5.79348e-10
931.808	1.62254e-09
942.161	4.3392e-09
952.514	1.11004e-08
962.868	2.72184e-08
973.221	6.40675e-08
983.575	1.45003e-07
993.928	3.16024e-07
1004.28	6.64172e-07
1014.63	1.34786e-06
1024.99	2.64467e-06
1030.17	3.65942e-06
1040.52	6.84187e-06
1050.87	1.24049e-05
1061.23	2.18346e-05
1071.58	3.73508e-05
1081.93	6.21588e-05
1092.29	0.000100737
1102.64	0.00015914
1112.99	0.000245295
1123.35	0.000369244
1133.7	0.000543313
1144.05	0.000782139
1154.41	0.00110255
1164.76	0.00152325
1175.11	0.00206432
1180.29	0.00238651
1190.64	0.00314726
1201	0.00408027
1211.35	0.005205
1221.7	0.00653926
1232.06	0.00809891
1242.41	0.009898
1252.76	0.0119494
1263.12	0.0142659
1273.47	0.0168625
1283.82	0.0197586
1294.18	0.0229815
1304.53	0.0265701
1314.88	0.0305791
1320.06	0.032764
1330.41	0.0375527
1340.77	0.0429986
1351.12	0.0492476
1361.47	0.0564803
1371.83	0.0649141
1382.18	0.0748037
1392.53	0.0864403
1402.89	0.100148
1413.24	0.116276
1423.6	0.135195
1433.95	0.157282
1444.3	0.182906
1454.66	0.212419
1465.01	0.246136
1470.19	0.264654
1480.54	0.305144
1490.89	0.350353
1501.25	0.400341
1511.6	0.455064
1521.95	0.514366
1532.31	0.577974
1542.66	0.645499
1553.01	0.716439
1563.37	0.790188
1573.72	0.866044
1584.07	0.943233
1594.43	1.02092
1604.78	1.09822
1615.13	1.17424
1620.31	1.21149
1630.66	1.28393
1641.02	1.35288
1651.37	1.41754
1661.72	1.47715
1672.08	1.53102
1682.43	1.57856
1692.78	1.61922
1703.14	1.65256
1713.49	1.67824
1723.84	1.69598
1734.2	1.70557
1744.55	1.70691
1754.9	1.69992
1760.08	1.69331
1770.43	1.67388
1780.79	1.64624
1791.14	1.61054
1801.49	1.56695
1811.85	1.5157
1822.2	1.45707
1832.56	1.39134
1842.91	1.31887
1853.26	1.24005
1863.62	1.1553
1873.97	1.0651
1884.32	0.969962
1894.68	0.87043
1905.03	0.767103
1910.21	0.714212
1920.56	0.606387
1930.91	0.496408
1941.27	0.384981
1951.62	0.272832
1961.97	0.1607
1972.33	0.0493269
1982.68	-0.0605462
1993.03	-0.168194
2003.39	-0.272913
2013.74	-0.374033
2024.09	-0.47092
2034.45	-0.562989
2044.8	-0.649714
2055.15	-0.730627
2060.33	-0.768777
2070.68	-0.840246
2081.04	-0.905037
2091.39	-0.962935
2101.74	-1.0138
2112.1	-1.05755
2122.45	-1.09422
2132.8	-1.12385
2143.16	-1.14661
2153.51	-1.1627
2163.86	-1.17238
2174.22	-1.17595
2184.57	-1.17377
2194.92	-1.16622
2200.1	-1.16057
2210.45	-1.14575
2220.81	-1.12664
2231.16	-1.10368
2241.52	-1.07732
2251.87	-1.04799
2262.22	-1.01613
2272.58	-0.982151
2282.93	-0.946451
2293.28	-0.909397
2303.64	-0.871333
2313.99	-0.832575
2324.34	-0.793408
2334.7	-0.754093
2345.05	-0.714858
2350.23	-0.695335
2360.58	-0.656594
2370.93	-0.618395
2381.29	-0.580882
2391.64	-0.544178
2401.99	-0.508389
2412.35	-0.473602
2422.7	-0.439894
2433.05	-0.407327
2443.41	-0.375955
2453.76	-0.345821
2464.11	-0.316962
2474.47	-0.289407
2484.82	-0.26318
2495.17	-0.2383
2500.35	-0.226369
2510.7	-0.203532
2521.06	-0.182066
2531.41	-0.161973
2541.76	-0.14325
2552.12	-0.125892
2562.47	-0.109886
2572.82	-0.0952165
2583.18	-0.0818646
2593.53	-0.0698057
2603.88	-0.0590117
2614.24	-0.0494503
2624.59	-0.0410857
2634.94	-0.0338785
2640.12	-0.0306957
2650.47	-0.0251439
2660.83	-0.0206377
2671.18	-0.0171281
2681.54	-0.0145638
2691.89	-0.012892
2702.24	-0.0120585
2712.6	-0.0120084
2722.95	-0.012686
2733.3	-0.0140354
2743.66	-0.0160006
2754.01	-0.018526
2764.36	-0.0215566
2774.72	-0.0250383
2785.07	-0.0289177
2790.25	-0.0309903
2800.6	-0.0353696
2810.95	-0.0400198
2821.31	-0.0448928
2831.66	-0.0499428
2842.01	-0.0551255
2852.37	-0.0603992
2862.72	-0.0657243
2873.07	-0.0710635
2883.43	-0.0763824
2893.78	-0.0816486
2904.13	-0.086833
2914.49	-0.0919087
2924.84	-0.0968518
2930.02	-0.099267
2940.37	-0.103973
2950.72	-0.108498
2961.08	-0.112829
2971.43	-0.116954
2981.78	-0.120864
2992.14	-0.124552
3002.49	-0.128014
3012.84	-0.131248
3023.2	-0.134254
3033.55	-0.137033
3043.9	-0.139589
3054.26	-0.141926
3064.61	-0.144049
3074.96	-0.145965
3080.14	-0.146847
3090.49	-0.148466
3100.85	-0.149896
3111.2	-0.151145
3121.55	-0.15222
3131.91	-0.153128
3142.26	-0.153877
3152.61	-0.154472
3162.97	-0.154918
3173.32	-0.155221
3183.67	-0.155384
3194.03	-0.15541
3204.38	-0.155301
3214.73	-0.155058
3225.09	-0.154682
3230.26	-0.154444
3240.62	-0.153867
3250.97	-0.153156
3261.32	-0.152308
3271.68	-0.151322
3282.03	-0.150195
3292.38	-0.148926
3302.74	-0.147513
3313.09	-0.145953
3323.44	-0.144245
3333.79	-0.142388
3344.15	-0.140383
3354.5	-0.138229
3364.85	-0.135927
3370.03	-0.134721
3380.38	-0.132203
3390.74	-0.129543
3401.09	-0.126748
3411.44	-0.123822
3421.8	-0.120771
3432.15	-0.117603
3442.5	-0.114326
3452.86	-0.110949
3463.21	-0.107481
3473.56	-0.103934
3483.91	-0.100317
3494.27	-0.0966432
3504.62	-0.0929229
3514.97	-0.0891686
3520.15	-0.0872824
3530.5	-0.0834996
3540.86	-0.0797129
3551.21	-0.0759343
3561.56	-0.0721754
3571.92	-0.0684475
3582.27	-0.0647618
3592.62	-0.0611286
3602.97	-0.057558
3613.33	-0.0540594
3623.68	-0.0506417
3634.03	-0.047313
3644.39	-0.0440808
3654.74	-0.040952
3665.09	-0.0379328
3670.27	-0.0364661
3680.62	-0.0336214
3690.97	-0.0308988
3701.33	-0.0283021
3711.68	-0.0258345
3722.03	-0.0234985
3732.39	-0.0212961
3742.74	-0.0192285
3753.09	-0.0172964
3763.44	-0.0155001
3773.8	-0.013839
3784.15	-0.0123121
3794.5	-0.010918
3804.86	-0.00965459
3810.03	-0.00907112
3820.38	-0.00799879
3830.74	-0.00704984
3841.09	-0.00622051
3851.44	-0.00550654
3861.8	-0.00490329
3872.15	-0.00440564
3882.5	-0.00400809
3892.85	-0.00370477
3903.21	-0.00348942
3913.56	-0.00335548
3923.91	-0.00329607
3934.27	-0.00330407
3944.62	-0.00337211
3954.97	-0.00349264
3960.15	-0.0035702
3970.5	-0.00375502
3980.85	-0.00397294
3991.21	-0.00421612
4001.56	-0.00447674
4011.91	-0.00474706
4022.27	-0.00501947
4032.62	-0.00528655
4042.97	-0.00554111
4053.32	-0.00577626
4063.68	-0.00598541
4074.03	-0.00616237
4084.38	-0.00630136
4094.74	-0.00639705
4105.09	-0.00644459
4110.27	-0.00644891
4120.62	-0.0064162
4130.97	-0.00632541
4141.33	-0.00617348
4151.68	-0.00595788
4162.03	-0.0056766
4172.38	-0.00532809
4182.74	-0.00491132
4193.09	-0.00442566
4203.44	-0.00387091
4213.8	-0.00324721
4224.15	-0.00255506
4234.5	-0.00179518
4244.86	-0.00096856
4250.03	-0.000530566
4260.39	0.000394014
4270.74	0.0013823
4281.09	0.00243294
4291.45	0.00354461
4301.8	0.004716
4312.15	0.00594592
4322.51	0.00723327
4332.86	0.00857711
4343.21	0.00997664
4353.57	0.0114313
4363.92	0.0129406
4374.27	0.0145044
4384.63	0.0161226
4394.98	0.0177954
4400.16	0.0186523
4410.51	0.0204074
4420.86	0.0222179
4431.22	0.0240844
4441.57	0.0260072
4451.92	0.027987
4462.28	0.0300241
4472.63	0.0321188
4482.98	0.0342713
4493.34	0.0364815
4503.69	0.0387489
4514.04	0.0410729
4524.4	0.0434523
4534.75	0.0458856
4545.1	0.0483707
4550.28	0.049632
4560.63	0.05219
4570.99	0.0547927
4581.34	0.057436
4591.69	0.0601154
4602.05	0.0628261
4612.4	0.0655622
4622.75	0.0683176
4633.11	0.0710855
4643.46	0.0738588
4653.81	0.0766296
4664.17	0.0793899
4674.52	0.082131
4684.87	0.0848443
4690.05	0.0861876
4700.4	0.0888418
4710.76	0.091445
4721.11	0.0939878
4731.46	0.0964607
4741.82	0.0988544
4752.17	0.10116
4762.52	0.103367
4772.88	0.105469
4783.23	0.107456
4793.58	0.10932
4803.94	0.111054
4814.29	0.112651
4824.64	0.114104
4835	0.115408
4840.17	0.116002
4850.53	0.117072
4860.88	0.117981
4871.23	0.118724
4881.59	0.1193
4891.94	0.119707
4902.3	0.119941
4912.65	0.120004
4923	0.119895
4933.36	0.119614
4943.71	0.119163
4954.06	0.118543
4964.42	0.117757
4974.77	0.116809
4985.12	0.115701
4990.3	0.115089
5000.65	0.11375
5011.01	0.112263
5021.36	0.110633
5031.71	0.108866
5042.07	0.106968
5052.42	0.104945
5062.77	0.102804
5073.13	0.100552
5083.48	0.0981952
5093.83	0.095742
5104.19	0.0931995
5114.54	0.0905754
5124.89	0.0878773
5130.07	0.086503
5140.42	0.0837085
5150.78	0.0808596
5161.13	0.0779641
5171.48	0.0750297
5181.84	0.0720641
5192.19	0.069075
5202.54	0.0660698
5212.9	0.063056
5223.25	0.0600407
5233.6	0.0570309
5243.96	0.0540334
5254.31	0.0510548
5264.66	0.0481013
5275.02	0.0451791
5280.19	0.0437315
5290.55	0.0408667
5300.9	0.0380469
5311.25	0.035277
5321.61	0.0325615
5331.96	0.0299049
5342.31	0.0273109
5352.67	0.024783
5363.02	0.0223245
5373.37	0.019938
5383.73	0.017626
5394.08	0.0153906
5404.43	0.0132333
5414.79	0.0111556
5425.14	0.00915826
5430.32	0.00819001
5440.67	0.00631453
5451.02	0.00452055
5461.38	0.00280795
5471.73	0.00117634
5482.08	-0.000374887
5492.44	-0.00184658
5502.79	-0.00323977
5513.14	-0.00455565
5523.5	-0.00579557
5533.85	-0.00696096
5544.2	-0.00805335
5554.56	-0.00907432
5564.91	-0.0100255
5570.09	-0.0104754
5580.44	-0.0113248
5590.79	-0.0121084
5601.15	-0.0128276
5611.5	-0.0134838
5621.85	-0.0140784
5632.21	-0.0146125
5642.56	-0.0150873
5652.91	-0.0155036
5663.27	-0.0158622
5673.62	-0.0161637
5683.97	-0.0164088
5694.33	-0.0165975
5704.68	-0.0167303
5715.03	-0.016807
5720.21	-0.0168244
5730.57	-0.016817
5740.92	-0.0167533
5751.27	-0.0166329
5761.63	-0.0164555
5771.98	-0.0162206
5782.33	-0.0159278
5792.69	-0.0155765
5803.04	-0.0151665
5813.39	-0.0146972
5823.75	-0.0141684
5834.1	-0.0135798
5844.45	-0.0129313
5854.81	-0.0122229
5865.16	-0.0114547
5870.34	-0.0110483
5880.69	-0.0101911
5891.04	-0.00927524
5901.4	-0.00830156
5911.75	-0.00727104
5922.1	-0.00618489
5932.46	-0.00504457
5942.81	-0.00385172
5953.16	-0.00260822
5963.52	-0.00131619
5973.87	2.20683e-05
5984.22	0.00140404
5994.58	0.00282702
6004.93	0.00428812
6010.11	0.00503201
6020.46	0.0065445
6030.81	0.00808718
6041.17	0.00965666
6051.52	0.0112494
6061.87	0.0128618
6072.23	0.0144903
6082.58	0.016131
6092.93	0.0177802
6103.29	0.0194342
6113.64	0.0210891
6123.99	0.0227413
6134.35	0.024387
6144.7	0.0260225
6155.05	0.0276443
6160.23	0.0284489
6170.58	0.0300435
6180.94	0.0316157
6191.29	0.0331622
6201.64	0.0346799
6212	0.0361657
6222.35	0.0376167
6232.7	0.0390301
6243.06	0.0404032
6253.41	0.0417335
6263.76	0.0430187
6274.12	0.0442565
6284.47	0.0454448
6294.82	0.0465816
6300	0.0471301
6310.35	0.0481864
6320.71	0.0491869
6331.06	0.0501302
6341.41	0.051015
6351.77	0.0518401
6362.12	0.0526045
6372.47	0.0533072
6382.83	0.0539474
6393.18	0.0545246
6403.53	0.0550381
6413.89	0.0554877
6424.24	0.055873
6434.59	0.0561939
6444.95	0.0564505
6450.12	0.0565547
6460.48	0.0567149
6470.83	0.0568113
6481.18	0.0568441
6491.54	0.056814
6501.89	0.0567215
6512.24	0.0565674
6522.6	0.0563524
6532.95	0.0560774
6543.3	0.0557434
6553.66	0.0553515
6564.01	0.0549027
6574.37	0.0543982
6584.72	0.0538394
6595.07	0.0532273
6600.25	0.0529017
6610.6	0.0522124
6620.96	0.0514731
6631.31	0.0506854
6641.66	0.0498505
6652.02	0.0489697
6662.37	0.0480445
6672.72	0.047076
6683.08	0.0460657
6693.43	0.0450147
6703.78	0.0439241
6714.14	0.0427953
6724.49	0.0416291
6734.84	0.0404266
6740.02	0.039812
6750.37	0.0385568
6760.73	0.0372675
6771.08	0.0359449
6781.43	0.0345895
6791.79	0.033202
6802.14	0.0317829
6812.49	0.0303325
6822.85	0.0288513
6833.2	0.0273396
6843.55	0.0257974
6853.91	0.024225
6864.26	0.0226225
6874.61	0.0209899
6884.97	0.0193271
6890.14	0.0184845
6900.5	0.0167765
6910.85	0.0150382
6921.2	0.0132697
6931.56	0.0114707
6941.91	0.00964114
6952.26	0.00778103
6962.62	0.00589028
6972.97	0.00396889
6983.32	0.00201687
6993.68	3.42873e-05
7004.03	-0.00197872
7014.38	-0.00402196
7024.74	-0.00609517
7035.09	-0.00819802
7040.27	-0.00926043
7050.62	-0.0114069
7060.97	-0.0135818
7071.33	-0.0157845
7081.68	-0.0180142
7092.03	-0.0202702
7102.39	-0.0225513
7112.74	-0.0248568
7123.09	-0.0271853
7133.45	-0.0295357
7143.8	-0.0319066
7154.16	-0.0342967
7164.51	-0.0367043
7174.86	-0.0391278
7180.04	-0.040345
7190.39	-0.0427893
7200.75	-0.045245
7211.1	-0.0477104
7221.45	-0.0501833
7231.81	-0.0526618
7242.16	-0.0551436
7252.51	-0.0576266
7262.87	-0.0601086
7273.22	-0.0625871
7283.57	-0.06506
7293.93	-0.0675247
7304.28	-0.0699789
7314.63	-0.0724201
7324.99	-0.0748459
7330.16	-0.0760523
7340.52	-0.0784503
7350.87	-0.0808267
7361.22	-0.083179
7371.58	-0.0855048
7381.93	-0.0878017
7392.28	-0.0900672
7402.64	-0.092299
7412.99	-0.0944948
7423.34	-0.0966523
7433.7	-0.0987694
7444.05	-0.100844
7454.4	-0.102874
7464.76	-0.104857
7475.11	-0.106791
7480.28	-0.10774
7490.64	-0.109598
7500.99	-0.111403
7511.34	-0.113154
7521.7	-0.114849
7532.05	-0.116486
7542.4	-0.118065
7552.76	-0.119584
7563.11	-0.121042
7573.46	-0.122439
7583.82	-0.123773
7594.17	-0.125044
7604.52	-0.126251
7614.88	-0.127393
7620.05	-0.127941
7630.41	-0.128986
7640.76	-0.129967
7651.11	-0.130882
7661.47	-0.131732
7671.82	-0.132517
7682.17	-0.133238
7692.53	-0.133893
7702.88	-0.134484
7713.23	-0.135012
7723.59	-0.135476
7733.94	-0.135877
7744.29	-0.136216
7754.65	-0.136493
7765	-0.13671
7770.18	-0.136795
7780.53	-0.136922
7790.88	-0.13699
7801.24	-0.137
7811.59	-0.136952
7821.94	-0.136849
7832.3	-0.13669
7842.65	-0.136477
7853	-0.136211
7863.36	-0.135892
7873.71	-0.135521
7884.06	-0.135101
7894.42	-0.13463
7904.77	-0.134111
7915.12	-0.133545
7920.3	-0.133244
7930.65	-0.132607
7941.01	-0.131926
7951.36	-0.1312
7961.71	-0.13043
7972.07	-0.129618
7982.42	-0.128764
7992.77	-0.12787
8003.13	-0.126935
8013.48	-0.125961
8023.83	-0.124949
8034.19	-0.1239
8044.54	-0.122814
8054.89	-0.121693
8060.07	-0.121119
8070.42	-0.119945
8080.78	-0.118738
8091.13	-0.117499
8101.48	-0.116227
8111.83	-0.114925
8122.19	-0.113593
8132.54	-0.112233
8142.89	-0.110844
8153.25	-0.109429
8163.6	-0.107988
8173.95	-0.106522
8184.31	-0.105032
8194.66	-0.10352
8205.01	-0.101986
8210.19	-0.101212
8220.54	-0.099648
8230.9	-0.0980656
8241.25	-0.0964658
8251.6	-0.0948497
8261.96	-0.0932184
8272.31	-0.0915731
8282.66	-0.0899148
8293.02	-0.0882448
8303.37	-0.086564
8313.72	-0.0848735
8324.08	-0.0831744
8334.43	-0.0814674
8344.78	-0.0797536
8355.14	-0.0780337
8360.32	-0.0771717
8370.67	-0.0754441
8381.02	-0.0737123
8391.38	-0.0719767
8401.73	-0.070238
8412.08	-0.0684964
8422.44	-0.0667523
8432.79	-0.065006
8443.14	-0.0632575
8453.5	-0.061507
8463.85	-0.0597544
8474.2	-0.0579996
8484.56	-0.0562424
8494.91	-0.0544826
8500.09	-0.0536015
8510.44	-0.0518371
8520.79	-0.050069
8531.15	-0.0482969
8541.5	-0.0465202
8551.85	-0.0447383
8562.21	-0.0429508
8572.56	-0.0411571
8582.91	-0.0393565
8593.27	-0.0375485
8603.62	-0.0357325
8613.97	-0.0339082
8624.33	-0.0320749
8634.68	-0.0302322
8645.03	-0.0283799
8650.21	-0.02745
8660.56	-0.0255826
8670.92	-0.023705
8681.27	-0.0218171
8691.62	-0.019919
8701.98	-0.0180107
8712.33	-0.0160926
8722.68	-0.014165
8733.04	-0.0122284
8743.39	-0.0102833
8753.74	-0.00833069
8764.1	-0.00637121
8774.45	-0.00440591
8784.8	-0.00243584
8795.16	-0.000462226
8800.33	0.000525511
8810.69	0.00250198
8821.04	0.00447853
8831.39	0.00645364
8841.75	0.00842564
8852.1	0.0103928
8862.45	0.0123534
8872.81	0.0143056
8883.16	0.0162474
8893.51	0.0181769
8903.87	0.0200922
8914.22	0.0219913
8924.57	0.0238721
8934.93	0.0257327
8940.1	0.0266547
8950.46	0.0284812
8960.81	0.0302826
8971.17	0.0320568
8981.52	0.033802
8991.87	0.0355164
9002.23	0.0371982
9012.58	0.0388456
9022.93	0.0404571
9033.29	0.042031
9043.64	0.0435659
9053.99	0.0450603
9064.35	0.046513
9074.7	0.0479227
9085.05	0.0492883
9090.23	0.0499542
9100.58	0.0512518
9110.94	0.0525029
9121.29	0.0537067
9131.64	0.0548625
9142	0.0559698
9152.35	0.0570281
9162.7	0.058037
9173.06	0.0589962
9183.41	0.0599055
9193.76	0.0607647
9204.12	0.0615739
9214.47	0.0623329
9224.82	0.0630421
9230	0.063378
9240.35	0.0640126
9250.71	0.0645978
9261.06	0.065134
9271.41	0.0656215
9281.77	0.0660608
9292.12	0.0664524
9302.47	0.0667968
9312.83	0.0670945
9323.18	0.0673461
9333.53	0.0675523
9343.89	0.0677136
9354.24	0.0678307
9364.59	0.0679043
9374.95	0.067935
9380.12	0.0679345
9390.48	0.0679022
9400.83	0.0678287
9411.18	0.0677148
9421.54	0.0675611
9431.89	0.0673684
9442.24	0.0671372
9452.6	0.0668683
9462.95	0.0665623
9473.31	0.06622
9483.66	0.065842
9494.01	0.0654289
9504.37	0.0649815
9514.72	0.0645004
9525.07	0.0639863
9530.25	0.0637171
9540.6	0.0631547
9550.96	0.0625611
9561.31	0.0619368
9571.66	0.0612827
9582.02	0.0605994
9592.37	0.0598878
9602.72	0.0591485
9613.08	0.0583823
9623.43	0.0575902
9633.78	0.056773
9644.14	0.0559314
9654.49	0.0550666
9664.84	0.0541795
9670.02	0.0537278
9680.37	0.052809
9690.73	0.0518705
9701.08	0.0509133
9711.43	0.0499387
9721.79	0.0489478
9732.14	0.0479419
9742.49	0.0469223
9752.85	0.0458903
9763.2	0.0448474
9773.55	0.0437949
9783.91	0.0427345
9794.26	0.0416675
9804.61	0.0405956
9814.97	0.0395203
9820.14	0.0389819
9830.5	0.0379046
9840.85	0.0368281
9851.2	0.0357541
9861.56	0.0346842
9871.91	0.0336203
9882.26	0.032564
9892.62	0.0315171
9902.97	0.0304814
9913.32	0.0294585
9923.68	0.0284503
9934.03	0.0274585
9944.38	0.0264847
9954.74	0.0255306
9965.09	0.0245979
9970.27	0.02414
9980.62	0.0232424
9990.97	0.02237
10001.3	0.0215245
10011.7	0.0207072
10022	0.0199195
10032.4	0.0191628
10042.7	0.0184382
10053.1	0.017747
10063.4	0.0170902
10073.8	0.0164689
10084.2	0.0158839
10094.5	0.0153362
10104.9	0.0148263
10110	0.0145859
10120.4	0.0141341
10130.7	0.0137216
10141.1	0.0133489
10151.5	0.0130161
10161.8	0.0127235
10172.2	0.012471
10182.5	0.0122587
10192.9	0.0120863
10203.2	0.0119535
10213.6	0.01186
10223.9	0.0118053
10234.3	0.0117886
10244.6	0.0118094
10255	0.0118667
10260.2	0.0119088
10270.5	0.0120192
10280.9	0.0121636
10291.2	0.0123408
10301.6	0.0125496
10311.9	0.0127887
10322.3	0.0130565
10332.6	0.0133517
10343	0.0136725
10353.3	0.0140175
10363.7	0.0143849
10374.1	0.0147729
10384.4	0.0151799
10394.8	0.0156041
10405.1	0.0160436
10410.3	0.0162685
10420.6	0.0167276
10431	0.0171975
10441.3	0.0176763
10451.7	0.0181623
10462.1	0.0186537
10472.4	0.0191487
10482.8	0.0196457
10493.1	0.0201428
10503.5	0.0206387
10513.8	0.0211316
10524.2	0.02162
10534.5	0.0221026
10544.9	0.0225779
10550.1	0.0228125
10560.4	0.0232745
10570.8	0.0237262
10581.1	0.0241663
10591.5	0.0245939
10601.8	0.0250081
10612.2	0.0254078
10622.5	0.0257923
10632.9	0.0261608
10643.2	0.0265127
10653.6	0.0268473
10663.9	0.0271642
10674.3	0.0274627
10684.7	0.0277425
10695	0.0280033
10700.2	0.0281264
10710.5	0.0283578
10720.9	0.0285694
10731.2	0.0287609
10741.6	0.0289321
10751.9	0.0290829
10762.3	0.029213
10772.7	0.0293225
10783	0.029411
10793.4	0.0294786
10803.7	0.0295252
10814.1	0.0295506
10824.4	0.0295548
10834.8	0.0295378
10845.1	0.0294994
10850.3	0.0294722
10860.7	0.0294018
10871	0.0293098
10881.4	0.0291963
10891.7	0.0290612
10902.1	0.0289045
10912.4	0.0287261
10922.8	0.028526
10933.1	0.0283043
10943.5	0.0280608
10953.8	0.0277956
10964.2	0.0275088
10974.5	0.0272004
10984.9	0.0268705
10990.1	0.0266976
11000.4	0.0263357
11010.8	0.0259526
11021.1	0.0255487
11031.5	0.0251241
11041.8	0.0246791
11052.2	0.0242141
11062.6	0.0237295
11072.9	0.0232256
11083.3	0.022703
11093.6	0.0221622
11104	0.0216038
11114.3	0.0210285
11124.7	0.0204368
11135	0.0198296
11140.2	0.0195205
11150.6	0.0188915
11160.9	0.018249
11171.3	0.017594
11181.6	0.0169273
11192	0.01625
11202.3	0.015563
11212.7	0.0148674
11223	0.0141642
11233.4	0.0134546
11243.7	0.0127396
11254.1	0.0120204
11264.4	0.011298
11274.8	0.0105735
11285.1	0.00984802
11290.3	0.00948526
11300.7	0.00876034
11311	0.0080371
11321.4	0.00731654
11331.7	0.00659964
11342.1	0.00588732
11352.4	0.00518049
11362.8	0.00447996
11373.2	0.00378651
11383.5	0.00310086
11393.9	0.00242366
11404.2	0.00175548
11414.6	0.00109684
11424.9	0.000448171
11430.1	0.00012769
11440.4	-0.000505377
11450.8	-0.00112772
11461.2	-0.00173917
11471.5	-0.00233965
11481.9	-0.00292914
11492.2	-0.0035077
11502.6	-0.00407547
11512.9	-0.00463265
11523.3	-0.00517951
11533.6	-0.00571637
11544	-0.00624364
11554.3	-0.00676174
11564.7	-0.00727116
11575	-0.00777244
11580.2	-0.00802019
11590.6	-0.0085103
11600.9	-0.0089937
11611.3	-0.00947102
11621.6	-0.00994289
11632	-0.0104099
11642.3	-0.0108728
11652.7	-0.011332
11663	-0.0117883
11673.4	-0.0122422
11683.8	-0.0126942
11694.1	-0.0131448
11704.5	-0.0135945
11714.8	-0.0140438
11725.2	-0.0144929
11730.3	-0.0147175
11740.7	-0.0151671
11751.1	-0.0156171
11761.4	-0.0160679
11771.8	-0.0165194
11782.1	-0.0169717
11792.5	-0.0174247
11802.8	-0.0178783
11813.2	-0.0183323
11823.5	-0.0187865
11833.9	-0.0192404
11844.2	-0.0196938
11854.6	-0.0201462
11864.9	-0.020597
11870.1	-0.0208216
11880.5	-0.021269
11890.8	-0.0217134
11901.2	-0.022154
11911.5	-0.0225901
11921.9	-0.0230211
11932.2	-0.0234461
11942.6	-0.0238644
11952.9	-0.0242752
11963.3	-0.0246776
11973.6	-0.025071
11984	-0.0254544
11994.4	-0.0258273
12004.7	-0.0261888
12015.1	-0.0265382
12020.2	-0.0267082
12030.6	-0.0270383
12040.9	-0.0273549
12051.3	-0.0276572
12061.7	-0.027945
12072	-0.0282178
12082.4	-0.0284752
12092.7	-0.028717
12103.1	-0.0289431
12113.4	-0.0291532
12123.8	-0.0293473
12134.1	-0.0295257
12144.5	-0.0296883
12154.8	-0.0298354
12160	-0.0299032
12170.4	-0.0300277
12180.7	-0.0301376
12191.1	-0.0302336
12201.4	-0.0303162
12211.8	-0.030386
12222.1	-0.0304439
12232.5	-0.0304907
12242.8	-0.0305274
12253.2	-0.0305548
12263.5	-0.030574
12273.9	-0.0305861
12284.2	-0.0305922
12294.6	-0.0305936
12305	-0.0305914
12310.1	-0.0305893
12320.5	-0.0305841
12330.8	-0.0305785
12341.2	-0.0305738
12351.5	-0.0305713
12361.9	-0.0305724
12372.3	-0.0305782
12382.6	-0.0305902
12393	-0.0306096
12403.3	-0.0306378
12413.7	-0.0306758
12424	-0.0307249
12434.4	-0.0307864
12444.7	-0.0308612
12455.1	-0.0309505
12460.3	-0.0310009
12470.6	-0.0311138
12481	-0.0312435
12491.3	-0.0313909
12501.7	-0.0315569
12512	-0.0317421
12522.4	-0.031947
12532.7	-0.0321724
12543.1	-0.0324186
12553.4	-0.0326859
12563.8	-0.0329748
12574.1	-0.0332853
12584.5	-0.0336177
12594.8	-0.0339718
12600	-0.034157
12610.4	-0.0345437
12620.7	-0.0349518
12631.1	-0.035381
12641.4	-0.035831
12651.8	-0.0363012
12662.1	-0.0367911
12672.5	-0.0373
12682.9	-0.0378272
12693.2	-0.0383718
12703.6	-0.0389331
12713.9	-0.03951
12724.3	-0.0401014
12734.6	-0.0407064
12745	-0.0413237
12750.1	-0.0416366
12760.5	-0.0422702
12770.9	-0.042913
12781.2	-0.0435637
12791.6	-0.0442211
12801.9	-0.0448836
12812.3	-0.04555
12822.6	-0.0462188
12833	-0.0468885
12843.3	-0.0475577
12853.7	-0.0482251
12864	-0.0488891
12874.4	-0.0495484
12884.7	-0.0502015
12895.1	-0.0508471
12900.3	-0.0511667
12910.6	-0.0517986
12921	-0.0524197
12931.3	-0.0530289
12941.7	-0.0536248
12952	-0.0542065
12962.4	-0.0547728
12972.7	-0.0553227
12983.1	-0.0558553
12993.5	-0.0563697
13003.8	-0.0568651
13014.2	-0.0573409
13024.5	-0.0577963
13034.9	-0.0582309
13040	-0.0584402
13050.4	-0.0588426
13060.8	-0.059223
13071.1	-0.0595814
13081.5	-0.0599173
13091.8	-0.0602309
13102.2	-0.0605219
13112.5	-0.0607906
13122.9	-0.061037
13133.2	-0.0612614
13143.6	-0.061464
13153.9	-0.0616453
13164.3	-0.0618056
13174.6	-0.0619455
13185	-0.0620654
13190.2	-0.0621181
13200.5	-0.0622094
13210.9	-0.0622823
13221.2	-0.0623377
13231.6	-0.0623762
13241.9	-0.0623987
13252.3	-0.0624059
13262.6	-0.0623988
13273	-0.0623781
13283.3	-0.0623447
13293.7	-0.0622995
13304.1	-0.0622433
13314.4	-0.0621769
13324.8	-0.0621012
13335.1	-0.062017
13340.3	-0.061972
13350.6	-0.0618765
13361	-0.0617744
13371.4	-0.0616664
13381.7	-0.0615531
13392.1	-0.0614353
13402.4	-0.0613134
13412.8	-0.0611879
13423.1	-0.0610594
13433.5	-0.0609282
13443.8	-0.0607947
13454.2	-0.0606591
13464.5	-0.0605217
13474.9	-0.0603827
13480.1	-0.0603126
13490.4	-0.0601713
13500.8	-0.0600285
13511.1	-0.0598841
13521.5	-0.059738
13531.8	-0.0595901
13542.2	-0.0594401
13552.5	-0.0592878
13562.9	-0.0591327
13573.2	-0.0589746
13583.6	-0.0588131
13594	-0.0586475
13604.3	-0.0584775
13614.7	-0.0583025
13625	-0.058122
13630.2	-0.0580294
13640.5	-0.0578394
13650.9	-0.0576424
13661.2	-0.0574376
13671.6	-0.0572246
13682	-0.0570025
13692.3	-0.0567709
13702.7	-0.056529
13713	-0.0562762
13723.4	-0.056012
13733.7	-0.0557356
13744.1	-0.0554467
13754.4	-0.0551445
13764.8	-0.0548287
13775.1	-0.0544986
13780.3	-0.0543282
13790.7	-0.053976
13801	-0.0536086
13811.4	-0.0532256
13821.7	-0.0528267
13832.1	-0.0524117
13842.4	-0.0519802
13852.8	-0.0515322
13863.1	-0.0510676
13873.5	-0.0505861
13883.8	-0.0500879
13894.2	-0.0495729
13904.6	-0.0490412
13914.9	-0.0484928
13920.1	-0.0482125
13930.4	-0.0476395
13940.8	-0.0470504
13951.1	-0.0464454
13961.5	-0.0458247
13971.9	-0.0451888
13982.2	-0.044538
13992.6	-0.0438726
14002.9	-0.0431931
14013.3	-0.0425
14023.6	-0.0417937
14034	-0.0410748
14044.3	-0.0403437
14054.7	-0.039601
14065	-0.0388472
14070.2	-0.0384664
14080.6	-0.0376972
14090.9	-0.0369183
14101.3	-0.0361305
14111.6	-0.0353342
14122	-0.0345302
14132.3	-0.033719
14142.7	-0.0329012
14153	-0.0320775
14163.4	-0.0312484
14173.7	-0.0304146
14184.1	-0.0295766
14194.4	-0.0287351
14204.8	-0.0278907
14215.2	-0.027044
14220.3	-0.0266199
14230.7	-0.0257708
14241	-0.0249208
14251.4	-0.0240704
14261.7	-0.0232204
14272.1	-0.0223711
14282.5	-0.0215232
14292.8	-0.0206772
14303.2	-0.0198337
14313.5	-0.0189932
14323.9	-0.0181561
14334.2	-0.0173231
14344.6	-0.0164946
14354.9	-0.0156712
14360.1	-0.0152615
14370.5	-0.0144466
14380.8	-0.013638
14391.2	-0.0128361
14401.5	-0.0120415
14411.9	-0.0112546
14422.2	-0.0104759
14432.6	-0.00970583
14442.9	-0.00894483
14453.3	-0.00819335
14463.6	-0.0074518
14474	-0.00672061
14484.3	-0.00600018
14494.7	-0.00529089
14505.1	-0.00459311
14510.2	-0.00424866
14520.6	-0.00356882
14530.9	-0.00290137
14541.3	-0.00224661
14551.6	-0.00160485
14562	-0.000976346
14572.3	-0.000361368
14582.7	0.000239858
14593.1	0.000827123
14603.4	0.00140024
14613.8	0.00195905
14624.1	0.00250342
14634.5	0.00303324
14644.8	0.00354842
14655.2	0.00404891
14660.4	0.00429364
14670.7	0.00477204
14681.1	0.00523572
14691.4	0.00568471
14701.8	0.00611908
14712.1	0.0065389
14722.5	0.00694429
14732.8	0.00733537
14743.2	0.00771231
14753.5	0.00807528
14763.9	0.00842447
14774.2	0.00876012
14784.6	0.00908244
14794.9	0.0093917
14800.1	0.00954151
14810.5	0.00983168
14820.8	0.0101095
14831.2	0.0103752
14841.5	0.0106292
14851.9	0.0108718
14862.2	0.0111032
14872.6	0.011324
14883	0.0115343
14893.3	0.0117345
14903.7	0.011925
14914	0.0121062
14924.4	0.0122783
14934.7	0.0124418
14945.1	0.012597
14950.2	0.0126716
14960.6	0.012815
14971	0.012951
14981.3	0.0130799
14991.7	0.013202
15002	0.0133177
15012.4	0.0134273
15022.7	0.0135311
15033.1	0.0136294
15043.4	0.0137225
15053.8	0.0138108
15064.1	0.0138945
15074.5	0.0139738
15084.8	0.0140491
15090	0.0140854
15100.4	0.0141551
15110.7	0.0142214
15121.1	0.0142846
15131.4	0.0143448
15141.8	0.0144024
15152.1	0.0144574
15162.5	0.0145101
15172.8	0.0145608
15183.2	0.0146095
15193.6	0.0146566
15203.9	0.014702
15214.3	0.0147461
15224.6	0.0147889
15235	0.0148307
15240.1	0.0148512
15250.5	0.0148916
15260.9	0.0149311
15271.2	0.0149701
15281.6	0.0150084
15291.9	0.0150464
15302.3	0.0150839
15312.6	0.0151212
15323	0.0151582
15333.3	0.0151951
15343.7	0.0152319
15354	0.0152686
15364.4	0.0153053
15374.7	0.0153421
15385.1	0.0153788
15390.3	0.0153972
15400.6	0.015434
15411	0.0154708
15421.3	0.0155077
15431.7	0.0155446
15442	0.0155815
15452.4	0.0156184
15462.7	0.0156552
15473.1	0.0156919
15483.4	0.0157284
15493.8	0.0157648
15504.2	0.0158009
15514.5	0.0158367
15524.9	0.015872
15530	0.0158896
15540.4	0.0159242
15550.7	0.0159583
15561.1	0.0159918
15571.5	0.0160245
15581.8	0.0160564
15592.2	0.0160874
15602.5	0.0161174
15612.9	0.0161464
15623.2	0.0161742
15633.6	0.0162007
15643.9	0.016226
15654.3	0.0162498
15664.6	0.0162722
15675	0.0162931
15680.2	0.0163029
15690.5	0.0163213
15700.9	0.0163381
15711.2	0.0163532
15721.6	0.0163665
15731.9	0.0163781
15742.3	0.0163879
15752.6	0.0163959
15763	0.0164021
15773.3	0.0164066
15783.7	0.0164094
15794	0.0164105
15804.4	0.01641
15814.8	0.0164079
15825.1	0.0164045
15830.3	0.0164022
15840.6	0.0163968
15851	0.0163903
15861.3	0.0163828
15871.7	0.0163744
15882.1	0.0163654
15892.4	0.0163558
15902.8	0.0163461
15913.1	0.0163362
15923.5	0.0163265
15933.8	0.0163172
15944.2	0.0163085
15954.5	0.0163007
15964.9	0.016294
15970.1	0.0162911
15980.4	0.0162866
15990.8	0.0162839
16001.1	0.0162832
16011.5	0.0162849
16021.8	0.0162892
16032.2	0.0162963
16042.5	0.0163065
16052.9	0.0163201
16063.2	0.0163374
16073.6	0.0163585
16083.9	0.0163837
16094.3	0.0164133
16104.7	0.0164473
16115	0.0164861
16120.2	0.0165073
16130.5	0.0165535
16140.9	0.0166049
16151.2	0.0166615
16161.6	0.0167235
16171.9	0.0167909
16182.3	0.0168639
16192.7	0.0169426
16203	0.0170268
16213.4	0.0171167
16223.7	0.0172122
16234.1	0.0173133
16244.4	0.0174199
16254.8	0.0175319
16265.1	0.0176492
16270.3	0.0177098
16280.7	0.0178347
16291	0.0179646
16301.4	0.0180991
16311.7	0.0182381
16322.1	0.0183813
16332.4	0.0185284
16342.8	0.0186791
16353.1	0.0188331
16363.5	0.0189899
16373.8	0.0191493
16384.2	0.0193108
16394.5	0.019474
16404.9	0.0196384
16410.1	0.0197209
16420.4	0.0198862
16430.8	0.0200515
16441.1	0.0202162
16451.5	0.0203798
16461.8	0.0205416
16472.2	0.0207012
16482.6	0.0208578
16492.9	0.0210108
16503.3	0.0211595
16513.6	0.0213033
16524	0.0214415
16534.3	0.0215734
16544.7	0.0216982
16555	0.0218153
16560.2	0.0218707
16570.6	0.0219749
16580.9	0.0220695
16591.3	0.022154
16601.6	0.0222276
16612	0.0222898
16622.3	0.0223398
16632.7	0.0223773
16643	0.0224016
16653.4	0.0224123
16663.7	0.022409
16674.1	0.0223914
16684.4	0.0223592
16694.8	0.0223123
16705.1	0.0222507
16710.3	0.0222143
16720.7	0.0221305
16731	0.0220322
16741.4	0.0219197
16751.7	0.0217932
16762.1	0.0216534
16772.4	0.0215007
16782.8	0.021336
16793.2	0.0211598
16803.5	0.0209732
16813.9	0.020777
16824.2	0.0205724
16834.6	0.0203603
16844.9	0.0201419
16850.1	0.0200307
16860.5	0.019805
16870.8	0.0195761
16881.2	0.019345
16891.5	0.019113
16901.9	0.0188813
16912.2	0.0186511
16922.6	0.0184234
16932.9	0.0181993
16943.3	0.0179797
16953.6	0.0177656
16964	0.0175577
16974.3	0.0173568
16984.7	0.0171633
16995	0.0169778
17000.2	0.0168882
17010.6	0.0167153
17020.9	0.016551
17031.3	0.0163953
17041.6	0.0162483
17052	0.0161096
17062.3	0.015979
17072.7	0.015856
17083	0.0157401
17093.4	0.0156306
17103.8	0.0155269
17114.1	0.015428
17124.5	0.015333
17134.8	0.015241
17145.2	0.0151509
17150.3	0.0151062
17160.7	0.0150167
17171.1	0.0149261
17181.4	0.0148331
17191.8	0.0147363
17202.1	0.0146344
17212.5	0.0145259
17222.8	0.0144094
17233.2	0.0142833
17243.5	0.0141461
17253.9	0.0139961
17264.2	0.0138319
17274.6	0.0136516
17284.9	0.0134537
17290.1	0.0133476
17300.5	0.01312
17310.8	0.0128705
17321.2	0.0125972
17331.5	0.0122984
17341.9	0.0119723
17352.2	0.0116171
17362.6	0.0112311
17372.9	0.0108125
17383.3	0.0103594
17393.7	0.00987014
17404	0.00934304
17414.4	0.0087764
17424.7	0.0081686
17435.1	0.00751809
17440.2	0.00717635
17450.6	0.00645902
17460.9	0.00569544
17471.3	0.00488437
17481.7	0.00402467
17492	0.00311534
17502.4	0.00215552
17512.7	0.00114449
17523.1	8.16836e-05
17533.4	-0.00103327
17543.8	-0.0022006
17554.1	-0.0034203
17564.5	-0.00469223
17574.8	-0.00601599
17580	-0.00669713
17590.4	-0.00809749
17600.7	-0.00954785
17611.1	-0.0110471
17621.4	-0.0125939
17631.8	-0.0141866
17642.1	-0.0158236
17652.5	-0.0175029
17662.8	-0.0192222
17673.2	-0.0209793
17683.5	-0.0227714
17693.9	-0.0245957
17704.3	-0.0264494
17714.6	-0.0283293
17725	-0.030232
17730.1	-0.0311908
17740.5	-0.0331212
17750.8	-0.0350654
17761.2	-0.0370196
17771.6	-0.0389799
17781.9	-0.0409422
17792.3	-0.0429023
17802.6	-0.044856
17813	-0.0467991
17823.3	-0.048727
17833.7	-0.0506355
17844	-0.0525202
17854.4	-0.0543765
17864.7	-0.0562
17875.1	-0.0579864
17880.3	-0.0588643
17890.6	-0.0605868
17901	-0.0622612
17911.3	-0.0638834
17921.7	-0.0654491
17932	-0.0669543
17942.4	-0.068395
17952.7	-0.0697674
17963.1	-0.0710677
17973.4	-0.0722923
17983.8	-0.073438
17994.1	-0.0745013
18004.5	-0.0754792
18014.9	-0.0763688
18020	-0.0767797
18030.4	-0.0775319
18040.7	-0.0781895
18051.1	-0.0787503
18061.4	-0.0792124
18071.8	-0.0795741
18082.2	-0.0798339
18092.5	-0.0799906
18102.9	-0.0800432
18113.2	-0.0799911
18123.6	-0.0798337
18133.9	-0.079571
18144.3	-0.079203
18154.6	-0.0787299
18165	-0.0781525
18170.2	-0.0778249
18180.5	-0.0770925
18190.9	-0.0762584
18201.2	-0.0753239
18211.6	-0.0742908
18221.9	-0.0731611
18232.3	-0.071937
18242.6	-0.0706208
18253	-0.0692152
18263.3	-0.067723
18273.7	-0.0661472
18284	-0.0644911
18294.4	-0.0627579
18304.8	-0.0609513
18315.1	-0.0590748
18320.3	-0.0581116
18330.6	-0.0561375
18341	-0.0541034
18351.3	-0.0520131
18361.7	-0.049871
18372	-0.0476811
18382.4	-0.0454478
18392.8	-0.0431754
18403.1	-0.0408681
18413.5	-0.0385304
18423.8	-0.0361665
18434.2	-0.0337808
18444.5	-0.0313775
18454.9	-0.0289609
18460.1	-0.0277489
18470.4	-0.0253202
18480.8	-0.0228885
18491.1	-0.0204579
18501.5	-0.0180323
18511.8	-0.0156154
18522.2	-0.013211
18532.5	-0.0108227
18542.9	-0.00845391
18553.2	-0.00610794
18563.6	-0.00378799
18573.9	-0.00149709
18584.3	0.000761856
18594.6	0.00298612
18605	0.00517314
18610.2	0.00625191
18620.5	0.00837856
18630.9	0.0104622
18641.2	0.0125009
18651.6	0.0144927
18661.9	0.016436
18672.3	0.0183292
18682.7	0.0201711
18693	0.0219604
18703.4	0.0236961
18713.7	0.0253774
18724.1	0.0270034
18734.4	0.0285737
18744.8	0.0300879
18755.1	0.0315456
18760.3	0.0322533
18770.7	0.0336262
18781	0.0349426
18791.4	0.0362027
18801.7	0.0374069
18812.1	0.0385557
18822.4	0.0396494
18832.8	0.040689
18843.1	0.0416751
18853.5	0.0426085
18863.8	0.0434904
18874.2	0.0443217
18884.5	0.0451036
18894.9	0.0458373
18900.1	0.0461865
18910.4	0.0468502
18920.8	0.0474691
18931.1	0.0480446
18941.5	0.048578
18951.8	0.0490708
18962.2	0.0495248
18972.5	0.0499413
18982.9	0.050322
18993.3	0.0506684
19003.6	0.0509822
19014	0.051265
19024.3	0.0515183
19034.7	0.0517438
19045	0.051943
19050.2	0.0520332
19060.5	0.0521958
19070.9	0.052336
19081.3	0.0524551
19091.6	0.0525546
19102	0.052636
19112.3	0.0527004
19122.7	0.0527493
19133	0.0527838
19143.4	0.0528051
19153.7	0.0528143
19164.1	0.0528125
19174.4	0.0528007
19184.8	0.0527798
19195.1	0.0527506
19200.3	0.0527331
19210.7	0.0526931
19221	0.0526466
19231.4	0.0525944
19241.7	0.0525369
19252.1	0.0524748
19262.4	0.0524084
19272.8	0.0523382
19283.1	0.0522644
19293.5	0.0521872
19303.9	0.052107
19314.2	0.0520237
19324.6	0.0519376
19334.9	0.0518486
19340.1	0.051803
19350.4	0.0517097
19360.8	0.0516134
19371.2	0.0515141
19381.5	0.0514115
19391.9	0.0513054
19402.2	0.0511957
19412.6	0.0510821
19422.9	0.0509642
19433.3	0.0508418
19443.6	0.0507146
19454	0.0505821
19464.3	0.050444
19474.7	0.0503
19485	0.0501495
19490.2	0.0500718
19500.6	0.049911
19510.9	0.0497429
19521.3	0.0495669
19531.6	0.0493827
19542	0.0491898
19552.3	0.0489879
19562.7	0.0487765
19573	0.0485553
19583.4	0.0483238
19593.7	0.0480817
19604.1	0.0478287
19614.5	0.0475643
19624.8	0.0472883
19635.2	0.0470004
19640.3	0.0468519
19650.7	0.0465455
19661	0.0462266
19671.4	0.0458948
19681.8	0.04555
19692.1	0.045192
19702.5	0.0448207
19712.8	0.0444359
19723.2	0.0440375
19733.5	0.0436255
19743.9	0.0431998
19754.2	0.0427603
19764.6	0.0423072
19774.9	0.0418405
19780.1	0.041602
19790.5	0.0411149
19800.8	0.0406144
19811.2	0.0401005
19821.5	0.0395735
19831.9	0.0390335
19842.2	0.0384808
19852.6	0.0379156
19862.9	0.0373381
19873.3	0.0367487
19883.6	0.0361476
19894	0.0355351
19904.4	0.0349117
19914.7	0.0342777
19925.1	0.0336335
19930.2	0.0333077
19940.6	0.0326489
19950.9	0.0319811
19961.3	0.0313046
19971.6	0.0306199
19982	0.0299276
19992.4	0.0292282
