0	0
75.9842	0
151.968	0
227.953	0
303.937	0
379.921	0
455.905	0
531.889	0
607.874	0
683.858	0
759.842	0
835.826	0
911.81	0
987.794	0
1063.78	0
1139.76	0
1215.75	0
1291.73	0
1367.72	0
1443.7	0
1519.68	0
1595.67	0
1671.65	-2.07365e-10
1747.63	-2.82034e-09
1823.62	-2.01035e-08
1899.6	-9.86211e-08
1975.58	-3.73051e-07
2051.56	-1.15767e-06
2127.55	-3.06121e-06
2203.53	-7.06666e-06
2279.51	-1.44568e-05
2355.49	-2.6408e-05
2431.48	-4.30511e-05
2507.46	-6.18351e-05
2583.44	-7.51479e-05
2659.42	-6.73298e-05
2735.41	-1.14245e-05
2811.39	0.000133797
2887.37	0.0004259
2963.36	0.000939281
3039.34	0.00176358
3115.32	0.00299966
3191.31	0.00475328
3267.29	0.00712656
3343.27	0.0102082
3419.26	0.0140631
3495.24	0.0187225
3571.23	0.0241761
3647.21	0.0303663
3723.2	0.037186
3799.18	0.0444799
3875.16	0.0520501
3951.15	0.059664
4027.13	0.0670658
4103.12	0.0739895
4179.1	0.0801729
4255.08	0.0853711
4331.07	0.0893691
4407.05	0.0919928
4483.04	0.0931172
4559.02	0.0926711
4635	0.0906405
4710.99	0.0870667
4786.97	0.0820439
4862.96	0.0757125
4938.94	0.0682519
5014.92	0.059871
5090.91	0.0507986
5166.89	0.0412727
5242.88	0.0315313
5318.86	0.0218029
5394.85	0.0122989
5470.83	0.00320694
5546.81	-0.00531362
5622.8	-0.0131348
5698.78	-0.0201611
5774.77	-0.0263297
5850.75	-0.0316085
5926.73	-0.0359932
6002.72	-0.0395044
6078.7	-0.042183
6154.69	-0.0440861
6230.67	-0.0452826
6306.65	-0.0458494
6382.64	-0.0458672
6458.62	-0.0454175
6534.61	-0.0445796
6610.59	-0.0434287
6686.57	-0.042034
6762.56	-0.0404571
6838.54	-0.0387522
6914.53	-0.0369647
6990.51	-0.0351322
7066.49	-0.0332839
7142.48	-0.0314421
7218.46	-0.029622
7294.44	-0.0278333
7370.43	-0.0260808
7446.41	-0.0243653
7522.4	-0.0226849
7598.38	-0.0210353
7674.36	-0.0194114
7750.35	-0.0178072
7826.33	-0.0162173
7902.32	-0.0146364
7978.3	-0.0130606
8054.28	-0.0114872
8130.27	-0.0099148
8206.25	-0.00834386
8282.23	-0.00677629
8358.22	-0.0052156
8434.2	-0.00366679
8510.19	-0.0021362
8586.17	-0.000631374
8662.15	0.000839169
8738.14	0.00226613
8814.12	0.00363968
8890.11	0.00494968
8966.09	0.00618592
9042.08	0.00733838
9118.06	0.00839743
9194.04	0.00935409
9270.03	0.0102001
9346.01	0.0109284
9422	0.0115328
9497.98	0.0120085
9573.96	0.012352
9649.95	0.0125615
9725.93	0.0126362
9801.92	0.0125773
9877.9	0.0123872
9953.89	0.0120697
10029.9	0.0116303
10105.9	0.0110756
10181.8	0.0104137
10257.8	0.00965339
10333.8	0.00880488
10409.8	0.00787901
10485.8	0.00688733
10561.8	0.00584189
10637.7	0.00475507
10713.7	0.00363943
10789.7	0.00250747
10865.7	0.00137152
10941.7	0.000243554
11017.7	-0.00086497
11093.6	-0.00194324
11169.6	-0.00298122
11245.6	-0.00396978
11321.6	-0.00490075
11397.6	-0.00576706
11473.6	-0.00656276
11549.6	-0.00728306
11625.5	-0.00792441
11701.5	-0.00848442
11777.5	-0.00896195
11853.5	-0.009357
11929.5	-0.00967071
12005.5	-0.00990528
12081.4	-0.0100639
12157.4	-0.0101507
12233.4	-0.0101705
12309.4	-0.0101289
12385.4	-0.010032
12461.4	-0.0098865
12537.3	-0.00969923
12613.3	-0.00947728
12689.3	-0.00922777
12765.3	-0.00895775
12841.3	-0.00867406
12917.3	-0.00838323
12993.3	-0.00809135
13069.2	-0.00780399
13145.2	-0.00752613
13221.2	-0.00726203
13297.2	-0.00701528
13373.2	-0.00678867
13449.2	-0.00658422
13525.1	-0.00640317
13601.1	-0.00624601
13677.1	-0.00611247
13753.1	-0.00600164
13829.1	-0.00591194
13905.1	-0.00584129
13981	-0.00578712
14057	-0.00574649
14133	-0.00571618
14209	-0.00569279
14285	-0.00567283
14361	-0.00565281
14437	-0.00562934
14512.9	-0.0055992
14588.9	-0.00555942
14664.9	-0.00550735
14740.9	-0.00544069
14816.9	-0.00535755
14892.9	-0.00525647
14968.8	-0.00513644
15044.8	-0.00499692
15120.8	-0.0048378
15196.8	-0.00465942
15272.8	-0.00446253
15348.8	-0.00424825
15424.7	-0.00401806
15500.7	-0.00377373
15576.7	-0.00351729
15652.7	-0.00325096
15728.7	-0.00297714
15804.7	-0.0026983
15880.7	-0.00241699
15956.6	-0.00213577
16032.6	-0.00185716
16108.6	-0.00158359
16184.6	-0.00131742
16260.6	-0.00106082
16336.6	-0.000815819
16412.5	-0.000584249
16488.5	-0.000367729
16564.5	-0.000167653
16640.5	1.48123e-05
16716.5	0.000178741
16792.5	0.000323443
16868.4	0.000448464
16944.4	0.000553576
17020.4	0.000638772
17096.4	0.000704254
17172.4	0.000750419
17248.4	0.000777842
17324.3	0.000787262
17400.3	0.000779564
17476.3	0.000755761
17552.3	0.000716974
17628.3	0.000664414
17704.3	0.000599365
17780.3	0.000523163
17856.2	0.000437181
17932.2	0.000342809
18008.2	0.000241442
18084.2	0.000134462
18160.2	2.32245e-05
18236.2	-9.09532e-05
18312.1	-0.000206804
18388.1	-0.000323122
18464.1	-0.00043877
18540.1	-0.000552686
18616.1	-0.000663895
18692.1	-0.000771506
18768	-0.000874722
18844	-0.000972839
18920	-0.00106525
18996	-0.00115144
19072	-0.001231
19148	-0.0013036
19224	-0.00136901
19299.9	-0.00142708
19375.9	-0.00147775
19451.9	-0.00152103
19527.9	-0.00155701
19603.9	-0.00158585
19679.9	-0.00160774
19755.8	-0.00162296
19831.8	-0.00163182
19907.8	-0.00163465
19983.8	-0.00163184
