0	0
10.3422	0
20.6843	0
31.0265	0
41.3687	0
51.7109	0
62.053	0
72.3952	0
82.7374	0
93.0796	0
103.422	0
113.764	0
124.106	0
134.448	0
144.79	0
155.133	0
165.475	0
175.817	0
186.159	0
196.501	0
206.843	0
217.186	0
227.528	0
237.87	0
248.212	0
258.554	0
268.897	0
279.239	0
289.581	0
299.923	0
310.265	0
320.607	0
330.95	0
341.292	0
351.634	0
361.976	0
372.318	0
382.66	0
393.003	0
403.345	0
413.687	0
424.029	0
434.371	0
444.714	0
455.056	0
465.398	0
475.74	0
486.082	0
496.424	0
506.767	0
517.109	0
527.451	0
537.793	0
548.135	0
558.477	0
568.82	0
579.162	0
589.504	0
599.846	0
610.188	0
620.53	0
630.873	0
641.215	0
651.557	0
661.899	0
672.241	0
682.584	0
692.926	0
703.268	0
713.61	0
723.952	0
734.294	0
744.637	0
754.979	0
765.321	0
775.663	0
786.005	0
796.347	0
806.69	0
817.032	0
827.374	0
837.716	0
848.058	0
858.401	0
868.743	0
879.085	0
889.427	0
899.769	0
910.111	0
920.454	0
930.796	0
941.138	0
951.48	0
961.822	0
972.164	0
982.507	0
992.849	0
1003.19	0
1013.53	0
1023.88	0
1034.22	0
1044.56	0
1054.9	0
1065.24	0
1075.59	0
1085.93	0
1096.27	0
1106.61	0
1116.95	0
1127.3	0
1137.64	0
1147.98	0
1158.32	0
1168.67	0
1179.01	0
1189.35	0
1199.69	0
1210.03	0
1220.38	0
1230.72	0
1241.06	0
1251.4	0
1261.75	0
1272.09	0
1282.43	0
1292.77	-9.09495e-13
1303.11	-1.81899e-12
1313.46	-2.72848e-12
1323.8	-4.54747e-12
1334.14	-6.36646e-12
1344.48	-9.09495e-12
1354.82	-1.36424e-11
1365.17	-1.90994e-11
1375.51	-2.81943e-11
1385.85	-4.00178e-11
1396.19	-5.63887e-11
1406.54	-7.9126e-11
1416.88	-1.10049e-10
1427.22	-1.52795e-10
1437.56	-2.10093e-10
1447.9	-2.8831e-10
1458.25	-3.94721e-10
1468.59	-5.37511e-10
1478.93	-7.28505e-10
1489.27	-9.83164e-10
1499.62	-1.32059e-09
1509.96	-1.76624e-09
1520.3	-2.35286e-09
1530.64	-3.12048e-09
1540.98	-4.12183e-09
1551.33	-5.42241e-09
1561.67	-7.10406e-09
1572.01	-9.27048e-09
1582.35	-1.20508e-08
1592.69	-1.5606e-08
1603.04	-2.01326e-08
1613.38	-2.5876e-08
1623.72	-3.31365e-08
1634.06	-4.22806e-08
1644.41	-5.37566e-08
1654.75	-6.81084e-08
1665.09	-8.59936e-08
1675.43	-1.08205e-07
1685.77	-1.35698e-07
1696.12	-1.69615e-07
1706.46	-2.11318e-07
1716.8	-2.62428e-07
1727.14	-3.24869e-07
1737.49	-4.0091e-07
1747.83	-4.93224e-07
1758.17	-6.04953e-07
1768.51	-7.39768e-07
1778.85	-9.01952e-07
1789.2	-1.09649e-06
1799.54	-1.32914e-06
1809.88	-1.60659e-06
1820.22	-1.93651e-06
1830.56	-2.32772e-06
1840.91	-2.79033e-06
1851.25	-3.33586e-06
1861.59	-3.97744e-06
1871.93	-4.72995e-06
1882.28	-5.61025e-06
1892.62	-6.63734e-06
1902.96	-7.8326e-06
1913.3	-9.21999e-06
1923.64	-1.08263e-05
1933.99	-1.26816e-05
1944.33	-1.48189e-05
1954.67	-1.72752e-05
1965.01	-2.00912e-05
1975.36	-2.33118e-05
1985.7	-2.69865e-05
1996.04	-3.11693e-05
2006.38	-3.59194e-05
2016.72	-4.13013e-05
2027.07	-4.73849e-05
2037.41	-5.42461e-05
2047.75	-6.19669e-05
2058.09	-7.06353e-05
2068.43	-8.0346e-05
2078.78	-9.12003e-05
2089.12	-0.000103306
2099.46	-0.000116778
2109.8	-0.000131738
2120.15	-0.000148314
2130.49	-0.000166641
2140.83	-0.000186861
2151.17	-0.00020912
2161.51	-0.000233572
2171.86	-0.000260375
2182.2	-0.000289693
2192.54	-0.000321693
2202.88	-0.000356545
2213.23	-0.000394421
2223.57	-0.000435494
2233.91	-0.000479937
2244.25	-0.000527922
2254.59	-0.000579615
2264.94	-0.00063518
2275.28	-0.000694772
2285.62	-0.000758536
2295.96	-0.000826606
2306.3	-0.0008991
2316.65	-0.000976122
2326.99	-0.00105775
2337.33	-0.00114405
2347.67	-0.00123504
2358.02	-0.00133074
2368.36	-0.00143109
2378.7	-0.00153604
2389.04	-0.00164545
2399.38	-0.00175918
2409.73	-0.00187701
2420.07	-0.00199865
2430.41	-0.00212379
2440.75	-0.00225201
2451.1	-0.00238285
2461.44	-0.00251576
2471.78	-0.0026501
2482.12	-0.00278516
2492.46	-0.00292012
2502.81	-0.00305407
2513.15	-0.003186
2523.49	-0.00331479
2533.83	-0.0034392
2544.17	-0.00355789
2554.52	-0.00366937
2564.86	-0.00377204
2575.2	-0.00386418
2585.54	-0.00394392
2595.89	-0.00400926
2606.23	-0.00405806
2616.57	-0.00408803
2626.91	-0.00409677
2637.25	-0.00408169
2647.6	-0.00404011
2657.94	-0.00396915
2668.28	-0.00386584
2678.62	-0.00372705
2688.97	-0.00354952
2699.31	-0.00332984
2709.65	-0.0030645
2719.99	-0.00274987
2730.33	-0.0023822
2740.68	-0.00195762
2751.02	-0.00147218
2761.36	-0.000921866
2771.7	-0.000302552
2782.04	0.000389928
2792.39	0.00115979
2802.73	0.00201129
2813.07	0.00294869
2823.41	0.00397628
2833.76	0.0050983
2844.1	0.00631897
2854.44	0.00764249
2864.78	0.00907293
2875.12	0.0106143
2885.47	0.0122705
2895.81	0.0140453
2906.15	0.0159423
2916.49	0.017965
2926.83	0.0201165
2937.18	0.0223998
2947.52	0.0248177
2957.86	0.0273726
2968.2	0.0300669
2978.55	0.0329023
2988.89	0.0358803
2999.23	0.0390022
3009.57	0.0422687
3019.91	0.0456803
3030.26	0.049237
3040.6	0.0529383
3050.94	0.0567832
3061.28	0.0607706
3071.62	0.0648985
3081.97	0.0691646
3092.31	0.073566
3102.65	0.0780996
3112.99	0.0827613
3123.33	0.0875469
3133.68	0.0924515
3144.02	0.0974697
3154.36	0.102596
3164.7	0.107823
3175.05	0.113144
3185.39	0.118552
3195.73	0.124039
3206.07	0.129596
3216.41	0.135216
3226.76	0.140887
3237.1	0.146601
3247.44	0.152347
3257.78	0.158115
3268.12	0.163894
3278.47	0.169673
3288.81	0.175439
3299.15	0.181183
3309.49	0.18689
3319.83	0.19255
3330.18	0.19815
3340.52	0.203677
3350.86	0.209119
3361.2	0.214463
3371.54	0.219696
3381.89	0.224806
3392.23	0.22978
3402.57	0.234606
3412.91	0.239271
3423.25	0.243764
3433.59	0.248072
3443.94	0.252184
3454.28	0.256089
3464.62	0.259775
3474.96	0.263232
3485.3	0.266451
3495.65	0.26942
3505.99	0.272131
3516.33	0.274576
3526.67	0.276746
3537.01	0.278634
3547.36	0.280232
3557.7	0.281535
3568.04	0.282538
3578.38	0.283234
3588.72	0.283619
3599.06	0.283692
3609.41	0.283447
3619.75	0.282884
3630.09	0.282001
3640.43	0.280798
3650.77	0.279274
3661.12	0.277431
3671.46	0.27527
3681.8	0.272794
3692.14	0.270006
3702.48	0.266911
3712.82	0.263512
3723.17	0.259815
3733.51	0.255826
3743.85	0.251552
3754.19	0.247
3764.53	0.242178
3774.88	0.237095
3785.22	0.231761
3795.56	0.226184
3805.9	0.220375
3816.24	0.214346
3826.58	0.208106
3836.93	0.201668
3847.27	0.195044
3857.61	0.188246
3867.95	0.181287
3878.29	0.17418
3888.64	0.166937
3898.98	0.159573
3909.32	0.152102
3919.66	0.144535
3930	0.136889
3940.34	0.129176
3950.69	0.121409
3961.03	0.113604
3971.37	0.105774
3981.71	0.0979316
3992.05	0.0900913
4002.39	0.0822661
4012.74	0.0744692
4023.08	0.0667134
4033.42	0.0590114
4043.76	0.0513755
4054.1	0.0438176
4064.45	0.0363494
4074.79	0.0289821
4085.13	0.0217266
4095.47	0.0145932
4105.81	0.00759206
4116.15	0.000732543
4126.5	-0.00597629
4136.84	-0.0125259
4147.18	-0.0189083
4157.52	-0.025116
4167.86	-0.0311419
4178.21	-0.0369798
4188.55	-0.0426237
4198.89	-0.0480682
4209.23	-0.0533086
4219.57	-0.0583407
4229.91	-0.0631608
4240.26	-0.0677657
4250.6	-0.0721528
4260.94	-0.0763202
4271.28	-0.0802663
4281.62	-0.0839901
4291.97	-0.0874912
4302.31	-0.0907695
4312.65	-0.0938255
4322.99	-0.0966603
4333.33	-0.0992752
4343.68	-0.101672
4354.02	-0.103854
4364.36	-0.105822
4374.7	-0.107581
4385.04	-0.109134
4395.39	-0.110484
4405.73	-0.111636
4416.07	-0.112594
4426.41	-0.113363
4436.75	-0.113949
4447.1	-0.114356
4457.44	-0.114589
4467.78	-0.114656
4478.12	-0.114561
4488.47	-0.114312
4498.81	-0.113913
4509.15	-0.113372
4519.49	-0.112695
4529.83	-0.111888
4540.18	-0.110959
4550.52	-0.109913
4560.86	-0.108759
4571.2	-0.107501
4581.54	-0.106148
4591.89	-0.104706
4602.23	-0.103181
4612.57	-0.10158
4622.91	-0.0999103
4633.26	-0.0981775
4643.6	-0.0963882
4653.94	-0.0945487
4664.28	-0.0926651
4674.62	-0.0907435
4684.97	-0.0887897
4695.31	-0.0868095
4705.65	-0.0848083
4715.99	-0.0827916
4726.33	-0.0807646
4736.68	-0.0787323
4747.02	-0.0766996
4757.36	-0.0746711
4767.7	-0.0726513
4778.05	-0.0706444
4788.39	-0.0686545
4798.73	-0.0666855
4809.07	-0.0647409
4819.41	-0.0628243
4829.76	-0.0609389
4840.1	-0.0590877
4850.44	-0.0572735
4860.78	-0.0554989
4871.12	-0.0537664
4881.47	-0.0520781
4891.81	-0.0504362
4902.15	-0.0488423
4912.49	-0.0472982
4922.84	-0.0458053
4933.18	-0.0443648
4943.52	-0.0429779
4953.86	-0.0416454
4964.2	-0.0403681
4974.55	-0.0391465
4984.89	-0.0379812
4995.23	-0.0368724
5005.57	-0.0358201
5015.91	-0.0348244
5026.26	-0.0338851
5036.6	-0.033002
5046.94	-0.0321746
5057.28	-0.0314025
5067.63	-0.0306849
5077.97	-0.0300212
5088.31	-0.0294106
5098.65	-0.028852
5108.99	-0.0283446
5119.34	-0.0278872
5129.68	-0.0274786
5140.02	-0.0271176
5150.36	-0.026803
5160.7	-0.0265333
5171.05	-0.0263072
5181.39	-0.0261233
5191.73	-0.0259799
5202.07	-0.0258757
5212.42	-0.025809
5222.76	-0.0257783
5233.1	-0.0257819
5243.44	-0.0258183
5253.78	-0.0258858
5264.13	-0.0259828
5274.47	-0.0261075
5284.81	-0.0262584
5295.15	-0.0264339
5305.49	-0.0266322
5315.84	-0.0268517
5326.18	-0.0270909
5336.52	-0.0273481
5346.86	-0.0276217
5357.21	-0.0279103
5367.55	-0.0282121
5377.89	-0.0285258
5388.23	-0.0288498
5398.57	-0.0291827
5408.92	-0.029523
5419.26	-0.0298694
5429.6	-0.0302205
5439.94	-0.030575
5450.28	-0.0309316
5460.63	-0.0312891
5470.97	-0.0316463
5481.31	-0.0320019
5491.65	-0.0323549
5502	-0.0327043
5512.34	-0.0330489
5522.68	-0.0333877
5533.02	-0.0337199
5543.36	-0.0340446
5553.71	-0.0343608
5564.05	-0.0346677
5574.39	-0.0349647
5584.73	-0.0352509
5595.07	-0.0355256
5605.42	-0.0357883
5615.76	-0.0360383
5626.1	-0.0362751
5636.44	-0.0364981
5646.79	-0.036707
5657.13	-0.0369012
5667.47	-0.0370803
5677.81	-0.0372441
5688.15	-0.0373922
5698.5	-0.0375243
5708.84	-0.0376403
5719.18	-0.0377398
5729.52	-0.0378227
5739.86	-0.037889
5750.21	-0.0379384
5760.55	-0.037971
5770.89	-0.0379866
5781.23	-0.0379854
5791.58	-0.0379673
5801.92	-0.0379323
5812.26	-0.0378806
5822.6	-0.0378122
5832.94	-0.0377273
5843.29	-0.0376261
5853.63	-0.0375086
5863.97	-0.0373752
5874.31	-0.0372259
5884.66	-0.0370611
5895	-0.036881
5905.34	-0.0366859
5915.68	-0.036476
5926.02	-0.0362517
5936.37	-0.0360132
5946.71	-0.035761
5957.05	-0.0354952
5967.39	-0.0352163
5977.73	-0.0349246
5988.08	-0.0346204
5998.42	-0.0343042
6008.76	-0.0339763
6019.1	-0.0336371
6029.45	-0.033287
6039.79	-0.0329263
6050.13	-0.0325555
6060.47	-0.0321749
6070.81	-0.0317849
6081.16	-0.031386
6091.5	-0.0309784
6101.84	-0.0305626
6112.18	-0.0301391
6122.52	-0.029708
6132.87	-0.02927
6143.21	-0.0288252
6153.55	-0.0283741
6163.89	-0.0279171
6174.24	-0.0274546
6184.58	-0.0269868
6194.92	-0.0265141
6205.26	-0.0260369
6215.6	-0.0255555
6225.95	-0.0250702
6236.29	-0.0245814
6246.63	-0.0240894
6256.97	-0.0235944
6267.32	-0.0230968
6277.66	-0.0225969
6288	-0.022095
6298.34	-0.0215913
6308.68	-0.0210861
6319.03	-0.0205796
6329.37	-0.0200721
6339.71	-0.0195639
6350.05	-0.0190552
6360.39	-0.0185461
6370.74	-0.018037
6381.08	-0.017528
6391.42	-0.0170193
6401.76	-0.0165112
6412.11	-0.0160038
6422.45	-0.0154972
6432.79	-0.0149918
6443.13	-0.0144875
6453.47	-0.0139847
6463.82	-0.0134834
6474.16	-0.0129837
6484.5	-0.0124859
6494.84	-0.0119901
6505.19	-0.0114964
6515.53	-0.0110049
6525.87	-0.0105157
6536.21	-0.010029
6546.55	-0.00954488
6556.9	-0.00906343
6567.24	-0.00858477
6577.58	-0.008109
6587.92	-0.00763622
6598.26	-0.00716653
6608.61	-0.00670002
6618.95	-0.00623678
6629.29	-0.00577691
6639.63	-0.0053205
6649.98	-0.00486763
6660.32	-0.00441839
6670.66	-0.00397287
6681	-0.00353116
6691.34	-0.00309333
6701.69	-0.00265947
6712.03	-0.00222967
6722.37	-0.00180402
6732.71	-0.0013826
6743.06	-0.000965488
6753.4	-0.000552783
6763.74	-0.000144568
6774.08	0.000259068
6784.42	0.000658037
6794.77	0.00105225
6805.11	0.00144161
6815.45	0.00182603
6825.79	0.00220542
6836.14	0.00257968
6846.48	0.00294871
6856.82	0.00331242
6867.16	0.00367071
6877.5	0.00402349
6887.85	0.00437064
6898.19	0.00471208
6908.53	0.00504769
6918.87	0.00537738
6929.21	0.00570104
6939.56	0.00601857
6949.9	0.00632985
6960.24	0.0066348
6970.58	0.0069333
6980.93	0.00722524
6991.27	0.00751052
7001.61	0.00778903
7011.95	0.00806067
7022.29	0.00832534
7032.64	0.00858292
7042.98	0.00883331
7053.32	0.00907641
7063.66	0.00931212
7074.01	0.00954033
7084.35	0.00976095
7094.69	0.00997388
7105.03	0.010179
7115.37	0.0103763
7125.72	0.0105655
7136.06	0.0107467
7146.4	0.0109198
7156.74	0.0110846
7167.09	0.0112411
7177.43	0.0113891
7187.77	0.0115287
7198.11	0.0116598
7208.45	0.0117821
7218.8	0.0118958
7229.14	0.0120008
7239.48	0.0120969
7249.82	0.0121841
7260.16	0.0122624
7270.51	0.0123317
7280.85	0.0123919
7291.19	0.0124431
7301.53	0.0124851
7311.88	0.0125181
7322.22	0.0125418
7332.56	0.0125563
7342.9	0.0125616
7353.24	0.0125577
7363.59	0.0125445
7373.93	0.0125221
7384.27	0.0124903
7394.61	0.0124494
7404.95	0.0123991
7415.3	0.0123396
7425.64	0.0122709
7435.98	0.0121929
7446.32	0.0121058
7456.67	0.0120094
7467.01	0.011904
7477.35	0.0117894
7487.69	0.0116658
7498.03	0.0115332
7508.38	0.0113916
7518.72	0.011241
7529.06	0.0110816
7539.4	0.0109135
7549.74	0.0107365
7560.09	0.0105509
7570.43	0.0103567
7580.77	0.010154
7591.11	0.00994283
7601.46	0.00972329
7611.8	0.00949548
7622.14	0.00925948
7632.48	0.00901539
7642.82	0.00876329
7653.17	0.00850329
7663.51	0.00823549
7673.85	0.00795999
7684.19	0.0076769
7694.53	0.00738633
7704.88	0.00708839
7715.22	0.00678321
7725.56	0.00647088
7735.9	0.00615154
7746.25	0.00582532
7756.59	0.00549232
7766.93	0.00515269
7777.27	0.00480654
7787.61	0.00445402
7797.96	0.00409525
7808.3	0.00373038
7818.64	0.00335953
7828.98	0.00298285
7839.32	0.00260049
7849.67	0.00221257
7860.01	0.00181925
7870.35	0.00142068
7880.69	0.001017
7891.03	0.000608365
7901.38	0.000194922
7911.72	-0.000223174
7922.06	-0.00064577
7932.4	-0.00107271
7942.75	-0.00150383
7953.09	-0.00193898
7963.43	-0.002378
7973.77	-0.00282073
7984.11	-0.003267
7994.46	-0.00371665
8004.8	-0.00416952
8015.14	-0.00462544
8025.48	-0.00508424
8035.82	-0.00554575
8046.17	-0.00600981
8056.51	-0.00647625
8066.85	-0.00694489
8077.19	-0.00741557
8087.54	-0.0078881
8097.88	-0.00836232
8108.22	-0.00883806
8118.56	-0.00931513
8128.9	-0.00979336
8139.25	-0.0102726
8149.59	-0.0107526
8159.93	-0.0112332
8170.27	-0.0117143
8180.61	-0.0121957
8190.96	-0.0126772
8201.3	-0.0131586
8211.64	-0.0136397
8221.98	-0.0141203
8232.32	-0.0146004
8242.67	-0.0150796
8253.01	-0.0155578
8263.35	-0.0160349
8273.69	-0.0165106
8284.04	-0.0169848
8294.38	-0.0174573
8304.72	-0.0179279
8315.06	-0.0183964
8325.4	-0.0188626
8335.75	-0.0193265
8346.09	-0.0197877
8356.43	-0.0202462
8366.77	-0.0207016
8377.11	-0.021154
8387.46	-0.021603
8397.8	-0.0220486
8408.14	-0.0224905
8418.48	-0.0229285
8428.82	-0.0233626
8439.17	-0.0237925
8449.51	-0.0242181
8459.85	-0.0246391
8470.19	-0.0250555
8480.54	-0.0254671
8490.88	-0.0258737
8501.22	-0.0262751
8511.56	-0.0266713
8521.9	-0.0270619
8532.25	-0.027447
8542.59	-0.0278263
8552.93	-0.0281997
8563.27	-0.0285671
8573.61	-0.0289282
8583.96	-0.029283
8594.3	-0.0296314
8604.64	-0.0299732
8614.98	-0.0303082
8625.33	-0.0306363
8635.67	-0.0309575
8646.01	-0.0312715
8656.35	-0.0315783
8666.69	-0.0318778
8677.04	-0.0321698
8687.38	-0.0324542
8697.72	-0.032731
8708.06	-0.0329999
8718.4	-0.033261
8728.75	-0.0335141
8739.09	-0.0337592
8749.43	-0.0339961
8759.77	-0.0342248
8770.11	-0.0344451
8780.46	-0.034657
8790.8	-0.0348605
8801.14	-0.0350555
8811.48	-0.0352418
8821.83	-0.0354195
8832.17	-0.0355884
8842.51	-0.0357486
8852.85	-0.0359
8863.19	-0.0360424
8873.54	-0.036176
8883.88	-0.0363006
8894.22	-0.0364163
8904.56	-0.0365229
8914.9	-0.0366205
8925.25	-0.036709
8935.59	-0.0367885
8945.93	-0.0368588
8956.27	-0.0369201
8966.62	-0.0369723
8976.96	-0.0370153
8987.3	-0.0370493
8997.64	-0.0370741
9007.98	-0.0370899
9018.33	-0.0370966
9028.67	-0.0370943
9039.01	-0.0370829
9049.35	-0.0370626
9059.69	-0.0370332
9070.04	-0.036995
9080.38	-0.0369478
9090.72	-0.0368918
9101.06	-0.0368269
9111.41	-0.0367533
9121.75	-0.036671
9132.09	-0.03658
9142.43	-0.0364804
9152.77	-0.0363723
9163.12	-0.0362558
9173.46	-0.0361308
9183.8	-0.0359975
9194.14	-0.035856
9204.48	-0.0357063
9214.83	-0.0355486
9225.17	-0.0353828
9235.51	-0.0352091
9245.85	-0.0350277
9256.2	-0.0348385
9266.54	-0.0346417
9276.88	-0.0344374
9287.22	-0.0342256
9297.56	-0.0340066
9307.91	-0.0337804
9318.25	-0.0335471
9328.59	-0.0333069
9338.93	-0.0330598
9349.27	-0.032806
9359.62	-0.0325456
9369.96	-0.0322788
9380.3	-0.0320056
9390.64	-0.0317262
9400.99	-0.0314407
9411.33	-0.0311493
9421.67	-0.0308521
9432.01	-0.0305492
9442.35	-0.0302409
9452.7	-0.0299271
9463.04	-0.0296082
9473.38	-0.0292841
9483.72	-0.0289552
9494.06	-0.0286214
9504.41	-0.0282831
9514.75	-0.0279402
9525.09	-0.0275931
9535.43	-0.0272418
9545.78	-0.0268866
9556.12	-0.0265275
9566.46	-0.0261647
9576.8	-0.0257985
9587.14	-0.0254289
9597.49	-0.0250561
9607.83	-0.0246803
9618.17	-0.0243017
9628.51	-0.0239204
9638.86	-0.0235367
9649.2	-0.0231506
9659.54	-0.0227623
9669.88	-0.0223721
9680.22	-0.02198
9690.57	-0.0215863
9700.91	-0.0211911
9711.25	-0.0207947
9721.59	-0.0203971
9731.93	-0.0199985
9742.28	-0.0195992
9752.62	-0.0191993
9762.96	-0.0187989
9773.3	-0.0183983
9783.65	-0.0179976
9793.99	-0.017597
9804.33	-0.0171966
9814.67	-0.0167966
9825.01	-0.0163973
9835.36	-0.0159987
9845.7	-0.015601
9856.04	-0.0152044
9866.38	-0.0148091
9876.72	-0.0144152
9887.07	-0.0140229
9897.41	-0.0136324
9907.75	-0.0132438
9918.09	-0.0128572
9928.44	-0.0124729
9938.78	-0.0120909
9949.12	-0.0117115
9959.46	-0.0113348
9969.8	-0.010961
9980.15	-0.0105901
9990.49	-0.0102224
10000.8	-0.00985797
10011.2	-0.00949696
10021.5	-0.00913952
10031.9	-0.00878579
10042.2	-0.00843591
10052.5	-0.00808999
10062.9	-0.00774819
10073.2	-0.00741061
10083.6	-0.0070774
10093.9	-0.00674867
10104.3	-0.00642453
10114.6	-0.00610512
10124.9	-0.00579053
10135.3	-0.00548089
10145.6	-0.00517629
10156	-0.00487685
10166.3	-0.00458266
10176.6	-0.00429382
10187	-0.00401042
10197.3	-0.00373257
10207.7	-0.00346033
10218	-0.0031938
10228.4	-0.00293307
10238.7	-0.00267819
10249	-0.00242926
10259.4	-0.00218633
10269.7	-0.00194948
10280.1	-0.00171876
10290.4	-0.00149424
10300.8	-0.00127596
10311.1	-0.00106399
10321.4	-0.000858356
10331.8	-0.000659117
10342.1	-0.000466306
10352.5	-0.000279958
10362.8	-0.000100106
10373.1	7.32249e-05
10383.5	0.00024001
10393.8	0.00040023
10404.2	0.000553871
10414.5	0.000700919
10424.9	0.000841369
10435.2	0.000975217
10445.5	0.00110246
10455.9	0.00122311
10466.2	0.00133717
10476.6	0.00144466
10486.9	0.00154558
10497.3	0.00163997
10507.6	0.00172784
10517.9	0.00180923
10528.3	0.00188416
10538.6	0.00195267
10549	0.00201481
10559.3	0.00207061
10569.7	0.00212012
10580	0.0021634
10590.3	0.0022005
10600.7	0.00223147
10611	0.00225638
10621.4	0.0022753
10631.7	0.00228829
10642	0.00229542
10652.4	0.00229679
10662.7	0.00229245
10673.1	0.0022825
10683.4	0.00226702
10693.8	0.0022461
10704.1	0.00221983
10714.4	0.00218831
10724.8	0.00215164
10735.1	0.00210992
10745.5	0.00206326
10755.8	0.00201175
10766.2	0.00195552
10776.5	0.00189466
10786.8	0.00182931
10797.2	0.00175958
10807.5	0.00168558
10817.9	0.00160744
10828.2	0.00152529
10838.5	0.00143925
10848.9	0.00134946
10859.2	0.00125603
10869.6	0.00115912
10879.9	0.00105884
10890.3	0.000955343
10900.6	0.000848764
10910.9	0.000739242
10921.3	0.00062692
10931.6	0.00051194
10942	0.000394447
10952.3	0.000274586
10962.7	0.000152504
10973	2.83493e-05
10983.3	-9.77307e-05
10993.7	-0.000225586
11004	-0.000355067
11014.4	-0.000486023
11024.7	-0.000618303
11035	-0.000751755
11045.4	-0.000886228
11055.7	-0.00102157
11066.1	-0.00115763
11076.4	-0.00129425
11086.8	-0.00143129
11097.1	-0.00156859
11107.4	-0.001706
11117.8	-0.00184337
11128.1	-0.00198056
11138.5	-0.0021174
11148.8	-0.00225376
11159.2	-0.00238948
11169.5	-0.00252442
11179.8	-0.00265843
11190.2	-0.00279138
11200.5	-0.00292311
11210.9	-0.00305349
11221.2	-0.00318237
11231.5	-0.00330962
11241.9	-0.0034351
11252.2	-0.00355868
11262.6	-0.00368022
11272.9	-0.0037996
11283.3	-0.00391668
11293.6	-0.00403134
11303.9	-0.00414345
11314.3	-0.0042529
11324.6	-0.00435956
11335	-0.00446333
11345.3	-0.00456407
11355.7	-0.00466169
11366	-0.00475607
11376.3	-0.00484712
11386.7	-0.00493472
11397	-0.00501878
11407.4	-0.00509921
11417.7	-0.0051759
11428.1	-0.00524878
11438.4	-0.00531775
11448.7	-0.00538273
11459.1	-0.00544364
11469.4	-0.00550041
11479.8	-0.00555296
11490.1	-0.00560122
11500.4	-0.00564514
11510.8	-0.00568464
11521.1	-0.00571968
11531.5	-0.00575018
11541.8	-0.00577612
11552.2	-0.00579743
11562.5	-0.00581408
11572.8	-0.00582603
11583.2	-0.00583324
11593.5	-0.00583568
11603.9	-0.00583333
11614.2	-0.00582616
11624.6	-0.00581415
11634.9	-0.00579728
11645.2	-0.00577555
11655.6	-0.00574895
11665.9	-0.00571746
11676.3	-0.00568111
11686.6	-0.00563987
11696.9	-0.00559377
11707.3	-0.00554282
11717.6	-0.00548703
11728	-0.00542641
11738.3	-0.005361
11748.7	-0.00529082
11759	-0.00521589
11769.3	-0.00513626
11779.7	-0.00505195
11790	-0.00496302
11800.4	-0.00486949
11810.7	-0.00477143
11821.1	-0.00466888
11831.4	-0.0045619
11841.7	-0.00445054
11852.1	-0.00433486
11862.4	-0.00421492
11872.8	-0.00409081
11883.1	-0.00396257
11893.4	-0.00383029
11903.8	-0.00369404
11914.1	-0.00355389
11924.5	-0.00340994
11934.8	-0.00326225
11945.2	-0.00311093
11955.5	-0.00295605
11965.8	-0.00279771
11976.2	-0.00263599
11986.5	-0.002471
11996.9	-0.00230283
12007.2	-0.00213159
12017.6	-0.00195736
12027.9	-0.00178026
12038.2	-0.00160038
12048.6	-0.00141785
12058.9	-0.00123275
12069.3	-0.00104522
12079.6	-0.000855341
12089.9	-0.000663244
12100.3	-0.000469038
12110.6	-0.000272838
12121	-7.47596e-05
12131.3	0.000125079
12141.7	0.000326561
12152	0.000529566
12162.3	0.000733974
12172.7	0.000939666
12183	0.00114652
12193.4	0.00135442
12203.7	0.00156323
12214.1	0.00177284
12224.4	0.00198312
12234.7	0.00219394
12245.1	0.0024052
12255.4	0.00261675
12265.8	0.00282849
12276.1	0.00304028
12286.5	0.003252
12296.8	0.00346352
12307.1	0.00367473
12317.5	0.0038855
12327.8	0.0040957
12338.2	0.00430523
12348.5	0.00451394
12358.8	0.00472172
12369.2	0.00492846
12379.5	0.00513402
12389.9	0.0053383
12400.2	0.00554116
12410.6	0.0057425
12420.9	0.00594219
12431.2	0.00614012
12441.6	0.00633617
12451.9	0.00653022
12462.3	0.00672217
12472.6	0.0069119
12483	0.00709929
12493.3	0.00728425
12503.6	0.00746664
12514	0.00764638
12524.3	0.00782335
12534.7	0.00799744
12545	0.00816855
12555.3	0.00833657
12565.7	0.00850141
12576	0.00866297
12586.4	0.00882113
12596.7	0.00897582
12607.1	0.00912692
12617.4	0.00927435
12627.7	0.009418
12638.1	0.0095578
12648.4	0.00969365
12658.8	0.00982546
12669.1	0.00995315
12679.5	0.0100766
12689.8	0.0101958
12700.1	0.0103106
12710.5	0.010421
12720.8	0.0105268
12731.2	0.010628
12741.5	0.0107246
12751.8	0.0108164
12762.2	0.0109033
12772.5	0.0109854
12782.9	0.0110626
12793.2	0.0111347
12803.6	0.0112017
12813.9	0.0112636
12824.2	0.0113203
12834.6	0.0113718
12844.9	0.011418
12855.3	0.0114588
12865.6	0.0114943
12876	0.0115243
12886.3	0.0115488
12896.6	0.0115678
12907	0.0115813
12917.3	0.0115891
12927.7	0.0115914
12938	0.011588
12948.3	0.0115789
12958.7	0.0115641
12969	0.0115436
12979.4	0.0115174
12989.7	0.0114854
13000.1	0.0114477
13010.4	0.0114042
13020.7	0.0113549
13031.1	0.0112999
13041.4	0.011239
13051.8	0.0111724
13062.1	0.0111001
13072.5	0.0110219
13082.8	0.0109381
13093.1	0.0108485
13103.5	0.0107532
13113.8	0.0106522
13124.2	0.0105456
13134.5	0.0104333
13144.9	0.0103155
13155.2	0.0101921
13165.5	0.0100631
13175.9	0.00992874
13186.2	0.00978891
13196.6	0.0096437
13206.9	0.00949317
13217.2	0.00933737
13227.6	0.00917636
13237.9	0.0090102
13248.3	0.00883896
13258.6	0.00866272
13269	0.00848154
13279.3	0.0082955
13289.6	0.00810468
13300	0.00790917
13310.3	0.00770905
13320.7	0.00750441
13331	0.00729535
13341.4	0.00708196
13351.7	0.00686433
13362	0.00664258
13372.4	0.00641681
13382.7	0.00618712
13393.1	0.00595363
13403.4	0.00571646
13413.7	0.00547571
13424.1	0.0052315
13434.4	0.00498397
13444.8	0.00473324
13455.1	0.00447942
13465.5	0.00422266
13475.8	0.00396309
13486.1	0.00370083
13496.5	0.00343602
13506.8	0.00316882
13517.2	0.00289934
13527.5	0.00262774
13537.9	0.00235417
13548.2	0.00207876
13558.5	0.00180167
13568.9	0.00152304
13579.2	0.00124302
13589.6	0.000961767
13599.9	0.000679433
13610.2	0.00039617
13620.6	0.000112132
13630.9	-0.000172526
13641.3	-0.000457648
13651.6	-0.000743078
13662	-0.00102866
13672.3	-0.00131424
13682.6	-0.00159965
13693	-0.00188475
13703.3	-0.00216938
13713.7	-0.00245337
13724	-0.00273658
13734.4	-0.00301885
13744.7	-0.00330002
13755	-0.00357995
13765.4	-0.00385848
13775.7	-0.00413546
13786.1	-0.00441073
13796.4	-0.00468417
13806.7	-0.0049556
13817.1	-0.0052249
13827.4	-0.00549192
13837.8	-0.00575652
13848.1	-0.00601855
13858.5	-0.00627789
13868.8	-0.0065344
13879.1	-0.00678795
13889.5	-0.00703841
13899.8	-0.00728565
13910.2	-0.00752956
13920.5	-0.00777001
13930.9	-0.00800688
13941.2	-0.00824006
13951.5	-0.00846945
13961.9	-0.00869493
13972.2	-0.00891641
13982.6	-0.00913378
13992.9	-0.00934694
14003.3	-0.00955582
14013.6	-0.00976032
14023.9	-0.00996035
14034.3	-0.0101558
14044.6	-0.0103467
14055	-0.0105329
14065.3	-0.0107143
14075.6	-0.010891
14086	-0.0110627
14096.3	-0.0112295
14106.7	-0.0113914
14117	-0.0115482
14127.4	-0.0117
14137.7	-0.0118467
14148	-0.0119883
14158.4	-0.0121247
14168.7	-0.012256
14179.1	-0.0123821
14189.4	-0.012503
14199.8	-0.0126188
14210.1	-0.0127293
14220.4	-0.0128346
14230.8	-0.0129348
14241.1	-0.0130299
14251.5	-0.0131197
14261.8	-0.0132045
14272.1	-0.0132842
14282.5	-0.0133588
14292.8	-0.0134284
14303.2	-0.013493
14313.5	-0.0135528
14323.9	-0.0136076
14334.2	-0.0136576
14344.5	-0.0137029
14354.9	-0.0137435
14365.2	-0.0137794
14375.6	-0.0138108
14385.9	-0.0138378
14396.3	-0.0138603
14406.6	-0.0138786
14416.9	-0.0138926
14427.3	-0.0139026
14437.6	-0.0139085
14448	-0.0139104
14458.3	-0.0139086
14468.6	-0.013903
14479	-0.0138939
14489.3	-0.0138813
14499.7	-0.0138652
14510	-0.013846
14520.4	-0.0138236
14530.7	-0.0137982
14541	-0.0137699
14551.4	-0.0137388
14561.7	-0.0137052
14572.1	-0.013669
14582.4	-0.0136305
14592.8	-0.0135897
14603.1	-0.0135469
14613.4	-0.0135021
14623.8	-0.0134555
14634.1	-0.0134072
14644.5	-0.0133575
14654.8	-0.0133063
14665.1	-0.0132539
14675.5	-0.0132004
14685.8	-0.0131459
14696.2	-0.0130906
14706.5	-0.0130346
14716.9	-0.0129781
14727.2	-0.0129212
14737.5	-0.0128641
14747.9	-0.0128068
14758.2	-0.0127496
14768.6	-0.0126926
14778.9	-0.0126358
14789.3	-0.0125795
14799.6	-0.0125238
14809.9	-0.0124688
14820.3	-0.0124146
14830.6	-0.0123613
14841	-0.0123092
14851.3	-0.0122583
14861.7	-0.0122086
14872	-0.0121605
14882.3	-0.0121139
14892.7	-0.012069
14903	-0.0120258
14913.4	-0.0119846
14923.7	-0.0119453
14934	-0.0119082
14944.4	-0.0118732
14954.7	-0.0118405
14965.1	-0.0118101
14975.4	-0.0117823
14985.8	-0.0117569
14996.1	-0.0117341
15006.4	-0.011714
15016.8	-0.0116967
15027.1	-0.0116821
15037.5	-0.0116704
15047.8	-0.0116616
15058.2	-0.0116558
15068.5	-0.0116529
15078.8	-0.0116531
15089.2	-0.0116564
15099.5	-0.0116628
15109.9	-0.0116723
15120.2	-0.011685
15130.5	-0.0117008
15140.9	-0.0117197
15151.2	-0.0117419
15161.6	-0.0117672
15171.9	-0.0117956
15182.3	-0.0118272
15192.6	-0.011862
15202.9	-0.0118998
15213.3	-0.0119407
15223.6	-0.0119847
15234	-0.0120317
15244.3	-0.0120816
15254.7	-0.0121345
15265	-0.0121902
15275.3	-0.0122487
15285.7	-0.0123099
15296	-0.0123738
15306.4	-0.0124403
15316.7	-0.0125094
15327	-0.0125808
15337.4	-0.0126546
15347.7	-0.0127307
15358.1	-0.0128089
15368.4	-0.0128892
15378.8	-0.0129714
15389.1	-0.0130555
15399.4	-0.0131413
15409.8	-0.0132287
15420.1	-0.0133176
15430.5	-0.0134078
15440.8	-0.0134993
15451.2	-0.0135919
15461.5	-0.0136855
15471.8	-0.0137799
15482.2	-0.013875
15492.5	-0.0139706
15502.9	-0.0140666
15513.2	-0.0141629
15523.5	-0.0142592
15533.9	-0.0143556
15544.2	-0.0144517
15554.6	-0.0145474
15564.9	-0.0146426
15575.3	-0.0147371
15585.6	-0.0148307
15595.9	-0.0149234
15606.3	-0.0150148
15616.6	-0.0151049
15627	-0.0151935
15637.3	-0.0152804
15647.7	-0.0153654
15658	-0.0154485
15668.3	-0.0155293
15678.7	-0.0156078
15689	-0.0156838
15699.4	-0.0157571
15709.7	-0.0158276
15720.1	-0.0158951
15730.4	-0.0159594
15740.7	-0.0160204
15751.1	-0.0160779
15761.4	-0.0161317
15771.8	-0.0161818
15782.1	-0.0162279
15792.4	-0.0162699
15802.8	-0.0163077
15813.1	-0.0163411
15823.5	-0.0163699
15833.8	-0.0163941
15844.2	-0.0164135
15854.5	-0.0164279
15864.8	-0.0164373
15875.2	-0.0164415
15885.5	-0.0164403
15895.9	-0.0164338
15906.2	-0.0164217
15916.6	-0.016404
15926.9	-0.0163805
15937.2	-0.0163512
15947.6	-0.0163159
15957.9	-0.0162746
15968.3	-0.0162272
15978.6	-0.0161735
15988.9	-0.0161137
15999.3	-0.0160474
16009.6	-0.0159748
16020	-0.0158957
16030.3	-0.0158101
16040.7	-0.0157179
16051	-0.0156192
16061.3	-0.0155138
16071.7	-0.0154017
16082	-0.0152829
16092.4	-0.0151574
16102.7	-0.0150252
16113.1	-0.0148863
16123.4	-0.0147406
16133.7	-0.0145883
16144.1	-0.0144291
16154.4	-0.0142633
16164.8	-0.0140909
16175.1	-0.0139117
16185.4	-0.013726
16195.8	-0.0135337
16206.1	-0.0133349
16216.5	-0.0131295
16226.8	-0.0129178
16237.2	-0.0126997
16247.5	-0.0124754
16257.8	-0.0122448
16268.2	-0.0120081
16278.5	-0.0117654
16288.9	-0.0115167
16299.2	-0.0112622
16309.6	-0.0110019
16319.9	-0.010736
16330.2	-0.0104645
16340.6	-0.0101876
16350.9	-0.00990544
16361.3	-0.0096181
16371.6	-0.00932571
16381.9	-0.00902842
16392.3	-0.00872636
16402.6	-0.00841968
16413	-0.00810852
16423.3	-0.00779304
16433.7	-0.00747339
16444	-0.00714972
16454.3	-0.00682221
16464.7	-0.00649101
16475	-0.00615629
16485.4	-0.00581823
16495.7	-0.00547699
16506.1	-0.00513276
16516.4	-0.0047857
16526.7	-0.00443601
16537.1	-0.00408386
16547.4	-0.00372944
16557.8	-0.00337293
16568.1	-0.00301453
16578.5	-0.00265442
16588.8	-0.00229279
16599.1	-0.00192984
16609.5	-0.00156575
16619.8	-0.00120073
16630.2	-0.000834953
16640.5	-0.000468626
16650.8	-0.000101939
16661.2	0.000264913
16671.5	0.000631736
16681.9	0.000998337
16692.2	0.00136452
16702.6	0.0017301
16712.9	0.00209488
16723.2	0.00245868
16733.6	0.00282129
16743.9	0.00318254
16754.3	0.00354224
16764.6	0.0039002
16775	0.00425624
16785.3	0.00461018
16795.6	0.00496183
16806	0.00531104
16816.3	0.00565761
16826.7	0.00600138
16837	0.00634218
16847.3	0.00667983
16857.7	0.00701419
16868	0.00734508
16878.4	0.00767235
16888.7	0.00799585
16899.1	0.00831541
16909.4	0.0086309
16919.7	0.00894218
16930.1	0.00924908
16940.4	0.0095515
16950.8	0.00984927
16961.1	0.0101423
16971.5	0.0104304
16981.8	0.0107135
16992.1	0.0109915
17002.5	0.0112643
17012.8	0.0115317
17023.2	0.0117936
17033.5	0.01205
17043.8	0.0123007
17054.2	0.0125456
17064.5	0.0127848
17074.9	0.013018
17085.2	0.0132451
17095.6	0.0134662
17105.9	0.0136812
17116.2	0.0138899
17126.6	0.0140924
17136.9	0.0142884
17147.3	0.0144781
17157.6	0.0146614
17168	0.0148381
17178.3	0.0150083
17188.6	0.015172
17199	0.015329
17209.3	0.0154794
17219.7	0.0156231
17230	0.0157602
17240.4	0.0158905
17250.7	0.0160141
17261	0.016131
17271.4	0.0162412
17281.7	0.0163446
17292.1	0.0164414
17302.4	0.0165314
17312.7	0.0166146
17323.1	0.0166912
17333.4	0.0167611
17343.8	0.0168244
17354.1	0.016881
17364.5	0.016931
17374.8	0.0169745
17385.1	0.0170114
17395.5	0.0170417
17405.8	0.0170657
17416.2	0.0170832
17426.5	0.0170943
17436.9	0.0170991
17447.2	0.0170976
17457.5	0.0170899
17467.9	0.017076
17478.2	0.0170561
17488.6	0.01703
17498.9	0.016998
17509.2	0.0169601
17519.6	0.0169164
17529.9	0.0168668
17540.3	0.0168116
17550.6	0.0167507
17561	0.0166842
17571.3	0.0166123
17581.6	0.016535
17592	0.0164523
17602.3	0.0163645
17612.7	0.0162714
17623	0.0161733
17633.4	0.0160702
17643.7	0.0159622
17654	0.0158494
17664.4	0.0157318
17674.7	0.0156096
17685.1	0.0154829
17695.4	0.0153517
17705.7	0.0152161
17716.1	0.0150763
17726.4	0.0149323
17736.8	0.0147842
17747.1	0.0146321
17757.5	0.0144761
17767.8	0.0143163
17778.1	0.0141528
17788.5	0.0139857
17798.8	0.013815
17809.2	0.0136409
17819.5	0.0134635
17829.9	0.0132828
17840.2	0.0130989
17850.5	0.012912
17860.9	0.0127222
17871.2	0.0125295
17881.6	0.012334
17891.9	0.0121358
17902.2	0.011935
17912.6	0.0117317
17922.9	0.011526
17933.3	0.0113179
17943.6	0.0111077
17954	0.0108953
17964.3	0.0106808
17974.6	0.0104644
17985	0.0102461
17995.3	0.010026
18005.7	0.00980417
18016	0.00958074
18026.4	0.00935577
18036.7	0.00912935
18047	0.00890155
18057.4	0.00867247
18067.7	0.00844217
18078.1	0.00821075
18088.4	0.00797828
18098.8	0.00774485
18109.1	0.00751052
18119.4	0.00727537
18129.8	0.00703949
18140.1	0.00680295
18150.5	0.00656582
18160.8	0.00632818
18171.1	0.00609009
18181.5	0.00585164
18191.8	0.00561288
18202.2	0.0053739
18212.5	0.00513477
18222.9	0.00489554
18233.2	0.00465629
18243.5	0.00441709
18253.9	0.004178
18264.2	0.00393908
18274.6	0.00370041
18284.9	0.00346204
18295.3	0.00322405
18305.6	0.00298648
18315.9	0.0027494
18326.3	0.00251287
18336.6	0.00227696
18347	0.00204171
18357.3	0.00180719
18367.6	0.00157346
18378	0.00134058
18388.3	0.00110859
18398.7	0.000877548
18409	0.000647519
18419.4	0.000418552
18429.7	0.000190699
18440	-3.5988e-05
18450.4	-0.000261456
18460.7	-0.000485656
18471.1	-0.000708536
18481.4	-0.000930048
18491.8	-0.00115014
18502.1	-0.00136877
18512.4	-0.00158589
18522.8	-0.00180145
18533.1	-0.0020154
18543.5	-0.0022277
18553.8	-0.0024383
18564.1	-0.00264717
18574.5	-0.00285425
18584.8	-0.00305951
18595.2	-0.0032629
18605.5	-0.00346438
18615.9	-0.00366391
18626.2	-0.00386145
18636.5	-0.00405696
18646.9	-0.0042504
18657.2	-0.00444173
18667.6	-0.00463093
18677.9	-0.00481794
18688.3	-0.00500274
18698.6	-0.00518528
18708.9	-0.00536554
18719.3	-0.00554348
18729.6	-0.00571907
18740	-0.00589227
18750.3	-0.00606305
18760.6	-0.00623138
18771	-0.00639724
18781.3	-0.00656058
18791.7	-0.00672139
18802	-0.00687963
18812.4	-0.00703528
18822.7	-0.00718831
18833	-0.0073387
18843.4	-0.00748641
18853.7	-0.00763143
18864.1	-0.00777373
18874.4	-0.00791329
18884.8	-0.00805009
18895.1	-0.00818411
18905.4	-0.00831532
18915.8	-0.00844371
18926.1	-0.00856926
18936.5	-0.00869195
18946.8	-0.00881176
18957.2	-0.00892869
18967.5	-0.00904271
18977.8	-0.0091538
18988.2	-0.00926197
18998.5	-0.00936719
19008.9	-0.00946946
19019.2	-0.00956876
19029.5	-0.00966508
19039.9	-0.00975843
19050.2	-0.00984878
19060.6	-0.00993613
19070.9	-0.0100205
19081.3	-0.0101018
19091.6	-0.0101802
19101.9	-0.0102555
19112.3	-0.0103278
19122.6	-0.0103971
19133	-0.0104634
19143.3	-0.0105266
19153.7	-0.0105869
19164	-0.0106441
19174.3	-0.0106984
19184.7	-0.0107496
19195	-0.0107979
19205.4	-0.0108432
19215.7	-0.0108855
19226	-0.0109248
19236.4	-0.0109612
19246.7	-0.0109946
19257.1	-0.0110252
19267.4	-0.0110528
19277.8	-0.0110775
19288.1	-0.0110993
19298.4	-0.0111182
19308.8	-0.0111343
19319.1	-0.0111476
19329.5	-0.011158
19339.8	-0.0111657
19350.2	-0.0111705
19360.5	-0.0111727
19370.8	-0.0111721
19381.2	-0.0111688
19391.5	-0.0111628
19401.9	-0.0111541
19412.2	-0.0111429
19422.5	-0.011129
19432.9	-0.0111125
19443.2	-0.0110936
19453.6	-0.011072
19463.9	-0.0110481
19474.3	-0.0110216
19484.6	-0.0109927
19494.9	-0.0109615
19505.3	-0.0109279
19515.6	-0.0108919
19526	-0.0108537
19536.3	-0.0108132
19546.7	-0.0107705
19557	-0.0107256
19567.3	-0.0106786
19577.7	-0.0106294
19588	-0.0105782
19598.4	-0.0105249
19608.7	-0.0104697
19619	-0.0104125
19629.4	-0.0103533
19639.7	-0.0102923
19650.1	-0.0102295
19660.4	-0.0101648
19670.8	-0.0100984
19681.1	-0.0100303
19691.4	-0.00996051
19701.8	-0.00988907
19712.1	-0.00981604
19722.5	-0.00974145
19732.8	-0.00966536
19743.2	-0.00958779
19753.5	-0.0095088
19763.8	-0.00942842
19774.2	-0.0093467
19784.5	-0.00926367
19794.9	-0.00917939
19805.2	-0.00909389
19815.6	-0.00900722
19825.9	-0.00891941
19836.2	-0.00883051
19846.6	-0.00874057
19856.9	-0.00864961
19867.3	-0.00855769
19877.6	-0.00846484
19887.9	-0.00837111
19898.3	-0.00827653
19908.6	-0.00818115
19919	-0.00808501
19929.3	-0.00798814
19939.7	-0.00789059
19950	-0.0077924
19960.3	-0.00769361
19970.7	-0.00759424
19981	-0.00749435
19991.4	-0.00739397
