0	0
11.0308	0
20.2231	0
31.254	0
40.4463	0
51.4771	0
60.6694	0
71.7003	0
80.8926	0
90.0849	0
101.116	0
110.308	0
121.339	0
130.531	0
141.562	0
150.754	0
161.785	0
170.978	0
180.17	0
191.201	0
200.393	0
211.424	0
220.616	0
231.647	0
240.839	0
250.032	0
261.062	0
270.255	0
281.286	0
290.478	0
301.509	0
310.701	0
321.732	0
330.924	0
340.117	0
351.147	0
360.34	0
371.371	0
380.563	0
391.594	0
400.786	0
411.817	0
421.009	0
430.202	0
441.232	0
450.425	0
461.456	0
470.648	0
481.679	0
490.871	0
500.063	0
511.094	0
520.286	0
531.317	0
540.51	0
551.54	0
560.733	0
571.764	0
580.956	0
590.148	0
601.179	0
610.371	0
621.402	0
630.595	0
641.625	0
650.818	0
660.01	0
671.041	0
680.233	0
691.264	0
700.456	0
711.487	0
720.68	0
731.71	0
740.903	0
750.095	0
761.126	0
770.318	0
781.349	0
790.541	0
801.572	0
810.764	0
821.795	0
830.988	0
840.18	0
851.211	0
860.403	0
871.434	0
880.626	0
891.657	0
900.849	0
910.042	0
921.073	0
930.265	0
941.296	0
950.488	0
961.519	0
970.711	0
981.742	0
990.934	0
1000.13	0
1011.16	0
1020.35	0
1031.38	0
1040.57	0
1051.6	0
1060.8	0
1071.83	0
1081.02	0
1090.21	0
1101.24	0
1110.43	0
1121.47	0
1130.66	0
1141.69	0
1150.88	0
1160.07	0
1171.1	0
1180.3	0
1191.33	0
1200.52	0
1211.55	0
1220.74	0
1231.77	0
1240.97	0
1250.16	0
1261.19	0
1270.38	0
1281.41	0
1290.6	0
1301.64	0
1310.83	0
1320.02	0
1331.05	0
1340.24	0
1351.27	0
1360.47	0
1371.5	0
1380.69	0
1391.72	0
1400.91	0
1410.11	0
1421.14	0
1430.33	0
1441.36	0
1450.55	0
1461.58	0
1470.77	0
1481.81	0
1491	0
1500.19	0
1511.22	0
1520.41	0
1531.44	0
1540.64	0
1551.67	0
1560.86	0
1570.05	0
1581.08	0
1590.27	0
1601.31	0
1610.5	0
1621.53	0
1630.72	0
1641.75	0
1650.94	0
1660.14	0
1671.17	0
1680.36	0
1691.39	0
1700.58	0
1711.61	0
1720.81	0
1731.84	0
1741.03	0
1750.22	0
1761.25	0
1770.44	0
1781.48	0
1790.67	0
1801.7	0
1810.89	0
1820.08	0
1831.11	0
1840.31	0
1851.34	0
1860.53	0
1871.56	0
1880.75	0
1891.78	0
1900.98	0
1910.17	0
1921.2	0
1930.39	0
1941.42	0
1950.61	0
1961.65	0
1970.84	0
1980.03	0
1991.06	0
2000.25	0
2011.28	0
2020.48	0
2031.51	0
2040.7	0
2051.73	0
2060.92	0
2070.12	0
2081.15	0
2090.34	0
2101.37	0
2110.56	0
2121.59	0
2130.78	0
2141.82	0
2151.01	0
2160.2	0
2171.23	0
2180.42	0
2191.45	0
2200.65	0
2211.68	0
2220.87	0
2230.06	0
2241.09	0
2250.28	0
2261.32	0
2270.51	0
2281.54	0
2290.73	0
2301.76	0
2310.95	0
2320.15	0
2331.18	0
2340.37	0
2351.4	0
2360.59	0
2371.62	0
2380.82	0
2390.01	0
2401.04	0
2410.23	0
2421.26	0
2430.45	0
2441.49	0
2450.68	0
2461.71	0
2470.9	0
2480.09	0
2491.12	0
2500.32	0
2511.35	0
2520.54	0
2531.57	0
2540.76	0
2551.79	0
2560.99	0
2570.18	0
2581.21	0
2590.4	0
2601.43	0
2610.62	0
2621.66	0
2630.85	0
2640.04	0
2651.07	0
2660.26	0
2671.29	0
2680.49	0
2691.52	0
2700.71	0
2711.74	0
2720.93	0
2730.12	0
2741.16	0
2750.35	0
2761.38	0
2770.57	0
2781.6	0
2790.79	0
2801.83	0
2811.02	0
2820.21	0
2831.24	0
2840.43	0
2851.46	0
2860.66	0
2871.69	0
2880.88	0
2890.07	0
2901.1	0
2910.29	0
2921.32	0
2930.52	0
2941.55	0
2950.74	0
2961.77	0
2970.96	0
2980.16	0
2991.19	0
3000.38	0
3011.41	0
3020.6	0
3031.63	-9.09495e-13
3040.82	-4.54747e-12
3050.02	-8.18545e-12
3061.05	-1.27329e-11
3070.24	-1.72804e-11
3081.27	-2.27374e-11
3090.46	-2.72848e-11
3101.49	-3.27418e-11
3110.69	-3.81988e-11
3121.72	-5.00222e-11
3130.91	-6.45741e-11
3140.1	-8.4583e-11
3151.13	-1.22782e-10
3160.32	-1.70985e-10
3171.35	-2.59206e-10
3180.55	-3.67436e-10
3191.58	-5.59339e-10
3200.77	-7.90351e-10
3211.8	-1.19508e-09
3220.99	-1.67984e-09
3230.18	-2.34922e-09
3241.21	-3.49246e-09
3250.41	-4.83124e-09
3261.44	-7.08678e-09
3270.63	-9.69794e-09
3281.66	-1.40353e-08
3290.85	-1.89921e-08
3300.04	-2.55704e-08
3311.07	-3.62979e-08
3320.27	-4.83396e-08
3331.3	-6.77319e-08
3340.49	-8.92414e-08
3351.52	-1.23465e-07
3360.71	-1.60975e-07
3371.74	-2.19956e-07
3380.93	-2.83865e-07
3390.13	-3.64677e-07
3401.16	-4.89642e-07
3410.35	-6.22867e-07
3421.38	-8.26606e-07
3430.57	-1.04148e-06
3441.6	-1.36653e-06
3450.79	-1.70575e-06
3461.83	-2.21356e-06
3471.02	-2.73808e-06
3480.21	-3.37324e-06
3491.24	-4.3101e-06
3500.43	-5.26398e-06
3511.46	-6.65722e-06
3520.65	-8.06231e-06
3531.68	-1.00952e-05
3540.88	-1.21266e-05
3550.07	-1.4514e-05
3561.1	-1.79228e-05
3570.29	-2.12853e-05
3581.32	-2.60447e-05
3590.51	-3.07e-05
3601.54	-3.7234e-05
3610.74	-4.35732e-05
3621.77	-5.23995e-05
3630.96	-6.08959e-05
3640.15	-7.0553e-05
3651.18	-8.38502e-05
3660.37	-9.6513e-05
3671.4	-0.000113823
3680.59	-0.000130192
3691.62	-0.000152415
3700.82	-0.00017329
3710.01	-0.000196505
3721.04	-0.000227726
3730.23	-0.000256786
3741.26	-0.000295633
3750.45	-0.00033158
3761.48	-0.000379357
3770.68	-0.000423322
3781.71	-0.000481439
3790.9	-0.000534639
3800.09	-0.000592459
3811.12	-0.000668328
3820.31	-0.000737284
3831.34	-0.000827336
3840.53	-0.000908808
3851.56	-0.00101473
3860.76	-0.00111014
3871.79	-0.00123366
3880.98	-0.00134446
3890.17	-0.00146274
3901.2	-0.00161496
3910.39	-0.00175074
3921.42	-0.00192483
3930.62	-0.00207952
3941.65	-0.00227713
3950.84	-0.0024521
3960.03	-0.0026367
3971.06	-0.00287129
3980.25	-0.00307795
3991.28	-0.00333967
4000.47	-0.00356942
4011.51	-0.00385939
4020.7	-0.00411308
4031.73	-0.00443216
4040.92	-0.00471036
4050.11	-0.00499982
4061.14	-0.00536203
4070.33	-0.00567624
4081.37	-0.00606801
4090.56	-0.00640663
4101.59	-0.00682725
4110.78	-0.0071894
4121.81	-0.00763746
4131	-0.00802163
4140.19	-0.00841511
4151.23	-0.0088988
4160.42	-0.00931072
4171.45	-0.0098145
4180.64	-0.0102412
4191.67	-0.01076
4200.86	-0.0111966
4210.06	-0.0116358
4221.09	-0.0121642
4230.28	-0.0126037
4241.31	-0.0131275
4250.5	-0.0135585
4261.53	-0.014066
4270.72	-0.0144778
4281.76	-0.0149546
4290.95	-0.015334
4300.14	-0.0156934
4311.17	-0.0160935
4320.36	-0.0163963
4331.39	-0.0167165
4340.59	-0.0169422
4351.62	-0.017156
4360.81	-0.0172805
4370	-0.0173502
4381.03	-0.0173528
4390.22	-0.01728
4401.26	-0.0170923
4410.45	-0.0168438
4421.48	-0.0164238
4430.67	-0.0159629
4441.7	-0.0152642
4450.89	-0.0145504
4460.09	-0.0137077
4471.12	-0.0125131
4480.31	-0.0113539
4491.34	-0.00975197
4500.53	-0.00823001
4511.56	-0.00616466
4520.76	-0.00423298
4531.79	-0.00164795
4540.98	0.000739837
4550.17	0.00334978
4561.2	0.00678741
4570.39	0.00991674
4581.42	0.0140013
4590.62	0.0176882
4601.65	0.0224618
4610.84	0.0267379
4620.03	0.03129
4631.06	0.0371225
4640.25	0.0422946
4651.29	0.0488778
4660.48	0.0546782
4671.51	0.062015
4680.7	0.06844
4691.73	0.0765181
4700.92	0.0835507
4710.12	0.0908503
4721.15	0.0999511
4730.34	0.107809
4741.37	0.117551
4750.56	0.125915
4761.59	0.136228
4770.78	0.145033
4781.82	0.15583
4791.01	0.164999
4800.2	0.174303
4811.23	0.185619
4820.42	0.19515
4831.45	0.206676
4840.65	0.216328
4851.68	0.227932
4860.87	0.23759
4870.06	0.247212
4881.09	0.258674
4890.28	0.268124
4901.31	0.279305
4910.51	0.288457
4921.54	0.299203
4930.73	0.307929
4941.76	0.318086
4950.95	0.326259
4960.15	0.334138
4971.18	0.34317
4980.37	0.350316
4991.4	0.358399
5000.59	0.364697
5011.62	0.371696
5020.81	0.377039
5030.01	0.381916
5041.04	0.387127
5050.23	0.390915
5061.26	0.394771
5070.45	0.397394
5081.48	0.399816
5090.68	0.401216
5101.71	0.402142
5110.9	0.402277
5120.09	0.401828
5131.12	0.400516
5140.31	0.398777
5151.34	0.395916
5160.54	0.392891
5171.57	0.388499
5180.76	0.384214
5191.79	0.378335
5200.98	0.372834
5210.18	0.366799
5221.21	0.358874
5230.4	0.351718
5241.43	0.342495
5250.62	0.334301
5261.65	0.323889
5270.84	0.314753
5280.04	0.305224
5291.07	0.2933
5300.26	0.282985
5311.29	0.270185
5320.48	0.259198
5331.51	0.245662
5340.71	0.234119
5351.74	0.219988
5360.93	0.208008
5370.12	0.195868
5381.15	0.181121
5390.34	0.168711
5401.37	0.153708
5410.57	0.141139
5421.6	0.126011
5430.79	0.11339
5441.82	0.0982618
5451.01	0.0856919
5460.21	0.0731775
5471.24	0.0582611
5480.43	0.0459377
5491.46	0.0313064
5500.65	0.0192661
5511.68	0.00502823
5520.87	-0.00663996
5530.07	-0.0181103
5541.1	-0.0315886
5550.29	-0.0425618
5561.32	-0.055393
5570.51	-0.0657854
5581.54	-0.0778706
5590.74	-0.0876009
5601.77	-0.0988441
5610.96	-0.107834
5620.15	-0.116462
5631.18	-0.126318
5640.37	-0.134099
5651.4	-0.142897
5660.6	-0.149765
5671.63	-0.157432
5680.82	-0.163329
5690.01	-0.16877
5701.04	-0.174683
5710.24	-0.179089
5721.27	-0.183744
5730.46	-0.187089
5741.49	-0.190462
5750.68	-0.192737
5761.71	-0.194825
5770.9	-0.196036
5780.1	-0.19677
5791.13	-0.197032
5800.32	-0.196745
5811.35	-0.195811
5820.54	-0.194557
5831.57	-0.192502
5840.77	-0.190352
5851.8	-0.187272
5860.99	-0.184313
5870.18	-0.181019
5881.21	-0.176656
5890.4	-0.172707
5901.44	-0.167627
5910.63	-0.163139
5921.66	-0.157487
5930.85	-0.152586
5940.04	-0.14754
5951.07	-0.141329
5960.27	-0.136055
5971.3	-0.129648
5980.49	-0.124274
5991.52	-0.11782
6000.71	-0.112465
6011.74	-0.106104
6020.93	-0.100882
6030.13	-0.0957554
6041.16	-0.0897556
6050.35	-0.0849046
6061.38	-0.0792875
6070.57	-0.0747946
6081.6	-0.0696497
6090.8	-0.065582
6101.83	-0.0609803
6111.02	-0.0573888
6120.21	-0.0540265
6131.24	-0.0503022
6140.43	-0.0474622
6151.47	-0.0443744
6160.66	-0.0420694
6171.69	-0.0396247
6180.88	-0.037853
6190.07	-0.0363197
6201.1	-0.0347881
6210.3	-0.0337626
6221.33	-0.0328232
6230.52	-0.0322744
6241.55	-0.0318842
6250.74	-0.0317719
6261.77	-0.0318781
6270.97	-0.0321551
6280.16	-0.032592
6291.19	-0.0333114
6300.38	-0.03406
6311.41	-0.0351197
6320.6	-0.0361235
6331.63	-0.0374551
6340.83	-0.0386569
6350.02	-0.0399301
6361.05	-0.0415361
6370.24	-0.0429265
6381.27	-0.0446416
6390.47	-0.0460975
6401.5	-0.047862
6410.69	-0.0493361
6421.72	-0.0510963
6430.91	-0.0525465
6440.1	-0.0539735
6451.13	-0.0556458
6460.33	-0.0569987
6471.36	-0.0585652
6480.55	-0.0598173
6491.58	-0.0612499
6500.77	-0.0623813
6511.8	-0.0636597
6521	-0.0646564
6530.19	-0.0655889
6541.22	-0.0666217
6550.41	-0.0674096
6561.44	-0.0682676
6570.63	-0.0689101
6581.67	-0.069595
6590.86	-0.0700951
6600.05	-0.0705326
6611.08	-0.0709768
6620.27	-0.0712817
6631.3	-0.0715722
6640.5	-0.0717539
6651.53	-0.0719023
6660.72	-0.0719707
6671.75	-0.0719894
6680.94	-0.0719546
6690.13	-0.0718764
6701.17	-0.0717277
6710.36	-0.0715604
6721.39	-0.0713101
6730.58	-0.071062
6741.61	-0.0707193
6750.8	-0.0703975
6761.83	-0.0699698
6771.03	-0.0695799
6780.22	-0.0691604
6791.25	-0.068619
6800.44	-0.0681367
6811.47	-0.0675214
6820.67	-0.0669787
6831.7	-0.0662916
6840.89	-0.0656895
6850.08	-0.0650607
6861.11	-0.0642709
6870.3	-0.0635835
6881.33	-0.0627235
6890.53	-0.0619777
6901.56	-0.0610479
6910.75	-0.0602442
6921.78	-0.0592453
6930.97	-0.0583845
6940.17	-0.0574982
6951.2	-0.0564016
6960.39	-0.0554609
6971.42	-0.0543005
6980.61	-0.0533082
6991.64	-0.0520882
7000.83	-0.0510483
7010.03	-0.0499884
7021.06	-0.0486917
7030.25	-0.0475918
7041.28	-0.0462508
7050.47	-0.0451173
7061.5	-0.0437403
7070.7	-0.0425804
7081.73	-0.0411763
7090.92	-0.0399978
7100.11	-0.0388135
7111.14	-0.0373872
7120.33	-0.0361962
7131.37	-0.0347666
7140.56	-0.0335771
7151.59	-0.0321541
7160.78	-0.030974
7171.81	-0.0295669
7181	-0.0284037
7190.2	-0.0272505
7201.23	-0.0258818
7210.42	-0.0247552
7221.45	-0.0234218
7230.64	-0.0223274
7241.67	-0.0210355
7250.87	-0.0199778
7260.06	-0.018938
7271.09	-0.0177148
7280.28	-0.0167165
7291.31	-0.0155444
7300.5	-0.0145895
7311.53	-0.0134703
7320.73	-0.0125599
7331.76	-0.0114942
7340.95	-0.0106283
7350.14	-0.00978248
7361.17	-0.0087937
7370.36	-0.00799126
7381.4	-0.00705372
7390.59	-0.00629319
7401.62	-0.00540492
7410.81	-0.00468452
7420	-0.00398173
7431.03	-0.00316107
7440.23	-0.00249561
7451.26	-0.00171863
7460.45	-0.00108869
7471.48	-0.000353352
7480.67	0.000242608
7491.7	0.000937926
7500.89	0.00150105
7510.09	0.00204949
7521.12	0.00268835
7530.31	0.0032047
7541.34	0.00380501
7550.53	0.00428906
7561.56	0.00485021
7570.76	0.00530115
7581.79	0.00582182
7590.98	0.00623826
7600.17	0.00663841
7611.2	0.00709647
7620.39	0.00745917
7631.42	0.00787082
7640.62	0.00819354
7651.65	0.00855554
7660.84	0.00883544
7670.03	0.0090949
7681.06	0.00937838
7690.26	0.00959066
7701.29	0.00981571
7710.48	0.00997782
7721.51	0.010141
7730.7	0.0102501
7741.73	0.0103481
7750.92	0.0104017
7760.12	0.0104294
7771.15	0.0104277
7780.34	0.010397
7791.37	0.0103243
7800.56	0.0102337
7811.59	0.0100887
7820.78	0.00993753
7831.82	0.0097196
7841.01	0.00950762
7850.2	0.00926813
7861.23	0.00894465
7870.42	0.00864526
7881.45	0.00825063
7890.65	0.0078927
7901.68	0.00742891
7910.87	0.00701439
7920.06	0.00657493
7931.09	0.00601544
7940.28	0.00552313
7951.31	0.00490203
7960.51	0.00435998
7971.54	0.00368123
7980.73	0.00309292
7991.76	0.0023609
8000.95	0.0017301
8010.15	0.0010813
8021.18	0.00028016
8030.37	-0.000405268
8041.4	-0.00124786
8050.59	-0.00196571
8061.62	-0.00284466
8070.81	-0.00359067
8080.01	-0.00434806
8091.04	-0.0052707
8100.23	-0.00604999
8111.26	-0.00699634
8120.45	-0.00779327
8131.48	-0.00875824
8140.68	-0.00956858
8151.71	-0.0105472
8160.9	-0.0113668
8170.09	-0.0121893
8181.12	-0.0131789
8190.31	-0.0140048
8201.34	-0.0149962
8210.54	-0.0158216
8221.57	-0.0168102
8230.76	-0.0176314
8241.79	-0.0186126
8250.98	-0.0194259
8260.18	-0.0202344
8271.21	-0.0211973
8280.4	-0.0219928
8291.43	-0.0229381
8300.62	-0.0237172
8311.65	-0.0246408
8320.84	-0.0254002
8330.04	-0.0261497
8341.07	-0.0270349
8350.26	-0.0277601
8361.29	-0.0286144
8370.48	-0.0293122
8381.51	-0.0301319
8390.71	-0.0307995
8401.74	-0.031581
8410.93	-0.0322153
8420.12	-0.0328334
8431.15	-0.0335531
8440.34	-0.0341336
8451.38	-0.0348064
8460.57	-0.0353463
8471.6	-0.0359685
8480.79	-0.0364648
8491.82	-0.0370328
8501.01	-0.0374823
8510.21	-0.0379095
8521.24	-0.0383918
8530.43	-0.0387675
8541.46	-0.0391859
8550.65	-0.0395067
8561.68	-0.0398572
8570.88	-0.0401197
8580.07	-0.0403545
8591.1	-0.0405987
8600.29	-0.0407699
8611.32	-0.0409357
8620.51	-0.0410398
8631.54	-0.0411228
8640.74	-0.0411561
8651.77	-0.041152
8660.96	-0.041111
8670.15	-0.0410351
8681.18	-0.040897
8690.38	-0.0407418
8701.41	-0.0405068
8710.6	-0.0402693
8721.63	-0.0399338
8730.82	-0.0396114
8740.01	-0.0392496
8751.05	-0.0387627
8760.24	-0.0383127
8771.27	-0.0377191
8780.46	-0.0371794
8791.49	-0.0364775
8800.68	-0.0358473
8811.71	-0.0350366
8820.91	-0.0343157
8830.1	-0.0335538
8841.13	-0.0325856
8850.32	-0.0317342
8861.35	-0.0306598
8870.55	-0.0297208
8881.58	-0.0285428
8890.77	-0.0275191
8901.8	-0.0262414
8910.99	-0.0251366
8920.18	-0.0239963
8931.21	-0.0225827
8940.41	-0.0213682
8951.44	-0.0198688
8960.63	-0.0185858
8971.66	-0.017008
8980.85	-0.015663
8990.05	-0.0142923
9001.08	-0.0126155
9010.27	-0.0111936
9021.3	-0.00946017
9030.49	-0.00799518
9041.52	-0.00621524
9050.71	-0.00471582
9061.75	-0.00289994
9070.94	-0.0013751
9080.13	0.000158238
9091.16	0.00200673
9100.35	0.00355194
9111.38	0.005409
9120.58	0.00695661
9131.61	0.00881089
9140.8	0.0103515
9151.83	0.0121917
9161.02	0.0137159
9170.21	0.0152296
9181.25	0.0170297
9190.44	0.018514
9201.47	0.0202735
9210.66	0.0217198
9221.69	0.0234287
9230.88	0.0248288
9240.08	0.0262053
9251.11	0.027824
9260.3	0.0291436
9271.33	0.0306898
9280.52	0.0319457
9291.55	0.0334118
9300.75	0.034598
9311.78	0.0359772
9320.97	0.0370884
9330.16	0.038164
9341.19	0.0394065
9350.38	0.0404007
9361.41	0.0415434
9370.61	0.0424528
9381.64	0.0434919
9390.83	0.0443138
9400.02	0.0450953
9411.05	0.0459791
9420.25	0.0466704
9431.28	0.0474456
9440.47	0.0480459
9451.5	0.0487117
9460.69	0.049221
9471.72	0.0497776
9480.91	0.0501963
9490.11	0.0505742
9501.14	0.0509742
9510.33	0.0512634
9521.36	0.0515581
9530.55	0.0517607
9541.58	0.0519531
9550.78	0.0520717
9561.81	0.0521651
9571	0.0522029
9580.19	0.0522052
9591.22	0.052162
9600.42	0.0520888
9611.45	0.0519575
9620.64	0.051813
9631.67	0.0515989
9640.86	0.0513877
9650.05	0.0511477
9661.08	0.0508231
9670.28	0.0505234
9681.31	0.0501303
9690.5	0.0497759
9701.53	0.0493203
9710.72	0.0489166
9721.75	0.0484049
9730.95	0.047957
9740.14	0.0474908
9751.17	0.0469087
9760.36	0.0464059
9771.39	0.0457831
9780.58	0.0452489
9791.62	0.0445912
9800.81	0.0440305
9810	0.0434593
9821.03	0.0427614
9830.22	0.0421704
9841.25	0.0414512
9850.45	0.0408446
9861.48	0.0401091
9870.67	0.0394907
9881.7	0.0387431
9890.89	0.0381164
9900.09	0.0374868
9911.12	0.0367285
9920.31	0.0360947
9931.34	0.0353326
9940.53	0.0346968
9951.56	0.0339335
9960.75	0.0332974
9971.79	0.0325346
9980.98	0.0318995
9990.17	0.0312651
10001.2	0.030505
10010.4	0.0298725
10021.4	0.0291148
10030.6	0.0284843
10041.6	0.0277288
10050.8	0.0271001
10060	0.0264719
10071.1	0.0257186
10080.3	0.0250911
10091.3	0.0243379
10100.5	0.0237099
10111.5	0.0229554
10120.7	0.0223256
10131.7	0.0215681
10140.9	0.0209351
10150.1	0.0203001
10161.1	0.019535
10170.3	0.0188945
10181.4	0.0181219
10190.6	0.0174743
10201.6	0.0166923
10210.8	0.0160362
10221.8	0.0152431
10231	0.014577
10240.2	0.013906
10251.2	0.013094
10260.4	0.0124114
10271.5	0.0115849
10280.6	0.0108898
10291.7	0.0100479
10300.9	0.0093398
10310.1	0.00862561
10321.1	0.00776056
10330.3	0.00703301
10341.3	0.00615199
10350.5	0.00541126
10361.5	0.00451471
10370.7	0.00376136
10381.8	0.00285013
10391	0.00208503
10400.1	0.00131498
10411.2	0.000384784
10420.4	-0.000395112
10431.4	-0.00133614
10440.6	-0.00212418
10451.6	-0.00307381
10460.8	-0.00386798
10470	-0.0046642
10481	-0.00562167
10490.2	-0.00642063
10501.3	-0.00737985
10510.5	-0.00817894
10521.5	-0.00913667
10530.7	-0.0099331
10541.7	-0.0108859
10550.9	-0.0116768
10560.1	-0.0124641
10571.1	-0.0134034
10580.3	-0.0141808
10591.3	-0.0151064
10600.5	-0.0158709
10611.6	-0.0167792
10620.8	-0.0175279
10631.8	-0.0184155
10641	-0.0191455
10650.2	-0.0198662
10661.2	-0.0207179
10670.4	-0.0214163
10681.4	-0.0222398
10690.6	-0.0229135
10701.7	-0.0237064
10710.8	-0.0243536
10720	-0.0249883
10731.1	-0.025733
10740.3	-0.0263391
10751.3	-0.0270488
10760.5	-0.0276254
10771.5	-0.0282993
10780.7	-0.0288459
10791.7	-0.0294838
10800.9	-0.0300004
10810.1	-0.0305035
10821.2	-0.0310895
10830.3	-0.0315634
10841.4	-0.0321151
10850.6	-0.0325609
10861.6	-0.0330798
10870.8	-0.0334992
10881.8	-0.0339875
10891	-0.0343823
10900.2	-0.0347668
10911.2	-0.0352153
10920.4	-0.0355788
10931.5	-0.0360036
10940.7	-0.0363489
10951.7	-0.0367536
10960.9	-0.0370836
10970.1	-0.0374077
10981.1	-0.0377898
10990.3	-0.0381032
11001.3	-0.0384743
11010.5	-0.0387803
11021.5	-0.0391443
11030.7	-0.039446
11041.8	-0.0398068
11051	-0.0401072
11060.2	-0.040408
11071.2	-0.0407704
11080.4	-0.0410742
11091.4	-0.0414417
11100.6	-0.0417509
11111.6	-0.0421264
11120.8	-0.0424434
11130	-0.0427645
11141	-0.0431559
11150.2	-0.0434874
11161.3	-0.043892
11170.5	-0.0442352
11181.5	-0.0446544
11190.7	-0.0450101
11201.7	-0.0454448
11210.9	-0.0458136
11220.1	-0.0461884
11231.1	-0.0466461
11240.3	-0.0470339
11251.4	-0.047507
11260.5	-0.0479074
11271.6	-0.048395
11280.8	-0.0488071
11291.8	-0.0493081
11301	-0.0497308
11310.2	-0.0501577
11321.2	-0.0506753
11330.4	-0.0511106
11341.4	-0.0516371
11350.6	-0.0520789
11361.7	-0.052612
11370.9	-0.0530584
11380	-0.0535061
11391.1	-0.0540446
11400.3	-0.0544938
11411.3	-0.0550328
11420.5	-0.0554814
11431.5	-0.0560182
11440.7	-0.0564639
11451.7	-0.0569959
11460.9	-0.0574365
11470.1	-0.057874
11481.2	-0.0583945
11490.4	-0.0588239
11501.4	-0.0593333
11510.6	-0.0597524
11521.6	-0.0602484
11530.8	-0.0606554
11541.8	-0.0611356
11551	-0.0615285
11560.2	-0.0619144
11571.2	-0.0623679
11580.4	-0.0627372
11591.5	-0.0631697
11600.7	-0.0635207
11611.7	-0.0639303
11620.9	-0.0642614
11630.1	-0.064583
11641.1	-0.0649559
11650.3	-0.0652553
11661.3	-0.0656006
11670.5	-0.0658763
11681.6	-0.0661923
11690.7	-0.0664428
11701.8	-0.0667275
11711	-0.0669512
11720.2	-0.0671622
11731.2	-0.0673982
11740.4	-0.0675802
11751.4	-0.0677803
11760.6	-0.0679316
11771.6	-0.068094
11780.8	-0.068213
11790	-0.0683168
11801.1	-0.0684208
11810.2	-0.0684899
11821.3	-0.0685514
11830.5	-0.0685842
11841.5	-0.0686012
11850.7	-0.0685962
11861.7	-0.0685669
11870.9	-0.0685226
11880.1	-0.06846
11891.1	-0.0683602
11900.3	-0.0682563
11911.4	-0.0681063
11920.6	-0.0679599
11931.6	-0.0677583
11940.8	-0.0675685
11951.8	-0.0673144
11961	-0.0670804
11970.2	-0.0668263
11981.2	-0.0664945
11990.4	-0.0661956
12001.4	-0.0658102
12010.6	-0.0654666
12021.7	-0.0650276
12030.9	-0.0646396
12040.1	-0.0642317
12051.1	-0.063716
12060.3	-0.0632647
12071.3	-0.0626976
12080.5	-0.062204
12091.5	-0.0615871
12100.7	-0.0610528
12111.8	-0.0603879
12120.9	-0.0598145
12130.1	-0.059224
12141.2	-0.0584934
12150.4	-0.0578668
12161.4	-0.0570943
12170.6	-0.0564339
12181.6	-0.0556222
12190.8	-0.0549304
12201.8	-0.0540826
12211	-0.053362
12220.2	-0.0526292
12231.3	-0.0517343
12240.4	-0.0509763
12251.5	-0.0500527
12260.7	-0.0492721
12271.7	-0.0483228
12280.9	-0.0475219
12290.1	-0.0467125
12301.1	-0.0457308
12310.3	-0.0449043
12321.3	-0.0439031
12330.5	-0.0430614
12341.6	-0.042043
12350.8	-0.0411877
12361.8	-0.0401538
12371	-0.0392863
12380.2	-0.0384135
12391.2	-0.0373594
12400.4	-0.0364757
12411.4	-0.0354089
12420.6	-0.0345148
12431.6	-0.0334357
12440.8	-0.0325314
12450	-0.0316224
12461.1	-0.0305255
12470.3	-0.0296061
12481.3	-0.0284965
12490.5	-0.0275662
12501.5	-0.0264431
12510.7	-0.0255014
12521.7	-0.0243639
12530.9	-0.0234097
12540.1	-0.0224496
12551.1	-0.0212893
12560.3	-0.0203153
12571.4	-0.0191377
12580.6	-0.0181488
12591.6	-0.0169528
12600.8	-0.015948
12611.8	-0.0147322
12621	-0.0137105
12630.2	-0.0126809
12641.2	-0.0114346
12650.4	-0.0103869
12661.5	-0.00911859
12670.6	-0.00805234
12681.7	-0.00676155
12690.9	-0.00567643
12700.1	-0.00458272
12711.1	-0.00325896
12720.3	-0.00214647
12731.3	-0.000800402
12740.5	0.0003304
12751.5	0.00169801
12760.7	0.00284631
12771.8	0.00423426
12781	0.00539888
12790.1	0.00657044
12801.2	0.00798495
12810.4	0.00917046
12821.4	0.0106005
12830.6	0.0117979
12841.6	0.0132409
12850.8	0.0144477
12860	0.015658
12871	0.017114
12880.2	0.0183297
12891.3	0.0197904
12900.5	0.0210084
12911.5	0.0224698
12920.7	0.0236866
12931.7	0.0251445
12940.9	0.0263567
12950.1	0.0275655
12961.1	0.0290105
12970.3	0.0302092
12981.3	0.0316397
12990.5	0.0328244
13001.6	0.0342359
13010.8	0.0354027
13021.8	0.0367903
13031	0.0379354
13040.2	0.0390693
13051.2	0.0404143
13060.4	0.0415211
13071.4	0.0428312
13080.6	0.0439072
13091.7	0.0451784
13100.8	0.0462202
13110	0.0472455
13121.1	0.048453
13130.3	0.0494396
13141.3	0.0505991
13150.5	0.0515442
13161.5	0.0526525
13170.7	0.0535538
13181.7	0.0546081
13190.9	0.0554635
13200.1	0.0562974
13211.2	0.0572692
13220.3	0.0580548
13231.4	0.0589678
13240.6	0.0597038
13251.6	0.0605569
13260.8	0.0612425
13271.8	0.0620349
13281	0.0626697
13290.2	0.0632815
13301.2	0.063985
13310.4	0.064546
13321.5	0.0651889
13330.7	0.0656996
13341.7	0.0662825
13350.9	0.0667436
13360.1	0.0671826
13371.1	0.0676804
13380.3	0.0680714
13391.3	0.0685126
13400.5	0.0688573
13411.5	0.0692437
13420.7	0.0695435
13431.8	0.0698773
13441	0.0701343
13450.2	0.0703723
13461.2	0.0706337
13470.4	0.0708317
13481.4	0.0710463
13490.6	0.0712065
13501.6	0.0713769
13510.8	0.0715012
13520	0.0716101
13531	0.0717208
13540.2	0.071797
13551.3	0.0718698
13560.5	0.0719154
13571.5	0.0719528
13580.7	0.0719698
13591.7	0.071974
13600.9	0.0719644
13610.1	0.0719432
13621.1	0.0719031
13630.3	0.0718577
13641.4	0.0717894
13650.5	0.0717213
13661.6	0.0716266
13670.8	0.0715372
13681.8	0.0714175
13691	0.0713078
13700.2	0.0711893
13711.2	0.0710356
13720.4	0.0708981
13731.4	0.0707221
13740.6	0.0705664
13751.7	0.0703689
13760.9	0.0701955
13770	0.0700142
13781.1	0.0697863
13790.3	0.0695877
13801.3	0.0693392
13810.5	0.0691236
13821.5	0.0688546
13830.7	0.0686219
13841.7	0.0683325
13850.9	0.0680827
13860.1	0.0678251
13871.2	0.0675057
13880.4	0.0672308
13891.4	0.0668905
13900.6	0.0665982
13911.6	0.0662368
13920.8	0.0659268
13931.8	0.065544
13941	0.0652161
13950.2	0.06488
13961.2	0.0644658
13970.4	0.0641115
13981.5	0.0636754
13990.7	0.0633028
14001.7	0.0628447
14010.9	0.0624537
14020.1	0.0620543
14031.1	0.0615639
14040.3	0.061146
14051.3	0.0606334
14060.5	0.0601969
14071.6	0.0596621
14080.7	0.0592071
14091.8	0.05865
14101	0.0581766
14110.2	0.0576947
14121.2	0.0571054
14130.4	0.0566051
14141.4	0.0559937
14150.6	0.0554751
14161.6	0.0548416
14170.8	0.0543045
14180	0.053759
14191.1	0.0530934
14200.2	0.0525294
14211.3	0.0518415
14220.5	0.0512589
14231.5	0.0505486
14240.7	0.0499471
14251.7	0.049214
14260.9	0.0485935
14270.1	0.0479641
14281.1	0.0471971
14290.3	0.0465479
14301.4	0.0457569
14310.6	0.0450875
14321.6	0.0442717
14330.8	0.0435813
14341.8	0.04274
14351	0.0420279
14360.2	0.0413057
14371.2	0.0404255
14380.4	0.0396804
14391.4	0.0387721
14400.6	0.0380032
14411.7	0.0370658
14420.9	0.036272
14430.1	0.0354667
14441.1	0.0344847
14450.3	0.0336532
14461.3	0.0326391
14470.5	0.0317803
14481.5	0.030733
14490.7	0.0298461
14501.8	0.0287646
14510.9	0.0278487
14520.1	0.0269194
14531.2	0.0257863
14540.4	0.024827
14551.4	0.0236576
14560.6	0.0226678
14571.6	0.0214615
14580.8	0.0204408
14590	0.0194061
14601	0.0181457
14610.2	0.01708
14621.3	0.0157826
14630.4	0.0146861
14641.5	0.0133521
14650.7	0.0122254
14661.7	0.0108556
14670.9	0.00969942
14680.1	0.00853026
14691.1	0.00711045
14700.3	0.0059136
14711.3	0.00446146
14720.5	0.00323852
14731.6	0.00175619
14740.8	0.000509096
14751.8	-0.00100089
14761	-0.00226985
14770.2	-0.0035479
14781.2	-0.00509272
14790.4	-0.00638867
14801.4	-0.00795315
14810.6	-0.00926387
14821.6	-0.010844
14830.8	-0.012166
14840	-0.0134919
14851.1	-0.0150869
14860.3	-0.0164183
14871.3	-0.0180176
14880.5	-0.0193504
14891.5	-0.0209485
14900.7	-0.0222781
14911.7	-0.0238695
14920.9	-0.025191
14930.1	-0.0265071
14941.1	-0.028078
14950.3	-0.0293786
14961.4	-0.0309276
14970.6	-0.0322073
14981.6	-0.0337279
14990.8	-0.0349811
15001.8	-0.0364664
15011	-0.0376874
15020.2	-0.0388919
15031.2	-0.0403137
15040.4	-0.0414775
15051.5	-0.042847
15060.7	-0.0439643
15071.7	-0.0452746
15080.9	-0.0463396
15090.1	-0.0473789
15101.1	-0.0485905
15110.3	-0.0495692
15121.3	-0.0507046
15130.5	-0.0516171
15141.5	-0.0526698
15150.7	-0.0535107
15161.8	-0.0544745
15171	-0.0552387
15180.2	-0.0559665
15191.2	-0.0567904
15200.4	-0.0574347
15211.4	-0.0581559
15220.6	-0.0587126
15231.6	-0.0593263
15240.8	-0.0597917
15250	-0.0602145
15261	-0.0606647
15270.2	-0.0609917
15281.3	-0.0613256
15290.5	-0.0615546
15301.5	-0.0617698
15310.7	-0.0618991
15321.7	-0.0619939
15330.9	-0.0620226
15340.1	-0.0620055
15351.1	-0.0619244
15360.3	-0.0618066
15371.4	-0.0616053
15380.5	-0.0613879
15391.6	-0.0610679
15400.8	-0.0607525
15411.8	-0.0603164
15421	-0.0599058
15430.2	-0.0594528
15441.2	-0.0588546
15450.4	-0.0583115
15461.4	-0.0576078
15470.6	-0.0569792
15481.7	-0.056176
15490.9	-0.0554672
15500	-0.054724
15511.1	-0.0537884
15520.3	-0.0529741
15531.3	-0.0519575
15540.5	-0.0510792
15551.5	-0.0499904
15560.7	-0.0490559
15571.7	-0.0479044
15580.9	-0.046922
15590.1	-0.0459206
15601.2	-0.0446965
15610.4	-0.04366
15621.4	-0.0423994
15630.6	-0.0413371
15641.6	-0.0400511
15650.8	-0.0389726
15661.8	-0.0376729
15671	-0.0365878
15680.2	-0.0355028
15691.2	-0.0342041
15700.4	-0.0331267
15711.5	-0.0318428
15720.7	-0.0307827
15731.7	-0.0295252
15740.9	-0.0284917
15750.1	-0.0274733
15761.1	-0.0262738
15770.3	-0.0252952
15781.3	-0.0241486
15790.5	-0.0232181
15801.6	-0.0221341
15810.7	-0.0212598
15821.8	-0.0202476
15831	-0.0194366
15840.2	-0.0186567
15851.2	-0.0177634
15860.4	-0.017056
15871.4	-0.0162532
15880.6	-0.0156237
15891.6	-0.0149172
15900.8	-0.0143701
15910	-0.0138616
15921.1	-0.0133033
15930.2	-0.012882
15941.3	-0.0124296
15950.5	-0.0120974
15961.5	-0.0117529
15970.7	-0.0115109
15981.7	-0.0112748
15990.9	-0.0111231
16000.1	-0.0110121
16011.1	-0.0109324
16020.3	-0.01091
16031.4	-0.0109352
16040.6	-0.0109989
16051.6	-0.0111255
16060.8	-0.011272
16071.8	-0.0114956
16081	-0.0117207
16090.2	-0.0119799
16101.2	-0.0123344
16110.4	-0.0126646
16121.4	-0.0131008
16130.6	-0.013496
16141.7	-0.0140062
16150.9	-0.0144597
16160.1	-0.0149373
16171.1	-0.0155401
16180.3	-0.0160653
16191.3	-0.0167207
16200.5	-0.0172858
16211.5	-0.0179841
16220.7	-0.018581
16231.8	-0.0193126
16240.9	-0.0199331
16250.1	-0.0205616
16261.2	-0.021324
16270.4	-0.0219641
16281.4	-0.0227355
16290.6	-0.0233791
16301.6	-0.0241499
16310.8	-0.0247891
16321.8	-0.0255501
16331	-0.0261774
16340.2	-0.0267968
16351.3	-0.0275278
16360.4	-0.028125
16371.5	-0.0288254
16380.7	-0.0293939
16391.7	-0.0300564
16400.9	-0.0305905
16410.1	-0.0311072
16421.1	-0.0317029
16430.3	-0.0321779
16441.3	-0.0327209
16450.5	-0.03315
16461.6	-0.0336358
16470.8	-0.0340157
16481.8	-0.0344407
16491	-0.0347687
16500.2	-0.0350725
16511.2	-0.0354046
16520.4	-0.035654
16531.4	-0.0359203
16540.6	-0.0361146
16551.6	-0.0363146
16560.8	-0.0364537
16570	-0.0365679
16581.1	-0.0366723
16590.3	-0.0367323
16601.3	-0.0367726
16610.5	-0.03678
16621.5	-0.0367583
16630.7	-0.0367151
16641.7	-0.036634
16650.9	-0.0365427
16660.1	-0.0364305
16671.1	-0.0362691
16680.3	-0.0361131
16691.4	-0.0359011
16700.6	-0.0357046
16711.6	-0.0354461
16720.8	-0.0352127
16731.8	-0.0349121
16741	-0.0346455
16750.2	-0.034365
16761.2	-0.0340113
16770.4	-0.0337031
16781.5	-0.0333183
16790.6	-0.0329861
16801.7	-0.0325747
16810.9	-0.0322222
16820.1	-0.0318616
16831.1	-0.0314192
16840.3	-0.0310433
16851.3	-0.0305846
16860.5	-0.0301967
16871.5	-0.0297255
16880.7	-0.0293286
16891.8	-0.0288481
16901	-0.028445
16910.1	-0.0280398
16921.2	-0.0275516
16930.4	-0.0271437
16941.4	-0.0266534
16950.6	-0.0262447
16961.6	-0.0257547
16970.8	-0.0253471
16980	-0.0249405
16991	-0.0244542
17000.2	-0.0240506
17011.3	-0.0235688
17020.5	-0.0231695
17031.5	-0.0226932
17040.7	-0.022299
17051.7	-0.0218293
17060.9	-0.0214409
17070.1	-0.0210552
17081.1	-0.0205961
17090.3	-0.0202168
17101.3	-0.0197657
17110.5	-0.019393
17121.6	-0.0189499
17130.8	-0.0185841
17141.8	-0.0181493
17151	-0.0177903
17160.2	-0.0174346
17171.2	-0.0170117
17180.4	-0.0166628
17191.4	-0.0162483
17200.6	-0.0159062
17211.7	-0.0154999
17220.8	-0.0151646
17230	-0.0148325
17241.1	-0.014438
17250.3	-0.0141127
17261.3	-0.0137263
17270.5	-0.0134078
17281.5	-0.0130297
17290.7	-0.012718
17301.7	-0.0123481
17310.9	-0.0120433
17320.1	-0.0117417
17331.2	-0.011384
17340.3	-0.0110895
17351.4	-0.0107403
17360.6	-0.010453
17371.6	-0.0101126
17380.8	-0.0098327
17391.8	-0.00950126
17401	-0.00922884
17410.2	-0.00895989
17421.2	-0.00864176
17430.4	-0.00838052
17441.5	-0.00807172
17450.7	-0.0078183
17461.7	-0.00751891
17470.9	-0.00727336
17480.1	-0.00703139
17491.1	-0.00674574
17500.3	-0.0065116
17511.3	-0.00623529
17520.5	-0.00600887
17531.5	-0.00574172
17540.7	-0.00552282
17551.8	-0.00526451
17561	-0.00505283
17570.2	-0.00484431
17581.2	-0.00459811
17590.4	-0.0043962
17601.4	-0.00415764
17610.6	-0.0039618
17621.6	-0.00373016
17630.8	-0.00353977
17640	-0.00335162
17651	-0.00312857
17660.2	-0.00294478
17671.3	-0.00272649
17680.5	-0.00254624
17691.5	-0.00233166
17700.7	-0.00215406
17711.7	-0.00194211
17720.9	-0.00176622
17730.1	-0.00159079
17741.1	-0.00138061
17750.3	-0.0012055
17761.4	-0.000995118
17770.5	-0.000819364
17781.6	-0.000607648
17790.8	-0.00043032
17801.8	-0.000216173
17811	-3.63834e-05
17820.2	0.0001448
17831.2	0.000364288
17840.4	0.000549094
17851.4	0.000773354
17860.6	0.000962466
17871.7	0.00119225
17880.9	0.00138624
17890	0.0015826
17901.1	0.00182146
17910.3	0.00202328
17921.3	0.00226886
17930.5	0.00247637
17941.5	0.00272884
17950.7	0.00294212
17961.7	0.00320147
17970.9	0.00342041
17980.1	0.00364185
17991.2	0.00391079
18000.4	0.00413747
18011.4	0.00441242
18020.6	0.00464385
18031.6	0.00492414
18040.8	0.00515967
18051.8	0.00544442
18061	0.00568327
18070.2	0.00592333
18081.2	0.0062127
18090.4	0.0064547
18101.5	0.00674576
18110.7	0.0069886
18121.7	0.00728
18130.9	0.00752253
18140.1	0.0077645
18151.1	0.00805377
18160.3	0.0082936
18171.3	0.00857953
18180.5	0.00881592
18191.6	0.00909693
18200.7	0.00932856
18211.8	0.00960307
18221	0.00982864
18230.2	0.010051
18241.2	0.0103133
18250.4	0.0105278
18261.4	0.0107798
18270.6	0.0109852
18281.6	0.0112256
18290.8	0.0114207
18300	0.0116108
18311.1	0.011832
18320.2	0.0120104
18331.3	0.0122169
18340.5	0.0123827
18351.5	0.0125737
18360.7	0.0127261
18371.7	0.0129006
18380.9	0.013039
18390.1	0.0131708
18401.1	0.0133203
18410.3	0.0134374
18421.4	0.0135691
18430.6	0.0136713
18441.6	0.0137848
18450.8	0.0138719
18461.8	0.0139672
18471	0.0140391
18480.2	0.0141042
18491.2	0.0141732
18500.4	0.0142232
18511.4	0.0142745
18520.6	0.0143098
18531.7	0.0143437
18540.9	0.0143648
18550.1	0.0143796
18561.1	0.0143892
18570.3	0.0143905
18581.3	0.0143843
18590.5	0.0143728
18601.5	0.0143517
18610.7	0.0143281
18621.8	0.014293
18630.9	0.0142582
18640.1	0.0142187
18651.2	0.0141651
18660.4	0.0141157
18671.4	0.0140509
18680.6	0.0139927
18691.6	0.013918
18700.8	0.013852
18710	0.0137829
18721	0.0136961
18730.2	0.0136209
18741.3	0.0135276
18750.5	0.0134475
18761.5	0.0133492
18770.7	0.0132655
18781.7	0.0131637
18790.9	0.0130778
18800.1	0.0129914
18811.1	0.0128873
18820.3	0.0128006
18831.3	0.012697
18840.5	0.0126114
18851.6	0.0125101
18860.8	0.012427
18871.8	0.0123296
18881	0.0122505
18890.2	0.0121738
18901.2	0.0120852
18910.4	0.0120146
18921.4	0.0119342
18930.6	0.0118711
18941.7	0.0118007
18950.8	0.0117467
18960	0.0116972
18971.1	0.0116443
18980.3	0.0116058
18991.3	0.011567
19000.5	0.0115409
19011.5	0.0115177
19020.7	0.0115053
19031.7	0.0114992
19040.9	0.0115016
19050.1	0.0115112
19061.2	0.0115323
19070.3	0.0115582
19081.4	0.0115996
19090.6	0.0116427
19101.6	0.0117052
19110.8	0.0117663
19121.8	0.0118507
19131	0.0119303
19140.2	0.0120185
19151.2	0.0121357
19160.4	0.0122429
19171.5	0.0123829
19180.7	0.0125091
19191.7	0.0126718
19200.9	0.0128168
19210.1	0.0129702
19221.1	0.0131653
19230.3	0.0133368
19241.3	0.0135531
19250.5	0.0137419
19261.5	0.0139784
19270.7	0.0141834
19281.8	0.0144386
19291	0.0146585
19300.2	0.0148847
19311.2	0.0151639
19320.4	0.0154026
19331.4	0.0156957
19340.6	0.0159449
19351.6	0.0162494
19360.8	0.0165071
19370	0.0167678
19381	0.017084
19390.2	0.0173497
19401.3	0.0176702
19410.5	0.0179382
19421.5	0.0182599
19430.7	0.0185274
19441.7	0.0188469
19450.9	0.0191112
19460.1	0.0193729
19471.1	0.019683
19480.3	0.0199372
19491.4	0.0202364
19500.5	0.0204801
19511.6	0.020765
19520.8	0.0209953
19531.8	0.0212623
19541	0.0214763
19550.2	0.0216819
19561.2	0.0219169
19570.4	0.0221023
19581.4	0.0223114
19590.6	0.022474
19601.7	0.0226543
19610.9	0.0227916
19620	0.0229168
19631.1	0.0230504
19640.3	0.0231473
19651.3	0.0232459
19660.5	0.0233129
19671.5	0.0233745
19680.7	0.02341
19691.7	0.0234331
19700.9	0.0234358
19710.1	0.0234235
19721.2	0.0233883
19730.4	0.0233421
19741.4	0.023266
19750.6	0.0231855
19761.6	0.0230682
19770.8	0.0229532
19781.8	0.0227948
19791	0.0226456
19800.2	0.0224811
19811.2	0.0222636
19820.4	0.0220658
19831.5	0.0218088
19840.7	0.0215785
19851.7	0.0212833
19860.9	0.0210218
19870.1	0.0207466
19881.1	0.0203986
19890.3	0.0200942
19901.3	0.0197123
19910.5	0.0193805
19921.6	0.0189668
19930.7	0.0186094
19941.8	0.0181661
19951	0.0177852
19960.2	0.0173941
19971.2	0.0169122
19980.4	0.0165006
19991.4	0.0159952
