0	0
10.1663	0
20.3326	0
30.4988	0
40.665	0
50.8311	0
60.9972	0
71.1631	0
81.329	0
91.4947	0
101.66	0
111.826	0
121.992	0
130.124	0
140.29	0
150.455	0
160.621	0
170.787	0
180.953	0
191.119	0
201.285	0
211.443	0
221.5	0
231.475	0
241.439	0
251.403	0
261.367	0
271.331	0
281.294	0
291.258	0
301.222	0
311.186	0
321.149	0
331.113	0
341.077	0
351.04	0
361.004	0
370.967	0
380.931	0
390.894	0
400.858	0
410.821	0
420.785	0
430.748	0
440.711	0
450.671	0
460.494	0
470.309	0
480.118	0
491.857	0
501.554	0
511.177	0
520.79	0
530.402	0
540.014	0
551.549	0
561.157	0
570.719	0
580.244	0
591.645	0
601.147	0
610.645	0
620.131	0
631.505	0
640.971	0
650.434	0
661.791	0
671.254	0
680.718	0
690.181	0
701.537	0
711.001	0
720.464	0
731.82	0
741.284	0
750.747	0
760.21	0
771.565	0
781.009	0
790.447	0
801.772	0
811.209	0
820.646	0
830.084	0
841.408	0
850.846	0
860.283	0
871.608	0
881.045	0
890.482	0
901.807	0
911.244	0
920.681	0
930.119	0
941.443	0
950.88	0
960.318	0
971.642	0
981.079	0
990.517	0
1001.84	0
1011.28	0
1020.72	0
1030.15	0
1041.48	0
1050.91	0
1060.35	0
1071.68	0
1081.11	0
1090.55	0
1101.88	0
1111.31	0
1120.75	0
1130.19	0
1141.51	0
1150.95	0
1160.39	0
1171.71	0
1181.15	0
1190.58	0
1200.02	0
1211.35	0
1220.78	0
1230.22	0
1241.54	0
1250.97	0
1260.41	0
1271.73	0
1281.16	0
1290.59	0
1300.03	0
1311.35	0
1320.78	0
1330.22	0
1341.54	0
1350.97	0
1360.39	0
1371.68	0
1381.07	0
1390.46	0
1401.73	0
1411.12	0
1420.5	0
1431.76	0
1441.13	0
1450.49	0
1461.72	0
1471.08	0
1480.43	0
1491.66	0
1501.01	0
1510.36	0
1521.58	0
1530.94	0
1540.29	0
1551.49	0
1560.79	0
1570.1	0
1581.27	0
1590.58	0
1601.75	0
1610.93	0
1620.19	0
1631.36	0
1640.67	0
1651.84	0
1661.08	0
1670.28	0
1681.32	0
1690.51	0
1701.55	0
1710.75	0
1721.79	0
1730.98	0
1740.18	0
1751.22	0
1760.42	0
1771.45	0
1780.65	0
1791.69	0
1800.89	0
1810.08	0
1821.12	0
1830.32	0
1841.36	0
1850.56	0
1861.59	0
1870.79	0
1881.83	0
1891.03	0
1900.22	0
1911.26	0
1920.46	0
1931.49	0
1940.69	0
1951.73	2.72848e-12
1960.93	5.45697e-12
1970.13	8.18545e-12
1981.16	1.27329e-11
1990.36	1.72804e-11
2001.4	2.27374e-11
2010.6	2.72848e-11
2021.63	3.27418e-11
2030.83	3.72893e-11
2040.03	4.45652e-11
2051.06	5.54792e-11
2060.26	6.45741e-11
2071.3	8.00355e-11
2080.5	9.64064e-11
2091.53	1.20963e-10
2100.73	1.47338e-10
2111.77	1.88265e-10
2120.97	2.30102e-10
2130.16	2.81943e-10
2141.2	3.61069e-10
2150.4	4.43833e-10
2161.44	5.66615e-10
2170.63	6.93944e-10
2181.67	8.84029e-10
2190.87	1.07957e-09
2200.07	1.31604e-09
2211.1	1.66347e-09
2220.3	2.01817e-09
2231.34	2.54113e-09
2240.53	3.07136e-09
2251.57	3.84534e-09
2260.77	4.62751e-09
2271.81	5.76256e-09
2281	6.90579e-09
2290.2	8.25821e-09
2301.24	1.021e-08
2310.44	1.21581e-08
2321.47	1.4953e-08
2330.67	1.77306e-08
2341.71	2.16996e-08
2350.9	2.5625e-08
2360.1	3.02043e-08
2371.14	3.67027e-08
2380.34	4.30873e-08
2391.37	5.21068e-08
2400.57	6.09298e-08
2411.61	7.3338e-08
2420.8	8.54225e-08
2430	9.93259e-08
2441.04	1.18757e-07
2450.24	1.37566e-07
2461.27	1.63741e-07
2470.47	1.88972e-07
2481.51	2.2394e-07
2490.7	2.57511e-07
2501.74	3.03849e-07
2510.94	3.48155e-07
2520.13	3.98288e-07
2531.17	4.6709e-07
2540.37	5.32504e-07
2551.41	6.21931e-07
2560.6	7.06629e-07
2571.64	8.21982e-07
2580.84	9.3083e-07
2590.03	1.05252e-06
2601.07	1.21736e-06
2610.27	1.37209e-06
2621.3	1.58091e-06
2630.5	1.77622e-06
2641.54	2.03888e-06
2650.74	2.28368e-06
2661.77	2.61177e-06
2670.97	2.91651e-06
2680.17	3.25238e-06
2691.2	3.70031e-06
2700.4	4.11433e-06
2711.44	4.66465e-06
2720.63	5.17166e-06
2731.67	5.84341e-06
2740.87	6.46032e-06
2750.07	7.13338e-06
2761.1	8.02102e-06
2770.3	8.83254e-06
2781.29	9.89525e-06
2790.44	1.08618e-05
2801.41	1.21281e-05
2810.56	1.32785e-05
2821.53	1.47813e-05
2830.68	1.61426e-05
2841.65	1.79159e-05
2850.8	1.95178e-05
2861.78	2.15988e-05
2870.92	2.34734e-05
2880.07	2.54835e-05
2891.04	2.80847e-05
2900.19	3.04191e-05
2911.16	3.34322e-05
2920.31	3.61294e-05
2931.28	3.96022e-05
2940.43	4.27032e-05
2951.4	4.66863e-05
2960.55	5.02345e-05
2971.52	5.47813e-05
2980.67	5.88225e-05
2991.64	6.39892e-05
3000.79	6.85711e-05
3011.76	7.44164e-05
3020.91	7.95891e-05
3030.05	8.50474e-05
3041.03	9.19898e-05
3050.17	9.81153e-05
3061.15	0.000105891
3070.29	0.000112738
3081.27	0.000121414
3090.41	0.00012904
3101.39	0.000138686
3110.53	0.000147149
3121.51	0.000157836
3130.65	0.000167198
3141.63	0.000179
3150.77	0.000189324
3161.75	0.000202319
3170.89	0.000213669
3180.04	0.000225509
3191.01	0.000240382
3200.16	0.000253349
3211.13	0.000269618
3220.28	0.000283784
3231.25	0.000301539
3240.4	0.000316982
3251.37	0.000336316
3260.52	0.000353117
3271.49	0.000374131
3280.64	0.000392376
3291.61	0.000415177
3300.76	0.000434957
3311.73	0.000459659
3320.88	0.000481074
3330.02	0.000503266
3341	0.000530956
3350.14	0.000554939
3361.12	0.000584848
3370.26	0.000610742
3381.24	0.000643019
3390.38	0.000670952
3401.35	0.000705757
3410.5	0.000735868
3421.47	0.000773376
3430.62	0.000805817
3441.59	0.000846217
3450.74	0.000881151
3461.71	0.000924647
3470.86	0.000962252
3480	0.00100113
3490.98	0.00104954
3500.12	0.00109137
3511.1	0.00114345
3520.24	0.00118845
3531.22	0.00124447
3540.36	0.00129288
3551.34	0.00135312
3560.48	0.00140518
3571.46	0.00146996
3580.6	0.00152593
3591.57	0.00159558
3600.72	0.00165575
3611.69	0.00173061
3620.84	0.00179528
3631.81	0.00187573
3640.96	0.00194523
3650.1	0.00201702
3661.08	0.00210632
3670.22	0.00218343
3681.2	0.00227933
3690.34	0.00236214
3701.32	0.00246509
3710.46	0.00255397
3721.43	0.00266446
3730.58	0.00275983
3741.55	0.00287835
3750.7	0.00298063
3761.67	0.00310771
3770.82	0.00321734
3781.79	0.00335353
3790.94	0.00347098
3800.08	0.00359215
3811.06	0.00374259
3820.2	0.00387228
3831.18	0.00403325
3840.32	0.00417196
3851.3	0.00434406
3860.44	0.00449231
3871.42	0.00467618
3880.56	0.00483452
3891.53	0.00503084
3900.68	0.00519984
3911.65	0.00540933
3920.8	0.00558963
3931.77	0.00581311
3940.92	0.00600544
3950.06	0.00620348
3961.04	0.0064489
3970.18	0.00666009
3981.16	0.00692182
3990.3	0.00714715
4001.28	0.00742656
4010.42	0.00766703
4021.4	0.00796469
4030.54	0.00822041
4041.52	0.00853714
4050.66	0.00881024
4061.64	0.00915078
4070.78	0.00944521
4081.76	0.00980279
4090.9	0.0100993
4100.05	0.0104027
4111.02	0.0107936
4120.17	0.0111408
4131.14	0.0115735
4140.29	0.0119815
4151.26	0.0125505
4160.41	0.0130818
4171.38	0.0143898
4180.54	0.0155697
4191.61	0.0168671
4200.83	0.0219332
4210.05	0.0285354
4221.11	0.0367214
4230.33	0.0445128
4241.39	0.054753
4250.61	0.0643628
4261.67	0.0769418
4270.89	0.0885915
4280.11	0.101625
4291.18	0.118955
4300.4	0.134839
4311.48	0.155726
4320.71	0.174897
4331.78	0.200036
4341.02	0.222754
4350.25	0.247074
4361.32	0.278485
4370.56	0.306498
4381.63	0.342086
4390.87	0.373198
4400.1	0.405531
4411.18	0.44581
4420.41	0.480399
4431.48	0.522773
4440.71	0.55855
4451.8	0.601762
4461.04	0.637727
4470.28	0.673316
4481.4	0.715216
4490.69	0.749064
4501.85	0.787929
4511.15	0.818517
4520.45	0.847143
4531.64	0.878593
4540.99	0.90212
4550.36	0.922881
4561.6	0.943748
4570.97	0.957496
4580.34	0.967736
4591.58	0.975167
4600.95	0.977143
4610.32	0.975158
4621.56	0.967428
4630.93	0.956461
4640.3	0.941327
4651.54	0.917617
4660.91	0.893222
4670.28	0.864644
4681.52	0.824925
4690.89	0.787424
4700.26	0.746069
4711.5	0.69161
4720.87	0.642467
4730.24	0.590192
4741.48	0.523757
4750.85	0.46569
4760.22	0.40548
4771.46	0.330657
4780.83	0.266172
4790.2	0.19955
4801.44	0.116106
4810.81	0.0425839
4820.17	-0.0100054
4831.42	-0.0564728
4840.79	-0.0677755
4850.15	-0.0946456
4861.4	-0.110494
4870.77	-0.12033
4880.13	-0.128557
4891.38	-0.137515
4900.75	-0.138624
4910.11	-0.144602
4921.36	-0.151017
4930.73	-0.156181
4940.09	-0.161362
4951.34	-0.167194
4960.71	-0.172105
4970.07	-0.177167
4981.32	-0.183274
4990.69	-0.188319
5000.05	-0.193433
5011.3	-0.199642
5020.67	-0.204766
5030.04	-0.209754
5041.28	-0.215492
5050.65	-0.220048
5060.02	-0.224397
5071.26	-0.229359
5080.63	-0.233304
5090.01	-0.237103
5101.3	-0.241495
5110.71	-0.245026
5120.15	-0.248457
5131.47	-0.252444
5140.91	-0.255654
5150.34	-0.258755
5161.67	-0.262311
5171.11	-0.265115
5180.54	-0.267754
5191.87	-0.270676
5201.31	-0.27289
5210.74	-0.27489
5220.18	-0.276669
5231.5	-0.278509
5240.94	-0.279799
5250.38	-0.280873
5261.7	-0.281889
5271.14	-0.282517
5280.58	-0.282957
5290.02	-0.283216
5301.34	-0.283298
5310.78	-0.283182
5320.21	-0.282902
5331.54	-0.282351
5340.98	-0.281713
5350.41	-0.280913
5361.74	-0.279738
5371.17	-0.27858
5380.61	-0.27726
5390.05	-0.27578
5401.37	-0.273796
5410.81	-0.271974
5420.25	-0.270004
5431.57	-0.267453
5441.01	-0.265178
5450.45	-0.262775
5461.77	-0.259729
5471.21	-0.257064
5480.65	-0.254289
5490.08	-0.251411
5501.41	-0.247826
5510.84	-0.244735
5520.28	-0.241556
5531.61	-0.23763
5541.04	-0.234271
5550.48	-0.230841
5561.8	-0.226634
5571.23	-0.223062
5580.67	-0.219435
5590.1	-0.215762
5601.42	-0.211302
5610.85	-0.207552
5620.29	-0.20378
5631.61	-0.199237
5641.04	-0.195448
5650.48	-0.191664
5661.8	-0.187144
5671.23	-0.183403
5680.66	-0.179701
5690.07	-0.176044
5701.34	-0.171732
5710.74	-0.168204
5720.13	-0.164744
5731.39	-0.160696
5740.78	-0.157417
5750.16	-0.154231
5761.41	-0.150542
5770.78	-0.14759
5780.13	-0.144753
5791.36	-0.141507
5800.72	-0.138939
5810.08	-0.136502
5821.3	-0.133755
5830.65	-0.131617
5840.01	-0.129617
5851.23	-0.127402
5860.58	-0.12571
5871.81	-0.123863
5881.13	-0.122478
5890.44	-0.121228
5901.61	-0.119896
5910.92	-0.11892
5920.22	-0.11806
5931.39	-0.117171
5940.7	-0.116541
5950.01	-0.116001
5961.18	-0.115462
5970.49	-0.11509
5981.66	-0.114723
5990.93	-0.11447
6000.14	-0.114256
6011.17	-0.114032
6020.37	-0.11386
6031.41	-0.113655
6040.61	-0.113475
6051.64	-0.113231
6060.84	-0.112995
6070.04	-0.112719
6081.08	-0.112324
6090.28	-0.111932
6101.31	-0.111377
6110.51	-0.110837
6121.55	-0.110088
6130.75	-0.109375
6141.78	-0.108407
6150.98	-0.107505
6160.18	-0.106514
6171.22	-0.105206
6180.41	-0.104018
6191.45	-0.102476
6200.65	-0.101097
6211.69	-0.0993315
6220.88	-0.0977726
6230.08	-0.096138
6241.12	-0.0940827
6250.32	-0.0922976
6261.35	-0.0900764
6270.55	-0.0881661
6281.59	-0.0858113
6290.79	-0.0838039
6301.82	-0.0813501
6311.02	-0.0792749
6320.22	-0.0771786
6331.26	-0.0746433
6340.45	-0.072521
6351.49	-0.0699707
6360.69	-0.0678487
6371.73	-0.0653133
6380.92	-0.063215
6390.12	-0.0611341
6401.16	-0.0586652
6410.36	-0.056635
6421.39	-0.0542359
6430.59	-0.0522702
6441.63	-0.0499546
6450.83	-0.0480629
6460.02	-0.0462069
6471.06	-0.044028
6480.26	-0.0422532
6491.3	-0.0401729
6500.49	-0.0384806
6511.53	-0.0364988
6520.73	-0.0348878
6531.77	-0.0330022
6540.96	-0.0314697
6550.16	-0.0299719
6561.2	-0.028219
6570.4	-0.0267946
6581.43	-0.0251276
6590.63	-0.0237729
6601.67	-0.0221879
6610.87	-0.0209002
6620.06	-0.0196423
6631.1	-0.0181718
6640.3	-0.0169788
6651.34	-0.0155863
6660.53	-0.0144586
6671.57	-0.0131455
6680.77	-0.0120853
6691.81	-0.010855
6701	-0.0098658
6710.2	-0.00891049
6721.24	-0.00781049
6730.44	-0.00693394
6741.47	-0.0059323
6750.67	-0.00514113
6761.71	-0.0042462
6770.91	-0.00354761
6780.1	-0.00289357
6791.14	-0.00216968
6800.34	-0.00161898
6811.38	-0.00102334
6820.57	-0.000582911
6831.61	-0.000123401
6840.81	0.000200685
6850.01	0.000470211
6861.04	0.000720432
6870.24	0.000867145
6881.28	0.000968307
6890.48	0.000989865
6901.51	0.000940345
6910.71	0.000836441
6921.75	0.000637187
6930.95	0.00040975
6940.14	0.000127434
6951.18	-0.000282205
6960.38	-0.000681023
6971.42	-0.00122614
6980.61	-0.00173368
6991.65	-0.00240354
7000.85	-0.00300969
7010.05	-0.00365672
7021.08	-0.00448327
7030.28	-0.00521037
7041.32	-0.00612421
7050.52	-0.00691631
7061.55	-0.00789839
7070.75	-0.00873891
7081.79	-0.00976858
7090.99	-0.0106398
7100.19	-0.0115188
7111.22	-0.0125785
7120.42	-0.0134611
7131.46	-0.0145137
7140.66	-0.015381
7151.69	-0.0164041
7160.89	-0.0172375
7170.09	-0.0180495
7181.13	-0.0189907
7190.32	-0.0197432
7201.31	-0.0205992
7210.45	-0.0212728
7221.43	-0.0220301
7230.57	-0.0226157
7241.55	-0.0232603
7250.69	-0.0237465
7261.67	-0.024266
7270.81	-0.0246436
7281.79	-0.0250281
7290.93	-0.0252898
7300.08	-0.0254968
7311.05	-0.0256716
7320.2	-0.025755
7331.17	-0.0257792
7340.32	-0.0257357
7351.29	-0.0256064
7360.44	-0.0254345
7371.41	-0.025151
7380.56	-0.024851
7391.53	-0.0244152
7400.68	-0.0239897
7411.65	-0.0234059
7420.8	-0.0228598
7431.77	-0.022135
7440.92	-0.0214751
7450.07	-0.0207664
7461.04	-0.019854
7470.19	-0.0190445
7481.16	-0.0180171
7490.31	-0.0171166
7501.28	-0.0159857
7510.43	-0.0150039
7521.4	-0.0137814
7530.55	-0.0127283
7541.52	-0.0114264
7550.67	-0.0103123
7561.64	-0.00894369
7570.79	-0.0077794
7581.76	-0.00635709
7590.91	-0.00515347
7600.05	-0.00393544
7611.03	-0.00245759
7620.17	-0.00121467
7631.15	0.000288124
7640.29	0.00154837
7651.27	0.00306872
7660.41	0.00434171
7671.39	0.0058762
7680.53	0.0071609
7691.51	0.00871052
7700.65	0.0100094
7711.63	0.0115778
7720.77	0.0128915
7731.75	0.0144604
7740.89	0.0157398
7750.04	0.0166005
7761.01	0.0177478
7770.16	0.0187404
7781.13	0.019913
7790.28	0.0211264
7801.25	0.0230196
7810.4	0.0251454
7821.37	0.0271437
7830.52	0.0283704
7841.49	0.0301172
7850.64	0.0319478
7861.61	0.0346168
7870.76	0.0373374
7881.73	0.0413948
7890.88	0.0454534
7900.02	0.0499623
7911	0.0556295
7920.14	0.0603103
7931.12	0.065623
7940.26	0.0696938
7951.24	0.0741615
7960.38	0.0775984
7971.36	0.0814566
7980.5	0.0844861
7991.48	0.0879101
8000.62	0.0905821
8011.6	0.0935683
8020.74	0.0958877
8031.72	0.0985029
8040.86	0.100567
8050.01	0.102535
8060.98	0.104767
8070.13	0.106511
8081.1	0.108449
8090.25	0.109922
8101.22	0.111504
8110.37	0.112664
8121.34	0.113868
8130.49	0.114725
8141.46	0.115593
8150.61	0.116191
8161.58	0.116767
8170.73	0.117134
8181.7	0.117444
8190.85	0.117596
8201.82	0.117645
8210.97	0.117569
8220.12	0.117381
8231.09	0.116999
8240.24	0.116544
8251.21	0.115829
8260.36	0.115086
8271.33	0.114013
8280.48	0.112965
8291.45	0.111521
8300.6	0.110163
8311.57	0.108354
8320.72	0.106707
8331.69	0.104581
8340.84	0.102701
8351.81	0.100339
8360.96	0.0983028
8370.1	0.0962199
8381.08	0.0936771
8390.22	0.0915345
8401.2	0.0889485
8410.34	0.0867908
8421.32	0.0842114
8430.46	0.0820814
8441.44	0.079566
8450.58	0.0775188
8461.56	0.0751405
8470.7	0.0732375
8481.68	0.0710613
8490.82	0.0693427
8501.8	0.0673952
8510.94	0.0658653
8520.09	0.0644161
8531.06	0.0627784
8540.21	0.0614939
8551.24	0.0600368
8560.46	0.0588934
8571.53	0.0576058
8580.75	0.0565984
8591.81	0.0554607
8601.03	0.0545649
8610.25	0.0537094
8621.31	0.0527263
8630.53	0.0519353
8641.6	0.051011
8650.82	0.0502555
8660.03	0.0495094
8671.1	0.0486223
8680.32	0.0478872
8691.38	0.0470061
8700.6	0.0462695
8711.66	0.0453779
8720.88	0.0446255
8730.1	0.0438627
8741.17	0.042934
8750.39	0.0421513
8761.45	0.0412058
8770.67	0.0404163
8781.73	0.0394701
8790.96	0.0386823
8800.19	0.0378937
8811.27	0.0369412
8820.5	0.0361359
8831.58	0.0351454
8840.81	0.0342918
8850.04	0.0334059
8861.12	0.0322945
8870.35	0.031326
8881.43	0.0301146
8890.66	0.029067
8901.74	0.0277684
8910.97	0.0266538
8920.2	0.0255097
8931.28	0.0240949
8940.51	0.0228764
8951.59	0.0213599
8960.82	0.0200451
8970.05	0.018679
8981.13	0.0169662
8990.36	0.0154717
9001.44	0.0135874
9010.67	0.0119268
9021.75	0.00908774
9030.98	0.00625487
9040.21	0.00322834
9051.29	-0.00382895
9060.52	-0.00808606
9071.61	-0.0121222
9080.92	-0.0122982
9090.28	-0.0147962
9101.52	-0.0175676
9110.89	-0.0197919
9120.26	-0.0217893
9131.5	-0.0239206
9140.87	-0.0256915
9150.24	-0.0273753
9161.48	-0.029317
9170.85	-0.0308773
9180.22	-0.0323956
9191.46	-0.0341347
9200.83	-0.0354669
9210.2	-0.0366881
9221.44	-0.0380127
9230.81	-0.0390031
9240.18	-0.0398983
9251.42	-0.0408619
9260.79	-0.0415874
9270.16	-0.0422569
9281.4	-0.0430047
9290.77	-0.043594
9300.14	-0.044161
9311.38	-0.0448189
9320.75	-0.0453513
9330.12	-0.0458704
9341.36	-0.0464749
9350.73	-0.0469623
9360.1	-0.0474336
9371.34	-0.0479768
9380.71	-0.0484106
9390.08	-0.0488278
9401.32	-0.0493076
9410.69	-0.0496919
9420.06	-0.0500636
9431.3	-0.0504954
9440.67	-0.0508451
9450.04	-0.0511868
9461.28	-0.0515877
9470.65	-0.0519147
9480.02	-0.0522355
9491.27	-0.0526121
9500.63	-0.0529187
9510	-0.0532183
9521.25	-0.0535678
9530.61	-0.0538502
9541.86	-0.0541779
9551.23	-0.0544413
9560.6	-0.0546955
9571.84	-0.0549885
9581.21	-0.0552223
9590.58	-0.0554467
9601.85	-0.0557042
9611.24	-0.0559084
9620.63	-0.0561029
9630.01	-0.0562878
9641.26	-0.0564967
9650.63	-0.0566601
9661.87	-0.056843
9671.22	-0.0569844
9680.58	-0.0571158
9691.81	-0.0572601
9701.16	-0.0573691
9710.52	-0.057468
9721.74	-0.0575732
9731.09	-0.0576497
9740.44	-0.0577161
9751.67	-0.0577826
9761	-0.0578271
9770.31	-0.0578617
9781.48	-0.0578907
9790.79	-0.0579045
9800.1	-0.0579091
9811.27	-0.0579027
9820.57	-0.0578876
9831.75	-0.0578581
9841.05	-0.0578243
9850.36	-0.0577823
9861.53	-0.0577216
9870.84	-0.0576627
9880.09	-0.0575971
9891.14	-0.0575098
9900.33	-0.0574302
9911.37	-0.0573267
9920.57	-0.0572344
9931.61	-0.0571168
9940.8	-0.0570136
9950	-0.056906
9961.04	-0.0567715
9970.24	-0.0566555
9981.27	-0.056512
9990.47	-0.0563893
10001.5	-0.0562388
10010.7	-0.056111
10021.7	-0.0559552
10030.9	-0.0558239
10040.1	-0.0556914
10051.2	-0.0555314
10060.4	-0.0553974
10071.4	-0.0552363
10080.6	-0.0551021
10091.6	-0.0549413
10100.8	-0.0548078
10110	-0.0546749
10121.1	-0.0545164
10130.3	-0.0543853
10141.3	-0.0542292
10150.5	-0.0541002
10161.6	-0.0539467
10170.7	-0.0538199
10181.8	-0.053669
10191	-0.0535443
10200.2	-0.0534204
10211.2	-0.0532727
10220.4	-0.0531503
10231.5	-0.0530041
10240.7	-0.0528827
10251.7	-0.0527373
10260.9	-0.0526164
10270.1	-0.0524956
10281.1	-0.0523504
10290.3	-0.0522294
10301.4	-0.0520838
10310.6	-0.0519621
10321.6	-0.0518158
10330.8	-0.0516934
10341.8	-0.0515461
10351	-0.0514231
10360.2	-0.0512997
10371.3	-0.0511515
10380.5	-0.0510278
10391.5	-0.0508794
10400.7	-0.0507559
10411.7	-0.0506082
10420.9	-0.0504856
10430.1	-0.0503636
10441.2	-0.0502184
10450.4	-0.0500986
10461.4	-0.0499566
10470.6	-0.0498399
10481.6	-0.0497023
10490.8	-0.0495897
10500	-0.0494794
10511.1	-0.0493502
10520.3	-0.0492454
10531.3	-0.0491233
10540.5	-0.0490249
10551.5	-0.0489109
10560.7	-0.0488195
10571.8	-0.0487143
10581	-0.0486303
10590.2	-0.0485498
10601.2	-0.0484579
10610.4	-0.0483851
10621.4	-0.0483022
10630.6	-0.0482368
10641.7	-0.0481626
10650.9	-0.0481041
10660.1	-0.0480484
10671.1	-0.0479852
10680.3	-0.0479352
10691.3	-0.0478779
10700.5	-0.0478321
10711.6	-0.047779
10720.8	-0.047736
10731.8	-0.047685
10741	-0.0476428
10750.2	-0.0476002
10761.2	-0.0475481
10770.4	-0.0475031
10781.5	-0.0474468
10790.7	-0.0473971
10801.7	-0.0473334
10810.9	-0.0472764
10820.1	-0.0472151
10831.1	-0.0471351
10840.3	-0.0470624
10851.4	-0.046967
10860.6	-0.04688
10871.6	-0.0467658
10880.8	-0.0466616
10890	-0.0465487
10901.1	-0.0464009
10910.2	-0.0462667
10921.3	-0.0460916
10930.5	-0.0459333
10941.5	-0.0457276
10950.7	-0.0455426
10961.8	-0.0453034
10971	-0.0450892
10980.2	-0.044861
10991.2	-0.044568
11000.4	-0.0443074
11011.4	-0.0439744
11020.6	-0.0436795
11031.7	-0.0433044
11040.9	-0.0429737
11050.1	-0.0426263
11061.1	-0.0421869
11070.3	-0.0418018
11081.3	-0.0413168
11090.5	-0.0408933
11101.6	-0.0403617
11110.8	-0.0398993
11121.8	-0.039321
11131	-0.0388195
11140.2	-0.0383003
11151.2	-0.037654
11160.4	-0.037096
11171.4	-0.0364063
11180.6	-0.0358137
11191.5	-0.0350805
11200.7	-0.0344511
11211.7	-0.0336743
11220.8	-0.0330092
11231.8	-0.0321903
11240.9	-0.0314909
11250.1	-0.0307763
11261	-0.0298992
11270.2	-0.0291525
11281.2	-0.0282379
11290.3	-0.0274607
11301.3	-0.0265106
11310.4	-0.0257047
11321.4	-0.0247214
11330.6	-0.0238889
11341.5	-0.0228746
11350.7	-0.0220173
11361.7	-0.0209746
11370.8	-0.0200945
11381.8	-0.0190258
11390.9	-0.0181251
11400.1	-0.0172157
11411	-0.0161136
11420.2	-0.0151868
11431.2	-0.0140652
11440.3	-0.0131233
11451.3	-0.0119852
11460.4	-0.0110308
11471.4	-0.00987928
11480.5	-0.00891523
11491.5	-0.00775397
11500.7	-0.0067834
11511.6	-0.00561638
11520.8	-0.00464281
11531.8	-0.00347447
11540.9	-0.00250178
11550	-0.00153088
11561	-0.000369429
11570.2	0.000594315
11581.1	0.0017444
11590.3	0.0026963
11601.3	0.00382923
11610.4	0.00476433
11621.4	0.00587402
11630.5	0.00678711
11641.5	0.00786713
11650.6	0.00875263
11661.6	0.00979577
11670.8	0.010647
11681.7	0.0116441
11690.9	0.0124525
11700	0.0132384
11711	0.0141421
11720.2	0.0148599
11731.1	0.0155389
11740.3	0.016077
11751.3	0.0167683
11760.4	0.0173429
11771.4	0.0180342
11780.5	0.0187412
11791.5	0.0194797
11800.6	0.0203086
11811.6	0.0213942
11820.8	0.0223292
11831.7	0.0233337
11840.9	0.0241532
11850	0.0250486
11861	0.0262917
11870.1	0.0275492
11881.1	0.0291903
11890.3	0.0305002
11901.2	0.0319332
11910.4	0.0330564
11921.4	0.0343097
11930.5	0.0352376
11941.5	0.0362159
11950.6	0.0369677
11961.6	0.0378098
11970.7	0.038459
11981.7	0.0392375
11990.9	0.0399445
12000	0.0407263
12011	0.0417646
12020.1	0.0427216
12031.1	0.0440111
12040.2	0.0452189
12051.2	0.0468207
12060.4	0.0482733
12071.3	0.0501717
12080.5	0.0519058
12091.5	0.0541802
12100.6	0.0562206
12111.6	0.0588009
12120.7	0.0610247
12131.7	0.0637354
12140.8	0.0659872
12151.8	0.0686208
12161	0.0707188
12170.1	0.0727086
12181.1	0.0749479
12190.2	0.076695
12201.2	0.0786578
12210.4	0.0801889
12221.3	0.0819098
12230.5	0.0832523
12241.5	0.0847522
12250.6	0.0859023
12261.6	0.0871526
12270.7	0.088084
12281.7	0.089072
12290.8	0.0897917
12301.8	0.090537
12311	0.091067
12320.1	0.0915242
12331.1	0.09199
12340.2	0.0923157
12351.2	0.0926339
12360.3	0.0928404
12371.3	0.0930252
12380.5	0.0931355
12391.4	0.0932265
12400.6	0.0932731
12411.6	0.0932969
12420.7	0.0932901
12431.7	0.0932482
12440.8	0.0931833
12451.8	0.0930689
12460.9	0.0929456
12470.1	0.0928021
12481.1	0.092611
12490.2	0.0924423
12501.2	0.092233
12510.3	0.0920528
12521.3	0.0918237
12530.5	0.0916137
12541.4	0.0913258
12550.6	0.0910468
12561.6	0.0906565
12570.8	0.0902858
12580	0.0898797
12591.1	0.0893577
12600.3	0.0889045
12611.4	0.0883495
12620.6	0.0878812
12631.7	0.0873109
12640.9	0.0868247
12650.1	0.0863245
12661.2	0.0857018
12670.4	0.0851614
12681.5	0.0844835
12690.7	0.0838915
12701.8	0.0831456
12711.1	0.0824933
12720.3	0.0818124
12731.4	0.0809587
12740.7	0.0802184
12751.8	0.0793018
12761.2	0.0785155
12770.6	0.0777127
12781.8	0.07673
12791.2	0.0758924
12800.5	0.0750333
12811.8	0.0739673
12821.2	0.0730456
12830.5	0.0720924
12841.8	0.0709101
12851.1	0.0698979
12860.5	0.0688663
12871.7	0.0676079
12881.1	0.0665436
12890.5	0.0654632
12901.7	0.0641395
12911.1	0.063007
12920.5	0.0618417
12931.7	0.0603947
12941.1	0.0591472
12950.4	0.057864
12961.7	0.0562835
12971.1	0.0549397
12980.4	0.0535777
12991.7	0.0519251
13001	0.0505347
13010.4	0.0491313
13021.6	0.0474258
13031	0.0459825
13040.4	0.0445158
13051.6	0.0427235
13061	0.0412044
13070.4	0.0396655
13081.6	0.0377994
13091	0.0362336
13100.3	0.034662
13111.6	0.0327708
13121	0.0311902
13130.3	0.0296037
13141.6	0.0276898
13150.9	0.0260849
13160.3	0.024471
13171.5	0.022525
13180.9	0.0208994
13190.3	0.0192747
13201.5	0.0173329
13210.9	0.0157263
13220.3	0.0141338
13231.5	0.0122435
13240.9	0.010667
13250.2	0.00887097
13261.5	0.00693587
13270.9	0.00408059
13280.2	0.00200967
13291.5	-0.000379569
13300.8	-0.00234904
13310.2	-0.00379297
13321.4	-0.00561411
13330.8	-0.00707484
13340.2	-0.00846641
13351.4	-0.010131
13360.8	-0.0114739
13370.2	-0.0128118
13381.4	-0.0144443
13390.8	-0.0158314
13400.1	-0.0172041
13411.4	-0.0187966
13420.8	-0.0200715
13430.1	-0.0212981
13441.4	-0.0227053
13450.7	-0.0238251
13460.1	-0.0249002
13471.4	-0.0261387
13480.7	-0.0271344
13490.1	-0.028102
13501.3	-0.0292307
13510.7	-0.0301467
13520.1	-0.031041
13531.3	-0.0320851
13540.7	-0.0329298
13550	-0.0337502
13561.3	-0.034701
13570.7	-0.0354647
13580	-0.036202
13591.3	-0.0370526
13600.6	-0.0377338
13610	-0.0383907
13621.3	-0.0391487
13630.6	-0.0397563
13641.9	-0.0404576
13651.2	-0.0410198
13660.6	-0.0415622
13671.8	-0.0421873
13681.2	-0.0426869
13690.6	-0.0431672
13701.8	-0.0437182
13711.2	-0.0441564
13720.6	-0.0445758
13731.8	-0.0450545
13741.2	-0.0454335
13750.5	-0.0457948
13761.8	-0.0462057
13771.2	-0.0465299
13780.5	-0.0468379
13791.8	-0.0471869
13801.1	-0.0474611
13810.5	-0.0477204
13821.7	-0.0480126
13831.1	-0.0482406
13840.5	-0.0484547
13851.7	-0.0486939
13861.1	-0.0488786
13870.5	-0.0490505
13881.7	-0.0492402
13891.1	-0.0493848
13900.4	-0.0495176
13911.7	-0.0496618
13921.1	-0.0497698
13930.4	-0.0498671
13941.7	-0.0499702
13951	-0.0500452
13960.4	-0.0501105
13971.7	-0.0501767
13981	-0.0502218
13990.4	-0.0502583
14001.6	-0.0502909
14011	-0.050309
14020.4	-0.0503191
14031.6	-0.0503209
14041	-0.0503141
14050.3	-0.0502999
14061.6	-0.0502734
14071	-0.0502435
14080.3	-0.0502067
14091.6	-0.0501537
14100.9	-0.0501022
14110.3	-0.0500443
14121.6	-0.0499663
14130.9	-0.0498944
14140.3	-0.0498164
14151.5	-0.0497148
14160.9	-0.0496235
14170.3	-0.0495264
14181.5	-0.0494022
14190.9	-0.0492925
14200.3	-0.0491772
14211.5	-0.0490316
14220.9	-0.0489043
14230.2	-0.0487717
14241.5	-0.0486057
14250.8	-0.0484616
14260.2	-0.0483122
14271.5	-0.0481253
14281	-0.0479638
14290.5	-0.0477969
14301.8	-0.0475896
14311.4	-0.0474107
14320.9	-0.0472253
14330.6	-0.0470331
14340.4	-0.0468345
14350.1	-0.0466301
14361.9	-0.0463771
14371.7	-0.0461606
14381.5	-0.045939
14391.3	-0.0457122
14401.1	-0.0454805
14410.9	-0.0452437
14420.8	-0.0450021
14430.6	-0.0447556
14440.4	-0.0445044
14450.2	-0.0442485
14461.9	-0.0439354
14471.8	-0.0436696
14481.6	-0.0433994
14491.4	-0.043125
14501.2	-0.0428464
14511	-0.0425638
14520.8	-0.0422773
14530.6	-0.041987
14540.4	-0.0416923
14550.3	-0.0413928
14560.2	-0.0410889
14570.1	-0.0407814
14581.9	-0.0404079
14591.8	-0.0400928
14601.7	-0.0397745
14611.6	-0.0394528
14621.5	-0.0391278
14631.4	-0.0387995
14641.3	-0.038468
14651.2	-0.0381333
14661.1	-0.0377952
14671	-0.0374539
14680.9	-0.0371091
14690.8	-0.036761
14700.6	-0.0364094
14710.5	-0.0360542
14720.4	-0.0356954
14730.3	-0.0353329
14740.2	-0.0349665
14750.1	-0.0345963
14760	-0.034222
14771.9	-0.0337673
14781.8	-0.0333838
14791.7	-0.0329959
14801.5	-0.0326034
14811.4	-0.0322064
14821.3	-0.0318046
14831.2	-0.031398
14841.1	-0.0309865
14851	-0.03057
14860.9	-0.0301484
14870.8	-0.0297217
14880.7	-0.0292898
14890.6	-0.0288526
14900.5	-0.0284102
14910.4	-0.0279631
14920.2	-0.0275108
14930.1	-0.0270532
14942	-0.0264972
14951.8	-0.0260283
14961.7	-0.0255542
14971.6	-0.0250752
14981.5	-0.0245913
14991.3	-0.0241027
15001.2	-0.0236095
15011.1	-0.0231119
15021	-0.0226101
15030.8	-0.0221046
15040.7	-0.0215954
15050.6	-0.0210828
15060.4	-0.0205685
15070.2	-0.0200541
15081.9	-0.0194335
15091.7	-0.0189147
15101.4	-0.0183945
15111.2	-0.017873
15120.9	-0.0173503
15130.7	-0.016827
15140.4	-0.0163035
15150.1	-0.0157809
15161.7	-0.0151568
15171.3	-0.0146372
15181	-0.0141185
15190.7	-0.0136012
15200.3	-0.013086
15211.9	-0.0124715
15221.5	-0.0119621
15231.2	-0.0114558
15240.8	-0.0109527
15250.4	-0.0104534
15260.1	-0.00995826
15271.7	-0.00937
15281.3	-0.00888519
15290.9	-0.00840567
15300.6	-0.00793179
15310.2	-0.0074639
15321.8	-0.0069108
15331.4	-0.00645722
15341.1	-0.00601064
15350.7	-0.00557135
15360.3	-0.00513961
15371.9	-0.00463185
15381.6	-0.00421761
15391.2	-0.00381167
15400.8	-0.00341424
15410.5	-0.00302551
15420.1	-0.00264562
15431.7	-0.00220163
15441.3	-0.00184169
15451	-0.00149097
15460.6	-0.00114957
15470.3	-0.000817548
15481.8	-0.00043155
15491.5	-0.000120271
15501.1	0.000181563
15510.7	0.000473967
15520.4	0.000756971
15530	0.00103062
15541.6	0.00134675
15551.2	0.00160006
15560.9	0.00184427
15570.5	0.00207948
15580.2	0.0023058
15591.7	0.00256583
15601.4	0.00277305
15611	0.00297182
15620.6	0.00316229
15630.3	0.00334461
15641.9	0.00355287
15651.5	0.00371786
15661.1	0.00387524
15670.8	0.00402519
15680.4	0.00416788
15690.1	0.0043035
15701.6	0.00445715
15711.3	0.00457783
15720.9	0.004692
15730.6	0.00479983
15740.2	0.00490151
15751.8	0.00501562
15761.4	0.00510434
15771	0.00518743
15780.7	0.00526504
15790.3	0.00533734
15801.9	0.00541728
15811.5	0.00547838
15821.2	0.00553462
15830.8	0.00558611
15840.5	0.00563298
15850.1	0.00567535
15861.7	0.0057204
15871.4	0.00575337
15881.1	0.00578234
15890.9	0.0058071
15900.7	0.0058277
15910.5	0.0058442
15920.3	0.00585666
15930.1	0.00586512
15941.8	0.00587005
15951.6	0.00586984
15961.4	0.00586572
15971.2	0.00585769
15981	0.00584576
15990.7	0.0058299
16000.5	0.0058101
16010.3	0.00578632
16020.1	0.00575854
16031.8	0.0057199
16041.6	0.00568324
16051.3	0.00564241
16061	0.00559744
16070.7	0.00554824
16080.4	0.00549482
16090.1	0.00543704
16101.7	0.00536181
16111.3	0.00529415
16120.9	0.00522182
16130.5	0.00514461
16140.1	0.0050624
16151.6	0.00495697
16161.2	0.0048633
16170.9	0.0047642
16180.5	0.00465952
16190.1	0.00454911
16201.6	0.00440886
16211.2	0.00428532
16220.8	0.00415558
16230.4	0.00401948
16240	0.00387687
16251.6	0.00369692
16261.2	0.00353945
16270.8	0.00337499
16280.3	0.00320402
16291.8	0.00299038
16301.3	0.00280477
16310.8	0.0026118
16320.3	0.00241125
16331.7	0.00216088
16341.1	0.00194387
16350.6	0.00171912
16360.1	0.00148676
16371.4	0.00119738
16380.9	0.000947337
16390.4	0.000689145
16401.7	0.000368481
16411.2	9.21823e-05
16420.6	-0.000192405
16430.1	-0.000485299
16441.5	-0.000847749
16450.9	-0.00115893
16460.4	-0.0014784
16471.7	-0.00187266
16481.2	-0.00220989
16490.6	-0.00255469
16500.1	-0.00290745
16511.4	-0.00334122
16520.8	-0.00371129
16530.3	-0.00408904
16541.6	-0.0045523
16551	-0.00494647
16560.5	-0.00534784
16571.8	-0.00583874
16581.2	-0.00625531
16590.7	-0.00667847
16600.1	-0.00710798
16611.4	-0.00763147
16620.9	-0.00807412
16630.3	-0.00852234
16641.6	-0.00906714
16651.1	-0.00952659
16660.5	-0.00999067
16671.8	-0.0105532
16681.3	-0.0110264
16690.7	-0.0115031
16700.2	-0.011983
16711.5	-0.0125628
16720.9	-0.0130486
16730.4	-0.0135365
16741.7	-0.0141241
16751.1	-0.0146152
16760.6	-0.0151071
16771.9	-0.0156979
16781.3	-0.0161901
16790.8	-0.0166819
16800.2	-0.0171728
16811.5	-0.0177601
16820.9	-0.0182476
16830.4	-0.0187328
16841.7	-0.0193115
16851.1	-0.0197903
16860.6	-0.0202655
16870	-0.0207366
16881.3	-0.0212962
16890.8	-0.0217571
16900.2	-0.0222126
16911.5	-0.0227516
16921	-0.023194
16930.4	-0.0236297
16941.7	-0.0241432
16951.2	-0.0245629
16960.6	-0.0249746
16970	-0.0253782
16981.4	-0.0258512
16990.8	-0.0262354
17000.2	-0.0266103
17011.6	-0.0270474
17021	-0.0274006
17030.4	-0.0277434
17041.7	-0.0281407
17051.2	-0.0284597
17060.6	-0.0287675
17070.1	-0.0290637
17081.4	-0.0294036
17090.8	-0.0296736
17100.2	-0.0299314
17111.5	-0.0302239
17121	-0.0304535
17130.4	-0.0306701
17141.6	-0.0309126
17151	-0.0311003
17160.4	-0.0312748
17171.7	-0.0314664
17181.1	-0.0316112
17190.5	-0.0317425
17201.7	-0.031882
17211.1	-0.0319831
17220.4	-0.0320706
17231.7	-0.0321575
17241	-0.0322149
17250.4	-0.0322587
17261.6	-0.0322932
17271	-0.032307
17280.3	-0.0323073
17291.5	-0.0322898
17300.9	-0.0322605
17310.2	-0.0322179
17321.5	-0.0321494
17330.8	-0.0320779
17340.1	-0.0319938
17351.3	-0.0318762
17360.6	-0.0317643
17371.8	-0.0316138
17381.1	-0.0314749
17390.4	-0.031324
17401.6	-0.0311273
17410.9	-0.0309507
17420.2	-0.0307626
17431.4	-0.0305221
17440.7	-0.0303097
17451.8	-0.0300406
17461.1	-0.0298049
17470.5	-0.029559
17481.5	-0.0292529
17490.7	-0.0289888
17501.8	-0.0286597
17511	-0.0283757
17520.2	-0.0280831
17531.2	-0.027721
17540.4	-0.0274103
17551.5	-0.0270274
17560.6	-0.0267
17571.7	-0.0262977
17580.9	-0.025955
17590.1	-0.0256057
17601.1	-0.0251783
17610.3	-0.0248156
17621.4	-0.0243729
17630.6	-0.0239981
17641.6	-0.0235418
17650.8	-0.0231564
17661.8	-0.0226881
17671	-0.0222934
17680.2	-0.0218949
17691.3	-0.0214122
17700.5	-0.0210064
17711.5	-0.0205158
17720.7	-0.0201041
17731.7	-0.0196072
17740.9	-0.019191
17750.1	-0.0187731
17761.2	-0.0182699
17770.4	-0.0178494
17781.4	-0.0173438
17790.6	-0.016922
17801.6	-0.0164155
17810.8	-0.0159936
17820	-0.015572
17831.1	-0.015067
17840.3	-0.0146471
17851.3	-0.0141448
17860.5	-0.0137278
17871.5	-0.0132296
17880.7	-0.0128166
17891.8	-0.012324
17901	-0.0119161
17910.2	-0.0115109
17921.2	-0.0110285
17930.4	-0.01063
17941.4	-0.0101563
17950.6	-0.00976542
17961.7	-0.00930149
17970.9	-0.00891933
17980.1	-0.00854142
17991.1	-0.00809381
18000.3	-0.00772592
18011.3	-0.00729087
18020.5	-0.00693389
18031.6	-0.00651244
18040.8	-0.0061672
18051.8	-0.00576033
18061	-0.00542763
18070.2	-0.00510089
18081.2	-0.00471686
18090.4	-0.00440372
18101.5	-0.00403644
18110.7	-0.0037376
18121.7	-0.00338785
18130.9	-0.00310392
18140.1	-0.00282697
18151.1	-0.00250398
18160.3	-0.00224276
18171.4	-0.00193897
18180.6	-0.00169398
18191.6	-0.00140994
18200.8	-0.00118164
18210	-0.000961057
18221.1	-0.000706667
18230.3	-0.000503354
18241.3	-0.000269902
18250.5	-8.42103e-05
18261.5	0.000127898
18270.7	0.000295645
18281.8	0.000486038
18291	0.000635543
18300.2	0.000776664
18311.2	0.000934864
18320.4	0.00105735
18331.4	0.00119303
18340.6	0.00129662
18351.7	0.00140948
18360.9	0.00149394
18370.1	0.00156964
18381.1	0.00164883
18390.3	0.00170508
18401.3	0.00176081
18410.5	0.00179742
18421.6	0.00182948
18430.8	0.00184628
18441.8	0.00185448
18451	0.00185133
18460.2	0.00183909
18471.2	0.00181236
18480.4	0.00178005
18491.5	0.00172923
18500.7	0.00167684
18511.7	0.00160196
18520.9	0.00152955
18530.1	0.00144807
18541.1	0.00133839
18550.3	0.00123711
18561.4	0.00110379
18570.6	0.000982957
18581.6	0.000826374
18590.8	0.000686335
18600	0.000537711
18611	0.000348178
18620.2	0.000181046
18631.3	-3.03478e-05
18640.5	-0.000215378
18651.5	-0.000447835
18660.7	-0.000650045
18671.7	-0.000902636
18680.9	-0.0011212
18690.1	-0.00134688
18701.2	-0.00162683
18710.4	-0.00186747
18721.4	-0.00216471
18730.6	-0.00241921
18741.7	-0.00273238
18750.8	-0.00299954
18760	-0.00327203
18771.1	-0.00360568
18780.3	-0.00388893
18791.3	-0.00423466
18800.5	-0.00452726
18811.6	-0.00488331
18820.8	-0.00518377
18831.8	-0.00554832
18841	-0.00585507
18850.2	-0.00616415
18861.2	-0.00653765
18870.4	-0.00685066
18881.5	-0.00722786
18890.7	-0.00754311
18901.7	-0.00792198
18910.9	-0.00823775
18920.1	-0.0085532
18931.1	-0.00893078
18940.3	-0.00924422
18951.4	-0.00961836
18960.6	-0.00992806
18971.6	-0.0102967
18980.8	-0.0106009
18991.8	-0.0109619
19001	-0.0112589
19010.2	-0.0115521
19021.3	-0.0118984
19030.5	-0.012182
19041.5	-0.0125158
19050.7	-0.0127878
19061.7	-0.0131053
19070.8	-0.0133635
19081.8	-0.013665
19090.9	-0.0139091
19100.1	-0.0141463
19111	-0.0144215
19120.2	-0.0146427
19131.2	-0.0148978
19140.3	-0.0151017
19151.3	-0.0153354
19160.4	-0.0155207
19171.4	-0.0157316
19180.6	-0.0158974
19191.5	-0.0160843
19200.7	-0.0162297
19211.6	-0.0163914
19220.8	-0.0165154
19231.8	-0.0166511
19240.9	-0.016753
19250.1	-0.0168447
19261	-0.016941
19270.2	-0.0170097
19281.2	-0.0170781
19290.3	-0.0171234
19301.3	-0.0171634
19310.4	-0.0171848
19321.4	-0.0171961
19330.5	-0.0171934
19341.5	-0.0171756
19350.7	-0.0171487
19361.6	-0.0171017
19370.8	-0.0170504
19381.8	-0.0169742
19390.9	-0.0168986
19400	-0.016812
19411	-0.0166936
19420.2	-0.0165829
19431.1	-0.0164357
19440.3	-0.0163011
19451.3	-0.0161255
19460.4	-0.0159675
19471.4	-0.015764
19480.5	-0.015583
19491.5	-0.0153521
19500.6	-0.0151486
19511.6	-0.0148911
19520.8	-0.0146657
19531.7	-0.0143824
19540.9	-0.0141357
19550	-0.0138797
19561	-0.0135603
19570.2	-0.0132843
19581.1	-0.0129413
19590.3	-0.0126461
19601.2	-0.0122806
19610.4	-0.0119671
19621.4	-0.0115803
19630.5	-0.0112495
19641.5	-0.0108427
19650.6	-0.0104957
19661.6	-0.01007
19670.8	-0.00970789
19681.7	-0.00926478
19690.9	-0.00888869
19700	-0.00850663
19711	-0.00804065
19720.1	-0.00764638
19731.1	-0.00716647
19740.3	-0.00676122
19751.2	-0.0062689
19760.4	-0.00585394
19771.4	-0.00535074
19780.5	-0.00492736
19791.5	-0.00441484
19800.6	-0.00398435
19811.6	-0.00346408
19820.7	-0.00302777
19831.7	-0.00250131
19840.9	-0.0020605
19850	-0.00161806
19861	-0.00108536
19870.1	-0.000640267
19881.1	-0.000105135
19890.2	0.000341362
19901.2	0.00087745
19910.4	0.00132414
19921.3	0.00185975
19930.5	0.00230546
19941.5	0.00283921
19950.6	0.0032828
19961.6	0.00381334
19970.7	0.00425372
19981.7	0.00477976
19990.9	0.00521585
