0	0
14.7745	0
22.1618	0
36.9363	0
44.3236	0
51.7109	0
66.4854	0
73.8727	0
81.2599	0
96.0345	0
103.422	0
110.809	0
125.584	0
132.971	0
140.358	0
155.133	0
162.52	0
177.294	0
184.682	0
192.069	0
206.843	0
214.231	0
221.618	0
236.393	0
243.78	0
251.167	0
265.942	0
273.329	0
280.716	0
295.491	0
302.878	0
310.265	0
325.04	0
332.427	0
347.202	0
354.589	0
361.976	0
376.751	0
384.138	0
391.525	0
406.3	0
413.687	0
421.074	0
435.849	0
443.236	0
450.623	0
465.398	0
472.785	0
480.172	0
494.947	0
502.334	0
517.109	0
524.496	0
531.883	0
546.658	0
554.045	0
561.432	0
576.207	0
583.594	0
590.981	0
605.756	0
613.143	0
620.53	0
635.305	0
642.692	0
650.08	0
664.854	0
672.241	0
687.016	0
694.403	0
701.79	0
716.565	0
723.952	0
731.34	0
746.114	0
753.501	0
760.889	0
775.663	0
783.05	0
790.438	0
805.212	0
812.599	0
827.374	0
834.761	0
842.149	0
856.923	0
864.31	0
871.698	0
886.472	0
893.859	0
901.247	0
916.021	0
923.408	0
930.796	0
945.57	0
952.958	0
960.345	0
975.119	0
982.507	0
997.281	0
1004.67	0
1012.06	0
1026.83	0
1034.22	0
1041.6	0
1056.38	0
1063.77	0
1071.15	0
1085.93	0
1093.32	0
1100.7	0
1115.48	0
1122.86	0
1130.25	0
1145.03	0
1152.41	0
1167.19	0
1174.58	0
1181.96	0
1196.74	0
1204.12	0
1211.51	0
1226.29	0
1233.67	0
1241.06	0
1255.84	0
1263.22	0
1270.61	0
1285.38	0
1292.77	0
1300.16	0
1314.93	0
1322.32	0
1337.1	0
1344.48	0
1351.87	0
1366.64	0
1374.03	0
1381.42	0
1396.19	0
1403.58	0
1410.97	0
1425.74	0
1433.13	0
1440.52	0
1455.29	0
1462.68	0
1470.07	-9.09495e-13
1484.84	-2.72848e-12
1492.23	-3.63798e-12
1507	-6.36646e-12
1514.39	-9.09495e-12
1521.78	-1.18234e-11
1536.55	-2.18279e-11
1543.94	-2.91038e-11
1551.33	-3.81988e-11
1566.1	-6.54836e-11
1573.49	-8.54925e-11
1580.88	-1.10958e-10
1595.65	-1.85537e-10
1603.04	-2.38288e-10
1610.42	-3.0559e-10
1625.2	-4.99313e-10
1632.59	-6.35737e-10
1647.36	-1.02136e-09
1654.75	-1.28966e-09
1662.14	-1.62436e-09
1676.91	-2.55477e-09
1684.3	-3.19142e-09
1691.68	-3.97631e-09
1706.46	-6.12727e-09
1713.85	-7.57791e-09
1721.23	-9.3487e-09
1736.01	-1.41281e-08
1743.4	-1.73059e-08
1750.78	-2.11494e-08
1765.56	-3.13712e-08
1772.94	-3.80778e-08
1780.33	-4.61159e-08
1795.11	-6.71962e-08
1802.49	-8.08514e-08
1817.27	-1.1631e-07
1824.66	-1.39066e-07
1832.04	-1.65934e-07
1846.82	-2.34812e-07
1854.2	-2.78493e-07
1861.59	-3.29649e-07
1876.37	-4.59198e-07
1883.75	-5.40415e-07
1891.14	-6.34801e-07
1905.92	-8.71035e-07
1913.3	-1.01751e-06
1920.69	-1.18648e-06
1935.46	-1.60464e-06
1942.85	-1.8612e-06
1950.24	-2.15503e-06
1965.01	-2.87441e-06
1972.4	-3.31129e-06
1987.18	-4.37254e-06
1994.56	-5.01229e-06
2001.95	-5.73637e-06
2016.72	-7.47765e-06
2024.11	-8.51735e-06
2031.5	-9.68659e-06
2046.27	-1.24712e-05
2053.66	-1.41186e-05
2061.05	-1.59599e-05
2075.82	-2.03041e-05
2083.21	-2.28515e-05
2090.6	-2.56816e-05
2105.37	-3.2299e-05
2112.76	-3.61461e-05
2120.15	-4.03955e-05
2134.92	-5.02456e-05
2142.31	-5.59245e-05
2157.08	-6.90048e-05
2164.47	-7.65003e-05
2171.86	-8.47e-05
2186.63	-0.000103432
2194.02	-0.000114081
2201.41	-0.000125669
2216.18	-0.000151931
2223.57	-0.000166746
2230.95	-0.000182785
2245.73	-0.000218849
2253.12	-0.000239042
2260.5	-0.000260791
2275.28	-0.000309326
2282.67	-0.0003363
2290.05	-0.00036521
2304.83	-0.00042924
2312.21	-0.000464567
2326.99	-0.000542373
2334.38	-0.000585068
2341.76	-0.000630433
2356.54	-0.00072961
2363.93	-0.000783636
2371.31	-0.000840759
2386.09	-0.000964711
2393.47	-0.00103174
2400.86	-0.00110225
2415.64	-0.0012541
2423.02	-0.00133559
2430.41	-0.00142089
2445.19	-0.00160312
2452.57	-0.00170014
2467.35	-0.00190616
2474.73	-0.00201517
2482.12	-0.00212816
2496.9	-0.00236599
2504.28	-0.00249071
2511.67	-0.00261918
2526.45	-0.00288698
2533.83	-0.00302601
2541.22	-0.00316823
2555.99	-0.00346137
2563.38	-0.0036118
2570.77	-0.0037644
2585.54	-0.00407476
2592.93	-0.00423175
2600.32	-0.00438936
2615.09	-0.00470448
2622.48	-0.00486088
2637.25	-0.00516833
2644.64	-0.00531801
2652.03	-0.00546399
2666.8	-0.0057416
2674.19	-0.00587146
2681.58	-0.00599409
2696.35	-0.00621356
2703.74	-0.00630819
2711.13	-0.0063912
2725.9	-0.0065173
2733.29	-0.00655775
2740.68	-0.00658126
2755.45	-0.00657155
2762.84	-0.00653522
2770.23	-0.00647574
2785	-0.00628051
2792.39	-0.00614122
2807.16	-0.00577006
2814.55	-0.00553435
2821.94	-0.00526259
2836.71	-0.00460275
2844.1	-0.00421051
2851.49	-0.00377389
2866.26	-0.00275881
2873.65	-0.00217596
2881.03	-0.00153995
2895.81	-9.94349e-05
2903.2	0.000709551
2910.58	0.00158069
2925.36	0.00351834
2932.74	0.00458929
2940.13	0.00573124
2954.91	0.00823667
2962.29	0.00960433
2977.07	0.0125796
2984.46	0.0141911
2991.84	0.0158875
3006.62	0.0195424
3014	0.021504
3021.39	0.023557
3036.17	0.0279427
3043.55	0.0302777
3050.94	0.0327089
3065.72	0.0378631
3073.1	0.0405874
3080.49	0.0434105
3095.26	0.0493539
3102.65	0.0524742
3110.04	0.0556934
3124.81	0.0624265
3132.2	0.0659389
3146.97	0.0732508
3154.36	0.0770477
3161.75	0.0809366
3176.52	0.0889826
3183.91	0.0931357
3191.3	0.0973723
3206.07	0.106086
3213.46	0.110557
3220.85	0.115099
3235.62	0.124387
3243.01	0.129124
3250.4	0.133918
3265.17	0.14366
3272.56	0.148599
3287.33	0.158589
3294.72	0.16363
3302.11	0.168695
3316.88	0.178874
3324.27	0.183977
3331.65	0.189081
3346.43	0.19927
3353.82	0.204342
3361.2	0.20939
3375.98	0.219394
3383.36	0.224335
3390.75	0.229228
3405.52	0.238841
3412.91	0.243549
3420.3	0.248182
3435.07	0.257197
3442.46	0.261566
3457.23	0.269996
3464.62	0.274044
3472.01	0.277973
3486.78	0.285448
3494.17	0.288982
3501.56	0.292372
3516.33	0.298702
3523.72	0.301631
3531.11	0.304394
3545.88	0.309409
3553.27	0.31165
3560.65	0.313709
3575.43	0.317261
3582.81	0.318747
3590.2	0.320036
3604.98	0.322008
3612.36	0.322685
3627.14	0.323414
3634.52	0.32346
3641.91	0.323293
3656.68	0.322313
3664.07	0.321499
3671.46	0.320469
3686.23	0.317758
3693.62	0.316079
3701.01	0.314185
3715.78	0.309758
3723.17	0.307228
3730.55	0.30449
3745.33	0.298398
3752.72	0.295051
3760.1	0.291506
3774.88	0.283837
3782.26	0.279722
3797.04	0.270949
3804.42	0.266301
3811.81	0.261485
3826.59	0.251368
3833.97	0.246078
3841.36	0.240642
3856.13	0.229352
3863.52	0.223511
3870.91	0.217548
3885.68	0.205279
3893.07	0.198987
3900.46	0.192599
3915.23	0.179562
3922.62	0.172927
3930	0.166224
3944.78	0.152642
3952.16	0.145777
3966.94	0.131934
3974.32	0.124971
3981.71	0.11799
3996.49	0.104001
4003.87	0.0970076
4011.26	0.0900237
4026.03	0.0761124
4033.42	0.0691986
4040.81	0.0623213
4055.58	0.0487024
4062.97	0.0419733
4070.36	0.0353058
4085.13	0.0221795
4092.52	0.0157319
4107.29	0.00309535
4114.68	-0.00308336
4122.06	-0.00916241
4136.84	-0.0210029
4144.23	-0.0267555
4151.61	-0.0323908
4166.39	-0.043294
4173.77	-0.0485548
4181.16	-0.0536838
4195.93	-0.0635349
4203.32	-0.0682514
4210.71	-0.0728253
4225.48	-0.0815368
4232.87	-0.0856707
4240.26	-0.0896545
4255.03	-0.0971671
4262.42	-0.100694
4277.19	-0.107285
4284.58	-0.110348
4291.97	-0.113257
4306.74	-0.118611
4314.13	-0.121057
4321.51	-0.123349
4336.29	-0.127479
4343.68	-0.129319
4351.06	-0.13101
4365.84	-0.133952
4373.22	-0.135208
4380.61	-0.136322
4395.39	-0.138134
4402.77	-0.138838
4410.16	-0.139409
4424.93	-0.140166
4432.32	-0.140357
4447.1	-0.14038
4454.48	-0.140217
4461.87	-0.139943
4476.64	-0.139074
4484.03	-0.138485
4491.42	-0.137797
4506.19	-0.136142
4513.58	-0.13518
4520.97	-0.134135
4535.74	-0.131804
4543.13	-0.130527
4550.52	-0.12918
4565.29	-0.126289
4572.68	-0.124753
4580.07	-0.123161
4594.84	-0.119825
4602.23	-0.118086
4617	-0.114488
4624.39	-0.112634
4631.78	-0.110748
4646.55	-0.106894
4653.94	-0.104932
4661.33	-0.10295
4676.1	-0.0989413
4683.49	-0.0969198
4690.87	-0.0948906
4705.65	-0.0908201
4713.04	-0.088784
4720.42	-0.0867508
4735.2	-0.0827025
4742.59	-0.0806921
4757.36	-0.0767095
4764.75	-0.0747416
4772.13	-0.0727918
4786.91	-0.0689542
4794.3	-0.0670698
4801.68	-0.0652105
4816.46	-0.0615735
4823.85	-0.0597986
4831.23	-0.0580545
4846.01	-0.0546634
4853.39	-0.0530186
4860.78	-0.0514091
4875.56	-0.0482992
4882.94	-0.0468003
4890.33	-0.0453399
4905.1	-0.0425366
4912.49	-0.0411947
4927.27	-0.0386327
4934.65	-0.0374131
4942.04	-0.0362349
4956.82	-0.0340029
4964.2	-0.0329493
4971.59	-0.0319374
4986.36	-0.0300382
4993.75	-0.0291506
5001.14	-0.0283042
5015.91	-0.0267337
5023.3	-0.026009
5030.69	-0.0253242
5045.46	-0.0240726
5052.85	-0.0235049
5060.24	-0.0229752
5075.01	-0.0220278
5082.4	-0.0216089
5097.17	-0.0208776
5104.56	-0.0205639
5111.95	-0.0202839
5126.72	-0.019822
5134.11	-0.0196387
5141.5	-0.0194861
5156.27	-0.0192701
5163.66	-0.019205
5171.05	-0.0191675
5185.82	-0.0191718
5193.21	-0.0192121
5200.59	-0.0192765
5215.37	-0.0194747
5222.76	-0.0196068
5230.14	-0.0197598
5244.92	-0.0201249
5252.31	-0.0203354
5267.08	-0.0208079
5274.47	-0.0210683
5281.85	-0.0213436
5296.63	-0.0219361
5304.02	-0.0222515
5311.4	-0.0225787
5326.18	-0.0232651
5333.56	-0.0236228
5340.95	-0.0239891
5355.73	-0.0247447
5363.11	-0.0251325
5370.5	-0.025526
5385.28	-0.0263274
5392.66	-0.0267339
5400.05	-0.0271433
5414.82	-0.0279686
5422.21	-0.0283831
5436.99	-0.029213
5444.37	-0.0296272
5451.76	-0.0300401
5466.54	-0.0308599
5473.92	-0.0312657
5481.31	-0.0316682
5496.08	-0.0324612
5503.47	-0.0328507
5510.86	-0.033235
5525.63	-0.0339862
5533.02	-0.0343523
5540.41	-0.0347116
5555.18	-0.0354083
5562.57	-0.0357449
5577.34	-0.0363934
5584.73	-0.0367046
5592.12	-0.0370068
5606.89	-0.0375829
5614.28	-0.0378564
5621.67	-0.0381198
5636.44	-0.038616
5643.83	-0.0388484
5651.22	-0.03907
5665.99	-0.0394805
5673.38	-0.0396691
5680.77	-0.0398466
5695.54	-0.0401674
5702.93	-0.0403106
5710.31	-0.0404424
5725.09	-0.0406711
5732.48	-0.040768
5747.25	-0.040927
5754.64	-0.0409891
5762.03	-0.0410395
5776.8	-0.0411057
5784.19	-0.0411216
5791.57	-0.041126
5806.35	-0.0411009
5813.74	-0.0410715
5821.12	-0.041031
5835.9	-0.0409171
5843.29	-0.0408439
5850.67	-0.0407601
5865.45	-0.040561
5872.83	-0.040446
5880.22	-0.0403209
5895	-0.0400409
5902.38	-0.0398865
5917.16	-0.0395493
5924.54	-0.0393669
5931.93	-0.0391756
5946.71	-0.038767
5954.09	-0.03855
5961.48	-0.0383249
5976.26	-0.0378508
5983.64	-0.0376023
5991.03	-0.0373463
6005.8	-0.0368131
6013.19	-0.0365363
6020.58	-0.0362528
6035.35	-0.035667
6042.74	-0.0353651
6050.13	-0.0350574
6064.9	-0.0344255
6072.29	-0.0341018
6087.06	-0.0334397
6094.45	-0.0331018
6101.84	-0.0327595
6116.61	-0.0320627
6124	-0.0317085
6131.39	-0.0313508
6146.16	-0.0306254
6153.55	-0.0302581
6160.94	-0.029888
6175.71	-0.02914
6183.1	-0.0287624
6190.49	-0.0283827
6205.26	-0.0276174
6212.65	-0.0272322
6220.04	-0.0268455
6234.81	-0.0260681
6242.2	-0.0256778
6256.97	-0.0248943
6264.36	-0.0245015
6271.75	-0.0241082
6286.52	-0.0233204
6293.91	-0.0229261
6301.3	-0.0225317
6316.07	-0.0217432
6323.46	-0.0213492
6330.84	-0.0209555
6345.62	-0.0201694
6353.01	-0.0197772
6360.39	-0.0193857
6375.17	-0.0186049
6382.56	-0.0182157
6397.33	-0.0174403
6404.72	-0.0170541
6412.1	-0.0166691
6426.88	-0.0159025
6434.27	-0.0155211
6441.65	-0.015141
6456.43	-0.0143848
6463.81	-0.0140088
6471.2	-0.0136342
6485.98	-0.0128895
6493.36	-0.0125194
6500.75	-0.0121509
6515.53	-0.0114185
6522.91	-0.0110547
6530.3	-0.0106925
6545.07	-0.00997304
6552.46	-0.00961577
6567.24	-0.00890622
6574.62	-0.00855396
6582.01	-0.00820338
6596.79	-0.0075073
6604.17	-0.00716181
6611.56	-0.00681802
6626.33	-0.00613559
6633.72	-0.00579695
6641.11	-0.00546003
6655.88	-0.00479139
6663.27	-0.00445967
6670.66	-0.00412969
6685.43	-0.00347498
6692.82	-0.00315027
6700.21	-0.00282732
6714.98	-0.00218678
6722.37	-0.00186919
6737.14	-0.00123946
6744.53	-0.000927345
6751.92	-0.000617074
6766.69	-2.14404e-06
6774.08	0.00030248
6781.47	0.000605184
6796.24	0.00120475
6803.63	0.00150156
6811.02	0.00179636
6825.79	0.00237981
6833.18	0.0026684
6840.57	0.00295487
6855.34	0.00352128
6862.73	0.00380116
6870.12	0.00407877
6884.89	0.00462703
6892.28	0.00489761
6907.05	0.00543141
6914.44	0.00569456
6921.83	0.00595515
6936.6	0.00646843
6943.99	0.00672102
6951.38	0.00697086
6966.15	0.00746203
6973.54	0.00770327
6980.92	0.00794152
6995.7	0.00840888
7003.09	0.00863787
7010.47	0.00886366
7025.25	0.0093054
7032.64	0.00952123
7040.02	0.00973363
7054.8	0.0101479
7062.18	0.0103496
7076.96	0.010742
7084.35	0.0109325
7091.73	0.0111191
7106.51	0.0114807
7113.9	0.0116554
7121.28	0.0118261
7136.06	0.0121549
7143.44	0.0123129
7150.83	0.0124666
7165.61	0.0127609
7172.99	0.0129014
7180.38	0.0130373
7195.16	0.0132954
7202.54	0.0134174
7217.32	0.0136473
7224.7	0.013755
7232.09	0.0138579
7246.87	0.0140489
7254.25	0.0141369
7261.64	0.01422
7276.42	0.0143709
7283.8	0.0144387
7291.19	0.0145013
7305.96	0.014611
7313.35	0.014658
7320.74	0.0146998
7335.51	0.0147676
7342.9	0.0147935
7350.29	0.014814
7365.06	0.0148392
7372.45	0.0148437
7387.22	0.0148366
7394.61	0.014825
7402	0.014808
7416.77	0.0147578
7424.16	0.0147246
7431.55	0.0146861
7446.32	0.0145929
7453.71	0.0145383
7461.1	0.0144783
7475.87	0.0143423
7483.26	0.0142664
7490.65	0.0141851
7505.42	0.0140069
7512.81	0.0139099
7520.19	0.0138077
7534.97	0.0135879
7542.36	0.0134703
7557.13	0.0132198
7564.52	0.013087
7571.91	0.0129492
7586.68	0.0126588
7594.07	0.0125063
7601.45	0.0123488
7616.23	0.0120196
7623.62	0.0118479
7631	0.0116714
7645.78	0.0113046
7653.16	0.0111144
7660.55	0.0109196
7675.33	0.0105166
7682.71	0.0103086
7690.1	0.0100962
7704.88	0.00965853
7712.26	0.0094334
7727.04	0.00897077
7734.42	0.00873337
7741.81	0.00849198
7756.59	0.00799742
7763.97	0.00774435
7771.36	0.00748751
7786.13	0.00696266
7793.52	0.00669477
7800.91	0.00642331
7815.68	0.00586988
7823.07	0.00558801
7830.46	0.00530279
7845.23	0.00472249
7852.62	0.00442752
7860.01	0.00412941
7874.78	0.00352399
7882.17	0.00321679
7896.94	0.00259369
7904.33	0.00227791
7911.72	0.00195937
7926.49	0.00131428
7933.88	0.000987837
7941.27	0.000658872
7956.04	-6.39498e-06
7963.43	-0.000342582
7970.82	-0.00068106
7985.59	-0.00136466
7992.98	-0.00170966
8000.36	-0.00205672
8015.14	-0.00275676
8022.53	-0.00310964
8037.3	-0.00382077
8044.69	-0.00417891
8052.07	-0.00453869
8066.85	-0.0052629
8074.24	-0.00562721
8081.62	-0.00599291
8096.4	-0.00672822
8103.79	-0.0070977
8111.17	-0.00746831
8125.95	-0.00821267
8133.33	-0.0085863
8140.72	-0.00896079
8155.5	-0.00971213
8162.88	-0.0100888
8170.27	-0.0104662
8185.04	-0.0112223
8192.43	-0.0116011
8207.21	-0.0123594
8214.59	-0.0127389
8221.98	-0.0131186
8236.76	-0.0138779
8244.14	-0.0142575
8251.53	-0.0146369
8266.3	-0.015395
8273.69	-0.0157735
8281.08	-0.0161515
8295.85	-0.0169059
8303.24	-0.0172822
8310.63	-0.0176577
8325.4	-0.0184061
8332.79	-0.0187789
8340.18	-0.0191507
8354.95	-0.0198908
8362.34	-0.020259
8377.11	-0.0209913
8384.5	-0.0213552
8391.89	-0.0217175
8406.66	-0.0224372
8414.05	-0.0227944
8421.44	-0.0231498
8436.21	-0.0238545
8443.6	-0.0242038
8450.98	-0.0245509
8465.76	-0.0252383
8473.15	-0.0255784
8480.53	-0.0259161
8495.31	-0.0265838
8502.7	-0.0269137
8510.08	-0.0272408
8524.86	-0.0278866
8532.24	-0.028205
8547.02	-0.0288328
8554.41	-0.029142
8561.79	-0.0294479
8576.57	-0.0300499
8583.95	-0.0303457
8591.34	-0.0306381
8606.12	-0.0312121
8613.5	-0.0314936
8620.89	-0.0317714
8635.67	-0.0323155
8643.05	-0.0325818
8650.44	-0.032844
8665.21	-0.0333564
8672.6	-0.0336064
8687.38	-0.0340938
8694.76	-0.0343311
8702.15	-0.034564
8716.93	-0.0350168
8724.31	-0.0352364
8731.7	-0.0354516
8746.47	-0.0358681
8753.86	-0.0360694
8761.25	-0.036266
8776.02	-0.0366451
8783.41	-0.0368274
8790.8	-0.0370049
8805.57	-0.0373453
8812.96	-0.0375081
8820.35	-0.037666
8835.12	-0.0379667
8842.51	-0.0381095
8857.28	-0.0383799
8864.67	-0.0385074
8872.06	-0.0386298
8886.83	-0.0388592
8894.22	-0.0389661
8901.61	-0.0390678
8916.38	-0.0392556
8923.77	-0.0393417
8931.15	-0.0394225
8945.93	-0.0395684
8953.32	-0.0396334
8960.7	-0.0396931
8975.48	-0.0397968
8982.87	-0.0398407
8990.25	-0.0398794
9005.03	-0.0399408
9012.41	-0.0399636
9027.19	-0.0399935
9034.58	-0.0400005
9041.96	-0.0400023
9056.74	-0.0399902
9064.13	-0.0399763
9071.51	-0.0399572
9086.29	-0.0399035
9093.67	-0.0398688
9101.06	-0.0398291
9115.84	-0.0397342
9123.22	-0.0396792
9130.61	-0.0396191
9145.38	-0.0394837
9152.77	-0.0394086
9160.16	-0.0393285
9174.93	-0.0391534
9182.32	-0.0390585
9197.1	-0.0388543
9204.48	-0.0387449
9211.87	-0.0386308
9226.64	-0.0383885
9234.03	-0.0382603
9241.42	-0.0381275
9256.19	-0.0378481
9263.58	-0.0377016
9270.97	-0.0375507
9285.74	-0.0372355
9293.13	-0.0370714
9300.52	-0.0369029
9315.29	-0.0365532
9322.68	-0.0363721
9330.07	-0.0361868
9344.84	-0.035804
9352.23	-0.0356066
9367	-0.0352
9374.39	-0.0349909
9381.78	-0.034778
9396.55	-0.0343409
9403.94	-0.0341169
9411.33	-0.0338893
9426.1	-0.0334235
9433.49	-0.0331854
9440.87	-0.0329439
9455.65	-0.0324511
9463.04	-0.0321998
9470.42	-0.0319454
9485.2	-0.0314274
9492.59	-0.0311639
9507.36	-0.0306282
9514.75	-0.0303561
9522.13	-0.0300813
9536.91	-0.0295238
9544.3	-0.0292412
9551.68	-0.0289561
9566.46	-0.0283787
9573.85	-0.0280866
9581.23	-0.0277923
9596.01	-0.0271972
9603.39	-0.0268966
9610.78	-0.026594
9625.56	-0.0259834
9632.94	-0.0256754
9640.33	-0.0253657
9655.11	-0.0247416
9662.49	-0.0244273
9677.27	-0.0237947
9684.65	-0.0234764
9692.04	-0.023157
9706.82	-0.0225148
9714.2	-0.0221922
9721.59	-0.0218688
9736.37	-0.0212194
9743.75	-0.0208937
9751.14	-0.0205674
9765.91	-0.0199132
9773.3	-0.0195855
9780.69	-0.0192575
9795.46	-0.0186008
9802.85	-0.0182722
9810.24	-0.0179437
9825.01	-0.0172868
9832.4	-0.0169586
9847.17	-0.0163031
9854.56	-0.0159759
9861.95	-0.0156492
9876.72	-0.0149976
9884.11	-0.0146729
9891.5	-0.0143489
9906.27	-0.0137035
9913.66	-0.0133822
9921.05	-0.0130621
9935.82	-0.0124252
9943.21	-0.0121086
9950.6	-0.0117934
9965.37	-0.0111672
9972.76	-0.0108564
9980.14	-0.0105472
9994.92	-0.00993397
10002.3	-0.00963004
10017.1	-0.00902787
10024.5	-0.00872977
10031.9	-0.00843375
10046.6	-0.00784816
10054	-0.00755873
10061.4	-0.00727162
10076.2	-0.0067046
10083.6	-0.00642482
10091	-0.00614759
10105.7	-0.00560103
10113.1	-0.00533182
10120.5	-0.00506539
10135.3	-0.00454109
10142.7	-0.00428332
10150.1	-0.00402855
10164.8	-0.00352819
10172.2	-0.00328269
10187	-0.00280131
10194.4	-0.00256551
10201.8	-0.00233304
10216.5	-0.00187824
10223.9	-0.00165599
10231.3	-0.00143723
10246.1	-0.00101034
10253.5	-0.000802281
10260.9	-0.000597859
10275.6	-0.000200064
10283	-6.75694e-06
10290.4	0.000182782
10305.2	0.000550438
10312.6	0.0007285
10327.3	0.00107296
10334.7	0.00123931
10342.1	0.00140171
10356.9	0.00171459
10364.3	0.00186502
10371.7	0.00201143
10386.4	0.0022921
10393.8	0.00242634
10401.2	0.00255649
10416	0.00280452
10423.4	0.00292237
10430.8	0.0030361
10445.5	0.0032512
10452.9	0.00335255
10460.3	0.00344977
10475.1	0.0036318
10482.5	0.00371663
10497.3	0.00387389
10504.6	0.00394635
10512	0.0040147
10526.8	0.00413909
10534.2	0.00419517
10541.6	0.00424717
10556.4	0.00433902
10563.7	0.0043789
10571.1	0.00441478
10585.9	0.00447457
10593.3	0.00449854
10600.7	0.00451857
10615.4	0.00454696
10622.8	0.00455535
10630.2	0.00455992
10645	0.00455768
10652.4	0.00455093
10667.2	0.00452634
10674.5	0.00450856
10681.9	0.00448716
10696.7	0.00443369
10704.1	0.00440168
10711.5	0.00436621
10726.3	0.00428504
10733.6	0.00423943
10741	0.00419051
10755.8	0.00408297
10763.2	0.00402443
10770.6	0.00396277
10785.4	0.00383029
10792.7	0.00375957
10800.1	0.00368593
10814.9	0.00353008
10822.3	0.00344798
10837.1	0.0032757
10844.5	0.00318563
10851.8	0.00309301
10866.6	0.00290035
10874	0.00280043
10881.4	0.0026982
10896.2	0.00248702
10903.6	0.0023782
10910.9	0.0022673
10925.7	0.00203954
10933.1	0.00192279
10940.5	0.00180423
10955.3	0.00156189
10962.7	0.00143825
10970	0.00131305
10984.8	0.00105824
10992.2	0.000928757
11007	0.000665987
11014.4	0.000532834
11021.7	0.000398595
11036.5	0.000127133
11043.9	-9.94917e-06
11051.3	-0.00014784
11066.1	-0.000425764
11073.5	-0.000565657
11080.8	-0.000706076
11095.6	-0.000988207
11103	-0.00112978
11110.4	-0.00127159
11125.2	-0.00155565
11132.6	-0.00169776
11147.3	-0.00198178
11154.7	-0.00212355
11162.1	-0.00226505
11176.9	-0.00254702
11184.3	-0.00268733
11191.7	-0.00282711
11206.4	-0.00310476
11213.8	-0.0032425
11221.2	-0.00337943
11236	-0.00365055
11243.4	-0.00378461
11250.8	-0.00391758
11265.5	-0.00417998
11272.9	-0.00430928
11280.3	-0.00443723
11295.1	-0.0046888
11302.5	-0.0048123
11317.2	-0.00505439
11324.6	-0.00517287
11332	-0.00528955
11346.8	-0.00551729
11354.2	-0.00562823
11361.6	-0.00573714
11376.3	-0.00594864
11383.7	-0.00605112
11391.1	-0.00615134
11405.9	-0.00634483
11413.3	-0.00643799
11420.7	-0.00652869
11435.4	-0.00670252
11442.8	-0.00678555
11450.2	-0.00686594
11465	-0.00701861
11472.4	-0.0070908
11487.1	-0.00722669
11494.5	-0.00729032
11501.9	-0.00735101
11516.7	-0.00746347
11524.1	-0.00751517
11531.5	-0.0075638
11546.2	-0.00765174
11553.6	-0.00769101
11561	-0.00772709
11575.8	-0.00778963
11583.2	-0.00781604
11590.6	-0.00783918
11605.3	-0.00787559
11612.7	-0.00788883
11620.1	-0.00789873
11634.9	-0.00790849
11642.3	-0.00790832
11657.1	-0.00789785
11664.4	-0.00788753
11671.8	-0.00787383
11686.6	-0.00783622
11694	-0.00781233
11701.4	-0.00778504
11716.2	-0.0077203
11723.5	-0.00768286
11730.9	-0.00764204
11745.7	-0.00755035
11753.1	-0.00749948
11760.5	-0.00744529
11775.2	-0.007327
11782.6	-0.00726294
11790	-0.00719561
11804.8	-0.00705127
11812.2	-0.00697431
11827	-0.0068109
11834.3	-0.00672451
11841.7	-0.00663504
11856.5	-0.00644695
11863.9	-0.0063484
11871.3	-0.00624689
11886.1	-0.00603513
11893.4	-0.00592495
11900.8	-0.00581195
11915.6	-0.00557765
11923	-0.00545644
11930.4	-0.00533256
11945.2	-0.00507701
11952.5	-0.00494543
11967.3	-0.00467485
11974.7	-0.00453596
11982.1	-0.00439472
11996.9	-0.00410541
12004.3	-0.00395744
12011.6	-0.00380733
12026.4	-0.00350086
12033.8	-0.00334462
12041.2	-0.00318644
12056	-0.00286448
12063.4	-0.00270081
12070.7	-0.00253542
12085.5	-0.00219969
12092.9	-0.00202946
12100.3	-0.00185774
12115.1	-0.00151001
12122.5	-0.00133412
12137.2	-0.000978585
12144.6	-0.00079905
12152	-0.000618414
12166.8	-0.00025407
12174.2	-7.04765e-05
12181.5	0.000113987
12196.3	0.000485293
12203.7	0.00067202
12211.1	0.000859386
12225.9	0.00123581
12233.3	0.00142475
12240.6	0.00161409
12255.4	0.00199379
12262.8	0.00218403
12270.2	0.00237444
12285	0.0027556
12292.4	0.00294623
12307.1	0.0033273
12314.5	0.00351764
12321.9	0.00370777
12336.7	0.0040872
12344.1	0.00427639
12351.5	0.00446515
12366.2	0.00484121
12373.6	0.0050284
12381	0.00521496
12395.8	0.00558597
12403.2	0.00577033
12410.6	0.00595386
12425.3	0.00631821
12432.7	0.00649894
12440.1	0.00667863
12454.9	0.00703475
12462.3	0.00721107
12477	0.00756001
12484.4	0.00773254
12491.8	0.00790371
12506.6	0.0082418
12514	0.00840864
12521.4	0.00857393
12536.1	0.00889976
12543.5	0.0090602
12550.9	0.00921893
12565.7	0.00953112
12573.1	0.0096845
12580.5	0.009836
12595.2	0.0101333
12602.6	0.0102789
12610	0.0104226
12624.8	0.0107036
12632.2	0.0108409
12646.9	0.011109
12654.3	0.0112397
12661.7	0.0113681
12676.5	0.011618
12683.9	0.0117393
12691.3	0.0118582
12706	0.0120886
12713.4	0.0122001
12720.8	0.0123089
12735.6	0.0125188
12743	0.0126198
12750.4	0.0127181
12765.1	0.0129065
12772.5	0.0129965
12787.3	0.0131681
12794.7	0.0132496
12802.1	0.0133282
12816.9	0.0134766
12824.2	0.0135463
12831.6	0.013613
12846.4	0.0137372
12853.8	0.0137946
12861.2	0.013849
12876	0.0139481
12883.3	0.0139929
12890.7	0.0140345
12905.5	0.0141079
12912.9	0.0141396
12920.3	0.014168
12935	0.0142148
12942.4	0.0142331
12957.2	0.0142595
12964.6	0.0142675
12972	0.0142721
12986.8	0.0142707
12994.1	0.0142647
13001.5	0.0142552
13016.3	0.0142255
13023.7	0.0142053
13031.1	0.0141815
13045.9	0.014123
13053.2	0.0140883
13060.6	0.01405
13075.4	0.0139623
13082.8	0.0139129
13090.2	0.0138599
13105	0.0137428
13112.3	0.0136786
13127.1	0.0135393
13134.5	0.013464
13141.9	0.0133851
13156.7	0.013216
13164.1	0.0131259
13171.4	0.0130321
13186.2	0.0128334
13193.6	0.0127286
13201	0.01262
13215.8	0.0123919
13223.2	0.0122723
13230.5	0.0121492
13245.3	0.0118919
13252.7	0.0117579
13260.1	0.0116204
13274.9	0.0113346
13282.3	0.0111864
13297	0.0108796
13304.4	0.0107211
13311.8	0.0105591
13326.6	0.010225
13334	0.010053
13341.3	0.00987769
13356.1	0.00951734
13363.5	0.00933238
13370.9	0.00914427
13385.7	0.0087588
13393.1	0.00856152
13400.4	0.00836126
13415.2	0.00795202
13422.6	0.00774313
13437.4	0.00731706
13444.8	0.00709998
13452.2	0.00688028
13466.9	0.00643324
13474.3	0.00620601
13481.7	0.00597639
13496.5	0.00551022
13503.9	0.00527379
13511.3	0.00503523
13526	0.00455194
13533.4	0.00430736
13540.8	0.0040609
13555.6	0.00356267
13563	0.00331104
13570.4	0.00305783
13585.1	0.00254697
13592.5	0.00228947
13607.3	0.00177074
13614.7	0.00150966
13622.1	0.00124754
13636.8	0.000720541
13644.2	0.000455815
13651.6	0.000190385
13666.4	-0.000342251
13673.8	-0.000609286
13681.2	-0.000876687
13695.9	-0.00141223
13703.3	-0.00168021
13710.7	-0.0019482
13725.5	-0.00248388
13732.9	-0.00275139
13740.3	-0.00301857
13755	-0.00355157
13762.4	-0.00381721
13777.2	-0.00434633
13784.6	-0.00460964
13792	-0.00487199
13806.7	-0.00539348
13814.1	-0.00565244
13821.5	-0.0059101
13836.3	-0.00642116
13843.7	-0.0066744
13851.1	-0.00692598
13865.8	-0.00742388
13873.2	-0.00767003
13880.6	-0.00791419
13895.4	-0.00839627
13902.8	-0.00863402
13910.2	-0.00886947
13924.9	-0.00933318
13932.3	-0.00956128
13947.1	-0.0100096
13954.5	-0.0102297
13961.9	-0.010447
13976.7	-0.0108728
13984	-0.0110812
13991.4	-0.0112865
14006.2	-0.0116877
14013.6	-0.0118834
14021	-0.0120758
14035.8	-0.0124504
14043.1	-0.0126325
14050.5	-0.012811
14065.3	-0.0131573
14072.7	-0.0133249
14080.1	-0.0134888
14094.9	-0.0138052
14102.2	-0.0139577
14117	-0.0142508
14124.4	-0.0143915
14131.8	-0.0145282
14146.6	-0.0147895
14153.9	-0.014914
14161.3	-0.0150345
14176.1	-0.015263
14183.5	-0.0153711
14190.9	-0.015475
14205.7	-0.0156703
14213	-0.0157616
14220.4	-0.0158488
14235.2	-0.0160105
14242.6	-0.016085
14257.4	-0.0162215
14264.8	-0.0162835
14272.1	-0.0163413
14286.9	-0.0164444
14294.3	-0.0164897
14301.7	-0.0165309
14316.5	-0.0166011
14323.9	-0.0166301
14331.2	-0.016655
14346	-0.016693
14353.4	-0.016706
14360.8	-0.0167152
14375.6	-0.0167219
14383	-0.0167196
14390.3	-0.0167135
14405.1	-0.0166902
14412.5	-0.0166732
14427.3	-0.0166284
14434.7	-0.0166008
14442.1	-0.0165698
14456.8	-0.0164978
14464.2	-0.016457
14471.6	-0.0164129
14486.4	-0.0163156
14493.8	-0.0162624
14501.1	-0.0162064
14515.9	-0.0160857
14523.3	-0.0160213
14530.7	-0.0159543
14545.5	-0.0158126
14552.9	-0.0157381
14560.2	-0.0156613
14575	-0.015501
14582.4	-0.0154176
14597.2	-0.0152449
14604.6	-0.0151558
14612	-0.0150649
14626.7	-0.0148781
14634.1	-0.0147824
14641.5	-0.0146852
14656.3	-0.014487
14663.7	-0.0143861
14671.1	-0.0142841
14685.8	-0.0140773
14693.2	-0.0139726
14700.6	-0.0138672
14715.4	-0.0136546
14722.8	-0.0135476
14730.2	-0.0134402
14744.9	-0.0132247
14752.3	-0.0131167
14767.1	-0.0129009
14774.5	-0.0127932
14781.9	-0.0126858
14796.6	-0.012472
14804	-0.0123659
14811.4	-0.0122604
14826.2	-0.0120516
14833.6	-0.0119484
14841	-0.0118462
14855.7	-0.0116451
14863.1	-0.0115462
14870.5	-0.0114487
14885.3	-0.0112578
14892.7	-0.0111646
14900.1	-0.011073
14914.8	-0.0108949
14922.2	-0.0108086
14937	-0.0106417
14944.4	-0.0105613
14951.8	-0.010483
14966.5	-0.010333
14973.9	-0.0102614
14981.3	-0.0101922
14996.1	-0.0100612
15003.5	-0.00999954
15010.9	-0.00994045
15025.6	-0.00983032
15033	-0.00977939
15040.4	-0.00973128
15055.2	-0.00964371
15062.6	-0.00960435
15077.4	-0.00953466
15084.7	-0.00950442
15092.1	-0.00947729
15106.9	-0.00943252
15114.3	-0.00941494
15121.7	-0.0094006
15136.5	-0.00938174
15143.8	-0.00937727
15151.2	-0.00937613
15166	-0.0093839
15173.4	-0.00939284
15180.8	-0.00940517
15195.6	-0.00944001
15202.9	-0.00946253
15210.3	-0.00948845
15225.1	-0.0095505
15232.5	-0.00958661
15247.3	-0.00966897
15254.7	-0.00971519
15262	-0.00976476
15276.8	-0.00987384
15284.2	-0.00993332
15291.6	-0.00999605
15306.4	-0.0101312
15313.7	-0.0102035
15321.1	-0.010279
15335.9	-0.0104391
15343.3	-0.0105237
15350.7	-0.0106113
15365.5	-0.0107952
15372.8	-0.0108915
15380.2	-0.0109905
15395	-0.0111965
15402.4	-0.0113035
15417.2	-0.011525
15424.6	-0.0116394
15431.9	-0.0117561
15446.7	-0.0119963
15454.1	-0.0121196
15461.5	-0.012245
15476.3	-0.0125016
15483.7	-0.0126326
15491	-0.0127654
15505.8	-0.0130358
15513.2	-0.0131732
15520.6	-0.013312
15535.4	-0.0135934
15542.8	-0.0137359
15550.1	-0.0138793
15564.9	-0.0141687
15572.3	-0.0143145
15587.1	-0.0146079
15594.5	-0.0147553
15601.9	-0.0149029
15616.6	-0.0151987
15624	-0.0153466
15631.4	-0.0154944
15646.2	-0.0157892
15653.6	-0.015936
15661	-0.0160822
15675.7	-0.0163725
15683.1	-0.0165164
15690.5	-0.0166592
15705.3	-0.0169415
15712.7	-0.0170807
15720	-0.0172184
15734.8	-0.0174891
15742.2	-0.0176218
15757	-0.0178815
15764.4	-0.0180082
15771.8	-0.0181327
15786.5	-0.0183745
15793.9	-0.0184917
15801.3	-0.0186062
15816.1	-0.0188268
15823.5	-0.0189327
15830.9	-0.0190355
15845.6	-0.0192316
15853	-0.0193246
15860.4	-0.0194141
15875.2	-0.0195823
15882.6	-0.0196608
15897.3	-0.0198062
15904.7	-0.0198729
15912.1	-0.0199355
15926.9	-0.0200479
15934.3	-0.0200976
15941.7	-0.0201429
15956.4	-0.0202198
15963.8	-0.0202512
15971.2	-0.0202779
15986	-0.0203168
15993.4	-0.0203289
16000.8	-0.0203359
16015.5	-0.0203347
16022.9	-0.0203264
16030.3	-0.0203128
16045.1	-0.0202698
16052.5	-0.0202403
16067.3	-0.0201649
16074.6	-0.020119
16082	-0.0200676
16096.8	-0.019948
16104.2	-0.0198799
16111.6	-0.0198061
16126.3	-0.0196416
16133.7	-0.0195508
16141.1	-0.0194543
16155.9	-0.0192443
16163.3	-0.0191308
16170.7	-0.0190116
16185.4	-0.018756
16192.8	-0.0186197
16200.2	-0.0184778
16215	-0.0181769
16222.4	-0.0180181
16237.2	-0.0176837
16244.5	-0.0175083
16251.9	-0.0173273
16266.7	-0.016949
16274.1	-0.0167518
16281.5	-0.0165493
16296.3	-0.0161285
16303.6	-0.0159103
16311	-0.015687
16325.8	-0.0152252
16333.2	-0.0149869
16340.6	-0.0147437
16355.4	-0.014243
16362.7	-0.0139856
16370.1	-0.0137237
16384.9	-0.0131864
16392.3	-0.0129111
16407.1	-0.012348
16414.5	-0.0120603
16421.8	-0.0117686
16436.6	-0.0111735
16444	-0.0108704
16451.4	-0.0105637
16466.2	-0.0099398
16473.5	-0.00962284
16480.9	-0.00930268
16495.7	-0.00865319
16503.1	-0.00832408
16510.5	-0.00799219
16525.3	-0.00732057
16532.6	-0.00698105
16540	-0.00663922
16554.8	-0.00594907
16562.2	-0.00560098
16577	-0.00489937
16584.4	-0.00454609
16591.7	-0.00419132
16606.5	-0.00347777
16613.9	-0.00311924
16621.3	-0.0027597
16636.1	-0.00203808
16643.5	-0.00167623
16650.8	-0.00131387
16665.6	-0.000588046
16673	-0.000224833
16680.4	0.00013842
16695.2	0.000864563
16702.6	0.00122721
16717.3	0.00195108
16724.7	0.00231206
16732.1	0.00267224
16746.9	0.00338977
16754.3	0.00374688
16761.7	0.00410274
16776.4	0.00481024
16783.8	0.00516166
16791.2	0.00551139
16806	0.00620531
16813.4	0.00654929
16820.8	0.00689115
16835.5	0.00756809
16842.9	0.00790297
16850.3	0.00823532
16865.1	0.00889204
16872.5	0.00921623
16887.2	0.00985581
16894.6	0.010171
16902	0.010483
16916.8	0.0110973
16924.2	0.0113993
16931.6	0.0116978
16946.3	0.012284
16953.7	0.0125715
16961.1	0.0128553
16975.9	0.0134111
16983.3	0.0136831
16990.7	0.013951
17005.4	0.0144743
17012.8	0.0147296
17020.2	0.0149806
17035	0.0154696
17042.4	0.0157074
17057.1	0.0161695
17064.5	0.0163937
17071.9	0.0166133
17086.7	0.0170384
17094.1	0.0172439
17101.5	0.0174446
17116.2	0.0178316
17123.6	0.0180179
17131	0.0181993
17145.8	0.0185474
17153.2	0.018714
17160.6	0.0188757
17175.3	0.0191843
17182.7	0.0193311
17190.1	0.0194729
17204.9	0.0197416
17212.3	0.0198685
17227.1	0.0201073
17234.4	0.0202192
17241.8	0.0203261
17256.6	0.020525
17264	0.0206171
17271.4	0.0207042
17286.1	0.0208636
17293.5	0.020936
17300.9	0.0210035
17315.7	0.021124
17323.1	0.0211771
17330.5	0.0212253
17345.2	0.0213076
17352.6	0.0213417
17360	0.0213712
17374.8	0.0214162
17382.2	0.0214319
17397	0.0214496
17404.3	0.0214518
17411.7	0.0214496
17426.5	0.0214321
17433.9	0.0214168
17441.3	0.0213974
17456.1	0.0213459
17463.4	0.0213139
17470.8	0.0212779
17485.6	0.0211939
17493	0.021146
17500.4	0.0210942
17515.2	0.0209791
17522.5	0.020916
17537.3	0.0207788
17544.7	0.0207048
17552.1	0.0206273
17566.9	0.0204619
17574.3	0.0203741
17581.6	0.020283
17596.4	0.0200912
17603.8	0.0199905
17611.2	0.0198868
17626	0.0196702
17633.4	0.0195575
17640.7	0.0194419
17655.5	0.0192023
17662.9	0.0190784
17670.3	0.0189519
17685.1	0.018691
17692.4	0.0185568
17707.2	0.0182811
17714.6	0.0181398
17722	0.0179961
17736.8	0.0177022
17744.2	0.017552
17751.5	0.0173997
17766.3	0.0170892
17773.7	0.016931
17781.1	0.0167709
17795.9	0.0164454
17803.3	0.01628
17810.6	0.016113
17825.4	0.0157741
17832.8	0.0156023
17840.2	0.015429
17855	0.0150782
17862.4	0.0149007
17877.1	0.014542
17884.5	0.0143607
17891.9	0.0141783
17906.7	0.0138101
17914.1	0.0136245
17921.5	0.0134378
17936.2	0.0130615
17943.6	0.0128721
17951	0.0126817
17965.8	0.0122987
17973.2	0.012106
17980.6	0.0119126
17995.3	0.011524
18002.7	0.0113287
18010.1	0.0111329
18024.9	0.0107397
18032.3	0.0105423
18047	0.0101464
18054.4	0.00994788
18061.8	0.00974901
18076.6	0.00935034
18084	0.0091506
18091.4	0.00895064
18106.1	0.00855014
18113.5	0.00834965
18120.9	0.00814904
18135.7	0.00774756
18143.1	0.00754674
18150.5	0.0073459
18165.2	0.00694424
18172.6	0.00674347
18180	0.00654277
18194.8	0.00614167
18202.2	0.00594131
18216.9	0.00554109
18224.3	0.00534127
18231.7	0.00514166
18246.5	0.00474318
18253.9	0.00454435
18261.3	0.00434581
18276	0.00394969
18283.4	0.00375215
18290.8	0.00355498
18305.6	0.00316181
18313	0.00296584
18320.4	0.00277032
18335.1	0.00238065
18342.5	0.00218654
18357.3	0.00179984
18364.7	0.00160729
18372.1	0.0014153
18386.9	0.00103302
18394.2	0.000842778
18401.6	0.000653148
18416.4	0.000275795
18423.8	8.81026e-05
18431.2	-9.8913e-05
18445.9	-0.000470854
18453.3	-0.000655749
18460.7	-0.000839906
18475.5	-0.00120595
18482.9	-0.00138781
18490.3	-0.00156887
18505	-0.00192853
18512.4	-0.00210711
18527.2	-0.00246168
18534.6	-0.00263764
18542	-0.0028127
18556.8	-0.00316005
18564.1	-0.00333231
18571.5	-0.00350361
18586.3	-0.00384326
18593.7	-0.00401158
18601.1	-0.00417888
18615.9	-0.00451034
18623.2	-0.00467447
18630.6	-0.00483752
18645.4	-0.00516029
18652.8	-0.00531999
18660.2	-0.00547854
18675	-0.00579214
18682.3	-0.00594716
18697.1	-0.00625355
18704.5	-0.00640489
18711.9	-0.00655498
18726.7	-0.00685131
18734.1	-0.00699753
18741.4	-0.00714244
18756.2	-0.00742822
18763.6	-0.00756907
18771	-0.00770854
18785.8	-0.00798328
18793.2	-0.00811851
18800.5	-0.0082523
18815.3	-0.00851549
18822.7	-0.00864486
18830.1	-0.00877272
18844.9	-0.00902389
18852.2	-0.00914715
18867	-0.00938898
18874.4	-0.00950752
18881.8	-0.00962445
18896.6	-0.00985343
18904	-0.00996546
18911.3	-0.0100758
18926.1	-0.0102915
18933.5	-0.0103968
18940.9	-0.0105004
18955.7	-0.0107024
18963.1	-0.0108008
18970.4	-0.0108974
18985.2	-0.0110854
18992.6	-0.0111766
19007.4	-0.0113537
19014.8	-0.0114396
19022.2	-0.0115235
19036.9	-0.011686
19044.3	-0.0117644
19051.7	-0.0118409
19066.5	-0.0119884
19073.9	-0.0120593
19081.3	-0.0121283
19096	-0.0122605
19103.4	-0.0123237
19110.8	-0.012385
19125.6	-0.0125019
19133	-0.0125574
19140.4	-0.0126109
19155.1	-0.0127122
19162.5	-0.0127599
19177.3	-0.0128494
19184.7	-0.0128912
19192.1	-0.0129311
19206.8	-0.013005
19214.2	-0.013039
19221.6	-0.013071
19236.4	-0.0131292
19243.8	-0.0131553
19251.2	-0.0131796
19265.9	-0.0132222
19273.3	-0.0132405
19280.7	-0.013257
19295.5	-0.0132841
19302.9	-0.0132948
19310.3	-0.0133036
19325	-0.0133155
19332.4	-0.0133185
19347.2	-0.0133191
19354.6	-0.0133166
19362	-0.0133122
19376.7	-0.013298
19384.1	-0.0132882
19391.5	-0.0132765
19406.3	-0.0132479
19413.7	-0.0132309
19421.1	-0.0132121
19435.8	-0.0131695
19443.2	-0.0131455
19450.6	-0.0131199
19465.4	-0.0130637
19472.8	-0.0130331
19480.2	-0.0130009
19494.9	-0.0129316
19502.3	-0.0128946
19517.1	-0.0128159
19524.5	-0.0127743
19531.9	-0.0127312
19546.7	-0.0126405
19554	-0.012593
19561.4	-0.012544
19576.2	-0.012442
19583.6	-0.0123889
19591	-0.0123345
19605.8	-0.0122217
19613.1	-0.0121634
19620.5	-0.0121039
19635.3	-0.0119811
19642.7	-0.011918
19650.1	-0.0118536
19664.8	-0.0117216
19672.2	-0.011654
19687	-0.0115155
19694.4	-0.0114447
19701.8	-0.011373
19716.6	-0.0112266
19723.9	-0.011152
19731.3	-0.0110765
19746.1	-0.0109229
19753.5	-0.0108449
19760.9	-0.0107661
19775.7	-0.0106061
19783	-0.010525
19790.4	-0.0104433
19805.2	-0.0102777
19812.6	-0.010194
19827.4	-0.0100247
19834.8	-0.0099392
19842.1	-0.00985318
19856.9	-0.00967963
19864.3	-0.00959216
19871.7	-0.00950424
19886.5	-0.00932717
19893.9	-0.00923806
19901.2	-0.00914861
19916	-0.00896874
19923.4	-0.00887837
19930.8	-0.00878774
19945.6	-0.00860578
19953	-0.00851449
19960.3	-0.00842303
19975.1	-0.00823964
19982.5	-0.00814777
19997.3	-0.00796375
