0	0
175.501	0
351.002	0
526.503	0
702.004	0
877.505	0
1053.01	0
1228.51	0
1404.01	0
1579.51	-0.000145414
1755.01	0.00318627
1930.51	0.0134861
2106.01	0.0327466
2281.51	0.0603508
2457.01	0.0941857
2632.5	0.13109
2808	0.167273
2983.49	0.198605
3158.99	0.221353
3334.48	0.232947
3509.98	0.232507
3685.48	0.220867
3860.97	0.200201
4036.47	0.173405
4211.97	0.143466
4387.46	0.112957
4562.96	0.0837612
4738.46	0.0569978
4913.96	0.0331315
5089.46	0.0121646
5264.96	-0.00614736
5440.47	-0.0221154
5615.97	-0.0359997
5791.47	-0.0479642
5966.97	-0.0580877
6142.47	-0.0664085
6317.97	-0.0729745
6493.48	-0.077878
6668.98	-0.0812654
6844.48	-0.0833241
7019.98	-0.0842551
7195.48	-0.0842438
7370.98	-0.083438
7546.48	-0.0819401
7721.98	-0.0798129
7897.48	-0.0770971
8072.98	-0.0738315
8248.49	-0.0700718
8423.99	-0.065901
8599.49	-0.0614307
8774.99	-0.0567924
8950.49	-0.0521229
9125.99	-0.0475492
9301.49	-0.0431746
9476.99	-0.0390719
9652.49	-0.0352819
9827.99	-0.031819
10003.5	-0.0286795
10179	-0.0258513
10354.5	-0.0233219
10530	-0.0210828
10705.5	-0.01913
10881	-0.0174616
11056.5	-0.0160728
11232	-0.0149513
11407.5	-0.0140741
11583	-0.0134062
11758.5	-0.0129024
11934	-0.012511
12109.5	-0.0121793
12285	-0.0118585
12460.5	-0.0115079
12636	-0.0110976
12811.5	-0.0106092
12987	-0.0100344
13162.5	-0.00937296
13338	-0.00862989
13513.5	-0.007813
13689	-0.00693111
13864.5	-0.00599319
14040	-0.0050084
14215.5	-0.00398676
14391	-0.00294005
14566.5	-0.00188253
14742	-0.000831335
14917.5	0.000193796
15093	0.00117122
15268.5	0.00207854
15444	0.00289387
15619.5	0.00359703
15795	0.00417056
15970.5	0.00460035
16146	0.00487594
16321.5	0.0049906
16497	0.00494119
16672.5	0.00472803
16848	0.00435473
17023.5	0.00382821
17199	0.00315857
17374.5	0.00235917
17550	0.00144644
17725.5	0.000439664
17901	-0.00063948
18076.5	-0.00176756
18252	-0.00292016
18427.5	-0.00407279
18603	-0.0052017
18778.5	-0.00628475
18954	-0.00730204
19129.5	-0.00823635
19305	-0.00907347
19480.5	-0.00980229
19656	-0.0104148
19831.5	-0.0109057
