time,surface_elevation,reference_data,number_of_local_cells,number_of_global_cells
0,9.14364e-05,1,16384,16384
1.00047,0.000108996,1,16384,16384
2.00095,0.000131354,1,16384,16384
3.00144,0.000159898,1,16384,16384
4.00193,0.000196438,1,16384,16384
5.00243,0.000243354,1,16384,16384
6.00293,0.000303789,1,16384,16384
7.00004,0.000381614,1,16384,16384
8.00055,0.000482894,1,16384,16384
9.00105,0.000614815,1,16384,16384
10.0016,0.000787316,1,16384,16384
11.0021,0.00101372,1,16384,16384
12.0027,0.00129667,1,16384,16384
13.0032,0.00163678,1,16384,16384
14.0005,0.00206191,1,16384,16384
15.0012,0.00259526,1,16384,16384
16.0019,0.0032595,1,16384,16384
17.0028,0.00408215,1,16384,16384
18.0004,0.00508977,1,16384,16384
19.0017,0.00632057,1,16384,16384
20.0007,0.00779523,1,16384,16384
21.0014,0.00953702,1,16384,16384
22.0007,0.0115373,1,16384,16384
23.0025,0.0137638,1,16384,16384
24.0033,0.0161179,1,16384,16384
25.0032,0.0184485,1,16384,16384
26.0019,0.0205584,1,16384,16384
27.0028,0.0222489,1,16384,16384
28.0022,0.0233548,1,16384,16384
29.0033,0.0238045,1,16384,16384
30.0024,0.0236129,1,16384,16384
31.0027,0.022867,1,16384,16384
32.0006,0.0216947,1,16384,16384
33.0024,0.0202218,1,16384,16384
34.0005,0.0185838,1,16384,16384
35.0018,0.0168759,1,16384,16384
36.0031,0.0151886,1,16384,16384
37.0007,0.0135902,1,16384,16384
38.0016,0.0121126,1,16384,16384
39.0024,0.0107875,1,16384,16384
40.0031,0.00962677,1,16384,16384
41.0002,0.00863457,1,16384,16384
42.0006,0.00779729,1,16384,16384
43.001,0.00710683,1,16384,16384
44.0012,0.00654864,1,16384,16384
45.0013,0.00610697,1,16384,16384
46.0014,0.00576615,1,16384,16384
47.0013,0.00551151,1,16384,16384
48.0012,0.00532994,1,16384,16384
49.0009,0.00521004,1,16384,16384
50.0006,0.00514213,1,16384,16384
51.0001,0.00511825,1,16384,16384
52.003,0.00513188,1,16384,16384
53.0023,0.00517728,1,16384,16384
54.0016,0.00525111,1,16384,16384
55.0007,0.00535177,1,16384,16384
56.0031,0.00547649,1,16384,16384
57.002,0.0056222,1,16384,16384
58.0007,0.00578997,1,16384,16384
59.0027,0.00598067,1,16384,16384
60.0011,0.00619322,1,16384,16384
61.0029,0.0064303,1,16384,16384
62.001,0.00669172,1,16384,16384
63.0024,0.00698105,1,16384,16384
64.0002,0.00729818,1,16384,16384
65.0012,0.00764722,1,16384,16384
66.002,0.00802802,1,16384,16384
67.0026,0.00843846,1,16384,16384
68.003,0.00887275,1,16384,16384
69.0031,0.00932813,1,16384,16384
70.0029,0.00981967,1,16384,16384
71.0024,0.0103616,1,16384,16384
72.0016,0.010933,1,16384,16384
73.0005,0.0115148,1,16384,16384
74.0024,0.0120986,1,16384,16384
75.0005,0.0126616,1,16384,16384
76.0015,0.0131826,1,16384,16384
77.0021,0.0136236,1,16384,16384
78.0021,0.0139395,1,16384,16384
79.0016,0.0140738,1,16384,16384
80.0004,0.0139537,1,16384,16384
81.0021,0.0134544,1,16384,16384
82.003,0.0124964,1,16384,16384
83.0032,0.0110158,1,16384,16384
84.0026,0.00898384,1,16384,16384
85.0012,0.00635664,1,16384,16384
86.0024,0.00320485,1,16384,16384
87.0028,-0.000120134,1,16384,16384
88.0024,-0.00321419,1,16384,16384
89.0015,-0.00581011,1,16384,16384
