time,surface_elevation,reference_data,number_of_local_cells,number_of_global_cells
0,9.12088e-05,1,4096,4096
1.00387,0.000108816,1,4096,4096
2.00774,0.000131264,1,4096,4096
3.01163,0.000159962,1,4096,4096
4.00197,0.000196189,1,4096,4096
5.00587,0.000243326,1,4096,4096
6.00979,0.000304129,1,4096,4096
7.00014,0.000381632,1,4096,4096
8.00407,0.000483541,1,4096,4096
9.00801,0.000616467,1,4096,4096
10.012,0.000790529,1,4096,4096
11.0024,0.00101505,1,4096,4096
12.0064,0.00129825,1,4096,4096
13.0104,0.00164185,1,4096,4096
14.0009,0.00206543,1,4096,4096
15.005,0.0026021,1,4096,4096
16.0092,0.00327088,1,4096,4096
17,0.00408709,1,4096,4096
18.0045,0.00510318,1,4096,4096
19.0093,0.00634043,1,4096,4096
20.0016,0.00780566,1,4096,4096
21.0091,0.00955734,1,4096,4096
22.0051,0.0115449,1,4096,4096
23.0035,0.0137511,1,4096,4096
24.0043,0.0160854,1,4096,4096
25.0076,0.0183984,1,4096,4096
26.0133,0.0204945,1,4096,4096
27.0073,0.0221505,1,4096,4096
28.0033,0.0232431,1,4096,4096
29.0009,0.0236969,1,4096,4096
30.0138,0.0235171,1,4096,4096
31.0002,0.0228033,1,4096,4096
32.0016,0.0216543,1,4096,4096
33.0033,0.0202074,1,4096,4096
34.0049,0.0185865,1,4096,4096
35.0063,0.0168973,1,4096,4096
36.0075,0.0152242,1,4096,4096
37.0086,0.0136302,1,4096,4096
38.0096,0.0121588,1,4096,4096
39.0104,0.0108365,1,4096,4096
40.011,0.00967576,1,4096,4096
41.0116,0.00867843,1,4096,4096
42.0121,0.00783843,1,4096,4096
43.0124,0.00714452,1,4096,4096
44.0126,0.00658247,1,4096,4096
45.0128,0.00613684,1,4096,4096
46.0128,0.00579225,1,4096,4096
47.0128,0.00553426,1,4096,4096
48.0126,0.00534981,1,4096,4096
49.0124,0.00522755,1,4096,4096
50.012,0.00515782,1,4096,4096
51.0115,0.00513265,1,4096,4096
52.011,0.00514561,1,4096,4096
53.0103,0.0051917,1,4096,4096
54.0095,0.00526714,1,4096,4096
55.0086,0.00536915,1,4096,4096
56.0076,0.00549552,1,4096,4096
57.0065,0.0056444,1,4096,4096
58.0052,0.00581487,1,4096,4096
59.0038,0.0060074,1,4096,4096
60.0022,0.00622325,1,4096,4096
61.0005,0.00646383,1,4096,4096
62.0125,0.00673438,1,4096,4096
63.0104,0.0070287,1,4096,4096
64.0082,0.00735297,1,4096,4096
65.0057,0.00770974,1,4096,4096
66.0031,0.00809366,1,4096,4096
67.0002,0.00849115,1,4096,4096
68.0109,0.00890569,1,4096,4096
69.0076,0.00934791,1,4096,4096
70.0039,0.0098485,1,4096,4096
71.0138,0.0104195,1,4096,4096
72.0095,0.0110209,1,4096,4096
73.0049,0.0116288,1,4096,4096
74.0137,0.0122311,1,4096,4096
75.0082,0.0127904,1,4096,4096
76.0023,0.0132852,1,4096,4096
77.0097,0.0136827,1,4096,4096
78.0028,0.013925,1,4096,4096
79.0091,0.0139544,1,4096,4096
80.001,0.0136592,1,4096,4096
81.0061,0.0129065,1,4096,4096
82.0105,0.0117039,1,4096,4096
83.0003,0.0101435,1,4096,4096
84.0031,0.00817708,1,4096,4096
85.0049,0.00578414,1,4096,4096
86.006,0.0030284,1,4096,4096
87.0063,0.000135348,1,4096,4096
88.0058,-0.00261814,1,4096,4096
89.0049,-0.00502828,1,4096,4096
