THREADS	MTPS	TIMESTEPS	TIMESTEP_SIZE	SECONDS_FOR_SIMULATION	AVERAGE_TRIANGLES	AVERAGE_PARTITIONS
80	21.8235	100	0.000491318	87.2772	1.90469e+07	1158.74
79	18.1293	100	0.000491318	105.061	1.90469e+07	1158.74
78	15.6511	100	0.000491318	121.697	1.90469e+07	1158.74
77	14.903	100	0.000491318	127.806	1.90469e+07	1158.74
76	14.4216	100	0.000491318	132.072	1.90469e+07	1158.74
75	14.0266	100	0.000491318	135.791	1.90469e+07	1158.74
74	14.0764	100	0.000491318	135.311	1.90469e+07	1158.74
73	13.9962	100	0.000491318	136.086	1.90469e+07	1158.74
72	14.0334	100	0.000491318	135.726	1.90469e+07	1158.74
71	14.0296	100	0.000491318	135.763	1.90469e+07	1158.74
70	13.9331	100	0.000491318	136.702	1.90469e+07	1158.74
69	13.8322	100	0.000491318	137.7	1.90469e+07	1158.74
68	13.4025	100	0.000491318	142.115	1.90469e+07	1158.74
67	13.5389	100	0.000491318	140.683	1.90469e+07	1158.74
66	13.5005	100	0.000491318	141.083	1.90469e+07	1158.74
65	13.5644	100	0.000491318	140.418	1.90469e+07	1158.74
64	13.4852	100	0.000491318	141.243	1.90469e+07	1158.74
63	13.5161	100	0.000491318	140.921	1.90469e+07	1158.74
62	13.536	100	0.000491318	140.713	1.90469e+07	1158.74
61	13.3059	100	0.000491318	143.147	1.90469e+07	1158.74
60	13.4295	100	0.000491318	141.828	1.90469e+07	1158.74
59	13.7346	100	0.000491318	138.679	1.90469e+07	1158.74
58	13.7361	100	0.000491318	138.663	1.90469e+07	1158.74
57	13.7837	100	0.000491318	138.185	1.90469e+07	1158.74
56	14.2382	100	0.000491318	133.774	1.90469e+07	1158.74
55	14.2441	100	0.000491318	133.718	1.90469e+07	1158.74
54	13.9826	100	0.000491318	136.219	1.90469e+07	1158.74
53	14.3237	100	0.000491318	132.975	1.90469e+07	1158.74
52	14.0444	100	0.000491318	135.619	1.90469e+07	1158.74
51	13.5541	100	0.000491318	140.525	1.90469e+07	1158.74
50	13.6149	100	0.000491318	139.898	1.90469e+07	1158.74
49	13.6183	100	0.000491318	139.862	1.90469e+07	1158.74
48	13.5978	100	0.000491318	140.074	1.90469e+07	1158.74
47	13.638	100	0.000491318	139.66	1.90469e+07	1158.74
46	13.4318	100	0.000491318	141.805	1.90469e+07	1158.74
45	13.5046	100	0.000491318	141.04	1.90469e+07	1158.74
44	13.4984	100	0.000491318	141.105	1.90469e+07	1158.74
43	13.5538	100	0.000491318	140.529	1.90469e+07	1158.74
42	13.6407	100	0.000491318	139.633	1.90469e+07	1158.74
41	13.7316	100	0.000491318	138.709	1.90469e+07	1158.74
40	14.514	100	0.000491318	131.231	1.90469e+07	1158.74
39	14.4701	100	0.000491318	131.63	1.90469e+07	1158.74
38	14.4882	100	0.000491318	131.465	1.90469e+07	1158.74
37	14.6827	100	0.000491318	129.724	1.90469e+07	1158.74
36	14.6112	100	0.000491318	130.358	1.90469e+07	1158.74
35	14.6391	100	0.000491318	130.11	1.90469e+07	1158.74
34	14.613	100	0.000491318	130.342	1.90469e+07	1158.74
33	14.5245	100	0.000491318	131.137	1.90469e+07	1158.74
32	14.5068	100	0.000491318	131.297	1.90469e+07	1158.74
31	14.49	100	0.000491318	131.449	1.90469e+07	1158.74
30	14.5233	100	0.000491318	131.148	1.90469e+07	1158.74
29	13.8523	100	0.000491318	137.5	1.90469e+07	1158.74
28	13.8213	100	0.000491318	137.808	1.90469e+07	1158.74
27	13.9314	100	0.000491318	136.72	1.90469e+07	1158.74
26	14.1065	100	0.000491318	135.022	1.90469e+07	1158.74
25	14.1317	100	0.000491318	134.781	1.90469e+07	1158.74
24	14.7648	100	0.000491318	129.003	1.90469e+07	1158.74
23	14.5953	100	0.000491318	130.501	1.90469e+07	1158.74
22	14.5701	100	0.000491318	130.726	1.90469e+07	1158.74
21	14.5641	100	0.000491318	130.78	1.90469e+07	1158.74
20	14.4864	100	0.000491318	131.481	1.90469e+07	1158.74
19	14.6145	100	0.000491318	130.329	1.90469e+07	1158.74
18	14.6321	100	0.000491318	130.172	1.90469e+07	1158.74
17	14.7483	100	0.000491318	129.146	1.90469e+07	1158.74
16	14.8727	100	0.000491318	128.066	1.90469e+07	1158.74
15	15.0481	100	0.000491318	126.574	1.90469e+07	1158.74
14	15.09	100	0.000491318	126.222	1.90469e+07	1158.74
13	15.0259	100	0.000491318	126.76	1.90469e+07	1158.74
12	15.0373	100	0.000491318	126.664	1.90469e+07	1158.74
11	15.0771	100	0.000491318	126.33	1.90469e+07	1158.74
10	15.3489	100	0.000491318	124.093	1.90469e+07	1158.74
9	15.2362	100	0.000491318	125.011	1.90469e+07	1158.74
8	15.099	100	0.000491318	126.147	1.90469e+07	1158.74
7	14.6064	100	0.000491318	130.401	1.90469e+07	1158.74
6	13.4762	100	0.000491318	141.338	1.90469e+07	1158.74
5	11.8016	100	0.000491318	161.393	1.90469e+07	1158.74
4	9.89552	100	0.000491318	192.48	1.90469e+07	1158.74
3	7.69831	100	0.000491318	247.417	1.90469e+07	1158.74
2	5.21207	100	0.000491318	365.439	1.90469e+07	1158.74
1	2.66417	100	0.000491318	714.928	1.90469e+07	1158.74
