THREADS	MTPS	TIMESTEPS	TIMESTEP_SIZE	SECONDS_FOR_SIMULATION	AVERAGE_TRIANGLES	AVERAGE_PARTITIONS
80	68.021	100	0.000491318	28.0015	1.90469e+07	1158.74
79	68.6868	100	0.000491318	27.7301	1.90469e+07	1158.74
78	68.1899	100	0.000491318	27.9322	1.90469e+07	1158.74
77	68.5592	100	0.000491318	27.7817	1.90469e+07	1158.74
76	68.5548	100	0.000491318	27.7835	1.90469e+07	1158.74
75	63.4127	100	0.000491318	30.0364	1.90469e+07	1158.74
74	56.2886	100	0.000491318	33.838	1.90469e+07	1158.74
73	53.6973	100	0.000491318	35.4709	1.90469e+07	1158.74
72	51.0537	100	0.000491318	37.3076	1.90469e+07	1158.74
71	46.4236	100	0.000491318	41.0285	1.90469e+07	1158.74
70	48.3689	100	0.000491318	39.3784	1.90469e+07	1158.74
69	47.5338	100	0.000491318	40.0702	1.90469e+07	1158.74
68	50.9975	100	0.000491318	37.3487	1.90469e+07	1158.74
67	47.3569	100	0.000491318	40.2199	1.90469e+07	1158.74
66	49.2918	100	0.000491318	38.6411	1.90469e+07	1158.74
65	48.5623	100	0.000491318	39.2216	1.90469e+07	1158.74
64	48.3862	100	0.000491318	39.3643	1.90469e+07	1158.74
63	45.705	100	0.000491318	41.6736	1.90469e+07	1158.74
62	46.6805	100	0.000491318	40.8027	1.90469e+07	1158.74
61	46.1216	100	0.000491318	41.2972	1.90469e+07	1158.74
60	49.28	100	0.000491318	38.6504	1.90469e+07	1158.74
59	46.9515	100	0.000491318	40.5672	1.90469e+07	1158.74
58	47.2502	100	0.000491318	40.3107	1.90469e+07	1158.74
57	46.2317	100	0.000491318	41.1989	1.90469e+07	1158.74
56	47.2314	100	0.000491318	40.3268	1.90469e+07	1158.74
55	46.8455	100	0.000491318	40.659	1.90469e+07	1158.74
54	50.1594	100	0.000491318	37.9728	1.90469e+07	1158.74
53	45.8697	100	0.000491318	41.524	1.90469e+07	1158.74
52	48.5676	100	0.000491318	39.2174	1.90469e+07	1158.74
51	46.0723	100	0.000491318	41.3414	1.90469e+07	1158.74
50	47.1383	100	0.000491318	40.4064	1.90469e+07	1158.74
49	46.14	100	0.000491318	41.2807	1.90469e+07	1158.74
48	48.5891	100	0.000491318	39.2	1.90469e+07	1158.74
47	46.4852	100	0.000491318	40.9741	1.90469e+07	1158.74
46	46.1092	100	0.000491318	41.3083	1.90469e+07	1158.74
45	45.8591	100	0.000491318	41.5335	1.90469e+07	1158.74
44	45.8159	100	0.000491318	41.5727	1.90469e+07	1158.74
43	47.173	100	0.000491318	40.3767	1.90469e+07	1158.74
42	48.2104	100	0.000491318	39.5079	1.90469e+07	1158.74
41	44.4111	100	0.000491318	42.8878	1.90469e+07	1158.74
40	46.9701	100	0.000491318	40.5511	1.90469e+07	1158.74
39	48.5162	100	0.000491318	39.2589	1.90469e+07	1158.74
38	47.0694	100	0.000491318	40.4656	1.90469e+07	1158.74
37	46.7908	100	0.000491318	40.7065	1.90469e+07	1158.74
36	47.0081	100	0.000491318	40.5184	1.90469e+07	1158.74
35	45.151	100	0.000491318	42.1849	1.90469e+07	1158.74
34	46.6976	100	0.000491318	40.7877	1.90469e+07	1158.74
33	45.0215	100	0.000491318	42.3062	1.90469e+07	1158.74
32	44.8491	100	0.000491318	42.4688	1.90469e+07	1158.74
31	44.5228	100	0.000491318	42.7801	1.90469e+07	1158.74
30	45.783	100	0.000491318	41.6025	1.90469e+07	1158.74
29	43.5724	100	0.000491318	43.7132	1.90469e+07	1158.74
28	43.3883	100	0.000491318	43.8988	1.90469e+07	1158.74
27	42.3331	100	0.000491318	44.993	1.90469e+07	1158.74
26	42.2273	100	0.000491318	45.1057	1.90469e+07	1158.74
25	41.5791	100	0.000491318	45.8089	1.90469e+07	1158.74
24	41.2129	100	0.000491318	46.2159	1.90469e+07	1158.74
23	39.1201	100	0.000491318	48.6883	1.90469e+07	1158.74
22	39.8763	100	0.000491318	47.765	1.90469e+07	1158.74
21	38.6487	100	0.000491318	49.2822	1.90469e+07	1158.74
20	38.381	100	0.000491318	49.6258	1.90469e+07	1158.74
19	38.3466	100	0.000491318	49.6704	1.90469e+07	1158.74
18	36.44	100	0.000491318	52.2692	1.90469e+07	1158.74
17	33.2437	100	0.000491318	57.2949	1.90469e+07	1158.74
16	34.2492	100	0.000491318	55.6127	1.90469e+07	1158.74
15	31.6345	100	0.000491318	60.2093	1.90469e+07	1158.74
14	32.7293	100	0.000491318	58.1953	1.90469e+07	1158.74
13	30.4328	100	0.000491318	62.5867	1.90469e+07	1158.74
12	28.4145	100	0.000491318	67.0324	1.90469e+07	1158.74
11	26.3876	100	0.000491318	72.1813	1.90469e+07	1158.74
10	24.7505	100	0.000491318	76.9555	1.90469e+07	1158.74
9	22.4518	100	0.000491318	84.8346	1.90469e+07	1158.74
8	20.0593	100	0.000491318	94.9531	1.90469e+07	1158.74
7	17.6068	100	0.000491318	108.179	1.90469e+07	1158.74
6	15.1574	100	0.000491318	125.661	1.90469e+07	1158.74
5	12.6551	100	0.000491318	150.508	1.90469e+07	1158.74
4	10.1502	100	0.000491318	187.651	1.90469e+07	1158.74
3	7.65228	100	0.000491318	248.905	1.90469e+07	1158.74
2	5.26498	100	0.000491318	361.766	1.90469e+07	1158.74
1	2.66305	100	0.000491318	715.23	1.90469e+07	1158.74
