parallelization_type	affinity_and_scheduling_method	mpi_nodes	threads	skip_sjm	depth	adapt_depth	splitting_size	real_time	gmcps
mpi_nothreading	default	001	001	001	22	08	008192	1393.25	5.48136
mpi_nothreading	default	002	001	001	22	08	008192	694.626	10.9943
mpi_nothreading	default	004	001	001	22	08	008192	350.929	21.7619
mpi_nothreading	default	008	001	001	22	08	008192	182.97	41.7386
mpi_nothreading	default	016	001	001	22	08	008192	100.918	75.674
mpi_nothreading	default	064	001	001	22	08	008192	26.4675	288.538
mpi_nothreading	default	128	001	001	22	08	008192	13.7382	555.887
mpi_nothreading	default	256	001	001	22	08	008192	6.89115	1108.21
mpi_nothreading	default	384	001	001	22	08	008192	4.76931	1601.25
mpi_nothreading_sacsp	default	001	001	001	22	08	008192	921.936	8.28355
mpi_nothreading_sacsp	default	002	001	001	22	08	008192	459.493	16.6203
mpi_nothreading_sacsp	default	004	001	001	22	08	008192	232.197	32.8897
mpi_nothreading_sacsp	default	008	001	001	22	08	008192	121.706	62.7486
mpi_nothreading_sacsp	default	016	001	001	22	08	008192	69.4116	110.023
mpi_nothreading_sacsp	default	064	001	001	22	08	008192	19.0631	400.612
mpi_nothreading_sacsp	default	128	001	001	22	08	008192	10.2681	743.75
mpi_nothreading_sacsp	default	256	001	001	22	08	008192	5.43859	1404.2
mpi_nothreading_sacsp	default	384	001	001	22	08	008192	4.03896	1890.8
mpi_omp	default	001	001	001	22	08	008192	1411.46	5.41063
mpi_omp	default	002	001	001	22	08	008192	703.086	10.862
mpi_omp	default	004	001	001	22	08	008192	355.473	21.4838
mpi_omp	default	008	001	001	22	08	008192	185.14	41.2493
mpi_omp	default	016	001	001	22	08	008192	101.932	74.9217
mpi_omp	default	064	001	001	22	08	008192	26.4967	288.22
mpi_omp	default	128	001	001	22	08	008192	13.8237	552.45
mpi_omp	default	256	001	001	22	08	008192	7.11474	1073.39
mpi_omp	default	384	001	001	22	08	008192	5.21263	1465.07
mpi_omp	default	001	002	001	22	08	008192	726.806	10.5075
mpi_omp	default	002	002	001	22	08	008192	361.303	21.1371
mpi_omp	default	004	002	001	22	08	008192	188.004	40.6208
mpi_omp	default	008	002	001	22	08	008192	103.343	73.8987
mpi_omp	default	016	002	001	22	08	008192	54.0436	141.31
mpi_omp	default	064	002	001	22	08	008192	15.2743	499.984
mpi_omp	default	128	002	001	22	08	008192	8.16318	935.523
mpi_omp	default	001	004	001	22	08	008192	381.483	20.019
mpi_omp	default	002	004	001	22	08	008192	190.56	40.076
mpi_omp	default	004	004	001	22	08	008192	105.212	72.5855
mpi_omp	default	008	004	001	22	08	008192	53.3596	143.122
mpi_omp	default	016	004	001	22	08	008192	30.8632	247.444
mpi_omp	default	064	004	001	22	08	008192	9.66911	789.823
mpi_omp	default	001	008	001	22	08	008192	213.077	35.841
mpi_omp	default	002	008	001	22	08	008192	106.573	71.6591
mpi_omp	default	004	008	001	22	08	008192	54.6235	139.81
mpi_omp	default	008	008	001	22	08	008192	27.8244	274.467
mpi_omp	default	016	008	001	22	08	008192	18.852	405.097
mpi_omp	default	001	016	001	22	08	008192	116.84	65.3618
mpi_omp	default	002	016	001	22	08	008192	59.7412	127.833
mpi_omp	default	004	016	001	22	08	008192	30.7274	248.537
mpi_omp	default	008	016	001	22	08	008192	15.8447	481.988
mpi_omp	default	016	016	001	22	08	008192	18.7624	407.033
mpi_tbb	default	001	001	001	22	08	008192	1406.63	5.42922
mpi_tbb	default	002	001	001	22	08	008192	699.421	10.9189
mpi_tbb	default	004	001	001	22	08	008192	353.76	21.5878
mpi_tbb	default	008	001	001	22	08	008192	184.314	41.4342
mpi_tbb	default	016	001	001	22	08	008192	101.615	75.1553
mpi_tbb	default	064	001	001	22	08	008192	26.5422	287.727
mpi_tbb	default	128	001	001	22	08	008192	14.0354	544.117
mpi_tbb	default	256	001	001	22	08	008192	7.19551	1061.34
mpi_tbb	default	384	001	001	22	08	008192	5.27398	1448.03
mpi_tbb	default	001	002	001	22	08	008192	707.829	10.7892
mpi_tbb	default	002	002	001	22	08	008192	353.667	21.5935
mpi_tbb	default	004	002	001	22	08	008192	184.548	41.3816
mpi_tbb	default	008	002	001	22	08	008192	101.7	75.0923
mpi_tbb	default	016	002	001	22	08	008192	53.3926	143.033
mpi_tbb	default	064	002	001	22	08	008192	15.2873	499.557
mpi_tbb	default	128	002	001	22	08	008192	8.29649	920.489
mpi_tbb	default	001	004	001	22	08	008192	367.281	20.7931
mpi_tbb	default	002	004	001	22	08	008192	186.13	41.0299
mpi_tbb	default	004	004	001	22	08	008192	102.177	74.7417
mpi_tbb	default	008	004	001	22	08	008192	53.0519	143.952
mpi_tbb	default	016	004	001	22	08	008192	30.1799	253.045
mpi_tbb	default	064	004	001	22	08	008192	9.38666	813.586
mpi_tbb	default	001	008	001	22	08	008192	194.769	39.2101
mpi_tbb	default	002	008	001	22	08	008192	104.128	73.3416
mpi_tbb	default	004	008	001	22	08	008192	52.1818	146.352
mpi_tbb	default	008	008	001	22	08	008192	26.7414	285.584
mpi_tbb	default	016	008	001	22	08	008192	18.451	413.901
mpi_tbb	default	001	016	001	22	08	008192	111.122	68.7256
mpi_tbb	default	002	016	001	22	08	008192	58.1276	131.382
mpi_tbb	default	004	016	001	22	08	008192	29.6805	257.303
mpi_tbb	default	008	016	001	22	08	008192	16.4493	464.27
mpi_tbb	default	016	016	001	22	08	008192	21.7267	351.498
mpi_tbb_sacsp	default	001	001	001	22	08	008192	939.032	8.13273
mpi_tbb_sacsp	default	002	001	001	22	08	008192	465.936	16.3904
mpi_tbb_sacsp	default	004	001	001	22	08	008192	236.256	32.3246
mpi_tbb_sacsp	default	008	001	001	22	08	008192	123.719	61.7276
mpi_tbb_sacsp	default	016	001	001	22	08	008192	70.373	108.52
mpi_tbb_sacsp	default	064	001	001	22	08	008192	19.3114	395.46
mpi_tbb_sacsp	default	128	001	001	22	08	008192	10.4517	730.68
mpi_tbb_sacsp	default	256	001	001	22	08	008192	5.80329	1315.95
mpi_tbb_sacsp	default	384	001	001	22	08	008192	4.52569	1687.44
mpi_tbb_sacsp	default	001	002	001	22	08	008192	470.058	16.2467
mpi_tbb_sacsp	default	002	002	001	22	08	008192	236.652	32.2705
mpi_tbb_sacsp	default	004	002	001	22	08	008192	123.643	61.7658
mpi_tbb_sacsp	default	008	002	001	22	08	008192	69.3273	110.157
mpi_tbb_sacsp	default	016	002	001	22	08	008192	37.3621	204.402
mpi_tbb_sacsp	default	064	002	001	22	08	008192	11.4861	664.88
mpi_tbb_sacsp	default	128	002	001	22	08	008192	6.89235	1108.01
mpi_tbb_sacsp	default	001	004	001	22	08	008192	245.932	31.0529
mpi_tbb_sacsp	default	002	004	001	22	08	008192	124.906	61.1412
mpi_tbb_sacsp	default	004	004	001	22	08	008192	69.8777	109.289
mpi_tbb_sacsp	default	008	004	001	22	08	008192	35.5783	214.651
mpi_tbb_sacsp	default	016	004	001	22	08	008192	22.3261	342.062
mpi_tbb_sacsp	default	064	004	001	22	08	008192	7.9477	960.89
mpi_tbb_sacsp	default	001	008	001	22	08	008192	131.547	58.0546
mpi_tbb_sacsp	default	002	008	001	22	08	008192	70.3263	108.592
mpi_tbb_sacsp	default	004	008	001	22	08	008192	35.6064	214.481
mpi_tbb_sacsp	default	008	008	001	22	08	008192	19.0283	401.345
mpi_tbb_sacsp	default	016	008	001	22	08	008192	15.3775	496.627
mpi_tbb_sacsp	default	001	016	001	22	08	008192	78.7297	97.0015
mpi_tbb_sacsp	default	002	016	001	22	08	008192	41.138	185.641
mpi_tbb_sacsp	default	004	016	001	22	08	008192	22.44	340.326
mpi_tbb_sacsp	default	008	016	001	22	08	008192	11.8643	643.686
mpi_tbb_sacsp	default	016	016	001	22	08	008192	21.9102	348.554
mpi_tbb_scan_data_scan_based_split_and_join	default	001	001	001	22	08	001024	1374.76	5.55509
mpi_tbb_scan_data_scan_based_split_and_join	default	002	001	001	22	08	001024	674.473	11.3228
mpi_tbb_scan_data_scan_based_split_and_join	default	004	001	001	22	08	001024	336.752	22.6781
mpi_tbb_scan_data_scan_based_split_and_join	default	008	001	001	22	08	001024	176.055	43.378
mpi_tbb_scan_data_scan_based_split_and_join	default	016	001	001	22	08	001024	96.1093	79.4606
mpi_tbb_scan_data_scan_based_split_and_join	default	064	001	001	22	08	001024	26.0392	293.283
mpi_tbb_scan_data_scan_based_split_and_join	default	128	001	001	22	08	001024	14.6581	520.993
mpi_tbb_scan_data_scan_based_split_and_join	default	256	001	001	22	08	001024	8.62073	885.87
mpi_tbb_scan_data_scan_based_split_and_join	default	384	001	001	22	08	001024	7.19115	1061.96
mpi_tbb_scan_data_scan_based_split_and_join	default	001	002	001	22	08	001024	672.455	11.3567
mpi_tbb_scan_data_scan_based_split_and_join	default	002	002	001	22	08	001024	345.552	22.1006
mpi_tbb_scan_data_scan_based_split_and_join	default	004	002	001	22	08	001024	189.745	40.2483
mpi_tbb_scan_data_scan_based_split_and_join	default	008	002	001	22	08	001024	97.1646	78.5975
mpi_tbb_scan_data_scan_based_split_and_join	default	016	002	001	22	08	001024	52.3846	145.785
mpi_tbb_scan_data_scan_based_split_and_join	default	064	002	001	22	08	001024	16.8553	453.08
mpi_tbb_scan_data_scan_based_split_and_join	default	128	002	001	22	08	001024	12.2659	622.602
mpi_tbb_scan_data_scan_based_split_and_join	default	001	004	001	22	08	001024	378.037	20.2014
mpi_tbb_scan_data_scan_based_split_and_join	default	002	004	001	22	08	001024	182.332	41.8846
mpi_tbb_scan_data_scan_based_split_and_join	default	004	004	001	22	08	001024	98.8304	77.2727
mpi_tbb_scan_data_scan_based_split_and_join	default	008	004	001	22	08	001024	52.244	146.177
mpi_tbb_scan_data_scan_based_split_and_join	default	016	004	001	22	08	001024	29.0998	262.438
mpi_tbb_scan_data_scan_based_split_and_join	default	064	004	001	22	08	001024	14.2202	537.038
mpi_tbb_scan_data_scan_based_split_and_join	default	001	008	001	22	08	001024	194.596	39.2449
mpi_tbb_scan_data_scan_based_split_and_join	default	002	008	001	22	08	001024	99.7537	76.5575
mpi_tbb_scan_data_scan_based_split_and_join	default	004	008	001	22	08	001024	52.4726	145.54
mpi_tbb_scan_data_scan_based_split_and_join	default	008	008	001	22	08	001024	27.396	278.759
mpi_tbb_scan_data_scan_based_split_and_join	default	016	008	001	22	08	001024	22.8906	333.625
mpi_tbb_scan_data_scan_based_split_and_join	default	001	016	001	22	08	001024	109.528	69.7257
mpi_tbb_scan_data_scan_based_split_and_join	default	002	016	001	22	08	001024	58.8016	129.876
mpi_tbb_scan_data_scan_based_split_and_join	default	004	016	001	22	08	001024	31.426	243.012
mpi_tbb_scan_data_scan_based_split_and_join	default	008	016	001	22	08	001024	17.5895	434.171
mpi_tbb_scan_data_scan_based_split_and_join	default	016	016	001	22	08	001024	38.6029	197.831
mpi_tbb_scan_data_scan_based_split_and_join_sacsp	default	001	001	001	22	08	001024	1346.9	5.66999
mpi_tbb_scan_data_scan_based_split_and_join_sacsp	default	002	001	001	22	08	001024	607.368	12.5738
mpi_tbb_scan_data_scan_based_split_and_join_sacsp	default	004	001	001	22	08	001024	279.283	27.3446
mpi_tbb_scan_data_scan_based_split_and_join_sacsp	default	008	001	001	22	08	001024	146.625	52.0847
mpi_tbb_scan_data_scan_based_split_and_join_sacsp	default	016	001	001	22	08	001024	84.1981	90.7016
mpi_tbb_scan_data_scan_based_split_and_join_sacsp	default	064	001	001	22	08	001024	23.1117	330.432
mpi_tbb_scan_data_scan_based_split_and_join_sacsp	default	128	001	001	22	08	001024	11.8987	641.817
mpi_tbb_scan_data_scan_based_split_and_join_sacsp	default	256	001	001	22	08	001024	6.96378	1096.65
mpi_tbb_scan_data_scan_based_split_and_join_sacsp	default	384	001	001	22	08	001024	5.67602	1345.42
mpi_tbb_scan_data_scan_based_split_and_join_sacsp	default	001	002	001	22	08	001024	614.813	12.4215
mpi_tbb_scan_data_scan_based_split_and_join_sacsp	default	002	002	001	22	08	001024	280.99	27.1786
mpi_tbb_scan_data_scan_based_split_and_join_sacsp	default	004	002	001	22	08	001024	148.707	51.3555
mpi_tbb_scan_data_scan_based_split_and_join_sacsp	default	008	002	001	22	08	001024	75.7102	100.87
mpi_tbb_scan_data_scan_based_split_and_join_sacsp	default	016	002	001	22	08	001024	43.0916	177.225
mpi_tbb_scan_data_scan_based_split_and_join_sacsp	default	064	002	001	22	08	001024	14.2231	536.928
mpi_tbb_scan_data_scan_based_split_and_join_sacsp	default	128	002	001	22	08	001024	10.2309	746.44
mpi_tbb_scan_data_scan_based_split_and_join_sacsp	default	001	004	001	22	08	001024	310.63	24.5852
mpi_tbb_scan_data_scan_based_split_and_join_sacsp	default	002	004	001	22	08	001024	143.965	53.0468
mpi_tbb_scan_data_scan_based_split_and_join_sacsp	default	004	004	001	22	08	001024	76.0028	100.482
mpi_tbb_scan_data_scan_based_split_and_join_sacsp	default	008	004	001	22	08	001024	40.4912	188.606
mpi_tbb_scan_data_scan_based_split_and_join_sacsp	default	016	004	001	22	08	001024	23.5539	324.23
mpi_tbb_scan_data_scan_based_split_and_join_sacsp	default	064	004	001	22	08	001024	12.6287	604.714
mpi_tbb_scan_data_scan_based_split_and_join_sacsp	default	001	008	001	22	08	001024	156.561	48.7792
mpi_tbb_scan_data_scan_based_split_and_join_sacsp	default	002	008	001	22	08	001024	79.0641	96.5912
mpi_tbb_scan_data_scan_based_split_and_join_sacsp	default	004	008	001	22	08	001024	40.745	187.431
mpi_tbb_scan_data_scan_based_split_and_join_sacsp	default	008	008	001	22	08	001024	20.6042	370.646
mpi_tbb_scan_data_scan_based_split_and_join_sacsp	default	016	008	001	22	08	001024	20.4357	373.702
mpi_tbb_scan_data_scan_based_split_and_join_sacsp	default	001	016	001	22	08	001024	87.2875	87.4913
mpi_tbb_scan_data_scan_based_split_and_join_sacsp	default	002	016	001	22	08	001024	47.7867	159.812
mpi_tbb_scan_data_scan_based_split_and_join_sacsp	default	004	016	001	22	08	001024	24.0783	317.169
mpi_tbb_scan_data_scan_based_split_and_join_sacsp	default	008	016	001	22	08	001024	13.4916	566.019
mpi_tbb_scan_data_scan_based_split_and_join_sacsp	default	016	016	001	22	08	001024	37.5576	203.334
