parallelization_type	affinity_and_scheduling_method	mpi_nodes	threads	skip_sjm	depth	adapt_depth	splitting_size	real_time	gmcps
mpi_nothreading	default	001	001	001	22	08	004096	1475.06	5.17736
mpi_nothreading	default	004	001	001	22	08	004096	369.309	20.6789
mpi_nothreading	default	016	001	001	22	08	004096	107.122	71.2916
mpi_nothreading	default	064	001	001	22	08	004096	28.4071	268.837
mpi_nothreading	default	128	001	001	22	08	004096	15.4298	494.94
mpi_nothreading	default	256	001	001	22	08	004096	7.78144	981.415
mpi_nothreading	default	384	001	001	22	08	004096	5.53822	1378.93
mpi_omp	default	001	001	001	22	08	004096	1502.07	5.08425
mpi_omp	default	004	001	001	22	08	004096	377.067	20.2534
mpi_omp	default	016	001	001	22	08	004096	109.081	70.0115
mpi_omp	default	064	001	001	22	08	004096	28.6275	266.766
mpi_omp	default	128	001	001	22	08	004096	15.4041	495.767
mpi_omp	default	256	001	001	22	08	004096	8.07762	945.429
mpi_omp	default	384	001	001	22	08	004096	5.80586	1315.36
mpi_omp	default	001	002	001	22	08	004096	785.404	9.72353
mpi_omp	default	004	002	001	22	08	004096	203.463	37.5345
mpi_omp	default	016	002	001	22	08	004096	58.4123	130.741
mpi_omp	default	064	002	001	22	08	004096	17.9773	424.805
mpi_omp	default	128	002	001	22	08	004096	10.1123	755.195
mpi_omp	default	001	004	001	22	08	004096	417.966	18.2716
mpi_omp	default	004	004	001	22	08	004096	113.527	67.2688
mpi_omp	default	016	004	001	22	08	004096	33.6764	226.771
mpi_omp	default	064	004	001	22	08	004096	12.3116	620.295
mpi_omp	default	001	008	001	22	08	004096	235.347	32.4496
mpi_omp	default	004	008	001	22	08	004096	59.3293	128.719
mpi_omp	default	016	008	001	22	08	004096	23.5629	324.103
mpi_omp	default	001	016	001	22	08	004096	132.487	57.6427
mpi_omp	default	004	016	001	22	08	004096	34.1596	223.561
mpi_omp	default	016	016	001	22	08	004096	26.243	291.004
mpi_tbb	default	001	001	001	22	08	004096	1492.78	5.11589
mpi_tbb	default	004	001	001	22	08	004096	375.103	20.3595
mpi_tbb	default	016	001	001	22	08	004096	108.38	70.464
mpi_tbb	default	064	001	001	22	08	004096	28.6033	266.992
mpi_tbb	default	128	001	001	22	08	004096	15.5122	492.316
mpi_tbb	default	256	001	001	22	08	004096	8.15441	936.524
mpi_tbb	default	384	001	001	22	08	004096	5.82263	1311.57
mpi_tbb	default	001	002	001	22	08	004096	760.214	10.0457
mpi_tbb	default	004	002	001	22	08	004096	196.505	38.8637
mpi_tbb	default	016	002	001	22	08	004096	56.2696	135.719
mpi_tbb	default	064	002	001	22	08	004096	17.9282	425.969
mpi_tbb	default	128	002	001	22	08	004096	10.7255	712.021
mpi_tbb	default	001	004	001	22	08	004096	398.868	19.1464
mpi_tbb	default	004	004	001	22	08	004096	109.972	69.4439
mpi_tbb	default	016	004	001	22	08	004096	32.9239	231.955
mpi_tbb	default	064	004	001	22	08	004096	12.3018	620.788
mpi_tbb	default	001	008	001	22	08	004096	216.704	35.2411
mpi_tbb	default	004	008	001	22	08	004096	56.4273	135.339
mpi_tbb	default	016	008	001	22	08	004096	23.4875	325.145
mpi_tbb	default	001	016	001	22	08	004096	125.727	60.7419
mpi_tbb	default	004	016	001	22	08	004096	32.8457	232.507
mpi_tbb	default	016	016	001	22	08	004096	32.5615	234.535
mpi_tbb_sacsp	default	001	001	001	22	08	004096	745.481	10.2443
mpi_tbb_sacsp	default	004	001	001	22	08	004096	208.14	36.6912
mpi_tbb_sacsp	default	016	001	001	22	08	004096	95.1371	80.2726
mpi_tbb_sacsp	default	064	001	001	22	08	004096	47.1638	161.923
mpi_tbb_sacsp	default	128	001	001	22	08	004096	46.4582	164.382
mpi_tbb_sacsp	default	256	001	001	22	08	004096	46.1951	165.318
mpi_tbb_sacsp	default	384	001	001	22	08	004096	46.6259	163.791
mpi_tbb_sacsp	default	001	002	001	22	08	004096	373.088	20.4694
mpi_tbb_sacsp	default	004	002	001	22	08	004096	124.174	61.5016
mpi_tbb_sacsp	default	016	002	001	22	08	004096	46.9506	162.658
mpi_tbb_sacsp	default	064	002	001	22	08	004096	42.9744	177.708
mpi_tbb_sacsp	default	128	002	001	22	08	004096	42.5485	179.487
mpi_tbb_sacsp	default	001	004	001	22	08	004096	199.715	38.239
mpi_tbb_sacsp	default	004	004	001	22	08	004096	77.3808	98.6924
mpi_tbb_sacsp	default	016	004	001	22	08	004096	44.987	169.758
mpi_tbb_sacsp	default	064	004	001	22	08	004096	42.3902	180.157
mpi_tbb_sacsp	default	001	008	001	22	08	004096	118.899	64.2299
mpi_tbb_sacsp	default	004	008	001	22	08	004096	53.7422	142.102
mpi_tbb_sacsp	default	016	008	001	22	08	004096	42.3412	180.365
mpi_tbb_sacsp	default	001	016	001	22	08	004096	84.415	90.4685
mpi_tbb_sacsp	default	004	016	001	22	08	004096	47.7362	159.981
mpi_tbb_sacsp	default	016	016	001	22	08	004096	46.2131	165.254
mpi_tbb_scan_data_scan_based_split_and_join	default	001	001	001	22	08	001024	1376.53	5.54792
mpi_tbb_scan_data_scan_based_split_and_join	default	004	001	001	22	08	001024	334.367	22.8398
mpi_tbb_scan_data_scan_based_split_and_join	default	016	001	001	22	08	001024	96.1726	79.4083
mpi_tbb_scan_data_scan_based_split_and_join	default	064	001	001	22	08	001024	26.102	292.577
mpi_tbb_scan_data_scan_based_split_and_join	default	128	001	001	22	08	001024	15.3141	498.68
mpi_tbb_scan_data_scan_based_split_and_join	default	256	001	001	22	08	001024	9.17245	832.585
mpi_tbb_scan_data_scan_based_split_and_join	default	384	001	001	22	08	001024	7.26768	1050.77
mpi_tbb_scan_data_scan_based_split_and_join	default	001	002	001	22	08	001024	670.23	11.3944
mpi_tbb_scan_data_scan_based_split_and_join	default	004	002	001	22	08	001024	189.58	40.2832
mpi_tbb_scan_data_scan_based_split_and_join	default	016	002	001	22	08	001024	52.3256	145.949
mpi_tbb_scan_data_scan_based_split_and_join	default	064	002	001	22	08	001024	17.4864	436.728
mpi_tbb_scan_data_scan_based_split_and_join	default	128	002	001	22	08	001024	12.4282	614.471
mpi_tbb_scan_data_scan_based_split_and_join	default	001	004	001	22	08	001024	379.972	20.0986
mpi_tbb_scan_data_scan_based_split_and_join	default	004	004	001	22	08	001024	98.2898	77.6977
mpi_tbb_scan_data_scan_based_split_and_join	default	016	004	001	22	08	001024	29.204	261.501
mpi_tbb_scan_data_scan_based_split_and_join	default	064	004	001	22	08	001024	14.8934	512.762
mpi_tbb_scan_data_scan_based_split_and_join	default	001	008	001	22	08	001024	194.951	39.1735
mpi_tbb_scan_data_scan_based_split_and_join	default	004	008	001	22	08	001024	52.4567	145.584
mpi_tbb_scan_data_scan_based_split_and_join	default	016	008	001	22	08	001024	22.7504	335.68
mpi_tbb_scan_data_scan_based_split_and_join	default	001	016	001	22	08	001024	109.016	70.0532
mpi_tbb_scan_data_scan_based_split_and_join	default	004	016	001	22	08	001024	30.9445	246.793
mpi_tbb_scan_data_scan_based_split_and_join	default	016	016	001	22	08	001024	39.3979	193.837
mpi_tbb_scan_data_scan_based_split_and_join_sacsp	default	001	001	001	22	08	001024	1337.32	5.71058
mpi_tbb_scan_data_scan_based_split_and_join_sacsp	default	004	001	001	22	08	001024	337.572	22.623
mpi_tbb_scan_data_scan_based_split_and_join_sacsp	default	016	001	001	22	08	001024	125.922	60.648
mpi_tbb_scan_data_scan_based_split_and_join_sacsp	default	064	001	001	22	08	001024	55.1883	138.379
mpi_tbb_scan_data_scan_based_split_and_join_sacsp	default	128	001	001	22	08	001024	50.3106	151.795
mpi_tbb_scan_data_scan_based_split_and_join_sacsp	default	256	001	001	22	08	001024	48.1844	158.493
mpi_tbb_scan_data_scan_based_split_and_join_sacsp	default	384	001	001	22	08	001024	47.9676	159.21
mpi_tbb_scan_data_scan_based_split_and_join_sacsp	default	001	002	001	22	08	001024	630.508	12.1123
mpi_tbb_scan_data_scan_based_split_and_join_sacsp	default	004	002	001	22	08	001024	167.422	45.6147
mpi_tbb_scan_data_scan_based_split_and_join_sacsp	default	016	002	001	22	08	001024	62.6794	121.84
mpi_tbb_scan_data_scan_based_split_and_join_sacsp	default	064	002	001	22	08	001024	47.222	161.723
mpi_tbb_scan_data_scan_based_split_and_join_sacsp	default	128	002	001	22	08	001024	43.311	176.327
mpi_tbb_scan_data_scan_based_split_and_join_sacsp	default	001	004	001	22	08	001024	342.764	22.2803
mpi_tbb_scan_data_scan_based_split_and_join_sacsp	default	004	004	001	22	08	001024	98.1132	77.8376
mpi_tbb_scan_data_scan_based_split_and_join_sacsp	default	016	004	001	22	08	001024	50.1633	152.24
mpi_tbb_scan_data_scan_based_split_and_join_sacsp	default	064	004	001	22	08	001024	42.2089	180.931
mpi_tbb_scan_data_scan_based_split_and_join_sacsp	default	001	008	001	22	08	001024	157.365	48.5298
mpi_tbb_scan_data_scan_based_split_and_join_sacsp	default	004	008	001	22	08	001024	61.6961	123.783
mpi_tbb_scan_data_scan_based_split_and_join_sacsp	default	016	008	001	22	08	001024	43.9887	173.611
mpi_tbb_scan_data_scan_based_split_and_join_sacsp	default	001	016	001	22	08	001024	101.916	74.9333
mpi_tbb_scan_data_scan_based_split_and_join_sacsp	default	004	016	001	22	08	001024	52.2738	146.094
mpi_tbb_scan_data_scan_based_split_and_join_sacsp	default	016	016	001	22	08	001024	47.2747	161.543
