parallelization_type	affinity_and_scheduling_method	mpi_nodes	threads	skip_sjm	depth	adapt_depth	splitting_size	real_time	gmcps
mpi_nothreading	default	001	001	001	22	08	004096	1469.16	5.19814
mpi_nothreading	default	004	001	001	22	08	004096	368.761	20.7096
mpi_nothreading	default	016	001	001	22	08	004096	106.722	71.559
mpi_nothreading	default	064	001	001	22	08	004096	28.2357	270.469
mpi_nothreading	default	128	001	001	22	08	004096	15.4418	494.558
mpi_nothreading	default	256	001	001	22	08	004096	7.80354	978.636
mpi_nothreading	default	384	001	001	22	08	004096	5.53285	1380.27
mpi_omp	default	001	001	001	22	08	004096	1502.39	5.08317
mpi_omp	default	004	001	001	22	08	004096	377.058	20.2539
mpi_omp	default	016	001	001	22	08	004096	108.775	70.2083
mpi_omp	default	064	001	001	22	08	004096	28.6412	266.639
mpi_omp	default	128	001	001	22	08	004096	15.4556	494.115
mpi_omp	default	256	001	001	22	08	004096	8.07692	945.511
mpi_omp	default	384	001	001	22	08	004096	5.79502	1317.82
mpi_omp	default	001	002	001	22	08	004096	785.431	9.72319
mpi_omp	default	004	002	001	22	08	004096	203.333	37.5585
mpi_omp	default	016	002	001	22	08	004096	58.195	131.229
mpi_omp	default	064	002	001	22	08	004096	17.9855	424.612
mpi_omp	default	128	002	001	22	08	004096	10.0967	756.362
mpi_omp	default	001	004	001	22	08	004096	415.505	18.3798
mpi_omp	default	004	004	001	22	08	004096	113.564	67.2474
mpi_omp	default	016	004	001	22	08	004096	33.6384	227.027
mpi_omp	default	064	004	001	22	08	004096	12.3399	618.871
mpi_omp	default	001	008	001	22	08	004096	235.228	32.4659
mpi_omp	default	004	008	001	22	08	004096	59.3848	128.599
mpi_omp	default	016	008	001	22	08	004096	23.5822	323.839
mpi_omp	default	001	016	001	22	08	004096	133.016	57.4135
mpi_omp	default	004	016	001	22	08	004096	34.2105	223.229
mpi_omp	default	016	016	001	22	08	004096	26.2197	291.262
mpi_tbb	default	001	001	001	22	08	004096	1576.62	4.84383
mpi_tbb	default	004	001	001	22	08	004096	375.101	20.3595
mpi_tbb	default	016	001	001	22	08	004096	108.292	70.521
mpi_tbb	default	064	001	001	22	08	004096	28.4998	267.963
mpi_tbb	default	128	001	001	22	08	004096	15.5834	490.063
mpi_tbb	default	256	001	001	22	08	004096	8.43798	905.054
mpi_tbb	default	384	001	001	22	08	004096	5.92886	1288.07
mpi_tbb	default	001	002	001	22	08	004096	755.709	10.1056
mpi_tbb	default	004	002	001	22	08	004096	196.169	38.9301
mpi_tbb	default	016	002	001	22	08	004096	56.2573	135.749
mpi_tbb	default	064	002	001	22	08	004096	19.4801	392.033
mpi_tbb	default	128	002	001	22	08	004096	10.5688	722.58
mpi_tbb	default	001	004	001	22	08	004096	399.704	19.1064
mpi_tbb	default	004	004	001	22	08	004096	109.622	69.6657
mpi_tbb	default	016	004	001	22	08	004096	32.8596	232.408
mpi_tbb	default	064	004	001	22	08	004096	12.4977	611.055
mpi_tbb	default	001	008	001	22	08	004096	216.363	35.2968
mpi_tbb	default	004	008	001	22	08	004096	56.5183	135.122
mpi_tbb	default	016	008	001	22	08	004096	23.3542	327.001
mpi_tbb	default	001	016	001	22	08	004096	126.375	60.4304
mpi_tbb	default	004	016	001	22	08	004096	33.1471	230.393
mpi_tbb	default	016	016	001	22	08	004096	31.9624	238.931
mpi_tbb_sacsp	default	001	001	001	22	08	004096	744.444	10.2585
mpi_tbb_sacsp	default	004	001	001	22	08	004096	205.087	37.2374
mpi_tbb_sacsp	default	016	001	001	22	08	004096	94.8141	80.546
mpi_tbb_sacsp	default	064	001	001	22	08	004096	47.4902	160.81
mpi_tbb_sacsp	default	128	001	001	22	08	004096	46.8231	163.101
mpi_tbb_sacsp	default	256	001	001	22	08	004096	46.5108	164.196
mpi_tbb_sacsp	default	384	001	001	22	08	004096	46.7585	163.326
mpi_tbb_sacsp	default	001	002	001	22	08	004096	373.668	20.4376
mpi_tbb_sacsp	default	004	002	001	22	08	004096	124.396	61.3917
mpi_tbb_sacsp	default	016	002	001	22	08	004096	50.5898	150.957
mpi_tbb_sacsp	default	064	002	001	22	08	004096	43.939	173.807
mpi_tbb_sacsp	default	128	002	001	22	08	004096	42.4879	179.742
mpi_tbb_sacsp	default	001	004	001	22	08	004096	198.765	38.4218
mpi_tbb_sacsp	default	004	004	001	22	08	004096	77.3581	98.7214
mpi_tbb_sacsp	default	016	004	001	22	08	004096	44.28	172.468
mpi_tbb_sacsp	default	064	004	001	22	08	004096	42.5244	179.588
mpi_tbb_sacsp	default	001	008	001	22	08	004096	118.401	64.5004
mpi_tbb_sacsp	default	004	008	001	22	08	004096	52.9939	144.109
mpi_tbb_sacsp	default	016	008	001	22	08	004096	42.2248	180.863
mpi_tbb_sacsp	default	001	016	001	22	08	004096	85.3289	89.4996
mpi_tbb_sacsp	default	004	016	001	22	08	004096	49.2477	155.071
mpi_tbb_sacsp	default	016	016	001	22	08	004096	47.0477	162.322
mpi_tbb_scan_data_scan_based_split_and_join	default	001	001	001	22	08	001024	1376.18	5.54933
mpi_tbb_scan_data_scan_based_split_and_join	default	004	001	001	22	08	001024	334.396	22.8379
mpi_tbb_scan_data_scan_based_split_and_join	default	016	001	001	22	08	001024	96.1715	79.4092
mpi_tbb_scan_data_scan_based_split_and_join	default	064	001	001	22	08	001024	26.0442	293.226
mpi_tbb_scan_data_scan_based_split_and_join	default	128	001	001	22	08	001024	15.3425	497.757
mpi_tbb_scan_data_scan_based_split_and_join	default	256	001	001	22	08	001024	9.20956	829.23
mpi_tbb_scan_data_scan_based_split_and_join	default	384	001	001	22	08	001024	7.31976	1043.29
mpi_tbb_scan_data_scan_based_split_and_join	default	001	002	001	22	08	001024	675.722	11.3018
mpi_tbb_scan_data_scan_based_split_and_join	default	004	002	001	22	08	001024	190.214	40.1489
mpi_tbb_scan_data_scan_based_split_and_join	default	016	002	001	22	08	001024	52.4926	145.485
mpi_tbb_scan_data_scan_based_split_and_join	default	064	002	001	22	08	001024	17.8983	426.677
mpi_tbb_scan_data_scan_based_split_and_join	default	128	002	001	22	08	001024	13.5325	564.326
mpi_tbb_scan_data_scan_based_split_and_join	default	001	004	001	22	08	001024	376.188	20.3008
mpi_tbb_scan_data_scan_based_split_and_join	default	004	004	001	22	08	001024	98.8951	77.2222
mpi_tbb_scan_data_scan_based_split_and_join	default	016	004	001	22	08	001024	29.4262	259.527
mpi_tbb_scan_data_scan_based_split_and_join	default	064	004	001	22	08	001024	14.7044	519.352
mpi_tbb_scan_data_scan_based_split_and_join	default	001	008	001	22	08	001024	193.942	39.3771
mpi_tbb_scan_data_scan_based_split_and_join	default	004	008	001	22	08	001024	52.7726	144.713
mpi_tbb_scan_data_scan_based_split_and_join	default	016	008	001	22	08	001024	22.7539	335.629
mpi_tbb_scan_data_scan_based_split_and_join	default	001	016	001	22	08	001024	109.334	69.8493
mpi_tbb_scan_data_scan_based_split_and_join	default	004	016	001	22	08	001024	30.9382	246.843
mpi_tbb_scan_data_scan_based_split_and_join	default	016	016	001	22	08	001024	38.8539	196.553
mpi_tbb_scan_data_scan_based_split_and_join_sacsp	default	001	001	001	22	08	001024	1327.36	5.75343
mpi_tbb_scan_data_scan_based_split_and_join_sacsp	default	004	001	001	22	08	001024	334.399	22.8377
mpi_tbb_scan_data_scan_based_split_and_join_sacsp	default	016	001	001	22	08	001024	127.478	59.9077
mpi_tbb_scan_data_scan_based_split_and_join_sacsp	default	064	001	001	22	08	001024	54.8421	139.252
mpi_tbb_scan_data_scan_based_split_and_join_sacsp	default	128	001	001	22	08	001024	48.572	157.228
mpi_tbb_scan_data_scan_based_split_and_join_sacsp	default	256	001	001	22	08	001024	47.5966	160.45
mpi_tbb_scan_data_scan_based_split_and_join_sacsp	default	384	001	001	22	08	001024	47.2601	161.593
mpi_tbb_scan_data_scan_based_split_and_join_sacsp	default	001	002	001	22	08	001024	629.68	12.1282
mpi_tbb_scan_data_scan_based_split_and_join_sacsp	default	004	002	001	22	08	001024	168.274	45.3837
mpi_tbb_scan_data_scan_based_split_and_join_sacsp	default	016	002	001	22	08	001024	64.0322	119.267
mpi_tbb_scan_data_scan_based_split_and_join_sacsp	default	064	002	001	22	08	001024	47.2142	161.75
mpi_tbb_scan_data_scan_based_split_and_join_sacsp	default	128	002	001	22	08	001024	46.5718	163.981
mpi_tbb_scan_data_scan_based_split_and_join_sacsp	default	001	004	001	22	08	001024	343.888	22.2075
mpi_tbb_scan_data_scan_based_split_and_join_sacsp	default	004	004	001	22	08	001024	99.0417	77.1079
mpi_tbb_scan_data_scan_based_split_and_join_sacsp	default	016	004	001	22	08	001024	49.5361	154.168
mpi_tbb_scan_data_scan_based_split_and_join_sacsp	default	064	004	001	22	08	001024	44.1216	173.087
mpi_tbb_scan_data_scan_based_split_and_join_sacsp	default	001	008	001	22	08	001024	158.174	48.2817
mpi_tbb_scan_data_scan_based_split_and_join_sacsp	default	004	008	001	22	08	001024	61.5097	124.158
mpi_tbb_scan_data_scan_based_split_and_join_sacsp	default	016	008	001	22	08	001024	43.7988	174.363
mpi_tbb_scan_data_scan_based_split_and_join_sacsp	default	001	016	001	22	08	001024	102.347	74.6173
mpi_tbb_scan_data_scan_based_split_and_join_sacsp	default	004	016	001	22	08	001024	52.2313	146.213
mpi_tbb_scan_data_scan_based_split_and_join_sacsp	default	016	016	001	22	08	001024	46.5386	164.098
