Executable + params: ../../build/sierpi_intel_tbb_taskaffinities_scan_sacsp_tsunami_parallel_release -o 32768 -A 1 -d 20 -a 8 -t 100
Problem size with different number of CPUs using function optimization
THREADS	MTPS	TIMESTEPS	TIMESTEP_SIZE	SECONDS_FOR_SIMULATION	AVERAGE_TRIANGLES	AVERAGE_PARTITIONS
40	64.6245	100	0.000491318		1.9047e+07	963.71
32	52.1064	100	0.000491318		1.9047e+07	773.72
30	41.0951	100	0.000491318		1.9047e+07	756.66
20	26.1514	100	0.000491318		1.9047e+07	533.26
16	23.5732	100	0.000491318		1.9047e+07	433.08
10	13.6463	100	0.000491318		1.9047e+07	289.05
8	12.918	100	0.000491318		1.9047e+07	236.11
4	8.95796	100	0.000491318		1.9047e+07	133.26
2	4.70344	100	0.000491318		1.9047e+07	75.89
1	2.4372	100	0.000491318		1.9047e+07	48
