Executable + params: ../../build/sierpi_intel_omp_tsunami_parallel_release -o 32768 -A 1 -d 20 -a 8 -t 100
Problem size with different number of CPUs using function optimization
THREADS	MTPS	TIMESTEPS	TIMESTEP_SIZE	SECONDS_FOR_SIMULATION	AVERAGE_TRIANGLES	AVERAGE_PARTITIONS
40	53.0427	100	0.000491318		1.9047e+07	1158.74
32	46.8384	100	0.000491318		1.9047e+07	1158.74
30	34.4982	100	0.000491318		1.9047e+07	1158.74
20	23.0032	100	0.000491318		1.9047e+07	1158.74
16	20.5348	100	0.000491318		1.9047e+07	1158.74
10	12.6828	100	0.000491318		1.9047e+07	1158.74
8	11.7374	100	0.000491318		1.9047e+07	1158.74
4	8.56832	100	0.000491318		1.9047e+07	1158.74
2	4.95574	100	0.000491318		1.9047e+07	1158.74
1	2.53309	100	0.000491318		1.9047e+07	1158.74
