%%MatrixMarket matrix array complex general
10 10
1 0
0 0
0 0
0 0
0 0
0 0
0 0
0 0
0 0
0 0
0 0
1 0
0 0
0 0
0 0
0 0
0 0
0 0
0 0
0 0
0 0
0 0
1 0
0 0
0 0
0 0
0 0
0 0
0 0
0 0
-0.707106781 0
0 0
0 0
-0.25 0
0 0
0 0
-0.433012702 0
0 0
0 0
0 0
0 0
-0.707106782 0
0 0
0 0
-0.25 0
0 0
0 0
-0.433012702 0
0 0
0 0
0.144337567 0
0 0
0 0
0.408248291 0
0 0
0.0833333333 0
0.707106782 0
0 0
0.144337567 0
0.186338998 0
0.408248291 0
0 0
0 0
0.721687837 0
0 0
0 0
-0.75 0
0 0
0 0
0 0
0 0
0.408248291 0
0 0
0 0
0.721687837 0
0 0
0 0
-0.75 0
0 0
0 0
0.125 0
0 0
0 0
-0.707106781 0
0 0
-0.216506351 0
0 0
0 0
-0.125 0
0.484122918 0
-0.161374306 0
0 0
0 0
0.365148372 0
0 0
0.577650894 0
-0.316227766 0
0 0
-0.742321808 0
0.541666667 0
