%%MatrixMarket matrix array complex general
10 9
0.279350827 0
0 0
-0.31232372 0
0.197530864 0
0 0
-0.241924913 0
-0.342133493 0
0 0
-0.628539361 0
0.270480275 0
0.174594267 0
0 0
-0.195202325 0
0.410344445 0
0 0
0.536648931 0
-0.048198768 0
0 0
-0.202860206 0
0.00858887488 0
0.174594267 0
0 0
-0.195202325 0
-0.163430865 0
0 0
0.0681633514 0
-0.379468098 0
0 0
0.202860206 0
0.532371676 0
0.174594267 0
-0.23424279 0
0.15616186 0
0.12345679 0
-0.165634665 0
-0.151203071 0
-0.213833433 0
0.286887655 0
-0.392837101 0
0.169050172 0
0.109121417 0
-0.146401744 0
0.0976011624 0
0.256465278 0
-0.344084278 0
0.335405582 0
-0.03012423 0
0.0404158957 0
-0.126787629 0
0.0053680468 0
0.109121417 0
-0.146401744 0
0.0976011624 0
-0.102144291 0
0.137040947 0
0.0426020947 0
-0.237167561 0
0.318193673 0
0.126787629 0
0.332732297 0
0.174594267 0
0.23424279 0
0.15616186 0
0.12345679 0
0.165634665 0
-0.151203071 0
-0.213833433 0
-0.286887655 0
-0.392837101 0
0.169050172 0
0.109121417 0
0.146401744 0
0.0976011624 0
0.256465278 0
0.344084278 0
0.335405582 0
-0.03012423 0
-0.0404158957 0
-0.126787629 0
0.0053680468 0
0.109121417 0
0.146401744 0
0.0976011624 0
-0.102144291 0
-0.137040947 0
0.0426020947 0
-0.237167561 0
-0.318193673 0
0.126787629 0
0.332732297 0
