%%MatrixMarket matrix array complex general
10 6
0.315909274 0
0.547170913 0
0.706394611 0
0.150936917 0
0.26143041 0
-0.316750326 0
-0.26143041 0
-0.452810752 0
-0.393745768 0
0.0216840565 0
0.315909274 0
0.547170913 0
0.706394611 0
0.150936917 0
0.26143041 0
-0.316750326 0
0.26143041 0
0.452810752 0
0.393745768 0
0.0216840568 0
0.315909274 0
0.547170913 0
0.706394611 0
-0.301873835 0
-0.52286082 0
0.137908125 0
0 0
0 0
0 0
-0.486639545 0
0.155495247 0
0.269325668 0
0.347697943 0
-0.159489701 0
-0.276244266 0
0.0946012661 0
0.276244266 0
0.478469104 0
-0.18341442 0
0.226686143 0
0.155495247 0
0.269325668 0
0.347697943 0
-0.159489701 0
-0.276244266 0
0.0946012661 0
-0.276244266 0
-0.478469104 0
0.18341442 0
0.226686143 0
0.155495247 0
0.269325668 0
0.347697943 0
0.318979402 0
0.552488532 0
0.306389995 0
0 0
0 0
0 0
-0.0101008544 0
