THREADS	MTPS	TIMESTEPS	TIMESTEP_SIZE	SECONDS_FOR_SIMULATION	AVERAGE_TRIANGLES	AVERAGE_PARTITIONS
64	75.933	100	0.000491318	25.0838	1.90469e+07	1158.74
63	75.1926	100	0.000491318	25.3308	1.90469e+07	1158.74
62	74.6858	100	0.000491318	25.5027	1.90469e+07	1158.74
61	74.3069	100	0.000491318	25.6328	1.90469e+07	1158.74
60	73.7244	100	0.000491318	25.8353	1.90469e+07	1158.74
59	71.6051	100	0.000491318	26.6	1.90469e+07	1158.74
58	70.66	100	0.000491318	26.9557	1.90469e+07	1158.74
57	70.7999	100	0.000491318	26.9025	1.90469e+07	1158.74
56	68.2978	100	0.000491318	27.888	1.90469e+07	1158.74
55	68.6042	100	0.000491318	27.7635	1.90469e+07	1158.74
54	67.2716	100	0.000491318	28.3135	1.90469e+07	1158.74
53	67.0371	100	0.000491318	28.4125	1.90469e+07	1158.74
52	63.8202	100	0.000491318	29.8446	1.90469e+07	1158.74
51	64.5486	100	0.000491318	29.5079	1.90469e+07	1158.74
50	62.9449	100	0.000491318	30.2597	1.90469e+07	1158.74
49	60.6961	100	0.000491318	31.3808	1.90469e+07	1158.74
48	59.3238	100	0.000491318	32.1067	1.90469e+07	1158.74
47	57.7406	100	0.000491318	32.987	1.90469e+07	1158.74
46	57.5397	100	0.000491318	33.1022	1.90469e+07	1158.74
45	56.5613	100	0.000491318	33.6748	1.90469e+07	1158.74
44	55.5912	100	0.000491318	34.2625	1.90469e+07	1158.74
43	54.508	100	0.000491318	34.9433	1.90469e+07	1158.74
42	54.07	100	0.000491318	35.2264	1.90469e+07	1158.74
41	52.5718	100	0.000491318	36.2303	1.90469e+07	1158.74
40	52.1698	100	0.000491318	36.5094	1.90469e+07	1158.74
39	50.5178	100	0.000491318	37.7034	1.90469e+07	1158.74
38	49.4467	100	0.000491318	38.5201	1.90469e+07	1158.74
37	47.2786	100	0.000491318	40.2865	1.90469e+07	1158.74
36	46.4577	100	0.000491318	40.9984	1.90469e+07	1158.74
35	43.9537	100	0.000491318	43.334	1.90469e+07	1158.74
34	42.8455	100	0.000491318	44.4548	1.90469e+07	1158.74
33	38.6683	100	0.000491318	49.2571	1.90469e+07	1158.74
32	35.7656	100	0.000491318	53.2548	1.90469e+07	1158.74
31	35.1942	100	0.000491318	54.1194	1.90469e+07	1158.74
30	35.1426	100	0.000491318	54.1989	1.90469e+07	1158.74
29	34.2826	100	0.000491318	55.5585	1.90469e+07	1158.74
28	34.3017	100	0.000491318	55.5276	1.90469e+07	1158.74
27	32.9124	100	0.000491318	57.8715	1.90469e+07	1158.74
26	32.4389	100	0.000491318	58.7162	1.90469e+07	1158.74
25	31.9077	100	0.000491318	59.6937	1.90469e+07	1158.74
24	30.4193	100	0.000491318	62.6146	1.90469e+07	1158.74
23	29.8683	100	0.000491318	63.7697	1.90469e+07	1158.74
22	28.9473	100	0.000491318	65.7985	1.90469e+07	1158.74
21	28.0926	100	0.000491318	67.8005	1.90469e+07	1158.74
20	26.3727	100	0.000491318	72.2222	1.90469e+07	1158.74
19	25.2792	100	0.000491318	75.3462	1.90469e+07	1158.74
18	24.5322	100	0.000491318	77.6404	1.90469e+07	1158.74
17	23.1099	100	0.000491318	82.4189	1.90469e+07	1158.74
16	20.8683	100	0.000491318	91.2718	1.90469e+07	1158.74
15	20.4204	100	0.000491318	93.2739	1.90469e+07	1158.74
14	20.1574	100	0.000491318	94.491	1.90469e+07	1158.74
13	19.5626	100	0.000491318	97.3638	1.90469e+07	1158.74
12	18.887	100	0.000491318	100.847	1.90469e+07	1158.74
11	18.2534	100	0.000491318	104.347	1.90469e+07	1158.74
10	17.6233	100	0.000491318	108.078	1.90469e+07	1158.74
9	16.5459	100	0.000491318	115.115	1.90469e+07	1158.74
8	15.1076	100	0.000491318	126.075	1.90469e+07	1158.74
7	14.22	100	0.000491318	133.945	1.90469e+07	1158.74
6	13.1205	100	0.000491318	145.169	1.90469e+07	1158.74
5	11.297	100	0.000491318	168.601	1.90469e+07	1158.74
4	8.99342	100	0.000491318	211.787	1.90469e+07	1158.74
3	7.74254	100	0.000491318	246.003	1.90469e+07	1158.74
2	6.63961	100	0.000491318	286.868	1.90469e+07	1158.74
1	3.34576	100	0.000491318	569.285	1.90469e+07	1158.74
