0	0
10.2682	0
20.5362	0
30.8042	0
40.2165	0
50.4843	0
60.7521	0
70.1641	0
80.7725	0
90.1845	0
100.452	0
110.719	0
120.131	0
130.399	0
140.666	0
150.056	0
160.173	0
170.244	0
180.308	0
190.372	0
200.436	0
210.501	0
220.565	0
230.629	0
240.693	0
250.756	0
260.82	0
270.045	0
280.109	0
290.173	9.09495e-13
300.236	1.18234e-11
310.3	2.27374e-11
320.364	3.36513e-11
330.427	4.45652e-11
340.491	5.82077e-11
350.554	8.00355e-11
360.618	1.01863e-10
370.681	1.31877e-10
380.712	1.64619e-10
390.696	2.07365e-10
400.616	2.56478e-10
410.541	3.15595e-10
420.437	3.84716e-10
430.264	4.65661e-10
440.007	5.5843e-10
450.538	6.75755e-10
460.257	8.02174e-10
470.787	9.60426e-10
480.507	1.12959e-09
490.228	1.32331e-09
500.733	1.5616e-09
510.372	1.81171e-09
520.77	2.1173e-09
530.365	2.43745e-09
540.759	2.82853e-09
550.345	3.23598e-09
560.721	3.73348e-09
570.292	4.25007e-09
580.652	4.87944e-09
590.214	5.52973e-09
600.572	6.31826e-09
610.134	7.13317e-09
620.492	8.11997e-09
630.054	9.13769e-09
640.412	1.03619e-08
650.771	1.17216e-08
660.332	1.31022e-08
670.691	1.47347e-08
680.252	1.63773e-08
690.61	1.83045e-08
700.171	2.0229e-08
710.518	2.247e-08
720.05	2.46846e-08
730.37	2.72448e-08
740.69	2.99733e-08
750.216	3.2639e-08
760.536	3.56777e-08
770.062	3.8619e-08
780.382	4.19459e-08
790.702	4.54093e-08
800.228	4.87207e-08
810.548	5.24233e-08
820.074	5.59394e-08
830.394	5.98484e-08
840.714	6.38538e-08
850.24	6.76291e-08
860.56	7.17991e-08
870.086	7.57173e-08
880.406	8.00355e-08
890.725	8.44248e-08
900.251	8.8542e-08
910.571	9.30731e-08
920.097	9.73268e-08
930.416	1.02018e-07
940.736	1.06807e-07
950.262	1.11322e-07
960.581	1.16333e-07
970.107	1.21086e-07
980.427	1.26398e-07
990.746	1.31905e-07
1000.27	1.37192e-07
1010.59	1.43177e-07
1020.12	1.48976e-07
1030.44	1.55602e-07
1040.76	1.6264e-07
1050.28	1.69558e-07
1060.6	1.77573e-07
1070.13	1.85516e-07
1080.45	1.94787e-07
1090.77	2.04845e-07
1100.29	2.14909e-07
1110.61	2.26762e-07
1120.14	2.38679e-07
1130.46	2.52765e-07
1140.78	2.68207e-07
1150.3	2.83793e-07
1160.62	3.0227e-07
1170.15	3.20932e-07
1180.47	3.43055e-07
1190.78	3.67349e-07
1200.31	3.91869e-07
1210.63	4.20901e-07
1220.16	4.50169e-07
1230.47	4.84769e-07
1240.79	5.22623e-07
1250.32	5.60675e-07
1260.64	6.05526e-07
1270.16	6.50519e-07
1280.48	7.03438e-07
1290	7.56386e-07
1300.3	8.18393e-07
1310.58	8.85587e-07
1320.07	9.52598e-07
1330.34	1.03092e-06
1340.61	1.11555e-06
1350.09	1.19969e-06
1360.36	1.29772e-06
1370.61	1.40325e-06
1380.08	1.50843e-06
1390.35	1.63128e-06
1400.61	1.76366e-06
1410.09	1.89451e-06
1420.35	2.04582e-06
1430.61	2.2072e-06
1440.08	2.36515e-06
1450.34	2.54624e-06
1460.6	2.73781e-06
1470.07	2.92406e-06
1480.29	3.13527e-06
1490.47	3.35673e-06
1500.66	3.58925e-06
1510.06	3.81397e-06
1520.25	4.06866e-06
1530.44	4.33542e-06
1540.63	4.61471e-06
1550.03	4.88407e-06
1560.22	5.18895e-06
1570.4	5.50803e-06
1580.58	5.84156e-06
1590.67	6.18786e-06
1600.73	6.5492e-06
1610.01	6.8979e-06
1620.07	7.2929e-06
1630.14	7.70682e-06
1640.2	8.14076e-06
1650.26	8.59588e-06
1660.32	9.07342e-06
1670.38	9.57467e-06
1680.44	1.0101e-05
1690.5	1.06539e-05
1700.56	1.12348e-05
1710.62	1.18454e-05
1720.68	1.24872e-05
1730.74	1.31619e-05
1740.03	1.38156e-05
1750.09	1.45588e-05
1760.15	1.534e-05
1770.21	1.61604e-05
1780.28	1.70214e-05
1790.34	1.79239e-05
1800.4	1.88689e-05
1810.46	1.98572e-05
1820.52	2.08899e-05
1830.58	2.19676e-05
1840.64	2.30914e-05
1850.7	2.4262e-05
1860.76	2.54804e-05
1870.05	2.66484e-05
1880.11	2.79615e-05
1890.17	2.93256e-05
1900.23	3.07418e-05
1910.29	3.22114e-05
1920.35	3.37359e-05
1930.41	3.53169e-05
1940.47	3.69561e-05
1950.53	3.86553e-05
1960.59	4.04165e-05
1970.66	4.22419e-05
1980.72	4.41337e-05
1990	4.5941e-05
2000.06	4.79674e-05
2010.12	5.00677e-05
2020.18	5.22445e-05
2030.24	5.45009e-05
2040.31	5.68399e-05
2050.37	5.92646e-05
2060.43	6.17785e-05
2070.49	6.43849e-05
2080.55	6.70876e-05
2090.61	6.98905e-05
2100.67	7.17602e-05
2110.73	7.03698e-05
2120.02	6.93007e-05
2130.08	6.83584e-05
2140.14	6.76262e-05
2150.2	6.70905e-05
2160.26	6.67389e-05
2170.32	6.65595e-05
2180.38	6.65419e-05
2190.44	6.66766e-05
2200.5	6.69554e-05
2210.56	6.73709e-05
2220.62	6.79167e-05
2230.68	6.85873e-05
2240.74	6.93779e-05
2250.03	7.02111e-05
2260.09	7.12225e-05
2270.15	7.23447e-05
2280.21	7.35758e-05
2290.27	7.49147e-05
2300.33	7.63606e-05
2310.39	7.79135e-05
2320.45	7.95739e-05
2330.51	8.13426e-05
2340.57	8.32211e-05
2350.63	8.52112e-05
2360.69	8.73151e-05
2370.75	8.95354e-05
2380.03	9.16908e-05
2390.09	9.41434e-05
2400.15	9.67219e-05
2410.21	9.94299e-05
2420.27	0.000102272
2430.33	0.000105251
2440.39	0.000108373
2450.45	0.000111642
2460.51	0.000115064
2470.57	0.000118643
2480.63	0.000122387
2490.69	0.000126289
2500.75	0.000130337
2510.04	0.000134194
2520.1	0.000138496
2530.16	0.000142922
2540.22	0.000147468
2550.28	0.000152132
2560.34	0.000156915
2570.4	0.000161818
2580.46	0.000166842
2590.52	0.000171993
2600.58	0.000177274
2610.64	0.000182691
2620.7	0.000188251
2630.76	0.000193961
2640.05	0.000199372
2650.11	0.000205394
2660.13	0.00021157
2670.19	0.000217953
2680.25	0.000224537
2690.31	0.000231331
2700.37	0.000238349
2710.43	0.000245601
2720.49	0.000253102
2730.55	0.000260862
2740.61	0.000268894
2750.66	0.000277209
2760.72	0.00028582
2770.01	0.000294041
2780.07	0.000303253
2790.13	0.000312796
2800.19	0.000322683
2810.25	0.000332928
2820.3	0.000343544
2830.36	0.000354548
2840.42	0.000365954
2850.48	0.000386954
2860.54	0.000415898
2870.6	0.000444697
2880.66	0.000473278
2890.72	0.000501609
2900	0.000527539
2910.06	0.000555409
2920.12	0.000583092
2930.18	0.000610642
2940.24	0.000638131
2950.3	0.000665636
2960.36	0.000693245
2970.42	0.00072105
2980.48	0.000749149
2990.54	0.00077764
3000.59	0.000806624
3010.65	0.0008362
3020.71	0.000866467
3030.77	0.000897524
3040.06	0.000926974
3050.12	0.000959775
3060.17	0.000993396
3070.23	0.00102771
3080.29	0.00106264
3090.35	0.00109816
3100.41	0.00113428
3110.47	0.00117104
3120.53	0.00120851
3130.59	0.0012468
3140.64	0.00128602
3150.7	0.00132632
3160.76	0.00136785
3170.05	0.00140742
3180.11	0.00145175
3190.16	0.00149775
3200.22	0.00154557
3210.28	0.00159534
3220.34	0.00164723
3230.4	0.00170129
3240.46	0.00181439
3250.52	0.00193199
3260.57	0.00204346
3270.63	0.00214997
3280.69	0.00225307
3290.75	0.00235442
3300.04	0.00244788
3310.09	0.00255053
3320.15	0.0026561
3330.21	0.00276588
3340.27	0.00287972
3350.33	0.00299679
3360.39	0.00311708
3370.44	0.00324117
3380.5	0.00337012
3390.56	0.00350534
3400.62	0.00364833
3410.68	0.00380048
3420.74	0.00397596
3430.02	0.00428191
3440.08	0.0046018
3450.14	0.00491407
3460.2	0.0052287
3470.26	0.00555572
3480.31	0.0058968
3490.37	0.00624673
3500.43	0.00661076
3510.49	0.00700031
3520.55	0.00767668
3530.61	0.00836482
3540.67	0.00904225
3550.72	0.00976884
3560.01	0.0105092
3570.07	0.011979
3580.13	0.0134775
3590.18	0.0162394
3600.24	0.0217564
3610.3	0.0285155
3620.36	0.0347791
3630.42	0.0411999
3640.48	0.0468492
3650.54	0.0522408
3660.59	0.0568524
3670.65	0.0612461
3680.71	0.0656455
3690.77	0.0699618
3700.05	0.0737463
3710.11	0.077546
3720.17	0.0812113
3730.23	0.0848368
3740.29	0.0883712
3750.35	0.0917472
3760.41	0.0950596
3770.47	0.0984244
3780.53	0.101812
3790.58	0.105097
3800.64	0.108253
3810.7	0.111367
3820.76	0.114513
3830.05	0.117452
3840.11	0.120664
3850.16	0.123948
3860.22	0.127378
3870.28	0.130981
3880.34	0.134717
3890.42	0.138549
3900.51	0.142465
3910.6	0.14648
3920.69	0.150599
3930	0.154485
3940.09	0.15879
3950.18	0.163196
3960.27	0.167689
3970.35	0.172234
3980.44	0.176798
3990.53	0.181371
4000.62	0.185953
4010.71	0.190552
4020.03	0.194822
4030.13	0.19949
4040.23	0.204223
4050.32	0.209029
4060.42	0.213907
4070.52	0.218864
4080.61	0.223925
4090.71	0.22913
4100.03	0.234101
4110.13	0.239705
4120.22	0.245579
4130.32	0.251767
4140.42	0.258316
4150.52	0.26528
4160.62	0.272726
4170.73	0.280734
4180.06	0.288707
4190.19	0.298082
4200.35	0.308346
4210.51	0.319579
4220.69	0.331897
4230.1	0.344315
4240.29	0.358997
4250.51	0.37511
4260.77	0.392758
4270.23	0.41047
4280.49	0.431275
4290.74	0.453828
4300.2	0.476228
4310.46	0.502212
4320.71	0.529947
4330.18	0.557044
4340.43	0.587922
4350.68	0.620254
4360.15	0.651248
4370.4	0.68588
4380.66	0.72137
4390.12	0.754647
4400.38	0.790944
4410.63	0.827137
4420.1	0.8601
4430.35	0.894921
4440.6	0.928374
4450.07	0.957632
4460.32	0.987121
4470.58	1.01383
4480.04	1.03556
4490.29	1.05545
4500.55	1.071
4510.01	1.08101
4520.27	1.0866
4530.52	1.08619
4540.78	1.07918
4550.24	1.06639
4560.5	1.04517
4570.75	1.01581
4580.21	0.981092
4590.47	0.934883
4600.72	0.87947
4610.19	0.820013
4620.44	0.746563
4630.7	0.663733
4640.16	0.578938
4650.42	0.47785
4660.67	0.366572
4670.13	0.253768
4680.39	0.118806
4690.64	-0.0255845
4700.11	-0.0851481
4710.36	-0.135116
4720.62	-0.166881
4730.08	-0.177935
4740.34	-0.200125
4750.59	-0.215987
4760.1	-0.227823
4770.42	-0.239514
4780.73	-0.246133
4790.25	-0.255643
4800.56	-0.263864
4810.09	-0.270232
4820.41	-0.275819
4830.73	-0.280714
4840.25	-0.285135
4850.57	-0.289673
4860.1	-0.293542
4870.42	-0.286453
4880.74	-0.287862
4890.27	-0.292301
4900.59	-0.29635
4910.11	-0.299479
4920.43	-0.302339
4930.75	-0.304762
4940.28	-0.306705
4950.6	-0.308576
4960.12	-0.309876
4970.44	-0.311047
4980.76	-0.312216
4990.29	-0.313242
5000.61	-0.31435
5010.13	-0.315348
5020.45	-0.316381
5030.77	-0.317348
5040.3	-0.318171
5050.62	-0.318917
5060.15	-0.311593
5070.47	-0.312516
5080.79	-0.313606
5090.31	-0.314883
5100.63	-0.316096
5110.16	-0.317065
5120.48	-0.317933
5130	-0.318583
5140.32	-0.319142
5150.64	-0.319567
5160.17	-0.319852
5170.49	-0.320055
5180.01	-0.320153
5190.32	-0.32017
5200.62	-0.320102
5210.11	-0.319971
5220.39	-0.319758
5230.66	-0.319478
5240.14	-0.319162
5250.41	-0.318745
5260.68	-0.318276
5270.15	-0.317804
5280.4	-0.317253
5290.66	-0.316529
5300.14	-0.315702
5310.41	-0.314786
5320.67	-0.313847
5330.14	-0.312957
5340.41	-0.311967
5350.67	-0.310946
5360.14	-0.309977
5370.39	-0.308896
5380.65	-0.307781
5390.12	-0.306724
5400.38	-0.305547
5410.63	-0.304337
5420.07	-0.303182
5430.26	-0.301898
5440.45	-0.300586
5450.63	-0.291504
5460.04	-0.290827
5470.22	-0.290085
5480.41	-0.289336
5490.6	-0.288584
5500	-0.287889
5510.19	-0.287135
5520.33	-0.286386
5530.41	-0.285647
5540.47	-0.284917
5550.53	-0.284196
5560.59	-0.283488
5570.65	-0.282793
5580.71	-0.282113
5590	-0.281499
5600.06	-0.28085
5610.12	-0.280216
5620.18	-0.279598
5630.24	-0.278996
5640.31	-0.278411
5650.37	-0.277843
5660.43	-0.277291
5670.49	-0.276753
5680.55	-0.276225
5690.61	-0.275706
5700.67	-0.275192
5710.73	-0.274679
5720.02	-0.274204
5730.08	-0.273685
5740.14	-0.273158
5750.2	-0.272619
5760.26	-0.272064
5770.32	-0.271492
5780.38	-0.270897
5790.45	-0.270278
5800.51	-0.269677
5810.57	-0.26913
5820.63	-0.268524
5830.69	-0.267858
5840.75	-0.267135
5850.04	-0.266416
5860.1	-0.265572
5870.16	-0.264543
5880.22	-0.263458
5890.28	-0.262318
5900.34	-0.261127
5910.4	-0.259885
5920.46	-0.258595
5930.52	-0.257259
5940.59	-0.255879
5950.65	-0.254456
5960.71	-0.252992
5970.77	-0.251489
5980.06	-0.250068
5990.12	-0.248494
6000.18	-0.246886
6010.24	-0.245704
6020.3	-0.244717
6030.36	-0.243635
6040.42	-0.242472
6050.48	-0.241236
6060.54	-0.239935
6070.6	-0.238576
6080.66	-0.237163
6090.72	-0.2357
6100.01	-0.234309
6110.07	-0.232759
6120.13	-0.231167
6130.19	-0.229534
6140.25	-0.227863
6150.32	-0.226155
6160.38	-0.224412
6170.44	-0.222634
6180.5	-0.220819
6190.56	-0.218961
6200.62	-0.217064
6210.68	-0.215131
6220.74	-0.21317
6230.03	-0.211342
6240.09	-0.209351
6250.15	-0.207353
6260.21	-0.205353
6270.27	-0.203355
6280.33	-0.201359
6290.39	-0.199368
6300.45	-0.197381
6310.51	-0.195398
6320.57	-0.193417
6330.64	-0.191438
6340.7	-0.189459
6350.76	-0.187477
6360.04	-0.185645
6370.1	-0.183656
6380.17	-0.181661
6390.23	-0.179659
6400.29	-0.177649
6410.35	-0.175233
6420.41	-0.171943
6430.47	-0.168706
6440.53	-0.165543
6450.59	-0.16246
6460.65	-0.159449
6470.71	-0.156499
6480.77	-0.153594
6490.06	-0.150938
6500.12	-0.148073
6510.18	-0.145206
6520.24	-0.14233
6530.3	-0.139457
6540.37	-0.136599
6550.43	-0.133757
6560.49	-0.130925
6570.55	-0.128087
6580.61	-0.125227
6590.67	-0.12233
6600.73	-0.119381
6610.02	-0.115014
6620.08	-0.109941
6630.14	-0.105134
6640.2	-0.100499
6650.26	-0.0959248
6660.32	-0.0913261
6670.38	-0.0866811
6680.44	-0.0820718
6690.51	-0.0774995
6700.57	-0.0728872
6710.63	-0.0666221
6720.71	-0.0594222
6730.03	-0.0532853
6740.12	-0.0465148
6750.17	-0.0396319
6760.18	-0.0302583
6770.19	-0.0195471
6780.2	-0.00775538
6790.23	0.0108036
6800.29	0.0403212
6810.35	0.0589977
6820.41	0.0727387
6830.47	0.0815433
6840.53	0.0861561
6850.59	0.0879336
6860.64	0.0862981
6870.7	0.0856173
6880.76	0.0861375
6890.05	0.0871397
6900.11	0.0875698
6910.17	0.0870437
6920.23	0.0865761
6930.28	0.086695
6940.34	0.0871724
6950.4	0.087408
6960.46	0.0877507
6970.52	0.0888627
6980.58	0.0905264
6990.64	0.0918079
7000.7	0.0922438
7010.76	0.0922653
7020.04	0.0924055
7030.1	0.0927459
7040.16	0.0929376
7050.22	0.0928079
7060.28	0.0926162
7070.34	0.0926275
7080.4	0.0926997
7090.46	0.092456
7100.52	0.0917451
7110.58	0.0907717
7120.63	0.0898306
7130.69	0.0890563
7140.75	0.0884545
7150.04	0.088047
7160.1	0.0877044
7170.16	0.0872556
7180.21	0.0864281
7190.27	0.0850917
7200.33	0.0833259
7210.39	0.0813086
7220.45	0.0792057
7230.51	0.0771704
7240.57	0.0753581
7250.63	0.0738507
7260.69	0.0725666
7270.75	0.0713043
7280.03	0.0700196
7290.09	0.0684985
7300.15	0.0669772
7310.21	0.0656235
7320.27	0.0645567
7330.33	0.0638338
7340.39	0.0634504
7350.44	0.0633325
7360.5	0.0633472
7370.56	0.0633579
7380.62	0.0632884
7390.68	0.0631441
7400.74	0.0629856
7410.03	0.062892
7420.08	0.0629067
7430.14	0.0630755
7440.2	0.0633967
7450.26	0.0638384
7460.32	0.0643623
7470.38	0.0649477
7480.44	0.0655985
7490.5	0.0663314
7500.56	0.0671588
7510.62	0.0680749
7520.67	0.069047
7530.73	0.0700157
7540.02	0.0708453
7550.08	0.0716209
7560.14	0.0722494
7570.2	0.072754
7580.26	0.073186
7590.31	0.0736
7600.37	0.074033
7610.43	0.0744946
7620.49	0.0749682
7630.55	0.0754253
7640.61	0.0758483
7650.67	0.0762519
7660.73	0.0766898
7670.01	0.0771933
7680.07	0.0779188
7690.13	0.0788759
7700.19	0.0800575
7710.25	0.0814025
7720.31	0.0828161
7730.37	0.0842048
7740.43	0.0855112
7750.49	0.0867339
7760.55	0.0879258
7770.61	0.0891741
7780.67	0.0905712
7790.73	0.0921875
7800.04	0.0939055
7810.13	0.0959977
7820.22	0.0982912
7830.3	0.100737
7840.39	0.103298
7850.48	0.105955
7860.57	0.108708
7870.66	0.111552
7880.75	0.114467
7890.06	0.117182
7900.15	0.120082
7910.24	0.122854
7920.32	0.125417
7930.41	0.12771
7940.5	0.129707
7950.59	0.131418
7960.68	0.132881
7970.77	0.134146
7980.08	0.135181
7990.17	0.136188
8000.26	0.137089
8010.34	0.137877
8020.43	0.138536
8030.52	0.139049
8040.61	0.139398
8050.7	0.139572
8060.01	0.139568
8070.1	0.139371
8080.19	0.138957
8090.28	0.138303
8100.38	0.137388
8110.48	0.136193
8120.57	0.134714
8130.67	0.132956
8140.77	0.130934
8150.09	0.128854
8160.18	0.126392
8170.28	0.123739
8180.38	0.120917
8190.48	0.117949
8200.57	0.114857
8210.67	0.111664
8220.77	0.10839
8230.09	0.105311
8240.18	0.101928
8250.28	0.0984976
8260.38	0.0950187
8270.49	0.0914839
8280.59	0.0878886
8290.7	0.0842342
8300.07	0.0808047
8310.23	0.0770554
8320.39	0.0732989
8330.55	0.0695681
8340.72	0.0658918
8350.11	0.0625627
8360.3	0.0590405
8370.48	0.0556194
8380.67	0.0523046
8390.08	0.0493433
8400.26	0.0462481
8410.47	0.0432745
8420.71	0.0404311
8430.17	0.0379321
8440.42	0.0353666
8450.68	0.0329433
8460.14	0.0308196
8470.4	0.0286201
8480.65	0.0264999
8490.12	0.0245901
8500.37	0.0225514
8510.62	0.0205295
8520.09	0.018673
8530.34	0.0166754
8540.6	0.0147033
8550.06	0.0129206
8560.32	0.0110503
8570.57	0.00901993
8580.04	0.00776729
8590.29	0.00565337
8600.55	0.00498638
8610.01	0.00329674
8620.27	0.00147865
8630.52	-0.000196559
8640.77	-0.00188562
8650.24	-0.0029438
8660.49	-0.00577839
8670.75	-0.00836923
8680.21	-0.0104698
8690.47	-0.0125892
8700.72	-0.0145494
8710.19	-0.0161681
8720.44	-0.0143993
8730.69	-0.016021
8740.16	-0.0186506
8750.41	-0.0214325
8760.67	-0.0239621
8770.13	-0.0261337
8780.39	-0.0283561
8790.64	-0.0304745
8800.11	-0.0323544
8810.36	-0.0343196
8820.61	-0.0362521
8830.07	-0.0379303
8840.31	-0.0396052
8850.56	-0.0412047
8860.03	-0.0426155
8870.28	-0.0440724
8880.54	-0.0454554
8890	-0.0466725
8900.26	-0.0482632
8910.51	-0.0492005
8920.76	-0.0500201
8930.23	-0.0506895
8940.48	-0.0513368
8950.74	-0.0519178
8960.2	-0.0524069
8970.46	-0.0528962
8980.71	-0.0533503
8990.18	-0.0537424
9000.43	-0.054146
9010.68	-0.0545352
9020.15	-0.0549214
9030.4	-0.05539
9040.65	-0.0557454
9050.12	-0.0560824
9060.37	-0.0564555
9070.63	-0.0568351
9080.09	-0.0571895
9090.33	-0.0575754
9100.53	-0.0579609
9110.72	-0.0583455
9120.12	-0.0586989
9130.31	-0.059079
9140.5	-0.0594554
9150.68	-0.0598272
9160.09	-0.0601665
9170.27	-0.0605301
9180.46	-0.0554181
9190.65	-0.0560789
9200.03	-0.0566724
9210.13	-0.0572906
9220.19	-0.0578823
9230.25	-0.0584485
9240.31	-0.0589884
9250.37	-0.0595032
9260.43	-0.0599941
9270.49	-0.0604623
9280.55	-0.0609088
9290.61	-0.0613345
9300.68	-0.0617402
9310.74	-0.0621266
9320.02	-0.0624667
9330.08	-0.062818
9340.15	-0.0631521
9350.21	-0.0634699
9360.27	-0.0637721
9370.33	-0.0640598
9380.39	-0.0643333
9390.45	-0.064592
9400.51	-0.0648357
9410.57	-0.0650646
9420.63	-0.0652785
9430.69	-0.0654771
9440.76	-0.0656607
9450.04	-0.0658168
9460.1	-0.0659718
9470.16	-0.0661124
9480.23	-0.0662389
9490.29	-0.0663519
9500.35	-0.0664522
9510.41	-0.066538
9520.47	-0.0666074
9530.53	-0.0666773
9540.59	-0.0667844
9550.65	-0.0668256
9560.71	-0.0668545
9570	-0.0668708
9580.06	-0.066878
9590.12	-0.0668746
9600.18	-0.0668613
9610.24	-0.0668384
9620.31	-0.0668065
9630.37	-0.0667659
9640.43	-0.0667168
9650.49	-0.0666597
9660.55	-0.0665947
9670.61	-0.066522
9680.67	-0.0664419
9690.73	-0.0663545
9700.02	-0.0662674
9710.08	-0.0661662
9720.14	-0.0660581
9730.2	-0.0659431
9740.26	-0.0658213
9750.32	-0.0656928
9760.39	-0.0655575
9770.45	-0.0654156
9780.51	-0.0652671
9790.57	-0.065112
9800.63	-0.0649504
9810.69	-0.0647823
9820.75	-0.0646078
9830.04	-0.0644411
9840.1	-0.0642544
9850.16	-0.0640616
9860.22	-0.0638629
9870.28	-0.0636583
9880.34	-0.0630297
9890.4	-0.0628345
9900.46	-0.0626369
9910.53	-0.0624369
9920.59	-0.0622342
9930.65	-0.0620288
9940.71	-0.0618206
9950.77	-0.0616096
9960.06	-0.0614123
9970.12	-0.0611959
9980.18	-0.0609765
9990.24	-0.0607541
10000.3	-0.0605286
10010.4	-0.0602998
10020.4	-0.0600671
10030.5	-0.0598289
10040.5	-0.0595851
10050.6	-0.0593359
10060.7	-0.0587449
10070.7	-0.058386
10080	-0.058054
10090.1	-0.0576934
10100.1	-0.0573318
10110.2	-0.056969
10120.3	-0.056605
10130.3	-0.0562396
10140.4	-0.0558728
10150.4	-0.0555043
10160.5	-0.0551342
10170.6	-0.0547622
10180.6	-0.0543884
10190.7	-0.0540126
10200.7	-0.0536347
10210	-0.053284
10220.1	-0.052902
10230.2	-0.0525177
10240.2	-0.0521313
10250.3	-0.0517446
10260.3	-0.0513582
10270.4	-0.0509715
10280.5	-0.0505844
10290.5	-0.0501963
10300.6	-0.0498071
10310.6	-0.0494165
10320.7	-0.0490242
10330.8	-0.04863
10340.1	-0.0482642
10350.1	-0.0478659
10360.2	-0.0474652
10370.2	-0.0470621
10380.3	-0.0466565
10390.4	-0.0462484
10400.4	-0.0458378
10410.5	-0.0454247
10420.5	-0.0450091
10430.6	-0.0445911
10440.7	-0.0441708
10450.7	-0.0437482
10460.8	-0.0433243
10470	-0.0429314
10480.1	-0.0425028
10490.1	-0.0420723
10500.2	-0.04164
10510.3	-0.0412062
10520.3	-0.040771
10530.4	-0.0403344
10540.4	-0.0398969
10550.5	-0.0394585
10560.6	-0.0390194
10570.6	-0.0385799
10580.7	-0.0381399
10590.7	-0.0377
10600	-0.0372942
10610.1	-0.0368547
10620.1	-0.0364156
10630.2	-0.0359768
10640.3	-0.0355386
10650.3	-0.0351009
10660.4	-0.0346198
10670.4	-0.0341365
10680.5	-0.0336591
10690.5	-0.0331875
10700.6	-0.0327216
10710.7	-0.0322611
10720.7	-0.031806
10730	-0.0313905
10740.1	-0.0309452
10750.1	-0.0305048
10760.2	-0.0300691
10770.2	-0.0296379
10780.3	-0.0292111
10790.4	-0.0287886
10800.4	-0.0283702
10810.5	-0.0279561
10820.5	-0.0275479
10830.6	-0.0271455
10840.7	-0.0267482
10850.7	-0.0263558
10860	-0.0259975
10870.1	-0.0256131
10880.1	-0.0252324
10890.2	-0.0248552
10900.2	-0.024481
10910.3	-0.0241096
10920.4	-0.0237367
10930.4	-0.0233634
10940.5	-0.0230081
10950.5	-0.0226675
10960.6	-0.0223389
10970.7	-0.0220199
10980.7	-0.0217093
10990	-0.021431
11000.1	-0.0211379
11010.1	-0.0208527
11020.2	-0.020574
11030.2	-0.0203007
11040.3	-0.0200315
11050.4	-0.0197653
11060.4	-0.0195009
11070.5	-0.0192374
11080.5	-0.0189739
11090.6	-0.0187095
11100.7	-0.0184435
11110.7	-0.0181751
11120	-0.0179248
11130.1	-0.0176504
11140.1	-0.0173727
11150.2	-0.0170915
11160.2	-0.0168068
11170.3	-0.0165181
11180.4	-0.0162253
11190.4	-0.0159281
11200.5	-0.0156263
11210.5	-0.0153201
11220.6	-0.0150097
11230.7	-0.0146955
11240.7	-0.0143773
11250.8	-0.0140552
11260.1	-0.0137598
11270.1	-0.013443
11280.2	-0.0131274
11290.2	-0.012811
11300.3	-0.0124921
11310.4	-0.0121695
11320.4	-0.0118421
11330.5	-0.0114225
11340.5	-0.0109192
11350.6	-0.0103928
11360.6	-0.0098532
11370.7	-0.00930659
11380.8	-0.00875686
11390.1	-0.00824872
11400.1	-0.00769906
11410.2	-0.00715139
11420.2	-0.00660715
11430.3	-0.0060664
11440.3	-0.00552813
11450.4	-0.004991
11460.5	-0.004454
11470.5	-0.00391422
11480.6	-0.00336901
11490.6	-0.00281855
11500.7	-0.00226249
11510.8	-0.00170074
11520	-0.000564589
11530.1	0.000821843
11540.2	0.00209702
11550.2	0.0032541
11560.3	0.00429709
11570.3	0.00523711
11580.4	0.00609369
11590.5	0.00689957
11600.5	0.00766624
11610.6	0.00876073
11620.6	0.00974414
11630.7	0.0105901
11640.8	0.011388
11650	0.0121069
11660.1	0.0130082
11670.2	0.0143112
11680.2	0.0158598
11690.3	0.019159
11700.3	0.0238611
11710.4	0.0278932
11720.5	0.03263
11730.5	0.0373697
11740.6	0.0424235
11750.6	0.0476474
11760.7	0.0528388
11770.8	0.0583024
11780	0.0634652
11790.1	0.0689332
11800.2	0.0741578
11810.2	0.0791226
11820.3	0.0837796
11830.3	0.0881227
11840.4	0.0920496
11850.5	0.095491
11860.5	0.0984144
11870.6	0.100766
11880.6	0.102531
11890.7	0.103795
11900	0.104651
11910.1	0.105363
11920.2	0.105913
11930.3	0.106353
11940.4	0.106748
11950.4	0.10713
11960.5	0.107457
11970.6	0.107683
11980.7	0.10782
11990	0.107925
