0	0
12.1103	0
20.1838	0
32.2938	0
40.3672	0
52.477	0
60.5502	0
72.6598	0
80.7329	0
92.8423	0
100.89	0
112.876	0
120.804	0
132.702	-9.09495e-13
140.637	-2.72848e-12
152.537	-5.45697e-12
160.468	-7.27596e-12
172.366	-1.18234e-11
180.298	-1.54614e-11
192.156	-2.27374e-11
200.062	-2.81943e-11
211.921	-3.91083e-11
223.787	-5.36602e-11
231.697	-6.54836e-11
243.563	-8.73115e-11
251.473	-1.04592e-10
263.338	-1.35515e-10
271.249	-1.60071e-10
283.114	-2.03727e-10
291.024	-2.38288e-10
302.89	-2.99224e-10
310.8	-3.45608e-10
322.629	-4.25644e-10
330.539	-4.87489e-10
342.355	-5.939e-10
350.167	-6.73936e-10
361.885	-8.08541e-10
373.602	-9.63155e-10
381.414	-1.07866e-09
392.928	-1.26693e-09
400.575	-1.40426e-09
412.045	-1.63072e-09
423.547	-1.88265e-09
431.214	-2.06455e-09
442.732	-2.35923e-09
450.363	-2.56841e-09
461.713	-2.89947e-09
473.032	-3.25144e-09
480.577	-3.49792e-09
491.87	-3.88172e-09
503.163	-4.28463e-09
510.683	-4.56384e-09
521.949	-5.00222e-09
533.215	-5.46697e-09
540.726	-5.79439e-09
552.011	-6.31462e-09
563.295	-6.87396e-09
570.818	-7.2705e-09
582.103	-7.90351e-09
593.388	-8.58563e-09
600.911	-9.07039e-09
612.195	-9.85165e-09
623.48	-1.07084e-08
631.003	-1.13287e-08
642.287	-1.23446e-08
653.571	-1.34805e-08
661.09	-1.43136e-08
672.33	-1.56888e-08
683.57	-1.72367e-08
691.067	-1.83772e-08
702.32	-2.02672e-08
713.567	-2.23899e-08
721.066	-2.39452e-08
732.314	-2.65063e-08
743.561	-2.93594e-08
751.06	-3.1433e-08
762.307	-3.48164e-08
773.555	-3.85417e-08
781.053	-4.12238e-08
792.301	-4.55548e-08
803.548	-5.02641e-08
811.047	-5.36202e-08
822.294	-5.89816e-08
833.542	-6.4736e-08
841.04	-6.87905e-08
852.287	-7.51943e-08
863.535	-8.19737e-08
871.033	-8.6693e-08
882.28	-9.40545e-08
893.527	-1.01726e-07
901.025	-1.06995e-07
912.273	-1.15095e-07
923.52	-1.23381e-07
931.018	-1.28979e-07
942.265	-1.37434e-07
953.512	-1.45887e-07
961.01	-1.51478e-07
972.257	-1.5973e-07
983.504	-1.67726e-07
991.002	-1.7286e-07
1002.25	-1.80176e-07
1013.5	-1.86916e-07
1020.99	-1.91019e-07
1032.24	-1.96475e-07
1043.49	-2.00945e-07
1050.99	-2.03287e-07
1062.23	-2.05699e-07
1073.48	-2.06599e-07
1080.98	-2.06247e-07
1092.22	-2.04106e-07
1103.47	-1.99791e-07
1110.97	-1.95564e-07
1122.21	-1.8697e-07
1133.46	-1.75375e-07
1140.96	-1.65803e-07
1152.21	-1.484e-07
1163.45	-1.26984e-07
1170.95	-1.10263e-07
1182.2	-8.11788e-08
1193.44	-4.68535e-08
1200.94	-2.08047e-08
1212.19	2.34249e-08
1223.43	7.43603e-08
1230.93	1.12346e-07
1242.18	1.75852e-07
1253.42	2.47785e-07
1260.9	3.00719e-07
1272.07	3.88657e-07
1283.25	4.87714e-07
1290.72	5.60279e-07
1301.92	6.79141e-07
1313.14	8.10213e-07
1320.61	9.0445e-07
1331.82	1.05623e-06
1343.04	1.22071e-06
1350.5	1.33736e-06
1361.68	1.52298e-06
1372.87	1.72192e-06
1380.31	1.86192e-06
1391.46	2.08327e-06
1402.61	2.31904e-06
1410.03	2.48423e-06
1421.2	2.74606e-06
1432.35	3.02349e-06
1443.52	3.31896e-06
1450.97	3.52606e-06
1462.15	3.85276e-06
1473.32	4.19985e-06
1480.77	4.44326e-06
1491.94	4.82729e-06
1503.12	5.23598e-06
1510.57	5.5229e-06
1521.72	5.97573e-06
1532.69	6.44932e-06
1543.65	6.9534e-06
1551.01	7.30978e-06
1562.11	7.8772e-06
1573.18	8.48042e-06
1580.55	8.9039e-06
1591.61	9.57431e-06
1602.67	1.02893e-05
1610.04	1.07922e-05
1621.1	1.15882e-05
1632.15	1.2437e-05
1643.21	1.33416e-05
1650.58	1.3977e-05
1661.64	1.49803e-05
1672.7	1.60456e-05
1680.07	1.6791e-05
1691.13	1.79636e-05
1702.18	1.92028e-05
1713.24	2.05102e-05
1720.61	2.14206e-05
1731.67	2.28456e-05
1742.73	2.43433e-05
1750.1	2.53832e-05
1761.15	2.70065e-05
1772.21	2.87079e-05
1783.27	3.04896e-05
1790.63	3.17214e-05
1801.67	3.36395e-05
1812.71	3.56447e-05
1820.07	3.70327e-05
1831.12	3.9192e-05
1842.17	4.14475e-05
1853.22	4.38028e-05
1860.59	4.54306e-05
1871.64	4.79618e-05
1882.69	5.06046e-05
1890.05	5.24308e-05
1901.1	5.52703e-05
1912.15	5.82348e-05
1923.2	6.13298e-05
1930.57	6.34686e-05
1941.62	6.67941e-05
1952.67	7.02663e-05
1960.03	7.26657e-05
1971.08	7.6397e-05
1982.13	8.02931e-05
1993.18	8.03607e-05
2000.55	7.92563e-05
2011.6	7.78885e-05
2022.64	7.68431e-05
2030.01	7.63134e-05
2041.06	7.57534e-05
2052.11	7.5457e-05
2063.16	7.54062e-05
2070.52	7.55008e-05
2081.57	7.58248e-05
2092.62	7.63561e-05
2103.67	7.7084e-05
2111.04	7.76739e-05
2122.09	7.871e-05
2133.13	7.99218e-05
2140.5	8.08248e-05
2151.55	8.23189e-05
2162.6	8.3978e-05
2173.65	8.58005e-05
2181.01	8.71058e-05
2192.06	8.91994e-05
2203.11	9.1457e-05
2210.48	9.3054e-05
2221.53	9.55896e-05
2232.57	9.82963e-05
2243.62	0.000101178
2250.99	0.0001032
2262.04	0.000106385
2273.09	0.000109761
2280.45	0.00011212
2291.5	0.000115827
2302.55	0.000119743
2313.6	0.000123875
2320.96	0.000126754
2332.01	0.000131265
2343.06	0.000136016
2350.43	0.000139321
2361.48	0.000144494
2372.52	0.000149934
2383.57	0.000155627
2390.94	0.00015955
2401.99	0.000165615
2413.02	0.000171877
2420.37	0.000176158
2431.42	0.000182756
2442.45	0.000189536
2453.45	0.000196492
2460.78	0.000201227
2471.76	0.000208496
2482.76	0.000215979
2490.1	0.000221089
2501.11	0.00022894
2512.11	0.000237023
2523.12	0.000245353
2530.46	0.000251051
2541.46	0.000259826
2552.47	0.000268892
2563.48	0.000278268
2570.82	0.000284701
2581.82	0.00029464
2592.83	0.000304948
2600.17	0.000312034
2611.18	0.000323004
2622.18	0.0003344
2633.19	0.000346244
2640.53	0.000354399
2651.54	0.000367036
2662.54	0.000380177
2673.55	0.000393844
2680.89	0.000403258
2691.89	0.00041785
2702.9	0.000433029
2710.24	0.000443487
2721.25	0.000459701
2732.23	0.000476543
2743.21	0.000510315
2750.53	0.000538326
2761.51	0.000580176
2772.48	0.000621694
2783.46	0.000662809
2790.78	0.000689991
2801.75	0.000730451
2812.73	0.000770604
2820.05	0.000797254
2831.03	0.000837148
2842	0.000877078
2852.98	0.000917206
2860.3	0.000944153
2871.27	0.000985002
2882.25	0.00102653
2893.23	0.00106891
2900.55	0.00109774
2911.52	0.00114197
2922.5	0.00118754
2933.48	0.00123464
2940.79	0.00126695
2951.77	0.00131659
2962.75	0.00136742
2970.07	0.00140188
2981.04	0.0014544
2992.02	0.0015079
3003	0.00156246
3010.31	0.00159949
3021.29	0.00165613
3032.27	0.00171428
3043.24	0.00177422
3050.56	0.0018153
3061.54	0.00187885
3072.51	0.00194497
3083.49	0.00201391
3090.81	0.00206158
3101.79	0.00213584
3112.76	0.00221366
3120.08	0.00230205
3131.06	0.00248042
3142.03	0.00264916
3153.01	0.00280895
3160.33	0.0029115
3171.3	0.00306139
3182.28	0.00320917
3193.26	0.00335784
3200.57	0.00345885
3211.55	0.00361518
3222.53	0.00377933
3233.5	0.00395071
3240.82	0.004068
3251.8	0.00424833
3262.77	0.00443486
3270.09	0.00456364
3281.07	0.00476554
3292.04	0.00498065
3303.02	0.00521175
3310.34	0.00553082
3321.31	0.00599518
3332.29	0.00643976
3343.26	0.0068816
3350.58	0.00718544
3361.56	0.0076697
3372.53	0.00818329
3383.51	0.00871532
3390.83	0.00908802
3401.8	0.00990762
3412.78	0.0110037
3420.1	0.0116565
3431.07	0.0127436
3442.05	0.0139891
3453.02	0.0163391
3460.34	0.0178714
3471.32	0.0226521
3482.29	0.0284303
3493.27	0.0341028
3500.59	0.0375815
3511.56	0.0424785
3522.54	0.0471058
3533.51	0.051843
3540.83	0.0549539
3551.81	0.0595501
3562.78	0.0642473
3570.1	0.0675324
3581.08	0.0725615
3592.05	0.0775177
3603.03	0.0823732
3610.35	0.0856411
3621.32	0.090671
3632.3	0.0958386
3643.27	0.101135
3650.59	0.104753
3661.57	0.110291
3672.54	0.115868
3683.52	0.121401
3690.84	0.12507
3701.81	0.130586
3712.79	0.136141
3720.11	0.139867
3731.08	0.145495
3742.06	0.151187
3753.04	0.156937
3760.35	0.160783
3771.33	0.166544
3782.31	0.172301
3793.28	0.178084
3800.6	0.181969
3811.58	0.187847
3822.55	0.193788
3833.53	0.19978
3840.85	0.203791
3851.82	0.209816
3862.8	0.215836
3870.12	0.21985
3881.1	0.225887
3892.07	0.231968
3903.05	0.238121
3910.37	0.242275
3921.35	0.248594
3932.34	0.255038
3943.35	0.261607
3950.69	0.266059
3961.69	0.272863
3972.7	0.279847
3980.04	0.284619
3991.04	0.291974
4002.05	0.299589
4013.06	0.307484
4020.4	0.312914
4031.4	0.321329
4042.41	0.330096
4053.42	0.339261
4060.76	0.345616
4071.76	0.355564
4082.78	0.366067
4090.13	0.37341
4101.15	0.384979
4112.17	0.397268
4123.27	0.41044
4130.67	0.419703
4141.77	0.434374
4152.87	0.450046
4160.31	0.461134
4171.51	0.478791
4182.72	0.497643
4190.19	0.510889
4201.4	0.531808
4212.62	0.554009
4220.1	0.56952
4231.32	0.593849
4242.54	0.619437
4250.02	0.637174
4261.24	0.664749
4272.46	0.693404
4283.68	0.723014
4291.16	0.743206
4302.38	0.774035
4313.6	0.805317
4321.08	0.826301
4332.3	0.857759
4343.52	0.888913
4351	0.909337
4362.22	0.939167
4373.44	0.967648
4380.92	0.985662
4392.14	1.01086
4403.36	1.03343
4410.84	1.04676
4422.06	1.06378
4433.28	1.07674
4440.76	1.08286
4451.97	1.08785
4463.19	1.08734
4470.67	1.08369
4481.89	1.07289
4493.11	1.0553
4500.59	1.0396
4511.81	1.00983
4523.03	0.972351
4530.51	0.942978
4541.73	0.892245
4552.95	0.833463
4560.43	0.789814
4571.65	0.717713
4582.87	0.637757
4590.35	0.580143
4601.57	0.48731
4612.79	0.386771
4620.27	0.315352
4631.49	0.201437
4642.71	0.0799586
4650.19	-0.00810862
4661.42	-0.0985527
4672.64	-0.125558
4680.12	-0.156859
4691.34	-0.201164
4702.56	-0.237809
4710.04	-0.256931
4721.27	-0.268123
4732.49	-0.293189
4743.73	-0.313752
4751.23	-0.325151
4762.48	-0.340234
4773.73	-0.352835
4781.23	-0.360465
4792.47	-0.371193
4803.72	-0.38091
4811.22	-0.38684
4822.47	-0.376941
4833.71	-0.381716
4841.21	-0.388491
4852.46	-0.396965
4863.71	-0.403843
4871.2	-0.407697
4882.45	-0.412636
4893.7	-0.416831
4901.2	-0.419329
4912.44	-0.422753
4923.68	-0.425217
4931.14	-0.426962
4942.32	-0.429229
4953.5	-0.431455
4960.95	-0.432891
4972.16	-0.434944
4983.37	-0.436839
4990.85	-0.438001
5002.06	-0.439585
5013.27	-0.429975
5020.75	-0.431093
5031.96	-0.432632
5043.17	-0.434989
5050.65	-0.436279
5061.84	-0.437942
5073.02	-0.439276
5080.47	-0.439974
5091.66	-0.44077
5102.81	-0.441303
5110.24	-0.441528
5121.34	-0.441671
5132.52	-0.441608
5143.69	-0.441361
5151.11	-0.441108
5162.29	-0.440608
5173.46	-0.439981
5180.91	-0.4395
5192.09	-0.438693
5203.26	-0.437795
5210.71	-0.437153
5221.88	-0.436139
5233.06	-0.435078
5240.48	-0.434346
5251.45	-0.433033
5262.41	-0.431597
5273.51	-0.430113
5280.9	-0.429108
5291.95	-0.427576
5303.01	-0.426007
5310.38	-0.424939
5321.44	-0.423304
5332.5	-0.421626
5343.55	-0.419907
5350.93	-0.418738
5361.98	-0.416952
5373.04	-0.415125
5380.41	-0.413869
5391.47	-0.411939
5402.53	-0.40773
5413.58	-0.400792
5420.95	-0.400043
5432.01	-0.398902
5443.07	-0.397741
5450.44	-0.396959
5461.5	-0.395778
5472.55	-0.39459
5483.59	-0.393399
5490.95	-0.392607
5501.99	-0.391423
5513.03	-0.390247
5520.4	-0.38947
5531.45	-0.388314
5542.5	-0.387173
5553.55	-0.386047
5560.91	-0.385304
5571.96	-0.384202
5583.01	-0.383113
5590.38	-0.382393
5601.43	-0.381321
5612.48	-0.380255
5623.53	-0.37919
5630.89	-0.378477
5641.94	-0.377399
5652.99	-0.376305
5660.36	-0.375565
5671.41	-0.374432
5682.46	-0.373269
5693.51	-0.37207
5700.87	-0.371249
5711.92	-0.36998
5722.97	-0.368664
5730.34	-0.367758
5741.39	-0.366354
5752.43	-0.364893
5763.48	-0.363492
5770.85	-0.362548
5781.9	-0.361052
5792.95	-0.359461
5800.32	-0.358351
5811.36	-0.356612
5822.41	-0.354784
5833.46	-0.353396
5840.83	-0.352559
5851.88	-0.351177
5862.93	-0.349661
5870.29	-0.348583
5881.34	-0.346876
5892.39	-0.345067
5903.44	-0.343163
5910.81	-0.341844
5921.86	-0.339792
5932.91	-0.337654
5940.27	-0.336182
5951.32	-0.333904
5962.37	-0.331544
5973.42	-0.329101
5980.79	-0.327428
5991.84	-0.324849
6002.89	-0.32219
6010.25	-0.320373
6021.3	-0.317581
6032.35	-0.314712
6043.4	-0.311767
6050.77	-0.309764
6061.82	-0.306714
6072.86	-0.30362
6080.23	-0.301538
6091.28	-0.298391
6102.33	-0.295219
6113.38	-0.292026
6120.74	-0.289885
6131.79	-0.286655
6142.84	-0.283396
6150.21	-0.281198
6161.26	-0.277867
6172.29	-0.274499
6183.32	-0.27109
6190.69	-0.268791
6201.74	-0.265307
6212.73	-0.261801
6220.05	-0.259443
6231.04	-0.255868
6242.05	-0.251541
6253.06	-0.245806
6260.39	-0.242037
6271.4	-0.2365
6282.41	-0.231109
6293.42	-0.225845
6300.75	-0.222392
6311.76	-0.217267
6322.77	-0.212174
6330.11	-0.208778
6341.11	-0.203657
6352.12	-0.198479
6363.13	-0.193257
6370.47	-0.189776
6381.47	-0.184569
6392.48	-0.179374
6403.49	-0.174164
6410.83	-0.170664
6421.83	-0.165345
6432.84	-0.159911
6440.18	-0.153147
6451.18	-0.143543
6462.19	-0.134549
6473.2	-0.125907
6480.54	-0.120203
6491.54	-0.111577
6502.55	-0.102809
6513.56	-0.094128
6520.9	-0.0884048
6531.9	-0.0797646
6542.91	-0.0652034
6550.25	-0.0570477
6561.25	-0.0452391
6572.24	-0.0323907
6583.22	-0.0190067
6590.54	-0.00351389
6601.51	0.0168773
6612.49	0.0543489
6623.47	0.0830158
6630.79	0.0968515
6641.76	0.112804
6652.74	0.122472
6660.06	0.12688
6671.03	0.130666
6682.01	0.132038
6692.99	0.132926
6700.31	0.13417
6711.28	0.136537
6722.26	0.138043
6733.24	0.138081
6740.55	0.137595
6751.53	0.136998
6762.51	0.136963
6773.48	0.137481
6780.8	0.13824
6791.78	0.140092
6802.76	0.142293
6810.07	0.143495
6821.05	0.144474
6832.03	0.144601
6843	0.144314
6850.32	0.144
6861.3	0.143336
6872.28	0.142528
6883.25	0.141809
6890.57	0.141419
6901.55	0.140789
6912.52	0.139826
6923.5	0.138483
6930.82	0.13751
6941.8	0.136207
6952.77	0.135319
6960.09	0.134998
6971.07	0.134835
6982.04	0.134772
6993.02	0.134388
7000.34	0.133775
7011.31	0.132214
7022.29	0.129963
7033.27	0.127256
7040.59	0.125338
7051.56	0.122485
7062.54	0.11982
7073.52	0.117391
7080.83	0.115861
7091.81	0.113599
7102.79	0.111308
7110.11	0.109781
7121.08	0.107587
7132.06	0.105665
7143.04	0.10416
7150.35	0.103424
7161.33	0.102702
7172.31	0.102334
7183.28	0.102161
7190.6	0.102081
7201.58	0.10195
7212.55	0.101784
7223.53	0.101615
7230.85	0.101532
7241.83	0.101499
7252.8	0.101614
7260.12	0.101782
7271.1	0.102167
7282.07	0.102702
7293.05	0.103387
7300.37	0.103928
7311.35	0.104864
7322.32	0.105928
7333.3	0.107065
7340.62	0.107827
7351.59	0.10891
7362.57	0.109855
7373.55	0.110611
7380.86	0.111002
7391.84	0.11143
7402.82	0.111695
7410.14	0.111802
7421.11	0.111881
7432.09	0.111886
7443.07	0.111838
7450.38	0.111789
7461.36	0.111715
7472.34	0.111686
7483.31	0.11176
7490.63	0.111894
7501.61	0.112247
7512.59	0.112789
7523.56	0.113492
7530.88	0.114025
7541.86	0.114875
7552.83	0.115737
7560.15	0.116302
7571.13	0.117125
7582.1	0.117935
7593.08	0.118765
7600.4	0.11935
7611.38	0.120306
7622.35	0.121383
7633.33	0.122601
7640.65	0.123498
7651.62	0.124971
7662.6	0.126594
7673.58	0.128349
7680.9	0.129577
7691.87	0.131466
7702.85	0.133354
7710.17	0.134574
7721.14	0.136286
7732.12	0.137789
7743.1	0.139024
7750.42	0.139679
7761.39	0.140397
7772.37	0.140801
7783.35	0.14091
7790.66	0.140835
7801.64	0.140529
7812.62	0.140027
7823.6	0.13937
7830.91	0.138868
7841.89	0.138047
7852.87	0.137176
7860.18	0.136582
7871.16	0.135684
7882.14	0.134787
7893.12	0.133888
7900.43	0.133283
7911.41	0.132356
7922.39	0.131393
7933.36	0.130382
7940.68	0.129679
7951.66	0.128582
7962.64	0.127439
7973.61	0.126264
7980.93	0.125469
7991.91	0.124269
8002.88	0.123071
8010.2	0.122277
8021.18	0.121094
8032.16	0.119916
8043.13	0.118733
8050.45	0.117933
8061.43	0.116701
8072.41	0.115409
8083.38	0.114031
8090.7	0.113052
8101.68	0.111476
8112.65	0.109752
8123.66	0.10786
8131	0.106501
8142.01	0.104315
8153.01	0.101948
8160.35	0.100273
8171.36	0.0976193
8182.37	0.0948108
8193.37	0.0918658
8200.71	0.0898375
8211.72	0.0867155
8222.73	0.0835196
8230.06	0.0813598
8241.07	0.0780925
8252.08	0.0748091
8263.08	0.0715262
8270.42	0.0693452
8281.43	0.0660947
8292.44	0.0628807
8303.44	0.0597162
8310.78	0.0576409
8321.79	0.0545902
8332.8	0.0516276
8340.13	0.0497089
8351.14	0.0469259
8362.16	0.0442686
8373.18	0.041749
8380.53	0.0401511
8391.55	0.0378828
8402.57	0.0357725
8413.59	0.0338208
8420.94	0.0326061
8431.99	0.0309046
8443.09	0.0293362
8450.49	0.0283621
8461.59	0.0269954
8472.69	0.0257241
8480.09	0.0249186
8491.19	0.0237559
8502.29	0.0226241
8513.39	0.0214939
8520.79	0.0207242
8531.89	0.0195131
8542.99	0.0181629
8550.39	0.016931
8561.49	0.0129037
8572.59	0.00597245
8583.69	0.00288142
8591.09	0.00104661
8602.19	-0.00537705
8613.29	-0.0118424
8620.69	-0.0154811
8631.79	-0.0168626
8642.89	-0.0212276
8650.29	-0.0244527
8661.39	-0.0285807
8672.49	-0.0325639
8683.58	-0.0365983
8690.98	-0.0390988
8702.08	-0.0425488
8713.18	-0.0457391
8720.58	-0.0477577
8731.68	-0.0494849
8742.78	-0.0529848
8750.18	-0.0552564
8761.28	-0.0582511
8772.42	-0.0608729
8783.62	-0.0632317
8791.09	-0.0646887
8802.29	-0.0667501
8813.5	-0.0686853
8820.98	-0.0698847
8832.17	-0.0716096
8843.35	-0.07325
8850.81	-0.0742927
8861.99	-0.0757579
8873.17	-0.0736903
8880.6	-0.0755188
8891.75	-0.0767303
8902.9	-0.0778212
8910.33	-0.078479
8921.48	-0.079335
8932.65	-0.0800652
8940.1	-0.0804923
8951.28	-0.0810634
8962.42	-0.0815693
8973.6	-0.0820299
8981.05	-0.0823175
8992.22	-0.08291
9003.4	-0.0835322
9010.85	-0.0839171
9022.02	-0.0844174
9033.2	-0.0848151
9040.65	-0.0850752
9051.82	-0.0854582
9062.99	-0.0858325
9070.44	-0.0860772
9081.6	-0.0864355
9092.62	-0.0867786
9103.58	-0.0871089
9110.89	-0.0873224
9122	-0.0876361
9133.1	-0.087936
9140.47	-0.0858007
9151.53	-0.0863839
9162.58	-0.0869431
9173.64	-0.0874768
9181.01	-0.0878079
9192.07	-0.0882599
9203.13	-0.088333
9210.5	-0.0885734
9221.56	-0.0889043
9232.61	-0.0892003
9243.67	-0.0894624
9251.04	-0.0896153
9262.1	-0.0898101
9273.16	-0.0899661
9280.53	-0.0900499
9291.58	-0.090147
9302.64	-0.0902122
9310.01	-0.0902387
9321.07	-0.090255
9332.13	-0.0902452
9343.18	-0.0902106
9350.56	-0.0901746
9361.61	-0.0901021
9372.67	-0.0900087
9380.04	-0.0899354
9391.1	-0.0898101
9402.16	-0.0896673
9413.21	-0.0895082
9420.58	-0.0893937
9431.64	-0.08921
9442.7	-0.0890129
9450.07	-0.0888746
9461.13	-0.0886551
9472.17	-0.0884143
9483.21	-0.0881531
9490.57	-0.0879692
9501.61	-0.0876801
9512.66	-0.0875668
9520.03	-0.0874765
9531.08	-0.0873205
9542.13	-0.0871417
9553.18	-0.0868768
9560.54	-0.0866921
9571.59	-0.0864039
9582.64	-0.0861033
9590.01	-0.0858964
9601.06	-0.0855772
9612.11	-0.0852479
9623.16	-0.084909
9630.52	-0.084678
9641.57	-0.0843242
9652.62	-0.083962
9663.67	-0.0835916
9671.04	-0.0833401
9682.09	-0.0829563
9693.14	-0.0825645
9700.5	-0.0822989
9711.55	-0.0818938
9722.6	-0.0814808
9733.65	-0.0810597
9741.02	-0.0807745
9752.07	-0.0803398
9763.12	-0.0798969
9770.48	-0.0795971
9781.53	-0.0791404
9792.58	-0.0786753
9803.63	-0.0782018
9811	-0.0778816
9822.05	-0.0773943
9833.1	-0.0768993
9840.46	-0.0765649
9851.51	-0.0760572
9862.56	-0.0755422
9873.61	-0.0764568
9880.98	-0.0761435
9892.03	-0.0756689
9903.07	-0.0751884
9910.44	-0.0748647
9921.49	-0.074374
9932.54	-0.0738769
9943.59	-0.0733736
9950.96	-0.0730346
9962	-0.0725207
9973.05	-0.072
9980.42	-0.0716477
9991.47	-0.0711114
10002.5	-0.0705657
10013.6	-0.070011
10020.9	-0.0696363
10032	-0.0690669
10043	-0.068489
10050.4	-0.0680448
10061.4	-0.0672952
10072.5	-0.0665447
10083.5	-0.0657934
10090.9	-0.0652921
10102	-0.0645394
10113	-0.063787
10120.4	-0.0632843
10131.4	-0.0625294
10142.4	-0.0617764
10153.4	-0.0610245
10160.7	-0.0605228
10171.7	-0.059769
10182.7	-0.0590135
10190.1	-0.0585095
10201.1	-0.0577546
10212.1	-0.0570041
10223.1	-0.0562573
10230.4	-0.0557611
10241.4	-0.055019
10252.4	-0.0542792
10263.4	-0.0535411
10270.8	-0.0530499
10281.8	-0.0523142
10292.8	-0.0515794
10300.1	-0.0510899
10311.1	-0.0503561
10322.2	-0.0496228
10333.2	-0.0488898
10340.5	-0.0484013
10351.5	-0.0476686
10362.5	-0.0469363
10373.5	-0.0462041
10380.9	-0.0457162
10391.9	-0.0449846
10402.9	-0.0442535
10410.2	-0.0437664
10421.2	-0.0430364
10432.2	-0.0423071
10443.2	-0.041579
10450.6	-0.0410943
10461.6	-0.0403688
10472.6	-0.0396454
10483.6	-0.0389242
10490.9	-0.0384448
10501.9	-0.0377281
10512.9	-0.0370143
10520.3	-0.0365402
10531.3	-0.0358318
10542.3	-0.0351268
10553.3	-0.0344254
10560.6	-0.0339598
10571.6	-0.0332647
10582.7	-0.0325734
10593.7	-0.0318861
10601	-0.0314306
10612	-0.0306525
10623	-0.0298899
10630.3	-0.0293913
10641.3	-0.0286555
10652.3	-0.0279339
10663.3	-0.0272259
10670.6	-0.0267613
10681.6	-0.0260752
10692.5	-0.0254015
10703.5	-0.0247399
10710.8	-0.0243053
10721.8	-0.0236628
10732.8	-0.0230312
10740.1	-0.022616
10751.1	-0.0220031
10762.1	-0.0214037
10773	-0.0208167
10780.4	-0.0204319
10791.3	-0.0197458
10802.3	-0.0191007
10813.3	-0.0184906
10820.6	-0.0181008
10831.6	-0.0175382
10842.6	-0.0169986
10853.5	-0.0164786
10860.8	-0.0161414
10871.8	-0.0156477
10882.8	-0.0151708
10890.1	-0.0148627
10901.1	-0.0144141
10912.1	-0.0139801
10923.1	-0.0135587
10930.4	-0.0132839
10941.3	-0.0128794
10952.3	-0.0124825
10963.3	-0.0120916
10970.6	-0.0118335
10981.6	-0.0114494
10992.6	-0.0110681
11003.5	-0.010689
11010.9	-0.0104373
11021.8	-0.0100607
11032.8	-0.00968465
11040.1	-0.00943387
11051.1	-0.00905702
11062.1	-0.00867874
11073.1	-0.00829841
11080.4	-0.00804346
11091.4	-0.00766012
11102.3	-0.00728446
11113.3	-0.00691506
11120.6	-0.00667098
11131.6	-0.0063064
11142.6	-0.00594182
11153.6	-0.00551205
11160.9	-0.00512754
11171.9	-0.00452996
11182.8	-0.00392063
11190.2	-0.00351284
11201.1	-0.00290332
11212.1	-0.00229938
11223.1	-0.00170245
11230.4	-0.00130846
11241.4	-0.000722935
11252.4	-0.000144451
11263.3	0.000426998
11270.7	0.000804694
11281.6	0.00136919
11292.6	0.00193875
11303.6	0.00251313
11310.9	0.00289847
11321.9	0.00347967
11332.9	0.00406351
11340.2	0.00445223
11351.1	0.00503246
11362.1	0.00560848
11373.1	0.00709052
11380.4	0.00803309
11391.4	0.00933249
11402.4	0.0104821
11413.4	0.0114893
11420.7	0.012104
11431.6	0.0129548
11442.6	0.0137306
11453.6	0.0147355
11460.9	0.0153293
11471.9	0.0161044
11482.9	0.0167647
11490.2	0.0171516
11501.2	0.0178651
11512.1	0.0191056
11523.1	0.0203565
11530.4	0.0221648
11541.4	0.0237414
11552.4	0.0250725
11563.4	0.0263779
11570.7	0.0272624
11581.7	0.0286694
11592.6	0.0301507
11603.6	0.0316182
11610.9	0.0326096
11621.9	0.0341424
11632.9	0.0357908
11640.2	0.0369764
11651.2	0.0388802
11662.2	0.0409433
11673.1	0.0431956
11680.5	0.044804
11691.4	0.0473403
11702.4	0.0499449
11713.4	0.0525349
11720.7	0.054235
11731.7	0.056757
11742.7	0.0592795
11753.6	0.0618272
11761	0.0635381
11771.9	0.0661058
11782.9	0.0686472
11790.2	0.0703108
11801.2	0.0727365
11812.2	0.0750534
11823.2	0.077243
11830.5	0.0786306
11841.5	0.0806046
11852.5	0.0824484
11863.5	0.0841592
11870.8	0.0852216
11881.9	0.0866905
11892.9	0.0880049
11900.2	0.0887949
11911.2	0.0898534
11922.2	0.0907634
11933.2	0.0915281
11940.6	0.0919595
11951.6	0.0924966
11962.6	0.0929172
11973.6	0.0932459
11980.9	0.0934278
11991.9	0.0936655
