0	0
10.0538	0
20.1077	0
30.1615	0
40.2154	0
50.2692	0
60.323	0
70.3769	0
80.4307	0
90.4846	0
100.538	0
110.592	0
120.646	0
130.7	0
140.754	0
150.808	0
160.861	0
170.001	0
180.055	0
190.109	0
200.163	0
210.217	0
220.27	0
230.324	0
240.378	0
250.432	0
260.486	0
270.54	0
280.594	0
290.647	0
300.701	0
310.755	0
320.809	0
330.863	0
340.003	0
350.056	0
360.11	0
370.164	0
380.218	0
390.272	0
400.326	0
410.379	0
420.433	0
430.487	0
440.541	0
450.595	0
460.649	0
470.702	0
480.756	0
490.81	0
500.864	0
510.004	0
520.058	0
530.112	0
540.165	0
550.219	0
560.273	0
570.327	0
580.381	0
590.435	0
600.488	0
610.542	0
620.596	0
630.65	0
640.704	0
650.758	0
660.811	0
670.865	0
680.005	0
690.059	0
700.113	0
710.167	0
720.22	0
730.274	0
740.328	0
750.382	0
760.436	0
770.49	0
780.544	0
790.597	0
800.651	0
810.705	0
820.759	0
830.813	0
840.867	0
850.006	0
860.06	0
870.114	0
880.168	0
890.222	0
900.276	0
910.329	0
920.383	0
930.437	0
940.491	0
950.545	0
960.599	0
970.652	0
980.706	0
990.76	0
1000.81	0
1010.87	0
1020.01	0
1030.06	0
1040.12	0
1050.17	0
1060.22	0
1070.28	0
1080.33	0
1090.38	0
1100.44	0
1110.49	0
1120.55	0
1130.6	0
1140.65	0
1150.71	0
1160.76	0
1170.82	0
1180.87	0
1190.01	0
1200.06	0
1210.12	0
1220.17	0
1230.22	0
1240.28	0
1250.33	0
1260.39	0
1270.44	0
1280.49	0
1290.55	0
1300.6	0
1310.66	0
1320.71	0
1330.76	0
1340.82	0
1350.87	0
1360.01	0
1370.06	0
1380.12	0
1390.17	0
1400.23	0
1410.28	0
1420.33	0
1430.39	0
1440.44	0
1450.49	0
1460.55	0
1470.6	0
1480.66	0
1490.71	0
1500.76	0
1510.82	0
1520.87	0
1530.01	0
1540.07	0
1550.12	0
1560.17	0
1570.23	0
1580.28	0
1590.33	0
1600.39	0
1610.44	0
1620.5	0
1630.55	0
1640.6	0
1650.66	0
1660.71	0
1670.77	0
1680.82	0
1690.87	0
1700.01	0
1710.07	0
1720.12	0
1730.17	0
1740.23	0
1750.28	0
1760.34	0
1770.39	0
1780.44	0
1790.5	0
1800.55	0
1810.61	0
1820.66	0
1830.71	0
1840.77	0
1850.82	0
1860.87	0
1870.01	0
1880.07	0
1890.12	0
1900.18	0
1910.23	0
1920.28	0
1930.34	0
1940.39	0
1950.44	0
1960.5	0
1970.55	0
1980.61	0
1990.66	0
2000.71	0
2010.77	0
2020.82	0
2030.88	0
2040.02	0
2050.07	0
2060.12	0
2070.18	0
2080.23	0
2090.28	0
2100.34	0
2110.39	0
2120.45	0
2130.5	0
2140.55	0
2150.61	0
2160.66	0
2170.72	0
2180.77	0
2190.82	0
2200.88	0
2210.02	0
2220.07	0
2230.12	0
2240.18	9.09495e-13
2250.23	9.09495e-13
2260.29	9.09495e-13
2270.34	9.09495e-13
2280.39	9.09495e-13
2290.45	9.09495e-13
2300.5	9.09495e-13
2310.56	9.09495e-13
2320.61	0
2330.66	0
2340.72	0
2350.77	0
2360.82	0
2370.88	0
2380.02	0
2390.07	0
2400.13	0
2410.18	0
2420.23	0
2430.29	0
2440.34	0
2450.39	0
2460.45	0
2470.5	0
2480.56	0
2490.61	0
2500.66	0
2510.72	0
2520.77	0
2530.83	0
2540.88	0
2550.02	0
2560.07	0
2570.13	0
2580.18	0
2590.23	0
2600.29	0
2610.34	0
2620.4	0
2630.45	0
2640.5	0
2650.56	0
2660.61	0
2670.67	0
2680.72	0
2690.77	0
2700.83	0
2710.88	0
2720.02	0
2730.07	0
2740.13	0
2750.18	0
2760.24	0
2770.29	0
2780.34	0
2790.4	0
2800.45	0
2810.5	0
2820.56	0
2830.61	0
2840.67	0
2850.72	0
2860.77	0
2870.83	0
2880.88	9.09495e-13
2890.02	0
2900.07	0
2910.13	0
2920.18	0
2930.24	0
2940.29	0
2950.34	0
2960.4	0
2970.45	0
2980.5	0
2990.56	0
3000.61	0
3010.67	0
3020.72	0
3030.77	0
3040.83	0
3050.88	0
3060.02	0
3070.07	0
3080.13	0
3090.18	0
3100.24	0
3110.29	0
3120.34	0
3130.4	1.81899e-12
3140.45	1.00044e-11
3150.5	2.91038e-11
3160.56	7.63976e-11
3170.61	1.93722e-10
3180.66	4.72937e-10
3190.72	1.11231e-09
3200.77	2.5284e-09
3210.83	5.55247e-09
3220.88	1.17971e-08
3230.02	2.2751e-08
3240.07	4.54465e-08
3250.13	8.79754e-08
3260.18	1.65142e-07
3270.23	3.00789e-07
3280.29	5.31936e-07
3290.34	9.13991e-07
3300.39	1.52692e-06
3310.45	2.48198e-06
3320.5	3.92844e-06
3330.55	6.05931e-06
3340.61	9.11515e-06
3350.66	1.33848e-05
3360.72	1.92021e-05
3370.77	2.69385e-05
3380.82	3.69902e-05
3390.88	4.97628e-05
3400.02	6.4069e-05
3410.07	8.31103e-05
3420.12	0.000105925
3430.18	0.000132769
3440.23	0.000163822
3450.28	0.000199174
3460.34	0.000238823
3470.39	0.00028268
3480.44	0.000330569
3490.5	0.000382246
3500.55	0.000437407
3510.6	0.000495707
3520.66	0.000556773
3530.71	0.000620218
3540.76	0.000685646
3550.82	0.00075266
3560.87	0.000820855
3570.01	0.000883529
3580.06	0.000952821
3590.12	0.00102205
3600.17	0.00109075
3610.22	0.00115845
3620.28	0.00122469
3630.33	0.00128904
3640.38	0.00135113
3650.44	0.00141068
3660.49	0.00146755
3670.54	0.0015217
3680.6	0.00157329
3690.65	0.00162259
3700.7	0.00167005
3710.76	0.0017162
3720.81	0.0017617
3730.86	0.00180725
3740	0.00184932
3750.05	0.00189702
3760.11	0.00194692
3770.16	0.0019997
3780.21	0.00205602
3790.27	0.00211646
3800.32	0.00218152
3810.37	0.00225165
3820.43	0.0023272
3830.48	0.00240842
3840.53	0.00249544
3850.59	0.00258826
3860.64	0.00268673
3870.69	0.00279054
3880.75	0.0028992
3890.8	0.00301206
3900.85	0.00312829
3910.91	0.00324699
3920.05	0.00335618
3930.1	0.00347679
3940.15	0.00359696
3950.21	0.00371584
3960.26	0.00383279
3970.31	0.00394739
3980.37	0.0040596
3990.42	0.00416977
4000.47	0.0042788
4010.53	0.00438818
4020.58	0.00450013
4030.63	0.0046177
4040.69	0.00474488
4050.74	0.00488667
4060.79	0.00504906
4070.85	0.0052391
4080.9	0.00546471
4090.04	0.005708
4100.09	0.00602624
4110.15	0.00640698
4120.2	0.0068603
4130.25	0.00739666
4140.31	0.00802704
4150.36	0.00876332
4160.41	0.00961899
4170.47	0.0106101
4180.52	0.0117565
4190.58	0.0130835
4200.63	0.0146235
4210.68	0.016418
4220.74	0.0185199
4230.79	0.0209951
4240.84	0.023925
4250.9	0.0274076
4260.04	0.0311505
4270.09	0.0360262
4280.15	0.0418434
4290.2	0.0487702
4300.25	0.0569895
4310.31	0.0666946
4320.36	0.0780845
4330.41	0.0913574
4340.47	0.106703
4350.52	0.124294
4360.58	0.144277
4370.63	0.166764
4380.68	0.191826
4390.74	0.219481
4400.79	0.249699
4410.84	0.282389
4420.9	0.317407
4430.04	0.351099
4440.09	0.389982
4450.15	0.430504
4460.2	0.47236
4470.25	0.515222
4480.31	0.55875
4490.36	0.602596
4500.41	0.646409
4510.47	0.689834
4520.52	0.732511
4530.58	0.774071
4540.63	0.814134
4550.68	0.852307
4560.74	0.888178
4570.79	0.921328
4580.84	0.951332
4590.9	0.977777
4600.04	0.998399
4610.09	1.01699
4620.15	1.03102
4630.2	1.04023
4640.25	1.0445
4650.31	1.04374
4660.36	1.03799
4670.41	1.02733
4680.47	1.01196
4690.52	0.992109
4700.58	0.968059
4710.63	0.940138
4720.68	0.908696
4730.74	0.874104
4740.79	0.836744
4750.84	0.797003
4760.9	0.755274
4770.04	0.715939
4780.09	0.671483
4790.15	0.626139
4800.2	0.580252
4810.25	0.534137
4820.31	0.488072
4830.36	0.442292
4840.41	0.396981
4850.47	0.352277
4860.52	0.308264
4870.58	0.264987
4880.63	0.222453
4890.68	0.18064
4900.74	0.139512
4910.79	0.0990265
4920.85	0.0591449
4930.9	0.0198397
4940.04	-0.0154007
4950.09	-0.0536152
4960.15	-0.0912235
4970.2	-0.128174
4980.25	-0.164398
4990.31	-0.199811
5000.36	-0.234319
5010.42	-0.267824
5020.47	-0.300222
5030.52	-0.331414
5040.58	-0.361303
5050.63	-0.389798
5060.68	-0.416814
5070.74	-0.442271
5080.79	-0.466096
5090.85	-0.488221
5100.9	-0.508583
5110.04	-0.525517
5120.09	-0.542361
5130.15	-0.557294
5140.2	-0.570281
5150.26	-0.581296
5160.31	-0.590323
5170.36	-0.597362
5180.42	-0.602424
5190.47	-0.605534
5200.52	-0.606733
5210.58	-0.606072
5220.63	-0.603617
5230.69	-0.599442
5240.74	-0.593632
5250.79	-0.586277
5260.85	-0.577476
5270.9	-0.567329
5280.04	-0.557025
5290.09	-0.544601
5300.15	-0.531141
5310.2	-0.51675
5320.26	-0.501537
5330.31	-0.485606
5340.36	-0.469062
5350.42	-0.452006
5360.47	-0.434536
5370.53	-0.416749
5380.58	-0.39874
5390.63	-0.380601
5400.69	-0.362422
5410.74	-0.344293
5420.79	-0.326303
5430.85	-0.308538
5440.9	-0.291085
5450.04	-0.27556
5460.1	-0.258935
5470.15	-0.242856
5480.2	-0.227396
5490.26	-0.212616
5500.31	-0.198569
5510.36	-0.185297
5520.42	-0.172828
5530.47	-0.161177
5540.53	-0.150346
5550.58	-0.140324
5560.63	-0.131087
5570.69	-0.122603
5580.74	-0.114829
5590.8	-0.107719
5600.85	-0.101221
5610.9	-0.095285
5620.04	-0.0903322
5630.1	-0.0853278
5640.15	-0.0807454
5650.2	-0.076546
5660.26	-0.0726967
5670.31	-0.0691707
5680.37	-0.0659471
5690.42	-0.0630107
5700.47	-0.0603511
5710.53	-0.0579618
5720.58	-0.0558394
5730.63	-0.0539824
5740.69	-0.0523902
5750.74	-0.0510627
5760.8	-0.0499991
5770.85	-0.0491979
5780.9	-0.0486565
5790.04	-0.0483866
5800.1	-0.04833
5810.15	-0.0485199
5820.2	-0.0489505
5830.26	-0.0496163
5840.31	-0.0505122
5850.37	-0.051634
5860.42	-0.0529787
5870.47	-0.0545446
5880.53	-0.0563311
5890.58	-0.0583387
5900.64	-0.0605684
5910.69	-0.0630214
5920.74	-0.0656979
5930.8	-0.068597
5940.85	-0.0717155
5950.9	-0.0750473
5960.04	-0.0782535
5970.1	-0.0819633
5980.15	-0.0858481
5990.21	-0.0898867
6000.26	-0.0940538
6010.31	-0.0983204
6020.37	-0.102654
6030.42	-0.10702
6040.48	-0.111382
6050.53	-0.1157
6060.58	-0.119937
6070.64	-0.124055
6080.69	-0.128015
6090.74	-0.131783
6100.8	-0.135324
6110.85	-0.138608
6120.91	-0.141604
6130.05	-0.144058
6140.1	-0.146439
6150.15	-0.148467
6160.21	-0.150125
6170.26	-0.151399
6180.31	-0.15228
6190.37	-0.15276
6200.42	-0.152834
6210.48	-0.152501
6220.53	-0.151763
6230.58	-0.150624
6240.64	-0.149094
6250.69	-0.147181
6260.75	-0.144899
6270.8	-0.142263
6280.85	-0.139292
6290.91	-0.136003
6300.05	-0.132756
6310.1	-0.128922
6320.15	-0.124833
6330.21	-0.120512
6340.26	-0.115983
6350.32	-0.111268
6360.37	-0.10639
6370.42	-0.10137
6380.48	-0.0962297
6390.53	-0.0909909
6400.59	-0.0856744
6410.64	-0.080301
6420.69	-0.0748919
6430.75	-0.0694681
6440.8	-0.0640511
6450.85	-0.0586626
6460.91	-0.0533247
6470.05	-0.0485345
6480.1	-0.0433543
6490.16	-0.0382886
6500.21	-0.0333583
6510.26	-0.0285834
6520.32	-0.0239824
6530.37	-0.0195719
6540.43	-0.0153662
6550.48	-0.011377
6560.53	-0.00761291
6570.59	-0.00407954
6580.64	-0.000779163
6590.69	0.00228924
6600.75	0.00512988
6610.8	0.00774996
6620.86	0.0101594
6630.91	0.0123704
6640.05	0.0142201
6650.1	0.0160929
6660.16	0.017812
6670.21	0.0193945
6680.27	0.0208572
6690.32	0.0222169
6700.37	0.0234893
6710.43	0.0246891
6720.48	0.0258298
6730.53	0.0269233
6740.59	0.0279796
6750.64	0.0290073
6760.7	0.0300129
6770.75	0.031001
6780.8	0.0319744
6790.86	0.0329339
6800.91	0.0338785
6810.05	0.0347215
6820.1	0.0356268
6830.16	0.0365022
6840.21	0.0373385
6850.27	0.0381245
6860.32	0.0388473
6870.37	0.0394919
6880.43	0.0400422
6890.48	0.0404805
6900.54	0.0407885
6910.59	0.0409478
6920.64	0.0409398
6930.7	0.0407474
6940.75	0.0403543
6950.8	0.039747
6960.86	0.0389143
6970.91	0.0378484
6980.05	0.0366735
6990.11	0.0351542
7000.16	0.0334006
7010.21	0.0314204
7020.27	0.029225
7030.32	0.0268296
7040.37	0.0242525
7050.43	0.0215147
7060.48	0.0186391
7070.54	0.0156501
7080.59	0.0125726
7090.64	0.00943167
7100.7	0.00625146
7110.75	0.00305502
7120.81	-0.000136394
7130.86	-0.00330369
7140.91	-0.00643028
7150.05	-0.00922553
7160.11	-0.012238
7170.16	-0.015177
7180.21	-0.0180365
7190.27	-0.0208128
7200.32	-0.0235046
7210.38	-0.0261122
7220.43	-0.0286373
7230.48	-0.0310825
7240.54	-0.0334508
7250.59	-0.0357451
7260.64	-0.0379679
7270.7	-0.0401207
7280.75	-0.0422039
7290.81	-0.0442166
7300.86	-0.0461561
7310.91	-0.0480183
7320.05	-0.0496396
7330.11	-0.0513379
7340.16	-0.0529393
7350.21	-0.0544353
7360.27	-0.0558167
7370.32	-0.0570743
7380.37	-0.0581992
7390.43	-0.0591829
7400.48	-0.0600179
7410.54	-0.0606977
7420.59	-0.0612169
7430.64	-0.0615716
7440.7	-0.061759
7450.75	-0.0617778
7460.8	-0.0616278
7470.86	-0.06131
7480.91	-0.0608263
7490.05	-0.0602448
7500.1	-0.0594524
7510.16	-0.0585037
7520.21	-0.0574029
7530.27	-0.0561547
7540.32	-0.054764
7550.37	-0.0532359
7560.43	-0.051576
7570.48	-0.0497899
7580.53	-0.0478836
7590.59	-0.0458635
7600.64	-0.0437362
7610.69	-0.0415084
7620.75	-0.039187
7630.8	-0.0367789
7640.85	-0.0342908
7650.91	-0.0317286
7660.05	-0.0293398
7670.1	-0.0266506
7680.16	-0.0239003
7690.21	-0.0210908
7700.26	-0.0182224
7710.32	-0.0152939
7720.37	-0.0123023
7730.42	-0.00924321
7740.48	-0.0061108
7750.53	-0.00289826
7760.58	0.000401936
7770.64	0.00379756
7780.69	0.00729617
7790.75	0.0109046
7800.8	0.0146286
7810.85	0.0184722
7820.91	0.0224374
7830.05	0.0261475
7840.1	0.0303421
7850.15	0.0346504
7860.21	0.0390645
7870.26	0.0435737
7880.31	0.0481648
7890.37	0.0528222
7900.42	0.0575283
7910.48	0.0622636
7920.53	0.0670069
7930.58	0.0717361
7940.64	0.0764281
7950.69	0.0810595
7960.74	0.0856066
7970.8	0.0900459
7980.85	0.0943548
7990.91	0.0985112
8000.04	0.10214
8010.1	0.10595
8020.15	0.109552
8030.21	0.112931
8040.26	0.116076
8050.31	0.118977
8060.37	0.121627
8070.42	0.124025
8080.47	0.126169
8090.53	0.128066
8100.58	0.129722
8110.64	0.131149
8120.69	0.13236
8130.74	0.133372
8140.8	0.134204
8150.85	0.134878
8160.9	0.135414
8170.04	0.1358
8180.1	0.136134
8190.15	0.136393
8200.21	0.136596
8210.26	0.136758
8220.31	0.136895
8230.37	0.137015
8240.42	0.137127
8250.47	0.137232
8260.53	0.13733
8270.58	0.137415
8280.64	0.13748
8290.69	0.137513
8300.74	0.137499
8310.8	0.137422
8320.85	0.137264
8330.9	0.137006
8340.04	0.136668
8350.1	0.136164
8360.15	0.135504
8370.21	0.134672
8380.26	0.13365
8390.31	0.132427
8400.37	0.130992
8410.42	0.129338
8420.47	0.127459
8430.53	0.125355
8440.58	0.123027
8450.64	0.120481
8460.69	0.117726
8470.74	0.114771
8480.8	0.111632
8490.85	0.108324
8500.9	0.104867
8510.04	0.101613
8520.1	0.0979293
8530.15	0.0941605
8540.21	0.0903301
8550.26	0.0864626
8560.31	0.0825819
8570.37	0.0787119
8580.42	0.0748752
8590.47	0.0710935
8600.53	0.0673868
8610.58	0.0637734
8620.64	0.0602696
8630.69	0.0568898
8640.74	0.0536463
8650.8	0.0505494
8660.85	0.0476074
8670.91	0.044827
8680.05	0.0424437
8690.1	0.0399843
8700.15	0.0376975
8710.21	0.0355847
8720.26	0.0336468
8730.31	0.0318837
8740.37	0.0302949
8750.42	0.028879
8760.48	0.0276342
8770.53	0.0265574
8780.58	0.0256449
8790.64	0.0248916
8800.69	0.0242912
8810.74	0.0238355
8820.8	0.0235147
8830.85	0.023317
8840.91	0.0232285
8850.05	0.0232297
8860.1	0.0233041
8870.15	0.0234362
8880.21	0.0236045
8890.26	0.0237865
8900.32	0.0239584
8910.37	0.0240956
8920.42	0.0241736
8930.48	0.024168
8940.53	0.0240552
8950.58	0.023813
8960.64	0.0234207
8970.69	0.0228601
8980.75	0.0221157
8990.8	0.0211749
9000.85	0.0200285
9010.91	0.0186709
9020.05	0.0172518
9030.1	0.015489
9040.15	0.01352
9050.21	0.0113536
9060.26	0.00900227
9070.32	0.00648129
9080.37	0.00380873
9090.42	0.00100491
9100.48	-0.00190814
9110.53	-0.00490717
9120.58	-0.0079683
9130.64	-0.0110675
9140.69	-0.0141814
9150.75	-0.0172871
9160.8	-0.0203636
9170.85	-0.0233914
9180.91	-0.0263529
9190.05	-0.0289751
9200.1	-0.0317705
9210.15	-0.0344627
9220.21	-0.0370439
9230.26	-0.0395091
9240.32	-0.0418553
9250.37	-0.0440822
9260.42	-0.0461915
9270.48	-0.0481866
9280.53	-0.050073
9290.58	-0.0518571
9300.64	-0.0535468
9310.69	-0.0551508
9320.75	-0.056678
9330.8	-0.058138
9340.85	-0.0595398
9350.91	-0.0608922
9360.05	-0.0620856
9370.1	-0.0633651
9380.16	-0.0646155
9390.21	-0.0658409
9400.26	-0.0670439
9410.32	-0.0682248
9420.37	-0.0693823
9430.42	-0.0705128
9440.48	-0.0716107
9450.53	-0.0726684
9460.59	-0.0736765
9470.64	-0.0746242
9480.69	-0.0754993
9490.75	-0.0762888
9500.8	-0.0769791
9510.85	-0.0775566
9520.91	-0.0780082
9530.05	-0.0782991
9540.1	-0.0784775
9550.16	-0.0784987
9560.21	-0.0783558
9570.26	-0.0780447
9580.32	-0.0775641
9590.37	-0.0769162
9600.43	-0.0761066
9610.48	-0.0751444
9620.53	-0.0740425
9630.59	-0.072817
9640.64	-0.0714873
9650.69	-0.0700759
9660.75	-0.0686075
9670.8	-0.067109
9680.86	-0.0656085
9690.91	-0.0641351
9700.05	-0.0628435
9710.1	-0.0615015
9720.16	-0.0602684
9730.21	-0.0591692
9740.26	-0.0582263
9750.32	-0.0574588
9760.37	-0.0568821
9770.43	-0.0565074
9780.48	-0.0563415
9790.53	-0.0563865
9800.59	-0.0566398
9810.64	-0.0570942
9820.7	-0.0577379
9830.75	-0.0585551
9840.8	-0.059526
9850.86	-0.0606277
9860.91	-0.0618343
9870.05	-0.0629984
9880.1	-0.0643254
9890.16	-0.0656709
9900.21	-0.0670036
9910.27	-0.068292
9920.32	-0.069505
9930.37	-0.0706128
9940.43	-0.0715871
9950.48	-0.0724015
9960.54	-0.0730319
9970.59	-0.0734568
9980.64	-0.0736579
9990.7	-0.0736198
10000.8	-0.0733305
10010.8	-0.0727815
10020.9	-0.0719678
10030.9	-0.0708883
10040.1	-0.069678
10050.1	-0.0681002
10060.2	-0.066273
10070.2	-0.0642087
10080.3	-0.0619229
10090.3	-0.0594339
10100.4	-0.0567627
10110.4	-0.0539328
10120.5	-0.0509694
10130.5	-0.0478994
10140.6	-0.0447507
10150.6	-0.041552
10160.7	-0.0383323
10170.8	-0.0351204
10180.8	-0.0319444
10190.9	-0.0288314
10200.9	-0.025807
10210.1	-0.0231545
10220.1	-0.0203636
10230.2	-0.0177242
10240.2	-0.0152532
10250.3	-0.0129645
10260.3	-0.0108689
10270.4	-0.0089744
10280.4	-0.0072858
10290.5	-0.00580498
10300.5	-0.00453094
10310.6	-0.00346005
10320.6	-0.00258623
10330.7	-0.00190129
10340.8	-0.00139522
10350.8	-0.00105661
10360.9	-0.000873016
10370.9	-0.000831361
10380.1	-0.000905502
10390.1	-0.00109816
10400.2	-0.0013951
10410.2	-0.00178475
10420.3	-0.00225681
10430.3	-0.00280257
10440.4	-0.00341511
10450.4	-0.00408949
10460.5	-0.00482287
10470.5	-0.00561453
10480.6	-0.00646583
10490.6	-0.00738014
10500.7	-0.00836264
10510.8	-0.00942011
10520.8	-0.0105606
10530.9	-0.0117931
10540.9	-0.0131273
10550.1	-0.0144366
10560.1	-0.0159917
10570.2	-0.017676
10580.2	-0.0194972
10590.3	-0.0214622
10600.3	-0.0235756
10610.4	-0.0258406
10620.4	-0.0282577
10630.5	-0.0308254
10640.5	-0.0335396
10650.6	-0.036394
10660.6	-0.0393796
10670.7	-0.0424856
10680.8	-0.045699
10690.8	-0.049005
10700.9	-0.0523876
10710	-0.0555147
10720.1	-0.058995
10730.1	-0.0625002
10740.2	-0.066012
10750.2	-0.0695126
10760.3	-0.0729847
10770.3	-0.0764123
10780.4	-0.0797804
10790.4	-0.0830759
10800.5	-0.0862871
10810.5	-0.0894042
10820.6	-0.0924195
10830.6	-0.095327
10840.7	-0.0981227
10850.8	-0.100805
10860.8	-0.103372
10870.9	-0.105827
10880	-0.107962
10890.1	-0.110209
10900.1	-0.112352
10910.2	-0.114397
10920.2	-0.116349
10930.3	-0.118213
10940.3	-0.119994
10950.4	-0.121695
10960.4	-0.123321
10970.5	-0.124872
10980.5	-0.12635
10990.6	-0.127754
11000.6	-0.129081
11010.7	-0.130327
11020.8	-0.131488
11030.8	-0.132555
11040.9	-0.13352
11050	-0.134302
11060.1	-0.135046
11070.1	-0.135657
11080.2	-0.136125
11090.2	-0.136436
11100.3	-0.13658
11110.3	-0.136545
11120.4	-0.136321
11130.4	-0.135897
11140.5	-0.135267
11150.5	-0.134422
11160.6	-0.133357
11170.6	-0.132069
11180.7	-0.130556
11190.8	-0.128817
11200.8	-0.126855
11210.9	-0.124671
11220	-0.122498
11230.1	-0.119907
11240.1	-0.117113
11250.2	-0.114124
11260.2	-0.110949
11270.3	-0.107599
11280.3	-0.104086
11290.4	-0.10042
11300.4	-0.0966151
11310.5	-0.092683
11320.5	-0.088637
11330.6	-0.0844902
11340.6	-0.080256
11350.7	-0.0759478
11360.8	-0.0715791
11370.8	-0.0671633
11380.9	-0.0627134
11390	-0.0586496
11400.1	-0.0541709
11410.1	-0.0496955
11420.2	-0.0452356
11430.2	-0.0408029
11440.3	-0.0364088
11450.3	-0.032064
11460.4	-0.0277789
11470.4	-0.0235631
11480.5	-0.0194256
11490.5	-0.0153746
11500.6	-0.0114177
11510.6	-0.00756174
11520.7	-0.00381275
11530.8	-0.000175958
11540.8	0.00334418
11550.9	0.00674403
11560	0.00972803
11570.1	0.0128911
11580.1	0.015928
11590.2	0.0188382
11600.2	0.0216222
11610.3	0.0242811
11620.3	0.026817
11630.4	0.0292327
11640.4	0.0315319
11650.5	0.0337188
11660.5	0.0357987
11670.6	0.0377773
11680.6	0.0396612
11690.7	0.0414572
11700.8	0.0431729
11710.8	0.0448162
11720.9	0.0463953
11730	0.0477821
11740.1	0.0492618
11750.1	0.0507015
11760.2	0.0521095
11770.2	0.0534934
11780.3	0.0548608
11790.3	0.0562183
11800.4	0.0575723
11810.4	0.0589281
11820.5	0.0602906
11830.5	0.0616636
11840.6	0.0630504
11850.6	0.0644531
11860.7	0.0658734
11870.8	0.067312
11880.8	0.068769
11890.9	0.0702438
11900	0.0715991
11910.1	0.0731043
11920.1	0.0746225
11930.2	0.0761513
11940.2	0.0776878
11950.3	0.0792288
11960.3	0.0807709
11970.4	0.0823104
11980.4	0.0838432
11990.5	0.0853653
12000.5	0.0868721
12010.6	0.0883589
12020.6	0.0898207
12030.7	0.0912523
12040.8	0.092648
12050.8	0.094002
12060.9	0.095308
12070	0.0964481
12080.1	0.0976442
12090.1	0.0987729
12100.2	0.099827
12110.2	0.1008
12120.3	0.101684
12130.3	0.102473
12140.4	0.10316
12150.4	0.10374
12160.5	0.104207
12170.5	0.104558
12180.6	0.10479
12190.6	0.104899
12200.7	0.104888
12210.8	0.104756
12220.8	0.104506
12230.9	0.104143
12240.9	0.103674
12250.1	0.103161
12260.1	0.102513
12270.2	0.101787
12280.2	0.100996
12290.3	0.100154
12300.3	0.0992777
12310.4	0.0983827
12320.4	0.0974861
12330.5	0.0966054
12340.5	0.0957577
12350.6	0.0949602
12360.6	0.0942292
12370.7	0.0935803
12380.8	0.0930278
12390.8	0.0925846
12400.9	0.0922621
12410.9	0.0920697
12420.1	0.0920142
12430.1	0.0920897
12440.2	0.0923119
12450.2	0.0926824
12460.3	0.093201
12470.3	0.0938653
12480.4	0.0946711
12490.4	0.0956127
12500.5	0.0966825
12510.5	0.0978715
12520.6	0.0991695
12530.6	0.100565
12540.7	0.102046
12550.8	0.103598
12560.8	0.105209
12570.9	0.106863
12580	0.108391
12590.1	0.110086
12600.1	0.111781
12610.2	0.11346
12620.2	0.115107
12630.3	0.116708
12640.3	0.118248
12650.4	0.119712
12660.4	0.121086
12670.5	0.122358
12680.5	0.123514
12690.6	0.124543
12700.6	0.125435
12710.7	0.126178
12720.8	0.126765
12730.8	0.127187
12740.9	0.127439
12750	0.127514
12760.1	0.127424
12770.1	0.127151
12780.2	0.126691
12790.2	0.126044
12800.3	0.12521
12810.3	0.124189
12820.4	0.122983
12830.4	0.121595
12840.5	0.120029
12850.5	0.118287
12860.6	0.116376
12870.6	0.1143
12880.7	0.112065
12890.8	0.109677
12900.8	0.107142
12910.9	0.104467
12920	0.101919
12930.1	0.0989967
12940.1	0.0959547
12950.2	0.0928011
12960.2	0.0895437
12970.3	0.0861905
12980.3	0.0827497
12990.4	0.0792298
13000.4	0.0756393
13010.5	0.0719873
13020.5	0.0682828
13030.6	0.0645351
13040.6	0.0607537
13050.7	0.0569481
13060.8	0.0531279
13070.8	0.0493027
13080.9	0.0454821
13090	0.0420207
13100.1	0.0382344
13110.1	0.0344788
13120.2	0.0307622
13130.2	0.0270923
13140.3	0.0234758
13150.3	0.0199192
13160.4	0.0164278
13170.4	0.0130062
13180.5	0.00965805
13190.5	0.00638613
13200.6	0.00319234
13210.6	7.77337e-05
13220.7	-0.00295746
13230.8	-0.00591375
13240.8	-0.00879228
13250.9	-0.0115948
13260	-0.0140783
13270.1	-0.0167419
13280.1	-0.0193366
13290.2	-0.0218652
13300.2	-0.0243305
13310.3	-0.0267353
13320.3	-0.0290821
13330.4	-0.0313732
13340.4	-0.0336104
13350.5	-0.0357951
13360.5	-0.0379285
13370.6	-0.0400108
13380.6	-0.042042
13390.7	-0.0440213
13400.8	-0.0459476
13410.8	-0.0478191
13420.9	-0.0496332
13430	-0.0512303
13440.1	-0.0529267
13450.1	-0.054556
13460.2	-0.0561142
13470.2	-0.0575966
13480.3	-0.0589985
13490.3	-0.060315
13500.4	-0.0615409
13510.4	-0.0626711
13520.5	-0.0637006
13530.5	-0.0646243
13540.6	-0.0654376
13550.7	-0.0661361
13560.7	-0.0667157
13570.8	-0.067173
13580.8	-0.0675051
13590.9	-0.0677096
13600	-0.0677835
13610.1	-0.0677409
13620.1	-0.0675684
13630.2	-0.0672669
13640.2	-0.0668382
13650.3	-0.0662852
13660.3	-0.0656115
13670.4	-0.0648219
13680.4	-0.0639223
13690.5	-0.0629194
13700.5	-0.0618209
13710.6	-0.0606356
13720.7	-0.0593731
13730.7	-0.0580439
13740.8	-0.0566592
13750.8	-0.0552312
13760.9	-0.0537723
13770	-0.0524304
13780.1	-0.0509497
13790.1	-0.0494776
13800.2	-0.048028
13810.2	-0.0466151
13820.3	-0.0452528
13830.3	-0.0439546
13840.4	-0.0427338
13850.4	-0.0416029
13860.5	-0.0405736
13870.5	-0.0396567
13880.6	-0.0388619
13890.7	-0.0381976
13900.7	-0.0376707
13910.8	-0.0372867
13920.8	-0.0370495
13930.9	-0.0369609
13940	-0.0370097
13950.1	-0.0372043
13960.1	-0.0375432
13970.2	-0.0380214
13980.2	-0.0386319
13990.3	-0.0393662
14000.3	-0.0402142
14010.4	-0.0411641
14020.4	-0.042203
14030.5	-0.0433171
14040.5	-0.0444913
14050.6	-0.0457104
14060.7	-0.0469583
14070.7	-0.0482191
14080.8	-0.0494769
14090.8	-0.0507162
14100.9	-0.0519219
14110	-0.0529771
14120.1	-0.0540805
14130.1	-0.0551121
14140.2	-0.0560612
14150.2	-0.0569183
14160.3	-0.0576754
14170.3	-0.058326
14180.4	-0.0588652
14190.4	-0.0592895
14200.5	-0.0595968
14210.5	-0.0597867
14220.6	-0.0598597
14230.7	-0.0598177
14240.7	-0.0596636
14250.8	-0.0594015
14260.8	-0.0590361
14270.9	-0.0585728
14280	-0.058072
14290.1	-0.0574396
14300.1	-0.0567286
14310.2	-0.0559463
14320.2	-0.0551004
14330.3	-0.0541987
14340.3	-0.0532488
14350.4	-0.0522587
14360.4	-0.0512363
14370.5	-0.0501891
14380.5	-0.0491248
14390.6	-0.0480508
14400.7	-0.0469741
14410.7	-0.0459017
14420.8	-0.0448399
14430.8	-0.043795
14440.9	-0.0427726
14450	-0.0418672
14460.1	-0.0409021
14470.1	-0.0399735
14480.2	-0.0390852
14490.2	-0.0382404
14500.3	-0.0374418
14510.3	-0.0366914
14520.4	-0.0359908
14530.4	-0.0353409
14540.5	-0.034742
14550.6	-0.0341939
14560.6	-0.0336959
14570.7	-0.0332469
14580.7	-0.032845
14590.8	-0.0324883
14600.8	-0.0321743
14610.9	-0.0319004
14620	-0.0316835
14630.1	-0.0314774
14640.1	-0.0313023
14650.2	-0.0311547
14660.2	-0.0310315
14670.3	-0.0309293
14680.3	-0.0308453
14690.4	-0.0307766
14700.4	-0.0307205
14710.5	-0.0306749
14720.6	-0.030638
14730.6	-0.0306083
14740.7	-0.0305847
14750.7	-0.0305666
14760.8	-0.0305541
14770.8	-0.0305473
14780.9	-0.0305471
14790	-0.0305536
14800.1	-0.0305696
14810.1	-0.0305967
14820.2	-0.0306372
14830.2	-0.0306936
14840.3	-0.0307686
14850.3	-0.030865
14860.4	-0.0309858
14870.4	-0.031134
14880.5	-0.0313123
14890.6	-0.0315236
14900.6	-0.0317703
14910.7	-0.0320545
14920.7	-0.0323781
14930.8	-0.0327422
14940.8	-0.0331476
14950.9	-0.0335941
14960	-0.0340351
14970.1	-0.0345572
14980.1	-0.0351157
14990.2	-0.035707
15000.2	-0.0363266
15010.3	-0.0369688
15020.3	-0.0376269
15030.4	-0.0382929
15040.4	-0.0389579
15050.5	-0.0396118
15060.6	-0.0402434
15070.6	-0.0408408
15080.7	-0.041391
15090.7	-0.0418807
15100.8	-0.0422956
15110.8	-0.0426213
15120.9	-0.0428433
15130	-0.0429427
15140.1	-0.0429264
15150.1	-0.0427648
15160.2	-0.0424448
15170.2	-0.0419541
15180.3	-0.0412816
15190.3	-0.0404174
15200.4	-0.0393534
15210.4	-0.038083
15220.5	-0.0366014
15230.6	-0.034906
15240.6	-0.032996
15250.7	-0.030873
15260.7	-0.0285406
15270.8	-0.0260047
15280.8	-0.0232731
15290.9	-0.020356
15300	-0.0175532
15310.1	-0.0143169
15320.1	-0.0109352
15330.2	-0.00742504
15340.2	-0.00380497
15350.3	-9.45846e-05
15360.3	0.00368556
15370.4	0.00751419
15380.4	0.0113695
15390.5	0.0152296
15400.6	0.0190724
15410.6	0.0228761
15420.7	0.0266196
15430.7	0.0302822
15440.8	0.0338442
15450.8	0.037287
15460.9	0.0405931
15470	0.0434666
15480.1	0.0464686
15490.1	0.0492915
15500.2	0.051924
15510.2	0.0543562
15520.3	0.0565802
15530.3	0.0585897
15540.4	0.0603803
15550.4	0.0619492
15560.5	0.0632953
15570.6	0.0644191
15580.6	0.0653225
15590.7	0.0660092
15600.7	0.0664839
15610.8	0.0667526
15620.8	0.0668226
15630.9	0.0667021
15640	0.0664349
15650.1	0.0659766
15660.1	0.0653564
15670.2	0.0645851
15680.2	0.0636742
15690.3	0.0626354
15700.3	0.0614806
15710.4	0.0602217
15720.5	0.0588706
15730.5	0.0574391
15740.6	0.0559387
15750.6	0.0543806
15760.7	0.0527759
15770.7	0.0511349
15780.8	0.0494677
15790.8	0.0477839
15800.9	0.0460926
15810	0.0445556
15820.1	0.0428732
15830.1	0.0412068
15840.2	0.0395635
15850.2	0.0379501
15860.3	0.0363727
15870.3	0.0348372
15880.4	0.0333491
15890.5	0.0319134
15900.5	0.0305349
15910.6	0.0292179
15920.6	0.0279664
15930.7	0.026784
15940.7	0.0256739
15950.8	0.0246391
15960.8	0.0236817
15970.9	0.0228037
15980	0.0220754
15990.1	0.0213521
16000.1	0.0207104
16010.2	0.0201498
16020.2	0.0196693
16030.3	0.0192671
16040.3	0.0189408
16050.4	0.0186873
16060.5	0.0185028
16070.5	0.018383
16080.6	0.0183232
16090.6	0.018318
16100.7	0.0183617
16110.7	0.0184481
16120.8	0.0185711
16130.8	0.0187242
16140.9	0.0189008
16150	0.0190763
16160.1	0.0192799
16170.1	0.0194884
16180.2	0.0196956
16190.2	0.0198959
16200.3	0.0200837
16210.3	0.0202537
16220.4	0.0204012
16230.5	0.0205217
16240.5	0.0206111
16250.6	0.0206655
16260.6	0.0206814
16270.7	0.0206556
16280.7	0.0205852
16290.8	0.0204673
16300.8	0.0202995
16310.9	0.0200793
16320	0.0198319
16330.1	0.0195058
16340.1	0.0191214
16350.2	0.0186769
16360.2	0.018171
16370.3	0.0176021
16380.3	0.0169694
16390.4	0.0162721
16400.5	0.0155097
16410.5	0.0146824
16420.6	0.0137906
16430.6	0.0128351
16440.7	0.0118174
16450.7	0.0107394
16460.8	0.00960359
16470.8	0.00841295
16480.9	0.00717103
16490	0.00600087
16500.1	0.0046726
16510.1	0.00330597
16520.2	0.0019062
16530.2	0.000478765
16540.3	-0.000970639
16550.3	-0.00243621
16560.4	-0.00391213
16570.5	-0.00539263
16580.5	-0.00687209
16590.6	-0.00834513
16600.6	-0.0098067
16610.7	-0.0112521
16620.7	-0.0126772
16630.8	-0.0140784
16640.8	-0.0154525
16650.9	-0.0167971
16660	-0.0179926
16670.1	-0.0192771
16680.1	-0.0205292
16690.2	-0.0217497
16700.2	-0.0229399
16710.6	-0.0241352
16720.6	-0.0252713
16730.7	-0.026386
16740.7	-0.027484
16750.8	-0.0285703
16760.9	-0.029651
16770.9	-0.0307325
16780.1	-0.0317222
16790.1	-0.0328248
16800.2	-0.0339494
16810.2	-0.0351038
16820.3	-0.0362958
16830.3	-0.0375332
16840.4	-0.0388236
16850.2	-0.0401375
16860.2	-0.0415529
16870.3	-0.043041
16880.3	-0.0446071
16890.4	-0.0462557
16900.4	-0.0479903
16910.5	-0.0498134
16920.5	-0.0517264
16930.6	-0.0537296
16940.6	-0.055822
16950.7	-0.0580016
16960.8	-0.0602653
16970.8	-0.0626087
16980.9	-0.0650266
16990	-0.067284
17000.1	-0.0698259
17010.6	-0.0725605
17020.7	-0.0752034
17030.7	-0.0778815
17040.8	-0.0805849
17050.1	-0.0830958
17060.8	-0.0859914
17070.8	-0.0886933
17080	-0.0911651
17090.2	-0.0938682
