%%MatrixMarket matrix array complex general
20 20
1 0
0 0
0 0
0 0
0 0
0 0
0 0
0 0
0 0
0 0
0 0
0 0
0 0
0 0
0 0
0 0
0 0
0 0
0 0
0 0
0 0
1 0
0 0
0 0
0 0
0 0
0 0
0 0
0 0
0 0
0 0
0 0
0 0
0 0
0 0
0 0
0 0
0 0
0 0
0 0
0 0
0 0
1 0
0 0
0 0
0 0
0 0
0 0
0 0
0 0
0 0
0 0
0 0
0 0
0 0
0 0
0 0
0 0
0 0
0 0
0 0
0 0
0 0
1 0
0 0
0 0
0 0
0 0
0 0
0 0
0 0
0 0
0 0
0 0
0 0
0 0
0 0
0 0
0 0
0 0
0.707106781 0
0 0
0 0
0 0
-0.75 0
0 0
0 0
0 0
0 0
0 0
0.433012702 0
0 0
0 0
0 0
0 0
0 0
0 0
0 0
0 0
0 0
0 0
0.707106782 0
0 0
0 0
0 0
-0.75 0
0 0
0 0
0 0
0 0
0 0
0.433012702 0
0 0
0 0
0 0
0 0
0 0
0 0
0 0
0 0
0 0
0 0
0.707106781 0
0 0
0 0
0 0
-0.75 0
0 0
0 0
0 0
0 0
0 0
0.433012702 0
0 0
0 0
0 0
0 0
0 0
0 0
0 0
-0.144337567 0
0 0
0 0
0 0
-0.408248291 0
0 0
0 0
0.583333333 0
0 0
0 0
0.707106782 0
0 0
0 0
-0.433012702 0
0 0
0 0
0.186338998 0
0 0
0 0
0 0
0 0
-0.144337567 0
0 0
0 0
0 0
-0.408248291 0
0 0
0 0
0.583333333 0
0 0
0 0
0.707106781 0
0 0
0 0
-0.433012702 0
0 0
0 0
0.186338998 0
0 0
0 0
-0.125 0
0 0
0 0
0 0
0.265165043 0
0 0
0 0
0.216506351 0
0 0
-0.46875 0
0.255155182 0
0 0
0 0
-0.625 0
0 0
0.414970506 0
0.484122918 0
0 0
-0.209631373 0
0.0826797284 0
-0.408248291 0
0 0
0 0
0 0
-0.721687837 0
0 0
0 0
0 0
0 0
0 0
-0.25 0
0 0
0 0
0 0
0 0
0 0
0 0
0 0
0 0
0 0
0 0
-0.408248291 0
0 0
0 0
0 0
-0.721687837 0
0 0
0 0
0 0
0 0
0 0
-0.25 0
0 0
0 0
0 0
0 0
0 0
0 0
0 0
0 0
0 0
0 0
-0.40824829 0
0 0
0 0
0 0
-0.721687836 0
0 0
0 0
0 0
0 0
0 0
-0.25 0
0 0
0 0
0 0
0 0
0 0
0 0
0 0
-0.125 0
0 0
0 0
0 0
-0.35355339 0
0 0
0 0
0.79385662 0
0 0
0 0
-0.612372436 0
0 0
0 0
-0.125 0
0 0
0 0
-0.161374306 0
0 0
0 0
0 0
0 0
-0.125 0
0 0
0 0
0 0
-0.353553391 0
0 0
0 0
0.79385662 0
0 0
0 0
-0.612372436 0
0 0
0 0
-0.125 0
0 0
0 0
-0.161374306 0
0 0
0 0
0.245373864 0
0 0
0 0
0 0
0.0510310363 0
0 0
0 0
0.375 0
0 0
-0.725296276 0
-0.406586399 0
0 0
0 0
-0.0433012702 0
0 0
0.31875 0
-0.503115295 0
0 0
0.0242061459 0
-0.0859232943 0
0.161374306 0
0 0
0 0
0 0
0.456435465 0
0 0
0 0
0.465847496 0
0 0
0 0
0.158113883 0
0 0
0 0
0.290473751 0
0 0
0 0
0.0416666667 0
0 0
0 0
0 0
0 0
0.161374306 0
0 0
0 0
0 0
0.456435465 0
0 0
0 0
0.465847495 0
0 0
0 0
0.158113883 0
0 0
0 0
0.290473751 0
0 0
0 0
0.0416666667 0
0 0
0 0
-0.0559016994 0
0 0
0 0
0 0
0.118585412 0
0 0
0 0
0.0968245837 0
0 0
-0.656844968 0
0.296683052 0
0 0
0 0
0.614918694 0
0 0
-0.13716816 0
0.216506351 0
0 0
0.15625 0
0.0369754987 0
-0.0661437828 0
0 0
0 0
0 0
-0.233853587 0
0 0
0 0
-0.409158544 0
0 0
-0.304733856 0
-0.0810092588 0
0 0
0 0
-0.255126019 0
0 0
-0.249586712 0
-0.0365962527 0
0 0
-0.0686687832 0
-0.00625 0
