%%MatrixMarket matrix array complex general
20 20
0 0
0 0
0 0
0 0
4.24264069 0
0 0
0 0
-2.30940108 0
0 0
5 0
2.44948974 0
0 0
0 0
2 0
0 0
1.73205081 0
2.5819889 0
0 0
2.23606798 0
2.64575131 0
0 0
0 0
0 0
0 0
0 0
4.24264069 0
0 0
0 0
-2.30940108 0
0 0
0 0
2.44948974 0
0 0
0 0
2 0
0 0
0 0
2.5819889 0
0 0
0 0
0 0
0 0
0 0
0 0
0 0
0 0
4.24264069 0
0 0
0 0
0 0
0 0
0 0
2.44948974 0
0 0
0 0
0 0
0 0
0 0
0 0
0 0
0 0
0 0
0 0
0 0
0 0
0 0
0 0
0 0
0 0
0 0
0 0
0 0
0 0
0 0
0 0
0 0
0 0
0 0
0 0
0 0
0 0
0 0
0 0
0 0
0 0
0 0
0 0
8.16496581 0
0 0
-2.82842712 0
0 0
0 0
0 0
3.5355339 0
0 0
3.91918359 0
-0.912870929 0
0 0
2.52982213 0
-1.49666296 0
0 0
0 0
0 0
0 0
0 0
0 0
0 0
0 0
8.16496581 0
0 0
0 0
0 0
0 0
0 0
3.5355339 0
0 0
0 0
-0.91287093 0
0 0
0 0
0 0
0 0
0 0
0 0
0 0
0 0
0 0
0 0
0 0
0 0
0 0
0 0
0 0
0 0
0 0
0 0
0 0
0 0
0 0
0 0
0 0
0 0
0 0
0 0
0 0
0 0
0 0
0 0
0 0
12.1243557 0
0 0
0 0
0 0
0 0
0 0
4.2 0
0 0
0 0
-1.80739223 0
0.305505046 0
0 0
0 0
0 0
0 0
0 0
0 0
0 0
0 0
0 0
0 0
0 0
0 0
0 0
0 0
0 0
0 0
0 0
0 0
0 0
0 0
0 0
0 0
0 0
0 0
0 0
0 0
0 0
0 0
0 0
0 0
0 0
0 0
0 0
0 0
0 0
0 0
0 0
0 0
0 0
0 0
0 0
0 0
0 0
0 0
0 0
0 0
0 0
0 0
0 0
0 0
0 0
0 0
0 0
6.12372436 0
0 0
-5.09116882 0
4.74341649 0
0 0
2.19089023 0
5.18459256 0
0 0
0 0
0 0
0 0
0 0
0 0
0 0
0 0
0 0
0 0
0 0
0 0
0 0
0 0
6.12372436 0
0 0
0 0
4.74341649 0
0 0
0 0
0 0
0 0
0 0
0 0
0 0
0 0
0 0
0 0
0 0
0 0
0 0
0 0
0 0
0 0
0 0
0 0
0 0
0 0
0 0
0 0
0 0
0 0
0 0
0 0
0 0
0 0
0 0
0 0
0 0
0 0
0 0
0 0
0 0
0 0
0 0
9.69948452 0
0 0
0 0
6.26099034 0
-1.05830052 0
0 0
0 0
0 0
0 0
0 0
0 0
0 0
0 0
0 0
0 0
0 0
0 0
0 0
0 0
0 0
0 0
0 0
0 0
0 0
0 0
0 0
0 0
0 0
0 0
0 0
0 0
0 0
0 0
0 0
0 0
0 0
0 0
0 0
0 0
0 0
0 0
0 0
0 0
0 0
0 0
0 0
0 0
0 0
0 0
0 0
0 0
0 0
0 0
0 0
0 0
0 0
0 0
0 0
0 0
0 0
0 0
0 0
0 0
8.08290377 0
6.83130051 0
0 0
0 0
0 0
0 0
0 0
0 0
0 0
0 0
0 0
0 0
0 0
0 0
0 0
0 0
0 0
0 0
0 0
0 0
0 0
0 0
0 0
0 0
0 0
0 0
0 0
0 0
0 0
0 0
0 0
0 0
0 0
0 0
0 0
0 0
0 0
0 0
0 0
0 0
0 0
0 0
0 0
0 0
0 0
0 0
0 0
0 0
0 0
0 0
0 0
0 0
0 0
0 0
0 0
0 0
0 0
0 0
0 0
0 0
0 0
0 0
