%%MatrixMarket matrix array complex general
13 20
1.41421356 0
1.41421356 0
1.41421356 0
1.41421356 0
1.41421356 0
1.41421356 0
1.41421356 0
1.41421356 0
1.41421356 0
1.41421356 0
1.41421356 0
1.41421356 0
1.41421356 0
2.44948974 0
2.44948974 0
2.44948974 0
2.44948974 0
2.44948974 0
2.44948974 0
2.44948974 0
2.44948974 0
2.44948974 0
2.44948974 0
2.44948974 0
2.44948974 0
2.44948974 0
3.16227766 0
3.16227766 0
3.16227766 0
3.16227766 0
3.16227766 0
3.16227766 0
3.16227766 0
3.16227766 0
3.16227766 0
3.16227766 0
3.16227766 0
3.16227766 0
3.16227766 0
3.74165739 0
3.74165739 0
3.74165739 0
3.74165739 0
3.74165739 0
3.74165739 0
3.74165739 0
3.74165739 0
3.74165739 0
3.74165739 0
3.74165739 0
3.74165739 0
3.74165739 0
0 0
-0.437924203 0
-0.437924203 0
0.875848407 0
-1.60921938 0
-1.60921938 0
3.21843876 0
-0.122807024 0
1.83066513 0
-1.70785811 0
-1.70785811 0
-0.122807024 0
1.83066513 0
0 0
-0.75850697 0
-0.75850697 0
1.51701394 0
-2.78724973 0
-2.78724973 0
5.57449946 0
-0.212708005 0
3.17080502 0
-2.95809701 0
-2.95809701 0
-0.212708005 0
3.17080502 0
0 0
-0.979228288 0
-0.979228288 0
1.95845657 0
-3.59832393 0
-3.59832393 0
7.19664786 0
-0.274604854 0
4.09349168 0
-3.81888682 0
-3.81888682 0
-0.274604854 0
4.09349168 0
-1.36082764 0
-0.991963758 0
-0.991963758 0
-1.31562658 0
1.27711124 0
1.27711124 0
3.93523936 0
-1.28371825 0
-0.0770209937 0
1.55342952 0
1.55342952 0
-1.28371825 0
-0.0770209937 0
-2.3570226 0
-1.71813163 0
-1.71813163 0
-2.27873208 0
2.21202155 0
2.21202155 0
6.81603451 0
-2.22346524 0
-0.133404274 0
2.69061885 0
2.69061885 0
-2.22346524 0
-0.133404274 0
0.838052481 0
1.33701853 0
1.33701853 0
-0.832983574 0
-0.5777504 0
-0.5777504 0
2.92148079 0
1.01832706 0
-1.85980728 0
-1.05299157 0
-1.05299157 0
1.01832706 0
-1.85980728 0
0 0
0.75850697 0
-0.75850697 0
0 0
2.78724973 0
-2.78724973 0
0 0
-2.04296734 0
0.91512967 0
1.12783767 0
-1.12783768 0
2.04296734 0
-0.91512967 0
0 0
1.31377261 0
-1.31377261 0
0 0
4.82765814 0
-4.82765815 0
0 0
-3.53852324 0
1.58505108 0
1.95347215 0
-1.95347216 0
3.53852324 0
-1.58505108 0
0 0
1.69607315 0
-1.69607315 0
0 0
6.23247987 0
-6.23247987 0
0 0
-4.56821386 0
2.04629215 0
2.52192171 0
-2.52192171 0
4.56821386 0
-2.04629215 0
0 0
0.28030023 0
-0.28030023 0
0 0
-2.30200648 0
2.30200648 0
0 0
-1.41201156 0
2.45704204 0
-1.04503048 0
1.04503048 0
1.41201156 0
-2.45704204 0
0 0
0.485494239 0
-0.485494239 0
0 0
-3.98719218 0
3.98719219 0
0 0
-2.44567577 0
4.25572166 0
-1.81004589 0
1.81004589 0
2.44567577 0
-4.25572166 0
0 0
-0.751710775 0
0.751710775 0
0 0
1.21216924 0
-1.21216924 0
0 0
2.01898122 0
2.45701788 0
0.74247708 0
-0.74247708 0
-2.01898122 0
-2.45701788 0
-1.21716124 0
-1.10435898 0
-1.10435898 0
-0.742492943 0
2.92540958 0
2.92540957 0
-0.0464680165 0
1.5645012 0
0.215372652 0
-1.60752644 0
-1.60752644 0
1.5645012 0
0.215372654 0
-2.10818511 0
-1.91280587 0
-1.91280587 0
-1.2860355 0
5.06695802 0
5.06695801 0
-0.0804849655 0
2.70979557 0
0.373036375 0
-2.78431746 0
-2.78431746 0
2.70979557 0
0.373036379 0
-1.87394232 0
-1.04875545 0
-1.04875545 0
-2.01920989 0
-1.83791836 0
-1.83791836 0
-0.273014584 0
2.14987678 0
0.862735977 0
1.22355493 0
1.22355493 0
2.14987678 0
0.862735986 0
0 0
-1.14825718 0
1.14825718 0
-5.98665182e-09 0
1.85161917 0
-1.8516191 0
0 0
-0.711838124 0
-0.0427260605 0
-2.66173041 0
2.66173038 0
0.711838083 0
0.0427260668 0
