0	0
20.7434	0
41.4862	0
62.2289	0
82.9713	0
103.714	0
124.456	0
145.198	0
165.941	-9.09495e-13
186.187	-2.72848e-12
206.434	-5.45697e-12
226.68	-1.00044e-11
246.927	-1.81899e-11
267.173	-3.00133e-11
287.419	-4.63842e-11
307.665	-6.63931e-11
327.91	-8.91305e-11
348.155	-1.10049e-10
368.401	-1.20053e-10
387.699	-1.05501e-10
406.998	-4.91127e-11
427.242	7.9126e-11
447.487	3.17414e-10
467.732	7.13044e-10
487.976	1.32968e-09
507.275	2.20189e-09
526.5	3.4288e-09
545.725	5.11682e-09
564.95	7.39237e-09
584.175	1.04101e-08
603.4	1.43591e-08
622.625	1.94696e-08
641.872	2.60288e-08
661.118	3.42498e-08
680.364	4.4326e-08
699.611	5.64542e-08
718.857	7.08551e-08
737.994	8.76944e-08
757.131	1.07208e-07
776.268	1.29511e-07
795.405	1.54703e-07
814.542	1.82885e-07
833.679	2.14181e-07
852.925	2.48955e-07
872.17	2.87269e-07
891.416	3.29423e-07
910.662	3.75802e-07
929.907	4.26907e-07
949.075	4.8314e-07
968.321	5.45716e-07
987.566	6.15402e-07
1006.81	6.9339e-07
1026.06	7.81122e-07
1045.3	8.80324e-07
1064.55	9.93018e-07
1083.79	1.12153e-06
1103.04	1.26849e-06
1122.28	1.43689e-06
1141.53	1.63005e-06
1160.77	1.85173e-06
1180.01	2.1061e-06
1199.26	2.39779e-06
1218.5	2.73197e-06
1237.75	3.11434e-06
1256.99	3.55127e-06
1276.24	4.04979e-06
1295.42	4.61589e-06
1314.6	5.25955e-06
1333.78	5.99531e-06
1352.97	6.83884e-06
1372.15	7.79979e-06
1391.33	8.88428e-06
1410.51	1.00976e-05
1429.69	1.14454e-05
1448.87	1.29336e-05
1468.06	1.45696e-05
1487.24	1.63622e-05
1506.42	1.83221e-05
1525.6	2.04622e-05
1544.78	2.27981e-05
1563.96	2.53481e-05
1583.15	2.81338e-05
1602.33	3.118e-05
1621.51	3.45155e-05
1640.69	3.81725e-05
1659.87	4.21875e-05
1679.05	4.66004e-05
1698.23	5.14474e-05
1717.41	5.67567e-05
1736.59	6.25524e-05
1755.39	6.87306e-05
1774.18	7.54213e-05
1792.97	8.26499e-05
1811.77	9.04446e-05
1830.56	9.88383e-05
1849.35	0.000107869
1868.15	0.00011758
1886.94	0.000128023
1905.73	0.000139255
1924.53	0.000151345
1943.32	0.000164367
1962.11	0.000178404
1980.91	0.000193545
1999.7	0.000189358
2018.49	0.000187047
2037.28	0.000186351
2056.08	0.000187082
2074.87	0.000189088
2093.66	0.000192258
2112.45	0.000196511
2131.25	0.000201796
2150.04	0.000208086
2168.83	0.000215379
2187.62	0.000223689
2206.42	0.000233052
2225.21	0.000243518
2244	0.000255152
2262.79	0.000268035
2281.59	0.00028226
2300.38	0.000297934
2319.17	0.000315171
2337.96	0.000334091
2356.74	0.000354832
2375.53	0.000377619
2394.32	0.000402114
2413.1	0.000428135
2431.89	0.0004556
2450.68	0.000484507
2469.47	0.000514897
2488.27	0.000546863
2507.06	0.000580543
2525.85	0.00061611
2544.64	0.000653775
2563.43	0.00069379
2582.22	0.000736454
2601.02	0.000782113
2619.81	0.000831129
2638.6	0.000883859
2657.39	0.000940645
2676.18	0.00100183
2694.98	0.00106776
2713.77	0.00122243
2732.56	0.00137857
2751.35	0.00153642
2770.14	0.00169238
2788.94	0.00184622
2807.73	0.0019992
2826.52	0.00215344
2845.31	0.00231154
2864.11	0.00247634
2882.9	0.00265077
2901.69	0.00283793
2920.48	0.00304108
2939.28	0.00325909
2958.07	0.00348801
2976.86	0.00372758
2995.65	0.00397917
3014.45	0.00424565
3033.24	0.00453144
3052.03	0.00484259
3070.83	0.00518663
3089.62	0.0060292
3108.41	0.00683839
3127.21	0.00756924
3146	0.0082574
3164.79	0.00896921
3183.59	0.00976795
3202.38	0.0107026
3221.17	0.0118094
3239.97	0.0129732
3258.81	0.0155704
3277.66	0.0180454
3296.5	0.0207257
3315.35	0.02373
3334.19	0.0270384
3353.04	0.0306183
3371.88	0.0344397
3390.72	0.0387563
3409.57	0.043544
3428.41	0.048574
3447.26	0.0537056
3466.1	0.0589158
3484.95	0.0642028
3503.79	0.0696378
3522.64	0.0753355
3541.48	0.0813611
3560.33	0.0877421
3579.17	0.0944804
3598.02	0.101573
3616.86	0.109019
3635.71	0.116829
3654.55	0.125025
3673.4	0.133621
3692.24	0.142619
3711.09	0.152005
3729.93	0.161753
3748.78	0.171834
3767.62	0.182223
3786.47	0.1929
3805.31	0.203854
3824.16	0.215082
3843	0.226578
3861.85	0.238336
3880.69	0.250341
3899.54	0.262568
3918.38	0.274987
3937.23	0.287555
3956.08	0.300223
3974.92	0.312931
3993.77	0.325609
4012.61	0.338177
4031.46	0.350544
4050.3	0.362609
4069.15	0.374264
4088	0.385396
4106.84	0.395884
4125.69	0.40561
4144.53	0.414449
4163.38	0.422282
4182.23	0.428987
4201.07	0.434449
4220.12	0.438597
4239.16	0.441251
4258.21	0.442307
4277.25	0.441668
4296.3	0.439248
4315.35	0.434968
4334.39	0.428763
4353.44	0.420576
4372.48	0.410366
4391.53	0.398106
4410.57	0.383785
4429.62	0.367409
4448.67	0.348995
4467.71	0.328571
4486.76	0.306203
4505.8	0.282001
4524.85	0.255926
4543.9	0.228147
4562.94	0.198833
4581.99	0.168427
4601.03	0.137289
4620.08	0.105599
4639.13	0.0683893
4658.17	0.033352
4677.22	0.00574262
4696.26	-0.0224244
4715.31	-0.057204
4734.36	-0.0825468
4753.4	-0.103697
4772.45	-0.121569
4791.5	-0.133466
4810.54	-0.143431
4829.59	-0.153997
4848.64	-0.164796
4867.68	-0.175577
4886.73	-0.167602
4906.86	-0.175552
4926.99	-0.184686
4947.12	-0.191184
4967.15	-0.199121
4987.17	-0.205402
5007.2	-0.210543
5027.22	-0.214745
5046.5	-0.218189
5065.73	-0.221203
5084.95	-0.223943
5104.09	-0.2264
5123.23	-0.228984
5142.36	-0.231252
5161.5	-0.233176
5180.64	-0.234803
5199.77	-0.236167
5219	-0.237289
5238.22	-0.238172
5257.45	-0.238824
5276.7	-0.239264
5295.94	-0.233693
5315.19	-0.232612
5334.44	-0.233379
5353.6	-0.233487
5372.85	-0.233402
5392.1	-0.233093
5411.34	-0.232585
5430.59	-0.231904
5449.84	-0.231117
5469.08	-0.230242
5488.33	-0.229295
5507.58	-0.228289
5526.82	-0.227231
5546.07	-0.22613
5565.32	-0.224988
5584.56	-0.223805
5603.81	-0.222579
5623.05	-0.221307
5642.3	-0.219985
5661.55	-0.21861
5680.79	-0.217237
5700.04	-0.215826
5719.29	-0.214361
5738.53	-0.212832
5757.78	-0.211171
5777.03	-0.20942
5796.27	-0.207582
5815.52	-0.205659
5834.77	-0.203653
5854.01	-0.201566
5873.26	-0.199392
5892.44	-0.197167
5911.62	-0.1949
5930.8	-0.192602
5949.99	-0.190281
5969.17	-0.187939
5988.35	-0.185578
6007.53	-0.183196
6026.71	-0.180792
6045.9	-0.178363
6065.08	-0.182798
6084.26	-0.18135
6103.44	-0.17983
6122.63	-0.177871
6141.81	-0.175886
6160.99	-0.17387
6179.78	-0.171859
6198.58	-0.16981
6217.37	-0.167719
6236.16	-0.165587
6254.96	-0.16184
6273.75	-0.15803
6292.54	-0.154245
6311.34	-0.150518
6330.13	-0.146857
6348.92	-0.143255
6367.72	-0.139695
6386.51	-0.136156
6405.3	-0.132618
6424.1	-0.129061
6442.89	-0.125467
6461.68	-0.12182
6480.48	-0.118106
6499.27	-0.114313
6518.06	-0.110506
6536.86	-0.10671
6555.65	-0.102929
6574.44	-0.0991534
6593.24	-0.0953645
6612.03	-0.0915355
6630.82	-0.0876357
6649.62	-0.0836372
6668.41	-0.0752349
6687.2	-0.0677789
6706	-0.0613328
6724.79	-0.0555307
6743.58	-0.0499943
6762.38	-0.0444073
6781.17	-0.0385689
6799.96	-0.0323921
6818.76	-0.0258731
6837.55	-0.0192461
6856.34	-0.0127126
6875.13	-0.00617976
6893.93	0.00525165
6912.72	0.0153828
6931.51	0.0256905
6950.31	0.0360373
6969.1	0.0458192
6987.89	0.0545898
7006.69	0.0631266
7025.48	0.0711177
7044.27	0.0778922
7063.07	0.0831111
7081.86	0.0868796
7100.65	0.0895386
7119.45	0.0912713
7138.24	0.0924037
7157.03	0.093233
7175.83	0.0939219
7194.62	0.0945045
7213.41	0.0949649
7232.21	0.0952903
7251	0.0954827
7269.79	0.0955473
7288.59	0.0955025
7307.38	0.0953785
7326.17	0.0951899
7344.97	0.094906
7363.76	0.0944548
7382.55	0.0937527
7401.35	0.0927312
7420.14	0.0913545
7438.93	0.0896322
7457.73	0.0876138
7476.52	0.0853753
7495.31	0.0830017
7514.11	0.0805719
7532.9	0.0781504
7551.69	0.0757848
7570.47	0.0735043
7589.26	0.0713247
7608.05	0.0692498
7626.83	0.0672747
7645.62	0.0653865
7664.41	0.0635652
7683.19	0.0617841
7701.98	0.0600105
7720.77	0.0582075
7739.57	0.0563379
7758.36	0.0543658
7777.15	0.0522594
7795.95	0.0499939
7814.74	0.0475529
7833.53	0.04493
7852.33	0.0421331
7871.12	0.0391767
7889.91	0.0360558
7908.71	0.0327893
7927.5	0.0293797
7946.29	0.0258786
7965.09	0.0223294
7983.88	0.0179598
8002.67	0.0141351
8021.47	0.0108233
8040.26	0.00855798
8059.05	0.00565007
8077.84	0.00171025
8096.64	-0.000958206
8115.43	-0.00322638
8134.22	-0.00516735
8153.02	-0.00683683
8171.81	-0.00781714
8190.6	-0.00906793
8209.4	-0.0104722
8228.19	-0.0119549
8246.98	-0.0116219
8265.78	-0.0134534
8284.57	-0.0146268
8303.36	-0.0157275
8322.16	-0.0165822
8340.95	-0.0173293
8359.74	-0.0180569
8378.54	-0.0187546
8397.33	-0.019436
8416.12	-0.0201381
8434.92	-0.02096
8453.71	-0.0219109
8472.5	-0.0232487
8491.3	-0.0244798
8510.09	-0.0256454
8528.88	-0.0267699
8547.68	-0.0278637
8566.47	-0.0289039
8585.26	-0.0292798
8604.05	-0.0300576
8622.85	-0.0308828
8641.64	-0.0315933
8660.43	-0.0322456
8679.23	-0.0328428
8698.02	-0.0333618
8716.81	-0.0338151
8735.61	-0.0342129
8754.4	-0.034564
8773.19	-0.0348756
8791.99	-0.035153
8810.78	-0.0354
8829.57	-0.0356164
8848.37	-0.0358045
8867.16	-0.0359661
8885.95	-0.0361032
8904.75	-0.0362174
8923.54	-0.0363043
8942.33	-0.0363763
8961.13	-0.0364338
8979.92	-0.0364761
8998.71	-0.0365039
9017.51	-0.0365179
9036.3	-0.0366427
9055.09	-0.0367329
9073.89	-0.0367923
9092.68	-0.0368237
9111.47	-0.0368293
9130.27	-0.0368106
9149.06	-0.0367687
9167.85	-0.0367045
9186.65	-0.0366182
9205.44	-0.0365103
9224.23	-0.0363806
9243.03	-0.0362225
9261.82	-0.036037
9280.61	-0.0346195
9299.41	-0.0344735
9318.2	-0.0343152
9336.99	-0.0341431
9355.79	-0.0339558
9374.58	-0.0337521
9393.37	-0.0335311
9412.17	-0.0332919
9430.96	-0.0330337
9449.75	-0.0327559
9468.55	-0.032458
9487.34	-0.0321396
9506.13	-0.0318006
9524.93	-0.0314408
9543.72	-0.0310569
9562.57	-0.0306489
9581.41	-0.0302189
9600.26	-0.029768
9619.1	-0.0292971
9637.95	-0.0288072
9656.8	-0.0283113
9675.64	-0.027808
9694.49	-0.0272968
9713.33	-0.0267773
9732.18	-0.0262494
9751.02	-0.0257128
9769.87	-0.0251674
9788.72	-0.0246247
9807.56	-0.024082
9826.41	-0.0235368
9845.25	-0.0229871
9864.1	-0.0224313
9882.95	-0.021868
9901.79	-0.0212959
9920.64	-0.0207139
9939.48	-0.0201209
9958.33	-0.0195162
9977.17	-0.0189032
9996.02	-0.0182807
10014.9	-0.0176476
10033.7	-0.0170033
10052.6	-0.0163476
10071.4	-0.0156805
10090.3	-0.0150017
10109.1	-0.0143111
10127.9	-0.0132692
10146.8	-0.0122634
10165.6	-0.0112876
10184.5	-0.0103366
10203.3	-0.00940614
10222.2	-0.0084928
10241	-0.00759385
10259.9	-0.00670713
10278.7	-0.00583113
10297.6	-0.00496501
10316.4	-0.00410761
10335.2	-0.00325762
10354.1	-0.00241378
10372.9	-0.00157493
10391.8	-0.000740241
10410.6	9.16923e-05
10429.5	0.000891844
10448.3	0.00167189
10467.2	0.00243723
10486	0.00315097
10504.9	0.00383208
10523.7	0.00449477
10542.6	0.00515012
10561.4	0.00580679
10580.2	0.00646999
10599.3	0.00715043
10618.3	0.00784185
10637.8	0.00855972
10657.3	0.00951688
10676.7	0.0105857
10696.2	0.0116793
10715.6	0.0127742
10735.1	0.0138835
10754.5	0.0150213
10774	0.0161745
10793.5	0.0173326
10812.9	0.0199465
10832.4	0.0227818
10852.4	0.0252495
10872.4	0.0270126
10892.5	0.0282605
10912.5	0.0291357
10932.5	0.0298063
10952.5	0.0303796
10972.6	0.0308267
10992.6	0.031234
11012.6	0.0315763
11032.6	0.0319088
11051.9	0.0322352
11072	0.0325904
11092	0.0329517
11112	0.0333016
11132	0.0336212
11152.1	0.0339001
11172.1	0.0341312
11192.1	0.0343151
11212.1	0.0344554
11232.2	0.0345526
11252.2	0.0346062
11272.2	0.0346152
11292.2	0.0345788
11312.3	0.0344955
11332.3	0.0343631
11352.3	0.0341777
11372.3	0.0339335
11392.4	0.0336238
11412.4	0.0332425
11432.4	0.0327866
11452.4	0.0322572
11472.5	0.0316594
11492.5	0.0310021
11512.5	0.0302957
11532.5	0.0295513
11552.6	0.0287789
11572.6	0.0279875
11592.6	0.0271838
11612.6	0.0263727
11632.7	0.0255577
11652.7	0.0247412
11672.7	0.0239251
11692.8	0.0231106
11712.8	0.0222982
11732.8	0.0214877
11752.8	0.0206774
11772.9	0.0198646
11792.9	0.0190457
11812.9	0.0182157
11832.9	0.0173694
11853	0.0165014
11873	0.015607
11893	0.0146809
11913	0.0136835
11933.1	0.0126329
11953.1	0.0113024
11973.1	0.0101087
11993.1	0.00886015
