STARTING WORLD SCHEDULER SERVER
CLIENT SETUP: adding client 51458
 + TIMESTAMP: 0.297951
START TIMESTAMP: 0.298001
+++++++++++++++++++++++++++++++++++++++++++++++++++++++++++
+ Client Mapping:
  > Client 51458 (0):	

+ Core Mapping:	0 0 0 0 0 0 0 0 0 0 0 0 0 0 0 0 0 0 0 0 0 0 0 0 0 0 0 0 0 0 0 0 0 0 0 0 0 0 0 0 
+ Optimal point: 
+++++++++++++++++++++++++++++++++++++++++++++++++++++++++++
INVADE: client 51458
 + TIMESTAMP: 0.298164
RESSOURCE DISTRIBUTION CHANGED
++++++++++++++++++++++++++++++++++++++++++++++++
INVADE (51458)
  + pid: 51458
  + min_cores: 1
  + max_cores: 512
  + scalability graph: 
1, 1.36329, 1.52423, 1.62017, 1.68565, 1.73398, 1.77154, 1.80182, 1.8269, 1.84812, 1.86637, 1.88229, 1.89634, 1.90885, 1.92009, 1.93026, 1.93952, 1.94799, 1.95579, 1.963, 1.96968, 1.9759, 1.98172, 1.98716, 1.99228, 1.9971, 2.00164, 2.00594, 2.01002, 2.01389, 2.01757, 2.02108, 2.02443, 2.02763, 2.03069, 2.03362, 2.03644, 2.03914, 2.04173, 2.04423, 
Number of clients: 1

+++++++++++++++++++++++++++++++++++++++++++++++++++++++++++
+ Client Mapping:
  > Client 51458 (40):	0 1 2 3 4 5 6 7 8 9 10 11 12 13 14 15 16 17 18 19 20 21 22 23 24 25 26 27 28 29 30 31 32 33 34 35 36 37 38 39 

+ Core Mapping:	51458 51458 51458 51458 51458 51458 51458 51458 51458 51458 51458 51458 51458 51458 51458 51458 51458 51458 51458 51458 51458 51458 51458 51458 51458 51458 51458 51458 51458 51458 51458 51458 51458 51458 51458 51458 51458 51458 51458 51458 
+ Optimal point: 40 
+++++++++++++++++++++++++++++++++++++++++++++++++++++++++++
CLIENT SETUP: adding client 51456
 + TIMESTAMP: 0.30439
+++++++++++++++++++++++++++++++++++++++++++++++++++++++++++
+ Client Mapping:
  > Client 51458 (40):	0 1 2 3 4 5 6 7 8 9 10 11 12 13 14 15 16 17 18 19 20 21 22 23 24 25 26 27 28 29 30 31 32 33 34 35 36 37 38 39 
  > Client 51456 (0):	

+ Core Mapping:	51458 51458 51458 51458 51458 51458 51458 51458 51458 51458 51458 51458 51458 51458 51458 51458 51458 51458 51458 51458 51458 51458 51458 51458 51458 51458 51458 51458 51458 51458 51458 51458 51458 51458 51458 51458 51458 51458 51458 51458 
+ Optimal point: 40 
+++++++++++++++++++++++++++++++++++++++++++++++++++++++++++
CLIENT SETUP: adding client 51453
 + TIMESTAMP: 0.304453
+++++++++++++++++++++++++++++++++++++++++++++++++++++++++++
+ Client Mapping:
  > Client 51458 (40):	0 1 2 3 4 5 6 7 8 9 10 11 12 13 14 15 16 17 18 19 20 21 22 23 24 25 26 27 28 29 30 31 32 33 34 35 36 37 38 39 
  > Client 51456 (0):	
  > Client 51453 (0):	

+ Core Mapping:	51458 51458 51458 51458 51458 51458 51458 51458 51458 51458 51458 51458 51458 51458 51458 51458 51458 51458 51458 51458 51458 51458 51458 51458 51458 51458 51458 51458 51458 51458 51458 51458 51458 51458 51458 51458 51458 51458 51458 51458 
+ Optimal point: 40 
+++++++++++++++++++++++++++++++++++++++++++++++++++++++++++
INVADE: client 51456
 + TIMESTAMP: 0.304542
INVADE: client 51453
 + TIMESTAMP: 0.305071
CLIENT SETUP: adding client 51454
 + TIMESTAMP: 0.313117
+++++++++++++++++++++++++++++++++++++++++++++++++++++++++++
+ Client Mapping:
  > Client 51458 (40):	0 1 2 3 4 5 6 7 8 9 10 11 12 13 14 15 16 17 18 19 20 21 22 23 24 25 26 27 28 29 30 31 32 33 34 35 36 37 38 39 
  > Client 51456 (0):	
  > Client 51453 (0):	
  > Client 51454 (0):	

+ Core Mapping:	51458 51458 51458 51458 51458 51458 51458 51458 51458 51458 51458 51458 51458 51458 51458 51458 51458 51458 51458 51458 51458 51458 51458 51458 51458 51458 51458 51458 51458 51458 51458 51458 51458 51458 51458 51458 51458 51458 51458 51458 
+ Optimal point: 14 13 13 
+++++++++++++++++++++++++++++++++++++++++++++++++++++++++++
INVADE: client 51454
 + TIMESTAMP: 0.313213
CLIENT SETUP: adding client 51463
 + TIMESTAMP: 0.318256
+++++++++++++++++++++++++++++++++++++++++++++++++++++++++++
+ Client Mapping:
  > Client 51458 (40):	0 1 2 3 4 5 6 7 8 9 10 11 12 13 14 15 16 17 18 19 20 21 22 23 24 25 26 27 28 29 30 31 32 33 34 35 36 37 38 39 
  > Client 51456 (0):	
  > Client 51453 (0):	
  > Client 51454 (0):	
  > Client 51463 (0):	

+ Core Mapping:	51458 51458 51458 51458 51458 51458 51458 51458 51458 51458 51458 51458 51458 51458 51458 51458 51458 51458 51458 51458 51458 51458 51458 51458 51458 51458 51458 51458 51458 51458 51458 51458 51458 51458 51458 51458 51458 51458 51458 51458 
+ Optimal point: 10 10 10 10 
+++++++++++++++++++++++++++++++++++++++++++++++++++++++++++
INVADE: client 51463
 + TIMESTAMP: 0.318369
CLIENT SETUP: adding client 51455
 + TIMESTAMP: 0.318447
+++++++++++++++++++++++++++++++++++++++++++++++++++++++++++
+ Client Mapping:
  > Client 51458 (40):	0 1 2 3 4 5 6 7 8 9 10 11 12 13 14 15 16 17 18 19 20 21 22 23 24 25 26 27 28 29 30 31 32 33 34 35 36 37 38 39 
  > Client 51456 (0):	
  > Client 51453 (0):	
  > Client 51454 (0):	
  > Client 51463 (0):	
  > Client 51455 (0):	

+ Core Mapping:	51458 51458 51458 51458 51458 51458 51458 51458 51458 51458 51458 51458 51458 51458 51458 51458 51458 51458 51458 51458 51458 51458 51458 51458 51458 51458 51458 51458 51458 51458 51458 51458 51458 51458 51458 51458 51458 51458 51458 51458 
+ Optimal point: 8 8 8 8 8 
+++++++++++++++++++++++++++++++++++++++++++++++++++++++++++
INVADE: client 51455
 + TIMESTAMP: 0.318658
CLIENT SETUP: adding client 51464
 + TIMESTAMP: 0.323551
+++++++++++++++++++++++++++++++++++++++++++++++++++++++++++
+ Client Mapping:
  > Client 51458 (40):	0 1 2 3 4 5 6 7 8 9 10 11 12 13 14 15 16 17 18 19 20 21 22 23 24 25 26 27 28 29 30 31 32 33 34 35 36 37 38 39 
  > Client 51456 (0):	
  > Client 51453 (0):	
  > Client 51454 (0):	
  > Client 51463 (0):	
  > Client 51455 (0):	
  > Client 51464 (0):	

+ Core Mapping:	51458 51458 51458 51458 51458 51458 51458 51458 51458 51458 51458 51458 51458 51458 51458 51458 51458 51458 51458 51458 51458 51458 51458 51458 51458 51458 51458 51458 51458 51458 51458 51458 51458 51458 51458 51458 51458 51458 51458 51458 
+ Optimal point: 7 7 7 7 6 6 
+++++++++++++++++++++++++++++++++++++++++++++++++++++++++++
INVADE: client 51464
 + TIMESTAMP: 0.323667
CLIENT SETUP: adding client 51459
 + TIMESTAMP: 0.328202
+++++++++++++++++++++++++++++++++++++++++++++++++++++++++++
+ Client Mapping:
  > Client 51458 (40):	0 1 2 3 4 5 6 7 8 9 10 11 12 13 14 15 16 17 18 19 20 21 22 23 24 25 26 27 28 29 30 31 32 33 34 35 36 37 38 39 
  > Client 51456 (0):	
  > Client 51453 (0):	
  > Client 51454 (0):	
  > Client 51463 (0):	
  > Client 51455 (0):	
  > Client 51464 (0):	
  > Client 51459 (0):	

+ Core Mapping:	51458 51458 51458 51458 51458 51458 51458 51458 51458 51458 51458 51458 51458 51458 51458 51458 51458 51458 51458 51458 51458 51458 51458 51458 51458 51458 51458 51458 51458 51458 51458 51458 51458 51458 51458 51458 51458 51458 51458 51458 
+ Optimal point: 6 6 6 6 6 5 5 
+++++++++++++++++++++++++++++++++++++++++++++++++++++++++++
INVADE: client 51459
 + TIMESTAMP: 0.328312
CLIENT SETUP: adding client 51460
 + TIMESTAMP: 0.329631
+++++++++++++++++++++++++++++++++++++++++++++++++++++++++++
+ Client Mapping:
  > Client 51458 (40):	0 1 2 3 4 5 6 7 8 9 10 11 12 13 14 15 16 17 18 19 20 21 22 23 24 25 26 27 28 29 30 31 32 33 34 35 36 37 38 39 
  > Client 51456 (0):	
  > Client 51453 (0):	
  > Client 51454 (0):	
  > Client 51463 (0):	
  > Client 51455 (0):	
  > Client 51464 (0):	
  > Client 51459 (0):	
  > Client 51460 (0):	

+ Core Mapping:	51458 51458 51458 51458 51458 51458 51458 51458 51458 51458 51458 51458 51458 51458 51458 51458 51458 51458 51458 51458 51458 51458 51458 51458 51458 51458 51458 51458 51458 51458 51458 51458 51458 51458 51458 51458 51458 51458 51458 51458 
+ Optimal point: 5 5 5 5 5 5 5 5 
+++++++++++++++++++++++++++++++++++++++++++++++++++++++++++
INVADE: client 51460
 + TIMESTAMP: 0.330101
CLIENT SETUP: adding client 51457
 + TIMESTAMP: 0.336382
+++++++++++++++++++++++++++++++++++++++++++++++++++++++++++
+ Client Mapping:
  > Client 51458 (40):	0 1 2 3 4 5 6 7 8 9 10 11 12 13 14 15 16 17 18 19 20 21 22 23 24 25 26 27 28 29 30 31 32 33 34 35 36 37 38 39 
  > Client 51456 (0):	
  > Client 51453 (0):	
  > Client 51454 (0):	
  > Client 51463 (0):	
  > Client 51455 (0):	
  > Client 51464 (0):	
  > Client 51459 (0):	
  > Client 51460 (0):	
  > Client 51457 (0):	

+ Core Mapping:	51458 51458 51458 51458 51458 51458 51458 51458 51458 51458 51458 51458 51458 51458 51458 51458 51458 51458 51458 51458 51458 51458 51458 51458 51458 51458 51458 51458 51458 51458 51458 51458 51458 51458 51458 51458 51458 51458 51458 51458 
+ Optimal point: 5 5 5 5 4 4 4 4 4 
+++++++++++++++++++++++++++++++++++++++++++++++++++++++++++
INVADE: client 51457
 + TIMESTAMP: 0.336473
CLIENT SETUP: adding client 51461
 + TIMESTAMP: 0.343344
+++++++++++++++++++++++++++++++++++++++++++++++++++++++++++
+ Client Mapping:
  > Client 51458 (40):	0 1 2 3 4 5 6 7 8 9 10 11 12 13 14 15 16 17 18 19 20 21 22 23 24 25 26 27 28 29 30 31 32 33 34 35 36 37 38 39 
  > Client 51456 (0):	
  > Client 51453 (0):	
  > Client 51454 (0):	
  > Client 51463 (0):	
  > Client 51455 (0):	
  > Client 51464 (0):	
  > Client 51459 (0):	
  > Client 51460 (0):	
  > Client 51457 (0):	
  > Client 51461 (0):	

+ Core Mapping:	51458 51458 51458 51458 51458 51458 51458 51458 51458 51458 51458 51458 51458 51458 51458 51458 51458 51458 51458 51458 51458 51458 51458 51458 51458 51458 51458 51458 51458 51458 51458 51458 51458 51458 51458 51458 51458 51458 51458 51458 
+ Optimal point: 4 4 4 4 4 4 4 4 4 4 
+++++++++++++++++++++++++++++++++++++++++++++++++++++++++++
INVADE: client 51461
 + TIMESTAMP: 0.343458
CLIENT SETUP: adding client 51462
 + TIMESTAMP: 0.346102
+++++++++++++++++++++++++++++++++++++++++++++++++++++++++++
+ Client Mapping:
  > Client 51458 (40):	0 1 2 3 4 5 6 7 8 9 10 11 12 13 14 15 16 17 18 19 20 21 22 23 24 25 26 27 28 29 30 31 32 33 34 35 36 37 38 39 
  > Client 51456 (0):	
  > Client 51453 (0):	
  > Client 51454 (0):	
  > Client 51463 (0):	
  > Client 51455 (0):	
  > Client 51464 (0):	
  > Client 51459 (0):	
  > Client 51460 (0):	
  > Client 51457 (0):	
  > Client 51461 (0):	
  > Client 51462 (0):	

+ Core Mapping:	51458 51458 51458 51458 51458 51458 51458 51458 51458 51458 51458 51458 51458 51458 51458 51458 51458 51458 51458 51458 51458 51458 51458 51458 51458 51458 51458 51458 51458 51458 51458 51458 51458 51458 51458 51458 51458 51458 51458 51458 
+ Optimal point: 4 4 4 4 4 4 3 3 3 3 4 
+++++++++++++++++++++++++++++++++++++++++++++++++++++++++++
INVADE: client 51462
 + TIMESTAMP: 0.346222
CLIENT SETUP: adding client 51465
 + TIMESTAMP: 0.353602
+++++++++++++++++++++++++++++++++++++++++++++++++++++++++++
+ Client Mapping:
  > Client 51458 (40):	0 1 2 3 4 5 6 7 8 9 10 11 12 13 14 15 16 17 18 19 20 21 22 23 24 25 26 27 28 29 30 31 32 33 34 35 36 37 38 39 
  > Client 51456 (0):	
  > Client 51453 (0):	
  > Client 51454 (0):	
  > Client 51463 (0):	
  > Client 51455 (0):	
  > Client 51464 (0):	
  > Client 51459 (0):	
  > Client 51460 (0):	
  > Client 51457 (0):	
  > Client 51461 (0):	
  > Client 51462 (0):	
  > Client 51465 (0):	

+ Core Mapping:	51458 51458 51458 51458 51458 51458 51458 51458 51458 51458 51458 51458 51458 51458 51458 51458 51458 51458 51458 51458 51458 51458 51458 51458 51458 51458 51458 51458 51458 51458 51458 51458 51458 51458 51458 51458 51458 51458 51458 51458 
+ Optimal point: 4 3 3 3 4 3 3 3 3 3 4 4 
+++++++++++++++++++++++++++++++++++++++++++++++++++++++++++
INVADE: client 51465
 + TIMESTAMP: 0.357846
++++++++++++++++++++++++++++++++++++++++++++++++
 + TIMESTAMP: 0.397624
REINVADE (51458)
  + pid: 51458
  + min_cores: 1
  + max_cores: 512
  + scalability graph: 
1, 1.36329, 1.52423, 1.62017, 1.68565, 1.73398, 1.77154, 1.80182, 1.8269, 1.84812, 1.86637, 1.88229, 1.89634, 1.90885, 1.92009, 1.93026, 1.93952, 1.94799, 1.95579, 1.963, 1.96968, 1.9759, 1.98172, 1.98716, 1.99228, 1.9971, 2.00164, 2.00594, 2.01002, 2.01389, 2.01757, 2.02108, 2.02443, 2.02763, 2.03069, 2.03362, 2.03644, 2.03914, 2.04173, 2.04423, 
Number of clients: 13

+++++++++++++++++++++++++++++++++++++++++++++++++++++++++++
+ Client Mapping:
  > Client 51458 (3):	37 38 39 
  > Client 51456 (0):	
  > Client 51453 (0):	
  > Client 51454 (0):	
  > Client 51463 (0):	
  > Client 51455 (0):	
  > Client 51464 (0):	
  > Client 51459 (0):	
  > Client 51460 (0):	
  > Client 51457 (0):	
  > Client 51461 (0):	
  > Client 51462 (0):	
  > Client 51465 (0):	

+ Core Mapping:	0 0 0 0 0 0 0 0 0 0 0 0 0 0 0 0 0 0 0 0 0 0 0 0 0 0 0 0 0 0 0 0 0 0 0 0 0 51458 51458 51458 
+ Optimal point: 3 3 3 3 4 3 3 3 3 3 3 3 3 
+++++++++++++++++++++++++++++++++++++++++++++++++++++++++++
++++++++++++++++++++++++++++++++++++++++++++++++
 + TIMESTAMP: 0.481288
REINVADE (51457)
  + pid: 51457
  + min_cores: 1
  + max_cores: 512
  + scalability graph: 
1, 1.36329, 1.52423, 1.62017, 1.68565, 1.73398, 1.77154, 1.80182, 1.8269, 1.84812, 1.86637, 1.88229, 1.89634, 1.90885, 1.92009, 1.93026, 1.93952, 1.94799, 1.95579, 1.963, 1.96968, 1.9759, 1.98172, 1.98716, 1.99228, 1.9971, 2.00164, 2.00594, 2.01002, 2.01389, 2.01757, 2.02108, 2.02443, 2.02763, 2.03069, 2.03362, 2.03644, 2.03914, 2.04173, 2.04423, 
Number of clients: 13

+++++++++++++++++++++++++++++++++++++++++++++++++++++++++++
+ Client Mapping:
  > Client 51458 (3):	37 38 39 
  > Client 51456 (0):	
  > Client 51453 (0):	
  > Client 51454 (0):	
  > Client 51463 (0):	
  > Client 51455 (0):	
  > Client 51464 (0):	
  > Client 51459 (0):	
  > Client 51460 (0):	
  > Client 51457 (3):	0 1 2 
  > Client 51461 (0):	
  > Client 51462 (0):	
  > Client 51465 (0):	

+ Core Mapping:	51457 51457 51457 0 0 0 0 0 0 0 0 0 0 0 0 0 0 0 0 0 0 0 0 0 0 0 0 0 0 0 0 0 0 0 0 0 0 51458 51458 51458 
+ Optimal point: 3 3 3 3 4 3 3 3 3 3 3 3 3 
+++++++++++++++++++++++++++++++++++++++++++++++++++++++++++
++++++++++++++++++++++++++++++++++++++++++++++++
 + TIMESTAMP: 0.524371
REINVADE (51460)
  + pid: 51460
  + min_cores: 1
  + max_cores: 512
  + scalability graph: 
1, 1.36329, 1.52423, 1.62017, 1.68565, 1.73398, 1.77154, 1.80182, 1.8269, 1.84812, 1.86637, 1.88229, 1.89634, 1.90885, 1.92009, 1.93026, 1.93952, 1.94799, 1.95579, 1.963, 1.96968, 1.9759, 1.98172, 1.98716, 1.99228, 1.9971, 2.00164, 2.00594, 2.01002, 2.01389, 2.01757, 2.02108, 2.02443, 2.02763, 2.03069, 2.03362, 2.03644, 2.03914, 2.04173, 2.04423, 
Number of clients: 13

+++++++++++++++++++++++++++++++++++++++++++++++++++++++++++
+ Client Mapping:
  > Client 51458 (3):	37 38 39 
  > Client 51456 (0):	
  > Client 51453 (0):	
  > Client 51454 (0):	
  > Client 51463 (0):	
  > Client 51455 (0):	
  > Client 51464 (0):	
  > Client 51459 (0):	
  > Client 51460 (3):	3 4 5 
  > Client 51457 (3):	0 1 2 
  > Client 51461 (0):	
  > Client 51462 (0):	
  > Client 51465 (0):	

+ Core Mapping:	51457 51457 51457 51460 51460 51460 0 0 0 0 0 0 0 0 0 0 0 0 0 0 0 0 0 0 0 0 0 0 0 0 0 0 0 0 0 0 0 51458 51458 51458 
+ Optimal point: 3 3 3 3 4 3 3 3 3 3 3 3 3 
+++++++++++++++++++++++++++++++++++++++++++++++++++++++++++
++++++++++++++++++++++++++++++++++++++++++++++++
 + TIMESTAMP: 0.545084
REINVADE (51459)
  + pid: 51459
  + min_cores: 1
  + max_cores: 512
  + scalability graph: 
1, 1.36329, 1.52423, 1.62017, 1.68565, 1.73398, 1.77154, 1.80182, 1.8269, 1.84812, 1.86637, 1.88229, 1.89634, 1.90885, 1.92009, 1.93026, 1.93952, 1.94799, 1.95579, 1.963, 1.96968, 1.9759, 1.98172, 1.98716, 1.99228, 1.9971, 2.00164, 2.00594, 2.01002, 2.01389, 2.01757, 2.02108, 2.02443, 2.02763, 2.03069, 2.03362, 2.03644, 2.03914, 2.04173, 2.04423, 
Number of clients: 13

+++++++++++++++++++++++++++++++++++++++++++++++++++++++++++
+ Client Mapping:
  > Client 51458 (3):	37 38 39 
  > Client 51456 (0):	
  > Client 51453 (0):	
  > Client 51454 (0):	
  > Client 51463 (0):	
  > Client 51455 (0):	
  > Client 51464 (0):	
  > Client 51459 (3):	6 7 8 
  > Client 51460 (3):	3 4 5 
  > Client 51457 (3):	0 1 2 
  > Client 51461 (0):	
  > Client 51462 (0):	
  > Client 51465 (0):	

+ Core Mapping:	51457 51457 51457 51460 51460 51460 51459 51459 51459 0 0 0 0 0 0 0 0 0 0 0 0 0 0 0 0 0 0 0 0 0 0 0 0 0 0 0 0 51458 51458 51458 
+ Optimal point: 3 3 3 3 4 3 3 3 3 3 3 3 3 
+++++++++++++++++++++++++++++++++++++++++++++++++++++++++++
++++++++++++++++++++++++++++++++++++++++++++++++
 + TIMESTAMP: 0.546127
REINVADE (51463)
  + pid: 51463
  + min_cores: 1
  + max_cores: 512
  + scalability graph: 
1, 1.36329, 1.52423, 1.62017, 1.68565, 1.73398, 1.77154, 1.80182, 1.8269, 1.84812, 1.86637, 1.88229, 1.89634, 1.90885, 1.92009, 1.93026, 1.93952, 1.94799, 1.95579, 1.963, 1.96968, 1.9759, 1.98172, 1.98716, 1.99228, 1.9971, 2.00164, 2.00594, 2.01002, 2.01389, 2.01757, 2.02108, 2.02443, 2.02763, 2.03069, 2.03362, 2.03644, 2.03914, 2.04173, 2.04423, 
Number of clients: 13

+++++++++++++++++++++++++++++++++++++++++++++++++++++++++++
+ Client Mapping:
  > Client 51458 (3):	37 38 39 
  > Client 51456 (0):	
  > Client 51453 (0):	
  > Client 51454 (0):	
  > Client 51463 (4):	9 10 11 12 
  > Client 51455 (0):	
  > Client 51464 (0):	
  > Client 51459 (3):	6 7 8 
  > Client 51460 (3):	3 4 5 
  > Client 51457 (3):	0 1 2 
  > Client 51461 (0):	
  > Client 51462 (0):	
  > Client 51465 (0):	

+ Core Mapping:	51457 51457 51457 51460 51460 51460 51459 51459 51459 51463 51463 51463 51463 0 0 0 0 0 0 0 0 0 0 0 0 0 0 0 0 0 0 0 0 0 0 0 0 51458 51458 51458 
+ Optimal point: 3 3 3 3 4 3 3 3 3 3 3 3 3 
+++++++++++++++++++++++++++++++++++++++++++++++++++++++++++
++++++++++++++++++++++++++++++++++++++++++++++++
 + TIMESTAMP: 0.546674
REINVADE (51456)
  + pid: 51456
  + min_cores: 1
  + max_cores: 512
  + scalability graph: 
1, 1.36329, 1.52423, 1.62017, 1.68565, 1.73398, 1.77154, 1.80182, 1.8269, 1.84812, 1.86637, 1.88229, 1.89634, 1.90885, 1.92009, 1.93026, 1.93952, 1.94799, 1.95579, 1.963, 1.96968, 1.9759, 1.98172, 1.98716, 1.99228, 1.9971, 2.00164, 2.00594, 2.01002, 2.01389, 2.01757, 2.02108, 2.02443, 2.02763, 2.03069, 2.03362, 2.03644, 2.03914, 2.04173, 2.04423, 
Number of clients: 13

+++++++++++++++++++++++++++++++++++++++++++++++++++++++++++
+ Client Mapping:
  > Client 51458 (3):	37 38 39 
  > Client 51456 (3):	13 14 15 
  > Client 51453 (0):	
  > Client 51454 (0):	
  > Client 51463 (4):	9 10 11 12 
  > Client 51455 (0):	
  > Client 51464 (0):	
  > Client 51459 (3):	6 7 8 
  > Client 51460 (3):	3 4 5 
  > Client 51457 (3):	0 1 2 
  > Client 51461 (0):	
  > Client 51462 (0):	
  > Client 51465 (0):	

+ Core Mapping:	51457 51457 51457 51460 51460 51460 51459 51459 51459 51463 51463 51463 51463 51456 51456 51456 0 0 0 0 0 0 0 0 0 0 0 0 0 0 0 0 0 0 0 0 0 51458 51458 51458 
+ Optimal point: 3 3 3 3 4 3 3 3 3 3 3 3 3 
+++++++++++++++++++++++++++++++++++++++++++++++++++++++++++
++++++++++++++++++++++++++++++++++++++++++++++++
 + TIMESTAMP: 0.579253
REINVADE (51462)
  + pid: 51462
  + min_cores: 1
  + max_cores: 512
  + scalability graph: 
1, 1.36329, 1.52423, 1.62017, 1.68565, 1.73398, 1.77154, 1.80182, 1.8269, 1.84812, 1.86637, 1.88229, 1.89634, 1.90885, 1.92009, 1.93026, 1.93952, 1.94799, 1.95579, 1.963, 1.96968, 1.9759, 1.98172, 1.98716, 1.99228, 1.9971, 2.00164, 2.00594, 2.01002, 2.01389, 2.01757, 2.02108, 2.02443, 2.02763, 2.03069, 2.03362, 2.03644, 2.03914, 2.04173, 2.04423, 
Number of clients: 13

+++++++++++++++++++++++++++++++++++++++++++++++++++++++++++
+ Client Mapping:
  > Client 51458 (3):	37 38 39 
  > Client 51456 (3):	13 14 15 
  > Client 51453 (0):	
  > Client 51454 (0):	
  > Client 51463 (4):	9 10 11 12 
  > Client 51455 (0):	
  > Client 51464 (0):	
  > Client 51459 (3):	6 7 8 
  > Client 51460 (3):	3 4 5 
  > Client 51457 (3):	0 1 2 
  > Client 51461 (0):	
  > Client 51462 (3):	16 17 18 
  > Client 51465 (0):	

+ Core Mapping:	51457 51457 51457 51460 51460 51460 51459 51459 51459 51463 51463 51463 51463 51456 51456 51456 51462 51462 51462 0 0 0 0 0 0 0 0 0 0 0 0 0 0 0 0 0 0 51458 51458 51458 
+ Optimal point: 3 3 3 3 4 3 3 3 3 3 3 3 3 
+++++++++++++++++++++++++++++++++++++++++++++++++++++++++++
++++++++++++++++++++++++++++++++++++++++++++++++
 + TIMESTAMP: 0.610601
REINVADE (51461)
  + pid: 51461
  + min_cores: 1
  + max_cores: 512
  + scalability graph: 
1, 1.36329, 1.52423, 1.62017, 1.68565, 1.73398, 1.77154, 1.80182, 1.8269, 1.84812, 1.86637, 1.88229, 1.89634, 1.90885, 1.92009, 1.93026, 1.93952, 1.94799, 1.95579, 1.963, 1.96968, 1.9759, 1.98172, 1.98716, 1.99228, 1.9971, 2.00164, 2.00594, 2.01002, 2.01389, 2.01757, 2.02108, 2.02443, 2.02763, 2.03069, 2.03362, 2.03644, 2.03914, 2.04173, 2.04423, 
Number of clients: 13

+++++++++++++++++++++++++++++++++++++++++++++++++++++++++++
+ Client Mapping:
  > Client 51458 (3):	37 38 39 
  > Client 51456 (3):	13 14 15 
  > Client 51453 (0):	
  > Client 51454 (0):	
  > Client 51463 (4):	9 10 11 12 
  > Client 51455 (0):	
  > Client 51464 (0):	
  > Client 51459 (3):	6 7 8 
  > Client 51460 (3):	3 4 5 
  > Client 51457 (3):	0 1 2 
  > Client 51461 (3):	19 20 21 
  > Client 51462 (3):	16 17 18 
  > Client 51465 (0):	

+ Core Mapping:	51457 51457 51457 51460 51460 51460 51459 51459 51459 51463 51463 51463 51463 51456 51456 51456 51462 51462 51462 51461 51461 51461 0 0 0 0 0 0 0 0 0 0 0 0 0 0 0 51458 51458 51458 
+ Optimal point: 3 3 3 3 4 3 3 3 3 3 3 3 3 
+++++++++++++++++++++++++++++++++++++++++++++++++++++++++++
++++++++++++++++++++++++++++++++++++++++++++++++
 + TIMESTAMP: 0.648529
REINVADE (51455)
  + pid: 51455
  + min_cores: 1
  + max_cores: 512
  + scalability graph: 
1, 1.36329, 1.52423, 1.62017, 1.68565, 1.73398, 1.77154, 1.80182, 1.8269, 1.84812, 1.86637, 1.88229, 1.89634, 1.90885, 1.92009, 1.93026, 1.93952, 1.94799, 1.95579, 1.963, 1.96968, 1.9759, 1.98172, 1.98716, 1.99228, 1.9971, 2.00164, 2.00594, 2.01002, 2.01389, 2.01757, 2.02108, 2.02443, 2.02763, 2.03069, 2.03362, 2.03644, 2.03914, 2.04173, 2.04423, 
Number of clients: 13

+++++++++++++++++++++++++++++++++++++++++++++++++++++++++++
+ Client Mapping:
  > Client 51458 (3):	37 38 39 
  > Client 51456 (3):	13 14 15 
  > Client 51453 (0):	
  > Client 51454 (0):	
  > Client 51463 (4):	9 10 11 12 
  > Client 51455 (3):	22 23 24 
  > Client 51464 (0):	
  > Client 51459 (3):	6 7 8 
  > Client 51460 (3):	3 4 5 
  > Client 51457 (3):	0 1 2 
  > Client 51461 (3):	19 20 21 
  > Client 51462 (3):	16 17 18 
  > Client 51465 (0):	

+ Core Mapping:	51457 51457 51457 51460 51460 51460 51459 51459 51459 51463 51463 51463 51463 51456 51456 51456 51462 51462 51462 51461 51461 51461 51455 51455 51455 0 0 0 0 0 0 0 0 0 0 0 0 51458 51458 51458 
+ Optimal point: 3 3 3 3 4 3 3 3 3 3 3 3 3 
+++++++++++++++++++++++++++++++++++++++++++++++++++++++++++
++++++++++++++++++++++++++++++++++++++++++++++++
 + TIMESTAMP: 0.661344
REINVADE (51454)
  + pid: 51454
  + min_cores: 1
  + max_cores: 512
  + scalability graph: 
1, 1.36329, 1.52423, 1.62017, 1.68565, 1.73398, 1.77154, 1.80182, 1.8269, 1.84812, 1.86637, 1.88229, 1.89634, 1.90885, 1.92009, 1.93026, 1.93952, 1.94799, 1.95579, 1.963, 1.96968, 1.9759, 1.98172, 1.98716, 1.99228, 1.9971, 2.00164, 2.00594, 2.01002, 2.01389, 2.01757, 2.02108, 2.02443, 2.02763, 2.03069, 2.03362, 2.03644, 2.03914, 2.04173, 2.04423, 
Number of clients: 13

+++++++++++++++++++++++++++++++++++++++++++++++++++++++++++
+ Client Mapping:
  > Client 51458 (3):	37 38 39 
  > Client 51456 (3):	13 14 15 
  > Client 51453 (0):	
  > Client 51454 (3):	25 26 27 
  > Client 51463 (4):	9 10 11 12 
  > Client 51455 (3):	22 23 24 
  > Client 51464 (0):	
  > Client 51459 (3):	6 7 8 
  > Client 51460 (3):	3 4 5 
  > Client 51457 (3):	0 1 2 
  > Client 51461 (3):	19 20 21 
  > Client 51462 (3):	16 17 18 
  > Client 51465 (0):	

+ Core Mapping:	51457 51457 51457 51460 51460 51460 51459 51459 51459 51463 51463 51463 51463 51456 51456 51456 51462 51462 51462 51461 51461 51461 51455 51455 51455 51454 51454 51454 0 0 0 0 0 0 0 0 0 51458 51458 51458 
+ Optimal point: 3 3 3 3 4 3 3 3 3 3 3 3 3 
+++++++++++++++++++++++++++++++++++++++++++++++++++++++++++
++++++++++++++++++++++++++++++++++++++++++++++++
 + TIMESTAMP: 0.663138
REINVADE (51453)
  + pid: 51453
  + min_cores: 1
  + max_cores: 512
  + scalability graph: 
1, 1.36329, 1.52423, 1.62017, 1.68565, 1.73398, 1.77154, 1.80182, 1.8269, 1.84812, 1.86637, 1.88229, 1.89634, 1.90885, 1.92009, 1.93026, 1.93952, 1.94799, 1.95579, 1.963, 1.96968, 1.9759, 1.98172, 1.98716, 1.99228, 1.9971, 2.00164, 2.00594, 2.01002, 2.01389, 2.01757, 2.02108, 2.02443, 2.02763, 2.03069, 2.03362, 2.03644, 2.03914, 2.04173, 2.04423, 
Number of clients: 13

+++++++++++++++++++++++++++++++++++++++++++++++++++++++++++
+ Client Mapping:
  > Client 51458 (3):	37 38 39 
  > Client 51456 (3):	13 14 15 
  > Client 51453 (3):	28 29 30 
  > Client 51454 (3):	25 26 27 
  > Client 51463 (4):	9 10 11 12 
  > Client 51455 (3):	22 23 24 
  > Client 51464 (0):	
  > Client 51459 (3):	6 7 8 
  > Client 51460 (3):	3 4 5 
  > Client 51457 (3):	0 1 2 
  > Client 51461 (3):	19 20 21 
  > Client 51462 (3):	16 17 18 
  > Client 51465 (0):	

+ Core Mapping:	51457 51457 51457 51460 51460 51460 51459 51459 51459 51463 51463 51463 51463 51456 51456 51456 51462 51462 51462 51461 51461 51461 51455 51455 51455 51454 51454 51454 51453 51453 51453 0 0 0 0 0 0 51458 51458 51458 
+ Optimal point: 3 3 3 3 4 3 3 3 3 3 3 3 3 
+++++++++++++++++++++++++++++++++++++++++++++++++++++++++++
++++++++++++++++++++++++++++++++++++++++++++++++
 + TIMESTAMP: 0.667433
REINVADE (51465)
  + pid: 51465
  + min_cores: 1
  + max_cores: 512
  + scalability graph: 
1, 1.36329, 1.52423, 1.62017, 1.68565, 1.73398, 1.77154, 1.80182, 1.8269, 1.84812, 1.86637, 1.88229, 1.89634, 1.90885, 1.92009, 1.93026, 1.93952, 1.94799, 1.95579, 1.963, 1.96968, 1.9759, 1.98172, 1.98716, 1.99228, 1.9971, 2.00164, 2.00594, 2.01002, 2.01389, 2.01757, 2.02108, 2.02443, 2.02763, 2.03069, 2.03362, 2.03644, 2.03914, 2.04173, 2.04423, 
Number of clients: 13

+++++++++++++++++++++++++++++++++++++++++++++++++++++++++++
+ Client Mapping:
  > Client 51458 (3):	37 38 39 
  > Client 51456 (3):	13 14 15 
  > Client 51453 (3):	28 29 30 
  > Client 51454 (3):	25 26 27 
  > Client 51463 (4):	9 10 11 12 
  > Client 51455 (3):	22 23 24 
  > Client 51464 (0):	
  > Client 51459 (3):	6 7 8 
  > Client 51460 (3):	3 4 5 
  > Client 51457 (3):	0 1 2 
  > Client 51461 (3):	19 20 21 
  > Client 51462 (3):	16 17 18 
  > Client 51465 (3):	31 32 33 

+ Core Mapping:	51457 51457 51457 51460 51460 51460 51459 51459 51459 51463 51463 51463 51463 51456 51456 51456 51462 51462 51462 51461 51461 51461 51455 51455 51455 51454 51454 51454 51453 51453 51453 51465 51465 51465 0 0 0 51458 51458 51458 
+ Optimal point: 3 3 3 3 4 3 3 3 3 3 3 3 3 
+++++++++++++++++++++++++++++++++++++++++++++++++++++++++++
++++++++++++++++++++++++++++++++++++++++++++++++
 + TIMESTAMP: 0.673312
REINVADE (51464)
  + pid: 51464
  + min_cores: 1
  + max_cores: 512
  + scalability graph: 
1, 1.36329, 1.52423, 1.62017, 1.68565, 1.73398, 1.77154, 1.80182, 1.8269, 1.84812, 1.86637, 1.88229, 1.89634, 1.90885, 1.92009, 1.93026, 1.93952, 1.94799, 1.95579, 1.963, 1.96968, 1.9759, 1.98172, 1.98716, 1.99228, 1.9971, 2.00164, 2.00594, 2.01002, 2.01389, 2.01757, 2.02108, 2.02443, 2.02763, 2.03069, 2.03362, 2.03644, 2.03914, 2.04173, 2.04423, 
Number of clients: 13

+++++++++++++++++++++++++++++++++++++++++++++++++++++++++++
+ Client Mapping:
  > Client 51458 (3):	37 38 39 
  > Client 51456 (3):	13 14 15 
  > Client 51453 (3):	28 29 30 
  > Client 51454 (3):	25 26 27 
  > Client 51463 (4):	9 10 11 12 
  > Client 51455 (3):	22 23 24 
  > Client 51464 (3):	34 35 36 
  > Client 51459 (3):	6 7 8 
  > Client 51460 (3):	3 4 5 
  > Client 51457 (3):	0 1 2 
  > Client 51461 (3):	19 20 21 
  > Client 51462 (3):	16 17 18 
  > Client 51465 (3):	31 32 33 

+ Core Mapping:	51457 51457 51457 51460 51460 51460 51459 51459 51459 51463 51463 51463 51463 51456 51456 51456 51462 51462 51462 51461 51461 51461 51455 51455 51455 51454 51454 51454 51453 51453 51453 51465 51465 51465 51464 51464 51464 51458 51458 51458 
+ Optimal point: 3 3 3 3 4 3 3 3 3 3 3 3 3 
+++++++++++++++++++++++++++++++++++++++++++++++++++++++++++
CLIENT SHUTDOWN: client 51463
 + TIMESTAMP: 40.8379
+++++++++++++++++++++++++++++++++++++++++++++++++++++++++++
+ Client Mapping:
  > Client 51458 (3):	37 38 39 
  > Client 51456 (3):	13 14 15 
  > Client 51453 (3):	28 29 30 
  > Client 51454 (3):	25 26 27 
  > Client 51463 (0):	
  > Client 51455 (3):	22 23 24 
  > Client 51464 (3):	34 35 36 
  > Client 51459 (3):	6 7 8 
  > Client 51460 (3):	3 4 5 
  > Client 51457 (3):	0 1 2 
  > Client 51461 (3):	19 20 21 
  > Client 51462 (3):	16 17 18 
  > Client 51465 (3):	31 32 33 

+ Core Mapping:	51457 51457 51457 51460 51460 51460 51459 51459 51459 0 0 0 0 51456 51456 51456 51462 51462 51462 51461 51461 51461 51455 51455 51455 51454 51454 51454 51453 51453 51453 51465 51465 51465 51464 51464 51464 51458 51458 51458 
+ Optimal point: 3 3 3 3 4 3 3 3 3 3 3 3 3 
+++++++++++++++++++++++++++++++++++++++++++++++++++++++++++
client (51463) shutdown hint: 437.984
sum_client_shutdown_hint: 437.984
sum_client_shutdown_hint_div_time: 0
++++++++++++++++++++++++++++++++++++++++++++++++
 + TIMESTAMP: 40.8422
REINVADE (51462)
  + pid: 51462
  + min_cores: 1
  + max_cores: 512
  + scalability graph: 
1, 1.36329, 1.52423, 1.62017, 1.68565, 1.73398, 1.77154, 1.80182, 1.8269, 1.84812, 1.86637, 1.88229, 1.89634, 1.90885, 1.92009, 1.93026, 1.93952, 1.94799, 1.95579, 1.963, 1.96968, 1.9759, 1.98172, 1.98716, 1.99228, 1.9971, 2.00164, 2.00594, 2.01002, 2.01389, 2.01757, 2.02108, 2.02443, 2.02763, 2.03069, 2.03362, 2.03644, 2.03914, 2.04173, 2.04423, 
Number of clients: 12

+++++++++++++++++++++++++++++++++++++++++++++++++++++++++++
+ Client Mapping:
  > Client 51458 (3):	37 38 39 
  > Client 51456 (3):	13 14 15 
  > Client 51453 (3):	28 29 30 
  > Client 51454 (3):	25 26 27 
  > Client 51455 (3):	22 23 24 
  > Client 51464 (3):	34 35 36 
  > Client 51459 (3):	6 7 8 
  > Client 51460 (3):	3 4 5 
  > Client 51457 (3):	0 1 2 
  > Client 51461 (3):	19 20 21 
  > Client 51462 (4):	16 17 18 9 
  > Client 51465 (3):	31 32 33 

+ Core Mapping:	51457 51457 51457 51460 51460 51460 51459 51459 51459 51462 0 0 0 51456 51456 51456 51462 51462 51462 51461 51461 51461 51455 51455 51455 51454 51454 51454 51453 51453 51453 51465 51465 51465 51464 51464 51464 51458 51458 51458 
+ Optimal point: 4 3 3 3 4 3 3 3 3 3 4 4 
+++++++++++++++++++++++++++++++++++++++++++++++++++++++++++
++++++++++++++++++++++++++++++++++++++++++++++++
 + TIMESTAMP: 40.8454
REINVADE (51455)
  + pid: 51455
  + min_cores: 1
  + max_cores: 512
  + scalability graph: 
1, 1.36329, 1.52423, 1.62017, 1.68565, 1.73398, 1.77154, 1.80182, 1.8269, 1.84812, 1.86637, 1.88229, 1.89634, 1.90885, 1.92009, 1.93026, 1.93952, 1.94799, 1.95579, 1.963, 1.96968, 1.9759, 1.98172, 1.98716, 1.99228, 1.9971, 2.00164, 2.00594, 2.01002, 2.01389, 2.01757, 2.02108, 2.02443, 2.02763, 2.03069, 2.03362, 2.03644, 2.03914, 2.04173, 2.04423, 
Number of clients: 12

+++++++++++++++++++++++++++++++++++++++++++++++++++++++++++
+ Client Mapping:
  > Client 51458 (3):	37 38 39 
  > Client 51456 (3):	13 14 15 
  > Client 51453 (3):	28 29 30 
  > Client 51454 (3):	25 26 27 
  > Client 51455 (4):	22 23 24 10 
  > Client 51464 (3):	34 35 36 
  > Client 51459 (3):	6 7 8 
  > Client 51460 (3):	3 4 5 
  > Client 51457 (3):	0 1 2 
  > Client 51461 (3):	19 20 21 
  > Client 51462 (4):	16 17 18 9 
  > Client 51465 (3):	31 32 33 

+ Core Mapping:	51457 51457 51457 51460 51460 51460 51459 51459 51459 51462 51455 0 0 51456 51456 51456 51462 51462 51462 51461 51461 51461 51455 51455 51455 51454 51454 51454 51453 51453 51453 51465 51465 51465 51464 51464 51464 51458 51458 51458 
+ Optimal point: 4 3 3 3 4 3 3 3 3 3 4 4 
+++++++++++++++++++++++++++++++++++++++++++++++++++++++++++
++++++++++++++++++++++++++++++++++++++++++++++++
 + TIMESTAMP: 40.8471
REINVADE (51458)
  + pid: 51458
  + min_cores: 1
  + max_cores: 512
  + scalability graph: 
1, 1.36329, 1.52423, 1.62017, 1.68565, 1.73398, 1.77154, 1.80182, 1.8269, 1.84812, 1.86637, 1.88229, 1.89634, 1.90885, 1.92009, 1.93026, 1.93952, 1.94799, 1.95579, 1.963, 1.96968, 1.9759, 1.98172, 1.98716, 1.99228, 1.9971, 2.00164, 2.00594, 2.01002, 2.01389, 2.01757, 2.02108, 2.02443, 2.02763, 2.03069, 2.03362, 2.03644, 2.03914, 2.04173, 2.04423, 
Number of clients: 12

+++++++++++++++++++++++++++++++++++++++++++++++++++++++++++
+ Client Mapping:
  > Client 51458 (4):	37 38 39 11 
  > Client 51456 (3):	13 14 15 
  > Client 51453 (3):	28 29 30 
  > Client 51454 (3):	25 26 27 
  > Client 51455 (4):	22 23 24 10 
  > Client 51464 (3):	34 35 36 
  > Client 51459 (3):	6 7 8 
  > Client 51460 (3):	3 4 5 
  > Client 51457 (3):	0 1 2 
  > Client 51461 (3):	19 20 21 
  > Client 51462 (4):	16 17 18 9 
  > Client 51465 (3):	31 32 33 

+ Core Mapping:	51457 51457 51457 51460 51460 51460 51459 51459 51459 51462 51455 51458 0 51456 51456 51456 51462 51462 51462 51461 51461 51461 51455 51455 51455 51454 51454 51454 51453 51453 51453 51465 51465 51465 51464 51464 51464 51458 51458 51458 
+ Optimal point: 4 3 3 3 4 3 3 3 3 3 4 4 
+++++++++++++++++++++++++++++++++++++++++++++++++++++++++++
++++++++++++++++++++++++++++++++++++++++++++++++
 + TIMESTAMP: 40.8478
REINVADE (51465)
  + pid: 51465
  + min_cores: 1
  + max_cores: 512
  + scalability graph: 
1, 1.36329, 1.52423, 1.62017, 1.68565, 1.73398, 1.77154, 1.80182, 1.8269, 1.84812, 1.86637, 1.88229, 1.89634, 1.90885, 1.92009, 1.93026, 1.93952, 1.94799, 1.95579, 1.963, 1.96968, 1.9759, 1.98172, 1.98716, 1.99228, 1.9971, 2.00164, 2.00594, 2.01002, 2.01389, 2.01757, 2.02108, 2.02443, 2.02763, 2.03069, 2.03362, 2.03644, 2.03914, 2.04173, 2.04423, 
Number of clients: 12

+++++++++++++++++++++++++++++++++++++++++++++++++++++++++++
+ Client Mapping:
  > Client 51458 (4):	37 38 39 11 
  > Client 51456 (3):	13 14 15 
  > Client 51453 (3):	28 29 30 
  > Client 51454 (3):	25 26 27 
  > Client 51455 (4):	22 23 24 10 
  > Client 51464 (3):	34 35 36 
  > Client 51459 (3):	6 7 8 
  > Client 51460 (3):	3 4 5 
  > Client 51457 (3):	0 1 2 
  > Client 51461 (3):	19 20 21 
  > Client 51462 (4):	16 17 18 9 
  > Client 51465 (4):	31 32 33 12 

+ Core Mapping:	51457 51457 51457 51460 51460 51460 51459 51459 51459 51462 51455 51458 51465 51456 51456 51456 51462 51462 51462 51461 51461 51461 51455 51455 51455 51454 51454 51454 51453 51453 51453 51465 51465 51465 51464 51464 51464 51458 51458 51458 
+ Optimal point: 4 3 3 3 4 3 3 3 3 3 4 4 
+++++++++++++++++++++++++++++++++++++++++++++++++++++++++++
CLIENT SHUTDOWN: client 51465
 + TIMESTAMP: 48.4447
+++++++++++++++++++++++++++++++++++++++++++++++++++++++++++
+ Client Mapping:
  > Client 51458 (4):	37 38 39 11 
  > Client 51456 (3):	13 14 15 
  > Client 51453 (3):	28 29 30 
  > Client 51454 (3):	25 26 27 
  > Client 51455 (4):	22 23 24 10 
  > Client 51464 (3):	34 35 36 
  > Client 51459 (3):	6 7 8 
  > Client 51460 (3):	3 4 5 
  > Client 51457 (3):	0 1 2 
  > Client 51461 (3):	19 20 21 
  > Client 51462 (4):	16 17 18 9 
  > Client 51465 (0):	

+ Core Mapping:	51457 51457 51457 51460 51460 51460 51459 51459 51459 51462 51455 51458 0 51456 51456 51456 51462 51462 51462 51461 51461 51461 51455 51455 51455 51454 51454 51454 51453 51453 51453 0 0 0 51464 51464 51464 51458 51458 51458 
+ Optimal point: 4 3 3 3 4 3 3 3 3 3 4 4 
+++++++++++++++++++++++++++++++++++++++++++++++++++++++++++
client (51465) shutdown hint: 437.984
sum_client_shutdown_hint: 875.968
sum_client_shutdown_hint_div_time: 0
++++++++++++++++++++++++++++++++++++++++++++++++
 + TIMESTAMP: 48.4452
REINVADE (51453)
  + pid: 51453
  + min_cores: 1
  + max_cores: 512
  + scalability graph: 
1, 1.36329, 1.52423, 1.62017, 1.68565, 1.73398, 1.77154, 1.80182, 1.8269, 1.84812, 1.86637, 1.88229, 1.89634, 1.90885, 1.92009, 1.93026, 1.93952, 1.94799, 1.95579, 1.963, 1.96968, 1.9759, 1.98172, 1.98716, 1.99228, 1.9971, 2.00164, 2.00594, 2.01002, 2.01389, 2.01757, 2.02108, 2.02443, 2.02763, 2.03069, 2.03362, 2.03644, 2.03914, 2.04173, 2.04423, 
Number of clients: 11

+++++++++++++++++++++++++++++++++++++++++++++++++++++++++++
+ Client Mapping:
  > Client 51458 (4):	37 38 39 11 
  > Client 51456 (3):	13 14 15 
  > Client 51453 (4):	28 29 30 12 
  > Client 51454 (3):	25 26 27 
  > Client 51455 (4):	22 23 24 10 
  > Client 51464 (3):	34 35 36 
  > Client 51459 (3):	6 7 8 
  > Client 51460 (3):	3 4 5 
  > Client 51457 (3):	0 1 2 
  > Client 51461 (3):	19 20 21 
  > Client 51462 (4):	16 17 18 9 

+ Core Mapping:	51457 51457 51457 51460 51460 51460 51459 51459 51459 51462 51455 51458 51453 51456 51456 51456 51462 51462 51462 51461 51461 51461 51455 51455 51455 51454 51454 51454 51453 51453 51453 0 0 0 51464 51464 51464 51458 51458 51458 
+ Optimal point: 4 4 4 4 4 4 3 3 3 3 4 
+++++++++++++++++++++++++++++++++++++++++++++++++++++++++++
++++++++++++++++++++++++++++++++++++++++++++++++
 + TIMESTAMP: 48.446
REINVADE (51454)
  + pid: 51454
  + min_cores: 1
  + max_cores: 512
  + scalability graph: 
1, 1.36329, 1.52423, 1.62017, 1.68565, 1.73398, 1.77154, 1.80182, 1.8269, 1.84812, 1.86637, 1.88229, 1.89634, 1.90885, 1.92009, 1.93026, 1.93952, 1.94799, 1.95579, 1.963, 1.96968, 1.9759, 1.98172, 1.98716, 1.99228, 1.9971, 2.00164, 2.00594, 2.01002, 2.01389, 2.01757, 2.02108, 2.02443, 2.02763, 2.03069, 2.03362, 2.03644, 2.03914, 2.04173, 2.04423, 
Number of clients: 11

+++++++++++++++++++++++++++++++++++++++++++++++++++++++++++
+ Client Mapping:
  > Client 51458 (4):	37 38 39 11 
  > Client 51456 (3):	13 14 15 
  > Client 51453 (4):	28 29 30 12 
  > Client 51454 (4):	25 26 27 31 
  > Client 51455 (4):	22 23 24 10 
  > Client 51464 (3):	34 35 36 
  > Client 51459 (3):	6 7 8 
  > Client 51460 (3):	3 4 5 
  > Client 51457 (3):	0 1 2 
  > Client 51461 (3):	19 20 21 
  > Client 51462 (4):	16 17 18 9 

+ Core Mapping:	51457 51457 51457 51460 51460 51460 51459 51459 51459 51462 51455 51458 51453 51456 51456 51456 51462 51462 51462 51461 51461 51461 51455 51455 51455 51454 51454 51454 51453 51453 51453 51454 0 0 51464 51464 51464 51458 51458 51458 
+ Optimal point: 4 4 4 4 4 4 3 3 3 3 4 
+++++++++++++++++++++++++++++++++++++++++++++++++++++++++++
++++++++++++++++++++++++++++++++++++++++++++++++
 + TIMESTAMP: 48.4471
REINVADE (51456)
  + pid: 51456
  + min_cores: 1
  + max_cores: 512
  + scalability graph: 
1, 1.36329, 1.52423, 1.62017, 1.68565, 1.73398, 1.77154, 1.80182, 1.8269, 1.84812, 1.86637, 1.88229, 1.89634, 1.90885, 1.92009, 1.93026, 1.93952, 1.94799, 1.95579, 1.963, 1.96968, 1.9759, 1.98172, 1.98716, 1.99228, 1.9971, 2.00164, 2.00594, 2.01002, 2.01389, 2.01757, 2.02108, 2.02443, 2.02763, 2.03069, 2.03362, 2.03644, 2.03914, 2.04173, 2.04423, 
Number of clients: 11

+++++++++++++++++++++++++++++++++++++++++++++++++++++++++++
+ Client Mapping:
  > Client 51458 (4):	37 38 39 11 
  > Client 51456 (4):	13 14 15 32 
  > Client 51453 (4):	28 29 30 12 
  > Client 51454 (4):	25 26 27 31 
  > Client 51455 (4):	22 23 24 10 
  > Client 51464 (3):	34 35 36 
  > Client 51459 (3):	6 7 8 
  > Client 51460 (3):	3 4 5 
  > Client 51457 (3):	0 1 2 
  > Client 51461 (3):	19 20 21 
  > Client 51462 (4):	16 17 18 9 

+ Core Mapping:	51457 51457 51457 51460 51460 51460 51459 51459 51459 51462 51455 51458 51453 51456 51456 51456 51462 51462 51462 51461 51461 51461 51455 51455 51455 51454 51454 51454 51453 51453 51453 51454 51456 0 51464 51464 51464 51458 51458 51458 
+ Optimal point: 4 4 4 4 4 4 3 3 3 3 4 
+++++++++++++++++++++++++++++++++++++++++++++++++++++++++++
++++++++++++++++++++++++++++++++++++++++++++++++
 + TIMESTAMP: 48.4492
REINVADE (51464)
  + pid: 51464
  + min_cores: 1
  + max_cores: 512
  + scalability graph: 
1, 1.36329, 1.52423, 1.62017, 1.68565, 1.73398, 1.77154, 1.80182, 1.8269, 1.84812, 1.86637, 1.88229, 1.89634, 1.90885, 1.92009, 1.93026, 1.93952, 1.94799, 1.95579, 1.963, 1.96968, 1.9759, 1.98172, 1.98716, 1.99228, 1.9971, 2.00164, 2.00594, 2.01002, 2.01389, 2.01757, 2.02108, 2.02443, 2.02763, 2.03069, 2.03362, 2.03644, 2.03914, 2.04173, 2.04423, 
Number of clients: 11

+++++++++++++++++++++++++++++++++++++++++++++++++++++++++++
+ Client Mapping:
  > Client 51458 (4):	37 38 39 11 
  > Client 51456 (4):	13 14 15 32 
  > Client 51453 (4):	28 29 30 12 
  > Client 51454 (4):	25 26 27 31 
  > Client 51455 (4):	22 23 24 10 
  > Client 51464 (4):	34 35 36 33 
  > Client 51459 (3):	6 7 8 
  > Client 51460 (3):	3 4 5 
  > Client 51457 (3):	0 1 2 
  > Client 51461 (3):	19 20 21 
  > Client 51462 (4):	16 17 18 9 

+ Core Mapping:	51457 51457 51457 51460 51460 51460 51459 51459 51459 51462 51455 51458 51453 51456 51456 51456 51462 51462 51462 51461 51461 51461 51455 51455 51455 51454 51454 51454 51453 51453 51453 51454 51456 51464 51464 51464 51464 51458 51458 51458 
+ Optimal point: 4 4 4 4 4 4 3 3 3 3 4 
+++++++++++++++++++++++++++++++++++++++++++++++++++++++++++
CLIENT SHUTDOWN: client 51455
 + TIMESTAMP: 48.6268
+++++++++++++++++++++++++++++++++++++++++++++++++++++++++++
+ Client Mapping:
  > Client 51458 (4):	37 38 39 11 
  > Client 51456 (4):	13 14 15 32 
  > Client 51453 (4):	28 29 30 12 
  > Client 51454 (4):	25 26 27 31 
  > Client 51455 (0):	
  > Client 51464 (4):	34 35 36 33 
  > Client 51459 (3):	6 7 8 
  > Client 51460 (3):	3 4 5 
  > Client 51457 (3):	0 1 2 
  > Client 51461 (3):	19 20 21 
  > Client 51462 (4):	16 17 18 9 

+ Core Mapping:	51457 51457 51457 51460 51460 51460 51459 51459 51459 51462 0 51458 51453 51456 51456 51456 51462 51462 51462 51461 51461 51461 0 0 0 51454 51454 51454 51453 51453 51453 51454 51456 51464 51464 51464 51464 51458 51458 51458 
+ Optimal point: 4 4 4 4 4 4 3 3 3 3 4 
+++++++++++++++++++++++++++++++++++++++++++++++++++++++++++
client (51455) shutdown hint: 437.984
sum_client_shutdown_hint: 1313.95
sum_client_shutdown_hint_div_time: 0
++++++++++++++++++++++++++++++++++++++++++++++++
 + TIMESTAMP: 48.6278
REINVADE (51461)
  + pid: 51461
  + min_cores: 1
  + max_cores: 512
  + scalability graph: 
1, 1.36329, 1.52423, 1.62017, 1.68565, 1.73398, 1.77154, 1.80182, 1.8269, 1.84812, 1.86637, 1.88229, 1.89634, 1.90885, 1.92009, 1.93026, 1.93952, 1.94799, 1.95579, 1.963, 1.96968, 1.9759, 1.98172, 1.98716, 1.99228, 1.9971, 2.00164, 2.00594, 2.01002, 2.01389, 2.01757, 2.02108, 2.02443, 2.02763, 2.03069, 2.03362, 2.03644, 2.03914, 2.04173, 2.04423, 
Number of clients: 10

+++++++++++++++++++++++++++++++++++++++++++++++++++++++++++
+ Client Mapping:
  > Client 51458 (4):	37 38 39 11 
  > Client 51456 (4):	13 14 15 32 
  > Client 51453 (4):	28 29 30 12 
  > Client 51454 (4):	25 26 27 31 
  > Client 51464 (4):	34 35 36 33 
  > Client 51459 (3):	6 7 8 
  > Client 51460 (3):	3 4 5 
  > Client 51457 (3):	0 1 2 
  > Client 51461 (4):	19 20 21 10 
  > Client 51462 (4):	16 17 18 9 

+ Core Mapping:	51457 51457 51457 51460 51460 51460 51459 51459 51459 51462 51461 51458 51453 51456 51456 51456 51462 51462 51462 51461 51461 51461 0 0 0 51454 51454 51454 51453 51453 51453 51454 51456 51464 51464 51464 51464 51458 51458 51458 
+ Optimal point: 4 4 4 4 4 4 4 4 4 4 
+++++++++++++++++++++++++++++++++++++++++++++++++++++++++++
++++++++++++++++++++++++++++++++++++++++++++++++
 + TIMESTAMP: 48.628
REINVADE (51460)
  + pid: 51460
  + min_cores: 1
  + max_cores: 512
  + scalability graph: 
1, 1.36329, 1.52423, 1.62017, 1.68565, 1.73398, 1.77154, 1.80182, 1.8269, 1.84812, 1.86637, 1.88229, 1.89634, 1.90885, 1.92009, 1.93026, 1.93952, 1.94799, 1.95579, 1.963, 1.96968, 1.9759, 1.98172, 1.98716, 1.99228, 1.9971, 2.00164, 2.00594, 2.01002, 2.01389, 2.01757, 2.02108, 2.02443, 2.02763, 2.03069, 2.03362, 2.03644, 2.03914, 2.04173, 2.04423, 
Number of clients: 10

+++++++++++++++++++++++++++++++++++++++++++++++++++++++++++
+ Client Mapping:
  > Client 51458 (4):	37 38 39 11 
  > Client 51456 (4):	13 14 15 32 
  > Client 51453 (4):	28 29 30 12 
  > Client 51454 (4):	25 26 27 31 
  > Client 51464 (4):	34 35 36 33 
  > Client 51459 (3):	6 7 8 
  > Client 51460 (4):	3 4 5 22 
  > Client 51457 (3):	0 1 2 
  > Client 51461 (4):	19 20 21 10 
  > Client 51462 (4):	16 17 18 9 

+ Core Mapping:	51457 51457 51457 51460 51460 51460 51459 51459 51459 51462 51461 51458 51453 51456 51456 51456 51462 51462 51462 51461 51461 51461 51460 0 0 51454 51454 51454 51453 51453 51453 51454 51456 51464 51464 51464 51464 51458 51458 51458 
+ Optimal point: 4 4 4 4 4 4 4 4 4 4 
+++++++++++++++++++++++++++++++++++++++++++++++++++++++++++
++++++++++++++++++++++++++++++++++++++++++++++++
 + TIMESTAMP: 48.6281
REINVADE (51459)
  + pid: 51459
  + min_cores: 1
  + max_cores: 512
  + scalability graph: 
1, 1.36329, 1.52423, 1.62017, 1.68565, 1.73398, 1.77154, 1.80182, 1.8269, 1.84812, 1.86637, 1.88229, 1.89634, 1.90885, 1.92009, 1.93026, 1.93952, 1.94799, 1.95579, 1.963, 1.96968, 1.9759, 1.98172, 1.98716, 1.99228, 1.9971, 2.00164, 2.00594, 2.01002, 2.01389, 2.01757, 2.02108, 2.02443, 2.02763, 2.03069, 2.03362, 2.03644, 2.03914, 2.04173, 2.04423, 
Number of clients: 10

+++++++++++++++++++++++++++++++++++++++++++++++++++++++++++
+ Client Mapping:
  > Client 51458 (4):	37 38 39 11 
  > Client 51456 (4):	13 14 15 32 
  > Client 51453 (4):	28 29 30 12 
  > Client 51454 (4):	25 26 27 31 
  > Client 51464 (4):	34 35 36 33 
  > Client 51459 (4):	6 7 8 23 
  > Client 51460 (4):	3 4 5 22 
  > Client 51457 (3):	0 1 2 
  > Client 51461 (4):	19 20 21 10 
  > Client 51462 (4):	16 17 18 9 

+ Core Mapping:	51457 51457 51457 51460 51460 51460 51459 51459 51459 51462 51461 51458 51453 51456 51456 51456 51462 51462 51462 51461 51461 51461 51460 51459 0 51454 51454 51454 51453 51453 51453 51454 51456 51464 51464 51464 51464 51458 51458 51458 
+ Optimal point: 4 4 4 4 4 4 4 4 4 4 
+++++++++++++++++++++++++++++++++++++++++++++++++++++++++++
++++++++++++++++++++++++++++++++++++++++++++++++
 + TIMESTAMP: 48.6288
REINVADE (51457)
  + pid: 51457
  + min_cores: 1
  + max_cores: 512
  + scalability graph: 
1, 1.36329, 1.52423, 1.62017, 1.68565, 1.73398, 1.77154, 1.80182, 1.8269, 1.84812, 1.86637, 1.88229, 1.89634, 1.90885, 1.92009, 1.93026, 1.93952, 1.94799, 1.95579, 1.963, 1.96968, 1.9759, 1.98172, 1.98716, 1.99228, 1.9971, 2.00164, 2.00594, 2.01002, 2.01389, 2.01757, 2.02108, 2.02443, 2.02763, 2.03069, 2.03362, 2.03644, 2.03914, 2.04173, 2.04423, 
Number of clients: 10

+++++++++++++++++++++++++++++++++++++++++++++++++++++++++++
+ Client Mapping:
  > Client 51458 (4):	37 38 39 11 
  > Client 51456 (4):	13 14 15 32 
  > Client 51453 (4):	28 29 30 12 
  > Client 51454 (4):	25 26 27 31 
  > Client 51464 (4):	34 35 36 33 
  > Client 51459 (4):	6 7 8 23 
  > Client 51460 (4):	3 4 5 22 
  > Client 51457 (4):	0 1 2 24 
  > Client 51461 (4):	19 20 21 10 
  > Client 51462 (4):	16 17 18 9 

+ Core Mapping:	51457 51457 51457 51460 51460 51460 51459 51459 51459 51462 51461 51458 51453 51456 51456 51456 51462 51462 51462 51461 51461 51461 51460 51459 51457 51454 51454 51454 51453 51453 51453 51454 51456 51464 51464 51464 51464 51458 51458 51458 
+ Optimal point: 4 4 4 4 4 4 4 4 4 4 
+++++++++++++++++++++++++++++++++++++++++++++++++++++++++++
CLIENT SHUTDOWN: client 51458
 + TIMESTAMP: 48.6859
+++++++++++++++++++++++++++++++++++++++++++++++++++++++++++
+ Client Mapping:
  > Client 51458 (0):	
  > Client 51456 (4):	13 14 15 32 
  > Client 51453 (4):	28 29 30 12 
  > Client 51454 (4):	25 26 27 31 
  > Client 51464 (4):	34 35 36 33 
  > Client 51459 (4):	6 7 8 23 
  > Client 51460 (4):	3 4 5 22 
  > Client 51457 (4):	0 1 2 24 
  > Client 51461 (4):	19 20 21 10 
  > Client 51462 (4):	16 17 18 9 

+ Core Mapping:	51457 51457 51457 51460 51460 51460 51459 51459 51459 51462 51461 0 51453 51456 51456 51456 51462 51462 51462 51461 51461 51461 51460 51459 51457 51454 51454 51454 51453 51453 51453 51454 51456 51464 51464 51464 51464 0 0 0 
+ Optimal point: 4 4 4 4 4 4 4 4 4 4 
+++++++++++++++++++++++++++++++++++++++++++++++++++++++++++
client (51458) shutdown hint: 437.984
sum_client_shutdown_hint: 1751.94
sum_client_shutdown_hint_div_time: 0
++++++++++++++++++++++++++++++++++++++++++++++++
 + TIMESTAMP: 48.6865
REINVADE (51464)
  + pid: 51464
  + min_cores: 1
  + max_cores: 512
  + scalability graph: 
1, 1.36329, 1.52423, 1.62017, 1.68565, 1.73398, 1.77154, 1.80182, 1.8269, 1.84812, 1.86637, 1.88229, 1.89634, 1.90885, 1.92009, 1.93026, 1.93952, 1.94799, 1.95579, 1.963, 1.96968, 1.9759, 1.98172, 1.98716, 1.99228, 1.9971, 2.00164, 2.00594, 2.01002, 2.01389, 2.01757, 2.02108, 2.02443, 2.02763, 2.03069, 2.03362, 2.03644, 2.03914, 2.04173, 2.04423, 
Number of clients: 9

+++++++++++++++++++++++++++++++++++++++++++++++++++++++++++
+ Client Mapping:
  > Client 51456 (4):	13 14 15 32 
  > Client 51453 (4):	28 29 30 12 
  > Client 51454 (4):	25 26 27 31 
  > Client 51464 (5):	34 35 36 33 11 
  > Client 51459 (4):	6 7 8 23 
  > Client 51460 (4):	3 4 5 22 
  > Client 51457 (4):	0 1 2 24 
  > Client 51461 (4):	19 20 21 10 
  > Client 51462 (4):	16 17 18 9 

+ Core Mapping:	51457 51457 51457 51460 51460 51460 51459 51459 51459 51462 51461 51464 51453 51456 51456 51456 51462 51462 51462 51461 51461 51461 51460 51459 51457 51454 51454 51454 51453 51453 51453 51454 51456 51464 51464 51464 51464 0 0 0 
+ Optimal point: 5 5 5 5 4 4 4 4 4 
+++++++++++++++++++++++++++++++++++++++++++++++++++++++++++
++++++++++++++++++++++++++++++++++++++++++++++++
 + TIMESTAMP: 48.6868
REINVADE (51454)
  + pid: 51454
  + min_cores: 1
  + max_cores: 512
  + scalability graph: 
1, 1.36329, 1.52423, 1.62017, 1.68565, 1.73398, 1.77154, 1.80182, 1.8269, 1.84812, 1.86637, 1.88229, 1.89634, 1.90885, 1.92009, 1.93026, 1.93952, 1.94799, 1.95579, 1.963, 1.96968, 1.9759, 1.98172, 1.98716, 1.99228, 1.9971, 2.00164, 2.00594, 2.01002, 2.01389, 2.01757, 2.02108, 2.02443, 2.02763, 2.03069, 2.03362, 2.03644, 2.03914, 2.04173, 2.04423, 
Number of clients: 9

+++++++++++++++++++++++++++++++++++++++++++++++++++++++++++
+ Client Mapping:
  > Client 51456 (4):	13 14 15 32 
  > Client 51453 (4):	28 29 30 12 
  > Client 51454 (5):	25 26 27 31 37 
  > Client 51464 (5):	34 35 36 33 11 
  > Client 51459 (4):	6 7 8 23 
  > Client 51460 (4):	3 4 5 22 
  > Client 51457 (4):	0 1 2 24 
  > Client 51461 (4):	19 20 21 10 
  > Client 51462 (4):	16 17 18 9 

+ Core Mapping:	51457 51457 51457 51460 51460 51460 51459 51459 51459 51462 51461 51464 51453 51456 51456 51456 51462 51462 51462 51461 51461 51461 51460 51459 51457 51454 51454 51454 51453 51453 51453 51454 51456 51464 51464 51464 51464 51454 0 0 
+ Optimal point: 5 5 5 5 4 4 4 4 4 
+++++++++++++++++++++++++++++++++++++++++++++++++++++++++++
++++++++++++++++++++++++++++++++++++++++++++++++
 + TIMESTAMP: 48.6876
REINVADE (51453)
  + pid: 51453
  + min_cores: 1
  + max_cores: 512
  + scalability graph: 
1, 1.36329, 1.52423, 1.62017, 1.68565, 1.73398, 1.77154, 1.80182, 1.8269, 1.84812, 1.86637, 1.88229, 1.89634, 1.90885, 1.92009, 1.93026, 1.93952, 1.94799, 1.95579, 1.963, 1.96968, 1.9759, 1.98172, 1.98716, 1.99228, 1.9971, 2.00164, 2.00594, 2.01002, 2.01389, 2.01757, 2.02108, 2.02443, 2.02763, 2.03069, 2.03362, 2.03644, 2.03914, 2.04173, 2.04423, 
Number of clients: 9

+++++++++++++++++++++++++++++++++++++++++++++++++++++++++++
+ Client Mapping:
  > Client 51456 (4):	13 14 15 32 
  > Client 51453 (5):	28 29 30 12 38 
  > Client 51454 (5):	25 26 27 31 37 
  > Client 51464 (5):	34 35 36 33 11 
  > Client 51459 (4):	6 7 8 23 
  > Client 51460 (4):	3 4 5 22 
  > Client 51457 (4):	0 1 2 24 
  > Client 51461 (4):	19 20 21 10 
  > Client 51462 (4):	16 17 18 9 

+ Core Mapping:	51457 51457 51457 51460 51460 51460 51459 51459 51459 51462 51461 51464 51453 51456 51456 51456 51462 51462 51462 51461 51461 51461 51460 51459 51457 51454 51454 51454 51453 51453 51453 51454 51456 51464 51464 51464 51464 51454 51453 0 
+ Optimal point: 5 5 5 5 4 4 4 4 4 
+++++++++++++++++++++++++++++++++++++++++++++++++++++++++++
CLIENT SHUTDOWN: client 51462
 + TIMESTAMP: 48.6886
+++++++++++++++++++++++++++++++++++++++++++++++++++++++++++
+ Client Mapping:
  > Client 51456 (4):	13 14 15 32 
  > Client 51453 (5):	28 29 30 12 38 
  > Client 51454 (5):	25 26 27 31 37 
  > Client 51464 (5):	34 35 36 33 11 
  > Client 51459 (4):	6 7 8 23 
  > Client 51460 (4):	3 4 5 22 
  > Client 51457 (4):	0 1 2 24 
  > Client 51461 (4):	19 20 21 10 
  > Client 51462 (0):	

+ Core Mapping:	51457 51457 51457 51460 51460 51460 51459 51459 51459 0 51461 51464 51453 51456 51456 51456 0 0 0 51461 51461 51461 51460 51459 51457 51454 51454 51454 51453 51453 51453 51454 51456 51464 51464 51464 51464 51454 51453 0 
+ Optimal point: 5 5 5 5 4 4 4 4 4 
+++++++++++++++++++++++++++++++++++++++++++++++++++++++++++
client (51462) shutdown hint: 437.984
sum_client_shutdown_hint: 2189.92
sum_client_shutdown_hint_div_time: 0
++++++++++++++++++++++++++++++++++++++++++++++++
 + TIMESTAMP: 48.6888
REINVADE (51460)
  + pid: 51460
  + min_cores: 1
  + max_cores: 512
  + scalability graph: 
1, 1.36329, 1.52423, 1.62017, 1.68565, 1.73398, 1.77154, 1.80182, 1.8269, 1.84812, 1.86637, 1.88229, 1.89634, 1.90885, 1.92009, 1.93026, 1.93952, 1.94799, 1.95579, 1.963, 1.96968, 1.9759, 1.98172, 1.98716, 1.99228, 1.9971, 2.00164, 2.00594, 2.01002, 2.01389, 2.01757, 2.02108, 2.02443, 2.02763, 2.03069, 2.03362, 2.03644, 2.03914, 2.04173, 2.04423, 
Number of clients: 8

+++++++++++++++++++++++++++++++++++++++++++++++++++++++++++
+ Client Mapping:
  > Client 51456 (4):	13 14 15 32 
  > Client 51453 (5):	28 29 30 12 38 
  > Client 51454 (5):	25 26 27 31 37 
  > Client 51464 (5):	34 35 36 33 11 
  > Client 51459 (4):	6 7 8 23 
  > Client 51460 (5):	3 4 5 22 9 
  > Client 51457 (4):	0 1 2 24 
  > Client 51461 (4):	19 20 21 10 

+ Core Mapping:	51457 51457 51457 51460 51460 51460 51459 51459 51459 51460 51461 51464 51453 51456 51456 51456 0 0 0 51461 51461 51461 51460 51459 51457 51454 51454 51454 51453 51453 51453 51454 51456 51464 51464 51464 51464 51454 51453 0 
+ Optimal point: 5 5 5 5 5 5 5 5 
+++++++++++++++++++++++++++++++++++++++++++++++++++++++++++
++++++++++++++++++++++++++++++++++++++++++++++++
 + TIMESTAMP: 48.689
REINVADE (51456)
  + pid: 51456
  + min_cores: 1
  + max_cores: 512
  + scalability graph: 
1, 1.36329, 1.52423, 1.62017, 1.68565, 1.73398, 1.77154, 1.80182, 1.8269, 1.84812, 1.86637, 1.88229, 1.89634, 1.90885, 1.92009, 1.93026, 1.93952, 1.94799, 1.95579, 1.963, 1.96968, 1.9759, 1.98172, 1.98716, 1.99228, 1.9971, 2.00164, 2.00594, 2.01002, 2.01389, 2.01757, 2.02108, 2.02443, 2.02763, 2.03069, 2.03362, 2.03644, 2.03914, 2.04173, 2.04423, 
Number of clients: 8

+++++++++++++++++++++++++++++++++++++++++++++++++++++++++++
+ Client Mapping:
  > Client 51456 (5):	13 14 15 32 16 
  > Client 51453 (5):	28 29 30 12 38 
  > Client 51454 (5):	25 26 27 31 37 
  > Client 51464 (5):	34 35 36 33 11 
  > Client 51459 (4):	6 7 8 23 
  > Client 51460 (5):	3 4 5 22 9 
  > Client 51457 (4):	0 1 2 24 
  > Client 51461 (4):	19 20 21 10 

+ Core Mapping:	51457 51457 51457 51460 51460 51460 51459 51459 51459 51460 51461 51464 51453 51456 51456 51456 51456 0 0 51461 51461 51461 51460 51459 51457 51454 51454 51454 51453 51453 51453 51454 51456 51464 51464 51464 51464 51454 51453 0 
+ Optimal point: 5 5 5 5 5 5 5 5 
+++++++++++++++++++++++++++++++++++++++++++++++++++++++++++
++++++++++++++++++++++++++++++++++++++++++++++++
 + TIMESTAMP: 48.6891
REINVADE (51457)
  + pid: 51457
  + min_cores: 1
  + max_cores: 512
  + scalability graph: 
1, 1.36329, 1.52423, 1.62017, 1.68565, 1.73398, 1.77154, 1.80182, 1.8269, 1.84812, 1.86637, 1.88229, 1.89634, 1.90885, 1.92009, 1.93026, 1.93952, 1.94799, 1.95579, 1.963, 1.96968, 1.9759, 1.98172, 1.98716, 1.99228, 1.9971, 2.00164, 2.00594, 2.01002, 2.01389, 2.01757, 2.02108, 2.02443, 2.02763, 2.03069, 2.03362, 2.03644, 2.03914, 2.04173, 2.04423, 
Number of clients: 8

+++++++++++++++++++++++++++++++++++++++++++++++++++++++++++
+ Client Mapping:
  > Client 51456 (5):	13 14 15 32 16 
  > Client 51453 (5):	28 29 30 12 38 
  > Client 51454 (5):	25 26 27 31 37 
  > Client 51464 (5):	34 35 36 33 11 
  > Client 51459 (4):	6 7 8 23 
  > Client 51460 (5):	3 4 5 22 9 
  > Client 51457 (5):	0 1 2 24 17 
  > Client 51461 (4):	19 20 21 10 

+ Core Mapping:	51457 51457 51457 51460 51460 51460 51459 51459 51459 51460 51461 51464 51453 51456 51456 51456 51456 51457 0 51461 51461 51461 51460 51459 51457 51454 51454 51454 51453 51453 51453 51454 51456 51464 51464 51464 51464 51454 51453 0 
+ Optimal point: 5 5 5 5 5 5 5 5 
+++++++++++++++++++++++++++++++++++++++++++++++++++++++++++
++++++++++++++++++++++++++++++++++++++++++++++++
 + TIMESTAMP: 48.6896
REINVADE (51459)
  + pid: 51459
  + min_cores: 1
  + max_cores: 512
  + scalability graph: 
1, 1.36329, 1.52423, 1.62017, 1.68565, 1.73398, 1.77154, 1.80182, 1.8269, 1.84812, 1.86637, 1.88229, 1.89634, 1.90885, 1.92009, 1.93026, 1.93952, 1.94799, 1.95579, 1.963, 1.96968, 1.9759, 1.98172, 1.98716, 1.99228, 1.9971, 2.00164, 2.00594, 2.01002, 2.01389, 2.01757, 2.02108, 2.02443, 2.02763, 2.03069, 2.03362, 2.03644, 2.03914, 2.04173, 2.04423, 
Number of clients: 8

+++++++++++++++++++++++++++++++++++++++++++++++++++++++++++
+ Client Mapping:
  > Client 51456 (5):	13 14 15 32 16 
  > Client 51453 (5):	28 29 30 12 38 
  > Client 51454 (5):	25 26 27 31 37 
  > Client 51464 (5):	34 35 36 33 11 
  > Client 51459 (5):	6 7 8 23 18 
  > Client 51460 (5):	3 4 5 22 9 
  > Client 51457 (5):	0 1 2 24 17 
  > Client 51461 (4):	19 20 21 10 

+ Core Mapping:	51457 51457 51457 51460 51460 51460 51459 51459 51459 51460 51461 51464 51453 51456 51456 51456 51456 51457 51459 51461 51461 51461 51460 51459 51457 51454 51454 51454 51453 51453 51453 51454 51456 51464 51464 51464 51464 51454 51453 0 
+ Optimal point: 5 5 5 5 5 5 5 5 
+++++++++++++++++++++++++++++++++++++++++++++++++++++++++++
++++++++++++++++++++++++++++++++++++++++++++++++
 + TIMESTAMP: 48.6906
REINVADE (51461)
  + pid: 51461
  + min_cores: 1
  + max_cores: 512
  + scalability graph: 
1, 1.36329, 1.52423, 1.62017, 1.68565, 1.73398, 1.77154, 1.80182, 1.8269, 1.84812, 1.86637, 1.88229, 1.89634, 1.90885, 1.92009, 1.93026, 1.93952, 1.94799, 1.95579, 1.963, 1.96968, 1.9759, 1.98172, 1.98716, 1.99228, 1.9971, 2.00164, 2.00594, 2.01002, 2.01389, 2.01757, 2.02108, 2.02443, 2.02763, 2.03069, 2.03362, 2.03644, 2.03914, 2.04173, 2.04423, 
Number of clients: 8

+++++++++++++++++++++++++++++++++++++++++++++++++++++++++++
+ Client Mapping:
  > Client 51456 (5):	13 14 15 32 16 
  > Client 51453 (5):	28 29 30 12 38 
  > Client 51454 (5):	25 26 27 31 37 
  > Client 51464 (5):	34 35 36 33 11 
  > Client 51459 (5):	6 7 8 23 18 
  > Client 51460 (5):	3 4 5 22 9 
  > Client 51457 (5):	0 1 2 24 17 
  > Client 51461 (5):	19 20 21 10 39 

+ Core Mapping:	51457 51457 51457 51460 51460 51460 51459 51459 51459 51460 51461 51464 51453 51456 51456 51456 51456 51457 51459 51461 51461 51461 51460 51459 51457 51454 51454 51454 51453 51453 51453 51454 51456 51464 51464 51464 51464 51454 51453 51461 
+ Optimal point: 5 5 5 5 5 5 5 5 
+++++++++++++++++++++++++++++++++++++++++++++++++++++++++++
CLIENT SHUTDOWN: client 51454
 + TIMESTAMP: 49.5633
+++++++++++++++++++++++++++++++++++++++++++++++++++++++++++
+ Client Mapping:
  > Client 51456 (5):	13 14 15 32 16 
  > Client 51453 (5):	28 29 30 12 38 
  > Client 51454 (0):	
  > Client 51464 (5):	34 35 36 33 11 
  > Client 51459 (5):	6 7 8 23 18 
  > Client 51460 (5):	3 4 5 22 9 
  > Client 51457 (5):	0 1 2 24 17 
  > Client 51461 (5):	19 20 21 10 39 

+ Core Mapping:	51457 51457 51457 51460 51460 51460 51459 51459 51459 51460 51461 51464 51453 51456 51456 51456 51456 51457 51459 51461 51461 51461 51460 51459 51457 0 0 0 51453 51453 51453 0 51456 51464 51464 51464 51464 0 51453 51461 
+ Optimal point: 5 5 5 5 5 5 5 5 
+++++++++++++++++++++++++++++++++++++++++++++++++++++++++++
client (51454) shutdown hint: 437.984
sum_client_shutdown_hint: 2627.9
sum_client_shutdown_hint_div_time: 0
++++++++++++++++++++++++++++++++++++++++++++++++
 + TIMESTAMP: 49.5635
REINVADE (51453)
  + pid: 51453
  + min_cores: 1
  + max_cores: 512
  + scalability graph: 
1, 1.36329, 1.52423, 1.62017, 1.68565, 1.73398, 1.77154, 1.80182, 1.8269, 1.84812, 1.86637, 1.88229, 1.89634, 1.90885, 1.92009, 1.93026, 1.93952, 1.94799, 1.95579, 1.963, 1.96968, 1.9759, 1.98172, 1.98716, 1.99228, 1.9971, 2.00164, 2.00594, 2.01002, 2.01389, 2.01757, 2.02108, 2.02443, 2.02763, 2.03069, 2.03362, 2.03644, 2.03914, 2.04173, 2.04423, 
Number of clients: 7

+++++++++++++++++++++++++++++++++++++++++++++++++++++++++++
+ Client Mapping:
  > Client 51456 (5):	13 14 15 32 16 
  > Client 51453 (6):	28 29 30 12 38 25 
  > Client 51464 (5):	34 35 36 33 11 
  > Client 51459 (5):	6 7 8 23 18 
  > Client 51460 (5):	3 4 5 22 9 
  > Client 51457 (5):	0 1 2 24 17 
  > Client 51461 (5):	19 20 21 10 39 

+ Core Mapping:	51457 51457 51457 51460 51460 51460 51459 51459 51459 51460 51461 51464 51453 51456 51456 51456 51456 51457 51459 51461 51461 51461 51460 51459 51457 51453 0 0 51453 51453 51453 0 51456 51464 51464 51464 51464 0 51453 51461 
+ Optimal point: 6 6 6 6 6 5 5 
+++++++++++++++++++++++++++++++++++++++++++++++++++++++++++
++++++++++++++++++++++++++++++++++++++++++++++++
 + TIMESTAMP: 49.5636
REINVADE (51459)
  + pid: 51459
  + min_cores: 1
  + max_cores: 512
  + scalability graph: 
1, 1.36329, 1.52423, 1.62017, 1.68565, 1.73398, 1.77154, 1.80182, 1.8269, 1.84812, 1.86637, 1.88229, 1.89634, 1.90885, 1.92009, 1.93026, 1.93952, 1.94799, 1.95579, 1.963, 1.96968, 1.9759, 1.98172, 1.98716, 1.99228, 1.9971, 2.00164, 2.00594, 2.01002, 2.01389, 2.01757, 2.02108, 2.02443, 2.02763, 2.03069, 2.03362, 2.03644, 2.03914, 2.04173, 2.04423, 
Number of clients: 7

+++++++++++++++++++++++++++++++++++++++++++++++++++++++++++
+ Client Mapping:
  > Client 51456 (5):	13 14 15 32 16 
  > Client 51453 (6):	28 29 30 12 38 25 
  > Client 51464 (5):	34 35 36 33 11 
  > Client 51459 (6):	6 7 8 23 18 26 
  > Client 51460 (5):	3 4 5 22 9 
  > Client 51457 (5):	0 1 2 24 17 
  > Client 51461 (5):	19 20 21 10 39 

+ Core Mapping:	51457 51457 51457 51460 51460 51460 51459 51459 51459 51460 51461 51464 51453 51456 51456 51456 51456 51457 51459 51461 51461 51461 51460 51459 51457 51453 51459 0 51453 51453 51453 0 51456 51464 51464 51464 51464 0 51453 51461 
+ Optimal point: 6 6 6 6 6 5 5 
+++++++++++++++++++++++++++++++++++++++++++++++++++++++++++
++++++++++++++++++++++++++++++++++++++++++++++++
 + TIMESTAMP: 49.5638
REINVADE (51460)
  + pid: 51460
  + min_cores: 1
  + max_cores: 512
  + scalability graph: 
1, 1.36329, 1.52423, 1.62017, 1.68565, 1.73398, 1.77154, 1.80182, 1.8269, 1.84812, 1.86637, 1.88229, 1.89634, 1.90885, 1.92009, 1.93026, 1.93952, 1.94799, 1.95579, 1.963, 1.96968, 1.9759, 1.98172, 1.98716, 1.99228, 1.9971, 2.00164, 2.00594, 2.01002, 2.01389, 2.01757, 2.02108, 2.02443, 2.02763, 2.03069, 2.03362, 2.03644, 2.03914, 2.04173, 2.04423, 
Number of clients: 7

+++++++++++++++++++++++++++++++++++++++++++++++++++++++++++
+ Client Mapping:
  > Client 51456 (5):	13 14 15 32 16 
  > Client 51453 (6):	28 29 30 12 38 25 
  > Client 51464 (5):	34 35 36 33 11 
  > Client 51459 (6):	6 7 8 23 18 26 
  > Client 51460 (6):	3 4 5 22 9 27 
  > Client 51457 (5):	0 1 2 24 17 
  > Client 51461 (5):	19 20 21 10 39 

+ Core Mapping:	51457 51457 51457 51460 51460 51460 51459 51459 51459 51460 51461 51464 51453 51456 51456 51456 51456 51457 51459 51461 51461 51461 51460 51459 51457 51453 51459 51460 51453 51453 51453 0 51456 51464 51464 51464 51464 0 51453 51461 
+ Optimal point: 6 6 6 6 6 5 5 
+++++++++++++++++++++++++++++++++++++++++++++++++++++++++++
++++++++++++++++++++++++++++++++++++++++++++++++
 + TIMESTAMP: 49.5641
REINVADE (51456)
  + pid: 51456
  + min_cores: 1
  + max_cores: 512
  + scalability graph: 
1, 1.36329, 1.52423, 1.62017, 1.68565, 1.73398, 1.77154, 1.80182, 1.8269, 1.84812, 1.86637, 1.88229, 1.89634, 1.90885, 1.92009, 1.93026, 1.93952, 1.94799, 1.95579, 1.963, 1.96968, 1.9759, 1.98172, 1.98716, 1.99228, 1.9971, 2.00164, 2.00594, 2.01002, 2.01389, 2.01757, 2.02108, 2.02443, 2.02763, 2.03069, 2.03362, 2.03644, 2.03914, 2.04173, 2.04423, 
Number of clients: 7

+++++++++++++++++++++++++++++++++++++++++++++++++++++++++++
+ Client Mapping:
  > Client 51456 (6):	13 14 15 32 16 31 
  > Client 51453 (6):	28 29 30 12 38 25 
  > Client 51464 (5):	34 35 36 33 11 
  > Client 51459 (6):	6 7 8 23 18 26 
  > Client 51460 (6):	3 4 5 22 9 27 
  > Client 51457 (5):	0 1 2 24 17 
  > Client 51461 (5):	19 20 21 10 39 

+ Core Mapping:	51457 51457 51457 51460 51460 51460 51459 51459 51459 51460 51461 51464 51453 51456 51456 51456 51456 51457 51459 51461 51461 51461 51460 51459 51457 51453 51459 51460 51453 51453 51453 51456 51456 51464 51464 51464 51464 0 51453 51461 
+ Optimal point: 6 6 6 6 6 5 5 
+++++++++++++++++++++++++++++++++++++++++++++++++++++++++++
++++++++++++++++++++++++++++++++++++++++++++++++
 + TIMESTAMP: 49.5649
REINVADE (51464)
  + pid: 51464
  + min_cores: 1
  + max_cores: 512
  + scalability graph: 
1, 1.36329, 1.52423, 1.62017, 1.68565, 1.73398, 1.77154, 1.80182, 1.8269, 1.84812, 1.86637, 1.88229, 1.89634, 1.90885, 1.92009, 1.93026, 1.93952, 1.94799, 1.95579, 1.963, 1.96968, 1.9759, 1.98172, 1.98716, 1.99228, 1.9971, 2.00164, 2.00594, 2.01002, 2.01389, 2.01757, 2.02108, 2.02443, 2.02763, 2.03069, 2.03362, 2.03644, 2.03914, 2.04173, 2.04423, 
Number of clients: 7

+++++++++++++++++++++++++++++++++++++++++++++++++++++++++++
+ Client Mapping:
  > Client 51456 (6):	13 14 15 32 16 31 
  > Client 51453 (6):	28 29 30 12 38 25 
  > Client 51464 (6):	34 35 36 33 11 37 
  > Client 51459 (6):	6 7 8 23 18 26 
  > Client 51460 (6):	3 4 5 22 9 27 
  > Client 51457 (5):	0 1 2 24 17 
  > Client 51461 (5):	19 20 21 10 39 

+ Core Mapping:	51457 51457 51457 51460 51460 51460 51459 51459 51459 51460 51461 51464 51453 51456 51456 51456 51456 51457 51459 51461 51461 51461 51460 51459 51457 51453 51459 51460 51453 51453 51453 51456 51456 51464 51464 51464 51464 51464 51453 51461 
+ Optimal point: 6 6 6 6 6 5 5 
+++++++++++++++++++++++++++++++++++++++++++++++++++++++++++
CLIENT SHUTDOWN: client 51460
 + TIMESTAMP: 50.0173
+++++++++++++++++++++++++++++++++++++++++++++++++++++++++++
+ Client Mapping:
  > Client 51456 (6):	13 14 15 32 16 31 
  > Client 51453 (6):	28 29 30 12 38 25 
  > Client 51464 (6):	34 35 36 33 11 37 
  > Client 51459 (6):	6 7 8 23 18 26 
  > Client 51460 (0):	
  > Client 51457 (5):	0 1 2 24 17 
  > Client 51461 (5):	19 20 21 10 39 

+ Core Mapping:	51457 51457 51457 0 0 0 51459 51459 51459 0 51461 51464 51453 51456 51456 51456 51456 51457 51459 51461 51461 51461 0 51459 51457 51453 51459 0 51453 51453 51453 51456 51456 51464 51464 51464 51464 51464 51453 51461 
+ Optimal point: 6 6 6 6 6 5 5 
+++++++++++++++++++++++++++++++++++++++++++++++++++++++++++
client (51460) shutdown hint: 437.984
sum_client_shutdown_hint: 3065.89
sum_client_shutdown_hint_div_time: 0
++++++++++++++++++++++++++++++++++++++++++++++++
 + TIMESTAMP: 50.0174
REINVADE (51464)
  + pid: 51464
  + min_cores: 1
  + max_cores: 512
  + scalability graph: 
1, 1.36329, 1.52423, 1.62017, 1.68565, 1.73398, 1.77154, 1.80182, 1.8269, 1.84812, 1.86637, 1.88229, 1.89634, 1.90885, 1.92009, 1.93026, 1.93952, 1.94799, 1.95579, 1.963, 1.96968, 1.9759, 1.98172, 1.98716, 1.99228, 1.9971, 2.00164, 2.00594, 2.01002, 2.01389, 2.01757, 2.02108, 2.02443, 2.02763, 2.03069, 2.03362, 2.03644, 2.03914, 2.04173, 2.04423, 
Number of clients: 6

+++++++++++++++++++++++++++++++++++++++++++++++++++++++++++
+ Client Mapping:
  > Client 51456 (6):	13 14 15 32 16 31 
  > Client 51453 (6):	28 29 30 12 38 25 
  > Client 51464 (7):	34 35 36 33 11 37 3 
  > Client 51459 (6):	6 7 8 23 18 26 
  > Client 51457 (5):	0 1 2 24 17 
  > Client 51461 (5):	19 20 21 10 39 

+ Core Mapping:	51457 51457 51457 51464 0 0 51459 51459 51459 0 51461 51464 51453 51456 51456 51456 51456 51457 51459 51461 51461 51461 0 51459 51457 51453 51459 0 51453 51453 51453 51456 51456 51464 51464 51464 51464 51464 51453 51461 
+ Optimal point: 7 7 7 7 6 6 
+++++++++++++++++++++++++++++++++++++++++++++++++++++++++++
++++++++++++++++++++++++++++++++++++++++++++++++
 + TIMESTAMP: 50.0178
REINVADE (51459)
  + pid: 51459
  + min_cores: 1
  + max_cores: 512
  + scalability graph: 
1, 1.36329, 1.52423, 1.62017, 1.68565, 1.73398, 1.77154, 1.80182, 1.8269, 1.84812, 1.86637, 1.88229, 1.89634, 1.90885, 1.92009, 1.93026, 1.93952, 1.94799, 1.95579, 1.963, 1.96968, 1.9759, 1.98172, 1.98716, 1.99228, 1.9971, 2.00164, 2.00594, 2.01002, 2.01389, 2.01757, 2.02108, 2.02443, 2.02763, 2.03069, 2.03362, 2.03644, 2.03914, 2.04173, 2.04423, 
Number of clients: 6

+++++++++++++++++++++++++++++++++++++++++++++++++++++++++++
+ Client Mapping:
  > Client 51456 (6):	13 14 15 32 16 31 
  > Client 51453 (6):	28 29 30 12 38 25 
  > Client 51464 (7):	34 35 36 33 11 37 3 
  > Client 51459 (7):	6 7 8 23 18 26 4 
  > Client 51457 (5):	0 1 2 24 17 
  > Client 51461 (5):	19 20 21 10 39 

+ Core Mapping:	51457 51457 51457 51464 51459 0 51459 51459 51459 0 51461 51464 51453 51456 51456 51456 51456 51457 51459 51461 51461 51461 0 51459 51457 51453 51459 0 51453 51453 51453 51456 51456 51464 51464 51464 51464 51464 51453 51461 
+ Optimal point: 7 7 7 7 6 6 
+++++++++++++++++++++++++++++++++++++++++++++++++++++++++++
++++++++++++++++++++++++++++++++++++++++++++++++
 + TIMESTAMP: 50.0181
REINVADE (51456)
  + pid: 51456
  + min_cores: 1
  + max_cores: 512
  + scalability graph: 
1, 1.36329, 1.52423, 1.62017, 1.68565, 1.73398, 1.77154, 1.80182, 1.8269, 1.84812, 1.86637, 1.88229, 1.89634, 1.90885, 1.92009, 1.93026, 1.93952, 1.94799, 1.95579, 1.963, 1.96968, 1.9759, 1.98172, 1.98716, 1.99228, 1.9971, 2.00164, 2.00594, 2.01002, 2.01389, 2.01757, 2.02108, 2.02443, 2.02763, 2.03069, 2.03362, 2.03644, 2.03914, 2.04173, 2.04423, 
Number of clients: 6

+++++++++++++++++++++++++++++++++++++++++++++++++++++++++++
+ Client Mapping:
  > Client 51456 (7):	13 14 15 32 16 31 5 
  > Client 51453 (6):	28 29 30 12 38 25 
  > Client 51464 (7):	34 35 36 33 11 37 3 
  > Client 51459 (7):	6 7 8 23 18 26 4 
  > Client 51457 (5):	0 1 2 24 17 
  > Client 51461 (5):	19 20 21 10 39 

+ Core Mapping:	51457 51457 51457 51464 51459 51456 51459 51459 51459 0 51461 51464 51453 51456 51456 51456 51456 51457 51459 51461 51461 51461 0 51459 51457 51453 51459 0 51453 51453 51453 51456 51456 51464 51464 51464 51464 51464 51453 51461 
+ Optimal point: 7 7 7 7 6 6 
+++++++++++++++++++++++++++++++++++++++++++++++++++++++++++
++++++++++++++++++++++++++++++++++++++++++++++++
 + TIMESTAMP: 50.0182
REINVADE (51453)
  + pid: 51453
  + min_cores: 1
  + max_cores: 512
  + scalability graph: 
1, 1.36329, 1.52423, 1.62017, 1.68565, 1.73398, 1.77154, 1.80182, 1.8269, 1.84812, 1.86637, 1.88229, 1.89634, 1.90885, 1.92009, 1.93026, 1.93952, 1.94799, 1.95579, 1.963, 1.96968, 1.9759, 1.98172, 1.98716, 1.99228, 1.9971, 2.00164, 2.00594, 2.01002, 2.01389, 2.01757, 2.02108, 2.02443, 2.02763, 2.03069, 2.03362, 2.03644, 2.03914, 2.04173, 2.04423, 
Number of clients: 6

+++++++++++++++++++++++++++++++++++++++++++++++++++++++++++
+ Client Mapping:
  > Client 51456 (7):	13 14 15 32 16 31 5 
  > Client 51453 (7):	28 29 30 12 38 25 9 
  > Client 51464 (7):	34 35 36 33 11 37 3 
  > Client 51459 (7):	6 7 8 23 18 26 4 
  > Client 51457 (5):	0 1 2 24 17 
  > Client 51461 (5):	19 20 21 10 39 

+ Core Mapping:	51457 51457 51457 51464 51459 51456 51459 51459 51459 51453 51461 51464 51453 51456 51456 51456 51456 51457 51459 51461 51461 51461 0 51459 51457 51453 51459 0 51453 51453 51453 51456 51456 51464 51464 51464 51464 51464 51453 51461 
+ Optimal point: 7 7 7 7 6 6 
+++++++++++++++++++++++++++++++++++++++++++++++++++++++++++
++++++++++++++++++++++++++++++++++++++++++++++++
 + TIMESTAMP: 50.0183
REINVADE (51461)
  + pid: 51461
  + min_cores: 1
  + max_cores: 512
  + scalability graph: 
1, 1.36329, 1.52423, 1.62017, 1.68565, 1.73398, 1.77154, 1.80182, 1.8269, 1.84812, 1.86637, 1.88229, 1.89634, 1.90885, 1.92009, 1.93026, 1.93952, 1.94799, 1.95579, 1.963, 1.96968, 1.9759, 1.98172, 1.98716, 1.99228, 1.9971, 2.00164, 2.00594, 2.01002, 2.01389, 2.01757, 2.02108, 2.02443, 2.02763, 2.03069, 2.03362, 2.03644, 2.03914, 2.04173, 2.04423, 
Number of clients: 6

+++++++++++++++++++++++++++++++++++++++++++++++++++++++++++
+ Client Mapping:
  > Client 51456 (7):	13 14 15 32 16 31 5 
  > Client 51453 (7):	28 29 30 12 38 25 9 
  > Client 51464 (7):	34 35 36 33 11 37 3 
  > Client 51459 (7):	6 7 8 23 18 26 4 
  > Client 51457 (5):	0 1 2 24 17 
  > Client 51461 (6):	19 20 21 10 39 22 

+ Core Mapping:	51457 51457 51457 51464 51459 51456 51459 51459 51459 51453 51461 51464 51453 51456 51456 51456 51456 51457 51459 51461 51461 51461 51461 51459 51457 51453 51459 0 51453 51453 51453 51456 51456 51464 51464 51464 51464 51464 51453 51461 
+ Optimal point: 7 7 7 7 6 6 
+++++++++++++++++++++++++++++++++++++++++++++++++++++++++++
++++++++++++++++++++++++++++++++++++++++++++++++
 + TIMESTAMP: 50.0184
REINVADE (51457)
  + pid: 51457
  + min_cores: 1
  + max_cores: 512
  + scalability graph: 
1, 1.36329, 1.52423, 1.62017, 1.68565, 1.73398, 1.77154, 1.80182, 1.8269, 1.84812, 1.86637, 1.88229, 1.89634, 1.90885, 1.92009, 1.93026, 1.93952, 1.94799, 1.95579, 1.963, 1.96968, 1.9759, 1.98172, 1.98716, 1.99228, 1.9971, 2.00164, 2.00594, 2.01002, 2.01389, 2.01757, 2.02108, 2.02443, 2.02763, 2.03069, 2.03362, 2.03644, 2.03914, 2.04173, 2.04423, 
Number of clients: 6

+++++++++++++++++++++++++++++++++++++++++++++++++++++++++++
+ Client Mapping:
  > Client 51456 (7):	13 14 15 32 16 31 5 
  > Client 51453 (7):	28 29 30 12 38 25 9 
  > Client 51464 (7):	34 35 36 33 11 37 3 
  > Client 51459 (7):	6 7 8 23 18 26 4 
  > Client 51457 (6):	0 1 2 24 17 27 
  > Client 51461 (6):	19 20 21 10 39 22 

+ Core Mapping:	51457 51457 51457 51464 51459 51456 51459 51459 51459 51453 51461 51464 51453 51456 51456 51456 51456 51457 51459 51461 51461 51461 51461 51459 51457 51453 51459 51457 51453 51453 51453 51456 51456 51464 51464 51464 51464 51464 51453 51461 
+ Optimal point: 7 7 7 7 6 6 
+++++++++++++++++++++++++++++++++++++++++++++++++++++++++++
CLIENT SHUTDOWN: client 51456
 + TIMESTAMP: 50.3021
+++++++++++++++++++++++++++++++++++++++++++++++++++++++++++
+ Client Mapping:
  > Client 51456 (0):	
  > Client 51453 (7):	28 29 30 12 38 25 9 
  > Client 51464 (7):	34 35 36 33 11 37 3 
  > Client 51459 (7):	6 7 8 23 18 26 4 
  > Client 51457 (6):	0 1 2 24 17 27 
  > Client 51461 (6):	19 20 21 10 39 22 

+ Core Mapping:	51457 51457 51457 51464 51459 0 51459 51459 51459 51453 51461 51464 51453 0 0 0 0 51457 51459 51461 51461 51461 51461 51459 51457 51453 51459 51457 51453 51453 51453 0 0 51464 51464 51464 51464 51464 51453 51461 
+ Optimal point: 7 7 7 7 6 6 
+++++++++++++++++++++++++++++++++++++++++++++++++++++++++++
client (51456) shutdown hint: 437.984
sum_client_shutdown_hint: 3503.87
sum_client_shutdown_hint_div_time: 0
++++++++++++++++++++++++++++++++++++++++++++++++
 + TIMESTAMP: 50.3024
REINVADE (51457)
  + pid: 51457
  + min_cores: 1
  + max_cores: 512
  + scalability graph: 
1, 1.36329, 1.52423, 1.62017, 1.68565, 1.73398, 1.77154, 1.80182, 1.8269, 1.84812, 1.86637, 1.88229, 1.89634, 1.90885, 1.92009, 1.93026, 1.93952, 1.94799, 1.95579, 1.963, 1.96968, 1.9759, 1.98172, 1.98716, 1.99228, 1.9971, 2.00164, 2.00594, 2.01002, 2.01389, 2.01757, 2.02108, 2.02443, 2.02763, 2.03069, 2.03362, 2.03644, 2.03914, 2.04173, 2.04423, 
Number of clients: 5

+++++++++++++++++++++++++++++++++++++++++++++++++++++++++++
+ Client Mapping:
  > Client 51453 (7):	28 29 30 12 38 25 9 
  > Client 51464 (7):	34 35 36 33 11 37 3 
  > Client 51459 (7):	6 7 8 23 18 26 4 
  > Client 51457 (8):	0 1 2 24 17 27 5 13 
  > Client 51461 (6):	19 20 21 10 39 22 

+ Core Mapping:	51457 51457 51457 51464 51459 51457 51459 51459 51459 51453 51461 51464 51453 51457 0 0 0 51457 51459 51461 51461 51461 51461 51459 51457 51453 51459 51457 51453 51453 51453 0 0 51464 51464 51464 51464 51464 51453 51461 
+ Optimal point: 8 8 8 8 8 
+++++++++++++++++++++++++++++++++++++++++++++++++++++++++++
++++++++++++++++++++++++++++++++++++++++++++++++
 + TIMESTAMP: 50.3026
REINVADE (51461)
  + pid: 51461
  + min_cores: 1
  + max_cores: 512
  + scalability graph: 
1, 1.36329, 1.52423, 1.62017, 1.68565, 1.73398, 1.77154, 1.80182, 1.8269, 1.84812, 1.86637, 1.88229, 1.89634, 1.90885, 1.92009, 1.93026, 1.93952, 1.94799, 1.95579, 1.963, 1.96968, 1.9759, 1.98172, 1.98716, 1.99228, 1.9971, 2.00164, 2.00594, 2.01002, 2.01389, 2.01757, 2.02108, 2.02443, 2.02763, 2.03069, 2.03362, 2.03644, 2.03914, 2.04173, 2.04423, 
Number of clients: 5

+++++++++++++++++++++++++++++++++++++++++++++++++++++++++++
+ Client Mapping:
  > Client 51453 (7):	28 29 30 12 38 25 9 
  > Client 51464 (7):	34 35 36 33 11 37 3 
  > Client 51459 (7):	6 7 8 23 18 26 4 
  > Client 51457 (8):	0 1 2 24 17 27 5 13 
  > Client 51461 (8):	19 20 21 10 39 22 14 15 

+ Core Mapping:	51457 51457 51457 51464 51459 51457 51459 51459 51459 51453 51461 51464 51453 51457 51461 51461 0 51457 51459 51461 51461 51461 51461 51459 51457 51453 51459 51457 51453 51453 51453 0 0 51464 51464 51464 51464 51464 51453 51461 
+ Optimal point: 8 8 8 8 8 
+++++++++++++++++++++++++++++++++++++++++++++++++++++++++++
++++++++++++++++++++++++++++++++++++++++++++++++
 + TIMESTAMP: 50.3028
REINVADE (51453)
  + pid: 51453
  + min_cores: 1
  + max_cores: 512
  + scalability graph: 
1, 1.36329, 1.52423, 1.62017, 1.68565, 1.73398, 1.77154, 1.80182, 1.8269, 1.84812, 1.86637, 1.88229, 1.89634, 1.90885, 1.92009, 1.93026, 1.93952, 1.94799, 1.95579, 1.963, 1.96968, 1.9759, 1.98172, 1.98716, 1.99228, 1.9971, 2.00164, 2.00594, 2.01002, 2.01389, 2.01757, 2.02108, 2.02443, 2.02763, 2.03069, 2.03362, 2.03644, 2.03914, 2.04173, 2.04423, 
Number of clients: 5

+++++++++++++++++++++++++++++++++++++++++++++++++++++++++++
+ Client Mapping:
  > Client 51453 (8):	28 29 30 12 38 25 9 16 
  > Client 51464 (7):	34 35 36 33 11 37 3 
  > Client 51459 (7):	6 7 8 23 18 26 4 
  > Client 51457 (8):	0 1 2 24 17 27 5 13 
  > Client 51461 (8):	19 20 21 10 39 22 14 15 

+ Core Mapping:	51457 51457 51457 51464 51459 51457 51459 51459 51459 51453 51461 51464 51453 51457 51461 51461 51453 51457 51459 51461 51461 51461 51461 51459 51457 51453 51459 51457 51453 51453 51453 0 0 51464 51464 51464 51464 51464 51453 51461 
+ Optimal point: 8 8 8 8 8 
+++++++++++++++++++++++++++++++++++++++++++++++++++++++++++
++++++++++++++++++++++++++++++++++++++++++++++++
 + TIMESTAMP: 50.3029
REINVADE (51464)
  + pid: 51464
  + min_cores: 1
  + max_cores: 512
  + scalability graph: 
1, 1.36329, 1.52423, 1.62017, 1.68565, 1.73398, 1.77154, 1.80182, 1.8269, 1.84812, 1.86637, 1.88229, 1.89634, 1.90885, 1.92009, 1.93026, 1.93952, 1.94799, 1.95579, 1.963, 1.96968, 1.9759, 1.98172, 1.98716, 1.99228, 1.9971, 2.00164, 2.00594, 2.01002, 2.01389, 2.01757, 2.02108, 2.02443, 2.02763, 2.03069, 2.03362, 2.03644, 2.03914, 2.04173, 2.04423, 
Number of clients: 5

+++++++++++++++++++++++++++++++++++++++++++++++++++++++++++
+ Client Mapping:
  > Client 51453 (8):	28 29 30 12 38 25 9 16 
  > Client 51464 (8):	34 35 36 33 11 37 3 31 
  > Client 51459 (7):	6 7 8 23 18 26 4 
  > Client 51457 (8):	0 1 2 24 17 27 5 13 
  > Client 51461 (8):	19 20 21 10 39 22 14 15 

+ Core Mapping:	51457 51457 51457 51464 51459 51457 51459 51459 51459 51453 51461 51464 51453 51457 51461 51461 51453 51457 51459 51461 51461 51461 51461 51459 51457 51453 51459 51457 51453 51453 51453 51464 0 51464 51464 51464 51464 51464 51453 51461 
+ Optimal point: 8 8 8 8 8 
+++++++++++++++++++++++++++++++++++++++++++++++++++++++++++
++++++++++++++++++++++++++++++++++++++++++++++++
 + TIMESTAMP: 50.303
REINVADE (51459)
  + pid: 51459
  + min_cores: 1
  + max_cores: 512
  + scalability graph: 
1, 1.36329, 1.52423, 1.62017, 1.68565, 1.73398, 1.77154, 1.80182, 1.8269, 1.84812, 1.86637, 1.88229, 1.89634, 1.90885, 1.92009, 1.93026, 1.93952, 1.94799, 1.95579, 1.963, 1.96968, 1.9759, 1.98172, 1.98716, 1.99228, 1.9971, 2.00164, 2.00594, 2.01002, 2.01389, 2.01757, 2.02108, 2.02443, 2.02763, 2.03069, 2.03362, 2.03644, 2.03914, 2.04173, 2.04423, 
Number of clients: 5

+++++++++++++++++++++++++++++++++++++++++++++++++++++++++++
+ Client Mapping:
  > Client 51453 (8):	28 29 30 12 38 25 9 16 
  > Client 51464 (8):	34 35 36 33 11 37 3 31 
  > Client 51459 (8):	6 7 8 23 18 26 4 32 
  > Client 51457 (8):	0 1 2 24 17 27 5 13 
  > Client 51461 (8):	19 20 21 10 39 22 14 15 

+ Core Mapping:	51457 51457 51457 51464 51459 51457 51459 51459 51459 51453 51461 51464 51453 51457 51461 51461 51453 51457 51459 51461 51461 51461 51461 51459 51457 51453 51459 51457 51453 51453 51453 51464 51459 51464 51464 51464 51464 51464 51453 51461 
+ Optimal point: 8 8 8 8 8 
+++++++++++++++++++++++++++++++++++++++++++++++++++++++++++
CLIENT SHUTDOWN: client 51459
 + TIMESTAMP: 50.3713
+++++++++++++++++++++++++++++++++++++++++++++++++++++++++++
+ Client Mapping:
  > Client 51453 (8):	28 29 30 12 38 25 9 16 
  > Client 51464 (8):	34 35 36 33 11 37 3 31 
  > Client 51459 (0):	
  > Client 51457 (8):	0 1 2 24 17 27 5 13 
  > Client 51461 (8):	19 20 21 10 39 22 14 15 

+ Core Mapping:	51457 51457 51457 51464 0 51457 0 0 0 51453 51461 51464 51453 51457 51461 51461 51453 51457 0 51461 51461 51461 51461 0 51457 51453 0 51457 51453 51453 51453 51464 0 51464 51464 51464 51464 51464 51453 51461 
+ Optimal point: 8 8 8 8 8 
+++++++++++++++++++++++++++++++++++++++++++++++++++++++++++
client (51459) shutdown hint: 437.984
sum_client_shutdown_hint: 3941.86
sum_client_shutdown_hint_div_time: 0
++++++++++++++++++++++++++++++++++++++++++++++++
 + TIMESTAMP: 50.3716
REINVADE (51457)
  + pid: 51457
  + min_cores: 1
  + max_cores: 512
  + scalability graph: 
1, 1.36329, 1.52423, 1.62017, 1.68565, 1.73398, 1.77154, 1.80182, 1.8269, 1.84812, 1.86637, 1.88229, 1.89634, 1.90885, 1.92009, 1.93026, 1.93952, 1.94799, 1.95579, 1.963, 1.96968, 1.9759, 1.98172, 1.98716, 1.99228, 1.9971, 2.00164, 2.00594, 2.01002, 2.01389, 2.01757, 2.02108, 2.02443, 2.02763, 2.03069, 2.03362, 2.03644, 2.03914, 2.04173, 2.04423, 
Number of clients: 4

+++++++++++++++++++++++++++++++++++++++++++++++++++++++++++
+ Client Mapping:
  > Client 51453 (8):	28 29 30 12 38 25 9 16 
  > Client 51464 (8):	34 35 36 33 11 37 3 31 
  > Client 51457 (10):	0 1 2 24 17 27 5 13 4 6 
  > Client 51461 (8):	19 20 21 10 39 22 14 15 

+ Core Mapping:	51457 51457 51457 51464 51457 51457 51457 0 0 51453 51461 51464 51453 51457 51461 51461 51453 51457 0 51461 51461 51461 51461 0 51457 51453 0 51457 51453 51453 51453 51464 0 51464 51464 51464 51464 51464 51453 51461 
+ Optimal point: 10 10 10 10 
+++++++++++++++++++++++++++++++++++++++++++++++++++++++++++
++++++++++++++++++++++++++++++++++++++++++++++++
 + TIMESTAMP: 50.3719
REINVADE (51464)
  + pid: 51464
  + min_cores: 1
  + max_cores: 512
  + scalability graph: 
1, 1.36329, 1.52423, 1.62017, 1.68565, 1.73398, 1.77154, 1.80182, 1.8269, 1.84812, 1.86637, 1.88229, 1.89634, 1.90885, 1.92009, 1.93026, 1.93952, 1.94799, 1.95579, 1.963, 1.96968, 1.9759, 1.98172, 1.98716, 1.99228, 1.9971, 2.00164, 2.00594, 2.01002, 2.01389, 2.01757, 2.02108, 2.02443, 2.02763, 2.03069, 2.03362, 2.03644, 2.03914, 2.04173, 2.04423, 
Number of clients: 4

+++++++++++++++++++++++++++++++++++++++++++++++++++++++++++
+ Client Mapping:
  > Client 51453 (8):	28 29 30 12 38 25 9 16 
  > Client 51464 (10):	34 35 36 33 11 37 3 31 7 8 
  > Client 51457 (10):	0 1 2 24 17 27 5 13 4 6 
  > Client 51461 (8):	19 20 21 10 39 22 14 15 

+ Core Mapping:	51457 51457 51457 51464 51457 51457 51457 51464 51464 51453 51461 51464 51453 51457 51461 51461 51453 51457 0 51461 51461 51461 51461 0 51457 51453 0 51457 51453 51453 51453 51464 0 51464 51464 51464 51464 51464 51453 51461 
+ Optimal point: 10 10 10 10 
+++++++++++++++++++++++++++++++++++++++++++++++++++++++++++
++++++++++++++++++++++++++++++++++++++++++++++++
 + TIMESTAMP: 50.372
REINVADE (51453)
  + pid: 51453
  + min_cores: 1
  + max_cores: 512
  + scalability graph: 
1, 1.36329, 1.52423, 1.62017, 1.68565, 1.73398, 1.77154, 1.80182, 1.8269, 1.84812, 1.86637, 1.88229, 1.89634, 1.90885, 1.92009, 1.93026, 1.93952, 1.94799, 1.95579, 1.963, 1.96968, 1.9759, 1.98172, 1.98716, 1.99228, 1.9971, 2.00164, 2.00594, 2.01002, 2.01389, 2.01757, 2.02108, 2.02443, 2.02763, 2.03069, 2.03362, 2.03644, 2.03914, 2.04173, 2.04423, 
Number of clients: 4

+++++++++++++++++++++++++++++++++++++++++++++++++++++++++++
+ Client Mapping:
  > Client 51453 (10):	28 29 30 12 38 25 9 16 18 23 
  > Client 51464 (10):	34 35 36 33 11 37 3 31 7 8 
  > Client 51457 (10):	0 1 2 24 17 27 5 13 4 6 
  > Client 51461 (8):	19 20 21 10 39 22 14 15 

+ Core Mapping:	51457 51457 51457 51464 51457 51457 51457 51464 51464 51453 51461 51464 51453 51457 51461 51461 51453 51457 51453 51461 51461 51461 51461 51453 51457 51453 0 51457 51453 51453 51453 51464 0 51464 51464 51464 51464 51464 51453 51461 
+ Optimal point: 10 10 10 10 
+++++++++++++++++++++++++++++++++++++++++++++++++++++++++++
++++++++++++++++++++++++++++++++++++++++++++++++
 + TIMESTAMP: 50.3722
REINVADE (51461)
  + pid: 51461
  + min_cores: 1
  + max_cores: 512
  + scalability graph: 
1, 1.36329, 1.52423, 1.62017, 1.68565, 1.73398, 1.77154, 1.80182, 1.8269, 1.84812, 1.86637, 1.88229, 1.89634, 1.90885, 1.92009, 1.93026, 1.93952, 1.94799, 1.95579, 1.963, 1.96968, 1.9759, 1.98172, 1.98716, 1.99228, 1.9971, 2.00164, 2.00594, 2.01002, 2.01389, 2.01757, 2.02108, 2.02443, 2.02763, 2.03069, 2.03362, 2.03644, 2.03914, 2.04173, 2.04423, 
Number of clients: 4

+++++++++++++++++++++++++++++++++++++++++++++++++++++++++++
+ Client Mapping:
  > Client 51453 (10):	28 29 30 12 38 25 9 16 18 23 
  > Client 51464 (10):	34 35 36 33 11 37 3 31 7 8 
  > Client 51457 (10):	0 1 2 24 17 27 5 13 4 6 
  > Client 51461 (10):	19 20 21 10 39 22 14 15 26 32 

+ Core Mapping:	51457 51457 51457 51464 51457 51457 51457 51464 51464 51453 51461 51464 51453 51457 51461 51461 51453 51457 51453 51461 51461 51461 51461 51453 51457 51453 51461 51457 51453 51453 51453 51464 51461 51464 51464 51464 51464 51464 51453 51461 
+ Optimal point: 10 10 10 10 
+++++++++++++++++++++++++++++++++++++++++++++++++++++++++++
CLIENT SHUTDOWN: client 51457
 + TIMESTAMP: 50.4249
+++++++++++++++++++++++++++++++++++++++++++++++++++++++++++
+ Client Mapping:
  > Client 51453 (10):	28 29 30 12 38 25 9 16 18 23 
  > Client 51464 (10):	34 35 36 33 11 37 3 31 7 8 
  > Client 51457 (0):	
  > Client 51461 (10):	19 20 21 10 39 22 14 15 26 32 

+ Core Mapping:	0 0 0 51464 0 0 0 51464 51464 51453 51461 51464 51453 0 51461 51461 51453 0 51453 51461 51461 51461 51461 51453 0 51453 51461 0 51453 51453 51453 51464 51461 51464 51464 51464 51464 51464 51453 51461 
+ Optimal point: 10 10 10 10 
+++++++++++++++++++++++++++++++++++++++++++++++++++++++++++
client (51457) shutdown hint: 437.984
sum_client_shutdown_hint: 4379.84
sum_client_shutdown_hint_div_time: 0
++++++++++++++++++++++++++++++++++++++++++++++++
 + TIMESTAMP: 50.425
REINVADE (51453)
  + pid: 51453
  + min_cores: 1
  + max_cores: 512
  + scalability graph: 
1, 1.36329, 1.52423, 1.62017, 1.68565, 1.73398, 1.77154, 1.80182, 1.8269, 1.84812, 1.86637, 1.88229, 1.89634, 1.90885, 1.92009, 1.93026, 1.93952, 1.94799, 1.95579, 1.963, 1.96968, 1.9759, 1.98172, 1.98716, 1.99228, 1.9971, 2.00164, 2.00594, 2.01002, 2.01389, 2.01757, 2.02108, 2.02443, 2.02763, 2.03069, 2.03362, 2.03644, 2.03914, 2.04173, 2.04423, 
Number of clients: 3

+++++++++++++++++++++++++++++++++++++++++++++++++++++++++++
+ Client Mapping:
  > Client 51453 (14):	28 29 30 12 38 25 9 16 18 23 0 1 2 4 
  > Client 51464 (10):	34 35 36 33 11 37 3 31 7 8 
  > Client 51461 (10):	19 20 21 10 39 22 14 15 26 32 

+ Core Mapping:	51453 51453 51453 51464 51453 0 0 51464 51464 51453 51461 51464 51453 0 51461 51461 51453 0 51453 51461 51461 51461 51461 51453 0 51453 51461 0 51453 51453 51453 51464 51461 51464 51464 51464 51464 51464 51453 51461 
+ Optimal point: 14 13 13 
+++++++++++++++++++++++++++++++++++++++++++++++++++++++++++
++++++++++++++++++++++++++++++++++++++++++++++++
 + TIMESTAMP: 50.4252
REINVADE (51461)
  + pid: 51461
  + min_cores: 1
  + max_cores: 512
  + scalability graph: 
1, 1.36329, 1.52423, 1.62017, 1.68565, 1.73398, 1.77154, 1.80182, 1.8269, 1.84812, 1.86637, 1.88229, 1.89634, 1.90885, 1.92009, 1.93026, 1.93952, 1.94799, 1.95579, 1.963, 1.96968, 1.9759, 1.98172, 1.98716, 1.99228, 1.9971, 2.00164, 2.00594, 2.01002, 2.01389, 2.01757, 2.02108, 2.02443, 2.02763, 2.03069, 2.03362, 2.03644, 2.03914, 2.04173, 2.04423, 
Number of clients: 3

+++++++++++++++++++++++++++++++++++++++++++++++++++++++++++
+ Client Mapping:
  > Client 51453 (14):	28 29 30 12 38 25 9 16 18 23 0 1 2 4 
  > Client 51464 (10):	34 35 36 33 11 37 3 31 7 8 
  > Client 51461 (13):	19 20 21 10 39 22 14 15 26 32 5 6 13 

+ Core Mapping:	51453 51453 51453 51464 51453 51461 51461 51464 51464 51453 51461 51464 51453 51461 51461 51461 51453 0 51453 51461 51461 51461 51461 51453 0 51453 51461 0 51453 51453 51453 51464 51461 51464 51464 51464 51464 51464 51453 51461 
+ Optimal point: 14 13 13 
+++++++++++++++++++++++++++++++++++++++++++++++++++++++++++
++++++++++++++++++++++++++++++++++++++++++++++++
 + TIMESTAMP: 50.4257
REINVADE (51464)
  + pid: 51464
  + min_cores: 1
  + max_cores: 512
  + scalability graph: 
1, 1.36329, 1.52423, 1.62017, 1.68565, 1.73398, 1.77154, 1.80182, 1.8269, 1.84812, 1.86637, 1.88229, 1.89634, 1.90885, 1.92009, 1.93026, 1.93952, 1.94799, 1.95579, 1.963, 1.96968, 1.9759, 1.98172, 1.98716, 1.99228, 1.9971, 2.00164, 2.00594, 2.01002, 2.01389, 2.01757, 2.02108, 2.02443, 2.02763, 2.03069, 2.03362, 2.03644, 2.03914, 2.04173, 2.04423, 
Number of clients: 3

+++++++++++++++++++++++++++++++++++++++++++++++++++++++++++
+ Client Mapping:
  > Client 51453 (14):	28 29 30 12 38 25 9 16 18 23 0 1 2 4 
  > Client 51464 (13):	34 35 36 33 11 37 3 31 7 8 17 24 27 
  > Client 51461 (13):	19 20 21 10 39 22 14 15 26 32 5 6 13 

+ Core Mapping:	51453 51453 51453 51464 51453 51461 51461 51464 51464 51453 51461 51464 51453 51461 51461 51461 51453 51464 51453 51461 51461 51461 51461 51453 51464 51453 51461 51464 51453 51453 51453 51464 51461 51464 51464 51464 51464 51464 51453 51461 
+ Optimal point: 14 13 13 
+++++++++++++++++++++++++++++++++++++++++++++++++++++++++++
CLIENT SHUTDOWN: client 51461
 + TIMESTAMP: 50.5732
+++++++++++++++++++++++++++++++++++++++++++++++++++++++++++
+ Client Mapping:
  > Client 51453 (14):	28 29 30 12 38 25 9 16 18 23 0 1 2 4 
  > Client 51464 (13):	34 35 36 33 11 37 3 31 7 8 17 24 27 
  > Client 51461 (0):	

+ Core Mapping:	51453 51453 51453 51464 51453 0 0 51464 51464 51453 0 51464 51453 0 0 0 51453 51464 51453 0 0 0 0 51453 51464 51453 0 51464 51453 51453 51453 51464 0 51464 51464 51464 51464 51464 51453 0 
+ Optimal point: 14 13 13 
+++++++++++++++++++++++++++++++++++++++++++++++++++++++++++
client (51461) shutdown hint: 437.984
sum_client_shutdown_hint: 4817.82
sum_client_shutdown_hint_div_time: 0
++++++++++++++++++++++++++++++++++++++++++++++++
 + TIMESTAMP: 50.5737
REINVADE (51464)
  + pid: 51464
  + min_cores: 1
  + max_cores: 512
  + scalability graph: 
1, 1.36329, 1.52423, 1.62017, 1.68565, 1.73398, 1.77154, 1.80182, 1.8269, 1.84812, 1.86637, 1.88229, 1.89634, 1.90885, 1.92009, 1.93026, 1.93952, 1.94799, 1.95579, 1.963, 1.96968, 1.9759, 1.98172, 1.98716, 1.99228, 1.9971, 2.00164, 2.00594, 2.01002, 2.01389, 2.01757, 2.02108, 2.02443, 2.02763, 2.03069, 2.03362, 2.03644, 2.03914, 2.04173, 2.04423, 
Number of clients: 2

+++++++++++++++++++++++++++++++++++++++++++++++++++++++++++
+ Client Mapping:
  > Client 51453 (14):	28 29 30 12 38 25 9 16 18 23 0 1 2 4 
  > Client 51464 (20):	34 35 36 33 11 37 3 31 7 8 17 24 27 5 6 10 13 14 15 19 

+ Core Mapping:	51453 51453 51453 51464 51453 51464 51464 51464 51464 51453 51464 51464 51453 51464 51464 51464 51453 51464 51453 51464 0 0 0 51453 51464 51453 0 51464 51453 51453 51453 51464 0 51464 51464 51464 51464 51464 51453 0 
+ Optimal point: 20 20 
+++++++++++++++++++++++++++++++++++++++++++++++++++++++++++
++++++++++++++++++++++++++++++++++++++++++++++++
 + TIMESTAMP: 50.5738
REINVADE (51453)
  + pid: 51453
  + min_cores: 1
  + max_cores: 512
  + scalability graph: 
1, 1.36329, 1.52423, 1.62017, 1.68565, 1.73398, 1.77154, 1.80182, 1.8269, 1.84812, 1.86637, 1.88229, 1.89634, 1.90885, 1.92009, 1.93026, 1.93952, 1.94799, 1.95579, 1.963, 1.96968, 1.9759, 1.98172, 1.98716, 1.99228, 1.9971, 2.00164, 2.00594, 2.01002, 2.01389, 2.01757, 2.02108, 2.02443, 2.02763, 2.03069, 2.03362, 2.03644, 2.03914, 2.04173, 2.04423, 
Number of clients: 2

+++++++++++++++++++++++++++++++++++++++++++++++++++++++++++
+ Client Mapping:
  > Client 51453 (20):	28 29 30 12 38 25 9 16 18 23 0 1 2 4 20 21 22 26 32 39 
  > Client 51464 (20):	34 35 36 33 11 37 3 31 7 8 17 24 27 5 6 10 13 14 15 19 

+ Core Mapping:	51453 51453 51453 51464 51453 51464 51464 51464 51464 51453 51464 51464 51453 51464 51464 51464 51453 51464 51453 51464 51453 51453 51453 51453 51464 51453 51453 51464 51453 51453 51453 51464 51453 51464 51464 51464 51464 51464 51453 51453 
+ Optimal point: 20 20 
+++++++++++++++++++++++++++++++++++++++++++++++++++++++++++
CLIENT SHUTDOWN: client 51453
 + TIMESTAMP: 50.6178
+++++++++++++++++++++++++++++++++++++++++++++++++++++++++++
+ Client Mapping:
  > Client 51453 (0):	
  > Client 51464 (20):	34 35 36 33 11 37 3 31 7 8 17 24 27 5 6 10 13 14 15 19 

+ Core Mapping:	0 0 0 51464 0 51464 51464 51464 51464 0 51464 51464 0 51464 51464 51464 0 51464 0 51464 0 0 0 0 51464 0 0 51464 0 0 0 51464 0 51464 51464 51464 51464 51464 0 0 
+ Optimal point: 20 20 
+++++++++++++++++++++++++++++++++++++++++++++++++++++++++++
client (51453) shutdown hint: 437.984
sum_client_shutdown_hint: 5255.81
sum_client_shutdown_hint_div_time: 0
++++++++++++++++++++++++++++++++++++++++++++++++
 + TIMESTAMP: 50.6181
REINVADE (51464)
  + pid: 51464
  + min_cores: 1
  + max_cores: 512
  + scalability graph: 
1, 1.36329, 1.52423, 1.62017, 1.68565, 1.73398, 1.77154, 1.80182, 1.8269, 1.84812, 1.86637, 1.88229, 1.89634, 1.90885, 1.92009, 1.93026, 1.93952, 1.94799, 1.95579, 1.963, 1.96968, 1.9759, 1.98172, 1.98716, 1.99228, 1.9971, 2.00164, 2.00594, 2.01002, 2.01389, 2.01757, 2.02108, 2.02443, 2.02763, 2.03069, 2.03362, 2.03644, 2.03914, 2.04173, 2.04423, 
Number of clients: 1

+++++++++++++++++++++++++++++++++++++++++++++++++++++++++++
+ Client Mapping:
  > Client 51464 (40):	34 35 36 33 11 37 3 31 7 8 17 24 27 5 6 10 13 14 15 19 0 1 2 4 9 12 16 18 20 21 22 23 25 26 28 29 30 32 38 39 

+ Core Mapping:	51464 51464 51464 51464 51464 51464 51464 51464 51464 51464 51464 51464 51464 51464 51464 51464 51464 51464 51464 51464 51464 51464 51464 51464 51464 51464 51464 51464 51464 51464 51464 51464 51464 51464 51464 51464 51464 51464 51464 51464 
+ Optimal point: 40 
+++++++++++++++++++++++++++++++++++++++++++++++++++++++++++
CLIENT SHUTDOWN: client 51464
 + TIMESTAMP: 50.8509
+++++++++++++++++++++++++++++++++++++++++++++++++++++++++++
+ Client Mapping:
  > Client 51464 (0):	

+ Core Mapping:	0 0 0 0 0 0 0 0 0 0 0 0 0 0 0 0 0 0 0 0 0 0 0 0 0 0 0 0 0 0 0 0 0 0 0 0 0 0 0 0 
+ Optimal point: 40 
+++++++++++++++++++++++++++++++++++++++++++++++++++++++++++
client (51464) shutdown hint: 437.984
sum_client_shutdown_hint: 5693.79
sum_client_shutdown_hint_div_time: 0
END TIMESTAMP: 50.851
OVERALL TIME: 50.553
 + sum_client_shutdown_hint: 5693.79
 + sum_client_shutdown_hint/time: 112.63
sum_client_shutdown_hint: 5693.79
sum_client_shutdown_hint_div_time: 112.63
