0	0
10.3492	0
20.6984	0
31.0477	0
41.3969	0
51.7461	0
62.0953	0
72.4445	0
82.7938	0
93.143	0
103.492	0
113.841	0
124.191	0
134.54	0
144.889	0
150.064	0
160.413	0
170.762	0
181.111	0
191.461	0
201.81	0
212.159	0
222.508	0
232.857	0
243.207	0
253.556	0
263.905	0
274.254	0
284.604	0
294.953	0
300.127	0
310.477	0
320.826	0
331.175	0
341.524	0
351.874	0
362.223	0
372.572	0
382.921	0
393.27	0
403.62	0
413.969	0
424.318	0
434.667	0
445.017	0
450.191	0
460.54	0
470.89	0
481.239	0
491.588	0
501.937	0
512.286	0
522.636	0
532.985	0
543.334	9.09495e-13
553.683	9.09495e-13
564.033	9.09495e-13
574.382	9.09495e-13
584.731	0
595.08	0
600.255	0
610.604	0
620.953	0
631.302	0
641.652	0
652.001	0
662.35	0
672.699	0
683.049	0
693.398	0
703.747	0
714.096	0
724.445	0
734.795	0
745.144	0
750.319	0
760.668	0
771.017	0
781.366	0
791.715	0
802.065	0
812.414	0
822.763	0
833.112	0
843.462	0
853.811	0
864.16	0
874.509	0
884.858	0
890.033	0
900.382	0
910.731	0
921.081	0
931.43	0
941.779	0
952.128	0
962.478	0
972.827	0
983.176	0
993.525	0
1003.87	0
1014.22	0
1024.57	0
1034.92	0
1040.1	0
1050.45	0
1060.8	0
1071.14	0
1081.49	0
1091.84	0
1102.19	0
1112.54	0
1122.89	0
1133.24	0
1143.59	0
1153.94	0
1164.29	0
1174.64	0
1184.99	0
1190.16	-9.09495e-13
1200.51	-9.09495e-13
1210.86	-9.09495e-13
1221.21	-9.09495e-13
1231.56	-9.09495e-13
1241.91	0
1252.26	0
1262.6	0
1272.95	0
1283.3	0
1293.65	0
1304	0
1314.35	0
1324.7	0
1335.05	0
1340.22	0
1350.57	0
1360.92	0
1371.27	0
1381.62	0
1391.97	0
1402.32	0
1412.67	0
1423.02	0
1433.37	0
1443.72	0
1454.07	0
1464.41	0
1474.76	0
1485.11	0
1490.29	0
1500.64	0
1510.99	0
1521.34	0
1531.68	0
1542.03	0
1552.38	0
1562.73	0
1573.08	0
1583.43	0
1593.78	0
1604.13	0
1614.48	0
1624.83	0
1630	0
1640.35	0
1650.7	0
1661.05	0
1671.4	0
1681.75	0
1692.1	0
1702.45	0
1712.8	0
1723.15	0
1733.49	0
1743.84	0
1754.19	0
1764.54	0
1774.89	0
1780.07	0
1790.42	0
1800.76	0
1811.11	0
1821.46	0
1831.81	0
1842.16	0
1852.51	0
1862.86	0
1873.21	0
1883.56	0
1893.91	0
1904.26	0
1914.61	0
1924.96	0
1930.13	0
1940.48	0
1950.83	0
1961.18	0
1971.53	0
1981.88	0
1992.23	0
2002.57	0
2012.92	0
2023.27	0
2033.62	0
2043.97	0
2054.32	0
2064.67	0
2075.02	0
2080.19	0
2090.54	0
2100.89	0
2111.24	0
2121.59	0
2131.94	0
2142.29	0
2152.64	0
2162.99	0
2173.34	0
2183.69	0
2194.03	0
2204.38	0
2214.73	0
2225.08	0
2230.26	0
2240.61	0
2250.96	0
2261.3	0
2271.65	0
2282	0
2292.35	0
2302.7	0
2313.05	0
2323.4	0
2333.75	0
2344.1	0
2354.45	0
2364.8	0
2375.15	0
2380.32	0
2390.67	0
2401.02	0
2411.37	0
2421.72	0
2432.07	0
2442.42	0
2452.77	0
2463.11	0
2473.46	0
2483.81	0
2494.16	0
2504.51	0
2514.86	0
2520.04	0
2530.38	0
2540.73	0
2551.08	0
2561.43	0
2571.78	0
2582.13	0
2592.48	0
2602.83	0
2613.18	0
2623.53	0
2633.88	0
2644.23	0
2654.58	0
2664.92	0
2670.1	0
2680.45	0
2690.8	9.09495e-13
2701.15	1.81899e-12
2711.5	3.63798e-12
2721.85	6.36646e-12
2732.19	1.18234e-11
2742.54	2.00089e-11
2752.89	3.36513e-11
2763.24	5.45697e-11
2773.59	8.73115e-11
2783.94	1.37334e-10
2794.29	2.14641e-10
2804.64	3.33785e-10
2814.99	5.14774e-10
2820.16	6.36646e-10
2830.51	9.68612e-10
2840.86	1.45974e-09
2851.21	2.18188e-09
2861.56	3.23416e-09
2871.91	4.75484e-09
2882.26	6.93399e-09
2892.61	1.00326e-08
2902.96	1.44028e-08
2913.31	2.05173e-08
2923.65	2.90065e-08
2934	4.07008e-08
2944.35	5.66879e-08
2954.7	7.83784e-08
2965.05	1.07591e-07
2970.23	1.2572e-07
2980.57	1.70752e-07
2990.92	2.30302e-07
3001.27	3.08495e-07
3011.62	4.10446e-07
3021.97	5.42453e-07
3032.32	7.12211e-07
3042.67	9.29042e-07
3053.02	1.20416e-06
3063.37	1.55094e-06
3073.72	1.98521e-06
3084.07	2.52558e-06
3094.42	3.19371e-06
3104.76	4.01468e-06
3115.11	5.01725e-06
3120.29	5.59672e-06
3130.64	6.93445e-06
3140.99	8.54374e-06
3151.34	1.04684e-05
3161.68	1.2757e-05
3172.03	1.5463e-05
3182.38	1.86445e-05
3192.73	2.23645e-05
3203.08	2.66906e-05
3213.43	3.16948e-05
3223.78	3.74529e-05
3234.13	4.40444e-05
3244.48	5.15515e-05
3254.83	6.00589e-05
3260	6.47145e-05
3270.35	7.48838e-05
3280.7	8.62693e-05
3291.05	9.89568e-05
3301.4	0.00011303
3311.75	0.000128571
3322.09	0.000145657
3332.44	0.00016436
3342.79	0.000184748
3353.14	0.00020688
3363.49	0.000230809
3373.84	0.00025658
3384.19	0.000284229
3394.54	0.000313782
3404.89	0.000345258
3410.06	0.000361719
3420.41	0.000396089
3430.76	0.000432383
3441.11	0.000470587
3451.46	0.000510675
3461.8	0.000552618
3472.15	0.000596376
3482.5	0.000641905
3492.85	0.000689155
3503.2	0.000738072
3513.55	0.000788601
3523.9	0.000840682
3534.25	0.000894259
3544.6	0.000949274
3554.94	0.00100567
3560.12	0.00103438
3570.47	0.00109276
3580.82	0.00115241
3591.17	0.0012133
3601.51	0.0012754
3611.86	0.00133869
3622.21	0.00140318
3632.56	0.00146887
3642.91	0.00153579
3653.26	0.00160398
3663.61	0.00167351
3673.96	0.00174448
3684.3	0.00181698
3694.65	0.00189118
3705	0.00196725
3710.18	0.00200606
3720.52	0.00208538
3730.87	0.00216722
3741.22	0.00225197
3751.57	0.00234005
3761.92	0.00243201
3772.27	0.00252845
3782.62	0.00263016
3792.97	0.00273801
3803.31	0.00285308
3813.66	0.00297664
3824.01	0.00311017
3834.36	0.00325545
3844.71	0.00341454
3855.06	0.00358988
3860.23	0.00368453
3870.58	0.00388974
3880.93	0.00411925
3891.28	0.00437722
3901.63	0.00466847
3911.97	0.00499857
3922.32	0.0053739
3932.67	0.00580177
3943.02	0.00629054
3953.37	0.00684968
3963.72	0.00748989
3974.07	0.00822325
3984.42	0.00906327
3994.76	0.010025
4005.11	0.0111253
4010.29	0.0117331
4020.64	0.0130763
4030.98	0.0146078
4041.33	0.0163507
4051.68	0.0183301
4062.03	0.0205733
4072.38	0.0231091
4082.73	0.0259686
4093.08	0.0291845
4103.43	0.032791
4113.77	0.036824
4124.12	0.0413204
4134.47	0.0463181
4144.82	0.0518558
4155.17	0.0579719
4160.34	0.061259
4170.69	0.0683149
4181.04	0.0760439
4191.39	0.0844817
4201.74	0.0936616
4212.09	0.103614
4222.44	0.114367
4232.79	0.125943
4243.14	0.13836
4253.49	0.151632
4263.83	0.165765
4274.18	0.180759
4284.53	0.196607
4294.88	0.213294
4300.06	0.221945
4310.4	0.239844
4320.75	0.258507
4331.1	0.277889
4341.45	0.297935
4351.8	0.318582
4362.15	0.339755
4372.5	0.361374
4382.85	0.383348
4393.2	0.405578
4403.55	0.427959
4413.9	0.450377
4424.25	0.472713
4434.6	0.494845
4444.94	0.516644
4450.12	0.527377
4460.47	0.548431
4470.82	0.568822
4481.17	0.588417
4491.52	0.607085
4501.86	0.624697
4512.21	0.641127
4522.56	0.656255
4532.91	0.669968
4543.26	0.682159
4553.61	0.692728
4563.96	0.701588
4574.31	0.708659
4584.66	0.713873
4595.01	0.717173
4600.18	0.718091
4610.53	0.718439
4620.88	0.716783
4631.23	0.71311
4641.58	0.707416
4651.93	0.699712
4662.28	0.69002
4672.63	0.678374
4682.97	0.664818
4693.32	0.649408
4703.67	0.632209
4714.02	0.613295
4724.37	0.592748
4734.72	0.570658
4745.07	0.547122
4750.24	0.534843
4760.59	0.509329
4770.94	0.482633
4781.29	0.454866
4791.64	0.426143
4801.99	0.396582
4812.34	0.366299
4822.69	0.335413
4833.04	0.304042
4843.39	0.272301
4853.73	0.240306
4864.08	0.208168
4874.43	0.175999
4884.78	0.143904
4895.13	0.111987
4900.31	0.0961266
4910.66	0.0646616
4921	0.0336155
4931.35	0.00307708
4941.7	-0.0268694
4952.05	-0.0561444
4962.4	-0.084673
4972.75	-0.112385
4983.1	-0.139217
4993.45	-0.165108
5003.8	-0.190004
5014.15	-0.213855
5024.5	-0.236617
5034.84	-0.25825
5040.02	-0.268633
5050.37	-0.288512
5060.72	-0.307186
5071.07	-0.324634
5081.42	-0.340839
5091.77	-0.35579
5102.11	-0.369479
5112.46	-0.381904
5122.81	-0.393066
5133.16	-0.402974
5143.51	-0.411639
5153.86	-0.419074
5164.21	-0.425301
5174.56	-0.430342
5184.91	-0.434224
5190.08	-0.435741
5200.43	-0.437944
5210.78	-0.439071
5221.13	-0.439162
5231.48	-0.438256
5241.83	-0.436398
5252.18	-0.433634
5262.53	-0.430011
5272.88	-0.425579
5283.22	-0.420389
5293.57	-0.414493
5303.92	-0.407944
5314.27	-0.400795
5324.62	-0.3931
5334.97	-0.384912
5340.15	-0.38065
5350.49	-0.371823
5360.84	-0.362637
5371.19	-0.353141
5381.54	-0.343388
5391.89	-0.333426
5402.24	-0.323304
5412.59	-0.313066
5422.94	-0.302759
5433.29	-0.292423
5443.64	-0.282099
5453.99	-0.271826
5464.33	-0.261639
5474.68	-0.251571
5485.03	-0.241655
5490.21	-0.236763
5500.56	-0.227126
5510.91	-0.217708
5521.26	-0.208532
5531.6	-0.199618
5541.95	-0.190984
5552.3	-0.182647
5562.65	-0.174621
5573	-0.166916
5583.35	-0.159544
5593.7	-0.152511
5604.05	-0.145824
5614.4	-0.139488
5624.75	-0.133504
5635.1	-0.127875
5640.27	-0.125193
5650.62	-0.120095
5660.97	-0.115347
5671.32	-0.110948
5681.67	-0.106892
5692.02	-0.103175
5702.37	-0.0997901
5712.71	-0.0967301
5723.06	-0.0939876
5733.41	-0.091554
5743.76	-0.0894204
5754.11	-0.0875771
5764.46	-0.0860142
5774.81	-0.0847211
5785.16	-0.0836869
5790.33	-0.0832634
5800.68	-0.0825962
5811.03	-0.0821592
5821.38	-0.0819402
5831.73	-0.0819268
5842.08	-0.0821065
5852.43	-0.0824664
5862.78	-0.0829936
5873.13	-0.0836748
5883.48	-0.0844967
5893.82	-0.0854457
5904.17	-0.0865084
5914.52	-0.0876709
5924.87	-0.0889195
5930.05	-0.0895718
5940.4	-0.0909236
5950.74	-0.0923272
5961.09	-0.0937686
5971.44	-0.0952343
5981.79	-0.0967107
5992.14	-0.0981846
6002.49	-0.0996429
6012.84	-0.101073
6023.19	-0.102461
6033.54	-0.103797
6043.89	-0.105068
6054.24	-0.106262
6064.59	-0.10737
6074.94	-0.108381
6080.11	-0.108847
6090.46	-0.109694
6100.81	-0.110421
6111.16	-0.111021
6121.51	-0.111486
6131.86	-0.111809
6142.2	-0.111986
6152.55	-0.112011
6162.9	-0.111881
6173.25	-0.111592
6183.6	-0.111142
6193.95	-0.11053
6204.3	-0.109755
6214.65	-0.108817
6225	-0.107718
6230.17	-0.107109
6240.52	-0.105772
6250.87	-0.104279
6261.22	-0.102635
6271.57	-0.100844
6281.92	-0.0989111
6292.27	-0.0968417
6302.62	-0.0946422
6312.97	-0.0923193
6323.32	-0.0898801
6333.66	-0.0873323
6344.01	-0.0846837
6354.36	-0.0819424
6364.71	-0.079117
6375.06	-0.0762159
6380.24	-0.0747398
6390.59	-0.0717416
6400.93	-0.0686898
6411.28	-0.0655931
6421.63	-0.0624603
6431.98	-0.0593
6442.33	-0.0561209
6452.68	-0.0529314
6463.03	-0.0497398
6473.38	-0.046554
6483.73	-0.0433818
6494.08	-0.0402307
6504.43	-0.0371081
6514.78	-0.0340208
6525.12	-0.0309754
6530.3	-0.0294705
6540.65	-0.0264999
6551	-0.0235866
6561.35	-0.020736
6571.7	-0.0179534
6582.04	-0.0152438
6592.39	-0.0126116
6602.74	-0.0100613
6613.09	-0.00759676
6623.44	-0.0052218
6633.79	-0.00293985
6644.14	-0.000754082
6654.49	0.00133258
6664.84	0.00331745
6670.01	0.00427095
6680.36	0.00609866
6690.71	0.00781895
6701.06	0.00942995
6711.41	0.01093
6721.76	0.0123178
6732.11	0.013592
6742.46	0.0147517
6752.81	0.0157961
6763.16	0.0167247
6773.5	0.0175371
6783.85	0.0182332
6794.2	0.0188132
6804.55	0.0192773
6814.9	0.0196263
6820.08	0.0197578
6830.43	0.0199355
6840.77	0.0200006
6851.12	0.0199544
6861.47	0.0197987
6871.82	0.0195355
6882.17	0.0191669
6892.52	0.0186956
6902.87	0.0181243
6913.22	0.017456
6923.57	0.0166941
6933.92	0.015842
6944.27	0.0149036
6954.62	0.013883
6964.96	0.0127843
6970.14	0.0122072
6980.49	0.0110001
6990.84	0.00972679
7001.19	0.00839218
7011.54	0.00700151
7021.89	0.00556015
7032.23	0.00407361
7042.58	0.00254754
7052.93	0.000987682
7063.28	-0.000600096
7073.63	-0.00220987
7083.98	-0.00383566
7094.33	-0.00547145
7104.68	-0.00711117
7115.03	-0.00874881
7120.2	-0.00956495
7130.55	-0.0111881
7140.9	-0.0127942
7151.25	-0.0143772
7161.6	-0.0159314
7171.95	-0.0174509
7182.3	-0.0189302
7192.65	-0.0203636
7203	-0.0217457
7213.35	-0.0230713
7223.69	-0.0243352
7234.04	-0.0255325
7244.39	-0.0266584
7254.74	-0.0277083
7265.09	-0.0286777
7270.27	-0.0291309
7280.62	-0.0299718
7290.96	-0.0307221
7301.31	-0.0313781
7311.66	-0.0319364
7322.01	-0.0323937
7332.36	-0.0327472
7342.71	-0.0329939
7353.06	-0.0331316
7363.41	-0.0331579
7373.76	-0.0330711
7384.11	-0.0328693
7394.46	-0.0325513
7404.8	-0.0321159
7415.15	-0.0315624
7420.33	-0.0312412
7430.68	-0.0305098
7441.03	-0.0296596
7451.38	-0.0286909
7461.72	-0.0276044
7472.07	-0.026401
7482.42	-0.0250818
7492.77	-0.0236486
7503.12	-0.0221031
7513.47	-0.0204475
7523.82	-0.0186845
7534.17	-0.0168168
7544.52	-0.0148476
7554.87	-0.0127803
7560.04	-0.0117111
7570.39	-0.009504
7580.74	-0.00720884
7591.09	-0.00483012
7601.44	-0.00237261
7611.79	0.000158645
7622.14	0.00275838
7632.48	0.00542109
7642.83	0.00814104
7653.18	0.0109123
7663.53	0.0137288
7673.88	0.0165843
7684.23	0.0194723
7694.58	0.0223864
7704.93	0.0253199
7710.1	0.0267919
7720.45	0.0297421
7730.8	0.032695
7741.15	0.0356439
7751.5	0.038582
7761.85	0.0415028
7772.2	0.0443997
7782.55	0.0472662
7792.9	0.0500959
7803.24	0.0528828
7813.59	0.0556207
7823.94	0.0583041
7834.29	0.0609272
7844.64	0.0634849
7854.99	0.0659721
7860.16	0.0671878
7870.51	0.0695605
7880.86	0.0718516
7891.21	0.0740571
7901.56	0.0761736
7911.91	0.0781977
7922.26	0.0801267
7932.61	0.0819582
7942.96	0.0836901
7953.31	0.0853206
7963.66	0.0868485
7974	0.0882727
7984.35	0.0895928
7994.7	0.0908084
8005.05	0.0919197
8010.23	0.0924363
8020.58	0.093392
8030.92	0.094245
8041.27	0.0949966
8051.62	0.0956481
8061.97	0.0962014
8072.32	0.0966583
8082.67	0.097021
8093.02	0.0972919
8103.37	0.0974735
8113.72	0.0975685
8124.07	0.0975797
8134.42	0.0975099
8144.77	0.0973623
8155.11	0.0971397
8160.29	0.0970014
8170.64	0.0966724
8180.99	0.0962764
8191.34	0.0958166
8201.69	0.0952961
8212.03	0.0947181
8222.38	0.0940856
8232.73	0.0934019
8243.08	0.0926698
8253.43	0.0918923
8263.78	0.0910725
8274.13	0.090213
8284.48	0.0893167
8294.83	0.0883863
8300	0.0879091
8310.35	0.0869324
8320.7	0.0859279
8331.05	0.084898
8341.4	0.083845
8351.75	0.0827712
8362.1	0.0816787
8372.45	0.0805695
8382.8	0.0794456
8393.14	0.0783089
8403.49	0.077161
8413.84	0.0760037
8424.19	0.0748385
8434.54	0.0736668
8444.89	0.0724902
8450.06	0.0719003
8460.41	0.0707184
8470.76	0.0695344
8481.11	0.0683492
8491.46	0.0671637
8501.81	0.0659787
8512.16	0.0647947
8522.51	0.0636124
8532.86	0.0624319
8543.21	0.0612537
8553.56	0.0600776
8563.91	0.0589039
8574.26	0.0577322
8584.6	0.0565623
8594.95	0.0553937
8600.13	0.0548097
8610.48	0.0536421
8620.83	0.0524742
8631.18	0.0513051
8641.52	0.050134
8651.87	0.0489596
8662.22	0.0477809
8672.57	0.0465965
8682.92	0.0454052
8693.27	0.0442055
8703.62	0.042996
8713.97	0.0417751
8724.32	0.0405414
8734.67	0.0392932
8745.02	0.0380291
8750.19	0.0373906
8760.54	0.0360998
8770.89	0.0347893
8781.24	0.0334577
8791.59	0.0321037
8801.94	0.0307259
8812.29	0.0293233
8822.64	0.0278948
8832.99	0.0264395
8843.33	0.0249566
8853.68	0.0234454
8864.03	0.0219055
8874.38	0.0203366
8884.73	0.0187384
8895.08	0.0171112
8900.25	0.0162867
8910.6	0.0146162
8920.95	0.0129175
8931.3	0.0111913
8941.65	0.00943846
8952	0.00766009
8962.35	0.00585744
8972.7	0.00403197
8983.05	0.0021853
8993.4	0.000319216
9003.75	-0.00156432
9014.1	-0.00346321
9024.45	-0.00537519
9034.79	-0.0072979
9045.14	-0.00922883
9050.32	-0.0101966
9060.67	-0.0121349
9071.02	-0.0140748
9081.37	-0.0160134
9091.72	-0.0179479
9102.06	-0.0198752
9112.41	-0.0217925
9122.76	-0.0236968
9133.11	-0.0255851
9143.46	-0.0274543
9153.81	-0.0293016
9164.16	-0.031124
9174.51	-0.0329186
9184.86	-0.0346826
9190.03	-0.0355523
9200.38	-0.0372652
9210.73	-0.0389408
9221.08	-0.0405764
9231.43	-0.0421698
9241.78	-0.0437184
9252.13	-0.0452202
9262.48	-0.046673
9272.83	-0.0480749
9283.18	-0.0494241
9293.52	-0.0507189
9303.87	-0.0519579
9314.22	-0.0531397
9324.57	-0.054263
9334.92	-0.055327
9340.1	-0.0558365
9350.45	-0.0568098
9360.79	-0.057722
9371.14	-0.0585726
9381.49	-0.0593613
9391.84	-0.060088
9402.19	-0.060753
9412.54	-0.0613564
9422.89	-0.0618987
9433.24	-0.0623805
9443.59	-0.0628026
9453.94	-0.0631658
9464.29	-0.0634714
9474.64	-0.0637204
9484.98	-0.0639143
9490.16	-0.0639911
9500.51	-0.0641052
9510.86	-0.0641682
9521.21	-0.0641819
9531.56	-0.0641482
9541.91	-0.0640691
9552.25	-0.0639468
9562.6	-0.0637832
9572.95	-0.0635808
9583.3	-0.0633418
9593.65	-0.0630685
9604	-0.0627633
9614.35	-0.0624284
9624.7	-0.0620664
9635.05	-0.0616795
9640.22	-0.0614775
9650.57	-0.0610577
9660.92	-0.0606188
9671.27	-0.0601632
9681.62	-0.0596929
9691.97	-0.0592101
9702.32	-0.0587169
9712.67	-0.0582152
9723.02	-0.0577068
9733.37	-0.0571935
9743.72	-0.056677
9754.06	-0.0561589
9764.41	-0.0556405
9774.76	-0.0551233
9785.11	-0.0546083
9790.29	-0.054352
9800.64	-0.0538424
9810.98	-0.0533376
9821.33	-0.0528384
9831.68	-0.0523453
9842.03	-0.051859
9852.38	-0.0513799
9862.73	-0.0509083
9873.08	-0.0504445
9883.43	-0.0499886
9893.78	-0.0495407
9904.13	-0.0491007
9914.48	-0.0486686
9924.83	-0.0482441
9930	-0.0480347
9940.35	-0.0476213
9950.7	-0.0472149
9961.05	-0.0468152
9971.4	-0.0464218
9981.75	-0.0460344
9992.1	-0.0456525
10002.4	-0.0452757
10012.8	-0.0449036
10023.1	-0.0445357
10033.5	-0.0441718
10043.8	-0.0438114
10054.2	-0.0434541
10064.5	-0.0430996
10074.9	-0.0427477
10080.1	-0.0425725
10090.4	-0.0422239
10100.8	-0.0418771
10111.1	-0.0415322
10121.5	-0.0411888
10131.8	-0.040847
10142.2	-0.0405068
10152.5	-0.0401681
10162.9	-0.0398311
10173.2	-0.0394958
10183.6	-0.0391625
10193.9	-0.0388313
10204.3	-0.0385025
10214.6	-0.0381764
10225	-0.0378534
10230.1	-0.0376931
10240.5	-0.0373754
10250.8	-0.0370617
10261.2	-0.0367527
10271.5	-0.0364487
10281.9	-0.0361504
10292.2	-0.0358582
10302.6	-0.0355728
10312.9	-0.0352948
10323.3	-0.0350248
10333.6	-0.0347634
10344	-0.0345113
10354.3	-0.0342691
10364.7	-0.0340376
10375	-0.0338172
10380.2	-0.0337114
10390.5	-0.0335092
10400.9	-0.0333197
10411.2	-0.0331437
10421.6	-0.0329817
10431.9	-0.0328344
10442.3	-0.0327023
10452.6	-0.0325859
10463	-0.0324857
10473.3	-0.0324022
10483.7	-0.0323358
10494	-0.0322869
10504.4	-0.032256
10514.7	-0.0322432
10525.1	-0.0322488
10530.3	-0.0322587
10540.6	-0.0322924
10551	-0.0323451
10561.3	-0.0324168
10571.6	-0.0325075
10582	-0.0326174
10592.3	-0.0327462
10602.7	-0.0328939
10613	-0.0330603
10623.4	-0.0332452
10633.7	-0.0334483
10644.1	-0.0336692
10654.4	-0.0339077
10664.8	-0.0341632
10675.1	-0.0344352
10680.3	-0.0345772
10690.7	-0.034873
10701	-0.0351838
10711.4	-0.0355091
10721.7	-0.0358479
10732.1	-0.0361997
10742.4	-0.0365635
10752.8	-0.0369386
10763.1	-0.0373239
10773.5	-0.0377185
10783.8	-0.0381215
10794.2	-0.0385319
10804.5	-0.0389485
10814.9	-0.0393702
10820	-0.0395827
10830.4	-0.0400101
10840.7	-0.0404397
10851.1	-0.0408705
10861.4	-0.0413011
10871.8	-0.0417303
10882.1	-0.0421569
10892.5	-0.0425795
10902.8	-0.0429969
10913.2	-0.0434077
10923.5	-0.0438105
10933.9	-0.0442042
10944.2	-0.0445872
10954.6	-0.0449583
10964.9	-0.045316
10970.1	-0.0454895
10980.4	-0.0458248
10990.8	-0.0461434
11001.1	-0.0464439
11011.5	-0.0467251
11021.8	-0.0469856
11032.2	-0.0472241
11042.5	-0.0474393
11052.9	-0.04763
11063.2	-0.047795
11073.6	-0.0479329
11083.9	-0.0480427
11094.3	-0.0481232
11104.6	-0.0481732
11115	-0.0481918
11120.2	-0.048189
11130.5	-0.0481584
11140.9	-0.0480938
11151.2	-0.0479944
11161.6	-0.0478593
11171.9	-0.0476876
11182.3	-0.0474786
11192.6	-0.0472316
11203	-0.0469461
11213.3	-0.0466213
11223.6	-0.046257
11234	-0.0458525
11244.3	-0.0454075
11254.7	-0.0449218
11265	-0.044395
11270.2	-0.0441163
11280.6	-0.0435277
11290.9	-0.0428979
11301.3	-0.0422268
11311.6	-0.0415146
11322	-0.0407613
11332.3	-0.0399672
11342.7	-0.0391325
11353	-0.0382577
11363.4	-0.0373432
11373.7	-0.0363894
11384.1	-0.0353969
11394.4	-0.0343663
11404.8	-0.0332984
11415.1	-0.0321938
11420.3	-0.031628
11430.6	-0.0304699
11441	-0.0292773
11451.3	-0.0280511
11461.7	-0.0267924
11472	-0.0255021
11482.4	-0.0241813
11492.7	-0.0228313
11503.1	-0.0214531
11513.4	-0.020048
11523.8	-0.0186174
11534.1	-0.0171624
11544.5	-0.0156845
11554.8	-0.0141851
11565.2	-0.0126655
11570.3	-0.0118987
11580.7	-0.0103516
11591	-0.00878815
11601.4	-0.00720977
11611.7	-0.005618
11622.1	-0.00401444
11632.4	-0.00240066
11642.8	-0.00077828
11653.1	0.000851083
11663.5	0.00248579
11673.8	0.00412419
11684.2	0.00576463
11694.5	0.00740544
11704.9	0.00904496
11710.1	0.00986371
11720.4	0.0114982
11730.8	0.0131271
11741.1	0.014749
11751.5	0.0163621
11761.8	0.0179648
11772.2	0.0195555
11782.5	0.0211325
11792.9	0.0226944
11803.2	0.0242395
11813.6	0.0257663
11823.9	0.0272733
11834.3	0.0287592
11844.6	0.0302224
11854.9	0.0316616
11860.1	0.0323718
11870.5	0.0337727
11880.8	0.0351463
11891.2	0.0364917
11901.5	0.0378076
11911.9	0.0390931
11922.2	0.0403472
11932.6	0.041569
11942.9	0.0427577
11953.3	0.0439125
11963.6	0.0450329
11974	0.0461183
11984.3	0.0471682
11994.7	0.0481823
