THREADS	MTPS	TIMESTEPS	TIMESTEP_SIZE	SECONDS_FOR_SIMULATION	AVERAGE_TRIANGLES	AVERAGE_PARTITIONS
80	21.8348	100	0.000491318	87.2318	1.90469e+07	1158.74
79	20.518	100	0.000491318	92.8302	1.90469e+07	1158.74
78	21.8424	100	0.000491318	87.2017	1.90469e+07	1158.74
77	20.0578	100	0.000491318	94.9603	1.90469e+07	1158.74
76	18.457	100	0.000491318	103.196	1.90469e+07	1158.74
75	17.4251	100	0.000491318	109.307	1.90469e+07	1158.74
74	18.3196	100	0.000491318	103.97	1.90469e+07	1158.74
73	18.1786	100	0.000491318	104.777	1.90469e+07	1158.74
72	18.1338	100	0.000491318	105.036	1.90469e+07	1158.74
71	17.1828	100	0.000491318	110.849	1.90469e+07	1158.74
70	17.9383	100	0.000491318	106.18	1.90469e+07	1158.74
69	17.342	100	0.000491318	109.831	1.90469e+07	1158.74
68	17.6475	100	0.000491318	107.93	1.90469e+07	1158.74
67	17.9445	100	0.000491318	106.143	1.90469e+07	1158.74
66	16.7518	100	0.000491318	113.701	1.90469e+07	1158.74
65	17.3212	100	0.000491318	109.963	1.90469e+07	1158.74
64	17.9265	100	0.000491318	106.25	1.90469e+07	1158.74
63	17.8363	100	0.000491318	106.787	1.90469e+07	1158.74
62	18.136	100	0.000491318	105.022	1.90469e+07	1158.74
61	18.2922	100	0.000491318	104.126	1.90469e+07	1158.74
60	18.4765	100	0.000491318	103.087	1.90469e+07	1158.74
59	17.5553	100	0.000491318	108.497	1.90469e+07	1158.74
58	18.4866	100	0.000491318	103.031	1.90469e+07	1158.74
57	18.5937	100	0.000491318	102.437	1.90469e+07	1158.74
56	18.2811	100	0.000491318	104.189	1.90469e+07	1158.74
55	17.4789	100	0.000491318	108.971	1.90469e+07	1158.74
54	18.8959	100	0.000491318	100.799	1.90469e+07	1158.74
53	17.5767	100	0.000491318	108.365	1.90469e+07	1158.74
52	18.9438	100	0.000491318	100.544	1.90469e+07	1158.74
51	18.9639	100	0.000491318	100.438	1.90469e+07	1158.74
50	19.3076	100	0.000491318	98.6499	1.90469e+07	1158.74
49	19.4519	100	0.000491318	97.918	1.90469e+07	1158.74
48	19.7358	100	0.000491318	96.5093	1.90469e+07	1158.74
47	19.9998	100	0.000491318	95.2353	1.90469e+07	1158.74
46	20.2389	100	0.000491318	94.1104	1.90469e+07	1158.74
45	20.5458	100	0.000491318	92.7048	1.90469e+07	1158.74
44	20.5331	100	0.000491318	92.7621	1.90469e+07	1158.74
43	20.2071	100	0.000491318	94.2585	1.90469e+07	1158.74
42	20.5177	100	0.000491318	92.8316	1.90469e+07	1158.74
41	20.4903	100	0.000491318	92.9559	1.90469e+07	1158.74
40	20.9736	100	0.000491318	90.814	1.90469e+07	1158.74
39	21.136	100	0.000491318	90.116	1.90469e+07	1158.74
38	19.7879	100	0.000491318	96.2554	1.90469e+07	1158.74
37	20.1736	100	0.000491318	94.4148	1.90469e+07	1158.74
36	21.0573	100	0.000491318	90.4529	1.90469e+07	1158.74
35	20.3392	100	0.000491318	93.6465	1.90469e+07	1158.74
34	20.19	100	0.000491318	94.3384	1.90469e+07	1158.74
33	20.3348	100	0.000491318	93.6664	1.90469e+07	1158.74
32	20.3183	100	0.000491318	93.7428	1.90469e+07	1158.74
31	20.5252	100	0.000491318	92.7977	1.90469e+07	1158.74
30	20.6009	100	0.000491318	92.4568	1.90469e+07	1158.74
29	20.6313	100	0.000491318	92.3206	1.90469e+07	1158.74
28	20.1897	100	0.000491318	94.3397	1.90469e+07	1158.74
27	20.2053	100	0.000491318	94.267	1.90469e+07	1158.74
26	20.5189	100	0.000491318	92.8263	1.90469e+07	1158.74
25	20.5579	100	0.000491318	92.6501	1.90469e+07	1158.74
24	21.6538	100	0.000491318	87.9611	1.90469e+07	1158.74
23	21.5055	100	0.000491318	88.5676	1.90469e+07	1158.74
22	21.6331	100	0.000491318	88.0453	1.90469e+07	1158.74
21	20.6592	100	0.000491318	92.1957	1.90469e+07	1158.74
20	21.8372	100	0.000491318	87.2222	1.90469e+07	1158.74
19	20.783	100	0.000491318	91.6467	1.90469e+07	1158.74
18	20.9569	100	0.000491318	90.8861	1.90469e+07	1158.74
17	20.7536	100	0.000491318	91.7763	1.90469e+07	1158.74
16	21.6058	100	0.000491318	88.1566	1.90469e+07	1158.74
15	20.8563	100	0.000491318	91.3245	1.90469e+07	1158.74
14	20.9214	100	0.000491318	91.0405	1.90469e+07	1158.74
13	20.2599	100	0.000491318	94.0128	1.90469e+07	1158.74
12	19.9047	100	0.000491318	95.6904	1.90469e+07	1158.74
11	19.1569	100	0.000491318	99.4259	1.90469e+07	1158.74
10	18.3082	100	0.000491318	104.035	1.90469e+07	1158.74
9	17.2404	100	0.000491318	110.479	1.90469e+07	1158.74
8	16.1511	100	0.000491318	117.929	1.90469e+07	1158.74
7	14.8459	100	0.000491318	128.298	1.90469e+07	1158.74
6	13.3313	100	0.000491318	142.874	1.90469e+07	1158.74
5	11.6671	100	0.000491318	163.253	1.90469e+07	1158.74
4	9.67972	100	0.000491318	196.771	1.90469e+07	1158.74
3	7.55921	100	0.000491318	251.97	1.90469e+07	1158.74
2	5.07067	100	0.000491318	375.629	1.90469e+07	1158.74
1	2.66447	100	0.000491318	714.849	1.90469e+07	1158.74
