0	0
10.9031	0
21.8062	0
32.7093	0
43.6125	0
50.8812	0
61.7843	0
72.6874	0
83.5905	0
90.8593	0
101.762	0
112.666	0
123.569	0
130.837	0
141.74	0
152.644	0
163.547	0
170.815	0
181.719	0
192.622	0
203.525	0
210.794	0
221.697	0
232.6	0
243.503	0
250.772	0
261.675	0
272.578	0
283.481	0
290.75	0
301.653	0
312.556	0
323.459	0
330.728	0
341.631	0
352.534	0
363.437	0
370.706	0
381.609	0
392.512	0
403.415	0
410.684	0
421.587	0
432.49	0
443.393	0
450.662	0
461.565	0
472.468	0
483.371	0
490.64	0
501.543	0
512.446	0
523.349	0
530.618	0
541.521	0
552.424	0
563.328	0
570.596	0
581.499	0
592.402	0
603.306	0
610.574	0
621.477	0
632.381	0
643.284	0
650.552	0
661.456	0
672.359	0
683.262	0
690.531	0
701.434	0
712.337	0
723.24	0
730.509	0
741.412	0
752.315	0
763.218	0
770.487	0
781.39	0
792.293	0
803.196	0
810.465	0
821.368	0
832.271	0
843.174	0
850.443	0
861.346	0
872.249	0
883.152	0
890.421	0
901.324	0
912.227	0
923.13	0
930.399	0
941.302	0
952.205	0
963.108	0
970.377	0
981.28	0
992.183	0
1003.09	0
1010.36	0
1021.26	0
1032.16	0
1043.06	0
1050.33	0
1061.24	0
1072.14	0
1083.04	0
1090.31	0
1101.21	0
1112.12	0
1123.02	0
1130.29	0
1141.19	0
1152.1	0
1163	0
1170.27	0
1181.17	0
1192.07	0
1202.98	9.09495e-13
1210.25	9.09495e-13
1221.15	9.09495e-13
1232.05	9.09495e-13
1242.95	9.09495e-13
1250.22	0
1261.13	0
1272.03	0
1282.93	0
1290.2	0
1301.1	0
1312.01	0
1322.91	0
1330.18	0
1341.08	0
1351.99	0
1362.89	0
1370.16	0
1381.06	0
1391.96	0
1402.87	0
1410.14	0
1421.04	0
1431.94	0
1442.85	0
1450.11	0
1461.02	0
1471.92	0
1482.82	0
1490.09	0
1501	0
1511.9	0
1522.8	0
1530.07	0
1540.97	0
1551.88	0
1562.78	0
1570.05	0
1580.95	0
1591.85	0
1602.76	0
1610.03	0
1620.93	0
1631.83	0
1642.74	0
1650	0
1660.91	0
1671.81	0
1682.71	0
1693.62	0
1700.89	0
1711.79	0
1722.69	0
1733.6	0
1740.86	0
1751.77	0
1762.67	0
1773.57	0
1780.84	0
1791.74	0
1802.65	0
1813.55	0
1820.82	0
1831.72	0
1842.63	0
1853.53	0
1860.8	0
1871.7	0
1882.6	0
1893.51	0
1900.78	0
1911.68	0
1922.58	0
1933.49	0
1940.75	0
1951.66	0
1962.56	0
1973.46	0
1980.73	0
1991.64	0
2002.54	0
2013.44	0
2020.71	0
2031.61	0
2042.52	0
2053.42	0
2060.69	0
2071.59	0
2082.49	0
2093.4	0
2100.67	0
2111.57	0
2122.47	0
2133.38	0
2140.64	0
2151.55	0
2162.45	0
2173.35	0
2180.62	0
2191.53	0
2202.43	0
2213.33	0
2220.6	0
2231.5	0
2242.41	0
2253.31	0
2260.58	0
2271.48	0
2282.39	0
2293.29	0
2300.56	0
2311.46	0
2322.36	0
2333.27	0
2340.53	0
2351.44	0
2362.34	0
2373.24	0
2380.51	0
2391.42	0
2402.32	0
2413.22	9.09495e-13
2420.49	9.09495e-13
2431.39	9.09495e-13
2442.3	9.09495e-13
2453.2	9.09495e-13
2460.47	9.09495e-13
2471.37	0
2482.28	0
2493.18	0
2500.45	0
2511.35	0
2522.25	0
2533.16	0
2540.43	0
2551.33	0
2562.23	0
2573.13	0
2580.4	0
2591.31	0
2602.21	0
2613.11	0
2620.38	0
2631.28	0
2642.19	0
2653.09	0
2660.36	0
2671.26	0
2682.17	0
2693.07	0
2700.34	0
2711.24	0
2722.14	0
2733.05	0
2740.32	0
2751.22	0
2762.12	0
2773.02	0
2780.29	0
2791.2	0
2802.1	0
2813	0
2820.27	9.09495e-13
2831.17	9.09495e-13
2842.08	2.72848e-12
2852.98	6.36646e-12
2860.25	1.00044e-11
2871.15	1.90994e-11
2882.06	3.63798e-11
2892.96	6.63931e-11
2900.23	9.82254e-11
2911.13	1.74623e-10
2922.03	3.065e-10
2932.94	5.31145e-10
2940.2	7.59428e-10
2951.11	1.28421e-09
2962.01	2.14277e-09
2972.91	3.52611e-09
2980.18	4.87944e-09
2991.09	7.85622e-09
3001.99	1.24874e-08
3012.89	1.95996e-08
3020.16	2.62917e-08
3031.06	4.04352e-08
3041.97	6.14446e-08
3052.87	9.22801e-08
3060.14	1.20241e-07
3071.04	1.77148e-07
3081.94	2.58071e-07
3092.85	3.71831e-07
3100.12	4.7148e-07
3111.02	6.67224e-07
3121.92	9.34361e-07
3132.82	1.29502e-06
3140.09	1.6008e-06
3151	2.18183e-06
3161.9	2.94473e-06
3172.8	3.93638e-06
3180.07	4.75175e-06
3190.97	6.25362e-06
3201.88	8.15557e-06
3212.78	1.05415e-05
3220.05	1.24477e-05
3230.95	1.58585e-05
3241.85	2.00343e-05
3252.76	2.51017e-05
3260.02	2.90429e-05
3270.93	3.59066e-05
3281.83	4.4049e-05
3292.73	5.36291e-05
3300	6.08952e-05
3310.9	7.32354e-05
3321.81	8.74506e-05
3332.71	0.000103701
3343.61	0.000122138
3350.88	0.000135715
3361.78	0.000158104
3372.69	0.00018302
3383.59	0.000210556
3390.86	0.000230403
3401.76	0.000262441
3412.66	0.000297217
3423.57	0.000334722
3430.83	0.000361221
3441.74	0.000403163
3452.64	0.000447653
3463.54	0.000494566
3470.81	0.000527115
3481.71	0.000577719
3492.62	0.000630293
3503.52	0.000684634
3510.79	0.000721736
3521.69	0.00077854
3532.59	0.000836533
3543.49	0.000895504
3550.76	0.000935264
3561.67	0.000995442
3572.57	0.00105613
3583.47	0.0011172
3590.74	0.00115808
3601.64	0.00121961
3612.54	0.00128139
3623.45	0.00134343
3630.71	0.00138498
3641.62	0.00144765
3652.52	0.0015109
3663.42	0.00157489
3670.69	0.00161808
3681.59	0.00168384
3692.5	0.00175101
3703.4	0.0018199
3710.67	0.00186692
3721.57	0.00193934
3732.47	0.0020143
3743.37	0.00209211
3750.64	0.00214573
3761.54	0.002229
3772.45	0.00231594
3783.35	0.00240686
3790.62	0.00246983
3801.52	0.00256808
3812.42	0.00267118
3823.33	0.00277952
3830.59	0.00285489
3841.5	0.00297307
3852.4	0.00309799
3863.3	0.00323048
3870.57	0.00332353
3881.47	0.00347112
3892.38	0.00362974
3903.28	0.00380137
3910.55	0.0039242
3921.45	0.00412322
3932.35	0.00434314
3943.25	0.00458826
3950.52	0.00476821
3961.42	0.00506748
3972.33	0.0054084
3983.23	0.00579956
3990.5	0.0060932
4001.4	0.00659162
4012.3	0.0071717
4023.21	0.00784916
4030.48	0.0083638
4041.38	0.00924556
4052.28	0.0102799
4063.18	0.0114934
4070.45	0.0124166
4081.35	0.0139974
4092.26	0.0158463
4103.16	0.0180042
4110.43	0.0196364
4121.33	0.0224114
4132.23	0.0256252
4143.14	0.029334
4150.41	0.0321113
4161.31	0.0367812
4172.21	0.0421146
4183.11	0.0481798
4190.38	0.0526644
4201.29	0.0601055
4212.19	0.0684664
4223.09	0.0778168
4230.36	0.0846333
4241.26	0.0957795
4252.17	0.108084
4263.07	0.121599
4270.34	0.131305
4281.24	0.146932
4292.15	0.163865
4303.05	0.182118
4310.32	0.195021
4321.22	0.215466
4332.12	0.237194
4343.03	0.260161
4350.3	0.276131
4361.2	0.301016
4372.1	0.326931
4383	0.353764
4390.27	0.372098
4401.18	0.40016
4412.08	0.42875
4422.98	0.457693
4430.25	0.47709
4441.15	0.506192
4452.06	0.535112
4462.96	0.563632
4470.23	0.582314
4481.13	0.60967
4492.03	0.636024
4502.94	0.661151
4510.21	0.67711
4521.11	0.699702
4532.01	0.720494
4542.92	0.739292
4550.18	0.750625
4561.09	0.765706
4571.99	0.778349
4582.89	0.788425
4590.16	0.793661
4601.06	0.799227
4611.97	0.801986
4622.87	0.801892
4630.14	0.800233
4641.04	0.795346
4651.95	0.787599
4662.85	0.777033
4670.12	0.768452
4681.02	0.753333
4691.92	0.735602
4702.83	0.715372
4710.09	0.700558
4721	0.67645
4731.9	0.65021
4742.8	0.621996
4750.07	0.602171
4760.98	0.571038
4771.88	0.538386
4782.78	0.50439
4790.05	0.481068
4800.95	0.445228
4811.86	0.408518
4822.76	0.371108
4830.03	0.345864
4840.93	0.307663
4851.83	0.269201
4862.74	0.230633
4870.01	0.204935
4880.91	0.166515
4891.81	0.128366
4902.71	0.0906187
4913.62	0.0533945
4920.89	0.0289264
4931.79	-0.00717268
4942.69	-0.042456
4953.6	-0.076826
4960.86	-0.0991869
4971.77	-0.131836
4982.67	-0.163343
4993.57	-0.193633
5000.84	-0.213117
5011.75	-0.241232
5022.65	-0.267961
5033.55	-0.293253
5040.82	-0.309293
5051.72	-0.33209
5062.63	-0.35334
5073.53	-0.373015
5080.8	-0.385244
5091.7	-0.402245
5102.6	-0.417624
5113.51	-0.431375
5120.78	-0.439638
5131.68	-0.450683
5142.58	-0.460118
5153.49	-0.467963
5160.75	-0.472322
5171.66	-0.477576
5182.56	-0.48132
5193.46	-0.483598
5200.73	-0.484324
5211.63	-0.484263
5222.54	-0.482871
5233.44	-0.48021
5240.71	-0.477762
5251.61	-0.473129
5262.52	-0.467405
5273.42	-0.460665
5280.69	-0.455643
5291.59	-0.447376
5302.49	-0.438297
5313.4	-0.428486
5320.67	-0.421577
5331.57	-0.410721
5342.47	-0.399345
5353.37	-0.387525
5360.64	-0.379438
5371.55	-0.36705
5382.45	-0.354421
5393.35	-0.34162
5400.62	-0.333024
5411.52	-0.320087
5422.43	-0.307152
5433.33	-0.294279
5440.6	-0.285758
5451.5	-0.273107
5462.4	-0.260656
5473.31	-0.248447
5480.58	-0.240463
5491.48	-0.228746
5502.38	-0.217369
5513.29	-0.20636
5520.55	-0.199238
5531.46	-0.188896
5542.36	-0.17898
5553.26	-0.169504
5560.53	-0.163436
5571.44	-0.154717
5582.34	-0.146461
5593.24	-0.138671
5600.51	-0.133738
5611.41	-0.126726
5622.32	-0.120179
5633.22	-0.11409
5640.49	-0.110283
5651.39	-0.104946
5662.29	-0.100048
5673.2	-0.0955809
5680.47	-0.092837
5691.37	-0.0890644
5702.27	-0.0856939
5713.17	-0.0827137
5720.44	-0.0809379
5731.35	-0.0785818
5742.25	-0.0765836
5753.15	-0.074931
5760.42	-0.074015
5771.32	-0.0729103
5782.23	-0.0721173
5793.13	-0.0716232
5800.4	-0.0714533
5811.3	-0.0714282
5822.21	-0.0716667
5833.11	-0.0721554
5840.38	-0.0726133
5851.28	-0.0734879
5862.18	-0.074575
5873.09	-0.0758596
5880.35	-0.0768183
5891.26	-0.0783982
5902.16	-0.0801341
5913.06	-0.0820094
5920.33	-0.0833287
5931.24	-0.0853984
5942.14	-0.0875614
5953.04	-0.0897993
5960.31	-0.0913238
5971.21	-0.0936454
5982.12	-0.0959921
5993.02	-0.0983446
6000.29	-0.0999067
6011.19	-0.102226
6022.09	-0.1045
6033	-0.106711
6040.27	-0.108139
6051.17	-0.110201
6062.07	-0.112151
6072.98	-0.11397
6080.24	-0.115104
6091.15	-0.116672
6102.05	-0.118069
6112.95	-0.119283
6120.22	-0.119983
6131.13	-0.120862
6142.03	-0.121528
6152.93	-0.12197
6160.2	-0.122138
6171.1	-0.122195
6182.01	-0.122013
6192.91	-0.12159
6200.18	-0.121174
6211.08	-0.120346
6221.98	-0.119278
6232.89	-0.11797
6240.16	-0.116968
6251.06	-0.115272
6261.96	-0.113353
6272.87	-0.111216
6280.13	-0.109676
6291.04	-0.107198
6301.94	-0.104531
6312.84	-0.101684
6320.11	-0.0996928
6331.01	-0.0965758
6341.92	-0.0933144
6352.82	-0.0899224
6360.09	-0.0875956
6370.99	-0.0840177
6381.9	-0.0803478
6392.8	-0.0766002
6400.07	-0.0740659
6410.97	-0.0702211
6421.87	-0.0663369
6432.78	-0.0624271
6440.05	-0.0598129
6450.95	-0.0558898
6461.85	-0.0519754
6472.76	-0.0480817
6480.02	-0.0455029
6490.93	-0.0416681
6501.83	-0.0378823
6512.73	-0.0341548
6520	-0.0317064
6530.9	-0.0280946
6541.81	-0.0245622
6552.71	-0.0211157
6563.61	-0.0177612
6570.88	-0.0155785
6581.79	-0.0123885
6592.69	-0.00930297
6603.59	-0.0063256
6610.86	-0.00440238
6621.76	-0.00161216
6632.67	0.00106235
6643.57	0.00361898
6650.84	0.005257
6661.74	0.00761318
6672.64	0.00984704
6683.55	0.0119572
6690.82	0.0132947
6701.72	0.0151961
6712.62	0.0169708
6723.53	0.0186175
6730.79	0.0196438
6741.7	0.0210751
6752.6	0.0223757
6763.5	0.0235445
6770.77	0.02425
6781.68	0.0251971
6792.58	0.0260097
6803.48	0.0266871
6810.75	0.0270632
6821.65	0.0275136
6832.56	0.0278271
6843.46	0.0280036
6850.73	0.0280451
6861.63	0.0279933
6872.53	0.0278052
6883.44	0.0274818
6890.71	0.0271917
6901.61	0.0266459
6912.51	0.0259695
6923.42	0.025165
6930.68	0.024559
6941.59	0.0235481
6952.49	0.0224185
6963.39	0.0211746
6970.66	0.0202844
6981.56	0.0188614
6992.47	0.0173384
7003.37	0.0157217
7010.64	0.014595
7021.54	0.0128368
7032.45	0.0110032
7043.35	0.00910169
7050.62	0.00780007
7061.52	0.00580261
7072.42	0.00375828
7083.33	0.00167524
7090.6	0.000269123
7101.5	-0.00186005
7112.4	-0.00400586
7123.31	-0.00616003
7130.57	-0.00759674
7141.48	-0.0097467
7152.38	-0.0118834
7163.28	-0.013999
7170.55	-0.0153939
7181.45	-0.0174574
7192.36	-0.0194796
7203.26	-0.0214534
7210.53	-0.022739
7221.43	-0.0246168
7232.34	-0.0264282
7243.24	-0.0281668
7250.51	-0.0292823
7261.41	-0.0308859
7272.31	-0.0324008
7283.22	-0.0338215
7290.48	-0.0347135
7301.39	-0.0359653
7312.29	-0.037109
7323.19	-0.03814
7330.46	-0.0387624
7341.37	-0.0395956
7352.27	-0.0403046
7363.17	-0.0408854
7370.44	-0.0411996
7381.34	-0.041559
7392.25	-0.0417812
7403.15	-0.0418634
7410.42	-0.0418391
7421.32	-0.0416824
7432.22	-0.0413796
7443.13	-0.0409289
7450.4	-0.0405457
7461.3	-0.039846
7472.2	-0.0389958
7483.1	-0.037995
7490.37	-0.0372441
7501.28	-0.0359927
7512.18	-0.034592
7523.08	-0.0330433
7530.35	-0.0319296
7541.25	-0.0301387
7552.16	-0.0282058
7563.06	-0.026134
7570.33	-0.0246774
7581.23	-0.0223823
7592.13	-0.0199588
7603.04	-0.017412
7610.31	-0.0156481
7621.21	-0.0129077
7632.11	-0.0100591
7643.01	-0.00710907
7650.28	-0.00508939
7661.19	-0.00198588
7672.09	0.00119954
7682.99	0.00445879
7690.26	0.00666848
7701.16	0.0100319
7712.07	0.0134459
7722.97	0.0169013
7730.24	0.0192232
7741.14	0.0227265
7752.04	0.0262455
7762.95	0.0297704
7770.21	0.0321187
7781.12	0.0356314
7792.02	0.0391234
7802.92	0.042585
7810.19	0.0448711
7821.1	0.0482605
7832	0.0515941
7842.9	0.0548629
7850.17	0.0570017
7861.07	0.0601432
7871.98	0.0631977
7882.88	0.0661576
7890.15	0.068075
7901.05	0.0708623
7911.95	0.0735381
7922.86	0.076097
7930.12	0.0777359
7941.03	0.0800905
7951.93	0.082318
7962.83	0.0844156
7970.1	0.085741
7981.01	0.0876187
7991.91	0.0893634
8002.81	0.0909753
8010.08	0.0919765
8020.98	0.0933692
8031.89	0.0946328
8042.79	0.0957698
8050.06	0.0964589
8060.96	0.0973919
8071.86	0.0982075
8082.77	0.0989099
8090.03	0.0993175
8100.94	0.0998415
8111.84	0.100265
8122.74	0.100593
8130.01	0.100761
8140.92	0.100941
8151.82	0.10104
8162.72	0.101062
8173.62	0.101012
8180.89	0.100941
8191.8	0.100782
8202.7	0.100563
8213.6	0.100289
8220.87	0.100078
8231.77	0.0997195
8242.68	0.0993156
8253.58	0.0988687
8260.85	0.0985482
8271.75	0.0980357
8282.65	0.0974867
8293.56	0.0969033
8300.83	0.0964961
8311.73	0.095859
8322.63	0.0951915
8333.54	0.0944946
8340.8	0.0940144
8351.71	0.093271
8362.61	0.0925008
8373.51	0.0917045
8380.78	0.0911596
8391.69	0.0903216
8402.59	0.0894595
8413.49	0.088574
8420.76	0.087971
8431.66	0.0870483
8442.57	0.0861044
8453.47	0.0851401
8460.74	0.0844864
8471.64	0.0834904
8482.54	0.0824767
8493.45	0.0814464
8500.72	0.0807508
8511.62	0.0796951
8522.52	0.0786255
8533.42	0.0775432
8540.69	0.076815
8551.6	0.0757134
8562.5	0.0746013
8573.4	0.0734793
8580.67	0.0727261
8591.57	0.0715888
8602.48	0.0704427
8613.38	0.0692876
8620.65	0.0685126
8631.55	0.0673422
8642.46	0.066162
8653.36	0.064971
8660.63	0.0641705
8671.53	0.0629592
8682.43	0.0617337
8693.34	0.0604926
8700.61	0.0596555
8711.51	0.058384
8722.41	0.0570915
8733.31	0.0557756
8740.58	0.0548842
8751.49	0.0535242
8762.39	0.0521345
8773.29	0.0507126
8780.56	0.0497455
8791.46	0.0482645
8802.37	0.0467449
8813.27	0.0451847
8820.54	0.044121
8831.44	0.0424887
8842.35	0.0408109
8853.25	0.0390865
8860.52	0.0379104
8871.42	0.036106
8882.32	0.034253
8893.23	0.0323513
8900.5	0.0310566
8911.4	0.0290747
8922.3	0.027046
8933.2	0.0249719
8940.47	0.0235648
8951.38	0.0214192
8962.28	0.019234
8973.18	0.017012
8980.45	0.0155119
8991.35	0.013236
9002.26	0.0109328
9013.16	0.00860611
9020.43	0.00704413
9031.33	0.00468815
9042.24	0.00232068
9053.14	-5.35366e-05
9060.41	-0.00163771
9071.31	-0.00401237
9082.21	-0.00638074
9093.12	-0.00873792
9100.39	-0.0103008
9111.29	-0.0126285
9122.19	-0.0149324
9133.09	-0.0172078
9140.36	-0.0187067
9151.27	-0.020925
9162.17	-0.0231037
9173.07	-0.025239
9180.34	-0.0266367
9191.24	-0.0286919
9202.15	-0.030695
9213.05	-0.032643
9220.32	-0.03391
9231.22	-0.0357611
9242.13	-0.0375512
9253.03	-0.0392786
9260.3	-0.0403947
9271.2	-0.0420145
9282.1	-0.0435683
9293.01	-0.0450554
9300.27	-0.0460094
9311.18	-0.0473841
9322.08	-0.0486912
9332.98	-0.0499306
9340.25	-0.0507194
9351.16	-0.0518468
9362.06	-0.0529075
9372.96	-0.0539025
9380.23	-0.0545296
9391.13	-0.0554168
9402.04	-0.0562409
9412.94	-0.0570031
9420.21	-0.0574777
9431.11	-0.0581402
9442.01	-0.0587452
9452.92	-0.0592944
9460.19	-0.0596306
9471.09	-0.0600915
9481.99	-0.0605023
9492.9	-0.0608656
9500.16	-0.0610826
9511.07	-0.0613722
9521.97	-0.0616214
9532.87	-0.061833
9540.14	-0.0619547
9551.05	-0.0621105
9561.95	-0.0622371
9572.85	-0.0623377
9580.12	-0.0623921
9591.02	-0.0624571
9601.93	-0.0625052
9612.83	-0.0625399
9620.1	-0.0625572
9631	-0.0625771
9641.9	-0.0625926
9652.81	-0.0626068
9660.08	-0.0626172
9670.98	-0.0626362
9681.88	-0.0626619
9692.79	-0.0626969
9700.05	-0.0627265
9710.96	-0.0627822
9721.86	-0.0628528
9732.76	-0.0629402
9740.03	-0.0630084
9750.94	-0.0631264
9761.84	-0.063264
9772.74	-0.0634215
9780.01	-0.0635377
9790.91	-0.0637285
9801.82	-0.0639388
9812.72	-0.0641678
9823.62	-0.0644143
9830.89	-0.0645876
9841.79	-0.06486
9852.7	-0.0651453
9863.6	-0.0654416
9870.87	-0.0656439
9881.77	-0.0659529
9892.68	-0.066266
9903.58	-0.0665803
9910.85	-0.0667892
9921.75	-0.0670991
9932.65	-0.0674025
9943.56	-0.0676961
9950.83	-0.067885
9961.73	-0.0681558
9972.63	-0.0684089
9983.53	-0.0686417
9990.8	-0.0687843
10001.7	-0.0689772
10012.6	-0.0691428
10023.5	-0.0692791
10030.8	-0.0693526
10041.7	-0.0694354
10052.6	-0.0694839
10063.5	-0.0694965
10070.8	-0.0694845
10081.7	-0.0694351
10092.6	-0.0693472
10103.5	-0.0692203
10110.7	-0.0691139
10121.6	-0.0689214
10132.5	-0.0686896
10143.4	-0.0684186
10150.7	-0.0682165
10161.6	-0.0678815
10172.5	-0.0675089
10183.4	-0.0670999
10190.7	-0.0668074
10201.6	-0.0663399
10212.5	-0.065839
10223.4	-0.0653063
10230.7	-0.0649342
10241.6	-0.0643518
10252.5	-0.063742
10263.4	-0.0631064
10270.6	-0.0626693
10281.6	-0.0619952
10292.5	-0.0613005
10303.4	-0.0605874
10310.6	-0.0601027
10321.5	-0.0593635
10332.4	-0.0586115
10343.3	-0.0578489
10350.6	-0.0573358
10361.5	-0.0565606
10372.4	-0.0557807
10383.3	-0.0549986
10390.6	-0.054477
10401.5	-0.053696
10412.4	-0.0529187
10423.3	-0.0521474
10430.6	-0.0516376
10441.5	-0.0508811
10452.4	-0.0501364
10463.3	-0.0494057
10470.5	-0.0489273
10481.4	-0.0482243
10492.3	-0.0475407
10503.2	-0.0468781
10510.5	-0.0464491
10521.4	-0.0458257
10532.3	-0.045228
10543.2	-0.0446575
10550.5	-0.0442929
10561.4	-0.0437707
10572.3	-0.043279
10583.2	-0.0428189
10590.5	-0.0425302
10601.4	-0.0421246
10612.3	-0.0417525
10623.2	-0.0414146
10630.5	-0.0412084
10641.4	-0.0409279
10652.3	-0.040682
10663.2	-0.0404706
10670.4	-0.0403488
10681.3	-0.0401945
10692.2	-0.0400738
10703.1	-0.0399863
10710.4	-0.0399459
10721.3	-0.0399119
10732.2	-0.0399089
10743.1	-0.0399358
10750.4	-0.0399698
10761.3	-0.0400442
10772.2	-0.0401454
10783.1	-0.040272
10790.4	-0.0403699
10801.3	-0.0405359
10812.2	-0.0407234
10823.1	-0.0409309
10830.3	-0.0410795
10841.2	-0.0413166
10852.1	-0.0415693
10863	-0.0418357
10870.3	-0.04202
10881.2	-0.0423052
10892.1	-0.0425994
10903	-0.0429004
10910.3	-0.0431041
10921.2	-0.0434124
10932.1	-0.0437226
10943	-0.0440324
10950.3	-0.0442379
10961.2	-0.0445428
10972.1	-0.044842
10983	-0.0451334
10990.3	-0.0453223
11001.2	-0.045596
11012.1	-0.0458563
11023	-0.0461011
11030.2	-0.0462546
11041.1	-0.0464687
11052	-0.0466617
11062.9	-0.0468313
11070.2	-0.0469305
11081.1	-0.0470567
11092	-0.0471541
11102.9	-0.0472207
11110.2	-0.0472471
11121.1	-0.0472581
11132	-0.0472334
11142.9	-0.047171
11150.2	-0.0471076
11161.1	-0.0469788
11172	-0.0468081
11182.9	-0.0465939
11190.1	-0.0464263
11201	-0.0461368
11211.9	-0.0458006
11222.9	-0.0454165
11230.1	-0.0451333
11241	-0.0446675
11251.9	-0.0441516
11262.8	-0.0435852
11270.1	-0.0431792
11281	-0.0425274
11291.9	-0.0418242
11302.8	-0.0410693
11310.1	-0.0405375
11321	-0.0396968
11331.9	-0.0388049
11342.8	-0.0378622
11350.1	-0.0372057
11361	-0.0361795
11371.9	-0.0351041
11382.8	-0.0339802
11390	-0.0332045
11400.9	-0.0320021
11411.8	-0.0307538
11422.7	-0.029461
11430	-0.0285749
11440.9	-0.0272104
11451.8	-0.0258048
11462.7	-0.0243595
11473.6	-0.0228758
11480.9	-0.0218662
11491.8	-0.0203222
11502.7	-0.0187442
11513.6	-0.0171337
11520.9	-0.0160428
11531.8	-0.014382
11542.7	-0.0126933
11553.6	-0.0109785
11560.8	-0.00982166
11571.7	-0.00806727
11582.7	-0.00629153
11593.6	-0.00449629
11600.8	-0.00328953
11611.7	-0.00146588
11622.6	0.000372342
11633.5	0.00222324
11640.8	0.00346329
11651.7	0.00533111
11662.6	0.00720652
11673.5	0.00908761
11680.8	0.0103439
11691.7	0.01223
11702.6	0.0141167
11713.5	0.0160018
11720.8	0.0172566
11731.7	0.0191347
11742.6	0.0210058
11753.5	0.022868
11760.7	0.0241034
11771.6	0.0259461
11782.5	0.0277742
11793.4	0.0295858
11800.7	0.0307834
11811.6	0.0325627
11822.5	0.03432
11833.4	0.036053
11840.7	0.0371939
11851.6	0.0388821
11862.5	0.0405405
11873.4	0.0421673
11880.7	0.0432333
11891.6	0.0448029
11902.5	0.0463358
11913.4	0.0478302
11920.6	0.0488041
11931.5	0.0502303
11942.5	0.0516135
11953.4	0.0529522
11960.6	0.0538193
11971.5	0.0550809
11982.4	0.0562947
11993.3	0.0574598
