0	0
120.282	0
240.565	0
360.847	0
481.129	0
601.412	0
721.694	0
841.976	0
962.258	0
1082.54	0
1202.82	0
1323.11	0
1443.39	0
1563.67	0
1683.95	0
1804.23	0
1924.52	-3.98813e-08
2044.8	-1.12826e-07
2165.08	1.73836e-07
2285.36	4.71976e-06
2405.65	2.75678e-05
2525.93	0.000105578
2646.21	0.000315515
2766.49	0.000788807
2886.77	0.00171249
3007.06	0.00330565
3127.34	0.005768
3247.62	0.00920883
3367.9	0.0135756
3488.18	0.0186051
3608.46	0.0238167
3728.74	0.0285539
3849.02	0.0320703
3969.31	0.0336427
4089.59	0.0326873
4209.87	0.0288589
4330.15	0.0221116
4450.43	0.0127127
4570.72	0.00120788
4691	-0.0116535
4811.28	-0.0250191
4931.56	-0.038041
5051.84	-0.0499729
5172.13	-0.0602426
5292.41	-0.0684905
5412.69	-0.0745737
5532.97	-0.0785383
5653.25	-0.0805715
5773.53	-0.080943
5893.82	-0.0799481
6014.1	-0.077862
6134.38	-0.0749107
6254.66	-0.0712603
6374.94	-0.067021
6495.23	-0.062264
6615.51	-0.0570414
6735.79	-0.0514065
6856.07	-0.0454277
6976.35	-0.0391954
7096.64	-0.0328201
7216.92	-0.0264246
7337.2	-0.0201323
7457.48	-0.0140549
7577.76	-0.00828291
7698.05	-0.00287953
7818.33	0.00212052
7938.61	0.00670795
8058.89	0.0108929
8179.17	0.0146977
8299.46	0.0181496
8419.74	0.0212755
8540.02	0.0240982
8660.3	0.0266357
8780.58	0.0289011
8900.86	0.030905
9021.14	0.0326567
9141.43	0.0341664
9261.71	0.0354455
9381.99	0.0365067
9502.27	0.0373633
9622.55	0.0380278
9742.83	0.0385107
9863.11	0.0388198
9983.4	0.0389598
10103.7	0.0389326
10224	0.0387379
10344.2	0.0383745
10464.5	0.0378415
10584.8	0.0371386
10705.1	0.0362676
10825.4	0.0352321
10945.6	0.0340379
11065.9	0.0326926
11186.2	0.0312052
11306.5	0.0295861
11426.8	0.0278467
11547.1	0.0259994
11667.3	0.0240577
11787.6	0.0220361
11907.9	0.0199501
