STARTING WORLD SCHEDULER SERVER
CLIENT SETUP: adding client 45771
 + TIMESTAMP: 0.215967
START TIMESTAMP: 0.216001
+++++++++++++++++++++++++++++++++++++++++++++++++++++++++++
+ Client Mapping:
  > Client 45771 (0):	

+ Core Mapping:	0 0 0 0 0 0 0 0 0 0 0 0 0 0 0 0 0 0 0 0 0 0 0 0 0 0 0 0 0 0 0 0 0 0 0 0 0 0 0 0 
+ Optimal point: 
+++++++++++++++++++++++++++++++++++++++++++++++++++++++++++
INVADE: client 45771
 + TIMESTAMP: 0.223972
RESSOURCE DISTRIBUTION CHANGED
++++++++++++++++++++++++++++++++++++++++++++++++
INVADE (45771)
  + pid: 45771
  + min_cores: 1
  + max_cores: 512
  + scalability graph: 
1, 1.36329, 1.52423, 1.62017, 1.68565, 1.73398, 1.77154, 1.80182, 1.8269, 1.84812, 1.86637, 1.88229, 1.89634, 1.90885, 1.92009, 1.93026, 1.93952, 1.94799, 1.95579, 1.963, 1.96968, 1.9759, 1.98172, 1.98716, 1.99228, 1.9971, 2.00164, 2.00594, 2.01002, 2.01389, 2.01757, 2.02108, 2.02443, 2.02763, 2.03069, 2.03362, 2.03644, 2.03914, 2.04173, 2.04423, 
Number of clients: 1

+++++++++++++++++++++++++++++++++++++++++++++++++++++++++++
+ Client Mapping:
  > Client 45771 (40):	0 1 2 3 4 5 6 7 8 9 10 11 12 13 14 15 16 17 18 19 20 21 22 23 24 25 26 27 28 29 30 31 32 33 34 35 36 37 38 39 

+ Core Mapping:	45771 45771 45771 45771 45771 45771 45771 45771 45771 45771 45771 45771 45771 45771 45771 45771 45771 45771 45771 45771 45771 45771 45771 45771 45771 45771 45771 45771 45771 45771 45771 45771 45771 45771 45771 45771 45771 45771 45771 45771 
+ Optimal point: 40 
+++++++++++++++++++++++++++++++++++++++++++++++++++++++++++
CLIENT SETUP: adding client 45772
 + TIMESTAMP: 0.224117
+++++++++++++++++++++++++++++++++++++++++++++++++++++++++++
+ Client Mapping:
  > Client 45771 (40):	0 1 2 3 4 5 6 7 8 9 10 11 12 13 14 15 16 17 18 19 20 21 22 23 24 25 26 27 28 29 30 31 32 33 34 35 36 37 38 39 
  > Client 45772 (0):	

+ Core Mapping:	45771 45771 45771 45771 45771 45771 45771 45771 45771 45771 45771 45771 45771 45771 45771 45771 45771 45771 45771 45771 45771 45771 45771 45771 45771 45771 45771 45771 45771 45771 45771 45771 45771 45771 45771 45771 45771 45771 45771 45771 
+ Optimal point: 40 
+++++++++++++++++++++++++++++++++++++++++++++++++++++++++++
INVADE: client 45772
 + TIMESTAMP: 0.224243
CLIENT SETUP: adding client 45769
 + TIMESTAMP: 0.224513
+++++++++++++++++++++++++++++++++++++++++++++++++++++++++++
+ Client Mapping:
  > Client 45771 (40):	0 1 2 3 4 5 6 7 8 9 10 11 12 13 14 15 16 17 18 19 20 21 22 23 24 25 26 27 28 29 30 31 32 33 34 35 36 37 38 39 
  > Client 45772 (0):	
  > Client 45769 (0):	

+ Core Mapping:	45771 45771 45771 45771 45771 45771 45771 45771 45771 45771 45771 45771 45771 45771 45771 45771 45771 45771 45771 45771 45771 45771 45771 45771 45771 45771 45771 45771 45771 45771 45771 45771 45771 45771 45771 45771 45771 45771 45771 45771 
+ Optimal point: 20 20 
+++++++++++++++++++++++++++++++++++++++++++++++++++++++++++
INVADE: client 45769
 + TIMESTAMP: 0.231934
CLIENT SETUP: adding client 45773
 + TIMESTAMP: 0.235983
+++++++++++++++++++++++++++++++++++++++++++++++++++++++++++
+ Client Mapping:
  > Client 45771 (40):	0 1 2 3 4 5 6 7 8 9 10 11 12 13 14 15 16 17 18 19 20 21 22 23 24 25 26 27 28 29 30 31 32 33 34 35 36 37 38 39 
  > Client 45772 (0):	
  > Client 45769 (0):	
  > Client 45773 (0):	

+ Core Mapping:	45771 45771 45771 45771 45771 45771 45771 45771 45771 45771 45771 45771 45771 45771 45771 45771 45771 45771 45771 45771 45771 45771 45771 45771 45771 45771 45771 45771 45771 45771 45771 45771 45771 45771 45771 45771 45771 45771 45771 45771 
+ Optimal point: 14 13 13 
+++++++++++++++++++++++++++++++++++++++++++++++++++++++++++
INVADE: client 45773
 + TIMESTAMP: 0.243917
CLIENT SETUP: adding client 45770
 + TIMESTAMP: 0.255938
+++++++++++++++++++++++++++++++++++++++++++++++++++++++++++
+ Client Mapping:
  > Client 45771 (40):	0 1 2 3 4 5 6 7 8 9 10 11 12 13 14 15 16 17 18 19 20 21 22 23 24 25 26 27 28 29 30 31 32 33 34 35 36 37 38 39 
  > Client 45772 (0):	
  > Client 45769 (0):	
  > Client 45773 (0):	
  > Client 45770 (0):	

+ Core Mapping:	45771 45771 45771 45771 45771 45771 45771 45771 45771 45771 45771 45771 45771 45771 45771 45771 45771 45771 45771 45771 45771 45771 45771 45771 45771 45771 45771 45771 45771 45771 45771 45771 45771 45771 45771 45771 45771 45771 45771 45771 
+ Optimal point: 10 10 10 10 
+++++++++++++++++++++++++++++++++++++++++++++++++++++++++++
INVADE: client 45770
 + TIMESTAMP: 0.256045
++++++++++++++++++++++++++++++++++++++++++++++++
 + TIMESTAMP: 0.300702
REINVADE (45771)
  + pid: 45771
  + min_cores: 1
  + max_cores: 512
  + scalability graph: 
1, 1.36329, 1.52423, 1.62017, 1.68565, 1.73398, 1.77154, 1.80182, 1.8269, 1.84812, 1.86637, 1.88229, 1.89634, 1.90885, 1.92009, 1.93026, 1.93952, 1.94799, 1.95579, 1.963, 1.96968, 1.9759, 1.98172, 1.98716, 1.99228, 1.9971, 2.00164, 2.00594, 2.01002, 2.01389, 2.01757, 2.02108, 2.02443, 2.02763, 2.03069, 2.03362, 2.03644, 2.03914, 2.04173, 2.04423, 
Number of clients: 5

+++++++++++++++++++++++++++++++++++++++++++++++++++++++++++
+ Client Mapping:
  > Client 45771 (8):	32 33 34 35 36 37 38 39 
  > Client 45772 (0):	
  > Client 45769 (0):	
  > Client 45773 (0):	
  > Client 45770 (0):	

+ Core Mapping:	0 0 0 0 0 0 0 0 0 0 0 0 0 0 0 0 0 0 0 0 0 0 0 0 0 0 0 0 0 0 0 0 45771 45771 45771 45771 45771 45771 45771 45771 
+ Optimal point: 8 8 8 8 8 
+++++++++++++++++++++++++++++++++++++++++++++++++++++++++++
++++++++++++++++++++++++++++++++++++++++++++++++
 + TIMESTAMP: 0.303958
REINVADE (45769)
  + pid: 45769
  + min_cores: 1
  + max_cores: 512
  + scalability graph: 
1, 1.36329, 1.52423, 1.62017, 1.68565, 1.73398, 1.77154, 1.80182, 1.8269, 1.84812, 1.86637, 1.88229, 1.89634, 1.90885, 1.92009, 1.93026, 1.93952, 1.94799, 1.95579, 1.963, 1.96968, 1.9759, 1.98172, 1.98716, 1.99228, 1.9971, 2.00164, 2.00594, 2.01002, 2.01389, 2.01757, 2.02108, 2.02443, 2.02763, 2.03069, 2.03362, 2.03644, 2.03914, 2.04173, 2.04423, 
Number of clients: 5

+++++++++++++++++++++++++++++++++++++++++++++++++++++++++++
+ Client Mapping:
  > Client 45771 (8):	32 33 34 35 36 37 38 39 
  > Client 45772 (0):	
  > Client 45769 (8):	0 1 2 3 4 5 6 7 
  > Client 45773 (0):	
  > Client 45770 (0):	

+ Core Mapping:	45769 45769 45769 45769 45769 45769 45769 45769 0 0 0 0 0 0 0 0 0 0 0 0 0 0 0 0 0 0 0 0 0 0 0 0 45771 45771 45771 45771 45771 45771 45771 45771 
+ Optimal point: 8 8 8 8 8 
+++++++++++++++++++++++++++++++++++++++++++++++++++++++++++
++++++++++++++++++++++++++++++++++++++++++++++++
 + TIMESTAMP: 0.304119
REINVADE (45772)
  + pid: 45772
  + min_cores: 1
  + max_cores: 512
  + scalability graph: 
1, 1.36329, 1.52423, 1.62017, 1.68565, 1.73398, 1.77154, 1.80182, 1.8269, 1.84812, 1.86637, 1.88229, 1.89634, 1.90885, 1.92009, 1.93026, 1.93952, 1.94799, 1.95579, 1.963, 1.96968, 1.9759, 1.98172, 1.98716, 1.99228, 1.9971, 2.00164, 2.00594, 2.01002, 2.01389, 2.01757, 2.02108, 2.02443, 2.02763, 2.03069, 2.03362, 2.03644, 2.03914, 2.04173, 2.04423, 
Number of clients: 5

+++++++++++++++++++++++++++++++++++++++++++++++++++++++++++
+ Client Mapping:
  > Client 45771 (8):	32 33 34 35 36 37 38 39 
  > Client 45772 (8):	8 9 10 11 12 13 14 15 
  > Client 45769 (8):	0 1 2 3 4 5 6 7 
  > Client 45773 (0):	
  > Client 45770 (0):	

+ Core Mapping:	45769 45769 45769 45769 45769 45769 45769 45769 45772 45772 45772 45772 45772 45772 45772 45772 0 0 0 0 0 0 0 0 0 0 0 0 0 0 0 0 45771 45771 45771 45771 45771 45771 45771 45771 
+ Optimal point: 8 8 8 8 8 
+++++++++++++++++++++++++++++++++++++++++++++++++++++++++++
++++++++++++++++++++++++++++++++++++++++++++++++
 + TIMESTAMP: 0.405535
REINVADE (45770)
  + pid: 45770
  + min_cores: 1
  + max_cores: 512
  + scalability graph: 
1, 1.36329, 1.52423, 1.62017, 1.68565, 1.73398, 1.77154, 1.80182, 1.8269, 1.84812, 1.86637, 1.88229, 1.89634, 1.90885, 1.92009, 1.93026, 1.93952, 1.94799, 1.95579, 1.963, 1.96968, 1.9759, 1.98172, 1.98716, 1.99228, 1.9971, 2.00164, 2.00594, 2.01002, 2.01389, 2.01757, 2.02108, 2.02443, 2.02763, 2.03069, 2.03362, 2.03644, 2.03914, 2.04173, 2.04423, 
Number of clients: 5

+++++++++++++++++++++++++++++++++++++++++++++++++++++++++++
+ Client Mapping:
  > Client 45771 (8):	32 33 34 35 36 37 38 39 
  > Client 45772 (8):	8 9 10 11 12 13 14 15 
  > Client 45769 (8):	0 1 2 3 4 5 6 7 
  > Client 45773 (0):	
  > Client 45770 (8):	16 17 18 19 20 21 22 23 

+ Core Mapping:	45769 45769 45769 45769 45769 45769 45769 45769 45772 45772 45772 45772 45772 45772 45772 45772 45770 45770 45770 45770 45770 45770 45770 45770 0 0 0 0 0 0 0 0 45771 45771 45771 45771 45771 45771 45771 45771 
+ Optimal point: 8 8 8 8 8 
+++++++++++++++++++++++++++++++++++++++++++++++++++++++++++
++++++++++++++++++++++++++++++++++++++++++++++++
 + TIMESTAMP: 0.417581
REINVADE (45773)
  + pid: 45773
  + min_cores: 1
  + max_cores: 512
  + scalability graph: 
1, 1.36329, 1.52423, 1.62017, 1.68565, 1.73398, 1.77154, 1.80182, 1.8269, 1.84812, 1.86637, 1.88229, 1.89634, 1.90885, 1.92009, 1.93026, 1.93952, 1.94799, 1.95579, 1.963, 1.96968, 1.9759, 1.98172, 1.98716, 1.99228, 1.9971, 2.00164, 2.00594, 2.01002, 2.01389, 2.01757, 2.02108, 2.02443, 2.02763, 2.03069, 2.03362, 2.03644, 2.03914, 2.04173, 2.04423, 
Number of clients: 5

+++++++++++++++++++++++++++++++++++++++++++++++++++++++++++
+ Client Mapping:
  > Client 45771 (8):	32 33 34 35 36 37 38 39 
  > Client 45772 (8):	8 9 10 11 12 13 14 15 
  > Client 45769 (8):	0 1 2 3 4 5 6 7 
  > Client 45773 (8):	24 25 26 27 28 29 30 31 
  > Client 45770 (8):	16 17 18 19 20 21 22 23 

+ Core Mapping:	45769 45769 45769 45769 45769 45769 45769 45769 45772 45772 45772 45772 45772 45772 45772 45772 45770 45770 45770 45770 45770 45770 45770 45770 45773 45773 45773 45773 45773 45773 45773 45773 45771 45771 45771 45771 45771 45771 45771 45771 
+ Optimal point: 8 8 8 8 8 
+++++++++++++++++++++++++++++++++++++++++++++++++++++++++++
CLIENT SHUTDOWN: client 45771
 + TIMESTAMP: 24.6976
+++++++++++++++++++++++++++++++++++++++++++++++++++++++++++
+ Client Mapping:
  > Client 45771 (0):	
  > Client 45772 (8):	8 9 10 11 12 13 14 15 
  > Client 45769 (8):	0 1 2 3 4 5 6 7 
  > Client 45773 (8):	24 25 26 27 28 29 30 31 
  > Client 45770 (8):	16 17 18 19 20 21 22 23 

+ Core Mapping:	45769 45769 45769 45769 45769 45769 45769 45769 45772 45772 45772 45772 45772 45772 45772 45772 45770 45770 45770 45770 45770 45770 45770 45770 45773 45773 45773 45773 45773 45773 45773 45773 0 0 0 0 0 0 0 0 
+ Optimal point: 8 8 8 8 8 
+++++++++++++++++++++++++++++++++++++++++++++++++++++++++++
client (45771) shutdown hint: 437.984
sum_client_shutdown_hint: 437.984
sum_client_shutdown_hint_div_time: 0
++++++++++++++++++++++++++++++++++++++++++++++++
 + TIMESTAMP: 24.6977
REINVADE (45773)
  + pid: 45773
  + min_cores: 1
  + max_cores: 512
  + scalability graph: 
1, 1.36329, 1.52423, 1.62017, 1.68565, 1.73398, 1.77154, 1.80182, 1.8269, 1.84812, 1.86637, 1.88229, 1.89634, 1.90885, 1.92009, 1.93026, 1.93952, 1.94799, 1.95579, 1.963, 1.96968, 1.9759, 1.98172, 1.98716, 1.99228, 1.9971, 2.00164, 2.00594, 2.01002, 2.01389, 2.01757, 2.02108, 2.02443, 2.02763, 2.03069, 2.03362, 2.03644, 2.03914, 2.04173, 2.04423, 
Number of clients: 4

+++++++++++++++++++++++++++++++++++++++++++++++++++++++++++
+ Client Mapping:
  > Client 45772 (8):	8 9 10 11 12 13 14 15 
  > Client 45769 (8):	0 1 2 3 4 5 6 7 
  > Client 45773 (10):	24 25 26 27 28 29 30 31 32 33 
  > Client 45770 (8):	16 17 18 19 20 21 22 23 

+ Core Mapping:	45769 45769 45769 45769 45769 45769 45769 45769 45772 45772 45772 45772 45772 45772 45772 45772 45770 45770 45770 45770 45770 45770 45770 45770 45773 45773 45773 45773 45773 45773 45773 45773 45773 45773 0 0 0 0 0 0 
+ Optimal point: 10 10 10 10 
+++++++++++++++++++++++++++++++++++++++++++++++++++++++++++
++++++++++++++++++++++++++++++++++++++++++++++++
 + TIMESTAMP: 24.6985
REINVADE (45770)
  + pid: 45770
  + min_cores: 1
  + max_cores: 512
  + scalability graph: 
1, 1.36329, 1.52423, 1.62017, 1.68565, 1.73398, 1.77154, 1.80182, 1.8269, 1.84812, 1.86637, 1.88229, 1.89634, 1.90885, 1.92009, 1.93026, 1.93952, 1.94799, 1.95579, 1.963, 1.96968, 1.9759, 1.98172, 1.98716, 1.99228, 1.9971, 2.00164, 2.00594, 2.01002, 2.01389, 2.01757, 2.02108, 2.02443, 2.02763, 2.03069, 2.03362, 2.03644, 2.03914, 2.04173, 2.04423, 
Number of clients: 4

+++++++++++++++++++++++++++++++++++++++++++++++++++++++++++
+ Client Mapping:
  > Client 45772 (8):	8 9 10 11 12 13 14 15 
  > Client 45769 (8):	0 1 2 3 4 5 6 7 
  > Client 45773 (10):	24 25 26 27 28 29 30 31 32 33 
  > Client 45770 (10):	16 17 18 19 20 21 22 23 34 35 

+ Core Mapping:	45769 45769 45769 45769 45769 45769 45769 45769 45772 45772 45772 45772 45772 45772 45772 45772 45770 45770 45770 45770 45770 45770 45770 45770 45773 45773 45773 45773 45773 45773 45773 45773 45773 45773 45770 45770 0 0 0 0 
+ Optimal point: 10 10 10 10 
+++++++++++++++++++++++++++++++++++++++++++++++++++++++++++
++++++++++++++++++++++++++++++++++++++++++++++++
 + TIMESTAMP: 24.6988
REINVADE (45769)
  + pid: 45769
  + min_cores: 1
  + max_cores: 512
  + scalability graph: 
1, 1.36329, 1.52423, 1.62017, 1.68565, 1.73398, 1.77154, 1.80182, 1.8269, 1.84812, 1.86637, 1.88229, 1.89634, 1.90885, 1.92009, 1.93026, 1.93952, 1.94799, 1.95579, 1.963, 1.96968, 1.9759, 1.98172, 1.98716, 1.99228, 1.9971, 2.00164, 2.00594, 2.01002, 2.01389, 2.01757, 2.02108, 2.02443, 2.02763, 2.03069, 2.03362, 2.03644, 2.03914, 2.04173, 2.04423, 
Number of clients: 4

+++++++++++++++++++++++++++++++++++++++++++++++++++++++++++
+ Client Mapping:
  > Client 45772 (8):	8 9 10 11 12 13 14 15 
  > Client 45769 (10):	0 1 2 3 4 5 6 7 36 37 
  > Client 45773 (10):	24 25 26 27 28 29 30 31 32 33 
  > Client 45770 (10):	16 17 18 19 20 21 22 23 34 35 

+ Core Mapping:	45769 45769 45769 45769 45769 45769 45769 45769 45772 45772 45772 45772 45772 45772 45772 45772 45770 45770 45770 45770 45770 45770 45770 45770 45773 45773 45773 45773 45773 45773 45773 45773 45773 45773 45770 45770 45769 45769 0 0 
+ Optimal point: 10 10 10 10 
+++++++++++++++++++++++++++++++++++++++++++++++++++++++++++
++++++++++++++++++++++++++++++++++++++++++++++++
 + TIMESTAMP: 24.6988
REINVADE (45772)
  + pid: 45772
  + min_cores: 1
  + max_cores: 512
  + scalability graph: 
1, 1.36329, 1.52423, 1.62017, 1.68565, 1.73398, 1.77154, 1.80182, 1.8269, 1.84812, 1.86637, 1.88229, 1.89634, 1.90885, 1.92009, 1.93026, 1.93952, 1.94799, 1.95579, 1.963, 1.96968, 1.9759, 1.98172, 1.98716, 1.99228, 1.9971, 2.00164, 2.00594, 2.01002, 2.01389, 2.01757, 2.02108, 2.02443, 2.02763, 2.03069, 2.03362, 2.03644, 2.03914, 2.04173, 2.04423, 
Number of clients: 4

+++++++++++++++++++++++++++++++++++++++++++++++++++++++++++
+ Client Mapping:
  > Client 45772 (10):	8 9 10 11 12 13 14 15 38 39 
  > Client 45769 (10):	0 1 2 3 4 5 6 7 36 37 
  > Client 45773 (10):	24 25 26 27 28 29 30 31 32 33 
  > Client 45770 (10):	16 17 18 19 20 21 22 23 34 35 

+ Core Mapping:	45769 45769 45769 45769 45769 45769 45769 45769 45772 45772 45772 45772 45772 45772 45772 45772 45770 45770 45770 45770 45770 45770 45770 45770 45773 45773 45773 45773 45773 45773 45773 45773 45773 45773 45770 45770 45769 45769 45772 45772 
+ Optimal point: 10 10 10 10 
+++++++++++++++++++++++++++++++++++++++++++++++++++++++++++
CLIENT SHUTDOWN: client 45769
 + TIMESTAMP: 24.8202
+++++++++++++++++++++++++++++++++++++++++++++++++++++++++++
+ Client Mapping:
  > Client 45772 (10):	8 9 10 11 12 13 14 15 38 39 
  > Client 45769 (0):	
  > Client 45773 (10):	24 25 26 27 28 29 30 31 32 33 
  > Client 45770 (10):	16 17 18 19 20 21 22 23 34 35 

+ Core Mapping:	0 0 0 0 0 0 0 0 45772 45772 45772 45772 45772 45772 45772 45772 45770 45770 45770 45770 45770 45770 45770 45770 45773 45773 45773 45773 45773 45773 45773 45773 45773 45773 45770 45770 0 0 45772 45772 
+ Optimal point: 10 10 10 10 
+++++++++++++++++++++++++++++++++++++++++++++++++++++++++++
client (45769) shutdown hint: 437.984
sum_client_shutdown_hint: 875.968
sum_client_shutdown_hint_div_time: 0
++++++++++++++++++++++++++++++++++++++++++++++++
 + TIMESTAMP: 24.8204
REINVADE (45770)
  + pid: 45770
  + min_cores: 1
  + max_cores: 512
  + scalability graph: 
1, 1.36329, 1.52423, 1.62017, 1.68565, 1.73398, 1.77154, 1.80182, 1.8269, 1.84812, 1.86637, 1.88229, 1.89634, 1.90885, 1.92009, 1.93026, 1.93952, 1.94799, 1.95579, 1.963, 1.96968, 1.9759, 1.98172, 1.98716, 1.99228, 1.9971, 2.00164, 2.00594, 2.01002, 2.01389, 2.01757, 2.02108, 2.02443, 2.02763, 2.03069, 2.03362, 2.03644, 2.03914, 2.04173, 2.04423, 
Number of clients: 3

+++++++++++++++++++++++++++++++++++++++++++++++++++++++++++
+ Client Mapping:
  > Client 45772 (10):	8 9 10 11 12 13 14 15 38 39 
  > Client 45773 (10):	24 25 26 27 28 29 30 31 32 33 
  > Client 45770 (13):	16 17 18 19 20 21 22 23 34 35 0 1 2 

+ Core Mapping:	45770 45770 45770 0 0 0 0 0 45772 45772 45772 45772 45772 45772 45772 45772 45770 45770 45770 45770 45770 45770 45770 45770 45773 45773 45773 45773 45773 45773 45773 45773 45773 45773 45770 45770 0 0 45772 45772 
+ Optimal point: 14 13 13 
+++++++++++++++++++++++++++++++++++++++++++++++++++++++++++
++++++++++++++++++++++++++++++++++++++++++++++++
 + TIMESTAMP: 24.8211
REINVADE (45772)
  + pid: 45772
  + min_cores: 1
  + max_cores: 512
  + scalability graph: 
1, 1.36329, 1.52423, 1.62017, 1.68565, 1.73398, 1.77154, 1.80182, 1.8269, 1.84812, 1.86637, 1.88229, 1.89634, 1.90885, 1.92009, 1.93026, 1.93952, 1.94799, 1.95579, 1.963, 1.96968, 1.9759, 1.98172, 1.98716, 1.99228, 1.9971, 2.00164, 2.00594, 2.01002, 2.01389, 2.01757, 2.02108, 2.02443, 2.02763, 2.03069, 2.03362, 2.03644, 2.03914, 2.04173, 2.04423, 
Number of clients: 3

+++++++++++++++++++++++++++++++++++++++++++++++++++++++++++
+ Client Mapping:
  > Client 45772 (14):	8 9 10 11 12 13 14 15 38 39 3 4 5 6 
  > Client 45773 (10):	24 25 26 27 28 29 30 31 32 33 
  > Client 45770 (13):	16 17 18 19 20 21 22 23 34 35 0 1 2 

+ Core Mapping:	45770 45770 45770 45772 45772 45772 45772 0 45772 45772 45772 45772 45772 45772 45772 45772 45770 45770 45770 45770 45770 45770 45770 45770 45773 45773 45773 45773 45773 45773 45773 45773 45773 45773 45770 45770 0 0 45772 45772 
+ Optimal point: 14 13 13 
+++++++++++++++++++++++++++++++++++++++++++++++++++++++++++
++++++++++++++++++++++++++++++++++++++++++++++++
 + TIMESTAMP: 24.8216
REINVADE (45773)
  + pid: 45773
  + min_cores: 1
  + max_cores: 512
  + scalability graph: 
1, 1.36329, 1.52423, 1.62017, 1.68565, 1.73398, 1.77154, 1.80182, 1.8269, 1.84812, 1.86637, 1.88229, 1.89634, 1.90885, 1.92009, 1.93026, 1.93952, 1.94799, 1.95579, 1.963, 1.96968, 1.9759, 1.98172, 1.98716, 1.99228, 1.9971, 2.00164, 2.00594, 2.01002, 2.01389, 2.01757, 2.02108, 2.02443, 2.02763, 2.03069, 2.03362, 2.03644, 2.03914, 2.04173, 2.04423, 
Number of clients: 3

+++++++++++++++++++++++++++++++++++++++++++++++++++++++++++
+ Client Mapping:
  > Client 45772 (14):	8 9 10 11 12 13 14 15 38 39 3 4 5 6 
  > Client 45773 (13):	24 25 26 27 28 29 30 31 32 33 7 36 37 
  > Client 45770 (13):	16 17 18 19 20 21 22 23 34 35 0 1 2 

+ Core Mapping:	45770 45770 45770 45772 45772 45772 45772 45773 45772 45772 45772 45772 45772 45772 45772 45772 45770 45770 45770 45770 45770 45770 45770 45770 45773 45773 45773 45773 45773 45773 45773 45773 45773 45773 45770 45770 45773 45773 45772 45772 
+ Optimal point: 14 13 13 
+++++++++++++++++++++++++++++++++++++++++++++++++++++++++++
CLIENT SHUTDOWN: client 45772
 + TIMESTAMP: 25.6343
+++++++++++++++++++++++++++++++++++++++++++++++++++++++++++
+ Client Mapping:
  > Client 45772 (0):	
  > Client 45773 (13):	24 25 26 27 28 29 30 31 32 33 7 36 37 
  > Client 45770 (13):	16 17 18 19 20 21 22 23 34 35 0 1 2 

+ Core Mapping:	45770 45770 45770 0 0 0 0 45773 0 0 0 0 0 0 0 0 45770 45770 45770 45770 45770 45770 45770 45770 45773 45773 45773 45773 45773 45773 45773 45773 45773 45773 45770 45770 45773 45773 0 0 
+ Optimal point: 14 13 13 
+++++++++++++++++++++++++++++++++++++++++++++++++++++++++++
client (45772) shutdown hint: 437.984
sum_client_shutdown_hint: 1313.95
sum_client_shutdown_hint_div_time: 0
++++++++++++++++++++++++++++++++++++++++++++++++
 + TIMESTAMP: 25.635
REINVADE (45773)
  + pid: 45773
  + min_cores: 1
  + max_cores: 512
  + scalability graph: 
1, 1.36329, 1.52423, 1.62017, 1.68565, 1.73398, 1.77154, 1.80182, 1.8269, 1.84812, 1.86637, 1.88229, 1.89634, 1.90885, 1.92009, 1.93026, 1.93952, 1.94799, 1.95579, 1.963, 1.96968, 1.9759, 1.98172, 1.98716, 1.99228, 1.9971, 2.00164, 2.00594, 2.01002, 2.01389, 2.01757, 2.02108, 2.02443, 2.02763, 2.03069, 2.03362, 2.03644, 2.03914, 2.04173, 2.04423, 
Number of clients: 2

+++++++++++++++++++++++++++++++++++++++++++++++++++++++++++
+ Client Mapping:
  > Client 45773 (20):	24 25 26 27 28 29 30 31 32 33 7 36 37 3 4 5 6 8 9 10 
  > Client 45770 (13):	16 17 18 19 20 21 22 23 34 35 0 1 2 

+ Core Mapping:	45770 45770 45770 45773 45773 45773 45773 45773 45773 45773 45773 0 0 0 0 0 45770 45770 45770 45770 45770 45770 45770 45770 45773 45773 45773 45773 45773 45773 45773 45773 45773 45773 45770 45770 45773 45773 0 0 
+ Optimal point: 20 20 
+++++++++++++++++++++++++++++++++++++++++++++++++++++++++++
++++++++++++++++++++++++++++++++++++++++++++++++
 + TIMESTAMP: 25.6357
REINVADE (45770)
  + pid: 45770
  + min_cores: 1
  + max_cores: 512
  + scalability graph: 
1, 1.36329, 1.52423, 1.62017, 1.68565, 1.73398, 1.77154, 1.80182, 1.8269, 1.84812, 1.86637, 1.88229, 1.89634, 1.90885, 1.92009, 1.93026, 1.93952, 1.94799, 1.95579, 1.963, 1.96968, 1.9759, 1.98172, 1.98716, 1.99228, 1.9971, 2.00164, 2.00594, 2.01002, 2.01389, 2.01757, 2.02108, 2.02443, 2.02763, 2.03069, 2.03362, 2.03644, 2.03914, 2.04173, 2.04423, 
Number of clients: 2

+++++++++++++++++++++++++++++++++++++++++++++++++++++++++++
+ Client Mapping:
  > Client 45773 (20):	24 25 26 27 28 29 30 31 32 33 7 36 37 3 4 5 6 8 9 10 
  > Client 45770 (20):	16 17 18 19 20 21 22 23 34 35 0 1 2 11 12 13 14 15 38 39 

+ Core Mapping:	45770 45770 45770 45773 45773 45773 45773 45773 45773 45773 45773 45770 45770 45770 45770 45770 45770 45770 45770 45770 45770 45770 45770 45770 45773 45773 45773 45773 45773 45773 45773 45773 45773 45773 45770 45770 45773 45773 45770 45770 
+ Optimal point: 20 20 
+++++++++++++++++++++++++++++++++++++++++++++++++++++++++++
CLIENT SHUTDOWN: client 45770
 + TIMESTAMP: 25.7128
+++++++++++++++++++++++++++++++++++++++++++++++++++++++++++
+ Client Mapping:
  > Client 45773 (20):	24 25 26 27 28 29 30 31 32 33 7 36 37 3 4 5 6 8 9 10 
  > Client 45770 (0):	

+ Core Mapping:	0 0 0 45773 45773 45773 45773 45773 45773 45773 45773 0 0 0 0 0 0 0 0 0 0 0 0 0 45773 45773 45773 45773 45773 45773 45773 45773 45773 45773 0 0 45773 45773 0 0 
+ Optimal point: 20 20 
+++++++++++++++++++++++++++++++++++++++++++++++++++++++++++
client (45770) shutdown hint: 437.984
sum_client_shutdown_hint: 1751.94
sum_client_shutdown_hint_div_time: 0
++++++++++++++++++++++++++++++++++++++++++++++++
 + TIMESTAMP: 25.7131
REINVADE (45773)
  + pid: 45773
  + min_cores: 1
  + max_cores: 512
  + scalability graph: 
1, 1.36329, 1.52423, 1.62017, 1.68565, 1.73398, 1.77154, 1.80182, 1.8269, 1.84812, 1.86637, 1.88229, 1.89634, 1.90885, 1.92009, 1.93026, 1.93952, 1.94799, 1.95579, 1.963, 1.96968, 1.9759, 1.98172, 1.98716, 1.99228, 1.9971, 2.00164, 2.00594, 2.01002, 2.01389, 2.01757, 2.02108, 2.02443, 2.02763, 2.03069, 2.03362, 2.03644, 2.03914, 2.04173, 2.04423, 
Number of clients: 1

+++++++++++++++++++++++++++++++++++++++++++++++++++++++++++
+ Client Mapping:
  > Client 45773 (40):	24 25 26 27 28 29 30 31 32 33 7 36 37 3 4 5 6 8 9 10 0 1 2 11 12 13 14 15 16 17 18 19 20 21 22 23 34 35 38 39 

+ Core Mapping:	45773 45773 45773 45773 45773 45773 45773 45773 45773 45773 45773 45773 45773 45773 45773 45773 45773 45773 45773 45773 45773 45773 45773 45773 45773 45773 45773 45773 45773 45773 45773 45773 45773 45773 45773 45773 45773 45773 45773 45773 
+ Optimal point: 40 
+++++++++++++++++++++++++++++++++++++++++++++++++++++++++++
CLIENT SHUTDOWN: client 45773
 + TIMESTAMP: 26.208
+++++++++++++++++++++++++++++++++++++++++++++++++++++++++++
+ Client Mapping:
  > Client 45773 (0):	

+ Core Mapping:	0 0 0 0 0 0 0 0 0 0 0 0 0 0 0 0 0 0 0 0 0 0 0 0 0 0 0 0 0 0 0 0 0 0 0 0 0 0 0 0 
+ Optimal point: 40 
+++++++++++++++++++++++++++++++++++++++++++++++++++++++++++
client (45773) shutdown hint: 437.984
sum_client_shutdown_hint: 2189.92
sum_client_shutdown_hint_div_time: 0
END TIMESTAMP: 26.2081
OVERALL TIME: 25.9921
 + sum_client_shutdown_hint: 2189.92
 + sum_client_shutdown_hint/time: 84.2533
sum_client_shutdown_hint: 2189.92
sum_client_shutdown_hint_div_time: 84.2533
