MODE: ipmo_prog0
PARCOUNT: 29
PROBLEMS: 1
Running on INWEST
Using iPMO

Programs:
 + ../../build/sierpi_intel_ipmo_tsunami_parallel_release  -u 10 -U 10 -T 1000 -n 40 -d 12
 + ../../build/sierpi_intel_ipmo_tsunami_parallel_release  -u 10 -U 10 -T 1000 -n 40 -d 12
 + ../../build/sierpi_intel_ipmo_tsunami_parallel_release  -u 10 -U 10 -T 1000 -n 40 -d 10
 + ../../build/sierpi_intel_ipmo_tsunami_parallel_release  -u 10 -U 10 -T 1000 -n 40 -d 12
 + ../../build/sierpi_intel_ipmo_tsunami_parallel_release  -u 10 -U 10 -T 1000 -n 40 -d 10

Sat Mar 31 15:47:38 CEST 2012
iPMO: Prog0 parallel execution with ipmo (29 times)
Waiting for job 78366
78369: CHANGING RESSOURCES
78369: CHANGING RESSOURCES
78367: CHANGING RESSOURCES
78366: CHANGING RESSOURCES
78371: CHANGING RESSOURCES
78386: CHANGING RESSOURCES
78379: CHANGING RESSOURCES
78389: CHANGING RESSOURCES
78385: CHANGING RESSOURCES
78377: CHANGING RESSOURCES
78373: CHANGING RESSOURCES
78370: CHANGING RESSOURCES
78380: CHANGING RESSOURCES
78376: CHANGING RESSOURCES
78392: CHANGING RESSOURCES
78391: CHANGING RESSOURCES
78394: CHANGING RESSOURCES
78378: CHANGING RESSOURCES
78368: CHANGING RESSOURCES
78374: CHANGING RESSOURCES
78382: CHANGING RESSOURCES
78388: CHANGING RESSOURCES
78390: CHANGING RESSOURCES
78387: CHANGING RESSOURCES
78381: CHANGING RESSOURCES
78384: CHANGING RESSOURCES
78375: CHANGING RESSOURCES
78393: CHANGING RESSOURCES
78383: CHANGING RESSOURCES
78372: CHANGING RESSOURCES

 + Terminating after 1000 timesteps with equal number of triangles -> EXIT
 + Final timestep: 6749

6750 TS (Timesteps)
715.114 ST (SIMULATION_TIME)
0.100037 TSS (Timestep size)
70.5696 SFS (Overall seconds for Simulation)
437983904 TP (Triangles processed)
0.0104548 ASPT (Averaged Seconds per Timestep)
64886.5 TPST (Triangles Processed in Average per Simulation Timestep)
48.6681 PPST (Partitions Processed in Average per Simulation Timestep)
6.20641 MTPS (Million Triangles per Second)
-6.20641 MTPSPT (Million Triangles per Second per Thread)
1.98018 EDMBPT (ElementData Megabyte per Timestep (RW))
189.405 EDMBPS (ElementData Megabyte per Second (RW))
SUM CLIENT SHUTDOWN HINT: 437.984
SUM CLIENT SHUTDOWN HINT DIV TIME: 0
78385: CHANGING RESSOURCES
78377: CHANGING RESSOURCES

 + Terminating after 1000 timesteps with equal number of triangles -> EXIT
 + Final timestep: 6749

6750 TS (Timesteps)
715.114 ST (SIMULATION_TIME)
0.100037 TSS (Timestep size)
70.8143 SFS (Overall seconds for Simulation)
437983904 TP (Triangles processed)
0.010491 ASPT (Averaged Seconds per Timestep)
64886.5 TPST (Triangles Processed in Average per Simulation Timestep)
48.6681 PPST (Partitions Processed in Average per Simulation Timestep)
6.18497 MTPS (Million Triangles per Second)
-6.18497 MTPSPT (Million Triangles per Second per Thread)
1.98018 EDMBPT (ElementData Megabyte per Timestep (RW))
188.75 EDMBPS (ElementData Megabyte per Second (RW))
SUM CLIENT SHUTDOWN HINT: 875.968
SUM CLIENT SHUTDOWN HINT DIV TIME: 0
78383: CHANGING RESSOURCES
78389: CHANGING RESSOURCES

 + Terminating after 1000 timesteps with equal number of triangles -> EXIT
 + Final timestep: 6749

6750 TS (Timesteps)
715.114 ST (SIMULATION_TIME)
0.100037 TSS (Timestep size)
71.7084 SFS (Overall seconds for Simulation)
437983904 TP (Triangles processed)
0.0106235 ASPT (Averaged Seconds per Timestep)
64886.5 TPST (Triangles Processed in Average per Simulation Timestep)
48.6681 PPST (Partitions Processed in Average per Simulation Timestep)
6.10785 MTPS (Million Triangles per Second)
-6.10785 MTPSPT (Million Triangles per Second per Thread)
1.98018 EDMBPT (ElementData Megabyte per Timestep (RW))
186.397 EDMBPS (ElementData Megabyte per Second (RW))
SUM CLIENT SHUTDOWN HINT: 1313.95
SUM CLIENT SHUTDOWN HINT DIV TIME: 0
78380: CHANGING RESSOURCES

 + Terminating after 1000 timesteps with equal number of triangles -> EXIT
 + Final timestep: 6749

6750 TS (Timesteps)
715.114 ST (SIMULATION_TIME)
0.100037 TSS (Timestep size)
71.728 SFS (Overall seconds for Simulation)
437983904 TP (Triangles processed)
0.0106264 ASPT (Averaged Seconds per Timestep)
64886.5 TPST (Triangles Processed in Average per Simulation Timestep)
48.6681 PPST (Partitions Processed in Average per Simulation Timestep)
6.10618 MTPS (Million Triangles per Second)
-6.10618 MTPSPT (Million Triangles per Second per Thread)
1.98018 EDMBPT (ElementData Megabyte per Timestep (RW))
186.346 EDMBPS (ElementData Megabyte per Second (RW))
SUM CLIENT SHUTDOWN HINT: 1751.94
SUM CLIENT SHUTDOWN HINT DIV TIME: 0
78373: CHANGING RESSOURCES
78378: CHANGING RESSOURCES
78375: CHANGING RESSOURCES

 + Terminating after 1000 timesteps with equal number of triangles -> EXIT
 + Final timestep: 6749

6750 TS (Timesteps)
715.114 ST (SIMULATION_TIME)
0.100037 TSS (Timestep size)
71.8093 SFS (Overall seconds for Simulation)
437983904 TP (Triangles processed)
0.0106384 ASPT (Averaged Seconds per Timestep)
64886.5 TPST (Triangles Processed in Average per Simulation Timestep)
48.6681 PPST (Partitions Processed in Average per Simulation Timestep)
6.09926 MTPS (Million Triangles per Second)
-6.09926 MTPSPT (Million Triangles per Second per Thread)
1.98018 EDMBPT (ElementData Megabyte per Timestep (RW))
186.135 EDMBPS (ElementData Megabyte per Second (RW))
SUM CLIENT SHUTDOWN HINT: 2189.92
SUM CLIENT SHUTDOWN HINT DIV TIME: 0
78376: CHANGING RESSOURCES
78382: CHANGING RESSOURCES

 + Terminating after 1000 timesteps with equal number of triangles -> EXIT
 + Final timestep: 6749

6750 TS (Timesteps)
715.114 ST (SIMULATION_TIME)
0.100037 TSS (Timestep size)
72.0265 SFS (Overall seconds for Simulation)
437983904 TP (Triangles processed)
0.0106706 ASPT (Averaged Seconds per Timestep)
64886.5 TPST (Triangles Processed in Average per Simulation Timestep)
48.6681 PPST (Partitions Processed in Average per Simulation Timestep)
6.08087 MTPS (Million Triangles per Second)
-6.08087 MTPSPT (Million Triangles per Second per Thread)
1.98018 EDMBPT (ElementData Megabyte per Timestep (RW))
185.574 EDMBPS (ElementData Megabyte per Second (RW))
SUM CLIENT SHUTDOWN HINT: 2627.9
SUM CLIENT SHUTDOWN HINT DIV TIME: 0
78372: CHANGING RESSOURCES
78391: CHANGING RESSOURCES

 + Terminating after 1000 timesteps with equal number of triangles -> EXIT
 + Final timestep: 6749

6750 TS (Timesteps)
715.114 ST (SIMULATION_TIME)
0.100037 TSS (Timestep size)
72.1285 SFS (Overall seconds for Simulation)
437983904 TP (Triangles processed)
0.0106857 ASPT (Averaged Seconds per Timestep)
64886.5 TPST (Triangles Processed in Average per Simulation Timestep)
48.6681 PPST (Partitions Processed in Average per Simulation Timestep)
6.07227 MTPS (Million Triangles per Second)
-6.07227 MTPSPT (Million Triangles per Second per Thread)
1.98018 EDMBPT (ElementData Megabyte per Timestep (RW))
185.311 EDMBPS (ElementData Megabyte per Second (RW))
SUM CLIENT SHUTDOWN HINT: 3065.89
SUM CLIENT SHUTDOWN HINT DIV TIME: 0
78379: CHANGING RESSOURCES
78370: CHANGING RESSOURCES

 + Terminating after 1000 timesteps with equal number of triangles -> EXIT
 + Final timestep: 6749

6750 TS (Timesteps)
715.114 ST (SIMULATION_TIME)
0.100037 TSS (Timestep size)
72.189 SFS (Overall seconds for Simulation)
437983904 TP (Triangles processed)
0.0106947 ASPT (Averaged Seconds per Timestep)
64886.5 TPST (Triangles Processed in Average per Simulation Timestep)
48.6681 PPST (Partitions Processed in Average per Simulation Timestep)
6.06718 MTPS (Million Triangles per Second)
-6.06718 MTPSPT (Million Triangles per Second per Thread)
1.98018 EDMBPT (ElementData Megabyte per Timestep (RW))
185.156 EDMBPS (ElementData Megabyte per Second (RW))
SUM CLIENT SHUTDOWN HINT: 3503.87
SUM CLIENT SHUTDOWN HINT DIV TIME: 0
78366: CHANGING RESSOURCES
78367: CHANGING RESSOURCES

 + Terminating after 1000 timesteps with equal number of triangles -> EXIT
 + Final timestep: 6749

6750 TS (Timesteps)
715.114 ST (SIMULATION_TIME)
0.100037 TSS (Timestep size)
72.2905 SFS (Overall seconds for Simulation)
437983904 TP (Triangles processed)
0.0107097 ASPT (Averaged Seconds per Timestep)
64886.5 TPST (Triangles Processed in Average per Simulation Timestep)
48.6681 PPST (Partitions Processed in Average per Simulation Timestep)
6.05867 MTPS (Million Triangles per Second)
-6.05867 MTPSPT (Million Triangles per Second per Thread)
1.98018 EDMBPT (ElementData Megabyte per Timestep (RW))
184.896 EDMBPS (ElementData Megabyte per Second (RW))
SUM CLIENT SHUTDOWN HINT: 3941.86
SUM CLIENT SHUTDOWN HINT DIV TIME: 0
78371: CHANGING RESSOURCES
78386: CHANGING RESSOURCES

 + Terminating after 1000 timesteps with equal number of triangles -> EXIT
 + Final timestep: 6749

6750 TS (Timesteps)
715.114 ST (SIMULATION_TIME)
0.100037 TSS (Timestep size)
72.3594 SFS (Overall seconds for Simulation)
437983904 TP (Triangles processed)
0.0107199 ASPT (Averaged Seconds per Timestep)
64886.5 TPST (Triangles Processed in Average per Simulation Timestep)
48.6681 PPST (Partitions Processed in Average per Simulation Timestep)
6.05289 MTPS (Million Triangles per Second)
-6.05289 MTPSPT (Million Triangles per Second per Thread)
1.98018 EDMBPT (ElementData Megabyte per Timestep (RW))
184.72 EDMBPS (ElementData Megabyte per Second (RW))
SUM CLIENT SHUTDOWN HINT: 4379.84
SUM CLIENT SHUTDOWN HINT DIV TIME: 0
78375: CHANGING RESSOURCES
78378: CHANGING RESSOURCES

 + Terminating after 1000 timesteps with equal number of triangles -> EXIT
 + Final timestep: 6749

6750 TS (Timesteps)
715.114 ST (SIMULATION_TIME)
0.100037 TSS (Timestep size)
72.8029 SFS (Overall seconds for Simulation)
437983904 TP (Triangles processed)
0.0107856 ASPT (Averaged Seconds per Timestep)
64886.5 TPST (Triangles Processed in Average per Simulation Timestep)
48.6681 PPST (Partitions Processed in Average per Simulation Timestep)
6.01602 MTPS (Million Triangles per Second)
-6.01602 MTPSPT (Million Triangles per Second per Thread)
1.98018 EDMBPT (ElementData Megabyte per Timestep (RW))
183.594 EDMBPS (ElementData Megabyte per Second (RW))
SUM CLIENT SHUTDOWN HINT: 4817.82
SUM CLIENT SHUTDOWN HINT DIV TIME: 0
78378: CHANGING RESSOURCES
78376: CHANGING RESSOURCES
78382: CHANGING RESSOURCES
78373: CHANGING RESSOURCES

 + Terminating after 1000 timesteps with equal number of triangles -> EXIT
 + Final timestep: 6749

6750 TS (Timesteps)
715.114 ST (SIMULATION_TIME)
0.100037 TSS (Timestep size)
95.6458 SFS (Overall seconds for Simulation)
437983904 TP (Triangles processed)
0.0141697 ASPT (Averaged Seconds per Timestep)
64886.5 TPST (Triangles Processed in Average per Simulation Timestep)
48.6681 PPST (Partitions Processed in Average per Simulation Timestep)
4.57923 MTPS (Million Triangles per Second)
-4.57923 MTPSPT (Million Triangles per Second per Thread)
1.98018 EDMBPT (ElementData Megabyte per Timestep (RW))
139.747 EDMBPS (ElementData Megabyte per Second (RW))
SUM CLIENT SHUTDOWN HINT: 5255.81
SUM CLIENT SHUTDOWN HINT DIV TIME: 0
78372: CHANGING RESSOURCES
78391: CHANGING RESSOURCES
78370: CHANGING RESSOURCES

 + Terminating after 1000 timesteps with equal number of triangles -> EXIT
 + Final timestep: 6749

6750 TS (Timesteps)
715.114 ST (SIMULATION_TIME)
0.100037 TSS (Timestep size)
96.013 SFS (Overall seconds for Simulation)
437983904 TP (Triangles processed)
0.0142242 ASPT (Averaged Seconds per Timestep)
64886.5 TPST (Triangles Processed in Average per Simulation Timestep)
48.6681 PPST (Partitions Processed in Average per Simulation Timestep)
4.56171 MTPS (Million Triangles per Second)
-4.56171 MTPSPT (Million Triangles per Second per Thread)
1.98018 EDMBPT (ElementData Megabyte per Timestep (RW))
139.212 EDMBPS (ElementData Megabyte per Second (RW))
SUM CLIENT SHUTDOWN HINT: 5693.79
SUM CLIENT SHUTDOWN HINT DIV TIME: 0
78366: CHANGING RESSOURCES
78370: CHANGING RESSOURCES
78367: CHANGING RESSOURCES
78379: CHANGING RESSOURCES

 + Terminating after 1000 timesteps with equal number of triangles -> EXIT
 + Final timestep: 6749

6750 TS (Timesteps)
715.114 ST (SIMULATION_TIME)
0.100037 TSS (Timestep size)
96.4122 SFS (Overall seconds for Simulation)
437983904 TP (Triangles processed)
0.0142833 ASPT (Averaged Seconds per Timestep)
64886.5 TPST (Triangles Processed in Average per Simulation Timestep)
48.6681 PPST (Partitions Processed in Average per Simulation Timestep)
4.54282 MTPS (Million Triangles per Second)
-4.54282 MTPSPT (Million Triangles per Second per Thread)
1.98018 EDMBPT (ElementData Megabyte per Timestep (RW))
138.636 EDMBPS (ElementData Megabyte per Second (RW))
SUM CLIENT SHUTDOWN HINT: 6131.77
SUM CLIENT SHUTDOWN HINT DIV TIME: 0
78367: CHANGING RESSOURCES
78386: CHANGING RESSOURCES
78370: CHANGING RESSOURCES
78377: CHANGING RESSOURCES
78385: CHANGING RESSOURCES

 + Terminating after 1000 timesteps with equal number of triangles -> EXIT
 + Final timestep: 6749

6750 TS (Timesteps)
715.114 ST (SIMULATION_TIME)
0.100037 TSS (Timestep size)
97.4372 SFS (Overall seconds for Simulation)
437983904 TP (Triangles processed)
0.0144351 ASPT (Averaged Seconds per Timestep)
64886.5 TPST (Triangles Processed in Average per Simulation Timestep)
48.6681 PPST (Partitions Processed in Average per Simulation Timestep)
4.49504 MTPS (Million Triangles per Second)
-4.49504 MTPSPT (Million Triangles per Second per Thread)
1.98018 EDMBPT (ElementData Megabyte per Timestep (RW))
137.178 EDMBPS (ElementData Megabyte per Second (RW))
SUM CLIENT SHUTDOWN HINT: 6569.76
SUM CLIENT SHUTDOWN HINT DIV TIME: 0
78367: CHANGING RESSOURCES
78383: CHANGING RESSOURCES
78389: CHANGING RESSOURCES

 + Terminating after 1000 timesteps with equal number of triangles -> EXIT
 + Final timestep: 6749

6750 TS (Timesteps)
715.114 ST (SIMULATION_TIME)
0.100037 TSS (Timestep size)
101.831 SFS (Overall seconds for Simulation)
437983904 TP (Triangles processed)
0.0150861 ASPT (Averaged Seconds per Timestep)
64886.5 TPST (Triangles Processed in Average per Simulation Timestep)
48.6681 PPST (Partitions Processed in Average per Simulation Timestep)
4.30109 MTPS (Million Triangles per Second)
-4.30109 MTPSPT (Million Triangles per Second per Thread)
1.98018 EDMBPT (ElementData Megabyte per Timestep (RW))
131.259 EDMBPS (ElementData Megabyte per Second (RW))
SUM CLIENT SHUTDOWN HINT: 7007.74
SUM CLIENT SHUTDOWN HINT DIV TIME: 0
78380: CHANGING RESSOURCES
Waiting for job 78367

 + Terminating after 1000 timesteps with equal number of triangles -> EXIT
 + Final timestep: 6749

6750 TS (Timesteps)
715.114 ST (SIMULATION_TIME)
0.100037 TSS (Timestep size)
101.964 SFS (Overall seconds for Simulation)
437983904 TP (Triangles processed)
0.0151058 ASPT (Averaged Seconds per Timestep)
64886.5 TPST (Triangles Processed in Average per Simulation Timestep)
48.6681 PPST (Partitions Processed in Average per Simulation Timestep)
4.29548 MTPS (Million Triangles per Second)
-4.29548 MTPSPT (Million Triangles per Second per Thread)
1.98018 EDMBPT (ElementData Megabyte per Timestep (RW))
131.088 EDMBPS (ElementData Megabyte per Second (RW))
SUM CLIENT SHUTDOWN HINT: 7445.73
SUM CLIENT SHUTDOWN HINT DIV TIME: 0
78371: CHANGING RESSOURCES
78367: CHANGING RESSOURCES

 + Terminating after 1000 timesteps with equal number of triangles -> EXIT
 + Final timestep: 6749

6750 TS (Timesteps)
715.114 ST (SIMULATION_TIME)
0.100037 TSS (Timestep size)
102.261 SFS (Overall seconds for Simulation)
437983904 TP (Triangles processed)
0.0151498 ASPT (Averaged Seconds per Timestep)
64886.5 TPST (Triangles Processed in Average per Simulation Timestep)
48.6681 PPST (Partitions Processed in Average per Simulation Timestep)
4.28299 MTPS (Million Triangles per Second)
-4.28299 MTPSPT (Million Triangles per Second per Thread)
1.98018 EDMBPT (ElementData Megabyte per Timestep (RW))
130.707 EDMBPS (ElementData Megabyte per Second (RW))
SUM CLIENT SHUTDOWN HINT: 7883.71
SUM CLIENT SHUTDOWN HINT DIV TIME: 0
78383: CHANGING RESSOURCES
78372: CHANGING RESSOURCES
78389: CHANGING RESSOURCES
78367: CHANGING RESSOURCES
78378: CHANGING RESSOURCES

 + Terminating after 1000 timesteps with equal number of triangles -> EXIT
 + Final timestep: 6749

6750 TS (Timesteps)
715.114 ST (SIMULATION_TIME)
0.100037 TSS (Timestep size)
102.301 SFS (Overall seconds for Simulation)
437983904 TP (Triangles processed)
0.0151556 ASPT (Averaged Seconds per Timestep)
64886.5 TPST (Triangles Processed in Average per Simulation Timestep)
48.6681 PPST (Partitions Processed in Average per Simulation Timestep)
4.28134 MTPS (Million Triangles per Second)
-4.28134 MTPSPT (Million Triangles per Second per Thread)
1.98018 EDMBPT (ElementData Megabyte per Timestep (RW))
130.656 EDMBPS (ElementData Megabyte per Second (RW))
78391: CHANGING RESSOURCES
78370: SUM CLIENT SHUTDOWN HINT DIV TIME: 0
78367: CHANGING RESSOURCES

 + Terminating after 1000 timesteps with equal number of triangles -> EXIT
 + Final timestep: 6749

6750 TS (Timesteps)
715.114 ST (SIMULATION_TIME)
0.100037 TSS (Timestep size)
102.457 SFS (Overall seconds for Simulation)
437983904 TP (Triangles processed)
0.0151788 ASPT (Averaged Seconds per Timestep)
64886.5 TPST (Triangles Processed in Average per Simulation Timestep)
48.6681 PPST (Partitions Processed in Average per Simulation Timestep)
4.27482 MTPS (Million Triangles per Second)
-4.27482 MTPSPT (Million Triangles per Second per Thread)
1.98018 EDMBPT (ElementData Megabyte per Timestep (RW))
130.457 EDMBPS (ElementData Megabyte per Second (RW))
SUM CLIENT SHUTDOWN HINT: 8759.68
SUM CLIENT SHUTDOWN HINT DIV TIME: 0
78380: CHANGING RESSOURCES
78383: CHANGING RESSOURCES
78378: CHANGING RESSOURCES

 + Terminating after 1000 timesteps with equal number of triangles -> EXIT
 + Final timestep: 6749

6750 TS (Timesteps)
715.114 ST (SIMULATION_TIME)
0.100037 TSS (Timestep size)
102.637 SFS (Overall seconds for Simulation)
437983904 TP (Triangles processed)
0.0152055 ASPT (Averaged Seconds per Timestep)
64886.5 TPST (Triangles Processed in Average per Simulation Timestep)
48.6681 PPST (Partitions Processed in Average per Simulation Timestep)
4.26729 MTPS (Million Triangles per Second)
-4.26729 MTPSPT (Million Triangles per Second per Thread)
1.98018 EDMBPT (ElementData Megabyte per Timestep (RW))
130.227 EDMBPS (ElementData Megabyte per Second (RW))
SUM CLIENT SHUTDOWN HINT: 9197.66
SUM CLIENT SHUTDOWN HINT DIV TIME: 0
78379: CHANGING RESSOURCES
78371: CHANGING RESSOURCES

 + Terminating after 1000 timesteps with equal number of triangles -> EXIT
 + Final timestep: 6749

6750 TS (Timesteps)
715.114 ST (SIMULATION_TIME)
0.100037 TSS (Timestep size)
102.645 SFS (Overall seconds for Simulation)
437983904 TP (Triangles processed)
0.0152067 ASPT (Averaged Seconds per Timestep)
64886.5 TPST (Triangles Processed in Average per Simulation Timestep)
48.6681 PPST (Partitions Processed in Average per Simulation Timestep)
4.26698 MTPS (Million Triangles per Second)
-4.26698 MTPSPT (Million Triangles per Second per Thread)
1.98018 EDMBPT (ElementData Megabyte per Timestep (RW))
130.218 EDMBPS (ElementData Megabyte per Second (RW))
SUM CLIENT SHUTDOWN HINT: 9635.65
SUM CLIENT SHUTDOWN HINT DIV TIME: 0
78385: CHANGING RESSOURCES
78383: CHANGING RESSOURCES
78380: CHANGING RESSOURCES

 + Terminating after 1000 timesteps with equal number of triangles -> EXIT
 + Final timestep: 6749

6750 TS (Timesteps)
715.114 ST (SIMULATION_TIME)
0.100037 TSS (Timestep size)
102.721 SFS (Overall seconds for Simulation)
437983904 TP (Triangles processed)
0.0152179 ASPT (Averaged Seconds per Timestep)
64886.5 TPST (Triangles Processed in Average per Simulation Timestep)
48.6681 PPST (Partitions Processed in Average per Simulation Timestep)
4.26383 MTPS (Million Triangles per Second)
-4.26383 MTPSPT (Million Triangles per Second per Thread)
1.98018 EDMBPT (ElementData Megabyte per Timestep (RW))
130.122 EDMBPS (ElementData Megabyte per Second (RW))
SUM CLIENT SHUTDOWN HINT: 10073.6
SUM CLIENT SHUTDOWN HINT DIV TIME: 0
78380: CHANGING RESSOURCES
78378: CHANGING RESSOURCES
78367: CHANGING RESSOURCES

 + Terminating after 1000 timesteps with equal number of triangles -> EXIT
 + Final timestep: 6749

6750 TS (Timesteps)
715.114 ST (SIMULATION_TIME)
0.100037 TSS (Timestep size)
102.872 SFS (Overall seconds for Simulation)
437983904 TP (Triangles processed)
0.0152403 ASPT (Averaged Seconds per Timestep)
64886.5 TPST (Triangles Processed in Average per Simulation Timestep)
48.6681 PPST (Partitions Processed in Average per Simulation Timestep)
4.25757 MTPS (Million Triangles per Second)
-4.25757 MTPSPT (Million Triangles per Second per Thread)
1.98018 EDMBPT (ElementData Megabyte per Timestep (RW))
129.931 EDMBPS (ElementData Megabyte per Second (RW))
SUM CLIENT SHUTDOWN HINT: 10511.6
SUM CLIENT SHUTDOWN HINT DIV TIME: 0
78379: CHANGING RESSOURCES
78378: CHANGING RESSOURCES

 + Terminating after 1000 timesteps with equal number of triangles -> EXIT
 + Final timestep: 6749

6750 TS (Timesteps)
715.114 ST (SIMULATION_TIME)
0.100037 TSS (Timestep size)
103.04 SFS (Overall seconds for Simulation)
437983904 TP (Triangles processed)
0.0152652 ASPT (Averaged Seconds per Timestep)
64886.5 TPST (Triangles Processed in Average per Simulation Timestep)
48.6681 PPST (Partitions Processed in Average per Simulation Timestep)
4.25061 MTPS (Million Triangles per Second)
-4.25061 MTPSPT (Million Triangles per Second per Thread)
1.98018 EDMBPT (ElementData Megabyte per Timestep (RW))
129.718 EDMBPS (ElementData Megabyte per Second (RW))
SUM CLIENT SHUTDOWN HINT: 10949.6
SUM CLIENT SHUTDOWN HINT DIV TIME: 0
78391: CHANGING RESSOURCES
78367: CHANGING RESSOURCES

 + Terminating after 1000 timesteps with equal number of triangles -> EXIT
 + Final timestep: 6749

6750 TS (Timesteps)
715.114 ST (SIMULATION_TIME)
0.100037 TSS (Timestep size)
103.271 SFS (Overall seconds for Simulation)
437983904 TP (Triangles processed)
0.0152995 ASPT (Averaged Seconds per Timestep)
64886.5 TPST (Triangles Processed in Average per Simulation Timestep)
48.6681 PPST (Partitions Processed in Average per Simulation Timestep)
4.24109 MTPS (Million Triangles per Second)
-4.24109 MTPSPT (Million Triangles per Second per Thread)
1.98018 EDMBPT (ElementData Megabyte per Timestep (RW))
129.428 EDMBPS (ElementData Megabyte per Second (RW))
SUM CLIENT SHUTDOWN HINT: 11387.6
SUM CLIENT SHUTDOWN HINT DIV TIME: 0
78391: CHANGING RESSOURCES
78380: CHANGING RESSOURCES
78367: CHANGING RESSOURCES

 + Terminating after 1000 timesteps with equal number of triangles -> EXIT
 + Final timestep: 6749

6750 TS (Timesteps)
715.114 ST (SIMULATION_TIME)
0.100037 TSS (Timestep size)
103.354 SFS (Overall seconds for Simulation)
437983904 TP (Triangles processed)
0.0153117 ASPT (Averaged Seconds per Timestep)
64886.5 TPST (Triangles Processed in Average per Simulation Timestep)
48.6681 PPST (Partitions Processed in Average per Simulation Timestep)
4.2377 MTPS (Million Triangles per Second)
-4.2377 MTPSPT (Million Triangles per Second per Thread)
1.98018 EDMBPT (ElementData Megabyte per Timestep (RW))
129.324 EDMBPS (ElementData Megabyte per Second (RW))
SUM CLIENT SHUTDOWN HINT: 11825.6
SUM CLIENT SHUTDOWN HINT DIV TIME: 0
78367: CHANGING RESSOURCES
78380: CHANGING RESSOURCES

 + Terminating after 1000 timesteps with equal number of triangles -> EXIT
 + Final timestep: 6749

6750 TS (Timesteps)
715.114 ST (SIMULATION_TIME)
0.100037 TSS (Timestep size)
104.21 SFS (Overall seconds for Simulation)
437983904 TP (Triangles processed)
0.0154385 ASPT (Averaged Seconds per Timestep)
64886.5 TPST (Triangles Processed in Average per Simulation Timestep)
48.6681 PPST (Partitions Processed in Average per Simulation Timestep)
4.20291 MTPS (Million Triangles per Second)
-4.20291 MTPSPT (Million Triangles per Second per Thread)
1.98018 EDMBPT (ElementData Megabyte per Timestep (RW))
128.263 EDMBPS (ElementData Megabyte per Second (RW))
SUM CLIENT SHUTDOWN HINT: 12263.5
SUM CLIENT SHUTDOWN HINT DIV TIME: 0
78367: CHANGING RESSOURCES

 + Terminating after 1000 timesteps with equal number of triangles -> EXIT
 + Final timestep: 6749

6750 TS (Timesteps)
715.114 ST (SIMULATION_TIME)
0.100037 TSS (Timestep size)
104.438 SFS (Overall seconds for Simulation)
437983904 TP (Triangles processed)
0.0154723 ASPT (Averaged Seconds per Timestep)
64886.5 TPST (Triangles Processed in Average per Simulation Timestep)
48.6681 PPST (Partitions Processed in Average per Simulation Timestep)
4.19371 MTPS (Million Triangles per Second)
-4.19371 MTPSPT (Million Triangles per Second per Thread)
1.98018 EDMBPT (ElementData Megabyte per Timestep (RW))
127.982 EDMBPS (ElementData Megabyte per Second (RW))
SUM CLIENT SHUTDOWN HINT: 12701.5
SUM CLIENT SHUTDOWN HINT DIV TIME: 121.947
Waiting for job 78368
Waiting for job 78369
Waiting for job 78370
Waiting for job 78371
Waiting for job 78372
Waiting for job 78373
Waiting for job 78374
Waiting for job 78375
Waiting for job 78376
Waiting for job 78377
Waiting for job 78378
Waiting for job 78379
Waiting for job 78380
Waiting for job 78381
Waiting for job 78382
Waiting for job 78383
Waiting for job 78384
Waiting for job 78385
Waiting for job 78386
Waiting for job 78387
Waiting for job 78388
Waiting for job 78389
Waiting for job 78390
Waiting for job 78391
Waiting for job 78392
Waiting for job 78393
Waiting for job 78394
Sat Mar 31 15:49:23 CEST 2012
Seconds: 105
