0	0
11.347	0
22.6938	0
34.0406	0
45.3873	0
56.7339	0
68.0806	0
79.4273	0
90.7742	0
102.121	0
113.468	0
124.816	0
135.951	0
147.086	0
158.222	0
169.357	0
180.492	-9.09495e-13
191.627	-1.81899e-12
202.762	-2.72848e-12
213.898	-4.54747e-12
225.142	-6.36646e-12
236.387	-9.09495e-12
247.631	-1.18234e-11
258.875	-1.54614e-11
270.016	-2.00089e-11
281.26	-2.54659e-11
292.504	-3.09228e-11
303.748	-3.72893e-11
314.992	-4.36557e-11
326.236	-5.00222e-11
337.48	-5.54792e-11
348.62	-5.91172e-11
359.769	-6.00267e-11
370.918	-5.63887e-11
381.532	-4.63842e-11
392.681	-2.81943e-11
403.83	1.81899e-12
414.979	4.63842e-11
426.128	1.10049e-10
437.023	1.95541e-10
447.918	3.08319e-10
458.531	4.51109e-10
469.426	6.37556e-10
480.321	8.71296e-10
490.894	1.15233e-09
501.789	1.50612e-09
512.684	1.9354e-09
523.579	2.452e-09
534.473	3.06864e-09
545.02	3.77713e-09
555.567	4.60841e-09
566.114	5.57793e-09
576.661	6.70389e-09
587.207	8.00537e-09
597.754	9.50422e-09
608.301	1.12241e-08
618.848	1.31913e-08
629.394	1.54341e-08
639.941	1.79843e-08
650.488	2.08775e-08
661.034	2.41525e-08
671.581	2.78415e-08
682.127	3.19742e-08
692.674	3.65781e-08
703.199	4.16676e-08
713.745	4.72874e-08
724.292	5.34546e-08
734.838	6.01967e-08
745.385	6.75436e-08
755.931	7.55172e-08
766.478	8.41337e-08
777.024	9.34069e-08
787.57	1.03346e-07
798.095	1.13937e-07
808.62	1.25206e-07
819.166	1.37185e-07
829.713	1.49861e-07
840.259	1.63242e-07
850.805	1.77341e-07
861.351	1.92173e-07
871.897	2.07754e-07
882.419	2.24069e-07
892.94	2.41179e-07
903.461	2.59117e-07
913.982	2.7792e-07
924.503	2.97633e-07
935.024	3.18308e-07
945.545	3.40004e-07
956.066	3.6279e-07
966.587	3.86746e-07
977.108	4.11961e-07
987.629	4.38536e-07
998.15	4.66585e-07
1008.67	4.96238e-07
1019.19	5.27635e-07
1029.71	5.60939e-07
1040.23	5.96327e-07
1050.75	6.33993e-07
1061.28	6.74155e-07
1071.8	7.17047e-07
1082.32	7.62924e-07
1092.84	8.12068e-07
1103.36	8.64778e-07
1113.88	9.21381e-07
1124.4	9.82224e-07
1134.92	1.04768e-06
1145.44	1.11815e-06
1155.96	1.19406e-06
1166.48	1.27586e-06
1177	1.36402e-06
1187.52	1.45906e-06
1198.05	1.56152e-06
1208.57	1.67195e-06
1219.09	1.79096e-06
1229.61	1.91918e-06
1240.13	2.05728e-06
1250.65	2.20596e-06
1261.17	2.36598e-06
1271.69	2.53812e-06
1282.21	2.7232e-06
1292.73	2.9221e-06
1303.25	3.13574e-06
1313.77	3.3651e-06
1324.29	3.61121e-06
1334.81	3.87514e-06
1345.33	4.15804e-06
1355.85	4.46111e-06
1366.37	4.78694e-06
1376.89	5.13756e-06
1387.41	5.51451e-06
1397.93	5.9191e-06
1408.45	6.35239e-06
1418.97	6.81532e-06
1429.5	7.30871e-06
1440.02	7.83333e-06
1450.54	8.38991e-06
1461.06	8.9792e-06
1471.58	9.60198e-06
1482.1	1.02591e-05
1492.62	1.09514e-05
1503.14	1.168e-05
1513.66	1.2446e-05
1524.18	1.32506e-05
1534.7	1.40953e-05
1545.22	1.49816e-05
1555.74	1.59113e-05
1566.26	1.68863e-05
1576.78	1.79088e-05
1587.3	1.8981e-05
1597.82	2.01056e-05
1608.34	2.12853e-05
1618.86	2.25232e-05
1629.38	2.38224e-05
1639.9	2.51866e-05
1650.42	2.66194e-05
1660.94	2.81248e-05
1671.46	2.97072e-05
1681.98	3.13709e-05
1692.5	3.31209e-05
1702.83	3.49299e-05
1713.17	3.68322e-05
1723.51	3.88329e-05
1733.84	4.09365e-05
1744.18	4.31468e-05
1754.51	4.54673e-05
1764.85	4.79013e-05
1775.18	5.04517e-05
1785.52	5.31214e-05
1795.86	5.59136e-05
1806.19	5.88311e-05
1816.57	6.18892e-05
1826.95	6.50802e-05
1837.32	6.84075e-05
1847.7	7.1875e-05
1858.08	7.54868e-05
1868.45	7.92472e-05
1878.83	8.3161e-05
1889.21	8.72332e-05
1899.58	9.14696e-05
1909.96	9.58761e-05
1920.34	0.000100459
1930.71	0.000105227
1941.09	0.000110185
1951.47	0.000115344
1961.84	0.000120711
1972.22	0.000126296
1982.6	0.000132108
1992.97	0.000138158
2003.35	0.000144457
2013.73	0.000151016
2024.1	0.000157846
2034.48	0.000164961
2044.86	0.000172373
2055.23	0.000170247
2065.61	0.000168622
2075.99	0.000167461
2086.36	0.000166729
2096.74	0.000166399
2107.12	0.000166445
2117.49	0.000166844
2127.87	0.000167578
2138.25	0.000168629
2148.62	0.000169983
2159	0.00017163
2169.38	0.000173561
2179.75	0.000175768
2190.13	0.000178246
2200.51	0.000180994
2210.88	0.000184008
2221.26	0.000187291
2231.63	0.000190843
2242.01	0.000194667
2252.39	0.000198769
2262.76	0.000203155
2273.14	0.000207831
2283.52	0.000212805
2293.85	0.000218065
2304.22	0.000223665
2314.6	0.000229595
2324.98	0.000235866
2335.35	0.000242493
2345.73	0.000249489
2356.11	0.000256868
2366.48	0.000264645
2376.86	0.000272837
2387.23	0.000281459
2397.61	0.00029053
2407.94	0.000300026
2418.28	0.000310003
2428.65	0.000320547
2439.03	0.000331567
2449.4	0.000343028
2459.78	0.000354904
2470.16	0.000367174
2480.53	0.000379827
2490.82	0.000392745
2501.11	0.000406032
2511.39	0.000419691
2521.68	0.000433728
2531.97	0.000448155
2542.26	0.000462983
2552.54	0.00047823
2562.83	0.000493914
2573.12	0.000510058
2583.4	0.000526686
2593.69	0.000543828
2603.98	0.000561513
2614.26	0.000579777
2624.55	0.000598657
2634.84	0.000618193
2645.13	0.000638429
2655.41	0.000659407
2665.7	0.000681168
2675.99	0.000703755
2686.27	0.00072721
2696.56	0.000751573
2706.85	0.000776885
2717.14	0.000803187
2727.42	0.000830522
2737.71	0.000858933
2748	0.000888466
2758.28	0.000919169
2768.57	0.000951094
2778.86	0.00102393
2789.14	0.00109688
2799.43	0.00116945
2809.72	0.00124139
2820.01	0.00131263
2830.29	0.00138318
2840.58	0.00145316
2850.86	0.00152271
2861.14	0.00159211
2871.42	0.00166161
2881.71	0.00173152
2891.99	0.00180215
2902.27	0.00187383
2912.55	0.00194691
2922.83	0.00202173
2933.11	0.00209864
2943.4	0.00217801
2953.68	0.00226017
2963.96	0.00234547
2974.24	0.00243427
2984.52	0.0025269
2994.8	0.00262262
3005.09	0.00272094
3015.37	0.00282164
3025.65	0.00292462
3035.93	0.00302994
3046.21	0.00313774
3056.49	0.0032483
3066.78	0.00336198
3077.06	0.00347924
3087.34	0.00360066
3097.62	0.00372688
3107.9	0.00385854
3118.18	0.00399624
3128.47	0.00414056
3138.75	0.00429204
3149.03	0.00464255
3159.31	0.00498031
3169.59	0.00530152
3179.87	0.00560731
3190.15	0.00590139
3200.44	0.00618896
3210.72	0.00647584
3221	0.00676785
3231.28	0.00707056
3241.56	0.00738921
3251.84	0.00772879
3262.12	0.00809441
3272.41	0.00847598
3282.69	0.00887144
3292.97	0.00928168
3303.25	0.00970992
3313.53	0.0101621
3323.81	0.0106464
3334.09	0.0117113
3344.38	0.0127716
3354.66	0.0137568
3364.94	0.014717
3375.22	0.015731
3385.5	0.0168577
3395.78	0.0181262
3406.06	0.019543
3416.34	0.0211013
3426.63	0.0246046
3436.91	0.0274344
3447.19	0.0300591
3457.47	0.0326962
3467.75	0.0353864
3478.03	0.0381092
3488.31	0.0408406
3498.59	0.0435705
3508.88	0.0463017
3519.16	0.0490455
3529.44	0.0518164
3539.72	0.0546291
3550	0.0574874
3560.28	0.0603886
3570.56	0.063336
3580.84	0.0663415
3591.13	0.0694217
3601.41	0.0725931
3611.69	0.0758681
3621.97	0.0792533
3632.25	0.0827507
3642.53	0.0863588
3652.81	0.0900744
3663.09	0.0938943
3673.37	0.0978159
3683.66	0.101837
3693.94	0.105958
3704.22	0.110177
3714.5	0.114499
3724.78	0.118926
3735.06	0.123464
3745.34	0.128119
3755.62	0.132896
3765.9	0.137801
3776.19	0.142836
3786.47	0.148005
3796.75	0.153309
3807.03	0.158746
3817.31	0.164318
3827.59	0.170021
3837.87	0.175855
3848.15	0.181818
3858.43	0.187909
3868.72	0.194125
3879	0.200467
3889.28	0.206934
3899.56	0.213528
3909.84	0.220247
3920.12	0.227094
3930.4	0.234068
3940.68	0.241168
3950.97	0.248393
3961.25	0.25574
3971.53	0.263204
3981.81	0.270778
3992.09	0.278456
4002.37	0.286227
4012.65	0.294082
4022.93	0.302007
4033.22	0.30999
4043.5	0.318016
4053.78	0.32607
4064.06	0.334135
4074.34	0.342193
4084.62	0.350226
4094.9	0.358213
4105.19	0.366133
4115.47	0.373963
4125.75	0.38168
4136.03	0.389258
4146.31	0.396672
4156.59	0.403893
4166.88	0.410895
4177.16	0.417647
4187.44	0.424121
4197.72	0.430286
4208	0.436114
4218.28	0.441574
4228.57	0.446636
4238.85	0.451272
4249.13	0.455452
4259.41	0.459149
4269.69	0.462333
4280.19	0.465035
4290.69	0.467148
4301.19	0.468645
4311.69	0.4695
4322.19	0.469689
4332.69	0.469187
4343.19	0.467974
4353.69	0.466029
4364.19	0.463334
4374.69	0.459872
4385.19	0.455629
4395.69	0.450592
4406.19	0.444751
4416.68	0.438099
4427.18	0.43063
4437.68	0.422342
4448.18	0.413234
4458.68	0.403309
4469.18	0.392571
4479.68	0.38103
4490.18	0.368694
4500.68	0.355576
4511.18	0.341693
4521.68	0.327062
4532.18	0.311703
4542.68	0.295638
4553.18	0.278892
4563.68	0.261498
4574.18	0.243483
4584.68	0.224867
4595.18	0.205687
4605.68	0.186006
4616.18	0.16592
4626.68	0.145204
4637.18	0.123868
4647.68	0.102245
4658.18	0.0807725
4668.68	0.0598237
4679.18	0.0306789
4689.68	0.00921447
4700.18	-0.0103492
4710.68	-0.0278369
4721.18	-0.0436742
4731.68	-0.0582923
4742.18	-0.0717058
4752.68	-0.0839705
4763.18	-0.0725332
4773.68	-0.0808214
4784.17	-0.0904027
4794.67	-0.0974937
4805.17	-0.107878
4815.67	-0.116758
4826.17	-0.124974
4836.67	-0.132702
4847.17	-0.140069
4857.67	-0.147132
4868.17	-0.153916
4878.67	-0.160033
4889.17	-0.165199
4899.72	-0.169907
4910.27	-0.174235
4920.81	-0.178271
4931.36	-0.182084
4941.88	-0.185709
4952.4	-0.189191
4962.92	-0.192549
4973.45	-0.180874
4983.97	-0.184162
4994.49	-0.187269
5005.01	-0.190001
5015.53	-0.192913
5026.05	-0.196573
5036.57	-0.199687
5047.09	-0.202349
5057.61	-0.204641
5068.14	-0.206634
5078.66	-0.208382
5089.18	-0.209943
5099.7	-0.211346
5110.22	-0.212614
5120.74	-0.213766
5131.26	-0.214817
5141.78	-0.21578
5152.3	-0.216665
5162.82	-0.217481
5173.35	-0.218091
5183.87	-0.218741
5194.39	-0.219404
5204.91	-0.220057
5215.43	-0.220584
5225.95	-0.221078
5236.47	-0.221535
5246.99	-0.221955
5257.51	-0.222337
5268.03	-0.222678
5278.56	-0.222979
5289.08	-0.223239
5299.6	-0.223459
5310.12	-0.223638
5320.64	-0.223778
5331.16	-0.223878
5341.68	-0.223944
5352.2	-0.219763
5362.72	-0.218562
5373.24	-0.218884
5383.77	-0.218955
5394.29	-0.218988
5404.81	-0.218983
5415.33	-0.218943
5425.85	-0.218867
5436.37	-0.218745
5446.89	-0.218591
5457.41	-0.218409
5467.93	-0.2182
5478.46	-0.217967
5488.98	-0.217711
5499.5	-0.217432
5510.02	-0.217133
5520.54	-0.216814
5531.06	-0.216476
5541.58	-0.216119
5552.1	-0.215745
5562.62	-0.215352
5573.14	-0.21494
5583.67	-0.214509
5594.19	-0.214057
5604.71	-0.213585
5615.23	-0.213092
5625.75	-0.212578
5636.27	-0.212042
5646.79	-0.211485
5657.31	-0.210906
5667.83	-0.210304
5678.36	-0.209679
5688.88	-0.209032
5699.4	-0.208361
5709.92	-0.207667
5720.44	-0.206948
5730.96	-0.206205
5741.48	-0.205449
5752	-0.204666
5762.52	-0.203864
5773.05	-0.203042
5783.57	-0.202197
5794.09	-0.201329
5804.61	-0.200398
5815.13	-0.199439
5825.47	-0.19847
5835.8	-0.197477
5846.14	-0.196459
5856.47	-0.195417
5866.81	-0.194351
5877.14	-0.193265
5887.48	-0.192161
5897.82	-0.191044
5908.15	-0.189914
5918.49	-0.188775
5928.82	-0.187627
5939.16	-0.186471
5949.5	-0.185309
5959.83	-0.18414
5970.17	-0.182966
5980.5	-0.181787
5990.84	-0.180603
6001.22	-0.179409
6011.59	-0.178209
6021.97	-0.177004
6032.35	-0.175793
6042.72	-0.174575
6053.1	-0.173351
6063.48	-0.17212
6073.85	-0.170881
6084.23	-0.169633
6094.61	-0.168377
6104.98	-0.173078
6115.36	-0.17233
6125.74	-0.171564
6136.11	-0.17078
6146.49	-0.169795
6156.87	-0.168803
6167.24	-0.167804
6177.62	-0.166798
6188	-0.165783
6198.38	-0.16476
6208.75	-0.163728
6219.13	-0.162686
6229.51	-0.161634
6239.88	-0.160571
6250.26	-0.158823
6260.64	-0.157046
6271.01	-0.155253
6281.39	-0.153454
6291.77	-0.151656
6302.14	-0.149864
6312.52	-0.148079
6322.9	-0.146304
6333.27	-0.144538
6343.65	-0.142779
6354.03	-0.141028
6364.4	-0.139282
6374.78	-0.137538
6385.16	-0.135796
6395.54	-0.134053
6405.91	-0.132307
6416.29	-0.130556
6426.67	-0.128797
6437.04	-0.12703
6447.42	-0.125252
6457.8	-0.123461
6468.17	-0.121657
6478.55	-0.119839
6488.93	-0.118004
6499.3	-0.116152
6509.68	-0.114293
6520.06	-0.112432
6530.43	-0.110575
6540.81	-0.108722
6551.19	-0.106875
6561.56	-0.105034
6571.94	-0.103197
6582.32	-0.101361
6592.65	-0.099532
6603.03	-0.0976904
6613.4	-0.0958405
6623.78	-0.0939786
6634.16	-0.0921015
6644.53	-0.0902064
6654.91	-0.0882909
6665.29	-0.086353
6675.67	-0.082308
6686.04	-0.0785403
6696.42	-0.0750504
6706.8	-0.0718073
6717.17	-0.0687664
6727.55	-0.0658778
6737.93	-0.063092
6748.3	-0.0603642
6758.68	-0.0576559
6769.06	-0.0549357
6779.43	-0.0521786
6789.81	-0.0493659
6800.19	-0.0464834
6810.56	-0.0435514
6820.94	-0.0406065
6831.32	-0.03766
6841.7	-0.0347093
6852.07	-0.0317412
6862.45	-0.0287366
6872.83	-0.0256744
6883.2	-0.0225337
6893.58	-0.0168887
6903.96	-0.0115123
6914.33	-0.0062951
6924.71	-0.0013743
6935.09	0.00343469
6945.46	0.00829008
6955.84	0.0132443
6966.22	0.0182654
6976.59	0.0232808
6986.97	0.0322228
6997.3	0.0393384
7007.68	0.0455927
7018.06	0.0512553
7028.43	0.0563303
7038.81	0.0607715
7049.19	0.0645632
7059.57	0.0677399
7069.94	0.0703726
7080.32	0.072547
7090.7	0.0743492
7101.07	0.0758622
7111.45	0.0771218
7121.83	0.0781728
7132.2	0.0790409
7142.58	0.0797646
7152.96	0.0803985
7163.33	0.081
7173.71	0.0816146
7184.09	0.0822668
7194.46	0.0829599
7204.84	0.0836807
7215.22	0.0844066
7225.6	0.0851118
7235.97	0.0857723
7246.3	0.0863657
7256.59	0.0868785
7266.88	0.0873052
7277.17	0.0876449
7287.45	0.0879036
7297.74	0.0880937
7308.03	0.0882313
7318.31	0.0883324
7328.6	0.0884105
7338.89	0.0884736
7349.18	0.0885236
7359.46	0.0885563
7369.75	0.0885631
7380.04	0.0885328
7390.32	0.0884532
7400.61	0.0883128
7410.9	0.0881022
7421.19	0.0878146
7431.47	0.0874463
7441.75	0.0869976
7452.04	0.0864721
7462.32	0.0858773
7472.6	0.0852239
7482.88	0.0845255
7493.16	0.0837973
7503.44	0.0830554
7513.73	0.0823153
7524.01	0.0815914
7534.29	0.0808961
7544.57	0.0802392
7554.85	0.0796279
7565.13	0.0790667
7575.42	0.0785577
7585.7	0.078101
7595.98	0.0776952
7606.26	0.0773376
7616.54	0.0770249
7626.82	0.0767532
7637.11	0.0765182
7647.39	0.0763156
7657.67	0.0761407
7667.95	0.0759885
7678.23	0.0758538
7688.51	0.0757309
7698.8	0.0756137
7709.08	0.0754958
7719.36	0.0753705
7729.64	0.0752311
7739.92	0.0750708
7750.2	0.0748831
7760.49	0.0746622
7770.77	0.0744027
7781.05	0.0741005
7791.33	0.0737522
7801.61	0.0733558
7811.89	0.0729102
7822.18	0.0724158
7832.46	0.0718738
7842.74	0.0712863
7853.02	0.0706563
7863.3	0.0699873
7873.58	0.0692834
7883.87	0.0685487
7894.15	0.0677877
7904.43	0.0670046
7914.71	0.066204
7924.99	0.0653899
7935.27	0.0645662
7945.56	0.0637366
7955.84	0.0629046
7966.12	0.0620729
7976.4	0.0612442
7986.68	0.0604204
7996.96	0.0596029
8007.25	0.0587924
8017.53	0.0579889
8027.81	0.0571917
8038.09	0.0563993
8048.37	0.0556093
8058.65	0.0548187
8068.94	0.0540238
8079.22	0.0532204
8089.5	0.0524036
8099.78	0.0515684
8110.06	0.0507094
8120.35	0.0498214
8130.63	0.0488989
8140.91	0.0479369
8151.19	0.0469305
8161.47	0.0458751
8171.75	0.0447665
8182.04	0.0436007
8192.32	0.042374
8202.6	0.0410832
8212.88	0.039725
8223.16	0.0382961
8233.44	0.036793
8243.73	0.0352125
8254.01	0.0335515
8264.29	0.0318057
8274.57	0.0299699
8284.85	0.028041
8295.13	0.0260197
8305.42	0.0238202
8315.7	0.0214325
8325.98	0.0189198
8336.26	0.0163685
8346.54	0.0138462
8356.82	0.0101983
8367.11	0.00764416
8377.39	0.00516294
8387.67	0.00286077
8397.95	0.000723894
8408.23	-0.00124296
8418.51	0.000286345
8428.8	-0.000805607
8439.08	-0.00127184
8449.36	-0.00262484
8459.64	-0.0044598
8469.92	-0.00592219
8480.2	-0.00728606
8490.49	-0.00858404
8500.77	-0.00986496
8511.05	-0.0112304
8521.33	-0.0125922
8531.61	-0.014085
8541.89	-0.0154421
8552.18	-0.0167131
8562.46	-0.0179309
8572.74	-0.0189967
8583.02	-0.0173658
8593.3	-0.0184313
8603.59	-0.0194902
8613.87	-0.0205415
8624.15	-0.0205225
8634.43	-0.0215782
8644.71	-0.0227377
8654.99	-0.0238324
8665.28	-0.0248342
8675.56	-0.0257639
8685.84	-0.0266364
8696.12	-0.027463
8706.4	-0.0282467
8716.68	-0.0289945
8726.97	-0.0297473
8737.25	-0.0304615
8747.53	-0.0311427
8757.81	-0.0317955
8768.09	-0.0324371
8778.37	-0.0330659
8788.66	-0.0336805
8798.94	-0.0344492
8809.22	-0.0351589
8819.5	-0.0358179
8829.78	-0.0364331
8840.06	-0.0370101
8850.35	-0.0375531
8860.63	-0.0380653
8870.91	-0.0385493
8881.19	-0.0390071
8891.47	-0.0394404
8901.75	-0.0398371
8912.04	-0.040203
8922.32	-0.0405428
8932.6	-0.0388897
8942.88	-0.0378442
8953.16	-0.038064
8963.44	-0.0382323
8973.73	-0.0383865
8984.01	-0.0385271
8994.29	-0.0386546
9004.57	-0.0387696
9014.85	-0.0388727
9025.13	-0.0389578
9035.42	-0.0390266
9045.7	-0.0390811
9055.98	-0.0391228
9066.26	-0.0391533
9076.54	-0.039174
9086.83	-0.0391862
9097.11	-0.0391913
9107.39	-0.0391902
9117.67	-0.039184
9127.95	-0.0391737
9138.23	-0.0391599
9148.52	-0.0391436
9158.8	-0.0391254
9169.08	-0.039106
9179.36	-0.0390858
9189.64	-0.0390646
9199.92	-0.0390439
9210.21	-0.0390234
9220.49	-0.0390025
9230.77	-0.0389809
9241.05	-0.0389865
9251.33	-0.0389891
9261.61	-0.0389883
9271.9	-0.0389839
9282.18	-0.0389757
9292.46	-0.0389634
9302.74	-0.0389457
9313.02	-0.0389225
9323.3	-0.0388939
9333.59	-0.0388598
9343.87	-0.0388202
9354.15	-0.0387751
9364.43	-0.0387246
9374.71	-0.0386687
9384.99	-0.0386691
9395.28	-0.0386585
9405.56	-0.0386375
9415.84	-0.0386064
9426.12	-0.0385657
9436.4	-0.0385158
9446.68	-0.0384569
9456.97	-0.0383895
9467.25	-0.0383137
9477.53	-0.0382298
9487.81	-0.0381381
9498.09	-0.0380387
9508.37	-0.037932
9518.66	-0.0378179
9528.94	-0.0376968
9539.22	-0.0375689
9549.5	-0.0374345
9559.78	-0.0372925
9570.07	-0.0371433
9580.35	-0.0369872
9590.63	-0.0368244
9600.91	-0.0366554
9611.19	-0.0357492
9621.47	-0.0343238
9631.76	-0.0341309
9642.04	-0.0339362
9652.32	-0.0337394
9662.6	-0.0335405
9672.88	-0.0333393
9683.16	-0.0331359
9693.45	-0.03293
9703.73	-0.0327217
9714.01	-0.0325109
9724.29	-0.0322974
9734.57	-0.0320814
9744.85	-0.0318627
9755.14	-0.0316413
9765.42	-0.0314172
9775.7	-0.0311903
9785.98	-0.0309606
9796.26	-0.0308317
9806.54	-0.0306985
9816.83	-0.030561
9827.11	-0.030419
9837.39	-0.0302722
9847.67	-0.0301201
9857.95	-0.0299626
9868.23	-0.0297996
9878.52	-0.0296313
9888.8	-0.0294578
9899.08	-0.0292789
9909.36	-0.0290949
9919.64	-0.0289058
9929.93	-0.0287116
9940.21	-0.0285125
9950.49	-0.0283085
9960.77	-0.0280997
9971.05	-0.0278862
9981.33	-0.0276679
9991.62	-0.0274451
10001.9	-0.0272178
10012.2	-0.0269861
10022.5	-0.0267501
10032.7	-0.0265098
10043	-0.0262654
10053.3	-0.0260169
10063.6	-0.0257644
10073.9	-0.0255081
10084.2	-0.0252481
10094.4	-0.0249844
10104.7	-0.0247172
10115	-0.0244465
10125.3	-0.0241724
10135.6	-0.0238951
10145.8	-0.0236145
10156.1	-0.0233308
10166.4	-0.023044
10176.7	-0.0227542
10187	-0.0224615
10197.2	-0.0221659
10207.5	-0.0218675
10217.8	-0.0215662
10228.1	-0.0212622
10238.4	-0.0209555
10248.7	-0.0206461
10258.9	-0.0203341
10269.2	-0.0200195
10279.5	-0.0197032
10289.8	-0.0193853
10300.1	-0.0190656
10310.3	-0.0187442
10320.6	-0.018421
10330.9	-0.0180959
10341.2	-0.017769
10351.5	-0.0174402
10361.8	-0.0171097
10372	-0.0167773
10382.3	-0.0164432
10392.6	-0.0161073
10402.9	-0.0157696
10413.2	-0.0154303
10423.4	-0.0150894
10433.7	-0.0147468
10444	-0.0144029
10454.3	-0.013995
10464.6	-0.0135964
10474.9	-0.0132064
10485.1	-0.0128241
10495.4	-0.012449
10505.7	-0.0120805
10516	-0.0117178
10526.3	-0.0113606
10536.5	-0.0110082
10546.8	-0.0106602
10557.1	-0.0103162
10567.4	-0.00997571
10577.7	-0.00963838
10588	-0.00930383
10598.2	-0.00897173
10608.5	-0.00864177
10618.8	-0.00831365
10629.1	-0.00798705
10639.4	-0.00766165
10649.6	-0.00733718
10659.9	-0.00701341
10670.2	-0.00668996
10680.5	-0.00636681
10690.8	-0.00604379
10701.1	-0.00572078
10711.4	-0.00539767
10721.9	-0.00506769
10732.4	-0.00473748
10742.9	-0.00440704
10753.4	-0.00407635
10763.9	-0.00374545
10774.4	-0.00341437
10784.9	-0.00308315
10795.4	-0.00275184
10805.9	-0.00242049
10816.4	-0.0020574
10826.9	-0.00171296
10837.4	-0.00138375
10848	-0.00106457
10858.6	-0.000756398
10869.1	-0.00045738
10879.7	-0.000165897
10890.3	0.000119457
10900.9	0.000399902
10911.5	0.00067647
10922.1	0.000950044
10932.7	0.0012214
10943.3	0.00149123
10953.9	0.00176012
10964.5	0.00202858
10975.1	0.00229703
10985.7	0.00256584
10996.3	0.00283531
11006.9	0.00310565
11017.5	0.00337703
11028.1	0.00364959
11038.7	0.00392338
11049.3	0.00419843
11059.9	0.004475
11070.7	0.00475217
11081.5	0.00501531
11092.4	0.00526747
11103.2	0.00551118
11114	0.00574859
11124.9	0.00598156
11135.7	0.00621166
11146.5	0.00644026
11157.4	0.00666851
11168.2	0.00689738
11179	0.0071277
11189.9	0.00736018
11200.7	0.00759537
11211.6	0.00783367
11222.4	0.00807509
11233.2	0.00831945
11244.1	0.00856651
11254.9	0.008816
11265.7	0.00903563
11276.6	0.00926684
11287.4	0.00950951
11298.2	0.00988814
11309.1	0.0102999
11319.9	0.0107318
11330.7	0.0111722
11341.6	0.0116125
11352.4	0.012047
11363.3	0.0124725
11374.1	0.012888
11384.9	0.0132936
11395.8	0.0136907
11406.6	0.014081
11417.4	0.0144643
11428.3	0.0153165
11439.1	0.0163708
11449.9	0.0174201
11460.8	0.0183908
11471.6	0.0192505
11482.5	0.019997
11493.3	0.0214364
11504.1	0.0224746
11515	0.0232207
11525.8	0.0237719
11536.6	0.0242036
11547.5	0.0245687
11558.3	0.0249018
11569.1	0.025224
11580	0.0255492
11590.8	0.0258667
11601.6	0.0261821
11612.5	0.0265
11623.3	0.0268194
11634.2	0.0271377
11645	0.0274537
11655.8	0.0277662
11666.7	0.0280743
11677.5	0.0283772
11688.3	0.0286745
11699.2	0.0289656
11710	0.0292516
11720.8	0.0295341
11731.7	0.0298134
11742.5	0.0300872
11753.3	0.030351
11764.2	0.0305998
11775	0.0308281
11785.9	0.0310313
11796.7	0.0312058
11807.5	0.0313497
11818.4	0.0314627
11829.2	0.0315463
11840	0.0316028
11850.9	0.0316355
11861.7	0.031648
11872.5	0.0316438
11883.4	0.0316263
11894.2	0.0315984
11905.1	0.0315626
11915.9	0.0315204
11926.7	0.0314724
11937.6	0.0314187
11948.4	0.0313581
11959.2	0.0312887
11970.1	0.031208
11980.9	0.0311131
11991.7	0.0310005
