0	0
12.9179	0
22.6063	0
32.2946	0
41.9828	0
51.6709	0
61.359	0
71.0469	0
80.7348	0
90.4226	0
100.11	0
113.027	0
122.655	0
132.205	0
141.718	0
151.237	0
160.759	0
170.278	0
182.969	0
192.487	-1.81899e-12
202.005	-4.54747e-12
211.492	-7.27596e-12
220.979	-1.00044e-11
230.467	-1.27329e-11
243.121	-1.63709e-11
252.614	-1.90994e-11
262.106	-2.18279e-11
271.599	-2.45564e-11
281.091	-2.72848e-11
290.583	-3.27418e-11
300.075	-3.81988e-11
312.732	-4.54747e-11
322.224	-5.09317e-11
331.716	-5.63887e-11
341.18	-6.18456e-11
350.672	-6.73026e-11
360.125	-7.27596e-11
372.624	-8.00355e-11
381.998	-8.54925e-11
391.372	-8.91305e-11
400.746	-9.1859e-11
413.016	-9.27685e-11
422.192	-9.09495e-11
431.368	-8.6402e-11
440.57	-7.7307e-11
452.847	-5.82077e-11
462.061	-3.63798e-11
471.208	-6.36646e-12
480.263	3.27418e-11
492.337	1.02773e-10
501.385	1.71894e-10
510.419	2.59206e-10
522.465	4.08363e-10
531.485	5.50244e-10
540.498	7.22139e-10
552.515	1.00772e-09
561.533	1.27056e-09
570.561	1.58343e-09
582.598	2.08365e-09
591.626	2.52567e-09
600.653	3.0268e-09
612.69	3.78895e-09
621.718	4.43379e-09
630.745	5.14319e-09
642.782	6.19093e-09
651.81	7.05586e-09
660.837	7.989e-09
672.873	9.33414e-09
681.874	1.04101e-08
690.866	1.15397e-08
702.855	1.31213e-08
711.857	1.43555e-08
720.857	1.56215e-08
732.854	1.7345e-08
741.852	1.86528e-08
750.851	1.99652e-08
762.848	2.17087e-08
771.846	2.30011e-08
780.844	2.42726e-08
792.842	2.59206e-08
801.84	2.71157e-08
810.838	2.82689e-08
822.835	2.97341e-08
831.833	3.07746e-08
840.831	3.17632e-08
852.828	3.29992e-08
861.826	3.38669e-08
870.824	3.4689e-08
882.821	3.57231e-08
891.819	3.64626e-08
900.817	3.71811e-08
912.814	3.81342e-08
921.812	3.88663e-08
930.81	3.96376e-08
942.807	4.07672e-08
951.804	4.17285e-08
960.802	4.28236e-08
972.799	4.4558e-08
981.797	4.61205e-08
990.794	4.79595e-08
1002.79	5.09344e-08
1011.79	5.36329e-08
1020.79	5.68007e-08
1032.78	6.1872e-08
1041.78	6.64095e-08
1050.78	7.16627e-08
1062.78	7.99328e-08
1071.77	8.72069e-08
1080.77	9.55115e-08
1092.77	1.08378e-07
1101.76	1.19527e-07
1110.76	1.32098e-07
1122.76	1.51306e-07
1131.76	1.67734e-07
1140.75	1.86067e-07
1152.75	2.13753e-07
1161.75	2.37173e-07
1170.74	2.63075e-07
1182.74	3.01806e-07
1191.74	3.34267e-07
1200.74	3.69896e-07
1212.73	4.22728e-07
1221.73	4.6666e-07
1230.73	5.14569e-07
1242.72	5.85102e-07
1251.72	6.43359e-07
1260.72	7.06533e-07
1272.71	7.98942e-07
1281.65	8.7439e-07
1290.6	9.55793e-07
1302.52	1.07421e-06
1311.49	1.17117e-06
1320.46	1.27564e-06
1332.42	1.42794e-06
1341.39	1.55242e-06
1350.36	1.68599e-06
1362.32	1.87857e-06
1371.26	2.03366e-06
1380.21	2.19835e-06
1392.13	2.4329e-06
1401.05	2.61992e-06
1412.94	2.88481e-06
1421.85	3.09506e-06
1430.79	3.31642e-06
1442.71	3.62811e-06
1451.62	3.87391e-06
1460.56	4.13159e-06
1472.48	4.49319e-06
1481.42	4.77841e-06
1490.36	5.07611e-06
1502.28	5.49333e-06
1511.22	5.82194e-06
1520.16	6.16505e-06
1532.08	6.64592e-06
1540.89	7.01965e-06
1552.58	7.54067e-06
1561.35	7.95136e-06
1570.24	8.38574e-06
1582.07	8.99471e-06
1590.92	9.47388e-06
1602.71	1.01469e-05
1611.56	1.06787e-05
1620.4	1.1235e-05
1632.2	1.2017e-05
1641.04	1.26355e-05
1652.84	1.35055e-05
1661.68	1.41939e-05
1670.53	1.49148e-05
1682.32	1.59291e-05
1691.17	1.6732e-05
1700.01	1.75724e-05
1711.81	1.87536e-05
1720.65	1.96863e-05
1732.45	2.09943e-05
1741.29	2.20246e-05
1750.14	2.30983e-05
1761.93	2.45985e-05
1770.78	2.57763e-05
1782.57	2.74184e-05
1791.42	2.87049e-05
1800.26	3.00387e-05
1812.03	3.18915e-05
1820.87	3.33396e-05
1832.65	3.53511e-05
1841.49	3.69219e-05
1850.33	3.85469e-05
1862.11	4.08003e-05
1870.95	4.25572e-05
1882.74	4.49921e-05
1891.58	4.68897e-05
1900.42	4.88506e-05
1912.2	5.15672e-05
1921.04	5.36839e-05
1932.83	5.6616e-05
1941.67	5.89008e-05
1950.51	6.12616e-05
1962.29	6.45323e-05
1971.13	6.70812e-05
1982.92	7.06127e-05
1991.76	7.33652e-05
2000.6	7.621e-05
2012.38	8.01526e-05
2021.22	8.3226e-05
2030.06	8.64033e-05
2041.85	8.75599e-05
2050.69	8.62256e-05
2062.47	8.47912e-05
2071.31	8.39562e-05
2080.15	8.33142e-05
2091.94	8.27393e-05
2100.78	8.25058e-05
2112.56	8.24404e-05
2121.4	8.25654e-05
2130.24	8.28312e-05
2142.03	8.33941e-05
2150.87	8.39653e-05
2162.65	8.49167e-05
2171.49	8.57674e-05
2180.33	8.6732e-05
2192.12	8.81907e-05
2200.96	8.94115e-05
2212.74	9.12056e-05
2221.58	9.26746e-05
2230.42	9.42491e-05
2242.2	9.65125e-05
2251.04	9.83338e-05
2262.83	0.000100929
2271.67	0.000103002
2280.51	0.000105186
2292.29	0.000108274
2301.13	0.000110725
2312.92	0.000114178
2321.76	0.000116911
2330.59	0.00011977
2342.38	0.000123784
2351.22	0.00012695
2360.06	0.000130255
2371.84	0.000134884
2380.68	0.000138529
2392.47	0.000143626
2401.31	0.000147635
2410.14	0.000151808
2421.93	0.000157638
2430.76	0.000162192
2442.53	0.000168493
2451.37	0.000173386
2460.19	0.000178403
2471.93	0.000185268
2480.71	0.000190553
2492.43	0.00019779
2501.23	0.000203372
2510.04	0.000209078
2521.78	0.000216884
2530.59	0.000222892
2542.33	0.000231115
2551.13	0.000237449
2562.87	0.000246129
2571.68	0.000252823
2580.49	0.000259684
2592.23	0.000269105
2601.03	0.000276389
2612.77	0.00028641
2621.58	0.000294171
2630.39	0.000302155
2642.13	0.000313168
2650.93	0.000321716
2662.67	0.000333522
2671.48	0.000342695
2680.28	0.000352156
2692.02	0.000365233
2700.83	0.000375403
2712.57	0.000389467
2721.38	0.000400407
2730.18	0.000411697
2740.95	0.000425993
2752.65	0.00044218
2761.44	0.000454776
2770.22	0.000467778
2781.93	0.000485773
2790.71	0.000518791
2802.42	0.000562715
2811.2	0.000595451
2822.91	0.000638729
2831.69	0.000670888
2840.47	0.000702801
2852.18	0.00074502
2860.96	0.000776497
2872.67	0.00081833
2881.45	0.000849695
2890.23	0.00088114
2901.94	0.000923337
2910.72	0.000955302
2922.43	0.000998523
2931.21	0.00103151
2942.92	0.00107643
2951.7	0.00111095
2960.48	0.00114628
2972.19	0.0011948
2980.97	0.00123237
2992.68	0.001284
3001.46	0.00132368
3010.25	0.00136407
3021.95	0.00141894
3030.74	0.00146084
3042.44	0.00151773
3051.22	0.00156125
3060.01	0.00160558
3071.71	0.00166611
3080.5	0.00171274
3092.2	0.00177683
3100.99	0.00182653
3112.69	0.00189525
3121.48	0.00194883
3130.26	0.00200431
3141.96	0.00208146
3150.75	0.0021419
3162.45	0.0022262
3171.24	0.00234654
3180.02	0.0024889
3191.72	0.00266857
3200.51	0.00279671
3212.21	0.00296121
3221	0.00308177
3232.7	0.00324179
3241.48	0.00336324
3250.27	0.00348753
3261.97	0.00365997
3270.75	0.00379513
3282.46	0.00398121
3291.24	0.00412467
3300.02	0.0042718
3311.73	0.00447518
3320.51	0.00463478
3332.22	0.00486
3341	0.00504019
3352.71	0.00536401
3361.49	0.00575456
3370.27	0.00612996
3381.98	0.00661748
3390.76	0.00698721
3402.47	0.0075056
3411.25	0.00792062
3420.03	0.00834784
3431.74	0.00893918
3440.52	0.00941471
3452.23	0.0105643
3461.01	0.0113995
3472.72	0.012535
3481.5	0.0135028
3490.28	0.014576
3501.99	0.0173898
3510.77	0.0196831
3522.47	0.0258763
3531.26	0.0302233
3540.04	0.0343108
3551.74	0.0395109
3560.52	0.0431433
3572.23	0.047926
3581.01	0.0514876
3592.72	0.0561792
3601.5	0.0597419
3610.28	0.0634162
3621.99	0.068405
3630.77	0.0721022
3642.48	0.0769089
3651.26	0.080479
3660.04	0.0840798
3671.75	0.0889617
3680.53	0.0926892
3692.24	0.0977544
3701.02	0.10161
3712.73	0.106766
3721.51	0.110607
3730.29	0.11442
3742	0.119487
3750.78	0.123295
3762.49	0.128404
3771.27	0.132272
3780.05	0.13618
3791.76	0.141453
3800.54	0.145442
3812.25	0.150789
3821.03	0.154821
3832.73	0.160241
3841.52	0.164357
3850.3	0.168527
3862.01	0.174177
3870.79	0.178478
3882.5	0.184282
3891.28	0.188676
3900.06	0.193098
3911.77	0.199041
3920.55	0.203545
3932.26	0.209635
3941.04	0.214284
3952.75	0.220616
3961.53	0.225478
3970.31	0.230448
3982.05	0.237275
3990.86	0.242547
4002.6	0.249808
4011.4	0.255453
4020.21	0.261289
4031.95	0.269406
4040.75	0.275768
4052.49	0.284651
4061.3	0.291636
4070.11	0.298918
4081.85	0.309128
4090.65	0.317191
4102.39	0.328536
4111.2	0.337527
4120.01	0.346969
4131.76	0.360311
4140.58	0.370916
4152.34	0.385899
4161.2	0.397856
4170.08	0.410442
4181.92	0.428193
4190.8	0.442254
4202.66	0.462066
4211.62	0.477801
4220.59	0.494209
4232.54	0.517101
4241.51	0.534999
4250.48	0.553502
4262.45	0.579037
4271.43	0.59877
4280.4	0.618938
4292.37	0.64639
4301.35	0.667298
4310.32	0.688379
4322.29	0.716578
4331.26	0.737647
4340.24	0.758507
4352.21	0.785758
4361.18	0.805585
4370.16	0.824712
4382.13	0.848836
4391.1	0.865667
4400.08	0.881212
4412.05	0.899607
4421.02	0.911402
4432.99	0.924087
4441.97	0.931066
4450.94	0.935658
4462.91	0.937745
4471.89	0.936053
4480.86	0.931385
4492.83	0.920265
4501.81	0.908078
4510.78	0.892461
4522.75	0.866142
4531.73	0.842187
4540.7	0.814568
4552.67	0.772013
4561.65	0.735811
4570.62	0.695974
4582.59	0.637305
4591.57	0.589235
4600.54	0.537771
4612.51	0.464011
4621.49	0.404928
4630.46	0.342676
4642.43	0.254815
4651.41	0.185321
4660.38	0.112579
4672.35	0.0100837
4681.33	-0.0509471
4690.3	-0.07301
4702.27	-0.115441
4711.25	-0.145755
4720.22	-0.173314
4732.19	-0.199782
4741.17	-0.21665
4750.15	-0.221179
4762.12	-0.242402
4771.1	-0.25464
4780.07	-0.265314
4792.05	-0.27754
4801.05	-0.285336
4810.05	-0.292767
4822.04	-0.302008
4831.04	-0.308364
4840.04	-0.298834
4852.04	-0.303652
4861.04	-0.310217
4870.03	-0.316425
4882.03	-0.323293
4891.03	-0.327572
4900.03	-0.331262
4912.02	-0.335486
4921.02	-0.338275
4930.02	-0.340831
4942.02	-0.343451
4951.01	-0.345366
4960.01	-0.347052
4972.01	-0.349293
4981.01	-0.350934
4990.01	-0.352515
5002	-0.354499
5011	-0.355875
5023	-0.35753
5032	-0.358532
5040.99	-0.349922
5052.99	-0.351483
5061.98	-0.353186
5070.97	-0.354717
5082.89	-0.35646
5091.83	-0.357552
5100.78	-0.358447
5112.74	-0.359377
5121.71	-0.359899
5130.68	-0.360281
5142.64	-0.360589
5151.61	-0.360687
5160.58	-0.36068
5172.54	-0.360527
5181.51	-0.360316
5190.47	-0.360032
5202.4	-0.359552
5211.34	-0.359124
5220.29	-0.358643
5232.21	-0.35789
5241.13	-0.35729
5250.05	-0.356668
5261.92	-0.355806
5270.86	-0.354998
5282.78	-0.353817
5291.7	-0.352918
5300.64	-0.352003
5312.56	-0.350757
5321.5	-0.349804
5330.44	-0.348832
5342.36	-0.347507
5351.3	-0.346491
5360.24	-0.345455
5372.15	-0.344047
5381.09	-0.34297
5390.02	-0.341876
5401.71	-0.340398
5410.52	-0.339258
5422.37	-0.331316
5431.22	-0.330719
5440.07	-0.330112
5451.86	-0.329287
5460.71	-0.328657
5472.5	-0.327805
5481.35	-0.327155
5490.19	-0.326496
5501.99	-0.325602
5510.83	-0.324923
5522.63	-0.324007
5531.47	-0.323315
5540.32	-0.322617
5552.11	-0.321682
5560.96	-0.320976
5572.75	-0.320033
5581.6	-0.319328
5590.44	-0.318625
5602.24	-0.317693
5611.08	-0.316998
5622.87	-0.31608
5631.71	-0.315394
5640.54	-0.314711
5652.31	-0.313798
5661.15	-0.31311
5672.93	-0.312184
5681.77	-0.311481
5690.61	-0.310768
5702.39	-0.3098
5711.23	-0.309057
5720.07	-0.308299
5731.86	-0.307261
5740.7	-0.306459
5752.48	-0.305356
5761.32	-0.3045
5770.16	-0.30362
5781.95	-0.3025
5790.79	-0.301633
5802.57	-0.300408
5811.41	-0.299439
5820.25	-0.298426
5832.04	-0.29701
5840.88	-0.295898
5852.66	-0.294233
5861.5	-0.292908
5870.34	-0.291545
5882.13	-0.28967
5890.97	-0.288222
5902.75	-0.286239
5911.59	-0.284713
5920.43	-0.283156
5932.22	-0.281033
5941.06	-0.279406
5952.84	-0.277811
5961.68	-0.276685
5970.52	-0.275491
5982.31	-0.273806
5991.15	-0.272482
6002.93	-0.270644
6011.77	-0.269217
6020.61	-0.267752
6032.4	-0.26574
6041.24	-0.264191
6050.08	-0.262607
6061.86	-0.260444
6070.7	-0.258784
6082.49	-0.25652
6091.33	-0.254786
6100.17	-0.25302
6111.95	-0.250617
6120.79	-0.24878
6132.58	-0.246283
6141.42	-0.244377
6150.26	-0.242441
6162.04	-0.239805
6170.88	-0.237789
6182.67	-0.235065
6191.51	-0.233003
6200.35	-0.23093
6212.13	-0.228157
6220.97	-0.226073
6232.76	-0.223293
6241.6	-0.221207
6250.44	-0.21912
6262.22	-0.216336
6271.06	-0.214245
6282.85	-0.211451
6291.69	-0.209348
6300.53	-0.207238
6312.31	-0.204409
6321.15	-0.202275
6332.94	-0.199409
6341.78	-0.197244
6350.62	-0.195064
6362.39	-0.191089
6371.23	-0.187377
6380.06	-0.183768
6391.84	-0.179114
6400.68	-0.175737
6412.4	-0.171384
6421.19	-0.16819
6432.92	-0.163986
6441.72	-0.160851
6450.53	-0.157716
6462.27	-0.153512
6471.08	-0.150327
6482.82	-0.146061
6491.62	-0.142869
6500.43	-0.139686
6512.17	-0.135447
6520.97	-0.132256
6532.72	-0.127958
6541.52	-0.12468
6550.33	-0.121343
6562.07	-0.113302
6570.87	-0.107571
6582.61	-0.100314
6591.42	-0.0950445
6600.23	-0.089811
6611.97	-0.0827585
6620.77	-0.077372
6632.51	-0.0702366
6641.32	-0.0649452
6650.12	-0.0596281
6661.87	-0.0496691
6670.67	-0.041453
6682.41	-0.0314519
6691.22	-0.0235631
6700.02	-0.0154807
6711.76	0.000848481
6720.57	0.0131035
6732.31	0.0391396
6741.12	0.057071
6752.86	0.0744888
6761.65	0.0843022
6770.43	0.0912729
6782.14	0.0974931
6790.92	0.100492
6802.63	0.102647
6811.41	0.103594
6820.19	0.104749
6831.9	0.106611
6840.68	0.107641
6852.39	0.108027
6861.17	0.10776
6872.88	0.107364
6881.66	0.10734
6890.44	0.107602
6902.15	0.108434
6910.93	0.109423
6922.64	0.110954
6931.42	0.111923
6940.2	0.11252
6951.91	0.112715
6960.69	0.112546
6972.4	0.112086
6981.18	0.111624
6992.89	0.110922
7001.67	0.110391
7010.45	0.109875
7022.16	0.109144
7030.94	0.108487
7042.65	0.107445
7051.43	0.10662
7060.22	0.105869
7071.92	0.105131
7080.71	0.104816
7092.41	0.104639
7101.2	0.104555
7112.9	0.104262
7121.69	0.103768
7130.47	0.102977
7142.18	0.10148
7150.96	0.100099
7162.67	0.0980735
7171.45	0.0965196
7180.23	0.0950019
7191.94	0.093074
7200.72	0.0916898
7212.43	0.0898842
7221.21	0.0885445
7232.92	0.0868061
7241.7	0.0855928
7250.48	0.0845184
7262.19	0.0833879
7270.97	0.0828042
7282.68	0.0823745
7291.46	0.0822743
7300.24	0.082313
7311.95	0.0824981
7320.73	0.0826892
7332.44	0.0829782
7341.22	0.0832192
7350	0.0834921
7361.71	0.0839298
7370.49	0.0843294
7382.2	0.0849714
7390.98	0.0855392
7402.69	0.0864144
7411.47	0.0871614
7420.25	0.0879865
7431.96	0.0892024
7440.74	0.0901891
7452.45	0.0915715
7461.23	0.0926277
7470.02	0.0936712
7481.72	0.0950009
7490.51	0.0959278
7502.21	0.0970506
7511	0.0978056
7522.7	0.0987044
7531.49	0.0993071
7540.27	0.0998575
7551.98	0.100523
7560.76	0.10098
7572.47	0.101552
7581.25	0.101968
7590.03	0.102387
7601.74	0.102978
7610.52	0.103463
7622.23	0.104179
7631.01	0.104772
7642.72	0.105623
7651.5	0.106294
7660.28	0.106978
7671.99	0.107891
7680.77	0.108565
7692.48	0.109449
7701.26	0.110106
7710.04	0.110768
7721.75	0.111676
7730.53	0.11239
7742.24	0.113403
7751.02	0.114216
7762.73	0.115374
7771.51	0.116296
7780.29	0.117256
7792	0.118579
7800.78	0.119582
7812.49	0.120895
7821.27	0.121831
7830.06	0.122696
7841.76	0.123694
7850.55	0.124298
7862.25	0.124874
7871.04	0.125119
7882.74	0.125188
7891.53	0.125048
7900.31	0.124752
7912.02	0.12413
7920.8	0.123513
7932.51	0.122515
7941.29	0.121655
7950.07	0.120718
7961.78	0.119369
7970.56	0.118298
7982.27	0.116807
7991.05	0.115651
8002.76	0.114063
8011.54	0.112838
8020.32	0.111582
8032.03	0.109856
8040.81	0.108523
8052.52	0.106692
8061.3	0.105281
8070.08	0.103843
8081.79	0.101893
8090.57	0.100415
8102.28	0.0984402
8111.06	0.0969656
8122.77	0.0950215
8131.56	0.093587
8140.34	0.0921763
8152.05	0.0903336
8160.83	0.0889782
8172.54	0.0871983
8181.32	0.0858754
8190.1	0.0845536
8201.81	0.0827767
8210.61	0.0814175
8222.35	0.0795522
8231.15	0.0781025
8242.89	0.0760863
8251.7	0.0745034
8260.5	0.0728547
8272.24	0.0705503
8281.05	0.0687426
8292.79	0.0662313
8301.6	0.0642783
8310.4	0.0622733
8322.14	0.0595333
8330.95	0.0574405
8342.69	0.0546183
8351.5	0.0524905
8360.3	0.0503633
8372.04	0.0475423
8380.85	0.0454475
8392.59	0.0426937
8401.39	0.0406643
8410.2	0.0386702
8421.94	0.0360719
8430.75	0.0341724
8442.49	0.0317098
8451.29	0.0299185
8460.1	0.0281773
8471.84	0.0259369
8480.65	0.0243191
8492.4	0.0222483
8501.21	0.0207613
8510.02	0.0193305
8521.77	0.0175075
8530.59	0.0161986
8542.34	0.0145194
8551.16	0.0132956
8562.92	0.0116734
8571.74	0.00857652
8580.56	0.00655341
8592.31	0.0057973
8601.13	0.00170793
8612.89	-0.00283024
8621.71	-0.00640017
8630.53	-0.00679466
8642.28	-0.011609
8651.1	-0.015219
8662.86	-0.0192969
8671.68	-0.0220214
8680.5	-0.0246506
8692.25	-0.0278906
8701.07	-0.0301625
8712.83	-0.0290538
8721.65	-0.0313747
8730.47	-0.0342097
8742.22	-0.0374341
8751.04	-0.0395561
8762.8	-0.0421171
8771.62	-0.0439002
8780.44	-0.0455992
8792.19	-0.0477641
8801.01	-0.0493255
8812.77	-0.0513869
8821.59	-0.0527394
8830.41	-0.0540462
8842.16	-0.0557145
8850.98	-0.0569086
8862.74	-0.0584233
8871.56	-0.0594968
8880.38	-0.0605178
8892.14	-0.0610944
8900.95	-0.0619204
8912.71	-0.0628721
8921.59	-0.0634982
8930.47	-0.0640577
8942.31	-0.0647164
8951.19	-0.0651594
8960.11	-0.0655722
8972.03	-0.0660867
8980.97	-0.0664531
8992.89	-0.0669252
9001.83	-0.0672723
9010.77	-0.0677191
9022.69	-0.0683569
9031.63	-0.0688168
9040.56	-0.0691867
9052.48	-0.0696743
9061.41	-0.0700344
9070.28	-0.0703862
9081.98	-0.07084
9090.75	-0.0711715
9102.55	-0.0716044
9111.44	-0.071919
9120.31	-0.0722228
9132.1	-0.0726099
9140.95	-0.072887
9152.74	-0.0732382
9161.59	-0.0734877
9170.43	-0.0710367
9182.23	-0.069712
9191.07	-0.0700966
9202.87	-0.070586
9211.71	-0.0709402
9220.56	-0.0712774
9232.35	-0.0716969
9241.2	-0.0719863
9250.04	-0.0722529
9261.84	-0.0725745
9270.68	-0.0727915
9282.48	-0.0730501
9291.32	-0.0732218
9300.17	-0.0733754
9311.96	-0.0735526
9320.81	-0.0736646
9332.6	-0.0737876
9341.45	-0.0738612
9350.3	-0.0739199
9362.09	-0.0739764
9370.94	-0.0740026
9382.73	-0.0740135
9391.58	-0.0740042
9400.42	-0.0739805
9412.22	-0.0739275
9421.06	-0.0738724
9432.86	-0.0737795
9441.7	-0.073696
9450.55	-0.0736015
9462.34	-0.0734603
9471.19	-0.0733437
9480.02	-0.0732188
9491.8	-0.0730377
9500.63	-0.0728894
9512.41	-0.0726767
9521.25	-0.0725071
9530.09	-0.0723135
9541.88	-0.0721143
9550.72	-0.0719822
9562.51	-0.0717924
9571.35	-0.0716406
9580.18	-0.0714813
9591.97	-0.0712579
9600.81	-0.0710828
9612.6	-0.0708398
9621.44	-0.0706509
9630.28	-0.0704567
9642.06	-0.07019
9650.9	-0.0699846
9662.69	-0.069704
9671.53	-0.0694887
9680.37	-0.0692695
9692.15	-0.0689713
9700.99	-0.0687433
9712.78	-0.0684336
9721.62	-0.0681971
9730.46	-0.067957
9742.24	-0.0676311
9751.08	-0.0673825
9762.87	-0.0670452
9771.71	-0.0667878
9780.55	-0.0665266
9792.33	-0.0661724
9801.17	-0.0659022
9810.01	-0.0656281
9821.8	-0.0652563
9830.64	-0.0649729
9842.42	-0.0645891
9851.26	-0.0642967
9860.1	-0.0649631
9871.89	-0.0645965
9880.73	-0.0643187
9892.52	-0.0639442
9901.35	-0.0636603
9910.19	-0.0633735
9921.98	-0.0629865
9930.82	-0.0626927
9942.61	-0.0622964
9951.45	-0.0619955
9960.28	-0.0616915
9972.07	-0.0612811
9980.91	-0.0609694
9992.7	-0.0605486
10001.5	-0.0602283
10010.4	-0.0599031
10022.2	-0.0594619
10031	-0.0591252
10042.8	-0.058669
10051.6	-0.058215
10060.5	-0.0577596
10072.3	-0.0571505
10081.1	-0.0566921
10092.9	-0.0560796
10101.7	-0.0556183
10110.5	-0.0551563
10122.2	-0.0545412
10131	-0.0540784
10142.8	-0.0534594
10151.6	-0.0529927
10160.4	-0.0525247
10172.1	-0.0518988
10180.9	-0.051428
10192.6	-0.0507982
10201.5	-0.0503243
10210.3	-0.0498493
10222	-0.0492138
10230.8	-0.0487358
10242.5	-0.0480966
10251.4	-0.0476158
10260.2	-0.0471348
10271.9	-0.0464959
10280.7	-0.0460181
10292.4	-0.0453823
10301.3	-0.0449062
10310.1	-0.0444304
10321.8	-0.0437962
10330.6	-0.0433206
10342.3	-0.0426861
10351.2	-0.0422099
10362.9	-0.0415743
10371.7	-0.0410971
10380.5	-0.0406194
10392.2	-0.0399817
10401.1	-0.0395028
10412.8	-0.0388634
10421.6	-0.0383833
10430.4	-0.0379027
10442.1	-0.0372612
10451	-0.0367797
10462.7	-0.036137
10471.5	-0.0356548
10480.3	-0.0351723
10492	-0.0345289
10500.8	-0.0340465
10512.6	-0.0334038
10521.4	-0.0329224
10530.2	-0.0324416
10541.9	-0.0318016
10550.7	-0.0313227
10562.5	-0.0306864
10571.3	-0.030211
10580.1	-0.0297371
10591.8	-0.0291078
10600.6	-0.0286377
10612.4	-0.0280136
10621.2	-0.0275243
10632.9	-0.0268189
10641.7	-0.0262986
10650.5	-0.025786
10662.2	-0.0251128
10671	-0.0246153
10682.7	-0.0239615
10691.5	-0.0234783
10700.3	-0.023001
10712	-0.0223738
10720.8	-0.02191
10732.5	-0.0213004
10741.3	-0.0208495
10750	-0.0204039
10761.7	-0.0198179
10770.5	-0.0193843
10782.2	-0.0188163
10791	-0.0183982
10802.7	-0.0178506
10811.5	-0.0174467
10820.3	-0.0170483
10832	-0.0165249
10840.8	-0.0160983
10852.5	-0.0155328
10861.3	-0.0151306
10870.1	-0.0147445
10881.8	-0.0142509
10890.5	-0.0138944
10902.3	-0.013434
10911	-0.0130982
10922.7	-0.0126609
10931.5	-0.0123395
10940.3	-0.0120229
10952	-0.0116124
10960.8	-0.0113128
10972.5	-0.010923
10981.3	-0.0106368
10990.1	-0.0103551
11001.8	-0.00998517
11010.6	-0.00971097
11022.3	-0.00934844
11031	-0.00907805
11042.8	-0.00871846
11051.5	-0.00844907
11060.3	-0.00817986
11072	-0.00782087
11080.8	-0.00755133
11092.5	-0.00719109
11101.3	-0.00691994
11110.1	-0.00664763
11121.8	-0.00628232
11130.6	-0.00600637
11142.3	-0.00563801
11151.1	-0.00536671
11162.8	-0.00500935
11171.6	-0.00474286
11180.3	-0.00447677
11192	-0.00412146
11200.8	-0.00385376
11212.5	-0.0034941
11221.3	-0.00322169
11230.1	-0.00282045
11241.8	-0.0022536
11250.6	-0.00181499
11262.3	-0.00122236
11271.1	-0.000776392
11282.8	-0.00018358
11291.6	0.000258335
11300.3	0.000697495
11312.1	0.001278
11320.8	0.00170885
11332.5	0.00227756
11341.3	0.0027014
11350.1	0.00312777
11361.8	0.00369977
11370.6	0.00413096
11382.3	0.00470803
11391.1	0.00514205
11402.8	0.00572112
11411.6	0.00615336
11420.4	0.00658266
11432.1	0.00759445
11440.9	0.0086554
11452.6	0.00995822
11461.3	0.0108349
11470.1	0.0116237
11481.8	0.0125628
11490.6	0.0132053
11502.3	0.0139895
11511.1	0.014655
11522.8	0.0155872
11531.6	0.0161719
11540.4	0.0166893
11552.1	0.0172972
11560.9	0.0177392
11572.6	0.0188132
11581.4	0.0197218
11590.1	0.0213451
11601.8	0.02294
11610.6	0.0239066
11622.3	0.0252137
11631.1	0.026218
11642.8	0.027609
11651.6	0.0286918
11660.4	0.0297764
11672.1	0.0312419
11680.9	0.0323694
11692.6	0.0339461
11701.4	0.0352094
11710.2	0.0365492
11721.9	0.0384593
11730.6	0.0399934
11742.4	0.0421758
11751.1	0.0438964
11762.8	0.0462427
11771.6	0.0479961
11780.4	0.0497187
11792.1	0.0519662
11800.9	0.0536285
11812.7	0.0558327
11821.5	0.0574814
11830.3	0.0591211
11842	0.0612763
11850.8	0.0628551
11862.6	0.0648891
11871.4	0.0663493
11880.2	0.0677456
11891.9	0.0695019
11900.7	0.0707384
11912.5	0.0722798
11921.3	0.0733544
11930.1	0.0743577
11941.8	0.0755807
11950.7	0.0764095
11962.4	0.0773942
11971.2	0.0780427
11980.1	0.0786179
11992	0.079263
