0	0
230.748	0
461.497	0
692.245	0
922.993	0
1153.74	0
1384.49	0
1615.24	0
1845.99	0
2076.74	6.08515e-05
2307.48	0.00188633
2538.23	0.00666235
2768.98	0.01525
2999.73	0.0272479
3230.48	0.0410708
3461.23	0.0543642
3691.97	0.0648477
3922.72	0.0709265
4153.47	0.0719807
4384.22	0.0682985
4614.97	0.0608225
4845.71	0.050834
5076.46	0.0396735
5307.21	0.0285331
5537.96	0.0183311
5768.7	0.00965739
5999.45	0.00277794
6230.2	-0.00231791
6460.94	-0.00584195
6691.69	-0.00812109
6922.44	-0.00951665
7153.18	-0.0103616
7383.93	-0.0109222
7614.68	-0.0113841
7845.43	-0.0118571
8076.17	-0.0123926
8306.92	-0.0130032
8537.67	-0.0136822
8768.42	-0.0144161
8999.17	-0.0151916
9229.91	-0.0159957
9460.66	-0.0168137
9691.41	-0.017624
9922.16	-0.0183957
10152.9	-0.0190878
10383.7	-0.0196521
10614.4	-0.020039
10845.2	-0.0202035
11075.9	-0.0201126
11306.6	-0.0197501
11537.4	-0.0191192
11768.1	-0.0182424
11998.9	-0.0171577
12229.6	-0.0159146
12460.4	-0.014567
12691.1	-0.0131682
12921.9	-0.0117654
13152.6	-0.010397
13383.4	-0.00909082
13614.1	-0.00786455
13844.9	-0.00672726
14075.6	-0.00568168
14306.4	-0.00472657
14537.1	-0.00385887
14767.9	-0.00307516
14998.6	-0.00237252
15229.4	-0.00174861
15460.1	-0.00120142
15690.9	-0.00072875
15921.6	-0.000327688
16152.4	5.72375e-06
16383.1	0.000276551
16613.9	0.000490776
16844.6	0.000654907
17075.4	0.000775502
17306.1	0.000858725
17536.9	0.000910019
17767.6	0.000933966
17998.4	0.000934326
18229.1	0.000914228
18459.8	0.000876451
18690.6	0.000823711
18921.3	0.000758903
19152.1	0.000685226
19382.8	0.0006062
19613.6	0.000525556
19844.3	0.000447041
