0	0
18.7743	0
37.5486	0
56.323	0
75.0973	0
93.8716	0
112.646	0
131.42	0
150.195	0
168.969	0
187.743	0
206.518	0
225.292	0
244.066	0
262.841	0
281.615	0
300.389	0
319.163	0
337.938	0
356.712	0
375.486	0
394.261	0
413.035	0
431.809	0
450.584	0
469.358	0
488.132	0
506.907	0
525.681	0
544.455	0
563.23	0
582.004	0
600.778	0
619.553	0
638.327	0
657.101	0
675.876	0
694.65	0
713.424	0
732.199	0
750.973	0
769.747	0
788.522	0
807.296	0
826.07	0
844.844	0
863.619	0
882.393	0
901.167	0
919.942	0
938.716	0
957.49	0
976.265	0
995.039	0
1013.81	0
1032.59	0
1051.36	0
1070.14	0
1088.91	0
1107.68	0
1126.46	0
1145.23	0
1164.01	0
1182.78	0
1201.56	0
1220.33	0
1239.11	0
1257.88	0
1276.65	0
1295.43	0
1314.2	0
1332.98	0
1351.75	0
1370.53	0
1389.3	0
1408.07	0
1426.85	0
1445.62	0
1464.4	0
1483.17	0
1501.95	0
1520.72	0
1539.49	0
1558.27	0
1577.04	0
1595.82	0
1614.59	0
1633.37	0
1652.14	0
1670.91	0
1689.69	0
1708.46	0
1727.24	0
1746.01	0
1764.79	0
1783.56	0
1802.33	0
1821.11	0
1839.88	0
1858.66	0
1877.43	0
1896.21	0
1914.98	0
1933.76	0
1952.53	0
1971.3	0
1990.08	0
2008.85	0
2027.63	9.09495e-13
2046.4	1.81899e-12
2065.18	4.54747e-12
2083.95	9.09495e-12
2102.72	1.63709e-11
2121.5	3.00133e-11
2140.27	5.36602e-11
2159.05	9.45874e-11
2177.82	1.628e-10
2196.6	2.73758e-10
2215.37	4.55657e-10
2234.14	7.45786e-10
2252.92	1.20417e-09
2271.69	1.91721e-09
2290.47	3.01407e-09
2309.24	4.67935e-09
2328.02	7.17591e-09
2346.79	1.08739e-08
2365.56	1.62909e-08
2384.34	2.41362e-08
2403.11	3.53739e-08
2421.89	5.13028e-08
2440.66	7.365e-08
2459.44	1.0469e-07
2478.21	1.47387e-07
2496.98	2.05567e-07
2515.76	2.84117e-07
2534.53	3.89225e-07
2553.31	5.28651e-07
2572.08	7.12039e-07
2590.86	9.51264e-07
2609.63	1.26083e-06
2628.4	1.6583e-06
2647.18	2.16474e-06
2665.95	2.80528e-06
2684.73	3.60957e-06
2703.5	4.6124e-06
2722.28	5.85424e-06
2741.05	7.38186e-06
2759.82	9.24889e-06
2778.6	1.15165e-05
2797.37	1.42538e-05
2816.15	1.75388e-05
2834.92	2.14586e-05
2853.69	2.61102e-05
2872.47	3.16014e-05
2891.24	3.80508e-05
2910.02	4.55894e-05
2928.79	5.43611e-05
2947.57	6.4524e-05
2966.34	7.62521e-05
2985.11	8.9737e-05
3003.89	0.000105191
3022.66	0.000122849
3041.44	0.000142977
3060.21	0.000165872
3078.98	0.000191874
3097.76	0.000221374
3116.53	0.000254824
3135.31	0.000292754
3154.08	0.000335787
3172.85	0.000384665
3191.63	0.000440267
3210.4	0.000503647
3229.17	0.000576066
3247.95	0.000659033
3266.72	0.000754354
3285.5	0.000864186
3304.27	0.000991097
3323.04	0.00113813
3341.82	0.0013089
3360.59	0.00150763
3379.36	0.00173928
3398.14	0.00200963
3416.91	0.00232535
3435.69	0.00269413
3454.46	0.00312476
3473.23	0.00362723
3492.01	0.00421281
3510.78	0.00489417
3529.55	0.00568538
3548.33	0.00660206
3567.1	0.00766133
3585.88	0.00888187
3604.65	0.0102839
3623.42	0.0118891
3642.2	0.0137207
3660.97	0.0158029
3679.74	0.0181614
3698.52	0.0208226
3717.29	0.0238136
3736.07	0.0271618
3754.84	0.0308946
3773.61	0.0350392
3792.39	0.0396217
3811.16	0.0446671
3829.93	0.0501983
3848.71	0.056236
3867.48	0.0627979
3886.26	0.0698981
3905.03	0.0775466
3923.8	0.0857486
3942.58	0.0945042
3961.35	0.103808
3980.13	0.113647
3998.9	0.124003
4017.67	0.13485
4036.45	0.146155
4055.22	0.157878
4074	0.169969
4092.77	0.182374
4111.55	0.19503
4130.32	0.207865
4149.09	0.220803
4167.87	0.23376
4186.64	0.246649
4205.42	0.259374
4224.19	0.271838
4242.97	0.283941
4261.74	0.295579
4280.51	0.306649
4299.29	0.317047
4318.06	0.32667
4336.84	0.335421
4355.61	0.343202
4374.39	0.349923
4393.16	0.3555
4411.93	0.359855
4430.71	0.36292
4449.48	0.364635
4468.26	0.364952
4487.03	0.36383
4505.81	0.361244
4524.58	0.357177
4543.35	0.351628
4562.13	0.344604
4580.9	0.336128
4599.68	0.326233
4618.45	0.314964
4637.23	0.302379
4656	0.288544
4674.77	0.273538
4693.55	0.257447
4712.32	0.240367
4731.1	0.222399
4749.87	0.203653
4768.65	0.184242
4787.42	0.164284
4806.19	0.143898
4824.97	0.123206
4843.74	0.10233
4862.52	0.0813902
4881.29	0.0605058
4900.07	0.0397922
4918.84	0.0193604
4937.61	-0.000683218
4956.39	-0.0202386
4975.16	-0.0392123
4993.94	-0.0575183
5012.71	-0.0750784
5031.48	-0.0918229
5050.26	-0.107691
5069.03	-0.12263
5087.81	-0.136597
5106.58	-0.149559
5125.36	-0.161489
5144.13	-0.172373
5162.9	-0.182202
5181.68	-0.190976
5200.45	-0.198704
5219.23	-0.205402
5238	-0.211092
5256.78	-0.215802
5275.55	-0.219566
5294.32	-0.222424
5313.1	-0.224419
5331.87	-0.225598
5350.65	-0.22601
5369.42	-0.225709
5388.2	-0.224748
5406.97	-0.223182
5425.74	-0.221067
5444.52	-0.218459
5463.29	-0.215412
5482.07	-0.211981
5500.84	-0.208218
5519.62	-0.204173
5538.39	-0.199896
5557.17	-0.195431
5575.94	-0.190823
5594.71	-0.18611
5613.49	-0.181331
5632.26	-0.17652
5651.04	-0.171706
5669.81	-0.166917
5688.59	-0.162178
5707.36	-0.157509
5726.13	-0.152927
5744.91	-0.148448
5763.68	-0.144083
5782.46	-0.139841
5801.23	-0.135729
5820.01	-0.13175
5838.78	-0.127907
5857.55	-0.124199
5876.33	-0.120624
5895.1	-0.11718
5913.88	-0.11386
5932.65	-0.11066
5951.43	-0.107573
5970.2	-0.104591
5988.97	-0.101706
6007.75	-0.0989105
6026.52	-0.0961956
6045.3	-0.0935531
6064.07	-0.0909746
6082.85	-0.0884524
6101.62	-0.0859788
6120.39	-0.0835468
6139.17	-0.0811499
6157.94	-0.0787823
6176.72	-0.0764388
6195.49	-0.074115
6214.27	-0.0718072
6233.04	-0.0695125
6251.81	-0.0672289
6270.59	-0.0649548
6289.36	-0.0626896
6308.14	-0.0604333
6326.91	-0.0581865
6345.69	-0.0559505
6364.46	-0.053727
6383.23	-0.0515182
6402.01	-0.0493269
6420.78	-0.0471558
6439.56	-0.0450084
6458.33	-0.0428879
6477.11	-0.040798
6495.88	-0.0387421
6514.66	-0.036724
6533.43	-0.0347469
6552.2	-0.0328143
6570.98	-0.0309293
6589.75	-0.0290946
6608.53	-0.0273129
6627.3	-0.0255862
6646.08	-0.0239164
6664.85	-0.0223048
6683.62	-0.0207522
6702.4	-0.019259
6721.17	-0.0178253
6739.95	-0.0164503
6758.72	-0.0151332
6777.5	-0.0138722
6796.27	-0.0126654
6815.04	-0.0115103
6833.82	-0.010404
6852.59	-0.00934322
6871.37	-0.00832427
6890.14	-0.00734315
6908.92	-0.00639556
6927.69	-0.00547695
6946.46	-0.00458259
6965.24	-0.00370757
6984.01	-0.0028469
7002.79	-0.00199552
7021.56	-0.00114837
7040.34	-0.000300445
7059.11	0.000553159
7077.88	0.00141721
7096.66	0.00229628
7115.43	0.0031947
7134.21	0.00411652
7152.98	0.00506548
7171.76	0.00604495
7190.53	0.00705795
7209.3	0.00810704
7228.08	0.00919436
7246.85	0.0103216
7265.63	0.01149
7284.4	0.0127002
7303.18	0.0139525
7321.95	0.0152467
7340.72	0.0165819
7359.5	0.0179569
7378.27	0.0193701
7397.05	0.0208192
7415.82	0.0223017
7434.59	0.0238144
7453.37	0.025354
7472.14	0.0269165
7490.92	0.028498
7509.69	0.0300939
7528.47	0.0316995
7547.24	0.0333098
7566.01	0.0349196
7584.79	0.0365237
7603.56	0.0381164
7622.34	0.0396923
7641.11	0.0412458
7659.89	0.0427712
7678.66	0.044263
7697.43	0.0457155
7716.21	0.0471233
7734.98	0.0484812
7753.76	0.0497838
7772.53	0.0510262
7791.31	0.0522037
7810.08	0.0533116
7828.85	0.0543457
7847.63	0.0553019
7866.4	0.0561764
7885.18	0.056966
7903.95	0.0576673
7922.73	0.0582777
7941.5	0.0587947
7960.27	0.0592161
7979.05	0.0595402
7997.82	0.0597656
8016.6	0.0598911
8035.37	0.0599161
8054.14	0.05984
8072.92	0.0596628
8091.69	0.0593847
8110.47	0.0590062
8129.24	0.0585283
8148.02	0.0579519
8166.79	0.0572785
8185.56	0.0565097
8204.34	0.0556475
8223.11	0.054694
8241.89	0.0536516
8260.66	0.0525229
8279.44	0.0513106
8298.21	0.0500177
8316.98	0.0486473
8335.76	0.0472027
8354.53	0.0456874
8373.31	0.0441048
8392.08	0.0424587
8410.86	0.0407527
8429.63	0.0389908
8448.4	0.0371769
8467.18	0.0353149
8485.95	0.033409
8504.73	0.0314631
8523.5	0.0294815
8542.28	0.0274682
8561.05	0.0254274
8579.82	0.0233632
8598.6	0.0212799
8617.37	0.0191814
8636.15	0.0170719
8654.92	0.0149554
8673.7	0.012836
8692.47	0.0107175
8711.24	0.0086039
8730.02	0.00649894
8748.79	0.00440633
8767.57	0.00232971
8786.34	0.000272591
8805.12	-0.00176161
8823.89	-0.0037696
8842.66	-0.00574821
8861.44	-0.00769441
8880.21	-0.00960529
8898.99	-0.0114781
8917.76	-0.0133103
8936.54	-0.0150994
8955.31	-0.0168431
8974.08	-0.0185393
8992.86	-0.0201861
9011.63	-0.0217818
9030.41	-0.0233247
9049.18	-0.0248135
9067.96	-0.026247
9086.73	-0.0276241
9105.5	-0.0289441
9124.28	-0.0302061
9143.05	-0.0314099
9161.83	-0.0325551
9180.6	-0.0336416
9199.38	-0.0346694
9218.15	-0.0356387
9236.92	-0.0365501
9255.7	-0.0374039
9274.47	-0.038201
9293.25	-0.0389421
9312.02	-0.0396283
9330.8	-0.0402606
9349.57	-0.0408403
9368.34	-0.0413687
9387.12	-0.0418472
9405.89	-0.0422773
9424.67	-0.0426606
9443.44	-0.0429988
9462.22	-0.0432936
9480.99	-0.0435467
9499.76	-0.0437599
9518.54	-0.0439351
9537.31	-0.044074
9556.09	-0.0441784
9574.86	-0.0442503
9593.64	-0.0442913
9612.41	-0.0443033
9631.18	-0.044288
9649.96	-0.044247
9668.73	-0.0441821
9687.51	-0.0440948
9706.28	-0.0439866
9725.06	-0.043859
9743.83	-0.0437133
9762.6	-0.0435509
9781.38	-0.043373
9800.15	-0.0431807
9818.93	-0.0429751
9837.7	-0.0427571
9856.48	-0.0425275
9875.25	-0.0422873
9894.02	-0.042037
9912.8	-0.0417773
9931.57	-0.0415088
9950.35	-0.0412318
9969.12	-0.0409467
9987.9	-0.0406538
10006.7	-0.0403534
10025.4	-0.0400455
10044.2	-0.0397303
10063	-0.0394077
10081.8	-0.0390777
10100.5	-0.0387403
10119.3	-0.0383953
10138.1	-0.0380425
10156.9	-0.0376817
10175.6	-0.0373126
10194.4	-0.0369351
10213.2	-0.0365487
10232	-0.0361531
10250.7	-0.0357481
10269.5	-0.0353333
10288.3	-0.0349084
10307.1	-0.0344729
10325.8	-0.0340266
10344.6	-0.0335692
10363.4	-0.0331002
10382.2	-0.0326195
10400.9	-0.0321266
10419.7	-0.0316214
10438.5	-0.0311035
10457.3	-0.0305728
10476	-0.030029
10494.8	-0.0294719
10513.6	-0.0289014
10532.4	-0.0283173
10551.1	-0.0277196
10569.9	-0.0271081
10588.7	-0.0264829
10607.4	-0.0258439
10626.2	-0.0251911
10645	-0.0245247
10663.8	-0.0238447
10682.5	-0.0231512
10701.3	-0.0224444
10720.1	-0.0217245
10738.9	-0.0209916
10757.6	-0.0202461
10776.4	-0.0194883
10795.2	-0.0187184
10814	-0.0179368
10832.7	-0.0171438
10851.5	-0.01634
10870.3	-0.0155256
10889.1	-0.0147013
10907.8	-0.0138674
10926.6	-0.0130245
10945.4	-0.0121732
10964.2	-0.011314
10982.9	-0.0104476
11001.7	-0.00957445
11020.5	-0.00869533
11039.3	-0.0078109
11058	-0.00692182
11076.8	-0.00602883
11095.6	-0.00513265
11114.4	-0.00423402
11133.1	-0.00333373
11151.9	-0.00243255
11170.7	-0.00153127
11189.5	-0.000630706
11208.2	0.000268326
11227	0.001165
11245.8	0.00205848
11264.5	0.00294793
11283.3	0.00383251
11302.1	0.00471137
11320.9	0.00558366
11339.6	0.00644856
11358.4	0.00730521
11377.2	0.00815279
11396	0.00899049
11414.7	0.00981748
11433.5	0.010633
11452.3	0.0114362
11471.1	0.0122263
11489.8	0.0130026
11508.6	0.0137644
11527.4	0.0145109
11546.2	0.0152415
11564.9	0.0159555
11583.7	0.0166523
11602.5	0.0173311
11621.3	0.0179916
11640	0.018633
11658.8	0.0192549
11677.6	0.0198568
11696.4	0.0204382
11715.1	0.0209986
11733.9	0.0215377
11752.7	0.0220551
11771.5	0.0225504
11790.2	0.0230233
11809	0.0234736
11827.8	0.0239009
11846.6	0.0243051
11865.3	0.0246859
11884.1	0.0250432
11902.9	0.0253768
11921.6	0.0256866
11940.4	0.0259725
11959.2	0.0262344
11978	0.0264722
11996.7	0.026686
12015.5	0.0268756
12034.3	0.0270412
12053.1	0.0271826
12071.8	0.0273
12090.6	0.0273933
12109.4	0.0274626
12128.2	0.027508
12146.9	0.0275296
12165.7	0.0275274
12184.5	0.0275015
12203.3	0.027452
12222	0.0273791
12240.8	0.0272827
12259.6	0.0271632
12278.4	0.0270204
12297.1	0.0268547
12315.9	0.0266661
12334.7	0.0264548
12353.5	0.026221
12372.2	0.0259646
12391	0.0256861
12409.8	0.0253855
12428.6	0.0250629
12447.3	0.0247187
12466.1	0.024353
12484.9	0.023966
12503.7	0.0235579
12522.4	0.0231291
12541.2	0.0226798
12560	0.0222102
12578.7	0.0217207
12597.5	0.0212116
12616.3	0.0206832
12635.1	0.020136
12653.8	0.0195703
12672.6	0.0189866
12691.4	0.0183852
12710.2	0.0177668
12728.9	0.0171317
12747.7	0.0164806
12766.5	0.0158139
12785.3	0.0151323
12804	0.0144365
12822.8	0.0137271
12841.6	0.0130047
12860.4	0.0122701
12879.1	0.011524
12897.9	0.0107673
12916.7	0.0100006
12935.5	0.00922496
12954.2	0.00844111
12973	0.00764994
12991.8	0.00685238
13010.6	0.00604934
13029.3	0.00524177
13048.1	0.00443062
13066.9	0.00361688
13085.7	0.00280154
13104.4	0.00198558
13123.2	0.00117001
13142	0.000355849
13160.8	-0.000455903
13179.5	-0.00126424
13198.3	-0.00206814
13217.1	-0.00286662
13235.8	-0.00365869
13254.6	-0.00444337
13273.4	-0.0052197
13292.2	-0.00598673
13310.9	-0.00674353
13329.7	-0.00748922
13348.5	-0.00822291
13367.3	-0.00894376
13386	-0.00965095
13404.8	-0.0103437
13423.6	-0.0110213
13442.4	-0.0116829
13461.1	-0.012328
13479.9	-0.0129558
13498.7	-0.0135658
13517.5	-0.0141575
13536.2	-0.0147302
13555	-0.0152837
13573.8	-0.0158173
13592.6	-0.0163308
13611.3	-0.0168239
13630.1	-0.0172961
13648.9	-0.0177474
13667.7	-0.0181774
13686.4	-0.0185861
13705.2	-0.0189733
13724	-0.019339
13742.8	-0.0196832
13761.5	-0.0200058
13780.3	-0.0203069
13799.1	-0.0205866
13817.9	-0.0208451
13836.6	-0.0210825
13855.4	-0.021299
13874.2	-0.0214948
13893	-0.0216703
13911.7	-0.0218257
13930.5	-0.0219613
13949.3	-0.0220774
13968	-0.0221745
13986.8	-0.0222529
14005.6	-0.0223131
14024.4	-0.0223554
14043.1	-0.0223803
14061.9	-0.0223882
14080.7	-0.0223796
14099.5	-0.0223549
14118.2	-0.0223148
14137	-0.0222595
14155.8	-0.0221897
14174.6	-0.0221058
14193.3	-0.0220083
14212.1	-0.0218977
14230.9	-0.0217745
14249.7	-0.0216392
14268.4	-0.0214922
14287.2	-0.0213341
14306	-0.0211654
14324.8	-0.0209864
14343.5	-0.0207977
14362.3	-0.0205998
14381.1	-0.020393
14399.9	-0.0201779
14418.6	-0.0199548
14437.4	-0.0197242
14456.2	-0.0194865
14475	-0.0192421
14493.7	-0.0189914
14512.5	-0.0187349
14531.3	-0.0184729
14550.1	-0.0182057
14568.8	-0.0179337
14587.6	-0.0176574
14606.4	-0.0173771
14625.1	-0.017093
14643.9	-0.0168056
14662.7	-0.0165152
14681.5	-0.0162222
14700.2	-0.0159267
14719	-0.0156293
14737.8	-0.0153301
14756.6	-0.0150295
14775.3	-0.0147279
14794.1	-0.0144254
14812.9	-0.0141225
14831.7	-0.0138194
14850.4	-0.0135165
14869.2	-0.0132139
14888	-0.0129121
14906.8	-0.0126112
14925.5	-0.0123117
14944.3	-0.0120138
14963.1	-0.0117177
14981.9	-0.0114238
15000.6	-0.0111323
15019.4	-0.0108436
15038.2	-0.0105579
15057	-0.0102755
15075.7	-0.00999665
15094.5	-0.00972165
15113.3	-0.00945077
15132.1	-0.00918427
15150.8	-0.00892243
15169.6	-0.0086655
15188.4	-0.00841374
15207.2	-0.00816741
15225.9	-0.00792676
15244.7	-0.00769204
15263.5	-0.00746347
15282.3	-0.0072413
15301	-0.00702576
15319.8	-0.00681707
15338.6	-0.00661543
15357.3	-0.00642107
15376.1	-0.00623418
15394.9	-0.00605496
15413.7	-0.00588358
15432.4	-0.00572024
15451.2	-0.00556509
15470	-0.0054183
15488.8	-0.00528002
15507.5	-0.00515039
15526.3	-0.00502955
15545.1	-0.00491761
15563.9	-0.0048147
15582.6	-0.00472092
15601.4	-0.00463635
15620.2	-0.0045611
15639	-0.00449521
15657.7	-0.00443877
15676.5	-0.00439183
15695.3	-0.00435441
15714.1	-0.00432656
15732.8	-0.0043083
15751.6	-0.00429963
15770.4	-0.00430054
15789.2	-0.00431103
15807.9	-0.00433106
15826.7	-0.0043606
15845.5	-0.00439959
15864.3	-0.00444798
15883	-0.00450568
15901.8	-0.0045726
15920.6	-0.00464865
15939.4	-0.00473371
15958.1	-0.00482763
15976.9	-0.0049303
15995.7	-0.00504153
16014.4	-0.00516117
16033.2	-0.00528903
16052	-0.00542489
16070.8	-0.00556856
16089.5	-0.00571978
16108.3	-0.00587832
16127.1	-0.00604391
16145.9	-0.00621626
16164.6	-0.00639509
16183.4	-0.00658008
16202.2	-0.00677091
16221	-0.00696721
16239.7	-0.00716865
16258.5	-0.00737483
16277.3	-0.00758537
16296.1	-0.00779985
16314.8	-0.00801785
16333.6	-0.00823894
16352.4	-0.00846265
16371.2	-0.00868852
16389.9	-0.00891608
16408.7	-0.00914482
16427.5	-0.00937423
16446.3	-0.00960381
16465	-0.00983302
16483.8	-0.0100613
16502.6	-0.0102882
16521.4	-0.0105131
16540.1	-0.0107354
16558.9	-0.0109545
16577.7	-0.01117
16596.5	-0.0113813
16615.2	-0.0115877
16634	-0.0117887
16652.8	-0.0119838
16671.5	-0.0121724
16690.3	-0.012354
16709.1	-0.0125279
16727.9	-0.0126937
16746.6	-0.0128509
16765.4	-0.0129989
16784.2	-0.0131373
16803	-0.0132655
16821.7	-0.0133832
16840.5	-0.0134899
16859.3	-0.0135851
16878.1	-0.0136686
16896.8	-0.0137399
16915.6	-0.0137988
16934.4	-0.0138448
16953.2	-0.0138778
16971.9	-0.0138976
16990.7	-0.0139038
17009.5	-0.0138963
17028.3	-0.0138751
17047	-0.01384
17065.8	-0.013791
17084.6	-0.013728
17103.4	-0.013651
17122.1	-0.0135602
17140.9	-0.0134556
17159.7	-0.0133374
17178.5	-0.0132057
17197.2	-0.0130608
17216	-0.0129029
17234.8	-0.0127324
17253.6	-0.0125496
17272.3	-0.0123548
17291.1	-0.0121485
17309.9	-0.0119312
17328.7	-0.0117033
17347.4	-0.0114653
17366.2	-0.0112179
17385	-0.0109616
17403.7	-0.010697
17422.5	-0.0104248
17441.3	-0.0101456
17460.1	-0.00986023
17478.8	-0.00956932
17497.6	-0.00927365
17516.4	-0.00897396
17535.2	-0.00867103
17553.9	-0.00836566
17572.7	-0.00805864
17591.5	-0.00775079
17610.3	-0.00744291
17629	-0.00713582
17647.8	-0.00683034
17666.6	-0.00652729
17685.4	-0.00622747
17704.1	-0.00593169
17722.9	-0.00564073
17741.7	-0.00535538
17760.5	-0.0050764
17779.2	-0.00480454
17798	-0.00454051
17816.8	-0.00428502
17835.6	-0.00403875
17854.3	-0.00380235
17873.1	-0.00357643
17891.9	-0.00336157
17910.7	-0.00315834
17929.4	-0.00296725
17948.2	-0.00278878
17967	-0.00262337
17985.8	-0.00247142
18004.5	-0.00233328
18023.3	-0.00220926
18042.1	-0.00209965
18060.8	-0.00200466
18079.6	-0.00192446
18098.4	-0.00185919
18117.2	-0.00180893
18135.9	-0.00177371
18154.7	-0.00175352
18173.5	-0.0017483
18192.3	-0.00175794
18211	-0.00178227
18229.8	-0.0018211
18248.6	-0.00187417
18267.4	-0.00194118
18286.1	-0.00202179
18304.9	-0.00211562
18323.7	-0.00222222
18342.5	-0.00234113
18361.2	-0.00247184
18380	-0.00261379
18398.8	-0.00276639
18417.6	-0.00292903
18436.3	-0.00310104
18455.1	-0.00328175
18473.9	-0.00347042
18492.7	-0.00366632
18511.4	-0.00386869
18530.2	-0.00407673
18549	-0.00428963
18567.8	-0.00450657
18586.5	-0.0047267
18605.3	-0.00494918
18624.1	-0.00517315
18642.9	-0.00539773
18661.6	-0.00562205
18680.4	-0.00584525
18699.2	-0.00606645
18717.9	-0.00628478
18736.7	-0.00649939
18755.5	-0.00670942
18774.3	-0.00691404
18793	-0.00711242
18811.8	-0.00730375
18830.6	-0.00748726
18849.4	-0.00766216
18868.1	-0.00782773
18886.9	-0.00798324
18905.7	-0.008128
18924.5	-0.00826137
18943.2	-0.00838271
18962	-0.00849144
18980.8	-0.00858699
18999.6	-0.00866884
19018.3	-0.00873652
19037.1	-0.00878958
19055.9	-0.00882761
19074.7	-0.00885027
19093.4	-0.00885721
19112.2	-0.00884818
19131	-0.00882292
19149.8	-0.00878127
19168.5	-0.00872305
19187.3	-0.00864819
19206.1	-0.0085566
19224.9	-0.00844828
19243.6	-0.00832325
19262.4	-0.00818159
19281.2	-0.0080234
19300	-0.00784884
19318.7	-0.0076581
19337.5	-0.0074514
19356.3	-0.00722903
19375.1	-0.00699129
19393.8	-0.00673852
19412.6	-0.0064711
19431.4	-0.00618944
19450.1	-0.00589398
19468.9	-0.00558519
19487.7	-0.00526358
19506.5	-0.00492966
19525.2	-0.004584
19544	-0.00422715
19562.8	-0.00385971
19581.6	-0.00348229
19600.3	-0.00309553
19619.1	-0.00270005
19637.9	-0.00229653
19656.7	-0.00188561
19675.4	-0.00146798
19694.2	-0.00104431
19713	-0.000615296
19731.8	-0.000181614
19750.5	0.000256045
19769.3	0.000696994
19788.1	0.00114055
19806.9	0.00158604
19825.6	0.00203278
19844.4	0.00248012
19863.2	0.00292741
19882	0.00337399
19900.7	0.00381925
19919.5	0.00426256
19938.3	0.00470334
19957.1	0.005141
19975.8	0.00557497
19994.6	0.00600473
