0	0
11.0308	0
22.0616	0
33.0924	0
40.4463	0
51.4771	0
62.5079	0
73.5387	0
80.8926	0
91.9234	0
102.954	0
110.308	0
121.339	0
132.37	0
143.401	0
150.754	0
161.785	0
172.816	0
180.17	0
191.201	0
202.231	0
213.262	0
220.616	0
231.647	0
242.678	0
250.032	0
261.062	0
272.093	0
283.124	0
290.478	0
301.509	0
312.54	0
323.57	0
330.924	0
341.955	0
352.986	0
360.34	0
371.371	0
382.401	0
393.432	0
400.786	0
411.817	0
422.848	0
430.202	0
441.232	0
452.263	0
463.294	0
470.648	0
481.679	0
492.709	0
500.063	0
511.094	0
522.125	0
533.156	0
540.51	0
551.54	0
562.571	0
573.602	0
580.956	0
591.987	0
603.018	0
610.371	0
621.402	0
632.433	0
643.464	0
650.818	0
661.849	0
672.879	0
680.233	0
691.264	0
702.295	0
713.326	0
720.68	0
731.71	0
742.741	0
750.095	0
761.126	0
772.157	0
783.187	3.63798e-12
790.541	8.18545e-12
801.572	2.36469e-11
812.603	6.00267e-11
823.634	1.48248e-10
830.988	2.68301e-10
842.018	6.33918e-10
853.049	1.45337e-09
860.403	2.48474e-09
871.434	5.42605e-09
882.465	1.15297e-08
893.496	2.38615e-08
900.849	3.82024e-08
911.88	7.57882e-08
922.911	1.46722e-07
930.265	2.24913e-07
941.296	4.18691e-07
952.327	7.6198e-07
963.357	1.35655e-06
970.711	1.96902e-06
981.742	3.38371e-06
992.773	5.69717e-06
1000.13	7.97429e-06
1011.16	1.29927e-05
1022.19	2.0771e-05
1033.22	3.25981e-05
1040.57	4.35846e-05
1051.6	6.64021e-05
1062.63	9.94449e-05
1073.67	0.000146469
1081.02	0.000187904
1092.05	0.000269462
1103.08	0.000380517
1110.43	0.000474984
1121.47	0.000654444
1132.5	0.000889075
1143.53	0.00119149
1150.88	0.00143775
1161.91	0.00188571
1172.94	0.00244322
1180.3	0.00288487
1191.33	0.00366706
1202.36	0.00461193
1213.39	0.0057425
1220.74	0.00661165
1231.77	0.00810861
1242.8	0.00986411
1250.16	0.0111945
1261.19	0.0134584
1272.22	0.0160833
1283.25	0.0191207
1290.6	0.0214049
1301.64	0.0252734
1312.67	0.0297486
1320.02	0.0331182
1331.05	0.0388377
1342.08	0.0454757
1353.11	0.0531869
1360.47	0.0590108
1371.5	0.0689166
1382.53	0.0804185
1393.56	0.0937504
1400.91	0.103778
1411.94	0.120722
1422.97	0.140185
1430.33	0.154691
1441.36	0.178939
1452.39	0.206391
1463.42	0.237268
1470.77	0.259849
1481.81	0.296826
1492.84	0.337617
1500.19	0.366954
1511.22	0.414159
1522.25	0.465127
1533.28	0.519696
1540.64	0.557957
1551.67	0.617936
1562.7	0.680666
1570.05	0.723785
1581.08	0.790018
1592.11	0.857583
1603.14	0.925829
1610.5	0.971358
1621.53	1.03916
1632.56	1.1057
1643.59	1.1702
1650.94	1.21168
1661.98	1.27109
1673.01	1.32646
1680.36	1.36078
1691.39	1.40787
1702.42	1.44917
1713.45	1.48412
1720.81	1.50364
1731.84	1.52694
1742.87	1.54275
1750.22	1.54898
1761.25	1.55169
1772.28	1.54631
1783.31	1.53274
1790.67	1.51915
1801.7	1.49196
1812.73	1.45672
1820.08	1.42885
1831.11	1.38062
1842.15	1.32496
1853.18	1.26222
1860.53	1.21664
1871.56	1.143
1882.59	1.06346
1893.62	0.97855
1900.98	0.919253
1912.01	0.826716
1923.04	0.730446
1930.39	0.664525
1941.42	0.563544
1952.45	0.460679
1963.48	0.356657
1970.84	0.287027
1981.87	0.1827
1992.9	0.0791597
2000.25	0.010923
2011.28	-0.0897327
2022.31	-0.187755
2033.35	-0.282507
2040.7	-0.343564
2051.73	-0.431571
2062.76	-0.514836
2070.12	-0.567486
2081.15	-0.641875
2092.18	-0.710458
2103.21	-0.772956
2110.56	-0.811136
2121.59	-0.863063
2132.62	-0.9085
2143.65	-0.94742
2151.01	-0.969762
2162.04	-0.997931
2173.07	-1.01981
2180.42	-1.031
2191.45	-1.04285
2202.48	-1.04902
2213.52	-1.0498
2220.87	-1.04751
2231.9	-1.04008
2242.93	-1.02822
2250.28	-1.01804
2261.32	-0.999634
2272.35	-0.977829
2283.38	-0.953015
2290.73	-0.934992
2301.76	-0.906015
2312.79	-0.875035
2320.15	-0.853444
2331.18	-0.819897
2342.21	-0.785244
2353.24	-0.749784
2360.59	-0.725834
2371.62	-0.689635
2382.65	-0.653322
2390.01	-0.629158
2401.04	-0.59313
2412.07	-0.557526
2423.1	-0.522509
2430.45	-0.499563
2441.49	-0.465841
2452.52	-0.433056
2463.55	-0.401311
2470.9	-0.380768
2481.93	-0.350942
2492.96	-0.322358
2500.32	-0.304019
2511.35	-0.277621
2522.38	-0.252585
2533.41	-0.228939
2540.76	-0.213957
2551.79	-0.192665
2562.82	-0.172794
2570.18	-0.160336
2581.21	-0.142828
2592.24	-0.126722
2603.27	-0.112
2610.62	-0.102942
2621.66	-0.0904707
2632.69	-0.0793079
2640.04	-0.0725752
2651.07	-0.0635099
2662.1	-0.0556467
2673.13	-0.0489389
2680.49	-0.0450846
2691.52	-0.0401912
2702.55	-0.0363156
2713.58	-0.0334025
2720.93	-0.0319671
2731.96	-0.0305309
2742.99	-0.0299031
2750.35	-0.0299044
2761.38	-0.0304923
2772.41	-0.0317307
2783.44	-0.033561
2790.79	-0.0350813
2801.82	-0.0377696
2812.86	-0.0408974
2820.21	-0.0431996
2831.24	-0.0469391
2842.27	-0.0509759
2853.3	-0.0552603
2860.66	-0.0582305
2871.69	-0.0628228
2882.72	-0.0675409
2890.07	-0.0707358
2901.1	-0.0755737
2912.13	-0.0804339
2923.16	-0.0852824
2930.52	-0.0884928
2941.55	-0.0932542
2952.58	-0.0979274
2963.61	-0.102489
2970.96	-0.105457
2981.99	-0.109786
2993.02	-0.113953
3000.38	-0.116634
3011.41	-0.120501
3022.44	-0.124173
3033.47	-0.127641
3040.82	-0.129838
3051.85	-0.132954
3062.89	-0.135855
3070.24	-0.137667
3081.27	-0.140203
3092.3	-0.142519
3103.33	-0.144617
3110.69	-0.145895
3121.72	-0.147633
3132.75	-0.149157
3140.1	-0.150056
3151.13	-0.151232
3162.16	-0.152202
3173.19	-0.15297
3180.55	-0.153372
3191.58	-0.15381
3202.61	-0.154055
3213.64	-0.154108
3220.99	-0.154038
3232.02	-0.153778
3243.05	-0.153332
3250.41	-0.152933
3261.44	-0.152183
3272.47	-0.151253
3283.5	-0.150145
3290.85	-0.149308
3301.88	-0.147907
3312.91	-0.146334
3320.27	-0.14519
3331.3	-0.143333
3342.33	-0.141311
3353.36	-0.139127
3360.71	-0.137582
3371.74	-0.135137
3382.77	-0.132541
3390.13	-0.13073
3401.16	-0.127897
3412.19	-0.124929
3423.22	-0.121836
3430.57	-0.119707
3441.6	-0.11642
3452.63	-0.11303
3463.66	-0.109546
3471.02	-0.107177
3482.05	-0.103559
3493.08	-0.0998755
3500.43	-0.097389
3511.46	-0.0936215
3522.49	-0.0898191
3533.52	-0.0859938
3540.88	-0.0834367
3551.91	-0.0795998
3562.94	-0.0757718
3570.29	-0.0732307
3581.32	-0.0694438
3592.35	-0.0656968
3603.38	-0.0620008
3610.73	-0.0595704
3621.77	-0.0559827
3632.8	-0.0524733
3640.15	-0.0501818
3651.18	-0.0468233
3662.21	-0.0435665
3673.24	-0.0404191
3680.59	-0.0383851
3691.62	-0.0354352
3702.65	-0.0326118
3710.01	-0.0308023
3721.04	-0.0282005
3732.07	-0.025737
3743.1	-0.023415
3750.45	-0.0219468
3761.48	-0.0198654
3772.51	-0.0179301
3783.54	-0.0161413
3790.9	-0.01503
3801.93	-0.0134844
3812.96	-0.012083
3820.31	-0.0112277
3831.34	-0.0100615
3842.37	-0.00903224
3853.4	-0.00813626
3860.76	-0.00761082
3871.79	-0.00692687
3882.82	-0.00636323
3890.17	-0.00605148
3901.2	-0.00567529
3912.23	-0.00540299
3923.26	-0.00522765
3930.62	-0.00516105
3941.65	-0.00513101
3952.68	-0.00517789
3960.03	-0.00524796
3971.06	-0.00540524
3982.09	-0.00561782
3993.12	-0.00587734
4000.47	-0.0060723
4011.51	-0.00639145
4022.54	-0.00673523
4033.57	-0.00709538
4040.92	-0.00734055
4051.95	-0.00770999
4062.98	-0.00807451
4070.33	-0.00831102
4081.37	-0.00865059
4092.4	-0.00896559
4103.43	-0.00924923
4110.78	-0.00941769
4121.81	-0.00963484
4132.84	-0.00980415
4140.19	-0.00988771
4151.23	-0.00996527
4162.26	-0.00998116
4173.29	-0.00993089
4180.64	-0.00985858
4191.67	-0.00968908
4202.7	-0.00944323
4210.06	-0.00923531
4221.09	-0.00885526
4232.12	-0.00839102
4243.15	-0.00784021
4250.5	-0.00742385
4261.53	-0.00672414
4272.56	-0.00593271
4283.59	-0.00504804
4290.95	-0.0044058
4301.98	-0.00336288
4313.01	-0.00222357
4320.36	-0.00141005
4331.39	-0.000108249
4342.43	0.00129192
4353.46	0.0027909
4360.81	0.00384528
4371.84	0.00550955
4382.87	0.00727307
4390.23	0.00850381
4401.26	0.0104322
4412.29	0.012459
4423.32	0.0145832
4430.67	0.0160531
4441.7	0.0183374
4452.73	0.0207157
4460.09	0.0223526
4471.12	0.0248832
4482.15	0.0275019
4493.18	0.0302055
4500.53	0.0320535
4511.56	0.034891
4522.59	0.0378032
4533.62	0.0407854
4540.98	0.0428097
4552.01	0.0458964
4563.04	0.0490375
4570.39	0.0511586
4581.42	0.0543754
4592.46	0.0576275
4603.49	0.0609067
4610.84	0.0631037
4621.87	0.0664088
4632.9	0.0697169
4640.25	0.0719192
4651.29	0.0752104
4662.32	0.0784778
4673.35	0.0817107
4680.7	0.0838415
4691.73	0.0869928
4702.76	0.0900804
4710.12	0.092098
4721.15	0.0950549
4732.18	0.0979186
4743.21	0.100678
4750.56	0.102455
4761.59	0.105018
4772.62	0.10745
4783.65	0.10974
4791.01	0.111184
4802.04	0.113219
4813.07	0.115088
4820.42	0.11624
4831.45	0.117819
4842.48	0.119214
4853.52	0.120419
4860.87	0.121115
4871.9	0.121994
4882.93	0.122671
4890.28	0.12301
4901.32	0.123346
4912.35	0.123475
4923.38	0.123396
4930.73	0.123228
4941.76	0.122803
4952.79	0.122173
4960.15	0.12164
4971.18	0.120673
4982.21	0.119508
4993.24	0.118151
5000.59	0.117141
5011.62	0.115474
5022.65	0.113629
5030.01	0.112303
5041.04	0.110177
5052.07	0.107893
5063.1	0.105459
5070.45	0.103758
5081.48	0.101095
5092.51	0.0983059
5103.55	0.0954019
5110.9	0.0934069
5121.93	0.0903334
5132.96	0.0871722
5140.31	0.0850214
5151.35	0.081738
5162.38	0.078396
5173.41	0.0750061
5180.76	0.0727251
5191.79	0.06928
5202.82	0.0658162
5210.18	0.0635019
5221.21	0.0600307
5232.24	0.0565691
5243.27	0.0531272
5250.62	0.0508484
5261.65	0.0474611
5272.68	0.0441191
5280.04	0.0419207
5291.07	0.0386739
5302.1	0.0354953
5313.13	0.0323927
5320.48	0.0303701
5331.51	0.0274099
5342.54	0.024544
5353.58	0.021778
5360.93	0.0199922
5371.96	0.0174043
5382.99	0.0149292
5390.34	0.0133436
5401.38	0.0110644
5412.41	0.00890658
5423.44	0.00687229
5430.79	0.00558552
5441.82	0.00376034
5452.85	0.00206167
5460.21	0.000999588
5471.24	-0.00048823
5482.27	-0.00185036
5493.3	-0.00308799
5500.65	-0.00384471
5511.68	-0.00487871
5522.71	-0.0057935
5530.07	-0.00633844
5541.1	-0.00706066
5552.13	-0.0076715
5563.16	-0.00817445
5570.51	-0.00845161
5581.54	-0.00878301
5592.57	-0.00901675
5603.61	-0.00915697
5610.96	-0.00920057
5621.99	-0.00919431
5633.02	-0.00910591
5640.37	-0.00900348
5651.41	-0.00878776
5662.44	-0.00850138
5673.47	-0.00814855
5680.82	-0.00787846
5691.85	-0.00742404
5702.88	-0.00691397
5710.24	-0.00654491
5721.27	-0.00595056
5732.3	-0.00531048
5743.33	-0.00462812
5750.68	-0.00415135
5761.71	-0.00340575
5772.74	-0.00262627
5780.1	-0.00208922
5791.13	-0.00125957
5802.16	-0.000403334
5813.19	0.000477037
5820.54	0.00107621
5831.57	0.0019917
5842.6	0.00292543
5853.64	0.00387539
5860.99	0.00451677
5872.02	0.00548961
5883.05	0.00647382
5890.4	0.00713545
5901.44	0.00813493
5912.47	0.00914144
5923.5	0.0101535
5930.85	0.0108305
5941.88	0.0118483
5952.91	0.0128678
5960.27	0.0135476
5971.3	0.0145665
5982.33	0.0155833
5993.36	0.0165964
6000.71	0.0172692
6011.74	0.0182732
6022.77	0.01927
6030.13	0.0199298
6041.16	0.0209114
6052.19	0.021882
6063.22	0.0228404
6070.57	0.0234719
6081.6	0.0244069
6092.64	0.0253262
6103.67	0.0262285
6111.02	0.02682
6122.05	0.0276913
6133.08	0.0285425
6140.44	0.0290982
6151.47	0.0299133
6162.5	0.0307055
6173.53	0.0314738
6180.88	0.0319722
6191.91	0.0326987
6202.94	0.033399
6210.3	0.0338509
6221.33	0.034506
6232.36	0.0351332
6243.39	0.0357319
6250.74	0.036115
6261.77	0.0366654
6272.8	0.0371861
6280.16	0.0375168
6291.19	0.0379877
6302.22	0.0384285
6313.25	0.038839
6320.6	0.0390959
6331.64	0.0394558
6342.67	0.0397854
6350.02	0.0399883
6361.05	0.0402675
6372.08	0.0405166
6383.11	0.0407358
6390.47	0.0408653
6401.5	0.041035
6412.53	0.0411753
6423.56	0.0412863
6430.91	0.0413443
6441.94	0.0414072
6452.97	0.0414415
6460.33	0.0414486
6471.36	0.0414358
6482.39	0.041395
6493.42	0.0413264
6500.77	0.0412652
6511.8	0.0411506
6522.84	0.0410084
6530.19	0.0408985
6541.22	0.0407107
6552.25	0.0404956
6563.28	0.0402532
6570.64	0.0400763
6581.67	0.039788
6592.7	0.0394719
6600.05	0.0392458
6611.08	0.0388831
6622.11	0.038492
6633.14	0.0380721
6640.5	0.037776
6651.53	0.0373073
6662.56	0.0368084
6673.59	0.036279
6680.94	0.0359088
6691.97	0.0353269
6703	0.0347127
6710.36	0.0342849
6721.39	0.0336149
6732.42	0.0329104
6743.45	0.0321705
6750.8	0.0316571
6761.84	0.0308562
6772.87	0.0300173
6780.22	0.0294365
6791.25	0.0285323
6802.28	0.0275876
6813.31	0.0266013
6820.67	0.0259202
6831.7	0.0248625
6842.73	0.0237607
6850.08	0.0230012
6861.11	0.0218239
6872.14	0.0206
6883.17	0.0193288
6890.53	0.0184547
6901.56	0.017103
6912.59	0.0157022
6923.62	0.0142516
6930.97	0.0132568
6942	0.0117224
6953.04	0.0101374
6960.39	0.00905243
6971.42	0.00738255
6982.45	0.00566177
6993.48	0.00389022
7000.84	0.00268112
7011.87	0.000825669
7022.9	-0.00107949
7030.25	-0.0023769
7041.28	-0.00436338
7052.31	-0.00639749
7063.34	-0.0084782
7070.7	-0.00989065
7081.73	-0.0120463
7092.76	-0.014245
7100.11	-0.015734
7111.14	-0.0180009
7122.17	-0.0203064
7133.2	-0.0226484
7140.56	-0.024229
7151.59	-0.0266273
7162.62	-0.0290562
7173.65	-0.0315134
7181	-0.033166
7192.04	-0.0356646
7203.07	-0.0381845
7210.42	-0.0398748
7221.45	-0.0424239
7232.48	-0.0449865
7243.51	-0.0475598
7250.87	-0.0492797
7261.9	-0.0518638
7272.93	-0.0544503
7280.28	-0.0561743
7291.31	-0.0587577
7302.34	-0.0613349
7313.37	-0.0639029
7320.73	-0.0656081
7331.76	-0.0681535
7342.79	-0.0706811
7350.14	-0.0723548
7361.17	-0.0748459
7372.2	-0.0773111
7383.23	-0.0797475
7390.59	-0.0813542
7401.62	-0.0837359
7412.65	-0.0860811
7420	-0.0876231
7431.03	-0.0899017
7442.07	-0.0921369
7453.1	-0.0943264
7460.45	-0.0957595
7471.48	-0.0978677
7482.51	-0.0999243
7493.54	-0.101927
7500.9	-0.103232
7511.93	-0.105142
7522.96	-0.106994
7530.31	-0.108196
7541.34	-0.109948
7552.37	-0.111638
7563.4	-0.113266
7570.76	-0.114315
7581.79	-0.115836
7592.82	-0.117292
7600.17	-0.118227
7611.2	-0.119573
7622.23	-0.120854
7633.26	-0.122068
7640.62	-0.12284
7651.65	-0.123943
7662.68	-0.124979
7670.03	-0.125633
7681.06	-0.126558
7692.09	-0.127418
7703.12	-0.128212
7710.48	-0.128706
7721.51	-0.129392
7732.54	-0.130014
7743.57	-0.130573
7750.92	-0.130911
7761.96	-0.131367
7772.99	-0.131762
7780.34	-0.131991
7791.37	-0.132286
7802.4	-0.132523
7813.43	-0.132702
7820.79	-0.13279
7831.82	-0.132875
7842.85	-0.132906
7850.2	-0.132897
7861.23	-0.13284
7872.26	-0.132731
7883.29	-0.132571
7890.65	-0.132437
7901.68	-0.132196
7912.71	-0.131906
7920.06	-0.131688
7931.09	-0.131322
7942.12	-0.130911
7953.15	-0.130456
7960.51	-0.130129
7971.54	-0.129604
7982.57	-0.129038
7993.6	-0.128431
8000.95	-0.128005
8011.98	-0.127334
8023.02	-0.126625
8030.37	-0.126132
8041.4	-0.125363
8052.43	-0.124558
8063.46	-0.123718
8070.82	-0.12314
8081.85	-0.122245
8092.88	-0.121318
8100.23	-0.120682
8111.26	-0.119702
8122.29	-0.118692
8133.32	-0.117652
8140.68	-0.116942
8151.71	-0.115854
8162.74	-0.114738
8170.09	-0.113979
8181.12	-0.112818
8192.15	-0.111631
8203.18	-0.110418
8210.54	-0.109595
8221.57	-0.10834
8232.6	-0.107061
8243.63	-0.105757
8250.98	-0.104876
8262.01	-0.103534
8273.05	-0.102169
8280.4	-0.101247
8291.43	-0.0998447
8302.46	-0.098421
8313.49	-0.0969757
8320.85	-0.0960002
8331.88	-0.0945193
8342.91	-0.0930174
8350.26	-0.0920044
8361.29	-0.0904676
8372.32	-0.0889099
8383.35	-0.0873313
8390.71	-0.0862673
8401.74	-0.0846538
8412.77	-0.0830194
8420.12	-0.0819179
8431.15	-0.080248
8442.18	-0.0785566
8453.21	-0.0768436
8460.57	-0.0756893
8471.6	-0.0739395
8482.63	-0.0721672
8493.66	-0.0703723
8501.01	-0.0691629
8512.05	-0.0673294
8523.08	-0.0654724
8530.43	-0.0642213
8541.46	-0.0623245
8552.49	-0.0604036
8563.52	-0.0584582
8570.88	-0.0571476
8581.91	-0.0551611
8592.94	-0.0531498
8600.29	-0.0517951
8611.32	-0.0497424
8622.35	-0.0476649
8633.38	-0.0455627
8640.74	-0.0441476
8651.77	-0.0420048
8662.8	-0.0398382
8670.15	-0.0383807
8681.18	-0.0361753
8692.22	-0.0339474
8703.25	-0.0316979
8710.6	-0.0301865
8721.63	-0.0279027
8732.66	-0.0255997
8740.02	-0.0240542
8751.05	-0.0217216
8762.08	-0.0193731
8773.11	-0.0170101
8780.46	-0.0154274
8791.49	-0.0130436
8802.52	-0.0106495
8813.55	-0.00824686
8820.91	-0.00664135
8831.94	-0.00422884
8842.97	-0.00181302
8850.32	-0.000201665
8861.35	0.002215
8872.38	0.00462928
8883.42	0.00703894
8890.77	0.00864169
8901.8	0.0110386
8912.83	0.0134247
8920.18	0.0150083
8931.22	0.0173711
8942.25	0.019717
8953.28	0.0220433
8960.63	0.0235822
8971.66	0.0258709
8982.69	0.0281339
8990.05	0.0296271
9001.08	0.0318421
9012.11	0.0340253
9023.14	0.0361746
9030.49	0.0375875
9041.52	0.0396755
9052.55	0.041724
9063.58	0.043731
9070.94	0.0450451
9081.97	0.0469789
9093	0.0488663
9100.35	0.0500981
9111.38	0.0519047
9122.42	0.0536607
9133.45	0.0553648
9140.8	0.0564712
9151.83	0.0580855
9162.86	0.0596444
9170.22	0.0606523
9181.25	0.0621164
9192.28	0.0635222
9203.31	0.0648689
9210.66	0.0657335
9221.69	0.0669799
9232.72	0.0681652
9240.08	0.0689212
9251.11	0.0700034
9262.14	0.0710231
9273.17	0.07198
9280.52	0.0725828
9291.55	0.0734341
9302.58	0.0742217
9313.62	0.0749456
9320.97	0.0753927
9332	0.0760101
9343.03	0.0765636
9350.39	0.0768971
9361.42	0.0773442
9372.45	0.0777275
9383.48	0.0780474
9390.83	0.0782254
9401.86	0.07844
9412.89	0.0785917
9420.25	0.0786581
9431.28	0.0787058
9442.31	0.0786918
9453.34	0.0786164
9460.69	0.0785323
9471.72	0.0783558
9482.75	0.0781193
9490.11	0.0779287
9501.14	0.0775938
9512.17	0.0772007
9523.2	0.0767502
9530.55	0.0764183
9541.59	0.0758739
9552.62	0.0752742
9563.65	0.0746204
9571	0.0741548
9582.03	0.0734128
9593.06	0.0726193
9600.42	0.0720622
9611.45	0.0711856
9622.48	0.0702607
9633.51	0.0692889
9640.86	0.0686157
9651.89	0.0675688
9662.92	0.066479
9670.28	0.0657292
9681.31	0.0645712
9692.34	0.0633745
9703.37	0.0621408
9710.72	0.0612988
9721.76	0.0600077
9732.79	0.0586848
9740.14	0.0577861
9751.17	0.0564145
9762.2	0.0550166
9773.23	0.0535944
9780.59	0.0526339
9791.62	0.0511763
9802.65	0.0497006
9810	0.0487078
9821.03	0.0472071
9832.06	0.0456945
9843.09	0.0441726
9850.45	0.0431541
9861.48	0.0416222
9872.51	0.0400876
9883.54	0.0385529
9890.89	0.037531
9901.92	0.0360017
9912.96	0.0344791
9920.31	0.033469
9931.34	0.0319631
9942.37	0.0304705
9953.4	0.0289937
9960.76	0.0280191
9971.79	0.026574
9982.82	0.0251511
9990.17	0.0242158
10001.2	0.0228348
10012.2	0.0214819
10023.3	0.0201592
10030.6	0.0192952
10041.6	0.0180273
10052.7	0.0167948
10060	0.0159937
10071.1	0.0148242
10082.1	0.0136945
10093.1	0.0126063
10100.5	0.0119046
10111.5	0.0108885
10122.5	0.00991723
10133.6	0.00899193
10140.9	0.00840105
10152	0.00755435
10163	0.00675582
10170.3	0.00625054
10181.4	0.00553358
10192.4	0.00486611
10203.4	0.00424841
10210.8	0.00386432
10221.8	0.00332979
10232.8	0.00284509
10240.2	0.00254956
10251.2	0.00214744
10262.3	0.00179437
10273.3	0.00148986
10280.6	0.00131353
10291.7	0.00108853
10302.7	0.000910216
10310.1	0.00081685
10321.1	0.000714357
10332.1	0.000656012
10343.2	0.000640707
10350.5	0.000653834
10361.5	0.0007076
10372.6	0.000801102
10383.6	0.000932986
10391	0.00104154
10402	0.00123425
10413	0.0014615
10420.4	0.00163143
10431.4	0.00191285
10442.4	0.00222471
10453.5	0.00256541
10460.8	0.00280778
10471.8	0.003193
10482.9	0.00360279
10490.2	0.00388883
10501.3	0.00433598
10512.3	0.00480339
10523.3	0.00528946
10530.7	0.0056231
10541.7	0.00613677
10552.7	0.0066649
10560.1	0.00702427
10571.1	0.0075731
10582.2	0.00813233
10593.2	0.0087005
10600.5	0.00908351
10611.6	0.00966334
10622.6	0.0102483
10633.6	0.0108369
10641	0.0112308
10652	0.0118227
10663	0.0124148
10670.4	0.012809
10681.4	0.0133986
10692.5	0.013985
10703.5	0.0145671
10710.8	0.0149522
10721.9	0.0155244
10732.9	0.0160893
10740.3	0.0164612
10751.3	0.0170112
10762.3	0.017551
10773.4	0.0180794
10780.7	0.0184249
10791.7	0.0189322
10802.8	0.0194255
10810.1	0.0197462
10821.2	0.0202142
10832.2	0.0206658
10843.2	0.0211
10850.6	0.0213795
10861.6	0.0217831
10872.6	0.0221673
10883.7	0.0225311
10891	0.0227621
10902	0.0230907
10913.1	0.0233971
10920.4	0.0235888
10931.5	0.0238569
10942.5	0.0241014
10953.5	0.0243216
10960.9	0.0244546
10971.9	0.0246333
10982.9	0.0247865
10990.3	0.0248743
11001.3	0.0249843
11012.4	0.0250679
11023.4	0.025125
11030.7	0.0251482
11041.8	0.0251606
11052.8	0.0251461
11060.2	0.0251215
11071.2	0.025062
11082.2	0.0249757
11093.2	0.0248626
11100.6	0.0247724
11111.6	0.024615
11122.7	0.0244315
11130	0.0242947
11141	0.0240681
11152.1	0.0238163
11163.1	0.0235397
11170.5	0.0233417
11181.5	0.0230248
11192.5	0.0226845
11203.6	0.0223214
11210.9	0.022067
11221.9	0.0216674
11233	0.0212467
11240.3	0.0209549
11251.4	0.0205009
11262.4	0.0200278
11273.4	0.0195364
11280.8	0.0191991
11291.8	0.0186791
11302.8	0.018143
11310.2	0.0177771
11321.2	0.017216
11332.2	0.016641
11343.3	0.0160529
11350.6	0.0156539
11361.7	0.0150457
11372.7	0.0144266
11380	0.014008
11391.1	0.0133722
11402.1	0.0127274
11413.1	0.0120744
11420.5	0.0116347
11431.5	0.0109693
11442.6	0.0102975
11453.6	0.00961972
11460.9	0.0091649
11472	0.00847863
11483	0.00778798
11490.4	0.00732537
11501.4	0.00662857
11512.4	0.00592872
11523.4	0.00522626
11530.8	0.00475673
11541.8	0.00405089
11552.9	0.00334355
11560.2	0.00287134
11571.2	0.00216233
11582.3	0.00145281
11593.3	0.000743107
11600.7	0.000270047
11611.7	-0.000439184
11622.7	-0.00114769
11630.1	-0.00161945
11641.1	-0.00232599
11652.1	-0.00303089
11663.2	-0.0037338
11670.5	-0.00420112
11681.6	-0.00489989
11692.6	-0.00559566
11703.6	-0.00628802
11711	-0.0067475
11722	-0.00743322
11733	-0.00811435
11740.4	-0.00856564
11751.4	-0.00923802
11762.4	-0.00990444
11773.5	-0.0105644
11780.8	-0.0110004
11791.9	-0.0116482
11802.9	-0.0122879
11810.2	-0.0127096
11821.3	-0.0133343
11832.3	-0.0139493
11843.3	-0.0145537
11850.7	-0.0149505
11861.7	-0.0155358
11872.8	-0.0161088
11880.1	-0.0164835
11891.1	-0.0170342
11902.2	-0.0175705
11913.2	-0.0180919
11920.6	-0.0184307
11931.6	-0.0189255
11942.6	-0.0194034
11953.6	-0.0198638
11961	-0.0201607
11972	-0.0205906
11983.1	-0.0210014
11990.4	-0.0212644
12001.4	-0.0216423
12012.5	-0.0219998
12023.5	-0.0223366
12030.9	-0.0225494
12041.9	-0.0228509
12052.9	-0.023131
12060.3	-0.0233056
12071.3	-0.0235495
12082.3	-0.0237717
12093.4	-0.0239721
12100.7	-0.0240937
12111.8	-0.0242582
12122.8	-0.0244014
12130.1	-0.0244852
12141.2	-0.0245938
12152.2	-0.024682
12163.2	-0.0247506
12170.6	-0.0247857
12181.6	-0.0248228
12192.6	-0.024842
12203.7	-0.0248441
12211	-0.0248365
12222.1	-0.0248121
12233.1	-0.0247731
12240.4	-0.0247395
12251.5	-0.0246786
12262.5	-0.024606
12273.5	-0.024523
12280.9	-0.0244625
12291.9	-0.0243649
12303	-0.0242604
12310.3	-0.0241875
12321.3	-0.0240744
12332.4	-0.0239579
12343.4	-0.0238396
12350.8	-0.0237604
12361.8	-0.0236421
12372.8	-0.0235258
12380.2	-0.0234501
12391.2	-0.0233402
12402.2	-0.0232361
12413.3	-0.0231392
12420.6	-0.0230792
12431.6	-0.0229973
12442.7	-0.022926
12450	-0.0228852
12461.1	-0.0228346
12472.1	-0.0227982
12483.1	-0.0227768
12490.5	-0.0227716
12501.5	-0.022778
12512.5	-0.0228022
12523.6	-0.0228453
12530.9	-0.0228849
12542	-0.0229612
12553	-0.0230583
12560.3	-0.0231349
12571.4	-0.0232681
12582.4	-0.0234236
12593.4	-0.0236019
12600.8	-0.0237335
12611.8	-0.0239502
12622.8	-0.0241903
12630.2	-0.0243633
12641.2	-0.0246424
12652.3	-0.0249448
12663.3	-0.0252704
12670.6	-0.0255003
12681.7	-0.0258639
12692.7	-0.0262499
12700.1	-0.0265194
12711.1	-0.0269416
12722.1	-0.0273847
12733.2	-0.0278481
12740.5	-0.028168
12751.5	-0.0286636
12762.6	-0.0291775
12773.6	-0.0297087
12781	-0.0300721
12792	-0.0306301
12803	-0.031203
12810.4	-0.0315926
12821.4	-0.0321877
12832.4	-0.0327948
12843.5	-0.0334127
12850.8	-0.0338301
12861.8	-0.0344634
12872.9	-0.0351045
12880.2	-0.0355356
12891.3	-0.036187
12902.3	-0.036843
12913.3	-0.0375026
12920.7	-0.0379436
12931.7	-0.0386064
12942.7	-0.0392697
12950.1	-0.0397116
12961.1	-0.0403733
12972.2	-0.0410327
12983.2	-0.0416888
12990.5	-0.0421238
13001.6	-0.0427723
13012.6	-0.0434151
13023.6	-0.0440512
13031	-0.0444713
13042	-0.0450949
13053	-0.0457099
13060.4	-0.0461149
13071.4	-0.0467144
13082.5	-0.0473038
13093.5	-0.0478827
13100.8	-0.0482625
13111.9	-0.0488229
13122.9	-0.0493717
13130.3	-0.0497311
13141.3	-0.0502601
13152.3	-0.050777
13163.4	-0.0512816
13170.7	-0.0516111
13181.7	-0.0520951
13192.8	-0.0525667
13200.1	-0.0528743
13211.2	-0.0533253
13222.2	-0.0537642
13233.2	-0.054191
13240.6	-0.0544688
13251.6	-0.0548759
13262.6	-0.0552714
13273.7	-0.0556555
13281	-0.0559054
13292	-0.0562712
13303.1	-0.0566263
13310.4	-0.0568573
13321.5	-0.0571952
13332.5	-0.0575232
13343.5	-0.0578415
13350.9	-0.0580485
13361.9	-0.0583512
13372.9	-0.0586449
13380.3	-0.0588358
13391.3	-0.0591149
13402.4	-0.0593855
13413.4	-0.0596478
13420.7	-0.0598181
13431.8	-0.0600667
13442.8	-0.0603073
13450.2	-0.0604633
13461.2	-0.0606906
13472.2	-0.0609098
13483.2	-0.0611211
13490.6	-0.0612574
13501.6	-0.061455
13512.7	-0.0616443
13520	-0.0617657
13531	-0.0619407
13542.1	-0.0621067
13553.1	-0.0622636
13560.5	-0.0623629
13571.5	-0.0625038
13582.5	-0.0626346
13593.6	-0.062755
13600.9	-0.0628292
13611.9	-0.0629313
13623	-0.0630217
13630.3	-0.0630752
13641.4	-0.0631452
13652.4	-0.0632023
13663.4	-0.0632459
13670.8	-0.0632672
13681.8	-0.0632872
13692.8	-0.0632923
13700.2	-0.0632872
13711.2	-0.0632663
13722.2	-0.0632291
13733.3	-0.0631751
13740.6	-0.0631294
13751.7	-0.0630461
13762.7	-0.0629445
13770	-0.0628664
13781.1	-0.0627334
13792.1	-0.062581
13803.1	-0.0624086
13810.5	-0.0622824
13821.5	-0.0620759
13832.6	-0.0618486
13843.6	-0.0616
13850.9	-0.0614223
13862	-0.0611377
13873	-0.0608312
13880.4	-0.0606146
13891.4	-0.0602712
13902.4	-0.0599054
13913.4	-0.0595173
13920.8	-0.059246
13931.8	-0.0588205
13942.9	-0.0583725
13950.2	-0.0580614
13961.2	-0.0575763
13972.3	-0.057069
13983.3	-0.0565397
13990.7	-0.0561747
14001.7	-0.0556094
14012.7	-0.0550227
14020.1	-0.0546199
14031.1	-0.0539985
14042.1	-0.0533567
14053.2	-0.052695
14060.5	-0.0522429
14071.6	-0.051549
14082.6	-0.0508364
14093.6	-0.0501056
14101	-0.0496086
14112	-0.0488489
14123	-0.0480725
14130.4	-0.047546
14141.4	-0.0467434
14152.4	-0.0459258
14163.5	-0.0450941
14170.8	-0.044532
14181.9	-0.0436781
14192.9	-0.0428118
14200.2	-0.0422278
14211.3	-0.0413425
14222.3	-0.0404469
14233.3	-0.0395416
14240.7	-0.0389331
14251.7	-0.0380135
14262.8	-0.0370862
14270.1	-0.0364642
14281.1	-0.035526
14292.2	-0.0345821
14303.2	-0.0336335
14310.6	-0.0329988
14321.6	-0.0320439
14332.6	-0.0310862
14343.6	-0.0301265
14351	-0.029486
14362	-0.0285245
14373.1	-0.0275631
14380.4	-0.0269224
14391.4	-0.0259624
14402.5	-0.0250043
14413.5	-0.0240487
14420.9	-0.0234133
14431.9	-0.0224635
14442.9	-0.0215179
14450.3	-0.0208902
14461.3	-0.0199532
14472.3	-0.0190222
14483.4	-0.0180978
14490.7	-0.0174855
14501.8	-0.0165733
14512.8	-0.0156692
14520.1	-0.0150712
14531.2	-0.0141817
14542.2	-0.0133017
14553.2	-0.0124316
14560.6	-0.0118572
14571.6	-0.0110046
14582.7	-0.0101631
14590	-0.00960842
14601	-0.00878622
14612.1	-0.0079761
14623.1	-0.00717839
14630.5	-0.00665363
14641.5	-0.00587728
14652.5	-0.00511412
14663.5	-0.00436439
14670.9	-0.00387216
14681.9	-0.00314532
14693	-0.00243247
14700.3	-0.00196509
14711.3	-0.0012759
14722.4	-0.000601096
14733.4	5.92318e-05
14740.8	0.000491365
14751.8	0.00112739
14762.8	0.00174876
14770.2	0.00215485
14781.2	0.00275176
14792.2	0.00333398
14803.3	0.00390156
14810.6	0.00427184
14821.7	0.00481511
14832.7	0.00534391
14840	0.00568843
14851.1	0.0061933
14862.1	0.00668397
14873.1	0.00716058
14880.5	0.00747058
14891.5	0.00792409
14902.5	0.00836397
14913.6	0.00879042
14920.9	0.00906734
14932	0.00947183
14943	0.00986344
14950.3	0.0101175
14961.4	0.0104881
14972.4	0.0108465
14983.4	0.0111929
14990.8	0.0114173
15001.8	0.0117443
15012.9	0.0120599
15020.2	0.0122643
15031.2	0.0125618
15042.3	0.0128487
15053.3	0.0131254
15060.7	0.0133044
15071.7	0.0135647
15082.7	0.0138156
15090.1	0.0139777
15101.1	0.0142135
15112.1	0.0144407
15123.2	0.0146596
15130.5	0.014801
15141.5	0.0150067
15152.6	0.0152049
15163.6	0.0153959
15171	0.0155194
15182	0.0156992
15193	0.0158726
15200.4	0.0159848
15211.4	0.0161482
15222.4	0.0163061
15233.5	0.0164587
15240.8	0.0165577
15251.9	0.0167022
15262.9	0.0168422
15270.2	0.0169331
15281.3	0.0170662
15292.3	0.0171956
15303.3	0.0173214
15310.7	0.0174034
15321.7	0.017524
15332.7	0.0176416
15340.1	0.0177186
15351.1	0.0178321
15362.2	0.0179433
15373.2	0.0180525
15380.5	0.0181242
15391.6	0.0182304
15402.6	0.0183352
15413.6	0.0184385
15421	0.0185068
15432	0.0186083
15443.1	0.0187089
15450.4	0.0187755
15461.4	0.0188748
15472.5	0.0189736
15483.5	0.0190719
15490.9	0.0191373
15501.9	0.019235
15512.9	0.0193326
15520.3	0.0193975
15531.3	0.0194948
15542.3	0.0195921
15553.4	0.0196894
15560.7	0.0197543
15571.7	0.0198517
15582.8	0.0199492
15590.1	0.0200142
15601.2	0.0201119
15612.2	0.0202097
15623.2	0.0203076
15630.6	0.020373
15641.6	0.0204711
15652.6	0.0205693
15663.7	0.0206676
15671	0.0207332
15682.1	0.0208316
15693.1	0.02093
15700.4	0.0209955
15711.5	0.0210939
15722.5	0.0211921
15733.5	0.0212903
15740.9	0.0213557
15751.9	0.0214535
15762.9	0.0215512
15770.3	0.0216163
15781.3	0.0217136
15792.4	0.0218106
15803.4	0.0219074
15810.7	0.0219717
15821.8	0.022068
15832.8	0.022164
15840.2	0.0222278
15851.2	0.0223233
15862.2	0.0224185
15873.3	0.0225136
15880.6	0.0225768
15891.6	0.0226716
15902.7	0.0227663
15910	0.0228294
15921.1	0.0229241
15932.1	0.023019
15943.1	0.0231142
15950.5	0.0231778
15961.5	0.0232737
15972.5	0.0233702
15983.6	0.0234675
15990.9	0.0235328
16001.9	0.0236318
16013	0.0237319
16020.3	0.0237995
16031.4	0.0239021
16042.4	0.0240065
16053.4	0.0241129
16060.8	0.024185
16071.8	0.024295
16082.8	0.0244076
16090.2	0.0244841
16101.2	0.0246013
16112.3	0.0247215
16123.3	0.0248449
16130.6	0.024929
16141.7	0.0250581
16152.7	0.0251909
16160.1	0.0252816
16171.1	0.0254207
16182.1	0.0255639
16193.1	0.0257111
16200.5	0.0258115
16211.5	0.0259656
16222.6	0.0261239
16233.6	0.0262864
16240.9	0.0263971
16252	0.0265665
16263	0.02674
16270.4	0.0268579
16281.4	0.0270379
16292.4	0.0272217
16303.5	0.0274091
16310.8	0.0275359
16321.8	0.0277288
16332.9	0.0279247
16340.2	0.0280568
16351.3	0.0282571
16362.3	0.0284596
16373.3	0.0286641
16380.7	0.0288012
16391.7	0.0290081
16402.7	0.0292158
16410.1	0.0293547
16421.1	0.0295631
16432.1	0.0297715
16443.2	0.0299792
16450.5	0.0301172
16461.6	0.030323
16472.6	0.0305271
16483.6	0.030729
16491	0.0308621
16502	0.0310594
16513	0.0312533
16520.4	0.0313804
16531.4	0.0315677
16542.5	0.0317505
16553.5	0.0319283
16560.8	0.0320439
16571.9	0.0322126
16582.9	0.0323753
16590.3	0.0324803
16601.3	0.0326322
16612.3	0.0327773
16623.3	0.0329152
16630.7	0.0330029
16641.7	0.0331281
16652.8	0.0332454
16660.1	0.0333191
16671.1	0.0334227
16682.2	0.0335178
16693.2	0.0336042
16700.6	0.0336569
16711.6	0.0337286
16722.6	0.0337912
16733.7	0.0338447
16741	0.0338753
16752	0.0339134
16763.1	0.0339422
16770.4	0.0339563
16781.5	0.0339695
16792.5	0.0339734
16803.5	0.0339679
16810.9	0.033959
16821.9	0.0339378
16832.9	0.0339072
16840.3	0.0338816
16851.3	0.0338353
16862.3	0.0337796
16873.4	0.0337145
16880.7	0.0336659
16891.8	0.033585
16902.8	0.0334946
16910.1	0.0334291
16921.2	0.0333226
16932.2	0.0332065
16943.2	0.0330805
16950.6	0.0329909
16961.6	0.0328481
16972.7	0.032695
16980	0.032587
16991	0.0324161
17002.1	0.0322342
17013.1	0.0320409
17020.5	0.0319055
17031.5	0.0316924
17042.5	0.0314669
17053.5	0.0312285
17060.9	0.0310621
17071.9	0.030801
17083	0.0305255
17090.3	0.0303336
17101.3	0.0300327
17112.4	0.0297157
17123.4	0.0293817
17130.8	0.0291493
17141.8	0.0287855
17152.8	0.0284027
17160.2	0.0281365
17171.2	0.02772
17182.2	0.0272821
17193.3	0.0268219
17200.6	0.0265022
17211.7	0.0260026
17222.7	0.0254782
17230	0.0251142
17241.1	0.024546
17252.1	0.0239503
17263.1	0.023326
17270.5	0.0228935
17281.5	0.0222195
17292.5	0.0215143
17303.6	0.0207771
17310.9	0.0202674
17322	0.0194748
17333	0.0186478
17340.3	0.018077
17351.4	0.017191
17362.4	0.0162686
17373.4	0.0153092
17380.8	0.0146487
17391.8	0.0136264
17402.9	0.0125657
17410.2	0.0118371
17421.2	0.0107116
17432.3	0.00954705
17443.3	0.00834322
17450.7	0.00751885
17461.7	0.00624961
17472.7	0.00494133
17480.1	0.00404758
17491.1	0.0026749
17502.1	0.0012642
17513.2	-0.000183933
17520.5	-0.00116979
17531.5	-0.00267861
17542.6	-0.00422262
17553.6	-0.00580074
17561	-0.00687119
17572	-0.00850343
17583	-0.0101663
17590.4	-0.0112911
17601.4	-0.0130014
17612.4	-0.0147379
17623.5	-0.0164987
17630.8	-0.0176851
17641.9	-0.0194818
17652.9	-0.0212971
17660.2	-0.0225165
17671.3	-0.0243576
17682.3	-0.0262108
17693.3	-0.0280736
17700.7	-0.0293194
17711.7	-0.0311919
17722.7	-0.0330665
17730.1	-0.034316
17741.1	-0.0361875
17752.2	-0.0380531
17763.2	-0.0399097
17770.5	-0.0411408
17781.6	-0.0429753
17792.6	-0.0447922
17803.6	-0.0465883
17811	-0.0477726
17822	-0.0495267
17833.1	-0.0512513
17840.4	-0.0523831
17851.4	-0.0540512
17862.5	-0.055681
17873.5	-0.0572695
17880.9	-0.0583039
17891.9	-0.0598162
17902.9	-0.0612789
17910.3	-0.0622249
17921.3	-0.063598
17932.3	-0.0649136
17943.4	-0.0661688
17950.7	-0.0669708
17961.7	-0.0681197
17972.8	-0.0692013
17980.1	-0.0698839
17991.2	-0.0708484
18002.2	-0.0717397
18013.2	-0.0725559
18020.6	-0.0730573
18031.6	-0.0737441
18042.6	-0.0743512
18053.7	-0.0748771
18061	-0.075182
18072.1	-0.0755699
18083.1	-0.0758737
18090.4	-0.0760291
18101.5	-0.076191
18112.5	-0.0762671
18123.5	-0.076257
18130.9	-0.0762023
18141.9	-0.0760484
18153	-0.0758084
18160.3	-0.0756008
18171.3	-0.0752181
18182.4	-0.0747508
18193.4	-0.0741995
18200.8	-0.0737858
18211.8	-0.0730969
18222.8	-0.0723272
18230.2	-0.0717698
18241.2	-0.0708685
18252.2	-0.0698905
18263.3	-0.0688377
18270.6	-0.0680952
18281.6	-0.0669221
18292.7	-0.0656798
18300	-0.0648143
18311.1	-0.0634619
18322.1	-0.0620467
18333.1	-0.0605714
18340.5	-0.0595558
18351.5	-0.0579865
18362.5	-0.0563644
18373.6	-0.0546927
18380.9	-0.0535521
18392	-0.0518041
18403	-0.0500146
18410.3	-0.0488
18421.4	-0.0469481
18432.4	-0.0450629
18443.4	-0.0431477
18450.8	-0.0418558
18461.8	-0.0398977
18472.8	-0.0379179
18480.2	-0.0365877
18491.2	-0.0345791
18502.3	-0.0325573
18513.3	-0.0305254
18520.6	-0.0291667
18531.7	-0.0271247
18542.7	-0.0250805
18550.1	-0.023718
18561.1	-0.0216766
18572.1	-0.0196406
18583.2	-0.0176126
18590.5	-0.0162663
18601.5	-0.0142573
18612.6	-0.0122631
18623.6	-0.0102859
18631	-0.00897832
18642	-0.00703439
18653	-0.0051132
18660.4	-0.003846
18671.4	-0.00196696
18682.4	-0.000115567
18693.5	0.00170653
18700.8	0.00290424
18711.8	0.0046742
18722.9	0.00641108
18730.2	0.00755001
18741.3	0.00922912
18752.3	0.0108722
18763.3	0.0124783
18770.7	0.0135281
18781.7	0.0150709
18792.7	0.0165749
18800.1	0.0175557
18811.1	0.0189939
18822.2	0.0203922
18833.2	0.0217504
18840.5	0.0226335
18851.6	0.0239245
18862.6	0.0251751
18873.6	0.0263856
18881	0.0271704
18892	0.0283143
18903	0.0294187
18910.4	0.0301332
18921.4	0.0311726
18932.5	0.0321736
18943.5	0.0331368
18950.8	0.0337582
18961.9	0.0346597
18972.9	0.0355251
18980.3	0.0360823
18991.3	0.0368891
19002.3	0.0376617
19013.4	0.038401
19020.7	0.0388758
19031.7	0.0395614
19042.8	0.040216
19050.1	0.0406355
19061.2	0.0412402
19072.2	0.0418161
19083.2	0.0423642
19090.6	0.0427146
19101.6	0.0432182
19112.6	0.0436963
19123.7	0.0441498
19131	0.0444389
19142	0.0448532
19153.1	0.045245
19160.4	0.0454942
19171.5	0.0458505
19182.5	0.0461865
19193.5	0.0465028
19200.9	0.0467031
19211.9	0.0469883
19222.9	0.0472558
19230.3	0.0474245
19241.3	0.0476636
19252.4	0.0478865
19263.4	0.0480937
19270.7	0.0482233
19281.8	0.0484055
19292.8	0.0485732
19300.2	0.0486772
19311.2	0.0488217
19322.2	0.0489527
19333.2	0.0490706
19340.6	0.049142
19351.6	0.0492386
19362.7	0.0493226
19370	0.0493718
19381	0.0494354
19392.1	0.049487
19403.1	0.0495266
19410.5	0.0495464
19421.5	0.0495662
19432.5	0.0495742
19443.6	0.0495704
19450.9	0.0495613
19461.9	0.0495378
19473	0.0495025
19480.3	0.0494724
19491.4	0.0494172
19502.4	0.0493501
19513.4	0.0492708
19520.8	0.0492112
19531.8	0.0491116
19542.8	0.0489997
19550.2	0.0489182
19561.2	0.0487854
19572.2	0.0486401
19583.3	0.048482
19590.6	0.0483695
19601.7	0.04819
19612.7	0.0479975
19620	0.047862
19631.1	0.0476477
19642.1	0.0474203
19653.1	0.0471796
19660.5	0.0470118
19671.5	0.0467491
19682.6	0.0464731
19693.6	0.0461838
19700.9	0.0459835
19712	0.0456721
19723	0.0453476
19730.4	0.0451239
19741.4	0.0447775
19752.4	0.0444181
19763.4	0.0440459
19770.8	0.0437907
19781.8	0.0433975
19792.9	0.0429918
19800.2	0.0427145
19811.2	0.0422885
19822.3	0.0418507
19833.3	0.0414012
19840.7	0.0410952
19851.7	0.0406269
19862.7	0.0401478
19870.1	0.0398224
19881.1	0.0393258
19892.1	0.0388191
19903.2	0.0383027
19910.5	0.0379532
19921.6	0.0374214
19932.6	0.0368808
19943.6	0.0363319
19951	0.0359615
19962	0.0353995
19973	0.0348302
19980.4	0.0344468
19991.4	0.0338662
