0	0
10.0538	0
20.1077	0
30.1615	0
40.2154	0
50.2692	0
60.323	0
70.3769	0
80.4307	0
90.4846	0
100.538	0
110.592	0
120.646	0
130.7	0
140.754	0
150.808	0
160.861	0
170.001	0
180.055	0
190.109	0
200.163	0
210.217	0
220.27	0
230.324	0
240.378	0
250.432	0
260.486	0
270.54	0
280.594	0
290.647	0
300.701	0
310.755	0
320.809	0
330.863	0
340.003	0
350.056	0
360.11	0
370.164	9.09495e-13
380.218	0
390.272	0
400.326	0
410.379	0
420.433	0
430.487	0
440.541	0
450.595	0
460.649	0
470.702	0
480.756	-9.09495e-13
490.81	0
500.864	0
510.004	0
520.058	0
530.112	0
540.165	0
550.219	0
560.273	0
570.327	0
580.381	-9.09495e-13
590.435	0
600.488	0
610.542	0
620.596	0
630.65	0
640.704	0
650.758	0
660.811	0
670.865	0
680.005	0
690.059	9.09495e-13
700.113	0
710.167	0
720.22	0
730.274	0
740.328	0
750.382	0
760.436	0
770.49	0
780.544	0
790.597	-9.09495e-13
800.651	0
810.705	0
820.759	0
830.813	0
840.867	0
850.006	0
860.06	0
870.114	0
880.168	0
890.222	-9.09495e-13
900.276	0
910.329	-9.09495e-13
920.383	0
930.437	0
940.491	0
950.545	0
960.599	0
970.652	0
980.706	0
990.76	0
1000.81	0
1010.87	0
1020.01	0
1030.06	0
1040.12	0
1050.17	0
1060.22	0
1070.28	0
1080.33	0
1090.38	0
1100.44	0
1110.49	0
1120.55	-9.09495e-13
1130.6	0
1140.65	0
1150.71	0
1160.76	0
1170.82	0
1180.87	0
1190.01	0
1200.06	0
1210.12	0
1220.17	0
1230.22	0
1240.28	-9.09495e-13
1250.33	0
1260.39	0
1270.44	0
1280.49	0
1290.55	0
1300.6	0
1310.66	0
1320.71	0
1330.76	0
1340.82	0
1350.87	-9.09495e-13
1360.01	0
1370.06	0
1380.12	0
1390.17	0
1400.23	0
1410.28	0
1420.33	0
1430.39	0
1440.44	0
1450.49	0
1460.55	-9.09495e-13
1470.6	0
1480.66	0
1490.71	0
1500.76	0
1510.82	0
1520.87	0
1530.01	0
1540.07	0
1550.12	0
1560.17	0
1570.23	0
1580.28	0
1590.33	0
1600.39	0
1610.44	0
1620.5	0
1630.55	0
1640.6	0
1650.66	0
1660.71	0
1670.77	0
1680.82	0
1690.87	0
1700.01	9.09495e-13
1710.07	-9.09495e-13
1720.12	0
1730.17	0
1740.23	0
1750.28	0
1760.34	0
1770.39	0
1780.44	0
1790.5	0
1800.55	0
1810.61	0
1820.66	0
1830.71	0
1840.77	0
1850.82	0
1860.87	0
1870.01	0
1880.07	0
1890.12	0
1900.18	0
1910.23	0
1920.28	0
1930.34	0
1940.39	0
1950.44	0
1960.5	0
1970.55	0
1980.61	0
1990.66	0
2000.71	0
2010.77	0
2020.82	0
2030.88	0
2040.02	0
2050.07	0
2060.12	0
2070.18	-9.09495e-13
2080.23	0
2090.28	0
2100.34	0
2110.39	0
2120.45	0
2130.5	0
2140.55	0
2150.61	0
2160.66	0
2170.72	-4.54747e-12
2180.77	-1.09139e-11
2190.82	-1.81899e-11
2200.88	-2.54659e-11
2210.02	-3.54703e-11
2220.07	-5.36602e-11
2230.12	-8.2764e-11
2240.18	-1.27329e-10
2250.23	-1.94632e-10
2260.29	-2.95586e-10
2270.34	-4.42014e-10
2280.39	-6.53017e-10
2290.45	-9.51331e-10
2300.5	-1.36515e-09
2310.56	-1.93268e-09
2320.61	-2.69938e-09
2330.66	-3.72074e-09
2340.72	-5.06498e-09
2350.77	-6.8103e-09
2360.82	-9.04765e-09
2370.88	-1.18816e-08
2380.02	-1.50758e-08
2390.07	-1.93886e-08
2400.13	-2.46791e-08
2410.18	-3.11011e-08
2420.23	-3.88172e-08
2430.29	-4.80022e-08
2440.34	-5.88307e-08
2450.39	-7.14899e-08
2460.45	-8.61628e-08
2470.5	-1.03029e-07
2480.56	-1.2227e-07
2490.61	-1.44051e-07
2500.66	-1.68534e-07
2510.72	-1.95858e-07
2520.77	-2.26146e-07
2530.83	-2.59495e-07
2540.88	-2.95976e-07
2550.02	-3.31887e-07
2560.07	-3.74408e-07
2570.13	-4.20046e-07
2580.18	-4.68703e-07
2590.23	-5.20227e-07
2600.29	-5.74402e-07
2610.34	-6.3095e-07
2620.4	-6.89517e-07
2630.45	-7.4968e-07
2640.5	-8.10937e-07
2650.56	-8.72717e-07
2660.61	-9.34378e-07
2670.67	-9.95204e-07
2680.72	-1.05442e-06
2690.77	-1.11122e-06
2700.83	-1.16472e-06
2710.88	-1.21403e-06
2720.02	-1.25447e-06
2730.07	-1.2933e-06
2740.13	-1.32533e-06
2750.18	-1.34973e-06
2760.24	-1.36571e-06
2770.29	-1.37254e-06
2780.34	-1.36959e-06
2790.4	-1.35632e-06
2800.45	-1.33233e-06
2810.5	-1.29731e-06
2820.56	-1.25111e-06
2830.61	-1.1937e-06
2840.67	-1.12521e-06
2850.72	-1.04591e-06
2860.77	-9.56188e-07
2870.83	-8.56597e-07
2880.88	-7.47807e-07
2890.02	-6.4159e-07
2900.07	-5.17533e-07
2910.13	-3.86885e-07
2920.18	-2.50733e-07
2930.24	-1.10242e-07
2940.29	3.33575e-08
2950.34	1.78781e-07
2960.4	3.24709e-07
2970.45	4.69792e-07
2980.5	6.12672e-07
2990.56	7.51994e-07
3000.61	8.86424e-07
3010.67	1.01467e-06
3020.72	1.13549e-06
3030.77	1.24772e-06
3040.83	1.3503e-06
3050.88	1.44229e-06
3060.02	1.51605e-06
3070.07	1.58574e-06
3080.13	1.64297e-06
3090.18	1.68745e-06
3100.24	1.71911e-06
3110.29	1.73804e-06
3120.34	1.74455e-06
3130.4	1.73913e-06
3140.45	1.72241e-06
3150.5	1.69518e-06
3160.56	1.6583e-06
3170.61	1.61271e-06
3180.66	1.55935e-06
3190.72	1.49915e-06
3200.77	1.43298e-06
3210.83	1.36163e-06
3220.88	1.28579e-06
3230.02	1.2134e-06
3240.07	1.13039e-06
3250.13	1.04414e-06
3260.18	9.54876e-07
3270.23	8.62721e-07
3280.29	7.67765e-07
3290.34	6.70079e-07
3300.39	5.69761e-07
3310.45	4.66966e-07
3320.5	3.61936e-07
3330.55	2.55033e-07
3340.61	1.46749e-07
3350.66	3.77158e-08
3360.72	-7.12998e-08
3370.77	-1.79404e-07
3380.82	-2.85597e-07
3390.88	-3.88804e-07
3400.02	-4.79094e-07
3410.07	-5.73484e-07
3420.12	-6.61646e-07
3430.18	-7.42555e-07
3440.23	-8.15285e-07
3450.28	-8.79056e-07
3460.34	-9.33254e-07
3470.39	-9.77458e-07
3480.44	-1.01145e-06
3490.5	-1.03523e-06
3500.55	-1.04901e-06
3510.6	-1.05322e-06
3520.66	-1.04847e-06
3530.71	-1.03554e-06
3540.76	-1.0154e-06
3550.82	-9.89108e-07
3560.87	-9.57866e-07
3570.01	-9.26279e-07
3580.06	-8.89412e-07
3590.12	-8.52041e-07
3600.17	-8.16428e-07
3610.22	-7.85721e-07
3620.28	-7.64592e-07
3630.33	-7.60245e-07
3640.38	-7.83895e-07
3650.44	-8.52897e-07
3660.49	-9.93618e-07
3670.54	-1.2452e-06
3680.6	-1.66417e-06
3690.65	-2.32999e-06
3700.7	-3.35114e-06
3710.76	-4.87155e-06
3720.81	-7.0768e-06
3730.86	-1.01996e-05
3740	-1.40723e-05
3750.05	-1.97787e-05
3760.11	-2.73734e-05
3770.16	-3.72885e-05
3780.21	-4.9998e-05
3790.27	-6.60082e-05
3800.32	-8.58467e-05
3810.37	-0.000110049
3820.43	-0.000139147
3830.48	-0.000173654
3840.53	-0.000214057
3850.59	-0.000260807
3860.64	-0.000314318
3870.69	-0.00037496
3880.75	-0.000443069
3890.8	-0.000518948
3900.85	-0.000602878
3910.91	-0.00069513
3920.05	-0.000786446
3930.1	-0.000895351
3940.15	-0.00101342
3950.21	-0.001141
3960.26	-0.00127848
3970.31	-0.00142632
3980.37	-0.00158503
3990.42	-0.00175518
4000.47	-0.00193741
4010.53	-0.00213243
4020.58	-0.002341
4030.63	-0.00256395
4040.69	-0.00280213
4050.74	-0.00305646
4060.79	-0.00332788
4070.85	-0.00361732
4080.9	-0.00392573
4090.04	-0.00422333
4100.09	-0.00457041
4110.15	-0.00493889
4120.2	-0.00532938
4130.25	-0.00574232
4140.31	-0.00617792
4150.36	-0.00663616
4160.41	-0.00711673
4170.47	-0.00761901
4180.52	-0.00814212
4190.58	-0.00868491
4200.63	-0.00924601
4210.68	-0.00982388
4220.74	-0.0104169
4230.79	-0.0110235
4240.84	-0.011642
4250.9	-0.0122712
4260.04	-0.0128514
4270.09	-0.013498
4280.15	-0.0141527
4290.2	-0.0148154
4300.25	-0.0154861
4310.31	-0.0161653
4320.36	-0.0168535
4330.41	-0.0175512
4340.47	-0.0182589
4350.52	-0.0189767
4360.58	-0.0197044
4370.63	-0.0204409
4380.68	-0.0211844
4390.74	-0.0219319
4400.79	-0.0226795
4410.84	-0.0234217
4420.9	-0.024152
4430.04	-0.0247988
4440.09	-0.0254832
4450.15	-0.0261291
4460.2	-0.0267253
4470.25	-0.0272601
4480.31	-0.0277209
4490.36	-0.0280952
4500.41	-0.0283704
4510.47	-0.0285344
4520.52	-0.0285757
4530.58	-0.0284832
4540.63	-0.0282466
4550.68	-0.027856
4560.74	-0.0273015
4570.79	-0.0265726
4580.84	-0.0256574
4590.9	-0.0245417
4600.04	-0.0233386
4610.09	-0.0217866
4620.15	-0.0199678
4630.2	-0.0178471
4640.25	-0.0153808
4650.31	-0.0125167
4660.36	-0.00919366
4670.41	-0.00534191
4680.47	-0.000884793
4690.52	0.00425914
4700.58	0.010173
4710.63	0.0169373
4720.68	0.0246256
4730.74	0.0332991
4740.79	0.0430017
4750.84	0.0537549
4760.9	0.0655548
4770.04	0.0771632
4780.09	0.0908462
4790.15	0.105401
4800.2	0.120716
4810.25	0.136658
4820.31	0.153082
4830.36	0.169833
4840.41	0.186761
4850.47	0.203722
4860.52	0.220588
4870.58	0.237252
4880.63	0.253629
4890.68	0.269659
4900.74	0.285307
4910.79	0.300558
4920.85	0.315415
4930.9	0.329894
4940.04	0.342748
4950.09	0.356572
4960.15	0.370087
4970.2	0.383312
4980.25	0.396253
4990.31	0.408909
5000.36	0.421263
5010.42	0.433286
5020.47	0.444936
5030.52	0.45616
5040.58	0.466894
5050.63	0.477067
5060.68	0.486599
5070.74	0.495408
5080.79	0.503409
5090.85	0.510515
5100.9	0.516642
5110.04	0.521296
5120.09	0.525338
5130.15	0.528182
5140.2	0.529767
5150.26	0.53004
5160.31	0.528954
5170.36	0.526473
5180.42	0.522569
5190.47	0.517224
5200.52	0.510426
5210.58	0.502173
5220.63	0.492473
5230.69	0.481342
5240.74	0.468806
5250.79	0.454903
5260.85	0.439683
5270.9	0.423211
5280.04	0.407215
5290.09	0.388584
5300.15	0.368974
5310.2	0.348514
5320.26	0.327344
5330.31	0.305621
5340.36	0.283514
5350.42	0.2612
5360.47	0.23886
5370.53	0.216675
5380.58	0.194822
5390.63	0.173466
5400.69	0.152757
5410.74	0.132826
5420.79	0.113778
5430.85	0.0956897
5440.9	0.0786099
5450.04	0.0639723
5460.1	0.0488368
5470.15	0.034672
5480.2	0.0214078
5490.26	0.00894948
5500.31	-0.00281833
5510.36	-0.0140274
5520.42	-0.0248207
5530.47	-0.0353474
5540.53	-0.0457578
5550.58	-0.0561984
5560.63	-0.0668071
5570.69	-0.0777089
5580.74	-0.0890121
5590.8	-0.100805
5600.85	-0.113152
5610.9	-0.126092
5620.04	-0.138381
5630.1	-0.15246
5640.15	-0.167083
5650.2	-0.182173
5660.26	-0.197626
5670.31	-0.213305
5680.37	-0.229052
5690.42	-0.244683
5700.47	-0.259997
5710.53	-0.274776
5720.58	-0.288797
5730.63	-0.301835
5740.69	-0.313668
5750.74	-0.324086
5760.8	-0.332896
5770.85	-0.339929
5780.9	-0.345041
5790.04	-0.347928
5800.1	-0.349096
5810.15	-0.348116
5820.2	-0.344979
5830.26	-0.339711
5840.31	-0.332369
5850.37	-0.323044
5860.42	-0.311853
5870.47	-0.298941
5880.53	-0.284473
5890.58	-0.268637
5900.64	-0.251638
5910.69	-0.233696
5920.74	-0.215043
5930.8	-0.195917
5940.85	-0.176565
5950.9	-0.157231
5960.04	-0.139871
5970.1	-0.121226
5980.15	-0.103261
5990.21	-0.0861678
6000.26	-0.0701111
6010.31	-0.0552249
6020.37	-0.0416085
6030.42	-0.0293246
6040.48	-0.0183997
6050.53	-0.00882517
6060.58	-0.000561072
6070.64	0.00645989
6080.69	0.0123266
6090.74	0.0171435
6100.8	0.0210239
6110.85	0.0240843
6120.91	0.0264381
6130.05	0.0280538
6140.1	0.0293424
6150.15	0.0301968
6160.21	0.0306818
6170.26	0.0308448
6180.31	0.0307164
6190.37	0.0303111
6200.42	0.0296291
6210.48	0.0286581
6220.53	0.0273761
6230.58	0.0257537
6240.64	0.0237572
6250.69	0.0213512
6260.75	0.018502
6270.8	0.0151793
6280.85	0.01136
6290.91	0.00702956
6300.05	0.00264634
6310.1	-0.002658
6320.15	-0.00844601
6330.21	-0.0146803
6340.26	-0.0213083
6350.32	-0.0282628
6360.37	-0.0354627
6370.42	-0.0428153
6380.48	-0.0502183
6390.53	-0.057563
6400.59	-0.0647374
6410.64	-0.0716301
6420.69	-0.0781342
6430.75	-0.0841504
6440.8	-0.089591
6450.85	-0.0943825
6460.91	-0.098468
6470.05	-0.101537
6480.1	-0.104184
6490.16	-0.106066
6500.21	-0.107202
6510.26	-0.107626
6520.32	-0.107389
6530.37	-0.106554
6540.43	-0.105198
6550.48	-0.103401
6560.53	-0.101251
6570.59	-0.0988346
6580.64	-0.0962392
6590.69	-0.0935465
6600.75	-0.0908324
6610.8	-0.0881647
6620.86	-0.0856019
6630.91	-0.0831924
6640.05	-0.0811673
6650.1	-0.0791479
6660.16	-0.077365
6670.21	-0.0758287
6680.27	-0.0745413
6690.32	-0.0734983
6700.37	-0.0726895
6710.43	-0.0721
6720.48	-0.071712
6730.53	-0.0715049
6740.59	-0.0714567
6750.64	-0.0715446
6760.7	-0.0717455
6770.75	-0.0720363
6780.8	-0.0723943
6790.86	-0.0727973
6800.91	-0.0732237
6810.05	-0.073614
6820.1	-0.0740274
6830.16	-0.0744049
6840.21	-0.0747272
6850.27	-0.0749759
6860.32	-0.075133
6870.37	-0.0751815
6880.43	-0.0751051
6890.48	-0.0748888
6900.54	-0.0745185
6910.59	-0.0739818
6920.64	-0.0732679
6930.7	-0.0723676
6940.75	-0.0712739
6950.8	-0.069982
6960.86	-0.0684894
6970.91	-0.0667962
6980.05	-0.0650848
6990.11	-0.0630178
7000.16	-0.0607649
7010.21	-0.0583362
7020.27	-0.0557444
7030.32	-0.0530045
7040.37	-0.0501339
7050.43	-0.0471516
7060.48	-0.0440789
7070.54	-0.0409381
7080.59	-0.037753
7090.64	-0.034548
7100.7	-0.0313483
7110.75	-0.0281789
7120.81	-0.0250651
7130.86	-0.0220313
7140.91	-0.0191012
7150.05	-0.0165465
7160.11	-0.0138757
7170.16	-0.01137
7180.21	-0.0090467
7190.27	-0.00692135
7200.32	-0.00500692
7210.38	-0.00331391
7220.43	-0.00185016
7230.48	-0.000620775
7240.54	0.000371933
7250.59	0.00112848
7260.64	0.00165218
7270.7	0.00194911
7280.75	0.00202796
7290.81	0.00189995
7300.86	0.00157861
7310.91	0.00107955
7320.05	0.000486305
7330.11	-0.000302269
7340.16	-0.00121381
7350.21	-0.00222731
7360.27	-0.0033212
7370.32	-0.00447372
7380.37	-0.00566321
7390.43	-0.00686843
7400.48	-0.00806888
7410.54	-0.009245
7420.59	-0.0103784
7430.64	-0.011452
7440.7	-0.0124502
7450.75	-0.0133589
7460.8	-0.0141656
7470.86	-0.0148593
7480.91	-0.0154306
7490.05	-0.0158373
7500.1	-0.0161547
7510.16	-0.0163312
7520.21	-0.0163634
7530.27	-0.0162494
7540.32	-0.0159885
7550.37	-0.0155817
7560.43	-0.0150314
7570.48	-0.0143412
7580.53	-0.0135165
7590.59	-0.0125638
7600.64	-0.0114912
7610.69	-0.0103078
7620.75	-0.00902417
7630.8	-0.00765201
7640.85	-0.00620394
7650.91	-0.00469344
7660.05	-0.00327801
7670.1	-0.00168814
7680.16	-7.83658e-05
7690.21	0.00153619
7700.26	0.00314042
7710.32	0.00471946
7720.37	0.00625884
7730.42	0.00774469
7740.48	0.00916386
7750.53	0.0105041
7760.58	0.0117542
7770.64	0.0129041
7780.69	0.0139452
7790.75	0.01487
7800.8	0.0156731
7810.85	0.0163502
7820.91	0.0168992
7830.05	0.0172867
7840.1	0.0175913
7850.15	0.0177718
7860.21	0.017833
7870.26	0.0177819
7880.31	0.0176267
7890.37	0.0173777
7900.42	0.0170459
7910.48	0.0166436
7920.53	0.0161841
7930.58	0.0156806
7940.64	0.015147
7950.69	0.0145964
7960.74	0.0140419
7970.8	0.0134955
7980.85	0.0129681
7990.91	0.0124694
8000.04	0.0120479
8010.1	0.0116252
8020.15	0.0112503
8030.21	0.0109261
8040.26	0.0106541
8050.31	0.0104336
8060.37	0.0102625
8070.42	0.0101369
8080.47	0.0100516
8090.53	0.00999972
8100.58	0.00997357
8110.64	0.0099643
8120.69	0.00996235
8130.74	0.00995763
8140.8	0.00993973
8150.85	0.00989823
8160.9	0.0098229
8170.04	0.0097168
8180.1	0.00955027
8190.15	0.00932352
8200.21	0.00902935
8210.26	0.00866183
8220.31	0.00821641
8230.37	0.00769003
8240.42	0.00708113
8250.47	0.00638968
8260.53	0.00561706
8270.58	0.00476597
8280.64	0.00384021
8290.69	0.00284449
8300.74	0.00178415
8310.8	0.000664874
8320.85	-0.000507596
8330.9	-0.00172777
8340.04	-0.00287421
8350.1	-0.00417227
8360.15	-0.00550586
8370.21	-0.00687275
8380.26	-0.0082719
8390.31	-0.00970353
8400.37	-0.011169
8410.42	-0.012671
8420.47	-0.0142128
8430.53	-0.0157988
8440.58	-0.0174339
8450.64	-0.0191232
8460.69	-0.0208721
8470.74	-0.0226856
8480.8	-0.0245686
8490.85	-0.026525
8500.9	-0.0285581
8510.04	-0.0304748
8520.1	-0.0326595
8530.15	-0.034924
8540.21	-0.0372667
8550.26	-0.0396846
8560.31	-0.0421731
8570.37	-0.0447261
8580.42	-0.0473357
8590.47	-0.0499926
8600.53	-0.0526858
8610.58	-0.055403
8620.64	-0.0581301
8630.69	-0.0608522
8640.74	-0.0635527
8650.8	-0.0662145
8660.85	-0.0688194
8670.91	-0.0713486
8680.05	-0.0735663
8690.1	-0.0758981
8700.15	-0.0780989
8710.21	-0.08015
8720.26	-0.0820335
8730.31	-0.0837324
8740.37	-0.0852307
8750.42	-0.086514
8760.48	-0.0875692
8770.53	-0.0883848
8780.58	-0.0889511
8790.64	-0.0892602
8800.69	-0.089306
8810.74	-0.0890844
8820.8	-0.0885929
8830.85	-0.0878308
8840.91	-0.086799
8850.05	-0.0856293
8860.1	-0.0840914
8870.15	-0.0822955
8880.21	-0.0802483
8890.26	-0.0779578
8900.32	-0.0754329
8910.37	-0.0726839
8920.42	-0.0697219
8930.48	-0.0665588
8940.53	-0.0632076
8950.58	-0.0596822
8960.64	-0.0559972
8970.69	-0.0521679
8980.75	-0.0482104
8990.8	-0.0441417
9000.85	-0.0399791
9010.91	-0.0357405
9020.05	-0.031837
9030.1	-0.027505
9040.15	-0.0231517
9050.21	-0.018796
9060.26	-0.014457
9070.32	-0.0101533
9080.37	-0.00590329
9090.42	-0.00172467
9100.48	0.00236567
9110.53	0.00635176
9120.58	0.0102187
9130.64	0.013953
9140.69	0.0175422
9150.75	0.0209756
9160.8	0.0242437
9170.85	0.0273387
9180.91	0.0302542
9190.05	0.0327447
9200.1	0.0353052
9210.15	0.0376759
9220.21	0.039856
9230.26	0.0418461
9240.32	0.0436477
9250.37	0.0452636
9260.42	0.0466977
9270.48	0.0479549
9280.53	0.0490409
9290.58	0.0499627
9300.64	0.0507278
9310.69	0.0513448
9320.75	0.0518232
9330.8	0.0521732
9340.85	0.0524058
9350.91	0.052533
9360.05	0.0525675
9370.1	0.0525286
9380.16	0.0524224
9390.21	0.0522632
9400.26	0.0520656
9410.32	0.0518447
9420.37	0.0516154
9430.42	0.0513929
9440.48	0.0511921
9450.53	0.0510276
9460.59	0.0509133
9470.64	0.0508627
9480.69	0.050888
9490.75	0.0510006
9500.8	0.0512103
9510.85	0.0515255
9520.91	0.051953
9530.05	0.0524433
9540.1	0.053097
9550.16	0.0538717
9560.21	0.054766
9570.26	0.0557768
9580.32	0.0568983
9590.37	0.0581231
9600.43	0.0594413
9610.48	0.0608414
9620.53	0.0623101
9630.59	0.0638327
9640.64	0.0653932
9650.69	0.0669749
9660.75	0.0685603
9670.8	0.0701318
9680.86	0.0716721
9690.91	0.0731639
9700.05	0.0744643
9710.1	0.0758193
9720.16	0.0770813
9730.21	0.0782378
9740.26	0.0792775
9750.32	0.0801911
9760.37	0.080971
9770.43	0.0816113
9780.48	0.082108
9790.53	0.0824589
9800.59	0.0826633
9810.64	0.0827222
9820.7	0.0826378
9830.75	0.0824137
9840.8	0.0820548
9850.86	0.0815667
9860.91	0.080956
9870.05	0.0803004
9880.1	0.0794762
9890.16	0.0785516
9900.21	0.0775352
9910.27	0.0764355
9920.32	0.0752609
9930.37	0.0740198
9940.43	0.0727201
9950.48	0.0713694
9960.54	0.0699746
9970.59	0.068542
9980.64	0.0670767
9990.7	0.0655831
10000.8	0.0640645
10010.8	0.0625227
10020.9	0.0609586
10030.9	0.0593717
10040.1	0.0579078
10050.1	0.0562714
10060.2	0.0546039
10070.2	0.0529002
10080.3	0.0511548
10090.3	0.0493612
10100.4	0.0475128
10110.4	0.0456029
10120.5	0.0436248
10130.5	0.0415723
10140.6	0.0394402
10150.6	0.0372239
10160.7	0.0349202
10170.8	0.0325273
10180.8	0.0300451
10190.9	0.0274748
10200.9	0.0248198
10210.1	0.0223367
10220.1	0.0195351
10230.2	0.0166679
10240.2	0.0137448
10250.3	0.0107769
10260.3	0.00777642
10270.4	0.00475648
10280.4	0.00173098
10290.5	-0.00128577
10300.5	-0.00427926
10310.6	-0.00723505
10320.6	-0.010139
10330.7	-0.0129774
10340.8	-0.0157375
10350.8	-0.0184071
10360.9	-0.0209754
10370.9	-0.0234325
10380.1	-0.0255625
10390.1	-0.0277848
10400.2	-0.0298748
10410.2	-0.0318278
10420.3	-0.0336406
10430.3	-0.0353112
10440.4	-0.0368388
10450.4	-0.0382239
10460.5	-0.039468
10470.5	-0.0405737
10480.6	-0.0415445
10490.6	-0.0423849
10500.7	-0.0431001
10510.8	-0.0436959
10520.8	-0.0441791
10530.9	-0.0445569
10540.9	-0.0448368
10550.1	-0.0450134
10560.1	-0.0451297
10570.2	-0.0451728
10580.2	-0.0451517
10590.3	-0.0450751
10600.3	-0.0449519
10610.4	-0.0447906
10620.4	-0.044599
10630.5	-0.0443846
10640.5	-0.044154
10650.6	-0.0439127
10660.6	-0.043665
10670.7	-0.0434142
10680.8	-0.043162
10690.8	-0.0429086
10700.9	-0.042653
10710	-0.0424166
10720.1	-0.0421483
10730.1	-0.0418667
10740.2	-0.0415656
10750.2	-0.0412383
10760.3	-0.0408775
10770.3	-0.0404755
10780.4	-0.0400251
10790.4	-0.0395194
10800.5	-0.0389523
10810.5	-0.0383189
10820.6	-0.0376158
10830.6	-0.0368412
10840.7	-0.0359952
10850.8	-0.0350799
10860.8	-0.0340995
10870.9	-0.0330602
10880	-0.0320712
10890.1	-0.0309439
10900.1	-0.0297866
10910.2	-0.0286123
10920.2	-0.0274349
10930.3	-0.0262693
10940.3	-0.0251306
10950.4	-0.0240339
10960.4	-0.0229942
10970.5	-0.0220257
10980.5	-0.0211414
10990.6	-0.0203534
11000.6	-0.0196721
11010.7	-0.0191063
11020.8	-0.0186629
11030.8	-0.0183473
11040.9	-0.0181627
11050	-0.0181099
11060.1	-0.0181784
11070.1	-0.0183778
11080.2	-0.0187052
11090.2	-0.0191564
11100.3	-0.0197262
11110.3	-0.0204086
11120.4	-0.0211971
11130.4	-0.0220846
11140.5	-0.0230642
11150.5	-0.0241286
11160.6	-0.0252709
11170.6	-0.0264845
11180.7	-0.0277629
11190.8	-0.0291002
11200.8	-0.0304908
11210.9	-0.0319296
11220	-0.0332753
11230.1	-0.0347928
11240.1	-0.0363453
11250.2	-0.0379286
11260.2	-0.0395383
11270.3	-0.0411704
11280.3	-0.0428204
11290.4	-0.0444837
11300.4	-0.0461551
11310.5	-0.0478292
11320.5	-0.0495003
11330.6	-0.051162
11340.6	-0.0528076
11350.7	-0.05443
11360.8	-0.0560217
11370.8	-0.057575
11380.9	-0.059082
11390	-0.0604051
11400.1	-0.0618018
11410.1	-0.0631294
11420.2	-0.0643805
11430.2	-0.0655483
11440.3	-0.0666261
11450.3	-0.0676083
11460.4	-0.0684899
11470.4	-0.0692665
11480.5	-0.0699349
11490.5	-0.0704927
11500.6	-0.0709384
11510.6	-0.0712716
11520.7	-0.0714929
11530.8	-0.0716039
11540.8	-0.0716072
11550.9	-0.0715062
11560	-0.0713276
11570.1	-0.0710407
11580.1	-0.0706649
11590.2	-0.0702073
11600.2	-0.0696756
11610.3	-0.0690781
11620.3	-0.0684241
11630.4	-0.0677231
11640.4	-0.0669854
11650.5	-0.0662217
11660.5	-0.0654429
11670.6	-0.0646603
11680.6	-0.0638852
11690.7	-0.0631291
11700.8	-0.0624033
11710.8	-0.0617188
11720.9	-0.0610863
11730	-0.0605652
11740.1	-0.06006
11750.1	-0.0596348
11760.2	-0.0592974
11770.2	-0.0590549
11780.3	-0.0589132
11790.3	-0.0588768
11800.4	-0.0589491
11810.4	-0.059132
11820.5	-0.0594259
11830.5	-0.0598301
11840.6	-0.0603421
11850.6	-0.060958
11860.7	-0.0616727
11870.8	-0.0624797
11880.8	-0.0633712
11890.9	-0.0643382
11900	-0.0652744
11910.1	-0.0663571
11920.1	-0.0674839
11930.2	-0.0686425
11940.2	-0.0698202
11950.3	-0.0710038
11960.3	-0.0721801
11970.4	-0.0733357
11980.4	-0.0744576
11990.5	-0.0755328
12000.5	-0.0765489
12010.6	-0.0774939
12020.6	-0.0783567
12030.7	-0.0791269
12040.8	-0.0797952
12050.8	-0.0803531
12060.9	-0.0807935
12070	-0.0810867
12080.1	-0.0812872
12090.1	-0.0813562
12100.2	-0.0812918
12110.2	-0.0810933
12120.3	-0.0807612
12130.3	-0.0802979
12140.4	-0.0797067
12150.4	-0.0789923
12160.5	-0.078161
12170.5	-0.07722
12180.6	-0.0761775
12190.6	-0.075043
12200.7	-0.0738265
12210.8	-0.072539
12220.8	-0.0711919
12230.9	-0.0697969
12240.9	-0.0683661
12250.1	-0.0670446
12260.1	-0.065579
12270.2	-0.0641123
12280.2	-0.0626558
12290.3	-0.0612201
12300.3	-0.0598152
12310.4	-0.0584499
12320.4	-0.0571322
12330.5	-0.0558691
12340.5	-0.054666
12350.6	-0.0535273
12360.6	-0.0524561
12370.7	-0.0514541
12380.8	-0.0505217
12390.8	-0.049658
12400.9	-0.0488609
12410.9	-0.0481273
12420.1	-0.0475119
12430.1	-0.046887
12440.2	-0.0463109
12450.2	-0.0457773
12460.3	-0.0452793
12470.3	-0.0448097
12480.4	-0.0443611
12490.4	-0.0439262
12500.5	-0.0434976
12510.5	-0.0430684
12520.6	-0.0426318
12530.6	-0.0421815
12540.7	-0.0417116
12550.8	-0.0412169
12560.8	-0.0406925
12570.9	-0.0401342
12580	-0.0395941
12590.1	-0.0389611
12600.1	-0.0382848
12610.2	-0.0375627
12620.2	-0.0367929
12630.3	-0.0359737
12640.3	-0.0351038
12650.4	-0.0341822
12660.4	-0.0332079
12670.5	-0.0321803
12680.5	-0.031099
12690.6	-0.0299638
12700.6	-0.0287745
12710.7	-0.0275312
12720.8	-0.0262343
12730.8	-0.0248843
12740.9	-0.0234819
12750	-0.0221622
12760.1	-0.0206623
12770.1	-0.0191131
12780.2	-0.0175161
12790.2	-0.0158726
12800.3	-0.0141845
12810.3	-0.0124534
12820.4	-0.0106809
12830.4	-0.00886879
12840.5	-0.0070186
12850.5	-0.00513186
12860.6	-0.00320992
12870.6	-0.00125401
12880.7	0.000734786
12890.8	0.00275553
12900.8	0.00480741
12910.9	0.00688969
12920	0.00880848
12930.1	0.0109469
12940.1	0.0131137
12950.2	0.0153081
12960.2	0.017529
12970.3	0.0197752
12980.3	0.0220453
12990.4	0.0243376
13000.4	0.0266499
13010.5	0.0289799
13020.5	0.0313248
13030.6	0.0336816
13040.6	0.036047
13050.7	0.0384174
13060.8	0.040789
13070.8	0.0431577
13080.9	0.0455195
13090	0.047657
13100.1	0.0499938
13110.1	0.0523114
13120.2	0.0546057
13130.2	0.0568725
13140.3	0.0591078
13150.3	0.0613079
13160.4	0.063469
13170.4	0.0655875
13180.5	0.0676599
13190.5	0.069683
13200.6	0.0716534
13210.6	0.0735682
13220.7	0.0754241
13230.8	0.0772182
13240.8	0.0789476
13250.9	0.0806094
13260	0.0820592
13270.1	0.0835843
13280.1	0.0850342
13290.2	0.0864067
13300.2	0.0877
13310.3	0.0889127
13320.3	0.090044
13330.4	0.0910939
13340.4	0.0920631
13350.5	0.0929529
13360.5	0.0937656
13370.6	0.094504
13380.6	0.0951718
13390.7	0.0957729
13400.8	0.096312
13410.8	0.0967937
13420.9	0.0972229
13430	0.0975717
13440.1	0.0979144
13450.1	0.0982185
13460.2	0.0984885
13470.2	0.0987284
13480.3	0.0989419
13490.3	0.0991323
13500.4	0.0993025
13510.4	0.099455
13520.5	0.0995918
13530.5	0.0997149
13540.6	0.0998256
13550.7	0.099925
13560.7	0.100014
13570.8	0.100094
13580.8	0.100164
13590.9	0.100226
13600	0.100275
13610.1	0.100321
13620.1	0.100359
13630.2	0.10039
13640.2	0.100415
13650.3	0.100433
13660.3	0.100446
13670.4	0.100455
13680.4	0.10046
13690.5	0.100465
13700.5	0.100469
13710.6	0.100475
13720.7	0.100486
13730.7	0.100502
13740.8	0.100526
13750.8	0.10056
13760.9	0.100605
13770	0.100657
13780.1	0.100727
13790.1	0.10081
13800.2	0.100908
13810.2	0.101018
13820.3	0.101139
13830.3	0.10127
13840.4	0.101406
13850.4	0.101545
13860.5	0.101682
13870.5	0.10181
13880.6	0.101925
13890.7	0.10202
13900.7	0.102087
13910.8	0.10212
13920.8	0.102109
13930.9	0.102047
13940	0.10194
13950.1	0.101759
13960.1	0.101503
13970.2	0.101165
13980.2	0.100739
13990.3	0.100217
14000.3	0.0995957
14010.4	0.0988693
14020.4	0.0980349
14030.5	0.0970903
14040.5	0.0960345
14050.6	0.0948679
14060.7	0.0935925
14070.7	0.0922112
14080.8	0.0907286
14090.8	0.0891505
14100.9	0.087484
14110	0.085899
14120.1	0.084087
14130.1	0.0822129
14140.2	0.0802871
14150.2	0.0783209
14160.3	0.0763254
14170.3	0.0743121
14180.4	0.0722922
14190.4	0.0702766
14200.5	0.0682755
14210.5	0.0662985
14220.6	0.0643542
14230.7	0.0624501
14240.7	0.0605926
14250.8	0.0587868
14260.8	0.0570364
14270.9	0.055344
14280	0.0538566
14290.1	0.0522767
14300.1	0.0507546
14310.2	0.0492878
14320.2	0.0478731
14330.3	0.0465063
14340.3	0.0451826
14350.4	0.0438967
14360.4	0.0426427
14370.5	0.0414148
14380.5	0.0402068
14390.6	0.0390128
14400.7	0.037827
14410.7	0.0366437
14420.8	0.0354579
14430.8	0.0342645
14440.9	0.0330592
14450	0.0319497
14460.1	0.0307107
14470.1	0.0294494
14480.2	0.0281628
14490.2	0.0268485
14500.3	0.0255043
14510.3	0.0241286
14520.4	0.0227197
14530.4	0.0212762
14540.5	0.0197972
14550.6	0.0182817
14560.6	0.016729
14570.7	0.0151385
14580.7	0.0135099
14590.8	0.011843
14600.8	0.0101377
14610.9	0.00839442
14620	0.00677692
14630.1	0.00496238
14640.1	0.00311179
14650.2	0.00122638
14660.2	-0.000692311
14670.3	-0.00264245
14680.3	-0.00462188
14690.4	-0.00662815
14700.4	-0.00865851
14710.5	-0.0107099
14720.6	-0.0127792
14730.6	-0.0148628
14740.7	-0.0169573
14750.7	-0.0190588
14760.8	-0.0211636
14770.8	-0.0232681
14780.9	-0.0253684
14790	-0.0272711
14800.1	-0.0293536
14810.1	-0.0314217
14820.2	-0.0334724
14830.2	-0.0355025
14840.3	-0.0375095
14850.3	-0.0394906
14860.4	-0.0414438
14870.4	-0.043367
14880.5	-0.0452583
14890.6	-0.0471165
14900.6	-0.0489404
14910.7	-0.050729
14920.7	-0.0524818
14930.8	-0.0541986
14940.8	-0.0558793
14950.9	-0.0575242
14960	-0.0589891
14970.1	-0.0605677
14980.1	-0.062113
14990.2	-0.0636264
15000.2	-0.0651095
15010.3	-0.0665642
15020.3	-0.0679924
15030.4	-0.0693962
15040.4	-0.070778
15050.5	-0.0721399
15060.6	-0.0734845
15070.6	-0.0748138
15080.7	-0.0761303
15090.7	-0.0774358
15100.8	-0.0787322
15110.8	-0.0800213
15120.9	-0.081304
15130	-0.0824655
15140.1	-0.0837384
15150.1	-0.0850062
15160.2	-0.0862682
15170.2	-0.087523
15180.3	-0.0887688
15190.3	-0.0900027
15200.4	-0.0912213
15210.4	-0.0924205
15220.5	-0.0935952
15230.6	-0.0947398
15240.6	-0.0958481
15250.7	-0.0969131
15260.7	-0.0979275
15270.8	-0.0988833
15280.8	-0.0997723
15290.9	-0.100586
15300	-0.101253
15310.1	-0.101899
15320.1	-0.102445
15330.2	-0.102882
15340.2	-0.103202
15350.3	-0.103397
15360.3	-0.103461
15370.4	-0.103386
15380.4	-0.103167
15390.5	-0.102798
15400.6	-0.102275
15410.6	-0.101594
15420.7	-0.100752
15430.7	-0.0997464
15440.8	-0.0985774
15450.8	-0.0972442
15460.9	-0.0957475
15470	-0.0942463
15480.1	-0.0924426
15490.1	-0.0904821
15500.2	-0.0883688
15510.2	-0.0861072
15520.3	-0.0837027
15530.3	-0.0811611
15540.4	-0.0784889
15550.4	-0.0756931
15560.5	-0.0727812
15570.6	-0.069761
15580.6	-0.0666409
15590.7	-0.0634295
15600.7	-0.0601357
15610.8	-0.0567688
15620.8	-0.0533382
15630.9	-0.0498533
15640	-0.0466464
15650.1	-0.0430852
15660.1	-0.0394981
15670.2	-0.0358951
15680.2	-0.0322859
15690.3	-0.0286802
15700.3	-0.0250878
15710.4	-0.021518
15720.5	-0.0179804
15730.5	-0.014484
15740.6	-0.0110379
15750.6	-0.00765079
15760.7	-0.00433131
15770.7	-0.00108773
15780.8	0.00207193
15790.8	0.00513991
15800.9	0.00810871
15810	0.0107155
15820.1	0.0134752
15830.1	0.0161157
15840.2	0.0186306
15850.2	0.0210138
15860.3	0.0232598
15870.3	0.0253633
15880.4	0.0273192
15890.5	0.029123
15900.5	0.0307705
15910.6	0.032258
15920.6	0.0335822
15930.7	0.03474
15940.7	0.0357291
15950.8	0.0365473
15960.8	0.0371931
15970.9	0.0376654
15980	0.0379434
15990.1	0.0380827
16000.1	0.0380478
16010.2	0.0378395
16020.2	0.0374592
16030.3	0.0369089
16040.3	0.036191
16050.4	0.0353086
16060.5	0.0342653
16070.5	0.033065
16080.6	0.0317119
16090.6	0.0302107
16100.7	0.0285658
16110.7	0.0267823
16120.8	0.0248649
16130.8	0.0228185
16140.9	0.0206481
16150	0.0185716
16160.1	0.0161782
16170.1	0.0136754
16180.2	0.0110684
16190.2	0.00836247
16200.3	0.00556331
16210.3	0.00267689
16220.4	-0.000290399
16230.5	-0.00333158
16240.5	-0.00643904
16250.6	-0.00960437
16260.6	-0.0128183
16270.7	-0.0160705
16280.7	-0.0193498
16290.8	-0.022644
16300.8	-0.02594
16310.9	-0.0292242
16320	-0.0321874
16330.1	-0.0354089
16340.1	-0.0385764
16350.2	-0.0416752
16360.2	-0.0446912
16370.3	-0.0476105
16380.3	-0.0504197
16390.4	-0.0531059
16400.5	-0.0556564
16410.5	-0.0580592
16420.6	-0.0603024
16430.6	-0.0623746
16440.7	-0.0642648
16450.7	-0.0659626
16460.8	-0.0674583
16470.8	-0.0687434
16480.9	-0.0698104
16490	-0.070586
16500.1	-0.0712216
16510.1	-0.0716264
16520.2	-0.0717997
16530.2	-0.0717426
16540.3	-0.071458
16550.3	-0.0709506
16560.4	-0.0702268
16570.5	-0.0692948
16580.5	-0.0681641
16590.6	-0.0668457
16600.6	-0.0653519
16610.7	-0.0636963
16620.7	-0.0618936
16630.8	-0.0599595
16640.8	-0.0579104
16650.9	-0.0557636
16660	-0.053742
16670.1	-0.0514578
16680.1	-0.0491279
16690.2	-0.0467701
16700.2	-0.0444021
16710.6	-0.0419725
16720.6	-0.0396357
16730.7	-0.0373383
16740.7	-0.0350952
16750.8	-0.03292
16760.9	-0.0308251
16770.9	-0.0288217
16780.1	-0.0270883
16790.1	-0.0252858
16800.2	-0.0235996
16810.2	-0.0220352
16820.3	-0.0205969
16830.3	-0.0192875
16840.4	-0.0181083
16850.2	-0.0170854
16860.2	-0.0161619
16870.3	-0.0153649
16880.3	-0.0146907
16890.4	-0.014135
16900.4	-0.013692
16910.5	-0.0133555
16920.5	-0.0131184
16930.6	-0.0129731
16940.6	-0.0129114
16950.7	-0.0129246
16960.8	-0.0130039
16970.8	-0.0131401
16980.9	-0.0133239
16990	-0.0135246
17000.1	-0.0137737
17010.6	-0.0140586
17020.7	-0.0143414
17030.7	-0.0146278
17040.8	-0.0149097
17050.1	-0.0151597
17060.8	-0.0154278
17070.8	-0.0156536
17080	-0.0158348
17090.2	-0.016
