Problem size with different number of CPUs using function optimization
THREADS	MTPS	TIMESTEPS	TIMESTEP_SIZE	SECONDS_FOR_SIMULATION	AVERAGE_TRIANGLES	AVERAGE_PARTITIONS
80	55.7885	100	0.000491318	34.1413	1.90469e+07	1158.74
79	55.4092	100	0.000491318	34.375	1.90469e+07	1158.74
77	56.1416	100	0.000491318	33.9266	1.90469e+07	1158.74
76	54.4668	100	0.000491318	34.9697	1.90469e+07	1158.74
75	52.7819	100	0.000491318	36.0861	1.90469e+07	1158.74
74	54.4763	100	0.000491318	34.9636	1.90469e+07	1158.74
73	52.9945	100	0.000491318	35.9413	1.90469e+07	1158.74
72	52.8077	100	0.000491318	36.0684	1.90469e+07	1158.74
71	52.2808	100	0.000491318	36.4319	1.90469e+07	1158.74
70	51.9167	100	0.000491318	36.6875	1.90469e+07	1158.74
69	51.8146	100	0.000491318	36.7597	1.90469e+07	1158.74
68	52.8867	100	0.000491318	36.0145	1.90469e+07	1158.74
67	50.4852	100	0.000491318	37.7277	1.90469e+07	1158.74
66	48.9126	100	0.000491318	38.9407	1.90469e+07	1158.74
65	48.7517	100	0.000491318	39.0692	1.90469e+07	1158.74
64	46.0507	100	0.000491318	41.3608	1.90469e+07	1158.74
63	46.9653	100	0.000491318	40.5553	1.90469e+07	1158.74
62	46.7364	100	0.000491318	40.7539	1.90469e+07	1158.74
61	49.3666	100	0.000491318	38.5826	1.90469e+07	1158.74
60	47.83	100	0.000491318	39.8221	1.90469e+07	1158.74
59	48.6922	100	0.000491318	39.117	1.90469e+07	1158.74
58	49.667	100	0.000491318	38.3492	1.90469e+07	1158.74
57	49.4049	100	0.000491318	38.5526	1.90469e+07	1158.74
56	47.1533	100	0.000491318	40.3936	1.90469e+07	1158.74
55	49.534	100	0.000491318	38.4522	1.90469e+07	1158.74
54	48.7484	100	0.000491318	39.0719	1.90469e+07	1158.74
53	47.6494	100	0.000491318	39.973	1.90469e+07	1158.74
52	46.6231	100	0.000491318	40.853	1.90469e+07	1158.74
51	48.2248	100	0.000491318	39.4961	1.90469e+07	1158.74
50	46.532	100	0.000491318	40.933	1.90469e+07	1158.74
49	48.3118	100	0.000491318	39.425	1.90469e+07	1158.74
48	51.0536	100	0.000491318	37.3077	1.90469e+07	1158.74
47	47.4947	100	0.000491318	40.1032	1.90469e+07	1158.74
46	51.9446	100	0.000491318	36.6677	1.90469e+07	1158.74
45	52.5011	100	0.000491318	36.2791	1.90469e+07	1158.74
44	53.0223	100	0.000491318	35.9224	1.90469e+07	1158.74
43	53.6665	100	0.000491318	35.4912	1.90469e+07	1158.74
42	54.2061	100	0.000491318	35.1379	1.90469e+07	1158.74
41	53.1067	100	0.000491318	35.8654	1.90469e+07	1158.74
40	55.3211	100	0.000491318	34.4297	1.90469e+07	1158.74
39	55.5056	100	0.000491318	34.3153	1.90469e+07	1158.74
38	54.6235	100	0.000491318	34.8694	1.90469e+07	1158.74
37	53.4514	100	0.000491318	35.6341	1.90469e+07	1158.74
36	51.4597	100	0.000491318	37.0132	1.90469e+07	1158.74
35	51.2126	100	0.000491318	37.1919	1.90469e+07	1158.74
34	50.2556	100	0.000491318	37.9001	1.90469e+07	1158.74
33	49.1926	100	0.000491318	38.7191	1.90469e+07	1158.74
32	47.2707	100	0.000491318	40.2933	1.90469e+07	1158.74
31	46.4383	100	0.000491318	41.0155	1.90469e+07	1158.74
30	45.448	100	0.000491318	41.9092	1.90469e+07	1158.74
29	44.5083	100	0.000491318	42.7941	1.90469e+07	1158.74
28	43.8111	100	0.000491318	43.4751	1.90469e+07	1158.74
27	43.6839	100	0.000491318	43.6017	1.90469e+07	1158.74
26	41.6715	100	0.000491318	45.7073	1.90469e+07	1158.74
25	39.2388	100	0.000491318	48.541	1.90469e+07	1158.74
24	38.66	100	0.000491318	49.2677	1.90469e+07	1158.74
23	37.7153	100	0.000491318	50.5018	1.90469e+07	1158.74
22	35.4596	100	0.000491318	53.7144	1.90469e+07	1158.74
21	34.1819	100	0.000491318	55.7222	1.90469e+07	1158.74
20	32.6701	100	0.000491318	58.3007	1.90469e+07	1158.74
19	31.9322	100	0.000491318	59.648	1.90469e+07	1158.74
18	29.7004	100	0.000491318	64.1301	1.90469e+07	1158.74
17	30.0601	100	0.000491318	63.3627	1.90469e+07	1158.74
16	28.8415	100	0.000491318	66.0399	1.90469e+07	1158.74
15	27.8421	100	0.000491318	68.4106	1.90469e+07	1158.74
14	25.7264	100	0.000491318	74.0364	1.90469e+07	1158.74
13	23.0164	100	0.000491318	82.7538	1.90469e+07	1158.74
12	21.6919	100	0.000491318	87.8065	1.90469e+07	1158.74
11	19.8023	100	0.000491318	96.1855	1.90469e+07	1158.74
10	17.3353	100	0.000491318	109.873	1.90469e+07	1158.74
9	17.1171	100	0.000491318	111.274	1.90469e+07	1158.74
8	16.6308	100	0.000491318	114.528	1.90469e+07	1158.74
7	15.4313	100	0.000491318	123.43	1.90469e+07	1158.74
6	14.3501	100	0.000491318	132.73	1.90469e+07	1158.74
5	12.7178	100	0.000491318	149.765	1.90469e+07	1158.74
4	11.0764	100	0.000491318	171.96	1.90469e+07	1158.74
3	8.74623	100	0.000491318	217.773	1.90469e+07	1158.74
2	5.97153	100	0.000491318	318.962	1.90469e+07	1158.74
1	3.11433	100	0.000491318	611.589	1.90469e+07	1158.74
