Problem size with different number of CPUs using function optimization
THREADS	MTPS	TIMESTEPS	TIMESTEP_SIZE	SECONDS_FOR_SIMULATION	AVERAGE_TRIANGLES	AVERAGE_PARTITIONS
80	57.1372	100	0.000491318	33.3354	1.90469e+07	1158.74
79	56.5148	100	0.000491318	33.7025	1.90469e+07	1158.74
78	55.3119	100	0.000491318	34.4354	1.90469e+07	1158.74
77	56.421	100	0.000491318	33.7586	1.90469e+07	1158.74
76	55.9938	100	0.000491318	34.0161	1.90469e+07	1158.74
75	54.3124	100	0.000491318	35.0692	1.90469e+07	1158.74
74	54.0456	100	0.000491318	35.2423	1.90469e+07	1158.74
73	53.585	100	0.000491318	35.5452	1.90469e+07	1158.74
72	53.8184	100	0.000491318	35.3911	1.90469e+07	1158.74
71	53.7501	100	0.000491318	35.436	1.90469e+07	1158.74
70	55.1688	100	0.000491318	34.5248	1.90469e+07	1158.74
69	53.5251	100	0.000491318	35.585	1.90469e+07	1158.74
68	54.3509	100	0.000491318	35.0443	1.90469e+07	1158.74
67	52.7407	100	0.000491318	36.1143	1.90469e+07	1158.74
66	52.3044	100	0.000491318	36.4155	1.90469e+07	1158.74
65	51.0247	100	0.000491318	37.3288	1.90469e+07	1158.74
64	50.8065	100	0.000491318	37.4892	1.90469e+07	1158.74
63	54.7879	100	0.000491318	34.7648	1.90469e+07	1158.74
62	52.5034	100	0.000491318	36.2775	1.90469e+07	1158.74
61	57.8198	100	0.000491318	32.9419	1.90469e+07	1158.74
60	56.8252	100	0.000491318	33.5184	1.90469e+07	1158.74
59	56.4208	100	0.000491318	33.7587	1.90469e+07	1158.74
58	55.4919	100	0.000491318	34.3237	1.90469e+07	1158.74
57	54.2684	100	0.000491318	35.0976	1.90469e+07	1158.74
56	53.9446	100	0.000491318	35.3083	1.90469e+07	1158.74
55	54.2136	100	0.000491318	35.1331	1.90469e+07	1158.74
54	54.7474	100	0.000491318	34.7905	1.90469e+07	1158.74
53	51.482	100	0.000491318	36.9972	1.90469e+07	1158.74
52	53.2118	100	0.000491318	35.7945	1.90469e+07	1158.74
51	53.2577	100	0.000491318	35.7637	1.90469e+07	1158.74
50	50.9365	100	0.000491318	37.3935	1.90469e+07	1158.74
49	51.6222	100	0.000491318	36.8967	1.90469e+07	1158.74
48	50.0619	100	0.000491318	38.0467	1.90469e+07	1158.74
47	47.5536	100	0.000491318	40.0536	1.90469e+07	1158.74
46	48.2423	100	0.000491318	39.4817	1.90469e+07	1158.74
45	49.8543	100	0.000491318	38.2052	1.90469e+07	1158.74
44	49.7371	100	0.000491318	38.2952	1.90469e+07	1158.74
43	49.1017	100	0.000491318	38.7907	1.90469e+07	1158.74
42	49.1028	100	0.000491318	38.7899	1.90469e+07	1158.74
41	48.4932	100	0.000491318	39.2775	1.90469e+07	1158.74
40	47.9444	100	0.000491318	39.727	1.90469e+07	1158.74
39	47.4653	100	0.000491318	40.1281	1.90469e+07	1158.74
38	46.1523	100	0.000491318	41.2697	1.90469e+07	1158.74
37	46.5524	100	0.000491318	40.915	1.90469e+07	1158.74
36	45.0432	100	0.000491318	42.2859	1.90469e+07	1158.74
35	44.3965	100	0.000491318	42.9018	1.90469e+07	1158.74
34	44.5348	100	0.000491318	42.7686	1.90469e+07	1158.74
33	44.6409	100	0.000491318	42.6669	1.90469e+07	1158.74
32	44.295	100	0.000491318	43.0001	1.90469e+07	1158.74
31	43.9598	100	0.000491318	43.3281	1.90469e+07	1158.74
30	43.43	100	0.000491318	43.8566	1.90469e+07	1158.74
29	43.3729	100	0.000491318	43.9144	1.90469e+07	1158.74
28	42.0987	100	0.000491318	45.2435	1.90469e+07	1158.74
27	40.9174	100	0.000491318	46.5497	1.90469e+07	1158.74
26	40.2635	100	0.000491318	47.3057	1.90469e+07	1158.74
25	39.7274	100	0.000491318	47.944	1.90469e+07	1158.74
24	40.2893	100	0.000491318	47.2754	1.90469e+07	1158.74
23	41.5817	100	0.000491318	45.806	1.90469e+07	1158.74
22	41.4003	100	0.000491318	46.0067	1.90469e+07	1158.74
21	41.9237	100	0.000491318	45.4323	1.90469e+07	1158.74
20	42.2111	100	0.000491318	45.123	1.90469e+07	1158.74
19	40.9055	100	0.000491318	46.5632	1.90469e+07	1158.74
18	39.0418	100	0.000491318	48.786	1.90469e+07	1158.74
17	36.8362	100	0.000491318	51.707	1.90469e+07	1158.74
16	35.0602	100	0.000491318	54.3263	1.90469e+07	1158.74
15	33.3006	100	0.000491318	57.1968	1.90469e+07	1158.74
14	31.6721	100	0.000491318	60.1378	1.90469e+07	1158.74
13	29.9846	100	0.000491318	63.5224	1.90469e+07	1158.74
12	27.7483	100	0.000491318	68.6416	1.90469e+07	1158.74
11	25.2919	100	0.000491318	75.3084	1.90469e+07	1158.74
10	23.2304	100	0.000491318	81.9914	1.90469e+07	1158.74
9	21.7737	100	0.000491318	87.4767	1.90469e+07	1158.74
8	19.6447	100	0.000491318	96.9568	1.90469e+07	1158.74
7	17.4977	100	0.000491318	108.854	1.90469e+07	1158.74
6	15.041	100	0.000491318	126.633	1.90469e+07	1158.74
5	12.7246	100	0.000491318	149.686	1.90469e+07	1158.74
4	11.0658	100	0.000491318	172.124	1.90469e+07	1158.74
3	8.73819	100	0.000491318	217.973	1.90469e+07	1158.74
2	5.96052	100	0.000491318	319.551	1.90469e+07	1158.74
1	3.11544	100	0.000491318	611.371	1.90469e+07	1158.74
