0	0	33554432
10.0538	0	33554432
20.1077	0	33554432
30.1615	0	33554432
40.2154	0	33554432
50.2692	0	33554432
60.323	0	33554432
70.3769	0	33554432
80.4307	0	33554432
90.4846	0	33554432
100.538	0	33554432
110.592	0	33554432
120.646	0	33554432
130.7	0	33554432
140.754	0	33554432
150.808	0	33554432
160.861	0	33554432
170.001	0	33554432
180.055	0	33554432
190.109	0	33554432
200.163	0	33554432
210.217	0	33554432
220.27	0	33554432
230.324	0	33554432
240.378	0	33554432
250.432	0	33554432
260.486	0	33554432
270.54	0	33554432
280.594	0	33554432
290.647	0	33554432
300.701	0	33554432
310.755	0	33554432
320.809	0	33554432
330.863	0	33554432
340.003	0	33554432
350.056	0	33554432
360.11	0	33554432
370.164	0	33554432
380.218	0	33554432
390.272	0	33554432
400.326	0	33554432
410.379	0	33554432
420.433	0	33554432
430.487	0	33554432
440.541	0	33554432
450.595	0	33554432
460.649	0	33554432
470.702	0	33554432
480.756	0	33554432
490.81	0	33554432
500.864	0	33554432
510.004	0	33554432
520.058	0	33554432
530.112	0	33554432
540.165	0	33554432
550.219	0	33554432
560.273	0	33554432
570.327	0	33554432
580.381	0	33554432
590.435	0	33554432
600.488	0	33554432
610.542	0	33554432
620.596	0	33554432
630.65	0	33554432
640.704	0	33554432
650.758	0	33554432
660.811	0	33554432
670.865	0	33554432
680.005	0	33554432
690.059	0	33554432
700.113	0	33554432
710.167	0	33554432
720.221	0	33554432
730.274	0	33554432
740.328	0	33554432
750.382	0	33554432
760.436	0	33554432
770.49	0	33554432
780.544	0	33554432
790.597	0	33554432
800.651	0	33554432
810.705	0	33554432
820.759	0	33554432
830.813	0	33554432
840.867	0	33554432
850.006	0	33554432
860.06	0	33554432
870.114	0	33554432
880.168	0	33554432
890.222	0	33554432
900.276	0	33554432
910.329	0	33554432
920.383	0	33554432
930.437	0	33554432
940.491	0	33554432
950.545	0	33554432
960.599	0	33554432
970.653	0	33554432
980.706	0	33554432
990.76	0	33554432
1000.81	0	33554432
1010.87	0	33554432
1020.01	0	33554432
1030.06	0	33554432
1040.12	0	33554432
1050.17	0	33554432
1060.22	0	33554432
1070.28	0	33554432
1080.33	0	33554432
1090.38	0	33554432
1100.44	0	33554432
1110.49	0	33554432
1120.55	0	33554432
1130.6	6.36646e-12	33554432
1140.65	4.27463e-11	33554432
1150.71	2.51021e-10	33554432
1160.76	1.32331e-09	33554432
1170.82	6.33463e-09	33554432
1180.87	2.76768e-08	33554432
1190.01	9.79198e-08	33554432
1200.06	3.61946e-07	33554432
1210.12	1.22978e-06	33554432
1220.17	3.84932e-06	33554432
1230.22	1.11241e-05	33554432
1240.28	2.97445e-05	33554432
1250.33	7.37458e-05	33554432
1260.39	0.000169899	33554432
1270.44	0.000364512	33554432
1280.49	0.000729905	33554432
1290.55	0.00136728	33554432
1300.6	0.00240178	33554432
1310.66	0.00396656	33554432
1320.71	0.0061759	33554432
1330.76	0.00909296	33554432
1340.82	0.0127019	33554432
1350.87	0.0168961	33554432
1360.01	0.0210608	33554432
1370.06	0.0258139	33554432
1380.12	0.0305189	33554432
1390.17	0.0349823	33554432
1400.23	0.0390865	33554432
1410.28	0.0428062	33554432
1420.33	0.0462054	33554432
1430.39	0.0494241	33554432
1440.44	0.0526588	33554432
1450.49	0.0561448	33554432
1460.55	0.0601436	33554432
1470.6	0.0649392	33554432
1480.66	0.0708465	33554432
1490.71	0.0782345	33554432
1500.76	0.0875646	33554432
1510.82	0.0994367	33554432
1520.87	0.114633	33554432
1530.01	0.132161	33554432
1540.07	0.156623	33554432
1550.12	0.187805	33554432
1560.17	0.227099	33554432
1570.23	0.275821	33554432
1580.28	0.335048	33554432
1590.33	0.405446	33554432
1600.39	0.487134	33554432
1610.44	0.579584	33554432
1620.5	0.681615	33554432
1630.55	0.791445	33554432
1640.6	0.906827	33554432
1650.66	1.02523	33554432
1660.71	1.14404	33554432
1670.77	1.26074	33554432
1680.82	1.37304	33554432
1690.87	1.47898	33554432
1700.01	1.56842	33554432
1710.07	1.6581	33554432
1720.12	1.73779	33554432
1730.17	1.80689	33554432
1740.23	1.86507	33554432
1750.28	1.91227	33554432
1760.34	1.94862	33554432
1770.39	1.97437	33554432
1780.44	1.98991	33554432
1790.5	1.99562	33554432
1800.55	1.99191	33554432
1810.61	1.97916	33554432
1820.66	1.95778	33554432
1830.71	1.92816	33554432
1840.77	1.89076	33554432
1850.82	1.84608	33554432
1860.87	1.79461	33554432
1870.01	1.74231	33554432
1880.07	1.67898	33554432
1890.12	1.60964	33554432
1900.18	1.53411	33554432
1910.23	1.45193	33554432
1920.28	1.36249	33554432
1930.34	1.26515	33554432
1940.39	1.15936	33554432
1950.44	1.04488	33554432
1960.5	0.921843	33554432
1970.55	0.790785	33554432
1980.61	0.652681	33554432
1990.66	0.50886	33554432
2000.71	0.360927	33554432
2010.77	0.210675	33554432
2020.82	0.0599829	33554432
2030.88	-0.0892686	33554432
2040.02	-0.222198	33554432
2050.07	-0.363895	33554432
2060.12	-0.499527	33554432
2070.18	-0.628046	33554432
2080.23	-0.748749	33554432
2090.28	-0.861256	33554432
2100.34	-0.965439	33554432
2110.39	-1.0613	33554432
2120.45	-1.14882	33554432
2130.5	-1.22788	33554432
2140.55	-1.29811	33554432
2150.61	-1.35896	33554432
2160.66	-1.4097	33554432
2170.72	-1.44955	33554432
2180.77	-1.47787	33554432
2190.82	-1.49429	33554432
2200.88	-1.49881	33554432
2210.02	-1.49295	33554432
2220.07	-1.47636	33554432
2230.12	-1.45032	33554432
2240.18	-1.41632	33554432
2250.23	-1.37595	33554432
2260.29	-1.33079	33554432
2270.34	-1.28229	33554432
2280.39	-1.23168	33554432
2290.45	-1.17997	33554432
2300.5	-1.1279	33554432
2310.56	-1.07606	33554432
2320.61	-1.02486	33554432
2330.66	-0.974626	33554432
2340.72	-0.925591	33554432
2350.77	-0.87794	33554432
2360.82	-0.831789	33554432
2370.88	-0.787182	33554432
2380.02	-0.747936	33554432
2390.07	-0.706094	33554432
2400.13	-0.665461	33554432
2410.18	-0.625807	33554432
2420.23	-0.586892	33554432
2430.29	-0.548504	33554432
2440.34	-0.510493	33554432
2450.39	-0.47279	33554432
2460.45	-0.435421	33554432
2470.5	-0.398498	33554432
2480.56	-0.362201	33554432
2490.61	-0.326753	33554432
2500.66	-0.29239	33554432
2510.72	-0.259335	33554432
2520.77	-0.227776	33554432
2530.83	-0.197858	33554432
2540.88	-0.169678	33554432
2550.02	-0.145613	33554432
2560.07	-0.12087	33554432
2570.13	-0.0979339	33554432
2580.18	-0.07679	33554432
2590.23	-0.0574152	33554432
2600.29	-0.0397849	33554432
2610.34	-0.0238741	33554432
2620.4	-0.00965605	33554432
2630.45	0.00289952	33554432
2640.5	0.0138289	33554432
2650.56	0.0231756	33554432
2660.61	0.0309912	33554432
2670.67	0.037335	33554432
2680.72	0.0422725	33554432
2690.77	0.0458738	33554432
2700.83	0.048212	33554432
2710.88	0.049362	33554432
2720.02	0.0494399	33554432
2730.07	0.0485313	33554432
2740.13	0.0466545	33554432
2750.18	0.043885	33554432
2760.24	0.040299	33554432
2770.29	0.0359727	33554432
2780.34	0.0309824	33554432
2790.4	0.0254037	33554432
2800.45	0.0193101	33554432
2810.5	0.0127722	33554432
2820.56	0.00585535	33554432
2830.61	-0.00138109	33554432
2840.67	-0.00888487	33554432
2850.72	-0.0166108	33554432
2860.77	-0.02452	33554432
2870.83	-0.0325786	33554432
2880.88	-0.0407552	33554432
2890.02	-0.048265	33554432
2900.07	-0.0565796	33554432
2910.13	-0.0649154	33554432
2920.18	-0.0732316	33554432
2930.24	-0.0814825	33554432
2940.29	-0.0896182	33554432
2950.34	-0.0975857	33554432
2960.4	-0.105331	33554432
2970.45	-0.1128	33554432
2980.51	-0.119941	33554432
2990.56	-0.126706	33554432
3000.61	-0.133051	33554432
3010.67	-0.138938	33554432
3020.72	-0.144336	33554432
3030.77	-0.14922	33554432
3040.83	-0.153573	33554432
3050.88	-0.15739	33554432
3060.02	-0.160394	33554432
3070.07	-0.1632	33554432
3080.13	-0.165502	33554432
3090.18	-0.167333	33554432
3100.24	-0.168733	33554432
3110.29	-0.169751	33554432
3120.34	-0.170439	33554432
3130.4	-0.170855	33554432
3140.45	-0.171056	33554432
3150.5	-0.171097	33554432
3160.56	-0.171028	33554432
3170.61	-0.170893	33554432
3180.66	-0.170727	33554432
3190.72	-0.170558	33554432
3200.77	-0.170404	33554432
3210.83	-0.170276	33554432
3220.88	-0.170177	33554432
3230.02	-0.170109	33554432
3240.07	-0.170054	33554432
3250.13	-0.170009	33554432
3260.18	-0.16996	33554432
3270.23	-0.169894	33554432
3280.29	-0.169797	33554432
3290.34	-0.169651	33554432
3300.39	-0.169443	33554432
3310.45	-0.169156	33554432
3320.5	-0.168775	33554432
3330.55	-0.168282	33554432
3340.61	-0.167661	33554432
3350.66	-0.166893	33554432
3360.72	-0.165956	33554432
3370.77	-0.164829	33554432
3380.82	-0.163485	33554432
3390.88	-0.1619	33554432
3400.02	-0.160226	33554432
3410.07	-0.158103	33554432
3420.12	-0.155664	33554432
3430.18	-0.152888	33554432
3440.23	-0.149762	33554432
3450.28	-0.14628	33554432
3460.34	-0.142447	33554432
3470.39	-0.138276	33554432
3480.44	-0.133789	33554432
3490.5	-0.12902	33554432
3500.55	-0.124006	33554432
3510.6	-0.118791	33554432
3520.66	-0.113423	33554432
3530.71	-0.107948	33554432
3540.76	-0.102409	33554432
3550.82	-0.0968474	33554432
3560.87	-0.0912977	33554432
3570.01	-0.0862866	33554432
3580.06	-0.0808325	33554432
3590.12	-0.0754543	33554432
3600.17	-0.0701621	33554432
3610.22	-0.0649609	33554432
3620.28	-0.0598518	33554432
3630.33	-0.0548327	33554432
3640.38	-0.0498999	33554432
3650.44	-0.045048	33554432
3660.49	-0.0402712	33554432
3670.54	-0.0355639	33554432
3680.6	-0.0309205	33554432
3690.65	-0.0263371	33554432
3700.7	-0.0218113	33554432
3710.76	-0.0173433	33554432
3720.81	-0.0129364	33554432
3730.86	-0.00859817	33554432
3740	-0.00472353	33554432
3750.05	-0.000552349	33554432
3760.11	0.00350413	33554432
3770.16	0.00742229	33554432
3780.21	0.0111758	33554432
3790.27	0.0147368	33554432
3800.32	0.0180773	33554432
3810.37	0.0211703	33554432
3820.43	0.0239909	33554432
3830.48	0.0265175	33554432
3840.53	0.0287321	33554432
3850.59	0.0306208	33554432
3860.64	0.032174	33554432
3870.69	0.0333866	33554432
3880.75	0.0342577	33554432
3890.8	0.0347903	33554432
3900.85	0.0349918	33554432
3910.91	0.0348729	33554432
3920.05	0.034499	33554432
3930.1	0.0338112	33554432
3940.15	0.032853	33554432
3950.21	0.0316458	33554432
3960.26	0.0302125	33554432
3970.31	0.0285764	33554432
3980.37	0.0267602	33554432
3990.42	0.0247861	33554432
4000.47	0.0226743	33554432
4010.53	0.0204436	33554432
4020.58	0.0181109	33554432
4030.63	0.0156913	33554432
4040.69	0.0131984	33554432
4050.74	0.0106449	33554432
4060.79	0.00804308	33554432
4070.85	0.00540519	33554432
4080.9	0.00274386	33554432
4090.04	0.000315369	33554432
4100.09	-0.00235288	33554432
4110.15	-0.00500339	33554432
4120.2	-0.00762066	33554432
4130.25	-0.0101889	33554432
4140.31	-0.0126925	33554432
4150.36	-0.0151164	33554432
4160.41	-0.0174468	33554432
4170.47	-0.0196713	33554432
4180.52	-0.0217793	33554432
4190.58	-0.0237626	33554432
4200.63	-0.0256153	33554432
4210.68	-0.0273338	33554432
4220.74	-0.028917	33554432
4230.79	-0.0303663	33554432
4240.84	-0.0316851	33554432
4250.9	-0.0328789	33554432
4260.04	-0.0338617	33554432
4270.09	-0.0348376	33554432
4280.15	-0.0357122	33554432
4290.2	-0.036495	33554432
4300.25	-0.0371953	33554432
4310.31	-0.0378218	33554432
4320.36	-0.0383819	33554432
4330.41	-0.0388815	33554432
4340.47	-0.0393238	33554432
