Problem size with different number of CPUs using function optimization
THREADS	MTPS	TIMESTEPS	TIMESTEP_SIZE	SECONDS_FOR_SIMULATION	AVERAGE_TRIANGLES	AVERAGE_PARTITIONS
80	67.3932	100	0.000491318	28.2624	1.90469e+07	1158.74
79	67.6887	100	0.000491318	28.139	1.90469e+07	1158.74
78	66.6994	100	0.000491318	28.5563	1.90469e+07	1158.74
77	66.8147	100	0.000491318	28.5071	1.90469e+07	1158.74
76	66.8397	100	0.000491318	28.4964	1.90469e+07	1158.74
75	66.1119	100	0.000491318	28.8101	1.90469e+07	1158.74
74	66.4083	100	0.000491318	28.6815	1.90469e+07	1158.74
73	65.8636	100	0.000491318	28.9187	1.90469e+07	1158.74
72	65.315	100	0.000491318	29.1616	1.90469e+07	1158.74
71	64.5634	100	0.000491318	29.5011	1.90469e+07	1158.74
70	64.7038	100	0.000491318	29.4371	1.90469e+07	1158.74
69	64.5929	100	0.000491318	29.4876	1.90469e+07	1158.74
68	63.0969	100	0.000491318	30.1867	1.90469e+07	1158.74
67	63.7187	100	0.000491318	29.8922	1.90469e+07	1158.74
66	63.8142	100	0.000491318	29.8474	1.90469e+07	1158.74
65	62.8943	100	0.000491318	30.284	1.90469e+07	1158.74
64	61.7954	100	0.000491318	30.8225	1.90469e+07	1158.74
63	61.6913	100	0.000491318	30.8746	1.90469e+07	1158.74
62	58.4792	100	0.000491318	32.5704	1.90469e+07	1158.74
61	61.1882	100	0.000491318	31.1284	1.90469e+07	1158.74
60	60.3373	100	0.000491318	31.5674	1.90469e+07	1158.74
59	59.7989	100	0.000491318	31.8516	1.90469e+07	1158.74
58	60.8152	100	0.000491318	31.3193	1.90469e+07	1158.74
57	58.6236	100	0.000491318	32.4902	1.90469e+07	1158.74
56	59.0735	100	0.000491318	32.2427	1.90469e+07	1158.74
55	58.9944	100	0.000491318	32.286	1.90469e+07	1158.74
54	58.1678	100	0.000491318	32.7448	1.90469e+07	1158.74
53	53.3159	100	0.000491318	35.7246	1.90469e+07	1158.74
52	59.9357	100	0.000491318	31.7789	1.90469e+07	1158.74
51	56.1484	100	0.000491318	33.9224	1.90469e+07	1158.74
50	57.7185	100	0.000491318	32.9997	1.90469e+07	1158.74
49	56.4522	100	0.000491318	33.7399	1.90469e+07	1158.74
48	58.5127	100	0.000491318	32.5518	1.90469e+07	1158.74
47	58.3632	100	0.000491318	32.6352	1.90469e+07	1158.74
46	59.4671	100	0.000491318	32.0293	1.90469e+07	1158.74
45	63.4492	100	0.000491318	30.0192	1.90469e+07	1158.74
44	63.5192	100	0.000491318	29.9861	1.90469e+07	1158.74
43	63.3791	100	0.000491318	30.0524	1.90469e+07	1158.74
42	64.2188	100	0.000491318	29.6594	1.90469e+07	1158.74
41	64.8838	100	0.000491318	29.3554	1.90469e+07	1158.74
40	65.0578	100	0.000491318	29.2769	1.90469e+07	1158.74
39	64.6709	100	0.000491318	29.452	1.90469e+07	1158.74
38	63.5659	100	0.000491318	29.9641	1.90469e+07	1158.74
37	61.3715	100	0.000491318	31.0354	1.90469e+07	1158.74
36	61.5027	100	0.000491318	30.9692	1.90469e+07	1158.74
35	60.2997	100	0.000491318	31.5871	1.90469e+07	1158.74
34	57.8224	100	0.000491318	32.9404	1.90469e+07	1158.74
33	56.4516	100	0.000491318	33.7402	1.90469e+07	1158.74
32	54.278	100	0.000491318	35.0914	1.90469e+07	1158.74
31	52.9379	100	0.000491318	35.9797	1.90469e+07	1158.74
30	51.0501	100	0.000491318	37.3102	1.90469e+07	1158.74
29	49.5107	100	0.000491318	38.4703	1.90469e+07	1158.74
28	48.9371	100	0.000491318	38.9212	1.90469e+07	1158.74
27	48.1228	100	0.000491318	39.5798	1.90469e+07	1158.74
26	46.7548	100	0.000491318	40.7379	1.90469e+07	1158.74
25	45.1303	100	0.000491318	42.2042	1.90469e+07	1158.74
24	42.9305	100	0.000491318	44.3668	1.90469e+07	1158.74
23	41.5695	100	0.000491318	45.8194	1.90469e+07	1158.74
22	39.5183	100	0.000491318	48.1977	1.90469e+07	1158.74
21	37.4042	100	0.000491318	50.9218	1.90469e+07	1158.74
20	35.2622	100	0.000491318	54.0151	1.90469e+07	1158.74
19	34.5612	100	0.000491318	55.1107	1.90469e+07	1158.74
18	33.2893	100	0.000491318	57.2163	1.90469e+07	1158.74
17	32.0088	100	0.000491318	59.5053	1.90469e+07	1158.74
16	30.9339	100	0.000491318	61.5729	1.90469e+07	1158.74
15	28.7013	100	0.000491318	66.3625	1.90469e+07	1158.74
14	29.2653	100	0.000491318	65.0836	1.90469e+07	1158.74
13	25.6278	100	0.000491318	74.3212	1.90469e+07	1158.74
12	23.6723	100	0.000491318	80.4607	1.90469e+07	1158.74
11	21.6921	100	0.000491318	87.8059	1.90469e+07	1158.74
10	18.5727	100	0.000491318	102.553	1.90469e+07	1158.74
9	17.7997	100	0.000491318	107.007	1.90469e+07	1158.74
8	17.2353	100	0.000491318	110.511	1.90469e+07	1158.74
7	15.9648	100	0.000491318	119.306	1.90469e+07	1158.74
6	14.7407	100	0.000491318	129.213	1.90469e+07	1158.74
5	13.1063	100	0.000491318	145.326	1.90469e+07	1158.74
4	11.3438	100	0.000491318	167.906	1.90469e+07	1158.74
3	8.87321	100	0.000491318	214.657	1.90469e+07	1158.74
2	6.02991	100	0.000491318	315.874	1.90469e+07	1158.74
1	3.11405	100	0.000491318	611.644	1.90469e+07	1158.74
