0	0
10.4872	0
20.1677	0
30.6548	0
40.3351	0
50.6586	0
60.3387	0
70.0188	0
80.5053	0
90.1852	0
100.672	0
110.106	0
120.546	0
130.089	0
140.375	0
150.655	0
160.145	0
170.425	0
180.706	0
190.195	0
200.476	4.54747e-12
210.756	1.63709e-11
220.244	2.72848e-11
230.522	3.91083e-11
240.009	5.00222e-11
250.286	6.18456e-11
260.564	7.36691e-11
270.051	8.6402e-11
280.328	1.10049e-10
290.606	1.33696e-10
300.092	1.55524e-10
310.37	1.80989e-10
320.647	2.1646e-10
330.134	2.49202e-10
340.411	2.89219e-10
350.683	3.36513e-10
360.105	3.83807e-10
370.246	4.42924e-10
380.373	5.09317e-10
390.499	5.82986e-10
400.554	6.6666e-10
410.517	7.61247e-10
420.446	8.69477e-10
430.363	9.92259e-10
440.278	1.13323e-09
450.194	1.2933e-09
460.11	1.47793e-09
470.025	1.68984e-09
480.67	1.95178e-09
490.487	2.23099e-09
500.284	2.55204e-09
510.08	2.92039e-09
520.627	3.37877e-09
530.411	3.86899e-09
540.19	4.42924e-09
550.711	5.12409e-09
560.474	5.85987e-09
570.237	6.68842e-09
580.751	7.69433e-09
590.514	8.7357e-09
600.276	9.88712e-09
610.039	1.11531e-08
620.553	1.26493e-08
630.315	1.41636e-08
640.078	1.57988e-08
650.591	1.76933e-08
660.354	1.95696e-08
670.117	2.15541e-08
680.627	2.38042e-08
690.369	2.59861e-08
700.099	2.82516e-08
710.579	3.07782e-08
720.31	3.31947e-08
730.041	3.56722e-08
740.52	3.8398e-08
750.251	4.09736e-08
760.73	4.37885e-08
770.461	4.64324e-08
780.192	4.90991e-08
790.672	5.19922e-08
800.402	5.46934e-08
810.133	5.74064e-08
820.612	6.03404e-08
830.343	6.30771e-08
840.074	6.58274e-08
850.553	6.88142e-08
860.284	7.16154e-08
870.014	7.44549e-08
880.493	7.75699e-08
890.224	8.05348e-08
900.703	8.38263e-08
910.434	8.70032e-08
920.164	9.03256e-08
930.643	9.40981e-08
940.374	9.78262e-08
950.104	1.01816e-07
960.583	1.06459e-07
970.313	1.1115e-07
980.044	1.1627e-07
990.523	1.22333e-07
1000.25	1.28554e-07
1010.73	1.35975e-07
1020.46	1.43626e-07
1030.19	1.52095e-07
1040.67	1.62241e-07
1050.4	1.72719e-07
1060.13	1.84323e-07
1070.61	1.98212e-07
1080.34	2.12534e-07
1090.07	2.28365e-07
1100.55	2.47264e-07
1110.28	2.66691e-07
1120.01	2.88096e-07
1130.49	3.13551e-07
1140.22	3.39619e-07
1150.7	3.70539e-07
1160.43	4.02115e-07
1170.16	4.36673e-07
1180.64	4.77493e-07
1190.37	5.19002e-07
1200.1	5.64251e-07
1210.58	6.17472e-07
1220.31	6.71374e-07
1230.04	7.29898e-07
1240.51	7.98458e-07
1250.24	8.67618e-07
1260.72	9.48417e-07
1270.43	1.02956e-06
1280.12	1.11694e-06
1290.56	1.21862e-06
1300.25	1.32053e-06
1310.68	1.43899e-06
1320.36	1.55809e-06
1330.04	1.68631e-06
1340.46	1.83475e-06
1350.12	1.98213e-06
1360.52	2.15145e-06
1370.18	2.31858e-06
1380.58	2.50933e-06
1390.24	2.6965e-06
1400.64	2.90899e-06
1410.3	3.11656e-06
1420.7	3.3513e-06
1430.36	3.57988e-06
1440.01	3.81891e-06
1450.41	4.08803e-06
1460.01	4.34828e-06
1470.36	4.64114e-06
1480.7	4.94768e-06
1490.3	5.24515e-06
1500.65	5.57996e-06
1510.25	5.90495e-06
1520.59	6.27094e-06
1530.2	6.62646e-06
1540.54	7.02717e-06
1550.15	7.41679e-06
1560.42	7.85355e-06
1570.63	8.3086e-06
1580.1	8.75123e-06
1590.29	9.25107e-06
1600.49	9.77636e-06
1610.69	1.03286e-05
1620.16	1.08671e-05
1630.35	1.1476e-05
1640.55	1.2117e-05
1650.02	1.27423e-05
1660.22	1.34501e-05
1670.42	1.41954e-05
1680.61	1.49802e-05
1690.08	1.57462e-05
1700.28	1.66126e-05
1710.48	1.75235e-05
1720.67	1.84802e-05
1730.14	1.94106e-05
1740.34	2.04586e-05
1750.54	2.15554e-05
1760.01	2.26184e-05
1770.2	2.38119e-05
1780.4	2.50569e-05
1790.6	2.63544e-05
1800.07	2.7607e-05
1810.26	2.90084e-05
1820.46	3.04654e-05
1830.66	3.19791e-05
1840.13	3.34367e-05
1850.33	3.50637e-05
1860.52	3.67517e-05
1870.72	3.85023e-05
1880.19	4.01856e-05
1890.39	4.20623e-05
1900.58	4.40074e-05
1910.05	4.58769e-05
1920.25	4.79605e-05
1930.45	5.01196e-05
1940.64	5.23569e-05
1950.11	5.45068e-05
1960.31	5.69029e-05
1970.5	5.93858e-05
1980.7	6.19587e-05
1990.17	6.44313e-05
2000.37	6.71874e-05
2010.56	7.00437e-05
2020.03	7.2789e-05
2030.23	7.58496e-05
2040.43	7.90221e-05
2050.62	7.79734e-05
2060.09	7.65785e-05
2070.29	7.53391e-05
2080.49	7.43535e-05
2090.68	7.36042e-05
2100.15	7.3106e-05
2110.35	7.27684e-05
2120.54	7.26237e-05
2130.01	7.26517e-05
2140.21	7.28463e-05
2150.41	7.32021e-05
2160.6	7.37106e-05
2170.07	7.43132e-05
2180.27	7.50964e-05
2190.46	7.60136e-05
2200.66	7.70602e-05
2210.13	7.81447e-05
2220.33	7.94312e-05
2230.52	8.08385e-05
2240.72	8.23652e-05
2250.19	8.38889e-05
2260.38	8.56438e-05
2270.58	8.75175e-05
2280.05	8.93643e-05
2290.24	9.14696e-05
2300.44	9.36976e-05
2310.16	9.59366e-05
2320.35	9.8411e-05
2330.55	0.000101016
2340.02	0.000103555
2350.21	0.000106421
2360.41	0.000109429
2370.61	0.000112582
2380.07	0.000115644
2390.27	0.00011909
2400.47	0.000122696
2410.66	0.000126468
2420.13	0.000130122
2430.33	0.000134227
2440.52	0.000138494
2450.72	0.00014291
2460.19	0.000147136
2470.39	0.000151814
2480.58	0.00015662
2490.05	0.000161193
2500.25	0.000166236
2510.44	0.000171402
2520.64	0.000176693
2530.25	0.000181798
2540.53	0.000187389
2550	0.00019266
2560.2	0.000198475
2570.4	0.00020444
2580.59	0.000210564
2590.06	0.0002164
2600.26	0.000222855
2610.46	0.000229498
2620.65	0.000236338
2630.1	0.00024287
2640.26	0.000250103
2650.42	0.000257569
2660.58	0.000265283
2670.01	0.000272677
2680.17	0.000280901
2690.33	0.000289408
2700.49	0.000298209
2710.65	0.000307317
2720.08	0.00031606
2730.24	0.000325793
2740.4	0.000335869
2750.56	0.000346299
2760.71	0.000357099
2770.15	0.00036747
2780.31	0.000379022
2790.46	0.000390987
2800.62	0.000412838
2810.06	0.000441985
2820.21	0.000473224
2830.37	0.000504224
2840.53	0.00053494
2850.69	0.000565364
2860.12	0.000593368
2870.28	0.000623297
2880.44	0.000653044
2890.6	0.00068268
2900.03	0.00071017
2910.19	0.000739828
2920.35	0.000769634
2930.5	0.00079969
2940.66	0.000830098
2950.09	0.000858739
2960.25	0.000890116
2970.41	0.000922145
2980.57	0.000954927
2990	0.000986127
3000.16	0.00102061
3010.32	0.00105588
3020.48	0.00109181
3030.63	0.00112831
3040.07	0.00116268
3050.23	0.00120022
3060.38	0.00123835
3070.54	0.00127713
3080.7	0.00131667
3090.13	0.00135416
3100.29	0.00139552
3110.45	0.00143803
3120.61	0.00148187
3130.04	0.00152389
3140.2	0.00157069
3150.35	0.00161923
3160.51	0.00166966
3170.67	0.00172211
3180.1	0.00177277
3190.26	0.00188863
3200.03	0.00200318
3210.19	0.00211561
3220.34	0.00222245
3230.5	0.00232532
3240.66	0.00242595
3250.09	0.00251891
3260.25	0.00262004
3270.41	0.00272369
3280.56	0.0028312
3290.42	0.00293931
3300.58	0.00305378
3310.01	0.00316271
3320.17	0.0032833
3330.32	0.00340823
3340.48	0.00353877
3350.64	0.00367637
3360.07	0.00381161
3370.23	0.00396635
3380.39	0.00425872
3390.55	0.00456295
3400.7	0.00485791
3410.13	0.00513152
3420.29	0.00543548
3430.45	0.00575498
3440.61	0.00608427
3450.04	0.00639952
3460.2	0.00675788
3470.42	0.00723088
3480.58	0.00792873
3490.01	0.00851423
3500.17	0.0091765
3510.32	0.00988535
3520.48	0.0110002
3530.64	0.0123078
3540.07	0.0138148
3550.23	0.0168895
3560.39	0.0255993
3570.54	0.0334094
3580.7	0.0406784
3590.13	0.0464257
3600.29	0.0520411
3610.45	0.0571693
3620.61	0.0617944
3630.04	0.0663972
3640.2	0.0715141
3650.36	0.0768331
3660.51	0.0820021
3670.16	0.0868638
3680.32	0.0919969
3690.48	0.0971159
3700.64	0.102056
3710.07	0.106399
3720.23	0.111002
3730.39	0.115572
3740.54	0.120023
3750.7	0.124176
3760.13	0.127828
3770.29	0.131693
3780.45	0.135565
3790.61	0.139434
3800.04	0.14302
3810.2	0.146977
3820.37	0.151147
3830.61	0.155545
3840.13	0.15971
3850.37	0.164214
3860.62	0.168756
3870.13	0.173031
3880.37	0.177679
3890.62	0.182354
3900.13	0.186764
3910.38	0.191641
3920.62	0.196637
3930.13	0.201338
3940.38	0.206457
3950.63	0.211678
3960.15	0.216639
3970.4	0.222095
3980.65	0.22766
3990.17	0.232955
4000.42	0.23882
4010.67	0.244821
4020.19	0.250446
4030.44	0.256507
4040.69	0.262571
4050.21	0.268222
4060.46	0.274328
4070.71	0.280442
4080.23	0.286139
4090.49	0.292333
4100.01	0.298171
4110.28	0.304581
4120.54	0.311167
4130.09	0.317529
4140.41	0.324752
4150	0.331878
4160.34	0.340096
4170.67	0.348971
4180.28	0.357912
4190.67	0.368433
4200.33	0.379124
4210.72	0.391762
4220.38	0.404696
4230.03	0.418948
4240.43	0.435955
4250.09	0.453464
4260.49	0.474363
4270.14	0.495841
4280.54	0.52137
4290.19	0.547443
4300.59	0.578212
4310.25	0.609398
4320.65	0.645893
4330.3	0.682509
4340.7	0.724827
4350.35	0.766675
4360.01	0.810768
4370.41	0.860417
4380.06	0.908113
4390.46	0.960637
4400.12	1.00992
4410.52	1.06287
4420.17	1.11125
4430.57	1.16173
4440.22	1.20637
4450.62	1.2512
4460.28	1.28905
4470.68	1.32489
4480.33	1.35283
4490.73	1.37634
4500.39	1.39129
4510.04	1.39882
4520.44	1.3977
4530.09	1.38713
4540.49	1.3643
4550.15	1.33131
4560.55	1.28172
4570.2	1.22137
4580.6	1.1397
4590.26	1.04745
4600.66	0.929589
4610.31	0.802205
4620.71	0.643921
4630.36	0.473437
4640.02	0.272592
4650.42	0.00471142
4660.07	-0.122182
4670.47	-0.185707
4680.15	-0.233248
4690.61	-0.267185
4700.33	-0.278964
4710.05	-0.299277
4720.52	-0.315173
4730.25	-0.32787
4740.72	-0.336353
4750.46	-0.348287
4760.19	-0.357575
4770.67	-0.365594
4780.4	-0.371888
4790.13	-0.376738
4800.61	-0.381841
4810.34	-0.386373
4820.07	-0.390578
4830.55	-0.382248
4840.28	-0.380428
4850.01	-0.385748
4860.49	-0.390623
4870.22	-0.394399
4880.7	-0.397768
4890.43	-0.40038
4900.16	-0.402603
4910.64	-0.404681
4920.37	-0.406404
4930.1	-0.407436
4940.58	-0.408648
4950.31	-0.409721
4960.04	-0.410792
4970.52	-0.411921
4980.25	-0.412923
4990.73	-0.41393
5000.46	-0.414785
5010.19	-0.415543
5020.66	-0.406746
5030.39	-0.407657
5040.12	-0.408502
5050.6	-0.409818
5060.33	-0.411152
5070.04	-0.412312
5080.48	-0.413366
5090.17	-0.414143
5100.6	-0.414793
5110.28	-0.415244
5120.7	-0.415589
5130.38	-0.415794
5140.06	-0.415899
5150.47	-0.41591
5160.13	-0.415835
5170.53	-0.41567
5180.19	-0.415443
5190.59	-0.415125
5200.25	-0.414764
5210.65	-0.414325
5220.31	-0.413871
5230.71	-0.413318
5240.37	-0.412758
5250.02	-0.412144
5260.41	-0.411149
5270.04	-0.410099
5280.38	-0.408944
5290.73	-0.407757
5300.33	-0.406622
5310.67	-0.405362
5320.28	-0.404154
5330.62	-0.402808
5340.22	-0.401516
5350.57	-0.400076
5360.17	-0.398693
5370.42	-0.397169
5380.62	-0.395582
5390.09	-0.394045
5400.29	-0.392333
5410.48	-0.378269
5420.68	-0.377207
5430.15	-0.376199
5440.35	-0.375094
5450.55	-0.373973
5460.01	-0.372923
5470.21	-0.371785
5480.41	-0.370644
5490.61	-0.369509
5500.08	-0.368465
5510.27	-0.367359
5520.47	-0.366278
5530.67	-0.365225
5540.14	-0.364276
5550.34	-0.363289
5560.53	-0.362339
5570	-0.361491
5580.2	-0.360616
5590.4	-0.359781
5600.59	-0.358985
5610.06	-0.358279
5620.26	-0.357552
5630.46	-0.356856
5640.66	-0.356185
5650.12	-0.355578
5660.32	-0.354938
5670.52	-0.354305
5680.72	-0.353674
5690.19	-0.353082
5700.38	-0.352436
5710.58	-0.351772
5720.05	-0.351137
5730.25	-0.350427
5740.44	-0.349686
5750.64	-0.348908
5760.11	-0.34815
5770.31	-0.347343
5780.51	-0.34665
5790.7	-0.345867
5800.17	-0.345061
5810.37	-0.34411
5820.57	-0.343074
5830.04	-0.341949
5840.23	-0.340546
5850.43	-0.339524
5860.63	-0.338975
5870.1	-0.338327
5880.29	-0.337495
5890.49	-0.336536
5900.69	-0.335461
5910.16	-0.334365
5920.35	-0.333087
5930.55	-0.331711
5940.02	-0.330349
5950.22	-0.328796
5960.42	-0.327155
5970.61	-0.325428
5980.08	-0.323751
5990.28	-0.321865
6000.48	-0.3199
6010.67	-0.317858
6020.14	-0.315893
6030.34	-0.313706
6040.54	-0.311447
6050.01	-0.309287
6060.2	-0.306902
6070.4	-0.304466
6080.6	-0.301988
6090.07	-0.299654
6100.26	-0.297112
6110.46	-0.294541
6120.66	-0.291945
6130.13	-0.289513
6140.32	-0.286871
6150.52	-0.284196
6160.72	-0.281481
6170.19	-0.278927
6180.38	-0.276143
6190.58	-0.273327
6200.05	-0.270684
6210.25	-0.26781
6220.44	-0.264909
6230.64	-0.261982
6240.11	-0.259242
6250.31	-0.255524
6260.5	-0.2512
6270.7	-0.246873
6280.17	-0.242888
6290.37	-0.23865
6300.56	-0.234467
6310.03	-0.230625
6320.23	-0.22652
6330.43	-0.222432
6340.62	-0.218344
6350.09	-0.214533
6360.29	-0.210417
6370.49	-0.206312
6380.68	-0.202229
6390.15	-0.198456
6400.35	-0.194398
6410.55	-0.190325
6420.02	-0.186509
6430.21	-0.182342
6440.41	-0.1781
6450.61	-0.170596
6460.08	-0.163814
6470.28	-0.156908
6480.47	-0.150258
6490.67	-0.143706
6500.14	-0.137609
6510.34	-0.131077
6520.53	-0.124642
6530	-0.118682
6540.2	-0.112157
6550.4	-0.101431
6560.59	-0.0920652
6570.06	-0.0834947
6580.26	-0.0740994
6590.46	-0.0632425
6600.65	-0.0479887
6610.09	-0.0339539
6620.25	-0.0105023
6630.41	0.031887
6640.57	0.0783644
6650.73	0.104448
6660.16	0.118737
6670.32	0.124362
6680.47	0.127117
6690.63	0.123164
6700.07	0.12007
6710.22	0.119611
6720.38	0.121112
6730.54	0.122654
6740.7	0.122312
6750.13	0.122268
6760.29	0.122658
6770.45	0.123956
6780.61	0.124233
6790.04	0.123862
6800.2	0.12488
6810.36	0.127629
6820.52	0.130536
6830.68	0.131651
6840.11	0.131818
6850.27	0.132366
6860.42	0.133665
6870.58	0.134795
6880.02	0.135038
6890.17	0.135059
6900.33	0.13571
6910.49	0.136912
6920.65	0.137518
6930.08	0.136956
6940.24	0.135469
6950.4	0.133752
6960.56	0.13207
6970.72	0.130255
6980.15	0.128605
6990.31	0.12725
7000.47	0.126195
7010.62	0.124732
7020.06	0.122621
7030.21	0.119713
7040.37	0.116516
7050.53	0.113135
7060.69	0.109583
7070.12	0.106466
7080.28	0.10385
7090.44	0.10212
7100.6	0.10072
7110.03	0.0991295
7120.19	0.0969742
7130.35	0.0947095
7140.5	0.0926756
7150.66	0.0909169
7160.1	0.0895006
7170.25	0.0883085
7180.41	0.0875411
7190.57	0.0870153
7200	0.086443
7210.16	0.0855631
7220.32	0.0844923
7230.48	0.083399
7240.64	0.0823617
7250.07	0.0814768
7260.23	0.0806907
7270.39	0.0801691
7280.54	0.0798974
7290.7	0.0797809
7300.13	0.0797849
7310.29	0.0799837
7320.45	0.0804564
7330.61	0.0811722
7340.04	0.0819692
7350.2	0.0828905
7360.36	0.0837933
7370.52	0.0845296
7380.67	0.0849239
7390.11	0.0849181
7400.27	0.0845994
7410.42	0.0841408
7420.58	0.0837008
7430.01	0.0833748
7440.17	0.0831194
7450.33	0.0829148
7460.49	0.0826533
7470.65	0.0822158
7480.08	0.0816213
7490.24	0.0808856
7500.4	0.0802764
7510.56	0.0800443
7520.71	0.0803665
7530.15	0.0812022
7540.3	0.0825632
7550.46	0.0841202
7560.62	0.085508
7570.05	0.0863947
7580.21	0.08684
7590.37	0.0868864
7600.53	0.0867869
7610.69	0.0868068
7620.12	0.0871143
7630.28	0.0878608
7640.44	0.0890193
7650.6	0.090445
7660.03	0.0918325
7670.19	0.0932564
7680.35	0.0945891
7690.5	0.0959352
7700.67	0.0974524
7710.17	0.0991369
7720.42	0.101275
7730.66	0.103676
7740.17	0.105997
7750.42	0.108406
7760.66	0.110548
7770.18	0.112212
7780.42	0.113655
7790.67	0.114828
7800.18	0.11582
7810.42	0.11696
7820.67	0.118321
7830.18	0.119849
7840.43	0.121771
7850.67	0.123929
7860.18	0.126093
7870.43	0.128561
7880.67	0.131157
7890.19	0.13368
7900.43	0.136519
7910.67	0.139478
7920.19	0.142309
7930.43	0.145402
7940.68	0.148482
7950.19	0.151285
7960.43	0.154219
7970.68	0.157064
7980.2	0.15963
7990.45	0.162307
8000.71	0.164867
8010.22	0.167098
8020.48	0.169294
8030.73	0.171241
8040.25	0.17281
8050.5	0.174239
8060.02	0.175323
8070.27	0.176212
8080.52	0.176767
8090.04	0.176913
8100.29	0.176577
8110.54	0.175616
8120.06	0.174082
8130.31	0.171689
8140.56	0.168537
8150.08	0.16498
8160.33	0.160552
8170.59	0.155593
8180.11	0.150573
8190.36	0.144762
8200.61	0.138555
8210.13	0.132451
8220.38	0.125542
8230.63	0.118346
8240.15	0.1115
8250.4	0.104079
8260.65	0.0967539
8270.18	0.0901569
8280.44	0.0833745
8290.71	0.0769859
8300.28	0.0714124
8310.61	0.065805
8320.2	0.0609532
8330.56	0.0560865
8340.21	0.0518771
8350.61	0.0476877
8360.27	0.0441148
8370.66	0.0406078
8380.32	0.0376657
8390.72	0.0348289
8400.37	0.0324926
8410.03	0.0304303
8420.43	0.0284983
8430.08	0.0269512
8440.48	0.0255166
8450.14	0.0243548
8460.54	0.0232224
8470.19	0.0222146
8480.59	0.021106
8490.25	0.0200076
8500.65	0.0187275
8510.3	0.0174579
8520.7	0.0160341
8530.36	0.0145642
8540.01	0.0125298
8550.41	0.00967077
8560.07	0.00982329
8570.46	0.00663145
8580.12	0.00654076
8590.52	0.00320907
8600.17	0.00179633
8610.57	0.000618602
8620.23	-0.00373519
8630.63	-0.00729104
8640.28	-0.0102823
8650.68	-0.0108437
8660.34	-0.0144983
8670.73	-0.0178722
8680.39	-0.0208415
8690.05	-0.023796
8700.44	-0.0268563
8710.1	-0.0296268
8720.5	-0.0325429
8730.15	-0.0376232
8740.55	-0.0413138
8750.21	-0.0443418
8760.61	-0.0471933
8770.26	-0.049527
8780.66	-0.0517635
8790.32	-0.0536149
8800.72	-0.0553561
8810.37	-0.0568941
8820.03	-0.0583623
8830.43	-0.0598553
8840.08	-0.0611687
8850.48	-0.062509
8860.14	-0.0620585
8870.53	-0.063089
8880.19	-0.0639737
8890.59	-0.0648536
8900.24	-0.0656073
8910.64	-0.0663554
8920.3	-0.0669955
8930.66	-0.067629
8940.26	-0.0681482
8950.6	-0.0686258
8960.21	-0.0690047
8970.55	-0.0693559
8980.16	-0.0697347
8990.5	-0.0700057
9000.1	-0.0701996
9010.45	-0.0703998
9020.03	-0.0705809
9030.28	-0.0707727
9040.48	-0.0709643
9050.68	-0.0711582
9060.14	-0.0713417
9070.34	-0.0715443
9080.54	-0.0717528
9090.01	-0.0719522
9100.21	-0.0721737
9110.4	-0.0724026
9120.6	-0.0670389
9130.07	-0.0678521
9140.27	-0.0686957
9150.47	-0.0695069
9160.66	-0.070287
9170.13	-0.0709842
9180.33	-0.0717066
9190.53	-0.0724003
9200.72	-0.0730661
9210.19	-0.07366
9220.39	-0.0742741
9230.59	-0.0748625
9240.06	-0.0753865
9250.26	-0.0759276
9260.45	-0.0764449
9270.65	-0.0769338
9280.12	-0.0773624
9290.32	-0.0777985
9300.51	-0.0782106
9310.71	-0.0786013
9320.18	-0.0789466
9330.38	-0.0793009
9340.58	-0.0796384
9350.04	-0.0799376
9360.24	-0.0802451
9370.44	-0.0805381
9380.64	-0.0808171
9390.11	-0.0810639
9400.3	-0.0813168
9410.5	-0.0815566
9420.7	-0.0817824
9430.17	-0.0819776
9440.37	-0.0821718
9450.56	-0.082381
9460.03	-0.0826612
9470.23	-0.0829335
9480.43	-0.0831767
9490.62	-0.0833923
9500.09	-0.08355
9510.29	-0.0835897
9520.49	-0.0836161
9530.69	-0.0836294
9540.15	-0.08363
9550.35	-0.0836183
9560.55	-0.0835939
9570.02	-0.0835598
9580.22	-0.0835111
9590.41	-0.08345
9600.61	-0.0833766
9610.08	-0.0832976
9620.28	-0.0832008
9630.47	-0.0830921
9640.67	-0.0829716
9650.14	-0.0828491
9660.34	-0.082706
9670.54	-0.0825514
9680	-0.0823975
9690.2	-0.0822207
9700.4	-0.0820325
9710.6	-0.081833
9720.07	-0.0816377
9730.26	-0.0814168
9740.46	-0.0811849
9750.66	-0.0809423
9760.13	-0.0807074
9770.32	-0.0804444
9780.52	-0.0801711
9790.72	-0.0798876
9800.19	-0.0796156
9810.39	-0.0793134
9820.58	-0.0790019
9830.05	-0.0787047
9840.25	-0.0783765
9850.45	-0.0778619
9860.64	-0.0775562
9870.11	-0.0772683
9880.31	-0.0769538
9890.51	-0.0766347
9900.71	-0.076311
9910.17	-0.0760063
9920.37	-0.0756737
9930.57	-0.0753366
9940.04	-0.0750187
9950.24	-0.0746691
9960.43	-0.0743122
9970.63	-0.0739484
9980.1	-0.0736046
9990.3	-0.0732282
10000.5	-0.0728455
10010.7	-0.0724568
10020.2	-0.0720906
10030.4	-0.0716907
10040.6	-0.071285
10050	-0.0709033
10060.2	-0.070487
10070.4	-0.0700652
10080.6	-0.069638
10090.1	-0.0692366
10100.3	-0.0687149
10110.5	-0.0681453
10120.7	-0.0675756
10130.1	-0.067047
10140.3	-0.0664803
10150.5	-0.065916
10160	-0.0653936
10170.2	-0.0648324
10180.4	-0.0642723
10190.6	-0.063713
10200.1	-0.0631941
10210.3	-0.0626356
10220.5	-0.0620772
10230.7	-0.0615188
10240.1	-0.0610001
10250.3	-0.0604412
10260.5	-0.0598819
10270.7	-0.0593221
10280.2	-0.0588017
10290.4	-0.0582408
10300.6	-0.0576794
10310	-0.0571583
10320.2	-0.0565968
10330.3	-0.0560344
10340.5	-0.055471
10350.7	-0.0549067
10360.1	-0.0543819
10370.2	-0.053816
10380.4	-0.0532494
10390.6	-0.0526821
10400.7	-0.0521144
10410.2	-0.051587
10420.3	-0.051019
10430.5	-0.0504511
10440.6	-0.0498835
10450.1	-0.0493569
10460.2	-0.0487903
10470.4	-0.0482245
10480.5	-0.0476596
10490.7	-0.0470957
10500.1	-0.0465731
10510.3	-0.0460115
10520.4	-0.0454512
10530.6	-0.0448924
10540	-0.0443749
10550.2	-0.0438191
10560.4	-0.0432652
10570.5	-0.0427135
10580.7	-0.0421642
10590.1	-0.0416461
10600.3	-0.0410335
10610.4	-0.0404308
10620.6	-0.0398376
10630	-0.0392949
10640.2	-0.0387189
10650.3	-0.0381513
10660.5	-0.0375919
10670.6	-0.0370402
10680.1	-0.0365346
10690.2	-0.0359985
10700.4	-0.0354719
10710.6	-0.034954
10720.7	-0.0344444
10730.1	-0.0339781
10740.3	-0.0334829
10750.5	-0.0329944
10760.6	-0.0325121
10770.1	-0.0320696
10780.2	-0.0315983
10790.4	-0.0311321
10800.5	-0.0306708
10810.7	-0.0302139
10820.1	-0.0297704
10830.3	-0.0293041
10840.4	-0.0288607
10850.6	-0.0284367
10860	-0.0280574
10870.2	-0.027662
10880.3	-0.0272778
10890.5	-0.026905
10900.7	-0.0265445
10910.1	-0.0262198
10920.3	-0.0258796
10930.4	-0.025548
10940.6	-0.0252234
10950	-0.0249271
10960.2	-0.0246122
10970.3	-0.0243004
10980.5	-0.0239906
10990.6	-0.0236818
11000.1	-0.023395
11010.2	-0.0230854
11020.4	-0.022774
11030.5	-0.0224605
11040.7	-0.0221448
11050.1	-0.0218494
11060.1	-0.0215348
11070.3	-0.0212107
11080.4	-0.020883
11090.6	-0.0205511
11100	-0.020239
11110.2	-0.0198983
11120.3	-0.0195528
11130.5	-0.0192028
11140.6	-0.0188493
11150.1	-0.018525
11160.2	-0.0181796
11170.4	-0.0178359
11180.5	-0.0174917
11190.7	-0.0171451
11200.1	-0.0168198
11210.3	-0.0164644
11220.5	-0.0161028
11230.6	-0.0156393
11240	-0.0151248
11250.2	-0.0145402
11260.4	-0.0139365
11270.5	-0.0133219
11280.7	-0.0127018
11290.1	-0.0121237
11300.3	-0.0115007
11310.4	-0.0108797
11320.6	-0.0102631
11330	-0.00969432
11340.2	-0.00908498
11350.3	-0.0084774
11360.5	-0.00786421
11370.7	-0.00724274
11380.1	-0.00666066
11390.2	-0.00602998
11400.4	-0.00539578
11410.6	-0.00475809
11420.7	-0.00333799
11430.2	-0.00180081
11440.3	-0.00027865
11450.5	0.00109338
11460.6	0.00231832
11470.1	0.00333544
11480.2	0.00433092
11490.4	0.00526169
11500.5	0.00613134
11510.7	0.0073372
11520.1	0.00834839
11530.3	0.0092668
11540.4	0.010109
11550.6	0.0109196
11560	0.0116844
11570.2	0.0130177
11580.4	0.014369
11590.5	0.0172564
11600.7	0.0229632
11610.1	0.0276857
11620.3	0.0334112
11630.4	0.0393177
11640.6	0.0454509
11650	0.0517287
11660.2	0.0586273
11670.3	0.0658008
11680.5	0.0732585
11690.6	0.080614
11700.1	0.0870703
11710.2	0.0938082
11720.4	0.100033
11730.6	0.105581
11740.7	0.110351
11750.1	0.114031
11760.3	0.117242
11770.5	0.119593
11780.6	0.120996
11790.1	0.121624
11800.2	0.121873
11810.4	0.121936
11820.5	0.121973
11830.7	0.122013
11840.1	0.122127
11850.3	0.122428
11860.6	0.122896
11870.1	0.123387
11880.3	0.123917
11890.6	0.124471
11900.1	0.125067
11910.3	0.125829
11920.6	0.126711
11930.1	0.127612
11940.3	0.128612
11950.6	0.129554
11960.1	0.130332
11970.3	0.131057
11980.6	0.131663
11990.1	0.132093
