0	0
16.2059	0
32.4115	0
48.6173	0
64.8232	0
81.0296	0
97.2372	-9.09495e-13
113.145	-1.81899e-12
129.052	-4.54747e-12
144.96	-9.09495e-12
160.867	-1.63709e-11
176.775	-2.81943e-11
192.838	-4.63842e-11
208.901	-7.36691e-11
224.816	-1.11868e-10
240.879	-1.66438e-10
256.942	-2.41926e-10
273.005	-3.43789e-10
289.067	-4.77485e-10
305.13	-6.50289e-10
320.292	-8.56744e-10
335.455	-1.1114e-09
351.382	-1.437e-09
367.309	-1.83172e-09
383.236	-2.30466e-09
399.163	-2.86491e-09
414.727	-3.5061e-09
429.89	-4.22824e-09
445.454	-5.07316e-09
460.559	-6.00176e-09
476.122	-7.0695e-09
491.686	-8.25185e-09
507.25	-9.54515e-09
522.317	-1.08957e-08
537.384	-1.23264e-08
552.45	-1.38161e-08
567.517	-1.53341e-08
582.584	-1.68393e-08
597.651	-1.83109e-08
612.717	-1.97388e-08
627.784	-2.11185e-08
642.85	-2.24445e-08
657.916	-2.3706e-08
672.952	-2.4882e-08
688.018	-2.59843e-08
703.084	-2.70338e-08
718.151	-2.80661e-08
733.217	-2.91229e-08
748.283	-3.0248e-08
763.349	-3.1484e-08
778.384	-3.28646e-08
793.45	-3.44262e-08
808.516	-3.61842e-08
823.582	-3.8146e-08
838.647	-4.03006e-08
853.677	-4.26126e-08
868.708	-4.50327e-08
883.738	-4.74802e-08
898.768	-4.98394e-08
913.798	-5.19585e-08
928.828	-5.36411e-08
943.858	-5.46415e-08
958.888	-5.46552e-08
973.918	-5.33137e-08
988.947	-5.01741e-08
1003.98	-4.47199e-08
1019.01	-3.63543e-08
1034.04	-2.44027e-08
1049.07	-8.11087e-09
1064.1	1.33632e-08
1079.13	4.09582e-08
1094.15	7.57163e-08
1109.18	1.18791e-07
1124.21	1.71451e-07
1139.24	2.35088e-07
1154.27	3.11226e-07
1169.3	4.0153e-07
1184.33	5.07812e-07
1199.36	6.32042e-07
1214.39	7.76359e-07
1229.42	9.43081e-07
1244.45	1.13472e-06
1259.48	1.35399e-06
1274.51	1.60384e-06
1289.53	1.88746e-06
1304.56	2.21077e-06
1319.59	2.57919e-06
1334.62	2.99623e-06
1349.65	3.46407e-06
1364.68	3.98441e-06
1379.71	4.55875e-06
1394.74	5.18865e-06
1409.76	5.8758e-06
1424.79	6.62224e-06
1439.82	7.43044e-06
1454.85	8.30338e-06
1469.88	9.24468e-06
1484.91	1.02586e-05
1499.93	1.13502e-05
1514.96	1.25253e-05
1529.99	1.37905e-05
1545.02	1.51535e-05
1560.05	1.66227e-05
1575.08	1.82077e-05
1590.1	1.9919e-05
1605.13	2.17682e-05
1620.16	2.3768e-05
1635.19	2.59319e-05
1650.22	2.82748e-05
1665.25	3.08124e-05
1680.01	3.3511e-05
1694.78	3.64225e-05
1709.54	3.95562e-05
1724.31	4.29206e-05
1739.07	4.65237e-05
1753.84	5.0374e-05
1768.6	5.44801e-05
1783.37	5.88514e-05
1798.19	6.35166e-05
1813.02	6.8471e-05
1827.84	7.37277e-05
1842.67	7.93009e-05
1857.49	8.52068e-05
1872.31	9.14637e-05
1887.14	9.80921e-05
1901.96	0.000105115
1916.78	0.000112556
1931.61	0.000120444
1946.43	0.000128806
1961.26	0.000137674
1976.08	0.000147082
1990.9	0.000157064
2005.73	0.000153458
2020.55	0.000150948
2035.37	0.00014941
2050.2	0.000148745
2065.02	0.000148868
2079.84	0.000149707
2094.67	0.000151205
2109.49	0.000153319
2124.31	0.000156013
2139.14	0.000159263
2153.96	0.000163054
2168.78	0.000167378
2183.61	0.000172234
2198.43	0.000177628
2213.25	0.000183572
2228.08	0.000190083
2242.9	0.000197182
2257.72	0.000204898
2272.48	0.000213226
2287.31	0.000222269
2302.13	0.000232033
2316.95	0.000242559
2331.78	0.000253891
2346.6	0.000266077
2361.42	0.000279166
2376.18	0.000293194
2390.94	0.000308077
2405.76	0.000323795
2420.59	0.000340235
2435.41	0.000357373
2450.23	0.000375204
2464.93	0.000393581
2479.62	0.000412678
2494.32	0.000432537
2509.02	0.00045321
2523.71	0.00047476
2538.41	0.000497261
2553.1	0.000520799
2567.8	0.000545472
2582.5	0.00057139
2597.19	0.000598678
2611.89	0.000627464
2626.58	0.000657871
2641.28	0.000690023
2655.97	0.00072404
2670.67	0.000760039
2685.37	0.000798143
2700.06	0.000838477
2714.76	0.000881178
2729.45	0.000983116
2744.15	0.00108567
2758.84	0.00118734
2773.54	0.0012876
2788.24	0.00138645
2802.93	0.00148428
2817.63	0.00158176
2832.31	0.00167968
2847	0.00177903
2861.69	0.00188079
2876.38	0.00198602
2891.07	0.00209577
2905.76	0.00221111
2920.44	0.00233309
2935.13	0.00246278
2949.82	0.00259797
2964.51	0.00273776
2979.2	0.00288197
2993.88	0.00303087
3008.57	0.0031852
3023.26	0.00334611
3037.95	0.00351519
3052.64	0.00369444
3067.32	0.003886
3082.01	0.00409177
3096.7	0.00458433
3111.39	0.00505145
3126.07	0.00548181
3140.76	0.00588398
3155.45	0.00627662
3170.14	0.00668035
3184.83	0.00711328
3199.51	0.00759103
3214.2	0.00812909
3228.89	0.00869627
3243.58	0.0092975
3258.26	0.00994104
3272.95	0.0106482
3287.64	0.0122738
3302.33	0.0139419
3317.01	0.0153852
3331.7	0.0169608
3346.39	0.0189707
3361.08	0.0214429
3375.76	0.0273322
3390.45	0.0316309
3405.14	0.0358876
3419.83	0.0405329
3434.51	0.0452424
3449.2	0.0498919
3463.89	0.0545081
3478.57	0.0591567
3493.26	0.0639064
3507.95	0.0688072
3522.64	0.0738125
3537.32	0.0788903
3552.01	0.084131
3566.7	0.0896427
3581.38	0.0954635
3596.07	0.101572
3610.76	0.107929
3625.45	0.114503
3640.13	0.121279
3654.82	0.128254
3669.51	0.135431
3684.19	0.142824
3698.88	0.150468
3713.57	0.158408
3728.25	0.166685
3742.94	0.175321
3757.63	0.184332
3772.32	0.193722
3787	0.203498
3801.69	0.213667
3816.38	0.224237
3831.06	0.235224
3845.75	0.246648
3860.44	0.25854
3875.13	0.27094
3889.81	0.283886
3904.5	0.297411
3919.19	0.31154
3933.88	0.326284
3948.56	0.341644
3963.25	0.357606
3977.94	0.374148
3992.63	0.391237
4007.31	0.408834
4022	0.426891
4036.69	0.445352
4051.38	0.464151
4066.07	0.483209
4080.75	0.502431
4095.44	0.521709
4110.13	0.540917
4124.82	0.559914
4139.51	0.578546
4154.19	0.596645
4168.88	0.614037
4183.57	0.630539
4198.57	0.646291
4213.57	0.660725
4228.57	0.673637
4243.57	0.684823
4258.56	0.694081
4273.56	0.70121
4288.56	0.706012
4303.56	0.708299
4318.56	0.707892
4333.56	0.704626
4348.56	0.698356
4363.56	0.688957
4378.56	0.676328
4393.56	0.660396
4408.55	0.641115
4423.55	0.618467
4438.55	0.592466
4453.55	0.563151
4468.55	0.530586
4483.55	0.494861
4498.55	0.456082
4513.55	0.414356
4528.55	0.369867
4543.55	0.322746
4558.55	0.273148
4573.55	0.221821
4588.55	0.166526
4603.55	0.110975
4618.55	0.0582606
4633.55	-0.00956293
4648.55	-0.0496967
4663.55	-0.0934883
4678.55	-0.129921
4693.55	-0.160007
4708.55	-0.147564
4723.55	-0.163992
4738.55	-0.181295
4753.55	-0.204292
4768.55	-0.222481
4783.55	-0.239365
4798.55	-0.255266
4813.58	-0.270413
4828.61	-0.283932
4843.64	-0.294073
4858.67	-0.302562
4873.7	-0.309992
4888.73	-0.316872
4903.76	-0.323459
4918.79	-0.30921
4933.82	-0.315786
4948.85	-0.32238
4963.88	-0.328172
4978.9	-0.334854
4993.93	-0.339955
5008.96	-0.343892
5023.99	-0.347004
5039.02	-0.34955
5054.05	-0.351669
5069.08	-0.353441
5084.11	-0.354909
5099.14	-0.356114
5114.17	-0.357091
5129.2	-0.357656
5144.23	-0.358335
5159.26	-0.359003
5174.29	-0.359296
5189.32	-0.359487
5204.35	-0.359562
5219.38	-0.359519
5234.41	-0.359355
5249.44	-0.359071
5264.47	-0.35867
5279.5	-0.358154
5294.53	-0.357531
5309.56	-0.35682
5324.59	-0.352111
5339.62	-0.348764
5354.65	-0.348723
5369.68	-0.348561
5384.71	-0.34828
5399.74	-0.347878
5414.77	-0.34733
5429.8	-0.346646
5444.83	-0.345836
5459.86	-0.344911
5474.89	-0.343878
5489.66	-0.342766
5504.42	-0.341562
5519.19	-0.340274
5533.95	-0.338902
5548.72	-0.337446
5563.48	-0.335909
5578.25	-0.33429
5593.02	-0.33259
5607.78	-0.330811
5622.61	-0.328943
5637.43	-0.32701
5652.25	-0.32502
5667.08	-0.322981
5681.9	-0.320897
5696.73	-0.318869
5711.55	-0.316779
5726.37	-0.31465
5741.2	-0.312477
5756.02	-0.310256
5770.85	-0.307875
5785.67	-0.305434
5800.49	-0.302933
5815.32	-0.300373
5830.14	-0.297752
5844.97	-0.295069
5859.79	-0.292323
5874.61	-0.289512
5889.44	-0.286634
5904.26	-0.283688
5919.09	-0.280674
5933.91	-0.277592
5948.73	-0.274443
5963.56	-0.271227
5978.38	-0.267947
5993.2	-0.264603
6008.03	-0.261848
6022.85	-0.25892
6037.68	-0.255885
6052.5	-0.252784
6067.32	-0.249637
6082.15	-0.246451
6096.97	-0.243201
6111.8	-0.239893
6126.62	-0.236523
6141.44	-0.233091
6156.27	-0.229591
6171.09	-0.226018
6185.92	-0.222368
6200.74	-0.218636
6215.56	-0.214819
6230.39	-0.210913
6245.21	-0.206916
6260.04	-0.202826
6274.86	-0.198693
6289.68	-0.194545
6304.51	-0.190395
6319.33	-0.186246
6334.16	-0.182094
6348.98	-0.177926
6363.8	-0.173725
6378.56	-0.169491
6393.33	-0.165186
6408.15	-0.160773
6422.97	-0.151716
6437.8	-0.143359
6452.62	-0.135783
6467.45	-0.128831
6482.27	-0.122285
6496.97	-0.115973
6511.66	-0.109656
6526.36	-0.103196
6541.05	-0.096501
6555.75	-0.0895029
6570.44	-0.082475
6585.14	-0.0754318
6599.84	-0.0683421
6614.53	-0.0611031
6629.23	-0.0535661
6643.92	-0.0391121
6658.62	-0.0253687
6673.31	-0.0133026
6688.01	-0.00115216
6702.71	0.0119284
6717.4	0.0254741
6732.1	0.0502552
6746.79	0.0669605
6761.49	0.082603
6776.19	0.09441
6790.88	0.103513
6805.58	0.110032
6820.27	0.114569
6834.97	0.117762
6849.66	0.12013
6864.36	0.122024
6879.06	0.123322
6893.75	0.124078
6908.45	0.124643
6923.14	0.125483
6937.84	0.126787
6952.53	0.128414
6967.22	0.130084
6981.91	0.131555
6996.6	0.132688
7011.29	0.133432
7025.97	0.133796
7040.66	0.133814
7055.35	0.133551
7070.04	0.133124
7084.73	0.132687
7099.41	0.132344
7114.1	0.132097
7128.79	0.131856
7143.48	0.131491
7158.17	0.13089
7172.85	0.129988
7187.54	0.128767
7202.23	0.127244
7216.92	0.125466
7231.61	0.123505
7246.29	0.121462
7260.98	0.119455
7275.67	0.117598
7290.36	0.115985
7305.05	0.114673
7319.73	0.113682
7334.42	0.113002
7349.11	0.1126
7363.8	0.112437
7378.49	0.112475
7393.18	0.112683
7407.86	0.113035
7422.55	0.113512
7437.24	0.114089
7451.93	0.114735
7466.62	0.115408
7481.3	0.116058
7495.99	0.116631
7510.68	0.117072
7525.37	0.117333
7540.06	0.117379
7554.74	0.117191
7569.43	0.11677
7584.12	0.116133
7598.81	0.115312
7613.5	0.114346
7628.18	0.113276
7642.87	0.112139
7657.56	0.110967
7672.25	0.109784
7686.94	0.108609
7701.62	0.107452
7716.31	0.106326
7731	0.10524
7745.69	0.104202
7760.38	0.103223
7775.06	0.102306
7789.75	0.101452
7804.44	0.100652
7819.13	0.0998887
7833.82	0.0991341
7848.5	0.0983529
7863.19	0.0975041
7877.88	0.0965456
7892.57	0.0954373
7907.26	0.0941458
7921.95	0.0926468
7936.63	0.0909269
7951.32	0.0889834
7966.01	0.0868239
7980.7	0.0844634
7995.39	0.0819221
8010.07	0.0792227
8024.76	0.0763876
8039.45	0.0734374
8054.14	0.0703894
8068.83	0.0672568
8083.51	0.0640479
8098.2	0.0607663
8112.89	0.0574107
8127.58	0.0539749
8142.27	0.0504493
8156.96	0.0468211
8171.64	0.0430744
8186.33	0.0391699
8201.02	0.0350174
8215.71	0.0305749
8230.4	0.0252014
8245.08	0.0196724
8259.77	0.0117537
8274.46	0.00693247
8289.15	0.00188429
8303.84	-0.00191663
8318.52	-0.0053015
8333.21	-0.00527565
8347.9	-0.00717951
8362.59	-0.00813064
8377.28	-0.0105424
8391.97	-0.0138204
8406.65	-0.017352
8421.34	-0.0207923
8436.03	-0.0244507
8450.72	-0.0273371
8465.41	-0.029821
8480.09	-0.0320922
8494.78	-0.03175
8509.47	-0.0333895
8524.16	-0.0349711
8538.85	-0.034997
8553.53	-0.0365633
8568.22	-0.0382443
8582.91	-0.0397622
8597.6	-0.041073
8612.29	-0.0422618
8626.98	-0.0433814
8641.66	-0.0444476
8656.35	-0.0454789
8671.04	-0.0464867
8685.73	-0.0474543
8700.42	-0.048401
8715.1	-0.0493732
8729.79	-0.0507314
8744.48	-0.0519264
8759.17	-0.0529853
8773.86	-0.05393
8788.54	-0.0547778
8803.23	-0.0555421
8817.92	-0.0562333
8832.61	-0.0568594
8847.3	-0.0574274
8861.99	-0.053162
8876.67	-0.0508031
8891.36	-0.0513421
8906.05	-0.051743
8920.74	-0.0521148
8935.43	-0.0524589
8950.11	-0.0527772
8964.8	-0.0530522
8979.49	-0.0532918
8994.18	-0.0535031
9008.87	-0.0536921
9023.55	-0.0538641
9038.24	-0.0540237
9052.93	-0.0541745
9067.62	-0.0543203
9082.31	-0.0544634
9097	-0.0546053
9111.68	-0.0547478
9126.37	-0.0548914
9141.06	-0.0550327
9155.75	-0.0552534
9170.44	-0.0554548
9185.12	-0.0556353
9199.81	-0.0557937
9214.5	-0.0559291
9229.19	-0.0560405
9243.88	-0.0561203
9258.57	-0.0561702
9273.25	-0.0561915
9287.94	-0.0561856
9302.63	-0.0561537
9317.32	-0.0562507
9332.01	-0.0563049
9346.69	-0.0563196
9361.38	-0.0562978
9376.07	-0.056242
9390.76	-0.0561547
9405.45	-0.056038
9420.13	-0.0558936
9434.82	-0.0557235
9449.51	-0.055529
9464.2	-0.0553116
9478.89	-0.0550727
9493.58	-0.0548134
9508.26	-0.0545353
9522.95	-0.05424
9537.64	-0.0527858
9552.33	-0.0525353
9567.02	-0.0522792
9581.7	-0.0520165
9596.39	-0.0517464
9611.08	-0.0514681
9625.77	-0.0511809
9640.46	-0.0508839
9655.15	-0.0505767
9669.83	-0.0502586
9684.52	-0.0499292
9699.21	-0.0495882
9713.9	-0.0492355
9728.59	-0.0488708
9743.27	-0.048494
9757.96	-0.048105
9772.65	-0.0477036
9787.34	-0.0472897
9802.03	-0.0468621
9816.72	-0.0464207
9831.4	-0.0459659
9846.09	-0.0454978
9860.78	-0.0450165
9875.47	-0.0445222
9890.16	-0.0440151
9904.84	-0.0434953
9919.53	-0.0429629
9934.22	-0.0424181
9948.91	-0.041861
9963.6	-0.0412919
9978.29	-0.0407109
9992.97	-0.0401181
10007.7	-0.0395139
10022.3	-0.0387468
10037	-0.0379831
10051.7	-0.037222
10066.4	-0.0364629
10081.1	-0.0357049
10095.8	-0.0349475
10110.5	-0.0341904
10125.2	-0.0334329
10139.9	-0.0326747
10154.5	-0.0319245
10169.2	-0.0311805
10183.9	-0.030441
10198.6	-0.0297044
10213.3	-0.0289695
10228	-0.0282353
10242.7	-0.0275112
10257.4	-0.0267959
10272	-0.0260879
10286.7	-0.0253862
10301.4	-0.0246893
10316.1	-0.0239964
10330.8	-0.0233063
10345.5	-0.0226182
10360.2	-0.0219312
10374.9	-0.0212447
10389.6	-0.020558
10404.2	-0.0198707
10418.9	-0.0191823
10433.6	-0.0183485
10448.3	-0.0175285
10463	-0.0167209
10477.7	-0.0159246
10492.4	-0.0151384
10507.1	-0.0143613
10521.7	-0.0135925
10536.4	-0.0128313
10551.1	-0.0120775
10565.8	-0.0113312
10580.5	-0.0104522
10595.2	-0.0096433
10609.9	-0.00889013
10624.6	-0.0081806
10639.3	-0.00750548
10654	-0.00685692
10668.7	-0.00622848
10683.4	-0.00561496
10698.1	-0.00501214
10712.7	-0.0044167
10727.4	-0.00382608
10742.1	-0.00323763
10756.8	-0.00266527
10771.5	-0.00210472
10786.2	-0.0015519
10800.9	-0.00100313
10815.6	-0.000455217
10830.3	9.26382e-05
10845.4	0.000631109
10860.9	0.00116725
10876.4	0.00169512
10891.8	0.00222165
10907.3	0.00275241
10922.8	0.00329173
10938.3	0.0038425
10953.8	0.00440674
10969.2	0.00498512
10984.7	0.00569921
11000.2	0.00652231
11015.7	0.00739955
11031.2	0.0083068
11046.6	0.00922191
11062.1	0.0101319
11077.6	0.011031
11093.1	0.0119194
11108.6	0.0128005
11124	0.0136751
11139.5	0.0157468
11155	0.0178693
11170.5	0.0197485
11186	0.0213397
11201.4	0.0241456
11216.9	0.0260107
11232.4	0.027321
11247.9	0.0284323
11263.4	0.0295315
11278.8	0.0306767
11294.3	0.031901
11309.8	0.0332095
11325.3	0.0345505
11340.8	0.0359008
11356.2	0.0372685
11371.7	0.0386599
11387.2	0.0400771
11402.7	0.0415154
11418.2	0.0429505
11433.6	0.0443582
11449.1	0.0457153
11464.6	0.0470156
11480.1	0.0482526
11495.6	0.0494257
11511	0.0505383
11526.5	0.0515972
11542	0.0526087
11557.5	0.0535774
11573	0.0545042
11588.4	0.055386
11603.9	0.0562153
11619.4	0.0569806
11634.9	0.0576671
11650.4	0.0582591
11665.8	0.0587427
11681.3	0.0591073
11696.8	0.0593473
11712.3	0.0594624
11727.8	0.0594563
11743.2	0.0593371
11758.7	0.0591153
11774.2	0.0588033
11789.7	0.0584141
11805.2	0.0579602
11820.6	0.0574535
11836.1	0.0569038
11851.6	0.0563189
11867.1	0.0557045
11882.6	0.0550638
11898	0.0543982
11913.5	0.0537075
11929	0.0529905
11944.5	0.0522458
11960	0.0514717
11975.4	0.0506674
11990.9	0.0498326
