40	
68.5071   : [ 5 5 5 5 5 5 5 5 5 5 [0;0m | 5 5 5 5 5 5 5 5 5 5 [0;0m | 5 5 5 5 5 5 5 5 5 5 [0;0m | 5 5 5 5 5 5 5 5 5 5 [0;0m]	client_invade_async (5)
40	
68.5111   : [ 5 5 5 5 5 5 5 5 5 5 [0;0m | 5 5 5 5 5 5 5 5 5 5 [0;0m | 5 5 5 5 5 5 5 5 5 5 [0;0m | 5 5 5 5 5 5 5 5 5 5 [0;0m]	client_invade_async (5)
40	
68.6139   : [ 5 0 0 0 0 0 0 0 0 0 [0;0m | 0 0 0 0 0 0 0 0 0 0 [0;0m | 0 0 0 0 0 0 0 0 0 0 [0;0m | 0 0 0 0 0 0 0 0 0 0 [0;0m]	retreat (5)
1	
68.614    : [ 0 0 0 0 0 0 0 0 0 0 [0;0m | 0 0 0 0 0 0 0 0 0 0 [0;0m | 0 0 0 0 0 0 0 0 0 0 [0;0m | 0 0 0 0 0 0 0 0 0 0 [0;0m]	client_shutdown (5)

Seconds: 69
