%%MatrixMarket matrix array complex general
9 10
1.41421356 0
1.41421356 0
1.41421356 0
1.41421356 0
1.41421356 0
1.41421356 0
1.41421356 0
1.41421356 0
1.41421356 0
0 0
0 0
0 0
-1.8973666 0
-1.8973666 0
-1.8973666 0
1.8973666 0
1.8973666 0
1.8973666 0
-1.58113883 0
-1.58113883 0
-1.58113883 0
1.26491106 0
1.26491106 0
1.26491106 0
1.26491106 0
1.26491106 0
1.26491106 0
-2 0
-2 0
-2 0
-2 0
-2 0
-2 0
-2 0
-2 0
-2 0
0 0
0 0
0 0
2.68328157 0
2.68328157 0
2.68328157 0
-2.68328157 0
-2.68328157 0
-2.68328157 0
2.44948974 0
2.44948974 0
2.44948974 0
2.44948974 0
2.44948974 0
2.44948974 0
2.44948974 0
2.44948974 0
2.44948974 0
0 0
-2.68328157 0
2.68328157 0
0 0
-2.68328157 0
2.68328157 0
0 0
-2.68328157 0
2.68328157 0
0 0
0 0
0 0
0 0
3.6 0
-3.6 0
0 0
-3.6 0
3.6 0
0 0
3.28633534 0
-3.28633534 0
0 0
3.28633534 0
-3.28633534 0
0 0
3.28633534 0
-3.28633534 0
-2.73861279 0
2.19089023 0
2.19089023 0
-2.73861279 0
2.19089023 0
2.19089023 0
-2.73861279 0
2.19089023 0
2.19089023 0
