%%MatrixMarket matrix array real general
10 6
-.3159092737
0.
0.
-.3450823119
0.
-.2433197725
-.8365190197e-1
0.
-.1444794727
-.1429827493e-1
-.3159092737
0.
0.
-.3450823119
0.
-.2433197725
-.3450823119
0.
-.5960092869
-.2433197725
-.3159092737
0.
0.
-.8365190197e-1
0.
-.1429827493e-1
-.3450823119
0.
-.1444794727
-.2433197725
-.1554952471
0.
0.
-.3487991569e-1
0.
-.5050427176e-2
-.3111241817
0.
-.1103473935
-.4018322549
-.1554952471
0.
0.
-.3487991569e-1
0.
-.5050427176e-2
-.3487991569e-1
0.
-.1237096956e-1
-.5050427176e-2
-.1554952471
0.
0.
-.3111241817
0.
-.4018322549
-.3487991569e-1
0.
-.1103473935
-.5050427176e-2
