solver: LxF
0th order
initial depth: 10
max refinement: 6
timesteps: 

CACHE EFFECTS!!!

Problem size with different number of CPUs using function optimization
PINNING_CORE	MTPS
0	3.10964
1	3.10066
2	3.10103
3	3.07914
4	3.11641
5	3.11176
6	3.10067
7	3.11868
8	3.10336
9	3.10985
10	3.11753
11	3.1165
12	3.11458
13	3.10437
14	3.12111
15	3.11353
16	3.11425
17	3.11709
18	3.11043
19	3.11624
20	3.10312
21	3.10513
22	3.09455
23	3.10677
24	3.10594
25	3.10041
26	3.11025
27	3.09024
28	3.11193
29	3.09567
30	3.11507
31	3.11548
32	3.11395
33	3.11562
34	3.11065
35	3.1151
36	3.12144
37	3.11337
38	3.10485
39	3.12101
40	3.12099
41	3.08196
42	3.12119
43	3.1104
44	3.12148
45	3.12188
46	3.11205
47	3.11603
48	3.10184
49	3.11126
50	3.09401
51	3.11033
52	3.1129
53	3.10356
54	3.11596
55	3.10894
56	3.07839
57	3.11333
58	3.12099
59	3.11002
60	3.11419
61	3.11295
62	3.11437
63	3.11545
64	3.11578
65	3.11782
66	3.09383
67	3.11384
68	3.09432
69	3.11711
70	3.10979
71	3.11673
72	3.10445
73	3.11205
74	3.11089
75	3.10465
76	3.11782
77	3.11318
78	3.11285
79	3.11052
