STARTING WORLD SCHEDULER SERVER
CLIENT SETUP: adding client 47960
 + TIMESTAMP: 0.289844
START TIMESTAMP: 0.289888
+++++++++++++++++++++++++++++++++++++++++++++++++++++++++++
+ Client Mapping:
  > Client 47960 (0):	

+ Core Mapping:	0 0 0 0 0 0 0 0 0 0 0 0 0 0 0 0 0 0 0 0 0 0 0 0 0 0 0 0 0 0 0 0 0 0 0 0 0 0 0 0 
+ Optimal point: 
+++++++++++++++++++++++++++++++++++++++++++++++++++++++++++
CLIENT SETUP: adding client 47966
 + TIMESTAMP: 0.289945
+++++++++++++++++++++++++++++++++++++++++++++++++++++++++++
+ Client Mapping:
  > Client 47960 (0):	
  > Client 47966 (0):	

+ Core Mapping:	0 0 0 0 0 0 0 0 0 0 0 0 0 0 0 0 0 0 0 0 0 0 0 0 0 0 0 0 0 0 0 0 0 0 0 0 0 0 0 0 
+ Optimal point: 
+++++++++++++++++++++++++++++++++++++++++++++++++++++++++++
CLIENT SETUP: adding client 47961
 + TIMESTAMP: 0.289987
+++++++++++++++++++++++++++++++++++++++++++++++++++++++++++
+ Client Mapping:
  > Client 47960 (0):	
  > Client 47966 (0):	
  > Client 47961 (0):	

+ Core Mapping:	0 0 0 0 0 0 0 0 0 0 0 0 0 0 0 0 0 0 0 0 0 0 0 0 0 0 0 0 0 0 0 0 0 0 0 0 0 0 0 0 
+ Optimal point: 
+++++++++++++++++++++++++++++++++++++++++++++++++++++++++++
INVADE: client 47960
 + TIMESTAMP: 0.290037
RESSOURCE DISTRIBUTION CHANGED
++++++++++++++++++++++++++++++++++++++++++++++++
INVADE (47960)
  + pid: 47960
  + min_cores: 1
  + max_cores: 512
  + scalability graph: 
1, 1.36329, 1.52423, 1.62017, 1.68565, 1.73398, 1.77154, 1.80182, 1.8269, 1.84812, 1.86637, 1.88229, 1.89634, 1.90885, 1.92009, 1.93026, 1.93952, 1.94799, 1.95579, 1.963, 1.96968, 1.9759, 1.98172, 1.98716, 1.99228, 1.9971, 2.00164, 2.00594, 2.01002, 2.01389, 2.01757, 2.02108, 2.02443, 2.02763, 2.03069, 2.03362, 2.03644, 2.03914, 2.04173, 2.04423, 
Number of clients: 3

+++++++++++++++++++++++++++++++++++++++++++++++++++++++++++
+ Client Mapping:
  > Client 47960 (1):	0 
  > Client 47966 (0):	
  > Client 47961 (0):	

+ Core Mapping:	47960 0 0 0 0 0 0 0 0 0 0 0 0 0 0 0 0 0 0 0 0 0 0 0 0 0 0 0 0 0 0 0 0 0 0 0 0 0 0 0 
+ Optimal point: 1 38 1 
+++++++++++++++++++++++++++++++++++++++++++++++++++++++++++
CLIENT SETUP: adding client 47967
 + TIMESTAMP: 0.290159
+++++++++++++++++++++++++++++++++++++++++++++++++++++++++++
+ Client Mapping:
  > Client 47960 (1):	0 
  > Client 47966 (0):	
  > Client 47961 (0):	
  > Client 47967 (0):	

+ Core Mapping:	47960 0 0 0 0 0 0 0 0 0 0 0 0 0 0 0 0 0 0 0 0 0 0 0 0 0 0 0 0 0 0 0 0 0 0 0 0 0 0 0 
+ Optimal point: 1 38 1 
+++++++++++++++++++++++++++++++++++++++++++++++++++++++++++
INVADE: client 47966
 + TIMESTAMP: 0.290205
RESSOURCE DISTRIBUTION CHANGED
++++++++++++++++++++++++++++++++++++++++++++++++
INVADE (47966)
  + pid: 47966
  + min_cores: 1
  + max_cores: 512
  + scalability graph: 
1, 1.36329, 1.52423, 1.62017, 1.68565, 1.73398, 1.77154, 1.80182, 1.8269, 1.84812, 1.86637, 1.88229, 1.89634, 1.90885, 1.92009, 1.93026, 1.93952, 1.94799, 1.95579, 1.963, 1.96968, 1.9759, 1.98172, 1.98716, 1.99228, 1.9971, 2.00164, 2.00594, 2.01002, 2.01389, 2.01757, 2.02108, 2.02443, 2.02763, 2.03069, 2.03362, 2.03644, 2.03914, 2.04173, 2.04423, 
Number of clients: 4

+++++++++++++++++++++++++++++++++++++++++++++++++++++++++++
+ Client Mapping:
  > Client 47960 (1):	0 
  > Client 47966 (1):	1 
  > Client 47961 (0):	
  > Client 47967 (0):	

+ Core Mapping:	47960 47966 0 0 0 0 0 0 0 0 0 0 0 0 0 0 0 0 0 0 0 0 0 0 0 0 0 0 0 0 0 0 0 0 0 0 0 0 0 0 
+ Optimal point: 1 1 37 1 
+++++++++++++++++++++++++++++++++++++++++++++++++++++++++++
INVADE: client 47961
 + TIMESTAMP: 0.290339
RESSOURCE DISTRIBUTION CHANGED
++++++++++++++++++++++++++++++++++++++++++++++++
INVADE (47961)
  + pid: 47961
  + min_cores: 1
  + max_cores: 512
  + scalability graph: 
1, 1.36329, 1.52423, 1.62017, 1.68565, 1.73398, 1.77154, 1.80182, 1.8269, 1.84812, 1.86637, 1.88229, 1.89634, 1.90885, 1.92009, 1.93026, 1.93952, 1.94799, 1.95579, 1.963, 1.96968, 1.9759, 1.98172, 1.98716, 1.99228, 1.9971, 2.00164, 2.00594, 2.01002, 2.01389, 2.01757, 2.02108, 2.02443, 2.02763, 2.03069, 2.03362, 2.03644, 2.03914, 2.04173, 2.04423, 
Number of clients: 4

+++++++++++++++++++++++++++++++++++++++++++++++++++++++++++
+ Client Mapping:
  > Client 47960 (1):	0 
  > Client 47966 (1):	1 
  > Client 47961 (1):	2 
  > Client 47967 (0):	

+ Core Mapping:	47960 47966 47961 0 0 0 0 0 0 0 0 0 0 0 0 0 0 0 0 0 0 0 0 0 0 0 0 0 0 0 0 0 0 0 0 0 0 0 0 0 
+ Optimal point: 1 1 1 37 
+++++++++++++++++++++++++++++++++++++++++++++++++++++++++++
CLIENT SETUP: adding client 47965
 + TIMESTAMP: 0.290467
+++++++++++++++++++++++++++++++++++++++++++++++++++++++++++
+ Client Mapping:
  > Client 47960 (1):	0 
  > Client 47966 (1):	1 
  > Client 47961 (1):	2 
  > Client 47967 (0):	
  > Client 47965 (0):	

+ Core Mapping:	47960 47966 47961 0 0 0 0 0 0 0 0 0 0 0 0 0 0 0 0 0 0 0 0 0 0 0 0 0 0 0 0 0 0 0 0 0 0 0 0 0 
+ Optimal point: 1 1 1 37 
+++++++++++++++++++++++++++++++++++++++++++++++++++++++++++
INVADE: client 47967
 + TIMESTAMP: 0.290516
RESSOURCE DISTRIBUTION CHANGED
++++++++++++++++++++++++++++++++++++++++++++++++
INVADE (47967)
  + pid: 47967
  + min_cores: 1
  + max_cores: 512
  + scalability graph: 
1, 1.36329, 1.52423, 1.62017, 1.68565, 1.73398, 1.77154, 1.80182, 1.8269, 1.84812, 1.86637, 1.88229, 1.89634, 1.90885, 1.92009, 1.93026, 1.93952, 1.94799, 1.95579, 1.963, 1.96968, 1.9759, 1.98172, 1.98716, 1.99228, 1.9971, 2.00164, 2.00594, 2.01002, 2.01389, 2.01757, 2.02108, 2.02443, 2.02763, 2.03069, 2.03362, 2.03644, 2.03914, 2.04173, 2.04423, 
Number of clients: 5

+++++++++++++++++++++++++++++++++++++++++++++++++++++++++++
+ Client Mapping:
  > Client 47960 (1):	0 
  > Client 47966 (1):	1 
  > Client 47961 (1):	2 
  > Client 47967 (1):	3 
  > Client 47965 (0):	

+ Core Mapping:	47960 47966 47961 47967 0 0 0 0 0 0 0 0 0 0 0 0 0 0 0 0 0 0 0 0 0 0 0 0 0 0 0 0 0 0 0 0 0 0 0 0 
+ Optimal point: 1 1 1 1 36 
+++++++++++++++++++++++++++++++++++++++++++++++++++++++++++
INVADE: client 47965
 + TIMESTAMP: 0.290651
RESSOURCE DISTRIBUTION CHANGED
++++++++++++++++++++++++++++++++++++++++++++++++
INVADE (47965)
  + pid: 47965
  + min_cores: 1
  + max_cores: 512
  + scalability graph: 
1, 1.36329, 1.52423, 1.62017, 1.68565, 1.73398, 1.77154, 1.80182, 1.8269, 1.84812, 1.86637, 1.88229, 1.89634, 1.90885, 1.92009, 1.93026, 1.93952, 1.94799, 1.95579, 1.963, 1.96968, 1.9759, 1.98172, 1.98716, 1.99228, 1.9971, 2.00164, 2.00594, 2.01002, 2.01389, 2.01757, 2.02108, 2.02443, 2.02763, 2.03069, 2.03362, 2.03644, 2.03914, 2.04173, 2.04423, 
Number of clients: 5

+++++++++++++++++++++++++++++++++++++++++++++++++++++++++++
+ Client Mapping:
  > Client 47960 (1):	0 
  > Client 47966 (1):	1 
  > Client 47961 (1):	2 
  > Client 47967 (1):	3 
  > Client 47965 (8):	4 5 6 7 8 9 10 11 

+ Core Mapping:	47960 47966 47961 47967 47965 47965 47965 47965 47965 47965 47965 47965 0 0 0 0 0 0 0 0 0 0 0 0 0 0 0 0 0 0 0 0 0 0 0 0 0 0 0 0 
+ Optimal point: 8 8 8 8 8 
+++++++++++++++++++++++++++++++++++++++++++++++++++++++++++
++++++++++++++++++++++++++++++++++++++++++++++++
 + TIMESTAMP: 0.291117
REINVADE (47961)
  + pid: 47961
  + min_cores: 1
  + max_cores: 512
  + scalability graph: 
1, 1.36329, 1.52423, 1.62017, 1.68565, 1.73398, 1.77154, 1.80182, 1.8269, 1.84812, 1.86637, 1.88229, 1.89634, 1.90885, 1.92009, 1.93026, 1.93952, 1.94799, 1.95579, 1.963, 1.96968, 1.9759, 1.98172, 1.98716, 1.99228, 1.9971, 2.00164, 2.00594, 2.01002, 2.01389, 2.01757, 2.02108, 2.02443, 2.02763, 2.03069, 2.03362, 2.03644, 2.03914, 2.04173, 2.04423, 
Number of clients: 5

+++++++++++++++++++++++++++++++++++++++++++++++++++++++++++
+ Client Mapping:
  > Client 47960 (1):	0 
  > Client 47966 (1):	1 
  > Client 47961 (8):	2 12 13 14 15 16 17 18 
  > Client 47967 (1):	3 
  > Client 47965 (8):	4 5 6 7 8 9 10 11 

+ Core Mapping:	47960 47966 47961 47967 47965 47965 47965 47965 47965 47965 47965 47965 47961 47961 47961 47961 47961 47961 47961 0 0 0 0 0 0 0 0 0 0 0 0 0 0 0 0 0 0 0 0 0 
+ Optimal point: 8 8 8 8 8 
+++++++++++++++++++++++++++++++++++++++++++++++++++++++++++
++++++++++++++++++++++++++++++++++++++++++++++++
 + TIMESTAMP: 0.291772
REINVADE (47960)
  + pid: 47960
  + min_cores: 1
  + max_cores: 512
  + scalability graph: 
1, 1.36329, 1.52423, 1.62017, 1.68565, 1.73398, 1.77154, 1.80182, 1.8269, 1.84812, 1.86637, 1.88229, 1.89634, 1.90885, 1.92009, 1.93026, 1.93952, 1.94799, 1.95579, 1.963, 1.96968, 1.9759, 1.98172, 1.98716, 1.99228, 1.9971, 2.00164, 2.00594, 2.01002, 2.01389, 2.01757, 2.02108, 2.02443, 2.02763, 2.03069, 2.03362, 2.03644, 2.03914, 2.04173, 2.04423, 
Number of clients: 5

+++++++++++++++++++++++++++++++++++++++++++++++++++++++++++
+ Client Mapping:
  > Client 47960 (8):	0 19 20 21 22 23 24 25 
  > Client 47966 (1):	1 
  > Client 47961 (8):	2 12 13 14 15 16 17 18 
  > Client 47967 (1):	3 
  > Client 47965 (8):	4 5 6 7 8 9 10 11 

+ Core Mapping:	47960 47966 47961 47967 47965 47965 47965 47965 47965 47965 47965 47965 47961 47961 47961 47961 47961 47961 47961 47960 47960 47960 47960 47960 47960 47960 0 0 0 0 0 0 0 0 0 0 0 0 0 0 
+ Optimal point: 8 8 8 8 8 
+++++++++++++++++++++++++++++++++++++++++++++++++++++++++++
++++++++++++++++++++++++++++++++++++++++++++++++
 + TIMESTAMP: 0.291913
REINVADE (47967)
  + pid: 47967
  + min_cores: 1
  + max_cores: 512
  + scalability graph: 
1, 1.36329, 1.52423, 1.62017, 1.68565, 1.73398, 1.77154, 1.80182, 1.8269, 1.84812, 1.86637, 1.88229, 1.89634, 1.90885, 1.92009, 1.93026, 1.93952, 1.94799, 1.95579, 1.963, 1.96968, 1.9759, 1.98172, 1.98716, 1.99228, 1.9971, 2.00164, 2.00594, 2.01002, 2.01389, 2.01757, 2.02108, 2.02443, 2.02763, 2.03069, 2.03362, 2.03644, 2.03914, 2.04173, 2.04423, 
Number of clients: 5

+++++++++++++++++++++++++++++++++++++++++++++++++++++++++++
+ Client Mapping:
  > Client 47960 (8):	0 19 20 21 22 23 24 25 
  > Client 47966 (1):	1 
  > Client 47961 (8):	2 12 13 14 15 16 17 18 
  > Client 47967 (8):	3 26 27 28 29 30 31 32 
  > Client 47965 (8):	4 5 6 7 8 9 10 11 

+ Core Mapping:	47960 47966 47961 47967 47965 47965 47965 47965 47965 47965 47965 47965 47961 47961 47961 47961 47961 47961 47961 47960 47960 47960 47960 47960 47960 47960 47967 47967 47967 47967 47967 47967 47967 0 0 0 0 0 0 0 
+ Optimal point: 8 8 8 8 8 
+++++++++++++++++++++++++++++++++++++++++++++++++++++++++++
++++++++++++++++++++++++++++++++++++++++++++++++
 + TIMESTAMP: 0.292108
REINVADE (47966)
  + pid: 47966
  + min_cores: 1
  + max_cores: 512
  + scalability graph: 
1, 1.36329, 1.52423, 1.62017, 1.68565, 1.73398, 1.77154, 1.80182, 1.8269, 1.84812, 1.86637, 1.88229, 1.89634, 1.90885, 1.92009, 1.93026, 1.93952, 1.94799, 1.95579, 1.963, 1.96968, 1.9759, 1.98172, 1.98716, 1.99228, 1.9971, 2.00164, 2.00594, 2.01002, 2.01389, 2.01757, 2.02108, 2.02443, 2.02763, 2.03069, 2.03362, 2.03644, 2.03914, 2.04173, 2.04423, 
Number of clients: 5

+++++++++++++++++++++++++++++++++++++++++++++++++++++++++++
+ Client Mapping:
  > Client 47960 (8):	0 19 20 21 22 23 24 25 
  > Client 47966 (8):	1 33 34 35 36 37 38 39 
  > Client 47961 (8):	2 12 13 14 15 16 17 18 
  > Client 47967 (8):	3 26 27 28 29 30 31 32 
  > Client 47965 (8):	4 5 6 7 8 9 10 11 

+ Core Mapping:	47960 47966 47961 47967 47965 47965 47965 47965 47965 47965 47965 47965 47961 47961 47961 47961 47961 47961 47961 47960 47960 47960 47960 47960 47960 47960 47967 47967 47967 47967 47967 47967 47967 47966 47966 47966 47966 47966 47966 47966 
+ Optimal point: 8 8 8 8 8 
+++++++++++++++++++++++++++++++++++++++++++++++++++++++++++
CLIENT SETUP: adding client 47959
 + TIMESTAMP: 0.29223
+++++++++++++++++++++++++++++++++++++++++++++++++++++++++++
+ Client Mapping:
  > Client 47960 (8):	0 19 20 21 22 23 24 25 
  > Client 47966 (8):	1 33 34 35 36 37 38 39 
  > Client 47961 (8):	2 12 13 14 15 16 17 18 
  > Client 47967 (8):	3 26 27 28 29 30 31 32 
  > Client 47965 (8):	4 5 6 7 8 9 10 11 
  > Client 47959 (0):	

+ Core Mapping:	47960 47966 47961 47967 47965 47965 47965 47965 47965 47965 47965 47965 47961 47961 47961 47961 47961 47961 47961 47960 47960 47960 47960 47960 47960 47960 47967 47967 47967 47967 47967 47967 47967 47966 47966 47966 47966 47966 47966 47966 
+ Optimal point: 8 8 8 8 8 
+++++++++++++++++++++++++++++++++++++++++++++++++++++++++++
CLIENT SETUP: adding client 47964
 + TIMESTAMP: 0.292341
+++++++++++++++++++++++++++++++++++++++++++++++++++++++++++
+ Client Mapping:
  > Client 47960 (8):	0 19 20 21 22 23 24 25 
  > Client 47966 (8):	1 33 34 35 36 37 38 39 
  > Client 47961 (8):	2 12 13 14 15 16 17 18 
  > Client 47967 (8):	3 26 27 28 29 30 31 32 
  > Client 47965 (8):	4 5 6 7 8 9 10 11 
  > Client 47959 (0):	
  > Client 47964 (0):	

+ Core Mapping:	47960 47966 47961 47967 47965 47965 47965 47965 47965 47965 47965 47965 47961 47961 47961 47961 47961 47961 47961 47960 47960 47960 47960 47960 47960 47960 47967 47967 47967 47967 47967 47967 47967 47966 47966 47966 47966 47966 47966 47966 
+ Optimal point: 8 8 8 8 8 
+++++++++++++++++++++++++++++++++++++++++++++++++++++++++++
CLIENT SETUP: adding client 47963
 + TIMESTAMP: 0.292411
+++++++++++++++++++++++++++++++++++++++++++++++++++++++++++
+ Client Mapping:
  > Client 47960 (8):	0 19 20 21 22 23 24 25 
  > Client 47966 (8):	1 33 34 35 36 37 38 39 
  > Client 47961 (8):	2 12 13 14 15 16 17 18 
  > Client 47967 (8):	3 26 27 28 29 30 31 32 
  > Client 47965 (8):	4 5 6 7 8 9 10 11 
  > Client 47959 (0):	
  > Client 47964 (0):	
  > Client 47963 (0):	

+ Core Mapping:	47960 47966 47961 47967 47965 47965 47965 47965 47965 47965 47965 47965 47961 47961 47961 47961 47961 47961 47961 47960 47960 47960 47960 47960 47960 47960 47967 47967 47967 47967 47967 47967 47967 47966 47966 47966 47966 47966 47966 47966 
+ Optimal point: 8 8 8 8 8 
+++++++++++++++++++++++++++++++++++++++++++++++++++++++++++
CLIENT SETUP: adding client 47962
 + TIMESTAMP: 0.292458
+++++++++++++++++++++++++++++++++++++++++++++++++++++++++++
+ Client Mapping:
  > Client 47960 (8):	0 19 20 21 22 23 24 25 
  > Client 47966 (8):	1 33 34 35 36 37 38 39 
  > Client 47961 (8):	2 12 13 14 15 16 17 18 
  > Client 47967 (8):	3 26 27 28 29 30 31 32 
  > Client 47965 (8):	4 5 6 7 8 9 10 11 
  > Client 47959 (0):	
  > Client 47964 (0):	
  > Client 47963 (0):	
  > Client 47962 (0):	

+ Core Mapping:	47960 47966 47961 47967 47965 47965 47965 47965 47965 47965 47965 47965 47961 47961 47961 47961 47961 47961 47961 47960 47960 47960 47960 47960 47960 47960 47967 47967 47967 47967 47967 47967 47967 47966 47966 47966 47966 47966 47966 47966 
+ Optimal point: 8 8 8 8 8 
+++++++++++++++++++++++++++++++++++++++++++++++++++++++++++
INVADE: client 47959
 + TIMESTAMP: 0.292503
INVADE: client 47964
 + TIMESTAMP: 0.292528
++++++++++++++++++++++++++++++++++++++++++++++++
 + TIMESTAMP: 0.292603
REINVADE (47965)
  + pid: 47965
  + min_cores: 1
  + max_cores: 512
  + scalability graph: 
1, 1.36329, 1.52423, 1.62017, 1.68565, 1.73398, 1.77154, 1.80182, 1.8269, 1.84812, 1.86637, 1.88229, 1.89634, 1.90885, 1.92009, 1.93026, 1.93952, 1.94799, 1.95579, 1.963, 1.96968, 1.9759, 1.98172, 1.98716, 1.99228, 1.9971, 2.00164, 2.00594, 2.01002, 2.01389, 2.01757, 2.02108, 2.02443, 2.02763, 2.03069, 2.03362, 2.03644, 2.03914, 2.04173, 2.04423, 
Number of clients: 9

+++++++++++++++++++++++++++++++++++++++++++++++++++++++++++
+ Client Mapping:
  > Client 47960 (8):	0 19 20 21 22 23 24 25 
  > Client 47966 (8):	1 33 34 35 36 37 38 39 
  > Client 47961 (8):	2 12 13 14 15 16 17 18 
  > Client 47967 (8):	3 26 27 28 29 30 31 32 
  > Client 47965 (1):	11 
  > Client 47959 (0):	
  > Client 47964 (0):	
  > Client 47963 (0):	
  > Client 47962 (0):	

+ Core Mapping:	47960 47966 47961 47967 0 0 0 0 0 0 0 47965 47961 47961 47961 47961 47961 47961 47961 47960 47960 47960 47960 47960 47960 47960 47967 47967 47967 47967 47967 47967 47967 47966 47966 47966 47966 47966 47966 47966 
+ Optimal point: 1 1 1 1 1 1 1 32 1 
+++++++++++++++++++++++++++++++++++++++++++++++++++++++++++
INVADE: client 47963
 + TIMESTAMP: 0.292686
RESSOURCE DISTRIBUTION CHANGED
++++++++++++++++++++++++++++++++++++++++++++++++
INVADE (47963)
  + pid: 47963
  + min_cores: 1
  + max_cores: 512
  + scalability graph: 
1, 1.36329, 1.52423, 1.62017, 1.68565, 1.73398, 1.77154, 1.80182, 1.8269, 1.84812, 1.86637, 1.88229, 1.89634, 1.90885, 1.92009, 1.93026, 1.93952, 1.94799, 1.95579, 1.963, 1.96968, 1.9759, 1.98172, 1.98716, 1.99228, 1.9971, 2.00164, 2.00594, 2.01002, 2.01389, 2.01757, 2.02108, 2.02443, 2.02763, 2.03069, 2.03362, 2.03644, 2.03914, 2.04173, 2.04423, 
Number of clients: 9

+++++++++++++++++++++++++++++++++++++++++++++++++++++++++++
+ Client Mapping:
  > Client 47960 (8):	0 19 20 21 22 23 24 25 
  > Client 47966 (8):	1 33 34 35 36 37 38 39 
  > Client 47961 (8):	2 12 13 14 15 16 17 18 
  > Client 47967 (8):	3 26 27 28 29 30 31 32 
  > Client 47965 (1):	11 
  > Client 47959 (0):	
  > Client 47964 (0):	
  > Client 47963 (1):	4 
  > Client 47962 (0):	

+ Core Mapping:	47960 47966 47961 47967 47963 0 0 0 0 0 0 47965 47961 47961 47961 47961 47961 47961 47961 47960 47960 47960 47960 47960 47960 47960 47967 47967 47967 47967 47967 47967 47967 47966 47966 47966 47966 47966 47966 47966 
+ Optimal point: 1 1 1 1 1 1 1 1 32 
+++++++++++++++++++++++++++++++++++++++++++++++++++++++++++
INVADE: client 47962
 + TIMESTAMP: 0.292827
RESSOURCE DISTRIBUTION CHANGED
++++++++++++++++++++++++++++++++++++++++++++++++
INVADE (47962)
  + pid: 47962
  + min_cores: 1
  + max_cores: 512
  + scalability graph: 
1, 1.36329, 1.52423, 1.62017, 1.68565, 1.73398, 1.77154, 1.80182, 1.8269, 1.84812, 1.86637, 1.88229, 1.89634, 1.90885, 1.92009, 1.93026, 1.93952, 1.94799, 1.95579, 1.963, 1.96968, 1.9759, 1.98172, 1.98716, 1.99228, 1.9971, 2.00164, 2.00594, 2.01002, 2.01389, 2.01757, 2.02108, 2.02443, 2.02763, 2.03069, 2.03362, 2.03644, 2.03914, 2.04173, 2.04423, 
Number of clients: 9

+++++++++++++++++++++++++++++++++++++++++++++++++++++++++++
+ Client Mapping:
  > Client 47960 (8):	0 19 20 21 22 23 24 25 
  > Client 47966 (8):	1 33 34 35 36 37 38 39 
  > Client 47961 (8):	2 12 13 14 15 16 17 18 
  > Client 47967 (8):	3 26 27 28 29 30 31 32 
  > Client 47965 (1):	11 
  > Client 47959 (0):	
  > Client 47964 (0):	
  > Client 47963 (1):	4 
  > Client 47962 (4):	5 6 7 8 

+ Core Mapping:	47960 47966 47961 47967 47963 47962 47962 47962 47962 0 0 47965 47961 47961 47961 47961 47961 47961 47961 47960 47960 47960 47960 47960 47960 47960 47967 47967 47967 47967 47967 47967 47967 47966 47966 47966 47966 47966 47966 47966 
+ Optimal point: 5 5 5 5 4 4 4 4 4 
+++++++++++++++++++++++++++++++++++++++++++++++++++++++++++
++++++++++++++++++++++++++++++++++++++++++++++++
 + TIMESTAMP: 0.293008
REINVADE (47959)
  + pid: 47959
  + min_cores: 1
  + max_cores: 512
  + scalability graph: 
1, 1.36329, 1.52423, 1.62017, 1.68565, 1.73398, 1.77154, 1.80182, 1.8269, 1.84812, 1.86637, 1.88229, 1.89634, 1.90885, 1.92009, 1.93026, 1.93952, 1.94799, 1.95579, 1.963, 1.96968, 1.9759, 1.98172, 1.98716, 1.99228, 1.9971, 2.00164, 2.00594, 2.01002, 2.01389, 2.01757, 2.02108, 2.02443, 2.02763, 2.03069, 2.03362, 2.03644, 2.03914, 2.04173, 2.04423, 
Number of clients: 9

+++++++++++++++++++++++++++++++++++++++++++++++++++++++++++
+ Client Mapping:
  > Client 47960 (8):	0 19 20 21 22 23 24 25 
  > Client 47966 (8):	1 33 34 35 36 37 38 39 
  > Client 47961 (8):	2 12 13 14 15 16 17 18 
  > Client 47967 (8):	3 26 27 28 29 30 31 32 
  > Client 47965 (1):	11 
  > Client 47959 (2):	9 10 
  > Client 47964 (0):	
  > Client 47963 (1):	4 
  > Client 47962 (4):	5 6 7 8 

+ Core Mapping:	47960 47966 47961 47967 47963 47962 47962 47962 47962 47959 47959 47965 47961 47961 47961 47961 47961 47961 47961 47960 47960 47960 47960 47960 47960 47960 47967 47967 47967 47967 47967 47967 47967 47966 47966 47966 47966 47966 47966 47966 
+ Optimal point: 5 5 5 5 4 4 4 4 4 
+++++++++++++++++++++++++++++++++++++++++++++++++++++++++++
++++++++++++++++++++++++++++++++++++++++++++++++
 + TIMESTAMP: 0.301318
REINVADE (47961)
  + pid: 47961
  + min_cores: 1
  + max_cores: 512
  + scalability graph: 
1, 1.36329, 1.52423, 1.62017, 1.68565, 1.73398, 1.77154, 1.80182, 1.8269, 1.84812, 1.86637, 1.88229, 1.89634, 1.90885, 1.92009, 1.93026, 1.93952, 1.94799, 1.95579, 1.963, 1.96968, 1.9759, 1.98172, 1.98716, 1.99228, 1.9971, 2.00164, 2.00594, 2.01002, 2.01389, 2.01757, 2.02108, 2.02443, 2.02763, 2.03069, 2.03362, 2.03644, 2.03914, 2.04173, 2.04423, 
Number of clients: 9

+++++++++++++++++++++++++++++++++++++++++++++++++++++++++++
+ Client Mapping:
  > Client 47960 (8):	0 19 20 21 22 23 24 25 
  > Client 47966 (8):	1 33 34 35 36 37 38 39 
  > Client 47961 (5):	14 15 16 17 18 
  > Client 47967 (8):	3 26 27 28 29 30 31 32 
  > Client 47965 (1):	11 
  > Client 47959 (2):	9 10 
  > Client 47964 (0):	
  > Client 47963 (1):	4 
  > Client 47962 (4):	5 6 7 8 

+ Core Mapping:	47960 47966 0 47967 47963 47962 47962 47962 47962 47959 47959 47965 0 0 47961 47961 47961 47961 47961 47960 47960 47960 47960 47960 47960 47960 47967 47967 47967 47967 47967 47967 47967 47966 47966 47966 47966 47966 47966 47966 
+ Optimal point: 5 5 5 5 4 4 4 4 4 
+++++++++++++++++++++++++++++++++++++++++++++++++++++++++++
++++++++++++++++++++++++++++++++++++++++++++++++
 + TIMESTAMP: 0.301596
REINVADE (47966)
  + pid: 47966
  + min_cores: 1
  + max_cores: 512
  + scalability graph: 
1, 1.36329, 1.52423, 1.62017, 1.68565, 1.73398, 1.77154, 1.80182, 1.8269, 1.84812, 1.86637, 1.88229, 1.89634, 1.90885, 1.92009, 1.93026, 1.93952, 1.94799, 1.95579, 1.963, 1.96968, 1.9759, 1.98172, 1.98716, 1.99228, 1.9971, 2.00164, 2.00594, 2.01002, 2.01389, 2.01757, 2.02108, 2.02443, 2.02763, 2.03069, 2.03362, 2.03644, 2.03914, 2.04173, 2.04423, 
Number of clients: 9

+++++++++++++++++++++++++++++++++++++++++++++++++++++++++++
+ Client Mapping:
  > Client 47960 (8):	0 19 20 21 22 23 24 25 
  > Client 47966 (5):	35 36 37 38 39 
  > Client 47961 (5):	14 15 16 17 18 
  > Client 47967 (8):	3 26 27 28 29 30 31 32 
  > Client 47965 (1):	11 
  > Client 47959 (2):	9 10 
  > Client 47964 (0):	
  > Client 47963 (1):	4 
  > Client 47962 (4):	5 6 7 8 

+ Core Mapping:	47960 0 0 47967 47963 47962 47962 47962 47962 47959 47959 47965 0 0 47961 47961 47961 47961 47961 47960 47960 47960 47960 47960 47960 47960 47967 47967 47967 47967 47967 47967 47967 0 0 47966 47966 47966 47966 47966 
+ Optimal point: 5 5 5 5 4 4 4 4 4 
+++++++++++++++++++++++++++++++++++++++++++++++++++++++++++
++++++++++++++++++++++++++++++++++++++++++++++++
 + TIMESTAMP: 0.303455
REINVADE (47967)
  + pid: 47967
  + min_cores: 1
  + max_cores: 512
  + scalability graph: 
1, 1.36329, 1.52423, 1.62017, 1.68565, 1.73398, 1.77154, 1.80182, 1.8269, 1.84812, 1.86637, 1.88229, 1.89634, 1.90885, 1.92009, 1.93026, 1.93952, 1.94799, 1.95579, 1.963, 1.96968, 1.9759, 1.98172, 1.98716, 1.99228, 1.9971, 2.00164, 2.00594, 2.01002, 2.01389, 2.01757, 2.02108, 2.02443, 2.02763, 2.03069, 2.03362, 2.03644, 2.03914, 2.04173, 2.04423, 
Number of clients: 9

+++++++++++++++++++++++++++++++++++++++++++++++++++++++++++
+ Client Mapping:
  > Client 47960 (8):	0 19 20 21 22 23 24 25 
  > Client 47966 (5):	35 36 37 38 39 
  > Client 47961 (5):	14 15 16 17 18 
  > Client 47967 (5):	28 29 30 31 32 
  > Client 47965 (1):	11 
  > Client 47959 (2):	9 10 
  > Client 47964 (0):	
  > Client 47963 (1):	4 
  > Client 47962 (4):	5 6 7 8 

+ Core Mapping:	47960 0 0 0 47963 47962 47962 47962 47962 47959 47959 47965 0 0 47961 47961 47961 47961 47961 47960 47960 47960 47960 47960 47960 47960 0 0 47967 47967 47967 47967 47967 0 0 47966 47966 47966 47966 47966 
+ Optimal point: 5 5 5 5 4 4 4 4 4 
+++++++++++++++++++++++++++++++++++++++++++++++++++++++++++
++++++++++++++++++++++++++++++++++++++++++++++++
 + TIMESTAMP: 0.308207
REINVADE (47960)
  + pid: 47960
  + min_cores: 1
  + max_cores: 512
  + scalability graph: 
1, 1.36329, 1.52423, 1.62017, 1.68565, 1.73398, 1.77154, 1.80182, 1.8269, 1.84812, 1.86637, 1.88229, 1.89634, 1.90885, 1.92009, 1.93026, 1.93952, 1.94799, 1.95579, 1.963, 1.96968, 1.9759, 1.98172, 1.98716, 1.99228, 1.9971, 2.00164, 2.00594, 2.01002, 2.01389, 2.01757, 2.02108, 2.02443, 2.02763, 2.03069, 2.03362, 2.03644, 2.03914, 2.04173, 2.04423, 
Number of clients: 9

+++++++++++++++++++++++++++++++++++++++++++++++++++++++++++
+ Client Mapping:
  > Client 47960 (5):	21 22 23 24 25 
  > Client 47966 (5):	35 36 37 38 39 
  > Client 47961 (5):	14 15 16 17 18 
  > Client 47967 (5):	28 29 30 31 32 
  > Client 47965 (1):	11 
  > Client 47959 (2):	9 10 
  > Client 47964 (0):	
  > Client 47963 (1):	4 
  > Client 47962 (4):	5 6 7 8 

+ Core Mapping:	0 0 0 0 47963 47962 47962 47962 47962 47959 47959 47965 0 0 47961 47961 47961 47961 47961 0 0 47960 47960 47960 47960 47960 0 0 47967 47967 47967 47967 47967 0 0 47966 47966 47966 47966 47966 
+ Optimal point: 5 5 5 5 4 4 4 4 4 
+++++++++++++++++++++++++++++++++++++++++++++++++++++++++++
++++++++++++++++++++++++++++++++++++++++++++++++
 + TIMESTAMP: 0.313026
REINVADE (47963)
  + pid: 47963
  + min_cores: 1
  + max_cores: 512
  + scalability graph: 
1, 1.36329, 1.52423, 1.62017, 1.68565, 1.73398, 1.77154, 1.80182, 1.8269, 1.84812, 1.86637, 1.88229, 1.89634, 1.90885, 1.92009, 1.93026, 1.93952, 1.94799, 1.95579, 1.963, 1.96968, 1.9759, 1.98172, 1.98716, 1.99228, 1.9971, 2.00164, 2.00594, 2.01002, 2.01389, 2.01757, 2.02108, 2.02443, 2.02763, 2.03069, 2.03362, 2.03644, 2.03914, 2.04173, 2.04423, 
Number of clients: 9

+++++++++++++++++++++++++++++++++++++++++++++++++++++++++++
+ Client Mapping:
  > Client 47960 (5):	21 22 23 24 25 
  > Client 47966 (5):	35 36 37 38 39 
  > Client 47961 (5):	14 15 16 17 18 
  > Client 47967 (5):	28 29 30 31 32 
  > Client 47965 (1):	11 
  > Client 47959 (2):	9 10 
  > Client 47964 (0):	
  > Client 47963 (4):	4 0 1 2 
  > Client 47962 (4):	5 6 7 8 

+ Core Mapping:	47963 47963 47963 0 47963 47962 47962 47962 47962 47959 47959 47965 0 0 47961 47961 47961 47961 47961 0 0 47960 47960 47960 47960 47960 0 0 47967 47967 47967 47967 47967 0 0 47966 47966 47966 47966 47966 
+ Optimal point: 5 5 5 5 4 4 4 4 4 
+++++++++++++++++++++++++++++++++++++++++++++++++++++++++++
++++++++++++++++++++++++++++++++++++++++++++++++
 + TIMESTAMP: 0.328872
REINVADE (47959)
  + pid: 47959
  + min_cores: 1
  + max_cores: 512
  + scalability graph: 
1, 1.36329, 1.52423, 1.62017, 1.68565, 1.73398, 1.77154, 1.80182, 1.8269, 1.84812, 1.86637, 1.88229, 1.89634, 1.90885, 1.92009, 1.93026, 1.93952, 1.94799, 1.95579, 1.963, 1.96968, 1.9759, 1.98172, 1.98716, 1.99228, 1.9971, 2.00164, 2.00594, 2.01002, 2.01389, 2.01757, 2.02108, 2.02443, 2.02763, 2.03069, 2.03362, 2.03644, 2.03914, 2.04173, 2.04423, 
Number of clients: 9

+++++++++++++++++++++++++++++++++++++++++++++++++++++++++++
+ Client Mapping:
  > Client 47960 (5):	21 22 23 24 25 
  > Client 47966 (5):	35 36 37 38 39 
  > Client 47961 (5):	14 15 16 17 18 
  > Client 47967 (5):	28 29 30 31 32 
  > Client 47965 (1):	11 
  > Client 47959 (4):	9 10 3 12 
  > Client 47964 (0):	
  > Client 47963 (4):	4 0 1 2 
  > Client 47962 (4):	5 6 7 8 

+ Core Mapping:	47963 47963 47963 47959 47963 47962 47962 47962 47962 47959 47959 47965 47959 0 47961 47961 47961 47961 47961 0 0 47960 47960 47960 47960 47960 0 0 47967 47967 47967 47967 47967 0 0 47966 47966 47966 47966 47966 
+ Optimal point: 5 5 5 5 4 4 4 4 4 
+++++++++++++++++++++++++++++++++++++++++++++++++++++++++++
++++++++++++++++++++++++++++++++++++++++++++++++
 + TIMESTAMP: 0.338528
REINVADE (47965)
  + pid: 47965
  + min_cores: 1
  + max_cores: 512
  + scalability graph: 
1, 1.36329, 1.52423, 1.62017, 1.68565, 1.73398, 1.77154, 1.80182, 1.8269, 1.84812, 1.86637, 1.88229, 1.89634, 1.90885, 1.92009, 1.93026, 1.93952, 1.94799, 1.95579, 1.963, 1.96968, 1.9759, 1.98172, 1.98716, 1.99228, 1.9971, 2.00164, 2.00594, 2.01002, 2.01389, 2.01757, 2.02108, 2.02443, 2.02763, 2.03069, 2.03362, 2.03644, 2.03914, 2.04173, 2.04423, 
Number of clients: 9

+++++++++++++++++++++++++++++++++++++++++++++++++++++++++++
+ Client Mapping:
  > Client 47960 (5):	21 22 23 24 25 
  > Client 47966 (5):	35 36 37 38 39 
  > Client 47961 (5):	14 15 16 17 18 
  > Client 47967 (5):	28 29 30 31 32 
  > Client 47965 (4):	11 13 19 20 
  > Client 47959 (4):	9 10 3 12 
  > Client 47964 (0):	
  > Client 47963 (4):	4 0 1 2 
  > Client 47962 (4):	5 6 7 8 

+ Core Mapping:	47963 47963 47963 47959 47963 47962 47962 47962 47962 47959 47959 47965 47959 47965 47961 47961 47961 47961 47961 47965 47965 47960 47960 47960 47960 47960 0 0 47967 47967 47967 47967 47967 0 0 47966 47966 47966 47966 47966 
+ Optimal point: 5 5 5 5 4 4 4 4 4 
+++++++++++++++++++++++++++++++++++++++++++++++++++++++++++
++++++++++++++++++++++++++++++++++++++++++++++++
 + TIMESTAMP: 0.372368
REINVADE (47964)
  + pid: 47964
  + min_cores: 1
  + max_cores: 512
  + scalability graph: 
1, 1.36329, 1.52423, 1.62017, 1.68565, 1.73398, 1.77154, 1.80182, 1.8269, 1.84812, 1.86637, 1.88229, 1.89634, 1.90885, 1.92009, 1.93026, 1.93952, 1.94799, 1.95579, 1.963, 1.96968, 1.9759, 1.98172, 1.98716, 1.99228, 1.9971, 2.00164, 2.00594, 2.01002, 2.01389, 2.01757, 2.02108, 2.02443, 2.02763, 2.03069, 2.03362, 2.03644, 2.03914, 2.04173, 2.04423, 
Number of clients: 9

+++++++++++++++++++++++++++++++++++++++++++++++++++++++++++
+ Client Mapping:
  > Client 47960 (5):	21 22 23 24 25 
  > Client 47966 (5):	35 36 37 38 39 
  > Client 47961 (5):	14 15 16 17 18 
  > Client 47967 (5):	28 29 30 31 32 
  > Client 47965 (4):	11 13 19 20 
  > Client 47959 (4):	9 10 3 12 
  > Client 47964 (4):	26 27 33 34 
  > Client 47963 (4):	4 0 1 2 
  > Client 47962 (4):	5 6 7 8 

+ Core Mapping:	47963 47963 47963 47959 47963 47962 47962 47962 47962 47959 47959 47965 47959 47965 47961 47961 47961 47961 47961 47965 47965 47960 47960 47960 47960 47960 47964 47964 47967 47967 47967 47967 47967 47964 47964 47966 47966 47966 47966 47966 
+ Optimal point: 5 5 5 5 4 4 4 4 4 
+++++++++++++++++++++++++++++++++++++++++++++++++++++++++++
CLIENT SHUTDOWN: client 47966
 + TIMESTAMP: 33.106
+++++++++++++++++++++++++++++++++++++++++++++++++++++++++++
+ Client Mapping:
  > Client 47960 (5):	21 22 23 24 25 
  > Client 47966 (0):	
  > Client 47961 (5):	14 15 16 17 18 
  > Client 47967 (5):	28 29 30 31 32 
  > Client 47965 (4):	11 13 19 20 
  > Client 47959 (4):	9 10 3 12 
  > Client 47964 (4):	26 27 33 34 
  > Client 47963 (4):	4 0 1 2 
  > Client 47962 (4):	5 6 7 8 

+ Core Mapping:	47963 47963 47963 47959 47963 47962 47962 47962 47962 47959 47959 47965 47959 47965 47961 47961 47961 47961 47961 47965 47965 47960 47960 47960 47960 47960 47964 47964 47967 47967 47967 47967 47967 47964 47964 0 0 0 0 0 
+ Optimal point: 5 5 5 5 4 4 4 4 4 
+++++++++++++++++++++++++++++++++++++++++++++++++++++++++++
client (47966) shutdown hint: 437.984
sum_client_shutdown_hint: 437.984
sum_client_shutdown_hint_div_time: 0
++++++++++++++++++++++++++++++++++++++++++++++++
 + TIMESTAMP: 33.1063
REINVADE (47964)
  + pid: 47964
  + min_cores: 1
  + max_cores: 512
  + scalability graph: 
1, 1.36329, 1.52423, 1.62017, 1.68565, 1.73398, 1.77154, 1.80182, 1.8269, 1.84812, 1.86637, 1.88229, 1.89634, 1.90885, 1.92009, 1.93026, 1.93952, 1.94799, 1.95579, 1.963, 1.96968, 1.9759, 1.98172, 1.98716, 1.99228, 1.9971, 2.00164, 2.00594, 2.01002, 2.01389, 2.01757, 2.02108, 2.02443, 2.02763, 2.03069, 2.03362, 2.03644, 2.03914, 2.04173, 2.04423, 
Number of clients: 8

+++++++++++++++++++++++++++++++++++++++++++++++++++++++++++
+ Client Mapping:
  > Client 47960 (5):	21 22 23 24 25 
  > Client 47961 (5):	14 15 16 17 18 
  > Client 47967 (5):	28 29 30 31 32 
  > Client 47965 (4):	11 13 19 20 
  > Client 47959 (4):	9 10 3 12 
  > Client 47964 (5):	26 27 33 34 35 
  > Client 47963 (4):	4 0 1 2 
  > Client 47962 (4):	5 6 7 8 

+ Core Mapping:	47963 47963 47963 47959 47963 47962 47962 47962 47962 47959 47959 47965 47959 47965 47961 47961 47961 47961 47961 47965 47965 47960 47960 47960 47960 47960 47964 47964 47967 47967 47967 47967 47967 47964 47964 47964 0 0 0 0 
+ Optimal point: 5 5 5 5 5 5 5 5 
+++++++++++++++++++++++++++++++++++++++++++++++++++++++++++
++++++++++++++++++++++++++++++++++++++++++++++++
 + TIMESTAMP: 33.1072
REINVADE (47963)
  + pid: 47963
  + min_cores: 1
  + max_cores: 512
  + scalability graph: 
1, 1.36329, 1.52423, 1.62017, 1.68565, 1.73398, 1.77154, 1.80182, 1.8269, 1.84812, 1.86637, 1.88229, 1.89634, 1.90885, 1.92009, 1.93026, 1.93952, 1.94799, 1.95579, 1.963, 1.96968, 1.9759, 1.98172, 1.98716, 1.99228, 1.9971, 2.00164, 2.00594, 2.01002, 2.01389, 2.01757, 2.02108, 2.02443, 2.02763, 2.03069, 2.03362, 2.03644, 2.03914, 2.04173, 2.04423, 
Number of clients: 8

+++++++++++++++++++++++++++++++++++++++++++++++++++++++++++
+ Client Mapping:
  > Client 47960 (5):	21 22 23 24 25 
  > Client 47961 (5):	14 15 16 17 18 
  > Client 47967 (5):	28 29 30 31 32 
  > Client 47965 (4):	11 13 19 20 
  > Client 47959 (4):	9 10 3 12 
  > Client 47964 (5):	26 27 33 34 35 
  > Client 47963 (5):	4 0 1 2 36 
  > Client 47962 (4):	5 6 7 8 

+ Core Mapping:	47963 47963 47963 47959 47963 47962 47962 47962 47962 47959 47959 47965 47959 47965 47961 47961 47961 47961 47961 47965 47965 47960 47960 47960 47960 47960 47964 47964 47967 47967 47967 47967 47967 47964 47964 47964 47963 0 0 0 
+ Optimal point: 5 5 5 5 5 5 5 5 
+++++++++++++++++++++++++++++++++++++++++++++++++++++++++++
++++++++++++++++++++++++++++++++++++++++++++++++
 + TIMESTAMP: 33.1075
REINVADE (47965)
  + pid: 47965
  + min_cores: 1
  + max_cores: 512
  + scalability graph: 
1, 1.36329, 1.52423, 1.62017, 1.68565, 1.73398, 1.77154, 1.80182, 1.8269, 1.84812, 1.86637, 1.88229, 1.89634, 1.90885, 1.92009, 1.93026, 1.93952, 1.94799, 1.95579, 1.963, 1.96968, 1.9759, 1.98172, 1.98716, 1.99228, 1.9971, 2.00164, 2.00594, 2.01002, 2.01389, 2.01757, 2.02108, 2.02443, 2.02763, 2.03069, 2.03362, 2.03644, 2.03914, 2.04173, 2.04423, 
Number of clients: 8

+++++++++++++++++++++++++++++++++++++++++++++++++++++++++++
+ Client Mapping:
  > Client 47960 (5):	21 22 23 24 25 
  > Client 47961 (5):	14 15 16 17 18 
  > Client 47967 (5):	28 29 30 31 32 
  > Client 47965 (5):	11 13 19 20 37 
  > Client 47959 (4):	9 10 3 12 
  > Client 47964 (5):	26 27 33 34 35 
  > Client 47963 (5):	4 0 1 2 36 
  > Client 47962 (4):	5 6 7 8 

+ Core Mapping:	47963 47963 47963 47959 47963 47962 47962 47962 47962 47959 47959 47965 47959 47965 47961 47961 47961 47961 47961 47965 47965 47960 47960 47960 47960 47960 47964 47964 47967 47967 47967 47967 47967 47964 47964 47964 47963 47965 0 0 
+ Optimal point: 5 5 5 5 5 5 5 5 
+++++++++++++++++++++++++++++++++++++++++++++++++++++++++++
++++++++++++++++++++++++++++++++++++++++++++++++
 + TIMESTAMP: 33.1106
REINVADE (47959)
  + pid: 47959
  + min_cores: 1
  + max_cores: 512
  + scalability graph: 
1, 1.36329, 1.52423, 1.62017, 1.68565, 1.73398, 1.77154, 1.80182, 1.8269, 1.84812, 1.86637, 1.88229, 1.89634, 1.90885, 1.92009, 1.93026, 1.93952, 1.94799, 1.95579, 1.963, 1.96968, 1.9759, 1.98172, 1.98716, 1.99228, 1.9971, 2.00164, 2.00594, 2.01002, 2.01389, 2.01757, 2.02108, 2.02443, 2.02763, 2.03069, 2.03362, 2.03644, 2.03914, 2.04173, 2.04423, 
Number of clients: 8

+++++++++++++++++++++++++++++++++++++++++++++++++++++++++++
+ Client Mapping:
  > Client 47960 (5):	21 22 23 24 25 
  > Client 47961 (5):	14 15 16 17 18 
  > Client 47967 (5):	28 29 30 31 32 
  > Client 47965 (5):	11 13 19 20 37 
  > Client 47959 (5):	9 10 3 12 38 
  > Client 47964 (5):	26 27 33 34 35 
  > Client 47963 (5):	4 0 1 2 36 
  > Client 47962 (4):	5 6 7 8 

+ Core Mapping:	47963 47963 47963 47959 47963 47962 47962 47962 47962 47959 47959 47965 47959 47965 47961 47961 47961 47961 47961 47965 47965 47960 47960 47960 47960 47960 47964 47964 47967 47967 47967 47967 47967 47964 47964 47964 47963 47965 47959 0 
+ Optimal point: 5 5 5 5 5 5 5 5 
+++++++++++++++++++++++++++++++++++++++++++++++++++++++++++
++++++++++++++++++++++++++++++++++++++++++++++++
 + TIMESTAMP: 33.111
REINVADE (47962)
  + pid: 47962
  + min_cores: 1
  + max_cores: 512
  + scalability graph: 
1, 1.36329, 1.52423, 1.62017, 1.68565, 1.73398, 1.77154, 1.80182, 1.8269, 1.84812, 1.86637, 1.88229, 1.89634, 1.90885, 1.92009, 1.93026, 1.93952, 1.94799, 1.95579, 1.963, 1.96968, 1.9759, 1.98172, 1.98716, 1.99228, 1.9971, 2.00164, 2.00594, 2.01002, 2.01389, 2.01757, 2.02108, 2.02443, 2.02763, 2.03069, 2.03362, 2.03644, 2.03914, 2.04173, 2.04423, 
Number of clients: 8

+++++++++++++++++++++++++++++++++++++++++++++++++++++++++++
+ Client Mapping:
  > Client 47960 (5):	21 22 23 24 25 
  > Client 47961 (5):	14 15 16 17 18 
  > Client 47967 (5):	28 29 30 31 32 
  > Client 47965 (5):	11 13 19 20 37 
  > Client 47959 (5):	9 10 3 12 38 
  > Client 47964 (5):	26 27 33 34 35 
  > Client 47963 (5):	4 0 1 2 36 
  > Client 47962 (5):	5 6 7 8 39 

+ Core Mapping:	47963 47963 47963 47959 47963 47962 47962 47962 47962 47959 47959 47965 47959 47965 47961 47961 47961 47961 47961 47965 47965 47960 47960 47960 47960 47960 47964 47964 47967 47967 47967 47967 47967 47964 47964 47964 47963 47965 47959 47962 
+ Optimal point: 5 5 5 5 5 5 5 5 
+++++++++++++++++++++++++++++++++++++++++++++++++++++++++++
CLIENT SHUTDOWN: client 47960
 + TIMESTAMP: 33.3784
+++++++++++++++++++++++++++++++++++++++++++++++++++++++++++
+ Client Mapping:
  > Client 47960 (0):	
  > Client 47961 (5):	14 15 16 17 18 
  > Client 47967 (5):	28 29 30 31 32 
  > Client 47965 (5):	11 13 19 20 37 
  > Client 47959 (5):	9 10 3 12 38 
  > Client 47964 (5):	26 27 33 34 35 
  > Client 47963 (5):	4 0 1 2 36 
  > Client 47962 (5):	5 6 7 8 39 

+ Core Mapping:	47963 47963 47963 47959 47963 47962 47962 47962 47962 47959 47959 47965 47959 47965 47961 47961 47961 47961 47961 47965 47965 0 0 0 0 0 47964 47964 47967 47967 47967 47967 47967 47964 47964 47964 47963 47965 47959 47962 
+ Optimal point: 5 5 5 5 5 5 5 5 
+++++++++++++++++++++++++++++++++++++++++++++++++++++++++++
client (47960) shutdown hint: 437.984
sum_client_shutdown_hint: 875.968
sum_client_shutdown_hint_div_time: 0
++++++++++++++++++++++++++++++++++++++++++++++++
 + TIMESTAMP: 33.3786
REINVADE (47967)
  + pid: 47967
  + min_cores: 1
  + max_cores: 512
  + scalability graph: 
1, 1.36329, 1.52423, 1.62017, 1.68565, 1.73398, 1.77154, 1.80182, 1.8269, 1.84812, 1.86637, 1.88229, 1.89634, 1.90885, 1.92009, 1.93026, 1.93952, 1.94799, 1.95579, 1.963, 1.96968, 1.9759, 1.98172, 1.98716, 1.99228, 1.9971, 2.00164, 2.00594, 2.01002, 2.01389, 2.01757, 2.02108, 2.02443, 2.02763, 2.03069, 2.03362, 2.03644, 2.03914, 2.04173, 2.04423, 
Number of clients: 7

+++++++++++++++++++++++++++++++++++++++++++++++++++++++++++
+ Client Mapping:
  > Client 47961 (5):	14 15 16 17 18 
  > Client 47967 (6):	28 29 30 31 32 21 
  > Client 47965 (5):	11 13 19 20 37 
  > Client 47959 (5):	9 10 3 12 38 
  > Client 47964 (5):	26 27 33 34 35 
  > Client 47963 (5):	4 0 1 2 36 
  > Client 47962 (5):	5 6 7 8 39 

+ Core Mapping:	47963 47963 47963 47959 47963 47962 47962 47962 47962 47959 47959 47965 47959 47965 47961 47961 47961 47961 47961 47965 47965 47967 0 0 0 0 47964 47964 47967 47967 47967 47967 47967 47964 47964 47964 47963 47965 47959 47962 
+ Optimal point: 6 6 6 6 6 5 5 
+++++++++++++++++++++++++++++++++++++++++++++++++++++++++++
++++++++++++++++++++++++++++++++++++++++++++++++
 + TIMESTAMP: 33.3787
REINVADE (47964)
  + pid: 47964
  + min_cores: 1
  + max_cores: 512
  + scalability graph: 
1, 1.36329, 1.52423, 1.62017, 1.68565, 1.73398, 1.77154, 1.80182, 1.8269, 1.84812, 1.86637, 1.88229, 1.89634, 1.90885, 1.92009, 1.93026, 1.93952, 1.94799, 1.95579, 1.963, 1.96968, 1.9759, 1.98172, 1.98716, 1.99228, 1.9971, 2.00164, 2.00594, 2.01002, 2.01389, 2.01757, 2.02108, 2.02443, 2.02763, 2.03069, 2.03362, 2.03644, 2.03914, 2.04173, 2.04423, 
Number of clients: 7

+++++++++++++++++++++++++++++++++++++++++++++++++++++++++++
+ Client Mapping:
  > Client 47961 (5):	14 15 16 17 18 
  > Client 47967 (6):	28 29 30 31 32 21 
  > Client 47965 (5):	11 13 19 20 37 
  > Client 47959 (5):	9 10 3 12 38 
  > Client 47964 (6):	26 27 33 34 35 22 
  > Client 47963 (5):	4 0 1 2 36 
  > Client 47962 (5):	5 6 7 8 39 

+ Core Mapping:	47963 47963 47963 47959 47963 47962 47962 47962 47962 47959 47959 47965 47959 47965 47961 47961 47961 47961 47961 47965 47965 47967 47964 0 0 0 47964 47964 47967 47967 47967 47967 47967 47964 47964 47964 47963 47965 47959 47962 
+ Optimal point: 6 6 6 6 6 5 5 
+++++++++++++++++++++++++++++++++++++++++++++++++++++++++++
++++++++++++++++++++++++++++++++++++++++++++++++
 + TIMESTAMP: 33.379
REINVADE (47961)
  + pid: 47961
  + min_cores: 1
  + max_cores: 512
  + scalability graph: 
1, 1.36329, 1.52423, 1.62017, 1.68565, 1.73398, 1.77154, 1.80182, 1.8269, 1.84812, 1.86637, 1.88229, 1.89634, 1.90885, 1.92009, 1.93026, 1.93952, 1.94799, 1.95579, 1.963, 1.96968, 1.9759, 1.98172, 1.98716, 1.99228, 1.9971, 2.00164, 2.00594, 2.01002, 2.01389, 2.01757, 2.02108, 2.02443, 2.02763, 2.03069, 2.03362, 2.03644, 2.03914, 2.04173, 2.04423, 
Number of clients: 7

+++++++++++++++++++++++++++++++++++++++++++++++++++++++++++
+ Client Mapping:
  > Client 47961 (6):	14 15 16 17 18 23 
  > Client 47967 (6):	28 29 30 31 32 21 
  > Client 47965 (5):	11 13 19 20 37 
  > Client 47959 (5):	9 10 3 12 38 
  > Client 47964 (6):	26 27 33 34 35 22 
  > Client 47963 (5):	4 0 1 2 36 
  > Client 47962 (5):	5 6 7 8 39 

+ Core Mapping:	47963 47963 47963 47959 47963 47962 47962 47962 47962 47959 47959 47965 47959 47965 47961 47961 47961 47961 47961 47965 47965 47967 47964 47961 0 0 47964 47964 47967 47967 47967 47967 47967 47964 47964 47964 47963 47965 47959 47962 
+ Optimal point: 6 6 6 6 6 5 5 
+++++++++++++++++++++++++++++++++++++++++++++++++++++++++++
++++++++++++++++++++++++++++++++++++++++++++++++
 + TIMESTAMP: 33.3794
REINVADE (47965)
  + pid: 47965
  + min_cores: 1
  + max_cores: 512
  + scalability graph: 
1, 1.36329, 1.52423, 1.62017, 1.68565, 1.73398, 1.77154, 1.80182, 1.8269, 1.84812, 1.86637, 1.88229, 1.89634, 1.90885, 1.92009, 1.93026, 1.93952, 1.94799, 1.95579, 1.963, 1.96968, 1.9759, 1.98172, 1.98716, 1.99228, 1.9971, 2.00164, 2.00594, 2.01002, 2.01389, 2.01757, 2.02108, 2.02443, 2.02763, 2.03069, 2.03362, 2.03644, 2.03914, 2.04173, 2.04423, 
Number of clients: 7

+++++++++++++++++++++++++++++++++++++++++++++++++++++++++++
+ Client Mapping:
  > Client 47961 (6):	14 15 16 17 18 23 
  > Client 47967 (6):	28 29 30 31 32 21 
  > Client 47965 (6):	11 13 19 20 37 24 
  > Client 47959 (5):	9 10 3 12 38 
  > Client 47964 (6):	26 27 33 34 35 22 
  > Client 47963 (5):	4 0 1 2 36 
  > Client 47962 (5):	5 6 7 8 39 

+ Core Mapping:	47963 47963 47963 47959 47963 47962 47962 47962 47962 47959 47959 47965 47959 47965 47961 47961 47961 47961 47961 47965 47965 47967 47964 47961 47965 0 47964 47964 47967 47967 47967 47967 47967 47964 47964 47964 47963 47965 47959 47962 
+ Optimal point: 6 6 6 6 6 5 5 
+++++++++++++++++++++++++++++++++++++++++++++++++++++++++++
++++++++++++++++++++++++++++++++++++++++++++++++
 + TIMESTAMP: 33.3827
REINVADE (47959)
  + pid: 47959
  + min_cores: 1
  + max_cores: 512
  + scalability graph: 
1, 1.36329, 1.52423, 1.62017, 1.68565, 1.73398, 1.77154, 1.80182, 1.8269, 1.84812, 1.86637, 1.88229, 1.89634, 1.90885, 1.92009, 1.93026, 1.93952, 1.94799, 1.95579, 1.963, 1.96968, 1.9759, 1.98172, 1.98716, 1.99228, 1.9971, 2.00164, 2.00594, 2.01002, 2.01389, 2.01757, 2.02108, 2.02443, 2.02763, 2.03069, 2.03362, 2.03644, 2.03914, 2.04173, 2.04423, 
Number of clients: 7

+++++++++++++++++++++++++++++++++++++++++++++++++++++++++++
+ Client Mapping:
  > Client 47961 (6):	14 15 16 17 18 23 
  > Client 47967 (6):	28 29 30 31 32 21 
  > Client 47965 (6):	11 13 19 20 37 24 
  > Client 47959 (6):	9 10 3 12 38 25 
  > Client 47964 (6):	26 27 33 34 35 22 
  > Client 47963 (5):	4 0 1 2 36 
  > Client 47962 (5):	5 6 7 8 39 

+ Core Mapping:	47963 47963 47963 47959 47963 47962 47962 47962 47962 47959 47959 47965 47959 47965 47961 47961 47961 47961 47961 47965 47965 47967 47964 47961 47965 47959 47964 47964 47967 47967 47967 47967 47967 47964 47964 47964 47963 47965 47959 47962 
+ Optimal point: 6 6 6 6 6 5 5 
+++++++++++++++++++++++++++++++++++++++++++++++++++++++++++
CLIENT SHUTDOWN: client 47961
 + TIMESTAMP: 33.4089
+++++++++++++++++++++++++++++++++++++++++++++++++++++++++++
+ Client Mapping:
  > Client 47961 (0):	
  > Client 47967 (6):	28 29 30 31 32 21 
  > Client 47965 (6):	11 13 19 20 37 24 
  > Client 47959 (6):	9 10 3 12 38 25 
  > Client 47964 (6):	26 27 33 34 35 22 
  > Client 47963 (5):	4 0 1 2 36 
  > Client 47962 (5):	5 6 7 8 39 

+ Core Mapping:	47963 47963 47963 47959 47963 47962 47962 47962 47962 47959 47959 47965 47959 47965 0 0 0 0 0 47965 47965 47967 47964 0 47965 47959 47964 47964 47967 47967 47967 47967 47967 47964 47964 47964 47963 47965 47959 47962 
+ Optimal point: 6 6 6 6 6 5 5 
+++++++++++++++++++++++++++++++++++++++++++++++++++++++++++
client (47961) shutdown hint: 437.984
sum_client_shutdown_hint: 1313.95
sum_client_shutdown_hint_div_time: 0
++++++++++++++++++++++++++++++++++++++++++++++++
 + TIMESTAMP: 33.4091
REINVADE (47964)
  + pid: 47964
  + min_cores: 1
  + max_cores: 512
  + scalability graph: 
1, 1.36329, 1.52423, 1.62017, 1.68565, 1.73398, 1.77154, 1.80182, 1.8269, 1.84812, 1.86637, 1.88229, 1.89634, 1.90885, 1.92009, 1.93026, 1.93952, 1.94799, 1.95579, 1.963, 1.96968, 1.9759, 1.98172, 1.98716, 1.99228, 1.9971, 2.00164, 2.00594, 2.01002, 2.01389, 2.01757, 2.02108, 2.02443, 2.02763, 2.03069, 2.03362, 2.03644, 2.03914, 2.04173, 2.04423, 
Number of clients: 6

+++++++++++++++++++++++++++++++++++++++++++++++++++++++++++
+ Client Mapping:
  > Client 47967 (6):	28 29 30 31 32 21 
  > Client 47965 (6):	11 13 19 20 37 24 
  > Client 47959 (6):	9 10 3 12 38 25 
  > Client 47964 (7):	26 27 33 34 35 22 14 
  > Client 47963 (5):	4 0 1 2 36 
  > Client 47962 (5):	5 6 7 8 39 

+ Core Mapping:	47963 47963 47963 47959 47963 47962 47962 47962 47962 47959 47959 47965 47959 47965 47964 0 0 0 0 47965 47965 47967 47964 0 47965 47959 47964 47964 47967 47967 47967 47967 47967 47964 47964 47964 47963 47965 47959 47962 
+ Optimal point: 7 7 7 7 6 6 
+++++++++++++++++++++++++++++++++++++++++++++++++++++++++++
++++++++++++++++++++++++++++++++++++++++++++++++
 + TIMESTAMP: 33.4098
REINVADE (47967)
  + pid: 47967
  + min_cores: 1
  + max_cores: 512
  + scalability graph: 
1, 1.36329, 1.52423, 1.62017, 1.68565, 1.73398, 1.77154, 1.80182, 1.8269, 1.84812, 1.86637, 1.88229, 1.89634, 1.90885, 1.92009, 1.93026, 1.93952, 1.94799, 1.95579, 1.963, 1.96968, 1.9759, 1.98172, 1.98716, 1.99228, 1.9971, 2.00164, 2.00594, 2.01002, 2.01389, 2.01757, 2.02108, 2.02443, 2.02763, 2.03069, 2.03362, 2.03644, 2.03914, 2.04173, 2.04423, 
Number of clients: 6

+++++++++++++++++++++++++++++++++++++++++++++++++++++++++++
+ Client Mapping:
  > Client 47967 (7):	28 29 30 31 32 21 15 
  > Client 47965 (6):	11 13 19 20 37 24 
  > Client 47959 (6):	9 10 3 12 38 25 
  > Client 47964 (7):	26 27 33 34 35 22 14 
  > Client 47963 (5):	4 0 1 2 36 
  > Client 47962 (5):	5 6 7 8 39 

+ Core Mapping:	47963 47963 47963 47959 47963 47962 47962 47962 47962 47959 47959 47965 47959 47965 47964 47967 0 0 0 47965 47965 47967 47964 0 47965 47959 47964 47964 47967 47967 47967 47967 47967 47964 47964 47964 47963 47965 47959 47962 
+ Optimal point: 7 7 7 7 6 6 
+++++++++++++++++++++++++++++++++++++++++++++++++++++++++++
++++++++++++++++++++++++++++++++++++++++++++++++
 + TIMESTAMP: 33.4099
REINVADE (47963)
  + pid: 47963
  + min_cores: 1
  + max_cores: 512
  + scalability graph: 
1, 1.36329, 1.52423, 1.62017, 1.68565, 1.73398, 1.77154, 1.80182, 1.8269, 1.84812, 1.86637, 1.88229, 1.89634, 1.90885, 1.92009, 1.93026, 1.93952, 1.94799, 1.95579, 1.963, 1.96968, 1.9759, 1.98172, 1.98716, 1.99228, 1.9971, 2.00164, 2.00594, 2.01002, 2.01389, 2.01757, 2.02108, 2.02443, 2.02763, 2.03069, 2.03362, 2.03644, 2.03914, 2.04173, 2.04423, 
Number of clients: 6

+++++++++++++++++++++++++++++++++++++++++++++++++++++++++++
+ Client Mapping:
  > Client 47967 (7):	28 29 30 31 32 21 15 
  > Client 47965 (6):	11 13 19 20 37 24 
  > Client 47959 (6):	9 10 3 12 38 25 
  > Client 47964 (7):	26 27 33 34 35 22 14 
  > Client 47963 (6):	4 0 1 2 36 16 
  > Client 47962 (5):	5 6 7 8 39 

+ Core Mapping:	47963 47963 47963 47959 47963 47962 47962 47962 47962 47959 47959 47965 47959 47965 47964 47967 47963 0 0 47965 47965 47967 47964 0 47965 47959 47964 47964 47967 47967 47967 47967 47967 47964 47964 47964 47963 47965 47959 47962 
+ Optimal point: 7 7 7 7 6 6 
+++++++++++++++++++++++++++++++++++++++++++++++++++++++++++
++++++++++++++++++++++++++++++++++++++++++++++++
 + TIMESTAMP: 33.4106
REINVADE (47965)
  + pid: 47965
  + min_cores: 1
  + max_cores: 512
  + scalability graph: 
1, 1.36329, 1.52423, 1.62017, 1.68565, 1.73398, 1.77154, 1.80182, 1.8269, 1.84812, 1.86637, 1.88229, 1.89634, 1.90885, 1.92009, 1.93026, 1.93952, 1.94799, 1.95579, 1.963, 1.96968, 1.9759, 1.98172, 1.98716, 1.99228, 1.9971, 2.00164, 2.00594, 2.01002, 2.01389, 2.01757, 2.02108, 2.02443, 2.02763, 2.03069, 2.03362, 2.03644, 2.03914, 2.04173, 2.04423, 
Number of clients: 6

+++++++++++++++++++++++++++++++++++++++++++++++++++++++++++
+ Client Mapping:
  > Client 47967 (7):	28 29 30 31 32 21 15 
  > Client 47965 (7):	11 13 19 20 37 24 17 
  > Client 47959 (6):	9 10 3 12 38 25 
  > Client 47964 (7):	26 27 33 34 35 22 14 
  > Client 47963 (6):	4 0 1 2 36 16 
  > Client 47962 (5):	5 6 7 8 39 

+ Core Mapping:	47963 47963 47963 47959 47963 47962 47962 47962 47962 47959 47959 47965 47959 47965 47964 47967 47963 47965 0 47965 47965 47967 47964 0 47965 47959 47964 47964 47967 47967 47967 47967 47967 47964 47964 47964 47963 47965 47959 47962 
+ Optimal point: 7 7 7 7 6 6 
+++++++++++++++++++++++++++++++++++++++++++++++++++++++++++
++++++++++++++++++++++++++++++++++++++++++++++++
 + TIMESTAMP: 33.4123
REINVADE (47959)
  + pid: 47959
  + min_cores: 1
  + max_cores: 512
  + scalability graph: 
1, 1.36329, 1.52423, 1.62017, 1.68565, 1.73398, 1.77154, 1.80182, 1.8269, 1.84812, 1.86637, 1.88229, 1.89634, 1.90885, 1.92009, 1.93026, 1.93952, 1.94799, 1.95579, 1.963, 1.96968, 1.9759, 1.98172, 1.98716, 1.99228, 1.9971, 2.00164, 2.00594, 2.01002, 2.01389, 2.01757, 2.02108, 2.02443, 2.02763, 2.03069, 2.03362, 2.03644, 2.03914, 2.04173, 2.04423, 
Number of clients: 6

+++++++++++++++++++++++++++++++++++++++++++++++++++++++++++
+ Client Mapping:
  > Client 47967 (7):	28 29 30 31 32 21 15 
  > Client 47965 (7):	11 13 19 20 37 24 17 
  > Client 47959 (7):	9 10 3 12 38 25 18 
  > Client 47964 (7):	26 27 33 34 35 22 14 
  > Client 47963 (6):	4 0 1 2 36 16 
  > Client 47962 (5):	5 6 7 8 39 

+ Core Mapping:	47963 47963 47963 47959 47963 47962 47962 47962 47962 47959 47959 47965 47959 47965 47964 47967 47963 47965 47959 47965 47965 47967 47964 0 47965 47959 47964 47964 47967 47967 47967 47967 47967 47964 47964 47964 47963 47965 47959 47962 
+ Optimal point: 7 7 7 7 6 6 
+++++++++++++++++++++++++++++++++++++++++++++++++++++++++++
++++++++++++++++++++++++++++++++++++++++++++++++
 + TIMESTAMP: 33.4145
REINVADE (47962)
  + pid: 47962
  + min_cores: 1
  + max_cores: 512
  + scalability graph: 
1, 1.36329, 1.52423, 1.62017, 1.68565, 1.73398, 1.77154, 1.80182, 1.8269, 1.84812, 1.86637, 1.88229, 1.89634, 1.90885, 1.92009, 1.93026, 1.93952, 1.94799, 1.95579, 1.963, 1.96968, 1.9759, 1.98172, 1.98716, 1.99228, 1.9971, 2.00164, 2.00594, 2.01002, 2.01389, 2.01757, 2.02108, 2.02443, 2.02763, 2.03069, 2.03362, 2.03644, 2.03914, 2.04173, 2.04423, 
Number of clients: 6

+++++++++++++++++++++++++++++++++++++++++++++++++++++++++++
+ Client Mapping:
  > Client 47967 (7):	28 29 30 31 32 21 15 
  > Client 47965 (7):	11 13 19 20 37 24 17 
  > Client 47959 (7):	9 10 3 12 38 25 18 
  > Client 47964 (7):	26 27 33 34 35 22 14 
  > Client 47963 (6):	4 0 1 2 36 16 
  > Client 47962 (6):	5 6 7 8 39 23 

+ Core Mapping:	47963 47963 47963 47959 47963 47962 47962 47962 47962 47959 47959 47965 47959 47965 47964 47967 47963 47965 47959 47965 47965 47967 47964 47962 47965 47959 47964 47964 47967 47967 47967 47967 47967 47964 47964 47964 47963 47965 47959 47962 
+ Optimal point: 7 7 7 7 6 6 
+++++++++++++++++++++++++++++++++++++++++++++++++++++++++++
CLIENT SHUTDOWN: client 47967
 + TIMESTAMP: 33.4717
+++++++++++++++++++++++++++++++++++++++++++++++++++++++++++
+ Client Mapping:
  > Client 47967 (0):	
  > Client 47965 (7):	11 13 19 20 37 24 17 
  > Client 47959 (7):	9 10 3 12 38 25 18 
  > Client 47964 (7):	26 27 33 34 35 22 14 
  > Client 47963 (6):	4 0 1 2 36 16 
  > Client 47962 (6):	5 6 7 8 39 23 

+ Core Mapping:	47963 47963 47963 47959 47963 47962 47962 47962 47962 47959 47959 47965 47959 47965 47964 0 47963 47965 47959 47965 47965 0 47964 47962 47965 47959 47964 47964 0 0 0 0 0 47964 47964 47964 47963 47965 47959 47962 
+ Optimal point: 7 7 7 7 6 6 
+++++++++++++++++++++++++++++++++++++++++++++++++++++++++++
client (47967) shutdown hint: 437.984
sum_client_shutdown_hint: 1751.94
sum_client_shutdown_hint_div_time: 0
++++++++++++++++++++++++++++++++++++++++++++++++
 + TIMESTAMP: 33.4719
REINVADE (47964)
  + pid: 47964
  + min_cores: 1
  + max_cores: 512
  + scalability graph: 
1, 1.36329, 1.52423, 1.62017, 1.68565, 1.73398, 1.77154, 1.80182, 1.8269, 1.84812, 1.86637, 1.88229, 1.89634, 1.90885, 1.92009, 1.93026, 1.93952, 1.94799, 1.95579, 1.963, 1.96968, 1.9759, 1.98172, 1.98716, 1.99228, 1.9971, 2.00164, 2.00594, 2.01002, 2.01389, 2.01757, 2.02108, 2.02443, 2.02763, 2.03069, 2.03362, 2.03644, 2.03914, 2.04173, 2.04423, 
Number of clients: 5

+++++++++++++++++++++++++++++++++++++++++++++++++++++++++++
+ Client Mapping:
  > Client 47965 (7):	11 13 19 20 37 24 17 
  > Client 47959 (7):	9 10 3 12 38 25 18 
  > Client 47964 (8):	26 27 33 34 35 22 14 15 
  > Client 47963 (6):	4 0 1 2 36 16 
  > Client 47962 (6):	5 6 7 8 39 23 

+ Core Mapping:	47963 47963 47963 47959 47963 47962 47962 47962 47962 47959 47959 47965 47959 47965 47964 47964 47963 47965 47959 47965 47965 0 47964 47962 47965 47959 47964 47964 0 0 0 0 0 47964 47964 47964 47963 47965 47959 47962 
+ Optimal point: 8 8 8 8 8 
+++++++++++++++++++++++++++++++++++++++++++++++++++++++++++
++++++++++++++++++++++++++++++++++++++++++++++++
 + TIMESTAMP: 33.4733
REINVADE (47963)
  + pid: 47963
  + min_cores: 1
  + max_cores: 512
  + scalability graph: 
1, 1.36329, 1.52423, 1.62017, 1.68565, 1.73398, 1.77154, 1.80182, 1.8269, 1.84812, 1.86637, 1.88229, 1.89634, 1.90885, 1.92009, 1.93026, 1.93952, 1.94799, 1.95579, 1.963, 1.96968, 1.9759, 1.98172, 1.98716, 1.99228, 1.9971, 2.00164, 2.00594, 2.01002, 2.01389, 2.01757, 2.02108, 2.02443, 2.02763, 2.03069, 2.03362, 2.03644, 2.03914, 2.04173, 2.04423, 
Number of clients: 5

+++++++++++++++++++++++++++++++++++++++++++++++++++++++++++
+ Client Mapping:
  > Client 47965 (7):	11 13 19 20 37 24 17 
  > Client 47959 (7):	9 10 3 12 38 25 18 
  > Client 47964 (8):	26 27 33 34 35 22 14 15 
  > Client 47963 (8):	4 0 1 2 36 16 21 28 
  > Client 47962 (6):	5 6 7 8 39 23 

+ Core Mapping:	47963 47963 47963 47959 47963 47962 47962 47962 47962 47959 47959 47965 47959 47965 47964 47964 47963 47965 47959 47965 47965 47963 47964 47962 47965 47959 47964 47964 47963 0 0 0 0 47964 47964 47964 47963 47965 47959 47962 
+ Optimal point: 8 8 8 8 8 
+++++++++++++++++++++++++++++++++++++++++++++++++++++++++++
++++++++++++++++++++++++++++++++++++++++++++++++
 + TIMESTAMP: 33.4741
REINVADE (47962)
  + pid: 47962
  + min_cores: 1
  + max_cores: 512
  + scalability graph: 
1, 1.36329, 1.52423, 1.62017, 1.68565, 1.73398, 1.77154, 1.80182, 1.8269, 1.84812, 1.86637, 1.88229, 1.89634, 1.90885, 1.92009, 1.93026, 1.93952, 1.94799, 1.95579, 1.963, 1.96968, 1.9759, 1.98172, 1.98716, 1.99228, 1.9971, 2.00164, 2.00594, 2.01002, 2.01389, 2.01757, 2.02108, 2.02443, 2.02763, 2.03069, 2.03362, 2.03644, 2.03914, 2.04173, 2.04423, 
Number of clients: 5

+++++++++++++++++++++++++++++++++++++++++++++++++++++++++++
+ Client Mapping:
  > Client 47965 (7):	11 13 19 20 37 24 17 
  > Client 47959 (7):	9 10 3 12 38 25 18 
  > Client 47964 (8):	26 27 33 34 35 22 14 15 
  > Client 47963 (8):	4 0 1 2 36 16 21 28 
  > Client 47962 (8):	5 6 7 8 39 23 29 30 

+ Core Mapping:	47963 47963 47963 47959 47963 47962 47962 47962 47962 47959 47959 47965 47959 47965 47964 47964 47963 47965 47959 47965 47965 47963 47964 47962 47965 47959 47964 47964 47963 47962 47962 0 0 47964 47964 47964 47963 47965 47959 47962 
+ Optimal point: 8 8 8 8 8 
+++++++++++++++++++++++++++++++++++++++++++++++++++++++++++
++++++++++++++++++++++++++++++++++++++++++++++++
 + TIMESTAMP: 33.4763
REINVADE (47965)
  + pid: 47965
  + min_cores: 1
  + max_cores: 512
  + scalability graph: 
1, 1.36329, 1.52423, 1.62017, 1.68565, 1.73398, 1.77154, 1.80182, 1.8269, 1.84812, 1.86637, 1.88229, 1.89634, 1.90885, 1.92009, 1.93026, 1.93952, 1.94799, 1.95579, 1.963, 1.96968, 1.9759, 1.98172, 1.98716, 1.99228, 1.9971, 2.00164, 2.00594, 2.01002, 2.01389, 2.01757, 2.02108, 2.02443, 2.02763, 2.03069, 2.03362, 2.03644, 2.03914, 2.04173, 2.04423, 
Number of clients: 5

+++++++++++++++++++++++++++++++++++++++++++++++++++++++++++
+ Client Mapping:
  > Client 47965 (8):	11 13 19 20 37 24 17 31 
  > Client 47959 (7):	9 10 3 12 38 25 18 
  > Client 47964 (8):	26 27 33 34 35 22 14 15 
  > Client 47963 (8):	4 0 1 2 36 16 21 28 
  > Client 47962 (8):	5 6 7 8 39 23 29 30 

+ Core Mapping:	47963 47963 47963 47959 47963 47962 47962 47962 47962 47959 47959 47965 47959 47965 47964 47964 47963 47965 47959 47965 47965 47963 47964 47962 47965 47959 47964 47964 47963 47962 47962 47965 0 47964 47964 47964 47963 47965 47959 47962 
+ Optimal point: 8 8 8 8 8 
+++++++++++++++++++++++++++++++++++++++++++++++++++++++++++
++++++++++++++++++++++++++++++++++++++++++++++++
 + TIMESTAMP: 33.4766
REINVADE (47959)
  + pid: 47959
  + min_cores: 1
  + max_cores: 512
  + scalability graph: 
1, 1.36329, 1.52423, 1.62017, 1.68565, 1.73398, 1.77154, 1.80182, 1.8269, 1.84812, 1.86637, 1.88229, 1.89634, 1.90885, 1.92009, 1.93026, 1.93952, 1.94799, 1.95579, 1.963, 1.96968, 1.9759, 1.98172, 1.98716, 1.99228, 1.9971, 2.00164, 2.00594, 2.01002, 2.01389, 2.01757, 2.02108, 2.02443, 2.02763, 2.03069, 2.03362, 2.03644, 2.03914, 2.04173, 2.04423, 
Number of clients: 5

+++++++++++++++++++++++++++++++++++++++++++++++++++++++++++
+ Client Mapping:
  > Client 47965 (8):	11 13 19 20 37 24 17 31 
  > Client 47959 (8):	9 10 3 12 38 25 18 32 
  > Client 47964 (8):	26 27 33 34 35 22 14 15 
  > Client 47963 (8):	4 0 1 2 36 16 21 28 
  > Client 47962 (8):	5 6 7 8 39 23 29 30 

+ Core Mapping:	47963 47963 47963 47959 47963 47962 47962 47962 47962 47959 47959 47965 47959 47965 47964 47964 47963 47965 47959 47965 47965 47963 47964 47962 47965 47959 47964 47964 47963 47962 47962 47965 47959 47964 47964 47964 47963 47965 47959 47962 
+ Optimal point: 8 8 8 8 8 
+++++++++++++++++++++++++++++++++++++++++++++++++++++++++++
CLIENT SHUTDOWN: client 47964
 + TIMESTAMP: 37.1846
+++++++++++++++++++++++++++++++++++++++++++++++++++++++++++
+ Client Mapping:
  > Client 47965 (8):	11 13 19 20 37 24 17 31 
  > Client 47959 (8):	9 10 3 12 38 25 18 32 
  > Client 47964 (0):	
  > Client 47963 (8):	4 0 1 2 36 16 21 28 
  > Client 47962 (8):	5 6 7 8 39 23 29 30 

+ Core Mapping:	47963 47963 47963 47959 47963 47962 47962 47962 47962 47959 47959 47965 47959 47965 0 0 47963 47965 47959 47965 47965 47963 0 47962 47965 47959 0 0 47963 47962 47962 47965 47959 0 0 0 47963 47965 47959 47962 
+ Optimal point: 8 8 8 8 8 
+++++++++++++++++++++++++++++++++++++++++++++++++++++++++++
client (47964) shutdown hint: 437.984
sum_client_shutdown_hint: 2189.92
sum_client_shutdown_hint_div_time: 0
++++++++++++++++++++++++++++++++++++++++++++++++
 + TIMESTAMP: 37.1847
REINVADE (47963)
  + pid: 47963
  + min_cores: 1
  + max_cores: 512
  + scalability graph: 
1, 1.36329, 1.52423, 1.62017, 1.68565, 1.73398, 1.77154, 1.80182, 1.8269, 1.84812, 1.86637, 1.88229, 1.89634, 1.90885, 1.92009, 1.93026, 1.93952, 1.94799, 1.95579, 1.963, 1.96968, 1.9759, 1.98172, 1.98716, 1.99228, 1.9971, 2.00164, 2.00594, 2.01002, 2.01389, 2.01757, 2.02108, 2.02443, 2.02763, 2.03069, 2.03362, 2.03644, 2.03914, 2.04173, 2.04423, 
Number of clients: 4

+++++++++++++++++++++++++++++++++++++++++++++++++++++++++++
+ Client Mapping:
  > Client 47965 (8):	11 13 19 20 37 24 17 31 
  > Client 47959 (8):	9 10 3 12 38 25 18 32 
  > Client 47963 (10):	4 0 1 2 36 16 21 28 14 15 
  > Client 47962 (8):	5 6 7 8 39 23 29 30 

+ Core Mapping:	47963 47963 47963 47959 47963 47962 47962 47962 47962 47959 47959 47965 47959 47965 47963 47963 47963 47965 47959 47965 47965 47963 0 47962 47965 47959 0 0 47963 47962 47962 47965 47959 0 0 0 47963 47965 47959 47962 
+ Optimal point: 10 10 10 10 
+++++++++++++++++++++++++++++++++++++++++++++++++++++++++++
++++++++++++++++++++++++++++++++++++++++++++++++
 + TIMESTAMP: 37.1852
REINVADE (47962)
  + pid: 47962
  + min_cores: 1
  + max_cores: 512
  + scalability graph: 
1, 1.36329, 1.52423, 1.62017, 1.68565, 1.73398, 1.77154, 1.80182, 1.8269, 1.84812, 1.86637, 1.88229, 1.89634, 1.90885, 1.92009, 1.93026, 1.93952, 1.94799, 1.95579, 1.963, 1.96968, 1.9759, 1.98172, 1.98716, 1.99228, 1.9971, 2.00164, 2.00594, 2.01002, 2.01389, 2.01757, 2.02108, 2.02443, 2.02763, 2.03069, 2.03362, 2.03644, 2.03914, 2.04173, 2.04423, 
Number of clients: 4

+++++++++++++++++++++++++++++++++++++++++++++++++++++++++++
+ Client Mapping:
  > Client 47965 (8):	11 13 19 20 37 24 17 31 
  > Client 47959 (8):	9 10 3 12 38 25 18 32 
  > Client 47963 (10):	4 0 1 2 36 16 21 28 14 15 
  > Client 47962 (10):	5 6 7 8 39 23 29 30 22 26 

+ Core Mapping:	47963 47963 47963 47959 47963 47962 47962 47962 47962 47959 47959 47965 47959 47965 47963 47963 47963 47965 47959 47965 47965 47963 47962 47962 47965 47959 47962 0 47963 47962 47962 47965 47959 0 0 0 47963 47965 47959 47962 
+ Optimal point: 10 10 10 10 
+++++++++++++++++++++++++++++++++++++++++++++++++++++++++++
++++++++++++++++++++++++++++++++++++++++++++++++
 + TIMESTAMP: 37.1854
REINVADE (47965)
  + pid: 47965
  + min_cores: 1
  + max_cores: 512
  + scalability graph: 
1, 1.36329, 1.52423, 1.62017, 1.68565, 1.73398, 1.77154, 1.80182, 1.8269, 1.84812, 1.86637, 1.88229, 1.89634, 1.90885, 1.92009, 1.93026, 1.93952, 1.94799, 1.95579, 1.963, 1.96968, 1.9759, 1.98172, 1.98716, 1.99228, 1.9971, 2.00164, 2.00594, 2.01002, 2.01389, 2.01757, 2.02108, 2.02443, 2.02763, 2.03069, 2.03362, 2.03644, 2.03914, 2.04173, 2.04423, 
Number of clients: 4

+++++++++++++++++++++++++++++++++++++++++++++++++++++++++++
+ Client Mapping:
  > Client 47965 (10):	11 13 19 20 37 24 17 31 27 33 
  > Client 47959 (8):	9 10 3 12 38 25 18 32 
  > Client 47963 (10):	4 0 1 2 36 16 21 28 14 15 
  > Client 47962 (10):	5 6 7 8 39 23 29 30 22 26 

+ Core Mapping:	47963 47963 47963 47959 47963 47962 47962 47962 47962 47959 47959 47965 47959 47965 47963 47963 47963 47965 47959 47965 47965 47963 47962 47962 47965 47959 47962 47965 47963 47962 47962 47965 47959 47965 0 0 47963 47965 47959 47962 
+ Optimal point: 10 10 10 10 
+++++++++++++++++++++++++++++++++++++++++++++++++++++++++++
++++++++++++++++++++++++++++++++++++++++++++++++
 + TIMESTAMP: 37.1855
REINVADE (47959)
  + pid: 47959
  + min_cores: 1
  + max_cores: 512
  + scalability graph: 
1, 1.36329, 1.52423, 1.62017, 1.68565, 1.73398, 1.77154, 1.80182, 1.8269, 1.84812, 1.86637, 1.88229, 1.89634, 1.90885, 1.92009, 1.93026, 1.93952, 1.94799, 1.95579, 1.963, 1.96968, 1.9759, 1.98172, 1.98716, 1.99228, 1.9971, 2.00164, 2.00594, 2.01002, 2.01389, 2.01757, 2.02108, 2.02443, 2.02763, 2.03069, 2.03362, 2.03644, 2.03914, 2.04173, 2.04423, 
Number of clients: 4

+++++++++++++++++++++++++++++++++++++++++++++++++++++++++++
+ Client Mapping:
  > Client 47965 (10):	11 13 19 20 37 24 17 31 27 33 
  > Client 47959 (10):	9 10 3 12 38 25 18 32 34 35 
  > Client 47963 (10):	4 0 1 2 36 16 21 28 14 15 
  > Client 47962 (10):	5 6 7 8 39 23 29 30 22 26 

+ Core Mapping:	47963 47963 47963 47959 47963 47962 47962 47962 47962 47959 47959 47965 47959 47965 47963 47963 47963 47965 47959 47965 47965 47963 47962 47962 47965 47959 47962 47965 47963 47962 47962 47965 47959 47965 47959 47959 47963 47965 47959 47962 
+ Optimal point: 10 10 10 10 
+++++++++++++++++++++++++++++++++++++++++++++++++++++++++++
CLIENT SHUTDOWN: client 47965
 + TIMESTAMP: 37.2489
+++++++++++++++++++++++++++++++++++++++++++++++++++++++++++
+ Client Mapping:
  > Client 47965 (0):	
  > Client 47959 (10):	9 10 3 12 38 25 18 32 34 35 
  > Client 47963 (10):	4 0 1 2 36 16 21 28 14 15 
  > Client 47962 (10):	5 6 7 8 39 23 29 30 22 26 

+ Core Mapping:	47963 47963 47963 47959 47963 47962 47962 47962 47962 47959 47959 0 47959 0 47963 47963 47963 0 47959 0 0 47963 47962 47962 0 47959 47962 0 47963 47962 47962 0 47959 0 47959 47959 47963 0 47959 47962 
+ Optimal point: 10 10 10 10 
+++++++++++++++++++++++++++++++++++++++++++++++++++++++++++
client (47965) shutdown hint: 437.984
sum_client_shutdown_hint: 2627.9
sum_client_shutdown_hint_div_time: 0
++++++++++++++++++++++++++++++++++++++++++++++++
 + TIMESTAMP: 37.249
REINVADE (47959)
  + pid: 47959
  + min_cores: 1
  + max_cores: 512
  + scalability graph: 
1, 1.36329, 1.52423, 1.62017, 1.68565, 1.73398, 1.77154, 1.80182, 1.8269, 1.84812, 1.86637, 1.88229, 1.89634, 1.90885, 1.92009, 1.93026, 1.93952, 1.94799, 1.95579, 1.963, 1.96968, 1.9759, 1.98172, 1.98716, 1.99228, 1.9971, 2.00164, 2.00594, 2.01002, 2.01389, 2.01757, 2.02108, 2.02443, 2.02763, 2.03069, 2.03362, 2.03644, 2.03914, 2.04173, 2.04423, 
Number of clients: 3

+++++++++++++++++++++++++++++++++++++++++++++++++++++++++++
+ Client Mapping:
  > Client 47959 (14):	9 10 3 12 38 25 18 32 34 35 11 13 17 19 
  > Client 47963 (10):	4 0 1 2 36 16 21 28 14 15 
  > Client 47962 (10):	5 6 7 8 39 23 29 30 22 26 

+ Core Mapping:	47963 47963 47963 47959 47963 47962 47962 47962 47962 47959 47959 47959 47959 47959 47963 47963 47963 47959 47959 47959 0 47963 47962 47962 0 47959 47962 0 47963 47962 47962 0 47959 0 47959 47959 47963 0 47959 47962 
+ Optimal point: 14 13 13 
+++++++++++++++++++++++++++++++++++++++++++++++++++++++++++
++++++++++++++++++++++++++++++++++++++++++++++++
 + TIMESTAMP: 37.2492
REINVADE (47963)
  + pid: 47963
  + min_cores: 1
  + max_cores: 512
  + scalability graph: 
1, 1.36329, 1.52423, 1.62017, 1.68565, 1.73398, 1.77154, 1.80182, 1.8269, 1.84812, 1.86637, 1.88229, 1.89634, 1.90885, 1.92009, 1.93026, 1.93952, 1.94799, 1.95579, 1.963, 1.96968, 1.9759, 1.98172, 1.98716, 1.99228, 1.9971, 2.00164, 2.00594, 2.01002, 2.01389, 2.01757, 2.02108, 2.02443, 2.02763, 2.03069, 2.03362, 2.03644, 2.03914, 2.04173, 2.04423, 
Number of clients: 3

+++++++++++++++++++++++++++++++++++++++++++++++++++++++++++
+ Client Mapping:
  > Client 47959 (14):	9 10 3 12 38 25 18 32 34 35 11 13 17 19 
  > Client 47963 (13):	4 0 1 2 36 16 21 28 14 15 20 24 27 
  > Client 47962 (10):	5 6 7 8 39 23 29 30 22 26 

+ Core Mapping:	47963 47963 47963 47959 47963 47962 47962 47962 47962 47959 47959 47959 47959 47959 47963 47963 47963 47959 47959 47959 47963 47963 47962 47962 47963 47959 47962 47963 47963 47962 47962 0 47959 0 47959 47959 47963 0 47959 47962 
+ Optimal point: 14 13 13 
+++++++++++++++++++++++++++++++++++++++++++++++++++++++++++
++++++++++++++++++++++++++++++++++++++++++++++++
 + TIMESTAMP: 37.2496
REINVADE (47962)
  + pid: 47962
  + min_cores: 1
  + max_cores: 512
  + scalability graph: 
1, 1.36329, 1.52423, 1.62017, 1.68565, 1.73398, 1.77154, 1.80182, 1.8269, 1.84812, 1.86637, 1.88229, 1.89634, 1.90885, 1.92009, 1.93026, 1.93952, 1.94799, 1.95579, 1.963, 1.96968, 1.9759, 1.98172, 1.98716, 1.99228, 1.9971, 2.00164, 2.00594, 2.01002, 2.01389, 2.01757, 2.02108, 2.02443, 2.02763, 2.03069, 2.03362, 2.03644, 2.03914, 2.04173, 2.04423, 
Number of clients: 3

+++++++++++++++++++++++++++++++++++++++++++++++++++++++++++
+ Client Mapping:
  > Client 47959 (14):	9 10 3 12 38 25 18 32 34 35 11 13 17 19 
  > Client 47963 (13):	4 0 1 2 36 16 21 28 14 15 20 24 27 
  > Client 47962 (13):	5 6 7 8 39 23 29 30 22 26 31 33 37 

+ Core Mapping:	47963 47963 47963 47959 47963 47962 47962 47962 47962 47959 47959 47959 47959 47959 47963 47963 47963 47959 47959 47959 47963 47963 47962 47962 47963 47959 47962 47963 47963 47962 47962 47962 47959 47962 47959 47959 47963 47962 47959 47962 
+ Optimal point: 14 13 13 
+++++++++++++++++++++++++++++++++++++++++++++++++++++++++++
CLIENT SHUTDOWN: client 47963
 + TIMESTAMP: 37.5036
+++++++++++++++++++++++++++++++++++++++++++++++++++++++++++
+ Client Mapping:
  > Client 47959 (14):	9 10 3 12 38 25 18 32 34 35 11 13 17 19 
  > Client 47963 (0):	
  > Client 47962 (13):	5 6 7 8 39 23 29 30 22 26 31 33 37 

+ Core Mapping:	0 0 0 47959 0 47962 47962 47962 47962 47959 47959 47959 47959 47959 0 0 0 47959 47959 47959 0 0 47962 47962 0 47959 47962 0 0 47962 47962 47962 47959 47962 47959 47959 0 47962 47959 47962 
+ Optimal point: 14 13 13 
+++++++++++++++++++++++++++++++++++++++++++++++++++++++++++
client (47963) shutdown hint: 437.984
sum_client_shutdown_hint: 3065.89
sum_client_shutdown_hint_div_time: 0
++++++++++++++++++++++++++++++++++++++++++++++++
 + TIMESTAMP: 37.5042
REINVADE (47959)
  + pid: 47959
  + min_cores: 1
  + max_cores: 512
  + scalability graph: 
1, 1.36329, 1.52423, 1.62017, 1.68565, 1.73398, 1.77154, 1.80182, 1.8269, 1.84812, 1.86637, 1.88229, 1.89634, 1.90885, 1.92009, 1.93026, 1.93952, 1.94799, 1.95579, 1.963, 1.96968, 1.9759, 1.98172, 1.98716, 1.99228, 1.9971, 2.00164, 2.00594, 2.01002, 2.01389, 2.01757, 2.02108, 2.02443, 2.02763, 2.03069, 2.03362, 2.03644, 2.03914, 2.04173, 2.04423, 
Number of clients: 2

+++++++++++++++++++++++++++++++++++++++++++++++++++++++++++
+ Client Mapping:
  > Client 47959 (20):	9 10 3 12 38 25 18 32 34 35 11 13 17 19 0 1 2 4 14 15 
  > Client 47962 (13):	5 6 7 8 39 23 29 30 22 26 31 33 37 

+ Core Mapping:	47959 47959 47959 47959 47959 47962 47962 47962 47962 47959 47959 47959 47959 47959 47959 47959 0 47959 47959 47959 0 0 47962 47962 0 47959 47962 0 0 47962 47962 47962 47959 47962 47959 47959 0 47962 47959 47962 
+ Optimal point: 20 20 
+++++++++++++++++++++++++++++++++++++++++++++++++++++++++++
++++++++++++++++++++++++++++++++++++++++++++++++
 + TIMESTAMP: 37.5043
REINVADE (47962)
  + pid: 47962
  + min_cores: 1
  + max_cores: 512
  + scalability graph: 
1, 1.36329, 1.52423, 1.62017, 1.68565, 1.73398, 1.77154, 1.80182, 1.8269, 1.84812, 1.86637, 1.88229, 1.89634, 1.90885, 1.92009, 1.93026, 1.93952, 1.94799, 1.95579, 1.963, 1.96968, 1.9759, 1.98172, 1.98716, 1.99228, 1.9971, 2.00164, 2.00594, 2.01002, 2.01389, 2.01757, 2.02108, 2.02443, 2.02763, 2.03069, 2.03362, 2.03644, 2.03914, 2.04173, 2.04423, 
Number of clients: 2

+++++++++++++++++++++++++++++++++++++++++++++++++++++++++++
+ Client Mapping:
  > Client 47959 (20):	9 10 3 12 38 25 18 32 34 35 11 13 17 19 0 1 2 4 14 15 
  > Client 47962 (20):	5 6 7 8 39 23 29 30 22 26 31 33 37 16 20 21 24 27 28 36 

+ Core Mapping:	47959 47959 47959 47959 47959 47962 47962 47962 47962 47959 47959 47959 47959 47959 47959 47959 47962 47959 47959 47959 47962 47962 47962 47962 47962 47959 47962 47962 47962 47962 47962 47962 47959 47962 47959 47959 47962 47962 47959 47962 
+ Optimal point: 20 20 
+++++++++++++++++++++++++++++++++++++++++++++++++++++++++++
CLIENT SHUTDOWN: client 47962
 + TIMESTAMP: 37.8211
+++++++++++++++++++++++++++++++++++++++++++++++++++++++++++
+ Client Mapping:
  > Client 47959 (20):	9 10 3 12 38 25 18 32 34 35 11 13 17 19 0 1 2 4 14 15 
  > Client 47962 (0):	

+ Core Mapping:	47959 47959 47959 47959 47959 0 0 0 0 47959 47959 47959 47959 47959 47959 47959 0 47959 47959 47959 0 0 0 0 0 47959 0 0 0 0 0 0 47959 0 47959 47959 0 0 47959 0 
+ Optimal point: 20 20 
+++++++++++++++++++++++++++++++++++++++++++++++++++++++++++
client (47962) shutdown hint: 437.984
sum_client_shutdown_hint: 3503.87
sum_client_shutdown_hint_div_time: 0
++++++++++++++++++++++++++++++++++++++++++++++++
 + TIMESTAMP: 37.8226
REINVADE (47959)
  + pid: 47959
  + min_cores: 1
  + max_cores: 512
  + scalability graph: 
1, 1.36329, 1.52423, 1.62017, 1.68565, 1.73398, 1.77154, 1.80182, 1.8269, 1.84812, 1.86637, 1.88229, 1.89634, 1.90885, 1.92009, 1.93026, 1.93952, 1.94799, 1.95579, 1.963, 1.96968, 1.9759, 1.98172, 1.98716, 1.99228, 1.9971, 2.00164, 2.00594, 2.01002, 2.01389, 2.01757, 2.02108, 2.02443, 2.02763, 2.03069, 2.03362, 2.03644, 2.03914, 2.04173, 2.04423, 
Number of clients: 1

+++++++++++++++++++++++++++++++++++++++++++++++++++++++++++
+ Client Mapping:
  > Client 47959 (40):	9 10 3 12 38 25 18 32 34 35 11 13 17 19 0 1 2 4 14 15 5 6 7 8 16 20 21 22 23 24 26 27 28 29 30 31 33 36 37 39 

+ Core Mapping:	47959 47959 47959 47959 47959 47959 47959 47959 47959 47959 47959 47959 47959 47959 47959 47959 47959 47959 47959 47959 47959 47959 47959 47959 47959 47959 47959 47959 47959 47959 47959 47959 47959 47959 47959 47959 47959 47959 47959 47959 
+ Optimal point: 40 
+++++++++++++++++++++++++++++++++++++++++++++++++++++++++++
CLIENT SHUTDOWN: client 47959
 + TIMESTAMP: 37.8577
+++++++++++++++++++++++++++++++++++++++++++++++++++++++++++
+ Client Mapping:
  > Client 47959 (0):	

+ Core Mapping:	0 0 0 0 0 0 0 0 0 0 0 0 0 0 0 0 0 0 0 0 0 0 0 0 0 0 0 0 0 0 0 0 0 0 0 0 0 0 0 0 
+ Optimal point: 40 
+++++++++++++++++++++++++++++++++++++++++++++++++++++++++++
client (47959) shutdown hint: 437.984
sum_client_shutdown_hint: 3941.86
sum_client_shutdown_hint_div_time: 0
END TIMESTAMP: 37.8578
OVERALL TIME: 37.5679
 + sum_client_shutdown_hint: 3941.86
 + sum_client_shutdown_hint/time: 104.926
sum_client_shutdown_hint: 3941.86
sum_client_shutdown_hint_div_time: 104.926
