STARTING WORLD SCHEDULER SERVER
CLIENT SETUP: adding client 43931
 + TIMESTAMP: 0.196465
START TIMESTAMP: 0.196507
+++++++++++++++++++++++++++++++++++++++++++++++++++++++++++
+ Client Mapping:
  > Client 43931 (0):	

+ Core Mapping:	0 0 0 0 0 0 0 0 0 0 0 0 0 0 0 0 0 0 0 0 0 0 0 0 0 0 0 0 0 0 0 0 0 0 0 0 0 0 0 0 
+ Optimal point: 
+++++++++++++++++++++++++++++++++++++++++++++++++++++++++++
INVADE: client 43931
 + TIMESTAMP: 0.208399
RESSOURCE DISTRIBUTION CHANGED
++++++++++++++++++++++++++++++++++++++++++++++++
INVADE (43931)
  + pid: 43931
  + min_cores: 1
  + max_cores: 512
  + scalability graph: 
1, 1.36329, 1.52423, 1.62017, 1.68565, 1.73398, 1.77154, 1.80182, 1.8269, 1.84812, 1.86637, 1.88229, 1.89634, 1.90885, 1.92009, 1.93026, 1.93952, 1.94799, 1.95579, 1.963, 1.96968, 1.9759, 1.98172, 1.98716, 1.99228, 1.9971, 2.00164, 2.00594, 2.01002, 2.01389, 2.01757, 2.02108, 2.02443, 2.02763, 2.03069, 2.03362, 2.03644, 2.03914, 2.04173, 2.04423, 
Number of clients: 1

+++++++++++++++++++++++++++++++++++++++++++++++++++++++++++
+ Client Mapping:
  > Client 43931 (40):	0 1 2 3 4 5 6 7 8 9 10 11 12 13 14 15 16 17 18 19 20 21 22 23 24 25 26 27 28 29 30 31 32 33 34 35 36 37 38 39 

+ Core Mapping:	43931 43931 43931 43931 43931 43931 43931 43931 43931 43931 43931 43931 43931 43931 43931 43931 43931 43931 43931 43931 43931 43931 43931 43931 43931 43931 43931 43931 43931 43931 43931 43931 43931 43931 43931 43931 43931 43931 43931 43931 
+ Optimal point: 40 
+++++++++++++++++++++++++++++++++++++++++++++++++++++++++++
CLIENT SETUP: adding client 43923
 + TIMESTAMP: 0.292429
+++++++++++++++++++++++++++++++++++++++++++++++++++++++++++
+ Client Mapping:
  > Client 43931 (40):	0 1 2 3 4 5 6 7 8 9 10 11 12 13 14 15 16 17 18 19 20 21 22 23 24 25 26 27 28 29 30 31 32 33 34 35 36 37 38 39 
  > Client 43923 (0):	

+ Core Mapping:	43931 43931 43931 43931 43931 43931 43931 43931 43931 43931 43931 43931 43931 43931 43931 43931 43931 43931 43931 43931 43931 43931 43931 43931 43931 43931 43931 43931 43931 43931 43931 43931 43931 43931 43931 43931 43931 43931 43931 43931 
+ Optimal point: 40 
+++++++++++++++++++++++++++++++++++++++++++++++++++++++++++
INVADE: client 43923
 + TIMESTAMP: 0.292513
CLIENT SETUP: adding client 43926
 + TIMESTAMP: 0.29522
+++++++++++++++++++++++++++++++++++++++++++++++++++++++++++
+ Client Mapping:
  > Client 43931 (40):	0 1 2 3 4 5 6 7 8 9 10 11 12 13 14 15 16 17 18 19 20 21 22 23 24 25 26 27 28 29 30 31 32 33 34 35 36 37 38 39 
  > Client 43923 (0):	
  > Client 43926 (0):	

+ Core Mapping:	43931 43931 43931 43931 43931 43931 43931 43931 43931 43931 43931 43931 43931 43931 43931 43931 43931 43931 43931 43931 43931 43931 43931 43931 43931 43931 43931 43931 43931 43931 43931 43931 43931 43931 43931 43931 43931 43931 43931 43931 
+ Optimal point: 20 20 
+++++++++++++++++++++++++++++++++++++++++++++++++++++++++++
INVADE: client 43926
 + TIMESTAMP: 0.295318
CLIENT SETUP: adding client 43925
 + TIMESTAMP: 0.297846
+++++++++++++++++++++++++++++++++++++++++++++++++++++++++++
+ Client Mapping:
  > Client 43931 (40):	0 1 2 3 4 5 6 7 8 9 10 11 12 13 14 15 16 17 18 19 20 21 22 23 24 25 26 27 28 29 30 31 32 33 34 35 36 37 38 39 
  > Client 43923 (0):	
  > Client 43926 (0):	
  > Client 43925 (0):	

+ Core Mapping:	43931 43931 43931 43931 43931 43931 43931 43931 43931 43931 43931 43931 43931 43931 43931 43931 43931 43931 43931 43931 43931 43931 43931 43931 43931 43931 43931 43931 43931 43931 43931 43931 43931 43931 43931 43931 43931 43931 43931 43931 
+ Optimal point: 14 13 13 
+++++++++++++++++++++++++++++++++++++++++++++++++++++++++++
INVADE: client 43925
 + TIMESTAMP: 0.297928
CLIENT SETUP: adding client 43924
 + TIMESTAMP: 0.298516
+++++++++++++++++++++++++++++++++++++++++++++++++++++++++++
+ Client Mapping:
  > Client 43931 (40):	0 1 2 3 4 5 6 7 8 9 10 11 12 13 14 15 16 17 18 19 20 21 22 23 24 25 26 27 28 29 30 31 32 33 34 35 36 37 38 39 
  > Client 43923 (0):	
  > Client 43926 (0):	
  > Client 43925 (0):	
  > Client 43924 (0):	

+ Core Mapping:	43931 43931 43931 43931 43931 43931 43931 43931 43931 43931 43931 43931 43931 43931 43931 43931 43931 43931 43931 43931 43931 43931 43931 43931 43931 43931 43931 43931 43931 43931 43931 43931 43931 43931 43931 43931 43931 43931 43931 43931 
+ Optimal point: 10 10 10 10 
+++++++++++++++++++++++++++++++++++++++++++++++++++++++++++
INVADE: client 43924
 + TIMESTAMP: 0.298629
CLIENT SETUP: adding client 43930
 + TIMESTAMP: 0.305625
+++++++++++++++++++++++++++++++++++++++++++++++++++++++++++
+ Client Mapping:
  > Client 43931 (40):	0 1 2 3 4 5 6 7 8 9 10 11 12 13 14 15 16 17 18 19 20 21 22 23 24 25 26 27 28 29 30 31 32 33 34 35 36 37 38 39 
  > Client 43923 (0):	
  > Client 43926 (0):	
  > Client 43925 (0):	
  > Client 43924 (0):	
  > Client 43930 (0):	

+ Core Mapping:	43931 43931 43931 43931 43931 43931 43931 43931 43931 43931 43931 43931 43931 43931 43931 43931 43931 43931 43931 43931 43931 43931 43931 43931 43931 43931 43931 43931 43931 43931 43931 43931 43931 43931 43931 43931 43931 43931 43931 43931 
+ Optimal point: 8 8 8 8 8 
+++++++++++++++++++++++++++++++++++++++++++++++++++++++++++
INVADE: client 43930
 + TIMESTAMP: 0.305723
CLIENT SETUP: adding client 43927
 + TIMESTAMP: 0.308522
+++++++++++++++++++++++++++++++++++++++++++++++++++++++++++
+ Client Mapping:
  > Client 43931 (40):	0 1 2 3 4 5 6 7 8 9 10 11 12 13 14 15 16 17 18 19 20 21 22 23 24 25 26 27 28 29 30 31 32 33 34 35 36 37 38 39 
  > Client 43923 (0):	
  > Client 43926 (0):	
  > Client 43925 (0):	
  > Client 43924 (0):	
  > Client 43930 (0):	
  > Client 43927 (0):	

+ Core Mapping:	43931 43931 43931 43931 43931 43931 43931 43931 43931 43931 43931 43931 43931 43931 43931 43931 43931 43931 43931 43931 43931 43931 43931 43931 43931 43931 43931 43931 43931 43931 43931 43931 43931 43931 43931 43931 43931 43931 43931 43931 
+ Optimal point: 7 7 7 7 6 6 
+++++++++++++++++++++++++++++++++++++++++++++++++++++++++++
CLIENT SETUP: adding client 43929
 + TIMESTAMP: 0.308637
+++++++++++++++++++++++++++++++++++++++++++++++++++++++++++
+ Client Mapping:
  > Client 43931 (40):	0 1 2 3 4 5 6 7 8 9 10 11 12 13 14 15 16 17 18 19 20 21 22 23 24 25 26 27 28 29 30 31 32 33 34 35 36 37 38 39 
  > Client 43923 (0):	
  > Client 43926 (0):	
  > Client 43925 (0):	
  > Client 43924 (0):	
  > Client 43930 (0):	
  > Client 43927 (0):	
  > Client 43929 (0):	

+ Core Mapping:	43931 43931 43931 43931 43931 43931 43931 43931 43931 43931 43931 43931 43931 43931 43931 43931 43931 43931 43931 43931 43931 43931 43931 43931 43931 43931 43931 43931 43931 43931 43931 43931 43931 43931 43931 43931 43931 43931 43931 43931 
+ Optimal point: 7 7 7 7 6 6 
+++++++++++++++++++++++++++++++++++++++++++++++++++++++++++
INVADE: client 43929
 + TIMESTAMP: 0.30874
++++++++++++++++++++++++++++++++++++++++++++++++
 + TIMESTAMP: 0.309619
REINVADE (43931)
  + pid: 43931
  + min_cores: 1
  + max_cores: 512
  + scalability graph: 
1, 1.36329, 1.52423, 1.62017, 1.68565, 1.73398, 1.77154, 1.80182, 1.8269, 1.84812, 1.86637, 1.88229, 1.89634, 1.90885, 1.92009, 1.93026, 1.93952, 1.94799, 1.95579, 1.963, 1.96968, 1.9759, 1.98172, 1.98716, 1.99228, 1.9971, 2.00164, 2.00594, 2.01002, 2.01389, 2.01757, 2.02108, 2.02443, 2.02763, 2.03069, 2.03362, 2.03644, 2.03914, 2.04173, 2.04423, 
Number of clients: 8

+++++++++++++++++++++++++++++++++++++++++++++++++++++++++++
+ Client Mapping:
  > Client 43931 (1):	39 
  > Client 43923 (0):	
  > Client 43926 (0):	
  > Client 43925 (0):	
  > Client 43924 (0):	
  > Client 43930 (0):	
  > Client 43927 (0):	
  > Client 43929 (0):	

+ Core Mapping:	0 0 0 0 0 0 0 0 0 0 0 0 0 0 0 0 0 0 0 0 0 0 0 0 0 0 0 0 0 0 0 0 0 0 0 0 0 0 0 43931 
+ Optimal point: 1 1 1 1 1 1 33 1 
+++++++++++++++++++++++++++++++++++++++++++++++++++++++++++
CLIENT SETUP: adding client 43928
 + TIMESTAMP: 0.316109
+++++++++++++++++++++++++++++++++++++++++++++++++++++++++++
+ Client Mapping:
  > Client 43931 (1):	39 
  > Client 43923 (0):	
  > Client 43926 (0):	
  > Client 43925 (0):	
  > Client 43924 (0):	
  > Client 43930 (0):	
  > Client 43927 (0):	
  > Client 43929 (0):	
  > Client 43928 (0):	

+ Core Mapping:	0 0 0 0 0 0 0 0 0 0 0 0 0 0 0 0 0 0 0 0 0 0 0 0 0 0 0 0 0 0 0 0 0 0 0 0 0 0 0 43931 
+ Optimal point: 1 1 1 1 1 1 33 1 
+++++++++++++++++++++++++++++++++++++++++++++++++++++++++++
INVADE: client 43927
 + TIMESTAMP: 0.316385
RESSOURCE DISTRIBUTION CHANGED
++++++++++++++++++++++++++++++++++++++++++++++++
INVADE (43927)
  + pid: 43927
  + min_cores: 1
  + max_cores: 512
  + scalability graph: 
1, 1.36329, 1.52423, 1.62017, 1.68565, 1.73398, 1.77154, 1.80182, 1.8269, 1.84812, 1.86637, 1.88229, 1.89634, 1.90885, 1.92009, 1.93026, 1.93952, 1.94799, 1.95579, 1.963, 1.96968, 1.9759, 1.98172, 1.98716, 1.99228, 1.9971, 2.00164, 2.00594, 2.01002, 2.01389, 2.01757, 2.02108, 2.02443, 2.02763, 2.03069, 2.03362, 2.03644, 2.03914, 2.04173, 2.04423, 
Number of clients: 9

+++++++++++++++++++++++++++++++++++++++++++++++++++++++++++
+ Client Mapping:
  > Client 43931 (1):	39 
  > Client 43923 (0):	
  > Client 43926 (0):	
  > Client 43925 (0):	
  > Client 43924 (0):	
  > Client 43930 (0):	
  > Client 43927 (1):	0 
  > Client 43929 (0):	
  > Client 43928 (0):	

+ Core Mapping:	43927 0 0 0 0 0 0 0 0 0 0 0 0 0 0 0 0 0 0 0 0 0 0 0 0 0 0 0 0 0 0 0 0 0 0 0 0 0 0 43931 
+ Optimal point: 1 1 1 1 1 1 1 1 32 
+++++++++++++++++++++++++++++++++++++++++++++++++++++++++++
INVADE: client 43928
 + TIMESTAMP: 0.316703
RESSOURCE DISTRIBUTION CHANGED
++++++++++++++++++++++++++++++++++++++++++++++++
INVADE (43928)
  + pid: 43928
  + min_cores: 1
  + max_cores: 512
  + scalability graph: 
1, 1.36329, 1.52423, 1.62017, 1.68565, 1.73398, 1.77154, 1.80182, 1.8269, 1.84812, 1.86637, 1.88229, 1.89634, 1.90885, 1.92009, 1.93026, 1.93952, 1.94799, 1.95579, 1.963, 1.96968, 1.9759, 1.98172, 1.98716, 1.99228, 1.9971, 2.00164, 2.00594, 2.01002, 2.01389, 2.01757, 2.02108, 2.02443, 2.02763, 2.03069, 2.03362, 2.03644, 2.03914, 2.04173, 2.04423, 
Number of clients: 9

+++++++++++++++++++++++++++++++++++++++++++++++++++++++++++
+ Client Mapping:
  > Client 43931 (1):	39 
  > Client 43923 (0):	
  > Client 43926 (0):	
  > Client 43925 (0):	
  > Client 43924 (0):	
  > Client 43930 (0):	
  > Client 43927 (1):	0 
  > Client 43929 (0):	
  > Client 43928 (4):	1 2 3 4 

+ Core Mapping:	43927 43928 43928 43928 43928 0 0 0 0 0 0 0 0 0 0 0 0 0 0 0 0 0 0 0 0 0 0 0 0 0 0 0 0 0 0 0 0 0 0 43931 
+ Optimal point: 5 5 5 5 4 4 4 4 4 
+++++++++++++++++++++++++++++++++++++++++++++++++++++++++++
++++++++++++++++++++++++++++++++++++++++++++++++
 + TIMESTAMP: 0.317558
REINVADE (43927)
  + pid: 43927
  + min_cores: 1
  + max_cores: 512
  + scalability graph: 
1, 1.36329, 1.52423, 1.62017, 1.68565, 1.73398, 1.77154, 1.80182, 1.8269, 1.84812, 1.86637, 1.88229, 1.89634, 1.90885, 1.92009, 1.93026, 1.93952, 1.94799, 1.95579, 1.963, 1.96968, 1.9759, 1.98172, 1.98716, 1.99228, 1.9971, 2.00164, 2.00594, 2.01002, 2.01389, 2.01757, 2.02108, 2.02443, 2.02763, 2.03069, 2.03362, 2.03644, 2.03914, 2.04173, 2.04423, 
Number of clients: 9

+++++++++++++++++++++++++++++++++++++++++++++++++++++++++++
+ Client Mapping:
  > Client 43931 (1):	39 
  > Client 43923 (0):	
  > Client 43926 (0):	
  > Client 43925 (0):	
  > Client 43924 (0):	
  > Client 43930 (0):	
  > Client 43927 (4):	0 5 6 7 
  > Client 43929 (0):	
  > Client 43928 (4):	1 2 3 4 

+ Core Mapping:	43927 43928 43928 43928 43928 43927 43927 43927 0 0 0 0 0 0 0 0 0 0 0 0 0 0 0 0 0 0 0 0 0 0 0 0 0 0 0 0 0 0 0 43931 
+ Optimal point: 5 5 5 5 4 4 4 4 4 
+++++++++++++++++++++++++++++++++++++++++++++++++++++++++++
++++++++++++++++++++++++++++++++++++++++++++++++
 + TIMESTAMP: 0.372464
REINVADE (43923)
  + pid: 43923
  + min_cores: 1
  + max_cores: 512
  + scalability graph: 
1, 1.36329, 1.52423, 1.62017, 1.68565, 1.73398, 1.77154, 1.80182, 1.8269, 1.84812, 1.86637, 1.88229, 1.89634, 1.90885, 1.92009, 1.93026, 1.93952, 1.94799, 1.95579, 1.963, 1.96968, 1.9759, 1.98172, 1.98716, 1.99228, 1.9971, 2.00164, 2.00594, 2.01002, 2.01389, 2.01757, 2.02108, 2.02443, 2.02763, 2.03069, 2.03362, 2.03644, 2.03914, 2.04173, 2.04423, 
Number of clients: 9

+++++++++++++++++++++++++++++++++++++++++++++++++++++++++++
+ Client Mapping:
  > Client 43931 (1):	39 
  > Client 43923 (5):	8 9 10 11 12 
  > Client 43926 (0):	
  > Client 43925 (0):	
  > Client 43924 (0):	
  > Client 43930 (0):	
  > Client 43927 (4):	0 5 6 7 
  > Client 43929 (0):	
  > Client 43928 (4):	1 2 3 4 

+ Core Mapping:	43927 43928 43928 43928 43928 43927 43927 43927 43923 43923 43923 43923 43923 0 0 0 0 0 0 0 0 0 0 0 0 0 0 0 0 0 0 0 0 0 0 0 0 0 0 43931 
+ Optimal point: 5 5 5 5 4 4 4 4 4 
+++++++++++++++++++++++++++++++++++++++++++++++++++++++++++
++++++++++++++++++++++++++++++++++++++++++++++++
 + TIMESTAMP: 0.385671
REINVADE (43926)
  + pid: 43926
  + min_cores: 1
  + max_cores: 512
  + scalability graph: 
1, 1.36329, 1.52423, 1.62017, 1.68565, 1.73398, 1.77154, 1.80182, 1.8269, 1.84812, 1.86637, 1.88229, 1.89634, 1.90885, 1.92009, 1.93026, 1.93952, 1.94799, 1.95579, 1.963, 1.96968, 1.9759, 1.98172, 1.98716, 1.99228, 1.9971, 2.00164, 2.00594, 2.01002, 2.01389, 2.01757, 2.02108, 2.02443, 2.02763, 2.03069, 2.03362, 2.03644, 2.03914, 2.04173, 2.04423, 
Number of clients: 9

+++++++++++++++++++++++++++++++++++++++++++++++++++++++++++
+ Client Mapping:
  > Client 43931 (1):	39 
  > Client 43923 (5):	8 9 10 11 12 
  > Client 43926 (5):	13 14 15 16 17 
  > Client 43925 (0):	
  > Client 43924 (0):	
  > Client 43930 (0):	
  > Client 43927 (4):	0 5 6 7 
  > Client 43929 (0):	
  > Client 43928 (4):	1 2 3 4 

+ Core Mapping:	43927 43928 43928 43928 43928 43927 43927 43927 43923 43923 43923 43923 43923 43926 43926 43926 43926 43926 0 0 0 0 0 0 0 0 0 0 0 0 0 0 0 0 0 0 0 0 0 43931 
+ Optimal point: 5 5 5 5 4 4 4 4 4 
+++++++++++++++++++++++++++++++++++++++++++++++++++++++++++
++++++++++++++++++++++++++++++++++++++++++++++++
 + TIMESTAMP: 0.402793
REINVADE (43924)
  + pid: 43924
  + min_cores: 1
  + max_cores: 512
  + scalability graph: 
1, 1.36329, 1.52423, 1.62017, 1.68565, 1.73398, 1.77154, 1.80182, 1.8269, 1.84812, 1.86637, 1.88229, 1.89634, 1.90885, 1.92009, 1.93026, 1.93952, 1.94799, 1.95579, 1.963, 1.96968, 1.9759, 1.98172, 1.98716, 1.99228, 1.9971, 2.00164, 2.00594, 2.01002, 2.01389, 2.01757, 2.02108, 2.02443, 2.02763, 2.03069, 2.03362, 2.03644, 2.03914, 2.04173, 2.04423, 
Number of clients: 9

+++++++++++++++++++++++++++++++++++++++++++++++++++++++++++
+ Client Mapping:
  > Client 43931 (1):	39 
  > Client 43923 (5):	8 9 10 11 12 
  > Client 43926 (5):	13 14 15 16 17 
  > Client 43925 (0):	
  > Client 43924 (4):	18 19 20 21 
  > Client 43930 (0):	
  > Client 43927 (4):	0 5 6 7 
  > Client 43929 (0):	
  > Client 43928 (4):	1 2 3 4 

+ Core Mapping:	43927 43928 43928 43928 43928 43927 43927 43927 43923 43923 43923 43923 43923 43926 43926 43926 43926 43926 43924 43924 43924 43924 0 0 0 0 0 0 0 0 0 0 0 0 0 0 0 0 0 43931 
+ Optimal point: 5 5 5 5 4 4 4 4 4 
+++++++++++++++++++++++++++++++++++++++++++++++++++++++++++
++++++++++++++++++++++++++++++++++++++++++++++++
 + TIMESTAMP: 0.41459
REINVADE (43930)
  + pid: 43930
  + min_cores: 1
  + max_cores: 512
  + scalability graph: 
1, 1.36329, 1.52423, 1.62017, 1.68565, 1.73398, 1.77154, 1.80182, 1.8269, 1.84812, 1.86637, 1.88229, 1.89634, 1.90885, 1.92009, 1.93026, 1.93952, 1.94799, 1.95579, 1.963, 1.96968, 1.9759, 1.98172, 1.98716, 1.99228, 1.9971, 2.00164, 2.00594, 2.01002, 2.01389, 2.01757, 2.02108, 2.02443, 2.02763, 2.03069, 2.03362, 2.03644, 2.03914, 2.04173, 2.04423, 
Number of clients: 9

+++++++++++++++++++++++++++++++++++++++++++++++++++++++++++
+ Client Mapping:
  > Client 43931 (1):	39 
  > Client 43923 (5):	8 9 10 11 12 
  > Client 43926 (5):	13 14 15 16 17 
  > Client 43925 (0):	
  > Client 43924 (4):	18 19 20 21 
  > Client 43930 (4):	22 23 24 25 
  > Client 43927 (4):	0 5 6 7 
  > Client 43929 (0):	
  > Client 43928 (4):	1 2 3 4 

+ Core Mapping:	43927 43928 43928 43928 43928 43927 43927 43927 43923 43923 43923 43923 43923 43926 43926 43926 43926 43926 43924 43924 43924 43924 43930 43930 43930 43930 0 0 0 0 0 0 0 0 0 0 0 0 0 43931 
+ Optimal point: 5 5 5 5 4 4 4 4 4 
+++++++++++++++++++++++++++++++++++++++++++++++++++++++++++
++++++++++++++++++++++++++++++++++++++++++++++++
 + TIMESTAMP: 0.437714
REINVADE (43931)
  + pid: 43931
  + min_cores: 1
  + max_cores: 512
  + scalability graph: 
1, 1.36329, 1.52423, 1.62017, 1.68565, 1.73398, 1.77154, 1.80182, 1.8269, 1.84812, 1.86637, 1.88229, 1.89634, 1.90885, 1.92009, 1.93026, 1.93952, 1.94799, 1.95579, 1.963, 1.96968, 1.9759, 1.98172, 1.98716, 1.99228, 1.9971, 2.00164, 2.00594, 2.01002, 2.01389, 2.01757, 2.02108, 2.02443, 2.02763, 2.03069, 2.03362, 2.03644, 2.03914, 2.04173, 2.04423, 
Number of clients: 9

+++++++++++++++++++++++++++++++++++++++++++++++++++++++++++
+ Client Mapping:
  > Client 43931 (5):	39 26 27 28 29 
  > Client 43923 (5):	8 9 10 11 12 
  > Client 43926 (5):	13 14 15 16 17 
  > Client 43925 (0):	
  > Client 43924 (4):	18 19 20 21 
  > Client 43930 (4):	22 23 24 25 
  > Client 43927 (4):	0 5 6 7 
  > Client 43929 (0):	
  > Client 43928 (4):	1 2 3 4 

+ Core Mapping:	43927 43928 43928 43928 43928 43927 43927 43927 43923 43923 43923 43923 43923 43926 43926 43926 43926 43926 43924 43924 43924 43924 43930 43930 43930 43930 43931 43931 43931 43931 0 0 0 0 0 0 0 0 0 43931 
+ Optimal point: 5 5 5 5 4 4 4 4 4 
+++++++++++++++++++++++++++++++++++++++++++++++++++++++++++
++++++++++++++++++++++++++++++++++++++++++++++++
 + TIMESTAMP: 0.445417
REINVADE (43929)
  + pid: 43929
  + min_cores: 1
  + max_cores: 512
  + scalability graph: 
1, 1.36329, 1.52423, 1.62017, 1.68565, 1.73398, 1.77154, 1.80182, 1.8269, 1.84812, 1.86637, 1.88229, 1.89634, 1.90885, 1.92009, 1.93026, 1.93952, 1.94799, 1.95579, 1.963, 1.96968, 1.9759, 1.98172, 1.98716, 1.99228, 1.9971, 2.00164, 2.00594, 2.01002, 2.01389, 2.01757, 2.02108, 2.02443, 2.02763, 2.03069, 2.03362, 2.03644, 2.03914, 2.04173, 2.04423, 
Number of clients: 9

+++++++++++++++++++++++++++++++++++++++++++++++++++++++++++
+ Client Mapping:
  > Client 43931 (5):	39 26 27 28 29 
  > Client 43923 (5):	8 9 10 11 12 
  > Client 43926 (5):	13 14 15 16 17 
  > Client 43925 (0):	
  > Client 43924 (4):	18 19 20 21 
  > Client 43930 (4):	22 23 24 25 
  > Client 43927 (4):	0 5 6 7 
  > Client 43929 (4):	30 31 32 33 
  > Client 43928 (4):	1 2 3 4 

+ Core Mapping:	43927 43928 43928 43928 43928 43927 43927 43927 43923 43923 43923 43923 43923 43926 43926 43926 43926 43926 43924 43924 43924 43924 43930 43930 43930 43930 43931 43931 43931 43931 43929 43929 43929 43929 0 0 0 0 0 43931 
+ Optimal point: 5 5 5 5 4 4 4 4 4 
+++++++++++++++++++++++++++++++++++++++++++++++++++++++++++
++++++++++++++++++++++++++++++++++++++++++++++++
 + TIMESTAMP: 0.448819
REINVADE (43925)
  + pid: 43925
  + min_cores: 1
  + max_cores: 512
  + scalability graph: 
1, 1.36329, 1.52423, 1.62017, 1.68565, 1.73398, 1.77154, 1.80182, 1.8269, 1.84812, 1.86637, 1.88229, 1.89634, 1.90885, 1.92009, 1.93026, 1.93952, 1.94799, 1.95579, 1.963, 1.96968, 1.9759, 1.98172, 1.98716, 1.99228, 1.9971, 2.00164, 2.00594, 2.01002, 2.01389, 2.01757, 2.02108, 2.02443, 2.02763, 2.03069, 2.03362, 2.03644, 2.03914, 2.04173, 2.04423, 
Number of clients: 9

+++++++++++++++++++++++++++++++++++++++++++++++++++++++++++
+ Client Mapping:
  > Client 43931 (5):	39 26 27 28 29 
  > Client 43923 (5):	8 9 10 11 12 
  > Client 43926 (5):	13 14 15 16 17 
  > Client 43925 (5):	34 35 36 37 38 
  > Client 43924 (4):	18 19 20 21 
  > Client 43930 (4):	22 23 24 25 
  > Client 43927 (4):	0 5 6 7 
  > Client 43929 (4):	30 31 32 33 
  > Client 43928 (4):	1 2 3 4 

+ Core Mapping:	43927 43928 43928 43928 43928 43927 43927 43927 43923 43923 43923 43923 43923 43926 43926 43926 43926 43926 43924 43924 43924 43924 43930 43930 43930 43930 43931 43931 43931 43931 43929 43929 43929 43929 43925 43925 43925 43925 43925 43931 
+ Optimal point: 5 5 5 5 4 4 4 4 4 
+++++++++++++++++++++++++++++++++++++++++++++++++++++++++++
CLIENT SHUTDOWN: client 43926
 + TIMESTAMP: 32.9332
+++++++++++++++++++++++++++++++++++++++++++++++++++++++++++
+ Client Mapping:
  > Client 43931 (5):	39 26 27 28 29 
  > Client 43923 (5):	8 9 10 11 12 
  > Client 43926 (0):	
  > Client 43925 (5):	34 35 36 37 38 
  > Client 43924 (4):	18 19 20 21 
  > Client 43930 (4):	22 23 24 25 
  > Client 43927 (4):	0 5 6 7 
  > Client 43929 (4):	30 31 32 33 
  > Client 43928 (4):	1 2 3 4 

+ Core Mapping:	43927 43928 43928 43928 43928 43927 43927 43927 43923 43923 43923 43923 43923 0 0 0 0 0 43924 43924 43924 43924 43930 43930 43930 43930 43931 43931 43931 43931 43929 43929 43929 43929 43925 43925 43925 43925 43925 43931 
+ Optimal point: 5 5 5 5 4 4 4 4 4 
+++++++++++++++++++++++++++++++++++++++++++++++++++++++++++
client (43926) shutdown hint: 437.984
sum_client_shutdown_hint: 437.984
++++++++++++++++++++++++++++++++++++++++++++++++
 + TIMESTAMP: 32.9346
REINVADE (43927)
  + pid: 43927
  + min_cores: 1
  + max_cores: 512
  + scalability graph: 
1, 1.36329, 1.52423, 1.62017, 1.68565, 1.73398, 1.77154, 1.80182, 1.8269, 1.84812, 1.86637, 1.88229, 1.89634, 1.90885, 1.92009, 1.93026, 1.93952, 1.94799, 1.95579, 1.963, 1.96968, 1.9759, 1.98172, 1.98716, 1.99228, 1.9971, 2.00164, 2.00594, 2.01002, 2.01389, 2.01757, 2.02108, 2.02443, 2.02763, 2.03069, 2.03362, 2.03644, 2.03914, 2.04173, 2.04423, 
Number of clients: 8

+++++++++++++++++++++++++++++++++++++++++++++++++++++++++++
+ Client Mapping:
  > Client 43931 (5):	39 26 27 28 29 
  > Client 43923 (5):	8 9 10 11 12 
  > Client 43925 (5):	34 35 36 37 38 
  > Client 43924 (4):	18 19 20 21 
  > Client 43930 (4):	22 23 24 25 
  > Client 43927 (5):	0 5 6 7 13 
  > Client 43929 (4):	30 31 32 33 
  > Client 43928 (4):	1 2 3 4 

+ Core Mapping:	43927 43928 43928 43928 43928 43927 43927 43927 43923 43923 43923 43923 43923 43927 0 0 0 0 43924 43924 43924 43924 43930 43930 43930 43930 43931 43931 43931 43931 43929 43929 43929 43929 43925 43925 43925 43925 43925 43931 
+ Optimal point: 5 5 5 5 5 5 5 5 
+++++++++++++++++++++++++++++++++++++++++++++++++++++++++++
++++++++++++++++++++++++++++++++++++++++++++++++
 + TIMESTAMP: 32.9361
REINVADE (43924)
  + pid: 43924
  + min_cores: 1
  + max_cores: 512
  + scalability graph: 
1, 1.36329, 1.52423, 1.62017, 1.68565, 1.73398, 1.77154, 1.80182, 1.8269, 1.84812, 1.86637, 1.88229, 1.89634, 1.90885, 1.92009, 1.93026, 1.93952, 1.94799, 1.95579, 1.963, 1.96968, 1.9759, 1.98172, 1.98716, 1.99228, 1.9971, 2.00164, 2.00594, 2.01002, 2.01389, 2.01757, 2.02108, 2.02443, 2.02763, 2.03069, 2.03362, 2.03644, 2.03914, 2.04173, 2.04423, 
Number of clients: 8

+++++++++++++++++++++++++++++++++++++++++++++++++++++++++++
+ Client Mapping:
  > Client 43931 (5):	39 26 27 28 29 
  > Client 43923 (5):	8 9 10 11 12 
  > Client 43925 (5):	34 35 36 37 38 
  > Client 43924 (5):	18 19 20 21 14 
  > Client 43930 (4):	22 23 24 25 
  > Client 43927 (5):	0 5 6 7 13 
  > Client 43929 (4):	30 31 32 33 
  > Client 43928 (4):	1 2 3 4 

+ Core Mapping:	43927 43928 43928 43928 43928 43927 43927 43927 43923 43923 43923 43923 43923 43927 43924 0 0 0 43924 43924 43924 43924 43930 43930 43930 43930 43931 43931 43931 43931 43929 43929 43929 43929 43925 43925 43925 43925 43925 43931 
+ Optimal point: 5 5 5 5 5 5 5 5 
+++++++++++++++++++++++++++++++++++++++++++++++++++++++++++
++++++++++++++++++++++++++++++++++++++++++++++++
 + TIMESTAMP: 32.9381
REINVADE (43930)
  + pid: 43930
  + min_cores: 1
  + max_cores: 512
  + scalability graph: 
1, 1.36329, 1.52423, 1.62017, 1.68565, 1.73398, 1.77154, 1.80182, 1.8269, 1.84812, 1.86637, 1.88229, 1.89634, 1.90885, 1.92009, 1.93026, 1.93952, 1.94799, 1.95579, 1.963, 1.96968, 1.9759, 1.98172, 1.98716, 1.99228, 1.9971, 2.00164, 2.00594, 2.01002, 2.01389, 2.01757, 2.02108, 2.02443, 2.02763, 2.03069, 2.03362, 2.03644, 2.03914, 2.04173, 2.04423, 
Number of clients: 8

+++++++++++++++++++++++++++++++++++++++++++++++++++++++++++
+ Client Mapping:
  > Client 43931 (5):	39 26 27 28 29 
  > Client 43923 (5):	8 9 10 11 12 
  > Client 43925 (5):	34 35 36 37 38 
  > Client 43924 (5):	18 19 20 21 14 
  > Client 43930 (5):	22 23 24 25 15 
  > Client 43927 (5):	0 5 6 7 13 
  > Client 43929 (4):	30 31 32 33 
  > Client 43928 (4):	1 2 3 4 

+ Core Mapping:	43927 43928 43928 43928 43928 43927 43927 43927 43923 43923 43923 43923 43923 43927 43924 43930 0 0 43924 43924 43924 43924 43930 43930 43930 43930 43931 43931 43931 43931 43929 43929 43929 43929 43925 43925 43925 43925 43925 43931 
+ Optimal point: 5 5 5 5 5 5 5 5 
+++++++++++++++++++++++++++++++++++++++++++++++++++++++++++
++++++++++++++++++++++++++++++++++++++++++++++++
 + TIMESTAMP: 32.9398
REINVADE (43928)
  + pid: 43928
  + min_cores: 1
  + max_cores: 512
  + scalability graph: 
1, 1.36329, 1.52423, 1.62017, 1.68565, 1.73398, 1.77154, 1.80182, 1.8269, 1.84812, 1.86637, 1.88229, 1.89634, 1.90885, 1.92009, 1.93026, 1.93952, 1.94799, 1.95579, 1.963, 1.96968, 1.9759, 1.98172, 1.98716, 1.99228, 1.9971, 2.00164, 2.00594, 2.01002, 2.01389, 2.01757, 2.02108, 2.02443, 2.02763, 2.03069, 2.03362, 2.03644, 2.03914, 2.04173, 2.04423, 
Number of clients: 8

+++++++++++++++++++++++++++++++++++++++++++++++++++++++++++
+ Client Mapping:
  > Client 43931 (5):	39 26 27 28 29 
  > Client 43923 (5):	8 9 10 11 12 
  > Client 43925 (5):	34 35 36 37 38 
  > Client 43924 (5):	18 19 20 21 14 
  > Client 43930 (5):	22 23 24 25 15 
  > Client 43927 (5):	0 5 6 7 13 
  > Client 43929 (4):	30 31 32 33 
  > Client 43928 (5):	1 2 3 4 16 

+ Core Mapping:	43927 43928 43928 43928 43928 43927 43927 43927 43923 43923 43923 43923 43923 43927 43924 43930 43928 0 43924 43924 43924 43924 43930 43930 43930 43930 43931 43931 43931 43931 43929 43929 43929 43929 43925 43925 43925 43925 43925 43931 
+ Optimal point: 5 5 5 5 5 5 5 5 
+++++++++++++++++++++++++++++++++++++++++++++++++++++++++++
++++++++++++++++++++++++++++++++++++++++++++++++
 + TIMESTAMP: 32.9406
REINVADE (43929)
  + pid: 43929
  + min_cores: 1
  + max_cores: 512
  + scalability graph: 
1, 1.36329, 1.52423, 1.62017, 1.68565, 1.73398, 1.77154, 1.80182, 1.8269, 1.84812, 1.86637, 1.88229, 1.89634, 1.90885, 1.92009, 1.93026, 1.93952, 1.94799, 1.95579, 1.963, 1.96968, 1.9759, 1.98172, 1.98716, 1.99228, 1.9971, 2.00164, 2.00594, 2.01002, 2.01389, 2.01757, 2.02108, 2.02443, 2.02763, 2.03069, 2.03362, 2.03644, 2.03914, 2.04173, 2.04423, 
Number of clients: 8

+++++++++++++++++++++++++++++++++++++++++++++++++++++++++++
+ Client Mapping:
  > Client 43931 (5):	39 26 27 28 29 
  > Client 43923 (5):	8 9 10 11 12 
  > Client 43925 (5):	34 35 36 37 38 
  > Client 43924 (5):	18 19 20 21 14 
  > Client 43930 (5):	22 23 24 25 15 
  > Client 43927 (5):	0 5 6 7 13 
  > Client 43929 (5):	30 31 32 33 17 
  > Client 43928 (5):	1 2 3 4 16 

+ Core Mapping:	43927 43928 43928 43928 43928 43927 43927 43927 43923 43923 43923 43923 43923 43927 43924 43930 43928 43929 43924 43924 43924 43924 43930 43930 43930 43930 43931 43931 43931 43931 43929 43929 43929 43929 43925 43925 43925 43925 43925 43931 
+ Optimal point: 5 5 5 5 5 5 5 5 
+++++++++++++++++++++++++++++++++++++++++++++++++++++++++++
CLIENT SHUTDOWN: client 43923
 + TIMESTAMP: 33.091
+++++++++++++++++++++++++++++++++++++++++++++++++++++++++++
+ Client Mapping:
  > Client 43931 (5):	39 26 27 28 29 
  > Client 43923 (0):	
  > Client 43925 (5):	34 35 36 37 38 
  > Client 43924 (5):	18 19 20 21 14 
  > Client 43930 (5):	22 23 24 25 15 
  > Client 43927 (5):	0 5 6 7 13 
  > Client 43929 (5):	30 31 32 33 17 
  > Client 43928 (5):	1 2 3 4 16 

+ Core Mapping:	43927 43928 43928 43928 43928 43927 43927 43927 0 0 0 0 0 43927 43924 43930 43928 43929 43924 43924 43924 43924 43930 43930 43930 43930 43931 43931 43931 43931 43929 43929 43929 43929 43925 43925 43925 43925 43925 43931 
+ Optimal point: 5 5 5 5 5 5 5 5 
+++++++++++++++++++++++++++++++++++++++++++++++++++++++++++
client (43923) shutdown hint: 437.984
sum_client_shutdown_hint: 875.968
++++++++++++++++++++++++++++++++++++++++++++++++
 + TIMESTAMP: 33.0912
REINVADE (43931)
  + pid: 43931
  + min_cores: 1
  + max_cores: 512
  + scalability graph: 
1, 1.36329, 1.52423, 1.62017, 1.68565, 1.73398, 1.77154, 1.80182, 1.8269, 1.84812, 1.86637, 1.88229, 1.89634, 1.90885, 1.92009, 1.93026, 1.93952, 1.94799, 1.95579, 1.963, 1.96968, 1.9759, 1.98172, 1.98716, 1.99228, 1.9971, 2.00164, 2.00594, 2.01002, 2.01389, 2.01757, 2.02108, 2.02443, 2.02763, 2.03069, 2.03362, 2.03644, 2.03914, 2.04173, 2.04423, 
Number of clients: 7

+++++++++++++++++++++++++++++++++++++++++++++++++++++++++++
+ Client Mapping:
  > Client 43931 (6):	39 26 27 28 29 8 
  > Client 43925 (5):	34 35 36 37 38 
  > Client 43924 (5):	18 19 20 21 14 
  > Client 43930 (5):	22 23 24 25 15 
  > Client 43927 (5):	0 5 6 7 13 
  > Client 43929 (5):	30 31 32 33 17 
  > Client 43928 (5):	1 2 3 4 16 

+ Core Mapping:	43927 43928 43928 43928 43928 43927 43927 43927 43931 0 0 0 0 43927 43924 43930 43928 43929 43924 43924 43924 43924 43930 43930 43930 43930 43931 43931 43931 43931 43929 43929 43929 43929 43925 43925 43925 43925 43925 43931 
+ Optimal point: 6 6 6 6 6 5 5 
+++++++++++++++++++++++++++++++++++++++++++++++++++++++++++
++++++++++++++++++++++++++++++++++++++++++++++++
 + TIMESTAMP: 33.0914
REINVADE (43925)
  + pid: 43925
  + min_cores: 1
  + max_cores: 512
  + scalability graph: 
1, 1.36329, 1.52423, 1.62017, 1.68565, 1.73398, 1.77154, 1.80182, 1.8269, 1.84812, 1.86637, 1.88229, 1.89634, 1.90885, 1.92009, 1.93026, 1.93952, 1.94799, 1.95579, 1.963, 1.96968, 1.9759, 1.98172, 1.98716, 1.99228, 1.9971, 2.00164, 2.00594, 2.01002, 2.01389, 2.01757, 2.02108, 2.02443, 2.02763, 2.03069, 2.03362, 2.03644, 2.03914, 2.04173, 2.04423, 
Number of clients: 7

+++++++++++++++++++++++++++++++++++++++++++++++++++++++++++
+ Client Mapping:
  > Client 43931 (6):	39 26 27 28 29 8 
  > Client 43925 (6):	34 35 36 37 38 9 
  > Client 43924 (5):	18 19 20 21 14 
  > Client 43930 (5):	22 23 24 25 15 
  > Client 43927 (5):	0 5 6 7 13 
  > Client 43929 (5):	30 31 32 33 17 
  > Client 43928 (5):	1 2 3 4 16 

+ Core Mapping:	43927 43928 43928 43928 43928 43927 43927 43927 43931 43925 0 0 0 43927 43924 43930 43928 43929 43924 43924 43924 43924 43930 43930 43930 43930 43931 43931 43931 43931 43929 43929 43929 43929 43925 43925 43925 43925 43925 43931 
+ Optimal point: 6 6 6 6 6 5 5 
+++++++++++++++++++++++++++++++++++++++++++++++++++++++++++
++++++++++++++++++++++++++++++++++++++++++++++++
 + TIMESTAMP: 33.0923
REINVADE (43930)
  + pid: 43930
  + min_cores: 1
  + max_cores: 512
  + scalability graph: 
1, 1.36329, 1.52423, 1.62017, 1.68565, 1.73398, 1.77154, 1.80182, 1.8269, 1.84812, 1.86637, 1.88229, 1.89634, 1.90885, 1.92009, 1.93026, 1.93952, 1.94799, 1.95579, 1.963, 1.96968, 1.9759, 1.98172, 1.98716, 1.99228, 1.9971, 2.00164, 2.00594, 2.01002, 2.01389, 2.01757, 2.02108, 2.02443, 2.02763, 2.03069, 2.03362, 2.03644, 2.03914, 2.04173, 2.04423, 
Number of clients: 7

+++++++++++++++++++++++++++++++++++++++++++++++++++++++++++
+ Client Mapping:
  > Client 43931 (6):	39 26 27 28 29 8 
  > Client 43925 (6):	34 35 36 37 38 9 
  > Client 43924 (5):	18 19 20 21 14 
  > Client 43930 (6):	22 23 24 25 15 10 
  > Client 43927 (5):	0 5 6 7 13 
  > Client 43929 (5):	30 31 32 33 17 
  > Client 43928 (5):	1 2 3 4 16 

+ Core Mapping:	43927 43928 43928 43928 43928 43927 43927 43927 43931 43925 43930 0 0 43927 43924 43930 43928 43929 43924 43924 43924 43924 43930 43930 43930 43930 43931 43931 43931 43931 43929 43929 43929 43929 43925 43925 43925 43925 43925 43931 
+ Optimal point: 6 6 6 6 6 5 5 
+++++++++++++++++++++++++++++++++++++++++++++++++++++++++++
++++++++++++++++++++++++++++++++++++++++++++++++
 + TIMESTAMP: 33.096
REINVADE (43927)
  + pid: 43927
  + min_cores: 1
  + max_cores: 512
  + scalability graph: 
1, 1.36329, 1.52423, 1.62017, 1.68565, 1.73398, 1.77154, 1.80182, 1.8269, 1.84812, 1.86637, 1.88229, 1.89634, 1.90885, 1.92009, 1.93026, 1.93952, 1.94799, 1.95579, 1.963, 1.96968, 1.9759, 1.98172, 1.98716, 1.99228, 1.9971, 2.00164, 2.00594, 2.01002, 2.01389, 2.01757, 2.02108, 2.02443, 2.02763, 2.03069, 2.03362, 2.03644, 2.03914, 2.04173, 2.04423, 
Number of clients: 7

+++++++++++++++++++++++++++++++++++++++++++++++++++++++++++
+ Client Mapping:
  > Client 43931 (6):	39 26 27 28 29 8 
  > Client 43925 (6):	34 35 36 37 38 9 
  > Client 43924 (5):	18 19 20 21 14 
  > Client 43930 (6):	22 23 24 25 15 10 
  > Client 43927 (6):	0 5 6 7 13 11 
  > Client 43929 (5):	30 31 32 33 17 
  > Client 43928 (5):	1 2 3 4 16 

+ Core Mapping:	43927 43928 43928 43928 43928 43927 43927 43927 43931 43925 43930 43927 0 43927 43924 43930 43928 43929 43924 43924 43924 43924 43930 43930 43930 43930 43931 43931 43931 43931 43929 43929 43929 43929 43925 43925 43925 43925 43925 43931 
+ Optimal point: 6 6 6 6 6 5 5 
+++++++++++++++++++++++++++++++++++++++++++++++++++++++++++
++++++++++++++++++++++++++++++++++++++++++++++++
 + TIMESTAMP: 33.0965
REINVADE (43924)
  + pid: 43924
  + min_cores: 1
  + max_cores: 512
  + scalability graph: 
1, 1.36329, 1.52423, 1.62017, 1.68565, 1.73398, 1.77154, 1.80182, 1.8269, 1.84812, 1.86637, 1.88229, 1.89634, 1.90885, 1.92009, 1.93026, 1.93952, 1.94799, 1.95579, 1.963, 1.96968, 1.9759, 1.98172, 1.98716, 1.99228, 1.9971, 2.00164, 2.00594, 2.01002, 2.01389, 2.01757, 2.02108, 2.02443, 2.02763, 2.03069, 2.03362, 2.03644, 2.03914, 2.04173, 2.04423, 
Number of clients: 7

+++++++++++++++++++++++++++++++++++++++++++++++++++++++++++
+ Client Mapping:
  > Client 43931 (6):	39 26 27 28 29 8 
  > Client 43925 (6):	34 35 36 37 38 9 
  > Client 43924 (6):	18 19 20 21 14 12 
  > Client 43930 (6):	22 23 24 25 15 10 
  > Client 43927 (6):	0 5 6 7 13 11 
  > Client 43929 (5):	30 31 32 33 17 
  > Client 43928 (5):	1 2 3 4 16 

+ Core Mapping:	43927 43928 43928 43928 43928 43927 43927 43927 43931 43925 43930 43927 43924 43927 43924 43930 43928 43929 43924 43924 43924 43924 43930 43930 43930 43930 43931 43931 43931 43931 43929 43929 43929 43929 43925 43925 43925 43925 43925 43931 
+ Optimal point: 6 6 6 6 6 5 5 
+++++++++++++++++++++++++++++++++++++++++++++++++++++++++++
CLIENT SHUTDOWN: client 43925
 + TIMESTAMP: 33.1497
+++++++++++++++++++++++++++++++++++++++++++++++++++++++++++
+ Client Mapping:
  > Client 43931 (6):	39 26 27 28 29 8 
  > Client 43925 (0):	
  > Client 43924 (6):	18 19 20 21 14 12 
  > Client 43930 (6):	22 23 24 25 15 10 
  > Client 43927 (6):	0 5 6 7 13 11 
  > Client 43929 (5):	30 31 32 33 17 
  > Client 43928 (5):	1 2 3 4 16 

+ Core Mapping:	43927 43928 43928 43928 43928 43927 43927 43927 43931 0 43930 43927 43924 43927 43924 43930 43928 43929 43924 43924 43924 43924 43930 43930 43930 43930 43931 43931 43931 43931 43929 43929 43929 43929 0 0 0 0 0 43931 
+ Optimal point: 6 6 6 6 6 5 5 
+++++++++++++++++++++++++++++++++++++++++++++++++++++++++++
client (43925) shutdown hint: 437.984
sum_client_shutdown_hint: 1313.95
++++++++++++++++++++++++++++++++++++++++++++++++
 + TIMESTAMP: 33.1501
REINVADE (43931)
  + pid: 43931
  + min_cores: 1
  + max_cores: 512
  + scalability graph: 
1, 1.36329, 1.52423, 1.62017, 1.68565, 1.73398, 1.77154, 1.80182, 1.8269, 1.84812, 1.86637, 1.88229, 1.89634, 1.90885, 1.92009, 1.93026, 1.93952, 1.94799, 1.95579, 1.963, 1.96968, 1.9759, 1.98172, 1.98716, 1.99228, 1.9971, 2.00164, 2.00594, 2.01002, 2.01389, 2.01757, 2.02108, 2.02443, 2.02763, 2.03069, 2.03362, 2.03644, 2.03914, 2.04173, 2.04423, 
Number of clients: 6

+++++++++++++++++++++++++++++++++++++++++++++++++++++++++++
+ Client Mapping:
  > Client 43931 (7):	39 26 27 28 29 8 9 
  > Client 43924 (6):	18 19 20 21 14 12 
  > Client 43930 (6):	22 23 24 25 15 10 
  > Client 43927 (6):	0 5 6 7 13 11 
  > Client 43929 (5):	30 31 32 33 17 
  > Client 43928 (5):	1 2 3 4 16 

+ Core Mapping:	43927 43928 43928 43928 43928 43927 43927 43927 43931 43931 43930 43927 43924 43927 43924 43930 43928 43929 43924 43924 43924 43924 43930 43930 43930 43930 43931 43931 43931 43931 43929 43929 43929 43929 0 0 0 0 0 43931 
+ Optimal point: 7 7 7 7 6 6 
+++++++++++++++++++++++++++++++++++++++++++++++++++++++++++
++++++++++++++++++++++++++++++++++++++++++++++++
 + TIMESTAMP: 33.1504
REINVADE (43930)
  + pid: 43930
  + min_cores: 1
  + max_cores: 512
  + scalability graph: 
1, 1.36329, 1.52423, 1.62017, 1.68565, 1.73398, 1.77154, 1.80182, 1.8269, 1.84812, 1.86637, 1.88229, 1.89634, 1.90885, 1.92009, 1.93026, 1.93952, 1.94799, 1.95579, 1.963, 1.96968, 1.9759, 1.98172, 1.98716, 1.99228, 1.9971, 2.00164, 2.00594, 2.01002, 2.01389, 2.01757, 2.02108, 2.02443, 2.02763, 2.03069, 2.03362, 2.03644, 2.03914, 2.04173, 2.04423, 
Number of clients: 6

+++++++++++++++++++++++++++++++++++++++++++++++++++++++++++
+ Client Mapping:
  > Client 43931 (7):	39 26 27 28 29 8 9 
  > Client 43924 (6):	18 19 20 21 14 12 
  > Client 43930 (7):	22 23 24 25 15 10 34 
  > Client 43927 (6):	0 5 6 7 13 11 
  > Client 43929 (5):	30 31 32 33 17 
  > Client 43928 (5):	1 2 3 4 16 

+ Core Mapping:	43927 43928 43928 43928 43928 43927 43927 43927 43931 43931 43930 43927 43924 43927 43924 43930 43928 43929 43924 43924 43924 43924 43930 43930 43930 43930 43931 43931 43931 43931 43929 43929 43929 43929 43930 0 0 0 0 43931 
+ Optimal point: 7 7 7 7 6 6 
+++++++++++++++++++++++++++++++++++++++++++++++++++++++++++
++++++++++++++++++++++++++++++++++++++++++++++++
 + TIMESTAMP: 33.1507
REINVADE (43928)
  + pid: 43928
  + min_cores: 1
  + max_cores: 512
  + scalability graph: 
1, 1.36329, 1.52423, 1.62017, 1.68565, 1.73398, 1.77154, 1.80182, 1.8269, 1.84812, 1.86637, 1.88229, 1.89634, 1.90885, 1.92009, 1.93026, 1.93952, 1.94799, 1.95579, 1.963, 1.96968, 1.9759, 1.98172, 1.98716, 1.99228, 1.9971, 2.00164, 2.00594, 2.01002, 2.01389, 2.01757, 2.02108, 2.02443, 2.02763, 2.03069, 2.03362, 2.03644, 2.03914, 2.04173, 2.04423, 
Number of clients: 6

+++++++++++++++++++++++++++++++++++++++++++++++++++++++++++
+ Client Mapping:
  > Client 43931 (7):	39 26 27 28 29 8 9 
  > Client 43924 (6):	18 19 20 21 14 12 
  > Client 43930 (7):	22 23 24 25 15 10 34 
  > Client 43927 (6):	0 5 6 7 13 11 
  > Client 43929 (5):	30 31 32 33 17 
  > Client 43928 (6):	1 2 3 4 16 35 

+ Core Mapping:	43927 43928 43928 43928 43928 43927 43927 43927 43931 43931 43930 43927 43924 43927 43924 43930 43928 43929 43924 43924 43924 43924 43930 43930 43930 43930 43931 43931 43931 43931 43929 43929 43929 43929 43930 43928 0 0 0 43931 
+ Optimal point: 7 7 7 7 6 6 
+++++++++++++++++++++++++++++++++++++++++++++++++++++++++++
++++++++++++++++++++++++++++++++++++++++++++++++
 + TIMESTAMP: 33.1517
REINVADE (43927)
  + pid: 43927
  + min_cores: 1
  + max_cores: 512
  + scalability graph: 
1, 1.36329, 1.52423, 1.62017, 1.68565, 1.73398, 1.77154, 1.80182, 1.8269, 1.84812, 1.86637, 1.88229, 1.89634, 1.90885, 1.92009, 1.93026, 1.93952, 1.94799, 1.95579, 1.963, 1.96968, 1.9759, 1.98172, 1.98716, 1.99228, 1.9971, 2.00164, 2.00594, 2.01002, 2.01389, 2.01757, 2.02108, 2.02443, 2.02763, 2.03069, 2.03362, 2.03644, 2.03914, 2.04173, 2.04423, 
Number of clients: 6

+++++++++++++++++++++++++++++++++++++++++++++++++++++++++++
+ Client Mapping:
  > Client 43931 (7):	39 26 27 28 29 8 9 
  > Client 43924 (6):	18 19 20 21 14 12 
  > Client 43930 (7):	22 23 24 25 15 10 34 
  > Client 43927 (7):	0 5 6 7 13 11 36 
  > Client 43929 (5):	30 31 32 33 17 
  > Client 43928 (6):	1 2 3 4 16 35 

+ Core Mapping:	43927 43928 43928 43928 43928 43927 43927 43927 43931 43931 43930 43927 43924 43927 43924 43930 43928 43929 43924 43924 43924 43924 43930 43930 43930 43930 43931 43931 43931 43931 43929 43929 43929 43929 43930 43928 43927 0 0 43931 
+ Optimal point: 7 7 7 7 6 6 
+++++++++++++++++++++++++++++++++++++++++++++++++++++++++++
++++++++++++++++++++++++++++++++++++++++++++++++
 + TIMESTAMP: 33.1538
REINVADE (43929)
  + pid: 43929
  + min_cores: 1
  + max_cores: 512
  + scalability graph: 
1, 1.36329, 1.52423, 1.62017, 1.68565, 1.73398, 1.77154, 1.80182, 1.8269, 1.84812, 1.86637, 1.88229, 1.89634, 1.90885, 1.92009, 1.93026, 1.93952, 1.94799, 1.95579, 1.963, 1.96968, 1.9759, 1.98172, 1.98716, 1.99228, 1.9971, 2.00164, 2.00594, 2.01002, 2.01389, 2.01757, 2.02108, 2.02443, 2.02763, 2.03069, 2.03362, 2.03644, 2.03914, 2.04173, 2.04423, 
Number of clients: 6

+++++++++++++++++++++++++++++++++++++++++++++++++++++++++++
+ Client Mapping:
  > Client 43931 (7):	39 26 27 28 29 8 9 
  > Client 43924 (6):	18 19 20 21 14 12 
  > Client 43930 (7):	22 23 24 25 15 10 34 
  > Client 43927 (7):	0 5 6 7 13 11 36 
  > Client 43929 (6):	30 31 32 33 17 37 
  > Client 43928 (6):	1 2 3 4 16 35 

+ Core Mapping:	43927 43928 43928 43928 43928 43927 43927 43927 43931 43931 43930 43927 43924 43927 43924 43930 43928 43929 43924 43924 43924 43924 43930 43930 43930 43930 43931 43931 43931 43931 43929 43929 43929 43929 43930 43928 43927 43929 0 43931 
+ Optimal point: 7 7 7 7 6 6 
+++++++++++++++++++++++++++++++++++++++++++++++++++++++++++
++++++++++++++++++++++++++++++++++++++++++++++++
 + TIMESTAMP: 33.154
REINVADE (43924)
  + pid: 43924
  + min_cores: 1
  + max_cores: 512
  + scalability graph: 
1, 1.36329, 1.52423, 1.62017, 1.68565, 1.73398, 1.77154, 1.80182, 1.8269, 1.84812, 1.86637, 1.88229, 1.89634, 1.90885, 1.92009, 1.93026, 1.93952, 1.94799, 1.95579, 1.963, 1.96968, 1.9759, 1.98172, 1.98716, 1.99228, 1.9971, 2.00164, 2.00594, 2.01002, 2.01389, 2.01757, 2.02108, 2.02443, 2.02763, 2.03069, 2.03362, 2.03644, 2.03914, 2.04173, 2.04423, 
Number of clients: 6

+++++++++++++++++++++++++++++++++++++++++++++++++++++++++++
+ Client Mapping:
  > Client 43931 (7):	39 26 27 28 29 8 9 
  > Client 43924 (7):	18 19 20 21 14 12 38 
  > Client 43930 (7):	22 23 24 25 15 10 34 
  > Client 43927 (7):	0 5 6 7 13 11 36 
  > Client 43929 (6):	30 31 32 33 17 37 
  > Client 43928 (6):	1 2 3 4 16 35 

+ Core Mapping:	43927 43928 43928 43928 43928 43927 43927 43927 43931 43931 43930 43927 43924 43927 43924 43930 43928 43929 43924 43924 43924 43924 43930 43930 43930 43930 43931 43931 43931 43931 43929 43929 43929 43929 43930 43928 43927 43929 43924 43931 
+ Optimal point: 7 7 7 7 6 6 
+++++++++++++++++++++++++++++++++++++++++++++++++++++++++++
CLIENT SHUTDOWN: client 43931
 + TIMESTAMP: 33.2587
+++++++++++++++++++++++++++++++++++++++++++++++++++++++++++
+ Client Mapping:
  > Client 43931 (0):	
  > Client 43924 (7):	18 19 20 21 14 12 38 
  > Client 43930 (7):	22 23 24 25 15 10 34 
  > Client 43927 (7):	0 5 6 7 13 11 36 
  > Client 43929 (6):	30 31 32 33 17 37 
  > Client 43928 (6):	1 2 3 4 16 35 

+ Core Mapping:	43927 43928 43928 43928 43928 43927 43927 43927 0 0 43930 43927 43924 43927 43924 43930 43928 43929 43924 43924 43924 43924 43930 43930 43930 43930 0 0 0 0 43929 43929 43929 43929 43930 43928 43927 43929 43924 0 
+ Optimal point: 7 7 7 7 6 6 
+++++++++++++++++++++++++++++++++++++++++++++++++++++++++++
client (43931) shutdown hint: 437.984
sum_client_shutdown_hint: 1751.94
++++++++++++++++++++++++++++++++++++++++++++++++
 + TIMESTAMP: 33.2594
REINVADE (43929)
  + pid: 43929
  + min_cores: 1
  + max_cores: 512
  + scalability graph: 
1, 1.36329, 1.52423, 1.62017, 1.68565, 1.73398, 1.77154, 1.80182, 1.8269, 1.84812, 1.86637, 1.88229, 1.89634, 1.90885, 1.92009, 1.93026, 1.93952, 1.94799, 1.95579, 1.963, 1.96968, 1.9759, 1.98172, 1.98716, 1.99228, 1.9971, 2.00164, 2.00594, 2.01002, 2.01389, 2.01757, 2.02108, 2.02443, 2.02763, 2.03069, 2.03362, 2.03644, 2.03914, 2.04173, 2.04423, 
Number of clients: 5

+++++++++++++++++++++++++++++++++++++++++++++++++++++++++++
+ Client Mapping:
  > Client 43924 (7):	18 19 20 21 14 12 38 
  > Client 43930 (7):	22 23 24 25 15 10 34 
  > Client 43927 (7):	0 5 6 7 13 11 36 
  > Client 43929 (8):	30 31 32 33 17 37 8 9 
  > Client 43928 (6):	1 2 3 4 16 35 

+ Core Mapping:	43927 43928 43928 43928 43928 43927 43927 43927 43929 43929 43930 43927 43924 43927 43924 43930 43928 43929 43924 43924 43924 43924 43930 43930 43930 43930 0 0 0 0 43929 43929 43929 43929 43930 43928 43927 43929 43924 0 
+ Optimal point: 8 8 8 8 8 
+++++++++++++++++++++++++++++++++++++++++++++++++++++++++++
++++++++++++++++++++++++++++++++++++++++++++++++
 + TIMESTAMP: 33.2599
REINVADE (43930)
  + pid: 43930
  + min_cores: 1
  + max_cores: 512
  + scalability graph: 
1, 1.36329, 1.52423, 1.62017, 1.68565, 1.73398, 1.77154, 1.80182, 1.8269, 1.84812, 1.86637, 1.88229, 1.89634, 1.90885, 1.92009, 1.93026, 1.93952, 1.94799, 1.95579, 1.963, 1.96968, 1.9759, 1.98172, 1.98716, 1.99228, 1.9971, 2.00164, 2.00594, 2.01002, 2.01389, 2.01757, 2.02108, 2.02443, 2.02763, 2.03069, 2.03362, 2.03644, 2.03914, 2.04173, 2.04423, 
Number of clients: 5

+++++++++++++++++++++++++++++++++++++++++++++++++++++++++++
+ Client Mapping:
  > Client 43924 (7):	18 19 20 21 14 12 38 
  > Client 43930 (8):	22 23 24 25 15 10 34 26 
  > Client 43927 (7):	0 5 6 7 13 11 36 
  > Client 43929 (8):	30 31 32 33 17 37 8 9 
  > Client 43928 (6):	1 2 3 4 16 35 

+ Core Mapping:	43927 43928 43928 43928 43928 43927 43927 43927 43929 43929 43930 43927 43924 43927 43924 43930 43928 43929 43924 43924 43924 43924 43930 43930 43930 43930 43930 0 0 0 43929 43929 43929 43929 43930 43928 43927 43929 43924 0 
+ Optimal point: 8 8 8 8 8 
+++++++++++++++++++++++++++++++++++++++++++++++++++++++++++
++++++++++++++++++++++++++++++++++++++++++++++++
 + TIMESTAMP: 33.2611
REINVADE (43927)
  + pid: 43927
  + min_cores: 1
  + max_cores: 512
  + scalability graph: 
1, 1.36329, 1.52423, 1.62017, 1.68565, 1.73398, 1.77154, 1.80182, 1.8269, 1.84812, 1.86637, 1.88229, 1.89634, 1.90885, 1.92009, 1.93026, 1.93952, 1.94799, 1.95579, 1.963, 1.96968, 1.9759, 1.98172, 1.98716, 1.99228, 1.9971, 2.00164, 2.00594, 2.01002, 2.01389, 2.01757, 2.02108, 2.02443, 2.02763, 2.03069, 2.03362, 2.03644, 2.03914, 2.04173, 2.04423, 
Number of clients: 5

+++++++++++++++++++++++++++++++++++++++++++++++++++++++++++
+ Client Mapping:
  > Client 43924 (7):	18 19 20 21 14 12 38 
  > Client 43930 (8):	22 23 24 25 15 10 34 26 
  > Client 43927 (8):	0 5 6 7 13 11 36 27 
  > Client 43929 (8):	30 31 32 33 17 37 8 9 
  > Client 43928 (6):	1 2 3 4 16 35 

+ Core Mapping:	43927 43928 43928 43928 43928 43927 43927 43927 43929 43929 43930 43927 43924 43927 43924 43930 43928 43929 43924 43924 43924 43924 43930 43930 43930 43930 43930 43927 0 0 43929 43929 43929 43929 43930 43928 43927 43929 43924 0 
+ Optimal point: 8 8 8 8 8 
+++++++++++++++++++++++++++++++++++++++++++++++++++++++++++
++++++++++++++++++++++++++++++++++++++++++++++++
 + TIMESTAMP: 33.2612
REINVADE (43924)
  + pid: 43924
  + min_cores: 1
  + max_cores: 512
  + scalability graph: 
1, 1.36329, 1.52423, 1.62017, 1.68565, 1.73398, 1.77154, 1.80182, 1.8269, 1.84812, 1.86637, 1.88229, 1.89634, 1.90885, 1.92009, 1.93026, 1.93952, 1.94799, 1.95579, 1.963, 1.96968, 1.9759, 1.98172, 1.98716, 1.99228, 1.9971, 2.00164, 2.00594, 2.01002, 2.01389, 2.01757, 2.02108, 2.02443, 2.02763, 2.03069, 2.03362, 2.03644, 2.03914, 2.04173, 2.04423, 
Number of clients: 5

+++++++++++++++++++++++++++++++++++++++++++++++++++++++++++
+ Client Mapping:
  > Client 43924 (8):	18 19 20 21 14 12 38 28 
  > Client 43930 (8):	22 23 24 25 15 10 34 26 
  > Client 43927 (8):	0 5 6 7 13 11 36 27 
  > Client 43929 (8):	30 31 32 33 17 37 8 9 
  > Client 43928 (6):	1 2 3 4 16 35 

+ Core Mapping:	43927 43928 43928 43928 43928 43927 43927 43927 43929 43929 43930 43927 43924 43927 43924 43930 43928 43929 43924 43924 43924 43924 43930 43930 43930 43930 43930 43927 43924 0 43929 43929 43929 43929 43930 43928 43927 43929 43924 0 
+ Optimal point: 8 8 8 8 8 
+++++++++++++++++++++++++++++++++++++++++++++++++++++++++++
++++++++++++++++++++++++++++++++++++++++++++++++
 + TIMESTAMP: 33.2617
REINVADE (43928)
  + pid: 43928
  + min_cores: 1
  + max_cores: 512
  + scalability graph: 
1, 1.36329, 1.52423, 1.62017, 1.68565, 1.73398, 1.77154, 1.80182, 1.8269, 1.84812, 1.86637, 1.88229, 1.89634, 1.90885, 1.92009, 1.93026, 1.93952, 1.94799, 1.95579, 1.963, 1.96968, 1.9759, 1.98172, 1.98716, 1.99228, 1.9971, 2.00164, 2.00594, 2.01002, 2.01389, 2.01757, 2.02108, 2.02443, 2.02763, 2.03069, 2.03362, 2.03644, 2.03914, 2.04173, 2.04423, 
Number of clients: 5

+++++++++++++++++++++++++++++++++++++++++++++++++++++++++++
+ Client Mapping:
  > Client 43924 (8):	18 19 20 21 14 12 38 28 
  > Client 43930 (8):	22 23 24 25 15 10 34 26 
  > Client 43927 (8):	0 5 6 7 13 11 36 27 
  > Client 43929 (8):	30 31 32 33 17 37 8 9 
  > Client 43928 (8):	1 2 3 4 16 35 29 39 

+ Core Mapping:	43927 43928 43928 43928 43928 43927 43927 43927 43929 43929 43930 43927 43924 43927 43924 43930 43928 43929 43924 43924 43924 43924 43930 43930 43930 43930 43930 43927 43924 43928 43929 43929 43929 43929 43930 43928 43927 43929 43924 43928 
+ Optimal point: 8 8 8 8 8 
+++++++++++++++++++++++++++++++++++++++++++++++++++++++++++
CLIENT SHUTDOWN: client 43924
 + TIMESTAMP: 37.0836
+++++++++++++++++++++++++++++++++++++++++++++++++++++++++++
+ Client Mapping:
  > Client 43924 (0):	
  > Client 43930 (8):	22 23 24 25 15 10 34 26 
  > Client 43927 (8):	0 5 6 7 13 11 36 27 
  > Client 43929 (8):	30 31 32 33 17 37 8 9 
  > Client 43928 (8):	1 2 3 4 16 35 29 39 

+ Core Mapping:	43927 43928 43928 43928 43928 43927 43927 43927 43929 43929 43930 43927 0 43927 0 43930 43928 43929 0 0 0 0 43930 43930 43930 43930 43930 43927 0 43928 43929 43929 43929 43929 43930 43928 43927 43929 0 43928 
+ Optimal point: 8 8 8 8 8 
+++++++++++++++++++++++++++++++++++++++++++++++++++++++++++
client (43924) shutdown hint: 437.984
sum_client_shutdown_hint: 2189.92
++++++++++++++++++++++++++++++++++++++++++++++++
 + TIMESTAMP: 37.0838
REINVADE (43929)
  + pid: 43929
  + min_cores: 1
  + max_cores: 512
  + scalability graph: 
1, 1.36329, 1.52423, 1.62017, 1.68565, 1.73398, 1.77154, 1.80182, 1.8269, 1.84812, 1.86637, 1.88229, 1.89634, 1.90885, 1.92009, 1.93026, 1.93952, 1.94799, 1.95579, 1.963, 1.96968, 1.9759, 1.98172, 1.98716, 1.99228, 1.9971, 2.00164, 2.00594, 2.01002, 2.01389, 2.01757, 2.02108, 2.02443, 2.02763, 2.03069, 2.03362, 2.03644, 2.03914, 2.04173, 2.04423, 
Number of clients: 4

+++++++++++++++++++++++++++++++++++++++++++++++++++++++++++
+ Client Mapping:
  > Client 43930 (8):	22 23 24 25 15 10 34 26 
  > Client 43927 (8):	0 5 6 7 13 11 36 27 
  > Client 43929 (10):	30 31 32 33 17 37 8 9 12 14 
  > Client 43928 (8):	1 2 3 4 16 35 29 39 

+ Core Mapping:	43927 43928 43928 43928 43928 43927 43927 43927 43929 43929 43930 43927 43929 43927 43929 43930 43928 43929 0 0 0 0 43930 43930 43930 43930 43930 43927 0 43928 43929 43929 43929 43929 43930 43928 43927 43929 0 43928 
+ Optimal point: 10 10 10 10 
+++++++++++++++++++++++++++++++++++++++++++++++++++++++++++
++++++++++++++++++++++++++++++++++++++++++++++++
 + TIMESTAMP: 37.084
REINVADE (43930)
  + pid: 43930
  + min_cores: 1
  + max_cores: 512
  + scalability graph: 
1, 1.36329, 1.52423, 1.62017, 1.68565, 1.73398, 1.77154, 1.80182, 1.8269, 1.84812, 1.86637, 1.88229, 1.89634, 1.90885, 1.92009, 1.93026, 1.93952, 1.94799, 1.95579, 1.963, 1.96968, 1.9759, 1.98172, 1.98716, 1.99228, 1.9971, 2.00164, 2.00594, 2.01002, 2.01389, 2.01757, 2.02108, 2.02443, 2.02763, 2.03069, 2.03362, 2.03644, 2.03914, 2.04173, 2.04423, 
Number of clients: 4

+++++++++++++++++++++++++++++++++++++++++++++++++++++++++++
+ Client Mapping:
  > Client 43930 (10):	22 23 24 25 15 10 34 26 18 19 
  > Client 43927 (8):	0 5 6 7 13 11 36 27 
  > Client 43929 (10):	30 31 32 33 17 37 8 9 12 14 
  > Client 43928 (8):	1 2 3 4 16 35 29 39 

+ Core Mapping:	43927 43928 43928 43928 43928 43927 43927 43927 43929 43929 43930 43927 43929 43927 43929 43930 43928 43929 43930 43930 0 0 43930 43930 43930 43930 43930 43927 0 43928 43929 43929 43929 43929 43930 43928 43927 43929 0 43928 
+ Optimal point: 10 10 10 10 
+++++++++++++++++++++++++++++++++++++++++++++++++++++++++++
++++++++++++++++++++++++++++++++++++++++++++++++
 + TIMESTAMP: 37.0841
REINVADE (43928)
  + pid: 43928
  + min_cores: 1
  + max_cores: 512
  + scalability graph: 
1, 1.36329, 1.52423, 1.62017, 1.68565, 1.73398, 1.77154, 1.80182, 1.8269, 1.84812, 1.86637, 1.88229, 1.89634, 1.90885, 1.92009, 1.93026, 1.93952, 1.94799, 1.95579, 1.963, 1.96968, 1.9759, 1.98172, 1.98716, 1.99228, 1.9971, 2.00164, 2.00594, 2.01002, 2.01389, 2.01757, 2.02108, 2.02443, 2.02763, 2.03069, 2.03362, 2.03644, 2.03914, 2.04173, 2.04423, 
Number of clients: 4

+++++++++++++++++++++++++++++++++++++++++++++++++++++++++++
+ Client Mapping:
  > Client 43930 (10):	22 23 24 25 15 10 34 26 18 19 
  > Client 43927 (8):	0 5 6 7 13 11 36 27 
  > Client 43929 (10):	30 31 32 33 17 37 8 9 12 14 
  > Client 43928 (10):	1 2 3 4 16 35 29 39 20 21 

+ Core Mapping:	43927 43928 43928 43928 43928 43927 43927 43927 43929 43929 43930 43927 43929 43927 43929 43930 43928 43929 43930 43930 43928 43928 43930 43930 43930 43930 43930 43927 0 43928 43929 43929 43929 43929 43930 43928 43927 43929 0 43928 
+ Optimal point: 10 10 10 10 
+++++++++++++++++++++++++++++++++++++++++++++++++++++++++++
++++++++++++++++++++++++++++++++++++++++++++++++
 + TIMESTAMP: 37.0842
REINVADE (43927)
  + pid: 43927
  + min_cores: 1
  + max_cores: 512
  + scalability graph: 
1, 1.36329, 1.52423, 1.62017, 1.68565, 1.73398, 1.77154, 1.80182, 1.8269, 1.84812, 1.86637, 1.88229, 1.89634, 1.90885, 1.92009, 1.93026, 1.93952, 1.94799, 1.95579, 1.963, 1.96968, 1.9759, 1.98172, 1.98716, 1.99228, 1.9971, 2.00164, 2.00594, 2.01002, 2.01389, 2.01757, 2.02108, 2.02443, 2.02763, 2.03069, 2.03362, 2.03644, 2.03914, 2.04173, 2.04423, 
Number of clients: 4

+++++++++++++++++++++++++++++++++++++++++++++++++++++++++++
+ Client Mapping:
  > Client 43930 (10):	22 23 24 25 15 10 34 26 18 19 
  > Client 43927 (10):	0 5 6 7 13 11 36 27 28 38 
  > Client 43929 (10):	30 31 32 33 17 37 8 9 12 14 
  > Client 43928 (10):	1 2 3 4 16 35 29 39 20 21 

+ Core Mapping:	43927 43928 43928 43928 43928 43927 43927 43927 43929 43929 43930 43927 43929 43927 43929 43930 43928 43929 43930 43930 43928 43928 43930 43930 43930 43930 43930 43927 43927 43928 43929 43929 43929 43929 43930 43928 43927 43929 43927 43928 
+ Optimal point: 10 10 10 10 
+++++++++++++++++++++++++++++++++++++++++++++++++++++++++++
CLIENT SHUTDOWN: client 43930
 + TIMESTAMP: 37.164
+++++++++++++++++++++++++++++++++++++++++++++++++++++++++++
+ Client Mapping:
  > Client 43930 (0):	
  > Client 43927 (10):	0 5 6 7 13 11 36 27 28 38 
  > Client 43929 (10):	30 31 32 33 17 37 8 9 12 14 
  > Client 43928 (10):	1 2 3 4 16 35 29 39 20 21 

+ Core Mapping:	43927 43928 43928 43928 43928 43927 43927 43927 43929 43929 0 43927 43929 43927 43929 0 43928 43929 0 0 43928 43928 0 0 0 0 0 43927 43927 43928 43929 43929 43929 43929 0 43928 43927 43929 43927 43928 
+ Optimal point: 10 10 10 10 
+++++++++++++++++++++++++++++++++++++++++++++++++++++++++++
client (43930) shutdown hint: 437.984
sum_client_shutdown_hint: 2627.9
++++++++++++++++++++++++++++++++++++++++++++++++
 + TIMESTAMP: 37.1644
REINVADE (43927)
  + pid: 43927
  + min_cores: 1
  + max_cores: 512
  + scalability graph: 
1, 1.36329, 1.52423, 1.62017, 1.68565, 1.73398, 1.77154, 1.80182, 1.8269, 1.84812, 1.86637, 1.88229, 1.89634, 1.90885, 1.92009, 1.93026, 1.93952, 1.94799, 1.95579, 1.963, 1.96968, 1.9759, 1.98172, 1.98716, 1.99228, 1.9971, 2.00164, 2.00594, 2.01002, 2.01389, 2.01757, 2.02108, 2.02443, 2.02763, 2.03069, 2.03362, 2.03644, 2.03914, 2.04173, 2.04423, 
Number of clients: 3

+++++++++++++++++++++++++++++++++++++++++++++++++++++++++++
+ Client Mapping:
  > Client 43927 (14):	0 5 6 7 13 11 36 27 28 38 10 15 18 19 
  > Client 43929 (10):	30 31 32 33 17 37 8 9 12 14 
  > Client 43928 (10):	1 2 3 4 16 35 29 39 20 21 

+ Core Mapping:	43927 43928 43928 43928 43928 43927 43927 43927 43929 43929 43927 43927 43929 43927 43929 43927 43928 43929 43927 43927 43928 43928 0 0 0 0 0 43927 43927 43928 43929 43929 43929 43929 0 43928 43927 43929 43927 43928 
+ Optimal point: 14 13 13 
+++++++++++++++++++++++++++++++++++++++++++++++++++++++++++
++++++++++++++++++++++++++++++++++++++++++++++++
 + TIMESTAMP: 37.1645
REINVADE (43928)
  + pid: 43928
  + min_cores: 1
  + max_cores: 512
  + scalability graph: 
1, 1.36329, 1.52423, 1.62017, 1.68565, 1.73398, 1.77154, 1.80182, 1.8269, 1.84812, 1.86637, 1.88229, 1.89634, 1.90885, 1.92009, 1.93026, 1.93952, 1.94799, 1.95579, 1.963, 1.96968, 1.9759, 1.98172, 1.98716, 1.99228, 1.9971, 2.00164, 2.00594, 2.01002, 2.01389, 2.01757, 2.02108, 2.02443, 2.02763, 2.03069, 2.03362, 2.03644, 2.03914, 2.04173, 2.04423, 
Number of clients: 3

+++++++++++++++++++++++++++++++++++++++++++++++++++++++++++
+ Client Mapping:
  > Client 43927 (14):	0 5 6 7 13 11 36 27 28 38 10 15 18 19 
  > Client 43929 (10):	30 31 32 33 17 37 8 9 12 14 
  > Client 43928 (13):	1 2 3 4 16 35 29 39 20 21 22 23 24 

+ Core Mapping:	43927 43928 43928 43928 43928 43927 43927 43927 43929 43929 43927 43927 43929 43927 43929 43927 43928 43929 43927 43927 43928 43928 43928 43928 43928 0 0 43927 43927 43928 43929 43929 43929 43929 0 43928 43927 43929 43927 43928 
+ Optimal point: 14 13 13 
+++++++++++++++++++++++++++++++++++++++++++++++++++++++++++
++++++++++++++++++++++++++++++++++++++++++++++++
 + TIMESTAMP: 37.1647
REINVADE (43929)
  + pid: 43929
  + min_cores: 1
  + max_cores: 512
  + scalability graph: 
1, 1.36329, 1.52423, 1.62017, 1.68565, 1.73398, 1.77154, 1.80182, 1.8269, 1.84812, 1.86637, 1.88229, 1.89634, 1.90885, 1.92009, 1.93026, 1.93952, 1.94799, 1.95579, 1.963, 1.96968, 1.9759, 1.98172, 1.98716, 1.99228, 1.9971, 2.00164, 2.00594, 2.01002, 2.01389, 2.01757, 2.02108, 2.02443, 2.02763, 2.03069, 2.03362, 2.03644, 2.03914, 2.04173, 2.04423, 
Number of clients: 3

+++++++++++++++++++++++++++++++++++++++++++++++++++++++++++
+ Client Mapping:
  > Client 43927 (14):	0 5 6 7 13 11 36 27 28 38 10 15 18 19 
  > Client 43929 (13):	30 31 32 33 17 37 8 9 12 14 25 26 34 
  > Client 43928 (13):	1 2 3 4 16 35 29 39 20 21 22 23 24 

+ Core Mapping:	43927 43928 43928 43928 43928 43927 43927 43927 43929 43929 43927 43927 43929 43927 43929 43927 43928 43929 43927 43927 43928 43928 43928 43928 43928 43929 43929 43927 43927 43928 43929 43929 43929 43929 43929 43928 43927 43929 43927 43928 
+ Optimal point: 14 13 13 
+++++++++++++++++++++++++++++++++++++++++++++++++++++++++++
CLIENT SHUTDOWN: client 43929
 + TIMESTAMP: 37.2441
+++++++++++++++++++++++++++++++++++++++++++++++++++++++++++
+ Client Mapping:
  > Client 43927 (14):	0 5 6 7 13 11 36 27 28 38 10 15 18 19 
  > Client 43929 (0):	
  > Client 43928 (13):	1 2 3 4 16 35 29 39 20 21 22 23 24 

+ Core Mapping:	43927 43928 43928 43928 43928 43927 43927 43927 0 0 43927 43927 0 43927 0 43927 43928 0 43927 43927 43928 43928 43928 43928 43928 0 0 43927 43927 43928 0 0 0 0 0 43928 43927 0 43927 43928 
+ Optimal point: 14 13 13 
+++++++++++++++++++++++++++++++++++++++++++++++++++++++++++
client (43929) shutdown hint: 437.984
sum_client_shutdown_hint: 3065.89
++++++++++++++++++++++++++++++++++++++++++++++++
 + TIMESTAMP: 37.2442
REINVADE (43928)
  + pid: 43928
  + min_cores: 1
  + max_cores: 512
  + scalability graph: 
1, 1.36329, 1.52423, 1.62017, 1.68565, 1.73398, 1.77154, 1.80182, 1.8269, 1.84812, 1.86637, 1.88229, 1.89634, 1.90885, 1.92009, 1.93026, 1.93952, 1.94799, 1.95579, 1.963, 1.96968, 1.9759, 1.98172, 1.98716, 1.99228, 1.9971, 2.00164, 2.00594, 2.01002, 2.01389, 2.01757, 2.02108, 2.02443, 2.02763, 2.03069, 2.03362, 2.03644, 2.03914, 2.04173, 2.04423, 
Number of clients: 2

+++++++++++++++++++++++++++++++++++++++++++++++++++++++++++
+ Client Mapping:
  > Client 43927 (14):	0 5 6 7 13 11 36 27 28 38 10 15 18 19 
  > Client 43928 (20):	1 2 3 4 16 35 29 39 20 21 22 23 24 8 9 12 14 17 25 26 

+ Core Mapping:	43927 43928 43928 43928 43928 43927 43927 43927 43928 43928 43927 43927 43928 43927 43928 43927 43928 43928 43927 43927 43928 43928 43928 43928 43928 43928 43928 43927 43927 43928 0 0 0 0 0 43928 43927 0 43927 43928 
+ Optimal point: 20 20 
+++++++++++++++++++++++++++++++++++++++++++++++++++++++++++
++++++++++++++++++++++++++++++++++++++++++++++++
 + TIMESTAMP: 37.2447
REINVADE (43927)
  + pid: 43927
  + min_cores: 1
  + max_cores: 512
  + scalability graph: 
1, 1.36329, 1.52423, 1.62017, 1.68565, 1.73398, 1.77154, 1.80182, 1.8269, 1.84812, 1.86637, 1.88229, 1.89634, 1.90885, 1.92009, 1.93026, 1.93952, 1.94799, 1.95579, 1.963, 1.96968, 1.9759, 1.98172, 1.98716, 1.99228, 1.9971, 2.00164, 2.00594, 2.01002, 2.01389, 2.01757, 2.02108, 2.02443, 2.02763, 2.03069, 2.03362, 2.03644, 2.03914, 2.04173, 2.04423, 
Number of clients: 2

+++++++++++++++++++++++++++++++++++++++++++++++++++++++++++
+ Client Mapping:
  > Client 43927 (20):	0 5 6 7 13 11 36 27 28 38 10 15 18 19 30 31 32 33 34 37 
  > Client 43928 (20):	1 2 3 4 16 35 29 39 20 21 22 23 24 8 9 12 14 17 25 26 

+ Core Mapping:	43927 43928 43928 43928 43928 43927 43927 43927 43928 43928 43927 43927 43928 43927 43928 43927 43928 43928 43927 43927 43928 43928 43928 43928 43928 43928 43928 43927 43927 43928 43927 43927 43927 43927 43927 43928 43927 43927 43927 43928 
+ Optimal point: 20 20 
+++++++++++++++++++++++++++++++++++++++++++++++++++++++++++
CLIENT SHUTDOWN: client 43928
 + TIMESTAMP: 37.3194
+++++++++++++++++++++++++++++++++++++++++++++++++++++++++++
+ Client Mapping:
  > Client 43927 (20):	0 5 6 7 13 11 36 27 28 38 10 15 18 19 30 31 32 33 34 37 
  > Client 43928 (0):	

+ Core Mapping:	43927 0 0 0 0 43927 43927 43927 0 0 43927 43927 0 43927 0 43927 0 0 43927 43927 0 0 0 0 0 0 0 43927 43927 0 43927 43927 43927 43927 43927 0 43927 43927 43927 0 
+ Optimal point: 20 20 
+++++++++++++++++++++++++++++++++++++++++++++++++++++++++++
client (43928) shutdown hint: 437.984
sum_client_shutdown_hint: 3503.87
++++++++++++++++++++++++++++++++++++++++++++++++
 + TIMESTAMP: 37.3202
REINVADE (43927)
  + pid: 43927
  + min_cores: 1
  + max_cores: 512
  + scalability graph: 
1, 1.36329, 1.52423, 1.62017, 1.68565, 1.73398, 1.77154, 1.80182, 1.8269, 1.84812, 1.86637, 1.88229, 1.89634, 1.90885, 1.92009, 1.93026, 1.93952, 1.94799, 1.95579, 1.963, 1.96968, 1.9759, 1.98172, 1.98716, 1.99228, 1.9971, 2.00164, 2.00594, 2.01002, 2.01389, 2.01757, 2.02108, 2.02443, 2.02763, 2.03069, 2.03362, 2.03644, 2.03914, 2.04173, 2.04423, 
Number of clients: 1

+++++++++++++++++++++++++++++++++++++++++++++++++++++++++++
+ Client Mapping:
  > Client 43927 (40):	0 5 6 7 13 11 36 27 28 38 10 15 18 19 30 31 32 33 34 37 1 2 3 4 8 9 12 14 16 17 20 21 22 23 24 25 26 29 35 39 

+ Core Mapping:	43927 43927 43927 43927 43927 43927 43927 43927 43927 43927 43927 43927 43927 43927 43927 43927 43927 43927 43927 43927 43927 43927 43927 43927 43927 43927 43927 43927 43927 43927 43927 43927 43927 43927 43927 43927 43927 43927 43927 43927 
+ Optimal point: 40 
+++++++++++++++++++++++++++++++++++++++++++++++++++++++++++
CLIENT SHUTDOWN: client 43927
 + TIMESTAMP: 38.0979
+++++++++++++++++++++++++++++++++++++++++++++++++++++++++++
+ Client Mapping:
  > Client 43927 (0):	

+ Core Mapping:	0 0 0 0 0 0 0 0 0 0 0 0 0 0 0 0 0 0 0 0 0 0 0 0 0 0 0 0 0 0 0 0 0 0 0 0 0 0 0 0 
+ Optimal point: 40 
+++++++++++++++++++++++++++++++++++++++++++++++++++++++++++
client (43927) shutdown hint: 437.984
sum_client_shutdown_hint: 3941.86
END TIMESTAMP: 38.098
OVERALL TIME: 37.9015
 + sum_client_shutdown_hint: 3941.86
 + sum_client_shutdown_hint/time: 104.003
sum_client_shutdown_hint: 3941.86
