0	0
22.1618	0
44.3236	0
66.4854	0
88.6472	0
110.809	0
132.971	0
155.133	0
177.294	0
199.456	0
221.618	0
243.78	0
265.942	0
288.103	0
310.265	0
332.427	0
354.589	0
376.751	2.72848e-12
398.912	1.54614e-11
421.074	8.00355e-11
443.236	3.66526e-10
465.398	1.47793e-09
487.56	5.32782e-09
509.721	1.7395e-08
531.883	5.20449e-08
554.045	1.44045e-07
576.207	3.71719e-07
598.369	9.00399e-07
620.53	2.05912e-06
641.297	4.28057e-06
654.751	6.80498e-06
661.328	8.50362e-06
662.069	8.71781e-06
663.234	9.06415e-06
664.322	9.39828e-06
665.385	9.73516e-06
665.624	9.81234e-06
666.12	9.9744e-06
666.621	1.01407e-05
667.126	1.03104e-05
667.633	1.04836e-05
668.127	1.06546e-05
668.193	1.06775e-05
668.725	1.08652e-05
669.459	1.11283e-05
670.187	1.13952e-05
670.943	1.16784e-05
671.223	1.17847e-05
671.235	1.17894e-05
671.25	1.17952e-05
671.263	1.17999e-05
671.275	1.18046e-05
671.287	1.18092e-05
671.299	1.18139e-05
671.311	1.18186e-05
671.324	1.18233e-05
671.336	1.18279e-05
671.348	1.18326e-05
671.36	1.18373e-05
671.373	1.1842e-05
671.385	1.18467e-05
671.397	1.18514e-05
671.409	1.18561e-05
671.422	1.18608e-05
671.434	1.18655e-05
671.446	1.18703e-05
671.459	1.1875e-05
671.471	1.18797e-05
680.056	1.5622e-05
690.116	2.13274e-05
700.138	2.88053e-05
710.114	3.85066e-05
720	5.09182e-05
730.001	-5231.32
740.014	-5302.08
750.01	-5321.55
760.015	-5340.19
770.009	-5348.49
780.025	-5356.98
790.068	-5363.65
800.012	-5366.28
810.11	-5364.36
820.147	-5361.9
830.133	-5357.12
840.077	-5337.53
850.093	-5257.02
860.212	-4930.26
870.028	-4045.99
880.339	-2869.07
890.291	-2187.99
900.475	-1847.44
910.075	-1778.58
920.522	-1856.34
930.227	-2008.3
940.586	-2204.93
950.345	-2385.34
960.004	-2539.85
970.243	-2673.65
980.271	-2780.42
990.831	-2877.2
1000.01	-2956.46
1010.49	-3052.44
1020.37	-3153.97
1030.61	-3269.53
1040.14	-3384.46
1051.08	-3517.6
1060.12	-3631.94
1070.6	-3763.76
1080.19	-3879.52
1090.07	-3990.88
1100.23	-4095.89
1110.69	-4193.65
1120.09	-4273.34
1131.13	-4358.36
1141.06	-4428.15
1151.26	-4494.18
1160.22	-4548.06
1170.95	-4607.95
1180.39	-4656.82
1190.02	-4703.11
1201.47	-4753.66
1211.47	-4793.63
1221.66	-4830.62
1230.29	-4859.43
1240.82	-4892
1251.55	-4922.85
1260.64	-4947.06
1271.74	-4973.99
1281.15	-4994.41
1290.7	-5012.62
1300.41	-5027.86
1310.27	-5038.97
1320.29	-5044.51
1330.46	-5042.95
1340.8	-5032.95
1351.31	-5013.74
1361.98	-4986.07
1370.64	-4961.54
1381.63	-4924.56
1390.54	-4892.24
1401.85	-4851.36
1411.02	-4820.24
1420.32	-4791.8
1432.1	-4760.99
1441.67	-4741.59
1451.37	-4727.76
1461.19	-4719.87
1471.14	-4717.95
1481.22	-4721.79
1491.43	-4730.97
1501.78	-4744.98
1512.26	-4763.25
1520.22	-4779.4
1530.95	-4803.73
1541.82	-4830.77
1550.07	-4852.55
1561.2	-4883.24
1572.47	-4915.51
1581.03	-4940.56
1592.57	-4974.92
1601.33	-5001.32
1610.18	-5028.21
1622.11	-5064.77
1631.17	-5092.72
1640.31	-5121.1
1652.66	-5159.65
1662.02	-5189.07
1671.48	-5218.93
1681.04	-5249.2
1690.69	-5279.81
1700.45	-5310.7
1710.3	-5341.74
1720.65	-5374.05
1730.71	-5404.91
1740.87	-5435.35
1751.13	-5465.13
1761.5	-5493.97
1771.98	-5521.58
1780.01	-5541.57
1790.78	-5566.6
1801.42	-5589.19
1810.9	-5607.43
1820.12	-5623.45
1830.15	-5638.96
1840.03	-5652.35
1850	-5664.06
1860	-5674.11
1870.01	-5682.64
1880.05	-5689.82
1890.04	-5695.75
1900.06	-5700.67
1910.1	-5704.7
1920.19	-5708.01
1930.27	-5710.69
1940.38	-5712.87
1950.35	-5714.61
1960.26	-5716.02
1970.13	-5717.15
1980.5	-5718.12
1990.6	-5718.89
2000.49	-5719.51
2010.09	-5720
2020.14	-5720.44
2030.65	-5720.82
2040.11	-5721.11
2050.13	-5721.37
2060.88	-5721.62
2070.5	-5721.81
2080.78	-5721.99
2090.54	-5722.14
2100.78	-5722.29
2110.29	-5722.41
2120.2	-5722.54
2130.51	-5722.66
2141.23	-5722.77
2150.95	-5722.87
2161.01	-5722.97
2171.41	-5723.07
2180.6	-5723.16
2191.57	-5723.26
2201.16	-5723.34
2210.9	-5723.42
2220.77	-5723.51
2230.77	-5723.59
2240.9	-5723.67
2251.2	-5723.76
2261.69	-5723.84
2270.59	-5723.91
2281.51	-5724
2290.84	-5724.07
2300.38	-5724.14
2310.16	-5724.22
2320.3	-5724.29
2330.73	-5724.37
2341.46	-5724.45
2350.25	-5724.51
2361.51	-5724.59
2370.73	-5724.66
2380.16	-5724.73
2392.24	-5724.81
2402.15	-5724.88
2412.29	-5724.95
2420.04	-5725
2430.59	-5725.07
2441.37	-5725.15
2452.5	-5725.22
2461.08	-5725.28
2472.78	-5725.35
2481.75	-5725.41
2490.88	-5725.47
2500.17	-5725.53
2512.82	-5725.61
2522.51	-5725.67
2532.37	-5725.73
2542.42	-5725.79
2552.64	-5725.85
2563.04	-5725.91
2570.06	-5725.95
2580.73	-5726.02
2591.56	-5726.08
2602.56	-5726.14
2613.35	-5726.2
2620.89	-5726.24
2632.35	-5726.31
2640.09	-5726.35
2651.85	-5726.42
2660.05	-5726.46
2670.12	-5726.51
2680.28	-5726.57
2690.52	-5726.62
2700.61	-5726.67
2710.34	-5726.72
2721.7	-5726.78
2730.27	-5726.82
2741.58	-5726.88
2751.12	-5726.93
2761.23	-5726.98
2772.01	-5727.03
2780.54	-5727.07
2792.83	-5727.13
2802.32	-5727.17
2810.97	-5727.21
2820.98	-5727.26
2831.33	-5727.3
2842.14	-5727.35
2852.99	-5727.4
2860.6	-5727.43
2871.48	-5727.48
2883.13	-5727.53
2891.11	-5727.56
2903.48	-5727.62
2911.75	-5727.65
2920.62	-5727.69
2930	-5727.73
2940.17	-5727.77
2950.07	-5727.81
2960.09	-5727.85
2970.24	-5727.89
2980.34	-5727.93
2990.68	-5727.97
3000.17	-5728.01
3010.51	-5728.05
3021.32	-5728.09
3031.77	-5728.13
3041.13	-5728.17
3050.94	-5728.2
3061.15	-5728.24
3071.09	-5728.28
3082.1	-5728.32
3091.26	-5728.35
3100.81	-5728.39
3110.79	-5728.42
3121.27	-5728.46
3132.31	-5728.5
3140.96	-5728.53
3150.57	-5728.57
3160.6	-5728.6
3171.04	-5728.64
3181.87	-5728.68
3193.07	-5728.72
3200.74	-5728.75
3212.51	-5728.79
3221.73	-5728.83
3230.1	-5728.86
3243.2	-5728.9
3252.12	-5728.94
3261.22	-5728.97
3270.47	-5729
3284.67	-5729.05
3290.04	-5729.07
3300.17	-5729.1
3310.29	-5729.14
3320.06	-5729.17
3330.14	-5729.21
3340.01	-5729.24
3350.15	-5729.27
3360.21	-5729.31
3370.12	-5729.34
3380.44	-5729.37
3390.38	-5729.4
3400.91	-5729.44
3411.44	-5729.47
3421.37	-5729.5
3431.95	-5729.53
3441.75	-5729.56
3452.21	-5729.59
3460.5	-5729.61
3472.22	-5729.64
3481.52	-5729.67
3491.31	-5729.69
3501.65	-5729.72
3512.58	-5729.74
3520.22	-5729.76
3532.32	-5729.79
3540.8	-5729.81
3554.25	-5729.84
3562.75	-5729.85
3572.62	-5729.87
3582.96	-5729.89
3593.8	-5729.92
3605.14	-5729.94
3611.02	-5729.95
3623.18	-5729.97
3631.02	-5729.98
3644.14	-5730.01
3650.94	-5730.02
3665.02	-5730.04
3672.3	-5730.06
3682.62	-5730.07
3695.76	-5730.1
3701.93	-5730.11
3710.13	-5730.12
3726.68	-5730.15
3731.03	-5730.16
3740.4	-5730.17
3750.16	-5730.19
3760.38	-5730.21
3771.17	-5730.23
3781.54	-5730.24
3790.22	-5730.26
3800.4	-5730.28
3810.4	-5730.29
3822.94	-5730.31
3830.12	-5730.32
3840.05	-5730.34
3850	-5730.36
3860.05	-5730.37
3870.35	-5730.39
3880.25	-5730.4
3890.11	-5730.42
3900.04	-5730.43
3910.47	-5730.45
3920.29	-5730.46
3930.42	-5730.47
3940.55	-5730.49
3950.16	-5730.5
3960.38	-5730.51
3970.73	-5730.53
3980.67	-5730.54
3990.12	-5730.55
4000.19	-5730.56
4010.97	-5730.57
4021.02	-5730.58
4030.1	-5730.59
4040.02	-5730.6
4050.06	-5730.61
4060.19	-5730.62
4070.1	-5730.63
4080.07	-5730.64
4090	-5730.65
4100.01	-5730.66
4110.19	-5730.67
4120.11	-5730.68
4130.27	-5730.69
4140.48	-5730.69
4150.25	-5730.7
4160.04	-5730.71
4170.11	-5730.72
4180.37	-5730.72
4190.28	-5730.73
4200.89	-5730.74
4210.27	-5730.74
4220.6	-5730.75
4230.23	-5730.75
4240.52	-5730.76
4251.57	-5730.77
4261.5	-5730.77
4272.05	-5730.78
4280.95	-5730.78
4290.28	-5730.79
4300.06	-5730.79
4310.3	-5730.8
4321.02	-5730.81
4332.26	-5730.81
4341.05	-5730.82
4350.16	-5730.82
4362.83	-5730.83
4372.75	-5730.83
4383.05	-5730.83
4390.13	-5730.84
4401.09	-5730.84
4412.48	-5730.85
4420.31	-5730.85
4432.46	-5730.85
4440.82	-5730.86
4453.8	-5730.86
4462.74	-5730.86
4471.94	-5730.86
4480.98	-5730.87
4494.58	-5730.87
4503.66	-5730.87
4514.04	-5730.88
4524.72	-5730.88
4530.18	-5730.88
4545.23	-5730.88
4551	-5730.89
4562.82	-5730.89
4575.01	-5730.89
4581.25	-5730.89
4591.05	-5730.89
4604.18	-5730.9
4616.45	-5730.9
4622.81	-5730.9
4635.76	-5730.9
4642.22	-5730.9
4655.03	-5730.91
4661.37	-5730.91
4676.92	-5730.91
4680.04	-5730.91
4690.52	-5730.91
4700.34	-5730.91
4710.11	-5730.91
4720.81	-5730.92
4734.31	-5730.92
4743.78	-5730.92
4753.21	-5730.92
4762.84	-5730.92
4772.12	-5730.92
4781.11	-5730.91
4794.16	-5730.91
4802.8	-5730.91
4810.57	-5730.91
4822.6	-5730.9
4830.79	-5730.9
4843.24	-5730.9
4851.57	-5730.9
4864.02	-5730.89
4872.28	-5730.89
4880.83	-5730.88
4890.61	-5730.88
4900.22	-5730.88
4910.35	-5730.87
4920.47	-5730.87
4930.5	-5730.86
4940.48	-5730.86
4950.95	-5730.86
4960.27	-5730.85
4970.01	-5730.85
4981.26	-5730.85
4990.31	-5730.84
5000.33	-5730.84
5011.44	-5730.84
5021.34	-5730.83
5032.51	-5730.83
5042.14	-5730.83
5050.39	-5730.83
5063.11	-5730.83
5073.88	-5730.83
5085.9	-5730.82
5091.92	-5730.82
5104.88	-5730.82
5111.79	-5730.82
5120.94	-5730.82
5131.26	-5730.82
5145.14	-5730.82
5151.58	-5730.82
5164.17	-5730.82
5170.32	-5730.82
5182.7	-5730.82
5196.3	-5730.82
5202.54	-5730.82
5215.32	-5730.82
5222.76	-5730.82
5236.08	-5730.82
5242	-5730.82
5250.61	-5730.82
5260.05	-5730.83
5270	-5730.83
5280.36	-5730.83
5292.11	-5730.83
5300.11	-5730.83
5310.38	-5730.83
5320.53	-5730.83
5333.66	-5730.84
5347.85	-5730.84
5354.1	-5730.84
5363.77	-5730.84
5373.15	-5730.84
5382.22	-5730.84
5393.54	-5730.84
5401.42	-5730.85
5413.04	-5730.85
5427.13	-5730.74
5441.37	-5730.36
5453.06	-5730.02
5464.48	-5729.66
5476.19	-5729.26
5481.06	-5729.09
5492.8	-5728.66
5504.55	-5728.2
5507.66	-5728.07
5511.4	-5727.92
5521.96	-5727.49
5532.06	-5727.07
5543.15	-5726.6
5551.95	-5726.24
5565.38	-5725.69
5577.31	-5725.22
5589.28	-5724.77
5595.79	-5724.53
5607.82	-5724.12
5619.88	-5723.8
5631.98	-5723.59
5644.12	-5723.46
5649.51	-5723.42
5661.67	-5723.34
5672.67	-5723.3
5684.84	-5723.27
5697.03	-5723.26
5697.88	-5723.26
5700.82	-5723.27
5711.43	-5723.29
5721.92	-5723.32
5730.93	-5723.37
5744.51	-5723.46
5751.47	-5723.52
5765.28	-5723.67
5770.22	-5723.73
5781.79	-5723.88
5791.46	-5724.02
5803.3	-5724.21
5813.72	-5724.39
5825.05	-5724.59
5831.53	-5724.71
5845.93	-5724.98
5850.06	-5725.06
5860.06	-5725.25
5870.24	-5725.44
5880.16	-5725.63
5890.2	-5725.82
5900.27	-5726.01
5910.43	-5726.2
5920.06	-5726.37
5930.48	-5726.55
5940.53	-5726.72
5950.54	-5726.89
5960.78	-5727.05
5970.61	-5727.21
5981.53	-5727.37
5991.55	-5727.51
6000.23	-5727.63
6011.94	-5727.78
6022.03	-5727.9
6030.04	-5727.99
6041.33	-5728.12
6050.04	-5728.21
6061.64	-5728.33
6070.18	-5728.41
6081.74	-5728.51
6090.6	-5728.58
6102.65	-5728.67
6110.16	-5728.73
6120.23	-5728.79
6130.26	-5728.85
6140.36	-5728.91
6150.35	-5728.96
6160.7	-5729.01
6170.63	-5729.05
6180.77	-5729.09
6190.59	-5729.13
6202.06	-5729.17
6210.72	-5729.19
6220.33	-5729.21
6231.1	-5729.24
6243.12	-5729.26
6251.85	-5729.28
6260.99	-5729.29
6270.55	-5729.3
6280.36	-5729.31
6290.42	-5729.32
6300.77	-5729.33
6311.43	-5729.33
6322.44	-5729.33
6333.81	-5729.33
6345.41	-5729.33
6351.28	-5729.33
6363.18	-5729.33
6372.92	-5729.32
6380.1	-5729.32
6390.03	-5729.31
6400.53	-5729.3
6410.62	-5729.29
6422	-5729.28
6432.5	-5729.27
6442.99	-5729.26
6452.16	-5729.25
6462.86	-5729.23
6474.28	-5729.22
6480.96	-5729.21
6495.21	-5729.18
6502.51	-5729.17
6510.01	-5729.16
6525.81	-5729.13
6534.05	-5729.11
6541.24	-5729.1
6554.13	-5729.07
6560.13	-5729.06
6576.83	-5729.02
6586.5	-5729
6596.33	-5728.98
6604.14	-5728.96
6614.3	-5728.93
6625.22	-5728.91
6634.22	-5728.88
6645.8	-5728.85
6651.57	-5728.83
6668.84	-5728.78
6670	-5728.77
6680.14	-5728.74
6690.22	-5728.71
6700.16	-5728.67
6710.53	-5728.64
6720.19	-5728.6
6731.05	-5728.56
6740.14	-5728.52
6751.33	-5728.48
6761.57	-5728.43
6773.9	-5728.38
6783.04	-5728.34
6792.76	-5728.29
6803	-5728.24
6813.65	-5728.18
6824.6	-5728.12
6830.16	-5728.09
6841.41	-5728.03
6852.78	-5727.96
6868.51	-5727.86
6876.38	-5727.81
6885.39	-5727.75
6894.67	-5727.68
6902.84	-5727.62
6912.62	-5727.55
6922.09	-5727.48
6935.03	-5727.37
6945.91	-5727.28
6952.91	-5727.23
6965.86	-5727.11
6971.2	-5727.07
6982.38	-5726.97
6995.32	-5726.85
7003.23	-5726.77
7010.01	-5726.71
7021.21	-5726.6
7030.36	-5726.52
7040.41	-5726.42
7051.74	-5726.31
7061.54	-5726.21
7073.17	-5726.1
7080.94	-5726.03
7092.67	-5725.92
7100.34	-5725.84
7118.65	-5725.67
7127.54	-5725.59
7135.93	-5725.52
7147.47	-5725.42
7158.3	-5725.34
7171.25	-5725.24
7181.21	-5725.16
7194.15	-5725.07
7202.38	-5725.02
7214.13	-5724.95
7221.42	-5724.91
7226.74	-5724.88
7237.34	-5724.83
7245.81	-5724.79
7253.93	-5724.76
7265.11	-5724.72
7273.3	-5724.69
7280.77	-5724.67
7292.9	-5724.65
7304.7	-5724.63
7310.77	-5724.62
7324.04	-5724.61
7334.89	-5724.61
7345.49	-5724.62
7355.81	-5724.62
7365.89	-5724.64
7371.36	-5724.65
7383.54	-5724.67
7392.96	-5724.7
7402.22	-5724.73
7411.85	-5724.76
7420.95	-5724.8
7438.19	-5724.87
7447.33	-5724.91
7457.15	-5724.96
7466.05	-5725.01
7473.89	-5725.05
7480.58	-5725.09
7498.85	-5725.2
7507.78	-5725.25
7515.4	-5725.3
7524.05	-5725.35
7532.59	-5725.41
7541.01	-5725.46
7557.5	-5725.56
7565.13	-5725.61
7573.1	-5725.66
7580.98	-5725.71
7596.46	-5725.8
7604.06	-5725.85
7611.58	-5725.89
7624.52	-5725.97
7637.47	-5726.04
7650.41	-5726.11
7663.36	-5726.17
7676.3	-5726.24
7689.25	-5726.3
7702.19	-5726.35
7715.14	-5726.41
7727.67	-5726.46
7740.62	-5726.5
7753.56	-5726.55
7766.51	-5726.59
7779.45	-5726.63
7785.54	-5726.65
7791.33	-5726.67
7792.23	-5726.67
7793.2	-5726.67
7794.23	-5726.67
7802.25	-5726.7
7810.63	-5726.72
7828.48	-5726.76
7839.32	-5726.79
7850.43	-5726.81
7859.82	-5726.83
7872.77	-5726.86
7885.71	-5726.88
7890.07	-5726.89
7903.02	-5726.92
7910.68	-5726.93
7923.62	-5726.95
7936.57	-5726.98
7949.51	-5727
7959.57	-5727.02
7960.83	-5727.02
7961.98	-5727.02
7970.01	-5727.03
7980.03	-5727.05
7990.75	-5727.07
8001.74	-5727.09
8010.53	-5727.1
8021.95	-5727.12
8031.45	-5727.14
8041.54	-5727.16
8052.72	-5727.18
8063.15	-5727.2
8071.51	-5727.22
8081.43	-5727.24
8093.62	-5727.27
8100.34	-5727.28
8114.99	-5727.31
8122.71	-5727.33
8130.7	-5727.35
8148.04	-5727.4
8157.91	-5727.42
8162.87	-5727.44
8170.97	-5727.46
8180.27	-5727.49
8190.46	-5727.52
8200.73	-5727.55
8210.04	-5727.58
8221.11	-5727.61
8230.03	-5727.64
8242.21	-5727.68
8252.06	-5727.72
8260.64	-5727.75
8270.45	-5727.78
8281.7	-5727.83
8290.19	-5727.86
8305.1	-5727.92
8310.74	-5727.94
8323.16	-5727.99
8330.02	-5728.02
8346.16	-5728.09
8354.98	-5728.13
8364.34	-5728.17
8370.05	-5728.19
8380.11	-5728.24
8390.58	-5728.29
8400.28	-5728.33
8410.79	-5728.38
8420.96	-5728.43
8430.61	-5728.47
8443.55	-5728.54
8454.71	-5728.59
8461.24	-5728.62
8476.64	-5728.7
8485.64	-5728.74
8495.39	-5728.79
8505.82	-5728.84
8516.93	-5728.89
8528.69	-5728.95
8541.02	-5729.01
8553.85	-5729.08
8566.8	-5729.14
8579.74	-5729.2
8582.83	-5729.22
8586.14	-5729.23
8591.76	-5729.26
8602.11	-5729.31
8612.97	-5729.36
8629.59	-5729.44
8642.54	-5729.49
8654.93	-5729.55
8667.88	-5729.61
8678.91	-5729.66
8691.85	-5729.71
8703.72	-5729.76
8716.66	-5729.81
8729.61	-5729.87
8742.56	-5729.92
8743.56	-5729.92
8744.5	-5729.92
8745.44	-5729.93
8750.17	-5729.94
8760.76	-5729.98
8776.33	-5730.04
8780.22	-5730.06
8791.07	-5730.09
8804.07	-5730.14
8813.97	-5730.17
8825.4	-5730.21
8835.12	-5730.24
8848.07	-5730.27
8861.01	-5730.31
8873.96	-5730.35
8886.9	-5730.38
8899.85	-5730.41
8910.81	-5730.44
8910.86	-5730.44
8910.9	-5730.44
8923.47	-5730.47
8935.29	-5730.49
8948.23	-5730.52
8961.18	-5730.54
8974.12	-5730.57
8987.07	-5730.59
8997.9	-5730.6
9000.82	-5730.61
9003.97	-5730.61
9010.29	-5730.62
9026.42	-5730.65
9039.36	-5730.66
9052.31	-5730.68
9065.25	-5730.69
9078.2	-5730.7
9086.1	-5730.71
9096.11	-5730.72
9105.95	-5730.73
9117.82	-5730.73
9129.61	-5730.74
9142.27	-5730.75
9148.39	-5730.75
9155.1	-5730.75
9162.02	-5730.76
9174.96	-5730.76
9187.91	-5730.77
9198.47	-5730.77
9211.25	-5730.77
9223.93	-5730.78
9233.97	-5730.78
9246.92	-5730.78
9259.86	-5730.78
9271.63	-5730.78
9284.58	-5730.78
9297.52	-5730.78
9310.47	-5730.78
9323.42	-5730.77
9336.36	-5730.77
9349.31	-5730.77
9362.25	-5730.77
9368.74	-5730.77
9376.75	-5730.76
9384.64	-5730.76
9393.73	-5730.76
9402.77	-5730.76
9414.92	-5730.75
9427.31	-5730.75
9438.05	-5730.74
9438.79	-5730.74
9439.53	-5730.74
9440.28	-5730.74
9441.03	-5730.74
9441.78	-5730.74
9450.01	-5730.74
9469.7	-5730.73
9482.64	-5730.73
9495.59	-5730.72
9508.54	-5730.72
9521.48	-5730.71
9534.43	-5730.7
9547.37	-5730.7
9560.32	-5730.69
9573.26	-5730.69
9586.21	-5730.68
9586.29	-5730.68
9586.36	-5730.68
9586.41	-5730.68
9590.04	-5730.68
9600.21	-5730.68
9610.5	-5730.67
9620.4	-5730.67
9630.05	-5730.66
9640.33	-5730.66
9651.59	-5730.65
9660.58	-5730.65
9670.73	-5730.65
9681.75	-5730.64
9691.55	-5730.64
9702.93	-5730.63
9712.37	-5730.63
9722.55	-5730.63
9733.59	-5730.62
9741.5	-5730.62
9754.32	-5730.62
9763.59	-5730.61
9773.53	-5730.61
9784.22	-5730.6
9790.78	-5730.6
9801.01	-5730.6
9810.19	-5730.6
9826.47	-5730.59
9833.49	-5730.59
9840.75	-5730.59
9855.97	-5730.58
9863.94	-5730.58
9872.17	-5730.58
9880.66	-5730.58
9898.49	-5730.57
9907.86	-5730.57
9917.53	-5730.57
9927.51	-5730.56
9937.79	-5730.56
9941.93	-5730.56
9950.85	-5730.56
9960.24	-5730.56
9973.04	-5730.55
9984.55	-5730.55
9996.36	-5730.55
10008.5	-5730.55
10019.7	-5730.54
10032.4	-5730.54
10045.3	-5730.54
10045.7	-5730.54
10050.1	-5730.54
10067.9	-5730.54
10080.9	-5730.53
10088.3	-5730.53
10098.4	-5730.53
10109	-5730.53
10119.1	-5730.53
10120.1	-5730.53
10141	-5730.53
10153.9	-5730.52
10166.9	-5730.52
10179.8	-5730.52
10192.8	-5730.52
10205.7	-5730.52
10218.7	-5730.52
10231.6	-5730.52
10244.6	-5730.52
10257.5	-5730.52
10270.5	-5730.52
10281.7	-5730.52
10294.7	-5730.51
10300.1	-5730.51
10308.4	-5730.51
10309	-5730.51
10309.2	-5730.51
10309.5	-5730.51
10310.1	-5730.51
10320.3	-5730.51
10330.3	-5730.51
10347.1	-5730.52
10360.1	-5730.52
10373	-5730.52
10386	-5730.52
10398.9	-5730.52
10410.7	-5730.52
10423.6	-5730.52
10432.9	-5730.52
10445.2	-5730.52
10457.2	-5730.52
10470.1	-5730.52
10483.1	-5730.52
10496	-5730.53
10509	-5730.53
10521.9	-5730.53
10534.9	-5730.53
10547.8	-5730.53
10560.8	-5730.53
10560.9	-5730.53
10561	-5730.53
10561.1	-5730.53
10561.2	-5730.53
10561.3	-5730.53
10570	-5730.53
10580.1	-5730.53
10590.4	-5730.53
10600.2	-5730.54
10610.1	-5730.54
10620.9	-5730.54
10630.9	-5730.54
10640.7	-5730.54
10651.5	-5730.54
10662	-5730.54
10671.3	-5730.54
10681.2	-5730.54
10691.6	-5730.54
10702.5	-5730.54
10711	-5730.54
10722.8	-5730.54
10732.1	-5730.54
10741.8	-5730.54
10752.1	-5730.54
10762.9	-5730.54
10770.6	-5730.54
10782.3	-5730.54
10790.2	-5730.54
10801.9	-5730.54
10813.6	-5730.53
10821.2	-5730.53
10832.8	-5730.53
10840.5	-5730.53
10852.3	-5730.53
10860.3	-5730.53
10872.5	-5730.53
10880.8	-5730.52
10893.7	-5730.52
10902.5	-5730.52
10911.6	-5730.52
10921	-5730.51
10930.6	-5730.51
10940.6	-5730.51
10950.9	-5730.51
10961.5	-5730.5
10972.6	-5730.5
10984	-5730.5
10995.9	-5730.49
11002	-5730.49
11014.4	-5730.49
11020.9	-5730.49
11034	-5730.48
11040.8	-5730.48
11054.5	-5730.48
11061.6	-5730.48
11076	-5730.47
11083.4	-5730.47
11090.9	-5730.47
11106.4	-5730.46
11114.3	-5730.46
11122.4	-5730.46
11130.7	-5730.46
11147.7	-5730.45
11156.5	-5730.45
11165.4	-5730.45
11174.6	-5730.45
11184	-5730.45
11193.5	-5730.45
11203.3	-5730.44
11213.4	-5730.44
11223.6	-5730.44
11234.2	-5730.44
11250.9	-5730.44
11262.1	-5730.44
11273.6	-5730.44
11285.2	-5730.44
11297.2	-5730.44
11309.4	-5730.44
11321.8	-5730.45
11334.5	-5730.45
11347.5	-5730.45
11360.4	-5730.45
11373.4	-5730.46
11386.3	-5730.46
11399.2	-5730.46
11412.2	-5730.47
11425.1	-5730.47
11431	-5730.48
11435.9	-5730.48
11437.9	-5730.48
11443	-5730.48
11443.1	-5730.48
11443.1	-5730.48
11450.2	-5730.48
11460.3	-5730.49
11471	-5730.49
11481.3	-5730.5
11490.4	-5730.51
11502.2	-5730.51
11511.2	-5730.52
11522.1	-5730.52
11530.5	-5730.53
11544.7	-5730.54
11555.4	-5730.55
11561.1	-5730.55
11573.1	-5730.56
11586.3	-5730.57
11593.5	-5730.58
11601.2	-5730.58
11618	-5730.6
11627.3	-5730.6
11637.2	-5730.61
11648	-5730.62
11659.7	-5730.63
11672.6	-5730.64
11685.6	-5730.66
11698.5	-5730.67
11711.5	-5730.68
11724.4	-5730.69
11737.4	-5730.71
11750.3	-5730.72
11763.3	-5730.73
11776.2	-5730.74
11789.1	-5730.76
11802.1	-5730.77
11815	-5730.78
11828	-5730.8
11840.9	-5730.81
11853.9	-5730.82
11866.8	-5730.84
11878	-5730.85
11890.9	-5730.86
11903.9	-5730.87
11916.8	-5730.88
11929.8	-5730.9
11941.1	-5730.91
11946.3	-5730.91
11959.2	-5730.92
11972.2	-5730.94
11985.1	-5730.95
11998	-5730.96
12011	-5730.97
12023.9	-5730.98
12036.9	-5730.99
12049.8	-5731
12062.8	-5731.01
12075.7	-5731.02
12088.7	-5731.03
12101.6	-5731.04
12114.6	-5731.05
12127.5	-5731.06
12140.5	-5731.07
12153.4	-5731.08
12166.3	-5731.1
12179.3	-5731.11
12192.2	-5731.12
12205.2	-5731.13
12218.1	-5731.14
12231.1	-5731.16
12244	-5731.17
12257	-5731.18
12257.8	-5731.18
12260.6	-5731.19
12263.3	-5731.19
12266.2	-5731.19
12269.2	-5731.2
12272.3	-5731.2
12275.5	-5731.21
12278.9	-5731.21
12282.6	-5731.21
12286.2	-5731.22
12289.9	-5731.22
12293.6	-5731.23
12297.3	-5731.24
12300.9	-5731.25
12304.6	-5731.25
12308.3	-5731.26
12311.9	-5731.27
12315.6	-5731.27
12319.3	-5731.28
12323.2	-5731.28
12332.5	-5731.3
12343.5	-5731.31
12350	-nan
12360	-nan
12370.2	-nan
12380.3	-nan
12391	-nan
12400.3	-nan
12411.1	-nan
12421.4	-nan
12430.5	-nan
12441.3	-nan
12452	-nan
12461.4	-nan
12471.5	-nan
12480.2	-nan
12490.8	-nan
12502.8	-nan
12511.5	-nan
12521.8	-nan
12533.7	-nan
12540.2	-nan
12554.3	-nan
12562	-nan
12578.5	-nan
12587.2	-nan
12596	-nan
12604.8	-nan
12613.8	-nan
12623	-nan
12632.2	-nan
12641.7	-nan
12651.4	-nan
12661.4	-nan
12671.8	-nan
12682.4	-nan
12693.4	-nan
12704.8	-nan
12716.6	-nan
12728.8	-nan
12741.5	-nan
12754.4	-nan
12767.4	-nan
12779.2	-nan
12788	-nan
12801	-nan
12813.9	-nan
12826.9	-nan
12839.8	-nan
12852.7	-nan
12865.7	-nan
12878.6	-nan
12891.6	-nan
12904.5	-nan
12917.5	-nan
12930.4	-nan
12943.4	-nan
12956.3	-nan
12969.3	-nan
12982.2	-nan
12995.1	-nan
13008.1	-nan
13021	-nan
13034	-nan
13046.9	-nan
13059.9	-nan
13072.8	-nan
13085.8	-nan
13098.7	-nan
13111.7	-nan
13124.6	-nan
13137.5	-nan
13150.5	-nan
13163.4	-nan
13176.4	-nan
13189.3	-nan
13202.3	-nan
13215.2	-nan
13228.2	-nan
13241.1	-nan
13254.1	-nan
13267	-nan
13279.9	-nan
13292.9	-nan
13305.8	-nan
13318.8	-nan
13331.7	-nan
13344.7	-nan
13357.6	-nan
13370.6	-nan
13383.5	-nan
13396.5	-nan
13409.4	-nan
13422.4	-nan
13435.3	-nan
13448.2	-nan
13461.2	-nan
13474.1	-nan
13483.1	-nan
13496	-nan
13508.9	-nan
13521.9	-nan
13534.8	-nan
13547.8	-nan
13560.7	-nan
13573.7	-nan
13586.6	-nan
13599.6	-nan
13612.5	-nan
13625.5	-nan
13638.4	-nan
13651.3	-nan
13664.3	-nan
13677.2	-nan
13688.8	-nan
13701.8	-nan
13714.7	-nan
13727.7	-nan
13740.6	-nan
13753.6	-nan
13766.5	-nan
13779.5	-nan
13792.4	-nan
13805.4	-nan
13818.3	-nan
13831.2	-nan
13844.2	-nan
13857.1	-nan
13870.1	-nan
13883	-nan
13896	-nan
13908.9	-nan
13921.9	-nan
13934.8	-nan
13947.8	-nan
13960.7	-nan
13973.7	-nan
13986.6	-nan
13999.5	-nan
14012.5	-nan
14025.4	-nan
14038.4	-nan
14051.3	-nan
14064.3	-nan
14077.2	-nan
14090.2	-nan
14103.1	-nan
14116.1	-nan
14129	-nan
14141.9	-nan
14154.9	-nan
14167.8	-nan
14180.8	-nan
14193.7	-nan
14206.7	-nan
14219.6	-nan
14231.7	-nan
14244.5	-nan
14257.5	-nan
14270.4	-nan
14283.4	-nan
14296.3	-nan
14309.3	-nan
14322.2	-nan
14335.1	-nan
14348.1	-nan
14361	-nan
14374	-nan
14386.9	-nan
14399.9	-nan
14412.8	-nan
14425.8	-nan
14438.7	-nan
14451.7	-nan
14464.6	-nan
14477.5	-nan
14490.5	-nan
14503.4	-nan
14516.4	-nan
14529.3	-nan
14542.3	-nan
14555.2	-nan
14565.8	-nan
14578.8	-nan
14591.7	-nan
14604.7	-nan
14617.6	-nan
14630.6	-nan
14643.5	-nan
14656.5	-nan
14669.4	-nan
14682.4	-nan
14695.3	-nan
14708.2	-nan
14721.2	-nan
14734.1	-nan
14747.1	-nan
14760	-nan
14773	-nan
14785.9	-nan
14798.9	-nan
14811.8	-nan
14824.8	-nan
14837.7	-nan
14850.7	-nan
14863.6	-nan
14876.5	-nan
14889.5	-nan
14902.4	-nan
14915.4	-nan
14928.3	-nan
14941.3	-nan
14954.2	-nan
14967.2	-nan
14980.1	-nan
14993.1	-nan
15006	-nan
15018.9	-nan
15031.9	-nan
15044.8	-nan
15045.7	-nan
15047.7	-nan
15049.8	-nan
15051.8	-nan
15053.9	-nan
15056.1	-nan
15058.3	-nan
15060.4	-nan
15062.5	-nan
15064.6	-nan
15066.7	-nan
15069	-nan
15071.3	-nan
15073.7	-nan
15086.7	-nan
15099.6	-nan
15112.6	-nan
15125.5	-nan
15138.5	-nan
15151.4	-nan
15164.3	-nan
15177.3	-nan
15190.2	-nan
15203.2	-nan
15216.1	-nan
15217.4	-nan
15219.6	-nan
15221.6	-nan
15223.8	-nan
15226	-nan
15228.3	-nan
15230.6	-nan
15232.8	-nan
15235.1	-nan
15237.4	-nan
15239.8	-nan
15242.1	-nan
15244.4	-nan
15257.3	-nan
15270.2	-nan
15283.2	-nan
15296.1	-nan
15309.1	-nan
15322	-nan
15335	-nan
15347.9	-nan
15360.9	-nan
15373.8	-nan
15386.8	-nan
15399.7	-nan
15412.7	-nan
15425.6	-nan
15438.5	-nan
15451.5	-nan
15464.4	-nan
15477.4	-nan
15490.3	-nan
15503.3	-nan
15516.2	-nan
15529.2	-nan
15542.1	-nan
15555.1	-nan
15568	-nan
15580.9	-nan
15593.9	-nan
15606.8	-nan
15619.8	-nan
15632.7	-nan
15645.7	-nan
15658.6	-nan
15671.6	-nan
15684.5	-nan
15697.5	-nan
15697.5	-nan
15697.6	-nan
15697.6	-nan
15697.6	-nan
15697.7	-nan
15697.7	-nan
15697.8	-nan
15697.8	-nan
15697.9	-nan
15697.9	-nan
15698	-nan
15698	-nan
15698	-nan
15698.1	-nan
15698.1	-nan
15698.2	-nan
15698.2	-nan
15698.3	-nan
15698.3	-nan
15698.4	-nan
15698.4	-nan
15698.4	-nan
15698.5	-nan
15698.5	-nan
15698.6	-nan
15698.6	-nan
15698.7	-nan
15698.9	-nan
15699.1	-nan
15699.3	-nan
15699.6	-nan
15700	-nan
15700.4	-nan
15700.8	-nan
15701.3	-nan
15701.8	-nan
15702.4	-nan
15702.9	-nan
15703.5	-nan
15704.1	-nan
15704.6	-nan
15705.2	-nan
15705.8	-nan
15706.4	-nan
15707	-nan
15710.3	-nan
15722.2	-nan
15732.2	-nan
15741.7	-nan
15753.6	-nan
15763.5	-nan
15775.4	-nan
15783.1	-nan
15791.9	-nan
15801.8	-nan
15813.6	-nan
15826.5	-nan
15839.5	-nan
15852.4	-nan
15865.4	-nan
15878.3	-nan
15891.3	-nan
15904.2	-nan
15904.2	-nan
15904.2	-nan
15910	-nan
15920.1	-nan
15930.3	-nan
15940.4	-nan
15950.3	-nan
15960.3	-nan
15970.2	-nan
15980.3	-nan
15990.4	-nan
16000.4	-nan
16011	-nan
16020.8	-nan
16030.6	-nan
16040.2	-nan
16050.7	-nan
16061.7	-nan
16070.3	-nan
16082.2	-nan
16091.3	-nan
16100.5	-nan
16112.8	-nan
16123.4	-nan
16134.3	-nan
16145.1	-nan
16150.6	-nan
16163.1	-nan
16176.2	-nan
16183	-nan
16190	-nan
16205	-nan
16213	-nan
16221.3	-nan
16230.1	-nan
16248.6	-nan
16258.8	-nan
16269.6	-nan
16280.9	-nan
16292.7	-nan
16305	-nan
16317.8	-nan
16330.7	-nan
16343.7	-nan
16356.6	-nan
16369.5	-nan
16382.5	-nan
16395.4	-nan
16408.4	-nan
16421.3	-nan
16434.3	-nan
16447.2	-nan
16460.2	-nan
16473.1	-nan
16486.1	-nan
16499	-nan
16511.9	-nan
16524.9	-nan
16537.8	-nan
16550.8	-nan
16563.7	-nan
16576.7	-nan
16589.6	-nan
16602.6	-nan
16615.5	-nan
16628.5	-nan
16641.4	-nan
16654.3	-nan
16667.3	-nan
16680.2	-nan
16693.2	-nan
16706.1	-nan
16719.1	-nan
16732	-nan
16745	-nan
16757.9	-nan
16770.9	-nan
16783.8	-nan
16796.8	-nan
16809.7	-nan
16822.6	-nan
16835.6	-nan
16848.5	-nan
16861.5	-nan
16874.4	-nan
16887.4	-nan
16900.3	-nan
16913.3	-nan
16926.2	-nan
16939.2	-nan
16952.1	-nan
16965	-nan
16978	-nan
16990.9	-nan
17003.9	-nan
17016.8	-nan
17029.8	-nan
17042.7	-nan
17055.7	-nan
17068.6	-nan
17081.6	-nan
17094.5	-nan
17107.4	-nan
17120.4	-nan
17133.3	-nan
17146.3	-nan
17159.2	-nan
17172.2	-nan
17185.1	-nan
17198.1	-nan
17211	-nan
17224	-nan
17236.9	-nan
17249.8	-nan
17262.8	-nan
17275.7	-nan
17288.7	-nan
17301.6	-nan
17314.6	-nan
17327.5	-nan
17340.5	-nan
17353.4	-nan
17366.4	-nan
17379.3	-nan
17392.2	-nan
17405.2	-nan
17418.1	-nan
17431.1	-nan
17444	-nan
17457	-nan
17469.9	-nan
17482.9	-nan
17495.8	-nan
17508.8	-nan
17521.7	-nan
17534.6	-nan
17547.6	-nan
17560.5	-nan
17573.5	-nan
17586.4	-nan
17599.4	-nan
17612.3	-nan
17625.3	-nan
17638.2	-nan
17651.2	-nan
17664.1	-nan
17677	-nan
17690	-nan
17702.9	-nan
17715.9	-nan
17728.8	-nan
17741.8	-nan
17754.7	-nan
17767.7	-nan
17780.6	-nan
17793.6	-nan
17806.5	-nan
17819.5	-nan
17832.4	-nan
17845.3	-nan
17858.3	-nan
17871.2	-nan
17884.2	-nan
17897.1	-nan
17910.1	-nan
17923	-nan
17936	-nan
17948.9	-nan
17961.9	-nan
17974.8	-nan
17987.7	-nan
18000.7	-nan
18013.6	-nan
18026.6	-nan
18039.5	-nan
18052.5	-nan
18065.4	-nan
18078.4	-nan
18091.3	-nan
18104.3	-nan
18117.2	-nan
18130.1	-nan
18143.1	-nan
18156	-nan
18169	-nan
18181.9	-nan
18194.9	-nan
18207.8	-nan
18220.8	-nan
18233.7	-nan
18246.7	-nan
18259.6	-nan
18272.5	-nan
18285.5	-nan
18298.4	-nan
18311.4	-nan
18324.3	-nan
18337.3	-nan
18350.2	-nan
18363.2	-nan
18376.1	-nan
18389.1	-nan
18402	-nan
18414.9	-nan
18427.9	-nan
18440.8	-nan
18453.8	-nan
18466.7	-nan
18479.7	-nan
18492.6	-nan
18505.6	-nan
18518.5	-nan
18531.5	-nan
18544.4	-nan
18557.3	-nan
18570.3	-nan
18583.2	-nan
18596.2	-nan
18609.1	-nan
18622.1	-nan
18635	-nan
18648	-nan
18660.9	-nan
18673.9	-nan
18686.8	-nan
18699.7	-nan
18712.7	-nan
18725.6	-nan
18738.6	-nan
18751.5	-nan
18764.5	-nan
18777.4	-nan
18790.4	-nan
18803.3	-nan
18816.3	-nan
18829.2	-nan
18842.1	-nan
18855.1	-nan
18868	-nan
18881	-nan
18893.9	-nan
18906.9	-nan
18919.8	-nan
18932.8	-nan
18945.7	-nan
18958.7	-nan
18971.6	-nan
18984.6	-nan
18997.5	-nan
19010.4	-nan
19023.4	-nan
19036.3	-nan
19049.3	-nan
19062.2	-nan
19075.2	-nan
19088.1	-nan
19101.1	-nan
19114	-nan
19127	-nan
19139.9	-nan
19152.8	-nan
19165.8	-nan
19178.7	-nan
19191.7	-nan
19204.6	-nan
19217.6	-nan
19230.5	-nan
19243.5	-nan
19256.4	-nan
19269.4	-nan
19282.3	-nan
19295.2	-nan
19308.2	-nan
19321.1	-nan
19334.1	-nan
19347	-nan
19360	-nan
19372.9	-nan
19385.9	-nan
19398.8	-nan
19411.8	-nan
19424.7	-nan
19437.6	-nan
19450.6	-nan
19463.5	-nan
19476.5	-nan
19489.4	-nan
19502.4	-nan
19515.3	-nan
19528.3	-nan
19541.2	-nan
19554.2	-nan
19567.1	-nan
19580	-nan
19593	-nan
19605.9	-nan
19618.9	-nan
19631.8	-nan
19644.8	-nan
19657.7	-nan
19670.7	-nan
19683.6	-nan
19696.6	-nan
19709.5	-nan
19722.4	-nan
19735.4	-nan
19748.3	-nan
19761.3	-nan
19774.2	-nan
19787.2	-nan
19800.1	-nan
19813.1	-nan
19826	-nan
19839	-nan
19851.9	-nan
19864.8	-nan
19877.8	-nan
19890.7	-nan
19903.7	-nan
19916.6	-nan
19929.6	-nan
19942.5	-nan
19955.5	-nan
19968.4	-nan
19981.4	-nan
19994.3	-nan
