0	0
11.0308	0
20.2231	0
31.254	0
40.4463	0
51.4771	0
60.6694	0
71.7003	0
80.8926	0
90.0849	0
101.116	0
110.308	0
121.339	0
130.531	0
141.562	0
150.754	0
161.785	0
170.978	0
180.17	0
191.201	0
200.393	0
211.424	0
220.616	0
231.647	0
240.839	0
250.032	0
261.062	0
270.255	0
281.286	0
290.478	0
301.509	0
310.701	0
321.732	0
330.924	0
340.117	0
351.147	0
360.34	0
371.371	0
380.563	0
391.594	0
400.786	0
411.817	0
421.009	0
430.202	0
441.232	0
450.425	0
461.456	0
470.648	0
481.679	0
490.871	0
500.063	0
511.094	0
520.286	0
531.317	0
540.51	0
551.54	0
560.733	0
571.764	0
580.956	0
590.148	0
601.179	0
610.371	0
621.402	0
630.595	0
641.625	0
650.818	0
660.01	0
671.041	0
680.233	0
691.264	0
700.456	0
711.487	0
720.68	0
731.71	0
740.903	0
750.095	0
761.126	0
770.318	0
781.349	0
790.541	0
801.572	0
810.764	0
821.795	0
830.988	0
840.18	0
851.211	0
860.403	0
871.434	0
880.626	0
891.657	0
900.849	0
910.042	0
921.073	0
930.265	0
941.296	0
950.488	0
961.519	0
970.711	0
981.742	0
990.934	0
1000.13	0
1011.16	0
1020.35	0
1031.38	0
1040.57	0
1051.6	0
1060.8	0
1071.83	0
1081.02	0
1090.21	0
1101.24	0
1110.43	0
1121.47	0
1130.66	0
1141.69	0
1150.88	0
1160.07	0
1171.1	0
1180.3	0
1191.33	0
1200.52	0
1211.55	0
1220.74	0
1231.77	0
1240.97	0
1250.16	0
1261.19	0
1270.38	0
1281.41	0
1290.6	0
1301.64	0
1310.83	0
1320.02	0
1331.05	0
1340.24	0
1351.27	0
1360.47	0
1371.5	0
1380.69	0
1391.72	0
1400.91	0
1410.11	0
1421.14	0
1430.33	0
1441.36	0
1450.55	0
1461.58	0
1470.77	0
1481.81	0
1491	0
1500.19	0
1511.22	0
1520.41	0
1531.44	0
1540.64	0
1551.67	0
1560.86	0
1570.05	0
1581.08	0
1590.27	0
1601.31	0
1610.5	0
1621.53	0
1630.72	0
1641.75	0
1650.94	0
1660.14	0
1671.17	0
1680.36	0
1691.39	0
1700.58	0
1711.61	0
1720.81	0
1731.84	0
1741.03	0
1750.22	0
1761.25	0
1770.44	0
1781.48	0
1790.67	0
1801.7	0
1810.89	0
1820.08	0
1831.11	0
1840.31	0
1851.34	0
1860.53	0
1871.56	0
1880.75	0
1891.78	0
1900.98	0
1910.17	0
1921.2	0
1930.39	0
1941.42	0
1950.61	0
1961.65	0
1970.84	0
1980.03	0
1991.06	0
2000.25	0
2011.28	0
2020.48	0
2031.51	0
2040.7	0
2051.73	0
2060.92	0
2070.12	0
2081.15	0
2090.34	0
2101.37	0
2110.56	0
2121.59	0
2130.78	0
2141.82	0
2151.01	0
2160.2	0
2171.23	0
2180.42	0
2191.45	0
2200.65	0
2211.68	0
2220.87	0
2230.06	0
2241.09	0
2250.28	0
2261.32	0
2270.51	0
2281.54	0
2290.73	0
2301.76	0
2310.95	0
2320.15	0
2331.18	0
2340.37	0
2351.4	0
2360.59	0
2371.62	0
2380.82	0
2390.01	0
2401.04	0
2410.23	0
2421.26	0
2430.45	0
2441.49	0
2450.68	0
2461.71	0
2470.9	0
2480.09	0
2491.12	0
2500.32	0
2511.35	0
2520.54	0
2531.57	0
2540.76	0
2551.79	0
2560.99	0
2570.18	0
2581.21	0
2590.4	0
2601.43	0
2610.62	0
2621.66	0
2630.85	0
2640.04	0
2651.07	0
2660.26	0
2671.29	9.09495e-13
2680.49	3.63798e-12
2691.52	9.09495e-12
2700.71	1.27329e-11
2711.74	1.72804e-11
2720.93	2.18279e-11
2730.12	2.63753e-11
2741.16	3.09228e-11
2750.35	3.63798e-11
2761.38	4.82032e-11
2770.57	6.36646e-11
2781.6	9.09495e-11
2790.79	1.2642e-10
2801.83	1.93722e-10
2811.02	2.77396e-10
2820.21	3.99268e-10
2831.24	6.15728e-10
2840.43	8.813e-10
2851.46	1.34878e-09
2860.66	1.91358e-09
2871.69	2.89219e-09
2880.88	4.05453e-09
2890.07	5.6516e-09
2901.1	8.35553e-09
2910.29	1.15015e-08
2921.32	1.67493e-08
2930.52	2.27674e-08
2941.55	3.26618e-08
2950.74	4.38513e-08
2961.77	6.19893e-08
2970.96	8.22201e-08
2980.16	1.08463e-07
2991.19	1.50163e-07
3000.38	1.95778e-07
3011.41	2.67302e-07
3020.6	3.44531e-07
3031.63	4.64053e-07
3040.82	5.91475e-07
3050.02	7.50136e-07
3061.05	9.91195e-07
3070.24	1.24361e-06
3081.27	1.62242e-06
3090.46	2.01434e-06
3101.49	2.59547e-06
3110.69	3.1897e-06
3121.72	4.06054e-06
3130.91	4.94087e-06
3140.1	5.98552e-06
3151.13	7.49133e-06
3160.32	8.98915e-06
3171.35	1.11245e-05
3180.55	1.32258e-05
3191.58	1.61896e-05
3200.77	1.90757e-05
3211.8	2.31041e-05
3220.99	2.6987e-05
3230.18	3.14011e-05
3241.21	3.74727e-05
3250.41	4.32419e-05
3261.44	5.11007e-05
3270.63	5.84975e-05
3281.66	6.8479e-05
3290.85	7.77877e-05
3300.04	8.806e-05
3311.07	0.000101741
3320.27	0.000114336
3331.3	0.000130967
3340.49	0.000146149
3351.52	0.000166028
3360.71	0.000184029
3371.74	0.000207411
3380.93	0.000228419
3390.13	0.000250842
3401.16	0.000279647
3410.35	0.000305252
3421.38	0.000337912
3430.57	0.000366743
3441.6	0.000403271
3450.79	0.000435307
3461.83	0.00047564
3471.02	0.000510799
3480.21	0.000547336
3491.24	0.000592953
3500.43	0.000632402
3511.46	0.000681405
3520.65	0.000723579
3531.68	0.00077573
3540.88	0.000820423
3550.07	0.000866194
3561.1	0.000922485
3570.29	0.000970488
3581.32	0.00102935
3590.51	0.00107943
3601.54	0.0011407
3610.74	0.00119274
3621.77	0.00125633
3630.96	0.00131029
3640.15	0.00136513
3651.18	0.00143214
3660.37	0.00148902
3671.4	0.00155859
3680.59	0.00161773
3691.62	0.00169022
3700.82	0.00175201
3710.01	0.00181517
3721.04	0.00189299
3730.23	0.00195973
3741.26	0.00204237
3750.45	0.00211366
3761.48	0.00220254
3770.68	0.00227978
3781.71	0.00237686
3790.9	0.00246199
3800.09	0.00255156
3811.12	0.00266581
3820.31	0.00276756
3831.34	0.00289887
3840.53	0.0030172
3851.56	0.00317176
3860.76	0.00331275
3871.79	0.00349909
3880.98	0.00367101
3890.17	0.00386049
3901.2	0.0041148
3910.39	0.00435274
3921.42	0.00467474
3930.62	0.00497819
3941.65	0.00539135
3950.84	0.00578266
3960.03	0.00622301
3971.06	0.00682557
3980.25	0.00739827
3991.28	0.00818274
4000.47	0.00892846
4011.51	0.00994929
4020.7	0.0109184
4031.73	0.0122425
4040.92	0.0134963
4050.11	0.014903
4061.14	0.0168158
4070.33	0.0186176
4081.37	0.0210572
4090.56	0.0233449
4101.59	0.0264277
4110.78	0.0293041
4121.81	0.0331597
4131	0.0367377
4140.19	0.0406742
4151.23	0.0459071
4160.42	0.0507225
4171.45	0.0570852
4180.64	0.0629047
4191.67	0.0705464
4200.86	0.0774918
4210.06	0.0849868
4221.09	0.0947369
4230.28	0.103515
4241.31	0.11486
4250.5	0.125006
4261.53	0.138029
4270.72	0.149598
4281.76	0.164345
4290.95	0.177354
4300.14	0.191013
4311.17	0.208245
4320.36	0.223289
4331.39	0.242131
4340.59	0.258459
4351.62	0.278755
4360.81	0.296209
4370	0.314107
4381.03	0.3361
4390.22	0.354791
4401.26	0.377567
4410.45	0.396757
4421.48	0.41993
4430.67	0.439275
4441.7	0.46241
4450.89	0.481526
4460.09	0.500404
4471.12	0.52262
4480.31	0.540665
4491.34	0.561626
4500.53	0.57841
4511.56	0.597603
4520.76	0.612705
4531.79	0.629633
4540.98	0.642652
4550.17	0.6546
4561.2	0.667425
4570.39	0.676774
4581.42	0.686299
4590.62	0.69276
4601.65	0.698673
4610.84	0.70202
4620.03	0.703896
4631.06	0.704171
4640.25	0.702734
4651.29	0.698996
4660.48	0.694202
4671.51	0.686443
4680.7	0.678323
4691.73	0.666626
4700.92	0.655285
4710.12	0.642532
4721.15	0.625424
4730.34	0.609719
4741.37	0.589213
4750.56	0.570808
4761.59	0.547236
4770.78	0.526431
4781.82	0.500174
4791.01	0.477301
4800.2	0.453606
4811.23	0.424192
4820.42	0.398953
4831.45	0.367912
4840.65	0.341506
4851.68	0.309289
4860.87	0.282091
4870.06	0.254656
4881.09	0.221527
4890.28	0.193833
4901.31	0.160606
4910.51	0.133002
4921.54	0.100083
4930.73	0.0728981
4941.76	0.0406674
4950.95	0.0142053
4960.15	-0.0118347
4971.18	-0.0424488
4980.37	-0.0673714
4991.4	-0.0964991
5000.59	-0.120069
5011.62	-0.147446
5020.81	-0.169459
5030.01	-0.190705
5041.04	-0.215141
5050.23	-0.234588
5061.26	-0.256784
5070.45	-0.274305
5081.48	-0.294129
5090.68	-0.309629
5101.71	-0.326985
5110.9	-0.3404
5120.09	-0.352856
5131.12	-0.36653
5140.31	-0.376864
5151.34	-0.387995
5160.54	-0.39622
5171.57	-0.404839
5180.76	-0.410993
5191.79	-0.417164
5200.98	-0.421315
5210.18	-0.424584
5221.21	-0.427371
5230.4	-0.428776
5241.43	-0.429397
5250.62	-0.42906
5261.65	-0.427673
5270.84	-0.425734
5280.04	-0.423116
5291.07	-0.419127
5300.26	-0.415136
5311.29	-0.409598
5320.48	-0.404401
5331.51	-0.397521
5340.71	-0.391293
5351.74	-0.383281
5360.93	-0.376199
5370.12	-0.368786
5381.15	-0.359505
5390.34	-0.351491
5401.37	-0.341591
5410.57	-0.333143
5421.6	-0.322819
5430.79	-0.314097
5441.82	-0.303534
5451.01	-0.294686
5460.21	-0.285826
5471.24	-0.275217
5480.43	-0.266424
5491.46	-0.255966
5500.65	-0.247355
5511.68	-0.237178
5520.87	-0.228849
5530.07	-0.220677
5541.1	-0.211101
5550.29	-0.20333
5561.32	-0.194276
5570.51	-0.186969
5581.54	-0.178502
5590.74	-0.171709
5601.77	-0.163882
5610.96	-0.157638
5620.15	-0.151652
5631.18	-0.144816
5640.37	-0.139411
5651.4	-0.133278
5660.6	-0.128462
5671.63	-0.123037
5680.82	-0.11881
5690.01	-0.114848
5701.04	-0.110441
5710.24	-0.107054
5721.27	-0.103327
5730.46	-0.100497
5741.49	-0.0974255
5750.68	-0.0951299
5761.71	-0.0926837
5770.9	-0.0908951
5780.1	-0.089327
5791.13	-0.0877267
5800.32	-0.0866195
5811.35	-0.0855514
5820.54	-0.0848696
5831.57	-0.0842896
5840.77	-0.0839953
5851.8	-0.0838566
5860.99	-0.0839096
5870.18	-0.0841068
5881.21	-0.084521
5890.4	-0.0850038
5901.44	-0.0857345
5910.63	-0.0864587
5921.66	-0.087452
5930.85	-0.0883722
5940.04	-0.0893663
5951.07	-0.0906432
5960.27	-0.091766
5971.3	-0.0931696
5980.49	-0.0943747
5991.52	-0.0958492
6000.71	-0.0970905
6011.74	-0.0985812
6020.93	-0.0998136
6030.13	-0.101027
6041.16	-0.102447
6050.35	-0.103589
6061.38	-0.104898
6070.57	-0.105928
6081.6	-0.107081
6090.8	-0.107962
6101.83	-0.108915
6111.02	-0.109615
6120.21	-0.110221
6131.24	-0.11082
6140.43	-0.111204
6151.47	-0.111521
6160.66	-0.111661
6171.69	-0.111675
6180.88	-0.111554
6190.07	-0.111311
6201.1	-0.110855
6210.3	-0.110337
6221.33	-0.109548
6230.52	-0.108752
6241.55	-0.107631
6250.74	-0.10656
6261.77	-0.105113
6270.97	-0.103775
6280.16	-0.102319
6291.19	-0.100421
6300.38	-0.0987178
6311.41	-0.0965337
6320.6	-0.0946017
6331.63	-0.092156
6340.83	-0.0900176
6350.02	-0.0877936
6361.05	-0.0850192
6370.24	-0.0826258
6381.27	-0.0796649
6390.47	-0.0771303
6401.5	-0.0740172
6410.69	-0.0713704
6421.72	-0.0681404
6430.91	-0.0654109
6440.1	-0.0626537
6451.13	-0.0593169
6460.33	-0.0565197
6471.36	-0.053152
6480.55	-0.0503431
6491.58	-0.0469778
6500.77	-0.0441842
6511.8	-0.0408528
6521	-0.0380999
6530.19	-0.0353734
6541.22	-0.0321428
6550.41	-0.0294903
6561.44	-0.0263613
6570.63	-0.0238033
6581.67	-0.0207989
6590.86	-0.0183536
6600.05	-0.0159651
6611.08	-0.0131781
6620.27	-0.0109251
6631.3	-0.00830897
6640.5	-0.00620467
6651.53	-0.00377399
6660.72	-0.00182968
6671.75	0.000403052
6680.94	0.00217784
6690.13	0.00387286
6701.17	0.0057995
6710.36	0.00731397
6721.39	0.00902027
6730.58	0.0103484
6741.61	0.0118282
6750.8	0.0129656
6761.83	0.0142144
6771.03	0.0151579
6780.22	0.0160125
6791.25	0.0169204
6800.44	0.0175788
6811.47	0.018251
6820.67	0.0187132
6831.7	0.0191506
6840.89	0.019418
6850.08	0.0195975
6861.11	0.0196982
6870.3	0.0196873
6881.33	0.0195622
6890.53	0.0193658
6901.56	0.0190216
6910.75	0.0186461
6921.78	0.0180916
6930.97	0.0175449
6940.17	0.0169236
6951.2	0.0160824
6960.39	0.0153044
6971.42	0.0142821
6980.61	0.0133594
6991.64	0.0121712
7000.83	0.011117
7010.03	0.0100079
7021.06	0.00860894
7030.25	0.00739033
7041.28	0.00586974
7050.47	0.00455817
7061.5	0.00293643
7070.7	0.00154946
7081.73	-0.000151822
7090.92	-0.00159579
7100.11	-0.00305941
7111.14	-0.00483608
7120.33	-0.00632887
7131.37	-0.00812884
7140.56	-0.00963123
7151.59	-0.0114309
7160.78	-0.0129232
7171.81	-0.014699
7181	-0.0161616
7190.2	-0.0176043
7201.23	-0.0193036
7210.42	-0.0206886
7221.45	-0.0223074
7230.64	-0.023616
7241.67	-0.0251322
7250.87	-0.0263464
7260.06	-0.027512
7271.09	-0.0288416
7280.28	-0.0298882
7291.31	-0.0310653
7300.5	-0.031977
7311.53	-0.0329834
7320.73	-0.0337456
7331.76	-0.0345644
7340.95	-0.0351637
7350.14	-0.0356849
7361.17	-0.036204
7370.36	-0.0365453
7381.4	-0.0368422
7390.59	-0.0369937
7401.62	-0.0370576
7410.81	-0.037011
7420	-0.036872
7431.03	-0.0365818
7440.23	-0.0362358
7451.26	-0.0356945
7460.45	-0.0351377
7471.48	-0.034342
7480.67	-0.0335725
7491.7	-0.0325213
7500.89	-0.0315392
7510.09	-0.0304611
7521.12	-0.0290417
7530.31	-0.0277552
7541.34	-0.0260885
7550.53	-0.0245989
7561.56	-0.022693
7570.76	-0.021008
7581.79	-0.0188732
7590.98	-0.0170028
7600.17	-0.0150519
7611.2	-0.0126083
7620.39	-0.0104901
7631.42	-0.00785443
7640.62	-0.00558379
7651.65	-0.00277512
7660.84	-0.00036895
7670.03	0.00209278
7681.06	0.00511456
7690.26	0.00768429
7701.29	0.0108234
7710.48	0.0134805
7721.51	0.0167114
7730.7	0.019434
7741.73	0.02273
7750.92	0.0254953
7760.12	0.0282724
7771.15	0.0316138
7780.34	0.0343999
7791.37	0.0377379
7800.56	0.0405097
7811.59	0.0438166
7820.78	0.046551
7831.82	0.0497996
7841.01	0.0524743
7850.2	0.0551147
7861.23	0.058232
7870.42	0.0607823
7881.45	0.0637797
7890.65	0.0662207
7901.68	0.0690762
7910.87	0.0713906
7920.06	0.0736421
7931.09	0.076257
7940.28	0.0783604
7951.31	0.08079
7960.51	0.0827333
7971.54	0.0849646
7980.73	0.0867382
7991.76	0.0887613
8000.95	0.0903581
8010.15	0.0918729
8021.18	0.0935814
8030.37	0.0949135
8041.4	0.0964016
8050.59	0.0975497
8061.62	0.0988174
8070.81	0.0997825
8080.01	0.100665
8091.04	0.101617
8100.23	0.102322
8111.26	0.103063
8120.45	0.103595
8131.48	0.104133
8140.68	0.104499
8151.71	0.104842
8160.9	0.10505
8170.09	0.105189
8181.12	0.105268
8190.31	0.105262
8201.34	0.105172
8210.54	0.105031
8221.57	0.104784
8230.76	0.104517
8241.79	0.104125
8250.98	0.103742
8260.18	0.10331
8271.21	0.102728
8280.4	0.102194
8291.43	0.101497
8300.62	0.100871
8311.65	0.100068
8320.84	0.0993592
8330.04	0.0986153
8341.07	0.097679
8350.26	0.0968646
8361.29	0.0958487
8370.48	0.0949719
8381.51	0.0938858
8390.71	0.0929541
8401.74	0.0918066
8410.93	0.0908273
8420.12	0.0898285
8431.15	0.0886061
8440.34	0.087569
8451.38	0.0863043
8460.57	0.0852348
8471.6	0.0839343
8480.79	0.0828376
8491.82	0.0815074
8501.01	0.0803882
8510.21	0.0792602
8521.24	0.0778959
8530.43	0.076751
8541.46	0.0753684
8550.65	0.0742096
8561.68	0.0728119
8570.88	0.0716416
8580.07	0.0704666
8591.1	0.0690507
8600.29	0.0678661
8611.32	0.0664389
8620.51	0.0652449
8631.54	0.0638063
8640.74	0.0626024
8651.77	0.0611512
8660.96	0.0599361
8670.15	0.0587152
8681.18	0.0572418
8690.38	0.0560063
8701.41	0.0545136
8710.6	0.0532604
8721.63	0.0517443
8730.82	0.0504698
8740.01	0.0491843
8751.05	0.0476259
8760.24	0.046313
8771.27	0.0447192
8780.46	0.0433747
8791.49	0.0417403
8800.68	0.0403598
8811.71	0.0386797
8820.91	0.0372592
8830.1	0.0358192
8841.13	0.0340646
8850.32	0.0325794
8861.35	0.0307689
8870.55	0.0292359
8881.58	0.0273667
8890.77	0.0257841
8901.8	0.0238547
8910.99	0.0222217
8920.18	0.0205657
8931.21	0.0185487
8940.41	0.0168433
8951.44	0.014768
8960.63	0.0130153
8971.66	0.0108851
8980.85	0.00908852
8990.05	0.00727347
9001.08	0.0050726
9010.27	0.00322095
9021.3	0.000979878
9030.49	-0.000901895
9041.52	-0.00317474
9050.71	-0.00507908
9061.75	-0.00737404
9070.94	-0.00929244
9080.13	-0.0112142
9091.16	-0.0135219
9100.35	-0.015444
9111.38	-0.017746
9120.58	-0.0196581
9131.61	-0.021942
9140.8	-0.0238337
9151.83	-0.0260866
9161.02	-0.0279472
9170.21	-0.02979
9181.25	-0.0319749
9190.44	-0.0337711
9201.47	-0.0358938
9210.66	-0.037633
9221.69	-0.0396812
9230.88	-0.0413535
9240.08	-0.0429921
9251.11	-0.0449116
9260.3	-0.04647
9271.33	-0.0482881
9280.52	-0.049758
9291.55	-0.0514653
9300.75	-0.0528392
9311.78	-0.0544274
9320.97	-0.055699
9330.16	-0.0569222
9341.19	-0.0583248
9350.38	-0.0594382
9361.41	-0.0607066
9370.61	-0.0617064
9381.64	-0.0628366
9390.83	-0.06372
9400.02	-0.06455
9411.05	-0.0654751
9420.25	-0.0661868
9431.28	-0.0669699
9440.47	-0.0675636
9451.5	-0.0682055
9460.69	-0.0686822
9471.72	-0.0691851
9480.91	-0.0695471
9490.11	-0.0698581
9501.14	-0.070165
9510.33	-0.0703665
9521.36	-0.0705446
9530.55	-0.0706413
9541.58	-0.0706969
9550.78	-0.0706943
9561.81	-0.0706344
9571	-0.0705388
9580.19	-0.0704032
9591.22	-0.0701898
9600.42	-0.0699715
9611.45	-0.0696633
9620.64	-0.0693699
9631.67	-0.0689764
9640.86	-0.0686159
9650.05	-0.0682277
9661.08	-0.0677275
9670.28	-0.0672841
9681.31	-0.0667227
9690.5	-0.0662324
9701.53	-0.0656196
9710.72	-0.0650905
9721.75	-0.0644359
9730.95	-0.0638758
9740.14	-0.0633042
9751.17	-0.0626051
9760.36	-0.0620133
9771.39	-0.061294
9780.58	-0.0606887
9791.62	-0.0599571
9800.81	-0.0593445
9810	-0.0587305
9821.03	-0.0579933
9830.22	-0.0573799
9841.25	-0.0566462
9850.45	-0.056038
9861.48	-0.055313
9870.67	-0.0547138
9881.7	-0.0540017
9890.89	-0.0534149
9900.09	-0.0528346
9911.12	-0.0521475
9920.31	-0.0515832
9931.34	-0.0509166
9940.53	-0.0503703
9951.56	-0.0497261
9960.75	-0.0491992
9971.79	-0.0485789
9980.98	-0.0480723
9990.17	-0.0475753
10001.2	-0.0469917
10010.4	-0.0465161
10021.4	-0.0459585
10030.6	-0.0455048
10041.6	-0.0449737
10050.8	-0.0445423
10060	-0.0441212
10071.1	-0.0436294
10080.3	-0.043231
10091.3	-0.0427667
10100.5	-0.0423914
10111.5	-0.0419552
10120.7	-0.0416035
10131.7	-0.0411958
10140.9	-0.0408683
10150.1	-0.0405519
10161.1	-0.0401873
10170.3	-0.0398961
10181.4	-0.0395621
10190.6	-0.0392969
10201.6	-0.0389948
10210.8	-0.0387567
10221.8	-0.0384877
10231	-0.0382777
10240.2	-0.0380809
10251.2	-0.0378625
10260.4	-0.0376956
10271.5	-0.0375138
10280.6	-0.037378
10291.7	-0.0372343
10300.9	-0.0371309
10310.1	-0.0370426
10321.1	-0.0369569
10330.3	-0.0369027
10341.3	-0.0368585
10350.5	-0.0368395
10361.5	-0.0368381
10370.7	-0.0368552
10381.8	-0.0368977
10391	-0.0369516
10400.1	-0.0370225
10411.2	-0.0371302
10420.4	-0.0372387
10431.4	-0.0373917
10440.6	-0.0375381
10451.6	-0.0377365
10460.8	-0.0379207
10470	-0.038122
10481	-0.0383859
10490.2	-0.0386244
10501.3	-0.0389325
10510.5	-0.0392073
10521.5	-0.0395584
10530.7	-0.0398684
10541.7	-0.0402609
10550.9	-0.0406046
10560.1	-0.0409631
10571.1	-0.041412
10580.3	-0.0418013
10591.3	-0.042286
10600.5	-0.0427039
10611.6	-0.0432213
10620.8	-0.0436651
10631.8	-0.0442118
10641	-0.0446785
10650.2	-0.0451545
10661.2	-0.0457372
10670.4	-0.0462313
10681.4	-0.0468335
10690.6	-0.0473421
10701.7	-0.0479593
10710.8	-0.0484785
10720	-0.0490011
10731.1	-0.0496317
10740.3	-0.0501591
10751.3	-0.0507927
10760.5	-0.0513204
10771.5	-0.0519519
10780.7	-0.0524756
10791.7	-0.0530996
10800.9	-0.0536148
10810.1	-0.0541247
10821.2	-0.0547282
10830.3	-0.0552231
10841.4	-0.0558058
10850.6	-0.0562812
10861.6	-0.0568378
10870.8	-0.057289
10881.8	-0.0578141
10891	-0.0582369
10900.2	-0.0586453
10911.2	-0.0591151
10920.4	-0.0594887
10931.5	-0.0599141
10940.7	-0.0602487
10951.7	-0.0606248
10960.9	-0.0609162
10970.1	-0.0611866
10981.1	-0.0614824
10990.3	-0.061704
11001.3	-0.061939
11010.5	-0.062108
11021.5	-0.0622777
11030.7	-0.0623907
11041.8	-0.0624911
11051	-0.0625446
11060.2	-0.0625701
11071.2	-0.0625628
11080.4	-0.0625244
11091.4	-0.0624387
11100.6	-0.0623337
11111.6	-0.0621666
11120.8	-0.0619925
11130	-0.0617862
11141	-0.0614956
11150.2	-0.0612171
11161.3	-0.0608387
11170.5	-0.0604862
11181.5	-0.0600181
11190.7	-0.0595902
11201.7	-0.0590308
11210.9	-0.0585263
11220.1	-0.0579868
11231.1	-0.0572929
11240.3	-0.0566759
11251.4	-0.0558889
11260.5	-0.0551941
11271.6	-0.0543139
11280.8	-0.0535417
11291.8	-0.0525688
11301	-0.0517196
11310.2	-0.0508358
11321.2	-0.0497298
11330.4	-0.0487705
11341.4	-0.0475749
11350.6	-0.0465418
11361.7	-0.0452586
11370.9	-0.0441535
11380	-0.0430165
11391.1	-0.0416105
11400.3	-0.040405
11411.3	-0.0389184
11420.5	-0.0376472
11431.5	-0.0360836
11440.7	-0.0347498
11451.7	-0.0331132
11460.9	-0.0317203
11470.1	-0.0303017
11481.2	-0.0285667
11490.4	-0.0270946
11501.4	-0.0252978
11510.6	-0.0237764
11521.6	-0.0219231
11530.8	-0.0203567
11541.8	-0.0184522
11551	-0.0168456
11560.2	-0.0152223
11571.2	-0.0132537
11580.4	-0.0115973
11591.5	-0.00959213
11600.7	-0.00790778
11611.7	-0.00587219
11620.9	-0.00416521
11630.1	-0.00244974
11641.1	-0.00038157
11650.3	0.00134856
11661.3	0.00343095
11670.5	0.00517011
11681.6	0.00725992
11690.7	0.00900239
11701.8	0.0110927
11711	0.0128327
11720.2	0.0145697
11731.2	0.0166483
11740.4	0.0183743
11751.4	0.0204363
11760.6	0.0221456
11771.6	0.024184
11780.8	0.0258707
11790	0.0275453
11801.1	0.0295371
11810.2	0.0311809
11821.3	0.0331324
11830.5	0.0347399
11841.5	0.0366446
11850.7	0.0382104
11861.7	0.040062
11870.9	0.0415811
11880.1	0.0430773
11891.1	0.0448412
11900.3	0.0462837
11911.4	0.0479806
11920.6	0.0493653
11931.6	0.0509903
11940.8	0.0523132
11951.8	0.053862
11961	0.0551197
11970.2	0.0563468
11981.2	0.0577782
11990.4	0.0589361
12001.4	0.0602832
12010.6	0.06137
12021.7	0.0626308
12030.9	0.063645
12040.1	0.064626
12051.1	0.0657592
12060.3	0.0666668
12071.3	0.0677119
12080.5	0.0685463
12091.5	0.0695041
12100.7	0.0702663
12111.8	0.0711383
12120.9	0.0718298
12130.1	0.0724899
12141.2	0.0732413
12150.4	0.0738342
12161.4	0.0745066
12170.6	0.0750353
12181.6	0.0756327
12190.8	0.0761008
12201.8	0.0766278
12211	0.0770392
12220.2	0.0774262
12231.3	0.0778599
12240.4	0.0781967
12251.5	0.0785728
12260.7	0.078864
12271.7	0.0791883
12280.9	0.0794388
12290.1	0.0796723
12301.1	0.0799314
12310.3	0.080131
12321.3	0.0803523
12330.5	0.0805226
12341.6	0.0807114
12350.8	0.0808567
12361.8	0.0810178
12371	0.081142
12380.2	0.0812578
12391.2	0.0813865
12400.4	0.0814861
12411.4	0.081597
12420.6	0.081683
12431.6	0.0817789
12440.8	0.0818533
12450	0.0819228
12461.1	0.0820002
12470.3	0.0820598
12481.3	0.0821255
12490.5	0.0821754
12501.5	0.0822293
12510.7	0.0822691
12521.7	0.0823101
12530.9	0.0823384
12540.1	0.082361
12551.1	0.0823798
12560.3	0.082388
12571.4	0.082388
12580.6	0.082379
12591.6	0.0823564
12600.8	0.0823268
12611.8	0.0822773
12621	0.0822233
12630.2	0.0821568
12641.2	0.0820593
12650.4	0.0819622
12661.5	0.0818251
12670.6	0.0816926
12681.7	0.0815103
12690.9	0.0813378
12700.1	0.0811454
12711.1	0.0808871
12720.3	0.0806477
12731.3	0.0803301
12740.5	0.080039
12751.5	0.0796567
12760.7	0.0793094
12771.8	0.0788572
12781	0.0784497
12790.1	0.0780135
12801.2	0.0774512
12810.4	0.0769495
12821.4	0.0763066
12830.6	0.0757363
12841.6	0.0750095
12850.8	0.0743681
12860	0.0736937
12871	0.0728405
12880.2	0.0720926
12891.3	0.0711504
12900.5	0.070328
12911.5	0.0692963
12920.7	0.0683993
12931.7	0.0672781
12940.9	0.0663069
12950.1	0.0653023
12961.1	0.0640531
12970.3	0.0629763
12981.3	0.0616417
12990.5	0.0604948
13001.6	0.0590777
13010.8	0.0578636
13021.8	0.0563679
13031	0.05509
13040.2	0.0537845
13051.2	0.0521825
13060.4	0.0508192
13071.4	0.0491508
13080.6	0.0477346
13091.7	0.0460058
13100.8	0.044542
13110	0.0430584
13121.1	0.0412536
13130.3	0.0397307
13141.3	0.0378825
13150.5	0.0363265
13161.5	0.0344424
13170.7	0.0328598
13181.7	0.0309476
13190.9	0.0293449
13200.1	0.0277354
13211.2	0.0257968
13220.3	0.0241771
13231.4	0.0222305
13240.6	0.0206074
13251.6	0.0186609
13260.8	0.0170413
13271.8	0.015103
13281	0.0134936
13290.2	0.0118911
13301.2	0.00997897
13310.4	0.00839614
13321.5	0.00651143
13330.7	0.00495455
13341.7	0.00310459
13350.9	0.0015796
13360.1	7.09692e-05
13371.1	-0.00171621
13380.3	-0.00318495
13391.3	-0.00492121
13400.5	-0.00634507
13411.5	-0.00802471
13420.7	-0.00939919
13431.8	-0.0110171
13441	-0.0123382
13450.2	-0.0136338
13461.2	-0.0151541
13470.4	-0.0163915
13481.4	-0.0178402
13490.6	-0.0190167
13501.6	-0.0203911
13510.8	-0.0215047
13520	-0.0225892
13531	-0.0238519
13540.2	-0.0248716
13551.3	-0.026056
13560.5	-0.0270103
13571.5	-0.0281161
13580.7	-0.029005
13591.7	-0.0300325
13600.9	-0.0308565
13610.1	-0.0316512
13621.1	-0.0325668
13630.3	-0.0332983
13641.4	-0.0341389
13650.5	-0.0348088
13661.6	-0.0355768
13670.8	-0.0361873
13681.8	-0.0368853
13691	-0.0374388
13700.2	-0.0379672
13711.2	-0.0385691
13720.4	-0.0390445
13731.4	-0.0395845
13740.6	-0.0400098
13751.7	-0.0404916
13760.9	-0.04087
13770	-0.0412281
13781.1	-0.0416318
13790.3	-0.0419475
13801.3	-0.0423022
13810.5	-0.0425785
13821.5	-0.0428878
13830.7	-0.0431278
13841.7	-0.0433953
13850.9	-0.0436017
13860.1	-0.0437938
13871.2	-0.0440061
13880.4	-0.0441685
13891.4	-0.0443465
13900.6	-0.0444815
13911.6	-0.0446279
13920.8	-0.0447374
13931.8	-0.0448545
13941	-0.0449405
13950.2	-0.0450162
13961.2	-0.045094
13970.4	-0.0451483
13981.5	-0.0452011
13990.7	-0.0452351
14001.7	-0.0452641
14010.9	-0.0452787
14020.1	-0.0452847
14031.1	-0.0452808
14040.3	-0.0452684
14051.3	-0.0452428
14060.5	-0.0452125
14071.6	-0.0451656
14080.7	-0.0451178
14091.8	-0.04505
14101	-0.044985
14110.2	-0.0449123
14121.2	-0.0448148
14130.4	-0.0447252
14141.4	-0.0446078
14150.6	-0.0445017
14161.6	-0.0443647
14170.8	-0.0442424
14180	-0.044113
14191.1	-0.0439484
14200.2	-0.0438035
14211.3	-0.0436207
14220.5	-0.043461
14231.5	-0.0432609
14240.7	-0.0430872
14251.7	-0.0428708
14260.9	-0.042684
14270.1	-0.0424916
14281.1	-0.0422538
14290.3	-0.04205
14301.4	-0.0417991
14310.6	-0.0415852
14321.6	-0.0413231
14330.8	-0.0411005
14341.8	-0.0408289
14351	-0.0405992
14360.2	-0.0403669
14371.2	-0.0400849
14380.4	-0.0398479
14391.4	-0.0395614
14400.6	-0.0393214
14411.7	-0.0390325
14420.9	-0.0387913
14430.1	-0.0385501
14441.1	-0.0382613
14450.3	-0.0380214
14461.3	-0.0377351
14470.5	-0.0374982
14481.5	-0.0372163
14490.7	-0.0369838
14501.8	-0.0367081
14510.9	-0.0364814
14520.1	-0.0362578
14531.2	-0.0359938
14540.4	-0.0357776
14551.4	-0.035523
14560.6	-0.0353152
14571.6	-0.035071
14580.8	-0.0348721
14590	-0.0346774
14601	-0.0344493
14610.2	-0.0342639
14621.3	-0.034047
14630.4	-0.0338709
14641.5	-0.0336649
14650.7	-0.0334976
14661.7	-0.0333019
14670.9	-0.0331427
14680.1	-0.0329869
14691.1	-0.0328041
14700.3	-0.0326548
14711.3	-0.032479
14720.5	-0.0323347
14731.6	-0.0321638
14740.8	-0.0320228
14751.8	-0.0318546
14761	-0.0317147
14770.2	-0.0315746
14781.2	-0.0314054
14790.4	-0.0312629
14801.4	-0.0310893
14810.6	-0.0309418
14821.6	-0.0307604
14830.8	-0.030605
14840	-0.030445
14851.1	-0.0302461
14860.3	-0.0300738
14871.3	-0.0298582
14880.5	-0.0296704
14891.5	-0.0294344
14900.7	-0.029228
14911.7	-0.0289677
14920.9	-0.0287396
14930.1	-0.0285005
14941.1	-0.0281984
14950.3	-0.0279332
14961.4	-0.0275979
14970.6	-0.0273038
14981.6	-0.0269322
14990.8	-0.0266065
15001.8	-0.0261957
15011	-0.0258362
15020.2	-0.0254607
15031.2	-0.0249884
15040.4	-0.0245764
15051.5	-0.0240596
15060.7	-0.0236099
15071.7	-0.0230472
15080.9	-0.0225589
15090.1	-0.022053
15101.1	-0.0214227
15110.3	-0.020878
15121.3	-0.0202014
15130.5	-0.0196186
15141.5	-0.0188967
15150.7	-0.0182768
15161.8	-0.0175114
15171	-0.0168561
15180.2	-0.0161855
15191.2	-0.0153614
15200.4	-0.0146591
15211.4	-0.0137987
15220.6	-0.0130678
15231.6	-0.0121752
15240.8	-0.0114195
15250	-0.0106539
15261	-0.00972323
15270.2	-0.00893897
15281.3	-0.00798887
15290.5	-0.00719083
15301.5	-0.00622723
15310.7	-0.00542056
15321.7	-0.00444983
15330.9	-0.00363994
15340.1	-0.00283043
15351.1	-0.00186116
15360.3	-0.00105659
15371.4	-9.66533e-05
15380.5	0.000697294
15391.6	0.00164109
15400.8	0.00241878
15411.8	0.00333975
15421	0.00409569
15430.2	0.00484
15441.2	0.0057163
15450.4	0.0064313
15461.4	0.00726951
15470.6	0.00795043
15481.7	0.00874506
15490.9	0.00938754
15500	0.0100112
15511.1	0.0107338
15520.3	0.0113136
15531.3	0.0119817
15540.5	0.0125145
15551.5	0.0131247
15560.7	0.0136082
15571.7	0.0141579
15580.9	0.0145902
15590.1	0.0149988
15601.2	0.0154576
15610.4	0.0158135
15621.4	0.0162088
15630.6	0.0165118
15641.6	0.0168437
15650.8	0.0170941
15661.8	0.0173635
15671	0.0175623
15680.2	0.0177382
15691.2	0.0179194
15700.4	0.018046
15711.5	0.0181694
15720.7	0.0182491
15731.7	0.0183176
15740.9	0.0183529
15750.1	0.018369
15761.1	0.0183638
15770.3	0.01834
15781.3	0.0182889
15790.5	0.0182284
15801.6	0.0181355
15810.7	0.018042
15821.8	0.0179115
15831	0.0177885
15840.2	0.0176533
15851.2	0.0174761
15860.4	0.0173167
15871.4	0.0171126
15880.6	0.0169326
15891.6	0.0167059
15900.8	0.0165087
15910	0.0163048
15921.1	0.0160521
15930.2	0.0158357
15941.3	0.0155697
15950.5	0.0153435
15961.5	0.0150675
15970.7	0.0148343
15981.7	0.0145512
15990.9	0.0143131
16000.1	0.0140735
16011.1	0.0137844
16020.3	0.0135427
16031.4	0.0132519
16040.6	0.0130094
16051.6	0.0127184
16060.8	0.0124762
16071.8	0.012186
16081	0.0119447
16090.2	0.0117039
16101.2	0.0114158
16110.4	0.0111763
16121.4	0.0108897
16130.6	0.0106513
16141.7	0.0103657
16150.9	0.010128
16160.1	0.00989025
16171.1	0.00960479
16180.3	0.00936648
16191.3	0.00907967
16200.5	0.00883965
16211.5	0.00855001
16220.7	0.00830694
16231.8	0.00801275
16240.9	0.00776512
16250.1	0.00751489
16261.2	0.00721067
16270.4	0.00695344
16281.4	0.00663977
16290.6	0.00637378
16301.6	0.00604848
16310.8	0.00577186
16321.8	0.00543271
16331	0.00514361
16340.2	0.00484821
16351.3	0.0044849
16360.4	0.00417433
16371.5	0.00379171
16380.7	0.00346415
16391.7	0.00306009
16400.9	0.00271381
16410.1	0.00235847
16421.1	0.00191965
16430.3	0.00154324
16441.3	0.00107823
16450.5	0.000679271
16461.6	0.000186382
16470.8	-0.00023645
16481.8	-0.000758723
16491	-0.00120661
16500.2	-0.00166623
16511.2	-0.00223354
16520.4	-0.00271963
16531.4	-0.00331917
16540.6	-0.00383247
16551.6	-0.00446501
16560.8	-0.00500606
16570	-0.00555984
16581.1	-0.00624126
16590.3	-0.0068232
16601.3	-0.00753845
16610.5	-0.00814856
16621.5	-0.0088975
16630.7	-0.00953555
16641.7	-0.0103178
16650.9	-0.0109833
16660.1	-0.011661
16671.1	-0.0124902
16680.3	-0.0131943
16691.4	-0.0140545
16700.6	-0.0147837
16711.6	-0.0156733
16720.8	-0.0164264
16731.8	-0.0173436
16741	-0.0181187
16750.2	-0.0189033
16761.2	-0.0198567
16770.4	-0.0206605
16781.5	-0.0216355
16790.6	-0.0224561
16801.7	-0.0234497
16810.9	-0.0242845
16820.1	-0.0251248
16831.1	-0.0261394
16840.3	-0.0269895
16851.3	-0.028014
16860.5	-0.0288706
16871.5	-0.0299008
16880.7	-0.0307603
16891.8	-0.0317917
16901	-0.0326503
16910.1	-0.0335071
16921.2	-0.0345319
16930.4	-0.0353819
16941.4	-0.0363958
16950.6	-0.0372347
16961.6	-0.0382326
16970.8	-0.0390558
16980	-0.0398704
16991	-0.0408352
17000.2	-0.0416275
17011.3	-0.0425626
17020.5	-0.0433278
17031.5	-0.0442277
17040.7	-0.0449612
17051.7	-0.0458201
17060.9	-0.0465171
17070.1	-0.047196
17081.1	-0.0479854
17090.3	-0.0486212
17101.3	-0.0493562
17110.5	-0.0499443
17121.6	-0.0506197
17130.8	-0.0511561
17141.8	-0.051767
17151	-0.0522477
17160.2	-0.0527019
17171.2	-0.0532109
17180.4	-0.0536042
17191.4	-0.0540383
17200.6	-0.0543677
17211.7	-0.0547233
17220.8	-0.0549861
17230	-0.0552179
17241.1	-0.0554545
17250.3	-0.0556167
17261.3	-0.0557689
17270.5	-0.0558601
17281.5	-0.0559264
17290.7	-0.0559457
17301.7	-0.0559254
17310.9	-0.0558725
17320.1	-0.0557867
17331.2	-0.0556406
17340.3	-0.0554831
17351.4	-0.0552514
17360.6	-0.0550232
17371.6	-0.0547076
17380.8	-0.0544102
17391.8	-0.0540127
17401	-0.0536483
17410.2	-0.0532541
17421.2	-0.0527428
17430.4	-0.0522854
17441.5	-0.0517
17450.7	-0.0511825
17461.7	-0.0505271
17470.9	-0.049953
17480.1	-0.0493545
17491.1	-0.0486052
17500.3	-0.0479558
17511.3	-0.0471478
17520.5	-0.0464517
17531.5	-0.0455902
17540.7	-0.0448517
17551.8	-0.0439421
17561	-0.0431657
17570.2	-0.0423735
17581.2	-0.0414035
17590.4	-0.0405801
17601.4	-0.0395752
17610.6	-0.038725
17621.6	-0.0376907
17630.8	-0.0368182
17640	-0.035937
17651	-0.0348692
17660.2	-0.033972
17671.3	-0.0328875
17680.5	-0.0319783
17691.5	-0.030882
17700.7	-0.0299648
17711.7	-0.0288611
17720.9	-0.0279397
17730.1	-0.0270175
17741.1	-0.0259108
17750.3	-0.0249893
17761.4	-0.0238854
17770.5	-0.0229678
17781.6	-0.0218702
17790.8	-0.0209593
17801.8	-0.0198714
17811	-0.0189697
17820.2	-0.0180731
17831.2	-0.0170044
17840.4	-0.0161204
17851.4	-0.0150682
17860.6	-0.0141989
17871.7	-0.0131653
17880.9	-0.0123124
17890	-0.0114675
17901.1	-0.0104647
17910.3	-0.00963848
17921.3	-0.00865888
17930.5	-0.0078527
17941.5	-0.00689784
17950.7	-0.00611285
17961.7	-0.00518406
17970.9	-0.00442132
17980.1	-0.003669
17991.2	-0.00278025
18000.4	-0.00205153
18011.4	-0.00119162
18020.6	-0.00048734
18031.6	0.000342758
18040.8	0.00102179
18051.8	0.00182112
18061	0.00247412
18070.2	0.00311503
18081.2	0.00386794
18090.4	0.00448169
18101.5	0.00520152
18110.7	0.00578729
18121.7	0.00647304
18130.9	0.00702998
18140.1	0.00757353
18151.1	0.00820784
18160.3	0.00872125
18171.3	0.00931881
18180.5	0.0098011
18191.6	0.0103607
18200.7	0.0108108
18211.8	0.0113312
18221	0.0117481
18230.2	0.0121495
18241.2	0.0126104
18250.4	0.0129769
18261.4	0.0133952
18270.6	0.0137255
18281.6	0.0140997
18290.8	0.0143927
18300	0.0146683
18311.1	0.0149757
18320.2	0.0152121
18331.3	0.0154718
18340.5	0.0156678
18351.5	0.0158783
18360.7	0.0160327
18371.7	0.0161925
18380.9	0.0163042
18390.1	0.016396
18401.1	0.0164798
18410.3	0.0165273
18421.4	0.0165573
18430.6	0.0165595
18441.6	0.0165346
18450.8	0.0164906
18461.8	0.0164098
18471	0.016319
18480.2	0.0162066
18491.2	0.0160432
18500.4	0.015883
18511.4	0.0156621
18520.6	0.0154538
18531.7	0.015175
18540.9	0.0149184
18550.1	0.0146398
18561.1	0.0142765
18570.3	0.0139496
18581.3	0.0135284
18590.5	0.0131535
18601.5	0.0126748
18610.7	0.0122522
18621.8	0.0117168
18630.9	0.0112472
18640.1	0.0107566
18651.2	0.0101404
18660.4	0.00960419
18671.4	0.00893399
18680.6	0.0083535
18691.6	0.00763101
18700.8	0.00700774
18710	0.0063656
18721	0.00557069
18730.2	0.00488848
18741.3	0.00404676
18750.5	0.00332668
18761.5	0.00244099
18770.7	0.00168556
18781.7	0.000759101
18790.9	-2.88465e-05
18800.1	-0.000830557
18811.1	-0.00180982
18820.3	-0.00263937
18831.3	-0.00364992
18840.5	-0.00450371
18851.6	-0.00554103
18860.8	-0.00641511
18871.8	-0.00747429
18881	-0.00836443
18890.2	-0.00926038
18901.2	-0.0103418
18910.4	-0.0112471
18921.4	-0.0123368
18930.6	-0.0132465
18941.7	-0.0143384
18950.8	-0.0152472
18960	-0.0161538
18971.1	-0.0172373
18980.3	-0.0181352
18991.3	-0.0192047
19000.5	-0.020088
19011.5	-0.0211366
19020.7	-0.0219996
19031.7	-0.0230202
19040.9	-0.0238569
19050.1	-0.0246797
19061.2	-0.025647
19070.3	-0.0264349
19081.4	-0.0273569
19090.6	-0.0281041
19101.6	-0.0289737
19110.8	-0.0296745
19121.8	-0.030485
19131	-0.0311338
19140.2	-0.0317572
19151.2	-0.0324702
19160.4	-0.0330341
19171.5	-0.0336727
19180.7	-0.0341721
19191.7	-0.0347308
19200.9	-0.0351615
19210.1	-0.0355595
19221.1	-0.0359931
19230.3	-0.0363168
19241.3	-0.0366591
19250.5	-0.0369053
19261.5	-0.0371528
19270.7	-0.0373188
19281.8	-0.0374689
19291	-0.0375526
19300.2	-0.0375985
19311.2	-0.0376032
19320.4	-0.037565
19331.4	-0.0374685
19340.6	-0.0373458
19351.6	-0.0371479
19360.8	-0.0369409
19370	-0.0366958
19381	-0.0363518
19390.2	-0.0360238
19401.3	-0.0355812
19410.5	-0.0351721
19421.5	-0.0346335
19430.7	-0.0341456
19441.7	-0.0335142
19450.9	-0.0329504
19460.1	-0.0323532
19471.1	-0.0315937
19480.3	-0.0309259
19491.4	-0.0300839
19500.5	-0.0293496
19511.6	-0.0284304
19520.8	-0.0276341
19531.8	-0.0266434
19541	-0.02579
19550.2	-0.0249123
19561.2	-0.0238286
19570.4	-0.0229015
19581.4	-0.0217619
19590.6	-0.0207909
19601.7	-0.0196021
19610.9	-0.018593
19620	-0.0175684
19631.1	-0.0163204
19640.3	-0.0152662
19651.3	-0.013986
19660.5	-0.0129081
19671.5	-0.0116029
19680.7	-0.010507
19691.7	-0.00918384
19700.9	-0.0080758
19710.1	-0.00696412
19721.2	-0.00562693
19730.4	-0.00451128
19741.4	-0.00317261
19750.6	-0.00205843
19761.6	-0.000724662
19770.8	0.000382862
19781.8	0.00170562
19791	0.00280151
19800.2	0.00389055
19811.2	0.00518703
19820.4	0.0062577
19831.5	0.00752954
19840.7	0.00857758
19851.7	0.00981984
19860.9	0.0108413
19870.1	0.0118495
19881.1	0.0130407
19890.3	0.0140171
19901.3	0.0151684
19910.5	0.0161099
19921.6	0.0172176
19930.7	0.0181214
19941.8	0.0191824
19951	0.0200461
19960.2	0.0208909
19971.2	0.0218791
19980.4	0.0226808
19991.4	0.0236163
