0	0
59.5073	0
119.015	0
178.522	0
238.029	0
297.537	0
357.044	0
416.551	0
476.058	0
535.566	0
595.073	0
654.58	0
714.088	0
773.595	0
833.102	0
892.61	0
952.117	0
1011.62	0
1071.13	0
1130.64	0
1190.15	0
1249.65	0
1309.16	0
1368.67	0
1428.18	0
1487.68	0
1547.19	0
1606.7	0
1666.2	0
1725.71	0
1785.22	0
1844.72	0
1904.23	0
1963.73	-9.09495e-13
2023.24	-2.81943e-11
2082.74	-2.7012e-10
2142.25	-1.67438e-09
2201.75	-7.8835e-09
2261.26	-3.03671e-08
2320.76	-1.00104e-07
2380.27	-2.90934e-07
2439.77	-7.6113e-07
2499.28	-1.81964e-06
2558.78	-4.02021e-06
2618.29	-8.27826e-06
2677.79	-1.599e-05
2737.3	-2.91111e-05
2796.8	-5.01217e-05
2856.31	-8.17763e-05
2915.81	-0.00012651
2975.32	-0.000185367
3034.82	-0.000256336
3094.33	-0.000332044
3153.84	-0.000396848
3213.34	-0.00042351
3272.85	-0.000369783
3332.36	-0.000175375
3391.87	0.000240127
3451.37	0.000977786
3510.88	0.00215773
3570.39	0.00391509
3629.89	0.00639322
3689.4	0.00973442
3748.91	0.0140685
3808.42	0.0195002
3867.92	0.0260958
3927.43	0.0338709
3986.94	0.0427805
4046.44	0.0527111
4105.95	0.0634785
4165.46	0.0748287
4224.97	0.0864453
4284.47	0.0979608
4343.98	0.108973
4403.49	0.119065
4462.99	0.127827
4522.5	0.134877
4582.01	0.139888
4641.51	0.142599
4701.02	0.142841
4760.53	0.140537
4820.04	0.135716
4879.54	0.128503
4939.05	0.119118
4998.56	0.107859
5058.07	0.0950873
5117.57	0.0812062
5177.08	0.066639
5236.59	0.051808
5296.09	0.0371149
5355.6	0.022923
5415.11	0.00954473
5474.62	-0.00276836
5534.12	-0.0138297
5593.63	-0.0235187
5653.14	-0.0317774
5712.65	-0.0386044
5772.15	-0.044047
5831.66	-0.0481914
5891.17	-0.0511533
5950.67	-0.0530673
6010.18	-0.0540788
6069.69	-0.0543358
6129.2	-0.0539824
6188.7	-0.0531539
6248.21	-0.0519731
6307.72	-0.0505479
6367.22	-0.0489701
6426.73	-0.0473155
6486.24	-0.0456437
6545.75	-0.0439999
6605.25	-0.0424158
6664.76	-0.0409114
6724.27	-0.0394971
6783.77	-0.0381748
6843.28	-0.0369405
6902.79	-0.0357852
6962.3	-0.0346965
7021.8	-0.0336601
7081.31	-0.0326604
7140.82	-0.0316817
7200.32	-0.0307088
7259.83	-0.0297275
7319.34	-0.028725
7378.84	-0.0276903
7438.35	-0.0266144
7497.86	-0.0254906
7557.36	-0.0243142
7616.87	-0.0230833
7676.38	-0.0217978
7735.88	-0.0204602
7795.39	-0.0190748
7854.9	-0.017648
7914.4	-0.0161877
7973.91	-0.0147031
8033.42	-0.0132046
8092.93	-0.0117031
8152.43	-0.01021
8211.94	-0.00873666
8271.45	-0.0072943
8330.95	-0.00589361
8390.46	-0.00454462
8449.97	-0.00325646
8509.47	-0.00203721
8568.98	-0.000893882
8628.49	0.000167745
8688	0.00114309
8747.5	0.00202879
8807.01	0.00282268
8866.52	0.0035237
8926.02	0.00413187
8985.53	0.00464817
9045.04	0.00507447
9104.55	0.00541337
9164.05	0.00566815
9223.56	0.00584261
9283.07	0.00594102
9342.57	0.00596797
9402.08	0.00592833
9461.59	0.00582712
9521.1	0.00566947
9580.6	0.00546055
9640.11	0.00520548
9699.62	0.00490934
9759.13	0.00457703
9818.63	0.00421331
9878.14	0.00382271
9937.65	0.00340952
9997.16	0.00297774
10056.7	0.00253108
10116.2	0.00207293
10175.7	0.00160634
10235.2	0.00113405
10294.7	0.000658466
10354.2	0.00018168
10413.7	-0.000294505
10473.2	-0.000768552
10532.7	-0.00123916
10592.2	-0.00170523
10651.7	-0.00216583
10711.2	-0.00262014
10770.8	-0.00306743
10830.3	-0.00350699
10889.8	-0.00393814
10949.3	-0.00436014
11008.8	-0.00477219
11068.3	-0.00517342
11127.8	-0.00556283
11187.3	-0.00593932
11246.8	-0.00630166
11306.3	-0.0066485
11365.8	-0.00697843
11425.3	-0.00728993
11484.8	-0.00758147
11544.3	-0.00785148
11603.9	-0.00809845
11663.4	-0.00832096
11722.9	-0.00851771
11782.4	-0.00868757
11841.9	-0.00882967
11901.4	-0.00894339
11960.9	-0.00902844
12020.4	-0.0090849
12079.9	-0.00911324
12139.4	-0.00911433
12198.9	-0.0090895
12258.4	-0.0090405
12317.9	-0.00896952
12377.4	-0.00887917
12437	-0.00877245
12496.5	-0.00865273
12556	-0.00852368
12615.5	-0.00838922
12675	-0.00825347
12734.5	-0.00812065
12794	-0.00799503
12853.5	-0.00788084
12913	-0.00778216
12972.5	-0.00770286
13032	-0.00764652
13091.5	-0.00761631
13151	-0.00761498
13210.5	-0.00764472
13270.1	-0.00770715
13329.6	-0.00780325
13389.1	-0.00793335
13448.6	-0.00809705
13508.1	-0.00829328
13567.6	-0.00852025
13627.1	-0.00877549
13686.6	-0.0090559
13746.1	-0.00935774
13805.6	-0.00967676
13865.1	-0.0100082
13924.6	-0.0103469
13984.1	-0.0106875
14043.7	-0.0110242
14103.2	-0.0113513
14162.7	-0.0116629
14222.2	-0.0119532
14281.7	-0.0122168
14341.2	-0.0124483
14400.7	-0.0126427
14460.2	-0.0127955
14519.7	-0.0129027
14579.2	-0.0129608
14638.7	-0.012967
14698.2	-0.0129191
14757.7	-0.0128155
14817.2	-0.0126554
14876.8	-0.0124387
14936.3	-0.012166
14995.8	-0.0118383
15055.3	-0.0114575
15114.8	-0.0110261
15174.3	-0.010547
15233.8	-0.0100235
15293.3	-0.00945948
15352.8	-0.00885916
15412.3	-0.00822695
15471.8	-0.00756753
15531.3	-0.00688571
15590.8	-0.00618636
15650.3	-0.00547439
15709.9	-0.00475463
15769.4	-0.00403182
15828.9	-0.00331054
15888.4	-0.00259517
15947.9	-0.00188984
16007.4	-0.0011984
16066.9	-0.000524408
16126.4	0.000128904
16185.9	0.000758645
16245.4	0.00136227
16304.9	0.00193758
16364.4	0.00248273
16423.9	0.00299621
16483.4	0.00347685
16543	0.0039238
16602.5	0.00433649
16662	0.00471467
16721.5	0.00505834
16781	0.00536774
16840.5	0.00564333
16900	0.00588579
16959.5	0.00609596
17019	0.00627484
17078.5	0.00642358
17138	0.00654341
17197.5	0.00663569
17257	0.00670185
17316.6	0.00674335
17376.1	0.00676171
17435.6	0.00675848
17495.1	0.0067352
17554.6	0.00669341
17614.1	0.00663463
17673.6	0.00656036
17733.1	0.00647203
17792.6	0.00637104
17852.1	0.00625872
17911.6	0.00613632
17971.1	0.00600502
18030.6	0.00586592
18090.1	0.00572003
18149.7	0.00556825
18209.2	0.0054114
18268.7	0.0052502
18328.2	0.00508527
18387.7	0.00491713
18447.2	0.00474622
18506.7	0.00457288
18566.2	0.00439736
18625.7	0.00421984
18685.2	0.00404041
18744.7	0.00385913
18804.2	0.00367596
18863.7	0.00349084
18923.2	0.00330367
18982.8	0.00311432
19042.3	0.00292264
19101.8	0.00272847
19161.3	0.00253167
19220.8	0.00233209
19280.3	0.00212962
19339.8	0.00192417
19399.3	0.0017157
19458.8	0.0015042
19518.3	0.00128971
19577.8	0.00107233
19637.3	0.000852221
19696.8	0.000629589
19756.3	0.000404703
19815.9	0.00017789
19875.4	-5.04704e-05
19934.9	-0.000279947
19994.4	-0.000510063
