0	0
41.6463	0
83.2925	0
124.939	0
166.585	0
208.231	0
249.878	0
291.524	0
333.17	0
374.816	0
416.463	0
458.109	0
499.755	0
541.402	0
583.048	0
624.694	0
666.34	0
707.987	0
749.633	0
791.279	0
832.925	0
874.572	0
916.218	0
957.864	0
999.511	0
1041.16	0
1082.8	0
1124.45	0
1166.1	0
1207.74	0
1249.39	0
1291.03	0
1332.68	0
1374.33	0
1415.97	0
1457.62	0
1499.27	0
1540.91	0
1582.56	0
1624.2	0
1665.85	0
1707.5	0
1749.14	0
1790.79	0
1832.44	0
1874.08	0
1915.73	0
1957.37	-9.09495e-13
1999.02	-6.36646e-12
2040.67	-3.00133e-11
2082.31	-1.11868e-10
2123.96	-3.71074e-10
2165.61	-1.12232e-09
2207.25	-3.12957e-09
2248.9	-8.11997e-09
2290.54	-1.97542e-08
2332.19	-4.53629e-08
2373.84	-9.88612e-08
2415.48	-2.05434e-07
2457.13	-4.08672e-07
2498.78	-7.8097e-07
2540.42	-1.43799e-06
2582.07	-2.55787e-06
2623.71	-4.40559e-06
2665.36	-7.36218e-06
2707.01	-1.19578e-05
2748.65	-1.89066e-05
2790.3	-2.91386e-05
2831.94	-4.38246e-05
2873.59	-6.43848e-05
2915.23	-9.24718e-05
2956.88	-0.000129916
2998.52	-0.000178623
3040.17	-0.000240402
3081.81	-0.000316718
3123.46	-0.000408359
3165.1	-0.000515
3206.75	-0.000634669
3248.39	-0.00076312
3290.04	-0.000893131
3331.68	-0.00101374
3373.33	-0.00110947
3414.97	-0.00115959
3456.62	-0.00113744
3498.26	-0.00100994
3539.91	-0.00073729
3581.55	-0.000272988
3623.2	0.000435835
3664.84	0.00144765
3706.49	0.00282535
3748.13	0.00463459
3789.78	0.00694167
3831.42	0.00981109
3873.07	0.0133026
3914.71	0.0174683
3956.36	0.022349
3998	0.0279713
4039.65	0.0343446
4081.3	0.041458
4122.94	0.0492783
4164.59	0.057748
4206.23	0.0667849
4247.88	0.0762822
4289.53	0.0861088
4331.17	0.0961121
4372.82	0.106121
4414.47	0.115948
4456.11	0.125399
4497.76	0.134271
4539.4	0.142365
4581.05	0.149489
4622.7	0.155464
4664.34	0.16013
4705.99	0.163354
4747.64	0.165029
4789.28	0.165085
4830.93	0.163484
4872.57	0.160229
4914.22	0.155358
4955.87	0.148944
4997.51	0.141098
5039.16	0.131957
5080.8	0.121685
5122.45	0.110469
5164.1	0.0985082
5205.74	0.0860117
5247.39	0.0731914
5289.04	0.060256
5330.68	0.0474056
5372.33	0.0348268
5413.97	0.0226883
5455.62	0.0111379
5497.27	0.000299718
5538.91	-0.00972709
5580.56	-0.0188689
5622.21	-0.0270774
5663.85	-0.0343282
5705.5	-0.0406197
5747.14	-0.0459701
5788.79	-0.0504148
5830.44	-0.0540038
5872.08	-0.0567984
5913.73	-0.0588677
5955.37	-0.0602863
5997.02	-0.061131
6038.67	-0.0614788
6080.31	-0.0614043
6121.96	-0.0609781
6163.61	-0.0602657
6205.25	-0.0593263
6246.9	-0.0582123
6288.54	-0.0569688
6330.19	-0.0556341
6371.84	-0.0542393
6413.48	-0.0528094
6455.13	-0.0513635
6496.77	-0.0499157
6538.42	-0.0484758
6580.07	-0.0470497
6621.71	-0.0456408
6663.36	-0.0442499
6705.01	-0.0428767
6746.65	-0.0415193
6788.3	-0.0401755
6829.94	-0.0388429
6871.59	-0.0375188
6913.24	-0.0362011
6954.88	-0.0348877
6996.53	-0.0335772
7038.18	-0.0322685
7079.82	-0.030961
7121.47	-0.0296547
7163.11	-0.0283496
7204.76	-0.0270465
7246.41	-0.0257462
7288.05	-0.0244498
7329.7	-0.0231589
7371.35	-0.0218748
7412.99	-0.0205993
7454.64	-0.0193343
7496.28	-0.0180818
7537.93	-0.0168439
7579.58	-0.0156229
7621.22	-0.0144214
7662.87	-0.0132419
7704.52	-0.0120872
7746.16	-0.0109602
7787.81	-0.00986402
7829.45	-0.00880186
7871.1	-0.00777703
7912.75	-0.00679289
7954.39	-0.00585286
7996.04	-0.00496033
8037.68	-0.00411863
8079.33	-0.00333097
8120.98	-0.00260041
8162.62	-0.00192974
8204.27	-0.0013215
8245.91	-0.000777889
8287.56	-0.000300718
8329.21	0.000108624
8370.85	0.000449208
8412.5	0.000720591
8454.15	0.000922835
8495.79	0.00105652
8537.44	0.00112273
8579.08	0.00112306
8620.73	0.00105961
8662.38	0.000934915
8704.02	0.000751953
8745.67	0.000514088
8787.31	0.000225026
8828.96	-0.000111237
8870.61	-0.000490467
8912.25	-0.000908246
8953.9	-0.00136003
8995.54	-0.00184121
9037.19	-0.00234716
9078.84	-0.00287328
9120.48	-0.00341506
9162.13	-0.00396813
9203.77	-0.00452828
9245.42	-0.00509149
9287.07	-0.00565397
9328.71	-0.00621221
9370.36	-0.00676292
9412.01	-0.00730314
9453.65	-0.00783017
9495.3	-0.00834159
9536.94	-0.00883528
9578.59	-0.0093094
9620.24	-0.00976238
9661.88	-0.0101929
9703.53	-0.0105998
9745.17	-0.0109824
9786.82	-0.01134
9828.47	-0.0116721
9870.11	-0.0119785
9911.76	-0.0122591
9953.41	-0.012514
9995.05	-0.0127433
10036.7	-0.0129473
10078.3	-0.0131265
10120	-0.0132813
10161.6	-0.0134124
10203.3	-0.0135202
10244.9	-0.0136056
10286.6	-0.0136692
10328.2	-0.0137118
10369.9	-0.0137342
10411.5	-0.013737
10453.2	-0.013721
10494.8	-0.013687
10536.5	-0.0136356
10578.1	-0.0135675
10619.7	-0.0134832
10661.4	-0.0133833
10703	-0.0132681
10744.7	-0.0131382
10786.3	-0.0129936
10828	-0.0128346
10869.6	-0.0126612
10911.3	-0.0124734
10952.9	-0.012271
10994.6	-0.0120538
11036.2	-0.0118214
11077.9	-0.0115735
11119.5	-0.0113095
11161.1	-0.0110288
11202.8	-0.0107308
11244.4	-0.010415
11286.1	-0.0100805
11327.7	-0.00972681
11369.4	-0.00935318
11411	-0.00895904
11452.7	-0.00854383
11494.3	-0.00810709
11536	-0.00764846
11577.6	-0.00716768
11619.3	-0.00666466
11660.9	-0.00613944
11702.5	-0.00559223
11744.2	-0.00502344
11785.8	-0.00443364
11827.5	-0.00382363
11869.1	-0.00319439
11910.8	-0.00254713
11952.4	-0.00188324
11994.1	-0.00120435
12035.7	-0.000512266
12077.4	0.000191008
12119	0.000903279
12160.7	0.00162218
12202.3	0.00234519
12243.9	0.00306963
12285.6	0.00379269
12327.2	0.00451146
12368.9	0.00522292
12410.5	0.00592396
12452.2	0.00661144
12493.8	0.00728214
12535.5	0.00793284
12577.1	0.0085603
12618.8	0.0091613
12660.4	0.00973264
12702.1	0.0102712
12743.7	0.0107738
12785.4	0.0112374
12827	0.0116592
12868.6	0.0120364
12910.3	0.0123661
12951.9	0.012646
12993.6	0.0128735
13035.2	0.0130463
13076.9	0.0131626
13118.5	0.0132202
13160.2	0.0132177
13201.8	0.0131536
13243.5	0.0130266
13285.1	0.0128358
13326.8	0.0125805
13368.4	0.0122605
13410	0.0118755
13451.7	0.0114258
13493.3	0.0109119
13535	0.0103348
13576.6	0.00969579
13618.3	0.00899638
13659.9	0.00823861
13701.6	0.00742482
13743.2	0.00655776
13784.9	0.00564055
13826.5	0.00467666
13868.2	0.00366993
13909.8	0.00262454
13951.4	0.00154502
13993.1	0.000436188
14034.7	-0.00069686
14076.4	-0.00184877
14118	-0.00301396
14159.7	-0.0041867
14201.3	-0.00536109
14243	-0.00653115
14284.6	-0.00769087
14326.3	-0.00883421
14367.9	-0.00995522
14409.6	-0.011048
14451.2	-0.0121069
14492.8	-0.0131264
14534.5	-0.0141013
14576.1	-0.0150265
14617.8	-0.0158976
14659.4	-0.0167102
14701.1	-0.0174607
14742.7	-0.0181456
14784.4	-0.0187622
14826	-0.0193081
14867.7	-0.0197814
14909.3	-0.0201809
14951	-0.0205058
14992.6	-0.0207558
15034.2	-0.0209313
15075.9	-0.0210331
15117.5	-0.0210624
15159.2	-0.021021
15200.8	-0.0209112
15242.5	-0.0207354
15284.1	-0.0204967
15325.8	-0.0201984
15367.4	-0.0198441
15409.1	-0.0194376
15450.7	-0.018983
15492.4	-0.0184845
15534	-0.0179463
15575.7	-0.017373
15617.3	-0.0167688
15658.9	-0.0161383
15700.6	-0.0154857
15742.2	-0.0148154
15783.9	-0.0141315
15825.5	-0.013438
15867.2	-0.0127389
15908.8	-0.0120376
15950.5	-0.0113378
15992.1	-0.0106426
16033.8	-0.00995507
16075.4	-0.00927787
16117.1	-0.00861353
16158.7	-0.0079643
16200.3	-0.00733216
16242	-0.00671888
16283.6	-0.00612597
16325.3	-0.00555469
16366.9	-0.0050061
16408.6	-0.00448103
16450.2	-0.00398014
16491.9	-0.00350386
16533.5	-0.00305246
16575.2	-0.00262606
16616.8	-0.00222462
16658.5	-0.00184796
16700.1	-0.00149579
16741.7	-0.00116769
16783.4	-0.000863155
16825	-0.000581602
16866.7	-0.000322359
16908.3	-8.46931e-05
16950	0.000132184
16991.6	0.000329109
17033.3	0.000506956
17074.9	0.000666633
17116.6	0.000809071
17158.2	0.000935221
17199.9	0.00104605
17241.5	0.00114253
17283.1	0.00122564
17324.8	0.00129635
17366.4	0.00135565
17408.1	0.0014045
17449.7	0.00144384
17491.4	0.00147464
17533	0.00149779
17574.7	0.00151423
17616.3	0.00152481
17658	0.00153039
17699.6	0.00153181
17741.3	0.00152985
17782.9	0.00152526
17824.5	0.00151878
17866.2	0.00151108
17907.8	0.0015028
17949.5	0.00149453
17991.1	0.00148681
18032.8	0.00148016
18074.4	0.00147501
18116.1	0.00147175
18157.7	0.00147074
18199.4	0.00147225
18241	0.00147653
18282.7	0.00148373
18324.3	0.00149399
18365.9	0.00150738
18407.6	0.0015239
18449.2	0.00154352
18490.9	0.00156614
18532.5	0.00159163
18574.2	0.0016198
18615.8	0.00165042
18657.5	0.00168323
18699.1	0.00171792
18740.8	0.00175414
18782.4	0.00179155
18824.1	0.00182974
18865.7	0.0018683
18907.4	0.00190682
18949	0.00194486
18990.6	0.00198197
19032.3	0.00201773
19073.9	0.0020517
19115.6	0.00208346
19157.2	0.00211259
19198.9	0.00213871
19240.5	0.00216146
19282.2	0.0021805
19323.8	0.00219551
19365.5	0.00220624
19407.1	0.00221244
19448.8	0.00221393
19490.4	0.00221054
19532	0.00220217
19573.7	0.00218876
19615.3	0.00217028
19657	0.00214676
19698.6	0.00211827
19740.3	0.00208492
19781.9	0.00204687
19823.6	0.00200431
19865.2	0.00195746
19906.9	0.0019066
19948.5	0.00185202
19990.2	0.00179404
