0	0
10.2685	0
20.5369	0
30.2348	0
40.503	0
50.2007	0
60.4688	0
70.1664	0
80.4344	0
90.1318	0
100.4	0
110.097	0
120.302	0
130.275	0
140.447	0
150.131	0
160.399	0
170.096	0
180.364	0
190.044	0
200.174	0
210.251	0
220.315	0
230.379	0
240.443	0
250.507	0
260.012	0
270.076	0
280.14	0
290.204	0
300.267	1.09139e-11
310.331	2.72848e-11
320.395	4.36557e-11
330.459	6.00267e-11
340.522	7.63976e-11
350.027	1.03682e-10
360.09	1.36424e-10
370.154	1.74623e-10
380.217	2.23736e-10
390.281	2.84672e-10
400.344	3.57431e-10
410.408	4.46562e-10
420.423	5.52973e-10
430.393	6.79393e-10
440.311	8.31278e-10
450.234	1.00954e-09
460.105	1.21872e-09
470.442	1.47702e-09
480.172	1.76078e-09
490.43	2.11094e-09
500.15	2.49383e-09
510.41	2.96041e-09
520.13	3.46881e-09
530.378	4.08363e-09
540.054	4.74483e-09
550.19	5.53064e-09
560.318	6.42376e-09
570.446	7.43239e-09
580.037	8.5065e-09
590.147	9.77616e-09
600.251	1.11986e-08
610.348	1.27875e-08
620.441	1.45601e-08
630.002	1.64237e-08
640.095	1.86019e-08
650.188	2.10148e-08
660.281	2.36832e-08
670.374	2.663e-08
680.466	2.98787e-08
690.028	3.32566e-08
700.121	3.71574e-08
710.213	4.14293e-08
720.306	4.60914e-08
730.398	5.11618e-08
740.479	5.66506e-08
750.01	6.22476e-08
760.065	6.85941e-08
770.121	7.54117e-08
780.176	8.27167e-08
790.232	9.05293e-08
800.287	9.88666e-08
810.343	1.07743e-07
820.398	1.17175e-07
830.453	1.27168e-07
840.508	1.3773e-07
850.035	1.48265e-07
860.09	1.59945e-07
870.145	1.72202e-07
880.2	1.85038e-07
890.255	1.98451e-07
900.311	2.12445e-07
910.366	2.2702e-07
920.421	2.42178e-07
930.476	2.57925e-07
940.002	2.73387e-07
950.057	2.90289e-07
960.112	3.07796e-07
970.167	3.25917e-07
980.222	3.44666e-07
990.277	3.64054e-07
1000.33	3.84101e-07
1010.39	4.0483e-07
1020.44	4.26262e-07
1030.5	4.48425e-07
1040.02	4.70124e-07
1050.08	4.93805e-07
1060.13	5.18323e-07
1070.19	5.43721e-07
1080.24	5.70049e-07
1090.3	5.97365e-07
1100.35	6.2573e-07
1110.41	6.55214e-07
1120.46	6.85893e-07
1130.52	7.17851e-07
1140.04	7.49395e-07
1150.1	7.84124e-07
1160.15	8.20434e-07
1170.21	8.58443e-07
1180.26	8.98278e-07
1190.32	9.40074e-07
1200.37	9.83972e-07
1210.43	1.03013e-06
1220.48	1.0787e-06
1230.01	1.1271e-06
1240.06	1.18088e-06
1250.12	1.2376e-06
1260.17	1.29747e-06
1270.23	1.36068e-06
1280.28	1.42746e-06
1290.34	1.49802e-06
1300.39	1.57262e-06
1310.45	1.65148e-06
1320.49	1.73478e-06
1330.51	1.82268e-06
1340	1.91055e-06
1350.02	2.00846e-06
1360.03	2.11191e-06
1370.03	2.22124e-06
1380.04	2.33681e-06
1390.04	2.45893e-06
1400.03	2.58774e-06
1410.03	2.72406e-06
1420.03	2.86806e-06
1430.04	3.02026e-06
1440.04	3.18163e-06
1450.04	3.35255e-06
1460.03	3.53319e-06
1470.03	3.72381e-06
1480.02	3.92448e-06
1490.02	4.13541e-06
1500.01	4.35645e-06
1510.48	4.59917e-06
1520.4	4.83996e-06
1530.33	5.09122e-06
1540.25	5.35308e-06
1550.18	5.6257e-06
1560.11	5.90931e-06
1570.03	6.20413e-06
1580.48	6.52691e-06
1590.41	6.84571e-06
1600.33	7.17674e-06
1610.22	7.51924e-06
1620.04	7.87212e-06
1630.36	8.25737e-06
1640.16	8.6377e-06
1650.48	9.05381e-06
1660.29	9.4648e-06
1670.09	9.89184e-06
1680.41	1.03596e-05
1690.21	1.08221e-05
1700.01	1.13033e-05
1710.33	1.18311e-05
1720.14	1.23538e-05
1730.45	1.29276e-05
1740.26	1.34964e-05
1750.06	1.40895e-05
1760.38	1.47413e-05
1770.18	1.53882e-05
1780.5	1.60998e-05
1790.3	1.68065e-05
1800.11	1.75444e-05
1810.43	1.83566e-05
1820.23	1.91632e-05
1830.03	2.0005e-05
1840.35	2.09301e-05
1850.15	2.1847e-05
1860.47	2.28531e-05
1870.27	2.38484e-05
1880.08	2.48831e-05
1890.4	2.60154e-05
1900.2	2.7133e-05
1910	2.82921e-05
1920.32	2.9558e-05
1930.12	3.08048e-05
1940.44	3.2165e-05
1950.24	3.35034e-05
1960.05	3.48879e-05
1970.37	3.63964e-05
1980.17	3.78795e-05
1990.49	3.94946e-05
2000.29	4.10819e-05
2010.09	4.27225e-05
2020.41	4.45089e-05
2030.21	4.62644e-05
2040.02	4.80789e-05
2050.34	5.0055e-05
2060.14	5.19973e-05
2070.46	5.41131e-05
2080.26	5.61933e-05
2090.06	5.83445e-05
2100.38	6.06887e-05
2110.18	6.29945e-05
2120.5	6.55079e-05
2130.3	6.79808e-05
2140.11	7.05401e-05
2150.43	7.33312e-05
2160.23	7.38579e-05
2170.03	7.25844e-05
2180.35	7.14784e-05
2190.15	7.06352e-05
2200.47	6.99517e-05
2210.27	6.94842e-05
2220.07	6.91832e-05
2230.39	6.90355e-05
2240.2	6.90464e-05
2250.51	6.92079e-05
2260.32	6.94966e-05
2270.12	6.99103e-05
2280.44	7.0475e-05
2290.24	7.11291e-05
2300.04	7.18936e-05
2310.36	7.2814e-05
2320.16	7.37952e-05
2330.48	7.49381e-05
2340.28	7.61267e-05
2350.09	7.74146e-05
2360.4	7.88767e-05
2370.21	8.0367e-05
2380.01	8.19563e-05
2390.33	8.37371e-05
2400.13	8.55328e-05
2410.45	8.75342e-05
2420.25	8.95433e-05
2430.05	9.16597e-05
2440.37	9.40064e-05
2450.17	9.63518e-05
2460.49	9.89463e-05
2470.29	0.000101534
2480.09	0.000104245
2490.41	0.000107238
2500.21	0.000110215
2510.02	0.00011333
2520.34	0.00011676
2530.14	0.00012017
2540.46	0.000123922
2550.26	0.000127636
2560.06	0.000131484
2570.38	0.00013567
2580.18	0.000139768
2590.5	0.000144205
2600.3	0.000148536
2610.1	0.000152977
2620.42	0.000157771
2630.22	0.000162442
2640.03	0.000167227
2650.34	0.000172393
2660.15	0.000177427
2670.47	0.000182865
2680.27	0.000188169
2690.03	0.000193594
2700.35	0.000199485
2710.15	0.000205247
2720.46	0.000211493
2730.26	0.00021761
2740.07	0.000223917
2750.38	0.000230773
2760.18	0.000237505
2770.5	0.000244834
2780.3	0.000252039
2790.1	0.000259493
2800.42	0.000267619
2810.22	0.000275617
2820.02	0.000283897
2830.34	0.000292931
2840.14	0.000301827
2850.46	0.000311536
2860.26	0.000321098
2870.06	0.000331005
2880.38	0.000341821
2890.18	0.000352479
2900.5	0.000364118
2910.3	0.000384984
2920.1	0.000412727
2930.42	0.000441763
2940.22	0.000469125
2950.02	0.00049625
2960.34	0.000524553
2970.14	0.000551233
2980.45	0.000579145
2990.26	0.000605556
3000.06	0.000631932
3010.37	0.000659738
3020.17	0.00068628
3030.49	0.000714447
3040.29	0.000741515
3050.09	0.000768979
3060.41	0.000798418
3070.21	0.000826984
3080.01	0.000856228
3090.33	0.000887843
3100.13	0.000918761
3110.45	0.000952283
3120.25	0.000984972
3130.05	0.00101836
3140.37	0.00105418
3150.17	0.00108883
3160.48	0.00112595
3170.28	0.00116188
3180.09	0.00119851
3190.4	0.00123794
3200.2	0.00127633
3210	0.00131577
3220.32	0.00135856
3230.12	0.0014006
3240.44	0.00144645
3250.24	0.00149169
3260.04	0.00153871
3270.36	0.00159025
3280.16	0.00164133
3290.47	0.00169736
3300.27	0.00177757
3310.08	0.001898
3320.39	0.00201828
3330.19	0.00212727
3340.51	0.00223791
3350.31	0.00234074
3360.11	0.00244296
3370.43	0.00255159
3380.23	0.00265728
3390.03	0.0027667
3400.35	0.00288627
3410.15	0.00300328
3420.46	0.00312979
3430.26	0.00325355
3440.06	0.00338168
3450.38	0.00352265
3460.18	0.00366385
3470.5	0.00382159
3480.3	0.00398139
3490.1	0.00427465
3500.42	0.00461982
3510.22	0.0049385
3520.02	0.00525671
3530.33	0.00560139
3540.13	0.00594218
3550.45	0.00630935
3560.25	0.00666924
3570.05	0.0070501
3580.37	0.00768287
3590.17	0.00838227
3600.48	0.00907518
3610.29	0.0097778
3620.09	0.0105345
3630.4	0.011899
3640.2	0.0132974
3650	0.0154778
3660.32	0.0199388
3670.12	0.0259061
3680.44	0.0313881
3690.24	0.036749
3700.04	0.041479
3710.36	0.0460697
3720.16	0.0497897
3730.47	0.0532292
3740.27	0.0564539
3750.07	0.0595843
3760.39	0.0626795
3770.19	0.0653175
3780.51	0.0678982
3790.31	0.0702937
3800.11	0.0726404
3810.43	0.0750007
3820.23	0.0771896
3830.03	0.0794406
3840.35	0.0819032
3850.15	0.0842483
3860.46	0.086663
3870.27	0.0889504
3880.07	0.0913
3890.38	0.0938656
3900.19	0.0963806
3910.5	0.0991236
3920.3	0.101864
3930.11	0.104759
3940.42	0.107943
3950.23	0.111051
3960.06	0.114223
3970.41	0.117622
3980.24	0.12091
3990.07	0.124251
4000.41	0.127819
4010.24	0.131261
4020.07	0.134746
4030.42	0.138444
4040.25	0.141967
4050.08	0.1455
4060.43	0.149244
4070.26	0.152849
4080.09	0.156535
4090.45	0.16054
4100.29	0.164506
4110.12	0.168664
4120.48	0.173279
4130.32	0.177922
4140.16	0.182862
4150.51	0.188445
4160.35	0.19418
4170.19	0.200399
4180.03	0.207166
4190.38	0.214948
4200.22	0.223033
4210.06	0.231858
4220.42	0.242026
4230.27	0.252608
4240.12	0.264177
4250.48	0.277521
4260.38	0.291457
4270.28	0.306671
4280.19	0.323225
4290.11	0.341195
4300	0.360519
4310.47	0.382544
4320.45	0.405063
4330.44	0.429073
4340.43	0.454521
4350.42	0.481343
4360.41	0.509443
4370.41	0.538689
4380.4	0.568914
4390.39	0.59992
4400.38	0.631482
4410.37	0.663353
4420.36	0.69527
4430.35	0.72695
4440.34	0.758096
4450.33	0.788394
4460.32	0.81751
4470.32	0.845097
4480.31	0.870791
4490.3	0.894224
4500.29	0.915019
4510.28	0.932801
4520.27	0.947194
4530.26	0.957821
4540.25	0.964305
4550.24	0.966272
4560.23	0.963349
4570.23	0.955178
4580.22	0.94142
4590.21	0.921771
4600.2	0.895969
4610.19	0.863813
4620.18	0.825171
4630.17	0.779992
4640.16	0.728313
4650.15	0.670253
4660.15	0.606002
4670.14	0.535776
4680.13	0.459756
4690.12	0.377998
4700.11	0.290338
4710.1	0.196298
4720.09	0.0950381
4730.08	-0.0109327
4740.08	-0.0619926
4750.07	-0.100569
4760.06	-0.124876
4770.05	-0.135211
4780.04	-0.152286
4790.03	-0.164899
4800.02	-0.175077
4810.01	-0.184412
4820.01	-0.189543
4830.52	-0.198193
4840.51	-0.204766
4850.01	-0.210079
4860.06	-0.214652
4870.1	-0.218694
4880.15	-0.222654
4890.2	-0.226417
4900.26	-0.229897
4910.31	-0.223986
4920.37	-0.225746
4930.42	-0.229663
4940.48	-0.23296
4950.01	-0.235595
4960.06	-0.237967
4970.12	-0.240003
4980.17	-0.241784
4990.23	-0.243378
5000.28	-0.244541
5010.34	-0.245586
5020.39	-0.246579
5030.45	-0.247536
5040.5	-0.24849
5050.03	-0.249373
5060.08	-0.250266
5070.14	-0.251108
5080.19	-0.251887
5090.25	-0.25254
5100.31	-0.246354
5110.36	-0.247153
5120.42	-0.248302
5130.47	-0.249478
5140.53	-0.250512
5150.05	-0.25136
5160.11	-0.252107
5170.16	-0.252722
5180.22	-0.253218
5190.27	-0.253606
5200.33	-0.253897
5210.38	-0.254099
5220.44	-0.254217
5230.49	-0.254257
5240.02	-0.254228
5250.07	-0.25413
5260.13	-0.253969
5270.18	-0.253747
5280.24	-0.253468
5290.29	-0.253089
5300.35	-0.252666
5310.4	-0.252207
5320.46	-0.251711
5330.52	-0.250999
5340.04	-0.250265
5350.1	-0.249474
5360.15	-0.248664
5370.19	-0.247835
5380.2	-0.246986
5390.22	-0.246114
5400.23	-0.245218
5410.24	-0.244299
5420.24	-0.243356
5430.25	-0.24239
5440.23	-0.241404
5450.23	-0.240393
5460.24	-0.239353
5470.24	-0.238292
5480.24	-0.230886
5490.24	-0.23034
5500.24	-0.22979
5510.24	-0.229239
5520.23	-0.228688
5530.23	-0.228141
5540.22	-0.227598
5550.22	-0.22706
5560.22	-0.226529
5570.18	-0.22601
5580.12	-0.225504
5590.04	-0.225011
5600.49	-0.224508
5610.42	-0.224046
5620.34	-0.2236
5630.27	-0.223169
5640.19	-0.222755
5650.12	-0.222356
5660.05	-0.221972
5670.49	-0.221582
5680.41	-0.221225
5690.26	-0.22088
5700.06	-0.220544
5710.38	-0.220195
5720.18	-0.219863
5730.5	-0.219511
5740.31	-0.219171
5750.11	-0.218823
5760.43	-0.218443
5770.23	-0.218069
5780.03	-0.217677
5790.35	-0.217245
5800.16	-0.216811
5810.48	-0.21633
5820.28	-0.215846
5830.08	-0.215334
5840.4	-0.214811
5850.2	-0.214333
5860.01	-0.213802
5870.33	-0.213189
5880.13	-0.212558
5890.45	-0.211845
5900.25	-0.211072
5910.05	-0.210209
5920.37	-0.209259
5930.18	-0.208318
5940.49	-0.207292
5950.3	-0.206284
5960.1	-0.205247
5970.42	-0.204124
5980.22	-0.203032
5990.02	-0.201914
6000.34	-0.200713
6010.15	-0.199549
6020.47	-0.198301
6030.27	-0.197095
6040.07	-0.19587
6050.39	-0.194562
6060.19	-0.193301
6070.51	-0.191957
6080.31	-0.190665
6090.12	-0.189358
6100.44	-0.187968
6110.24	-0.186636
6120.04	-0.185291
6130.36	-0.183865
6140.16	-0.182501
6150.48	-0.181056
6160.29	-0.179675
6170.09	-0.178288
6180.41	-0.176823
6190.21	-0.175426
6200.01	-0.174025
6210.33	-0.172549
6220.13	-0.174039
6230.45	-0.173083
6240.26	-0.171903
6250.06	-0.170698
6260.38	-0.16941
6270.18	-0.168173
6280.5	-0.16686
6290.3	-0.165605
6300.11	-0.164343
6310.42	-0.16301
6320.23	-0.161738
6330.03	-0.160462
6340.35	-0.159114
6350.15	-0.157829
6360.47	-0.156472
6370.27	-0.155179
6380.08	-0.15388
6390.39	-0.152507
6400.2	-0.151198
6410	-0.149884
6420.32	-0.148494
6430.12	-0.147168
6440.44	-0.145767
6450.24	-0.144431
6460.05	-0.143094
6470.37	-0.14169
6480.17	-0.140362
6490.49	-0.138971
6500.29	-0.137658
6510.09	-0.136353
6520.41	-0.134987
6530.22	-0.133696
6540.02	-0.13241
6550.34	-0.13106
6560.14	-0.12978
6570.46	-0.128433
6580.26	-0.127151
6590.06	-0.125866
6600.38	-0.124509
6610.19	-0.123213
6620.51	-0.121841
6630.31	-0.120529
6640.11	-0.118364
6650.43	-0.115687
6660.23	-0.113277
6670.04	-0.110987
6680.35	-0.10869
6690.16	-0.106599
6700.48	-0.104472
6710.28	-0.102503
6720.08	-0.100566
6730.4	-0.0985454
6740.2	-0.0966291
6750.01	-0.0947093
6760.33	-0.0926883
6770.13	-0.0907756
6780.45	-0.0887713
6790.25	-0.0868708
6800.06	-0.084965
6810.37	-0.0829414
6820.18	-0.0809914
6830.5	-0.0788997
6840.31	-0.0762273
6850.15	-0.0728969
6860.5	-0.0695327
6870.33	-0.0664357
6880.17	-0.0633687
6890	-0.0602768
6900.31	-0.0569698
6910.06	-0.0537998
6920.32	-0.0504765
6930.07	-0.0473241
6940.38	-0.0439397
6950.18	-0.0393318
6960.49	-0.0342168
6970.3	-0.0295963
6980.1	-0.0248577
6990.41	-0.0197676
7000.22	-0.0130174
7010.02	-0.00558969
7020.33	0.0031419
7030.13	0.0148172
7040.45	0.0331818
7050.25	0.0432184
7060.05	0.0506007
7070.37	0.055333
7080.17	0.0576436
7090.49	0.0583694
7100.29	0.0572975
7110.09	0.0567659
7120.41	0.0570424
7130.21	0.0576513
7140.01	0.0578325
7150.33	0.057384
7160.13	0.0568942
7170.45	0.0567627
7180.25	0.0569688
7190.05	0.0571673
7200.37	0.0574364
7210.17	0.0580319
7220.48	0.0589062
7230.29	0.0595176
7240.09	0.0596798
7250.4	0.0595938
7260.2	0.0595983
7270.01	0.0597573
7280.32	0.05991
7290.12	0.0599241
7300.44	0.0598766
7310.24	0.0598603
7320.04	0.0598158
7330.36	0.0596037
7340.16	0.0592304
7350.48	0.0588038
7360.28	0.0585301
7370.08	0.0584587
7380.4	0.0585891
7390.2	0.0588496
7400	0.0591377
7410.32	0.059303
7420.12	0.0591869
7430.44	0.0587384
7440.24	0.0580808
7450.04	0.0573173
7460.35	0.0565092
7470.16	0.0558122
7480.47	0.0552021
7490.27	0.054734
7500.08	0.0543033
7510.39	0.0537822
7520.19	0.0531645
7530.51	0.0524208
7540.31	0.0517303
7550.11	0.0511718
7560.43	0.050818
7570.23	0.0507396
7580.03	0.050895
7590.35	0.0512438
7600.15	0.0516646
7610.47	0.0521212
7620.27	0.0525328
7630.07	0.0529335
7640.39	0.0533883
7650.19	0.0539014
7660.5	0.0545663
7670.31	0.055328
7680.11	0.0562025
7690.42	0.0572145
7700.23	0.0582367
7710.03	0.05931
7720.34	0.0605082
7730.15	0.0617372
7740.46	0.0631536
7750.26	0.0646277
7760.06	0.0662187
7770.38	0.0679904
7780.18	0.0697292
7790.5	0.0715861
7800.3	0.0733633
7810.1	0.0751605
7820.42	0.0770951
7830.22	0.0789937
7840.02	0.0809608
7850.34	0.0830978
7860.14	0.0851693
7870.46	0.087364
7880.26	0.0894413
7890.06	0.091506
7900.38	0.0936793
7910.18	0.0957668
7920.5	0.0980098
7930.3	0.100188
7940.1	0.102392
7950.42	0.104695
7960.22	0.106813
7970.02	0.108813
7980.35	0.110757
7990.18	0.112442
8000.01	0.113984
8010.36	0.115483
8020.19	0.116824
8030.02	0.118107
8040.36	0.119401
8050.19	0.120565
8060.02	0.121639
8070.37	0.12264
8080.2	0.12344
8090.03	0.12407
8100.38	0.124531
8110.21	0.124759
8120.04	0.124758
8130.38	0.124478
8140.21	0.123914
8150.04	0.123027
8160.39	0.121725
8170.22	0.120133
8180.05	0.118213
8190.4	0.115873
8200.23	0.113396
8210.06	0.110719
8220.4	0.107737
8230.24	0.104786
8240.07	0.101751
8250.43	0.0984923
8260.27	0.0953538
8270.11	0.0921907
8280.46	0.0888514
8290.3	0.0856841
8300.14	0.0825328
8310.5	0.0792407
8320.33	0.0761409
8330.17	0.0730702
8340.01	0.0700321
8350.37	0.0668781
8360.21	0.0639376
8370.05	0.0610708
8380.42	0.0581605
8390.3	0.0555186
8400.2	0.05302
8410.1	0.0506903
8420.02	0.0485381
8430.47	0.0464706
8440.39	0.0446949
8450.32	0.0430961
8460.25	0.0416629
8470.17	0.0403799
8480.12	0.0392238
8490.11	0.0381696
8500.1	0.0371901
8510.09	0.0362526
8520.08	0.0353226
8530.07	0.0343676
8540.06	0.0333601
8550.06	0.0322791
8560.05	0.0311114
8570.04	0.0298509
8580.03	0.0284975
8590.02	0.0270558
8600.01	0.0255339
8610	0.0239427
8620.52	0.0222085
8630.51	0.020522
8640.5	0.0188173
8650.49	0.0171155
8660.49	0.0154382
8670.48	0.0138053
8680.47	0.0122336
8690.46	0.0107348
8700.45	0.00918975
8710.44	0.00806011
8720.43	0.0071684
8730.42	0.00541267
8740.42	0.00336999
8750.41	0.00124481
8760.4	-0.000735792
8770.39	-0.00255055
8780.38	-0.00430955
8790.37	-0.00404296
8800.36	-0.00556952
8810.35	-0.00719874
8820.35	-0.00942551
8830.34	-0.0121366
8840.33	-0.0146106
8850.32	-0.0168358
8860.31	-0.0187636
8870.3	-0.0204719
8880.29	-0.0220332
8890.29	-0.0234952
8900.28	-0.0248742
8910.27	-0.0262118
8920.26	-0.0275182
8930.25	-0.0287998
8940.24	-0.0300598
8950.23	-0.0312995
8960.22	-0.0285166
8970.22	-0.0297659
8980.21	-0.0327335
8990.2	-0.0342779
9000.19	-0.0357075
9010.18	-0.0370079
9020.17	-0.038186
9030.16	-0.0392548
9040.15	-0.0402208
9050.15	-0.0410946
9060.14	-0.0418876
9070.13	-0.0426104
9080.12	-0.0432739
9090.11	-0.043887
9100.1	-0.0444563
9110.09	-0.0449883
9120.09	-0.0454922
9130.08	-0.0459785
9140.07	-0.0463531
9150.06	-0.0466721
9160.04	-0.0470099
9170.02	-0.0473643
9180.01	-0.0477333
9190	-0.0481145
9200.52	-0.0485262
9210.51	-0.0489249
9220.5	-0.0493289
9230.49	-0.049737
9240.49	-0.0501475
9250.48	-0.0505613
9260.47	-0.0454626
9270.46	-0.0461114
9280.45	-0.0467332
9290.44	-0.0473291
9300.43	-0.0479004
9310.42	-0.048448
9320.41	-0.048973
9330.4	-0.0494762
9340.4	-0.0499587
9350.38	-0.050421
9360.34	-0.0508618
9370.27	-0.0512783
9380.19	-0.0516731
9390.12	-0.0520443
9400.04	-0.0523896
9410.49	-0.0527274
9420.42	-0.0530263
9430.34	-0.0533052
9440.27	-0.0535659
9450.2	-0.0538096
9460.12	-0.0540374
9470.52	-0.0542602
9480.34	-0.0544567
9490.14	-0.0546401
9500.46	-0.0548202
9510.26	-0.0549797
9520.06	-0.0551284
9530.38	-0.0552736
9540.19	-0.0554012
9550.5	-0.0555234
9560.31	-0.055627
9570.11	-0.0557188
9580.43	-0.055794
9590.23	-0.0558226
9600.04	-0.055838
9610.35	-0.0558406
9620.16	-0.0558307
9630.48	-0.055808
9640.28	-0.0557752
9650.08	-0.0557324
9660.4	-0.0556769
9670.2	-0.0556151
9680.01	-0.0555683
9690.33	-0.0555614
9700.13	-0.0555437
9710.45	-0.0555142
9720.25	-0.0554763
9730.05	-0.0554296
9740.37	-0.0553713
9750.18	-0.055308
9760.5	-0.0552333
9770.3	-0.0551553
9780.1	-0.0550707
9790.42	-0.0549751
9800.22	-0.0548783
9810.03	-0.054776
9820.35	-0.0546628
9830.15	-0.0545502
9840.47	-0.0544268
9850.27	-0.054305
9860.07	-0.0541791
9870.39	-0.0540423
9880.2	-0.0539085
9890.51	-0.0537638
9900.32	-0.0536228
9910.12	-0.0534785
9920.44	-0.0533231
9930.24	-0.0521342
9940.05	-0.052019
9950.36	-0.0518969
9960.17	-0.0517799
9970.49	-0.0516555
9980.29	-0.0515359
9990.09	-0.0514148
10000.4	-0.0512857
10010.2	-0.0511611
10020	-0.0510348
10030.3	-0.0508997
10040.1	-0.0507694
10050.5	-0.0506301
10060.3	-0.0504955
10070.1	-0.0503587
10080.4	-0.0502122
10090.2	-0.0500705
10100.5	-0.0499187
10110.3	-0.0497719
10120.1	-0.0496224
10130.4	-0.0494619
10140.2	-0.0493065
10150	-0.0491481
10160.4	-0.0489779
10170.2	-0.0488118
10180.5	-0.0486318
10190.3	-0.0484558
10200.1	-0.048275
10210.4	-0.0480795
10220.2	-0.0478888
10230	-0.0476934
10240.3	-0.0474825
10250.1	-0.0472772
10260.4	-0.0470561
10270.3	-0.0467997
10280.1	-0.0465035
10290.4	-0.0461896
10300.2	-0.0458893
10310.5	-0.0455712
10320.3	-0.0452669
10330.1	-0.0449607
10340.4	-0.0446361
10350.2	-0.0443258
10360	-0.0440135
10370.3	-0.0436827
10380.1	-0.0433679
10390.5	-0.0430364
10400.3	-0.0427211
10410.1	-0.0424049
10420.4	-0.042071
10430.2	-0.0417525
10440.5	-0.0414156
10450.3	-0.0410938
10460.1	-0.0407703
10470.4	-0.0404278
10480.2	-0.0401004
10490	-0.039771
10500.4	-0.039422
10510.2	-0.0390884
10520.5	-0.0387349
10530.3	-0.0383971
10540.1	-0.0380572
10550.4	-0.0376973
10560.2	-0.0373535
10570	-0.0370077
10580.3	-0.0366419
10590.1	-0.0362925
10600.5	-0.0359231
10610.3	-0.0355705
10620.1	-0.0352164
10630.4	-0.0348422
10640.2	-0.0344863
10650.5	-0.0341118
10660.3	-0.0337562
10670.1	-0.0334009
10680.4	-0.0330271
10690.2	-0.0326724
10700	-0.0323182
10710.4	-0.0319458
10720.1	-0.0315937
10730.4	-0.0312234
10740.2	-0.0308716
10750	-0.0304923
10760.3	-0.0300892
10770.1	-0.0297103
10780.5	-0.0293157
10790.3	-0.0289448
10800.1	-0.0285777
10810.4	-0.0281954
10820.2	-0.0278359
10830.5	-0.0274615
10840.3	-0.0271094
10850.1	-0.0267607
10860.4	-0.0263973
10870.2	-0.0260554
10880	-0.0257167
10890.3	-0.0253635
10900.1	-0.025031
10910.5	-0.0246842
10920.3	-0.0243575
10930.1	-0.0240335
10940.4	-0.0236952
10950.2	-0.0233765
10960.5	-0.0230435
10970.3	-0.0227295
10980.1	-0.0224178
10990.4	-0.0220926
11000.2	-0.0217877
11010	-0.0214861
11020.3	-0.021172
11030.1	-0.0208764
11040.5	-0.0205679
11050.3	-0.0202771
11060.1	-0.0199877
11070.4	-0.0196923
11080.2	-0.0194233
11090.5	-0.0191497
11100.3	-0.0188972
11110.1	-0.0186522
11120.4	-0.0184019
11130.2	-0.0181706
11140	-0.0179447
11150.3	-0.0177117
11160.1	-0.0174938
11170.5	-0.0172671
11180.3	-0.0170533
11190.1	-0.0168401
11200.4	-0.0166157
11210.2	-0.0164016
11220.5	-0.0161745
11230.3	-0.0159565
11240.1	-0.0157358
11250.4	-0.0154999
11260.2	-0.015272
11270	-0.0150403
11280.3	-0.0147924
11290.1	-0.014553
11300.4	-0.0142967
11310.2	-0.014049
11320.1	-0.0137972
11330.4	-0.0135279
11340.2	-0.0132684
11350.5	-0.0129916
11360.3	-0.0127251
11370.1	-0.0124552
11380.4	-0.012167
11390.2	-0.0118894
11400	-0.0116077
11410.3	-0.0113092
11420.1	-0.0110282
11430.4	-0.0107331
11440.2	-0.0104515
11450	-0.0101674
11460.4	-0.0098575
11470.2	-0.00941885
11480.5	-0.00893592
11490.3	-0.00846617
11500.1	-0.00799136
11510.4	-0.00748986
11520.2	-0.00701409
11530	-0.00653993
11540.3	-0.00604267
11550.1	-0.00557254
11560.4	-0.00508031
11570.2	-0.00461442
11580	-0.00414907
11590.4	-0.00365947
11600.2	-0.00319556
11610.5	-0.00270805
11620.3	-0.00223998
11630.1	-0.00176457
11640.4	-0.00125526
11650.2	-0.000384367
11660.5	0.000843927
11670.3	0.00192628
11680.1	0.00292079
11690.4	0.00387903
11700.2	0.00471279
11710	0.00548364
11720.4	0.0062378
11730.2	0.00693063
11740.5	0.00785543
11750.3	0.00885519
11760.1	0.00971275
11770.4	0.0105583
11780.2	0.0113564
11790.5	0.0122577
11800.3	0.0135993
11810.1	0.0149861
11820.4	0.018045
11830.2	0.0229241
11840	0.02708
11850.4	0.0319599
11860.2	0.0367195
11870.5	0.0416491
11880.3	0.0463744
11890.1	0.0507734
11900.4	0.0554307
11910.2	0.059858
11920.5	0.0643242
11930.3	0.0682074
11940.1	0.0717199
11950.4	0.0750983
11960.2	0.0780815
11970	0.0807977
11980.3	0.0832968
11990.1	0.0853402
