0	0
10.9809	0
20.9634	0
30.9459	0
40.9283	0
50.9107	0
60.307	0
70.2892	0
80.1799	0
90.1619	0
100.144	0
110.126	0
120.476	0
130.408	0
140.236	0
150.023	0
160.786	0
170.281	0
180.066	0
190.182	0
200.502	0
210.308	2.72848e-12
220.092	1.18234e-11
230.854	2.18279e-11
240.639	3.09228e-11
250.423	4.00178e-11
260.207	4.91127e-11
270.97	6.27551e-11
280.754	8.0945e-11
290.538	9.91349e-11
300.323	1.19144e-10
310.107	1.46429e-10
320.869	1.76442e-10
330.653	2.12822e-10
340.437	2.50111e-10
350.22	2.95586e-10
360.925	3.51974e-10
370.631	4.09273e-10
380.271	4.73847e-10
390.885	5.55701e-10
400.493	6.39375e-10
410.042	7.33962e-10
420.457	8.49468e-10
430.852	9.81345e-10
440.301	1.11595e-09
450.696	1.28421e-09
460.146	1.4561e-09
470.541	1.66983e-09
480.909	1.91176e-09
490.287	2.16005e-09
500.551	2.46746e-09
510.813	2.81671e-09
520.141	3.17596e-09
530.394	3.62343e-09
540.637	4.13002e-09
550.873	4.70664e-09
560.172	5.29872e-09
570.397	6.0345e-09
580.623	6.87487e-09
590.849	7.8262e-09
600.145	8.79936e-09
610.371	9.99717e-09
620.596	1.13378e-08
630.822	1.28266e-08
640.118	1.43154e-08
650.343	1.61099e-08
660.569	1.80771e-08
670.794	2.02235e-08
680.09	2.23317e-08
690.308	2.48237e-08
700.505	2.74931e-08
710.693	3.0338e-08
720.881	3.33584e-08
730.142	3.62506e-08
740.33	3.95894e-08
750.518	4.30864e-08
760.706	4.67353e-08
770.893	5.05306e-08
780.155	5.41049e-08
790.342	5.81676e-08
800.53	6.2365e-08
810.718	6.66951e-08
820.905	7.11552e-08
830.166	7.53244e-08
840.354	8.00374e-08
850.541	8.48886e-08
860.729	8.98845e-08
870.916	9.50322e-08
880.177	9.98543e-08
890.365	1.0533e-07
900.552	1.11005e-07
910.739	1.16898e-07
920.001	1.22466e-07
930.188	1.28852e-07
940.375	1.35545e-07
950.562	1.42585e-07
960.75	1.50018e-07
970.011	1.57162e-07
980.198	1.65496e-07
990.385	1.74394e-07
1000.57	1.83923e-07
1010.76	1.94164e-07
1020.02	2.04163e-07
1030.21	2.16006e-07
1040.39	2.28827e-07
1050.58	2.42732e-07
1060.77	2.57836e-07
1070.03	2.72712e-07
1080.22	2.90454e-07
1090.4	3.09778e-07
1100.59	3.30834e-07
1110.78	3.53784e-07
1120.04	3.76436e-07
1130.23	4.03489e-07
1140.41	4.32969e-07
1150.6	4.65078e-07
1160.79	5.00034e-07
1170.05	5.34476e-07
1180.23	5.75518e-07
1190.42	6.20113e-07
1200.61	6.68528e-07
1210.8	7.21047e-07
1220.06	7.72605e-07
1230.24	8.33797e-07
1240.43	9.00001e-07
1250.62	9.7156e-07
1260.8	1.04883e-06
1270.06	1.12436e-06
1280.24	1.21347e-06
1290.39	1.3092e-06
1300.53	1.41215e-06
1310.68	1.52277e-06
1320.82	1.64142e-06
1330.03	1.75674e-06
1340.17	1.89229e-06
1350.29	2.03794e-06
1360.42	2.19441e-06
1370.55	2.36225e-06
1380.69	2.54153e-06
1390.82	2.73241e-06
1400.03	2.91615e-06
1410.16	3.12962e-06
1420.29	3.35495e-06
1430.42	3.59257e-06
1440.54	3.84244e-06
1450.67	4.10485e-06
1460.78	4.37926e-06
1470.84	4.66539e-06
1480.89	4.9645e-06
1490.04	5.2481e-06
1500.09	5.57331e-06
1510.15	5.91286e-06
1520.21	6.26729e-06
1530.26	6.63723e-06
1540.32	7.02334e-06
1550.38	7.42639e-06
1560.42	7.84689e-06
1570.42	8.28378e-06
1580.35	8.73678e-06
1590.28	9.21015e-06
1600.22	9.70478e-06
1610.15	1.02218e-05
1620.08	1.07626e-05
1630.01	1.13282e-05
1640.85	1.19754e-05
1650.78	1.25978e-05
1660.71	1.32497e-05
1670.64	1.39326e-05
1680.57	1.46482e-05
1690.51	1.53982e-05
1700.44	1.61844e-05
1710.37	1.70087e-05
1720.3	1.78729e-05
1730.23	1.87787e-05
1740.17	1.97273e-05
1750.1	2.07202e-05
1760.03	2.17582e-05
1770.86	2.29433e-05
1780.8	2.40789e-05
1790.73	2.52626e-05
1800.66	2.64952e-05
1810.59	2.77776e-05
1820.52	2.91107e-05
1830.45	3.04954e-05
1840.39	3.19327e-05
1850.32	3.34237e-05
1860.25	3.49695e-05
1870.18	3.65713e-05
1880.11	3.82306e-05
1890.05	3.99487e-05
1900.88	4.18919e-05
1910.81	4.37382e-05
1920.74	4.56487e-05
1930.67	4.76253e-05
1940.61	4.96702e-05
1950.54	5.17857e-05
1960.47	5.39741e-05
1970.4	5.6238e-05
1980.33	5.85801e-05
1990.26	6.10032e-05
2000.2	6.351e-05
2010.13	6.61038e-05
2020.06	6.87877e-05
2030.89	7.18222e-05
2040.82	7.47053e-05
2050.76	7.76892e-05
2060.69	8.07777e-05
2070.62	8.35245e-05
2080.55	8.19696e-05
2090.48	8.06777e-05
2100.41	7.96306e-05
2110.34	7.88119e-05
2120.28	7.8207e-05
2130.21	7.78024e-05
2140.14	7.75856e-05
2150.07	7.75449e-05
2160	7.76702e-05
2170.83	7.79855e-05
2180.77	7.84295e-05
2190.7	7.90147e-05
2200.63	7.97349e-05
2210.56	8.05849e-05
2220.49	8.15603e-05
2230.42	8.26577e-05
2240.35	8.3874e-05
2250.28	8.5207e-05
2260.22	8.66554e-05
2270.15	8.8218e-05
2280.08	8.98945e-05
2290.01	9.16852e-05
2300.84	9.37695e-05
2310.77	9.58015e-05
2320.7	9.79511e-05
2330.64	0.00010022
2340.57	0.000102612
2350.5	0.000105128
2360.43	0.000107773
2370.36	0.000110548
2380.29	0.000113459
2390.22	0.000116508
2400.15	0.0001197
2410.08	0.00012304
2420.02	0.000126531
2430.85	0.000130519
2440.78	0.000134344
2450.71	0.000138338
2460.64	0.0001425
2470.57	0.000146814
2480.5	0.000151271
2490.44	0.000155861
2500.37	0.000160579
2510.3	0.00016542
2520.23	0.000170383
2530.16	0.000175467
2540.09	0.000180672
2550.02	0.000186001
2560.86	0.000191959
2570.79	0.000197558
2580.72	0.000203293
2590.65	0.000209172
2600.58	0.0002152
2610.51	0.000221387
2620.44	0.00022774
2630.38	0.00023427
2640.27	0.00024096
2650.2	0.00024787
2660.13	0.000254992
2670.06	0.000262336
2680.89	0.000270614
2690.82	0.00027846
2700.75	0.000286565
2710.68	0.000294939
2720.61	0.000303596
2730.54	0.000312545
2740.47	0.0003218
2750.4	0.00033137
2760.33	0.000341269
2770.26	0.000351509
2780.19	0.000362101
2790.12	0.000373061
2800.05	0.000384402
2810.89	0.000397226
2820.82	0.000414329
2830.75	0.000444691
2840.68	0.000474916
2850.61	0.000504916
2860.54	0.000534646
2870.47	0.000564095
2880.4	0.000593279
2890.33	0.000622233
2900.26	0.000651008
2910.19	0.00067967
2920.12	0.000708295
2930.05	0.000736966
2940.88	0.000768403
2950.81	0.000797468
2960.74	0.000826871
2970.67	0.00085671
2980.6	0.000887083
2990.53	0.000918087
3000.46	0.000949819
3010.39	0.000982373
3020.32	0.00101583
3030.25	0.00105011
3040.18	0.00108507
3050.11	0.00112063
3060.04	0.00115674
3070.87	0.00119677
3080.8	0.00123407
3090.73	0.00127203
3100.66	0.00131074
3110.59	0.0013503
3120.52	0.00139084
3130.45	0.00143253
3140.38	0.0014755
3150.31	0.0015199
3160.24	0.00156589
3170.17	0.00161359
3180.1	0.00166314
3190.03	0.00171468
3200.86	0.00177337
3210.79	0.0018733
3220.72	0.00199318
3230.65	0.00210655
3240.58	0.00221445
3250.51	0.00231832
3260.09	0.0024163
3270.02	0.00251703
3280.86	0.0026279
3290.79	0.00273201
3300.72	0.0028399
3310.64	0.00295192
3320.57	0.00306716
3330.5	0.00318539
3340.43	0.00330702
3350.36	0.00343292
3360.29	0.00356435
3370.22	0.00370276
3380.15	0.00384947
3390.08	0.00400563
3400.01	0.00428641
3410.84	0.00463005
3420.77	0.00493507
3430.7	0.00523962
3440.63	0.00555379
3450.56	0.00588331
3460.49	0.00622235
3470.42	0.00657242
3480.35	0.00694325
3490.28	0.00745442
3500.21	0.00817096
3510.14	0.00882471
3520.07	0.00951965
3530.9	0.0103395
3540.83	0.0116413
3550.76	0.0130433
3560.69	0.0152055
3570.62	0.0194572
3580.55	0.0265382
3590.47	0.0328725
3600.4	0.0394559
3610.33	0.045388
3620.26	0.0509714
3630.19	0.0560007
3640.12	0.0605182
3650.05	0.0651532
3660.88	0.0702167
3670.81	0.0747845
3680.74	0.0790832
3690.67	0.0832469
3700.6	0.0874069
3710.53	0.0915411
3720.46	0.0955425
3730.39	0.099434
3740.32	0.103349
3750.25	0.107311
3760.18	0.111201
3770.11	0.114924
3780.04	0.118531
3790.88	0.12244
3800.81	0.126035
3810.74	0.12962
3820.67	0.133216
3830.6	0.136902
3840.53	0.140735
3850.47	0.144701
3860.43	0.148744
3870.39	0.15284
3880.35	0.157009
3890.31	0.161267
3900.27	0.165614
3910.23	0.170052
3920.19	0.174597
3930.14	0.179255
3940.1	0.183999
3950.06	0.188797
3960.02	0.193633
3970.89	0.198954
3980.86	0.203881
3990.82	0.208857
4000.79	0.213894
4010.76	0.219009
4020.72	0.224208
4030.69	0.229479
4040.66	0.234807
4050.63	0.240197
4060.59	0.245669
4070.56	0.251254
4080.53	0.256978
4090.5	0.262867
4100.46	0.268954
4110.43	0.275273
4120.41	0.281868
4130.38	0.288788
4140.36	0.2961
4150.35	0.303892
4160.37	0.312293
4170.4	0.321384
4180.45	0.331276
4190.51	0.342088
4200.56	0.353927
4210.65	0.36695
4220.77	0.381305
4230.89	0.397104
4240.09	0.412839
4250.21	0.431793
4260.34	0.4526
4270.46	0.475377
4280.58	0.500215
4290.7	0.52717
4300.82	0.556267
4310.03	0.584569
4320.15	0.617699
4330.27	0.652846
4340.39	0.689891
4350.52	0.728659
4360.64	0.76892
4370.76	0.81038
4380.88	0.85268
4390.09	0.891516
4400.21	0.934224
4410.33	0.976432
4420.45	1.0176
4430.58	1.05717
4440.7	1.09455
4450.82	1.12912
4460.02	1.15757
4470.14	1.18497
4480.27	1.20762
4490.39	1.22482
4500.51	1.23586
4510.63	1.24001
4520.76	1.23657
4530.88	1.22482
4540.08	1.20637
4550.2	1.17691
4560.33	1.13727
4570.45	1.08694
4580.57	1.02551
4590.69	0.952739
4600.82	0.8685
4610.02	0.78195
4620.14	0.67572
4630.26	0.557629
4640.39	0.426827
4650.51	0.281635
4660.63	0.119359
4670.76	-0.0496847
4680.88	-0.116339
4690.08	-0.166794
4700.2	-0.202706
4710.33	-0.217056
4720.5	-0.241566
4730.68	-0.259323
4740.86	-0.273686
4750.12	-0.285474
4760.3	-0.293081
4770.49	-0.304492
4780.68	-0.313492
4790.87	-0.320999
4800.13	-0.326494
4810.31	-0.331903
4820.5	-0.337167
4830.69	-0.342118
4840.88	-0.346646
4850.14	-0.338098
4860.33	-0.339174
4870.51	-0.344463
4880.7	-0.34888
4890.89	-0.352542
4900.15	-0.355341
4910.34	-0.357958
4920.52	-0.360206
4930.71	-0.362191
4940.9	-0.363646
4950.16	-0.364769
4960.35	-0.366002
4970.54	-0.367174
4980.72	-0.368336
4990.91	-0.369461
5000.17	-0.370433
5010.36	-0.371428
5020.55	-0.372335
5030.73	-0.373077
5040.92	-0.365058
5050.18	-0.365925
5060.37	-0.367185
5070.56	-0.368632
5080.74	-0.369889
5090.01	-0.370876
5100.19	-0.37177
5110.38	-0.372474
5120.54	-0.373013
5130.69	-0.373406
5140.84	-0.373669
5150.06	-0.373808
5160.2	-0.373859
5170.34	-0.373814
5180.47	-0.373679
5190.61	-0.373464
5200.73	-0.373173
5210.85	-0.372811
5220.06	-0.372424
5230.19	-0.371948
5240.33	-0.371413
5250.46	-0.370828
5260.59	-0.370195
5270.72	-0.369389
5280.86	-0.368344
5290.06	-0.367376
5300.18	-0.366286
5310.31	-0.365167
5320.44	-0.364016
5330.57	-0.362832
5340.65	-0.361616
5350.72	-0.360366
5360.77	-0.359078
5370.83	-0.357751
5380.89	-0.356387
5390.03	-0.35511
5400.09	-0.35365
5410.14	-0.352142
5420.2	-0.350595
5430.25	-0.339034
5440.26	-0.338144
5450.21	-0.337246
5460.14	-0.33634
5470.07	-0.335427
5480	-0.33451
5490.84	-0.333508
5500.77	-0.332588
5510.7	-0.331672
5520.63	-0.330764
5530.57	-0.329866
5540.5	-0.328983
5550.43	-0.32812
5560.36	-0.32728
5570.29	-0.326466
5580.23	-0.32568
5590.16	-0.324924
5600.09	-0.324198
5610.02	-0.323502
5620.86	-0.322776
5630.79	-0.322139
5640.72	-0.321526
5650.65	-0.320933
5660.59	-0.320355
5670.52	-0.319788
5680.45	-0.319227
5690.38	-0.318668
5700.31	-0.318105
5710.25	-0.317534
5720.18	-0.316951
5730.11	-0.31635
5740.04	-0.315729
5750.88	-0.315022
5760.81	-0.314343
5770.74	-0.31363
5780.67	-0.312951
5790.6	-0.31233
5800.54	-0.311636
5810.47	-0.310868
5820.4	-0.31003
5830.33	-0.30912
5840.26	-0.308141
5850.2	-0.306923
5860.13	-0.305638
5870.06	-0.304288
5880.89	-0.302745
5890.83	-0.301268
5900.76	-0.299734
5910.69	-0.298476
5920.62	-0.297691
5930.55	-0.296783
5940.48	-0.295765
5950.42	-0.29465
5960.35	-0.293446
5970.28	-0.292159
5980.21	-0.290796
5990.14	-0.289359
6000.08	-0.287854
6010.01	-0.286282
6020.84	-0.284495
6030.77	-0.282791
6040.71	-0.281028
6050.64	-0.279206
6060.57	-0.277327
6070.5	-0.275392
6080.43	-0.273404
6090.36	-0.271364
6100.3	-0.269273
6110.23	-0.267134
6120.16	-0.26495
6130.09	-0.262732
6140.02	-0.260486
6150.86	-0.258011
6160.79	-0.255719
6170.72	-0.2534
6180.65	-0.251059
6190.58	-0.2487
6200.52	-0.246325
6210.45	-0.243935
6220.38	-0.241533
6230.31	-0.239119
6240.24	-0.236691
6250.18	-0.234251
6260.11	-0.231798
6270.04	-0.229332
6280.87	-0.226627
6290.81	-0.224133
6300.74	-0.221626
6310.67	-0.218757
6320.6	-0.214939
6330.53	-0.211132
6340.46	-0.207371
6350.4	-0.203673
6360.33	-0.200038
6370.26	-0.196458
6380.19	-0.192919
6390.12	-0.189406
6400.05	-0.185903
6410.89	-0.182075
6420.82	-0.17855
6430.75	-0.175026
6440.69	-0.171519
6450.62	-0.168033
6460.55	-0.164557
6470.48	-0.161078
6480.41	-0.157575
6490.34	-0.154028
6500.28	-0.150423
6510.21	-0.144899
6520.14	-0.138607
6530.07	-0.13267
6540	-0.126975
6550.84	-0.120882
6560.77	-0.115288
6570.7	-0.10966
6580.63	-0.10409
6590.57	-0.0985674
6600.5	-0.0929941
6610.43	-0.0851282
6620.36	-0.076577
6630.29	-0.0686279
6640.21	-0.0605068
6650.11	-0.0522211
6660.04	-0.0403945
6670.87	-0.0261697
6680.8	-0.00956367
6690.73	0.0170913
6700.66	0.0522197
6710.59	0.0741555
6720.52	0.0911221
6730.45	0.100683
6740.38	0.105885
6750.31	0.106724
6760.24	0.1039
6770.17	0.10281
6780.1	0.10302
6790.03	0.103841
6800.86	0.103616
6810.79	0.102566
6820.72	0.101909
6830.65	0.101997
6840.58	0.102267
6850.51	0.102136
6860.44	0.102392
6870.37	0.103775
6880.3	0.105727
6890.23	0.106991
6900.16	0.107223
6910.09	0.107128
6920.02	0.10733
6930.86	0.10778
6940.79	0.107889
6950.72	0.107662
6960.65	0.107562
6970.58	0.107847
6980.51	0.108185
6990.44	0.108065
7000.37	0.107365
7010.3	0.106386
7020.23	0.105459
7030.16	0.104683
7040.09	0.104044
7050.02	0.103563
7060.85	0.103132
7070.78	0.102519
7080.71	0.101374
7090.64	0.0996147
7100.57	0.0973887
7110.5	0.0949034
7120.43	0.0923273
7130.36	0.0898424
7140.29	0.0876589
7150.22	0.0858803
7160.15	0.0843785
7170.08	0.0828777
7180.01	0.0811866
7190.84	0.0791667
7200.77	0.0773564
7210.7	0.0757712
7220.63	0.0745105
7230.56	0.0736111
7240.49	0.0730543
7250.42	0.072744
7260.35	0.0725182
7270.28	0.0722242
7280.21	0.0717966
7290.15	0.0712699
7300.08	0.0707307
7310.01	0.0702675
7320.84	0.0699263
7330.77	0.0697988
7340.7	0.0698406
7350.63	0.0700148
7360.56	0.0702863
7370.49	0.0706474
7380.42	0.0711166
7390.35	0.0717165
7400.28	0.0724535
7410.21	0.0733071
7420.14	0.0742239
7430.07	0.0751193
7440.9	0.0759583
7450.83	0.0765263
7460.76	0.0768909
7470.69	0.0771007
7480.62	0.0772347
7490.55	0.0773665
7500.48	0.0775397
7510.41	0.0777571
7520.34	0.0779851
7530.27	0.0781734
7540.2	0.078288
7550.13	0.0783419
7560.06	0.0784056
7570.9	0.0786149
7580.83	0.0790494
7590.76	0.0797754
7600.69	0.0807731
7610.62	0.0819476
7620.55	0.0831593
7630.48	0.0842732
7640.41	0.0852071
7650.34	0.0859585
7660.27	0.0866004
7670.2	0.0872541
7680.13	0.0880492
7690.06	0.0890871
7700.89	0.0905514
7710.82	0.0921855
7720.75	0.0940446
7730.68	0.096067
7740.61	0.098211
7750.54	0.100468
7760.5	0.102861
7770.46	0.105406
7780.42	0.108102
7790.38	0.110914
7800.33	0.11377
7810.29	0.116577
7820.25	0.119241
7830.21	0.121697
7840.17	0.123915
7850.13	0.125915
7860.09	0.12775
7870.05	0.129492
7880.01	0.131212
7890.87	0.133122
7900.83	0.134929
7910.79	0.136787
7920.75	0.138681
7930.71	0.140585
7940.67	0.142476
7950.63	0.144332
7960.59	0.146127
7970.54	0.147834
7980.5	0.149415
7990.46	0.150831
8000.42	0.152041
8010.38	0.153015
8020.34	0.153734
8030.3	0.154194
8040.26	0.154403
8050.22	0.154372
8060.19	0.154108
8070.16	0.153615
8080.12	0.152891
8090.09	0.151932
8100.06	0.150734
8110.03	0.149299
8120.9	0.147467
8130.87	0.145546
8140.84	0.143391
8150.8	0.140989
8160.77	0.138318
8170.74	0.135351
8180.71	0.132064
8190.67	0.128444
8200.64	0.124493
8210.61	0.120236
8220.58	0.115715
8230.55	0.110981
8240.51	0.106093
8250.48	0.101107
8260.45	0.0960705
8270.42	0.0910284
8280.39	0.0860186
8290.36	0.0810808
8300.34	0.0762556
8310.31	0.0715843
8320.29	0.067108
8330.27	0.0628624
8340.27	0.0588638
8350.3	0.0551256
8360.34	0.0516527
8370.37	0.0484306
8380.42	0.0454288
8390.48	0.0426197
8400.55	0.0399688
8410.67	0.0374388
8420.79	0.0350178
8430.91	0.0326901
8440.12	0.0306469
8450.24	0.0284771
8460.36	0.0263913
8470.49	0.0243959
8480.61	0.0224991
8490.73	0.0207072
8500.85	0.0190225
8510.06	0.0175802
8520.18	0.0160814
8530.3	0.0146579
8540.42	0.01329
8550.55	0.0119047
8560.67	0.00974075
8570.79	0.00753718
8580.91	0.00682302
8590.12	0.00483823
8600.24	0.00434993
8610.36	0.00361585
8620.49	0.000114474
8630.61	-0.00229865
8640.73	-0.00476077
8650.85	-0.00496416
8660.06	-0.00835034
8670.18	-0.0117249
8680.3	-0.0145731
8690.42	-0.017196
8700.55	-0.0197475
8710.67	-0.0222206
8720.79	-0.0246221
8730.92	-0.0269694
8740.12	-0.0290656
8750.24	-0.0323088
8760.36	-0.0351946
8770.47	-0.0377923
8780.59	-0.0401593
8790.71	-0.0423375
8800.83	-0.0443504
8810.03	-0.0460534
8820.15	-0.0477451
8830.28	-0.0492186
8840.4	-0.0506284
8850.52	-0.0519725
8860.65	-0.0532501
8870.77	-0.0544615
8880.89	-0.0556073
8890.09	-0.0565396
8900.22	-0.0573327
8910.34	-0.0580623
8920.46	-0.0587349
8930.58	-0.0593556
8940.7	-0.0599049
8950.83	-0.0603875
8960.03	-0.0607817
8970.15	-0.0611782
8980.27	-0.0615427
8990.4	-0.0618808
9000.52	-0.0621997
9010.64	-0.0626259
9020.76	-0.062932
9030.85	-0.0632228
9040.9	-0.0635125
9050.05	-0.0637763
9060.1	-0.0640674
9070.16	-0.0643597
9080.22	-0.0646531
9090.27	-0.0649477
9100.33	-0.0652435
9110.39	-0.0655406
9120.44	-0.0658388
9130.48	-0.0661379
9140.47	-0.0664361
9150.41	-0.0632055
9160.33	-0.0621111
9170.26	-0.0628621
9180.2	-0.0635856
9190.13	-0.0642825
9200.06	-0.0649531
9210.9	-0.0656553
9220.83	-0.0662727
9230.76	-0.0668652
9240.69	-0.0674332
9250.62	-0.0679772
9260.56	-0.0684976
9270.49	-0.0689947
9280.42	-0.069469
9290.35	-0.0699197
9300.28	-0.0703428
9310.22	-0.0707397
9320.15	-0.071112
9330.08	-0.0714613
9340.01	-0.0717897
9350.85	-0.0721258
9360.78	-0.0724151
9370.71	-0.0726873
9380.64	-0.0729435
9390.58	-0.0731845
9400.51	-0.0734109
9410.44	-0.0736222
9420.37	-0.0738182
9430.3	-0.0739995
9440.24	-0.0741666
9450.17	-0.07432
9460.1	-0.0744602
9470.03	-0.0745876
9480.87	-0.0747111
9490.8	-0.0748056
9500.73	-0.0749754
9510.66	-0.0751441
9520.59	-0.0752912
9530.53	-0.075398
9540.46	-0.0754006
9550.39	-0.0753927
9560.32	-0.0753743
9570.25	-0.0753457
9580.19	-0.0753071
9590.12	-0.0752585
9600.05	-0.0752003
9610.89	-0.0751258
9620.82	-0.0750478
9630.75	-0.0749606
9640.68	-0.0748643
9650.61	-0.0747591
9660.54	-0.074645
9670.48	-0.0745223
9680.41	-0.074391
9690.34	-0.0742512
9700.27	-0.074103
9710.2	-0.0739464
9720.14	-0.0737815
9730.07	-0.0736083
9740	-0.073427
9750.84	-0.07322
9760.77	-0.0730218
9770.7	-0.0728158
9780.63	-0.0726019
9790.56	-0.0723802
9800.5	-0.0721509
9810.43	-0.071914
9820.36	-0.0716696
9830.29	-0.0714179
9840.22	-0.0711592
9850.15	-0.0708937
9860.09	-0.0706215
9870.02	-0.0701099
9880.85	-0.0698386
9890.79	-0.0695861
9900.72	-0.0693297
9910.65	-0.0690695
9920.58	-0.0688052
9930.51	-0.068537
9940.45	-0.0682646
9950.38	-0.0679883
9960.31	-0.067708
9970.24	-0.0674238
9980.17	-0.0671357
9990.1	-0.0668434
10000	-0.0665451
10010.9	-0.0662122
10020.8	-0.0659005
10030.7	-0.0655826
10040.7	-0.0652587
10050.6	-0.0649289
10060.5	-0.0645934
10070.5	-0.0642521
10080.4	-0.0639052
10090.3	-0.0635527
10100.3	-0.0631947
10110.2	-0.0628311
10120.1	-0.0624621
10130.1	-0.0619821
10140.9	-0.0614452
10150.8	-0.0609516
10160.8	-0.0604566
10170.7	-0.0599603
10180.6	-0.0594627
10190.5	-0.0589651
10200.5	-0.058469
10210.4	-0.0579739
10220.3	-0.0574794
10230.3	-0.0569854
10240.2	-0.0564915
10250.1	-0.0559976
10260.1	-0.0555035
10270	-0.0550089
10280.8	-0.0544686
10290.8	-0.0539727
10300.7	-0.0534759
10310.6	-0.0529783
10320.6	-0.0524796
10330.5	-0.0519797
10340.4	-0.0514787
10350.4	-0.0509765
10360.3	-0.050473
10370.2	-0.0499683
10380.2	-0.0494624
10390.1	-0.0489554
10400.9	-0.0484032
10410.8	-0.0478941
10420.7	-0.047384
10430.7	-0.046873
10440.6	-0.0463613
10450.5	-0.0458492
10460.5	-0.0453364
10470.4	-0.0448234
10480.3	-0.0443103
10490.3	-0.0437973
10500.2	-0.0432846
10510.1	-0.0427723
10520	-0.0422607
10530.9	-0.0417033
10540.8	-0.0411933
10550.7	-0.0406842
10560.7	-0.0401761
10570.6	-0.0396692
10580.5	-0.0391636
10590.5	-0.0386596
10600.4	-0.0381574
10610.3	-0.0376573
10620.2	-0.0371592
10630.2	-0.0366573
10640.1	-0.0361007
10650	-0.0355527
10660.9	-0.0349643
10670.8	-0.0344334
10680.7	-0.0339101
10690.7	-0.0333943
10700.6	-0.0328856
10710.5	-0.0323838
10720.5	-0.0318886
10730.4	-0.0313997
10740.3	-0.030917
10750.2	-0.0304415
10760.2	-0.0299739
10770.1	-0.0295136
10780	-0.0290602
10790.9	-0.0285728
10800.8	-0.0281322
10810.7	-0.0276971
10820.7	-0.027267
10830.6	-0.0268417
10840.5	-0.0264209
10850.5	-0.0260041
10860.4	-0.0255877
10870.3	-0.0251512
10880.2	-0.0247363
10890.2	-0.0243397
10900.1	-0.0239584
10910	-0.0235898
10920.9	-0.0232001
10930.8	-0.0228551
10940.7	-0.0225213
10950.7	-0.0221976
10960.6	-0.0218827
10970.5	-0.0215754
10980.4	-0.0212743
10990.4	-0.0209782
11000.3	-0.0206859
11010.2	-0.0203962
11020.2	-0.0201083
11030.1	-0.0198211
11040	-0.0195337
11050.9	-0.019219
11060.8	-0.0189288
11070.7	-0.0186364
11080.7	-0.0183417
11090.6	-0.0180445
11100.5	-0.0177446
11110.4	-0.0174415
11120.4	-0.0171349
11130.3	-0.0168245
11140.2	-0.01651
11150.2	-0.0161915
11160.1	-0.0158692
11170	-0.0155433
11180.9	-0.0151836
11190.8	-0.0148529
11200.7	-0.0145269
11210.6	-0.0142034
11220.6	-0.0138803
11230.5	-0.0135557
11240.4	-0.0132282
11250.4	-0.0128965
11260.3	-0.0125353
11270.2	-0.0120374
11280.2	-0.0115087
11290.1	-0.0109615
11300	-0.0104038
11310.9	-0.00978963
11320.8	-0.00922461
11330.7	-0.00865951
11340.6	-0.00809574
11350.6	-0.00753502
11360.5	-0.00697821
11370.4	-0.00642476
11380.4	-0.00587334
11390.3	-0.00532272
11400.2	-0.00476784
11410.2	-0.00420645
11420.1	-0.00364017
11430	-0.00306941
11440.8	-0.00244157
11450.8	-0.00168752
11460.7	-0.000182043
11470.6	0.00122363
11480.6	0.00250479
11490.5	0.00366093
11500.4	0.00469759
11510.4	0.00563106
11520.3	0.00649077
11530.2	0.00730235
11540.1	0.00812767
11550.1	0.00927797
11560	0.0102108
11570.8	0.0110975
11580.8	0.011879
11590.7	0.0126063
11600.6	0.0137076
11610.6	0.0149707
11620.5	0.0172507
11630.4	0.0212332
11640.4	0.0250795
11650.3	0.0291579
11660.2	0.0339115
11670.1	0.0386276
11680.1	0.043912
11690	0.0493392
11700.8	0.0554887
11710.8	0.0615312
11720.7	0.0677226
11730.6	0.0737992
11740.6	0.0797487
11750.5	0.085495
11760.4	0.0909535
11770.3	0.0960598
11780.3	0.100693
11790.2	0.104795
11800.1	0.10829
11810.1	0.111093
11820	0.113217
11830.8	0.114914
11840.8	0.116087
11850.8	0.117006
11860.7	0.117722
11870.7	0.1183
11880.6	0.118817
11890.6	0.119286
11900.5	0.119658
11910.5	0.11991
11920.5	0.120082
11930.4	0.120253
11940.4	0.120477
11950.3	0.120774
11960.3	0.121141
11970.3	0.121559
11980.2	0.121987
11990.2	0.122373
