0	0
13.7219	0
22.8697	0
32.0174	0
41.1651	0
50.3127	0
64.0341	0
73.1817	0
82.3292	0
91.4766	0
100.624	0
114.315	0
123.463	0
132.539	0
141.562	0
150.53	0
163.983	0
172.952	0
181.92	-1.81899e-12
190.888	-3.63798e-12
204.341	-6.36646e-12
213.309	-8.18545e-12
222.266	-1.00044e-11
231.21	-1.18234e-11
240.155	-1.36424e-11
253.571	-1.63709e-11
262.516	-1.81899e-11
271.46	-2.00089e-11
280.405	-2.18279e-11
293.821	-2.18279e-11
302.765	-2.18279e-11
311.71	-2.09184e-11
320.654	-1.90994e-11
334.07	-1.45519e-11
343.014	-9.09495e-12
351.959	-1.81899e-12
360.827	7.27596e-12
374.131	2.54659e-11
382.999	4.09273e-11
391.875	6.00267e-11
400.758	8.4583e-11
414.042	1.30058e-10
422.743	1.67347e-10
431.395	2.11003e-10
440.046	2.61934e-10
453.023	3.56522e-10
461.675	4.32919e-10
470.326	5.2205e-10
483.28	6.83031e-10
491.818	8.11269e-10
500.355	9.58607e-10
513.161	1.22327e-09
521.678	1.43245e-09
530.196	1.67347e-09
542.962	2.10002e-09
551.459	2.43563e-09
564.206	3.02953e-09
572.703	3.49337e-09
581.2	4.01815e-09
593.946	4.924e-09
602.444	5.61249e-09
610.941	6.3701e-09
623.687	7.63976e-09
632.184	8.57835e-09
640.682	9.59244e-09
653.427	1.12614e-08
661.925	1.24746e-08
670.422	1.37697e-08
683.168	1.58625e-08
691.655	1.73522e-08
700.132	1.8912e-08
712.849	2.13777e-08
721.326	2.30966e-08
734.042	2.57733e-08
742.52	2.7615e-08
750.997	2.9494e-08
763.713	3.23689e-08
772.191	3.43143e-08
780.668	3.62761e-08
793.384	3.92365e-08
801.861	4.12156e-08
810.338	4.31937e-08
823.054	4.61514e-08
831.532	4.81123e-08
840.009	5.00631e-08
852.725	5.29717e-08
861.202	5.48998e-08
873.918	5.77838e-08
882.395	5.97074e-08
890.872	6.1641e-08
903.588	6.45787e-08
912.065	6.65796e-08
920.542	6.86314e-08
933.257	7.18419e-08
941.734	7.41011e-08
950.211	7.6484e-08
962.927	8.03511e-08
971.404	8.31715e-08
984.119	8.78563e-08
992.596	9.13433e-08
1001.07	9.51732e-08
1013.79	1.01672e-07
1022.27	1.06585e-07
1030.74	1.12031e-07
1043.46	1.21338e-07
1051.93	1.28399e-07
1060.41	1.36232e-07
1073.13	1.49606e-07
1081.6	1.5973e-07
1090.08	1.70928e-07
1102.8	1.89957e-07
1111.27	2.04287e-07
1123.99	2.28536e-07
1132.46	2.46718e-07
1140.94	2.66667e-07
1153.66	3.00207e-07
1162.13	3.25197e-07
1170.61	3.52476e-07
1183.33	3.98051e-07
1191.8	4.31801e-07
1200.28	4.68462e-07
1212.99	5.2935e-07
1221.47	5.74179e-07
1234.19	6.48338e-07
1242.66	7.02733e-07
1251.14	7.61382e-07
1263.85	8.57907e-07
1272.33	9.28362e-07
1280.81	1.00404e-06
1293.45	1.12735e-06
1301.89	1.21692e-06
1310.32	1.31277e-06
1322.97	1.46992e-06
1331.4	1.5843e-06
1344.05	1.771e-06
1352.48	1.90583e-06
1360.91	2.04916e-06
1373.56	2.28037e-06
1381.99	2.4455e-06
1390.42	2.61955e-06
1403.06	2.89736e-06
1411.47	3.09371e-06
1424.08	3.40579e-06
1432.47	3.62513e-06
1440.88	3.8549e-06
1453.47	4.21769e-06
1461.87	4.473e-06
1470.28	4.73905e-06
1482.9	5.15904e-06
1491.31	5.45357e-06
1503.92	5.91828e-06
1512.33	6.24409e-06
1520.74	6.58336e-06
1533.36	7.11883e-06
1541.76	7.49413e-06
1550.03	7.87891e-06
1562.43	8.48632e-06
1570.7	8.91256e-06
1583.1	9.58601e-06
1591.37	1.0059e-05
1603.77	1.0807e-05
1612.04	1.13328e-05
1620.31	1.18816e-05
1632.71	1.27504e-05
1640.98	1.33617e-05
1653.38	1.433e-05
1661.65	1.50116e-05
1674.05	1.60917e-05
1682.32	1.68521e-05
1690.59	1.76464e-05
1702.99	1.89035e-05
1711.26	1.97868e-05
1723.66	2.11818e-05
1731.93	2.21597e-05
1740.2	2.31767e-05
1752.6	2.47773e-05
1760.87	2.58955e-05
1773.27	2.76512e-05
1781.54	2.88752e-05
1793.94	3.07935e-05
1802.21	3.21284e-05
1810.48	3.35093e-05
1822.88	3.56688e-05
1831.15	3.71689e-05
1843.55	3.95125e-05
1851.82	4.11389e-05
1860.09	4.28181e-05
1872.49	4.54392e-05
1880.76	4.72569e-05
1893.16	5.00932e-05
1901.43	5.20599e-05
1913.83	5.51284e-05
1922.1	5.7256e-05
1930.36	5.94516e-05
1942.77	6.28777e-05
1951.03	6.52535e-05
1963.44	6.89611e-05
1971.7	7.15325e-05
1984.11	7.5546e-05
1992.37	7.833e-05
2000.64	8.12041e-05
2013.04	8.56911e-05
2021.31	8.88044e-05
2033.71	8.90126e-05
2041.98	8.78349e-05
2050.25	8.68534e-05
2062.65	8.57239e-05
2070.92	8.51851e-05
2083.32	8.46758e-05
2091.59	8.45234e-05
2103.99	8.4557e-05
2112.26	8.47446e-05
2120.53	8.50576e-05
2132.93	8.57511e-05
2141.2	8.63564e-05
2153.6	8.74693e-05
2161.86	8.83435e-05
2170.13	8.93205e-05
2182.53	9.09744e-05
2190.8	9.22004e-05
2203.2	9.4222e-05
2211.47	9.56907e-05
2223.87	9.80751e-05
2232.14	9.9786e-05
2240.41	0.000101595
2252.81	0.000104494
2261.08	0.000106553
2273.48	0.000109834
2281.75	0.000112154
2290.01	0.000114582
2302.42	0.000118432
2310.68	0.000121142
2323.08	0.000125429
2331.35	0.00012844
2343.75	0.000133195
2352.02	0.000136529
2360.29	0.000139998
2372.69	0.000145466
2380.96	0.000149293
2393.36	0.000155317
2401.63	0.000159531
2414.03	0.000166149
2422.3	0.000170744
2430.56	0.000175475
2442.97	0.000182813
2451.23	0.000187859
2463.63	0.000195652
2471.9	0.000200994
2480.17	0.000206454
2492.57	0.000214865
2500.84	0.000220624
2513.24	0.000229494
2521.51	0.000235568
2533.91	0.000244931
2542.18	0.000251349
2550.45	0.000257914
2562.85	0.000268052
2571.12	0.000275016
2583.52	0.000285788
2591.78	0.0002932
2600.05	0.000300807
2612.45	0.000312607
2620.72	0.000320748
2633.12	0.000333397
2641.39	0.000342138
2653.79	0.000355736
2662.06	0.000365141
2670.33	0.00037483
2682.73	0.000389918
2691	0.000400361
2703.4	0.000416629
2711.67	0.000427892
2724.07	0.000445439
2732.34	0.00045759
2740.61	0.000470116
2753.01	0.00048964
2761.28	0.000503164
2773.68	0.000543033
2781.95	0.000576044
2790.22	0.000608985
2802.62	0.000658088
2810.89	0.00069056
2823.32	0.000738941
2831.6	0.000770938
2844.03	0.000818634
2852.32	0.000850307
2860.6	0.000881952
2873.03	0.000929523
2881.31	0.000961418
2893.74	0.00100974
2902.02	0.00104239
2910.31	0.00107551
2922.73	0.00112623
2931.02	0.00116087
2943.44	0.0012143
2951.73	0.00125102
2960.01	0.00128872
2972.44	0.00134727
2980.72	0.0013875
2993.15	0.00144934
3001.43	0.00149145
3013.86	0.00155588
3022.15	0.00159968
3030.43	0.0016442
3042.86	0.00171246
3051.14	0.00175906
3063.57	0.00183088
3071.85	0.00188022
3080.14	0.0019309
3092.56	0.00200973
3100.85	0.00206437
3113.27	0.00214981
3121.56	0.00220928
3133.98	0.00230258
3142.27	0.00236771
3150.55	0.00247767
3162.98	0.0026989
3171.26	0.00283936
3183.69	0.00304009
3191.97	0.00316866
3200.26	0.00329451
3212.68	0.00348133
3220.97	0.0036067
3233.39	0.00379946
3241.68	0.003933
3254.1	0.00414349
3262.39	0.00428954
3270.67	0.00443908
3283.1	0.00466998
3291.38	0.00482915
3303.81	0.0050786
3312.09	0.00525426
3320.38	0.00543931
3332.8	0.00573723
3341.09	0.00615899
3353.51	0.00676654
3361.8	0.00715683
3370.08	0.0075469
3382.51	0.00815601
3390.79	0.00859117
3403.22	0.0092737
3411.5	0.00974814
3423.93	0.0105159
3432.21	0.0116008
3440.5	0.0125146
3452.92	0.0138541
3461.21	0.0149324
3473.63	0.0174285
3481.92	0.0195617
3490.2	0.0217995
3502.63	0.0257903
3510.91	0.0289923
3523.34	0.0340481
3531.62	0.037116
3544.05	0.0413331
3552.34	0.0441505
3560.62	0.0470185
3573.05	0.0514084
3581.33	0.0544268
3593.76	0.0590968
3602.04	0.0622542
3610.33	0.0654045
3622.75	0.0701009
3631.04	0.0732347
3643.47	0.0779964
3651.75	0.0812429
3660.04	0.0845613
3672.46	0.0896622
3680.75	0.0931183
3693.17	0.0983356
3701.46	0.101818
3713.89	0.107042
3722.17	0.110533
3730.46	0.114041
3742.91	0.119371
3751.21	0.122978
3763.67	0.128472
3771.98	0.132186
3780.29	0.135937
3792.75	0.141628
3801.06	0.145466
3813.52	0.151301
3821.83	0.155251
3830.13	0.159254
3842.59	0.165358
3850.9	0.169491
3863.36	0.175776
3871.67	0.180018
3884.13	0.186459
3892.44	0.190811
3900.75	0.195217
3913.21	0.201952
3921.52	0.20654
3933.98	0.213594
3942.28	0.218424
3950.59	0.223365
3963.05	0.231006
3971.36	0.236267
3983.82	0.244437
3992.13	0.250088
4000.44	0.255916
4012.9	0.265018
4021.21	0.271343
4033.67	0.281243
4041.98	0.288132
4050.29	0.295266
4062.75	0.306449
4071.06	0.314243
4083.52	0.326472
4091.83	0.335002
4100.13	0.343849
4112.6	0.357734
4120.9	0.367417
4133.37	0.382601
4141.68	0.393172
4154.14	0.409707
4162.52	0.421279
4170.9	0.433218
4183.46	0.451799
4191.84	0.464621
4200.22	0.477776
4212.81	0.498137
4221.24	0.512131
4233.89	0.5336
4242.32	0.548187
4250.75	0.562963
4263.41	0.585374
4271.85	0.600413
4280.28	0.615475
4292.94	0.637988
4301.38	0.652857
4314.03	0.674789
4322.47	0.68906
4330.91	0.702964
4343.56	0.722956
4352	0.735588
4360.44	0.74756
4373.09	0.764083
4381.53	0.774006
4394.18	0.787015
4402.62	0.794297
4411.06	0.800354
4423.71	0.806939
4432.15	0.809526
4440.59	0.810565
4453.24	0.809039
4461.68	0.805846
4470.12	0.800826
4482.77	0.789724
4491.21	0.779853
4503.87	0.761216
4512.3	0.74618
4520.74	0.729017
4533.4	0.699245
4541.83	0.676699
4550.27	0.651998
4562.93	0.610937
4571.37	0.580926
4584.02	0.532045
4592.46	0.496943
4600.9	0.459889
4613.55	0.400768
4621.99	0.359079
4630.43	0.315624
4643.08	0.247242
4651.52	0.199448
4664.18	0.125742
4672.63	0.0727485
4681.11	0.0199979
4693.83	-0.0485775
4702.3	-0.0855433
4710.78	-0.11287
4723.5	-0.144291
4731.97	-0.165235
4740.45	-0.169513
4753.17	-0.193533
4761.64	-0.207705
4770.12	-0.21997
4782.84	-0.235869
4791.32	-0.244842
4804.03	-0.257032
4812.51	-0.264573
4820.99	-0.271648
4833.7	-0.264518
4842.18	-0.270334
4850.66	-0.274356
4863.37	-0.284977
4871.85	-0.290795
4880.33	-0.295846
4893.04	-0.302232
4901.52	-0.305896
4914.24	-0.310768
4922.71	-0.313712
4931.19	-0.316189
4943.91	-0.319553
4952.38	-0.321702
4960.86	-0.323675
4973.58	-0.326563
4982.05	-0.328411
4990.53	-0.330177
5003.25	-0.33265
5011.72	-0.334171
5020.2	-0.335587
5032.92	-0.326902
5041.36	-0.328265
5054.02	-0.330358
5062.45	-0.331973
5070.89	-0.333562
5083.53	-0.335595
5091.97	-0.336701
5100.4	-0.337627
5113.05	-0.338724
5121.48	-0.339284
5134.13	-0.339884
5142.56	-0.340139
5150.99	-0.340289
5163.64	-0.340341
5172.07	-0.340274
5180.5	-0.340136
5193.15	-0.339812
5201.58	-0.339527
5210	-0.339195
5222.62	-0.338588
5231	-0.338115
5243.59	-0.337378
5252	-0.336874
5260.41	-0.336354
5273	-0.335341
5281.41	-0.334653
5294.02	-0.3336
5302.43	-0.332883
5310.84	-0.332153
5323.46	-0.331033
5331.86	-0.330268
5340.27	-0.329488
5352.89	-0.32829
5361.29	-0.327474
5373.83	-0.32623
5382.09	-0.325393
5390.36	-0.324541
5402.77	-0.32322
5411.03	-0.322319
5423.44	-0.316212
5431.7	-0.315769
5444.11	-0.315084
5452.38	-0.314613
5460.64	-0.314132
5473.05	-0.313389
5481.31	-0.31288
5493.72	-0.312091
5501.99	-0.31155
5510.25	-0.310996
5522.66	-0.310146
5530.92	-0.309567
5543.33	-0.308681
5551.6	-0.308079
5564	-0.307159
5572.27	-0.306536
5580.53	-0.305904
5592.94	-0.304939
5601.21	-0.304287
5613.61	-0.303296
5621.88	-0.30263
5630.14	-0.301958
5642.55	-0.300941
5650.82	-0.300257
5663.22	-0.299217
5671.49	-0.298515
5683.89	-0.297446
5692.16	-0.296721
5700.43	-0.295987
5712.83	-0.294863
5721.1	-0.294099
5733.5	-0.292926
5741.77	-0.292125
5750.04	-0.291309
5762.44	-0.290051
5770.71	-0.289189
5783.11	-0.287956
5791.38	-0.287095
5803.78	-0.285744
5812.05	-0.284806
5820.32	-0.283839
5832.72	-0.282333
5840.99	-0.281292
5853.39	-0.279543
5861.66	-0.278342
5874.06	-0.276487
5882.33	-0.275217
5890.6	-0.273921
5903	-0.27193
5911.27	-0.270571
5923.67	-0.26849
5931.94	-0.267074
5940.21	-0.265636
5952.61	-0.26344
5960.88	-0.26195
5973.28	-0.259679
5981.55	-0.258391
5993.95	-0.256734
6002.22	-0.255565
6010.49	-0.254351
6022.89	-0.252461
6031.16	-0.251159
6043.56	-0.249154
6051.83	-0.247784
6060.1	-0.24639
6072.5	-0.244255
6080.77	-0.242804
6093.17	-0.240586
6101.44	-0.239081
6113.84	-0.236782
6122.11	-0.235222
6130.38	-0.233641
6142.78	-0.231229
6151.05	-0.229594
6163.45	-0.227089
6171.72	-0.225384
6184.12	-0.222778
6192.39	-0.221011
6200.66	-0.219221
6213.06	-0.216498
6221.33	-0.214664
6233.73	-0.2119
6242	-0.210052
6250.27	-0.208204
6262.67	-0.205434
6270.94	-0.20359
6283.34	-0.20083
6291.61	-0.198992
6304.01	-0.196237
6312.28	-0.1944
6320.55	-0.19256
6332.95	-0.189792
6341.22	-0.187939
6353.62	-0.185142
6361.89	-0.183265
6370.16	-0.181375
6382.56	-0.178515
6390.83	-0.17659
6403.23	-0.171389
6411.5	-0.168051
6423.9	-0.163254
6432.17	-0.160186
6440.44	-0.157206
6452.84	-0.152867
6461.11	-0.150035
6473.51	-0.145837
6481.78	-0.143049
6490.05	-0.140254
6502.45	-0.136023
6510.72	-0.133163
6523.12	-0.128833
6531.39	-0.125945
6543.79	-0.121621
6552.06	-0.118737
6560.33	-0.115843
6572.73	-0.111454
6581	-0.108478
6593.4	-0.102653
6601.67	-0.0972335
6614.07	-0.0894887
6622.34	-0.0845733
6630.61	-0.0797635
6643.01	-0.072565
6651.28	-0.0676876
6663.68	-0.0602071
6671.95	-0.0552174
6680.22	-0.0502776
6692.62	-0.0428551
6700.89	-0.0357535
6713.29	-0.0241496
6721.57	-0.0173193
6734	-0.00631943
6742.28	0.00136425
6750.57	0.0137394
6763	0.0306964
6771.28	0.0423823
6783.71	0.0606714
6791.99	0.071051
6800.28	0.0786294
6812.7	0.0858118
6820.99	0.0893802
6833.42	0.0935716
6841.7	0.095654
6854.13	0.0982313
6862.41	0.0998703
6870.7	0.101417
6883.12	0.1032
6891.41	0.103901
6903.84	0.104401
6912.12	0.104611
6920.4	0.10491
6932.83	0.105751
6941.12	0.106598
6953.54	0.108101
6961.83	0.109064
6970.11	0.109856
6982.54	0.11059
6990.82	0.110763
7003.25	0.110619
7011.54	0.110323
7023.96	0.109715
7032.25	0.109267
7040.53	0.108817
7052.96	0.108155
7061.24	0.107715
7073.67	0.10706
7081.96	0.10665
7090.24	0.106295
7102.67	0.105927
7110.95	0.105812
7123.38	0.105794
7131.66	0.105817
7144.09	0.10575
7152.38	0.105551
7160.66	0.105182
7173.09	0.104287
7181.37	0.103484
7193.8	0.102058
7202.08	0.10102
7210.37	0.099955
7222.8	0.0983596
7231.08	0.0973172
7243.51	0.0958006
7251.79	0.0948282
7260.08	0.0938976
7272.5	0.0926149
7280.79	0.0918652
7293.22	0.0909507
7301.5	0.0905038
7313.93	0.0900917
7322.21	0.0899817
7330.5	0.0899876
7342.92	0.0901734
7351.21	0.0903876
7363.64	0.0908064
7371.92	0.0911367
7380.21	0.0915034
7392.63	0.0921236
7400.92	0.0925892
7413.35	0.0933769
7421.63	0.0939667
7434.06	0.0949513
7442.34	0.0956715
7450.63	0.0964372
7463.05	0.0976539
7471.34	0.0984955
7483.77	0.0997734
7492.05	0.100617
7500.34	0.101439
7512.8	0.102607
7521.11	0.103327
7533.57	0.104296
7541.88	0.104863
7550.18	0.105362
7562.64	0.105986
7570.95	0.106321
7583.41	0.106713
7591.72	0.10691
7600.03	0.107062
7612.49	0.107227
7620.8	0.107305
7633.26	0.107393
7641.57	0.107443
7654.03	0.107513
7662.34	0.107561
7670.65	0.107609
7683.11	0.10768
7691.42	0.107724
7703.88	0.107779
7712.19	0.107807
7720.49	0.107829
7732.96	0.107855
7741.26	0.107874
7753.73	0.107915
7762.03	0.107959
7770.34	0.108023
7782.8	0.108163
7791.11	0.108288
7803.57	0.108523
7811.88	0.108706
7820.19	0.108902
7832.65	0.109202
7840.96	0.109391
7853.42	0.109625
7861.73	0.109729
7870.04	0.109778
7882.5	0.109721
7890.81	0.109583
7903.27	0.109209
7911.58	0.108844
7924.04	0.10812
7932.35	0.107524
7940.65	0.106843
7953.12	0.10568
7961.42	0.104821
7973.89	0.103429
7982.19	0.102447
7990.5	0.101431
8002.96	0.0998596
8011.27	0.0987907
8023.73	0.0971682
8032.04	0.0960797
8040.35	0.0949892
8052.81	0.0933544
8061.12	0.0922676
8073.58	0.0906456
8081.89	0.0895719
8090.2	0.0885063
8102.66	0.0869278
8110.97	0.0858922
8123.43	0.0843704
8131.74	0.0833808
8140.05	0.0824138
8152.51	0.0810094
8160.82	0.0801053
8173.28	0.0787965
8181.59	0.0779532
8194.05	0.0767244
8202.36	0.0759226
8210.66	0.075128
8223.13	0.0739348
8231.43	0.0731274
8243.9	0.0718785
8252.2	0.0710089
8260.51	0.0701008
8272.97	0.0686509
8281.28	0.0676169
8293.74	0.065953
8302.05	0.0647634
8310.36	0.0635072
8322.82	0.0614965
8331.13	0.0600728
8343.59	0.0578164
8351.9	0.0562354
8360.21	0.0545966
8372.67	0.052037
8380.98	0.0502676
8393.44	0.0475259
8401.75	0.0456424
8410.06	0.0437155
8422.52	0.0407428
8430.83	0.0387029
8443.29	0.0355451
8451.6	0.0333634
8464.06	0.0299454
8472.37	0.0275433
8480.67	0.0250137
8493.14	0.0209103
8501.44	0.0178939
8513.91	0.0122793
8522.22	0.00752267
8530.53	0.0011405
8542.99	-0.00667494
8551.3	-0.0108525
8563.76	-0.0131234
8572.07	-0.0171569
8580.38	-0.0204379
8592.85	-0.0246472
8601.16	-0.0273318
8613.62	-0.0310293
8621.93	-0.0331727
8630.24	-0.0351493
8642.7	-0.0341596
8651.01	-0.0356314
8663.48	-0.0376342
8671.79	-0.0394224
8680.09	-0.0409311
8692.56	-0.0428316
8700.87	-0.0439505
8713.33	-0.0455126
8721.64	-0.0465115
8734.11	-0.0479966
8742.41	-0.0490079
8750.72	-0.0499843
8763.13	-0.051385
8771.4	-0.052283
8783.8	-0.0535766
8792.07	-0.0544033
8800.33	-0.0552016
8812.74	-0.0563461
8821.01	-0.0548788
8833.41	-0.0578647
8841.68	-0.0586422
8854.08	-0.0596662
8862.35	-0.0602593
8870.62	-0.0607858
8883.02	-0.0614658
8891.29	-0.0618565
8903.69	-0.0623662
8911.96	-0.0626655
8920.23	-0.0629395
8932.63	-0.0633147
8940.9	-0.0635479
8953.3	-0.0638819
8961.57	-0.0640987
8973.97	-0.064421
8982.24	-0.0646011
8990.51	-0.0648701
9002.91	-0.065277
9011.18	-0.0655499
9023.58	-0.0659603
9031.85	-0.0662331
9040.12	-0.066504
9052.52	-0.0669042
9060.79	-0.0671651
9073.19	-0.0675452
9081.46	-0.0677895
9093.86	-0.0681407
9102.13	-0.0683636
9110.4	-0.068577
9122.8	-0.0688785
9131.07	-0.0690667
9143.47	-0.0693195
9151.74	-0.0669965
9160.01	-0.0649279
9172.41	-0.0652735
9180.68	-0.0654937
9193.08	-0.065809
9201.35	-0.0660091
9213.75	-0.0662925
9222.02	-0.0664652
9230.29	-0.0666237
9242.69	-0.0668364
9250.96	-0.0669622
9263.36	-0.0671283
9271.63	-0.0672246
9284.03	-0.0673485
9292.3	-0.0674181
9300.57	-0.0674778
9312.97	-0.0675496
9321.24	-0.0675863
9333.64	-0.0676227
9341.91	-0.0676343
9350.18	-0.0676361
9362.58	-0.0676213
9370.85	-0.0676003
9383.25	-0.0675529
9391.52	-0.0675112
9403.93	-0.0674342
9412.19	-0.0673737
9420.46	-0.0673061
9432.86	-0.0671922
9441.13	-0.0671087
9453.54	-0.0669729
9461.8	-0.0668756
9470.07	-0.0667623
9482.47	-0.0665647
9490.74	-0.0664241
9503.15	-0.0662016
9511.41	-0.0660464
9523.82	-0.0658048
9532.08	-0.0656385
9540.35	-0.0655657
9552.76	-0.065441
9561.02	-0.0653483
9573.43	-0.0651961
9581.69	-0.0650865
9594.1	-0.0649107
9602.37	-0.0647864
9610.63	-0.0646567
9623.04	-0.0644526
9631.3	-0.0643104
9643.71	-0.0640885
9651.98	-0.0639349
9660.24	-0.063777
9672.65	-0.0635322
9680.91	-0.0633637
9693.32	-0.0631034
9701.59	-0.0629248
9713.99	-0.0626494
9722.26	-0.0624608
9730.53	-0.0622682
9742.93	-0.0619719
9751.2	-0.0617694
9763.6	-0.0614582
9771.87	-0.0612457
9780.14	-0.0610293
9792.54	-0.0606972
9800.81	-0.0604708
9813.21	-0.0609949
9821.48	-0.0607631
9833.88	-0.0604133
9842.15	-0.0601783
9850.42	-0.0599418
9862.82	-0.0595841
9871.09	-0.0593435
9883.49	-0.0589793
9891.76	-0.0587342
9900.03	-0.0584872
9912.43	-0.0581127
9920.7	-0.0578604
9933.1	-0.0574777
9941.37	-0.0572196
9953.77	-0.0567867
9962.04	-0.0564414
9970.31	-0.0560951
9982.71	-0.0555736
9990.98	-0.0552236
10003.4	-0.0546949
10011.6	-0.05434
10024.1	-0.0538039
10032.3	-0.0534441
10040.6	-0.0530824
10053	-0.0525362
10061.3	-0.0521697
10073.7	-0.0516164
10081.9	-0.0512451
10090.2	-0.0508718
10102.6	-0.0503084
10110.9	-0.0499304
10123.3	-0.0493598
10131.5	-0.0489776
10143.9	-0.0484046
10152.2	-0.0480225
10160.5	-0.04764
10172.9	-0.0470652
10181.2	-0.046681
10193.6	-0.0461024
10201.8	-0.0457148
10210.1	-0.0453258
10222.6	-0.0447397
10230.8	-0.0443471
10243.3	-0.043755
10251.6	-0.0433582
10264	-0.0427597
10272.3	-0.0423584
10280.6	-0.0419554
10293	-0.0413475
10301.3	-0.04094
10313.7	-0.0403253
10322	-0.0399134
10330.3	-0.0394997
10342.7	-0.038876
10351	-0.0384581
10363.4	-0.0378283
10371.7	-0.0374067
10384.1	-0.0367718
10392.4	-0.036347
10400.7	-0.0359213
10413.1	-0.0352809
10421.4	-0.0348529
10433.8	-0.0342098
10442.1	-0.0337803
10450.4	-0.0333504
10462.8	-0.0327048
10471.1	-0.032274
10483.5	-0.0316275
10491.8	-0.0311964
10500.1	-0.0307653
10512.5	-0.0301191
10520.8	-0.0296888
10533.2	-0.0290445
10541.5	-0.0286157
10554	-0.0279737
10562.2	-0.0275466
10570.5	-0.0271202
10582.9	-0.0264823
10591.2	-0.0260584
10603.7	-0.0254252
10611.9	-0.0249452
10620.2	-0.0244729
10632.7	-0.0237784
10640.9	-0.0233242
10653.4	-0.0226549
10661.7	-0.0222165
10674.1	-0.0215695
10682.4	-0.0211448
10690.7	-0.0207253
10703.1	-0.0201048
10711.4	-0.0196967
10723.8	-0.0190924
10732.1	-0.0186498
10740.4	-0.0181813
10752.8	-0.0175176
10761.1	-0.0170974
10773.5	-0.0164953
10781.8	-0.0161099
10790.1	-0.0157354
10802.5	-0.0151909
10810.8	-0.0148377
10823.2	-0.0143197
10831.5	-0.013981
10843.9	-0.0134816
10852.2	-0.013157
10860.5	-0.012839
10872.9	-0.0123726
10881.2	-0.0120678
10893.6	-0.011618
10901.9	-0.0113221
10910.2	-0.0110286
10922.6	-0.0105915
10930.9	-0.0103015
10943.3	-0.00986735
10951.6	-0.00957777
10964	-0.00914282
10972.3	-0.00885249
10980.6	-0.00856174
10993	-0.00812455
11001.3	-0.00783211
11013.8	-0.0073915
11022	-0.00709614
11030.3	-0.00679921
11042.8	-0.00636092
11051	-0.00607331
11063.5	-0.00564561
11071.8	-0.00536141
11080	-0.00507696
11092.5	-0.00464893
11100.8	-0.00436171
11113.2	-0.0039271
11121.5	-0.00363471
11134	-0.00307398
11142.3	-0.00263827
11150.6	-0.00218849
11163.1	-0.00149951
11171.4	-0.00103599
11183.8	-0.000339949
11192.1	0.000122825
11200.5	0.000583936
11212.9	0.00127087
11221.2	0.00172475
11233.7	0.00239995
11242	0.00285136
11250.3	0.00330492
11262.8	0.00398865
11271.1	0.00444614
11283.5	0.00513405
11291.8	0.00559349
11300.2	0.00605228
11312.6	0.00673593
11320.9	0.00752231
11333.4	0.00916624
11341.7	0.0101831
11354.2	0.0115543
11362.5	0.0123665
11370.8	0.0131193
11383.2	0.0141502
11391.5	0.0147791
11404	0.0159542
11412.3	0.0166375
11420.6	0.0172723
11433.1	0.0180624
11441.5	0.0185536
11454	0.0198145
11462.4	0.021068
11470.8	0.0222981
11483.3	0.0239792
11491.7	0.025053
11500.1	0.0261629
11512.8	0.0278416
11521.2	0.0289593
11533.9	0.0307386
11542.3	0.0319989
11550.8	0.0332951
11563.5	0.035236
11572	0.0365449
11580.5	0.0378948
11593.3	0.0400275
11601.8	0.0415279
11610.3	0.0430843
11623	0.0454853
11631.5	0.0470942
11640	0.0486783
11652.7	0.0509596
11661.2	0.0524009
11674	0.0544503
11682.5	0.0557582
11691	0.0570331
11703.7	0.0588958
11712.2	0.0601032
11720.7	0.0612763
11733.5	0.0629558
11742	0.0640132
11750.5	0.0650165
11763.2	0.066415
11771.7	0.0672744
11780.2	0.0680747
11793	0.0691645
11801.5	0.0698195
11814.2	0.0707018
11822.7	0.0712276
11831.2	0.0717061
11843.9	0.0723358
11852.4	0.0726944
11860.9	0.073001
11873.7	0.0733586
11882.2	0.0735288
11890.7	0.0736478
11903.4	0.0737437
11911.9	0.0737642
11920.4	0.07376
11933.2	0.0737251
11941.7	0.0736919
11950.2	0.0736559
11962.9	0.0736016
11971.4	0.0735663
11984.1	0.0735138
11992.6	0.0734777
