0	0
10.0831	0
20.1661	0
30.2491	0
40.9683	0
50.9787	0
60.9025	0
71.0039	0
80.829	0
90.3539	0
100.412	2.72848e-12
110.182	1.18234e-11
120.595	2.09184e-11
130.48	3.00133e-11
140.947	4.45652e-11
150.066	6.18456e-11
160.776	9.09495e-11
170.281	1.24601e-10
180.164	1.68257e-10
190.113	2.23736e-10
200.906	2.97405e-10
210.788	3.81078e-10
220.67	4.80213e-10
230.552	5.99357e-10
240.434	7.40329e-10
250.317	9.04947e-10
260.199	1.09776e-09
270.081	1.3215e-09
280.951	1.60799e-09
290.833	1.90903e-09
300.715	2.25464e-09
310.594	2.64663e-09
320.41	3.08773e-09
330.163	3.5825e-09
340.875	4.19732e-09
350.61	4.8276e-09
360.288	5.52791e-09
370.839	6.38465e-09
380.387	7.25322e-09
390.879	8.31642e-09
400.413	9.39235e-09
410.901	1.07093e-08
420.435	1.2039e-08
430.923	1.36615e-08
440.45	1.5295e-08
450.848	1.72622e-08
460.273	1.92213e-08
470.634	2.15823e-08
480.053	2.39197e-08
490.407	2.671e-08
500.753	2.97396e-08
510.151	3.27091e-08
520.48	3.62206e-08
530.806	4.00014e-08
540.194	4.36839e-08
550.519	4.80131e-08
560.845	5.26406e-08
570.233	5.7109e-08
580.559	6.23158e-08
590.884	6.78283e-08
600.272	7.31061e-08
610.597	7.92033e-08
620.923	8.56062e-08
630.31	9.16907e-08
640.636	9.86738e-08
650.016	1.05281e-07
660.312	1.12822e-07
670.604	1.20661e-07
680.897	1.28804e-07
690.253	1.36472e-07
700.546	1.45204e-07
710.838	1.54251e-07
720.195	1.6276e-07
730.487	1.72434e-07
740	1.81693e-07
750.006	1.91751e-07
760.001	2.0216e-07
770.006	2.12967e-07
780.044	2.24216e-07
790.011	2.35518e-07
800.001	2.47582e-07
