0	0
11.3035	0
21.194	0
31.0844	0
40.9747	0
50.8649	0
60.755	0
70.6451	0
80.535	0
90.4249	0
100.315	0
110.204	0
120.094	0
131.374	0
141.167	0
150.892	0
160.593	0
170.292	0
181.375	0
191.073	0
200.771	0
210.468	0
220.165	0
231.244	3.63798e-12
240.929	1.00044e-11
250.614	1.63709e-11
260.299	2.27374e-11
271.367	3.00133e-11
281.052	4.18368e-11
290.737	5.45697e-11
300.421	7.00311e-11
310.106	8.91305e-11
321.174	1.17325e-10
330.859	1.46429e-10
340.544	1.81899e-10
350.228	2.23736e-10
361.28	2.81943e-10
370.914	3.4288e-10
380.517	4.1382e-10
390.067	4.95675e-10
400.97	6.05723e-10
410.416	7.17591e-10
421.17	8.6402e-10
430.515	1.01227e-09
441.201	1.20508e-09
450.553	1.40062e-09
461.242	1.65528e-09
470.594	1.90994e-09
481.272	2.24099e-09
490.578	2.56841e-09
501.177	2.99042e-09
510.411	3.40424e-09
520.966	3.94084e-09
530.198	4.46926e-09
540.74	5.14683e-09
551.271	5.91263e-09
560.481	6.66569e-09
571	7.62611e-09
580.202	8.56926e-09
590.72	9.77343e-09
601.237	1.11286e-08
610.44	1.24455e-08
620.957	1.41081e-08
630.159	1.57115e-08
640.677	1.77179e-08
651.194	1.99198e-08
660.396	2.20125e-08
670.913	2.46018e-08
680.116	2.70447e-08
690.631	3.00433e-08
701.124	3.32557e-08
710.299	3.62443e-08
720.786	3.98613e-08
731.273	4.36903e-08
740.449	4.72091e-08
750.936	5.14183e-08
760.112	5.52609e-08
770.598	5.98293e-08
781.085	6.45787e-08
790.261	6.88824e-08
800.748	7.3961e-08
811.234	7.92088e-08
820.41	8.39382e-08
830.897	8.94988e-08
840.072	9.45029e-08
850.559	1.00379e-07
861.045	1.06433e-07
870.221	1.1188e-07
880.708	1.18286e-07
891.194	1.24899e-07
900.37	1.30867e-07
910.856	1.37916e-07
920.031	1.44302e-07
930.518	1.51877e-07
941.004	1.5978e-07
950.18	1.66995e-07
960.666	1.75624e-07
971.152	1.84713e-07
980.328	1.93088e-07
990.814	2.03205e-07
1001.3	2.13969e-07
1010.48	2.23983e-07
1020.96	2.36188e-07
1030.14	2.47604e-07
1040.62	2.61586e-07
1051.11	2.76672e-07
1060.28	2.90873e-07
1070.77	3.08363e-07
1081.26	3.27334e-07
1090.43	3.45266e-07
1100.92	3.67426e-07
1110.09	3.88404e-07
1120.58	4.14361e-07
1131.07	4.42617e-07
1140.24	4.6938e-07
1150.72	5.02512e-07
1161.2	5.38585e-07
1170.37	5.7275e-07
1180.85	6.15003e-07
1190.03	6.5499e-07
1200.51	7.04393e-07
1210.99	7.58041e-07
1220.17	8.08717e-07
1230.65	8.71201e-07
1241.13	9.389e-07
1250.3	1.0027e-06
1260.79	1.08119e-06
1271.27	1.16601e-06
1280.44	1.24573e-06
1290.91	1.34349e-06
1300.05	1.43504e-06
1310.49	1.54714e-06
1320.93	1.66769e-06
1330.06	1.78048e-06
1340.49	1.91823e-06
1350.9	2.06624e-06
1360	2.20506e-06
1370.4	2.37481e-06
1380.81	2.55674e-06
1391.21	2.75112e-06
1400.31	2.93158e-06
1410.71	3.14986e-06
1421.11	3.38113e-06
1430.21	3.59429e-06
1440.62	3.85042e-06
1451.02	4.1201e-06
1460.09	4.36667e-06
1470.46	4.66139e-06
1480.82	4.97023e-06
1491.18	5.29378e-06
1500.24	5.5893e-06
1510.6	5.94171e-06
1520.96	6.31034e-06
1530.02	6.64672e-06
1540.38	7.04765e-06
1550.74	7.46695e-06
1561.08	7.90486e-06
1570.11	8.30369e-06
1580.41	8.77809e-06
1590.62	9.27041e-06
1600.83	9.78567e-06
1611.04	1.03251e-05
1621.25	1.08902e-05
1630.18	1.14067e-05
1640.39	1.20237e-05
1650.6	1.26707e-05
1660.81	1.33493e-05
1671.02	1.40613e-05
1681.23	1.48087e-05
1690.16	1.54931e-05
1700.37	1.63119e-05
1710.58	1.71717e-05
1720.79	1.80747e-05
1731	1.90227e-05
1741.21	2.00174e-05
1750.14	2.0927e-05
1760.35	2.20126e-05
1770.56	2.31484e-05
1780.77	2.43355e-05
1790.98	2.55748e-05
1801.19	2.68675e-05
1810.12	2.80431e-05
1820.33	2.94384e-05
1830.54	3.08901e-05
1840.75	3.23992e-05
1850.96	3.39671e-05
1861.17	3.5595e-05
1870.11	3.70698e-05
1880.32	3.88143e-05
1890.52	4.06234e-05
1900.73	4.24989e-05
1910.94	4.44427e-05
1921.15	4.64572e-05
1930.09	4.82795e-05
1940.3	5.04326e-05
1950.51	5.26635e-05
1960.71	5.49749e-05
1970.92	5.73697e-05
1981.13	5.98512e-05
1990.07	6.20961e-05
2000.28	6.4749e-05
2010.49	6.74982e-05
2020.69	7.03476e-05
2030.9	7.33011e-05
2041.11	7.63627e-05
2050.05	7.91337e-05
2060.26	8.24098e-05
2070.46	8.58068e-05
2080.67	8.42181e-05
2090.88	8.29101e-05
2101.09	8.18625e-05
2110.03	8.11455e-05
2120.23	8.05399e-05
2130.44	8.01483e-05
2140.65	7.99567e-05
2150.86	7.99529e-05
2161.07	8.01258e-05
2170	8.04145e-05
2180.21	8.08937e-05
2190.42	8.15251e-05
2200.63	8.23021e-05
2210.84	8.32194e-05
2221.05	8.42724e-05
2231.26	8.54576e-05
2240.19	8.66009e-05
2250.4	8.8027e-05
2260.61	8.95793e-05
2270.82	9.12571e-05
2281.03	9.30604e-05
2291.24	9.49897e-05
2300.17	9.67822e-05
2310.38	9.89515e-05
2320.59	0.000101252
2330.79	0.000103685
2341	0.000106255
2351.21	0.000108965
2360.15	0.000111454
2370.35	0.000114436
2380.56	0.00011757
2390.77	0.00012086
2400.98	0.000124312
2411.19	0.00012793
2420.55	0.000131398
2430.76	0.000135351
2440.97	0.000139488
2451.18	0.000143815
2460.11	0.000147756
2470.32	0.00015242
2480.53	0.000157245
2490.74	0.000162221
2500.94	0.000167341
2511.15	0.000172601
2520.09	0.000177317
2530.29	0.000182835
2540.5	0.000188493
2550.71	0.000194292
2560.92	0.000200236
2571.13	0.000206331
2580.06	0.000211793
2590.27	0.000218188
2600.48	0.000224755
2610.69	0.000231504
2620.9	0.000238444
2631.11	0.000245587
2640.02	0.000252001
2650.19	0.000259522
2660.35	0.000267282
2670.51	0.000275294
2680.67	0.000283573
2690.83	0.000292133
2700.99	0.000300987
2711.15	0.000310149
2720.04	0.000318429
2730.2	0.000328205
2740.36	0.000338328
2750.52	0.000348811
2760.68	0.000359669
2770.85	0.000370916
2781.01	0.000382567
2791.17	0.00039464
2800.06	0.000405561
2810.22	0.00041847
2820.38	0.000439031
2830.54	0.0004717
2840.7	0.000504212
2850.86	0.000536471
2861.02	0.000568435
2871.18	0.000600099
2880.07	0.000627575
2890.24	0.000658758
2900.4	0.000689769
2910.56	0.000720689
2920.72	0.00075161
2930.88	0.000782632
2941.04	0.000813865
2951.2	0.00084542
2960.09	0.000873386
2970.25	0.000905858
2980.41	0.000938986
2990.57	0.000972883
3000.73	0.00100766
3010.89	0.00104344
3021.05	0.00108028
3031.21	0.00111807
3040.1	0.00115179
3050.27	0.00119099
3060.43	0.00123085
3070.59	0.00127138
3080.75	0.00131263
3090.91	0.00135468
3101.07	0.00139762
3111.23	0.00144161
3120.12	0.00148107
3130.28	0.00152746
3140.44	0.00157538
3150.6	0.00162502
3160.76	0.00167654
3170.92	0.00173011
3181.08	0.0017859
3191.24	0.00184407
3200.13	0.00189707
3210.29	0.00202566
3220.45	0.00215703
3230.61	0.00228158
3240.77	0.00240053
3250.93	0.00251559
3261.09	0.00262863
3271.25	0.00274159
3280.14	0.00284179
3290.3	0.00295939
3300.46	0.00308174
3310.62	0.00320877
3320.78	0.00333947
3330.94	0.00347375
3341.1	0.00361229
3351.26	0.00375627
3360.15	0.00388802
3370.31	0.00404674
3380.47	0.00421569
3390.64	0.00441938
3400.8	0.00478455
3410.96	0.00513561
3421.12	0.00547919
3430.01	0.00578308
3440.17	0.00614469
3450.33	0.0065244
3460.49	0.0069149
3470.65	0.00732125
3480.81	0.007757
3490.97	0.00853426
3501.13	0.00929561
3510.02	0.00995796
3520.18	0.0107802
3530.34	0.0116929
3540.5	0.013396
3550.66	0.0151606
3560.82	0.0185864
3570.98	0.0253704
3581.14	0.0315859
3590.03	0.0364615
3600.19	0.0420924
3610.35	0.0474132
3620.51	0.0524492
3630.67	0.0570152
3640.83	0.0614922
3650.99	0.0660888
3661.15	0.0706844
3670.04	0.0745625
3680.2	0.0788101
3690.36	0.0829825
3700.52	0.0871414
3710.68	0.0912458
3720.84	0.0952646
3731	0.0992916
3741.16	0.103393
3750.05	0.106989
3760.21	0.111007
3770.37	0.11491
3780.54	0.11876
3790.7	0.122607
3800.86	0.126449
3811.02	0.130291
3821.18	0.13418
3830.07	0.13766
3840.23	0.141727
3850.39	0.145861
3860.63	0.150071
3870.88	0.154338
3881.13	0.158675
3890.1	0.162532
3900.34	0.167024
3910.59	0.171615
3920.84	0.176305
3931.09	0.181076
3940.06	0.185294
3950.31	0.19015
3960.56	0.195041
3970.81	0.199971
3981.06	0.204954
3990.04	0.209372
4000.29	0.214505
4010.55	0.219742
4020.8	0.225087
4031.06	0.230541
4040.03	0.235409
4050.29	0.241102
4060.55	0.246961
4070.8	0.25302
4081.06	0.259312
4090.03	0.265037
4100.29	0.271862
4110.55	0.27902
4120.8	0.286558
4131.07	0.294535
4140.06	0.301931
4150.34	0.310928
4160.65	0.320606
4170.97	0.331053
4180.01	0.340899
4190.35	0.353023
4200.7	0.366163
4211.05	0.380429
4220.12	0.393902
4230.54	0.410583
4240.95	0.428643
4250.06	0.445633
4260.48	0.466459
4270.89	0.48882
4280	0.509652
4290.42	0.534891
4300.83	0.561618
4311.25	0.589766
4320.36	0.615492
4330.78	0.64604
4341.19	0.677669
4350.3	0.706086
4360.72	0.739212
4371.13	0.772777
4380.24	0.802271
4390.66	0.835819
4401.07	0.868845
4410.19	0.897004
4420.6	0.927967
4431.01	0.957203
4440.13	0.980998
4450.54	1.00571
4460.96	1.02727
4470.07	1.04314
4480.48	1.05734
4490.9	1.06684
4500.01	1.07085
4510.43	1.07003
4520.84	1.06296
4531.26	1.04914
4540.37	1.03116
4550.78	1.00351
4561.2	0.967962
4570.31	0.930175
4580.73	0.879202
4591.14	0.819855
4600.25	0.761076
4610.67	0.686149
4621.08	0.603045
4630.2	0.523635
4640.61	0.425091
4651.02	0.317835
4660.14	0.216297
4670.55	0.0908327
4680.97	-0.0353372
4690.08	-0.0805235
4700.5	-0.134129
4710.91	-0.154797
4720.03	-0.182109
4730.48	-0.206068
4740.94	-0.224591
4750.1	-0.238714
4760.57	-0.24331
4771.03	-0.260264
4780.21	-0.270993
4790.7	-0.280868
4801.18	-0.289197
4810.36	-0.295029
4820.84	-0.301122
4830.02	-0.30631
4840.51	-0.311886
4850.99	-0.316946
4860.17	-0.308467
4870.66	-0.311013
4881.14	-0.316623
4890.22	-0.320699
4900.7	-0.324653
4911.19	-0.32796
4920.36	-0.330432
4930.85	-0.332897
4940.03	-0.334821
4950.51	-0.336443
4960.99	-0.337903
4970.16	-0.339112
4980.65	-0.340445
4991.13	-0.341764
5000.3	-0.342882
5010.78	-0.344097
5021.27	-0.345224
5030.44	-0.346128
5040.92	-0.346984
5050.09	-0.339186
5060.58	-0.340241
5071.06	-0.341612
5080.23	-0.342901
5090.72	-0.344181
5101.2	-0.345263
5110.37	-0.346031
5120.85	-0.346725
5130.02	-0.347191
5140.49	-0.347576
5150.95	-0.347819
5160.09	-0.347927
5170.53	-0.347941
5180.96	-0.34785
5190.09	-0.347691
5200.5	-0.347428
5210.9	-0.347084
5220.01	-0.346723
5230.41	-0.346245
5240.81	-0.345693
5251.21	-0.345089
5260.31	-0.344525
5270.72	-0.34384
5281.12	-0.342972
5290.22	-0.342074
5300.62	-0.341028
5311.02	-0.339958
5320.12	-0.339
5330.53	-0.33788
5340.91	-0.336731
5351.28	-0.335554
5360.35	-0.334498
5370.71	-0.333261
5381.07	-0.331993
5390.13	-0.330858
5400.49	-0.329528
5410.85	-0.328151
5421.21	-0.326736
5430.27	-0.325475
5440.63	-0.316423
5450.96	-0.315623
5461.28	-0.314814
5470.24	-0.314105
5480.45	-0.313293
5490.66	-0.312477
5500.87	-0.311658
5511.08	-0.310838
5520.01	-0.310122
5530.22	-0.309307
5540.43	-0.308499
5550.64	-0.307698
5560.85	-0.306907
5571.06	-0.306127
5581.27	-0.305358
5590.21	-0.304696
5600.42	-0.303956
5610.63	-0.303234
5620.84	-0.30253
5631.05	-0.301846
5641.26	-0.301178
5650.19	-0.300607
5660.4	-0.299965
5670.61	-0.299331
5680.82	-0.298701
5691.03	-0.298073
5701.24	-0.297441
5710.17	-0.296882
5720.38	-0.296234
5730.59	-0.295572
5740.8	-0.294892
5751.01	-0.294191
5761.22	-0.293464
5770.15	-0.292806
5780.36	-0.292024
5790.57	-0.291302
5800.78	-0.290575
5810.99	-0.289782
5821.2	-0.288925
5830.14	-0.288124
5840.35	-0.287149
5850.56	-0.286111
5860.76	-0.284863
5870.97	-0.283555
5881.18	-0.28219
5890.12	-0.280951
5900.33	-0.279486
5910.54	-0.27797
5920.75	-0.276405
5930.96	-0.274795
5941.17	-0.273139
5950.1	-0.271655
5960.31	-0.270022
5970.52	-0.269015
5980.73	-0.267897
5990.94	-0.266684
6001.15	-0.265387
6010.08	-0.26419
6020.29	-0.262758
6030.5	-0.261264
6040.71	-0.259711
6050.92	-0.258103
6061.13	-0.256442
6070.06	-0.254947
6080.27	-0.253194
6090.48	-0.251394
6100.69	-0.249548
6110.9	-0.247657
6121.11	-0.245724
6130.04	-0.243998
6140.25	-0.241987
6150.46	-0.239937
6160.67	-0.237849
6170.88	-0.235717
6181.09	-0.233543
6190.02	-0.231616
6200.23	-0.229394
6210.44	-0.227158
6220.65	-0.224913
6230.86	-0.222663
6241.07	-0.22041
6250.01	-0.218438
6260.22	-0.216184
6270.42	-0.213929
6280.63	-0.211672
6290.84	-0.209412
6301.05	-0.207148
6311.26	-0.204877
6320.2	-0.202883
6330.41	-0.200596
6340.62	-0.198299
6350.83	-0.19599
6361.03	-0.193669
6371.24	-0.190425
6380.18	-0.187133
6390.39	-0.183438
6400.6	-0.179833
6410.81	-0.176319
6421.02	-0.172886
6431.23	-0.169516
6440.16	-0.166604
6450.37	-0.163299
6460.58	-0.160001
6470.79	-0.156692
6481	-0.153366
6491.21	-0.150043
6500.14	-0.147148
6510.35	-0.143855
6520.56	-0.140568
6530.77	-0.137269
6540.98	-0.133939
6551.19	-0.130558
6560.12	-0.127546
6570.33	-0.121389
6580.54	-0.115572
6590.75	-0.110048
6600.96	-0.104689
6611.17	-0.0993673
6620.1	-0.0946662
6630.31	-0.0892476
6640.52	-0.0838831
6650.73	-0.0785534
6660.94	-0.0731545
6671.15	-0.0648385
6680.09	-0.0577534
6690.27	-0.0501024
6700.43	-0.0422153
6710.59	-0.0341283
6720.75	-0.0218842
6730.91	-0.00942703
6741.07	0.00790548
6751.23	0.0362852
6760.12	0.058491
6770.28	0.0734915
6780.44	0.0846461
6790.61	0.0919948
6800.77	0.0962469
6810.93	0.0970704
6821.09	0.0962492
6831.25	0.0964514
6840.14	0.0974954
6850.3	0.0986547
6860.46	0.0987299
6870.62	0.0981186
6880.78	0.0976632
6890.94	0.0977678
6901.1	0.0980586
6911.27	0.0983524
6920.16	0.0990634
6930.32	0.100633
6940.48	0.1024
6950.64	0.103537
6960.8	0.103927
6970.96	0.104045
6981.12	0.104222
6990.01	0.104331
7000.17	0.104204
7010.33	0.103895
7020.49	0.103668
7030.66	0.103562
7040.82	0.103325
7050.98	0.102735
7061.14	0.101848
7070.03	0.101006
7080.19	0.100145
7090.35	0.09948
7100.51	0.0990511
7110.67	0.0988164
7120.83	0.0985835
7130.99	0.0980656
7141.15	0.0970556
7150.04	0.0957469
7160.2	0.0938667
7170.37	0.0917309
7180.53	0.0895129
7190.69	0.0873924
7200.85	0.085504
7211.01	0.0838583
7221.17	0.082336
7230.06	0.0809854
7240.22	0.079355
7250.38	0.0776761
7260.54	0.076075
7270.7	0.0746945
7280.86	0.0736447
7291.02	0.0729712
7301.18	0.0726379
7310.08	0.0725426
7320.24	0.0725364
7330.4	0.0725306
7340.56	0.072465
7350.72	0.0723404
7360.88	0.0722027
7371.04	0.0721181
7381.2	0.0721448
7390.09	0.0722824
7400.25	0.0725661
7410.41	0.0729611
7420.57	0.0734441
7430.73	0.0740074
7440.89	0.0746586
7451.06	0.0754093
7461.22	0.0762598
7470.11	0.0770681
7480.27	0.0780227
7490.43	0.0789503
7500.59	0.0797913
7510.75	0.0805068
7520.91	0.0810891
7531.07	0.0815587
7541.23	0.081952
7550.12	0.0822626
7560.28	0.0826016
7570.44	0.0829304
7580.61	0.0832433
7590.77	0.0835345
7600.93	0.0838132
7611.09	0.0841109
7621.25	0.0844782
7630.14	0.0848995
7640.3	0.0855314
7650.46	0.0863331
7660.62	0.0872777
7670.78	0.0883076
7680.94	0.0893538
7691.1	0.0903595
7701.27	0.0912985
7710.16	0.0920738
7720.32	0.0929454
7730.48	0.0938592
7740.64	0.0948751
7750.8	0.0960363
7760.96	0.0973618
7771.12	0.0988476
7780.01	0.100265
7790.22	0.10201
7800.47	0.103872
7810.72	0.105833
7820.97	0.107882
7831.21	0.109997
7840.18	0.111873
7850.43	0.113994
7860.68	0.11603
7870.93	0.117912
7881.18	0.11959
7890.15	0.120867
7900.4	0.122106
7910.65	0.12313
7920.9	0.123977
7931.15	0.124691
7940.11	0.125238
7950.36	0.125799
7960.61	0.126312
7970.86	0.126785
7981.11	0.127223
7990.08	0.127578
8000.33	0.127951
8010.58	0.128283
8020.83	0.128564
8031.08	0.128779
8040.04	0.128893
8050.29	0.128919
8060.55	0.128809
8070.8	0.128544
8081.06	0.128115
8090.03	0.127604
8100.29	0.126871
8110.55	0.125993
8120.8	0.124983
8131.06	0.123855
8140.03	0.122782
8150.29	0.121464
8160.55	0.120052
8170.8	0.118547
8181.06	0.116944
8190.03	0.115453
8200.29	0.113638
8210.55	0.111685
8220.8	0.109576
8231.06	0.107293
8240.03	0.105142
8250.29	0.102499
8260.55	0.0996607
8270.81	0.0966311
8281.08	0.0934261
8290.07	0.0904881
8300.36	0.0870008
8310.64	0.0833972
8320.92	0.0797014
8331.2	0.0759395
8340.22	0.0726071
8350.53	0.0687853
8360.86	0.0649812
8371.2	0.0612238
8380.25	0.0579999
8390.59	0.0544078
8400.93	0.0509279
8411.27	0.0475675
8420.34	0.0447211
8430.74	0.0415691
8441.15	0.0385237
8450.27	0.0359456
8460.68	0.0330933
8471.1	0.030339
8480.21	0.0280094
8490.62	0.0254411
8501.04	0.0229776
8510.15	0.0209121
8520.57	0.018659
8530.98	0.0165245
8540.1	0.0147557
8550.51	0.012846
8560.93	0.010998
8570.04	0.00853772
8580.45	0.00706766
8590.87	0.00392221
8601.28	0.00278846
8610.4	-0.000521173
8620.81	-0.004414
8631.21	-0.00831671
8640.32	-0.0115948
8650.73	-0.0122137
8661.13	-0.0164733
8670.23	-0.0194683
8680.63	-0.0223522
8691.03	-0.0249516
8700.13	-0.0270438
8710.54	-0.0293226
8720.94	-0.031451
8730.04	-0.0305761
8740.44	-0.0333858
8750.84	-0.0359609
8761.25	-0.0382727
8770.35	-0.0401312
8780.75	-0.0421125
8791.15	-0.0439711
8800.25	-0.0455127
8810.66	-0.0471904
8821.06	-0.0488149
8830.16	-0.0500827
8840.56	-0.0514607
8850.96	-0.0527625
8860.04	-0.053838
8870.41	-0.0549958
8880.77	-0.0560795
8891.13	-0.0570887
8900.19	-0.0582375
8910.55	-0.0588705
8920.91	-0.0594035
8931.26	-0.0598563
8940.33	-0.0602
8950.69	-0.060544
8961.05	-0.0608463
8970.08	-0.0610855
8980.4	-0.0613406
8990.73	-0.0615845
9001.02	-0.0618234
9011.23	-0.0620613
9020.16	-0.0622732
9030.37	-0.0625853
9040.58	-0.06299
9050.79	-0.0633183
9061	-0.0636109
9071.21	-0.0639056
9080.15	-0.0641641
9090.36	-0.0644588
9100.57	-0.0647513
9110.78	-0.0650401
9120.99	-0.0653241
9131.2	-0.0656025
9140.13	-0.0658408
9150.34	-0.0661067
9160.55	-0.0663653
9170.76	-0.0666164
9180.97	-0.0668598
9191.18	-0.0647936
9200.11	-0.0636722
9210.32	-0.0641614
9220.53	-0.0646319
9230.74	-0.065084
9240.95	-0.0655178
9251.16	-0.0659332
9260.09	-0.0662817
9270.3	-0.0666629
9280.51	-0.0670239
9290.72	-0.0673616
9300.93	-0.0676767
9311.14	-0.06797
9320.08	-0.0682095
9330.29	-0.0684644
9340.5	-0.0686999
9350.71	-0.0689168
9360.92	-0.0691151
9371.13	-0.0692942
9380.06	-0.0694359
9390.27	-0.0695814
9400.48	-0.0697101
9410.69	-0.0698228
9420.9	-0.06992
9431.11	-0.0700025
9440.04	-0.0700631
9450.25	-0.0701197
9460.46	-0.0701634
9470.67	-0.0701947
9480.88	-0.0702141
9491.09	-0.0702223
9500.02	-0.0702205
9510.23	-0.0702087
9520.44	-0.070186
9530.65	-0.0701488
9540.86	-0.0701316
9551.07	-0.0701975
9560.01	-0.0702394
9570.22	-0.0702703
9580.43	-0.0702528
9590.64	-0.070171
9600.85	-0.0700796
9611.06	-0.0699789
9621.27	-0.0698694
9630.2	-0.0697665
9640.41	-0.0696412
9650.62	-0.0695078
9660.83	-0.0693666
9671.04	-0.0692177
9681.25	-0.0690614
9690.18	-0.0689186
9700.39	-0.0687485
9710.6	-0.0685713
9720.81	-0.068387
9731.02	-0.0681955
9741.23	-0.067997
9750.16	-0.0678174
9760.37	-0.0676057
9770.58	-0.0673868
9780.79	-0.067161
9791	-0.0669281
9801.21	-0.0666883
9810.15	-0.0664727
9820.36	-0.0662198
9830.57	-0.06596
9840.77	-0.0656935
9850.98	-0.0654202
9861.19	-0.0651402
9870.13	-0.0648899
9880.34	-0.0645979
9890.55	-0.0642998
9900.76	-0.0639959
9910.97	-0.0636864
9921.18	-0.0637352
9930.11	-0.0634813
9940.32	-0.0631885
9950.53	-0.0628928
9960.74	-0.062594
9970.95	-0.062292
9981.16	-0.061987
9990.09	-0.0617174
10000.3	-0.0614062
10010.5	-0.0610901
10020.7	-0.0607686
10030.9	-0.0604419
10041.1	-0.06011
10050.1	-0.0598154
10060.3	-0.059474
10070.5	-0.0591276
10080.7	-0.0587762
10090.9	-0.0583372
10101.1	-0.0578689
10110.1	-0.057458
10120.3	-0.0569871
10130.5	-0.0565148
10140.7	-0.0560412
10150.9	-0.0555661
10161.1	-0.05509
10170	-0.0546741
10180.2	-0.0541997
10190.5	-0.0537259
10200.6	-0.0532534
10210.8	-0.0527819
10221	-0.0523098
10231.1	-0.0518371
10240	-0.0514226
10250.2	-0.0509478
10260.3	-0.0504718
10270.5	-0.0499945
10280.7	-0.0495157
10290.8	-0.0490354
10301	-0.0485535
10311.1	-0.0480701
10320	-0.0476457
10330.2	-0.0471591
10340.4	-0.0466708
10350.5	-0.0461808
10360.7	-0.0456889
10370.8	-0.0451952
10381	-0.0446997
10391.2	-0.0442024
10400.1	-0.0437659
10410.2	-0.0432655
10420.4	-0.0427636
10430.5	-0.0422605
10440.7	-0.0417562
10450.9	-0.041251
10461	-0.0407449
10471.2	-0.0402383
10480.1	-0.0397945
10490.2	-0.039287
10500.4	-0.0387791
10510.6	-0.0382712
10520.7	-0.0377632
10530.9	-0.0372553
10541	-0.0367476
10551.2	-0.0362401
10560.1	-0.0357964
10570.2	-0.0352898
10580.4	-0.0347837
10590.6	-0.0342783
10600.7	-0.0337736
10610.9	-0.0332696
10621.1	-0.0327668
10631.2	-0.0322657
10640.1	-0.0318288
10650.3	-0.0313232
10660.4	-0.0307667
10670.6	-0.0302182
10680.7	-0.0296776
10690.9	-0.029146
10701.1	-0.0286242
10711.2	-0.0281115
10720.1	-0.0276699
10730.3	-0.0271727
10740.4	-0.026683
10750.6	-0.0262003
10760.8	-0.0257241
10770.9	-0.0252539
10781.1	-0.0247894
10791.2	-0.0243301
10800.1	-0.0239323
10810.3	-0.023482
10820.5	-0.0230021
10830.6	-0.0225108
10840.8	-0.0220441
10850.9	-0.0215984
10861.1	-0.0211704
10871.3	-0.0207571
10880.2	-0.0204058
10890.3	-0.0200139
10900.5	-0.0196305
10910.6	-0.0192545
10920.8	-0.0188882
10931	-0.0185315
10941.1	-0.0181833
10950	-0.0178845
10960.2	-0.0175487
10970.3	-0.0172177
10980.5	-0.0168904
10990.7	-0.0165656
11000.8	-0.0162424
11011	-0.0159198
11021.1	-0.0155969
11030	-0.0153137
11040.2	-0.0149889
11050.4	-0.0146629
11060.5	-0.0143356
11070.7	-0.0140066
11080.8	-0.0136756
11091	-0.0133424
11101.2	-0.0130064
11110	-0.0127098
11120.2	-0.0123678
11130.4	-0.0120225
11140.5	-0.011681
11150.7	-0.0113434
11160.9	-0.011008
11171	-0.0106734
11181.2	-0.0103384
11190.1	-0.0100438
11200.2	-0.00970448
11210.4	-0.0093615
11220.5	-0.00901402
11230.7	-0.00857278
11240.9	-0.00804776
11251	-0.00749906
11261.2	-0.00693685
11270.1	-0.00643912
11280.2	-0.00586747
11290.4	-0.00529521
11300.6	-0.00472373
11310.7	-0.00415475
11320.9	-0.00358936
11331	-0.00302768
11341.2	-0.00246815
11350.1	-0.00197542
11360.3	-0.00140831
11370.4	-0.000837054
11380.6	-0.000262062
11390.7	0.00031435
11400.9	0.000889778
11411.1	0.0014632
11421.2	0.00249243
11430.1	0.00375588
11440.3	0.00509871
11450.4	0.00631335
11460.6	0.00739792
11470.8	0.00836484
11480.9	0.00925117
11491.1	0.010071
11501.2	0.0108267
11510.1	0.0117559
11520.3	0.012647
11530.5	0.0134184
11540.6	0.0141219
11550.8	0.0147659
11560.9	0.0155198
11571.1	0.0165968
11581.3	0.0179519
11590.1	0.020204
11600.3	0.0232124
11610.5	0.0253775
11620.6	0.0277968
11630.8	0.0304132
11641	0.0331178
11651.1	0.0359575
11660	0.0384685
11670.2	0.0414827
11680.3	0.0446526
11690.5	0.047844
11700.6	0.0510907
11710.8	0.0544432
11721	0.0578169
11731.1	0.0611364
11740	0.0639774
11750.2	0.0671234
11760.3	0.0700761
11770.5	0.0727093
11780.7	0.0749555
11790.9	0.076848
11801.1	0.0784601
11810.1	0.0796857
11820.3	0.0809151
11830.6	0.0819842
11840.8	0.0829054
11851.1	0.0836937
11860	0.084295
11870.3	0.0849092
11880.5	0.0854682
11890.8	0.0859854
11901	0.0864721
11910	0.0868839
11920.3	0.0873493
11930.5	0.0878124
11940.8	0.0882702
11951	0.0887195
11960	0.0891071
11970.3	0.0895477
11980.5	0.0899852
11990.8	0.0904071
