STARTING WORLD SCHEDULER SERVER
CLIENT SETUP: adding client 43500
 + TIMESTAMP: 0.371001
START TIMESTAMP: 0.371039
+++++++++++++++++++++++++++++++++++++++++++++++++++++++++++
+ Client Mapping:
  > Client 43500 (0):	

+ Core Mapping:	0 0 0 0 0 0 0 0 0 0 0 0 0 0 0 0 0 0 0 0 0 0 0 0 0 0 0 0 0 0 0 0 0 0 0 0 0 0 0 0 
+ Optimal point: 
+++++++++++++++++++++++++++++++++++++++++++++++++++++++++++
CLIENT SETUP: adding client 43498
 + TIMESTAMP: 0.37127
+++++++++++++++++++++++++++++++++++++++++++++++++++++++++++
+ Client Mapping:
  > Client 43500 (0):	
  > Client 43498 (0):	

+ Core Mapping:	0 0 0 0 0 0 0 0 0 0 0 0 0 0 0 0 0 0 0 0 0 0 0 0 0 0 0 0 0 0 0 0 0 0 0 0 0 0 0 0 
+ Optimal point: 
+++++++++++++++++++++++++++++++++++++++++++++++++++++++++++
INVADE: client 43500
 + TIMESTAMP: 0.371324
RESSOURCE DISTRIBUTION CHANGED
++++++++++++++++++++++++++++++++++++++++++++++++
INVADE (43500)
  + pid: 43500
  + min_cores: 1
  + max_cores: 512
  + scalability graph: 
1, 1.39494, 1.5699, 1.6742, 1.74538, 1.79792, 1.83875, 1.87167, 1.89893, 1.922, 1.94184, 1.95915, 1.97442, 1.98802, 2.00024, 2.0113, 2.02136, 2.03058, 2.03906, 2.04689, 2.05415, 2.06092, 2.06724, 2.07316, 2.07872, 2.08396, 2.0889, 2.09358, 2.09801, 2.10222, 2.10622, 2.11003, 2.11367, 2.11715, 2.12048, 2.12367, 2.12672, 2.12966, 2.13248, 2.1352, 
Number of clients: 2

+++++++++++++++++++++++++++++++++++++++++++++++++++++++++++
+ Client Mapping:
  > Client 43500 (1):	0 
  > Client 43498 (0):	

+ Core Mapping:	43500 0 0 0 0 0 0 0 0 0 0 0 0 0 0 0 0 0 0 0 0 0 0 0 0 0 0 0 0 0 0 0 0 0 0 0 0 0 0 0 
+ Optimal point: 1 39 
+++++++++++++++++++++++++++++++++++++++++++++++++++++++++++
INVADE: client 43498
 + TIMESTAMP: 0.371446
RESSOURCE DISTRIBUTION CHANGED
++++++++++++++++++++++++++++++++++++++++++++++++
INVADE (43498)
  + pid: 43498
  + min_cores: 1
  + max_cores: 512
  + scalability graph: 
1, 1.39494, 1.5699, 1.6742, 1.74538, 1.79792, 1.83875, 1.87167, 1.89893, 1.922, 1.94184, 1.95915, 1.97442, 1.98802, 2.00024, 2.0113, 2.02136, 2.03058, 2.03906, 2.04689, 2.05415, 2.06092, 2.06724, 2.07316, 2.07872, 2.08396, 2.0889, 2.09358, 2.09801, 2.10222, 2.10622, 2.11003, 2.11367, 2.11715, 2.12048, 2.12367, 2.12672, 2.12966, 2.13248, 2.1352, 
Number of clients: 2

+++++++++++++++++++++++++++++++++++++++++++++++++++++++++++
+ Client Mapping:
  > Client 43500 (1):	0 
  > Client 43498 (20):	1 2 3 4 5 6 7 8 9 10 11 12 13 14 15 16 17 18 19 20 

+ Core Mapping:	43500 43498 43498 43498 43498 43498 43498 43498 43498 43498 43498 43498 43498 43498 43498 43498 43498 43498 43498 43498 43498 0 0 0 0 0 0 0 0 0 0 0 0 0 0 0 0 0 0 0 
+ Optimal point: 20 20 
+++++++++++++++++++++++++++++++++++++++++++++++++++++++++++
CLIENT SETUP: adding client 43495
 + TIMESTAMP: 0.400018
+++++++++++++++++++++++++++++++++++++++++++++++++++++++++++
+ Client Mapping:
  > Client 43500 (1):	0 
  > Client 43498 (20):	1 2 3 4 5 6 7 8 9 10 11 12 13 14 15 16 17 18 19 20 
  > Client 43495 (0):	

+ Core Mapping:	43500 43498 43498 43498 43498 43498 43498 43498 43498 43498 43498 43498 43498 43498 43498 43498 43498 43498 43498 43498 43498 0 0 0 0 0 0 0 0 0 0 0 0 0 0 0 0 0 0 0 
+ Optimal point: 20 20 
+++++++++++++++++++++++++++++++++++++++++++++++++++++++++++
INVADE: client 43495
 + TIMESTAMP: 0.400125
RESSOURCE DISTRIBUTION CHANGED
++++++++++++++++++++++++++++++++++++++++++++++++
INVADE (43495)
  + pid: 43495
  + min_cores: 1
  + max_cores: 512
  + scalability graph: 
1, 1.39494, 1.5699, 1.6742, 1.74538, 1.79792, 1.83875, 1.87167, 1.89893, 1.922, 1.94184, 1.95915, 1.97442, 1.98802, 2.00024, 2.0113, 2.02136, 2.03058, 2.03906, 2.04689, 2.05415, 2.06092, 2.06724, 2.07316, 2.07872, 2.08396, 2.0889, 2.09358, 2.09801, 2.10222, 2.10622, 2.11003, 2.11367, 2.11715, 2.12048, 2.12367, 2.12672, 2.12966, 2.13248, 2.1352, 
Number of clients: 3

+++++++++++++++++++++++++++++++++++++++++++++++++++++++++++
+ Client Mapping:
  > Client 43500 (1):	0 
  > Client 43498 (20):	1 2 3 4 5 6 7 8 9 10 11 12 13 14 15 16 17 18 19 20 
  > Client 43495 (13):	21 22 23 24 25 26 27 28 29 30 31 32 33 

+ Core Mapping:	43500 43498 43498 43498 43498 43498 43498 43498 43498 43498 43498 43498 43498 43498 43498 43498 43498 43498 43498 43498 43498 43495 43495 43495 43495 43495 43495 43495 43495 43495 43495 43495 43495 43495 0 0 0 0 0 0 
+ Optimal point: 14 13 13 
+++++++++++++++++++++++++++++++++++++++++++++++++++++++++++
++++++++++++++++++++++++++++++++++++++++++++++++
 + TIMESTAMP: 0.401348
REINVADE (43500)
  + pid: 43500
  + min_cores: 1
  + max_cores: 512
  + scalability graph: 
1, 1.39494, 1.5699, 1.6742, 1.74538, 1.79792, 1.83875, 1.87167, 1.89893, 1.922, 1.94184, 1.95915, 1.97442, 1.98802, 2.00024, 2.0113, 2.02136, 2.03058, 2.03906, 2.04689, 2.05415, 2.06092, 2.06724, 2.07316, 2.07872, 2.08396, 2.0889, 2.09358, 2.09801, 2.10222, 2.10622, 2.11003, 2.11367, 2.11715, 2.12048, 2.12367, 2.12672, 2.12966, 2.13248, 2.1352, 
Number of clients: 3

+++++++++++++++++++++++++++++++++++++++++++++++++++++++++++
+ Client Mapping:
  > Client 43500 (7):	0 34 35 36 37 38 39 
  > Client 43498 (20):	1 2 3 4 5 6 7 8 9 10 11 12 13 14 15 16 17 18 19 20 
  > Client 43495 (13):	21 22 23 24 25 26 27 28 29 30 31 32 33 

+ Core Mapping:	43500 43498 43498 43498 43498 43498 43498 43498 43498 43498 43498 43498 43498 43498 43498 43498 43498 43498 43498 43498 43498 43495 43495 43495 43495 43495 43495 43495 43495 43495 43495 43495 43495 43495 43500 43500 43500 43500 43500 43500 
+ Optimal point: 14 13 13 
+++++++++++++++++++++++++++++++++++++++++++++++++++++++++++
CLIENT SETUP: adding client 43499
 + TIMESTAMP: 0.401571
+++++++++++++++++++++++++++++++++++++++++++++++++++++++++++
+ Client Mapping:
  > Client 43500 (7):	0 34 35 36 37 38 39 
  > Client 43498 (20):	1 2 3 4 5 6 7 8 9 10 11 12 13 14 15 16 17 18 19 20 
  > Client 43495 (13):	21 22 23 24 25 26 27 28 29 30 31 32 33 
  > Client 43499 (0):	

+ Core Mapping:	43500 43498 43498 43498 43498 43498 43498 43498 43498 43498 43498 43498 43498 43498 43498 43498 43498 43498 43498 43498 43498 43495 43495 43495 43495 43495 43495 43495 43495 43495 43495 43495 43495 43495 43500 43500 43500 43500 43500 43500 
+ Optimal point: 14 13 13 
+++++++++++++++++++++++++++++++++++++++++++++++++++++++++++
INVADE: client 43499
 + TIMESTAMP: 0.401687
CLIENT SETUP: adding client 43493
 + TIMESTAMP: 0.404484
+++++++++++++++++++++++++++++++++++++++++++++++++++++++++++
+ Client Mapping:
  > Client 43500 (7):	0 34 35 36 37 38 39 
  > Client 43498 (20):	1 2 3 4 5 6 7 8 9 10 11 12 13 14 15 16 17 18 19 20 
  > Client 43495 (13):	21 22 23 24 25 26 27 28 29 30 31 32 33 
  > Client 43499 (0):	
  > Client 43493 (0):	

+ Core Mapping:	43500 43498 43498 43498 43498 43498 43498 43498 43498 43498 43498 43498 43498 43498 43498 43498 43498 43498 43498 43498 43498 43495 43495 43495 43495 43495 43495 43495 43495 43495 43495 43495 43495 43495 43500 43500 43500 43500 43500 43500 
+ Optimal point: 10 10 10 10 
+++++++++++++++++++++++++++++++++++++++++++++++++++++++++++
INVADE: client 43493
 + TIMESTAMP: 0.409025
CLIENT SETUP: adding client 43494
 + TIMESTAMP: 0.413584
+++++++++++++++++++++++++++++++++++++++++++++++++++++++++++
+ Client Mapping:
  > Client 43500 (7):	0 34 35 36 37 38 39 
  > Client 43498 (20):	1 2 3 4 5 6 7 8 9 10 11 12 13 14 15 16 17 18 19 20 
  > Client 43495 (13):	21 22 23 24 25 26 27 28 29 30 31 32 33 
  > Client 43499 (0):	
  > Client 43493 (0):	
  > Client 43494 (0):	

+ Core Mapping:	43500 43498 43498 43498 43498 43498 43498 43498 43498 43498 43498 43498 43498 43498 43498 43498 43498 43498 43498 43498 43498 43495 43495 43495 43495 43495 43495 43495 43495 43495 43495 43495 43495 43495 43500 43500 43500 43500 43500 43500 
+ Optimal point: 8 8 8 8 8 
+++++++++++++++++++++++++++++++++++++++++++++++++++++++++++
INVADE: client 43494
 + TIMESTAMP: 0.413695
CLIENT SETUP: adding client 43492
 + TIMESTAMP: 0.470279
+++++++++++++++++++++++++++++++++++++++++++++++++++++++++++
+ Client Mapping:
  > Client 43500 (7):	0 34 35 36 37 38 39 
  > Client 43498 (20):	1 2 3 4 5 6 7 8 9 10 11 12 13 14 15 16 17 18 19 20 
  > Client 43495 (13):	21 22 23 24 25 26 27 28 29 30 31 32 33 
  > Client 43499 (0):	
  > Client 43493 (0):	
  > Client 43494 (0):	
  > Client 43492 (0):	

+ Core Mapping:	43500 43498 43498 43498 43498 43498 43498 43498 43498 43498 43498 43498 43498 43498 43498 43498 43498 43498 43498 43498 43498 43495 43495 43495 43495 43495 43495 43495 43495 43495 43495 43495 43495 43495 43500 43500 43500 43500 43500 43500 
+ Optimal point: 7 7 7 6 6 7 
+++++++++++++++++++++++++++++++++++++++++++++++++++++++++++
INVADE: client 43492
 + TIMESTAMP: 0.4708
CLIENT SETUP: adding client 43497
 + TIMESTAMP: 0.474046
+++++++++++++++++++++++++++++++++++++++++++++++++++++++++++
+ Client Mapping:
  > Client 43500 (7):	0 34 35 36 37 38 39 
  > Client 43498 (20):	1 2 3 4 5 6 7 8 9 10 11 12 13 14 15 16 17 18 19 20 
  > Client 43495 (13):	21 22 23 24 25 26 27 28 29 30 31 32 33 
  > Client 43499 (0):	
  > Client 43493 (0):	
  > Client 43494 (0):	
  > Client 43492 (0):	
  > Client 43497 (0):	

+ Core Mapping:	43500 43498 43498 43498 43498 43498 43498 43498 43498 43498 43498 43498 43498 43498 43498 43498 43498 43498 43498 43498 43498 43495 43495 43495 43495 43495 43495 43495 43495 43495 43495 43495 43495 43495 43500 43500 43500 43500 43500 43500 
+ Optimal point: 6 6 6 6 6 5 5 
+++++++++++++++++++++++++++++++++++++++++++++++++++++++++++
INVADE: client 43497
 + TIMESTAMP: 0.47416
CLIENT SETUP: adding client 43502
 + TIMESTAMP: 0.480139
+++++++++++++++++++++++++++++++++++++++++++++++++++++++++++
+ Client Mapping:
  > Client 43500 (7):	0 34 35 36 37 38 39 
  > Client 43498 (20):	1 2 3 4 5 6 7 8 9 10 11 12 13 14 15 16 17 18 19 20 
  > Client 43495 (13):	21 22 23 24 25 26 27 28 29 30 31 32 33 
  > Client 43499 (0):	
  > Client 43493 (0):	
  > Client 43494 (0):	
  > Client 43492 (0):	
  > Client 43497 (0):	
  > Client 43502 (0):	

+ Core Mapping:	43500 43498 43498 43498 43498 43498 43498 43498 43498 43498 43498 43498 43498 43498 43498 43498 43498 43498 43498 43498 43498 43495 43495 43495 43495 43495 43495 43495 43495 43495 43495 43495 43495 43495 43500 43500 43500 43500 43500 43500 
+ Optimal point: 5 5 5 5 5 5 5 5 
+++++++++++++++++++++++++++++++++++++++++++++++++++++++++++
INVADE: client 43502
 + TIMESTAMP: 0.480385
++++++++++++++++++++++++++++++++++++++++++++++++
 + TIMESTAMP: 0.497565
REINVADE (43495)
  + pid: 43495
  + min_cores: 1
  + max_cores: 512
  + scalability graph: 
1, 1.39494, 1.5699, 1.6742, 1.74538, 1.79792, 1.83875, 1.87167, 1.89893, 1.922, 1.94184, 1.95915, 1.97442, 1.98802, 2.00024, 2.0113, 2.02136, 2.03058, 2.03906, 2.04689, 2.05415, 2.06092, 2.06724, 2.07316, 2.07872, 2.08396, 2.0889, 2.09358, 2.09801, 2.10222, 2.10622, 2.11003, 2.11367, 2.11715, 2.12048, 2.12367, 2.12672, 2.12966, 2.13248, 2.1352, 
Number of clients: 9

+++++++++++++++++++++++++++++++++++++++++++++++++++++++++++
+ Client Mapping:
  > Client 43500 (7):	0 34 35 36 37 38 39 
  > Client 43498 (20):	1 2 3 4 5 6 7 8 9 10 11 12 13 14 15 16 17 18 19 20 
  > Client 43495 (5):	29 30 31 32 33 
  > Client 43499 (0):	
  > Client 43493 (0):	
  > Client 43494 (0):	
  > Client 43492 (0):	
  > Client 43497 (0):	
  > Client 43502 (0):	

+ Core Mapping:	43500 43498 43498 43498 43498 43498 43498 43498 43498 43498 43498 43498 43498 43498 43498 43498 43498 43498 43498 43498 43498 0 0 0 0 0 0 0 0 43495 43495 43495 43495 43495 43500 43500 43500 43500 43500 43500 
+ Optimal point: 5 5 5 5 4 4 4 4 4 
+++++++++++++++++++++++++++++++++++++++++++++++++++++++++++
CLIENT SETUP: adding client 43503
 + TIMESTAMP: 0.520442
+++++++++++++++++++++++++++++++++++++++++++++++++++++++++++
+ Client Mapping:
  > Client 43500 (7):	0 34 35 36 37 38 39 
  > Client 43498 (20):	1 2 3 4 5 6 7 8 9 10 11 12 13 14 15 16 17 18 19 20 
  > Client 43495 (5):	29 30 31 32 33 
  > Client 43499 (0):	
  > Client 43493 (0):	
  > Client 43494 (0):	
  > Client 43492 (0):	
  > Client 43497 (0):	
  > Client 43502 (0):	
  > Client 43503 (0):	

+ Core Mapping:	43500 43498 43498 43498 43498 43498 43498 43498 43498 43498 43498 43498 43498 43498 43498 43498 43498 43498 43498 43498 43498 0 0 0 0 0 0 0 0 43495 43495 43495 43495 43495 43500 43500 43500 43500 43500 43500 
+ Optimal point: 5 5 5 5 4 4 4 4 4 
+++++++++++++++++++++++++++++++++++++++++++++++++++++++++++
INVADE: client 43503
 + TIMESTAMP: 0.520593
RESSOURCE DISTRIBUTION CHANGED
++++++++++++++++++++++++++++++++++++++++++++++++
INVADE (43503)
  + pid: 43503
  + min_cores: 1
  + max_cores: 512
  + scalability graph: 
1, 1.39494, 1.5699, 1.6742, 1.74538, 1.79792, 1.83875, 1.87167, 1.89893, 1.922, 1.94184, 1.95915, 1.97442, 1.98802, 2.00024, 2.0113, 2.02136, 2.03058, 2.03906, 2.04689, 2.05415, 2.06092, 2.06724, 2.07316, 2.07872, 2.08396, 2.0889, 2.09358, 2.09801, 2.10222, 2.10622, 2.11003, 2.11367, 2.11715, 2.12048, 2.12367, 2.12672, 2.12966, 2.13248, 2.1352, 
Number of clients: 10

+++++++++++++++++++++++++++++++++++++++++++++++++++++++++++
+ Client Mapping:
  > Client 43500 (7):	0 34 35 36 37 38 39 
  > Client 43498 (20):	1 2 3 4 5 6 7 8 9 10 11 12 13 14 15 16 17 18 19 20 
  > Client 43495 (5):	29 30 31 32 33 
  > Client 43499 (0):	
  > Client 43493 (0):	
  > Client 43494 (0):	
  > Client 43492 (0):	
  > Client 43497 (0):	
  > Client 43502 (0):	
  > Client 43503 (4):	21 22 23 24 

+ Core Mapping:	43500 43498 43498 43498 43498 43498 43498 43498 43498 43498 43498 43498 43498 43498 43498 43498 43498 43498 43498 43498 43498 43503 43503 43503 43503 0 0 0 0 43495 43495 43495 43495 43495 43500 43500 43500 43500 43500 43500 
+ Optimal point: 4 4 4 4 4 4 4 4 4 4 
+++++++++++++++++++++++++++++++++++++++++++++++++++++++++++
++++++++++++++++++++++++++++++++++++++++++++++++
 + TIMESTAMP: 0.523769
REINVADE (43498)
  + pid: 43498
  + min_cores: 1
  + max_cores: 512
  + scalability graph: 
1, 1.39494, 1.5699, 1.6742, 1.74538, 1.79792, 1.83875, 1.87167, 1.89893, 1.922, 1.94184, 1.95915, 1.97442, 1.98802, 2.00024, 2.0113, 2.02136, 2.03058, 2.03906, 2.04689, 2.05415, 2.06092, 2.06724, 2.07316, 2.07872, 2.08396, 2.0889, 2.09358, 2.09801, 2.10222, 2.10622, 2.11003, 2.11367, 2.11715, 2.12048, 2.12367, 2.12672, 2.12966, 2.13248, 2.1352, 
Number of clients: 10

+++++++++++++++++++++++++++++++++++++++++++++++++++++++++++
+ Client Mapping:
  > Client 43500 (7):	0 34 35 36 37 38 39 
  > Client 43498 (4):	17 18 19 20 
  > Client 43495 (5):	29 30 31 32 33 
  > Client 43499 (0):	
  > Client 43493 (0):	
  > Client 43494 (0):	
  > Client 43492 (0):	
  > Client 43497 (0):	
  > Client 43502 (0):	
  > Client 43503 (4):	21 22 23 24 

+ Core Mapping:	43500 0 0 0 0 0 0 0 0 0 0 0 0 0 0 0 0 43498 43498 43498 43498 43503 43503 43503 43503 0 0 0 0 43495 43495 43495 43495 43495 43500 43500 43500 43500 43500 43500 
+ Optimal point: 4 4 4 4 4 4 4 4 4 4 
+++++++++++++++++++++++++++++++++++++++++++++++++++++++++++
CLIENT SETUP: adding client 43496
 + TIMESTAMP: 0.555537
+++++++++++++++++++++++++++++++++++++++++++++++++++++++++++
+ Client Mapping:
  > Client 43500 (7):	0 34 35 36 37 38 39 
  > Client 43498 (4):	17 18 19 20 
  > Client 43495 (5):	29 30 31 32 33 
  > Client 43499 (0):	
  > Client 43493 (0):	
  > Client 43494 (0):	
  > Client 43492 (0):	
  > Client 43497 (0):	
  > Client 43502 (0):	
  > Client 43503 (4):	21 22 23 24 
  > Client 43496 (0):	

+ Core Mapping:	43500 0 0 0 0 0 0 0 0 0 0 0 0 0 0 0 0 43498 43498 43498 43498 43503 43503 43503 43503 0 0 0 0 43495 43495 43495 43495 43495 43500 43500 43500 43500 43500 43500 
+ Optimal point: 4 4 4 4 4 4 4 4 4 4 
+++++++++++++++++++++++++++++++++++++++++++++++++++++++++++
INVADE: client 43496
 + TIMESTAMP: 0.555864
RESSOURCE DISTRIBUTION CHANGED
++++++++++++++++++++++++++++++++++++++++++++++++
INVADE (43496)
  + pid: 43496
  + min_cores: 1
  + max_cores: 512
  + scalability graph: 
1, 1.39494, 1.5699, 1.6742, 1.74538, 1.79792, 1.83875, 1.87167, 1.89893, 1.922, 1.94184, 1.95915, 1.97442, 1.98802, 2.00024, 2.0113, 2.02136, 2.03058, 2.03906, 2.04689, 2.05415, 2.06092, 2.06724, 2.07316, 2.07872, 2.08396, 2.0889, 2.09358, 2.09801, 2.10222, 2.10622, 2.11003, 2.11367, 2.11715, 2.12048, 2.12367, 2.12672, 2.12966, 2.13248, 2.1352, 
Number of clients: 11

+++++++++++++++++++++++++++++++++++++++++++++++++++++++++++
+ Client Mapping:
  > Client 43500 (7):	0 34 35 36 37 38 39 
  > Client 43498 (4):	17 18 19 20 
  > Client 43495 (5):	29 30 31 32 33 
  > Client 43499 (0):	
  > Client 43493 (0):	
  > Client 43494 (0):	
  > Client 43492 (0):	
  > Client 43497 (0):	
  > Client 43502 (0):	
  > Client 43503 (4):	21 22 23 24 
  > Client 43496 (4):	1 2 3 4 

+ Core Mapping:	43500 43496 43496 43496 43496 0 0 0 0 0 0 0 0 0 0 0 0 43498 43498 43498 43498 43503 43503 43503 43503 0 0 0 0 43495 43495 43495 43495 43495 43500 43500 43500 43500 43500 43500 
+ Optimal point: 3 3 3 4 4 4 4 4 4 3 4 
+++++++++++++++++++++++++++++++++++++++++++++++++++++++++++
CLIENT SETUP: adding client 43501
 + TIMESTAMP: 0.568976
+++++++++++++++++++++++++++++++++++++++++++++++++++++++++++
+ Client Mapping:
  > Client 43500 (7):	0 34 35 36 37 38 39 
  > Client 43498 (4):	17 18 19 20 
  > Client 43495 (5):	29 30 31 32 33 
  > Client 43499 (0):	
  > Client 43493 (0):	
  > Client 43494 (0):	
  > Client 43492 (0):	
  > Client 43497 (0):	
  > Client 43502 (0):	
  > Client 43503 (4):	21 22 23 24 
  > Client 43496 (4):	1 2 3 4 
  > Client 43501 (0):	

+ Core Mapping:	43500 43496 43496 43496 43496 0 0 0 0 0 0 0 0 0 0 0 0 43498 43498 43498 43498 43503 43503 43503 43503 0 0 0 0 43495 43495 43495 43495 43495 43500 43500 43500 43500 43500 43500 
+ Optimal point: 3 3 3 4 4 4 4 4 4 3 4 
+++++++++++++++++++++++++++++++++++++++++++++++++++++++++++
INVADE: client 43501
 + TIMESTAMP: 0.569553
RESSOURCE DISTRIBUTION CHANGED
++++++++++++++++++++++++++++++++++++++++++++++++
INVADE (43501)
  + pid: 43501
  + min_cores: 1
  + max_cores: 512
  + scalability graph: 
1, 1.39494, 1.5699, 1.6742, 1.74538, 1.79792, 1.83875, 1.87167, 1.89893, 1.922, 1.94184, 1.95915, 1.97442, 1.98802, 2.00024, 2.0113, 2.02136, 2.03058, 2.03906, 2.04689, 2.05415, 2.06092, 2.06724, 2.07316, 2.07872, 2.08396, 2.0889, 2.09358, 2.09801, 2.10222, 2.10622, 2.11003, 2.11367, 2.11715, 2.12048, 2.12367, 2.12672, 2.12966, 2.13248, 2.1352, 
Number of clients: 12

+++++++++++++++++++++++++++++++++++++++++++++++++++++++++++
+ Client Mapping:
  > Client 43500 (7):	0 34 35 36 37 38 39 
  > Client 43498 (4):	17 18 19 20 
  > Client 43495 (5):	29 30 31 32 33 
  > Client 43499 (0):	
  > Client 43493 (0):	
  > Client 43494 (0):	
  > Client 43492 (0):	
  > Client 43497 (0):	
  > Client 43502 (0):	
  > Client 43503 (4):	21 22 23 24 
  > Client 43496 (4):	1 2 3 4 
  > Client 43501 (3):	5 6 7 

+ Core Mapping:	43500 43496 43496 43496 43496 43501 43501 43501 0 0 0 0 0 0 0 0 0 43498 43498 43498 43498 43503 43503 43503 43503 0 0 0 0 43495 43495 43495 43495 43495 43500 43500 43500 43500 43500 43500 
+ Optimal point: 3 3 3 4 4 4 4 3 3 3 3 3 
+++++++++++++++++++++++++++++++++++++++++++++++++++++++++++
++++++++++++++++++++++++++++++++++++++++++++++++
 + TIMESTAMP: 0.703778
REINVADE (43503)
  + pid: 43503
  + min_cores: 1
  + max_cores: 512
  + scalability graph: 
1, 1.39494, 1.5699, 1.6742, 1.74538, 1.79792, 1.83875, 1.87167, 1.89893, 1.922, 1.94184, 1.95915, 1.97442, 1.98802, 2.00024, 2.0113, 2.02136, 2.03058, 2.03906, 2.04689, 2.05415, 2.06092, 2.06724, 2.07316, 2.07872, 2.08396, 2.0889, 2.09358, 2.09801, 2.10222, 2.10622, 2.11003, 2.11367, 2.11715, 2.12048, 2.12367, 2.12672, 2.12966, 2.13248, 2.1352, 
Number of clients: 12

+++++++++++++++++++++++++++++++++++++++++++++++++++++++++++
+ Client Mapping:
  > Client 43500 (7):	0 34 35 36 37 38 39 
  > Client 43498 (4):	17 18 19 20 
  > Client 43495 (5):	29 30 31 32 33 
  > Client 43499 (0):	
  > Client 43493 (0):	
  > Client 43494 (0):	
  > Client 43492 (0):	
  > Client 43497 (0):	
  > Client 43502 (0):	
  > Client 43503 (3):	22 23 24 
  > Client 43496 (4):	1 2 3 4 
  > Client 43501 (3):	5 6 7 

+ Core Mapping:	43500 43496 43496 43496 43496 43501 43501 43501 0 0 0 0 0 0 0 0 0 43498 43498 43498 43498 0 43503 43503 43503 0 0 0 0 43495 43495 43495 43495 43495 43500 43500 43500 43500 43500 43500 
+ Optimal point: 3 3 3 4 4 4 4 3 3 3 3 3 
+++++++++++++++++++++++++++++++++++++++++++++++++++++++++++
++++++++++++++++++++++++++++++++++++++++++++++++
 + TIMESTAMP: 0.709208
REINVADE (43496)
  + pid: 43496
  + min_cores: 1
  + max_cores: 512
  + scalability graph: 
1, 1.39494, 1.5699, 1.6742, 1.74538, 1.79792, 1.83875, 1.87167, 1.89893, 1.922, 1.94184, 1.95915, 1.97442, 1.98802, 2.00024, 2.0113, 2.02136, 2.03058, 2.03906, 2.04689, 2.05415, 2.06092, 2.06724, 2.07316, 2.07872, 2.08396, 2.0889, 2.09358, 2.09801, 2.10222, 2.10622, 2.11003, 2.11367, 2.11715, 2.12048, 2.12367, 2.12672, 2.12966, 2.13248, 2.1352, 
Number of clients: 12

+++++++++++++++++++++++++++++++++++++++++++++++++++++++++++
+ Client Mapping:
  > Client 43500 (7):	0 34 35 36 37 38 39 
  > Client 43498 (4):	17 18 19 20 
  > Client 43495 (5):	29 30 31 32 33 
  > Client 43499 (0):	
  > Client 43493 (0):	
  > Client 43494 (0):	
  > Client 43492 (0):	
  > Client 43497 (0):	
  > Client 43502 (0):	
  > Client 43503 (3):	22 23 24 
  > Client 43496 (3):	2 3 4 
  > Client 43501 (3):	5 6 7 

+ Core Mapping:	43500 0 43496 43496 43496 43501 43501 43501 0 0 0 0 0 0 0 0 0 43498 43498 43498 43498 0 43503 43503 43503 0 0 0 0 43495 43495 43495 43495 43495 43500 43500 43500 43500 43500 43500 
+ Optimal point: 3 3 3 4 4 4 4 3 3 3 3 3 
+++++++++++++++++++++++++++++++++++++++++++++++++++++++++++
++++++++++++++++++++++++++++++++++++++++++++++++
 + TIMESTAMP: 0.735241
REINVADE (43498)
  + pid: 43498
  + min_cores: 1
  + max_cores: 512
  + scalability graph: 
1, 1.39494, 1.5699, 1.6742, 1.74538, 1.79792, 1.83875, 1.87167, 1.89893, 1.922, 1.94184, 1.95915, 1.97442, 1.98802, 2.00024, 2.0113, 2.02136, 2.03058, 2.03906, 2.04689, 2.05415, 2.06092, 2.06724, 2.07316, 2.07872, 2.08396, 2.0889, 2.09358, 2.09801, 2.10222, 2.10622, 2.11003, 2.11367, 2.11715, 2.12048, 2.12367, 2.12672, 2.12966, 2.13248, 2.1352, 
Number of clients: 12

+++++++++++++++++++++++++++++++++++++++++++++++++++++++++++
+ Client Mapping:
  > Client 43500 (7):	0 34 35 36 37 38 39 
  > Client 43498 (3):	18 19 20 
  > Client 43495 (5):	29 30 31 32 33 
  > Client 43499 (0):	
  > Client 43493 (0):	
  > Client 43494 (0):	
  > Client 43492 (0):	
  > Client 43497 (0):	
  > Client 43502 (0):	
  > Client 43503 (3):	22 23 24 
  > Client 43496 (3):	2 3 4 
  > Client 43501 (3):	5 6 7 

+ Core Mapping:	43500 0 43496 43496 43496 43501 43501 43501 0 0 0 0 0 0 0 0 0 0 43498 43498 43498 0 43503 43503 43503 0 0 0 0 43495 43495 43495 43495 43495 43500 43500 43500 43500 43500 43500 
+ Optimal point: 3 3 3 4 4 4 4 3 3 3 3 3 
+++++++++++++++++++++++++++++++++++++++++++++++++++++++++++
++++++++++++++++++++++++++++++++++++++++++++++++
 + TIMESTAMP: 0.863564
REINVADE (43500)
  + pid: 43500
  + min_cores: 1
  + max_cores: 512
  + scalability graph: 
1, 1.39494, 1.5699, 1.6742, 1.74538, 1.79792, 1.83875, 1.87167, 1.89893, 1.922, 1.94184, 1.95915, 1.97442, 1.98802, 2.00024, 2.0113, 2.02136, 2.03058, 2.03906, 2.04689, 2.05415, 2.06092, 2.06724, 2.07316, 2.07872, 2.08396, 2.0889, 2.09358, 2.09801, 2.10222, 2.10622, 2.11003, 2.11367, 2.11715, 2.12048, 2.12367, 2.12672, 2.12966, 2.13248, 2.1352, 
Number of clients: 12

+++++++++++++++++++++++++++++++++++++++++++++++++++++++++++
+ Client Mapping:
  > Client 43500 (3):	37 38 39 
  > Client 43498 (3):	18 19 20 
  > Client 43495 (5):	29 30 31 32 33 
  > Client 43499 (0):	
  > Client 43493 (0):	
  > Client 43494 (0):	
  > Client 43492 (0):	
  > Client 43497 (0):	
  > Client 43502 (0):	
  > Client 43503 (3):	22 23 24 
  > Client 43496 (3):	2 3 4 
  > Client 43501 (3):	5 6 7 

+ Core Mapping:	0 0 43496 43496 43496 43501 43501 43501 0 0 0 0 0 0 0 0 0 0 43498 43498 43498 0 43503 43503 43503 0 0 0 0 43495 43495 43495 43495 43495 0 0 0 43500 43500 43500 
+ Optimal point: 3 3 3 4 4 4 4 3 3 3 3 3 
+++++++++++++++++++++++++++++++++++++++++++++++++++++++++++
++++++++++++++++++++++++++++++++++++++++++++++++
 + TIMESTAMP: 0.937003
REINVADE (43495)
  + pid: 43495
  + min_cores: 1
  + max_cores: 512
  + scalability graph: 
1, 1.39494, 1.5699, 1.6742, 1.74538, 1.79792, 1.83875, 1.87167, 1.89893, 1.922, 1.94184, 1.95915, 1.97442, 1.98802, 2.00024, 2.0113, 2.02136, 2.03058, 2.03906, 2.04689, 2.05415, 2.06092, 2.06724, 2.07316, 2.07872, 2.08396, 2.0889, 2.09358, 2.09801, 2.10222, 2.10622, 2.11003, 2.11367, 2.11715, 2.12048, 2.12367, 2.12672, 2.12966, 2.13248, 2.1352, 
Number of clients: 12

+++++++++++++++++++++++++++++++++++++++++++++++++++++++++++
+ Client Mapping:
  > Client 43500 (3):	37 38 39 
  > Client 43498 (3):	18 19 20 
  > Client 43495 (3):	31 32 33 
  > Client 43499 (0):	
  > Client 43493 (0):	
  > Client 43494 (0):	
  > Client 43492 (0):	
  > Client 43497 (0):	
  > Client 43502 (0):	
  > Client 43503 (3):	22 23 24 
  > Client 43496 (3):	2 3 4 
  > Client 43501 (3):	5 6 7 

+ Core Mapping:	0 0 43496 43496 43496 43501 43501 43501 0 0 0 0 0 0 0 0 0 0 43498 43498 43498 0 43503 43503 43503 0 0 0 0 0 0 43495 43495 43495 0 0 0 43500 43500 43500 
+ Optimal point: 3 3 3 4 4 4 4 3 3 3 3 3 
+++++++++++++++++++++++++++++++++++++++++++++++++++++++++++
++++++++++++++++++++++++++++++++++++++++++++++++
 + TIMESTAMP: 1.33582
REINVADE (43499)
  + pid: 43499
  + min_cores: 1
  + max_cores: 512
  + scalability graph: 
1, 1.39494, 1.5699, 1.6742, 1.74538, 1.79792, 1.83875, 1.87167, 1.89893, 1.922, 1.94184, 1.95915, 1.97442, 1.98802, 2.00024, 2.0113, 2.02136, 2.03058, 2.03906, 2.04689, 2.05415, 2.06092, 2.06724, 2.07316, 2.07872, 2.08396, 2.0889, 2.09358, 2.09801, 2.10222, 2.10622, 2.11003, 2.11367, 2.11715, 2.12048, 2.12367, 2.12672, 2.12966, 2.13248, 2.1352, 
Number of clients: 12

+++++++++++++++++++++++++++++++++++++++++++++++++++++++++++
+ Client Mapping:
  > Client 43500 (3):	37 38 39 
  > Client 43498 (3):	18 19 20 
  > Client 43495 (3):	31 32 33 
  > Client 43499 (4):	0 1 8 9 
  > Client 43493 (0):	
  > Client 43494 (0):	
  > Client 43492 (0):	
  > Client 43497 (0):	
  > Client 43502 (0):	
  > Client 43503 (3):	22 23 24 
  > Client 43496 (3):	2 3 4 
  > Client 43501 (3):	5 6 7 

+ Core Mapping:	43499 43499 43496 43496 43496 43501 43501 43501 43499 43499 0 0 0 0 0 0 0 0 43498 43498 43498 0 43503 43503 43503 0 0 0 0 0 0 43495 43495 43495 0 0 0 43500 43500 43500 
+ Optimal point: 3 3 3 4 4 4 4 3 3 3 3 3 
+++++++++++++++++++++++++++++++++++++++++++++++++++++++++++
++++++++++++++++++++++++++++++++++++++++++++++++
 + TIMESTAMP: 1.57997
REINVADE (43494)
  + pid: 43494
  + min_cores: 1
  + max_cores: 512
  + scalability graph: 
1, 1.39494, 1.5699, 1.6742, 1.74538, 1.79792, 1.83875, 1.87167, 1.89893, 1.922, 1.94184, 1.95915, 1.97442, 1.98802, 2.00024, 2.0113, 2.02136, 2.03058, 2.03906, 2.04689, 2.05415, 2.06092, 2.06724, 2.07316, 2.07872, 2.08396, 2.0889, 2.09358, 2.09801, 2.10222, 2.10622, 2.11003, 2.11367, 2.11715, 2.12048, 2.12367, 2.12672, 2.12966, 2.13248, 2.1352, 
Number of clients: 12

+++++++++++++++++++++++++++++++++++++++++++++++++++++++++++
+ Client Mapping:
  > Client 43500 (3):	37 38 39 
  > Client 43498 (3):	18 19 20 
  > Client 43495 (3):	31 32 33 
  > Client 43499 (4):	0 1 8 9 
  > Client 43493 (0):	
  > Client 43494 (4):	10 11 12 13 
  > Client 43492 (0):	
  > Client 43497 (0):	
  > Client 43502 (0):	
  > Client 43503 (3):	22 23 24 
  > Client 43496 (3):	2 3 4 
  > Client 43501 (3):	5 6 7 

+ Core Mapping:	43499 43499 43496 43496 43496 43501 43501 43501 43499 43499 43494 43494 43494 43494 0 0 0 0 43498 43498 43498 0 43503 43503 43503 0 0 0 0 0 0 43495 43495 43495 0 0 0 43500 43500 43500 
+ Optimal point: 3 3 3 4 4 4 4 3 3 3 3 3 
+++++++++++++++++++++++++++++++++++++++++++++++++++++++++++
++++++++++++++++++++++++++++++++++++++++++++++++
 + TIMESTAMP: 1.58206
REINVADE (43492)
  + pid: 43492
  + min_cores: 1
  + max_cores: 512
  + scalability graph: 
1, 1.39494, 1.5699, 1.6742, 1.74538, 1.79792, 1.83875, 1.87167, 1.89893, 1.922, 1.94184, 1.95915, 1.97442, 1.98802, 2.00024, 2.0113, 2.02136, 2.03058, 2.03906, 2.04689, 2.05415, 2.06092, 2.06724, 2.07316, 2.07872, 2.08396, 2.0889, 2.09358, 2.09801, 2.10222, 2.10622, 2.11003, 2.11367, 2.11715, 2.12048, 2.12367, 2.12672, 2.12966, 2.13248, 2.1352, 
Number of clients: 12

+++++++++++++++++++++++++++++++++++++++++++++++++++++++++++
+ Client Mapping:
  > Client 43500 (3):	37 38 39 
  > Client 43498 (3):	18 19 20 
  > Client 43495 (3):	31 32 33 
  > Client 43499 (4):	0 1 8 9 
  > Client 43493 (0):	
  > Client 43494 (4):	10 11 12 13 
  > Client 43492 (4):	14 15 16 17 
  > Client 43497 (0):	
  > Client 43502 (0):	
  > Client 43503 (3):	22 23 24 
  > Client 43496 (3):	2 3 4 
  > Client 43501 (3):	5 6 7 

+ Core Mapping:	43499 43499 43496 43496 43496 43501 43501 43501 43499 43499 43494 43494 43494 43494 43492 43492 43492 43492 43498 43498 43498 0 43503 43503 43503 0 0 0 0 0 0 43495 43495 43495 0 0 0 43500 43500 43500 
+ Optimal point: 3 3 3 4 4 4 4 3 3 3 3 3 
+++++++++++++++++++++++++++++++++++++++++++++++++++++++++++
++++++++++++++++++++++++++++++++++++++++++++++++
 + TIMESTAMP: 1.58807
REINVADE (43493)
  + pid: 43493
  + min_cores: 1
  + max_cores: 512
  + scalability graph: 
1, 1.39494, 1.5699, 1.6742, 1.74538, 1.79792, 1.83875, 1.87167, 1.89893, 1.922, 1.94184, 1.95915, 1.97442, 1.98802, 2.00024, 2.0113, 2.02136, 2.03058, 2.03906, 2.04689, 2.05415, 2.06092, 2.06724, 2.07316, 2.07872, 2.08396, 2.0889, 2.09358, 2.09801, 2.10222, 2.10622, 2.11003, 2.11367, 2.11715, 2.12048, 2.12367, 2.12672, 2.12966, 2.13248, 2.1352, 
Number of clients: 12

+++++++++++++++++++++++++++++++++++++++++++++++++++++++++++
+ Client Mapping:
  > Client 43500 (3):	37 38 39 
  > Client 43498 (3):	18 19 20 
  > Client 43495 (3):	31 32 33 
  > Client 43499 (4):	0 1 8 9 
  > Client 43493 (4):	21 25 26 27 
  > Client 43494 (4):	10 11 12 13 
  > Client 43492 (4):	14 15 16 17 
  > Client 43497 (0):	
  > Client 43502 (0):	
  > Client 43503 (3):	22 23 24 
  > Client 43496 (3):	2 3 4 
  > Client 43501 (3):	5 6 7 

+ Core Mapping:	43499 43499 43496 43496 43496 43501 43501 43501 43499 43499 43494 43494 43494 43494 43492 43492 43492 43492 43498 43498 43498 43493 43503 43503 43503 43493 43493 43493 0 0 0 43495 43495 43495 0 0 0 43500 43500 43500 
+ Optimal point: 3 3 3 4 4 4 4 3 3 3 3 3 
+++++++++++++++++++++++++++++++++++++++++++++++++++++++++++
++++++++++++++++++++++++++++++++++++++++++++++++
 + TIMESTAMP: 1.62216
REINVADE (43497)
  + pid: 43497
  + min_cores: 1
  + max_cores: 512
  + scalability graph: 
1, 1.39494, 1.5699, 1.6742, 1.74538, 1.79792, 1.83875, 1.87167, 1.89893, 1.922, 1.94184, 1.95915, 1.97442, 1.98802, 2.00024, 2.0113, 2.02136, 2.03058, 2.03906, 2.04689, 2.05415, 2.06092, 2.06724, 2.07316, 2.07872, 2.08396, 2.0889, 2.09358, 2.09801, 2.10222, 2.10622, 2.11003, 2.11367, 2.11715, 2.12048, 2.12367, 2.12672, 2.12966, 2.13248, 2.1352, 
Number of clients: 12

+++++++++++++++++++++++++++++++++++++++++++++++++++++++++++
+ Client Mapping:
  > Client 43500 (3):	37 38 39 
  > Client 43498 (3):	18 19 20 
  > Client 43495 (3):	31 32 33 
  > Client 43499 (4):	0 1 8 9 
  > Client 43493 (4):	21 25 26 27 
  > Client 43494 (4):	10 11 12 13 
  > Client 43492 (4):	14 15 16 17 
  > Client 43497 (3):	28 29 30 
  > Client 43502 (0):	
  > Client 43503 (3):	22 23 24 
  > Client 43496 (3):	2 3 4 
  > Client 43501 (3):	5 6 7 

+ Core Mapping:	43499 43499 43496 43496 43496 43501 43501 43501 43499 43499 43494 43494 43494 43494 43492 43492 43492 43492 43498 43498 43498 43493 43503 43503 43503 43493 43493 43493 43497 43497 43497 43495 43495 43495 0 0 0 43500 43500 43500 
+ Optimal point: 3 3 3 4 4 4 4 3 3 3 3 3 
+++++++++++++++++++++++++++++++++++++++++++++++++++++++++++
++++++++++++++++++++++++++++++++++++++++++++++++
 + TIMESTAMP: 1.643
REINVADE (43502)
  + pid: 43502
  + min_cores: 1
  + max_cores: 512
  + scalability graph: 
1, 1.39494, 1.5699, 1.6742, 1.74538, 1.79792, 1.83875, 1.87167, 1.89893, 1.922, 1.94184, 1.95915, 1.97442, 1.98802, 2.00024, 2.0113, 2.02136, 2.03058, 2.03906, 2.04689, 2.05415, 2.06092, 2.06724, 2.07316, 2.07872, 2.08396, 2.0889, 2.09358, 2.09801, 2.10222, 2.10622, 2.11003, 2.11367, 2.11715, 2.12048, 2.12367, 2.12672, 2.12966, 2.13248, 2.1352, 
Number of clients: 12

+++++++++++++++++++++++++++++++++++++++++++++++++++++++++++
+ Client Mapping:
  > Client 43500 (3):	37 38 39 
  > Client 43498 (3):	18 19 20 
  > Client 43495 (3):	31 32 33 
  > Client 43499 (4):	0 1 8 9 
  > Client 43493 (4):	21 25 26 27 
  > Client 43494 (4):	10 11 12 13 
  > Client 43492 (4):	14 15 16 17 
  > Client 43497 (3):	28 29 30 
  > Client 43502 (3):	34 35 36 
  > Client 43503 (3):	22 23 24 
  > Client 43496 (3):	2 3 4 
  > Client 43501 (3):	5 6 7 

+ Core Mapping:	43499 43499 43496 43496 43496 43501 43501 43501 43499 43499 43494 43494 43494 43494 43492 43492 43492 43492 43498 43498 43498 43493 43503 43503 43503 43493 43493 43493 43497 43497 43497 43495 43495 43495 43502 43502 43502 43500 43500 43500 
+ Optimal point: 3 3 3 4 4 4 4 3 3 3 3 3 
+++++++++++++++++++++++++++++++++++++++++++++++++++++++++++
CLIENT SHUTDOWN: client 43493
 + TIMESTAMP: 1625.13
+++++++++++++++++++++++++++++++++++++++++++++++++++++++++++
+ Client Mapping:
  > Client 43500 (3):	37 38 39 
  > Client 43498 (3):	18 19 20 
  > Client 43495 (3):	31 32 33 
  > Client 43499 (4):	0 1 8 9 
  > Client 43493 (0):	
  > Client 43494 (4):	10 11 12 13 
  > Client 43492 (4):	14 15 16 17 
  > Client 43497 (3):	28 29 30 
  > Client 43502 (3):	34 35 36 
  > Client 43503 (3):	22 23 24 
  > Client 43496 (3):	2 3 4 
  > Client 43501 (3):	5 6 7 

+ Core Mapping:	43499 43499 43496 43496 43496 43501 43501 43501 43499 43499 43494 43494 43494 43494 43492 43492 43492 43492 43498 43498 43498 0 43503 43503 43503 0 0 0 43497 43497 43497 43495 43495 43495 43502 43502 43502 43500 43500 43500 
+ Optimal point: 3 3 3 4 4 4 4 3 3 3 3 3 
+++++++++++++++++++++++++++++++++++++++++++++++++++++++++++
client (43493) shutdown hint: 20954.2
sum_client_shutdown_hint: 20954.2
sum_client_shutdown_hint_div_time: 0
++++++++++++++++++++++++++++++++++++++++++++++++
 + TIMESTAMP: 1625.15
REINVADE (43497)
  + pid: 43497
  + min_cores: 1
  + max_cores: 512
  + scalability graph: 
1, 1.39494, 1.5699, 1.6742, 1.74538, 1.79792, 1.83875, 1.87167, 1.89893, 1.922, 1.94184, 1.95915, 1.97442, 1.98802, 2.00024, 2.0113, 2.02136, 2.03058, 2.03906, 2.04689, 2.05415, 2.06092, 2.06724, 2.07316, 2.07872, 2.08396, 2.0889, 2.09358, 2.09801, 2.10222, 2.10622, 2.11003, 2.11367, 2.11715, 2.12048, 2.12367, 2.12672, 2.12966, 2.13248, 2.1352, 
Number of clients: 11

+++++++++++++++++++++++++++++++++++++++++++++++++++++++++++
+ Client Mapping:
  > Client 43500 (3):	37 38 39 
  > Client 43498 (3):	18 19 20 
  > Client 43495 (3):	31 32 33 
  > Client 43499 (4):	0 1 8 9 
  > Client 43494 (4):	10 11 12 13 
  > Client 43492 (4):	14 15 16 17 
  > Client 43497 (4):	28 29 30 21 
  > Client 43502 (3):	34 35 36 
  > Client 43503 (3):	22 23 24 
  > Client 43496 (3):	2 3 4 
  > Client 43501 (3):	5 6 7 

+ Core Mapping:	43499 43499 43496 43496 43496 43501 43501 43501 43499 43499 43494 43494 43494 43494 43492 43492 43492 43492 43498 43498 43498 43497 43503 43503 43503 0 0 0 43497 43497 43497 43495 43495 43495 43502 43502 43502 43500 43500 43500 
+ Optimal point: 3 3 3 4 4 4 4 4 4 3 4 
+++++++++++++++++++++++++++++++++++++++++++++++++++++++++++
++++++++++++++++++++++++++++++++++++++++++++++++
 + TIMESTAMP: 1625.15
REINVADE (43503)
  + pid: 43503
  + min_cores: 1
  + max_cores: 512
  + scalability graph: 
1, 1.39494, 1.5699, 1.6742, 1.74538, 1.79792, 1.83875, 1.87167, 1.89893, 1.922, 1.94184, 1.95915, 1.97442, 1.98802, 2.00024, 2.0113, 2.02136, 2.03058, 2.03906, 2.04689, 2.05415, 2.06092, 2.06724, 2.07316, 2.07872, 2.08396, 2.0889, 2.09358, 2.09801, 2.10222, 2.10622, 2.11003, 2.11367, 2.11715, 2.12048, 2.12367, 2.12672, 2.12966, 2.13248, 2.1352, 
Number of clients: 11

+++++++++++++++++++++++++++++++++++++++++++++++++++++++++++
+ Client Mapping:
  > Client 43500 (3):	37 38 39 
  > Client 43498 (3):	18 19 20 
  > Client 43495 (3):	31 32 33 
  > Client 43499 (4):	0 1 8 9 
  > Client 43494 (4):	10 11 12 13 
  > Client 43492 (4):	14 15 16 17 
  > Client 43497 (4):	28 29 30 21 
  > Client 43502 (3):	34 35 36 
  > Client 43503 (4):	22 23 24 25 
  > Client 43496 (3):	2 3 4 
  > Client 43501 (3):	5 6 7 

+ Core Mapping:	43499 43499 43496 43496 43496 43501 43501 43501 43499 43499 43494 43494 43494 43494 43492 43492 43492 43492 43498 43498 43498 43497 43503 43503 43503 43503 0 0 43497 43497 43497 43495 43495 43495 43502 43502 43502 43500 43500 43500 
+ Optimal point: 3 3 3 4 4 4 4 4 4 3 4 
+++++++++++++++++++++++++++++++++++++++++++++++++++++++++++
++++++++++++++++++++++++++++++++++++++++++++++++
 + TIMESTAMP: 1625.16
REINVADE (43501)
  + pid: 43501
  + min_cores: 1
  + max_cores: 512
  + scalability graph: 
1, 1.39494, 1.5699, 1.6742, 1.74538, 1.79792, 1.83875, 1.87167, 1.89893, 1.922, 1.94184, 1.95915, 1.97442, 1.98802, 2.00024, 2.0113, 2.02136, 2.03058, 2.03906, 2.04689, 2.05415, 2.06092, 2.06724, 2.07316, 2.07872, 2.08396, 2.0889, 2.09358, 2.09801, 2.10222, 2.10622, 2.11003, 2.11367, 2.11715, 2.12048, 2.12367, 2.12672, 2.12966, 2.13248, 2.1352, 
Number of clients: 11

+++++++++++++++++++++++++++++++++++++++++++++++++++++++++++
+ Client Mapping:
  > Client 43500 (3):	37 38 39 
  > Client 43498 (3):	18 19 20 
  > Client 43495 (3):	31 32 33 
  > Client 43499 (4):	0 1 8 9 
  > Client 43494 (4):	10 11 12 13 
  > Client 43492 (4):	14 15 16 17 
  > Client 43497 (4):	28 29 30 21 
  > Client 43502 (3):	34 35 36 
  > Client 43503 (4):	22 23 24 25 
  > Client 43496 (3):	2 3 4 
  > Client 43501 (4):	5 6 7 26 

+ Core Mapping:	43499 43499 43496 43496 43496 43501 43501 43501 43499 43499 43494 43494 43494 43494 43492 43492 43492 43492 43498 43498 43498 43497 43503 43503 43503 43503 43501 0 43497 43497 43497 43495 43495 43495 43502 43502 43502 43500 43500 43500 
+ Optimal point: 3 3 3 4 4 4 4 4 4 3 4 
+++++++++++++++++++++++++++++++++++++++++++++++++++++++++++
++++++++++++++++++++++++++++++++++++++++++++++++
 + TIMESTAMP: 1625.17
REINVADE (43502)
  + pid: 43502
  + min_cores: 1
  + max_cores: 512
  + scalability graph: 
1, 1.39494, 1.5699, 1.6742, 1.74538, 1.79792, 1.83875, 1.87167, 1.89893, 1.922, 1.94184, 1.95915, 1.97442, 1.98802, 2.00024, 2.0113, 2.02136, 2.03058, 2.03906, 2.04689, 2.05415, 2.06092, 2.06724, 2.07316, 2.07872, 2.08396, 2.0889, 2.09358, 2.09801, 2.10222, 2.10622, 2.11003, 2.11367, 2.11715, 2.12048, 2.12367, 2.12672, 2.12966, 2.13248, 2.1352, 
Number of clients: 11

+++++++++++++++++++++++++++++++++++++++++++++++++++++++++++
+ Client Mapping:
  > Client 43500 (3):	37 38 39 
  > Client 43498 (3):	18 19 20 
  > Client 43495 (3):	31 32 33 
  > Client 43499 (4):	0 1 8 9 
  > Client 43494 (4):	10 11 12 13 
  > Client 43492 (4):	14 15 16 17 
  > Client 43497 (4):	28 29 30 21 
  > Client 43502 (4):	34 35 36 27 
  > Client 43503 (4):	22 23 24 25 
  > Client 43496 (3):	2 3 4 
  > Client 43501 (4):	5 6 7 26 

+ Core Mapping:	43499 43499 43496 43496 43496 43501 43501 43501 43499 43499 43494 43494 43494 43494 43492 43492 43492 43492 43498 43498 43498 43497 43503 43503 43503 43503 43501 43502 43497 43497 43497 43495 43495 43495 43502 43502 43502 43500 43500 43500 
+ Optimal point: 3 3 3 4 4 4 4 4 4 3 4 
+++++++++++++++++++++++++++++++++++++++++++++++++++++++++++
CLIENT SHUTDOWN: client 43494
 + TIMESTAMP: 1776.69
+++++++++++++++++++++++++++++++++++++++++++++++++++++++++++
+ Client Mapping:
  > Client 43500 (3):	37 38 39 
  > Client 43498 (3):	18 19 20 
  > Client 43495 (3):	31 32 33 
  > Client 43499 (4):	0 1 8 9 
  > Client 43494 (0):	
  > Client 43492 (4):	14 15 16 17 
  > Client 43497 (4):	28 29 30 21 
  > Client 43502 (4):	34 35 36 27 
  > Client 43503 (4):	22 23 24 25 
  > Client 43496 (3):	2 3 4 
  > Client 43501 (4):	5 6 7 26 

+ Core Mapping:	43499 43499 43496 43496 43496 43501 43501 43501 43499 43499 0 0 0 0 43492 43492 43492 43492 43498 43498 43498 43497 43503 43503 43503 43503 43501 43502 43497 43497 43497 43495 43495 43495 43502 43502 43502 43500 43500 43500 
+ Optimal point: 3 3 3 4 4 4 4 4 4 3 4 
+++++++++++++++++++++++++++++++++++++++++++++++++++++++++++
client (43494) shutdown hint: 20954.2
sum_client_shutdown_hint: 41908.4
sum_client_shutdown_hint_div_time: 0
++++++++++++++++++++++++++++++++++++++++++++++++
 + TIMESTAMP: 1776.69
REINVADE (43500)
  + pid: 43500
  + min_cores: 1
  + max_cores: 512
  + scalability graph: 
1, 1.39494, 1.5699, 1.6742, 1.74538, 1.79792, 1.83875, 1.87167, 1.89893, 1.922, 1.94184, 1.95915, 1.97442, 1.98802, 2.00024, 2.0113, 2.02136, 2.03058, 2.03906, 2.04689, 2.05415, 2.06092, 2.06724, 2.07316, 2.07872, 2.08396, 2.0889, 2.09358, 2.09801, 2.10222, 2.10622, 2.11003, 2.11367, 2.11715, 2.12048, 2.12367, 2.12672, 2.12966, 2.13248, 2.1352, 
Number of clients: 10

+++++++++++++++++++++++++++++++++++++++++++++++++++++++++++
+ Client Mapping:
  > Client 43500 (4):	37 38 39 10 
  > Client 43498 (3):	18 19 20 
  > Client 43495 (3):	31 32 33 
  > Client 43499 (4):	0 1 8 9 
  > Client 43492 (4):	14 15 16 17 
  > Client 43497 (4):	28 29 30 21 
  > Client 43502 (4):	34 35 36 27 
  > Client 43503 (4):	22 23 24 25 
  > Client 43496 (3):	2 3 4 
  > Client 43501 (4):	5 6 7 26 

+ Core Mapping:	43499 43499 43496 43496 43496 43501 43501 43501 43499 43499 43500 0 0 0 43492 43492 43492 43492 43498 43498 43498 43497 43503 43503 43503 43503 43501 43502 43497 43497 43497 43495 43495 43495 43502 43502 43502 43500 43500 43500 
+ Optimal point: 4 4 4 4 4 4 4 4 4 4 
+++++++++++++++++++++++++++++++++++++++++++++++++++++++++++
++++++++++++++++++++++++++++++++++++++++++++++++
 + TIMESTAMP: 1776.7
REINVADE (43495)
  + pid: 43495
  + min_cores: 1
  + max_cores: 512
  + scalability graph: 
1, 1.39494, 1.5699, 1.6742, 1.74538, 1.79792, 1.83875, 1.87167, 1.89893, 1.922, 1.94184, 1.95915, 1.97442, 1.98802, 2.00024, 2.0113, 2.02136, 2.03058, 2.03906, 2.04689, 2.05415, 2.06092, 2.06724, 2.07316, 2.07872, 2.08396, 2.0889, 2.09358, 2.09801, 2.10222, 2.10622, 2.11003, 2.11367, 2.11715, 2.12048, 2.12367, 2.12672, 2.12966, 2.13248, 2.1352, 
Number of clients: 10

+++++++++++++++++++++++++++++++++++++++++++++++++++++++++++
+ Client Mapping:
  > Client 43500 (4):	37 38 39 10 
  > Client 43498 (3):	18 19 20 
  > Client 43495 (4):	31 32 33 11 
  > Client 43499 (4):	0 1 8 9 
  > Client 43492 (4):	14 15 16 17 
  > Client 43497 (4):	28 29 30 21 
  > Client 43502 (4):	34 35 36 27 
  > Client 43503 (4):	22 23 24 25 
  > Client 43496 (3):	2 3 4 
  > Client 43501 (4):	5 6 7 26 

+ Core Mapping:	43499 43499 43496 43496 43496 43501 43501 43501 43499 43499 43500 43495 0 0 43492 43492 43492 43492 43498 43498 43498 43497 43503 43503 43503 43503 43501 43502 43497 43497 43497 43495 43495 43495 43502 43502 43502 43500 43500 43500 
+ Optimal point: 4 4 4 4 4 4 4 4 4 4 
+++++++++++++++++++++++++++++++++++++++++++++++++++++++++++
++++++++++++++++++++++++++++++++++++++++++++++++
 + TIMESTAMP: 1776.71
REINVADE (43496)
  + pid: 43496
  + min_cores: 1
  + max_cores: 512
  + scalability graph: 
1, 1.39494, 1.5699, 1.6742, 1.74538, 1.79792, 1.83875, 1.87167, 1.89893, 1.922, 1.94184, 1.95915, 1.97442, 1.98802, 2.00024, 2.0113, 2.02136, 2.03058, 2.03906, 2.04689, 2.05415, 2.06092, 2.06724, 2.07316, 2.07872, 2.08396, 2.0889, 2.09358, 2.09801, 2.10222, 2.10622, 2.11003, 2.11367, 2.11715, 2.12048, 2.12367, 2.12672, 2.12966, 2.13248, 2.1352, 
Number of clients: 10

+++++++++++++++++++++++++++++++++++++++++++++++++++++++++++
+ Client Mapping:
  > Client 43500 (4):	37 38 39 10 
  > Client 43498 (3):	18 19 20 
  > Client 43495 (4):	31 32 33 11 
  > Client 43499 (4):	0 1 8 9 
  > Client 43492 (4):	14 15 16 17 
  > Client 43497 (4):	28 29 30 21 
  > Client 43502 (4):	34 35 36 27 
  > Client 43503 (4):	22 23 24 25 
  > Client 43496 (4):	2 3 4 12 
  > Client 43501 (4):	5 6 7 26 

+ Core Mapping:	43499 43499 43496 43496 43496 43501 43501 43501 43499 43499 43500 43495 43496 0 43492 43492 43492 43492 43498 43498 43498 43497 43503 43503 43503 43503 43501 43502 43497 43497 43497 43495 43495 43495 43502 43502 43502 43500 43500 43500 
+ Optimal point: 4 4 4 4 4 4 4 4 4 4 
+++++++++++++++++++++++++++++++++++++++++++++++++++++++++++
++++++++++++++++++++++++++++++++++++++++++++++++
 + TIMESTAMP: 1776.73
REINVADE (43498)
  + pid: 43498
  + min_cores: 1
  + max_cores: 512
  + scalability graph: 
1, 1.39494, 1.5699, 1.6742, 1.74538, 1.79792, 1.83875, 1.87167, 1.89893, 1.922, 1.94184, 1.95915, 1.97442, 1.98802, 2.00024, 2.0113, 2.02136, 2.03058, 2.03906, 2.04689, 2.05415, 2.06092, 2.06724, 2.07316, 2.07872, 2.08396, 2.0889, 2.09358, 2.09801, 2.10222, 2.10622, 2.11003, 2.11367, 2.11715, 2.12048, 2.12367, 2.12672, 2.12966, 2.13248, 2.1352, 
Number of clients: 10

+++++++++++++++++++++++++++++++++++++++++++++++++++++++++++
+ Client Mapping:
  > Client 43500 (4):	37 38 39 10 
  > Client 43498 (4):	18 19 20 13 
  > Client 43495 (4):	31 32 33 11 
  > Client 43499 (4):	0 1 8 9 
  > Client 43492 (4):	14 15 16 17 
  > Client 43497 (4):	28 29 30 21 
  > Client 43502 (4):	34 35 36 27 
  > Client 43503 (4):	22 23 24 25 
  > Client 43496 (4):	2 3 4 12 
  > Client 43501 (4):	5 6 7 26 

+ Core Mapping:	43499 43499 43496 43496 43496 43501 43501 43501 43499 43499 43500 43495 43496 43498 43492 43492 43492 43492 43498 43498 43498 43497 43503 43503 43503 43503 43501 43502 43497 43497 43497 43495 43495 43495 43502 43502 43502 43500 43500 43500 
+ Optimal point: 4 4 4 4 4 4 4 4 4 4 
+++++++++++++++++++++++++++++++++++++++++++++++++++++++++++
CLIENT SHUTDOWN: client 43499
 + TIMESTAMP: 1814.02
+++++++++++++++++++++++++++++++++++++++++++++++++++++++++++
+ Client Mapping:
  > Client 43500 (4):	37 38 39 10 
  > Client 43498 (4):	18 19 20 13 
  > Client 43495 (4):	31 32 33 11 
  > Client 43499 (0):	
  > Client 43492 (4):	14 15 16 17 
  > Client 43497 (4):	28 29 30 21 
  > Client 43502 (4):	34 35 36 27 
  > Client 43503 (4):	22 23 24 25 
  > Client 43496 (4):	2 3 4 12 
  > Client 43501 (4):	5 6 7 26 

+ Core Mapping:	0 0 43496 43496 43496 43501 43501 43501 0 0 43500 43495 43496 43498 43492 43492 43492 43492 43498 43498 43498 43497 43503 43503 43503 43503 43501 43502 43497 43497 43497 43495 43495 43495 43502 43502 43502 43500 43500 43500 
+ Optimal point: 4 4 4 4 4 4 4 4 4 4 
+++++++++++++++++++++++++++++++++++++++++++++++++++++++++++
client (43499) shutdown hint: 20954.2
sum_client_shutdown_hint: 62862.6
sum_client_shutdown_hint_div_time: 0
++++++++++++++++++++++++++++++++++++++++++++++++
 + TIMESTAMP: 1814.02
REINVADE (43492)
  + pid: 43492
  + min_cores: 1
  + max_cores: 512
  + scalability graph: 
1, 1.39494, 1.5699, 1.6742, 1.74538, 1.79792, 1.83875, 1.87167, 1.89893, 1.922, 1.94184, 1.95915, 1.97442, 1.98802, 2.00024, 2.0113, 2.02136, 2.03058, 2.03906, 2.04689, 2.05415, 2.06092, 2.06724, 2.07316, 2.07872, 2.08396, 2.0889, 2.09358, 2.09801, 2.10222, 2.10622, 2.11003, 2.11367, 2.11715, 2.12048, 2.12367, 2.12672, 2.12966, 2.13248, 2.1352, 
Number of clients: 9

+++++++++++++++++++++++++++++++++++++++++++++++++++++++++++
+ Client Mapping:
  > Client 43500 (4):	37 38 39 10 
  > Client 43498 (4):	18 19 20 13 
  > Client 43495 (4):	31 32 33 11 
  > Client 43492 (5):	14 15 16 17 0 
  > Client 43497 (4):	28 29 30 21 
  > Client 43502 (4):	34 35 36 27 
  > Client 43503 (4):	22 23 24 25 
  > Client 43496 (4):	2 3 4 12 
  > Client 43501 (4):	5 6 7 26 

+ Core Mapping:	43492 0 43496 43496 43496 43501 43501 43501 0 0 43500 43495 43496 43498 43492 43492 43492 43492 43498 43498 43498 43497 43503 43503 43503 43503 43501 43502 43497 43497 43497 43495 43495 43495 43502 43502 43502 43500 43500 43500 
+ Optimal point: 5 5 5 5 4 4 4 4 4 
+++++++++++++++++++++++++++++++++++++++++++++++++++++++++++
++++++++++++++++++++++++++++++++++++++++++++++++
 + TIMESTAMP: 1814.04
REINVADE (43495)
  + pid: 43495
  + min_cores: 1
  + max_cores: 512
  + scalability graph: 
1, 1.39494, 1.5699, 1.6742, 1.74538, 1.79792, 1.83875, 1.87167, 1.89893, 1.922, 1.94184, 1.95915, 1.97442, 1.98802, 2.00024, 2.0113, 2.02136, 2.03058, 2.03906, 2.04689, 2.05415, 2.06092, 2.06724, 2.07316, 2.07872, 2.08396, 2.0889, 2.09358, 2.09801, 2.10222, 2.10622, 2.11003, 2.11367, 2.11715, 2.12048, 2.12367, 2.12672, 2.12966, 2.13248, 2.1352, 
Number of clients: 9

+++++++++++++++++++++++++++++++++++++++++++++++++++++++++++
+ Client Mapping:
  > Client 43500 (4):	37 38 39 10 
  > Client 43498 (4):	18 19 20 13 
  > Client 43495 (5):	31 32 33 11 1 
  > Client 43492 (5):	14 15 16 17 0 
  > Client 43497 (4):	28 29 30 21 
  > Client 43502 (4):	34 35 36 27 
  > Client 43503 (4):	22 23 24 25 
  > Client 43496 (4):	2 3 4 12 
  > Client 43501 (4):	5 6 7 26 

+ Core Mapping:	43492 43495 43496 43496 43496 43501 43501 43501 0 0 43500 43495 43496 43498 43492 43492 43492 43492 43498 43498 43498 43497 43503 43503 43503 43503 43501 43502 43497 43497 43497 43495 43495 43495 43502 43502 43502 43500 43500 43500 
+ Optimal point: 5 5 5 5 4 4 4 4 4 
+++++++++++++++++++++++++++++++++++++++++++++++++++++++++++
++++++++++++++++++++++++++++++++++++++++++++++++
 + TIMESTAMP: 1814.04
REINVADE (43500)
  + pid: 43500
  + min_cores: 1
  + max_cores: 512
  + scalability graph: 
1, 1.39494, 1.5699, 1.6742, 1.74538, 1.79792, 1.83875, 1.87167, 1.89893, 1.922, 1.94184, 1.95915, 1.97442, 1.98802, 2.00024, 2.0113, 2.02136, 2.03058, 2.03906, 2.04689, 2.05415, 2.06092, 2.06724, 2.07316, 2.07872, 2.08396, 2.0889, 2.09358, 2.09801, 2.10222, 2.10622, 2.11003, 2.11367, 2.11715, 2.12048, 2.12367, 2.12672, 2.12966, 2.13248, 2.1352, 
Number of clients: 9

+++++++++++++++++++++++++++++++++++++++++++++++++++++++++++
+ Client Mapping:
  > Client 43500 (5):	37 38 39 10 8 
  > Client 43498 (4):	18 19 20 13 
  > Client 43495 (5):	31 32 33 11 1 
  > Client 43492 (5):	14 15 16 17 0 
  > Client 43497 (4):	28 29 30 21 
  > Client 43502 (4):	34 35 36 27 
  > Client 43503 (4):	22 23 24 25 
  > Client 43496 (4):	2 3 4 12 
  > Client 43501 (4):	5 6 7 26 

+ Core Mapping:	43492 43495 43496 43496 43496 43501 43501 43501 43500 0 43500 43495 43496 43498 43492 43492 43492 43492 43498 43498 43498 43497 43503 43503 43503 43503 43501 43502 43497 43497 43497 43495 43495 43495 43502 43502 43502 43500 43500 43500 
+ Optimal point: 5 5 5 5 4 4 4 4 4 
+++++++++++++++++++++++++++++++++++++++++++++++++++++++++++
++++++++++++++++++++++++++++++++++++++++++++++++
 + TIMESTAMP: 1814.04
REINVADE (43498)
  + pid: 43498
  + min_cores: 1
  + max_cores: 512
  + scalability graph: 
1, 1.39494, 1.5699, 1.6742, 1.74538, 1.79792, 1.83875, 1.87167, 1.89893, 1.922, 1.94184, 1.95915, 1.97442, 1.98802, 2.00024, 2.0113, 2.02136, 2.03058, 2.03906, 2.04689, 2.05415, 2.06092, 2.06724, 2.07316, 2.07872, 2.08396, 2.0889, 2.09358, 2.09801, 2.10222, 2.10622, 2.11003, 2.11367, 2.11715, 2.12048, 2.12367, 2.12672, 2.12966, 2.13248, 2.1352, 
Number of clients: 9

+++++++++++++++++++++++++++++++++++++++++++++++++++++++++++
+ Client Mapping:
  > Client 43500 (5):	37 38 39 10 8 
  > Client 43498 (5):	18 19 20 13 9 
  > Client 43495 (5):	31 32 33 11 1 
  > Client 43492 (5):	14 15 16 17 0 
  > Client 43497 (4):	28 29 30 21 
  > Client 43502 (4):	34 35 36 27 
  > Client 43503 (4):	22 23 24 25 
  > Client 43496 (4):	2 3 4 12 
  > Client 43501 (4):	5 6 7 26 

+ Core Mapping:	43492 43495 43496 43496 43496 43501 43501 43501 43500 43498 43500 43495 43496 43498 43492 43492 43492 43492 43498 43498 43498 43497 43503 43503 43503 43503 43501 43502 43497 43497 43497 43495 43495 43495 43502 43502 43502 43500 43500 43500 
+ Optimal point: 5 5 5 5 4 4 4 4 4 
+++++++++++++++++++++++++++++++++++++++++++++++++++++++++++
CLIENT SHUTDOWN: client 43492
 + TIMESTAMP: 1861.64
+++++++++++++++++++++++++++++++++++++++++++++++++++++++++++
+ Client Mapping:
  > Client 43500 (5):	37 38 39 10 8 
  > Client 43498 (5):	18 19 20 13 9 
  > Client 43495 (5):	31 32 33 11 1 
  > Client 43492 (0):	
  > Client 43497 (4):	28 29 30 21 
  > Client 43502 (4):	34 35 36 27 
  > Client 43503 (4):	22 23 24 25 
  > Client 43496 (4):	2 3 4 12 
  > Client 43501 (4):	5 6 7 26 

+ Core Mapping:	0 43495 43496 43496 43496 43501 43501 43501 43500 43498 43500 43495 43496 43498 0 0 0 0 43498 43498 43498 43497 43503 43503 43503 43503 43501 43502 43497 43497 43497 43495 43495 43495 43502 43502 43502 43500 43500 43500 
+ Optimal point: 5 5 5 5 4 4 4 4 4 
+++++++++++++++++++++++++++++++++++++++++++++++++++++++++++
client (43492) shutdown hint: 20954.2
sum_client_shutdown_hint: 83816.8
sum_client_shutdown_hint_div_time: 0
++++++++++++++++++++++++++++++++++++++++++++++++
 + TIMESTAMP: 1861.65
REINVADE (43501)
  + pid: 43501
  + min_cores: 1
  + max_cores: 512
  + scalability graph: 
1, 1.39494, 1.5699, 1.6742, 1.74538, 1.79792, 1.83875, 1.87167, 1.89893, 1.922, 1.94184, 1.95915, 1.97442, 1.98802, 2.00024, 2.0113, 2.02136, 2.03058, 2.03906, 2.04689, 2.05415, 2.06092, 2.06724, 2.07316, 2.07872, 2.08396, 2.0889, 2.09358, 2.09801, 2.10222, 2.10622, 2.11003, 2.11367, 2.11715, 2.12048, 2.12367, 2.12672, 2.12966, 2.13248, 2.1352, 
Number of clients: 8

+++++++++++++++++++++++++++++++++++++++++++++++++++++++++++
+ Client Mapping:
  > Client 43500 (5):	37 38 39 10 8 
  > Client 43498 (5):	18 19 20 13 9 
  > Client 43495 (5):	31 32 33 11 1 
  > Client 43497 (4):	28 29 30 21 
  > Client 43502 (4):	34 35 36 27 
  > Client 43503 (4):	22 23 24 25 
  > Client 43496 (4):	2 3 4 12 
  > Client 43501 (5):	5 6 7 26 0 

+ Core Mapping:	43501 43495 43496 43496 43496 43501 43501 43501 43500 43498 43500 43495 43496 43498 0 0 0 0 43498 43498 43498 43497 43503 43503 43503 43503 43501 43502 43497 43497 43497 43495 43495 43495 43502 43502 43502 43500 43500 43500 
+ Optimal point: 5 5 5 5 5 5 5 5 
+++++++++++++++++++++++++++++++++++++++++++++++++++++++++++
++++++++++++++++++++++++++++++++++++++++++++++++
 + TIMESTAMP: 1861.65
REINVADE (43502)
  + pid: 43502
  + min_cores: 1
  + max_cores: 512
  + scalability graph: 
1, 1.39494, 1.5699, 1.6742, 1.74538, 1.79792, 1.83875, 1.87167, 1.89893, 1.922, 1.94184, 1.95915, 1.97442, 1.98802, 2.00024, 2.0113, 2.02136, 2.03058, 2.03906, 2.04689, 2.05415, 2.06092, 2.06724, 2.07316, 2.07872, 2.08396, 2.0889, 2.09358, 2.09801, 2.10222, 2.10622, 2.11003, 2.11367, 2.11715, 2.12048, 2.12367, 2.12672, 2.12966, 2.13248, 2.1352, 
Number of clients: 8

+++++++++++++++++++++++++++++++++++++++++++++++++++++++++++
+ Client Mapping:
  > Client 43500 (5):	37 38 39 10 8 
  > Client 43498 (5):	18 19 20 13 9 
  > Client 43495 (5):	31 32 33 11 1 
  > Client 43497 (4):	28 29 30 21 
  > Client 43502 (5):	34 35 36 27 14 
  > Client 43503 (4):	22 23 24 25 
  > Client 43496 (4):	2 3 4 12 
  > Client 43501 (5):	5 6 7 26 0 

+ Core Mapping:	43501 43495 43496 43496 43496 43501 43501 43501 43500 43498 43500 43495 43496 43498 43502 0 0 0 43498 43498 43498 43497 43503 43503 43503 43503 43501 43502 43497 43497 43497 43495 43495 43495 43502 43502 43502 43500 43500 43500 
+ Optimal point: 5 5 5 5 5 5 5 5 
+++++++++++++++++++++++++++++++++++++++++++++++++++++++++++
++++++++++++++++++++++++++++++++++++++++++++++++
 + TIMESTAMP: 1861.65
REINVADE (43497)
  + pid: 43497
  + min_cores: 1
  + max_cores: 512
  + scalability graph: 
1, 1.39494, 1.5699, 1.6742, 1.74538, 1.79792, 1.83875, 1.87167, 1.89893, 1.922, 1.94184, 1.95915, 1.97442, 1.98802, 2.00024, 2.0113, 2.02136, 2.03058, 2.03906, 2.04689, 2.05415, 2.06092, 2.06724, 2.07316, 2.07872, 2.08396, 2.0889, 2.09358, 2.09801, 2.10222, 2.10622, 2.11003, 2.11367, 2.11715, 2.12048, 2.12367, 2.12672, 2.12966, 2.13248, 2.1352, 
Number of clients: 8

+++++++++++++++++++++++++++++++++++++++++++++++++++++++++++
+ Client Mapping:
  > Client 43500 (5):	37 38 39 10 8 
  > Client 43498 (5):	18 19 20 13 9 
  > Client 43495 (5):	31 32 33 11 1 
  > Client 43497 (5):	28 29 30 21 15 
  > Client 43502 (5):	34 35 36 27 14 
  > Client 43503 (4):	22 23 24 25 
  > Client 43496 (4):	2 3 4 12 
  > Client 43501 (5):	5 6 7 26 0 

+ Core Mapping:	43501 43495 43496 43496 43496 43501 43501 43501 43500 43498 43500 43495 43496 43498 43502 43497 0 0 43498 43498 43498 43497 43503 43503 43503 43503 43501 43502 43497 43497 43497 43495 43495 43495 43502 43502 43502 43500 43500 43500 
+ Optimal point: 5 5 5 5 5 5 5 5 
+++++++++++++++++++++++++++++++++++++++++++++++++++++++++++
++++++++++++++++++++++++++++++++++++++++++++++++
 + TIMESTAMP: 1861.66
REINVADE (43503)
  + pid: 43503
  + min_cores: 1
  + max_cores: 512
  + scalability graph: 
1, 1.39494, 1.5699, 1.6742, 1.74538, 1.79792, 1.83875, 1.87167, 1.89893, 1.922, 1.94184, 1.95915, 1.97442, 1.98802, 2.00024, 2.0113, 2.02136, 2.03058, 2.03906, 2.04689, 2.05415, 2.06092, 2.06724, 2.07316, 2.07872, 2.08396, 2.0889, 2.09358, 2.09801, 2.10222, 2.10622, 2.11003, 2.11367, 2.11715, 2.12048, 2.12367, 2.12672, 2.12966, 2.13248, 2.1352, 
Number of clients: 8

+++++++++++++++++++++++++++++++++++++++++++++++++++++++++++
+ Client Mapping:
  > Client 43500 (5):	37 38 39 10 8 
  > Client 43498 (5):	18 19 20 13 9 
  > Client 43495 (5):	31 32 33 11 1 
  > Client 43497 (5):	28 29 30 21 15 
  > Client 43502 (5):	34 35 36 27 14 
  > Client 43503 (5):	22 23 24 25 16 
  > Client 43496 (4):	2 3 4 12 
  > Client 43501 (5):	5 6 7 26 0 

+ Core Mapping:	43501 43495 43496 43496 43496 43501 43501 43501 43500 43498 43500 43495 43496 43498 43502 43497 43503 0 43498 43498 43498 43497 43503 43503 43503 43503 43501 43502 43497 43497 43497 43495 43495 43495 43502 43502 43502 43500 43500 43500 
+ Optimal point: 5 5 5 5 5 5 5 5 
+++++++++++++++++++++++++++++++++++++++++++++++++++++++++++
++++++++++++++++++++++++++++++++++++++++++++++++
 + TIMESTAMP: 1861.66
REINVADE (43496)
  + pid: 43496
  + min_cores: 1
  + max_cores: 512
  + scalability graph: 
1, 1.39494, 1.5699, 1.6742, 1.74538, 1.79792, 1.83875, 1.87167, 1.89893, 1.922, 1.94184, 1.95915, 1.97442, 1.98802, 2.00024, 2.0113, 2.02136, 2.03058, 2.03906, 2.04689, 2.05415, 2.06092, 2.06724, 2.07316, 2.07872, 2.08396, 2.0889, 2.09358, 2.09801, 2.10222, 2.10622, 2.11003, 2.11367, 2.11715, 2.12048, 2.12367, 2.12672, 2.12966, 2.13248, 2.1352, 
Number of clients: 8

+++++++++++++++++++++++++++++++++++++++++++++++++++++++++++
+ Client Mapping:
  > Client 43500 (5):	37 38 39 10 8 
  > Client 43498 (5):	18 19 20 13 9 
  > Client 43495 (5):	31 32 33 11 1 
  > Client 43497 (5):	28 29 30 21 15 
  > Client 43502 (5):	34 35 36 27 14 
  > Client 43503 (5):	22 23 24 25 16 
  > Client 43496 (5):	2 3 4 12 17 
  > Client 43501 (5):	5 6 7 26 0 

+ Core Mapping:	43501 43495 43496 43496 43496 43501 43501 43501 43500 43498 43500 43495 43496 43498 43502 43497 43503 43496 43498 43498 43498 43497 43503 43503 43503 43503 43501 43502 43497 43497 43497 43495 43495 43495 43502 43502 43502 43500 43500 43500 
+ Optimal point: 5 5 5 5 5 5 5 5 
+++++++++++++++++++++++++++++++++++++++++++++++++++++++++++
CLIENT SHUTDOWN: client 43500
 + TIMESTAMP: 2034.29
+++++++++++++++++++++++++++++++++++++++++++++++++++++++++++
+ Client Mapping:
  > Client 43500 (0):	
  > Client 43498 (5):	18 19 20 13 9 
  > Client 43495 (5):	31 32 33 11 1 
  > Client 43497 (5):	28 29 30 21 15 
  > Client 43502 (5):	34 35 36 27 14 
  > Client 43503 (5):	22 23 24 25 16 
  > Client 43496 (5):	2 3 4 12 17 
  > Client 43501 (5):	5 6 7 26 0 

+ Core Mapping:	43501 43495 43496 43496 43496 43501 43501 43501 0 43498 0 43495 43496 43498 43502 43497 43503 43496 43498 43498 43498 43497 43503 43503 43503 43503 43501 43502 43497 43497 43497 43495 43495 43495 43502 43502 43502 0 0 0 
+ Optimal point: 5 5 5 5 5 5 5 5 
+++++++++++++++++++++++++++++++++++++++++++++++++++++++++++
client (43500) shutdown hint: 20954.2
sum_client_shutdown_hint: 104771
sum_client_shutdown_hint_div_time: 0
++++++++++++++++++++++++++++++++++++++++++++++++
 + TIMESTAMP: 2034.31
REINVADE (43497)
  + pid: 43497
  + min_cores: 1
  + max_cores: 512
  + scalability graph: 
1, 1.39494, 1.5699, 1.6742, 1.74538, 1.79792, 1.83875, 1.87167, 1.89893, 1.922, 1.94184, 1.95915, 1.97442, 1.98802, 2.00024, 2.0113, 2.02136, 2.03058, 2.03906, 2.04689, 2.05415, 2.06092, 2.06724, 2.07316, 2.07872, 2.08396, 2.0889, 2.09358, 2.09801, 2.10222, 2.10622, 2.11003, 2.11367, 2.11715, 2.12048, 2.12367, 2.12672, 2.12966, 2.13248, 2.1352, 
Number of clients: 7

+++++++++++++++++++++++++++++++++++++++++++++++++++++++++++
+ Client Mapping:
  > Client 43498 (5):	18 19 20 13 9 
  > Client 43495 (5):	31 32 33 11 1 
  > Client 43497 (6):	28 29 30 21 15 8 
  > Client 43502 (5):	34 35 36 27 14 
  > Client 43503 (5):	22 23 24 25 16 
  > Client 43496 (5):	2 3 4 12 17 
  > Client 43501 (5):	5 6 7 26 0 

+ Core Mapping:	43501 43495 43496 43496 43496 43501 43501 43501 43497 43498 0 43495 43496 43498 43502 43497 43503 43496 43498 43498 43498 43497 43503 43503 43503 43503 43501 43502 43497 43497 43497 43495 43495 43495 43502 43502 43502 0 0 0 
+ Optimal point: 6 6 6 6 6 5 5 
+++++++++++++++++++++++++++++++++++++++++++++++++++++++++++
++++++++++++++++++++++++++++++++++++++++++++++++
 + TIMESTAMP: 2034.31
REINVADE (43498)
  + pid: 43498
  + min_cores: 1
  + max_cores: 512
  + scalability graph: 
1, 1.39494, 1.5699, 1.6742, 1.74538, 1.79792, 1.83875, 1.87167, 1.89893, 1.922, 1.94184, 1.95915, 1.97442, 1.98802, 2.00024, 2.0113, 2.02136, 2.03058, 2.03906, 2.04689, 2.05415, 2.06092, 2.06724, 2.07316, 2.07872, 2.08396, 2.0889, 2.09358, 2.09801, 2.10222, 2.10622, 2.11003, 2.11367, 2.11715, 2.12048, 2.12367, 2.12672, 2.12966, 2.13248, 2.1352, 
Number of clients: 7

+++++++++++++++++++++++++++++++++++++++++++++++++++++++++++
+ Client Mapping:
  > Client 43498 (6):	18 19 20 13 9 10 
  > Client 43495 (5):	31 32 33 11 1 
  > Client 43497 (6):	28 29 30 21 15 8 
  > Client 43502 (5):	34 35 36 27 14 
  > Client 43503 (5):	22 23 24 25 16 
  > Client 43496 (5):	2 3 4 12 17 
  > Client 43501 (5):	5 6 7 26 0 

+ Core Mapping:	43501 43495 43496 43496 43496 43501 43501 43501 43497 43498 43498 43495 43496 43498 43502 43497 43503 43496 43498 43498 43498 43497 43503 43503 43503 43503 43501 43502 43497 43497 43497 43495 43495 43495 43502 43502 43502 0 0 0 
+ Optimal point: 6 6 6 6 6 5 5 
+++++++++++++++++++++++++++++++++++++++++++++++++++++++++++
++++++++++++++++++++++++++++++++++++++++++++++++
 + TIMESTAMP: 2034.32
REINVADE (43495)
  + pid: 43495
  + min_cores: 1
  + max_cores: 512
  + scalability graph: 
1, 1.39494, 1.5699, 1.6742, 1.74538, 1.79792, 1.83875, 1.87167, 1.89893, 1.922, 1.94184, 1.95915, 1.97442, 1.98802, 2.00024, 2.0113, 2.02136, 2.03058, 2.03906, 2.04689, 2.05415, 2.06092, 2.06724, 2.07316, 2.07872, 2.08396, 2.0889, 2.09358, 2.09801, 2.10222, 2.10622, 2.11003, 2.11367, 2.11715, 2.12048, 2.12367, 2.12672, 2.12966, 2.13248, 2.1352, 
Number of clients: 7

+++++++++++++++++++++++++++++++++++++++++++++++++++++++++++
+ Client Mapping:
  > Client 43498 (6):	18 19 20 13 9 10 
  > Client 43495 (6):	31 32 33 11 1 37 
  > Client 43497 (6):	28 29 30 21 15 8 
  > Client 43502 (5):	34 35 36 27 14 
  > Client 43503 (5):	22 23 24 25 16 
  > Client 43496 (5):	2 3 4 12 17 
  > Client 43501 (5):	5 6 7 26 0 

+ Core Mapping:	43501 43495 43496 43496 43496 43501 43501 43501 43497 43498 43498 43495 43496 43498 43502 43497 43503 43496 43498 43498 43498 43497 43503 43503 43503 43503 43501 43502 43497 43497 43497 43495 43495 43495 43502 43502 43502 43495 0 0 
+ Optimal point: 6 6 6 6 6 5 5 
+++++++++++++++++++++++++++++++++++++++++++++++++++++++++++
++++++++++++++++++++++++++++++++++++++++++++++++
 + TIMESTAMP: 2034.33
REINVADE (43502)
  + pid: 43502
  + min_cores: 1
  + max_cores: 512
  + scalability graph: 
1, 1.39494, 1.5699, 1.6742, 1.74538, 1.79792, 1.83875, 1.87167, 1.89893, 1.922, 1.94184, 1.95915, 1.97442, 1.98802, 2.00024, 2.0113, 2.02136, 2.03058, 2.03906, 2.04689, 2.05415, 2.06092, 2.06724, 2.07316, 2.07872, 2.08396, 2.0889, 2.09358, 2.09801, 2.10222, 2.10622, 2.11003, 2.11367, 2.11715, 2.12048, 2.12367, 2.12672, 2.12966, 2.13248, 2.1352, 
Number of clients: 7

+++++++++++++++++++++++++++++++++++++++++++++++++++++++++++
+ Client Mapping:
  > Client 43498 (6):	18 19 20 13 9 10 
  > Client 43495 (6):	31 32 33 11 1 37 
  > Client 43497 (6):	28 29 30 21 15 8 
  > Client 43502 (6):	34 35 36 27 14 38 
  > Client 43503 (5):	22 23 24 25 16 
  > Client 43496 (5):	2 3 4 12 17 
  > Client 43501 (5):	5 6 7 26 0 

+ Core Mapping:	43501 43495 43496 43496 43496 43501 43501 43501 43497 43498 43498 43495 43496 43498 43502 43497 43503 43496 43498 43498 43498 43497 43503 43503 43503 43503 43501 43502 43497 43497 43497 43495 43495 43495 43502 43502 43502 43495 43502 0 
+ Optimal point: 6 6 6 6 6 5 5 
+++++++++++++++++++++++++++++++++++++++++++++++++++++++++++
++++++++++++++++++++++++++++++++++++++++++++++++
 + TIMESTAMP: 2034.33
REINVADE (43503)
  + pid: 43503
  + min_cores: 1
  + max_cores: 512
  + scalability graph: 
1, 1.39494, 1.5699, 1.6742, 1.74538, 1.79792, 1.83875, 1.87167, 1.89893, 1.922, 1.94184, 1.95915, 1.97442, 1.98802, 2.00024, 2.0113, 2.02136, 2.03058, 2.03906, 2.04689, 2.05415, 2.06092, 2.06724, 2.07316, 2.07872, 2.08396, 2.0889, 2.09358, 2.09801, 2.10222, 2.10622, 2.11003, 2.11367, 2.11715, 2.12048, 2.12367, 2.12672, 2.12966, 2.13248, 2.1352, 
Number of clients: 7

+++++++++++++++++++++++++++++++++++++++++++++++++++++++++++
+ Client Mapping:
  > Client 43498 (6):	18 19 20 13 9 10 
  > Client 43495 (6):	31 32 33 11 1 37 
  > Client 43497 (6):	28 29 30 21 15 8 
  > Client 43502 (6):	34 35 36 27 14 38 
  > Client 43503 (6):	22 23 24 25 16 39 
  > Client 43496 (5):	2 3 4 12 17 
  > Client 43501 (5):	5 6 7 26 0 

+ Core Mapping:	43501 43495 43496 43496 43496 43501 43501 43501 43497 43498 43498 43495 43496 43498 43502 43497 43503 43496 43498 43498 43498 43497 43503 43503 43503 43503 43501 43502 43497 43497 43497 43495 43495 43495 43502 43502 43502 43495 43502 43503 
+ Optimal point: 6 6 6 6 6 5 5 
+++++++++++++++++++++++++++++++++++++++++++++++++++++++++++
CLIENT SHUTDOWN: client 43495
 + TIMESTAMP: 2107.92
+++++++++++++++++++++++++++++++++++++++++++++++++++++++++++
+ Client Mapping:
  > Client 43498 (6):	18 19 20 13 9 10 
  > Client 43495 (0):	
  > Client 43497 (6):	28 29 30 21 15 8 
  > Client 43502 (6):	34 35 36 27 14 38 
  > Client 43503 (6):	22 23 24 25 16 39 
  > Client 43496 (5):	2 3 4 12 17 
  > Client 43501 (5):	5 6 7 26 0 

+ Core Mapping:	43501 0 43496 43496 43496 43501 43501 43501 43497 43498 43498 0 43496 43498 43502 43497 43503 43496 43498 43498 43498 43497 43503 43503 43503 43503 43501 43502 43497 43497 43497 0 0 0 43502 43502 43502 0 43502 43503 
+ Optimal point: 6 6 6 6 6 5 5 
+++++++++++++++++++++++++++++++++++++++++++++++++++++++++++
client (43495) shutdown hint: 20954.2
sum_client_shutdown_hint: 125725
sum_client_shutdown_hint_div_time: 0
++++++++++++++++++++++++++++++++++++++++++++++++
 + TIMESTAMP: 2107.94
REINVADE (43502)
  + pid: 43502
  + min_cores: 1
  + max_cores: 512
  + scalability graph: 
1, 1.39494, 1.5699, 1.6742, 1.74538, 1.79792, 1.83875, 1.87167, 1.89893, 1.922, 1.94184, 1.95915, 1.97442, 1.98802, 2.00024, 2.0113, 2.02136, 2.03058, 2.03906, 2.04689, 2.05415, 2.06092, 2.06724, 2.07316, 2.07872, 2.08396, 2.0889, 2.09358, 2.09801, 2.10222, 2.10622, 2.11003, 2.11367, 2.11715, 2.12048, 2.12367, 2.12672, 2.12966, 2.13248, 2.1352, 
Number of clients: 6

+++++++++++++++++++++++++++++++++++++++++++++++++++++++++++
+ Client Mapping:
  > Client 43498 (6):	18 19 20 13 9 10 
  > Client 43497 (6):	28 29 30 21 15 8 
  > Client 43502 (7):	34 35 36 27 14 38 1 
  > Client 43503 (6):	22 23 24 25 16 39 
  > Client 43496 (5):	2 3 4 12 17 
  > Client 43501 (5):	5 6 7 26 0 

+ Core Mapping:	43501 43502 43496 43496 43496 43501 43501 43501 43497 43498 43498 0 43496 43498 43502 43497 43503 43496 43498 43498 43498 43497 43503 43503 43503 43503 43501 43502 43497 43497 43497 0 0 0 43502 43502 43502 0 43502 43503 
+ Optimal point: 7 7 7 6 6 7 
+++++++++++++++++++++++++++++++++++++++++++++++++++++++++++
++++++++++++++++++++++++++++++++++++++++++++++++
 + TIMESTAMP: 2107.94
REINVADE (43497)
  + pid: 43497
  + min_cores: 1
  + max_cores: 512
  + scalability graph: 
1, 1.39494, 1.5699, 1.6742, 1.74538, 1.79792, 1.83875, 1.87167, 1.89893, 1.922, 1.94184, 1.95915, 1.97442, 1.98802, 2.00024, 2.0113, 2.02136, 2.03058, 2.03906, 2.04689, 2.05415, 2.06092, 2.06724, 2.07316, 2.07872, 2.08396, 2.0889, 2.09358, 2.09801, 2.10222, 2.10622, 2.11003, 2.11367, 2.11715, 2.12048, 2.12367, 2.12672, 2.12966, 2.13248, 2.1352, 
Number of clients: 6

+++++++++++++++++++++++++++++++++++++++++++++++++++++++++++
+ Client Mapping:
  > Client 43498 (6):	18 19 20 13 9 10 
  > Client 43497 (7):	28 29 30 21 15 8 11 
  > Client 43502 (7):	34 35 36 27 14 38 1 
  > Client 43503 (6):	22 23 24 25 16 39 
  > Client 43496 (5):	2 3 4 12 17 
  > Client 43501 (5):	5 6 7 26 0 

+ Core Mapping:	43501 43502 43496 43496 43496 43501 43501 43501 43497 43498 43498 43497 43496 43498 43502 43497 43503 43496 43498 43498 43498 43497 43503 43503 43503 43503 43501 43502 43497 43497 43497 0 0 0 43502 43502 43502 0 43502 43503 
+ Optimal point: 7 7 7 6 6 7 
+++++++++++++++++++++++++++++++++++++++++++++++++++++++++++
++++++++++++++++++++++++++++++++++++++++++++++++
 + TIMESTAMP: 2107.95
REINVADE (43501)
  + pid: 43501
  + min_cores: 1
  + max_cores: 512
  + scalability graph: 
1, 1.39494, 1.5699, 1.6742, 1.74538, 1.79792, 1.83875, 1.87167, 1.89893, 1.922, 1.94184, 1.95915, 1.97442, 1.98802, 2.00024, 2.0113, 2.02136, 2.03058, 2.03906, 2.04689, 2.05415, 2.06092, 2.06724, 2.07316, 2.07872, 2.08396, 2.0889, 2.09358, 2.09801, 2.10222, 2.10622, 2.11003, 2.11367, 2.11715, 2.12048, 2.12367, 2.12672, 2.12966, 2.13248, 2.1352, 
Number of clients: 6

+++++++++++++++++++++++++++++++++++++++++++++++++++++++++++
+ Client Mapping:
  > Client 43498 (6):	18 19 20 13 9 10 
  > Client 43497 (7):	28 29 30 21 15 8 11 
  > Client 43502 (7):	34 35 36 27 14 38 1 
  > Client 43503 (6):	22 23 24 25 16 39 
  > Client 43496 (5):	2 3 4 12 17 
  > Client 43501 (7):	5 6 7 26 0 31 32 

+ Core Mapping:	43501 43502 43496 43496 43496 43501 43501 43501 43497 43498 43498 43497 43496 43498 43502 43497 43503 43496 43498 43498 43498 43497 43503 43503 43503 43503 43501 43502 43497 43497 43497 43501 43501 0 43502 43502 43502 0 43502 43503 
+ Optimal point: 7 7 7 6 6 7 
+++++++++++++++++++++++++++++++++++++++++++++++++++++++++++
++++++++++++++++++++++++++++++++++++++++++++++++
 + TIMESTAMP: 2107.95
REINVADE (43498)
  + pid: 43498
  + min_cores: 1
  + max_cores: 512
  + scalability graph: 
1, 1.39494, 1.5699, 1.6742, 1.74538, 1.79792, 1.83875, 1.87167, 1.89893, 1.922, 1.94184, 1.95915, 1.97442, 1.98802, 2.00024, 2.0113, 2.02136, 2.03058, 2.03906, 2.04689, 2.05415, 2.06092, 2.06724, 2.07316, 2.07872, 2.08396, 2.0889, 2.09358, 2.09801, 2.10222, 2.10622, 2.11003, 2.11367, 2.11715, 2.12048, 2.12367, 2.12672, 2.12966, 2.13248, 2.1352, 
Number of clients: 6

+++++++++++++++++++++++++++++++++++++++++++++++++++++++++++
+ Client Mapping:
  > Client 43498 (7):	18 19 20 13 9 10 33 
  > Client 43497 (7):	28 29 30 21 15 8 11 
  > Client 43502 (7):	34 35 36 27 14 38 1 
  > Client 43503 (6):	22 23 24 25 16 39 
  > Client 43496 (5):	2 3 4 12 17 
  > Client 43501 (7):	5 6 7 26 0 31 32 

+ Core Mapping:	43501 43502 43496 43496 43496 43501 43501 43501 43497 43498 43498 43497 43496 43498 43502 43497 43503 43496 43498 43498 43498 43497 43503 43503 43503 43503 43501 43502 43497 43497 43497 43501 43501 43498 43502 43502 43502 0 43502 43503 
+ Optimal point: 7 7 7 6 6 7 
+++++++++++++++++++++++++++++++++++++++++++++++++++++++++++
++++++++++++++++++++++++++++++++++++++++++++++++
 + TIMESTAMP: 2107.97
REINVADE (43496)
  + pid: 43496
  + min_cores: 1
  + max_cores: 512
  + scalability graph: 
1, 1.39494, 1.5699, 1.6742, 1.74538, 1.79792, 1.83875, 1.87167, 1.89893, 1.922, 1.94184, 1.95915, 1.97442, 1.98802, 2.00024, 2.0113, 2.02136, 2.03058, 2.03906, 2.04689, 2.05415, 2.06092, 2.06724, 2.07316, 2.07872, 2.08396, 2.0889, 2.09358, 2.09801, 2.10222, 2.10622, 2.11003, 2.11367, 2.11715, 2.12048, 2.12367, 2.12672, 2.12966, 2.13248, 2.1352, 
Number of clients: 6

+++++++++++++++++++++++++++++++++++++++++++++++++++++++++++
+ Client Mapping:
  > Client 43498 (7):	18 19 20 13 9 10 33 
  > Client 43497 (7):	28 29 30 21 15 8 11 
  > Client 43502 (7):	34 35 36 27 14 38 1 
  > Client 43503 (6):	22 23 24 25 16 39 
  > Client 43496 (6):	2 3 4 12 17 37 
  > Client 43501 (7):	5 6 7 26 0 31 32 

+ Core Mapping:	43501 43502 43496 43496 43496 43501 43501 43501 43497 43498 43498 43497 43496 43498 43502 43497 43503 43496 43498 43498 43498 43497 43503 43503 43503 43503 43501 43502 43497 43497 43497 43501 43501 43498 43502 43502 43502 43496 43502 43503 
+ Optimal point: 7 7 7 6 6 7 
+++++++++++++++++++++++++++++++++++++++++++++++++++++++++++
CLIENT SHUTDOWN: client 43497
 + TIMESTAMP: 2114.9
+++++++++++++++++++++++++++++++++++++++++++++++++++++++++++
+ Client Mapping:
  > Client 43498 (7):	18 19 20 13 9 10 33 
  > Client 43497 (0):	
  > Client 43502 (7):	34 35 36 27 14 38 1 
  > Client 43503 (6):	22 23 24 25 16 39 
  > Client 43496 (6):	2 3 4 12 17 37 
  > Client 43501 (7):	5 6 7 26 0 31 32 

+ Core Mapping:	43501 43502 43496 43496 43496 43501 43501 43501 0 43498 43498 0 43496 43498 43502 0 43503 43496 43498 43498 43498 0 43503 43503 43503 43503 43501 43502 0 0 0 43501 43501 43498 43502 43502 43502 43496 43502 43503 
+ Optimal point: 7 7 7 6 6 7 
+++++++++++++++++++++++++++++++++++++++++++++++++++++++++++
client (43497) shutdown hint: 20954.2
sum_client_shutdown_hint: 146679
sum_client_shutdown_hint_div_time: 0
++++++++++++++++++++++++++++++++++++++++++++++++
 + TIMESTAMP: 2114.92
REINVADE (43496)
  + pid: 43496
  + min_cores: 1
  + max_cores: 512
  + scalability graph: 
1, 1.39494, 1.5699, 1.6742, 1.74538, 1.79792, 1.83875, 1.87167, 1.89893, 1.922, 1.94184, 1.95915, 1.97442, 1.98802, 2.00024, 2.0113, 2.02136, 2.03058, 2.03906, 2.04689, 2.05415, 2.06092, 2.06724, 2.07316, 2.07872, 2.08396, 2.0889, 2.09358, 2.09801, 2.10222, 2.10622, 2.11003, 2.11367, 2.11715, 2.12048, 2.12367, 2.12672, 2.12966, 2.13248, 2.1352, 
Number of clients: 5

+++++++++++++++++++++++++++++++++++++++++++++++++++++++++++
+ Client Mapping:
  > Client 43498 (7):	18 19 20 13 9 10 33 
  > Client 43502 (7):	34 35 36 27 14 38 1 
  > Client 43503 (6):	22 23 24 25 16 39 
  > Client 43496 (8):	2 3 4 12 17 37 8 11 
  > Client 43501 (7):	5 6 7 26 0 31 32 

+ Core Mapping:	43501 43502 43496 43496 43496 43501 43501 43501 43496 43498 43498 43496 43496 43498 43502 0 43503 43496 43498 43498 43498 0 43503 43503 43503 43503 43501 43502 0 0 0 43501 43501 43498 43502 43502 43502 43496 43502 43503 
+ Optimal point: 8 8 8 8 8 
+++++++++++++++++++++++++++++++++++++++++++++++++++++++++++
++++++++++++++++++++++++++++++++++++++++++++++++
 + TIMESTAMP: 2114.92
REINVADE (43503)
  + pid: 43503
  + min_cores: 1
  + max_cores: 512
  + scalability graph: 
1, 1.39494, 1.5699, 1.6742, 1.74538, 1.79792, 1.83875, 1.87167, 1.89893, 1.922, 1.94184, 1.95915, 1.97442, 1.98802, 2.00024, 2.0113, 2.02136, 2.03058, 2.03906, 2.04689, 2.05415, 2.06092, 2.06724, 2.07316, 2.07872, 2.08396, 2.0889, 2.09358, 2.09801, 2.10222, 2.10622, 2.11003, 2.11367, 2.11715, 2.12048, 2.12367, 2.12672, 2.12966, 2.13248, 2.1352, 
Number of clients: 5

+++++++++++++++++++++++++++++++++++++++++++++++++++++++++++
+ Client Mapping:
  > Client 43498 (7):	18 19 20 13 9 10 33 
  > Client 43502 (7):	34 35 36 27 14 38 1 
  > Client 43503 (8):	22 23 24 25 16 39 15 21 
  > Client 43496 (8):	2 3 4 12 17 37 8 11 
  > Client 43501 (7):	5 6 7 26 0 31 32 

+ Core Mapping:	43501 43502 43496 43496 43496 43501 43501 43501 43496 43498 43498 43496 43496 43498 43502 43503 43503 43496 43498 43498 43498 43503 43503 43503 43503 43503 43501 43502 0 0 0 43501 43501 43498 43502 43502 43502 43496 43502 43503 
+ Optimal point: 8 8 8 8 8 
+++++++++++++++++++++++++++++++++++++++++++++++++++++++++++
++++++++++++++++++++++++++++++++++++++++++++++++
 + TIMESTAMP: 2114.93
REINVADE (43502)
  + pid: 43502
  + min_cores: 1
  + max_cores: 512
  + scalability graph: 
1, 1.39494, 1.5699, 1.6742, 1.74538, 1.79792, 1.83875, 1.87167, 1.89893, 1.922, 1.94184, 1.95915, 1.97442, 1.98802, 2.00024, 2.0113, 2.02136, 2.03058, 2.03906, 2.04689, 2.05415, 2.06092, 2.06724, 2.07316, 2.07872, 2.08396, 2.0889, 2.09358, 2.09801, 2.10222, 2.10622, 2.11003, 2.11367, 2.11715, 2.12048, 2.12367, 2.12672, 2.12966, 2.13248, 2.1352, 
Number of clients: 5

+++++++++++++++++++++++++++++++++++++++++++++++++++++++++++
+ Client Mapping:
  > Client 43498 (7):	18 19 20 13 9 10 33 
  > Client 43502 (8):	34 35 36 27 14 38 1 28 
  > Client 43503 (8):	22 23 24 25 16 39 15 21 
  > Client 43496 (8):	2 3 4 12 17 37 8 11 
  > Client 43501 (7):	5 6 7 26 0 31 32 

+ Core Mapping:	43501 43502 43496 43496 43496 43501 43501 43501 43496 43498 43498 43496 43496 43498 43502 43503 43503 43496 43498 43498 43498 43503 43503 43503 43503 43503 43501 43502 43502 0 0 43501 43501 43498 43502 43502 43502 43496 43502 43503 
+ Optimal point: 8 8 8 8 8 
+++++++++++++++++++++++++++++++++++++++++++++++++++++++++++
++++++++++++++++++++++++++++++++++++++++++++++++
 + TIMESTAMP: 2114.93
REINVADE (43501)
  + pid: 43501
  + min_cores: 1
  + max_cores: 512
  + scalability graph: 
1, 1.39494, 1.5699, 1.6742, 1.74538, 1.79792, 1.83875, 1.87167, 1.89893, 1.922, 1.94184, 1.95915, 1.97442, 1.98802, 2.00024, 2.0113, 2.02136, 2.03058, 2.03906, 2.04689, 2.05415, 2.06092, 2.06724, 2.07316, 2.07872, 2.08396, 2.0889, 2.09358, 2.09801, 2.10222, 2.10622, 2.11003, 2.11367, 2.11715, 2.12048, 2.12367, 2.12672, 2.12966, 2.13248, 2.1352, 
Number of clients: 5

+++++++++++++++++++++++++++++++++++++++++++++++++++++++++++
+ Client Mapping:
  > Client 43498 (7):	18 19 20 13 9 10 33 
  > Client 43502 (8):	34 35 36 27 14 38 1 28 
  > Client 43503 (8):	22 23 24 25 16 39 15 21 
  > Client 43496 (8):	2 3 4 12 17 37 8 11 
  > Client 43501 (8):	5 6 7 26 0 31 32 29 

+ Core Mapping:	43501 43502 43496 43496 43496 43501 43501 43501 43496 43498 43498 43496 43496 43498 43502 43503 43503 43496 43498 43498 43498 43503 43503 43503 43503 43503 43501 43502 43502 43501 0 43501 43501 43498 43502 43502 43502 43496 43502 43503 
+ Optimal point: 8 8 8 8 8 
+++++++++++++++++++++++++++++++++++++++++++++++++++++++++++
++++++++++++++++++++++++++++++++++++++++++++++++
 + TIMESTAMP: 2114.94
REINVADE (43498)
  + pid: 43498
  + min_cores: 1
  + max_cores: 512
  + scalability graph: 
1, 1.39494, 1.5699, 1.6742, 1.74538, 1.79792, 1.83875, 1.87167, 1.89893, 1.922, 1.94184, 1.95915, 1.97442, 1.98802, 2.00024, 2.0113, 2.02136, 2.03058, 2.03906, 2.04689, 2.05415, 2.06092, 2.06724, 2.07316, 2.07872, 2.08396, 2.0889, 2.09358, 2.09801, 2.10222, 2.10622, 2.11003, 2.11367, 2.11715, 2.12048, 2.12367, 2.12672, 2.12966, 2.13248, 2.1352, 
Number of clients: 5

+++++++++++++++++++++++++++++++++++++++++++++++++++++++++++
+ Client Mapping:
  > Client 43498 (8):	18 19 20 13 9 10 33 30 
  > Client 43502 (8):	34 35 36 27 14 38 1 28 
  > Client 43503 (8):	22 23 24 25 16 39 15 21 
  > Client 43496 (8):	2 3 4 12 17 37 8 11 
  > Client 43501 (8):	5 6 7 26 0 31 32 29 

+ Core Mapping:	43501 43502 43496 43496 43496 43501 43501 43501 43496 43498 43498 43496 43496 43498 43502 43503 43503 43496 43498 43498 43498 43503 43503 43503 43503 43503 43501 43502 43502 43501 43498 43501 43501 43498 43502 43502 43502 43496 43502 43503 
+ Optimal point: 8 8 8 8 8 
+++++++++++++++++++++++++++++++++++++++++++++++++++++++++++
CLIENT SHUTDOWN: client 43501
 + TIMESTAMP: 2125.06
+++++++++++++++++++++++++++++++++++++++++++++++++++++++++++
+ Client Mapping:
  > Client 43498 (8):	18 19 20 13 9 10 33 30 
  > Client 43502 (8):	34 35 36 27 14 38 1 28 
  > Client 43503 (8):	22 23 24 25 16 39 15 21 
  > Client 43496 (8):	2 3 4 12 17 37 8 11 
  > Client 43501 (0):	

+ Core Mapping:	0 43502 43496 43496 43496 0 0 0 43496 43498 43498 43496 43496 43498 43502 43503 43503 43496 43498 43498 43498 43503 43503 43503 43503 43503 0 43502 43502 0 43498 0 0 43498 43502 43502 43502 43496 43502 43503 
+ Optimal point: 8 8 8 8 8 
+++++++++++++++++++++++++++++++++++++++++++++++++++++++++++
client (43501) shutdown hint: 20954.2
sum_client_shutdown_hint: 167634
sum_client_shutdown_hint_div_time: 0
++++++++++++++++++++++++++++++++++++++++++++++++
 + TIMESTAMP: 2125.07
REINVADE (43502)
  + pid: 43502
  + min_cores: 1
  + max_cores: 512
  + scalability graph: 
1, 1.39494, 1.5699, 1.6742, 1.74538, 1.79792, 1.83875, 1.87167, 1.89893, 1.922, 1.94184, 1.95915, 1.97442, 1.98802, 2.00024, 2.0113, 2.02136, 2.03058, 2.03906, 2.04689, 2.05415, 2.06092, 2.06724, 2.07316, 2.07872, 2.08396, 2.0889, 2.09358, 2.09801, 2.10222, 2.10622, 2.11003, 2.11367, 2.11715, 2.12048, 2.12367, 2.12672, 2.12966, 2.13248, 2.1352, 
Number of clients: 4

+++++++++++++++++++++++++++++++++++++++++++++++++++++++++++
+ Client Mapping:
  > Client 43498 (8):	18 19 20 13 9 10 33 30 
  > Client 43502 (10):	34 35 36 27 14 38 1 28 0 5 
  > Client 43503 (8):	22 23 24 25 16 39 15 21 
  > Client 43496 (8):	2 3 4 12 17 37 8 11 

+ Core Mapping:	43502 43502 43496 43496 43496 43502 0 0 43496 43498 43498 43496 43496 43498 43502 43503 43503 43496 43498 43498 43498 43503 43503 43503 43503 43503 0 43502 43502 0 43498 0 0 43498 43502 43502 43502 43496 43502 43503 
+ Optimal point: 10 10 10 10 
+++++++++++++++++++++++++++++++++++++++++++++++++++++++++++
++++++++++++++++++++++++++++++++++++++++++++++++
 + TIMESTAMP: 2125.07
REINVADE (43498)
  + pid: 43498
  + min_cores: 1
  + max_cores: 512
  + scalability graph: 
1, 1.39494, 1.5699, 1.6742, 1.74538, 1.79792, 1.83875, 1.87167, 1.89893, 1.922, 1.94184, 1.95915, 1.97442, 1.98802, 2.00024, 2.0113, 2.02136, 2.03058, 2.03906, 2.04689, 2.05415, 2.06092, 2.06724, 2.07316, 2.07872, 2.08396, 2.0889, 2.09358, 2.09801, 2.10222, 2.10622, 2.11003, 2.11367, 2.11715, 2.12048, 2.12367, 2.12672, 2.12966, 2.13248, 2.1352, 
Number of clients: 4

+++++++++++++++++++++++++++++++++++++++++++++++++++++++++++
+ Client Mapping:
  > Client 43498 (10):	18 19 20 13 9 10 33 30 6 7 
  > Client 43502 (10):	34 35 36 27 14 38 1 28 0 5 
  > Client 43503 (8):	22 23 24 25 16 39 15 21 
  > Client 43496 (8):	2 3 4 12 17 37 8 11 

+ Core Mapping:	43502 43502 43496 43496 43496 43502 43498 43498 43496 43498 43498 43496 43496 43498 43502 43503 43503 43496 43498 43498 43498 43503 43503 43503 43503 43503 0 43502 43502 0 43498 0 0 43498 43502 43502 43502 43496 43502 43503 
+ Optimal point: 10 10 10 10 
+++++++++++++++++++++++++++++++++++++++++++++++++++++++++++
++++++++++++++++++++++++++++++++++++++++++++++++
 + TIMESTAMP: 2125.08
REINVADE (43503)
  + pid: 43503
  + min_cores: 1
  + max_cores: 512
  + scalability graph: 
1, 1.39494, 1.5699, 1.6742, 1.74538, 1.79792, 1.83875, 1.87167, 1.89893, 1.922, 1.94184, 1.95915, 1.97442, 1.98802, 2.00024, 2.0113, 2.02136, 2.03058, 2.03906, 2.04689, 2.05415, 2.06092, 2.06724, 2.07316, 2.07872, 2.08396, 2.0889, 2.09358, 2.09801, 2.10222, 2.10622, 2.11003, 2.11367, 2.11715, 2.12048, 2.12367, 2.12672, 2.12966, 2.13248, 2.1352, 
Number of clients: 4

+++++++++++++++++++++++++++++++++++++++++++++++++++++++++++
+ Client Mapping:
  > Client 43498 (10):	18 19 20 13 9 10 33 30 6 7 
  > Client 43502 (10):	34 35 36 27 14 38 1 28 0 5 
  > Client 43503 (10):	22 23 24 25 16 39 15 21 26 29 
  > Client 43496 (8):	2 3 4 12 17 37 8 11 

+ Core Mapping:	43502 43502 43496 43496 43496 43502 43498 43498 43496 43498 43498 43496 43496 43498 43502 43503 43503 43496 43498 43498 43498 43503 43503 43503 43503 43503 43503 43502 43502 43503 43498 0 0 43498 43502 43502 43502 43496 43502 43503 
+ Optimal point: 10 10 10 10 
+++++++++++++++++++++++++++++++++++++++++++++++++++++++++++
++++++++++++++++++++++++++++++++++++++++++++++++
 + TIMESTAMP: 2125.1
REINVADE (43496)
  + pid: 43496
  + min_cores: 1
  + max_cores: 512
  + scalability graph: 
1, 1.39494, 1.5699, 1.6742, 1.74538, 1.79792, 1.83875, 1.87167, 1.89893, 1.922, 1.94184, 1.95915, 1.97442, 1.98802, 2.00024, 2.0113, 2.02136, 2.03058, 2.03906, 2.04689, 2.05415, 2.06092, 2.06724, 2.07316, 2.07872, 2.08396, 2.0889, 2.09358, 2.09801, 2.10222, 2.10622, 2.11003, 2.11367, 2.11715, 2.12048, 2.12367, 2.12672, 2.12966, 2.13248, 2.1352, 
Number of clients: 4

+++++++++++++++++++++++++++++++++++++++++++++++++++++++++++
+ Client Mapping:
  > Client 43498 (10):	18 19 20 13 9 10 33 30 6 7 
  > Client 43502 (10):	34 35 36 27 14 38 1 28 0 5 
  > Client 43503 (10):	22 23 24 25 16 39 15 21 26 29 
  > Client 43496 (10):	2 3 4 12 17 37 8 11 31 32 

+ Core Mapping:	43502 43502 43496 43496 43496 43502 43498 43498 43496 43498 43498 43496 43496 43498 43502 43503 43503 43496 43498 43498 43498 43503 43503 43503 43503 43503 43503 43502 43502 43503 43498 43496 43496 43498 43502 43502 43502 43496 43502 43503 
+ Optimal point: 10 10 10 10 
+++++++++++++++++++++++++++++++++++++++++++++++++++++++++++
CLIENT SHUTDOWN: client 43502
 + TIMESTAMP: 2132.61
+++++++++++++++++++++++++++++++++++++++++++++++++++++++++++
+ Client Mapping:
  > Client 43498 (10):	18 19 20 13 9 10 33 30 6 7 
  > Client 43502 (0):	
  > Client 43503 (10):	22 23 24 25 16 39 15 21 26 29 
  > Client 43496 (10):	2 3 4 12 17 37 8 11 31 32 

+ Core Mapping:	0 0 43496 43496 43496 0 43498 43498 43496 43498 43498 43496 43496 43498 0 43503 43503 43496 43498 43498 43498 43503 43503 43503 43503 43503 43503 0 0 43503 43498 43496 43496 43498 0 0 0 43496 0 43503 
+ Optimal point: 10 10 10 10 
+++++++++++++++++++++++++++++++++++++++++++++++++++++++++++
client (43502) shutdown hint: 20954.2
sum_client_shutdown_hint: 188588
sum_client_shutdown_hint_div_time: 0
++++++++++++++++++++++++++++++++++++++++++++++++
 + TIMESTAMP: 2132.62
REINVADE (43503)
  + pid: 43503
  + min_cores: 1
  + max_cores: 512
  + scalability graph: 
1, 1.39494, 1.5699, 1.6742, 1.74538, 1.79792, 1.83875, 1.87167, 1.89893, 1.922, 1.94184, 1.95915, 1.97442, 1.98802, 2.00024, 2.0113, 2.02136, 2.03058, 2.03906, 2.04689, 2.05415, 2.06092, 2.06724, 2.07316, 2.07872, 2.08396, 2.0889, 2.09358, 2.09801, 2.10222, 2.10622, 2.11003, 2.11367, 2.11715, 2.12048, 2.12367, 2.12672, 2.12966, 2.13248, 2.1352, 
Number of clients: 3

+++++++++++++++++++++++++++++++++++++++++++++++++++++++++++
+ Client Mapping:
  > Client 43498 (10):	18 19 20 13 9 10 33 30 6 7 
  > Client 43503 (13):	22 23 24 25 16 39 15 21 26 29 0 1 5 
  > Client 43496 (10):	2 3 4 12 17 37 8 11 31 32 

+ Core Mapping:	43503 43503 43496 43496 43496 43503 43498 43498 43496 43498 43498 43496 43496 43498 0 43503 43503 43496 43498 43498 43498 43503 43503 43503 43503 43503 43503 0 0 43503 43498 43496 43496 43498 0 0 0 43496 0 43503 
+ Optimal point: 14 13 13 
+++++++++++++++++++++++++++++++++++++++++++++++++++++++++++
++++++++++++++++++++++++++++++++++++++++++++++++
 + TIMESTAMP: 2132.62
REINVADE (43498)
  + pid: 43498
  + min_cores: 1
  + max_cores: 512
  + scalability graph: 
1, 1.39494, 1.5699, 1.6742, 1.74538, 1.79792, 1.83875, 1.87167, 1.89893, 1.922, 1.94184, 1.95915, 1.97442, 1.98802, 2.00024, 2.0113, 2.02136, 2.03058, 2.03906, 2.04689, 2.05415, 2.06092, 2.06724, 2.07316, 2.07872, 2.08396, 2.0889, 2.09358, 2.09801, 2.10222, 2.10622, 2.11003, 2.11367, 2.11715, 2.12048, 2.12367, 2.12672, 2.12966, 2.13248, 2.1352, 
Number of clients: 3

+++++++++++++++++++++++++++++++++++++++++++++++++++++++++++
+ Client Mapping:
  > Client 43498 (14):	18 19 20 13 9 10 33 30 6 7 14 27 28 34 
  > Client 43503 (13):	22 23 24 25 16 39 15 21 26 29 0 1 5 
  > Client 43496 (10):	2 3 4 12 17 37 8 11 31 32 

+ Core Mapping:	43503 43503 43496 43496 43496 43503 43498 43498 43496 43498 43498 43496 43496 43498 43498 43503 43503 43496 43498 43498 43498 43503 43503 43503 43503 43503 43503 43498 43498 43503 43498 43496 43496 43498 43498 0 0 43496 0 43503 
+ Optimal point: 14 13 13 
+++++++++++++++++++++++++++++++++++++++++++++++++++++++++++
++++++++++++++++++++++++++++++++++++++++++++++++
 + TIMESTAMP: 2132.64
REINVADE (43496)
  + pid: 43496
  + min_cores: 1
  + max_cores: 512
  + scalability graph: 
1, 1.39494, 1.5699, 1.6742, 1.74538, 1.79792, 1.83875, 1.87167, 1.89893, 1.922, 1.94184, 1.95915, 1.97442, 1.98802, 2.00024, 2.0113, 2.02136, 2.03058, 2.03906, 2.04689, 2.05415, 2.06092, 2.06724, 2.07316, 2.07872, 2.08396, 2.0889, 2.09358, 2.09801, 2.10222, 2.10622, 2.11003, 2.11367, 2.11715, 2.12048, 2.12367, 2.12672, 2.12966, 2.13248, 2.1352, 
Number of clients: 3

+++++++++++++++++++++++++++++++++++++++++++++++++++++++++++
+ Client Mapping:
  > Client 43498 (14):	18 19 20 13 9 10 33 30 6 7 14 27 28 34 
  > Client 43503 (13):	22 23 24 25 16 39 15 21 26 29 0 1 5 
  > Client 43496 (13):	2 3 4 12 17 37 8 11 31 32 35 36 38 

+ Core Mapping:	43503 43503 43496 43496 43496 43503 43498 43498 43496 43498 43498 43496 43496 43498 43498 43503 43503 43496 43498 43498 43498 43503 43503 43503 43503 43503 43503 43498 43498 43503 43498 43496 43496 43498 43498 43496 43496 43496 43496 43503 
+ Optimal point: 14 13 13 
+++++++++++++++++++++++++++++++++++++++++++++++++++++++++++
CLIENT SHUTDOWN: client 43503
 + TIMESTAMP: 2143.42
+++++++++++++++++++++++++++++++++++++++++++++++++++++++++++
+ Client Mapping:
  > Client 43498 (14):	18 19 20 13 9 10 33 30 6 7 14 27 28 34 
  > Client 43503 (0):	
  > Client 43496 (13):	2 3 4 12 17 37 8 11 31 32 35 36 38 

+ Core Mapping:	0 0 43496 43496 43496 0 43498 43498 43496 43498 43498 43496 43496 43498 43498 0 0 43496 43498 43498 43498 0 0 0 0 0 0 43498 43498 0 43498 43496 43496 43498 43498 43496 43496 43496 43496 0 
+ Optimal point: 14 13 13 
+++++++++++++++++++++++++++++++++++++++++++++++++++++++++++
client (43503) shutdown hint: 20954.2
sum_client_shutdown_hint: 209542
sum_client_shutdown_hint_div_time: 0
++++++++++++++++++++++++++++++++++++++++++++++++
 + TIMESTAMP: 2143.42
REINVADE (43496)
  + pid: 43496
  + min_cores: 1
  + max_cores: 512
  + scalability graph: 
1, 1.39494, 1.5699, 1.6742, 1.74538, 1.79792, 1.83875, 1.87167, 1.89893, 1.922, 1.94184, 1.95915, 1.97442, 1.98802, 2.00024, 2.0113, 2.02136, 2.03058, 2.03906, 2.04689, 2.05415, 2.06092, 2.06724, 2.07316, 2.07872, 2.08396, 2.0889, 2.09358, 2.09801, 2.10222, 2.10622, 2.11003, 2.11367, 2.11715, 2.12048, 2.12367, 2.12672, 2.12966, 2.13248, 2.1352, 
Number of clients: 2

+++++++++++++++++++++++++++++++++++++++++++++++++++++++++++
+ Client Mapping:
  > Client 43498 (14):	18 19 20 13 9 10 33 30 6 7 14 27 28 34 
  > Client 43496 (20):	2 3 4 12 17 37 8 11 31 32 35 36 38 0 1 5 15 16 21 22 

+ Core Mapping:	43496 43496 43496 43496 43496 43496 43498 43498 43496 43498 43498 43496 43496 43498 43498 43496 43496 43496 43498 43498 43498 43496 43496 0 0 0 0 43498 43498 0 43498 43496 43496 43498 43498 43496 43496 43496 43496 0 
+ Optimal point: 20 20 
+++++++++++++++++++++++++++++++++++++++++++++++++++++++++++
++++++++++++++++++++++++++++++++++++++++++++++++
 + TIMESTAMP: 2143.43
REINVADE (43498)
  + pid: 43498
  + min_cores: 1
  + max_cores: 512
  + scalability graph: 
1, 1.39494, 1.5699, 1.6742, 1.74538, 1.79792, 1.83875, 1.87167, 1.89893, 1.922, 1.94184, 1.95915, 1.97442, 1.98802, 2.00024, 2.0113, 2.02136, 2.03058, 2.03906, 2.04689, 2.05415, 2.06092, 2.06724, 2.07316, 2.07872, 2.08396, 2.0889, 2.09358, 2.09801, 2.10222, 2.10622, 2.11003, 2.11367, 2.11715, 2.12048, 2.12367, 2.12672, 2.12966, 2.13248, 2.1352, 
Number of clients: 2

+++++++++++++++++++++++++++++++++++++++++++++++++++++++++++
+ Client Mapping:
  > Client 43498 (20):	18 19 20 13 9 10 33 30 6 7 14 27 28 34 23 24 25 26 29 39 
  > Client 43496 (20):	2 3 4 12 17 37 8 11 31 32 35 36 38 0 1 5 15 16 21 22 

+ Core Mapping:	43496 43496 43496 43496 43496 43496 43498 43498 43496 43498 43498 43496 43496 43498 43498 43496 43496 43496 43498 43498 43498 43496 43496 43498 43498 43498 43498 43498 43498 43498 43498 43496 43496 43498 43498 43496 43496 43496 43496 43498 
+ Optimal point: 20 20 
+++++++++++++++++++++++++++++++++++++++++++++++++++++++++++
CLIENT SHUTDOWN: client 43498
 + TIMESTAMP: 2145.58
+++++++++++++++++++++++++++++++++++++++++++++++++++++++++++
+ Client Mapping:
  > Client 43498 (0):	
  > Client 43496 (20):	2 3 4 12 17 37 8 11 31 32 35 36 38 0 1 5 15 16 21 22 

+ Core Mapping:	43496 43496 43496 43496 43496 43496 0 0 43496 0 0 43496 43496 0 0 43496 43496 43496 0 0 0 43496 43496 0 0 0 0 0 0 0 0 43496 43496 0 0 43496 43496 43496 43496 0 
+ Optimal point: 20 20 
+++++++++++++++++++++++++++++++++++++++++++++++++++++++++++
client (43498) shutdown hint: 20954.2
sum_client_shutdown_hint: 230496
sum_client_shutdown_hint_div_time: 0
++++++++++++++++++++++++++++++++++++++++++++++++
 + TIMESTAMP: 2145.59
REINVADE (43496)
  + pid: 43496
  + min_cores: 1
  + max_cores: 512
  + scalability graph: 
1, 1.39494, 1.5699, 1.6742, 1.74538, 1.79792, 1.83875, 1.87167, 1.89893, 1.922, 1.94184, 1.95915, 1.97442, 1.98802, 2.00024, 2.0113, 2.02136, 2.03058, 2.03906, 2.04689, 2.05415, 2.06092, 2.06724, 2.07316, 2.07872, 2.08396, 2.0889, 2.09358, 2.09801, 2.10222, 2.10622, 2.11003, 2.11367, 2.11715, 2.12048, 2.12367, 2.12672, 2.12966, 2.13248, 2.1352, 
Number of clients: 1

+++++++++++++++++++++++++++++++++++++++++++++++++++++++++++
+ Client Mapping:
  > Client 43496 (40):	2 3 4 12 17 37 8 11 31 32 35 36 38 0 1 5 15 16 21 22 6 7 9 10 13 14 18 19 20 23 24 25 26 27 28 29 30 33 34 39 

+ Core Mapping:	43496 43496 43496 43496 43496 43496 43496 43496 43496 43496 43496 43496 43496 43496 43496 43496 43496 43496 43496 43496 43496 43496 43496 43496 43496 43496 43496 43496 43496 43496 43496 43496 43496 43496 43496 43496 43496 43496 43496 43496 
+ Optimal point: 40 
+++++++++++++++++++++++++++++++++++++++++++++++++++++++++++
CLIENT SHUTDOWN: client 43496
 + TIMESTAMP: 2164.48
+++++++++++++++++++++++++++++++++++++++++++++++++++++++++++
+ Client Mapping:
  > Client 43496 (0):	

+ Core Mapping:	0 0 0 0 0 0 0 0 0 0 0 0 0 0 0 0 0 0 0 0 0 0 0 0 0 0 0 0 0 0 0 0 0 0 0 0 0 0 0 0 
+ Optimal point: 40 
+++++++++++++++++++++++++++++++++++++++++++++++++++++++++++
client (43496) shutdown hint: 20954.2
sum_client_shutdown_hint: 251451
sum_client_shutdown_hint_div_time: 0
END TIMESTAMP: 2164.48
OVERALL TIME: 2164.11
 + sum_client_shutdown_hint: 251451
 + sum_client_shutdown_hint/time: 116.191
sum_client_shutdown_hint: 251451
sum_client_shutdown_hint_div_time: 116.191
