0	0
18.4389	0
36.8773	0
55.3155	0
73.7536	0
92.1916	0
110.629	0
129.067	0
147.505	0
165.943	0
183.94	-9.09495e-13
201.937	-2.72848e-12
219.934	-5.45697e-12
237.931	-1.00044e-11
255.928	-1.63709e-11
273.924	-2.45564e-11
291.921	-3.54703e-11
309.917	-4.82032e-11
327.913	-6.27551e-11
345.909	-7.54881e-11
363.905	-8.18545e-11
381.901	-7.54881e-11
399.055	-4.54747e-11
416.209	2.09184e-11
434.205	1.49157e-10
452.2	3.64707e-10
470.195	7.03039e-10
488.191	1.20781e-09
505.345	1.89902e-09
522.434	2.84672e-09
539.523	4.12001e-09
556.612	5.79985e-09
573.701	7.97991e-09
590.79	1.07739e-08
607.879	1.43127e-08
624.967	1.8752e-08
642.075	2.42808e-08
659.183	3.11102e-08
676.291	3.94157e-08
693.399	4.93537e-08
710.507	6.10808e-08
727.615	7.47614e-08
744.625	9.04938e-08
761.636	1.08556e-07
778.647	1.29101e-07
795.658	1.52244e-07
812.668	1.78083e-07
829.679	2.06714e-07
846.69	2.38241e-07
863.797	2.72988e-07
880.904	3.10952e-07
898.011	3.5233e-07
915.119	3.97376e-07
932.226	4.464e-07
949.264	4.99576e-07
966.371	5.57785e-07
983.478	6.21403e-07
1000.59	6.9112e-07
1017.69	7.67763e-07
1034.8	8.52311e-07
1051.91	9.45915e-07
1069.01	1.04991e-06
1086.12	1.1658e-06
1103.23	1.2953e-06
1120.33	1.44033e-06
1137.44	1.60299e-06
1154.55	1.78567e-06
1171.65	1.99096e-06
1188.76	2.22174e-06
1205.86	2.48117e-06
1222.97	2.77272e-06
1240.08	3.1002e-06
1257.18	3.46778e-06
1274.29	3.88005e-06
1291.34	4.34054e-06
1308.39	4.85589e-06
1325.44	5.43209e-06
1342.49	6.07956e-06
1359.54	6.809e-06
1376.59	7.62755e-06
1393.64	8.54004e-06
1410.7	9.55062e-06
1427.75	1.06633e-05
1444.8	1.18823e-05
1461.85	1.32122e-05
1478.9	1.46587e-05
1495.95	1.6228e-05
1513	1.79276e-05
1530.05	1.97664e-05
1547.1	2.17547e-05
1564.15	2.39045e-05
1581.2	2.62297e-05
1598.25	2.87462e-05
1615.3	3.1472e-05
1632.35	3.44275e-05
1649.4	3.76352e-05
1666.45	4.11203e-05
1683.5	4.49105e-05
1700.55	4.90351e-05
1717.6	5.3517e-05
1734.65	5.83748e-05
1751.35	6.35196e-05
1768.06	6.9058e-05
1784.76	7.50063e-05
1801.47	8.13824e-05
1818.17	8.82061e-05
1834.88	9.54998e-05
1851.58	0.000103289
1868.29	0.000111602
1884.99	0.000120473
1901.7	0.000129939
1918.4	0.000140042
1935.11	0.000150829
1951.81	0.000162353
1968.52	0.000174669
1985.22	0.00018784
2001.93	0.00020193
2018.63	0.000198286
2035.34	0.000196143
2052.04	0.000195316
2068.75	0.000195666
2085.45	0.000197087
2102.16	0.000199495
2118.86	0.000202824
2135.57	0.000207027
2152.27	0.000212075
2168.97	0.000217952
2185.68	0.000224657
2202.38	0.000232203
2219.09	0.00024061
2235.79	0.000249914
2252.5	0.000260158
2269.2	0.000271396
2285.9	0.00028369
2302.61	0.000297111
2319.31	0.000311733
2336.01	0.000327644
2352.71	0.000344935
2369.41	0.000363702
2386.11	0.000384114
2402.81	0.000405931
2419.5	0.000429008
2436.2	0.000453273
2452.91	0.000478707
2469.61	0.000505319
2486.32	0.000533157
2503.02	0.000562296
2519.72	0.000592839
2536.43	0.00062491
2553.13	0.000658659
2569.84	0.000694259
2586.54	0.000731912
2603.24	0.000771848
2619.95	0.000814315
2636.65	0.000859562
2653.36	0.00090783
2670.06	0.000959358
2686.76	0.00101438
2703.47	0.00107314
2720.17	0.00113591
2736.88	0.00128123
2753.58	0.00142735
2770.28	0.00157163
2786.99	0.00171347
2803.69	0.00185329
2820.4	0.00199225
2837.1	0.00213193
2853.8	0.00227419
2870.51	0.00242104
2887.21	0.00257453
2903.92	0.00273681
2920.62	0.0029101
2937.33	0.00309673
2954.03	0.00329257
2970.74	0.00349646
2987.44	0.00370853
3004.15	0.00392985
3020.85	0.00416236
3037.56	0.00440896
3054.26	0.00467351
3070.96	0.00496077
3087.67	0.00565238
3104.37	0.00631603
3121.08	0.0069249
3137.78	0.00749992
3154.49	0.0080736
3171.2	0.00868307
3187.9	0.00936172
3204.61	0.0101363
3221.31	0.0110281
3238.02	0.0119651
3254.72	0.0129683
3271.47	0.0152435
3288.22	0.0174576
3304.98	0.0197906
3321.73	0.0223514
3338.48	0.0251065
3355.23	0.028036
3371.98	0.0311239
3388.73	0.0345512
3405.48	0.0382826
3422.23	0.0422198
3438.98	0.0463095
3455.73	0.0505092
3472.49	0.0548101
3489.24	0.0592348
3505.99	0.0637662
3522.74	0.068442
3539.49	0.0733159
3556.24	0.0784311
3572.99	0.0838107
3589.74	0.0894625
3606.49	0.0953867
3623.24	0.101582
3639.99	0.10805
3656.75	0.1148
3673.5	0.121838
3690.25	0.12917
3707	0.136791
3723.75	0.144689
3740.5	0.152846
3757.25	0.161243
3774	0.169861
3790.76	0.178683
3807.51	0.187698
3824.26	0.196898
3841.01	0.206276
3857.76	0.215823
3874.51	0.225529
3891.26	0.235378
3908.02	0.245352
3924.77	0.255428
3941.52	0.265577
3958.27	0.275766
3975.02	0.28596
3991.77	0.296114
4008.53	0.306182
4025.28	0.316109
4042.03	0.325839
4058.78	0.335306
4075.53	0.344446
4092.28	0.353188
4109.04	0.361459
4125.79	0.369189
4142.54	0.376302
4159.29	0.382727
4176.04	0.388392
4192.8	0.393227
4209.55	0.397166
4226.3	0.400145
4243.23	0.402123
4260.16	0.403001
4277.09	0.402724
4294.02	0.401243
4310.95	0.398513
4327.88	0.394496
4344.81	0.389157
4361.74	0.38247
4378.67	0.374412
4395.6	0.364971
4412.53	0.354141
4429.46	0.341927
4446.39	0.328339
4463.32	0.313397
4480.24	0.297128
4497.17	0.279579
4514.1	0.260816
4531.03	0.240847
4547.96	0.219729
4564.89	0.197542
4581.82	0.174433
4598.75	0.15066
4615.68	0.126476
4632.61	0.101964
4649.54	0.073514
4666.47	0.0458151
4683.4	0.0204302
4700.33	0.000148772
4717.26	-0.0212371
4734.19	-0.0480598
4751.12	-0.0683272
4768.05	-0.0854413
4784.98	-0.100066
4801.91	-0.110067
4818.84	-0.118404
4835.77	-0.127103
4852.7	-0.135968
4869.63	-0.144855
4886.56	-0.153496
4903.5	-0.144848
4921.39	-0.151378
4939.28	-0.158603
4957.08	-0.164035
4974.88	-0.170797
4992.68	-0.176265
5010.48	-0.180869
5028.29	-0.184827
5045.42	-0.188089
5062.51	-0.19097
5079.6	-0.19355
5096.69	-0.195904
5113.78	-0.19793
5130.87	-0.20006
5147.88	-0.201968
5164.89	-0.203674
5181.9	-0.205195
5198.91	-0.206552
5215.92	-0.207756
5232.93	-0.208809
5250.02	-0.209715
5267.13	-0.210469
5284.24	-0.211074
5301.34	-0.205582
5318.45	-0.204928
5335.56	-0.205748
5352.67	-0.20614
5369.78	-0.20638
5386.88	-0.206441
5403.92	-0.206344
5421.03	-0.206104
5438.14	-0.205738
5455.25	-0.205259
5472.35	-0.204681
5489.46	-0.204016
5506.57	-0.203273
5523.68	-0.202493
5540.79	-0.201682
5557.89	-0.200843
5575	-0.199979
5592.11	-0.19909
5609.22	-0.198175
5626.33	-0.197235
5643.43	-0.196267
5660.54	-0.19527
5677.65	-0.194242
5694.76	-0.193212
5711.87	-0.192166
5728.97	-0.191095
5746.08	-0.189991
5763.19	-0.188811
5780.3	-0.187576
5797.41	-0.186288
5814.51	-0.184947
5831.62	-0.183554
5848.73	-0.182109
5865.84	-0.180614
5882.94	-0.179067
5900.05	-0.17747
5917.1	-0.175829
5934.15	-0.174137
5951.21	-0.172393
5968.26	-0.170612
5985.31	-0.168805
6002.36	-0.16698
6019.41	-0.165142
6036.46	-0.163295
6053.51	-0.16144
6070.56	-0.165155
6087.61	-0.164084
6104.66	-0.162972
6121.71	-0.161822
6138.76	-0.160341
6155.81	-0.158852
6172.86	-0.15735
6189.92	-0.155831
6206.97	-0.154292
6223.67	-0.152762
6240.38	-0.151207
6257.08	-0.149626
6273.79	-0.148016
6290.49	-0.146376
6307.2	-0.144705
6323.9	-0.141644
6340.61	-0.138564
6357.31	-0.135514
6374.02	-0.132516
6390.72	-0.129577
6407.43	-0.126693
6424.13	-0.123854
6440.84	-0.121045
6457.54	-0.118252
6474.25	-0.115462
6490.95	-0.112662
6507.66	-0.109838
6524.36	-0.106981
6541.07	-0.104082
6557.77	-0.101132
6574.48	-0.0981473
6591.19	-0.0951576
6607.89	-0.0921737
6624.6	-0.0891969
6641.3	-0.0862214
6658.01	-0.0832355
6674.71	-0.080224
6691.42	-0.0771693
6708.12	-0.0740547
6724.83	-0.0708667
6741.53	-0.0642206
6758.24	-0.0582495
6774.94	-0.0529213
6791.65	-0.0480617
6808.35	-0.0434926
6825.06	-0.0390313
6841.76	-0.0345258
6858.47	-0.029874
6875.17	-0.0250262
6891.88	-0.0199731
6908.58	-0.014847
6925.29	-0.00977857
6941.99	-0.00472948
6958.7	0.00392568
6975.4	0.0116055
6992.11	0.0193369
7008.81	0.0270718
7025.52	0.0346555
7042.22	0.0418309
7058.93	0.0483978
7075.63	0.0549129
7092.34	0.0611848
7109.04	0.0667983
7125.75	0.0714803
7142.46	0.0751836
7159.16	0.0780238
7175.87	0.0801922
7192.57	0.0817638
7209.28	0.0828681
7225.98	0.0836603
7242.69	0.0842612
7259.39	0.0847376
7276.1	0.0851143
7292.8	0.0853936
7309.51	0.0855712
7326.21	0.085642
7342.92	0.0856009
7359.62	0.0854591
7376.33	0.0852385
7393.03	0.0849526
7409.74	0.0845933
7426.44	0.0841307
7443.15	0.0835236
7459.85	0.0827306
7476.56	0.0817204
7493.26	0.0804788
7509.97	0.0790122
7526.67	0.0773451
7543.38	0.0755152
7560.08	0.0735668
7576.79	0.0715444
7593.49	0.0694885
7610.19	0.0674338
7626.89	0.0654055
7643.59	0.0634217
7660.29	0.0614933
7676.99	0.059625
7693.69	0.0578162
7710.39	0.0560617
7727.09	0.0543519
7743.79	0.0526735
7760.49	0.0510087
7777.2	0.0493384
7793.9	0.0476413
7810.61	0.0458962
7827.31	0.044083
7844.02	0.0421847
7860.72	0.0401879
7877.43	0.0380848
7894.13	0.035863
7910.84	0.0335151
7927.54	0.0310441
7944.25	0.0284452
7960.95	0.0257351
7977.66	0.0228941
7994.36	0.0199403
8011.07	0.0164321
8027.77	0.0132168
8044.48	0.0103567
8061.18	0.00852965
8077.89	0.00602701
8094.59	0.00267667
8111.3	0.000270329
8128	-0.00176045
8144.71	-0.00350418
8161.42	-0.00505073
8178.12	-0.00593337
8194.83	-0.00693449
8211.53	-0.00801808
8228.24	-0.00916735
8244.94	-0.010348
8261.65	-0.00967914
8278.35	-0.0113872
8295.06	-0.0124456
8311.76	-0.0134923
8328.47	-0.0143199
8345.17	-0.0150279
8361.88	-0.0156823
8378.58	-0.0163004
8395.29	-0.016887
8411.99	-0.0174565
8428.7	-0.018027
8445.4	-0.018615
8462.11	-0.0192759
8478.81	-0.0199946
8495.52	-0.0209188
8512.22	-0.0217882
8528.93	-0.0226238
8545.63	-0.0234392
8562.34	-0.0242413
8579.04	-0.025033
8595.75	-0.0257959
8612.45	-0.0253689
8629.16	-0.0257706
8645.86	-0.0264912
8662.57	-0.0271526
8679.27	-0.0277711
8695.98	-0.028348
8712.68	-0.0288634
8729.39	-0.0293258
8746.09	-0.0297422
8762.8	-0.0301192
8779.5	-0.0304624
8796.21	-0.0307763
8812.91	-0.0310644
8829.62	-0.0313292
8846.32	-0.0315706
8863.03	-0.0317897
8879.73	-0.0319875
8896.44	-0.0321646
8913.14	-0.0323221
8929.85	-0.0324683
8946.56	-0.0325946
8963.26	-0.0327021
8979.97	-0.032792
8996.67	-0.0328636
9013.38	-0.0329182
9030.08	-0.0329573
9046.79	-0.0330752
9063.49	-0.0331645
9080.2	-0.033228
9096.9	-0.0332683
9113.61	-0.0332872
9130.31	-0.0332865
9147.02	-0.0332674
9163.72	-0.0332311
9180.43	-0.0331782
9197.13	-0.0331094
9213.84	-0.0330251
9230.54	-0.0329255
9247.25	-0.032811
9263.95	-0.0326815
9280.66	-0.0325373
9297.36	-0.0311549
9314.07	-0.0310481
9330.77	-0.0309322
9347.48	-0.0308062
9364.18	-0.030669
9380.89	-0.0305199
9397.59	-0.0303583
9414.3	-0.0301834
9431	-0.0299948
9447.71	-0.029792
9464.42	-0.0295745
9481.12	-0.0293421
9497.83	-0.0290945
9514.53	-0.0288316
9531.24	-0.0285532
9547.94	-0.0282565
9564.65	-0.0279423
9581.35	-0.0276113
9598.1	-0.0272632
9614.86	-0.0268996
9631.61	-0.0265212
9648.36	-0.0261285
9665.11	-0.0257223
9681.86	-0.0253032
9698.62	-0.0248716
9715.37	-0.0244283
9732.12	-0.0239739
9748.87	-0.0235181
9765.62	-0.0230599
9782.37	-0.022599
9799.13	-0.0221349
9815.88	-0.0216675
9832.63	-0.0211964
9849.38	-0.0207213
9866.13	-0.0202508
9882.89	-0.019783
9899.64	-0.0193162
9916.39	-0.0188489
9933.14	-0.0183798
9949.89	-0.0179077
9966.65	-0.0174316
9983.4	-0.0169505
10000.1	-0.0164668
10016.9	-0.0159794
10033.7	-0.0154871
10050.4	-0.0149892
10067.2	-0.014485
10083.9	-0.0139739
10100.7	-0.0134556
10117.4	-0.0129299
10134.2	-0.0123969
10150.9	-0.0118568
10167.7	-0.0113095
10184.4	-0.0105918
10201.2	-0.00988443
10217.9	-0.00880077
10234.7	-0.00781669
10251.4	-0.00691343
10268.2	-0.00607564
10284.9	-0.00529082
10301.7	-0.00454879
10318.4	-0.00384125
10335.2	-0.00316146
10351.9	-0.00250405
10368.7	-0.00186484
10385.4	-0.00124049
10402.2	-0.000627922
10418.9	-2.43635e-05
10435.7	0.000572609
10452.5	0.00116503
10469.2	0.00175449
10486	0.00234217
10502.7	0.0029289
10519.5	0.00351589
10536.2	0.00408235
10553	0.00460603
10569.7	0.00510101
10586.5	0.00557791
10603.2	0.00604502
10620	0.00650899
10637.3	0.00699025
10654.6	0.00747802
10671.9	0.00797485
10689.2	0.00848234
10706.5	0.00899965
10723.7	0.0095255
10741	0.0102048
10758.3	0.0109792
10775.6	0.011798
10792.9	0.0126557
10810.2	0.0135318
10827.5	0.0144078
10844.8	0.0152721
10862.1	0.0161212
10879.9	0.016981
10897.7	0.0190215
10915.5	0.0212513
10933.3	0.023168
10951.1	0.0246276
10968.9	0.0256603
10986.7	0.0263746
11004.5	0.0268826
11022.3	0.0272666
11040.1	0.0275803
11057.9	0.0278596
11075.7	0.0280768
11093.5	0.0282402
11111.3	0.0283739
11129.1	0.0285081
11146.9	0.028655
11164.7	0.0288162
11182.5	0.0289828
11200.3	0.0291417
11218.1	0.0292793
11235.9	0.0293826
11253.7	0.0294434
11271.5	0.0294596
11289.3	0.0294346
11307.1	0.0293751
11324.9	0.0292892
11342.7	0.0291836
11360.5	0.0290623
11378.3	0.028926
11396.1	0.0287724
11413.9	0.0285961
11431.7	0.0283901
11449.5	0.0281461
11467.3	0.0278555
11485.1	0.0275107
11502.9	0.0271055
11520.7	0.0266362
11538.5	0.0261024
11556.3	0.0255067
11574.1	0.0248541
11591.9	0.0241519
11609.7	0.0234082
11627.5	0.0226314
11645.3	0.0218296
11663.1	0.0210103
11680.9	0.0201796
11698.7	0.0193424
11716.5	0.0185023
11734.3	0.0176617
11752.1	0.0168226
11769.9	0.0159855
11787.7	0.0151512
11805.5	0.0143163
11823.3	0.0134808
11841.1	0.0126365
11858.9	0.0116257
11876.7	0.0106855
11894.6	0.00980575
11912.4	0.00891697
11930.2	0.00867144
11948	0.00788416
11965.8	0.00704843
11983.6	0.00659
