0	0
12.0067	0
20.0111	0
32.0176	0
40.0219	0
52.0283	0
60.0325	0
72.0387	0
80.0429	0
92.049	0
100.053	0
112.059	0
120.037	0
132.012	0
143.878	0
151.725	0
163.497	0
171.344	0
183.115	0
190.962	0
202.734	0
210.581	0
222.352	0
230.178	0
241.918	0
253.657	0
261.484	0
273.223	9.09495e-13
281.05	2.72848e-12
292.789	6.36646e-12
300.615	1.00044e-11
312.355	1.90994e-11
320.181	2.72848e-11
331.92	4.45652e-11
343.66	6.91216e-11
351.486	9.004e-11
363.159	1.29148e-10
370.919	1.6189e-10
382.56	2.21917e-10
390.32	2.71029e-10
401.978	3.58341e-10
413.636	4.65661e-10
421.375	5.50244e-10
432.773	6.96673e-10
440.343	8.0945e-10
451.698	1.0059e-09
463.053	1.23873e-09
470.623	1.41608e-09
481.978	1.72167e-09
493.213	2.07274e-09
500.683	2.3374e-09
511.888	2.78487e-09
523.076	3.30147e-09
530.529	3.68709e-09
541.708	4.33647e-09
552.861	5.07771e-09
560.296	5.62886e-09
571.449	6.55109e-09
582.602	7.59974e-09
590.037	8.37645e-09
601.19	9.67066e-09
612.343	1.1134e-08
623.495	1.27775e-08
630.93	1.39789e-08
642.083	1.59444e-08
653.236	1.81108e-08
660.671	1.96706e-08
671.823	2.21862e-08
682.976	2.49202e-08
690.411	2.68674e-08
701.538	2.99706e-08
712.664	3.33002e-08
720.082	3.5644e-08
731.209	3.93411e-08
742.335	4.32456e-08
753.462	4.73465e-08
760.88	5.01841e-08
772.006	5.45842e-08
783.133	5.91453e-08
790.551	6.22676e-08
801.677	6.70643e-08
812.803	7.19838e-08
820.221	7.53262e-08
831.347	8.04257e-08
842.474	8.5618e-08
853.6	9.08976e-08
861.018	9.44628e-08
872.144	9.98771e-08
883.27	1.0537e-07
890.688	1.09078e-07
901.814	1.14715e-07
912.94	1.20453e-07
920.358	1.24341e-07
931.484	1.30282e-07
942.61	1.36381e-07
950.028	1.4055e-07
961.154	1.46988e-07
972.28	1.53688e-07
983.406	1.60706e-07
990.823	1.65593e-07
1001.95	1.73288e-07
1013.08	1.81496e-07
1020.49	1.87299e-07
1031.62	1.96572e-07
1042.74	2.06627e-07
1050.16	2.13825e-07
1061.29	2.25462e-07
1072.41	2.38234e-07
1083.54	2.523e-07
1090.96	2.62482e-07
1102.08	2.79098e-07
1113.21	2.97504e-07
1120.63	3.10876e-07
1131.75	3.3276e-07
1142.88	3.57051e-07
1150.3	3.74715e-07
1161.42	4.03623e-07
1172.55	4.35692e-07
1183.67	4.71241e-07
1191.09	4.97042e-07
1202.22	5.39163e-07
1213.34	5.85727e-07
1220.76	6.19438e-07
1231.88	6.74318e-07
1243.01	7.34779e-07
1250.43	7.7842e-07
1261.55	8.49252e-07
1272.68	9.26996e-07
1280.1	9.82939e-07
1291.18	1.07313e-06
1302.25	1.17155e-06
1313.32	1.27898e-06
1320.69	1.35594e-06
1331.76	1.47991e-06
1342.83	1.61541e-06
1350.21	1.71271e-06
1361.27	1.86958e-06
1372.34	2.03996e-06
1383.41	2.22419e-06
1390.78	2.35485e-06
1401.85	2.56276e-06
1412.89	2.78459e-06
1420.25	2.94063e-06
1431.24	3.18611e-06
1442.28	3.4477e-06
1453.32	3.72482e-06
1460.65	3.91782e-06
1471.69	4.22176e-06
1482.73	4.54253e-06
1490.08	4.76605e-06
1501.12	5.11639e-06
1512.16	5.48553e-06
1523.2	5.87442e-06
1530.56	6.14517e-06
1541.59	6.56941e-06
1552.5	7.01113e-06
1563.35	7.47418e-06
1570.59	7.79662e-06
1581.44	8.30207e-06
1592.29	8.83517e-06
1603.14	9.39774e-06
1610.38	9.79011e-06
1621.23	1.04062e-05
1632.08	1.10572e-05
1642.94	1.17455e-05
1650.17	1.22263e-05
1661.02	1.29822e-05
1671.87	1.37822e-05
1682.73	1.4629e-05
1693.58	1.55258e-05
1700.81	1.61528e-05
1711.67	1.71393e-05
1722.52	1.81832e-05
1733.37	1.92867e-05
1740.6	2.00564e-05
1751.46	2.12634e-05
1762.31	2.2535e-05
1773.16	2.38726e-05
1780.4	2.48019e-05
1791.25	2.62534e-05
1802.1	2.77754e-05
1812.95	2.93697e-05
1820.19	3.04737e-05
1831.04	3.21927e-05
1841.89	3.39892e-05
1852.74	3.58656e-05
1863.59	3.78244e-05
1870.83	3.91773e-05
1881.68	4.12793e-05
1892.53	4.34714e-05
1903.38	4.5757e-05
1910.62	4.73344e-05
1921.47	4.9784e-05
1932.32	5.23376e-05
1943.17	5.49995e-05
1950.41	5.68367e-05
1961.26	5.96899e-05
1972.11	6.26646e-05
1982.96	6.57664e-05
1990.2	6.79076e-05
2001.05	7.1234e-05
2011.9	7.47033e-05
2022.75	7.83221e-05
2033.61	8.20973e-05
2040.84	8.47046e-05
2051.69	8.67732e-05
2062.54	8.5168e-05
2073.39	8.38946e-05
2080.63	8.32173e-05
2091.48	8.24427e-05
2102.33	8.19401e-05
2113.18	8.16911e-05
2120.42	8.16577e-05
2131.27	8.17956e-05
2142.12	8.21472e-05
2152.97	8.27011e-05
2160.21	8.31778e-05
2171.06	8.40477e-05
2181.91	8.50972e-05
2192.76	8.63204e-05
2203.61	8.77127e-05
2210.85	8.87333e-05
2221.7	9.04009e-05
2232.55	9.22314e-05
2243.4	9.42246e-05
2250.64	9.56441e-05
2261.49	9.79104e-05
2272.34	0.000100343
2283.19	0.000102946
2290.42	0.000104777
2301.27	0.000107671
2312.13	0.000110747
2322.98	0.00011401
2330.21	0.000116292
2341.06	0.000119882
2351.91	0.000123677
2362.77	0.000127686
2373.62	0.000131915
2380.85	0.000134862
2391.7	0.000139481
2402.55	0.000144345
2413.4	0.000149465
2420.64	0.000153025
2431.49	0.000158598
2442.34	0.00016443
2453.19	0.000170501
2460.43	0.000174672
2471.28	0.000181109
2482.13	0.000187753
2492.98	0.000194601
2500.22	0.000199279
2511.07	0.000206465
2521.92	0.000213858
2532.77	0.000221464
2540	0.000226656
2550.86	0.000234633
2561.71	0.000242849
2572.56	0.000251315
2583.41	0.000260045
2590.64	0.000266021
2601.5	0.00027523
2612.35	0.000284751
2623.2	0.000294607
2630.43	0.000301373
2641.29	0.000311835
2652.14	0.000322692
2662.99	0.00033397
2670.22	0.000341733
2681.08	0.000353763
2691.93	0.000366276
2702.78	0.000379295
2710.01	0.000388266
2720.87	0.000402181
2731.72	0.000416664
2742.57	0.000431742
2753.42	0.00044744
2760.66	0.000458264
2771.51	0.000475059
2782.36	0.000492553
2793.21	0.000526927
2800.45	0.00055536
2811.3	0.000597908
2822.15	0.000640181
2833.02	0.000682155
2840.27	0.000709952
2851.14	0.00075137
2862.02	0.000792523
2872.89	0.000833522
2880.14	0.000860836
2891.01	0.000901894
2901.89	0.000943207
2912.76	0.000984957
2920.01	0.00101313
2930.88	0.00105603
2941.75	0.00109989
2952.63	0.0011449
2963.5	0.00119125
2970.75	0.001223
2981.62	0.00127203
2992.5	0.0013229
3003.37	0.00137543
3010.62	0.00141123
3021.49	0.00146598
3032.36	0.00152191
3043.24	0.00157903
3050.49	0.0016178
3061.36	0.00167709
3072.23	0.0017379
3083.11	0.00180045
3090.35	0.00184327
3101.23	0.00190938
3112.1	0.00197807
3122.97	0.00204967
3130.22	0.00209917
3141.1	0.0021763
3151.97	0.00225715
3162.84	0.00234203
3170.09	0.00240102
3180.96	0.0026005
3191.84	0.00279061
3202.71	0.00297125
3213.58	0.00314417
3220.83	0.0032565
3231.7	0.0034229
3242.58	0.00358971
3253.45	0.0037601
3260.7	0.00387717
3271.57	0.00406004
3282.44	0.0042515
3293.32	0.00444929
3300.57	0.00458448
3311.44	0.00479308
3322.31	0.00501064
3333.19	0.00524036
3340.43	0.00540203
3351.31	0.00565974
3362.18	0.00612163
3373.05	0.00666013
3380.3	0.00700618
3391.17	0.00752098
3402.05	0.00805269
3412.92	0.00862164
3420.17	0.00901554
3431.04	0.00962385
3441.92	0.0102727
3452.79	0.0112548
3460.04	0.0121741
3470.91	0.0133784
3481.78	0.0146995
3492.66	0.016236
3503.53	0.0192404
3510.78	0.0211438
3521.65	0.0243875
3532.53	0.0283292
3543.4	0.0324403
3550.65	0.0349973
3561.52	0.0385566
3572.39	0.0420692
3583.27	0.0456365
3590.52	0.0480414
3601.39	0.0517236
3612.26	0.0555339
3623.14	0.0594254
3630.39	0.0620198
3641.26	0.0658777
3652.13	0.0697134
3663.01	0.0735785
3670.26	0.076198
3681.13	0.080216
3692	0.0843368
3702.88	0.0885274
3710.13	0.09134
3721	0.0955673
3731.87	0.0997976
3742.75	0.104039
3753.63	0.108315
3760.9	0.111199
3771.8	0.115581
3782.71	0.120038
3793.61	0.12457
3800.88	0.127631
3811.78	0.132284
3822.69	0.137012
3833.59	0.141827
3840.86	0.145092
3851.76	0.15008
3862.67	0.155181
3873.57	0.160392
3880.84	0.163926
3891.74	0.169314
3902.65	0.174809
3913.55	0.180421
3920.82	0.184236
3931.72	0.190088
3942.63	0.196116
3953.53	0.202345
3960.8	0.206622
3971.7	0.21324
3982.61	0.220123
3993.51	0.227296
4000.78	0.232252
4011.68	0.239969
4022.59	0.248052
4033.49	0.256528
4040.76	0.262411
4051.67	0.271601
4062.57	0.281251
4073.47	0.291384
4080.74	0.298419
4091.65	0.309408
4102.55	0.32094
4113.46	0.333037
4120.73	0.341424
4131.63	0.354502
4142.53	0.368185
4153.44	0.382483
4160.71	0.392355
4171.62	0.407668
4182.61	0.423708
4193.61	0.440328
4200.94	0.451715
4211.93	0.469227
4222.93	0.487209
4230.28	0.499469
4241.35	0.518218
4252.41	0.537255
4263.48	0.556494
4270.86	0.569387
4281.94	0.588734
4293.01	0.607983
4300.39	0.620697
4311.47	0.639489
4322.54	0.657811
4333.61	0.675507
4341	0.686874
4352.07	0.703151
4363.14	0.71834
4370.53	0.72777
4381.6	0.740728
4392.67	0.752094
4400.06	0.758689
4411.13	0.766967
4422.2	0.773137
4433.28	0.777013
4440.66	0.778234
4451.73	0.777895
4462.81	0.774812
4470.19	0.77116
4481.26	0.763189
4492.34	0.752125
4503.41	0.737874
4510.79	0.726565
4521.87	0.706848
4532.94	0.683798
4540.32	0.666574
4551.4	0.637961
4562.47	0.606044
4573.55	0.570881
4580.93	0.545674
4592	0.505289
4603.08	0.461917
4610.46	0.431406
4621.53	0.383351
4632.61	0.332675
4643.68	0.279504
4651.06	0.242752
4662.14	0.185598
4673.21	0.126811
4680.6	0.0846571
4691.69	0.0226753
4702.81	-0.0336612
4710.23	-0.0657127
4721.36	-0.10113
4732.48	-0.126271
4743.61	-0.151733
4751.03	-0.154233
4762.15	-0.173987
4773.28	-0.191477
4780.7	-0.20143
4791.83	-0.214645
4802.95	-0.225822
4810.37	-0.232706
4821.5	-0.242343
4832.62	-0.25117
4840.04	-0.256591
4851.17	-0.247983
4862.29	-0.254327
4873.42	-0.262868
4880.84	-0.2677
4891.96	-0.273886
4903.09	-0.279083
4910.51	-0.282135
4921.63	-0.286252
4932.76	-0.289963
4940.18	-0.292037
4951.3	-0.294815
4962.43	-0.297448
4973.56	-0.29995
4980.97	-0.301584
4992.1	-0.303952
5003.23	-0.306187
5010.64	-0.307589
5021.77	-0.309549
5032.9	-0.311306
5040.32	-0.302121
5051.44	-0.303871
5062.57	-0.305694
5073.69	-0.307808
5081.11	-0.309137
5092.22	-0.31087
5103.3	-0.312269
5110.69	-0.31304
5121.76	-0.313984
5132.82	-0.314706
5140.2	-0.31507
5151.27	-0.315458
5162.34	-0.315676
5173.4	-0.315744
5180.78	-0.315717
5191.85	-0.315579
5202.91	-0.315339
5210.29	-0.315129
5221.36	-0.314748
5232.43	-0.314242
5243.49	-0.313671
5250.87	-0.313282
5261.92	-0.312687
5272.96	-0.312007
5280.29	-0.311466
5291.31	-0.310645
5302.35	-0.309807
5313.38	-0.308953
5320.74	-0.308373
5331.76	-0.307489
5342.79	-0.306582
5350.15	-0.305965
5361.19	-0.305021
5372.23	-0.304055
5383.27	-0.303069
5390.62	-0.302402
5401.66	-0.301378
5412.69	-0.300324
5423.6	-0.29769
5430.83	-0.29404
5441.69	-0.293554
5452.54	-0.293049
5463.39	-0.292528
5470.63	-0.29217
5481.48	-0.29162
5492.33	-0.291048
5503.18	-0.290455
5510.42	-0.290049
5521.27	-0.289424
5532.12	-0.288782
5542.97	-0.288124
5550.21	-0.287677
5561.06	-0.286994
5571.91	-0.286297
5582.76	-0.285586
5593.62	-0.284861
5600.85	-0.284369
5611.7	-0.283619
5622.56	-0.282854
5633.41	-0.282073
5640.64	-0.281541
5651.5	-0.280728
5662.35	-0.279897
5673.2	-0.279049
5680.43	-0.278474
5691.29	-0.277597
5702.14	-0.276702
5712.99	-0.275789
5720.23	-0.275169
5731.08	-0.274223
5741.93	-0.273255
5752.78	-0.272263
5760.02	-0.271589
5770.87	-0.270556
5781.72	-0.269522
5792.57	-0.268501
5803.43	-0.267432
5810.66	-0.266695
5821.51	-0.265553
5832.36	-0.264369
5843.22	-0.26314
5850.45	-0.262297
5861.3	-0.260888
5872.16	-0.259437
5883.01	-0.257945
5890.24	-0.256928
5901.1	-0.255371
5911.95	-0.253776
5922.8	-0.252144
5930.03	-0.251036
5940.89	-0.249346
5951.74	-0.247623
5962.59	-0.245868
5973.44	-0.244083
5980.68	-0.242876
5991.53	-0.241041
6002.38	-0.23918
6013.23	-0.237292
6020.47	-0.236019
6031.32	-0.234471
6042.17	-0.233033
6053.02	-0.231522
6060.26	-0.23048
6071.11	-0.228874
6081.96	-0.227222
6092.82	-0.225532
6100.05	-0.224385
6110.9	-0.222637
6121.75	-0.220858
6132.61	-0.21905
6143.46	-0.217212
6150.69	-0.215971
6161.55	-0.214084
6172.4	-0.212157
6183.25	-0.210192
6190.48	-0.208862
6201.34	-0.206838
6212.19	-0.204783
6223.04	-0.202698
6230.28	-0.201292
6241.13	-0.19916
6251.98	-0.197001
6262.83	-0.194818
6270.07	-0.193354
6280.92	-0.191151
6291.77	-0.188948
6302.62	-0.186748
6313.48	-0.184555
6320.71	-0.183096
6331.56	-0.180915
6342.41	-0.178739
6353.27	-0.176567
6360.5	-0.175119
6371.35	-0.172946
6382.21	-0.170767
6393.06	-0.168579
6400.29	-0.167112
6411.15	-0.164899
6422	-0.162667
6432.85	-0.160414
6440.08	-0.158899
6450.94	-0.155276
6461.79	-0.151147
6472.64	-0.147222
6483.49	-0.143484
6490.73	-0.141082
6501.58	-0.137585
6512.43	-0.13418
6523.28	-0.13083
6530.52	-0.12861
6541.37	-0.125277
6552.22	-0.121918
6563.08	-0.118515
6570.31	-0.116232
6581.16	-0.112807
6592.02	-0.109389
6602.87	-0.105969
6610.1	-0.103678
6620.96	-0.100208
6631.81	-0.0966747
6642.66	-0.0930556
6653.51	-0.0865218
6660.75	-0.0823432
6671.6	-0.0763505
6682.45	-0.0705652
6693.3	-0.0648204
6700.54	-0.060948
6711.39	-0.055019
6722.24	-0.0490382
6733.1	-0.0431349
6740.33	-0.0392091
6751.18	-0.0316611
6762.04	-0.0222261
6772.89	-0.0140104
6780.12	-0.00842069
6790.99	0.000461862
6801.86	0.0130929
6812.74	0.0259932
6823.61	0.0393668
6830.86	0.0487012
6841.73	0.0612945
6852.61	0.0704433
6863.48	0.0763625
6870.73	0.0793912
6881.6	0.0831274
6892.48	0.0859531
6903.35	0.0881512
6910.6	0.0894486
6921.47	0.0912249
6932.35	0.0926649
6943.22	0.0936218
6950.47	0.094021
6961.34	0.0944498
6972.22	0.0949253
6983.09	0.0956454
6990.34	0.0962915
7001.21	0.0974376
7012.09	0.0986132
7022.96	0.0996028
7030.21	0.100086
7041.08	0.100505
7051.96	0.100581
7062.83	0.100388
7070.08	0.100159
7080.95	0.0997388
7091.83	0.0992845
7102.7	0.0988275
7113.58	0.0983753
7120.82	0.098082
7131.7	0.0976781
7142.57	0.0973626
7153.45	0.0971837
7160.69	0.0971496
7171.57	0.0972031
7182.44	0.0973092
7193.32	0.097356
7200.56	0.0972984
7211.44	0.097018
7222.31	0.0964753
7233.19	0.0956876
7240.43	0.0950536
7251.31	0.0939933
7262.18	0.0928637
7273.06	0.0917187
7280.3	0.0909642
7291.18	0.0898614
7302.05	0.0888083
7312.93	0.0878255
7320.18	0.0872235
7331.05	0.0864263
7341.92	0.0857879
7352.8	0.0853364
7360.05	0.0851461
7370.92	0.0850239
7381.79	0.0850803
7392.67	0.0852856
7403.54	0.0856065
7410.79	0.08587
7421.66	0.0863239
7432.54	0.0868377
7443.41	0.0874083
7450.66	0.087822
7461.53	0.0884969
7472.41	0.0892423
7483.28	0.090061
7490.53	0.0906466
7501.4	0.0915791
7512.28	0.0925643
7523.15	0.0935838
7530.4	0.0942713
7541.28	0.0952958
7552.15	0.0962902
7563.03	0.0972323
7570.3	0.097822
7581.21	0.0986355
7592.11	0.0993544
7603.01	0.0999731
7610.28	0.100329
7621.19	0.100782
7632.09	0.101142
7643	0.101421
7650.27	0.101566
7661.17	0.101735
7672.07	0.101857
7682.98	0.101945
7690.25	0.101989
7701.15	0.102042
7712.06	0.10208
7722.96	0.102108
7730.23	0.102119
7741.13	0.102125
7752.04	0.102116
7762.94	0.102092
7770.21	0.102069
7781.12	0.102029
7792.02	0.101987
7802.92	0.101953
7810.19	0.10194
7821.1	0.101941
7832	0.101972
7842.91	0.102035
7850.17	0.102095
7861.08	0.102204
7871.98	0.102327
7882.89	0.102447
7890.16	0.102515
7901.06	0.102581
7911.96	0.102585
7922.87	0.102504
7930.14	0.102392
7941.04	0.102125
7951.95	0.101729
7962.85	0.101198
7970.12	0.100769
7981.02	0.100014
7991.93	0.0991334
8002.83	0.0981408
8010.1	0.0974239
8021.01	0.0962777
8031.91	0.0950612
8042.82	0.0937901
8050.08	0.0929194
8060.99	0.0915876
8071.89	0.0902337
8082.8	0.0888656
8090.07	0.0879485
8100.97	0.0865687
8111.88	0.0851868
8122.78	0.0838056
8130.05	0.0828867
8140.95	0.0815136
8151.86	0.0801503
8162.76	0.0788011
8170.03	0.0779118
8180.93	0.0765968
8191.84	0.0753083
8202.74	0.0740499
8210.01	0.0732286
8220.92	0.072023
8231.82	0.0708469
8242.73	0.0696956
8253.63	0.068561
8260.9	0.0678089
8271.8	0.0666779
8282.71	0.0655311
8293.61	0.0643531
8300.88	0.0635428
8311.79	0.0622784
8322.69	0.0609427
8333.59	0.0595225
8340.86	0.0585236
8351.77	0.0569403
8362.67	0.0552499
8373.58	0.0534486
8380.85	0.0521853
8391.75	0.050197
8402.65	0.0480979
8413.56	0.0458901
8420.83	0.0443589
8431.73	0.0419734
8442.64	0.0394804
8453.54	0.0368748
8460.81	0.0350699
8471.71	0.0322465
8482.62	0.0292562
8493.52	0.0260532
8500.79	0.0237692
8511.7	0.0200563
8522.6	0.0158739
8533.5	0.0103859
8540.77	0.00636113
8551.68	-0.00173763
8562.58	-0.00711216
8573.49	-0.00902878
8580.76	-0.0121168
8591.66	-0.0164674
8602.57	-0.02014
8613.47	-0.0236193
8620.74	-0.0258195
8631.64	-0.02873
8642.55	-0.0313355
8653.45	-0.0303332
8660.72	-0.0316432
8671.63	-0.0334319
8682.53	-0.0357495
8693.43	-0.0375996
8700.7	-0.0386542
8711.61	-0.0400689
8722.51	-0.0413628
8733.42	-0.0425907
8740.69	-0.043372
8751.59	-0.0446138
8762.49	-0.0457951
8773.4	-0.0469271
8780.67	-0.047657
8791.57	-0.0487164
8802.48	-0.0497347
8813.38	-0.0507126
8820.62	-0.0513395
8831.47	-0.0509654
8842.32	-0.0521111
8853.17	-0.0531544
8860.41	-0.0537825
8871.26	-0.054635
8882.11	-0.0553825
8892.96	-0.0560358
8900.2	-0.0564252
8911.05	-0.0569497
8921.9	-0.057414
8932.76	-0.0578291
8943.61	-0.0582053
8950.84	-0.0584391
8961.7	-0.0587704
8972.55	-0.0590848
8983.4	-0.0593896
8990.63	-0.05955
9001.49	-0.0598639
9012.34	-0.0601858
9023.19	-0.060514
9030.43	-0.0607354
9041.28	-0.0610698
9052.13	-0.0614044
9062.98	-0.0617367
9070.22	-0.0619556
9081.07	-0.0622782
9091.92	-0.062592
9102.77	-0.062895
9110.01	-0.0630902
9120.86	-0.0633719
9131.71	-0.0636393
9142.57	-0.0638902
9153.42	-0.064117
9160.65	-0.0617745
9171.51	-0.0598829
9182.36	-0.0601656
9193.21	-0.0604327
9200.44	-0.0606023
9211.3	-0.0608445
9222.15	-0.0610713
9233	-0.0612763
9240.24	-0.0614002
9251.09	-0.0615678
9261.94	-0.0617148
9272.79	-0.0618424
9280.03	-0.0619174
9290.88	-0.0620155
9301.73	-0.0620974
9312.58	-0.0621639
9323.44	-0.0622162
9330.67	-0.0622437
9341.52	-0.0622725
9352.38	-0.0622861
9363.23	-0.0622849
9370.46	-0.0622763
9381.31	-0.062252
9392.17	-0.0622145
9403.02	-0.0621645
9410.25	-0.0621244
9421.11	-0.0620545
9431.96	-0.0619733
9442.81	-0.0618815
9450.05	-0.0618149
9460.9	-0.0617072
9471.75	-0.0615908
9482.6	-0.0614464
9493.45	-0.0612901
9500.69	-0.061179
9511.54	-0.0610032
9522.39	-0.0608173
9533.25	-0.0606227
9540.48	-0.0604887
9551.33	-0.0603576
9562.19	-0.0602519
9573.04	-0.0601337
9580.27	-0.0600486
9591.12	-0.0599121
9601.98	-0.0597657
9612.83	-0.0596103
9620.06	-0.0595019
9630.92	-0.0593327
9641.77	-0.0591559
9652.62	-0.0589719
9663.47	-0.0587812
9670.71	-0.0586504
9681.56	-0.058449
9692.41	-0.0582415
9703.26	-0.0580281
9710.5	-0.0578825
9721.35	-0.0576594
9732.2	-0.0574307
9743.06	-0.0571963
9750.29	-0.0570369
9761.14	-0.0567932
9771.99	-0.056544
9782.85	-0.0562892
9790.08	-0.0561163
9800.93	-0.0558522
9811.79	-0.0555827
9822.64	-0.0559092
9833.49	-0.0556442
9840.73	-0.0554668
9851.58	-0.0551991
9862.43	-0.0549295
9873.28	-0.0546578
9880.52	-0.0544754
9891.37	-0.0541997
9902.22	-0.0539214
9913.07	-0.0536402
9920.31	-0.0534511
9931.16	-0.0531648
9942.01	-0.052875
9952.87	-0.0525816
9960.1	-0.0523839
9970.95	-0.0520199
9981.8	-0.0516216
9992.66	-0.0512213
10003.5	-0.0508177
10010.7	-0.0505468
10021.6	-0.0501376
10032.4	-0.0497251
10043.3	-0.0493094
10050.5	-0.0490303
10061.4	-0.048609
10072.2	-0.0481844
10083.1	-0.0477565
10090.3	-0.0474694
10101.2	-0.047036
10112	-0.0465993
10122.9	-0.0461593
10130.1	-0.0458641
10141	-0.0454185
10151.8	-0.0449697
10162.7	-0.0445175
10173.5	-0.044062
10180.8	-0.0437565
10191.6	-0.0432978
10202.5	-0.0428389
10213.3	-0.0423793
10220.6	-0.0420724
10231.4	-0.0416108
10242.3	-0.0411466
10253.2	-0.0406804
10260.4	-0.0403684
10271.3	-0.0398983
10282.2	-0.0394258
10293	-0.0389507
10300.3	-0.0386324
10311.1	-0.0381526
10322	-0.0376701
10332.9	-0.0371847
10340.1	-0.0368595
10351	-0.0363693
10361.9	-0.0358764
10372.8	-0.0353807
10380	-0.0350487
10390.9	-0.0345486
10401.8	-0.0340459
10412.6	-0.0335408
10423.5	-0.0330333
10430.8	-0.0326939
10441.6	-0.0321833
10452.5	-0.0316711
10463.4	-0.0311576
10470.6	-0.0308146
10481.5	-0.0302993
10492.4	-0.0297832
10503.3	-0.0292665
10510.5	-0.0289218
10521.4	-0.0284049
10532.3	-0.0278882
10543.1	-0.0273718
10550.4	-0.0270278
10561.2	-0.0265122
10572.1	-0.0259972
10583	-0.025483
10590.2	-0.0251407
10601.1	-0.024628
10612	-0.0241164
10622.9	-0.0235553
10630.1	-0.0231683
10641	-0.0225951
10651.9	-0.0220302
10662.7	-0.0214739
10673.6	-0.0209286
10680.9	-0.020571
10691.7	-0.0200431
10702.6	-0.0195248
10713.5	-0.0190153
10720.7	-0.0186802
10731.6	-0.0181842
10742.5	-0.0176953
10753.4	-0.0172131
10760.6	-0.0168949
10771.5	-0.0164224
10782.3	-0.0159549
10793.2	-0.0154204
10800.5	-0.0150815
10811.3	-0.0145956
10822.2	-0.0141325
10833.1	-0.0136884
10840.3	-0.0134012
10851.2	-0.0129816
10862.1	-0.0125729
10873	-0.0121732
10880.2	-0.0119107
10891.1	-0.0115216
10902	-0.011141
10912.8	-0.0107697
10920.1	-0.0105268
10931	-0.0101682
10941.8	-0.00981533
10952.7	-0.00946681
10963.6	-0.00912136
10970.8	-0.00889217
10981.7	-0.00854923
10992.6	-0.00820643
11003.4	-0.0078629
11010.7	-0.00763329
11021.6	-0.00728794
11032.4	-0.00694134
11043.3	-0.0065933
11050.6	-0.00636031
11061.4	-0.00600909
11072.3	-0.00565541
11083.2	-0.00529883
11090.4	-0.00506065
11101.3	-0.00470928
11112.2	-0.00436237
11123.1	-0.00401742
11130.3	-0.00378764
11141.2	-0.00344184
11152.1	-0.00309425
11163	-0.00274418
11170.3	-0.00250899
11181.2	-0.00215296
11192.1	-0.00164504
11203	-0.00110574
11210.3	-0.000736149
11221.2	-0.000173967
11232.1	0.000392031
11243	0.000958098
11250.2	0.00133453
11261.1	0.0018971
11272.1	0.00245576
11283	0.0030096
11290.2	0.00337643
11301.1	0.00392942
11312	0.00448566
11322.9	0.00504464
11330.2	0.00541852
11341.1	0.0059808
11352	0.006543
11362.9	0.00710209
11370.2	0.00747245
11381.1	0.00883476
11392	0.01012
11402.9	0.0112817
11410.2	0.0119832
11421.1	0.012933
11432	0.0137971
11442.9	0.0145909
11450.2	0.0150868
11461.1	0.0161319
11472	0.0169609
11483	0.0177037
11490.3	0.0181187
11501.3	0.0187873
11512.3	0.0199395
11523.3	0.0215802
11530.7	0.0225886
11541.7	0.0240004
11552.8	0.025393
11560.2	0.0263485
11571.3	0.0277665
11582.5	0.0292198
11593.6	0.0307693
11601.1	0.0318419
11612.2	0.0334642
11623.4	0.0350942
11630.8	0.0362043
11642	0.0379326
11653.1	0.0397549
11660.5	0.0410227
11671.7	0.0429876
11682.9	0.0449901
11690.3	0.0463191
11701.4	0.0482641
11712.6	0.0501182
11720	0.051298
11731.2	0.0529931
11742.3	0.0546202
11753.5	0.0561994
11760.9	0.0572293
11772.1	0.0587353
11783.2	0.0601829
11790.7	0.0611083
11801.8	0.0624284
11813	0.0636607
11820.4	0.0644315
11831.6	0.0655096
11842.7	0.0664928
11850.1	0.0670952
11861.3	0.0679195
11872.4	0.0686501
11883.6	0.0692886
11891	0.0696638
11902.2	0.0701499
11913.3	0.0705421
11920.8	0.0707504
11931.9	0.0709833
11943.1	0.0711249
11950.5	0.0711734
11961.7	0.0711874
11972.8	0.071146
11980.3	0.0710958
11991.4	0.0709977
