%%MatrixMarket matrix array real general
6 6
0.
1.
0.
0.
0.
0.
0.
-.5000000000
.5000000000
0.
0.
0.
.5000000000
0.
0.
0.
0.
0.
0.
0.
0.
0.
1.
0.
0.
0.
0.
0.
-.5000000000
.5000000000
0.
0.
0.
.5000000000
0.
0.
