%%MatrixMarket matrix array real general
6 3
-.8333333333e-1
-.4166666667e-1
-.4166666667e-1
0.
0.
0.
-.4166666667e-1
-.8333333333e-1
-.4166666667e-1
0.
0.
0.
-.4166666667e-1
-.4166666667e-1
-.8333333333e-1
0.
0.
0.
