%%MatrixMarket matrix array real general
6 6
-.4166666667e-1
-.2083333333e-1
-.2083333333e-1
.4166666667e-1
.2083333333e-1
.2083333333e-1
-.2083333333e-1
-.4166666667e-1
-.2083333333e-1
.2083333333e-1
.4166666667e-1
.2083333333e-1
-.2083333333e-1
-.2083333333e-1
-.4166666667e-1
.2083333333e-1
.2083333333e-1
.4166666667e-1
-.4166666667e-1
-.2083333333e-1
-.2083333333e-1
.4166666667e-1
.2083333333e-1
.2083333333e-1
-.2083333333e-1
-.4166666667e-1
-.2083333333e-1
.2083333333e-1
.4166666667e-1
.2083333333e-1
-.2083333333e-1
-.2083333333e-1
-.4166666667e-1
.2083333333e-1
.2083333333e-1
.4166666667e-1
