%%MatrixMarket matrix array real general
6 4
0.
-.1571348402
-.7856742012e-1
0.
-.7856742012e-1
-.3928371006e-1
0.
-.7856742012e-1
-.3928371006e-1
0.
-.1571348402
-.7856742012e-1
0.
-.7856742012e-1
-.1571348402
0.
-.3928371006e-1
-.7856742012e-1
0.
-.3928371006e-1
-.7856742012e-1
0.
-.7856742012e-1
-.1571348402
