0	0
10.0257	0
20.9861	0
30.9481	0
40.91	0
50.87	0
60.7888	0
70.619	0
80.4281	0
90.2373	0
100.046	0
110.836	0
120.646	0
130.455	0
140.264	0
150.073	0
160.863	0
170.672	0
180.481	0
190.29	0
200.099	0
210.889	0
220.698	0
230.507	0
240.317	0
250.126	0
260.916	0
270.725	0
280.534	0
290.343	0
300.152	0
310.942	0
320.751	0
330.56	0
340.369	0
350.178	0
360.968	0
370.777	0
380.586	0
390.395	0
400.204	0
410.013	0
420.803	0
430.612	0
440.421	0
450.23	0
460.039	0
470.829	0
480.638	0
490.447	0
500.256	0
510.065	0
520.855	0
530.663	0
540.472	0
550.281	0
560.09	0
570.88	0
580.688	0
590.497	0
600.306	0
610.114	0
620.904	0
630.713	0
640.521	0
650.33	0
660.138	0
670.928	0
680.737	0
690.545	0
700.354	0
710.162	0
720.952	0
730.76	0
740.569	0
750.378	0
760.186	0
770.976	0
780.785	0
790.593	0
800.402	0
810.211	0
820.019	0
830.809	0
840.618	0
850.426	0
860.235	0
870.044	0
880.833	0
890.642	0
900.45	0
910.259	0
920.067	0
930.857	0
940.665	0
950.474	0
960.282	0
970.091	0
980.88	0
990.688	0
1000.5	0
1010.31	0
1020.11	0
1030.9	0
1040.71	0
1050.52	0
1060.33	0
1070.14	0
1080.92	0
1090.73	0
1100.54	0
1110.35	0
1120.16	0
1130.95	0
1140.75	0
1150.56	0
1160.37	0
1170.18	0
1180.97	0
1190.78	0
1200.58	0
1210.39	0
1220.2	0
1230.01	0
1240.8	0
1250.6	0
1260.41	0
1270.22	0
1280.03	0
1290.82	0
1300.62	0
1310.43	0
1320.24	0
1330.05	0
1340.84	0
1350.64	0
1360.45	0
1370.26	0
1380.07	0
1390.86	0
1400.66	0
1410.47	0
1420.28	0
1430.09	0
1440.88	0
1450.68	0
1460.49	0
1470.3	0
1480.11	0
1490.9	0
1500.7	0
1510.51	0
1520.32	0
1530.13	0
1540.92	0
1550.72	0
1560.53	0
1570.34	0
1580.15	0
1590.94	0
1600.74	0
1610.55	0
1620.36	0
1630.17	0
1640.96	0
1650.76	0
1660.57	0
1670.38	0
1680.19	0
1690.98	0
1700.79	0
1710.59	0
1720.4	0
1730.21	0
1740.02	0
1750.81	0
1760.62	0
1770.42	0
1780.23	0
1790.04	0
1800.83	0
1810.64	0
1820.45	0
1830.26	0
1840.07	0
1850.86	0
1860.66	0
1870.47	0
1880.28	0
1890.09	0
1900.88	0
1910.69	0
1920.5	0
1930.31	0
1940.12	0
1950.91	0
1960.72	0
1970.52	0
1980.33	0
1990.14	0
2000.93	0
2010.74	0
2020.55	0
2030.36	0
2040.17	0
2050.96	0
2060.77	0
2070.58	0
2080.39	0
2090.2	0
2100.01	0
2110.8	0
2120.61	0
2130.42	0
2140.23	0
2150.04	0
2160.83	0
2170.64	0
2180.45	0
2190.26	0
2200.07	0
2210.86	0
2220.67	0
2230.48	0
2240.29	0
2250.09	0
2260.89	2.72848e-12
2270.69	7.27596e-12
2280.5	1.54614e-11
2290.31	2.45564e-11
2300.12	3.36513e-11
2310.91	4.27463e-11
2320.72	5.18412e-11
2330.53	6.00267e-11
2340.34	6.91216e-11
2350.15	7.82165e-11
2360.94	8.8221e-11
2370.75	9.73159e-11
2380.56	1.06411e-10
2390.37	1.15506e-10
2400.18	1.27329e-10
2410.97	1.46429e-10
2420.78	1.67347e-10
2430.59	1.9736e-10
2440.4	2.39197e-10
2450.21	2.95586e-10
2460.02	3.68345e-10
2470.81	4.78394e-10
2480.62	6.1118e-10
2490.43	7.85803e-10
2500.24	1.01318e-09
2510.05	1.30967e-09
2520.84	1.73804e-09
2530.65	2.24372e-09
2540.46	2.89401e-09
2550.27	3.72529e-09
2560.08	4.78212e-09
2570.87	6.27642e-09
2580.68	8.01174e-09
2590.49	1.01982e-08
2600.3	1.29403e-08
2610.11	1.63709e-08
2620.9	2.11248e-08
2630.71	2.65472e-08
2640.52	3.32584e-08
2650.33	4.1533e-08
2660.14	5.17039e-08
2670.93	6.55527e-08
2680.74	8.10733e-08
2690.55	9.99617e-08
2700.36	1.22874e-07
2710.16	1.50579e-07
2720.96	1.87668e-07
2730.76	2.28543e-07
2740.57	2.77499e-07
2750.38	3.35956e-07
2760.19	4.05553e-07
2770	4.88162e-07
2780.79	5.96631e-07
2790.6	7.13908e-07
2800.41	8.51857e-07
2810.22	1.01366e-06
2820.03	1.2029e-06
2830.82	1.44759e-06
2840.63	1.70815e-06
2850.44	2.01028e-06
2860.25	2.35963e-06
2870.06	2.76251e-06
2880.85	3.27581e-06
2890.66	3.81456e-06
2900.47	4.43072e-06
2910.28	5.1336e-06
2920.09	5.93332e-06
2930.88	6.93802e-06
2940.69	7.97804e-06
2950.5	9.15207e-06
2960.31	1.04741e-05
2970.12	1.19591e-05
2980.91	1.37999e-05
2990.72	1.56806e-05
3000.53	1.77773e-05
3010.34	2.01093e-05
3020.15	2.26972e-05
3030.94	2.58648e-05
3040.75	2.90606e-05
3050.56	3.25818e-05
3060.37	3.64528e-05
3070.18	4.06991e-05
3080.97	4.58347e-05
3090.77	5.09552e-05
3100.58	5.65346e-05
3110.39	6.26013e-05
3120.2	6.91841e-05
3130.01	7.63124e-05
3140.8	8.4819e-05
3150.61	9.31895e-05
3160.42	0.000102198
3170.23	0.000111874
3180.04	0.000122249
3190.83	0.000134502
3200.64	0.000146437
3210.45	0.000159161
3220.26	0.000172701
3230.07	0.000187086
3240.86	0.000203917
3250.67	0.000220161
3260.48	0.00023733
3270.29	0.000255449
3280.1	0.000274541
3290.89	0.000296692
3300.69	0.0003179
3310.5	0.000340147
3320.31	0.000363454
3330.12	0.000387841
3340.91	0.000415936
3350.72	0.00044265
3360.53	0.000470501
3370.34	0.000499508
3380.15	0.000529688
3390.94	0.000564264
3400.75	0.000596971
3410.56	0.000630913
3420.37	0.000666114
3430.18	0.000702598
3440.97	0.000744245
3450.78	0.000783515
3460.59	0.000824163
3470.4	0.000866226
3480.21	0.000909748
3490.01	0.000954775
3500.81	0.00100611
3510.61	0.00105449
3520.42	0.00110456
3530.23	0.0011564
3540.04	0.00121011
3550.83	0.00127146
3560.64	0.00132941
3570.45	0.00138955
3580.26	0.00145204
3590.07	0.001517
3600.86	0.00159153
3610.67	0.00166227
3620.48	0.00173606
3630.29	0.00181311
3640.1	0.00189368
3650.89	0.00198666
3660.7	0.00207547
3670.51	0.00216867
3680.31	0.0022666
3690.12	0.00236962
3700.91	0.00248928
3710.72	0.00260429
3720.53	0.00272568
3730.34	0.00285396
3740.15	0.00298961
3750.94	0.00314803
3760.75	0.00330103
3770.56	0.00346322
3780.37	0.00363528
3790.18	0.00381789
3800.97	0.00403181
3810.78	0.00423899
3820.59	0.00445911
3830.4	0.00469301
3840.2	0.00494158
3850.01	0.00520574
3860.8	0.00551547
3870.61	0.00581554
3880.42	0.00613432
3890.23	0.00647289
3900.04	0.00683237
3910.83	0.00725337
3920.64	0.00766066
3930.45	0.00809265
3940.26	0.00855069
3950.07	0.00903614
3960.86	0.00960353
3970.67	0.0101513
3980.47	0.0107313
3990.28	0.011345
4000.09	0.0119944
4010.88	0.012752
4020.69	0.0134822
4030.5	0.0142541
4040.31	0.0150698
4050.12	0.0159316
4060.91	0.0169357
4070.72	0.0179019
4080.53	0.0189215
4090.34	0.0199967
4100.15	0.0211294
4110.94	0.0224455
4120.74	0.0237056
4130.55	0.0250274
4140.36	0.026427
4150.17	0.0278694
4160.96	0.0295062
4170.77	0.0312308
4180.58	0.0333853
4190.39	0.0358475
4200.2	0.0385889
4210.01	0.0415767
4220.8	0.0441685
4230.61	0.0479621
4240.42	0.0527837
4250.22	0.0577401
4260.03	0.063338
4270.82	0.0698182
4280.63	0.0758931
4290.44	0.0869651
4300.25	0.100137
4310.06	0.110872
4320.85	0.125152
4330.66	0.143537
4340.47	0.163435
4350.28	0.185662
4360.09	0.208394
4370.88	0.23504
4380.69	0.25668
4390.5	0.297734
4400.3	0.347345
4410.11	0.395041
4420.9	0.450971
4430.71	0.502096
4440.52	0.554131
4450.33	0.627477
4460.14	0.68722
4470.93	0.749934
4480.74	0.80146
4490.55	0.849608
4500.36	0.893546
4510.17	0.935051
4520.96	0.977267
4530.76	1.01235
4540.57	1.04442
4550.38	1.0728
4560.19	1.09768
4570	1.11786
4580.79	1.13439
4590.6	1.14358
4600.41	1.14708
4610.22	1.14459
4620.03	1.13569
4630.82	1.11878
4640.63	1.097
4650.44	1.06954
4660.24	1.03679
4670.05	0.999283
4680.84	0.953217
4690.65	0.907778
4700.46	0.859646
4710.27	0.80932
4720.08	0.757386
4730.87	0.699077
4740.68	0.645576
4750.49	0.592014
4760.3	0.538636
4770.1	0.485585
4780.89	0.427734
4790.7	0.375887
4800.51	0.325301
4810.32	0.276609
4820.13	0.230154
4830.92	0.181546
4840.73	0.139273
4850.54	0.0984821
4860.35	0.0589409
4870.16	0.0204587
4880.94	-0.0208845
4890.75	-0.0577942
4900.56	-0.0942298
4910.37	-0.130291
4920.18	-0.166035
4930.97	-0.20501
4940.78	-0.240078
4950.59	-0.274674
4960.4	-0.308631
4970.2	-0.341781
4980.01	-0.373968
4990.8	-0.408066
5000.61	-0.437696
5010.42	-0.46587
5020.23	-0.492463
5030.04	-0.517368
5040.83	-0.54268
5050.63	-0.563681
5060.44	-0.582678
5070.25	-0.599612
5080.06	-0.614448
5090.85	-0.62831
5100.66	-0.638661
5110.47	-0.646868
5120.27	-0.652945
5130.08	-0.656907
5140.87	-0.65884
5150.68	-0.658424
5160.49	-0.655987
5170.3	-0.651593
5180.11	-0.645322
5190.9	-0.636375
5200.7	-0.626508
5210.51	-0.615123
5220.32	-0.602345
5230.13	-0.588298
5240.92	-0.57152
5250.73	-0.555187
5260.54	-0.537948
5270.35	-0.519923
5280.15	-0.501234
5290.94	-0.480057
5300.75	-0.460373
5310.56	-0.440393
5320.37	-0.420218
5330.18	-0.399942
5340.97	-0.377629
5350.78	-0.357427
5360.58	-0.337391
5370.39	-0.317602
5380.2	-0.298138
5390.01	-0.279077
5400.8	-0.258663
5410.61	-0.240685
5420.42	-0.223334
5430.23	-0.206684
5440.03	-0.190808
5450.82	-0.17432
5460.63	-0.160285
5470.44	-0.147213
5480.25	-0.135144
5490.06	-0.124102
5500.85	-0.113148
5510.66	-0.104255
5520.47	-0.0963443
5530.27	-0.0893669
5540.08	-0.0832625
5550.87	-0.077469
5560.68	-0.0729505
5570.49	-0.069054
5580.3	-0.0656893
5590.11	-0.0627683
5600.9	-0.059971
5610.71	-0.057731
5620.51	-0.0557243
5630.32	-0.0539125
5640.13	-0.0522704
5650.92	-0.0506417
5660.73	-0.0493137
5670.54	-0.0481282
5680.35	-0.0470867
5690.16	-0.0461946
5700.95	-0.0453964
5710.75	-0.0448498
5720.56	-0.0444862
5730.37	-0.0443153
5740.18	-0.0443422
5750.97	-0.0445998
5760.78	-0.0450366
5770.59	-0.0456594
5780.4	-0.0464622
5790.21	-0.0474399
5800.01	-0.0485891
5810.8	-0.0500498
5820.61	-0.0515587
5830.42	-0.053246
5840.23	-0.0551213
5850.04	-0.0571952
5860.83	-0.0597176
5870.64	-0.0622379
5880.45	-0.0649793
5890.26	-0.0679449
5900.07	-0.0711372
5910.85	-0.0749131
5920.66	-0.0785863
5930.47	-0.0824854
5940.28	-0.0866016
5950.09	-0.0909204
5960.88	-0.0958796
5970.69	-0.100547
5980.5	-0.10533
5990.31	-0.110188
6000.12	-0.115077
6010.91	-0.120436
6020.72	-0.125241
6030.52	-0.129932
6040.33	-0.134463
6050.14	-0.138786
6060.93	-0.143247
6070.74	-0.146988
6080.55	-0.15039
6090.36	-0.153416
6100.17	-0.156036
6110.96	-0.158416
6120.77	-0.160098
6130.58	-0.161304
6140.39	-0.162023
6150.2	-0.16225
6160	-0.161984
6170.79	-0.161128
6180.6	-0.15985
6190.41	-0.15811
6200.22	-0.15593
6210.03	-0.153333
6220.82	-0.150027
6230.63	-0.146641
6240.44	-0.142922
6250.25	-0.138895
6260.06	-0.134584
6270.85	-0.129545
6280.66	-0.124722
6290.47	-0.119695
6300.28	-0.11449
6310.09	-0.109136
6320.88	-0.103103
6330.69	-0.0975125
6340.49	-0.0918423
6350.3	-0.0861098
6360.11	-0.0803304
6370.9	-0.0739371
6380.71	-0.0681088
6390.52	-0.0622822
6400.33	-0.056475
6410.14	-0.0507061
6420.93	-0.0444286
6430.74	-0.0388074
6440.55	-0.0332917
6450.36	-0.0279068
6460.17	-0.0226795
6470.96	-0.0171453
6480.77	-0.012341
6490.58	-0.00778059
6500.39	-0.00348838
6510.2	0.000515846
6520.01	0.00421784
6530.8	0.00793165
6540.6	0.0109805
6550.41	0.0137219
6560.22	0.0161644
6570.03	0.0183199
6580.82	0.0203769
6590.63	0.0219796
6600.44	0.0233478
6610.25	0.024503
6620.06	0.0254688
6630.85	0.0263425
6640.66	0.0269927
6650.47	0.0275315
6660.28	0.027983
6670.09	0.0283697
6680.88	0.0287453
6690.69	0.0290632
6700.5	0.029378
6710.31	0.0297071
6720.12	0.0300663
6730.91	0.0305117
6740.72	0.0309726
6750.53	0.0314924
6760.33	0.0320714
6770.14	0.0327058
6780.93	0.0334581
6790.74	0.0341801
6800.55	0.0349249
6810.36	0.0356782
6820.17	0.0364247
6830.96	0.037218
6840.77	0.0378944
6850.58	0.0385079
6860.39	0.0390377
6870.2	0.039462
6880.01	0.0397582
6890.8	0.039909
6900.61	0.0398631
6910.42	0.0396211
6920.23	0.0391637
6930.03	0.0384736
6940.82	0.0374286
6950.63	0.0362065
6960.44	0.0347173
6970.25	0.0329574
6980.06	0.0309276
6990.85	0.0283897
7000.66	0.0258168
7010.47	0.0230071
7020.28	0.0199821
7030.09	0.0167682
7040.88	0.0130515
7050.69	0.00954587
7060.5	0.00595827
7070.3	0.00232765
7080.11	-0.00130746
7090.9	-0.00526785
7100.71	-0.00879788
7110.52	-0.0122321
7120.33	-0.015548
7130.14	-0.018729
7140.93	-0.0220595
7150.74	-0.0249282
7160.55	-0.0276454
7170.36	-0.0302155
7180.16	-0.0326465
7190.95	-0.0351731
7200.76	-0.0373501
7210.57	-0.0394275
7220.38	-0.0414199
7230.19	-0.0433414
7240.98	-0.0453883
7250.79	-0.0472
7260.6	-0.0489726
7270.41	-0.05071
7280.22	-0.0524121
7290.02	-0.0540744
7300.81	-0.0558463
7310.62	-0.0573916
7320.43	-0.0588573
7330.24	-0.0602243
7340.05	-0.061472
7350.84	-0.0626816
7360.65	-0.0636115
7370.46	-0.0643611
7380.27	-0.0649156
7390.08	-0.0652637
7400.87	-0.0653993
7410.67	-0.065294
7420.48	-0.0649716
7430.29	-0.0644356
7440.1	-0.0636923
7450.89	-0.0626457
7460.7	-0.0614968
7470.51	-0.0601714
7480.32	-0.0586809
7490.13	-0.0570372
7500.92	-0.0550661
7510.73	-0.0531389
7520.54	-0.051095
7530.34	-0.0489464
7540.15	-0.0467046
7550.94	-0.0441444
7560.75	-0.0417428
7570.56	-0.0392805
7580.37	-0.0367656
7590.18	-0.0342048
7600.97	-0.0313407
7610.78	-0.0286974
7620.59	-0.0260177
7630.4	-0.0233012
7640.21	-0.0205458
7650.01	-0.0177486
7660.8	-0.0146182
7670.61	-0.0117182
7680.42	-0.0087607
7690.23	-0.00573914
7700.04	-0.00264669
7710.83	0.000845391
7720.64	0.00411011
7730.45	0.00746818
7740.26	0.0109268
7750.07	0.0144928
7760.86	0.0185471
7770.67	0.0223587
7780.48	0.026295
7790.28	0.0303595
7800.09	0.0345537
7810.88	0.0393169
7820.69	0.0437799
7830.5	0.0483637
7840.31	0.0530598
7850.12	0.0578566
7860.91	0.0632318
7870.72	0.0681885
7880.53	0.0731904
7890.34	0.0782137
7900.15	0.0832324
7910.94	0.0887143
7920.75	0.0936305
7930.55	0.098451
7940.36	0.103145
7950.17	0.107681
7960.96	0.112454
7970.77	0.116564
7980.58	0.12043
7990.39	0.124027
8000.2	0.127335
8010.01	0.130338
8020.8	0.133276
8030.61	0.135606
8040.42	0.137611
8050.23	0.139295
8060.04	0.140669
8070.83	0.141841
8080.63	0.142619
8090.44	0.143151
8100.25	0.143464
8110.06	0.143591
8120.85	0.143554
8130.66	0.143396
8140.47	0.143153
8150.28	0.142858
8160.09	0.142537
8170.88	0.142185
8180.69	0.141886
8190.5	0.141621
8200.31	0.141399
8210.11	0.141219
8220.9	0.141066
8230.71	0.140954
8240.52	0.14085
8250.33	0.140733
8260.14	0.140578
8270.93	0.140328
8280.74	0.139998
8290.55	0.139538
8300.36	0.138922
8310.17	0.138122
8320.96	0.137005
8330.77	0.135754
8340.58	0.134266
8350.38	0.132532
8360.19	0.130549
8370	0.128317
8380.79	0.125583
8390.6	0.122853
8400.41	0.119904
8410.22	0.116749
8420.03	0.113407
8430.82	0.109535
8440.63	0.10586
8450.44	0.102057
8460.25	0.098147
8470.05	0.0941512
8480.84	0.0896816
8490.65	0.0855733
8500.46	0.0814436
8510.27	0.077313
8520.08	0.073202
8530.87	0.0687265
8540.68	0.0647219
8550.49	0.0607986
8560.3	0.0569756
8570.11	0.0532715
8580.9	0.0493558
8590.7	0.0459584
8600.51	0.0427319
8610.32	0.0396903
8620.13	0.036846
8630.92	0.0339578
8640.73	0.03156
8650.54	0.0293858
8660.35	0.0274394
8670.16	0.025723
8680.95	0.024101
8690.76	0.0228662
8700.57	0.0218562
8710.37	0.0210657
8720.18	0.0204883
8730.97	0.0200894
8740.78	0.0199315
8750.59	0.0199573
8760.4	0.0201546
8770.21	0.0205098
8780.02	0.0210075
8790.81	0.021699
8800.62	0.0224376
8810.43	0.0232586
8820.23	0.0241379
8830.04	0.0250493
8840.83	0.0260547
8850.64	0.026938
