Executable + params: ../../build/sierpi_intel_tbb_scan_sacsp_tsunami_parallel_release -o 32768 -A 1 -d 20 -a 8 -t 100
Problem size with different number of CPUs using function optimization
THREADS	MTPS	TIMESTEPS	TIMESTEP_SIZE	SECONDS_FOR_SIMULATION	AVERAGE_TRIANGLES	AVERAGE_PARTITIONS
80	68.8724	100	0.000491318		1.9047e+07	1760.14
64	57.1498	100	0.000491318		1.9047e+07	1445.57
40	62.1931	100	0.000491318		1.9047e+07	963.71
32	41.369	100	0.000491318		1.9047e+07	773.72
16	21.4244	100	0.000491318		1.9047e+07	433.08
8	12.8175	100	0.000491318		1.9047e+07	236.11
4	8.95879	100	0.000491318		1.9047e+07	133.26
2	4.89761	100	0.000491318		1.9047e+07	75.89
1	2.47197	100	0.000491318		1.9047e+07	48
