%%MatrixMarket matrix array real general
4 4
-.5000000000
.2886751347
0.
-.8164965809
-.5000000000
-.2886751347
0.
-.8164965809
-.5000000000
.2886751347
-.7071067810
-.4082482906
-.5000000000
-.2886751347
-.7071067810
-.4082482906
