0	0	817500
10.0245	0	837982
20.9846	0	853536
30.9465	0	865270
40.9087	0	873468
50.8677	0	879908
60.7702	0	885212
70.5898	0	889566
80.3988	0	893024
90.2307	0	896706
100.18	0	900140
110.265	0	902550
120.43	0	905398
130.596	0	907756
140.762	0	909962
150.928	0	912006
160.078	0	914022
170.244	0	916560
180.41	0	918800
190.576	0	921338
200.742	0	923626
210.908	0	926360
220.058	0	928688
230.224	0	931226
240.39	0	934280
250.568	0	937082
260.771	0	939818
270.973	0	942662
280.155	0	944958
290.353	0	947656
300.55	0	950286
310.747	0	952958
320.945	0	956048
330.124	0	958668
340.318	0	961818
350.496	0	964848
360.669	0	968060
370.836	0	971236
381.003	0	974248
390.153	0	976854
400.319	0	979726
410.491	0	982550
420.683	0	985508
430.886	0	988286
440.069	0	991170
450.271	0	993906
460.473	0	996726
470.675	0	999560
480.876	0	1002174
490.058	0	1004858
500.261	0	1007734
510.464	0	1010584
520.668	0	1013638
530.871	0	1016544
540.053	0	1019426
550.281	0	1022716
560.563	0	1025984
570.867	0	1029354
580.14	0	1032256
590.443	0	1035604
600.747	0	1039310
610.02	0	1042282
620.323	0	1045802
630.626	0	1049388
640.929	0	1052716
650.202	0	1055792
660.505	0	1059424
670.808	0	1063088
680.081	0	1066582
690.384	0	1070380
700.687	0	1074116
710.99	0	1077606
720.263	0	1080980
730.566	0	1084776
740.869	0	1088416
750.108	0	1091974
760.355	0	1095808
770.595	0	1099910
780.835	0	1103844
790.036	0	1107530
800.251	0	1111356
810.466	0	1115302
820.678	0	1119524
830.886	0	1123620
840.069	0	1127366
850.273	0	1131262
860.476	0	1135404
870.68	0	1139456
880.882	0	1143636
890.064	0	1147306
900.266	0	1151452
910.468	0	1155560
920.665	0	1159690
930.862	0	1164064
940.039	0	1168008
950.236	0	1172454
960.433	0	1176940
970.63	0	1181198
980.81	0	1185410
990.988	0	1189756
1000.14	0	1193780
1010.31	0	1198234
1020.48	0	1202970
1030.64	0	1207482
1040.81	0	1211916
1050.98	0	1216574
1060.13	0	1220800
1070.29	0	1225030
1080.46	0	1229710
1090.63	0	1234582
1100.79	0	1239082
1110.96	0	1243606
1120.11	0	1247316
1130.28	0	1251612
1140.45	0	1255680
1150.61	0	1260332
1160.78	0	1264778
1170.95	0	1269140
1180.1	0	1273274
1190.27	0	1277660
1200.44	0	1281814
1210.6	0	1286094
1220.77	0	1290390
1230.94	0	1294294
1240.09	0	1297934
1250.26	0	1301712
1260.43	0	1305642
1270.6	0	1309754
1280.77	0	1313478
1290.93	0	1317436
1300.09	0	1321168
1310.25	0	1325460
1320.42	0	1329316
1330.59	0	1333786
1340.76	0	1337826
1350.93	0	1342340
1360.08	0	1346422
1370.25	0	1350614
1380.42	0	1355118
1390.59	0	1359284
1400.76	0	1363538
1410.93	0	1367724
1420.08	0	1371650
1430.25	0	1376030
1440.42	0	1380498
1450.58	0	1384950
1460.76	0	1389482
1470.98	0	1394076
1480.23	0	1398166
1490.57	0	1402826
1500.98	0	1406940
1510.36	0	1410678
1520.79	0	1414852
1530.17	0	1418460
1540.59	0	1422346
1551.01	0	1426298
1560.38	0	1429450
1570.81	0	1432828
1580.21	0	1436106
1590.67	0	1439348
1600.08	0	1442258
1610.48	0	1444992
1620.91	0	1447540
1630.29	0	1450290
1640.7	0	1452178
1650.08	0	1454226
1660.47	0	1456594
1670.84	0	1458776
1680.2	0	1460840
1690.57	0	1463224
1700.02	0	1465400
1710.4	-3.63798e-12	1467982
1720.92	-1.00044e-11	1470192
1730.35	-1.63709e-11	1472526
1740.85	-2.54659e-11	1474658
1750.32	-3.36513e-11	1476896
1760.77	-4.27463e-11	1479520
1770.22	-5.09317e-11	1481584
1780.69	-6.00267e-11	1484036
1790.12	-7.45786e-11	1486166
1800.71	-9.45874e-11	1488686
1810.31	-1.21872e-10	1490858
1821.02	-1.65528e-10	1493652
1830.74	-2.22826e-10	1496214
1840.41	-3.0559e-10	1498302
1850.03	-4.21096e-10	1501218
1860.65	-6.02995e-10	1503866
1870.34	-8.40373e-10	1506102
1880.97	-1.20872e-09	1509024
1890.48	-1.66801e-09	1511350
1900.06	-2.30193e-09	1513484
1910.61	-3.26872e-09	1516084
1920.06	-4.45834e-09	1518162
1930.51	-6.2555e-09	1520286
1940.04	-8.48377e-09	1522346
1950.6	-1.18353e-08	1524732
1960.01	-1.58525e-08	1526836
1970.56	-2.18952e-08	1528800
1980.05	-2.9152e-08	1530828
1990.64	-3.99159e-08	1532864
2000.2	-5.27843e-08	1534620
2010.74	-7.15081e-08	1536556
2020.08	-9.31732e-08	1538230
2030.61	-1.24994e-07	1540408
2040.04	-1.61944e-07	1542566
2050.46	-2.14661e-07	1544816
2060.93	-2.8362e-07	1547612
2070.25	-3.61993e-07	1549940
2080.72	-4.74029e-07	1552596
2090.2	-6.02847e-07	1554842
2100.82	-7.85461e-07	1557346
2110.42	-9.93959e-07	1559744
2121.01	-1.28316e-06	1562320
2130.61	-1.6115e-06	1565222
2140.27	-2.01895e-06	1567652
2150.66	-2.56331e-06	1570864
2160.11	-3.17288e-06	1573060
2170.54	-3.99943e-06	1575132
2180.97	-5.02164e-06	1578484
2190.36	-6.14161e-06	1580348
2200.83	-7.6581e-06	1583318
2210.22	-9.30324e-06	1585810
2220.65	-1.15071e-05	1588588
2230.04	-1.38855e-05	1590854
2240.46	-1.70458e-05	1593190
2250.84	-2.08271e-05	1595874
2260.2	-2.48767e-05	1598154
2270.63	-3.02174e-05	1601116
2280.08	-3.59211e-05	1603354
2290.44	-4.32795e-05	1605926
2300.91	-5.20532e-05	1608032
2310.34	-6.12876e-05	1610058
2320.9	-7.33439e-05	1612538
2330.23	-8.56941e-05	1614504
2340.59	-0.000101547	1616842
2350.99	-0.000120008	1618492
2360.43	-0.000139244	1620478
2371.01	-0.000163973	1622788
2380.35	-0.000188917	1624546
2390.74	-0.000220493	1626486
2400.32	-0.000253536	1628556
2410.86	-0.00029475	1630702
2420.27	-0.00033626	1632492
2430.66	-0.000387836	1634500
2440.17	-0.000440788	1636042
2450.97	-0.000508254	1637090
2460.55	-0.000575113	1638428
2470.54	-0.000652589	1639982
2480.24	-0.000735877	1641510
2490.82	-0.000836629	1643388
2500.37	-0.000937165	1644568
2510.12	-0.00104963	1645884
2520.1	-0.00117583	1647536
2530.88	-0.00132571	1648828
2540.27	-0.00146839	1650552
2550.78	-0.00164231	1652350
2560.4	-0.00181542	1654102
2570.15	-0.00200504	1656044
2580.99	-0.00223348	1658118
2590.78	-0.00245661	1659888
2600.35	-0.00269064	1661792
2610.77	-0.00296397	1664076
2620.04	-0.00322434	1665734
2630.48	-0.00353708	1667352
2640.94	-0.00387199	1669388
2650.34	-0.00419198	1671644
2660.81	-0.00456971	1673882
2670.28	-0.00493123	1675824
2680.75	-0.00535335	1678148
2690.15	-0.00575244	1680124
2700.59	-0.00621819	1682536
2710.99	-0.00670593	1684708
2720.39	-0.0071666	1686554
2730.95	-0.00770676	1688962
2740.35	-0.00820794	1691186
2750.93	-0.00879352	1693280
2760.36	-0.00933464	1694774
2770.78	-0.00995299	1696592
2780.33	-0.010537	1698552
2790.05	-0.0111485	1700082
2800.69	-0.0118358	1701722
2810.48	-0.0124835	1703048
2820.96	-0.0131908	1704742
2830.39	-0.0138393	1706672
2840.89	-0.014572	1708002
2850.4	-0.0152428	1709178
2860.09	-0.0159322	1710610
2870.2	-0.0166553	1711998
2880.01	-0.0173589	1713798
2890.55	-0.0181124	1715176
2900.04	-0.0187869	1716236
2910.05	-0.0194913	1717578
2920.29	-0.0202005	1719224
2930.52	-0.0208951	1720718
2940.75	-0.0215714	1721618
2950.99	-0.0222257	1723110
2960.74	-0.0228244	1724876
2970.08	-0.0233726	1726336
2980.74	-0.023964	1727896
2990.7	-0.0244792	1729266
3000.26	-0.0249361	1730750
3010.73	-0.0253898	1732986
3020.11	-0.025751	1734868
3030.55	-0.0260989	1736254
3040.11	-0.0263641	1737533
3050.07	-0.0265815	1739277
3060.62	-0.0267422	1741465
3070.93	-0.026826	1742985
3080.25	-0.0268356	1744325
3090.78	-0.0267675	1746141
3100.13	-0.0266332	1747471
3110.82	-0.0263911	1749601
3120.78	-0.0260769	1751097
3130.81	-0.0256707	1752739
3141.05	-0.0251603	1754670
3150.15	-0.0246225	1756530
3160.38	-0.0239198	1758550
3170.62	-0.0231104	1760350
3180.86	-0.0221938	1762590
3191.08	-0.0211661	1765382
3200.15	-0.0201477	1767210
3210.31	-0.0189169	1770058
3220.46	-0.0175976	1772302
3230.62	-0.0160551	1774734
3240.77	-0.0139741	1777335
3250.93	-0.0115324	1780077
3261.08	-0.0086257	1783203
3270.11	-0.00710597	1785163
3280.26	-0.00310945	1788213
3290.43	0.00171139	1790779
3300.61	0.00653843	1793691
3310.83	0.0121663	1796425
3321.06	0.0210604	1798975
3330.14	0.0301598	1800761
3340.35	0.0405235	1802945
3350.51	0.0529614	1805347
3360.55	0.0702179	1807083
3370.76	0.0889884	1809319
3380.98	0.109098	1811399
3390.05	0.127343	1813439
3400.26	0.148586	1815405
3410.48	0.173056	1817097
3420.69	0.211226	1818977
3430.9	0.247701	1821097
3441.11	0.281251	1823393
3450.19	0.311075	1825178
3460.4	0.341965	1827178
3470.61	0.371905	1829048
3480.82	0.39938	1831068
3491.03	0.42552	1833646
3500.11	0.447665	1835458
3510.32	0.470877	1837554
3520.53	0.492672	1839696
3530.75	0.51282	1842214
3540.96	0.531971	1844498
3550.03	0.548101	1846464
3560.25	0.565214	1848708
3570.46	0.581291	1850850
3580.67	0.596585	1853044
3590.88	0.611427	1855190
3601.09	0.625759	1857506
3610.17	0.637978	1858912
3620.38	0.650997	1860926
3630.59	0.663219	1862984
3640.8	0.674635	1865096
3651.02	0.684771	1867278
3660.09	0.692249	1869184
3670.3	0.698117	1871526
3680.52	0.701457	1873864
3690.73	0.703632	1876022
3700.94	0.70321	1878420
3710.04	0.701653	1880336
3720.27	0.698542	1882836
3730.5	0.694249	1885234
3740.74	0.688879	1887387
3750.97	0.682351	1889937
3760.07	0.675635	1892139
3770.3	0.667082	1894473
3780.53	0.657514	1896569
3790.57	0.647184	1899603
3800.09	0.636205	1901979
3811.04	0.6213	1904717
3820.63	0.603105	1907635
3830.06	0.584599	1909859
3840.56	0.5615	1912525
3850.41	0.540147	1915321
3860.31	0.515309	1918266
3870.99	0.472432	1921068
3880.95	0.433856	1923462
3891.1	0.394174	1926084
3900.13	0.358096	1928391
3910.28	0.319189	1930997
3920.43	0.279716	1933501
3930.58	0.241424	1935939
3940.74	0.203958	1938481
3950.89	0.167651	1940937
3961.04	0.132997	1943189
3970.06	0.103435	1945315
3980.22	0.072024	1947951
3990.37	0.0423407	1950299
4000.52	0.0144584	1952115
4010.67	-0.0117824	1954276
4020.82	-0.0365884	1956574
4030.97	-0.0601173	1958547
4041.13	-0.0826637	1960045
4050.15	-0.102006	1961929
4060.3	-0.123198	1964137
4070.45	-0.143972	1966135
4080.61	-0.164506	1968260
4090.77	-0.184946	1970668
4100.96	-0.205383	1973060
4110.04	-0.223601	1974636
4120.27	-0.244067	1976970
4130.19	-0.263838	1979328
4140.79	-0.284792	1981626
4150.39	-0.303499	1984056
4160.18	-0.322232	1986015
4170.1	-0.340784	1988427
4180.64	-0.359899	1991316
4190.06	-0.376402	1993040
4200.53	-0.394004	1995123
4210.99	-0.410722	1997123
4220.43	-0.424938	1999894
4231.04	-0.439812	2001605
4240.67	-0.452147	2003535
4250.53	-0.463438	2005914
4260.31	-0.473036	2007208
4270.12	-0.480639	2009479
4280.86	-0.486503	2011907
4290.62	-0.487953	2013913
4300.76	-0.487853	2015810
4310.84	-0.485886	2018039
4320.59	-0.482447	2019989
4330.08	-0.477776	2021909
4340.64	-0.470748	2023865
4350.28	-0.462711	2026483
4360.95	-0.452094	2028721
4370.73	-0.440799	2030277
4380.73	-0.427843	2032281
4390.44	-0.413962	2034351
4400.92	-0.397619	2036895
4410.52	-0.381509	2039069
4420.53	-0.363648	2041839
4430.35	-0.345136	2044816
4440.85	-0.324286	2047457
4450.31	-0.30462	2050477
4460.74	-0.282055	2053333
4470.06	-0.261068	2056097
4480.62	-0.236358	2058871
4490.22	-0.212576	2061628
4501.03	-0.173573	2064454
4511	-0.145337	2067210
4521.08	-0.121478	2069682
4530.05	-0.100117	2072112
4540.84	-0.0784005	2074844
4550.46	-0.0599262	2077426
4560.07	-0.0433544	2080228
4570.73	-0.0277619	2082524
4580.61	-0.0148653	2084716
4590.68	-0.00409965	2086984
4600.66	0.0042488	2089166
4610.27	0.0102326	2091470
4620.02	0.014485	2093044
4631.09	0.0183059	2095586
4640.01	0.02102	2097310
4650.07	0.023856	2099586
4661.09	0.0268987	2102123
4670.96	0.0295718	2104227
4680.36	0.0320904	2106311
4690.86	0.0349086	2108637
4700.28	0.0375025	2110165
4710.91	0.0396405	2111954
4720.9	0.0409987	2113942
4730.34	0.042684	2115882
4740.78	0.0444603	2118032
4750.2	0.0459891	2119536
4760.72	0.0474714	2121488
4770.93	0.048841	2122832
4780.47	0.049973	2125130
4790.95	0.0510782	2127404
4800.4	0.0516014	2128906
4810.84	0.0520728	2131370
4820.33	0.0524821	2133291
4830.05	0.0527478	2135225
4840.77	0.0529832	2137793
4850.46	0.0531798	2139413
4860.37	0.0531738	2141729
4870.02	0.0530975	2143389
4880.7	0.0524191	2145572
4890.74	0.0515652	2147732
4900.36	0.05069	2149620
4910.84	0.0495921	2151789
4920.29	0.0484175	2153079
4931	0.0468489	2154979
4940.79	0.0451955	2156423
4950.62	0.0433288	2157547
4960.21	0.0413218	2159424
4970.85	0.0388977	2161284
4980.54	0.0365466	2162602
4990.54	0.0339932	2164298
5000.59	0.0312592	2166185
5010.28	0.0306186	2168620
5020.92	0.0276556	2170385
5030.51	0.0242588	2172027
5040.1	0.0210768	2173751
5050.17	0.0178471	2175575
5060.86	0.0139012	2177584
5070.57	0.0102256	2179636
5080.3	0.00683075	2181687
5090.39	0.00353462	2183713
5100.49	0.000348679	2185214
5110.41	-0.00276386	2186874
5120.15	-0.00585293	2188291
5130.25	-0.00903774	2189889
5140.19	-0.0120337	2191745
5150.9	-0.0149922	2193388
5160.97	-0.0174978	2195354
5171.08	-0.0197833	2197058
5180.19	-0.0216899	2198719
5190.47	-0.0236918	2200877
5200.76	-0.0254592	2202760
5211.05	-0.0270506	2205293
5220.2	-0.0283501	2206602
5230.48	-0.029574	2208822
5240.77	-0.0305385	2211134
5251.06	-0.0315537	2213070
5260.21	-0.0327866	2214674
5270.49	-0.0334181	2216509
5280.78	-0.034132	2218575
5291.07	-0.0350508	2220433
5300.25	-0.0356383	2221918
5310.59	-0.0361574	2223111
5320.94	-0.0367645	2223802
5330.13	-0.0373159	2225443
5340.2	-0.0379103	2227093
5350.76	-0.0385386	2228040
5360.2	-0.0390928	2228900
5370.69	-0.0396994	2230333
5380.24	-0.040237	2231574
5390.93	-0.0408279	2233435
5400.41	-0.041356	2235148
5410.96	-0.0419553	2236753
5420.56	-0.0425096	2237627
5430.43	-0.0430815	2239052
5440.55	-0.0436691	2240471
5450.3	-0.0442385	2241338
5460.49	-0.0448384	2242923
5470.68	-0.0454424	2244107
5480.27	-0.0460126	2245455
5490.32	-0.0466088	2246724
5500.66	-0.0472192	2248148
5510.98	-0.0478241	2249593
5520.15	-0.0483589	2251267
5530.46	-0.0489582	2252671
5540.78	-0.0495554	2254738
5551.09	-0.0501503	2256505
5560.26	-0.0506769	2258148
5570.58	-0.051267	2259751
5580.89	-0.0518556	2261538
5590.06	-0.052379	2262662
5600.38	-0.0529703	2263967
5610.7	-0.0535668	2265087
5621.01	-0.0541714	2266510
5630.18	-0.0547181	2267432
5640.5	-0.0553465	2268840
5650.81	-0.0559921	2269403
5661.13	-0.0566583	2270721
5670.3	-0.0572708	2270636
5680.62	-0.0579857	2271675
5690.93	-0.0587311	2272515
5700.1	-0.0594215	2273075
5710.42	-0.0602319	2273645
5720.73	-0.0610799	2273980
5731.05	-0.0619669	2275116
5740.22	-0.0627888	2275322
5750.53	-0.0637515	2275933
5760.85	-0.0647544	2276733
5770.02	-0.0656791	2277581
5780.33	-0.0667559	2278742
5790.65	-0.06787	2279544
5801.03	-0.0690269	2280469
5810.28	-0.0700862	2281361
5820.68	-0.0713083	2282316
5831.08	-0.0725602	2283504
5840.33	-0.0736962	2284200
5850.73	-0.0749982	2285631
5861.13	-0.0763227	2286428
5870.37	-0.0775167	2287984
5880.78	-0.0788753	2289469
5890.84	-0.0802013	2290920
5900.24	-0.0814453	2292564
5910.74	-0.0828398	2293985
5920.33	-0.0841167	2295330
5931.14	-0.0855573	2296007
5940.92	-0.0868561	2297809
5950.42	-0.0881094	2298678
5961.03	-0.0894898	2300028
5971.07	-0.090769	2301332
5980.11	-0.0918909	2302182
5990.64	-0.0931495	2303627
6000.78	-0.0943049	2304632
6011.01	-0.0954033	2306272
6020.85	-0.0963869	2307167
6030.02	-0.0972313	2308089
6040.96	-0.0981363	2309477
6050.04	-0.0987951	2310912
6060.35	-0.0994361	2312361
6070.7	-0.0999619	2314059
6080.43	-0.100345	2316245
6090.2	-0.100616	2317903
6100.55	-0.100777	2320351
6110.9	-0.100796	2322410
6120.1	-0.100689	2325117
6130.44	-0.100429	2327356
6140.79	-0.100021	2330019
6151.14	-0.0994645	2332679
6160.33	-0.0988483	2335064
6170.66	-0.0980221	2337432
6180.98	-0.0970583	2339496
6190.14	-0.096088	2341611
6200.43	-0.0948702	2343965
6210.7	-0.093517	2346613
6220.97	-0.0920234	2348614
6230.1	-0.0905745	2350978
6240.37	-0.0888029	2353060
6250.62	-0.0868807	2355261
6260.84	-0.084814	2357838
6271.06	-0.082606	2360395
6280.14	-0.0805408	2362282
6290.36	-0.0781128	2363729
6300.56	-0.075549	2365816
6310.75	-0.072828	2367436
6320.93	-0.0699618	2369296
6331.1	-0.0669934	2371082
6340.13	-0.064303	2372580
6350.28	-0.0612372	2374682
6360.44	-0.0581361	2376896
6370.6	-0.0549928	2378889
6380.75	-0.0517997	2380277
6390.76	-0.0486031	2381958
6400.21	-0.0455501	2383279
6410.66	-0.0421557	2385323
6420.06	-0.0390867	2386443
6430.6	-0.0356886	2387624
6440.38	-0.0324937	2389228
6450.51	-0.0289331	2390969
6460.5	-0.027417	2393278
6471	-0.0231021	2394963
6480.7	-0.0189135	2396692
6490.5	-0.0148326	2397937
6500.23	-0.0105239	2399484
6510.35	-0.00599231	2401203
6520.48	-0.0017514	2403167
6530.6	0.00218774	2405500
6540.73	0.00591907	2407737
6550.86	0.00956675	2410261
6560.38	0.0130213	2412860
6570.35	0.0166621	2414964
6581.07	0.0205137	2418107
6590.82	0.0238811	2419604
6600.73	0.0271496	2422343
6610.89	0.0303739	2424248
6620.98	0.0335033	2427043
6630.58	0.0364395	2428811
6640.66	0.0394661	2431212
6650.8	0.0424282	2433148
6660.94	0.0452829	2435444
6671.08	0.0480272	2437560
6680.1	0.050385	2439495
6690.24	0.0529591	2441889
6700.38	0.0554539	2443474
6710.51	0.0578598	2445679
6720.64	0.060164	2447423
6730.77	0.0623571	2449569
6740.89	0.0644354	2451253
6751.02	0.0664149	2453253
6760.02	0.0679983	2454979
6770.15	0.0698323	2456265
6780.27	0.0715558	2457592
6790.87	0.0731004	2458665
6800.34	0.0742768	2459590
6810.88	0.0756412	2460701
6820.37	0.076787	2461746
6830.83	0.0779026	2462686
6840.61	0.0788115	2462926
6850.16	0.0795864	2463562
6860.66	0.0803352	2464923
6870.06	0.0809204	2465868
6880.62	0.0814753	2467394
6890.15	0.0818747	2468809
6900.68	0.0821946	2470854
6910.18	0.0823713	2472386
6920.83	0.0824475	2474293
6930.42	0.082412	2475847
6940.22	0.0822764	2477437
6950.32	0.0820297	2479592
6960.92	0.0816484	2481426
6970.45	0.0811965	2483565
6980.2	0.080626	2485381
6990.83	0.0798778	2487708
7000.33	0.0790943	2488902
7010.9	0.0780915	2491119
7020.51	0.0770559	2492863
7030.13	0.0758982	2494561
7040.9	0.0744567	2496519
7050.89	0.0729844	2497522
7060.87	0.0713841	2499271
7070.77	0.0696691	2500248
7080.34	0.0678894	2501799
7090.15	0.0659385	2502743
7101.04	0.0636216	2504163
7110.64	0.0614441	2505382
7120.25	0.0591389	2505910
7130.06	0.0566538	2506847
7140.31	0.0539281	2507859
7150.66	0.0510488	2508499
7160.87	0.0481016	2510387
7170.91	0.0451223	2511844
7180.96	0.0420874	2513377
7191.05	0.0390062	2514901
7200.65	0.0360697	2516873
7210.56	0.0330563	2518599
7220.9	0.0299461	2520438
7230.85	0.0270065	2521888
7240.49	0.0242211	2523690
7250.4	0.0214352	2525499
7260.74	0.0186181	2527132
7271.08	0.015908	2529331
7280.28	0.0135988	2530408
7290.62	0.011123	2532795
7300.96	0.00878398	2534563
7310.16	0.006822	2536249
7320.5	0.00474492	2538379
7330.83	0.00280389	2539408
7341.13	0.00100076	2541671
7350.24	-0.000477255	2542793
7360.45	-0.00197156	2544369
7370.62	-0.00327485	2545289
7380.76	-0.00424884	2546330
7390.9	-0.00509793	2547910
7401.04	-0.00553146	2548389
7410.05	-0.00595284	2550047
7420.19	-0.00640622	2551529
7430.33	-0.00680081	2552492
7440.48	-0.00700508	2554165
7450.62	-0.00706322	2555132
7460.76	-0.00702384	2557396
7470.9	-0.00690966	2558539
7481.04	-0.00671801	2560144
7490.05	-0.006477	2560869
7500.19	-0.00612367	2561729
7510.33	-0.00567658	2562576
7520.47	-0.0051228	2563846
7530.61	-0.00445126	2565359
7540.75	-0.00370213	2566275
7550.89	-0.00288479	2567896
7561.03	-0.00194933	2569054
7570.05	-0.00100981	2570784
7580.19	0.0001355	2571857
7590.28	0.00133028	2573516
7600.23	0.00253975	2574692
7610.17	0.00377452	2575897
7620.12	0.00502898	2577148
7630.06	0.00629469	2578753
7640.01	0.00756176	2580071
7651.06	0.00896026	2581761
7661	0.0102022	2582717
7670.95	0.0114214	2584337
7680.89	0.0126112	2585639
7690.84	0.0137652	2586611
7700.78	0.0148769	2587656
7710.73	0.0159401	2588359
7720.73	0.016954	2589017
7730.79	0.0179129	2589413
7740.87	0.0188045	2589741
7750.97	0.0196259	2589828
7761.09	0.0203711	2590105
7770.08	0.0209661	2590380
7780.19	0.0215578	2590650
7790.31	0.0220661	2590792
7800.44	0.0224905	2590715
7810.6	0.0228312	2591525
7820.72	0.0230872	2592080
7830.83	0.0232619	2592238
7840.95	0.0233582	2592450
7851.07	0.0233802	2593030
7860.06	0.0233413	2593534
7870.18	0.0232368	2593618
7880.29	0.0230741	2594676
7890.41	0.0228598	2595048
7900.53	0.0226007	2595866
7910.65	0.0223037	2596755
7920.77	0.0219757	2598020
7930.87	0.0216242	2598797
7940.78	0.0212618	2600009
7950.69	0.0208879	2601743
7960.6	0.0205079	2603297
7970.51	0.0201268	2605285
7980.41	0.0197496	2606449
7990.32	0.0193807	2608157
8000.22	0.0190241	2609553
8010.13	0.0186835	2611380
8020.03	0.0183626	2613335
8031.03	0.018033	2614834
8040.94	0.0177636	2616798
8050.84	0.0175226	2619120
8060.75	0.0173116	2621127
8070.65	0.0171321	2623524
8080.56	0.0169848	2625442
8090.46	0.0168701	2627801
8100.36	0.016788	2629826
8110.27	0.0167383	2631505
8120.17	0.0167209	2632903
8130.07	0.0167359	2634177
8141.08	0.0167905	2635948
8150.98	0.0168737	2637442
8160.89	0.0169886	2639491
8170.79	0.0171344	2641372
8180.79	0.0173109	2643143
8190.82	0.0175148	2644726
8200.81	0.0177409	2646785
8210.7	0.0179828	2648561
8220.74	0.0182409	2650129
8230.53	0.0185008	2652168
8240.26	0.0187615	2653644
8251.07	0.0190488	2655464
8260.86	0.0193018	2656449
8270.6	0.0195422	2658302
8280.43	0.0197683	2659638
8290.4	0.019977	2661125
8300.25	0.0201583	2662255
8310.03	0.0203125	2663052
8320.07	0.0204399	2664479
8330.19	0.0205306	2666271
8341.02	0.0205833	2667974
8350.01	0.020578	2669078
8360.13	0.0205149	2670163
8370.25	0.0203907	2671639
8380.37	0.0202044	2672543
8390.49	0.0199507	2673612
8400.61	0.0196179	2675014
8410.73	0.0192211	2676456
8420.85	0.0187746	2677950
8430.97	0.0182705	2679432
8441.1	0.0176962	2680407
8450.13	0.0171191	2681477
8460.34	0.0163923	2682628
8470.55	0.0155868	2683457
8480.77	0.0147018	2684291
8491	0.0137356	2684830
8500.1	0.012806	2685796
8510.37	0.0116791	2686127
8520.63	0.0104699	2687131
8530.71	0.00920897	2688077
8540.53	0.00791895	2688471
8550.79	0.00649988	2689413
8560.79	0.00505601	2690034
8570.27	0.00370856	2690634
8580.77	0.00210839	2691363
8590.78	0.000392445	2691818
8600.87	-0.00152177	2692654
8610.71	-0.0035212	2693223
8620.73	-0.00565267	2694201
8630.96	-0.00791933	2694824
8640.06	-0.0100123	2695577
8650.97	-0.0126139	2697013
8660.07	-0.0148634	2697722
8670.3	-0.0174937	2698685
8680.5	-0.0201454	2699923
8690.63	-0.0228463	2700462
8700.86	-0.0255923	2701117
8710.51	-0.0274262	2702303
8720.74	-0.0311425	2703139
8730.52	-0.0349687	2704136
8740.23	-0.0384789	2704642
8750.37	-0.0420433	2706211
8760.36	-0.0452957	2706795
8770.95	-0.0485598	2707513
8780.47	-0.0515204	2708154
8790.15	-0.0546125	2708670
8800.91	-0.0580651	2709484
8810.61	-0.0610845	2709813
8820.48	-0.0640401	2710895
8830.47	-0.0669646	2711136
8840.66	-0.069924	2712088
8850.82	-0.0728353	2713312
8860.92	-0.0756505	2713322
8871.13	-0.0783978	2714447
8880.2	-0.0807571	2714546
8890.41	-0.0833223	2714870
8900.62	-0.0857865	2715552
8910.82	-0.0881337	2715382
8921.03	-0.0903485	2716567
8930.09	-0.0921967	2716371
8940.28	-0.0941362	2716628
8950.46	-0.0959182	2716664
8960.59	-0.0975292	2716776
8970.7	-0.0989651	2717074
8980.81	-0.100221	2716728
8990.92	-0.101291	2716863
9001.03	-0.102173	2716947
9010.01	-0.102688	2716444
9020.12	-0.103237	2716626
9030.07	-0.103689	2715991
9041.03	-0.103914	2715934
9050.86	-0.103903	2715315
9060.56	-0.103758	2714614
9070.52	-0.103484	2714497
9080.5	-0.103078	2713486
9090.38	-0.102527	2713333
9101.03	-0.101774	2712909
9110.62	-0.100973	2712550
9120.36	-0.100041	2711353
9130.15	-0.0989862	2710528
9140.28	-0.0977795	2710286
9150.31	-0.0964825	2710667
9160.12	-0.0951297	2710605
9170.06	-0.0936765	2711271
9180.13	-0.0921222	2712161
9190.24	-0.0904796	2712267
9200.3	-0.0887699	2713940
9211.05	-0.0868704	2714951
9221.03	-0.0850457	2716034
9230.82	-0.0832042	2717444
9240.71	-0.0812939	2718231
9250.34	-0.0793885	2719898
9260.37	-0.0773644	2720692
9270.21	-0.0753415	2721984
9280.08	-0.0732807	2723169
9290.99	-0.0709693	2724038
9300.82	-0.0688641	2725439
9310.9	-0.0666881	2726074
9321.01	-0.0644947	2727369
9331.12	-0.0622974	2728064
9340.03	-0.060364	2729063
9350.06	-0.0581943	2730409
9360.11	-0.0560392	2731323
9370.11	-0.0539139	2732494
9380.22	-0.0517966	2733667
9390.33	-0.0497154	2734938
9400.44	-0.0476768	2736065
9410.54	-0.0456892	2737036
9420.59	-0.0437627	2738057
9430.7	-0.0418826	2739149
9440.67	-0.0400903	2741438
9450.3	-0.0384207	2743607
9460.01	-0.0368008	2745246
9470.76	-0.0350856	2747409
9480.67	-0.0335789	2749055
9490.84	-0.0320948	2750893
9500.98	-0.0305678	2752287
9510.62	-0.0292336	2753773
9520.36	-0.0280993	2755858
9530.08	-0.0274061	2757507
9540.88	-0.0263261	2759207
9550.44	-0.0253755	2759865
9560.16	-0.0245757	2761392
9570.95	-0.0238185	2763248
9580.73	-0.0232124	2764332
9590.79	-0.0226737	2765611
9600.66	-0.0222279	2767149
9610.39	-0.0218648	2768263
9621.03	-0.0214296	2768710
9630.98	-0.0212184	2769332
9640.83	-0.0211013	2770033
9650.81	-0.0210161	2769768
9660.83	-0.0209872	2769773
9670.93	-0.0210464	2769952
9681.04	-0.0211737	2770374
9691.02	-0.0213378	2770784
9700.98	-0.0215435	2770114
9710.99	-0.0217921	2770250
9721.12	-0.0220804	2770087
9730.13	-0.0223608	2769845
9740.27	-0.0226969	2769411
9750.42	-0.0230503	2769319
9760.59	-0.0234179	2770189
9770.65	-0.0237915	2770380
9780.7	-0.0241708	2770229
9790.82	-0.0245545	2770278
9800.98	-0.0249361	2770159
9811.12	-0.0253083	2769885
9820.1	-0.0256263	2769447
9830.2	-0.025967	2768622
9840.31	-0.0262848	2769052
9850.42	-0.026575	2768650
9860.53	-0.0268332	2769122
9870.64	-0.0270554	2769292
9880.75	-0.0272379	2769235
9890.86	-0.0273773	2769148
9900.59	-0.0274682	2769011
9910.6	-0.0275152	2768326
9920.57	-0.0275131	2767592
9930.67	-0.0274597	2766175
9940.78	-0.0273531	2765585
9950.89	-0.0271918	2764593
9961.02	-0.0269738	2763817
9970.03	-0.0267314	2763612
9980.17	-0.0264038	2763567
9990.3	-0.0260185	2763949
10000.4	-0.0255772	2763965
10010.6	-0.025084	2764932
10020.7	-0.0245428	2766258
10030.9	-0.0239553	2767463
10040.8	-0.0233306	2769193
10051	-0.0226509	2770241
10061.1	-0.0219247	2771819
10070.1	-0.0212402	2772936
10080.3	-0.0204282	2774017
10090.4	-0.0195758	2775723
10100.5	-0.018685	2777190
10110.7	-0.0177681	2778917
10120.8	-0.0168349	2780568
10131	-0.0158863	2782896
10141.1	-0.0149201	2784592
10150.1	-0.0140465	2785043
10160.3	-0.0130478	2786420
10170.5	-0.0120378	2787184
10180.7	-0.0110205	2787829
10190.9	-0.0099997	2788420
10201	-0.00898053	2788842
10210.1	-0.00807799	2790080
10220.1	-0.007082	2791072
10230.2	-0.00608923	2793035
10240.3	-0.00510852	2793778
10250.1	-0.00417366	2795402
10260.2	-0.0032302	2796872
10270.4	-0.00230223	2798294
10280.6	-0.00139935	2800260
10290.7	-0.00052435	2802796
10300.9	0.000317177	2804530
10310.9	0.00112014	2807013
10320.8	0.00187251	2808914
10330.8	0.00259925	2810353
10340.8	0.00328796	2812582
10350.7	0.00393269	2813573
10360.8	0.00454553	2815625
10371	0.00511759	2817511
10381.1	0.00564259	2818847
10390.2	0.00606841	2820422
10400.3	0.00650021	2821185
10410.5	0.00688108	2821726
10420.7	0.00720898	2822768
10430.9	0.00748194	2823507
10440	0.00767798	2824245
10450.2	0.00784503	2825045
10460.4	0.00795461	2826192
10470.6	0.00800629	2827324
10480.8	0.00800042	2827660
10491	0.00793912	2828490
10500.1	0.00783896	2828692
10510.2	0.00767436	2828949
10521.1	0.00742985	2828853
10530.2	0.00717344	2828195
10540.4	0.00682604	2828578
10550.6	0.00641623	2827775
10560.7	0.00594934	2827724
10570.8	0.00542034	2827522
10581	0.00483165	2827498
10590.1	0.00426166	2827076
10600.3	0.00357033	2826667
10610.5	0.00282846	2826244
10620.6	0.00203842	2826500
10630.8	0.00120223	2826595
10641	0.000321436	2826608
10651.1	-0.000587251	2827480
10661.1	-0.00153494	2827083
10670.2	-0.00242416	2827758
10680.4	-0.00345979	2827392
10690.6	-0.0045303	2827675
10700.8	-0.00563303	2827207
10711	-0.00676506	2826808
10720	-0.00779335	2827525
10730.2	-0.00897165	2827509
10740.4	-0.0101696	2827848
10750.6	-0.0113836	2828279
10760.8	-0.0126099	2828441
10771	-0.0138446	2828469
10780.1	-0.0149463	2827891
10790.3	-0.0161866	2827666
10800.5	-0.0174242	2827083
10810.7	-0.0186553	2826711
10820.9	-0.019876	2826213
10831.1	-0.0210825	2826734
10840.2	-0.0221402	2826575
10850.4	-0.02331	2826582
10860.6	-0.0244554	2826951
10870.8	-0.025573	2826648
10881	-0.0266598	2826818
10890	-0.0275977	2826454
10900.2	-0.0286185	2826893
10910.4	-0.0296008	2826918
10920.6	-0.0305422	2826443
10930.8	-0.0314407	2825931
10941	-0.0322947	2826064
10950.1	-0.0330151	2826236
10960.3	-0.0337809	2826757
10970.5	-0.0344985	2827452
10980.7	-0.0351673	2827631
10990.9	-0.035787	2827987
11000	-0.0362968	2828982
11010.2	-0.0368242	2829572
11020.5	-0.0373019	2829841
11030.7	-0.0377305	2829984
11041	-0.0381107	2830473
11050.1	-0.038409	2830576
11060.3	-0.0387008	2830937
11070.6	-0.0389478	2830730
11080.8	-0.0391513	2830195
11091.1	-0.039313	2830815
11100.2	-0.0394228	2831148
11110.4	-0.0395099	2831550
11120.7	-0.0395599	2831870
11130.9	-0.0395746	2832515
11140	-0.0395593	2833133
11150.3	-0.0395118	2833307
11160.5	-0.0394338	2833691
11170.8	-0.0393267	2833766
11181	-0.0391921	2833566
11190	-0.0390514	2833626
11200.2	-0.0388707	2834204
11210.9	-0.0386536	2834127
11221	-0.0384268	2834397
11230.9	-0.0381845	2834803
11240.7	-0.0379234	2835300
11250.8	-0.0376359	2836236
11260.9	-0.037329	2837699
11270.9	-0.0370066	2838279
11280.7	-0.0366714	2838703
11290.8	-0.0363088	2838855
11300.9	-0.0359275	2838482
11311	-0.0355276	2837850
11321.1	-0.0351086	2837526
11330.1	-0.0347201	2837308
11340.2	-0.0342646	2837100
11350.3	-0.033789	2836155
11360.4	-0.0332928	2835929
11370.4	-0.0327755	2835330
11380.5	-0.0322364	2835164
11390.7	-0.0316739	2835067
11400.8	-0.0310858	2834839
11411	-0.0304704	2835176
11420.1	-0.0299016	2835296
11430.3	-0.0292373	2835802
11440.5	-0.0285464	2835992
11450.7	-0.0278282	2836773
11461	-0.0270819	2837369
11470	-0.0263944	2837541
11480.3	-0.0255931	2837771
11490.5	-0.0247617	2837884
11500.7	-0.0238991	2837693
11510.9	-0.0230041	2837917
11520.1	-0.0221803	2837795
11530.3	-0.0212231	2838783
11540.5	-0.020233	2838911
11550.8	-0.0192094	2839334
11561	-0.0181522	2839502
11570.2	-0.017184	2839326
11580.4	-0.0160625	2838914
11590.6	-0.0149079	2838917
11600.8	-0.0137238	2839088
11611	-0.0125067	2838427
11620.1	-0.0113968	2838099
11630.3	-0.010117	2837568
11640.5	-0.00880736	2837184
11650.6	-0.00747256	2836618
11660.7	-0.00611528	2835817
11670.7	-0.00473238	2835156
11680.7	-0.0033236	2835259
11690.7	-0.00188812	2834814
11700.7	-0.000426221	2833955
11710.7	0.00106088	2832958
11720.7	0.00257186	2832348
11730.8	0.00410531	2831598
11740.8	0.00565967	2830211
11750.8	0.00723332	2829004
11760.8	0.00882452	2828773
11770.8	0.0104314	2829221
11780.8	0.0120521	2829028
11790.8	0.0136844	2829511
11800.8	0.0153264	2829209
11810.8	0.0169758	2829247
11820.8	0.0186302	2829276
11830.8	0.0202874	2829013
11840.9	0.021945	2829191
11850.9	0.0236003	2828579
11860.9	0.0252525	2828741
11870.9	0.0269021	2827828
11881	0.028544	2827287
11891.1	0.0301731	2826748
11901.1	0.0317869	2825709
11910.1	0.0332083	2825603
11920.2	0.0347892	2824590
11930.3	0.0363502	2824474
11940.4	0.037889	2824279
11950.6	0.0394043	2824185
11960.7	0.0408874	2823310
11970.9	0.0423353	2822644
11981	0.0437469	2822416
11990.1	0.0449692	2821964
12000.2	0.046306	2820936
12010.4	0.0476001	2820712
12020.5	0.0488495	2819925
12030.7	0.0500524	2819296
12040.8	0.0512071	2818340
12051	0.052312	2817989
12060	0.053251	2817481
12070.2	0.0542577	2816460
12080.3	0.0552099	2815539
12090.4	0.056105	2815085
12100.5	0.0569436	2814373
12110.6	0.0577262	2814043
12120.7	0.0584524	2814271
12130.9	0.0591222	2813861
12141	0.0597355	2813988
12151.1	0.0602929	2813342
12160	0.0607417	2813435
12170.1	0.0611951	2813750
12180.3	0.0615947	2813507
12190.4	0.0619419	2813674
12200.5	0.0622378	2813369
12210.6	0.0624839	2814341
12220.7	0.0626816	2813586
12230.8	0.0628324	2813937
12240.9	0.0629377	2814362
12251	0.062999	2813493
12261.1	0.0630176	2814283
12270.1	0.0629994	2814376
12280.2	0.0629412	2814872
12290.3	0.0628442	2813844
12300.4	0.0627097	2813943
12310.5	0.0625389	2813076
12320.6	0.0623331	2812810
12330.7	0.0620935	2811789
12340.8	0.0618211	2811117
12350.9	0.061517	2810367
12361.1	0.061182	2809212
12370.1	0.0608591	2808731
12380.2	0.0604692	2808007
12390.4	0.060052	2807058
12400.5	0.0596086	2805849
12410.7	0.0591395	2804784
12420.9	0.0586446	2803387
12431.1	0.0581243	2801723
12440.2	0.0576412	2800780
12450.4	0.0570767	2799688
12460.5	0.0564954	2798432
12470.6	0.0558979	2797266
12480.6	0.055282	2796037
12490.6	0.0546461	2795147
12500.6	0.0539906	2794806
12510.5	0.0533186	2794274
12520.4	0.0526331	2794548
12530.2	0.0519311	2794610
12540	0.0512116	2795037
12550.9	0.0503907	2795790
12560.7	0.0496328	2796201
12570.5	0.0488569	2796513
12580.4	0.0480633	2797197
12590.2	0.0472524	2798116
12601.1	0.0463312	2798512
12610.9	0.0454844	2799393
12620.7	0.0446212	2800557
12630.5	0.043742	2801294
12640.3	0.0428474	2802142
12650.1	0.0419379	2803276
12661.1	0.0409105	2803899
12670.9	0.0399715	2804029
12680.7	0.0390197	2804119
12690.5	0.038056	2805120
12700.3	0.0370811	2806405
12710.1	0.0360962	2806857
12721	0.0349913	2807962
12730.8	0.0339887	2807949
12740.7	0.0329795	2808080
12750.5	0.0319645	2808736
12760.3	0.0309435	2808615
12770.2	0.0299131	2809003
12780.2	0.0288803	2808913
12790.1	0.0278485	2808557
12800	0.0268193	2808362
12811.1	0.0256784	2807982
12821.1	0.0246518	2807732
12830	0.0237408	2807078
12840.1	0.0227261	2806997
12850.2	0.0217239	2806794
12860.3	0.0207365	2806391
12870.4	0.0197658	2805862
12880.4	0.0188137	2805224
12890.5	0.017886	2805940
12900.5	0.0169866	2805764
12910.4	0.016113	2805437
12920.4	0.0152659	2805798
12930.4	0.0144472	2805802
12940.4	0.013659	2806029
12950.3	0.0129029	2805982
12960.3	0.012181	2806372
12970.3	0.0114949	2807172
12980.2	0.0108473	2807135
12990.1	0.0102443	2807518
13001	0.00962425	2807715
13010.8	0.00911153	2807332
13020.5	0.00864068	2807193
13030.3	0.00821287	2806855
13040.1	0.00782916	2806526
13050.9	0.00745568	2806160
13060.7	0.00716803	2805453
13070.5	0.00692698	2804651
13080.2	0.00673307	2804184
13090	0.00658665	2803369
13100.9	0.00648997	2803024
13110.6	0.00622856	2802292
13120.4	0.00622994	2802153
13130.2	0.00626213	2801778
13141	0.00634105	2801347
13150.8	0.00646126	2800515
13160.6	0.00663377	2799854
13170.3	0.00685925	2798715
13180.1	0.00713516	2797761
13190.9	0.00749499	2797512
13200.6	0.00786062	2797103
13210.3	0.0082671	2796402
13221	0.00877026	2795298
13230.6	0.00925414	2794686
13240.3	0.00976038	2793912
13251	0.0103488	2793094
13260.6	0.010903	2792776
13270.3	0.0114806	2791776
13281	0.0121485	2790958
13290.6	0.0127709	2790207
13300.3	0.0134106	2789730
13311	0.0141379	2788396
13320.6	0.014804	2788067
13330.3	0.0154777	2787135
13341	0.0162313	2786111
13350.6	0.0169111	2786052
13360.3	0.017589	2785615
13371	0.0183367	2785908
13380.6	0.0190014	2785701
13390.3	0.0196554	2786253
13401	0.020366	2786410
13410.6	0.0209881	2786624
13420.3	0.0215913	2786443
13431.1	0.022237	2786496
13440.8	0.022796	2786819
13450.7	0.0233319	2786525
13460.5	0.023836	2786531
13470.4	0.0243049	2786772
13480.2	0.0247374	2787593
13490	0.0251319	2788029
13500.9	0.025534	2787676
13510.8	0.0258855	2786784
13520.6	0.0261708	2786484
13530.4	0.026381	2786119
13540.3	0.0265252	2785753
13550.1	0.0266128	2785463
13561	0.0266507	2785172
13570.8	0.0266333	2784866
13580.7	0.0265663	2783596
13590.5	0.026448	2783844
13600.3	0.0262766	2783138
13610	0.0260506	2782434
13620.9	0.0257335	2781652
13630.7	0.0253875	2781771
13640.4	0.0249834	2781481
13650.2	0.0245213	2780321
13661	0.0239399	2779588
13670.7	0.0233593	2778787
13680.4	0.0227262	2778162
13690	0.0220397	2777598
13700.7	0.0212142	2776721
13710.3	0.0204152	2776628
13721	0.0194666	2775288
13730.6	0.0185594	2775093
13740.2	0.0176028	2774488
13750.9	0.0164838	2773652
13760.5	0.0154279	2773124
13770.2	0.0143273	2772030
13780.8	0.0130542	2771458
13790.5	0.0118651	2770769
13800.1	0.0106371	2769337
13810.8	0.00922941	2768397
13820.4	0.00792585	2767797
13830	0.00658986	2767210
13840.7	0.00507014	2766360
13850.3	0.00367322	2765690
13861	0.00209169	2765202
13870.6	0.000644519	2764932
13880.2	-0.000822982	2764386
13891	-0.00248098	2763233
13900.7	-0.00399757	2762811
13910.4	-0.0055265	2762118
13920.1	-0.00706485	2761792
13931	-0.00878647	2761806
13940.7	-0.0103422	2761159
13950.5	-0.0118985	2760109
13960.3	-0.0134531	2759472
13970.1	-0.0150046	2758929
13980.9	-0.0167228	2758406
13990.8	-0.0182599	2757490
14000.6	-0.0197859	2757620
14010.5	-0.0213044	2756210
14020.4	-0.0228048	2756023
14030.3	-0.0242836	2755889
14040.2	-0.0257385	2755590
14050.1	-0.0271687	2755960
14060	-0.0285723	2754933
14071.1	-0.0300991	2754505
14081.1	-0.0314427	2754512
14091.1	-0.0327548	2753615
14100	-0.0338914	2753237
14110.1	-0.0351319	2752733
14120.1	-0.0363307	2751939
14130.2	-0.0374862	2750759
14140.2	-0.038597	2749958
14150.3	-0.0396619	2748759
14160.3	-0.0406798	2747760
14170.4	-0.0416498	2746945
14180.4	-0.0425713	2746513
14190.5	-0.0434434	2745459
14200.5	-0.044266	2745360
14210.6	-0.0450385	2745169
14220.6	-0.0457611	2744838
14230.7	-0.0464335	2744448
14240.7	-0.0470561	2742965
14250.8	-0.047629	2742461
14260.8	-0.0481527	2741038
14270.9	-0.0486277	2739738
14280.9	-0.0490546	2737890
14291	-0.0494351	2736642
14300	-0.0497346	2736159
14310.2	-0.0500302	2734998
14320.5	-0.0502806	2734251
14330.7	-0.0504857	2732986
14341	-0.0506459	2731786
14350.1	-0.0507515	2731300
14360.4	-0.0508298	2729714
14370.7	-0.0508664	2728861
14381	-0.0508625	2727734
14390.1	-0.0508261	2726541
14400.3	-0.0507495	2725174
14410.5	-0.0506363	2724258
14420.8	-0.0504878	2723781
14431	-0.0503052	2723139
14440.1	-0.0501152	2721733
14450.3	-0.0498716	2720883
14460.5	-0.0495975	2719758
14470.8	-0.0492943	2718371
14481	-0.0489633	2716695
14490.1	-0.0486468	2714488
14500.3	-0.0482667	2712440
14510.5	-0.0478626	2710003
14520.7	-0.0474356	2707508
14531	-0.0469873	2705015
14540	-0.0465719	2702624
14550.3	-0.0460867	2699756
14560.5	-0.0455838	2696711
14570.7	-0.0450647	2693744
14580.9	-0.0445305	2691496
14590	-0.0440439	2688895
14600.2	-0.0434844	2686273
14610.5	-0.0429132	2682906
14620.7	-0.0423313	2680538
14630.9	-0.0417397	2677324
14640	-0.0412056	2674427
14650.2	-0.0405991	2671063
14660.4	-0.0399881	2667786
14670.5	-0.0393724	2664486
14680.6	-0.0387523	2661072
14690.7	-0.0381272	2657647
14700.8	-0.0374976	2655057
14710.9	-0.0368638	2651781
14721	-0.036226	2649791
14731.1	-0.0355846	2646542
14740.1	-0.0350117	2643805
14750.2	-0.0343642	2641279
14760.3	-0.0337137	2637838
14770.4	-0.0330603	2635227
14780.5	-0.0324041	2631692
14790.6	-0.0317452	2627686
14800.7	-0.0310835	2624069
14810.8	-0.0304191	2619689
14820.9	-0.0297539	2615576
14830.9	-0.0290893	2610974
14840.9	-0.0284258	2606152
14850.8	-0.0277619	2601507
14860.7	-0.0270949	2595878
14870.6	-0.026427	2590811
14880.5	-0.0257563	2585125
14890.4	-0.0250825	2579868
14900.2	-0.0244052	2574603
14910.1	-0.0237245	2568885
14921.1	-0.0229639	2563125
14931	-0.0222755	2557935
14940.9	-0.0215835	2552604
14950.7	-0.0208878	2547529
14960.6	-0.0201884	2542333
14970.5	-0.0194853	2537759
14980.4	-0.0187786	2532767
14990.2	-0.0180685	2528070
15000.1	-0.0173549	2522882
15010	-0.0166382	2518211
15021	-0.0158382	2513678
15030.9	-0.0151146	2508704
15040.8	-0.0143855	2504618
15050.8	-0.0136484	2500319
15061	-0.0128986	2495824
15071.1	-0.0121514	2491835
15081.1	-0.0114083	2487192
15091.1	-0.0106676	2483221
15101.1	-0.00992924	2479456
15111	-0.00919269	2475429
15120.9	-0.00846016	2471601
15130.7	-0.00773349	2467543
15140.5	-0.00701277	2463330
15150.3	-0.00629942	2458924
15161	-0.00551529	2454735
15170.7	-0.00481607	2450202
15180.3	-0.00412336	2446128
15191	-0.00336083	2442101
15200.7	-0.00268152	2438246
15210.3	-0.00200949	2434606
15221	-0.00127228	2430582
15230.6	-0.000618237	2427866
15240.3	2.59856e-05	2424435
15251	0.000729217	2420398
15260.6	0.00134984	2417148
15270.2	0.00195786	2413462
15280.9	0.00261754	2409682
15290.5	0.00319595	2406149
15300.2	0.00375909	2401928
15311	0.00436952	2397710
15320.8	0.00490632	2393577
15330.7	0.00542761	2389086
15340.7	0.00593248	2385031
15350.7	0.00641455	2380513
15360.7	0.00687256	2375964
15370.7	0.00730521	2371336
15380.7	0.00771117	2366887
15390.7	0.0080891	2362227
15400.7	0.00843683	2358304
15410.6	0.00875253	2354138
15420.5	0.00903653	2350028
15430.5	0.00928744	2345557
15440.4	0.00950389	2340868
15450.3	0.00968448	2336539
15460.2	0.00982782	2332326
15470.2	0.00993255	2327790
15480.1	0.0099973	2323448
15490	0.0100207	2319396
15501.1	0.00999645	2314610
15511.1	0.00992767	2310133
15521.1	0.0098129	2305386
15531.1	0.00964983	2300678
15540.1	0.00946225	2296857
15550.3	0.00920244	2292119
15560.6	0.00888473	2287309
15570.9	0.00851007	2282492
15580.1	0.00812995	2278570
15590.5	0.00764858	2273536
15600.8	0.00710906	2269200
15611.1	0.00651047	2264103
15620.3	0.00592831	2259453
15630.6	0.0052167	2254865
15641	0.00444501	2249719
15650.2	0.00370882	2244861
15660.5	0.00282466	2239601
15670.8	0.00188236	2234538
15681.1	0.000883531	2229570
15690.3	-5.00438e-05	2224792
15700.7	-0.00114938	2219624
15711	-0.0022981	2214522
15720.2	-0.00335788	2209987
15730.5	-0.00459064	2205666
15740.8	-0.00586866	2201096
15750	-0.00704511	2197214
15760.4	-0.00842098	2192857
15770.8	-0.00986363	2188103
15780.1	-0.011149	2184477
15790.5	-0.012602	2180332
15800.9	-0.0142647	2175691
15810.1	-0.0158826	2171245
15820.4	-0.0176721	2166942
15830.8	-0.0196804	2162695
15841.1	-0.0218478	2158493
15850.3	-0.02412	2154467
15860.7	-0.0267218	2149836
15871	-0.0293156	2145265
15880.2	-0.0315177	2141299
15890.5	-0.0339146	2136422
15900.9	-0.0363382	2131807
15910.1	-0.0385496	2127977
15920.4	-0.0411145	2123656
15930.8	-0.0437512	2119690
15941.1	-0.0464267	2115616
15950.3	-0.0488126	2112397
15960.7	-0.0515013	2108784
15971.1	-0.0542014	2105246
15980.4	-0.0566062	2101470
15991	-0.0593275	2097608
16000.4	-0.0617751	2093484
16011.2	-0.0645704	2089418
16020.8	-0.0670496	2085384
16030.4	-0.0695138	2081494
16040	-0.0719583	2077980
16050.8	-0.0746809	2073746
16060.4	-0.0770814	2069777
16070.1	-0.0794617	2065693
16081.1	-0.0821284	2061386
16091	-0.0845019	2057830
16101	-0.0868547	2053785
16111.1	-0.0891565	2050316
16121.1	-0.0913982	2046929
16131.1	-0.0935703	2043135
16141.1	-0.0956629	2039354
16151.2	-0.0976686	2035345
16161.3	-0.0995863	2031303
16170.2	-0.10119	2027687
16180.4	-0.102918	2023778
16190.6	-0.104517	2020096
16200.8	-0.105977	2015986
16211.1	-0.107289	2011855
16220	-0.108311	2008142
16230.3	-0.109326	2003918
16240.5	-0.110177	1999810
16250.8	-0.110838	1995350
16261	-0.111281	1991396
16270.1	-0.111593	1987562
16280.3	-0.111823	1983406
16290.6	-0.111828	1979260
16300.9	-0.111645	1974519
16311.2	-0.111319	1970220
16320.2	-0.110898	1966528
16330.5	-0.110266	1962431
16340.8	-0.109481	1958338
16351.1	-0.108539	1954569
16360.1	-0.107583	1951084
16370.4	-0.106342	1947214
16380.7	-0.104949	1943437
16391	-0.103403	1939415
16401.3	-0.101701	1936045
16410.3	-0.10008	1932720
16420.5	-0.0980756	1929235
16430.8	-0.0959071	1925626
16441.2	-0.0935807	1922010
16450.2	-0.0914276	1919008
16460.7	-0.0888062	1915299
16471.2	-0.0860409	1911920
16480.7	-0.0834531	1908884
16490.3	-0.0807518	1904933
16501.2	-0.0775572	1901014
16510.8	-0.074679	1897550
16520.4	-0.0717313	1893585
16531.3	-0.0682873	1889780
16540.9	-0.0652131	1885930
16550.5	-0.0620859	1882269
16560.1	-0.0589049	1878305
16571	-0.0551749	1874403
16580.6	-0.051878	1871196
16590.2	-0.0484519	1867371
16601.1	-0.0441467	1863629
16610.7	-0.0377386	1860024
16620.3	-0.0332257	1856957
16631.3	-0.0284751	1853541
16640.8	-0.0244359	1850255
16650.4	-0.0204675	1846995
16660	-0.0164517	1843251
16671	-0.0117952	1839571
16680.5	-0.00788548	1836182
16691.2	-0.00371512	1832696
16700.6	-0.000275197	1829446
16711.3	0.00352297	1825786
16720.6	0.00680706	1822520
16731.2	0.0105349	1819490
16740.5	0.0137308	1816727
16751.2	0.0172334	1813537
16760.4	0.0201284	1810728
16771	0.02325	1807584
16780.3	0.0258466	1805254
16790.8	0.0286872	1802292
16800	0.031058	1799478
16810.5	0.0336108	1796497
16820.9	0.0359693	1793307
16830	0.0378726	1790952
16840.4	0.0400496	1788220
16850.7	0.0419727	1785548
16861.1	0.0435197	1782794
16870.1	0.0447406	1780177
16880.4	0.0455654	1777462
16890.8	0.0465503	1774284
16901.1	0.0474566	1771185
16910.2	0.0479477	1768484
16920.5	0.0484175	1765198
16930.9	0.0488509	1762007
16941.2	0.0492135	1758517
16950.2	0.0494822	1755594
16960.6	0.0497248	1752254
16970.9	0.049864	1748928
16981.3	0.0498978	1745374
16990.3	0.0498528	1742494
17000.7	0.0497315	1739420
17011.2	0.0495384	1735951
17020.3	0.0493099	1733269
17030.8	0.0489802	1730152
17041.2	0.0485802	1727140
17050.4	0.0481762	1724762
17060.9	0.0476569	1722156
17070	0.0471546	1719590
17080.5	0.0465264	1717160
17091	0.0458412	1714094
17100.3	0.0451954	1711510
17110.9	0.0444098	1708449
17120.1	0.0436837	1705757
17130.7	0.0428107	1702986
17140	0.0420115	1700719
17150.7	0.0410589	1697611
17161.3	0.0400695	1694922
17170.6	0.0391767	1692307
17180	0.0382594	1689605
17191	0.0371656	1686340
17201.2	0.036131	1683256
17211.4	0.0350891	1680612
17220	0.03421	1678116
17230	0.0331898	1675756
17240.1	0.0321802	1673137
17250.1	0.031187	1670652
17260.1	0.0302155	1667821
17270.2	0.0292707	1664985
17280.2	0.0283571	1662674
17290.2	0.0274786	1660139
17300.3	0.0266386	1657184
17310.3	0.0258399	1654885
17320.3	0.025085	1652413
17330.4	0.0243758	1649930
17340.5	0.0237096	1647628
17350.7	0.0230828	1645262
17361.2	0.0224973	1643042
17371.6	0.0219653	1640859
17380.3	0.0215627	1638982
17390.8	0.021128	1636681
17401.2	0.0207455	1634719
17411.1	0.0204299	1632835
17421.2	0.020159	1630727
17431.5	0.0199337	1628831
17440.2	0.0197836	1626888
17450.7	0.0196475	1624969
17461.1	0.0195588	1623191
17471.4	0.0195174	1621148
17480	0.019517	1619135
17490.4	0.0195554	1616744
17500.8	0.0196325	1614286
17511.3	0.0197446	1611757
17521.7	0.0198883	1609590
17530.4	0.02003	1607642
17540.8	0.020224	1605680
17551.2	0.020442	1603340
17561.6	0.0206818	1601199
17570.3	0.0208956	1599626
17580.5	0.021165	1597740
17590.9	0.0214542	1595631
17601.3	0.0217582	1593901
17611.6	0.0220726	1591651
17620.3	0.022345	1590156
17630.7	0.0226804	1588111
17641.1	0.0230237	1586209
17651.5	0.0233732	1584875
17660.2	0.0236684	1583107
17670.5	0.0240216	1581239
17680.6	0.0243709	1579746
17690.6	0.0247214	1578227
17700.8	0.0250764	1576465
17711.1	0.0254384	1575081
17721.3	0.0257966	1573877
17731.4	0.0261482	1572322
17741.7	0.0265084	1570874
17750.4	0.0268111	1569334
17760.9	0.027174	1567575
17771.4	0.0275354	1565829
17780.1	0.0278347	1564696
17790.1	0.0281777	1563011
17800.5	0.0285357	1561176
17811	0.028893	1559588
17821.4	0.0292484	1557879
17831.3	0.0295835	1556379
17841.1	0.0299195	1554474
17850.9	0.0302562	1552762
17861	0.0306008	1551149
17871.5	0.0309639	1549506
17880.3	0.0312684	1548201
17890.8	0.0316328	1546703
17901.2	0.032	1545304
17910	0.0323105	1544102
17921.4	0.0327166	1542521
17931.2	0.0330659	1541108
17941.2	0.0334279	1539542
17951.2	0.0337929	1538044
17961.2	0.0341606	1536660
17971.2	0.0345311	1535081
17981.2	0.0349041	1533370
17991.2	0.0352795	1531330
18001.2	0.0356568	1529638
18011.5	0.0360453	1527804
18021.3	0.0364151	1526141
18031.3	0.0367979	1524531
18041.7	0.0371924	1522741
18050.1	0.0375141	1521283
18060.7	0.0379138	1519006
18071.2	0.03831	1517083
18081	0.0386781	1515480
18091.1	0.0390557	1513418
18101.4	0.039437	1511569
18110	0.0397517	1509857
18120.4	0.0401247	1508415
18130.7	0.0404924	1506686
18141	0.0408539	1505203
18151.3	0.0412086	1503825
18160.2	0.0415061	1502469
18170.8	0.0418573	1500852
18181.5	0.0421989	1499133
18190.4	0.0424755	1497580
18201.1	0.0427969	1495986
18211.7	0.043104	1493940
18220.2	0.0433417	1492308
18230.2	0.0436073	1490738
18241.6	0.0438944	1488620
18251.2	0.0441211	1487142
18260.7	0.0443754	1485473
18270.1	0.0445739	1483865
18280.9	0.0447687	1482299
18290.2	0.0449191	1480935
18301.2	0.0450816	1479058
18310.9	0.045211	1477668
18320.6	0.0453276	1476351
18330.4	0.0454309	1475063
18340.2	0.0455169	1473867
18350.1	0.0455838	1472260
18361.5	0.0456362	1470679
18371.3	0.0456582	1469121
18381.5	0.0456585	1467494
18390.1	0.0456406	1466525
18400.4	0.0455981	1465160
18410.4	0.0455345	1463939
18420.3	0.0454494	1462708
18430	0.0453449	1461921
18441.1	0.0451998	1460456
18450.7	0.0450541	1459291
18460.2	0.0448881	1458136
18470.2	0.0446905	1456866
18480.4	0.0444668	1455729
18490.7	0.0442152	1454615
18501	0.0439387	1453316
18511.4	0.043637	1451947
18521.7	0.0433102	1450451
18530.3	0.0430184	1449284
18540.6	0.0426448	1447806
18550.9	0.0422455	1446008
18561.3	0.0418199	1444391
18571.6	0.0413678	1442682
18580.2	0.0409712	1441183
18590.5	0.0404708	1439823
18601.1	0.0399289	1438190
18611.6	0.0393578	1436633
18620.5	0.0388594	1434981
18631	0.0382341	1433078
18641.6	0.0375811	1431311
18650.2	0.037024	1429808
18660.6	0.0363234	1428136
18670.9	0.0356013	1426361
18681	0.0348673	1424988
18691.2	0.0340955	1423660
18701.2	0.0333071	1422339
18711.4	0.0324741	1420802
18720	0.0317473	1419884
18730.4	0.0308437	1419239
18741	0.0298924	1417926
18751.6	0.0289087	1416510
18760.4	0.0280646	1415699
18771	0.0270229	1414398
18781.5	0.02595	1413153
18790.2	0.0250465	1412483
18800.6	0.0239399	1411198
18811.1	0.0227941	1410174
18821.6	0.0216092	1408972
18830.5	0.0206006	1408111
18841	0.0193658	1406933
18851.6	0.0181054	1405439
18860.4	0.0170363	1404262
18871	0.015732	1402903
18881.6	0.0144055	1401517
18890.4	0.0132841	1400247
18901	0.0119206	1398869
18911.5	0.010539	1397779
18920.3	0.00938031	1396853
18930.8	0.00797766	1395393
18941.3	0.00656153	1394030
18950.1	0.00537229	1393042
18960.6	0.00393565	1391512
18971.1	0.00250187	1390309
18981.3	0.00108995	1388995
18991.5	-0.000327286	1387738
19000.1	-0.00152285	1386733
19010.4	-0.00295946	1385481
19020.7	-0.00438785	1384244
19030.9	-0.00581585	1383213
19041.2	-0.00724202	1382131
19051.1	-0.00861346	1381028
19060.8	-0.00996364	1380076
19071.1	-0.0113765	1379246
19081.3	-0.0127821	1378642
19091.6	-0.0141793	1377770
19100.2	-0.0153479	1376974
19110.6	-0.0167493	1376185
19121.1	-0.0181384	1375255
19131.5	-0.019514	1374301
19140.1	-0.0206457	1373402
19150.4	-0.0219732	1372415
19160.6	-0.02327	1371483
19170.6	-0.0245322	1370483
19180.6	-0.0257771	1369365
19190.7	-0.0270168	1368105
19200.9	-0.0282496	1367031
19211.1	-0.0294617	1365981
19221.4	-0.0306521	1364429
19231.6	-0.0318199	1363394
19240.1	-0.0327752	1362318
19250.3	-0.0338994	1361038
19260.6	-0.0349986	1360081
19270.6	-0.0360581	1358988
19280.7	-0.0370863	1358046
19290.8	-0.0380921	1357046
19300.8	-0.039069	1355913
19310.9	-0.0400184	1354663
19320.9	-0.0409393	1353429
19331	-0.0418354	1352488
19341.2	-0.0427053	1351351
19351.4	-0.0435452	1350141
19361.6	-0.0443543	1349022
19370	-0.0450038	1348093
19380.2	-0.0457533	1346998
19390.4	-0.0464651	1346163
19400.4	-0.0471366	1345226
19410.4	-0.0477751	1344319
19420.4	-0.0483802	1343312
19430.6	-0.0489601	1341996
19440.8	-0.0495055	1340945
19450.9	-0.0500152	1339814
19461.1	-0.050489	1338697
19471.3	-0.0509245	1337766
19481.3	-0.0513202	1336959
19491.4	-0.0516839	1336198
19501.6	-0.0520118	1335114
19510.1	-0.0522567	1334302
19520.3	-0.0525163	1333301
19530.4	-0.0527363	1332365
19540.4	-0.0529184	1331313
19550.3	-0.0530623	1330379
19560.3	-0.0531726	1329710
19570.5	-0.0532464	1328848
19580.7	-0.0532821	1328359
19590.9	-0.0532795	1327534
19601.1	-0.0532384	1326941
19611.3	-0.0531587	1326485
19621.4	-0.0530406	1325940
19631.5	-0.0528836	1325505
19640	-0.0527226	1324877
19650.2	-0.0524937	1324405
19660.4	-0.0522264	1323651
19670.5	-0.0519229	1322784
19680.5	-0.0515869	1322037
19690.5	-0.0512156	1321339
19700.7	-0.0508051	1320710
19710.8	-0.0503596	1319839
19721	-0.0498799	1319127
19731.2	-0.0493683	1318328
19741.4	-0.0488262	1317715
19751.5	-0.0482549	1316793
19760	-0.0477575	1316207
19770.2	-0.0471398	1315605
19780.2	-0.0465037	1314795
19790.2	-0.0458447	1314005
19800.2	-0.045164	1313234
19810.4	-0.044452	1312262
19820.6	-0.043721	1311349
19830.7	-0.0429757	1310473
19840.8	-0.0422235	1309688
19850.7	-0.041464	1308770
19860.7	-0.040689	1307948
19870.9	-0.0398921	1307043
19881.1	-0.0390903	1306308
19891.1	-0.0382948	1305397
19901.3	-0.0374812	1304722
19911.2	-0.0366885	1303866
19921.4	-0.0358801	1303058
19931.7	-0.0350653	1302362
19940.3	-0.0343922	1301614
19950.6	-0.0335937	1300970
19960.9	-0.032808	1300387
19970.5	-0.0320909	1299790
19980.6	-0.0313521	1299171
19990.9	-0.0306188	1298656
