Problem size with different number of CPUs using function optimization
THREADS	INITIAL_DEPTH	MTPS	SPEEDUP_PER	TIMESTEPS	TIMESTEP_SIZE	SECONDS_FOR_SIMULATION	AVERAGE_TRIANGLES	AVERAGE_PARTITIONS
64	20	108.936		100	0.000986073	17.6039	1.9177e+07	1162.24
63	20	108.942		100	0.000986073	17.6029	1.9177e+07	1162.24
62	20	108.435		100	0.000986073	17.6852	1.9177e+07	1162.24
61	20	105.941		100	0.000986073	18.1015	1.9177e+07	1162.24
60	20	104.726		100	0.000986073	18.3116	1.9177e+07	1162.24
59	20	104.006		100	0.000986073	18.4384	1.9177e+07	1162.24
58	20	103.819		100	0.000986073	18.4715	1.9177e+07	1162.24
57	20	101.534		100	0.000986073	18.8872	1.9177e+07	1162.24
56	20	99.3345		100	0.000986073	19.3055	1.9177e+07	1162.24
55	20	97.9044		100	0.000986073	19.5875	1.9177e+07	1162.24
54	20	97.4385		100	0.000986073	19.6811	1.9177e+07	1162.24
53	20	95.3673		100	0.000986073	20.1086	1.9177e+07	1162.24
52	20	92.5087		100	0.000986073	20.7299	1.9177e+07	1162.24
51	20	92.8604		100	0.000986073	20.6514	1.9177e+07	1162.24
50	20	89.8813		100	0.000986073	21.3359	1.9177e+07	1162.24
49	20	87.4772		100	0.000986073	21.9223	1.9177e+07	1162.24
48	20	86.1334		100	0.000986073	22.2643	1.9177e+07	1162.24
47	20	83.9208		100	0.000986073	22.8513	1.9177e+07	1162.24
46	20	83.1703		100	0.000986073	23.0575	1.9177e+07	1162.24
45	20	80.2842		100	0.000986073	23.8864	1.9177e+07	1162.24
44	20	80.73		100	0.000986073	23.7545	1.9177e+07	1162.24
43	20	79.516		100	0.000986073	24.1171	1.9177e+07	1162.24
42	20	77.6961		100	0.000986073	24.682	1.9177e+07	1162.24
41	20	75.0276		100	0.000986073	25.5599	1.9177e+07	1162.24
40	20	73.9031		100	0.000986073	25.9488	1.9177e+07	1162.24
39	20	72.4898		100	0.000986073	26.4548	1.9177e+07	1162.24
38	20	70.7345		100	0.000986073	27.1112	1.9177e+07	1162.24
37	20	67.1032		100	0.000986073	28.5783	1.9177e+07	1162.24
36	20	65.4457		100	0.000986073	29.3022	1.9177e+07	1162.24
35	20	63.1943		100	0.000986073	30.3461	1.9177e+07	1162.24
34	20	61.9538		100	0.000986073	30.9537	1.9177e+07	1162.24
33	20	57.9208		100	0.000986073	33.109	1.9177e+07	1162.24
32	20	54.5639		100	0.000986073	35.1459	1.9177e+07	1162.24
31	20	53.5271		100	0.000986073	35.8267	1.9177e+07	1162.24
30	20	52.2516		100	0.000986073	36.7013	1.9177e+07	1162.24
29	20	50.6341		100	0.000986073	37.8737	1.9177e+07	1162.24
28	20	49.2687		100	0.000986073	38.9232	1.9177e+07	1162.24
27	20	48.6015		100	0.000986073	39.4576	1.9177e+07	1162.24
26	20	47.4277		100	0.000986073	40.4342	1.9177e+07	1162.24
25	20	45.655		100	0.000986073	42.0042	1.9177e+07	1162.24
24	20	43.7399		100	0.000986073	43.8433	1.9177e+07	1162.24
23	20	42.3069		100	0.000986073	45.3283	1.9177e+07	1162.24
22	20	41.1725		100	0.000986073	46.5772	1.9177e+07	1162.24
21	20	39.7206		100	0.000986073	48.2798	1.9177e+07	1162.24
20	20	37.1344		100	0.000986073	51.6421	1.9177e+07	1162.24
19	20	36.1044		100	0.000986073	53.1154	1.9177e+07	1162.24
18	20	34.163		100	0.000986073	56.1337	1.9177e+07	1162.24
17	20	32.2767		100	0.000986073	59.4144	1.9177e+07	1162.24
16	20	29.9729		100	0.000986073	63.9811	1.9177e+07	1162.24
15	20	29.0958		100	0.000986073	65.9097	1.9177e+07	1162.24
14	20	28.0606		100	0.000986073	68.3414	1.9177e+07	1162.24
13	20	27.0654		100	0.000986073	70.8542	1.9177e+07	1162.24
12	20	25.9086		100	0.000986073	74.0179	1.9177e+07	1162.24
11	20	24.6143		100	0.000986073	77.9099	1.9177e+07	1162.24
10	20	23.1105		100	0.000986073	82.9795	1.9177e+07	1162.24
9	20	21.1142		100	0.000986073	90.825	1.9177e+07	1162.24
8	20	18.8903		100	0.000986073	101.518	1.9177e+07	1162.24
7	20	17.2118		100	0.000986073	111.418	1.9177e+07	1162.24
6	20	15.4181		100	0.000986073	124.38	1.9177e+07	1162.24
5	20	12.907		100	0.000986073	148.578	1.9177e+07	1162.24
4	20	10.2397		100	0.000986073	187.28	1.9177e+07	1162.24
3	20	8.59755		100	0.000986073	223.052	1.9177e+07	1162.24
2	20	7.00688		100	0.000986073	273.688	1.9177e+07	1162.24
1	20	3.51571	1.0000	100	0.000986073	545.466	1.9177e+07	1162.24
