STARTING WORLD SCHEDULER SERVER
CLIENT SETUP: adding client 41641
 + TIMESTAMP: 0.336265
START TIMESTAMP: 0.336305
+++++++++++++++++++++++++++++++++++++++++++++++++++++++++++
+ Client Mapping:
  > Client 41641 (0):	

+ Core Mapping:	0 0 0 0 0 0 0 0 0 0 0 0 0 0 0 0 0 0 0 0 0 0 0 0 0 0 0 0 0 0 0 0 0 0 0 0 0 0 0 0 
+ Optimal point: 
+++++++++++++++++++++++++++++++++++++++++++++++++++++++++++
INVADE: client 41641
 + TIMESTAMP: 0.336506
RESSOURCE DISTRIBUTION CHANGED
++++++++++++++++++++++++++++++++++++++++++++++++
INVADE (41641)
  + pid: 41641
  + min_cores: 1
  + max_cores: 512
  + scalability graph: 
1, 1.39494, 1.5699, 1.6742, 1.74538, 1.79792, 1.83875, 1.87167, 1.89893, 1.922, 1.94184, 1.95915, 1.97442, 1.98802, 2.00024, 2.0113, 2.02136, 2.03058, 2.03906, 2.04689, 2.05415, 2.06092, 2.06724, 2.07316, 2.07872, 2.08396, 2.0889, 2.09358, 2.09801, 2.10222, 2.10622, 2.11003, 2.11367, 2.11715, 2.12048, 2.12367, 2.12672, 2.12966, 2.13248, 2.1352, 
Number of clients: 1

+++++++++++++++++++++++++++++++++++++++++++++++++++++++++++
+ Client Mapping:
  > Client 41641 (40):	0 1 2 3 4 5 6 7 8 9 10 11 12 13 14 15 16 17 18 19 20 21 22 23 24 25 26 27 28 29 30 31 32 33 34 35 36 37 38 39 

+ Core Mapping:	41641 41641 41641 41641 41641 41641 41641 41641 41641 41641 41641 41641 41641 41641 41641 41641 41641 41641 41641 41641 41641 41641 41641 41641 41641 41641 41641 41641 41641 41641 41641 41641 41641 41641 41641 41641 41641 41641 41641 41641 
+ Optimal point: 40 
+++++++++++++++++++++++++++++++++++++++++++++++++++++++++++
CLIENT SETUP: adding client 41637
 + TIMESTAMP: 0.404296
+++++++++++++++++++++++++++++++++++++++++++++++++++++++++++
+ Client Mapping:
  > Client 41641 (40):	0 1 2 3 4 5 6 7 8 9 10 11 12 13 14 15 16 17 18 19 20 21 22 23 24 25 26 27 28 29 30 31 32 33 34 35 36 37 38 39 
  > Client 41637 (0):	

+ Core Mapping:	41641 41641 41641 41641 41641 41641 41641 41641 41641 41641 41641 41641 41641 41641 41641 41641 41641 41641 41641 41641 41641 41641 41641 41641 41641 41641 41641 41641 41641 41641 41641 41641 41641 41641 41641 41641 41641 41641 41641 41641 
+ Optimal point: 40 
+++++++++++++++++++++++++++++++++++++++++++++++++++++++++++
CLIENT SETUP: adding client 41633
 + TIMESTAMP: 0.404625
+++++++++++++++++++++++++++++++++++++++++++++++++++++++++++
+ Client Mapping:
  > Client 41641 (40):	0 1 2 3 4 5 6 7 8 9 10 11 12 13 14 15 16 17 18 19 20 21 22 23 24 25 26 27 28 29 30 31 32 33 34 35 36 37 38 39 
  > Client 41637 (0):	
  > Client 41633 (0):	

+ Core Mapping:	41641 41641 41641 41641 41641 41641 41641 41641 41641 41641 41641 41641 41641 41641 41641 41641 41641 41641 41641 41641 41641 41641 41641 41641 41641 41641 41641 41641 41641 41641 41641 41641 41641 41641 41641 41641 41641 41641 41641 41641 
+ Optimal point: 40 
+++++++++++++++++++++++++++++++++++++++++++++++++++++++++++
INVADE: client 41633
 + TIMESTAMP: 0.404773
CLIENT SETUP: adding client 41636
 + TIMESTAMP: 0.404867
+++++++++++++++++++++++++++++++++++++++++++++++++++++++++++
+ Client Mapping:
  > Client 41641 (40):	0 1 2 3 4 5 6 7 8 9 10 11 12 13 14 15 16 17 18 19 20 21 22 23 24 25 26 27 28 29 30 31 32 33 34 35 36 37 38 39 
  > Client 41637 (0):	
  > Client 41633 (0):	
  > Client 41636 (0):	

+ Core Mapping:	41641 41641 41641 41641 41641 41641 41641 41641 41641 41641 41641 41641 41641 41641 41641 41641 41641 41641 41641 41641 41641 41641 41641 41641 41641 41641 41641 41641 41641 41641 41641 41641 41641 41641 41641 41641 41641 41641 41641 41641 
+ Optimal point: 1 38 1 
+++++++++++++++++++++++++++++++++++++++++++++++++++++++++++
CLIENT SETUP: adding client 41634
 + TIMESTAMP: 0.404932
+++++++++++++++++++++++++++++++++++++++++++++++++++++++++++
+ Client Mapping:
  > Client 41641 (40):	0 1 2 3 4 5 6 7 8 9 10 11 12 13 14 15 16 17 18 19 20 21 22 23 24 25 26 27 28 29 30 31 32 33 34 35 36 37 38 39 
  > Client 41637 (0):	
  > Client 41633 (0):	
  > Client 41636 (0):	
  > Client 41634 (0):	

+ Core Mapping:	41641 41641 41641 41641 41641 41641 41641 41641 41641 41641 41641 41641 41641 41641 41641 41641 41641 41641 41641 41641 41641 41641 41641 41641 41641 41641 41641 41641 41641 41641 41641 41641 41641 41641 41641 41641 41641 41641 41641 41641 
+ Optimal point: 1 38 1 
+++++++++++++++++++++++++++++++++++++++++++++++++++++++++++
INVADE: client 41636
 + TIMESTAMP: 0.405017
INVADE: client 41634
 + TIMESTAMP: 0.405048
INVADE: client 41637
 + TIMESTAMP: 0.412485
CLIENT SETUP: adding client 41638
 + TIMESTAMP: 0.413804
+++++++++++++++++++++++++++++++++++++++++++++++++++++++++++
+ Client Mapping:
  > Client 41641 (40):	0 1 2 3 4 5 6 7 8 9 10 11 12 13 14 15 16 17 18 19 20 21 22 23 24 25 26 27 28 29 30 31 32 33 34 35 36 37 38 39 
  > Client 41637 (0):	
  > Client 41633 (0):	
  > Client 41636 (0):	
  > Client 41634 (0):	
  > Client 41638 (0):	

+ Core Mapping:	41641 41641 41641 41641 41641 41641 41641 41641 41641 41641 41641 41641 41641 41641 41641 41641 41641 41641 41641 41641 41641 41641 41641 41641 41641 41641 41641 41641 41641 41641 41641 41641 41641 41641 41641 41641 41641 41641 41641 41641 
+ Optimal point: 8 8 8 8 8 
+++++++++++++++++++++++++++++++++++++++++++++++++++++++++++
INVADE: client 41638
 + TIMESTAMP: 0.413926
CLIENT SETUP: adding client 41640
 + TIMESTAMP: 0.415924
+++++++++++++++++++++++++++++++++++++++++++++++++++++++++++
+ Client Mapping:
  > Client 41641 (40):	0 1 2 3 4 5 6 7 8 9 10 11 12 13 14 15 16 17 18 19 20 21 22 23 24 25 26 27 28 29 30 31 32 33 34 35 36 37 38 39 
  > Client 41637 (0):	
  > Client 41633 (0):	
  > Client 41636 (0):	
  > Client 41634 (0):	
  > Client 41638 (0):	
  > Client 41640 (0):	

+ Core Mapping:	41641 41641 41641 41641 41641 41641 41641 41641 41641 41641 41641 41641 41641 41641 41641 41641 41641 41641 41641 41641 41641 41641 41641 41641 41641 41641 41641 41641 41641 41641 41641 41641 41641 41641 41641 41641 41641 41641 41641 41641 
+ Optimal point: 7 7 7 6 6 7 
+++++++++++++++++++++++++++++++++++++++++++++++++++++++++++
INVADE: client 41640
 + TIMESTAMP: 0.416034
CLIENT SETUP: adding client 41639
 + TIMESTAMP: 0.420749
+++++++++++++++++++++++++++++++++++++++++++++++++++++++++++
+ Client Mapping:
  > Client 41641 (40):	0 1 2 3 4 5 6 7 8 9 10 11 12 13 14 15 16 17 18 19 20 21 22 23 24 25 26 27 28 29 30 31 32 33 34 35 36 37 38 39 
  > Client 41637 (0):	
  > Client 41633 (0):	
  > Client 41636 (0):	
  > Client 41634 (0):	
  > Client 41638 (0):	
  > Client 41640 (0):	
  > Client 41639 (0):	

+ Core Mapping:	41641 41641 41641 41641 41641 41641 41641 41641 41641 41641 41641 41641 41641 41641 41641 41641 41641 41641 41641 41641 41641 41641 41641 41641 41641 41641 41641 41641 41641 41641 41641 41641 41641 41641 41641 41641 41641 41641 41641 41641 
+ Optimal point: 6 6 6 6 6 5 5 
+++++++++++++++++++++++++++++++++++++++++++++++++++++++++++
INVADE: client 41639
 + TIMESTAMP: 0.420904
CLIENT SETUP: adding client 41642
 + TIMESTAMP: 0.431149
+++++++++++++++++++++++++++++++++++++++++++++++++++++++++++
+ Client Mapping:
  > Client 41641 (40):	0 1 2 3 4 5 6 7 8 9 10 11 12 13 14 15 16 17 18 19 20 21 22 23 24 25 26 27 28 29 30 31 32 33 34 35 36 37 38 39 
  > Client 41637 (0):	
  > Client 41633 (0):	
  > Client 41636 (0):	
  > Client 41634 (0):	
  > Client 41638 (0):	
  > Client 41640 (0):	
  > Client 41639 (0):	
  > Client 41642 (0):	

+ Core Mapping:	41641 41641 41641 41641 41641 41641 41641 41641 41641 41641 41641 41641 41641 41641 41641 41641 41641 41641 41641 41641 41641 41641 41641 41641 41641 41641 41641 41641 41641 41641 41641 41641 41641 41641 41641 41641 41641 41641 41641 41641 
+ Optimal point: 5 5 5 5 5 5 5 5 
+++++++++++++++++++++++++++++++++++++++++++++++++++++++++++
INVADE: client 41642
 + TIMESTAMP: 0.431479
++++++++++++++++++++++++++++++++++++++++++++++++
 + TIMESTAMP: 0.48024
REINVADE (41641)
  + pid: 41641
  + min_cores: 1
  + max_cores: 512
  + scalability graph: 
1, 1.39494, 1.5699, 1.6742, 1.74538, 1.79792, 1.83875, 1.87167, 1.89893, 1.922, 1.94184, 1.95915, 1.97442, 1.98802, 2.00024, 2.0113, 2.02136, 2.03058, 2.03906, 2.04689, 2.05415, 2.06092, 2.06724, 2.07316, 2.07872, 2.08396, 2.0889, 2.09358, 2.09801, 2.10222, 2.10622, 2.11003, 2.11367, 2.11715, 2.12048, 2.12367, 2.12672, 2.12966, 2.13248, 2.1352, 
Number of clients: 9

+++++++++++++++++++++++++++++++++++++++++++++++++++++++++++
+ Client Mapping:
  > Client 41641 (5):	35 36 37 38 39 
  > Client 41637 (0):	
  > Client 41633 (0):	
  > Client 41636 (0):	
  > Client 41634 (0):	
  > Client 41638 (0):	
  > Client 41640 (0):	
  > Client 41639 (0):	
  > Client 41642 (0):	

+ Core Mapping:	0 0 0 0 0 0 0 0 0 0 0 0 0 0 0 0 0 0 0 0 0 0 0 0 0 0 0 0 0 0 0 0 0 0 0 41641 41641 41641 41641 41641 
+ Optimal point: 5 5 5 5 4 4 4 4 4 
+++++++++++++++++++++++++++++++++++++++++++++++++++++++++++
CLIENT SETUP: adding client 41635
 + TIMESTAMP: 0.524606
+++++++++++++++++++++++++++++++++++++++++++++++++++++++++++
+ Client Mapping:
  > Client 41641 (5):	35 36 37 38 39 
  > Client 41637 (0):	
  > Client 41633 (0):	
  > Client 41636 (0):	
  > Client 41634 (0):	
  > Client 41638 (0):	
  > Client 41640 (0):	
  > Client 41639 (0):	
  > Client 41642 (0):	
  > Client 41635 (0):	

+ Core Mapping:	0 0 0 0 0 0 0 0 0 0 0 0 0 0 0 0 0 0 0 0 0 0 0 0 0 0 0 0 0 0 0 0 0 0 0 41641 41641 41641 41641 41641 
+ Optimal point: 5 5 5 5 4 4 4 4 4 
+++++++++++++++++++++++++++++++++++++++++++++++++++++++++++
INVADE: client 41635
 + TIMESTAMP: 0.52477
RESSOURCE DISTRIBUTION CHANGED
++++++++++++++++++++++++++++++++++++++++++++++++
INVADE (41635)
  + pid: 41635
  + min_cores: 1
  + max_cores: 512
  + scalability graph: 
1, 1.39494, 1.5699, 1.6742, 1.74538, 1.79792, 1.83875, 1.87167, 1.89893, 1.922, 1.94184, 1.95915, 1.97442, 1.98802, 2.00024, 2.0113, 2.02136, 2.03058, 2.03906, 2.04689, 2.05415, 2.06092, 2.06724, 2.07316, 2.07872, 2.08396, 2.0889, 2.09358, 2.09801, 2.10222, 2.10622, 2.11003, 2.11367, 2.11715, 2.12048, 2.12367, 2.12672, 2.12966, 2.13248, 2.1352, 
Number of clients: 10

+++++++++++++++++++++++++++++++++++++++++++++++++++++++++++
+ Client Mapping:
  > Client 41641 (5):	35 36 37 38 39 
  > Client 41637 (0):	
  > Client 41633 (0):	
  > Client 41636 (0):	
  > Client 41634 (0):	
  > Client 41638 (0):	
  > Client 41640 (0):	
  > Client 41639 (0):	
  > Client 41642 (0):	
  > Client 41635 (4):	0 1 2 3 

+ Core Mapping:	41635 41635 41635 41635 0 0 0 0 0 0 0 0 0 0 0 0 0 0 0 0 0 0 0 0 0 0 0 0 0 0 0 0 0 0 0 41641 41641 41641 41641 41641 
+ Optimal point: 4 4 4 4 4 4 4 4 4 4 
+++++++++++++++++++++++++++++++++++++++++++++++++++++++++++
++++++++++++++++++++++++++++++++++++++++++++++++
 + TIMESTAMP: 0.604372
REINVADE (41641)
  + pid: 41641
  + min_cores: 1
  + max_cores: 512
  + scalability graph: 
1, 1.39494, 1.5699, 1.6742, 1.74538, 1.79792, 1.83875, 1.87167, 1.89893, 1.922, 1.94184, 1.95915, 1.97442, 1.98802, 2.00024, 2.0113, 2.02136, 2.03058, 2.03906, 2.04689, 2.05415, 2.06092, 2.06724, 2.07316, 2.07872, 2.08396, 2.0889, 2.09358, 2.09801, 2.10222, 2.10622, 2.11003, 2.11367, 2.11715, 2.12048, 2.12367, 2.12672, 2.12966, 2.13248, 2.1352, 
Number of clients: 10

+++++++++++++++++++++++++++++++++++++++++++++++++++++++++++
+ Client Mapping:
  > Client 41641 (4):	36 37 38 39 
  > Client 41637 (0):	
  > Client 41633 (0):	
  > Client 41636 (0):	
  > Client 41634 (0):	
  > Client 41638 (0):	
  > Client 41640 (0):	
  > Client 41639 (0):	
  > Client 41642 (0):	
  > Client 41635 (4):	0 1 2 3 

+ Core Mapping:	41635 41635 41635 41635 0 0 0 0 0 0 0 0 0 0 0 0 0 0 0 0 0 0 0 0 0 0 0 0 0 0 0 0 0 0 0 0 41641 41641 41641 41641 
+ Optimal point: 4 4 4 4 4 4 4 4 4 4 
+++++++++++++++++++++++++++++++++++++++++++++++++++++++++++
++++++++++++++++++++++++++++++++++++++++++++++++
 + TIMESTAMP: 1.73566
REINVADE (41636)
  + pid: 41636
  + min_cores: 1
  + max_cores: 512
  + scalability graph: 
1, 1.39494, 1.5699, 1.6742, 1.74538, 1.79792, 1.83875, 1.87167, 1.89893, 1.922, 1.94184, 1.95915, 1.97442, 1.98802, 2.00024, 2.0113, 2.02136, 2.03058, 2.03906, 2.04689, 2.05415, 2.06092, 2.06724, 2.07316, 2.07872, 2.08396, 2.0889, 2.09358, 2.09801, 2.10222, 2.10622, 2.11003, 2.11367, 2.11715, 2.12048, 2.12367, 2.12672, 2.12966, 2.13248, 2.1352, 
Number of clients: 10

+++++++++++++++++++++++++++++++++++++++++++++++++++++++++++
+ Client Mapping:
  > Client 41641 (4):	36 37 38 39 
  > Client 41637 (0):	
  > Client 41633 (0):	
  > Client 41636 (4):	4 5 6 7 
  > Client 41634 (0):	
  > Client 41638 (0):	
  > Client 41640 (0):	
  > Client 41639 (0):	
  > Client 41642 (0):	
  > Client 41635 (4):	0 1 2 3 

+ Core Mapping:	41635 41635 41635 41635 41636 41636 41636 41636 0 0 0 0 0 0 0 0 0 0 0 0 0 0 0 0 0 0 0 0 0 0 0 0 0 0 0 0 41641 41641 41641 41641 
+ Optimal point: 4 4 4 4 4 4 4 4 4 4 
+++++++++++++++++++++++++++++++++++++++++++++++++++++++++++
++++++++++++++++++++++++++++++++++++++++++++++++
 + TIMESTAMP: 1.78353
REINVADE (41640)
  + pid: 41640
  + min_cores: 1
  + max_cores: 512
  + scalability graph: 
1, 1.39494, 1.5699, 1.6742, 1.74538, 1.79792, 1.83875, 1.87167, 1.89893, 1.922, 1.94184, 1.95915, 1.97442, 1.98802, 2.00024, 2.0113, 2.02136, 2.03058, 2.03906, 2.04689, 2.05415, 2.06092, 2.06724, 2.07316, 2.07872, 2.08396, 2.0889, 2.09358, 2.09801, 2.10222, 2.10622, 2.11003, 2.11367, 2.11715, 2.12048, 2.12367, 2.12672, 2.12966, 2.13248, 2.1352, 
Number of clients: 10

+++++++++++++++++++++++++++++++++++++++++++++++++++++++++++
+ Client Mapping:
  > Client 41641 (4):	36 37 38 39 
  > Client 41637 (0):	
  > Client 41633 (0):	
  > Client 41636 (4):	4 5 6 7 
  > Client 41634 (0):	
  > Client 41638 (0):	
  > Client 41640 (4):	8 9 10 11 
  > Client 41639 (0):	
  > Client 41642 (0):	
  > Client 41635 (4):	0 1 2 3 

+ Core Mapping:	41635 41635 41635 41635 41636 41636 41636 41636 41640 41640 41640 41640 0 0 0 0 0 0 0 0 0 0 0 0 0 0 0 0 0 0 0 0 0 0 0 0 41641 41641 41641 41641 
+ Optimal point: 4 4 4 4 4 4 4 4 4 4 
+++++++++++++++++++++++++++++++++++++++++++++++++++++++++++
++++++++++++++++++++++++++++++++++++++++++++++++
 + TIMESTAMP: 1.83609
REINVADE (41638)
  + pid: 41638
  + min_cores: 1
  + max_cores: 512
  + scalability graph: 
1, 1.39494, 1.5699, 1.6742, 1.74538, 1.79792, 1.83875, 1.87167, 1.89893, 1.922, 1.94184, 1.95915, 1.97442, 1.98802, 2.00024, 2.0113, 2.02136, 2.03058, 2.03906, 2.04689, 2.05415, 2.06092, 2.06724, 2.07316, 2.07872, 2.08396, 2.0889, 2.09358, 2.09801, 2.10222, 2.10622, 2.11003, 2.11367, 2.11715, 2.12048, 2.12367, 2.12672, 2.12966, 2.13248, 2.1352, 
Number of clients: 10

+++++++++++++++++++++++++++++++++++++++++++++++++++++++++++
+ Client Mapping:
  > Client 41641 (4):	36 37 38 39 
  > Client 41637 (0):	
  > Client 41633 (0):	
  > Client 41636 (4):	4 5 6 7 
  > Client 41634 (0):	
  > Client 41638 (4):	12 13 14 15 
  > Client 41640 (4):	8 9 10 11 
  > Client 41639 (0):	
  > Client 41642 (0):	
  > Client 41635 (4):	0 1 2 3 

+ Core Mapping:	41635 41635 41635 41635 41636 41636 41636 41636 41640 41640 41640 41640 41638 41638 41638 41638 0 0 0 0 0 0 0 0 0 0 0 0 0 0 0 0 0 0 0 0 41641 41641 41641 41641 
+ Optimal point: 4 4 4 4 4 4 4 4 4 4 
+++++++++++++++++++++++++++++++++++++++++++++++++++++++++++
++++++++++++++++++++++++++++++++++++++++++++++++
 + TIMESTAMP: 1.93111
REINVADE (41642)
  + pid: 41642
  + min_cores: 1
  + max_cores: 512
  + scalability graph: 
1, 1.39494, 1.5699, 1.6742, 1.74538, 1.79792, 1.83875, 1.87167, 1.89893, 1.922, 1.94184, 1.95915, 1.97442, 1.98802, 2.00024, 2.0113, 2.02136, 2.03058, 2.03906, 2.04689, 2.05415, 2.06092, 2.06724, 2.07316, 2.07872, 2.08396, 2.0889, 2.09358, 2.09801, 2.10222, 2.10622, 2.11003, 2.11367, 2.11715, 2.12048, 2.12367, 2.12672, 2.12966, 2.13248, 2.1352, 
Number of clients: 10

+++++++++++++++++++++++++++++++++++++++++++++++++++++++++++
+ Client Mapping:
  > Client 41641 (4):	36 37 38 39 
  > Client 41637 (0):	
  > Client 41633 (0):	
  > Client 41636 (4):	4 5 6 7 
  > Client 41634 (0):	
  > Client 41638 (4):	12 13 14 15 
  > Client 41640 (4):	8 9 10 11 
  > Client 41639 (0):	
  > Client 41642 (4):	16 17 18 19 
  > Client 41635 (4):	0 1 2 3 

+ Core Mapping:	41635 41635 41635 41635 41636 41636 41636 41636 41640 41640 41640 41640 41638 41638 41638 41638 41642 41642 41642 41642 0 0 0 0 0 0 0 0 0 0 0 0 0 0 0 0 41641 41641 41641 41641 
+ Optimal point: 4 4 4 4 4 4 4 4 4 4 
+++++++++++++++++++++++++++++++++++++++++++++++++++++++++++
++++++++++++++++++++++++++++++++++++++++++++++++
 + TIMESTAMP: 1.96879
REINVADE (41633)
  + pid: 41633
  + min_cores: 1
  + max_cores: 512
  + scalability graph: 
1, 1.39494, 1.5699, 1.6742, 1.74538, 1.79792, 1.83875, 1.87167, 1.89893, 1.922, 1.94184, 1.95915, 1.97442, 1.98802, 2.00024, 2.0113, 2.02136, 2.03058, 2.03906, 2.04689, 2.05415, 2.06092, 2.06724, 2.07316, 2.07872, 2.08396, 2.0889, 2.09358, 2.09801, 2.10222, 2.10622, 2.11003, 2.11367, 2.11715, 2.12048, 2.12367, 2.12672, 2.12966, 2.13248, 2.1352, 
Number of clients: 10

+++++++++++++++++++++++++++++++++++++++++++++++++++++++++++
+ Client Mapping:
  > Client 41641 (4):	36 37 38 39 
  > Client 41637 (0):	
  > Client 41633 (4):	20 21 22 23 
  > Client 41636 (4):	4 5 6 7 
  > Client 41634 (0):	
  > Client 41638 (4):	12 13 14 15 
  > Client 41640 (4):	8 9 10 11 
  > Client 41639 (0):	
  > Client 41642 (4):	16 17 18 19 
  > Client 41635 (4):	0 1 2 3 

+ Core Mapping:	41635 41635 41635 41635 41636 41636 41636 41636 41640 41640 41640 41640 41638 41638 41638 41638 41642 41642 41642 41642 41633 41633 41633 41633 0 0 0 0 0 0 0 0 0 0 0 0 41641 41641 41641 41641 
+ Optimal point: 4 4 4 4 4 4 4 4 4 4 
+++++++++++++++++++++++++++++++++++++++++++++++++++++++++++
++++++++++++++++++++++++++++++++++++++++++++++++
 + TIMESTAMP: 2.00517
REINVADE (41637)
  + pid: 41637
  + min_cores: 1
  + max_cores: 512
  + scalability graph: 
1, 1.39494, 1.5699, 1.6742, 1.74538, 1.79792, 1.83875, 1.87167, 1.89893, 1.922, 1.94184, 1.95915, 1.97442, 1.98802, 2.00024, 2.0113, 2.02136, 2.03058, 2.03906, 2.04689, 2.05415, 2.06092, 2.06724, 2.07316, 2.07872, 2.08396, 2.0889, 2.09358, 2.09801, 2.10222, 2.10622, 2.11003, 2.11367, 2.11715, 2.12048, 2.12367, 2.12672, 2.12966, 2.13248, 2.1352, 
Number of clients: 10

+++++++++++++++++++++++++++++++++++++++++++++++++++++++++++
+ Client Mapping:
  > Client 41641 (4):	36 37 38 39 
  > Client 41637 (4):	24 25 26 27 
  > Client 41633 (4):	20 21 22 23 
  > Client 41636 (4):	4 5 6 7 
  > Client 41634 (0):	
  > Client 41638 (4):	12 13 14 15 
  > Client 41640 (4):	8 9 10 11 
  > Client 41639 (0):	
  > Client 41642 (4):	16 17 18 19 
  > Client 41635 (4):	0 1 2 3 

+ Core Mapping:	41635 41635 41635 41635 41636 41636 41636 41636 41640 41640 41640 41640 41638 41638 41638 41638 41642 41642 41642 41642 41633 41633 41633 41633 41637 41637 41637 41637 0 0 0 0 0 0 0 0 41641 41641 41641 41641 
+ Optimal point: 4 4 4 4 4 4 4 4 4 4 
+++++++++++++++++++++++++++++++++++++++++++++++++++++++++++
++++++++++++++++++++++++++++++++++++++++++++++++
 + TIMESTAMP: 2.03233
REINVADE (41634)
  + pid: 41634
  + min_cores: 1
  + max_cores: 512
  + scalability graph: 
1, 1.39494, 1.5699, 1.6742, 1.74538, 1.79792, 1.83875, 1.87167, 1.89893, 1.922, 1.94184, 1.95915, 1.97442, 1.98802, 2.00024, 2.0113, 2.02136, 2.03058, 2.03906, 2.04689, 2.05415, 2.06092, 2.06724, 2.07316, 2.07872, 2.08396, 2.0889, 2.09358, 2.09801, 2.10222, 2.10622, 2.11003, 2.11367, 2.11715, 2.12048, 2.12367, 2.12672, 2.12966, 2.13248, 2.1352, 
Number of clients: 10

+++++++++++++++++++++++++++++++++++++++++++++++++++++++++++
+ Client Mapping:
  > Client 41641 (4):	36 37 38 39 
  > Client 41637 (4):	24 25 26 27 
  > Client 41633 (4):	20 21 22 23 
  > Client 41636 (4):	4 5 6 7 
  > Client 41634 (4):	28 29 30 31 
  > Client 41638 (4):	12 13 14 15 
  > Client 41640 (4):	8 9 10 11 
  > Client 41639 (0):	
  > Client 41642 (4):	16 17 18 19 
  > Client 41635 (4):	0 1 2 3 

+ Core Mapping:	41635 41635 41635 41635 41636 41636 41636 41636 41640 41640 41640 41640 41638 41638 41638 41638 41642 41642 41642 41642 41633 41633 41633 41633 41637 41637 41637 41637 41634 41634 41634 41634 0 0 0 0 41641 41641 41641 41641 
+ Optimal point: 4 4 4 4 4 4 4 4 4 4 
+++++++++++++++++++++++++++++++++++++++++++++++++++++++++++
++++++++++++++++++++++++++++++++++++++++++++++++
 + TIMESTAMP: 2.05659
REINVADE (41639)
  + pid: 41639
  + min_cores: 1
  + max_cores: 512
  + scalability graph: 
1, 1.39494, 1.5699, 1.6742, 1.74538, 1.79792, 1.83875, 1.87167, 1.89893, 1.922, 1.94184, 1.95915, 1.97442, 1.98802, 2.00024, 2.0113, 2.02136, 2.03058, 2.03906, 2.04689, 2.05415, 2.06092, 2.06724, 2.07316, 2.07872, 2.08396, 2.0889, 2.09358, 2.09801, 2.10222, 2.10622, 2.11003, 2.11367, 2.11715, 2.12048, 2.12367, 2.12672, 2.12966, 2.13248, 2.1352, 
Number of clients: 10

+++++++++++++++++++++++++++++++++++++++++++++++++++++++++++
+ Client Mapping:
  > Client 41641 (4):	36 37 38 39 
  > Client 41637 (4):	24 25 26 27 
  > Client 41633 (4):	20 21 22 23 
  > Client 41636 (4):	4 5 6 7 
  > Client 41634 (4):	28 29 30 31 
  > Client 41638 (4):	12 13 14 15 
  > Client 41640 (4):	8 9 10 11 
  > Client 41639 (4):	32 33 34 35 
  > Client 41642 (4):	16 17 18 19 
  > Client 41635 (4):	0 1 2 3 

+ Core Mapping:	41635 41635 41635 41635 41636 41636 41636 41636 41640 41640 41640 41640 41638 41638 41638 41638 41642 41642 41642 41642 41633 41633 41633 41633 41637 41637 41637 41637 41634 41634 41634 41634 41639 41639 41639 41639 41641 41641 41641 41641 
+ Optimal point: 4 4 4 4 4 4 4 4 4 4 
+++++++++++++++++++++++++++++++++++++++++++++++++++++++++++
CLIENT SHUTDOWN: client 41642
 + TIMESTAMP: 1787.06
+++++++++++++++++++++++++++++++++++++++++++++++++++++++++++
+ Client Mapping:
  > Client 41641 (4):	36 37 38 39 
  > Client 41637 (4):	24 25 26 27 
  > Client 41633 (4):	20 21 22 23 
  > Client 41636 (4):	4 5 6 7 
  > Client 41634 (4):	28 29 30 31 
  > Client 41638 (4):	12 13 14 15 
  > Client 41640 (4):	8 9 10 11 
  > Client 41639 (4):	32 33 34 35 
  > Client 41642 (0):	
  > Client 41635 (4):	0 1 2 3 

+ Core Mapping:	41635 41635 41635 41635 41636 41636 41636 41636 41640 41640 41640 41640 41638 41638 41638 41638 0 0 0 0 41633 41633 41633 41633 41637 41637 41637 41637 41634 41634 41634 41634 41639 41639 41639 41639 41641 41641 41641 41641 
+ Optimal point: 4 4 4 4 4 4 4 4 4 4 
+++++++++++++++++++++++++++++++++++++++++++++++++++++++++++
client (41642) shutdown hint: 20954.2
sum_client_shutdown_hint: 20954.2
sum_client_shutdown_hint_div_time: 0
++++++++++++++++++++++++++++++++++++++++++++++++
 + TIMESTAMP: 1787.06
REINVADE (41636)
  + pid: 41636
  + min_cores: 1
  + max_cores: 512
  + scalability graph: 
1, 1.39494, 1.5699, 1.6742, 1.74538, 1.79792, 1.83875, 1.87167, 1.89893, 1.922, 1.94184, 1.95915, 1.97442, 1.98802, 2.00024, 2.0113, 2.02136, 2.03058, 2.03906, 2.04689, 2.05415, 2.06092, 2.06724, 2.07316, 2.07872, 2.08396, 2.0889, 2.09358, 2.09801, 2.10222, 2.10622, 2.11003, 2.11367, 2.11715, 2.12048, 2.12367, 2.12672, 2.12966, 2.13248, 2.1352, 
Number of clients: 9

+++++++++++++++++++++++++++++++++++++++++++++++++++++++++++
+ Client Mapping:
  > Client 41641 (4):	36 37 38 39 
  > Client 41637 (4):	24 25 26 27 
  > Client 41633 (4):	20 21 22 23 
  > Client 41636 (5):	4 5 6 7 16 
  > Client 41634 (4):	28 29 30 31 
  > Client 41638 (4):	12 13 14 15 
  > Client 41640 (4):	8 9 10 11 
  > Client 41639 (4):	32 33 34 35 
  > Client 41635 (4):	0 1 2 3 

+ Core Mapping:	41635 41635 41635 41635 41636 41636 41636 41636 41640 41640 41640 41640 41638 41638 41638 41638 41636 0 0 0 41633 41633 41633 41633 41637 41637 41637 41637 41634 41634 41634 41634 41639 41639 41639 41639 41641 41641 41641 41641 
+ Optimal point: 5 5 5 5 4 4 4 4 4 
+++++++++++++++++++++++++++++++++++++++++++++++++++++++++++
++++++++++++++++++++++++++++++++++++++++++++++++
 + TIMESTAMP: 1787.06
REINVADE (41633)
  + pid: 41633
  + min_cores: 1
  + max_cores: 512
  + scalability graph: 
1, 1.39494, 1.5699, 1.6742, 1.74538, 1.79792, 1.83875, 1.87167, 1.89893, 1.922, 1.94184, 1.95915, 1.97442, 1.98802, 2.00024, 2.0113, 2.02136, 2.03058, 2.03906, 2.04689, 2.05415, 2.06092, 2.06724, 2.07316, 2.07872, 2.08396, 2.0889, 2.09358, 2.09801, 2.10222, 2.10622, 2.11003, 2.11367, 2.11715, 2.12048, 2.12367, 2.12672, 2.12966, 2.13248, 2.1352, 
Number of clients: 9

+++++++++++++++++++++++++++++++++++++++++++++++++++++++++++
+ Client Mapping:
  > Client 41641 (4):	36 37 38 39 
  > Client 41637 (4):	24 25 26 27 
  > Client 41633 (5):	20 21 22 23 17 
  > Client 41636 (5):	4 5 6 7 16 
  > Client 41634 (4):	28 29 30 31 
  > Client 41638 (4):	12 13 14 15 
  > Client 41640 (4):	8 9 10 11 
  > Client 41639 (4):	32 33 34 35 
  > Client 41635 (4):	0 1 2 3 

+ Core Mapping:	41635 41635 41635 41635 41636 41636 41636 41636 41640 41640 41640 41640 41638 41638 41638 41638 41636 41633 0 0 41633 41633 41633 41633 41637 41637 41637 41637 41634 41634 41634 41634 41639 41639 41639 41639 41641 41641 41641 41641 
+ Optimal point: 5 5 5 5 4 4 4 4 4 
+++++++++++++++++++++++++++++++++++++++++++++++++++++++++++
++++++++++++++++++++++++++++++++++++++++++++++++
 + TIMESTAMP: 1787.08
REINVADE (41637)
  + pid: 41637
  + min_cores: 1
  + max_cores: 512
  + scalability graph: 
1, 1.39494, 1.5699, 1.6742, 1.74538, 1.79792, 1.83875, 1.87167, 1.89893, 1.922, 1.94184, 1.95915, 1.97442, 1.98802, 2.00024, 2.0113, 2.02136, 2.03058, 2.03906, 2.04689, 2.05415, 2.06092, 2.06724, 2.07316, 2.07872, 2.08396, 2.0889, 2.09358, 2.09801, 2.10222, 2.10622, 2.11003, 2.11367, 2.11715, 2.12048, 2.12367, 2.12672, 2.12966, 2.13248, 2.1352, 
Number of clients: 9

+++++++++++++++++++++++++++++++++++++++++++++++++++++++++++
+ Client Mapping:
  > Client 41641 (4):	36 37 38 39 
  > Client 41637 (5):	24 25 26 27 18 
  > Client 41633 (5):	20 21 22 23 17 
  > Client 41636 (5):	4 5 6 7 16 
  > Client 41634 (4):	28 29 30 31 
  > Client 41638 (4):	12 13 14 15 
  > Client 41640 (4):	8 9 10 11 
  > Client 41639 (4):	32 33 34 35 
  > Client 41635 (4):	0 1 2 3 

+ Core Mapping:	41635 41635 41635 41635 41636 41636 41636 41636 41640 41640 41640 41640 41638 41638 41638 41638 41636 41633 41637 0 41633 41633 41633 41633 41637 41637 41637 41637 41634 41634 41634 41634 41639 41639 41639 41639 41641 41641 41641 41641 
+ Optimal point: 5 5 5 5 4 4 4 4 4 
+++++++++++++++++++++++++++++++++++++++++++++++++++++++++++
++++++++++++++++++++++++++++++++++++++++++++++++
 + TIMESTAMP: 1787.09
REINVADE (41641)
  + pid: 41641
  + min_cores: 1
  + max_cores: 512
  + scalability graph: 
1, 1.39494, 1.5699, 1.6742, 1.74538, 1.79792, 1.83875, 1.87167, 1.89893, 1.922, 1.94184, 1.95915, 1.97442, 1.98802, 2.00024, 2.0113, 2.02136, 2.03058, 2.03906, 2.04689, 2.05415, 2.06092, 2.06724, 2.07316, 2.07872, 2.08396, 2.0889, 2.09358, 2.09801, 2.10222, 2.10622, 2.11003, 2.11367, 2.11715, 2.12048, 2.12367, 2.12672, 2.12966, 2.13248, 2.1352, 
Number of clients: 9

+++++++++++++++++++++++++++++++++++++++++++++++++++++++++++
+ Client Mapping:
  > Client 41641 (5):	36 37 38 39 19 
  > Client 41637 (5):	24 25 26 27 18 
  > Client 41633 (5):	20 21 22 23 17 
  > Client 41636 (5):	4 5 6 7 16 
  > Client 41634 (4):	28 29 30 31 
  > Client 41638 (4):	12 13 14 15 
  > Client 41640 (4):	8 9 10 11 
  > Client 41639 (4):	32 33 34 35 
  > Client 41635 (4):	0 1 2 3 

+ Core Mapping:	41635 41635 41635 41635 41636 41636 41636 41636 41640 41640 41640 41640 41638 41638 41638 41638 41636 41633 41637 41641 41633 41633 41633 41633 41637 41637 41637 41637 41634 41634 41634 41634 41639 41639 41639 41639 41641 41641 41641 41641 
+ Optimal point: 5 5 5 5 4 4 4 4 4 
+++++++++++++++++++++++++++++++++++++++++++++++++++++++++++
CLIENT SHUTDOWN: client 41634
 + TIMESTAMP: 1788.77
+++++++++++++++++++++++++++++++++++++++++++++++++++++++++++
+ Client Mapping:
  > Client 41641 (5):	36 37 38 39 19 
  > Client 41637 (5):	24 25 26 27 18 
  > Client 41633 (5):	20 21 22 23 17 
  > Client 41636 (5):	4 5 6 7 16 
  > Client 41634 (0):	
  > Client 41638 (4):	12 13 14 15 
  > Client 41640 (4):	8 9 10 11 
  > Client 41639 (4):	32 33 34 35 
  > Client 41635 (4):	0 1 2 3 

+ Core Mapping:	41635 41635 41635 41635 41636 41636 41636 41636 41640 41640 41640 41640 41638 41638 41638 41638 41636 41633 41637 41641 41633 41633 41633 41633 41637 41637 41637 41637 0 0 0 0 41639 41639 41639 41639 41641 41641 41641 41641 
+ Optimal point: 5 5 5 5 4 4 4 4 4 
+++++++++++++++++++++++++++++++++++++++++++++++++++++++++++
client (41634) shutdown hint: 20954.2
sum_client_shutdown_hint: 41908.4
sum_client_shutdown_hint_div_time: 0
++++++++++++++++++++++++++++++++++++++++++++++++
 + TIMESTAMP: 1788.78
REINVADE (41635)
  + pid: 41635
  + min_cores: 1
  + max_cores: 512
  + scalability graph: 
1, 1.39494, 1.5699, 1.6742, 1.74538, 1.79792, 1.83875, 1.87167, 1.89893, 1.922, 1.94184, 1.95915, 1.97442, 1.98802, 2.00024, 2.0113, 2.02136, 2.03058, 2.03906, 2.04689, 2.05415, 2.06092, 2.06724, 2.07316, 2.07872, 2.08396, 2.0889, 2.09358, 2.09801, 2.10222, 2.10622, 2.11003, 2.11367, 2.11715, 2.12048, 2.12367, 2.12672, 2.12966, 2.13248, 2.1352, 
Number of clients: 8

+++++++++++++++++++++++++++++++++++++++++++++++++++++++++++
+ Client Mapping:
  > Client 41641 (5):	36 37 38 39 19 
  > Client 41637 (5):	24 25 26 27 18 
  > Client 41633 (5):	20 21 22 23 17 
  > Client 41636 (5):	4 5 6 7 16 
  > Client 41638 (4):	12 13 14 15 
  > Client 41640 (4):	8 9 10 11 
  > Client 41639 (4):	32 33 34 35 
  > Client 41635 (5):	0 1 2 3 28 

+ Core Mapping:	41635 41635 41635 41635 41636 41636 41636 41636 41640 41640 41640 41640 41638 41638 41638 41638 41636 41633 41637 41641 41633 41633 41633 41633 41637 41637 41637 41637 41635 0 0 0 41639 41639 41639 41639 41641 41641 41641 41641 
+ Optimal point: 5 5 5 5 5 5 5 5 
+++++++++++++++++++++++++++++++++++++++++++++++++++++++++++
++++++++++++++++++++++++++++++++++++++++++++++++
 + TIMESTAMP: 1788.78
REINVADE (41640)
  + pid: 41640
  + min_cores: 1
  + max_cores: 512
  + scalability graph: 
1, 1.39494, 1.5699, 1.6742, 1.74538, 1.79792, 1.83875, 1.87167, 1.89893, 1.922, 1.94184, 1.95915, 1.97442, 1.98802, 2.00024, 2.0113, 2.02136, 2.03058, 2.03906, 2.04689, 2.05415, 2.06092, 2.06724, 2.07316, 2.07872, 2.08396, 2.0889, 2.09358, 2.09801, 2.10222, 2.10622, 2.11003, 2.11367, 2.11715, 2.12048, 2.12367, 2.12672, 2.12966, 2.13248, 2.1352, 
Number of clients: 8

+++++++++++++++++++++++++++++++++++++++++++++++++++++++++++
+ Client Mapping:
  > Client 41641 (5):	36 37 38 39 19 
  > Client 41637 (5):	24 25 26 27 18 
  > Client 41633 (5):	20 21 22 23 17 
  > Client 41636 (5):	4 5 6 7 16 
  > Client 41638 (4):	12 13 14 15 
  > Client 41640 (5):	8 9 10 11 29 
  > Client 41639 (4):	32 33 34 35 
  > Client 41635 (5):	0 1 2 3 28 

+ Core Mapping:	41635 41635 41635 41635 41636 41636 41636 41636 41640 41640 41640 41640 41638 41638 41638 41638 41636 41633 41637 41641 41633 41633 41633 41633 41637 41637 41637 41637 41635 41640 0 0 41639 41639 41639 41639 41641 41641 41641 41641 
+ Optimal point: 5 5 5 5 5 5 5 5 
+++++++++++++++++++++++++++++++++++++++++++++++++++++++++++
++++++++++++++++++++++++++++++++++++++++++++++++
 + TIMESTAMP: 1788.8
REINVADE (41639)
  + pid: 41639
  + min_cores: 1
  + max_cores: 512
  + scalability graph: 
1, 1.39494, 1.5699, 1.6742, 1.74538, 1.79792, 1.83875, 1.87167, 1.89893, 1.922, 1.94184, 1.95915, 1.97442, 1.98802, 2.00024, 2.0113, 2.02136, 2.03058, 2.03906, 2.04689, 2.05415, 2.06092, 2.06724, 2.07316, 2.07872, 2.08396, 2.0889, 2.09358, 2.09801, 2.10222, 2.10622, 2.11003, 2.11367, 2.11715, 2.12048, 2.12367, 2.12672, 2.12966, 2.13248, 2.1352, 
Number of clients: 8

+++++++++++++++++++++++++++++++++++++++++++++++++++++++++++
+ Client Mapping:
  > Client 41641 (5):	36 37 38 39 19 
  > Client 41637 (5):	24 25 26 27 18 
  > Client 41633 (5):	20 21 22 23 17 
  > Client 41636 (5):	4 5 6 7 16 
  > Client 41638 (4):	12 13 14 15 
  > Client 41640 (5):	8 9 10 11 29 
  > Client 41639 (5):	32 33 34 35 30 
  > Client 41635 (5):	0 1 2 3 28 

+ Core Mapping:	41635 41635 41635 41635 41636 41636 41636 41636 41640 41640 41640 41640 41638 41638 41638 41638 41636 41633 41637 41641 41633 41633 41633 41633 41637 41637 41637 41637 41635 41640 41639 0 41639 41639 41639 41639 41641 41641 41641 41641 
+ Optimal point: 5 5 5 5 5 5 5 5 
+++++++++++++++++++++++++++++++++++++++++++++++++++++++++++
++++++++++++++++++++++++++++++++++++++++++++++++
 + TIMESTAMP: 1788.81
REINVADE (41638)
  + pid: 41638
  + min_cores: 1
  + max_cores: 512
  + scalability graph: 
1, 1.39494, 1.5699, 1.6742, 1.74538, 1.79792, 1.83875, 1.87167, 1.89893, 1.922, 1.94184, 1.95915, 1.97442, 1.98802, 2.00024, 2.0113, 2.02136, 2.03058, 2.03906, 2.04689, 2.05415, 2.06092, 2.06724, 2.07316, 2.07872, 2.08396, 2.0889, 2.09358, 2.09801, 2.10222, 2.10622, 2.11003, 2.11367, 2.11715, 2.12048, 2.12367, 2.12672, 2.12966, 2.13248, 2.1352, 
Number of clients: 8

+++++++++++++++++++++++++++++++++++++++++++++++++++++++++++
+ Client Mapping:
  > Client 41641 (5):	36 37 38 39 19 
  > Client 41637 (5):	24 25 26 27 18 
  > Client 41633 (5):	20 21 22 23 17 
  > Client 41636 (5):	4 5 6 7 16 
  > Client 41638 (5):	12 13 14 15 31 
  > Client 41640 (5):	8 9 10 11 29 
  > Client 41639 (5):	32 33 34 35 30 
  > Client 41635 (5):	0 1 2 3 28 

+ Core Mapping:	41635 41635 41635 41635 41636 41636 41636 41636 41640 41640 41640 41640 41638 41638 41638 41638 41636 41633 41637 41641 41633 41633 41633 41633 41637 41637 41637 41637 41635 41640 41639 41638 41639 41639 41639 41639 41641 41641 41641 41641 
+ Optimal point: 5 5 5 5 5 5 5 5 
+++++++++++++++++++++++++++++++++++++++++++++++++++++++++++
CLIENT SHUTDOWN: client 41641
 + TIMESTAMP: 1789.75
+++++++++++++++++++++++++++++++++++++++++++++++++++++++++++
+ Client Mapping:
  > Client 41641 (0):	
  > Client 41637 (5):	24 25 26 27 18 
  > Client 41633 (5):	20 21 22 23 17 
  > Client 41636 (5):	4 5 6 7 16 
  > Client 41638 (5):	12 13 14 15 31 
  > Client 41640 (5):	8 9 10 11 29 
  > Client 41639 (5):	32 33 34 35 30 
  > Client 41635 (5):	0 1 2 3 28 

+ Core Mapping:	41635 41635 41635 41635 41636 41636 41636 41636 41640 41640 41640 41640 41638 41638 41638 41638 41636 41633 41637 0 41633 41633 41633 41633 41637 41637 41637 41637 41635 41640 41639 41638 41639 41639 41639 41639 0 0 0 0 
+ Optimal point: 5 5 5 5 5 5 5 5 
+++++++++++++++++++++++++++++++++++++++++++++++++++++++++++
client (41641) shutdown hint: 20954.2
sum_client_shutdown_hint: 62862.6
sum_client_shutdown_hint_div_time: 0
++++++++++++++++++++++++++++++++++++++++++++++++
 + TIMESTAMP: 1789.75
REINVADE (41640)
  + pid: 41640
  + min_cores: 1
  + max_cores: 512
  + scalability graph: 
1, 1.39494, 1.5699, 1.6742, 1.74538, 1.79792, 1.83875, 1.87167, 1.89893, 1.922, 1.94184, 1.95915, 1.97442, 1.98802, 2.00024, 2.0113, 2.02136, 2.03058, 2.03906, 2.04689, 2.05415, 2.06092, 2.06724, 2.07316, 2.07872, 2.08396, 2.0889, 2.09358, 2.09801, 2.10222, 2.10622, 2.11003, 2.11367, 2.11715, 2.12048, 2.12367, 2.12672, 2.12966, 2.13248, 2.1352, 
Number of clients: 7

+++++++++++++++++++++++++++++++++++++++++++++++++++++++++++
+ Client Mapping:
  > Client 41637 (5):	24 25 26 27 18 
  > Client 41633 (5):	20 21 22 23 17 
  > Client 41636 (5):	4 5 6 7 16 
  > Client 41638 (5):	12 13 14 15 31 
  > Client 41640 (6):	8 9 10 11 29 19 
  > Client 41639 (5):	32 33 34 35 30 
  > Client 41635 (5):	0 1 2 3 28 

+ Core Mapping:	41635 41635 41635 41635 41636 41636 41636 41636 41640 41640 41640 41640 41638 41638 41638 41638 41636 41633 41637 41640 41633 41633 41633 41633 41637 41637 41637 41637 41635 41640 41639 41638 41639 41639 41639 41639 0 0 0 0 
+ Optimal point: 6 6 6 6 6 5 5 
+++++++++++++++++++++++++++++++++++++++++++++++++++++++++++
++++++++++++++++++++++++++++++++++++++++++++++++
 + TIMESTAMP: 1789.76
REINVADE (41636)
  + pid: 41636
  + min_cores: 1
  + max_cores: 512
  + scalability graph: 
1, 1.39494, 1.5699, 1.6742, 1.74538, 1.79792, 1.83875, 1.87167, 1.89893, 1.922, 1.94184, 1.95915, 1.97442, 1.98802, 2.00024, 2.0113, 2.02136, 2.03058, 2.03906, 2.04689, 2.05415, 2.06092, 2.06724, 2.07316, 2.07872, 2.08396, 2.0889, 2.09358, 2.09801, 2.10222, 2.10622, 2.11003, 2.11367, 2.11715, 2.12048, 2.12367, 2.12672, 2.12966, 2.13248, 2.1352, 
Number of clients: 7

+++++++++++++++++++++++++++++++++++++++++++++++++++++++++++
+ Client Mapping:
  > Client 41637 (5):	24 25 26 27 18 
  > Client 41633 (5):	20 21 22 23 17 
  > Client 41636 (6):	4 5 6 7 16 36 
  > Client 41638 (5):	12 13 14 15 31 
  > Client 41640 (6):	8 9 10 11 29 19 
  > Client 41639 (5):	32 33 34 35 30 
  > Client 41635 (5):	0 1 2 3 28 

+ Core Mapping:	41635 41635 41635 41635 41636 41636 41636 41636 41640 41640 41640 41640 41638 41638 41638 41638 41636 41633 41637 41640 41633 41633 41633 41633 41637 41637 41637 41637 41635 41640 41639 41638 41639 41639 41639 41639 41636 0 0 0 
+ Optimal point: 6 6 6 6 6 5 5 
+++++++++++++++++++++++++++++++++++++++++++++++++++++++++++
++++++++++++++++++++++++++++++++++++++++++++++++
 + TIMESTAMP: 1789.77
REINVADE (41637)
  + pid: 41637
  + min_cores: 1
  + max_cores: 512
  + scalability graph: 
1, 1.39494, 1.5699, 1.6742, 1.74538, 1.79792, 1.83875, 1.87167, 1.89893, 1.922, 1.94184, 1.95915, 1.97442, 1.98802, 2.00024, 2.0113, 2.02136, 2.03058, 2.03906, 2.04689, 2.05415, 2.06092, 2.06724, 2.07316, 2.07872, 2.08396, 2.0889, 2.09358, 2.09801, 2.10222, 2.10622, 2.11003, 2.11367, 2.11715, 2.12048, 2.12367, 2.12672, 2.12966, 2.13248, 2.1352, 
Number of clients: 7

+++++++++++++++++++++++++++++++++++++++++++++++++++++++++++
+ Client Mapping:
  > Client 41637 (6):	24 25 26 27 18 37 
  > Client 41633 (5):	20 21 22 23 17 
  > Client 41636 (6):	4 5 6 7 16 36 
  > Client 41638 (5):	12 13 14 15 31 
  > Client 41640 (6):	8 9 10 11 29 19 
  > Client 41639 (5):	32 33 34 35 30 
  > Client 41635 (5):	0 1 2 3 28 

+ Core Mapping:	41635 41635 41635 41635 41636 41636 41636 41636 41640 41640 41640 41640 41638 41638 41638 41638 41636 41633 41637 41640 41633 41633 41633 41633 41637 41637 41637 41637 41635 41640 41639 41638 41639 41639 41639 41639 41636 41637 0 0 
+ Optimal point: 6 6 6 6 6 5 5 
+++++++++++++++++++++++++++++++++++++++++++++++++++++++++++
++++++++++++++++++++++++++++++++++++++++++++++++
 + TIMESTAMP: 1789.78
REINVADE (41638)
  + pid: 41638
  + min_cores: 1
  + max_cores: 512
  + scalability graph: 
1, 1.39494, 1.5699, 1.6742, 1.74538, 1.79792, 1.83875, 1.87167, 1.89893, 1.922, 1.94184, 1.95915, 1.97442, 1.98802, 2.00024, 2.0113, 2.02136, 2.03058, 2.03906, 2.04689, 2.05415, 2.06092, 2.06724, 2.07316, 2.07872, 2.08396, 2.0889, 2.09358, 2.09801, 2.10222, 2.10622, 2.11003, 2.11367, 2.11715, 2.12048, 2.12367, 2.12672, 2.12966, 2.13248, 2.1352, 
Number of clients: 7

+++++++++++++++++++++++++++++++++++++++++++++++++++++++++++
+ Client Mapping:
  > Client 41637 (6):	24 25 26 27 18 37 
  > Client 41633 (5):	20 21 22 23 17 
  > Client 41636 (6):	4 5 6 7 16 36 
  > Client 41638 (6):	12 13 14 15 31 38 
  > Client 41640 (6):	8 9 10 11 29 19 
  > Client 41639 (5):	32 33 34 35 30 
  > Client 41635 (5):	0 1 2 3 28 

+ Core Mapping:	41635 41635 41635 41635 41636 41636 41636 41636 41640 41640 41640 41640 41638 41638 41638 41638 41636 41633 41637 41640 41633 41633 41633 41633 41637 41637 41637 41637 41635 41640 41639 41638 41639 41639 41639 41639 41636 41637 41638 0 
+ Optimal point: 6 6 6 6 6 5 5 
+++++++++++++++++++++++++++++++++++++++++++++++++++++++++++
++++++++++++++++++++++++++++++++++++++++++++++++
 + TIMESTAMP: 1789.79
REINVADE (41633)
  + pid: 41633
  + min_cores: 1
  + max_cores: 512
  + scalability graph: 
1, 1.39494, 1.5699, 1.6742, 1.74538, 1.79792, 1.83875, 1.87167, 1.89893, 1.922, 1.94184, 1.95915, 1.97442, 1.98802, 2.00024, 2.0113, 2.02136, 2.03058, 2.03906, 2.04689, 2.05415, 2.06092, 2.06724, 2.07316, 2.07872, 2.08396, 2.0889, 2.09358, 2.09801, 2.10222, 2.10622, 2.11003, 2.11367, 2.11715, 2.12048, 2.12367, 2.12672, 2.12966, 2.13248, 2.1352, 
Number of clients: 7

+++++++++++++++++++++++++++++++++++++++++++++++++++++++++++
+ Client Mapping:
  > Client 41637 (6):	24 25 26 27 18 37 
  > Client 41633 (6):	20 21 22 23 17 39 
  > Client 41636 (6):	4 5 6 7 16 36 
  > Client 41638 (6):	12 13 14 15 31 38 
  > Client 41640 (6):	8 9 10 11 29 19 
  > Client 41639 (5):	32 33 34 35 30 
  > Client 41635 (5):	0 1 2 3 28 

+ Core Mapping:	41635 41635 41635 41635 41636 41636 41636 41636 41640 41640 41640 41640 41638 41638 41638 41638 41636 41633 41637 41640 41633 41633 41633 41633 41637 41637 41637 41637 41635 41640 41639 41638 41639 41639 41639 41639 41636 41637 41638 41633 
+ Optimal point: 6 6 6 6 6 5 5 
+++++++++++++++++++++++++++++++++++++++++++++++++++++++++++
CLIENT SHUTDOWN: client 41637
 + TIMESTAMP: 1790.14
+++++++++++++++++++++++++++++++++++++++++++++++++++++++++++
+ Client Mapping:
  > Client 41637 (0):	
  > Client 41633 (6):	20 21 22 23 17 39 
  > Client 41636 (6):	4 5 6 7 16 36 
  > Client 41638 (6):	12 13 14 15 31 38 
  > Client 41640 (6):	8 9 10 11 29 19 
  > Client 41639 (5):	32 33 34 35 30 
  > Client 41635 (5):	0 1 2 3 28 

+ Core Mapping:	41635 41635 41635 41635 41636 41636 41636 41636 41640 41640 41640 41640 41638 41638 41638 41638 41636 41633 0 41640 41633 41633 41633 41633 0 0 0 0 41635 41640 41639 41638 41639 41639 41639 41639 41636 0 41638 41633 
+ Optimal point: 6 6 6 6 6 5 5 
+++++++++++++++++++++++++++++++++++++++++++++++++++++++++++
client (41637) shutdown hint: 20954.2
sum_client_shutdown_hint: 83816.8
sum_client_shutdown_hint_div_time: 0
++++++++++++++++++++++++++++++++++++++++++++++++
 + TIMESTAMP: 1790.15
REINVADE (41635)
  + pid: 41635
  + min_cores: 1
  + max_cores: 512
  + scalability graph: 
1, 1.39494, 1.5699, 1.6742, 1.74538, 1.79792, 1.83875, 1.87167, 1.89893, 1.922, 1.94184, 1.95915, 1.97442, 1.98802, 2.00024, 2.0113, 2.02136, 2.03058, 2.03906, 2.04689, 2.05415, 2.06092, 2.06724, 2.07316, 2.07872, 2.08396, 2.0889, 2.09358, 2.09801, 2.10222, 2.10622, 2.11003, 2.11367, 2.11715, 2.12048, 2.12367, 2.12672, 2.12966, 2.13248, 2.1352, 
Number of clients: 6

+++++++++++++++++++++++++++++++++++++++++++++++++++++++++++
+ Client Mapping:
  > Client 41633 (6):	20 21 22 23 17 39 
  > Client 41636 (6):	4 5 6 7 16 36 
  > Client 41638 (6):	12 13 14 15 31 38 
  > Client 41640 (6):	8 9 10 11 29 19 
  > Client 41639 (5):	32 33 34 35 30 
  > Client 41635 (7):	0 1 2 3 28 18 24 

+ Core Mapping:	41635 41635 41635 41635 41636 41636 41636 41636 41640 41640 41640 41640 41638 41638 41638 41638 41636 41633 41635 41640 41633 41633 41633 41633 41635 0 0 0 41635 41640 41639 41638 41639 41639 41639 41639 41636 0 41638 41633 
+ Optimal point: 7 7 7 6 6 7 
+++++++++++++++++++++++++++++++++++++++++++++++++++++++++++
++++++++++++++++++++++++++++++++++++++++++++++++
 + TIMESTAMP: 1790.16
REINVADE (41639)
  + pid: 41639
  + min_cores: 1
  + max_cores: 512
  + scalability graph: 
1, 1.39494, 1.5699, 1.6742, 1.74538, 1.79792, 1.83875, 1.87167, 1.89893, 1.922, 1.94184, 1.95915, 1.97442, 1.98802, 2.00024, 2.0113, 2.02136, 2.03058, 2.03906, 2.04689, 2.05415, 2.06092, 2.06724, 2.07316, 2.07872, 2.08396, 2.0889, 2.09358, 2.09801, 2.10222, 2.10622, 2.11003, 2.11367, 2.11715, 2.12048, 2.12367, 2.12672, 2.12966, 2.13248, 2.1352, 
Number of clients: 6

+++++++++++++++++++++++++++++++++++++++++++++++++++++++++++
+ Client Mapping:
  > Client 41633 (6):	20 21 22 23 17 39 
  > Client 41636 (6):	4 5 6 7 16 36 
  > Client 41638 (6):	12 13 14 15 31 38 
  > Client 41640 (6):	8 9 10 11 29 19 
  > Client 41639 (6):	32 33 34 35 30 25 
  > Client 41635 (7):	0 1 2 3 28 18 24 

+ Core Mapping:	41635 41635 41635 41635 41636 41636 41636 41636 41640 41640 41640 41640 41638 41638 41638 41638 41636 41633 41635 41640 41633 41633 41633 41633 41635 41639 0 0 41635 41640 41639 41638 41639 41639 41639 41639 41636 0 41638 41633 
+ Optimal point: 7 7 7 6 6 7 
+++++++++++++++++++++++++++++++++++++++++++++++++++++++++++
++++++++++++++++++++++++++++++++++++++++++++++++
 + TIMESTAMP: 1790.17
REINVADE (41636)
  + pid: 41636
  + min_cores: 1
  + max_cores: 512
  + scalability graph: 
1, 1.39494, 1.5699, 1.6742, 1.74538, 1.79792, 1.83875, 1.87167, 1.89893, 1.922, 1.94184, 1.95915, 1.97442, 1.98802, 2.00024, 2.0113, 2.02136, 2.03058, 2.03906, 2.04689, 2.05415, 2.06092, 2.06724, 2.07316, 2.07872, 2.08396, 2.0889, 2.09358, 2.09801, 2.10222, 2.10622, 2.11003, 2.11367, 2.11715, 2.12048, 2.12367, 2.12672, 2.12966, 2.13248, 2.1352, 
Number of clients: 6

+++++++++++++++++++++++++++++++++++++++++++++++++++++++++++
+ Client Mapping:
  > Client 41633 (6):	20 21 22 23 17 39 
  > Client 41636 (7):	4 5 6 7 16 36 26 
  > Client 41638 (6):	12 13 14 15 31 38 
  > Client 41640 (6):	8 9 10 11 29 19 
  > Client 41639 (6):	32 33 34 35 30 25 
  > Client 41635 (7):	0 1 2 3 28 18 24 

+ Core Mapping:	41635 41635 41635 41635 41636 41636 41636 41636 41640 41640 41640 41640 41638 41638 41638 41638 41636 41633 41635 41640 41633 41633 41633 41633 41635 41639 41636 0 41635 41640 41639 41638 41639 41639 41639 41639 41636 0 41638 41633 
+ Optimal point: 7 7 7 6 6 7 
+++++++++++++++++++++++++++++++++++++++++++++++++++++++++++
++++++++++++++++++++++++++++++++++++++++++++++++
 + TIMESTAMP: 1790.17
REINVADE (41633)
  + pid: 41633
  + min_cores: 1
  + max_cores: 512
  + scalability graph: 
1, 1.39494, 1.5699, 1.6742, 1.74538, 1.79792, 1.83875, 1.87167, 1.89893, 1.922, 1.94184, 1.95915, 1.97442, 1.98802, 2.00024, 2.0113, 2.02136, 2.03058, 2.03906, 2.04689, 2.05415, 2.06092, 2.06724, 2.07316, 2.07872, 2.08396, 2.0889, 2.09358, 2.09801, 2.10222, 2.10622, 2.11003, 2.11367, 2.11715, 2.12048, 2.12367, 2.12672, 2.12966, 2.13248, 2.1352, 
Number of clients: 6

+++++++++++++++++++++++++++++++++++++++++++++++++++++++++++
+ Client Mapping:
  > Client 41633 (7):	20 21 22 23 17 39 27 
  > Client 41636 (7):	4 5 6 7 16 36 26 
  > Client 41638 (6):	12 13 14 15 31 38 
  > Client 41640 (6):	8 9 10 11 29 19 
  > Client 41639 (6):	32 33 34 35 30 25 
  > Client 41635 (7):	0 1 2 3 28 18 24 

+ Core Mapping:	41635 41635 41635 41635 41636 41636 41636 41636 41640 41640 41640 41640 41638 41638 41638 41638 41636 41633 41635 41640 41633 41633 41633 41633 41635 41639 41636 41633 41635 41640 41639 41638 41639 41639 41639 41639 41636 0 41638 41633 
+ Optimal point: 7 7 7 6 6 7 
+++++++++++++++++++++++++++++++++++++++++++++++++++++++++++
++++++++++++++++++++++++++++++++++++++++++++++++
 + TIMESTAMP: 1790.18
REINVADE (41638)
  + pid: 41638
  + min_cores: 1
  + max_cores: 512
  + scalability graph: 
1, 1.39494, 1.5699, 1.6742, 1.74538, 1.79792, 1.83875, 1.87167, 1.89893, 1.922, 1.94184, 1.95915, 1.97442, 1.98802, 2.00024, 2.0113, 2.02136, 2.03058, 2.03906, 2.04689, 2.05415, 2.06092, 2.06724, 2.07316, 2.07872, 2.08396, 2.0889, 2.09358, 2.09801, 2.10222, 2.10622, 2.11003, 2.11367, 2.11715, 2.12048, 2.12367, 2.12672, 2.12966, 2.13248, 2.1352, 
Number of clients: 6

+++++++++++++++++++++++++++++++++++++++++++++++++++++++++++
+ Client Mapping:
  > Client 41633 (7):	20 21 22 23 17 39 27 
  > Client 41636 (7):	4 5 6 7 16 36 26 
  > Client 41638 (7):	12 13 14 15 31 38 37 
  > Client 41640 (6):	8 9 10 11 29 19 
  > Client 41639 (6):	32 33 34 35 30 25 
  > Client 41635 (7):	0 1 2 3 28 18 24 

+ Core Mapping:	41635 41635 41635 41635 41636 41636 41636 41636 41640 41640 41640 41640 41638 41638 41638 41638 41636 41633 41635 41640 41633 41633 41633 41633 41635 41639 41636 41633 41635 41640 41639 41638 41639 41639 41639 41639 41636 41638 41638 41633 
+ Optimal point: 7 7 7 6 6 7 
+++++++++++++++++++++++++++++++++++++++++++++++++++++++++++
CLIENT SHUTDOWN: client 41636
 + TIMESTAMP: 1793.35
+++++++++++++++++++++++++++++++++++++++++++++++++++++++++++
+ Client Mapping:
  > Client 41633 (7):	20 21 22 23 17 39 27 
  > Client 41636 (0):	
  > Client 41638 (7):	12 13 14 15 31 38 37 
  > Client 41640 (6):	8 9 10 11 29 19 
  > Client 41639 (6):	32 33 34 35 30 25 
  > Client 41635 (7):	0 1 2 3 28 18 24 

+ Core Mapping:	41635 41635 41635 41635 0 0 0 0 41640 41640 41640 41640 41638 41638 41638 41638 0 41633 41635 41640 41633 41633 41633 41633 41635 41639 0 41633 41635 41640 41639 41638 41639 41639 41639 41639 0 41638 41638 41633 
+ Optimal point: 7 7 7 6 6 7 
+++++++++++++++++++++++++++++++++++++++++++++++++++++++++++
client (41636) shutdown hint: 20954.2
sum_client_shutdown_hint: 104771
sum_client_shutdown_hint_div_time: 0
++++++++++++++++++++++++++++++++++++++++++++++++
 + TIMESTAMP: 1793.36
REINVADE (41638)
  + pid: 41638
  + min_cores: 1
  + max_cores: 512
  + scalability graph: 
1, 1.39494, 1.5699, 1.6742, 1.74538, 1.79792, 1.83875, 1.87167, 1.89893, 1.922, 1.94184, 1.95915, 1.97442, 1.98802, 2.00024, 2.0113, 2.02136, 2.03058, 2.03906, 2.04689, 2.05415, 2.06092, 2.06724, 2.07316, 2.07872, 2.08396, 2.0889, 2.09358, 2.09801, 2.10222, 2.10622, 2.11003, 2.11367, 2.11715, 2.12048, 2.12367, 2.12672, 2.12966, 2.13248, 2.1352, 
Number of clients: 5

+++++++++++++++++++++++++++++++++++++++++++++++++++++++++++
+ Client Mapping:
  > Client 41633 (7):	20 21 22 23 17 39 27 
  > Client 41638 (8):	12 13 14 15 31 38 37 4 
  > Client 41640 (6):	8 9 10 11 29 19 
  > Client 41639 (6):	32 33 34 35 30 25 
  > Client 41635 (7):	0 1 2 3 28 18 24 

+ Core Mapping:	41635 41635 41635 41635 41638 0 0 0 41640 41640 41640 41640 41638 41638 41638 41638 0 41633 41635 41640 41633 41633 41633 41633 41635 41639 0 41633 41635 41640 41639 41638 41639 41639 41639 41639 0 41638 41638 41633 
+ Optimal point: 8 8 8 8 8 
+++++++++++++++++++++++++++++++++++++++++++++++++++++++++++
++++++++++++++++++++++++++++++++++++++++++++++++
 + TIMESTAMP: 1793.37
REINVADE (41640)
  + pid: 41640
  + min_cores: 1
  + max_cores: 512
  + scalability graph: 
1, 1.39494, 1.5699, 1.6742, 1.74538, 1.79792, 1.83875, 1.87167, 1.89893, 1.922, 1.94184, 1.95915, 1.97442, 1.98802, 2.00024, 2.0113, 2.02136, 2.03058, 2.03906, 2.04689, 2.05415, 2.06092, 2.06724, 2.07316, 2.07872, 2.08396, 2.0889, 2.09358, 2.09801, 2.10222, 2.10622, 2.11003, 2.11367, 2.11715, 2.12048, 2.12367, 2.12672, 2.12966, 2.13248, 2.1352, 
Number of clients: 5

+++++++++++++++++++++++++++++++++++++++++++++++++++++++++++
+ Client Mapping:
  > Client 41633 (7):	20 21 22 23 17 39 27 
  > Client 41638 (8):	12 13 14 15 31 38 37 4 
  > Client 41640 (8):	8 9 10 11 29 19 5 6 
  > Client 41639 (6):	32 33 34 35 30 25 
  > Client 41635 (7):	0 1 2 3 28 18 24 

+ Core Mapping:	41635 41635 41635 41635 41638 41640 41640 0 41640 41640 41640 41640 41638 41638 41638 41638 0 41633 41635 41640 41633 41633 41633 41633 41635 41639 0 41633 41635 41640 41639 41638 41639 41639 41639 41639 0 41638 41638 41633 
+ Optimal point: 8 8 8 8 8 
+++++++++++++++++++++++++++++++++++++++++++++++++++++++++++
++++++++++++++++++++++++++++++++++++++++++++++++
 + TIMESTAMP: 1793.38
REINVADE (41635)
  + pid: 41635
  + min_cores: 1
  + max_cores: 512
  + scalability graph: 
1, 1.39494, 1.5699, 1.6742, 1.74538, 1.79792, 1.83875, 1.87167, 1.89893, 1.922, 1.94184, 1.95915, 1.97442, 1.98802, 2.00024, 2.0113, 2.02136, 2.03058, 2.03906, 2.04689, 2.05415, 2.06092, 2.06724, 2.07316, 2.07872, 2.08396, 2.0889, 2.09358, 2.09801, 2.10222, 2.10622, 2.11003, 2.11367, 2.11715, 2.12048, 2.12367, 2.12672, 2.12966, 2.13248, 2.1352, 
Number of clients: 5

+++++++++++++++++++++++++++++++++++++++++++++++++++++++++++
+ Client Mapping:
  > Client 41633 (7):	20 21 22 23 17 39 27 
  > Client 41638 (8):	12 13 14 15 31 38 37 4 
  > Client 41640 (8):	8 9 10 11 29 19 5 6 
  > Client 41639 (6):	32 33 34 35 30 25 
  > Client 41635 (8):	0 1 2 3 28 18 24 7 

+ Core Mapping:	41635 41635 41635 41635 41638 41640 41640 41635 41640 41640 41640 41640 41638 41638 41638 41638 0 41633 41635 41640 41633 41633 41633 41633 41635 41639 0 41633 41635 41640 41639 41638 41639 41639 41639 41639 0 41638 41638 41633 
+ Optimal point: 8 8 8 8 8 
+++++++++++++++++++++++++++++++++++++++++++++++++++++++++++
++++++++++++++++++++++++++++++++++++++++++++++++
 + TIMESTAMP: 1793.38
REINVADE (41639)
  + pid: 41639
  + min_cores: 1
  + max_cores: 512
  + scalability graph: 
1, 1.39494, 1.5699, 1.6742, 1.74538, 1.79792, 1.83875, 1.87167, 1.89893, 1.922, 1.94184, 1.95915, 1.97442, 1.98802, 2.00024, 2.0113, 2.02136, 2.03058, 2.03906, 2.04689, 2.05415, 2.06092, 2.06724, 2.07316, 2.07872, 2.08396, 2.0889, 2.09358, 2.09801, 2.10222, 2.10622, 2.11003, 2.11367, 2.11715, 2.12048, 2.12367, 2.12672, 2.12966, 2.13248, 2.1352, 
Number of clients: 5

+++++++++++++++++++++++++++++++++++++++++++++++++++++++++++
+ Client Mapping:
  > Client 41633 (7):	20 21 22 23 17 39 27 
  > Client 41638 (8):	12 13 14 15 31 38 37 4 
  > Client 41640 (8):	8 9 10 11 29 19 5 6 
  > Client 41639 (8):	32 33 34 35 30 25 16 26 
  > Client 41635 (8):	0 1 2 3 28 18 24 7 

+ Core Mapping:	41635 41635 41635 41635 41638 41640 41640 41635 41640 41640 41640 41640 41638 41638 41638 41638 41639 41633 41635 41640 41633 41633 41633 41633 41635 41639 41639 41633 41635 41640 41639 41638 41639 41639 41639 41639 0 41638 41638 41633 
+ Optimal point: 8 8 8 8 8 
+++++++++++++++++++++++++++++++++++++++++++++++++++++++++++
++++++++++++++++++++++++++++++++++++++++++++++++
 + TIMESTAMP: 1793.38
REINVADE (41633)
  + pid: 41633
  + min_cores: 1
  + max_cores: 512
  + scalability graph: 
1, 1.39494, 1.5699, 1.6742, 1.74538, 1.79792, 1.83875, 1.87167, 1.89893, 1.922, 1.94184, 1.95915, 1.97442, 1.98802, 2.00024, 2.0113, 2.02136, 2.03058, 2.03906, 2.04689, 2.05415, 2.06092, 2.06724, 2.07316, 2.07872, 2.08396, 2.0889, 2.09358, 2.09801, 2.10222, 2.10622, 2.11003, 2.11367, 2.11715, 2.12048, 2.12367, 2.12672, 2.12966, 2.13248, 2.1352, 
Number of clients: 5

+++++++++++++++++++++++++++++++++++++++++++++++++++++++++++
+ Client Mapping:
  > Client 41633 (8):	20 21 22 23 17 39 27 36 
  > Client 41638 (8):	12 13 14 15 31 38 37 4 
  > Client 41640 (8):	8 9 10 11 29 19 5 6 
  > Client 41639 (8):	32 33 34 35 30 25 16 26 
  > Client 41635 (8):	0 1 2 3 28 18 24 7 

+ Core Mapping:	41635 41635 41635 41635 41638 41640 41640 41635 41640 41640 41640 41640 41638 41638 41638 41638 41639 41633 41635 41640 41633 41633 41633 41633 41635 41639 41639 41633 41635 41640 41639 41638 41639 41639 41639 41639 41633 41638 41638 41633 
+ Optimal point: 8 8 8 8 8 
+++++++++++++++++++++++++++++++++++++++++++++++++++++++++++
CLIENT SHUTDOWN: client 41639
 + TIMESTAMP: 1815.41
+++++++++++++++++++++++++++++++++++++++++++++++++++++++++++
+ Client Mapping:
  > Client 41633 (8):	20 21 22 23 17 39 27 36 
  > Client 41638 (8):	12 13 14 15 31 38 37 4 
  > Client 41640 (8):	8 9 10 11 29 19 5 6 
  > Client 41639 (0):	
  > Client 41635 (8):	0 1 2 3 28 18 24 7 

+ Core Mapping:	41635 41635 41635 41635 41638 41640 41640 41635 41640 41640 41640 41640 41638 41638 41638 41638 0 41633 41635 41640 41633 41633 41633 41633 41635 0 0 41633 41635 41640 0 41638 0 0 0 0 41633 41638 41638 41633 
+ Optimal point: 8 8 8 8 8 
+++++++++++++++++++++++++++++++++++++++++++++++++++++++++++
client (41639) shutdown hint: 20954.2
sum_client_shutdown_hint: 125725
sum_client_shutdown_hint_div_time: 0
++++++++++++++++++++++++++++++++++++++++++++++++
 + TIMESTAMP: 1815.41
REINVADE (41633)
  + pid: 41633
  + min_cores: 1
  + max_cores: 512
  + scalability graph: 
1, 1.39494, 1.5699, 1.6742, 1.74538, 1.79792, 1.83875, 1.87167, 1.89893, 1.922, 1.94184, 1.95915, 1.97442, 1.98802, 2.00024, 2.0113, 2.02136, 2.03058, 2.03906, 2.04689, 2.05415, 2.06092, 2.06724, 2.07316, 2.07872, 2.08396, 2.0889, 2.09358, 2.09801, 2.10222, 2.10622, 2.11003, 2.11367, 2.11715, 2.12048, 2.12367, 2.12672, 2.12966, 2.13248, 2.1352, 
Number of clients: 4

+++++++++++++++++++++++++++++++++++++++++++++++++++++++++++
+ Client Mapping:
  > Client 41633 (10):	20 21 22 23 17 39 27 36 16 25 
  > Client 41638 (8):	12 13 14 15 31 38 37 4 
  > Client 41640 (8):	8 9 10 11 29 19 5 6 
  > Client 41635 (8):	0 1 2 3 28 18 24 7 

+ Core Mapping:	41635 41635 41635 41635 41638 41640 41640 41635 41640 41640 41640 41640 41638 41638 41638 41638 41633 41633 41635 41640 41633 41633 41633 41633 41635 41633 0 41633 41635 41640 0 41638 0 0 0 0 41633 41638 41638 41633 
+ Optimal point: 10 10 10 10 
+++++++++++++++++++++++++++++++++++++++++++++++++++++++++++
++++++++++++++++++++++++++++++++++++++++++++++++
 + TIMESTAMP: 1815.42
REINVADE (41640)
  + pid: 41640
  + min_cores: 1
  + max_cores: 512
  + scalability graph: 
1, 1.39494, 1.5699, 1.6742, 1.74538, 1.79792, 1.83875, 1.87167, 1.89893, 1.922, 1.94184, 1.95915, 1.97442, 1.98802, 2.00024, 2.0113, 2.02136, 2.03058, 2.03906, 2.04689, 2.05415, 2.06092, 2.06724, 2.07316, 2.07872, 2.08396, 2.0889, 2.09358, 2.09801, 2.10222, 2.10622, 2.11003, 2.11367, 2.11715, 2.12048, 2.12367, 2.12672, 2.12966, 2.13248, 2.1352, 
Number of clients: 4

+++++++++++++++++++++++++++++++++++++++++++++++++++++++++++
+ Client Mapping:
  > Client 41633 (10):	20 21 22 23 17 39 27 36 16 25 
  > Client 41638 (8):	12 13 14 15 31 38 37 4 
  > Client 41640 (10):	8 9 10 11 29 19 5 6 26 30 
  > Client 41635 (8):	0 1 2 3 28 18 24 7 

+ Core Mapping:	41635 41635 41635 41635 41638 41640 41640 41635 41640 41640 41640 41640 41638 41638 41638 41638 41633 41633 41635 41640 41633 41633 41633 41633 41635 41633 41640 41633 41635 41640 41640 41638 0 0 0 0 41633 41638 41638 41633 
+ Optimal point: 10 10 10 10 
+++++++++++++++++++++++++++++++++++++++++++++++++++++++++++
++++++++++++++++++++++++++++++++++++++++++++++++
 + TIMESTAMP: 1815.42
REINVADE (41638)
  + pid: 41638
  + min_cores: 1
  + max_cores: 512
  + scalability graph: 
1, 1.39494, 1.5699, 1.6742, 1.74538, 1.79792, 1.83875, 1.87167, 1.89893, 1.922, 1.94184, 1.95915, 1.97442, 1.98802, 2.00024, 2.0113, 2.02136, 2.03058, 2.03906, 2.04689, 2.05415, 2.06092, 2.06724, 2.07316, 2.07872, 2.08396, 2.0889, 2.09358, 2.09801, 2.10222, 2.10622, 2.11003, 2.11367, 2.11715, 2.12048, 2.12367, 2.12672, 2.12966, 2.13248, 2.1352, 
Number of clients: 4

+++++++++++++++++++++++++++++++++++++++++++++++++++++++++++
+ Client Mapping:
  > Client 41633 (10):	20 21 22 23 17 39 27 36 16 25 
  > Client 41638 (10):	12 13 14 15 31 38 37 4 32 33 
  > Client 41640 (10):	8 9 10 11 29 19 5 6 26 30 
  > Client 41635 (8):	0 1 2 3 28 18 24 7 

+ Core Mapping:	41635 41635 41635 41635 41638 41640 41640 41635 41640 41640 41640 41640 41638 41638 41638 41638 41633 41633 41635 41640 41633 41633 41633 41633 41635 41633 41640 41633 41635 41640 41640 41638 41638 41638 0 0 41633 41638 41638 41633 
+ Optimal point: 10 10 10 10 
+++++++++++++++++++++++++++++++++++++++++++++++++++++++++++
++++++++++++++++++++++++++++++++++++++++++++++++
 + TIMESTAMP: 1815.43
REINVADE (41635)
  + pid: 41635
  + min_cores: 1
  + max_cores: 512
  + scalability graph: 
1, 1.39494, 1.5699, 1.6742, 1.74538, 1.79792, 1.83875, 1.87167, 1.89893, 1.922, 1.94184, 1.95915, 1.97442, 1.98802, 2.00024, 2.0113, 2.02136, 2.03058, 2.03906, 2.04689, 2.05415, 2.06092, 2.06724, 2.07316, 2.07872, 2.08396, 2.0889, 2.09358, 2.09801, 2.10222, 2.10622, 2.11003, 2.11367, 2.11715, 2.12048, 2.12367, 2.12672, 2.12966, 2.13248, 2.1352, 
Number of clients: 4

+++++++++++++++++++++++++++++++++++++++++++++++++++++++++++
+ Client Mapping:
  > Client 41633 (10):	20 21 22 23 17 39 27 36 16 25 
  > Client 41638 (10):	12 13 14 15 31 38 37 4 32 33 
  > Client 41640 (10):	8 9 10 11 29 19 5 6 26 30 
  > Client 41635 (10):	0 1 2 3 28 18 24 7 34 35 

+ Core Mapping:	41635 41635 41635 41635 41638 41640 41640 41635 41640 41640 41640 41640 41638 41638 41638 41638 41633 41633 41635 41640 41633 41633 41633 41633 41635 41633 41640 41633 41635 41640 41640 41638 41638 41638 41635 41635 41633 41638 41638 41633 
+ Optimal point: 10 10 10 10 
+++++++++++++++++++++++++++++++++++++++++++++++++++++++++++
CLIENT SHUTDOWN: client 41640
 + TIMESTAMP: 1823.25
+++++++++++++++++++++++++++++++++++++++++++++++++++++++++++
+ Client Mapping:
  > Client 41633 (10):	20 21 22 23 17 39 27 36 16 25 
  > Client 41638 (10):	12 13 14 15 31 38 37 4 32 33 
  > Client 41640 (0):	
  > Client 41635 (10):	0 1 2 3 28 18 24 7 34 35 

+ Core Mapping:	41635 41635 41635 41635 41638 0 0 41635 0 0 0 0 41638 41638 41638 41638 41633 41633 41635 0 41633 41633 41633 41633 41635 41633 0 41633 41635 0 0 41638 41638 41638 41635 41635 41633 41638 41638 41633 
+ Optimal point: 10 10 10 10 
+++++++++++++++++++++++++++++++++++++++++++++++++++++++++++
client (41640) shutdown hint: 20954.2
sum_client_shutdown_hint: 146679
sum_client_shutdown_hint_div_time: 0
++++++++++++++++++++++++++++++++++++++++++++++++
 + TIMESTAMP: 1823.25
REINVADE (41633)
  + pid: 41633
  + min_cores: 1
  + max_cores: 512
  + scalability graph: 
1, 1.39494, 1.5699, 1.6742, 1.74538, 1.79792, 1.83875, 1.87167, 1.89893, 1.922, 1.94184, 1.95915, 1.97442, 1.98802, 2.00024, 2.0113, 2.02136, 2.03058, 2.03906, 2.04689, 2.05415, 2.06092, 2.06724, 2.07316, 2.07872, 2.08396, 2.0889, 2.09358, 2.09801, 2.10222, 2.10622, 2.11003, 2.11367, 2.11715, 2.12048, 2.12367, 2.12672, 2.12966, 2.13248, 2.1352, 
Number of clients: 3

+++++++++++++++++++++++++++++++++++++++++++++++++++++++++++
+ Client Mapping:
  > Client 41633 (14):	20 21 22 23 17 39 27 36 16 25 5 6 8 9 
  > Client 41638 (10):	12 13 14 15 31 38 37 4 32 33 
  > Client 41635 (10):	0 1 2 3 28 18 24 7 34 35 

+ Core Mapping:	41635 41635 41635 41635 41638 41633 41633 41635 41633 41633 0 0 41638 41638 41638 41638 41633 41633 41635 0 41633 41633 41633 41633 41635 41633 0 41633 41635 0 0 41638 41638 41638 41635 41635 41633 41638 41638 41633 
+ Optimal point: 14 13 13 
+++++++++++++++++++++++++++++++++++++++++++++++++++++++++++
++++++++++++++++++++++++++++++++++++++++++++++++
 + TIMESTAMP: 1823.26
REINVADE (41638)
  + pid: 41638
  + min_cores: 1
  + max_cores: 512
  + scalability graph: 
1, 1.39494, 1.5699, 1.6742, 1.74538, 1.79792, 1.83875, 1.87167, 1.89893, 1.922, 1.94184, 1.95915, 1.97442, 1.98802, 2.00024, 2.0113, 2.02136, 2.03058, 2.03906, 2.04689, 2.05415, 2.06092, 2.06724, 2.07316, 2.07872, 2.08396, 2.0889, 2.09358, 2.09801, 2.10222, 2.10622, 2.11003, 2.11367, 2.11715, 2.12048, 2.12367, 2.12672, 2.12966, 2.13248, 2.1352, 
Number of clients: 3

+++++++++++++++++++++++++++++++++++++++++++++++++++++++++++
+ Client Mapping:
  > Client 41633 (14):	20 21 22 23 17 39 27 36 16 25 5 6 8 9 
  > Client 41638 (13):	12 13 14 15 31 38 37 4 32 33 10 11 19 
  > Client 41635 (10):	0 1 2 3 28 18 24 7 34 35 

+ Core Mapping:	41635 41635 41635 41635 41638 41633 41633 41635 41633 41633 41638 41638 41638 41638 41638 41638 41633 41633 41635 41638 41633 41633 41633 41633 41635 41633 0 41633 41635 0 0 41638 41638 41638 41635 41635 41633 41638 41638 41633 
+ Optimal point: 14 13 13 
+++++++++++++++++++++++++++++++++++++++++++++++++++++++++++
++++++++++++++++++++++++++++++++++++++++++++++++
 + TIMESTAMP: 1823.27
REINVADE (41635)
  + pid: 41635
  + min_cores: 1
  + max_cores: 512
  + scalability graph: 
1, 1.39494, 1.5699, 1.6742, 1.74538, 1.79792, 1.83875, 1.87167, 1.89893, 1.922, 1.94184, 1.95915, 1.97442, 1.98802, 2.00024, 2.0113, 2.02136, 2.03058, 2.03906, 2.04689, 2.05415, 2.06092, 2.06724, 2.07316, 2.07872, 2.08396, 2.0889, 2.09358, 2.09801, 2.10222, 2.10622, 2.11003, 2.11367, 2.11715, 2.12048, 2.12367, 2.12672, 2.12966, 2.13248, 2.1352, 
Number of clients: 3

+++++++++++++++++++++++++++++++++++++++++++++++++++++++++++
+ Client Mapping:
  > Client 41633 (14):	20 21 22 23 17 39 27 36 16 25 5 6 8 9 
  > Client 41638 (13):	12 13 14 15 31 38 37 4 32 33 10 11 19 
  > Client 41635 (13):	0 1 2 3 28 18 24 7 34 35 26 29 30 

+ Core Mapping:	41635 41635 41635 41635 41638 41633 41633 41635 41633 41633 41638 41638 41638 41638 41638 41638 41633 41633 41635 41638 41633 41633 41633 41633 41635 41633 41635 41633 41635 41635 41635 41638 41638 41638 41635 41635 41633 41638 41638 41633 
+ Optimal point: 14 13 13 
+++++++++++++++++++++++++++++++++++++++++++++++++++++++++++
CLIENT SHUTDOWN: client 41638
 + TIMESTAMP: 1824.08
+++++++++++++++++++++++++++++++++++++++++++++++++++++++++++
+ Client Mapping:
  > Client 41633 (14):	20 21 22 23 17 39 27 36 16 25 5 6 8 9 
  > Client 41638 (0):	
  > Client 41635 (13):	0 1 2 3 28 18 24 7 34 35 26 29 30 

+ Core Mapping:	41635 41635 41635 41635 0 41633 41633 41635 41633 41633 0 0 0 0 0 0 41633 41633 41635 0 41633 41633 41633 41633 41635 41633 41635 41633 41635 41635 41635 0 0 0 41635 41635 41633 0 0 41633 
+ Optimal point: 14 13 13 
+++++++++++++++++++++++++++++++++++++++++++++++++++++++++++
client (41638) shutdown hint: 20954.2
sum_client_shutdown_hint: 167634
sum_client_shutdown_hint_div_time: 0
++++++++++++++++++++++++++++++++++++++++++++++++
 + TIMESTAMP: 1824.08
REINVADE (41635)
  + pid: 41635
  + min_cores: 1
  + max_cores: 512
  + scalability graph: 
1, 1.39494, 1.5699, 1.6742, 1.74538, 1.79792, 1.83875, 1.87167, 1.89893, 1.922, 1.94184, 1.95915, 1.97442, 1.98802, 2.00024, 2.0113, 2.02136, 2.03058, 2.03906, 2.04689, 2.05415, 2.06092, 2.06724, 2.07316, 2.07872, 2.08396, 2.0889, 2.09358, 2.09801, 2.10222, 2.10622, 2.11003, 2.11367, 2.11715, 2.12048, 2.12367, 2.12672, 2.12966, 2.13248, 2.1352, 
Number of clients: 2

+++++++++++++++++++++++++++++++++++++++++++++++++++++++++++
+ Client Mapping:
  > Client 41633 (14):	20 21 22 23 17 39 27 36 16 25 5 6 8 9 
  > Client 41635 (20):	0 1 2 3 28 18 24 7 34 35 26 29 30 4 10 11 12 13 14 15 

+ Core Mapping:	41635 41635 41635 41635 41635 41633 41633 41635 41633 41633 41635 41635 41635 41635 41635 41635 41633 41633 41635 0 41633 41633 41633 41633 41635 41633 41635 41633 41635 41635 41635 0 0 0 41635 41635 41633 0 0 41633 
+ Optimal point: 20 20 
+++++++++++++++++++++++++++++++++++++++++++++++++++++++++++
++++++++++++++++++++++++++++++++++++++++++++++++
 + TIMESTAMP: 1824.08
REINVADE (41633)
  + pid: 41633
  + min_cores: 1
  + max_cores: 512
  + scalability graph: 
1, 1.39494, 1.5699, 1.6742, 1.74538, 1.79792, 1.83875, 1.87167, 1.89893, 1.922, 1.94184, 1.95915, 1.97442, 1.98802, 2.00024, 2.0113, 2.02136, 2.03058, 2.03906, 2.04689, 2.05415, 2.06092, 2.06724, 2.07316, 2.07872, 2.08396, 2.0889, 2.09358, 2.09801, 2.10222, 2.10622, 2.11003, 2.11367, 2.11715, 2.12048, 2.12367, 2.12672, 2.12966, 2.13248, 2.1352, 
Number of clients: 2

+++++++++++++++++++++++++++++++++++++++++++++++++++++++++++
+ Client Mapping:
  > Client 41633 (20):	20 21 22 23 17 39 27 36 16 25 5 6 8 9 19 31 32 33 37 38 
  > Client 41635 (20):	0 1 2 3 28 18 24 7 34 35 26 29 30 4 10 11 12 13 14 15 

+ Core Mapping:	41635 41635 41635 41635 41635 41633 41633 41635 41633 41633 41635 41635 41635 41635 41635 41635 41633 41633 41635 41633 41633 41633 41633 41633 41635 41633 41635 41633 41635 41635 41635 41633 41633 41633 41635 41635 41633 41633 41633 41633 
+ Optimal point: 20 20 
+++++++++++++++++++++++++++++++++++++++++++++++++++++++++++
CLIENT SHUTDOWN: client 41635
 + TIMESTAMP: 1824.73
+++++++++++++++++++++++++++++++++++++++++++++++++++++++++++
+ Client Mapping:
  > Client 41633 (20):	20 21 22 23 17 39 27 36 16 25 5 6 8 9 19 31 32 33 37 38 
  > Client 41635 (0):	

+ Core Mapping:	0 0 0 0 0 41633 41633 0 41633 41633 0 0 0 0 0 0 41633 41633 0 41633 41633 41633 41633 41633 0 41633 0 41633 0 0 0 41633 41633 41633 0 0 41633 41633 41633 41633 
+ Optimal point: 20 20 
+++++++++++++++++++++++++++++++++++++++++++++++++++++++++++
client (41635) shutdown hint: 20954.2
sum_client_shutdown_hint: 188588
sum_client_shutdown_hint_div_time: 0
++++++++++++++++++++++++++++++++++++++++++++++++
 + TIMESTAMP: 1824.74
REINVADE (41633)
  + pid: 41633
  + min_cores: 1
  + max_cores: 512
  + scalability graph: 
1, 1.39494, 1.5699, 1.6742, 1.74538, 1.79792, 1.83875, 1.87167, 1.89893, 1.922, 1.94184, 1.95915, 1.97442, 1.98802, 2.00024, 2.0113, 2.02136, 2.03058, 2.03906, 2.04689, 2.05415, 2.06092, 2.06724, 2.07316, 2.07872, 2.08396, 2.0889, 2.09358, 2.09801, 2.10222, 2.10622, 2.11003, 2.11367, 2.11715, 2.12048, 2.12367, 2.12672, 2.12966, 2.13248, 2.1352, 
Number of clients: 1

+++++++++++++++++++++++++++++++++++++++++++++++++++++++++++
+ Client Mapping:
  > Client 41633 (40):	20 21 22 23 17 39 27 36 16 25 5 6 8 9 19 31 32 33 37 38 0 1 2 3 4 7 10 11 12 13 14 15 18 24 26 28 29 30 34 35 

+ Core Mapping:	41633 41633 41633 41633 41633 41633 41633 41633 41633 41633 41633 41633 41633 41633 41633 41633 41633 41633 41633 41633 41633 41633 41633 41633 41633 41633 41633 41633 41633 41633 41633 41633 41633 41633 41633 41633 41633 41633 41633 41633 
+ Optimal point: 40 
+++++++++++++++++++++++++++++++++++++++++++++++++++++++++++
CLIENT SHUTDOWN: client 41633
 + TIMESTAMP: 1824.78
+++++++++++++++++++++++++++++++++++++++++++++++++++++++++++
+ Client Mapping:
  > Client 41633 (0):	

+ Core Mapping:	0 0 0 0 0 0 0 0 0 0 0 0 0 0 0 0 0 0 0 0 0 0 0 0 0 0 0 0 0 0 0 0 0 0 0 0 0 0 0 0 
+ Optimal point: 40 
+++++++++++++++++++++++++++++++++++++++++++++++++++++++++++
client (41633) shutdown hint: 20954.2
sum_client_shutdown_hint: 209542
sum_client_shutdown_hint_div_time: 0
END TIMESTAMP: 1824.78
OVERALL TIME: 1824.44
 + sum_client_shutdown_hint: 209542
 + sum_client_shutdown_hint/time: 114.853
sum_client_shutdown_hint: 209542
sum_client_shutdown_hint_div_time: 114.853
