time,surface_elevation,number_of_local_cells,number_of_global_cells
0,0,12288,12288,
13300.6,0,12288,12288,
19736.5,0,12288,12288,
25962.3,0,12288,12288,
32410.5,0,12288,12288,
39046.5,0,12288,12288,
45696.7,0,12288,12288,
58997.3,0,12288,12288,
65647.6,0,12288,12288,
72297.9,0,12288,12288,
78948.2,0,12288,12288,
85598.5,0,12288,12288,
92248.8,0,12288,12288,
98899.1,0,12288,12288,
105549,0,12288,12288,
118850,0,12288,12288,
125500,0,12288,12288,
132151,0,12288,12288,
138801,0,12288,12288,
145451,0,12288,12288,
152101,0,12288,12288,
158752,0,12288,12288,
165402,0,12288,12288,
178703,0,12288,12288,
185353,0,12288,12288,
192003,0,12288,12288,
198653,0,12288,12288,
205304,0,12288,12288,
211954,0,12288,12288,
218604,0,12288,12288,
225255,0,12288,12288,
238555,0,12288,12288,
245205,0,12288,12288,
251856,0,12288,12288,
258506,0,12288,12288,
265156,0,12288,12288,
271807,0,12288,12288,
278457,0,12288,12288,
285107,0,12288,12288,
298408,0,12288,12288,
305058,0,12288,12288,
311708,0,12288,12288,
318359,0,12288,12288,
325009,0,12288,12288,
331659,0,12288,12288,
338309,0,12288,12288,
351610,0,12288,12288,
358260,0,12288,12288,
364911,0,12288,12288,
371561,0,12288,12288,
378211,0,12288,12288,
384861,0,12288,12288,
391512,0,12288,12288,
398162,0,12288,12288,
411463,0,12288,12288,
418113,0,12288,12288,
424763,0,12288,12288,
431414,0,12288,12288,
438064,0,12288,12288,
444714,0,12288,12288,
451364,0,12288,12288,
458015,0,12288,12288,
471315,0,12288,12288,
477965,0,12288,12288,
484614,0,12288,12288,
491264,0,12288,12288,
497912,0,12288,12288,
504559,0,12288,12288,
511205,0,12288,12288,
517849,0,12288,12288,
531122,0,12288,12288,
537749,0,12288,12288,
544364,0,12288,12288,
550964,0,12288,12288,
557543,0,12288,12288,
564093,0,12288,12288,
570606,0,12288,12288,
583476,0,12288,12288,
589809,0,12288,12288,
596054,0,12288,12288,
602206,0,12288,12288,
608262,0,12288,12288,
620079,0,12288,12288,
625850,2.22045e-16,12288,12288,
631544,4.44089e-16,12288,12288,
642744,1.77636e-15,12288,12288,
648274,3.77476e-15,12288,12288,
653771,7.99361e-15,12288,12288,
664704,3.21965e-14,12288,12288,
670153,6.28386e-14,12288,12288,
675599,1.20348e-13,12288,12288,
686493,4.21219e-13,12288,12288,
691948,7.70939e-13,12288,12288,
702887,2.48201e-12,12288,12288,
708376,4.37095e-12,12288,12288,
713881,7.60836e-12,12288,12288,
724945,2.23088e-11,12288,12288,
730507,3.76135e-11,12288,12288,
736089,6.27955e-11,12288,12288,
747263,1.69536e-10,12288,12288,
752859,2.7441e-10,12288,12288,
758465,4.40015e-10,12288,12288,
769711,1.1018e-09,12288,12288,
775356,1.7218e-09,12288,12288,
781016,2.66945e-09,12288,12288,
792391,6.27282e-09,12288,12288,
798107,9.51222e-09,12288,12288,
803842,1.43251e-08,12288,12288,
815376,3.18463e-08,12288,12288,
821176,4.70289e-08,12288,12288,
826998,6.90209e-08,12288,12288,
832844,1.00687e-07,12288,12288,
844604,2.10529e-07,12288,12288,
850521,3.01832e-07,12288,12288,
856461,4.30329e-07,12288,12288,
868416,8.60557e-07,12288,12288,
874431,1.20724e-06,12288,12288,
880471,1.68472e-06,12288,12288,
886536,2.33888e-06,12288,12288,
892626,3.23044e-06,12288,12288,
904883,6.06949e-06,12288,12288,
911049,8.25699e-06,12288,12288,
917241,1.1177e-05,12288,12288,
923458,1.50547e-05,12288,12288,
935969,2.69113e-05,12288,12288,
942262,3.5716e-05,12288,12288,
948581,4.71697e-05,12288,12288,
954925,6.19926e-05,12288,12288,
961294,8.10768e-05,12288,12288,
967688,0.00010552,12288,12288,
980551,0.000176146,12288,12288,
987020,0.00022593,12288,12288,
993514,0.00028838,12288,12288,
1.00003e+06,0.000366309,12288,12288,
1.00657e+06,0.000463044,12288,12288,
1.01314e+06,0.000582491,12288,12288,
1.02635e+06,0.00090844,12288,12288,
1.03296e+06,0.00112555,12288,12288,
1.03957e+06,0.0013866,12288,12288,
1.04618e+06,0.00169857,12288,12288,
1.05277e+06,0.00206913,12288,12288,
1.05936e+06,0.00250663,12288,12288,
1.06594e+06,0.00302007,12288,12288,
1.07252e+06,0.003619,12288,12288,
1.08565e+06,0.0051138,12288,12288,
1.09221e+06,0.00603059,12288,12288,
1.09876e+06,0.00707435,12288,12288,
1.10531e+06,0.00825533,12288,12288,
1.11185e+06,0.00958322,12288,12288,
1.11839e+06,0.0110669,12288,12288,
1.13145e+06,0.0145303,12288,12288,
1.13797e+06,0.0165203,12288,12288,
1.14449e+06,0.0186857,12288,12288,
1.151e+06,0.0210257,12288,12288,
1.15751e+06,0.0235366,12288,12288,
1.16402e+06,0.0262116,12288,12288,
1.17053e+06,0.0290405,12288,12288,
1.18353e+06,0.0351028,12288,12288,
1.19002e+06,0.0382995,12288,12288,
1.19652e+06,0.0415773,12288,12288,
1.20301e+06,0.0449108,12288,12288,
1.2095e+06,0.0482731,12288,12288,
1.21599e+06,0.0516356,12288,12288,
1.22897e+06,0.058245,12288,12288,
1.23546e+06,0.0614343,12288,12288,
1.24194e+06,0.0645098,12288,12288,
1.24843e+06,0.0674462,12288,12288,
1.25492e+06,0.0702203,12288,12288,
1.2614e+06,0.0728118,12288,12288,
1.26789e+06,0.0752032,12288,12288,
1.28088e+06,0.0793322,12288,12288,
1.28737e+06,0.081051,12288,12288,
1.29386e+06,0.082532,12288,12288,
1.30036e+06,0.0837735,12288,12288,
1.30686e+06,0.0847764,12288,12288,
1.31336e+06,0.0855439,12288,12288,
1.32638e+06,0.0863958,12288,12288,
1.33289e+06,0.0864959,12288,12288,
1.33941e+06,0.0863914,12288,12288,
1.34593e+06,0.0860928,12288,12288,
1.35245e+06,0.0856114,12288,12288,
1.35898e+06,0.0849589,12288,12288,
1.36551e+06,0.084147,12288,12288,
1.37858e+06,0.0820926,12288,12288,
1.38512e+06,0.0808736,12288,12288,
1.39166e+06,0.0795421,12288,12288,
1.39821e+06,0.0781087,12288,12288,
1.40476e+06,0.0765836,12288,12288,
1.41131e+06,0.0749766,12288,12288,
1.41786e+06,0.0732967,12288,12288,
1.43097e+06,0.0697519,12288,12288,
1.43753e+06,0.0679023,12288,12288,
1.44409e+06,0.0660105,12288,12288,
1.45066e+06,0.0640828,12288,12288,
1.45723e+06,0.0621252,12288,12288,
1.4638e+06,0.0601427,12288,12288,
1.47037e+06,0.0581405,12288,12288,
1.48353e+06,0.0540938,12288,12288,
1.49011e+06,0.0520571,12288,12288,
1.4967e+06,0.0500161,12288,12288,
1.50328e+06,0.0479738,12288,12288,
1.50987e+06,0.045933,12288,12288,
1.51647e+06,0.043896,12288,12288,
1.52306e+06,0.0418652,12288,12288,
1.53626e+06,0.0378296,12288,12288,
1.54286e+06,0.0358283,12288,12288,
1.54946e+06,0.03384,12288,12288,
1.55607e+06,0.031866,12288,12288,
1.56267e+06,0.0299074,12288,12288,
1.56928e+06,0.0279653,12288,12288,
1.57589e+06,0.0260409,12288,12288,
1.58909e+06,0.0222546,12288,12288,
1.59568e+06,0.0203942,12288,12288,
1.60226e+06,0.0185567,12288,12288,
1.60883e+06,0.0167428,12288,12288,
1.61539e+06,0.0149534,12288,12288,
1.62194e+06,0.0131886,12288,12288,
1.62847e+06,0.0114491,12288,12288,
1.64151e+06,0.00804865,12288,12288,
1.648e+06,0.00638909,12288,12288,
1.65447e+06,0.00475763,12288,12288,
1.66093e+06,0.00315412,12288,12288,
1.66737e+06,0.00158017,12288,12288,
1.67379e+06,3.70818e-05,12288,12288,
1.68019e+06,-0.00147297,12288,12288,
1.69293e+06,-0.00439549,12288,12288,
1.69926e+06,-0.00580841,12288,12288,
1.70558e+06,-0.00718937,12288,12288,
1.71187e+06,-0.00853772,12288,12288,
1.71814e+06,-0.00985263,12288,12288,
1.73062e+06,-0.0123883,12288,12288,
1.73682e+06,-0.0136115,12288,12288,
1.74301e+06,-0.0148047,12288,12288,
1.74918e+06,-0.0159677,12288,12288,
1.75533e+06,-0.0171004,12288,12288,
1.76758e+06,-0.0192747,12288,12288,
1.77369e+06,-0.0203161,12288,12288,
1.77977e+06,-0.0213274,12288,12288,
1.78585e+06,-0.0223086,12288,12288,
1.79797e+06,-0.0241792,12288,12288,
1.80402e+06,-0.0250684,12288,12288,
1.81005e+06,-0.0259265,12288,12288,
1.81609e+06,-0.0267535,12288,12288,
1.82813e+06,-0.0283133,12288,12288,
1.83415e+06,-0.0290457,12288,12288,
1.84016e+06,-0.029746,12288,12288,
1.84617e+06,-0.0304129,12288,12288,
1.85815e+06,-0.0316457,12288,12288,
1.86413e+06,-0.0322113,12288,12288,
1.8701e+06,-0.0327425,12288,12288,
1.87607e+06,-0.0332392,12288,12288,
1.888e+06,-0.0341276,12288,12288,
1.89396e+06,-0.0345188,12288,12288,
1.89992e+06,-0.0348742,12288,12288,
1.90588e+06,-0.0351934,12288,12288,
1.91781e+06,-0.0357225,12288,12288,
1.92377e+06,-0.0359317,12288,12288,
1.92974e+06,-0.0361038,12288,12288,
1.93571e+06,-0.0362385,12288,12288,
1.94767e+06,-0.0363953,12288,12288,
1.95366e+06,-0.0364171,12288,12288,
1.95965e+06,-0.0364012,12288,12288,
1.96565e+06,-0.0363476,12288,12288,
1.97768e+06,-0.0361277,12288,12288,
1.9837e+06,-0.0359618,12288,12288,
1.98973e+06,-0.0357591,12288,12288,
1.99577e+06,-0.0355199,12288,12288,
2.00789e+06,-0.0349345,12288,12288,
2.01396e+06,-0.0345895,12288,12288,
2.02004e+06,-0.0342106,12288,12288,
2.02613e+06,-0.0337989,12288,12288,
2.03835e+06,-0.0328808,12288,12288,
2.04448e+06,-0.0323766,12288,12288,
2.05062e+06,-0.0318441,12288,12288,
2.05677e+06,-0.0312846,12288,12288,
2.06293e+06,-0.0306995,12288,12288,
2.07529e+06,-0.0294587,12288,12288,
2.08149e+06,-0.0288063,12288,12288,
2.08771e+06,-0.0281348,12288,12288,
2.09393e+06,-0.027446,12288,12288,
2.10017e+06,-0.0267417,12288,12288,
2.11269e+06,-0.0252942,12288,12288,
2.11897e+06,-0.0245547,12288,12288,
2.12526e+06,-0.0238073,12288,12288,
2.13157e+06,-0.0230537,12288,12288,
2.13789e+06,-0.0222959,12288,12288,
2.15057e+06,-0.0207748,12288,12288,
2.15693e+06,-0.0200151,12288,12288,
2.1633e+06,-0.0192583,12288,12288,
2.16969e+06,-0.0185059,12288,12288,
2.1761e+06,-0.0177594,12288,12288,
2.18251e+06,-0.0170205,12288,12288,
2.19539e+06,-0.0155704,12288,12288,
2.20185e+06,-0.0148618,12288,12288,
2.20833e+06,-0.0141656,12288,12288,
2.21481e+06,-0.0134829,12288,12288,
2.22132e+06,-0.0128145,12288,12288,
2.22783e+06,-0.0121612,12288,12288,
2.24091e+06,-0.0109027,12288,12288,
2.24747e+06,-0.0102985,12288,12288,
2.25405e+06,-0.00971169,12288,12288,
2.26063e+06,-0.00914261,12288,12288,
2.26722e+06,-0.00859286,12288,12288,
2.27379e+06,-0.00806239,12288,12288,
2.28037e+06,-0.0075511,12288,12288,
2.29351e+06,-0.00658531,12288,12288,
2.30008e+06,-0.00613028,12288,12288,
2.30664e+06,-0.00569338,12288,12288,
2.3132e+06,-0.00527422,12288,12288,
2.31975e+06,-0.0048724,12288,12288,
2.3263e+06,-0.00448753,12288,12288,
2.33285e+06,-0.00411912,12288,12288,
2.34593e+06,-0.00342969,12288,12288,
2.35246e+06,-0.0031076,12288,12288,
2.35899e+06,-0.00279988,12288,12288,
2.36552e+06,-0.00250599,12288,12288,
2.37204e+06,-0.0022254,12288,12288,
2.37855e+06,-0.00195756,12288,12288,
2.38507e+06,-0.00170196,12288,12288,
2.39808e+06,-0.00122535,12288,12288,
2.40458e+06,-0.00100334,12288,12288,
2.41108e+06,-0.000791542,12288,12288,
2.41757e+06,-0.000589475,12288,12288,
2.42406e+06,-0.000396683,12288,12288,
2.43055e+06,-0.000212721,12288,12288,
2.44352e+06,0.000130421,12288,12288,
2.44999e+06,0.000290413,12288,12288,
2.45647e+06,0.000443203,12288,12288,
2.46294e+06,0.00058916,12288,12288,
2.46941e+06,0.000728637,12288,12288,
2.47588e+06,0.000861973,12288,12288,
2.4888e+06,0.00111151,12288,12288,
2.49526e+06,0.00122831,12288,12288,
2.50172e+06,0.00134019,12288,12288,
2.50817e+06,0.00144741,12288,12288,
2.51462e+06,0.00155024,12288,12288,
2.52107e+06,0.00164892,12288,12288,
2.52752e+06,0.00174369,12288,12288,
2.54041e+06,0.00192236,12288,12288,
2.54686e+06,0.00200669,12288,12288,
2.5533e+06,0.00208794,12288,12288,
2.55974e+06,0.0021663,12288,12288,
2.56618e+06,0.00224195,12288,12288,
2.57262e+06,0.00231505,12288,12288,
2.58549e+06,0.00245426,12288,12288,
2.59193e+06,0.00252066,12288,12288,
2.59836e+06,0.00258512,12288,12288,
2.60479e+06,0.00264778,12288,12288,
2.61123e+06,0.00270875,12288,12288,
2.61766e+06,0.00276817,12288,12288,
2.63053e+06,0.00288279,12288,12288,
2.63696e+06,0.00293821,12288,12288,
2.64339e+06,0.00299253,12288,12288,
2.64982e+06,0.00304582,12288,12288,
2.65625e+06,0.00309819,12288,12288,
2.66269e+06,0.00314974,12288,12288,
2.67555e+06,0.0032507,12288,12288,
2.68199e+06,0.00330028,12288,12288,
2.68842e+06,0.00334937,12288,12288,
2.69486e+06,0.00339804,12288,12288,
2.70129e+06,0.00344637,12288,12288,
2.70773e+06,0.00349443,12288,12288,
2.7206e+06,0.00359002,12288,12288,
2.72704e+06,0.00363768,12288,12288,
2.73348e+06,0.00368533,12288,12288,
2.73992e+06,0.00373304,12288,12288,
2.74637e+06,0.00378086,12288,12288,
2.75281e+06,0.00382885,12288,12288,
2.7657e+06,0.00392555,12288,12288,
2.77214e+06,0.00397436,12288,12288,
2.77859e+06,0.00402355,12288,12288,
2.78504e+06,0.00407316,12288,12288,
2.79149e+06,0.00412323,12288,12288,
2.79794e+06,0.0041738,12288,12288,
2.81084e+06,0.00427662,12288,12288,
2.8173e+06,0.00432893,12288,12288,
2.82375e+06,0.0043819,12288,12288,
2.83021e+06,0.00443553,12288,12288,
2.83667e+06,0.00448988,12288,12288,
2.84312e+06,0.00454495,12288,12288,
2.85604e+06,0.00465737,12288,12288,
2.8625e+06,0.00471476,12288,12288,
2.86896e+06,0.00477294,12288,12288,
2.87542e+06,0.00483195,12288,12288,
2.88188e+06,0.00489178,12288,12288,
2.88834e+06,0.00495244,12288,12288,
2.90127e+06,0.00507627,12288,12288,
2.90773e+06,0.00513944,12288,12288,
2.9142e+06,0.00520344,12288,12288,
2.92066e+06,0.00526828,12288,12288,
2.92712e+06,0.00533394,12288,12288,
2.93359e+06,0.00540041,12288,12288,
2.94005e+06,0.00546768,12288,12288,
2.95298e+06,0.00560456,12288,12288,
2.95944e+06,0.00567415,12288,12288,
2.96591e+06,0.00574447,12288,12288,
2.97237e+06,0.00581552,12288,12288,
2.97883e+06,0.00588726,12288,12288,
2.98529e+06,0.00595967,12288,12288,
2.99821e+06,0.00610643,12288,12288,
3.00467e+06,0.00618073,12288,12288,
3.01113e+06,0.00625561,12288,12288,
3.01759e+06,0.00633105,12288,12288,
3.02405e+06,0.00640701,12288,12288,
3.0305e+06,0.00648349,12288,12288,
3.04341e+06,0.00663785,12288,12288,
3.04986e+06,0.00671569,12288,12288,
3.05632e+06,0.00679394,12288,12288,
3.06277e+06,0.00687257,12288,12288,
3.06921e+06,0.00695157,12288,12288,
3.07566e+06,0.00703092,12288,12288,
3.08855e+06,0.00719056,12288,12288,
3.09499e+06,0.00727082,12288,12288,
3.10143e+06,0.00735135,12288,12288,
3.10786e+06,0.00743214,12288,12288,
3.1143e+06,0.00751318,12288,12288,
3.12073e+06,0.00759445,12288,12288,
3.13359e+06,0.00775765,12288,12288,
3.14001e+06,0.00783958,12288,12288,
3.14644e+06,0.0079217,12288,12288,
3.15285e+06,0.00800403,12288,12288,
3.15927e+06,0.00808657,12288,12288,
3.16568e+06,0.0081693,12288,12288,
3.1785e+06,0.0083354,12288,12288,
3.1849e+06,0.00841878,12288,12288,
3.1913e+06,0.00850238,12288,12288,
3.19769e+06,0.00858622,12288,12288,
3.20408e+06,0.00867031,12288,12288,
3.21047e+06,0.00875467,12288,12288,
3.22323e+06,0.00892423,12288,12288,
3.2296e+06,0.00900948,12288,12288,
3.23597e+06,0.00909506,12288,12288,
3.24233e+06,0.00918101,12288,12288,
3.24869e+06,0.00926733,12288,12288,
3.25504e+06,0.00935407,12288,12288,
3.26774e+06,0.00952887,12288,12288,
3.27408e+06,0.009617,12288,12288,
3.28041e+06,0.00970566,12288,12288,
3.28674e+06,0.00979487,12288,12288,
3.29306e+06,0.00988468,12288,12288,
3.30569e+06,0.0100662,12288,12288,
3.312e+06,0.010158,12288,12288,
3.31831e+06,0.0102505,12288,12288,
3.32461e+06,0.0103439,12288,12288,
3.3309e+06,0.010438,12288,12288,
3.34348e+06,0.010629,12288,12288,
3.34977e+06,0.0107258,12288,12288,
3.35605e+06,0.0108237,12288,12288,
3.36232e+06,0.0109227,12288,12288,
3.3686e+06,0.0110227,12288,12288,
3.38114e+06,0.0112263,12288,12288,
3.38741e+06,0.01133,12288,12288,
3.39367e+06,0.011435,12288,12288,
3.39993e+06,0.0115414,12288,12288,
3.4062e+06,0.0116493,12288,12288,
3.41872e+06,0.0118695,12288,12288,
3.42498e+06,0.0119821,12288,12288,
3.43125e+06,0.0120964,12288,12288,
3.43751e+06,0.0122124,12288,12288,
3.44377e+06,0.0123304,12288,12288,
3.45004e+06,0.0124503,12288,12288,
3.46258e+06,0.0126962,12288,12288,
3.46885e+06,0.0128225,12288,12288,
3.47512e+06,0.012951,12288,12288,
3.4814e+06,0.013082,12288,12288,
3.48768e+06,0.0132155,12288,12288,
3.50026e+06,0.0134906,12288,12288,
3.50655e+06,0.0136324,12288,12288,
3.51285e+06,0.0137772,12288,12288,
3.51916e+06,0.0139251,12288,12288,
3.52547e+06,0.0140764,12288,12288,
3.5381e+06,0.0143893,12288,12288,
3.54442e+06,0.0145512,12288,12288,
3.55074e+06,0.014717,12288,12288,
3.55707e+06,0.0148868,12288,12288,
3.5634e+06,0.0150608,12288,12288,
3.57607e+06,0.0154224,12288,12288,
3.58242e+06,0.0156102,12288,12288,
3.58877e+06,0.0158032,12288,12288,
3.59512e+06,0.0160014,12288,12288,
3.60148e+06,0.016205,12288,12288,
3.60785e+06,0.0164144,12288,12288,
3.6206e+06,0.0168513,12288,12288,
3.62698e+06,0.0170792,12288,12288,
3.63337e+06,0.0173138,12288,12288,
3.63977e+06,0.0175552,12288,12288,
3.64617e+06,0.0178039,12288,12288,
3.65258e+06,0.0180598,12288,12288,
3.66543e+06,0.0185947,12288,12288,
3.67186e+06,0.018874,12288,12288,
3.6783e+06,0.0191615,12288,12288,
3.68475e+06,0.0194573,12288,12288,
3.6912e+06,0.0197615,12288,12288,
3.69767e+06,0.0200744,12288,12288,
3.71062e+06,0.0207261,12288,12288,
3.71711e+06,0.021065,12288,12288,
3.72361e+06,0.0214127,12288,12288,
3.73011e+06,0.021769,12288,12288,
3.73662e+06,0.0221338,12288,12288,
3.74315e+06,0.0225069,12288,12288,
3.75622e+06,0.0232772,12288,12288,
3.76276e+06,0.0236738,12288,12288,
3.76932e+06,0.0240773,12288,12288,
3.77589e+06,0.0244875,12288,12288,
3.78246e+06,0.0249036,12288,12288,
3.78904e+06,0.0253251,12288,12288,
3.79563e+06,0.0257508,12288,12288,
3.80879e+06,0.0266112,12288,12288,
3.81537e+06,0.0270441,12288,12288,
3.82195e+06,0.0274775,12288,12288,
3.82853e+06,0.0279104,12288,12288,
3.83512e+06,0.0283417,12288,12288,
3.84169e+06,0.0287702,12288,12288,
3.84827e+06,0.0291948,12288,12288,
3.86143e+06,0.0300274,12288,12288,
3.86801e+06,0.0304329,12288,12288,
3.87458e+06,0.0308294,12288,12288,
3.88116e+06,0.0312157,12288,12288,
3.88773e+06,0.0315905,12288,12288,
3.89431e+06,0.0319525,12288,12288,
3.90088e+06,0.0323004,12288,12288,
3.91403e+06,0.0329492,12288,12288,
3.9206e+06,0.0332476,12288,12288,
3.92717e+06,0.0335273,12288,12288,
3.93374e+06,0.033787,12288,12288,
3.94031e+06,0.0340259,12288,12288,
3.94688e+06,0.0342429,12288,12288,
3.95344e+06,0.0344372,12288,12288,
3.96001e+06,0.034608,12288,12288,
3.97314e+06,0.0348762,12288,12288,
3.97971e+06,0.0349724,12288,12288,
3.98627e+06,0.0350427,12288,12288,
3.99284e+06,0.0350867,12288,12288,
3.9994e+06,0.035104,12288,12288,
4.00596e+06,0.0350945,12288,12288,
4.01251e+06,0.035058,12288,12288,
4.02562e+06,0.034904,12288,12288,
4.03217e+06,0.0347867,12288,12288,
4.03871e+06,0.0346427,12288,12288,
4.04526e+06,0.0344723,12288,12288,
4.0518e+06,0.0342758,12288,12288,
4.05834e+06,0.0340535,12288,12288,
4.07142e+06,0.0335337,12288,12288,
4.07795e+06,0.0332371,12288,12288,
4.08449e+06,0.0329168,12288,12288,
4.09102e+06,0.0325734,12288,12288,
4.09755e+06,0.0322076,12288,12288,
4.10408e+06,0.0318201,12288,12288,
4.1106e+06,0.0314115,12288,12288,
4.12365e+06,0.0305342,12288,12288,
4.13017e+06,0.0300669,12288,12288,
4.13669e+06,0.0295815,12288,12288,
4.14321e+06,0.0290789,12288,12288,
4.14972e+06,0.0285598,12288,12288,
4.15624e+06,0.0280249,12288,12288,
4.16275e+06,0.0274751,12288,12288,
4.17578e+06,0.0263337,12288,12288,
4.18229e+06,0.0257436,12288,12288,
4.1888e+06,0.0251417,12288,12288,
4.1953e+06,0.0245285,12288,12288,
4.20181e+06,0.0239049,12288,12288,
4.20831e+06,0.0232716,12288,12288,
4.22132e+06,0.0219785,12288,12288,
4.22783e+06,0.02132,12288,12288,
4.23433e+06,0.0206545,12288,12288,
4.24083e+06,0.0199825,12288,12288,
4.24733e+06,0.0193047,12288,12288,
4.25383e+06,0.0186216,12288,12288,
4.26033e+06,0.0179338,12288,12288,
4.27332e+06,0.0165463,12288,12288,
4.27982e+06,0.0158477,12288,12288,
4.28632e+06,0.0151464,12288,12288,
4.29281e+06,0.0144429,12288,12288,
4.29931e+06,0.0137381,12288,12288,
4.3058e+06,0.0130322,12288,12288,
4.31877e+06,0.0116193,12288,12288,
4.32525e+06,0.0109132,12288,12288,
4.33173e+06,0.0102074,12288,12288,
4.33821e+06,0.00950258,12288,12288,
4.34468e+06,0.00879929,12288,12288,
4.35115e+06,0.00809792,12288,12288,
4.35762e+06,0.00739886,12288,12288,
4.37055e+06,0.00600917,12288,12288,
4.377e+06,0.00531952,12288,12288,
4.38346e+06,0.00463357,12288,12288,
4.38991e+06,0.00395162,12288,12288,
4.39636e+06,0.00327395,12288,12288,
4.4028e+06,0.00260085,12288,12288,
4.41569e+06,0.00126931,12288,12288,
4.42212e+06,0.000610775,12288,12288,
4.42855e+06,-4.24724e-05,12288,12288,
4.43498e+06,-0.000690032,12288,12288,
4.44141e+06,-0.00133166,12288,12288,
4.44783e+06,-0.00196729,12288,12288,
4.46067e+06,-0.00322015,12288,12288,
4.46708e+06,-0.00383717,12288,12288,
4.4735e+06,-0.00444777,12288,12288,
4.4799e+06,-0.00505183,12288,12288,
4.48631e+06,-0.00564926,12288,12288,
4.49271e+06,-0.00623997,12288,12288,
4.50552e+06,-0.00740077,12288,12288,
4.51191e+06,-0.00797056,12288,12288,
4.5183e+06,-0.00853311,12288,12288,
4.52469e+06,-0.00908831,12288,12288,
4.53108e+06,-0.00963607,12288,12288,
4.54385e+06,-0.0107089,12288,12288,
4.55023e+06,-0.0112338,12288,12288,
4.5566e+06,-0.0117509,12288,12288,
4.56298e+06,-0.0122603,12288,12288,
4.56935e+06,-0.0127617,12288,12288,
4.57572e+06,-0.0132552,12288,12288,
4.58846e+06,-0.014218,12288,12288,
4.59483e+06,-0.0146872,12288,12288,
4.60119e+06,-0.0151481,12288,12288,
4.60755e+06,-0.0156008,12288,12288,
4.61392e+06,-0.0160452,12288,12288,
4.62028e+06,-0.0164811,12288,12288,
4.633e+06,-0.0173275,12288,12288,
4.63936e+06,-0.0177378,12288,12288,
4.64572e+06,-0.0181394,12288,12288,
4.65208e+06,-0.0185323,12288,12288,
4.65844e+06,-0.0189164,12288,12288,
4.67117e+06,-0.0196577,12288,12288,
4.67753e+06,-0.0200149,12288,12288,
4.6839e+06,-0.0203629,12288,12288,
4.69026e+06,-0.0207018,12288,12288,
4.69663e+06,-0.0210314,12288,12288,
4.703e+06,-0.0213516,12288,12288,
4.71574e+06,-0.0219635,12288,12288,
4.72211e+06,-0.0222551,12288,12288,
4.72849e+06,-0.0225369,12288,12288,
4.73487e+06,-0.0228089,12288,12288,
4.74125e+06,-0.0230709,12288,12288,
4.74763e+06,-0.0233229,12288,12288,
4.76041e+06,-0.0237962,12288,12288,
4.76681e+06,-0.0240173,12288,12288,
4.77321e+06,-0.0242279,12288,12288,
4.77961e+06,-0.0244278,12288,12288,
4.78601e+06,-0.0246169,12288,12288,
4.79884e+06,-0.0249622,12288,12288,
4.80525e+06,-0.0251181,12288,12288,
4.81168e+06,-0.0252626,12288,12288,
4.8181e+06,-0.0253956,12288,12288,
4.82453e+06,-0.0255169,12288,12288,
4.83097e+06,-0.0256264,12288,12288,
4.84386e+06,-0.025809,12288,12288,
4.85031e+06,-0.0258819,12288,12288,
4.85677e+06,-0.0259422,12288,12288,
4.86323e+06,-0.0259898,12288,12288,
4.8697e+06,-0.0260245,12288,12288,
4.87617e+06,-0.0260461,12288,12288,
4.88265e+06,-0.0260544,12288,12288,
4.89563e+06,-0.0260304,12288,12288,
4.90213e+06,-0.0259977,12288,12288,
4.90863e+06,-0.025951,12288,12288,
4.91514e+06,-0.0258899,12288,12288,
4.92165e+06,-0.0258145,12288,12288,
4.92818e+06,-0.0257243,12288,12288,
4.94124e+06,-0.0254994,12288,12288,
4.94778e+06,-0.0253643,12288,12288,
4.95433e+06,-0.0252138,12288,12288,
4.96088e+06,-0.0250477,12288,12288,
4.96744e+06,-0.024866,12288,12288,
4.97401e+06,-0.0246684,12288,12288,
4.98059e+06,-0.0244548,12288,12288,
4.99373e+06,-0.0239803,12288,12288,
5.00029e+06,-0.0237192,12288,12288,
5.00686e+06,-0.0234422,12288,12288,
5.01342e+06,-0.0231494,12288,12288,
5.01998e+06,-0.0228406,12288,12288,
5.02654e+06,-0.0225161,12288,12288,
5.0331e+06,-0.0221757,12288,12288,
5.04621e+06,-0.0214482,12288,12288,
5.05276e+06,-0.0210612,12288,12288,
5.05931e+06,-0.0206591,12288,12288,
5.06586e+06,-0.020242,12288,12288,
5.0724e+06,-0.0198101,12288,12288,
5.07894e+06,-0.0193637,12288,12288,
5.08548e+06,-0.0189031,12288,12288,
5.09855e+06,-0.0179407,12288,12288,
5.10508e+06,-0.0174396,12288,12288,
5.11161e+06,-0.0169258,12288,12288,
5.11813e+06,-0.0163997,12288,12288,
5.12466e+06,-0.0158619,12288,12288,
5.13118e+06,-0.0153129,12288,12288,
5.1377e+06,-0.0147533,12288,12288,
5.15072e+06,-0.0136044,12288,12288,
5.15724e+06,-0.0130164,12288,12288,
5.16374e+06,-0.0124203,12288,12288,
5.17025e+06,-0.0118167,12288,12288,
5.17676e+06,-0.0112065,12288,12288,
5.18326e+06,-0.0105903,12288,12288,
5.19625e+06,-0.00934304,12288,12288,
5.20275e+06,-0.0087136,12288,12288,
5.20924e+06,-0.00808134,12288,12288,
5.21573e+06,-0.00744708,12288,12288,
5.22222e+06,-0.00681164,12288,12288,
5.22871e+06,-0.00617586,12288,12288,
5.23519e+06,-0.00554054,12288,12288,
5.24816e+06,-0.00427457,12288,12288,
5.25463e+06,-0.00364554,12288,12288,
5.26111e+06,-0.0030202,12288,12288,
5.26758e+06,-0.00239933,12288,12288,
5.27406e+06,-0.00178367,12288,12288,
5.28053e+06,-0.00117397,12288,12288,
5.29346e+06,2.47846e-05,12288,12288,
5.29992e+06,0.000612495,12288,12288,
5.30639e+06,0.00119159,12288,12288,
5.31285e+06,0.00176148,12288,12288,
5.31931e+06,0.00232161,12288,12288,
5.32576e+06,0.00287146,12288,12288,
5.33867e+06,0.00393844,12288,12288,
5.34513e+06,0.00445472,12288,12288,
5.35158e+06,0.00495903,12288,12288,
5.35802e+06,0.00545104,12288,12288,
5.36447e+06,0.00593046,12288,12288,
5.37092e+06,0.00639705,12288,12288,
5.3838e+06,0.00729096,12288,12288,
5.39024e+06,0.00771796,12288,12288,
5.39668e+06,0.00813154,12288,12288,
5.40312e+06,0.00853162,12288,12288,
5.40956e+06,0.00891819,12288,12288,
5.41599e+06,0.00929126,12288,12288,
5.42886e+06,0.00999706,12288,12288,
5.43529e+06,0.01033,12288,12288,
5.44172e+06,0.0106497,12288,12288,
5.44814e+06,0.0109565,12288,12288,
5.45457e+06,0.0112503,12288,12288,
5.461e+06,0.0115316,12288,12288,
5.47385e+06,0.0120571,12288,12288,
5.48027e+06,0.0123018,12288,12288,
5.48669e+06,0.0125349,12288,12288,
5.49311e+06,0.0127566,12288,12288,
5.49953e+06,0.0129672,12288,12288,
5.50595e+06,0.013167,12288,12288,
5.51878e+06,0.0135354,12288,12288,
5.5252e+06,0.0137048,12288,12288,
5.53161e+06,0.0138646,12288,12288,
5.53803e+06,0.0140152,12288,12288,
5.54444e+06,0.014157,12288,12288,
5.55085e+06,0.0142903,12288,12288,
5.56367e+06,0.0145327,12288,12288,
5.57008e+06,0.0146425,12288,12288,
5.57649e+06,0.014745,12288,12288,
5.5829e+06,0.0148407,12288,12288,
5.58931e+06,0.0149298,12288,12288,
5.59572e+06,0.0150127,12288,12288,
5.60854e+06,0.015161,12288,12288,
5.61495e+06,0.015227,12288,12288,
5.62135e+06,0.0152879,12288,12288,
5.62776e+06,0.0153441,12288,12288,
5.63417e+06,0.0153958,12288,12288,
5.64057e+06,0.0154432,12288,12288,
5.65339e+06,0.0155263,12288,12288,
5.65979e+06,0.0155625,12288,12288,
5.6662e+06,0.0155955,12288,12288,
5.6726e+06,0.0156253,12288,12288,
5.67901e+06,0.0156524,12288,12288,
5.68542e+06,0.0156769,12288,12288,
5.69823e+06,0.0157186,12288,12288,
5.70464e+06,0.0157364,12288,12288,
5.71105e+06,0.0157522,12288,12288,
5.71746e+06,0.0157663,12288,12288,
5.72387e+06,0.0157789,12288,12288,
5.73028e+06,0.0157901,12288,12288,
5.7431e+06,0.0158087,12288,12288,
5.74951e+06,0.0158165,12288,12288,
5.75592e+06,0.0158234,12288,12288,
5.76233e+06,0.0158295,12288,12288,
5.76875e+06,0.015835,12288,12288,
5.77516e+06,0.01584,12288,12288,
5.78799e+06,0.0158486,12288,12288,
5.79441e+06,0.0158524,12288,12288,
5.80083e+06,0.0158561,12288,12288,
5.80725e+06,0.0158596,12288,12288,
5.81367e+06,0.0158631,12288,12288,
5.82009e+06,0.0158666,12288,12288,
5.83294e+06,0.015874,12288,12288,
5.83937e+06,0.0158779,12288,12288,
5.8458e+06,0.0158821,12288,12288,
5.85223e+06,0.0158865,12288,12288,
5.85866e+06,0.0158913,12288,12288,
5.86509e+06,0.0158964,12288,12288,
5.87796e+06,0.015908,12288,12288,
5.8844e+06,0.0159144,12288,12288,
5.89083e+06,0.0159213,12288,12288,
5.89728e+06,0.0159288,12288,12288,
5.90372e+06,0.0159367,12288,12288,
5.91016e+06,0.0159452,12288,12288,
5.92305e+06,0.015964,12288,12288,
5.9295e+06,0.0159743,12288,12288,
5.93595e+06,0.0159852,12288,12288,
5.94241e+06,0.0159966,12288,12288,
5.94886e+06,0.0160088,12288,12288,
5.95532e+06,0.0160215,12288,12288,
5.96824e+06,0.0160489,12288,12288,
5.9747e+06,0.0160636,12288,12288,
5.98116e+06,0.0160789,12288,12288,
5.98763e+06,0.0160949,12288,12288,
5.9941e+06,0.0161115,12288,12288,
6.00057e+06,0.0161287,12288,12288,
6.01352e+06,0.0161651,12288,12288,
6.01999e+06,0.0161843,12288,12288,
6.02647e+06,0.0162041,12288,12288,
6.03295e+06,0.0162245,12288,12288,
6.03943e+06,0.0162456,12288,12288,
6.04592e+06,0.0162673,12288,12288,
6.05889e+06,0.0163125,12288,12288,
6.06539e+06,0.016336,12288,12288,
6.07188e+06,0.0163601,12288,12288,
6.07837e+06,0.0163848,12288,12288,
6.08487e+06,0.0164101,12288,12288,
6.09137e+06,0.016436,12288,12288,
6.09787e+06,0.0164624,12288,12288,
6.11088e+06,0.016517,12288,12288,
6.11739e+06,0.0165451,12288,12288,
6.1239e+06,0.0165738,12288,12288,
6.13042e+06,0.016603,12288,12288,
6.13693e+06,0.0166328,12288,12288,
6.14345e+06,0.016663,12288,12288,
6.1565e+06,0.0167252,12288,12288,
6.16302e+06,0.016757,12288,12288,
6.16955e+06,0.0167893,12288,12288,
6.17608e+06,0.0168221,12288,12288,
6.18261e+06,0.0168554,12288,12288,
6.18915e+06,0.0168892,12288,12288,
6.19569e+06,0.0169234,12288,12288,
6.20877e+06,0.0169933,12288,12288,
6.21531e+06,0.0170289,12288,12288,
6.22185e+06,0.0170649,12288,12288,
6.2284e+06,0.0171014,12288,12288,
6.23494e+06,0.0171383,12288,12288,
6.24149e+06,0.0171756,12288,12288,
6.24804e+06,0.0172133,12288,12288,
6.26115e+06,0.01729,12288,12288,
6.26771e+06,0.0173289,12288,12288,
6.27427e+06,0.0173681,12288,12288,
6.28083e+06,0.0174078,12288,12288,
6.28739e+06,0.0174478,12288,12288,
6.29396e+06,0.0174881,12288,12288,
6.30052e+06,0.0175288,12288,12288,
6.31366e+06,0.0176111,12288,12288,
6.32024e+06,0.0176527,12288,12288,
6.32682e+06,0.0176946,12288,12288,
6.3334e+06,0.0177368,12288,12288,
6.33998e+06,0.0177793,12288,12288,
6.34656e+06,0.0178219,12288,12288,
6.35315e+06,0.0178648,12288,12288,
6.36632e+06,0.0179512,12288,12288,
6.3729e+06,0.0179946,12288,12288,
6.37949e+06,0.0180381,12288,12288,
6.38607e+06,0.0180818,12288,12288,
6.39265e+06,0.0181255,12288,12288,
6.39923e+06,0.0181693,12288,12288,
6.40582e+06,0.0182131,12288,12288,
6.41898e+06,0.0183007,12288,12288,
6.42556e+06,0.0183444,12288,12288,
6.43214e+06,0.0183879,12288,12288,
6.43872e+06,0.0184314,12288,12288,
6.44529e+06,0.0184746,12288,12288,
6.45187e+06,0.0185176,12288,12288,
6.45844e+06,0.0185604,12288,12288,
6.46501e+06,0.0186028,12288,12288,
6.47815e+06,0.0186865,12288,12288,
6.48471e+06,0.0187276,12288,12288,
6.49128e+06,0.0187682,12288,12288,
6.49784e+06,0.0188083,12288,12288,
6.5044e+06,0.0188476,12288,12288,
6.51096e+06,0.0188863,12288,12288,
6.51752e+06,0.0189241,12288,12288,
6.53063e+06,0.0189972,12288,12288,
6.53718e+06,0.0190322,12288,12288,
6.54373e+06,0.0190661,12288,12288,
6.55028e+06,0.0190989,12288,12288,
6.55683e+06,0.0191304,12288,12288,
6.56338e+06,0.0191605,12288,12288,
6.57647e+06,0.0192163,12288,12288,
6.58301e+06,0.0192418,12288,12288,
6.58955e+06,0.0192655,12288,12288,
6.59609e+06,0.0192874,12288,12288,
6.60263e+06,0.0193073,12288,12288,
6.60917e+06,0.0193252,12288,12288,
6.61571e+06,0.0193409,12288,12288,
6.62878e+06,0.0193653,12288,12288,
6.63531e+06,0.0193738,12288,12288,
6.64184e+06,0.0193796,12288,12288,
6.64837e+06,0.0193827,12288,12288,
6.6549e+06,0.0193829,12288,12288,
6.66142e+06,0.0193802,12288,12288,
6.66795e+06,0.0193743,12288,12288,
6.681e+06,0.0193527,12288,12288,
6.68752e+06,0.0193367,12288,12288,
6.69404e+06,0.0193171,12288,12288,
6.70056e+06,0.0192939,12288,12288,
6.70708e+06,0.0192667,12288,12288,
6.7136e+06,0.0192357,12288,12288,
6.72011e+06,0.0192005,12288,12288,
6.73314e+06,0.0191176,12288,12288,
6.73966e+06,0.0190696,12288,12288,
6.74617e+06,0.0190171,12288,12288,
6.75268e+06,0.01896,12288,12288,
6.75919e+06,0.0188982,12288,12288,
6.7657e+06,0.0188316,12288,12288,
6.77871e+06,0.0186836,12288,12288,
6.78522e+06,0.0186021,12288,12288,
6.79172e+06,0.0185155,12288,12288,
6.79823e+06,0.0184236,12288,12288,
6.80473e+06,0.0183265,12288,12288,
6.81123e+06,0.018224,12288,12288,
6.81773e+06,0.0181162,12288,12288,
6.83073e+06,0.0178841,12288,12288,
6.83723e+06,0.0177599,12288,12288,
6.84373e+06,0.01763,12288,12288,
6.85023e+06,0.0174946,12288,12288,
6.85672e+06,0.0173536,12288,12288,
6.86322e+06,0.0172069,12288,12288,
6.87621e+06,0.0168968,12288,12288,
6.8827e+06,0.0167332,12288,12288,
6.88919e+06,0.0165641,12288,12288,
6.89568e+06,0.0163893,12288,12288,
6.90217e+06,0.016209,12288,12288,
6.90866e+06,0.0160231,12288,12288,
6.91515e+06,0.0158317,12288,12288,
6.92813e+06,0.0154325,12288,12288,
6.93462e+06,0.0152248,12288,12288,
6.9411e+06,0.0150117,12288,12288,
6.94759e+06,0.0147934,12288,12288,
6.95408e+06,0.0145698,12288,12288,
6.96056e+06,0.0143411,12288,12288,
6.97353e+06,0.0138686,12288,12288,
6.98001e+06,0.013625,12288,12288,
6.9865e+06,0.0133765,12288,12288,
6.99298e+06,0.0131233,12288,12288,
6.99946e+06,0.0128655,12288,12288,
7.00594e+06,0.0126031,12288,12288,
7.01891e+06,0.0120655,12288,12288,
7.02539e+06,0.0117905,12288,12288,
7.03187e+06,0.0115115,12288,12288,
7.03835e+06,0.0112287,12288,12288,
7.04483e+06,0.0109421,12288,12288,
7.05131e+06,0.010652,12288,12288,
7.05778e+06,0.0103584,12288,12288,
7.07074e+06,0.00976112,12288,12288,
7.07722e+06,0.00945771,12288,12288,
7.0837e+06,0.0091513,12288,12288,
7.09018e+06,0.00884202,12288,12288,
7.09666e+06,0.00853001,12288,12288,
7.10313e+06,0.00821543,12288,12288,
7.11609e+06,0.007579,12288,12288,
7.12257e+06,0.00725744,12288,12288,
7.12905e+06,0.00693386,12288,12288,
7.13552e+06,0.00660838,12288,12288,
7.142e+06,0.00628114,12288,12288,
7.14848e+06,0.00595227,12288,12288,
7.16144e+06,0.00529022,12288,12288,
7.16792e+06,0.0049573,12288,12288,
7.17439e+06,0.00462329,12288,12288,
7.18087e+06,0.00428833,12288,12288,
7.18735e+06,0.00395255,12288,12288,
7.19383e+06,0.00361607,12288,12288,
7.20031e+06,0.00327904,12288,12288,
7.21327e+06,0.00260381,12288,12288,
7.21975e+06,0.00226587,12288,12288,
7.22623e+06,0.0019279,12288,12288,
7.23272e+06,0.00159,12288,12288,
7.2392e+06,0.00125231,12288,12288,
7.24568e+06,0.000914941,12288,12288,
7.25865e+06,0.00024168,12288,12288,
7.26513e+06,-9.3979e-05,12288,12288,
7.27162e+06,-0.000428833,12288,12288,
7.2781e+06,-0.000762766,12288,12288,
7.28459e+06,-0.00109566,12288,12288,
7.29107e+06,-0.00142741,12288,12288,
7.29756e+06,-0.0017579,12288,12288,
7.31054e+06,-0.00241467,12288,12288,
7.31703e+06,-0.00274073,12288,12288,
7.32352e+06,-0.0030651,12288,12288,
7.33001e+06,-0.00338767,12288,12288,
7.33651e+06,-0.00370835,12288,12288,
7.343e+06,-0.00402703,12288,12288,
7.35599e+06,-0.00465799,12288,12288,
7.36249e+06,-0.00497008,12288,12288,
7.36899e+06,-0.00527978,12288,12288,
7.37549e+06,-0.00558699,12288,12288,
7.38199e+06,-0.00589163,12288,12288,
7.38849e+06,-0.00619359,12288,12288,
7.4015e+06,-0.00678915,12288,12288,
7.408e+06,-0.00708256,12288,12288,
7.41451e+06,-0.00737294,12288,12288,
7.42102e+06,-0.00766022,12288,12288,
7.42753e+06,-0.00794429,12288,12288,
7.43404e+06,-0.00822508,12288,12288,
7.44055e+06,-0.00850251,12288,12288,
7.45359e+06,-0.00904694,12288,12288,
7.4601e+06,-0.00931378,12288,12288,
7.46662e+06,-0.00957693,12288,12288,
7.47315e+06,-0.00983632,12288,12288,
7.47967e+06,-0.0100919,12288,12288,
7.48619e+06,-0.0103435,12288,12288,
7.49272e+06,-0.0105911,12288,12288,
7.50578e+06,-0.0110741,12288,12288,
7.51231e+06,-0.0113092,12288,12288,
7.51885e+06,-0.0115401,12288,12288,
7.52538e+06,-0.0117666,12288,12288,
7.53192e+06,-0.0119887,12288,12288,
7.53846e+06,-0.0122063,12288,12288,
7.545e+06,-0.0124192,12288,12288,
7.55809e+06,-0.0128311,12288,12288,
7.56464e+06,-0.0130298,12288,12288,
7.57118e+06,-0.0132236,12288,12288,
7.57773e+06,-0.0134125,12288,12288,
7.58428e+06,-0.0135964,12288,12288,
7.59083e+06,-0.0137751,12288,12288,
7.60394e+06,-0.0141172,12288,12288,
7.6105e+06,-0.0142803,12288,12288,
7.61706e+06,-0.014438,12288,12288,
7.62361e+06,-0.0145904,12288,12288,
7.63017e+06,-0.0147372,12288,12288,
7.63674e+06,-0.0148785,12288,12288,
7.6433e+06,-0.0150142,12288,12288,
7.65643e+06,-0.0152684,12288,12288,
7.663e+06,-0.0153867,12288,12288,
7.66956e+06,-0.0154991,12288,12288,
7.67613e+06,-0.0156056,12288,12288,
7.68269e+06,-0.0157059,12288,12288,
7.68925e+06,-0.0158002,12288,12288,
7.69581e+06,-0.0158883,12288,12288,
7.70892e+06,-0.0160457,12288,12288,
7.71548e+06,-0.0161149,12288,12288,
7.72203e+06,-0.0161777,12288,12288,
7.72859e+06,-0.016234,12288,12288,
7.73514e+06,-0.0162838,12288,12288,
7.74169e+06,-0.016327,12288,12288,
7.74824e+06,-0.0163634,12288,12288,
7.76132e+06,-0.0164161,12288,12288,
7.76786e+06,-0.0164323,12288,12288,
7.77439e+06,-0.0164415,12288,12288,
7.78092e+06,-0.0164437,12288,12288,
7.78745e+06,-0.0164389,12288,12288,
7.79397e+06,-0.0164271,12288,12288,
7.80049e+06,-0.0164081,12288,12288,
7.81353e+06,-0.0163484,12288,12288,
7.82004e+06,-0.0163077,12288,12288,
7.82655e+06,-0.0162595,12288,12288,
7.83306e+06,-0.0162038,12288,12288,
7.83956e+06,-0.0161407,12288,12288,
7.84607e+06,-0.0160699,12288,12288,
7.85257e+06,-0.0159915,12288,12288,
7.86557e+06,-0.0158114,12288,12288,
7.87207e+06,-0.0157095,12288,12288,
7.87857e+06,-0.0155998,12288,12288,
7.88506e+06,-0.015482,12288,12288,
7.89156e+06,-0.0153561,12288,12288,
7.89805e+06,-0.015222,12288,12288,
7.91104e+06,-0.0149292,12288,12288,
7.91753e+06,-0.0147702,12288,12288,
7.92403e+06,-0.0146028,12288,12288,
7.93052e+06,-0.0144269,12288,12288,
7.93701e+06,-0.0142424,12288,12288,
7.94351e+06,-0.0140492,12288,12288,
7.95649e+06,-0.0136366,12288,12288,
7.96298e+06,-0.0134171,12288,12288,
7.96948e+06,-0.0131886,12288,12288,
7.97597e+06,-0.0129513,12288,12288,
7.98246e+06,-0.0127048,12288,12288,
7.98896e+06,-0.0124494,12288,12288,
7.99545e+06,-0.0121848,12288,12288,
8.00845e+06,-0.0116282,12288,12288,
8.01494e+06,-0.0113361,12288,12288,
8.02144e+06,-0.0110347,12288,12288,
8.02794e+06,-0.0107242,12288,12288,
8.03444e+06,-0.0104044,12288,12288,
8.04094e+06,-0.0100753,12288,12288,
8.05395e+06,-0.00938965,12288,12288,
8.06045e+06,-0.0090332,12288,12288,
8.06695e+06,-0.00866774,12288,12288,
8.07345e+06,-0.00829334,12288,12288,
8.07994e+06,-0.00791007,12288,12288,
8.08644e+06,-0.00751801,12288,12288,
8.09294e+06,-0.00711728,12288,12288,
8.10593e+06,-0.00629027,12288,12288,
8.11243e+06,-0.00586427,12288,12288,
8.11892e+06,-0.00543015,12288,12288,
8.12541e+06,-0.00498809,12288,12288,
8.13191e+06,-0.00453829,12288,12288,
8.1384e+06,-0.00408096,12288,12288,
8.15138e+06,-0.00314465,12288,12288,
8.15787e+06,-0.00266618,12288,12288,
8.16436e+06,-0.00218121,12288,12288,
8.17085e+06,-0.00169004,12288,12288,
8.17734e+06,-0.00119298,12288,12288,
8.18383e+06,-0.000690386,12288,12288,
8.19032e+06,-0.0001826,12288,12288,
8.2033e+06,0.000847029,12288,12288,
8.20978e+06,0.00136808,12288,12288,
8.21627e+06,0.00189272,12288,12288,
8.22276e+06,0.00242053,12288,12288,
8.22924e+06,0.00295105,12288,12288,
8.23573e+06,0.00348381,12288,12288,
8.2487e+06,0.00455415,12288,12288,
8.25519e+06,0.00509074,12288,12288,
8.26167e+06,0.0056276,12288,12288,
8.26816e+06,0.00616421,12288,12288,
8.27464e+06,0.00670006,12288,12288,
8.28113e+06,0.00723461,12288,12288,
8.28762e+06,0.00776734,12288,12288,
8.30059e+06,0.00882519,12288,12288,
8.30707e+06,0.00934925,12288,12288,
8.31356e+06,0.00986936,12288,12288,
8.32004e+06,0.010385,12288,12288,
8.32653e+06,0.0108957,12288,12288,
8.33301e+06,0.0114008,12288,12288,
8.34598e+06,0.0123927,12288,12288,
8.35247e+06,0.0128784,12288,12288,
8.35895e+06,0.0133566,12288,12288,
8.36544e+06,0.0138269,12288,12288,
8.37193e+06,0.0142887,12288,12288,
8.37841e+06,0.0147418,12288,12288,
8.39139e+06,0.0156197,12288,12288,
8.39788e+06,0.0160438,12288,12288,
8.40437e+06,0.0164576,12288,12288,
8.41085e+06,0.0168608,12288,12288,
8.41734e+06,0.0172529,12288,12288,
8.42383e+06,0.0176339,12288,12288,
8.43032e+06,0.0180035,12288,12288,
8.44331e+06,0.018708,12288,12288,
8.4498e+06,0.0190425,12288,12288,
8.45629e+06,0.019365,12288,12288,
8.46279e+06,0.0196754,12288,12288,
8.46928e+06,0.0199736,12288,12288,
8.47578e+06,0.0202596,12288,12288,
8.48877e+06,0.0207947,12288,12288,
8.49527e+06,0.0210439,12288,12288,
8.50177e+06,0.0212809,12288,12288,
8.50827e+06,0.0215058,12288,12288,
8.51477e+06,0.0217185,12288,12288,
8.52127e+06,0.0219193,12288,12288,
8.52778e+06,0.0221083,12288,12288,
8.54079e+06,0.0224511,12288,12288,
8.54729e+06,0.0226053,12288,12288,
8.5538e+06,0.0227482,12288,12288,
8.56031e+06,0.0228801,12288,12288,
8.56682e+06,0.0230011,12288,12288,
8.57334e+06,0.0231114,12288,12288,
8.58637e+06,0.0233009,12288,12288,
8.59288e+06,0.0233805,12288,12288,
8.5994e+06,0.0234504,12288,12288,
8.60592e+06,0.0235108,12288,12288,
8.61244e+06,0.0235619,12288,12288,
8.61897e+06,0.023604,12288,12288,
8.62549e+06,0.0236373,12288,12288,
8.63855e+06,0.0236787,12288,12288,
8.64508e+06,0.0236873,12288,12288,
8.65162e+06,0.0236882,12288,12288,
8.65815e+06,0.0236816,12288,12288,
8.66469e+06,0.0236679,12288,12288,
8.67123e+06,0.0236472,12288,12288,
8.67777e+06,0.0236198,12288,12288,
8.69086e+06,0.0235461,12288,12288,
8.69741e+06,0.0235002,12288,12288,
8.70396e+06,0.0234487,12288,12288,
8.71051e+06,0.0233917,12288,12288,
8.71707e+06,0.0233296,12288,12288,
8.72363e+06,0.0232625,12288,12288,
8.73019e+06,0.0231907,12288,12288,
8.74332e+06,0.0230338,12288,12288,
8.74989e+06,0.0229492,12288,12288,
8.75646e+06,0.0228607,12288,12288,
8.76303e+06,0.0227686,12288,12288,
8.76961e+06,0.0226731,12288,12288,
8.77619e+06,0.0225743,12288,12288,
8.78278e+06,0.0224725,12288,12288,
8.79595e+06,0.0222603,12288,12288,
8.80254e+06,0.0221504,12288,12288,
8.80914e+06,0.0220381,12288,12288,
8.81574e+06,0.0219237,12288,12288,
8.82234e+06,0.0218072,12288,12288,
8.82894e+06,0.0216889,12288,12288,
8.83554e+06,0.0215689,12288,12288,
8.84873e+06,0.0213245,12288,12288,
8.85533e+06,0.0212002,12288,12288,
8.86193e+06,0.0210749,12288,12288,
8.86853e+06,0.0209484,12288,12288,
8.87514e+06,0.0208211,12288,12288,
8.88174e+06,0.0206929,12288,12288,
8.88834e+06,0.020564,12288,12288,
8.90154e+06,0.0203045,12288,12288,
8.90814e+06,0.020174,12288,12288,
8.91474e+06,0.0200431,12288,12288,
8.92134e+06,0.019912,12288,12288,
8.92795e+06,0.0197807,12288,12288,
8.93454e+06,0.0196493,12288,12288,
8.94114e+06,0.0195179,12288,12288,
8.94773e+06,0.0193866,12288,12288,
8.96089e+06,0.0191245,12288,12288,
8.96746e+06,0.0189938,12288,12288,
8.97403e+06,0.0188633,12288,12288,
8.9806e+06,0.0187332,12288,12288,
8.98716e+06,0.0186033,12288,12288,
8.99372e+06,0.0184739,12288,12288,
9.00027e+06,0.0183449,12288,12288,
9.01337e+06,0.0180881,12288,12288,
9.01991e+06,0.0179604,12288,12288,
9.02645e+06,0.0178332,12288,12288,
9.03299e+06,0.0177065,12288,12288,
9.03952e+06,0.0175803,12288,12288,
9.04605e+06,0.0174546,12288,12288,
9.05258e+06,0.0173294,12288,12288,
9.06562e+06,0.0170806,12288,12288,
9.07214e+06,0.016957,12288,12288,
9.07865e+06,0.0168339,12288,12288,
9.08517e+06,0.0167113,12288,12288,
9.09168e+06,0.0165893,12288,12288,
9.09818e+06,0.0164678,12288,12288,
9.11118e+06,0.0162263,12288,12288,
9.11767e+06,0.0161063,12288,12288,
9.12417e+06,0.0159868,12288,12288,
9.13065e+06,0.0158677,12288,12288,
9.13714e+06,0.0157491,12288,12288,
9.14362e+06,0.0156309,12288,12288,
9.1501e+06,0.0155131,12288,12288,
9.16305e+06,0.0152787,12288,12288,
9.16953e+06,0.015162,12288,12288,
9.176e+06,0.0150457,12288,12288,
9.18246e+06,0.0149296,12288,12288,
9.18893e+06,0.0148138,12288,12288,
9.19539e+06,0.0146982,12288,12288,
9.20832e+06,0.0144678,12288,12288,
9.21477e+06,0.0143528,12288,12288,
9.22123e+06,0.014238,12288,12288,
9.22769e+06,0.0141233,12288,12288,
9.23414e+06,0.0140086,12288,12288,
9.24059e+06,0.013894,12288,12288,
9.25349e+06,0.0136649,12288,12288,
9.25994e+06,0.0135504,12288,12288,
9.26639e+06,0.0134357,12288,12288,
9.27284e+06,0.013321,12288,12288,
9.27928e+06,0.0132061,12288,12288,
9.28573e+06,0.0130911,12288,12288,
9.29862e+06,0.0128605,12288,12288,
9.30506e+06,0.0127449,12288,12288,
9.3115e+06,0.0126289,12288,12288,
9.31794e+06,0.0125127,12288,12288,
9.32438e+06,0.0123962,12288,12288,
9.33082e+06,0.0122793,12288,12288,
9.3437e+06,0.0120442,12288,12288,
9.35014e+06,0.011926,12288,12288,
9.35658e+06,0.0118074,12288,12288,
9.36302e+06,0.0116882,12288,12288,
9.36946e+06,0.0115685,12288,12288,
9.3759e+06,0.0114483,12288,12288,
9.38877e+06,0.011206,12288,12288,
9.39521e+06,0.0110839,12288,12288,
9.40165e+06,0.0109611,12288,12288,
9.40809e+06,0.0108376,12288,12288,
9.41453e+06,0.0107134,12288,12288,
9.42097e+06,0.0105885,12288,12288,
9.43385e+06,0.0103363,12288,12288,
9.44029e+06,0.010209,12288,12288,
9.44673e+06,0.0100809,12288,12288,
9.45316e+06,0.00995197,12288,12288,
9.45961e+06,0.00982214,12288,12288,
9.46605e+06,0.00969143,12288,12288,
9.47893e+06,0.00942728,12288,12288,
9.48537e+06,0.00929381,12288,12288,
9.49181e+06,0.0091594,12288,12288,
9.49825e+06,0.00902402,12288,12288,
9.5047e+06,0.00888767,12288,12288,
9.51114e+06,0.00875034,12288,12288,
9.51758e+06,0.00861202,12288,12288,
9.53047e+06,0.00833235,12288,12288,
9.53692e+06,0.008191,12288,12288,
9.54336e+06,0.00804863,12288,12288,
9.54981e+06,0.00790524,12288,12288,
9.55626e+06,0.00776082,12288,12288,
9.5627e+06,0.00761537,12288,12288,
9.5756e+06,0.0073214,12288,12288,
9.58205e+06,0.00717288,12288,12288,
9.5885e+06,0.00702334,12288,12288,
9.59495e+06,0.00687279,12288,12288,
9.6014e+06,0.00672123,12288,12288,
9.60785e+06,0.00656867,12288,12288,
9.62075e+06,0.00626059,12288,12288,
9.62721e+06,0.0061051,12288,12288,
9.63366e+06,0.00594865,12288,12288,
9.64012e+06,0.00579127,12288,12288,
9.64657e+06,0.00563296,12288,12288,
9.65303e+06,0.00547374,12288,12288,
9.66594e+06,0.00515267,12288,12288,
