time,surface_elevation,number_of_local_cells,number_of_global_cells
0,0,12288,12288,
13300.6,0,12288,12288,
19736.5,0,12288,12288,
25962.3,0,12288,12288,
32410.5,0,12288,12288,
39046.5,0,12288,12288,
45696.7,0,12288,12288,
58997.3,0,12288,12288,
65647.6,0,12288,12288,
72297.9,0,12288,12288,
78948.2,0,12288,12288,
85598.5,0,12288,12288,
92248.8,0,12288,12288,
98899.1,0,12288,12288,
105549,0,12288,12288,
118850,0,12288,12288,
125500,0,12288,12288,
132151,0,12288,12288,
138801,0,12288,12288,
145451,0,12288,12288,
152101,0,12288,12288,
158752,0,12288,12288,
165402,0,12288,12288,
178703,0,12288,12288,
185353,0,12288,12288,
192003,0,12288,12288,
198653,0,12288,12288,
205304,0,12288,12288,
211954,0,12288,12288,
218604,0,12288,12288,
225255,0,12288,12288,
238555,0,12288,12288,
245205,0,12288,12288,
251856,0,12288,12288,
258506,0,12288,12288,
265156,0,12288,12288,
271807,0,12288,12288,
278457,0,12288,12288,
285107,0,12288,12288,
298408,0,12288,12288,
305058,0,12288,12288,
311708,0,12288,12288,
318359,0,12288,12288,
325009,0,12288,12288,
331659,0,12288,12288,
338309,0,12288,12288,
351610,0,12288,12288,
358260,0,12288,12288,
364911,0,12288,12288,
371561,0,12288,12288,
378211,0,12288,12288,
384861,0,12288,12288,
391512,0,12288,12288,
398162,0,12288,12288,
411463,0,12288,12288,
418113,0,12288,12288,
424763,0,12288,12288,
431414,0,12288,12288,
438064,0,12288,12288,
444714,0,12288,12288,
451364,0,12288,12288,
458015,0,12288,12288,
471315,0,12288,12288,
477965,0,12288,12288,
484614,0,12288,12288,
491264,0,12288,12288,
497912,0,12288,12288,
504559,0,12288,12288,
511205,0,12288,12288,
517849,0,12288,12288,
531122,0,12288,12288,
537749,0,12288,12288,
544364,0,12288,12288,
550964,0,12288,12288,
557543,0,12288,12288,
564093,0,12288,12288,
570606,0,12288,12288,
583476,0,12288,12288,
589809,0,12288,12288,
596054,0,12288,12288,
602206,2.22045e-16,12288,12288,
608262,6.66134e-16,12288,12288,
620079,3.33067e-15,12288,12288,
625850,6.88338e-15,12288,12288,
631544,1.37668e-14,12288,12288,
642744,5.28466e-14,12288,12288,
648274,1.00142e-13,12288,12288,
653771,1.86517e-13,12288,12288,
664704,6.16174e-13,12288,12288,
670153,1.09601e-12,12288,12288,
675599,1.92402e-12,12288,12288,
686493,5.71343e-12,12288,12288,
691948,9.67737e-12,12288,12288,
702887,2.69047e-11,12288,12288,
708376,4.42038e-11,12288,12288,
713881,7.1956e-11,12288,12288,
724945,1.85725e-10,12288,12288,
730507,2.94683e-10,12288,12288,
736089,4.6384e-10,12288,12288,
747263,1.11933e-09,12288,12288,
752859,1.71726e-09,12288,12288,
758465,2.61412e-09,12288,12288,
769711,5.92512e-09,12288,12288,
775356,8.82722e-09,12288,12288,
781016,1.30633e-08,12288,12288,
792391,2.8067e-08,12288,12288,
798107,4.07636e-08,12288,12288,
803842,5.88554e-08,12288,12288,
815376,1.2061e-07,12288,12288,
821176,1.71231e-07,12288,12288,
826998,2.41799e-07,12288,12288,
832844,3.39661e-07,12288,12288,
844604,6.60015e-07,12288,12288,
850521,9.13159e-07,12288,12288,
856461,1.25721e-06,12288,12288,
868416,2.34885e-06,12288,12288,
874431,3.18777e-06,12288,12288,
880471,4.30613e-06,12288,12288,
886536,5.78992e-06,12288,12288,
892626,7.74924e-06,12288,12288,
904883,1.36926e-05,12288,12288,
911049,1.80779e-05,12288,12288,
917241,2.37605e-05,12288,12288,
923458,3.10895e-05,12288,12288,
935969,5.25184e-05,12288,12288,
942262,6.78048e-05,12288,12288,
948581,8.71528e-05,12288,12288,
954925,0.000111527,12288,12288,
961294,0.000142087,12288,12288,
967688,0.000180223,12288,12288,
980551,0.000286137,12288,12288,
987020,0.000358166,12288,12288,
993514,0.000446358,12288,12288,
1.00003e+06,0.000553821,12288,12288,
1.00657e+06,0.000684139,12288,12288,
1.01314e+06,0.000841411,12288,12288,
1.02635e+06,0.00125602,12288,12288,
1.03296e+06,0.00152362,12288,12288,
1.03957e+06,0.00183865,12288,12288,
1.04618e+06,0.00220746,12288,12288,
1.05277e+06,0.00263684,12288,12288,
1.05936e+06,0.00313398,12288,12288,
1.06594e+06,0.00370638,12288,12288,
1.07252e+06,0.00436182,12288,12288,
1.08565e+06,0.00595342,12288,12288,
1.09221e+06,0.00690527,12288,12288,
1.09876e+06,0.00797123,12288,12288,
1.10531e+06,0.00915824,12288,12288,
1.11185e+06,0.0104726,12288,12288,
1.11839e+06,0.0119195,12288,12288,
1.13145e+06,0.0152267,12288,12288,
1.13797e+06,0.0170908,12288,12288,
1.14449e+06,0.0190952,12288,12288,
1.151e+06,0.0212372,12288,12288,
1.15751e+06,0.0235121,12288,12288,
1.16402e+06,0.0259132,12288,12288,
1.17053e+06,0.0284313,12288,12288,
1.18353e+06,0.0337716,12288,12288,
1.19002e+06,0.036565,12288,12288,
1.19652e+06,0.0394184,12288,12288,
1.20301e+06,0.0423132,12288,12288,
1.2095e+06,0.0452297,12288,12288,
1.21599e+06,0.0481474,12288,12288,
1.22897e+06,0.0539026,12288,12288,
1.23546e+06,0.0566986,12288,12288,
1.24194e+06,0.0594134,12288,12288,
1.24843e+06,0.0620284,12288,12288,
1.25492e+06,0.064526,12288,12288,
1.2614e+06,0.0668906,12288,12288,
1.26789e+06,0.0691081,12288,12288,
1.28088e+06,0.0730561,12288,12288,
1.28737e+06,0.0747687,12288,12288,
1.29386e+06,0.0762986,12288,12288,
1.30036e+06,0.0776419,12288,12288,
1.30686e+06,0.0787965,12288,12288,
1.31336e+06,0.0797623,12288,12288,
1.32638e+06,0.0811341,12288,12288,
1.33289e+06,0.0815468,12288,12288,
1.33941e+06,0.0817839,12288,12288,
1.34593e+06,0.0818512,12288,12288,
1.35245e+06,0.0817556,12288,12288,
1.35898e+06,0.0815041,12288,12288,
1.36551e+06,0.0811046,12288,12288,
1.37858e+06,0.0798933,12288,12288,
1.38512e+06,0.079098,12288,12288,
1.39166e+06,0.0781877,12288,12288,
1.39821e+06,0.0771703,12288,12288,
1.40476e+06,0.0760539,12288,12288,
1.41131e+06,0.0748463,12288,12288,
1.41786e+06,0.0735549,12288,12288,
1.43097e+06,0.0707487,12288,12288,
1.43753e+06,0.0692472,12288,12288,
1.44409e+06,0.0676883,12288,12288,
1.45066e+06,0.0660777,12288,12288,
1.45723e+06,0.0644209,12288,12288,
1.4638e+06,0.0627229,12288,12288,
1.47037e+06,0.0609883,12288,12288,
1.48353e+06,0.0574268,12288,12288,
1.49011e+06,0.0556078,12288,12288,
1.4967e+06,0.053768,12288,12288,
1.50328e+06,0.0519108,12288,12288,
1.50987e+06,0.0500392,12288,12288,
1.51647e+06,0.048156,12288,12288,
1.52306e+06,0.0462638,12288,12288,
1.53626e+06,0.0424617,12288,12288,
1.54286e+06,0.0405561,12288,12288,
1.54946e+06,0.0386501,12288,12288,
1.55607e+06,0.0367455,12288,12288,
1.56267e+06,0.034844,12288,12288,
1.56928e+06,0.032947,12288,12288,
1.57589e+06,0.0310563,12288,12288,
1.58909e+06,0.027305,12288,12288,
1.59568e+06,0.025447,12288,12288,
1.60226e+06,0.0236024,12288,12288,
1.60883e+06,0.0217726,12288,12288,
1.61539e+06,0.0199586,12288,12288,
1.62194e+06,0.0181618,12288,12288,
1.62847e+06,0.0163833,12288,12288,
1.64151e+06,0.0128844,12288,12288,
1.648e+06,0.0111659,12288,12288,
1.65447e+06,0.00946961,12288,12288,
1.66093e+06,0.0077965,12288,12288,
1.66737e+06,0.00614763,12288,12288,
1.67379e+06,0.00452319,12288,12288,
1.68019e+06,0.00292468,12288,12288,
1.69293e+06,-0.000186165,12288,12288,
1.69926e+06,-0.00169766,12288,12288,
1.70558e+06,-0.00317947,12288,12288,
1.71187e+06,-0.00463144,12288,12288,
1.71814e+06,-0.00605344,12288,12288,
1.73062e+06,-0.00880502,12288,12288,
1.73682e+06,-0.0101333,12288,12288,
1.74301e+06,-0.0114311,12288,12288,
1.74918e+06,-0.0127,12288,12288,
1.75533e+06,-0.0139399,12288,12288,
1.76758e+06,-0.0163316,12288,12288,
1.77369e+06,-0.017483,12288,12288,
1.77977e+06,-0.0186046,12288,12288,
1.78585e+06,-0.0196962,12288,12288,
1.79797e+06,-0.0217892,12288,12288,
1.80402e+06,-0.0227905,12288,12288,
1.81005e+06,-0.0237615,12288,12288,
1.81609e+06,-0.0247017,12288,12288,
1.82813e+06,-0.0264889,12288,12288,
1.83415e+06,-0.0273353,12288,12288,
1.84016e+06,-0.0281497,12288,12288,
1.84617e+06,-0.0289308,12288,12288,
1.85815e+06,-0.0303925,12288,12288,
1.86413e+06,-0.0310727,12288,12288,
1.8701e+06,-0.0317189,12288,12288,
1.87607e+06,-0.0323309,12288,12288,
1.888e+06,-0.0334513,12288,12288,
1.89396e+06,-0.0339592,12288,12288,
1.89992e+06,-0.034432,12288,12288,
1.90588e+06,-0.0348692,12288,12288,
1.91781e+06,-0.0356362,12288,12288,
1.92377e+06,-0.0359654,12288,12288,
1.92974e+06,-0.036258,12288,12288,
1.93571e+06,-0.036514,12288,12288,
1.94767e+06,-0.036915,12288,12288,
1.95366e+06,-0.0370597,12288,12288,
1.95965e+06,-0.0371672,12288,12288,
1.96565e+06,-0.0372374,12288,12288,
1.97768e+06,-0.0372659,12288,12288,
1.9837e+06,-0.0372244,12288,12288,
1.98973e+06,-0.0371459,12288,12288,
1.99577e+06,-0.0370306,12288,12288,
2.00789e+06,-0.036691,12288,12288,
2.01396e+06,-0.0364674,12288,12288,
2.02004e+06,-0.0362087,12288,12288,
2.02613e+06,-0.0359154,12288,12288,
2.03835e+06,-0.0352278,12288,12288,
2.04448e+06,-0.0348351,12288,12288,
2.05062e+06,-0.034411,12288,12288,
2.05677e+06,-0.0339564,12288,12288,
2.06293e+06,-0.0334725,12288,12288,
2.07529e+06,-0.0324212,12288,12288,
2.08149e+06,-0.0318562,12288,12288,
2.08771e+06,-0.0312668,12288,12288,
2.09393e+06,-0.0306543,12288,12288,
2.10017e+06,-0.0300203,12288,12288,
2.11269e+06,-0.0286934,12288,12288,
2.11897e+06,-0.0280037,12288,12288,
2.12526e+06,-0.0272987,12288,12288,
2.13157e+06,-0.0265799,12288,12288,
2.13789e+06,-0.0258489,12288,12288,
2.15057e+06,-0.0243575,12288,12288,
2.15693e+06,-0.0236002,12288,12288,
2.1633e+06,-0.0228375,12288,12288,
2.16969e+06,-0.0220708,12288,12288,
2.1761e+06,-0.0213019,12288,12288,
2.18251e+06,-0.0205323,12288,12288,
2.19539e+06,-0.018997,12288,12288,
2.20185e+06,-0.0182341,12288,12288,
2.20833e+06,-0.0174763,12288,12288,
2.21481e+06,-0.0167249,12288,12288,
2.22132e+06,-0.0159811,12288,12288,
2.22783e+06,-0.015246,12288,12288,
2.24091e+06,-0.0138064,12288,12288,
2.24747e+06,-0.0131038,12288,12288,
2.25405e+06,-0.0124139,12288,12288,
2.26063e+06,-0.0117377,12288,12288,
2.26722e+06,-0.0110774,12288,12288,
2.27379e+06,-0.0104336,12288,12288,
2.28037e+06,-0.00980656,12288,12288,
2.29351e+06,-0.00860433,12288,12288,
2.30008e+06,-0.00802952,12288,12288,
2.30664e+06,-0.00747241,12288,12288,
2.3132e+06,-0.00693304,12288,12288,
2.31975e+06,-0.00641139,12288,12288,
2.3263e+06,-0.0059075,12288,12288,
2.33285e+06,-0.00542123,12288,12288,
2.34593e+06,-0.00450076,12288,12288,
2.35246e+06,-0.00406608,12288,12288,
2.35899e+06,-0.00364804,12288,12288,
2.36552e+06,-0.00324632,12288,12288,
2.37204e+06,-0.00286056,12288,12288,
2.37855e+06,-0.00249039,12288,12288,
2.38507e+06,-0.0021354,12288,12288,
2.39808e+06,-0.00146932,12288,12288,
2.40458e+06,-0.00115737,12288,12288,
2.41108e+06,-0.000858885,12288,12288,
2.41757e+06,-0.000573419,12288,12288,
2.42406e+06,-0.00030052,12288,12288,
2.43055e+06,-3.97346e-05,12288,12288,
2.44352e+06,0.000447306,12288,12288,
2.44999e+06,0.000674457,12288,12288,
2.45647e+06,0.000891284,12288,12288,
2.46294e+06,0.00109822,12288,12288,
2.46941e+06,0.0012957,12288,12288,
2.47588e+06,0.00148413,12288,12288,
2.4888e+06,0.00183549,12288,12288,
2.49526e+06,0.0019992,12288,12288,
2.50172e+06,0.00215544,12288,12288,
2.50817e+06,0.00230458,12288,12288,
2.51462e+06,0.00244696,12288,12288,
2.52107e+06,0.00258293,12288,12288,
2.52752e+06,0.00271282,12288,12288,
2.54041e+06,0.0029556,12288,12288,
2.54686e+06,0.00306909,12288,12288,
2.5533e+06,0.00317769,12288,12288,
2.55974e+06,0.00328166,12288,12288,
2.56618e+06,0.00338126,12288,12288,
2.57262e+06,0.00347674,12288,12288,
2.58549e+06,0.00365624,12288,12288,
2.59193e+06,0.00374068,12288,12288,
2.59836e+06,0.00382187,12288,12288,
2.60479e+06,0.00389997,12288,12288,
2.61123e+06,0.00397518,12288,12288,
2.61766e+06,0.00404766,12288,12288,
2.63053e+06,0.00418506,12288,12288,
2.63696e+06,0.00425028,12288,12288,
2.64339e+06,0.00431335,12288,12288,
2.64982e+06,0.00437442,12288,12288,
2.65625e+06,0.00443359,12288,12288,
2.66269e+06,0.00449098,12288,12288,
2.67555e+06,0.00460084,12288,12288,
2.68199e+06,0.0046535,12288,12288,
2.68842e+06,0.00470477,12288,12288,
2.69486e+06,0.00475474,12288,12288,
2.70129e+06,0.00480348,12288,12288,
2.70773e+06,0.00485107,12288,12288,
2.7206e+06,0.00494308,12288,12288,
2.72704e+06,0.00498762,12288,12288,
2.73348e+06,0.00503127,12288,12288,
2.73992e+06,0.00507409,12288,12288,
2.74637e+06,0.00511612,12288,12288,
2.75281e+06,0.00515743,12288,12288,
2.7657e+06,0.00523804,12288,12288,
2.77214e+06,0.00527744,12288,12288,
2.77859e+06,0.00531629,12288,12288,
2.78504e+06,0.00535464,12288,12288,
2.79149e+06,0.00539251,12288,12288,
2.79794e+06,0.00542996,12288,12288,
2.81084e+06,0.0055037,12288,12288,
2.8173e+06,0.00554007,12288,12288,
2.82375e+06,0.00557614,12288,12288,
2.83021e+06,0.00561196,12288,12288,
2.83667e+06,0.00564755,12288,12288,
2.84312e+06,0.00568294,12288,12288,
2.85604e+06,0.00575325,12288,12288,
2.8625e+06,0.00578822,12288,12288,
2.86896e+06,0.00582312,12288,12288,
2.87542e+06,0.00585797,12288,12288,
2.88188e+06,0.00589279,12288,12288,
2.88834e+06,0.00592761,12288,12288,
2.90127e+06,0.00599737,12288,12288,
2.90773e+06,0.00603237,12288,12288,
2.9142e+06,0.00606747,12288,12288,
2.92066e+06,0.00610272,12288,12288,
2.92712e+06,0.00613812,12288,12288,
2.93359e+06,0.00617371,12288,12288,
2.94005e+06,0.00620952,12288,12288,
2.95298e+06,0.00628188,12288,12288,
2.95944e+06,0.00631848,12288,12288,
2.96591e+06,0.0063554,12288,12288,
2.97237e+06,0.00639265,12288,12288,
2.97883e+06,0.00643027,12288,12288,
2.98529e+06,0.00646827,12288,12288,
2.99821e+06,0.00654554,12288,12288,
3.00467e+06,0.00658484,12288,12288,
3.01113e+06,0.00662462,12288,12288,
3.01759e+06,0.00666491,12288,12288,
3.02405e+06,0.00670572,12288,12288,
3.0305e+06,0.00674707,12288,12288,
3.04341e+06,0.00683148,12288,12288,
3.04986e+06,0.00687459,12288,12288,
3.05632e+06,0.00691832,12288,12288,
3.06277e+06,0.00696269,12288,12288,
3.06921e+06,0.00700772,12288,12288,
3.07566e+06,0.00705344,12288,12288,
3.08855e+06,0.00714696,12288,12288,
3.09499e+06,0.00719481,12288,12288,
3.10143e+06,0.0072434,12288,12288,
3.10786e+06,0.00729275,12288,12288,
3.1143e+06,0.00734287,12288,12288,
3.12073e+06,0.00739378,12288,12288,
3.13359e+06,0.00749802,12288,12288,
3.14001e+06,0.00755137,12288,12288,
3.14644e+06,0.00760556,12288,12288,
3.15285e+06,0.00766061,12288,12288,
3.15927e+06,0.00771652,12288,12288,
3.16568e+06,0.0077733,12288,12288,
3.1785e+06,0.00788954,12288,12288,
3.1849e+06,0.00794902,12288,12288,
3.1913e+06,0.00800942,12288,12288,
3.19769e+06,0.00807076,12288,12288,
3.20408e+06,0.00813304,12288,12288,
3.21047e+06,0.00819627,12288,12288,
3.22323e+06,0.00832565,12288,12288,
3.2296e+06,0.00839183,12288,12288,
3.23597e+06,0.00845901,12288,12288,
3.24233e+06,0.00852722,12288,12288,
3.24869e+06,0.00859646,12288,12288,
3.25504e+06,0.00866676,12288,12288,
3.26774e+06,0.00881057,12288,12288,
3.27408e+06,0.00888412,12288,12288,
3.28041e+06,0.00895881,12288,12288,
3.28674e+06,0.00903464,12288,12288,
3.29306e+06,0.00911164,12288,12288,
3.30569e+06,0.00926926,12288,12288,
3.312e+06,0.00934994,12288,12288,
3.31831e+06,0.0094319,12288,12288,
3.32461e+06,0.00951518,12288,12288,
3.3309e+06,0.00959982,12288,12288,
3.34348e+06,0.0097733,12288,12288,
3.34977e+06,0.00986223,12288,12288,
3.35605e+06,0.00995269,12288,12288,
3.36232e+06,0.0100447,12288,12288,
3.3686e+06,0.0101384,12288,12288,
3.38114e+06,0.0103308,12288,12288,
3.38741e+06,0.0104297,12288,12288,
3.39367e+06,0.0105304,12288,12288,
3.39993e+06,0.0106332,12288,12288,
3.4062e+06,0.0107379,12288,12288,
3.41872e+06,0.0109537,12288,12288,
3.42498e+06,0.011065,12288,12288,
3.43125e+06,0.0111787,12288,12288,
3.43751e+06,0.0112948,12288,12288,
3.44377e+06,0.0114135,12288,12288,
3.45004e+06,0.0115349,12288,12288,
3.46258e+06,0.0117862,12288,12288,
3.46885e+06,0.0119163,12288,12288,
3.47512e+06,0.0120496,12288,12288,
3.4814e+06,0.0121862,12288,12288,
3.48768e+06,0.0123263,12288,12288,
3.50026e+06,0.0126174,12288,12288,
3.50655e+06,0.0127688,12288,12288,
3.51285e+06,0.0129243,12288,12288,
3.51916e+06,0.013084,12288,12288,
3.52547e+06,0.0132482,12288,12288,
3.5381e+06,0.0135906,12288,12288,
3.54442e+06,0.0137691,12288,12288,
3.55074e+06,0.0139527,12288,12288,
3.55707e+06,0.0141416,12288,12288,
3.5634e+06,0.0143361,12288,12288,
3.57607e+06,0.0147425,12288,12288,
3.58242e+06,0.0149549,12288,12288,
3.58877e+06,0.0151737,12288,12288,
3.59512e+06,0.015399,12288,12288,
3.60148e+06,0.0156312,12288,12288,
3.60785e+06,0.0158704,12288,12288,
3.6206e+06,0.0163708,12288,12288,
3.62698e+06,0.0166323,12288,12288,
3.63337e+06,0.0169017,12288,12288,
3.63977e+06,0.0171791,12288,12288,
3.64617e+06,0.0174646,12288,12288,
3.65258e+06,0.0177585,12288,12288,
3.66543e+06,0.0183716,12288,12288,
3.67186e+06,0.018691,12288,12288,
3.6783e+06,0.0190192,12288,12288,
3.68475e+06,0.0193561,12288,12288,
3.6912e+06,0.0197017,12288,12288,
3.69767e+06,0.020056,12288,12288,
3.71062e+06,0.0207903,12288,12288,
3.71711e+06,0.02117,12288,12288,
3.72361e+06,0.0215579,12288,12288,
3.73011e+06,0.0219536,12288,12288,
3.73662e+06,0.0223569,12288,12288,
3.74315e+06,0.0227674,12288,12288,
3.75622e+06,0.0236082,12288,12288,
3.76276e+06,0.0240376,12288,12288,
3.76932e+06,0.0244721,12288,12288,
3.77589e+06,0.0249111,12288,12288,
3.78246e+06,0.0253539,12288,12288,
3.78904e+06,0.0257997,12288,12288,
3.79563e+06,0.0262471,12288,12288,
3.80879e+06,0.0271429,12288,12288,
3.81537e+06,0.0275894,12288,12288,
3.82195e+06,0.0280335,12288,12288,
3.82853e+06,0.0284742,12288,12288,
3.83512e+06,0.0289105,12288,12288,
3.84169e+06,0.029341,12288,12288,
3.84827e+06,0.0297649,12288,12288,
3.86143e+06,0.0305876,12288,12288,
3.86801e+06,0.0309842,12288,12288,
3.87458e+06,0.0313693,12288,12288,
3.88116e+06,0.031742,12288,12288,
3.88773e+06,0.0321009,12288,12288,
3.89431e+06,0.0324451,12288,12288,
3.90088e+06,0.0327734,12288,12288,
3.91403e+06,0.0333783,12288,12288,
3.9206e+06,0.033653,12288,12288,
3.92717e+06,0.0339079,12288,12288,
3.93374e+06,0.0341423,12288,12288,
3.94031e+06,0.0343553,12288,12288,
3.94688e+06,0.0345461,12288,12288,
3.95344e+06,0.0347143,12288,12288,
3.96001e+06,0.0348591,12288,12288,
3.97314e+06,0.0350768,12288,12288,
3.97971e+06,0.0351488,12288,12288,
3.98627e+06,0.0351958,12288,12288,
3.99284e+06,0.0352176,12288,12288,
3.9994e+06,0.035214,12288,12288,
4.00596e+06,0.0351849,12288,12288,
4.01251e+06,0.0351303,12288,12288,
4.02562e+06,0.0349451,12288,12288,
4.03217e+06,0.0348147,12288,12288,
4.03871e+06,0.0346594,12288,12288,
4.04526e+06,0.0344794,12288,12288,
4.0518e+06,0.0342751,12288,12288,
4.05834e+06,0.034047,12288,12288,
4.07142e+06,0.0335206,12288,12288,
4.07795e+06,0.0332233,12288,12288,
4.08449e+06,0.032904,12288,12288,
4.09102e+06,0.0325632,12288,12288,
4.09755e+06,0.0322016,12288,12288,
4.10408e+06,0.0318196,12288,12288,
4.1106e+06,0.031418,12288,12288,
4.12365e+06,0.0305584,12288,12288,
4.13017e+06,0.0301016,12288,12288,
4.13669e+06,0.0296278,12288,12288,
4.14321e+06,0.0291376,12288,12288,
4.14972e+06,0.0286316,12288,12288,
4.15624e+06,0.0281107,12288,12288,
4.16275e+06,0.0275753,12288,12288,
4.17578e+06,0.0264642,12288,12288,
4.18229e+06,0.0258897,12288,12288,
4.1888e+06,0.0253036,12288,12288,
4.1953e+06,0.0247063,12288,12288,
4.20181e+06,0.0240986,12288,12288,
4.20831e+06,0.023481,12288,12288,
4.22132e+06,0.0222188,12288,12288,
4.22783e+06,0.0215753,12288,12288,
4.23433e+06,0.0209244,12288,12288,
4.24083e+06,0.0202666,12288,12288,
4.24733e+06,0.0196024,12288,12288,
4.25383e+06,0.0189323,12288,12288,
4.26033e+06,0.018257,12288,12288,
4.27332e+06,0.0168922,12288,12288,
4.27982e+06,0.0162038,12288,12288,
4.28632e+06,0.015512,12288,12288,
4.29281e+06,0.0148173,12288,12288,
4.29931e+06,0.0141202,12288,12288,
4.3058e+06,0.0134213,12288,12288,
4.31877e+06,0.0120198,12288,12288,
4.32525e+06,0.0113176,12288,12288,
4.33173e+06,0.0106152,12288,12288,
4.33821e+06,0.009913,12288,12288,
4.34468e+06,0.00921142,12288,12288,
4.35115e+06,0.00851087,12288,12288,
4.35762e+06,0.00781174,12288,12288,
4.37055e+06,0.00641927,12288,12288,
4.377e+06,0.00572664,12288,12288,
4.38346e+06,0.00503703,12288,12288,
4.38991e+06,0.00435065,12288,12288,
4.39636e+06,0.00366774,12288,12288,
4.4028e+06,0.00298855,12288,12288,
4.41569e+06,0.00164231,12288,12288,
4.42212e+06,0.000975736,12288,12288,
4.42855e+06,0.000313322,12288,12288,
4.43498e+06,-0.000344416,12288,12288,
4.44141e+06,-0.000997085,12288,12288,
4.44783e+06,-0.00164447,12288,12288,
4.46067e+06,-0.00292266,12288,12288,
4.46708e+06,-0.00355315,12288,12288,
4.4735e+06,-0.00417772,12288,12288,
4.4799e+06,-0.00479623,12288,12288,
4.48631e+06,-0.00540855,12288,12288,
4.49271e+06,-0.00601455,12288,12288,
4.50552e+06,-0.00720716,12288,12288,
4.51191e+06,-0.00779345,12288,12288,
4.5183e+06,-0.00837288,12288,12288,
4.52469e+06,-0.00894533,12288,12288,
4.53108e+06,-0.00951067,12288,12288,
4.54385e+06,-0.0106196,12288,12288,
4.55023e+06,-0.0111629,12288,12288,
4.5566e+06,-0.0116987,12288,12288,
4.56298e+06,-0.0122268,12288,12288,
4.56935e+06,-0.0127472,12288,12288,
4.57572e+06,-0.0132598,12288,12288,
4.58846e+06,-0.014261,12288,12288,
4.59483e+06,-0.0147495,12288,12288,
4.60119e+06,-0.0152299,12288,12288,
4.60755e+06,-0.015702,12288,12288,
4.61392e+06,-0.0161657,12288,12288,
4.62028e+06,-0.016621,12288,12288,
4.633e+06,-0.0175061,12288,12288,
4.63936e+06,-0.0179356,12288,12288,
4.64572e+06,-0.0183564,12288,12288,
4.65208e+06,-0.0187683,12288,12288,
4.65844e+06,-0.0191713,12288,12288,
4.67117e+06,-0.0199499,12288,12288,
4.67753e+06,-0.0203255,12288,12288,
4.6839e+06,-0.0206917,12288,12288,
4.69026e+06,-0.0210485,12288,12288,
4.69663e+06,-0.0213958,12288,12288,
4.703e+06,-0.0217335,12288,12288,
4.71574e+06,-0.0223796,12288,12288,
4.72211e+06,-0.0226878,12288,12288,
4.72849e+06,-0.022986,12288,12288,
4.73487e+06,-0.023274,12288,12288,
4.74125e+06,-0.0235517,12288,12288,
4.74763e+06,-0.0238191,12288,12288,
4.76041e+06,-0.0243221,12288,12288,
4.76681e+06,-0.0245575,12288,12288,
4.77321e+06,-0.0247819,12288,12288,
4.77961e+06,-0.0249954,12288,12288,
4.78601e+06,-0.0251976,12288,12288,
4.79884e+06,-0.0255679,12288,12288,
4.80525e+06,-0.0257357,12288,12288,
4.81168e+06,-0.0258917,12288,12288,
4.8181e+06,-0.0260357,12288,12288,
4.82453e+06,-0.0261676,12288,12288,
4.83097e+06,-0.0262872,12288,12288,
4.84386e+06,-0.0264889,12288,12288,
4.85031e+06,-0.0265706,12288,12288,
4.85677e+06,-0.0266393,12288,12288,
4.86323e+06,-0.0266948,12288,12288,
4.8697e+06,-0.026737,12288,12288,
4.87617e+06,-0.0267656,12288,12288,
4.88265e+06,-0.0267805,12288,12288,
4.89563e+06,-0.0267683,12288,12288,
4.90213e+06,-0.0267409,12288,12288,
4.90863e+06,-0.0266989,12288,12288,
4.91514e+06,-0.0266423,12288,12288,
4.92165e+06,-0.0265708,12288,12288,
4.92818e+06,-0.0264842,12288,12288,
4.94124e+06,-0.0262652,12288,12288,
4.94778e+06,-0.0261325,12288,12288,
4.95433e+06,-0.0259839,12288,12288,
4.96088e+06,-0.0258195,12288,12288,
4.96744e+06,-0.0256391,12288,12288,
4.97401e+06,-0.0254424,12288,12288,
4.98059e+06,-0.0252295,12288,12288,
4.99373e+06,-0.0247552,12288,12288,
5.00029e+06,-0.0244939,12288,12288,
5.00686e+06,-0.0242163,12288,12288,
5.01342e+06,-0.0239226,12288,12288,
5.01998e+06,-0.0236128,12288,12288,
5.02654e+06,-0.0232869,12288,12288,
5.0331e+06,-0.022945,12288,12288,
5.04621e+06,-0.0222135,12288,12288,
5.05276e+06,-0.0218243,12288,12288,
5.05931e+06,-0.0214196,12288,12288,
5.06586e+06,-0.0209998,12288,12288,
5.0724e+06,-0.0205649,12288,12288,
5.07894e+06,-0.0201153,12288,12288,
5.08548e+06,-0.0196512,12288,12288,
5.09855e+06,-0.0186809,12288,12288,
5.10508e+06,-0.0181754,12288,12288,
5.11161e+06,-0.0176569,12288,12288,
5.11813e+06,-0.0171258,12288,12288,
5.12466e+06,-0.0165825,12288,12288,
5.13118e+06,-0.0160276,12288,12288,
5.1377e+06,-0.0154616,12288,12288,
5.15072e+06,-0.0142984,12288,12288,
5.15724e+06,-0.0137023,12288,12288,
5.16374e+06,-0.0130975,12288,12288,
5.17025e+06,-0.0124845,12288,12288,
5.17676e+06,-0.0118641,12288,12288,
5.18326e+06,-0.0112369,12288,12288,
5.19625e+06,-0.00996504,12288,12288,
5.20275e+06,-0.00932183,12288,12288,
5.20924e+06,-0.00867477,12288,12288,
5.21573e+06,-0.00802463,12288,12288,
5.22222e+06,-0.00737217,12288,12288,
5.22871e+06,-0.00671817,12288,12288,
5.23519e+06,-0.0060634,12288,12288,
5.24816e+06,-0.00475469,12288,12288,
5.25463e+06,-0.00410228,12288,12288,
5.26111e+06,-0.00345219,12288,12288,
5.26758e+06,-0.00280517,12288,12288,
5.27406e+06,-0.00216196,12288,12288,
5.28053e+06,-0.00152329,12288,12288,
5.29346e+06,-0.000262348,12288,12288,
5.29992e+06,0.000358562,12288,12288,
5.30639e+06,0.000972233,12288,12288,
5.31285e+06,0.00157805,12288,12288,
5.31931e+06,0.00217542,12288,12288,
5.32576e+06,0.00276377,12288,12288,
5.33867e+06,0.00391136,12288,12288,
5.34513e+06,0.00446961,12288,12288,
5.35158e+06,0.00501691,12288,12288,
5.35802e+06,0.00555285,12288,12288,
5.36447e+06,0.00607706,12288,12288,
5.37092e+06,0.00658919,12288,12288,
5.3838e+06,0.00757607,12288,12288,
5.39024e+06,0.00805031,12288,12288,
5.39668e+06,0.00851146,12288,12288,
5.40312e+06,0.00895936,12288,12288,
5.40956e+06,0.00939387,12288,12288,
5.41599e+06,0.00981488,12288,12288,
5.42886e+06,0.0106161,12288,12288,
5.43529e+06,0.0109963,12288,12288,
5.44172e+06,0.0113629,12288,12288,
5.44814e+06,0.0117158,12288,12288,
5.45457e+06,0.0120553,12288,12288,
5.461e+06,0.0123813,12288,12288,
5.47385e+06,0.0129934,12288,12288,
5.48027e+06,0.0132799,12288,12288,
5.48669e+06,0.0135534,12288,12288,
5.49311e+06,0.0138143,12288,12288,
5.49953e+06,0.0140627,12288,12288,
5.50595e+06,0.0142988,12288,12288,
5.51878e+06,0.0147352,12288,12288,
5.5252e+06,0.014936,12288,12288,
5.53161e+06,0.0151255,12288,12288,
5.53803e+06,0.0153041,12288,12288,
5.54444e+06,0.0154719,12288,12288,
5.55085e+06,0.0156293,12288,12288,
5.56367e+06,0.015914,12288,12288,
5.57008e+06,0.0160419,12288,12288,
5.57649e+06,0.0161606,12288,12288,
5.5829e+06,0.0162703,12288,12288,
5.58931e+06,0.0163715,12288,12288,
5.59572e+06,0.0164643,12288,12288,
5.60854e+06,0.0166263,12288,12288,
5.61495e+06,0.0166961,12288,12288,
5.62135e+06,0.0167588,12288,12288,
5.62776e+06,0.0168146,12288,12288,
5.63417e+06,0.016864,12288,12288,
5.64057e+06,0.0169072,12288,12288,
5.65339e+06,0.0169761,12288,12288,
5.65979e+06,0.0170023,12288,12288,
5.6662e+06,0.0170235,12288,12288,
5.6726e+06,0.0170398,12288,12288,
5.67901e+06,0.0170516,12288,12288,
5.68542e+06,0.017059,12288,12288,
5.69823e+06,0.0170619,12288,12288,
5.70464e+06,0.0170579,12288,12288,
5.71105e+06,0.0170505,12288,12288,
5.71746e+06,0.0170399,12288,12288,
5.72387e+06,0.0170265,12288,12288,
5.73028e+06,0.0170103,12288,12288,
5.7431e+06,0.0169705,12288,12288,
5.74951e+06,0.0169474,12288,12288,
5.75592e+06,0.0169223,12288,12288,
5.76233e+06,0.0168954,12288,12288,
5.76875e+06,0.0168669,12288,12288,
5.77516e+06,0.016837,12288,12288,
5.78799e+06,0.0167735,12288,12288,
5.79441e+06,0.0167402,12288,12288,
5.80083e+06,0.0167061,12288,12288,
5.80725e+06,0.0166713,12288,12288,
5.81367e+06,0.0166359,12288,12288,
5.82009e+06,0.0166,12288,12288,
5.83294e+06,0.0165275,12288,12288,
5.83937e+06,0.016491,12288,12288,
5.8458e+06,0.0164545,12288,12288,
5.85223e+06,0.0164181,12288,12288,
5.85866e+06,0.0163818,12288,12288,
5.86509e+06,0.0163459,12288,12288,
5.87796e+06,0.0162751,12288,12288,
5.8844e+06,0.0162405,12288,12288,
5.89083e+06,0.0162065,12288,12288,
5.89728e+06,0.0161731,12288,12288,
5.90372e+06,0.0161404,12288,12288,
5.91016e+06,0.0161085,12288,12288,
5.92305e+06,0.0160472,12288,12288,
5.9295e+06,0.016018,12288,12288,
5.93595e+06,0.0159897,12288,12288,
5.94241e+06,0.0159625,12288,12288,
5.94886e+06,0.0159363,12288,12288,
5.95532e+06,0.0159112,12288,12288,
5.96824e+06,0.0158645,12288,12288,
5.9747e+06,0.015843,12288,12288,
5.98116e+06,0.0158226,12288,12288,
5.98763e+06,0.0158035,12288,12288,
5.9941e+06,0.0157857,12288,12288,
6.00057e+06,0.0157692,12288,12288,
6.01352e+06,0.0157401,12288,12288,
6.01999e+06,0.0157275,12288,12288,
6.02647e+06,0.0157164,12288,12288,
6.03295e+06,0.0157065,12288,12288,
6.03943e+06,0.0156981,12288,12288,
6.04592e+06,0.0156911,12288,12288,
6.05889e+06,0.0156811,12288,12288,
6.06539e+06,0.0156783,12288,12288,
6.07188e+06,0.0156769,12288,12288,
6.07837e+06,0.0156768,12288,12288,
6.08487e+06,0.0156782,12288,12288,
6.09137e+06,0.0156811,12288,12288,
6.09787e+06,0.0156853,12288,12288,
6.11088e+06,0.015698,12288,12288,
6.11739e+06,0.0157065,12288,12288,
6.1239e+06,0.0157164,12288,12288,
6.13042e+06,0.0157277,12288,12288,
6.13693e+06,0.0157404,12288,12288,
6.14345e+06,0.0157545,12288,12288,
6.1565e+06,0.0157869,12288,12288,
6.16302e+06,0.0158052,12288,12288,
6.16955e+06,0.0158249,12288,12288,
6.17608e+06,0.015846,12288,12288,
6.18261e+06,0.0158684,12288,12288,
6.18915e+06,0.0158922,12288,12288,
6.19569e+06,0.0159173,12288,12288,
6.20877e+06,0.0159717,12288,12288,
6.21531e+06,0.0160009,12288,12288,
6.22185e+06,0.0160314,12288,12288,
6.2284e+06,0.0160632,12288,12288,
6.23494e+06,0.0160963,12288,12288,
6.24149e+06,0.0161307,12288,12288,
6.24804e+06,0.0161664,12288,12288,
6.26115e+06,0.0162416,12288,12288,
6.26771e+06,0.0162811,12288,12288,
6.27427e+06,0.0163218,12288,12288,
6.28083e+06,0.0163638,12288,12288,
6.28739e+06,0.016407,12288,12288,
6.29396e+06,0.0164513,12288,12288,
6.30052e+06,0.0164969,12288,12288,
6.31366e+06,0.0165915,12288,12288,
6.32024e+06,0.0166405,12288,12288,
6.32682e+06,0.0166907,12288,12288,
6.3334e+06,0.0167419,12288,12288,
6.33998e+06,0.0167942,12288,12288,
6.34656e+06,0.0168475,12288,12288,
6.35315e+06,0.0169019,12288,12288,
6.36632e+06,0.0170135,12288,12288,
6.3729e+06,0.0170707,12288,12288,
6.37949e+06,0.0171287,12288,12288,
6.38607e+06,0.0171876,12288,12288,
6.39265e+06,0.0172474,12288,12288,
6.39923e+06,0.0173078,12288,12288,
6.40582e+06,0.017369,12288,12288,
6.41898e+06,0.0174934,12288,12288,
6.42556e+06,0.0175565,12288,12288,
6.43214e+06,0.01762,12288,12288,
6.43872e+06,0.0176841,12288,12288,
6.44529e+06,0.0177485,12288,12288,
6.45187e+06,0.0178133,12288,12288,
6.45844e+06,0.0178783,12288,12288,
6.46501e+06,0.0179436,12288,12288,
6.47815e+06,0.0180744,12288,12288,
6.48471e+06,0.0181398,12288,12288,
6.49128e+06,0.0182051,12288,12288,
6.49784e+06,0.0182702,12288,12288,
6.5044e+06,0.018335,12288,12288,
6.51096e+06,0.0183995,12288,12288,
6.51752e+06,0.0184635,12288,12288,
6.53063e+06,0.0185897,12288,12288,
6.53718e+06,0.0186517,12288,12288,
6.54373e+06,0.0187128,12288,12288,
6.55028e+06,0.0187729,12288,12288,
6.55683e+06,0.018832,12288,12288,
6.56338e+06,0.0188898,12288,12288,
6.57647e+06,0.0190012,12288,12288,
6.58301e+06,0.0190546,12288,12288,
6.58955e+06,0.0191062,12288,12288,
6.59609e+06,0.0191561,12288,12288,
6.60263e+06,0.0192039,12288,12288,
6.60917e+06,0.0192496,12288,12288,
6.61571e+06,0.019293,12288,12288,
6.62878e+06,0.0193725,12288,12288,
6.63531e+06,0.0194082,12288,12288,
6.64184e+06,0.0194412,12288,12288,
6.64837e+06,0.0194712,12288,12288,
6.6549e+06,0.019498,12288,12288,
6.66142e+06,0.0195216,12288,12288,
6.66795e+06,0.0195418,12288,12288,
6.681e+06,0.0195715,12288,12288,
6.68752e+06,0.0195806,12288,12288,
6.69404e+06,0.0195858,12288,12288,
6.70056e+06,0.0195868,12288,12288,
6.70708e+06,0.0195836,12288,12288,
6.7136e+06,0.0195761,12288,12288,
6.72011e+06,0.019564,12288,12288,
6.73314e+06,0.0195259,12288,12288,
6.73966e+06,0.0194996,12288,12288,
6.74617e+06,0.0194683,12288,12288,
6.75268e+06,0.0194319,12288,12288,
6.75919e+06,0.0193902,12288,12288,
6.7657e+06,0.0193433,12288,12288,
6.77871e+06,0.0192331,12288,12288,
6.78522e+06,0.0191696,12288,12288,
6.79172e+06,0.0191005,12288,12288,
6.79823e+06,0.0190257,12288,12288,
6.80473e+06,0.018945,12288,12288,
6.81123e+06,0.0188584,12288,12288,
6.81773e+06,0.0187659,12288,12288,
6.83073e+06,0.0185628,12288,12288,
6.83723e+06,0.0184522,12288,12288,
6.84373e+06,0.0183354,12288,12288,
6.85023e+06,0.0182125,12288,12288,
6.85672e+06,0.0180835,12288,12288,
6.86322e+06,0.0179483,12288,12288,
6.87621e+06,0.0176593,12288,12288,
6.8827e+06,0.0175055,12288,12288,
6.88919e+06,0.0173456,12288,12288,
6.89568e+06,0.0171795,12288,12288,
6.90217e+06,0.0170074,12288,12288,
6.90866e+06,0.0168291,12288,12288,
6.91515e+06,0.0166448,12288,12288,
6.92813e+06,0.0162582,12288,12288,
6.93462e+06,0.0160561,12288,12288,
6.9411e+06,0.0158481,12288,12288,
6.94759e+06,0.0156343,12288,12288,
6.95408e+06,0.0154148,12288,12288,
6.96056e+06,0.0151897,12288,12288,
6.97353e+06,0.0147229,12288,12288,
6.98001e+06,0.0144813,12288,12288,
6.9865e+06,0.0142345,12288,12288,
6.99298e+06,0.0139826,12288,12288,
6.99946e+06,0.0137255,12288,12288,
7.00594e+06,0.0134635,12288,12288,
7.01891e+06,0.0129251,12288,12288,
7.02539e+06,0.0126491,12288,12288,
7.03187e+06,0.0123687,12288,12288,
7.03835e+06,0.0120839,12288,12288,
7.04483e+06,0.011795,12288,12288,
7.05131e+06,0.0115021,12288,12288,
7.05778e+06,0.0112054,12288,12288,
7.07074e+06,0.0106008,12288,12288,
7.07722e+06,0.0102932,12288,12288,
7.0837e+06,0.00998221,12288,12288,
7.09018e+06,0.00966797,12288,12288,
7.09666e+06,0.00935063,12288,12288,
7.10313e+06,0.00903034,12288,12288,
7.11609e+06,0.00838149,12288,12288,
7.12257e+06,0.00805321,12288,12288,
7.12905e+06,0.00772255,12288,12288,
7.13552e+06,0.00738966,12288,12288,
7.142e+06,0.00705468,12288,12288,
7.14848e+06,0.00671775,12288,12288,
7.16144e+06,0.00603865,12288,12288,
7.16792e+06,0.00569675,12288,12288,
7.17439e+06,0.00535348,12288,12288,
7.18087e+06,0.00500898,12288,12288,
7.18735e+06,0.00466338,12288,12288,
7.19383e+06,0.00431682,12288,12288,
7.20031e+06,0.00396945,12288,12288,
7.21327e+06,0.00327277,12288,12288,
7.21975e+06,0.00292374,12288,12288,
7.22623e+06,0.00257443,12288,12288,
7.23272e+06,0.00222496,12288,12288,
7.2392e+06,0.00187548,12288,12288,
7.24568e+06,0.00152611,12288,12288,
7.25865e+06,0.000828196,12288,12288,
7.26513e+06,0.00047991,12288,12288,
7.27162e+06,0.000132236,12288,12288,
7.2781e+06,-0.000214704,12288,12288,
7.28459e+06,-0.000560789,12288,12288,
7.29107e+06,-0.000905902,12288,12288,
7.29756e+06,-0.00124992,12288,12288,
7.31054e+06,-0.00193423,12288,12288,
7.31703e+06,-0.00227429,12288,12288,
7.32352e+06,-0.00261281,12288,12288,
7.33001e+06,-0.00294966,12288,12288,
7.33651e+06,-0.00328475,12288,12288,
7.343e+06,-0.00361797,12288,12288,
7.35599e+06,-0.00427836,12288,12288,
7.36249e+06,-0.00460532,12288,12288,
7.36899e+06,-0.00493,12288,12288,
7.37549e+06,-0.00525228,12288,12288,
7.38199e+06,-0.00557208,12288,12288,
7.38849e+06,-0.00588928,12288,12288,
7.4015e+06,-0.00651555,12288,12288,
7.408e+06,-0.00682442,12288,12288,
7.41451e+06,-0.00713032,12288,12288,
7.42102e+06,-0.00743315,12288,12288,
7.42753e+06,-0.00773284,12288,12288,
7.43404e+06,-0.00802929,12288,12288,
7.44055e+06,-0.0083224,12288,12288,
7.45359e+06,-0.00889829,12288,12288,
7.4601e+06,-0.00918089,12288,12288,
7.46662e+06,-0.00945981,12288,12288,
7.47315e+06,-0.00973497,12288,12288,
7.47967e+06,-0.0100063,12288,12288,
7.48619e+06,-0.0102737,12288,12288,
7.49272e+06,-0.010537,12288,12288,
7.50578e+06,-0.0110514,12288,12288,
7.51231e+06,-0.0113023,12288,12288,
7.51885e+06,-0.0115488,12288,12288,
7.52538e+06,-0.0117909,12288,12288,
7.53192e+06,-0.0120285,12288,12288,
7.53846e+06,-0.0122615,12288,12288,
7.545e+06,-0.0124899,12288,12288,
7.55809e+06,-0.0129323,12288,12288,
7.56464e+06,-0.0131462,12288,12288,
7.57118e+06,-0.0133551,12288,12288,
7.57773e+06,-0.013559,12288,12288,
7.58428e+06,-0.0137577,12288,12288,
7.59083e+06,-0.0139512,12288,12288,
7.60394e+06,-0.0143224,12288,12288,
7.6105e+06,-0.0144999,12288,12288,
7.61706e+06,-0.0146718,12288,12288,
7.62361e+06,-0.0148383,12288,12288,
7.63017e+06,-0.014999,12288,12288,
7.63674e+06,-0.015154,12288,12288,
7.6433e+06,-0.0153033,12288,12288,
7.65643e+06,-0.0155841,12288,12288,
7.663e+06,-0.0157154,12288,12288,
7.66956e+06,-0.0158406,12288,12288,
7.67613e+06,-0.0159596,12288,12288,
7.68269e+06,-0.0160724,12288,12288,
7.68925e+06,-0.0161788,12288,12288,
7.69581e+06,-0.0162787,12288,12288,
7.70892e+06,-0.0164592,12288,12288,
7.71548e+06,-0.0165395,12288,12288,
7.72203e+06,-0.0166131,12288,12288,
7.72859e+06,-0.01668,12288,12288,
7.73514e+06,-0.0167401,12288,12288,
7.74169e+06,-0.0167933,12288,12288,
7.74824e+06,-0.0168394,12288,12288,
7.76132e+06,-0.0169106,12288,12288,
7.76786e+06,-0.0169355,12288,12288,
7.77439e+06,-0.0169532,12288,12288,
7.78092e+06,-0.0169635,12288,12288,
7.78745e+06,-0.0169665,12288,12288,
7.79397e+06,-0.0169621,12288,12288,
7.80049e+06,-0.0169502,12288,12288,
7.81353e+06,-0.0169037,12288,12288,
7.82004e+06,-0.0168689,12288,12288,
7.82655e+06,-0.0168264,12288,12288,
7.83306e+06,-0.016776,12288,12288,
7.83956e+06,-0.0167177,12288,12288,
7.84607e+06,-0.0166515,12288,12288,
7.85257e+06,-0.0165772,12288,12288,
7.86557e+06,-0.0164043,12288,12288,
7.87207e+06,-0.0163055,12288,12288,
7.87857e+06,-0.0161983,12288,12288,
7.88506e+06,-0.0160828,12288,12288,
7.89156e+06,-0.0159588,12288,12288,
7.89805e+06,-0.0158262,12288,12288,
7.91104e+06,-0.0155352,12288,12288,
7.91753e+06,-0.0153765,12288,12288,
7.92403e+06,-0.0152091,12288,12288,
7.93052e+06,-0.0150327,12288,12288,
7.93701e+06,-0.0148474,12288,12288,
7.94351e+06,-0.0146531,12288,12288,
7.95649e+06,-0.0142372,12288,12288,
7.96298e+06,-0.0140154,12288,12288,
7.96948e+06,-0.0137845,12288,12288,
7.97597e+06,-0.0135442,12288,12288,
7.98246e+06,-0.0132946,12288,12288,
7.98896e+06,-0.0130356,12288,12288,
7.99545e+06,-0.0127672,12288,12288,
8.00845e+06,-0.0122021,12288,12288,
8.01494e+06,-0.0119053,12288,12288,
8.02144e+06,-0.0115991,12288,12288,
8.02794e+06,-0.0112833,12288,12288,
8.03444e+06,-0.0109581,12288,12288,
8.04094e+06,-0.0106234,12288,12288,
8.05395e+06,-0.00992584,12288,12288,
8.06045e+06,-0.00956316,12288,12288,
8.06695e+06,-0.0091913,12288,12288,
8.07345e+06,-0.00881033,12288,12288,
8.07994e+06,-0.00842034,12288,12288,
8.08644e+06,-0.00802144,12288,12288,
8.09294e+06,-0.00761373,12288,12288,
8.10593e+06,-0.00677243,12288,12288,
8.11243e+06,-0.00633913,12288,12288,
8.11892e+06,-0.00589763,12288,12288,
8.12541e+06,-0.0054481,12288,12288,
8.13191e+06,-0.00499076,12288,12288,
8.1384e+06,-0.00452581,12288,12288,
8.15138e+06,-0.00357405,12288,12288,
8.15787e+06,-0.00308776,12288,12288,
8.16436e+06,-0.00259489,12288,12288,
8.17085e+06,-0.00209575,12288,12288,
8.17734e+06,-0.00159065,12288,12288,
8.18383e+06,-0.00107991,12288,12288,
8.19032e+06,-0.000563896,12288,12288,
8.2033e+06,0.000482524,12288,12288,
8.20978e+06,0.00101216,12288,12288,
8.21627e+06,0.00154553,12288,12288,
8.22276e+06,0.00208223,12288,12288,
8.22924e+06,0.00262182,12288,12288,
8.23573e+06,0.00316386,12288,12288,
8.2487e+06,0.00425342,12288,12288,
8.25519e+06,0.00480001,12288,12288,
8.26167e+06,0.00534715,12288,12288,
8.26816e+06,0.00589435,12288,12288,
8.27464e+06,0.00644112,12288,12288,
8.28113e+06,0.00698695,12288,12288,
8.28762e+06,0.00753133,12288,12288,
8.30059e+06,0.0086137,12288,12288,
8.30707e+06,0.00915068,12288,12288,
8.31356e+06,0.00968416,12288,12288,
8.32004e+06,0.0102136,12288,12288,
8.32653e+06,0.0107386,12288,12288,
8.33301e+06,0.0112586,12288,12288,
8.34598e+06,0.0122817,12288,12288,
8.35247e+06,0.0127838,12288,12288,
8.35895e+06,0.013279,12288,12288,
8.36544e+06,0.0137668,12288,12288,
8.37193e+06,0.0142468,12288,12288,
8.37841e+06,0.0147185,12288,12288,
8.39139e+06,0.0156353,12288,12288,
8.39788e+06,0.0160797,12288,12288,
8.40437e+06,0.0165142,12288,12288,
8.41085e+06,0.0169385,12288,12288,
8.41734e+06,0.0173523,12288,12288,
8.42383e+06,0.0177552,12288,12288,
8.43032e+06,0.0181471,12288,12288,
8.44331e+06,0.0188966,12288,12288,
8.4498e+06,0.0192539,12288,12288,
8.45629e+06,0.0195994,12288,12288,
8.46279e+06,0.0199328,12288,12288,
8.46928e+06,0.0202542,12288,12288,
8.47578e+06,0.0205632,12288,12288,
8.48877e+06,0.0211443,12288,12288,
8.49527e+06,0.0214162,12288,12288,
8.50177e+06,0.0216756,12288,12288,
8.50827e+06,0.0219225,12288,12288,
8.51477e+06,0.022157,12288,12288,
8.52127e+06,0.022379,12288,12288,
8.52778e+06,0.0225886,12288,12288,
8.54079e+06,0.0229711,12288,12288,
8.54729e+06,0.0231441,12288,12288,
8.5538e+06,0.0233051,12288,12288,
8.56031e+06,0.0234542,12288,12288,
8.56682e+06,0.0235916,12288,12288,
8.57334e+06,0.0237174,12288,12288,
8.58637e+06,0.023935,12288,12288,
8.59288e+06,0.0240272,12288,12288,
8.5994e+06,0.0241085,12288,12288,
8.60592e+06,0.0241791,12288,12288,
8.61244e+06,0.0242394,12288,12288,
8.61897e+06,0.0242894,12288,12288,
8.62549e+06,0.0243295,12288,12288,
8.63855e+06,0.0243807,12288,12288,
8.64508e+06,0.0243923,12288,12288,
8.65162e+06,0.0243949,12288,12288,
8.65815e+06,0.0243887,12288,12288,
8.66469e+06,0.0243741,12288,12288,
8.67123e+06,0.0243512,12288,12288,
8.67777e+06,0.0243203,12288,12288,
8.69086e+06,0.0242356,12288,12288,
8.69741e+06,0.0241824,12288,12288,
8.70396e+06,0.0241221,12288,12288,
8.71051e+06,0.0240552,12288,12288,
8.71707e+06,0.0239819,12288,12288,
8.72363e+06,0.0239024,12288,12288,
8.73019e+06,0.023817,12288,12288,
8.74332e+06,0.0236295,12288,12288,
8.74989e+06,0.0235279,12288,12288,
8.75646e+06,0.0234213,12288,12288,
8.76303e+06,0.02331,12288,12288,
8.76961e+06,0.0231944,12288,12288,
8.77619e+06,0.0230745,12288,12288,
8.78278e+06,0.0229506,12288,12288,
8.79595e+06,0.0226918,12288,12288,
8.80254e+06,0.0225574,12288,12288,
8.80914e+06,0.0224198,12288,12288,
8.81574e+06,0.0222794,12288,12288,
8.82234e+06,0.0221363,12288,12288,
8.82894e+06,0.0219909,12288,12288,
8.83554e+06,0.0218432,12288,12288,
8.84873e+06,0.0215419,12288,12288,
8.85533e+06,0.0213886,12288,12288,
8.86193e+06,0.0212339,12288,12288,
8.86853e+06,0.0210779,12288,12288,
8.87514e+06,0.0209207,12288,12288,
8.88174e+06,0.0207625,12288,12288,
8.88834e+06,0.0206035,12288,12288,
8.90154e+06,0.0202835,12288,12288,
8.90814e+06,0.0201228,12288,12288,
8.91474e+06,0.0199618,12288,12288,
8.92134e+06,0.0198007,12288,12288,
8.92795e+06,0.0196395,12288,12288,
8.93454e+06,0.0194785,12288,12288,
8.94114e+06,0.0193178,12288,12288,
8.94773e+06,0.0191575,12288,12288,
8.96089e+06,0.0188385,12288,12288,
8.96746e+06,0.01868,12288,12288,
8.97403e+06,0.0185223,12288,12288,
8.9806e+06,0.0183653,12288,12288,
8.98716e+06,0.0182093,12288,12288,
8.99372e+06,0.0180542,12288,12288,
9.00027e+06,0.0179001,12288,12288,
9.01337e+06,0.0175952,12288,12288,
9.01991e+06,0.0174444,12288,12288,
9.02645e+06,0.0172949,12288,12288,
9.03299e+06,0.0171466,12288,12288,
9.03952e+06,0.0169996,12288,12288,
9.04605e+06,0.0168539,12288,12288,
9.05258e+06,0.0167095,12288,12288,
9.06562e+06,0.0164247,12288,12288,
9.07214e+06,0.0162844,12288,12288,
9.07865e+06,0.0161454,12288,12288,
9.08517e+06,0.0160079,12288,12288,
9.09168e+06,0.0158718,12288,12288,
9.09818e+06,0.0157371,12288,12288,
9.11118e+06,0.015472,12288,12288,
9.11767e+06,0.0153415,12288,12288,
9.12417e+06,0.0152125,12288,12288,
9.13065e+06,0.0150848,12288,12288,
9.13714e+06,0.0149585,12288,12288,
9.14362e+06,0.0148335,12288,12288,
9.1501e+06,0.0147099,12288,12288,
9.16305e+06,0.0144665,12288,12288,
9.16953e+06,0.0143466,12288,12288,
9.176e+06,0.014228,12288,12288,
9.18246e+06,0.0141106,12288,12288,
9.18893e+06,0.0139943,12288,12288,
9.19539e+06,0.0138792,12288,12288,
9.20832e+06,0.0136521,12288,12288,
9.21477e+06,0.0135401,12288,12288,
9.22123e+06,0.013429,12288,12288,
9.22769e+06,0.0133189,12288,12288,
9.23414e+06,0.0132097,12288,12288,
9.24059e+06,0.0131013,12288,12288,
9.25349e+06,0.0128868,12288,12288,
9.25994e+06,0.0127807,12288,12288,
9.26639e+06,0.0126752,12288,12288,
9.27284e+06,0.0125703,12288,12288,
9.27928e+06,0.012466,12288,12288,
9.28573e+06,0.0123622,12288,12288,
9.29862e+06,0.0121559,12288,12288,
9.30506e+06,0.0120534,12288,12288,
9.3115e+06,0.0119511,12288,12288,
9.31794e+06,0.0118491,12288,12288,
9.32438e+06,0.0117474,12288,12288,
9.33082e+06,0.0116458,12288,12288,
9.3437e+06,0.0114429,12288,12288,
9.35014e+06,0.0113415,12288,12288,
9.35658e+06,0.01124,12288,12288,
9.36302e+06,0.0111385,12288,12288,
9.36946e+06,0.0110368,12288,12288,
9.3759e+06,0.0109349,12288,12288,
9.38877e+06,0.0107304,12288,12288,
9.39521e+06,0.0106277,12288,12288,
9.40165e+06,0.0105246,12288,12288,
9.40809e+06,0.0104211,12288,12288,
9.41453e+06,0.0103171,12288,12288,
9.42097e+06,0.0102126,12288,12288,
9.43385e+06,0.0100019,12288,12288,
9.44029e+06,0.00989554,12288,12288,
9.44673e+06,0.00978853,12288,12288,
9.45316e+06,0.00968078,12288,12288,
9.45961e+06,0.00957228,12288,12288,
9.46605e+06,0.00946296,12288,12288,
9.47893e+06,0.00924176,12288,12288,
9.48537e+06,0.0091298,12288,12288,
9.49181e+06,0.0090169,12288,12288,
9.49825e+06,0.00890301,12288,12288,
9.5047e+06,0.00878812,12288,12288,
9.51114e+06,0.00867218,12288,12288,
9.51758e+06,0.00855517,12288,12288,
9.53047e+06,0.00831785,12288,12288,
9.53692e+06,0.00819748,12288,12288,
9.54336e+06,0.00807594,12288,12288,
9.54981e+06,0.00795322,12288,12288,
9.55626e+06,0.00782929,12288,12288,
9.5627e+06,0.00770413,12288,12288,
9.5756e+06,0.00745009,12288,12288,
9.58205e+06,0.00732117,12288,12288,
9.5885e+06,0.00719097,12288,12288,
9.59495e+06,0.00705948,12288,12288,
9.6014e+06,0.0069267,12288,12288,
9.60785e+06,0.00679261,12288,12288,
9.62075e+06,0.00652051,12288,12288,
9.62721e+06,0.00638249,12288,12288,
9.63366e+06,0.00624316,12288,12288,
9.64012e+06,0.00610253,12288,12288,
9.64657e+06,0.00596058,12288,12288,
9.65303e+06,0.00581734,12288,12288,
9.66594e+06,0.00552697,12288,12288,
