time,surface_elevation,number_of_local_cells,number_of_global_cells
0,0,12288,12288,
13300.6,0,12288,12288,
19736.5,0,12288,12288,
25962.3,0,12288,12288,
32410.5,0,12288,12288,
39046.5,0,12288,12288,
45696.7,0,12288,12288,
58997.3,0,12288,12288,
65647.6,0,12288,12288,
72297.9,0,12288,12288,
78948.2,0,12288,12288,
85598.5,0,12288,12288,
92248.8,0,12288,12288,
98899.1,0,12288,12288,
105549,0,12288,12288,
118850,0,12288,12288,
125500,0,12288,12288,
132151,0,12288,12288,
138801,0,12288,12288,
145451,0,12288,12288,
152101,0,12288,12288,
158752,0,12288,12288,
165402,0,12288,12288,
178703,0,12288,12288,
185353,0,12288,12288,
192003,0,12288,12288,
198653,0,12288,12288,
205304,0,12288,12288,
211954,0,12288,12288,
218604,0,12288,12288,
225255,0,12288,12288,
238555,0,12288,12288,
245205,0,12288,12288,
251856,0,12288,12288,
258506,0,12288,12288,
265156,0,12288,12288,
271807,0,12288,12288,
278457,0,12288,12288,
285107,0,12288,12288,
298408,0,12288,12288,
305058,0,12288,12288,
311708,0,12288,12288,
318359,0,12288,12288,
325009,0,12288,12288,
331659,0,12288,12288,
338309,0,12288,12288,
351610,0,12288,12288,
358260,0,12288,12288,
364911,0,12288,12288,
371561,0,12288,12288,
378211,0,12288,12288,
384861,0,12288,12288,
391512,0,12288,12288,
398162,0,12288,12288,
411463,0,12288,12288,
418113,0,12288,12288,
424763,0,12288,12288,
431414,0,12288,12288,
438064,0,12288,12288,
444714,0,12288,12288,
451364,0,12288,12288,
458015,0,12288,12288,
471315,0,12288,12288,
477965,0,12288,12288,
484614,0,12288,12288,
491264,0,12288,12288,
497912,0,12288,12288,
504559,0,12288,12288,
511205,0,12288,12288,
517849,0,12288,12288,
531122,0,12288,12288,
537749,0,12288,12288,
544364,0,12288,12288,
550964,0,12288,12288,
557543,0,12288,12288,
564093,0,12288,12288,
570606,0,12288,12288,
583476,0,12288,12288,
589809,0,12288,12288,
596054,0,12288,12288,
602206,0,12288,12288,
608262,0,12288,12288,
620079,0,12288,12288,
625850,0,12288,12288,
631544,2.22045e-16,12288,12288,
642744,8.88178e-16,12288,12288,
648274,1.9984e-15,12288,12288,
653771,4.21885e-15,12288,12288,
664704,1.73195e-14,12288,12288,
670153,3.44169e-14,12288,12288,
675599,6.72795e-14,12288,12288,
686493,2.44249e-13,12288,12288,
691948,4.54747e-13,12288,12288,
702887,1.51279e-12,12288,12288,
708376,2.70561e-12,12288,12288,
713881,4.78062e-12,12288,12288,
724945,1.44205e-11,12288,12288,
730507,2.46434e-11,12288,12288,
736089,4.16822e-11,12288,12288,
747263,1.15361e-10,12288,12288,
752859,1.8894e-10,12288,12288,
758465,3.06451e-10,12288,12288,
769711,7.84307e-10,12288,12288,
775356,1.23852e-09,12288,12288,
781016,1.93977e-09,12288,12288,
792391,4.64774e-09,12288,12288,
798107,7.11402e-09,12288,12288,
803842,1.08113e-08,12288,12288,
815376,2.44587e-08,12288,12288,
821176,3.64246e-08,12288,12288,
826998,5.38988e-08,12288,12288,
832844,7.92601e-08,12288,12288,
844604,1.68316e-07,12288,12288,
850521,2.43126e-07,12288,12288,
856461,3.49181e-07,12288,12288,
868416,7.08272e-07,12288,12288,
874431,1.00047e-06,12288,12288,
880471,1.40563e-06,12288,12288,
886536,1.9644e-06,12288,12288,
892626,2.73087e-06,12288,12288,
904883,5.19606e-06,12288,12288,
911049,7.11227e-06,12288,12288,
917241,9.68558e-06,12288,12288,
923458,1.31232e-05,12288,12288,
935969,2.37295e-05,12288,12288,
942262,3.16694e-05,12288,12288,
948581,4.20549e-05,12288,12288,
954925,5.55678e-05,12288,12288,
961294,7.30575e-05,12288,12288,
967688,9.55748e-05,12288,12288,
980551,0.000161147,12288,12288,
987020,0.000207696,12288,12288,
993514,0.000266367,12288,12288,
1.00003e+06,0.000339922,12288,12288,
1.00657e+06,0.000431644,12288,12288,
1.01314e+06,0.000545407,12288,12288,
1.02635e+06,0.000857941,12288,12288,
1.03296e+06,0.00106739,12288,12288,
1.03957e+06,0.00132025,12288,12288,
1.04618e+06,0.00162363,12288,12288,
1.05277e+06,0.00198539,12288,12288,
1.05936e+06,0.0024141,12288,12288,
1.06594e+06,0.00291905,12288,12288,
1.07252e+06,0.00351016,12288,12288,
1.08565e+06,0.00499311,12288,12288,
1.09221e+06,0.00590693,12288,12288,
1.09876e+06,0.00695048,12288,12288,
1.10531e+06,0.00813468,12288,12288,
1.11185e+06,0.00946989,12288,12288,
1.11839e+06,0.0109656,12288,12288,
1.13145e+06,0.0144703,12288,12288,
1.13797e+06,0.0164904,12288,12288,
1.14449e+06,0.0186929,12288,12288,
1.151e+06,0.0210771,12288,12288,
1.15751e+06,0.0236393,12288,12288,
1.16402e+06,0.0263725,12288,12288,
1.17053e+06,0.029266,12288,12288,
1.18353e+06,0.0354736,12288,12288,
1.19002e+06,0.0387487,12288,12288,
1.19652e+06,0.0421069,12288,12288,
1.20301e+06,0.0455212,12288,12288,
1.2095e+06,0.048963,12288,12288,
1.21599e+06,0.0524021,12288,12288,
1.22897e+06,0.0591488,12288,12288,
1.23546e+06,0.0623957,12288,12288,
1.24194e+06,0.0655197,12288,12288,
1.24843e+06,0.0684945,12288,12288,
1.25492e+06,0.0712962,12288,12288,
1.2614e+06,0.0739038,12288,12288,
1.26789e+06,0.0762998,12288,12288,
1.28088e+06,0.0804038,12288,12288,
1.28737e+06,0.0820939,12288,12288,
1.29386e+06,0.0835364,12288,12288,
1.30036e+06,0.0847304,12288,12288,
1.30686e+06,0.0856778,12288,12288,
1.31336e+06,0.0863828,12288,12288,
1.32638e+06,0.0870938,12288,12288,
1.33289e+06,0.0871177,12288,12288,
1.33941e+06,0.0869346,12288,12288,
1.34593e+06,0.086556,12288,12288,
1.35245e+06,0.0859942,12288,12288,
1.35898e+06,0.0852616,12288,12288,
1.36551e+06,0.0843709,12288,12288,
1.37858e+06,0.082165,12288,12288,
1.38512e+06,0.0808746,12288,12288,
1.39166e+06,0.0794749,12288,12288,
1.39821e+06,0.0779771,12288,12288,
1.40476e+06,0.0763915,12288,12288,
1.41131e+06,0.074728,12288,12288,
1.41786e+06,0.0729957,12288,12288,
1.43097e+06,0.0693584,12288,12288,
1.43753e+06,0.0674686,12288,12288,
1.44409e+06,0.0655406,12288,12288,
1.45066e+06,0.0635806,12288,12288,
1.45723e+06,0.0615941,12288,12288,
1.4638e+06,0.0595864,12288,12288,
1.47037e+06,0.0575621,12288,12288,
1.48353e+06,0.0534805,12288,12288,
1.49011e+06,0.0514304,12288,12288,
1.4967e+06,0.0493785,12288,12288,
1.50328e+06,0.0473277,12288,12288,
1.50987e+06,0.0452803,12288,12288,
1.51647e+06,0.0432387,12288,12288,
1.52306e+06,0.041205,12288,12288,
1.53626e+06,0.0371683,12288,12288,
1.54286e+06,0.0351683,12288,12288,
1.54946e+06,0.0331825,12288,12288,
1.55607e+06,0.0312119,12288,12288,
1.56267e+06,0.0292575,12288,12288,
1.56928e+06,0.0273204,12288,12288,
1.57589e+06,0.0254018,12288,12288,
1.58909e+06,0.0216282,12288,12288,
1.59568e+06,0.0197749,12288,12288,
1.60226e+06,0.0179447,12288,12288,
1.60883e+06,0.0161383,12288,12288,
1.61539e+06,0.0143566,12288,12288,
1.62194e+06,0.0126001,12288,12288,
1.62847e+06,0.010869,12288,12288,
1.64151e+06,0.00748493,12288,12288,
1.648e+06,0.00583364,12288,12288,
1.65447e+06,0.00420966,12288,12288,
1.66093e+06,0.00261467,12288,12288,
1.66737e+06,0.00104932,12288,12288,
1.67379e+06,-0.000484372,12288,12288,
1.68019e+06,-0.00198658,12288,12288,
1.69293e+06,-0.00489485,12288,12288,
1.69926e+06,-0.00630074,12288,12288,
1.70558e+06,-0.00767457,12288,12288,
1.71187e+06,-0.00901493,12288,12288,
1.71814e+06,-0.010322,12288,12288,
1.73062e+06,-0.0128422,12288,12288,
1.73682e+06,-0.0140571,12288,12288,
1.74301e+06,-0.0152417,12288,12288,
1.74918e+06,-0.016396,12288,12288,
1.75533e+06,-0.0175199,12288,12288,
1.76758e+06,-0.0196764,12288,12288,
1.77369e+06,-0.0207093,12288,12288,
1.77977e+06,-0.0217119,12288,12288,
1.78585e+06,-0.0226841,12288,12288,
1.79797e+06,-0.0245369,12288,12288,
1.80402e+06,-0.0254171,12288,12288,
1.81005e+06,-0.0262664,12288,12288,
1.81609e+06,-0.0270845,12288,12288,
1.82813e+06,-0.0286262,12288,12288,
1.83415e+06,-0.0293491,12288,12288,
1.84016e+06,-0.0300397,12288,12288,
1.84617e+06,-0.0306967,12288,12288,
1.85815e+06,-0.0319087,12288,12288,
1.86413e+06,-0.0324633,12288,12288,
1.8701e+06,-0.0329833,12288,12288,
1.87607e+06,-0.0334683,12288,12288,
1.888e+06,-0.0343323,12288,12288,
1.89396e+06,-0.0347106,12288,12288,
1.89992e+06,-0.0350527,12288,12288,
1.90588e+06,-0.0353584,12288,12288,
1.91781e+06,-0.0358588,12288,12288,
1.92377e+06,-0.0360532,12288,12288,
1.92974e+06,-0.0362099,12288,12288,
1.93571e+06,-0.0363289,12288,12288,
1.94767e+06,-0.0364529,12288,12288,
1.95366e+06,-0.0364578,12288,12288,
1.95965e+06,-0.0364245,12288,12288,
1.96565e+06,-0.0363532,12288,12288,
1.97768e+06,-0.0360969,12288,12288,
1.9837e+06,-0.0359124,12288,12288,
1.98973e+06,-0.0356909,12288,12288,
1.99577e+06,-0.0354327,12288,12288,
2.00789e+06,-0.0348087,12288,12288,
2.01396e+06,-0.0344444,12288,12288,
2.02004e+06,-0.0340462,12288,12288,
2.02613e+06,-0.0336152,12288,12288,
2.03835e+06,-0.032659,12288,12288,
2.04448e+06,-0.0321362,12288,12288,
2.05062e+06,-0.0315854,12288,12288,
2.05677e+06,-0.0310079,12288,12288,
2.06293e+06,-0.0304054,12288,12288,
2.07529e+06,-0.0291315,12288,12288,
2.08149e+06,-0.0284635,12288,12288,
2.08771e+06,-0.0277772,12288,12288,
2.09393e+06,-0.0270745,12288,12288,
2.10017e+06,-0.0263571,12288,12288,
2.11269e+06,-0.0248863,12288,12288,
2.11897e+06,-0.0241367,12288,12288,
2.12526e+06,-0.0233802,12288,12288,
2.13157e+06,-0.0226187,12288,12288,
2.13789e+06,-0.0218541,12288,12288,
2.15057e+06,-0.020323,12288,12288,
2.15693e+06,-0.01956,12288,12288,
2.1633e+06,-0.018801,12288,12288,
2.16969e+06,-0.0180477,12288,12288,
2.1761e+06,-0.0173015,12288,12288,
2.18251e+06,-0.0165639,12288,12288,
2.19539e+06,-0.0151199,12288,12288,
2.20185e+06,-0.0144159,12288,12288,
2.20833e+06,-0.0137254,12288,12288,
2.21481e+06,-0.0130492,12288,12288,
2.22132e+06,-0.0123883,12288,12288,
2.22783e+06,-0.0117433,12288,12288,
2.24091e+06,-0.0105038,12288,12288,
2.24747e+06,-0.00991025,12288,12288,
2.25405e+06,-0.00933459,12288,12288,
2.26063e+06,-0.00877723,12288,12288,
2.26722e+06,-0.00823965,12288,12288,
2.27379e+06,-0.00772176,12288,12288,
2.28037e+06,-0.0072234,12288,12288,
2.29351e+06,-0.00628424,12288,12288,
2.30008e+06,-0.00584281,12288,12288,
2.30664e+06,-0.00541964,12288,12288,
2.3132e+06,-0.0050143,12288,12288,
2.31975e+06,-0.00462633,12288,12288,
2.3263e+06,-0.0042553,12288,12288,
2.33285e+06,-0.00390071,12288,12288,
2.34593e+06,-0.00323866,12288,12288,
2.35246e+06,-0.00293009,12288,12288,
2.35899e+06,-0.00263574,12288,12288,
2.36552e+06,-0.00235505,12288,12288,
2.37204e+06,-0.00208747,12288,12288,
2.37855e+06,-0.00183243,12288,12288,
2.38507e+06,-0.00158941,12288,12288,
2.39808e+06,-0.00113726,12288,12288,
2.40458e+06,-0.000927111,12288,12288,
2.41108e+06,-0.000726908,12288,12288,
2.41757e+06,-0.000536172,12288,12288,
2.42406e+06,-0.000354439,12288,12288,
2.43055e+06,-0.000181259,12288,12288,
2.44352e+06,0.000141161,12288,12288,
2.44999e+06,0.000291221,12288,12288,
2.45647e+06,0.000434368,12288,12288,
2.46294e+06,0.000570972,12288,12288,
2.46941e+06,0.000701387,12288,12288,
2.47588e+06,0.000825956,12288,12288,
2.4888e+06,0.00105884,12288,12288,
2.49526e+06,0.00116776,12288,12288,
2.50172e+06,0.00127205,12288,12288,
2.50817e+06,0.00137198,12288,12288,
2.51462e+06,0.00146781,12288,12288,
2.52107e+06,0.00155979,12288,12288,
2.52752e+06,0.00164815,12288,12288,
2.54041e+06,0.0018149,12288,12288,
2.54686e+06,0.0018937,12288,12288,
2.5533e+06,0.00196972,12288,12288,
2.55974e+06,0.00204314,12288,12288,
2.56618e+06,0.00211413,12288,12288,
2.57262e+06,0.00218287,12288,12288,
2.58549e+06,0.00231419,12288,12288,
2.59193e+06,0.00237708,12288,12288,
2.59836e+06,0.0024383,12288,12288,
2.60479e+06,0.00249798,12288,12288,
2.61123e+06,0.00255625,12288,12288,
2.61766e+06,0.00261323,12288,12288,
2.63053e+06,0.00272375,12288,12288,
2.63696e+06,0.00277751,12288,12288,
2.64339e+06,0.0028304,12288,12288,
2.64982e+06,0.00288251,12288,12288,
2.65625e+06,0.00293393,12288,12288,
2.66269e+06,0.00298476,12288,12288,
2.67555e+06,0.00308493,12288,12288,
2.68199e+06,0.00313443,12288,12288,
2.68842e+06,0.00318363,12288,12288,
2.69486e+06,0.00323262,12288,12288,
2.70129e+06,0.00328144,12288,12288,
2.70773e+06,0.00333017,12288,12288,
2.7206e+06,0.0034276,12288,12288,
2.72704e+06,0.00347642,12288,12288,
2.73348e+06,0.00352537,12288,12288,
2.73992e+06,0.00357451,12288,12288,
2.74637e+06,0.0036239,12288,12288,
2.75281e+06,0.00367357,12288,12288,
2.7657e+06,0.00377397,12288,12288,
2.77214e+06,0.00382479,12288,12288,
2.77859e+06,0.00387608,12288,12288,
2.78504e+06,0.00392786,12288,12288,
2.79149e+06,0.0039802,12288,12288,
2.79794e+06,0.0040331,12288,12288,
2.81084e+06,0.00414079,12288,12288,
2.8173e+06,0.00419562,12288,12288,
2.82375e+06,0.00425115,12288,12288,
2.83021e+06,0.00430741,12288,12288,
2.83667e+06,0.00436442,12288,12288,
2.84312e+06,0.0044222,12288,12288,
2.85604e+06,0.00454013,12288,12288,
2.8625e+06,0.00460033,12288,12288,
2.86896e+06,0.00466136,12288,12288,
2.87542e+06,0.00472323,12288,12288,
2.88188e+06,0.00478595,12288,12288,
2.88834e+06,0.00484953,12288,12288,
2.90127e+06,0.00497927,12288,12288,
2.90773e+06,0.00504544,12288,12288,
2.9142e+06,0.00511246,12288,12288,
2.92066e+06,0.00518034,12288,12288,
2.92712e+06,0.00524906,12288,12288,
2.93359e+06,0.00531862,12288,12288,
2.94005e+06,0.005389,12288,12288,
2.95298e+06,0.00553219,12288,12288,
2.95944e+06,0.00560496,12288,12288,
2.96591e+06,0.00567849,12288,12288,
2.97237e+06,0.00575277,12288,12288,
2.97883e+06,0.00582776,12288,12288,
2.98529e+06,0.00590345,12288,12288,
2.99821e+06,0.00605684,12288,12288,
3.00467e+06,0.00613449,12288,12288,
3.01113e+06,0.00621274,12288,12288,
3.01759e+06,0.00629156,12288,12288,
3.02405e+06,0.00637092,12288,12288,
3.0305e+06,0.00645081,12288,12288,
3.04341e+06,0.00661205,12288,12288,
3.04986e+06,0.00669335,12288,12288,
3.05632e+06,0.00677506,12288,12288,
3.06277e+06,0.00685716,12288,12288,
3.06921e+06,0.00693963,12288,12288,
3.07566e+06,0.00702245,12288,12288,
3.08855e+06,0.00718902,12288,12288,
3.09499e+06,0.00727273,12288,12288,
3.10143e+06,0.0073567,12288,12288,
3.10786e+06,0.00744092,12288,12288,
3.1143e+06,0.00752537,12288,12288,
3.12073e+06,0.00761002,12288,12288,
3.13359e+06,0.00777992,12288,12288,
3.14001e+06,0.00786515,12288,12288,
3.14644e+06,0.00795055,12288,12288,
3.15285e+06,0.00803611,12288,12288,
3.15927e+06,0.00812184,12288,12288,
3.16568e+06,0.00820773,12288,12288,
3.1785e+06,0.00838,12288,12288,
3.1849e+06,0.00846639,12288,12288,
3.1913e+06,0.00855295,12288,12288,
3.19769e+06,0.00863969,12288,12288,
3.20408e+06,0.00872663,12288,12288,
3.21047e+06,0.00881377,12288,12288,
3.22323e+06,0.00898871,12288,12288,
3.2296e+06,0.00907655,12288,12288,
3.23597e+06,0.00916466,12288,12288,
3.24233e+06,0.00925306,12288,12288,
3.24869e+06,0.00934177,12288,12288,
3.25504e+06,0.00943081,12288,12288,
3.26774e+06,0.00961,12288,12288,
3.27408e+06,0.0097002,12288,12288,
3.28041e+06,0.00979084,12288,12288,
3.28674e+06,0.00988196,12288,12288,
3.29306e+06,0.00997358,12288,12288,
3.30569e+06,0.0101585,12288,12288,
3.312e+06,0.0102518,12288,12288,
3.31831e+06,0.0103458,12288,12288,
3.32461e+06,0.0104405,12288,12288,
3.3309e+06,0.0105359,12288,12288,
3.34348e+06,0.010729,12288,12288,
3.34977e+06,0.0108269,12288,12288,
3.35605e+06,0.0109256,12288,12288,
3.36232e+06,0.0110253,12288,12288,
3.3686e+06,0.0111259,12288,12288,
3.38114e+06,0.0113304,12288,12288,
3.38741e+06,0.0114343,12288,12288,
3.39367e+06,0.0115395,12288,12288,
3.39993e+06,0.0116459,12288,12288,
3.4062e+06,0.0117536,12288,12288,
3.41872e+06,0.0119732,12288,12288,
3.42498e+06,0.0120853,12288,12288,
3.43125e+06,0.0121989,12288,12288,
3.43751e+06,0.0123142,12288,12288,
3.44377e+06,0.0124312,12288,12288,
3.45004e+06,0.01255,12288,12288,
3.46258e+06,0.0127934,12288,12288,
3.46885e+06,0.0129181,12288,12288,
3.47512e+06,0.013045,12288,12288,
3.4814e+06,0.0131742,12288,12288,
3.48768e+06,0.0133057,12288,12288,
3.50026e+06,0.0135764,12288,12288,
3.50655e+06,0.0137158,12288,12288,
3.51285e+06,0.013858,12288,12288,
3.51916e+06,0.0140032,12288,12288,
3.52547e+06,0.0141516,12288,12288,
3.5381e+06,0.0144583,12288,12288,
3.54442e+06,0.0146169,12288,12288,
3.55074e+06,0.0147793,12288,12288,
3.55707e+06,0.0149455,12288,12288,
3.5634e+06,0.0151158,12288,12288,
3.57607e+06,0.0154694,12288,12288,
3.58242e+06,0.0156532,12288,12288,
3.58877e+06,0.0158418,12288,12288,
3.59512e+06,0.0160357,12288,12288,
3.60148e+06,0.0162349,12288,12288,
3.60785e+06,0.0164397,12288,12288,
3.6206e+06,0.0168671,12288,12288,
3.62698e+06,0.0170902,12288,12288,
3.63337e+06,0.0173199,12288,12288,
3.63977e+06,0.0175564,12288,12288,
3.64617e+06,0.0178,12288,12288,
3.65258e+06,0.0180509,12288,12288,
3.66543e+06,0.0185757,12288,12288,
3.67186e+06,0.01885,12288,12288,
3.6783e+06,0.0191324,12288,12288,
3.68475e+06,0.0194232,12288,12288,
3.6912e+06,0.0197226,12288,12288,
3.69767e+06,0.0200306,12288,12288,
3.71062e+06,0.020673,12288,12288,
3.71711e+06,0.0210075,12288,12288,
3.72361e+06,0.0213509,12288,12288,
3.73011e+06,0.021703,12288,12288,
3.73662e+06,0.0220639,12288,12288,
3.74315e+06,0.0224334,12288,12288,
3.75622e+06,0.0231971,12288,12288,
3.76276e+06,0.0235907,12288,12288,
3.76932e+06,0.0239917,12288,12288,
3.77589e+06,0.0243996,12288,12288,
3.78246e+06,0.0248138,12288,12288,
3.78904e+06,0.0252338,12288,12288,
3.79563e+06,0.0256583,12288,12288,
3.80879e+06,0.0265173,12288,12288,
3.81537e+06,0.0269501,12288,12288,
3.82195e+06,0.0273838,12288,12288,
3.82853e+06,0.0278174,12288,12288,
3.83512e+06,0.0282497,12288,12288,
3.84169e+06,0.0286797,12288,12288,
3.84827e+06,0.029106,12288,12288,
3.86143e+06,0.0299431,12288,12288,
3.86801e+06,0.0303513,12288,12288,
3.87458e+06,0.0307507,12288,12288,
3.88116e+06,0.0311403,12288,12288,
3.88773e+06,0.0315185,12288,12288,
3.89431e+06,0.0318841,12288,12288,
3.90088e+06,0.0322358,12288,12288,
3.91403e+06,0.0328925,12288,12288,
3.9206e+06,0.0331951,12288,12288,
3.92717e+06,0.0334789,12288,12288,
3.93374e+06,0.0337428,12288,12288,
3.94031e+06,0.0339859,12288,12288,
3.94688e+06,0.034207,12288,12288,
3.95344e+06,0.0344054,12288,12288,
3.96001e+06,0.0345802,12288,12288,
3.97314e+06,0.034856,12288,12288,
3.97971e+06,0.0349558,12288,12288,
3.98627e+06,0.0350296,12288,12288,
3.99284e+06,0.0350768,12288,12288,
3.9994e+06,0.0350972,12288,12288,
4.00596e+06,0.0350906,12288,12288,
4.01251e+06,0.0350568,12288,12288,
4.02562e+06,0.0349077,12288,12288,
4.03217e+06,0.0347925,12288,12288,
4.03871e+06,0.0346504,12288,12288,
4.04526e+06,0.0344818,12288,12288,
4.0518e+06,0.0342868,12288,12288,
4.05834e+06,0.034066,12288,12288,
4.07142e+06,0.0335484,12288,12288,
4.07795e+06,0.0332528,12288,12288,
4.08449e+06,0.0329333,12288,12288,
4.09102e+06,0.0325906,12288,12288,
4.09755e+06,0.0322254,12288,12288,
4.10408e+06,0.0318383,12288,12288,
4.1106e+06,0.0314301,12288,12288,
4.12365e+06,0.0305533,12288,12288,
4.13017e+06,0.0300862,12288,12288,
4.13669e+06,0.029601,12288,12288,
4.14321e+06,0.0290985,12288,12288,
4.14972e+06,0.0285795,12288,12288,
4.15624e+06,0.0280447,12288,12288,
4.16275e+06,0.027495,12288,12288,
4.17578e+06,0.0263538,12288,12288,
4.18229e+06,0.0257638,12288,12288,
4.1888e+06,0.025162,12288,12288,
4.1953e+06,0.024549,12288,12288,
4.20181e+06,0.0239255,12288,12288,
4.20831e+06,0.0232924,12288,12288,
4.22132e+06,0.0219998,12288,12288,
4.22783e+06,0.0213416,12288,12288,
4.23433e+06,0.0206764,12288,12288,
4.24083e+06,0.0200048,12288,12288,
4.24733e+06,0.0193274,12288,12288,
4.25383e+06,0.0186448,12288,12288,
4.26033e+06,0.0179575,12288,12288,
4.27332e+06,0.0165711,12288,12288,
4.27982e+06,0.0158731,12288,12288,
4.28632e+06,0.0151724,12288,12288,
4.29281e+06,0.0144697,12288,12288,
4.29931e+06,0.0137656,12288,12288,
4.3058e+06,0.0130605,12288,12288,
4.31877e+06,0.0116491,12288,12288,
4.32525e+06,0.0109434,12288,12288,
4.33173e+06,0.0102384,12288,12288,
4.33821e+06,0.00953444,12288,12288,
4.34468e+06,0.00883202,12288,12288,
4.35115e+06,0.00813154,12288,12288,
4.35762e+06,0.00743337,12288,12288,
4.37055e+06,0.00604549,12288,12288,
4.377e+06,0.00535648,12288,12288,
4.38346e+06,0.00467149,12288,12288,
4.38991e+06,0.00399066,12288,12288,
4.39636e+06,0.00331417,12288,12288,
4.4028e+06,0.00264224,12288,12288,
4.41569e+06,0.001313,12288,12288,
4.42212e+06,0.000655613,12288,12288,
4.42855e+06,3.50122e-06,12288,12288,
4.43498e+06,-0.000643034,12288,12288,
4.44141e+06,-0.00128374,12288,12288,
4.44783e+06,-0.00191844,12288,12288,
4.46067e+06,-0.00316937,12288,12288,
4.46708e+06,-0.00378539,12288,12288,
4.4735e+06,-0.00439498,12288,12288,
4.4799e+06,-0.004998,12288,12288,
4.48631e+06,-0.00559439,12288,12288,
4.49271e+06,-0.00618404,12288,12288,
4.50552e+06,-0.0073427,12288,12288,
4.51191e+06,-0.00791139,12288,12288,
4.5183e+06,-0.00847281,12288,12288,
4.52469e+06,-0.00902686,12288,12288,
4.53108e+06,-0.00957346,12288,12288,
4.54385e+06,-0.010644,12288,12288,
4.55023e+06,-0.0111678,12288,12288,
4.5566e+06,-0.0116838,12288,12288,
4.56298e+06,-0.012192,12288,12288,
4.56935e+06,-0.0126923,12288,12288,
4.57572e+06,-0.0131847,12288,12288,
4.58846e+06,-0.0141454,12288,12288,
4.59483e+06,-0.0146135,12288,12288,
4.60119e+06,-0.0150735,12288,12288,
4.60755e+06,-0.0155252,12288,12288,
4.61392e+06,-0.0159685,12288,12288,
4.62028e+06,-0.0164034,12288,12288,
4.633e+06,-0.0172478,12288,12288,
4.63936e+06,-0.0176572,12288,12288,
4.64572e+06,-0.0180579,12288,12288,
4.65208e+06,-0.0184498,12288,12288,
4.65844e+06,-0.018833,12288,12288,
4.67117e+06,-0.0195727,12288,12288,
4.67753e+06,-0.019929,12288,12288,
4.6839e+06,-0.0202763,12288,12288,
4.69026e+06,-0.0206143,12288,12288,
4.69663e+06,-0.0209432,12288,12288,
4.703e+06,-0.0212627,12288,12288,
4.71574e+06,-0.0218733,12288,12288,
4.72211e+06,-0.0221643,12288,12288,
4.72849e+06,-0.0224456,12288,12288,
4.73487e+06,-0.022717,12288,12288,
4.74125e+06,-0.0229786,12288,12288,
4.74763e+06,-0.0232301,12288,12288,
4.76041e+06,-0.0237027,12288,12288,
4.76681e+06,-0.0239235,12288,12288,
4.77321e+06,-0.0241338,12288,12288,
4.77961e+06,-0.0243335,12288,12288,
4.78601e+06,-0.0245225,12288,12288,
4.79884e+06,-0.0248676,12288,12288,
4.80525e+06,-0.0250235,12288,12288,
4.81168e+06,-0.0251681,12288,12288,
4.8181e+06,-0.0253012,12288,12288,
4.82453e+06,-0.0254227,12288,12288,
4.83097e+06,-0.0255323,12288,12288,
4.84386e+06,-0.0257156,12288,12288,
4.85031e+06,-0.0257889,12288,12288,
4.85677e+06,-0.0258497,12288,12288,
4.86323e+06,-0.0258978,12288,12288,
4.8697e+06,-0.0259331,12288,12288,
4.87617e+06,-0.0259554,12288,12288,
4.88265e+06,-0.0259644,12288,12288,
4.89563e+06,-0.025942,12288,12288,
4.90213e+06,-0.0259102,12288,12288,
4.90863e+06,-0.0258644,12288,12288,
4.91514e+06,-0.0258044,12288,12288,
4.92165e+06,-0.02573,12288,12288,
4.92818e+06,-0.025641,12288,12288,
4.94124e+06,-0.0254185,12288,12288,
4.94778e+06,-0.0252846,12288,12288,
4.95433e+06,-0.0251354,12288,12288,
4.96088e+06,-0.0249708,12288,12288,
4.96744e+06,-0.0247905,12288,12288,
4.97401e+06,-0.0245943,12288,12288,
4.98059e+06,-0.0243823,12288,12288,
4.99373e+06,-0.0239109,12288,12288,
5.00029e+06,-0.0236515,12288,12288,
5.00686e+06,-0.0233762,12288,12288,
5.01342e+06,-0.023085,12288,12288,
5.01998e+06,-0.022778,12288,12288,
5.02654e+06,-0.0224551,12288,12288,
5.0331e+06,-0.0221165,12288,12288,
5.04621e+06,-0.0213925,12288,12288,
5.05276e+06,-0.0210074,12288,12288,
5.05931e+06,-0.020607,12288,12288,
5.06586e+06,-0.0201917,12288,12288,
5.0724e+06,-0.0197616,12288,12288,
5.07894e+06,-0.0193171,12288,12288,
5.08548e+06,-0.0188583,12288,12288,
5.09855e+06,-0.0178995,12288,12288,
5.10508e+06,-0.0174002,12288,12288,
5.11161e+06,-0.0168883,12288,12288,
5.11813e+06,-0.0163641,12288,12288,
5.12466e+06,-0.0158281,12288,12288,
5.13118e+06,-0.015281,12288,12288,
5.1377e+06,-0.0147232,12288,12288,
5.15072e+06,-0.0135781,12288,12288,
5.15724e+06,-0.0129921,12288,12288,
5.16374e+06,-0.0123979,12288,12288,
5.17025e+06,-0.0117964,12288,12288,
5.17676e+06,-0.0111882,12288,12288,
5.18326e+06,-0.010574,12288,12288,
5.19625e+06,-0.00933108,12288,12288,
5.20275e+06,-0.00870386,12288,12288,
5.20924e+06,-0.00807389,12288,12288,
5.21573e+06,-0.00744199,12288,12288,
5.22222e+06,-0.00680899,12288,12288,
5.22871e+06,-0.00617571,12288,12288,
5.23519e+06,-0.00554298,12288,12288,
5.24816e+06,-0.00428245,12288,12288,
5.25463e+06,-0.00365628,12288,12288,
5.26111e+06,-0.00303389,12288,12288,
5.26758e+06,-0.00241606,12288,12288,
5.27406e+06,-0.00180355,12288,12288,
5.28053e+06,-0.00119709,12288,12288,
5.29346e+06,-5.11268e-06,12288,12288,
5.29992e+06,0.000579066,12288,12288,
5.30639e+06,0.00115454,12288,12288,
5.31285e+06,0.00172071,12288,12288,
5.31931e+06,0.00227705,12288,12288,
5.32576e+06,0.00282303,12288,12288,
5.33867e+06,0.00388205,12288,12288,
5.34513e+06,0.00439426,12288,12288,
5.35158e+06,0.00489444,12288,12288,
5.35802e+06,0.00538229,12288,12288,
5.36447e+06,0.00585752,12288,12288,
5.37092e+06,0.00631989,12288,12288,
5.3838e+06,0.00720533,12288,12288,
5.39024e+06,0.00762812,12288,12288,
5.39668e+06,0.00803748,12288,12288,
5.40312e+06,0.00843339,12288,12288,
5.40956e+06,0.00881583,12288,12288,
5.41599e+06,0.00918481,12288,12288,
5.42886e+06,0.00988264,12288,12288,
5.43529e+06,0.0102117,12288,12288,
5.44172e+06,0.0105277,12288,12288,
5.44814e+06,0.0108307,12288,12288,
5.45457e+06,0.0111211,12288,12288,
5.461e+06,0.0113989,12288,12288,
5.47385e+06,0.0119179,12288,12288,
5.48027e+06,0.0121596,12288,12288,
5.48669e+06,0.0123898,12288,12288,
5.49311e+06,0.0126087,12288,12288,
5.49953e+06,0.0128167,12288,12288,
5.50595e+06,0.0130142,12288,12288,
5.51878e+06,0.0133784,12288,12288,
5.5252e+06,0.0135458,12288,12288,
5.53161e+06,0.013704,12288,12288,
5.53803e+06,0.0138531,12288,12288,
5.54444e+06,0.0139936,12288,12288,
5.55085e+06,0.0141258,12288,12288,
5.56367e+06,0.0143665,12288,12288,
5.57008e+06,0.0144757,12288,12288,
5.57649e+06,0.0145778,12288,12288,
5.5829e+06,0.0146733,12288,12288,
5.58931e+06,0.0147625,12288,12288,
5.59572e+06,0.0148455,12288,12288,
5.60854e+06,0.0149947,12288,12288,
5.61495e+06,0.0150613,12288,12288,
5.62135e+06,0.0151231,12288,12288,
5.62776e+06,0.0151803,12288,12288,
5.63417e+06,0.0152332,12288,12288,
5.64057e+06,0.0152819,12288,12288,
5.65339e+06,0.0153682,12288,12288,
5.65979e+06,0.0154062,12288,12288,
5.6662e+06,0.0154411,12288,12288,
5.6726e+06,0.0154731,12288,12288,
5.67901e+06,0.0155024,12288,12288,
5.68542e+06,0.0155292,12288,12288,
5.69823e+06,0.0155761,12288,12288,
5.70464e+06,0.0155965,12288,12288,
5.71105e+06,0.0156152,12288,12288,
5.71746e+06,0.0156323,12288,12288,
5.72387e+06,0.0156479,12288,12288,
5.73028e+06,0.0156622,12288,12288,
5.7431e+06,0.0156875,12288,12288,
5.74951e+06,0.0156987,12288,12288,
5.75592e+06,0.0157091,12288,12288,
5.76233e+06,0.0157188,12288,12288,
5.76875e+06,0.015728,12288,12288,
5.77516e+06,0.0157367,12288,12288,
5.78799e+06,0.015753,12288,12288,
5.79441e+06,0.0157607,12288,12288,
5.80083e+06,0.0157684,12288,12288,
5.80725e+06,0.015776,12288,12288,
5.81367e+06,0.0157836,12288,12288,
5.82009e+06,0.0157912,12288,12288,
5.83294e+06,0.0158069,12288,12288,
5.83937e+06,0.0158151,12288,12288,
5.8458e+06,0.0158235,12288,12288,
5.85223e+06,0.0158323,12288,12288,
5.85866e+06,0.0158414,12288,12288,
5.86509e+06,0.0158508,12288,12288,
5.87796e+06,0.0158711,12288,12288,
5.8844e+06,0.0158819,12288,12288,
5.89083e+06,0.0158931,12288,12288,
5.89728e+06,0.0159049,12288,12288,
5.90372e+06,0.0159173,12288,12288,
5.91016e+06,0.0159301,12288,12288,
5.92305e+06,0.0159576,12288,12288,
5.9295e+06,0.0159721,12288,12288,
5.93595e+06,0.0159873,12288,12288,
5.94241e+06,0.016003,12288,12288,
5.94886e+06,0.0160194,12288,12288,
5.95532e+06,0.0160363,12288,12288,
5.96824e+06,0.016072,12288,12288,
5.9747e+06,0.0160907,12288,12288,
5.98116e+06,0.0161101,12288,12288,
5.98763e+06,0.01613,12288,12288,
5.9941e+06,0.0161506,12288,12288,
6.00057e+06,0.0161717,12288,12288,
6.01352e+06,0.0162157,12288,12288,
6.01999e+06,0.0162385,12288,12288,
6.02647e+06,0.0162619,12288,12288,
6.03295e+06,0.0162859,12288,12288,
6.03943e+06,0.0163105,12288,12288,
6.04592e+06,0.0163356,12288,12288,
6.05889e+06,0.0163873,12288,12288,
6.06539e+06,0.016414,12288,12288,
6.07188e+06,0.0164412,12288,12288,
6.07837e+06,0.0164689,12288,12288,
6.08487e+06,0.0164971,12288,12288,
6.09137e+06,0.0165258,12288,12288,
6.09787e+06,0.0165549,12288,12288,
6.11088e+06,0.0166147,12288,12288,
6.11739e+06,0.0166452,12288,12288,
6.1239e+06,0.0166762,12288,12288,
6.13042e+06,0.0167077,12288,12288,
6.13693e+06,0.0167395,12288,12288,
6.14345e+06,0.0167718,12288,12288,
6.1565e+06,0.0168376,12288,12288,
6.16302e+06,0.0168711,12288,12288,
6.16955e+06,0.016905,12288,12288,
6.17608e+06,0.0169393,12288,12288,
6.18261e+06,0.0169739,12288,12288,
6.18915e+06,0.0170089,12288,12288,
6.19569e+06,0.0170443,12288,12288,
6.20877e+06,0.017116,12288,12288,
6.21531e+06,0.0171524,12288,12288,
6.22185e+06,0.0171891,12288,12288,
6.2284e+06,0.0172261,12288,12288,
6.23494e+06,0.0172634,12288,12288,
6.24149e+06,0.017301,12288,12288,
6.24804e+06,0.017339,12288,12288,
6.26115e+06,0.0174156,12288,12288,
6.26771e+06,0.0174543,12288,12288,
6.27427e+06,0.0174933,12288,12288,
6.28083e+06,0.0175326,12288,12288,
6.28739e+06,0.0175721,12288,12288,
6.29396e+06,0.0176118,12288,12288,
6.30052e+06,0.0176517,12288,12288,
6.31366e+06,0.0177323,12288,12288,
6.32024e+06,0.0177728,12288,12288,
6.32682e+06,0.0178136,12288,12288,
6.3334e+06,0.0178545,12288,12288,
6.33998e+06,0.0178956,12288,12288,
6.34656e+06,0.0179368,12288,12288,
6.35315e+06,0.0179781,12288,12288,
6.36632e+06,0.018061,12288,12288,
6.3729e+06,0.0181026,12288,12288,
6.37949e+06,0.0181442,12288,12288,
6.38607e+06,0.0181858,12288,12288,
6.39265e+06,0.0182274,12288,12288,
6.39923e+06,0.018269,12288,12288,
6.40582e+06,0.0183105,12288,12288,
6.41898e+06,0.0183934,12288,12288,
6.42556e+06,0.0184346,12288,12288,
6.43214e+06,0.0184756,12288,12288,
6.43872e+06,0.0185164,12288,12288,
6.44529e+06,0.018557,12288,12288,
6.45187e+06,0.0185973,12288,12288,
6.45844e+06,0.0186372,12288,12288,
6.46501e+06,0.0186768,12288,12288,
6.47815e+06,0.0187547,12288,12288,
6.48471e+06,0.0187929,12288,12288,
6.49128e+06,0.0188305,12288,12288,
6.49784e+06,0.0188675,12288,12288,
6.5044e+06,0.0189038,12288,12288,
6.51096e+06,0.0189393,12288,12288,
6.51752e+06,0.0189741,12288,12288,
6.53063e+06,0.0190408,12288,12288,
6.53718e+06,0.0190727,12288,12288,
6.54373e+06,0.0191034,12288,12288,
6.55028e+06,0.019133,12288,12288,
6.55683e+06,0.0191613,12288,12288,
6.56338e+06,0.0191882,12288,12288,
6.57647e+06,0.0192377,12288,12288,
6.58301e+06,0.01926,12288,12288,
6.58955e+06,0.0192806,12288,12288,
6.59609e+06,0.0192993,12288,12288,
6.60263e+06,0.0193161,12288,12288,
6.60917e+06,0.0193308,12288,12288,
6.61571e+06,0.0193434,12288,12288,
6.62878e+06,0.0193617,12288,12288,
6.63531e+06,0.0193671,12288,12288,
6.64184e+06,0.01937,12288,12288,
6.64837e+06,0.0193701,12288,12288,
6.6549e+06,0.0193674,12288,12288,
6.66142e+06,0.0193617,12288,12288,
6.66795e+06,0.0193529,12288,12288,
6.681e+06,0.0193256,12288,12288,
6.68752e+06,0.0193069,12288,12288,
6.69404e+06,0.0192846,12288,12288,
6.70056e+06,0.0192586,12288,12288,
6.70708e+06,0.0192289,12288,12288,
6.7136e+06,0.0191952,12288,12288,
6.72011e+06,0.0191575,12288,12288,
6.73314e+06,0.0190695,12288,12288,
6.73966e+06,0.019019,12288,12288,
6.74617e+06,0.0189641,12288,12288,
6.75268e+06,0.0189046,12288,12288,
6.75919e+06,0.0188405,12288,12288,
6.7657e+06,0.0187716,12288,12288,
6.77871e+06,0.0186192,12288,12288,
6.78522e+06,0.0185355,12288,12288,
6.79172e+06,0.0184468,12288,12288,
6.79823e+06,0.0183528,12288,12288,
6.80473e+06,0.0182537,12288,12288,
6.81123e+06,0.0181492,12288,12288,
6.81773e+06,0.0180394,12288,12288,
6.83073e+06,0.0178036,12288,12288,
6.83723e+06,0.0176775,12288,12288,
6.84373e+06,0.0175459,12288,12288,
6.85023e+06,0.0174087,12288,12288,
6.85672e+06,0.017266,12288,12288,
6.86322e+06,0.0171177,12288,12288,
6.87621e+06,0.0168043,12288,12288,
6.8827e+06,0.0166393,12288,12288,
6.88919e+06,0.0164686,12288,12288,
6.89568e+06,0.0162924,12288,12288,
6.90217e+06,0.0161107,12288,12288,
6.90866e+06,0.0159234,12288,12288,
6.91515e+06,0.0157307,12288,12288,
6.92813e+06,0.0153289,12288,12288,
6.93462e+06,0.01512,12288,12288,
6.9411e+06,0.0149058,12288,12288,
6.94759e+06,0.0146864,12288,12288,
6.95408e+06,0.0144618,12288,12288,
6.96056e+06,0.0142321,12288,12288,
6.97353e+06,0.0137577,12288,12288,
6.98001e+06,0.0135131,12288,12288,
6.9865e+06,0.0132638,12288,12288,
6.99298e+06,0.0130098,12288,12288,
6.99946e+06,0.0127512,12288,12288,
7.00594e+06,0.0124882,12288,12288,
7.01891e+06,0.0119494,12288,12288,
7.02539e+06,0.0116739,12288,12288,
7.03187e+06,0.0113944,12288,12288,
7.03835e+06,0.0111111,12288,12288,
7.04483e+06,0.0108241,12288,12288,
7.05131e+06,0.0105336,12288,12288,
7.05778e+06,0.0102397,12288,12288,
7.07074e+06,0.00964204,12288,12288,
7.07722e+06,0.00933853,12288,12288,
7.0837e+06,0.00903207,12288,12288,
7.09018e+06,0.00872281,12288,12288,
7.09666e+06,0.00841088,12288,12288,
7.10313e+06,0.00809641,12288,12288,
7.11609e+06,0.0074604,12288,12288,
7.12257e+06,0.00713914,12288,12288,
7.12905e+06,0.00681589,12288,12288,
7.13552e+06,0.00649079,12288,12288,
7.142e+06,0.00616398,12288,12288,
7.14848e+06,0.0058356,12288,12288,
7.16144e+06,0.00517466,12288,12288,
7.16792e+06,0.00484237,12288,12288,
7.17439e+06,0.00450904,12288,12288,
7.18087e+06,0.00417481,12288,12288,
7.18735e+06,0.00383981,12288,12288,
7.19383e+06,0.00350418,12288,12288,
7.20031e+06,0.00316804,12288,12288,
7.21327e+06,0.00249474,12288,12288,
7.21975e+06,0.00215785,12288,12288,
7.22623e+06,0.00182096,12288,12288,
7.23272e+06,0.0014842,12288,12288,
7.2392e+06,0.00114769,12288,12288,
7.24568e+06,0.000811556,12288,12288,
7.25865e+06,0.000140883,12288,12288,
7.26513e+06,-0.000193418,12288,12288,
7.27162e+06,-0.000526872,12288,12288,
7.2781e+06,-0.000859364,12288,12288,
7.28459e+06,-0.00119078,12288,12288,
7.29107e+06,-0.00152101,12288,12288,
7.29756e+06,-0.00184994,12288,12288,
7.31054e+06,-0.00250348,12288,12288,
7.31703e+06,-0.00282787,12288,12288,
7.32352e+06,-0.00315054,12288,12288,
7.33001e+06,-0.00347138,12288,12288,
7.33651e+06,-0.00379029,12288,12288,
7.343e+06,-0.00410717,12288,12288,
7.35599e+06,-0.00473444,12288,12288,
7.36249e+06,-0.00504464,12288,12288,
7.36899e+06,-0.00535243,12288,12288,
7.37549e+06,-0.0056577,12288,12288,
7.38199e+06,-0.00596037,12288,12288,
7.38849e+06,-0.00626035,12288,12288,
7.4015e+06,-0.00685187,12288,12288,
7.408e+06,-0.00714323,12288,12288,
7.41451e+06,-0.00743155,12288,12288,
7.42102e+06,-0.00771673,12288,12288,
7.42753e+06,-0.0079987,12288,12288,
7.43404e+06,-0.00827738,12288,12288,
7.44055e+06,-0.00855267,12288,12288,
7.45359e+06,-0.0090928,12288,12288,
7.4601e+06,-0.00935748,12288,12288,
7.46662e+06,-0.00961846,12288,12288,
7.47315e+06,-0.00987566,12288,12288,
7.47967e+06,-0.010129,12288,12288,
7.48619e+06,-0.0103784,12288,12288,
7.49272e+06,-0.0106239,12288,12288,
7.50578e+06,-0.0111024,12288,12288,
7.51231e+06,-0.0113354,12288,12288,
7.51885e+06,-0.011564,12288,12288,
7.52538e+06,-0.0117884,12288,12288,
7.53192e+06,-0.0120082,12288,12288,
7.53846e+06,-0.0122236,12288,12288,
7.545e+06,-0.0124344,12288,12288,
7.55809e+06,-0.0128418,12288,12288,
7.56464e+06,-0.0130384,12288,12288,
7.57118e+06,-0.01323,12288,12288,
7.57773e+06,-0.0134168,12288,12288,
7.58428e+06,-0.0135985,12288,12288,
7.59083e+06,-0.0137751,12288,12288,
7.60394e+06,-0.014113,12288,12288,
7.6105e+06,-0.014274,12288,12288,
7.61706e+06,-0.0144297,12288,12288,
7.62361e+06,-0.01458,12288,12288,
7.63017e+06,-0.0147248,12288,12288,
7.63674e+06,-0.0148641,12288,12288,
7.6433e+06,-0.0149978,12288,12288,
7.65643e+06,-0.0152481,12288,12288,
7.663e+06,-0.0153645,12288,12288,
7.66956e+06,-0.015475,12288,12288,
7.67613e+06,-0.0155796,12288,12288,
7.68269e+06,-0.0156781,12288,12288,
7.68925e+06,-0.0157706,12288,12288,
7.69581e+06,-0.0158569,12288,12288,
7.70892e+06,-0.0160108,12288,12288,
7.71548e+06,-0.0160783,12288,12288,
7.72203e+06,-0.0161394,12288,12288,
7.72859e+06,-0.0161941,12288,12288,
7.73514e+06,-0.0162423,12288,12288,
7.74169e+06,-0.0162839,12288,12288,
7.74824e+06,-0.0163188,12288,12288,
7.76132e+06,-0.0163686,12288,12288,
7.76786e+06,-0.0163832,12288,12288,
7.77439e+06,-0.016391,12288,12288,
7.78092e+06,-0.0163919,12288,12288,
7.78745e+06,-0.0163858,12288,12288,
7.79397e+06,-0.0163727,12288,12288,
7.80049e+06,-0.0163524,12288,12288,
7.81353e+06,-0.0162904,12288,12288,
7.82004e+06,-0.0162484,12288,12288,
7.82655e+06,-0.0161991,12288,12288,
7.83306e+06,-0.0161424,12288,12288,
7.83956e+06,-0.0160782,12288,12288,
7.84607e+06,-0.0160064,12288,12288,
7.85257e+06,-0.015927,12288,12288,
7.86557e+06,-0.015745,12288,12288,
7.87207e+06,-0.0156423,12288,12288,
7.87857e+06,-0.0155317,12288,12288,
7.88506e+06,-0.0154131,12288,12288,
7.89156e+06,-0.0152864,12288,12288,
7.89805e+06,-0.0151516,12288,12288,
7.91104e+06,-0.0148573,12288,12288,
7.91753e+06,-0.0146977,12288,12288,
7.92403e+06,-0.0145296,12288,12288,
7.93052e+06,-0.0143531,12288,12288,
7.93701e+06,-0.014168,12288,12288,
7.94351e+06,-0.0139742,12288,12288,
7.95649e+06,-0.0135606,12288,12288,
7.96298e+06,-0.0133406,12288,12288,
7.96948e+06,-0.0131116,12288,12288,
7.97597e+06,-0.0128738,12288,12288,
7.98246e+06,-0.0126269,12288,12288,
7.98896e+06,-0.012371,12288,12288,
7.99545e+06,-0.0121061,12288,12288,
8.00845e+06,-0.0115487,12288,12288,
8.01494e+06,-0.0112562,12288,12288,
8.02144e+06,-0.0109545,12288,12288,
8.02794e+06,-0.0106436,12288,12288,
8.03444e+06,-0.0103234,12288,12288,
8.04094e+06,-0.00999405,12288,12288,
8.05395e+06,-0.00930776,12288,12288,
8.06045e+06,-0.008951,12288,12288,
8.06695e+06,-0.00858524,12288,12288,
8.07345e+06,-0.00821054,12288,12288,
8.07994e+06,-0.00782697,12288,12288,
8.08644e+06,-0.00743463,12288,12288,
8.09294e+06,-0.00703361,12288,12288,
8.10593e+06,-0.00620604,12288,12288,
8.11243e+06,-0.00577977,12288,12288,
8.11892e+06,-0.0053454,12288,12288,
8.12541e+06,-0.00490309,12288,12288,
8.13191e+06,-0.00445304,12288,12288,
8.1384e+06,-0.00399548,12288,12288,
8.15138e+06,-0.00305875,12288,12288,
8.15787e+06,-0.0025801,12288,12288,
8.16436e+06,-0.00209496,12288,12288,
8.17085e+06,-0.00160365,12288,12288,
8.17734e+06,-0.00110649,12288,12288,
8.18383e+06,-0.000603812,12288,12288,
8.19032e+06,-9.59818e-05,12288,12288,
8.2033e+06,0.000933614,12288,12288,
8.20978e+06,0.00145458,12288,12288,
8.21627e+06,0.00197908,12288,12288,
8.22276e+06,0.00250669,12288,12288,
8.22924e+06,0.00303695,12288,12288,
8.23573e+06,0.00356939,12288,12288,
8.2487e+06,0.00463885,12288,12288,
8.25519e+06,0.00517488,12288,12288,
8.26167e+06,0.00571109,12288,12288,
8.26816e+06,0.00624696,12288,12288,
8.27464e+06,0.00678197,12288,12288,
8.28113e+06,0.00731559,12288,12288,
8.28762e+06,0.00784727,12288,12288,
8.30059e+06,0.0089027,12288,12288,
8.30707e+06,0.00942538,12288,12288,
8.31356e+06,0.00994399,12288,12288,
8.32004e+06,0.010458,12288,12288,
8.32653e+06,0.0109669,12288,12288,
8.33301e+06,0.0114701,12288,12288,
8.34598e+06,0.0124578,12288,12288,
8.35247e+06,0.0129413,12288,12288,
8.35895e+06,0.0134171,12288,12288,
8.36544e+06,0.0138848,12288,12288,
8.37193e+06,0.0143441,12288,12288,
8.37841e+06,0.0147945,12288,12288,
8.39139e+06,0.0156667,12288,12288,
8.39788e+06,0.0160878,12288,12288,
8.40437e+06,0.0164985,12288,12288,
8.41085e+06,0.0168984,12288,12288,
8.41734e+06,0.0172872,12288,12288,
8.42383e+06,0.0176647,12288,12288,
8.43032e+06,0.0180307,12288,12288,
8.44331e+06,0.0187278,12288,12288,
8.4498e+06,0.0190585,12288,12288,
8.45629e+06,0.0193772,12288,12288,
8.46279e+06,0.0196838,12288,12288,
8.46928e+06,0.0199782,12288,12288,
8.47578e+06,0.0202603,12288,12288,
8.48877e+06,0.0207879,12288,12288,
8.49527e+06,0.0210334,12288,12288,
8.50177e+06,0.0212667,12288,12288,
8.50827e+06,0.0214879,12288,12288,
8.51477e+06,0.021697,12288,12288,
8.52127e+06,0.0218943,12288,12288,
8.52778e+06,0.0220798,12288,12288,
8.54079e+06,0.0224161,12288,12288,
8.54729e+06,0.0225672,12288,12288,
8.5538e+06,0.0227071,12288,12288,
8.56031e+06,0.0228361,12288,12288,
8.56682e+06,0.0229543,12288,12288,
8.57334e+06,0.023062,12288,12288,
8.58637e+06,0.0232466,12288,12288,
8.59288e+06,0.023324,12288,12288,
8.5994e+06,0.0233919,12288,12288,
8.60592e+06,0.0234503,12288,12288,
8.61244e+06,0.0234997,12288,12288,
8.61897e+06,0.0235402,12288,12288,
8.62549e+06,0.0235721,12288,12288,
8.63855e+06,0.0236111,12288,12288,
8.64508e+06,0.0236188,12288,12288,
8.65162e+06,0.0236189,12288,12288,
8.65815e+06,0.0236118,12288,12288,
8.66469e+06,0.0235976,12288,12288,
8.67123e+06,0.0235766,12288,12288,
8.67777e+06,0.0235492,12288,12288,
8.69086e+06,0.0234757,12288,12288,
8.69741e+06,0.0234302,12288,12288,
8.70396e+06,0.0233793,12288,12288,
8.71051e+06,0.023323,12288,12288,
8.71707e+06,0.0232617,12288,12288,
8.72363e+06,0.0231956,12288,12288,
8.73019e+06,0.0231249,12288,12288,
8.74332e+06,0.0229707,12288,12288,
8.74989e+06,0.0228876,12288,12288,
8.75646e+06,0.0228008,12288,12288,
8.76303e+06,0.0227104,12288,12288,
8.76961e+06,0.0226167,12288,12288,
8.77619e+06,0.0225199,12288,12288,
8.78278e+06,0.0224202,12288,12288,
8.79595e+06,0.0222126,12288,12288,
8.80254e+06,0.022105,12288,12288,
8.80914e+06,0.0219952,12288,12288,
8.81574e+06,0.0218832,12288,12288,
8.82234e+06,0.0217694,12288,12288,
8.82894e+06,0.0216538,12288,12288,
8.83554e+06,0.0215365,12288,12288,
8.84873e+06,0.0212977,12288,12288,
8.85533e+06,0.0211764,12288,12288,
8.86193e+06,0.0210539,12288,12288,
8.86853e+06,0.0209305,12288,12288,
8.87514e+06,0.0208061,12288,12288,
8.88174e+06,0.020681,12288,12288,
8.88834e+06,0.0205551,12288,12288,
8.90154e+06,0.0203017,12288,12288,
8.90814e+06,0.0201743,12288,12288,
8.91474e+06,0.0200465,12288,12288,
8.92134e+06,0.0199185,12288,12288,
8.92795e+06,0.0197902,12288,12288,
8.93454e+06,0.0196618,12288,12288,
8.94114e+06,0.0195335,12288,12288,
8.94773e+06,0.0194052,12288,12288,
8.96089e+06,0.019149,12288,12288,
8.96746e+06,0.0190212,12288,12288,
8.97403e+06,0.0188936,12288,12288,
8.9806e+06,0.0187662,12288,12288,
8.98716e+06,0.0186392,12288,12288,
8.99372e+06,0.0185125,12288,12288,
9.00027e+06,0.0183861,12288,12288,
9.01337e+06,0.0181345,12288,12288,
9.01991e+06,0.0180093,12288,12288,
9.02645e+06,0.0178845,12288,12288,
9.03299e+06,0.0177602,12288,12288,
9.03952e+06,0.0176362,12288,12288,
9.04605e+06,0.0175128,12288,12288,
9.05258e+06,0.0173897,12288,12288,
9.06562e+06,0.017145,12288,12288,
9.07214e+06,0.0170233,12288,12288,
9.07865e+06,0.016902,12288,12288,
9.08517e+06,0.0167812,12288,12288,
9.09168e+06,0.0166608,12288,12288,
9.09818e+06,0.0165409,12288,12288,
9.11118e+06,0.0163022,12288,12288,
9.11767e+06,0.0161836,12288,12288,
9.12417e+06,0.0160652,12288,12288,
9.13065e+06,0.0159473,12288,12288,
9.13714e+06,0.0158297,12288,12288,
9.14362e+06,0.0157125,12288,12288,
9.1501e+06,0.0155955,12288,12288,
9.16305e+06,0.0153625,12288,12288,
9.16953e+06,0.0152464,12288,12288,
9.176e+06,0.0151305,12288,12288,
9.18246e+06,0.0150148,12288,12288,
9.18893e+06,0.0148993,12288,12288,
9.19539e+06,0.0147839,12288,12288,
9.20832e+06,0.0145536,12288,12288,
9.21477e+06,0.0144385,12288,12288,
9.22123e+06,0.0143235,12288,12288,
9.22769e+06,0.0142086,12288,12288,
9.23414e+06,0.0140936,12288,12288,
9.24059e+06,0.0139786,12288,12288,
9.25349e+06,0.0137484,12288,12288,
9.25994e+06,0.0136332,12288,12288,
9.26639e+06,0.0135178,12288,12288,
9.27284e+06,0.0134022,12288,12288,
9.27928e+06,0.0132864,12288,12288,
9.28573e+06,0.0131704,12288,12288,
9.29862e+06,0.0129377,12288,12288,
9.30506e+06,0.0128208,12288,12288,
9.3115e+06,0.0127037,12288,12288,
9.31794e+06,0.0125861,12288,12288,
9.32438e+06,0.0124682,12288,12288,
9.33082e+06,0.0123498,12288,12288,
9.3437e+06,0.0121117,12288,12288,
9.35014e+06,0.0119919,12288,12288,
9.35658e+06,0.0118716,12288,12288,
9.36302e+06,0.0117507,12288,12288,
9.36946e+06,0.0116293,12288,12288,
9.3759e+06,0.0115072,12288,12288,
9.38877e+06,0.0112612,12288,12288,
9.39521e+06,0.0111371,12288,12288,
9.40165e+06,0.0110124,12288,12288,
9.40809e+06,0.0108869,12288,12288,
9.41453e+06,0.0107607,12288,12288,
9.42097e+06,0.0106337,12288,12288,
9.43385e+06,0.0103774,12288,12288,
9.44029e+06,0.010248,12288,12288,
9.44673e+06,0.0101177,12288,12288,
9.45316e+06,0.00998662,12288,12288,
9.45961e+06,0.00985463,12288,12288,
9.46605e+06,0.00972174,12288,12288,
9.47893e+06,0.00945322,12288,12288,
9.48537e+06,0.00931756,12288,12288,
9.49181e+06,0.00918095,12288,12288,
9.49825e+06,0.00904339,12288,12288,
9.5047e+06,0.00890486,12288,12288,
9.51114e+06,0.00876535,12288,12288,
9.51758e+06,0.00862486,12288,12288,
9.53047e+06,0.0083409,12288,12288,
9.53692e+06,0.00819742,12288,12288,
9.54336e+06,0.00805295,12288,12288,
9.54981e+06,0.00790747,12288,12288,
9.55626e+06,0.00776098,12288,12288,
9.5627e+06,0.0076135,12288,12288,
9.5756e+06,0.00731553,12288,12288,
9.58205e+06,0.00716505,12288,12288,
9.5885e+06,0.00701359,12288,12288,
9.59495e+06,0.00686115,12288,12288,
9.6014e+06,0.00670774,12288,12288,
9.60785e+06,0.00655337,12288,12288,
9.62075e+06,0.00624179,12288,12288,
9.62721e+06,0.0060846,12288,12288,
9.63366e+06,0.00592651,12288,12288,
9.64012e+06,0.00576752,12288,12288,
9.64657e+06,0.00560765,12288,12288,
9.65303e+06,0.00544692,12288,12288,
9.66594e+06,0.00512297,12288,12288,
