STARTING WORLD SCHEDULER SERVER
CLIENT SETUP: adding client 44490
 + TIMESTAMP: 0.354688
START TIMESTAMP: 0.354728
+++++++++++++++++++++++++++++++++++++++++++++++++++++++++++
+ Client Mapping:
  > Client 44490 (0):	

+ Core Mapping:	0 0 0 0 0 0 0 0 0 0 0 0 0 0 0 0 0 0 0 0 0 0 0 0 0 0 0 0 0 0 0 0 0 0 0 0 0 0 0 0 
+ Optimal point: 
+++++++++++++++++++++++++++++++++++++++++++++++++++++++++++
INVADE: client 44490
 + TIMESTAMP: 0.354931
RESSOURCE DISTRIBUTION CHANGED
++++++++++++++++++++++++++++++++++++++++++++++++
INVADE (44490)
  + pid: 44490
  + min_cores: 1
  + max_cores: 512
  + scalability graph: 
1, 1.39494, 1.5699, 1.6742, 1.74538, 1.79792, 1.83875, 1.87167, 1.89893, 1.922, 1.94184, 1.95915, 1.97442, 1.98802, 2.00024, 2.0113, 2.02136, 2.03058, 2.03906, 2.04689, 2.05415, 2.06092, 2.06724, 2.07316, 2.07872, 2.08396, 2.0889, 2.09358, 2.09801, 2.10222, 2.10622, 2.11003, 2.11367, 2.11715, 2.12048, 2.12367, 2.12672, 2.12966, 2.13248, 2.1352, 
Number of clients: 1

+++++++++++++++++++++++++++++++++++++++++++++++++++++++++++
+ Client Mapping:
  > Client 44490 (40):	0 1 2 3 4 5 6 7 8 9 10 11 12 13 14 15 16 17 18 19 20 21 22 23 24 25 26 27 28 29 30 31 32 33 34 35 36 37 38 39 

+ Core Mapping:	44490 44490 44490 44490 44490 44490 44490 44490 44490 44490 44490 44490 44490 44490 44490 44490 44490 44490 44490 44490 44490 44490 44490 44490 44490 44490 44490 44490 44490 44490 44490 44490 44490 44490 44490 44490 44490 44490 44490 44490 
+ Optimal point: 40 
+++++++++++++++++++++++++++++++++++++++++++++++++++++++++++
CLIENT SETUP: adding client 44499
 + TIMESTAMP: 0.412341
+++++++++++++++++++++++++++++++++++++++++++++++++++++++++++
+ Client Mapping:
  > Client 44490 (40):	0 1 2 3 4 5 6 7 8 9 10 11 12 13 14 15 16 17 18 19 20 21 22 23 24 25 26 27 28 29 30 31 32 33 34 35 36 37 38 39 
  > Client 44499 (0):	

+ Core Mapping:	44490 44490 44490 44490 44490 44490 44490 44490 44490 44490 44490 44490 44490 44490 44490 44490 44490 44490 44490 44490 44490 44490 44490 44490 44490 44490 44490 44490 44490 44490 44490 44490 44490 44490 44490 44490 44490 44490 44490 44490 
+ Optimal point: 40 
+++++++++++++++++++++++++++++++++++++++++++++++++++++++++++
INVADE: client 44499
 + TIMESTAMP: 0.412568
CLIENT SETUP: adding client 44500
 + TIMESTAMP: 0.427436
+++++++++++++++++++++++++++++++++++++++++++++++++++++++++++
+ Client Mapping:
  > Client 44490 (40):	0 1 2 3 4 5 6 7 8 9 10 11 12 13 14 15 16 17 18 19 20 21 22 23 24 25 26 27 28 29 30 31 32 33 34 35 36 37 38 39 
  > Client 44499 (0):	
  > Client 44500 (0):	

+ Core Mapping:	44490 44490 44490 44490 44490 44490 44490 44490 44490 44490 44490 44490 44490 44490 44490 44490 44490 44490 44490 44490 44490 44490 44490 44490 44490 44490 44490 44490 44490 44490 44490 44490 44490 44490 44490 44490 44490 44490 44490 44490 
+ Optimal point: 20 20 
+++++++++++++++++++++++++++++++++++++++++++++++++++++++++++
INVADE: client 44500
 + TIMESTAMP: 0.427537
CLIENT SETUP: adding client 44493
 + TIMESTAMP: 0.434639
+++++++++++++++++++++++++++++++++++++++++++++++++++++++++++
+ Client Mapping:
  > Client 44490 (40):	0 1 2 3 4 5 6 7 8 9 10 11 12 13 14 15 16 17 18 19 20 21 22 23 24 25 26 27 28 29 30 31 32 33 34 35 36 37 38 39 
  > Client 44499 (0):	
  > Client 44500 (0):	
  > Client 44493 (0):	

+ Core Mapping:	44490 44490 44490 44490 44490 44490 44490 44490 44490 44490 44490 44490 44490 44490 44490 44490 44490 44490 44490 44490 44490 44490 44490 44490 44490 44490 44490 44490 44490 44490 44490 44490 44490 44490 44490 44490 44490 44490 44490 44490 
+ Optimal point: 14 13 13 
+++++++++++++++++++++++++++++++++++++++++++++++++++++++++++
INVADE: client 44493
 + TIMESTAMP: 0.434789
CLIENT SETUP: adding client 44494
 + TIMESTAMP: 0.43484
+++++++++++++++++++++++++++++++++++++++++++++++++++++++++++
+ Client Mapping:
  > Client 44490 (40):	0 1 2 3 4 5 6 7 8 9 10 11 12 13 14 15 16 17 18 19 20 21 22 23 24 25 26 27 28 29 30 31 32 33 34 35 36 37 38 39 
  > Client 44499 (0):	
  > Client 44500 (0):	
  > Client 44493 (0):	
  > Client 44494 (0):	

+ Core Mapping:	44490 44490 44490 44490 44490 44490 44490 44490 44490 44490 44490 44490 44490 44490 44490 44490 44490 44490 44490 44490 44490 44490 44490 44490 44490 44490 44490 44490 44490 44490 44490 44490 44490 44490 44490 44490 44490 44490 44490 44490 
+ Optimal point: 10 10 10 10 
+++++++++++++++++++++++++++++++++++++++++++++++++++++++++++
INVADE: client 44494
 + TIMESTAMP: 0.435006
CLIENT SETUP: adding client 44497
 + TIMESTAMP: 0.444722
+++++++++++++++++++++++++++++++++++++++++++++++++++++++++++
+ Client Mapping:
  > Client 44490 (40):	0 1 2 3 4 5 6 7 8 9 10 11 12 13 14 15 16 17 18 19 20 21 22 23 24 25 26 27 28 29 30 31 32 33 34 35 36 37 38 39 
  > Client 44499 (0):	
  > Client 44500 (0):	
  > Client 44493 (0):	
  > Client 44494 (0):	
  > Client 44497 (0):	

+ Core Mapping:	44490 44490 44490 44490 44490 44490 44490 44490 44490 44490 44490 44490 44490 44490 44490 44490 44490 44490 44490 44490 44490 44490 44490 44490 44490 44490 44490 44490 44490 44490 44490 44490 44490 44490 44490 44490 44490 44490 44490 44490 
+ Optimal point: 8 8 8 8 8 
+++++++++++++++++++++++++++++++++++++++++++++++++++++++++++
INVADE: client 44497
 + TIMESTAMP: 0.444829
CLIENT SETUP: adding client 44496
 + TIMESTAMP: 0.470708
+++++++++++++++++++++++++++++++++++++++++++++++++++++++++++
+ Client Mapping:
  > Client 44490 (40):	0 1 2 3 4 5 6 7 8 9 10 11 12 13 14 15 16 17 18 19 20 21 22 23 24 25 26 27 28 29 30 31 32 33 34 35 36 37 38 39 
  > Client 44499 (0):	
  > Client 44500 (0):	
  > Client 44493 (0):	
  > Client 44494 (0):	
  > Client 44497 (0):	
  > Client 44496 (0):	

+ Core Mapping:	44490 44490 44490 44490 44490 44490 44490 44490 44490 44490 44490 44490 44490 44490 44490 44490 44490 44490 44490 44490 44490 44490 44490 44490 44490 44490 44490 44490 44490 44490 44490 44490 44490 44490 44490 44490 44490 44490 44490 44490 
+ Optimal point: 7 7 7 6 6 7 
+++++++++++++++++++++++++++++++++++++++++++++++++++++++++++
INVADE: client 44496
 + TIMESTAMP: 0.470896
CLIENT SETUP: adding client 44491
 + TIMESTAMP: 0.47463
+++++++++++++++++++++++++++++++++++++++++++++++++++++++++++
+ Client Mapping:
  > Client 44490 (40):	0 1 2 3 4 5 6 7 8 9 10 11 12 13 14 15 16 17 18 19 20 21 22 23 24 25 26 27 28 29 30 31 32 33 34 35 36 37 38 39 
  > Client 44499 (0):	
  > Client 44500 (0):	
  > Client 44493 (0):	
  > Client 44494 (0):	
  > Client 44497 (0):	
  > Client 44496 (0):	
  > Client 44491 (0):	

+ Core Mapping:	44490 44490 44490 44490 44490 44490 44490 44490 44490 44490 44490 44490 44490 44490 44490 44490 44490 44490 44490 44490 44490 44490 44490 44490 44490 44490 44490 44490 44490 44490 44490 44490 44490 44490 44490 44490 44490 44490 44490 44490 
+ Optimal point: 6 6 6 6 6 5 5 
+++++++++++++++++++++++++++++++++++++++++++++++++++++++++++
INVADE: client 44491
 + TIMESTAMP: 0.474858
CLIENT SETUP: adding client 44489
 + TIMESTAMP: 0.479907
+++++++++++++++++++++++++++++++++++++++++++++++++++++++++++
+ Client Mapping:
  > Client 44490 (40):	0 1 2 3 4 5 6 7 8 9 10 11 12 13 14 15 16 17 18 19 20 21 22 23 24 25 26 27 28 29 30 31 32 33 34 35 36 37 38 39 
  > Client 44499 (0):	
  > Client 44500 (0):	
  > Client 44493 (0):	
  > Client 44494 (0):	
  > Client 44497 (0):	
  > Client 44496 (0):	
  > Client 44491 (0):	
  > Client 44489 (0):	

+ Core Mapping:	44490 44490 44490 44490 44490 44490 44490 44490 44490 44490 44490 44490 44490 44490 44490 44490 44490 44490 44490 44490 44490 44490 44490 44490 44490 44490 44490 44490 44490 44490 44490 44490 44490 44490 44490 44490 44490 44490 44490 44490 
+ Optimal point: 5 5 5 5 5 5 5 5 
+++++++++++++++++++++++++++++++++++++++++++++++++++++++++++
INVADE: client 44489
 + TIMESTAMP: 0.480098
CLIENT SETUP: adding client 44492
 + TIMESTAMP: 0.481006
+++++++++++++++++++++++++++++++++++++++++++++++++++++++++++
+ Client Mapping:
  > Client 44490 (40):	0 1 2 3 4 5 6 7 8 9 10 11 12 13 14 15 16 17 18 19 20 21 22 23 24 25 26 27 28 29 30 31 32 33 34 35 36 37 38 39 
  > Client 44499 (0):	
  > Client 44500 (0):	
  > Client 44493 (0):	
  > Client 44494 (0):	
  > Client 44497 (0):	
  > Client 44496 (0):	
  > Client 44491 (0):	
  > Client 44489 (0):	
  > Client 44492 (0):	

+ Core Mapping:	44490 44490 44490 44490 44490 44490 44490 44490 44490 44490 44490 44490 44490 44490 44490 44490 44490 44490 44490 44490 44490 44490 44490 44490 44490 44490 44490 44490 44490 44490 44490 44490 44490 44490 44490 44490 44490 44490 44490 44490 
+ Optimal point: 5 5 5 5 4 4 4 4 4 
+++++++++++++++++++++++++++++++++++++++++++++++++++++++++++
INVADE: client 44492
 + TIMESTAMP: 0.481142
CLIENT SETUP: adding client 44501
 + TIMESTAMP: 0.515571
+++++++++++++++++++++++++++++++++++++++++++++++++++++++++++
+ Client Mapping:
  > Client 44490 (40):	0 1 2 3 4 5 6 7 8 9 10 11 12 13 14 15 16 17 18 19 20 21 22 23 24 25 26 27 28 29 30 31 32 33 34 35 36 37 38 39 
  > Client 44499 (0):	
  > Client 44500 (0):	
  > Client 44493 (0):	
  > Client 44494 (0):	
  > Client 44497 (0):	
  > Client 44496 (0):	
  > Client 44491 (0):	
  > Client 44489 (0):	
  > Client 44492 (0):	
  > Client 44501 (0):	

+ Core Mapping:	44490 44490 44490 44490 44490 44490 44490 44490 44490 44490 44490 44490 44490 44490 44490 44490 44490 44490 44490 44490 44490 44490 44490 44490 44490 44490 44490 44490 44490 44490 44490 44490 44490 44490 44490 44490 44490 44490 44490 44490 
+ Optimal point: 4 4 4 4 4 4 4 4 4 4 
+++++++++++++++++++++++++++++++++++++++++++++++++++++++++++
INVADE: client 44501
 + TIMESTAMP: 0.515701
CLIENT SETUP: adding client 44498
 + TIMESTAMP: 0.537801
+++++++++++++++++++++++++++++++++++++++++++++++++++++++++++
+ Client Mapping:
  > Client 44490 (40):	0 1 2 3 4 5 6 7 8 9 10 11 12 13 14 15 16 17 18 19 20 21 22 23 24 25 26 27 28 29 30 31 32 33 34 35 36 37 38 39 
  > Client 44499 (0):	
  > Client 44500 (0):	
  > Client 44493 (0):	
  > Client 44494 (0):	
  > Client 44497 (0):	
  > Client 44496 (0):	
  > Client 44491 (0):	
  > Client 44489 (0):	
  > Client 44492 (0):	
  > Client 44501 (0):	
  > Client 44498 (0):	

+ Core Mapping:	44490 44490 44490 44490 44490 44490 44490 44490 44490 44490 44490 44490 44490 44490 44490 44490 44490 44490 44490 44490 44490 44490 44490 44490 44490 44490 44490 44490 44490 44490 44490 44490 44490 44490 44490 44490 44490 44490 44490 44490 
+ Optimal point: 3 3 3 4 4 4 4 4 4 3 4 
+++++++++++++++++++++++++++++++++++++++++++++++++++++++++++
INVADE: client 44498
 + TIMESTAMP: 0.537928
++++++++++++++++++++++++++++++++++++++++++++++++
 + TIMESTAMP: 0.570787
REINVADE (44490)
  + pid: 44490
  + min_cores: 1
  + max_cores: 512
  + scalability graph: 
1, 1.39494, 1.5699, 1.6742, 1.74538, 1.79792, 1.83875, 1.87167, 1.89893, 1.922, 1.94184, 1.95915, 1.97442, 1.98802, 2.00024, 2.0113, 2.02136, 2.03058, 2.03906, 2.04689, 2.05415, 2.06092, 2.06724, 2.07316, 2.07872, 2.08396, 2.0889, 2.09358, 2.09801, 2.10222, 2.10622, 2.11003, 2.11367, 2.11715, 2.12048, 2.12367, 2.12672, 2.12966, 2.13248, 2.1352, 
Number of clients: 12

+++++++++++++++++++++++++++++++++++++++++++++++++++++++++++
+ Client Mapping:
  > Client 44490 (3):	37 38 39 
  > Client 44499 (0):	
  > Client 44500 (0):	
  > Client 44493 (0):	
  > Client 44494 (0):	
  > Client 44497 (0):	
  > Client 44496 (0):	
  > Client 44491 (0):	
  > Client 44489 (0):	
  > Client 44492 (0):	
  > Client 44501 (0):	
  > Client 44498 (0):	

+ Core Mapping:	0 0 0 0 0 0 0 0 0 0 0 0 0 0 0 0 0 0 0 0 0 0 0 0 0 0 0 0 0 0 0 0 0 0 0 0 0 44490 44490 44490 
+ Optimal point: 3 3 3 4 4 4 4 3 3 3 3 3 
+++++++++++++++++++++++++++++++++++++++++++++++++++++++++++
CLIENT SETUP: adding client 44495
 + TIMESTAMP: 0.609876
+++++++++++++++++++++++++++++++++++++++++++++++++++++++++++
+ Client Mapping:
  > Client 44490 (3):	37 38 39 
  > Client 44499 (0):	
  > Client 44500 (0):	
  > Client 44493 (0):	
  > Client 44494 (0):	
  > Client 44497 (0):	
  > Client 44496 (0):	
  > Client 44491 (0):	
  > Client 44489 (0):	
  > Client 44492 (0):	
  > Client 44501 (0):	
  > Client 44498 (0):	
  > Client 44495 (0):	

+ Core Mapping:	0 0 0 0 0 0 0 0 0 0 0 0 0 0 0 0 0 0 0 0 0 0 0 0 0 0 0 0 0 0 0 0 0 0 0 0 0 44490 44490 44490 
+ Optimal point: 3 3 3 4 4 4 4 3 3 3 3 3 
+++++++++++++++++++++++++++++++++++++++++++++++++++++++++++
INVADE: client 44495
 + TIMESTAMP: 0.609997
RESSOURCE DISTRIBUTION CHANGED
++++++++++++++++++++++++++++++++++++++++++++++++
INVADE (44495)
  + pid: 44495
  + min_cores: 1
  + max_cores: 512
  + scalability graph: 
1, 1.39494, 1.5699, 1.6742, 1.74538, 1.79792, 1.83875, 1.87167, 1.89893, 1.922, 1.94184, 1.95915, 1.97442, 1.98802, 2.00024, 2.0113, 2.02136, 2.03058, 2.03906, 2.04689, 2.05415, 2.06092, 2.06724, 2.07316, 2.07872, 2.08396, 2.0889, 2.09358, 2.09801, 2.10222, 2.10622, 2.11003, 2.11367, 2.11715, 2.12048, 2.12367, 2.12672, 2.12966, 2.13248, 2.1352, 
Number of clients: 13

+++++++++++++++++++++++++++++++++++++++++++++++++++++++++++
+ Client Mapping:
  > Client 44490 (3):	37 38 39 
  > Client 44499 (0):	
  > Client 44500 (0):	
  > Client 44493 (0):	
  > Client 44494 (0):	
  > Client 44497 (0):	
  > Client 44496 (0):	
  > Client 44491 (0):	
  > Client 44489 (0):	
  > Client 44492 (0):	
  > Client 44501 (0):	
  > Client 44498 (0):	
  > Client 44495 (3):	0 1 2 

+ Core Mapping:	44495 44495 44495 0 0 0 0 0 0 0 0 0 0 0 0 0 0 0 0 0 0 0 0 0 0 0 0 0 0 0 0 0 0 0 0 0 0 44490 44490 44490 
+ Optimal point: 3 3 3 4 3 3 3 3 3 3 3 3 3 
+++++++++++++++++++++++++++++++++++++++++++++++++++++++++++
++++++++++++++++++++++++++++++++++++++++++++++++
 + TIMESTAMP: 2.28736
REINVADE (44496)
  + pid: 44496
  + min_cores: 1
  + max_cores: 512
  + scalability graph: 
1, 1.39494, 1.5699, 1.6742, 1.74538, 1.79792, 1.83875, 1.87167, 1.89893, 1.922, 1.94184, 1.95915, 1.97442, 1.98802, 2.00024, 2.0113, 2.02136, 2.03058, 2.03906, 2.04689, 2.05415, 2.06092, 2.06724, 2.07316, 2.07872, 2.08396, 2.0889, 2.09358, 2.09801, 2.10222, 2.10622, 2.11003, 2.11367, 2.11715, 2.12048, 2.12367, 2.12672, 2.12966, 2.13248, 2.1352, 
Number of clients: 13

+++++++++++++++++++++++++++++++++++++++++++++++++++++++++++
+ Client Mapping:
  > Client 44490 (3):	37 38 39 
  > Client 44499 (0):	
  > Client 44500 (0):	
  > Client 44493 (0):	
  > Client 44494 (0):	
  > Client 44497 (0):	
  > Client 44496 (3):	3 4 5 
  > Client 44491 (0):	
  > Client 44489 (0):	
  > Client 44492 (0):	
  > Client 44501 (0):	
  > Client 44498 (0):	
  > Client 44495 (3):	0 1 2 

+ Core Mapping:	44495 44495 44495 44496 44496 44496 0 0 0 0 0 0 0 0 0 0 0 0 0 0 0 0 0 0 0 0 0 0 0 0 0 0 0 0 0 0 0 44490 44490 44490 
+ Optimal point: 3 3 3 4 3 3 3 3 3 3 3 3 3 
+++++++++++++++++++++++++++++++++++++++++++++++++++++++++++
++++++++++++++++++++++++++++++++++++++++++++++++
 + TIMESTAMP: 2.32735
REINVADE (44500)
  + pid: 44500
  + min_cores: 1
  + max_cores: 512
  + scalability graph: 
1, 1.39494, 1.5699, 1.6742, 1.74538, 1.79792, 1.83875, 1.87167, 1.89893, 1.922, 1.94184, 1.95915, 1.97442, 1.98802, 2.00024, 2.0113, 2.02136, 2.03058, 2.03906, 2.04689, 2.05415, 2.06092, 2.06724, 2.07316, 2.07872, 2.08396, 2.0889, 2.09358, 2.09801, 2.10222, 2.10622, 2.11003, 2.11367, 2.11715, 2.12048, 2.12367, 2.12672, 2.12966, 2.13248, 2.1352, 
Number of clients: 13

+++++++++++++++++++++++++++++++++++++++++++++++++++++++++++
+ Client Mapping:
  > Client 44490 (3):	37 38 39 
  > Client 44499 (0):	
  > Client 44500 (3):	6 7 8 
  > Client 44493 (0):	
  > Client 44494 (0):	
  > Client 44497 (0):	
  > Client 44496 (3):	3 4 5 
  > Client 44491 (0):	
  > Client 44489 (0):	
  > Client 44492 (0):	
  > Client 44501 (0):	
  > Client 44498 (0):	
  > Client 44495 (3):	0 1 2 

+ Core Mapping:	44495 44495 44495 44496 44496 44496 44500 44500 44500 0 0 0 0 0 0 0 0 0 0 0 0 0 0 0 0 0 0 0 0 0 0 0 0 0 0 0 0 44490 44490 44490 
+ Optimal point: 3 3 3 4 3 3 3 3 3 3 3 3 3 
+++++++++++++++++++++++++++++++++++++++++++++++++++++++++++
++++++++++++++++++++++++++++++++++++++++++++++++
 + TIMESTAMP: 2.44672
REINVADE (44494)
  + pid: 44494
  + min_cores: 1
  + max_cores: 512
  + scalability graph: 
1, 1.39494, 1.5699, 1.6742, 1.74538, 1.79792, 1.83875, 1.87167, 1.89893, 1.922, 1.94184, 1.95915, 1.97442, 1.98802, 2.00024, 2.0113, 2.02136, 2.03058, 2.03906, 2.04689, 2.05415, 2.06092, 2.06724, 2.07316, 2.07872, 2.08396, 2.0889, 2.09358, 2.09801, 2.10222, 2.10622, 2.11003, 2.11367, 2.11715, 2.12048, 2.12367, 2.12672, 2.12966, 2.13248, 2.1352, 
Number of clients: 13

+++++++++++++++++++++++++++++++++++++++++++++++++++++++++++
+ Client Mapping:
  > Client 44490 (3):	37 38 39 
  > Client 44499 (0):	
  > Client 44500 (3):	6 7 8 
  > Client 44493 (0):	
  > Client 44494 (3):	9 10 11 
  > Client 44497 (0):	
  > Client 44496 (3):	3 4 5 
  > Client 44491 (0):	
  > Client 44489 (0):	
  > Client 44492 (0):	
  > Client 44501 (0):	
  > Client 44498 (0):	
  > Client 44495 (3):	0 1 2 

+ Core Mapping:	44495 44495 44495 44496 44496 44496 44500 44500 44500 44494 44494 44494 0 0 0 0 0 0 0 0 0 0 0 0 0 0 0 0 0 0 0 0 0 0 0 0 0 44490 44490 44490 
+ Optimal point: 3 3 3 4 3 3 3 3 3 3 3 3 3 
+++++++++++++++++++++++++++++++++++++++++++++++++++++++++++
++++++++++++++++++++++++++++++++++++++++++++++++
 + TIMESTAMP: 2.46666
REINVADE (44489)
  + pid: 44489
  + min_cores: 1
  + max_cores: 512
  + scalability graph: 
1, 1.39494, 1.5699, 1.6742, 1.74538, 1.79792, 1.83875, 1.87167, 1.89893, 1.922, 1.94184, 1.95915, 1.97442, 1.98802, 2.00024, 2.0113, 2.02136, 2.03058, 2.03906, 2.04689, 2.05415, 2.06092, 2.06724, 2.07316, 2.07872, 2.08396, 2.0889, 2.09358, 2.09801, 2.10222, 2.10622, 2.11003, 2.11367, 2.11715, 2.12048, 2.12367, 2.12672, 2.12966, 2.13248, 2.1352, 
Number of clients: 13

+++++++++++++++++++++++++++++++++++++++++++++++++++++++++++
+ Client Mapping:
  > Client 44490 (3):	37 38 39 
  > Client 44499 (0):	
  > Client 44500 (3):	6 7 8 
  > Client 44493 (0):	
  > Client 44494 (3):	9 10 11 
  > Client 44497 (0):	
  > Client 44496 (3):	3 4 5 
  > Client 44491 (0):	
  > Client 44489 (3):	12 13 14 
  > Client 44492 (0):	
  > Client 44501 (0):	
  > Client 44498 (0):	
  > Client 44495 (3):	0 1 2 

+ Core Mapping:	44495 44495 44495 44496 44496 44496 44500 44500 44500 44494 44494 44494 44489 44489 44489 0 0 0 0 0 0 0 0 0 0 0 0 0 0 0 0 0 0 0 0 0 0 44490 44490 44490 
+ Optimal point: 3 3 3 4 3 3 3 3 3 3 3 3 3 
+++++++++++++++++++++++++++++++++++++++++++++++++++++++++++
++++++++++++++++++++++++++++++++++++++++++++++++
 + TIMESTAMP: 2.4707
REINVADE (44492)
  + pid: 44492
  + min_cores: 1
  + max_cores: 512
  + scalability graph: 
1, 1.39494, 1.5699, 1.6742, 1.74538, 1.79792, 1.83875, 1.87167, 1.89893, 1.922, 1.94184, 1.95915, 1.97442, 1.98802, 2.00024, 2.0113, 2.02136, 2.03058, 2.03906, 2.04689, 2.05415, 2.06092, 2.06724, 2.07316, 2.07872, 2.08396, 2.0889, 2.09358, 2.09801, 2.10222, 2.10622, 2.11003, 2.11367, 2.11715, 2.12048, 2.12367, 2.12672, 2.12966, 2.13248, 2.1352, 
Number of clients: 13

+++++++++++++++++++++++++++++++++++++++++++++++++++++++++++
+ Client Mapping:
  > Client 44490 (3):	37 38 39 
  > Client 44499 (0):	
  > Client 44500 (3):	6 7 8 
  > Client 44493 (0):	
  > Client 44494 (3):	9 10 11 
  > Client 44497 (0):	
  > Client 44496 (3):	3 4 5 
  > Client 44491 (0):	
  > Client 44489 (3):	12 13 14 
  > Client 44492 (3):	15 16 17 
  > Client 44501 (0):	
  > Client 44498 (0):	
  > Client 44495 (3):	0 1 2 

+ Core Mapping:	44495 44495 44495 44496 44496 44496 44500 44500 44500 44494 44494 44494 44489 44489 44489 44492 44492 44492 0 0 0 0 0 0 0 0 0 0 0 0 0 0 0 0 0 0 0 44490 44490 44490 
+ Optimal point: 3 3 3 4 3 3 3 3 3 3 3 3 3 
+++++++++++++++++++++++++++++++++++++++++++++++++++++++++++
++++++++++++++++++++++++++++++++++++++++++++++++
 + TIMESTAMP: 2.52663
REINVADE (44493)
  + pid: 44493
  + min_cores: 1
  + max_cores: 512
  + scalability graph: 
1, 1.39494, 1.5699, 1.6742, 1.74538, 1.79792, 1.83875, 1.87167, 1.89893, 1.922, 1.94184, 1.95915, 1.97442, 1.98802, 2.00024, 2.0113, 2.02136, 2.03058, 2.03906, 2.04689, 2.05415, 2.06092, 2.06724, 2.07316, 2.07872, 2.08396, 2.0889, 2.09358, 2.09801, 2.10222, 2.10622, 2.11003, 2.11367, 2.11715, 2.12048, 2.12367, 2.12672, 2.12966, 2.13248, 2.1352, 
Number of clients: 13

+++++++++++++++++++++++++++++++++++++++++++++++++++++++++++
+ Client Mapping:
  > Client 44490 (3):	37 38 39 
  > Client 44499 (0):	
  > Client 44500 (3):	6 7 8 
  > Client 44493 (4):	18 19 20 21 
  > Client 44494 (3):	9 10 11 
  > Client 44497 (0):	
  > Client 44496 (3):	3 4 5 
  > Client 44491 (0):	
  > Client 44489 (3):	12 13 14 
  > Client 44492 (3):	15 16 17 
  > Client 44501 (0):	
  > Client 44498 (0):	
  > Client 44495 (3):	0 1 2 

+ Core Mapping:	44495 44495 44495 44496 44496 44496 44500 44500 44500 44494 44494 44494 44489 44489 44489 44492 44492 44492 44493 44493 44493 44493 0 0 0 0 0 0 0 0 0 0 0 0 0 0 0 44490 44490 44490 
+ Optimal point: 3 3 3 4 3 3 3 3 3 3 3 3 3 
+++++++++++++++++++++++++++++++++++++++++++++++++++++++++++
++++++++++++++++++++++++++++++++++++++++++++++++
 + TIMESTAMP: 2.53071
REINVADE (44491)
  + pid: 44491
  + min_cores: 1
  + max_cores: 512
  + scalability graph: 
1, 1.39494, 1.5699, 1.6742, 1.74538, 1.79792, 1.83875, 1.87167, 1.89893, 1.922, 1.94184, 1.95915, 1.97442, 1.98802, 2.00024, 2.0113, 2.02136, 2.03058, 2.03906, 2.04689, 2.05415, 2.06092, 2.06724, 2.07316, 2.07872, 2.08396, 2.0889, 2.09358, 2.09801, 2.10222, 2.10622, 2.11003, 2.11367, 2.11715, 2.12048, 2.12367, 2.12672, 2.12966, 2.13248, 2.1352, 
Number of clients: 13

+++++++++++++++++++++++++++++++++++++++++++++++++++++++++++
+ Client Mapping:
  > Client 44490 (3):	37 38 39 
  > Client 44499 (0):	
  > Client 44500 (3):	6 7 8 
  > Client 44493 (4):	18 19 20 21 
  > Client 44494 (3):	9 10 11 
  > Client 44497 (0):	
  > Client 44496 (3):	3 4 5 
  > Client 44491 (3):	22 23 24 
  > Client 44489 (3):	12 13 14 
  > Client 44492 (3):	15 16 17 
  > Client 44501 (0):	
  > Client 44498 (0):	
  > Client 44495 (3):	0 1 2 

+ Core Mapping:	44495 44495 44495 44496 44496 44496 44500 44500 44500 44494 44494 44494 44489 44489 44489 44492 44492 44492 44493 44493 44493 44493 44491 44491 44491 0 0 0 0 0 0 0 0 0 0 0 0 44490 44490 44490 
+ Optimal point: 3 3 3 4 3 3 3 3 3 3 3 3 3 
+++++++++++++++++++++++++++++++++++++++++++++++++++++++++++
++++++++++++++++++++++++++++++++++++++++++++++++
 + TIMESTAMP: 2.54274
REINVADE (44498)
  + pid: 44498
  + min_cores: 1
  + max_cores: 512
  + scalability graph: 
1, 1.39494, 1.5699, 1.6742, 1.74538, 1.79792, 1.83875, 1.87167, 1.89893, 1.922, 1.94184, 1.95915, 1.97442, 1.98802, 2.00024, 2.0113, 2.02136, 2.03058, 2.03906, 2.04689, 2.05415, 2.06092, 2.06724, 2.07316, 2.07872, 2.08396, 2.0889, 2.09358, 2.09801, 2.10222, 2.10622, 2.11003, 2.11367, 2.11715, 2.12048, 2.12367, 2.12672, 2.12966, 2.13248, 2.1352, 
Number of clients: 13

+++++++++++++++++++++++++++++++++++++++++++++++++++++++++++
+ Client Mapping:
  > Client 44490 (3):	37 38 39 
  > Client 44499 (0):	
  > Client 44500 (3):	6 7 8 
  > Client 44493 (4):	18 19 20 21 
  > Client 44494 (3):	9 10 11 
  > Client 44497 (0):	
  > Client 44496 (3):	3 4 5 
  > Client 44491 (3):	22 23 24 
  > Client 44489 (3):	12 13 14 
  > Client 44492 (3):	15 16 17 
  > Client 44501 (0):	
  > Client 44498 (3):	25 26 27 
  > Client 44495 (3):	0 1 2 

+ Core Mapping:	44495 44495 44495 44496 44496 44496 44500 44500 44500 44494 44494 44494 44489 44489 44489 44492 44492 44492 44493 44493 44493 44493 44491 44491 44491 44498 44498 44498 0 0 0 0 0 0 0 0 0 44490 44490 44490 
+ Optimal point: 3 3 3 4 3 3 3 3 3 3 3 3 3 
+++++++++++++++++++++++++++++++++++++++++++++++++++++++++++
++++++++++++++++++++++++++++++++++++++++++++++++
 + TIMESTAMP: 2.54664
REINVADE (44499)
  + pid: 44499
  + min_cores: 1
  + max_cores: 512
  + scalability graph: 
1, 1.39494, 1.5699, 1.6742, 1.74538, 1.79792, 1.83875, 1.87167, 1.89893, 1.922, 1.94184, 1.95915, 1.97442, 1.98802, 2.00024, 2.0113, 2.02136, 2.03058, 2.03906, 2.04689, 2.05415, 2.06092, 2.06724, 2.07316, 2.07872, 2.08396, 2.0889, 2.09358, 2.09801, 2.10222, 2.10622, 2.11003, 2.11367, 2.11715, 2.12048, 2.12367, 2.12672, 2.12966, 2.13248, 2.1352, 
Number of clients: 13

+++++++++++++++++++++++++++++++++++++++++++++++++++++++++++
+ Client Mapping:
  > Client 44490 (3):	37 38 39 
  > Client 44499 (3):	28 29 30 
  > Client 44500 (3):	6 7 8 
  > Client 44493 (4):	18 19 20 21 
  > Client 44494 (3):	9 10 11 
  > Client 44497 (0):	
  > Client 44496 (3):	3 4 5 
  > Client 44491 (3):	22 23 24 
  > Client 44489 (3):	12 13 14 
  > Client 44492 (3):	15 16 17 
  > Client 44501 (0):	
  > Client 44498 (3):	25 26 27 
  > Client 44495 (3):	0 1 2 

+ Core Mapping:	44495 44495 44495 44496 44496 44496 44500 44500 44500 44494 44494 44494 44489 44489 44489 44492 44492 44492 44493 44493 44493 44493 44491 44491 44491 44498 44498 44498 44499 44499 44499 0 0 0 0 0 0 44490 44490 44490 
+ Optimal point: 3 3 3 4 3 3 3 3 3 3 3 3 3 
+++++++++++++++++++++++++++++++++++++++++++++++++++++++++++
++++++++++++++++++++++++++++++++++++++++++++++++
 + TIMESTAMP: 2.59877
REINVADE (44501)
  + pid: 44501
  + min_cores: 1
  + max_cores: 512
  + scalability graph: 
1, 1.39494, 1.5699, 1.6742, 1.74538, 1.79792, 1.83875, 1.87167, 1.89893, 1.922, 1.94184, 1.95915, 1.97442, 1.98802, 2.00024, 2.0113, 2.02136, 2.03058, 2.03906, 2.04689, 2.05415, 2.06092, 2.06724, 2.07316, 2.07872, 2.08396, 2.0889, 2.09358, 2.09801, 2.10222, 2.10622, 2.11003, 2.11367, 2.11715, 2.12048, 2.12367, 2.12672, 2.12966, 2.13248, 2.1352, 
Number of clients: 13

+++++++++++++++++++++++++++++++++++++++++++++++++++++++++++
+ Client Mapping:
  > Client 44490 (3):	37 38 39 
  > Client 44499 (3):	28 29 30 
  > Client 44500 (3):	6 7 8 
  > Client 44493 (4):	18 19 20 21 
  > Client 44494 (3):	9 10 11 
  > Client 44497 (0):	
  > Client 44496 (3):	3 4 5 
  > Client 44491 (3):	22 23 24 
  > Client 44489 (3):	12 13 14 
  > Client 44492 (3):	15 16 17 
  > Client 44501 (3):	31 32 33 
  > Client 44498 (3):	25 26 27 
  > Client 44495 (3):	0 1 2 

+ Core Mapping:	44495 44495 44495 44496 44496 44496 44500 44500 44500 44494 44494 44494 44489 44489 44489 44492 44492 44492 44493 44493 44493 44493 44491 44491 44491 44498 44498 44498 44499 44499 44499 44501 44501 44501 0 0 0 44490 44490 44490 
+ Optimal point: 3 3 3 4 3 3 3 3 3 3 3 3 3 
+++++++++++++++++++++++++++++++++++++++++++++++++++++++++++
++++++++++++++++++++++++++++++++++++++++++++++++
 + TIMESTAMP: 2.59899
REINVADE (44497)
  + pid: 44497
  + min_cores: 1
  + max_cores: 512
  + scalability graph: 
1, 1.39494, 1.5699, 1.6742, 1.74538, 1.79792, 1.83875, 1.87167, 1.89893, 1.922, 1.94184, 1.95915, 1.97442, 1.98802, 2.00024, 2.0113, 2.02136, 2.03058, 2.03906, 2.04689, 2.05415, 2.06092, 2.06724, 2.07316, 2.07872, 2.08396, 2.0889, 2.09358, 2.09801, 2.10222, 2.10622, 2.11003, 2.11367, 2.11715, 2.12048, 2.12367, 2.12672, 2.12966, 2.13248, 2.1352, 
Number of clients: 13

+++++++++++++++++++++++++++++++++++++++++++++++++++++++++++
+ Client Mapping:
  > Client 44490 (3):	37 38 39 
  > Client 44499 (3):	28 29 30 
  > Client 44500 (3):	6 7 8 
  > Client 44493 (4):	18 19 20 21 
  > Client 44494 (3):	9 10 11 
  > Client 44497 (3):	34 35 36 
  > Client 44496 (3):	3 4 5 
  > Client 44491 (3):	22 23 24 
  > Client 44489 (3):	12 13 14 
  > Client 44492 (3):	15 16 17 
  > Client 44501 (3):	31 32 33 
  > Client 44498 (3):	25 26 27 
  > Client 44495 (3):	0 1 2 

+ Core Mapping:	44495 44495 44495 44496 44496 44496 44500 44500 44500 44494 44494 44494 44489 44489 44489 44492 44492 44492 44493 44493 44493 44493 44491 44491 44491 44498 44498 44498 44499 44499 44499 44501 44501 44501 44497 44497 44497 44490 44490 44490 
+ Optimal point: 3 3 3 4 3 3 3 3 3 3 3 3 3 
+++++++++++++++++++++++++++++++++++++++++++++++++++++++++++
CLIENT SHUTDOWN: client 44493
 + TIMESTAMP: 1873.9
+++++++++++++++++++++++++++++++++++++++++++++++++++++++++++
+ Client Mapping:
  > Client 44490 (3):	37 38 39 
  > Client 44499 (3):	28 29 30 
  > Client 44500 (3):	6 7 8 
  > Client 44493 (0):	
  > Client 44494 (3):	9 10 11 
  > Client 44497 (3):	34 35 36 
  > Client 44496 (3):	3 4 5 
  > Client 44491 (3):	22 23 24 
  > Client 44489 (3):	12 13 14 
  > Client 44492 (3):	15 16 17 
  > Client 44501 (3):	31 32 33 
  > Client 44498 (3):	25 26 27 
  > Client 44495 (3):	0 1 2 

+ Core Mapping:	44495 44495 44495 44496 44496 44496 44500 44500 44500 44494 44494 44494 44489 44489 44489 44492 44492 44492 0 0 0 0 44491 44491 44491 44498 44498 44498 44499 44499 44499 44501 44501 44501 44497 44497 44497 44490 44490 44490 
+ Optimal point: 3 3 3 4 3 3 3 3 3 3 3 3 3 
+++++++++++++++++++++++++++++++++++++++++++++++++++++++++++
client (44493) shutdown hint: 20954.2
sum_client_shutdown_hint: 20954.2
sum_client_shutdown_hint_div_time: 0
++++++++++++++++++++++++++++++++++++++++++++++++
 + TIMESTAMP: 1873.9
REINVADE (44497)
  + pid: 44497
  + min_cores: 1
  + max_cores: 512
  + scalability graph: 
1, 1.39494, 1.5699, 1.6742, 1.74538, 1.79792, 1.83875, 1.87167, 1.89893, 1.922, 1.94184, 1.95915, 1.97442, 1.98802, 2.00024, 2.0113, 2.02136, 2.03058, 2.03906, 2.04689, 2.05415, 2.06092, 2.06724, 2.07316, 2.07872, 2.08396, 2.0889, 2.09358, 2.09801, 2.10222, 2.10622, 2.11003, 2.11367, 2.11715, 2.12048, 2.12367, 2.12672, 2.12966, 2.13248, 2.1352, 
Number of clients: 12

+++++++++++++++++++++++++++++++++++++++++++++++++++++++++++
+ Client Mapping:
  > Client 44490 (3):	37 38 39 
  > Client 44499 (3):	28 29 30 
  > Client 44500 (3):	6 7 8 
  > Client 44494 (3):	9 10 11 
  > Client 44497 (4):	34 35 36 18 
  > Client 44496 (3):	3 4 5 
  > Client 44491 (3):	22 23 24 
  > Client 44489 (3):	12 13 14 
  > Client 44492 (3):	15 16 17 
  > Client 44501 (3):	31 32 33 
  > Client 44498 (3):	25 26 27 
  > Client 44495 (3):	0 1 2 

+ Core Mapping:	44495 44495 44495 44496 44496 44496 44500 44500 44500 44494 44494 44494 44489 44489 44489 44492 44492 44492 44497 0 0 0 44491 44491 44491 44498 44498 44498 44499 44499 44499 44501 44501 44501 44497 44497 44497 44490 44490 44490 
+ Optimal point: 3 3 3 4 4 4 4 3 3 3 3 3 
+++++++++++++++++++++++++++++++++++++++++++++++++++++++++++
++++++++++++++++++++++++++++++++++++++++++++++++
 + TIMESTAMP: 1873.92
REINVADE (44496)
  + pid: 44496
  + min_cores: 1
  + max_cores: 512
  + scalability graph: 
1, 1.39494, 1.5699, 1.6742, 1.74538, 1.79792, 1.83875, 1.87167, 1.89893, 1.922, 1.94184, 1.95915, 1.97442, 1.98802, 2.00024, 2.0113, 2.02136, 2.03058, 2.03906, 2.04689, 2.05415, 2.06092, 2.06724, 2.07316, 2.07872, 2.08396, 2.0889, 2.09358, 2.09801, 2.10222, 2.10622, 2.11003, 2.11367, 2.11715, 2.12048, 2.12367, 2.12672, 2.12966, 2.13248, 2.1352, 
Number of clients: 12

+++++++++++++++++++++++++++++++++++++++++++++++++++++++++++
+ Client Mapping:
  > Client 44490 (3):	37 38 39 
  > Client 44499 (3):	28 29 30 
  > Client 44500 (3):	6 7 8 
  > Client 44494 (3):	9 10 11 
  > Client 44497 (4):	34 35 36 18 
  > Client 44496 (4):	3 4 5 19 
  > Client 44491 (3):	22 23 24 
  > Client 44489 (3):	12 13 14 
  > Client 44492 (3):	15 16 17 
  > Client 44501 (3):	31 32 33 
  > Client 44498 (3):	25 26 27 
  > Client 44495 (3):	0 1 2 

+ Core Mapping:	44495 44495 44495 44496 44496 44496 44500 44500 44500 44494 44494 44494 44489 44489 44489 44492 44492 44492 44497 44496 0 0 44491 44491 44491 44498 44498 44498 44499 44499 44499 44501 44501 44501 44497 44497 44497 44490 44490 44490 
+ Optimal point: 3 3 3 4 4 4 4 3 3 3 3 3 
+++++++++++++++++++++++++++++++++++++++++++++++++++++++++++
++++++++++++++++++++++++++++++++++++++++++++++++
 + TIMESTAMP: 1873.93
REINVADE (44491)
  + pid: 44491
  + min_cores: 1
  + max_cores: 512
  + scalability graph: 
1, 1.39494, 1.5699, 1.6742, 1.74538, 1.79792, 1.83875, 1.87167, 1.89893, 1.922, 1.94184, 1.95915, 1.97442, 1.98802, 2.00024, 2.0113, 2.02136, 2.03058, 2.03906, 2.04689, 2.05415, 2.06092, 2.06724, 2.07316, 2.07872, 2.08396, 2.0889, 2.09358, 2.09801, 2.10222, 2.10622, 2.11003, 2.11367, 2.11715, 2.12048, 2.12367, 2.12672, 2.12966, 2.13248, 2.1352, 
Number of clients: 12

+++++++++++++++++++++++++++++++++++++++++++++++++++++++++++
+ Client Mapping:
  > Client 44490 (3):	37 38 39 
  > Client 44499 (3):	28 29 30 
  > Client 44500 (3):	6 7 8 
  > Client 44494 (3):	9 10 11 
  > Client 44497 (4):	34 35 36 18 
  > Client 44496 (4):	3 4 5 19 
  > Client 44491 (4):	22 23 24 20 
  > Client 44489 (3):	12 13 14 
  > Client 44492 (3):	15 16 17 
  > Client 44501 (3):	31 32 33 
  > Client 44498 (3):	25 26 27 
  > Client 44495 (3):	0 1 2 

+ Core Mapping:	44495 44495 44495 44496 44496 44496 44500 44500 44500 44494 44494 44494 44489 44489 44489 44492 44492 44492 44497 44496 44491 0 44491 44491 44491 44498 44498 44498 44499 44499 44499 44501 44501 44501 44497 44497 44497 44490 44490 44490 
+ Optimal point: 3 3 3 4 4 4 4 3 3 3 3 3 
+++++++++++++++++++++++++++++++++++++++++++++++++++++++++++
++++++++++++++++++++++++++++++++++++++++++++++++
 + TIMESTAMP: 1873.95
REINVADE (44494)
  + pid: 44494
  + min_cores: 1
  + max_cores: 512
  + scalability graph: 
1, 1.39494, 1.5699, 1.6742, 1.74538, 1.79792, 1.83875, 1.87167, 1.89893, 1.922, 1.94184, 1.95915, 1.97442, 1.98802, 2.00024, 2.0113, 2.02136, 2.03058, 2.03906, 2.04689, 2.05415, 2.06092, 2.06724, 2.07316, 2.07872, 2.08396, 2.0889, 2.09358, 2.09801, 2.10222, 2.10622, 2.11003, 2.11367, 2.11715, 2.12048, 2.12367, 2.12672, 2.12966, 2.13248, 2.1352, 
Number of clients: 12

+++++++++++++++++++++++++++++++++++++++++++++++++++++++++++
+ Client Mapping:
  > Client 44490 (3):	37 38 39 
  > Client 44499 (3):	28 29 30 
  > Client 44500 (3):	6 7 8 
  > Client 44494 (4):	9 10 11 21 
  > Client 44497 (4):	34 35 36 18 
  > Client 44496 (4):	3 4 5 19 
  > Client 44491 (4):	22 23 24 20 
  > Client 44489 (3):	12 13 14 
  > Client 44492 (3):	15 16 17 
  > Client 44501 (3):	31 32 33 
  > Client 44498 (3):	25 26 27 
  > Client 44495 (3):	0 1 2 

+ Core Mapping:	44495 44495 44495 44496 44496 44496 44500 44500 44500 44494 44494 44494 44489 44489 44489 44492 44492 44492 44497 44496 44491 44494 44491 44491 44491 44498 44498 44498 44499 44499 44499 44501 44501 44501 44497 44497 44497 44490 44490 44490 
+ Optimal point: 3 3 3 4 4 4 4 3 3 3 3 3 
+++++++++++++++++++++++++++++++++++++++++++++++++++++++++++
CLIENT SHUTDOWN: client 44494
 + TIMESTAMP: 2134.44
+++++++++++++++++++++++++++++++++++++++++++++++++++++++++++
+ Client Mapping:
  > Client 44490 (3):	37 38 39 
  > Client 44499 (3):	28 29 30 
  > Client 44500 (3):	6 7 8 
  > Client 44494 (0):	
  > Client 44497 (4):	34 35 36 18 
  > Client 44496 (4):	3 4 5 19 
  > Client 44491 (4):	22 23 24 20 
  > Client 44489 (3):	12 13 14 
  > Client 44492 (3):	15 16 17 
  > Client 44501 (3):	31 32 33 
  > Client 44498 (3):	25 26 27 
  > Client 44495 (3):	0 1 2 

+ Core Mapping:	44495 44495 44495 44496 44496 44496 44500 44500 44500 0 0 0 44489 44489 44489 44492 44492 44492 44497 44496 44491 0 44491 44491 44491 44498 44498 44498 44499 44499 44499 44501 44501 44501 44497 44497 44497 44490 44490 44490 
+ Optimal point: 3 3 3 4 4 4 4 3 3 3 3 3 
+++++++++++++++++++++++++++++++++++++++++++++++++++++++++++
client (44494) shutdown hint: 20954.2
sum_client_shutdown_hint: 41908.4
sum_client_shutdown_hint_div_time: 0
++++++++++++++++++++++++++++++++++++++++++++++++
 + TIMESTAMP: 2134.45
REINVADE (44489)
  + pid: 44489
  + min_cores: 1
  + max_cores: 512
  + scalability graph: 
1, 1.39494, 1.5699, 1.6742, 1.74538, 1.79792, 1.83875, 1.87167, 1.89893, 1.922, 1.94184, 1.95915, 1.97442, 1.98802, 2.00024, 2.0113, 2.02136, 2.03058, 2.03906, 2.04689, 2.05415, 2.06092, 2.06724, 2.07316, 2.07872, 2.08396, 2.0889, 2.09358, 2.09801, 2.10222, 2.10622, 2.11003, 2.11367, 2.11715, 2.12048, 2.12367, 2.12672, 2.12966, 2.13248, 2.1352, 
Number of clients: 11

+++++++++++++++++++++++++++++++++++++++++++++++++++++++++++
+ Client Mapping:
  > Client 44490 (3):	37 38 39 
  > Client 44499 (3):	28 29 30 
  > Client 44500 (3):	6 7 8 
  > Client 44497 (4):	34 35 36 18 
  > Client 44496 (4):	3 4 5 19 
  > Client 44491 (4):	22 23 24 20 
  > Client 44489 (4):	12 13 14 9 
  > Client 44492 (3):	15 16 17 
  > Client 44501 (3):	31 32 33 
  > Client 44498 (3):	25 26 27 
  > Client 44495 (3):	0 1 2 

+ Core Mapping:	44495 44495 44495 44496 44496 44496 44500 44500 44500 44489 0 0 44489 44489 44489 44492 44492 44492 44497 44496 44491 0 44491 44491 44491 44498 44498 44498 44499 44499 44499 44501 44501 44501 44497 44497 44497 44490 44490 44490 
+ Optimal point: 3 3 3 4 4 4 4 4 4 3 4 
+++++++++++++++++++++++++++++++++++++++++++++++++++++++++++
++++++++++++++++++++++++++++++++++++++++++++++++
 + TIMESTAMP: 2134.47
REINVADE (44492)
  + pid: 44492
  + min_cores: 1
  + max_cores: 512
  + scalability graph: 
1, 1.39494, 1.5699, 1.6742, 1.74538, 1.79792, 1.83875, 1.87167, 1.89893, 1.922, 1.94184, 1.95915, 1.97442, 1.98802, 2.00024, 2.0113, 2.02136, 2.03058, 2.03906, 2.04689, 2.05415, 2.06092, 2.06724, 2.07316, 2.07872, 2.08396, 2.0889, 2.09358, 2.09801, 2.10222, 2.10622, 2.11003, 2.11367, 2.11715, 2.12048, 2.12367, 2.12672, 2.12966, 2.13248, 2.1352, 
Number of clients: 11

+++++++++++++++++++++++++++++++++++++++++++++++++++++++++++
+ Client Mapping:
  > Client 44490 (3):	37 38 39 
  > Client 44499 (3):	28 29 30 
  > Client 44500 (3):	6 7 8 
  > Client 44497 (4):	34 35 36 18 
  > Client 44496 (4):	3 4 5 19 
  > Client 44491 (4):	22 23 24 20 
  > Client 44489 (4):	12 13 14 9 
  > Client 44492 (4):	15 16 17 10 
  > Client 44501 (3):	31 32 33 
  > Client 44498 (3):	25 26 27 
  > Client 44495 (3):	0 1 2 

+ Core Mapping:	44495 44495 44495 44496 44496 44496 44500 44500 44500 44489 44492 0 44489 44489 44489 44492 44492 44492 44497 44496 44491 0 44491 44491 44491 44498 44498 44498 44499 44499 44499 44501 44501 44501 44497 44497 44497 44490 44490 44490 
+ Optimal point: 3 3 3 4 4 4 4 4 4 3 4 
+++++++++++++++++++++++++++++++++++++++++++++++++++++++++++
++++++++++++++++++++++++++++++++++++++++++++++++
 + TIMESTAMP: 2134.47
REINVADE (44495)
  + pid: 44495
  + min_cores: 1
  + max_cores: 512
  + scalability graph: 
1, 1.39494, 1.5699, 1.6742, 1.74538, 1.79792, 1.83875, 1.87167, 1.89893, 1.922, 1.94184, 1.95915, 1.97442, 1.98802, 2.00024, 2.0113, 2.02136, 2.03058, 2.03906, 2.04689, 2.05415, 2.06092, 2.06724, 2.07316, 2.07872, 2.08396, 2.0889, 2.09358, 2.09801, 2.10222, 2.10622, 2.11003, 2.11367, 2.11715, 2.12048, 2.12367, 2.12672, 2.12966, 2.13248, 2.1352, 
Number of clients: 11

+++++++++++++++++++++++++++++++++++++++++++++++++++++++++++
+ Client Mapping:
  > Client 44490 (3):	37 38 39 
  > Client 44499 (3):	28 29 30 
  > Client 44500 (3):	6 7 8 
  > Client 44497 (4):	34 35 36 18 
  > Client 44496 (4):	3 4 5 19 
  > Client 44491 (4):	22 23 24 20 
  > Client 44489 (4):	12 13 14 9 
  > Client 44492 (4):	15 16 17 10 
  > Client 44501 (3):	31 32 33 
  > Client 44498 (3):	25 26 27 
  > Client 44495 (4):	0 1 2 11 

+ Core Mapping:	44495 44495 44495 44496 44496 44496 44500 44500 44500 44489 44492 44495 44489 44489 44489 44492 44492 44492 44497 44496 44491 0 44491 44491 44491 44498 44498 44498 44499 44499 44499 44501 44501 44501 44497 44497 44497 44490 44490 44490 
+ Optimal point: 3 3 3 4 4 4 4 4 4 3 4 
+++++++++++++++++++++++++++++++++++++++++++++++++++++++++++
++++++++++++++++++++++++++++++++++++++++++++++++
 + TIMESTAMP: 2134.54
REINVADE (44501)
  + pid: 44501
  + min_cores: 1
  + max_cores: 512
  + scalability graph: 
1, 1.39494, 1.5699, 1.6742, 1.74538, 1.79792, 1.83875, 1.87167, 1.89893, 1.922, 1.94184, 1.95915, 1.97442, 1.98802, 2.00024, 2.0113, 2.02136, 2.03058, 2.03906, 2.04689, 2.05415, 2.06092, 2.06724, 2.07316, 2.07872, 2.08396, 2.0889, 2.09358, 2.09801, 2.10222, 2.10622, 2.11003, 2.11367, 2.11715, 2.12048, 2.12367, 2.12672, 2.12966, 2.13248, 2.1352, 
Number of clients: 11

+++++++++++++++++++++++++++++++++++++++++++++++++++++++++++
+ Client Mapping:
  > Client 44490 (3):	37 38 39 
  > Client 44499 (3):	28 29 30 
  > Client 44500 (3):	6 7 8 
  > Client 44497 (4):	34 35 36 18 
  > Client 44496 (4):	3 4 5 19 
  > Client 44491 (4):	22 23 24 20 
  > Client 44489 (4):	12 13 14 9 
  > Client 44492 (4):	15 16 17 10 
  > Client 44501 (4):	31 32 33 21 
  > Client 44498 (3):	25 26 27 
  > Client 44495 (4):	0 1 2 11 

+ Core Mapping:	44495 44495 44495 44496 44496 44496 44500 44500 44500 44489 44492 44495 44489 44489 44489 44492 44492 44492 44497 44496 44491 44501 44491 44491 44491 44498 44498 44498 44499 44499 44499 44501 44501 44501 44497 44497 44497 44490 44490 44490 
+ Optimal point: 3 3 3 4 4 4 4 4 4 3 4 
+++++++++++++++++++++++++++++++++++++++++++++++++++++++++++
CLIENT SHUTDOWN: client 44498
 + TIMESTAMP: 2225.75
+++++++++++++++++++++++++++++++++++++++++++++++++++++++++++
+ Client Mapping:
  > Client 44490 (3):	37 38 39 
  > Client 44499 (3):	28 29 30 
  > Client 44500 (3):	6 7 8 
  > Client 44497 (4):	34 35 36 18 
  > Client 44496 (4):	3 4 5 19 
  > Client 44491 (4):	22 23 24 20 
  > Client 44489 (4):	12 13 14 9 
  > Client 44492 (4):	15 16 17 10 
  > Client 44501 (4):	31 32 33 21 
  > Client 44498 (0):	
  > Client 44495 (4):	0 1 2 11 

+ Core Mapping:	44495 44495 44495 44496 44496 44496 44500 44500 44500 44489 44492 44495 44489 44489 44489 44492 44492 44492 44497 44496 44491 44501 44491 44491 44491 0 0 0 44499 44499 44499 44501 44501 44501 44497 44497 44497 44490 44490 44490 
+ Optimal point: 3 3 3 4 4 4 4 4 4 3 4 
+++++++++++++++++++++++++++++++++++++++++++++++++++++++++++
client (44498) shutdown hint: 20954.2
sum_client_shutdown_hint: 62862.6
sum_client_shutdown_hint_div_time: 0
++++++++++++++++++++++++++++++++++++++++++++++++
 + TIMESTAMP: 2225.78
REINVADE (44500)
  + pid: 44500
  + min_cores: 1
  + max_cores: 512
  + scalability graph: 
1, 1.39494, 1.5699, 1.6742, 1.74538, 1.79792, 1.83875, 1.87167, 1.89893, 1.922, 1.94184, 1.95915, 1.97442, 1.98802, 2.00024, 2.0113, 2.02136, 2.03058, 2.03906, 2.04689, 2.05415, 2.06092, 2.06724, 2.07316, 2.07872, 2.08396, 2.0889, 2.09358, 2.09801, 2.10222, 2.10622, 2.11003, 2.11367, 2.11715, 2.12048, 2.12367, 2.12672, 2.12966, 2.13248, 2.1352, 
Number of clients: 10

+++++++++++++++++++++++++++++++++++++++++++++++++++++++++++
+ Client Mapping:
  > Client 44490 (3):	37 38 39 
  > Client 44499 (3):	28 29 30 
  > Client 44500 (4):	6 7 8 25 
  > Client 44497 (4):	34 35 36 18 
  > Client 44496 (4):	3 4 5 19 
  > Client 44491 (4):	22 23 24 20 
  > Client 44489 (4):	12 13 14 9 
  > Client 44492 (4):	15 16 17 10 
  > Client 44501 (4):	31 32 33 21 
  > Client 44495 (4):	0 1 2 11 

+ Core Mapping:	44495 44495 44495 44496 44496 44496 44500 44500 44500 44489 44492 44495 44489 44489 44489 44492 44492 44492 44497 44496 44491 44501 44491 44491 44491 44500 0 0 44499 44499 44499 44501 44501 44501 44497 44497 44497 44490 44490 44490 
+ Optimal point: 4 4 4 4 4 4 4 4 4 4 
+++++++++++++++++++++++++++++++++++++++++++++++++++++++++++
++++++++++++++++++++++++++++++++++++++++++++++++
 + TIMESTAMP: 2225.81
REINVADE (44490)
  + pid: 44490
  + min_cores: 1
  + max_cores: 512
  + scalability graph: 
1, 1.39494, 1.5699, 1.6742, 1.74538, 1.79792, 1.83875, 1.87167, 1.89893, 1.922, 1.94184, 1.95915, 1.97442, 1.98802, 2.00024, 2.0113, 2.02136, 2.03058, 2.03906, 2.04689, 2.05415, 2.06092, 2.06724, 2.07316, 2.07872, 2.08396, 2.0889, 2.09358, 2.09801, 2.10222, 2.10622, 2.11003, 2.11367, 2.11715, 2.12048, 2.12367, 2.12672, 2.12966, 2.13248, 2.1352, 
Number of clients: 10

+++++++++++++++++++++++++++++++++++++++++++++++++++++++++++
+ Client Mapping:
  > Client 44490 (4):	37 38 39 26 
  > Client 44499 (3):	28 29 30 
  > Client 44500 (4):	6 7 8 25 
  > Client 44497 (4):	34 35 36 18 
  > Client 44496 (4):	3 4 5 19 
  > Client 44491 (4):	22 23 24 20 
  > Client 44489 (4):	12 13 14 9 
  > Client 44492 (4):	15 16 17 10 
  > Client 44501 (4):	31 32 33 21 
  > Client 44495 (4):	0 1 2 11 

+ Core Mapping:	44495 44495 44495 44496 44496 44496 44500 44500 44500 44489 44492 44495 44489 44489 44489 44492 44492 44492 44497 44496 44491 44501 44491 44491 44491 44500 44490 0 44499 44499 44499 44501 44501 44501 44497 44497 44497 44490 44490 44490 
+ Optimal point: 4 4 4 4 4 4 4 4 4 4 
+++++++++++++++++++++++++++++++++++++++++++++++++++++++++++
++++++++++++++++++++++++++++++++++++++++++++++++
 + TIMESTAMP: 2225.82
REINVADE (44499)
  + pid: 44499
  + min_cores: 1
  + max_cores: 512
  + scalability graph: 
1, 1.39494, 1.5699, 1.6742, 1.74538, 1.79792, 1.83875, 1.87167, 1.89893, 1.922, 1.94184, 1.95915, 1.97442, 1.98802, 2.00024, 2.0113, 2.02136, 2.03058, 2.03906, 2.04689, 2.05415, 2.06092, 2.06724, 2.07316, 2.07872, 2.08396, 2.0889, 2.09358, 2.09801, 2.10222, 2.10622, 2.11003, 2.11367, 2.11715, 2.12048, 2.12367, 2.12672, 2.12966, 2.13248, 2.1352, 
Number of clients: 10

+++++++++++++++++++++++++++++++++++++++++++++++++++++++++++
+ Client Mapping:
  > Client 44490 (4):	37 38 39 26 
  > Client 44499 (4):	28 29 30 27 
  > Client 44500 (4):	6 7 8 25 
  > Client 44497 (4):	34 35 36 18 
  > Client 44496 (4):	3 4 5 19 
  > Client 44491 (4):	22 23 24 20 
  > Client 44489 (4):	12 13 14 9 
  > Client 44492 (4):	15 16 17 10 
  > Client 44501 (4):	31 32 33 21 
  > Client 44495 (4):	0 1 2 11 

+ Core Mapping:	44495 44495 44495 44496 44496 44496 44500 44500 44500 44489 44492 44495 44489 44489 44489 44492 44492 44492 44497 44496 44491 44501 44491 44491 44491 44500 44490 44499 44499 44499 44499 44501 44501 44501 44497 44497 44497 44490 44490 44490 
+ Optimal point: 4 4 4 4 4 4 4 4 4 4 
+++++++++++++++++++++++++++++++++++++++++++++++++++++++++++
CLIENT SHUTDOWN: client 44490
 + TIMESTAMP: 2230.64
+++++++++++++++++++++++++++++++++++++++++++++++++++++++++++
+ Client Mapping:
  > Client 44490 (0):	
  > Client 44499 (4):	28 29 30 27 
  > Client 44500 (4):	6 7 8 25 
  > Client 44497 (4):	34 35 36 18 
  > Client 44496 (4):	3 4 5 19 
  > Client 44491 (4):	22 23 24 20 
  > Client 44489 (4):	12 13 14 9 
  > Client 44492 (4):	15 16 17 10 
  > Client 44501 (4):	31 32 33 21 
  > Client 44495 (4):	0 1 2 11 

+ Core Mapping:	44495 44495 44495 44496 44496 44496 44500 44500 44500 44489 44492 44495 44489 44489 44489 44492 44492 44492 44497 44496 44491 44501 44491 44491 44491 44500 0 44499 44499 44499 44499 44501 44501 44501 44497 44497 44497 0 0 0 
+ Optimal point: 4 4 4 4 4 4 4 4 4 4 
+++++++++++++++++++++++++++++++++++++++++++++++++++++++++++
client (44490) shutdown hint: 20954.2
sum_client_shutdown_hint: 83816.8
sum_client_shutdown_hint_div_time: 0
++++++++++++++++++++++++++++++++++++++++++++++++
 + TIMESTAMP: 2230.65
REINVADE (44500)
  + pid: 44500
  + min_cores: 1
  + max_cores: 512
  + scalability graph: 
1, 1.39494, 1.5699, 1.6742, 1.74538, 1.79792, 1.83875, 1.87167, 1.89893, 1.922, 1.94184, 1.95915, 1.97442, 1.98802, 2.00024, 2.0113, 2.02136, 2.03058, 2.03906, 2.04689, 2.05415, 2.06092, 2.06724, 2.07316, 2.07872, 2.08396, 2.0889, 2.09358, 2.09801, 2.10222, 2.10622, 2.11003, 2.11367, 2.11715, 2.12048, 2.12367, 2.12672, 2.12966, 2.13248, 2.1352, 
Number of clients: 9

+++++++++++++++++++++++++++++++++++++++++++++++++++++++++++
+ Client Mapping:
  > Client 44499 (4):	28 29 30 27 
  > Client 44500 (5):	6 7 8 25 26 
  > Client 44497 (4):	34 35 36 18 
  > Client 44496 (4):	3 4 5 19 
  > Client 44491 (4):	22 23 24 20 
  > Client 44489 (4):	12 13 14 9 
  > Client 44492 (4):	15 16 17 10 
  > Client 44501 (4):	31 32 33 21 
  > Client 44495 (4):	0 1 2 11 

+ Core Mapping:	44495 44495 44495 44496 44496 44496 44500 44500 44500 44489 44492 44495 44489 44489 44489 44492 44492 44492 44497 44496 44491 44501 44491 44491 44491 44500 44500 44499 44499 44499 44499 44501 44501 44501 44497 44497 44497 0 0 0 
+ Optimal point: 5 5 5 5 4 4 4 4 4 
+++++++++++++++++++++++++++++++++++++++++++++++++++++++++++
++++++++++++++++++++++++++++++++++++++++++++++++
 + TIMESTAMP: 2230.66
REINVADE (44497)
  + pid: 44497
  + min_cores: 1
  + max_cores: 512
  + scalability graph: 
1, 1.39494, 1.5699, 1.6742, 1.74538, 1.79792, 1.83875, 1.87167, 1.89893, 1.922, 1.94184, 1.95915, 1.97442, 1.98802, 2.00024, 2.0113, 2.02136, 2.03058, 2.03906, 2.04689, 2.05415, 2.06092, 2.06724, 2.07316, 2.07872, 2.08396, 2.0889, 2.09358, 2.09801, 2.10222, 2.10622, 2.11003, 2.11367, 2.11715, 2.12048, 2.12367, 2.12672, 2.12966, 2.13248, 2.1352, 
Number of clients: 9

+++++++++++++++++++++++++++++++++++++++++++++++++++++++++++
+ Client Mapping:
  > Client 44499 (4):	28 29 30 27 
  > Client 44500 (5):	6 7 8 25 26 
  > Client 44497 (5):	34 35 36 18 37 
  > Client 44496 (4):	3 4 5 19 
  > Client 44491 (4):	22 23 24 20 
  > Client 44489 (4):	12 13 14 9 
  > Client 44492 (4):	15 16 17 10 
  > Client 44501 (4):	31 32 33 21 
  > Client 44495 (4):	0 1 2 11 

+ Core Mapping:	44495 44495 44495 44496 44496 44496 44500 44500 44500 44489 44492 44495 44489 44489 44489 44492 44492 44492 44497 44496 44491 44501 44491 44491 44491 44500 44500 44499 44499 44499 44499 44501 44501 44501 44497 44497 44497 44497 0 0 
+ Optimal point: 5 5 5 5 4 4 4 4 4 
+++++++++++++++++++++++++++++++++++++++++++++++++++++++++++
++++++++++++++++++++++++++++++++++++++++++++++++
 + TIMESTAMP: 2230.67
REINVADE (44499)
  + pid: 44499
  + min_cores: 1
  + max_cores: 512
  + scalability graph: 
1, 1.39494, 1.5699, 1.6742, 1.74538, 1.79792, 1.83875, 1.87167, 1.89893, 1.922, 1.94184, 1.95915, 1.97442, 1.98802, 2.00024, 2.0113, 2.02136, 2.03058, 2.03906, 2.04689, 2.05415, 2.06092, 2.06724, 2.07316, 2.07872, 2.08396, 2.0889, 2.09358, 2.09801, 2.10222, 2.10622, 2.11003, 2.11367, 2.11715, 2.12048, 2.12367, 2.12672, 2.12966, 2.13248, 2.1352, 
Number of clients: 9

+++++++++++++++++++++++++++++++++++++++++++++++++++++++++++
+ Client Mapping:
  > Client 44499 (5):	28 29 30 27 38 
  > Client 44500 (5):	6 7 8 25 26 
  > Client 44497 (5):	34 35 36 18 37 
  > Client 44496 (4):	3 4 5 19 
  > Client 44491 (4):	22 23 24 20 
  > Client 44489 (4):	12 13 14 9 
  > Client 44492 (4):	15 16 17 10 
  > Client 44501 (4):	31 32 33 21 
  > Client 44495 (4):	0 1 2 11 

+ Core Mapping:	44495 44495 44495 44496 44496 44496 44500 44500 44500 44489 44492 44495 44489 44489 44489 44492 44492 44492 44497 44496 44491 44501 44491 44491 44491 44500 44500 44499 44499 44499 44499 44501 44501 44501 44497 44497 44497 44497 44499 0 
+ Optimal point: 5 5 5 5 4 4 4 4 4 
+++++++++++++++++++++++++++++++++++++++++++++++++++++++++++
++++++++++++++++++++++++++++++++++++++++++++++++
 + TIMESTAMP: 2230.7
REINVADE (44496)
  + pid: 44496
  + min_cores: 1
  + max_cores: 512
  + scalability graph: 
1, 1.39494, 1.5699, 1.6742, 1.74538, 1.79792, 1.83875, 1.87167, 1.89893, 1.922, 1.94184, 1.95915, 1.97442, 1.98802, 2.00024, 2.0113, 2.02136, 2.03058, 2.03906, 2.04689, 2.05415, 2.06092, 2.06724, 2.07316, 2.07872, 2.08396, 2.0889, 2.09358, 2.09801, 2.10222, 2.10622, 2.11003, 2.11367, 2.11715, 2.12048, 2.12367, 2.12672, 2.12966, 2.13248, 2.1352, 
Number of clients: 9

+++++++++++++++++++++++++++++++++++++++++++++++++++++++++++
+ Client Mapping:
  > Client 44499 (5):	28 29 30 27 38 
  > Client 44500 (5):	6 7 8 25 26 
  > Client 44497 (5):	34 35 36 18 37 
  > Client 44496 (5):	3 4 5 19 39 
  > Client 44491 (4):	22 23 24 20 
  > Client 44489 (4):	12 13 14 9 
  > Client 44492 (4):	15 16 17 10 
  > Client 44501 (4):	31 32 33 21 
  > Client 44495 (4):	0 1 2 11 

+ Core Mapping:	44495 44495 44495 44496 44496 44496 44500 44500 44500 44489 44492 44495 44489 44489 44489 44492 44492 44492 44497 44496 44491 44501 44491 44491 44491 44500 44500 44499 44499 44499 44499 44501 44501 44501 44497 44497 44497 44497 44499 44496 
+ Optimal point: 5 5 5 5 4 4 4 4 4 
+++++++++++++++++++++++++++++++++++++++++++++++++++++++++++
CLIENT SHUTDOWN: client 44501
 + TIMESTAMP: 2244.88
+++++++++++++++++++++++++++++++++++++++++++++++++++++++++++
+ Client Mapping:
  > Client 44499 (5):	28 29 30 27 38 
  > Client 44500 (5):	6 7 8 25 26 
  > Client 44497 (5):	34 35 36 18 37 
  > Client 44496 (5):	3 4 5 19 39 
  > Client 44491 (4):	22 23 24 20 
  > Client 44489 (4):	12 13 14 9 
  > Client 44492 (4):	15 16 17 10 
  > Client 44501 (0):	
  > Client 44495 (4):	0 1 2 11 

+ Core Mapping:	44495 44495 44495 44496 44496 44496 44500 44500 44500 44489 44492 44495 44489 44489 44489 44492 44492 44492 44497 44496 44491 0 44491 44491 44491 44500 44500 44499 44499 44499 44499 0 0 0 44497 44497 44497 44497 44499 44496 
+ Optimal point: 5 5 5 5 4 4 4 4 4 
+++++++++++++++++++++++++++++++++++++++++++++++++++++++++++
client (44501) shutdown hint: 20954.2
sum_client_shutdown_hint: 104771
sum_client_shutdown_hint_div_time: 0
++++++++++++++++++++++++++++++++++++++++++++++++
 + TIMESTAMP: 2244.89
REINVADE (44495)
  + pid: 44495
  + min_cores: 1
  + max_cores: 512
  + scalability graph: 
1, 1.39494, 1.5699, 1.6742, 1.74538, 1.79792, 1.83875, 1.87167, 1.89893, 1.922, 1.94184, 1.95915, 1.97442, 1.98802, 2.00024, 2.0113, 2.02136, 2.03058, 2.03906, 2.04689, 2.05415, 2.06092, 2.06724, 2.07316, 2.07872, 2.08396, 2.0889, 2.09358, 2.09801, 2.10222, 2.10622, 2.11003, 2.11367, 2.11715, 2.12048, 2.12367, 2.12672, 2.12966, 2.13248, 2.1352, 
Number of clients: 8

+++++++++++++++++++++++++++++++++++++++++++++++++++++++++++
+ Client Mapping:
  > Client 44499 (5):	28 29 30 27 38 
  > Client 44500 (5):	6 7 8 25 26 
  > Client 44497 (5):	34 35 36 18 37 
  > Client 44496 (5):	3 4 5 19 39 
  > Client 44491 (4):	22 23 24 20 
  > Client 44489 (4):	12 13 14 9 
  > Client 44492 (4):	15 16 17 10 
  > Client 44495 (5):	0 1 2 11 21 

+ Core Mapping:	44495 44495 44495 44496 44496 44496 44500 44500 44500 44489 44492 44495 44489 44489 44489 44492 44492 44492 44497 44496 44491 44495 44491 44491 44491 44500 44500 44499 44499 44499 44499 0 0 0 44497 44497 44497 44497 44499 44496 
+ Optimal point: 5 5 5 5 5 5 5 5 
+++++++++++++++++++++++++++++++++++++++++++++++++++++++++++
++++++++++++++++++++++++++++++++++++++++++++++++
 + TIMESTAMP: 2244.9
REINVADE (44492)
  + pid: 44492
  + min_cores: 1
  + max_cores: 512
  + scalability graph: 
1, 1.39494, 1.5699, 1.6742, 1.74538, 1.79792, 1.83875, 1.87167, 1.89893, 1.922, 1.94184, 1.95915, 1.97442, 1.98802, 2.00024, 2.0113, 2.02136, 2.03058, 2.03906, 2.04689, 2.05415, 2.06092, 2.06724, 2.07316, 2.07872, 2.08396, 2.0889, 2.09358, 2.09801, 2.10222, 2.10622, 2.11003, 2.11367, 2.11715, 2.12048, 2.12367, 2.12672, 2.12966, 2.13248, 2.1352, 
Number of clients: 8

+++++++++++++++++++++++++++++++++++++++++++++++++++++++++++
+ Client Mapping:
  > Client 44499 (5):	28 29 30 27 38 
  > Client 44500 (5):	6 7 8 25 26 
  > Client 44497 (5):	34 35 36 18 37 
  > Client 44496 (5):	3 4 5 19 39 
  > Client 44491 (4):	22 23 24 20 
  > Client 44489 (4):	12 13 14 9 
  > Client 44492 (5):	15 16 17 10 31 
  > Client 44495 (5):	0 1 2 11 21 

+ Core Mapping:	44495 44495 44495 44496 44496 44496 44500 44500 44500 44489 44492 44495 44489 44489 44489 44492 44492 44492 44497 44496 44491 44495 44491 44491 44491 44500 44500 44499 44499 44499 44499 44492 0 0 44497 44497 44497 44497 44499 44496 
+ Optimal point: 5 5 5 5 5 5 5 5 
+++++++++++++++++++++++++++++++++++++++++++++++++++++++++++
++++++++++++++++++++++++++++++++++++++++++++++++
 + TIMESTAMP: 2244.93
REINVADE (44489)
  + pid: 44489
  + min_cores: 1
  + max_cores: 512
  + scalability graph: 
1, 1.39494, 1.5699, 1.6742, 1.74538, 1.79792, 1.83875, 1.87167, 1.89893, 1.922, 1.94184, 1.95915, 1.97442, 1.98802, 2.00024, 2.0113, 2.02136, 2.03058, 2.03906, 2.04689, 2.05415, 2.06092, 2.06724, 2.07316, 2.07872, 2.08396, 2.0889, 2.09358, 2.09801, 2.10222, 2.10622, 2.11003, 2.11367, 2.11715, 2.12048, 2.12367, 2.12672, 2.12966, 2.13248, 2.1352, 
Number of clients: 8

+++++++++++++++++++++++++++++++++++++++++++++++++++++++++++
+ Client Mapping:
  > Client 44499 (5):	28 29 30 27 38 
  > Client 44500 (5):	6 7 8 25 26 
  > Client 44497 (5):	34 35 36 18 37 
  > Client 44496 (5):	3 4 5 19 39 
  > Client 44491 (4):	22 23 24 20 
  > Client 44489 (5):	12 13 14 9 32 
  > Client 44492 (5):	15 16 17 10 31 
  > Client 44495 (5):	0 1 2 11 21 

+ Core Mapping:	44495 44495 44495 44496 44496 44496 44500 44500 44500 44489 44492 44495 44489 44489 44489 44492 44492 44492 44497 44496 44491 44495 44491 44491 44491 44500 44500 44499 44499 44499 44499 44492 44489 0 44497 44497 44497 44497 44499 44496 
+ Optimal point: 5 5 5 5 5 5 5 5 
+++++++++++++++++++++++++++++++++++++++++++++++++++++++++++
++++++++++++++++++++++++++++++++++++++++++++++++
 + TIMESTAMP: 2244.95
REINVADE (44491)
  + pid: 44491
  + min_cores: 1
  + max_cores: 512
  + scalability graph: 
1, 1.39494, 1.5699, 1.6742, 1.74538, 1.79792, 1.83875, 1.87167, 1.89893, 1.922, 1.94184, 1.95915, 1.97442, 1.98802, 2.00024, 2.0113, 2.02136, 2.03058, 2.03906, 2.04689, 2.05415, 2.06092, 2.06724, 2.07316, 2.07872, 2.08396, 2.0889, 2.09358, 2.09801, 2.10222, 2.10622, 2.11003, 2.11367, 2.11715, 2.12048, 2.12367, 2.12672, 2.12966, 2.13248, 2.1352, 
Number of clients: 8

+++++++++++++++++++++++++++++++++++++++++++++++++++++++++++
+ Client Mapping:
  > Client 44499 (5):	28 29 30 27 38 
  > Client 44500 (5):	6 7 8 25 26 
  > Client 44497 (5):	34 35 36 18 37 
  > Client 44496 (5):	3 4 5 19 39 
  > Client 44491 (5):	22 23 24 20 33 
  > Client 44489 (5):	12 13 14 9 32 
  > Client 44492 (5):	15 16 17 10 31 
  > Client 44495 (5):	0 1 2 11 21 

+ Core Mapping:	44495 44495 44495 44496 44496 44496 44500 44500 44500 44489 44492 44495 44489 44489 44489 44492 44492 44492 44497 44496 44491 44495 44491 44491 44491 44500 44500 44499 44499 44499 44499 44492 44489 44491 44497 44497 44497 44497 44499 44496 
+ Optimal point: 5 5 5 5 5 5 5 5 
+++++++++++++++++++++++++++++++++++++++++++++++++++++++++++
CLIENT SHUTDOWN: client 44496
 + TIMESTAMP: 2278.85
+++++++++++++++++++++++++++++++++++++++++++++++++++++++++++
+ Client Mapping:
  > Client 44499 (5):	28 29 30 27 38 
  > Client 44500 (5):	6 7 8 25 26 
  > Client 44497 (5):	34 35 36 18 37 
  > Client 44496 (0):	
  > Client 44491 (5):	22 23 24 20 33 
  > Client 44489 (5):	12 13 14 9 32 
  > Client 44492 (5):	15 16 17 10 31 
  > Client 44495 (5):	0 1 2 11 21 

+ Core Mapping:	44495 44495 44495 0 0 0 44500 44500 44500 44489 44492 44495 44489 44489 44489 44492 44492 44492 44497 0 44491 44495 44491 44491 44491 44500 44500 44499 44499 44499 44499 44492 44489 44491 44497 44497 44497 44497 44499 0 
+ Optimal point: 5 5 5 5 5 5 5 5 
+++++++++++++++++++++++++++++++++++++++++++++++++++++++++++
client (44496) shutdown hint: 20954.2
sum_client_shutdown_hint: 125725
sum_client_shutdown_hint_div_time: 0
++++++++++++++++++++++++++++++++++++++++++++++++
 + TIMESTAMP: 2278.85
REINVADE (44499)
  + pid: 44499
  + min_cores: 1
  + max_cores: 512
  + scalability graph: 
1, 1.39494, 1.5699, 1.6742, 1.74538, 1.79792, 1.83875, 1.87167, 1.89893, 1.922, 1.94184, 1.95915, 1.97442, 1.98802, 2.00024, 2.0113, 2.02136, 2.03058, 2.03906, 2.04689, 2.05415, 2.06092, 2.06724, 2.07316, 2.07872, 2.08396, 2.0889, 2.09358, 2.09801, 2.10222, 2.10622, 2.11003, 2.11367, 2.11715, 2.12048, 2.12367, 2.12672, 2.12966, 2.13248, 2.1352, 
Number of clients: 7

+++++++++++++++++++++++++++++++++++++++++++++++++++++++++++
+ Client Mapping:
  > Client 44499 (6):	28 29 30 27 38 3 
  > Client 44500 (5):	6 7 8 25 26 
  > Client 44497 (5):	34 35 36 18 37 
  > Client 44491 (5):	22 23 24 20 33 
  > Client 44489 (5):	12 13 14 9 32 
  > Client 44492 (5):	15 16 17 10 31 
  > Client 44495 (5):	0 1 2 11 21 

+ Core Mapping:	44495 44495 44495 44499 0 0 44500 44500 44500 44489 44492 44495 44489 44489 44489 44492 44492 44492 44497 0 44491 44495 44491 44491 44491 44500 44500 44499 44499 44499 44499 44492 44489 44491 44497 44497 44497 44497 44499 0 
+ Optimal point: 6 6 6 6 6 5 5 
+++++++++++++++++++++++++++++++++++++++++++++++++++++++++++
++++++++++++++++++++++++++++++++++++++++++++++++
 + TIMESTAMP: 2278.86
REINVADE (44489)
  + pid: 44489
  + min_cores: 1
  + max_cores: 512
  + scalability graph: 
1, 1.39494, 1.5699, 1.6742, 1.74538, 1.79792, 1.83875, 1.87167, 1.89893, 1.922, 1.94184, 1.95915, 1.97442, 1.98802, 2.00024, 2.0113, 2.02136, 2.03058, 2.03906, 2.04689, 2.05415, 2.06092, 2.06724, 2.07316, 2.07872, 2.08396, 2.0889, 2.09358, 2.09801, 2.10222, 2.10622, 2.11003, 2.11367, 2.11715, 2.12048, 2.12367, 2.12672, 2.12966, 2.13248, 2.1352, 
Number of clients: 7

+++++++++++++++++++++++++++++++++++++++++++++++++++++++++++
+ Client Mapping:
  > Client 44499 (6):	28 29 30 27 38 3 
  > Client 44500 (5):	6 7 8 25 26 
  > Client 44497 (5):	34 35 36 18 37 
  > Client 44491 (5):	22 23 24 20 33 
  > Client 44489 (6):	12 13 14 9 32 4 
  > Client 44492 (5):	15 16 17 10 31 
  > Client 44495 (5):	0 1 2 11 21 

+ Core Mapping:	44495 44495 44495 44499 44489 0 44500 44500 44500 44489 44492 44495 44489 44489 44489 44492 44492 44492 44497 0 44491 44495 44491 44491 44491 44500 44500 44499 44499 44499 44499 44492 44489 44491 44497 44497 44497 44497 44499 0 
+ Optimal point: 6 6 6 6 6 5 5 
+++++++++++++++++++++++++++++++++++++++++++++++++++++++++++
++++++++++++++++++++++++++++++++++++++++++++++++
 + TIMESTAMP: 2278.87
REINVADE (44491)
  + pid: 44491
  + min_cores: 1
  + max_cores: 512
  + scalability graph: 
1, 1.39494, 1.5699, 1.6742, 1.74538, 1.79792, 1.83875, 1.87167, 1.89893, 1.922, 1.94184, 1.95915, 1.97442, 1.98802, 2.00024, 2.0113, 2.02136, 2.03058, 2.03906, 2.04689, 2.05415, 2.06092, 2.06724, 2.07316, 2.07872, 2.08396, 2.0889, 2.09358, 2.09801, 2.10222, 2.10622, 2.11003, 2.11367, 2.11715, 2.12048, 2.12367, 2.12672, 2.12966, 2.13248, 2.1352, 
Number of clients: 7

+++++++++++++++++++++++++++++++++++++++++++++++++++++++++++
+ Client Mapping:
  > Client 44499 (6):	28 29 30 27 38 3 
  > Client 44500 (5):	6 7 8 25 26 
  > Client 44497 (5):	34 35 36 18 37 
  > Client 44491 (6):	22 23 24 20 33 5 
  > Client 44489 (6):	12 13 14 9 32 4 
  > Client 44492 (5):	15 16 17 10 31 
  > Client 44495 (5):	0 1 2 11 21 

+ Core Mapping:	44495 44495 44495 44499 44489 44491 44500 44500 44500 44489 44492 44495 44489 44489 44489 44492 44492 44492 44497 0 44491 44495 44491 44491 44491 44500 44500 44499 44499 44499 44499 44492 44489 44491 44497 44497 44497 44497 44499 0 
+ Optimal point: 6 6 6 6 6 5 5 
+++++++++++++++++++++++++++++++++++++++++++++++++++++++++++
++++++++++++++++++++++++++++++++++++++++++++++++
 + TIMESTAMP: 2278.88
REINVADE (44500)
  + pid: 44500
  + min_cores: 1
  + max_cores: 512
  + scalability graph: 
1, 1.39494, 1.5699, 1.6742, 1.74538, 1.79792, 1.83875, 1.87167, 1.89893, 1.922, 1.94184, 1.95915, 1.97442, 1.98802, 2.00024, 2.0113, 2.02136, 2.03058, 2.03906, 2.04689, 2.05415, 2.06092, 2.06724, 2.07316, 2.07872, 2.08396, 2.0889, 2.09358, 2.09801, 2.10222, 2.10622, 2.11003, 2.11367, 2.11715, 2.12048, 2.12367, 2.12672, 2.12966, 2.13248, 2.1352, 
Number of clients: 7

+++++++++++++++++++++++++++++++++++++++++++++++++++++++++++
+ Client Mapping:
  > Client 44499 (6):	28 29 30 27 38 3 
  > Client 44500 (6):	6 7 8 25 26 19 
  > Client 44497 (5):	34 35 36 18 37 
  > Client 44491 (6):	22 23 24 20 33 5 
  > Client 44489 (6):	12 13 14 9 32 4 
  > Client 44492 (5):	15 16 17 10 31 
  > Client 44495 (5):	0 1 2 11 21 

+ Core Mapping:	44495 44495 44495 44499 44489 44491 44500 44500 44500 44489 44492 44495 44489 44489 44489 44492 44492 44492 44497 44500 44491 44495 44491 44491 44491 44500 44500 44499 44499 44499 44499 44492 44489 44491 44497 44497 44497 44497 44499 0 
+ Optimal point: 6 6 6 6 6 5 5 
+++++++++++++++++++++++++++++++++++++++++++++++++++++++++++
++++++++++++++++++++++++++++++++++++++++++++++++
 + TIMESTAMP: 2278.89
REINVADE (44497)
  + pid: 44497
  + min_cores: 1
  + max_cores: 512
  + scalability graph: 
1, 1.39494, 1.5699, 1.6742, 1.74538, 1.79792, 1.83875, 1.87167, 1.89893, 1.922, 1.94184, 1.95915, 1.97442, 1.98802, 2.00024, 2.0113, 2.02136, 2.03058, 2.03906, 2.04689, 2.05415, 2.06092, 2.06724, 2.07316, 2.07872, 2.08396, 2.0889, 2.09358, 2.09801, 2.10222, 2.10622, 2.11003, 2.11367, 2.11715, 2.12048, 2.12367, 2.12672, 2.12966, 2.13248, 2.1352, 
Number of clients: 7

+++++++++++++++++++++++++++++++++++++++++++++++++++++++++++
+ Client Mapping:
  > Client 44499 (6):	28 29 30 27 38 3 
  > Client 44500 (6):	6 7 8 25 26 19 
  > Client 44497 (6):	34 35 36 18 37 39 
  > Client 44491 (6):	22 23 24 20 33 5 
  > Client 44489 (6):	12 13 14 9 32 4 
  > Client 44492 (5):	15 16 17 10 31 
  > Client 44495 (5):	0 1 2 11 21 

+ Core Mapping:	44495 44495 44495 44499 44489 44491 44500 44500 44500 44489 44492 44495 44489 44489 44489 44492 44492 44492 44497 44500 44491 44495 44491 44491 44491 44500 44500 44499 44499 44499 44499 44492 44489 44491 44497 44497 44497 44497 44499 44497 
+ Optimal point: 6 6 6 6 6 5 5 
+++++++++++++++++++++++++++++++++++++++++++++++++++++++++++
CLIENT SHUTDOWN: client 44489
 + TIMESTAMP: 2329.16
+++++++++++++++++++++++++++++++++++++++++++++++++++++++++++
+ Client Mapping:
  > Client 44499 (6):	28 29 30 27 38 3 
  > Client 44500 (6):	6 7 8 25 26 19 
  > Client 44497 (6):	34 35 36 18 37 39 
  > Client 44491 (6):	22 23 24 20 33 5 
  > Client 44489 (0):	
  > Client 44492 (5):	15 16 17 10 31 
  > Client 44495 (5):	0 1 2 11 21 

+ Core Mapping:	44495 44495 44495 44499 0 44491 44500 44500 44500 0 44492 44495 0 0 0 44492 44492 44492 44497 44500 44491 44495 44491 44491 44491 44500 44500 44499 44499 44499 44499 44492 0 44491 44497 44497 44497 44497 44499 44497 
+ Optimal point: 6 6 6 6 6 5 5 
+++++++++++++++++++++++++++++++++++++++++++++++++++++++++++
client (44489) shutdown hint: 20954.2
sum_client_shutdown_hint: 146679
sum_client_shutdown_hint_div_time: 0
++++++++++++++++++++++++++++++++++++++++++++++++
 + TIMESTAMP: 2329.16
REINVADE (44499)
  + pid: 44499
  + min_cores: 1
  + max_cores: 512
  + scalability graph: 
1, 1.39494, 1.5699, 1.6742, 1.74538, 1.79792, 1.83875, 1.87167, 1.89893, 1.922, 1.94184, 1.95915, 1.97442, 1.98802, 2.00024, 2.0113, 2.02136, 2.03058, 2.03906, 2.04689, 2.05415, 2.06092, 2.06724, 2.07316, 2.07872, 2.08396, 2.0889, 2.09358, 2.09801, 2.10222, 2.10622, 2.11003, 2.11367, 2.11715, 2.12048, 2.12367, 2.12672, 2.12966, 2.13248, 2.1352, 
Number of clients: 6

+++++++++++++++++++++++++++++++++++++++++++++++++++++++++++
+ Client Mapping:
  > Client 44499 (7):	28 29 30 27 38 3 4 
  > Client 44500 (6):	6 7 8 25 26 19 
  > Client 44497 (6):	34 35 36 18 37 39 
  > Client 44491 (6):	22 23 24 20 33 5 
  > Client 44492 (5):	15 16 17 10 31 
  > Client 44495 (5):	0 1 2 11 21 

+ Core Mapping:	44495 44495 44495 44499 44499 44491 44500 44500 44500 0 44492 44495 0 0 0 44492 44492 44492 44497 44500 44491 44495 44491 44491 44491 44500 44500 44499 44499 44499 44499 44492 0 44491 44497 44497 44497 44497 44499 44497 
+ Optimal point: 7 7 7 6 6 7 
+++++++++++++++++++++++++++++++++++++++++++++++++++++++++++
++++++++++++++++++++++++++++++++++++++++++++++++
 + TIMESTAMP: 2329.18
REINVADE (44495)
  + pid: 44495
  + min_cores: 1
  + max_cores: 512
  + scalability graph: 
1, 1.39494, 1.5699, 1.6742, 1.74538, 1.79792, 1.83875, 1.87167, 1.89893, 1.922, 1.94184, 1.95915, 1.97442, 1.98802, 2.00024, 2.0113, 2.02136, 2.03058, 2.03906, 2.04689, 2.05415, 2.06092, 2.06724, 2.07316, 2.07872, 2.08396, 2.0889, 2.09358, 2.09801, 2.10222, 2.10622, 2.11003, 2.11367, 2.11715, 2.12048, 2.12367, 2.12672, 2.12966, 2.13248, 2.1352, 
Number of clients: 6

+++++++++++++++++++++++++++++++++++++++++++++++++++++++++++
+ Client Mapping:
  > Client 44499 (7):	28 29 30 27 38 3 4 
  > Client 44500 (6):	6 7 8 25 26 19 
  > Client 44497 (6):	34 35 36 18 37 39 
  > Client 44491 (6):	22 23 24 20 33 5 
  > Client 44492 (5):	15 16 17 10 31 
  > Client 44495 (7):	0 1 2 11 21 9 12 

+ Core Mapping:	44495 44495 44495 44499 44499 44491 44500 44500 44500 44495 44492 44495 44495 0 0 44492 44492 44492 44497 44500 44491 44495 44491 44491 44491 44500 44500 44499 44499 44499 44499 44492 0 44491 44497 44497 44497 44497 44499 44497 
+ Optimal point: 7 7 7 6 6 7 
+++++++++++++++++++++++++++++++++++++++++++++++++++++++++++
++++++++++++++++++++++++++++++++++++++++++++++++
 + TIMESTAMP: 2329.18
REINVADE (44500)
  + pid: 44500
  + min_cores: 1
  + max_cores: 512
  + scalability graph: 
1, 1.39494, 1.5699, 1.6742, 1.74538, 1.79792, 1.83875, 1.87167, 1.89893, 1.922, 1.94184, 1.95915, 1.97442, 1.98802, 2.00024, 2.0113, 2.02136, 2.03058, 2.03906, 2.04689, 2.05415, 2.06092, 2.06724, 2.07316, 2.07872, 2.08396, 2.0889, 2.09358, 2.09801, 2.10222, 2.10622, 2.11003, 2.11367, 2.11715, 2.12048, 2.12367, 2.12672, 2.12966, 2.13248, 2.1352, 
Number of clients: 6

+++++++++++++++++++++++++++++++++++++++++++++++++++++++++++
+ Client Mapping:
  > Client 44499 (7):	28 29 30 27 38 3 4 
  > Client 44500 (7):	6 7 8 25 26 19 13 
  > Client 44497 (6):	34 35 36 18 37 39 
  > Client 44491 (6):	22 23 24 20 33 5 
  > Client 44492 (5):	15 16 17 10 31 
  > Client 44495 (7):	0 1 2 11 21 9 12 

+ Core Mapping:	44495 44495 44495 44499 44499 44491 44500 44500 44500 44495 44492 44495 44495 44500 0 44492 44492 44492 44497 44500 44491 44495 44491 44491 44491 44500 44500 44499 44499 44499 44499 44492 0 44491 44497 44497 44497 44497 44499 44497 
+ Optimal point: 7 7 7 6 6 7 
+++++++++++++++++++++++++++++++++++++++++++++++++++++++++++
++++++++++++++++++++++++++++++++++++++++++++++++
 + TIMESTAMP: 2329.19
REINVADE (44497)
  + pid: 44497
  + min_cores: 1
  + max_cores: 512
  + scalability graph: 
1, 1.39494, 1.5699, 1.6742, 1.74538, 1.79792, 1.83875, 1.87167, 1.89893, 1.922, 1.94184, 1.95915, 1.97442, 1.98802, 2.00024, 2.0113, 2.02136, 2.03058, 2.03906, 2.04689, 2.05415, 2.06092, 2.06724, 2.07316, 2.07872, 2.08396, 2.0889, 2.09358, 2.09801, 2.10222, 2.10622, 2.11003, 2.11367, 2.11715, 2.12048, 2.12367, 2.12672, 2.12966, 2.13248, 2.1352, 
Number of clients: 6

+++++++++++++++++++++++++++++++++++++++++++++++++++++++++++
+ Client Mapping:
  > Client 44499 (7):	28 29 30 27 38 3 4 
  > Client 44500 (7):	6 7 8 25 26 19 13 
  > Client 44497 (7):	34 35 36 18 37 39 14 
  > Client 44491 (6):	22 23 24 20 33 5 
  > Client 44492 (5):	15 16 17 10 31 
  > Client 44495 (7):	0 1 2 11 21 9 12 

+ Core Mapping:	44495 44495 44495 44499 44499 44491 44500 44500 44500 44495 44492 44495 44495 44500 44497 44492 44492 44492 44497 44500 44491 44495 44491 44491 44491 44500 44500 44499 44499 44499 44499 44492 0 44491 44497 44497 44497 44497 44499 44497 
+ Optimal point: 7 7 7 6 6 7 
+++++++++++++++++++++++++++++++++++++++++++++++++++++++++++
++++++++++++++++++++++++++++++++++++++++++++++++
 + TIMESTAMP: 2329.2
REINVADE (44492)
  + pid: 44492
  + min_cores: 1
  + max_cores: 512
  + scalability graph: 
1, 1.39494, 1.5699, 1.6742, 1.74538, 1.79792, 1.83875, 1.87167, 1.89893, 1.922, 1.94184, 1.95915, 1.97442, 1.98802, 2.00024, 2.0113, 2.02136, 2.03058, 2.03906, 2.04689, 2.05415, 2.06092, 2.06724, 2.07316, 2.07872, 2.08396, 2.0889, 2.09358, 2.09801, 2.10222, 2.10622, 2.11003, 2.11367, 2.11715, 2.12048, 2.12367, 2.12672, 2.12966, 2.13248, 2.1352, 
Number of clients: 6

+++++++++++++++++++++++++++++++++++++++++++++++++++++++++++
+ Client Mapping:
  > Client 44499 (7):	28 29 30 27 38 3 4 
  > Client 44500 (7):	6 7 8 25 26 19 13 
  > Client 44497 (7):	34 35 36 18 37 39 14 
  > Client 44491 (6):	22 23 24 20 33 5 
  > Client 44492 (6):	15 16 17 10 31 32 
  > Client 44495 (7):	0 1 2 11 21 9 12 

+ Core Mapping:	44495 44495 44495 44499 44499 44491 44500 44500 44500 44495 44492 44495 44495 44500 44497 44492 44492 44492 44497 44500 44491 44495 44491 44491 44491 44500 44500 44499 44499 44499 44499 44492 44492 44491 44497 44497 44497 44497 44499 44497 
+ Optimal point: 7 7 7 6 6 7 
+++++++++++++++++++++++++++++++++++++++++++++++++++++++++++
CLIENT SHUTDOWN: client 44492
 + TIMESTAMP: 2335.83
+++++++++++++++++++++++++++++++++++++++++++++++++++++++++++
+ Client Mapping:
  > Client 44499 (7):	28 29 30 27 38 3 4 
  > Client 44500 (7):	6 7 8 25 26 19 13 
  > Client 44497 (7):	34 35 36 18 37 39 14 
  > Client 44491 (6):	22 23 24 20 33 5 
  > Client 44492 (0):	
  > Client 44495 (7):	0 1 2 11 21 9 12 

+ Core Mapping:	44495 44495 44495 44499 44499 44491 44500 44500 44500 44495 0 44495 44495 44500 44497 0 0 0 44497 44500 44491 44495 44491 44491 44491 44500 44500 44499 44499 44499 44499 0 0 44491 44497 44497 44497 44497 44499 44497 
+ Optimal point: 7 7 7 6 6 7 
+++++++++++++++++++++++++++++++++++++++++++++++++++++++++++
client (44492) shutdown hint: 20954.2
sum_client_shutdown_hint: 167634
sum_client_shutdown_hint_div_time: 0
++++++++++++++++++++++++++++++++++++++++++++++++
 + TIMESTAMP: 2335.83
REINVADE (44491)
  + pid: 44491
  + min_cores: 1
  + max_cores: 512
  + scalability graph: 
1, 1.39494, 1.5699, 1.6742, 1.74538, 1.79792, 1.83875, 1.87167, 1.89893, 1.922, 1.94184, 1.95915, 1.97442, 1.98802, 2.00024, 2.0113, 2.02136, 2.03058, 2.03906, 2.04689, 2.05415, 2.06092, 2.06724, 2.07316, 2.07872, 2.08396, 2.0889, 2.09358, 2.09801, 2.10222, 2.10622, 2.11003, 2.11367, 2.11715, 2.12048, 2.12367, 2.12672, 2.12966, 2.13248, 2.1352, 
Number of clients: 5

+++++++++++++++++++++++++++++++++++++++++++++++++++++++++++
+ Client Mapping:
  > Client 44499 (7):	28 29 30 27 38 3 4 
  > Client 44500 (7):	6 7 8 25 26 19 13 
  > Client 44497 (7):	34 35 36 18 37 39 14 
  > Client 44491 (8):	22 23 24 20 33 5 10 15 
  > Client 44495 (7):	0 1 2 11 21 9 12 

+ Core Mapping:	44495 44495 44495 44499 44499 44491 44500 44500 44500 44495 44491 44495 44495 44500 44497 44491 0 0 44497 44500 44491 44495 44491 44491 44491 44500 44500 44499 44499 44499 44499 0 0 44491 44497 44497 44497 44497 44499 44497 
+ Optimal point: 8 8 8 8 8 
+++++++++++++++++++++++++++++++++++++++++++++++++++++++++++
++++++++++++++++++++++++++++++++++++++++++++++++
 + TIMESTAMP: 2335.83
REINVADE (44497)
  + pid: 44497
  + min_cores: 1
  + max_cores: 512
  + scalability graph: 
1, 1.39494, 1.5699, 1.6742, 1.74538, 1.79792, 1.83875, 1.87167, 1.89893, 1.922, 1.94184, 1.95915, 1.97442, 1.98802, 2.00024, 2.0113, 2.02136, 2.03058, 2.03906, 2.04689, 2.05415, 2.06092, 2.06724, 2.07316, 2.07872, 2.08396, 2.0889, 2.09358, 2.09801, 2.10222, 2.10622, 2.11003, 2.11367, 2.11715, 2.12048, 2.12367, 2.12672, 2.12966, 2.13248, 2.1352, 
Number of clients: 5

+++++++++++++++++++++++++++++++++++++++++++++++++++++++++++
+ Client Mapping:
  > Client 44499 (7):	28 29 30 27 38 3 4 
  > Client 44500 (7):	6 7 8 25 26 19 13 
  > Client 44497 (8):	34 35 36 18 37 39 14 16 
  > Client 44491 (8):	22 23 24 20 33 5 10 15 
  > Client 44495 (7):	0 1 2 11 21 9 12 

+ Core Mapping:	44495 44495 44495 44499 44499 44491 44500 44500 44500 44495 44491 44495 44495 44500 44497 44491 44497 0 44497 44500 44491 44495 44491 44491 44491 44500 44500 44499 44499 44499 44499 0 0 44491 44497 44497 44497 44497 44499 44497 
+ Optimal point: 8 8 8 8 8 
+++++++++++++++++++++++++++++++++++++++++++++++++++++++++++
++++++++++++++++++++++++++++++++++++++++++++++++
 + TIMESTAMP: 2335.84
REINVADE (44500)
  + pid: 44500
  + min_cores: 1
  + max_cores: 512
  + scalability graph: 
1, 1.39494, 1.5699, 1.6742, 1.74538, 1.79792, 1.83875, 1.87167, 1.89893, 1.922, 1.94184, 1.95915, 1.97442, 1.98802, 2.00024, 2.0113, 2.02136, 2.03058, 2.03906, 2.04689, 2.05415, 2.06092, 2.06724, 2.07316, 2.07872, 2.08396, 2.0889, 2.09358, 2.09801, 2.10222, 2.10622, 2.11003, 2.11367, 2.11715, 2.12048, 2.12367, 2.12672, 2.12966, 2.13248, 2.1352, 
Number of clients: 5

+++++++++++++++++++++++++++++++++++++++++++++++++++++++++++
+ Client Mapping:
  > Client 44499 (7):	28 29 30 27 38 3 4 
  > Client 44500 (8):	6 7 8 25 26 19 13 17 
  > Client 44497 (8):	34 35 36 18 37 39 14 16 
  > Client 44491 (8):	22 23 24 20 33 5 10 15 
  > Client 44495 (7):	0 1 2 11 21 9 12 

+ Core Mapping:	44495 44495 44495 44499 44499 44491 44500 44500 44500 44495 44491 44495 44495 44500 44497 44491 44497 44500 44497 44500 44491 44495 44491 44491 44491 44500 44500 44499 44499 44499 44499 0 0 44491 44497 44497 44497 44497 44499 44497 
+ Optimal point: 8 8 8 8 8 
+++++++++++++++++++++++++++++++++++++++++++++++++++++++++++
++++++++++++++++++++++++++++++++++++++++++++++++
 + TIMESTAMP: 2335.85
REINVADE (44495)
  + pid: 44495
  + min_cores: 1
  + max_cores: 512
  + scalability graph: 
1, 1.39494, 1.5699, 1.6742, 1.74538, 1.79792, 1.83875, 1.87167, 1.89893, 1.922, 1.94184, 1.95915, 1.97442, 1.98802, 2.00024, 2.0113, 2.02136, 2.03058, 2.03906, 2.04689, 2.05415, 2.06092, 2.06724, 2.07316, 2.07872, 2.08396, 2.0889, 2.09358, 2.09801, 2.10222, 2.10622, 2.11003, 2.11367, 2.11715, 2.12048, 2.12367, 2.12672, 2.12966, 2.13248, 2.1352, 
Number of clients: 5

+++++++++++++++++++++++++++++++++++++++++++++++++++++++++++
+ Client Mapping:
  > Client 44499 (7):	28 29 30 27 38 3 4 
  > Client 44500 (8):	6 7 8 25 26 19 13 17 
  > Client 44497 (8):	34 35 36 18 37 39 14 16 
  > Client 44491 (8):	22 23 24 20 33 5 10 15 
  > Client 44495 (8):	0 1 2 11 21 9 12 31 

+ Core Mapping:	44495 44495 44495 44499 44499 44491 44500 44500 44500 44495 44491 44495 44495 44500 44497 44491 44497 44500 44497 44500 44491 44495 44491 44491 44491 44500 44500 44499 44499 44499 44499 44495 0 44491 44497 44497 44497 44497 44499 44497 
+ Optimal point: 8 8 8 8 8 
+++++++++++++++++++++++++++++++++++++++++++++++++++++++++++
++++++++++++++++++++++++++++++++++++++++++++++++
 + TIMESTAMP: 2335.85
REINVADE (44499)
  + pid: 44499
  + min_cores: 1
  + max_cores: 512
  + scalability graph: 
1, 1.39494, 1.5699, 1.6742, 1.74538, 1.79792, 1.83875, 1.87167, 1.89893, 1.922, 1.94184, 1.95915, 1.97442, 1.98802, 2.00024, 2.0113, 2.02136, 2.03058, 2.03906, 2.04689, 2.05415, 2.06092, 2.06724, 2.07316, 2.07872, 2.08396, 2.0889, 2.09358, 2.09801, 2.10222, 2.10622, 2.11003, 2.11367, 2.11715, 2.12048, 2.12367, 2.12672, 2.12966, 2.13248, 2.1352, 
Number of clients: 5

+++++++++++++++++++++++++++++++++++++++++++++++++++++++++++
+ Client Mapping:
  > Client 44499 (8):	28 29 30 27 38 3 4 32 
  > Client 44500 (8):	6 7 8 25 26 19 13 17 
  > Client 44497 (8):	34 35 36 18 37 39 14 16 
  > Client 44491 (8):	22 23 24 20 33 5 10 15 
  > Client 44495 (8):	0 1 2 11 21 9 12 31 

+ Core Mapping:	44495 44495 44495 44499 44499 44491 44500 44500 44500 44495 44491 44495 44495 44500 44497 44491 44497 44500 44497 44500 44491 44495 44491 44491 44491 44500 44500 44499 44499 44499 44499 44495 44499 44491 44497 44497 44497 44497 44499 44497 
+ Optimal point: 8 8 8 8 8 
+++++++++++++++++++++++++++++++++++++++++++++++++++++++++++
CLIENT SHUTDOWN: client 44497
 + TIMESTAMP: 2338.83
+++++++++++++++++++++++++++++++++++++++++++++++++++++++++++
+ Client Mapping:
  > Client 44499 (8):	28 29 30 27 38 3 4 32 
  > Client 44500 (8):	6 7 8 25 26 19 13 17 
  > Client 44497 (0):	
  > Client 44491 (8):	22 23 24 20 33 5 10 15 
  > Client 44495 (8):	0 1 2 11 21 9 12 31 

+ Core Mapping:	44495 44495 44495 44499 44499 44491 44500 44500 44500 44495 44491 44495 44495 44500 0 44491 0 44500 0 44500 44491 44495 44491 44491 44491 44500 44500 44499 44499 44499 44499 44495 44499 44491 0 0 0 0 44499 0 
+ Optimal point: 8 8 8 8 8 
+++++++++++++++++++++++++++++++++++++++++++++++++++++++++++
client (44497) shutdown hint: 20954.2
sum_client_shutdown_hint: 188588
sum_client_shutdown_hint_div_time: 0
++++++++++++++++++++++++++++++++++++++++++++++++
 + TIMESTAMP: 2338.84
REINVADE (44500)
  + pid: 44500
  + min_cores: 1
  + max_cores: 512
  + scalability graph: 
1, 1.39494, 1.5699, 1.6742, 1.74538, 1.79792, 1.83875, 1.87167, 1.89893, 1.922, 1.94184, 1.95915, 1.97442, 1.98802, 2.00024, 2.0113, 2.02136, 2.03058, 2.03906, 2.04689, 2.05415, 2.06092, 2.06724, 2.07316, 2.07872, 2.08396, 2.0889, 2.09358, 2.09801, 2.10222, 2.10622, 2.11003, 2.11367, 2.11715, 2.12048, 2.12367, 2.12672, 2.12966, 2.13248, 2.1352, 
Number of clients: 4

+++++++++++++++++++++++++++++++++++++++++++++++++++++++++++
+ Client Mapping:
  > Client 44499 (8):	28 29 30 27 38 3 4 32 
  > Client 44500 (10):	6 7 8 25 26 19 13 17 14 16 
  > Client 44491 (8):	22 23 24 20 33 5 10 15 
  > Client 44495 (8):	0 1 2 11 21 9 12 31 

+ Core Mapping:	44495 44495 44495 44499 44499 44491 44500 44500 44500 44495 44491 44495 44495 44500 44500 44491 44500 44500 0 44500 44491 44495 44491 44491 44491 44500 44500 44499 44499 44499 44499 44495 44499 44491 0 0 0 0 44499 0 
+ Optimal point: 10 10 10 10 
+++++++++++++++++++++++++++++++++++++++++++++++++++++++++++
++++++++++++++++++++++++++++++++++++++++++++++++
 + TIMESTAMP: 2338.84
REINVADE (44491)
  + pid: 44491
  + min_cores: 1
  + max_cores: 512
  + scalability graph: 
1, 1.39494, 1.5699, 1.6742, 1.74538, 1.79792, 1.83875, 1.87167, 1.89893, 1.922, 1.94184, 1.95915, 1.97442, 1.98802, 2.00024, 2.0113, 2.02136, 2.03058, 2.03906, 2.04689, 2.05415, 2.06092, 2.06724, 2.07316, 2.07872, 2.08396, 2.0889, 2.09358, 2.09801, 2.10222, 2.10622, 2.11003, 2.11367, 2.11715, 2.12048, 2.12367, 2.12672, 2.12966, 2.13248, 2.1352, 
Number of clients: 4

+++++++++++++++++++++++++++++++++++++++++++++++++++++++++++
+ Client Mapping:
  > Client 44499 (8):	28 29 30 27 38 3 4 32 
  > Client 44500 (10):	6 7 8 25 26 19 13 17 14 16 
  > Client 44491 (10):	22 23 24 20 33 5 10 15 18 34 
  > Client 44495 (8):	0 1 2 11 21 9 12 31 

+ Core Mapping:	44495 44495 44495 44499 44499 44491 44500 44500 44500 44495 44491 44495 44495 44500 44500 44491 44500 44500 44491 44500 44491 44495 44491 44491 44491 44500 44500 44499 44499 44499 44499 44495 44499 44491 44491 0 0 0 44499 0 
+ Optimal point: 10 10 10 10 
+++++++++++++++++++++++++++++++++++++++++++++++++++++++++++
++++++++++++++++++++++++++++++++++++++++++++++++
 + TIMESTAMP: 2338.85
REINVADE (44499)
  + pid: 44499
  + min_cores: 1
  + max_cores: 512
  + scalability graph: 
1, 1.39494, 1.5699, 1.6742, 1.74538, 1.79792, 1.83875, 1.87167, 1.89893, 1.922, 1.94184, 1.95915, 1.97442, 1.98802, 2.00024, 2.0113, 2.02136, 2.03058, 2.03906, 2.04689, 2.05415, 2.06092, 2.06724, 2.07316, 2.07872, 2.08396, 2.0889, 2.09358, 2.09801, 2.10222, 2.10622, 2.11003, 2.11367, 2.11715, 2.12048, 2.12367, 2.12672, 2.12966, 2.13248, 2.1352, 
Number of clients: 4

+++++++++++++++++++++++++++++++++++++++++++++++++++++++++++
+ Client Mapping:
  > Client 44499 (10):	28 29 30 27 38 3 4 32 35 36 
  > Client 44500 (10):	6 7 8 25 26 19 13 17 14 16 
  > Client 44491 (10):	22 23 24 20 33 5 10 15 18 34 
  > Client 44495 (8):	0 1 2 11 21 9 12 31 

+ Core Mapping:	44495 44495 44495 44499 44499 44491 44500 44500 44500 44495 44491 44495 44495 44500 44500 44491 44500 44500 44491 44500 44491 44495 44491 44491 44491 44500 44500 44499 44499 44499 44499 44495 44499 44491 44491 44499 44499 0 44499 0 
+ Optimal point: 10 10 10 10 
+++++++++++++++++++++++++++++++++++++++++++++++++++++++++++
++++++++++++++++++++++++++++++++++++++++++++++++
 + TIMESTAMP: 2338.86
REINVADE (44495)
  + pid: 44495
  + min_cores: 1
  + max_cores: 512
  + scalability graph: 
1, 1.39494, 1.5699, 1.6742, 1.74538, 1.79792, 1.83875, 1.87167, 1.89893, 1.922, 1.94184, 1.95915, 1.97442, 1.98802, 2.00024, 2.0113, 2.02136, 2.03058, 2.03906, 2.04689, 2.05415, 2.06092, 2.06724, 2.07316, 2.07872, 2.08396, 2.0889, 2.09358, 2.09801, 2.10222, 2.10622, 2.11003, 2.11367, 2.11715, 2.12048, 2.12367, 2.12672, 2.12966, 2.13248, 2.1352, 
Number of clients: 4

+++++++++++++++++++++++++++++++++++++++++++++++++++++++++++
+ Client Mapping:
  > Client 44499 (10):	28 29 30 27 38 3 4 32 35 36 
  > Client 44500 (10):	6 7 8 25 26 19 13 17 14 16 
  > Client 44491 (10):	22 23 24 20 33 5 10 15 18 34 
  > Client 44495 (10):	0 1 2 11 21 9 12 31 37 39 

+ Core Mapping:	44495 44495 44495 44499 44499 44491 44500 44500 44500 44495 44491 44495 44495 44500 44500 44491 44500 44500 44491 44500 44491 44495 44491 44491 44491 44500 44500 44499 44499 44499 44499 44495 44499 44491 44491 44499 44499 44495 44499 44495 
+ Optimal point: 10 10 10 10 
+++++++++++++++++++++++++++++++++++++++++++++++++++++++++++
CLIENT SHUTDOWN: client 44491
 + TIMESTAMP: 2340.15
+++++++++++++++++++++++++++++++++++++++++++++++++++++++++++
+ Client Mapping:
  > Client 44499 (10):	28 29 30 27 38 3 4 32 35 36 
  > Client 44500 (10):	6 7 8 25 26 19 13 17 14 16 
  > Client 44491 (0):	
  > Client 44495 (10):	0 1 2 11 21 9 12 31 37 39 

+ Core Mapping:	44495 44495 44495 44499 44499 0 44500 44500 44500 44495 0 44495 44495 44500 44500 0 44500 44500 0 44500 0 44495 0 0 0 44500 44500 44499 44499 44499 44499 44495 44499 0 0 44499 44499 44495 44499 44495 
+ Optimal point: 10 10 10 10 
+++++++++++++++++++++++++++++++++++++++++++++++++++++++++++
client (44491) shutdown hint: 20954.2
sum_client_shutdown_hint: 209542
sum_client_shutdown_hint_div_time: 0
++++++++++++++++++++++++++++++++++++++++++++++++
 + TIMESTAMP: 2340.16
REINVADE (44495)
  + pid: 44495
  + min_cores: 1
  + max_cores: 512
  + scalability graph: 
1, 1.39494, 1.5699, 1.6742, 1.74538, 1.79792, 1.83875, 1.87167, 1.89893, 1.922, 1.94184, 1.95915, 1.97442, 1.98802, 2.00024, 2.0113, 2.02136, 2.03058, 2.03906, 2.04689, 2.05415, 2.06092, 2.06724, 2.07316, 2.07872, 2.08396, 2.0889, 2.09358, 2.09801, 2.10222, 2.10622, 2.11003, 2.11367, 2.11715, 2.12048, 2.12367, 2.12672, 2.12966, 2.13248, 2.1352, 
Number of clients: 3

+++++++++++++++++++++++++++++++++++++++++++++++++++++++++++
+ Client Mapping:
  > Client 44499 (10):	28 29 30 27 38 3 4 32 35 36 
  > Client 44500 (10):	6 7 8 25 26 19 13 17 14 16 
  > Client 44495 (13):	0 1 2 11 21 9 12 31 37 39 5 10 15 

+ Core Mapping:	44495 44495 44495 44499 44499 44495 44500 44500 44500 44495 44495 44495 44495 44500 44500 44495 44500 44500 0 44500 0 44495 0 0 0 44500 44500 44499 44499 44499 44499 44495 44499 0 0 44499 44499 44495 44499 44495 
+ Optimal point: 14 13 13 
+++++++++++++++++++++++++++++++++++++++++++++++++++++++++++
++++++++++++++++++++++++++++++++++++++++++++++++
 + TIMESTAMP: 2340.16
REINVADE (44499)
  + pid: 44499
  + min_cores: 1
  + max_cores: 512
  + scalability graph: 
1, 1.39494, 1.5699, 1.6742, 1.74538, 1.79792, 1.83875, 1.87167, 1.89893, 1.922, 1.94184, 1.95915, 1.97442, 1.98802, 2.00024, 2.0113, 2.02136, 2.03058, 2.03906, 2.04689, 2.05415, 2.06092, 2.06724, 2.07316, 2.07872, 2.08396, 2.0889, 2.09358, 2.09801, 2.10222, 2.10622, 2.11003, 2.11367, 2.11715, 2.12048, 2.12367, 2.12672, 2.12966, 2.13248, 2.1352, 
Number of clients: 3

+++++++++++++++++++++++++++++++++++++++++++++++++++++++++++
+ Client Mapping:
  > Client 44499 (14):	28 29 30 27 38 3 4 32 35 36 18 20 22 23 
  > Client 44500 (10):	6 7 8 25 26 19 13 17 14 16 
  > Client 44495 (13):	0 1 2 11 21 9 12 31 37 39 5 10 15 

+ Core Mapping:	44495 44495 44495 44499 44499 44495 44500 44500 44500 44495 44495 44495 44495 44500 44500 44495 44500 44500 44499 44500 44499 44495 44499 44499 0 44500 44500 44499 44499 44499 44499 44495 44499 0 0 44499 44499 44495 44499 44495 
+ Optimal point: 14 13 13 
+++++++++++++++++++++++++++++++++++++++++++++++++++++++++++
++++++++++++++++++++++++++++++++++++++++++++++++
 + TIMESTAMP: 2340.16
REINVADE (44500)
  + pid: 44500
  + min_cores: 1
  + max_cores: 512
  + scalability graph: 
1, 1.39494, 1.5699, 1.6742, 1.74538, 1.79792, 1.83875, 1.87167, 1.89893, 1.922, 1.94184, 1.95915, 1.97442, 1.98802, 2.00024, 2.0113, 2.02136, 2.03058, 2.03906, 2.04689, 2.05415, 2.06092, 2.06724, 2.07316, 2.07872, 2.08396, 2.0889, 2.09358, 2.09801, 2.10222, 2.10622, 2.11003, 2.11367, 2.11715, 2.12048, 2.12367, 2.12672, 2.12966, 2.13248, 2.1352, 
Number of clients: 3

+++++++++++++++++++++++++++++++++++++++++++++++++++++++++++
+ Client Mapping:
  > Client 44499 (14):	28 29 30 27 38 3 4 32 35 36 18 20 22 23 
  > Client 44500 (13):	6 7 8 25 26 19 13 17 14 16 24 33 34 
  > Client 44495 (13):	0 1 2 11 21 9 12 31 37 39 5 10 15 

+ Core Mapping:	44495 44495 44495 44499 44499 44495 44500 44500 44500 44495 44495 44495 44495 44500 44500 44495 44500 44500 44499 44500 44499 44495 44499 44499 44500 44500 44500 44499 44499 44499 44499 44495 44499 44500 44500 44499 44499 44495 44499 44495 
+ Optimal point: 14 13 13 
+++++++++++++++++++++++++++++++++++++++++++++++++++++++++++
CLIENT SHUTDOWN: client 44499
 + TIMESTAMP: 2340.41
+++++++++++++++++++++++++++++++++++++++++++++++++++++++++++
+ Client Mapping:
  > Client 44499 (0):	
  > Client 44500 (13):	6 7 8 25 26 19 13 17 14 16 24 33 34 
  > Client 44495 (13):	0 1 2 11 21 9 12 31 37 39 5 10 15 

+ Core Mapping:	44495 44495 44495 0 0 44495 44500 44500 44500 44495 44495 44495 44495 44500 44500 44495 44500 44500 0 44500 0 44495 0 0 44500 44500 44500 0 0 0 0 44495 0 44500 44500 0 0 44495 0 44495 
+ Optimal point: 14 13 13 
+++++++++++++++++++++++++++++++++++++++++++++++++++++++++++
client (44499) shutdown hint: 20954.2
sum_client_shutdown_hint: 230496
sum_client_shutdown_hint_div_time: 0
++++++++++++++++++++++++++++++++++++++++++++++++
 + TIMESTAMP: 2340.41
REINVADE (44500)
  + pid: 44500
  + min_cores: 1
  + max_cores: 512
  + scalability graph: 
1, 1.39494, 1.5699, 1.6742, 1.74538, 1.79792, 1.83875, 1.87167, 1.89893, 1.922, 1.94184, 1.95915, 1.97442, 1.98802, 2.00024, 2.0113, 2.02136, 2.03058, 2.03906, 2.04689, 2.05415, 2.06092, 2.06724, 2.07316, 2.07872, 2.08396, 2.0889, 2.09358, 2.09801, 2.10222, 2.10622, 2.11003, 2.11367, 2.11715, 2.12048, 2.12367, 2.12672, 2.12966, 2.13248, 2.1352, 
Number of clients: 2

+++++++++++++++++++++++++++++++++++++++++++++++++++++++++++
+ Client Mapping:
  > Client 44500 (20):	6 7 8 25 26 19 13 17 14 16 24 33 34 3 4 18 20 22 23 27 
  > Client 44495 (13):	0 1 2 11 21 9 12 31 37 39 5 10 15 

+ Core Mapping:	44495 44495 44495 44500 44500 44495 44500 44500 44500 44495 44495 44495 44495 44500 44500 44495 44500 44500 44500 44500 44500 44495 44500 44500 44500 44500 44500 44500 0 0 0 44495 0 44500 44500 0 0 44495 0 44495 
+ Optimal point: 20 20 
+++++++++++++++++++++++++++++++++++++++++++++++++++++++++++
++++++++++++++++++++++++++++++++++++++++++++++++
 + TIMESTAMP: 2340.41
REINVADE (44495)
  + pid: 44495
  + min_cores: 1
  + max_cores: 512
  + scalability graph: 
1, 1.39494, 1.5699, 1.6742, 1.74538, 1.79792, 1.83875, 1.87167, 1.89893, 1.922, 1.94184, 1.95915, 1.97442, 1.98802, 2.00024, 2.0113, 2.02136, 2.03058, 2.03906, 2.04689, 2.05415, 2.06092, 2.06724, 2.07316, 2.07872, 2.08396, 2.0889, 2.09358, 2.09801, 2.10222, 2.10622, 2.11003, 2.11367, 2.11715, 2.12048, 2.12367, 2.12672, 2.12966, 2.13248, 2.1352, 
Number of clients: 2

+++++++++++++++++++++++++++++++++++++++++++++++++++++++++++
+ Client Mapping:
  > Client 44500 (20):	6 7 8 25 26 19 13 17 14 16 24 33 34 3 4 18 20 22 23 27 
  > Client 44495 (20):	0 1 2 11 21 9 12 31 37 39 5 10 15 28 29 30 32 35 36 38 

+ Core Mapping:	44495 44495 44495 44500 44500 44495 44500 44500 44500 44495 44495 44495 44495 44500 44500 44495 44500 44500 44500 44500 44500 44495 44500 44500 44500 44500 44500 44500 44495 44495 44495 44495 44495 44500 44500 44495 44495 44495 44495 44495 
+ Optimal point: 20 20 
+++++++++++++++++++++++++++++++++++++++++++++++++++++++++++
CLIENT SHUTDOWN: client 44500
 + TIMESTAMP: 2343.03
+++++++++++++++++++++++++++++++++++++++++++++++++++++++++++
+ Client Mapping:
  > Client 44500 (0):	
  > Client 44495 (20):	0 1 2 11 21 9 12 31 37 39 5 10 15 28 29 30 32 35 36 38 

+ Core Mapping:	44495 44495 44495 0 0 44495 0 0 0 44495 44495 44495 44495 0 0 44495 0 0 0 0 0 44495 0 0 0 0 0 0 44495 44495 44495 44495 44495 0 0 44495 44495 44495 44495 44495 
+ Optimal point: 20 20 
+++++++++++++++++++++++++++++++++++++++++++++++++++++++++++
client (44500) shutdown hint: 20954.2
sum_client_shutdown_hint: 251451
sum_client_shutdown_hint_div_time: 0
++++++++++++++++++++++++++++++++++++++++++++++++
 + TIMESTAMP: 2343.03
REINVADE (44495)
  + pid: 44495
  + min_cores: 1
  + max_cores: 512
  + scalability graph: 
1, 1.39494, 1.5699, 1.6742, 1.74538, 1.79792, 1.83875, 1.87167, 1.89893, 1.922, 1.94184, 1.95915, 1.97442, 1.98802, 2.00024, 2.0113, 2.02136, 2.03058, 2.03906, 2.04689, 2.05415, 2.06092, 2.06724, 2.07316, 2.07872, 2.08396, 2.0889, 2.09358, 2.09801, 2.10222, 2.10622, 2.11003, 2.11367, 2.11715, 2.12048, 2.12367, 2.12672, 2.12966, 2.13248, 2.1352, 
Number of clients: 1

+++++++++++++++++++++++++++++++++++++++++++++++++++++++++++
+ Client Mapping:
  > Client 44495 (40):	0 1 2 11 21 9 12 31 37 39 5 10 15 28 29 30 32 35 36 38 3 4 6 7 8 13 14 16 17 18 19 20 22 23 24 25 26 27 33 34 

+ Core Mapping:	44495 44495 44495 44495 44495 44495 44495 44495 44495 44495 44495 44495 44495 44495 44495 44495 44495 44495 44495 44495 44495 44495 44495 44495 44495 44495 44495 44495 44495 44495 44495 44495 44495 44495 44495 44495 44495 44495 44495 44495 
+ Optimal point: 40 
+++++++++++++++++++++++++++++++++++++++++++++++++++++++++++
CLIENT SHUTDOWN: client 44495
 + TIMESTAMP: 2349.75
+++++++++++++++++++++++++++++++++++++++++++++++++++++++++++
+ Client Mapping:
  > Client 44495 (0):	

+ Core Mapping:	0 0 0 0 0 0 0 0 0 0 0 0 0 0 0 0 0 0 0 0 0 0 0 0 0 0 0 0 0 0 0 0 0 0 0 0 0 0 0 0 
+ Optimal point: 40 
+++++++++++++++++++++++++++++++++++++++++++++++++++++++++++
client (44495) shutdown hint: 20954.2
sum_client_shutdown_hint: 272405
sum_client_shutdown_hint_div_time: 0
END TIMESTAMP: 2349.75
OVERALL TIME: 2349.39
 + sum_client_shutdown_hint: 272405
 + sum_client_shutdown_hint/time: 115.947
sum_client_shutdown_hint: 272405
sum_client_shutdown_hint_div_time: 115.947
