MODE: ipmo_prog0
PARCOUNT: 36
PROBLEMS: 1
Running on INWEST
Using iPMO

Programs:
 + ../../build/sierpi_intel_ipmo_tsunami_parallel_release  -u 10 -U 10 -T 1000 -n 4 -d 14
 + ../../build/sierpi_intel_ipmo_tsunami_parallel_release  -u 10 -U 10 -T 1000 -n 4 -d 14
 + ../../build/sierpi_intel_ipmo_tsunami_parallel_release  -u 10 -U 10 -T 1000 -n 4 -d 12
 + ../../build/sierpi_intel_ipmo_tsunami_parallel_release  -u 10 -U 10 -T 1000 -n 4 -d 12
 + ../../build/sierpi_intel_ipmo_tsunami_parallel_release  -u 10 -U 10 -T 1000 -n 4 -d 12
 + ../../build/sierpi_intel_ipmo_tsunami_parallel_release  -u 10 -U 10 -T 1000 -n 4 -d 12
 + ../../build/sierpi_intel_ipmo_tsunami_parallel_release  -u 10 -U 10 -T 1000 -n 4 -d 12
 + ../../build/sierpi_intel_ipmo_tsunami_parallel_release  -u 10 -U 10 -T 1000 -n 4 -d 12
 + ../../build/sierpi_intel_ipmo_tsunami_parallel_release  -u 10 -U 10 -T 1000 -n 4 -d 12
 + ../../build/sierpi_intel_ipmo_tsunami_parallel_release  -u 10 -U 10 -T 1000 -n 4 -d 12

Tue Apr  3 13:17:16 CEST 2012
iPMO: Prog0 parallel execution with ipmo (36 times)
Waiting for job 28327
28332: CHANGING RESSOURCES
28332: CHANGING RESSOURCES
28344: CHANGING RESSOURCES
28328: CHANGING RESSOURCES
28350: CHANGING RESSOURCES
28328: CHANGING RESSOURCES
28327: CHANGING RESSOURCES
28359: CHANGING RESSOURCES
28350: CHANGING RESSOURCES
28344: CHANGING RESSOURCES
28327: CHANGING RESSOURCES
28330: CHANGING RESSOURCES
28349: CHANGING RESSOURCES
28351: CHANGING RESSOURCES
28349: CHANGING RESSOURCES
28333: CHANGING RESSOURCES
28329: CHANGING RESSOURCES
28328: CHANGING RESSOURCES
28330: CHANGING RESSOURCES
28350: CHANGING RESSOURCES
28359: CHANGING RESSOURCES
28327: CHANGING RESSOURCES
28344: CHANGING RESSOURCES
28349: CHANGING RESSOURCES
28332: CHANGING RESSOURCES
28354: CHANGING RESSOURCES
28357: CHANGING RESSOURCES
28360: CHANGING RESSOURCES
28335: CHANGING RESSOURCES
28361: CHANGING RESSOURCES
28342: CHANGING RESSOURCES
28358: CHANGING RESSOURCES
28356: CHANGING RESSOURCES
28347: CHANGING RESSOURCES
28340: CHANGING RESSOURCES
28339: CHANGING RESSOURCES
28346: CHANGING RESSOURCES
28355: CHANGING RESSOURCES
28353: CHANGING RESSOURCES
28338: CHANGING RESSOURCES
28337: CHANGING RESSOURCES
28362: CHANGING RESSOURCES
28345: CHANGING RESSOURCES
28341: CHANGING RESSOURCES
28331: CHANGING RESSOURCES
28343: CHANGING RESSOURCES
28334: CHANGING RESSOURCES
28352: CHANGING RESSOURCES
28348: CHANGING RESSOURCES
28336: CHANGING RESSOURCES

 + Terminating after 1000 timesteps with equal number of triangles -> EXIT
 + Final timestep: 59579

59580 TS (Timesteps)
3022.12 ST (SIMULATION_TIME)
0.0500175 TSS (Timestep size)
3459.15 SFS (Overall seconds for Simulation)
20954211547 TP (Triangles processed)
0.058059 ASPT (Averaged Seconds per Timestep)
351699 TPST (Triangles Processed in Average per Simulation Timestep)
95.0841 PPST (Clusters Processed in Average per Simulation Timestep)
6.05761 MTPS (Million Triangles per Second)
-6.05761 MTPSPT (Million Triangles per Second per Thread)
10.733 EDMBPT (ElementData Megabyte per Timestep (RW))
184.864 EDMBPS (ElementData Megabyte per Second (RW))
SUM CLIENT SHUTDOWN HINT: 20954.2
SUM CLIENT SHUTDOWN HINT DIV TIME: 0
28327: CHANGING RESSOURCES
28344: CHANGING RESSOURCES

 + Terminating after 1000 timesteps with equal number of triangles -> EXIT
 + Final timestep: 59579

59580 TS (Timesteps)
3022.12 ST (SIMULATION_TIME)
0.0500175 TSS (Timestep size)
3486.26 SFS (Overall seconds for Simulation)
20954211547 TP (Triangles processed)
0.0585139 ASPT (Averaged Seconds per Timestep)
351699 TPST (Triangles Processed in Average per Simulation Timestep)
95.0841 PPST (Clusters Processed in Average per Simulation Timestep)
6.01051 MTPS (Million Triangles per Second)
-6.01051 MTPSPT (Million Triangles per Second per Thread)
10.733 EDMBPT (ElementData Megabyte per Timestep (RW))
183.426 EDMBPS (ElementData Megabyte per Second (RW))
SUM CLIENT SHUTDOWN HINT: 41908.4
SUM CLIENT SHUTDOWN HINT DIV TIME: 0
28359: CHANGING RESSOURCES
28327: CHANGING RESSOURCES
28328: CHANGING RESSOURCES
28350: CHANGING RESSOURCES

 + Terminating after 1000 timesteps with equal number of triangles -> EXIT
 + Final timestep: 59579

59580 TS (Timesteps)
3022.12 ST (SIMULATION_TIME)
0.0500175 TSS (Timestep size)
3635 SFS (Overall seconds for Simulation)
20954211547 TP (Triangles processed)
0.0610104 ASPT (Averaged Seconds per Timestep)
351699 TPST (Triangles Processed in Average per Simulation Timestep)
95.0841 PPST (Clusters Processed in Average per Simulation Timestep)
5.76457 MTPS (Million Triangles per Second)
-5.76457 MTPSPT (Million Triangles per Second per Thread)
10.733 EDMBPT (ElementData Megabyte per Timestep (RW))
175.921 EDMBPS (ElementData Megabyte per Second (RW))
SUM CLIENT SHUTDOWN HINT: 62862.6
SUM CLIENT SHUTDOWN HINT DIV TIME: 0
28327: CHANGING RESSOURCES
28330: CHANGING RESSOURCES

 + Terminating after 1000 timesteps with equal number of triangles -> EXIT
 + Final timestep: 59579

59580 TS (Timesteps)
3022.12 ST (SIMULATION_TIME)
0.0500175 TSS (Timestep size)
3701.1 SFS (Overall seconds for Simulation)
20954211547 TP (Triangles processed)
0.0621198 ASPT (Averaged Seconds per Timestep)
351699 TPST (Triangles Processed in Average per Simulation Timestep)
95.0841 PPST (Clusters Processed in Average per Simulation Timestep)
5.66162 MTPS (Million Triangles per Second)
-5.66162 MTPSPT (Million Triangles per Second per Thread)
10.733 EDMBPT (ElementData Megabyte per Timestep (RW))
172.779 EDMBPS (ElementData Megabyte per Second (RW))
SUM CLIENT SHUTDOWN HINT: 83816.8
SUM CLIENT SHUTDOWN HINT DIV TIME: 0
28349: CHANGING RESSOURCES
28351: CHANGING RESSOURCES

 + Terminating after 1000 timesteps with equal number of triangles -> EXIT
 + Final timestep: 59579

59580 TS (Timesteps)
3022.12 ST (SIMULATION_TIME)
0.0500175 TSS (Timestep size)
4669.82 SFS (Overall seconds for Simulation)
20954211547 TP (Triangles processed)
0.078379 ASPT (Averaged Seconds per Timestep)
351699 TPST (Triangles Processed in Average per Simulation Timestep)
95.0841 PPST (Clusters Processed in Average per Simulation Timestep)
4.48715 MTPS (Million Triangles per Second)
-4.48715 MTPSPT (Million Triangles per Second per Thread)
10.733 EDMBPT (ElementData Megabyte per Timestep (RW))
136.937 EDMBPS (ElementData Megabyte per Second (RW))
SUM CLIENT SHUTDOWN HINT: 104771
SUM CLIENT SHUTDOWN HINT DIV TIME: 0
28343: CHANGING RESSOURCES
28339: CHANGING RESSOURCES

 + Terminating after 1000 timesteps with equal number of triangles -> EXIT
 + Final timestep: 59579

59580 TS (Timesteps)
3022.12 ST (SIMULATION_TIME)
0.0500175 TSS (Timestep size)
4735.55 SFS (Overall seconds for Simulation)
20954211547 TP (Triangles processed)
0.0794823 ASPT (Averaged Seconds per Timestep)
351699 TPST (Triangles Processed in Average per Simulation Timestep)
95.0841 PPST (Clusters Processed in Average per Simulation Timestep)
4.42487 MTPS (Million Triangles per Second)
-4.42487 MTPSPT (Million Triangles per Second per Thread)
10.733 EDMBPT (ElementData Megabyte per Timestep (RW))
135.036 EDMBPS (ElementData Megabyte per Second (RW))
SUM CLIENT SHUTDOWN HINT: 125725
SUM CLIENT SHUTDOWN HINT DIV TIME: 0
28348: CHANGING RESSOURCES
28338: CHANGING RESSOURCES

 + Terminating after 1000 timesteps with equal number of triangles -> EXIT
 + Final timestep: 59579

59580 TS (Timesteps)
3022.12 ST (SIMULATION_TIME)
0.0500175 TSS (Timestep size)
4853.63 SFS (Overall seconds for Simulation)
20954211547 TP (Triangles processed)
0.081464 ASPT (Averaged Seconds per Timestep)
351699 TPST (Triangles Processed in Average per Simulation Timestep)
95.0841 PPST (Clusters Processed in Average per Simulation Timestep)
4.31723 MTPS (Million Triangles per Second)
-4.31723 MTPSPT (Million Triangles per Second per Thread)
10.733 EDMBPT (ElementData Megabyte per Timestep (RW))
131.751 EDMBPS (ElementData Megabyte per Second (RW))
SUM CLIENT SHUTDOWN HINT: 146679
SUM CLIENT SHUTDOWN HINT DIV TIME: 0
28335: CHANGING RESSOURCES
28360: CHANGING RESSOURCES

 + Terminating after 1000 timesteps with equal number of triangles -> EXIT
 + Final timestep: 59579

59580 TS (Timesteps)
3022.12 ST (SIMULATION_TIME)
0.0500175 TSS (Timestep size)
4966.31 SFS (Overall seconds for Simulation)
20954211547 TP (Triangles processed)
0.0833553 ASPT (Averaged Seconds per Timestep)
351699 TPST (Triangles Processed in Average per Simulation Timestep)
95.0841 PPST (Clusters Processed in Average per Simulation Timestep)
4.21927 MTPS (Million Triangles per Second)
-4.21927 MTPSPT (Million Triangles per Second per Thread)
10.733 EDMBPT (ElementData Megabyte per Timestep (RW))
128.762 EDMBPS (ElementData Megabyte per Second (RW))
SUM CLIENT SHUTDOWN HINT: 167634
SUM CLIENT SHUTDOWN HINT DIV TIME: 0
28353: CHANGING RESSOURCES
28339: CHANGING RESSOURCES
28331: CHANGING RESSOURCES
28340: CHANGING RESSOURCES

 + Terminating after 1000 timesteps with equal number of triangles -> EXIT
 + Final timestep: 59579

59580 TS (Timesteps)
3022.12 ST (SIMULATION_TIME)
0.0500175 TSS (Timestep size)
5185.01 SFS (Overall seconds for Simulation)
20954211547 TP (Triangles processed)
0.0870261 ASPT (Averaged Seconds per Timestep)
351699 TPST (Triangles Processed in Average per Simulation Timestep)
95.0841 PPST (Clusters Processed in Average per Simulation Timestep)
4.0413 MTPS (Million Triangles per Second)
-4.0413 MTPSPT (Million Triangles per Second per Thread)
10.733 EDMBPT (ElementData Megabyte per Timestep (RW))
123.331 EDMBPS (ElementData Megabyte per Second (RW))
SUM CLIENT SHUTDOWN HINT: 188588
SUM CLIENT SHUTDOWN HINT DIV TIME: 0
28338: CHANGING RESSOURCES
28345: CHANGING RESSOURCES
28333: CHANGING RESSOURCES

 + Terminating after 1000 timesteps with equal number of triangles -> EXIT
 + Final timestep: 59579

59580 TS (Timesteps)
3022.12 ST (SIMULATION_TIME)
0.0500175 TSS (Timestep size)
5233.46 SFS (Overall seconds for Simulation)
20954211547 TP (Triangles processed)
0.0878393 ASPT (Averaged Seconds per Timestep)
351699 TPST (Triangles Processed in Average per Simulation Timestep)
95.0841 PPST (Clusters Processed in Average per Simulation Timestep)
4.00389 MTPS (Million Triangles per Second)
-4.00389 MTPSPT (Million Triangles per Second per Thread)
10.733 EDMBPT (ElementData Megabyte per Timestep (RW))
122.189 EDMBPS (ElementData Megabyte per Second (RW))
SUM CLIENT SHUTDOWN HINT: 209542
SUM CLIENT SHUTDOWN HINT DIV TIME: 0
28337: CHANGING RESSOURCES
28339: CHANGING RESSOURCES
28348: CHANGING RESSOURCES
28329: CHANGING RESSOURCES

 + Terminating after 1000 timesteps with equal number of triangles -> EXIT
 + Final timestep: 59579

59580 TS (Timesteps)
3022.12 ST (SIMULATION_TIME)
0.0500175 TSS (Timestep size)
5247.15 SFS (Overall seconds for Simulation)
20954211547 TP (Triangles processed)
0.088069 ASPT (Averaged Seconds per Timestep)
351699 TPST (Triangles Processed in Average per Simulation Timestep)
95.0841 PPST (Clusters Processed in Average per Simulation Timestep)
3.99345 MTPS (Million Triangles per Second)
-3.99345 MTPSPT (Million Triangles per Second per Thread)
10.733 EDMBPT (ElementData Megabyte per Timestep (RW))
121.87 EDMBPS (ElementData Megabyte per Second (RW))
SUM CLIENT SHUTDOWN HINT: 230496
SUM CLIENT SHUTDOWN HINT DIV TIME: 0
28356: CHANGING RESSOURCES
28360: CHANGING RESSOURCES
28346: CHANGING RESSOURCES
28338: CHANGING RESSOURCES

 + Terminating after 1000 timesteps with equal number of triangles -> EXIT
 + Final timestep: 59579

59580 TS (Timesteps)
3022.12 ST (SIMULATION_TIME)
0.0500175 TSS (Timestep size)
5277.28 SFS (Overall seconds for Simulation)
20954211547 TP (Triangles processed)
0.0885747 ASPT (Averaged Seconds per Timestep)
351699 TPST (Triangles Processed in Average per Simulation Timestep)
95.0841 PPST (Clusters Processed in Average per Simulation Timestep)
3.97065 MTPS (Million Triangles per Second)
-3.97065 MTPSPT (Million Triangles per Second per Thread)
10.733 EDMBPT (ElementData Megabyte per Timestep (RW))
121.175 EDMBPS (ElementData Megabyte per Second (RW))
SUM CLIENT SHUTDOWN HINT: 251451
SUM CLIENT SHUTDOWN HINT DIV TIME: 0
28352: CHANGING RESSOURCES
Waiting for job 28328
Waiting for job 28329
28348: CHANGING RESSOURCES
28335: CHANGING RESSOURCES
28362: CHANGING RESSOURCES

 + Terminating after 1000 timesteps with equal number of triangles -> EXIT
 + Final timestep: 59579

59580 TS (Timesteps)
3022.12 ST (SIMULATION_TIME)
0.0500175 TSS (Timestep size)
5407.88 SFS (Overall seconds for Simulation)
20954211547 TP (Triangles processed)
0.0907667 ASPT (Averaged Seconds per Timestep)
351699 TPST (Triangles Processed in Average per Simulation Timestep)
95.0841 PPST (Clusters Processed in Average per Simulation Timestep)
3.87476 MTPS (Million Triangles per Second)
-3.87476 MTPSPT (Million Triangles per Second per Thread)
10.733 EDMBPT (ElementData Megabyte per Timestep (RW))
118.248 EDMBPS (ElementData Megabyte per Second (RW))
SUM CLIENT SHUTDOWN HINT: 272405
SUM CLIENT SHUTDOWN HINT DIV TIME: 0
28355: CHANGING RESSOURCES
28336: CHANGING RESSOURCES

 + Terminating after 1000 timesteps with equal number of triangles -> EXIT
 + Final timestep: 59579

59580 TS (Timesteps)
3022.12 ST (SIMULATION_TIME)
0.0500175 TSS (Timestep size)
5429.55 SFS (Overall seconds for Simulation)
20954211547 TP (Triangles processed)
0.0911305 ASPT (Averaged Seconds per Timestep)
351699 TPST (Triangles Processed in Average per Simulation Timestep)
95.0841 PPST (Clusters Processed in Average per Simulation Timestep)
3.85929 MTPS (Million Triangles per Second)
-3.85929 MTPSPT (Million Triangles per Second per Thread)
10.733 EDMBPT (ElementData Megabyte per Timestep (RW))
117.776 EDMBPS (ElementData Megabyte per Second (RW))
SUM CLIENT SHUTDOWN HINT: 293359
SUM CLIENT SHUTDOWN HINT DIV TIME: 0
28347: CHANGING RESSOURCES
28354: CHANGING RESSOURCES

 + Terminating after 1000 timesteps with equal number of triangles -> EXIT
 + Final timestep: 59579

59580 TS (Timesteps)
3022.12 ST (SIMULATION_TIME)
0.0500175 TSS (Timestep size)
5556.88 SFS (Overall seconds for Simulation)
20954211547 TP (Triangles processed)
0.0932676 ASPT (Averaged Seconds per Timestep)
351699 TPST (Triangles Processed in Average per Simulation Timestep)
95.0841 PPST (Clusters Processed in Average per Simulation Timestep)
3.77086 MTPS (Million Triangles per Second)
-3.77086 MTPSPT (Million Triangles per Second per Thread)
10.733 EDMBPT (ElementData Megabyte per Timestep (RW))
115.077 EDMBPS (ElementData Megabyte per Second (RW))
SUM CLIENT SHUTDOWN HINT: 314313
SUM CLIENT SHUTDOWN HINT DIV TIME: 0
28334: CHANGING RESSOURCES
28341: CHANGING RESSOURCES

 + Terminating after 1000 timesteps with equal number of triangles -> EXIT
 + Final timestep: 59579

59580 TS (Timesteps)
3022.12 ST (SIMULATION_TIME)
0.0500175 TSS (Timestep size)
5604.3 SFS (Overall seconds for Simulation)
20954211547 TP (Triangles processed)
0.0940634 ASPT (Averaged Seconds per Timestep)
351699 TPST (Triangles Processed in Average per Simulation Timestep)
95.0841 PPST (Clusters Processed in Average per Simulation Timestep)
3.73896 MTPS (Million Triangles per Second)
-3.73896 MTPSPT (Million Triangles per Second per Thread)
10.733 EDMBPT (ElementData Megabyte per Timestep (RW))
114.104 EDMBPS (ElementData Megabyte per Second (RW))
SUM CLIENT SHUTDOWN HINT: 335267
SUM CLIENT SHUTDOWN HINT DIV TIME: 0
28360: CHANGING RESSOURCES
28335: CHANGING RESSOURCES
Waiting for job 28330
Waiting for job 28331

 + Terminating after 1000 timesteps with equal number of triangles -> EXIT
 + Final timestep: 59579

59580 TS (Timesteps)
3022.12 ST (SIMULATION_TIME)
0.0500175 TSS (Timestep size)
5686.29 SFS (Overall seconds for Simulation)
20954211547 TP (Triangles processed)
0.0954396 ASPT (Averaged Seconds per Timestep)
351699 TPST (Triangles Processed in Average per Simulation Timestep)
95.0841 PPST (Clusters Processed in Average per Simulation Timestep)
3.68504 MTPS (Million Triangles per Second)
-3.68504 MTPSPT (Million Triangles per Second per Thread)
10.733 EDMBPT (ElementData Megabyte per Timestep (RW))
112.459 EDMBPS (ElementData Megabyte per Second (RW))
SUM CLIENT SHUTDOWN HINT: 356222
SUM CLIENT SHUTDOWN HINT DIV TIME: 0
28338: CHANGING RESSOURCES
28339: CHANGING RESSOURCES

 + Terminating after 1000 timesteps with equal number of triangles -> EXIT
 + Final timestep: 59579

59580 TS (Timesteps)
3022.12 ST (SIMULATION_TIME)
0.0500175 TSS (Timestep size)
5689.84 SFS (Overall seconds for Simulation)
20954211547 TP (Triangles processed)
0.0954992 ASPT (Averaged Seconds per Timestep)
351699 TPST (Triangles Processed in Average per Simulation Timestep)
95.0841 PPST (Clusters Processed in Average per Simulation Timestep)
3.68274 MTPS (Million Triangles per Second)
-3.68274 MTPSPT (Million Triangles per Second per Thread)
10.733 EDMBPT (ElementData Megabyte per Timestep (RW))
112.388 EDMBPS (ElementData Megabyte per Second (RW))
SUM CLIENT SHUTDOWN HINT: 377176
SUM CLIENT SHUTDOWN HINT DIV TIME: 0
28360: CHANGING RESSOURCES
28348: CHANGING RESSOURCES

 + Terminating after 1000 timesteps with equal number of triangles -> EXIT
 + Final timestep: 59579

59580 TS (Timesteps)
3022.12 ST (SIMULATION_TIME)
0.0500175 TSS (Timestep size)
5765.89 SFS (Overall seconds for Simulation)
20954211547 TP (Triangles processed)
0.0967755 ASPT (Averaged Seconds per Timestep)
351699 TPST (Triangles Processed in Average per Simulation Timestep)
95.0841 PPST (Clusters Processed in Average per Simulation Timestep)
3.63417 MTPS (Million Triangles per Second)
-3.63417 MTPSPT (Million Triangles per Second per Thread)
10.733 EDMBPT (ElementData Megabyte per Timestep (RW))
110.906 EDMBPS (ElementData Megabyte per Second (RW))
SUM CLIENT SHUTDOWN HINT: 398130
SUM CLIENT SHUTDOWN HINT DIV TIME: 0
28331: CHANGING RESSOURCES
28358: CHANGING RESSOURCES

 + Terminating after 1000 timesteps with equal number of triangles -> EXIT
 + Final timestep: 59579

59580 TS (Timesteps)
3022.12 ST (SIMULATION_TIME)
0.0500175 TSS (Timestep size)
5850.52 SFS (Overall seconds for Simulation)
20954211547 TP (Triangles processed)
0.098196 ASPT (Averaged Seconds per Timestep)
351699 TPST (Triangles Processed in Average per Simulation Timestep)
95.0841 PPST (Clusters Processed in Average per Simulation Timestep)
3.5816 MTPS (Million Triangles per Second)
-3.5816 MTPSPT (Million Triangles per Second per Thread)
10.733 EDMBPT (ElementData Megabyte per Timestep (RW))
109.302 EDMBPS (ElementData Megabyte per Second (RW))
SUM CLIENT SHUTDOWN HINT: 419084
SUM CLIENT SHUTDOWN HINT DIV TIME: 0
28333: CHANGING RESSOURCES
28345: CHANGING RESSOURCES

 + Terminating after 1000 timesteps with equal number of triangles -> EXIT
 + Final timestep: 59579

59580 TS (Timesteps)
3022.12 ST (SIMULATION_TIME)
0.0500175 TSS (Timestep size)
5883.06 SFS (Overall seconds for Simulation)
20954211547 TP (Triangles processed)
0.0987421 ASPT (Averaged Seconds per Timestep)
351699 TPST (Triangles Processed in Average per Simulation Timestep)
95.0841 PPST (Clusters Processed in Average per Simulation Timestep)
3.56179 MTPS (Million Triangles per Second)
-3.56179 MTPSPT (Million Triangles per Second per Thread)
10.733 EDMBPT (ElementData Megabyte per Timestep (RW))
108.697 EDMBPS (ElementData Megabyte per Second (RW))
SUM CLIENT SHUTDOWN HINT: 440038
SUM CLIENT SHUTDOWN HINT DIV TIME: 0
28346: CHANGING RESSOURCES
28337: CHANGING RESSOURCES

 + Terminating after 1000 timesteps with equal number of triangles -> EXIT
 + Final timestep: 59579

59580 TS (Timesteps)
3022.12 ST (SIMULATION_TIME)
0.0500175 TSS (Timestep size)
5896.4 SFS (Overall seconds for Simulation)
20954211547 TP (Triangles processed)
0.0989661 ASPT (Averaged Seconds per Timestep)
351699 TPST (Triangles Processed in Average per Simulation Timestep)
95.0841 PPST (Clusters Processed in Average per Simulation Timestep)
3.55373 MTPS (Million Triangles per Second)
-3.55373 MTPSPT (Million Triangles per Second per Thread)
10.733 EDMBPT (ElementData Megabyte per Timestep (RW))
108.451 EDMBPS (ElementData Megabyte per Second (RW))
SUM CLIENT SHUTDOWN HINT: 460993
SUM CLIENT SHUTDOWN HINT DIV TIME: 0
28347: CHANGING RESSOURCES
28336: CHANGING RESSOURCES
28355: CHANGING RESSOURCES

 + Terminating after 1000 timesteps with equal number of triangles -> EXIT
 + Final timestep: 59579

59580 TS (Timesteps)
3022.12 ST (SIMULATION_TIME)
0.0500175 TSS (Timestep size)
5912.66 SFS (Overall seconds for Simulation)
20954211547 TP (Triangles processed)
0.099239 ASPT (Averaged Seconds per Timestep)
351699 TPST (Triangles Processed in Average per Simulation Timestep)
95.0841 PPST (Clusters Processed in Average per Simulation Timestep)
3.54396 MTPS (Million Triangles per Second)
-3.54396 MTPSPT (Million Triangles per Second per Thread)
10.733 EDMBPT (ElementData Megabyte per Timestep (RW))
108.153 EDMBPS (ElementData Megabyte per Second (RW))
SUM CLIENT SHUTDOWN HINT: 481947
SUM CLIENT SHUTDOWN HINT DIV TIME: 0
28354: CHANGING RESSOURCES
28334: CHANGING RESSOURCES
28360: CHANGING RESSOURCES

 + Terminating after 1000 timesteps with equal number of triangles -> EXIT
 + Final timestep: 59579

59580 TS (Timesteps)
3022.12 ST (SIMULATION_TIME)
0.0500175 TSS (Timestep size)
5918.27 SFS (Overall seconds for Simulation)
20954211547 TP (Triangles processed)
0.0993332 ASPT (Averaged Seconds per Timestep)
351699 TPST (Triangles Processed in Average per Simulation Timestep)
95.0841 PPST (Clusters Processed in Average per Simulation Timestep)
3.5406 MTPS (Million Triangles per Second)
-3.5406 MTPSPT (Million Triangles per Second per Thread)
10.733 EDMBPT (ElementData Megabyte per Timestep (RW))
108.05 EDMBPS (ElementData Megabyte per Second (RW))
SUM CLIENT SHUTDOWN HINT: 502901
SUM CLIENT SHUTDOWN HINT DIV TIME: 0
28333: CHANGING RESSOURCES
28358: CHANGING RESSOURCES
28345: CHANGING RESSOURCES
28360: CHANGING RESSOURCES
28331: CHANGING RESSOURCES

 + Terminating after 1000 timesteps with equal number of triangles -> EXIT
 + Final timestep: 59579

59580 TS (Timesteps)
3022.12 ST (SIMULATION_TIME)
0.0500175 TSS (Timestep size)
5938.43 SFS (Overall seconds for Simulation)
20954211547 TP (Triangles processed)
0.0996715 ASPT (Averaged Seconds per Timestep)
351699 TPST (Triangles Processed in Average per Simulation Timestep)
95.0841 PPST (Clusters Processed in Average per Simulation Timestep)
3.52858 MTPS (Million Triangles per Second)
-3.52858 MTPSPT (Million Triangles per Second per Thread)
10.733 EDMBPT (ElementData Megabyte per Timestep (RW))
107.684 EDMBPS (ElementData Megabyte per Second (RW))
SUM CLIENT SHUTDOWN HINT: 523855
SUM CLIENT SHUTDOWN HINT DIV TIME: 0
28346: CHANGING RESSOURCES
28347: CHANGING RESSOURCES
28334: CHANGING RESSOURCES

 + Terminating after 1000 timesteps with equal number of triangles -> EXIT
 + Final timestep: 59579

59580 TS (Timesteps)
3022.12 ST (SIMULATION_TIME)
0.0500175 TSS (Timestep size)
5967.5 SFS (Overall seconds for Simulation)
20954211547 TP (Triangles processed)
0.100159 ASPT (Averaged Seconds per Timestep)
351699 TPST (Triangles Processed in Average per Simulation Timestep)
95.0841 PPST (Clusters Processed in Average per Simulation Timestep)
3.51139 MTPS (Million Triangles per Second)
-3.51139 MTPSPT (Million Triangles per Second per Thread)
10.733 EDMBPT (ElementData Megabyte per Timestep (RW))
107.159 EDMBPS (ElementData Megabyte per Second (RW))
SUM CLIENT SHUTDOWN HINT: 544810
SUM CLIENT SHUTDOWN HINT DIV TIME: 0
28354: CHANGING RESSOURCES
28360: CHANGING RESSOURCES
28348: CHANGING RESSOURCES
28338: CHANGING RESSOURCES

 + Terminating after 1000 timesteps with equal number of triangles -> EXIT
 + Final timestep: 59579

59580 TS (Timesteps)
3022.12 ST (SIMULATION_TIME)
0.0500175 TSS (Timestep size)
6018.84 SFS (Overall seconds for Simulation)
20954211547 TP (Triangles processed)
0.101021 ASPT (Averaged Seconds per Timestep)
351699 TPST (Triangles Processed in Average per Simulation Timestep)
95.0841 PPST (Clusters Processed in Average per Simulation Timestep)
3.48144 MTPS (Million Triangles per Second)
-3.48144 MTPSPT (Million Triangles per Second per Thread)
10.733 EDMBPT (ElementData Megabyte per Timestep (RW))
106.245 EDMBPS (ElementData Megabyte per Second (RW))
SUM CLIENT SHUTDOWN HINT: 565764
SUM CLIENT SHUTDOWN HINT DIV TIME: 0
28348: CHANGING RESSOURCES
28358: CHANGING RESSOURCES
28360: CHANGING RESSOURCES
28331: CHANGING RESSOURCES

 + Terminating after 1000 timesteps with equal number of triangles -> EXIT
 + Final timestep: 59579

59580 TS (Timesteps)
3022.12 ST (SIMULATION_TIME)
0.0500175 TSS (Timestep size)
6031.02 SFS (Overall seconds for Simulation)
20954211547 TP (Triangles processed)
0.101226 ASPT (Averaged Seconds per Timestep)
351699 TPST (Triangles Processed in Average per Simulation Timestep)
95.0841 PPST (Clusters Processed in Average per Simulation Timestep)
3.47441 MTPS (Million Triangles per Second)
-3.47441 MTPSPT (Million Triangles per Second per Thread)
10.733 EDMBPT (ElementData Megabyte per Timestep (RW))
106.03 EDMBPS (ElementData Megabyte per Second (RW))
SUM CLIENT SHUTDOWN HINT: 586718
SUM CLIENT SHUTDOWN HINT DIV TIME: 0
28334: CHANGING RESSOURCES
28354: CHANGING RESSOURCES
28333: CHANGING RESSOURCES
28346: CHANGING RESSOURCES

 + Terminating after 1000 timesteps with equal number of triangles -> EXIT
 + Final timestep: 59579

59580 TS (Timesteps)
3022.12 ST (SIMULATION_TIME)
0.0500175 TSS (Timestep size)
6126.82 SFS (Overall seconds for Simulation)
20954211547 TP (Triangles processed)
0.102834 ASPT (Averaged Seconds per Timestep)
351699 TPST (Triangles Processed in Average per Simulation Timestep)
95.0841 PPST (Clusters Processed in Average per Simulation Timestep)
3.42008 MTPS (Million Triangles per Second)
-3.42008 MTPSPT (Million Triangles per Second per Thread)
10.733 EDMBPT (ElementData Megabyte per Timestep (RW))
104.373 EDMBPS (ElementData Megabyte per Second (RW))
SUM CLIENT SHUTDOWN HINT: 607672
SUM CLIENT SHUTDOWN HINT DIV TIME: 0
28333: CHANGING RESSOURCES
28347: CHANGING RESSOURCES
28331: CHANGING RESSOURCES
28346: CHANGING RESSOURCES
28358: CHANGING RESSOURCES

 + Terminating after 1000 timesteps with equal number of triangles -> EXIT
 + Final timestep: 59579

59580 TS (Timesteps)
3022.12 ST (SIMULATION_TIME)
0.0500175 TSS (Timestep size)
6170.45 SFS (Overall seconds for Simulation)
20954211547 TP (Triangles processed)
0.103566 ASPT (Averaged Seconds per Timestep)
351699 TPST (Triangles Processed in Average per Simulation Timestep)
95.0841 PPST (Clusters Processed in Average per Simulation Timestep)
3.3959 MTPS (Million Triangles per Second)
-3.3959 MTPSPT (Million Triangles per Second per Thread)
10.733 EDMBPT (ElementData Megabyte per Timestep (RW))
103.634 EDMBPS (ElementData Megabyte per Second (RW))
SUM CLIENT SHUTDOWN HINT: 628626
SUM CLIENT SHUTDOWN HINT DIV TIME: 0
28354: CHANGING RESSOURCES
28334: CHANGING RESSOURCES
28333: CHANGING RESSOURCES
28358: CHANGING RESSOURCES
28346: CHANGING RESSOURCES
Waiting for job 28332
Waiting for job 28333

 + Terminating after 1000 timesteps with equal number of triangles -> EXIT
 + Final timestep: 59579

59580 TS (Timesteps)
3022.12 ST (SIMULATION_TIME)
0.0500175 TSS (Timestep size)
6197.58 SFS (Overall seconds for Simulation)
20954211547 TP (Triangles processed)
0.104021 ASPT (Averaged Seconds per Timestep)
351699 TPST (Triangles Processed in Average per Simulation Timestep)
95.0841 PPST (Clusters Processed in Average per Simulation Timestep)
3.38103 MTPS (Million Triangles per Second)
-3.38103 MTPSPT (Million Triangles per Second per Thread)
10.733 EDMBPT (ElementData Megabyte per Timestep (RW))
103.181 EDMBPS (ElementData Megabyte per Second (RW))
SUM CLIENT SHUTDOWN HINT: 649581
SUM CLIENT SHUTDOWN HINT DIV TIME: 0
28354: CHANGING RESSOURCES
28333: CHANGING RESSOURCES
28358: CHANGING RESSOURCES
28346: CHANGING RESSOURCES
28347: CHANGING RESSOURCES

 + Terminating after 1000 timesteps with equal number of triangles -> EXIT
 + Final timestep: 59579

59580 TS (Timesteps)
3022.12 ST (SIMULATION_TIME)
0.0500175 TSS (Timestep size)
6276.07 SFS (Overall seconds for Simulation)
20954211547 TP (Triangles processed)
0.105339 ASPT (Averaged Seconds per Timestep)
351699 TPST (Triangles Processed in Average per Simulation Timestep)
95.0841 PPST (Clusters Processed in Average per Simulation Timestep)
3.33875 MTPS (Million Triangles per Second)
-3.33875 MTPSPT (Million Triangles per Second per Thread)
10.733 EDMBPT (ElementData Megabyte per Timestep (RW))
101.89 EDMBPS (ElementData Megabyte per Second (RW))
SUM CLIENT SHUTDOWN HINT: 670535
SUM CLIENT SHUTDOWN HINT DIV TIME: 0
28333: CHANGING RESSOURCES
28346: CHANGING RESSOURCES
28354: CHANGING RESSOURCES

 + Terminating after 1000 timesteps with equal number of triangles -> EXIT
 + Final timestep: 59579

59580 TS (Timesteps)
3022.12 ST (SIMULATION_TIME)
0.0500175 TSS (Timestep size)
6301.81 SFS (Overall seconds for Simulation)
20954211547 TP (Triangles processed)
0.10577 ASPT (Averaged Seconds per Timestep)
351699 TPST (Triangles Processed in Average per Simulation Timestep)
95.0841 PPST (Clusters Processed in Average per Simulation Timestep)
3.32511 MTPS (Million Triangles per Second)
-3.32511 MTPSPT (Million Triangles per Second per Thread)
10.733 EDMBPT (ElementData Megabyte per Timestep (RW))
101.474 EDMBPS (ElementData Megabyte per Second (RW))
SUM CLIENT SHUTDOWN HINT: 691489
SUM CLIENT SHUTDOWN HINT DIV TIME: 0
28347: CHANGING RESSOURCES
28346: CHANGING RESSOURCES
28354: CHANGING RESSOURCES
Waiting for job 28334
Waiting for job 28335
Waiting for job 28336
Waiting for job 28337
Waiting for job 28338
Waiting for job 28339
Waiting for job 28340
Waiting for job 28341
Waiting for job 28342
Waiting for job 28343
Waiting for job 28344
Waiting for job 28345
Waiting for job 28346

 + Terminating after 1000 timesteps with equal number of triangles -> EXIT
 + Final timestep: 59579

59580 TS (Timesteps)
3022.12 ST (SIMULATION_TIME)
0.0500175 TSS (Timestep size)
6307.92 SFS (Overall seconds for Simulation)
20954211547 TP (Triangles processed)
0.105873 ASPT (Averaged Seconds per Timestep)
351699 TPST (Triangles Processed in Average per Simulation Timestep)
95.0841 PPST (Clusters Processed in Average per Simulation Timestep)
3.32189 MTPS (Million Triangles per Second)
-3.32189 MTPSPT (Million Triangles per Second per Thread)
10.733 EDMBPT (ElementData Megabyte per Timestep (RW))
101.376 EDMBPS (ElementData Megabyte per Second (RW))
SUM CLIENT SHUTDOWN HINT: 712443
SUM CLIENT SHUTDOWN HINT DIV TIME: 0
28346: CHANGING RESSOURCES
28354: CHANGING RESSOURCES

 + Terminating after 1000 timesteps with equal number of triangles -> EXIT
 + Final timestep: 59579

59580 TS (Timesteps)
3022.12 ST (SIMULATION_TIME)
0.0500175 TSS (Timestep size)
6309.04 SFS (Overall seconds for Simulation)
20954211547 TP (Triangles processed)
0.105892 ASPT (Averaged Seconds per Timestep)
351699 TPST (Triangles Processed in Average per Simulation Timestep)
95.0841 PPST (Clusters Processed in Average per Simulation Timestep)
3.3213 MTPS (Million Triangles per Second)
-3.3213 MTPSPT (Million Triangles per Second per Thread)
10.733 EDMBPT (ElementData Megabyte per Timestep (RW))
101.358 EDMBPS (ElementData Megabyte per Second (RW))
SUM CLIENT SHUTDOWN HINT: 733397
SUM CLIENT SHUTDOWN HINT DIV TIME: 0
28354: CHANGING RESSOURCES
Waiting for job 28347
Waiting for job 28348
Waiting for job 28349
Waiting for job 28350
Waiting for job 28351
Waiting for job 28352
Waiting for job 28353
Waiting for job 28354

 + Terminating after 1000 timesteps with equal number of triangles -> EXIT
 + Final timestep: 59579

59580 TS (Timesteps)
3022.12 ST (SIMULATION_TIME)
0.0500175 TSS (Timestep size)
6313.86 SFS (Overall seconds for Simulation)
20954211547 TP (Triangles processed)
0.105973 ASPT (Averaged Seconds per Timestep)
351699 TPST (Triangles Processed in Average per Simulation Timestep)
95.0841 PPST (Clusters Processed in Average per Simulation Timestep)
3.31876 MTPS (Million Triangles per Second)
-3.31876 MTPSPT (Million Triangles per Second per Thread)
10.733 EDMBPT (ElementData Megabyte per Timestep (RW))
101.281 EDMBPS (ElementData Megabyte per Second (RW))
SUM CLIENT SHUTDOWN HINT: 754352
SUM CLIENT SHUTDOWN HINT DIV TIME: 119.478
Waiting for job 28355
Waiting for job 28356
Waiting for job 28357
Waiting for job 28358
Waiting for job 28359
Waiting for job 28360
Waiting for job 28361
Waiting for job 28362
Tue Apr  3 15:02:30 CEST 2012
Seconds: 6314
