MODE: ipmo_prog0
PARCOUNT: 28
PROBLEMS: 1
Running on INWEST
Using iPMO

Programs:
 + ../../build/sierpi_intel_ipmo_tsunami_parallel_release  -u 10 -U 10 -T 1000 -n 40 -d 12
 + ../../build/sierpi_intel_ipmo_tsunami_parallel_release  -u 10 -U 10 -T 1000 -n 40 -d 12
 + ../../build/sierpi_intel_ipmo_tsunami_parallel_release  -u 10 -U 10 -T 1000 -n 40 -d 10
 + ../../build/sierpi_intel_ipmo_tsunami_parallel_release  -u 10 -U 10 -T 1000 -n 40 -d 12
 + ../../build/sierpi_intel_ipmo_tsunami_parallel_release  -u 10 -U 10 -T 1000 -n 40 -d 10

Sat Mar 31 15:45:55 CEST 2012
iPMO: Prog0 parallel execution with ipmo (28 times)
Waiting for job 76077
76082: CHANGING RESSOURCES
76094: CHANGING RESSOURCES
76082: CHANGING RESSOURCES
76087: CHANGING RESSOURCES
76092: CHANGING RESSOURCES
76087: CHANGING RESSOURCES
76092: CHANGING RESSOURCES
76095: CHANGING RESSOURCES
76078: CHANGING RESSOURCES
76086: CHANGING RESSOURCES
76085: CHANGING RESSOURCES
76093: CHANGING RESSOURCES
76091: CHANGING RESSOURCES
76094: CHANGING RESSOURCES
76078: CHANGING RESSOURCES
76087: CHANGING RESSOURCES
76099: CHANGING RESSOURCES
76095: CHANGING RESSOURCES
76090: CHANGING RESSOURCES
76103: CHANGING RESSOURCES
76096: CHANGING RESSOURCES
76092: CHANGING RESSOURCES
76101: CHANGING RESSOURCES
76082: CHANGING RESSOURCES
76104: CHANGING RESSOURCES
76097: CHANGING RESSOURCES
76080: CHANGING RESSOURCES
76102: CHANGING RESSOURCES
76077: CHANGING RESSOURCES
76098: CHANGING RESSOURCES
76084: CHANGING RESSOURCES
76088: CHANGING RESSOURCES
76089: CHANGING RESSOURCES
76079: CHANGING RESSOURCES
76100: CHANGING RESSOURCES

 + Terminating after 1000 timesteps with equal number of triangles -> EXIT
 + Final timestep: 6749

6750 TS (Timesteps)
715.114 ST (SIMULATION_TIME)
0.100037 TSS (Timestep size)
69.2948 SFS (Overall seconds for Simulation)
437983904 TP (Triangles processed)
0.0102659 ASPT (Averaged Seconds per Timestep)
64886.5 TPST (Triangles Processed in Average per Simulation Timestep)
48.6681 PPST (Clusters Processed in Average per Simulation Timestep)
6.32059 MTPS (Million Triangles per Second)
-6.32059 MTPSPT (Million Triangles per Second per Thread)
1.98018 EDMBPT (ElementData Megabyte per Timestep (RW))
192.889 EDMBPS (ElementData Megabyte per Second (RW))
SUM CLIENT SHUTDOWN HINT: 437.984
SUM CLIENT SHUTDOWN HINT DIV TIME: 0
76096: CHANGING RESSOURCES
76098: CHANGING RESSOURCES

 + Terminating after 1000 timesteps with equal number of triangles -> EXIT
 + Final timestep: 6749

6750 TS (Timesteps)
715.114 ST (SIMULATION_TIME)
0.100037 TSS (Timestep size)
71.0546 SFS (Overall seconds for Simulation)
437983904 TP (Triangles processed)
0.0105266 ASPT (Averaged Seconds per Timestep)
64886.5 TPST (Triangles Processed in Average per Simulation Timestep)
48.6681 PPST (Clusters Processed in Average per Simulation Timestep)
6.16404 MTPS (Million Triangles per Second)
-6.16404 MTPSPT (Million Triangles per Second per Thread)
1.98018 EDMBPT (ElementData Megabyte per Timestep (RW))
188.112 EDMBPS (ElementData Megabyte per Second (RW))
SUM CLIENT SHUTDOWN HINT: 875.968
SUM CLIENT SHUTDOWN HINT DIV TIME: 0
76094: CHANGING RESSOURCES
76092: CHANGING RESSOURCES

 + Terminating after 1000 timesteps with equal number of triangles -> EXIT
 + Final timestep: 6749

6750 TS (Timesteps)
715.114 ST (SIMULATION_TIME)
0.100037 TSS (Timestep size)
71.64 SFS (Overall seconds for Simulation)
437983904 TP (Triangles processed)
0.0106133 ASPT (Averaged Seconds per Timestep)
64886.5 TPST (Triangles Processed in Average per Simulation Timestep)
48.6681 PPST (Clusters Processed in Average per Simulation Timestep)
6.11368 MTPS (Million Triangles per Second)
-6.11368 MTPSPT (Million Triangles per Second per Thread)
1.98018 EDMBPT (ElementData Megabyte per Timestep (RW))
186.575 EDMBPS (ElementData Megabyte per Second (RW))
SUM CLIENT SHUTDOWN HINT: 1313.95
SUM CLIENT SHUTDOWN HINT DIV TIME: 0
76087: CHANGING RESSOURCES
76099: CHANGING RESSOURCES

 + Terminating after 1000 timesteps with equal number of triangles -> EXIT
 + Final timestep: 6749

6750 TS (Timesteps)
715.114 ST (SIMULATION_TIME)
0.100037 TSS (Timestep size)
71.9005 SFS (Overall seconds for Simulation)
437983904 TP (Triangles processed)
0.0106519 ASPT (Averaged Seconds per Timestep)
64886.5 TPST (Triangles Processed in Average per Simulation Timestep)
48.6681 PPST (Clusters Processed in Average per Simulation Timestep)
6.09153 MTPS (Million Triangles per Second)
-6.09153 MTPSPT (Million Triangles per Second per Thread)
1.98018 EDMBPT (ElementData Megabyte per Timestep (RW))
185.899 EDMBPS (ElementData Megabyte per Second (RW))
SUM CLIENT SHUTDOWN HINT: 1751.94
SUM CLIENT SHUTDOWN HINT DIV TIME: 0
76078: CHANGING RESSOURCES
76095: CHANGING RESSOURCES

 + Terminating after 1000 timesteps with equal number of triangles -> EXIT
 + Final timestep: 6749

6750 TS (Timesteps)
715.114 ST (SIMULATION_TIME)
0.100037 TSS (Timestep size)
72.1948 SFS (Overall seconds for Simulation)
437983904 TP (Triangles processed)
0.0106955 ASPT (Averaged Seconds per Timestep)
64886.5 TPST (Triangles Processed in Average per Simulation Timestep)
48.6681 PPST (Clusters Processed in Average per Simulation Timestep)
6.06669 MTPS (Million Triangles per Second)
-6.06669 MTPSPT (Million Triangles per Second per Thread)
1.98018 EDMBPT (ElementData Megabyte per Timestep (RW))
185.141 EDMBPS (ElementData Megabyte per Second (RW))
SUM CLIENT SHUTDOWN HINT: 2189.92
SUM CLIENT SHUTDOWN HINT DIV TIME: 0
76085: CHANGING RESSOURCES
76086: CHANGING RESSOURCES

 + Terminating after 1000 timesteps with equal number of triangles -> EXIT
 + Final timestep: 6749

6750 TS (Timesteps)
715.114 ST (SIMULATION_TIME)
0.100037 TSS (Timestep size)
72.4379 SFS (Overall seconds for Simulation)
437983904 TP (Triangles processed)
0.0107315 ASPT (Averaged Seconds per Timestep)
64886.5 TPST (Triangles Processed in Average per Simulation Timestep)
48.6681 PPST (Clusters Processed in Average per Simulation Timestep)
6.04634 MTPS (Million Triangles per Second)
-6.04634 MTPSPT (Million Triangles per Second per Thread)
1.98018 EDMBPT (ElementData Megabyte per Timestep (RW))
184.52 EDMBPS (ElementData Megabyte per Second (RW))
SUM CLIENT SHUTDOWN HINT: 2627.9
SUM CLIENT SHUTDOWN HINT DIV TIME: 0
76093: CHANGING RESSOURCES
76083: CHANGING RESSOURCES

 + Terminating after 1000 timesteps with equal number of triangles -> EXIT
 + Final timestep: 6749

6750 TS (Timesteps)
715.114 ST (SIMULATION_TIME)
0.100037 TSS (Timestep size)
72.6682 SFS (Overall seconds for Simulation)
437983904 TP (Triangles processed)
0.0107657 ASPT (Averaged Seconds per Timestep)
64886.5 TPST (Triangles Processed in Average per Simulation Timestep)
48.6681 PPST (Clusters Processed in Average per Simulation Timestep)
6.02718 MTPS (Million Triangles per Second)
-6.02718 MTPSPT (Million Triangles per Second per Thread)
1.98018 EDMBPT (ElementData Megabyte per Timestep (RW))
183.935 EDMBPS (ElementData Megabyte per Second (RW))
SUM CLIENT SHUTDOWN HINT: 3065.89
SUM CLIENT SHUTDOWN HINT DIV TIME: 0
76081: CHANGING RESSOURCES

 + Terminating after 1000 timesteps with equal number of triangles -> EXIT
 + Final timestep: 6749

6750 TS (Timesteps)
715.114 ST (SIMULATION_TIME)
0.100037 TSS (Timestep size)
72.6752 SFS (Overall seconds for Simulation)
437983904 TP (Triangles processed)
0.0107667 ASPT (Averaged Seconds per Timestep)
64886.5 TPST (Triangles Processed in Average per Simulation Timestep)
48.6681 PPST (Clusters Processed in Average per Simulation Timestep)
6.02659 MTPS (Million Triangles per Second)
-6.02659 MTPSPT (Million Triangles per Second per Thread)
1.98018 EDMBPT (ElementData Megabyte per Timestep (RW))
183.917 EDMBPS (ElementData Megabyte per Second (RW))
SUM CLIENT SHUTDOWN HINT: 3503.87
SUM CLIENT SHUTDOWN HINT DIV TIME: 0
76090: CHANGING RESSOURCES
76091: CHANGING RESSOURCES

 + Terminating after 1000 timesteps with equal number of triangles -> EXIT
 + Final timestep: 6749

6750 TS (Timesteps)
715.114 ST (SIMULATION_TIME)
0.100037 TSS (Timestep size)
72.7859 SFS (Overall seconds for Simulation)
437983904 TP (Triangles processed)
0.0107831 ASPT (Averaged Seconds per Timestep)
64886.5 TPST (Triangles Processed in Average per Simulation Timestep)
48.6681 PPST (Clusters Processed in Average per Simulation Timestep)
6.01743 MTPS (Million Triangles per Second)
-6.01743 MTPSPT (Million Triangles per Second per Thread)
1.98018 EDMBPT (ElementData Megabyte per Timestep (RW))
183.637 EDMBPS (ElementData Megabyte per Second (RW))
SUM CLIENT SHUTDOWN HINT: 3941.86
SUM CLIENT SHUTDOWN HINT DIV TIME: 0
76092: CHANGING RESSOURCES

 + Terminating after 1000 timesteps with equal number of triangles -> EXIT
 + Final timestep: 6749

6750 TS (Timesteps)
715.114 ST (SIMULATION_TIME)
0.100037 TSS (Timestep size)
73.247 SFS (Overall seconds for Simulation)
437983904 TP (Triangles processed)
0.0108514 ASPT (Averaged Seconds per Timestep)
64886.5 TPST (Triangles Processed in Average per Simulation Timestep)
48.6681 PPST (Clusters Processed in Average per Simulation Timestep)
5.97955 MTPS (Million Triangles per Second)
-5.97955 MTPSPT (Million Triangles per Second per Thread)
1.98018 EDMBPT (ElementData Megabyte per Timestep (RW))
182.481 EDMBPS (ElementData Megabyte per Second (RW))
SUM CLIENT SHUTDOWN HINT: 4379.84
SUM CLIENT SHUTDOWN HINT DIV TIME: 0
76078: CHANGING RESSOURCES
76099: CHANGING RESSOURCES
76092: CHANGING RESSOURCES
76095: CHANGING RESSOURCES

 + Terminating after 1000 timesteps with equal number of triangles -> EXIT
 + Final timestep: 6749

6750 TS (Timesteps)
715.114 ST (SIMULATION_TIME)
0.100037 TSS (Timestep size)
73.3553 SFS (Overall seconds for Simulation)
437983904 TP (Triangles processed)
0.0108674 ASPT (Averaged Seconds per Timestep)
64886.5 TPST (Triangles Processed in Average per Simulation Timestep)
48.6681 PPST (Clusters Processed in Average per Simulation Timestep)
5.97072 MTPS (Million Triangles per Second)
-5.97072 MTPSPT (Million Triangles per Second per Thread)
1.98018 EDMBPT (ElementData Megabyte per Timestep (RW))
182.212 EDMBPS (ElementData Megabyte per Second (RW))
SUM CLIENT SHUTDOWN HINT: 4817.82
SUM CLIENT SHUTDOWN HINT DIV TIME: 0
76093: CHANGING RESSOURCES
76087: CHANGING RESSOURCES
76085: CHANGING RESSOURCES
76086: CHANGING RESSOURCES

 + Terminating after 1000 timesteps with equal number of triangles -> EXIT
 + Final timestep: 6749

6750 TS (Timesteps)
715.114 ST (SIMULATION_TIME)
0.100037 TSS (Timestep size)
73.4101 SFS (Overall seconds for Simulation)
437983904 TP (Triangles processed)
0.0108756 ASPT (Averaged Seconds per Timestep)
64886.5 TPST (Triangles Processed in Average per Simulation Timestep)
48.6681 PPST (Clusters Processed in Average per Simulation Timestep)
5.96626 MTPS (Million Triangles per Second)
-5.96626 MTPSPT (Million Triangles per Second per Thread)
1.98018 EDMBPT (ElementData Megabyte per Timestep (RW))
182.076 EDMBPS (ElementData Megabyte per Second (RW))
SUM CLIENT SHUTDOWN HINT: 5255.81
SUM CLIENT SHUTDOWN HINT DIV TIME: 0
76099: CHANGING RESSOURCES
76091: CHANGING RESSOURCES
76093: CHANGING RESSOURCES
76081: CHANGING RESSOURCES
76083: CHANGING RESSOURCES
76090: CHANGING RESSOURCES
Waiting for job 76078

 + Terminating after 1000 timesteps with equal number of triangles -> EXIT
 + Final timestep: 6749

6750 TS (Timesteps)
715.114 ST (SIMULATION_TIME)
0.100037 TSS (Timestep size)
93.1432 SFS (Overall seconds for Simulation)
437983904 TP (Triangles processed)
0.013799 ASPT (Averaged Seconds per Timestep)
64886.5 TPST (Triangles Processed in Average per Simulation Timestep)
48.6681 PPST (Clusters Processed in Average per Simulation Timestep)
4.70226 MTPS (Million Triangles per Second)
-4.70226 MTPSPT (Million Triangles per Second per Thread)
1.98018 EDMBPT (ElementData Megabyte per Timestep (RW))
143.502 EDMBPS (ElementData Megabyte per Second (RW))
SUM CLIENT SHUTDOWN HINT: 5693.79
SUM CLIENT SHUTDOWN HINT DIV TIME: 0
76098: CHANGING RESSOURCES
76081: CHANGING RESSOURCES
76096: CHANGING RESSOURCES
76103: CHANGING RESSOURCES
76093: CHANGING RESSOURCES

 + Terminating after 1000 timesteps with equal number of triangles -> EXIT
 + Final timestep: 6749

6750 TS (Timesteps)
715.114 ST (SIMULATION_TIME)
0.100037 TSS (Timestep size)
96.6166 SFS (Overall seconds for Simulation)
437983904 TP (Triangles processed)
0.0143136 ASPT (Averaged Seconds per Timestep)
64886.5 TPST (Triangles Processed in Average per Simulation Timestep)
48.6681 PPST (Clusters Processed in Average per Simulation Timestep)
4.53322 MTPS (Million Triangles per Second)
-4.53322 MTPSPT (Million Triangles per Second per Thread)
1.98018 EDMBPT (ElementData Megabyte per Timestep (RW))
138.343 EDMBPS (ElementData Megabyte per Second (RW))
SUM CLIENT SHUTDOWN HINT: 6131.77
SUM CLIENT SHUTDOWN HINT DIV TIME: 0
76092: CHANGING RESSOURCES
76094: CHANGING RESSOURCES

 + Terminating after 1000 timesteps with equal number of triangles -> EXIT
 + Final timestep: 6749

6750 TS (Timesteps)
715.114 ST (SIMULATION_TIME)
0.100037 TSS (Timestep size)
96.796 SFS (Overall seconds for Simulation)
437983904 TP (Triangles processed)
0.0143402 ASPT (Averaged Seconds per Timestep)
64886.5 TPST (Triangles Processed in Average per Simulation Timestep)
48.6681 PPST (Clusters Processed in Average per Simulation Timestep)
4.52481 MTPS (Million Triangles per Second)
-4.52481 MTPSPT (Million Triangles per Second per Thread)
1.98018 EDMBPT (ElementData Megabyte per Timestep (RW))
138.086 EDMBPS (ElementData Megabyte per Second (RW))
SUM CLIENT SHUTDOWN HINT: 6569.76
SUM CLIENT SHUTDOWN HINT DIV TIME: 0
76087: CHANGING RESSOURCES
76099: CHANGING RESSOURCES

 + Terminating after 1000 timesteps with equal number of triangles -> EXIT
 + Final timestep: 6749

6750 TS (Timesteps)
715.114 ST (SIMULATION_TIME)
0.100037 TSS (Timestep size)
97.0796 SFS (Overall seconds for Simulation)
437983904 TP (Triangles processed)
0.0143822 ASPT (Averaged Seconds per Timestep)
64886.5 TPST (Triangles Processed in Average per Simulation Timestep)
48.6681 PPST (Clusters Processed in Average per Simulation Timestep)
4.5116 MTPS (Million Triangles per Second)
-4.5116 MTPSPT (Million Triangles per Second per Thread)
1.98018 EDMBPT (ElementData Megabyte per Timestep (RW))
137.683 EDMBPS (ElementData Megabyte per Second (RW))
SUM CLIENT SHUTDOWN HINT: 7007.74
SUM CLIENT SHUTDOWN HINT DIV TIME: 0
76090: CHANGING RESSOURCES
76096: CHANGING RESSOURCES
76103: CHANGING RESSOURCES

 + Terminating after 1000 timesteps with equal number of triangles -> EXIT
 + Final timestep: 6749

6750 TS (Timesteps)
715.114 ST (SIMULATION_TIME)
0.100037 TSS (Timestep size)
97.6219 SFS (Overall seconds for Simulation)
437983904 TP (Triangles processed)
0.0144625 ASPT (Averaged Seconds per Timestep)
64886.5 TPST (Triangles Processed in Average per Simulation Timestep)
48.6681 PPST (Clusters Processed in Average per Simulation Timestep)
4.48653 MTPS (Million Triangles per Second)
-4.48653 MTPSPT (Million Triangles per Second per Thread)
1.98018 EDMBPT (ElementData Megabyte per Timestep (RW))
136.918 EDMBPS (ElementData Megabyte per Second (RW))
SUM CLIENT SHUTDOWN HINT: 7445.73
SUM CLIENT SHUTDOWN HINT DIV TIME: 0
76098: CHANGING RESSOURCES
76090: CHANGING RESSOURCES
76092: CHANGING RESSOURCES
76094: CHANGING RESSOURCES

 + Terminating after 1000 timesteps with equal number of triangles -> EXIT
 + Final timestep: 6749

6750 TS (Timesteps)
715.114 ST (SIMULATION_TIME)
0.100037 TSS (Timestep size)
97.691 SFS (Overall seconds for Simulation)
437983904 TP (Triangles processed)
0.0144727 ASPT (Averaged Seconds per Timestep)
64886.5 TPST (Triangles Processed in Average per Simulation Timestep)
48.6681 PPST (Clusters Processed in Average per Simulation Timestep)
4.48336 MTPS (Million Triangles per Second)
-4.48336 MTPSPT (Million Triangles per Second per Thread)
1.98018 EDMBPT (ElementData Megabyte per Timestep (RW))
136.821 EDMBPS (ElementData Megabyte per Second (RW))
SUM CLIENT SHUTDOWN HINT: 7883.71
SUM CLIENT SHUTDOWN HINT DIV TIME: 0
76090: CHANGING RESSOURCES
Waiting for job 76079
Waiting for job 76080
Waiting for job 76081
Waiting for job 76082
Waiting for job 76083
Waiting for job 76084
Waiting for job 76085
Waiting for job 76086
Waiting for job 76087

 + Terminating after 1000 timesteps with equal number of triangles -> EXIT
 + Final timestep: 6749

6750 TS (Timesteps)
715.114 ST (SIMULATION_TIME)
0.100037 TSS (Timestep size)
98.131 SFS (Overall seconds for Simulation)
437983904 TP (Triangles processed)
0.0145379 ASPT (Averaged Seconds per Timestep)
64886.5 TPST (Triangles Processed in Average per Simulation Timestep)
48.6681 PPST (Clusters Processed in Average per Simulation Timestep)
4.46326 MTPS (Million Triangles per Second)
-4.46326 MTPSPT (Million Triangles per Second per Thread)
1.98018 EDMBPT (ElementData Megabyte per Timestep (RW))
136.208 EDMBPS (ElementData Megabyte per Second (RW))
SUM CLIENT SHUTDOWN HINT: 8321.69
SUM CLIENT SHUTDOWN HINT DIV TIME: 0
76098: CHANGING RESSOURCES

 + Terminating after 1000 timesteps with equal number of triangles -> EXIT
 + Final timestep: 6749

6750 TS (Timesteps)
715.114 ST (SIMULATION_TIME)
0.100037 TSS (Timestep size)
98.1318 SFS (Overall seconds for Simulation)
437983904 TP (Triangles processed)
0.014538 ASPT (Averaged Seconds per Timestep)
64886.5 TPST (Triangles Processed in Average per Simulation Timestep)
48.6681 PPST (Clusters Processed in Average per Simulation Timestep)
4.46322 MTPS (Million Triangles per Second)
-4.46322 MTPSPT (Million Triangles per Second per Thread)
1.98018 EDMBPT (ElementData Megabyte per Timestep (RW))
136.207 EDMBPS (ElementData Megabyte per Second (RW))
SUM CLIENT SHUTDOWN HINT: 8759.68
SUM CLIENT SHUTDOWN HINT DIV TIME: 0
76087: CHANGING RESSOURCES
76093: CHANGING RESSOURCES
76096: CHANGING RESSOURCES
76103: CHANGING RESSOURCES

 + Terminating after 1000 timesteps with equal number of triangles -> EXIT
 + Final timestep: 6749

6750 TS (Timesteps)
715.114 ST (SIMULATION_TIME)
0.100037 TSS (Timestep size)
99.0937 SFS (Overall seconds for Simulation)
437983904 TP (Triangles processed)
0.0146805 ASPT (Averaged Seconds per Timestep)
64886.5 TPST (Triangles Processed in Average per Simulation Timestep)
48.6681 PPST (Clusters Processed in Average per Simulation Timestep)
4.4199 MTPS (Million Triangles per Second)
-4.4199 MTPSPT (Million Triangles per Second per Thread)
1.98018 EDMBPT (ElementData Megabyte per Timestep (RW))
134.885 EDMBPS (ElementData Megabyte per Second (RW))
SUM CLIENT SHUTDOWN HINT: 9197.66
SUM CLIENT SHUTDOWN HINT DIV TIME: 0
76096: CHANGING RESSOURCES
76087: CHANGING RESSOURCES
76092: CHANGING RESSOURCES
76094: CHANGING RESSOURCES
76099: CHANGING RESSOURCES

 + Terminating after 1000 timesteps with equal number of triangles -> EXIT
 + Final timestep: 6749

6750 TS (Timesteps)
715.114 ST (SIMULATION_TIME)
0.100037 TSS (Timestep size)
100.283 SFS (Overall seconds for Simulation)
437983904 TP (Triangles processed)
0.0148567 ASPT (Averaged Seconds per Timestep)
64886.5 TPST (Triangles Processed in Average per Simulation Timestep)
48.6681 PPST (Clusters Processed in Average per Simulation Timestep)
4.3675 MTPS (Million Triangles per Second)
-4.3675 MTPSPT (Million Triangles per Second per Thread)
1.98018 EDMBPT (ElementData Megabyte per Timestep (RW))
133.286 EDMBPS (ElementData Megabyte per Second (RW))
SUM CLIENT SHUTDOWN HINT: 9635.65
SUM CLIENT SHUTDOWN HINT DIV TIME: 0
76093: CHANGING RESSOURCES
76094: CHANGING RESSOURCES
76092: CHANGING RESSOURCES

 + Terminating after 1000 timesteps with equal number of triangles -> EXIT
 + Final timestep: 6749

6750 TS (Timesteps)
715.114 ST (SIMULATION_TIME)
0.100037 TSS (Timestep size)
100.53 SFS (Overall seconds for Simulation)
437983904 TP (Triangles processed)
0.0148933 ASPT (Averaged Seconds per Timestep)
64886.5 TPST (Triangles Processed in Average per Simulation Timestep)
48.6681 PPST (Clusters Processed in Average per Simulation Timestep)
4.35675 MTPS (Million Triangles per Second)
-4.35675 MTPSPT (Million Triangles per Second per Thread)
1.98018 EDMBPT (ElementData Megabyte per Timestep (RW))
132.957 EDMBPS (ElementData Megabyte per Second (RW))
SUM CLIENT SHUTDOWN HINT: 10073.6
SUM CLIENT SHUTDOWN HINT DIV TIME: 0
76092: CHANGING RESSOURCES
76096: CHANGING RESSOURCES
76099: CHANGING RESSOURCES
Waiting for job 76088
Waiting for job 76089
Waiting for job 76090
Waiting for job 76091
Waiting for job 76092

 + Terminating after 1000 timesteps with equal number of triangles -> EXIT
 + Final timestep: 6749

6750 TS (Timesteps)
715.114 ST (SIMULATION_TIME)
0.100037 TSS (Timestep size)
100.888 SFS (Overall seconds for Simulation)
437983904 TP (Triangles processed)
0.0149464 ASPT (Averaged Seconds per Timestep)
64886.5 TPST (Triangles Processed in Average per Simulation Timestep)
48.6681 PPST (Clusters Processed in Average per Simulation Timestep)
4.34129 MTPS (Million Triangles per Second)
-4.34129 MTPSPT (Million Triangles per Second per Thread)
1.98018 EDMBPT (ElementData Megabyte per Timestep (RW))
132.486 EDMBPS (ElementData Megabyte per Second (RW))
SUM CLIENT SHUTDOWN HINT: 10511.6
SUM CLIENT SHUTDOWN HINT DIV TIME: 0
76093: CHANGING RESSOURCES
76094: CHANGING RESSOURCES
76099: CHANGING RESSOURCES

 + Terminating after 1000 timesteps with equal number of triangles -> EXIT
 + Final timestep: 6749

6750 TS (Timesteps)
715.114 ST (SIMULATION_TIME)
0.100037 TSS (Timestep size)
101.287 SFS (Overall seconds for Simulation)
437983904 TP (Triangles processed)
0.0150054 ASPT (Averaged Seconds per Timestep)
64886.5 TPST (Triangles Processed in Average per Simulation Timestep)
48.6681 PPST (Clusters Processed in Average per Simulation Timestep)
4.32421 MTPS (Million Triangles per Second)
-4.32421 MTPSPT (Million Triangles per Second per Thread)
1.98018 EDMBPT (ElementData Megabyte per Timestep (RW))
131.964 EDMBPS (ElementData Megabyte per Second (RW))
SUM CLIENT SHUTDOWN HINT: 10949.6
SUM CLIENT SHUTDOWN HINT DIV TIME: 0
76094: CHANGING RESSOURCES
76092: CHANGING RESSOURCES
76099: CHANGING RESSOURCES

 + Terminating after 1000 timesteps with equal number of triangles -> EXIT
 + Final timestep: 6749

6750 TS (Timesteps)
715.114 ST (SIMULATION_TIME)
0.100037 TSS (Timestep size)
101.709 SFS (Overall seconds for Simulation)
437983904 TP (Triangles processed)
0.015068 ASPT (Averaged Seconds per Timestep)
64886.5 TPST (Triangles Processed in Average per Simulation Timestep)
48.6681 PPST (Clusters Processed in Average per Simulation Timestep)
4.30624 MTPS (Million Triangles per Second)
-4.30624 MTPSPT (Million Triangles per Second per Thread)
1.98018 EDMBPT (ElementData Megabyte per Timestep (RW))
131.416 EDMBPS (ElementData Megabyte per Second (RW))
SUM CLIENT SHUTDOWN HINT: 11387.6
SUM CLIENT SHUTDOWN HINT DIV TIME: 0
76099: CHANGING RESSOURCES
76092: CHANGING RESSOURCES

 + Terminating after 1000 timesteps with equal number of triangles -> EXIT
 + Final timestep: 6749

6750 TS (Timesteps)
715.114 ST (SIMULATION_TIME)
0.100037 TSS (Timestep size)
101.746 SFS (Overall seconds for Simulation)
437983904 TP (Triangles processed)
0.0150735 ASPT (Averaged Seconds per Timestep)
64886.5 TPST (Triangles Processed in Average per Simulation Timestep)
48.6681 PPST (Clusters Processed in Average per Simulation Timestep)
4.30469 MTPS (Million Triangles per Second)
-4.30469 MTPSPT (Million Triangles per Second per Thread)
1.98018 EDMBPT (ElementData Megabyte per Timestep (RW))
131.369 EDMBPS (ElementData Megabyte per Second (RW))
SUM CLIENT SHUTDOWN HINT: 11825.6
SUM CLIENT SHUTDOWN HINT DIV TIME: 0
76099: CHANGING RESSOURCES
Waiting for job 76093
Waiting for job 76094
Waiting for job 76095
Waiting for job 76096
Waiting for job 76097
Waiting for job 76098
Waiting for job 76099

 + Terminating after 1000 timesteps with equal number of triangles -> EXIT
 + Final timestep: 6749

6750 TS (Timesteps)
715.114 ST (SIMULATION_TIME)
0.100037 TSS (Timestep size)
102.73 SFS (Overall seconds for Simulation)
437983904 TP (Triangles processed)
0.0152193 ASPT (Averaged Seconds per Timestep)
64886.5 TPST (Triangles Processed in Average per Simulation Timestep)
48.6681 PPST (Clusters Processed in Average per Simulation Timestep)
4.26343 MTPS (Million Triangles per Second)
-4.26343 MTPSPT (Million Triangles per Second per Thread)
1.98018 EDMBPT (ElementData Megabyte per Timestep (RW))
130.11 EDMBPS (ElementData Megabyte per Second (RW))
SUM CLIENT SHUTDOWN HINT: 12263.5
SUM CLIENT SHUTDOWN HINT DIV TIME: 119.576
Waiting for job 76100
Waiting for job 76101
Waiting for job 76102
Waiting for job 76103
Waiting for job 76104
Sat Mar 31 15:47:38 CEST 2012
Seconds: 103
