MODE: ipmo_prog0
PARCOUNT: 33
PROBLEMS: 1
Running on INWEST
Using iPMO

Programs:
 + ../../build/sierpi_intel_ipmo_tsunami_parallel_release  -u 10 -U 10 -T 1000 -n 40 -d 12
 + ../../build/sierpi_intel_ipmo_tsunami_parallel_release  -u 10 -U 10 -T 1000 -n 40 -d 12
 + ../../build/sierpi_intel_ipmo_tsunami_parallel_release  -u 10 -U 10 -T 1000 -n 40 -d 10
 + ../../build/sierpi_intel_ipmo_tsunami_parallel_release  -u 10 -U 10 -T 1000 -n 40 -d 12
 + ../../build/sierpi_intel_ipmo_tsunami_parallel_release  -u 10 -U 10 -T 1000 -n 40 -d 10

Sat Mar 31 15:54:57 CEST 2012
iPMO: Prog0 parallel execution with ipmo (33 times)
Waiting for job 6827
6837: CHANGING RESSOURCES
6837: CHANGING RESSOURCES
6849: CHANGING RESSOURCES
6839: CHANGING RESSOURCES
6833: CHANGING RESSOURCES
6834: CHANGING RESSOURCES
6858: CHANGING RESSOURCES
6857: CHANGING RESSOURCES
6855: CHANGING RESSOURCES
6850: CHANGING RESSOURCES
6843: CHANGING RESSOURCES
6846: CHANGING RESSOURCES
6844: CHANGING RESSOURCES
6847: CHANGING RESSOURCES
6830: CHANGING RESSOURCES
6851: CHANGING RESSOURCES
6829: CHANGING RESSOURCES
6841: CHANGING RESSOURCES
6852: CHANGING RESSOURCES
6854: CHANGING RESSOURCES
6840: CHANGING RESSOURCES
6838: CHANGING RESSOURCES
6828: CHANGING RESSOURCES
6827: CHANGING RESSOURCES
6836: CHANGING RESSOURCES
6845: CHANGING RESSOURCES
6831: CHANGING RESSOURCES
6848: CHANGING RESSOURCES
6853: CHANGING RESSOURCES
6859: CHANGING RESSOURCES
6835: CHANGING RESSOURCES
6832: CHANGING RESSOURCES
6842: CHANGING RESSOURCES
6856: CHANGING RESSOURCES

 + Terminating after 1000 timesteps with equal number of triangles -> EXIT
 + Final timestep: 6749

6750 TS (Timesteps)
715.114 ST (SIMULATION_TIME)
0.100037 TSS (Timestep size)
73.5679 SFS (Overall seconds for Simulation)
437983904 TP (Triangles processed)
0.0108989 ASPT (Averaged Seconds per Timestep)
64886.5 TPST (Triangles Processed in Average per Simulation Timestep)
48.6681 PPST (Clusters Processed in Average per Simulation Timestep)
5.95347 MTPS (Million Triangles per Second)
-5.95347 MTPSPT (Million Triangles per Second per Thread)
1.98018 EDMBPT (ElementData Megabyte per Timestep (RW))
181.685 EDMBPS (ElementData Megabyte per Second (RW))
SUM CLIENT SHUTDOWN HINT: 437.984
SUM CLIENT SHUTDOWN HINT DIV TIME: 0
6856: CHANGING RESSOURCES
6847: CHANGING RESSOURCES
6835: CHANGING RESSOURCES

 + Terminating after 1000 timesteps with equal number of triangles -> EXIT
 + Final timestep: 6749

6750 TS (Timesteps)
715.114 ST (SIMULATION_TIME)
0.100037 TSS (Timestep size)
73.8763 SFS (Overall seconds for Simulation)
437983904 TP (Triangles processed)
0.0109446 ASPT (Averaged Seconds per Timestep)
64886.5 TPST (Triangles Processed in Average per Simulation Timestep)
48.6681 PPST (Clusters Processed in Average per Simulation Timestep)
5.92861 MTPS (Million Triangles per Second)
-5.92861 MTPSPT (Million Triangles per Second per Thread)
1.98018 EDMBPT (ElementData Megabyte per Timestep (RW))
180.927 EDMBPS (ElementData Megabyte per Second (RW))
SUM CLIENT SHUTDOWN HINT: 875.968
SUM CLIENT SHUTDOWN HINT DIV TIME: 0
6835: CHANGING RESSOURCES
6828: CHANGING RESSOURCES
6853: CHANGING RESSOURCES
6834: CHANGING RESSOURCES

 + Terminating after 1000 timesteps with equal number of triangles -> EXIT
 + Final timestep: 6749

6750 TS (Timesteps)
715.114 ST (SIMULATION_TIME)
0.100037 TSS (Timestep size)
74.3885 SFS (Overall seconds for Simulation)
437983904 TP (Triangles processed)
0.0110205 ASPT (Averaged Seconds per Timestep)
64886.5 TPST (Triangles Processed in Average per Simulation Timestep)
48.6681 PPST (Clusters Processed in Average per Simulation Timestep)
5.88779 MTPS (Million Triangles per Second)
-5.88779 MTPSPT (Million Triangles per Second per Thread)
1.98018 EDMBPT (ElementData Megabyte per Timestep (RW))
179.681 EDMBPS (ElementData Megabyte per Second (RW))
SUM CLIENT SHUTDOWN HINT: 1313.95
SUM CLIENT SHUTDOWN HINT DIV TIME: 0
6858: CHANGING RESSOURCES
6846: CHANGING RESSOURCES
6828: CHANGING RESSOURCES
6851: CHANGING RESSOURCES

 + Terminating after 1000 timesteps with equal number of triangles -> EXIT
 + Final timestep: 6749

6750 TS (Timesteps)
715.114 ST (SIMULATION_TIME)
0.100037 TSS (Timestep size)
75.3147 SFS (Overall seconds for Simulation)
437983904 TP (Triangles processed)
0.0111577 ASPT (Averaged Seconds per Timestep)
64886.5 TPST (Triangles Processed in Average per Simulation Timestep)
48.6681 PPST (Clusters Processed in Average per Simulation Timestep)
5.81538 MTPS (Million Triangles per Second)
-5.81538 MTPSPT (Million Triangles per Second per Thread)
1.98018 EDMBPT (ElementData Megabyte per Timestep (RW))
177.471 EDMBPS (ElementData Megabyte per Second (RW))
SUM CLIENT SHUTDOWN HINT: 1751.94
SUM CLIENT SHUTDOWN HINT DIV TIME: 0
6836: CHANGING RESSOURCES
6848: CHANGING RESSOURCES

 + Terminating after 1000 timesteps with equal number of triangles -> EXIT
 + Final timestep: 6749

6750 TS (Timesteps)
715.114 ST (SIMULATION_TIME)
0.100037 TSS (Timestep size)
77.0051 SFS (Overall seconds for Simulation)
437983904 TP (Triangles processed)
0.0114082 ASPT (Averaged Seconds per Timestep)
64886.5 TPST (Triangles Processed in Average per Simulation Timestep)
48.6681 PPST (Clusters Processed in Average per Simulation Timestep)
5.68772 MTPS (Million Triangles per Second)
-5.68772 MTPSPT (Million Triangles per Second per Thread)
1.98018 EDMBPT (ElementData Megabyte per Timestep (RW))
173.576 EDMBPS (ElementData Megabyte per Second (RW))
SUM CLIENT SHUTDOWN HINT: 2189.92
SUM CLIENT SHUTDOWN HINT DIV TIME: 0
6829: CHANGING RESSOURCES
6844: CHANGING RESSOURCES

 + Terminating after 1000 timesteps with equal number of triangles -> EXIT
 + Final timestep: 6749

6750 TS (Timesteps)
715.114 ST (SIMULATION_TIME)
0.100037 TSS (Timestep size)
77.532 SFS (Overall seconds for Simulation)
437983904 TP (Triangles processed)
0.0114862 ASPT (Averaged Seconds per Timestep)
64886.5 TPST (Triangles Processed in Average per Simulation Timestep)
48.6681 PPST (Clusters Processed in Average per Simulation Timestep)
5.64907 MTPS (Million Triangles per Second)
-5.64907 MTPSPT (Million Triangles per Second per Thread)
1.98018 EDMBPT (ElementData Megabyte per Timestep (RW))
172.396 EDMBPS (ElementData Megabyte per Second (RW))
SUM CLIENT SHUTDOWN HINT: 2627.9
SUM CLIENT SHUTDOWN HINT DIV TIME: 0
6833: CHANGING RESSOURCES
6838: CHANGING RESSOURCES

 + Terminating after 1000 timesteps with equal number of triangles -> EXIT
 + Final timestep: 6749

6750 TS (Timesteps)
715.114 ST (SIMULATION_TIME)
0.100037 TSS (Timestep size)
79.5892 SFS (Overall seconds for Simulation)
437983904 TP (Triangles processed)
0.011791 ASPT (Averaged Seconds per Timestep)
64886.5 TPST (Triangles Processed in Average per Simulation Timestep)
48.6681 PPST (Clusters Processed in Average per Simulation Timestep)
5.50306 MTPS (Million Triangles per Second)
-5.50306 MTPSPT (Million Triangles per Second per Thread)
1.98018 EDMBPT (ElementData Megabyte per Timestep (RW))
167.94 EDMBPS (ElementData Megabyte per Second (RW))
SUM CLIENT SHUTDOWN HINT: 3065.89
SUM CLIENT SHUTDOWN HINT DIV TIME: 0
6831: CHANGING RESSOURCES

 + Terminating after 1000 timesteps with equal number of triangles -> EXIT
 + Final timestep: 6749

6750 TS (Timesteps)
715.114 ST (SIMULATION_TIME)
0.100037 TSS (Timestep size)
105.056 SFS (Overall seconds for Simulation)
437983904 TP (Triangles processed)
0.0155638 ASPT (Averaged Seconds per Timestep)
64886.5 TPST (Triangles Processed in Average per Simulation Timestep)
48.6681 PPST (Clusters Processed in Average per Simulation Timestep)
4.16907 MTPS (Million Triangles per Second)
-4.16907 MTPSPT (Million Triangles per Second per Thread)
1.98018 EDMBPT (ElementData Megabyte per Timestep (RW))
127.23 EDMBPS (ElementData Megabyte per Second (RW))
SUM CLIENT SHUTDOWN HINT: 3503.87
SUM CLIENT SHUTDOWN HINT DIV TIME: 0
6854: CHANGING RESSOURCES
6843: CHANGING RESSOURCES

 + Terminating after 1000 timesteps with equal number of triangles -> EXIT
 + Final timestep: 6749

6750 TS (Timesteps)
715.114 ST (SIMULATION_TIME)
0.100037 TSS (Timestep size)
106.061 SFS (Overall seconds for Simulation)
437983904 TP (Triangles processed)
0.0157128 ASPT (Averaged Seconds per Timestep)
64886.5 TPST (Triangles Processed in Average per Simulation Timestep)
48.6681 PPST (Clusters Processed in Average per Simulation Timestep)
4.12954 MTPS (Million Triangles per Second)
-4.12954 MTPSPT (Million Triangles per Second per Thread)
1.98018 EDMBPT (ElementData Megabyte per Timestep (RW))
126.024 EDMBPS (ElementData Megabyte per Second (RW))
SUM CLIENT SHUTDOWN HINT: 3941.86
SUM CLIENT SHUTDOWN HINT DIV TIME: 0
6840: CHANGING RESSOURCES
6857: CHANGING RESSOURCES

 + Terminating after 1000 timesteps with equal number of triangles -> EXIT
 + Final timestep: 6749

6750 TS (Timesteps)
715.114 ST (SIMULATION_TIME)
0.100037 TSS (Timestep size)
106.097 SFS (Overall seconds for Simulation)
437983904 TP (Triangles processed)
0.015718 ASPT (Averaged Seconds per Timestep)
64886.5 TPST (Triangles Processed in Average per Simulation Timestep)
48.6681 PPST (Clusters Processed in Average per Simulation Timestep)
4.12815 MTPS (Million Triangles per Second)
-4.12815 MTPSPT (Million Triangles per Second per Thread)
1.98018 EDMBPT (ElementData Megabyte per Timestep (RW))
125.981 EDMBPS (ElementData Megabyte per Second (RW))
SUM CLIENT SHUTDOWN HINT: 4379.84
SUM CLIENT SHUTDOWN HINT DIV TIME: 0
6827: CHANGING RESSOURCES
6855: CHANGING RESSOURCES

 + Terminating after 1000 timesteps with equal number of triangles -> EXIT
 + Final timestep: 6749

6750 TS (Timesteps)
715.114 ST (SIMULATION_TIME)
0.100037 TSS (Timestep size)
106.474 SFS (Overall seconds for Simulation)
437983904 TP (Triangles processed)
0.015774 ASPT (Averaged Seconds per Timestep)
64886.5 TPST (Triangles Processed in Average per Simulation Timestep)
48.6681 PPST (Clusters Processed in Average per Simulation Timestep)
4.11352 MTPS (Million Triangles per Second)
-4.11352 MTPSPT (Million Triangles per Second per Thread)
1.98018 EDMBPT (ElementData Megabyte per Timestep (RW))
125.535 EDMBPS (ElementData Megabyte per Second (RW))
SUM CLIENT SHUTDOWN HINT: 4817.82
SUM CLIENT SHUTDOWN HINT DIV TIME: 0
6859: CHANGING RESSOURCES
6849: CHANGING RESSOURCES

 + Terminating after 1000 timesteps with equal number of triangles -> EXIT
 + Final timestep: 6749

6750 TS (Timesteps)
715.114 ST (SIMULATION_TIME)
0.100037 TSS (Timestep size)
106.847 SFS (Overall seconds for Simulation)
437983904 TP (Triangles processed)
0.0158292 ASPT (Averaged Seconds per Timestep)
64886.5 TPST (Triangles Processed in Average per Simulation Timestep)
48.6681 PPST (Clusters Processed in Average per Simulation Timestep)
4.09917 MTPS (Million Triangles per Second)
-4.09917 MTPSPT (Million Triangles per Second per Thread)
1.98018 EDMBPT (ElementData Megabyte per Timestep (RW))
125.097 EDMBPS (ElementData Megabyte per Second (RW))
SUM CLIENT SHUTDOWN HINT: 5255.81
SUM CLIENT SHUTDOWN HINT DIV TIME: 0
6832: CHANGING RESSOURCES
6842: CHANGING RESSOURCES

 + Terminating after 1000 timesteps with equal number of triangles -> EXIT
 + Final timestep: 6749

6750 TS (Timesteps)
715.114 ST (SIMULATION_TIME)
0.100037 TSS (Timestep size)
109.105 SFS (Overall seconds for Simulation)
437983904 TP (Triangles processed)
0.0161637 ASPT (Averaged Seconds per Timestep)
64886.5 TPST (Triangles Processed in Average per Simulation Timestep)
48.6681 PPST (Clusters Processed in Average per Simulation Timestep)
4.01434 MTPS (Million Triangles per Second)
-4.01434 MTPSPT (Million Triangles per Second per Thread)
1.98018 EDMBPT (ElementData Megabyte per Timestep (RW))
122.508 EDMBPS (ElementData Megabyte per Second (RW))
SUM CLIENT SHUTDOWN HINT: 5693.79
SUM CLIENT SHUTDOWN HINT DIV TIME: 0
6835: CHANGING RESSOURCES
6828: CHANGING RESSOURCES

 + Terminating after 1000 timesteps with equal number of triangles -> EXIT
 + Final timestep: 6749

6750 TS (Timesteps)
715.114 ST (SIMULATION_TIME)
0.100037 TSS (Timestep size)
109.127 SFS (Overall seconds for Simulation)
437983904 TP (Triangles processed)
0.016167 ASPT (Averaged Seconds per Timestep)
64886.5 TPST (Triangles Processed in Average per Simulation Timestep)
48.6681 PPST (Clusters Processed in Average per Simulation Timestep)
4.01352 MTPS (Million Triangles per Second)
-4.01352 MTPSPT (Million Triangles per Second per Thread)
1.98018 EDMBPT (ElementData Megabyte per Timestep (RW))
122.483 EDMBPS (ElementData Megabyte per Second (RW))
SUM CLIENT SHUTDOWN HINT: 6131.77
SUM CLIENT SHUTDOWN HINT DIV TIME: 0
6831: CHANGING RESSOURCES
6854: CHANGING RESSOURCES

 + Terminating after 1000 timesteps with equal number of triangles -> EXIT
 + Final timestep: 6749

6750 TS (Timesteps)
715.114 ST (SIMULATION_TIME)
0.100037 TSS (Timestep size)
109.15 SFS (Overall seconds for Simulation)
437983904 TP (Triangles processed)
0.0161704 ASPT (Averaged Seconds per Timestep)
64886.5 TPST (Triangles Processed in Average per Simulation Timestep)
48.6681 PPST (Clusters Processed in Average per Simulation Timestep)
4.01268 MTPS (Million Triangles per Second)
-4.01268 MTPSPT (Million Triangles per Second per Thread)
1.98018 EDMBPT (ElementData Megabyte per Timestep (RW))
122.457 EDMBPS (ElementData Megabyte per Second (RW))
SUM CLIENT SHUTDOWN HINT: 6569.76
SUM CLIENT SHUTDOWN HINT DIV TIME: 0
6843: CHANGING RESSOURCES
6 + Terminating after 1000 timesteps with equal number of triangles -> EXIT
 + Final timestep: 6749

6750 TS (Timesteps)
715.114 ST (SIMULATION_TIME)
0.100037 TSS (Timestep size)
109.156 SFS (Overall seconds for Simulation)
437983904 TP (Triangles processed)
0.0161713 ASPT (Averaged Seconds per Timestep)
64886.5 TPST (Triangles Processed in Average per Simulation Timestep)
48.6681 PPST (Clusters Processed in Average per Simulation Timestep)
4.01245 MTPS (Million Triangles per Second)
-4.01245 MTPSPT (Million Triangles per Second per Thread)
1.98018 EDMBPT (ElementData Megabyte per Timestep (RW))
122.45 EDMBPS (ElementData Megabyte per Second (RW))
SUM CLIENT SHUTDOWN HINT: 7007.74
SUM CLIENT SHUTDOWN HINT DIV TIME: 0
6854: CHANGING RESSOURCES
6827: CHANGING RESSOURCES
6857: CHANGING RESSOURCES
6859: CHANGING RESSOURCES
6855: CHANGING RESSOURCES

 + Terminating after 1000 timesteps with equal number of triangles -> EXIT
 + Final timestep: 6749

6750 TS (Timesteps)
715.114 ST (SIMULATION_TIME)
0.100037 TSS (Timestep size)
109.837 SFS (Overall seconds for Simulation)
437983904 TP (Triangles processed)
0.0162721 ASPT (Averaged Seconds per Timestep)
64886.5 TPST (Triangles Processed in Average per Simulation Timestep)
48.6681 PPST (Clusters Processed in Average per Simulation Timestep)
3.9876 MTPS (Million Triangles per Second)
-3.9876 MTPSPT (Million Triangles per Second per Thread)
1.98018 EDMBPT (ElementData Megabyte per Timestep (RW))
121.692 EDMBPS (ElementData Megabyte per Second (RW))
SUM CLIENT SHUTDOWN HINT: 7445.73
SUM CLIENT SHUTDOWN HINT DIV TIME: 0
6832: CHANGING RESSOURCES
6849: CHANGING RESSOURCES
6843: CHANGING RESSOURCES
6835: CHANGING RESSOURCES
6842: CHANGING RESSOURCES

 + Terminating after 1000 timesteps with equal number of triangles -> EXIT
 + Final timestep: 6749

6750 TS (Timesteps)
715.114 ST (SIMULATION_TIME)
0.100037 TSS (Timestep size)
110.212 SFS (Overall seconds for Simulation)
437983904 TP (Triangles processed)
0.0163277 ASPT (Averaged Seconds per Timestep)
64886.5 TPST (Triangles Processed in Average per Simulation Timestep)
48.6681 PPST (Clusters Processed in Average per Simulation Timestep)
3.97402 MTPS (Million Triangles per Second)
-3.97402 MTPSPT (Million Triangles per Second per Thread)
1.98018 EDMBPT (ElementData Megabyte per Timestep (RW))
121.277 EDMBPS (ElementData Megabyte per Second (RW))
SUM CLIENT SHUTDOWN HINT: 7883.71
SUM CLIENT SHUTDOWN HINT DIV TIME: 0
6834: CHANGING RESSOURCES
6844: CHANGING RESSOURCES
6857: CHANGING RESSOURCES
6828: CHANGING RESSOURCES
6842: CHANGING RESSOURCES
6859: CHANGING RESSOURCES

 + Terminating after 1000 timesteps with equal number of triangles -> EXIT
 + Final timestep: 6749

6750 TS (Timesteps)
715.114 ST (SIMULATION_TIME)
0.100037 TSS (Timestep size)
110.252 SFS (Overall seconds for Simulation)
437983904 TP (Triangles processed)
0.0163336 ASPT (Averaged Seconds per Timestep)
64886.5 TPST (Triangles Processed in Average per Simulation Timestep)
48.6681 PPST (Clusters Processed in Average per Simulation Timestep)
3.97258 MTPS (Million Triangles per Second)
-3.97258 MTPSPT (Million Triangles per Second per Thread)
1.98018 EDMBPT (ElementData Megabyte per Timestep (RW))
121.234 EDMBPS (ElementData Megabyte per Second (RW))
SUM CLIENT SHUTDOWN HINT: 8321.69
SUM CLIENT SHUTDOWN HINT DIV TIME: 0
6829: CHANGING RESSOURCES
6843: CHANGING RESSOURCES
6854: CHANGING RESSOURCES
6842: CHANGING RESSOURCES

 + Terminating after 1000 timesteps with equal number of triangles -> EXIT
 + Final timestep: 6749

6750 TS (Timesteps)
715.114 ST (SIMULATION_TIME)
0.100037 TSS (Timestep size)
110.352 SFS (Overall seconds for Simulation)
437983904 TP (Triangles processed)
0.0163484 ASPT (Averaged Seconds per Timestep)
64886.5 TPST (Triangles Processed in Average per Simulation Timestep)
48.6681 PPST (Clusters Processed in Average per Simulation Timestep)
3.96898 MTPS (Million Triangles per Second)
-3.96898 MTPSPT (Million Triangles per Second per Thread)
1.98018 EDMBPT (ElementData Megabyte per Timestep (RW))
121.124 EDMBPS (ElementData Megabyte per Second (RW))
SUM CLIENT SHUTDOWN HINT: 8759.68
SUM CLIENT SHUTDOWN HINT DIV TIME: 0
6840: CHANGING RESSOURCES
6857: CHANGING RESSOURCES

 + Terminating after 1000 timesteps with equal number of triangles -> EXIT
 + Final timestep: 6749

6750 TS (Timesteps)
715.114 ST (SIMULATION_TIME)
0.100037 TSS (Timestep size)
111.195 SFS (Overall seconds for Simulation)
437983904 TP (Triangles processed)
0.0164733 ASPT (Averaged Seconds per Timestep)
64886.5 TPST (Triangles Processed in Average per Simulation Timestep)
48.6681 PPST (Clusters Processed in Average per Simulation Timestep)
3.9389 MTPS (Million Triangles per Second)
-3.9389 MTPSPT (Million Triangles per Second per Thread)
1.98018 EDMBPT (ElementData Megabyte per Timestep (RW))
120.206 EDMBPS (ElementData Megabyte per Second (RW))
SUM CLIENT SHUTDOWN HINT: 9197.66
SUM CLIENT SHUTDOWN HINT DIV TIME: 0
6835: CHANGING RESSOURCES
6840: CHANGING RESSOURCES
6828: CHANGING RESSOURCES
6854: CHANGING RESSOURCES

 + Terminating after 1000 timesteps with equal number of triangles -> EXIT
 + Final timestep: 6749

6750 TS (Timesteps)
715.114 ST (SIMULATION_TIME)
0.100037 TSS (Timestep size)
116.349 SFS (Overall seconds for Simulation)
437983904 TP (Triangles processed)
0.0172368 ASPT (Averaged Seconds per Timestep)
64886.5 TPST (Triangles Processed in Average per Simulation Timestep)
48.6681 PPST (Clusters Processed in Average per Simulation Timestep)
3.76441 MTPS (Million Triangles per Second)
-3.76441 MTPSPT (Million Triangles per Second per Thread)
1.98018 EDMBPT (ElementData Megabyte per Timestep (RW))
114.881 EDMBPS (ElementData Megabyte per Second (RW))
SUM CLIENT SHUTDOWN HINT: 9635.65
SUM CLIENT SHUTDOWN HINT DIV TIME: 0
6827: CHANGING RESSOURCES
6849: CHANGING RESSOURCES
6835: CHANGING RESSOURCES
6843: CHANGING RESSOURCES
6857: CHANGING RESSOURCES
6840: CHANGING RESSOURCES

 + Terminating after 1000 timesteps with equal number of triangles -> EXIT
 + Final timestep: 6749

6750 TS (Timesteps)
715.114 ST (SIMULATION_TIME)
0.100037 TSS (Timestep size)
117.73 SFS (Overall seconds for Simulation)
437983904 TP (Triangles processed)
0.0174415 ASPT (Averaged Seconds per Timestep)
64886.5 TPST (Triangles Processed in Average per Simulation Timestep)
48.6681 PPST (Clusters Processed in Average per Simulation Timestep)
3.72023 MTPS (Million Triangles per Second)
-3.72023 MTPSPT (Million Triangles per Second per Thread)
1.98018 EDMBPT (ElementData Megabyte per Timestep (RW))
113.532 EDMBPS (ElementData Megabyte per Second (RW))
SUM CLIENT SHUTDOWN HINT: 10073.6
SUM CLIENT SHUTDOWN HINT DIV TIME: 0
6835: CHANGING RESSOURCES
6832: CHANGING RESSOURCES

 + Terminating after 1000 timesteps with equal number of triangles -> EXIT
 + Final timestep: 6749

6750 TS (Timesteps)
715.114 ST (SIMULATION_TIME)
0.100037 TSS (Timestep size)
117.767 SFS (Overall seconds for Simulation)
437983904 TP (Triangles processed)
0.017447 ASPT (Averaged Seconds per Timestep)
64886.5 TPST (Triangles Processed in Average per Simulation Timestep)
48.6681 PPST (Clusters Processed in Average per Simulation Timestep)
3.71907 MTPS (Million Triangles per Second)
-3.71907 MTPSPT (Million Triangles per Second per Thread)
1.98018 EDMBPT (ElementData Megabyte per Timestep (RW))
113.497 EDMBPS (ElementData Megabyte per Second (RW))
SUM CLIENT SHUTDOWN HINT: 10511.6
SUM CLIENT SHUTDOWN HINT DIV TIME: 0
6827: CHANGING RESSOURCES
6857: CHANGING RESSOURCES
6840: CHANGING RESSOURCES

 + Terminating after 1000 timesteps with equal number of triangles -> EXIT
 + Final timestep: 6749

6750 TS (Timesteps)
715.114 ST (SIMULATION_TIME)
0.100037 TSS (Timestep size)
117.977 SFS (Overall seconds for Simulation)
437983904 TP (Triangles processed)
0.0174781 ASPT (Averaged Seconds per Timestep)
64886.5 TPST (Triangles Processed in Average per Simulation Timestep)
48.6681 PPST (Clusters Processed in Average per Simulation Timestep)
3.71245 MTPS (Million Triangles per Second)
-3.71245 MTPSPT (Million Triangles per Second per Thread)
1.98018 EDMBPT (ElementData Megabyte per Timestep (RW))
113.295 EDMBPS (ElementData Megabyte per Second (RW))
SUM CLIENT SHUTDOWN HINT: 10949.6
SUM CLIENT SHUTDOWN HINT DIV TIME: 0
6835: CHANGING RESSOURCES
6828: CHANGING RESSOURCES
6832: CHANGING RESSOURCES
6849: CHANGING RESSOURCES

 + Terminating after 1000 timesteps with equal number of triangles -> EXIT
 + Final timestep: 6749

6750 TS (Timesteps)
715.114 ST (SIMULATION_TIME)
0.100037 TSS (Timestep size)
118.338 SFS (Overall seconds for Simulation)
437983904 TP (Triangles processed)
0.0175315 ASPT (Averaged Seconds per Timestep)
64886.5 TPST (Triangles Processed in Average per Simulation Timestep)
48.6681 PPST (Clusters Processed in Average per Simulation Timestep)
3.70114 MTPS (Million Triangles per Second)
-3.70114 MTPSPT (Million Triangles per Second per Thread)
1.98018 EDMBPT (ElementData Megabyte per Timestep (RW))
112.95 EDMBPS (ElementData Megabyte per Second (RW))
SUM CLIENT SHUTDOWN HINT: 11387.6
SUM CLIENT SHUTDOWN HINT DIV TIME: 0
6832: CHANGING RESSOURCES
6857: CHANGING RESSOURCES
6827: CHANGING RESSOURCES
6849: CHANGING RESSOURCES

 + Terminating after 1000 timesteps with equal number of triangles -> EXIT
 + Final timestep: 6749

6750 TS (Timesteps)
715.114 ST (SIMULATION_TIME)
0.100037 TSS (Timestep size)
118.389 SFS (Overall seconds for Simulation)
437983904 TP (Triangles processed)
0.0175391 ASPT (Averaged Seconds per Timestep)
64886.5 TPST (Triangles Processed in Average per Simulation Timestep)
48.6681 PPST (Clusters Processed in Average per Simulation Timestep)
3.69954 MTPS (Million Triangles per Second)
-3.69954 MTPSPT (Million Triangles per Second per Thread)
1.98018 EDMBPT (ElementData Megabyte per Timestep (RW))
112.901 EDMBPS (ElementData Megabyte per Second (RW))
SUM CLIENT SHUTDOWN HINT: 11825.6
SUM CLIENT SHUTDOWN HINT DIV TIME: 0
6832: CHANGING RESSOURCES
6835: CHANGING RESSOURCES
6849: CHANGING RESSOURCES
Waiting for job 6828

 + Terminating after 1000 timesteps with equal number of triangles -> EXIT
 + Final timestep: 6749

6750 TS (Timesteps)
715.114 ST (SIMULATION_TIME)
0.100037 TSS (Timestep size)
118.474 SFS (Overall seconds for Simulation)
437983904 TP (Triangles processed)
0.0175516 ASPT (Averaged Seconds per Timestep)
64886.5 TPST (Triangles Processed in Average per Simulation Timestep)
48.6681 PPST (Clusters Processed in Average per Simulation Timestep)
3.69689 MTPS (Million Triangles per Second)
-3.69689 MTPSPT (Million Triangles per Second per Thread)
1.98018 EDMBPT (ElementData Megabyte per Timestep (RW))
112.82 EDMBPS (ElementData Megabyte per Second (RW))
SUM CLIENT SHUTDOWN HINT: 12263.5
SUM CLIENT SHUTDOWN HINT DIV TIME: 0
6832: CHANGING RESSOURCES
6843: CHANGING RESSOURCES

 + Terminating after 1000 timesteps with equal number of triangles -> EXIT
 + Final timestep: 6749

6750 TS (Timesteps)
715.114 ST (SIMULATION_TIME)
0.100037 TSS (Timestep size)
118.507 SFS (Overall seconds for Simulation)
437983904 TP (Triangles processed)
0.0175566 ASPT (Averaged Seconds per Timestep)
64886.5 TPST (Triangles Processed in Average per Simulation Timestep)
48.6681 PPST (Clusters Processed in Average per Simulation Timestep)
3.69585 MTPS (Million Triangles per Second)
-3.69585 MTPSPT (Million Triangles per Second per Thread)
1.98018 EDMBPT (ElementData Megabyte per Timestep (RW))
112.788 EDMBPS (ElementData Megabyte per Second (RW))
SUM CLIENT SHUTDOWN HINT: 12701.5
SUM CLIENT SHUTDOWN HINT DIV TIME: 0
6849: CHANGING RESSOURCES
6835: CHANGING RESSOURCES
6832: CHANGING RESSOURCES
6828: CHANGING RESSOURCES

 + Terminating after 1000 timesteps with equal number of triangles -> EXIT
 + Final timestep: 6749

6750 TS (Timesteps)
715.114 ST (SIMULATION_TIME)
0.100037 TSS (Timestep size)
118.619 SFS (Overall seconds for Simulation)
437983904 TP (Triangles processed)
0.0175732 ASPT (Averaged Seconds per Timestep)
64886.5 TPST (Triangles Processed in Average per Simulation Timestep)
48.6681 PPST (Clusters Processed in Average per Simulation Timestep)
3.69236 MTPS (Million Triangles per Second)
-3.69236 MTPSPT (Million Triangles per Second per Thread)
1.98018 EDMBPT (ElementData Megabyte per Timestep (RW))
112.682 EDMBPS (ElementData Megabyte per Second (RW))
SUM CLIENT SHUTDOWN HINT: 13139.5
SUM CLIENT SHUTDOWN HINT DIV TIME: 0
6828: CHANGING RESSOURCES
6832: CHANGING RESSOURCES
6849: CHANGING RESSOURCES

 + Terminating after 1000 timesteps with equal number of triangles -> EXIT
 + Final timestep: 6749

6750 TS (Timesteps)
715.114 ST (SIMULATION_TIME)
0.100037 TSS (Timestep size)
119.533 SFS (Overall seconds for Simulation)
437983904 TP (Triangles processed)
0.0177086 ASPT (Averaged Seconds per Timestep)
64886.5 TPST (Triangles Processed in Average per Simulation Timestep)
48.6681 PPST (Clusters Processed in Average per Simulation Timestep)
3.66413 MTPS (Million Triangles per Second)
-3.66413 MTPSPT (Million Triangles per Second per Thread)
1.98018 EDMBPT (ElementData Megabyte per Timestep (RW))
111.82 EDMBPS (ElementData Megabyte per Second (RW))
SUM CLIENT SHUTDOWN HINT: 13577.5
SUM CLIENT SHUTDOWN HINT DIV TIME: 0
6849: CHANGING RESSOURCES
6828: CHANGING RESSOURCES

 + Terminating after 1000 timesteps with equal number of triangles -> EXIT
 + Final timestep: 6749

6750 TS (Timesteps)
715.114 ST (SIMULATION_TIME)
0.100037 TSS (Timestep size)
119.884 SFS (Overall seconds for Simulation)
437983904 TP (Triangles processed)
0.0177605 ASPT (Averaged Seconds per Timestep)
64886.5 TPST (Triangles Processed in Average per Simulation Timestep)
48.6681 PPST (Clusters Processed in Average per Simulation Timestep)
3.65341 MTPS (Million Triangles per Second)
-3.65341 MTPSPT (Million Triangles per Second per Thread)
1.98018 EDMBPT (ElementData Megabyte per Timestep (RW))
111.493 EDMBPS (ElementData Megabyte per Second (RW))
SUM CLIENT SHUTDOWN HINT: 14015.5
SUM CLIENT SHUTDOWN HINT DIV TIME: 0
6849: CHANGING RESSOURCES
Waiting for job 6829
Waiting for job 6830
Waiting for job 6831
Waiting for job 6832
Waiting for job 6833
Waiting for job 6834
Waiting for job 6835
Waiting for job 6836
Waiting for job 6837
Waiting for job 6838
Waiting for job 6839
Waiting for job 6840
Waiting for job 6841
Waiting for job 6842
Waiting for job 6843
Waiting for job 6844
Waiting for job 6845
Waiting for job 6846
Waiting for job 6847
Waiting for job 6848
Waiting for job 6849

 + Terminating after 1000 timesteps with equal number of triangles -> EXIT
 + Final timestep: 6749

6750 TS (Timesteps)
715.114 ST (SIMULATION_TIME)
0.100037 TSS (Timestep size)
120.897 SFS (Overall seconds for Simulation)
437983904 TP (Triangles processed)
0.0179106 ASPT (Averaged Seconds per Timestep)
64886.5 TPST (Triangles Processed in Average per Simulation Timestep)
48.6681 PPST (Clusters Processed in Average per Simulation Timestep)
3.62279 MTPS (Million Triangles per Second)
-3.62279 MTPSPT (Million Triangles per Second per Thread)
1.98018 EDMBPT (ElementData Megabyte per Timestep (RW))
110.559 EDMBPS (ElementData Megabyte per Second (RW))
SUM CLIENT SHUTDOWN HINT: 14453.5
SUM CLIENT SHUTDOWN HINT DIV TIME: 119.587
Waiting for job 6850
Waiting for job 6851
Waiting for job 6852
Waiting for job 6853
Waiting for job 6854
Waiting for job 6855
Waiting for job 6856
Waiting for job 6857
Waiting for job 6858
Waiting for job 6859
Sat Mar 31 15:56:58 CEST 2012
Seconds: 121
