0	0
13.0837	0
22.8965	0
32.7093	0
42.5221	0
52.3349	0
62.1477	0
71.9605	0
81.7733	0
91.5862	0
101.399	0
111.212	0
121.025	0
130.837	0
140.65	0
150.463	0
160.276	0
170.089	0
183.172	0
192.985	0
202.798	0
212.611	0
222.424	0
232.236	0
242.049	0
251.862	0
261.675	0
271.488	0
281.3	0
291.113	0
300.926	0
310.739	0
320.552	0
330.364	0
340.177	0
353.261	0
363.074	0
372.886	0
382.699	0
392.512	0
402.325	0
412.138	0
421.95	0
431.763	0
441.576	0
451.389	0
461.202	0
471.014	0
480.827	0
490.64	0
500.453	0
510.266	0
520.079	0
533.162	0
542.975	0
552.788	0
562.601	0
572.413	0
582.226	0
592.039	0
601.852	0
611.665	0
621.477	0
631.29	0
641.103	0
650.916	0
660.729	0
670.541	0
680.354	0
690.167	0
703.251	0
713.064	0
722.876	0
732.689	0
742.502	0
752.315	0
762.128	0
771.94	0
781.753	0
791.566	0
801.379	0
811.192	0
821.004	0
830.817	0
840.63	0
850.443	0
860.256	0
870.068	0
883.152	0
892.965	0
902.778	0
912.591	0
922.403	0
932.216	0
942.029	0
951.842	0
961.655	0
971.467	0
981.28	0
991.093	0
1000.91	0
1010.72	0
1020.53	0
1030.34	0
1040.16	0
1053.24	0
1063.05	0
1072.87	0
1082.68	0
1092.49	0
1102.3	0
1112.12	0
1121.93	0
1131.74	0
1141.56	0
1151.37	0
1161.18	0
1170.99	0
1180.81	0
1190.62	0
1200.43	0
1210.25	0
1220.06	0
1233.14	0
1242.95	0
1252.77	0
1262.58	0
1272.39	0
1282.21	0
1292.02	0
1301.83	0
1311.64	0
1321.46	0
1331.27	0
1341.08	0
1350.9	0
1360.71	0
1370.52	0
1380.33	0
1390.15	0
1403.23	0
1413.04	0
1422.86	0
1432.67	0
1442.48	0
1452.29	0
1462.11	0
1471.92	0
1481.73	0
1491.55	0
1501.36	0
1511.17	0
1520.98	0
1530.8	0
1540.61	0
1550.42	0
1560.24	0
1570.05	0
1583.13	0
1592.94	0
1602.76	0
1612.57	0
1622.38	0
1632.2	0
1642.01	0
1651.82	0
1661.63	0
1671.45	0
1681.26	0
1691.07	0
1700.89	0
1710.7	0
1720.51	0
1730.32	0
1740.14	0
1753.22	0
1763.03	0
1772.85	0
1782.66	0
1792.47	0
1802.28	0
1812.1	0
1821.91	0
1831.72	0
1841.54	0
1851.35	0
1861.16	0
1870.97	0
1880.79	0
1890.6	0
1900.41	0
1910.23	0
1920.04	0
1933.12	0
1942.93	0
1952.75	0
1962.56	0
1972.37	0
1982.19	0
1992	0
2001.81	0
2011.62	0
2021.44	0
2031.25	0
2041.06	0
2050.88	0
2060.69	0
2070.5	0
2080.31	0
2090.13	0
2103.21	0
2113.02	0
2122.84	0
2132.65	0
2142.46	0
2152.27	0
2162.09	0
2171.9	0
2181.71	0
2191.53	0
2201.34	0
2211.15	0
2220.96	0
2230.78	0
2240.59	0
2250.4	0
2260.22	0
2270.03	0
2283.11	0
2292.92	0
2302.74	0
2312.55	0
2322.36	0
2332.18	0
2341.99	0
2351.8	0
2361.61	0
2371.43	0
2381.24	0
2391.05	0
2400.87	0
2410.68	0
2420.49	0
2430.3	0
2440.12	0
2453.2	0
2463.01	0
2472.83	0
2482.64	0
2492.45	0
2502.26	0
2512.08	0
2521.89	0
2531.7	0
2541.52	0
2551.33	0
2561.14	0
2570.95	0
2580.77	0
2590.58	0
2600.39	0
2610.21	0
2620.02	0
2633.1	0
2642.91	0
2652.73	0
2662.54	0
2672.35	0
2682.17	0
2691.98	0
2701.79	0
2711.6	0
2721.42	0
2731.23	0
2741.04	0
2750.86	0
2760.67	0
2770.48	0
2780.29	0
2790.11	0
2803.19	9.09495e-13
2813	2.72848e-12
2822.82	4.54747e-12
2832.63	9.09495e-12
2842.44	1.54614e-11
2852.25	2.63753e-11
2862.07	4.54747e-11
2871.88	7.54881e-11
2881.69	1.24601e-10
2891.5	2.03727e-10
2901.32	3.29237e-10
2911.13	5.26597e-10
2920.94	8.34007e-10
2930.76	1.30694e-09
2940.57	2.02908e-09
2950.38	3.11775e-09
2960.19	4.74574e-09
2970.01	7.15409e-09
2983.09	1.2189e-08
2992.9	1.79816e-08
3002.72	2.62889e-08
3012.53	3.80905e-08
3022.34	5.47061e-08
3032.15	7.78919e-08
3041.97	1.09961e-07
3051.78	1.53929e-07
3061.59	2.13698e-07
3071.4	2.94258e-07
3081.22	4.01935e-07
3091.03	5.44676e-07
3100.84	7.32367e-07
3110.65	9.7719e-07
3120.47	1.29402e-06
3130.28	1.70086e-06
3140.09	2.21926e-06
3153.18	3.12895e-06
3162.99	4.01522e-06
3172.8	5.11689e-06
3182.61	6.47647e-06
3192.43	8.1425e-06
3202.24	1.01698e-05
3212.05	1.26199e-05
3221.86	1.55608e-05
3231.68	1.90675e-05
3241.49	2.32215e-05
3251.3	2.81105e-05
3261.11	3.38281e-05
3270.93	4.04728e-05
3280.74	4.81477e-05
3290.55	5.69588e-05
3300.36	6.70141e-05
3310.18	7.8422e-05
3323.26	9.59216e-05
3333.07	0.000110898
3342.89	0.00012757
3352.7	0.000146028
3362.51	0.000166355
3372.32	0.00018862
3382.14	0.000212883
3391.95	0.000239187
3401.76	0.00026756
3411.57	0.000298014
3421.38	0.000330546
3431.2	0.00036513
3441.01	0.000401728
3450.82	0.000440282
3460.63	0.000480716
3470.45	0.000522943
3480.26	0.000566858
3490.07	0.000612349
3503.15	0.000675241
3512.97	0.000723919
3522.78	0.000773744
3532.59	0.000824586
3542.4	0.000876317
3552.22	0.000928819
3562.03	0.000981986
3571.84	0.00103573
3581.65	0.00108996
3591.47	0.00114464
3601.28	0.00119973
3611.09	0.00125522
3620.9	0.00131112
3630.71	0.00136747
3640.53	0.00142434
3650.34	0.00148182
3660.15	0.00154002
3673.23	0.00161896
3683.05	0.00167939
3692.86	0.00174104
3702.67	0.0018041
3712.48	0.00186878
3722.3	0.00193528
3732.11	0.00200382
3741.92	0.0020746
3751.73	0.00214786
3761.55	0.00222383
3771.36	0.00230274
3781.17	0.00238484
3790.98	0.00247042
3800.79	0.00255975
3810.61	0.00265319
3820.42	0.0027511
3830.23	0.00285393
3840.04	0.00296222
3853.13	0.00311622
3862.94	0.00323996
3872.75	0.00337185
3882.56	0.00351312
3892.38	0.00366522
3902.19	0.00382995
3912	0.00400943
3921.81	0.00420622
3931.62	0.00442338
3941.44	0.00466453
3951.25	0.00493396
3961.06	0.00523668
3970.87	0.0055786
3980.69	0.00596656
3990.5	0.0064085
4000.31	0.00691357
4010.12	0.00749229
4023.21	0.00839941
4033.02	0.00919942
4042.83	0.0101196
4052.64	0.011178
4062.46	0.0123947
4072.27	0.0137919
4082.08	0.0153943
4091.89	0.0172289
4101.71	0.0193251
4111.52	0.0217148
4121.33	0.0244323
4131.14	0.0275145
4140.96	0.0310003
4150.77	0.0349306
4160.58	0.0393485
4170.39	0.0442982
4180.21	0.0498253
4190.02	0.0559759
4203.1	0.0652269
4212.92	0.073012
4222.73	0.0815726
4232.54	0.0909508
4242.35	0.101186
4252.17	0.112315
4261.98	0.124369
4271.79	0.137373
4281.61	0.151349
4291.42	0.166309
4301.23	0.182259
4311.04	0.199196
4320.86	0.217107
4330.67	0.235971
4340.48	0.255755
4350.3	0.276416
4360.11	0.297902
4373.19	0.327718
4383	0.350856
4392.82	0.374561
4402.63	0.398732
4412.44	0.423261
4422.26	0.448028
4432.07	0.472906
4441.88	0.497761
4451.69	0.522454
4461.51	0.54684
4471.32	0.570769
4481.13	0.594093
4490.94	0.61666
4500.76	0.638319
4510.57	0.658923
4520.38	0.678328
4530.2	0.696395
4540.01	0.712993
4553.09	0.732624
4562.9	0.745327
4572.72	0.756186
4582.53	0.765111
4592.34	0.772027
4602.16	0.776871
4611.97	0.779593
4621.78	0.780157
4631.59	0.778543
4641.41	0.774742
4651.22	0.768761
4661.03	0.760619
4670.84	0.75035
4680.66	0.737999
4690.47	0.723622
4700.28	0.707287
4710.09	0.689072
4723.18	0.66201
4732.99	0.639756
4742.8	0.615939
4752.62	0.590666
4762.43	0.56405
4772.24	0.536208
4782.05	0.507258
4791.87	0.477321
4801.68	0.446516
4811.49	0.414964
4821.31	0.382784
4831.12	0.350095
4840.93	0.317012
4850.74	0.283647
4860.56	0.250111
4870.37	0.216511
4880.18	0.182949
4893.27	0.13843
4903.08	0.105336
4912.89	0.0725942
4922.7	0.0402909
4932.52	0.00850676
4942.33	-0.0226812
4952.14	-0.0532003
4961.95	-0.0829821
4971.77	-0.111962
4981.58	-0.140081
4991.39	-0.167282
5001.21	-0.193513
5011.02	-0.218726
5020.83	-0.242878
5030.64	-0.265929
5040.46	-0.287843
5050.27	-0.308589
5060.08	-0.32814
5073.17	-0.352308
5082.98	-0.368986
5092.79	-0.384407
5102.6	-0.398563
5112.42	-0.411447
5122.23	-0.42306
5132.04	-0.433405
5141.86	-0.442489
5151.67	-0.450324
5161.48	-0.456926
5171.29	-0.462314
5181.11	-0.466512
5190.92	-0.469546
5200.73	-0.471448
5210.54	-0.472251
5220.36	-0.471992
5230.17	-0.470712
5243.25	-0.467489
5253.07	-0.463994
5262.88	-0.459629
5272.69	-0.454442
5282.5	-0.448487
5292.32	-0.441814
5302.13	-0.434479
5311.94	-0.426534
5321.76	-0.418035
5331.57	-0.409037
5341.38	-0.399593
5351.19	-0.389759
5361.01	-0.379588
5370.82	-0.369132
5380.63	-0.358443
5390.44	-0.34757
5400.26	-0.336563
5410.07	-0.325467
5423.15	-0.310612
5432.97	-0.29948
5442.78	-0.288401
5452.59	-0.277411
5462.41	-0.266545
5472.22	-0.255836
5482.03	-0.245313
5491.84	-0.235003
5501.66	-0.224932
5511.47	-0.215121
5521.28	-0.205591
5531.09	-0.196358
5540.91	-0.187438
5550.72	-0.178843
5560.53	-0.170584
5570.35	-0.162669
5580.16	-0.155105
5593.24	-0.145575
5603.05	-0.138846
5612.87	-0.132479
5622.68	-0.126471
5632.49	-0.120823
5642.31	-0.115532
5652.12	-0.110593
5661.93	-0.106002
5671.74	-0.101755
5681.56	-0.0978437
5691.37	-0.0942631
5701.18	-0.0910057
5710.99	-0.088064
5720.81	-0.08543
5730.62	-0.0830957
5740.43	-0.0810525
5750.25	-0.0792918
5760.06	-0.0778047
5773.14	-0.0762319
5782.95	-0.0753478
5792.77	-0.0747066
5802.58	-0.0742988
5812.39	-0.0741146
5822.21	-0.0741441
5832.02	-0.0743773
5841.83	-0.074804
5851.64	-0.0754137
5861.46	-0.0761957
5871.27	-0.0771392
5881.08	-0.078233
5890.89	-0.0794658
5900.71	-0.0808258
5910.52	-0.0823012
5920.33	-0.0838799
5930.15	-0.0855494
5943.23	-0.087895
5953.04	-0.0897272
5962.85	-0.0916075
5972.67	-0.0935227
5982.48	-0.0954595
5992.29	-0.0974046
6002.11	-0.0993447
6011.92	-0.101266
6021.73	-0.103157
6031.54	-0.105002
6041.36	-0.106791
6051.17	-0.108509
6060.98	-0.110146
6070.8	-0.111689
6080.61	-0.113127
6090.42	-0.114449
6100.23	-0.115646
6110.05	-0.116708
6123.13	-0.117898
6132.94	-0.118611
6142.76	-0.119164
6152.57	-0.119549
6162.38	-0.119762
6172.19	-0.119799
6182.01	-0.119656
6191.82	-0.119331
6201.63	-0.118822
6211.44	-0.118129
6221.26	-0.117253
6231.07	-0.116194
6240.88	-0.114956
6250.7	-0.113541
6260.51	-0.111953
6270.32	-0.110198
6280.13	-0.108279
6293.22	-0.105479
6303.03	-0.103206
6312.84	-0.100794
6322.66	-0.0982502
6332.47	-0.0955831
6342.28	-0.0928018
6352.09	-0.0899154
6361.91	-0.0869335
6371.72	-0.0838654
6381.53	-0.0807211
6391.35	-0.0775103
6401.16	-0.0742427
6410.97	-0.0709281
6420.78	-0.0675761
6430.6	-0.0641963
6440.41	-0.0607977
6450.22	-0.0573895
6460.04	-0.0539803
6473.12	-0.0494477
6482.93	-0.0460683
6492.74	-0.0427145
6502.56	-0.0393935
6512.37	-0.036112
6522.18	-0.0328763
6532	-0.0296922
6541.81	-0.0265653
6551.62	-0.0235006
6561.43	-0.0205028
6571.25	-0.017576
6581.06	-0.0147242
6590.87	-0.0119509
6600.68	-0.00925921
6610.5	-0.00665204
6620.31	-0.00413196
6630.12	-0.00170127
6643.21	0.00139707
6653.02	0.00361152
6662.83	0.00573047
6672.64	0.00775247
6682.46	0.00967621
6692.27	0.0115005
6702.08	0.0132242
6711.9	0.0148463
6721.71	0.0163658
6731.52	0.0177819
6741.33	0.0190937
6751.15	0.0203004
6760.96	0.0214014
6770.77	0.0223959
6780.59	0.0232832
6790.4	0.024063
6800.21	0.0247347
6810.02	0.025298
6823.11	0.02588
6832.92	0.0261895
6842.73	0.0263904
6852.55	0.0264828
6862.36	0.0264672
6872.17	0.0263442
6881.98	0.0261148
6891.8	0.02578
6901.61	0.0253413
6911.42	0.0248003
6921.23	0.0241588
6931.05	0.0234191
6940.86	0.0225837
6950.67	0.0216553
6960.49	0.0206371
6970.3	0.0195323
6980.11	0.0183446
6993.2	0.0166388
7003.01	0.0152732
7012.82	0.0138387
7022.63	0.0123399
7032.45	0.0107817
7042.26	0.00916925
7052.07	0.0075077
7061.88	0.00580245
7071.7	0.00405898
7081.51	0.00228287
7091.32	0.000479765
7101.14	-0.00134464
7110.95	-0.00318463
7120.76	-0.00503448
7130.57	-0.00688847
7140.39	-0.00874093
7150.2	-0.0105862
7160.01	-0.0124188
7173.1	-0.0148329
7182.91	-0.0166145
7192.72	-0.0183655
7202.53	-0.0200807
7212.35	-0.0217549
7222.16	-0.0233834
7231.97	-0.0249614
7241.79	-0.0264841
7251.6	-0.0279471
7261.41	-0.029346
7271.22	-0.0306766
7281.04	-0.0319348
7290.85	-0.0331166
7300.66	-0.0342184
7310.47	-0.0352363
7320.29	-0.036167
7330.1	-0.0370072
7343.18	-0.037981
7353	-0.0385978
7362.81	-0.0391141
7372.62	-0.0395274
7382.43	-0.0398352
7392.25	-0.0400353
7402.06	-0.0401258
7411.87	-0.0401047
7421.68	-0.0399705
7431.5	-0.0397217
7441.31	-0.0393573
7451.12	-0.0388763
7460.94	-0.038278
7470.75	-0.037562
7480.56	-0.036728
7490.37	-0.0357763
7500.19	-0.0347072
7513.27	-0.0331002
7523.08	-0.0317601
7532.89	-0.0303058
7542.71	-0.028739
7552.52	-0.0270616
7562.33	-0.0252757
7572.15	-0.023384
7581.96	-0.0213891
7591.77	-0.0192943
7601.58	-0.0171029
7611.4	-0.0148187
7621.21	-0.0124456
7631.02	-0.00998795
7640.83	-0.00745028
7650.65	-0.00483741
7660.46	-0.00215442
7670.27	0.000593356
7680.08	0.00340037
7693.17	0.00722521
7702.98	0.0101477
7712.79	0.0131094
7722.61	0.016104
7732.42	0.0191251
7742.23	0.022166
7752.04	0.02522
7761.86	0.0282804
7771.67	0.0313404
7781.48	0.0343933
7791.29	0.0374323
7801.11	0.0404508
7810.92	0.043442
7820.73	0.0463996
7830.54	0.0493171
7840.36	0.0521885
7850.17	0.0550078
7863.25	0.058676
7873.07	0.0613519
7882.88	0.0639578
7892.69	0.066489
7902.5	0.0689409
7912.32	0.0713098
7922.13	0.0735919
7931.94	0.075784
7941.75	0.0778834
7951.57	0.0798876
7961.38	0.0817947
7971.19	0.0836033
7981.01	0.0853121
7990.82	0.0869206
8000.63	0.0884286
8010.44	0.089836
8020.26	0.0911436
8030.07	0.0923522
8043.15	0.0938119
8052.97	0.094795
8062.78	0.0956845
8072.59	0.0964827
8082.4	0.0971922
8092.22	0.0978154
8102.03	0.0983555
8111.84	0.0988152
8121.65	0.0991977
8131.47	0.0995062
8141.28	0.099744
8151.09	0.0999142
8160.9	0.10002
8170.72	0.100065
8180.53	0.100052
8190.34	0.0999835
8200.16	0.0998634
8213.24	0.0996274
8223.05	0.0993968
8232.86	0.0991232
8242.68	0.0988089
8252.49	0.0984562
8262.3	0.0980671
8272.12	0.0976435
8281.93	0.0971872
8291.74	0.0966997
8301.55	0.0961827
8311.37	0.0956373
8321.18	0.0950649
8330.99	0.0944665
8340.8	0.0938433
8350.62	0.0931961
8360.43	0.0925258
8370.24	0.0918332
8380.06	0.0911192
8393.14	0.0901349
8402.95	0.0893734
8412.76	0.0885928
8422.58	0.0877938
8432.39	0.0869768
8442.2	0.0861428
8452.02	0.0852922
8461.83	0.0844259
8471.64	0.0835443
8481.45	0.0826483
8491.27	0.0817385
8501.08	0.0808155
8510.89	0.07988
8520.71	0.0789325
8530.52	0.0779737
8540.33	0.077004
8550.14	0.076024
8563.23	0.0747018
8573.04	0.073699
8582.85	0.0726869
8592.67	0.0716656
8602.48	0.0706351
8612.29	0.0695954
8622.1	0.0685462
8631.92	0.0674873
8641.73	0.0664181
8651.54	0.0653382
8661.35	0.0642468
8671.17	0.0631431
8680.98	0.0620263
8690.79	0.0608953
8700.61	0.059749
8710.42	0.0585861
8720.23	0.0574055
8730.04	0.0562056
8743.13	0.0545735
8752.94	0.0533234
8762.75	0.0520492
8772.57	0.0507497
8782.38	0.0494232
8792.19	0.0480685
8802	0.0466842
8811.82	0.0452691
8821.63	0.0438219
8831.44	0.0423418
8841.26	0.0408278
8851.07	0.0392791
8860.88	0.0376953
8870.69	0.0360759
8880.51	0.0344207
8890.32	0.0327297
8900.13	0.0310033
8913.22	0.0286469
8923.03	0.0268397
8932.84	0.0249994
8942.65	0.0231271
8952.47	0.0212244
8962.28	0.0192927
8972.09	0.017334
8981.91	0.0153503
8991.72	0.0133439
9001.53	0.0113171
9011.34	0.00927258
9021.16	0.00721303
9030.97	0.00514131
9040.78	0.00306036
9050.6	0.000973246
9060.41	-0.00111691
9070.22	-0.00320692
9080.03	-0.00529359
9093.12	-0.00806503
9102.93	-0.0101314
9112.74	-0.0121836
9122.56	-0.0142187
9132.37	-0.0162336
9142.18	-0.0182252
9151.99	-0.0201906
9161.81	-0.0221271
9171.62	-0.024032
9181.43	-0.0259027
9191.24	-0.0277369
9201.06	-0.0295322
9210.87	-0.0312866
9220.68	-0.0329981
9230.5	-0.0346648
9240.31	-0.0362853
9250.12	-0.0378578
9263.2	-0.039878
9273.02	-0.0413341
9282.83	-0.0427386
9292.64	-0.0440907
9302.46	-0.0453898
9312.27	-0.0466354
9322.08	-0.047827
9331.89	-0.0489646
9341.71	-0.0500481
9351.52	-0.0510775
9361.33	-0.052053
9371.15	-0.052975
9380.96	-0.053844
9390.77	-0.0546605
9400.58	-0.0554253
9410.4	-0.0561392
9420.21	-0.0568031
9430.02	-0.0574182
9443.11	-0.0581643
9452.92	-0.0586702
9462.73	-0.0591317
9472.54	-0.0595502
9482.36	-0.0599275
9492.17	-0.0602654
9501.98	-0.0605657
9511.79	-0.0608304
9521.61	-0.0610616
9531.42	-0.0612613
9541.23	-0.0614319
9551.05	-0.0615755
9560.86	-0.0616946
9570.67	-0.0617914
9580.48	-0.0618685
9590.3	-0.0619283
9600.11	-0.0619732
9613.19	-0.0620141
9623.01	-0.0620339
9632.82	-0.0620468
9642.63	-0.0620553
9652.44	-0.0620617
9662.26	-0.0620681
9672.07	-0.0620766
9681.88	-0.0620893
9691.7	-0.062108
9701.51	-0.0621343
9711.32	-0.06217
9721.13	-0.0622162
9730.95	-0.0622744
9740.76	-0.0623455
9750.57	-0.0624304
9760.39	-0.0625297
9770.2	-0.0626439
9780.01	-0.0627733
9793.09	-0.0629693
9802.91	-0.0631337
9812.72	-0.0633127
9822.53	-0.0635055
9832.35	-0.0637113
9842.16	-0.0639293
9851.97	-0.0641582
9861.78	-0.0643967
9871.6	-0.0646433
9881.41	-0.0648966
9891.22	-0.0651548
9901.04	-0.0654162
9910.85	-0.0656788
9920.66	-0.0659407
9930.47	-0.0662001
9940.29	-0.0664548
9950.1	-0.0667029
9963.18	-0.0670199
9973	-0.0672448
9982.81	-0.0674564
9992.62	-0.067653
10002.4	-0.0678327
10012.2	-0.0679938
10022.1	-0.0681346
10031.9	-0.0682537
10041.7	-0.0683496
10051.5	-0.0684211
10061.3	-0.0684669
10071.1	-0.068486
10080.9	-0.0684775
10090.7	-0.0684407
10100.6	-0.0683749
10110.4	-0.0682796
10120.2	-0.0681545
10130	-0.0679994
10143.1	-0.0677458
10152.9	-0.0675205
10162.7	-0.0672655
10172.5	-0.066981
10182.3	-0.0666676
10192.1	-0.0663257
10202	-0.0659561
10211.8	-0.0655596
10221.6	-0.0651369
10231.4	-0.0646891
10241.2	-0.0642173
10251	-0.0637224
10260.8	-0.0632058
10270.6	-0.0626686
10280.5	-0.0621122
10290.3	-0.061538
10300.1	-0.0609473
10313.2	-0.0601366
10323	-0.0595133
10332.8	-0.0588785
10342.6	-0.0582339
10352.4	-0.0575809
10362.2	-0.0569213
10372	-0.0562566
10381.9	-0.0555885
10391.7	-0.0549185
10401.5	-0.0542484
10411.3	-0.0535798
10421.1	-0.0529142
10430.9	-0.0522532
10440.7	-0.0515985
10450.6	-0.0509516
10460.4	-0.050314
10470.2	-0.0496871
10483.3	-0.0488706
10493.1	-0.0482744
10502.9	-0.0476936
10512.7	-0.0471294
10522.5	-0.0465831
10532.3	-0.0460558
10542.1	-0.0455485
10551.9	-0.0450622
10561.8	-0.044598
10571.6	-0.0441565
10581.4	-0.0437385
10591.2	-0.0433447
10601	-0.0429757
10610.8	-0.0426319
10620.6	-0.0423138
10630.5	-0.0420216
10640.3	-0.0417556
10650.1	-0.0415158
10663.2	-0.041237
10673	-0.0410585
10682.8	-0.040906
10692.6	-0.0407793
10702.4	-0.040678
10712.2	-0.0406018
10722	-0.04055
10731.8	-0.0405222
10741.7	-0.0405177
10751.5	-0.0405357
10761.3	-0.0405756
10771.1	-0.0406365
10780.9	-0.0407175
10790.7	-0.0408177
10800.5	-0.0409361
10810.4	-0.0410716
10820.2	-0.0412232
10833.2	-0.0414483
10843.1	-0.041633
10852.9	-0.0418298
10862.7	-0.0420376
10872.5	-0.0422551
10882.3	-0.042481
10892.1	-0.042714
10901.9	-0.0429527
10911.8	-0.0431958
10921.6	-0.0434418
10931.4	-0.0436894
10941.2	-0.0439372
10951	-0.0441838
10960.8	-0.0444276
10970.6	-0.0446672
10980.4	-0.0449011
10990.3	-0.045128
11000.1	-0.0453462
11013.1	-0.0456212
11023	-0.0458135
11032.8	-0.0459923
11042.6	-0.0461561
11052.4	-0.0463034
11062.2	-0.0464327
11072	-0.0465426
11081.8	-0.0466317
11091.7	-0.0466986
11101.5	-0.0467419
11111.3	-0.0467603
11121.1	-0.0467524
11130.9	-0.0467171
11140.7	-0.046653
11150.5	-0.0465591
11160.3	-0.0464341
11170.2	-0.046277
11183.2	-0.0460158
11193.1	-0.0457799
11202.9	-0.0455087
11212.7	-0.0452014
11222.5	-0.0448573
11232.3	-0.0444756
11242.1	-0.0440559
11251.9	-0.0435976
11261.7	-0.0431002
11271.6	-0.0425634
11281.4	-0.0419869
11291.2	-0.0413706
11301	-0.0407141
11310.8	-0.0400176
11320.6	-0.0392811
11330.4	-0.0385047
11340.2	-0.0376885
11350.1	-0.0368328
11363.1	-0.0356311
11373	-0.0346848
11382.8	-0.0337004
11392.6	-0.0326784
11402.4	-0.0316196
11412.2	-0.0305246
11422	-0.0293941
11431.8	-0.028229
11441.6	-0.0270301
11451.5	-0.0257983
11461.3	-0.0245346
11471.1	-0.0232399
11480.9	-0.0219152
11490.7	-0.0205618
11500.5	-0.0191805
11510.3	-0.0177727
11520.1	-0.0163394
11533.2	-0.0143908
11543	-0.0129028
11552.9	-0.0113934
11562.7	-0.00986389
11572.5	-0.00831554
11582.3	-0.00674966
11592.1	-0.00516758
11601.9	-0.00357061
11611.7	-0.00196012
11621.5	-0.000337462
11631.4	0.00129599
11641.2	0.00293885
11651	0.00458972
11660.8	0.00624719
11670.6	0.00790986
11680.4	0.00957629
11690.2	0.011245
11700	0.0129147
11713.1	0.0151398
11722.9	0.0168058
11732.8	0.0184679
11742.6	0.0201246
11752.4	0.0217743
11762.2	0.0234156
11772	0.025047
11781.8	0.0266671
11791.6	0.0282744
11801.4	0.0298673
11811.3	0.0314445
11821.1	0.0330044
11830.9	0.0345456
11840.7	0.0360667
11850.5	0.0375663
11860.3	0.039043
11870.1	0.0404955
11883.2	0.042392
11893	0.0437826
11902.8	0.0451448
11912.7	0.0464771
11922.5	0.0477786
11932.3	0.0490482
11942.1	0.0502847
11951.9	0.0514874
11961.7	0.0526552
11971.5	0.0537875
11981.3	0.0548835
11991.2	0.0559426
