0	0
20.7723	0
41.5446	0
62.3169	0
83.0891	0
103.861	0
124.634	0
145.406	0
166.178	0
186.951	0
207.723	0
228.495	-9.09495e-13
249.267	-9.09495e-13
270.04	-9.09495e-13
290.812	0
311.584	0
332.357	0
353.129	0
373.901	0
394.673	0
415.446	0
436.218	0
456.99	0
477.763	0
498.535	0
519.307	0
540.079	0
560.852	0
581.624	0
602.396	0
623.169	0
643.941	0
664.713	0
685.485	0
706.258	0
727.03	0
747.802	0
768.575	-9.09495e-13
789.347	-9.09495e-13
810.119	-9.09495e-13
830.891	0
851.664	0
872.436	0
893.208	0
913.981	0
934.753	0
955.525	0
976.297	0
997.07	0
1017.84	0
1038.61	0
1059.39	0
1080.16	0
1100.93	0
1121.7	0
1142.48	0
1163.25	0
1184.02	0
1204.79	0
1225.56	0
1246.34	0
1267.11	0
1287.88	0
1308.65	-9.09495e-13
1329.43	-9.09495e-13
1350.2	-9.09495e-13
1370.97	0
1391.74	0
1412.52	0
1433.29	0
1454.06	0
1474.83	0
1495.6	0
1516.38	0
1537.15	0
1557.92	0
1578.69	0
1599.47	0
1620.24	0
1641.01	0
1661.78	0
1682.56	0
1703.33	0
1724.1	0
1744.87	0
1765.64	0
1786.42	0
1807.19	0
1827.96	0
1848.73	0
1869.51	-9.09495e-13
1890.28	-9.09495e-13
1911.05	-9.09495e-13
1931.82	0
1952.59	0
1973.37	0
1994.14	0
2014.91	0
2035.68	0
2056.46	0
2077.23	9.09495e-13
2098	1.81899e-12
2118.77	4.54747e-12
2139.55	9.09495e-12
2160.32	1.81899e-11
2181.09	3.63798e-11
2201.86	7.00311e-11
2222.63	1.32786e-10
2243.41	2.42835e-10
2264.18	4.35648e-10
2284.95	7.66704e-10
2305.72	1.32422e-09
2326.5	2.24554e-09
2347.27	3.74257e-09
2368.04	6.13363e-09
2388.81	9.89075e-09
2409.59	1.57024e-08
2430.36	2.45591e-08
2451.13	3.78595e-08
2471.9	5.75592e-08
2492.67	8.63411e-08
2513.45	1.27849e-07
2534.22	1.86959e-07
2554.99	2.70112e-07
2575.76	3.85714e-07
2596.54	5.44601e-07
2617.31	7.60574e-07
2638.08	1.05101e-06
2658.85	1.43755e-06
2679.62	1.94685e-06
2700.4	2.61135e-06
2721.17	3.47023e-06
2741.94	4.5702e-06
2762.71	5.96652e-06
2783.49	7.72387e-06
2804.26	9.91729e-06
2825.03	1.26331e-05
2845.8	1.59698e-05
2866.58	2.00386e-05
2887.35	2.49649e-05
2908.12	3.08883e-05
2928.89	3.79639e-05
2949.66	4.6363e-05
2970.44	5.62743e-05
2991.21	6.79056e-05
3011.98	8.14853e-05
3032.75	9.72657e-05
3053.53	0.000115526
3074.3	0.000136581
3095.07	0.000160781
3115.84	0.000188533
3136.61	0.000220303
3157.39	0.000256642
3178.16	0.000298203
3198.93	0.000345774
3219.7	0.000400311
3240.47	0.000462984
3261.25	0.000535234
3282.02	0.000618832
3302.79	0.000715965
3323.56	0.000829321
3344.33	0.000962195
3365.11	0.00111861
3385.88	0.00130347
3406.65	0.00152266
3427.42	0.00178325
3448.19	0.00209369
3468.97	0.00246391
3489.74	0.0029056
3510.51	0.00343232
3531.28	0.00405973
3552.05	0.00480573
3572.83	0.00569062
3593.6	0.00673719
3614.37	0.00797081
3635.14	0.00941948
3655.91	0.0111137
3676.68	0.0130865
3697.46	0.0153731
3718.23	0.0180108
3739	0.0210384
3759.77	0.0244959
3780.54	0.0284237
3801.31	0.0328624
3822.09	0.0378514
3842.86	0.0434284
3863.63	0.0496283
3884.4	0.0564824
3905.17	0.064017
3925.94	0.0722525
3946.71	0.0812022
3967.49	0.0908715
3988.26	0.101256
4009.03	0.112343
4029.8	0.124105
4050.57	0.136508
4071.34	0.149503
4092.12	0.163027
4112.89	0.177007
4133.66	0.191358
4154.43	0.205981
4175.2	0.220766
4195.97	0.235594
4216.75	0.250334
4237.52	0.26485
4258.29	0.278997
4279.06	0.292628
4299.83	0.305592
4320.61	0.317738
4341.38	0.328916
4362.15	0.33898
4382.92	0.347793
4403.69	0.355223
4424.47	0.36115
4445.24	0.365468
4466.01	0.368083
4486.78	0.368918
4507.55	0.367915
4528.33	0.365033
4549.1	0.360251
4569.87	0.353567
4590.64	0.345
4611.42	0.334589
4632.19	0.322392
4652.96	0.308486
4673.73	0.292966
4694.5	0.275944
4715.28	0.257545
4736.05	0.237909
4756.82	0.217186
4777.59	0.195537
4798.37	0.173128
4819.14	0.150131
4839.91	0.12672
4860.68	0.103072
4881.45	0.0793577
4902.23	0.0557481
4923	0.032407
4943.77	0.0094908
4964.54	-0.012853
4985.32	-0.0344875
5006.09	-0.0552874
5026.86	-0.0751402
5047.63	-0.0939468
5068.4	-0.111622
5089.18	-0.128097
5109.95	-0.143313
5130.72	-0.157232
5151.49	-0.169825
5172.27	-0.181079
5193.04	-0.190995
5213.81	-0.199585
5234.58	-0.206872
5255.35	-0.212893
5276.13	-0.21769
5296.9	-0.221318
5317.67	-0.223835
5338.44	-0.225309
5359.22	-0.22581
5379.99	-0.225414
5400.76	-0.224197
5421.53	-0.222239
5442.3	-0.219619
5463.08	-0.216417
5483.85	-0.212709
5504.62	-0.208571
5525.39	-0.204075
5546.17	-0.199291
5566.94	-0.194282
5587.71	-0.189111
5608.48	-0.183831
5629.25	-0.178493
5650.03	-0.173143
5670.8	-0.16782
5691.57	-0.162559
5712.34	-0.157389
5733.12	-0.152334
5753.89	-0.147415
5774.66	-0.142645
5795.43	-0.138035
5816.2	-0.133592
5836.98	-0.129319
5857.75	-0.125215
5878.52	-0.121278
5899.29	-0.117501
5920.06	-0.113877
5940.84	-0.110396
5961.61	-0.107049
5982.38	-0.103823
6003.15	-0.100706
6023.93	-0.0976863
6044.7	-0.094751
6065.47	-0.0918881
6086.24	-0.0890861
6107.01	-0.0863341
6127.79	-0.0836222
6148.56	-0.0809414
6169.33	-0.078284
6190.1	-0.0756434
6210.88	-0.0730144
6231.65	-0.0703929
6252.42	-0.0677762
6273.19	-0.0651629
6293.96	-0.0625527
6314.74	-0.0599466
6335.51	-0.0573463
6356.28	-0.0547549
6377.05	-0.0521759
6397.83	-0.0496139
6418.6	-0.0470737
6439.37	-0.0445609
6460.14	-0.0420811
6480.91	-0.0396403
6501.69	-0.0372445
6522.46	-0.0348995
6543.23	-0.032611
6564	-0.0303843
6584.78	-0.0282244
6605.55	-0.0261357
6626.32	-0.0241221
6647.09	-0.0221865
6667.86	-0.0203315
6688.64	-0.0185587
6709.41	-0.0168689
6730.18	-0.0152621
6750.95	-0.0137376
6771.73	-0.0122935
6792.5	-0.0109276
6813.27	-0.00963651
6834.04	-0.00841634
6854.82	-0.00726244
6875.59	-0.00616955
6896.36	-0.00513187
6917.13	-0.00414311
6937.9	-0.00319658
6958.68	-0.0022853
6979.45	-0.00140204
7000.22	-0.000539456
7020.99	0.000309867
7041.77	0.00115328
7062.54	0.00199802
7083.31	0.00285108
7104.08	0.00371918
7124.85	0.00460867
7145.63	0.00552542
7166.4	0.00647483
7187.17	0.0074617
7207.94	0.00849021
7228.72	0.00956389
7249.49	0.0106856
7270.26	0.0118573
7291.03	0.0130805
7311.81	0.0143556
7332.58	0.0156827
7353.35	0.0170606
7374.12	0.0184877
7394.89	0.0199616
7415.67	0.0214793
7436.44	0.023037
7457.21	0.0246303
7477.98	0.0262542
7498.76	0.0279033
7519.53	0.0295716
7540.3	0.0312527
7561.07	0.03294
7581.84	0.0346264
7602.62	0.0363047
7623.39	0.0379673
7644.16	0.0396068
7664.93	0.0412157
7685.71	0.0427862
7706.48	0.044311
7727.25	0.0457826
7748.02	0.0471939
7768.79	0.0485378
7789.57	0.0498077
7810.34	0.0509972
7831.11	0.0521003
7851.88	0.0531112
7872.66	0.0540249
7893.43	0.0548365
7914.2	0.0555417
7934.97	0.0561366
7955.74	0.056618
7976.52	0.0569829
7997.29	0.057229
8018.06	0.0573545
8038.83	0.0573579
8059.61	0.0572386
8080.38	0.0569961
8101.15	0.0566305
8121.92	0.0561425
8142.69	0.055533
8163.47	0.0548037
8184.24	0.0539563
8205.01	0.0529931
8225.78	0.0519169
8246.56	0.0507307
8267.33	0.0494378
8288.1	0.048042
8308.87	0.0465472
8329.64	0.0449577
8350.42	0.043278
8371.19	0.041513
8391.96	0.0396675
8412.73	0.0377468
8433.51	0.0357562
8454.28	0.0337013
8475.05	0.0315875
8495.82	0.0294208
8516.59	0.0272069
8537.37	0.0249519
8558.14	0.0226616
8578.91	0.0203422
8599.68	0.0179996
8620.46	0.01564
8641.23	0.0132693
8662	0.0108937
8682.77	0.00851892
8703.54	0.00615097
8724.32	0.00379559
8745.09	0.00145845
8765.86	-0.000854945
8786.63	-0.00313921
8807.41	-0.00538914
8828.18	-0.00759973
8848.95	-0.00976619
8869.72	-0.011884
8890.49	-0.0139487
8911.27	-0.0159563
8932.04	-0.0179031
8952.81	-0.0197854
8973.58	-0.0216002
8994.36	-0.0233446
9015.13	-0.0250159
9035.9	-0.0266119
9056.67	-0.0281308
9077.44	-0.029571
9098.22	-0.0309313
9118.99	-0.0322108
9139.76	-0.0334089
9160.53	-0.0345256
9181.31	-0.0355608
9202.08	-0.0365151
9222.85	-0.0373892
9243.62	-0.0381842
9264.39	-0.0389014
9285.17	-0.0395425
9305.94	-0.0401093
9326.71	-0.0406038
9347.48	-0.0410284
9368.26	-0.0413855
9389.03	-0.0416779
9409.8	-0.0419083
9430.57	-0.0420797
9451.34	-0.042195
9472.12	-0.0422573
9492.89	-0.0422699
9513.66	-0.0422357
9534.43	-0.0421582
9555.21	-0.0420402
9575.98	-0.0418851
9596.75	-0.0416959
9617.52	-0.0414754
9638.3	-0.0412267
9659.07	-0.0409526
9679.84	-0.0406555
9700.61	-0.0403382
9721.38	-0.040003
9742.16	-0.039652
9762.93	-0.0392875
9783.7	-0.0389111
9804.47	-0.0385248
9825.25	-0.03813
9846.02	-0.0377282
9866.79	-0.0373205
9887.56	-0.036908
9908.33	-0.0364915
9929.11	-0.0360718
9949.88	-0.0356495
9970.65	-0.035225
9991.42	-0.0347986
10012.2	-0.0343703
10033	-0.0339403
10053.7	-0.0335085
10074.5	-0.0330748
10095.3	-0.0326387
10116.1	-0.0322001
10136.8	-0.0317585
10157.6	-0.0313135
10178.4	-0.0308646
10199.1	-0.0304111
10219.9	-0.0299526
10240.7	-0.0294884
10261.5	-0.0290179
10282.2	-0.0285407
10303	-0.0280559
10323.8	-0.0275631
10344.6	-0.0270617
10365.3	-0.0265512
10386.1	-0.026031
10406.9	-0.0255007
10427.6	-0.0249597
10448.4	-0.0244078
10469.2	-0.0238444
10490	-0.0232694
10510.7	-0.0226824
10531.5	-0.0220831
10552.3	-0.0214715
10573	-0.0208473
10593.8	-0.0202104
10614.6	-0.0195609
10635.4	-0.0188986
10656.1	-0.0182237
10676.9	-0.0175363
10697.7	-0.0168364
10718.5	-0.0161242
10739.2	-0.0154
10760	-0.014664
10780.8	-0.0139166
10801.5	-0.0131579
10822.3	-0.0123886
10843.1	-0.0116089
10863.9	-0.0108193
10884.6	-0.0100203
10905.4	-0.0092125
10926.2	-0.00839638
10946.9	-0.00757256
10967.7	-0.00674169
10988.5	-0.00590442
11009.3	-0.00506146
11030	-0.00421353
11050.8	-0.0033614
11071.6	-0.00250586
11092.4	-0.00164772
11113.1	-0.000787831
11133.9	7.29414e-05
11154.7	0.000933705
11175.4	0.00179354
11196.2	0.00265153
11217	0.0035067
11237.8	0.0043581
11258.5	0.00520475
11279.3	0.00604565
11300.1	0.00687982
11320.8	0.00770624
11341.6	0.00852393
11362.4	0.00933187
11383.2	0.0101291
11403.9	0.0109146
11424.7	0.0116873
11445.5	0.0124464
11466.3	0.0131909
11487	0.0139199
11507.8	0.0146324
11528.6	0.0153277
11549.3	0.0160047
11570.1	0.0166628
11590.9	0.0173012
11611.7	0.0179191
11632.4	0.0185158
11653.2	0.0190906
11674	0.019643
11694.8	0.0201724
11715.5	0.0206782
11736.3	0.0211599
11757.1	0.0216171
11777.8	0.0220494
11798.6	0.0224565
11819.4	0.022838
11840.2	0.0231936
11860.9	0.0235233
11881.7	0.0238266
11902.5	0.0241036
11923.2	0.0243541
11944	0.0245779
11964.8	0.0247752
11985.6	0.0249458
