0	0
237.425	0
474.85	0
712.275	0
949.701	0
1187.13	0
1424.55	0
1661.98	0
1899.4	0
2136.83	0.00026197
2374.25	0.00168298
2611.68	0.00520007
2849.1	0.0117302
3086.53	0.0216087
3323.95	0.0342987
3561.38	0.0483546
3798.8	0.0617738
4036.23	0.0724863
4273.65	0.0788373
4511.08	0.0799067
4748.5	0.0756315
4985.93	0.0667397
5223.35	0.0545492
5460.78	0.0406885
5698.2	0.0267993
5935.63	0.0142744
6173.05	0.00407322
6410.48	-0.00336061
6647.9	-0.00807725
6885.33	-0.0105157
7122.75	-0.0113494
7360.18	-0.0113219
7597.6	-0.0111041
7835.03	-0.0111967
8072.45	-0.0118848
8309.88	-0.0132416
8547.31	-0.0151689
8784.73	-0.0174588
9022.16	-0.0198594
9259.58	-0.022131
9497.01	-0.0240847
9734.43	-0.0256003
9971.86	-0.026626
10209.3	-0.0271647
10446.7	-0.0272547
10684.1	-0.02695
10921.6	-0.0263049
11159	-0.0253658
11396.4	-0.0241694
11633.8	-0.022745
11871.3	-0.0211206
