0	0
10.3711	0
20.7423	0
31.1134	0
41.4845	0
51.8556	0
62.2268	0
72.5979	0
82.969	0
93.3401	0
103.711	0
114.082	0
124.454	0
134.825	0
145.196	0
155.567	0
165.938	0
176.309	0
186.68	0
197.051	0
207.423	0
217.794	0
228.165	0
238.536	0
248.907	0
259.278	0
269.649	0
280.02	0
290.392	0
300.763	0
311.134	0
321.505	0
331.876	0
342.247	0
352.618	0
362.989	0
373.361	0
383.732	0
394.103	0
404.474	0
414.845	0
425.216	0
435.587	0
445.958	0
456.33	0
466.701	0
477.072	0
487.443	0
497.814	0
508.185	0
518.556	0
528.927	0
539.299	0
549.67	0
560.041	0
570.412	0
580.783	0
591.154	0
601.525	0
611.896	0
622.268	0
632.639	0
643.01	0
653.381	0
663.752	0
674.123	0
684.494	0
694.866	0
705.237	0
715.608	0
725.979	0
736.35	0
746.721	0
757.092	0
767.463	0
777.835	0
788.206	0
798.577	0
808.948	0
819.319	0
829.69	0
840.061	0
850.432	0
860.804	0
871.175	0
881.546	0
891.917	0
902.288	0
912.659	0
923.03	0
933.401	0
943.773	0
954.144	0
964.515	0
974.886	0
985.257	0
995.628	0
1006	0
1016.37	0
1026.74	0
1037.11	0
1047.48	0
1057.85	0
1068.23	0
1078.6	0
1088.97	0
1099.34	0
1109.71	0
1120.08	0
1130.45	0
1140.82	0
1151.2	0
1161.57	0
1171.94	0
1182.31	0
1192.68	0
1203.05	0
1213.42	0
1223.79	0
1234.16	0
1244.54	0
1254.91	0
1265.28	0
1275.65	0
1286.02	0
1296.39	0
1306.76	0
1317.13	0
1327.5	0
1337.88	0
1348.25	0
1358.62	0
1368.99	0
1379.36	0
1389.73	0
1400.1	0
1410.47	0
1420.84	0
1431.22	0
1441.59	0
1451.96	0
1462.33	0
1472.7	0
1483.07	0
1493.44	0
1503.81	0
1514.18	0
1524.56	0
1534.93	0
1545.3	0
1555.67	0
1566.04	0
1576.41	0
1586.78	0
1597.15	0
1607.52	0
1617.9	0
1628.27	0
1638.64	0
1649.01	0
1659.38	0
1669.75	0
1680.12	0
1690.49	0
1700.86	0
1711.24	0
1721.61	0
1731.98	0
1742.35	0
1752.72	0
1763.09	0
1773.46	0
1783.83	0
1794.2	0
1804.58	0
1814.95	0
1825.32	0
1835.69	0
1846.06	0
1856.43	0
1866.8	0
1877.17	0
1887.55	0
1897.92	0
1908.29	0
1918.66	0
1929.03	0
1939.4	0
1949.77	0
1960.14	0
1970.51	0
1980.89	0
1991.26	0
2001.63	0
2012	0
2022.37	0
2032.74	0
2043.11	0
2053.48	0
2063.85	0
2074.23	0
2084.6	0
2094.97	0
2105.34	0
2115.71	0
2126.08	0
2136.45	0
2146.82	0
2157.19	0
2167.57	0
2177.94	0
2188.31	0
2198.68	0
2209.05	0
2219.42	0
2229.79	0
2240.16	0
2250.53	0
2260.91	0
2271.28	0
2281.65	0
2292.02	0
2302.39	0
2312.76	0
2323.13	0
2333.5	0
2343.87	0
2354.25	0
2364.62	0
2374.99	0
2385.36	0
2395.73	9.09495e-13
2406.1	9.09495e-13
2416.47	1.81899e-12
2426.84	2.72848e-12
2437.21	3.63798e-12
2447.59	6.36646e-12
2457.96	1.00044e-11
2468.33	1.45519e-11
2478.7	2.18279e-11
2489.07	3.36513e-11
2499.44	5.00222e-11
2509.81	7.27596e-11
2520.18	1.05501e-10
2530.55	1.51886e-10
2540.93	2.1646e-10
2551.3	3.065e-10
2561.67	4.3201e-10
2572.04	6.05723e-10
2582.41	8.44011e-10
2592.78	1.1687e-09
2603.15	1.6089e-09
2613.52	2.20189e-09
2623.9	2.99769e-09
2634.27	4.05817e-09
2644.64	5.46424e-09
2655.01	7.31961e-09
2665.38	9.75251e-09
2675.75	1.29285e-08
2686.12	1.70521e-08
2696.49	2.23799e-08
2706.86	2.92284e-08
2717.24	3.79878e-08
2727.61	4.91373e-08
2737.98	6.32626e-08
2748.35	8.10724e-08
2758.72	1.03424e-07
2769.09	1.31347e-07
2779.46	1.66075e-07
2789.83	2.0907e-07
2800.2	2.6207e-07
2810.58	3.27119e-07
2820.95	4.06617e-07
2831.32	5.03364e-07
2841.69	6.20615e-07
2852.06	7.62133e-07
2862.43	9.32252e-07
2872.8	1.13594e-06
2883.17	1.37886e-06
2893.54	1.66746e-06
2903.92	2.00901e-06
2914.29	2.4117e-06
2924.66	2.88473e-06
2935.03	3.43833e-06
2945.4	4.08391e-06
2955.77	4.83407e-06
2966.14	5.70269e-06
2976.51	6.705e-06
2986.88	7.85765e-06
2997.26	9.17873e-06
3007.63	1.06878e-05
3018	1.24061e-05
3028.37	1.43563e-05
3038.74	1.65627e-05
3049.11	1.90512e-05
3059.48	2.18493e-05
3069.85	2.49859e-05
3080.22	2.84917e-05
3090.6	3.23985e-05
3100.97	3.67399e-05
3111.34	4.15505e-05
3121.71	4.68663e-05
3132.08	5.27244e-05
3142.45	5.91628e-05
3152.82	6.62204e-05
3163.19	7.39369e-05
3173.56	8.23526e-05
3183.93	9.15082e-05
3194.31	0.000101445
3204.68	0.000112203
3215.05	0.000123825
3225.42	0.000136352
3235.79	0.000149823
3246.16	0.000164281
3256.53	0.000179764
3266.9	0.000196312
3277.27	0.000213964
3287.64	0.000232759
3298.02	0.000252735
3308.39	0.000273928
3318.76	0.000296376
3329.13	0.000320117
3339.5	0.000345186
3349.87	0.000371621
3360.24	0.00039946
3370.61	0.000428743
3380.98	0.000459509
3391.35	0.000491803
3401.73	0.00052567
3412.1	0.000561162
3422.47	0.000598333
3432.84	0.000637246
3443.21	0.00067797
3453.58	0.000720586
3463.95	0.000765183
3474.32	0.000811867
3484.69	0.000860758
3495.06	0.000911997
3505.43	0.000965746
3515.81	0.0010222
3526.18	0.00108157
3536.55	0.00114411
3546.92	0.00121013
3557.29	0.00127997
3567.66	0.00135403
3578.03	0.00143278
3588.4	0.00151674
3598.77	0.00160654
3609.14	0.00170289
3619.51	0.00180659
3629.88	0.00191859
3640.26	0.00203995
3650.63	0.00217188
3661	0.00231576
3671.37	0.00247316
3681.74	0.00264585
3692.11	0.00283581
3702.48	0.0030453
3712.85	0.00327682
3723.22	0.00353318
3733.59	0.00381751
3743.96	0.00413329
3754.33	0.00448436
3764.71	0.004875
3775.08	0.00530987
3785.45	0.00579413
3795.82	0.00633339
3806.19	0.00693379
3816.56	0.00760199
3826.93	0.00834522
3837.3	0.00917125
3847.67	0.0100885
3858.04	0.0111059
3868.41	0.012233
3878.78	0.0134801
3889.15	0.014858
3899.52	0.0163781
3909.9	0.0180523
3920.27	0.0198932
3930.64	0.0219139
3941.01	0.024128
3951.38	0.0265494
3961.75	0.0291925
3972.12	0.032072
3982.49	0.0352029
3992.86	0.0386001
4003.23	0.0422788
4013.6	0.0462541
4023.97	0.0505407
4034.34	0.0551532
4044.71	0.0601057
4055.08	0.0654117
4065.46	0.0710839
4075.83	0.0771342
4086.2	0.0835733
4096.57	0.0904109
4106.94	0.097655
4117.31	0.105312
4127.68	0.113388
4138.05	0.121884
4148.42	0.130802
4158.79	0.14014
4169.16	0.149896
4179.53	0.160062
4189.9	0.17063
4200.28	0.181588
4210.65	0.192923
4221.02	0.204616
4231.39	0.216649
4241.76	0.228997
4252.13	0.241635
4262.5	0.254534
4272.87	0.267662
4283.24	0.280984
4293.61	0.294463
4303.98	0.308059
4314.35	0.321728
4324.73	0.335427
4335.1	0.349107
4345.47	0.362719
4355.84	0.376214
4366.21	0.389537
4376.58	0.402637
4386.95	0.415457
4397.32	0.427944
4407.69	0.440042
4418.06	0.451695
4428.44	0.462849
4438.81	0.473448
4449.18	0.483441
4459.55	0.492774
4469.92	0.501397
4480.29	0.509263
4490.66	0.516324
4501.03	0.522538
4511.4	0.527864
4521.78	0.532264
4532.15	0.535704
4542.52	0.538154
4552.89	0.539587
4563.26	0.539981
4573.63	0.539317
4584	0.537581
4594.37	0.534763
4604.74	0.530857
4615.12	0.525863
4625.49	0.519783
4635.86	0.512627
4646.23	0.504406
4656.6	0.495137
4666.97	0.484841
4677.34	0.473543
4687.71	0.461272
4698.08	0.448061
4708.46	0.433947
4718.83	0.41897
4729.2	0.403173
4739.57	0.386601
4749.94	0.369304
4760.31	0.351333
4770.68	0.332741
4781.05	0.313584
4791.42	0.293919
4801.79	0.273803
4812.17	0.253297
4822.54	0.23246
4832.91	0.211352
4843.28	0.190035
4853.65	0.168569
4864.02	0.147013
4874.39	0.125429
4884.76	0.103874
4895.13	0.0824069
4905.51	0.0610829
4915.88	0.0399572
4926.25	0.0190828
4936.62	-0.00148911
4946.99	-0.0217096
4957.36	-0.0415318
4967.73	-0.0609114
4978.1	-0.0798066
4988.47	-0.098178
4998.85	-0.115989
5009.22	-0.133207
5019.59	-0.1498
5029.96	-0.16574
5040.33	-0.181004
5050.7	-0.195567
5061.07	-0.209413
5071.44	-0.222524
5081.81	-0.234888
5092.19	-0.246494
5102.56	-0.257334
5112.93	-0.267406
5123.3	-0.276705
5133.67	-0.285234
5144.04	-0.292996
5154.41	-0.299995
5164.78	-0.306241
5175.15	-0.311744
5185.52	-0.316516
5195.9	-0.320572
5206.27	-0.323928
5216.64	-0.326602
5227.01	-0.328615
5237.38	-0.329986
5247.75	-0.330739
5258.12	-0.330898
5268.49	-0.330486
5278.86	-0.329531
5289.24	-0.328058
5299.61	-0.326095
5309.98	-0.32367
5320.35	-0.32081
5330.72	-0.317544
5341.09	-0.313901
5351.46	-0.30991
5361.83	-0.305598
5372.2	-0.300995
5382.58	-0.296128
5392.95	-0.291026
5403.32	-0.285715
5413.69	-0.280223
5424.06	-0.274576
5434.43	-0.268798
5444.8	-0.262915
5455.17	-0.256951
5465.54	-0.250929
5475.92	-0.244871
5486.29	-0.238798
5496.66	-0.232729
5507.03	-0.226686
5517.4	-0.220684
5527.77	-0.214742
5538.14	-0.208875
5548.51	-0.203098
5558.88	-0.197425
5569.25	-0.191868
5579.63	-0.186439
5590	-0.181148
5600.37	-0.176005
5610.74	-0.171018
5621.11	-0.166194
5631.48	-0.161539
5641.85	-0.157058
5652.22	-0.152757
5662.59	-0.148637
5672.97	-0.144702
5683.34	-0.140953
5693.71	-0.137391
5704.08	-0.134015
5714.45	-0.130825
5724.82	-0.127819
5735.19	-0.124995
5745.56	-0.122349
5755.93	-0.119879
5766.31	-0.11758
5776.68	-0.115447
5787.05	-0.113476
5797.42	-0.111661
5807.79	-0.109995
5818.16	-0.108473
5828.53	-0.107087
5838.9	-0.105832
5849.27	-0.104699
5859.64	-0.103681
5870.02	-0.10277
5880.39	-0.10196
5890.76	-0.101241
5901.13	-0.100607
5911.5	-0.100049
5921.87	-0.0995594
5932.24	-0.0991301
5942.61	-0.0987533
5952.98	-0.0984213
5963.36	-0.0981266
5973.73	-0.0978616
5984.1	-0.0976189
5994.47	-0.0973916
6004.84	-0.0971725
6015.21	-0.0969552
6025.58	-0.096733
6035.95	-0.0965
6046.32	-0.0962501
6056.7	-0.0959778
6067.07	-0.095678
6077.44	-0.0953455
6087.81	-0.0949758
6098.18	-0.0945647
6108.55	-0.0941082
6118.92	-0.0936029
6129.29	-0.0930454
6139.66	-0.092433
6150.03	-0.0917632
6160.41	-0.0910339
6170.78	-0.0902433
6181.15	-0.0893901
6191.52	-0.0884733
6201.89	-0.0874921
6212.26	-0.0864462
6222.63	-0.0853357
6233	-0.0841608
6243.37	-0.0829222
6253.75	-0.0816208
6264.12	-0.0802579
6274.49	-0.078835
6284.86	-0.0773538
6295.23	-0.0758165
6305.6	-0.0742252
6315.97	-0.0725825
6326.34	-0.0708911
6336.71	-0.0691539
6347.09	-0.0673741
6357.46	-0.0655547
6367.83	-0.0636994
6378.2	-0.0618115
6388.57	-0.0598946
6398.94	-0.0579527
6409.31	-0.0559893
6419.68	-0.0540085
6430.05	-0.0520142
6440.43	-0.0500103
6450.8	-0.0480008
6461.17	-0.0459896
6471.54	-0.0439808
6481.91	-0.0419784
6492.28	-0.0399861
6502.65	-0.0380079
6513.02	-0.0360476
6523.39	-0.0341088
6533.76	-0.0321953
6544.14	-0.0303105
6554.51	-0.0284579
6564.88	-0.0266407
6575.25	-0.0248622
6585.62	-0.0231254
6595.99	-0.0214332
6606.36	-0.0197882
6616.73	-0.0181932
6627.1	-0.0166506
6637.48	-0.0151625
6647.85	-0.0137311
6658.22	-0.0123583
6668.59	-0.0110457
6678.96	-0.00979491
6689.33	-0.00860728
6699.7	-0.00748393
6710.07	-0.00642582
6720.44	-0.00543371
6730.82	-0.00450815
6741.19	-0.00364953
6751.56	-0.00285801
6761.93	-0.00213357
6772.3	-0.001476
6782.67	-0.000884899
6793.04	-0.000359673
6803.41	0.000100454
6813.78	0.000496439
6824.16	0.000829421
6834.53	0.00110071
6844.9	0.00131179
6855.27	0.00146431
6865.64	0.00156007
6876.01	0.00160104
6886.38	0.00158933
6896.75	0.00152718
6907.12	0.00141698
6917.5	0.00126126
6927.87	0.00106265
6938.24	0.000823887
6948.61	0.000547842
6958.98	0.000237465
6969.35	-0.000104203
6979.72	-0.000474035
6990.09	-0.000868838
7000.47	-0.00128535
7010.84	-0.00172026
7021.21	-0.00217021
7031.58	-0.0026318
7041.95	-0.00310161
7052.32	-0.00357621
7062.69	-0.00405215
7073.06	-0.00452598
7083.43	-0.00499429
7093.81	-0.00545365
7104.18	-0.00590068
7114.55	-0.00633205
7124.92	-0.00674447
7135.29	-0.00713471
7145.66	-0.00749959
7156.03	-0.00783603
7166.4	-0.00814103
7176.77	-0.00841168
7187.15	-0.00864516
7197.52	-0.00883877
7207.89	-0.00898994
7218.26	-0.00909621
7228.63	-0.00915524
7239	-0.00916485
7249.37	-0.00912299
7259.74	-0.00902776
7270.11	-0.00887743
7280.49	-0.00867041
7290.86	-0.0084053
7301.23	-0.00808084
7311.6	-0.00769597
7321.97	-0.00724979
7332.34	-0.00674158
7342.71	-0.00617081
7353.08	-0.00553712
7363.45	-0.00484035
7373.83	-0.0040805
7384.2	-0.00325779
7394.57	-0.0023726
7404.94	-0.00142548
7415.31	-0.000417194
7425.68	0.000651336
7436.05	0.00177901
7446.42	0.00296454
7456.79	0.00420649
7467.16	0.00550325
7477.54	0.00685304
7487.91	0.00825394
7498.28	0.00970387
7508.65	0.0112006
7519.02	0.0127418
7529.39	0.014325
7539.76	0.0159476
7550.13	0.0176068
7560.5	0.0192998
7570.88	0.0210238
7581.25	0.0227756
7591.62	0.0245523
7601.99	0.0263506
7612.36	0.0281674
7622.73	0.0299994
7633.1	0.0318432
7643.47	0.0336956
7653.84	0.0355531
7664.22	0.0374125
7674.59	0.0392703
7684.96	0.0411232
7695.33	0.0429678
7705.7	0.0448008
7716.07	0.0466191
7726.44	0.0484192
7736.81	0.0501981
7747.18	0.0519527
7757.55	0.0536799
7767.93	0.0553768
7778.3	0.0570404
7788.67	0.0586681
7799.04	0.0602572
7809.41	0.061805
7819.78	0.0633092
7830.15	0.0647674
7840.52	0.0661775
7850.89	0.0675372
7861.27	0.0688448
7871.64	0.0700984
7882.01	0.0712963
7892.38	0.0724369
7902.75	0.073519
7913.12	0.0745411
7923.49	0.0755024
7933.86	0.0764016
7944.23	0.0772381
7954.6	0.0780112
7964.98	0.0787203
7975.35	0.079365
7985.72	0.079945
7996.09	0.0804602
8006.46	0.0809106
8016.83	0.0812963
8027.2	0.0816175
8037.57	0.0818747
8047.94	0.0820681
8058.32	0.0821985
8068.69	0.0822664
8079.06	0.0822727
8089.43	0.0822182
8099.8	0.0821039
8110.17	0.0819307
8120.54	0.0816998
8130.91	0.0814124
8141.28	0.0810696
8151.66	0.0806728
8162.03	0.0802232
8172.4	0.0797224
8182.77	0.0791715
8193.14	0.0785723
8203.51	0.0779259
8213.88	0.0772341
8224.25	0.0764983
8234.62	0.0757199
8244.99	0.0749006
8255.37	0.0740418
8265.74	0.0731451
8276.11	0.0722119
8286.48	0.0712438
8296.85	0.0702422
8307.22	0.0692086
8317.59	0.0681444
8327.96	0.0670511
8338.33	0.0659299
8348.71	0.0647823
8359.08	0.0636095
8369.45	0.0624128
8379.82	0.0611935
8390.19	0.0599526
8400.56	0.0586915
8410.93	0.0574111
8421.3	0.0561125
8431.67	0.0547968
8442.05	0.0534649
8452.42	0.0521178
8462.79	0.0507563
8473.16	0.0493814
8483.53	0.0479937
8493.9	0.0465941
8504.27	0.0451833
8514.64	0.043762
8525.01	0.0423309
8535.39	0.0408905
8545.76	0.0394415
8556.13	0.0379844
8566.5	0.0365198
8576.87	0.0350482
8587.24	0.0335701
8597.61	0.0320859
8607.98	0.0305961
8618.35	0.0291012
8628.73	0.0276015
8639.1	0.0260975
8649.47	0.0245896
8659.84	0.0230782
8670.21	0.0215637
8680.58	0.0200465
8690.95	0.0185271
8701.32	0.0170058
8711.69	0.0154831
8722.07	0.0139594
8732.44	0.0124351
8742.81	0.0109108
8753.18	0.00938684
8763.55	0.00786378
8773.92	0.00634212
8784.29	0.0048224
8794.66	0.00330518
8805.03	0.00179102
8815.41	0.000280526
8825.78	-0.00122567
8836.15	-0.00272694
8846.52	-0.00422259
8856.89	-0.00571195
8867.26	-0.00719429
8877.63	-0.00866887
8888	-0.0101349
8898.37	-0.0115917
8908.75	-0.0130384
8919.12	-0.0144741
8929.49	-0.0158981
8939.86	-0.0173095
8950.23	-0.0187073
8960.6	-0.0200909
8970.97	-0.0214591
8981.34	-0.0228112
8991.71	-0.0241463
9002.09	-0.0254634
9012.46	-0.0267616
9022.83	-0.02804
9033.2	-0.0292978
9043.57	-0.030534
9053.94	-0.0317478
9064.31	-0.0329382
9074.68	-0.0341045
9085.05	-0.0352457
9095.43	-0.0363612
9105.8	-0.03745
9116.17	-0.0385114
9126.54	-0.0395448
9136.91	-0.0405494
9147.28	-0.0415244
9157.65	-0.0424694
9168.02	-0.0433838
9178.39	-0.0442669
9188.77	-0.0451182
9199.14	-0.0459374
9209.51	-0.046724
9219.88	-0.0474776
9230.25	-0.048198
9240.62	-0.0488849
9250.99	-0.0495381
9261.36	-0.0501574
9271.73	-0.0507427
9282.11	-0.051294
9292.48	-0.0518114
9302.85	-0.0522948
9313.22	-0.0527445
9323.59	-0.0531606
9333.96	-0.0535433
9344.33	-0.0538929
9354.7	-0.0542098
9365.07	-0.0544944
9375.45	-0.0547471
9385.82	-0.0549684
9396.19	-0.0551589
9406.56	-0.0553192
9416.93	-0.0554498
9427.3	-0.0555515
9437.67	-0.055625
9448.04	-0.055671
9458.41	-0.0556904
9468.79	-0.0556839
9479.16	-0.0556524
9489.53	-0.0555968
9499.9	-0.055518
9510.27	-0.0554169
9520.64	-0.0552945
9531.01	-0.0551516
9541.38	-0.0549894
9551.75	-0.0548087
9562.12	-0.0546106
9572.5	-0.0543961
9582.87	-0.0541661
9593.24	-0.0539216
9603.61	-0.0536637
9613.98	-0.0533932
9624.35	-0.0531113
9634.72	-0.0528188
9645.09	-0.0525167
9655.46	-0.052206
9665.84	-0.0518874
9676.21	-0.051562
9686.58	-0.0512306
9696.95	-0.050894
9707.32	-0.0505531
9717.69	-0.0502086
9728.06	-0.0498613
9738.43	-0.0495119
9748.8	-0.0491611
9759.18	-0.0488096
9769.55	-0.048458
9779.92	-0.0481069
9790.29	-0.0477569
9800.66	-0.0474084
9811.03	-0.0470621
9821.4	-0.0467183
9831.77	-0.0463774
9842.14	-0.0460399
9852.52	-0.0457061
9862.89	-0.0453763
9873.26	-0.0450509
9883.63	-0.0447299
9894	-0.0444138
9904.37	-0.0441026
9914.74	-0.0437966
9925.11	-0.0434958
9935.48	-0.0432004
9945.86	-0.0429104
9956.23	-0.042626
9966.6	-0.042347
9976.97	-0.0420736
9987.34	-0.0418057
9997.71	-0.0415433
10008.1	-0.0412863
10018.5	-0.0410347
10028.8	-0.0407883
10039.2	-0.0405471
10049.6	-0.040311
10059.9	-0.0400799
10070.3	-0.0398535
10080.7	-0.0396318
10091.1	-0.0394146
10101.4	-0.0392018
10111.8	-0.0389932
10122.2	-0.0387887
10132.5	-0.038588
10142.9	-0.038391
10153.3	-0.0381976
10163.6	-0.0380076
10174	-0.0378207
10184.4	-0.037637
10194.8	-0.0374561
10205.1	-0.037278
10215.5	-0.0371024
10225.9	-0.0369293
10236.2	-0.0367585
10246.6	-0.0365898
10257	-0.0364231
10267.4	-0.0362584
10277.7	-0.0360954
10288.1	-0.035934
10298.5	-0.0357742
10308.8	-0.0356159
10319.2	-0.0354588
10329.6	-0.035303
10340	-0.0351484
10350.3	-0.0349948
10360.7	-0.0348423
10371.1	-0.0346906
10381.4	-0.0345398
10391.8	-0.0343897
10402.2	-0.0342404
10412.6	-0.0340917
10422.9	-0.0339435
10433.3	-0.0337959
10443.7	-0.0336487
10454	-0.0335019
10464.4	-0.0333554
10474.8	-0.0332092
10485.2	-0.0330632
10495.5	-0.0329173
10505.9	-0.0327714
10516.3	-0.0326255
10526.6	-0.0324796
10537	-0.0323334
10547.4	-0.0321869
10557.8	-0.0320401
10568.1	-0.0318927
10578.5	-0.0317448
10588.9	-0.0315962
10599.2	-0.0314467
10609.6	-0.0312962
10620	-0.0311447
10630.3	-0.0309919
10640.7	-0.0308376
10651.1	-0.0306818
10661.5	-0.0305242
10671.8	-0.0303647
10682.2	-0.030203
10692.6	-0.030039
10702.9	-0.0298724
10713.3	-0.029703
10723.7	-0.0295307
10734.1	-0.029355
10744.4	-0.0291759
10754.8	-0.028993
10765.2	-0.0288061
10775.5	-0.0286149
10785.9	-0.0284191
10796.3	-0.0282184
10806.7	-0.0280126
10817	-0.0278013
10827.4	-0.0275843
10837.8	-0.0273612
10848.1	-0.0271318
10858.5	-0.0268956
10868.9	-0.0266524
10879.3	-0.0264019
10889.6	-0.0261438
10900	-0.0258777
10910.4	-0.0256033
10920.7	-0.0253203
10931.1	-0.0250283
10941.5	-0.0247271
10951.9	-0.0244163
10962.2	-0.0240957
10972.6	-0.0237649
10983	-0.0234237
10993.3	-0.0230717
11003.7	-0.0227087
11014.1	-0.0223344
11024.5	-0.0219485
11034.8	-0.0215509
11045.2	-0.0211411
11055.6	-0.0207191
11065.9	-0.0202847
11076.3	-0.0198375
11086.7	-0.0193775
11097.1	-0.0189044
11107.4	-0.0184182
11117.8	-0.0179186
11128.2	-0.0174056
11138.5	-0.016879
11148.9	-0.0163388
11159.3	-0.0157849
11169.6	-0.0152173
11180	-0.0146359
11190.4	-0.0140408
11200.8	-0.0134319
11211.1	-0.0128094
11221.5	-0.0121732
11231.9	-0.0115235
11242.2	-0.0108604
11252.6	-0.0101839
11263	-0.00949431
11273.4	-0.00879174
11283.7	-0.0080764
11294.1	-0.00734851
11304.5	-0.00660831
11314.8	-0.00585607
11325.2	-0.00509207
11335.6	-0.00431664
11346	-0.0035301
11356.3	-0.00273281
11366.7	-0.00192515
11377.1	-0.0011075
11387.4	-0.00028028
11397.8	0.000556068
11408.2	0.00140109
11418.6	0.00225432
11428.9	0.00311527
11439.3	0.00398343
11449.7	0.00485828
11460	0.00573928
11470.4	0.00662589
11480.8	0.00751754
11491.2	0.00841365
11501.5	0.00931364
11511.9	0.0102169
11522.3	0.0111229
11532.6	0.0120309
11543	0.0129403
11553.4	0.0138506
11563.8	0.0147611
11574.1	0.0156711
11584.5	0.0165801
11594.9	0.0174874
11605.2	0.0183923
11615.6	0.0192942
11626	0.0201926
11636.3	0.0210867
11646.7	0.021976
11657.1	0.0228598
11667.5	0.0237376
11677.8	0.0246087
11688.2	0.0254726
11698.6	0.0263288
11708.9	0.0271765
11719.3	0.0280154
11729.7	0.0288448
11740.1	0.0296643
11750.4	0.0304733
11760.8	0.0312714
11771.2	0.0320582
11781.5	0.0328331
11791.9	0.0335958
11802.3	0.0343459
11812.7	0.035083
11823	0.0358067
11833.4	0.0365168
11843.8	0.0372128
11854.1	0.0378945
11864.5	0.0385617
11874.9	0.0392142
11885.3	0.0398516
11895.6	0.0404738
11906	0.0410808
11916.4	0.0416722
11926.7	0.042248
11937.1	0.0428081
11947.5	0.0433525
11957.9	0.043881
11968.2	0.0443938
11978.6	0.0448906
11989	0.0453717
11999.3	0.045837
