0	0
13.1986	0
26.3972	0
39.5958	0
52.7944	0
65.993	0
79.1916	0
92.3902	0
105.589	0
118.787	0
131.986	0
145.185	0
158.383	0
171.582	0
184.78	0
197.979	0
211.178	0
224.376	0
237.575	0
250.773	0
263.972	0
277.171	0
290.369	0
303.568	0
316.766	0
329.965	0
343.163	0
356.362	0
369.561	0
382.759	0
395.958	0
409.156	0
422.355	0
435.554	0
448.752	0
461.951	0
475.149	0
488.348	0
501.547	0
514.745	0
527.944	0
541.142	0
554.341	0
567.54	0
580.738	0
593.937	0
607.135	0
620.334	0
633.533	0
646.731	0
659.93	0
673.128	0
686.327	0
699.526	0
712.724	0
725.923	0
739.121	0
752.32	0
765.519	0
778.717	0
791.916	0
805.114	0
818.313	0
831.512	0
844.71	0
857.909	0
871.107	0
884.306	0
897.505	0
910.703	0
923.902	0
937.1	0
950.299	0
963.498	0
976.696	0
989.895	0
1003.09	0
1016.29	0
1029.49	0
1042.69	0
1055.89	0
1069.09	0
1082.28	0
1095.48	0
1108.68	0
1121.88	0
1135.08	0
1148.28	0
1161.48	0
1174.68	0
1187.87	0
1201.07	0
1214.27	0
1227.47	0
1240.67	0
1253.87	0
1267.07	0
1280.26	0
1293.46	0
1306.66	0
1319.86	0
1333.06	0
1346.26	0
1359.46	0
1372.65	0
1385.85	0
1399.05	0
1412.25	0
1425.45	0
1438.65	0
1451.85	0
1465.04	0
1478.24	0
1491.44	0
1504.64	0
1517.84	0
1531.04	0
1544.24	0
1557.43	0
1570.63	0
1583.83	0
1597.03	0
1610.23	0
1623.43	0
1636.63	0
1649.82	0
1663.02	0
1676.22	0
1689.42	0
1702.62	0
1715.82	0
1729.02	0
1742.21	0
1755.41	0
1768.61	0
1781.81	0
1795.01	0
1808.21	0
1821.41	0
1834.6	0
1847.8	0
1861	0
1874.2	0
1887.4	0
1900.6	0
1913.8	0
1927	0
1940.19	0
1953.39	0
1966.59	0
1979.79	0
1992.99	0
2006.19	0
2019.39	0
2032.58	0
2045.78	0
2058.98	0
2072.18	0
2085.38	0
2098.58	0
2111.78	0
2124.97	0
2138.17	0
2151.37	0
2164.57	0
2177.77	0
2190.97	0
2204.17	0
2217.36	0
2230.56	0
2243.76	0
2256.96	9.09495e-13
2270.16	1.81899e-12
2283.36	3.63798e-12
2296.56	6.36646e-12
2309.75	1.09139e-11
2322.95	1.72804e-11
2336.15	2.81943e-11
2349.35	4.45652e-11
2362.55	7.00311e-11
2375.75	1.09139e-10
2388.95	1.67347e-10
2402.14	2.54659e-10
2415.34	3.82897e-10
2428.54	5.72072e-10
2441.74	8.4674e-10
2454.94	1.24146e-09
2468.14	1.80535e-09
2481.34	2.60388e-09
2494.53	3.72529e-09
2507.73	5.28598e-09
2520.93	7.4433e-09
2534.13	1.04001e-08
2547.33	1.44228e-08
2560.53	1.98561e-08
2573.73	2.71384e-08
2586.92	3.68309e-08
2600.12	4.96402e-08
2613.32	6.64504e-08
2626.52	8.8362e-08
2639.72	1.16732e-07
2652.92	1.53225e-07
2666.12	1.99866e-07
2679.31	2.591e-07
2692.51	3.33866e-07
2705.71	4.2766e-07
2718.91	5.44627e-07
2732.11	6.89643e-07
2745.31	8.68403e-07
2758.5	1.08752e-06
2771.7	1.35464e-06
2784.9	1.67851e-06
2798.1	2.06911e-06
2811.3	2.53775e-06
2824.5	3.09718e-06
2837.69	3.76165e-06
2850.89	4.54706e-06
2864.09	5.47098e-06
2877.29	6.55279e-06
2890.49	7.8137e-06
2903.69	9.27682e-06
2916.89	1.09672e-05
2930.08	1.29118e-05
2943.28	1.51396e-05
2956.48	1.76816e-05
2969.68	2.05706e-05
2982.88	2.38415e-05
2996.07	2.75309e-05
3009.27	3.16773e-05
3022.47	3.6321e-05
3035.67	4.15038e-05
3048.87	4.72694e-05
3062.07	5.36628e-05
3075.26	6.07306e-05
3088.46	6.85209e-05
3101.66	7.70833e-05
3114.86	8.64687e-05
3128.06	9.67298e-05
3141.25	0.000107921
3154.45	0.000120098
3167.65	0.000133319
3180.85	0.000147644
3194.05	0.000163139
3207.25	0.000179869
3220.44	0.000197907
3233.64	0.000217331
3246.84	0.000238225
3260.04	0.000260681
3273.24	0.000284803
3286.43	0.000310708
3299.63	0.000338527
3312.83	0.000368414
3326.03	0.000400542
3339.23	0.000435117
3352.42	0.000472377
3365.62	0.000512602
3378.82	0.000556123
3392.02	0.000603329
3405.22	0.000654678
3418.41	0.000710714
3431.61	0.000772076
3444.81	0.000839516
3458.01	0.000913919
3471.21	0.000996322
3484.4	0.00108794
3497.6	0.00119018
3510.8	0.0013047
3524	0.00143339
3537.19	0.00157847
3550.39	0.00174244
3563.59	0.00192823
3576.79	0.00213912
3589.99	0.00237888
3603.18	0.00265177
3616.38	0.00296259
3629.58	0.00331671
3642.78	0.00372015
3655.98	0.00417961
3669.17	0.00470251
3682.37	0.005297
3695.57	0.00597207
3708.77	0.0067375
3721.97	0.00760394
3735.16	0.00858291
3748.36	0.00968678
3761.56	0.0109288
3774.76	0.0123231
3787.96	0.0138846
3801.16	0.0156291
3814.35	0.0175729
3827.55	0.0197331
3840.75	0.0221275
3853.95	0.024774
3867.15	0.0276912
3880.34	0.0308975
3893.54	0.0344116
3906.74	0.0382519
3919.94	0.0424364
3933.14	0.0469824
3946.34	0.0519066
3959.53	0.0572246
3972.73	0.0629504
3985.93	0.0690966
3999.13	0.0756742
4012.33	0.0826916
4025.53	0.0901551
4038.72	0.0980684
4051.92	0.106432
4065.12	0.115244
4078.32	0.124499
4091.52	0.134186
4104.72	0.144294
4117.92	0.154806
4131.11	0.165701
4144.31	0.176953
4157.51	0.188536
4170.71	0.200415
4183.91	0.212554
4197.11	0.224913
4210.31	0.237446
4223.5	0.250107
4236.7	0.262843
4249.9	0.2756
4263.1	0.288321
4276.3	0.300947
4289.5	0.313414
4302.7	0.32566
4315.89	0.337621
4329.09	0.34923
4342.29	0.360421
4355.49	0.37113
4368.69	0.381291
4381.89	0.39084
4395.09	0.399716
4408.28	0.407858
4421.48	0.415209
4434.68	0.421716
4447.88	0.427328
4461.08	0.431999
4474.28	0.435686
4487.48	0.438352
4500.67	0.439966
4513.87	0.4405
4527.07	0.439933
4540.27	0.438249
4553.47	0.435439
4566.67	0.431499
4579.86	0.426432
4593.06	0.420245
4606.26	0.412953
4619.46	0.404576
4632.66	0.395139
4645.86	0.384674
4659.06	0.373217
4672.25	0.36081
4685.45	0.347497
4698.65	0.33333
4711.85	0.318363
4725.05	0.302654
4738.25	0.286264
4751.45	0.269255
4764.64	0.251696
4777.84	0.233652
4791.04	0.215195
4804.24	0.196393
4817.44	0.177318
4830.64	0.15804
4843.83	0.138631
4857.03	0.11916
4870.23	0.0996961
4883.43	0.0803064
4896.63	0.0610563
4909.83	0.0420093
4923.03	0.0232259
4936.22	0.00476445
4949.42	-0.0133202
4962.62	-0.0309761
4975.82	-0.0481549
4989.02	-0.0648117
5002.22	-0.0809054
5015.42	-0.0963987
5028.61	-0.111258
5041.81	-0.125454
5055.01	-0.138962
5068.21	-0.151758
5081.41	-0.163827
5094.61	-0.175154
5107.81	-0.185729
5121	-0.195546
5134.2	-0.204602
5147.4	-0.212899
5160.6	-0.220439
5173.8	-0.227231
5187	-0.233285
5200.19	-0.238613
5213.39	-0.243232
5226.59	-0.247159
5239.79	-0.250415
5252.99	-0.253022
5266.19	-0.255004
5279.39	-0.256387
5292.58	-0.257198
5305.78	-0.257465
5318.98	-0.257217
5332.18	-0.256484
5345.38	-0.255297
5358.58	-0.253686
5371.78	-0.251683
5384.97	-0.249319
5398.17	-0.246625
5411.37	-0.243631
5424.57	-0.240368
5437.77	-0.236866
5450.97	-0.233153
5464.17	-0.229259
5477.36	-0.225209
5490.56	-0.221031
5503.76	-0.216749
5516.96	-0.212389
5530.16	-0.207972
5543.36	-0.203521
5556.56	-0.199055
5569.75	-0.194594
5582.95	-0.190154
5596.15	-0.185753
5609.35	-0.181406
5622.55	-0.177124
5635.75	-0.172921
5648.94	-0.168807
5662.14	-0.164792
5675.34	-0.160883
5688.54	-0.157087
5701.74	-0.15341
5714.94	-0.149856
5728.14	-0.146427
5741.33	-0.143127
5754.53	-0.139956
5767.73	-0.136913
5780.93	-0.133999
5794.13	-0.131211
5807.33	-0.128547
5820.53	-0.126004
5833.72	-0.123578
5846.92	-0.121263
5860.12	-0.119056
5873.32	-0.11695
5886.52	-0.114941
5899.72	-0.11302
5912.92	-0.111183
5926.11	-0.109423
5939.31	-0.107732
5952.51	-0.106104
5965.71	-0.104532
5978.91	-0.103009
5992.11	-0.101528
6005.31	-0.100083
6018.5	-0.0986661
6031.7	-0.0972721
6044.9	-0.0958946
6058.1	-0.0945277
6071.3	-0.0931659
6084.5	-0.0918041
6097.69	-0.0904374
6110.89	-0.0890612
6124.09	-0.0876717
6137.29	-0.086265
6150.49	-0.0848379
6163.69	-0.0833877
6176.89	-0.0819119
6190.08	-0.0804085
6203.28	-0.0788761
6216.48	-0.0773134
6229.68	-0.0757199
6242.88	-0.0740952
6256.08	-0.0724395
6269.28	-0.0707532
6282.47	-0.0690372
6295.67	-0.0672927
6308.87	-0.0655213
6322.07	-0.0637248
6335.27	-0.0619054
6348.47	-0.0600654
6361.67	-0.0582076
6374.86	-0.0563349
6388.06	-0.0544502
6401.26	-0.0525568
6414.46	-0.0506582
6427.66	-0.0487577
6440.86	-0.046859
6454.06	-0.0449658
6467.25	-0.0430817
6480.45	-0.0412103
6493.65	-0.0393555
6506.85	-0.0375208
6520.05	-0.0357099
6533.25	-0.0339262
6546.45	-0.0321732
6559.64	-0.0304541
6572.84	-0.0287721
6586.04	-0.0271301
6599.24	-0.0255311
6612.44	-0.0239776
6625.64	-0.022472
6638.84	-0.0210165
6652.03	-0.0196131
6665.23	-0.0182635
6678.43	-0.0169692
6691.63	-0.0157314
6704.83	-0.0145511
6718.03	-0.013429
6731.23	-0.0123656
6744.42	-0.011361
6757.62	-0.0104151
6770.82	-0.00952765
6784.02	-0.00869794
6797.22	-0.00792514
6810.42	-0.00720813
6823.62	-0.00654555
6836.81	-0.00593581
6850.01	-0.00537708
6863.21	-0.00486732
6876.41	-0.0044043
6889.61	-0.00398558
6902.81	-0.00360855
6916.01	-0.00327042
6929.2	-0.00296826
6942.4	-0.00269901
6955.6	-0.00245947
6968.8	-0.00224634
6982	-0.00205625
6995.2	-0.00188572
7008.4	-0.00173124
7021.59	-0.00158926
7034.79	-0.00145619
7047.99	-0.00132844
7061.19	-0.00120245
7074.39	-0.00107465
7087.59	-0.00094155
7100.79	-0.000799688
7113.98	-0.000645693
7127.18	-0.000476276
7140.38	-0.000288255
7153.58	-7.85618e-05
7166.78	0.000155741
7179.98	0.000417448
7193.18	0.000709199
7206.37	0.00103347
7219.57	0.00139257
7232.77	0.0017886
7245.97	0.0022235
7259.17	0.00269898
7272.37	0.00321658
7285.56	0.00377759
7298.76	0.00438311
7311.96	0.00503402
7325.16	0.00573097
7338.36	0.00647439
7351.56	0.00726448
7364.76	0.00810125
7377.95	0.00898444
7391.15	0.00991361
7404.35	0.0108881
7417.55	0.011907
7430.75	0.0129693
7443.95	0.0140737
7457.15	0.0152186
7470.34	0.0164026
7483.54	0.0176236
7496.74	0.0188798
7509.94	0.020169
7523.14	0.0214888
7536.34	0.0228369
7549.53	0.0242107
7562.73	0.0256074
7575.93	0.0270244
7589.13	0.0284587
7602.33	0.0299075
7615.53	0.0313676
7628.73	0.032836
7641.92	0.0343097
7655.12	0.0357854
7668.32	0.03726
7681.52	0.0387303
7694.72	0.0401932
7707.92	0.0416455
7721.12	0.0430841
7734.31	0.0445059
7747.51	0.0459079
7760.71	0.0472871
7773.91	0.0486406
7787.11	0.0499655
7800.31	0.0512591
7813.5	0.0525187
7826.7	0.0537418
7839.9	0.0549258
7853.1	0.0560684
7866.3	0.0571674
7879.5	0.0582206
7892.7	0.059226
7905.89	0.0601817
7919.09	0.061086
7932.29	0.0619372
7945.49	0.0627338
7958.69	0.0634745
7971.89	0.0641579
7985.09	0.0647831
7998.28	0.0653489
8011.48	0.0658545
8024.68	0.0662992
8037.88	0.0666823
8051.08	0.0670034
8064.28	0.0672621
8077.48	0.0674581
8090.67	0.0675912
8103.87	0.0676614
8117.07	0.0676687
8130.27	0.0676133
8143.47	0.0674955
8156.67	0.0673154
8169.87	0.0670736
8183.06	0.0667705
8196.26	0.0664067
8209.46	0.0659829
8222.66	0.0654997
8235.86	0.0649579
8249.06	0.0643583
8262.26	0.0637017
8275.45	0.0629893
8288.65	0.0622218
8301.85	0.0614003
8315.05	0.0605259
8328.25	0.0595997
8341.45	0.0586227
8354.64	0.0575962
8367.84	0.0565214
8381.04	0.0553994
8394.24	0.0542316
8407.44	0.0530191
8420.64	0.0517633
8433.84	0.0504655
8447.03	0.049127
8460.23	0.0477492
8473.43	0.0463334
8486.63	0.044881
8499.83	0.0433935
8513.03	0.0418722
8526.23	0.0403186
8539.43	0.0387342
8552.62	0.0371204
8565.82	0.0354787
8579.02	0.0338107
8592.22	0.0321178
8605.42	0.0304017
8618.62	0.0286638
8631.82	0.0269057
8645.01	0.0251291
8658.21	0.0233356
8671.41	0.0215267
8684.61	0.0197042
8697.81	0.0178697
8711.01	0.0160249
8724.21	0.0141715
8737.4	0.0123112
8750.6	0.0104457
8763.8	0.00857672
8777	0.00670605
8790.2	0.00483544
8803.4	0.00296663
8816.6	0.0011014
8829.79	-0.000758488
8842.99	-0.00261127
8856.19	-0.00445517
8869.39	-0.00628843
8882.59	-0.00810929
8895.79	-0.00991602
8908.99	-0.0117069
8922.18	-0.0134801
8935.38	-0.0152341
8948.58	-0.0169671
8961.78	-0.0186776
8974.98	-0.0203638
8988.18	-0.0220242
9001.38	-0.0236572
9014.57	-0.0252615
9027.77	-0.0268353
9040.97	-0.0283775
9054.17	-0.0298866
9067.37	-0.0313612
9080.57	-0.0328003
9093.77	-0.0342024
9106.96	-0.0355666
9120.16	-0.0368917
9133.36	-0.0381769
9146.56	-0.039421
9159.76	-0.0406234
9172.96	-0.0417831
9186.16	-0.0428996
9199.35	-0.0439722
9212.55	-0.0450003
9225.75	-0.0459836
9238.95	-0.0469216
9252.15	-0.047814
9265.35	-0.0486606
9278.55	-0.0494614
9291.74	-0.0502161
9304.94	-0.050925
9318.14	-0.0515881
9331.34	-0.0522055
9344.54	-0.0527776
9357.74	-0.0533047
9370.94	-0.0537873
9384.13	-0.0542258
9397.33	-0.0546207
9410.53	-0.0549728
9423.73	-0.0552828
9436.93	-0.0555513
9450.13	-0.0557791
9463.33	-0.0559673
9476.52	-0.0561166
9489.72	-0.0562281
9502.92	-0.0563027
9516.12	-0.0563416
9529.32	-0.0563458
9542.52	-0.0563163
9555.72	-0.0562545
9568.91	-0.0561614
9582.11	-0.0560383
9595.31	-0.0558863
9608.51	-0.0557067
9621.71	-0.0555007
9634.91	-0.0552696
9648.11	-0.0550146
9661.3	-0.0547369
9674.5	-0.0544378
9687.7	-0.0541185
9700.9	-0.0537802
9714.1	-0.0534242
9727.3	-0.0530515
9740.5	-0.0526634
9753.69	-0.052261
9766.89	-0.0518455
9780.09	-0.0514178
9793.29	-0.0509792
9806.49	-0.0505305
9819.69	-0.0500728
9832.89	-0.0496072
9846.08	-0.0491344
9859.28	-0.0486554
9872.48	-0.0481711
9885.68	-0.0476823
9898.88	-0.0471898
9912.08	-0.0466943
9925.28	-0.0461965
9938.47	-0.0456971
9951.67	-0.0451968
9964.87	-0.0446961
9978.07	-0.0441956
9991.27	-0.0436958
10004.5	-0.0431973
10017.7	-0.0427005
10030.9	-0.0422057
10044.1	-0.0417134
10057.3	-0.041224
10070.5	-0.0407378
10083.7	-0.040255
10096.9	-0.0397759
10110.1	-0.0393008
10123.3	-0.0388299
10136.5	-0.0383633
10149.7	-0.0379012
10162.8	-0.0374438
10176	-0.0369912
10189.2	-0.0365434
10202.4	-0.0361006
10215.6	-0.0356628
10228.8	-0.0352299
10242	-0.0348021
10255.2	-0.0343794
10268.4	-0.0339616
10281.6	-0.0335489
10294.8	-0.0331411
10308	-0.0327382
10321.2	-0.0323402
10334.4	-0.0319468
10347.6	-0.0315582
10360.8	-0.0311741
10374	-0.0307944
10387.2	-0.030419
10400.4	-0.0300478
10413.6	-0.0296806
10426.8	-0.0293173
10440	-0.0289577
10453.2	-0.0286017
10466.4	-0.028249
10479.6	-0.0278996
10492.8	-0.0275531
10506	-0.0272094
10519.2	-0.0268683
10532.4	-0.0265295
10545.6	-0.0261928
10558.8	-0.0258581
10572	-0.025525
10585.2	-0.0251933
10598.4	-0.0248628
10611.6	-0.0245331
10624.8	-0.0242041
10638	-0.0238754
10651.2	-0.0235468
10664.4	-0.0232179
10677.6	-0.0228885
10690.8	-0.0225583
10704	-0.022227
10717.2	-0.0218942
10730.4	-0.0215597
10743.6	-0.0212231
10756.8	-0.0208841
10770	-0.0205424
10783.2	-0.0201976
10796.4	-0.0198495
10809.6	-0.0194977
10822.8	-0.0191418
10836	-0.0187817
10849.2	-0.0184168
10862.4	-0.018047
10875.6	-0.0176718
10888.8	-0.017291
10902	-0.0169043
10915.2	-0.0165113
10928.4	-0.0161119
10941.6	-0.0157056
10954.8	-0.0152921
10968	-0.0148714
10981.2	-0.014443
10994.4	-0.0140067
11007.6	-0.0135624
11020.8	-0.0131097
11034	-0.0126485
11047.2	-0.0121786
11060.4	-0.0116999
11073.6	-0.0112121
11086.7	-0.0107152
11099.9	-0.010209
11113.1	-0.00969339
11126.3	-0.00916839
11139.5	-0.00863391
11152.7	-0.00808991
11165.9	-0.00753639
11179.1	-0.00697336
11192.3	-0.00640086
11205.5	-0.00581895
11218.7	-0.00522773
11231.9	-0.00462729
11245.1	-0.00401777
11258.3	-0.00339933
11271.5	-0.00277215
11284.7	-0.00213643
11297.9	-0.0014924
11311.1	-0.0008403
11324.3	-0.000180412
11337.5	0.000486974
11350.7	0.00116155
11363.9	0.00184297
11377.1	0.00253088
11390.3	0.00322492
11403.5	0.0039247
11416.7	0.0046298
11429.9	0.0053398
11443.1	0.00605427
11456.3	0.00677276
11469.5	0.00749479
11482.7	0.0082199
11495.9	0.00894761
11509.1	0.00967741
11522.3	0.0104088
11535.5	0.0111413
11548.7	0.0118744
11561.9	0.0126076
11575.1	0.0133403
11588.3	0.014072
11601.5	0.0148023
11614.7	0.0155306
11627.9	0.0162564
11641.1	0.0169792
11654.3	0.0176986
11667.5	0.0184139
11680.7	0.0191247
11693.9	0.0198307
11707.1	0.0205312
11720.3	0.0212258
11733.5	0.0219142
11746.7	0.0225958
11759.9	0.0232703
11773.1	0.0239373
11786.3	0.0245963
11799.5	0.0252471
11812.7	0.0258892
11825.9	0.0265223
11839.1	0.0271461
11852.3	0.0277603
11865.5	0.0283645
11878.7	0.0289586
11891.9	0.0295422
11905.1	0.0301151
11918.3	0.0306771
11931.5	0.0312279
11944.7	0.0317674
11957.9	0.0322953
11971.1	0.0328115
11984.3	0.0333159
11997.4	0.0338082
