
Simulation on single triangle

Serial: simply the serial version
Parallel1: parallel version without any splits
Parallel2: parallel version with any splits and joins

INITIAL_DEPTH	MTPS_SERIAL	MTPS_PARALLEL1	MTPS_PARALLEL2	MTPS_PARALLEL3	TIMESTEPS	AVERAGE_TRIANGLES_SERIAL	AVERAGE_TRIANGLES_PARALLEL1	AVERAGE_TRIANGLES_PARALLEL2	AVERAGE_TRIANGLES_PARALLEL3	AVERAGE_PARTITIONS_PARALLEL2
10	4.61857	4.272	4.33365	3.85196	65536	1024	1024	1024	1024	4
11	4.53754	4.28067	4.29188	3.85829	32768	2048	2048	2048	2048	8
12	4.97529	4.62979	4.75485	4.41956	16384	4096	4096	4096	4096	8.00488
13	5.12508	4.7072	4.88547	4.60114	8192	8192	8192	8192	8192	16.0195
14	5.28634	5.10158	5.19079	4.92877	4096	16384	16384	16384	16384	16.1211
15	5.30983	5.10067	5.17182	5.00096	2048	32768	32768	32768	32768	32.4844
16	5.64505	5.48815	5.49122	5.33729	1024	65536	65536	65536	65536	34.3125
17	5.53418	5.16947	5.22089	5.25398	512	131072	131072	131072	131072	73.25
18	5.60926	5.21046	5.31505	5.25829	256	262144	262144	262144	262144	104.25
19	5.50157	5.03361	5.15025	4.93793	128	524288	524288	524288	524288	289
20	5.62605	5.14131	5.18007	4.96362	64	1.04858e+06	1.04858e+06	1.04858e+06	1.04858e+06	800
21	5.40038	4.82037	4.81279	4.52265	32	2.09715e+06	2.09715e+06	2.09715e+06	2.09715e+06	2944
22	5.63051	4.47128	4.45037	3.94408	16	4.1943e+06	4.1943e+06	4.1943e+06	4.1943e+06	11248
23	5.44493	4.51729	4.51585	4.29295	8	8.38861e+06	8.38861e+06	8.38861e+06	8.38861e+06	32768
24	5.627	4.57188	4.57434	4.30436	4	1.67772e+07	1.67772e+07	1.67772e+07	1.67772e+07	65536
25	5.46755	4.46885	4.47201	4.23215	4	3.35544e+07	3.35544e+07	3.35544e+07	3.35544e+07	131072
26	5.58764	4.55157	4.55552	4.28067	4	6.71089e+07	6.71089e+07	6.71089e+07	6.71089e+07	262144
27	5.47726	4.32221	4.32326	4.20649	4	1.34218e+08	1.34218e+08	1.34218e+08	1.34218e+08	524288
