Problem size with different number of CPUs using function optimization
THREADS	INITIAL_DEPTH	MTPS	TIMESTEPS	TIMESTEP_SIZE	SECONDS_FOR_SIMULATION	AVERAGE_TRIANGLES	AVERAGE_PARTITIONS
80	99.4945	100	0.000986073	19.2744	1.9177e+07	1162.24
79	100.541	100	0.000986073	19.0738	1.9177e+07	1162.24
78	99.4835	100	0.000986073	19.2766	1.9177e+07	1162.24
77	99.3474	100	0.000986073	19.303	1.9177e+07	1162.24
76	99.6324	100	0.000986073	19.2477	1.9177e+07	1162.24
75	100.129	100	0.000986073	19.1523	1.9177e+07	1162.24
74	99.5486	100	0.000986073	19.2639	1.9177e+07	1162.24
73	99.5836	100	0.000986073	19.2572	1.9177e+07	1162.24
72	99.0984	100	0.000986073	19.3515	1.9177e+07	1162.24
71	98.9428	100	0.000986073	19.3819	1.9177e+07	1162.24
70	93.9405	100	0.000986073	20.414	1.9177e+07	1162.24
69	84.7218	100	0.000986073	22.6352	1.9177e+07	1162.24
68	83.6028	100	0.000986073	22.9382	1.9177e+07	1162.24
67	80.4813	100	0.000986073	23.8279	1.9177e+07	1162.24
66	61.2005	100	0.000986073	31.3347	1.9177e+07	1162.24
65	57.9162	100	0.000986073	33.1116	1.9177e+07	1162.24
64	73.1765	100	0.000986073	26.2065	1.9177e+07	1162.24
63	81.8495	100	0.000986073	23.4296	1.9177e+07	1162.24
62	73.754	100	0.000986073	26.0013	1.9177e+07	1162.24
61	79.9127	100	0.000986073	23.9974	1.9177e+07	1162.24
60	78.1291	100	0.000986073	24.5453	1.9177e+07	1162.24
59	81.1246	100	0.000986073	23.6389	1.9177e+07	1162.24
58	76.7606	100	0.000986073	24.9829	1.9177e+07	1162.24
57	77.6723	100	0.000986073	24.6896	1.9177e+07	1162.24
56	76.6162	100	0.000986073	25.0299	1.9177e+07	1162.24
55	77.8664	100	0.000986073	24.6281	1.9177e+07	1162.24
54	77.3777	100	0.000986073	24.7836	1.9177e+07	1162.24
53	74.1321	100	0.000986073	25.8687	1.9177e+07	1162.24
52	76.3622	100	0.000986073	25.1132	1.9177e+07	1162.24
51	74.9967	100	0.000986073	25.5705	1.9177e+07	1162.24
50	81.3963	100	0.000986073	23.56	1.9177e+07	1162.24
49	74.7367	100	0.000986073	25.6594	1.9177e+07	1162.24
48	68.7203	100	0.000986073	27.9059	1.9177e+07	1162.24
47	73.6897	100	0.000986073	26.024	1.9177e+07	1162.24
46	78.1314	100	0.000986073	24.5445	1.9177e+07	1162.24
45	76.4725	100	0.000986073	25.077	1.9177e+07	1162.24
44	74.2381	100	0.000986073	25.8317	1.9177e+07	1162.24
43	77.9965	100	0.000986073	24.587	1.9177e+07	1162.24
42	71.6749	100	0.000986073	26.7555	1.9177e+07	1162.24
41	77.8297	100	0.000986073	24.6397	1.9177e+07	1162.24
40	76.9901	100	0.000986073	24.9084	1.9177e+07	1162.24
39	79.4856	100	0.000986073	24.1264	1.9177e+07	1162.24
38	73.1793	100	0.000986073	26.2055	1.9177e+07	1162.24
37	76.8788	100	0.000986073	24.9444	1.9177e+07	1162.24
36	70.3742	100	0.000986073	27.25	1.9177e+07	1162.24
35	65.4263	100	0.000986073	29.3108	1.9177e+07	1162.24
34	72.836	100	0.000986073	26.329	1.9177e+07	1162.24
33	68.9982	100	0.000986073	27.7935	1.9177e+07	1162.24
32	69.9613	100	0.000986073	27.4109	1.9177e+07	1162.24
31	69.2716	100	0.000986073	27.6838	1.9177e+07	1162.24
30	62.2728	100	0.000986073	30.7951	1.9177e+07	1162.24
29	67.1174	100	0.000986073	28.5723	1.9177e+07	1162.24
28	63.8061	100	0.000986073	30.0551	1.9177e+07	1162.24
27	64.4468	100	0.000986073	29.7563	1.9177e+07	1162.24
26	62.2265	100	0.000986073	30.818	1.9177e+07	1162.24
25	62.7319	100	0.000986073	30.5698	1.9177e+07	1162.24
24	57.295	100	0.000986073	33.4706	1.9177e+07	1162.24
23	57.0024	100	0.000986073	33.6425	1.9177e+07	1162.24
22	53.7848	100	0.000986073	35.6551	1.9177e+07	1162.24
21	52.9122	100	0.000986073	36.243	1.9177e+07	1162.24
20	48.8445	100	0.000986073	39.2614	1.9177e+07	1162.24
19	52.2395	100	0.000986073	36.7097	1.9177e+07	1162.24
18	48.7888	100	0.000986073	39.3062	1.9177e+07	1162.24
17	47.3481	100	0.000986073	40.5022	1.9177e+07	1162.24
16	43.8657	100	0.000986073	43.7175	1.9177e+07	1162.24
15	41.5053	100	0.000986073	46.2037	1.9177e+07	1162.24
14	39.7987	100	0.000986073	48.185	1.9177e+07	1162.24
13	37.9276	100	0.000986073	50.5621	1.9177e+07	1162.24
12	35.0526	100	0.000986073	54.7092	1.9177e+07	1162.24
11	32.5285	100	0.000986073	58.9544	1.9177e+07	1162.24
10	29.2638	100	0.000986073	65.5314	1.9177e+07	1162.24
9	26.7029	100	0.000986073	71.8162	1.9177e+07	1162.24
8	23.6773	100	0.000986073	80.993	1.9177e+07	1162.24
7	20.8027	100	0.000986073	92.1851	1.9177e+07	1162.24
6	17.8639	100	0.000986073	107.351	1.9177e+07	1162.24
5	14.9063	100	0.000986073	128.65	1.9177e+07	1162.24
4	11.9207	100	0.000986073	160.872	1.9177e+07	1162.24
3	8.95237	100	0.000986073	214.211	1.9177e+07	1162.24
2	5.73371	100	0.000986073	334.46	1.9177e+07	1162.24
1	2.96005	100	0.000986073	647.861	1.9177e+07	1162.24
