Problem size with different number of CPUs using function optimization
THREADS	INITIAL_DEPTH	MTPS	TIMESTEPS	TIMESTEP_SIZE	SECONDS_FOR_SIMULATION	AVERAGE_TRIANGLES	AVERAGE_PARTITIONS
80	36.8824	100	0.000986073	51.995	1.9177e+07	1162.24
79	41.8941	100	0.000986073	45.7749	1.9177e+07	1162.24
78	38.7921	100	0.000986073	49.4353	1.9177e+07	1162.24
77	42.264	100	0.000986073	45.3743	1.9177e+07	1162.24
76	42.2522	100	0.000986073	45.3869	1.9177e+07	1162.24
75	33.6785	100	0.000986073	56.9413	1.9177e+07	1162.24
74	30.79	100	0.000986073	62.2832	1.9177e+07	1162.24
73	29.0064	100	0.000986073	66.113	1.9177e+07	1162.24
72	27.4512	100	0.000986073	69.8585	1.9177e+07	1162.24
71	26.4494	100	0.000986073	72.5044	1.9177e+07	1162.24
70	25.4066	100	0.000986073	75.4805	1.9177e+07	1162.24
69	25.3255	100	0.000986073	75.722	1.9177e+07	1162.24
68	25.5492	100	0.000986073	75.0591	1.9177e+07	1162.24
67	25.6782	100	0.000986073	74.682	1.9177e+07	1162.24
66	25.5789	100	0.000986073	74.972	1.9177e+07	1162.24
65	25.6342	100	0.000986073	74.8103	1.9177e+07	1162.24
64	24.9293	100	0.000986073	76.9256	1.9177e+07	1162.24
63	25.6982	100	0.000986073	74.6239	1.9177e+07	1162.24
62	25.1885	100	0.000986073	76.1338	1.9177e+07	1162.24
61	25.7105	100	0.000986073	74.5881	1.9177e+07	1162.24
60	25.3442	100	0.000986073	75.6662	1.9177e+07	1162.24
59	25.4245	100	0.000986073	75.4271	1.9177e+07	1162.24
58	25.7336	100	0.000986073	74.5212	1.9177e+07	1162.24
57	25.5227	100	0.000986073	75.1371	1.9177e+07	1162.24
56	25.2132	100	0.000986073	76.0593	1.9177e+07	1162.24
55	25.5002	100	0.000986073	75.2032	1.9177e+07	1162.24
54	25.6404	100	0.000986073	74.7922	1.9177e+07	1162.24
53	25.5251	100	0.000986073	75.1298	1.9177e+07	1162.24
52	25.5833	100	0.000986073	74.959	1.9177e+07	1162.24
51	25.5809	100	0.000986073	74.9661	1.9177e+07	1162.24
50	25.3295	100	0.000986073	75.7102	1.9177e+07	1162.24
49	25.4591	100	0.000986073	75.3246	1.9177e+07	1162.24
48	25.7952	100	0.000986073	74.3434	1.9177e+07	1162.24
47	25.8085	100	0.000986073	74.3048	1.9177e+07	1162.24
46	25.5049	100	0.000986073	75.1895	1.9177e+07	1162.24
45	26.0003	100	0.000986073	73.7569	1.9177e+07	1162.24
44	25.9542	100	0.000986073	73.8879	1.9177e+07	1162.24
43	25.5361	100	0.000986073	75.0975	1.9177e+07	1162.24
42	25.4996	100	0.000986073	75.2052	1.9177e+07	1162.24
41	25.5529	100	0.000986073	75.0482	1.9177e+07	1162.24
40	27.0626	100	0.000986073	70.8616	1.9177e+07	1162.24
39	26.9458	100	0.000986073	71.1687	1.9177e+07	1162.24
38	27.0755	100	0.000986073	70.828	1.9177e+07	1162.24
37	26.9113	100	0.000986073	71.26	1.9177e+07	1162.24
36	26.8975	100	0.000986073	71.2966	1.9177e+07	1162.24
35	26.9461	100	0.000986073	71.168	1.9177e+07	1162.24
34	26.7555	100	0.000986073	71.675	1.9177e+07	1162.24
33	26.7936	100	0.000986073	71.5731	1.9177e+07	1162.24
32	26.8754	100	0.000986073	71.3552	1.9177e+07	1162.24
31	26.6218	100	0.000986073	72.035	1.9177e+07	1162.24
30	26.5152	100	0.000986073	72.3244	1.9177e+07	1162.24
29	26.4756	100	0.000986073	72.4327	1.9177e+07	1162.24
28	26.4181	100	0.000986073	72.5903	1.9177e+07	1162.24
27	25.4342	100	0.000986073	75.3986	1.9177e+07	1162.24
26	26.3054	100	0.000986073	72.9012	1.9177e+07	1162.24
25	26.3016	100	0.000986073	72.9119	1.9177e+07	1162.24
24	25.311	100	0.000986073	75.7655	1.9177e+07	1162.24
23	25.1666	100	0.000986073	76.2001	1.9177e+07	1162.24
22	25.9027	100	0.000986073	74.0347	1.9177e+07	1162.24
21	25.6743	100	0.000986073	74.6932	1.9177e+07	1162.24
20	25.3362	100	0.000986073	75.6902	1.9177e+07	1162.24
19	25.1834	100	0.000986073	76.1494	1.9177e+07	1162.24
18	25.0131	100	0.000986073	76.6678	1.9177e+07	1162.24
17	24.8041	100	0.000986073	77.3139	1.9177e+07	1162.24
16	24.5078	100	0.000986073	78.2486	1.9177e+07	1162.24
15	24.0076	100	0.000986073	79.8787	1.9177e+07	1162.24
14	23.4906	100	0.000986073	81.6368	1.9177e+07	1162.24
13	24.0311	100	0.000986073	79.8009	1.9177e+07	1162.24
12	23.6406	100	0.000986073	81.1188	1.9177e+07	1162.24
11	24.516	100	0.000986073	78.2224	1.9177e+07	1162.24
10	24.8808	100	0.000986073	77.0753	1.9177e+07	1162.24
9	23.517	100	0.000986073	81.5451	1.9177e+07	1162.24
8	21.5397	100	0.000986073	89.031	1.9177e+07	1162.24
7	19.3942	100	0.000986073	98.8801	1.9177e+07	1162.24
6	17.0113	100	0.000986073	112.731	1.9177e+07	1162.24
5	14.4066	100	0.000986073	133.112	1.9177e+07	1162.24
4	11.7109	100	0.000986073	163.753	1.9177e+07	1162.24
3	8.8882	100	0.000986073	215.758	1.9177e+07	1162.24
2	5.96513	100	0.000986073	321.485	1.9177e+07	1162.24
1	3.04595	100	0.000986073	629.589	1.9177e+07	1162.24
