%%MatrixMarket matrix array real general
6 6
-.6666666667e-1
.3333333333e-1
0.
.1000000000
-.3333333333e-1
-.3333333333e-1
-.1000000000
-.2666666667
0.
.1333333333
.2666666667
-.3333333333e-1
.3333333333e-1
-.6666666667e-1
0.
0.
.6666666667e-1
-.3333333333e-1
-.1000000000
-.1333333333
0.
0.
.1333333333
.1000000000
.3333333333e-1
-.2666666667
0.
-.1333333333
.2666666667
.1000000000
.3333333333e-1
.3333333333e-1
0.
-.1000000000
-.3333333333e-1
.6666666667e-1
