%%MatrixMarket matrix array real general
6 3
0.
0.
-.1885618082
0.
-.9428090414e-1
.4714045206e-1
0.
0.
-.9428090414e-1
0.
-.7542472330
-.9428090414e-1
0.
0.
.4714045206e-1
0.
-.9428090414e-1
-.1885618082
