time,surface_elevation
-1.695000000000000000e+03,-4.169926608665264212e-02
-1.634999999999890861e+03,-4.058254513165593380e-02
-1.575000000000000000e+03,-4.047764718234247994e-02
-1.514999999999890861e+03,-3.938448935787164373e-02
-1.455000000000000000e+03,-3.930298877367022214e-02
-1.395000000000000000e+03,-3.823306254707858898e-02
-1.335000000000109139e+03,-3.817462779625202529e-02
-1.275000000000000000e+03,-3.712760163671191549e-02
-1.215000000000109139e+03,-3.609190118913829792e-02
-1.155000000000000000e+03,-3.606744356693525333e-02
-1.095000000000109139e+03,-3.405414588814892340e-02
-1.035000000000000000e+03,-3.405192527407052694e-02
-9.750000000001091394e+02,-3.406069883658346953e-02
-9.150000000000000000e+02,-3.308038369596033590e-02
-8.550000000001091394e+02,-3.311089696853741771e-02
-7.950000000000000000e+02,-3.215215577165508876e-02
-7.350000000001091394e+02,-3.220407722255913541e-02
-6.750000000000000000e+02,-3.126657844040892087e-02
-6.150000000001091394e+02,-3.133957653972174739e-02
-5.550000000000000000e+02,-3.042298863874748349e-02
-4.949999999998908606e+02,-2.951673185543768341e-02
-4.350000000000000000e+02,-2.862072330572118517e-02
-3.749999999998908606e+02,-2.773488010916480562e-02
-3.150000000000000000e+02,-2.685911938078788808e-02
-2.549999999998908606e+02,-2.599335823833825998e-02
-1.950000000000000000e+02,-2.613751379976747558e-02
-1.349999999998908606e+02,-2.529150318150641397e-02
-7.500000000000000000e+01,-2.445524350332561880e-02
-1.499999999989086064e+01,-1.562865187861461891e-02
4.500000000000000000e+01,1.291883545727614546e-01
1.050000000001091394e+02,-3.200041412646896788e-01
1.650000000000000000e+02,1.887939434900545166e-01
2.250000000001091394e+02,-2.041730828113941243e-02
2.850000000000000000e+02,-1.976378136932908092e-01
3.450000000001091394e+02,-1.718674898647805094e-01
4.049999999998908606e+02,-3.191062539108315832e-01
4.650000000000000000e+02,4.636459770472356468e-01
5.249999999998908606e+02,-1.461071410449221730e-02
5.850000000000000000e+02,8.012375551606965018e-02
6.449999999998908606e+02,-8.715053120977245271e-02
7.050000000000000000e+02,8.566508601688838098e-03
7.649999999998908606e+02,-1.172504216629022267e-02
8.250000000000000000e+02,9.974899367080070078e-03
8.849999999998908606e+02,-3.233358391207730165e-02
9.450000000000000000e+02,3.734959087523748167e-02
1.004999999999890861e+03,-9.975493385354639031e-03
1.065000000000000000e+03,-7.308753813958901446e-03
1.124999999999890861e+03,7.349892474849184509e-03
1.185000000000000000e+03,-9.999471637456736062e-03
1.244999999999890861e+03,-5.356763267627684399e-03
1.305000000000000000e+03,-7.218995360744884238e-04
1.365000000000109139e+03,-1.709479755390930222e-02
1.425000000000000000e+03,1.552462555719102966e-02
1.485000000000109139e+03,1.001364526800898602e-01
1.545000000000000000e+03,-2.592333012216840871e-04
1.605000000000109139e+03,2.253376504950210801e-01
1.665000000000000000e+03,3.689271869534422876e-01
1.725000000000109139e+03,1.039509458953943977e+00
1.785000000000000000e+03,1.567084549381434044e+00
1.845000000000109139e+03,1.862652541115494387e+00
1.905000000000000000e+03,1.297213517043928732e+00
1.965000000000109139e+03,9.176756004671915434e-02
2.025000000000000000e+03,-2.956852469942532480e-01
2.085000000000109139e+03,3.928551788039840176e-01
2.145000000000000000e+03,8.763889203255530447e-01
2.205000000000000000e+03,-1.320839395475559286e-01
2.264999999999890861e+03,-9.385633179326760001e-01
2.325000000000000000e+03,-3.190491319473949261e-01
2.384999999999890861e+03,-6.054129870790347923e-02
2.445000000000000000e+03,-6.040397353353910148e-01
2.504999999999890861e+03,-3.845443589407295804e-01
2.565000000000000000e+03,-1.620550866455232608e-01
2.624999999999890861e+03,-6.655718355659701047e-01
2.685000000000000000e+03,-1.809452281941048568e-02
2.744999999999890861e+03,-1.066230655242179637e-01
2.805000000000000000e+03,-3.841573807949316688e-01
2.864999999999890861e+03,1.930261424877244281e-02
2.925000000000000000e+03,-1.822429975090926746e-01
2.984999999999890861e+03,-1.547941331873516901e-01
3.045000000000000000e+03,-1.433507099009148078e-01
3.105000000000109139e+03,-2.489126447699163691e-01
3.165000000000000000e+03,-1.947985490915016271e-02
3.225000000000109139e+03,-2.830522574367932975e-01
3.285000000000000000e+03,-4.162976947191054933e-02
3.345000000000109139e+03,-1.402123081297759200e-01
3.405000000000000000e+03,-1.027997905257507227e-01
3.465000000000109139e+03,-6.739213378114072839e-02
3.525000000000000000e+03,-7.098925501122721471e-02
3.585000000000109139e+03,-1.559107133380166488e-02
3.645000000000000000e+03,-2.219749986579699907e-02
3.705000000000109139e+03,-2.580845772263273830e-02
3.765000000000000000e+03,-4.242386202622583369e-02
3.825000000000109139e+03,-4.904362989054789068e-02
3.885000000000000000e+03,-7.466767843379784608e-02
3.945000000000109139e+03,-2.029592477083497215e-02
4.004999999999890861e+03,7.207171397749334574e-02
4.065000000000000000e+03,1.074353206950036110e-01
4.124999999999890861e+03,2.079497826616716338e-02
4.185000000000000000e+03,-3.884923042915033875e-02
4.244999999999890861e+03,5.250277749473752920e-02
4.305000000000000000e+03,1.851084917689149734e-03
4.364999999999890861e+03,-7.804225276231591124e-03
4.425000000000000000e+03,5.753692979578772793e-02
4.484999999999890861e+03,4.087463301766547374e-02
4.545000000000000000e+03,-6.791032729779544752e-03
4.604999999999890861e+03,6.654001543665799545e-02
4.665000000000000000e+03,6.386786039911385160e-02
4.724999999999890861e+03,1.419258504120080033e-02
4.785000000000000000e+03,9.751427224637154723e-02
4.844999999999890861e+03,9.883300489673274569e-02
4.905000000000000000e+03,1.191488658732851036e-01
4.965000000000109139e+03,8.246193806098744972e-02
5.025000000000000000e+03,9.577230434206285281e-02
5.085000000000109139e+03,7.508004759802133776e-02
5.145000000000000000e+03,5.038525071449839743e-02
5.205000000000109139e+03,3.568799656841292745e-02
5.265000000000000000e+03,4.798836804911843501e-02
5.325000000000109139e+03,9.286448037528316490e-03
5.385000000000000000e+03,5.582319412496872246e-03
5.445000000000109139e+03,-3.312393493888521334e-02
5.505000000000000000e+03,-6.883223213571909582e-02
5.565000000000109139e+03,-4.154248929535242496e-02
5.625000000000000000e+03,-1.125462353411421645e-02
5.685000000000109139e+03,2.031448030720639508e-03
5.745000000000000000e+03,3.231580827923608012e-02
5.805000000000000000e+03,-1.140145990302698920e-02
5.864999999999890861e+03,-1.912027363232482458e-02
5.925000000000000000e+03,1.215944996965845348e-02
5.984999999999890861e+03,1.437793789591523819e-03
6.045000000000000000e+03,-3.285159291408490390e-03
6.104999999999890861e+03,2.099067360904882662e-02
6.165000000000000000e+03,-1.073462462500174297e-02
6.224999999999890861e+03,-6.846097111156268511e-02
6.285000000000000000e+03,-1.152188282967472333e+00
6.344999999999890861e+03,-7.891647731230477802e-02
6.405000000000000000e+03,-1.464547126033721725e-02
6.464999999999890861e+03,7.962481807044241577e-02
6.525000000000000000e+03,4.489447356172604486e-02
6.584999999999890861e+03,3.016357809610781260e-02
6.645000000000000000e+03,-2.956778544194094138e-02
6.705000000000109139e+03,-3.829953417152864859e-02
6.765000000000000000e+03,1.896841479174327105e-02
6.825000000000109139e+03,2.123614432912290795e-02
6.885000000000000000e+03,6.750373732393200044e-02
6.945000000000109139e+03,8.377127665789885214e-02
7.005000000000000000e+03,9.303884521614236291e-02
7.065000000000109139e+03,1.013065258794085821e-01
7.125000000000000000e+03,1.145744015302625485e-01
7.185000000000109139e+03,1.228425550534666399e-01
7.245000000000000000e+03,-8.788893067048775265e-02
7.305000000000109139e+03,6.938002724200487137e-02
7.365000000000000000e+03,7.964951167468825588e-02
7.425000000000109139e+03,2.291960550701332977e-02
7.485000000000000000e+03,-1.180960837427846855e-02
7.545000000000000000e+03,-3.253804708856478101e-02
7.604999999999890861e+03,-3.326562775328056887e-02
7.665000000000000000e+03,-6.499226748474029591e-02
7.724999999999890861e+03,-8.371788340173225151e-02
7.785000000000000000e+03,-7.144239262015616987e-02
7.844999999999890861e+03,-9.216571225624647923e-02
7.905000000000000000e+03,-8.588775943098880816e-02
7.964999999999890861e+03,-1.036084512588786311e-01
8.025000000000000000e+03,-4.832770485609216848e-02
8.084999999999890861e+03,-5.604543734261824284e-02
8.145000000000000000e+03,-1.055761565834473004e+00
8.204999999999890861e+03,-9.447600744897499681e-02
8.265000000000000000e+03,-9.518867930455598980e-02
8.324999999999890861e+03,-1.088994985166209517e-01
8.385000000000000000e+03,-9.560838220386358444e-02
8.445000000000109139e+03,-9.931524748208175879e-02
8.505000000000000000e+03,-9.602001146959082689e-02
8.565000000000109139e+03,-9.072259128424775554e-02
8.625000000000000000e+03,-8.742290404188679531e-02
8.685000000000109139e+03,-8.112086686196562368e-02
8.745000000000000000e+03,-7.081639685748086777e-02
8.805000000000109139e+03,-6.850941115226305556e-02
8.865000000000000000e+03,-6.119982685777358711e-02
8.925000000000109139e+03,-4.888756109357927926e-02
8.985000000000000000e+03,-1.457253097760258242e-02
9.045000000000109139e+03,7.745346374576911330e-03
9.105000000000000000e+03,1.106615384378528688e-02
9.165000000000109139e+03,6.938997431552706985e-02
9.225000000000000000e+03,8.871689066836552229e-02
9.285000000000109139e+03,1.150469857902862714e-01
9.344999999999890861e+03,1.233803425584483193e-01
9.405000000000000000e+03,1.347170438575631124e-01
9.464999999999890861e+03,1.490571725744302967e-01
9.525000000000000000e+03,1.374008115863034618e-01
9.584999999999890861e+03,1.407480437783306115e-01
9.645000000000000000e+03,1.530989520315415575e-01
9.704999999999890861e+03,1.544536192313898937e-01
9.765000000000000000e+03,1.578121282591382624e-01
9.824999999999890861e+03,1.221745619968714891e-01
9.885000000000000000e+03,1.255410033290900174e-01
9.944999999999890861e+03,1.089115351360305795e-01
1.000500000000000000e+04,9.028624030270293588e-02
1.006499999999989086e+04,1.016652017106025596e-01
1.012500000000000000e+04,-3.349514977580838604e-01
1.018499999999989086e+04,8.343622478059842251e-02
1.024500000000000000e+04,4.882845221072784625e-02
1.030500000000010914e+04,1.722526741195906652e-02
1.036500000000000000e+04,-1.437324673224793514e-02
1.042500000000010914e+04,-1.696700733737088740e-02
1.048500000000000000e+04,-3.855593152366054710e-02
1.054500000000010914e+04,-2.013993640593980672e-02
1.060500000000000000e+04,-4.371893910138169304e-02
1.066500000000010914e+04,-4.029285672822879860e-02
1.072500000000000000e+04,-2.386160640435264213e-02
1.078500000000010914e+04,-4.425105246809835080e-03
1.084500000000000000e+04,-4.983270370757963974e-03
1.090500000000010914e+04,4.639811031665885821e-04
1.096500000000000000e+04,2.291673206127597950e-02
1.102500000000010914e+04,3.737506538254820043e-02
1.108500000000000000e+04,2.383906395334633999e-02
1.114500000000000000e+04,2.230881065406720154e-02
1.120499999999989086e+04,3.478438836827990599e-02
1.126500000000000000e+04,4.026587997759634163e-02
1.132499999999989086e+04,4.475336836549104191e-02
1.138500000000000000e+04,3.424693641500198282e-02
1.144499999999989086e+04,-3.253332991334900726e-03
1.150500000000000000e+04,-2.174735697099094978e-02
1.156499999999989086e+04,-1.328235052640593494e+00
1.162500000000000000e+04,-3.971633711898903130e-02
1.168499999999989086e+04,-2.919112752169894520e-02
1.174500000000000000e+04,-5.065934096637647599e-02
1.180500000000000000e+04,-1.612089457103138557e-02
1.186500000000000000e+04,-2.157570545296039199e-02
1.192500000000000000e+04,-1.630236907285507186e-01
1.198500000000000000e+04,-1.146476751546288142e-02
1.204500000000000000e+04,4.101147068467980716e-03
1.210500000000000000e+04,2.867413590684009250e-02
1.216500000000000000e+04,5.425428188027581200e-02
1.222500000000000000e+04,3.784166787590947933e-02
1.228500000000000000e+04,2.143637677181686740e-02
1.234500000000000000e+04,3.703849145313142799e-02
1.240500000000000000e+04,7.564809480118128704e-02
1.246500000000000000e+04,1.202652697011217242e-01
1.252500000000000000e+04,1.148900990338006523e-01
1.258500000000000000e+04,1.115226656811501016e-01
1.264500000000000000e+04,1.171630525286673219e-01
1.270500000000000000e+04,9.981134245481371181e-02
