0	0
11.4138	0
21.4008	0
31.3877	0
41.3745	0
51.3612	0
61.3479	0
71.3345	0
81.321	0
91.3075	0
101.294	0
111.28	0
121.267	0
131.253	0
141.239	0
151.226	0
161.204	0
171.158	0
180.991	0
190.808	0
200.617	0
210.415	0
220.213	0
230.01	0
241.208	0
251.003	0
260.792	0
270.581	0
280.377	0
290.174	0
301.372	0
311.169	0
320.967	0
330.764	0
340.561	1.81899e-12
350.359	8.18545e-12
360.156	1.45519e-11
371.353	2.18279e-11
381.15	3.18323e-11
390.947	4.45652e-11
400.651	6.00267e-11
410.317	7.9126e-11
420.018	1.03682e-10
431.104	1.37334e-10
440.795	1.72804e-10
450.296	2.14641e-10
461.115	2.71029e-10
470.556	3.30147e-10
481.345	4.09273e-10
490.786	4.89308e-10
500.226	5.82077e-10
510.976	7.03949e-10
520.344	8.24912e-10
531.058	9.84073e-10
540.395	1.14142e-09
551.053	1.34423e-09
560.38	1.54341e-09
571.02	1.79898e-09
580.325	2.05e-09
590.961	2.37014e-09
600.264	2.6821e-09
610.894	3.07864e-09
620.194	3.46336e-09
630.823	3.94994e-09
640.123	4.42105e-09
650.752	5.01768e-09
660.053	5.5943e-09
670.682	6.32281e-09
681.311	7.12589e-09
690.611	7.89078e-09
701.24	8.83483e-09
710.538	9.7225e-09
721.145	1.08012e-08
730.419	1.18016e-08
741.012	1.30076e-08
750.281	1.41163e-08
760.874	1.54441e-08
770.142	1.66592e-08
780.735	1.80971e-08
790.004	1.93941e-08
800.597	2.09093e-08
811.19	2.24463e-08
820.459	2.3796e-08
831.052	2.53285e-08
840.321	2.66473e-08
850.913	2.81125e-08
860.182	2.93439e-08
870.775	3.06754e-08
880.043	3.17614e-08
890.636	3.28937e-08
901.229	3.38932e-08
910.498	3.46445e-08
921.09	3.53466e-08
930.359	3.58159e-08
940.951	3.61715e-08
950.22	3.6317e-08
960.813	3.62834e-08
970.081	3.60742e-08
980.674	3.56231e-08
991.266	3.49464e-08
1000.53	3.41661e-08
1011.13	3.30647e-08
1020.4	3.19233e-08
1030.99	3.04253e-08
1040.26	2.89583e-08
1050.85	2.71211e-08
1060.12	2.53931e-08
1070.71	2.33085e-08
1081.3	2.11421e-08
1090.57	1.92149e-08
1101.16	1.70248e-08
1110.43	1.51631e-08
1121.02	1.3164e-08
1130.29	1.15842e-08
1140.89	1.00517e-08
1150.15	9.0231e-09
1160.75	8.29641e-09
1170.01	8.14271e-09
1180.59	8.6302e-09
1191.18	9.95533e-09
1200.44	1.1918e-08
1211.03	1.52204e-08
1220.29	1.91631e-08
1230.88	2.50357e-08
1240.14	3.15149e-08
1250.73	4.06353e-08
1261.31	5.17948e-08
1270.58	6.34136e-08
1281.16	7.90324e-08
1290.42	9.49422e-08
1301.01	1.15936e-07
1310.27	1.36977e-07
1320.85	1.64346e-07
1330.08	1.91386e-07
1340.63	2.2617e-07
1351.18	2.65451e-07
1360.41	3.03801e-07
1370.95	3.52475e-07
1380.15	3.99557e-07
1390.66	4.58993e-07
1401.18	5.25251e-07
1410.38	5.89273e-07
1420.89	6.69567e-07
1430.09	7.46183e-07
1440.6	8.41112e-07
1451.12	9.43985e-07
1460.32	1.04058e-06
1470.83	1.15857e-06
1480.03	1.26853e-06
1490.51	1.40159e-06
1500.98	1.54293e-06
1510.15	1.67365e-06
1520.62	1.83131e-06
1531.09	1.99809e-06
1540.25	2.15178e-06
1550.73	2.33666e-06
1561.2	2.53185e-06
1570.36	2.71152e-06
1580.83	2.92757e-06
1591.29	3.15533e-06
1600.43	3.36502e-06
1610.9	3.61778e-06
1620.03	3.84996e-06
1630.45	4.12949e-06
1640.88	4.42544e-06
1650.01	4.69869e-06
1660.44	5.02839e-06
1670.87	5.37793e-06
1681.29	5.7487e-06
1690.42	6.09171e-06
1700.85	6.50635e-06
1711.28	6.94671e-06
1720.41	7.35448e-06
1730.83	7.84778e-06
1741.26	8.37201e-06
1750.39	8.85764e-06
1760.82	9.44525e-06
1771.25	1.00696e-05
1780.37	1.06474e-05
1790.8	1.13452e-05
1801.23	1.20842e-05
1810.36	1.27658e-05
1820.79	1.35855e-05
1831.22	1.445e-05
1840.34	1.52433e-05
1850.75	1.61934e-05
1861.18	1.71924e-05
1870.3	1.81062e-05
1880.72	1.91974e-05
1891.14	2.03401e-05
1900.25	2.13822e-05
1910.66	2.26238e-05
1921.07	2.39211e-05
1930.18	2.51032e-05
1940.59	2.65096e-05
1951	2.79772e-05
1960.11	2.93132e-05
1970.52	3.09017e-05
1980.93	3.25582e-05
1990.03	3.40657e-05
2000.44	3.58576e-05
2010.85	3.77261e-05
2021.26	3.96744e-05
2030.37	4.14475e-05
2040.78	4.35552e-05
2051.19	4.57533e-05
2060.3	4.77539e-05
2070.71	5.01323e-05
2081.12	5.26132e-05
2090.23	5.48716e-05
2100.64	5.75571e-05
2111.05	6.0359e-05
2120.15	6.07075e-05
2130.56	5.94351e-05
2140.97	5.84051e-05
2150.08	5.7689e-05
2160.49	5.70686e-05
2170.9	5.66463e-05
2180.01	5.64294e-05
2190.42	5.63454e-05
2200.83	5.64262e-05
2211.24	5.66624e-05
2220.35	5.69901e-05
2230.76	5.74967e-05
2241.16	5.81382e-05
2250.27	5.88061e-05
2260.68	5.96874e-05
2271.09	6.06913e-05
2280.2	6.16682e-05
2290.61	6.28954e-05
2301.02	6.42398e-05
2310.13	6.55118e-05
2320.54	6.7075e-05
2330.95	6.87559e-05
2340.05	7.03243e-05
2350.46	7.22299e-05
2360.87	7.42589e-05
2371.28	7.64141e-05
2380.39	7.84061e-05
2390.8	8.08077e-05
2401.21	8.33467e-05
2410.32	8.56846e-05
2420.73	8.8494e-05
2431.13	9.14552e-05
2440.24	9.41751e-05
2450.65	9.74364e-05
2461.06	0.000100867
2470.17	0.000104012
2480.58	0.000107778
2490.99	0.000111733
2500.09	0.000115354
2510.5	0.000119662
2520.9	0.000124136
2531.29	0.000128762
2540.37	0.000132932
2550.75	0.000137833
2561.14	0.000142882
2570.22	0.000147419
2580.61	0.00015274
2590.99	0.00015821
2600.08	0.000163122
2610.46	0.000168883
2620.84	0.000174808
2631.23	0.000180905
2640.31	0.00018639
2650.69	0.000192837
2661.07	0.000199481
2670.11	0.000205444
2680.4	0.000212438
2690.67	0.000219665
2700.95	0.000227143
2711.23	0.000234889
2720.23	0.000241898
2730.51	0.000250188
2740.79	0.000258791
2751.07	0.000267723
2760.06	0.000275821
2770.34	0.000285412
2780.62	0.000295377
2790.9	0.000305731
2801.18	0.000316491
2810.17	0.000326253
2820.45	0.000337821
2830.73	0.000349846
2841.01	0.000362348
2850.01	0.000373694
2860.29	0.000387146
2870.57	0.000419792
2880.84	0.000452371
2891.12	0.000484758
2900.12	0.000512893
2910.4	0.000544807
2920.68	0.000576484
2930.96	0.000607971
2941.24	0.000639334
2950.23	0.000666741
2960.51	0.000698109
2970.79	0.000729629
2981.07	0.000761415
2990.06	0.000789543
3000.34	0.000822161
3010.62	0.000855403
3020.9	0.0008894
3031.18	0.000924277
3040.17	0.000955616
3050.45	0.000992484
3060.73	0.00103058
3071.01	0.0010699
3080.01	0.00110515
3090.28	0.0011463
3100.56	0.00118829
3110.84	0.0012311
3121.12	0.00127477
3130.12	0.00131374
3140.4	0.00135924
3150.67	0.0014059
3160.95	0.00145388
3171.23	0.00150339
3180.23	0.00154812
3190.51	0.00160104
3200.79	0.00165607
3211.06	0.00171342
3220.06	0.00176563
3230.34	0.00182782
3240.62	0.00189289
3250.9	0.00197128
3261.17	0.00212229
3270.17	0.00224823
3280.45	0.00238567
3290.73	0.00251766
3301	0.00264617
3311.28	0.00277336
3320.28	0.00288524
3330.56	0.00301565
3340.84	0.00315058
3351.11	0.00329137
3360.11	0.00341867
3370.39	0.00356802
3380.67	0.00372163
3390.94	0.00388046
3401.22	0.00404611
3410.22	0.00419823
3420.5	0.00438207
3430.78	0.00457813
3441.05	0.00491827
3450.05	0.00527586
3460.33	0.00567105
3470.61	0.00606306
3480.88	0.00646574
3491.16	0.00688899
3500.16	0.00727068
3510.44	0.00771922
3520.71	0.00819329
3530.99	0.00889658
3541.27	0.00979453
3550.27	0.0105223
3560.55	0.0114191
3570.82	0.012396
3581.1	0.0140717
3590.1	0.0156997
3600.38	0.0185295
3610.65	0.0229972
3620.93	0.027676
3631.21	0.0319103
3640.21	0.0354571
3650.49	0.0395294
3660.76	0.0435536
3671.04	0.0472783
3680.04	0.0503577
3690.32	0.0538985
3700.59	0.0575129
3710.87	0.0610567
3721.15	0.064428
3730.15	0.0672775
3740.43	0.0705028
3750.71	0.0737197
3760.98	0.0769258
3771.26	0.0801466
3780.26	0.082995
3790.54	0.0862653
3800.82	0.0895111
3811.1	0.0927179
3820.09	0.0955083
3830.37	0.0987048
3840.65	0.101926
3850.93	0.105183
3861.21	0.108495
3870.2	0.111452
3880.48	0.114901
3890.76	0.118418
3901.04	0.121994
3910.03	0.12517
3920.31	0.128863
3930.59	0.132632
3940.89	0.136493
3951.25	0.140465
3960.32	0.144009
3970.67	0.148133
3981.03	0.152328
3990.1	0.156055
4000.46	0.160385
4010.82	0.164807
4021.17	0.169345
4030.24	0.173432
4040.6	0.178261
4050.96	0.183284
4060.02	0.187859
4070.38	0.193317
4080.75	0.199049
4091.11	0.205092
4100.18	0.210666
4110.54	0.217403
4120.9	0.224572
4131.26	0.232212
4140.33	0.239314
4150.69	0.247938
4161.06	0.257142
4170.12	0.265702
4180.49	0.276103
4190.85	0.287208
4201.21	0.299059
4210.29	0.310092
4220.68	0.323485
4231.08	0.33775
4240.22	0.351001
4250.66	0.366982
4261.1	0.383861
4270.24	0.399363
4280.69	0.4179
4291.15	0.437308
4300.33	0.455021
4310.83	0.475965
4320.02	0.494844
4330.52	0.516963
4341.02	0.539551
4350.21	0.559599
4360.71	0.582706
4371.21	0.60587
4380.4	0.626049
4390.9	0.648844
4400.08	0.668404
4410.59	0.690125
4421.09	0.710955
4430.27	0.728262
4440.77	0.746769
4451.27	0.763675
4460.46	0.77695
4470.96	0.790151
4480.15	0.799778
4490.65	0.808345
4501.15	0.814066
4510.34	0.816539
4520.84	0.816254
4530.03	0.813113
4540.53	0.806035
4551.03	0.795062
4560.21	0.782146
4570.71	0.763487
4581.22	0.740589
4590.4	0.717036
4600.9	0.686091
4610.09	0.655511
4620.59	0.616621
4631.09	0.573627
4640.28	0.532746
4650.78	0.48244
4661.28	0.428471
4670.47	0.378372
4680.97	0.31796
4690.16	0.262422
4700.66	0.19595
4711.16	0.126269
4720.35	0.0627554
4730.85	-0.00627645
4740.03	-0.058497
4750.53	-0.0901419
4761.04	-0.106051
4770.22	-0.126195
4780.72	-0.144084
4791.22	-0.158862
4800.41	-0.170383
4810.95	-0.176127
4820.21	-0.186549
4830.8	-0.196075
4840.07	-0.203131
4850.66	-0.209836
4861.25	-0.215627
4870.52	-0.22056
4881.11	-0.225908
4890.38	-0.230248
4900.98	-0.223864
4910.25	-0.226384
4920.84	-0.231783
4930.11	-0.235758
4940.7	-0.239582
4951.29	-0.242803
4960.56	-0.245235
4971.15	-0.247678
4980.42	-0.249597
4991.02	-0.251406
5000.28	-0.252706
5010.88	-0.254144
5020.15	-0.255316
5030.74	-0.256651
5040.01	-0.257794
5050.6	-0.259049
5061.19	-0.26023
5070.46	-0.261191
5081.05	-0.262155
5090.32	-0.2555
5100.92	-0.256555
5110.18	-0.257612
5120.78	-0.25904
5130.04	-0.260129
5140.63	-0.2612
5151.21	-0.262071
5160.48	-0.262689
5171.06	-0.263248
5180.33	-0.263616
5190.91	-0.263914
5200.17	-0.264075
5210.76	-0.264156
5220.02	-0.264144
5230.61	-0.264043
5241.2	-0.263858
5250.46	-0.263634
5261.04	-0.263313
5270.31	-0.26298
5280.89	-0.262498
5290.16	-0.262034
5300.74	-0.261474
5311.31	-0.260888
5320.54	-0.260259
5331.09	-0.259448
5340.32	-0.25873
5350.85	-0.257898
5360.05	-0.257159
5370.57	-0.256301
5381.08	-0.255426
5390.28	-0.254646
5400.79	-0.253738
5411.31	-0.252813
5420.51	-0.251991
5431.02	-0.251038
5440.22	-0.250191
5450.73	-0.249201
5461.25	-0.248193
5470.45	-0.245266
5480.96	-0.242034
5490.16	-0.241602
5500.64	-0.241106
5511.12	-0.240606
5520.28	-0.240166
5530.75	-0.239662
5541.22	-0.239154
5550.39	-0.238708
5560.86	-0.238197
5570.02	-0.23775
5580.49	-0.237241
5590.96	-0.236734
5600.13	-0.236293
5610.57	-0.235794
5621.02	-0.235297
5630.18	-0.234864
5640.61	-0.234373
5651.03	-0.233884
5660.16	-0.233457
5670.59	-0.232969
5681.02	-0.232478
5690.14	-0.232044
5700.57	-0.231542
5711	-0.231029
5720.13	-0.23057
5730.56	-0.230031
5740.99	-0.229474
5750.11	-0.22897
5760.54	-0.228374
5770.97	-0.227753
5780.1	-0.227189
5790.53	-0.226522
5800.95	-0.22583
5810.08	-0.225205
5820.51	-0.224468
5830.94	-0.223755
5840.06	-0.223124
5850.48	-0.222364
5860.89	-0.221562
5870.02	-0.220829
5880.45	-0.219954
5890.87	-0.219043
5901.29	-0.217997
5910.4	-0.217052
5920.82	-0.215941
5931.24	-0.214798
5940.35	-0.213775
5950.76	-0.212578
5961.17	-0.211353
5970.28	-0.21026
5980.69	-0.208986
5991.1	-0.207688
6000.21	-0.206533
6010.62	-0.20519
6021.03	-0.203826
6030.14	-0.202615
6040.55	-0.201211
6050.96	-0.199789
6060.06	-0.198528
6070.47	-0.197072
6080.88	-0.195598
6091.29	-0.19411
6100.4	-0.192796
6110.81	-0.191281
6121.22	-0.189754
6130.33	-0.188409
6140.74	-0.186862
6151.15	-0.185306
6160.26	-0.184216
6170.67	-0.183044
6181.08	-0.181821
6190.19	-0.180715
6200.6	-0.17942
6211	-0.178088
6220.11	-0.176897
6230.52	-0.175509
6240.93	-0.174099
6250.04	-0.17285
6260.45	-0.171407
6270.86	-0.16995
6281.27	-0.16848
6290.38	-0.167184
6300.79	-0.165694
6311.2	-0.164194
6320.31	-0.162873
6330.72	-0.161356
6341.13	-0.15983
6350.23	-0.158487
6360.64	-0.156945
6371.05	-0.155395
6380.16	-0.154032
6390.57	-0.152472
6400.98	-0.150913
6410.09	-0.149554
6420.5	-0.148009
6430.91	-0.146472
6440.02	-0.145134
6450.43	-0.143614
6460.84	-0.1421
6471.25	-0.140593
6480.35	-0.139276
6490.76	-0.137773
6501.17	-0.136268
6510.28	-0.134948
6520.69	-0.133434
6531.1	-0.131911
6540.21	-0.13057
6550.62	-0.129026
6561.03	-0.127468
6570.14	-0.125718
6580.55	-0.122728
6590.96	-0.119876
6600.06	-0.117495
6610.47	-0.11489
6620.88	-0.11239
6631.29	-0.10997
6640.4	-0.107899
6650.81	-0.105564
6661.19	-0.10325
6670.28	-0.101223
6680.66	-0.0988923
6691.04	-0.0965493
6700.13	-0.0945018
6710.51	-0.0921684
6720.9	-0.0898375
6731.28	-0.087498
6740.37	-0.0854326
6750.75	-0.0830374
6761.14	-0.0805929
6770.22	-0.077478
6780.6	-0.0732507
6790.99	-0.0692101
6800.07	-0.0657931
6810.45	-0.0619415
6820.84	-0.0580704
6831.22	-0.0541276
6840.31	-0.0506394
6850.68	-0.0466865
6861.01	-0.0427707
6870.02	-0.0393134
6880.3	-0.0333156
6890.58	-0.0274875
6900.86	-0.0219034
6911.14	-0.0161073
6920.13	-0.0109378
6930.41	-0.00213497
6940.69	0.0068105
6950.97	0.0195404
6961.25	0.0335022
6970.24	0.0441397
6980.52	0.0523339
6990.8	0.0582752
7001.08	0.0627933
7010.08	0.0656082
7020.36	0.0671323
7030.64	0.0676971
7040.91	0.068441
7051.19	0.0695138
7060.19	0.0702835
7070.47	0.0706069
7080.75	0.0704984
7091.03	0.0704003
7100.02	0.0705152
7110.3	0.0708577
7120.58	0.0714073
7130.86	0.072188
7141.14	0.0730902
7150.13	0.0737832
7160.41	0.0742928
7170.69	0.0745043
7180.97	0.0745423
7191.25	0.0744996
7200.25	0.0744039
7210.52	0.0742189
7220.8	0.0739755
7231.08	0.0737047
7240.08	0.073441
7250.36	0.073078
7260.64	0.0726373
7270.92	0.0721641
7281.2	0.0717458
7290.19	0.0714894
7300.47	0.0713534
7310.75	0.0713552
7321.03	0.0714033
7330.02	0.0713858
7340.3	0.0711947
7350.58	0.0707563
7360.86	0.0700665
7371.14	0.0691793
7380.13	0.0683084
7390.41	0.0672843
7400.69	0.0662922
7410.97	0.0653609
7421.25	0.0644855
7430.25	0.0637499
7440.53	0.0629335
7450.81	0.0621557
7461.08	0.0614557
7470.08	0.0609498
7480.36	0.0605391
7490.64	0.0603362
7500.92	0.0603417
7511.2	0.0605272
7520.19	0.0608011
7530.47	0.0611978
7540.75	0.0616481
7551.03	0.0621328
7560.02	0.0625841
7570.3	0.0631403
7580.58	0.0637533
7590.86	0.064435
7601.14	0.0651917
7610.14	0.0659164
7620.41	0.0668144
7630.69	0.0677844
7640.97	0.0688228
7651.25	0.0699243
7660.25	0.0709324
7670.53	0.0721213
7680.81	0.0733293
7691.09	0.0745322
7700.08	0.0755619
7710.36	0.0766951
7720.64	0.0777702
7730.92	0.078783
7741.2	0.0797358
7750.19	0.0805247
7760.47	0.081381
7770.75	0.0821944
7781.03	0.0829698
7790.03	0.0836213
7800.3	0.0843416
7810.58	0.0850455
7820.86	0.0857446
7831.14	0.0864494
7840.14	0.0870762
7850.42	0.0878044
7860.7	0.0885389
7870.98	0.0892675
7881.26	0.0899754
7890.25	0.0905676
7900.53	0.091206
7910.81	0.0918026
7921.09	0.0923636
7930.08	0.0928344
7940.36	0.0933617
7950.64	0.0938898
7960.92	0.0944279
7971.2	0.0949801
7980.2	0.0954736
7990.48	0.0960434
8000.75	0.0966081
8011.03	0.0971519
8020.03	0.0975951
8030.31	0.0980435
8040.59	0.0984059
8050.87	0.0986561
8061.16	0.0987695
8070.22	0.0987393
8080.58	0.0985418
8090.94	0.0981631
8100	0.0976837
8110.36	0.0969745
8120.72	0.0961077
8131.08	0.0951033
8140.14	0.0941292
8150.5	0.0929275
8160.86	0.0916521
8171.22	0.0903218
8180.28	0.0891252
8190.64	0.0877311
8201	0.0863161
8210.07	0.0850645
8220.43	0.0836191
8230.79	0.0821569
8241.16	0.0806754
8250.22	0.0793613
8260.59	0.0778378
8270.95	0.0762923
8280.02	0.074925
8290.38	0.0733516
8300.74	0.0717757
8311.1	0.0702088
8320.17	0.0688548
8330.53	0.0673372
8340.9	0.0658615
8351.26	0.0644354
8360.33	0.063232
8370.69	0.0619089
8381.06	0.0606383
8390.14	0.0595648
8400.52	0.0583747
8410.9	0.0572117
8421.3	0.0560594
8430.4	0.0550481
8440.8	0.0538744
8451.21	0.0526652
8460.34	0.0515628
8470.79	0.0502444
8481.23	0.0488542
8490.37	0.0475733
8500.81	0.0460335
8511.25	0.0444136
8520.39	0.042934
8530.87	0.0411737
8540.05	0.0395799
8550.55	0.0377123
8561.05	0.0358075
8570.24	0.0341201
8580.74	0.0321783
8591.24	0.030232
8600.43	0.0285314
8610.93	0.0265953
8620.12	0.0249095
8630.62	0.0229909
8641.12	0.0210754
8650.31	0.0193921
8660.81	0.0174388
8671.31	0.0154109
8680.5	0.0135092
8691	0.0108436
8700.19	0.00593607
8710.69	0.00227594
8721.19	-0.00337385
8730.38	-0.00766669
8740.88	-0.0120268
8750.07	-0.012777
8760.57	-0.017169
8771.07	-0.020636
8780.25	-0.0233025
8790.76	-0.0260508
8801.26	-0.0284695
8810.44	-0.0304574
8820.94	-0.0325752
8830.13	-0.0308088
8840.63	-0.0328902
8851.13	-0.0349869
8860.32	-0.0365473
8870.82	-0.0381131
8880.01	-0.0393517
8890.51	-0.0406666
8901.01	-0.0419109
8910.2	-0.0429624
8920.7	-0.0441304
8931.2	-0.0452104
8940.39	-0.0461381
8950.89	-0.0471756
8960.08	-0.0480598
8970.58	-0.0490391
8981.08	-0.0499807
8990.27	-0.050771
9000.77	-0.0516343
9011.27	-0.0520727
9020.45	-0.0527993
9030.92	-0.0535109
9040.09	-0.0540425
9050.56	-0.0545601
9061.03	-0.0549977
9070.19	-0.0553266
9080.67	-0.0556529
9091.14	-0.0559373
9100.3	-0.0561601
9110.77	-0.0563928
9121.24	-0.0566092
9130.41	-0.0567902
9140.88	-0.0570708
9150.01	-0.0573164
9160.48	-0.0575927
9170.95	-0.0578513
9180.11	-0.0579996
9190.59	-0.0581858
9201.06	-0.0583861
9210.22	-0.0585698
9220.68	-0.0587858
9231.15	-0.0590058
9240.31	-0.0591991
9250.76	-0.0594179
9261.18	-0.0596324
9270.3	-0.0598155
9280.73	-0.0600178
9291.15	-0.0602116
9300.28	-0.0603733
9310.7	-0.0605483
9321.13	-0.0589414
9330.26	-0.0591895
9340.69	-0.0582412
9351.12	-0.0585166
9360.24	-0.0587429
9370.67	-0.0589854
9381.1	-0.0592112
9390.23	-0.0593955
9400.66	-0.0595909
9411.09	-0.0597666
9420.21	-0.0599044
9430.64	-0.0600445
9441.07	-0.0601668
9450.2	-0.0602599
9460.63	-0.0603499
9471.06	-0.0604201
9480.18	-0.0604654
9490.61	-0.0604991
9501.04	-0.0605128
9510.17	-0.0605089
9520.6	-0.0604872
9531.03	-0.0604478
9540.15	-0.0603997
9550.58	-0.0603298
9561.01	-0.060245
9570.14	-0.0601594
9580.57	-0.0600491
9591	-0.0599265
9600.12	-0.0598098
9610.55	-0.0596664
9620.98	-0.059513
9630.09	-0.0593709
9640.51	-0.0591975
9650.94	-0.0590137
9660.06	-0.0588454
9670.48	-0.0586455
9680.9	-0.0585173
9690.01	-0.0584179
9700.42	-0.058282
9710.83	-0.0581042
9721.24	-0.0579188
9730.35	-0.057751
9740.76	-0.0575535
9751.17	-0.0573506
9760.28	-0.0571688
9770.69	-0.0569569
9781.1	-0.0567409
9790.2	-0.0565487
9800.61	-0.0563258
9811.02	-0.0560996
9820.13	-0.0558992
9830.54	-0.0556674
9840.95	-0.0554327
9850.06	-0.0552252
9860.47	-0.0549854
9870.88	-0.054743
9881.29	-0.0544979
9890.4	-0.0542812
9900.81	-0.054031
9911.22	-0.053778
9920.33	-0.0535544
9930.74	-0.0532962
9941.14	-0.053035
9950.25	-0.0528042
9960.66	-0.0525375
9971.07	-0.0522679
9980.18	-0.0520297
9990.59	-0.0517548
10001	-0.0514772
10010.1	-0.0519579
10020.5	-0.0517101
10030.9	-0.0514602
10040	-0.0512397
10050.4	-0.0509854
10060.9	-0.0507287
10071.3	-0.0504694
10080.4	-0.0502403
10090.8	-0.0499759
10101.2	-0.0497087
10110.3	-0.0494725
10120.7	-0.0491988
10131.1	-0.0489208
10140.2	-0.0486739
10150.6	-0.0483878
10161.1	-0.0480974
10170.2	-0.0478398
10180.6	-0.0475415
10191	-0.047239
10200.1	-0.0469708
10210.5	-0.0466604
10220.9	-0.0462926
10230	-0.0459236
10240.4	-0.0455023
10250.8	-0.0450814
10261.2	-0.0446607
10270.4	-0.0442926
10280.8	-0.043872
10291.2	-0.0434513
10300.3	-0.0430831
10310.7	-0.0426621
10321.1	-0.0422407
10330.2	-0.041872
10340.6	-0.0414503
10351	-0.0410286
10360.1	-0.0406596
10370.4	-0.0402395
10380.8	-0.0398214
10391.2	-0.0394048
10400.3	-0.0390412
10410.7	-0.0386263
10421	-0.038212
10430.1	-0.0378498
10440.5	-0.0374358
10450.9	-0.0370217
10461.3	-0.0366072
10470.4	-0.0362441
10480.8	-0.0358284
10491.1	-0.035412
10500.2	-0.0350469
10510.6	-0.0346286
10521	-0.0342094
10530.1	-0.0338416
10540.5	-0.0334203
10550.8	-0.032998
10561.2	-0.0325748
10570.3	-0.0322054
10580.6	-0.0317822
10590.9	-0.0313581
10601.2	-0.0309332
10610.3	-0.0305607
10620.6	-0.0301346
10630.9	-0.0297081
10641.2	-0.0292832
10650.2	-0.0289117
10660.5	-0.0284873
10670.8	-0.0280632
10681.1	-0.0276395
10690.1	-0.0272692
10700.3	-0.0268474
10710.6	-0.026428
10720.9	-0.0260112
10731.2	-0.0255968
10740.2	-0.0252237
10750.5	-0.0247668
10760.7	-0.0243164
10771	-0.0238723
10780	-0.0234887
10790.3	-0.0230557
10800.6	-0.0226285
10810.8	-0.022207
10821.1	-0.0217909
10830.1	-0.0214313
10840.4	-0.0210252
10850.7	-0.0206242
10861	-0.0202282
10871.2	-0.019837
10880.2	-0.0194985
10890.5	-0.0191159
10900.8	-0.0187388
10911.1	-0.0183681
10920.1	-0.0180487
10930.3	-0.0176888
10940.6	-0.017334
10950.9	-0.0169837
10961.2	-0.0166376
10970.2	-0.0163378
10980.5	-0.0159985
10990.7	-0.0156624
11001	-0.015291
11010	-0.0149813
11020.3	-0.0146421
11030.6	-0.014316
11040.8	-0.0140007
11051.1	-0.0136941
11060.1	-0.0134316
11070.4	-0.0131369
11080.7	-0.0128465
11091	-0.0125607
11101.2	-0.0122819
11110.2	-0.0120431
11120.5	-0.0117752
11130.8	-0.0115117
11141.1	-0.0112516
11150.1	-0.0110262
11160.3	-0.01077
11170.6	-0.0105147
11180.9	-0.0102595
11191.2	-0.0100036
11200.2	-0.00977865
11210.5	-0.0095201
11220.7	-0.00925956
11231	-0.00899706
11240	-0.00876577
11250.3	-0.00849955
11260.6	-0.00823115
11270.9	-0.00796039
11281.1	-0.00768703
11290.1	-0.0074455
11300.4	-0.00716658
11310.7	-0.00688436
11321	-0.00659864
11331.2	-0.00631141
11340.2	-0.00606359
11350.5	-0.00578325
11360.8	-0.00550447
11371.1	-0.00522588
11380.1	-0.00498129
11390.4	-0.00469983
11400.6	-0.00441548
11410.9	-0.0041275
11421.2	-0.00378167
11430.2	-0.0033858
11440.5	-0.00291817
11450.7	-0.00244241
11461	-0.00196382
11470	-0.00154521
11480.3	-0.00106844
11490.6	-0.000594072
11500.9	-0.000122229
11511.1	0.000346279
11520.1	0.000752808
11530.4	0.00121336
11540.7	0.00167029
11551	0.00212501
11561.2	0.00258355
11570.2	0.0029892
11580.5	0.00345704
11590.8	0.00392732
11601.1	0.00439883
11610.1	0.00481196
11620.4	0.00554524
11630.6	0.00668137
11640.9	0.0077359
11651.2	0.00869408
11660.2	0.00945372
11670.5	0.0102373
11680.7	0.010955
11691	0.0116329
11700	0.0121935
11710.3	0.0130382
11720.6	0.0138492
11730.9	0.0145512
11741.1	0.0152112
11750.1	0.0157533
11760.4	0.0164602
11770.7	0.0175578
11781	0.0190255
11791.3	0.021755
11800.2	0.0234376
11810.5	0.0251797
11820.8	0.0269918
11831.1	0.0289873
11840.1	0.0308129
11850.4	0.0328556
11860.6	0.034867
11871	0.0369634
11880.1	0.0388587
11890.4	0.0410509
11900.8	0.0432539
11911.1	0.0454799
11920.2	0.0474572
11930.6	0.0497404
11940.9	0.0520147
11951.3	0.0542287
11960.3	0.0560648
11970.7	0.0579924
11981.1	0.0597136
11990.1	0.0610678
