0	0	366784
7.98197	0	383484
15.9526	0	395096
22.9259	0	403758
29.8991	0	412222
36.8723	0	420824
43.8421	0	428350
49.8	0	434224
56.698	0	439916
62.5835	0	444180
69.4498	0	449148
75.3351	0	453100
81.2148	0	456594
87.0629	0	459358
93.8361	0	463276
99.6143	0	466052
105.382	0	468906
111.149	0	471456
114.994	0	473336
120.761	0	475826
125.567	0	478002
131.34	0	480682
136.161	0	482500
141.969	0	485038
147.761	0	487510
153.537	0	489964
159.26	0	492340
164.018	0	494172
169.72	0	496552
175.421	0	498932
180.171	0	500640
185.87	0	502984
190.634	0	504916
195.409	0	506500
201.158	0	508632
206.03	0	510390
211.889	0	512078
216.827	0	513766
222.775	0	515680
227.737	0	517136
232.771	0	519020
238.872	0	521122
243.953	0	522876
249.028	0	524676
255.121	0	526706
260.207	0	528562
265.29	0	530128
271.389	0	532250
276.472	0	534016
281.554	0	535676
286.637	0	537588
291.72	0	539530
297.819	0	541392
302.901	0	543392
307.984	0	545284
313.067	0	546848
318.153	0	548794
323.24	0	550570
328.329	0	552080
333.418	0	553918
338.505	0	555874
343.592	0	557518
348.649	0	559434
353.662	0	561304
358.674	0	563396
364.68	0	565750
368.681	0	567550
373.675	0	569828
378.66	0	571834
383.641	0	573896
387.627	0	575778
392.608	0	577794
397.589	0	579826
402.57	0	582184
407.551	0	584296
412.532	0	586342
416.517	0	587950
421.498	0	590414
426.479	0	592546
430.464	0	594122
434.448	0	595688
439.429	0	598098
444.41	0	600168
448.395	0	601936
453.378	0	604136
457.365	0	605772
462.352	0	607714
466.343	0	609406
471.346	0	611606
476.354	0	613482
479.364	0	614546
480.373	0	615026
484.412	0	616598
489.451	0	619038
493.472	0	620332
497.482	0	622070
502.477	0	624126
506.467	0	625836
