0	0	353244
10.9753	0	376700
20.938	0	391970
30.8999	0	405438
40.8619	0	417498
50.809	0	426670
60.6497	0	433436
70.4588	0	439026
80.2663	0	444492
90.023	0	449182
100.644	0	453442
110.257	0	456696
120.831	0	460058
130.45	0	463286
140.106	0	466632
150.776	0	469926
160.418	0	472854
170.115	0	475506
180.952	0	478988
190.959	0	481598
200.094	0	483970
210.26	0	486796
220.426	0	489670
230.592	0	492580
240.759	0	495096
250.942	0	497800
260.124	0	500446
270.324	0	503246
280.521	0	506114
290.718	0	508622
300.915	0	511084
310.093	0	513860
320.29	0	517030
330.473	0	520450
340.65	0	524048
350.818	0	527692
360.984	0	531436
370.133	0	534884
380.298	0	538860
390.463	0	542636
400.629	0	545762
410.799	0	549438
420.973	0	553278
430.129	0	556642
440.302	0	560244
450.476	0	563860
460.65	0	567776
470.823	0	571506
480.997	0	575602
490.153	0	578680
500.304	0	582342
510.376	0	585814
520.37	0	589270
530.34	0	593152
540.304	0	596836
550.268	0	600500
560.236	0	603956
570.209	0	607668
580.197	0	611520
590.189	0	615342
600.19	0	619564
610.193	0	623388
620.206	0	627256
630.247	0	631292
640.447	0	635138
650.724	0	639172
661.02	0	643312
670.261	0	647530
680.517	0	651988
690.773	0	656216
700.011	0	660310
710.282	0	664894
720.552	0	669434
730.823	0	673930
740.067	0	678192
750.323	0	682686
760.566	0	687100
770.808	0	691656
780.025	0	695674
790.267	0	700202
800.509	0	704750
810.742	0	709586
820.953	0	714022
830.135	0	718468
840.335	0	723286
850.533	0	727958
860.73	0	732776
870.927	0	737394
880.104	0	741658
890.301	0	746132
900.498	0	751102
910.695	0	755924
920.88	0	760702
930.041	0	765608
940.215	0	770690
950.381	0	775762
960.547	0	780542
970.714	0	785902
980.881	-9.09495e-13	790948
990.031	-5.45697e-12	795338
1000.2	-1.09139e-11	801088
1010.36	-2.00089e-11	806164
1020.53	-2.91038e-11	811440
1030.7	-3.81988e-11	816742
1040.87	-4.82032e-11	821652
1050.02	-6.45741e-11	826206
1060.18	-8.2764e-11	831514
1070.35	-1.04592e-10	837134
1080.52	-1.31877e-10	842370
1090.69	-1.68257e-10	847868
1100.85	-2.13731e-10	853324
1110	-2.65572e-10	858046
1120.17	-3.35604e-10	863358
1130.34	-4.24734e-10	868714
1140.51	-5.35692e-10	873800
1150.68	-6.73936e-10	878568
1160.84	-8.4674e-10	883726
1171.01	-1.06047e-09	888642
1180.16	-1.29603e-09	892596
1190.33	-1.61708e-09	897904
1200.5	-2.01271e-09	902714
1210.67	-2.49747e-09	907450
1220.84	-3.08955e-09	912418
1231.01	-3.81351e-09	917016
1240.16	-4.59659e-09	921646
1250.33	-5.64432e-09	926282
1260.5	-6.91307e-09	931224
1270.67	-8.44557e-09	935472
1280.84	-1.029e-08	939904
1291.01	-1.25074e-08	944512
1300.16	-1.48775e-08	948812
1310.33	-1.80016e-08	953678
1320.5	-2.17296e-08	958288
1330.66	-2.61689e-08	963150
1340.83	-3.14394e-08	967856
1351	-3.76867e-08	972760
1360.15	-4.42733e-08	977242
1370.28	-5.28071e-08	982074
1380.31	-6.27433e-08	986334
1390.29	-7.43412e-08	990788
1400.26	-8.78672e-08	995218
1410.22	-1.03646e-07	999738
1420.18	-1.22014e-07	1004724
1430.15	-1.43357e-07	1009256
1440.11	-1.68108e-07	1014020
1450.08	-1.96756e-07	1018918
1460.04	-2.29852e-07	1024020
1470	-2.68018e-07	1028974
1480.96	-3.16687e-07	1034732
1490.93	-3.67859e-07	1039900
1500.89	-4.26537e-07	1045056
1510.85	-4.937e-07	1049538
1520.81	-5.70451e-07	1054198
1530.78	-6.58009e-07	1058618
1540.74	-7.57722e-07	1061996
1550.7	-8.71097e-07	1065710
1560.66	-9.99789e-07	1069044
1570.62	-1.14563e-06	1072278
1580.59	-1.31065e-06	1075646
1590.55	-1.49707e-06	1079396
1600.51	-1.70734e-06	1082826
1610.47	-1.94414e-06	1086722
1620.44	-2.21042e-06	1090410
1630.4	-2.5094e-06	1093704
1640.36	-2.84458e-06	1097222
1650.32	-3.21981e-06	1101096
1660.28	-3.63927e-06	1104434
1670.25	-4.10749e-06	1107894
1680.21	-4.6294e-06	1111512
1690.17	-5.21034e-06	1115354
1700.13	-5.8561e-06	1118872
1710.1	-6.57291e-06	1122584
1720.06	-7.36753e-06	1126560
1730.02	-8.24722e-06	1129692
1740.98	-9.32249e-06	1133160
1750.94	-1.0407e-05	1136684
1760.9	-1.16027e-05	1139928
1770.87	-1.29193e-05	1143280
1780.83	-1.43673e-05	1146258
1790.79	-1.59578e-05	1149530
1800.75	-1.77026e-05	1152782
1810.72	-1.96143e-05	1156212
1820.68	-2.17064e-05	1159818
1830.64	-2.3993e-05	1163236
1840.6	-2.64895e-05	1167004
1850.57	-2.92116e-05	1170436
1860.53	-3.21769e-05	1174040
1870.53	-3.54159e-05	1177206
1880.54	-3.89382e-05	1180686
1890.7	-4.2824e-05	1184296
1900.92	-4.70721e-05	1187370
1910.14	-5.12094e-05	1190950
1920.5	-5.62331e-05	1194178
1930.84	-6.16718e-05	1197420
1940.12	-6.69297e-05	1200270
1950.42	-7.32194e-05	1203334
1960.72	-8.00115e-05	1206704
1970	-8.65827e-05	1209798
1980.31	-9.44292e-05	1212750
1990.62	-0.000102872	1216230
2000.93	-0.000111948	1219556
2010.21	-0.000120695	1222362
2020.54	-0.000131115	1225344
2030.85	-0.000142262	1228568
2040.13	-0.000152967	1231164
2050.44	-0.000165643	1234474
2060.74	-0.000179192	1237542
2070.05	-0.000192226	1240556
2080.43	-0.000207682	1243916
2090.88	-0.000224277	1247352
2100.21	-0.000240002	1250712
2110.62	-0.000258631	1254218
2120.02	-0.00027648	1257618
2130.48	-0.000297497	1260816
2140.93	-0.000319817	1264764
2150.33	-0.000341054	1267998
2160.74	-0.000365934	1271284
2170.03	-0.000389373	1274414
2180.35	-0.000416882	1277764
2190.66	-0.00044593	1281254
2200.98	-0.000476632	1285064
2210.29	-0.00050575	1288036
2220.65	-0.000539725	1291776
2230.97	-0.000575248	1295072
2240.24	-0.000608686	1298378
2250.56	-0.000647675	1300584
2260.86	-0.000688687	1303422
2270.15	-0.000727541	1306044
2280.48	-0.000772969	1308169
2290.82	-0.000820877	1310607
2300.11	-0.00086604	1312933
2310.42	-0.00091863	1314503
2320.73	-0.000973959	1317183
2330.02	-0.0010256	1319653
2340.34	-0.00108452	1322145
2350.68	-0.00114562	1324311
2361.03	-0.00120969	1326471
2370.35	-0.00127056	1329229
2380.7	-0.00134241	1331589
2391.01	-0.00141893	1333865
2400.29	-0.00149188	1335697
2410.64	-0.0015783	1337397
2420.02	-0.00166201	1339103
2430.38	-0.0017484	1340957
2440.68	-0.0017443	1343091
2450.99	-0.00177634	1344355
2460.26	-0.00182871	1346231
2470.6	-0.00190845	1348419
2480.94	-0.00200762	1350122
2490.25	-0.0021117	1352132
2500.69	-0.00224237	1354536
2510.04	-0.00236465	1357326
2520.35	-0.00251048	1359944
2530.66	-0.00267221	1363016
2541.01	-0.00285195	1366124
2550.29	-0.00302628	1368726
2560.59	-0.00302938	1371906
2570.9	-0.00310391	1375164
2580.2	-0.00323173	1378644
2590.53	-0.00342434	1382384
2600.85	-0.00365702	1385450
2610.16	-0.00389436	1388192
2620.49	-0.00418469	1392040
2630.82	-0.00448434	1395384
2640.1	-0.00476952	1398844
2650.46	-0.00512114	1402278
2660.8	-0.00545872	1405445
2670.12	-0.00550045	1408611
2680.48	-0.00576765	1412129
2690.83	-0.00617535	1416073
2700.12	-0.00661794	1418905
2710.5	-0.00716776	1422211
2720.86	-0.0077233	1425341
2730.15	-0.00822956	1427663
2740.48	-0.00883967	1430291
2750.81	-0.00949746	1432561
2760.21	-0.0101351	1435281
2770.59	-0.01088	1437999
2780.94	-0.0116721	1440123
2790.26	-0.0129286	1443179
2800.77	-0.014759	1445115
2810.23	-0.0159528	1447677
2820.64	-0.0170157	1449981
2830.07	-0.0178974	1452081
2840.55	-0.0188567	1454693
2851.05	-0.0198228	1457019
2860.51	-0.0206943	1459163
2871.01	-0.0216757	1461511
2880.49	-0.022581	1463649
2891.03	-0.023607	1466357
2900.43	-0.0245264	1468469
2910.95	-0.0255398	1470911
2920.41	-0.0264205	1473557
2930.74	-0.0273389	1476429
2940.1	-0.0281281	1479491
2950.46	-0.0289542	1482703
2960.83	-0.0297291	1485861
2970.26	-0.0303888	1489201
2980.62	-0.0310592	1492391
2990.97	-0.0316654	1496153
3000.25	-0.0321495	1499284
3010.56	-0.0326178	1502560
3020.86	-0.0330086	1506040
3030.16	-0.0331845	1509018
3040.48	-0.0334017	1511864
3050.83	-0.0335132	1513728
3060.19	-0.0335265	1516288
3070.59	-0.0332974	1519454
3080.95	-0.0332154	1522282
3090.43	-0.0330743	1524844
3101	-0.0328555	1528017
3110.48	-0.0325551	1530741
3120	-0.0321723	1533349
3130.97	-0.031672	1536399
3141.01	-0.031121	1539415
3150.65	-0.0304749	1542345
3160.75	-0.029665	1545540
3170.87	-0.0279439	1548594
3180.99	-0.0263198	1551548
3191.12	-0.0247549	1554626
3200.12	-0.0232547	1557424
3210.26	-0.0212376	1560088
3220.4	-0.0187727	1562950
3230.54	-0.0157976	1565848
3240.63	-0.013955	1569058
3250.7	-0.00966086	1572082
3260.76	-0.00488829	1575289
3270.83	6.62019e-05	1577909
3280.9	0.00581925	1581079
3290.97	0.0146136	1584151
3301.04	0.0246907	1586676
3310.84	0.0347215	1589596
3320.3	0.046831	1591846
3330.85	0.0656899	1594508
3340.6	0.0838499	1597041
3350.3	0.103815	1599555
3361.04	0.126795	1602755
3370.71	0.155287	1605199
3380.38	0.195804	1607966
3390.05	0.234949	1610338
3400.8	0.280652	1613422
3410.47	0.323422	1616110
3420.18	0.362248	1618452
3431.06	0.431326	1621973
3440.91	0.481804	1624843
3450.73	0.527826	1628173
3460.51	0.567483	1631241
3470.11	0.602691	1633501
3480.67	0.637104	1636571
3490.14	0.664009	1639106
3500.66	0.689864	1642040
3510.11	0.709898	1645359
3520.57	0.728846	1648431
3530.97	0.744519	1651923
3540.33	0.756783	1654738
3550.73	0.769244	1658126
3560.08	0.777976	1661118
3570.48	0.784925	1664293
3580.97	0.792445	1667545
3590.55	0.799015	1670476
3600.13	0.805272	1673398
3610.76	0.811574	1677004
3620.33	0.816453	1680012
3630.96	0.819497	1683060
3640.53	0.819877	1685923
3650.09	0.821032	1688443
3660.72	0.819363	1691857
3670.32	0.81651	1695075
3681.01	0.811705	1698030
3690.63	0.806015	1701006
3700.25	0.798963	1703656
3710.96	0.78964	1706598
3720.62	0.780049	1709572
3730.31	0.769503	1712174
3741.03	0.756338	1715794
3750.56	0.743663	1718243
3761.04	0.72459	1721027
3770.48	0.707009	1724017
3781	0.684653	1727313
3790.38	0.664864	1730233
3800.82	0.641459	1733444
3810.27	0.60482	1736386
3820.78	0.560269	1740037
3830.24	0.520393	1743253
3840.77	0.473802	1746786
3850.29	0.431773	1750289
3860.86	0.375846	1753625
3870.37	0.315105	1756653
3880.95	0.251929	1760139
3890.44	0.19805	1763024
3900.98	0.140041	1766417
3910.42	0.0894627	1769021
3920.8	0.0363018	1771866
3930.14	-0.00966347	1774572
3940.52	-0.0578304	1777408
3950.89	-0.102829	1780279
3960.23	-0.140182	1782592
3970.62	-0.178143	1785242
3981.04	-0.212479	1788026
3990.44	-0.240105	1790250
4000.87	-0.267498	1792027
4010.32	-0.289436	1793768
4020.81	-0.31109	1795872
4030.25	-0.32854	1798412
4040.73	-0.346262	1800942
4050.17	-0.361195	1803364
4060.66	-0.377021	1806757
4070.1	-0.390948	1809463
4080.64	-0.406242	1812024
4090.14	-0.419824	1814632
4100.7	-0.435386	1817862
4110.17	-0.449723	1820561
4120.62	-0.466298	1823004
4130.02	-0.481254	1825379
4140.47	-0.49763	1827792
4150.92	-0.513645	1829850
4160.31	-0.527465	1831862
4170.74	-0.542041	1834560
4180.11	-0.554394	1836872
4190.47	-0.567224	1839775
4200.91	-0.579248	1842937
4210.35	-0.589278	1845394
4220.88	-0.599538	1848567
4230.33	-0.607833	1851163
4240.79	-0.614607	1854279
4250.21	-0.617465	1856819
4260.67	-0.620164	1859725
4270.09	-0.620061	1862179
4280.55	-0.618601	1865021
4290.98	-0.613746	1868438
4300.32	-0.608599	1871121
4310.7	-0.600207	1874130
4320.03	-0.590433	1877356
4330.41	-0.577076	1880711
4340.78	-0.561153	1883703
4350.14	-0.544684	1886672
4360.54	-0.524212	1890121
4370.96	-0.501738	1893883
4380.33	-0.479776	1897640
4390.74	-0.449614	1901600
4400.13	-0.405233	1904711
4410.54	-0.360603	1908899
4420.91	-0.314645	1912326
4430.19	-0.269937	1915208
4440.5	-0.222007	1918643
4450.81	-0.175792	1921819
4460.09	-0.138189	1924456
4470.4	-0.0987431	1927455
4480.72	-0.0614085	1930726
4490.04	-0.0297667	1933941
4500.41	0.0034877	1937589
4510.78	0.033611	1940837
4520.1	0.0581375	1943822
4530.47	0.0820335	1947295
4540.8	0.101956	1950124
4550.09	0.116468	1952970
4560.4	0.128605	1956064
4570.71	0.136936	1958719
4581.03	0.142207	1961334
4590.32	0.144041	1964033
4600.68	0.145492	1966845
4610.06	0.145806	1969598
4620.49	0.145228	1971280
4630.93	0.143737	1973243
4640.36	0.141617	1975961
4650.78	0.138788	1978409
4660.16	0.135864	1980207
4670.58	0.132372	1982644
4680.99	0.128693	1985444
4690.35	0.125292	1987183
4700.76	0.121495	1989911
4710.12	0.118114	1992106
4720.52	0.11463	1994882
4730.93	0.111685	1997520
4740.29	0.109395	2000008
4750.71	0.106944	2002698
4760.1	0.10484	2004938
4770.52	0.102629	2008029
4780.86	0.100355	2009996
4790.18	0.0976378	2012357
4800.68	0.095464	2014628
4810.17	0.0932987	2016867
4820.55	0.0911884	2020019
4830.91	0.0888562	2022503
4840.24	0.0866286	2024753
4850.71	0.0840154	2027806
4860.11	0.0815428	2030009
4870.56	0.0786263	2032336
4880.91	0.0755353	2034717
4890.18	0.0725799	2036339
4900.48	0.0690744	2038529
4910.83	0.0652993	2040553
4920.12	0.0616812	2042840
4930.6	0.0573325	2045443
4940.95	0.0527516	2048388
4950.25	0.0484014	2051065
4960.66	0.0432748	2054192
4970.02	0.0384466	2057102
4980.39	0.0328752	2060333
4990.95	0.0269763	2063398
5000.5	0.0214759	2066227
5010.05	0.0158494	2068781
5020.58	0.00953706	2072060
5031.01	0.00322143	2074625
5040.49	-0.00253933	2077066
5051.02	-0.00891457	2080269
5060.52	-0.0145898	2082912
5070.87	-0.020623	2085569
5080.27	-0.0259041	2088063
5091.08	-0.0316772	2090486
5100.8	-0.036523	2093268
5110.53	-0.0409575	2095758
5120.27	-0.0449144	2098336
5130.05	-0.0483342	2101297
5140.93	-0.0516022	2104485
5150.73	-0.0540112	2107510
5160.54	-0.0550198	2110011
5170.41	-0.0552234	2113083
5180.38	-0.0559424	2115919
5190.39	-0.0561569	2118742
5200.43	-0.0560519	2121715
5210.47	-0.0559157	2124598
5220.51	-0.0557006	2127612
5230.55	-0.0552965	2130382
5240.59	-0.0547649	2132842
5250.39	-0.0541588	2134854
5260.98	-0.05342	2137437
5270.38	-0.0527105	2139135
5280.9	-0.0518894	2141566
5290.38	-0.0511582	2143402
5300.78	-0.0503953	2145760
5310.05	-0.0497671	2147479
5320.35	-0.0491448	2149515
5330.71	-0.0486186	2152109
5340.09	-0.0482435	2154480
5350.45	-0.047953	2156602
5360.8	-0.047797	2158801
5370.17	-0.0477713	2161315
5380.59	-0.0478684	2164269
5391.05	-0.0480914	2166491
5400.48	-0.0483893	2168693
5410.97	-0.0488144	2171224
5420.42	-0.0492697	2173269
5430.82	-0.0498384	2175252
5440.19	-0.0504017	2177946
5450.59	-0.051071	2180483
5460.98	-0.0517742	2182688
5470.29	-0.0524251	2184864
5480.62	-0.0531608	2186965
5490.08	-0.0538378	2189472
5500.93	-0.0546102	2191536
5510.42	-0.0552751	2193787
5520.84	-0.0559878	2196947
5530.22	-0.0566093	2198843
5540.74	-0.0572795	2201402
5550.43	-0.0578688	2203029
5560.71	-0.0584637	2205604
5570.1	-0.0589809	2207535
5580.54	-0.059529	2209597
5590.76	-0.0600431	2211792
5601.07	-0.060546	2213136
5610.24	-0.0609851	2214769
5620.56	-0.061477	2216251
5630.47	-0.0619545	2218136
5640.93	-0.0624721	2220180
5650.71	-0.0629751	2222054
5660.63	-0.0635111	2223371
5670.95	-0.0641028	2225427
5680.12	-0.0646633	2227139
5690.43	-0.065338	2228823
5700.75	-0.0660645	2231102
5711.05	-0.066847	2233143
5720.18	-0.0675907	2234893
5730.5	-0.0684921	2236923
5740.76	-0.0694569	2239019
5750.44	-0.0704308	2240936
5760.01	-0.0714596	2243175
5770.59	-0.0726795	2244539
5780.14	-0.0738585	2245753
5790.84	-0.0752657	2247760
5800.33	-0.0765851	2249541
5810.82	-0.0781157	2251473
5820.31	-0.0795612	2253361
5830.73	-0.0812139	2254476
5840.11	-0.0827606	2255909
5850.42	-0.084521	2257643
5860.74	-0.0863429	2259876
5870.15	-0.0880479	2261903
5880.61	-0.089984	2263808
5890.02	-0.0917508	2265591
5900.48	-0.0937287	2267357
5910.92	-0.0957029	2269652
5920.27	-0.0974581	2272090
5930.6	-0.0993673	2274641
5940.93	-0.101231	2277163
5950.28	-0.102862	2278930
5960.79	-0.104618	2280702
5970.17	-0.106102	2282691
5980.64	-0.10765	2284858
5990.04	-0.108928	2286642
6000.48	-0.110208	2288679
6010.93	-0.111324	2290628
6020.37	-0.11218	2292503
6030.95	-0.112951	2294923
6040.55	-0.11347	2297625
6050.03	-0.113803	2299709
6060.59	-0.113969	2301963
6070.1	-0.113931	2304098
6080.67	-0.113684	2307261
6090.32	-0.113266	2309961
6101	-0.112577	2313134
6110.57	-0.111753	2315414
6120.41	-0.110734	2318617
6131.03	-0.109466	2321466
6140.64	-0.108163	2324332
6150.47	-0.106666	2328013
6160.44	-0.105003	2330857
6170.09	-0.10324	2333965
6180.81	-0.101071	2337878
6190.52	-0.0989248	2341047
6200.25	-0.096642	2344486
6211.01	-0.0939983	2348623
6220.91	-0.0914839	2351840
6230.59	-0.088897	2354549
6240.16	-0.0862152	2357277
6250.88	-0.0831072	2360297
6260.73	-0.0800724	2362532
6270.67	-0.0780486	2365717
6280.64	-0.0754078	2368652
6290.41	-0.0711473	2371439
6300.06	-0.0671464	2373894
6310.71	-0.0621139	2376511
6320.4	-0.0571107	2379253
6330.93	-0.0517751	2382189
6340.33	-0.0471986	2384694
6350.76	-0.0422381	2386729
6360.23	-0.0377271	2388538
6370.72	-0.0326317	2390154
6380.15	-0.0279919	2392388
6390.57	-0.0228858	2394870
6400.99	-0.0178845	2397296
6410.38	-0.0134767	2399823
6420.85	-0.00862495	2402665
6430.25	-0.0042873	2405917
6440.75	0.00054008	2409277
6450.2	0.00482923	2412659
6460.64	0.00948088	2416609
6470.04	0.0135728	2419719
6480.49	0.0180289	2423222
6491	0.0224167	2426503
6500.41	0.0262802	2429557
6510.83	0.0304657	2433088
6520.12	0.0341044	2436622
6530.43	0.0380281	2440282
6540.74	0.0418331	2443992
6550.11	0.0451903	2447035
6560.65	0.0488603	2450476
6570.03	0.0520271	2453815
6580.4	0.0554141	2456635
6590.8	0.0586928	2460826
6600.34	0.061589	2464284
6610.95	0.0646912	2467366
6620.79	0.067455	2471134
6630.38	0.0700423	2474904
6640.96	0.0727778	2479392
6650.53	0.0751403	2482616
6660.99	0.077592	2486554
6670.53	0.0797062	2489589
6680.09	0.0817104	2492921
6690.65	0.083706	2495980
6700.12	0.0854517	2499371
6710.63	0.0873193	2501947
6720.04	0.0888351	2504939
6730.49	0.0902279	2507300
6740.92	0.0914901	2510588
6750.3	0.0926459	2512297
6760.79	0.0938057	2515506
6770.37	0.0947122	2517473
6780.99	0.0955586	2520709
6790.56	0.0961915	2523128
6800.05	0.0967131	2526136
6810.54	0.0971772	2528967
6821	0.0975157	2531526
6830.4	0.097704	2534298
6840.89	0.0977753	2537534
6850.3	0.0977107	2540415
6860.76	0.0975008	2543285
6870.21	0.0971946	2546317
6880.75	0.0967282	2550218
6890.21	0.0961963	2553421
6900.68	0.0954755	2557332
6910.1	0.0947003	2560297
6920.6	0.0936895	2563469
6930.07	0.092644	2566452
6940.61	0.0913271	2570641
6950.09	0.0900024	2574147
6960.61	0.088368	2577620
6970.05	0.0867462	2581382
6980.52	0.0847623	2585012
6990.99	0.082573	2588490
7000.44	0.0804125	2591484
7010.96	0.0777974	2595311
7020.44	0.0752517	2597886
7030.95	0.0722228	2600923
7040.39	0.0693283	2604083
7050.08	0.0662028	2607227
7060.79	0.0625861	2610401
7070.29	0.059257	2612526
7080.84	0.0554462	2615814
7090.34	0.0519329	2618840
7100.89	0.047959	2622544
7110.31	0.0443591	2625994
7120.82	0.0403081	2628855
7130.6	0.0365144	2632183
7140.29	0.0327479	2635206
7150.52	0.0287824	2639926
7160.03	0.0251211	2643559
7170.52	0.0211282	2647214
7181.01	0.0172036	2650751
7190.48	0.0137357	2653445
7200.01	0.0103377	2656567
7210.63	0.00667098	2659240
7220.22	0.00348336	2661974
7230.2	0.000301342	2664519
7240.19	-0.00273946	2668666
7250.12	-0.00560506	2672103
7260.23	-0.00835288	2675497
7270.37	-0.0109325	2678910
7280.51	-0.0133234	2681685
7290.65	-0.0155112	2684356
7300.79	-0.0174759	2687136
7310.93	-0.0191831	2689410
7321.07	-0.0206201	2693162
7330.08	-0.0216174	2694816
7340.18	-0.022383	2698135
7350.06	-0.0227597	2700404
7361.1	-0.0232181	2702818
7370.12	-0.0235558	2705200
7380.06	-0.0237956	2707602
7390.1	-0.0238655	2711065
7400.12	-0.0237509	2713436
7410.16	-0.0234595	2716244
7420.23	-0.0230057	2718915
7430.35	-0.0223901	2720935
7440.39	-0.021617	2723583
7450.45	-0.0206769	2726102
7460.3	-0.0196017	2729042
7470.96	-0.0182751	2731699
7480.53	-0.0169405	2734448
7490.1	-0.0154168	2736710
7500.46	-0.0135129	2739495
7510.8	-0.0114427	2742400
7520.08	-0.00944621	2745717
7530.4	-0.00692378	2748864
7541.02	-0.00453279	2751766
7550.86	-0.00176865	2754298
7560.25	0.00102872	2756637
7570.66	0.00396437	2759519
7580.52	0.00656683	2762481
7590.43	0.00908398	2764845
7600.34	0.0116228	2767569
7610.25	0.0142143	2770259
7620.16	0.0167993	2773171
7630.07	0.0192828	2775349
7641.08	0.0218605	2777480
7650.99	0.0240394	2780068
7660.9	0.0261288	2782144
7670.81	0.0281374	2784223
7680.72	0.0300344	2786276
7690.63	0.0317787	2787314
7700.55	0.0333468	2789080
7710.6	0.0347559	2790112
7720.7	0.0359922	2791720
7730.82	0.0370457	2793827
7740.93	0.0379062	2795334
7751.05	0.0385681	2797531
7760.04	0.0389966	2799312
7770.15	0.0393382	2802092
7780.28	0.0395476	2804375
7790.41	0.0395735	2805986
7800.53	0.0394267	2808107
7810.64	0.039119	2809612
7820.76	0.0386604	2811359
7830.87	0.0380602	2813173
7840.99	0.0373366	2815623
7851.11	0.0365092	2817710
7860.1	0.0357001	2819217
7870.04	0.0347321	2821601
7881.06	0.0335771	2824056
7890.97	0.032476	2826514
7900.88	0.0313326	2829106
7910.78	0.030162	2831693
7920.69	0.0289746	2834868
7930.59	0.0277788	2837665
7940.49	0.0265836	2841145
7950.4	0.0253996	2844335
7960.3	0.024238	2847290
7970.2	0.0231091	2850303
7980.11	0.0220218	2853344
7990.01	0.0209834	2856740
8001.02	0.0198954	2860103
8010.92	0.018982	2862725
8020.82	0.0181362	2864849
8030.73	0.0173627	2867520
8040.63	0.0166652	2869867
8050.54	0.0160469	2872699
8060.44	0.0155107	2875541
8070.34	0.0150589	2878169
8080.25	0.0146929	2880296
8090.15	0.0144134	2882473
8100.06	0.0142195	2885081
8111.02	0.0141021	2887373
8120.55	0.0140793	2889545
8131.03	0.0141331	2892313
8140.38	0.0142445	2894768
8150.8	0.0144324	2896645
8160.21	0.0146556	2898909
8170.52	0.0149545	2901060
8180.82	0.0153067	2902947
8190.18	0.0156662	2905246
8200.9	0.0161153	2907572
8210.27	0.0165341	2910420
8220.59	0.0170161	2912774
8230.89	0.0175104	2914979
8240.17	0.0179577	2916751
8250.69	0.0184549	2919030
8260.27	0.018886	2921034
8270.94	0.0193262	2923409
8280.45	0.0196623	2925390
8290.13	0.0199518	2927198
8300.94	0.0202343	2930020
8310.62	0.0204451	2932165
8320.13	0.0205697	2934897
8330.62	0.0208955	2937799
8340.04	0.0208432	2940052
8350.83	0.020756	2942929
8360.21	0.0208004	2945119
8370.65	0.0204974	2947704
8380.09	0.0199606	2950013
8390.64	0.0192439	2951960
8400.25	0.0185687	2953799
8410.79	0.0177846	2955407
8420.24	0.0169941	2956760
8430.74	0.0160107	2958088
8440.21	0.0150233	2959627
8450.74	0.0138254	2961196
8460.19	0.0126884	2963376
8470.69	0.0113663	2964747
8480.09	0.0101168	2966529
8490.51	0.0086284	2968256
8500.04	0.00715238	2970287
8510.51	0.00539225	2972795
8520.95	0.00349076	2974092
8530.36	0.00165499	2976072
8540.81	-0.000511357	2977076
8550.21	-0.00256905	2978588
8560.68	-0.00497715	2980596
8570.2	-0.00725667	2981996
8580.86	-0.00980413	2983569
8590.58	-0.0123632	2985016
8600.03	-0.0149394	2986333
8610.48	-0.0170813	2988217
8620.02	-0.0207083	2989591
8630.62	-0.024933	2991010
8640.07	-0.0286323	2993474
8650.53	-0.0326226	2995134
8660.98	-0.0364402	2996314
8670.39	-0.0398322	2997264
8680.88	-0.043744	2998549
8690.33	-0.0474055	2999909
8700.91	-0.0515567	3001645
8710.36	-0.0552241	3003220
8720.83	-0.0592549	3004916
8730.27	-0.0628996	3006135
8740.75	-0.0669685	3008019
8750.18	-0.0706231	3009390
8760.76	-0.0746697	3011349
8770.39	-0.078284	3012470
8780.92	-0.0821597	3014098
8790.4	-0.0855813	3015361
8800.13	-0.0890129	3016002
8810.25	-0.0924848	3016621
8820.46	-0.0958543	3017088
8830.67	-0.0990746	3017918
8840.88	-0.102135	3018103
8851.09	-0.105027	3018664
8860.16	-0.107449	3020110
8870.08	-0.109924	3021062
8880.69	-0.11235	3022971
8890.23	-0.114324	3023852
8900.79	-0.116269	3025582
8910.07	-0.11776	3026167
8920.4	-0.119176	3027334
8930.71	-0.120321	3029146
8940.07	-0.121144	3030098
8950.57	-0.121671	3030685
8960.03	-0.122121	3031805
8970.5	-0.122401	3032946
8980.95	-0.122392	3033809
8990.39	-0.122194	3034399
9000.99	-0.121791	3035715
9010.49	-0.121262	3036306
9020.98	-0.120475	3036811
9030.5	-0.119565	3037068
9040.98	-0.118381	3037172
9050.27	-0.117195	3038133
9060.65	-0.11573	3038698
9070.04	-0.11428	3039881
9080.56	-0.112519	3040607
9090.86	-0.110662	3041713
9100.15	-0.108883	3042775
9110.62	-0.106761	3043778
9120.1	-0.104733	3045391
9130.65	-0.102367	3047354
9140.24	-0.100125	3049791
9150.56	-0.0976181	3051142
9160.88	-0.0950193	3053634
9170.21	-0.0925983	3056040
9180.58	-0.0898366	3059092
9190.06	-0.087257	3061873
9200.68	-0.084309	3065328
9210.14	-0.081636	3068408
9220.5	-0.0786625	3071405
9230.92	-0.0756273	3074487
9240.31	-0.0728672	3077696
9250.75	-0.0697722	3080636
9260.11	-0.0669867	3083585
9270.52	-0.0638858	3086140
9280.98	-0.06077	3088503
9290.36	-0.0579842	3090608
9300.86	-0.0548883	3093433
9310.28	-0.0521338	3096092
9320.66	-0.0491366	3097890
9330	-0.0464813	3099743
9340.38	-0.0435869	3101414
9350.79	-0.0407516	3103248
9360.18	-0.0382627	3105082
9370.61	-0.0355782	3106982
9380.98	-0.0330047	3109086
9390.43	-0.0307489	3110830
9400.87	-0.0283612	3112707
9410.26	-0.026313	3114788
9420.7	-0.0241533	3116356
9430.1	-0.0223186	3117594
9440.56	-0.0204078	3120410
9450.98	-0.0186381	3123259
9460.37	-0.0171371	3125819
9470.78	-0.0154381	3127738
9480.17	-0.0140365	3129755
9490.65	-0.0133658	3131400
9500.12	-0.0126375	3133057
9510.6	-0.0117091	3134628
9520.03	-0.0111828	3135445
9530.5	-0.0106662	3136790
9540.97	-0.0101861	3138632
9550.34	-0.00984568	3140544
9560.76	-0.00961397	3142873
9570.14	-0.00950286	3143613
9580.64	-0.00948533	3144355
9590.07	-0.00957211	3144286
9600.43	-0.00977799	3144978
9610.82	-0.0100883	3147397
9620.21	-0.0104459	3147924
9630.63	-0.0109173	3148819
9640.04	-0.0114042	3149350
9650.53	-0.0120114	3150542
9661	-0.0126801	3151145
9670.44	-0.0133326	3151653
9680.9	-0.0141041	3153055
9690.29	-0.0148341	3153200
9700.68	-0.0156767	3154601
9710.04	-0.0164589	3154963
9720.51	-0.0173522	3155157
9730.03	-0.0181757	3156054
9740.6	-0.0190931	3157739
9750.04	-0.0199102	3158410
9760.51	-0.020805	3160495
9770.95	-0.0216772	3161483
9780.22	-0.0224294	3162007
9790.52	-0.0232329	3163110
9800.84	-0.0239968	3163812
9810.25	-0.0246513	3165722
9820.79	-0.025331	3166929
9830.16	-0.0258828	3168239
9840.63	-0.0264362	3168835
9850.18	-0.0268784	3169945
9860.61	-0.0272891	3170669
9870.92	-0.0276163	3170431
9880.2	-0.0278414	3169635
9890.51	-0.0280119	3169463
9901.02	-0.0280972	3169215
9910.41	-0.0280965	3169237
9921.06	-0.0280073	3168876
9930.57	-0.0278477	3169652
9940.95	-0.0275876	3170762
9950.24	-0.0272793	3171642
9960.62	-0.0268519	3172064
9970.95	-0.0263409	3172730
9980.22	-0.0258119	3174525
9990.53	-0.0251487	3175095
10000.9	-0.0244071	3176741
10010.2	-0.0236773	3178589
10020.5	-0.0228027	3180365
10030.8	-0.0218677	3182298
10040.1	-0.0209769	3184067
10050.5	-0.0199369	3185191
10060.8	-0.0188433	3186457
10070.3	-0.0178067	3186945
10080.8	-0.0166239	3189100
10090.2	-0.0155389	3190793
10100.7	-0.0143153	3193304
10111	-0.013092	3195827
10120.3	-0.0119849	3197953
10130.6	-0.0107529	3200482
10141	-0.00951715	3202469
10150.4	-0.00840597	3205092
10160.9	-0.00717294	3208128
10170.3	-0.00607874	3209848
10180.8	-0.00488213	3211019
10190.3	-0.00382067	3212244
10200.7	-0.00267769	3215279
10210	-0.00169027	3216993
10220.3	-0.000625336	3219193
10230.6	0.000403168	3221980
10240.9	0.0013935	3223874
10250.2	0.00225056	3226518
10260.6	0.00316229	3228399
10271	0.00403554	3230311
10280.4	0.00478358	3233915
10290.8	0.00556797	3236943
10300.2	0.00623003	3238560
10310.6	0.00691641	3240028
10320.1	0.0074921	3241261
10330.6	0.00808226	3243299
10340	0.00856583	3245023
10350.5	0.00905102	3247144
10360	0.00944141	3249004
10370.6	0.00982271	3251004
10380	0.0101149	3253362
10390.5	0.0103859	3255652
10401	0.0105986	3257883
10410.5	0.0107416	3260386
10420.3	0.0108371	3263386
10430.8	0.0108818	3265927
10440.3	0.0108701	3267697
10450.7	0.0107991	3269779
10460	0.0106846	3271543
10470.5	0.010497	3272897
10481	0.0102468	3274936
10490.3	0.00996934	3275763
10500.7	0.0096058	3277047
10511	0.00918088	3279159
10520.2	0.00874487	3279877
10530.6	0.00819844	3281173
10540.9	0.00758685	3282841
10550.2	0.00698114	3284334
10560.5	0.00624578	3286645
10570.9	0.005436	3288073
10580.6	0.00462831	3289655
10590.2	0.00376792	3291048
10600.8	0.00275802	3292254
10610.4	0.00179507	3294524
10621	0.000664517	3296659
10630.3	-0.000373955	3298814
10640.6	-0.00157483	3301127
10650.9	-0.00282588	3302665
10660.2	-0.00399235	3304261
10670.5	-0.00532918	3305508
10680.8	-0.00670581	3306294
10690.1	-0.00797823	3306814
10700.7	-0.00946552	3306434
10710.1	-0.010805	3306973
10720.8	-0.0123503	3308431
10730.3	-0.0137301	3309840
10740.7	-0.0152639	3312110
10750.1	-0.0166344	3313491
10760.4	-0.0181549	3314913
10770.7	-0.0196648	3316012
10781	-0.0211594	3317108
10790.3	-0.0224973	3319000
10800.7	-0.0239555	3321630
10810	-0.0252401	3323561
10820.3	-0.0266303	3323736
10830.7	-0.027978	3325498
10840	-0.0291498	3327036
10850.4	-0.0304028	3327855
10860.7	-0.0315971	3328369
10870.1	-0.0326238	3328445
10880.7	-0.0337162	3329244
10890.4	-0.0346494	3330269
10900	-0.0355163	3331170
10910.3	-0.0363742	3331744
10920.7	-0.0371564	3333559
10930	-0.0377959	3334238
10940.4	-0.0384327	3334567
10950.8	-0.0389927	3336103
10960.3	-0.0394351	3338020
10970.3	-0.0398319	3340038
10980.8	-0.0401739	3342310
10990.2	-0.0404158	3344736
11000.7	-0.0406158	3346309
11011	-0.040747	3347767
11020.3	-0.0408099	3348758
11030.6	-0.0408225	3349934
11041	-0.0407786	3351212
11050.3	-0.0406939	3352668
11060.7	-0.0405517	3353590
11070.1	-0.0403837	3354174
11080.6	-0.0401585	3355229
11090.4	-0.0399118	3357052
11100.9	-0.0396169	3359294
11110.3	-0.0393259	3361089
11120.8	-0.038978	3362891
11130.2	-0.0386447	3365140
11140.8	-0.0382534	3366499
11150.4	-0.0378866	3367208
11161.1	-0.0374622	3367429
11170.7	-0.0370714	3367719
11180.3	-0.0366722	3368793
11191	-0.0362201	3370186
11200.6	-0.0358113	3372171
11210.1	-0.0353995	3373898
11220.8	-0.0349358	3375366
11230.2	-0.0345188	3376435
11240.8	-0.0340509	3378279
11250.2	-0.0336275	3379142
11260.7	-0.0331564	3379755
11270	-0.0327276	3380179
11280.5	-0.0322443	3379417
11291	-0.0317486	3378817
11300.5	-0.0312935	3377342
11311	-0.0307768	3376052
11320.5	-0.0302998	3375744
11330.4	-0.0297897	3375477
11340	-0.0292775	3375085
11350.8	-0.0286835	3375609
11360.5	-0.0281255	3375506
11370.6	-0.0275259	3375792
11380.7	-0.0269019	3376436
11390.8	-0.0262522	3377423
11400.6	-0.0255939	3378412
11410.3	-0.0249092	3378689
11420.1	-0.0241898	3379432
11430.7	-0.0233771	3380622
11440.2	-0.0226181	3380519
11450.7	-0.0217344	3381013
11460.3	-0.0208984	3380988
11470.9	-0.0199221	3381156
11480.6	-0.0189973	3381617
11490.2	-0.0180391	3382717
11500.8	-0.0169466	3383203
11510.4	-0.0159102	3383693
11520.1	-0.0148292	3384891
11530.9	-0.0135821	3386379
11540.6	-0.0124182	3388204
11550.2	-0.0112148	3389887
11561	-0.00983175	3392119
11570.7	-0.00854589	3393579
11580.4	-0.00722154	3394695
11590.1	-0.00585926	3395383
11600.8	-0.00430194	3395721
11610.5	-0.00285779	3395789
11620.2	-0.00137672	3395824
11630	0.000145435	3395695
11640.9	0.00188036	3394351
11650.7	0.00347769	3392997
11660.5	0.0051092	3391999
11670.3	0.0067716	3390979
11680.1	0.00846296	3390391
11691	0.0103742	3389991
11700.8	0.0121222	3389722
11710.6	0.0138981	3389412
11720.5	0.0156971	3389692
11730.3	0.0175157	3390044
11740.2	0.0193484	3391323
11750.1	0.0211926	3392482
11761	0.0232529	3393780
11770.9	0.0251166	3395506
11780.8	0.0269918	3397187
11790.7	0.0288806	3399862
11800.7	0.0307822	3402103
11810.8	0.032688	3403614
11820.8	0.0345943	3405836
11830.8	0.0365036	3407488
11840.9	0.0384135	3408764
11850.9	0.0403134	3410228
11861	0.042196	3411375
11871	0.0440549	3412359
11881.1	0.0458859	3413353
11890.1	0.0474854	3414198
11900.2	0.0492514	3414680
11910.4	0.050978	3414847
11920.5	0.0526593	3414741
11930.7	0.0542934	3415166
11940.8	0.0558786	3415520
11951	0.0574125	3416131
11961.1	0.0588894	3416839
11970.6	0.0602159	3417344
11981	0.0616193	3417949
11990.5	0.0628304	3418002
12000.3	0.0640218	3418659
12011	0.065245	3419012
12020.6	0.0662752	3419342
12030.3	0.0672378	3419010
12040.2	0.0681595	3419280
12050.2	0.0690083	3419734
12060.2	0.0697793	3419424
12070.1	0.0704615	3420864
12080.4	0.0710953	3420732
12091.1	0.0716622	3421637
12100	0.0720672	3421507
12110	0.0724505	3422212
12120	0.072759	3422670
12130	0.0729948	3423389
12140.7	0.0731685	3425040
12150.1	0.0732588	3426392
12160.8	0.0732923	3427783
12170.8	0.0732571	3429200
12180.8	0.0731578	3430390
12190.8	0.072997	3431201
12200.6	0.072784	3431934
12210.5	0.0725158	3432343
12220.2	0.0722079	3433202
12230.7	0.0718258	3433265
12240.2	0.071443	3432903
12250.7	0.0709776	3433010
12260.4	0.0705154	3433851
12270.5	0.0700026	3434039
12280.1	0.069482	3434368
12290.8	0.0688721	3434379
12300.7	0.068284	3434916
12310.2	0.0676971	3435318
12320.3	0.0670502	3434958
12330.3	0.06639	3436024
12340.9	0.06567	3435954
12350.7	0.0649926	3436867
12360.5	0.0642961	3437286
12370.5	0.0635674	3436893
12380.6	0.0628176	3436860
12390.5	0.062071	3436772
12400.5	0.0613073	3436347
12410.5	0.0605242	3436554
12420.2	0.0597437	3437041
12430.8	0.0588841	3437655
12440.3	0.0580961	3438255
12450.9	0.0572074	3439722
12460.4	0.056395	3440894
12470.9	0.0554733	3441661
12480.6	0.0546072	3443549
12490.3	0.0537218	3444819
12500	0.0528242	3446966
12510.7	0.051813	3448806
12520.4	0.0508737	3450180
12530.3	0.0499073	3452248
12540.1	0.0489215	3454243
12551	0.047803	3456783
12560.8	0.0467754	3459152
12570.6	0.045728	3461547
12580.4	0.0446609	3464263
12590.2	0.0435746	3466688
12600	0.0424694	3468463
12610.9	0.0412204	3470630
12620.8	0.0400784	3472023
12630.6	0.0389206	3472644
12640.3	0.0377623	3473995
12650.8	0.0364959	3475998
12660.2	0.0353458	3477644
12670.7	0.034057	3479199
12680.2	0.0328773	3480921
12691.1	0.0315176	3482042
12700.9	0.0302875	3483426
12710.7	0.0290522	3484597
12720.5	0.0278192	3485334
12730.3	0.0265716	3486383
12740.1	0.0253227	3486659
12750	0.0240559	3487144
12761.1	0.0226431	3487218
12771	0.021367	3487212
12781	0.0200842	3487930
12791	0.0187912	3487824
12801	0.0174993	3487495
12811	0.0162147	3487037
12820.7	0.0149743	3486653
12830.4	0.0137477	3486578
12840.4	0.0125077	3486439
12850.3	0.0112993	3486532
12860.1	0.0101244	3487135
12871	0.00886051	3487713
12880.4	0.00780723	3488934
12890.1	0.00676218	3490015
12900.7	0.005678	3490901
12910.1	0.00475868	3491746
12920.9	0.00377049	3493290
12930.6	0.00293178	3494363
12940.4	0.00215164	3495808
12950.2	0.00143215	3497800
12961	0.000705997	3499389
12970.8	0.000120071	3501146
12980.6	-0.000400473	3502757
12990.3	-0.000854538	3504343
13000.1	-0.00124115	3505925
13010.9	-0.00159044	3508164
13020.7	-0.00183054	3510169
13030.5	-0.00199721	3512201
13040.3	-0.00209049	3513717
13050	-0.00209309	3515086
13060.9	-0.0020021	3516277
13070.7	-0.00186846	3517033
13080.4	-0.00168645	3517153
13090.2	-0.00144861	3517214
13101	-0.00111795	3516942
13110.8	-0.000755473	3516495
13120.4	-0.000333079	3516402
13131	0.000214489	3515495
13140.6	0.000780067	3514967
13150.3	0.00140708	3515373
13161	0.00217007	3515653
13170.6	0.0029106	3515656
13180.1	0.00368536	3516608
13190.5	0.00458493	3517805
13200.1	0.00545234	3518213
13210.6	0.00644311	3518858
13220	0.00735883	3520010
13230.6	0.00841726	3520950
13240	0.00939267	3522240
13250.4	0.0104884	3524139
13260.9	0.0116055	3525712
13270.3	0.0126261	3528069
13280.7	0.0137642	3529269
13290.2	0.0148037	3530493
13300.7	0.0159556	3531303
13310.2	0.0169837	3532264
13320.7	0.0181177	3533274
13330.1	0.0191266	3534057
13340.6	0.0202218	3535887
13350	0.0211854	3536936
13360.5	0.0222292	3538263
13370.1	0.0231511	3539965
13380.7	0.0241362	3541466
13390.2	0.0249727	3543138
13400.6	0.0258561	3545117
13410.1	0.0266101	3545696
13420.6	0.0273951	3545595
13430	0.0280517	3545388
13440.5	0.0287223	3546426
13451	0.0293254	3546948
13460.4	0.0298094	3547673
13470.8	0.0302789	3547704
13480.2	0.0306382	3547518
13490.7	0.0309671	3547535
13500.1	0.0311976	3548164
13510.7	0.0313757	3548278
13520.2	0.031468	3548212
13530.7	0.0314831	3548212
13540.2	0.0314051	3549026
13550.6	0.0312152	3549018
13561	0.0309278	3548834
13570.4	0.0305891	3548811
13580.9	0.0301225	3548211
13590.3	0.0296238	3548717
13600.8	0.0289832	3548662
13610.2	0.0283283	3549060
13620.7	0.0275121	3549304
13630.2	0.0266931	3548941
13640.8	0.025689	3548219
13650.2	0.0247207	3549508
13660.5	0.0235645	3549679
13670.9	0.0223335	3549706
13680.2	0.0211594	3549677
13690.5	0.0197848	3549989
13700.8	0.0183335	3549571
13710.3	0.0169574	3548436
13720.8	0.0153688	3547939
13730.4	0.0138537	3547375
13740.8	0.0121193	3546531
13750.1	0.010496	3546773
13760.6	0.00860765	3545913
13770	0.0068545	3545699
13780.5	0.00486461	3545671
13790.9	0.00285149	3545517
13800.3	0.00101459	3545284
13810.7	-0.00105097	3544269
13820.1	-0.00292926	3543474
13830.5	-0.0050362	3544056
13841	-0.00715959	3544410
13850.3	-0.00908017	3543983
13860.8	-0.0112182	3543607
13870.2	-0.0131402	3543404
13880.7	-0.0152811	3543384
13890.1	-0.0171934	3542707
13900.4	-0.0192662	3543112
13910.1	-0.0211796	3542526
13920.6	-0.0232421	3542409
13930	-0.0250595	3542361
13940.5	-0.0270514	3542507
13950	-0.0288109	3542230
13960.5	-0.03072	3542019
13970	-0.0324182	3542582
13980.5	-0.0342457	3542677
13991	-0.0360114	3543272
14000.4	-0.0375682	3543489
14010.8	-0.0392299	3543768
14020.4	-0.0407229	3543558
14031	-0.0423141	3543823
14040.5	-0.0436906	3543338
14050.1	-0.0450164	3542872
14060.6	-0.0464206	3543144
14070.9	-0.0477304	3543580
14080.4	-0.0488761	3543177
14091	-0.0500888	3542713
14100.5	-0.0511183	3541413
14110.8	-0.0521685	3540763
14120.3	-0.0530659	3540350
14130.7	-0.0539846	3540342
14140.2	-0.0547553	3539567
14150.7	-0.0555384	3538642
14160.2	-0.0561786	3539539
14170.9	-0.0568216	3539943
14180.5	-0.0573336	3540403
14190	-0.0577779	3541389
14200.4	-0.0581869	3541864
14210.7	-0.058523	3542920
14221	-0.058787	3543282
14230.3	-0.0589649	3543276
14240.7	-0.0590937	3542637
14250.1	-0.0591499	3541483
14260.7	-0.0591458	3540109
14270.1	-0.0590825	3538659
14280.6	-0.058949	3537910
14290.9	-0.0587521	3536498
14300.3	-0.0585226	3535996
14310.7	-0.058207	3535725
14320.2	-0.0578736	3535511
14330.6	-0.0574508	3534925
14340	-0.0570255	3535182
14350.7	-0.0564974	3534357
14360.1	-0.0559922	3533892
14371.1	-0.0553568	3534410
14380.9	-0.0547518	3533572
14390.6	-0.0541232	3533419
14400.4	-0.0534627	3533141
14410.1	-0.0527745	3532602
14421	-0.0519819	3531392
14431	-0.0512324	3530500
14441	-0.0504563	3529474
14451.1	-0.0496631	3527592
14460	-0.0489458	3526752
14471	-0.0480538	3525263
14480.8	-0.0472435	3523238
14490.8	-0.0464089	3520582
14500.9	-0.0455703	3517897
14510.9	-0.0447302	3515363
14521	-0.043891	3512041
14531	-0.0430549	3509972
14540.5	-0.0422717	3507622
14550.5	-0.041454	3504632
14560.5	-0.0406375	3501141
14570.6	-0.0398305	3497785
14580.6	-0.0390341	3494237
14590.6	-0.0382536	3490859
14600.5	-0.0374915	3487579
14610.6	-0.0367307	3483598
14620.6	-0.0359843	3478415
14630.2	-0.0352845	3473728
14640.9	-0.0345086	3468556
14650.4	-0.0338442	3464953
14660.8	-0.0331189	3461294
14670.2	-0.0324774	3457314
14680.7	-0.0317744	3453733
14690.2	-0.0311501	3451011
14700.8	-0.0304627	3447630
14710.4	-0.0298455	3444048
14720.1	-0.029237	3441105
14730.6	-0.0285914	3437601
14741	-0.0279574	3433313
14750.4	-0.0273946	3429010
14760.9	-0.0267749	3423412
14770.4	-0.0262198	3418978
14780.9	-0.0256103	3413503
14790.4	-0.0250661	3408800
14800	-0.0245173	3403611
14810.5	-0.0239276	3398258
14820.9	-0.023341	3392581
14830.4	-0.0228111	3386847
14841	-0.0222214	3379436
14850.5	-0.0216911	3373237
14860.1	-0.0211533	3367456
14870.8	-0.0205508	3360951
14880.2	-0.0200213	3355302
14890.6	-0.0194293	3348326
14901	-0.0188321	3340833
14910.4	-0.0182886	3335175
14921	-0.0176707	3329063
14930.7	-0.017096	3322709
14940.6	-0.0165048	3317308
14950.5	-0.0159055	3311793
14960.4	-0.0152977	3305956
14970	-0.0146933	3301150
14980.5	-0.014027	3295322
14990	-0.0134163	3289791
15000.6	-0.0127255	3283927
15010	-0.0120945	3277882
15020.6	-0.0113817	3272044
15031	-0.0106647	3266370
15040.4	-0.0100096	3261067
15050.9	-0.00926394	3254894
15060.4	-0.00858063	3249806
15071	-0.00780864	3244248
15080.5	-0.00711221	3239692
15091	-0.0063297	3233835
15100.5	-0.00561684	3228072
15110.1	-0.00489329	3222268
15120.6	-0.00409933	3215687
15131	-0.00330109	3209375
15140.4	-0.00258274	3204091
15150.8	-0.00178599	3198290
15160.4	-0.00105416	3193543
15170.8	-0.000255879	3188598
15180.1	0.000451029	3184057
15190.4	0.00122481	3178272
15200.6	0.0019871	3172231
15210.8	0.00273839	3166094
15221	0.00347837	3159772
15230.1	0.00413321	3155130
15240.3	0.00484616	3149594
15250.5	0.00554129	3143974
15260.7	0.00621615	3137816
15270.9	0.00686824	3131910
15280	0.00743356	3125807
15290.2	0.00803546	3118973
15300.4	0.00860747	3111978
15310.6	0.00914743	3104797
15320.7	0.00965342	3097893
15330.9	0.0101238	3091068
15340.1	0.0105154	3085247
15350.3	0.0109142	3078127
15360.4	0.0112734	3070974
15370.6	0.011592	3064782
15380.8	0.0118687	3058091
15391	0.0121027	3051157
15400.2	0.0122758	3044255
15410.5	0.0124245	3037262
15420.8	0.0125256	3030571
15430.1	0.012574	3024632
15440.5	0.0125782	3018819
15450.9	0.0125276	3013024
15460.3	0.0124334	3006886
15470.8	0.0122728	3000234
15480.2	0.0120759	2994848
15490.8	0.0117935	2989026
15500.4	0.0114813	2983588
15511.1	0.0110697	2976728
15520.7	0.0106396	2971863
15530.2	0.0101561	2967404
15540.8	0.00955091	2961468
15550.3	0.00894857	2955356
15560.8	0.00821949	2949865
15570.4	0.00749217	2944559
15581.1	0.00661647	2937967
15590.7	0.00577297	2931241
15600.3	0.00487841	2925309
15610.9	0.00383352	2918123
15620.3	0.00285722	2913331
15630.7	0.00173041	2906752
15641	0.000563351	2900936
15650.3	-0.000532511	2895546
15660.5	-0.00180506	2890325
15670.8	-0.00315173	2884375
15680.1	-0.0043667	2880133
15690.4	-0.00573967	2874724
15700.7	-0.00734419	2869225
15711	-0.00906325	2863647
15720.2	-0.0106737	2858733
15730.5	-0.0127151	2852780
15740.8	-0.0151978	2846834
15750.1	-0.0175871	2841816
15760.6	-0.0202468	2835636
15770.1	-0.0226251	2830782
15780.6	-0.0251796	2824978
15790.1	-0.027445	2819193
15800.5	-0.0299925	2813320
15811	-0.0326213	2806421
15820.4	-0.0350877	2801124
15830.1	-0.037681	2795863
15840.8	-0.0406454	2790128
15850.5	-0.0433319	2785135
15861	-0.0462931	2779164
15870.5	-0.0489591	2774657
15880.8	-0.0518922	2769030
15890	-0.0545593	2763901
15900.4	-0.0575628	2758786
15911.1	-0.0607132	2752766
15920.6	-0.0635784	2747754
15930.1	-0.0664399	2742903
15940.7	-0.0696763	2737951
15950.2	-0.0726267	2732664
15960.1	-0.075734	2726963
15970.9	-0.0792177	2721032
15980.4	-0.0822663	2716272
15990.9	-0.0857258	2710539
16000.3	-0.0888837	2705918
16010.7	-0.0924446	2701263
16020	-0.0956026	2696384
16030.3	-0.0990377	2691015
16040.7	-0.102363	2686027
16051	-0.105554	2681392
16060.3	-0.108318	2676576
16070.9	-0.111308	2671839
16080.3	-0.113863	2667171
16090.9	-0.116588	2661673
16100.5	-0.118921	2656204
16110.1	-0.121116	2650537
16120.7	-0.123379	2643739
16130.1	-0.125239	2637594
16141	-0.127197	2630312
16150.7	-0.128762	2624146
16160	-0.130106	2618029
16170.6	-0.131435	2611464
16181	-0.132518	2605742
16190.3	-0.13329	2599566
16200.7	-0.133917	2593409
16210.5	-0.134228	2588296
16220.9	-0.134322	2582488
16230.2	-0.13428	2578212
16240.5	-0.134025	2573001
16250.8	-0.133394	2567873
16260	-0.132695	2562107
16270.4	-0.131713	2556717
16280.7	-0.130506	2550672
16290	-0.129227	2545544
16300.4	-0.127593	2539820
16311.1	-0.125673	2533052
16320.4	-0.123867	2527524
16330.5	-0.121718	2521349
16340.9	-0.119334	2515662
16350.6	-0.116946	2510069
16360.6	-0.114354	2504292
16371	-0.111501	2498958
16380.6	-0.108737	2493669
16390.3	-0.105844	2488179
16401	-0.102474	2481761
16410.7	-0.0993266	2476576
16421	-0.0958556	2471254
16430.3	-0.0924178	2465666
16440.7	-0.0862581	2460138
16450.1	-0.0812624	2454237
16460.4	-0.0761496	2448315
16470.8	-0.0709399	2441983
16480.1	-0.0661947	2436309
16490.6	-0.0606521	2430615
16500.1	-0.0554178	2424339
16510.4	-0.0497382	2418484
16520.9	-0.0440414	2411990
16530.8	-0.0387942	2406998
16540.4	-0.0337078	2402182
16551	-0.0280559	2396648
16560.4	-0.0229606	2391855
16571	-0.0172063	2386617
16580.4	-0.0121899	2382518
16591	-0.0065677	2377664
16600	-0.00189642	2373273
16610.7	0.00355083	2368945
16620.1	0.00827583	2363845
16630.5	0.0134368	2358755
16641	0.0184699	2353606
16650.9	0.023094	2349722
16660.3	0.0273742	2345474
16670.9	0.0319549	2340700
16680.4	0.0359601	2336523
16691	0.0401883	2332116
16700.4	0.0437702	2327551
16710.8	0.0475362	2322606
16720.2	0.050721	2318577
16730.7	0.0540276	2313908
16740.8	0.0569893	2309832
16750.6	0.0596156	2305729
16760.2	0.0619487	2301964
16770.8	0.0642769	2297695
16780.3	0.0662402	2294216
16790.8	0.0681872	2291049
16800.2	0.0695979	2286939
16810.7	0.0706153	2282605
16820.4	0.0711148	2278451
16830.1	0.0717849	2274873
16840.1	0.0721294	2270114
16850.3	0.0723362	2265302
16860.6	0.0724608	2260887
16870.3	0.0724637	2256085
16880.4	0.0723262	2251580
16890.5	0.0720527	2246808
16900.3	0.0716595	2241842
16910.5	0.0711222	2237195
16920.9	0.0704354	2232057
16930.2	0.069706	2228052
16940.6	0.0688012	2223060
16951	0.0678468	2218238
16960.6	0.0668113	2213609
16970.1	0.0656831	2209642
16980.8	0.0645908	2204794
16990.6	0.0639069	2199682
17000.9	0.0621317	2194770
17011.1	0.0601784	2189793
17020.5	0.0584158	2185322
17030	0.056612	2181299
17040.6	0.0546044	2176413
17050.6	0.0527333	2171909
17061	0.0507955	2166629
17070.1	0.0490153	2162259
17080.6	0.0469161	2157062
17091	0.0447504	2151627
17100.1	0.0428327	2147443
17110.9	0.0405733	2141840
17120.6	0.0385712	2136998
17130.3	0.0366053	2132070
17141	0.0344578	2126428
17150.8	0.032523	2121159
17161.1	0.0305134	2115950
17170.2	0.0287617	2111627
17180.5	0.0268291	2106988
17190.8	0.0249671	2102508
17200.1	0.0233609	2099355
17210.4	0.0216593	2094784
17220.5	0.0200825	2089767
17230.6	0.0185981	2085479
17241	0.0171565	2081057
17250.3	0.0159635	2077271
17260.7	0.0147267	2072723
17270	0.0137258	2068607
17280.4	0.0127142	2064712
17290.9	0.0118252	2060012
17300.2	0.0111356	2056545
17310.6	0.0104717	2052637
17321	0.00993033	2048520
17330.3	0.0096257	2045269
17340.7	0.00930933	2041710
17350	0.00906849	2038679
17360.6	0.0089069	2034980
17370.9	0.00897241	2031174
17380.6	0.00912146	2027274
17390.4	0.00926636	2022799
17400.3	0.00944291	2018952
17410.7	0.0096941	2014554
17420	0.0100555	2010425
17430.4	0.0103619	2006067
17440.9	0.010839	2001265
17450.8	0.0113831	1997492
17460.6	0.0119729	1994041
17470.4	0.0125926	1990473
17480.2	0.0132275	1987202
17490.6	0.0139047	1983530
17501	0.0145982	1980219
17510.3	0.0152237	1977140
17520.7	0.0159383	1973913
17530.9	0.0166447	1971261
17540.2	0.0172937	1968272
17550.5	0.0180172	1965227
17560.8	0.01874	1962346
17570.1	0.0193878	1959698
17580.9	0.0201397	1956513
17590.2	0.0207729	1953913
17600.7	0.0214729	1951108
17611.1	0.0221559	1948166
17620.8	0.0227734	1945942
17630.1	0.02335	1943154
17640.5	0.0239686	1940094
17650.8	0.0245619	1936795
17660.9	0.0251111	1933842
17670.9	0.0256334	1931915
17680.9	0.0261299	1929286
17691	0.026605	1926505
17700	0.0270084	1924315
17711.2	0.0274803	1921159
17721.3	0.0278772	1919046
17731.4	0.0282551	1916971
17740.1	0.0285639	1914980
17750.2	0.028907	1912540
17760.5	0.0292355	1909899
17770.8	0.0295494	1907151
17781.4	0.0298628	1903721
17790.7	0.030124	1901140
17801.4	0.0304202	1898250
17810.6	0.0306684	1895464
17821.4	0.0309535	1892587
17831.1	0.0312087	1889555
17840.9	0.0314629	1886601
17850.6	0.0317174	1884061
17860.3	0.0319733	1881411
17871	0.0322568	1878374
17881.3	0.0325358	1875701
17890.1	0.0327743	1873230
17901.2	0.033085	1870135
17910.6	0.0333551	1867663
17920.3	0.0336374	1865103
17931	0.0339578	1862540
17940.6	0.0342528	1859885
17950.2	0.0345549	1857029
17960.9	0.0348991	1853909
17970.3	0.0352113	1850960
17981	0.0355765	1847361
17990.3	0.0358993	1844126
18000.6	0.0362673	1841125
18010.1	0.0366151	1838090
18020.6	0.0370064	1836150
18030.1	0.0373654	1834370
18040.6	0.0377729	1831057
18050.1	0.0381472	1827886
18060.8	0.0385732	1824824
18070.4	0.0389623	1821805
18080	0.039353	1818498
18090.6	0.0397855	1815990
18100.1	0.0401749	1813760
18110.6	0.0406081	1811606
18120.1	0.0409949	1808920
18130.6	0.0414209	1806399
18140.1	0.0417993	1803682
18151	0.0422255	1800537
18160.8	0.0426012	1797651
18170.6	0.0429726	1795043
18180.2	0.0433406	1792558
18190.8	0.0438053	1789458
18200.2	0.0442046	1786878
18210.8	0.0445661	1784805
18220.2	0.0448277	1782246
18230.7	0.0450838	1779151
18240.1	0.0452928	1776796
18250.4	0.0454804	1773997
18260.7	0.0456461	1770919
18271	0.0458082	1767507
18280.3	0.0459456	1764524
18290.9	0.0460839	1761505
18300.5	0.0461875	1759442
18310.1	0.046272	1757003
18320.9	0.0463457	1753991
18330.6	0.0463933	1751736
18340.3	0.046424	1749260
18350.7	0.0464409	1747757
18360.1	0.0464428	1746389
18370.5	0.0464299	1744710
18380.8	0.0463999	1742615
18390.1	0.0463554	1739837
18400.5	0.0462827	1737418
18410.9	0.0461829	1734861
18420.2	0.0460673	1732179
18430.6	0.0459089	1729318
18440.9	0.0457194	1726681
18450.4	0.04552	1723972
18460.9	0.0452672	1720762
18470.4	0.0450108	1718346
18480.2	0.0447163	1716001
18491.1	0.0443619	1713344
18500.3	0.0440361	1711024
18510.5	0.0436548	1708242
18520.1	0.0432719	1705210
18530.9	0.0428135	1702415
18540.8	0.0423747	1699890
18550.4	0.0419126	1697633
18560.2	0.0414011	1694880
18570.6	0.0408201	1691922
18580.4	0.040242	1689708
18590.8	0.0395911	1686787
18600.2	0.0389698	1684433
18610.6	0.0382346	1681775
18620.1	0.0375305	1679627
18630.4	0.0367167	1677015
18640.9	0.0358468	1674489
18650.7	0.035003	1672078
18660.8	0.0340903	1670026
18670.7	0.0331706	1667592
18680.6	0.0322166	1665307
18690.7	0.0312113	1662967
18701.1	0.0301382	1660260
18710.4	0.0291508	1658442
18720.7	0.028018	1656199
18730.6	0.0268961	1653638
18741	0.0256775	1651528
18750.3	0.0245636	1649474
18760.7	0.0232769	1647186
18770	0.0221046	1645297
18780.5	0.0207551	1643158
18790.9	0.0193749	1641388
18800.2	0.0181239	1639670
18810.6	0.0166914	1637619
18821.1	0.0152344	1635595
18830.3	0.0139204	1633523
18840.8	0.0124228	1631638
18850	0.0110761	1629454
18860.5	0.00954504	1627477
18870.9	0.00799863	1625634
18880.2	0.00661228	1623872
18890.6	0.00504051	1621712
18901.1	0.00345692	1619439
18910.4	0.00204015	1617322
18920.8	0.000436834	1615322
18930.1	-0.000995986	1613438
18940.5	-0.00261561	1611328
18950.9	-0.00424238	1609349
18960.2	-0.00569347	1607520
18970.7	-0.0073306	1605620
18981.1	-0.0089714	1603024
18990.4	-0.0104319	1601136
19000.8	-0.0120758	1598951
19010.1	-0.0135365	1596926
19020.5	-0.0151775	1595098
19031	-0.016814	1592883
19040.3	-0.0182631	1590948
19050.7	-0.0198849	1588854
19061.1	-0.0214952	1587293
19070.4	-0.0229148	1585511
19080.8	-0.0244964	1583198
19090.1	-0.0258864	1581371
19100.6	-0.0274303	1579237
19111	-0.0289507	1577147
19120.3	-0.0302808	1575119
19130.7	-0.0317512	1572497
19141.2	-0.0331922	1570117
19150.4	-0.034447	1567619
19160.9	-0.0358277	1565037
19170.1	-0.0370263	1562865
19180.6	-0.038341	1560395
19191	-0.0396188	1558376
19200.3	-0.0407226	1556229
19210.7	-0.0419273	1553968
19220	-0.0429643	1552110
19230.5	-0.0440921	1549961
19240.9	-0.0451779	1548147
19250.2	-0.0461071	1546124
19260.6	-0.0471113	1544289
19271.1	-0.0480715	1542049
19280.3	-0.0488875	1540792
19290.8	-0.0497629	1539243
19300	-0.0505029	1537654
19310.5	-0.0512922	1535718
19320.9	-0.0520357	1533981
19330.2	-0.0526579	1532305
19340.6	-0.0533144	1530320
19351.1	-0.0539251	1528742
19360.4	-0.0544294	1527107
19370.8	-0.0549537	1525334
19380.1	-0.0553816	1524158
19390.5	-0.0558206	1522313
19400.9	-0.0562148	1520464
19410.2	-0.056528	1518281
19420.6	-0.0568366	1516541
19431	-0.0571024	1514792
19440.2	-0.0573031	1513059
19450.7	-0.0574878	1511737
19461.1	-0.0576293	1509794
19470.4	-0.0577192	1508000
19480.8	-0.0577804	1506069
19490	-0.0577991	1505120
19500.5	-0.0577794	1503620
19510.9	-0.0577163	1502001
19520.2	-0.0576237	1500584
19530.6	-0.0574786	1498995
19541	-0.057291	1497644
19550.3	-0.0570891	1496535
19560.7	-0.0568235	1494939
19570.7	-0.0565293	1493527
19580.4	-0.0562131	1492102
19590.8	-0.0558343	1490534
19600.1	-0.055466	1489292
19610.4	-0.0550221	1488302
19620.5	-0.0545536	1486784
19630.6	-0.0540501	1485526
19640.8	-0.0535076	1483763
19650	-0.0529873	1482519
19660.4	-0.0523672	1480887
19670.8	-0.0517167	1479721
19680.4	-0.0510816	1478290
19691	-0.0503394	1476807
19700.6	-0.0496381	1475091
19710.4	-0.0488871	1473429
19720.8	-0.0480532	1471685
19730.1	-0.0472807	1470485
19740.5	-0.0463765	1469512
19750.7	-0.0454612	1467940
19760.7	-0.044515	1466859
19770.8	-0.0435355	1465214
19781.1	-0.0424967	1463742
19790.6	-0.041498	1462255
19800.3	-0.0404371	1461013
19810.9	-0.0392146	1459787
19820.4	-0.0380549	1458404
19830.5	-0.036745	1457330
19840.9	-0.0353128	1456518
19850.2	-0.0339979	1455044
19860.4	-0.0336001	1453472
19870.6	-0.0323963	1451828
19880.8	-0.0307528	1450247
19891	-0.0290831	1448587
19900.2	-0.0276665	1447107
19910.6	-0.0261482	1445841
19921.1	-0.024703	1444771
19930.6	-0.0234375	1443444
19941	-0.022105	1442292
19950.4	-0.0209535	1440905
19960.9	-0.019722	1439123
19970.8	-0.0186105	1437262
19980	-0.017621	1435863
19990.5	-0.0165723	1433922
