
Timesteps: 
INITIAL_DEPTH	SPLITTING_SIZE	MTPS	AVERAGE_TRIANGLES	AVERAGE_PARTITIONS
10	10	6.62884	2048	256
10	20	8.54696	2048	128
10	30	8.77577	2048	128
10	40	11.1105	2048	64
10	50	11.1608	2048	64
10	60	11.0463	2048	64
10	70	13.3626	2048	32
10	80	13.2018	2048	32
10	90	13.3234	2048	32
10	100	13.3863	2048	32
10	200	14.7805	2048	16
10	300	15.2824	2048	8
10	400	15.9662	2048	8
10	500	16.0317	2048	8
10	600	12.1069	2048	4
10	700	11.6503	2048	4
10	800	12.0079	2048	4
10	900	11.855	2048	4
10	1000	12.1057	2048	4
10	2000	8.14704	2048	2
10	3000	8.13326	2048	2
10	4000	8.12036	2048	2
10	5000	8.05445	2048	2
10	6000	7.97929	2048	2
10	7000	8.09069	2048	2
10	8000	8.10164	2048	2
10	9000	8.0525	2048	2
10	10000	8.06593	2048	2
10	20000	8.10021	2048	2
10	40000	8.07897	2048	2
10	60000	8.08439	2048	2
10	80000	8.01529	2048	2
10	100000	8.07627	2048	2

Timesteps: 196608
INITIAL_DEPTH	SPLITTING_SIZE	MTPS	AVERAGE_TRIANGLES	AVERAGE_PARTITIONS
11	10	8.06737	4096	512
11	20	11.1961	4096	256
11	30	11.1796	4096	256
11	40	14.4865	4096	128
11	50	14.457	4096	128
11	60	14.6065	4096	128
11	70	17.8077	4096	64
11	80	17.7339	4096	64
11	90	17.74	4096	64
11	100	17.7089	4096	64
11	200	20.3178	4096	32
11	300	20.0622	4096	16
11	400	20.3437	4096	16
11	500	20.5279	4096	16
11	600	21.0597	4096	8
11	700	21.0443	4096	8
11	800	21.0981	4096	8
11	900	20.7458	4096	8
11	1000	21.3792	4096	8
11	2000	13.8823	4096	4
11	3000	8.57321	4096	2
11	4000	8.54757	4096	2
11	5000	8.54276	4096	2
11	6000	8.53006	4096	2
11	7000	8.48074	4096	2
11	8000	8.52417	4096	2
11	9000	8.51313	4096	2
11	10000	8.48036	4096	2
11	20000	8.51291	4096	2
11	40000	8.51093	4096	2
11	60000	8.52839	4096	2
11	80000	8.55339	4096	2
11	100000	8.5024	4096	2

Timesteps: 98304
INITIAL_DEPTH	SPLITTING_SIZE	MTPS	AVERAGE_TRIANGLES	AVERAGE_PARTITIONS
12	10	9.3512	8192	1024
12	20	13.2944	8192	512
12	30	13.2969	8192	512
12	40	17.6492	8192	256
12	50	17.9435	8192	256
12	60	17.7713	8192	256
12	70	21.8555	8192	128
12	80	22.1039	8192	128
12	90	21.8926	8192	128
12	100	22.1308	8192	128
12	200	25.6986	8192	64
12	300	27.6382	8192	32
12	400	27.5292	8192	32
12	500	27.5448	8192	32
12	600	25.9833	8192	16
12	700	25.9053	8192	16
12	800	25.8647	8192	16
12	900	25.7764	8192	16
12	1000	25.9135	8192	16
12	2000	25.6926	8192	8
12	3000	15.9614	8192	4
12	4000	15.7669	8192	4
12	5000	9.1012	8192	2
12	6000	9.15832	8192	2
12	7000	9.1165	8192	2
12	8000	9.17269	8192	2
12	9000	9.1042	8192	2
12	10000	9.14966	8192	2
12	20000	9.15663	8192	2
12	40000	9.12902	8192	2
12	60000	9.09971	8192	2
12	80000	9.14608	8192	2
12	100000	9.03753	8192	2

Timesteps: 49152
INITIAL_DEPTH	SPLITTING_SIZE	MTPS	AVERAGE_TRIANGLES	AVERAGE_PARTITIONS
13	10	9.92479	16384	2048
13	20	15.019	16384	1024
13	30	14.9189	16384	1024
13	40	20.618	16384	512
13	50	20.5995	16384	512
13	60	20.5771	16384	512
13	70	26.1616	16384	256
13	80	26.0502	16384	256
13	90	26.0026	16384	256
13	100	26.1371	16384	256
13	200	30.8285	16384	128
13	300	33.0062	16384	64
13	400	32.965	16384	64
13	500	33.0683	16384	64
13	600	34.5309	16384	32
13	700	34.6191	16384	32
13	800	34.352	16384	32
13	900	34.6552	16384	32
13	1000	34.4356	16384	32
13	2000	29.996	16384	16
13	3000	29.9165	16384	8
13	4000	29.5389	16384	8
13	5000	16.8269	16384	4
13	6000	17.016	16384	4
13	7000	16.7883	16384	4
13	8000	16.8863	16384	4
13	9000	9.45388	16384	2
13	10000	9.37398	16384	2
13	20000	9.32735	16384	2
13	40000	9.41925	16384	2
13	60000	9.39759	16384	2
13	80000	9.39441	16384	2
13	100000	9.37287	16384	2

Timesteps: 24576
INITIAL_DEPTH	SPLITTING_SIZE	MTPS	AVERAGE_TRIANGLES	AVERAGE_PARTITIONS
14	10	9.44383	32768	4096
14	20	15.3386	32768	2048
14	30	15.3159	32768	2048
14	40	22.2679	32768	1024
14	50	22.397	32768	1024
14	60	22.2865	32768	1024
14	70	28.9687	32768	512
14	80	29.0056	32768	512
14	90	29.0059	32768	512
14	100	28.9749	32768	512
14	200	35.0275	32768	256
14	300	38.501	32768	128
14	400	38.4526	32768	128
14	500	38.3813	32768	128
14	600	39.8007	32768	64
14	700	39.8128	32768	64
14	800	39.8982	32768	64
14	900	39.9334	32768	64
14	1000	39.8367	32768	64
14	2000	40.3827	32768	32
14	3000	34.1391	32768	16
14	4000	34.1246	32768	16
14	5000	33.2237	32768	8
14	6000	33.0596	32768	8
14	7000	33.1501	32768	8
14	8000	33.0181	32768	8
14	9000	18.2948	32768	4
14	10000	18.1869	32768	4
14	20000	9.89821	32768	2
14	40000	9.97359	32768	2
14	60000	9.92251	32768	2
14	80000	9.84672	32768	2
14	100000	9.89834	32768	2

Timesteps: 12288
INITIAL_DEPTH	SPLITTING_SIZE	MTPS	AVERAGE_TRIANGLES	AVERAGE_PARTITIONS
15	10	8.52431	65536	8192
15	20	14.1195	65536	4096
15	30	14.1491	65536	4096
15	40	21.6741	65536	2048
15	50	21.6893	65536	2048
15	60	21.6115	65536	2048
15	70	29.9023	65536	1024
15	80	29.8511	65536	1024
15	90	29.9335	65536	1024
15	100	29.949	65536	1024
15	200	37.1385	65536	512
15	300	41.5729	65536	256
15	400	41.6428	65536	256
15	500	41.5851	65536	256
15	600	44.2802	65536	128
15	700	44.4399	65536	128
15	800	44.5169	65536	128
15	900	44.433	65536	128
15	1000	44.5203	65536	128
15	2000	44.3602	65536	64
15	3000	44.17	65536	32
15	4000	44.3199	65536	32
15	5000	36.1422	65536	16
15	6000	36.02	65536	16
15	7000	36.0492	65536	16
15	8000	36.0101	65536	16
15	9000	34.5743	65536	8
15	10000	34.5266	65536	8
15	20000	18.4006	65536	4
15	40000	9.98077	65536	2
15	60000	10.0014	65536	2
15	80000	9.99314	65536	2
15	100000	10.0466	65536	2

Timesteps: 6144
INITIAL_DEPTH	SPLITTING_SIZE	MTPS	AVERAGE_TRIANGLES	AVERAGE_PARTITIONS
16	10	7.9073	131072	16384
16	20	13.0557	131072	8192
16	30	13.072	131072	8192
16	40	20.0409	131072	4096
16	50	20.0908	131072	4096
16	60	20.1054	131072	4096
16	70	28.1995	131072	2048
16	80	28.1936	131072	2048
16	90	28.0082	131072	2048
16	100	28.2579	131072	2048
16	200	36.2564	131072	1024
16	300	42.351	131072	512
16	400	42.3707	131072	512
16	500	42.5092	131072	512
16	600	46.521	131072	256
16	700	46.331	131072	256
16	800	46.207	131072	256
16	900	46.5289	131072	256
16	1000	46.5287	131072	256
16	2000	48.3519	131072	128
16	3000	48.2436	131072	64
16	4000	48.1456	131072	64
16	5000	47.6851	131072	32
16	6000	47.6462	131072	32
16	7000	47.4858	131072	32
16	8000	47.5707	131072	32
16	9000	38.2465	131072	16
16	10000	38.3825	131072	16
16	20000	36.2315	131072	8
16	40000	19.423	131072	4
16	60000	19.4099	131072	4
16	80000	10.4573	131072	2
16	100000	10.4324	131072	2

Timesteps: 3072
INITIAL_DEPTH	SPLITTING_SIZE	MTPS	AVERAGE_TRIANGLES	AVERAGE_PARTITIONS
17	10	7.47429	262144	32768
17	20	12.4895	262144	16384
17	30	12.3958	262144	16384
17	40	19.159	262144	8192
17	50	19.0459	262144	8192
17	60	19.1385	262144	8192
17	70	26.9237	262144	4096
17	80	27.0121	262144	4096
17	90	26.9145	262144	4096
17	100	27.075	262144	4096
17	200	34.2359	262144	2048
17	300	39.6064	262144	1024
17	400	39.776	262144	1024
17	500	39.6191	262144	1024
17	600	43.2992	262144	512
17	700	43.4866	262144	512
17	800	43.4226	262144	512
17	900	43.2704	262144	512
17	1000	43.1708	262144	512
17	2000	45.387	262144	256
17	3000	46.5405	262144	128
17	4000	46.6018	262144	128
17	5000	45.3935	262144	64
17	6000	45.3524	262144	64
17	7000	45.3013	262144	64
17	8000	44.9479	262144	64
17	9000	44.9054	262144	32
17	10000	44.8205	262144	32
17	20000	35.9696	262144	16
17	40000	33.8834	262144	8
17	60000	33.9764	262144	8
17	80000	18.9738	262144	4
17	100000	18.6057	262144	4

Timesteps: 1536
INITIAL_DEPTH	SPLITTING_SIZE	MTPS	AVERAGE_TRIANGLES	AVERAGE_PARTITIONS
18	10	7.40607	524288	65536
18	20	12.1363	524288	32768
18	30	12.1952	524288	32768
18	40	18.6771	524288	16384
18	50	18.6522	524288	16384
18	60	18.5997	524288	16384
18	70	26.2046	524288	8192
18	80	26.1887	524288	8192
18	90	26.1991	524288	8192
18	100	26.3503	524288	8192
18	200	33.8727	524288	4096
18	300	39.383	524288	2048
18	400	39.4158	524288	2048
18	500	39.6576	524288	2048
18	600	42.6991	524288	1024
18	700	43.2386	524288	1024
18	800	43.0938	524288	1024
18	900	42.8376	524288	1024
18	1000	43.127	524288	1024
18	2000	44.8727	524288	512
18	3000	46.621	524288	256
18	4000	46.5675	524288	256
18	5000	46.6973	524288	128
18	6000	46.7941	524288	128
18	7000	46.4937	524288	128
18	8000	46.8166	524288	128
18	9000	44.7195	524288	64
18	10000	45.0759	524288	64
18	20000	44.4611	524288	32
18	40000	35.7318	524288	16
18	60000	35.8055	524288	16
18	80000	34.4429	524288	8
18	100000	35.2885	524288	8

Timesteps: 768
INITIAL_DEPTH	SPLITTING_SIZE	MTPS	AVERAGE_TRIANGLES	AVERAGE_PARTITIONS
19	10	7.25646	1.04858e+06	131072
19	20	12.0293	1.04858e+06	65536
19	30	12.0937	1.04858e+06	65536
19	40	18.5854	1.04858e+06	32768
19	50	18.5787	1.04858e+06	32768
19	60	18.7046	1.04858e+06	32768
19	70	26.4396	1.04858e+06	16384
19	80	26.3991	1.04858e+06	16384
19	90	26.446	1.04858e+06	16384
19	100	26.642	1.04858e+06	16384
19	200	34.0247	1.04858e+06	8192
19	300	39.4896	1.04858e+06	4096
19	400	39.7897	1.04858e+06	4096
19	500	39.6841	1.04858e+06	4096
19	600	43.0117	1.04858e+06	2048
19	700	42.9459	1.04858e+06	2048
19	800	43.0897	1.04858e+06	2048
19	900	42.9497	1.04858e+06	2048
19	1000	43.2332	1.04858e+06	2048
19	2000	44.8976	1.04858e+06	1024
19	3000	46.9304	1.04858e+06	512
19	4000	46.9248	1.04858e+06	512
19	5000	47.1927	1.04858e+06	256
19	6000	47.2159	1.04858e+06	256
19	7000	46.8544	1.04858e+06	256
19	8000	47.1429	1.04858e+06	256
19	9000	47.5349	1.04858e+06	128
19	10000	47.3638	1.04858e+06	128
19	20000	44.8028	1.04858e+06	64
19	40000	44.5994	1.04858e+06	32
19	60000	44.5689	1.04858e+06	32
19	80000	35.3495	1.04858e+06	16
19	100000	35.5246	1.04858e+06	16

Timesteps: 384
INITIAL_DEPTH	SPLITTING_SIZE	MTPS	AVERAGE_TRIANGLES	AVERAGE_PARTITIONS
20	10	7.19506	2.09715e+06	262144
20	20	11.8471	2.09715e+06	131072
20	30	11.7788	2.09715e+06	131072
20	40	18.2152	2.09715e+06	65536
20	50	18.0685	2.09715e+06	65536
20	60	18.2627	2.09715e+06	65536
20	70	25.864	2.09715e+06	32768
20	80	25.8117	2.09715e+06	32768
20	90	25.863	2.09715e+06	32768
20	100	25.9544	2.09715e+06	32768
20	200	33.8815	2.09715e+06	16384
20	300	39.5449	2.09715e+06	8192
20	400	39.842	2.09715e+06	8192
20	500	39.6735	2.09715e+06	8192
20	600	43.7403	2.09715e+06	4096
20	700	43.6856	2.09715e+06	4096
20	800	43.6197	2.09715e+06	4096
20	900	43.6121	2.09715e+06	4096
20	1000	43.4947	2.09715e+06	4096
20	2000	46.019	2.09715e+06	2048
20	3000	47.7641	2.09715e+06	1024
20	4000	47.7271	2.09715e+06	1024
20	5000	48.5798	2.09715e+06	512
20	6000	48.6322	2.09715e+06	512
20	7000	48.3107	2.09715e+06	512
20	8000	48.5799	2.09715e+06	512
20	9000	48.5056	2.09715e+06	256
20	10000	48.9254	2.09715e+06	256
20	20000	48.2416	2.09715e+06	128
20	40000	45.9043	2.09715e+06	64
20	60000	45.9909	2.09715e+06	64
20	80000	45.684	2.09715e+06	32
20	100000	44.8463	2.09715e+06	32

Timesteps: 192
INITIAL_DEPTH	SPLITTING_SIZE	MTPS	AVERAGE_TRIANGLES	AVERAGE_PARTITIONS
21	10	7.14805	4.1943e+06	524288
21	20	11.795	4.1943e+06	262144
21	30	11.8552	4.1943e+06	262144
21	40	18.0807	4.1943e+06	131072
21	50	18.3063	4.1943e+06	131072
21	60	18.244	4.1943e+06	131072
21	70	26.2542	4.1943e+06	65536
21	80	26.2139	4.1943e+06	65536
21	90	26.1008	4.1943e+06	65536
21	100	26.0026	4.1943e+06	65536
21	200	33.9899	4.1943e+06	32768
21	300	39.9029	4.1943e+06	16384
21	400	39.7511	4.1943e+06	16384
21	500	39.6777	4.1943e+06	16384
21	600	43.5793	4.1943e+06	8192
21	700	43.7282	4.1943e+06	8192
21	800	43.688	4.1943e+06	8192
21	900	43.7401	4.1943e+06	8192
21	1000	43.6681	4.1943e+06	8192
21	2000	45.7079	4.1943e+06	4096
21	3000	47.7226	4.1943e+06	2048
21	4000	47.6715	4.1943e+06	2048
21	5000	48.5359	4.1943e+06	1024
21	6000	48.3575	4.1943e+06	1024
21	7000	48.2998	4.1943e+06	1024
21	8000	48.2255	4.1943e+06	1024
21	9000	48.5466	4.1943e+06	512
21	10000	48.6101	4.1943e+06	512
21	20000	48.3839	4.1943e+06	256
21	40000	48.2095	4.1943e+06	128
21	60000	48.3154	4.1943e+06	128
21	80000	45.1504	4.1943e+06	64
21	100000	45.0699	4.1943e+06	64

Timesteps: 96
INITIAL_DEPTH	SPLITTING_SIZE	MTPS	AVERAGE_TRIANGLES	AVERAGE_PARTITIONS
22	10	7.16738	8.38861e+06	1.04858e+06
22	20	11.777	8.38861e+06	524288
22	30	11.7054	8.38861e+06	524288
22	40	18.0447	8.38861e+06	262144
22	50	18.0505	8.38861e+06	262144
22	60	18.0732	8.38861e+06	262144
22	70	25.6869	8.38861e+06	131072
22	80	25.695	8.38861e+06	131072
22	90	25.6287	8.38861e+06	131072
22	100	25.6347	8.38861e+06	131072
22	200	33.46	8.38861e+06	65536
22	300	39.7088	8.38861e+06	32768
22	400	39.8563	8.38861e+06	32768
22	500	39.8033	8.38861e+06	32768
22	600	43.9626	8.38861e+06	16384
22	700	43.8873	8.38861e+06	16384
22	800	43.922	8.38861e+06	16384
22	900	43.5386	8.38861e+06	16384
22	1000	43.688	8.38861e+06	16384
22	2000	46.1794	8.38861e+06	8192
22	3000	48.0181	8.38861e+06	4096
22	4000	47.9865	8.38861e+06	4096
22	5000	49.1873	8.38861e+06	2048
22	6000	49.1448	8.38861e+06	2048
22	7000	49.0591	8.38861e+06	2048
22	8000	48.955	8.38861e+06	2048
22	9000	49.6474	8.38861e+06	1024
22	10000	49.5422	8.38861e+06	1024
22	20000	49.8798	8.38861e+06	512
22	40000	49.048	8.38861e+06	256
22	60000	49.1413	8.38861e+06	256
22	80000	49.257	8.38861e+06	128
22	100000	48.6394	8.38861e+06	128

Timesteps: 48
INITIAL_DEPTH	SPLITTING_SIZE	MTPS	AVERAGE_TRIANGLES	AVERAGE_PARTITIONS
