%%MatrixMarket matrix array real general
6 6
.5000000000
0.
0.
0.
0.
0.
0.
-.5000000000
0.
.5000000000
0.
0.
0.
0.
.5000000000
0.
-1.
.5000000000
.5000000000
-.5000000000
0.
-.5000000000
0.
0.
0.
-.5000000000
.5000000000
.5000000000
0.
-.5000000000
.5000000000
-1.
.5000000000
-1.
1.
.5000000000
