%%MatrixMarket matrix array real general
6 3
-.2357022604
0.
.2357022604e-1
-.2357022604
-.2357022604e-1
-.2121320343
-.9428090414
-.4714045206
-.2828427124
-.4714045206
-.1885618082
-.2828427124
-.2357022604
-.2357022604
-.2121320343
0.
-.2357022604e-1
.2357022604e-1
