Problem size with different number of CPUs using function optimization
THREADS	MTPS	TIMESTEPS	TIMESTEP_SIZE	SECONDS_FOR_SIMULATION	AVERAGE_TRIANGLES	AVERAGE_PARTITIONS
64	74.4978	100	0.000491318	25.5671	1.90469e+07	1158.74
63	74.42	100	0.000491318	25.5938	1.90469e+07	1158.74
62	74.6324	100	0.000491318	25.521	1.90469e+07	1158.74
61	73.9085	100	0.000491318	25.7709	1.90469e+07	1158.74
60	72.0788	100	0.000491318	26.4251	1.90469e+07	1158.74
59	72.996	100	0.000491318	26.0931	1.90469e+07	1158.74
58	70.6349	100	0.000491318	26.9653	1.90469e+07	1158.74
57	71.3645	100	0.000491318	26.6896	1.90469e+07	1158.74
56	70.3659	100	0.000491318	27.0684	1.90469e+07	1158.74
55	68.7898	100	0.000491318	27.6886	1.90469e+07	1158.74
54	68.7386	100	0.000491318	27.7092	1.90469e+07	1158.74
53	66.6639	100	0.000491318	28.5715	1.90469e+07	1158.74
52	65.4961	100	0.000491318	29.081	1.90469e+07	1158.74
51	63.559	100	0.000491318	29.9673	1.90469e+07	1158.74
50	62.2234	100	0.000491318	30.6105	1.90469e+07	1158.74
49	61.0051	100	0.000491318	31.2218	1.90469e+07	1158.74
48	58.278	100	0.000491318	32.6828	1.90469e+07	1158.74
47	57.8313	100	0.000491318	32.9353	1.90469e+07	1158.74
46	57.4025	100	0.000491318	33.1814	1.90469e+07	1158.74
45	55.326	100	0.000491318	34.4267	1.90469e+07	1158.74
44	55.1674	100	0.000491318	34.5257	1.90469e+07	1158.74
43	53.4825	100	0.000491318	35.6134	1.90469e+07	1158.74
42	53.858	100	0.000491318	35.365	1.90469e+07	1158.74
41	53.711	100	0.000491318	35.4618	1.90469e+07	1158.74
40	52.3411	100	0.000491318	36.39	1.90469e+07	1158.74
39	50.4319	100	0.000491318	37.7676	1.90469e+07	1158.74
38	49.2441	100	0.000491318	38.6786	1.90469e+07	1158.74
37	47.2006	100	0.000491318	40.3531	1.90469e+07	1158.74
36	46.1166	100	0.000491318	41.3017	1.90469e+07	1158.74
35	44.0843	100	0.000491318	43.2057	1.90469e+07	1158.74
34	42.2756	100	0.000491318	45.0541	1.90469e+07	1158.74
33	38.9219	100	0.000491318	48.9362	1.90469e+07	1158.74
32	35.6963	100	0.000491318	53.3583	1.90469e+07	1158.74
31	35.6498	100	0.000491318	53.4278	1.90469e+07	1158.74
30	35.2635	100	0.000491318	54.0131	1.90469e+07	1158.74
29	34.3649	100	0.000491318	55.4255	1.90469e+07	1158.74
28	33.5396	100	0.000491318	56.7893	1.90469e+07	1158.74
27	33.2398	100	0.000491318	57.3014	1.90469e+07	1158.74
26	32.6932	100	0.000491318	58.2596	1.90469e+07	1158.74
25	31.6675	100	0.000491318	60.1465	1.90469e+07	1158.74
24	30.4126	100	0.000491318	62.6284	1.90469e+07	1158.74
23	29.9509	100	0.000491318	63.5938	1.90469e+07	1158.74
22	28.7706	100	0.000491318	66.2026	1.90469e+07	1158.74
21	28.2094	100	0.000491318	67.5196	1.90469e+07	1158.74
20	26.0675	100	0.000491318	73.0676	1.90469e+07	1158.74
19	25.6564	100	0.000491318	74.2384	1.90469e+07	1158.74
18	24.3098	100	0.000491318	78.3508	1.90469e+07	1158.74
17	22.7103	100	0.000491318	83.869	1.90469e+07	1158.74
16	20.8201	100	0.000491318	91.4834	1.90469e+07	1158.74
15	20.4798	100	0.000491318	93.0034	1.90469e+07	1158.74
14	20.1137	100	0.000491318	94.6963	1.90469e+07	1158.74
13	19.526	100	0.000491318	97.5462	1.90469e+07	1158.74
12	18.8877	100	0.000491318	100.843	1.90469e+07	1158.74
11	18.2966	100	0.000491318	104.101	1.90469e+07	1158.74
10	17.6739	100	0.000491318	107.769	1.90469e+07	1158.74
9	16.5937	100	0.000491318	114.784	1.90469e+07	1158.74
8	15.152	100	0.000491318	125.706	1.90469e+07	1158.74
7	14.1681	100	0.000491318	134.436	1.90469e+07	1158.74
6	13.1137	100	0.000491318	145.244	1.90469e+07	1158.74
5	11.3072	100	0.000491318	168.45	1.90469e+07	1158.74
4	9.00349	100	0.000491318	211.55	1.90469e+07	1158.74
3	7.76031	100	0.000491318	245.44	1.90469e+07	1158.74
2	6.63974	100	0.000491318	286.862	1.90469e+07	1158.74
1	3.34563	100	0.000491318	569.308	1.90469e+07	1158.74
