0	0
121.145	0
242.29	0
363.435	0
484.58	0
605.725	0
726.869	0
848.013	0
969.156	0
1090.3	0
1211.44	0
1332.58	0
1453.72	0
1574.86	0
1696	0
1817.15	0
1938.29	2.04273e-09
2059.43	-3.01038e-07
2180.58	-3.18719e-06
2301.72	-1.5915e-05
2422.87	-5.40217e-05
2544.01	-0.000142011
2665.16	-0.000307627
2786.3	-0.000567669
2907.44	-0.000906323
3028.59	-0.00125149
3149.73	-0.00145797
3270.88	-0.00130732
3392.02	-0.000531024
3513.16	0.00114289
3634.31	0.00392727
3755.45	0.00791144
3876.6	0.0130113
3997.74	0.0189488
4118.89	0.0252683
4240.03	0.03139
4361.18	0.036691
4482.32	0.0405989
4603.47	0.0426788
4724.61	0.0426984
4845.75	0.040658
4966.9	0.0367833
5088.04	0.0314828
5209.19	0.0252798
5330.33	0.0187347
5451.48	0.0123691
5572.62	0.00660563
5693.77	0.00173184
5814.91	-0.00211057
5936.06	-0.00491244
6057.2	-0.0067666
6178.34	-0.0078285
6299.49	-0.00827661
6420.63	-0.00827977
6541.78	-0.00797587
6662.92	-0.00746305
6784.07	-0.00680199
6905.21	-0.00602587
7026.36	-0.00515349
7147.5	-0.00420163
7268.65	-0.00319362
7389.79	-0.00216252
7510.94	-0.00114932
7632.08	-0.00019732
7753.23	0.000655008
7874.37	0.00138049
7995.52	0.00196733
8116.66	0.0024198
8237.81	0.00275563
8358.95	0.00300074
8480.1	0.00318278
8601.24	0.00332491
8722.39	0.00344104
8843.53	0.00353353
8964.68	0.0035933
9085.82	0.00360236
9206.97	0.00353783
9328.11	0.00337648
9449.26	0.00309907
9570.4	0.00269347
9691.55	0.00215642
9812.69	0.00149371
9933.84	0.000719115
10055	-0.000147543
10176.1	-0.00108268
10297.3	-0.00206106
10418.4	-0.00305755
10539.6	-0.0040482
10660.7	-0.00501085
10781.8	-0.00592529
10903	-0.00677323
11024.1	-0.00753829
11145.3	-0.00820618
11266.4	-0.00876495
11387.6	-0.00920558
11508.7	-0.00952246
11629.9	-0.00971387
11751	-0.00978227
11872.2	-0.00973417
11993.3	-0.00957977
12114.4	-0.00933227
12235.6	-0.00900692
12356.7	-0.00862003
12477.9	-0.00818801
12599	-0.00772648
12720.2	-0.00724969
12841.3	-0.00677003
12962.5	-0.00629794
13083.6	-0.00584181
13204.7	-0.00540814
13325.9	-0.00500167
13447	-0.00462563
13568.2	-0.00428183
13689.3	-0.00397087
13810.5	-0.00369224
13931.6	-0.00344448
14052.8	-0.0032253
14173.9	-0.00303174
14295.1	-0.00286036
14416.2	-0.00270746
14537.3	-0.00256928
14658.5	-0.00244218
14779.6	-0.00232279
14900.8	-0.00220815
15021.9	-0.00209576
15143.1	-0.00198358
15264.2	-0.00187005
15385.4	-0.00175401
15506.5	-0.00163465
15627.6	-0.00151151
15748.8	-0.00138436
15869.9	-0.00125325
15991.1	-0.00111845
16112.2	-0.000980437
16233.4	-0.000839934
16354.5	-0.000697853
16475.7	-0.000555294
16596.8	-0.000413518
16717.9	-0.000273904
16839.1	-0.000137904
16960.2	-6.99964e-06
17081.4	0.000117348
17202.5	0.000233741
17323.7	0.000340878
17444.8	0.000437593
17566	0.000522877
17687.1	0.000595901
17808.3	0.000656042
17929.4	0.00070289
18050.5	0.000736274
18171.7	0.000756266
18292.8	0.000763191
18414	0.000757624
18535.1	0.000740385
18656.3	0.000712516
18777.4	0.000675259
18898.6	0.000630018
19019.7	0.000578321
19140.8	0.000521769
19262	0.000461992
19383.1	0.0004006
19504.3	0.000339139
19625.4	0.000279048
19746.6	0.000221627
19867.7	0.000168008
19988.9	0.000119128
