0	0
175.501	0
351.002	0
526.503	0
702.004	0
877.505	0
1053.01	0
1228.51	0
1404.01	0
1579.51	0
1755.01	0
1930.51	0
2106.01	0
2281.51	-1.31108e-05
2457.01	0.000155974
2632.5	0.000950717
2808	0.00307659
2983.49	0.00740629
3158.99	0.0148373
3334.48	0.0260355
3509.98	0.0411631
3685.48	0.0596961
3860.97	0.0804277
4036.47	0.10165
4211.97	0.121447
4387.46	0.138015
4562.96	0.149929
4738.46	0.156322
4913.96	0.156942
5089.46	0.152098
5264.96	0.142529
5440.47	0.129234
5615.97	0.113303
5791.47	0.0957844
5966.97	0.0775944
6142.47	0.0594749
6317.97	0.0419897
6493.48	0.0255437
6668.98	0.0104135
6844.48	-0.0032233
7019.98	-0.0152649
7195.48	-0.0256711
7370.98	-0.0344543
7546.48	-0.0416728
7721.98	-0.0474226
7897.48	-0.0518271
8072.98	-0.0550244
8248.49	-0.057154
8423.99	-0.0583462
8599.49	-0.0587156
8774.99	-0.0583597
8950.49	-0.0573625
9125.99	-0.0558008
9301.49	-0.0537516
9476.99	-0.051298
9652.49	-0.0485316
9827.99	-0.0455518
10003.5	-0.042461
10179	-0.0393583
10354.5	-0.0363322
10530	-0.0334548
10705.5	-0.0307786
10881	-0.0283353
11056.5	-0.0261383
11232	-0.0241861
11407.5	-0.022467
11583	-0.0209635
11758.5	-0.0196561
11934	-0.0185247
12109.5	-0.0175501
12285	-0.0167132
12460.5	-0.0159947
12636	-0.0153745
12811.5	-0.014831
12987	-0.0143421
13162.5	-0.0138857
13338	-0.013441
13513.5	-0.0129897
13689	-0.0125167
13864.5	-0.0120108
14040	-0.0114641
14215.5	-0.0108722
14391	-0.0102328
14566.5	-0.00954572
14742	-0.00881173
14917.5	-0.0080329
15093	-0.00721246
15268.5	-0.00635534
15444	-0.00546856
15619.5	-0.00456171
15795	-0.00364715
15970.5	-0.00273989
16146	-0.00185722
16321.5	-0.00101791
16497	-0.000241345
16672.5	0.00045351
16848	0.00104907
17023.5	0.00152998
17199	0.00188379
17374.5	0.0021014
17550	0.00217735
17725.5	0.0021099
17901	0.00190104
18076.5	0.00155636
18252	0.00108486
18427.5	0.000498677
18603	-0.000187253
18778.5	-0.000955645
18954	-0.00178738
19129.5	-0.00266209
19305	-0.00355883
19480.5	-0.00445674
19656	-0.00533572
19831.5	-0.00617695
