0	0
18.6583	0
27.9875	0
37.3166	0
46.6458	0
55.975	0
65.3041	0
74.6333	0
83.9624	0
93.2916	0
102.621	0
111.95	0
121.279	0
130.608	0
149.267	0
158.596	0
167.925	0
177.254	0
186.583	0
195.912	0
205.242	0
214.571	0
223.9	0
233.229	0
242.558	0
251.887	0
261.216	0
270.546	0
289.204	0
298.533	0
307.862	0
317.191	0
326.521	0
335.85	0
345.179	0
354.508	0
363.837	0
373.166	0
382.496	0
391.825	0
401.154	0
410.483	0
429.141	0
438.471	0
447.8	0
457.129	0
466.458	0
475.787	0
485.116	0
494.446	0
503.775	0
513.104	0
522.433	0
531.762	0
541.091	0
550.42	0
569.079	0
578.408	0
587.737	0
597.066	0
606.395	0
615.725	0
625.054	0
634.383	0
643.712	0
653.041	0
662.37	0
671.7	0
681.029	0
690.358	9.09495e-13
709.016	8.18545e-12
718.345	2.18279e-11
727.675	5.27507e-11
737.004	1.24601e-10
746.333	2.83762e-10
755.662	6.25732e-10
764.991	1.33423e-09
774.32	2.76577e-09
783.649	5.57884e-09
792.979	1.09612e-08
802.308	2.09975e-08
811.637	3.92638e-08
820.966	7.17346e-08
830.295	1.28171e-07
848.954	3.84024e-07
858.283	6.45003e-07
867.612	1.06286e-06
876.941	1.71954e-06
886.27	2.7331e-06
895.599	4.27055e-06
904.929	6.56387e-06
914.258	9.92975e-06
923.587	1.47931e-05
932.916	2.17148e-05
942.245	3.1423e-05
951.574	4.48491e-05
960.904	6.31654e-05
970.233	8.78264e-05
988.891	0.000163664
998.22	0.00021954
1007.55	0.000291238
1016.88	0.000382241
1026.21	0.000496546
1035.54	0.000638695
1044.87	0.000813795
1054.2	0.00102755
1063.52	0.00128628
1072.85	0.00159696
1082.18	0.00196726
1091.51	0.00240561
1100.84	0.0029213
1110.17	0.00352457
1128.83	0.00504066
1138.16	0.00598051
1147.49	0.00706257
1156.82	0.00830538
1166.15	0.00973022
1175.47	0.0113616
1184.8	0.0132279
1194.13	0.0153619
1203.46	0.0178011
1212.79	0.0205889
1222.12	0.0237747
1231.45	0.0274145
1240.78	0.0315715
1250.11	0.0363161
1268.77	0.0478873
1278.09	0.0548918
1287.42	0.0628389
1296.75	0.0718335
1306.08	0.0819853
1315.41	0.0934074
1324.74	0.106215
1334.07	0.120521
1343.4	0.13644
1352.73	0.154079
1362.06	0.173538
1371.39	0.194908
1380.72	0.218267
1390.04	0.24368
1408.7	0.300827
1418.03	0.332593
1427.36	0.366466
1436.69	0.402403
1446.02	0.440332
1455.35	0.480153
1464.68	0.521739
1474.01	0.564937
1483.34	0.609564
1492.67	0.655414
1501.99	0.702256
1511.32	0.749839
1520.65	0.797888
1539.31	0.894214
1548.64	0.941872
1557.97	0.988763
1567.3	1.03456
1576.63	1.07894
1585.96	1.12156
1595.29	1.16211
1604.62	1.20028
1613.94	1.23576
1623.27	1.26826
1632.6	1.29751
1641.93	1.32327
1651.26	1.3453
1660.59	1.36339
1679.25	1.38704
1688.58	1.39233
1697.91	1.3931
1707.24	1.38928
1716.57	1.38084
1725.89	1.36775
1735.22	1.35002
1744.55	1.3277
1753.88	1.30084
1763.21	1.26955
1772.54	1.23395
1781.87	1.19417
1791.2	1.1504
1800.53	1.10281
1819.19	0.997065
1828.52	0.939391
1837.84	0.878864
1847.17	0.815764
1856.5	0.750382
1865.83	0.683019
1875.16	0.613987
1884.49	0.543601
1893.82	0.47218
1903.15	0.400047
1912.48	0.327524
1921.81	0.254929
1931.14	0.182577
1940.47	0.110774
1959.12	-0.0299847
1968.45	-0.0983751
1977.78	-0.165083
1987.11	-0.229861
1996.44	-0.292476
2005.77	-0.352713
2015.1	-0.410378
2024.43	-0.465293
2033.76	-0.517303
2043.09	-0.566273
2052.42	-0.612088
2061.74	-0.654656
2071.07	-0.693904
2080.4	-0.729782
2099.06	-0.791322
2108.39	-0.816983
2117.72	-0.839266
2127.05	-0.858217
2136.38	-0.873896
2145.71	-0.886378
2155.04	-0.895754
2164.37	-0.902124
2173.69	-0.905602
2183.02	-0.906312
2192.35	-0.904386
2201.68	-0.899962
2211.01	-0.893185
2220.34	-0.884206
2239	-0.860252
2248.33	-0.845588
2257.66	-0.829341
2266.99	-0.811664
2276.32	-0.792712
2285.64	-0.772633
2294.97	-0.751574
2304.3	-0.729677
2313.63	-0.707078
2322.96	-0.68391
2332.29	-0.660299
2341.62	-0.636364
2350.95	-0.612219
2360.28	-0.587972
2378.94	-0.539563
2388.27	-0.515584
2397.59	-0.491863
2406.92	-0.468475
2416.25	-0.445487
2425.58	-0.42296
2434.91	-0.40095
2444.24	-0.379505
2453.57	-0.358669
2462.9	-0.338479
2472.23	-0.318967
2481.56	-0.300162
2490.89	-0.282087
2500.22	-0.264758
2518.87	-0.232397
2528.2	-0.21738
2537.53	-0.203145
2546.86	-0.18969
2556.19	-0.177014
2565.52	-0.165109
2574.85	-0.153968
2584.18	-0.143579
2593.51	-0.13393
2602.84	-0.125006
2612.16	-0.116791
2621.49	-0.109265
2630.82	-0.10241
2640.15	-0.0962057
2658.81	-0.085658
2668.14	-0.0812688
2677.47	-0.0774374
2686.8	-0.0741392
2696.13	-0.0713491
2705.46	-0.0690417
2714.79	-0.0671917
2724.11	-0.0657733
2733.44	-0.0647612
2742.77	-0.0641299
2752.1	-0.0638543
2761.43	-0.0639094
2770.76	-0.0642707
2780.09	-0.0649142
2798.75	-0.0669539
2808.08	-0.0683046
2817.41	-0.0698467
2826.74	-0.0715592
2836.06	-0.0734216
2845.39	-0.0754145
2854.72	-0.077519
2864.05	-0.0797173
2873.38	-0.0819922
2882.71	-0.0843275
2892.04	-0.0867078
2901.37	-0.0891185
2910.7	-0.0915459
2920.03	-0.0939772
2938.69	-0.0988043
2948.01	-0.101179
2957.34	-0.103514
2966.67	-0.105801
2976	-0.108032
2985.33	-0.1102
2994.66	-0.112298
3003.99	-0.11432
3013.32	-0.116261
3022.65	-0.118116
3031.98	-0.11988
3041.31	-0.121551
3050.63	-0.123126
3069.29	-0.125974
3078.62	-0.127243
3087.95	-0.128408
3097.28	-0.129466
3106.61	-0.130417
3115.94	-0.131261
3125.27	-0.131997
3134.6	-0.132626
3143.93	-0.133146
3153.26	-0.13356
3162.58	-0.133866
3171.91	-0.134067
3181.24	-0.134162
3190.57	-0.134153
3209.23	-0.133826
3218.56	-0.133511
3227.89	-0.133097
3237.22	-0.132585
3246.55	-0.131977
3255.87	-0.131275
3265.2	-0.130481
3274.53	-0.129596
3283.86	-0.128622
3293.19	-0.127563
3302.52	-0.126419
3311.85	-0.125194
3321.18	-0.123889
3330.51	-0.122509
3349.17	-0.119529
3358.49	-0.117935
3367.82	-0.116277
3377.15	-0.114556
3386.48	-0.112778
3395.81	-0.110944
3405.14	-0.109058
3414.47	-0.107124
3423.8	-0.105146
3433.13	-0.103126
3442.46	-0.10107
3451.78	-0.0989795
3461.11	-0.0968598
3470.44	-0.0947144
3489.1	-0.0903615
3498.43	-0.0881617
3507.76	-0.0859514
3517.09	-0.0837343
3526.42	-0.0815142
3535.74	-0.0792946
3545.07	-0.0770791
3554.4	-0.0748711
3563.73	-0.0726738
3573.06	-0.0704905
3582.39	-0.0683241
3591.72	-0.0661777
3601.05	-0.0640538
3610.38	-0.0619552
3629.03	-0.0578426
3638.36	-0.0558329
3647.69	-0.0538566
3657.02	-0.0519155
3666.35	-0.0500109
3675.68	-0.0481438
3685.01	-0.0463154
3694.34	-0.0445263
3703.66	-0.0427771
3712.99	-0.041068
3722.32	-0.0393992
3731.65	-0.0377707
3740.98	-0.036182
3750.31	-0.0346329
3768.97	-0.0316501
3778.3	-0.0302146
3787.62	-0.028815
3796.95	-0.0274498
3806.28	-0.0261178
3815.61	-0.0248173
3824.94	-0.0235466
3834.27	-0.022304
3843.6	-0.0210876
3852.93	-0.0198954
3862.25	-0.0187256
3871.58	-0.017576
3880.91	-0.0164447
3890.24	-0.0153294
3908.9	-0.0131386
3918.23	-0.012059
3927.56	-0.0109872
3936.88	-0.00992118
3946.21	-0.00885894
3955.54	-0.00779864
3964.87	-0.00673845
3974.2	-0.00567665
3983.53	-0.0046116
3992.86	-0.00354176
4002.19	-0.0024657
4011.51	-0.00138209
4020.84	-0.000289748
4030.17	0.000812419
4048.83	0.0030499
4058.16	0.00418673
4067.49	0.00533641
4076.82	0.00649938
4086.14	0.00767594
4095.47	0.00886627
4104.8	0.0100704
4114.13	0.0112883
4123.46	0.0125198
4132.79	0.0137645
4142.12	0.015022
4151.45	0.0162919
4160.78	0.0175736
4170.1	0.0188663
4188.76	0.0214817
4198.09	0.0228027
4207.42	0.0241312
4216.75	0.0254663
4226.08	0.0268069
4235.41	0.0281519
4244.74	0.0295002
4254.06	0.0308507
4263.39	0.0322022
4272.72	0.0335536
4282.05	0.0349037
4291.38	0.0362513
4300.71	0.0375955
4310.04	0.0389349
4328.7	0.0415956
4338.02	0.0429147
4347.35	0.0442249
4356.68	0.0455253
4366.01	0.0468149
4375.34	0.0480929
4384.67	0.0493584
4394	0.0506105
4403.33	0.0518485
4412.66	0.0530715
4421.99	0.054279
4431.32	0.05547
4440.64	0.0566441
4459.3	0.0589387
4468.63	0.060058
4477.96	0.0611578
4487.29	0.0622376
4496.62	0.0632968
4505.95	0.0643347
4515.28	0.065351
4524.61	0.066345
4533.94	0.0673161
4543.26	0.0682638
4552.59	0.0691875
4561.92	0.0700867
4571.25	0.0709607
4580.58	0.0718089
4599.24	0.0734255
4608.57	0.0741926
4617.9	0.0749313
4627.23	0.0756409
4636.56	0.0763208
4645.89	0.0769703
4655.21	0.0775885
4664.54	0.0781748
4673.87	0.0787284
4683.2	0.0792485
4692.53	0.0797345
4701.86	0.0801855
4711.19	0.0806008
4720.52	0.0809797
4739.18	0.0816252
4748.51	0.0818904
4757.84	0.0821163
4767.16	0.0823023
4776.49	0.0824478
4785.82	0.0825522
4795.15	0.0826149
4804.48	0.0826355
4813.81	0.0826134
4823.14	0.0825484
4832.47	0.08244
4841.8	0.082288
4851.13	0.0820921
4860.46	0.0818523
4879.11	0.0812402
4888.44	0.080868
4897.77	0.0804519
4907.1	0.079992
4916.43	0.0794887
4925.76	0.0789422
4935.09	0.078353
4944.42	0.0777216
4953.75	0.0770487
4963.08	0.0763348
4972.4	0.0755806
4981.73	0.0747871
4991.06	0.0739551
5000.39	0.0730855
5019.05	0.071238
5028.38	0.0702623
5037.71	0.0692535
5047.04	0.0682131
5056.37	0.0671422
5065.7	0.0660424
5075.03	0.0649151
5084.35	0.0637617
5093.68	0.0625839
5103.01	0.0613833
5112.34	0.0601613
5121.67	0.0589198
5131	0.0576604
5140.33	0.0563848
5158.99	0.0537919
5168.32	0.0524781
5177.65	0.0511552
5186.97	0.0498249
5196.3	0.048489
5205.63	0.0471493
5214.96	0.0458075
5224.29	0.0444654
5233.62	0.0431248
5242.95	0.0417873
5252.28	0.0404548
5261.61	0.0391289
5270.94	0.0378112
5280.27	0.0365035
5298.92	0.0339241
5308.25	0.0326557
5317.58	0.0314033
5326.91	0.0301686
5336.24	0.0289529
5345.57	0.0277577
5354.9	0.0265842
5364.23	0.0254337
5373.56	0.0243075
5382.89	0.0232068
5392.22	0.0221327
5401.54	0.0210863
5410.87	0.0200687
5420.2	0.0190808
5438.86	0.0171981
5448.19	0.0163049
5457.52	0.015445
5466.85	0.014619
5476.18	0.0138276
5485.51	0.0130714
5494.84	0.0123511
5504.17	0.0116671
5513.49	0.01102
5522.82	0.0104101
5532.15	0.00983776
5541.48	0.0093034
5550.81	0.00880723
5560.14	0.00834949
5578.8	0.00754991
5588.13	0.00720825
5597.46	0.0069054
5606.79	0.00664133
5616.11	0.00641596
5625.44	0.00622917
5634.77	0.00608079
5644.1	0.0059706
5653.43	0.00589834
5662.76	0.00586369
5672.09	0.0058663
5681.42	0.00590575
5690.75	0.0059816
5700.08	0.00609335
5718.74	0.00642231
5728.06	0.00663829
5737.39	0.00688771
5746.72	0.00716985
5756.05	0.00748392
5765.38	0.00782912
5774.71	0.00820459
5784.04	0.00860942
5793.37	0.00904267
5802.7	0.00950335
5812.03	0.00999044
5821.36	0.0105029
5830.69	0.0110395
5840.01	0.0115992
5858.67	0.0127832
5868	0.0134049
5877.33	0.0140448
5886.66	0.0147016
5895.99	0.0153738
5905.32	0.0160602
5914.65	0.0167593
5923.98	0.0174697
5933.31	0.0181899
5942.64	0.0189186
5951.96	0.0196543
5961.29	0.0203954
5970.62	0.0211405
5989.28	0.0226364
5998.61	0.0233843
6007.94	0.0241301
6017.27	0.0248723
6026.6	0.0256095
6035.93	0.02634
6045.26	0.0270624
6054.58	0.0277753
6063.91	0.0284771
6073.24	0.0291666
6082.57	0.0298421
6091.9	0.0305025
6101.23	0.0311462
6110.56	0.031772
6129.22	0.0329647
6138.55	0.0335291
6147.88	0.0340707
6157.21	0.0345882
6166.53	0.0350807
6175.86	0.035547
6185.19	0.0359862
6194.52	0.0363972
6203.85	0.0367793
6213.18	0.0371316
6222.51	0.0374533
6231.84	0.0377436
6241.17	0.0380019
6250.5	0.0382276
6269.16	0.0385787
6278.48	0.0387032
6287.81	0.0387932
6297.14	0.0388482
6306.47	0.0388681
6315.8	0.0388525
6325.13	0.0388014
6334.46	0.0387145
6343.79	0.0385919
6353.12	0.0384334
6362.45	0.0382393
6371.78	0.0380094
6381.11	0.0377441
6390.43	0.0374434
6409.09	0.0367371
6418.42	0.0363319
6427.75	0.0358927
6437.08	0.0354196
6446.41	0.0349132
6455.74	0.034374
6465.07	0.0338023
6474.4	0.0331988
6483.73	0.032564
6493.06	0.0318984
6502.38	0.0312026
6511.71	0.0304774
6521.04	0.0297232
6530.37	0.0289408
6549.03	0.0272938
6558.36	0.0264307
6567.69	0.025542
6577.02	0.0246284
6586.35	0.0236907
6595.68	0.0227296
6605.01	0.0217457
6614.33	0.0207398
6623.66	0.0197125
6632.99	0.0186646
6642.32	0.0175967
6651.65	0.0165096
6660.98	0.0154038
6670.31	0.0142801
6688.97	0.0119813
6698.3	0.0108076
6707.63	0.00961838
6716.96	0.00841436
6726.28	0.00719611
6735.61	0.00596418
6744.94	0.00471914
6754.27	0.00346153
6763.6	0.00219187
6772.93	0.000910687
6782.26	-0.000381529
6791.59	-0.00168429
6800.92	-0.00299712
6810.25	-0.00431957
6828.91	-0.00699152
6838.23	-0.00834017
6847.56	-0.00969672
6856.89	-0.0110608
6866.22	-0.0124319
6875.55	-0.0138097
6884.88	-0.0151939
6894.21	-0.016584
6903.54	-0.0179797
6912.87	-0.0193807
6922.2	-0.0207865
6931.53	-0.0221968
6940.86	-0.0236112
6950.18	-0.0250294
6968.84	-0.0278758
6978.17	-0.0293032
6987.5	-0.0307329
6996.83	-0.0321646
7006.16	-0.0335979
7015.49	-0.0350323
7024.82	-0.0364676
7034.15	-0.0379032
7043.48	-0.0393388
7052.81	-0.040774
7062.13	-0.0422083
7071.46	-0.0436413
7080.79	-0.0450725
7090.12	-0.0465015
7108.78	-0.049351
7118.11	-0.0507705
7127.44	-0.0521857
7136.77	-0.0535963
7146.1	-0.0550016
7155.43	-0.0564012
7164.76	-0.0577944
7174.08	-0.0591807
7183.41	-0.0605595
7192.74	-0.0619302
7202.07	-0.0632923
7211.4	-0.0646451
7220.73	-0.065988
7230.06	-0.0673204
7248.72	-0.0699512
7258.05	-0.0712482
7267.38	-0.0725322
7276.71	-0.0738025
7286.03	-0.0750584
7295.36	-0.0762993
7304.69	-0.0775244
7314.02	-0.0787333
7323.35	-0.0799251
7332.68	-0.0810993
7342.01	-0.0822551
7351.34	-0.083392
7360.67	-0.0845094
7379.33	-0.0866826
7388.65	-0.0877374
7397.98	-0.08877
7407.31	-0.0897799
7416.64	-0.0907666
7425.97	-0.0917294
7435.3	-0.0926677
7444.63	-0.0935811
7453.96	-0.094469
7463.29	-0.0953309
7472.62	-0.0961662
7481.95	-0.0969745
7491.28	-0.0977554
7500.6	-0.0985083
7519.26	-0.0999286
7528.59	-0.100595
7537.92	-0.101232
7547.25	-0.10184
7556.58	-0.102417
7565.91	-0.102964
7575.24	-0.10348
7584.57	-0.103965
7593.9	-0.104418
7603.22	-0.104841
7612.55	-0.105231
7621.88	-0.10559
7631.21	-0.105917
7640.54	-0.106212
7659.2	-0.106706
7668.53	-0.106905
7677.86	-0.107072
7687.19	-0.107206
7696.52	-0.107309
7705.84	-0.107379
7715.17	-0.107417
7724.5	-0.107423
7733.83	-0.107398
7743.16	-0.107341
7752.49	-0.107253
7761.82	-0.107133
7771.15	-0.106983
7780.48	-0.106801
7799.14	-0.106347
7808.46	-0.106075
7817.79	-0.105774
7827.12	-0.105443
7836.45	-0.105083
7845.78	-0.104694
7855.11	-0.104277
7864.44	-0.103832
7873.77	-0.10336
7883.1	-0.102861
7892.43	-0.102335
7901.76	-0.101783
7911.08	-0.101205
7920.41	-0.100602
7939.07	-0.0993227
7948.4	-0.098647
7957.73	-0.097948
7967.06	-0.0972262
7976.39	-0.0964821
7985.72	-0.0957163
7995.05	-0.0949293
8004.38	-0.0941217
8013.7	-0.0932939
8023.03	-0.0924465
8032.36	-0.09158
8041.69	-0.090695
8051.02	-0.0897921
8060.35	-0.0888717
8079.01	-0.0869807
8088.34	-0.0860113
8097.67	-0.0850265
8107	-0.084027
8116.32	-0.0830133
8125.65	-0.0819859
8134.98	-0.0809454
8144.31	-0.0798921
8153.64	-0.0788267
8162.97	-0.0777497
8172.3	-0.0766615
8181.63	-0.0755626
8190.96	-0.0744536
8200.29	-0.0733348
8218.94	-0.0710699
8228.27	-0.0699246
8237.6	-0.0687714
8246.93	-0.0676107
8256.26	-0.0664429
8265.59	-0.0652684
8274.92	-0.0640875
8284.25	-0.0629008
8293.58	-0.0617084
8302.91	-0.0605109
8312.24	-0.0593084
8321.56	-0.0581015
8330.89	-0.0568904
8340.22	-0.0556754
8358.88	-0.0532349
8368.21	-0.0520101
8377.54	-0.0507825
8386.87	-0.0495526
8396.2	-0.0483204
8405.53	-0.0470863
8414.86	-0.0458506
8424.19	-0.0446135
8433.51	-0.0433751
8442.84	-0.0421358
8452.17	-0.0408957
8461.5	-0.0396551
8470.83	-0.0384142
8480.16	-0.0371732
8498.82	-0.0346917
8508.15	-0.0334517
8517.48	-0.0322123
8526.81	-0.0309739
8536.13	-0.0297366
8545.46	-0.0285006
8554.79	-0.0272662
8564.12	-0.0260335
8573.45	-0.0248027
8582.78	-0.0235741
8592.11	-0.0223479
8601.44	-0.0211243
8610.77	-0.0199035
8620.1	-0.0186858
8638.76	-0.0162604
8648.08	-0.0150533
8657.41	-0.0138502
8666.74	-0.0126514
8676.07	-0.0114571
8685.4	-0.0102677
8694.73	-0.00908334
8704.06	-0.00790441
8713.39	-0.00673117
8722.72	-0.00556392
8732.05	-0.00440297
8741.38	-0.00324863
8750.7	-0.00210122
8760.03	-0.000961077
8778.69	0.00129608
8788.02	0.00241242
8797.35	0.00352012
8806.68	0.00461884
8816.01	0.00570822
8825.34	0.00678789
8834.67	0.0078575
8844	0.00891666
8853.33	0.00996501
8862.65	0.0110022
8871.98	0.0120278
8881.31	0.0130415
8890.64	0.0140429
8909.3	0.0160073
8918.63	0.0169696
8927.96	0.0179181
8937.29	0.0188524
8946.62	0.0197723
8955.95	0.0206774
8965.28	0.0215672
8974.6	0.0224416
8983.93	0.0233
8993.26	0.0241423
9002.59	0.0249681
9011.92	0.0257771
9021.25	0.026569
9030.58	0.0273435
9049.24	0.0288392
9058.57	0.02956
9067.9	0.0302622
9077.23	0.0309459
9086.55	0.0316106
9095.88	0.0322563
9105.21	0.0328827
9114.54	0.0334897
9123.87	0.034077
9133.2	0.0346446
9142.53	0.0351923
9151.86	0.03572
9161.19	0.0362276
9170.52	0.036715
9189.17	0.0376288
9198.5	0.0380552
9207.83	0.0384612
9217.16	0.0388468
9226.49	0.039212
9235.82	0.0395568
9245.15	0.0398812
9254.48	0.0401854
9263.81	0.0404693
9273.14	0.040733
9282.47	0.0409766
9291.8	0.0412004
9301.12	0.0414042
9310.45	0.0415884
9329.11	0.0418983
9338.44	0.0420244
9347.77	0.0421315
9357.1	0.0422198
9366.43	0.0422895
9375.76	0.0423409
9385.09	0.0423742
9394.42	0.0423897
9403.75	0.0423876
9413.07	0.0423683
9422.4	0.0423319
9431.73	0.0422789
9441.06	0.0422095
9450.39	0.0421241
9469.05	0.0419066
9478.38	0.0417751
9487.71	0.0416291
9497.04	0.0414687
9506.37	0.0412946
9515.7	0.0411069
9525.02	0.0409062
9534.35	0.0406928
9543.68	0.0404672
9553.01	0.0402297
9562.34	0.0399809
9571.67	0.0397211
9581	0.0394508
9590.33	0.0391704
9608.99	0.0385812
9618.32	0.0382734
9627.65	0.0379573
9636.97	0.0376335
9646.3	0.0373024
9655.63	0.0369645
9664.96	0.0366202
9674.29	0.0362701
9683.62	0.0359147
9692.95	0.0355543
9702.28	0.0351895
9711.61	0.0348209
9720.94	0.0344487
9730.27	0.0340736
9748.92	0.0333164
9758.25	0.0329353
9767.58	0.032553
9776.91	0.0321702
9786.24	0.0317872
9795.57	0.0314046
9804.9	0.0310227
9814.23	0.0306419
9823.56	0.0302629
9832.89	0.0298859
9842.22	0.0295113
9851.54	0.0291397
9860.87	0.0287714
9870.2	0.0284068
9888.86	0.0276902
9898.19	0.0273389
9907.52	0.0269928
9916.85	0.0266522
9926.18	0.0263175
9935.51	0.0259888
9944.84	0.0256667
9954.17	0.0253513
9963.49	0.0250428
9972.82	0.0247417
9982.15	0.024448
9991.48	0.024162
10000.8	0.023884
10010.1	0.0236141
10028.8	0.0230994
10038.1	0.0228549
10047.5	0.0226192
10056.8	0.0223922
10066.1	0.0221743
10075.4	0.0219653
10084.8	0.0217654
10094.1	0.0215746
10103.4	0.021393
10112.8	0.0212205
10122.1	0.0210571
10131.4	0.0209029
10140.7	0.0207577
10150.1	0.0206214
10168.7	0.0203757
10178.1	0.0202659
10187.4	0.0201647
10196.7	0.020072
10206.1	0.0199875
10215.4	0.0199111
10224.7	0.0198427
10234	0.0197819
10243.4	0.0197287
10252.7	0.0196827
10262	0.0196438
10271.4	0.0196116
10280.7	0.019586
10290	0.0195666
10308.7	0.0195453
10318	0.0195429
10327.3	0.0195455
10336.7	0.0195528
10346	0.0195645
10355.3	0.0195802
10364.6	0.0195997
10374	0.0196225
10383.3	0.0196483
10392.6	0.0196768
10402	0.0197076
10411.3	0.0197403
10420.6	0.0197746
10439.3	0.0198463
10448.6	0.0198831
10457.9	0.0199199
10467.3	0.0199565
10476.6	0.0199924
10485.9	0.0200273
10495.3	0.0200608
10504.6	0.0200926
10513.9	0.0201224
10523.2	0.0201497
10532.6	0.0201741
10541.9	0.0201955
10551.2	0.0202134
10560.6	0.0202275
10579.2	0.0202431
10588.5	0.0202439
10597.9	0.0202397
10607.2	0.0202301
10616.5	0.0202149
10625.9	0.0201938
10635.2	0.0201665
10644.5	0.0201328
10653.9	0.0200924
10663.2	0.0200451
10672.5	0.0199906
10681.8	0.0199288
10691.2	0.0198593
10700.5	0.0197822
10719.2	0.0196037
10728.5	0.0195021
10737.8	0.0193921
10747.1	0.0192735
10756.5	0.0191461
10765.8	0.0190099
10775.1	0.0188648
10784.5	0.0187106
10793.8	0.0185473
10803.1	0.0183747
10812.4	0.018193
10821.8	0.0180019
10831.1	0.0178014
10840.4	0.0175916
10859.1	0.0171439
10868.4	0.016906
10877.8	0.0166587
10887.1	0.0164021
10896.4	0.0161362
10905.7	0.0158611
10915.1	0.0155769
10924.4	0.0152835
10933.7	0.0149812
10943.1	0.0146699
10952.4	0.0143499
10961.7	0.0140212
10971	0.0136839
10980.4	0.0133382
10999	0.012622
11008.4	0.0122519
11017.7	0.0118739
11027	0.0114883
11036.3	0.0110953
11045.7	0.010695
11055	0.0102875
11064.3	0.00987325
11073.7	0.00945228
11083	0.00902484
11092.3	0.00859115
11101.7	0.00815143
11111	0.0077059
11120.3	0.0072548
11139	0.00633677
11148.3	0.00587033
11157.6	0.00539925
11167	0.00492378
11176.3	0.00444416
11185.6	0.00396063
11194.9	0.00347345
11204.3	0.00298285
11213.6	0.00248908
11222.9	0.0019924
11232.3	0.00149303
11241.6	0.000991241
11250.9	0.000487262
11260.2	-1.86626e-05
11278.9	-0.00103538
11288.2	-0.00154571
11297.6	-0.00205703
11306.9	-0.00256911
11316.2	-0.00308173
11325.6	-0.00359466
11334.9	-0.00410767
11344.2	-0.00462056
11353.5	-0.00513311
11362.9	-0.00564509
11372.2	-0.00615632
11381.5	-0.00666658
11390.9	-0.00717567
11400.2	-0.0076834
11418.8	-0.00869403
11428.2	-0.00919655
11437.5	-0.00969697
11446.8	-0.0101951
11456.2	-0.0106908
11465.5	-0.0111839
11474.8	-0.0116742
11484.1	-0.0121616
11493.5	-0.012646
11502.8	-0.013127
11512.1	-0.0136047
11521.5	-0.0140789
11530.8	-0.0145495
11540.1	-0.0150162
11558.8	-0.0159378
11568.1	-0.0163924
11577.4	-0.0168427
11586.8	-0.0172885
11596.1	-0.0177299
11605.4	-0.0181666
11614.8	-0.0185986
11624.1	-0.0190257
11633.4	-0.0194479
11642.7	-0.019865
11652.1	-0.0202769
11661.4	-0.0206836
11670.7	-0.021085
11680.1	-0.0214809
11698.7	-0.0222562
11708	-0.0226354
11717.4	-0.0230087
11726.7	-0.0233763
11736	-0.0237379
11745.4	-0.0240936
11754.7	-0.0244432
11764	-0.0247867
11773.4	-0.025124
11782.7	-0.0254551
11792	-0.0257799
11801.3	-0.0260984
11810.7	-0.0264105
11829.3	-0.0270153
11838.7	-0.0273079
11848	-0.027594
11857.3	-0.0278735
11866.6	-0.0281464
11876	-0.0284127
11885.3	-0.0286724
11894.6	-0.0289254
11904	-0.0291717
11913.3	-0.0294114
11922.6	-0.0296444
11931.9	-0.0298708
11941.3	-0.0300906
11950.6	-0.0303038
11969.3	-0.0307104
11978.6	-0.0309039
11987.9	-0.031091
11997.2	-0.0312717
12006.6	-0.031446
12015.9	-0.0316141
12025.2	-0.0317759
12034.6	-0.0319317
12043.9	-0.0320813
12053.2	-0.0322251
12062.6	-0.0323629
12071.9	-0.0324951
12081.2	-0.0326216
12090.5	-0.0327425
12109.2	-0.0329685
12118.5	-0.0330737
12127.9	-0.0331739
12137.2	-0.0332692
12146.5	-0.0333599
12155.8	-0.0334461
12165.2	-0.0335279
12174.5	-0.0336055
12183.8	-0.0336791
12193.2	-0.0337489
12202.5	-0.0338149
12211.8	-0.0338775
12221.1	-0.0339368
12230.5	-0.033993
12249.1	-0.0340969
12258.5	-0.0341449
12267.8	-0.0341906
12277.1	-0.0342342
12286.5	-0.0342758
12295.8	-0.0343157
12305.1	-0.034354
12314.4	-0.034391
12323.8	-0.0344269
12333.1	-0.0344617
12342.4	-0.0344958
12351.8	-0.0345293
12361.1	-0.0345624
12370.4	-0.0345952
12389.1	-0.0346609
12398.4	-0.0346941
12407.7	-0.0347277
12417.1	-0.0347619
12426.4	-0.0347969
12435.7	-0.0348327
12445	-0.0348695
12454.4	-0.0349075
12463.7	-0.0349468
12473	-0.0349874
12482.4	-0.0350295
12491.7	-0.0350731
12501	-0.0351185
12510.4	-0.0351655
12529	-0.0352652
12538.3	-0.0353179
12547.7	-0.0353725
12557	-0.0354292
12566.3	-0.0354879
12575.7	-0.0355487
12585	-0.0356116
12594.3	-0.0356765
12603.6	-0.0357434
12613	-0.0358125
12622.3	-0.0358835
12631.6	-0.0359565
12641	-0.0360314
12650.3	-0.0361083
12668.9	-0.0362674
12678.3	-0.0363495
12687.6	-0.0364332
12696.9	-0.0365185
12706.3	-0.0366052
12715.6	-0.0366932
12724.9	-0.0367824
12734.3	-0.0368727
12743.6	-0.0369641
12752.9	-0.0370563
12762.2	-0.0371492
12771.6	-0.0372428
12780.9	-0.0373369
12790.2	-0.0374313
12808.9	-0.0376205
12818.2	-0.0377151
12827.5	-0.0378094
12836.9	-0.0379034
12846.2	-0.0379968
12855.5	-0.0380895
12864.9	-0.0381815
12874.2	-0.0382724
12883.5	-0.0383622
12892.8	-0.0384507
12902.2	-0.0385377
12911.5	-0.0386232
12920.8	-0.0387069
12930.2	-0.0387888
12948.8	-0.0389464
12958.2	-0.0390218
12967.5	-0.0390947
12976.8	-0.0391651
12986.1	-0.0392329
12995.5	-0.0392977
13004.8	-0.0393597
13014.1	-0.0394186
13023.5	-0.0394743
13032.8	-0.0395268
13042.1	-0.0395758
13051.4	-0.0396214
13060.8	-0.0396634
13070.1	-0.0397017
13088.8	-0.0397669
13098.1	-0.0397936
13107.4	-0.0398164
13116.7	-0.039835
13126.1	-0.0398494
13135.4	-0.0398597
13144.7	-0.0398656
13154.1	-0.0398673
13163.4	-0.0398645
13172.7	-0.0398572
13182.1	-0.0398455
13191.4	-0.0398292
13200.7	-0.0398083
13210	-0.0397829
13228.7	-0.0397179
13238	-0.0396784
13247.4	-0.0396341
13256.7	-0.039585
13266	-0.0395312
13275.3	-0.0394725
13284.7	-0.0394091
13294	-0.0393407
13303.3	-0.0392675
13312.7	-0.0391894
13322	-0.0391064
13331.3	-0.0390185
13340.6	-0.0389257
13359.3	-0.0387252
13368.6	-0.0386176
13378	-0.038505
13387.3	-0.0383874
13396.6	-0.0382648
13406	-0.0381372
13415.3	-0.0380046
13424.6	-0.037867
13433.9	-0.0377244
13443.3	-0.0375767
13452.6	-0.037424
13461.9	-0.0372662
13471.3	-0.0371034
13480.6	-0.0369355
13499.2	-0.0365844
13508.6	-0.0364012
13517.9	-0.0362129
13527.2	-0.0360194
13536.6	-0.0358208
13545.9	-0.0356171
13555.2	-0.0354081
13564.5	-0.035194
13573.9	-0.0349747
13583.2	-0.0347503
13592.5	-0.0345206
13601.9	-0.0342857
13611.2	-0.0340455
13620.5	-0.0338002
13639.2	-0.0332938
13648.5	-0.0330327
13657.8	-0.0327664
13667.2	-0.0324949
13676.5	-0.0322181
13685.8	-0.0319361
13695.2	-0.0316488
13704.5	-0.0313564
13713.8	-0.0310587
13723.1	-0.0307559
13732.5	-0.0304479
13741.8	-0.0301347
13751.1	-0.0298164
13760.5	-0.029493
13779.1	-0.0288309
13788.4	-0.0284924
13797.8	-0.0281489
13807.1	-0.0278005
13816.4	-0.0274471
13825.8	-0.027089
13835.1	-0.0267261
13844.4	-0.0263585
13853.8	-0.0259862
13863.1	-0.0256094
13872.4	-0.025228
13881.7	-0.0248422
13891.1	-0.0244521
13900.4	-0.0240577
13919.1	-0.0232565
13928.4	-0.0228498
13937.7	-0.0224393
13947	-0.022025
13956.4	-0.021607
13965.7	-0.0211854
13975	-0.0207605
13984.4	-0.0203322
13993.7	-0.0199007
14003	-0.0194662
14012.3	-0.0190287
14021.7	-0.0185885
14031	-0.0181456
14040.3	-0.0177003
14059	-0.0168026
14068.3	-0.0163507
14077.7	-0.0158968
14087	-0.0154413
14096.3	-0.0149841
14105.6	-0.0145256
14115	-0.0140658
14124.3	-0.0136049
14133.6	-0.0131432
14143	-0.0126807
14152.3	-0.0122177
14161.6	-0.0117543
14170.9	-0.0112907
14180.3	-0.010827
14198.9	-0.00990034
14208.3	-0.00943767
14217.6	-0.00897567
14226.9	-0.00851453
14236.2	-0.00805441
14245.6	-0.0075955
14254.9	-0.00713797
14264.2	-0.00668198
14273.6	-0.00622772
14282.9	-0.00577535
14292.2	-0.00532504
14301.6	-0.00487696
14310.9	-0.00443127
14320.2	-0.00398813
14338.9	-0.00311015
14348.2	-0.00267562
14357.5	-0.00224427
14366.9	-0.00181623
14376.2	-0.00139167
14385.5	-0.000970709
14394.8	-0.000553496
14404.2	-0.000140164
14413.5	0.00026916
14422.8	0.000674348
14432.2	0.00107528
14441.5	0.00147183
14450.8	0.0018639
14460.1	0.00225137
14478.8	0.00301211
14488.1	0.00338518
14497.5	0.00375326
14506.8	0.00411627
14516.1	0.00447412
14525.4	0.00482674
14534.8	0.00517406
14544.1	0.00551601
14553.4	0.00585252
14562.8	0.00618355
14572.1	0.00650903
14581.4	0.00682893
14590.8	0.00714319
14600.1	0.00745179
14618.7	0.00805184
14628.1	0.00834324
14637.4	0.00862887
14646.7	0.00890871
14656.1	0.00918274
14665.4	0.00945097
14674.7	0.00971339
14684	0.00997
14693.4	0.0102208
14702.7	0.0104658
14712	0.0107051
14721.4	0.0109386
14730.7	0.0111663
14740	0.0113883
14758.7	0.0118154
14768	0.0120205
14777.3	0.01222
14786.7	0.0124139
14796	0.0126024
14805.3	0.0127854
14814.7	0.012963
14824	0.0131353
14833.3	0.0133022
14842.6	0.0134639
14852	0.0136204
14861.3	0.0137718
14870.6	0.0139182
14889.3	0.0141958
14898.6	0.0143273
14907.9	0.0144539
14917.3	0.0145759
14926.6	0.0146931
14935.9	0.0148057
14945.3	0.0149137
14954.6	0.0150172
14963.9	0.0151164
14973.2	0.0152112
14982.6	0.0153017
14991.9	0.0153879
15001.2	0.0154701
15010.6	0.0155481
15029.2	0.0156923
15038.6	0.0157585
15047.9	0.0158209
15057.2	0.0158795
15066.5	0.0159344
15075.9	0.0159857
15085.2	0.0160335
15094.5	0.0160777
15103.9	0.0161185
15113.2	0.0161559
15122.5	0.0161899
15131.8	0.0162207
15141.2	0.0162482
15150.5	0.0162726
15169.2	0.016312
15178.5	0.0163271
15187.8	0.0163393
15197.1	0.0163485
15206.5	0.0163548
15215.8	0.0163583
15225.1	0.016359
15234.5	0.0163569
15243.8	0.0163521
15253.1	0.0163446
15262.5	0.0163344
15271.8	0.0163216
15281.1	0.0163063
15290.4	0.0162884
15309.1	0.016245
15318.4	0.0162196
15327.8	0.0161918
15337.1	0.0161616
15346.4	0.0161291
15355.7	0.0160941
15365.1	0.0160569
15374.4	0.0160174
15383.7	0.0159756
15393.1	0.0159316
15402.4	0.0158853
15411.7	0.0158369
15421	0.0157863
15430.4	0.0157336
15449	0.0156218
15458.4	0.0155628
15467.7	0.0155018
15477	0.0154387
15486.4	0.0153737
15495.7	0.0153067
15505	0.0152378
15514.3	0.015167
15523.7	0.0150943
15533	0.0150198
15542.3	0.0149434
15551.7	0.0148653
15561	0.0147854
15570.3	0.0147039
15589	0.0145358
15598.3	0.0144493
15607.6	0.0143612
15617	0.0142717
15626.3	0.0141806
15635.6	0.0140881
15644.9	0.0139942
15654.3	0.013899
15663.6	0.0138025
15672.9	0.0137047
15682.3	0.0136057
15691.6	0.0135055
15700.9	0.0134043
15710.3	0.013302
15728.9	0.0130944
15738.2	0.0129893
15747.6	0.0128834
15756.9	0.0127766
15766.2	0.0126692
15775.6	0.0125612
15784.9	0.0124525
15794.2	0.0123434
15803.5	0.0122337
15812.9	0.0121237
15822.2	0.0120134
15831.5	0.0119028
15840.9	0.0117921
15850.2	0.0116812
15868.8	0.0114593
15878.2	0.0113485
15887.5	0.0112378
15896.8	0.0111273
15906.2	0.0110172
15915.5	0.0109074
15924.8	0.010798
15934.2	0.0106891
15943.5	0.0105808
15952.8	0.0104732
15962.1	0.0103662
15971.5	0.01026
15980.8	0.0101547
15990.1	0.0100502
16008.8	0.00984432
16018.1	0.00974297
16027.4	0.00964278
16036.8	0.0095438
16046.1	0.00944611
16055.4	0.00934974
16064.8	0.00925476
16074.1	0.00916123
16083.4	0.0090692
16092.7	0.00897872
16102.1	0.00888984
16111.4	0.0088026
16120.7	0.00871706
16130.1	0.00863326
16148.7	0.00847104
16158.1	0.0083927
16167.4	0.00831626
16176.7	0.00824175
16186	0.0081692
16195.4	0.00809864
16204.7	0.0080301
16214	0.00796361
16223.4	0.00789919
16232.7	0.00783686
16242	0.00777664
16251.3	0.00771855
16260.7	0.00766259
16270	0.00760878
16288.7	0.00750766
16298	0.00746035
16307.3	0.00741521
16316.6	0.00737224
16326	0.00733144
16335.3	0.00729281
16344.6	0.00725633
16354	0.00722199
16363.3	0.00718978
16372.6	0.00715969
16382	0.0071317
16391.3	0.00710578
16400.6	0.00708192
16419.3	0.00704024
16428.6	0.00702236
16437.9	0.00700642
16447.3	0.00699238
16456.6	0.00698019
16465.9	0.00696981
16475.2	0.00696121
16484.6	0.00695432
16493.9	0.00694911
16503.2	0.00694552
16512.6	0.00694348
16521.9	0.00694295
16531.2	0.00694386
16540.5	0.00694613
16559.2	0.00695454
16568.5	0.00696051
16577.9	0.00696756
16587.2	0.00697561
16596.5	0.00698457
16605.9	0.00699436
16615.2	0.00700488
16624.5	0.00701603
16633.8	0.00702772
16643.2	0.00703984
16652.5	0.00705229
16661.8	0.00706495
16671.2	0.00707771
16680.5	0.00709046
16699.1	0.00711541
16708.5	0.00712736
16717.8	0.00713877
16727.1	0.00714952
16736.5	0.00715946
16745.8	0.00716844
16755.1	0.00717631
16764.4	0.00718292
16773.8	0.00718811
16783.1	0.00719172
16792.4	0.00719357
16801.8	0.00719351
16811.1	0.00719135
16820.4	0.00718691
16839.1	0.00717048
16848.4	0.00715811
16857.7	0.00714272
16867.1	0.0071241
16876.4	0.00710206
16885.7	0.0070764
16895.1	0.0070469
16904.4	0.00701336
16913.7	0.00697557
16923	0.00693331
16932.4	0.00688638
16941.7	0.00683454
16951	0.00677758
16960.4	0.00671529
16979	0.00657379
16988.3	0.00649415
16997.7	0.00640827
17007	0.00631594
17016.3	0.00621694
17025.7	0.00611103
17035	0.00599802
17044.3	0.00587766
17053.7	0.00574976
17063	0.00561409
17072.3	0.00547044
17081.6	0.00531862
17091	0.00515841
17100.3	0.00498961
17119	0.00462551
17128.3	0.00442982
17137.6	0.00422482
17146.9	0.00401032
17156.3	0.00378617
17165.6	0.00355221
17174.9	0.0033083
17184.3	0.00305431
17193.6	0.0027901
17202.9	0.00251556
17212.2	0.00223058
17221.6	0.00193508
17230.9	0.00162896
17240.2	0.00131216
17258.9	0.000646269
17268.2	0.000297108
17277.6	-6.28923e-05
17286.9	-0.000433738
17296.2	-0.000815417
17305.5	-0.00120791
17314.9	-0.00161116
17324.2	-0.00202513
17333.5	-0.00244973
17342.9	-0.00288488
17352.2	-0.00333047
17361.5	-0.00378638
17370.8	-0.00425247
17380.2	-0.00472857
17398.8	-0.00571012
17408.2	-0.00621516
17417.5	-0.0067294
17426.8	-0.0072526
17436.1	-0.0077845
17445.5	-0.00832481
17454.8	-0.00887323
17464.1	-0.00942944
17473.5	-0.00999311
17482.8	-0.0105639
17492.1	-0.0111413
17501.5	-0.0117252
17510.8	-0.0123149
17520.1	-0.0129102
17538.8	-0.0141154
17548.1	-0.0147245
17557.4	-0.0153372
17566.8	-0.0159531
17576.1	-0.0165716
17585.4	-0.0171922
17594.7	-0.0178144
17604.1	-0.0184376
17613.4	-0.0190612
17622.7	-0.0196848
17632.1	-0.0203076
17641.4	-0.0209291
17650.7	-0.0215487
17660	-0.0221657
17678.7	-0.0233898
17688	-0.0239956
17697.4	-0.0245963
17706.7	-0.0251913
17716	-0.0257801
17725.4	-0.0263618
17734.7	-0.026936
17744	-0.0275019
17753.3	-0.028059
17762.7	-0.0286065
17772	-0.0291438
17781.3	-0.0296704
17790.7	-0.0301855
17809.3	-0.031179
17818.6	-0.0316562
17828	-0.0321195
17837.3	-0.0325683
17846.6	-0.0330021
17856	-0.0334203
17865.3	-0.0338224
17874.6	-0.0342078
17883.9	-0.034576
17893.3	-0.0349265
17902.6	-0.0352587
17911.9	-0.0355724
17921.3	-0.0358668
17930.6	-0.0361418
17949.3	-0.0366312
17958.6	-0.036845
17967.9	-0.0370377
17977.2	-0.037209
17986.6	-0.0373585
17995.9	-0.037486
18005.2	-0.0375911
18014.6	-0.0376738
18023.9	-0.0377336
18033.2	-0.0377706
18042.5	-0.0377844
18051.9	-0.037775
18061.2	-0.0377423
18070.5	-0.0376861
18089.2	-0.0375032
18098.5	-0.0373765
18107.8	-0.0372262
18117.2	-0.0370525
18126.5	-0.0368553
18135.8	-0.0366349
18145.2	-0.0363913
18154.5	-0.0361246
18163.8	-0.0358351
18173.2	-0.0355229
18182.5	-0.0351883
18191.8	-0.0348315
18201.1	-0.0344528
18210.5	-0.0340525
18229.1	-0.0331884
18238.5	-0.0327252
18247.8	-0.0322419
18257.1	-0.0317387
18266.4	-0.0312162
18275.8	-0.0306748
18285.1	-0.0301149
18294.4	-0.029537
18303.8	-0.0289416
18313.1	-0.0283292
18322.4	-0.0277005
18331.7	-0.0270558
18341.1	-0.0263958
18350.4	-0.025721
18369.1	-0.0243294
18378.4	-0.0236139
18387.7	-0.022886
18397.1	-0.0221463
18406.4	-0.0213956
18415.7	-0.0206343
18425	-0.0198632
18434.4	-0.0190829
18443.7	-0.0182941
18453	-0.0174974
18462.4	-0.0166934
18471.7	-0.0158829
18481	-0.0150664
18490.3	-0.0142446
18509	-0.012588
18518.3	-0.0117543
18527.7	-0.010918
18537	-0.0100796
18546.3	-0.00923987
18555.6	-0.00839932
18565	-0.00755861
18574.3	-0.00671835
18583.6	-0.00587913
18593	-0.00504157
18602.3	-0.00420623
18611.6	-0.00337368
18621	-0.0025445
18630.3	-0.00171922
18648.9	-8.25349e-05
18658.3	0.000727843
18667.6	0.00153224
18676.9	0.00233018
18686.3	0.00312118
18695.6	0.0039048
18704.9	0.00468059
18714.2	0.00544813
18723.6	0.00620702
18732.9	0.00695685
18742.2	0.00769725
18751.6	0.00842785
18760.9	0.00914833
18770.2	0.00985834
18788.9	0.0112457
18798.2	0.0119225
18807.5	0.0125877
18816.9	0.0132411
18826.2	0.0138823
18835.5	0.0145113
18844.9	0.0151277
18854.2	0.0157314
18863.5	0.0163223
18872.8	0.0169002
18882.2	0.0174649
18891.5	0.0180164
18900.8	0.0185545
18910.2	0.0190792
18928.8	0.0200878
18938.1	0.0205717
18947.5	0.0210418
18956.8	0.0214983
18966.1	0.021941
18975.5	0.02237
18984.8	0.0227853
18994.1	0.023187
19003.4	0.0235749
19012.8	0.0239493
19022.1	0.0243102
19031.4	0.0246575
19040.8	0.0249915
19050.1	0.0253121
19068.7	0.0259138
19078.1	0.026195
19087.4	0.0264634
19096.7	0.026719
19106.1	0.026962
19115.4	0.0271924
19124.7	0.0274105
19134.1	0.0276164
19143.4	0.0278102
19152.7	0.0279922
19162	0.0281623
19171.4	0.0283209
19180.7	0.0284681
19190	0.0286041
19208.7	0.028843
19218	0.0289463
19227.3	0.0290391
19236.7	0.0291216
19246	0.0291939
19255.3	0.0292562
19264.7	0.0293088
19274	0.0293518
19283.3	0.0293853
19292.6	0.0294097
19302	0.029425
19311.3	0.0294315
19320.6	0.0294293
19339.3	0.0293997
19348.6	0.0293726
19358	0.0293376
19367.3	0.0292949
19376.6	0.0292446
19385.9	0.0291869
19395.3	0.029122
19404.6	0.0290501
19413.9	0.0289713
19423.3	0.0288858
19432.6	0.0287937
19441.9	0.0286953
19451.2	0.0285908
19460.6	0.0284801
19479.2	0.0282414
19488.6	0.0281136
19497.9	0.0279804
19507.2	0.0278419
19516.5	0.0276983
19525.9	0.0275497
19535.2	0.0273963
19544.5	0.0272382
19553.9	0.0270756
19563.2	0.0269085
19572.5	0.0267372
19581.9	0.0265617
19591.2	0.0263822
19600.5	0.0261989
19619.2	0.025821
19628.5	0.0256267
19637.8	0.0254291
19647.2	0.0252282
19656.5	0.0250241
19665.8	0.024817
19675.1	0.024607
19684.5	0.0243941
19693.8	0.0241786
19703.1	0.0239605
19712.5	0.0237399
19721.8	0.023517
19731.1	0.0232918
19740.4	0.0230644
19759.1	0.0226036
19768.4	0.0223704
19777.8	0.0221355
19787.1	0.0218989
19796.4	0.0216607
19805.8	0.0214211
19815.1	0.0211802
19824.4	0.020938
19833.7	0.0206946
19843.1	0.0204502
19852.4	0.0202048
19861.7	0.0199585
19871.1	0.0197115
19880.4	0.0194637
19899	0.0189665
19908.4	0.0187172
19917.7	0.0184675
19927	0.0182176
19936.4	0.0179676
19945.7	0.0177174
19955	0.0174673
19964.3	0.0172173
19973.7	0.0169674
19983	0.0167177
19992.3	0.0164684
