0	0
10.3422	0
20.6843	0
31.0265	0
41.3687	0
51.7109	0
62.053	0
72.3952	0
82.7374	0
93.0796	0
103.422	0
113.764	0
124.106	0
134.448	0
144.79	0
155.133	0
165.475	0
175.817	0
186.159	0
196.501	0
206.843	0
217.186	0
227.528	0
237.87	0
248.212	0
258.554	0
268.897	0
279.239	0
289.581	0
299.923	0
310.265	0
320.607	0
330.95	0
341.292	0
351.634	0
361.976	0
372.318	0
382.66	0
393.003	0
403.345	0
413.687	0
424.029	0
434.371	0
444.714	0
455.056	0
465.398	0
475.74	0
486.082	0
496.424	0
506.767	0
517.109	0
527.451	0
537.793	0
548.135	0
558.477	0
568.82	0
579.162	0
589.504	0
599.846	0
610.188	0
620.53	0
630.873	0
641.215	0
651.557	0
661.899	0
672.241	0
682.584	0
692.926	0
703.268	0
713.61	0
723.952	0
734.294	0
744.637	0
754.979	0
765.321	0
775.663	0
786.005	0
796.347	0
806.69	0
817.032	0
827.374	0
837.716	0
848.058	0
858.401	0
868.743	0
879.085	0
889.427	0
899.769	0
910.111	0
920.454	0
930.796	0
941.138	0
951.48	0
961.822	0
972.164	0
982.507	0
992.849	0
1003.19	0
1013.53	0
1023.88	0
1034.22	0
1044.56	0
1054.9	0
1065.24	0
1075.59	0
1085.93	0
1096.27	0
1106.61	0
1116.95	0
1127.3	0
1137.64	0
1147.98	0
1158.32	0
1168.67	0
1179.01	0
1189.35	0
1199.69	0
1210.03	0
1220.38	0
1230.72	0
1241.06	0
1251.4	0
1261.75	0
1272.09	0
1282.43	0
1292.77	0
1303.11	0
1313.46	0
1323.8	0
1334.14	0
1344.48	0
1354.82	0
1365.17	0
1375.51	0
1385.85	0
1396.19	0
1406.54	0
1416.88	0
1427.22	0
1437.56	0
1447.9	0
1458.25	0
1468.59	0
1478.93	0
1489.27	0
1499.62	0
1509.96	0
1520.3	0
1530.64	0
1540.98	-9.09495e-13
1551.33	-1.81899e-12
1561.67	-3.63798e-12
1572.01	-5.45697e-12
1582.35	-8.18545e-12
1592.69	-1.27329e-11
1603.04	-1.90994e-11
1613.38	-2.91038e-11
1623.72	-4.45652e-11
1634.06	-6.73026e-11
1644.41	-1.00044e-10
1654.75	-1.48248e-10
1665.09	-2.18279e-10
1675.43	-3.18323e-10
1685.77	-4.61114e-10
1696.12	-6.63931e-10
1706.46	-9.49512e-10
1716.8	-1.34969e-09
1727.14	-1.9063e-09
1737.49	-2.67664e-09
1747.83	-3.7362e-09
1758.17	-5.18412e-09
1768.51	-7.15136e-09
1778.85	-9.81163e-09
1789.2	-1.33878e-08
1799.54	-1.8169e-08
1809.88	-2.45263e-08
1820.22	-3.29374e-08
1830.56	-4.40068e-08
1840.91	-5.85014e-08
1851.25	-7.73871e-08
1861.59	-1.01873e-07
1871.93	-1.33469e-07
1882.28	-1.74045e-07
1892.62	-2.25913e-07
1902.96	-2.91911e-07
1913.3	-3.75509e-07
1923.64	-4.80935e-07
1933.99	-6.13308e-07
1944.33	-7.788e-07
1954.67	-9.84828e-07
1965.01	-1.24025e-06
1975.36	-1.55562e-06
1985.7	-1.94344e-06
1996.04	-2.41844e-06
2006.38	-2.99797e-06
2016.72	-3.70229e-06
2027.07	-4.55504e-06
2037.41	-5.58363e-06
2047.75	-6.81976e-06
2058.09	-8.2999e-06
2068.43	-1.00659e-05
2078.78	-1.21655e-05
2089.12	-1.4653e-05
2099.46	-1.75901e-05
2109.8	-2.10463e-05
2120.15	-2.50996e-05
2130.49	-2.98378e-05
2140.83	-3.53584e-05
2151.17	-4.17702e-05
2161.51	-4.91935e-05
2171.86	-5.77609e-05
2182.2	-6.76186e-05
2192.54	-7.89262e-05
2202.88	-9.1858e-05
2213.23	-0.000106604
2223.57	-0.000123368
2233.91	-0.000142373
2244.25	-0.000163855
2254.59	-0.000188069
2264.94	-0.000215286
2275.28	-0.000245794
2285.62	-0.000279895
2295.96	-0.000317911
2306.3	-0.000360175
2316.65	-0.000407037
2326.99	-0.000458859
2337.33	-0.000516015
2347.67	-0.000578888
2358.02	-0.000647869
2368.36	-0.000723356
2378.7	-0.000805747
2389.04	-0.000895441
2399.38	-0.000992833
2409.73	-0.00109831
2420.07	-0.00121225
2430.41	-0.001335
2440.75	-0.00146691
2451.1	-0.00160828
2461.44	-0.00175939
2471.78	-0.00192046
2482.12	-0.0020917
2492.46	-0.00227322
2502.81	-0.0024651
2513.15	-0.00266735
2523.49	-0.00287987
2533.83	-0.00310251
2544.17	-0.003335
2554.52	-0.00357695
2564.86	-0.00382789
2575.2	-0.0040872
2585.54	-0.0043541
2595.89	-0.0046277
2606.23	-0.00490693
2616.57	-0.00519053
2626.91	-0.00547709
2637.25	-0.00576498
2647.6	-0.00605237
2657.94	-0.00633723
2668.28	-0.00661728
2678.62	-0.00689002
2688.97	-0.00715269
2699.31	-0.00740228
2709.65	-0.00763552
2719.99	-0.00784888
2730.33	-0.00803853
2740.68	-0.00820039
2751.02	-0.00833006
2761.36	-0.00842289
2771.7	-0.00847394
2782.04	-0.00847796
2792.39	-0.00842945
2802.73	-0.00832262
2813.07	-0.00815143
2823.41	-0.00790957
2833.76	-0.0075905
2844.1	-0.00718744
2854.44	-0.0066934
2864.78	-0.00610123
2875.12	-0.00540359
2885.47	-0.00459299
2895.81	-0.00366186
2906.15	-0.00260251
2916.49	-0.00140725
2926.84	-6.83437e-05
2937.18	0.0014219
2947.52	0.00307112
2957.86	0.00488682
2968.2	0.00687637
2978.55	0.00904691
2988.89	0.0114054
2999.23	0.0139583
3009.57	0.016712
3019.91	0.0196724
3030.26	0.0228447
3040.6	0.026234
3050.94	0.0298445
3061.28	0.03368
3071.62	0.0377436
3081.97	0.0420377
3092.31	0.0465638
3102.65	0.0513229
3112.99	0.0563149
3123.34	0.061539
3133.68	0.0669934
3144.02	0.0726755
3154.36	0.0785815
3164.7	0.0847068
3175.05	0.0910457
3185.39	0.0975916
3195.73	0.104337
3206.07	0.111272
3216.41	0.118389
3226.76	0.125675
3237.1	0.133119
3247.44	0.140709
3257.78	0.14843
3268.12	0.156268
3278.47	0.164206
3288.81	0.17223
3299.15	0.18032
3309.49	0.18846
3319.83	0.196629
3330.18	0.204809
3340.52	0.21298
3350.86	0.22112
3361.2	0.229209
3371.54	0.237226
3381.89	0.245147
3392.23	0.252952
3402.57	0.260617
3412.91	0.268122
3423.25	0.275443
3433.6	0.282558
3443.94	0.289445
3454.28	0.296083
3464.62	0.30245
3474.96	0.308526
3485.31	0.31429
3495.65	0.319723
3505.99	0.324805
3516.33	0.329518
3526.67	0.333845
3537.01	0.337769
3547.36	0.341276
3557.7	0.34435
3568.04	0.346978
3578.38	0.349149
3588.72	0.350851
3599.07	0.352075
3609.41	0.352813
3619.75	0.353058
3630.09	0.352804
3640.43	0.352046
3650.77	0.350784
3661.12	0.349014
3671.46	0.346738
3681.8	0.343957
3692.14	0.340674
3702.48	0.336893
3712.83	0.332621
3723.17	0.327865
3733.51	0.322633
3743.85	0.316936
3754.19	0.310785
3764.53	0.304193
3774.88	0.297173
3785.22	0.28974
3795.56	0.281912
3805.9	0.273703
3816.24	0.265134
3826.58	0.256223
3836.93	0.24699
3847.27	0.237456
3857.61	0.227642
3867.95	0.21757
3878.29	0.207264
3888.64	0.196746
3898.98	0.18604
3909.32	0.17517
3919.66	0.16416
3930	0.153034
3940.34	0.141818
3950.69	0.130535
3961.03	0.11921
3971.37	0.107867
3981.71	0.0965308
3992.05	0.0852241
4002.39	0.0739708
4012.74	0.0627937
4023.08	0.0517154
4033.42	0.0407577
4043.76	0.0299419
4054.1	0.0192884
4064.44	0.00881711
4074.79	-0.00145301
4085.13	-0.0115038
4095.47	-0.021318
4105.81	-0.0308792
4116.15	-0.0401721
4126.5	-0.0491824
4136.84	-0.0578967
4147.18	-0.0663026
4157.52	-0.074389
4167.86	-0.0821458
4178.2	-0.0895638
4188.55	-0.0966351
4198.89	-0.103353
4209.23	-0.109711
4219.57	-0.115706
4229.91	-0.121333
4240.26	-0.12659
4250.6	-0.131475
4260.94	-0.135989
4271.28	-0.140131
4281.62	-0.143903
4291.96	-0.147308
4302.31	-0.150349
4312.65	-0.153031
4322.99	-0.155358
4333.33	-0.157336
4343.67	-0.158973
4354.02	-0.160276
4364.36	-0.161252
4374.7	-0.16191
4385.04	-0.162261
4395.38	-0.162313
4405.73	-0.162077
4416.07	-0.161563
4426.41	-0.160784
4436.75	-0.15975
4447.09	-0.158473
4457.44	-0.156966
4467.78	-0.15524
4478.12	-0.153308
4488.46	-0.151182
4498.81	-0.148876
4509.15	-0.146401
4519.49	-0.143771
4529.83	-0.140998
4540.17	-0.138094
4550.52	-0.135072
4560.86	-0.131944
4571.2	-0.128722
4581.54	-0.125419
4591.88	-0.122044
4602.23	-0.118611
4612.57	-0.115129
4622.91	-0.11161
4633.25	-0.108064
4643.6	-0.104501
4653.94	-0.100931
4664.28	-0.097362
4674.62	-0.0938043
4684.96	-0.090266
4695.31	-0.086755
4705.65	-0.0832791
4715.99	-0.0798456
4726.33	-0.0764612
4736.67	-0.0731324
4747.02	-0.0698652
4757.36	-0.066665
4767.7	-0.0635372
4778.04	-0.0604863
4788.39	-0.0575167
4798.73	-0.0546323
4809.07	-0.0518366
4819.41	-0.0491328
4829.75	-0.0465236
4840.1	-0.0440114
4850.44	-0.0415983
4860.78	-0.0392858
4871.12	-0.0370753
4881.46	-0.0349679
4891.81	-0.0329643
4902.15	-0.0310649
4912.49	-0.0292697
4922.83	-0.0275787
4933.18	-0.0259915
4943.52	-0.0245074
4953.86	-0.0231255
4964.2	-0.0218447
4974.54	-0.0206638
4984.89	-0.0195812
4995.23	-0.0185953
5005.57	-0.0177042
5015.91	-0.0169061
5026.25	-0.0161987
5036.6	-0.0155798
5046.94	-0.015047
5057.28	-0.0145979
5067.62	-0.01423
5077.97	-0.0139405
5088.31	-0.0137268
5098.65	-0.0135861
5108.99	-0.0135156
5119.33	-0.0135125
5129.68	-0.0135738
5140.02	-0.0136965
5150.36	-0.0138779
5160.7	-0.0141149
5171.04	-0.0144046
5181.39	-0.014744
5191.73	-0.0151302
5202.07	-0.0155603
5212.41	-0.0160314
5222.76	-0.0165407
5233.1	-0.0170853
5243.44	-0.0176624
5253.78	-0.0182693
5264.12	-0.0189032
5274.47	-0.0195616
5284.81	-0.0202417
5295.15	-0.0209411
5305.49	-0.0216573
5315.83	-0.0223878
5326.18	-0.0231303
5336.52	-0.0238825
5346.86	-0.024642
5357.2	-0.0254068
5367.55	-0.0261748
5377.89	-0.0269439
5388.23	-0.0277121
5398.57	-0.0284776
5408.91	-0.0292385
5419.26	-0.0299931
5429.6	-0.0307397
5439.94	-0.0314767
5450.28	-0.0322025
5460.62	-0.0329158
5470.97	-0.0336151
5481.31	-0.0342991
5491.65	-0.0349665
5501.99	-0.0356162
5512.34	-0.0362471
5522.68	-0.0368581
5533.02	-0.0374482
5543.36	-0.0380167
5553.7	-0.0385625
5564.05	-0.039085
5574.39	-0.0395835
5584.73	-0.0400574
5595.07	-0.0405059
5605.41	-0.0409288
5615.76	-0.0413254
5626.1	-0.0416954
5636.44	-0.0420385
5646.78	-0.0423544
5657.13	-0.0426428
5667.47	-0.0429037
5677.81	-0.0431369
5688.15	-0.0433423
5698.49	-0.04352
5708.84	-0.04367
5719.18	-0.0437923
5729.52	-0.0438871
5739.86	-0.0439547
5750.2	-0.0439951
5760.55	-0.0440086
5770.89	-0.0439957
5781.23	-0.0439565
5791.57	-0.0438915
5801.92	-0.0438011
5812.26	-0.0436857
5822.6	-0.0435458
5832.94	-0.0433819
5843.28	-0.0431945
5853.63	-0.0429842
5863.97	-0.0427515
5874.31	-0.042497
5884.65	-0.0422214
5894.99	-0.0419253
5905.34	-0.0416093
5915.68	-0.0412741
5926.02	-0.0409204
5936.36	-0.0405489
5946.71	-0.0401602
5957.05	-0.039755
5967.39	-0.0393341
5977.73	-0.0388982
5988.07	-0.038448
5998.42	-0.0379842
6008.76	-0.0375075
6019.1	-0.0370187
6029.44	-0.0365183
6039.79	-0.0360072
6050.13	-0.0354861
6060.47	-0.0349556
6070.81	-0.0344164
6081.15	-0.0338691
6091.5	-0.0333145
6101.84	-0.0327531
6112.18	-0.0321857
6122.52	-0.0316128
6132.86	-0.031035
6143.21	-0.0304529
6153.55	-0.0298671
6163.89	-0.029278
6174.23	-0.0286864
6184.58	-0.0280926
6194.92	-0.0274971
6205.26	-0.0269005
6215.6	-0.0263032
6225.94	-0.0257055
6236.29	-0.025108
6246.63	-0.024511
6256.97	-0.0239149
6267.31	-0.0233199
6277.65	-0.0227266
6288	-0.022135
6298.34	-0.0215456
6308.68	-0.0209586
6319.02	-0.0203743
6329.37	-0.0197928
6339.71	-0.0192144
6350.05	-0.0186392
6360.39	-0.0180674
6370.73	-0.0174992
6381.08	-0.0169346
6391.42	-0.0163739
6401.76	-0.015817
6412.1	-0.0152641
6422.45	-0.0147153
6432.79	-0.0141705
6443.13	-0.0136298
6453.47	-0.0130933
6463.81	-0.012561
6474.16	-0.0120328
6484.5	-0.0115087
6494.84	-0.0109887
6505.18	-0.0104729
6515.52	-0.00996112
6525.87	-0.00945335
6536.21	-0.00894957
6546.55	-0.0084497
6556.89	-0.00795369
6567.24	-0.0074615
6577.58	-0.00697304
6587.92	-0.00648828
6598.26	-0.00600713
6608.6	-0.00552953
6618.95	-0.00505544
6629.29	-0.00458478
6639.63	-0.0041175
6649.97	-0.00365355
6660.32	-0.00319288
6670.66	-0.00273545
6681	-0.00228121
6691.34	-0.00183013
6701.68	-0.00138219
6712.03	-0.000937368
6722.37	-0.000495653
6732.71	-5.70403e-05
6743.05	0.000378465
6753.4	0.000810849
6763.74	0.00124009
6774.08	0.00166616
6784.42	0.00208901
6794.76	0.00250859
6805.11	0.00292485
6815.45	0.00333772
6825.79	0.00374711
6836.13	0.00415293
6846.47	0.0045551
6856.82	0.00495349
6867.16	0.005348
6877.5	0.00573849
6887.84	0.00612483
6898.19	0.00650688
6908.53	0.00688449
6918.87	0.00725749
6929.21	0.00762572
6939.55	0.00798901
6949.9	0.00834717
6960.24	0.00870001
6970.58	0.00904735
6980.92	0.00938899
6991.27	0.00972472
7001.61	0.0100543
7011.95	0.0103776
7022.29	0.0106944
7032.63	0.0110044
7042.98	0.0113074
7053.32	0.0116033
7063.66	0.0118918
7074	0.0121726
7084.35	0.0124456
7094.69	0.0127106
7105.03	0.0129673
7115.37	0.0132156
7125.71	0.0134551
7136.06	0.0136858
7146.4	0.0139074
7156.74	0.0141197
7167.08	0.0143226
7177.42	0.0145159
7187.77	0.0146993
7198.11	0.0148727
7208.45	0.015036
7218.79	0.015189
7229.14	0.0153315
7239.48	0.0154635
7249.82	0.0155848
7260.16	0.0156952
7270.5	0.0157947
7280.85	0.0158831
7291.19	0.0159604
7301.53	0.0160265
7311.87	0.0160813
7322.22	0.0161247
7332.56	0.0161567
7342.9	0.0161773
7353.24	0.0161864
7363.58	0.016184
7373.93	0.0161701
7384.27	0.0161447
7394.61	0.0161078
7404.95	0.0160593
7415.29	0.0159994
7425.64	0.0159281
7435.98	0.0158454
7446.32	0.0157513
7456.66	0.0156459
7467.01	0.0155293
7477.35	0.0154016
7487.69	0.0152628
7498.03	0.015113
7508.37	0.0149524
7518.72	0.0147809
7529.06	0.0145989
7539.4	0.0144062
7549.74	0.0142032
7560.08	0.0139898
7570.43	0.0137662
7580.77	0.0135326
7591.11	0.0132891
7601.45	0.0130358
7611.79	0.0127728
7622.14	0.0125004
7632.48	0.0122187
7642.82	0.0119278
7653.16	0.0116278
7663.51	0.011319
7673.85	0.0110014
7684.19	0.0106753
7694.53	0.0103407
7704.87	0.00999794
7715.22	0.00964706
7725.56	0.00928824
7735.9	0.00892164
7746.24	0.00854743
7756.58	0.00816575
7766.93	0.00777678
7777.27	0.00738065
7787.61	0.00697753
7797.95	0.00656758
7808.3	0.00615095
7818.64	0.00572779
7828.98	0.00529826
7839.32	0.00486251
7849.66	0.0044207
7860.01	0.00397296
7870.35	0.00351946
7880.69	0.00306035
7891.03	0.00259576
7901.37	0.00212586
7911.72	0.0016508
7922.06	0.00117071
7932.4	0.000685751
7942.74	0.000196071
7953.08	-0.000298183
7963.43	-0.000796861
7973.77	-0.00129981
7984.11	-0.00180689
7994.45	-0.00231794
8004.8	-0.00283281
8015.14	-0.00335134
8025.48	-0.00387339
8035.82	-0.0043988
8046.16	-0.00492741
8056.51	-0.00545905
8066.85	-0.00599358
8077.19	-0.00653082
8087.53	-0.00707061
8097.87	-0.00761279
8108.22	-0.00815718
8118.56	-0.00870362
8128.9	-0.00925192
8139.24	-0.00980192
8149.58	-0.0103534
8159.93	-0.0109063
8170.27	-0.0114602
8180.61	-0.0120152
8190.95	-0.0125709
8201.3	-0.0131272
8211.64	-0.0136838
8221.98	-0.0142406
8232.32	-0.0147975
8242.66	-0.015354
8253.01	-0.0159102
8263.35	-0.0164657
8273.69	-0.0170203
8284.03	-0.0175739
8294.37	-0.0181262
8304.72	-0.018677
8315.06	-0.0192261
8325.4	-0.0197732
8335.74	-0.0203181
8346.08	-0.0208607
8356.43	-0.0214006
8366.77	-0.0219377
8377.11	-0.0224717
8387.45	-0.0230025
8397.8	-0.0235296
8408.14	-0.0240531
8418.48	-0.0245725
8428.82	-0.0250877
8439.16	-0.0255985
8449.51	-0.0261046
8459.85	-0.0266058
8470.19	-0.0271019
8480.53	-0.0275926
8490.87	-0.0280777
8501.22	-0.0285571
8511.56	-0.0290304
8521.9	-0.0294976
8532.24	-0.0299582
8542.58	-0.0304123
8552.93	-0.0308595
8563.27	-0.0312996
8573.61	-0.0317324
8583.95	-0.0321578
8594.3	-0.0325756
8604.64	-0.0329855
8614.98	-0.0333874
8625.32	-0.0337811
8635.66	-0.0341664
8646.01	-0.0345432
8656.35	-0.0349112
8666.69	-0.0352704
8677.03	-0.0356206
8687.37	-0.0359616
8697.72	-0.0362933
8708.06	-0.0366155
8718.4	-0.0369281
8728.74	-0.037231
8739.09	-0.037524
8749.43	-0.0378071
8759.77	-0.0380802
8770.11	-0.038343
8780.45	-0.0385956
8790.8	-0.0388379
8801.14	-0.0390697
8811.48	-0.0392909
8821.82	-0.0395016
8832.16	-0.0397016
8842.51	-0.0398909
8852.85	-0.0400694
8863.19	-0.040237
8873.53	-0.0403938
8883.88	-0.0405396
8894.22	-0.0406745
8904.56	-0.0407984
8914.9	-0.0409112
8925.24	-0.0410131
8935.59	-0.0411039
8945.93	-0.0411837
8956.27	-0.0412525
8966.61	-0.0413102
8976.95	-0.0413568
8987.3	-0.0413925
8997.64	-0.0414172
9007.98	-0.0414309
9018.32	-0.0414336
9028.67	-0.0414254
9039.01	-0.0414064
9049.35	-0.0413765
9059.69	-0.0413359
9070.03	-0.0412845
9080.38	-0.0412224
9090.72	-0.0411497
9101.06	-0.0410665
9111.4	-0.0409727
9121.74	-0.0408685
9132.09	-0.040754
9142.43	-0.0406292
9152.77	-0.0404942
9163.11	-0.0403491
9173.46	-0.040194
9183.8	-0.040029
9194.14	-0.0398541
9204.48	-0.0396695
9214.82	-0.0394753
9225.17	-0.0392715
9235.51	-0.0390583
9245.85	-0.0388358
9256.19	-0.0386041
9266.53	-0.0383633
9276.88	-0.0381136
9287.22	-0.037855
9297.56	-0.0375877
9307.9	-0.0373118
9318.25	-0.0370274
9328.59	-0.0367347
9338.93	-0.0364338
9349.27	-0.0361249
9359.61	-0.035808
9369.96	-0.0354834
9380.3	-0.0351511
9390.64	-0.0348114
9400.98	-0.0344643
9411.32	-0.0341101
9421.67	-0.0337489
9432.01	-0.0333808
9442.35	-0.033006
9452.69	-0.0326246
9463.04	-0.0322369
9473.38	-0.0318431
9483.72	-0.0314431
9494.06	-0.0310373
9504.4	-0.0306259
9514.75	-0.0302089
9525.09	-0.0297866
9535.43	-0.0293592
9545.77	-0.0289268
9556.11	-0.0284897
9566.46	-0.0280479
9576.8	-0.0276018
9587.14	-0.0271514
9597.48	-0.0266971
9607.83	-0.0262389
9618.17	-0.0257772
9628.51	-0.025312
9638.85	-0.0248436
9649.19	-0.0243722
9659.54	-0.023898
9669.88	-0.0234211
9680.22	-0.0229419
9690.56	-0.0224605
9700.9	-0.0219772
9711.25	-0.021492
9721.59	-0.0210053
9731.93	-0.0205173
9742.27	-0.0200282
9752.62	-0.0195381
9762.96	-0.0190474
9773.3	-0.0185561
9783.64	-0.0180646
9793.98	-0.0175731
9804.33	-0.0170817
9814.67	-0.0165908
9825.01	-0.0161004
9835.35	-0.0156109
9845.7	-0.0151224
9856.04	-0.0146351
9866.38	-0.0141494
9876.72	-0.0136653
9887.06	-0.0131831
9897.41	-0.0127031
9907.75	-0.0122254
9918.09	-0.0117502
9928.43	-0.0112778
9938.77	-0.0108083
9949.12	-0.0103421
9959.46	-0.00987918
9969.8	-0.00941987
9980.14	-0.00896435
9990.49	-0.00851282
10000.8	-0.00806548
10011.2	-0.00762251
10021.5	-0.00718413
10031.9	-0.00675051
10042.2	-0.00632184
10052.5	-0.00589831
10062.9	-0.00548011
10073.2	-0.0050674
10083.6	-0.00466037
10093.9	-0.00425919
10104.2	-0.00386402
10114.6	-0.00347504
10124.9	-0.0030924
10135.3	-0.00271626
10145.6	-0.00234677
10156	-0.00198408
10166.3	-0.00162834
10176.6	-0.00127969
10187	-0.000938261
10197.3	-0.000604186
10207.7	-0.000277593
10218	4.13974e-05
10228.4	0.000352668
10238.7	0.000656106
10249	0.000951604
10259.4	0.00123906
10269.7	0.00151838
10280.1	0.00178947
10290.4	0.00205224
10300.8	0.00230661
10311.1	0.00255252
10321.4	0.00278987
10331.8	0.00301862
10342.1	0.0032387
10352.5	0.00345006
10362.8	0.00365264
10373.1	0.00384642
10383.5	0.00403134
10393.8	0.00420738
10404.2	0.00437451
10414.5	0.00453271
10424.9	0.00468197
10435.2	0.00482228
10445.5	0.00495362
10455.9	0.00507602
10466.2	0.00518946
10476.6	0.00529397
10486.9	0.00538956
10497.3	0.00547626
10507.6	0.0055541
10517.9	0.0056231
10528.3	0.00568332
10538.6	0.00573479
10549	0.00577756
10559.3	0.00581169
10569.6	0.00583725
10580	0.00585429
10590.3	0.00586289
10600.7	0.00586311
10611	0.00585505
10621.4	0.00583879
10631.7	0.00581442
10642	0.00578202
10652.4	0.0057417
10662.7	0.00569357
10673.1	0.00563773
10683.4	0.00557429
10693.8	0.00550338
10704.1	0.0054251
10714.4	0.00533959
10724.8	0.00524697
10735.1	0.00514738
10745.5	0.00504096
10755.8	0.00492784
10766.1	0.00480817
10776.5	0.0046821
10786.8	0.00454978
10797.2	0.00441136
10807.5	0.004267
10817.9	0.00411687
10828.2	0.00396114
10838.5	0.00379996
10848.9	0.00363351
10859.2	0.00346196
10869.6	0.0032855
10879.9	0.00310431
10890.3	0.00291856
10900.6	0.00272844
10910.9	0.00253415
10921.3	0.00233586
10931.6	0.00213379
10942	0.00192811
10952.3	0.00171904
10962.6	0.00150677
10973	0.0012915
10983.3	0.00107344
10993.7	0.000852792
11004	0.000629767
11014.4	0.000404574
11024.7	0.000177424
11035	-5.14709e-05
11045.4	-0.000281896
11055.7	-0.000513636
11066.1	-0.000746475
11076.4	-0.000980196
11086.8	-0.00121458
11097.1	-0.00144941
11107.4	-0.00168446
11117.8	-0.00191952
11128.1	-0.00215437
11138.5	-0.00238878
11148.8	-0.00262254
11159.2	-0.00285542
11169.5	-0.00308721
11179.8	-0.00331769
11190.2	-0.00354663
11200.5	-0.00377382
11210.9	-0.00399905
11221.2	-0.0042221
11231.5	-0.00444275
11241.9	-0.00466079
11252.2	-0.00487602
11262.6	-0.00508821
11272.9	-0.00529717
11283.3	-0.00550269
11293.6	-0.00570457
11303.9	-0.0059026
11314.3	-0.0060966
11324.6	-0.00628636
11335	-0.00647171
11345.3	-0.00665243
11355.7	-0.00682837
11366	-0.00699933
11376.3	-0.00716514
11386.7	-0.00732563
11397	-0.00748064
11407.4	-0.00762999
11417.7	-0.00777352
11428	-0.0079111
11438.4	-0.00804257
11448.7	-0.00816778
11459.1	-0.0082866
11469.4	-0.00839889
11479.8	-0.00850453
11490.1	-0.00860341
11500.4	-0.00869539
11510.8	-0.00878039
11521.1	-0.00885829
11531.5	-0.00892899
11541.8	-0.00899242
11552.2	-0.00904848
11562.5	-0.00909711
11572.8	-0.00913822
11583.2	-0.00917177
11593.5	-0.00919769
11603.9	-0.00921593
11614.2	-0.00922646
11624.5	-0.00922924
11634.9	-0.00922424
11645.2	-0.00921145
11655.6	-0.00919085
11665.9	-0.00916244
11676.3	-0.00912621
11686.6	-0.00908218
11696.9	-0.00903036
11707.3	-0.00897078
11717.6	-0.00890347
11728	-0.00882846
11738.3	-0.0087458
11748.7	-0.00865555
11759	-0.00855775
11769.3	-0.00845247
11779.7	-0.00833978
11790	-0.00821977
11800.4	-0.00809252
11810.7	-0.00795811
11821	-0.00781665
11831.4	-0.00766823
11841.7	-0.00751297
11852.1	-0.00735098
11862.4	-0.00718237
11872.8	-0.00700727
11883.1	-0.00682582
11893.4	-0.00663815
11903.8	-0.00644439
11914.1	-0.00624469
11924.5	-0.0060392
11934.8	-0.00582807
11945.2	-0.00561146
11955.5	-0.00538952
11965.8	-0.00516243
11976.2	-0.00493034
11986.5	-0.00469343
11996.9	-0.00445187
12007.2	-0.00420583
12017.6	-0.00395549
12027.9	-0.00370103
12038.2	-0.00344263
12048.6	-0.00318048
12058.9	-0.00291476
12069.3	-0.00264565
12079.6	-0.00237334
12089.9	-0.00209802
12100.3	-0.00181988
12110.6	-0.0015391
12121	-0.00125587
12131.3	-0.000970388
12141.7	-0.000682833
12152	-0.000393396
12162.3	-0.000102262
12172.7	0.00019038
12183	0.000484346
12193.4	0.000779452
12203.7	0.00107551
12214.1	0.00137235
12224.4	0.00166978
12234.7	0.00196763
12245.1	0.00226572
12255.4	0.00256387
12265.8	0.00286191
12276.1	0.00315968
12286.4	0.003457
12296.8	0.00375371
12307.1	0.00404964
12317.5	0.00434464
12327.8	0.00463854
12338.2	0.00493119
12348.5	0.00522244
12358.8	0.00551213
12369.2	0.00580012
12379.5	0.00608626
12389.9	0.00637041
12400.2	0.00665243
12410.6	0.00693218
12420.9	0.00720953
12431.2	0.00748435
12441.6	0.00775651
12451.9	0.00802587
12462.3	0.00829232
12472.6	0.00855574
12482.9	0.00881601
12493.3	0.009073
12503.6	0.00932661
12514	0.00957672
12524.3	0.00982323
12534.7	0.010066
12545	0.010305
12555.3	0.01054
12565.7	0.0107711
12576	0.010998
12586.4	0.0112206
12596.7	0.011439
12607.1	0.0116529
12617.4	0.0118624
12627.7	0.0120672
12638.1	0.0122674
12648.4	0.0124627
12658.8	0.0126532
12669.1	0.0128387
12679.4	0.0130192
12689.8	0.0131946
12700.1	0.0133647
12710.5	0.0135296
12720.8	0.013689
12731.2	0.013843
12741.5	0.0139915
12751.8	0.0141343
12762.2	0.0142714
12772.5	0.0144027
12782.9	0.0145282
12793.2	0.0146477
12803.6	0.0147611
12813.9	0.0148685
12824.2	0.0149696
12834.6	0.0150645
12844.9	0.015153
12855.3	0.0152351
12865.6	0.0153107
12876	0.0153797
12886.3	0.015442
12896.6	0.0154977
12907	0.0155465
12917.3	0.0155884
12927.7	0.0156233
12938	0.0156512
12948.3	0.0156721
12958.7	0.0156857
12969	0.0156921
12979.4	0.0156912
12989.7	0.0156829
13000.1	0.0156671
13010.4	0.0156439
13020.7	0.0156131
13031.1	0.0155746
13041.4	0.0155285
13051.8	0.0154746
13062.1	0.0154129
13072.5	0.0153434
13082.8	0.015266
13093.1	0.0151807
13103.5	0.0150874
13113.8	0.0149861
13124.2	0.0148767
13134.5	0.0147593
13144.8	0.0146338
13155.2	0.0145001
13165.5	0.0143583
13175.9	0.0142084
13186.2	0.0140504
13196.6	0.0138842
13206.9	0.0137098
13217.2	0.0135273
13227.6	0.0133367
13237.9	0.013138
13248.3	0.0129312
13258.6	0.0127163
13269	0.0124935
13279.3	0.0122627
13289.6	0.012024
13300	0.0117775
13310.3	0.0115232
13320.7	0.0112612
13331	0.0109915
13341.3	0.0107144
13351.7	0.0104298
13362	0.0101378
13372.4	0.00983861
13382.7	0.00953231
13393.1	0.00921902
13403.4	0.00889887
13413.7	0.008572
13424.1	0.00823857
13434.4	0.00789871
13444.8	0.00755261
13455.1	0.00720042
13465.5	0.00684232
13475.8	0.0064785
13486.1	0.00610914
13496.5	0.00573445
13506.8	0.00535464
13517.2	0.00496991
13527.5	0.00458049
13537.8	0.00418659
13548.2	0.00378846
13558.5	0.00338634
13568.9	0.00298046
13579.2	0.00257107
13589.6	0.00215844
13599.9	0.00174283
13610.2	0.0013245
13620.6	0.000903722
13630.9	0.000480776
13641.3	5.59413e-05
13651.6	-0.000370498
13662	-0.000798252
13672.3	-0.00122703
13682.6	-0.00165654
13693	-0.00208647
13703.3	-0.00251654
13713.7	-0.00294644
13724	-0.00337586
13734.4	-0.00380451
13744.7	-0.00423206
13755	-0.00465822
13765.4	-0.00508268
13775.7	-0.00550514
13786.1	-0.00592528
13796.4	-0.0063428
13806.7	-0.00675739
13817.1	-0.00716876
13827.4	-0.0075766
13837.8	-0.00798061
13848.1	-0.00838051
13858.5	-0.00877599
13868.8	-0.00916677
13879.1	-0.00955256
13889.5	-0.00993308
13899.8	-0.0103081
13910.2	-0.0106772
13920.5	-0.0110403
13930.9	-0.0113971
13941.2	-0.0117472
13951.5	-0.0120905
13961.9	-0.0124268
13972.2	-0.0127557
13982.6	-0.013077
13992.9	-0.0133907
14003.2	-0.0136963
14013.6	-0.0139938
14023.9	-0.0142828
14034.3	-0.0145634
14044.6	-0.0148352
14055	-0.0150981
14065.3	-0.0153519
14075.6	-0.0155966
14086	-0.0158319
14096.3	-0.0160577
14106.7	-0.0162739
14117	-0.0164804
14127.4	-0.016677
14137.7	-0.0168638
14148	-0.0170406
14158.4	-0.0172074
14168.7	-0.0173641
14179.1	-0.0175106
14189.4	-0.0176469
14199.7	-0.017773
14210.1	-0.0178889
14220.4	-0.0179945
14230.8	-0.0180899
14241.1	-0.0181751
14251.5	-0.0182501
14261.8	-0.018315
14272.1	-0.0183697
14282.5	-0.0184145
14292.8	-0.0184492
14303.2	-0.0184741
14313.5	-0.0184891
14323.9	-0.0184945
14334.2	-0.0184902
14344.5	-0.0184765
14354.9	-0.0184535
14365.2	-0.0184212
14375.6	-0.0183799
14385.9	-0.0183296
14396.2	-0.0182707
14406.6	-0.0182031
14416.9	-0.0181272
14427.3	-0.018043
14437.6	-0.0179509
14448	-0.017851
14458.3	-0.0177435
14468.6	-0.0176286
14479	-0.0175066
14489.3	-0.0173777
14499.7	-0.0172422
14510	-0.0171002
14520.4	-0.0169521
14530.7	-0.0167981
14541	-0.0166384
14551.4	-0.0164734
14561.7	-0.0163033
14572.1	-0.0161283
14582.4	-0.0159488
14592.8	-0.0157651
14603.1	-0.0155774
14613.4	-0.015386
14623.8	-0.0151913
14634.1	-0.0149935
14644.5	-0.0147929
14654.8	-0.0145898
14665.1	-0.0143846
14675.5	-0.0141775
14685.8	-0.0139689
14696.2	-0.013759
14706.5	-0.0135482
14716.9	-0.0133368
14727.2	-0.0131251
14737.5	-0.0129133
14747.9	-0.0127019
14758.2	-0.012491
14768.6	-0.0122811
14778.9	-0.0120724
14789.3	-0.0118652
14799.6	-0.0116599
14809.9	-0.0114566
14820.3	-0.0112558
14830.6	-0.0110577
14841	-0.0108626
14851.3	-0.0106708
14861.6	-0.0104825
14872	-0.0102981
14882.3	-0.0101178
14892.7	-0.00994194
14903	-0.00977068
14913.4	-0.00960433
14923.7	-0.00944314
14934	-0.00928735
14944.4	-0.00913721
14954.7	-0.00899295
14965.1	-0.00885479
14975.4	-0.00872297
14985.8	-0.00859768
14996.1	-0.00847914
15006.4	-0.00836755
15016.8	-0.00826309
15027.1	-0.00816595
15037.5	-0.0080763
15047.8	-0.0079943
15058.1	-0.00792012
15068.5	-0.0078539
15078.8	-0.00779578
15089.2	-0.00774589
15099.5	-0.00770434
15109.9	-0.00767125
15120.2	-0.00764671
15130.5	-0.00763081
15140.9	-0.00762364
15151.2	-0.00762526
15161.6	-0.00763573
15171.9	-0.00765509
15182.3	-0.00768339
15192.6	-0.00772064
15202.9	-0.00776686
15213.3	-0.00782205
15223.6	-0.0078862
15234	-0.00795929
15244.3	-0.0080413
15254.6	-0.00813217
15265	-0.00823185
15275.3	-0.00834027
15285.7	-0.00845736
15296	-0.00858302
15306.4	-0.00871716
15316.7	-0.00885965
15327	-0.00901037
15337.4	-0.00916919
15347.7	-0.00933596
15358.1	-0.00951051
15368.4	-0.00969268
15378.8	-0.00988227
15389.1	-0.0100791
15399.4	-0.010283
15409.8	-0.0104937
15420.1	-0.0107109
15430.5	-0.0109345
15440.8	-0.0111643
15451.2	-0.0113998
15461.5	-0.011641
15471.8	-0.0118874
15482.2	-0.0121388
15492.5	-0.012395
15502.9	-0.0126555
15513.2	-0.0129202
15523.5	-0.0131886
15533.9	-0.0134604
15544.2	-0.0137354
15554.6	-0.0140131
15564.9	-0.0142932
15575.3	-0.0145753
15585.6	-0.0148591
15595.9	-0.0151442
15606.3	-0.0154302
15616.6	-0.0157167
15627	-0.0160034
15637.3	-0.0162899
15647.7	-0.0165757
15658	-0.0168605
15668.3	-0.0171438
15678.7	-0.0174253
15689	-0.0177046
15699.4	-0.0179812
15709.7	-0.0182547
15720	-0.0185247
15730.4	-0.0187909
15740.7	-0.0190528
15751.1	-0.01931
15761.4	-0.0195621
15771.8	-0.0198087
15782.1	-0.0200495
15792.4	-0.0202839
15802.8	-0.0205116
15813.1	-0.0207323
15823.5	-0.0209455
15833.8	-0.0211509
15844.2	-0.0213481
15854.5	-0.0215368
15864.8	-0.0217165
15875.2	-0.0218869
15885.5	-0.0220477
15895.9	-0.0221986
15906.2	-0.0223393
15916.5	-0.0224693
15926.9	-0.0225884
15937.2	-0.0226964
15947.6	-0.0227929
15957.9	-0.0228776
15968.3	-0.0229504
15978.6	-0.0230109
15988.9	-0.0230588
15999.3	-0.0230941
16009.6	-0.0231165
16020	-0.0231257
16030.3	-0.0231216
16040.7	-0.0231041
16051	-0.0230728
16061.3	-0.0230279
16071.7	-0.022969
16082	-0.022896
16092.4	-0.022809
16102.7	-0.0227077
16113	-0.0225922
16123.4	-0.0224624
16133.7	-0.0223182
16144.1	-0.0221596
16154.4	-0.0219866
16164.8	-0.0217993
16175.1	-0.0215976
16185.4	-0.0213816
16195.8	-0.0211513
16206.1	-0.0209069
16216.5	-0.0206483
16226.8	-0.0203758
16237.2	-0.0200894
16247.5	-0.0197893
16257.8	-0.0194756
16268.2	-0.0191485
16278.5	-0.0188082
16288.9	-0.0184548
16299.2	-0.0180885
16309.6	-0.0177097
16319.9	-0.0173184
16330.2	-0.0169151
16340.6	-0.0164998
16350.9	-0.016073
16361.3	-0.0156348
16371.6	-0.0151856
16381.9	-0.0147258
16392.3	-0.0142555
16402.6	-0.0137752
16413	-0.0132851
16423.3	-0.0127857
16433.7	-0.0122773
16444	-0.0117603
16454.3	-0.011235
16464.7	-0.0107018
16475	-0.0101612
16485.4	-0.00961344
16495.7	-0.00905905
16506.1	-0.00849839
16516.4	-0.00793189
16526.7	-0.00735997
16537.1	-0.00678305
16547.4	-0.00620157
16557.8	-0.00561596
16568.1	-0.00502665
16578.4	-0.00443409
16588.8	-0.0038387
16599.1	-0.00324094
16609.5	-0.00264125
16619.8	-0.00204006
16630.2	-0.00143781
16640.5	-0.000834956
16650.8	-0.000231924
16661.2	0.000370848
16671.5	0.000972924
16681.9	0.00157388
16692.2	0.00217327
16702.6	0.0027707
16712.9	0.00336573
16723.2	0.00395795
16733.6	0.00454695
16743.9	0.00513233
16754.3	0.0057137
16764.6	0.00629065
16774.9	0.00686282
16785.3	0.00742982
16795.6	0.00799129
16806	0.00854686
16816.3	0.00909619
16826.7	0.00963892
16837	0.0101747
16847.3	0.0107033
16857.7	0.0112243
16868	0.0117374
16878.4	0.0122424
16888.7	0.0127389
16899.1	0.0132267
16909.4	0.0137055
16919.7	0.014175
16930.1	0.0146351
16940.4	0.0150854
16950.8	0.0155258
16961.1	0.015956
16971.4	0.0163759
16981.8	0.0167853
16992.1	0.0171839
17002.5	0.0175717
17012.8	0.0179484
17023.2	0.018314
17033.5	0.0186683
17043.8	0.0190111
17054.2	0.0193424
17064.5	0.0196621
17074.9	0.0199701
17085.2	0.0202664
17095.6	0.0205507
17105.9	0.0208232
17116.2	0.0210838
17126.6	0.0213324
17136.9	0.021569
17147.3	0.0217936
17157.6	0.0220063
17168	0.0222069
17178.3	0.0223956
17188.6	0.0225724
17199	0.0227372
17209.3	0.0228903
17219.7	0.0230315
17230	0.0231611
17240.3	0.023279
17250.7	0.0233853
17261	0.0234802
17271.4	0.0235637
17281.7	0.023636
17292.1	0.0236971
17302.4	0.0237472
17312.7	0.0237863
17323.1	0.0238147
17333.4	0.0238325
17343.8	0.0238398
17354.1	0.0238367
17364.5	0.0238235
17374.8	0.0238002
17385.1	0.0237671
17395.5	0.0237242
17405.8	0.0236719
17416.2	0.0236102
17426.5	0.0235393
17436.8	0.0234595
17447.2	0.0233709
17457.5	0.0232736
17467.9	0.0231679
17478.2	0.023054
17488.6	0.0229321
17498.9	0.0228023
17509.2	0.0226649
17519.6	0.02252
17529.9	0.0223679
17540.3	0.0222087
17550.6	0.0220427
17561	0.02187
17571.3	0.0216909
17581.6	0.0215055
17592	0.021314
17602.3	0.0211167
17612.7	0.0209137
17623	0.0207052
17633.3	0.0204914
17643.7	0.0202726
17654	0.0200488
17664.4	0.0198203
17674.7	0.0195873
17685.1	0.0193499
17695.4	0.0191083
17705.7	0.0188628
17716.1	0.0186134
17726.4	0.0183603
17736.8	0.0181038
17747.1	0.017844
17757.5	0.017581
17767.8	0.017315
17778.1	0.0170462
17788.5	0.0167747
17798.8	0.0165007
17809.2	0.0162243
17819.5	0.0159457
17829.9	0.0156649
17840.2	0.0153822
17850.5	0.0150976
17860.9	0.0148113
17871.2	0.0145235
17881.6	0.0142342
17891.9	0.0139435
17902.2	0.0136516
17912.6	0.0133586
17922.9	0.0130646
17933.3	0.0127697
17943.6	0.0124739
17954	0.0121775
17964.3	0.0118804
17974.6	0.0115828
17985	0.0112848
17995.3	0.0109864
18005.7	0.0106877
18016	0.0103888
18026.4	0.0100898
18036.7	0.00979075
18047	0.00949169
18057.4	0.00919271
18067.7	0.00889387
18078.1	0.00859522
18088.4	0.00829683
18098.7	0.00799874
18109.1	0.00770102
18119.4	0.0074037
18129.8	0.00710685
18140.1	0.00681049
18150.5	0.00651469
18160.8	0.00621947
18171.1	0.00592488
18181.5	0.00563096
18191.8	0.00533774
18202.2	0.00504526
18212.5	0.00475356
18222.9	0.00446266
18233.2	0.00417259
18243.5	0.0038834
18253.9	0.0035951
18264.2	0.00330773
18274.6	0.00302131
18284.9	0.00273587
18295.2	0.00245144
18305.6	0.00216805
18315.9	0.00188571
18326.3	0.00160447
18336.6	0.00132433
18347	0.00104533
18357.3	0.000767499
18367.6	0.000490854
18378	0.000215423
18388.3	-5.87659e-05
18398.7	-0.000331688
18409	-0.000603315
18419.4	-0.00087362
18429.7	-0.00114258
18440	-0.00141015
18450.4	-0.00167632
18460.7	-0.00194105
18471.1	-0.00220432
18481.4	-0.00246608
18491.7	-0.00272632
18502.1	-0.00298498
18512.4	-0.00324205
18522.8	-0.00349749
18533.1	-0.00375125
18543.5	-0.00400331
18553.8	-0.00425363
18564.1	-0.00450216
18574.5	-0.00474887
18584.8	-0.00499371
18595.2	-0.00523665
18605.5	-0.00547764
18615.9	-0.00571663
18626.2	-0.00595359
18636.5	-0.00618846
18646.9	-0.00642121
18657.2	-0.00665177
18667.6	-0.00688011
18677.9	-0.00710617
18688.3	-0.0073299
18698.6	-0.00755125
18708.9	-0.00777018
18719.3	-0.00798662
18729.6	-0.00820052
18740	-0.00841184
18750.3	-0.00862051
18760.6	-0.00882648
18771	-0.00902969
18781.3	-0.0092301
18791.7	-0.00942764
18802	-0.00962226
18812.4	-0.0098139
18822.7	-0.0100025
18833	-0.010188
18843.4	-0.0103704
18853.7	-0.0105495
18864.1	-0.0107254
18874.4	-0.010898
18884.8	-0.0110673
18895.1	-0.0112331
18905.4	-0.0113954
18915.8	-0.0115542
18926.1	-0.0117094
18936.5	-0.0118609
18946.8	-0.0120088
18957.1	-0.012153
18967.5	-0.0122933
18977.8	-0.0124299
18988.2	-0.0125625
18998.5	-0.0126912
19008.9	-0.012816
19019.2	-0.0129367
19029.5	-0.0130534
19039.9	-0.013166
19050.2	-0.0132745
19060.6	-0.0133789
19070.9	-0.013479
19081.3	-0.0135749
19091.6	-0.0136666
19101.9	-0.0137539
19112.3	-0.013837
19122.6	-0.0139157
19133	-0.0139901
19143.3	-0.0140601
19153.6	-0.0141257
19164	-0.014187
19174.3	-0.0142438
19184.7	-0.0142962
19195	-0.0143442
19205.4	-0.0143877
19215.7	-0.0144268
19226	-0.0144615
19236.4	-0.0144918
19246.7	-0.0145176
19257.1	-0.0145391
19267.4	-0.0145561
19277.8	-0.0145688
19288.1	-0.0145771
19298.4	-0.0145811
19308.8	-0.0145807
19319.1	-0.014576
19329.5	-0.0145671
19339.8	-0.014554
19350.1	-0.0145366
19360.5	-0.0145151
19370.8	-0.0144895
19381.2	-0.0144597
19391.5	-0.014426
19401.9	-0.0143882
19412.2	-0.0143465
19422.5	-0.0143009
19432.9	-0.0142514
19443.2	-0.0141982
19453.6	-0.0141412
19463.9	-0.0140806
19474.3	-0.0140164
19484.6	-0.0139486
19494.9	-0.0138774
19505.3	-0.0138027
19515.6	-0.0137247
19526	-0.0136434
19536.3	-0.013559
19546.7	-0.0134714
19557	-0.0133808
19567.3	-0.0132872
19577.7	-0.0131907
19588	-0.0130915
19598.4	-0.0129895
19608.7	-0.0128848
19619	-0.0127777
19629.4	-0.012668
19639.7	-0.0125559
19650.1	-0.0124416
19660.4	-0.012325
19670.8	-0.0122063
19681.1	-0.0120856
19691.4	-0.0119629
19701.8	-0.0118384
19712.1	-0.011712
19722.5	-0.011584
19732.8	-0.0114544
19743.2	-0.0113233
19753.5	-0.0111907
19763.8	-0.0110569
19774.2	-0.0109217
19784.5	-0.0107854
19794.9	-0.0106481
19805.2	-0.0105097
19815.5	-0.0103705
19825.9	-0.0102304
19836.2	-0.0100896
19846.6	-0.00994811
19856.9	-0.00980606
19867.3	-0.00966353
19877.6	-0.00952057
19887.9	-0.00937729
19898.3	-0.00923374
19908.6	-0.00909
19919	-0.00894616
19929.3	-0.00880227
19939.7	-0.00865842
19950	-0.00851466
19960.3	-0.00837108
19970.7	-0.00822772
19981	-0.00808467
19991.4	-0.00794198
