0	0
13.237	0
23.1647	0
33.0924	0
43.0202	0
52.9479	0
62.8756	0
72.8033	0
82.7311	0
92.6588	0
102.587	0
112.514	0
122.442	0
132.37	0
142.297	0
152.225	0
162.153	0
172.081	0
182.008	0
191.936	0
201.864	0
211.792	0
221.719	0
231.647	0
241.575	0
251.502	0
261.43	0
271.358	0
281.286	0
291.213	0
301.141	0
311.069	0
320.997	0
330.924	0
340.852	0
350.78	0
360.707	0
370.635	0
380.563	0
390.491	0
400.418	0
410.346	0
420.274	0
430.202	0
440.129	0
450.057	0
463.294	0
473.222	0
483.149	0
493.077	0
503.005	0
512.933	0
522.86	0
532.788	0
542.716	0
552.644	0
562.571	0
572.499	0
582.427	0
592.354	0
602.282	0
612.21	0
622.138	0
632.065	0
641.993	0
651.921	0
661.849	0
671.776	0
681.704	0
691.632	0
701.559	0
711.487	0
721.415	0
731.343	0
741.27	0
751.198	0
761.126	0
771.054	0
780.981	0
790.909	0
800.837	0
810.764	0
820.692	0
830.62	0
840.548	0
850.475	0
860.403	0
870.331	0
880.259	0
890.186	0
900.114	1.81899e-12
910.042	1.00044e-11
923.279	4.18368e-11
933.206	1.16415e-10
943.134	3.16504e-10
953.062	8.20364e-10
962.99	2.05364e-09
972.917	4.96129e-09
982.845	1.15897e-08
992.773	2.61989e-08
1002.7	5.737e-08
1012.63	1.21814e-07
1022.56	2.51044e-07
1032.48	5.02606e-07
1042.41	9.78371e-07
1052.34	1.85326e-06
1062.27	3.41876e-06
1072.19	6.14653e-06
1082.12	1.0778e-05
1092.05	1.84458e-05
1101.98	3.08324e-05
1111.91	5.03675e-05
1121.83	8.04646e-05
1131.76	0.000125789
1141.69	0.000192541
1151.62	0.000288741
1161.54	0.000424472
1171.47	0.000612063
1181.4	0.000866154
1191.33	0.00120363
1201.26	0.00164338
1211.18	0.00220586
1221.11	0.00291248
1231.04	0.00378492
1240.97	0.00484422
1250.89	0.00611003
1260.82	0.00759994
1270.75	0.00932899
1280.68	0.0113097
1290.6	0.0135525
1300.53	0.0160669
1310.46	0.0188631
1320.39	0.0219545
1330.32	0.025361
1340.24	0.0291125
1350.17	0.0332533
1360.1	0.0378466
1370.03	0.0429788
1383.26	0.0508617
1393.19	0.0577502
1403.12	0.065686
1413.05	0.0748981
1422.97	0.0856524
1432.9	0.0982493
1442.83	0.11302
1452.76	0.130319
1462.69	0.150519
1472.61	0.173993
1482.54	0.20111
1492.47	0.232212
1502.4	0.267604
1512.32	0.307537
1522.25	0.352188
1532.18	0.401649
1542.11	0.455913
1552.03	0.514864
1561.96	0.57827
1571.89	0.645781
1581.82	0.71693
1591.75	0.791141
1601.67	0.867738
1611.6	0.94596
1621.53	1.02498
1631.46	1.10392
1641.38	1.18188
1651.31	1.25794
1661.24	1.33121
1671.17	1.40084
1681.1	1.46601
1691.02	1.52599
1700.95	1.58011
1710.88	1.6278
1720.81	1.66858
1730.73	1.70204
1740.66	1.72787
1750.59	1.74586
1760.52	1.75586
1770.44	1.75778
1780.37	1.75163
1790.3	1.73743
1800.23	1.71527
1810.16	1.68527
1820.08	1.6476
1830.01	1.60243
1843.25	1.53091
1853.18	1.46911
1863.1	1.40063
1873.03	1.32576
1882.96	1.24485
1892.89	1.15826
1902.81	1.06641
1912.74	0.969762
1922.67	0.868818
1932.6	0.764116
1942.53	0.65625
1952.45	0.545854
1962.38	0.433594
1972.31	0.320174
1982.24	0.206314
1992.16	0.0927506
2002.09	-0.0197707
2012.02	-0.130512
2021.95	-0.23875
2031.87	-0.343781
2041.8	-0.44494
2051.73	-0.541603
2061.66	-0.633196
2071.59	-0.719202
2081.51	-0.799169
2091.44	-0.872712
2101.37	-0.93952
2111.3	-0.999354
2121.22	-1.05206
2131.15	-1.09754
2141.08	-1.1358
2151.01	-1.1669
2160.94	-1.19097
2170.86	-1.20822
2180.79	-1.2189
2190.72	-1.22333
2200.65	-1.22187
2210.57	-1.2149
2220.5	-1.20287
2230.43	-1.18622
2240.36	-1.1654
2250.28	-1.14087
2260.21	-1.11311
2270.14	-1.08256
2280.07	-1.04966
2293.31	-1.00283
2303.23	-0.965989
2313.16	-0.928059
2323.09	-0.889356
2333.02	-0.850166
2342.94	-0.810741
2352.87	-0.771303
2362.8	-0.732046
2372.73	-0.693137
2382.65	-0.654721
2392.58	-0.616921
2402.51	-0.579841
2412.44	-0.543571
2422.37	-0.508188
2432.29	-0.473757
2442.22	-0.440337
2452.15	-0.407978
2462.08	-0.376726
2472	-0.34662
2481.93	-0.317697
2491.86	-0.289989
2501.79	-0.263525
2511.72	-0.238331
2521.64	-0.214427
2531.57	-0.191831
2541.5	-0.170556
2551.43	-0.150611
2561.35	-0.132001
2571.28	-0.114723
2581.21	-0.0987722
2591.14	-0.0841372
2601.06	-0.0708019
2610.99	-0.0587452
2620.92	-0.0479416
2630.85	-0.038361
2640.78	-0.0299691
2650.7	-0.0227282
2660.63	-0.0165971
2670.56	-0.0115318
2680.49	-0.00748578
2690.41	-0.0044105
2700.34	-0.0022557
2710.27	-0.000969834
2720.2	-0.000500436
2730.12	-0.000794448
2740.05	-0.00179854
2753.29	-0.00414974
2763.22	-0.00660375
2773.15	-0.00959144
2783.07	-0.0130612
2793	-0.0169622
2802.93	-0.0212449
2812.86	-0.0258607
2822.78	-0.0307623
2832.71	-0.0359042
2842.64	-0.0412419
2852.57	-0.0467329
2862.49	-0.0523364
2872.42	-0.0580133
2882.35	-0.0637265
2892.28	-0.069441
2902.2	-0.0751238
2912.13	-0.0807444
2922.06	-0.0862744
2931.99	-0.0916877
2941.92	-0.0969608
2951.84	-0.102073
2961.77	-0.107006
2971.7	-0.111743
2981.63	-0.116272
2991.55	-0.120581
3001.48	-0.124663
3011.41	-0.128512
3021.34	-0.132124
3031.26	-0.135498
3041.19	-0.138634
3051.12	-0.141536
3061.05	-0.144207
3070.97	-0.146653
3080.9	-0.14888
3090.83	-0.150895
3100.76	-0.152708
3110.69	-0.154326
3120.61	-0.155758
3130.54	-0.157013
3140.47	-0.1581
3150.4	-0.159025
3160.32	-0.159797
3170.25	-0.160423
3180.18	-0.160907
3190.11	-0.161254
3200.03	-0.161469
3213.27	-0.161554
3223.2	-0.161468
3233.13	-0.161254
3243.05	-0.160912
3252.98	-0.160441
3262.91	-0.159838
3272.84	-0.1591
3282.76	-0.158225
3292.69	-0.157209
3302.62	-0.156048
3312.55	-0.154739
3322.47	-0.153278
3332.4	-0.151662
3342.33	-0.149889
3352.26	-0.147956
3362.18	-0.145862
3372.11	-0.143607
3382.04	-0.14119
3391.97	-0.138615
3401.89	-0.135884
3411.82	-0.132999
3421.75	-0.129968
3431.67	-0.126795
3441.6	-0.123487
3451.53	-0.120054
3461.46	-0.116505
3471.38	-0.11285
3481.31	-0.1091
3491.24	-0.105267
3501.17	-0.101363
3511.09	-0.0974007
3521.02	-0.0933936
3530.95	-0.0893548
3540.88	-0.0852974
3550.8	-0.0812346
3560.73	-0.0771793
3570.66	-0.0731442
3580.59	-0.0691413
3590.51	-0.0651825
3600.44	-0.0612789
3610.37	-0.057441
3620.29	-0.0536787
3630.22	-0.0500013
3640.15	-0.0464174
3650.08	-0.0429348
3660	-0.0395608
3673.24	-0.0352421
3683.17	-0.0321456
3693.09	-0.029177
3703.02	-0.0263407
3712.95	-0.0236406
3722.88	-0.02108
3732.8	-0.0186616
3742.73	-0.0163879
3752.66	-0.0142605
3762.59	-0.0122807
3772.51	-0.0104494
3782.44	-0.00876684
3792.37	-0.00723291
3802.3	-0.005847
3812.22	-0.00460802
3822.15	-0.00351443
3832.08	-0.00256419
3842	-0.00175478
3851.93	-0.0010832
3861.86	-0.000545961
3871.79	-0.000139095
3881.71	0.00014186
3891.64	0.000301841
3901.57	0.000346258
3911.5	0.000280981
3921.42	0.000112324
3931.35	-0.000152978
3941.28	-0.000507787
3951.2	-0.000944599
3961.13	-0.00145557
3971.06	-0.00203257
3980.99	-0.00266721
3990.91	-0.00335089
4000.84	-0.00407486
4010.77	-0.0048303
4020.7	-0.00560833
4030.62	-0.00640009
4040.55	-0.00719681
4050.48	-0.0079899
4060.41	-0.00877094
4070.33	-0.00953183
4080.26	-0.0102648
4090.19	-0.0109623
4100.12	-0.0116176
4110.04	-0.0122241
4123.28	-0.0129467
4133.21	-0.0134171
4143.14	-0.0138211
4153.06	-0.0141546
4162.99	-0.0144141
4172.92	-0.0145968
4182.85	-0.0147003
4192.77	-0.0147228
4202.7	-0.014663
4212.63	-0.0145202
4222.56	-0.0142938
4232.48	-0.0139838
4242.41	-0.0135904
4252.34	-0.0131141
4262.27	-0.0125555
4272.19	-0.0119154
4282.12	-0.0111945
4292.05	-0.0103937
4301.98	-0.00951378
4311.91	-0.00855532
4321.83	-0.00751888
4331.76	-0.00640479
4341.69	-0.00521321
4351.62	-0.00394406
4361.54	-0.00259704
4371.47	-0.00117163
4381.4	0.000332927
4391.33	0.00191759
4401.25	0.00358352
4411.18	0.005332
4421.11	0.00716448
4431.04	0.00908246
4440.97	0.0110875
4450.89	0.0131811
4460.82	0.0153647
4470.75	0.0176396
4480.68	0.0200069
4490.6	0.0224676
4500.53	0.025022
4510.46	0.0276704
4520.39	0.0304124
4530.31	0.0332471
4540.24	0.0361732
4550.17	0.0391886
4560.1	0.0422906
4570.02	0.0454757
4583.26	0.0498444
4593.19	0.0532057
4603.12	0.0566331
4613.04	0.0601196
4622.97	0.0636576
4632.9	0.0672386
4642.83	0.0708533
4652.75	0.0744919
4662.68	0.0781437
4672.61	0.0817974
4682.54	0.0854413
4692.47	0.0890631
4702.39	0.0926504
4712.32	0.0961901
4722.25	0.0996694
4732.18	0.103075
4742.1	0.106394
4752.03	0.109613
4761.96	0.11272
4771.89	0.115702
4781.81	0.118548
4791.74	0.121245
4801.67	0.123784
4811.6	0.126154
4821.52	0.128346
4831.45	0.130351
4841.38	0.132161
4851.31	0.13377
4861.24	0.135172
4871.16	0.136361
4881.09	0.137334
4891.02	0.138088
4900.95	0.13862
4910.87	0.138928
4920.8	0.139014
4930.73	0.138875
4940.66	0.138515
4950.58	0.137935
4960.51	0.137138
4970.44	0.136127
4980.37	0.134906
4990.29	0.133481
5000.22	0.131856
5010.15	0.130037
5020.08	0.128032
5030.01	0.125846
5043.24	0.122664
5053.17	0.120088
5063.1	0.117357
5073.03	0.114482
5082.95	0.11147
5092.88	0.108331
5102.81	0.105074
5112.74	0.101709
5122.66	0.0982469
5132.59	0.0946965
5142.52	0.0910685
5152.45	0.087373
5162.37	0.0836206
5172.3	0.0798218
5182.23	0.0759869
5192.16	0.0721265
5202.09	0.0682511
5212.01	0.0643711
5221.94	0.0604967
5231.87	0.0566382
5241.8	0.0528055
5251.72	0.0490086
5261.65	0.0452571
5271.58	0.0415602
5281.51	0.0379271
5291.43	0.0343665
5301.36	0.0308868
5311.29	0.0274959
5321.22	0.0242014
5331.15	0.0210104
5341.07	0.0179294
5351	0.0149645
5360.93	0.0121213
5370.86	0.00940464
5380.78	0.00681891
5390.71	0.00436784
5400.64	0.00205454
5410.57	-0.000118536
5420.49	-0.00214955
5430.42	-0.00403733
5440.35	-0.00578133
5450.28	-0.00738167
5460.2	-0.00883905
5470.13	-0.0101548
5480.06	-0.0113308
5493.3	-0.0126859
5503.22	-0.0135465
5513.15	-0.0142775
5523.08	-0.0148832
5533.01	-0.0153678
5542.94	-0.0157364
5552.86	-0.0159939
5562.79	-0.0161457
5572.72	-0.0161975
5582.65	-0.0161549
5592.57	-0.0160237
5602.5	-0.0158098
5612.43	-0.0155189
5622.36	-0.0151569
5632.28	-0.0147295
5642.21	-0.0142422
5652.14	-0.0137002
5662.07	-0.0131089
5671.99	-0.012473
5681.92	-0.0117972
5691.85	-0.0110857
5701.78	-0.0103426
5711.71	-0.00957158
5721.63	-0.00877594
5731.56	-0.00795871
5741.49	-0.00712257
5751.42	-0.00626985
5761.34	-0.00540261
5771.27	-0.00452256
5781.2	-0.00363118
5791.13	-0.00272965
5801.05	-0.00181893
5810.98	-0.000899773
5820.91	2.72676e-05
5830.84	0.000961777
5840.76	0.00190347
5850.69	0.00285215
5860.62	0.0038077
5870.55	0.00477003
5880.48	0.00573906
5890.4	0.00671468
5900.33	0.00769678
5910.26	0.00868515
5920.19	0.00967951
5930.11	0.0106795
5940.04	0.0116846
5953.28	0.0130318
5963.21	0.0140464
5973.13	0.0150637
5983.06	0.0160826
5992.99	0.0171021
6002.92	0.0181209
6012.84	0.0191375
6022.77	0.0201507
6032.7	0.0211587
6042.63	0.0221601
6052.56	0.0231533
6062.48	0.0241364
6072.41	0.0251079
6082.34	0.0260661
6092.27	0.0270092
6102.19	0.0279358
6112.12	0.0288441
6122.05	0.0297327
6131.98	0.0306002
6141.9	0.0314453
6151.83	0.0322668
6161.76	0.0330634
6171.69	0.0338343
6181.62	0.0345785
6191.54	0.0352953
6201.47	0.0359841
6211.4	0.0366443
6221.33	0.0372755
6231.25	0.0378775
6241.18	0.0384501
6251.11	0.0389931
6261.04	0.0395066
6270.96	0.0399907
6280.89	0.0404455
6290.82	0.0408713
6300.75	0.0412683
6310.68	0.0416368
6320.6	0.0419772
6330.53	0.0422899
6340.46	0.0425754
6350.39	0.042834
6360.31	0.0430662
6370.24	0.0432724
6380.17	0.0434531
6390.1	0.0436088
6400.02	0.0437399
6413.26	0.0438771
6423.19	0.0439525
6433.12	0.0440047
6443.04	0.0440341
6452.97	0.0440412
6462.9	0.0440263
6472.83	0.0439898
6482.76	0.043932
6492.68	0.0438534
6502.61	0.0437541
6512.54	0.0436347
6522.47	0.0434952
6532.39	0.0433361
6542.32	0.0431576
6552.25	0.0429598
6562.18	0.0427431
6572.1	0.0425075
6582.03	0.0422532
6591.96	0.0419803
6601.89	0.0416888
6611.82	0.0413788
6621.74	0.0410502
6631.67	0.0407029
6641.6	0.0403366
6651.53	0.0399513
6661.45	0.0395466
6671.38	0.0391221
6681.31	0.0386773
6691.24	0.0382118
6701.16	0.037725
6711.09	0.0372161
6721.02	0.0366844
6730.95	0.036129
6740.88	0.0355491
6750.8	0.0349436
6760.73	0.0343114
6770.66	0.0336515
6780.59	0.0329624
6790.51	0.0322431
6800.44	0.0314921
6810.37	0.030708
6820.3	0.0298894
6830.22	0.0290349
6840.15	0.028143
6850.08	0.0272122
6860.01	0.026241
6873.24	0.0248806
6883.17	0.0238094
6893.1	0.022693
6903.03	0.0215301
6912.96	0.0203194
6922.88	0.0190597
6932.81	0.0177498
6942.74	0.0163889
6952.67	0.0149761
6962.59	0.0135105
6972.52	0.0119916
6982.45	0.0104189
6992.38	0.00879216
7002.3	0.00711119
7012.23	0.00537602
7022.16	0.00358686
7032.09	0.00174407
7042.02	-0.000151805
7051.94	-0.00210003
7061.87	-0.00409971
7071.8	-0.00614977
7081.73	-0.00824897
7091.65	-0.0103959
7101.58	-0.012589
7111.51	-0.0148265
7121.44	-0.0171065
7131.36	-0.0194272
7141.29	-0.0217862
7151.22	-0.0241813
7161.15	-0.0266102
7171.08	-0.0290703
7181	-0.0315591
7190.93	-0.0340739
7200.86	-0.036612
7210.79	-0.0391705
7220.71	-0.0417465
7230.64	-0.0443371
7240.57	-0.0469394
7250.5	-0.0495502
7260.42	-0.0521667
7270.35	-0.0547856
7280.28	-0.057404
7290.21	-0.0600187
7300.14	-0.0626267
7310.06	-0.0652248
7323.3	-0.0686685
7333.23	-0.071232
7343.15	-0.0737755
7353.08	-0.0762962
7363.01	-0.0787912
7372.94	-0.0812577
7382.87	-0.0836928
7392.79	-0.0860938
7402.72	-0.0884582
7412.65	-0.0907834
7422.58	-0.0930669
7432.5	-0.0953064
7442.43	-0.0974997
7452.36	-0.0996445
7462.29	-0.101739
7472.21	-0.103781
7482.14	-0.105769
7492.07	-0.107702
7502	-0.109577
7511.92	-0.111394
7521.85	-0.113151
7531.78	-0.114848
7541.71	-0.116483
7551.63	-0.118055
7561.56	-0.119564
7571.49	-0.121009
7581.42	-0.12239
7591.35	-0.123708
7601.27	-0.12496
7611.2	-0.126149
7621.13	-0.127273
7631.06	-0.128333
7640.98	-0.129329
7650.91	-0.130263
7660.84	-0.131133
7670.77	-0.131942
7680.69	-0.13269
7690.62	-0.133377
7700.55	-0.134005
7710.48	-0.134574
7720.4	-0.135086
7730.33	-0.135542
7740.26	-0.135942
7750.19	-0.136288
7760.11	-0.136581
7770.04	-0.136822
7783.28	-0.137065
7793.21	-0.137191
7803.13	-0.137269
7813.06	-0.137301
7822.99	-0.137288
7832.92	-0.137231
7842.84	-0.137132
7852.77	-0.136992
7862.7	-0.136812
7872.63	-0.136594
7882.56	-0.136338
7892.48	-0.136045
7902.41	-0.135718
7912.34	-0.135356
7922.27	-0.134961
7932.19	-0.134534
7942.12	-0.134076
7952.05	-0.133588
7961.98	-0.13307
7971.9	-0.132524
7981.83	-0.13195
7991.76	-0.131348
8001.69	-0.130719
8011.61	-0.130065
8021.54	-0.129385
8031.47	-0.12868
8041.4	-0.12795
8051.33	-0.127196
8061.25	-0.126417
8071.18	-0.125615
8081.11	-0.12479
8091.04	-0.123942
8100.96	-0.123071
8110.89	-0.122177
8120.82	-0.12126
8130.75	-0.120322
8140.67	-0.119361
8150.6	-0.118379
8160.53	-0.117375
8170.46	-0.116351
8180.38	-0.115305
8190.31	-0.114239
8200.24	-0.113152
8210.17	-0.112046
8220.1	-0.11092
8230.02	-0.109776
8243.26	-0.108221
8253.19	-0.107034
8263.12	-0.105829
8273.04	-0.104608
8282.97	-0.103371
8292.9	-0.102118
8302.83	-0.100849
8312.75	-0.0995665
8322.68	-0.0982696
8332.61	-0.0969591
8342.54	-0.0956355
8352.46	-0.0942993
8362.39	-0.0929507
8372.32	-0.0915902
8382.25	-0.0902179
8392.18	-0.0888342
8402.1	-0.0874389
8412.03	-0.0860323
8421.96	-0.0846142
8431.89	-0.0831844
8441.81	-0.0817427
8451.74	-0.0802886
8461.67	-0.0788218
8471.6	-0.0773417
8481.52	-0.0758476
8491.45	-0.0743387
8501.38	-0.0728142
8511.31	-0.0712732
8521.24	-0.0697146
8531.16	-0.0681373
8541.09	-0.0665403
8551.02	-0.0649223
8560.95	-0.0632821
8570.87	-0.0616185
8580.8	-0.0599302
8590.73	-0.058216
8600.66	-0.0564747
8610.59	-0.0547051
8620.51	-0.0529061
8630.44	-0.0510766
8640.37	-0.0492157
8650.3	-0.0473225
8660.22	-0.0453963
8670.15	-0.0434364
8680.08	-0.0414424
8690.01	-0.0394139
8703.24	-0.0366554
8713.17	-0.0345462
8723.1	-0.0324027
8733.03	-0.0302254
8742.95	-0.0280148
8752.88	-0.0257718
8762.81	-0.0234974
8772.74	-0.0211929
8782.67	-0.0188596
8792.59	-0.0164992
8802.52	-0.0141133
8812.45	-0.011704
8822.38	-0.00927331
8832.3	-0.0068235
8842.23	-0.00435698
8852.16	-0.00187625
8862.09	0.000616055
8872.01	0.0031172
8881.94	0.00562437
8891.87	0.00813467
8901.8	0.0106452
8911.73	0.0131529
8921.65	0.0156548
8931.58	0.0181479
8941.51	0.0206292
8951.44	0.0230957
8961.36	0.0255444
8971.29	0.0279724
8981.22	0.0303769
8991.15	0.0327551
9001.07	0.0351042
9011	0.0374217
9020.93	0.0397049
9030.86	0.0419516
9040.79	0.0441594
9050.71	0.046326
9060.64	0.0484495
9070.57	0.0505278
9080.5	0.0525592
9090.42	0.0545419
9100.35	0.0564744
9110.28	0.0583552
9120.21	0.060183
9130.13	0.0619567
9140.06	0.063675
9153.3	0.0658787
9163.23	0.0674647
9173.15	0.0689927
9183.08	0.0704622
9193.01	0.0718727
9202.94	0.0732239
9212.87	0.0745153
9222.79	0.0757469
9232.72	0.0769186
9242.65	0.0780302
9252.58	0.0790818
9262.5	0.0800736
9272.43	0.0810055
9282.36	0.081878
9292.29	0.0826911
9302.21	0.0834451
9312.14	0.0841404
9322.07	0.0847773
9332	0.0853562
9341.93	0.0858773
9351.85	0.0863412
9361.78	0.0867481
9371.71	0.0870985
9381.64	0.0873927
9391.56	0.0876312
9401.49	0.0878142
9411.42	0.0879422
9421.35	0.0880155
9431.27	0.0880344
9441.2	0.0879991
9451.13	0.0879101
9461.06	0.0877675
9470.99	0.0875716
9480.91	0.0873226
9490.84	0.0870208
9500.77	0.0866664
9510.7	0.0862595
9520.62	0.0858004
9530.55	0.0852891
9540.48	0.0847261
9550.41	0.0841113
9560.34	0.0834451
9570.26	0.0827276
9580.19	0.0819592
9590.12	0.0811401
9600.05	0.0802707
9613.28	0.0790337
9623.21	0.0780484
9633.14	0.0770142
9643.07	0.0759316
9652.99	0.0748015
9662.92	0.0736245
9672.85	0.0724014
9682.78	0.0711332
9692.7	0.0698209
9702.63	0.0684656
9712.56	0.0670686
9722.49	0.0656312
9732.42	0.0641549
9742.34	0.0626412
9752.27	0.0610919
9762.2	0.0595087
9772.13	0.0578936
9782.05	0.0562486
9791.98	0.0545759
9801.91	0.0528777
9811.84	0.0511564
9821.77	0.0494144
9831.69	0.0476543
9841.62	0.0458788
9851.55	0.0440904
9861.48	0.0422921
9871.4	0.0404866
9881.33	0.0386769
9891.26	0.0368659
9901.19	0.0350564
9911.11	0.0332517
9921.04	0.0314545
9930.97	0.029668
9940.9	0.0278951
9950.83	0.0261388
9960.75	0.024402
9970.68	0.0226877
9980.61	0.0209987
9990.54	0.0193378
10000.5	0.0177078
10010.4	0.0161113
10020.3	0.0145509
10030.2	0.0130291
10040.2	0.0115483
10050.1	0.0101107
10060	0.0087187
10073.3	0.00693695
10083.2	0.00565886
10093.1	0.00443267
10103.1	0.00326004
10113	0.00214247
10122.9	0.00108135
10132.8	7.79216e-05
10142.8	-0.000866733
10152.7	-0.00175166
10162.6	-0.00257607
10172.5	-0.0033393
10182.5	-0.00404087
10192.4	-0.00468043
10202.3	-0.0052578
10212.3	-0.00577293
10222.2	-0.00622596
10232.1	-0.00661715
10242	-0.00694693
10252	-0.00721588
10261.9	-0.00742472
10271.8	-0.00757434
10281.7	-0.00766575
10291.7	-0.00770011
10301.6	-0.00767872
10311.5	-0.007603
10321.5	-0.0074745
10331.4	-0.00729489
10341.3	-0.00706596
10351.2	-0.00678959
10361.2	-0.00646776
10371.1	-0.00610254
10381	-0.00569606
10391	-0.00525055
10400.9	-0.00476826
10410.8	-0.0042515
10420.7	-0.00370262
10430.7	-0.00312397
10440.6	-0.00251794
10450.5	-0.00188689
10460.4	-0.00123318
10470.4	-0.000559133
10480.3	0.000132948
10490.2	0.000840817
10500.2	0.00156229
10510.1	0.00229524
10520	0.00303761
10533.2	0.00403875
10543.2	0.00479566
10553.1	0.00555582
10563	0.00631759
10573	0.00707945
10582.9	0.00783995
10592.8	0.0085978
10602.7	0.00935177
10612.7	0.0101008
10622.6	0.0108438
10632.5	0.01158
10642.5	0.0123085
10652.4	0.0130286
10662.3	0.0137397
10672.2	0.0144413
10682.2	0.0151329
10692.1	0.015814
10702	0.0164844
10711.9	0.0171436
10721.9	0.0177913
10731.8	0.0184274
10741.7	0.0190515
10751.7	0.0196633
10761.6	0.0202628
10771.5	0.0208495
10781.4	0.0214232
10791.4	0.0219835
10801.3	0.0225302
10811.2	0.0230628
10821.2	0.023581
10831.1	0.0240842
10841	0.0245719
10850.9	0.0250436
10860.9	0.0254987
10870.8	0.0259365
10880.7	0.0263564
10890.6	0.0267575
10900.6	0.027139
10910.5	0.0275003
10920.4	0.0278404
10930.4	0.0281584
10940.3	0.0284535
10950.2	0.0287248
10960.1	0.0289715
10970.1	0.0291926
10983.3	0.0294461
10993.2	0.0296043
11003.2	0.0297341
11013.1	0.0298349
11023	0.0299061
11032.9	0.0299469
11042.9	0.0299568
11052.8	0.0299354
11062.7	0.0298823
11072.7	0.0297973
11082.6	0.02968
11092.5	0.0295304
11102.4	0.0293486
11112.4	0.0291346
11122.3	0.0288887
11132.2	0.0286113
11142.1	0.0283026
11152.1	0.0279634
11162	0.0275942
11171.9	0.0271959
11181.9	0.0267693
11191.8	0.0263153
11201.7	0.025835
11211.6	0.0253296
11221.6	0.0248002
11231.5	0.0242482
11241.4	0.0236748
11251.4	0.0230816
11261.3	0.0224699
11271.2	0.0218412
11281.1	0.0211971
11291.1	0.0205391
11301	0.0198687
11310.9	0.0191875
11320.8	0.0184971
11330.8	0.0177988
11340.7	0.0170943
11350.6	0.016385
11360.6	0.0156723
11370.5	0.0149575
11380.4	0.014242
11390.3	0.0135269
11400.3	0.0128134
11410.2	0.0121026
11420.1	0.0113954
11430.1	0.0106927
11443.3	0.00976412
11453.2	0.00907481
11463.1	0.00839222
11473.1	0.00771679
11483	0.00704883
11492.9	0.00638858
11502.9	0.00573616
11512.8	0.00509158
11522.7	0.00445476
11532.6	0.00382552
11542.6	0.00320358
11552.5	0.00258859
11562.4	0.00198012
11572.3	0.00137766
11582.3	0.000780614
11592.2	0.000188366
11602.1	-0.00039977
11612.1	-0.000984514
11622	-0.00156662
11631.9	-0.00214684
11641.8	-0.00272598
11651.8	-0.0033048
11661.7	-0.00388406
11671.6	-0.00446451
11681.6	-0.00504686
11691.5	-0.00563176
11701.4	-0.00621984
11711.3	-0.00681163
11721.3	-0.00740761
11731.2	-0.00800818
11741.1	-0.00861362
11751	-0.00922416
11761	-0.00983989
11770.9	-0.0104608
11780.8	-0.0110868
11790.8	-0.0117176
11800.7	-0.012353
11810.6	-0.0129923
11820.5	-0.0136351
11830.5	-0.0142805
11840.4	-0.0149279
11850.3	-0.0155762
11860.2	-0.0162244
11870.2	-0.0168713
11880.1	-0.0175158
11890	-0.0181564
11903.3	-0.0190021
11913.2	-0.0196282
11923.1	-0.0202454
11933.1	-0.0208523
11943	-0.021447
11952.9	-0.0220281
11962.8	-0.0225938
11972.8	-0.0231424
11982.7	-0.0236723
11992.6	-0.0241818
12002.5	-0.0246695
12012.5	-0.0251337
12022.4	-0.0255731
12032.3	-0.0259862
12042.3	-0.0263717
12052.2	-0.0267285
12062.1	-0.0270554
12072	-0.0273516
12082	-0.0276161
12091.9	-0.0278484
12101.8	-0.0280477
12111.8	-0.0282137
12121.7	-0.0283461
12131.6	-0.0284448
12141.5	-0.0285098
12151.5	-0.0285413
12161.4	-0.0285397
12171.3	-0.0285053
12181.2	-0.0284389
12191.2	-0.0283412
12201.1	-0.0282131
12211	-0.0280557
12221	-0.0278702
12230.9	-0.0276578
12240.8	-0.02742
12250.7	-0.0271583
12260.7	-0.0268744
12270.6	-0.0265699
12280.5	-0.0262467
12290.4	-0.0259066
12300.4	-0.0255516
12310.3	-0.0251837
12320.2	-0.024805
12330.2	-0.0244174
12340.1	-0.0240232
12350	-0.0236244
12363.3	-0.0230893
12373.2	-0.0226883
12383.1	-0.0222899
12393	-0.0218962
12403	-0.0215093
12412.9	-0.0211312
12422.8	-0.0207641
12432.7	-0.0204099
12442.7	-0.0200705
12452.6	-0.0197478
12462.5	-0.0194436
12472.5	-0.0191597
12482.4	-0.0188978
12492.3	-0.0186594
12502.2	-0.018446
12512.2	-0.0182591
12522.1	-0.0181001
12532	-0.0179702
12542	-0.0178705
12551.9	-0.0178022
12561.8	-0.0177661
12571.7	-0.0177631
12581.7	-0.017794
12591.6	-0.0178594
12601.5	-0.0179598
12611.4	-0.0180956
12621.4	-0.0182672
12631.3	-0.0184747
12641.2	-0.0187183
12651.2	-0.0189977
12661.1	-0.019313
12671	-0.0196637
12680.9	-0.0200495
12690.9	-0.0204699
12700.8	-0.0209243
12710.7	-0.0214119
12720.6	-0.0219319
12730.6	-0.0224833
12740.5	-0.023065
12750.4	-0.0236759
12760.4	-0.0243148
12770.3	-0.0249803
12780.2	-0.0256709
12790.1	-0.0263852
12800.1	-0.0271216
12813.3	-0.0281348
12823.2	-0.0289161
12833.2	-0.0297136
12843.1	-0.0305257
12853	-0.0313503
12862.9	-0.0321856
12872.9	-0.0330297
12882.8	-0.0338807
12892.7	-0.0347365
12902.7	-0.0355953
12912.6	-0.0364552
12922.5	-0.0373142
12932.4	-0.0381706
12942.4	-0.0390223
12952.3	-0.0398678
12962.2	-0.0407053
12972.2	-0.041533
12982.1	-0.0423495
12992	-0.0431531
13001.9	-0.0439426
13011.9	-0.0447165
13021.8	-0.0454735
13031.7	-0.0462126
13041.6	-0.0469327
13051.6	-0.0476329
13061.5	-0.0483123
13071.4	-0.0489702
13081.4	-0.049606
13091.3	-0.0502193
13101.2	-0.0508097
13111.1	-0.0513769
13121.1	-0.0519207
13131	-0.0524413
13140.9	-0.0529386
13150.8	-0.0534129
13160.8	-0.0538644
13170.7	-0.0542936
13180.6	-0.054701
13190.6	-0.0550871
13200.5	-0.0554527
13210.4	-0.0557985
13220.3	-0.0561253
13230.3	-0.0564341
13240.2	-0.0567258
13250.1	-0.0570015
13260.1	-0.0572621
13273.3	-0.0575882
13283.2	-0.0578182
13293.1	-0.058037
13303.1	-0.0582457
13313	-0.0584455
13322.9	-0.0586376
13332.9	-0.0588231
13342.8	-0.0590032
13352.7	-0.0591789
13362.6	-0.0593513
13372.6	-0.0595215
13382.5	-0.0596904
13392.4	-0.0598589
13402.4	-0.0600279
13412.3	-0.060198
13422.2	-0.0603701
13432.1	-0.0605448
13442.1	-0.0607225
13452	-0.0609037
13461.9	-0.0610888
13471.8	-0.0612781
13481.8	-0.0614716
13491.7	-0.0616695
13501.6	-0.0618718
13511.6	-0.0620783
13521.5	-0.0622887
13531.4	-0.0625028
13541.3	-0.0627202
13551.3	-0.0629404
13561.2	-0.0631628
13571.1	-0.0633867
13581.1	-0.0636113
13591	-0.0638359
13600.9	-0.0640596
13610.8	-0.0642814
13620.8	-0.0645002
13630.7	-0.0647152
13640.6	-0.0649251
13650.5	-0.0651288
13660.5	-0.0653252
13670.4	-0.065513
13680.3	-0.0656912
13690.3	-0.0658584
13700.2	-0.0660135
13710.1	-0.0661552
13720	-0.0662825
13733.3	-0.0664277
13743.2	-0.0665167
13753.1	-0.0665875
13763.1	-0.066639
13773	-0.0666703
13782.9	-0.0666804
13792.8	-0.0666685
13802.8	-0.0666338
13812.7	-0.0665755
13822.6	-0.0664929
13832.6	-0.0663855
13842.5	-0.0662527
13852.4	-0.0660942
13862.3	-0.0659094
13872.3	-0.0656982
13882.2	-0.0654603
13892.1	-0.0651955
13902	-0.0649039
13912	-0.0645854
13921.9	-0.0642402
13931.8	-0.0638683
13941.8	-0.06347
13951.7	-0.0630456
13961.6	-0.0625954
13971.5	-0.0621198
13981.5	-0.0616192
13991.4	-0.0610943
14001.3	-0.0605454
14011.3	-0.0599733
14021.2	-0.0593784
14031.1	-0.0587616
14041	-0.0581233
14051	-0.0574644
14060.9	-0.0567855
14070.8	-0.0560873
14080.7	-0.0553707
14090.7	-0.0546363
14100.6	-0.0538849
14110.5	-0.0531172
14120.5	-0.052334
14130.4	-0.051536
14140.3	-0.0507239
14150.2	-0.0498985
14160.2	-0.0490603
14170.1	-0.0482102
14180	-0.0473488
14193.3	-0.0461839
14203.2	-0.0452986
14213.1	-0.0444042
14223	-0.0435012
14233	-0.0425903
14242.9	-0.0416719
14252.8	-0.0407467
14262.8	-0.0398152
14272.7	-0.038878
14282.6	-0.0379355
14292.5	-0.0369884
14302.5	-0.036037
14312.4	-0.035082
14322.3	-0.0341238
14332.2	-0.0331629
14342.2	-0.0321999
14352.1	-0.0312352
14362	-0.0302694
14372	-0.029303
14381.9	-0.0283364
14391.8	-0.0273702
14401.7	-0.0264049
14411.7	-0.0254411
14421.6	-0.0244792
14431.5	-0.0235199
14441.5	-0.0225637
14451.4	-0.0216111
14461.3	-0.0206627
14471.2	-0.0197191
14481.2	-0.0187809
14491.1	-0.0178485
14501	-0.0169226
14510.9	-0.0160038
14520.9	-0.0150925
14530.8	-0.0141895
14540.7	-0.0132952
14550.7	-0.0124101
14560.6	-0.0115349
14570.5	-0.01067
14580.4	-0.0098159
14590.4	-0.00897314
14600.3	-0.00814216
14610.2	-0.0073234
14620.2	-0.0065173
14630.1	-0.00572424
14640	-0.00494459
14653.2	-0.0039265
14663.2	-0.00317941
14673.1	-0.00244674
14683	-0.00172873
14693	-0.00102559
14702.9	-0.000337475
14712.8	0.000335467
14722.7	0.000993132
14732.7	0.00163545
14742.6	0.00226237
14752.5	0.0028739
14762.4	0.00347004
14772.4	0.00405084
14782.3	0.00461638
14792.2	0.00516676
14802.2	0.0057021
14812.1	0.00622253
14822	0.00672824
14831.9	0.00721939
14841.9	0.00769619
14851.8	0.00815884
14861.7	0.00860756
14871.7	0.00904259
14881.6	0.00946417
14891.5	0.00987253
14901.4	0.0102679
14911.4	0.0106506
14921.3	0.0110208
14931.2	0.0113789
14941.1	0.0117249
14951.1	0.0120592
14961	0.0123821
14970.9	0.0126937
14980.9	0.0129943
14990.8	0.0132842
15000.7	0.0135635
15010.6	0.0138325
15020.6	0.0140914
15030.5	0.0143403
15040.4	0.0145796
15050.4	0.0148095
15060.3	0.0150301
15070.2	0.0152416
15080.1	0.0154443
15090.1	0.0156384
15103.3	0.0158841
15113.2	0.016059
15123.2	0.016226
15133.1	0.0163853
15143	0.0165373
15152.9	0.0166822
15162.9	0.0168202
15172.8	0.0169517
15182.7	0.0170769
15192.6	0.0171961
15202.6	0.0173098
15212.5	0.017418
15222.4	0.0175214
15232.4	0.0176201
15242.3	0.0177146
15252.2	0.0178051
15262.1	0.0178922
15272.1	0.0179762
15282	0.0180574
15291.9	0.0181363
15301.9	0.0182132
15311.8	0.0182887
15321.7	0.0183629
15331.6	0.0184364
15341.6	0.0185095
15351.5	0.0185825
15361.4	0.0186559
15371.3	0.0187299
15381.3	0.0188048
15391.2	0.018881
15401.1	0.0189587
15411.1	0.0190381
15421	0.0191194
15430.9	0.0192029
15440.8	0.0192886
15450.8	0.0193767
15460.7	0.0194672
15470.6	0.0195602
15480.6	0.0196556
15490.5	0.0197535
15500.4	0.0198536
15510.3	0.0199561
15520.3	0.0200606
15530.2	0.020167
15540.1	0.0202751
15550	0.0203847
15563.3	0.0205326
15573.2	0.0206445
15583.1	0.020757
15593.1	0.0208696
15603	0.0209821
15612.9	0.0210941
15622.9	0.0212053
15632.8	0.0213152
15642.7	0.0214237
15652.6	0.0215303
15662.6	0.0216346
15672.5	0.0217365
15682.4	0.0218355
15692.3	0.0219314
15702.3	0.0220239
15712.2	0.0221127
15722.1	0.0221978
15732.1	0.0222787
15742	0.0223555
15751.9	0.0224278
15761.8	0.0224957
15771.8	0.0225589
15781.7	0.0226175
15791.6	0.0226714
15801.5	0.0227205
15811.5	0.022765
15821.4	0.0228048
15831.3	0.0228401
15841.3	0.0228709
15851.2	0.0228974
15861.1	0.0229197
15871	0.0229381
15881	0.0229527
15890.9	0.0229638
15900.8	0.0229717
15910.8	0.0229767
15920.7	0.0229791
15930.6	0.0229793
15940.5	0.0229776
15950.5	0.0229745
15960.4	0.0229704
15970.3	0.0229657
15980.2	0.022961
15990.2	0.0229567
16000.1	0.0229532
16010	0.0229513
16023.3	0.0229518
16033.2	0.0229553
16043.1	0.022962
16053.1	0.0229726
16063	0.0229875
16072.9	0.0230074
16082.8	0.0230327
16092.8	0.0230641
16102.7	0.023102
16112.6	0.023147
16122.5	0.0231996
16132.5	0.0232602
16142.4	0.0233294
16152.3	0.0234074
16162.3	0.0234947
16172.2	0.0235917
16182.1	0.0236986
16192	0.0238158
16202	0.0239435
16211.9	0.0240819
16221.8	0.024231
16231.8	0.0243911
16241.7	0.0245621
16251.6	0.0247441
16261.5	0.0249369
16271.5	0.0251405
16281.4	0.0253547
16291.3	0.0255793
16301.2	0.0258139
16311.2	0.0260583
16321.1	0.0263121
16331	0.0265748
16341	0.026846
16350.9	0.0271251
16360.8	0.0274115
16370.7	0.0277046
16380.7	0.0280037
16390.6	0.0283082
16400.5	0.0286172
16410.4	0.02893
16420.4	0.0292458
16430.3	0.0295637
16440.2	0.0298829
16450.2	0.0302025
16460.1	0.0305216
16470	0.0308393
16483.3	0.0312592
16493.2	0.0315702
16503.1	0.0318767
16513	0.032178
16523	0.032473
16532.9	0.032761
16542.8	0.0330412
16552.7	0.0333126
16562.7	0.0335746
16572.6	0.0338263
16582.5	0.0340672
16592.5	0.0342964
16602.4	0.0345135
16612.3	0.0347178
16622.2	0.0349089
16632.2	0.0350862
16642.1	0.0352494
16652	0.0353981
16662	0.035532
16671.9	0.035651
16681.8	0.0357549
16691.7	0.0358436
16701.7	0.035917
16711.6	0.0359753
16721.5	0.0360185
16731.4	0.0360468
16741.4	0.0360604
16751.3	0.0360596
16761.2	0.0360449
16771.2	0.0360165
16781.1	0.0359751
16791	0.035921
16800.9	0.0358549
16810.9	0.0357774
16820.8	0.0356892
16830.7	0.035591
16840.6	0.0354834
16850.6	0.0353673
16860.5	0.0352435
16870.4	0.0351128
16880.4	0.034976
16890.3	0.034834
16900.2	0.0346876
16910.1	0.0345376
16920.1	0.0343848
16933.3	0.0341784
16943.2	0.0340224
16953.2	0.0338664
16963.1	0.0337111
16973	0.0335572
16982.9	0.0334052
16992.9	0.0332559
17002.8	0.0331098
17012.7	0.0329673
17022.7	0.0328289
17032.6	0.0326949
17042.5	0.0325657
17052.4	0.0324413
17062.4	0.0323219
17072.3	0.0322075
17082.2	0.0320981
17092.2	0.0319934
17102.1	0.0318932
17112	0.031797
17121.9	0.0317045
17131.9	0.0316149
17141.8	0.0315277
17151.7	0.0314419
17161.6	0.0313567
17171.6	0.031271
17181.5	0.0311838
17191.4	0.0310936
17201.4	0.0309992
17211.3	0.0308991
17221.2	0.0307917
17231.1	0.0306755
17241.1	0.0305485
17251	0.030409
17260.9	0.0302551
17270.9	0.0300847
17280.8	0.0298957
17290.7	0.029686
17300.6	0.0294535
17310.6	0.0291958
17320.5	0.0289106
17330.4	0.0285956
17340.3	0.0282485
17350.3	0.0278669
17360.2	0.0274484
17370.1	0.0269906
17380.1	0.0264912
17393.3	0.0257567
17403.2	0.0251512
17413.1	0.0244966
17423.1	0.0237906
17433	0.0230312
17442.9	0.0222163
17452.9	0.0213442
17462.8	0.0204129
17472.7	0.019421
17482.6	0.0183667
17492.6	0.0172487
17502.5	0.0160659
17512.4	0.0148171
17522.4	0.0135014
17532.3	0.0121181
17542.2	0.0106668
17552.1	0.00914699
17562.1	0.00755866
17572	0.00590189
17581.9	0.00417699
17591.8	0.00238451
17601.8	0.000525215
17611.7	-0.00139988
17621.6	-0.00338954
17631.6	-0.00544228
17641.5	-0.00755637
17651.4	-0.00972984
17661.3	-0.0119605
17671.3	-0.0142459
17681.2	-0.0165834
17691.1	-0.01897
17701.1	-0.0214026
17711	-0.0238778
17720.9	-0.0263921
17730.8	-0.0289417
17740.8	-0.0315225
17750.7	-0.0341304
17760.6	-0.036761
17770.5	-0.0394098
17780.5	-0.0420721
17790.4	-0.0447429
17800.3	-0.0474175
17810.3	-0.0500905
17820.2	-0.0527569
17830.1	-0.0554114
17840	-0.0580485
17853.3	-0.0615283
17863.2	-0.0641039
17873.1	-0.0666438
17883.1	-0.0691428
17893	-0.0715952
17902.9	-0.0739957
17912.8	-0.0763389
17922.8	-0.0786193
17932.7	-0.080832
17942.6	-0.0829716
17952.6	-0.0850332
17962.5	-0.0870119
17972.4	-0.0889031
17982.3	-0.0907023
17992.3	-0.092405
18002.2	-0.0940072
18012.1	-0.095505
18022	-0.0968947
18032	-0.0981728
18041.9	-0.0993362
18051.8	-0.100382
18061.8	-0.101308
18071.7	-0.102111
18081.6	-0.102789
18091.5	-0.103341
18101.5	-0.103765
18111.4	-0.104061
18121.3	-0.104226
18131.3	-0.104262
18141.2	-0.104167
18151.1	-0.103942
18161	-0.103587
18171	-0.103103
18180.9	-0.102491
18190.8	-0.101753
18200.7	-0.10089
18210.7	-0.0999046
18220.6	-0.0987985
18230.5	-0.0975744
18240.5	-0.0962352
18250.4	-0.094784
18260.3	-0.093224
18270.2	-0.0915589
18280.2	-0.0897923
18290.1	-0.0879283
18300	-0.0859711
18313.3	-0.0832238
18323.2	-0.0810659
18333.1	-0.0788298
18343	-0.0765202
18353	-0.074142
18362.9	-0.0717002
18372.8	-0.0691999
18382.8	-0.0666461
18392.7	-0.0640441
18402.6	-0.0613989
18412.5	-0.0587158
18422.5	-0.0559998
18432.4	-0.0532563
18442.3	-0.0504901
18452.2	-0.0477065
18462.2	-0.0449103
18472.1	-0.0421065
18482	-0.0392999
18492	-0.036495
18501.9	-0.0336966
18511.8	-0.0309091
18521.7	-0.0281367
18531.7	-0.0253836
18541.6	-0.0226538
18551.5	-0.0199511
18561.5	-0.0172793
18571.4	-0.0146417
18581.3	-0.0120418
18591.2	-0.00948247
18601.2	-0.00696681
18611.1	-0.00449751
18621	-0.00207709
18630.9	0.000292101
18640.9	0.00260793
18650.8	0.00486846
18660.7	0.00707194
18670.7	0.00921683
18680.6	0.0113018
18690.5	0.0133256
18700.4	0.0152873
18710.4	0.0171862
18720.3	0.0190216
18730.2	0.0207931
18740.2	0.0225004
18750.1	0.0241434
18760	0.0257222
18773.2	0.0277279
18783.2	0.029158
18793.1	0.0305253
18803	0.0318303
18813	0.033074
18822.9	0.0342571
18832.8	0.0353809
18842.7	0.0364465
18852.7	0.037455
18862.6	0.0384079
18872.5	0.0393065
18882.5	0.0401524
18892.4	0.0409472
18902.3	0.0416924
18912.2	0.0423898
18922.2	0.0430411
18932.1	0.043648
18942	0.0442124
18951.9	0.0447361
18961.9	0.0452209
18971.8	0.0456687
18981.7	0.0460815
18991.7	0.046461
19001.6	0.0468092
19011.5	0.0471278
19021.4	0.0474188
19031.4	0.0476839
19041.3	0.047925
19051.2	0.0481438
19061.1	0.048342
19071.1	0.0485214
19081	0.0486835
19090.9	0.04883
19100.9	0.0489623
19110.8	0.049082
19120.7	0.0491905
19130.6	0.0492891
19140.6	0.0493791
19150.5	0.0494618
19160.4	0.0495382
19170.4	0.0496095
19180.3	0.0496767
19190.2	0.0497406
19200.1	0.0498022
19210.1	0.0498622
19223.3	0.0499409
19233.2	0.0499997
19243.2	0.050059
19253.1	0.0501191
19263	0.0501805
19272.9	0.0502434
19282.9	0.0503081
19292.8	0.0503746
19302.7	0.0504431
19312.7	0.0505136
19322.6	0.0505861
19332.5	0.0506603
19342.4	0.0507362
19352.4	0.0508135
19362.3	0.050892
19372.2	0.0509712
19382.1	0.0510509
19392.1	0.0511306
19402	0.0512099
19411.9	0.0512883
19421.9	0.0513652
19431.8	0.0514401
19441.7	0.0515125
19451.6	0.0515817
19461.6	0.0516471
19471.5	0.0517081
19481.4	0.0517641
19491.3	0.0518144
19501.3	0.0518584
19511.2	0.0518954
19521.1	0.0519248
19531.1	0.051946
19541	0.0519584
19550.9	0.0519612
19560.8	0.051954
19570.8	0.0519361
19580.7	0.051907
19590.6	0.0518661
19600.6	0.0518129
19610.5	0.0517469
19620.4	0.0516676
19630.3	0.0515746
19640.3	0.0514675
19650.2	0.0513458
19660.1	0.0512093
19670	0.0510575
19683.3	0.0508309
19693.2	0.0506425
19703.1	0.050438
19713.1	0.0502171
19723	0.0499799
19732.9	0.0497261
19742.9	0.0494556
19752.8	0.0491684
19762.7	0.0488644
19772.6	0.0485437
19782.6	0.0482063
19792.5	0.0478522
19802.4	0.0474817
19812.3	0.0470947
19822.3	0.0466914
19832.2	0.0462722
19842.1	0.0458371
19852.1	0.0453864
19862	0.0449204
19871.9	0.0444394
19881.8	0.0439438
19891.8	0.0434338
19901.7	0.04291
19911.6	0.0423726
19921.5	0.0418221
19931.5	0.0412589
19941.4	0.0406836
19951.3	0.0400966
19961.3	0.0394984
19971.2	0.0388896
19981.1	0.0382707
19991	0.0376422
