0	0
157.951	0
315.902	0
473.853	-0.000455561
631.803	0.0974534
789.754	0.252547
947.705	0.40668
1105.66	0.508227
1263.61	0.544653
1421.56	0.526908
1579.51	0.472883
1737.46	0.397895
1895.41	0.313528
2053.36	0.228489
2211.31	0.149198
2369.26	0.0798078
2527.2	0.0223112
2685.15	-0.023025
2843.1	-0.0570675
3001.04	-0.0812967
3158.99	-0.0974565
3316.93	-0.107333
3474.88	-0.112589
3632.83	-0.114629
3790.77	-0.114496
3948.72	-0.112842
4106.67	-0.109981
4264.62	-0.105999
4422.57	-0.100906
4580.51	-0.0947656
4738.46	-0.0877766
4896.41	-0.0802973
5054.36	-0.0728119
5212.31	-0.0658587
5370.27	-0.0599453
5528.22	-0.0554701
5686.17	-0.0526686
5844.12	-0.0515899
6002.07	-0.0521058
6160.02	-0.0539454
6317.97	-0.0567466
6475.93	-0.0601131
6633.88	-0.0636667
6791.83	-0.0670872
6949.78	-0.070136
7107.73	-0.0726625
7265.68	-0.0745966
7423.63	-0.0759307
7581.58	-0.076698
7739.53	-0.0769497
7897.48	-0.0767381
8055.44	-0.0761041
8213.39	-0.0750727
8371.34	-0.0736547
8529.29	-0.0718512
8687.24	-0.0696621
8845.19	-0.0670932
9003.14	-0.064162
9161.09	-0.060901
9319.04	-0.0573577
9476.99	-0.053592
9634.94	-0.0496716
9792.89	-0.0456665
9950.84	-0.0416436
10108.8	-0.0376622
10266.7	-0.0337712
10424.7	-0.030007
10582.6	-0.0263944
10740.6	-0.0229473
10898.5	-0.0196713
11056.5	-0.0165661
11214.4	-0.0136276
11372.4	-0.0108501
11530.3	-0.00822754
11688.3	-0.00575465
11846.2	-0.00342695
12004.2	-0.00124087
12162.1	0.000806378
12320.1	0.00271711
12478	0.00449322
12636	0.00613625
12793.9	0.00764717
12951.9	0.00902629
13109.8	0.0102729
13267.8	0.0113854
13425.7	0.0123608
13583.7	0.0131954
13741.7	0.0138847
13899.6	0.014424
14057.6	0.0148088
14215.5	0.0150358
14373.5	0.0151029
14531.4	0.01501
14689.4	0.014759
14847.3	0.0143547
15005.3	0.013804
15163.2	0.0131163
15321.2	0.0123032
15479.1	0.011378
15637.1	0.0103557
15795	0.00925218
15953	0.00808406
16110.9	0.00686821
16268.9	0.00562135
16426.8	0.0043598
16584.8	0.0030991
16742.7	0.00185378
16900.7	0.000637173
17058.6	-0.00053877
17216.6	-0.0016636
17374.5	-0.00272845
17532.5	-0.00372602
17690.4	-0.00465062
17848.4	-0.00549806
18006.3	-0.00626558
18164.3	-0.00695174
18322.2	-0.00755626
18480.2	-0.0080799
18638.1	-0.00852425
18796.1	-0.00889164
18954	-0.00918496
19112	-0.00940753
19269.9	-0.00956302
19427.9	-0.00965529
19585.8	-0.00968835
19743.8	-0.00966628
19901.7	-0.00959316
