0	0
84.4269	0
168.854	0
253.281	0
337.708	0
422.134	0
506.561	0
590.988	0
675.415	0
759.842	0
844.269	0
928.696	0
1013.12	0
1097.55	0
1181.98	0
1266.4	-1.14329e-07
1350.83	-1.18231e-06
1435.26	-6.46287e-06
1519.68	-2.36759e-05
1604.11	-6.42895e-05
1688.54	-0.00013288
1772.96	-0.000204729
1857.39	-0.000196147
1941.81	6.17241e-05
2026.24	0.000835643
2110.66	0.00248203
2195.09	0.00541445
2279.51	0.0100482
2363.93	0.0167293
2448.36	0.0256605
2532.78	0.0368397
2617.21	0.050023
2701.63	0.0647216
2786.06	0.0802313
2870.49	0.0956914
2954.91	0.110163
3039.34	0.122713
3123.76	0.132503
3208.19	0.138854
3292.62	0.141299
3377.05	0.139618
3461.47	0.133835
3545.9	0.124213
3630.33	0.111214
3714.75	0.095462
3799.18	0.0776917
3883.61	0.0586952
3968.03	0.0392734
4052.46	0.0201888
4136.89	0.00212663
4221.31	-0.0143369
4305.74	-0.0287563
4390.17	-0.0408288
4474.59	-0.0503965
4559.02	-0.0574392
4643.45	-0.0620585
4727.87	-0.0644569
4812.3	-0.0649121
4896.73	-0.0637502
4981.15	-0.0613199
5065.58	-0.0579693
5150.01	-0.0540272
5234.43	-0.0497884
5318.86	-0.0455051
5403.29	-0.0413815
5487.71	-0.0375734
5572.14	-0.034189
5656.57	-0.0312933
5740.99	-0.0289124
5825.42	-0.0270392
5909.85	-0.0256393
5994.27	-0.0246567
6078.7	-0.0240197
6163.13	-0.0236468
6247.55	-0.0234522
6331.98	-0.0233505
6416.41	-0.0232616
6500.83	-0.0231139
6585.26	-0.0228469
6669.69	-0.0224133
6754.11	-0.0217793
6838.54	-0.0209244
6922.97	-0.0198407
7007.39	-0.0185318
7091.82	-0.0170105
7176.25	-0.0152978
7260.67	-0.0134209
7345.1	-0.0114113
7429.53	-0.0093041
7513.95	-0.00713586
7598.38	-0.00494377
7682.8	-0.00276439
7767.23	-0.000632631
7851.66	0.00141923
7936.08	0.00336227
8020.51	0.00517157
8104.94	0.00682661
8189.36	0.0083114
8273.79	0.00961454
8358.22	0.0107289
8442.64	0.0116513
8527.07	0.012382
8611.5	0.0129242
8695.92	0.0132833
8780.35	0.0134668
8864.78	0.0134832
8949.2	0.0133421
9033.63	0.0130537
9118.06	0.0126283
9202.48	0.0120765
9286.91	0.0114084
9371.34	0.0106343
9455.77	0.00976386
9540.19	0.00880672
9624.62	0.00777214
9709.05	0.00666926
9793.47	0.00550715
9877.9	0.00429496
9962.33	0.003042
10046.8	0.00175788
10131.2	0.000452562
10215.6	-0.000863572
10300	-0.00217975
10384.5	-0.00348483
10468.9	-0.00476742
10553.3	-0.00601599
10637.7	-0.00721903
10722.2	-0.00836524
10806.6	-0.00944379
10891	-0.0104444
10975.4	-0.0113579
11059.9	-0.0121759
11144.3	-0.0128915
11228.7	-0.0134992
11313.2	-0.0139952
11397.6	-0.0143773
11482	-0.0146453
11566.4	-0.0148006
11650.9	-0.0148465
11735.3	-0.0147878
11819.7	-0.0146311
11904.1	-0.014384
11988.6	-0.0140553
12073	-0.0136548
12157.4	-0.0131927
12241.9	-0.0126795
12326.3	-0.0121258
12410.7	-0.011542
12495.1	-0.0109381
12579.6	-0.0103236
12664	-0.00970701
12748.4	-0.00909622
12832.8	-0.00849811
12917.3	-0.00791858
13001.7	-0.00736258
13086.1	-0.00683409
13170.5	-0.00633618
13255	-0.00587105
13339.4	-0.00544015
13423.8	-0.00504422
13508.3	-0.00468339
13592.7	-0.00435728
13677.1	-0.00406504
13761.5	-0.00380543
13846	-0.00357692
13930.4	-0.00337765
14014.8	-0.00320556
14099.2	-0.00305834
14183.7	-0.0029335
14268.1	-0.00282837
14352.5	-0.00274012
14436.9	-0.0026658
14521.4	-0.00260233
14605.8	-0.00254657
14690.2	-0.00249533
14774.7	-0.00244545
14859.1	-0.0023938
14943.5	-0.00233742
15027.9	-0.0022735
15112.4	-0.00219952
15196.8	-0.00211325
15281.2	-0.00201286
15365.6	-0.00189695
15450.1	-0.00176461
15534.5	-0.00161544
15618.9	-0.00144959
15703.4	-0.00126773
15787.8	-0.00107109
15872.2	-0.000861397
15956.6	-0.00064085
16041.1	-0.000412058
16125.5	-0.000177975
16209.9	5.81788e-05
16294.3	0.000293007
16378.8	0.000523025
16463.2	0.000744758
16547.6	0.000954831
16632	0.00115006
16716.5	0.00132753
16800.9	0.00148468
16885.3	0.00161934
16969.8	0.00172981
17054.2	0.00181488
17138.6	0.00187386
17223	0.00190655
17307.5	0.0019133
17391.9	0.00189491
17476.3	0.00185265
17560.7	0.00178821
17645.2	0.00170362
17729.6	0.0016012
17814	0.0014835
17898.5	0.00135324
17982.9	0.0012132
18067.3	0.0010662
18151.7	0.000915004
18236.2	0.000762277
18320.6	0.000610513
18405	0.000462002
18489.4	0.000318788
18573.9	0.00018264
18658.3	5.50294e-05
18742.7	-6.28766e-05
18827.1	-0.000170221
18911.6	-0.00026645
18996	-0.000351299
19080.4	-0.000424773
19164.9	-0.000487119
19249.3	-0.0005388
19333.7	-0.000580458
19418.1	-0.000612882
19502.6	-0.000636968
19587	-0.000653685
19671.4	-0.000664043
19755.8	-0.000669055
19840.3	-0.000669712
19924.7	-0.000666955
