0	0
11.0308	0
22.0616	0
30.8863	0
41.9171	0
50.7417	0
61.7725	0
70.5972	0
81.628	0
90.4526	0
101.483	0
110.308	0
121.339	0
130.164	0
141.194	0
150.019	0
161.05	0
172.081	0
180.905	0
191.936	0
200.761	0
211.792	0
220.616	0
231.647	0
240.472	0
251.502	0
260.327	0
271.358	0
280.183	0
291.213	0
300.038	0
311.069	0
322.1	0
330.924	0
341.955	0
350.78	0
361.811	0
370.635	0
381.666	0
390.491	0
401.521	0
410.346	0
421.377	0
430.202	0
441.232	0
450.057	0
461.088	0
472.119	0
480.943	0
491.974	0
500.799	0
511.83	0
520.654	0
531.685	0
540.51	0
551.54	0
560.365	0
571.396	0
580.221	0
591.251	0
600.076	0
611.107	0
622.138	0
630.962	0
641.993	0
650.818	0
661.849	0
670.673	0
681.704	0
690.529	0
701.559	0
710.384	0
721.415	0
730.24	0
741.27	0
750.095	0
761.126	0
772.157	0
780.981	0
792.012	0
800.837	0
811.868	0
820.692	0
831.723	0
840.548	0
851.578	0
860.403	0
871.434	0
880.259	0
891.289	0
900.114	0
911.145	0
922.176	0
931	0
942.031	0
950.856	0
961.887	0
970.711	0
981.742	0
990.567	0
1001.6	0
1010.42	0
1021.45	0
1030.28	0
1041.31	0
1050.13	0
1061.16	0
1072.19	0
1081.02	0
1092.05	0
1100.87	0
1111.91	0
1120.73	0
1131.76	0
1140.59	0
1151.62	0
1160.44	0
1171.47	0
1180.3	0
1191.33	0
1200.15	0
1211.18	0
1220.01	0
1231.04	0
1242.07	0
1250.89	0
1261.92	0
1270.75	0
1281.78	0
1290.6	0
1301.64	0
1310.46	0
1321.49	0
1330.32	0
1341.35	0
1350.17	0
1361.2	0
1370.03	0
1381.06	0
1392.09	0
1400.91	0
1411.94	0
1420.77	0
1431.8	0
1440.62	0
1451.65	0
1460.48	0
1471.51	0
1480.33	0
1491.37	0
1500.19	0
1511.22	0
1520.05	0
1531.08	0
1542.11	0
1550.93	0
1561.96	0
1570.79	0
1581.82	0
1590.64	0
1601.67	0
1610.5	0
1621.53	0
1630.35	0
1641.38	0
1650.21	0
1661.24	0
1670.06	0
1681.1	0
1692.13	0
1700.95	0
1711.98	0
1720.81	0
1731.84	0
1740.66	0
1751.69	0
1760.52	0
1771.55	0
1780.37	0
1791.4	0
1800.23	0
1811.26	0
1820.08	0
1831.11	0
1842.15	0
1850.97	0
1862	0
1870.83	0
1881.86	0
1890.68	0
1901.71	0
1910.54	0
1921.57	0
1930.39	0
1941.42	0
1950.25	0
1961.28	0
1970.1	0
1981.13	0
1992.16	0
2000.99	0
2012.02	0
2020.84	0
2031.87	0
2040.7	0
2051.73	0
2060.56	0
2071.59	0
2080.41	0
2091.44	0
2100.27	0
2111.3	0
2120.12	0
2131.15	0
2142.18	0
2151.01	0
2162.04	0
2170.86	0
2181.89	0
2190.72	0
2201.75	0
2210.57	0
2221.6	0
2230.43	0
2241.46	0
2250.28	0
2261.32	0
2270.14	0
2281.17	0
2292.2	0
2301.03	0
2312.06	0
2320.88	0
2331.91	0
2340.74	0
2351.77	0
2360.59	0
2371.62	0
2380.45	0
2391.48	0
2400.3	0
2411.33	0
2420.16	0
2431.19	0
2440.01	0
2451.05	0
2462.08	0
2470.9	0
2481.93	0
2490.76	0
2501.79	0
2510.61	0
2521.64	0
2530.47	0
2541.5	0
2550.32	0
2561.35	0
2570.18	0
2581.21	0
2590.03	0
2601.06	0
2612.1	0
2620.92	0
2631.95	0
2640.78	0
2651.81	0
2660.63	0
2671.66	0
2680.49	0
2691.52	0
2700.34	0
2711.37	0
2720.2	0
2731.23	0
2740.05	0
2751.08	0
2762.11	0
2770.94	0
2781.97	0
2790.79	0
2801.83	0
2810.65	0
2821.68	0
2830.51	0
2841.54	0
2850.36	0
2861.39	0
2870.22	0
2881.25	0
2890.07	0
2901.1	0
2912.13	0
2920.96	0
2931.99	0
2940.81	0
2951.84	0
2960.67	0
2971.7	0
2980.52	0
2991.55	0
3000.38	0
3011.41	0
3020.23	0
3031.26	0
3040.09	0
3051.12	0
3062.15	0
3070.98	-9.09495e-13
3082.01	-3.63798e-12
3090.83	-7.27596e-12
3101.86	-1.18234e-11
3110.69	-1.45519e-11
3121.72	-1.90994e-11
3130.54	-2.54659e-11
3141.57	-3.63798e-11
3150.4	-5.00222e-11
3161.43	-7.54881e-11
3170.25	-1.06411e-10
3181.28	-1.66438e-10
3190.11	-2.38288e-10
3201.14	-3.72893e-10
3212.17	-5.80258e-10
3220.99	-8.22183e-10
3232.02	-1.26329e-09
3240.85	-1.77261e-09
3251.88	-2.68756e-09
3260.7	-3.72802e-09
3271.73	-5.56975e-09
3280.56	-7.63612e-09
3291.59	-1.12468e-08
3300.41	-1.52422e-08
3311.44	-2.21307e-08
3320.27	-2.9655e-08
3331.3	-4.24579e-08
3340.12	-5.62677e-08
3351.15	-7.94644e-08
3362.18	-1.1139e-07
3371.01	-1.45171e-07
3382.04	-2.00829e-07
3390.86	-2.59021e-07
3401.89	-3.53753e-07
3410.72	-4.5165e-07
3421.75	-6.09157e-07
3430.57	-7.70086e-07
3441.6	-1.02607e-06
3450.43	-1.28472e-06
3461.46	-1.69161e-06
3470.28	-2.09834e-06
3481.31	-2.73128e-06
3490.14	-3.35739e-06
3501.17	-4.32156e-06
3512.2	-5.529e-06
3521.02	-6.70483e-06
3532.05	-8.48738e-06
3540.88	-1.02065e-05
3551.91	-1.27877e-05
3560.73	-1.52539e-05
3571.76	-1.89223e-05
3580.59	-2.23958e-05
3591.62	-2.75164e-05
3600.44	-3.2323e-05
3611.47	-3.9348e-05
3620.3	-4.58871e-05
3631.33	-5.53658e-05
3640.15	-6.41184e-05
3651.18	-7.67055e-05
3660	-8.82398e-05
3671.03	-0.000104702
3682.07	-0.000123692
3690.89	-0.000140899
3701.92	-0.00016519
3710.74	-0.000187052
3721.77	-0.000217709
3730.6	-0.000245126
3741.63	-0.000283332
3750.45	-0.000317294
3761.48	-0.000364341
3770.31	-0.000405924
3781.34	-0.000463208
3790.16	-0.000513568
3801.19	-0.000582579
3810.02	-0.00064294
3821.05	-0.00072525
3832.08	-0.000815654
3840.9	-0.000894151
3851.93	-0.00100043
3860.76	-0.00109231
3871.79	-0.00121618
3880.61	-0.00132282
3891.64	-0.00146601
3900.47	-0.00158881
3911.5	-0.00175306
3920.32	-0.00189338
3931.35	-0.00208038
3940.18	-0.00223957
3951.21	-0.00245095
3960.03	-0.00263027
3971.06	-0.00286755
3982.09	-0.00311983
3990.92	-0.00333272
4001.95	-0.00361296
4010.77	-0.00384865
4021.8	-0.00415788
4030.62	-0.0044171
4041.66	-0.00475607
4050.48	-0.00503927
4061.51	-0.00540836
4070.33	-0.00571569
4081.36	-0.00611485
4090.19	-0.00644607
4101.22	-0.00687473
4110.04	-0.00722912
4121.07	-0.00768606
4132.11	-0.00815791
4140.93	-0.00854563
4151.96	-0.00904231
4160.79	-0.00944863
4171.82	-0.00996668
4180.64	-0.0103884
4191.67	-0.0109231
4200.5	-0.0113559
4211.53	-0.0119013
4220.35	-0.0123396
4231.38	-0.0128877
4240.21	-0.0133246
4251.24	-0.0138657
4260.06	-0.0142923
4271.09	-0.0148142
4282.12	-0.0153192
4290.95	-0.0157075
4301.98	-0.0161687
4310.8	-0.0165143
4321.83	-0.0169117
4330.66	-0.0171972
4341.69	-0.017507
4350.51	-0.0177118
4361.54	-0.0179061
4370.37	-0.0180061
4381.4	-0.0180527
4390.22	-0.0180201
4401.26	-0.0178819
4410.08	-0.0176854
4421.11	-0.0173208
4432.14	-0.0168107
4440.97	-0.0162879
4452	-0.0154777
4460.82	-0.0146941
4471.85	-0.0135312
4480.68	-0.0124435
4491.71	-0.0108724
4500.53	-0.00943532
4511.56	-0.00739855
4520.39	-0.00556565
4531.42	-0.00300518
4540.24	-0.000730399
4551.27	0.0024105
4560.1	0.00517148
4571.13	0.0089463
4582.16	0.0130945
4590.98	0.0166912
4602.01	0.0215449
4610.84	0.025721
4621.87	0.0313153
4630.69	0.0360948
4641.72	0.0424536
4650.55	0.0478504
4661.58	0.0549844
4670.4	0.0610013
4681.44	0.0689064
4690.26	0.0755337
4701.29	0.0841894
4710.12	0.091404
4721.15	0.100773
4732.18	0.110516
4741	0.118566
4752.03	0.128929
4760.86	0.137445
4771.89	0.148348
4780.71	0.157258
4791.74	0.168604
4800.57	0.177825
4811.6	0.189502
4820.42	0.19894
4831.45	0.210824
4840.28	0.220375
4851.31	0.232332
4860.13	0.241884
4871.16	0.253769
4882.19	0.265551
4891.02	0.27487
4902.05	0.286346
4910.87	0.295358
4921.91	0.306373
4930.73	0.314956
4941.76	0.325356
4950.58	0.333385
4961.62	0.343018
4970.44	0.350374
4981.47	0.359094
4990.3	0.365663
5001.33	0.37333
5010.15	0.379005
5021.18	0.385493
5030.01	0.390176
5041.04	0.39537
5052.07	0.3998
5060.89	0.402777
5071.92	0.405768
5080.75	0.407563
5091.78	0.409045
5100.6	0.409612
5111.63	0.409538
5120.46	0.408848
5131.49	0.407193
5140.31	0.405236
5151.34	0.402001
5160.17	0.398786
5171.2	0.393994
5180.02	0.38955
5191.06	0.383247
5202.09	0.376134
5210.91	0.369876
5221.94	0.361369
5230.77	0.354035
5241.8	0.344233
5250.62	0.335908
5261.65	0.324928
5270.48	0.31571
5281.51	0.303679
5290.33	0.293674
5301.36	0.280728
5310.19	0.270048
5321.22	0.25633
5330.04	0.24509
5341.07	0.230743
5352.1	0.216109
5360.93	0.204224
5371.96	0.189182
5380.78	0.177025
5391.81	0.16171
5400.64	0.149388
5411.67	0.13393
5420.49	0.121543
5431.53	0.106065
5440.35	0.0937099
5451.38	0.0783286
5460.21	0.066095
5471.24	0.0509202
5480.06	0.0388943
5491.09	0.0240312
5502.12	0.00938512
5510.95	-0.00215472
5521.98	-0.0163327
5530.8	-0.0274587
5541.83	-0.0410707
5550.66	-0.0517052
5561.69	-0.0646543
5570.51	-0.07472
5581.54	-0.0869104
5590.37	-0.0963309
5601.4	-0.107668
5610.22	-0.116368
5621.25	-0.126758
5630.08	-0.134665
5641.11	-0.144021
5652.14	-0.152765
5660.96	-0.159305
5672	-0.166891
5680.82	-0.172476
5691.85	-0.178837
5700.68	-0.183419
5711.71	-0.188504
5720.53	-0.192049
5731.56	-0.195823
5740.39	-0.198312
5751.42	-0.20076
5760.24	-0.20219
5771.27	-0.203321
5780.1	-0.203708
5791.13	-0.203555
5802.16	-0.20271
5810.98	-0.201551
5822.01	-0.19952
5830.84	-0.197446
5841.87	-0.194319
5850.69	-0.191412
5861.72	-0.187304
5870.55	-0.183663
5881.58	-0.178704
5890.4	-0.174439
5901.43	-0.168775
5910.26	-0.164007
5921.29	-0.157792
5930.11	-0.152648
5941.15	-0.146043
5952.18	-0.139292
5961	-0.133818
5972.03	-0.126926
5980.86	-0.121402
5991.89	-0.114523
6000.71	-0.109068
6011.74	-0.102345
6020.57	-0.0970687
6031.6	-0.0906322
6040.42	-0.0856322
6051.45	-0.079596
6060.28	-0.0749566
6071.31	-0.0694164
6080.13	-0.0652064
6091.16	-0.0602388
6102.19	-0.055615
6111.02	-0.0521729
6122.05	-0.0482009
6130.87	-0.0452927
6141.91	-0.0419984
6150.73	-0.0396371
6161.76	-0.0370278
6170.59	-0.0352121
6181.62	-0.0332777
6190.44	-0.0319933
6201.47	-0.0307083
6210.3	-0.029929
6221.33	-0.0292543
6230.15	-0.0289441
6241.18	-0.0288292
6250.01	-0.0289439
6261.04	-0.0293293
6272.07	-0.0299644
6280.89	-0.0306379
6291.92	-0.0316684
6300.75	-0.0326297
6311.78	-0.0339836
6320.6	-0.0351745
6331.63	-0.0367791
6340.46	-0.0381418
6351.49	-0.0399257
6360.31	-0.041404
6371.35	-0.0432989
6380.17	-0.0448401
6391.2	-0.0467824
6400.03	-0.048338
6411.06	-0.0502706
6422.09	-0.0521756
6430.91	-0.0536703
6441.94	-0.0554912
6450.77	-0.0569027
6461.8	-0.058602
6470.62	-0.0599038
6481.65	-0.0614526
6490.48	-0.0626249
6501.51	-0.0640025
6510.33	-0.065032
6521.36	-0.0662257
6530.19	-0.067105
6541.22	-0.0681091
6550.04	-0.0688365
6561.07	-0.0696517
6572.11	-0.0703641
6580.93	-0.0708618
6591.96	-0.0713961
6600.79	-0.0717556
6611.82	-0.0721232
6620.64	-0.0723546
6631.67	-0.0725692
6640.5	-0.072684
6651.53	-0.0727601
6660.35	-0.07277
6671.38	-0.0727223
6680.21	-0.0726388
6691.24	-0.0724811
6700.06	-0.0723147
6711.09	-0.0720593
6722.12	-0.0717543
6730.95	-0.0714764
6741.98	-0.0710889
6750.8	-0.070748
6761.83	-0.0702849
6770.66	-0.0698858
6781.69	-0.0693519
6790.51	-0.0688974
6801.55	-0.0682955
6810.37	-0.0677872
6821.4	-0.0671184
6830.23	-0.0665566
6841.26	-0.0658208
6850.08	-0.0652051
6861.11	-0.0644013
6872.14	-0.0635593
6880.97	-0.062858
6892	-0.0619463
6900.82	-0.0611888
6911.85	-0.0602068
6920.68	-0.0593929
6931.71	-0.0583406
6940.53	-0.0574709
6951.56	-0.0563496
6960.39	-0.0554257
6971.42	-0.0542379
6980.24	-0.0532624
6991.27	-0.0520123
7000.1	-0.050989
7011.13	-0.0496822
7022.16	-0.0483469
7030.99	-0.0472597
7042.02	-0.045879
7050.84	-0.044759
7061.87	-0.0433419
7070.7	-0.0421965
7081.73	-0.0407528
7090.55	-0.0395902
7101.58	-0.0381301
7110.41	-0.0369586
7121.44	-0.0354928
7130.26	-0.034321
7141.29	-0.0328599
7150.12	-0.0316961
7161.15	-0.03025
7172.18	-0.0288163
7181	-0.0276802
7192.03	-0.0262757
7200.86	-0.0251662
7211.89	-0.0237989
7220.71	-0.0227218
7231.75	-0.0213982
7240.57	-0.0203584
7251.6	-0.0190837
7260.43	-0.0180848
7271.46	-0.0168629
7280.28	-0.0159073
7291.31	-0.0147407
7300.14	-0.0138298
7311.17	-0.0127195
7322.2	-0.0116405
7331.02	-0.0107996
7342.05	-0.00977628
7350.88	-0.00897941
7361.91	-0.00801008
7370.73	-0.00725556
7381.76	-0.0063379
7390.59	-0.00562363
7401.62	-0.00475483
7410.44	-0.00407844
7421.47	-0.00325547
7430.3	-0.00261453
7441.33	-0.0018344
7450.15	-0.0012266
7461.18	-0.000486557
7470.01	9.01482e-05
7481.04	0.000792391
7492.07	0.0014744
7500.89	0.00200572
7511.93	0.00265222
7520.75	0.00315541
7531.78	0.0037669
7540.61	0.00424202
7551.64	0.00481814
7560.46	0.00526458
7571.49	0.00580414
7580.32	0.00622061
7591.35	0.00672162
7600.17	0.00710624
7611.2	0.007566
7620.03	0.00791634
7631.06	0.00833153
7642.09	0.00872037
7650.91	0.00901164
7661.94	0.00934995
7670.77	0.00959917
7681.8	0.00988283
7690.62	0.0100867
7701.65	0.0103116
7710.48	0.0104669
7721.51	0.0106291
7730.33	0.0107327
7741.36	0.0108287
7750.19	0.0108781
7761.22	0.0109047
7770.04	0.0108975
7781.07	0.0108524
7792.1	0.0107666
7800.93	0.0106683
7811.96	0.0105084
7820.78	0.0103506
7831.82	0.010116
7840.64	0.00989847
7851.67	0.00958956
7860.5	0.00931301
7871.53	0.00893094
7880.35	0.00859655
7891.38	0.00814324
7900.21	0.00775285
7911.24	0.00723093
7920.06	0.00678689
7931.09	0.00619963
7942.12	0.00557768
7950.95	0.00505599
7961.98	0.00437481
7970.8	0.00380748
7981.83	0.00307153
7990.66	0.00246225
8001.69	0.00167629
8010.51	0.00102897
8021.54	0.000197957
8030.37	-0.00048337
8041.4	-0.00135434
8050.22	-0.00206557
8061.25	-0.00297133
8070.08	-0.00370833
8081.11	-0.00464373
8092.14	-0.00559338
8100.96	-0.0063623
8112	-0.00733364
8120.82	-0.0081179
8131.85	-0.00910594
8140.68	-0.0099016
8151.71	-0.0109015
8160.53	-0.0117046
8171.56	-0.0127115
8180.39	-0.0135185
8191.42	-0.0145278
8200.24	-0.0153349
8211.27	-0.0163421
8220.1	-0.0171458
8231.13	-0.0181466
8242.16	-0.019142
8250.98	-0.0199336
8262.01	-0.020916
8270.84	-0.0216956
8281.87	-0.0226612
8290.69	-0.0234257
8301.72	-0.0243705
8310.55	-0.0251169
8321.58	-0.0260372
8330.4	-0.0267625
8341.43	-0.0276547
8350.26	-0.0283562
8361.29	-0.0292168
8370.11	-0.0298917
8381.15	-0.0307174
8392.18	-0.0315222
8401	-0.0321503
8412.03	-0.0329149
8420.86	-0.0335096
8431.89	-0.0342309
8440.71	-0.0347895
8451.74	-0.035464
8460.57	-0.0359839
8471.6	-0.0366082
8480.42	-0.0370867
8491.45	-0.0376574
8500.28	-0.0380915
8511.31	-0.0386051
8520.13	-0.038992
8531.16	-0.0394446
8542.2	-0.0398617
8551.02	-0.0401689
8562.05	-0.0405189
8570.88	-0.0407708
8581.91	-0.0410495
8590.73	-0.0412427
8601.76	-0.0414458
8610.59	-0.0415768
8621.62	-0.0416999
8630.44	-0.0417651
8641.47	-0.0418038
8650.3	-0.0417997
8661.33	-0.0417495
8670.15	-0.0416726
8681.18	-0.0415292
8690.01	-0.0413761
8701.04	-0.0411356
8712.07	-0.0408394
8720.89	-0.0405616
8731.92	-0.0401625
8740.75	-0.0398012
8751.78	-0.0392962
8760.6	-0.0388491
8771.64	-0.0382359
8780.46	-0.0377015
8791.49	-0.0369784
8800.32	-0.0363557
8811.35	-0.0355219
8820.17	-0.0348106
8831.2	-0.0338663
8840.03	-0.033067
8851.06	-0.0320134
8862.09	-0.0308999
8870.91	-0.0299666
8881.94	-0.0287477
8890.77	-0.0277316
8901.8	-0.0264112
8910.62	-0.0253158
8921.65	-0.023899
8930.48	-0.0227288
8941.51	-0.0212217
8950.33	-0.019982
8961.36	-0.0183917
8970.19	-0.0170886
8981.22	-0.0154233
8990.04	-0.0140636
9001.08	-0.0123322
9012.11	-0.0105682
9020.93	-0.00913565
9031.96	-0.00732094
9040.79	-0.00585201
9051.82	-0.00399724
9060.64	-0.00250066
9071.67	-0.000616906
9080.5	0.00089833
9091.53	0.00279969
9100.35	0.00432442
9111.38	0.00623187
9120.21	0.00775684
9131.24	0.00965886
9140.06	0.0111749
9151.09	0.0130601
9162.13	0.0149311
9170.95	0.0164154
9181.98	0.0182524
9190.81	0.0197052
9201.84	0.0214977
9210.66	0.0229109
9221.69	0.024649
9230.52	0.0260149
9241.55	0.0276892
9250.37	0.0290005
9261.4	0.0306025
9270.23	0.0318528
9281.26	0.0333746
9290.08	0.0345579
9301.11	0.0359926
9312.14	0.0373762
9320.97	0.0384452
9332	0.0397326
9340.82	0.0407225
9351.85	0.041909
9360.68	0.0428165
9371.71	0.0438982
9380.53	0.0447208
9391.57	0.0456948
9400.39	0.0464303
9411.42	0.0472946
9420.25	0.0479418
9431.28	0.0486953
9440.1	0.0492536
9451.13	0.049896
9462.16	0.0504768
9470.99	0.0508973
9482.02	0.051368
9490.84	0.0517011
9501.87	0.0520635
9510.7	0.0523108
9521.73	0.0525674
9530.55	0.0527311
9541.58	0.0528847
9550.41	0.0529675
9561.44	0.0530219
9570.26	0.053027
9581.29	0.0529865
9590.12	0.0529174
9601.15	0.0527867
9612.18	0.052608
9621.01	0.0524317
9632.04	0.052171
9640.86	0.0519314
9651.89	0.0515946
9660.72	0.0512964
9671.75	0.0508894
9680.57	0.0505376
9691.6	0.0500667
9700.43	0.0496663
9711.46	0.049138
9720.28	0.0486942
9731.31	0.0481148
9740.14	0.0476328
9751.17	0.0470089
9762.2	0.0463629
9771.02	0.0458316
9782.06	0.0451509
9790.88	0.0445942
9801.91	0.0438846
9810.74	0.0433072
9821.77	0.0425746
9830.59	0.0419808
9841.62	0.0412304
9850.45	0.0406244
9861.48	0.0398611
9870.3	0.0392465
9881.33	0.0384746
9890.16	0.0378547
9901.19	0.0370779
9910.01	0.0364555
9921.04	0.035677
9932.07	0.0348988
9940.9	0.0342768
9951.93	0.0335006
9960.75	0.0328809
9971.78	0.0321082
9980.61	0.0314918
9991.64	0.0307236
10000.5	0.030111
10011.5	0.0293477
10020.3	0.028739
10031.4	0.0279803
10040.2	0.027375
10051.2	0.0266203
10060	0.0260178
10071.1	0.0252659
10082.1	0.0245149
10090.9	0.0239144
10101.9	0.0231637
10110.8	0.0225628
10121.8	0.0218105
10130.6	0.0212074
10141.7	0.0204515
10150.5	0.0198447
10161.5	0.0190829
10170.3	0.0184705
10181.4	0.0177008
10190.2	0.0170812
10201.2	0.0163014
10210	0.015673
10221.1	0.0148812
10232.1	0.014082
10240.9	0.013437
10252	0.0126233
10260.8	0.0119661
10271.8	0.0111365
10280.6	0.0104663
10291.7	0.00962007
10300.5	0.00893621
10311.5	0.0080727
10320.4	0.00737494
10331.4	0.00649404
10340.2	0.00578243
10351.2	0.00488444
10360.1	0.00415939
10371.1	0.00324502
10382.1	0.00232202
10391	0.0015777
10402	0.000640304
10410.8	-0.000114852
10421.8	-0.00106483
10430.7	-0.00182921
10441.7	-0.00278956
10450.5	-0.00356124
10461.6	-0.00452939
10470.4	-0.00530619
10481.4	-0.00627923
10490.2	-0.00705868
10501.3	-0.00803341
10510.1	-0.00881287
10521.1	-0.00978585
10532.1	-0.0107563
10541	-0.0115301
10552	-0.0124931
10560.8	-0.0132594
10571.9	-0.0142112
10580.7	-0.014967
10591.7	-0.0159038
10600.5	-0.016646
10611.6	-0.017564
10620.4	-0.0182898
10631.4	-0.0191853
10640.2	-0.0198918
10651.3	-0.0207615
10660.1	-0.0214461
10671.1	-0.0222868
10682.2	-0.0231103
10691	-0.023756
10702	-0.0245463
10710.8	-0.0251647
10721.9	-0.0259198
10730.7	-0.0265092
10741.7	-0.0272274
10750.6	-0.0277868
10761.6	-0.028467
10770.4	-0.0289959
10781.4	-0.0296376
10790.3	-0.0301357
10801.3	-0.0307391
10810.1	-0.0312067
10821.2	-0.0317724
10832.2	-0.0323178
10841	-0.0327398
10852	-0.0332498
10860.9	-0.0336443
10871.9	-0.0341211
10880.7	-0.0344901
10891.8	-0.0349364
10900.6	-0.0352822
10911.6	-0.0357011
10920.4	-0.0360264
10931.5	-0.0364215
10940.3	-0.0367293
10951.3	-0.0371044
10960.1	-0.0373977
10971.2	-0.037757
10982.2	-0.0381091
10991	-0.0383866
11002.1	-0.0387294
11010.9	-0.039001
11021.9	-0.0393385
11030.7	-0.0396077
11041.8	-0.039944
11050.6	-0.0402138
11061.6	-0.0405528
11070.4	-0.0408262
11081.5	-0.0411715
11090.3	-0.0414512
11101.3	-0.0418061
11110.2	-0.0420946
11121.2	-0.0424617
11130	-0.0427611
11141	-0.0431428
11152.1	-0.0435335
11160.9	-0.0438528
11171.9	-0.0442608
11180.8	-0.0445943
11191.8	-0.0450204
11200.6	-0.0453687
11211.6	-0.0458134
11220.5	-0.0461766
11231.5	-0.0466398
11240.3	-0.0470176
11251.4	-0.0474987
11260.2	-0.0478904
11271.2	-0.0483883
11280	-0.0487928
11291.1	-0.0493059
11302.1	-0.0498267
11310.9	-0.0502484
11322	-0.0507813
11330.8	-0.0512118
11341.8	-0.0517545
11350.6	-0.0521919
11361.7	-0.0527418
11370.5	-0.0531838
11381.5	-0.0537382
11390.3	-0.0541827
11401.4	-0.0547388
11410.2	-0.0551835
11421.2	-0.0557384
11430.1	-0.056181
11441.1	-0.0567319
11452.1	-0.0572794
11460.9	-0.0577143
11472	-0.0582535
11480.8	-0.0586809
11491.8	-0.0592092
11500.6	-0.0596269
11511.7	-0.060142
11520.5	-0.0605481
11531.5	-0.0610476
11540.4	-0.0614403
11551.4	-0.061922
11560.2	-0.0622997
11571.2	-0.0627617
11580.1	-0.0631228
11591.1	-0.0635632
11602.1	-0.0639907
11611	-0.0643231
11622	-0.0647262
11630.8	-0.0650385
11641.8	-0.0654155
11650.7	-0.0657062
11661.7	-0.0660554
11670.5	-0.0663232
11681.6	-0.0666431
11690.4	-0.0668867
11701.4	-0.0671755
11710.2	-0.0673935
11721.3	-0.0676495
11730.1	-0.0678405
11741.1	-0.0680619
11752.2	-0.0682632
11761	-0.0684094
11772	-0.0685732
11780.8	-0.0686886
11791.9	-0.0688129
11800.7	-0.068896
11811.7	-0.0689789
11820.5	-0.069028
11831.6	-0.0690673
11840.4	-0.0690809
11851.4	-0.0690748
11860.3	-0.0690512
11871.3	-0.0689978
11880.1	-0.0689355
11891.1	-0.0688329
11902.2	-0.0687022
11911	-0.0685772
11922	-0.0683949
11930.8	-0.068228
11941.9	-0.0679927
11950.7	-0.067783
11961.7	-0.0674938
11970.6	-0.0672407
11981.6	-0.0668969
11990.4	-0.0665999
12001.4	-0.0662013
12010.3	-0.0658605
12021.3	-0.0654072
12030.1	-0.0650228
12041.2	-0.0645154
12052.2	-0.0639783
12061	-0.0635276
12072	-0.0629382
12080.9	-0.0624462
12091.9	-0.0618062
12100.7	-0.0612746
12111.8	-0.0605861
12120.6	-0.0600166
12131.6	-0.0592821
12140.4	-0.0586768
12151.5	-0.0578991
12160.3	-0.0572605
12171.3	-0.0564425
12180.1	-0.055773
12191.2	-0.0549181
12202.2	-0.0540441
12211	-0.0533318
12222.1	-0.0524261
12230.9	-0.0516898
12241.9	-0.0507557
12250.7	-0.0499981
12261.8	-0.0490389
12270.6	-0.0482624
12281.6	-0.0472812
12290.5	-0.0464884
12301.5	-0.045488
12310.3	-0.0446809
12321.3	-0.043664
12330.2	-0.0428446
12341.2	-0.0418133
12350	-0.0409831
12361	-0.0399393
12372.1	-0.0388892
12380.9	-0.0380447
12391.9	-0.0369839
12400.8	-0.0361313
12411.8	-0.0350606
12420.6	-0.0342002
12431.6	-0.0331198
12440.5	-0.0322517
12451.5	-0.0311615
12460.3	-0.0302852
12471.4	-0.0291847
12480.2	-0.0282998
12491.2	-0.027188
12500	-0.0262937
12511.1	-0.0251694
12522.1	-0.0240376
12530.9	-0.0231264
12542	-0.0219799
12550.8	-0.0210564
12561.8	-0.0198936
12570.6	-0.0189563
12581.7	-0.0177756
12590.5	-0.0168233
12601.5	-0.015623
12610.3	-0.0146545
12621.4	-0.0134332
12630.2	-0.0124473
12641.2	-0.0112036
12650.1	-0.0101993
12661.1	-0.00893221
12672.1	-0.0076517
12680.9	-0.00661756
12692	-0.00531261
12700.8	-0.00425879
12711.8	-0.00292921
12720.7	-0.00185574
12731.7	-0.000501777
12740.5	0.000590964
12751.5	0.00196861
12760.4	0.00307989
12771.4	0.00448005
12780.2	0.00560873
12791.2	0.00702977
12800.1	0.00817435
12811.1	0.00961414
12822.1	0.0110633
12831	0.0122287
12842	0.0136924
12850.8	0.0148682
12861.8	0.0163432
12870.7	0.0175267
12881.7	0.0190094
12890.5	0.0201974
12901.6	0.0216838
12910.4	0.0228732
12921.4	0.024359
12930.2	0.0255461
12941.3	0.0270269
12950.1	0.0282081
12961.1	0.0296791
12972.2	0.0311426
12981	0.032307
12992	0.0337532
13000.8	0.0349018
13011.9	0.0363259
13020.7	0.0374549
13031.7	0.0388521
13040.5	0.0399576
13051.6	0.0413231
13060.4	0.0424015
13071.4	0.0437307
13080.3	0.0447784
13091.3	0.0460671
13100.1	0.0470806
13111.1	0.0483247
13122.2	0.0495424
13131	0.0504968
13142	0.0516643
13150.9	0.0525773
13161.9	0.0536914
13170.7	0.0545605
13181.7	0.0556185
13190.6	0.0564418
13201.6	0.0574415
13210.4	0.0582174
13221.4	0.059157
13230.3	0.0598841
13241.3	0.0607623
13250.1	0.0614399
13261.2	0.0622557
13272.2	0.0630368
13281	0.0636366
13292	0.064355
13300.9	0.0649047
13311.9	0.0655609
13320.7	0.0660611
13331.8	0.0666557
13340.6	0.0671072
13351.6	0.0676415
13360.4	0.0680453
13371.5	0.0685209
13380.3	0.0688784
13391.3	0.0692972
13400.1	0.06961
13411.2	0.0699741
13420	0.0702441
13431	0.0705559
13442.1	0.0708397
13450.9	0.0710471
13461.9	0.0712827
13470.7	0.0714527
13481.8	0.0716428
13490.6	0.0717775
13501.6	0.0719249
13510.5	0.0720266
13521.5	0.0721342
13530.3	0.0722051
13541.3	0.0722756
13550.2	0.0723179
13561.2	0.0723539
13570	0.0723696
13581.1	0.0723737
13592.1	0.072361
13600.9	0.0723393
13611.9	0.0722982
13620.8	0.0722546
13631.8	0.0721872
13640.6	0.0721232
13651.6	0.0720312
13660.5	0.0719482
13671.5	0.0718331
13680.3	0.0717322
13691.4	0.0715952
13700.2	0.0714773
13711.2	0.0713196
13720	0.0711853
13731.1	0.0710076
13742.1	0.070819
13750.9	0.0706603
13762	0.0704523
13770.8	0.0702783
13781.8	0.0700512
13790.6	0.0698619
13801.7	0.0696157
13810.5	0.069411
13821.5	0.0691456
13830.3	0.0689254
13841.4	0.0686404
13850.2	0.0684045
13861.2	0.0680997
13870.1	0.0678477
13881.1	0.0675226
13892.1	0.067186
13900.9	0.0669084
13912	0.0665509
13920.8	0.0662564
13931.8	0.0658775
13940.7	0.0655657
13951.7	0.0651651
13960.5	0.0648358
13971.5	0.064413
13980.4	0.064066
13991.4	0.0636209
14000.2	0.0632559
14011.3	0.0627883
14020.1	0.0624052
14031.1	0.0619151
14042.1	0.0614124
14051	0.0610011
14062	0.0604758
14070.8	0.0600465
14081.9	0.0594986
14090.7	0.0590513
14101.7	0.0584811
14110.5	0.0580159
14121.6	0.0574234
14130.4	0.0569405
14141.4	0.0563259
14150.2	0.0558254
14161.3	0.0551888
14170.1	0.0546707
14181.1	0.0540123
14192.2	0.0533417
14201	0.0527964
14212	0.052104
14220.8	0.0515412
14231.9	0.0508267
14240.7	0.0502463
14251.7	0.0495096
14260.5	0.0489112
14271.6	0.0481519
14280.4	0.0475353
14291.4	0.0467529
14300.3	0.0461175
14311.3	0.0453113
14320.1	0.0446565
14331.1	0.0438257
14342.2	0.0429809
14351	0.0422947
14362	0.0414237
14370.9	0.0407161
14381.9	0.0398179
14390.7	0.0390881
14401.7	0.0381614
14410.6	0.0374083
14421.6	0.0364519
14430.4	0.0356744
14441.5	0.0346869
14450.3	0.033884
14461.3	0.0328641
14470.1	0.0320347
14481.2	0.0309811
14492.2	0.0299081
14501	0.0290356
14512.1	0.0279271
14520.9	0.0270256
14531.9	0.0258805
14540.7	0.0249494
14551.8	0.0237667
14560.6	0.0228053
14571.6	0.0215844
14580.4	0.0205924
14591.5	0.0193329
14600.3	0.0183099
14611.3	0.0170118
14620.2	0.0159579
14631.2	0.0146213
14640	0.0135367
14651	0.0121621
14662.1	0.0107668
14670.9	0.00963587
14681.9	0.00820416
14690.8	0.00704465
14701.8	0.00557805
14710.6	0.00439135
14721.6	0.00289176
14730.5	0.00167957
14741.5	0.000149326
14750.3	-0.00108633
14761.3	-0.00264447
14770.2	-0.00390122
14781.2	-0.00548408
14790	-0.00675921
14801.1	-0.0083632
14812.1	-0.00997721
14820.9	-0.0112748
14831.9	-0.0129035
14840.8	-0.014211
14851.8	-0.0158498
14860.6	-0.0171635
14871.7	-0.0188074
14880.5	-0.0201229
14891.5	-0.0217666
14900.3	-0.0230796
14911.4	-0.0247173
14920.2	-0.0260232
14931.2	-0.0276488
14940	-0.0289426
14951.1	-0.0305499
14962.1	-0.0321442
14970.9	-0.033409
14982	-0.0349747
14990.8	-0.0362138
15001.8	-0.0377441
15010.6	-0.0389521
15021.7	-0.04044
15030.5	-0.0416112
15041.5	-0.0430495
15050.4	-0.0441783
15061.4	-0.0455599
15070.2	-0.0466404
15081.2	-0.0479582
15090.1	-0.0489849
15101.1	-0.0502318
15112.1	-0.0514363
15121	-0.052368
15132	-0.0534909
15140.8	-0.0543546
15151.8	-0.0553893
15160.7	-0.0561798
15171.7	-0.05712
15180.5	-0.0578325
15191.5	-0.0586722
15200.4	-0.0593022
15211.4	-0.0600359
15220.2	-0.0605791
15231.3	-0.061202
15240.1	-0.0616546
15251.1	-0.0621622
15262.1	-0.0626042
15271	-0.0629099
15282	-0.0632312
15290.8	-0.0634393
15301.9	-0.0636375
15310.7	-0.0637462
15321.7	-0.0638196
15330.5	-0.063828
15341.6	-0.0637758
15350.4	-0.0636837
15361.4	-0.063506
15370.2	-0.0633139
15381.3	-0.0630118
15390.1	-0.0627209
15401.1	-0.0622965
15412.2	-0.0618055
15421	-0.0613655
15432	-0.0607576
15440.8	-0.0602258
15451.9	-0.0595056
15460.7	-0.0588862
15471.7	-0.0580595
15480.6	-0.0573574
15491.6	-0.0564308
15500.4	-0.0556518
15511.4	-0.054633
15520.3	-0.0537834
15531.3	-0.0526808
15540.1	-0.051768
15551.2	-0.0505909
15562.2	-0.0493767
15571	-0.0483808
15582	-0.0471081
15590.9	-0.0460697
15601.9	-0.0447494
15610.7	-0.0436774
15621.7	-0.0423209
15630.6	-0.0412248
15641.6	-0.039844
15650.4	-0.0387332
15661.5	-0.0373403
15670.3	-0.0362246
15681.3	-0.0348316
15690.1	-0.0337208
15701.2	-0.03234
15712.2	-0.0309713
15721	-0.0298874
15732.1	-0.0285494
15740.9	-0.0274949
15751.9	-0.0261994
15760.7	-0.0251834
15771.8	-0.0239415
15780.6	-0.0229726
15791.6	-0.0217948
15800.4	-0.0208811
15811.5	-0.0197773
15820.3	-0.0189265
15831.3	-0.0179055
15840.2	-0.0171244
15851.2	-0.0161945
15860	-0.0154891
15871	-0.0146572
15882.1	-0.0138824
15890.9	-0.0133049
15901.9	-0.012637
15910.8	-0.0121467
15921.8	-0.0115898
15930.6	-0.0111896
15941.6	-0.0107467
15950.5	-0.0104384
15961.5	-0.0101111
15970.3	-0.00989558
15981.4	-0.00968419
15990.2	-0.00956127
16001.2	-0.00946498
16010	-0.00943342
16021.1	-0.00945012
16032.1	-0.00952822
16040.9	-0.00963408
16051.9	-0.00981948
16060.8	-0.0100092
16071.8	-0.0102968
16080.6	-0.010566
16091.7	-0.0109496
16100.5	-0.0112928
16111.5	-0.0117653
16120.3	-0.0121766
16131.4	-0.01273
16140.2	-0.0132025
16151.2	-0.0138281
16160.1	-0.0143547
16171.1	-0.0150431
16182.1	-0.0157622
16190.9	-0.0163574
16202	-0.0171238
16210.8	-0.0177527
16221.8	-0.0185559
16230.6	-0.0192102
16241.7	-0.0200398
16250.5	-0.0207109
16261.5	-0.0215562
16270.4	-0.0222358
16281.4	-0.0230865
16290.2	-0.0237662
16301.2	-0.0246122
16310.1	-0.0252841
16321.1	-0.0261154
16332.1	-0.0269345
16341	-0.0275793
16352	-0.0283696
16360.8	-0.0289879
16371.8	-0.0297411
16380.7	-0.0303266
16391.7	-0.0310353
16400.5	-0.0315823
16411.6	-0.0322396
16420.4	-0.0327432
16431.4	-0.0333434
16440.2	-0.0337992
16451.3	-0.0343374
16460.1	-0.0347419
16471.1	-0.0352143
16482.2	-0.0356487
16491	-0.0359685
16502	-0.036333
16510.8	-0.0365961
16521.9	-0.0368893
16530.7	-0.0370951
16541.7	-0.0373164
16550.5	-0.0374649
16561.6	-0.037615
16570.4	-0.0377069
16581.4	-0.0377869
16590.3	-0.0378235
16601.3	-0.0378356
16610.1	-0.0378189
16621.1	-0.0377659
16632.2	-0.037678
16641	-0.0375835
16652	-0.0374359
16660.8	-0.0372952
16671.9	-0.0370921
16680.7	-0.0369087
16691.7	-0.0366546
16700.6	-0.0364322
16711.6	-0.0361317
16720.4	-0.0358743
16731.4	-0.0355325
16740.3	-0.0352439
16751.3	-0.0348657
16760.1	-0.0345501
16771.2	-0.0341404
16782.2	-0.0337155
16791	-0.0333655
16802	-0.0329166
16810.9	-0.0325494
16821.9	-0.0320813
16830.7	-0.0317003
16841.8	-0.0312172
16850.6	-0.0308259
16861.6	-0.0303318
16870.4	-0.0299332
16881.5	-0.0294317
16890.3	-0.0290286
16901.3	-0.028523
16910.1	-0.0281178
16921.2	-0.0276109
16930	-0.0272057
16941	-0.0267001
16952.1	-0.0261961
16960.9	-0.0257945
16971.9	-0.0252947
16980.7	-0.0248971
16991.8	-0.0244031
17000.6	-0.0240105
17011.6	-0.0235234
17020.5	-0.0231368
17031.5	-0.0226573
17040.3	-0.0222771
17051.3	-0.0218059
17060.2	-0.0214324
17071.2	-0.0209698
17080	-0.0206033
17091	-0.0201494
17102.1	-0.0197003
17110.9	-0.0193445
17121.9	-0.018904
17130.8	-0.018555
17141.8	-0.0181229
17150.6	-0.0177806
17161.6	-0.0173566
17170.5	-0.0170207
17181.5	-0.0166047
17190.3	-0.0162749
17201.4	-0.0158665
17210.2	-0.0155428
17221.2	-0.0151418
17230	-0.014824
17241.1	-0.0144303
17252.1	-0.0140406
17260.9	-0.0137317
17272	-0.0133491
17280.8	-0.0130459
17291.8	-0.0126706
17300.6	-0.0123731
17311.7	-0.012005
17320.5	-0.0117135
17331.5	-0.0113528
17340.3	-0.0110673
17351.4	-0.0107143
17360.2	-0.010435
17371.2	-0.0100899
17380.1	-0.00981703
17391.1	-0.00948013
17402.1	-0.00914794
17410.9	-0.00888562
17422	-0.0085621
17430.8	-0.00830683
17441.8	-0.00799225
17450.7	-0.00774424
17461.7	-0.00743883
17470.5	-0.00719821
17481.5	-0.00690211
17490.4	-0.00666898
17501.4	-0.00638225
17510.2	-0.00615661
17521.3	-0.00587922
17530.1	-0.00566099
17541.1	-0.00539276
17552.1	-0.0051295
17561	-0.0049224
17572	-0.00466779
17580.8	-0.00446742
17591.8	-0.00422095
17600.7	-0.00402685
17611.7	-0.00378787
17620.5	-0.00359947
17631.6	-0.00336721
17640.4	-0.00318383
17651.4	-0.00295738
17660.2	-0.00277825
17671.3	-0.0025566
17680.1	-0.00238087
17691.1	-0.0021629
17702.2	-0.00194647
17711	-0.00177418
17722	-0.00155957
17730.8	-0.00138823
17741.9	-0.00117417
17750.7	-0.00100278
17761.7	-0.00078802
17770.5	-0.00061556
17781.6	-0.00039885
17790.4	-0.000224343
17801.4	-4.48133e-06
17810.3	0.000173007
17821.3	0.000397145
17830.1	0.000578477
17841.1	0.000807916
17852.2	0.0010407
17861	0.00122949
17872	0.0014689
17880.9	0.00166328
17891.9	0.00190996
17900.7	0.00211037
17911.7	0.0023648
17920.6	0.00257152
17931.6	0.00283395
17940.4	0.00304713
17951.5	0.00331763
17960.3	0.00353722
17971.3	0.00381562
17980.1	0.0040414
17991.2	0.00432733
18002.2	0.00461719
18011	0.00485178
18022	0.00514815
18030.9	0.0053876
18041.9	0.00568958
18050.7	0.00593308
18061.8	0.00623956
18070.6	0.00648617
18081.6	0.00679587
18090.4	0.0070445
18101.5	0.00735601
18110.3	0.00760549
18121.3	0.00791726
18130.2	0.0081663
18141.2	0.00847669
18150	0.00872395
18161	0.00903126
18172.1	0.0093361
18180.9	0.00957783
18191.9	0.00987686
18200.7	0.0101132
18211.8	0.0104047
18220.6	0.0106344
18231.6	0.0109166
18240.5	0.0111382
18251.5	0.0114095
18260.3	0.0116217
18271.3	0.0118805
18280.2	0.0120822
18291.2	0.0123271
18300	0.0125171
18311.1	0.0127468
18322.1	0.0129676
18330.9	0.0131375
18341.9	0.0133413
18350.8	0.0134973
18361.8	0.0136833
18370.6	0.0138247
18381.7	0.0139921
18390.5	0.0141184
18401.5	0.0142667
18410.3	0.0143776
18421.4	0.0145064
18430.2	0.0146016
18441.2	0.0147108
18450	0.0147903
18461.1	0.0148798
18472.1	0.0149585
18480.9	0.0150136
18492	0.015073
18500.8	0.0151129
18511.8	0.0151533
18520.6	0.0151782
18531.7	0.0152003
18540.5	0.0152109
18551.5	0.0152153
18560.4	0.015212
18571.4	0.0151995
18580.2	0.0151831
18591.2	0.0151547
18600.1	0.0151259
18611.1	0.0150826
18622.1	0.0150315
18630.9	0.0149851
18642	0.0149208
18650.8	0.0148645
18661.8	0.0147882
18670.7	0.0147227
18681.7	0.0146358
18690.5	0.0145624
18701.5	0.0144661
18710.4	0.0143858
18721.4	0.0142817
18730.2	0.0141956
18741.3	0.0140851
18750.1	0.0139945
18761.1	0.0138791
18772.1	0.0137616
18781	0.0136664
18792	0.0135465
18800.8	0.0134501
18811.9	0.0133294
18820.7	0.013233
18831.7	0.0131132
18840.5	0.0130182
18851.6	0.0129011
18860.4	0.0128089
18871.4	0.0126962
18880.2	0.0126083
18891.3	0.0125018
18900.1	0.0124196
18911.1	0.0123211
18922.2	0.0122278
18931	0.0121574
18942	0.0120749
18950.8	0.0120139
18961.9	0.0119441
18970.7	0.0118938
18981.7	0.0118385
18990.6	0.0118004
19001.6	0.0117612
19010.4	0.0117367
19021.4	0.0117152
19030.3	0.0117056
19041.3	0.0117034
19050.1	0.0117097
19061.2	0.0117282
19072.2	0.0117587
19081	0.011792
19092	0.011845
19100.9	0.0118968
19111.9	0.0119733
19120.7	0.0120442
19131.7	0.0121449
19140.6	0.0122354
19151.6	0.0123609
19160.4	0.0124712
19171.5	0.0126216
19180.3	0.0127519
19191.3	0.0129271
19200.1	0.0130771
19211.2	0.0132768
19222.2	0.0134898
19231	0.0136695
19242.1	0.0139057
19250.9	0.0141035
19261.9	0.0143616
19270.7	0.0145764
19281.8	0.0148549
19290.6	0.0150853
19301.6	0.0153822
19310.4	0.0156265
19321.5	0.0159397
19330.3	0.0161961
19341.3	0.016523
19350.2	0.0167892
19361.2	0.0171271
19370	0.0174009
19381	0.0177466
19392.1	0.0180953
19400.9	0.0183757
19411.9	0.018727
19420.8	0.0190081
19431.8	0.0193586
19440.6	0.0196375
19451.6	0.0199834
19460.5	0.0202572
19471.5	0.0205948
19480.3	0.0208604
19491.4	0.0211859
19500.2	0.0214403
19511.2	0.0217499
19520	0.0219901
19531.1	0.0222801
19542.1	0.0225577
19550.9	0.0227701
19561.9	0.0230225
19570.8	0.0232135
19581.8	0.0234376
19590.6	0.0236046
19601.7	0.0237972
19610.5	0.0239379
19621.5	0.0240963
19630.3	0.0242085
19641.4	0.0243301
19650.2	0.0244121
19661.2	0.0244948
19670	0.0245448
19681.1	0.0245868
19692.1	0.0246056
19700.9	0.0246036
19712	0.0245796
19720.8	0.0245431
19731.8	0.0244757
19740.6	0.0244042
19751.7	0.024293
19760.5	0.0241864
19771.5	0.0240313
19780.4	0.0238898
19791.4	0.0236913
19800.2	0.0235154
19811.2	0.0232744
19820.1	0.0230648
19831.1	0.0227824
19842.1	0.0224776
19851	0.022218
19862	0.0218743
19870.8	0.0215844
19881.8	0.0212038
19890.7	0.0208852
19901.7	0.0204698
19910.5	0.0201244
19921.6	0.0196767
19930.4	0.0193064
19941.4	0.0188291
19950.2	0.0184361
19961.3	0.0179317
19970.1	0.0175182
19981.1	0.0169895
19992.1	0.0164485
