0	0
18.6583	0
27.9875	0
37.3166	0
46.6458	0
55.975	0
65.3041	0
74.6333	0
83.9624	0
93.2916	0
102.621	0
111.95	0
121.279	0
130.608	0
149.267	0
158.596	0
167.925	0
177.254	0
186.583	0
195.912	0
205.242	0
214.571	0
223.9	0
233.229	0
242.558	0
251.887	0
261.216	0
270.546	0
289.204	0
298.533	0
307.862	0
317.191	0
326.521	0
335.85	0
345.179	0
354.508	0
363.837	0
373.166	0
382.496	0
391.825	0
401.154	0
410.483	0
429.141	0
438.471	0
447.8	0
457.129	0
466.458	0
475.787	0
485.116	0
494.446	0
503.775	0
513.104	0
522.433	0
531.762	0
541.091	0
550.42	0
569.079	0
578.408	0
587.737	0
597.066	0
606.395	0
615.725	0
625.054	0
634.383	0
643.712	0
653.041	0
662.37	0
671.7	0
681.029	0
690.358	0
709.016	0
718.345	0
727.675	0
737.004	0
746.333	0
755.662	0
764.991	0
774.32	0
783.649	0
792.979	0
802.308	0
811.637	0
820.966	0
830.295	0
848.954	0
858.283	0
867.612	0
876.941	0
886.27	0
895.599	0
904.929	0
914.258	0
923.587	0
932.916	0
942.245	0
951.574	0
960.904	0
970.233	0
988.891	0
998.22	0
1007.55	0
1016.88	0
1026.21	0
1035.54	0
1044.87	0
1054.2	0
1063.52	0
1072.85	0
1082.18	0
1091.51	0
1100.84	0
1110.17	0
1128.83	0
1138.16	0
1147.49	0
1156.82	0
1166.15	0
1175.47	0
1184.8	0
1194.13	0
1203.46	0
1212.79	0
1222.12	0
1231.45	0
1240.78	0
1250.11	0
1268.77	0
1278.09	0
1287.42	0
1296.75	0
1306.08	0
1315.41	0
1324.74	0
1334.07	0
1343.4	0
1352.73	0
1362.06	0
1371.39	0
1380.72	0
1390.04	0
1408.7	0
1418.03	0
1427.36	0
1436.69	0
1446.02	0
1455.35	0
1464.68	0
1474.01	0
1483.34	0
1492.67	0
1501.99	0
1511.32	0
1520.65	0
1539.31	0
1548.64	0
1557.97	0
1567.3	0
1576.63	0
1585.96	0
1595.29	0
1604.62	0
1613.94	0
1623.27	0
1632.6	0
1641.93	0
1651.26	0
1660.59	0
1679.25	0
1688.58	0
1697.91	0
1707.24	0
1716.57	0
1725.89	0
1735.22	0
1744.55	0
1753.88	0
1763.21	0
1772.54	0
1781.87	0
1791.2	0
1800.53	0
1819.19	0
1828.52	0
1837.84	0
1847.17	0
1856.5	0
1865.83	0
1875.16	0
1884.49	0
1893.82	0
1903.15	0
1912.48	0
1921.81	0
1931.14	0
1940.47	0
1959.12	0
1968.45	0
1977.78	0
1987.11	0
1996.44	0
2005.77	0
2015.1	0
2024.43	0
2033.76	0
2043.09	0
2052.42	0
2061.74	0
2071.07	0
2080.4	0
2099.06	0
2108.39	0
2117.72	0
2127.05	0
2136.38	0
2145.71	0
2155.04	0
2164.37	0
2173.69	0
2183.02	0
2192.35	0
2201.68	0
2211.01	0
2220.34	0
2239	0
2248.33	0
2257.66	0
2266.99	0
2276.32	0
2285.64	0
2294.97	0
2304.3	0
2313.63	0
2322.96	0
2332.29	0
2341.62	0
2350.95	0
2360.28	0
2378.94	0
2388.27	0
2397.59	0
2406.92	0
2416.25	0
2425.58	0
2434.91	0
2444.24	0
2453.57	0
2462.9	0
2472.23	0
2481.56	0
2490.89	0
2500.22	0
2518.87	0
2528.2	0
2537.53	0
2546.86	0
2556.19	0
2565.52	0
2574.85	0
2584.18	0
2593.51	0
2602.84	0
2612.16	0
2621.49	0
2630.82	0
2640.15	0
2658.81	0
2668.14	0
2677.47	0
2686.8	0
2696.13	0
2705.46	0
2714.79	0
2724.11	-9.09495e-13
2733.44	-9.09495e-13
2742.77	-9.09495e-13
2752.1	-1.81899e-12
2761.43	-2.72848e-12
2770.76	-4.54747e-12
2780.09	-6.36646e-12
2798.75	-1.36424e-11
2808.08	-2.00089e-11
2817.41	-2.81943e-11
2826.74	-3.91083e-11
2836.06	-5.36602e-11
2845.39	-7.45786e-11
2854.72	-1.03682e-10
2864.05	-1.42791e-10
2873.38	-1.95541e-10
2882.71	-2.65572e-10
2892.04	-3.6016e-10
2901.37	-4.8567e-10
2910.7	-6.52108e-10
2920.03	-8.73115e-10
2938.69	-1.54341e-09
2948.01	-2.04e-09
2957.34	-2.68483e-09
2966.67	-3.51974e-09
2976	-4.5975e-09
2985.33	-5.98266e-09
2994.66	-7.75617e-09
3003.99	-1.00172e-08
3013.32	-1.28912e-08
3022.65	-1.65319e-08
3031.98	-2.11248e-08
3041.31	-2.68992e-08
3050.63	-3.41342e-08
3069.29	-5.44069e-08
3078.62	-6.83458e-08
3087.95	-8.55744e-08
3097.28	-1.06797e-07
3106.61	-1.32859e-07
3115.94	-1.64757e-07
3125.27	-2.03676e-07
3134.6	-2.51012e-07
3143.93	-3.08409e-07
3153.26	-3.7779e-07
3162.58	-4.61408e-07
3171.91	-5.61882e-07
3181.24	-6.82254e-07
3190.57	-8.26046e-07
3209.23	-1.20076e-06
3218.56	-1.44173e-06
3227.89	-1.72635e-06
3237.22	-2.06162e-06
3246.55	-2.45549e-06
3255.87	-2.91698e-06
3265.2	-3.45628e-06
3274.53	-4.08487e-06
3283.86	-4.81567e-06
3293.19	-5.66316e-06
3302.52	-6.64351e-06
3311.85	-7.77478e-06
3321.18	-9.07703e-06
3330.51	-1.05725e-05
3349.17	-1.42443e-05
3358.49	-1.64777e-05
3367.82	-1.90188e-05
3377.15	-2.19037e-05
3386.48	-2.51717e-05
3395.81	-2.88654e-05
3405.14	-3.30315e-05
3414.47	-3.77204e-05
3423.8	-4.29868e-05
3433.13	-4.88896e-05
3442.46	-5.54922e-05
3451.78	-6.28629e-05
3461.11	-7.10748e-05
3470.44	-8.0206e-05
3489.1	-0.000101566
3498.43	-0.000113978
3507.76	-0.000127676
3517.09	-0.000142765
3526.42	-0.000159359
3535.74	-0.000177573
3545.07	-0.000197532
3554.4	-0.000219365
3563.73	-0.000243208
3573.06	-0.000269201
3582.39	-0.000297492
3591.72	-0.000328234
3601.05	-0.000361584
3610.38	-0.000397707
3629.03	-0.000478949
3638.36	-0.000524419
3647.69	-0.000573364
3657.02	-0.000625969
3666.35	-0.000682422
3675.68	-0.000742915
3685.01	-0.000807642
3694.34	-0.000876796
3703.66	-0.000950573
3712.99	-0.00102917
3722.32	-0.00111277
3731.65	-0.00120158
3740.98	-0.00129578
3750.31	-0.00139555
3768.97	-0.00161251
3778.3	-0.00173004
3787.62	-0.0018538
3796.95	-0.00198394
3806.28	-0.00212058
3815.61	-0.00226383
3824.94	-0.00241378
3834.27	-0.00257051
3843.6	-0.00273407
3852.93	-0.00290448
3862.25	-0.00308175
3871.58	-0.00326583
3880.91	-0.00345667
3890.24	-0.00365416
3908.9	-0.00406851
3918.23	-0.00428495
3927.56	-0.0045072
3936.88	-0.00473495
3946.21	-0.00496779
3955.54	-0.00520527
3964.87	-0.00544688
3974.2	-0.00569201
3983.53	-0.00594002
3992.86	-0.00619014
4002.19	-0.00644155
4011.51	-0.00669334
4020.84	-0.00694449
4030.17	-0.00719389
4048.83	-0.00768251
4058.16	-0.00791897
4067.49	-0.00814817
4076.82	-0.00836845
4086.14	-0.00857802
4095.47	-0.00877495
4104.8	-0.00895721
4114.13	-0.0091226
4123.46	-0.0092688
4132.79	-0.00939336
4142.12	-0.00949368
4151.45	-0.00956702
4160.78	-0.00961048
4170.1	-0.00962106
4188.76	-0.00953073
4198.09	-0.00942307
4207.42	-0.00926903
4216.75	-0.0090649
4226.08	-0.00880685
4235.41	-0.00849092
4244.74	-0.00811307
4254.06	-0.00766912
4263.39	-0.00715481
4272.72	-0.00656581
4282.05	-0.00589769
4291.38	-0.00514599
4300.71	-0.00430618
4310.04	-0.0033737
4328.7	-0.00121247
4338.02	2.53971e-05
4347.35	0.00137414
4356.68	0.00283821
4366.01	0.004422
4375.34	0.00612978
4384.67	0.00796573
4394	0.00993386
4403.33	0.012038
4412.66	0.0142819
4421.99	0.0166689
4431.32	0.0192023
4440.64	0.0218851
4459.3	0.0277089
4468.63	0.0308544
4477.96	0.0341579
4487.29	0.0376208
4496.62	0.0412439
4505.95	0.0450277
4515.28	0.0489722
4524.61	0.053077
4533.94	0.0573411
4543.26	0.0617631
4552.59	0.066341
4561.92	0.0710725
4571.25	0.0759545
4580.58	0.0809835
4599.24	0.0914654
4608.57	0.0969084
4617.9	0.102479
4627.23	0.10817
4636.56	0.113974
4645.89	0.119886
4655.21	0.125895
4664.54	0.131995
4673.87	0.138175
4683.2	0.144427
4692.53	0.150739
4701.86	0.157102
4711.19	0.163504
4720.52	0.169935
4739.18	0.182832
4748.51	0.189274
4757.84	0.195695
4767.16	0.202081
4776.49	0.20842
4785.82	0.214697
4795.15	0.220899
4804.48	0.227013
4813.81	0.233024
4823.14	0.238918
4832.47	0.244682
4841.8	0.250301
4851.13	0.255763
4860.46	0.261053
4879.11	0.271065
4888.44	0.27576
4897.77	0.280233
4907.1	0.284469
4916.43	0.288458
4925.76	0.292188
4935.09	0.295649
4944.42	0.298829
4953.75	0.301719
4963.08	0.30431
4972.4	0.306593
4981.73	0.308561
4991.06	0.310205
5000.39	0.311519
5019.05	0.313137
5028.38	0.31343
5037.71	0.313374
5047.04	0.312967
5056.37	0.312207
5065.7	0.311091
5075.03	0.30962
5084.35	0.307795
5093.68	0.305615
5103.01	0.303084
5112.34	0.300203
5121.67	0.296978
5131	0.293411
5140.33	0.289508
5158.99	0.280717
5168.32	0.275844
5177.65	0.270663
5186.97	0.265181
5196.3	0.259409
5205.63	0.253357
5214.96	0.247035
5224.29	0.240453
5233.62	0.233625
5242.95	0.226561
5252.28	0.219274
5261.61	0.211777
5270.94	0.204085
5280.27	0.196209
5298.92	0.179967
5308.25	0.171629
5317.58	0.163167
5326.91	0.154595
5336.24	0.145928
5345.57	0.137182
5354.9	0.128373
5364.23	0.119515
5373.56	0.110623
5382.89	0.101715
5392.22	0.0928033
5401.54	0.0839047
5410.87	0.0750338
5420.2	0.0662054
5438.86	0.0487346
5448.19	0.0401205
5457.52	0.0316057
5466.85	0.0232037
5476.18	0.0149275
5485.51	0.00678963
5494.84	-0.0011976
5504.17	-0.0090225
5513.49	-0.0166738
5522.82	-0.0241409
5532.15	-0.0314135
5541.48	-0.038482
5550.81	-0.0453374
5560.14	-0.0519713
5578.8	-0.0645436
5588.13	-0.0704683
5597.46	-0.076144
5606.79	-0.0815654
5616.11	-0.0867281
5625.44	-0.0916281
5634.77	-0.0962623
5644.1	-0.100628
5653.43	-0.104724
5662.76	-0.108549
5672.09	-0.112102
5681.42	-0.115383
5690.75	-0.118394
5700.08	-0.121137
5718.74	-0.125824
5728.06	-0.127776
5737.39	-0.129471
5746.72	-0.130915
5756.05	-0.132112
5765.38	-0.133069
5774.71	-0.133791
5784.04	-0.134285
5793.37	-0.134559
5802.7	-0.134619
5812.03	-0.134474
5821.36	-0.134133
5830.69	-0.133603
5840.01	-0.132894
5858.67	-0.130973
5868	-0.129781
5877.33	-0.128447
5886.66	-0.126981
5895.99	-0.125393
5905.32	-0.123693
5914.65	-0.12189
5923.98	-0.119995
5933.31	-0.118016
5942.64	-0.115965
5951.96	-0.11385
5961.29	-0.11168
5970.62	-0.109466
5989.28	-0.104937
5998.61	-0.102641
6007.94	-0.100333
6017.27	-0.0980228
6026.6	-0.0957172
6035.93	-0.0934236
6045.26	-0.0911488
6054.58	-0.0888993
6063.91	-0.0866811
6073.24	-0.0844999
6082.57	-0.0823612
6091.9	-0.0802697
6101.23	-0.07823
6110.56	-0.0762462
6129.22	-0.0724606
6138.55	-0.0706649
6147.88	-0.0689375
6157.21	-0.0672804
6166.53	-0.0656955
6175.86	-0.0641839
6185.19	-0.0627468
6194.52	-0.0613847
6203.85	-0.0600982
6213.18	-0.058887
6222.51	-0.0577511
6231.84	-0.0566897
6241.17	-0.0557021
6250.5	-0.0547871
6269.16	-0.0531697
6278.48	-0.052464
6287.81	-0.0518244
6297.14	-0.0512489
6306.47	-0.0507353
6315.8	-0.0502811
6325.13	-0.0498839
6334.46	-0.0495411
6343.79	-0.0492501
6353.12	-0.0490083
6362.45	-0.0488127
6371.78	-0.0486608
6381.11	-0.0485495
6390.43	-0.0484761
6409.09	-0.0484319
6418.42	-0.0484555
6427.75	-0.0485059
6437.08	-0.0485803
6446.41	-0.0486763
6455.74	-0.0487911
6465.07	-0.0489223
6474.4	-0.0490674
6483.73	-0.0492241
6493.06	-0.0493901
6502.38	-0.0495632
6511.71	-0.0497413
6521.04	-0.0499224
6530.37	-0.0501046
6549.03	-0.0504649
6558.36	-0.0506396
6567.69	-0.0508087
6577.02	-0.0509706
6586.35	-0.0511239
6595.68	-0.0512674
6605.01	-0.0514
6614.33	-0.0515204
6623.66	-0.0516276
6632.99	-0.0517208
6642.32	-0.051799
6651.65	-0.0518614
6660.98	-0.0519074
6670.31	-0.0519362
6688.97	-0.05194
6698.3	-0.0519141
6707.63	-0.051869
6716.96	-0.0518043
6726.28	-0.0517199
6735.61	-0.0516153
6744.94	-0.0514905
6754.27	-0.0513453
6763.6	-0.0511794
6772.93	-0.0509929
6782.26	-0.0507857
6791.59	-0.0505578
6800.92	-0.0503092
6810.25	-0.0500399
6828.91	-0.04944
6838.23	-0.0491096
6847.56	-0.0487592
6856.89	-0.0483889
6866.22	-0.047999
6875.55	-0.0475898
6884.88	-0.0471615
6894.21	-0.0467146
6903.54	-0.0462492
6912.87	-0.0457659
6922.2	-0.045265
6931.53	-0.0447468
6940.86	-0.044212
6950.18	-0.0436609
6968.84	-0.0425118
6978.17	-0.0419148
6987.5	-0.0413037
6996.83	-0.040679
7006.16	-0.0400412
7015.49	-0.039391
7024.82	-0.038729
7034.15	-0.0380558
7043.48	-0.0373722
7052.81	-0.0366788
7062.13	-0.0359763
7071.46	-0.0352654
7080.79	-0.0345469
7090.12	-0.0338214
7108.78	-0.0323526
7118.11	-0.0316109
7127.44	-0.0308653
7136.77	-0.0301166
7146.1	-0.0293656
7155.43	-0.0286132
7164.76	-0.02786
7174.08	-0.027107
7183.41	-0.0263549
7192.74	-0.0256045
7202.07	-0.0248566
7211.4	-0.0241121
7220.73	-0.0233717
7230.06	-0.0226362
7248.72	-0.0211833
7258.05	-0.0204673
7267.38	-0.0197594
7276.71	-0.0190604
7286.03	-0.0183708
7295.36	-0.0176916
7304.69	-0.0170234
7314.02	-0.0163669
7323.35	-0.0157229
7332.68	-0.0150919
7342.01	-0.0144747
7351.34	-0.0138719
7360.67	-0.0132842
7379.33	-0.0121562
7388.65	-0.0116171
7397.98	-0.0110954
7407.31	-0.0105916
7416.64	-0.0101062
7425.97	-0.00963959
7435.3	-0.00919235
7444.63	-0.00876488
7453.96	-0.00835758
7463.29	-0.00797083
7472.62	-0.00760501
7481.95	-0.00726045
7491.28	-0.00693744
7500.6	-0.00663628
7519.26	-0.00610044
7528.59	-0.0058662
7537.92	-0.00565462
7547.25	-0.00546586
7556.58	-0.00530001
7565.91	-0.00515715
7575.24	-0.00503733
7584.57	-0.00494055
7593.9	-0.0048668
7603.22	-0.00481602
7612.55	-0.00478813
7621.88	-0.00478302
7631.21	-0.00480053
7640.54	-0.00484048
7659.2	-0.00498681
7668.53	-0.00509266
7677.86	-0.0052199
7687.19	-0.00536817
7696.52	-0.00553711
7705.84	-0.00572629
7715.17	-0.00593528
7724.5	-0.0061636
7733.83	-0.00641074
7743.16	-0.00667619
7752.49	-0.00695937
7761.82	-0.00725968
7771.15	-0.00757653
7780.48	-0.00790925
7799.14	-0.00861962
7808.46	-0.00899586
7817.79	-0.00938516
7827.12	-0.00978676
7836.45	-0.0101999
7845.78	-0.0106237
7855.11	-0.0110575
7864.44	-0.0115003
7873.77	-0.0119514
7883.1	-0.0124099
7892.43	-0.0128749
7901.76	-0.0133456
7911.08	-0.013821
7920.41	-0.0143004
7939.07	-0.0152674
7948.4	-0.0157532
7957.73	-0.0162394
7967.06	-0.0167251
7976.39	-0.0172095
7985.72	-0.0176916
7995.05	-0.0181706
8004.38	-0.0186457
8013.7	-0.019116
8023.03	-0.0195808
8032.36	-0.0200391
8041.69	-0.0204902
8051.02	-0.0209334
8060.35	-0.0213678
8079.01	-0.0222075
8088.34	-0.0226114
8097.67	-0.0230037
8107	-0.0233838
8116.32	-0.023751
8125.65	-0.0241048
8134.98	-0.0244445
8144.31	-0.0247696
8153.64	-0.0250796
8162.97	-0.0253739
8172.3	-0.0256521
8181.63	-0.0259137
8190.96	-0.0261583
8200.29	-0.0263855
8218.94	-0.026786
8228.27	-0.0269587
8237.6	-0.0271127
8246.93	-0.0272476
8256.26	-0.0273632
8265.59	-0.0274593
8274.92	-0.0275357
8284.25	-0.0275922
8293.58	-0.0276287
8302.91	-0.027645
8312.24	-0.0276411
8321.56	-0.0276168
8330.89	-0.0275722
8340.22	-0.0275072
8358.88	-0.0273159
8368.21	-0.0271897
8377.54	-0.0270432
8386.87	-0.0268764
8396.2	-0.0266895
8405.53	-0.0264826
8414.86	-0.0262557
8424.19	-0.0260092
8433.51	-0.025743
8442.84	-0.0254574
8452.17	-0.0251526
8461.5	-0.0248288
8470.83	-0.0244862
8480.16	-0.0241251
8498.82	-0.0233484
8508.15	-0.0229333
8517.48	-0.0225008
8526.81	-0.0220512
8536.13	-0.0215848
8545.46	-0.0211019
8554.79	-0.0206029
8564.12	-0.0200882
8573.45	-0.019558
8582.78	-0.0190128
8592.11	-0.0184531
8601.44	-0.017879
8610.77	-0.0172911
8620.1	-0.0166899
8638.76	-0.0154487
8648.08	-0.0148097
8657.41	-0.0141591
8666.74	-0.0134972
8676.07	-0.0128246
8685.4	-0.0121416
8694.73	-0.0114489
8704.06	-0.0107468
8713.39	-0.010036
8722.72	-0.00931672
8732.05	-0.00858965
8741.38	-0.00785525
8750.7	-0.00711404
8760.03	-0.00636654
8778.69	-0.00485477
8788.02	-0.00409155
8797.35	-0.00332417
8806.68	-0.00255315
8816.01	-0.00177905
8825.34	-0.0010024
8834.67	-0.00022376
8844	0.000556325
8853.33	0.0013373
8862.65	0.00211862
8871.98	0.00289974
8881.31	0.00368008
8890.64	0.00445912
8909.3	0.00601105
8918.63	0.00678285
8927.96	0.00755114
8937.29	0.0083154
8946.62	0.00907507
8955.95	0.00982962
8965.28	0.0105785
8974.6	0.0113213
8983.93	0.0120574
8993.26	0.0127863
9002.59	0.0135075
9011.92	0.0142205
9021.25	0.0149249
9030.58	0.0156201
9049.24	0.0169812
9058.57	0.0176463
9067.9	0.0183004
9077.23	0.0189431
9086.55	0.019574
9095.88	0.0201928
9105.21	0.0207991
9114.54	0.0213924
9123.87	0.0219725
9133.2	0.0225389
9142.53	0.0230915
9151.86	0.0236297
9161.19	0.0241535
9170.52	0.0246624
9189.17	0.0256349
9198.5	0.0260979
9207.83	0.0265452
9217.16	0.0269766
9226.49	0.0273918
9235.82	0.0277909
9245.15	0.0281735
9254.48	0.0285396
9263.81	0.0288892
9273.14	0.029222
9282.47	0.0295381
9291.8	0.0298375
9301.12	0.03012
9310.45	0.0303856
9329.11	0.0308665
9338.44	0.0310819
9347.77	0.0312805
9357.1	0.0314625
9366.43	0.031628
9375.76	0.0317771
9385.09	0.0319098
9394.42	0.0320265
9403.75	0.0321271
9413.07	0.0322119
9422.4	0.032281
9431.73	0.0323347
9441.06	0.0323731
9450.39	0.0323964
9469.05	0.0323989
9478.38	0.0323785
9487.71	0.0323441
9497.04	0.0322958
9506.37	0.032234
9515.7	0.0321589
9525.02	0.0320709
9534.35	0.0319701
9543.68	0.031857
9553.01	0.0317318
9562.34	0.0315947
9571.67	0.0314462
9581	0.0312865
9590.33	0.031116
9608.99	0.0307434
9618.32	0.0305421
9627.65	0.0303311
9636.97	0.0301108
9646.3	0.0298814
9655.63	0.0296433
9664.96	0.0293967
9674.29	0.029142
9683.62	0.0288793
9692.95	0.0286091
9702.28	0.0283315
9711.61	0.0280468
9720.94	0.0277553
9730.27	0.0274573
9748.92	0.0268423
9758.25	0.0265259
9767.58	0.0262038
9776.91	0.0258762
9786.24	0.0255434
9795.57	0.0252054
9804.9	0.0248625
9814.23	0.0245149
9823.56	0.0241626
9832.89	0.0238059
9842.22	0.0234448
9851.54	0.0230796
9860.87	0.0227102
9870.2	0.0223369
9888.86	0.0215786
9898.19	0.0211938
9907.52	0.0208054
9916.85	0.0204133
9926.18	0.0200177
9935.51	0.0196186
9944.84	0.0192159
9954.17	0.0188099
9963.49	0.0184004
9972.82	0.0179875
9982.15	0.0175712
9991.48	0.0171515
10000.8	0.0167284
10010.1	0.016302
10028.8	0.0154387
10038.1	0.015002
10047.5	0.0145618
10056.8	0.0141182
10066.1	0.013671
10075.4	0.0132204
10084.8	0.0127662
10094.1	0.0123086
10103.4	0.0118473
10112.8	0.0113825
10122.1	0.0109142
10131.4	0.0104422
10140.7	0.00996666
10150.1	0.00948752
10168.7	0.00851846
10178.1	0.00802856
10187.4	0.0075351
10196.7	0.0070381
10206.1	0.00653758
10215.4	0.00603357
10224.7	0.00552612
10234	0.00501528
10243.4	0.00450108
10252.7	0.00398359
10262	0.00346288
10271.4	0.00293901
10280.7	0.00241206
10290	0.00188213
10308.7	0.000813658
10318	0.000275329
10327.3	-0.000265583
10336.7	-0.000808958
10346	-0.00135467
10355.3	-0.00190259
10364.6	-0.00245259
10374	-0.00300451
10383.3	-0.00355821
10392.6	-0.00411355
10402	-0.00467035
10411.3	-0.00522847
10420.6	-0.00578773
10439.3	-0.00690902
10448.6	-0.0074707
10457.9	-0.00803284
10467.3	-0.00859525
10476.6	-0.00915776
10485.9	-0.00972019
10495.3	-0.0102824
10504.6	-0.0108441
10513.9	-0.0114052
10523.2	-0.0119655
10532.6	-0.0125248
10541.9	-0.0130829
10551.2	-0.0136397
10560.6	-0.014195
10579.2	-0.0153005
10588.5	-0.0158503
10597.9	-0.0163979
10607.2	-0.0169432
10616.5	-0.0174861
10625.9	-0.0180264
10635.2	-0.0185639
10644.5	-0.0190985
10653.9	-0.0196302
10663.2	-0.0201587
10672.5	-0.020684
10681.8	-0.021206
10691.2	-0.0217245
10700.5	-0.0222395
10719.2	-0.0232585
10728.5	-0.0237624
10737.8	-0.0242625
10747.1	-0.0247586
10756.5	-0.0252508
10765.8	-0.025739
10775.1	-0.0262232
10784.5	-0.0267032
10793.8	-0.0271792
10803.1	-0.027651
10812.4	-0.0281187
10821.8	-0.0285823
10831.1	-0.0290417
10840.4	-0.0294969
10859.1	-0.030395
10868.4	-0.0308379
10877.8	-0.0312767
10887.1	-0.0317114
10896.4	-0.0321421
10905.7	-0.0325687
10915.1	-0.0329914
10924.4	-0.0334102
10933.7	-0.033825
10943.1	-0.034236
10952.4	-0.0346432
10961.7	-0.0350467
10971	-0.0354464
10980.4	-0.0358424
10999	-0.0366236
11008.4	-0.0370088
11017.7	-0.0373906
11027	-0.0377688
11036.3	-0.0381437
11045.7	-0.0385152
11055	-0.0388833
11064.3	-0.0392481
11073.7	-0.0396096
11083	-0.0399678
11092.3	-0.0403228
11101.7	-0.0406745
11111	-0.0410231
11120.3	-0.0413684
11139	-0.0420494
11148.3	-0.042385
11157.6	-0.0427175
11167	-0.0430466
11176.3	-0.0433726
11185.6	-0.0436951
11194.9	-0.0440144
11204.3	-0.0443302
11213.6	-0.0446427
11222.9	-0.0449516
11232.3	-0.045257
11241.6	-0.0455587
11250.9	-0.0458568
11260.2	-0.0461511
11278.9	-0.046728
11288.2	-0.0470104
11297.6	-0.0472886
11306.9	-0.0475626
11316.2	-0.0478322
11325.6	-0.0480974
11334.9	-0.0483578
11344.2	-0.0486135
11353.5	-0.0488644
11362.9	-0.0491101
11372.2	-0.0493507
11381.5	-0.049586
11390.9	-0.0498158
11400.2	-0.0500399
11418.8	-0.0504706
11428.2	-0.0506768
11437.5	-0.0508767
11446.8	-0.0510701
11456.2	-0.0512569
11465.5	-0.0514368
11474.8	-0.0516097
11484.1	-0.0517755
11493.5	-0.0519339
11502.8	-0.0520847
11512.1	-0.0522279
11521.5	-0.0523631
11530.8	-0.0524903
11540.1	-0.0526093
11558.8	-0.0528217
11568.1	-0.0529149
11577.4	-0.0529992
11586.8	-0.0530744
11596.1	-0.0531403
11605.4	-0.0531968
11614.8	-0.0532438
11624.1	-0.0532811
11633.4	-0.0533085
11642.7	-0.0533259
11652.1	-0.0533332
11661.4	-0.0533303
11670.7	-0.053317
11680.1	-0.0532932
11698.7	-0.0532136
11708	-0.0531576
11717.4	-0.0530908
11726.7	-0.0530129
11736	-0.052924
11745.4	-0.0528239
11754.7	-0.0527127
11764	-0.0525901
11773.4	-0.0524563
11782.7	-0.052311
11792	-0.0521544
11801.3	-0.0519863
11810.7	-0.0518068
11829.3	-0.0514134
11838.7	-0.0511995
11848	-0.0509741
11857.3	-0.0507373
11866.6	-0.050489
11876	-0.0502294
11885.3	-0.0499584
11894.6	-0.0496761
11904	-0.0493825
11913.3	-0.0490777
11922.6	-0.0487617
11931.9	-0.0484347
11941.3	-0.0480967
11950.6	-0.0477478
11969.3	-0.0470175
11978.6	-0.0466364
11987.9	-0.0462447
11997.2	-0.0458426
12006.6	-0.0454302
12015.9	-0.0450076
12025.2	-0.0445748
12034.6	-0.0441322
12043.9	-0.0436797
12053.2	-0.0432175
12062.6	-0.0427457
12071.9	-0.0422645
12081.2	-0.0417741
12090.5	-0.0412744
12109.2	-0.0402483
12118.5	-0.0397221
12127.9	-0.0391873
12137.2	-0.0386441
12146.5	-0.0380926
12155.8	-0.037533
12165.2	-0.0369654
12174.5	-0.03639
12183.8	-0.0358069
12193.2	-0.0352163
12202.5	-0.0346183
12211.8	-0.0340131
12221.1	-0.0334009
12230.5	-0.0327816
12249.1	-0.031523
12258.5	-0.0308838
12267.8	-0.0302383
12277.1	-0.0295866
12286.5	-0.0289288
12295.8	-0.0282651
12305.1	-0.0275956
12314.4	-0.0269204
12323.8	-0.0262397
12333.1	-0.0255536
12342.4	-0.0248623
12351.8	-0.0241658
12361.1	-0.0234643
12370.4	-0.022758
12389.1	-0.0213312
12398.4	-0.020611
12407.7	-0.0198864
12417.1	-0.0191576
12426.4	-0.0184247
12435.7	-0.0176878
12445	-0.016947
12454.4	-0.0162025
12463.7	-0.0154544
12473	-0.0147028
12482.4	-0.0139478
12491.7	-0.0131896
12501	-0.0124283
12510.4	-0.0116639
12529	-0.0101268
12538.3	-0.00935431
12547.7	-0.00857932
12557	-0.007802
12566.3	-0.00702248
12575.7	-0.00624089
12585	-0.00545739
12594.3	-0.0046721
12603.6	-0.00388517
12613	-0.00309675
12622.3	-0.00230699
12631.6	-0.00151603
12641	-0.000724026
12650.3	6.88615e-05
12668.9	0.00165666
12678.3	0.00245124
12687.6	0.00324607
12696.9	0.00404096
12706.3	0.00483575
12715.6	0.00563027
12724.9	0.00642433
12734.3	0.00721777
12743.6	0.00801039
12752.9	0.00880202
12762.2	0.00959246
12771.6	0.0103815
12780.9	0.0111691
12790.2	0.0119548
12808.9	0.0135203
12818.2	0.0142997
12827.5	0.0150765
12836.9	0.0158506
12846.2	0.0166218
12855.5	0.0173898
12864.9	0.0181545
12874.2	0.0189156
12883.5	0.0196731
12892.8	0.0204265
12902.2	0.0211759
12911.5	0.0219209
12920.8	0.0226614
12930.2	0.0233971
12948.8	0.0248535
12958.2	0.0255739
12967.5	0.0262887
12976.8	0.0269978
12986.1	0.0277009
12995.5	0.028398
13004.8	0.0290888
13014.1	0.0297732
13023.5	0.0304509
13032.8	0.0311218
13042.1	0.0317857
13051.4	0.0324425
13060.8	0.0330919
13070.1	0.0337338
13088.8	0.0349947
13098.1	0.0356132
13107.4	0.0362237
13116.7	0.0368259
13126.1	0.0374197
13135.4	0.0380051
13144.7	0.0385818
13154.1	0.0391497
13163.4	0.0397088
13172.7	0.0402588
13182.1	0.0407998
13191.4	0.0413315
13200.7	0.0418539
13210	0.0423669
13228.7	0.0433643
13238	0.0438485
13247.4	0.044323
13256.7	0.0447876
13266	0.0452424
13275.3	0.0456871
13284.7	0.0461218
13294	0.0465465
13303.3	0.046961
13312.7	0.0473653
13322	0.0477593
13331.3	0.0481431
13340.6	0.0485166
13359.3	0.0492324
13368.6	0.0495747
13378	0.0499065
13387.3	0.0502279
13396.6	0.0505388
13406	0.0508392
13415.3	0.051129
13424.6	0.0514084
13433.9	0.0516771
13443.3	0.0519353
13452.6	0.052183
13461.9	0.0524201
13471.3	0.0526466
13480.6	0.0528625
13499.2	0.0532626
13508.6	0.0534468
13517.9	0.0536204
13527.2	0.0537835
13536.6	0.0539359
13545.9	0.0540779
13555.2	0.0542092
13564.5	0.0543301
13573.9	0.0544404
13583.2	0.0545401
13592.5	0.0546293
13601.9	0.054708
13611.2	0.0547762
13620.5	0.0548339
13639.2	0.0549179
13648.5	0.0549441
13657.8	0.0549598
13667.2	0.0549651
13676.5	0.05496
13685.8	0.0549444
13695.2	0.0549183
13704.5	0.0548818
13713.8	0.0548349
13723.1	0.0547775
13732.5	0.0547097
13741.8	0.0546315
13751.1	0.0545429
13760.5	0.0544439
13779.1	0.0542146
13788.4	0.0540843
13797.8	0.0539437
13807.1	0.0537926
13816.4	0.0536311
13825.8	0.0534593
13835.1	0.053277
13844.4	0.0530844
13853.8	0.0528813
13863.1	0.0526678
13872.4	0.052444
13881.7	0.0522097
13891.1	0.051965
13900.4	0.0517099
13919.1	0.0511685
13928.4	0.0508822
13937.7	0.0505855
13947	0.0502784
13956.4	0.0499608
13965.7	0.0496329
13975	0.0492945
13984.4	0.0489457
13993.7	0.0485864
14003	0.0482168
14012.3	0.0478367
14021.7	0.0474462
14031	0.0470453
14040.3	0.046634
14059	0.0457802
14068.3	0.0453377
14077.7	0.0448848
14087	0.0444215
14096.3	0.0439478
14105.6	0.0434638
14115	0.0429694
14124.3	0.0424647
14133.6	0.0419496
14143	0.0414243
14152.3	0.0408887
14161.6	0.0403428
14170.9	0.0397867
14180.3	0.0392204
14198.9	0.0380573
14208.3	0.0374606
14217.6	0.0368538
14226.9	0.036237
14236.2	0.0356102
14245.6	0.0349735
14254.9	0.0343269
14264.2	0.0336706
14273.6	0.0330045
14282.9	0.0323287
14292.2	0.0316433
14301.6	0.0309485
14310.9	0.0302442
14320.2	0.0295305
14338.9	0.0280756
14348.2	0.0273345
14357.5	0.0265845
14366.9	0.0258257
14376.2	0.0250582
14385.5	0.0242822
14394.8	0.0234978
14404.2	0.0227051
14413.5	0.0219044
14422.8	0.0210957
14432.2	0.0202793
14441.5	0.0194553
14450.8	0.0186239
14460.1	0.0177853
14478.8	0.0160874
14488.1	0.0152286
14497.5	0.0143634
14506.8	0.0134921
14516.1	0.012615
14525.4	0.0117324
14534.8	0.0108444
14544.1	0.00995148
14553.4	0.00905377
14562.8	0.00815163
14572.1	0.00724535
14581.4	0.00633525
14590.8	0.00542165
14600.1	0.00450488
14618.7	0.00266323
14628.1	0.00173904
14637.4	0.000813107
14646.7	-0.000114202
14656.1	-0.0010425
14665.4	-0.0019714
14674.7	-0.00290049
14684	-0.00382938
14693.4	-0.00475764
14702.7	-0.00568485
14712	-0.00661059
14721.4	-0.00753441
14730.7	-0.00845589
14740	-0.00937456
14758.7	-0.0112017
14768	-0.0121092
14777.3	-0.0130121
14786.7	-0.0139099
14796	-0.0148021
14805.3	-0.0156883
14814.7	-0.0165679
14824	-0.0174405
14833.3	-0.0183056
14842.6	-0.0191628
14852	-0.0200115
14861.3	-0.0208512
14870.6	-0.0216816
14889.3	-0.0233122
14898.6	-0.0241114
14907.9	-0.0248994
14917.3	-0.0256757
14926.6	-0.0264397
14935.9	-0.0271911
14945.3	-0.0279293
14954.6	-0.0286541
14963.9	-0.0293648
14973.2	-0.0300612
14982.6	-0.0307428
14991.9	-0.0314092
15001.2	-0.0320601
15010.6	-0.0326949
15029.2	-0.0339154
15038.6	-0.0345003
15047.9	-0.0350678
15057.2	-0.0356177
15066.5	-0.0361496
15075.9	-0.0366634
15085.2	-0.0371586
15094.5	-0.0376352
15103.9	-0.0380927
15113.2	-0.0385311
15122.5	-0.0389502
15131.8	-0.0393497
15141.2	-0.0397295
15150.5	-0.0400895
15169.2	-0.0407496
15178.5	-0.0410495
15187.8	-0.0413292
15197.1	-0.0415888
15206.5	-0.0418281
15215.8	-0.0420472
15225.1	-0.0422462
15234.5	-0.042425
15243.8	-0.0425838
15253.1	-0.0427227
15262.5	-0.0428417
15271.8	-0.042941
15281.1	-0.0430208
15290.4	-0.0430812
15309.1	-0.0431448
15318.4	-0.0431485
15327.8	-0.0431337
15337.1	-0.0431008
15346.4	-0.04305
15355.7	-0.0429817
15365.1	-0.0428963
15374.4	-0.042794
15383.7	-0.0426753
15393.1	-0.0425405
15402.4	-0.04239
15411.7	-0.0422244
15421	-0.0420439
15430.4	-0.0418491
15449	-0.0414185
15458.4	-0.0411836
15467.7	-0.0409363
15477	-0.0406772
15486.4	-0.0404067
15495.7	-0.0401255
15505	-0.0398339
15514.3	-0.0395327
15523.7	-0.0392222
15533	-0.0389032
15542.3	-0.0385762
15551.7	-0.0382417
15561	-0.0379003
15570.3	-0.0375526
15589	-0.0368406
15598.3	-0.0364774
15607.6	-0.0361102
15617	-0.0357395
15626.3	-0.0353659
15635.6	-0.03499
15644.9	-0.0346123
15654.3	-0.0342334
15663.6	-0.0338538
15672.9	-0.0334741
15682.3	-0.0330947
15691.6	-0.0327161
15700.9	-0.032339
15710.3	-0.0319637
15728.9	-0.0312206
15738.2	-0.0308537
15747.6	-0.0304905
15756.9	-0.0301314
15766.2	-0.0297768
15775.6	-0.0294271
15784.9	-0.0290827
15794.2	-0.028744
15803.5	-0.0284112
15812.9	-0.0280848
15822.2	-0.0277649
15831.5	-0.027452
15840.9	-0.0271462
15850.2	-0.0268478
15868.8	-0.0262742
15878.2	-0.0259993
15887.5	-0.0257326
15896.8	-0.0254744
15906.2	-0.0252245
15915.5	-0.0249833
15924.8	-0.0247508
15934.2	-0.0245271
15943.5	-0.0243122
15952.8	-0.0241061
15962.1	-0.023909
15971.5	-0.0237207
15980.8	-0.0235413
15990.1	-0.0233707
16008.8	-0.0230557
16018.1	-0.0229112
16027.4	-0.0227751
16036.8	-0.0226475
16046.1	-0.0225281
16055.4	-0.0224169
16064.8	-0.0223135
16074.1	-0.022218
16083.4	-0.02213
16092.7	-0.0220494
16102.1	-0.0219759
16111.4	-0.0219094
16120.7	-0.0218496
16130.1	-0.0217963
16148.7	-0.021708
16158.1	-0.0216725
16167.4	-0.0216424
16176.7	-0.0216174
16186	-0.0215973
16195.4	-0.0215817
16204.7	-0.0215703
16214	-0.0215629
16223.4	-0.0215591
16232.7	-0.0215587
16242	-0.0215612
16251.3	-0.0215665
16260.7	-0.0215742
16270	-0.021584
16288.7	-0.0216087
16298	-0.021623
16307.3	-0.0216381
16316.6	-0.0216538
16326	-0.0216699
16335.3	-0.0216859
16344.6	-0.0217016
16354	-0.0217167
16363.3	-0.021731
16372.6	-0.0217442
16382	-0.021756
16391.3	-0.0217661
16400.6	-0.0217744
16419.3	-0.0217843
16428.6	-0.0217855
16437.9	-0.0217839
16447.3	-0.0217792
16456.6	-0.0217714
16465.9	-0.0217601
16475.2	-0.0217452
16484.6	-0.0217265
16493.9	-0.0217038
16503.2	-0.0216771
16512.6	-0.0216461
16521.9	-0.0216108
16531.2	-0.0215709
16540.5	-0.0215263
16559.2	-0.0214229
16568.5	-0.0213638
16577.9	-0.0212997
16587.2	-0.0212304
16596.5	-0.021156
16605.9	-0.0210764
16615.2	-0.0209914
16624.5	-0.0209012
16633.8	-0.0208056
16643.2	-0.0207046
16652.5	-0.0205982
16661.8	-0.0204865
16671.2	-0.0203693
16680.5	-0.0202467
16699.1	-0.0199854
16708.5	-0.0198467
16717.8	-0.0197028
16727.1	-0.0195535
16736.5	-0.0193991
16745.8	-0.0192395
16755.1	-0.0190747
16764.4	-0.018905
16773.8	-0.0187302
16783.1	-0.0185505
16792.4	-0.018366
16801.8	-0.0181767
16811.1	-0.0179828
16820.4	-0.0177842
16839.1	-0.0173738
16848.4	-0.017162
16857.7	-0.016946
16867.1	-0.016726
16876.4	-0.0165019
16885.7	-0.0162739
16895.1	-0.0160421
16904.4	-0.0158066
16913.7	-0.0155676
16923	-0.0153251
16932.4	-0.0150792
16941.7	-0.0148301
16951	-0.0145779
16960.4	-0.0143227
16979	-0.0138036
16988.3	-0.01354
16997.7	-0.0132738
17007	-0.0130052
17016.3	-0.0127343
17025.7	-0.0124611
17035	-0.0121859
17044.3	-0.0119086
17053.7	-0.0116295
17063	-0.0113485
17072.3	-0.011066
17081.6	-0.0107818
17091	-0.0104962
17100.3	-0.0102092
17119	-0.00963164
17128.3	-0.00934122
17137.6	-0.00904985
17146.9	-0.00875763
17156.3	-0.00846465
17165.6	-0.008171
17174.9	-0.00787677
17184.3	-0.00758206
17193.6	-0.00728696
17202.9	-0.00699154
17212.2	-0.00669589
17221.6	-0.00640011
17230.9	-0.00610426
17240.2	-0.00580843
17258.9	-0.00521713
17268.2	-0.00492181
17277.6	-0.00462681
17286.9	-0.00433219
17296.2	-0.00403804
17305.5	-0.0037444
17314.9	-0.00345136
17324.2	-0.00315897
17333.5	-0.00286729
17342.9	-0.00257639
17352.2	-0.00228633
17361.5	-0.00199715
17370.8	-0.00170893
17380.2	-0.00142171
17398.8	-0.000850484
17408.2	-0.000566584
17417.5	-0.00028389
17426.8	-2.45134e-06
17436.1	0.000277686
17445.5	0.000556478
17454.8	0.000833879
17464.1	0.00110985
17473.5	0.00138434
17482.8	0.00165731
17492.1	0.00192873
17501.5	0.00219856
17510.8	0.00246675
17520.1	0.00273327
17538.8	0.00326115
17548.1	0.00352244
17557.4	0.00378192
17566.8	0.00403955
17576.1	0.0042953
17585.4	0.00454913
17594.7	0.00480103
17604.1	0.00505094
17613.4	0.00529884
17622.7	0.00554471
17632.1	0.0057885
17641.4	0.00603019
17650.7	0.00626974
17660	0.00650714
17678.7	0.00697531
17688	0.00720603
17697.4	0.00743446
17706.7	0.00766058
17716	0.00788435
17725.4	0.00810575
17734.7	0.00832474
17744	0.0085413
17753.3	0.00875538
17762.7	0.00896697
17772	0.00917603
17781.3	0.00938252
17790.7	0.00958643
17809.3	0.00998633
17818.6	0.0101823
17828	0.0103755
17837.3	0.0105659
17846.6	0.0107536
17856	0.0109385
17865.3	0.0111205
17874.6	0.0112996
17883.9	0.0114758
17893.3	0.011649
17902.6	0.0118193
17911.9	0.0119865
17921.3	0.0121507
17930.6	0.0123118
17949.3	0.0126246
17958.6	0.0127762
17967.9	0.0129246
17977.2	0.0130697
17986.6	0.0132116
17995.9	0.0133501
18005.2	0.0134853
18014.6	0.0136171
18023.9	0.0137455
18033.2	0.0138704
18042.5	0.0139918
18051.9	0.0141097
18061.2	0.0142241
18070.5	0.0143349
18089.2	0.0145458
18098.5	0.0146457
18107.8	0.014742
18117.2	0.0148346
18126.5	0.0149235
18135.8	0.0150086
18145.2	0.01509
18154.5	0.0151676
18163.8	0.0152414
18173.2	0.0153114
18182.5	0.0153776
18191.8	0.01544
18201.1	0.0154985
18210.5	0.0155532
18229.1	0.015651
18238.5	0.0156941
18247.8	0.0157334
18257.1	0.0157688
18266.4	0.0158004
18275.8	0.0158281
18285.1	0.015852
18294.4	0.0158721
18303.8	0.0158883
18313.1	0.0159008
18322.4	0.0159095
18331.7	0.0159145
18341.1	0.0159158
18350.4	0.0159133
18369.1	0.0158975
18378.4	0.0158842
18387.7	0.0158673
18397.1	0.0158468
18406.4	0.015823
18415.7	0.0157956
18425	0.0157649
18434.4	0.0157309
18443.7	0.0156936
18453	0.015653
18462.4	0.0156093
18471.7	0.0155625
18481	0.0155126
18490.3	0.0154597
18509	0.0153453
18518.3	0.0152839
18527.7	0.0152198
18537	0.0151531
18546.3	0.0150838
18555.6	0.0150121
18565	0.0149379
18574.3	0.0148615
18583.6	0.0147828
18593	0.0147019
18602.3	0.014619
18611.6	0.0145341
18621	0.0144474
18630.3	0.0143588
18648.9	0.0141767
18658.3	0.0140833
18667.6	0.0139884
18676.9	0.0138922
18686.3	0.0137947
18695.6	0.0136961
18704.9	0.0135964
18714.2	0.0134957
18723.6	0.0133941
18732.9	0.0132918
18742.2	0.0131886
18751.6	0.0130849
18760.9	0.0129806
18770.2	0.0128759
18788.9	0.0126654
18798.2	0.0125597
18807.5	0.012454
18816.9	0.0123482
18826.2	0.0122424
18835.5	0.0121367
18844.9	0.0120312
18854.2	0.0119259
18863.5	0.0118209
18872.8	0.0117163
18882.2	0.0116121
18891.5	0.0115083
18900.8	0.0114052
18910.2	0.0113026
18928.8	0.0110994
18938.1	0.0109989
18947.5	0.0108991
18956.8	0.0108002
18966.1	0.0107021
18975.5	0.0106049
18984.8	0.0105086
18994.1	0.0104131
19003.4	0.0103187
19012.8	0.0102252
19022.1	0.0101327
19031.4	0.0100411
19040.8	0.00995052
19050.1	0.00986093
19068.7	0.00968467
19078.1	0.009598
19087.4	0.00951227
19096.7	0.00942748
19106.1	0.0093436
19115.4	0.00926062
19124.7	0.00917849
19134.1	0.00909719
19143.4	0.00901669
19152.7	0.00893695
19162	0.00885793
19171.4	0.00877958
19180.7	0.00870186
19190	0.00862472
19208.7	0.00847196
19218	0.00839623
19227.3	0.00832086
19236.7	0.00824577
19246	0.00817091
19255.3	0.00809621
19264.7	0.0080216
19274	0.00794701
19283.3	0.00787237
19292.6	0.00779759
19302	0.00772262
19311.3	0.00764736
19320.6	0.00757175
19339.3	0.00741912
19348.6	0.00734195
19358	0.0072641
19367.3	0.00718549
19376.6	0.00710604
19385.9	0.00702565
19395.3	0.00694426
19404.6	0.00686178
19413.9	0.00677812
19423.3	0.00669321
19432.6	0.00660696
19441.9	0.00651929
19451.2	0.00643013
19460.6	0.00633939
19479.2	0.00615288
19488.6	0.00605696
19497.9	0.00595916
19507.2	0.00585941
19516.5	0.00575764
19525.9	0.00565378
19535.2	0.00554777
19544.5	0.00543954
19553.9	0.00532903
19563.2	0.00521618
19572.5	0.00510093
19581.9	0.00498323
19591.2	0.00486302
19600.5	0.00474025
19619.2	0.00448686
19628.5	0.00435614
19637.8	0.00422269
19647.2	0.00408648
19656.5	0.00394746
19665.8	0.0038056
19675.1	0.00366088
19684.5	0.00351328
19693.8	0.00336276
19703.1	0.00320932
19712.5	0.00305293
19721.8	0.00289359
19731.1	0.00273127
19740.4	0.00256598
19759.1	0.00222646
19768.4	0.00205223
19777.8	0.00187502
19787.1	0.00169485
19796.4	0.00151172
19805.8	0.00132565
19815.1	0.00113666
19824.4	0.000944757
19833.7	0.000749969
19843.1	0.000552321
19852.4	0.00035184
19861.7	0.000148556
19871.1	-5.74992e-05
19880.4	-0.00026629
19899	-0.000691928
19908.4	-0.000908692
19917.7	-0.00112803
19927	-0.00134989
19936.4	-0.00157423
19945.7	-0.00180099
19955	-0.00203013
19964.3	-0.00226159
19973.7	-0.00249531
19983	-0.00273123
19992.3	-0.00296929
