0	0
13.9771	0
23.2952	0
32.6133	0
41.9313	0
51.2494	0
60.5675	0
74.5446	0
83.8627	0
93.1808	0
102.499	0
111.817	0
121.135	0
130.453	0
144.43	0
153.748	0
163.066	0
172.384	0
181.702	0
191.021	0
200.339	0
214.316	0
223.634	0
232.952	0
242.27	0
251.588	0
260.906	0
270.224	0
284.201	0
293.519	0
302.837	0
312.156	0
321.474	0
330.792	0
340.11	0
354.087	0
363.405	0
372.723	0
382.041	0
391.359	0
400.677	0
414.654	0
423.972	0
433.291	0
442.609	0
451.927	0
461.245	0
470.563	0
484.54	0
493.858	0
503.176	0
512.494	0
521.812	0
531.13	0
540.448	0
554.426	0
563.744	0
573.062	0
582.38	0
591.698	0
601.016	0
610.334	0
624.311	0
633.629	0
642.947	0
652.265	0
661.583	0
670.902	0
680.22	0
694.197	0
703.515	0
712.833	0
722.151	0
731.469	0
740.787	0
750.105	0
764.082	0
773.4	0
782.718	0
792.037	0
801.355	0
810.673	0
824.65	0
833.968	0
843.286	0
852.604	0
861.922	0
871.24	0
880.558	0
894.535	0
903.853	0
913.171	0
922.49	0
931.808	0
941.126	0
950.444	0
964.421	0
973.739	0
983.057	0
992.375	0
1001.69	0
1011.01	0
1020.33	0
1034.31	0
1043.62	0
1052.94	0
1062.26	0
1071.58	0
1080.9	0
1090.21	0
1104.19	0
1113.51	0
1122.83	0
1132.15	0
1141.46	0
1150.78	0
1160.1	0
1174.08	0
1183.4	0
1192.71	0
1202.03	0
1211.35	0
1220.67	0
1234.65	0
1243.96	0
1253.28	0
1262.6	0
1271.92	0
1281.24	0
1290.55	0
1304.53	0
1313.85	0
1323.17	0
1332.48	0
1341.8	0
1351.12	0
1360.44	0
1374.42	0
1383.73	0
1393.05	0
1402.37	0
1411.69	0
1421.01	0
1430.32	0
1444.3	0
1453.62	0
1462.94	0
1472.26	0
1481.57	0
1490.89	0
1500.21	0
1514.19	0
1523.51	0
1532.82	0
1542.14	0
1551.46	0
1560.78	0
1570.1	0
1584.07	0
1593.39	0
1602.71	0
1612.03	0
1621.35	0
1630.66	0
1644.64	0
1653.96	0
1663.28	0
1672.59	0
1681.91	0
1691.23	0
1700.55	0
1714.53	0
1723.84	0
1733.16	0
1742.48	0
1751.8	0
1761.12	0
1770.43	0
1784.41	0
1793.73	0
1803.05	0
1812.37	0
1821.68	0
1831	0
1840.32	0
1854.3	0
1863.62	0
1872.93	0
1882.25	0
1891.57	0
1900.89	0
1910.21	0
1924.18	0
1933.5	0
1942.82	0
1952.14	0
1961.46	0
1970.77	0
1980.09	0
1994.07	0
2003.39	0
2012.7	0
2022.02	0
2031.34	0
2040.66	0
2054.64	0
2063.95	0
2073.27	0
2082.59	0
2091.91	0
2101.23	0
2110.54	0
2124.52	0
2133.84	0
2143.16	0
2152.48	0
2161.79	0
2171.11	0
2180.43	0
2194.41	0
2203.73	0
2213.04	0
2222.36	0
2231.68	0
2241	0
2250.32	0
2264.29	0
2273.61	0
2282.93	0
2292.25	0
2301.56	0
2310.88	0
2320.2	0
2334.18	0
2343.5	0
2352.81	0
2362.13	0
2371.45	0
2380.77	0
2390.09	0
2404.06	0
2413.38	0
2422.7	0
2432.02	0
2441.34	0
2450.65	0
2464.63	0
2473.95	0
2483.27	0
2492.59	0
2501.9	0
2511.22	0
2520.54	0
2534.52	0
2543.83	0
2553.15	0
2562.47	0
2571.79	0
2581.11	0
2590.43	0
2604.4	0
2613.72	0
2623.04	0
2632.36	0
2641.67	0
2650.99	9.09495e-13
2660.31	9.09495e-13
2674.29	1.81899e-12
2683.61	2.72848e-12
2692.92	5.45697e-12
2702.24	8.18545e-12
2711.56	1.27329e-11
2720.88	2.09184e-11
2730.2	3.18323e-11
2744.17	6.09361e-11
2753.49	9.1859e-11
2762.81	1.37334e-10
2772.13	2.01908e-10
2781.45	2.96495e-10
2790.76	4.32919e-10
2800.08	6.27551e-10
2814.06	1.0823e-09
2823.38	1.54432e-09
2832.7	2.18915e-09
2842.01	3.0841e-09
2851.33	4.31828e-09
2860.65	6.00903e-09
2874.63	9.75797e-09
2883.94	1.33832e-08
2893.26	1.82499e-08
2902.58	2.47464e-08
2911.9	3.33657e-08
2921.22	4.47399e-08
2930.53	5.96619e-08
2944.51	9.09486e-08
2953.83	1.19665e-07
2963.15	1.5662e-07
2972.47	2.03923e-07
2981.78	2.64152e-07
2991.1	3.40436e-07
3000.42	4.36548e-07
3014.4	6.28049e-07
3023.71	7.95512e-07
3033.03	1.00278e-06
3042.35	1.25805e-06
3051.67	1.57089e-06
3060.99	1.95243e-06
3070.3	2.41551e-06
3084.28	3.29589e-06
3093.6	4.03205e-06
3102.92	4.91097e-06
3112.24	5.95556e-06
3121.55	7.19141e-06
3130.87	8.64701e-06
3140.19	1.03538e-05
3154.17	1.34617e-05
3163.48	1.59549e-05
3172.8	1.88346e-05
3182.12	2.21465e-05
3191.44	2.59397e-05
3200.76	3.02662e-05
3210.07	3.51809e-05
3224.05	4.37825e-05
3233.37	5.04245e-05
3242.69	5.78655e-05
3252	6.61695e-05
3261.32	7.54012e-05
3270.64	8.56256e-05
3284.62	0.000102965
3293.94	0.000115953
3303.25	0.000130155
3312.57	0.000145629
3321.89	0.000162431
3331.21	0.000180613
3340.52	0.00020022
3354.5	0.000232397
3363.82	0.000255741
3373.14	0.000280632
3382.45	0.000307091
3391.77	0.00033513
3401.09	0.000364756
3410.41	0.000395968
3424.38	0.000445742
3433.7	0.000480871
3443.02	0.000517531
3452.34	0.00055569
3461.66	0.000595315
3470.97	0.000636364
3480.29	0.000678795
3494.27	0.00074493
3503.59	0.000790606
3512.9	0.000837493
3522.22	0.000885542
3531.54	0.000934703
3540.86	0.00098493
3550.17	0.00103618
3564.15	0.00111489
3573.47	0.00116855
3582.79	0.00122311
3592.1	0.00127858
3601.42	0.00133495
3610.74	0.00139221
3620.06	0.00145038
3634.03	0.00153943
3643.35	0.00160004
3652.67	0.00166174
3661.99	0.00172459
3671.3	0.00178871
3680.62	0.00185422
3694.6	0.00195545
3703.92	0.00202519
3713.23	0.00209701
3722.55	0.00217117
3731.87	0.00224801
3741.19	0.00232792
3750.5	0.00241133
3764.48	0.0025442
3773.8	0.00263886
3783.11	0.00273927
3792.43	0.0028463
3801.75	0.00296099
3811.07	0.00308452
3820.39	0.00321825
3834.36	0.0034415
3843.68	0.00360818
3853	0.00379168
3862.31	0.00399456
3871.63	0.00421972
3880.95	0.00447045
3890.27	0.0047505
3904.24	0.00523495
3913.56	0.00560799
3922.88	0.00602761
3932.2	0.00650016
3941.51	0.00703271
3950.83	0.00763309
3960.15	0.00831001
3974.13	0.00949007
3983.44	0.0104023
3992.76	0.0114288
4002.08	0.0125826
4011.4	0.013878
4020.71	0.0153303
4030.03	0.0169558
4044.01	0.0197578
4053.33	0.0218958
4062.64	0.0242736
4071.96	0.0269125
4081.28	0.0298348
4090.6	0.033064
4104.57	0.0385358
4113.89	0.0426386
4123.21	0.047135
4132.53	0.0520506
4141.84	0.0574111
4151.16	0.063242
4160.48	0.0695683
4174.46	0.0800393
4183.77	0.0877079
4193.09	0.0959515
4202.41	0.104789
4211.73	0.114239
4221.04	0.124314
4230.36	0.135027
4244.34	0.152309
4253.66	0.164645
4262.98	0.177632
4272.29	0.191264
4281.61	0.205533
4290.93	0.220422
4300.25	0.235912
4314.22	0.260218
4323.54	0.27709
4332.86	0.294452
4342.18	0.312261
4351.5	0.330466
4360.81	0.349015
4370.13	0.367846
4384.11	0.396483
4393.43	0.41573
4402.75	0.435017
4412.06	0.454263
4421.38	0.473387
4430.7	0.492305
4440.02	0.510929
4453.99	0.538121
4463.31	0.555624
4472.63	0.572522
4481.95	0.588726
4491.27	0.604149
4500.58	0.618706
4514.56	0.638737
4523.88	0.650774
4533.2	0.66167
4542.52	0.671358
4551.83	0.679774
4561.15	0.686859
4570.47	0.692562
4584.45	0.698428
4593.77	0.700492
4603.08	0.701045
4612.4	0.700067
4621.72	0.697544
4631.04	0.69347
4640.36	0.687847
4654.33	0.676527
4663.65	0.667083
4672.97	0.656151
4682.29	0.643763
4691.6	0.629957
4700.92	0.61478
4710.24	0.59828
4724.22	0.571173
4733.54	0.55162
4742.85	0.530959
4752.17	0.509258
4761.49	0.486592
4770.81	0.463034
4780.13	0.438662
4794.1	0.400754
4803.42	0.374698
4812.74	0.34811
4822.06	0.321071
4831.37	0.293664
4840.69	0.265969
4850.01	0.238066
4863.99	0.195993
4873.31	0.167911
4882.62	0.13989
4891.94	0.112002
4901.26	0.0843175
4910.58	0.0569046
4924.56	0.0164358
4933.87	-0.0100196
4943.19	-0.0359877
4952.51	-0.0614134
4961.83	-0.0862447
4971.15	-0.110433
4980.46	-0.133932
4994.44	-0.167797
5003.76	-0.189395
5013.08	-0.21017
5022.39	-0.230091
5031.71	-0.24913
5041.03	-0.267262
5050.35	-0.284467
5064.33	-0.308497
5073.64	-0.323311
5082.96	-0.337149
5092.28	-0.350003
5101.6	-0.36187
5110.92	-0.372748
5120.23	-0.382639
5134.21	-0.395638
5143.53	-0.403089
5152.85	-0.409583
5162.17	-0.415133
5171.48	-0.419756
5180.8	-0.423469
5190.12	-0.426295
5204.1	-0.42892
5213.41	-0.429632
5222.73	-0.429545
5232.05	-0.428688
5241.37	-0.427093
5250.69	-0.424791
5260	-0.421817
5273.98	-0.416167
5283.3	-0.411662
5292.62	-0.406606
5301.94	-0.401038
5311.25	-0.394994
5320.57	-0.388511
5334.55	-0.378045
5343.87	-0.370629
5353.19	-0.362903
5362.5	-0.354904
5371.82	-0.346668
5381.14	-0.33823
5390.46	-0.329624
5404.43	-0.316473
5413.75	-0.307591
5423.07	-0.298653
5432.39	-0.289689
5441.71	-0.280726
5451.02	-0.271792
5460.34	-0.262913
5474.32	-0.249747
5483.64	-0.241105
5492.96	-0.232595
5502.27	-0.224237
5511.59	-0.216048
5520.91	-0.208044
5530.23	-0.200239
5544.2	-0.188936
5553.52	-0.181686
5562.84	-0.174677
5572.16	-0.167916
5581.48	-0.161412
5590.79	-0.15517
5600.11	-0.149195
5614.09	-0.140742
5623.41	-0.13545
5632.73	-0.130434
5642.04	-0.125695
5651.36	-0.121232
5660.68	-0.117044
5674.66	-0.111273
5683.98	-0.107761
5693.29	-0.104515
5702.61	-0.101529
5711.93	-0.0987992
5721.25	-0.0963196
5730.57	-0.0940845
5744.54	-0.0911767
5753.86	-0.089525
5763.18	-0.0880945
5772.5	-0.0868776
5781.81	-0.0858667
5791.13	-0.0850537
5800.45	-0.0844304
5814.43	-0.0838324
5823.75	-0.0836456
5833.06	-0.0836179
5842.38	-0.0837401
5851.7	-0.0840031
5861.02	-0.0843973
5870.34	-0.0849132
5884.31	-0.0858943
5893.63	-0.0866723
5902.95	-0.0875381
5912.27	-0.0884818
5921.58	-0.0894935
5930.9	-0.0905634
5940.22	-0.0916817
5954.2	-0.0934284
5963.52	-0.0946248
5972.83	-0.0958356
5982.15	-0.0970514
5991.47	-0.0982627
6000.79	-0.0994604
6010.11	-0.100636
6024.08	-0.102337
6033.4	-0.103418
6042.72	-0.104447
6052.04	-0.105416
6061.36	-0.106318
6070.67	-0.107146
6084.65	-0.108234
6093.97	-0.108848
6103.29	-0.109367
6112.6	-0.109784
6121.92	-0.110096
6131.24	-0.110298
6140.56	-0.110387
6154.54	-0.1103
6163.85	-0.110092
6173.17	-0.109762
6182.49	-0.109308
6191.81	-0.10873
6201.13	-0.108026
6210.44	-0.107198
6224.42	-0.105724
6233.74	-0.104588
6243.06	-0.103332
6252.38	-0.101958
6261.69	-0.100469
6271.01	-0.0988671
6280.33	-0.0971571
6294.31	-0.094397
6303.62	-0.0924333
6312.94	-0.090376
6322.26	-0.08823
6331.58	-0.0860006
6340.9	-0.083693
6350.21	-0.0813129
6364.19	-0.0776193
6373.51	-0.0750831
6382.83	-0.0724948
6392.15	-0.0698605
6401.46	-0.0671862
6410.78	-0.0644779
6420.1	-0.0617417
6434.08	-0.0575981
6443.4	-0.0548182
6452.71	-0.052031
6462.03	-0.0492422
6471.35	-0.0464575
6480.67	-0.0436821
6494.64	-0.0395482
6503.96	-0.036819
6513.28	-0.0341171
6522.6	-0.031447
6531.92	-0.0288132
6541.23	-0.02622
6550.55	-0.0236716
6564.53	-0.0199415
6573.85	-0.0175217
6583.17	-0.0151595
6592.48	-0.0128583
6601.8	-0.010621
6611.12	-0.00845046
6620.44	-0.00634949
6634.41	-0.00333387
6643.73	-0.00141737
6653.05	0.000421521
6662.37	0.00218087
6671.69	0.00385891
6681.01	0.00545402
6690.32	0.00696473
6704.3	0.00906972
6713.62	0.010364
6722.94	0.0115699
6732.25	0.0126867
6741.57	0.0137137
6750.89	0.0146503
6760.21	0.0154962
6774.19	0.0165945
6783.5	0.017213
6792.82	0.0177406
6802.14	0.0181776
6811.46	0.0185244
6820.78	0.0187817
6830.09	0.0189501
6844.07	0.0190383
6853.39	0.0189889
6862.71	0.0188546
6872.03	0.0186367
6881.34	0.0183369
6890.66	0.0179569
6904.64	0.0172409
6913.96	0.0166693
6923.27	0.016025
6932.59	0.0153104
6941.91	0.0145282
6951.23	0.0136812
6960.55	0.0127722
6974.52	0.0112993
6983.84	0.010249
6993.16	0.00914808
7002.48	0.00799986
7011.8	0.00680797
7021.11	0.00557608
7030.43	0.00430795
7044.41	0.00234625
7053.73	0.00100452
7063.05	-0.00035971
7072.36	-0.00174237
7081.68	-0.00313937
7091	-0.00454659
7100.32	-0.00595989
7114.29	-0.00808217
7123.61	-0.00949253
7132.93	-0.0108945
7142.25	-0.0122839
7151.57	-0.0136567
7160.89	-0.0150089
7170.2	-0.0163364
7184.18	-0.018273
7193.5	-0.019522
7202.82	-0.0207328
7212.13	-0.0219019
7221.45	-0.0230257
7230.77	-0.0241006
7240.09	-0.0251232
7254.07	-0.0265522
7263.38	-0.0274302
7272.7	-0.028245
7282.02	-0.0289937
7291.34	-0.0296736
7300.66	-0.0302822
7314.63	-0.0310558
7323.95	-0.0314754
7333.27	-0.0318157
7342.59	-0.0320748
7351.9	-0.0322508
7361.22	-0.0323422
7370.54	-0.0323475
7384.52	-0.0321915
7393.84	-0.0319765
7403.15	-0.0316718
7412.47	-0.0312768
7421.79	-0.030791
7431.11	-0.0302142
7440.43	-0.0295462
7454.4	-0.0283735
7463.72	-0.0274786
7473.04	-0.0264938
7482.36	-0.0254198
7491.67	-0.0242578
7500.99	-0.0230088
7510.31	-0.0216743
7524.29	-0.0195156
7533.6	-0.0179746
7542.92	-0.0163543
7552.24	-0.0146571
7561.56	-0.0128854
7570.88	-0.0110417
7580.19	-0.00912883
7594.17	-0.00613631
7603.49	-0.00406371
7612.81	-0.0019329
7622.13	0.000252654
7631.44	0.00248935
7640.76	0.00477345
7650.08	0.00710113
7664.06	0.0106657
7673.37	0.0130848
7682.69	0.0155333
7692.01	0.0180069
7701.33	0.0205014
7710.65	0.0230125
7724.62	0.0268005
7733.94	0.0293339
7743.26	0.0318686
7752.58	0.0344002
7761.89	0.0369245
7771.21	0.0394373
7780.53	0.0419343
7794.51	0.0456413
7803.83	0.0480812
7813.14	0.0504913
7822.46	0.052868
7831.78	0.0552076
7841.1	0.0575067
7850.41	0.0597619
7864.39	0.0630556
7873.71	0.0651878
7883.03	0.0672658
7892.35	0.0692871
7901.66	0.0712494
7910.98	0.0731506
7920.3	0.0749886
7934.28	0.0776236
7943.59	0.0792967
7952.91	0.0809015
7962.23	0.0824369
7971.55	0.0839022
7980.87	0.0852965
7990.18	0.0866196
8004.16	0.08847
8013.48	0.0896139
8022.8	0.0906864
8032.12	0.0916877
8041.43	0.0926182
8050.75	0.0934786
8060.07	0.0942695
8074.05	0.0953277
8083.36	0.0959491
8092.68	0.0965045
8102	0.0969951
8111.32	0.0974222
8120.64	0.0977872
8134.61	0.098221
8143.93	0.0984367
8153.25	0.0985951
8162.57	0.0986979
8171.88	0.0987466
8181.2	0.0987426
8190.52	0.0986876
8204.5	0.0985124
8213.82	0.0983362
8223.13	0.098114
8232.45	0.0978474
8241.77	0.0975377
8251.09	0.0971864
8260.41	0.0967947
8274.38	0.0961343
8283.7	0.0956473
8293.02	0.0951244
8302.34	0.0945665
8311.65	0.0939749
8320.97	0.0933507
8330.29	0.0926947
8344.27	0.0916534
8353.59	0.0909223
8362.9	0.0901627
8372.22	0.0893755
8381.54	0.0885613
8390.86	0.0877209
8400.18	0.0868551
8414.15	0.0855099
8423.47	0.0845831
8432.79	0.083633
8442.11	0.08266
8451.43	0.0816647
8460.74	0.0806474
8470.06	0.0796087
8484.04	0.0780113
8493.36	0.0769206
8502.67	0.0758096
8511.99	0.0746787
8521.31	0.073528
8530.63	0.0723578
8544.61	0.0705662
8553.92	0.0693479
8563.24	0.0681106
8572.56	0.0668543
8581.88	0.065579
8591.2	0.0642849
8600.51	0.062972
8614.49	0.060967
8623.81	0.0596067
8633.13	0.0582273
8642.45	0.0568287
8651.76	0.055411
8661.08	0.053974
8670.4	0.0525175
8684.38	0.0502963
8693.69	0.0487909
8703.01	0.0472658
8712.33	0.045721
8721.65	0.0441564
8730.97	0.0425719
8740.28	0.0409677
8754.26	0.0385244
8763.58	0.0368711
8772.9	0.0351984
8782.22	0.0335066
8791.53	0.0317959
8800.85	0.0300667
8810.17	0.0283194
8824.15	0.0256656
8833.47	0.0238753
8842.78	0.022069
8852.1	0.0202474
8861.42	0.0184112
8870.74	0.0165615
8880.06	0.0146993
8894.03	0.0118847
8903.35	0.00999598
8912.67	0.00809886
8921.99	0.00619472
8931.31	0.00428503
8940.62	0.00237131
8954.6	-0.000503283
8963.92	-0.00241989
8973.24	-0.00433461
8982.55	-0.00624561
8991.87	-0.00815101
9001.19	-0.0100489
9010.51	-0.0119373
9024.49	-0.0147476
9033.8	-0.0166034
9043.12	-0.0184426
9052.44	-0.020263
9061.76	-0.0220627
9071.08	-0.0238395
9080.39	-0.0255914
9094.37	-0.0281681
9103.69	-0.0298488
9113.01	-0.0314975
9122.33	-0.0331123
9131.64	-0.0346914
9140.96	-0.0362328
9150.28	-0.0377349
9164.26	-0.0399105
9173.57	-0.0413069
9182.89	-0.0426583
9192.21	-0.0439634
9201.53	-0.0452207
9210.85	-0.0464292
9220.16	-0.0475875
9234.14	-0.049229
9243.46	-0.0502579
9252.78	-0.0512337
9262.1	-0.0521557
9271.41	-0.0530233
9280.73	-0.0538362
9290.05	-0.0545941
9304.03	-0.0556274
9313.35	-0.0562472
9322.66	-0.0568118
9331.98	-0.0573217
9341.3	-0.057777
9350.62	-0.0581783
9364.59	-0.0586803
9373.91	-0.0589494
9383.23	-0.0591671
9392.55	-0.0593343
9401.87	-0.0594522
9411.19	-0.0595219
9420.5	-0.0595447
9434.48	-0.0594941
9443.8	-0.059406
9453.12	-0.0592763
9462.43	-0.0591066
9471.75	-0.0588987
9481.07	-0.0586544
9490.39	-0.0583756
9504.37	-0.0578969
9513.68	-0.0575404
9523	-0.0571565
9532.32	-0.0567471
9541.64	-0.0563143
9550.96	-0.0558605
9560.27	-0.0553875
9574.25	-0.0546472
9583.57	-0.0541362
9592.89	-0.0536136
9602.21	-0.0530817
9611.52	-0.0525424
9620.84	-0.051998
9630.16	-0.0514503
9644.14	-0.0506272
9653.45	-0.0500801
9662.77	-0.0495366
9672.09	-0.0489983
9681.41	-0.048467
9690.73	-0.0479444
9700.05	-0.0474319
9714.02	-0.0466855
9723.34	-0.0462046
9732.66	-0.0457387
9741.98	-0.0452889
9751.29	-0.0448562
9760.61	-0.0444416
9774.59	-0.0438553
9783.91	-0.0434893
9793.23	-0.043144
9802.54	-0.0428197
9811.86	-0.042517
9821.18	-0.042236
9830.5	-0.0419771
9844.47	-0.0416302
9853.79	-0.0414267
9863.11	-0.0412451
9872.43	-0.0410854
9881.75	-0.0409473
9891.07	-0.0408304
9900.38	-0.0407344
9914.36	-0.0406283
9923.68	-0.0405821
9933	-0.0405548
9942.31	-0.0405458
9951.63	-0.0405543
9960.95	-0.0405796
9970.27	-0.040621
9984.25	-0.0407112
9993.56	-0.040789
10002.9	-0.04088
10012.2	-0.0409831
10021.5	-0.0410977
10030.8	-0.0412227
10040.2	-0.0413574
10054.1	-0.0415757
10063.4	-0.0417308
10072.8	-0.0418925
10082.1	-0.0420601
10091.4	-0.0422328
10100.7	-0.0424099
10110	-0.0425905
10124	-0.0428667
10133.3	-0.0430533
10142.7	-0.0432413
10152	-0.0434299
10161.3	-0.0436187
10170.6	-0.0438071
10184.6	-0.0440882
10193.9	-0.0442738
10203.2	-0.0444576
10212.5	-0.0446393
10221.9	-0.0448186
10231.2	-0.0449953
10240.5	-0.045169
10254.5	-0.0454239
10263.8	-0.0455899
10273.1	-0.0457525
10282.4	-0.0459118
10291.7	-0.0460677
10301.1	-0.0462204
10310.4	-0.0463697
10324.4	-0.0465878
10333.7	-0.0467294
10343	-0.0468681
10352.3	-0.0470041
10361.6	-0.0471377
10370.9	-0.0472689
10380.3	-0.047398
10394.2	-0.0475883
10403.6	-0.0477133
10412.9	-0.0478371
10422.2	-0.0479599
10431.5	-0.0480821
10440.8	-0.0482039
10450.1	-0.0483256
10464.1	-0.0485085
10473.4	-0.0486311
10482.8	-0.0487546
10492.1	-0.048879
10501.4	-0.0490048
10510.7	-0.0491321
10520	-0.0492612
10534	-0.0494584
10543.3	-0.0495926
10552.6	-0.0497291
10562	-0.0498681
10571.3	-0.0500096
10580.6	-0.0501537
10594.6	-0.0503749
10603.9	-0.0505257
10613.2	-0.0506792
10622.5	-0.0508353
10631.9	-0.050994
10641.2	-0.0511552
10650.5	-0.0513186
10664.5	-0.0515678
10673.8	-0.0517362
10683.1	-0.0519063
10692.4	-0.0520778
10701.7	-0.0522503
10711.1	-0.0524235
10720.4	-0.0525971
10734.3	-0.0528574
10743.7	-0.0530303
10753	-0.0532021
10762.3	-0.0533723
10771.6	-0.0535405
10780.9	-0.0537061
10790.3	-0.0538687
10804.2	-0.0541054
10813.6	-0.0542576
10822.9	-0.0544047
10832.2	-0.0545459
10841.5	-0.0546807
10850.8	-0.0548083
10860.1	-0.0549282
10874.1	-0.0550918
10883.4	-0.055189
10892.8	-0.055276
10902.1	-0.0553519
10911.4	-0.0554161
10920.7	-0.0554678
10930	-0.0555063
10944	-0.0555375
10953.3	-0.0555397
10962.6	-0.0555259
10972	-0.0554956
10981.3	-0.0554479
10990.6	-0.0553822
11004.6	-0.0552481
11013.9	-0.0551341
11023.2	-0.0549994
11032.5	-0.0548436
11041.8	-0.0546658
11051.2	-0.0544654
11060.5	-0.0542418
11074.5	-0.0538615
11083.8	-0.0535772
11093.1	-0.0532676
11102.4	-0.0529321
11111.7	-0.0525703
11121	-0.0521817
11130.4	-0.0517657
11144.3	-0.0510896
11153.7	-0.0506035
11163	-0.0500888
11172.3	-0.049545
11181.6	-0.048972
11190.9	-0.0483694
11200.3	-0.047737
11214.2	-0.0467324
11223.5	-0.046025
11232.9	-0.0452874
11242.2	-0.0445195
11251.5	-0.0437214
11260.8	-0.0428931
11270.1	-0.0420347
11284.1	-0.0406909
11293.4	-0.0397579
11302.8	-0.0387953
11312.1	-0.0378034
11321.4	-0.0367827
11330.7	-0.0357333
11340	-0.0346558
11354	-0.0329875
11363.3	-0.0318414
11372.6	-0.0306687
11382	-0.0294701
11391.3	-0.0282461
11400.6	-0.0269974
11414.6	-0.0250794
11423.9	-0.0237719
11433.2	-0.0224421
11442.5	-0.021091
11451.8	-0.0197192
11461.2	-0.0183277
11470.5	-0.0169173
11484.5	-0.0147683
11493.8	-0.0133148
11503.1	-0.0118457
11512.4	-0.0103621
11521.7	-0.00886496
11531	-0.00735535
11540.4	-0.00583433
11554.3	-0.0035338
11563.7	-0.00198907
11573	-0.000436817
11582.3	0.00112181
11591.6	0.00268566
11600.9	0.00425356
11610.2	0.00582432
11624.2	0.00818324
11633.5	0.00975596
11642.9	0.0113274
11652.2	0.0128962
11661.5	0.0144614
11670.8	0.0160215
11680.1	0.0175756
11694.1	0.0198925
11703.4	0.0214259
11712.7	0.0229489
11722.1	0.0244605
11731.4	0.0259594
11740.7	0.0274444
11750	0.0289145
11764	0.0310892
11773.3	0.032517
11782.6	0.0339261
11791.9	0.0353153
11801.3	0.0366837
11810.6	0.0380303
11824.6	0.0400073
11833.9	0.0412953
11843.2	0.0425583
11852.5	0.0437955
11861.8	0.0450061
11871.1	0.0461894
11880.5	0.0473447
11894.4	0.0490237
11903.8	0.0501062
11913.1	0.0511586
11922.4	0.0521806
11931.7	0.0531715
11941	0.0541312
11950.4	0.0550594
11964.3	0.0563918
11973.6	0.05724
11983	0.0580561
11992.3	0.05884
12001.6	0.0595917
12010.9	0.0603114
12020.2	0.0609992
12034.2	0.0619716
12043.5	0.0625807
12052.9	0.0631591
12062.2	0.063707
12071.5	0.064225
12080.8	0.0647137
12090.1	0.0651736
12104.1	0.065811
12113.4	0.0662019
12122.7	0.0665667
12132.1	0.066906
12141.4	0.0672208
12150.7	0.067512
12160	0.0677804
12174	0.0681426
12183.3	0.0683585
12192.6	0.0685553
12201.9	0.0687339
12211.3	0.0688954
12220.6	0.0690409
12234.6	0.0692315
12243.9	0.0693416
12253.2	0.0694395
12262.5	0.0695262
12271.8	0.0696027
12281.1	0.0696701
12290.5	0.0697293
12304.4	0.0698051
12313.8	0.0698481
12323.1	0.0698863
12332.4	0.0699205
12341.7	0.0699513
12351	0.0699797
12360.3	0.0700063
12374.3	0.0700441
12383.6	0.0700688
12393	0.0700937
12402.3	0.0701191
12411.6	0.0701455
12420.9	0.0701731
12430.2	0.0702022
12444.2	0.0702489
12453.5	0.0702822
12462.8	0.0703172
12472.2	0.0703538
12481.5	0.0703918
12490.8	0.0704311
12500.1	0.0704712
12514.1	0.0705325
12523.4	0.0705733
12532.7	0.0706135
12542	0.0706525
12551.4	0.0706896
12560.7	0.0707243
12570	0.0707558
12584	0.0707951
12593.3	0.0708149
12602.6	0.0708285
12611.9	0.0708351
12621.2	0.0708336
12630.6	0.0708231
12644.5	0.0707883
12653.9	0.0707509
12663.2	0.0707009
12672.5	0.0706373
12681.8	0.070559
12691.1	0.070465
12700.5	0.0703543
12714.4	0.0701546
12723.7	0.0699976
12733.1	0.0698203
12742.4	0.0696219
12751.7	0.0694012
12761	0.0691575
12770.3	0.0688899
12784.3	0.0684418
12793.6	0.0681109
12803	0.0677533
12812.3	0.0673684
12821.6	0.0669556
12830.9	0.0665143
12840.2	0.066044
12854.2	0.0652832
12863.5	0.0647384
12872.8	0.0641634
12882.2	0.0635577
12891.5	0.0629212
12900.8	0.0622538
12910.1	0.0615555
12924.1	0.0604499
12933.4	0.0596743
12942.7	0.0588679
12952	0.0580312
12961.4	0.0571642
12970.7	0.0562674
12984.7	0.0548673
12994	0.0538979
13003.3	0.0529004
13012.6	0.0518753
13021.9	0.0508234
13031.2	0.0497454
13040.6	0.048642
13054.5	0.0469411
13063.9	0.045778
13073.2	0.0445925
13082.5	0.0433858
13091.8	0.0421587
13101.1	0.0409124
13110.4	0.0396478
13124.4	0.0377193
13133.7	0.0364142
13143.1	0.0350949
13152.4	0.0337626
13161.7	0.0324186
13171	0.031064
13180.3	0.0297001
13194.3	0.0276396
13203.6	0.0262579
13212.9	0.0248714
13222.3	0.0234813
13231.6	0.0220888
13240.9	0.0206952
13250.2	0.0193017
13264.2	0.0172146
13273.5	0.0158269
13282.8	0.0144436
13292.2	0.013066
13301.5	0.0116951
13310.8	0.010332
13320.1	0.00897798
13334.1	0.00696606
13343.4	0.00563906
13352.7	0.00432463
13362	0.00302373
13371.4	0.00173727
13380.7	0.000466108
13394.6	-0.00141015
13404	-0.00263954
13413.3	-0.00385093
13422.6	-0.00504365
13431.9	-0.0062171
13441.2	-0.00737069
13450.6	-0.0085039
13464.5	-0.0101645
13473.9	-0.0112448
13483.2	-0.0123033
13492.5	-0.0133397
13501.8	-0.0143538
13511.1	-0.0153453
13520.4	-0.0163141
13534.4	-0.0177245
13543.7	-0.0186362
13553.1	-0.019525
13562.4	-0.020391
13571.7	-0.0212343
13581	-0.022055
13590.3	-0.0228533
13604.3	-0.0240093
13613.6	-0.0247526
13622.9	-0.0254744
13632.3	-0.026175
13641.6	-0.0268548
13650.9	-0.0275141
13660.2	-0.0281534
13674.2	-0.0290756
13683.5	-0.0296665
13692.8	-0.0302389
13702.1	-0.0307932
13711.5	-0.0313299
13720.8	-0.0318495
13730.1	-0.0323525
13744.1	-0.0330767
13753.4	-0.0335402
13762.7	-0.0339886
13772	-0.0344226
13781.3	-0.0348425
13790.7	-0.0352488
13804.6	-0.0358337
13814	-0.0362079
13823.3	-0.0365699
13832.6	-0.0369201
13841.9	-0.037259
13851.2	-0.0375867
13860.6	-0.0379038
13874.5	-0.0383598
13883.8	-0.0386512
13893.2	-0.0389328
13902.5	-0.0392049
13911.8	-0.0394676
13921.1	-0.039721
13930.4	-0.0399655
13944.4	-0.0403155
13953.7	-0.0405379
13963.1	-0.0407517
13972.4	-0.0409569
13981.7	-0.0411536
13991	-0.0413419
14000.3	-0.0415217
14014.3	-0.0417757
14023.6	-0.0419345
14032.9	-0.0420849
14042.3	-0.0422268
14051.6	-0.0423603
14060.9	-0.0424853
14070.2	-0.0426018
14084.2	-0.0427605
14093.5	-0.0428556
14102.8	-0.0429421
14112.1	-0.04302
14121.5	-0.0430892
14130.8	-0.0431497
14140.1	-0.0432016
14154.1	-0.0432632
14163.4	-0.0432935
14172.7	-0.0433152
14182	-0.0433283
14191.3	-0.0433329
14200.7	-0.0433291
14214.6	-0.0433078
14224	-0.0432832
14233.3	-0.0432506
14242.6	-0.04321
14251.9	-0.0431616
14261.2	-0.0431055
14270.5	-0.043042
14284.5	-0.0429329
14293.8	-0.0428514
14303.2	-0.042763
14312.5	-0.042668
14321.8	-0.0425666
14331.1	-0.0424591
14340.4	-0.0423457
14354.4	-0.0421651
14363.7	-0.042038
14373	-0.041906
14382.4	-0.0417691
14391.7	-0.0416278
14401	-0.0414823
14410.3	-0.0413328
14424.3	-0.0411018
14433.6	-0.0409435
14442.9	-0.0407822
14452.2	-0.0406181
14461.6	-0.0404513
14470.9	-0.0402822
14480.2	-0.0401109
14494.2	-0.0398504
14503.5	-0.0396746
14512.8	-0.0394972
14522.1	-0.0393185
14531.5	-0.0391385
14540.8	-0.0389574
14550.1	-0.0387753
14564.1	-0.0385003
14573.4	-0.038316
14582.7	-0.0381308
14592	-0.0379447
14601.3	-0.0377579
14610.7	-0.0375701
14624.6	-0.0372867
14634	-0.0370965
14643.3	-0.0369051
14652.6	-0.0367124
14661.9	-0.0365183
14671.2	-0.0363225
14680.5	-0.0361249
14694.5	-0.0358245
14703.8	-0.0356213
14713.2	-0.0354154
14722.5	-0.0352065
14731.8	-0.0349944
14741.1	-0.0347786
14750.4	-0.0345588
14764.4	-0.034221
14773.7	-0.0339897
14783	-0.0337532
14792.4	-0.0335111
14801.7	-0.0332629
14811	-0.0330081
14820.3	-0.0327465
14834.3	-0.0323402
14843.6	-0.0320594
14852.9	-0.0317702
14862.2	-0.0314722
14871.6	-0.031165
14880.9	-0.030848
14890.2	-0.030521
14904.2	-0.0300107
14913.5	-0.0296567
14922.8	-0.0292914
14932.1	-0.0289142
14941.4	-0.028525
14950.8	-0.0281234
14960.1	-0.0277091
14974.1	-0.0270634
14983.4	-0.0266165
14992.7	-0.026156
15002	-0.0256821
15011.3	-0.0251944
15020.7	-0.024693
15034.6	-0.023915
15043.9	-0.0233791
15053.3	-0.0228295
15062.6	-0.0222663
15071.9	-0.0216896
15081.2	-0.0210996
15090.5	-0.0204967
15104.5	-0.0195684
15113.8	-0.0189341
15123.2	-0.018288
15132.5	-0.0176305
15141.8	-0.0169621
15151.1	-0.0162833
15160.4	-0.0155947
15174.4	-0.0145447
15183.7	-0.0138342
15193	-0.0131163
15202.4	-0.0123917
15211.7	-0.0116611
15221	-0.0109254
15230.3	-0.0101855
15244.3	-0.00906951
15253.6	-0.00832284
15262.9	-0.00757511
15272.2	-0.00682732
15281.6	-0.00608043
15290.9	-0.00533545
15300.2	-0.00459339
15314.2	-0.00348803
15323.5	-0.00275776
15332.8	-0.002034
15342.1	-0.00131778
15351.4	-0.000610109
15360.8	8.80045e-05
15370.1	0.000775568
15384.1	0.001785
15393.4	0.00244197
15402.7	0.00308506
15412	0.00371339
15421.3	0.0043261
15430.6	0.00492236
15444.6	0.00578419
15453.9	0.00633596
15463.3	0.00686869
15472.6	0.00738174
15481.9	0.00787451
15491.2	0.00834645
15500.5	0.00879708
15514.5	0.00943207
15523.8	0.00982755
15533.1	0.0102004
15542.5	0.0105503
15551.8	0.0108771
15561.1	0.0111807
15570.4	0.0114609
15584.4	0.0118374
15593.7	0.0120592
15603	0.0122578
15612.3	0.0124333
15621.7	0.0125859
15631	0.0127159
15640.3	0.0128236
15654.3	0.012944
15663.6	0.0129976
15672.9	0.0130302
15682.2	0.0130424
15691.6	0.0130347
15700.9	0.0130078
15710.2	0.0129621
15724.2	0.01286
15733.5	0.0127705
15742.8	0.0126645
15752.1	0.012543
15761.4	0.0124065
15770.8	0.0122558
15780.1	0.0120918
15794.1	0.0118222
15803.4	0.0116279
15812.7	0.0114229
15822	0.011208
15831.3	0.0109839
15840.6	0.0107514
15854.6	0.0103884
15863.9	0.0101381
15873.3	0.0098819
15882.6	0.00962056
15891.9	0.00935476
15901.2	0.00908513
15910.5	0.00881232
15924.5	0.00839846
15933.8	0.0081203
15943.1	0.00784096
15952.5	0.00756096
15961.8	0.00728077
15971.1	0.00700085
15980.4	0.00672159
15994.4	0.00630479
16003.7	0.0060288
16013	0.00575466
16022.3	0.00548263
16031.7	0.00521294
16041	0.00494578
16050.3	0.00468129
16064.3	0.00428986
16073.6	0.00403254
16082.9	0.00377819
16092.2	0.00352681
16101.5	0.00327837
16110.9	0.00303283
16120.2	0.0027901
16134.2	0.00243103
16143.5	0.00219478
16152.8	0.00196083
16162.1	0.00172898
16171.4	0.00149901
16180.8	0.00127066
16190.1	0.00104367
16204	0.000705116
16213.4	0.000480241
16222.7	0.000255648
16232	3.09956e-05
16241.3	-0.000194072
16250.6	-0.000419923
16264.6	-0.000760995
16273.9	-0.000990474
16283.2	-0.00122209
16292.6	-0.00145625
16301.9	-0.00169336
16311.2	-0.00193383
16320.5	-0.00217807
16334.5	-0.0025524
16343.8	-0.00280786
16353.1	-0.00306853
16362.5	-0.00333481
16371.8	-0.00360711
16381.1	-0.0038858
16390.4	-0.00417129
16404.4	-0.00461309
16413.7	-0.0049172
16423	-0.00522938
16432.3	-0.00555
16441.7	-0.00587936
16451	-0.00621781
16460.3	-0.00656563
16474.3	-0.00710559
16483.6	-0.00747811
16492.9	-0.00786097
16502.2	-0.00825439
16511.5	-0.00865859
16520.9	-0.00907377
16530.2	-0.0095001
16544.2	-0.0101609
16553.5	-0.0106157
16562.8	-0.0110822
16572.1	-0.0115604
16581.4	-0.0120503
16590.7	-0.012552
16600.1	-0.0130656
16614	-0.0138579
16623.4	-0.0144008
16632.7	-0.0149553
16642	-0.0155213
16651.3	-0.0160987
16660.6	-0.0166874
16674.6	-0.017591
16683.9	-0.0182068
16693.2	-0.018833
16702.6	-0.0194694
16711.9	-0.0201156
16721.2	-0.0207713
16730.5	-0.0214361
16744.5	-0.0224494
16753.8	-0.023135
16763.1	-0.0238282
16772.4	-0.0245284
16781.8	-0.0252351
16791.1	-0.0259478
16800.4	-0.0266657
16814.4	-0.0277512
16823.7	-0.0284797
16833	-0.0292112
16842.3	-0.029945
16851.7	-0.0306804
16861	-0.0314166
16870.3	-0.0321528
16884.3	-0.0332554
16893.6	-0.0339882
16902.9	-0.0347181
16912.2	-0.0354443
16921.5	-0.0361659
16930.9	-0.036882
16940.2	-0.0375917
16954.1	-0.0386423
16963.5	-0.039332
16972.8	-0.0400121
16982.1	-0.0406817
16991.4	-0.0413398
17000.7	-0.0419855
17010.1	-0.0426179
17024	-0.0435394
17033.4	-0.0441345
17042.7	-0.044713
17052	-0.0452741
17061.3	-0.045817
17070.6	-0.0463407
17084.6	-0.0470886
17093.9	-0.0475609
17103.2	-0.0480113
17112.6	-0.0484389
17121.9	-0.0488431
17131.2	-0.0492232
17140.5	-0.0495785
17154.5	-0.0500636
17163.8	-0.0503542
17173.1	-0.050618
17182.4	-0.0508544
17191.8	-0.051063
17201.1	-0.0512433
17210.4	-0.051395
17224.4	-0.0515682
17233.7	-0.0516469
17243	-0.051696
17252.3	-0.0517153
17261.6	-0.0517046
17271	-0.0516638
17280.3	-0.0515929
17294.3	-0.0514302
17303.6	-0.0512841
17312.9	-0.051108
17322.2	-0.0509022
17331.5	-0.0506668
17340.8	-0.050402
17350.2	-0.0501082
17364.1	-0.0496136
17373.5	-0.0492486
17382.8	-0.0488558
17392.1	-0.0484357
17401.4	-0.0479888
17410.7	-0.0475156
17420.1	-0.0470167
17434	-0.0462215
17443.3	-0.0456609
17452.7	-0.0450769
17462	-0.0444701
17471.3	-0.0438412
17480.6	-0.043191
17494.6	-0.0421772
17503.9	-0.041477
17513.2	-0.0407582
17522.6	-0.0400216
17531.9	-0.0392681
17541.2	-0.0384984
17550.5	-0.0377136
17564.5	-0.0365095
17573.8	-0.0356903
17583.1	-0.0348588
17592.4	-0.034016
17601.8	-0.0331626
17611.1	-0.0322996
17620.4	-0.0314279
17634.4	-0.0301056
17643.7	-0.0292156
17653	-0.0283197
17662.3	-0.0274188
17671.6	-0.0265138
17681	-0.0256053
17690.3	-0.0246941
17704.3	-0.0233242
17713.6	-0.0224098
17722.9	-0.0214953
17732.2	-0.0205816
17741.5	-0.0196692
17750.8	-0.0187589
17760.2	-0.0178513
17774.1	-0.0164964
17783.5	-0.0155982
17792.8	-0.014705
17802.1	-0.0138171
17811.4	-0.0129351
17820.7	-0.0120597
17830	-0.0111912
17844	-0.00990268
17853.3	-0.00905377
17862.7	-0.00821347
17872	-0.00738222
17881.3	-0.00656042
17890.6	-0.00574846
17904.6	-0.0045498
17913.9	-0.00376406
17923.2	-0.00298941
17932.5	-0.00222617
17941.9	-0.00147467
17951.2	-0.000735191
17960.5	-8.03032e-06
17974.5	0.00105902
17983.8	0.0017542
17993.1	0.00243614
18002.4	0.00310459
18011.8	0.00375932
18021.1	0.0044001
18030.4	0.0050267
18044.4	0.00593953
18053.7	0.00652975
18063	0.00710504
18072.3	0.0076652
18081.6	0.00821004
18091	0.00873936
18100.3	0.00925296
18114.2	0.00999346
18123.6	0.0104669
18132.9	0.010924
18142.2	0.0113644
18151.5	0.0117881
18160.8	0.0121948
18170.2	0.0125844
18184.1	0.0131361
18193.5	0.0134819
18202.8	0.0138099
18212.1	0.0141198
18221.4	0.0144116
18230.7	0.0146849
18240	0.0149396
18254	0.0152864
18263.3	0.0154938
18272.7	0.0156819
18282	0.0158505
18291.3	0.0159996
18300.6	0.0161288
18314.6	0.0162851
18323.9	0.016364
18333.2	0.0164225
18342.5	0.0164604
18351.9	0.0164776
18361.2	0.016474
18370.5	0.0164493
18384.5	0.0163726
18393.8	0.0162949
18403.1	0.0161957
18412.4	0.0160749
18421.7	0.0159326
18431.1	0.0157686
18440.4	0.0155828
18454.4	0.0152632
18463.7	0.0150229
18473	0.0147607
18482.3	0.0144767
18491.6	0.0141709
18500.9	0.0138433
18510.3	0.013494
18524.2	0.0129295
18533.6	0.0125264
18542.9	0.0121019
18552.2	0.0116562
18561.5	0.0111895
18570.8	0.0107021
18580.2	0.0101941
18594.1	0.00939404
18603.4	0.00883576
18612.8	0.00825791
18622.1	0.00766084
18631.4	0.0070449
18640.7	0.00641049
18650	0.00575804
18664	0.00474654
18673.3	0.00405102
18682.7	0.00333917
18692	0.00261153
18701.3	0.00186869
18710.6	0.00111126
18724.6	-5.08647e-05
18733.9	-0.000841938
18743.2	-0.00164525
18752.5	-0.00246006
18761.9	-0.00328561
18771.2	-0.00412111
18780.5	-0.00496572
18794.5	-0.0062479
18803.8	-0.00711158
18813.1	-0.00798131
18822.4	-0.00885616
18831.7	-0.00973519
18841.1	-0.0106174
18850.4	-0.0115018
18864.4	-0.0128303
18873.7	-0.0137157
18883	-0.0145997
18892.3	-0.0154812
18901.6	-0.016359
18910.9	-0.0172322
18920.3	-0.0180995
18934.2	-0.0193872
18943.6	-0.0202351
18952.9	-0.0210732
18962.2	-0.0219004
18971.5	-0.0227156
18980.8	-0.0235177
18990.1	-0.0243054
19004.1	-0.0254578
19013.4	-0.0262049
19022.8	-0.0269339
19032.1	-0.0276435
19041.4	-0.0283329
19050.7	-0.0290008
19060	-0.0296462
19074	-0.0305702
19083.3	-0.0311551
19092.6	-0.0317143
19102	-0.0322466
19111.3	-0.0327512
19120.6	-0.0332272
19134.6	-0.033886
19143.9	-0.0342871
19153.2	-0.034657
19162.5	-0.0349949
19171.8	-0.0353003
19181.2	-0.0355724
19190.5	-0.0358107
19204.5	-0.0361038
19213.8	-0.0362556
19223.1	-0.036372
19232.4	-0.0364528
19241.7	-0.0364975
19251.1	-0.0365061
19260.4	-0.0364783
19274.3	-0.0363681
19283.7	-0.0362488
19293	-0.036093
19302.3	-0.0359005
19311.6	-0.0356716
19320.9	-0.0354065
19330.3	-0.0351052
19344.2	-0.0345863
19353.6	-0.0341961
19362.9	-0.0337711
19372.2	-0.0333116
19381.5	-0.0328181
19390.8	-0.0322912
19400.1	-0.0317314
19414.1	-0.0308316
19423.4	-0.0301927
19432.8	-0.0295233
19442.1	-0.0288243
19451.4	-0.0280965
19460.7	-0.0273408
19470	-0.0265579
19484	-0.025335
19493.3	-0.0244887
19502.6	-0.0236187
19512	-0.022726
19521.3	-0.0218117
19530.6	-0.020877
19544.6	-0.0194387
19553.9	-0.0184574
19563.2	-0.0174595
19572.5	-0.0164461
19581.8	-0.0154183
19591.2	-0.0143774
19600.5	-0.0133245
19614.5	-0.0117252
19623.8	-0.0106474
19633.1	-0.00956175
19642.4	-0.00846933
19651.7	-0.00737133
19661	-0.00626891
19670.4	-0.00516321
19684.3	-0.00350098
19693.7	-0.002392
19703	-0.00128364
19712.3	-0.000176968
19721.6	0.000926947
19730.9	0.00202707
19740.2	0.00312238
19754.2	0.00475417
19763.5	0.00583317
19772.9	0.00690399
19782.2	0.00796573
19791.5	0.00901751
19800.8	0.0100585
19810.1	0.0110878
19824.1	0.0126083
19833.4	0.0136052
19842.7	0.0145879
19852.1	0.0155556
19861.4	0.0165077
19870.7	0.0174436
19880	0.0183627
19894	0.0197088
19903.3	0.0205836
19912.6	0.0214398
19922	0.022277
19931.3	0.0230947
19940.6	0.0238926
19954.6	0.0250514
19963.9	0.0257982
19973.2	0.0265241
19982.5	0.0272287
19991.8	0.0279119
