0	0
121.145	0
242.29	0
363.435	0
484.58	0
605.725	0
726.869	0
848.013	0
969.156	0
1090.3	0
1211.44	1.45553e-07
1332.58	-1.47206e-05
1453.72	-0.000124352
1574.86	-0.000461495
1696	-0.00113824
1817.15	-0.00212967
1938.29	-0.00315573
2059.43	-0.00365833
2180.58	-0.00286768
2301.72	2.83041e-05
2422.87	0.00564576
2544.01	0.0141524
2665.16	0.0250968
2786.3	0.0373954
2907.44	0.0494993
3028.59	0.0596953
3149.73	0.0664525
3270.88	0.0687224
3392.02	0.0661255
3513.16	0.0589935
3634.31	0.0482765
3755.45	0.0353444
3876.6	0.0217341
3997.74	0.00889576
4118.89	-0.00201566
4240.03	-0.0102697
4361.18	-0.0155984
4482.32	-0.0181512
4603.47	-0.0183876
4724.61	-0.0169398
4845.75	-0.0144766
4966.9	-0.0115908
5088.04	-0.00872914
5209.19	-0.00616539
5330.33	-0.00401345
5451.48	-0.0022674
5572.62	-0.000853795
5693.77	0.000318191
5814.91	0.00131943
5936.06	0.00218182
6057.2	0.00289763
6178.34	0.00343294
6299.49	0.0037484
6420.63	0.00381988
6541.78	0.00365318
6662.92	0.00328912
6784.07	0.00279867
6905.21	0.00227002
7026.36	0.00179136
7147.5	0.00143394
7268.65	0.00123906
7389.79	0.00121178
7510.94	0.00132209
7632.08	0.00151262
7753.23	0.00171071
7874.37	0.00184204
7995.52	0.00184296
8116.66	0.00166932
8237.81	0.00130071
8358.95	0.000740028
8480.1	9.16998e-06
8601.24	-0.00085748
8722.39	-0.00182022
8843.53	-0.00284029
8964.68	-0.00388415
9085.82	-0.00492551
9206.97	-0.00594512
9328.11	-0.0069291
9449.26	-0.00786653
9570.4	-0.00874725
9691.55	-0.00956033
9812.69	-0.0102936
9933.84	-0.0109345
10055	-0.011471
10176.1	-0.0118936
10297.3	-0.0121963
10418.4	-0.0123782
10539.6	-0.0124429
10660.7	-0.0123983
10781.8	-0.0122553
10903	-0.0120265
11024.1	-0.0117248
11145.3	-0.0113622
11266.4	-0.010949
11387.6	-0.0104942
11508.7	-0.010005
11629.9	-0.00948776
11751	-0.00894849
11872.2	-0.0083932
11993.3	-0.00782827
12114.4	-0.00726044
12235.6	-0.0066966
12356.7	-0.0061434
12477.9	-0.0056069
12599	-0.00509221
12720.2	-0.00460326
12841.3	-0.00414273
12962.5	-0.00371216
13083.6	-0.00331219
13204.7	-0.00294276
13325.9	-0.00260338
13447	-0.00229334
13568.2	-0.0020118
13689.3	-0.00175779
13810.5	-0.00153018
13931.6	-0.00132757
14052.8	-0.00114825
14173.9	-0.000990097
14295.1	-0.000850627
14416.2	-0.000727028
14537.3	-0.000616281
14658.5	-0.0005153
14779.6	-0.000421072
14900.8	-0.000330793
15021.9	-0.000241964
15143.1	-0.000152464
15264.2	-6.05789e-05
15385.4	3.49874e-05
15506.5	0.00013512
15627.6	0.000240305
15748.8	0.000350642
15869.9	0.000465849
15991.1	0.00058527
16112.2	0.000707887
16233.4	0.000832339
16354.5	0.000956956
16475.7	0.00107982
16596.8	0.00119884
16717.9	0.00131183
16839.1	0.00141663
16960.2	0.00151117
17081.4	0.0015936
17202.5	0.00166234
17323.7	0.00171616
17444.8	0.0017542
17566	0.00177601
17687.1	0.00178154
17808.3	0.00177112
17929.4	0.00174546
18050.5	0.00170557
18171.7	0.00165275
18292.8	0.00158853
18414	0.00151457
18535.1	0.00143269
18656.3	0.00134471
18777.4	0.00125245
18898.6	0.00115764
19019.7	0.00106186
19140.8	0.000966549
19262	0.000872888
19383.1	0.000781834
19504.3	0.000694088
19625.4	0.000610096
19746.6	0.000530063
19867.7	0.000453978
19988.9	0.000381634
