0	0
19.2069	0
38.4138	0
57.6207	0
76.8276	0
96.0345	0
115.241	0
134.448	0
153.655	0
172.862	0
192.069	0
211.276	0
230.483	0
249.69	0
268.897	0
288.103	0
307.31	0
326.517	0
345.724	0
364.931	9.09495e-13
384.138	4.54747e-12
403.345	2.00089e-11
422.552	8.18545e-11
441.759	3.01043e-10
460.966	1.0059e-09
480.172	3.08955e-09
499.379	8.81755e-09
518.586	2.35468e-08
537.793	5.91854e-08
557	1.40751e-07
576.207	3.18142e-07
595.414	6.86263e-07
614.621	1.41789e-06
633.828	2.81525e-06
653.034	5.38812e-06
672.241	9.96813e-06
691.448	1.78717e-05
710.655	3.11259e-05
729.862	5.27761e-05
749.069	8.7294e-05
768.276	0.000141113
787.483	0.000223313
806.69	0.000346489
825.897	0.000527826
845.103	0.000790401
864.31	0.00116474
883.517	0.00169062
902.724	0.0024191
921.931	0.00341472
941.138	0.00475787
960.345	0.00654704
979.552	0.00890102
998.759	0.0119606
1017.97	0.01589
1037.17	0.0208768
1056.38	0.0271318
1075.39	0.034801
1094.12	0.0440291
1112.49	0.0549289
1130.4	0.067535
1147.75	0.0818257
1164.5	0.0977373
1180.58	0.115112
1195.97	0.133784
1210.24	0.152942
1218.03	0.164184
1228.6	0.18033
1241.88	0.202065
1255.99	0.226934
1271.07	0.25554
1286.95	0.287852
1303.38	0.323551
1320.11	0.36209
1336.92	0.402815
1353.75	0.445264
1370.56	0.48898
1387.37	0.533595
1404.18	0.578675
1421.02	0.62373
1437.89	0.668212
1454.78	0.71153
1471.7	0.753063
1488.65	0.79217
1505.62	0.828202
1522.53	0.860401
1539.31	0.888121
1555.96	0.910928
1572.45	0.928468
1588.79	0.940494
1604.98	0.946839
1621.04	0.947408
1637	0.94216
1652.9	0.931073
1668.71	0.914215
1684.44	0.891727
1700.09	0.863793
1715.69	0.830631
1731.24	0.792497
1746.77	0.749681
1762.29	0.702477
1777.82	0.651227
1793.38	0.596317
1808.96	0.538178
1824.58	0.477275
1840.23	0.414092
1855.93	0.34915
1871.67	0.282995
1887.44	0.216208
1903.24	0.149371
1919.07	0.0830123
1934.94	0.0176396
1950.84	-0.0462408
1966.77	-0.108136
1982.78	-0.167783
1998.98	-0.225107
2015.28	-0.27939
2031.63	-0.330105
2048.02	-0.376879
2064.42	-0.419452
2080.7	-0.45737
2096.91	-0.490727
2113.08	-0.51959
2129.23	-0.544024
2145.36	-0.564107
2161.47	-0.57995
2177.56	-0.591693
2193.63	-0.599514
2209.68	-0.603616
2225.71	-0.604228
2241.73	-0.601593
2257.73	-0.59597
2273.72	-0.587624
2289.7	-0.576825
2305.67	-0.563844
2321.64	-0.548954
2337.61	-0.532422
2353.57	-0.514512
2369.54	-0.495479
2385.51	-0.475567
2401.47	-0.455016
2417.42	-0.434052
2433.37	-0.412878
2449.31	-0.391684
2465.21	-0.370689
2481.1	-0.350019
2496.98	-0.329796
2512.89	-0.31009
2528.82	-0.291035
2544.76	-0.272738
2560.69	-0.25528
2576.61	-0.238724
2592.54	-0.223115
2608.45	-0.208484
2624.37	-0.194848
2640.29	-0.182217
2656.21	-0.170586
2672.13	-0.159947
2688.05	-0.150278
2703.98	-0.141556
2719.92	-0.133747
2735.86	-0.126814
2751.81	-0.120715
2767.78	-0.115406
2783.76	-0.11084
2799.75	-0.106968
2815.75	-0.103739
2831.76	-0.101101
2847.78	-0.0990027
2863.81	-0.0973909
2879.85	-0.0962144
2895.9	-0.0954229
2911.96	-0.0949674
2928.03	-0.0948007
2944.12	-0.0948773
2960.21	-0.095154
2976.31	-0.0955895
2992.42	-0.0961451
3008.54	-0.096784
3024.67	-0.0974718
3040.8	-0.0981761
3056.94	-0.0988666
3073.08	-0.0995145
3089.24	-0.100093
3105.4	-0.100575
3121.56	-0.100934
3137.71	-0.101144
3153.87	-0.101179
3170.02	-0.10101
3186.17	-0.100605
3202.31	-0.0999295
3218.45	-0.0989429
3234.58	-0.0975994
3250.7	-0.0958453
3266.8	-0.093617
3282.89	-0.0908409
3298.96	-0.0874306
3315.01	-0.0832847
3331.04	-0.0782835
3347.07	-0.0722882
3363.17	-0.0651044
3379.34	-0.0565255
3395.59	-0.0463239
3411.89	-0.0342466
3428.23	-0.0200117
3444.59	-0.00332507
3460.96	0.0161501
3477.36	0.0387985
3493.77	0.0650195
3510.2	0.0952247
3526.64	0.129844
3543.08	0.169322
3559.51	0.214105
3575.9	0.264498
3592.23	0.320865
3608.44	0.383296
3624.53	0.452036
3640.51	0.527254
3656.37	0.609091
3672.1	0.697523
3687.81	0.793233
3703.58	0.896675
3719.38	1.00776
3735.17	1.12611
3750.96	1.25149
3766.75	1.38351
3782.53	1.52173
3798.32	1.66553
3814.1	1.81415
3829.88	1.96673
3845.67	2.12239
3861.5	2.28027
3877.36	2.43909
3893.25	2.59739
3909.15	2.75362
3925.05	2.90619
3940.94	3.0533
3956.83	3.19342
3972.71	3.32497
3988.59	3.44636
4004.48	3.556
4020.36	3.6523
4036.23	3.73385
4052.09	3.79933
4068	3.84775
4083.93	3.87781
4099.88	3.88859
4115.85	3.87933
4131.83	3.84947
4147.84	3.79866
4163.87	3.72678
4179.92	3.63394
4196.04	3.52007
4212.23	3.3857
4228.43	3.23193
4244.63	3.06011
4260.81	2.87165
4276.99	2.66805
4293.16	2.45105
4309.32	2.22252
4325.46	1.98442
4341.6	1.73877
4357.72	1.48767
4373.82	1.2332
4389.92	0.97743
4406.01	0.722401
4422.09	0.469973
4438.16	0.222149
4454.23	-0.0192541
4470.28	-0.25257
4486.32	-0.476287
4502.36	-0.689169
4518.4	-0.88999
4534.42	-1.07753
4550.41	-1.25102
4566.38	-1.40989
4582.34	-1.55377
4598.28	-1.68243
4614.19	-1.79576
4630.06	-1.8938
4645.88	-1.97696
4661.67	-2.04575
4677.41	-2.10072
4693.1	-2.14262
4708.74	-2.17229
4724.35	-2.19062
4739.95	-2.19853
4755.53	-2.19694
4771.11	-2.18681
4786.76	-2.16896
4802.46	-2.14432
4818.2	-2.11381
4833.92	-2.0785
4849.69	-2.03915
4865.45	-1.99677
4881.26	-1.95206
4897.07	-1.90587
4912.95	-1.8588
4928.86	-1.81155
4944.78	-1.76482
4960.71	-1.71912
4976.65	-1.67488
4992.61	-1.63246
4993.14	-1.63111
4994.53	-1.6275
4995.76	-1.62437
4996.99	-1.6212
4998.21	-1.61809
4999.45	-1.61497
5000.71	-1.61178
5002.05	-1.60842
5003.52	-1.60474
5005.02	-1.60101
5006.52	-1.5973
5008.02	-1.59362
5009.52	-1.58995
5011.29	-1.58563
5013.05	-1.58139
5014.81	-1.57717
5017.01	-1.57195
5019.43	-1.56626
5022.18	-1.55985
5024.94	-1.55348
5027.72	-1.54716
5030.51	-1.5409
5033.31	-1.53468
5036.13	-1.52852
5038.96	-1.52241
5042.51	-1.51487
5046.17	-1.50721
5050.1	-1.49917
5054.23	-1.49088
5058.57	-1.48236
5063.04	-1.47381
5067.64	-1.46521
5072.7	-1.45603
5078.02	-1.44665
5083.58	-1.43718
5089.43	-1.42758
5095.4	-1.41814
5101.4	-1.40901
5107.47	-1.40015
5113.86	-1.39124
5120.93	-1.38184
5128.11	-1.37279
5135.56	-1.36391
5143.34	-1.35518
5151.61	-1.3465
5160.52	-1.3378
5169.69	-1.32954
5179.1	-1.32174
5188.95	-1.31428
5199.74	-1.3069
5211.05	-1.29998
5222.96	-1.29353
5235.53	-1.28758
5248.66	-1.28222
5262.29	-1.27748
5276.45	-1.27336
5291.16	-1.26982
5306.19	-1.26691
5321.6	-1.26455
5321.6	-1.26455
5321.6	-1.26455
5321.6	-1.26455
5321.6	-1.26455
5321.61	-1.26455
5321.61	-1.26455
5321.61	-1.26455
5321.61	-1.26455
5321.61	-1.26455
5321.62	-1.26455
5321.62	-1.26455
5321.62	-1.26455
5321.62	-1.26455
5321.62	-1.26455
5321.63	-1.26455
5321.63	-1.26455
5321.63	-1.26455
5321.63	-1.26455
5321.63	-1.26455
5321.63	-1.26455
5321.64	-1.26455
5321.64	-1.26455
5321.64	-1.26454
5321.64	-1.26454
5321.64	-1.26454
5321.65	-1.26454
5321.65	-1.26454
5321.65	-1.26454
5321.65	-1.26454
5321.65	-1.26454
5321.66	-1.26454
5321.66	-1.26454
5321.66	-1.26454
5321.66	-1.26454
5321.66	-1.26454
5321.67	-1.26454
5321.67	-1.26454
5321.67	-1.26454
5321.67	-1.26454
5321.67	-1.26454
5321.68	-1.26454
5321.68	-1.26454
5321.68	-1.26454
5321.68	-1.26454
5321.68	-1.26454
5321.69	-1.26454
5321.69	-1.26454
5321.69	-1.26454
5321.69	-1.26454
5321.69	-1.26454
5321.7	-1.26454
5321.7	-1.26454
5321.7	-1.26454
5321.7	-1.26454
5321.7	-1.26454
5321.71	-1.26454
5321.71	-1.26454
5321.71	-1.26454
5321.71	-1.26453
5321.72	-1.26453
5321.72	-1.26453
5321.72	-1.26453
5321.72	-1.26453
5321.73	-1.26453
5321.73	-1.26453
5321.73	-1.26453
5321.74	-1.26453
5321.74	-1.26453
5321.74	-1.26453
5321.74	-1.26453
5321.75	-1.26453
5321.75	-1.26453
5321.75	-1.26453
5321.76	-1.26453
5321.76	-1.26453
5321.77	-1.26453
5321.77	-1.26453
5321.77	-1.26453
5321.78	-1.26453
5321.78	-1.26453
5321.79	-1.26453
5321.79	-1.26452
5321.8	-1.26452
5321.8	-1.26452
5321.81	-1.26452
5321.81	-1.26452
5321.82	-1.26452
5321.82	-1.26452
5321.83	-1.26452
5321.83	-1.26452
5321.84	-1.26452
5321.85	-1.26452
5321.85	-1.26452
5321.86	-1.26452
5321.87	-1.26451
5321.87	-1.26451
5321.88	-1.26451
5321.89	-1.26451
5321.89	-1.26451
5321.9	-1.26451
5321.91	-1.26451
5321.92	-1.26451
5321.92	-1.26451
5321.93	-1.26451
5321.94	-1.2645
5321.95	-1.2645
5321.96	-1.2645
5321.96	-1.2645
5321.97	-1.2645
5321.97	-1.2645
5321.98	-1.2645
5321.99	-1.2645
5322	-1.2645
5322.01	-1.2645
5322.01	-1.26449
5322.02	-1.26449
5322.03	-1.26449
5322.04	-1.26449
5322.05	-1.26449
5322.06	-1.26449
5322.07	-1.26449
5322.08	-1.26449
5322.09	-1.26448
5322.1	-1.26448
5322.11	-1.26448
5322.12	-1.26448
5322.13	-1.26448
5322.14	-1.26448
5322.15	-1.26448
5322.16	-1.26448
5322.17	-1.26447
5322.18	-1.26447
5322.19	-1.26447
5322.2	-1.26447
5322.21	-1.26447
5322.22	-1.26447
5322.23	-1.26447
5322.24	-1.26446
5322.25	-1.26446
5322.26	-1.26446
5322.27	-1.26446
5322.28	-1.26446
5322.3	-1.26446
5322.31	-1.26446
5322.32	-1.26445
5322.33	-1.26445
5322.34	-1.26445
5322.35	-1.26445
5322.36	-1.26445
5322.37	-1.26445
5322.38	-1.26445
5322.39	-1.26444
5322.4	-1.26444
5322.42	-1.26444
5322.43	-1.26444
5322.44	-1.26444
5322.45	-1.26444
5322.46	-1.26443
5322.48	-1.26443
5322.49	-1.26443
5322.5	-1.26443
5322.51	-1.26443
5322.53	-1.26443
5322.54	-1.26442
5322.55	-1.26442
5322.57	-1.26442
5322.58	-1.26442
5322.6	-1.26442
5322.62	-1.26441
5322.63	-1.26441
5322.64	-1.26441
5322.66	-1.26441
5330.03	-1.26349
5340.06	-1.26244
5350.2	-1.26157
5360.16	-1.26091
5370	-nan
5380.02	-nan
5390.08	-nan
5400.03	-nan
5410.06	-nan
5420.03	-nan
5430.01	-nan
5440.32	-nan
5450.02	-nan
5460.03	-nan
5470.07	-nan
5480.35	-nan
5490.05	-nan
5500.15	-nan
5510.59	-nan
5520.43	-nan
5530.26	-nan
5540.95	-nan
5550.33	-nan
5560.35	-nan
5571.07	-nan
5581.19	-nan
5590.44	-nan
5601.35	-nan
5611.19	-nan
5621.3	-nan
5630.18	-nan
5640.81	-nan
5650.16	-nan
5661.37	-nan
5671.23	-nan
5681.34	-nan
5691.67	-nan
5700.46	-nan
5711.21	-nan
5720.33	-nan
5731.48	-nan
5740.95	-nan
5750.6	-nan
5760.44	-nan
5770.48	-nan
5780.76	-nan
5791.3	-nan
5802.12	-nan
5811	-nan
5820.09	-nan
5831.79	-nan
5841.41	-nan
5851.3	-nan
5861.44	-nan
5871.87	-nan
5882.57	-nan
5890.79	-nan
5902.02	-nan
5910.64	-nan
5922.41	-nan
5931.45	-nan
5940.67	-nan
5950.09	-nan
5962.94	-nan
5972.82	-nan
5982.89	-nan
5993.18	-nan
6000.15	-nan
6010.79	-nan
6021.65	-nan
6032.74	-nan
6040.26	-nan
6051.75	-nan
6063.46	-nan
6071.4	-nan
6083.47	-nan
6091.65	-nan
6104.09	-nan
6112.51	-nan
6121.02	-nan
6133.99	-nan
6142.76	-nan
6151.64	-nan
6160.63	-nan
6173.98	-nan
6183.26	-nan
6192.66	-nan
6202.18	-nan
6211.82	-nan
6221.58	-nan
6231.46	-nan
6241.47	-nan
6251.6	-nan
6261.86	-nan
6272.25	-nan
6282.78	-nan
6293.44	-nan
6304.26	-nan
6315.23	-nan
6320.78	-nan
6332.02	-nan
6342.71	-nan
6354.31	-nan
6360.17	-nan
6372.01	-nan
6384	-nan
6390.05	-nan
6402.27	-nan
6414.65	-nan
6420.91	-nan
6430.83	-nan
6440.01	-nan
6452.91	-nan
6465.99	-nan
6472.6	-nan
6485.96	-nan
6492.72	-nan
6506.37	-nan
6513.28	-nan
6520.24	-nan
6534.32	-nan
6541.37	-nan
6555.78	-nan
6563.07	-nan
6570.41	-nan
6585.28	-nan
6592.8	-nan
6600.38	-nan
6615.73	-nan
6623.5	-nan
6631.33	-nan
6647.18	-nan
6655.2	-nan
6660.89	-nan
6672.88	-nan
6680.83	-nan
6696.49	-nan
6704.2	-nan
6711.84	-nan
6726.87	-nan
6734.27	-nan
6741.6	-nan
6756.03	-nan
6763.14	-nan
6770.3	-nan
6784.17	-nan
6791	-nan
6801.63	-nan
6813.29	-nan
6820.53	-nan
6834.45	-nan
6840.02	-nan
6852.6	-nan
6864.96	-nan
6872.54	-nan
6880.67	-nan
6894.27	-nan
6901.9	-nan
6910.21	-nan
6920.01	-nan
6930.1	-nan
6940.29	-nan
6950.4	-nan
6960.14	-nan
6970.26	-nan
6980.33	-nan
6990.17	-nan
7000.06	-nan
7011.38	-nan
7021.33	-nan
7031	-nan
7040.19	-nan
7051.52	-nan
7060.17	-nan
7070.18	-nan
7080.38	-nan
7090.44	-nan
7100.59	-nan
7111.68	-nan
7123.81	-nan
7133.81	-nan
7146.02	-nan
7153.26	-nan
7162.01	-nan
7171.22	-nan
7180.62	-nan
7198.2	-nan
7208.1	-nan
7218.02	-nan
7227.93	-nan
7231.35	-nan
7240.08	-nan
7251.74	-nan
7260.2	-nan
7274.46	-nan
7280.38	-nan
7294.81	-nan
7301.65	-nan
7317.33	-nan
7326.72	-nan
7336.68	-nan
7343.5	-nan
7353.47	-nan
7363.44	-nan
7373.15	-nan
7382.58	-nan
7391.75	-nan
7400.69	-nan
7417.94	-nan
7424.61	-nan
7432.8	-nan
7440.85	-nan
7456.49	-nan
7464.1	-nan
7471.59	-nan
7486.2	-nan
7493.33	-nan
7500.36	-nan
7514.11	-nan
7520.85	-nan
7532.62	-nan
7542.45	-nan
7558.02	-nan
7568.12	-nan
7578.22	-nan
7588.34	-nan
7598.46	-nan
7606.98	-nan
7617.12	-nan
7627.27	-nan
7630.01	-nan
7641.63	-nan
7650.76	-nan
7661.96	-nan
7670.11	-nan
7680.3	-nan
7690.51	-nan
7700.72	-nan
7710.94	-nan
7721.18	-nan
7730.33	-nan
7740.13	-nan
7750.87	-nan
7760.49	-nan
7770.4	-nan
7781.76	-nan
7791.94	-nan
7800.25	-nan
7811.97	-nan
7821.53	-nan
7831.68	-nan
7842.52	-nan
7853.72	-nan
7861.62	-nan
7873.61	-nan
7881.88	-nan
7890.44	-nan
7903.4	-nan
7910.95	-nan
7920.04	-nan
7933.79	-nan
7943.25	-nan
7950.18	-nan
7960.01	-nan
7970.71	-nan
7980.06	-nan
7990.74	-nan
8001.97	-nan
8012.02	-nan
8022.56	-nan
8030.01	-nan
8040.09	-nan
8050.11	-nan
8060.05	-nan
8070.13	-nan
8080.17	-nan
8090.47	-nan
8100.15	-nan
8110.27	-nan
8120.59	-nan
8130.08	-nan
8141.04	-nan
8150.91	-nan
8160.12	-nan
8170.06	-nan
8180.83	-nan
8190.55	-nan
8201.16	-nan
8210.69	-nan
8221.4	-nan
8230.38	-nan
8240.01	-nan
8250.2	-nan
8261.01	-nan
8272.44	-nan
8280.43	-nan
8292.96	-nan
8301.69	-nan
8310.71	-nan
8322.47	-nan
8332.13	-nan
8341.51	-nan
8351.68	-nan
8362.08	-nan
8372.73	-nan
8383.61	-nan
8394.72	-nan
8400.37	-nan
8411.84	-nan
8423.57	-nan
8430.1	-nan
8440.35	-nan
8450.01	-nan
8460.74	-nan
8472.64	-nan
8482.83	-nan
8496.42	-nan
8503.37	-nan
8510.43	-nan
8524.91	-nan
8532.35	-nan
8547.64	-nan
8555.51	-nan
8563.54	-nan
8571.73	-nan
8580.08	-nan
8597.34	-nan
8606.25	-nan
8615.37	-nan
8624.68	-nan
8634.21	-nan
8643.97	-nan
8653.94	-nan
8664	-nan
8674.45	-nan
8689.61	-nan
8700.67	-nan
8711.83	-nan
8723	-nan
8729.28	-nan
8740.46	-nan
8751.66	-nan
8762.86	-nan
8774.07	-nan
8784.15	-nan
8795.26	-nan
8804.56	-nan
8815.56	-nan
8821.19	-nan
8821.72	-nan
8830.14	-nan
8841.42	-nan
8850.73	-nan
8860.13	-nan
8872.26	-nan
8881.3	-nan
8893.77	-nan
8900.79	-nan
8915.95	-nan
8923.83	-nan
8930.65	-nan
8947.18	-nan
8950.57	-nan
8967.57	-nan
8976.02	-nan
8984.38	-nan
8992.39	-nan
9000.06	-nan
9010.2	-nan
9020.13	-nan
9030.66	-nan
9040.74	-nan
9050.2	-nan
9061.5	-nan
9070.14	-nan
9082.25	-nan
9090.24	-nan
9101.73	-nan
9110.98	-nan
9120.73	-nan
9130.95	-nan
9141.59	-nan
9152.61	-nan
9160.17	-nan
9171.78	-nan
9183.74	-nan
9191.91	-nan
9200.26	-nan
9213.15	-nan
9222.03	-nan
9231.19	-nan
9240.67	-nan
9250.54	-nan
9260.84	-nan
9271.62	-nan
9282.93	-nan
9294.77	-nan
9300.88	-nan
9313.49	-nan
9326.58	-nan
9333.28	-nan
9340.1	-nan
9354.01	-nan
9361.1	-nan
9375.53	-nan
9382.87	-nan
9390.28	-nan
9405.32	-nan
9412.94	-nan
9420.63	-nan
9436.22	-nan
9444.11	-nan
9452.07	-nan
9460.07	-nan
9478.5	-nan
9488.85	-nan
9499.15	-nan
9503	-nan
9510.34	-nan
9521.28	-nan
9531.42	-nan
9541.52	-nan
9551.58	-nan
9561.6	-nan
9571.57	-nan
9581.49	-nan
9591.37	-nan
9600.03	-nan
9611.3	-nan
9620.13	-nan
9633.06	-nan
9643.9	-nan
9650.4	-nan
9665.23	-nan
9670.11	-nan
9680.31	-nan
9690.31	-nan
9700.64	-nan
9710.75	-nan
9722.3	-nan
9730.99	-nan
9740.82	-nan
9751.9	-nan
9760.17	-nan
9774.53	-nan
9785.47	-nan
9791.39	-nan
9804.22	-nan
9811.11	-nan
9825.73	-nan
9833.49	-nan
9841.56	-nan
9855.09	-nan
9863.74	-nan
9872.49	-nan
9881.36	-nan
9890.37	-nan
9908.88	-nan
9918.43	-nan
9928.2	-nan
9938.25	-nan
9948.59	-nan
9959.27	-nan
9970.33	-nan
9981.54	-nan
9992.76	-nan
10004	-nan
10015.2	-nan
10026.4	-nan
10037.6	-nan
10048.9	-nan
10060.1	-nan
10071.3	-nan
10082.5	-nan
10093.7	-nan
10104.8	-nan
10104.9	-nan
10105	-nan
10110	-nan
10120.3	-nan
10130	-nan
10140	-nan
10150.2	-nan
10160.4	-nan
10170	-nan
10180.1	-nan
10190.9	-nan
10200.4	-nan
10210.4	-nan
10221.6	-nan
10233.2	-nan
10242.9	-nan
10252.7	-nan
10260.6	-nan
10270	-nan
10280.2	-nan
10290	-nan
10300.2	-nan
10310.5	-nan
10320.3	-nan
10330.4	-nan
10340.3	-nan
10350.4	-nan
10360.5	-nan
10370.4	-nan
10380.1	-nan
10390.1	-nan
10400.1	-nan
10410	-nan
10420.2	-nan
10430.2	-nan
10440.3	-nan
10450.2	-nan
10460.7	-nan
10470.4	-nan
10480.7	-nan
10490.6	-nan
10500	-nan
10510.8	-nan
10521	-nan
10530.5	-nan
10540.4	-nan
10550.6	-nan
10560	-nan
10571	-nan
10581.1	-nan
10590.2	-nan
10601	-nan
10610.7	-nan
10620.7	-nan
10630.7	-nan
10641.2	-nan
10650.5	-nan
10660.1	-nan
10671.6	-nan
10680	-nan
10691	-nan
10701.4	-nan
10711.7	-nan
10720.7	-nan
10733	-nan
10742.3	-nan
10751.7	-nan
10761.3	-nan
10771.1	-nan
10781.2	-nan
10791.7	-nan
10802.6	-nan
10810.2	-nan
10822	-nan
10830.2	-nan
10842.5	-nan
10850.9	-nan
10863.7	-nan
10872.3	-nan
10881.1	-nan
10894.4	-nan
10903.5	-nan
10912.7	-nan
10922.1	-nan
10931.6	-nan
10941.4	-nan
10951.2	-nan
10961.2	-nan
10971.3	-nan
10981.6	-nan
10992	-nan
11002.5	-nan
11013.2	-nan
11023.9	-nan
11034.8	-nan
11040.3	-nan
11051.5	-nan
11062.8	-nan
11074.4	-nan
11080.2	-nan
11092.1	-nan
11104.2	-nan
11110	-nan
11122.5	-nan
11135.1	-nan
11140.5	-nan
11150	-nan
11160.2	-nan
11170.3	-nan
11180.8	-nan
11190.6	-nan
11200.7	-nan
11210.5	-nan
11220.1	-nan
11231.3	-nan
11240.7	-nan
11251	-nan
11260.2	-nan
11272	-nan
11280.5	-nan
11291.7	-nan
11301.3	-nan
11311.5	-nan
11322.4	-nan
11331.1	-nan
11340.4	-nan
11350.4	-nan
11361.4	-nan
11373.6	-nan
11382.6	-nan
11392.4	-nan
11402.9	-nan
11414.2	-nan
11420.1	-nan
11432.5	-nan
11440.9	-nan
11454.6	-nan
11461.7	-nan
11476.4	-nan
11482.4	-nan
11498	-nan
11506.2	-nan
11514.6	-nan
11523.2	-nan
11532	-nan
11541	-nan
11550.2	-nan
11569	-nan
11578.6	-nan
11587.6	-nan
11596	-nan
11604	-nan
11611.5	-nan
11621.9	-nan
11631.7	-nan
11642.6	-nan
11653.6	-nan
11660	-nan
11670.3	-nan
11680.4	-nan
11691.6	-nan
11701.5	-nan
11713.5	-nan
11722.9	-nan
11732.9	-nan
11743.8	-nan
11755.7	-nan
11762.2	-nan
11776.3	-nan
11783.9	-nan
11791.8	-nan
11800.2	-nan
11815.8	-nan
11825.2	-nan
11835.8	-nan
11844.2	-nan
11855.2	-nan
11865.9	-nan
11876.9	-nan
11888.1	-nan
11899.3	-nan
11910.6	-nan
11921.8	-nan
11933	-nan
11944.2	-nan
11955.4	-nan
11966.7	-nan
11977.9	-nan
11986.8	-nan
11998	-nan
12009.3	-nan
12020.5	-nan
12021.2	-nan
12025.3	-nan
12030.4	-nan
12049.7	-nan
12060.9	-nan
12072.1	-nan
12083.4	-nan
12094.6	-nan
12104.2	-nan
12115.4	-nan
12126.6	-nan
12129.3	-nan
12131.6	-nan
12140.8	-nan
12151.1	-nan
12162.6	-nan
12173.8	-nan
12185	-nan
12196.3	-nan
12207.5	-nan
12218.7	-nan
12229.9	-nan
12241.1	-nan
12252.4	-nan
12263.6	-nan
12274.8	-nan
12286	-nan
12295.1	-nan
12303.7	-nan
12314.6	-nan
12324.8	-nan
12335.2	-nan
12345.9	-nan
12357.1	-nan
12368.3	-nan
12369.5	-nan
12371.2	-nan
12387.3	-nan
12398.6	-nan
12409.8	-nan
12419.3	-nan
12430.5	-nan
12431.6	-nan
12440.6	-nan
12460	-nan
12469.3	-nan
12477.7	-nan
12485.2	-nan
12493.2	-nan
12501.2	-nan
12512.5	-nan
12523.8	-nan
12530.9	-nan
12540.1	-nan
12550.3	-nan
12560.2	-nan
12570	-nan
12580.3	-nan
12590.1	-nan
12600.2	-nan
12610.5	-nan
12620.1	-nan
12630.8	-nan
12641.3	-nan
12650.3	-nan
12660	-nan
12670	-nan
12680.3	-nan
12690.1	-nan
12700.7	-nan
12710	-nan
12720.2	-nan
12730.3	-nan
12740.3	-nan
12750.1	-nan
12760.4	-nan
12770.2	-nan
12780.7	-nan
12790.4	-nan
12800.9	-nan
12810	-nan
12820.1	-nan
12831.1	-nan
12840	-nan
12851.1	-nan
12861.1	-nan
12871.6	-nan
12880.8	-nan
12890.4	-nan
12900.4	-nan
12911	-nan
12922.1	-nan
12931.3	-nan
12941	-nan
12951	-nan
12961.2	-nan
12971.6	-nan
12982.4	-nan
12990.6	-nan
13002.1	-nan
13010.9	-nan
13020.3	-nan
13030.3	-nan
13041	-nan
13052.4	-nan
13060.5	-nan
13072.6	-nan
13081.4	-nan
13090.6	-nan
13100.1	-nan
13110	-nan
13120.3	-nan
13130.9	-nan
13142	-nan
13153.4	-nan
13165.3	-nan
13171.5	-nan
13184.1	-nan
13190.6	-nan
13204	-nan
13210.9	-nan
13224.3	-nan
13231.7	-nan
13246.7	-nan
13254.6	-nan
13262.6	-nan
13270.7	-nan
13287.7	-nan
13294.9	-nan
13302.8	-nan
13311.9	-nan
13321.3	-nan
13330.8	-nan
13340.6	-nan
13350.7	-nan
13362.7	-nan
13370.4	-nan
13381.8	-nan
13390.4	-nan
13404.1	-nan
13413.5	-nan
13420.4	-nan
13439.7	-nan
13450.9	-nan
13462	-nan
13470.7	-nan
13480.2	-nan
13488.2	-nan
13494.8	-nan
13500.3	-nan
13514.5	-nan
13524.9	-nan
13533.6	-nan
13543.7	-nan
13553.7	-nan
13563.6	-nan
13573.4	-nan
13580.5	-nan
13590	-nan
13600	-nan
13610.2	-nan
13620.4	-nan
13630.7	-nan
13640.8	-nan
13650	-nan
13660.1	-nan
13670.2	-nan
13680.1	-nan
13690	-nan
13700.1	-nan
13710.6	-nan
13720.2	-nan
13730.8	-nan
13741	-nan
13750.7	-nan
13761.3	-nan
13771	-nan
13781.6	-nan
13790.9	-nan
13800.8	-nan
13811.1	-nan
13822.2	-nan
13831.6	-nan
13841.6	-nan
13852.2	-nan
13860.5	-nan
13872.4	-nan
13882	-nan
13890.6	-nan
13900.7	-nan
13910.9	-nan
13920.7	-nan
13931.5	-nan
13941.1	-nan
13950.6	-nan
13963.5	-nan
13973	-nan
13982.3	-nan
13991.9	-nan
14002.1	-nan
14013.4	-nan
14025.2	-nan
14031.3	-nan
14043.8	-nan
14050.3	-nan
14063.6	-nan
14070.6	-nan
14085	-nan
14092.5	-nan
14100.3	-nan
14116.4	-nan
14124.8	-nan
14133.3	-nan
14141.9	-nan
14150.5	-nan
14168.2	-nan
14177.2	-nan
14186.3	-nan
14195.5	-nan
14204.9	-nan
14214.4	-nan
14224	-nan
14233.8	-nan
14243.7	-nan
14253.7	-nan
14263.9	-nan
14274.1	-nan
14284.6	-nan
14295.2	-nan
14306.1	-nan
14317.1	-nan
14328.3	-nan
14339.5	-nan
14350.7	-nan
14361.8	-nan
14372.7	-nan
14383.3	-nan
14392.4	-nan
14403.6	-nan
14414.9	-nan
14426.1	-nan
14437.3	-nan
14448.5	-nan
14459.7	-nan
14471	-nan
14482.2	-nan
14493.4	-nan
14504.6	-nan
14515.4	-nan
14523.7	-nan
14532.2	-nan
14543.4	-nan
14554.6	-nan
14565.8	-nan
14576.4	-nan
14586.5	-nan
14596.1	-nan
14607.4	-nan
14607.8	-nan
14608.2	-nan
14610.2	-nan
14620.1	-nan
14631	-nan
14641.3	-nan
14651	-nan
14660.5	-nan
14670.6	-nan
14680.7	-nan
14690.3	-nan
14700.5	-nan
14711.5	-nan
14722.1	-nan
14732.1	-nan
14740.3	-nan
14753.2	-nan
14760.6	-nan
14772.2	-nan
14781.6	-nan
14790	-nan
14800	-nan
14810.1	-nan
14820.2	-nan
14830.1	-nan
14840.1	-nan
14850.1	-nan
14860.1	-nan
14870.1	-nan
14880.2	-nan
14890.7	-nan
14900.5	-nan
14911	-nan
14921	-nan
14930.5	-nan
14940.3	-nan
14950.7	-nan
14960.4	-nan
14970.6	-nan
14980	-nan
14991.3	-nan
15000.1	-nan
15010.8	-nan
15020.3	-nan
15030.2	-nan
15040.5	-nan
15051.3	-nan
15060.7	-nan
15070.3	-nan
15080	-nan
15090.1	-nan
15100.1	-nan
15110.9	-nan
15120.4	-nan
15130.3	-nan
15140.6	-nan
15150.6	-nan
15160	-nan
15171.3	-nan
15180	-nan
15192	-nan
15201.2	-nan
15210.7	-nan
15220.4	-nan
15230.4	-nan
15240.7	-nan
15251.4	-nan
15262.5	-nan
15270.1	-nan
15281.9	-nan
15294.1	-nan
15302.4	-nan
15310.8	-nan
15323.7	-nan
15332.4	-nan
15341.3	-nan
15350.4	-nan
15364.2	-nan
15373.6	-nan
15383.1	-nan
15393.2	-nan
15403.7	-nan
15414.8	-nan
15420.5	-nan
15432.2	-nan
15444.3	-nan
15450.6	-nan
15463.5	-nan
15470.2	-nan
15484	-nan
15491	-nan
15505.6	-nan
15513.1	-nan
15520.6	-nan
15535.9	-nan
15543.7	-nan
15551.6	-nan
15567.7	-nan
15575.8	-nan
15584	-nan
15592.2	-nan
15600.5	-nan
15618	-nan
15627.4	-nan
15637.2	-nan
15647.1	-nan
15657.2	-nan
15667.3	-nan
15677.4	-nan
15687.5	-nan
15697.6	-nan
15707.7	-nan
15717.7	-nan
15727.8	-nan
15737.9	-nan
15747.9	-nan
15754.5	-nan
15761.6	-nan
15771.6	-nan
15781.6	-nan
15791.6	-nan
15802.8	-nan
15814	-nan
15825.2	-nan
15836.4	-nan
15847.6	-nan
15858.9	-nan
15870.1	-nan
15878	-nan
15885.9	-nan
15897.1	-nan
15908.3	-nan
15919.5	-nan
15930.8	-nan
15942	-nan
15953.2	-nan
15964.4	-nan
15975.6	-nan
15986.9	-nan
15998.1	-nan
16009.3	-nan
16020.5	-nan
16031.7	-nan
16043	-nan
16054.2	-nan
16065.4	-nan
16076.6	-nan
16087.8	-nan
16099.1	-nan
16110.3	-nan
16121.5	-nan
16132.7	-nan
16134.6	-nan
16136.3	-nan
16137.9	-nan
16140.7	-nan
16151.3	-nan
16164.6	-nan
16175.8	-nan
16187	-nan
16198.2	-nan
16209.4	-nan
16220.7	-nan
16231.9	-nan
16243.1	-nan
16244	-nan
16251.2	-nan
16263.4	-nan
16272.9	-nan
16282.7	-nan
16292.3	-nan
16306.9	-nan
16313.8	-nan
16320.7	-nan
16334.7	-nan
16342	-nan
16357.4	-nan
16365.7	-nan
16374.4	-nan
16383.8	-nan
16394.2	-nan
16404.7	-nan
16415.4	-nan
16426.7	-nan
16437.9	-nan
16446.1	-nan
16457.3	-nan
16468.5	-nan
16472.3	-nan
16489.2	-nan
16500.4	-nan
16511.7	-nan
16522.9	-nan
16534.1	-nan
16545.3	-nan
16556.5	-nan
16567.8	-nan
16579	-nan
16590.2	-nan
16590.2	-nan
16590.2	-nan
16600.1	-nan
16610.3	-nan
16620.7	-nan
16631	-nan
16640.9	-nan
16650.1	-nan
16660.7	-nan
16670.6	-nan
16680.6	-nan
16690.1	-nan
16700.7	-nan
16714.9	-nan
16720.1	-nan
16731.2	-nan
16743	-nan
16752.8	-nan
16765.8	-nan
16772.5	-nan
16786.3	-nan
16793.3	-nan
16800.5	-nan
16815	-nan
16820	-nan
16830.9	-nan
16842.7	-nan
16852.1	-nan
16865	-nan
16873.2	-nan
16882.9	-nan
16894.2	-nan
16905.4	-nan
16910.7	-nan
16922.9	-nan
16933.4	-nan
16944.6	-nan
16954.4	-nan
16965.6	-nan
16976.8	-nan
16988	-nan
16999.2	-nan
17010.5	-nan
17021.5	-nan
17031.8	-nan
17043	-nan
17054.2	-nan
17065.4	-nan
17076.6	-nan
17087.9	-nan
17099.1	-nan
17110.3	-nan
17117	-nan
17128.2	-nan
17139.4	-nan
17150.6	-nan
17161.9	-nan
17173.1	-nan
17184.3	-nan
17195.5	-nan
17206.7	-nan
17218	-nan
17229.2	-nan
17240.4	-nan
17251.6	-nan
17262.8	-nan
17274.1	-nan
17285.3	-nan
17296.5	-nan
17307.7	-nan
17318.9	-nan
17330.2	-nan
17341.4	-nan
17352.6	-nan
17363.8	-nan
17375	-nan
17386.3	-nan
17397.5	-nan
17408.7	-nan
17419.9	-nan
17431.1	-nan
17442.4	-nan
17453.6	-nan
17464.8	-nan
17476	-nan
17487.2	-nan
17497	-nan
17508.2	-nan
17519.4	-nan
17530.6	-nan
17541.8	-nan
17553.1	-nan
17564.3	-nan
17575.5	-nan
17586.7	-nan
17597.9	-nan
17601.8	-nan
17605.1	-nan
17608.4	-nan
17611.7	-nan
17615	-nan
17618.4	-nan
17622.7	-nan
17627.9	-nan
17634.5	-nan
17645.8	-nan
17657	-nan
17668.2	-nan
17679.4	-nan
17689.8	-nan
17701	-nan
17712.2	-nan
17723.4	-nan
17734.7	-nan
17745.9	-nan
17757.1	-nan
17768.3	-nan
17779.5	-nan
17790.8	-nan
17791	-nan
17791.2	-nan
17791.4	-nan
17800.1	-nan
17810.5	-nan
17820.3	-nan
17830.8	-nan
17841	-nan
17850.3	-nan
17860.5	-nan
17870.5	-nan
17880.2	-nan
17890.5	-nan
17900.3	-nan
17910.7	-nan
17920.8	-nan
17931	-nan
17940.2	-nan
17953.6	-nan
17962.7	-nan
17972	-nan
17981.7	-nan
17991.5	-nan
18001.5	-nan
18011.7	-nan
18022	-nan
18032.3	-nan
18042.8	-nan
18053.4	-nan
18064	-nan
18074.6	-nan
18083	-nan
18091.6	-nan
18100.7	-nan
18110.3	-nan
18120.2	-nan
18130.2	-nan
18140.4	-nan
18150.9	-nan
18161.7	-nan
18172.9	-nan
18184.1	-nan
18195.3	-nan
18206.5	-nan
18217.8	-nan
18229	-nan
18240.2	-nan
18251.4	-nan
18262.6	-nan
18273.9	-nan
18285.1	-nan
18296.3	-nan
18307.5	-nan
18318.7	-nan
18329.9	-nan
18340.3	-nan
18351.5	-nan
18362.7	-nan
18373.9	-nan
18385.2	-nan
18396.4	-nan
18407.6	-nan
18418.8	-nan
18430	-nan
18441.3	-nan
18452.5	-nan
18463.7	-nan
18474.9	-nan
18486.1	-nan
18497.4	-nan
18508.6	-nan
18519.8	-nan
18531	-nan
18542.2	-nan
18553.5	-nan
18564.7	-nan
18575.9	-nan
18587.1	-nan
18598.3	-nan
18609.5	-nan
18620.8	-nan
18632	-nan
18643.2	-nan
18654.4	-nan
18665.6	-nan
18676.9	-nan
18688.1	-nan
18699.3	-nan
18710.5	-nan
18721.7	-nan
18733	-nan
18744.2	-nan
18755.4	-nan
18766.6	-nan
18777.8	-nan
18789.1	-nan
18800.3	-nan
18811.5	-nan
18822.7	-nan
18833.9	-nan
18845.2	-nan
18856.4	-nan
18859.4	-nan
18862.2	-nan
18865.1	-nan
18867.9	-nan
18870.7	-nan
18873.5	-nan
18876.3	-nan
18879.3	-nan
18882.2	-nan
18885.2	-nan
18892	-nan
18903.4	-nan
18913.6	-nan
18920.8	-nan
18934.4	-nan
18946.3	-nan
18957.6	-nan
18968.8	-nan
18975.4	-nan
18986.6	-nan
18997.8	-nan
19007.8	-nan
19019	-nan
19030.3	-nan
19041.5	-nan
19045.5	-nan
19052.3	-nan
19065.5	-nan
19073.9	-nan
19082.1	-nan
19091.1	-nan
19100.6	-nan
19111.8	-nan
19123	-nan
19134.2	-nan
19145.5	-nan
19154.3	-nan
19165.5	-nan
19176.7	-nan
19188	-nan
19199.2	-nan
19210.4	-nan
19221.6	-nan
19232.8	-nan
19244.1	-nan
19255.3	-nan
19266.5	-nan
19277.7	-nan
19288.9	-nan
19300.2	-nan
19311.4	-nan
19322.6	-nan
19332.3	-nan
19343.5	-nan
19354.7	-nan
19365.9	-nan
19377.2	-nan
19388.4	-nan
19399.6	-nan
19410.8	-nan
19422	-nan
19433.3	-nan
19439.8	-nan
19451	-nan
19462.2	-nan
19473.4	-nan
19484.6	-nan
19495.8	-nan
19496	-nan
19496.2	-nan
19496.4	-nan
19500.1	-nan
19510.1	-nan
19521.2	-nan
19530.9	-nan
19541.3	-nan
19551.2	-nan
19563.4	-nan
19572.9	-nan
19584	-nan
19590.3	-nan
19604.5	-nan
19612.4	-nan
19621	-nan
19630.4	-nan
19640.1	-nan
19650.6	-nan
19660.3	-nan
19671.8	-nan
19682	-nan
19690.5	-nan
19701.6	-nan
19710.8	-nan
19720.4	-nan
19730.4	-nan
19740.7	-nan
19751.4	-nan
19763.1	-nan
19772.8	-nan
19783.2	-nan
19790.5	-nan
19801.9	-nan
19813.6	-nan
19821.6	-nan
19834.1	-nan
19842.8	-nan
19851.8	-nan
19861.3	-nan
19871.4	-nan
19882.1	-nan
19893.6	-nan
19906	-nan
19912.5	-nan
19926.5	-nan
19933.9	-nan
19941.6	-nan
19958	-nan
19966.8	-nan
19975.9	-nan
19985.3	-nan
19995.2	-nan
