0	0
14.5977	0
21.8966	0
36.4944	0
43.7932	0
51.0921	0
65.6898	0
72.9887	0
80.2876	0
94.8853	0
102.184	0
116.782	0
124.081	0
131.38	0
145.977	0
153.276	0
160.575	0
175.173	0
182.472	0
197.069	0
204.368	0
211.667	0
226.265	0
233.564	0
240.863	0
255.46	0
262.759	0
270.058	0
284.656	0
291.955	0
306.553	0
313.851	0
321.15	0
335.748	0
343.047	0
350.346	0
364.944	0
372.242	0
386.84	0
394.139	0
401.438	0
416.036	0
423.334	0
430.633	0
445.231	0
452.53	0
467.128	0
474.427	0
481.725	0
496.323	0
503.622	0
510.921	0
525.519	0
532.818	0
540.116	0
554.714	0
562.013	0
576.611	0
583.91	0
591.208	0
605.806	0
613.105	0
620.404	0
635.002	0
642.301	0
656.898	0
664.197	0
671.496	0
686.094	0
693.393	0
700.692	0
715.289	0
722.588	0
737.186	9.09495e-13
744.485	9.09495e-13
751.784	2.72848e-12
766.381	9.09495e-12
773.68	1.90994e-11
780.979	3.81988e-11
795.577	1.49157e-10
802.876	2.84672e-10
810.175	5.32964e-10
824.772	1.77442e-09
832.071	3.15595e-09
846.669	9.50695e-09
853.968	1.61172e-08
861.267	2.69156e-08
875.864	7.18819e-08
883.163	1.15051e-07
890.462	1.81704e-07
905.06	4.36106e-07
912.359	6.63222e-07
926.956	1.4806e-06
934.255	2.17485e-06
941.554	3.15984e-06
956.152	6.46215e-06
963.451	9.10109e-06
970.75	1.26922e-05
985.347	2.39907e-05
992.646	3.25323e-05
1007.24	5.82638e-05
1014.54	7.69842e-05
1021.84	0.000100887
1036.44	0.000169179
1043.74	0.000216569
1051.04	0.000275184
1065.64	0.000434838
1072.93	0.000540961
1080.23	0.000668498
1094.83	0.00100131
1102.13	0.00121411
1116.73	0.00175361
1124.03	0.00208966
1131.32	0.00247664
1145.92	0.00342525
1153.22	0.00399853
1160.52	0.00464607
1175.12	0.00619074
1182.42	0.00710226
1197.01	0.00924346
1204.31	0.010491
1211.61	0.0118697
1226.21	0.0150672
1233.51	0.0169127
1240.81	0.0189431
1255.41	0.0236331
1262.7	0.0263359
1270	0.0293106
1284.6	0.0361964
1291.9	0.0401766
1306.5	0.0494139
1313.8	0.0547646
1321.1	0.0606729
1335.69	0.0743963
1342.99	0.0823385
1350.29	0.091092
1364.89	0.111323
1372.19	0.122952
1386.79	0.149621
1394.08	0.164816
1401.38	0.181349
1415.98	0.218714
1423.28	0.239673
1430.58	0.262222
1445.18	0.312262
1452.47	0.339813
1467.07	0.400035
1474.37	0.43269
1481.67	0.467005
1496.27	0.540417
1503.57	0.579374
1510.87	0.619711
1525.46	0.704066
1532.76	0.747815
1540.06	0.792408
1554.66	0.88343
1561.96	0.929484
1576.56	1.02166
1583.85	1.06735
1591.15	1.11248
1605.75	1.20016
1613.05	1.24225
1620.35	1.28287
1634.95	1.35884
1642.25	1.39375
1656.84	1.45645
1664.14	1.48387
1671.44	1.50843
1686.04	1.5484
1693.34	1.56354
1700.64	1.57529
1715.23	1.58825
1722.53	1.58932
1737.13	1.58037
1744.43	1.5703
1751.73	1.55648
1766.33	1.5177
1773.62	1.49279
1780.92	1.46427
1795.52	1.3967
1802.82	1.35782
1810.12	1.31568
1824.72	1.22212
1832.01	1.17097
1846.61	1.06071
1853.91	1.00193
1861.21	0.940953
1875.81	0.813176
1883.11	0.746775
1890.4	0.678975
1905	0.540039
1912.3	0.46934
1926.9	0.326593
1934.2	0.254992
1941.5	0.183537
1956.09	0.0419452
1963.39	-0.0277598
1970.69	-0.0964574
1985.29	-0.230031
1992.59	-0.294527
2007.18	-0.418055
2014.48	-0.476764
2021.78	-0.53324
2036.38	-0.638974
2043.68	-0.688005
2050.98	-0.73435
2065.57	-0.818676
2072.87	-0.85654
2080.17	-0.891482
2094.77	-0.952509
2102.07	-0.978587
2116.67	-1.02195
2123.96	-1.03929
2131.26	-1.0538
2145.86	-1.07459
2153.16	-1.08101
2160.46	-1.08489
2175.05	-1.08541
2182.35	-1.08224
2196.95	-1.06961
2204.25	-1.06036
2211.55	-1.04932
2226.14	-1.02232
2233.44	-1.00659
2240.74	-0.989535
2255.34	-0.951901
2262.64	-0.931548
2277.24	-0.888312
2284.53	-0.865637
2291.83	-0.842389
2306.43	-0.794546
2313.73	-0.770128
2321.03	-0.745489
2335.62	-0.695852
2342.92	-0.670995
2350.22	-0.646199
2364.82	-0.597027
2372.12	-0.572759
2386.71	-0.525098
2394.01	-0.50179
2401.31	-0.478881
2415.91	-0.434391
2423.21	-0.412867
2430.5	-0.391859
2445.1	-0.351476
2452.4	-0.332137
2467	-0.29524
2474.3	-0.277705
2481.59	-0.26079
2496.19	-0.22885
2503.49	-0.213832
2510.79	-0.199452
2525.38	-0.172608
2532.68	-0.16014
2547.28	-0.137094
2554.58	-0.126506
2561.88	-0.116532
2576.47	-0.0983943
2583.77	-0.0902119
2591.07	-0.0826067
2605.67	-0.0690819
2612.97	-0.0631374
2620.26	-0.0577205
2634.86	-0.0484134
2642.16	-0.0444937
2656.76	-0.0380449
2664.06	-0.0354839
2671.35	-0.0333433
2685.95	-0.030257
2693.25	-0.0292773
2700.55	-0.0286505
2715.14	-0.0283867
2722.44	-0.0287154
2737.04	-0.0302083
2744.34	-0.0313385
2751.64	-0.0327022
2766.23	-0.0360639
2773.53	-0.0380295
2780.83	-0.0401639
2795.43	-0.0448775
2802.73	-0.047427
2810.02	-0.0500856
2824.62	-0.0556754
2831.92	-0.0585801
2846.52	-0.0645468
2853.82	-0.0675853
2861.11	-0.0706457
2875.71	-0.0767914
2883.01	-0.0798573
2890.31	-0.0829068
2904.91	-0.0889238
2912.2	-0.0918765
2926.8	-0.0976371
2934.1	-0.100433
2941.4	-0.103167
2956	-0.108427
2963.29	-0.110947
2970.59	-0.113388
2985.19	-0.118025
2992.49	-0.120217
3007.09	-0.12434
3014.39	-0.126269
3021.68	-0.128109
3036.28	-0.131519
3043.58	-0.13309
3050.88	-0.134572
3065.48	-0.137271
3072.77	-0.13849
3080.07	-0.139622
3094.67	-0.141633
3101.97	-0.142514
3116.57	-0.14403
3123.87	-0.144668
3131.16	-0.145228
3145.76	-0.146117
3153.06	-0.146448
3160.36	-0.146704
3174.96	-0.146997
3182.26	-0.147036
3196.85	-0.146899
3204.15	-0.146726
3211.45	-0.146483
3226.05	-0.145791
3233.35	-0.145343
3240.65	-0.144827
3255.25	-0.143594
3262.54	-0.142878
3277.14	-0.141249
3284.44	-0.140336
3291.74	-0.139359
3306.34	-0.137215
3313.64	-0.136048
3320.94	-0.134821
3335.53	-0.132184
3342.83	-0.130778
3350.13	-0.129315
3364.73	-0.126222
3372.03	-0.124596
3386.62	-0.121192
3393.92	-0.119418
3401.22	-0.117599
3415.82	-0.113835
3423.12	-0.111894
3430.42	-0.109918
3445.02	-0.105868
3452.31	-0.1038
3466.91	-0.0995917
3474.21	-0.0974572
3481.51	-0.0953065
3496.11	-0.090968
3503.41	-0.0887862
3510.7	-0.0866002
3525.3	-0.0822269
3532.6	-0.0800456
3547.2	-0.0757081
3554.5	-0.0735575
3561.8	-0.0714226
3576.39	-0.0672107
3583.69	-0.0651385
3590.99	-0.0630922
3605.59	-0.0590857
3612.89	-0.0571298
3620.19	-0.0552081
3634.78	-0.0514743
3642.08	-0.0496655
3656.68	-0.0461712
3663.98	-0.0444883
3671.28	-0.0428495
3685.88	-0.0397084
3693.18	-0.0382073
3700.47	-0.0367535
3715.07	-0.0339886
3722.37	-0.032678
3736.97	-0.0302008
3744.27	-0.0290338
3751.57	-0.0279142
3766.16	-0.0258151
3773.46	-0.0248344
3780.76	-0.0238987
3795.36	-0.0221584
3802.66	-0.0213518
3817.26	-0.01986
3824.55	-0.0191722
3831.85	-0.0185214
3846.45	-0.0173243
3853.75	-0.016775
3861.05	-0.0162563
3875.65	-0.0153036
3882.94	-0.014866
3890.24	-0.0144518
3904.84	-0.0136859
3912.14	-0.0133302
3926.74	-0.0126637
3934.04	-0.0123488
3941.33	-0.0120435
3955.93	-0.0114536
3963.23	-0.011165
3970.53	-0.0108781
3985.13	-0.0103014
3992.43	-0.0100078
4007.02	-0.00940131
4014.32	-0.0090848
4021.62	-0.00875721
4036.22	-0.00806243
4043.52	-0.00769221
4050.82	-0.00730486
4065.41	-0.00647358
4072.71	-0.0060272
4080.01	-0.00555886
4094.61	-0.00455231
4101.91	-0.00401235
4116.51	-0.00285529
4123.81	-0.00223694
4131.1	-0.00159137
4145.7	-0.000216965
4153	0.000512442
4160.3	0.00127024
4174.9	0.00287131
4182.2	0.00371456
4196.79	0.00548593
4204.09	0.00641364
4211.39	0.00736898
4225.99	0.00936119
4233.29	0.0103972
4240.59	0.0114593
4255.18	0.0136593
4262.48	0.0147962
4277.08	0.0171407
4284.38	0.0183471
4291.68	0.0195753
4306.28	0.022095
4313.57	0.023385
4320.87	0.0246943
4335.47	0.0273678
4342.77	0.0287306
4350.07	0.03011
4364.67	0.0329156
4371.97	0.0343405
4386.56	0.037231
4393.86	0.0386953
4401.16	0.0401713
4415.76	0.043156
4423.06	0.0446633
4430.36	0.0461796
4444.95	0.0492364
4452.25	0.0507755
4466.85	0.0538709
4474.15	0.0554257
4481.45	0.0569842
4496.05	0.0601085
4503.34	0.0616725
4510.64	0.0632365
4525.24	0.0663603
4532.54	0.067918
4547.14	0.0710194
4554.44	0.0725607
4561.74	0.0740941
4576.33	0.0771318
4583.63	0.0786334
4590.93	0.0801216
4605.53	0.0830521
4612.83	0.0844913
4620.13	0.0859111
4634.72	0.0886858
4642.02	0.0900375
4656.62	0.0926611
4663.92	0.0939297
4671.22	0.0951672
4685.82	0.097542
4693.11	0.0986759
4700.41	0.0997718
4715.01	0.101843
4722.31	0.102815
4736.91	0.104625
4744.21	0.105459
4751.5	0.106244
4766.1	0.107661
4773.4	0.108291
4780.7	0.108866
4795.3	0.109849
4802.6	0.110254
4817.19	0.110889
4824.49	0.111116
4831.79	0.111283
4846.39	0.111432
4853.69	0.111413
4860.99	0.111331
4875.59	0.110979
4882.88	0.110709
4890.18	0.110376
4904.78	0.109523
4912.08	0.109004
4926.68	0.107781
4933.98	0.10708
4941.27	0.106318
4955.87	0.104622
4963.17	0.103688
4970.47	0.102699
4985.07	0.10056
4992.37	0.0994125
5006.96	0.0969684
5014.26	0.0956749
5021.56	0.0943359
5036.16	0.0915279
5043.46	0.0900625
5050.76	0.0885584
5065.35	0.0854418
5072.65	0.0838331
5087.25	0.0805243
5094.55	0.0788283
5101.85	0.0771072
5116.45	0.0735975
5123.75	0.0718131
5131.04	0.0700116
5145.64	0.0663655
5152.94	0.0645249
5160.24	0.0626754
5174.84	0.0589572
5182.14	0.0570925
5196.73	0.0533615
5204.03	0.0514989
5211.33	0.0496408
5225.93	0.0459449
5233.23	0.0441107
5240.53	0.0422878
5255.12	0.0386829
5262.42	0.036904
5277.02	0.0334006
5284.32	0.0316791
5291.62	0.0299794
5306.22	0.0266511
5313.52	0.0250247
5320.81	0.0234252
5335.41	0.0203108
5342.71	0.0187979
5350.01	0.0173158
5364.61	0.0144472
5371.91	0.0130623
5386.5	0.0103948
5393.8	0.00911339
5401.1	0.00786758
5415.7	0.00548464
5423	0.00434831
5430.3	0.00324919
5444.89	0.00116364
5452.19	0.000177623
5466.79	-0.00168018
5474.09	-0.00255181
5481.39	-0.00338522
5495.99	-0.00493746
5503.29	-0.00565643
5510.58	-0.00633744
5525.18	-0.00758622
5532.48	-0.00815435
5547.08	-0.00917925
5554.38	-0.00963653
5561.68	-0.0100574
5576.27	-0.0107912
5583.57	-0.0111048
5590.87	-0.0113834
5605.47	-0.0118367
5612.77	-0.0120123
5620.07	-0.0121544
5634.66	-0.0123396
5641.96	-0.0123835
5656.56	-0.0123764
5663.86	-0.0123262
5671.16	-0.0122455
5685.76	-0.0119943
5693.06	-0.0118249
5700.35	-0.0116267
5714.95	-0.0111465
5722.25	-0.0108653
5736.85	-0.0102234
5744.15	-0.00986371
5751.45	-0.00947884
5766.04	-0.00863575
5773.34	-0.00817861
5780.64	-0.00769848
5795.24	-0.00667152
5802.54	-0.00612586
5817.14	-0.00497319
5824.44	-0.00436741
5831.73	-0.00374285
5846.33	-0.00244002
5853.63	-0.0017631
5860.93	-0.00107009
5875.53	0.000361316
5882.83	0.00109826
5890.12	0.00184837
5904.72	0.00338499
5912.02	0.00416993
5926.62	0.00576906
5933.92	0.00658161
5941.22	0.00740169
5955.81	0.00906105
5963.11	0.00989862
5970.41	0.0107403
5985.01	0.0124323
5992.31	0.013281
6006.91	0.014979
6014.2	0.0158266
6021.5	0.0166721
6036.1	0.0183532
6043.4	0.019187
6050.7	0.0200152
6065.3	0.0216512
6072.6	0.0224574
6087.19	0.0240417
6094.49	0.0248183
6101.79	0.0255835
6116.39	0.0270764
6123.69	0.0278028
6130.99	0.0285147
6145.58	0.0298926
6152.88	0.0305573
6160.18	0.031205
6174.78	0.032447
6182.08	0.0330402
6196.67	0.0341684
6203.97	0.0347024
6211.27	0.0352159
6225.87	0.0361794
6233.17	0.0366287
6240.47	0.037056
6255.06	0.0378434
6262.36	0.0382029
6276.96	0.0388529
6284.26	0.039143
6291.56	0.0394096
6306.16	0.0398724
6313.45	0.0400683
6320.75	0.0402407
6335.35	0.0405149
6342.65	0.0406167
6357.25	0.0407505
6364.55	0.0407827
6371.84	0.040792
6386.44	0.0407427
6393.74	0.0406846
6401.04	0.0406044
6415.64	0.040379
6422.94	0.0402343
6430.23	0.0400689
6444.83	0.0396767
6452.13	0.0394506
6466.73	0.0389405
6474.03	0.0386572
6481.33	0.0383555
6495.92	0.0376988
6503.22	0.0373446
6510.52	0.0369736
6525.12	0.0361831
6532.42	0.0357644
6547.02	0.0348822
6554.31	0.0344195
6561.61	0.0339429
6576.21	0.0329496
6583.51	0.0324337
6590.81	0.0319054
6605.41	0.0308132
6612.7	0.03025
6620	0.0296758
6634.6	0.0284957
6641.9	0.0278904
6656.5	0.0266506
6663.8	0.0260166
6671.09	0.0253736
6685.69	0.0240611
6692.99	0.0233921
6700.29	0.0227147
6714.89	0.0213355
6722.19	0.020634
6736.78	0.0192074
6744.08	0.0184826
6751.38	0.01775
6765.98	0.0162621
6773.28	0.0155067
6780.58	0.0147438
6795.17	0.0131948
6802.47	0.0124087
6817.07	0.0108131
6824.37	0.0100034
6831.67	0.00918559
6846.26	0.00752545
6853.56	0.00668287
6860.86	0.00583178
6875.46	0.00410358
6882.76	0.0032262
6890.06	0.0023398
6904.66	0.000539373
6911.95	-0.000374916
6926.55	-0.00223229
6933.85	-0.00317563
6941.15	-0.00412889
6955.75	-0.00606561
6963.05	-0.00704927
6970.34	-0.00804325
6984.94	-0.0100624
6992.24	-0.0110878
7006.84	-0.0131701
7014.14	-0.0142271
7021.44	-0.0152947
7036.03	-0.0174616
7043.33	-0.0185608
7050.63	-0.0196705
7065.23	-0.0219207
7072.53	-0.023061
7087.13	-0.0253715
7094.42	-0.0265414
7101.72	-0.0277207
7116.32	-0.0301069
7123.62	-0.0313133
7130.92	-0.0325282
7145.52	-0.0349825
7152.82	-0.0362213
7160.11	-0.0374673
7174.71	-0.0399798
7182.01	-0.0412454
7196.61	-0.0437937
7203.91	-0.0450753
7211.21	-0.0463615
7225.8	-0.0489451
7233.1	-0.0502417
7240.4	-0.0515408
7255	-0.0541444
7262.3	-0.0554478
7276.9	-0.0580551
7284.19	-0.0593578
7291.49	-0.0606592
7306.09	-0.0632555
7313.39	-0.0645492
7320.69	-0.0658392
7335.29	-0.0684056
7342.59	-0.0696807
7357.18	-0.0722118
7364.48	-0.0734666
7371.78	-0.0747133
7386.38	-0.0771804
7393.68	-0.0783995
7400.98	-0.0796081
7415.57	-0.0819918
7422.87	-0.0831657
7430.17	-0.0843268
7444.77	-0.0866085
7452.07	-0.087728
7466.67	-0.0899217
7473.97	-0.0909948
7481.26	-0.0920514
7495.86	-0.0941132
7503.16	-0.0951175
7510.46	-0.0961034
7525.06	-0.0980185
7532.36	-0.0989468
7546.95	-0.100743
7554.25	-0.10161
7561.55	-0.102457
7576.15	-0.104084
7583.45	-0.104866
7590.75	-0.105624
7605.34	-0.107074
7612.64	-0.107765
7627.24	-0.109077
7634.54	-0.109697
7641.84	-0.110294
7656.44	-0.111417
7663.74	-0.111942
7671.03	-0.112443
7685.63	-0.113373
7692.93	-0.113801
7700.23	-0.114205
7714.83	-0.11494
7722.13	-0.115272
7736.72	-0.115861
7744.02	-0.11612
7751.32	-0.116354
7765.92	-0.116751
7773.22	-0.116913
7780.52	-0.117052
7795.11	-0.11726
7802.41	-0.117328
7817.01	-0.117396
7824.31	-0.117396
7831.61	-0.117373
7846.21	-0.11726
7853.51	-0.11717
7860.8	-0.117058
7875.4	-0.11677
7882.7	-0.116594
7897.3	-0.11618
7904.6	-0.115941
7911.9	-0.115683
7926.49	-0.115106
7933.79	-0.114788
7941.09	-0.114451
7955.69	-0.11372
7962.99	-0.113326
7970.29	-0.112914
7984.88	-0.112037
7992.18	-0.111571
8006.78	-0.11059
8014.08	-0.110074
8021.38	-0.109541
8035.98	-0.108428
8043.28	-0.107848
8050.57	-0.107252
8065.17	-0.106016
8072.47	-0.105377
8087.07	-0.104054
8094.37	-0.103373
8101.67	-0.102678
8116.26	-0.101248
8123.56	-0.100514
8130.86	-0.0997681
8145.46	-0.0982399
8152.76	-0.0974584
8160.06	-0.0966657
8174.65	-0.0950475
8181.95	-0.0942226
8196.55	-0.0925425
8203.85	-0.0916878
8211.15	-0.0908237
8225.75	-0.0890681
8233.05	-0.0881771
8240.34	-0.0872777
8254.94	-0.0854543
8262.24	-0.0845309
8276.84	-0.0826615
8284.14	-0.081716
8291.44	-0.0807635
8306.03	-0.0788384
8313.33	-0.0778662
8320.63	-0.0768877
8335.23	-0.0749128
8342.53	-0.0739166
8357.13	-0.0719075
8364.42	-0.0708949
8371.72	-0.069877
8386.32	-0.067826
8393.62	-0.066793
8400.92	-0.0657552
8415.52	-0.0636654
8422.82	-0.0626135
8430.11	-0.061557
8444.71	-0.0594306
8452.01	-0.0583608
8466.61	-0.0562079
8473.91	-0.0551249
8481.21	-0.0540376
8495.8	-0.0518501
8503.1	-0.0507499
8510.4	-0.0496455
8525	-0.0474238
8532.3	-0.0463066
8546.9	-0.0440596
8554.19	-0.0429297
8561.49	-0.0417956
8576.09	-0.039515
8583.39	-0.0383684
8590.69	-0.0372178
8605.29	-0.0349044
8612.59	-0.0337417
8627.18	-0.0314048
8634.48	-0.0302306
8641.78	-0.0290528
8656.38	-0.0266866
8663.68	-0.0254984
8670.98	-0.0243071
8685.57	-0.0219154
8692.87	-0.0207153
8700.17	-0.0195128
8714.77	-0.0171008
8722.07	-0.0158918
8736.67	-0.013469
8743.97	-0.0122557
8751.26	-0.0110415
8765.86	-0.00861156
8773.16	-0.00739644
8780.46	-0.00618163
8795.06	-0.00375434
8802.36	-0.00254256
8816.95	-0.000124567
8824.25	0.00108088
8831.55	0.00228343
8846.15	0.00467823
8853.45	0.00586965
8860.75	0.00705651
8875.35	0.00941484
8882.64	0.0105854
8897.24	0.0129073
8904.54	0.0140576
8911.84	0.0152004
8926.44	0.0174611
8933.74	0.0185782
8941.03	0.019686
8955.63	0.0218714
8962.93	0.0229482
8970.23	0.0240139
8984.83	0.0261102
8992.13	0.02714
9006.72	0.0291609
9014.02	0.0301512
9021.32	0.0311275
9035.92	0.0330372
9043.22	0.0339697
9050.52	0.0348869
9065.12	0.0366744
9072.41	0.0375439
9087.01	0.0392334
9094.31	0.0400529
9101.61	0.0408551
9116.21	0.042407
9123.51	0.0431563
9130.81	0.0438876
9145.4	0.0452954
9152.7	0.0459717
9160	0.0466294
9174.6	0.0478884
9181.9	0.0484896
9196.5	0.0496349
9203.79	0.0501789
9211.09	0.0507038
9225.69	0.051696
9232.99	0.0521632
9240.29	0.0526113
9254.89	0.05345
9262.19	0.0538406
9276.78	0.0545646
9284.08	0.0548981
9291.38	0.0552127
9305.98	0.0557856
9313.28	0.056044
9320.58	0.0562838
9335.17	0.0567083
9342.47	0.0568931
9357.07	0.0572086
9364.37	0.0573396
9371.67	0.0574528
9386.27	0.0576268
9393.57	0.0576879
9400.86	0.0577318
9415.46	0.0577691
9422.76	0.0577627
9430.06	0.05774
9444.66	0.0576458
9451.96	0.0575749
9466.55	0.057386
9473.85	0.0572685
9481.15	0.0571359
9495.75	0.0568261
9503.05	0.0566494
9510.35	0.0564584
9524.94	0.0560344
9532.24	0.0558019
9546.84	0.0552968
9554.14	0.0550248
9561.44	0.0547402
9576.04	0.0541338
9583.34	0.0538126
9590.63	0.0534798
9605.23	0.0527803
9612.53	0.0524141
9627.13	0.0516505
9634.43	0.0512536
9641.73	0.0508471
9656.32	0.0500064
9663.62	0.0495728
9670.92	0.0491308
9685.52	0.0482231
9692.82	0.047758
9700.12	0.0472859
9714.71	0.0463221
9722.01	0.0458311
9736.61	0.0448328
9743.91	0.0443263
9751.21	0.0438154
9765.81	0.0427818
9773.11	0.04226
9780.4	0.0417354
9795	0.0406793
9802.3	0.0401487
9816.9	0.0390843
9824.2	0.0385513
9831.5	0.0380185
9846.09	0.0369546
9853.39	0.0364244
9860.69	0.035896
9875.29	0.0348461
9882.59	0.0343254
9897.19	0.0332945
9904.48	0.0327852
9911.78	0.0322804
9926.38	0.0312862
9933.68	0.0307975
9940.98	0.0303149
9955.58	0.0293694
9962.88	0.0289072
9970.17	0.0284526
9984.77	0.027567
9992.07	0.0271367
10006.7	0.0263026
10014	0.0258994
10021.3	0.0255056
10035.9	0.0247477
10043.2	0.024384
10050.5	0.0240307
10065.1	0.0233561
10072.4	0.0230351
10087	0.0224264
10094.3	0.0221389
10101.6	0.0218628
10116.2	0.0213451
10123.4	0.0211035
10130.7	0.0208735
10145.3	0.0204484
10152.6	0.0202531
10167.2	0.019897
10174.5	0.0197361
10181.8	0.0195865
10196.4	0.0193206
10203.7	0.0192041
10211	0.0190983
10225.6	0.0189184
10232.9	0.0188438
10240.2	0.0187793
10254.8	0.0186792
10262.1	0.0186432
10276.7	0.0185981
10284	0.0185883
10291.3	0.0185867
10305.9	0.0186068
10313.2	0.0186279
10320.5	0.0186558
10335.1	0.0187311
10342.4	0.0187777
10357	0.0188871
10364.3	0.0189491
10371.6	0.0190156
10386.2	0.0191603
10393.5	0.0192378
10400.8	0.0193182
10415.4	0.0194863
10422.7	0.0195733
10430	0.0196616
10444.6	0.0198412
10451.9	0.0199317
10466.5	0.0201121
10473.8	0.0202014
10481.1	0.0202896
10495.7	0.0204614
10503	0.0205443
10510.3	0.0206248
10524.9	0.0207773
10532.2	0.0208486
10546.8	0.0209802
10554.1	0.0210398
10561.4	0.021095
10576	0.0211909
10583.3	0.0212312
10590.6	0.021266
10605.2	0.0213186
10612.5	0.0213358
10627.1	0.0213513
10634.4	0.0213492
10641.7	0.0213404
10656.3	0.0213017
10663.6	0.0212716
10670.9	0.0212341
10685.5	0.0211368
10692.8	0.0210766
10700.1	0.0210087
10714.7	0.0208493
10722	0.0207576
10736.6	0.0205502
10743.8	0.0204342
10751.1	0.0203102
10765.7	0.0200375
10773	0.0198888
10780.3	0.0197319
10794.9	0.0193935
10802.2	0.0192119
10816.8	0.0188245
10824.1	0.0186185
10831.4	0.0184046
10846	0.0179527
10853.3	0.0177149
10860.6	0.0174692
10875.2	0.0169548
10882.5	0.0166861
10897.1	0.0161264
10904.4	0.0158355
10911.7	0.0155374
10926.3	0.0149201
10933.6	0.0146011
10940.9	0.0142753
10955.5	0.0136041
10962.8	0.013259
10970.1	0.0129077
10984.7	0.012187
10992	0.0118181
11006.6	0.0110636
11013.9	0.0106785
11021.2	0.0102883
11035.8	0.00949351
11043.1	0.00908927
11050.4	0.00868074
11065	0.00785154
11072.3	0.00743127
11086.9	0.00658043
11094.2	0.00615027
11101.5	0.00571723
11116.1	0.00484339
11123.4	0.00440301
11130.7	0.00396063
11145.3	0.00307074
11152.6	0.00262366
11167.2	0.00172638
11174.5	0.00127662
11181.8	0.000826417
11196.4	-7.44592e-05
11203.7	-0.000524687
11211	-0.000974484
11225.6	-0.00187192
11232.9	-0.00231914
11240.2	-0.00276508
11254.8	-0.00365231
11262.1	-0.00409321
11276.7	-0.00496859
11284	-0.00540271
11291.3	-0.00583421
11305.9	-0.00668867
11313.2	-0.00711131
11320.5	-0.00753067
11335.1	-0.00835898
11342.4	-0.00876766
11357	-0.00957344
11364.3	-0.00997029
11371.5	-0.010363
11386.1	-0.0111355
11393.4	-0.0115152
11400.7	-0.0118903
11415.3	-0.0126268
11422.6	-0.0129881
11437.2	-0.0136963
11444.5	-0.0140432
11451.8	-0.0143854
11466.4	-0.015055
11473.7	-0.0153826
11481	-0.0157053
11495.6	-0.0163362
11502.9	-0.0166445
11510.2	-0.016948
11524.8	-0.0175407
11532.1	-0.0178301
11546.7	-0.0183949
11554	-0.0186706
11561.3	-0.0189417
11575.9	-0.0194709
11583.2	-0.019729
11590.5	-0.0199829
11605.1	-0.0204783
11612.4	-0.0207199
11627	-0.0211913
11634.3	-0.0214212
11641.6	-0.0216473
11656.2	-0.0220884
11663.5	-0.0223036
11670.8	-0.0225152
11685.4	-0.0229279
11692.7	-0.0231292
11707.3	-0.0235216
11714.6	-0.0237129
11721.9	-0.0239008
11736.5	-0.0242671
11743.8	-0.0244455
11751.1	-0.0246206
11765.7	-0.0249613
11773	-0.0251269
11780.3	-0.0252893
11794.9	-0.0256043
11802.2	-0.025757
11816.8	-0.0260525
11824.1	-0.0261953
11831.4	-0.0263346
11846	-0.026603
11853.3	-0.026732
11860.6	-0.0268574
11875.2	-0.0270972
11882.5	-0.0272115
11897.1	-0.0274287
11904.4	-0.0275314
11911.7	-0.0276302
11926.3	-0.0278155
11933.6	-0.0279019
11940.9	-0.0279841
11955.5	-0.0281355
11962.8	-0.0282046
11970.1	-0.0282693
11984.7	-0.028385
11992	-0.028436
12006.6	-0.028524
12013.8	-0.028561
12021.1	-0.0285933
12035.7	-0.0286437
12043	-0.0286617
12050.3	-0.028675
12064.9	-0.0286875
12072.2	-0.0286866
12086.8	-0.028671
12094.1	-0.0286563
12101.4	-0.0286371
12116	-0.0285854
12123.3	-0.028553
12130.6	-0.0285165
12145.2	-0.0284311
12152.5	-0.0283825
12167.1	-0.0282742
12174.4	-0.0282148
12181.7	-0.0281519
12196.3	-0.0280169
12203.6	-0.0279449
12210.9	-0.0278703
12225.5	-0.0277138
12232.8	-0.0276323
12240.1	-0.0275489
12254.7	-0.0273771
12262	-0.0272892
12276.6	-0.0271105
12283.9	-0.0270201
12291.2	-0.0269294
12305.8	-0.0267479
12313.1	-0.0266575
12320.4	-0.0265678
12335	-0.026391
12342.3	-0.0263045
12356.9	-0.0261365
12364.2	-0.0260554
12371.5	-0.0259767
12386.1	-0.0258269
12393.4	-0.0257564
12400.7	-0.025689
12415.3	-0.0255648
12422.6	-0.0255084
12437.2	-0.0254077
12444.5	-0.025364
12451.8	-0.0253248
12466.4	-0.0252609
12473.7	-0.0252366
12481	-0.0252174
12495.6	-0.0251954
12502.9	-0.0251928
12510.2	-0.0251959
12524.8	-0.0252197
12532.1	-0.0252406
12546.7	-0.0253007
12554	-0.0253399
12561.3	-0.0253854
12575.9	-0.0254951
12583.2	-0.0255593
12590.5	-0.0256298
12605.1	-0.0257894
12612.4	-0.0258785
12627	-0.0260749
12634.3	-0.0261821
12641.6	-0.0262952
12656.1	-0.0265386
12663.4	-0.0266688
12670.7	-0.0268045
12685.3	-0.0270916
12692.6	-0.0272428
12707.2	-0.0275597
12714.5	-0.0277251
12721.8	-0.0278949
12736.4	-0.0282468
12743.7	-0.0284286
12751	-0.028614
12765.6	-0.0289948
12772.9	-0.0291897
12780.2	-0.0293874
12794.8	-0.0297903
12802.1	-0.0299949
12816.7	-0.0304096
12824	-0.0306191
12831.3	-0.0308298
12845.9	-0.0312538
12853.2	-0.0314667
12860.5	-0.0316797
12875.1	-0.0321058
12882.4	-0.0323183
12897	-0.0327412
12904.3	-0.0329511
12911.6	-0.0331598
12926.2	-0.0335726
12933.5	-0.0337764
12940.8	-0.0339781
12955.4	-0.0343746
12962.7	-0.0345692
12977.3	-0.03495
12984.6	-0.0351359
12991.9	-0.0353188
13006.5	-0.0356744
13013.8	-0.035847
13021.1	-0.036016
13035.7	-0.0363426
13043	-0.0365001
13050.3	-0.0366537
13064.9	-0.0369485
13072.2	-0.0370897
13086.8	-0.0373594
13094.1	-0.0374878
13101.4	-0.037612
13116	-0.0378473
13123.3	-0.0379584
13130.6	-0.0380652
13145.2	-0.0382659
13152.5	-0.0383598
13167.1	-0.0385349
13174.4	-0.0386162
13181.7	-0.0386934
13196.3	-0.0388355
13203.6	-0.0389006
13210.9	-0.0389617
13225.5	-0.0390726
13232.8	-0.0391225
13240.1	-0.0391687
13254.7	-0.0392505
13262	-0.0392863
13276.6	-0.039348
13283.9	-0.0393741
13291.1	-0.0393971
13305.7	-0.0394341
13313	-0.0394484
13320.3	-0.0394598
13334.9	-0.0394748
13342.2	-0.0394784
13356.8	-0.0394783
13364.1	-0.0394747
13371.4	-0.0394688
13386	-0.0394505
13393.3	-0.0394382
13400.6	-0.0394237
13415.2	-0.0393889
13422.5	-0.0393685
13437.1	-0.0393221
13444.4	-0.039296
13451.7	-0.0392681
13466.3	-0.0392069
13473.6	-0.0391735
13480.9	-0.0391383
13495.5	-0.0390625
13502.8	-0.0390218
13510.1	-0.0389792
13524.7	-0.0388883
13532	-0.0388399
13546.6	-0.0387372
13553.9	-0.0386828
13561.2	-0.0386262
13575.8	-0.0385065
13583.1	-0.0384432
13590.4	-0.0383776
13605	-0.0382392
13612.3	-0.0381662
13626.9	-0.0380122
13634.2	-0.0379312
13641.5	-0.0378473
13656.1	-0.0376707
13663.4	-0.0375779
13670.7	-0.0374819
13685.3	-0.0372803
13692.6	-0.0371745
13707.2	-0.0369524
13714.5	-0.036836
13721.8	-0.036716
13736.4	-0.0364646
13743.7	-0.0363331
13751	-0.0361977
13765.6	-0.0359147
13772.9	-0.0357671
13780.2	-0.0356153
13794.8	-0.035299
13802.1	-0.0351343
13816.7	-0.0347919
13824	-0.034614
13831.3	-0.0344317
13845.9	-0.0340535
13853.2	-0.0338576
13860.5	-0.0336572
13875.1	-0.0332426
13882.4	-0.0330285
13897	-0.0325866
13904.3	-0.0323589
13911.6	-0.0321266
13926.2	-0.0316487
13933.5	-0.031403
13940.7	-0.031153
13955.3	-0.0306399
13962.6	-0.030377
13977.2	-0.0298386
13984.5	-0.0295632
13991.8	-0.0292839
14006.4	-0.0287134
14013.7	-0.0284225
14021	-0.0281279
14035.6	-0.0275279
14042.9	-0.0272227
14050.2	-0.0269142
14064.8	-0.0262876
14072.1	-0.0259697
14086.7	-0.0253253
14094	-0.024999
14101.3	-0.0246701
14115.9	-0.0240051
14123.2	-0.0236692
14130.5	-0.0233312
14145.1	-0.0226495
14152.4	-0.022306
14167	-0.0216144
14174.3	-0.0212665
14181.6	-0.0209175
14196.2	-0.0202162
14203.5	-0.0198644
14210.8	-0.0195118
14225.4	-0.0188052
14232.7	-0.0184514
14240	-0.0180975
14254.6	-0.0173897
14261.9	-0.017036
14276.5	-0.01633
14283.8	-0.0159779
14291.1	-0.0156264
14305.7	-0.0149263
14313	-0.0145778
14320.3	-0.0142306
14334.9	-0.0135401
14342.2	-0.0131972
14356.8	-0.0125165
14364.1	-0.0121788
14371.4	-0.0118432
14386	-0.0111783
14393.3	-0.0108492
14400.6	-0.0105225
14415.2	-0.00987658
14422.5	-0.00955752
14437.1	-0.00892764
14444.4	-0.00861698
14451.7	-0.00830926
14466.3	-0.00770298
14473.6	-0.00740454
14480.9	-0.00710932
14495.5	-0.00652878
14502.8	-0.00624357
14510.1	-0.00596181
14524.7	-0.00540879
14532	-0.00513763
14546.6	-0.00460619
14553.9	-0.00434598
14561.2	-0.00408948
14575.8	-0.00358773
14583.1	-0.00334253
14590.3	-0.00310112
14604.9	-0.00262978
14612.2	-0.00239987
14626.8	-0.00195157
14634.1	-0.0017332
14641.4	-0.00151867
14656	-0.00110113
14663.3	-0.000898103
14670.6	-0.000698886
14685.2	-0.000311821
14692.5	-0.000123936
14707.1	0.000240653
14714.4	0.000417409
14721.7	0.000590511
14736.3	0.00092588
14743.6	0.00108822
14750.9	0.00124704
14765.5	0.00155429
14772.8	0.00170281
14780.1	0.00184797
14794.7	0.00212845
14802	0.00226385
14816.6	0.00252524
14823.9	0.00265134
14831.2	0.00277443
14845.8	0.00301186
14853.1	0.0031263
14860.4	0.00323797
14875	0.00345322
14882.3	0.00355693
14896.9	0.0037568
14904.2	0.00385309
14911.5	0.00394703
14926.1	0.0041281
14933.4	0.00421535
14940.7	0.00430051
14955.3	0.00446474
14962.6	0.00454395
14977.2	0.00469686
14984.5	0.00477068
14991.8	0.00484282
15006.4	0.00498231
15013.7	0.00504977
15021	0.00511579
15035.6	0.00524373
15042.9	0.00530576
15050.2	0.00536656
15064.8	0.00548472
15072.1	0.00554218
15086.7	0.0056541
15094	0.00570865
15101.3	0.00576233
15115.9	0.00586726
15123.2	0.00591859
15130.5	0.00596921
15145.1	0.00606852
15152.4	0.00611727
15167	0.00621316
15174.3	0.00626036
15181.6	0.0063071
15196.2	0.00639932
15203.5	0.00644486
15210.8	0.00649005
15225.4	0.00657946
15232.6	0.00662372
15247.2	0.00671145
15254.5	0.00675494
15261.8	0.00679821
15276.4	0.00688409
15283.7	0.00692673
15291	0.00696917
15305.6	0.00705348
15312.9	0.00709536
15320.2	0.00713705
15334.8	0.00721986
15342.1	0.00726097
15356.7	0.00734259
15364	0.00738308
15371.3	0.00742334
15385.9	0.00750314
15393.2	0.00754266
15400.5	0.0075819
15415.1	0.00765949
15422.4	0.00769781
15437	0.00777341
15444.3	0.00781066
15451.6	0.00784751
15466.2	0.00791994
15473.5	0.00795548
15480.8	0.00799054
15495.4	0.00805916
15502.7	0.00809267
15510	0.00812562
15524.6	0.00818975
15531.9	0.00822089
15546.5	0.00828124
15553.8	0.0083104
15561.1	0.00833887
15575.7	0.00839364
15583	0.00841992
15590.3	0.00844543
15604.9	0.00849413
15612.2	0.00851729
15626.8	0.00856117
15634.1	0.00858188
15641.4	0.00860176
15656	0.00863903
15663.3	0.00865641
15670.6	0.00867295
15685.2	0.00870355
15692.5	0.00871761
15707.1	0.00874331
15714.4	0.00875496
15721.7	0.00876584
15736.3	0.00878531
15743.6	0.00879395
15750.9	0.00880188
15765.5	0.00881573
15772.8	0.00882169
15780.1	0.00882706
15794.7	0.0088361
15802	0.00883985
15816.6	0.00884598
15823.9	0.00884844
15831.2	0.00885055
15845.8	0.00885387
15853.1	0.00885518
15860.4	0.00885631
15874.9	0.00885823
15882.2	0.00885912
15896.8	0.008861
15904.1	0.0088621
15911.4	0.00886336
15926	0.00886661
15933.3	0.0088687
15940.6	0.00887118
15955.2	0.00887748
15962.5	0.00888141
15977.1	0.0088911
15984.4	0.00889696
15991.7	0.00890357
16006.3	0.0089192
16013.6	0.00892833
16020.9	0.00893839
16035.5	0.0089615
16042.8	0.00897464
16050.1	0.00898887
16064.7	0.00902082
16072	0.0090386
16086.6	0.00907793
16093.9	0.00909955
16101.2	0.0091225
16115.8	0.0091725
16123.1	0.00919959
16130.4	0.0092281
16145	0.00928943
16152.3	0.00932228
16166.9	0.00939235
16174.2	0.00942958
16181.5	0.00946829
16196.1	0.00955008
16203.4	0.00959315
16210.7	0.00963766
16225.3	0.00973094
16232.6	0.00977967
16247.2	0.00988122
16254.5	0.00993399
16261.8	0.00998806
16276.4	0.0100999
16283.7	0.0101577
16291	0.0102166
16305.6	0.0103378
16312.9	0.0104
16320.2	0.0104631
16334.8	0.0105923
16342.1	0.0106583
16356.7	0.0107925
16364	0.0108608
16371.3	0.0109297
16385.9	0.0110694
16393.2	0.0111401
16400.5	0.0112112
16415.1	0.0113548
16422.4	0.0114271
16437	0.0115725
16444.3	0.0116455
16451.6	0.0117186
16466.2	0.0118651
16473.5	0.0119383
16480.8	0.0120116
16495.4	0.0121577
16502.6	0.0122305
16517.2	0.0123756
16524.5	0.0124477
16531.8	0.0125196
16546.4	0.0126622
16553.7	0.0127329
16561	0.0128032
16575.6	0.0129425
16582.9	0.0130115
16590.2	0.0130799
16604.8	0.0132152
16612.1	0.013282
16626.7	0.013414
16634	0.0134791
16641.3	0.0135437
16655.9	0.013671
16663.2	0.0137338
16670.5	0.013796
16685.1	0.0139186
16692.4	0.0139791
16707	0.0140982
16714.3	0.0141568
16721.6	0.014215
16736.2	0.0143294
16743.5	0.0143858
16750.8	0.0144417
16765.4	0.0145516
16772.7	0.0146058
16780	0.0146593
16794.6	0.0147647
16801.9	0.0148165
16816.5	0.0149183
16823.8	0.0149683
16831.1	0.0150176
16845.7	0.0151142
16853	0.0151614
16860.3	0.0152079
16874.9	0.0152984
16882.2	0.0153423
16896.8	0.0154273
16904.1	0.0154682
16911.4	0.015508
16926	0.0155839
16933.3	0.0156199
16940.6	0.0156544
16955.2	0.0157186
16962.5	0.0157481
16977.1	0.0158013
16984.4	0.0158248
16991.7	0.015846
17006.3	0.0158811
17013.6	0.0158946
17020.9	0.0159052
17035.5	0.0159171
17042.8	0.015918
17050.1	0.0159154
17064.7	0.0158983
17072	0.0158836
17086.6	0.0158406
17093.9	0.0158119
17101.2	0.0157781
17115.8	0.0156942
17123.1	0.0156435
17130.4	0.0155868
17144.9	0.015454
17152.2	0.0153774
17166.8	0.0152025
17174.1	0.0151037
17181.4	0.0149968
17196	0.0147582
17203.3	0.0146258
17210.6	0.0144843
17225.2	0.0141731
17232.5	0.0140028
17247.1	0.0136313
17254.4	0.0134297
17261.7	0.0132171
17276.3	0.0127579
17283.6	0.0125108
17290.9	0.0122518
17305.5	0.0116969
17312.8	0.0114005
17320.1	0.0110913
17334.7	0.0104336
17342	0.0100846
17356.6	0.00934569
17363.9	0.00895543
17371.2	0.00855112
17385.8	0.00769987
17393.1	0.00725272
17400.4	0.00679113
17415	0.00582433
17422.3	0.00531906
17436.9	0.00426468
17444.2	0.0037156
17451.5	0.00315197
17466.1	0.00198131
17473.4	0.00137446
17480.7	0.000753391
17495.3	-0.00053081
17502.6	-0.00119362
17517.2	-0.00255969
17524.5	-0.0032625
17531.8	-0.00397816
17546.4	-0.00544693
17553.7	-0.00619941
17561	-0.00696353
17575.6	-0.00852519
17582.9	-0.00932197
17590.2	-0.0101288
17604.8	-0.011771
17612.1	-0.0126054
17626.7	-0.0142983
17634	-0.0151557
17641.3	-0.0160198
17655.9	-0.0177656
17663.2	-0.0186461
17670.5	-0.0195308
17685.1	-0.0213105
17692.4	-0.0222042
17707	-0.0239959
17714.3	-0.0248925
17721.6	-0.0257886
17736.2	-0.0275768
17743.5	-0.0284674
17750.8	-0.0293547
17765.4	-0.0311162
17772.6	-0.0319889
17787.2	-0.0337146
17794.5	-0.034566
17801.8	-0.0354088
17816.4	-0.0370654
17823.7	-0.0378776
17831	-0.0386782
17845.6	-0.0402412
17852.9	-0.0410021
17860.2	-0.0417484
17874.8	-0.0431939
17882.1	-0.0438918
17896.7	-0.0452342
17904	-0.0458773
17911.3	-0.0465009
17925.9	-0.0476868
17933.2	-0.0482478
17940.5	-0.0487867
17955.1	-0.0497961
17962.4	-0.0502655
17977	-0.0511309
17984.3	-0.0515259
17991.6	-0.0518953
18006.2	-0.0525552
18013.5	-0.052845
18020.8	-0.0531074
18035.4	-0.0535493
18042.7	-0.053728
18050	-0.0538783
18064.6	-0.0540927
18071.9	-0.0541564
18086.5	-0.0541962
18093.8	-0.0541721
18101.1	-0.0541185
18115.7	-0.0539229
18123	-0.053781
18130.3	-0.0536097
18144.9	-0.0531793
18152.2	-0.0529205
18166.8	-0.0523165
18174.1	-0.0519718
18181.4	-0.0515989
18196	-0.0507697
18203.3	-0.0503141
18210.6	-0.0498316
18225.2	-0.0487874
18232.5	-0.0482266
18247.1	-0.0470299
18254.4	-0.0463949
18261.7	-0.0457362
18276.3	-0.0443499
18283.6	-0.0436234
18290.9	-0.0428755
18305.5	-0.0413178
18312.8	-0.0405093
18320.1	-0.0396819
18334.7	-0.0379732
18342	-0.0370933
18356.6	-0.0352859
18363.9	-0.0343598
18371.2	-0.0334199
18385.8	-0.0315011
18393.1	-0.0305239
18400.4	-0.0295358
18414.9	-0.02753
18422.2	-0.0265138
18436.8	-0.0244587
18444.1	-0.0234214
18451.4	-0.0223786
18466	-0.0202796
18473.3	-0.0192249
18480.6	-0.0181678
18495.2	-0.0160492
18502.5	-0.0149892
18517.1	-0.0128716
18524.4	-0.0118153
18531.7	-0.0107617
18546.3	-0.00866537
18553.6	-0.00762392
18560.9	-0.00658785
18575.5	-0.00453443
18582.8	-0.00351833
18590.1	-0.00251012
18604.7	-0.00051975
18612	0.000461275
18626.6	0.00239225
18633.9	0.00334115
18641.2	0.00427832
18655.8	0.00611554
18663.1	0.00701467
18670.4	0.00790022
18685	0.00962898
18692.3	0.0104714
18706.9	0.0121105
18714.2	0.0129065
18721.5	0.0136864
18736.1	0.0151966
18743.4	0.0159265
18750.7	0.0166391
18765.3	0.0180121
18772.6	0.018672
18787.2	0.0199378
18794.5	0.0205434
18801.8	0.0211307
18816.4	0.0222498
18823.7	0.0227815
18831	0.0232946
18845.6	0.0242647
18852.9	0.0247218
18860.2	0.0251602
18874.8	0.0259811
18882.1	0.0263638
18896.7	0.0270738
18904	0.0274014
18911.3	0.0277108
18925.9	0.0282758
18933.2	0.0285316
18940.5	0.0287698
18955.1	0.0291943
18962.4	0.0293809
18977	0.0297039
18984.3	0.0298407
18991.6	0.0299614
19006.2	0.0301552
19013.5	0.0302288
19020.8	0.0302872
19035.4	0.0303597
19042.6	0.0303742
19057.2	0.0303612
19064.5	0.0303343
19071.8	0.0302941
19086.4	0.0301751
19093.7	0.0300969
19101	0.0300066
19115.6	0.0297909
19122.9	0.0296661
19130.2	0.0295305
19144.8	0.0292276
19152.1	0.029061
19166.7	0.028699
19174	0.0285041
19181.3	0.0283004
19195.9	0.0278676
19203.2	0.0276391
19210.5	0.0274029
19225.1	0.0269084
19232.4	0.0266507
19247	0.0261157
19254.3	0.0258389
19261.6	0.0255563
19276.2	0.0249746
19283.5	0.024676
19290.8	0.0243725
19305.4	0.023752
19312.7	0.0234353
19320	0.0231148
19334.6	0.0224627
19341.9	0.0221316
19356.5	0.0214604
19363.8	0.0211206
19371.1	0.0207783
19385.7	0.0200869
19393	0.0197381
19400.3	0.0193875
19414.9	0.0186815
19422.2	0.0183264
19436.8	0.0176127
19444.1	0.0172544
19451.4	0.0168953
19466	0.0161751
19473.3	0.0158143
19480.6	0.0154532
19495.2	0.0147303
19502.5	0.0143687
19517.1	0.0136457
19524.4	0.0132844
19531.7	0.0129234
19546.3	0.0122023
19553.6	0.0118424
19560.9	0.0114829
19575.5	0.0107656
19582.8	0.0104078
19590.1	0.0100505
19604.7	0.00933792
19612	0.00898257
19626.6	0.0082738
19633.9	0.00792037
19641.2	0.00756755
19655.8	0.00686372
19663.1	0.00651265
19670.4	0.00616209
19684.9	0.00546239
19692.2	0.00511315
19706.8	0.00441563
19714.1	0.00406724
19721.4	0.00371899
19736	0.00302266
19743.3	0.00267443
19750.6	0.00232603
19765.2	0.00162841
19772.5	0.00127898
19787.1	0.000578425
19794.4	0.000227078
19801.7	-0.000125128
19816.3	-0.000832562
19823.6	-0.00118802
19830.9	-0.00154481
19845.5	-0.00226282
19852.8	-0.00262429
19860.1	-0.00298758
19874.7	-0.00372007
19882	-0.00408953
19896.6	-0.00483547
19903.9	-0.0052122
19911.2	-0.00559158
19925.8	-0.00635879
19933.1	-0.00674682
19940.4	-0.00713795
19955	-0.0079299
19962.3	-0.00833089
19976.9	-0.00914334
19984.2	-0.00955495
19991.5	-0.00997022
