%%MatrixMarket matrix array real general
20 20
0.
1.732050808
2.236067977
2.645751311
0.
1.414213562
1.825741857
0.
1.118033988
0.
0.
1.414213562
1.825741857
0.
1.369306393
0.
0.
1.118033988
0.
0.
0.
1.500000000
2.581988897
3.436931772
0.
1.224744872
2.108185106
0.
.9682458365
0.
0.
1.224744872
2.108185106
0.
1.185854122
0.
0.
.9682458365
0.
0.
0.
1.290994449
2.500000000
3.549647869
0.
1.054092553
2.041241452
0.
.8333333333
0.
0.
1.054092553
2.041241452
0.
1.020620726
0.
0.
.8333333333
0.
0.
0.
1.145643924
2.366431913
3.500000000
0.
.9354143468
1.932183566
0.
.7395099728
0.
0.
.9354143468
1.932183566
0.
.9057110469
0.
0.
.7395099728
0.
0.
0.
1.414213562
1.825741858
2.160246900
0.
1.732050808
2.236067977
0.
1.643167673
0.
0.
.8660254040
1.118033988
0.
1.341640786
0.
0.
.5477225576
0.
0.
0.
1.224744872
2.108185107
2.806243040
0.
1.500000000
2.581988897
0.
1.423024947
0.
0.
.7500000000
1.290994449
0.
1.161895004
0.
0.
.4743416490
0.
0.
0.
1.054092553
2.041241452
2.898275350
0.
1.290994449
2.500000000
0.
1.224744872
0.
0.
.6454972245
1.250000000
0.
1.
0.
0.
.4082482906
0.
0.
0.
1.118033988
1.443375673
1.707825129
0.
1.643167672
2.121320343
0.
1.732050808
0.
0.
.5477225575
.7071067810
0.
1.060660172
0.
0.
.2886751347
0.
0.
0.
.9682458365
1.666666667
2.218529918
0.
1.423024947
2.449489743
0.
1.500000000
0.
0.
.4743416490
.8164965809
0.
.9185586536
0.
0.
.2500000000
0.
0.
0.
.9165151392
1.183215956
1.400000000
0.
1.496662955
1.932183566
0.
1.690308509
0.
0.
.3741657387
.4830458916
0.
.8280786714
0.
0.
.1690308509
0.
0.
0.
1.414213562
1.825741858
2.160246900
0.
.8660254040
1.118033988
0.
.5477225576
0.
0.
1.732050808
2.236067977
0.
1.341640786
0.
0.
1.643167673
0.
0.
0.
1.224744872
2.108185107
2.806243040
0.
.7500000000
1.290994449
0.
.4743416490
0.
0.
1.500000000
2.581988897
0.
1.161895004
0.
0.
1.423024947
0.
0.
0.
1.054092553
2.041241452
2.898275350
0.
.6454972245
1.250000000
0.
.4082482906
0.
0.
1.290994449
2.500000000
0.
1.
0.
0.
1.224744872
0.
0.
0.
1.369306394
1.767766952
2.091650066
0.
1.341640786
1.732050808
0.
1.060660172
0.
0.
1.341640786
1.732050808
0.
1.732050808
0.
0.
1.060660172
0.
0.
0.
1.185854122
2.041241452
2.717133141
0.
1.161895004
2.
0.
.9185586536
0.
0.
1.161895004
2.
0.
1.500000000
0.
0.
.9185586536
0.
0.
0.
1.183215957
1.527525232
1.807392228
0.
1.449137675
1.870828694
0.
1.309307341
0.
0.
.9660917834
1.247219129
0.
1.603567452
0.
0.
.6546536709
0.
0.
0.
1.118033988
1.443375673
1.707825129
0.
.5477225575
.7071067810
0.
.2886751347
0.
0.
1.643167672
2.121320343
0.
1.060660172
0.
0.
1.732050808
0.
0.
0.
.9682458365
1.666666667
2.218529918
0.
.4743416490
.8164965809
0.
.2500000000
0.
0.
1.423024947
2.449489743
0.
.9185586536
0.
0.
1.500000000
0.
0.
0.
1.183215957
1.527525232
1.807392228
0.
.9660917834
1.247219129
0.
.6546536709
0.
0.
1.449137675
1.870828694
0.
1.603567452
0.
0.
1.309307341
0.
0.
0.
.9165151392
1.183215956
1.400000000
0.
.3741657387
.4830458916
0.
.1690308509
0.
0.
1.496662955
1.932183566
0.
.8280786714
0.
0.
1.690308509
0.
0.
