%%MatrixMarket matrix array real general
4 20
1.414213562
1.414213562
1.414213562
1.414213562
.1700725905
.1700725905
.1700725905
.1700725905
.1524464801e-1
.1524464801e-1
.1524464801e-1
.1524464801e-1
.1252391530e-2
.1252391530e-2
.1252391530e-2
.1252391530e-2
3.223582651
2.320915249
1.143186367
.2405189635
.3876663793
.2791120656
.1374790002
.2892468600e-1
.3474891228e-1
.2501852413e-1
.1232308492e-1
.2592696785e-2
4.743042334
2.458656996
.5965041289
.2640450499e-1
.5703958130
.2956768161
.7173527742e-1
.3175392072e-2
6.030295213
2.250608683
.2689510557
.2504783060e-2
0.
0.
0.
0.
0.
0.
0.
0.
0.
0.
0.
0.
0.
0.
0.
0.
0.
0.
0.
0.
0.
0.
0.
0.
0.
0.
0.
0.
0.
0.
0.
0.
0.
0.
0.
0.
0.
0.
0.
0.
