%%MatrixMarket matrix array real general
20 4
-.4278101850e-1
-.5144823126e-2
-.4611620101e-3
-.3788578095e-4
-.9751578751e-1
-.1172719805e-1
-.1051180599e-2
-.1434805799
-.1725490019e-1
-.1824209426
0.
0.
0.
0.
0.
0.
0.
0.
0.
0.
-.8020424136e-1
-.9645320522e-2
-.8645691572e-3
-.7102683444e-4
-.1316259805
-.1582927222e-1
-.1418874633e-2
-.1394377231
-.1676870832e-1
-.1276386869
0.
0.
0.
0.
0.
0.
0.
0.
0.
0.
-.8020424136e-1
-.9645320522e-2
-.8645691572e-3
-.7102683444e-4
-.6483348608e-1
-.779684142e-2
-.6988786584e-3
-.3382951655e-1
-.4068320131e-2
-.1525301126e-1
0.
0.
0.
0.
0.
0.
0.
0.
0.
0.
-.4278101850e-1
-.5144823126e-2
-.4611620101e-3
-.3788578095e-4
-.7275878632e-2
-.8749933967e-3
-.7843101787e-4
-.7987560345e-3
-.9605798645e-4
-.7577156190e-4
0.
0.
0.
0.
0.
0.
0.
0.
0.
0.
