%%MatrixMarket matrix array real general
10 10
.7071067810
0.
0.
0.
0.
0.
0.
0.
0.
0.
0.
0.
0.
0.
0.
0.
.2886751347
0.
0.
0.
0.
0.
0.
0.
0.
0.
0.
0.
0.
.1825741858
0.
0.
0.
.2886751347
0.
0.
0.
0.
0.
0.
0.
0.
0.
0.
0.
0.
0.
0.
.7453559923e-1
0.
0.
0.
0.
0.
0.
.1825741858
0.
0.
0.
0.
0.
.4082482906
0.
0.
0.
0.
0.
0.
0.
0.
0.
0.
0.
0.
0.
0.
0.
.1666666667
0.
0.
0.
0.
0.
0.
.1666666667
0.
0.
0.
0.
0.
0.
0.
.3162277660
0.
0.
0.
0.
0.
0.
0.
