%%MatrixMarket matrix array real general
10 10
1.414213562
0.
0.
0.
0.
0.
0.
0.
0.
0.
0.
0.
0.
0.
0.
0.
2.449489743
0.
0.
0.
0.
0.
0.
0.
0.
0.
0.
0.
0.
3.162277660
0.
0.
0.
3.464101616
0.
0.
0.
0.
0.
0.
0.
0.
0.
0.
0.
0.
0.
0.
6.
0.
0.
0.
0.
0.
0.
5.477225575
0.
0.
0.
0.
0.
3.464101616
0.
0.
0.
0.
0.
0.
0.
0.
0.
0.
0.
0.
0.
0.
0.
6.
0.
0.
0.
0.
0.
0.
13.41640786
0.
0.
0.
0.
0.
0.
0.
5.477225575
0.
0.
0.
0.
0.
0.
0.
