%%MatrixMarket matrix array real general
10 10
0.
0.
0.
2.449489743
2.121320343
2.581988897
0.
0.
3.162277659
0.
0.
0.
0.
2.121320343
2.449489743
2.236067977
0.
0.
2.738612787
0.
0.
0.
0.
1.825741858
2.371708245
1.924500898
0.
0.
2.357022604
0.
0.
0.
0.
2.
1.732050808
3.162277660
0.
0.
1.936491673
0.
0.
0.
0.
1.732050808
2.
2.738612788
0.
0.
1.677050983
0.
0.
0.
0.
1.581138830
1.369306394
3.
0.
0.
1.224744872
0.
0.
0.
0.
2.
1.732050808
1.581138830
0.
0.
3.872983346
0.
0.
0.
0.
1.732050808
2.
1.369306394
0.
0.
3.354101966
0.
0.
0.
0.
1.936491673
1.677050983
2.449489743
0.
0.
3.
0.
0.
0.
0.
1.581138830
1.369306394
1.
0.
0.
3.674234614
0.
