%%MatrixMarket matrix array real general
3 10
1.414213562
1.414213562
1.414213562
.2760615734
.2760615734
.2760615734
.4016619266e-1
.4016619266e-1
.4016619266e-1
3.073691594
1.732050808
.3904100212
.6000000000
.338104996
.7620999228e-1
4.312210572
1.369306394
.6956988644e-1
0.
0.
0.
0.
0.
0.
0.
0.
0.
0.
0.
0.
