%%MatrixMarket matrix array real general
10 10
0.
0.
0.
0.
0.
0.
2.449489743
2.121320343
3.162277659
2.581988897
0.
0.
0.
0.
0.
0.
2.121320343
2.449489743
2.738612787
2.236067977
0.
0.
0.
0.
0.
0.
1.825741858
2.371708245
2.357022604
1.924500898
0.
0.
0.
0.
0.
0.
2.
1.732050808
3.872983346
1.581138830
0.
0.
0.
0.
0.
0.
1.732050808
2.
3.354101966
1.369306394
0.
0.
0.
0.
0.
0.
1.581138830
1.369306394
3.674234614
1.
0.
0.
0.
0.
0.
0.
2.
1.732050808
1.936491673
3.162277660
0.
0.
0.
0.
0.
0.
1.732050808
2.
1.677050983
2.738612788
0.
0.
0.
0.
0.
0.
1.936491673
1.677050983
3.
2.449489743
0.
0.
0.
0.
0.
0.
1.581138830
1.369306394
1.224744872
3.
