0	0
10.2577	0
20.5153	0
30.773	0
41.0307	0
51.2884	0
61.546	0
71.8037	0
82.0614	0
92.3191	0
100.012	0
110.27	0
120.528	0
130.785	0
141.043	0
151.301	0
161.558	0
171.816	0
182.074	0
192.331	0
200.025	0
210.282	0
220.54	0
230.798	0
241.055	0
251.313	0
261.571	0
271.828	0
282.086	0
292.344	0
300.037	0
310.295	0
320.552	0
330.81	0
341.068	0
351.325	0
361.583	0
371.841	0
382.098	0
392.356	0
400.049	0
410.307	0
420.565	0
430.822	0
441.08	0
451.338	0
461.595	0
471.853	0
482.111	0
492.368	0
500.062	0
510.319	0
520.577	0
530.835	0
541.092	0
551.35	0
561.608	0
571.865	0
582.123	0
592.381	0
600.074	0
610.332	0
620.589	0
630.847	0
641.105	0
651.362	0
661.62	0
671.878	0
682.135	0
692.393	0
700.086	0
710.344	0
720.602	0
730.859	0
741.117	0
751.375	0
761.632	0
771.89	0
782.148	0
792.405	0
800.099	0
810.356	0
820.614	0
830.872	0
841.129	0
851.387	0
861.645	0
871.902	0
882.16	0
892.418	0
900.111	0
910.369	0
920.626	0
930.884	0
941.142	0
951.399	0
961.657	0
971.915	0
982.172	0
992.43	0
1000.12	0
1010.38	0
1020.64	0
1030.9	0
1041.15	0
1051.41	0
1061.67	0
1071.93	0
1082.18	0
1092.44	0
1100.14	0
1110.39	0
1120.65	0
1130.91	0
1141.17	0
1151.42	0
1161.68	0
1171.94	0
1182.2	0
1192.45	0
1200.15	0
1210.41	0
1220.66	0
1230.92	0
1241.18	0
1251.44	0
1261.69	0
1271.95	0
1282.21	0
1292.47	0
1300.16	0
1310.42	0
1320.68	0
1330.93	0
1341.19	0
1351.45	0
1361.71	0
1371.96	0
1382.22	0
1392.48	0
1400.17	0
1410.43	0
1420.69	0
1430.95	0
1441.2	0
1451.46	0
1461.72	0
1471.98	0
1482.23	0
1492.49	0
1500.18	0
1510.44	0
1520.7	0
1530.96	0
1541.22	0
1551.47	0
1561.73	0
1571.99	0
1582.25	0
1592.5	0
1600.2	0
1610.45	0
1620.71	0
1630.97	0
1641.23	0
1651.49	0
1661.74	0
1672	0
1682.26	0
1692.52	0
1700.21	0
1710.47	0
1720.72	0
1730.98	0
1741.24	0
1751.5	0
1761.76	0
1772.01	0
1782.27	0
1792.53	0
1800.22	0
1810.48	0
1820.74	0
1830.99	0
1841.25	0
1851.51	0
1861.77	0
1872.03	0
1882.28	0
1892.54	0
1900.23	0
1910.49	0
1920.75	0
1931.01	0
1941.26	0
1951.52	0
1961.78	0
1972.04	0
1982.3	0
1992.55	0
2000.25	0
2010.5	0
2020.76	0
2031.02	0
2041.28	0
2051.53	0
2061.79	0
2072.05	0
2082.31	0
2090	0
2100.26	0
2110.52	0
2120.77	0
2131.03	0
2141.29	0
2151.55	0
2161.8	0
2172.06	0
2182.32	0
2190.01	0
2200.27	0
2210.53	0
2220.79	0
2231.04	0
2241.3	0
2251.56	0
2261.82	0
2272.07	0
2282.33	0
2290.03	0
2300.28	0
2310.54	0
2320.8	0
2331.06	0
2341.31	0
2351.57	0
2361.83	0
2372.09	0
2382.34	0
2390.04	0
2400.3	0
2410.55	0
2420.81	0
2431.07	0
2441.33	0
2451.58	0
2461.84	0
2472.1	0
2482.36	0
2490.05	0
2500.31	0
2510.57	0
2520.82	0
2531.08	0
2541.34	0
2551.6	0
2561.85	0
2572.11	0
2582.37	0
2590.06	0
2600.32	0
2610.58	0
2620.84	0
2631.09	0
2641.35	0
2651.61	0
2661.87	0
2672.12	0
2682.38	0
2690.07	0
2700.33	0
2710.59	0
2720.85	0
2731.11	0
2741.36	0
2751.62	0
2761.88	0
2772.14	0
2782.39	0
2790.09	0
2800.34	0
2810.6	0
2820.86	0
2831.12	0
2841.38	0
2851.63	0
2861.89	0
2872.15	0
2882.41	0
2890.1	0
2900.36	9.09495e-13
2910.61	1.81899e-12
2920.87	5.45697e-12
2931.13	1.09139e-11
2941.39	2.27374e-11
2951.64	4.36557e-11
2961.9	8.00355e-11
2972.16	1.45519e-10
2982.42	2.60115e-10
2990.11	3.98359e-10
3000.37	6.93035e-10
3010.63	1.1878e-09
3020.88	2.00998e-09
3031.14	3.35422e-09
3041.4	5.52609e-09
3051.66	8.9849e-09
3061.91	1.442e-08
3072.17	2.28501e-08
3082.43	3.57568e-08
3090.12	4.96229e-08
3100.38	7.59937e-08
3110.64	1.14982e-07
3120.89	1.71912e-07
3131.15	2.54029e-07
3141.41	3.71055e-07
3151.67	5.35852e-07
3161.92	7.65206e-07
3172.18	1.08073e-06
3182.44	1.50985e-06
3190.13	1.92663e-06
3200.39	2.64206e-06
3210.65	3.58574e-06
3220.9	4.8171e-06
3231.16	6.40682e-06
3241.42	8.43776e-06
3251.68	1.10058e-05
3261.93	1.42201e-05
3272.19	1.82034e-05
3282.45	2.30918e-05
3290.14	2.74406e-05
3300.4	3.42758e-05
3310.66	4.24485e-05
3320.91	5.21319e-05
3331.17	6.3503e-05
3341.43	7.674e-05
3351.69	9.20178e-05
3361.94	0.000109504
3372.2	0.000129356
3382.46	0.000151713
3390.15	0.000170199
3400.41	0.000197219
3410.67	0.000227018
3420.92	0.000259645
3431.18	0.000295116
3441.44	0.000333414
3451.69	0.00037449
3461.95	0.000418256
3472.21	0.000464596
3482.47	0.00051336
3490.16	0.000551418
3500.42	0.000603979
3510.67	0.000658416
3520.93	0.000714492
3531.19	0.000771958
3541.44	0.000830558
3551.7	0.00089004
3561.96	0.000950155
3572.22	0.00101067
3582.47	0.00107137
3590.17	0.00111691
3600.42	0.00117751
3610.68	0.00123788
3620.94	0.00129792
3631.19	0.0013576
3641.45	0.00141693
3651.71	0.00147598
3661.97	0.00153485
3672.22	0.0015937
3682.48	0.00165274
3690.17	0.00169728
3700.43	0.00175724
3710.69	0.00181812
3720.94	0.00188024
3731.2	0.00194392
3741.46	0.00200948
3751.72	0.00207725
3761.97	0.00214752
3772.23	0.00222059
3782.49	0.00229671
3790.18	0.00235593
3800.44	0.00243789
3810.69	0.00252343
3820.95	0.00261268
3831.21	0.00270577
3841.47	0.0028028
3851.72	0.00290391
3861.98	0.00300923
3872.24	0.00311897
3882.49	0.00323342
3890.19	0.00332258
3900.44	0.00344633
3910.7	0.0035763
3920.96	0.00371344
3931.22	0.00385898
3941.47	0.00401451
3951.73	0.00418204
3961.99	0.00436406
3972.24	0.00456366
3982.5	0.00478461
3990.19	0.00496702
4000.45	0.00523681
4010.71	0.00554274
4020.97	0.00589226
4031.22	0.00629417
4041.48	0.00675889
4051.74	0.00729864
4062	0.00792775
4072.25	0.00866295
4082.51	0.0095237
4090.2	0.0102651
4100.46	0.0114017
4110.72	0.0127343
4120.98	0.0142957
4131.23	0.0161232
4141.49	0.0182586
4151.75	0.020749
4162	0.0236466
4172.26	0.0270086
4182.52	0.0308976
4190.21	0.0342007
4200.47	0.0391773
4210.73	0.0448774
4220.99	0.0513797
4231.24	0.0587657
4241.5	0.0671179
4251.76	0.0765191
4262.02	0.0870507
4272.27	0.0987906
4282.53	0.111812
4290.22	0.122459
4300.48	0.137875
4310.74	0.15473
4321	0.173061
4331.26	0.192886
4341.51	0.214212
4351.77	0.237024
4362.03	0.261289
4370.64	0.28274
4380.89	0.309518
4391.15	0.337539
4401.41	0.366686
4411.67	0.396821
4421.92	0.427785
4432.18	0.4594
4442.44	0.49147
4450.13	0.515692
4460.39	0.548033
4470.65	0.580208
4480.91	0.611969
4491.16	0.643064
4501.42	0.673233
4511.68	0.70222
4521.94	0.72977
4532.19	0.755632
4541.05	0.77641
4551.31	0.798499
4561.57	0.818255
4571.82	0.835482
4582.08	0.85001
4592.34	0.861689
4600.03	0.868504
4610.29	0.874917
4620.55	0.878209
4630.81	0.878333
4641.06	0.875272
4651.32	0.869037
4661.58	0.859667
4671.84	0.84723
4682.09	0.831815
4692.35	0.813537
4700.04	0.79803
4710.3	0.775077
4720.56	0.749674
4730.82	0.721997
4741.08	0.692236
4751.33	0.660583
4761.59	0.627239
4771.85	0.592403
4782.11	0.556274
4792.36	0.51905
4800.06	0.490527
4810.31	0.451839
4820.57	0.412561
4830.83	0.372863
4841.09	0.332903
4851.34	0.292831
4861.6	0.252786
4871.86	0.212896
4882.12	0.17328
4892.38	0.13405
4900.07	0.104942
4910.33	0.0666275
4920.58	0.0289611
4930.84	-0.00797359
4941.1	-0.0440985
4951.36	-0.0793401
4961.61	-0.113629
4971.87	-0.146899
4982.13	-0.179087
4992.39	-0.210132
5000.08	-0.232632
5010.34	-0.261541
5020.6	-0.289154
5030.85	-0.315421
5041.11	-0.340296
5051.37	-0.363733
5061.63	-0.385692
5071.88	-0.406137
5082.14	-0.425038
5092.4	-0.442366
5100.09	-0.454318
5110.35	-0.468848
5120.61	-0.481763
5130.87	-0.493058
5141.12	-0.502736
5151.38	-0.510806
5161.64	-0.517282
5171.9	-0.522189
5182.15	-0.525554
5192.41	-0.527415
5200.1	-0.527847
5210.36	-0.527178
5220.62	-0.525133
5230.88	-0.52177
5241.14	-0.51715
5251.39	-0.511342
5261.65	-0.504415
5271.91	-0.496443
5282.17	-0.487504
5292.42	-0.477675
5300.12	-0.469768
5310.37	-0.458577
5320.63	-0.446722
5330.89	-0.434284
5341.15	-0.421345
5351.41	-0.407987
5361.66	-0.39429
5371.92	-0.380332
5382.18	-0.366188
5392.44	-0.351933
5400.13	-0.34121
5410.39	-0.326927
5420.64	-0.312717
5430.9	-0.29864
5441.16	-0.284754
5451.42	-0.271109
5461.67	-0.257754
5471.93	-0.24473
5482.19	-0.232075
5492.45	-0.219823
5500.14	-0.210915
5510.4	-0.199432
5520.66	-0.188418
5530.91	-0.177888
5541.17	-0.167855
5551.43	-0.158325
5561.69	-0.149302
5571.94	-0.140788
5582.2	-0.132779
5592.46	-0.125271
5600.15	-0.119964
5610.41	-0.113312
5620.67	-0.107136
5630.93	-0.101423
5641.18	-0.0961613
5651.44	-0.0913365
5661.7	-0.0869348
5671.96	-0.0829418
5682.21	-0.0793435
5692.47	-0.0761257
5700.16	-0.0739538
5710.42	-0.0713691
5720.68	-0.0691285
5730.94	-0.0672194
5741.19	-0.0656301
5751.45	-0.0643494
5761.71	-0.0633666
5771.97	-0.0626715
5782.23	-0.0622543
5792.48	-0.0621055
5800.18	-0.0621646
5810.43	-0.0624637
5820.69	-0.0630064
5830.95	-0.0637835
5841.21	-0.064786
5851.46	-0.0660044
5861.72	-0.067429
5871.98	-0.0690494
5882.24	-0.070855
5892.49	-0.0728343
5900.19	-0.0744255
5910.45	-0.076679
5920.7	-0.079071
5930.96	-0.081587
5941.22	-0.0842118
5951.48	-0.0869292
5961.73	-0.0897225
5971.99	-0.0925739
5982.25	-0.095465
5992.51	-0.0983768
6000.2	-0.100562
6010.46	-0.103463
6020.71	-0.106329
6030.97	-0.109141
6041.23	-0.111878
6051.49	-0.114519
6061.75	-0.117046
6072	-0.119437
6082.26	-0.121675
6092.52	-0.123742
6100.21	-0.125168
6110.47	-0.126894
6120.73	-0.128405
6130.98	-0.129686
6141.24	-0.130727
6151.5	-0.131515
6161.76	-0.132044
6172.02	-0.132305
6182.27	-0.132294
6192.53	-0.132007
6200.22	-0.131609
6210.48	-0.130837
6220.74	-0.129788
6231	-0.128467
6241.25	-0.126878
6251.51	-0.125028
6261.77	-0.122925
6272.03	-0.120579
6282.28	-0.118
6292.54	-0.1152
6300.24	-0.112964
6310.49	-0.10981
6320.75	-0.106473
6331.01	-0.10297
6341.27	-0.0993149
6351.52	-0.0955248
6361.78	-0.0916163
6372.04	-0.0876062
6382.3	-0.0835111
6392.55	-0.0793479
6400.25	-0.0761908
6410.51	-0.071948
6420.76	-0.0676817
6431.02	-0.0634073
6441.28	-0.0591396
6451.54	-0.0548927
6461.79	-0.0506801
6472.05	-0.0465141
6482.31	-0.0424065
6490	-0.0393706
6500.26	-0.0353903
6510.52	-0.0314954
6520.78	-0.0276939
6531.03	-0.0239928
6541.29	-0.020398
6551.55	-0.0169144
6561.81	-0.0135461
6572.06	-0.0102962
6582.32	-0.00716704
6590.01	-0.00490025
6600.27	-0.00198536
6610.53	0.000806436
6620.79	0.00347542
6631.04	0.00602231
6641.3	0.00844824
6651.56	0.0107546
6661.82	0.0129429
6672.08	0.0150149
6682.33	0.0169722
6690.03	0.0183659
6700.28	0.0201263
6710.54	0.0217759
6720.8	0.0233157
6731.06	0.0247463
6741.31	0.0260682
6751.57	0.0272812
6761.83	0.0283849
6772.09	0.0293784
6782.34	0.0302606
6790.04	0.0308482
6800.3	0.0315316
6810.55	0.0320987
6820.81	0.0325474
6831.07	0.0328753
6841.33	0.0330802
6851.58	0.0331597
6861.84	0.0331117
6872.1	0.0329343
6882.36	0.0326259
6890.05	0.0323078
6900.31	0.0317676
6910.56	0.0310942
6920.82	0.0302881
6931.08	0.0293502
6941.34	0.0282821
6951.6	0.0270862
6961.85	0.0257658
6972.11	0.0243246
6982.37	0.0227673
6990.06	0.0215263
7000.32	0.019779
7010.58	0.0179319
7020.83	0.0159919
7031.09	0.0139666
7041.35	0.011864
7051.61	0.00969233
7061.87	0.00746028
7072.12	0.00517657
7082.38	0.00285008
7090.07	0.00108248
7100.33	-0.00129752
7110.59	-0.00369605
7120.85	-0.00610451
7131.1	-0.00851455
7141.36	-0.0109181
7151.62	-0.0133073
7161.88	-0.0156747
7172.13	-0.0180132
7182.39	-0.020316
7190.09	-0.0220157
7200.34	-0.0242406
7210.6	-0.0264129
7220.86	-0.0285268
7231.12	-0.030577
7241.37	-0.0325586
7251.63	-0.0344666
7261.89	-0.0362963
7272.15	-0.0380431
7282.4	-0.0397028
7290.1	-0.0408878
7300.35	-0.0423847
7310.61	-0.043783
7320.87	-0.0450785
7331.13	-0.0462673
7341.38	-0.0473457
7351.64	-0.0483098
7361.9	-0.0491559
7372.16	-0.0498804
7382.41	-0.05048
7390.11	-0.0508456
7400.37	-0.0512186
7410.62	-0.051458
7420.88	-0.0515609
7431.14	-0.0515248
7441.4	-0.0513475
7451.65	-0.0510268
7461.91	-0.050561
7472.17	-0.0499487
7482.43	-0.0491888
7490.12	-0.0485215
7500.38	-0.0475017
7510.63	-0.0463329
7520.89	-0.0450155
7531.15	-0.04355
7541.41	-0.0419373
7551.66	-0.0401788
7561.92	-0.0382761
7572.18	-0.0362313
7582.44	-0.0340468
7590.13	-0.0323183
7600.39	-0.0298961
7610.64	-0.0273427
7620.9	-0.0246617
7631.16	-0.0218574
7641.42	-0.0189341
7651.67	-0.0158967
7661.93	-0.0127504
7672.19	-0.00950062
7682.45	-0.00615334
7690.14	-0.00358264
7700.4	-7.99797e-05
7710.65	0.0035021
7720.91	0.00715632
7731.17	0.0108751
7741.43	0.0146503
7751.68	0.0184738
7761.94	0.0223367
7772.2	0.0262302
7782.46	0.0301448
7790.15	0.033089
7800.41	0.0370177
7810.66	0.0409408
7820.92	0.0448483
7831.18	0.04873
7841.44	0.0525756
7851.69	0.0563752
7861.95	0.0601185
7872.21	0.0637958
7882.47	0.0673973
7890.16	0.0700432
7900.42	0.0734903
7910.68	0.0768372
7920.93	0.0800761
7931.19	0.0831997
7941.45	0.0862014
7951.71	0.0890754
7961.96	0.0918166
7972.22	0.094421
7982.48	0.0968852
7990.17	0.09864
8000.43	0.100854
8010.69	0.102924
8020.94	0.104849
8031.2	0.106632
8041.46	0.108273
8051.72	0.109776
8061.97	0.111144
8072.23	0.11238
8082.49	0.113489
8090.18	0.114241
8100.44	0.115141
8110.7	0.115928
8120.96	0.116609
8131.21	0.117188
8141.47	0.117671
8151.73	0.118064
8161.99	0.118372
8172.24	0.118599
8182.5	0.11875
8190.19	0.118816
8200.45	0.118843
8210.71	0.118803
8220.97	0.118699
8231.22	0.118533
8241.48	0.118305
8251.74	0.118016
8262	0.117667
8272.26	0.117256
8282.51	0.116784
8290.21	0.116389
8300.46	0.115806
8310.72	0.115157
8320.98	0.114441
8331.24	0.113656
8341.49	0.1128
8351.75	0.111871
8362.01	0.110869
8372.27	0.109793
8382.52	0.10864
8390.22	0.107727
8400.48	0.106442
8410.73	0.105083
8420.99	0.10365
8431.25	0.102145
8441.51	0.10057
8451.76	0.0989287
8462.02	0.0972244
8472.28	0.0954611
8482.54	0.0936433
8490.23	0.0922472
8500.49	0.0903465
8510.75	0.0884062
8521	0.0864321
8531.26	0.0844305
8541.52	0.0824077
8551.78	0.0803701
8562.03	0.0783239
8572.29	0.0762753
8582.55	0.0742303
8590.24	0.0727024
8600.5	0.0706771
8610.76	0.0686701
8621.01	0.0666858
8631.27	0.0647283
8641.53	0.0628008
8651.79	0.0609061
8662.05	0.0590462
8672.3	0.0572226
8682.56	0.0554357
8690.25	0.0541198
8700.51	0.0523969
8710.77	0.050709
8721.03	0.0490542
8731.28	0.0474299
8741.54	0.0458329
8751.8	0.0442596
8762.06	0.0427057
8772.32	0.0411666
8780.01	0.040019
8790.27	0.0384938
8800.52	0.0369691
8810.78	0.0354395
8821.04	0.0338995
8831.3	0.0323435
8841.55	0.0307662
8851.81	0.0291624
8862.07	0.0275273
8872.33	0.0258564
8880.02	0.0245773
8890.28	0.0228345
8900.54	0.0210461
8910.79	0.0192097
8921.05	0.0173237
8931.31	0.0153868
8941.57	0.0133988
8951.82	0.0113601
8962.08	0.00927185
8972.34	0.00713594
8980.03	0.00550427
8990.29	0.00329164
9000.55	0.00104017
9010.81	-0.00124576
9021.06	-0.0035612
9031.32	-0.00590071
9041.58	-0.00825844
9051.84	-0.0106282
9062.09	-0.0130036
9072.35	-0.0153779
9080.04	-0.017154
9090.3	-0.0195104
9100.56	-0.0218475
9110.82	-0.0241586
9121.08	-0.0264375
9131.33	-0.0286782
9141.59	-0.030875
9151.85	-0.0330226
9162.11	-0.0351163
9172.36	-0.0371515
9180.06	-0.0386373
9190.31	-0.0405614
9200.57	-0.0424178
9210.83	-0.0442041
9221.09	-0.0459183
9231.34	-0.0475591
9241.6	-0.0491254
9251.86	-0.0506167
9262.12	-0.0520329
9272.38	-0.0533741
9280.07	-0.0543312
9290.33	-0.0555426
9300.58	-0.056681
9310.84	-0.0577474
9321.1	-0.058743
9331.36	-0.0596689
9341.61	-0.0605264
9351.87	-0.0613167
9362.13	-0.062041
9372.39	-0.0627003
9380.08	-0.0631529
9390.34	-0.0637012
9400.6	-0.0641873
9410.85	-0.0646119
9421.11	-0.0649759
9431.37	-0.0652799
9441.63	-0.0655247
9451.88	-0.065711
9462.14	-0.0658394
9472.4	-0.065911
9480.09	-0.065928
9490.35	-0.0659025
9500.61	-0.0658232
9510.87	-0.0656918
9521.12	-0.0655101
9531.38	-0.0652802
9541.64	-0.0650046
9551.9	-0.0646861
9562.15	-0.064328
9572.41	-0.0639338
9580.1	-0.0636168
9590.36	-0.0631691
9600.62	-0.0626967
9610.88	-0.0622046
9621.14	-0.0616977
9631.39	-0.0611813
9641.65	-0.0606607
9651.91	-0.0601413
9662.17	-0.0596285
9672.42	-0.0591278
9680.12	-0.0587634
9690.37	-0.0582964
9700.63	-0.0578553
9710.89	-0.0574448
9721.15	-0.0570689
9731.41	-0.0567313
9741.66	-0.0564352
9751.92	-0.056183
9762.18	-0.0559769
9772.44	-0.0558182
9780.13	-0.0557307
9790.39	-0.055656
9800.64	-0.055629
9810.9	-0.0556484
9821.16	-0.0557124
9831.42	-0.0558186
9841.68	-0.055964
9851.93	-0.0561449
9862.19	-0.0563574
9872.45	-0.056597
9880.14	-0.0567915
9890.4	-0.0570667
9900.66	-0.0573549
9910.91	-0.0576508
9921.17	-0.0579488
9931.43	-0.0582435
9941.69	-0.0585293
9951.94	-0.0588008
9962.2	-0.0590531
9972.46	-0.0592813
9980.15	-0.0594338
9990.41	-0.059609
10000.7	-0.0597486
10010.9	-0.0598492
10021.2	-0.0599079
10031.4	-0.0599222
10041.7	-0.0598903
10052	-0.0598108
10062.2	-0.0596829
10072.5	-0.059506
10080.2	-0.0593413
10090.4	-0.0590794
10100.7	-0.0587699
10110.9	-0.0584142
10121.2	-0.0580138
10131.5	-0.0575707
10141.7	-0.0570873
10152	-0.0565659
10162.2	-0.0560092
10172.5	-0.0554202
10180.2	-0.0549589
10190.4	-0.0543204
10200.7	-0.0536577
10211	-0.0529742
10221.2	-0.0522727
10231.5	-0.0515565
10241.7	-0.0508285
10252	-0.0500917
10262.2	-0.049349
10272.5	-0.0486031
10280.2	-0.0480432
10290.4	-0.0472982
10300.7	-0.0465573
10311	-0.045823
10321.2	-0.0450976
10331.5	-0.0443835
10341.7	-0.043683
10352	-0.0429983
10362.3	-0.0423316
10372.5	-0.0416852
10380.2	-0.0412149
10390.5	-0.0406092
10400.7	-0.0400296
10411	-0.0394784
10421.2	-0.0389578
10431.5	-0.03847
10441.7	-0.038017
10452	-0.037601
10462.3	-0.0372241
10472.5	-0.0368884
10480.2	-0.0366648
10490.5	-0.0364057
10500.7	-0.0361931
10511	-0.0360285
10521.2	-0.0359135
10531.5	-0.0358495
10541.8	-0.0358377
10552	-0.035879
10562.3	-0.0359743
10572.5	-0.0361239
10580.2	-0.036272
10590.5	-0.0365173
10600.7	-0.036817
10611	-0.0371707
10621.3	-0.0375775
10631.5	-0.0380365
10641.8	-0.0385461
10652	-0.039105
10662.3	-0.0397112
10672.5	-0.0403625
10680.2	-0.0408794
10690.5	-0.0416043
10700.8	-0.0423677
10711	-0.0431668
10721.3	-0.0439987
10731.5	-0.0448604
10741.8	-0.0457488
10752	-0.0466608
10762.3	-0.0475933
10772.6	-0.0485431
10780.2	-0.0492648
10790.5	-0.0502373
10800.8	-0.0512184
10811	-0.0522053
10821.3	-0.0531949
10831.5	-0.0541844
10841.8	-0.0551709
10852.1	-0.0561519
10862.3	-0.0571246
10870	-0.0578473
10880.3	-0.0587996
10890.5	-0.059737
10900.8	-0.0606571
10911	-0.0615577
10921.3	-0.0624366
10931.5	-0.0632916
10941.8	-0.0641206
10952.1	-0.0649215
10962.3	-0.0656923
10970	-0.0662493
10980.3	-0.0669623
10990.5	-0.0676394
11000.8	-0.0682787
11011	-0.0688779
11021.3	-0.0694351
11031.6	-0.0699481
11041.8	-0.0704149
11052.1	-0.0708333
11062.3	-0.0712013
11070	-0.0714429
11080.3	-0.0717177
11090.5	-0.0719366
11100.8	-0.0720974
11111.1	-0.0721985
11121.3	-0.0722379
11131.6	-0.0722141
11141.8	-0.0721253
11152.1	-0.0719702
11162.3	-0.0717474
11170	-0.0715351
11180.3	-0.0711911
11190.6	-0.0707765
11200.8	-0.0702907
11211.1	-0.0697331
11221.3	-0.0691034
11231.6	-0.0684014
11241.8	-0.0676273
11252.1	-0.0667814
11262.4	-0.065864
11270.1	-0.0651295
11280.3	-0.064089
11290.6	-0.0629794
11300.8	-0.0618019
11311.1	-0.060558
11321.3	-0.0592491
11331.6	-0.057877
11341.9	-0.0564435
11352.1	-0.0549507
11362.4	-0.0534004
11370.1	-0.0522014
11380.3	-0.0505562
11390.6	-0.0488599
11400.8	-0.0471148
11411.1	-0.0453235
11421.4	-0.0434884
11431.6	-0.041612
11441.9	-0.0396968
11452.1	-0.0377454
11462.4	-0.0357601
11470.1	-0.0342505
11480.3	-0.0322121
11490.6	-0.0301465
11500.8	-0.0280563
11511.1	-0.0259435
11521.4	-0.0238106
11531.6	-0.0216595
11541.9	-0.0194925
11552.1	-0.0173115
11562.4	-0.0151185
11570.1	-0.013467
11580.3	-0.0112573
11590.6	-0.0090406
11600.9	-0.0068184
11611.1	-0.00459232
11621.4	-0.00236386
11631.6	-0.000134479
11641.9	0.00209446
11652.1	0.00432162
11662.4	0.00654574
11670.1	0.00821108
11680.4	0.0104269
11690.6	0.0126364
11700.9	0.0148384
11711.1	0.0170317
11721.4	0.0192153
11731.6	0.021388
11741.9	0.0235486
11752.2	0.025696
11762.4	0.0278291
11770.1	0.0294188
11780.4	0.0315238
11790.6	0.0336111
11800.9	0.0356792
11811.1	0.0377268
11821.4	0.0397526
11831.7	0.0417549
11841.9	0.0437322
11852.2	0.0456829
11862.4	0.0476053
11870.1	0.0490275
11880.4	0.0508961
11890.6	0.0527315
11900.9	0.0545318
11911.2	0.056295
11921.4	0.0580191
11931.7	0.0597021
11941.9	0.0613421
11952.2	0.0629369
11962.4	0.0644847
11970.1	0.0656135
11980.4	0.0670743
11990.6	0.0684827
12000.9	0.069837
12011.2	0.0711356
12021.4	0.0723769
12031.7	0.0735595
12041.9	0.0746822
12052.2	0.075744
12062.4	0.0767441
12070.1	0.0774532
12080.4	0.078344
12090.7	0.0791719
12100.9	0.0799372
12111.2	0.0806404
12121.4	0.081282
12131.7	0.0818632
12141.9	0.0823853
12152.2	0.08285
12162.5	0.0832593
12170.2	0.0835313
12180.4	0.0838493
12190.7	0.084119
12200.9	0.0843435
12211.2	0.0845262
12221.4	0.0846707
12231.7	0.0847809
12242	0.0848609
12252.2	0.0849149
12262.5	0.0849473
12270.2	0.0849601
12280.4	0.0849654
12290.7	0.0849616
12300.9	0.0849531
12311.2	0.0849445
12321.5	0.0849401
12331.7	0.0849443
12342	0.0849613
12352.2	0.0849948
12362.5	0.0850487
12370.2	0.0851044
12380.4	0.0852018
12390.7	0.0853281
12400.9	0.0854857
12411.2	0.0856768
12421.5	0.0859031
12431.7	0.0861657
12442	0.0864655
12452.2	0.086803
12462.5	0.0871779
12470.2	0.0874834
12480.4	0.0879223
12490.7	0.0883962
12501	0.0889032
12511.2	0.0894411
12521.5	0.0900074
12531.7	0.090599
12542	0.0912126
12552.2	0.0918445
12562.5	0.0924907
12570.2	0.0929821
12580.5	0.0936428
12590.7	0.0943054
12601	0.094965
12611.2	0.0956166
12621.5	0.096255
12631.7	0.096875
12642	0.0974713
12652.3	0.0980387
12662.5	0.0985718
12670.2	0.0989461
12680.5	0.0994069
12690.7	0.0998195
12701	0.100179
12711.2	0.100481
12721.5	0.10072
12731.8	0.100893
12742	0.100996
12752.3	0.101024
12762.5	0.100974
12770.2	0.100884
12780.5	0.100691
12790.7	0.100413
12801	0.100046
12811.3	0.0995902
12821.5	0.0990426
12831.8	0.0984024
12842	0.0976685
12852.3	0.0968405
12862.5	0.095918
12870.2	0.0951643
12880.5	0.0940769
12890.8	0.0928961
12901	0.0916228
12911.3	0.0902581
12921.5	0.0888035
12931.8	0.0872607
12942	0.0856318
12952.3	0.083919
12962.6	0.0821247
12970.2	0.0807269
12980.5	0.0787963
12990.8	0.0767918
13001	0.0747164
13011.3	0.0725734
13021.5	0.0703661
13031.8	0.0680979
13042.1	0.0657722
13052.3	0.0633927
13060	0.0615748
13070.3	0.0591098
13080.5	0.0566008
13090.8	0.0540518
13101	0.0514662
13111.3	0.0488479
13121.5	0.0462005
13131.8	0.0435276
13142.1	0.0408329
13152.3	0.03812
13160	0.0360755
13170.3	0.0333392
13180.5	0.0305944
13190.8	0.0278445
13201	0.0250928
13211.3	0.0223428
13221.6	0.0195977
13231.8	0.0168608
13242.1	0.0141354
13252.3	0.0114245
13260	0.00940287
13270.3	0.00672513
13280.5	0.00407057
13290.8	0.00144223
13301.1	-0.00115685
13311.3	-0.00372369
13321.6	-0.00625532
13331.8	-0.00874883
13342.1	-0.0112013
13352.3	-0.0136099
13360	-0.0153858
13370.3	-0.0177109
13380.6	-0.0199844
13390.8	-0.0222037
13401.1	-0.0243663
13411.3	-0.0264695
13421.6	-0.028511
13431.8	-0.0304884
13442.1	-0.0323995
13452.4	-0.0342421
13460.1	-0.035578
13470.3	-0.0372963
13480.6	-0.0389411
13490.8	-0.040511
13501.1	-0.0420046
13511.3	-0.0434208
13521.6	-0.0447588
13531.9	-0.0460179
13542.1	-0.0471976
13552.4	-0.0482979
13560.1	-0.049071
13570.3	-0.0500327
13580.6	-0.0509158
13590.8	-0.0517213
13601.1	-0.0524504
13611.4	-0.0531043
13621.6	-0.053685
13631.9	-0.0541942
13642.1	-0.0546344
13652.4	-0.0550079
13660.1	-0.055246
13670.3	-0.0555096
13680.6	-0.0557147
13690.8	-0.0558646
13701.1	-0.0559627
13711.4	-0.0560127
13721.6	-0.0560184
13731.9	-0.0559835
13742.1	-0.055912
13752.4	-0.0558079
13760.1	-0.0557107
13770.3	-0.055559
13780.6	-0.0553853
13790.9	-0.0551937
13801.1	-0.0549877
13811.4	-0.054771
13821.6	-0.0545469
13831.9	-0.0543187
13842.2	-0.0540893
13852.4	-0.0538616
13860.1	-0.0536933
13870.4	-0.0534743
13880.6	-0.0532631
13890.9	-0.0530615
13901.1	-0.0528709
13911.4	-0.0526923
13921.6	-0.0525266
13931.9	-0.0523742
13942.2	-0.0522354
13952.4	-0.0521099
13960.1	-0.0520243
13970.4	-0.051921
13980.6	-0.0518294
13990.9	-0.0517481
14001.1	-0.0516759
14011.4	-0.0516113
14021.7	-0.0515525
14031.9	-0.0514976
14042.2	-0.0514447
14052.4	-0.0513917
14060.1	-0.0513506
14070.4	-0.0512923
14080.6	-0.0512279
14090.9	-0.0511555
14101.2	-0.0510729
14111.4	-0.050978
14121.7	-0.0508691
14131.9	-0.0507443
14142.2	-0.050602
14152.4	-0.0504407
14160.1	-0.0503066
14170.4	-0.0501093
14180.7	-0.0498901
14190.9	-0.0496482
14201.2	-0.0493832
14211.4	-0.049095
14221.7	-0.0487833
14231.9	-0.0484486
14242.2	-0.0480912
14252.5	-0.0477117
14260.2	-0.0474132
14270.4	-0.0469974
14280.7	-0.0465624
14290.9	-0.0461095
14301.2	-0.0456403
14311.4	-0.0451564
14321.7	-0.0446596
14332	-0.0441517
14342.2	-0.0436346
14352.5	-0.0431104
14360.2	-0.0427138
14370.4	-0.0421819
14380.7	-0.0416484
14390.9	-0.0411153
14401.2	-0.0405847
14411.5	-0.0400583
14421.7	-0.0395382
14432	-0.0390259
14442.2	-0.0385233
14452.5	-0.0380318
14460.2	-0.0376714
14470.4	-0.0372029
14480.7	-0.0367493
14490.9	-0.0363116
14501.2	-0.0358908
14511.5	-0.0354877
14521.7	-0.0351031
14532	-0.0347374
14542.2	-0.0343912
14552.5	-0.0340648
14560.2	-0.033833
14570.4	-0.0335415
14580.7	-0.0332701
14591	-0.0330186
14601.2	-0.0327868
14611.5	-0.0325746
14621.7	-0.0323815
14632	-0.0322073
14642.2	-0.0320514
14652.5	-0.0319134
14660.2	-0.0318214
14670.5	-0.0317134
14680.7	-0.0316217
14691	-0.0315459
14701.2	-0.0314851
14711.5	-0.0314387
14721.7	-0.0314061
14732	-0.0313865
14742.3	-0.0313793
14752.5	-0.0313836
14760.2	-0.031394
14770.5	-0.0314166
14780.7	-0.0314485
14791	-0.0314888
14801.2	-0.0315365
14811.5	-0.0315906
14821.8	-0.0316499
14832	-0.0317132
14842.3	-0.0317794
14852.5	-0.031847
14860.2	-0.0318978
14870.5	-0.0319643
14880.7	-0.032028
14891	-0.0320869
14901.3	-0.0321394
14911.5	-0.0321833
14921.8	-0.0322164
14932	-0.0322367
14942.3	-0.0322417
14952.5	-0.0322289
14960.2	-0.0322061
14970.5	-0.0321561
14980.8	-0.0320811
14991	-0.0319784
15001.3	-0.0318452
15011.5	-0.0316787
15021.8	-0.031476
15032	-0.0312345
15042.3	-0.0309512
15052.6	-0.0306236
15060.2	-0.0303472
15070.5	-0.0299358
15080.8	-0.0294732
15091	-0.0289571
15101.3	-0.0283856
15111.5	-0.0277569
15121.8	-0.0270694
15132.1	-0.0263218
15142.3	-0.0255131
15150	-0.024866
15160.3	-0.023949
15170.5	-0.0229698
15180.8	-0.0219286
15191	-0.0208261
15201.3	-0.0196634
15211.5	-0.0184417
15221.8	-0.0171629
15232.1	-0.0158291
15242.3	-0.0144429
15250	-0.0133706
15260.3	-0.0118999
15270.5	-0.0103858
15280.8	-0.00883194
15291	-0.00724273
15301.3	-0.00562263
15311.6	-0.00397641
15321.8	-0.00230911
15332.1	-0.000625944
15342.3	0.00106766
15350	0.00234138
15360.3	0.00403984
15370.5	0.00573323
15380.8	0.0074158
15391.1	0.00908179
15401.3	0.0107255
15411.6	0.0123412
15421.8	0.0139235
15432.1	0.0154669
15442.3	0.0169662
15450	0.0180588
15460.3	0.0194693
15470.6	0.0208226
15480.8	0.0221147
15491.1	0.0233415
15501.3	0.0244997
15511.6	0.0255861
15521.8	0.0265978
15532.1	0.0275326
15542.4	0.0283886
15550.1	0.028978
15560.3	0.0296926
15570.6	0.0303253
15580.8	0.0308758
15591.1	0.0313441
15601.3	0.0317307
15611.6	0.0320367
15621.9	0.0322633
15632.1	0.0324122
15642.4	0.0324855
15650.1	0.0324923
15660.3	0.0324392
15670.6	0.0323179
15680.8	0.0321316
15691.1	0.0318836
15701.4	0.0315778
15711.6	0.0312179
15721.9	0.0308081
15732.1	0.0303524
15742.4	0.0298552
15750.1	0.0294576
15760.3	0.0288981
15770.6	0.0283091
15780.8	0.027695
15791.1	0.0270601
15801.4	0.0264087
15811.6	0.0257451
15821.9	0.0250733
15832.1	0.0243974
15842.4	0.0237211
15850.1	0.0232158
15860.3	0.0225476
15870.6	0.0218885
15880.9	0.0212418
15891.1	0.0206102
15901.4	0.0199965
15911.6	0.0194029
15921.9	0.0188317
15932.1	0.0182846
15942.4	0.0177633
15950.1	0.0173901
15960.4	0.0169171
15970.6	0.016473
15980.9	0.0160584
15991.1	0.0156737
16001.4	0.0153192
16011.6	0.0149946
16021.9	0.0146998
16032.2	0.0144341
16042.4	0.0141968
16050.1	0.014037
16060.4	0.0138472
16070.6	0.0136828
16080.9	0.0135425
16091.1	0.0134248
16101.4	0.0133279
16111.7	0.0132501
16121.9	0.0131895
16132.2	0.0131441
16142.4	0.013112
16150.1	0.0130953
16160.4	0.0130813
16170.6	0.0130746
16180.9	0.0130731
16191.2	0.0130747
16201.4	0.0130773
16211.7	0.0130785
16221.9	0.0130765
16232.2	0.0130691
16242.4	0.0130544
16250.1	0.0130373
16260.4	0.0130052
16270.7	0.0129606
16280.9	0.0129019
16291.2	0.0128275
16301.4	0.0127359
16311.7	0.0126258
16321.9	0.0124959
16332.2	0.012345
16342.5	0.0121722
16350.1	0.0120277
16360.4	0.0118143
16370.7	0.0115768
16380.9	0.0113145
16391.2	0.011027
16401.4	0.0107138
16411.7	0.0103749
16422	0.0100099
16432.2	0.00961881
16442.5	0.00920166
16450.2	0.00887173
16460.4	0.00840919
16470.7	0.00792098
16480.9	0.00740735
16491.2	0.00686858
16501.4	0.00630502
16511.7	0.00571701
16522	0.00510492
16532.2	0.0044691
16542.5	0.00380991
16550.2	0.0033004
16560.4	0.00260113
16570.7	0.00187937
16580.9	0.00113537
16591.2	0.000369327
16601.5	-0.000418597
16611.7	-0.00122831
16622	-0.00205977
16632.2	-0.00291301
16642.5	-0.00378812
16650.2	-0.00445889
16660.4	-0.00537269
16670.7	-0.00630893
16681	-0.00726794
16691.2	-0.00825008
16701.5	-0.00925578
16711.7	-0.0102855
16722	-0.0113397
16732.2	-0.0124188
16742.5	-0.0135234
16750.2	-0.0143689
16760.5	-0.0155192
16770.7	-0.0166962
16781	-0.0179004
16791.2	-0.0191319
16801.5	-0.0203911
16811.7	-0.021678
16822	-0.0229928
16832.3	-0.0243352
16842.5	-0.025705
16850.2	-0.0267501
16860.5	-0.0281668
16870.7	-0.0296093
16881	-0.0310766
16891.2	-0.0325678
16901.5	-0.0340813
16911.8	-0.0356157
16922	-0.0371691
16932.3	-0.0387395
16942.5	-0.0403247
16950.2	-0.0415218
16960.5	-0.0431268
16970.7	-0.0447391
16981	-0.0463558
16991.3	-0.0479735
17001.5	-0.0495887
17011.8	-0.0511978
17022	-0.052797
17032.3	-0.0543823
17042.5	-0.0559496
17050.2	-0.0571108
17060.5	-0.0586364
17070.7	-0.0601323
17081	-0.0615942
17091.3	-0.0630175
17101.5	-0.064398
17111.8	-0.0657314
17122	-0.0670133
17132.3	-0.0682395
17142.6	-0.0694062
17150.2	-0.0702396
17160.5	-0.0712925
17170.8	-0.0722754
17181	-0.0731849
17191.3	-0.0740179
17201.5	-0.0747714
17211.8	-0.0754429
17222	-0.0760299
17232.3	-0.0765306
17240	-0.0768483
17250.3	-0.0771937
17260.5	-0.0774488
17270.8	-0.0776127
17281	-0.0776849
17291.3	-0.0776655
17301.5	-0.0775545
17311.8	-0.0773526
17322.1	-0.0770606
17332.3	-0.0766798
17340	-0.0763368
17350.3	-0.0758044
17360.5	-0.0751882
17370.8	-0.0744903
17381	-0.0737136
17391.3	-0.0728606
17401.6	-0.0719346
17411.8	-0.0709387
17422.1	-0.0698764
17432.3	-0.0687512
17440	-0.0678683
17450.3	-0.0666421
17460.5	-0.0653635
17470.8	-0.0640364
17481.1	-0.0626648
17491.3	-0.0612528
17501.6	-0.0598044
17511.8	-0.0583235
17522.1	-0.0568141
17532.3	-0.0552803
17540	-0.0541161
17550.3	-0.0525486
17560.6	-0.0509668
17570.8	-0.0493745
17581.1	-0.0477752
17591.3	-0.046172
17601.6	-0.0445682
17611.8	-0.0429669
17622.1	-0.0413709
17632.4	-0.0397829
17640	-0.0385988
17650.3	-0.037031
17660.6	-0.0354779
17670.8	-0.0339416
17681.1	-0.032424
17691.3	-0.0309268
17701.6	-0.0294517
17711.9	-0.028
17722.1	-0.0265731
17732.4	-0.0251719
17740.1	-0.0241386
17750.3	-0.0227847
17760.6	-0.0214589
17770.8	-0.0201616
17781.1	-0.0188932
17791.4	-0.017654
17801.6	-0.0164439
17811.9	-0.0152631
17822.1	-0.0141113
17832.4	-0.0129883
17840.1	-0.0121648
17850.3	-0.0110912
17860.6	-0.0100451
17870.8	-0.00902592
17881.1	-0.00803282
17891.4	-0.00706503
17901.6	-0.00612165
17911.9	-0.00520175
17922.1	-0.00430433
17932.4	-0.00342834
17940.1	-0.00278478
17950.3	-0.00194373
17960.6	-0.00112112
17970.9	-0.000315844
17981.1	0.000473201
17991.4	0.0012471
18001.6	0.00200692
18011.9	0.00275367
18022.1	0.00348832
18032.4	0.00421179
18040.1	0.00474755
18050.4	0.00545341
18060.6	0.00615019
18070.9	0.00683849
18081.1	0.0075188
18091.4	0.0081915
18101.6	0.00885687
18111.9	0.00951504
18122.2	0.010166
18132.4	0.0108097
18140.1	0.0112876
18150.4	0.0119179
18160.6	0.01254
18170.9	0.0131532
18181.1	0.0137568
18191.4	0.0143501
18201.7	0.014932
18211.9	0.0155014
18222.2	0.0160574
18232.4	0.0165986
18240.1	0.016994
18250.4	0.0175061
18260.6	0.0179996
18270.9	0.0184732
18281.2	0.0189254
18291.4	0.0193545
18301.7	0.0197592
18311.9	0.020138
18322.2	0.0204894
18332.4	0.020812
18340.1	0.0210342
18350.4	0.0213032
18360.7	0.0215399
18370.9	0.0217431
18381.2	0.0219119
18391.4	0.0220452
18401.7	0.0221423
18411.9	0.0222025
18422.2	0.0222253
18432.5	0.0222102
18440.1	0.0221739
18450.4	0.022092
18460.7	0.0219717
18470.9	0.0218131
18481.2	0.0216165
18491.4	0.0213821
18501.7	0.0211103
18512	0.0208017
18522.2	0.0204568
18532.5	0.0200763
18540.2	0.019768
18550.4	0.019327
18560.7	0.0188526
18570.9	0.0183455
18581.2	0.0178066
18591.4	0.0172368
18601.7	0.0166368
18612	0.0160075
18622.2	0.0153495
18632.5	0.0146636
18640.2	0.0141311
18650.4	0.0133977
18660.7	0.0126378
18670.9	0.0118518
18681.2	0.0110399
18691.5	0.0102024
18701.7	0.0093393
18712	0.0084506
18722.2	0.00753618
18732.5	0.00659583
18740.2	0.00587338
18750.4	0.00488692
18760.7	0.00387358
18771	0.00283289
18781.2	0.00176438
18791.5	0.000667527
18801.7	-0.000458165
18812	-0.00161318
18822.2	-0.00279797
18832.5	-0.0040129
18840.2	-0.00494406
18850.5	-0.00621239
18860.7	-0.00751141
18871	-0.00884106
18881.2	-0.0102011
18891.5	-0.0115912
18901.7	-0.0130107
18912	-0.0144587
18922.3	-0.0159343
18932.5	-0.017436
18940.2	-0.0185785
18950.5	-0.020122
18960.7	-0.0216867
18971	-0.0232701
18981.2	-0.0248697
18991.5	-0.0264824
19001.8	-0.0281052
19012	-0.0297345
19022.3	-0.0313666
19032.5	-0.0329975
19040.2	-0.0342173
19050.5	-0.0358358
19060.7	-0.037441
19071	-0.0390281
19081.3	-0.0405922
19091.5	-0.0421283
19101.8	-0.0436314
19112	-0.0450961
19122.3	-0.0465174
19132.5	-0.04789
19140.2	-0.0488844
19150.5	-0.0501595
19160.7	-0.0513719
19171	-0.0525168
19181.3	-0.0535896
19191.5	-0.0545856
19201.8	-0.0555007
19212	-0.0563308
19222.3	-0.0570722
19232.6	-0.0577216
19240.2	-0.0581464
19250.5	-0.0586274
19260.8	-0.0590088
19271	-0.0592886
19281.3	-0.059465
19291.5	-0.0595368
19301.8	-0.0595032
19312	-0.0593638
19322.3	-0.0591186
19332.6	-0.0587679
19340.3	-0.0584362
19350.5	-0.0579032
19360.8	-0.057268
19371	-0.0565323
19381.3	-0.0556984
19391.5	-0.0547687
19401.8	-0.0537463
19412.1	-0.0526341
19422.3	-0.0514356
19430	-0.0504822
19440.3	-0.0491414
19450.5	-0.0477248
19460.8	-0.0462364
19471	-0.0446805
19481.3	-0.0430615
19491.6	-0.0413839
19501.8	-0.0396522
19512.1	-0.0378709
19522.3	-0.0360445
19530	-0.0346479
19540.3	-0.0327536
19550.5	-0.0308266
19560.8	-0.0288712
19571.1	-0.0268918
19581.3	-0.0248924
19591.6	-0.0228773
19601.8	-0.0208502
19612.1	-0.018815
19622.3	-0.0167753
19630	-0.0152446
19640.3	-0.0132053
19650.6	-0.0111706
19660.8	-0.00914364
19671.1	-0.00712719
19681.3	-0.00512399
19691.6	-0.00313656
19701.8	-0.0011673
19712.1	0.00078158
19722.4	0.002708
19730	0.00413691
19740.3	0.00601945
19750.6	0.00787453
19760.8	0.00970057
19771.1	0.0114961
19781.3	0.0132598
19791.6	0.0149903
19801.9	0.0166865
19812.1	0.0183474
19822.4	0.0199718
19830.1	0.0211657
19840.3	0.0227241
19850.6	0.0242438
19860.8	0.0257237
19871.1	0.0271633
19881.3	0.0285619
19891.6	0.0299187
19901.9	0.0312332
19912.1	0.0325049
19922.4	0.0337332
19930.1	0.0346257
19940.3	0.0357769
19950.6	0.0368836
19960.8	0.0379454
19971.1	0.038962
19981.4	0.0399332
19991.6	0.0408588
