0	0
11.8196	0
23.6393	0
35.4589	0
47.2785	0
59.0981	0
70.9178	0
82.7374	0
94.557	0
106.377	0
118.196	0
130.016	0
141.836	0
153.655	0
165.475	0
177.294	0
189.114	0
200.934	0
212.753	0
224.573	0
236.393	0
248.212	0
260.032	0
271.851	0
283.671	0
295.491	0
307.31	0
319.13	0
330.95	0
342.769	0
354.589	0
366.408	0
378.228	0
390.048	0
401.867	0
413.687	0
425.507	0
437.326	0
449.146	0
460.966	0
472.785	0
484.605	0
496.424	0
508.244	0
520.064	0
531.883	0
543.703	0
555.523	0
567.342	0
579.162	0
590.981	0
602.801	0
614.621	0
626.44	0
638.26	0
650.08	0
661.899	0
673.719	0
685.538	0
697.358	0
709.178	0
720.997	0
732.817	0
744.637	0
756.456	0
768.276	0
780.095	0
791.915	0
803.735	0
815.554	0
827.374	0
839.194	0
851.013	0
862.833	0
874.652	0
886.472	0
898.292	0
910.111	0
921.931	0
933.751	0
945.57	0
957.39	0
969.21	0
981.029	0
992.849	0
1004.67	0
1016.49	0
1028.31	0
1040.13	0
1051.95	0
1063.77	0
1075.59	0
1087.41	0
1099.23	0
1111.05	0
1122.86	0
1134.68	0
1146.5	0
1158.32	0
1170.14	0
1181.96	0
1193.78	0
1205.6	0
1217.42	0
1229.24	0
1241.06	0
1252.88	0
1264.7	0
1276.52	0
1288.34	0
1300.16	0
1311.98	0
1323.8	0
1335.62	0
1347.44	0
1359.26	0
1371.08	0
1382.9	0
1394.72	0
1406.54	0
1418.36	0
1430.18	0
1441.99	0
1453.81	0
1465.63	0
1477.45	0
1489.27	0
1501.09	0
1512.91	0
1524.73	0
1536.55	0
1548.37	0
1560.19	0
1572.01	0
1583.83	0
1595.65	0
1607.47	0
1619.29	0
1631.11	0
1642.93	0
1654.75	0
1666.57	0
1678.39	0
1690.21	0
1702.03	0
1713.85	0
1725.67	0
1737.49	0
1749.3	0
1761.12	0
1772.94	0
1784.76	0
1796.58	0
1808.4	0
1820.22	0
1832.04	0
1843.86	0
1855.68	0
1867.5	0
1879.32	0
1891.14	0
1902.96	0
1914.78	0
1926.6	0
1938.42	0
1950.24	0
1962.06	0
1973.88	0
1985.7	0
1997.52	0
2009.34	0
2021.16	0
2032.98	0
2044.8	0
2056.62	0
2068.43	0
2080.25	0
2092.07	0
2103.89	0
2115.71	0
2127.53	0
2139.35	0
2151.17	0
2162.99	0
2174.81	0
2186.63	9.09495e-13
2198.45	9.09495e-13
2210.27	9.09495e-13
2222.09	1.81899e-12
2233.91	2.72848e-12
2245.73	4.54747e-12
2257.55	6.36646e-12
2269.37	1.00044e-11
2281.19	1.54614e-11
2293.01	2.27374e-11
2304.83	3.36513e-11
2316.65	5.00222e-11
2328.47	7.27596e-11
2340.29	1.06411e-10
2352.11	1.53705e-10
2363.93	2.20098e-10
2375.75	3.13776e-10
2387.56	4.43833e-10
2399.38	6.23913e-10
2411.2	8.72205e-10
2423.02	1.21145e-09
2434.84	1.67256e-09
2446.66	2.29647e-09
2458.48	3.13594e-09
2470.3	4.25825e-09
2482.12	5.74983e-09
2493.94	7.72161e-09
2505.76	1.03146e-08
2517.58	1.37061e-08
2529.4	1.8118e-08
2541.22	2.38279e-08
2553.04	3.11811e-08
2564.86	4.06017e-08
2576.68	5.26115e-08
2588.5	6.78492e-08
2600.32	8.70896e-08
2612.14	1.11268e-07
2623.96	1.41513e-07
2635.78	1.79171e-07
2647.6	2.2585e-07
2659.42	2.83453e-07
2671.24	3.54227e-07
2683.06	4.40809e-07
2694.88	5.46282e-07
2706.69	6.74228e-07
2718.51	8.28801e-07
2730.33	1.01478e-06
2742.15	1.23766e-06
2753.97	1.50371e-06
2765.79	1.82006e-06
2777.61	2.19478e-06
2789.43	2.63699e-06
2801.25	3.15691e-06
2813.07	3.76596e-06
2824.89	4.47687e-06
2836.71	5.30374e-06
2848.53	6.26216e-06
2860.35	7.36925e-06
2872.17	8.64378e-06
2883.99	1.01062e-05
2895.81	1.17788e-05
2907.63	1.36856e-05
2919.45	1.58526e-05
2931.27	1.83077e-05
2943.09	2.10807e-05
2954.91	2.42035e-05
2966.73	2.77099e-05
2978.55	3.16357e-05
2990.37	3.60188e-05
3002.19	4.0899e-05
3014	4.63179e-05
3025.82	5.23192e-05
3037.64	5.89485e-05
3049.46	6.6253e-05
3061.28	7.42818e-05
3073.1	8.3086e-05
3084.92	9.27182e-05
3096.74	0.000103233
3108.56	0.000114686
3120.38	0.000127136
3132.2	0.000140642
3144.02	0.000155268
3155.84	0.000171078
3167.66	0.000188139
3179.48	0.000206521
3191.3	0.0002263
3203.12	0.000247554
3214.94	0.000270367
3226.76	0.000294831
3238.58	0.000321043
3250.4	0.000349112
3262.21	0.000379156
3274.03	0.000411308
3285.85	0.000445717
3297.67	0.000482551
3309.49	0.000521999
3321.31	0.000564278
3333.13	0.000609636
3344.95	0.000658358
3356.77	0.00071077
3368.59	0.000767248
3380.41	0.000828224
3392.23	0.000894195
3404.05	0.000965733
3415.87	0.00104349
3427.69	0.00112823
3439.51	0.0012208
3451.32	0.00132218
3463.14	0.00143349
3474.96	0.00155601
3486.78	0.00169116
3498.6	0.00184056
3510.42	0.00200606
3522.24	0.00218969
3534.06	0.00239376
3545.88	0.00262082
3557.7	0.00287373
3569.52	0.00315564
3581.34	0.00347004
3593.16	0.00382078
3604.98	0.00421207
3616.79	0.00464852
3628.61	0.00513516
3640.43	0.00567745
3652.25	0.00628129
3664.07	0.00695305
3675.89	0.00769956
3687.71	0.00852816
3699.53	0.00944662
3711.35	0.0104632
3723.17	0.0115868
3734.99	0.0128264
3746.81	0.0141919
3758.62	0.0156933
3770.44	0.017341
3782.26	0.0191459
3794.08	0.0211192
3805.9	0.0232723
3817.72	0.0256168
3829.54	0.0281644
3841.36	0.030927
3853.18	0.0339162
3865	0.0371439
3876.82	0.0406215
3888.63	0.0443601
3900.45	0.0483704
3912.27	0.0526627
3924.09	0.0572464
3935.91	0.0621303
3947.73	0.0673223
3959.55	0.0728291
3971.37	0.0786565
3983.19	0.0848088
3995.01	0.0912889
4006.83	0.0980983
4018.64	0.105237
4030.46	0.112702
4042.28	0.120491
4054.1	0.128597
4065.92	0.137012
4077.74	0.145727
4089.56	0.154729
4101.38	0.164004
4113.2	0.173536
4125.02	0.183305
4136.84	0.193291
4148.66	0.203469
4160.47	0.213815
4172.29	0.224302
4184.11	0.234898
4195.93	0.245573
4207.75	0.256292
4219.57	0.267022
4231.39	0.277724
4243.21	0.288361
4255.03	0.298894
4266.85	0.309281
4278.67	0.319482
4290.49	0.329455
4302.31	0.339157
4314.13	0.348546
4325.94	0.357579
4337.76	0.366216
4349.58	0.374414
4361.4	0.382132
4373.22	0.389332
4385.04	0.395976
4396.86	0.402026
4408.68	0.407448
4420.5	0.412209
4432.32	0.416279
4444.14	0.419629
4455.96	0.422235
4467.78	0.424073
4479.6	0.425123
4491.42	0.42537
4503.24	0.424798
4515.06	0.423399
4526.88	0.421165
4538.7	0.418091
4550.52	0.414179
4562.34	0.409431
4574.15	0.403854
4585.97	0.397458
4597.79	0.390256
4609.61	0.382265
4621.43	0.373503
4633.25	0.363995
4645.07	0.353766
4656.89	0.342843
4668.71	0.331259
4680.53	0.319046
4692.35	0.30624
4704.17	0.29288
4715.99	0.279004
4727.81	0.264654
4739.63	0.249873
4751.45	0.234705
4763.27	0.219194
4775.09	0.203386
4786.91	0.187329
4798.73	0.171067
4810.55	0.154648
4822.37	0.138119
4834.19	0.121526
4846.01	0.104913
4857.82	0.0883277
4869.64	0.0718124
4881.46	0.0554105
4893.28	0.0391637
4905.1	0.0231123
4916.92	0.00729502
4928.74	-0.0082512
4940.56	-0.0234912
4952.38	-0.0383916
4964.2	-0.0529212
4976.02	-0.067051
4987.84	-0.080754
4999.66	-0.0940054
5011.48	-0.106783
5023.3	-0.119066
5035.12	-0.130837
5046.94	-0.142081
5058.76	-0.152784
5070.58	-0.162936
5082.4	-0.172527
5094.22	-0.181552
5106.04	-0.190006
5117.86	-0.197887
5129.68	-0.205195
5141.49	-0.211933
5153.31	-0.218103
5165.13	-0.223711
5176.95	-0.228766
5188.77	-0.233275
5200.59	-0.23725
5212.41	-0.240702
5224.23	-0.243645
5236.05	-0.246092
5247.87	-0.248061
5259.69	-0.249567
5271.51	-0.250627
5283.33	-0.251261
5295.15	-0.251486
5306.97	-0.251323
5318.79	-0.25079
5330.61	-0.249909
5342.43	-0.2487
5354.25	-0.247183
5366.07	-0.24538
5377.89	-0.24331
5389.71	-0.240994
5401.53	-0.238454
5413.35	-0.235708
5425.16	-0.232776
5436.98	-0.229679
5448.8	-0.226435
5460.62	-0.223062
5472.44	-0.219578
5484.26	-0.216
5496.08	-0.212345
5507.9	-0.208629
5519.72	-0.204867
5531.54	-0.201074
5543.36	-0.197262
5555.18	-0.193444
5567	-0.189634
5578.82	-0.185842
5590.64	-0.182078
5602.46	-0.178352
5614.28	-0.174673
5626.1	-0.171048
5637.92	-0.167486
5649.74	-0.163992
5661.56	-0.160571
5673.38	-0.15723
5685.2	-0.153971
5697.02	-0.150799
5708.84	-0.147716
5720.65	-0.144724
5732.47	-0.141825
5744.29	-0.139018
5756.11	-0.136306
5767.93	-0.133687
5779.75	-0.131161
5791.57	-0.128725
5803.39	-0.12638
5815.21	-0.124122
5827.03	-0.121949
5838.85	-0.119858
5850.67	-0.117847
5862.49	-0.115911
5874.31	-0.114047
5886.13	-0.112251
5897.95	-0.11052
5909.77	-0.108849
5921.59	-0.107234
5933.41	-0.10567
5945.23	-0.104153
5957.05	-0.102679
5968.87	-0.101244
5980.69	-0.0998428
5992.51	-0.0984714
6004.33	-0.0971255
6016.15	-0.0958012
6027.96	-0.0944944
6039.78	-0.0932012
6051.6	-0.0919181
6063.42	-0.0906414
6075.24	-0.0893679
6087.06	-0.0880944
6098.88	-0.086818
6110.7	-0.085536
6122.52	-0.084246
6134.34	-0.0829457
6146.16	-0.0816331
6157.98	-0.0803065
6169.8	-0.0789643
6181.62	-0.0776053
6193.44	-0.0762285
6205.26	-0.0748331
6217.08	-0.0734186
6228.9	-0.0719847
6240.72	-0.0705313
6252.54	-0.0690586
6264.36	-0.067567
6276.18	-0.066057
6288	-0.0645294
6299.82	-0.0629853
6311.64	-0.0614258
6323.46	-0.0598522
6335.27	-0.0582661
6347.09	-0.0566691
6358.91	-0.0550629
6370.73	-0.0534494
6382.55	-0.0518307
6394.37	-0.0502089
6406.19	-0.0485862
6418.01	-0.0469648
6429.83	-0.045347
6441.65	-0.0437351
6453.47	-0.0421317
6465.29	-0.040539
6477.11	-0.0389594
6488.93	-0.0373954
6500.75	-0.0358493
6512.57	-0.0343235
6524.39	-0.0328201
6536.21	-0.0313414
6548.03	-0.0298897
6559.85	-0.0284668
6571.67	-0.0270749
6583.49	-0.0257157
6595.31	-0.0243911
6607.13	-0.0231027
6618.95	-0.021852
6630.77	-0.0206405
6642.59	-0.0194693
6654.4	-0.0183396
6666.22	-0.0172523
6678.04	-0.0162082
6689.86	-0.0152081
6701.68	-0.0142524
6713.5	-0.0133414
6725.32	-0.0124753
6737.14	-0.0116541
6748.96	-0.0108777
6760.78	-0.0101457
6772.6	-0.00945769
6784.42	-0.00881303
6796.24	-0.00821093
6808.06	-0.00765044
6819.88	-0.00713048
6831.7	-0.00664982
6843.52	-0.00620709
6855.34	-0.0058008
6867.16	-0.0054293
6878.98	-0.00509087
6890.8	-0.00478363
6902.62	-0.00450562
6914.44	-0.00425478
6926.26	-0.00402896
6938.08	-0.00382592
6949.9	-0.00364336
6961.72	-0.00347892
6973.54	-0.00333016
6985.36	-0.00319462
6997.17	-0.00306981
7008.99	-0.00295318
7020.81	-0.00284221
7032.63	-0.00273433
7044.45	-0.00262701
7056.27	-0.0025177
7068.09	-0.0024039
7079.91	-0.00228312
7091.73	-0.00215292
7103.55	-0.00201091
7115.37	-0.00185476
7127.19	-0.00168221
7139.01	-0.00149106
7150.83	-0.0012792
7162.65	-0.00104461
7174.47	-0.000785385
7186.29	-0.000499692
7198.11	-0.00018583
7209.93	0.000157793
7221.75	0.000532643
7233.57	0.000940064
7245.39	0.00138127
7257.21	0.00185733
7269.03	0.00236918
7280.85	0.00291763
7292.67	0.00350332
7304.49	0.00412676
7316.3	0.00478831
7328.12	0.00548819
7339.94	0.00622646
7351.76	0.00700303
7363.58	0.00781767
7375.4	0.00867002
7387.22	0.00955955
7399.04	0.0104856
7410.86	0.0114474
7422.68	0.012444
7434.5	0.0134743
7446.32	0.0145371
7458.14	0.0156312
7469.96	0.016755
7481.78	0.0179071
7493.6	0.0190858
7505.42	0.0202894
7517.24	0.0215159
7529.06	0.0227636
7540.88	0.0240302
7552.7	0.0253139
7564.52	0.0266124
7576.34	0.0279234
7588.16	0.0292448
7599.97	0.0305742
7611.79	0.0319093
7623.61	0.0332477
7635.43	0.0345869
7647.25	0.0359247
7659.07	0.0372585
7670.89	0.0385858
7682.71	0.0399044
7694.53	0.0412118
7706.35	0.0425057
7718.17	0.0437835
7729.99	0.0450431
7741.81	0.0462822
7753.63	0.0474984
7765.45	0.0486897
7777.27	0.0498539
7789.09	0.0509888
7800.91	0.0520927
7812.73	0.0531634
7824.55	0.0541991
7836.37	0.0551981
7848.19	0.0561586
7860	0.0570791
7871.82	0.0579581
7883.64	0.058794
7895.46	0.0595856
7907.28	0.0603315
7919.1	0.0610308
7930.92	0.0616822
7942.74	0.0622848
7954.56	0.0628378
7966.38	0.0633404
7978.2	0.0637919
7990.02	0.0641917
8001.84	0.0645394
8013.66	0.0648345
8025.48	0.0650768
8037.3	0.065266
8049.12	0.0654021
8060.94	0.0654849
8072.76	0.0655146
8084.58	0.0654912
8096.4	0.0654149
8108.22	0.0652861
8120.03	0.0651051
8131.85	0.0648723
8143.67	0.0645881
8155.49	0.0642532
8167.31	0.0638682
8179.13	0.0634336
8190.95	0.0629503
8202.77	0.062419
8214.59	0.0618406
8226.41	0.0612158
8238.23	0.0605456
8250.05	0.0598309
8261.87	0.0590728
8273.69	0.0582722
8285.51	0.0574301
8297.33	0.0565477
8309.15	0.0556259
8320.97	0.054666
8332.79	0.0536691
8344.61	0.0526362
8356.43	0.0515686
8368.25	0.0504675
8380.07	0.049334
8391.88	0.0481693
8403.7	0.0469746
8415.52	0.0457511
8427.34	0.0445001
8439.16	0.0432227
8450.98	0.0419202
8462.8	0.0405938
8474.62	0.0392447
8486.44	0.0378741
8498.26	0.0364832
8510.08	0.0350733
8521.9	0.0336456
8533.72	0.0322012
8545.54	0.0307414
8557.36	0.0292674
8569.18	0.0277803
8581	0.0262814
8592.82	0.0247718
8604.64	0.0232528
8616.46	0.0217254
8628.28	0.0201909
8640.1	0.0186504
8651.92	0.0171051
8663.73	0.0155561
8675.55	0.0140046
8687.37	0.0124517
8699.19	0.0108986
8711.01	0.00934629
8722.83	0.00779599
8734.65	0.00624879
8746.47	0.00470578
8758.29	0.00316805
8770.11	0.0016367
8781.93	0.000112799
8793.75	-0.00140259
8805.57	-0.00290842
8817.39	-0.00440364
8829.21	-0.00588722
8841.03	-0.00735814
8852.85	-0.0088154
8864.67	-0.010258
8876.49	-0.011685
8888.31	-0.0130954
8900.13	-0.0144883
8911.95	-0.0158627
8923.77	-0.0172178
8935.59	-0.0185527
8947.4	-0.0198665
8959.22	-0.0211584
8971.04	-0.0224275
8982.86	-0.0236732
8994.68	-0.0248946
9006.5	-0.026091
9018.32	-0.0272617
9030.14	-0.028406
9041.96	-0.0295233
9053.78	-0.0306131
9065.6	-0.0316746
9077.42	-0.0327075
9089.24	-0.0337111
9101.06	-0.0346851
9112.88	-0.0356289
9124.7	-0.0365423
9136.52	-0.0374249
9148.34	-0.0382763
9160.16	-0.0390964
9171.98	-0.0398848
9183.8	-0.0406414
9195.62	-0.041366
9207.44	-0.0420586
9219.26	-0.0427191
9231.07	-0.0433475
9242.89	-0.0439438
9254.71	-0.044508
9266.53	-0.0450404
9278.35	-0.0455409
9290.17	-0.0460099
9301.99	-0.0464475
9313.81	-0.046854
9325.63	-0.0472297
9337.45	-0.047575
9349.27	-0.0478903
9361.09	-0.0481759
9372.91	-0.0484323
9384.73	-0.04866
9396.55	-0.0488595
9408.37	-0.0490313
9420.19	-0.049176
9432.01	-0.0492943
9443.83	-0.0493866
9455.65	-0.0494537
9467.47	-0.0494962
9479.29	-0.0495149
9491.11	-0.0495103
9502.93	-0.0494832
9514.75	-0.0494344
9526.56	-0.0493646
9538.38	-0.0492745
9550.2	-0.049165
9562.02	-0.0490367
9573.84	-0.0488904
9585.66	-0.0487269
9597.48	-0.0485471
9609.3	-0.0483516
9621.12	-0.0481412
9632.94	-0.0479167
9644.76	-0.0476788
9656.58	-0.0474284
9668.4	-0.0471661
9680.22	-0.0468927
9692.04	-0.0466089
9703.86	-0.0463154
9715.68	-0.046013
9727.5	-0.0457022
9739.32	-0.0453837
9751.14	-0.0450582
9762.96	-0.0447264
9774.78	-0.0443887
9786.6	-0.0440459
9798.42	-0.0436984
9810.24	-0.0433468
9822.06	-0.0429917
9833.87	-0.0426335
9845.69	-0.0422727
9857.51	-0.0419097
9869.33	-0.0415451
9881.15	-0.0411792
9892.97	-0.0408123
9904.79	-0.040445
9916.61	-0.0400774
9928.43	-0.0397099
9940.25	-0.0393428
9952.07	-0.0389764
9963.89	-0.038611
9975.71	-0.0382467
9987.53	-0.0378838
9999.35	-0.0375224
10011.2	-0.0371628
10023	-0.0368051
10034.8	-0.0364494
10046.6	-0.0360959
10058.4	-0.0357446
10070.3	-0.0353957
10082.1	-0.0350491
10093.9	-0.034705
10105.7	-0.0343634
10117.5	-0.0340244
10129.4	-0.0336878
10141.2	-0.0333538
10153	-0.0330224
10164.8	-0.0326934
10176.6	-0.0323669
10188.5	-0.0320429
10200.3	-0.0317213
10212.1	-0.031402
10223.9	-0.031085
10235.7	-0.0307703
10247.6	-0.0304576
10259.4	-0.0301471
10271.2	-0.0298385
10283	-0.0295318
10294.8	-0.029227
10306.7	-0.0289238
10318.5	-0.0286223
10330.3	-0.0283222
10342.1	-0.0280236
10353.9	-0.0277263
10365.8	-0.0274301
10377.6	-0.0271351
10389.4	-0.026841
10401.2	-0.0265478
10413	-0.0262553
10424.9	-0.0259634
10436.7	-0.0256721
10448.5	-0.0253812
10460.3	-0.0250905
10472.1	-0.0248
10484	-0.0245096
10495.8	-0.024219
10507.6	-0.0239283
10519.4	-0.0236373
10531.2	-0.0233458
10543.1	-0.0230538
10554.9	-0.0227611
10566.7	-0.0224677
10578.5	-0.0221733
10590.3	-0.0218778
10602.1	-0.0215812
10614	-0.0212833
10625.8	-0.020984
10637.6	-0.0206832
10649.4	-0.0203807
10661.2	-0.0200765
10673.1	-0.0197703
10684.9	-0.0194621
10696.7	-0.0191517
10708.5	-0.0188391
10720.3	-0.018524
10732.2	-0.0182064
10744	-0.0178862
10755.8	-0.0175631
10767.6	-0.0172372
10779.4	-0.0169082
10791.3	-0.0165761
10803.1	-0.0162407
10814.9	-0.015902
10826.7	-0.0155597
10838.5	-0.0152138
10850.4	-0.0148642
10862.2	-0.0145107
10874	-0.0141533
10885.8	-0.0137919
10897.6	-0.0134263
10909.5	-0.0130565
10921.3	-0.0126823
10933.1	-0.0123038
10944.9	-0.0119207
10956.7	-0.0115331
10968.6	-0.0111409
10980.4	-0.010744
10992.2	-0.0103423
11004	-0.00993585
11015.8	-0.00952457
11027.7	-0.00910843
11039.5	-0.0086874
11051.3	-0.00826148
11063.1	-0.00783065
11074.9	-0.00739493
11086.8	-0.00695431
11098.6	-0.00650883
11110.4	-0.00605851
11122.2	-0.00560341
11134	-0.00514357
11145.9	-0.00467906
11157.7	-0.00420994
11169.5	-0.00373632
11181.3	-0.00325827
11193.1	-0.00277592
11205	-0.00228938
11216.8	-0.00179877
11228.6	-0.00130424
11240.4	-0.000805939
11252.2	-0.00030403
11264	0.000201314
11275.9	0.000709912
11287.7	0.00122157
11299.5	0.00173608
11311.3	0.00225323
11323.1	0.0027728
11335	0.00329456
11346.8	0.00381826
11358.6	0.00434366
11370.4	0.00487049
11382.2	0.0053985
11394.1	0.0059274
11405.9	0.00645692
11417.7	0.00698678
11429.5	0.00751667
11441.3	0.00804632
11453.2	0.00857541
11465	0.00910364
11476.8	0.0096307
11488.6	0.0101563
11500.4	0.0106801
11512.3	0.0112018
11524.1	0.0117211
11535.9	0.0122376
11547.7	0.0127511
11559.5	0.0132612
11571.4	0.0137677
11583.2	0.0142702
11595	0.0147684
11606.8	0.015262
11618.6	0.0157508
11630.5	0.0162343
11642.3	0.0167124
11654.1	0.0171848
11665.9	0.0176511
11677.7	0.0181112
11689.6	0.0185646
11701.4	0.0190113
11713.2	0.019451
11725	0.0198834
11736.8	0.0203082
11748.7	0.0207253
11760.5	0.0211345
11772.3	0.0215356
11784.1	0.0219283
11795.9	0.0223126
11807.8	0.0226882
11819.6	0.0230549
11831.4	0.0234127
11843.2	0.0237613
11855	0.0241007
11866.8	0.0244308
11878.7	0.0247514
11890.5	0.0250624
11902.3	0.0253638
11914.1	0.0256554
11925.9	0.0259373
11937.8	0.0262092
11949.6	0.0264713
11961.4	0.0267234
11973.2	0.0269656
11985	0.0271977
11996.9	0.0274198
12008.7	0.0276318
12020.5	0.0278338
12032.3	0.0280257
12044.1	0.0282075
12056	0.0283793
12067.8	0.0285411
12079.6	0.0286928
12091.4	0.0288345
12103.2	0.0289663
12115.1	0.0290881
12126.9	0.0292
12138.7	0.0293019
12150.5	0.029394
12162.3	0.0294763
12174.2	0.0295487
12186	0.0296114
12197.8	0.0296643
12209.6	0.0297075
12221.4	0.0297409
12233.3	0.0297647
12245.1	0.0297789
12256.9	0.0297833
12268.7	0.0297782
12280.5	0.0297635
12292.4	0.0297391
12304.2	0.0297052
12316	0.0296617
12327.8	0.0296086
12339.6	0.0295459
12351.5	0.0294736
12363.3	0.0293917
12375.1	0.0293002
12386.9	0.029199
12398.7	0.0290882
12410.6	0.0289677
12422.4	0.0288376
12434.2	0.0286977
12446	0.028548
12457.8	0.0283886
12469.7	0.0282193
12481.5	0.0280402
12493.3	0.0278512
12505.1	0.0276523
12516.9	0.0274434
12528.7	0.0272245
12540.6	0.0269956
12552.4	0.0267567
12564.2	0.0265076
12576	0.0262485
12587.8	0.0259792
12599.7	0.0256998
12611.5	0.0254102
12623.3	0.0251104
12635.1	0.0248005
12646.9	0.0244803
12658.8	0.0241499
12670.6	0.0238094
12682.4	0.0234587
12694.2	0.0230979
12706	0.022727
12717.9	0.022346
12729.7	0.021955
12741.5	0.0215541
12753.3	0.0211433
12765.1	0.0207226
12777	0.0202923
12788.8	0.0198524
12800.6	0.0194029
12812.4	0.0189441
12824.2	0.0184761
12836.1	0.0179989
12847.9	0.0175128
12859.7	0.0170179
12871.5	0.0165144
12883.3	0.0160025
12895.2	0.0154823
12907	0.0149542
12918.8	0.0144183
12930.6	0.0138749
12942.4	0.0133241
12954.3	0.0127664
12966.1	0.0122018
12977.9	0.0116308
12989.7	0.0110536
13001.5	0.0104705
13013.4	0.0098818
13025.2	0.00928782
13037	0.0086889
13048.8	0.00808537
13060.6	0.00747757
13072.5	0.00686585
13084.3	0.00625057
13096.1	0.00563208
13107.9	0.00501077
13119.7	0.004387
13131.5	0.00376115
13143.4	0.0031336
13155.2	0.00250474
13167	0.00187496
13178.8	0.00124464
13190.6	0.000614192
13202.5	-1.60052e-05
13214.3	-0.000645554
13226.1	-0.00127406
13237.9	-0.00190113
13249.7	-0.00252638
13261.6	-0.00314941
13273.4	-0.00376983
13285.2	-0.00438727
13297	-0.00500135
13308.8	-0.00561169
13320.7	-0.00621791
13332.5	-0.00681966
13344.3	-0.00741658
13356.1	-0.00800831
13367.9	-0.00859451
13379.8	-0.00917484
13391.6	-0.00974898
13403.4	-0.0103166
13415.2	-0.0108774
13427	-0.011431
13438.9	-0.0119772
13450.7	-0.0125157
13462.5	-0.0130462
13474.3	-0.0135685
13486.1	-0.0140822
13498	-0.0145872
13509.8	-0.0150832
13521.6	-0.01557
13533.4	-0.0160474
13545.2	-0.0165152
13557.1	-0.0169731
13568.9	-0.0174211
13580.7	-0.017859
13592.5	-0.0182866
13604.3	-0.0187037
13616.2	-0.0191103
13628	-0.0195062
13639.8	-0.0198913
13651.6	-0.0202655
13663.4	-0.0206288
13675.3	-0.0209811
13687.1	-0.0213222
13698.9	-0.0216522
13710.7	-0.021971
13722.5	-0.0222786
13734.3	-0.022575
13746.2	-0.0228601
13758	-0.023134
13769.8	-0.0233966
13781.6	-0.0236481
13793.4	-0.0238883
13805.3	-0.0241174
13817.1	-0.0243354
13828.9	-0.0245423
13840.7	-0.0247382
13852.5	-0.0249232
13864.4	-0.0250974
13876.2	-0.0252607
13888	-0.0254134
13899.8	-0.0255555
13911.6	-0.0256871
13923.5	-0.0258082
13935.3	-0.0259191
13947.1	-0.0260198
13958.9	-0.0261105
13970.7	-0.0261912
13982.6	-0.0262621
13994.4	-0.0263233
14006.2	-0.026375
14018	-0.0264172
14029.8	-0.0264501
14041.7	-0.0264739
14053.5	-0.0264887
14065.3	-0.0264945
14077.1	-0.0264917
14088.9	-0.0264802
14100.8	-0.0264603
14112.6	-0.0264321
14124.4	-0.0263957
14136.2	-0.0263513
14148	-0.0262989
14159.9	-0.0262389
14171.7	-0.0261712
14183.5	-0.026096
14195.3	-0.0260136
14207.1	-0.0259239
14219	-0.0258272
14230.8	-0.0257235
14242.6	-0.025613
14254.4	-0.0254959
14266.2	-0.0253722
14278.1	-0.0252422
14289.9	-0.0251058
14301.7	-0.0249633
14313.5	-0.0248147
14325.3	-0.0246602
14337.2	-0.0244999
14349	-0.0243339
14360.8	-0.0241623
14372.6	-0.0239852
14384.4	-0.0238028
14396.2	-0.0236151
14408.1	-0.0234222
14419.9	-0.0232244
14431.7	-0.0230215
14443.5	-0.0228138
14455.3	-0.0226014
14467.2	-0.0223843
14479	-0.0221627
14490.8	-0.0219366
14502.6	-0.0217061
14514.4	-0.0214714
14526.3	-0.0212325
14538.1	-0.0209895
14549.9	-0.0207425
14561.7	-0.0204916
14573.5	-0.020237
14585.4	-0.0199786
14597.2	-0.0197166
14609	-0.019451
14620.8	-0.0191821
14632.6	-0.0189098
14644.5	-0.0186343
14656.3	-0.0183556
14668.1	-0.0180739
14679.9	-0.0177892
14691.7	-0.0175017
14703.6	-0.0172115
14715.4	-0.0169187
14727.2	-0.0166233
14739	-0.0163255
14750.8	-0.0160254
14762.7	-0.0157232
14774.5	-0.0154189
14786.3	-0.0151126
14798.1	-0.0148045
14809.9	-0.0144946
14821.8	-0.0141832
14833.6	-0.0138704
14845.4	-0.0135562
14857.2	-0.0132408
14869	-0.0129244
14880.9	-0.0126071
14892.7	-0.012289
14904.5	-0.0119702
14916.3	-0.011651
14928.1	-0.0113314
14940	-0.0110117
14951.8	-0.0106919
14963.6	-0.0103722
14975.4	-0.0100528
14987.2	-0.00973383
14999	-0.00941545
15010.9	-0.00909781
15022.7	-0.00878108
15034.5	-0.00846543
15046.3	-0.00815101
15058.1	-0.00783799
15070	-0.00752654
15081.8	-0.00721681
15093.6	-0.00690898
15105.4	-0.00660321
15117.2	-0.00629967
15129.1	-0.00599851
15140.9	-0.00569991
15152.7	-0.00540403
15164.5	-0.00511102
15176.3	-0.00482106
15188.2	-0.00453429
15200	-0.00425089
15211.8	-0.00397099
15223.6	-0.00369476
15235.4	-0.00342235
15247.3	-0.0031539
15259.1	-0.00288957
15270.9	-0.0026295
15282.7	-0.00237382
15294.5	-0.00212267
15306.4	-0.00187619
15318.2	-0.00163452
15330	-0.00139776
15341.8	-0.00116606
15353.6	-0.000939519
15365.5	-0.000718263
15377.3	-0.000502401
15389.1	-0.000292039
15400.9	-8.728e-05
15412.7	0.000111778
15424.6	0.000305042
15436.4	0.000492421
15448.2	0.000673832
15460	0.000849194
15471.8	0.00101843
15483.7	0.00118147
15495.5	0.00133825
15507.3	0.00148871
15519.1	0.00163278
15530.9	0.00177042
15542.8	0.00190158
15554.6	0.00202621
15566.4	0.00214427
15578.2	0.00225573
15590	0.00236056
15601.9	0.00245873
15613.7	0.00255022
15625.5	0.002635
15637.3	0.00271307
15649.1	0.00278441
15660.9	0.00284901
15672.8	0.00290687
15684.6	0.002958
15696.4	0.00300238
15708.2	0.00304003
15720	0.00307097
15731.9	0.00309519
15743.7	0.00311271
15755.5	0.00312356
15767.3	0.00312776
15779.1	0.00312532
15791	0.00311627
15802.8	0.00310064
15814.6	0.00307846
15826.4	0.00304977
15838.2	0.0030146
15850.1	0.00297298
15861.9	0.00292495
15873.7	0.00287056
15885.5	0.00280985
15897.3	0.00274286
15909.2	0.00266964
15921	0.00259024
15932.8	0.0025047
15944.6	0.00241309
15956.4	0.00231544
15968.3	0.00221182
15980.1	0.00210229
15991.9	0.0019869
16003.7	0.00186571
16015.5	0.00173879
16027.4	0.0016062
16039.2	0.001468
16051	0.00132427
16062.8	0.00117508
16074.6	0.00102049
16086.5	0.000860585
16098.3	0.000695438
16110.1	0.000525129
16121.9	0.00034974
16133.7	0.000169356
16145.6	-1.59359e-05
16157.4	-0.000206046
16169.2	-0.000400882
16181	-0.000600346
16192.8	-0.000804341
16204.7	-0.00101276
16216.5	-0.00122551
16228.3	-0.00144247
16240.1	-0.00166352
16251.9	-0.00188857
16263.7	-0.00211747
16275.6	-0.00235011
16287.4	-0.00258637
16299.2	-0.0028261
16311	-0.00306917
16322.8	-0.00331545
16334.7	-0.00356478
16346.5	-0.00381702
16358.3	-0.00407201
16370.1	-0.00432959
16381.9	-0.0045896
16393.8	-0.00485188
16405.6	-0.00511625
16417.4	-0.00538253
16429.2	-0.00565055
16441	-0.00592011
16452.9	-0.00619103
16464.7	-0.00646311
16476.5	-0.00673616
16488.3	-0.00700996
16500.1	-0.00728432
16512	-0.00755901
16523.8	-0.00783383
16535.6	-0.00810856
16547.4	-0.00838296
16559.2	-0.00865682
16571.1	-0.0089299
16582.9	-0.00920198
16594.7	-0.00947281
16606.5	-0.00974215
16618.3	-0.0100098
16630.2	-0.0102754
16642	-0.0105388
16653.8	-0.0107998
16665.6	-0.011058
16677.4	-0.0113133
16689.3	-0.0115654
16701.1	-0.011814
16712.9	-0.0120588
16724.7	-0.0122997
16736.5	-0.0125364
16748.4	-0.0127686
16760.2	-0.0129961
16772	-0.0132186
16783.8	-0.0134359
16795.6	-0.0136477
16807.5	-0.0138538
16819.3	-0.014054
16831.1	-0.014248
16842.9	-0.0144356
16854.7	-0.0146165
16866.5	-0.0147906
16878.4	-0.0149576
16890.2	-0.0151174
16902	-0.0152696
16913.8	-0.0154142
16925.6	-0.0155508
16937.5	-0.0156794
16949.3	-0.0157998
16961.1	-0.0159117
16972.9	-0.016015
16984.7	-0.0161096
16996.6	-0.0161952
17008.4	-0.0162719
17020.2	-0.0163394
17032	-0.0163976
17043.8	-0.0164464
17055.7	-0.0164858
17067.5	-0.0165155
17079.3	-0.0165356
17091.1	-0.016546
17102.9	-0.0165466
17114.8	-0.0165373
17126.6	-0.0165182
17138.4	-0.0164892
17150.2	-0.0164503
17162	-0.0164015
17173.9	-0.0163427
17185.7	-0.0162741
17197.5	-0.0161957
17209.3	-0.0161075
17221.1	-0.0160095
17233	-0.0159019
17244.8	-0.0157847
17256.6	-0.015658
17268.4	-0.0155219
17280.2	-0.0153766
17292.1	-0.0152221
17303.9	-0.0150586
17315.7	-0.0148863
17327.5	-0.0147053
17339.3	-0.0145157
17351.2	-0.0143179
17363	-0.0141119
17374.8	-0.013898
17386.6	-0.0136765
17398.4	-0.0134474
17410.3	-0.0132111
17422.1	-0.0129678
17433.9	-0.0127177
17445.7	-0.0124612
17457.5	-0.0121985
17469.4	-0.0119298
17481.2	-0.0116555
17493	-0.0113759
17504.8	-0.0110912
17516.6	-0.0108018
17528.4	-0.010508
17540.3	-0.0102101
17552.1	-0.00990841
17563.9	-0.00960331
17575.7	-0.00929511
17587.5	-0.00898416
17599.4	-0.00867079
17611.2	-0.00835537
17623	-0.00803824
17634.8	-0.00771975
17646.6	-0.00740027
17658.5	-0.00708014
17670.3	-0.00675973
17682.1	-0.0064394
17693.9	-0.0061195
17705.7	-0.0058004
17717.6	-0.00548245
17729.4	-0.00516602
17741.2	-0.00485145
17753	-0.00453911
17764.8	-0.00422934
17776.7	-0.0039225
17788.5	-0.00361892
17800.3	-0.00331895
17812.1	-0.00302293
17823.9	-0.00273119
17835.8	-0.00244406
17847.6	-0.00216186
17859.4	-0.00188491
17871.2	-0.00161352
17883	-0.00134799
17894.9	-0.00108862
17906.7	-0.000835701
17918.5	-0.000589515
17930.3	-0.000350336
17942.1	-0.00011843
17954	0.000105946
17965.8	0.000322542
17977.6	0.000531121
17989.4	0.000731451
18001.2	0.000923313
18013.1	0.0011065
18024.9	0.0012808
18036.7	0.00144604
18048.5	0.00160203
18060.3	0.00174861
18072.2	0.00188562
18084	0.00201292
18095.8	0.00213037
18107.6	0.00223785
18119.4	0.00233525
18131.2	0.00242247
18143.1	0.00249942
18154.9	0.00256604
18166.7	0.00262226
18178.5	0.00266804
18190.3	0.00270332
18202.2	0.0027281
18214	0.00274236
18225.8	0.00274609
18237.6	0.00273932
18249.4	0.00272207
18261.3	0.00269437
18273.1	0.00265628
18284.9	0.00260785
18296.7	0.00254917
18308.5	0.00248033
18320.4	0.00240141
18332.2	0.00231254
18344	0.00221383
18355.8	0.00210542
18367.6	0.00198746
18379.5	0.00186011
18391.3	0.00172353
18403.1	0.0015779
18414.9	0.00142343
18426.7	0.0012603
18438.6	0.00108873
18450.4	0.000908938
18462.2	0.000721165
18474	0.000525648
18485.8	0.000322639
18497.7	0.000112397
18509.5	-0.000104808
18521.3	-0.0003287
18533.1	-0.000558993
18544.9	-0.000795395
18556.8	-0.0010376
18568.6	-0.00128531
18580.4	-0.00153821
18592.2	-0.00179597
18604	-0.00205827
18615.9	-0.00232478
18627.7	-0.00259516
18639.5	-0.00286907
18651.3	-0.00314617
18663.1	-0.0034261
18675	-0.00370851
18686.8	-0.00399304
18698.6	-0.00427935
18710.4	-0.00456706
18722.2	-0.00485581
18734.1	-0.00514525
18745.9	-0.00543501
18757.7	-0.00572471
18769.5	-0.00601401
18781.3	-0.00630253
18793.1	-0.00658991
18805	-0.00687579
18816.8	-0.00715982
18828.6	-0.00744163
18840.4	-0.00772088
18852.2	-0.0079972
18864.1	-0.00827027
18875.9	-0.00853972
18887.7	-0.00880524
18899.5	-0.00906647
18911.3	-0.0093231
18923.2	-0.00957481
18935	-0.00982128
18946.8	-0.0100622
18958.6	-0.0102973
18970.4	-0.0105262
18982.3	-0.0107487
18994.1	-0.0109645
19005.9	-0.0111733
19017.7	-0.0113749
19029.5	-0.011569
19041.4	-0.0117554
19053.2	-0.0119338
19065	-0.0121041
19076.8	-0.0122659
19088.6	-0.0124192
19100.5	-0.0125637
19112.3	-0.0126992
19124.1	-0.0128256
19135.9	-0.0129427
19147.7	-0.0130504
19159.6	-0.0131485
19171.4	-0.013237
19183.2	-0.0133156
19195	-0.0133844
19206.8	-0.0134432
19218.7	-0.013492
19230.5	-0.0135307
19242.3	-0.0135592
19254.1	-0.0135775
19265.9	-0.0135857
19277.8	-0.0135836
19289.6	-0.0135713
19301.4	-0.0135488
19313.2	-0.0135161
19325	-0.0134733
19336.9	-0.0134204
19348.7	-0.0133575
19360.5	-0.0132847
19372.3	-0.0132019
19384.1	-0.0131094
19395.9	-0.0130073
19407.8	-0.0128956
19419.6	-0.0127744
19431.4	-0.012644
19443.2	-0.0125045
19455	-0.012356
19466.9	-0.0121987
19478.7	-0.0120328
19490.5	-0.0118585
19502.3	-0.0116759
19514.1	-0.0114853
19526	-0.0112869
19537.8	-0.0110808
19549.6	-0.0108674
19561.4	-0.0106469
19573.2	-0.0104194
19585.1	-0.0101853
19596.9	-0.00994481
19608.7	-0.00969816
19620.5	-0.00944563
19632.3	-0.00918748
19644.2	-0.00892399
19656	-0.00865544
19667.8	-0.0083821
19679.6	-0.00810425
19691.4	-0.00782217
19703.3	-0.00753616
19715.1	-0.0072465
19726.9	-0.00695348
19738.7	-0.00665739
19750.5	-0.00635852
19762.4	-0.00605716
19774.2	-0.00575361
19786	-0.00544814
19797.8	-0.00514105
19809.6	-0.00483262
19821.5	-0.00452315
19833.3	-0.0042129
19845.1	-0.00390217
19856.9	-0.00359123
19868.7	-0.00328035
19880.6	-0.00296981
19892.4	-0.00265986
19904.2	-0.00235078
19916	-0.00204281
19927.8	-0.00173622
19939.7	-0.00143124
19951.5	-0.00112812
19963.3	-0.000827093
19975.1	-0.000528394
19986.9	-0.000232242
19998.8	6.1143e-05
