0	0
17.7294	0
35.4589	0
53.1883	0
70.9178	0
88.6472	0
106.377	0
124.106	0
141.836	0
159.565	0
177.294	0
195.024	0
212.753	0
230.483	0
248.212	0
265.942	0
283.671	0
301.401	0
319.13	0
336.859	0
354.589	0
372.318	0
390.048	0
407.777	0
425.507	0
443.236	0
460.966	0
478.695	0
496.424	0
514.154	0
531.883	0
549.613	0
567.342	0
585.072	0
602.801	0
620.53	0
638.26	0
655.989	0
673.719	0
691.448	0
709.178	0
726.907	0
744.637	0
762.366	0
780.095	0
797.825	0
815.554	0
833.284	0
851.013	0
868.743	0
886.472	0
904.202	0
921.931	0
939.66	0
957.39	0
975.119	0
992.849	0
1010.58	0
1028.31	0
1046.04	0
1063.77	0
1081.5	0
1099.23	0
1116.95	0
1134.68	0
1152.41	0
1170.14	0
1187.87	0
1205.6	0
1223.33	0
1241.06	0
1258.79	0
1276.52	0
1294.25	0
1311.98	0
1329.71	0
1347.44	0
1365.17	0
1382.9	0
1400.63	0
1418.36	0
1436.08	0
1453.81	0
1471.54	0
1489.27	0
1507	0
1524.73	0
1542.46	0
1560.19	0
1577.92	0
1595.65	0
1613.38	0
1631.11	0
1648.84	0
1666.57	0
1684.3	0
1702.03	0
1719.76	0
1737.49	0
1755.21	0
1772.94	0
1790.67	0
1808.4	0
1826.13	0
1843.86	0
1861.59	0
1879.32	0
1897.05	0
1914.74	0
1932.32	0
1949.77	0
1967.08	0
1984.22	0
2001.2	0
2017.99	0
2034.59	0
2050.99	0
2067.2	0
2083.24	0
2099.14	0
2114.91	0
2130.61	0
2146.25	-9.09495e-13
2161.88	-9.09495e-13
2177.52	-9.09495e-13
2193.19	-1.81899e-12
2208.76	-3.63798e-12
2224.18	-6.36646e-12
2239.4	-9.09495e-12
2254.55	-1.45519e-11
2269.64	-2.18279e-11
2284.53	-3.36513e-11
2299.23	-4.91127e-11
2314.01	-7.18501e-11
2328.97	-1.05501e-10
2344.09	-1.54614e-10
2359.35	-2.24645e-10
2374.73	-3.25599e-10
2390.23	-4.70209e-10
2405.82	-6.75755e-10
2421.49	-9.66793e-10
2437.22	-1.37607e-09
2453.02	-1.94905e-09
2468.88	-2.74667e-09
2484.79	-3.8508e-09
2500.77	-5.37148e-09
2516.78	-7.45422e-09
2532.83	-1.02918e-08
2548.92	-1.41363e-08
2565.09	-1.93349e-08
2581.33	-2.63253e-08
2597.63	-3.56777e-08
2613.97	-4.81186e-08
2630.35	-6.45841e-08
2646.76	-8.62628e-08
2663.2	-1.14659e-07
2679.66	-1.51652e-07
2696.14	-1.99601e-07
2712.64	-2.61448e-07
2729.16	-3.4083e-07
2745.69	-4.42222e-07
2762.24	-5.71104e-07
2778.8	-7.34148e-07
2795.37	-9.39431e-07
2811.95	-1.19667e-06
2828.53	-1.5174e-06
2845.08	-1.91483e-06
2861.61	-2.40487e-06
2878.11	-3.00644e-06
2894.57	-3.7404e-06
2910.99	-4.63185e-06
2927.37	-5.70983e-06
2943.71	-7.00775e-06
2960.02	-8.5635e-06
2976.29	-1.04201e-05
2992.52	-1.26259e-05
3008.7	-1.52346e-05
3024.83	-1.83069e-05
3040.91	-2.19084e-05
3056.94	-2.6114e-05
3072.89	-3.09958e-05
3088.78	-3.6648e-05
3104.61	-4.31668e-05
3120.38	-5.06514e-05
3136.12	-5.9229e-05
3151.82	-6.90237e-05
3167.48	-8.01748e-05
3183.13	-9.28341e-05
3198.77	-0.000107167
3214.4	-0.000123351
3230.04	-0.000141579
3245.69	-0.000162055
3261.38	-0.00018503
3277.1	-0.000210736
3292.87	-0.000239412
3308.67	-0.000271298
3324.53	-0.000306698
3340.43	-0.000345821
3356.36	-0.000388926
3372.3	-0.000436187
3388.24	-0.000487822
3404.2	-0.000544048
3420.17	-0.000605041
3436.15	-0.00067096
3452.14	-0.000741926
3468.14	-0.000818012
3484.15	-0.000899237
3500.16	-0.000985557
3516.19	-0.00107686
3532.22	-0.00117294
3548.26	-0.00127351
3564.31	-0.00137816
3580.37	-0.00148636
3596.43	-0.00159743
3612.51	-0.00171054
3628.59	-0.00182469
3644.67	-0.00193869
3660.77	-0.00205115
3676.86	-0.00216046
3692.97	-0.00226479
3709.08	-0.00236203
3725.19	-0.00244984
3741.31	-0.00252557
3757.43	-0.00258629
3773.56	-0.00262876
3789.69	-0.00264942
3805.8	-0.00264443
3821.92	-0.00260965
3838.04	-0.00254052
3854.18	-0.00243214
3870.32	-0.00227931
3886.46	-0.00207648
3902.61	-0.00181779
3918.77	-0.00149708
3934.93	-0.00110791
3951.09	-0.000643569
3967.26	-9.71136e-05
3983.42	0.000538614
3999.59	0.00127094
4015.77	0.00210734
4031.95	0.00305535
4048.12	0.00412252
4064.3	0.00531638
4080.49	0.00664438
4096.67	0.00811381
4112.85	0.00973174
4129.04	0.011505
4145.22	0.01344
4161.41	0.0155428
4177.59	0.0178188
4193.78	0.0202729
4209.96	0.0229094
4226.14	0.0257315
4242.32	0.0287419
4258.49	0.0319421
4274.66	0.0353325
4290.82	0.0389128
4306.98	0.0426812
4323.12	0.0466354
4339.26	0.0507717
4355.39	0.0550853
4371.52	0.0595703
4387.63	0.0642194
4403.74	0.0690235
4419.84	0.0739726
4435.93	0.0790553
4452.01	0.0842594
4468.08	0.089572
4484.14	0.0949793
4500.2	0.100466
4516.26	0.106016
4532.31	0.111612
4548.36	0.117234
4564.4	0.122865
4580.45	0.128482
4596.49	0.134067
4612.53	0.139597
4628.57	0.14505
4644.61	0.150404
4660.65	0.155637
4676.69	0.160726
4692.73	0.165649
4708.77	0.170383
4724.8	0.174905
4740.84	0.179195
4756.88	0.183232
4772.91	0.186994
4788.95	0.190463
4804.99	0.19362
4821.03	0.196448
4837.07	0.19893
4853.12	0.201052
4869.16	0.202799
4885.21	0.204161
4901.26	0.205125
4917.32	0.205684
4933.37	0.205831
4949.43	0.20556
4965.49	0.204868
4981.55	0.203753
4997.61	0.202216
5013.67	0.200259
5029.73	0.197887
5045.79	0.195107
5061.85	0.191925
5077.91	0.188352
5093.97	0.184399
5110.03	0.18008
5126.09	0.175409
5142.17	0.170395
5158.28	0.165054
5174.41	0.159404
5190.55	0.153467
5206.71	0.147264
5222.88	0.140818
5239.06	0.134152
5255.25	0.127291
5271.44	0.120259
5287.64	0.113083
5303.84	0.105787
5320.05	0.0983977
5336.26	0.0909402
5352.48	0.0834395
5368.69	0.0759208
5384.91	0.0684085
5401.13	0.0609265
5417.36	0.0534983
5433.59	0.0461463
5449.82	0.0388921
5466.05	0.0317565
5482.28	0.0247589
5498.51	0.0179179
5514.75	0.011251
5530.98	0.00477392
5547.22	-0.00149883
5563.45	-0.00755434
5579.69	-0.0133811
5595.92	-0.0189688
5612.14	-0.0243048
5628.35	-0.0293814
5644.54	-0.0341942
5660.73	-0.0387398
5676.9	-0.0430165
5693.06	-0.0470234
5709.22	-0.0507605
5725.37	-0.0542293
5741.51	-0.0574319
5757.64	-0.0603718
5773.77	-0.0630536
5789.9	-0.0654824
5806.01	-0.0676647
5822.13	-0.0696074
5838.23	-0.0713183
5854.33	-0.0728058
5870.43	-0.0740786
5886.51	-0.0751464
5902.6	-0.0760188
5918.68	-0.0767058
5934.75	-0.077218
5950.83	-0.0775656
5966.89	-0.0777593
5982.96	-0.0778097
5999.02	-0.0777273
6015.08	-0.0775225
6031.14	-0.0772057
6047.19	-0.0767869
6063.25	-0.076276
6079.3	-0.0756825
6095.36	-0.0750155
6111.41	-0.074284
6127.47	-0.0734963
6143.53	-0.0726606
6159.59	-0.0717845
6175.65	-0.0708752
6191.71	-0.0699393
6207.77	-0.0689832
6223.84	-0.0680125
6239.9	-0.0670326
6255.97	-0.0660483
6272.04	-0.0650639
6288.12	-0.0640833
6304.2	-0.0631099
6320.27	-0.0621467
6336.37	-0.0611954
6352.49	-0.060258
6368.63	-0.0593364
6384.78	-0.0584323
6400.95	-0.0575469
6417.12	-0.056681
6433.31	-0.0558351
6449.51	-0.0550095
6465.72	-0.054204
6481.94	-0.0534185
6498.17	-0.0526523
6514.4	-0.0519047
6530.64	-0.051175
6546.88	-0.050462
6563.13	-0.0497646
6579.39	-0.0490816
6595.65	-0.0484117
6611.91	-0.0477536
6628.17	-0.0471063
6644.42	-0.0464684
6660.66	-0.0458384
6676.89	-0.045215
6693.12	-0.0445969
6709.34	-0.0439827
6725.55	-0.0433713
6741.75	-0.0427616
6757.95	-0.0421524
6774.14	-0.0415429
6790.32	-0.0409321
6806.5	-0.0403193
6822.67	-0.0397039
6838.83	-0.0390853
6854.99	-0.0384631
6871.14	-0.0378369
6887.29	-0.0372066
6903.44	-0.036572
6919.58	-0.0359331
6935.71	-0.0352899
6951.84	-0.0346426
6967.97	-0.0339915
6984.09	-0.0333369
7000.21	-0.032679
7016.33	-0.0320183
7032.45	-0.0313552
7048.56	-0.0306902
7064.67	-0.0300239
7080.77	-0.0293566
7096.87	-0.0286889
7112.97	-0.0280212
7129.06	-0.0273536
7145.15	-0.0266865
7161.24	-0.0260201
7177.33	-0.0253542
7193.42	-0.0246888
7209.5	-0.0240234
7225.58	-0.0233577
7241.66	-0.0226906
7257.74	-0.0220212
7273.82	-0.021348
7289.9	-0.0206693
7305.98	-0.0199828
7322.06	-0.0192858
7338.14	-0.0185753
7354.22	-0.0178476
7370.3	-0.0170983
7386.39	-0.0163226
7402.47	-0.0155149
7418.56	-0.0146687
7434.64	-0.0137768
7450.73	-0.0128311
7466.82	-0.0118224
7482.91	-0.0107406
7499.01	-0.00957444
7515.1	-0.00831166
7531.2	-0.00693867
7547.3	-0.0054406
7563.4	-0.00380126
7579.5	-0.00200307
7595.61	-2.69839e-05
7611.71	0.00214754
7627.82	0.00454262
7643.92	0.00718188
7660.03	0.0100905
7676.14	0.0132952
7692.25	0.016824
7708.36	0.0207064
7724.46	0.0249736
7740.56	0.0296586
7756.66	0.0347955
7772.76	0.0404203
7788.86	0.0465697
7804.95	0.0532818
7821.05	0.0605954
7837.15	0.06855
7853.24	0.0771856
7869.33	0.086538
7885.4	0.0966378
7901.44	0.107522
7917.47	0.119227
7933.5	0.131815
7949.55	0.145324
7965.6	0.159789
7981.66	0.175244
7997.73	0.191721
8013.79	0.209248
8029.86	0.227845
8045.92	0.247528
8061.98	0.268314
8078.03	0.29022
8094.09	0.313258
8110.15	0.33743
8126.21	0.362734
8142.27	0.389157
8158.33	0.416682
8174.39	0.445281
8190.45	0.474924
8206.51	0.505568
8222.57	0.537164
8238.62	0.569657
8254.68	0.602978
8270.74	0.637047
8286.79	0.671774
8302.85	0.707095
8318.91	0.74289
8334.97	0.779053
8351.04	0.815469
8367.11	0.852014
8383.18	0.888553
8399.27	0.924943
8415.36	0.961031
8431.45	0.996658
8447.54	1.03166
8463.64	1.06587
8479.74	1.09911
8495.85	1.13122
8511.96	1.16201
8528.07	1.1913
8544.19	1.21893
8560.3	1.24471
8576.43	1.26847
8592.55	1.29004
8608.67	1.30926
8624.8	1.32597
8640.94	1.34002
8657.08	1.35127
8673.23	1.35959
8689.39	1.36485
8705.56	1.36693
8721.73	1.36576
8737.91	1.36123
8754.09	1.3533
8770.27	1.3419
8786.45	1.32701
8802.63	1.30862
8818.81	1.28674
8834.98	1.26138
8851.16	1.23259
8867.33	1.20044
8883.5	1.16501
8899.67	1.12639
8915.83	1.08471
8931.98	1.0401
8948.14	0.992707
8964.28	0.942702
8980.42	0.890265
8996.55	0.835592
9012.68	0.778891
9028.8	0.720382
9044.89	0.660378
9060.95	0.599096
9077	0.536759
9093.03	0.473598
9109.04	0.409854
9125.05	0.345771
9141.04	0.281592
9157.02	0.21756
9173	0.153914
9188.97	0.0908884
9204.93	0.0287118
9220.89	-0.0323951
9236.85	-0.0922182
9252.8	-0.150551
9268.76	-0.207197
9284.71	-0.261935
9300.65	-0.314598
9316.59	-0.365036
9332.52	-0.413111
9348.46	-0.458699
9364.43	-0.501767
9380.43	-0.542182
9396.45	-0.579831
9412.49	-0.614626
9428.55	-0.646502
9444.62	-0.675411
9460.67	-0.701284
9476.72	-0.724138
9492.75	-0.743998
9508.79	-0.760904
9524.88	-0.774963
9540.99	-0.78618
9557.09	-0.794604
9573.2	-0.800347
9589.33	-0.803506
9605.48	-0.804186
9621.62	-0.802513
9637.75	-0.798624
9653.88	-0.792665
9670	-0.784788
9686.11	-0.775149
9702.21	-0.763911
9718.31	-0.751233
9734.4	-0.737281
9750.49	-0.722216
9766.56	-0.706206
9782.63	-0.689412
9798.68	-0.671992
9814.71	-0.654099
9830.74	-0.635879
9846.75	-0.617473
9862.75	-0.599017
9878.73	-0.580635
9894.69	-0.562447
9910.63	-0.54456
9926.56	-0.527074
9942.47	-0.510078
9958.36	-0.493652
9974.24	-0.477869
9990.09	-0.462786
10005.9	-0.448454
10021.7	-0.43491
10037.5	-0.422185
10053.4	-0.4103
10069.2	-0.399263
10085	-0.389083
10100.8	-0.379765
10116.7	-0.371303
10132.5	-0.363689
10148.4	-0.356907
10164.3	-0.350935
10180.2	-0.345746
10196.1	-0.341306
10212	-0.33758
10228	-0.33453
10244	-0.332105
10260	-0.330269
10276.1	-0.328974
10292.3	-0.328175
10308.4	-0.32782
10324.6	-0.32786
10340.8	-0.328243
10357.1	-0.328917
10373.3	-0.329833
10389.6	-0.330941
10405.8	-0.332194
10422.1	-0.333548
10438.4	-0.33496
10454.6	-0.33639
10470.8	-0.337805
10487.1	-0.339173
10503.3	-0.340466
10519.5	-0.341661
10535.6	-0.342738
10551.8	-0.343682
10568	-0.34448
10584.1	-0.345125
10600.2	-0.345612
10616.4	-0.345939
10632.5	-0.346109
10648.6	-0.346128
10664.7	-0.346002
10680.7	-0.345742
10696.8	-0.345362
10712.9	-0.344875
10729	-0.344299
10745.1	-0.343652
10761.2	-0.342954
10777.2	-0.342227
10793.3	-0.341493
10809.3	-0.340774
10825.4	-0.340093
10841.4	-0.339472
10857.4	-0.338935
10873.4	-0.338502
10889.4	-0.338197
10905.3	-0.33804
10921.3	-0.33805
10937.3	-0.338247
10953.2	-0.338649
10969.2	-0.339273
10985.2	-0.340134
11001.2	-0.341248
11017.3	-0.342626
11033.3	-0.344281
11049.3	-0.346221
11065.4	-0.348454
11081.5	-0.350986
11097.6	-0.353819
11113.7	-0.356957
11129.8	-0.360399
11145.9	-0.364142
11162	-0.368184
11178.1	-0.372515
11194.3	-0.377131
11210.4	-0.382023
11226.5	-0.387179
11242.7	-0.392588
11258.8	-0.398233
11274.9	-0.404102
11291.1	-0.410179
11307.2	-0.416444
11323.4	-0.422883
11339.5	-0.429477
11355.7	-0.436202
11371.8	-0.443043
11388	-0.449979
11404.1	-0.456985
11420.3	-0.464044
11436.4	-0.47113
11452.6	-0.478226
11468.7	-0.485308
11484.9	-0.492353
11501	-0.499342
11517.2	-0.506253
11533.3	-0.513065
11549.5	-0.519758
11565.6	-0.526311
11581.8	-0.532706
11597.9	-0.538925
11614	-0.54495
11630.1	-0.550763
11646.3	-0.55635
11662.4	-0.561694
11678.5	-0.566782
11694.6	-0.571603
11710.7	-0.576143
11726.7	-0.580392
11742.8	-0.584341
11758.9	-0.587981
11774.9	-0.591304
11791	-0.594304
11807.1	-0.596975
11823.1	-0.599311
11839.2	-0.601311
11855.2	-0.60297
11871.3	-0.604288
11887.3	-0.605264
11903.3	-0.605898
11919.4	-0.606192
11935.4	-0.606148
11951.5	-0.60577
11967.5	-0.60506
11983.5	-0.604024
11999.6	-0.602667
12015.7	-0.600994
12031.7	-0.599015
12047.8	-0.596736
12063.9	-0.594167
12079.9	-0.591316
12096	-0.588193
12112.1	-0.584809
12128.2	-0.581175
12144.2	-0.577304
12160.3	-0.573208
12176.4	-0.5689
12192.5	-0.564392
12208.5	-0.559697
12224.6	-0.554828
12240.7	-0.549799
12256.8	-0.544621
12256.8	-0.54459
12256.9	-0.544564
12257	-0.544538
12257.1	-0.544513
12257.2	-0.544487
12257.2	-0.544461
12257.3	-0.544435
12257.4	-0.54441
12257.5	-0.544384
12257.6	-0.544358
12257.6	-0.544333
12257.7	-0.544307
12257.8	-0.544281
12257.9	-0.544256
12257.9	-0.54423
12258	-0.544204
12258.1	-0.544179
12258.2	-0.544153
12258.3	-0.544128
12258.3	-0.544102
12258.4	-0.544076
12258.5	-0.544051
12258.6	-0.544025
12258.7	-0.543999
12258.7	-0.543974
12258.8	-0.543948
12258.9	-0.543922
12259	-0.543897
12259	-0.543871
12259.1	-0.543845
12259.2	-0.543819
12259.3	-0.543793
12259.4	-0.543767
12259.4	-0.543742
12259.5	-0.543716
12259.6	-0.54369
12259.7	-0.543664
12259.8	-0.543638
12259.8	-0.543612
12259.9	-0.543586
12260	-0.54356
12260.1	-0.543534
12260.2	-0.543508
12260.2	-0.543482
12260.3	-0.543456
12260.4	-0.54343
12260.5	-0.543404
12260.5	-0.543378
12260.6	-0.543352
12260.7	-0.543326
12260.8	-0.5433
12260.9	-0.543274
12261	-0.543243
12261.1	-0.543211
12261.8	-0.542975
12262.6	-0.542715
12263.5	-0.542422
12264.5	-0.542077
12265.8	-0.541656
12267.4	-0.541118
12269.6	-0.540385
12272.7	-0.539364
12276.5	-0.538066
12276.7	-0.538027
12276.8	-0.537971
12281.4	-0.536443
12285.9	-0.534905
12290.5	-0.533348
12290.7	-0.533263
12290.9	-0.53321
12291	-0.533165
12291.1	-0.533122
12291.3	-0.533076
12291.4	-0.533029
12291.5	-0.532985
12291.6	-0.532977
12291.6	-0.532972
12291.6	-0.532967
12291.6	-0.532962
12291.6	-0.532958
12291.6	-0.532953
12291.6	-0.532948
12291.6	-0.532943
12291.7	-0.532939
12291.7	-0.532934
12291.7	-0.532929
12291.7	-0.532924
12291.7	-0.532919
12291.7	-0.532914
12291.7	-0.532909
12291.8	-0.532904
12291.8	-0.532899
12291.8	-0.532894
12291.8	-0.532889
12291.8	-0.532883
12291.8	-0.532878
12291.9	-0.532872
12291.9	-0.532867
12291.9	-0.532861
12291.9	-0.532856
12291.9	-0.53285
12291.9	-0.532844
12292	-0.532838
12292	-0.532833
12292	-0.532827
12292	-0.532821
12292	-0.532815
12292	-0.532809
12292.1	-0.532803
12292.1	-0.532797
12292.1	-0.532791
12292.1	-0.532785
12292.1	-0.532779
12292.1	-0.532772
12292.2	-0.532766
12292.2	-0.532759
12292.2	-0.532753
12292.2	-0.532746
12292.2	-0.532738
12292.3	-0.532731
12292.3	-0.532708
12292.4	-0.532696
12292.4	-0.532687
12292.4	-0.532678
12292.5	-0.532652
12292.6	-0.532633
12292.6	-0.532621
12292.7	-0.532597
12292.7	-0.532571
12292.8	-0.532555
12292.9	-0.532527
12292.9	-0.532507
12293	-0.532474
12293.1	-0.532447
12293.2	-0.532418
12293.3	-0.532386
12293.4	-0.532352
12293.5	-0.532314
12293.6	-0.532276
12293.7	-0.532236
12293.8	-0.532192
12294	-0.532146
12294.1	-0.532097
12294.3	-0.532046
12294.4	-0.531992
12294.6	-0.531935
12294.8	-0.531876
12294.9	-0.531815
12295.1	-0.53175
12295.3	-0.531683
12295.5	-0.531614
12295.6	-0.531601
12295.6	-0.531581
12295.7	-0.531563
12295.7	-0.531546
12295.8	-0.531528
12295.8	-0.531511
12295.9	-0.531494
12295.9	-0.531475
12296	-0.531455
12296	-0.531436
12296.1	-0.531415
12296.2	-0.531393
12296.2	-0.531372
12296.3	-0.531351
12296.3	-0.531349
12296.3	-0.531348
12296.3	-0.531346
12296.3	-0.531345
12296.3	-0.531343
12296.3	-0.531342
12296.3	-0.53134
12296.3	-0.531338
12296.3	-0.531337
12296.6	-0.531257
12296.8	-0.531177
12297	-0.531096
12297	-0.531095
12297	-0.531094
12297	-0.531093
12297	-0.531091
12297	-0.53109
12297.1	-0.531089
12297.1	-0.531088
12297.1	-0.531086
12297.1	-0.531085
12297.1	-0.531084
12297.1	-0.531083
12297.1	-0.531081
12297.1	-0.53108
12297.1	-0.531079
12297.1	-0.531078
12297.1	-0.531076
12297.1	-0.531075
12297.1	-0.531074
12297.1	-0.531073
12297.1	-0.531071
12297.1	-0.53107
12297.1	-0.531069
12297.1	-0.531068
12297.1	-0.531066
12297.1	-0.531065
12297.1	-0.531064
12297.1	-0.531063
12297.1	-0.531061
12297.1	-0.531059
12297.1	-0.531057
12297.2	-0.531054
12297.2	-0.531044
12297.2	-0.531035
12297.3	-0.53102
12297.3	-0.531004
12297.3	-0.530988
12297.4	-0.530973
12297.4	-0.530957
12297.5	-0.530942
12297.5	-0.530926
12297.6	-0.53091
12297.6	-0.530895
12297.7	-0.530879
12297.7	-0.530864
12297.7	-0.530848
12297.8	-0.53084
12297.8	-0.530839
12297.8	-0.530837
12297.8	-0.530836
12297.8	-0.530835
12297.8	-0.530833
12297.8	-0.530832
12297.8	-0.530831
12297.8	-0.53083
12297.8	-0.530828
12297.8	-0.530827
12297.8	-0.530826
12297.8	-0.530824
12297.8	-0.530823
12297.8	-0.530822
12297.8	-0.530821
12297.8	-0.530819
12297.8	-0.530818
12297.8	-0.530817
12297.9	-0.530789
12298	-0.530746
12298.2	-0.530701
12298.3	-0.530656
12298.4	-0.530608
12298.6	-0.53056
12298.7	-0.53051
12298.9	-0.530459
12299	-0.530409
12299.2	-0.530358
12299.3	-0.530306
12299.5	-0.530255
12299.6	-0.530203
12299.8	-0.530151
12299.9	-0.530098
12300.1	-0.530044
12300.2	-0.529991
12300.4	-0.529937
12300.5	-0.529883
12300.7	-0.529828
12300.9	-0.529772
12301	-0.529715
12301.2	-0.529657
12301.4	-0.529598
12301.4	-0.529598
12301.4	-0.529598
12301.4	-0.529598
12301.4	-0.529598
12301.4	-0.529598
12301.4	-0.529598
12301.4	-0.529598
12301.4	-0.529598
12301.4	-0.529598
12301.4	-0.529598
12301.4	-0.529598
12301.4	-0.529598
12301.4	-0.529598
12301.4	-0.529598
12301.4	-0.529597
12301.4	-0.529597
12301.4	-0.529597
12301.4	-0.529597
12301.4	-0.529597
12301.4	-0.529597
12301.4	-0.529597
12301.4	-0.529597
12301.4	-0.529597
12301.4	-0.529597
12301.4	-0.529597
12301.4	-0.529597
12301.4	-0.529597
12301.4	-0.529597
12301.4	-0.529597
12301.4	-0.529597
12301.4	-0.529597
12301.4	-0.529597
12301.4	-0.529597
12301.4	-0.529597
12301.4	-0.529596
12301.4	-0.529596
12301.4	-0.529596
12301.4	-0.529596
12301.4	-0.529596
12301.4	-0.529596
12301.4	-0.529596
12301.4	-0.529596
12301.4	-0.529596
12301.4	-0.529596
12301.4	-0.529596
12301.4	-0.529595
12301.4	-0.529595
12301.4	-0.529595
12301.4	-0.529595
12301.4	-0.529595
12301.4	-0.529595
12301.4	-0.529595
12301.4	-0.529594
12301.4	-0.529594
12301.4	-0.529594
12301.4	-0.529594
12301.4	-0.529594
12301.4	-0.529594
12301.4	-0.529594
12301.4	-0.529593
12301.4	-0.529593
12301.4	-0.529593
12301.4	-0.529592
12301.4	-0.529592
12301.4	-0.529592
12301.4	-0.529591
12301.4	-0.529591
12301.4	-0.529591
12301.4	-0.52959
12301.4	-0.52959
12301.4	-0.52959
12301.4	-0.529589
12301.4	-0.529589
12301.6	-0.529529
12301.7	-0.529469
12301.8	-0.529461
12301.8	-0.529456
12301.8	-0.529454
12301.8	-0.529453
12301.8	-0.529453
12301.8	-0.529452
12301.8	-0.529452
12301.8	-0.529451
12301.8	-0.529449
12301.8	-0.529448
12301.8	-0.529447
12301.8	-0.529445
12301.8	-0.529444
12301.8	-0.529443
12301.8	-0.529442
12301.8	-0.529439
12301.8	-0.529436
12302	-0.529394
12302.1	-0.529346
12302.2	-0.529298
12302.4	-0.529249
12302.5	-0.529199
12302.7	-0.529147
12302.8	-0.529092
12302.9	-0.529065
12303.1	-0.529003
12303.3	-0.528937
12303.5	-0.528865
12303.7	-0.528793
12303.9	-0.528713
12304.2	-0.528626
12304.4	-0.528535
12304.7	-0.528441
12305	-0.528347
12305.3	-0.528251
12305.5	-0.528153
12305.8	-0.528053
12306.1	-0.527949
12306.1	-0.527948
12306.1	-0.527948
12306.1	-0.527948
12306.1	-0.527948
12306.1	-0.527948
12306.1	-0.527948
12306.1	-0.527948
12306.1	-0.527948
12306.1	-0.527948
12306.1	-0.527948
12306.1	-0.527948
12306.1	-0.527948
12306.1	-0.527948
12306.1	-0.527947
12306.1	-0.527947
12306.1	-0.527947
12306.1	-0.527947
12306.1	-0.527947
12306.1	-0.527947
12306.1	-0.527947
12306.1	-0.527947
12306.1	-0.527947
12306.1	-0.527947
12306.1	-0.527947
12306.1	-0.527947
12306.1	-0.527947
12306.1	-0.527947
12306.1	-0.527947
12306.1	-0.527947
12306.1	-0.527947
12306.1	-0.527947
12306.1	-0.527947
12306.1	-0.527947
12306.1	-0.527947
12306.1	-0.527947
12306.1	-0.527947
12306.1	-0.527947
12306.1	-0.527947
12306.1	-0.527947
12306.1	-0.527947
12306.1	-0.527947
12306.1	-0.527947
12306.1	-0.527947
12306.1	-0.527947
12306.1	-0.527947
12306.1	-0.527947
12306.1	-0.527947
12306.1	-0.527947
12306.1	-0.527947
12306.1	-0.527947
12306.1	-0.527947
12306.1	-0.527947
12306.1	-0.527947
12306.1	-0.527947
12306.1	-0.527947
12306.1	-0.527947
12306.1	-0.527947
12306.1	-0.527947
12306.1	-0.527947
12306.1	-0.527947
12306.1	-0.527947
12306.1	-0.527947
12306.1	-0.527947
12306.1	-0.527947
12306.1	-0.527947
12306.1	-0.527947
12306.1	-0.527947
12306.1	-0.527947
12306.1	-0.527947
12306.1	-0.527947
12306.1	-0.527947
12306.1	-0.527947
12306.1	-0.527947
12306.1	-0.527947
12306.1	-0.527947
12306.1	-0.527947
12306.1	-0.527947
12306.1	-0.527947
12306.1	-0.527947
12306.1	-0.527947
12306.1	-0.527947
12306.1	-0.527947
12306.1	-0.527947
12306.1	-0.527947
12306.1	-0.527947
12306.1	-0.527947
12306.1	-0.527947
12306.1	-0.527947
12306.1	-0.527947
12306.1	-0.527947
12306.1	-0.527947
12306.1	-0.527947
12306.1	-0.527947
12306.1	-0.527947
12306.1	-0.527947
12306.1	-0.527947
12306.1	-0.527947
12306.1	-0.527947
12306.1	-0.527947
12306.1	-0.527947
12306.1	-0.527947
12310	-0.526596
12320	-0.523087
12330.1	-0.519528
12340	-0.515971
12350	-0.512377
12360.1	-0.508736
12370.1	-0.505098
12380.1	-0.501445
12390.2	-0.497734
12400.1	-0.494091
12410.3	-0.490329
12420.1	-0.486703
12430.3	-0.482934
12440.4	-0.479233
12450.4	-0.475539
12460.1	-0.471937
12470	-0.468289
12480.1	-0.464611
12490.1	-0.460938
12500	-0.457309
12510.4	-0.45353
12520.6	-0.449866
12530.4	-0.446342
12540.5	-0.442711
12550.3	-0.439232
12560.5	-0.435636
12570.3	-0.432199
12580.6	-0.428617
12590.4	-0.425203
12600.5	-0.421742
12610.8	-0.41826
12620.2	-0.415079
12630.8	-0.411563
12640.5	-0.408352
12650.3	-0.40513
12660.3	-0.401897
12670.4	-0.398655
12680.6	-0.3954
12690	-0.392454
12700.5	-0.38919
12710.6	-0.386087
12720.9	-0.382949
12730.6	-0.380014
12740.5	-0.377076
12750.8	-0.374041
12760.6	-0.371175
12771.3	-0.368099
12780.9	-0.365375
12790.4	-0.362688
12801.2	-0.359661
12810.7	-0.357052
12820.1	-0.354479
12831	-0.351524
12840.9	-0.348885
12851.1	-0.346176
12860.3	-0.343773
12871.4	-0.340864
12881.1	-0.338367
12890.8	-0.335889
12900.6	-0.333418
12910.5	-0.330944
12920.4	-0.328467
12930.6	-0.325956
12941.1	-0.323381
12950.1	-0.321185
12961.3	-0.318486
12970.9	-0.31618
12980.7	-0.313821
12990.9	-0.311411
13001.3	-0.308954
13011.9	-0.306464
13020.5	-0.304464
13031.3	-0.301964
13042.1	-0.299452
13050.9	-0.297428
13062	-0.294886
13071	-0.292844
13080	-0.290786
13091.6	-0.288175
13101	-0.286052
13110.6	-0.283897
13120.3	-0.28171
13130.2	-0.279494
13140.3	-0.27725
13150.6	-0.274982
13160.9	-0.272694
13171.4	-0.270384
13182	-0.268042
13190.1	-0.266247
13200.4	-0.263879
13211.6	-0.26113
13220.2	-0.258662
13231.9	-0.254012
13241.1	-0.248106
13250.4	-0.237403
13262.9	-0.205501
13272.5	-0.151069
13282.2	-0.0377639
13292	0.198414
13302	0.68892
13312.1	1.70067
13322.2	3.76003
13332.5	7.90291
13342.9	16.1344
13353.4	32.0915
13360.3	49.8699
13370.6	94.2091
13380.9	172.112
13391.2	302.011
13401.5	504.296
13411.8	793.77
13422.2	1170.24
13432.6	1613.76
13443.1	2088.87
13450.2	2403.03
13460.9	2842.92
13471.7	3220.51
13482.6	3519.12
13493.6	3733.19
13500.9	3830.95
13512.1	3917.33
13523.3	3942.21
13530.8	3930.86
13542.2	3880.78
13553.8	3800.27
13561.5	3734.02
13573.3	3621.05
13581.2	3539.19
13593.2	3410.15
13601.4	3321.8
13613.7	3188.9
13622	3102.18
13630.4	3018.92
13643.1	2905.19
13651.7	2840.85
13664.2	2772.97
13672.9	2749.91
13681.8	2753.17
13690.7	2788.56
13704.2	2912.22
13713.3	3043.98
13721.3	3188.32
13730.5	3377.64
13743.6	3670.03
13753.9	3894.91
13762.5	4069.2
13771.9	4234.89
13781.4	4371.93
13793.7	4502.87
13802	4561.83
13810.9	4599.98
13820.2	4615.23
13834.7	4596.67
13844.5	4560.67
13854.3	4509.41
13864.2	4445.54
13874.1	4371.5
13884.1	4289.34
13894.1	4200.77
13904.2	4107.17
13914.3	4009.79
13924.5	3909.7
13934.7	3807.81
13945	3704.85
13950.2	3653.17
13960.6	3549.7
13971	3446.41
13981.5	3343.59
13992.1	3241.47
14002.7	3140.23
14013.4	3040.07
14024.2	2941.27
14034.9	2843.94
14040.3	2795.85
14051.2	2700.82
14062.1	2607.37
14073	2515.52
14084	2425.39
14095	2336.97
14100.5	2293.4
14111.6	2207.48
14122.7	2123.17
14133.8	2040.43
14145	1959.22
14150.6	1919.18
14160.5	1849.34
14171.8	1771.56
14181.7	1704.99
14193.1	1629.71
14204.6	1555.69
14210.1	1520.68
14225.7	1423.8
14231.5	1388.54
14241.4	1328.87
14251.8	1268.01
14262.8	1205
14273.5	1144.76
14284	1086.99
14294.4	1030.89
14304.6	977.019
14315.2	921.704
14320.5	894.636
14331.3	840.034
14342.8	783.006
14350.6	745.175
14362.3	689.096
14371.1	647.719
14380.7	603.565
14394.6	540.397
14401	512.317
14414.1	454.63
14422.6	418.327
14431.2	382.179
14443.6	330.353
14451.9	296.644
14460	263.913
14472	216.494
14480.2	184.454
14495.1	127.723
14501.9	102.038
14510	72.1258
14520	35.5591
14530.1	-0.738959
14540.2	-36.4005
14550.2	-71.5187
14560.1	-105.166
14570.4	-140.048
14580.2	-172.828
14590.2	-205.817
14600.4	-238.643
14610	-269.329
14620	-300.8
14630	-331.833
14640.1	-362.564
14650.2	-392.93
14660.2	-422.685
14670.1	-451.682
14680.4	-481.433
14690.1	-508.956
14700.2	-537.057
14710.4	-565.321
14720.4	-592.547
14730.7	-620.108
14740.2	-645.292
14750.5	-672.271
14760.7	-698.389
14770.7	-723.687
14781.1	-749.768
14791	-773.997
14800.1	-796.003
14810.9	-821.976
14820.8	-845.226
14831.1	-868.913
14840.1	-889.553
14850	-911.754
14860	-933.837
14870	-955.55
14880	-976.897
14890.1	-997.921
14900.1	-1018.5
14910.1	-1038.71
14920.1	-1058.3
14930.1	-1077.6
14940	-1096.4
14950	-1114.76
14960	-1132.72
14970.1	-1150.29
14980	-1167.25
14990	-1183.82
15000	-1199.85
15010.1	-1215.38
15020	-1230.31
15030.2	-1245.03
15040.1	-1258.69
15050.1	-1272.05
15060.1	-1284.73
15070.4	-1297.08
15080	-1308.13
15090.4	-1319.38
15100.2	-1329.29
15110.2	-1338.78
15120.2	-1347.51
15130.1	-1355.55
15140.3	-1363.02
15150	-1369.5
15160.5	-1375.65
15170.2	-1380.64
15180.3	-1385.07
15190.3	-1388.67
15200.1	-1391.48
15210.7	-1393.68
15220.9	-1395
15230.7	-1395.53
15241	-1395.33
15250.6	-1394.46
15260.6	-1392.85
15271	-1390.43
15280.5	-1387.61
15290.3	-1384.09
15300.5	-1379.84
15311.1	-1374.81
15320.5	-1369.85
15330.3	-1364.23
15340.6	-1357.88
15351.3	-1350.78
15360.6	-1344.35
15370	-1337.47
15381.7	-1328.7
15391.7	-1320.96
15401.9	-1312.87
15410.3	-1306.15
15420.7	-1297.77
15431.7	-1288.86
15442.1	-1280.48
15451.3	-1273.1
15460	-1266.15
15470.1	-1258.2
15480.3	-1250.41
15490.5	-1242.7
15500	-1235.67
15510.7	-1228.07
15520.8	-1221.1
15531.3	-1214.08
15541.7	-1207.37
15551.6	-1201.24
15560.5	-1195.95
15570.4	-1190.29
15581.2	-1184.36
15590.8	-1179.34
15601.5	-1173.97
15610.6	-1169.61
15623	-1163.93
15631.9	-1160.02
15642.5	-1155.54
15652.5	-1151.52
15662.7	-1147.56
15673.2	-1143.66
15680.4	-1141.1
15691.3	-1137.29
15702.6	-1133.53
15710.2	-1131.06
15722	-1127.38
15730	-1124.96
15742.4	-1121.37
15750.8	-1119.01
15762.3	-1115.92
15771.2	-1113.64
15780.2	-1111.41
15794	-1108.16
15803.5	-1106.08
15812.2	-1104.27
15824.9	-1101.81
15832.1	-1100.53
15841.7	-1098.92
15852	-1097.39
15862.5	-1096
15873.3	-1094.8
15880.6	-1094.1
15890.1	-1093.35
15900.7	-1092.74
15910.7	-1092.36
15920.7	-1092.19
15931.5	-1092.24
15941.2	-1092.51
15954.1	-1093.19
15965	-1094
15973	-1094.72
15980.7	-1095.53
15990.9	-1096.75
16003.5	-1098.53
16015.9	-1100.55
16021.9	-1101.63
16033.9	-1103.99
16045.5	-1106.49
16051.3	-1107.84
16062.7	-1110.69
16074	-1113.71
16085.9	-1117.12
16091.7	-1118.88
16101.5	-1121.97
16112.8	-1125.7
16123.8	-1129.55
16134.6	-1133.49
16142.5	-1136.43
16155.9	-1141.67
16161.6	-1143.95
16171.3	-1147.96
16185.1	-1153.79
16193.2	-1157.34
16200.3	-1160.5
16212.9	-1166.22
16220.3	-1169.68
16234.8	-1176.57
16241.9	-1180.01
16254.3	-1186.14
16260.5	-1189.29
16270.1	-1194.18
16286.3	-1202.67
16292.7	-1206.07
16305.2	-1212.82
16311.3	-1216.17
16325.8	-1224.26
16332.9	-1228.27
16340	-1232.35
16354.7	-1240.89
16361.5	-1244.94
16376.2	-1253.75
16382.9	-1257.79
16395.8	-1265.78
16402.2	-1269.74
16414.9	-1277.75
16421.4	-1281.94
16430.9	-1288.03
16445.3	-1297.47
16450.1	-1300.66
16460.9	-1307.83
16470.5	-1314.32
16480.7	-1321.25
16493.4	-1330.03
16502.7	-1336.51
16513.5	-1344.16
16527.3	-1353.94
16533.5	-1358.43
16544.5	-1366.37
16550.1	-1370.45
16564.2	-1380.88
16572.6	-1387.07
16580.9	-1393.3
16591.5	-1401.33
16600.9	-1408.5
16610.2	-1415.61
16623	-1425.49
16630.8	-1431.58
16640	-1438.77
16650.1	-1446.69
16660.1	-1454.64
16670.1	-1462.67
16680.1	-1470.73
16690	-1478.76
16700.4	-1487.18
16710.2	-1495.2
16720.6	-1503.79
16730	-1511.58
16740.7	-1520.51
16750.1	-1528.32
16760.1	-1536.75
16770.4	-1545.41
16780.8	-1554.18
16790.1	-1562.12
16800.7	-1571.13
16810.6	-1579.58
16820.8	-1588.33
16830.2	-1596.44
16841	-1605.73
16850.1	-1613.55
16860.8	-1622.82
16870.8	-1631.46
16881.2	-1640.45
16890.7	-1648.68
16900.7	-1657.37
16911.4	-1666.59
16921	-1674.96
16931.2	-1683.78
16940.1	-1691.53
16951.4	-1701.34
16961.4	-1709.98
16971.9	-1719.05
16980.6	-1726.62
16992.1	-1736.51
17001.8	-1744.86
17012.2	-1753.87
17020.4	-1760.93
17031.8	-1770.67
17040.6	-1778.22
17052.7	-1788.65
17062.2	-1796.73
17071.1	-1804.35
17081.1	-1812.86
17091.4	-1821.58
17100.9	-1829.67
17111.8	-1838.84
17121.6	-1847.18
17133.8	-1857.41
17142.1	-1864.39
17150.3	-1871.26
17163.4	-1882.18
17172.4	-1889.64
17181.5	-1897.25
17190	-1904.3
17200.3	-1912.74
17210	-1920.76
17220.2	-1929.14
17230.1	-1937.2
17240.3	-1945.48
17250.4	-1953.68
17261.1	-1962.33
17270.6	-1969.95
17280.5	-1977.92
17290	-1985.5
17300.2	-1993.6
17310.1	-2001.43
17320.2	-2009.47
17330.8	-2017.75
17340.8	-2025.62
17351.1	-2033.64
17360.1	-2040.64
17370	-2048.38
17380.8	-2056.71
17390.7	-2064.34
17402.1	-2073.17
17410.8	-2079.79
17421.6	-2088.07
17430.5	-2094.94
17440.3	-2102.37
17450.4	-2110.14
17460.2	-2117.6
17470.6	-2125.49
17480.1	-2132.73
17490.3	-2140.58
17500.2	-2148.15
17511.1	-2156.47
17521.2	-2164.22
17532	-2172.44
17540.6	-2179.06
17551.3	-2187.25
17560.1	-2194.04
17570.3	-2201.91
17581.9	-2210.89
17593.8	-2220.02
17601	-2225.59
17613.2	-2235.09
17620.5	-2240.76
17634.9	-2251.95
17641.9	-2257.4
17653.8	-2266.68
17660.7	-2272.05
17673.8	-2282.31
17680.6	-2287.67
17693.9	-2298.15
17704	-2306.07
17713.9	-2313.92
17724.1	-2321.98
17730.5	-2327.02
17740.6	-2334.95
17753.1	-2344.83
17761.8	-2351.72
17772.8	-2360.4
17782.7	-2368.21
17790.2	-2374.13
17800.4	-2382.21
17810.1	-2389.83
17820.1	-2397.6
17830.2	-2405.57
17840.4	-2413.49
17850	-2420.96
17860	-2428.74
17870	-2436.49
17880.2	-2444.3
17890.2	-2451.98
17900.3	-2459.67
17910.1	-2467.08
17920.1	-2474.62
17930.1	-2482.1
17940.3	-2489.69
17950	-2496.9
17960.3	-2504.47
17970.6	-2512.08
17980.4	-2519.25
17990	-2526.3
18000	-2533.61
18010.1	-2540.97
18020.1	-2548.21
18030.2	-2555.54
18040.9	-2563.22
18051	-2570.43
18061.4	-2577.77
18070.3	-2584.01
18081	-2591.41
18090.3	-2597.7
18100.4	-2604.37
18111.1	-2611.25
18120.2	-2616.86
18132.3	-2623.94
18142.4	-2629.5
18150.2	-2633.51
18161	-2638.64
18172	-2643.3
18180.6	-2646.52
18192.6	-2650.39
18202.1	-2652.89
18212.3	-2655
18222.9	-2656.62
18230.3	-2657.39
18241.5	-2658.06
18253	-2658.18
18260.7	-2657.98
18272.5	-2657.33
18280.4	-2656.71
18290.2	-2655.83
18300	-2654.88
18310	-2653.95
18320	-2653.15
18330	-2652.55
18340	-2652.25
18350	-2652.32
18360.1	-2652.83
18370.1	-2653.83
18380.1	-2655.39
18390.2	-2657.53
18400.1	-2660.23
18410	-2663.55
18420.3	-2667.64
18430.3	-2672.25
18440.1	-2677.38
18450.5	-2683.41
18460.2	-2689.67
18470.2	-2696.64
18480.4	-2704.28
18490	-2711.95
18500.2	-2720.59
18510.3	-2729.58
18520.2	-2738.79
18530.7	-2748.9
18540.8	-2759.07
18550.6	-2769.16
18560.8	-2780.02
18570.6	-2790.58
18580.7	-2801.84
18590.3	-2812.57
18600.2	-2823.89
18610.5	-2835.81
18620	-2846.9
18631.1	-2859.93
18640	-2870.39
18650.5	-2882.85
18660.1	-2894.12
18671.3	-2907.41
18681.4	-2919.39
18690.3	-2929.91
18701	-2942.45
18710.4	-2953.45
18720	-2964.69
18731.6	-2978.07
18740	-2987.79
18750.4	-2999.6
18761.1	-3011.53
18770.2	-3021.51
18781.4	-3033.42
18790.9	-3043.16
18800.6	-3052.51
18810.6	-3061.14
18820.8	-3068.54
18831.2	-3073.96
18841.8	-3076.29
18850.5	-3074.91
18861.6	-3067.48
18870.6	-3055.48
18882.2	-3030.67
18891.6	-3001.37
18901.2	-2962.53
18910.9	-2913.98
18920.8	-2856.25
18930.9	-2790.22
18941.2	-2718.15
18951.7	-2643.29
18962.3	-2569.42
18970.4	-2516.97
18981.4	-2453.8
18991.2	-2406.92
19002.5	-2364.58
19011.2	-2341.51
19022.9	-2322.75
19031.8	-2317.51
19040.9	-2319.42
19050	-2327.94
19062.5	-2348.51
19072	-2369.94
19081.6	-2395.75
19091.3	-2424.89
19101	-2455.92
19111	-2489.7
19121.2	-2525.14
19131	-2560.1
19141.4	-2597.65
19152	-2635.91
19162.4	-2673.19
19173	-2710.74
19180.4	-2735.98
19191.5	-2774.04
19202.8	-2814.96
19210.4	-2841.33
19222	-2879.45
19233.7	-2915.86
19241.6	-2939.25
19253.7	-2972.85
19261.8	-2994.48
19274.1	-3025.63
19282.4	-3045.64
19290.8	-3065.12
19303.5	-3093.46
19312.1	-3111.83
19321.3	-3130.91
19330	-3148.51
19343.3	-3174.23
19352.2	-3190.95
19361.3	-3207.29
19370.4	-3223.33
19384.2	-3246.92
19393.5	-3262.38
19402.9	-3277.64
19412.4	-3292.7
19423.6	-3310.09
19433.3	-3324.93
19443.1	-3339.67
19453	-3354.28
19463	-3368.74
19473	-3383.06
19483.2	-3397.25
19492.3	-3409.85
19502.7	-3423.92
19513.2	-3438
19523.8	-3452.15
19534.5	-3466.42
19540.4	-3474.38
19551.1	-3488.55
19561.3	-3502.15
19572.1	-3516.4
19580	-3526.94
19590	-3540.13
19600	-3553.23
19610.2	-3566.44
19620.4	-3579.59
19630	-3591.88
19640.4	-3604.86
19650.3	-3617.04
19660.5	-3629.49
19670.4	-3641.36
19681.4	-3654.42
19690.3	-3665.09
19700.6	-3677.21
19710.1	-3688.17
19721.7	-3701.4
19730.6	-3710.91
19740.4	-3721.82
19750.9	-3736.55
19762.3	-3754.12
19770.4	-3767.73
19780	-3784.13
19790.1	-3801.22
19800	-3817.7
19810.5	-3834.31
19820.4	-3849.39
19830.5	-3864.1
19840.2	-3878.99
19850.7	-3896.46
19860.1	-3911.64
19870.1	-3927.15
19880	-3941.8
19890	-3960.63
19900	-3979.96
19910	-3996.54
19920	-4010.77
19930.1	-4023.25
19940.1	-4034.16
19950.3	-4043.87
19960	-4052.1
19970.1	-4059.64
19980	-4066.23
19990.4	-4072.23
