0	0
11.8196	0
23.6393	0
35.4589	0
41.3687	0
53.1883	0
65.008	0
70.9178	0
82.7374	0
94.557	0
100.467	0
112.286	0
124.106	0
130.016	0
141.836	0
153.655	0
165.475	0
171.385	0
183.204	0
195.024	0
200.934	0
212.753	0
224.573	0
230.483	0
242.302	0
254.122	0
260.032	0
271.851	0
283.671	0
295.491	0
301.401	0
313.22	0
325.04	0
330.95	0
342.769	0
354.589	0
360.499	0
372.318	0
384.138	0
390.048	0
401.867	0
413.687	0
425.507	0
431.416	0
443.236	0
455.056	0
460.966	0
472.785	0
484.605	0
490.515	0
502.334	0
514.154	0
520.064	0
531.883	0
543.703	0
555.523	0
561.432	0
573.252	0
585.072	0
590.981	0
602.801	0
614.621	0
620.53	0
632.35	0
644.17	0
650.08	0
661.899	0
673.719	0
685.538	0
691.448	0
703.268	0
715.088	0
720.997	0
732.817	0
744.637	0
750.546	0
762.366	0
774.186	0
780.095	0
791.915	0
803.735	0
815.554	0
821.464	0
833.284	0
845.103	0
851.013	0
862.833	0
874.652	0
880.562	0
892.382	0
904.202	0
910.111	0
921.931	0
933.751	0
945.57	0
951.48	0
963.3	0
975.119	0
981.029	0
992.849	0
1004.67	0
1010.58	0
1022.4	0
1034.22	0
1040.13	0
1051.95	0
1063.77	0
1075.59	0
1081.5	0
1093.32	0
1105.14	0
1111.05	0
1122.86	0
1134.68	0
1140.59	0
1152.41	0
1164.23	0
1170.14	0
1181.96	0
1193.78	0
1205.6	0
1211.51	0
1223.33	0
1235.15	0
1241.06	0
1252.88	0
1264.7	0
1270.61	0
1282.43	0
1294.25	0
1300.16	0
1311.98	0
1323.8	0
1335.62	0
1341.53	0
1353.35	0
1365.17	0
1371.08	0
1382.9	0
1394.72	0
1400.63	0
1412.45	0
1424.27	0
1430.18	0
1441.99	0
1453.81	0
1465.63	0
1471.54	0
1483.36	0
1495.18	0
1501.09	0
1512.91	0
1524.73	0
1530.64	0
1542.46	0
1554.28	0
1560.19	0
1572.01	0
1583.83	0
1595.65	0
1601.56	0
1613.38	0
1625.2	0
1631.11	0
1642.93	0
1654.75	0
1660.66	0
1672.48	0
1684.3	0
1690.21	0
1702.03	0
1713.85	0
1725.67	0
1731.58	0
1743.4	0
1755.21	0
1761.12	0
1772.94	0
1784.76	0
1790.67	0
1802.49	0
1814.31	0
1820.22	0
1832.04	0
1843.86	0
1855.68	0
1861.59	0
1873.41	0
1885.23	0
1891.14	0
1902.96	0
1914.78	0
1920.69	0
1932.51	0
1944.33	0
1950.24	0
1962.06	0
1973.88	0
1985.7	0
1991.61	0
2003.43	0
2015.25	0
2021.16	0
2032.98	0
2044.8	0
2050.71	0
2062.53	0
2074.34	0
2080.25	0
2092.07	0
2103.89	0
2115.71	0
2121.62	0
2133.44	0
2145.26	0
2151.17	0
2162.99	0
2174.81	-9.09495e-13
2180.72	-1.81899e-12
2192.54	-3.63798e-12
2204.36	-5.45697e-12
2210.27	-6.36646e-12
2222.09	-8.18545e-12
2233.91	-1.00044e-11
2245.73	-1.36424e-11
2251.64	-1.54614e-11
2263.46	-2.09184e-11
2275.28	-2.72848e-11
2281.19	-3.09228e-11
2293.01	-4.09273e-11
2304.83	-5.27507e-11
2310.74	-6.09361e-11
2322.56	-8.00355e-11
2334.38	-1.05501e-10
2340.29	-1.20963e-10
2352.11	-1.58252e-10
2363.93	-2.06455e-10
2375.75	-2.68301e-10
2381.66	-3.0559e-10
2393.47	-3.9654e-10
2405.29	-5.12955e-10
2411.2	-5.82986e-10
2423.02	-7.51243e-10
2434.84	-9.65883e-10
2440.75	-1.09412e-09
2452.57	-1.40062e-09
2464.39	-1.78716e-09
2470.3	-2.01726e-09
2482.12	-2.56387e-09
2493.94	-3.24962e-09
2505.76	-4.10637e-09
2511.67	-4.61114e-09
2523.49	-5.80167e-09
2535.31	-7.2796e-09
2541.22	-8.14634e-09
2553.04	-1.01818e-08
2564.86	-1.26911e-08
2570.77	-1.41545e-08
2582.59	-1.75723e-08
2594.41	-2.17597e-08
2600.32	-2.41898e-08
2612.14	-2.98369e-08
2623.96	-3.67099e-08
2635.78	-4.50527e-08
2641.69	-4.9864e-08
2653.51	-6.09689e-08
2665.33	-7.43657e-08
2671.24	-8.20564e-08
2683.06	-9.97243e-08
2694.88	-1.20908e-07
2700.79	-1.33015e-07
2712.6	-1.60701e-07
2724.42	-1.93702e-07
2730.33	-2.1248e-07
2742.15	-2.55237e-07
2753.97	-3.05907e-07
2765.79	-3.65818e-07
2771.7	-3.99707e-07
2783.52	-4.76412e-07
2795.34	-5.66601e-07
2801.25	-6.1741e-07
2813.07	-7.31933e-07
2824.89	-8.65863e-07
2830.8	-9.41014e-07
2842.62	-1.10972e-06
2854.44	-1.30597e-06
2860.35	-1.41566e-06
2872.17	-1.66093e-06
2883.99	-1.94479e-06
2895.81	-2.27263e-06
2901.72	-2.45491e-06
2913.54	-2.86029e-06
2925.36	-3.32616e-06
2931.27	-3.58424e-06
2943.09	-4.15606e-06
2954.91	-4.80999e-06
2960.82	-5.17095e-06
2972.64	-5.96782e-06
2984.46	-6.87477e-06
2990.37	-7.37363e-06
3002.18	-8.47103e-06
3014	-9.71421e-06
3025.82	-1.11199e-05
3031.73	-1.18895e-05
3043.55	-1.3574e-05
3055.37	-1.54701e-05
3061.28	-1.65046e-05
3073.1	-1.87615e-05
3084.92	-2.12906e-05
3090.83	-2.26658e-05
3102.65	-2.56561e-05
3114.47	-2.89925e-05
3120.38	-3.08007e-05
3132.2	-3.47197e-05
3144.02	-3.90733e-05
3155.84	-4.39012e-05
3161.75	-4.65063e-05
3173.57	-5.21265e-05
3185.39	-5.83327e-05
3191.3	-6.16709e-05
3203.12	-6.88496e-05
3214.94	-7.67432e-05
3220.85	-8.09757e-05
3232.67	-9.00488e-05
3244.48	-9.99834e-05
3250.39	-0.000105294
3262.21	-0.000116641
3274.03	-0.000129013
3285.85	-0.000142481
3291.76	-0.000149648
3303.58	-0.000164894
3315.4	-0.00018142
3321.31	-0.000190186
3333.13	-0.000208775
3344.95	-0.000228837
3350.86	-0.000239445
3362.68	-0.000261865
3374.5	-0.000285957
3380.41	-0.000298654
3392.23	-0.000325398
3404.05	-0.000354007
3415.87	-0.000384554
3421.78	-0.000400576
3433.6	-0.000434159
3445.41	-0.000469847
3451.32	-0.000488499
3463.14	-0.000527449
3474.96	-0.000568635
3480.87	-0.000590077
3492.69	-0.00063468
3504.51	-0.000681591
3510.42	-0.000705915
3522.24	-0.000756299
3534.06	-0.000808982
3545.88	-0.000863936
3551.79	-0.000892249
3563.61	-0.000950505
3575.43	-0.00101087
3581.34	-0.0010418
3593.16	-0.00110511
3604.98	-0.0011702
3610.89	-0.00120336
3622.7	-0.00127079
3634.52	-0.00133949
3640.43	-0.00137424
3652.25	-0.00144436
3664.07	-0.00151501
3675.89	-0.00158584
3681.8	-0.0016212
3693.62	-0.0016915
3705.44	-0.00176085
3711.35	-0.001795
3723.17	-0.0018619
3734.99	-0.00192638
3740.9	-0.00195751
3752.72	-0.00201707
3764.53	-0.0020724
3770.44	-0.00209821
3782.26	-0.00214556
3794.08	-0.00218644
3805.9	-0.0022198
3811.81	-0.00223333
3823.63	-0.00225336
3835.45	-0.002263
3841.36	-0.00226352
3853.18	-0.00225514
3865	-0.00223301
3870.91	-0.00221633
3882.73	-0.00217075
3894.55	-0.00210756
3900.46	-0.00206883
3912.27	-0.00197602
3924.09	-0.00186123
3930	-0.001795
3941.82	-0.00164368
3953.64	-0.00146552
3965.46	-0.00125846
3971.37	-0.00114342
3983.19	-0.000888977
3995.01	-0.000600157
4000.92	-0.000442143
4012.74	-9.74443e-05
4024.56	0.000287466
4030.47	0.000495756
4042.29	0.000945539
4054.1	0.00144166
4060.01	0.00170788
4071.83	0.00227823
4083.65	0.00290122
4095.47	0.00357941
4101.38	0.00394
4113.2	0.00470576
4125.02	0.00553305
4130.93	0.00597056
4142.75	0.00689485
4154.57	0.00788687
4160.48	0.00840902
4172.3	0.00950708
4184.12	0.0106787
4190.03	0.0112928
4201.85	0.0125789
4213.66	0.0139439
4225.48	0.0153897
4231.39	0.0161435
4243.21	0.0177139
4255.03	0.0193693
4260.94	0.0202294
4272.76	0.0220151
4284.58	0.0238892
4290.49	0.0248596
4302.31	0.0268678
4314.13	0.0289664
4320.04	0.0300497
4331.86	0.0322845
4343.68	0.0346103
4355.5	0.0370268
4361.41	0.038269
4373.23	0.0408207
4385.05	0.0434617
4390.95	0.0448152
4402.77	0.0475876
4414.59	0.0504457
4420.5	0.0519064
4432.32	0.0548895
4444.14	0.0579531
4450.05	0.0595142
4461.87	0.0626934
4473.69	0.0659459
4485.51	0.0692681
4491.42	0.0709543
4503.24	0.0743741
4515.06	0.0778538
4520.97	0.0796147
4532.79	0.0831756
4544.61	0.0867845
4550.52	0.0886053
4562.34	0.0922763
4574.16	0.0959816
4580.07	0.0978453
4591.89	0.101591
4603.71	0.105356
4615.53	0.109133
4621.44	0.111024
4633.26	0.114807
4645.08	0.118586
4650.98	0.120471
4662.8	0.124229
4674.62	0.127964
4680.53	0.129821
4692.35	0.133507
4704.17	0.137151
4710.08	0.138954
4721.9	0.14252
4733.72	0.146025
4745.54	0.14946
4751.45	0.151149
4763.27	0.154465
4775.09	0.157692
4781	0.15927
4792.82	0.162349
4804.64	0.16532
4810.55	0.166763
4822.37	0.169558
4834.19	0.172227
4840.1	0.173512
4851.92	0.175979
4863.74	0.178302
4875.56	0.180477
4881.47	0.181506
4893.29	0.183444
4905.11	0.185219
4911.02	0.186042
4922.84	0.187561
4934.66	0.188903
4940.57	0.189506
4952.38	0.190575
4964.2	0.191456
4970.11	0.191826
4981.93	0.192421
4993.75	0.192822
5005.57	0.193026
5011.48	0.193053
5023.3	0.192958
5035.12	0.192663
5041.03	0.192439
5052.85	0.191842
5064.67	0.191042
5070.58	0.190567
5082.4	0.189466
5094.22	0.188166
5100.13	0.187442
5111.95	0.185845
5123.77	0.184054
5135.59	0.182071
5141.5	0.181008
5153.32	0.178743
5165.14	0.176295
5171.05	0.175004
5182.87	0.172289
5194.69	0.169402
5200.6	0.167896
5212.42	0.164761
5224.24	0.161468
5230.15	0.159764
5241.96	0.156245
5253.78	0.152584
5265.6	0.148786
5271.51	0.146839
5283.33	0.142851
5295.15	0.138746
5301.06	0.136652
5312.88	0.132384
5324.7	0.128018
5330.61	0.125801
5342.43	0.121302
5354.25	0.116726
5360.16	0.114411
5371.98	0.109732
5383.8	0.104996
5395.62	0.100211
5401.53	0.0978028
5413.35	0.0929596
5425.17	0.0880881
5431.08	0.0856443
5442.9	0.0807457
5454.72	0.0758391
5460.63	0.0733854
5472.45	0.0684819
5484.27	0.0635902
5490.18	0.0611512
5502	0.0562913
5513.82	0.0514619
5525.63	0.0466701
5531.54	0.0442905
5543.36	0.0395678
5555.18	0.0348995
5561.09	0.0325877
5572.91	0.0280126
5584.73	0.023507
5590.64	0.021282
5602.46	0.0168909
5614.28	0.0125826
5620.19	0.0104611
5632.01	0.00628594
5643.83	0.00220505
5655.65	-0.0017776
5661.56	-0.00373093
5673.38	-0.00755944
5685.2	-0.0112811
5691.11	-0.013101
5702.93	-0.0166573
5714.75	-0.0201002
5720.66	-0.0217785
5732.48	-0.0250478
5744.3	-0.0281992
5750.21	-0.0297303
5762.03	-0.0327027
5773.85	-0.0355549
5785.67	-0.0382862
5791.58	-0.0396064
5803.4	-0.0421562
5815.22	-0.0445852
5821.13	-0.0457546
5832.94	-0.0480035
5844.76	-0.0501333
5850.67	-0.0511539
5862.49	-0.0531073
5874.31	-0.0549448
5880.22	-0.0558206
5892.04	-0.0574876
5903.86	-0.0590432
5915.68	-0.0604897
5921.59	-0.0611727
5933.41	-0.0624598
5945.23	-0.0636438
5951.14	-0.0641979
5962.96	-0.0652322
5974.78	-0.0661702
5980.69	-0.066604
5992.51	-0.0674032
6004.33	-0.0681136
6010.24	-0.0684364
6022.06	-0.0690196
6033.88	-0.0695219
6045.7	-0.0699466
6051.61	-0.0701308
6063.43	-0.0704453
6075.25	-0.0706903
6081.16	-0.0707879
6092.98	-0.070935
6104.8	-0.071021
6110.71	-0.0710421
6122.53	-0.0710423
6134.34	-0.0709895
6140.25	-0.0709441
6152.07	-0.0708174
6163.89	-0.0706453
6175.71	-0.0704308
6181.62	-0.0703086
6193.44	-0.070036
6205.26	-0.0697282
6211.17	-0.069562
6222.99	-0.0692064
6234.81	-0.0688223
6240.72	-0.0686202
6252.54	-0.0681979
6264.36	-0.0677529
6270.27	-0.0675227
6282.09	-0.0670482
6293.91	-0.0665565
6305.73	-0.0660498
6311.64	-0.0657913
6323.46	-0.0652653
6335.28	-0.0647287
6341.19	-0.0644569
6353.01	-0.0639074
6364.83	-0.0633511
6370.74	-0.0630708
6382.56	-0.0625068
6394.38	-0.0619393
6400.29	-0.0616545
6412.11	-0.0610837
6423.93	-0.0605119
6435.75	-0.0599399
6441.65	-0.0596542
6453.47	-0.0590835
6465.29	-0.0585146
6471.2	-0.0582309
6483.02	-0.0576656
6494.84	-0.0571033
6500.75	-0.0568233
6512.57	-0.0562662
6524.39	-0.0557129
6530.3	-0.0554378
6542.12	-0.0548907
6553.94	-0.0543478
6565.76	-0.0538094
6571.67	-0.0535418
6583.49	-0.05301
6595.31	-0.0524827
6601.22	-0.0522206
6613.04	-0.0516997
6624.86	-0.0511829
6630.77	-0.050926
6642.59	-0.0504152
6654.41	-0.0499082
6660.32	-0.049656
6672.14	-0.0491541
6683.96	-0.0486555
6695.78	-0.0481598
6701.69	-0.047913
6713.51	-0.0474213
6725.33	-0.0469318
6731.24	-0.0466879
6743.06	-0.0462014
6754.88	-0.0457165
6760.79	-0.0454746
6772.6	-0.0449917
6784.42	-0.0445098
6790.33	-0.0442691
6802.15	-0.0437882
6813.97	-0.0433077
6825.79	-0.0428274
6831.7	-0.0425872
6843.52	-0.0421068
6855.34	-0.0416262
6861.25	-0.0413857
6873.07	-0.0409043
6884.89	-0.0404223
6890.8	-0.040181
6902.62	-0.0396978
6914.44	-0.0392138
6920.35	-0.0389715
6932.17	-0.0384861
6943.99	-0.0379997
6955.81	-0.0375125
6961.72	-0.0372685
6973.54	-0.0367798
6985.36	-0.0362903
6991.27	-0.0360453
7003.09	-0.0355547
7014.91	-0.0350635
7020.82	-0.0348177
7032.64	-0.0343258
7044.46	-0.0338337
7050.37	-0.0335876
7062.19	-0.0330955
7074.01	-0.0326037
7085.83	-0.0321123
7091.74	-0.0318669
7103.55	-0.0313767
7115.37	-0.0308877
7121.28	-0.0306436
7133.1	-0.0301568
7144.92	-0.0296718
7150.83	-0.0294301
7162.65	-0.0289484
7174.47	-0.0284694
7180.38	-0.028231
7192.2	-0.0277565
7204.02	-0.0272856
7215.84	-0.0268184
7221.75	-0.0265864
7233.57	-0.0261256
7245.39	-0.0256696
7251.3	-0.0254434
7263.12	-0.0249951
7274.94	-0.0245524
7280.85	-0.0243332
7292.67	-0.0238995
7304.49	-0.0234722
7310.4	-0.0232611
7322.22	-0.0228442
7334.04	-0.0224346
7345.86	-0.0220325
7351.77	-0.0218345
7363.59	-0.0214444
7375.41	-0.0210628
7381.32	-0.0208752
7393.14	-0.0205066
7404.96	-0.0201471
7410.87	-0.0199708
7422.68	-0.0196253
7434.5	-0.0192895
7440.41	-0.0191253
7452.23	-0.0188043
7464.05	-0.0184935
7475.87	-0.018193
7481.78	-0.0180467
7493.6	-0.017762
7505.42	-0.0174879
7511.33	-0.0173549
7523.15	-0.0170971
7534.97	-0.0168501
7540.88	-0.0167307
7552.7	-0.0165001
7564.52	-0.0162806
7570.43	-0.0161749
7582.25	-0.0159718
7594.07	-0.0157797
7605.89	-0.0155985
7611.8	-0.0155119
7623.62	-0.015347
7635.44	-0.0151927
7641.35	-0.0151195
7653.17	-0.0149811
7664.99	-0.0148531
7670.9	-0.0147929
7682.72	-0.0146801
7694.54	-0.0145772
7700.44	-0.0145294
7712.26	-0.014441
7724.08	-0.014362
7735.9	-0.0142921
7741.81	-0.0142604
7753.63	-0.0142037
7765.45	-0.0141553
7771.36	-0.0141341
7783.18	-0.0140978
7795	-0.014069
7800.91	-0.0140574
7812.73	-0.0140394
7824.55	-0.0140281
7830.46	-0.0140249
7842.28	-0.0140229
7854.1	-0.0140268
7860.01	-0.0140308
7871.83	-0.0140426
7883.65	-0.0140591
7895.47	-0.01408
7901.38	-0.014092
7913.2	-0.0141186
7925.02	-0.0141486
7930.93	-0.0141646
7942.75	-0.0141987
7954.57	-0.0142351
7960.48	-0.0142539
7972.29	-0.0142927
7984.11	-0.0143327
7990.02	-0.014353
8001.84	-0.0143939
8013.66	-0.0144348
8025.48	-0.0144754
8031.39	-0.0144954
8043.21	-0.0145346
8055.03	-0.0145724
8060.94	-0.0145907
8072.76	-0.0146256
8084.58	-0.0146581
8090.49	-0.0146734
8102.31	-0.0147015
8114.13	-0.0147263
8120.04	-0.0147373
8131.86	-0.0147564
8143.68	-0.0147711
8155.5	-0.0147813
8161.41	-0.0147845
8173.23	-0.0147871
8185.05	-0.0147843
8190.96	-0.0147808
8202.78	-0.0147693
8214.6	-0.0147517
8220.51	-0.0147406
8232.33	-0.0147133
8244.14	-0.0146793
8250.05	-0.0146596
8261.87	-0.0146151
8273.69	-0.0145632
8285.51	-0.0145039
8291.42	-0.0144714
8303.24	-0.0144005
8315.06	-0.0143218
8320.97	-0.0142794
8332.79	-0.0141887
8344.61	-0.0140898
8350.52	-0.0140372
8362.34	-0.0139259
8374.16	-0.0138063
8380.07	-0.0137433
8391.89	-0.013611
8403.71	-0.0134703
8415.53	-0.0133212
8421.44	-0.0132434
8433.26	-0.0130816
8445.08	-0.0129114
8450.99	-0.0128232
8462.81	-0.0126405
8474.63	-0.0124495
8480.54	-0.012351
8492.36	-0.0121478
8504.18	-0.0119367
8510.08	-0.0118281
8521.9	-0.0116052
8533.72	-0.0113745
8545.54	-0.0111364
8551.45	-0.0110145
8563.27	-0.0107654
8575.09	-0.0105091
8581	-0.0103784
8592.82	-0.0101119
8604.64	-0.00983881
8610.55	-0.00969986
8622.37	-0.00941731
8634.19	-0.00912875
8640.1	-0.00898229
8651.92	-0.00868518
8663.74	-0.00838268
8675.56	-0.00807507
8681.47	-0.00791943
8693.29	-0.00760466
8705.11	-0.00728546
8711.02	-0.0071243
8722.84	-0.00679901
8734.66	-0.00647004
8740.57	-0.00630426
8752.39	-0.00597032
8764.21	-0.00563344
8770.12	-0.005464
8781.94	-0.00512331
8793.75	-0.00478047
8805.57	-0.00443579
8811.48	-0.00426286
8823.3	-0.00391602
8835.12	-0.00356813
8841.03	-0.0033939
8852.85	-0.00304505
8864.67	-0.00269594
8870.58	-0.0025214
8882.4	-0.00217251
8894.22	-0.00182417
8900.13	-0.00165029
8911.95	-0.00130334
8923.77	-0.000957692
8935.59	-0.000613662
8941.5	-0.000442347
8953.32	-0.000101302
8965.14	0.000237385
8971.05	0.000405753
8982.87	0.000740359
8994.69	0.00107189
9000.6	0.00123642
9012.42	0.00156283
9024.24	0.00188548
9030.15	0.00204531
9041.97	0.00236184
9053.79	0.00267397
9065.61	0.00298146
9071.51	0.00313338
9083.33	0.00343346
9095.15	0.00372831
9101.06	0.0038737
9112.88	0.0041603
9124.7	0.00444113
9130.61	0.00457932
9142.43	0.00485113
9154.25	0.00511669
9160.16	0.00524707
9171.98	0.0055029
9183.8	0.00575205
9195.62	0.00599435
9201.53	0.00611287
9213.35	0.00634461
9225.17	0.00656912
9231.08	0.00667862
9242.9	0.00689206
9254.72	0.00709796
9260.63	0.00719805
9272.45	0.00739245
9284.27	0.00757904
9290.18	0.00766939
9302	0.00784412
9313.82	0.00801083
9325.64	0.00816947
9331.55	0.00824573
9343.37	0.00839213
9355.19	0.00853029
9361.09	0.00859627
9372.91	0.00872201
9384.73	0.00883942
9390.64	0.008895
9402.46	0.00899987
9414.28	0.00909636
9420.19	0.00914146
9432.01	0.00922536
9443.83	0.00930087
9455.65	0.00936799
9461.56	0.00939841
9473.38	0.00945297
9485.2	0.00949919
9491.11	0.00951917
9502.93	0.00955292
9514.75	0.00957839
9520.66	0.00958804
9532.48	0.00960118
9544.3	0.00960616
9550.21	0.00960561
9562.03	0.00959844
9573.85	0.00958325
9585.67	0.00956009
9591.58	0.00954555
9603.4	0.00951057
9615.22	0.0094678
9621.13	0.00944352
9632.95	0.0093892
9644.77	0.00932729
9650.68	0.00929351
9662.49	0.00922035
9674.31	0.00913981
9680.22	0.0090968
9692.04	0.00900535
9703.86	0.00890674
9715.68	0.00880107
9721.59	0.00874562
9733.41	0.00862954
9745.23	0.00850664
9751.14	0.00844267
9762.96	0.00830974
9774.78	0.00817026
9780.69	0.00809809
9792.51	0.00794897
9804.33	0.00779355
9810.24	0.00771352
9822.06	0.00754887
9833.88	0.0073782
9845.7	0.00720161
9851.61	0.00711114
9863.43	0.0069259
9875.25	0.00673503
9881.16	0.00663751
9892.98	0.0064384
9904.8	0.00623394
9910.71	0.00612974
9922.53	0.00591746
9934.35	0.00570011
9940.26	0.00558958
9952.08	0.00536484
9963.9	0.00513532
9975.71	0.00490113
9981.62	0.00478232
9993.44	0.00454133
10005.3	0.00429596
10011.2	0.00417166
10023	0.00391991
10034.8	0.00366407
10040.7	0.00353464
10052.5	0.00327284
10064.4	0.00300722
10070.3	0.00287302
10082.1	0.00260187
10093.9	0.00232718
10105.7	0.00204906
10111.6	0.00190875
10123.5	0.00162569
10135.3	0.00133948
10141.2	0.00119522
10153	0.000904478
10164.8	0.000610855
10170.7	0.000462998
10182.6	0.000165261
10194.4	-0.000135085
10200.3	-0.000286202
10212.1	-0.000590256
10223.9	-0.000896648
10235.7	-0.00120527
10241.7	-0.00136039
10253.5	-0.00167215
10265.3	-0.00198589
10271.2	-0.00214346
10283	-0.00245994
10294.8	-0.00277812
10300.8	-0.00293782
10312.6	-0.00325836
10324.4	-0.00358034
10330.3	-0.00374184
10342.1	-0.00406579
10353.9	-0.00439092
10365.8	-0.00471714
10371.7	-0.00488063
10383.5	-0.00520828
10395.3	-0.00553677
10401.2	-0.00570129
10413	-0.00603084
10424.9	-0.00636097
10430.8	-0.00652623
10442.6	-0.00685706
10454.4	-0.00718823
10460.3	-0.00735391
10472.1	-0.00768541
10484	-0.00801702
10495.8	-0.00834863
10501.7	-0.00851441
10513.5	-0.00884587
10525.3	-0.0091771
10531.2	-0.00934261
10543.1	-0.00967333
10554.9	-0.0100036
10560.8	-0.0101686
10572.6	-0.010498
10584.4	-0.0108268
10590.3	-0.0109909
10602.2	-0.0113185
10614	-0.0116452
10625.8	-0.0119709
10631.7	-0.0121334
10643.5	-0.0124576
10655.3	-0.0127805
10661.3	-0.0129415
10673.1	-0.0132626
10684.9	-0.0135822
10690.8	-0.0137415
10702.6	-0.014059
10714.4	-0.0143748
10720.4	-0.0145322
10732.2	-0.0148455
10744	-0.0151571
10755.8	-0.0154669
10761.7	-0.015621
10773.5	-0.0159279
10785.4	-0.0162327
10791.3	-0.0163843
10803.1	-0.016686
10814.9	-0.0169854
10820.8	-0.0171343
10832.6	-0.0174303
10844.5	-0.0177239
10850.4	-0.0178698
10862.2	-0.0181597
10874	-0.0184471
10885.8	-0.0187318
10891.7	-0.0188732
10903.6	-0.0191539
10915.4	-0.0194318
10921.3	-0.0195697
10933.1	-0.0198433
10944.9	-0.0201139
10950.8	-0.0202481
10962.7	-0.0205142
10974.5	-0.0207772
10980.4	-0.0209075
10992.2	-0.0211657
11004	-0.0214206
11015.8	-0.0216722
11021.8	-0.0217967
11033.6	-0.0220431
11045.4	-0.022286
11051.3	-0.0224061
11063.1	-0.0226437
11074.9	-0.0228776
11080.8	-0.0229931
11092.7	-0.0232214
11104.5	-0.0234458
11110.4	-0.0235566
11122.2	-0.0237751
11134	-0.0239897
11145.9	-0.0242002
11151.8	-0.0243039
11163.6	-0.0245082
11175.4	-0.0247083
11181.3	-0.0248067
11193.1	-0.0250003
11205	-0.0251895
11210.9	-0.0252824
11222.7	-0.0254649
11234.5	-0.0256428
11240.4	-0.02573
11252.2	-0.0259009
11264.1	-0.0260671
11275.9	-0.0262284
11281.8	-0.0263072
11293.6	-0.0264612
11305.4	-0.0266102
11311.3	-0.0266828
11323.2	-0.0268242
11335	-0.0269604
11340.9	-0.0270265
11352.7	-0.0271548
11364.5	-0.0272777
11370.4	-0.0273371
11382.2	-0.0274519
11394.1	-0.0275611
11405.9	-0.0276647
11411.8	-0.0277143
11423.6	-0.0278094
11435.4	-0.0278986
11441.3	-0.027941
11453.2	-0.0280214
11465	-0.0280958
11470.9	-0.0281308
11482.7	-0.0281961
11494.5	-0.0282552
11500.4	-0.0282824
11512.3	-0.0283322
11524.1	-0.0283756
11535.9	-0.0284126
11541.8	-0.0284287
11553.6	-0.0284559
11565.5	-0.0284766
11571.4	-0.0284844
11583.2	-0.0284951
11595	-0.028499
11600.9	-0.0284984
11612.7	-0.0284921
11624.6	-0.0284788
11630.5	-0.0284696
11642.3	-0.0284459
11654.1	-0.0284151
11660	-0.028397
11671.8	-0.0283555
11683.7	-0.0283069
11695.5	-0.0282509
11701.4	-0.0282202
11713.2	-0.0281533
11725	-0.028079
11730.9	-0.0280391
11742.7	-0.0279536
11754.6	-0.0278607
11760.5	-0.0278114
11772.3	-0.0277072
11784.1	-0.0275953
11790	-0.0275366
11801.8	-0.0274133
11813.7	-0.0272824
11825.5	-0.0271438
11831.4	-0.0270716
11843.2	-0.0269214
11855	-0.0267634
11860.9	-0.0266816
11872.8	-0.026512
11884.6	-0.0263346
11890.5	-0.026243
11902.3	-0.026054
11914.1	-0.0258572
11920	-0.0257558
11931.9	-0.0255473
11943.7	-0.025331
11955.5	-0.0251069
11961.4	-0.0249919
11973.2	-0.0247562
11985.1	-0.0245127
11991	-0.0243881
12002.8	-0.024133
12014.6	-0.0238703
12020.5	-0.0237361
12032.3	-0.0234619
12044.1	-0.0231801
12050.1	-0.0230363
12061.9	-0.0227432
12073.7	-0.0224426
12085.5	-0.0221346
12091.4	-0.0219778
12103.2	-0.0216587
12115.1	-0.0213323
12121	-0.0211663
12132.8	-0.0208291
12144.6	-0.0204847
12150.5	-0.0203099
12162.3	-0.0199549
12174.2	-0.0195931
12180.1	-0.0194095
12191.9	-0.0190374
12203.7	-0.0186585
12215.5	-0.018273
12221.4	-0.0180778
12233.3	-0.0176825
12245.1	-0.0172808
12251	-0.0170776
12262.8	-0.0166665
12274.6	-0.0162493
12280.5	-0.0160384
12292.4	-0.0156122
12304.2	-0.0151802
12310.1	-0.0149621
12321.9	-0.0145216
12333.7	-0.0140755
12345.5	-0.0136241
12351.5	-0.0133964
12363.3	-0.0129372
12375.1	-0.0124729
12381	-0.0122389
12392.8	-0.0117673
12404.6	-0.011291
12410.6	-0.0110512
12422.4	-0.0105682
12434.2	-0.0100809
12440.1	-0.0098357
12451.9	-0.00934225
12463.7	-0.00884492
12475.6	-0.00834385
12481.5	-0.00809197
12493.3	-0.00758561
12505.1	-0.00707595
12511	-0.00681993
12522.8	-0.00630563
12534.7	-0.00578846
12540.6	-0.00552885
12552.4	-0.0050077
12564.2	-0.00448413
12570.1	-0.0042215
12581.9	-0.00369464
12593.8	-0.00316583
12605.6	-0.00263524
12611.5	-0.00236934
12623.3	-0.00183646
12635.1	-0.00130228
12641	-0.00103477
12652.9	-0.000499016
12664.7	3.75431e-05
12670.6	0.000306064
12682.4	0.000843463
12694.2	0.00138118
12700.1	0.00165009
12712	0.00218789
12723.8	0.00272551
12735.6	0.00326275
12741.5	0.00353115
12753.3	0.00406743
12765.1	0.0046028
12771.1	0.0048701
12782.9	0.00540375
12794.7	0.00593601
12800.6	0.00620155
12812.4	0.00673132
12824.2	0.00725919
12830.2	0.00752234
12842	0.00804696
12853.8	0.00856917
12865.6	0.00908875
12871.5	0.0093475
12883.3	0.00986277
12895.2	0.0103749
12901.1	0.0106298
12912.9	0.0111369
12924.7	0.0116403
12930.6	0.0118906
12942.4	0.0123883
12954.3	0.0128818
12960.2	0.013127
12972	0.013614
12983.8	0.0140964
12995.6	0.014574
13001.5	0.0148109
13013.4	0.0152809
13025.2	0.0157457
13031.1	0.015976
13042.9	0.0164325
13054.7	0.0168833
13060.6	0.0171064
13072.5	0.0175482
13084.3	0.0179838
13090.2	0.0181992
13102	0.0186252
13113.8	0.0190446
13125.6	0.0194571
13131.6	0.0196607
13143.4	0.0200627
13155.2	0.0204575
13161.1	0.0206521
13172.9	0.0210357
13184.7	0.0214117
13190.7	0.0215967
13202.5	0.0219609
13214.3	0.0223171
13220.2	0.0224921
13232	0.022836
13243.8	0.0231714
13255.7	0.0234983
13261.6	0.0236585
13273.4	0.0239723
13285.2	0.0242772
13291.1	0.0244263
13302.9	0.0247176
13314.8	0.0249997
13320.7	0.0251373
13332.5	0.0254053
13344.3	0.0256638
13350.2	0.0257894
13362	0.0260334
13373.9	0.0262676
13385.7	0.0264918
13391.6	0.0266002
13403.4	0.0268093
13415.2	0.0270083
13421.1	0.027104
13433	0.0272875
13444.8	0.0274606
13450.7	0.0275433
13462.5	0.0277006
13474.3	0.0278473
13480.2	0.0279167
13492.1	0.0280474
13503.9	0.0281673
13515.7	0.0282763
13521.6	0.0283267
13533.4	0.0284193
13545.2	0.0285009
13551.2	0.0285375
13563	0.0286025
13574.8	0.0286564
13580.7	0.0286791
13592.5	0.0287162
13604.3	0.0287421
13610.2	0.0287508
13622.1	0.0287598
13633.9	0.0287575
13645.7	0.0287439
13651.6	0.0287328
13663.4	0.0287022
13675.3	0.0286603
13681.2	0.0286351
13693	0.0285762
13704.8	0.028506
13710.7	0.0284666
13722.5	0.0283794
13734.4	0.0282809
13740.3	0.0282274
13752.1	0.028112
13763.9	0.0279854
13775.7	0.0278476
13781.6	0.0277745
13793.5	0.0276199
13805.3	0.0274543
13811.2	0.0273673
13823	0.0271852
13834.8	0.026992
13840.7	0.0268914
13852.6	0.0266819
13864.4	0.0264617
13870.3	0.0263476
13882.1	0.0261113
13893.9	0.0258644
13905.7	0.0256071
13911.6	0.0254745
13923.5	0.0252015
13935.3	0.0249183
13941.2	0.0247729
13953	0.0244745
13964.8	0.0241661
13970.7	0.0240082
13982.6	0.0236851
13994.4	0.0233522
14000.3	0.0231822
14012.1	0.0228351
14023.9	0.0224786
14035.8	0.0221129
14041.7	0.0219266
14053.5	0.0215474
14065.3	0.0211593
14071.2	0.020962
14083	0.020561
14094.9	0.0201515
14100.8	0.0199437
14112.6	0.0195219
14124.4	0.0190921
14130.3	0.0188743
14142.1	0.0184329
14154	0.0179839
14165.8	0.0175276
14171.7	0.0172967
14183.5	0.0168298
14195.3	0.016356
14201.2	0.0161166
14213	0.0156329
14224.9	0.0151429
14230.8	0.0148956
14242.6	0.0143965
14254.4	0.0138917
14260.3	0.0136372
14272.1	0.0131241
14284	0.0126058
14295.8	0.0120826
14301.7	0.0118192
14313.5	0.011289
14325.3	0.0107544
14331.2	0.0104855
14343.1	0.00994482
14354.9	0.00940038
14360.8	0.00912683
14372.6	0.00857724
14384.4	0.00802453
14390.3	0.00774709
14402.2	0.00719019
14414	0.00663082
14425.8	0.00606924
14431.7	0.0057877
14443.5	0.00522331
14455.4	0.00465736
14461.3	0.00437389
14473.1	0.00380612
14484.9	0.00323747
14490.8	0.0029529
14502.6	0.00238344
14514.4	0.00181377
14520.4	0.00152894
14532.2	0.00095946
14544	0.00039045
14555.8	-0.000177824
14561.7	-0.000461601
14573.5	-0.00102827
14585.4	-0.00159352
14591.3	-0.00187554
14603.1	-0.00243819
14614.9	-0.00299876
14620.8	-0.00327819
14632.6	-0.00383515
14644.5	-0.00438939
14650.4	-0.0046654
14662.2	-0.00521506
14674	-0.00576134
14685.8	-0.00630399
14691.7	-0.00657388
14703.6	-0.00711062
14715.4	-0.00764311
14721.3	-0.00790768
14733.1	-0.00843333
14744.9	-0.00895413
14750.8	-0.00921264
14762.7	-0.00972571
14774.5	-0.0102334
14780.4	-0.0104851
14792.2	-0.0109841
14804	-0.0114772
14815.9	-0.0119641
14821.8	-0.0122051
14833.6	-0.0126823
14845.4	-0.0131528
14851.3	-0.0133854
14863.1	-0.0138454
14874.9	-0.0142982
14880.9	-0.0145219
14892.7	-0.0149635
14904.5	-0.0153975
14910.4	-0.0156116
14922.2	-0.0160338
14934	-0.016448
14945.9	-0.0168539
14951.8	-0.0170538
14963.6	-0.0174471
14975.4	-0.0178319
14981.3	-0.0180211
14993.1	-0.0183927
15005	-0.0187555
15010.9	-0.0189336
15022.7	-0.0192828
15034.5	-0.0196229
15040.4	-0.0197895
15052.2	-0.0201157
15064.1	-0.0204325
15075.9	-0.0207398
15081.8	-0.0208899
15093.6	-0.0211829
15105.4	-0.0214662
15111.3	-0.0216043
15123.2	-0.0218731
15135	-0.0221322
15140.9	-0.022258
15152.7	-0.0225024
15164.5	-0.0227369
15170.4	-0.0228505
15182.3	-0.0230702
15194.1	-0.0232801
15205.9	-0.0234802
15211.8	-0.0235765
15223.6	-0.0237617
15235.4	-0.0239371
15241.4	-0.0240212
15253.2	-0.0241819
15265	-0.0243328
15270.9	-0.0244047
15282.7	-0.024541
15294.5	-0.0246678
15300.5	-0.0247275
15312.3	-0.0248399
15324.1	-0.0249428
15330	-0.0249907
15341.8	-0.0250794
15353.6	-0.0251589
15365.5	-0.0252291
15371.4	-0.0252608
15383.2	-0.0253174
15395	-0.025365
15400.9	-0.0253855
15412.7	-0.0254198
15424.6	-0.0254454
15430.5	-0.025455
15442.3	-0.0254677
15454.1	-0.0254721
15460	-0.0254712
15471.8	-0.0254631
15483.7	-0.025447
15495.5	-0.025423
15501.4	-0.025408
15513.2	-0.0253723
15525	-0.0253289
15530.9	-0.0253045
15542.8	-0.0252501
15554.6	-0.0251884
15560.5	-0.0251549
15572.3	-0.0250828
15584.1	-0.0250038
15590	-0.0249618
15601.9	-0.0248728
15613.7	-0.0247774
15625.5	-0.0246758
15631.4	-0.0246227
15643.2	-0.024512
15655	-0.0243955
15661	-0.0243351
15672.8	-0.0242101
15684.6	-0.0240797
15690.5	-0.0240125
15702.3	-0.0238743
15714.1	-0.023731
15720.1	-0.0236576
15731.9	-0.0235072
15743.7	-0.0233522
15755.5	-0.0231927
15761.4	-0.0231114
15773.2	-0.0229457
15785.1	-0.022776
15791	-0.0226897
15802.8	-0.0225142
15814.6	-0.0223352
15820.5	-0.0222444
15832.3	-0.0220603
15844.2	-0.0218729
15850.1	-0.0217781
15861.9	-0.0215863
15873.7	-0.0213916
15885.5	-0.0211942
15891.4	-0.0210946
15903.3	-0.0208935
15915.1	-0.0206901
15921	-0.0205876
15932.8	-0.020381
15944.6	-0.0201724
15950.5	-0.0200675
15962.4	-0.0198562
15974.2	-0.0196432
15980.1	-0.0195362
15991.9	-0.019321
16003.7	-0.0191045
16015.5	-0.0188868
16021.5	-0.0187775
16033.3	-0.0185582
16045.1	-0.0183379
16051	-0.0182274
16062.8	-0.0180059
16074.6	-0.0177837
16080.5	-0.0176724
16092.4	-0.0174493
16104.2	-0.0172258
16110.1	-0.0171139
16121.9	-0.0168898
16133.7	-0.0166655
16145.6	-0.0164411
16151.5	-0.0163288
16163.3	-0.0161043
16175.1	-0.0158797
16181	-0.0157675
16192.8	-0.0155431
16204.7	-0.0153188
16210.6	-0.0152068
16222.4	-0.014983
16234.2	-0.0147594
16240.1	-0.0146478
16251.9	-0.0144249
16263.8	-0.0142024
16275.6	-0.0139803
16281.5	-0.0138695
16293.3	-0.0136483
16305.1	-0.0134277
16311	-0.0133176
16322.9	-0.0130979
16334.7	-0.0128788
16340.6	-0.0127696
16352.4	-0.0125516
16364.2	-0.0123343
16370.1	-0.012226
16382	-0.0120099
16393.8	-0.0117945
16405.6	-0.01158
16411.5	-0.011473
16423.3	-0.0112597
16435.1	-0.0110472
16441	-0.0109413
16452.9	-0.0107301
16464.7	-0.0105197
16470.6	-0.0104149
16482.4	-0.0102058
16494.2	-0.00999763
16500.1	-0.00989386
16512	-0.00968699
16523.8	-0.00948099
16535.6	-0.00927587
16541.5	-0.00917365
16553.3	-0.00896985
16565.2	-0.00876694
16571.1	-0.00866581
16582.9	-0.00846421
16594.7	-0.00826349
16600.6	-0.00816346
16612.4	-0.00796405
16624.3	-0.00776551
16630.2	-0.00766656
16642	-0.00746931
16653.8	-0.00727293
16665.6	-0.0070774
16671.5	-0.00697996
16683.4	-0.00678571
16695.2	-0.00659231
16701.1	-0.00649593
16712.9	-0.00630379
16724.7	-0.0061125
16730.6	-0.00601717
16742.4	-0.00582714
16754.3	-0.00563794
16760.2	-0.00554365
16772	-0.00535571
16783.8	-0.00516859
16795.6	-0.00498231
16801.5	-0.00488949
16813.4	-0.00470446
16825.2	-0.00452027
16831.1	-0.00442849
16842.9	-0.00424556
16854.7	-0.00406348
16860.6	-0.00397275
16872.5	-0.00379194
16884.3	-0.00361199
16890.2	-0.00352233
16902	-0.00334367
16913.8	-0.00316589
16925.7	-0.00298899
16931.6	-0.00290087
16943.4	-0.0027253
16955.2	-0.00255065
16961.1	-0.00246366
16972.9	-0.00229039
16984.8	-0.00211804
16990.7	-0.00203223
17002.5	-0.00186132
17014.3	-0.00169138
17020.2	-0.00160678
17032	-0.00143832
17043.8	-0.00127087
17055.7	-0.00110446
17061.6	-0.00102164
17073.4	-0.000856801
17085.2	-0.000693036
17091.1	-0.000611562
17102.9	-0.000449446
17114.8	-0.000288455
17120.7	-0.000208389
17132.5	-4.91268e-05
17144.3	0.000108955
17150.2	0.000187546
17162	0.000343814
17173.9	0.000498845
17185.7	0.000652612
17191.6	0.000729015
17203.4	0.000880844
17215.2	0.00103135
17221.1	0.0011061
17233	0.00125457
17244.8	0.00140165
17250.7	0.00147466
17262.5	0.00161961
17274.3	0.00176311
17280.2	0.00183431
17292.1	0.00197557
17303.9	0.00211532
17315.7	0.00225353
17321.6	0.00232204
17333.4	0.00245787
17345.2	0.00259209
17351.2	0.00265859
17363	0.00279035
17374.8	0.00292042
17380.7	0.00298483
17392.5	0.00311234
17404.3	0.00323811
17410.3	0.00330033
17422.1	0.00342344
17433.9	0.00354475
17445.7	0.00366423
17451.6	0.00372328
17463.4	0.00383997
17475.3	0.00395478
17481.2	0.00401146
17493	0.0041234
17504.8	0.00423339
17510.7	0.00428766
17522.5	0.0043947
17534.4	0.00449975
17540.3	0.00455152
17552.1	0.00465354
17563.9	0.00475353
17575.7	0.00485145
17581.6	0.00489964
17593.5	0.00499445
17605.3	0.00508717
17611.2	0.00513273
17623	0.00522227
17634.8	0.00530968
17640.7	0.00535258
17652.6	0.00543676
17664.4	0.00551879
17670.3	0.00555898
17682.1	0.00563775
17693.9	0.00571432
17705.7	0.0057887
17711.7	0.00582507
17723.5	0.00589615
17735.3	0.00596502
17741.2	0.00599863
17753	0.00606418
17764.8	0.00612752
17770.8	0.00615835
17782.6	0.00621836
17794.4	0.00627614
17800.3	0.0063042
17812.1	0.00635866
17823.9	0.00641091
17835.8	0.00646094
17841.7	0.00648512
17853.5	0.00653184
17865.3	0.00657637
17871.2	0.0065978
17883	0.00663904
17894.9	0.0066781
17900.8	0.00669681
17912.6	0.00673262
17924.4	0.00676627
17930.3	0.00678229
17942.1	0.00681273
17954	0.00684105
17965.8	0.00686726
17971.7	0.00687958
17983.5	0.00690266
17995.3	0.00692367
18001.2	0.00693341
18013.1	0.00695135
18024.9	0.00696726
18030.8	0.00697447
18042.6	0.00698739
18054.4	0.00699834
18060.3	0.00700308
18072.2	0.00701112
18084	0.00701723
18095.8	0.00702145
18101.7	0.00702286
18113.5	0.00702429
18125.3	0.00702389
18131.3	0.00702301
18143.1	0.00701992
18154.9	0.00701505
18160.8	0.00701197
18172.6	0.00700451
18184.4	0.00699536
18190.4	0.00699016
18202.2	0.00697852
18214	0.00696525
18225.8	0.0069504
18231.7	0.00694238
18243.5	0.0069252
18255.4	0.0069065
18261.3	0.00689659
18273.1	0.00687567
18284.9	0.00685332
18290.8	0.00684162
18302.6	0.00681717
18314.5	0.00679137
18320.4	0.00677797
18332.2	0.00675019
18344	0.00672114
18355.8	0.00669085
18361.7	0.00667525
18373.6	0.00664315
18385.4	0.0066099
18391.3	0.00659284
18403.1	0.00655791
18414.9	0.0065219
18420.8	0.0065035
18432.7	0.00646593
18444.5	0.00642737
18450.4	0.00640772
18462.2	0.00636772
18474	0.00632681
18485.8	0.00628501
18491.8	0.00626379
18503.6	0.00622072
18515.4	0.00617684
18521.3	0.00615461
18533.1	0.00610959
18544.9	0.00606383
18550.9	0.00604068
18562.7	0.00599388
18574.5	0.00594642
18580.4	0.00592245
18592.2	0.00587406
18604	0.00582508
18615.9	0.00577553
18621.8	0.00575056
18633.6	0.00570022
18645.4	0.00564939
18651.3	0.00562379
18663.1	0.00557226
18675	0.00552029
18680.9	0.00549415
18692.7	0.00544157
18704.5	0.00538861
18710.4	0.005362
18722.2	0.00530851
18734.1	0.00525469
18745.9	0.00520057
18751.8	0.00517339
18763.6	0.00511884
18775.4	0.00506402
18781.3	0.00503652
18793.2	0.00498134
18805	0.00492593
18810.9	0.00489814
18822.7	0.00484242
18834.5	0.00478651
18840.4	0.00475849
18852.3	0.00470232
18864.1	0.00464599
18875.9	0.0045895
18881.8	0.0045612
18893.6	0.0045045
18905.4	0.00444767
18911.4	0.00441921
18923.2	0.00436219
18935	0.00430506
18940.9	0.00427645
18952.7	0.00421915
18964.5	0.00416175
18970.4	0.004133
18982.3	0.00407544
18994.1	0.00401777
19005.9	0.00396
19011.8	0.00393108
19023.6	0.00387315
19035.5	0.00381512
19041.4	0.00378606
19053.2	0.00372786
19065	0.00366954
19070.9	0.00364034
19082.7	0.00358183
19094.6	0.0035232
19100.5	0.00349384
19112.3	0.003435
19124.1	0.00337601
19130	0.00334646
19141.8	0.00328723
19153.7	0.00322783
19165.5	0.00316825
19171.4	0.00313839
19183.2	0.00307851
19195	0.00301843
19200.9	0.0029883
19212.8	0.00292788
19224.6	0.00286722
19230.5	0.00283679
19242.3	0.00277574
19254.1	0.00271441
19260	0.00268364
19271.8	0.00262186
19283.7	0.00255978
19295.5	0.00249736
19301.4	0.00246602
19313.2	0.00240309
19325	0.00233978
19330.9	0.00230798
19342.8	0.00224408
19354.6	0.00217978
19360.5	0.00214746
19372.3	0.00208251
19384.1	0.0020171
19390	0.00198423
19401.9	0.00191811
19413.7	0.00185149
19425.5	0.00178437
19431.4	0.00175061
19443.2	0.00168268
19455.1	0.0016142
19461	0.00157975
19472.8	0.00151041
19484.6	0.00144047
19490.5	0.00140527
19502.3	0.00133442
19514.2	0.00126293
19520.1	0.00122694
19531.9	0.00115447
19543.7	0.00108133
19555.5	0.00100751
19561.4	0.000970334
19573.2	0.000895459
19585.1	0.000819868
19591	0.0007818
19602.8	0.000705112
19614.6	0.000627677
19620.5	0.000588677
19632.3	0.000510105
19644.2	0.000430762
19650.1	0.000390798
19661.9	0.000310282
19673.7	0.000228975
19685.5	0.000146869
19691.4	0.000105515
19703.3	2.22004e-05
19715.1	-6.19263e-05
19721	-0.000104295
19732.8	-0.000189647
19744.6	-0.00027582
19750.5	-0.000319214
19762.4	-0.00040662
19774.2	-0.000494848
19780.1	-0.000539271
19791.9	-0.000628732
19803.7	-0.000719013
19815.6	-0.000810109
19821.5	-0.000855962
19833.3	-0.000948274
19845.1	-0.00104139
19851	-0.00108825
19862.8	-0.00118255
19874.6	-0.00127764
19880.6	-0.00132548
19892.4	-0.00142173
19904.2	-0.00151874
19910.1	-0.00156752
19921.9	-0.00166565
19933.7	-0.00176449
19945.6	-0.00186405
19951.5	-0.00191409
19963.3	-0.00201468
19975.1	-0.00211594
19981	-0.00216682
19992.8	-0.00226904
