0	0
11.0308	0
20.2231	0
31.254	0
40.4463	0
51.4771	0
60.6694	0
71.7003	0
80.8926	0
90.0849	0
101.116	0
110.308	0
121.339	0
130.531	0
141.562	0
150.754	0
161.785	0
170.978	0
180.17	0
191.201	0
200.393	0
211.424	0
220.616	0
231.647	0
240.839	0
250.032	0
261.062	0
270.255	0
281.286	0
290.478	0
301.509	0
310.701	0
321.732	0
330.924	0
340.117	0
351.147	0
360.34	0
371.371	0
380.563	0
391.594	0
400.786	0
411.817	0
421.009	0
430.202	0
441.232	0
450.425	0
461.456	0
470.648	0
481.679	0
490.871	0
500.063	0
511.094	0
520.286	0
531.317	0
540.51	0
551.54	0
560.733	0
571.764	0
580.956	0
590.148	0
601.179	0
610.371	0
621.402	0
630.595	0
641.625	0
650.818	0
660.01	0
671.041	0
680.233	0
691.264	0
700.456	0
711.487	0
720.68	0
731.71	0
740.903	0
750.095	0
761.126	0
770.318	0
781.349	0
790.541	0
801.572	0
810.764	0
821.795	0
830.988	0
840.18	9.09495e-13
851.211	5.45697e-12
860.403	1.45519e-11
871.434	4.00178e-11
880.626	9.1859e-11
891.657	2.42835e-10
900.849	5.27507e-10
910.042	1.12232e-09
921.073	2.69574e-09
930.265	5.45788e-09
941.296	1.23591e-08
950.488	2.38606e-08
961.519	5.11282e-08
970.711	9.43774e-08
981.742	1.91909e-07
990.934	3.39492e-07
1000.13	5.89496e-07
1011.16	1.116e-06
1020.35	1.86293e-06
1031.38	3.36788e-06
1040.57	5.41534e-06
1051.6	9.3705e-06
1060.8	1.45405e-05
1071.83	2.41344e-05
1081.02	3.62047e-05
1090.21	5.35134e-05
1101.24	8.39111e-05
1110.43	0.000120196
1121.47	0.000181683
1130.66	0.000252612
1141.69	0.000368791
1150.88	0.00049852
1160.07	0.000665655
1171.1	0.000927019
1180.3	0.00120622
1191.33	0.00163011
1200.52	0.00207034
1211.55	0.00272064
1220.74	0.00337872
1231.77	0.00432687
1240.97	0.00526433
1250.16	0.00634984
1261.19	0.00786691
1270.38	0.00932627
1281.41	0.011334
1290.6	0.0132401
1301.64	0.0158355
1310.83	0.0182814
1320.02	0.021014
1331.05	0.0247193
1340.24	0.0282115
1351.27	0.0329659
1360.47	0.0374732
1371.5	0.0436536
1380.69	0.0495571
1391.72	0.0577104
1400.91	0.0655453
1410.11	0.0744797
1421.14	0.086878
1430.33	0.0988115
1441.36	0.115332
1450.55	0.13116
1461.58	0.152924
1470.77	0.173597
1481.81	0.20173
1491	0.228146
1500.19	0.257425
1511.22	0.296507
1520.41	0.332467
1531.44	0.37975
1540.64	0.422587
1551.67	0.478023
1560.86	0.527439
1570.05	0.579597
1581.08	0.645476
1590.27	0.702777
1601.31	0.77391
1610.5	0.834703
1621.53	0.908823
1630.72	0.971012
1641.75	1.04541
1650.94	1.1066
1660.14	1.16652
1671.17	1.23599
1680.36	1.29126
1691.39	1.35371
1700.58	1.40197
1711.61	1.45471
1720.81	1.49386
1731.84	1.53458
1741.03	1.56293
1750.22	1.5859
1761.25	1.60608
1770.44	1.61653
1781.48	1.62122
1790.67	1.6185
1801.7	1.6072
1810.89	1.59109
1820.08	1.56892
1831.11	1.53441
1840.31	1.49919
1851.34	1.44936
1860.53	1.40172
1871.56	1.33752
1880.75	1.27842
1891.78	1.20117
1900.98	1.13184
1910.17	1.05836
1921.2	0.965169
1930.39	0.883764
1941.42	0.782159
1950.61	0.694708
1961.65	0.58708
1970.84	0.495678
1980.03	0.403211
1991.06	0.29151
2000.25	0.198366
2011.28	0.0872332
2020.48	-0.00429128
2031.51	-0.112127
2040.7	-0.199805
2051.73	-0.301757
2060.92	-0.383529
2070.12	-0.462003
2081.15	-0.551338
2090.34	-0.621396
2101.37	-0.699801
2110.56	-0.760154
2121.59	-0.826323
2130.78	-0.87609
2141.82	-0.929225
2151.01	-0.967959
2160.2	-1.00164
2171.23	-1.03545
2180.42	-1.0582
2191.45	-1.07914
2200.65	-1.09147
2211.68	-1.10037
2220.87	-1.10311
2230.06	-1.10184
2241.09	-1.09534
2250.28	-1.08607
2261.32	-1.07072
2270.51	-1.05471
2281.54	-1.03204
2290.73	-1.01057
2301.76	-0.982106
2310.95	-0.956432
2320.15	-0.92924
2331.18	-0.894929
2340.37	-0.865194
2351.4	-0.828447
2360.59	-0.79716
2371.62	-0.759081
2380.82	-0.727092
2390.01	-0.695025
2401.04	-0.656632
2410.23	-0.624851
2421.26	-0.587131
2430.45	-0.556161
2441.49	-0.519678
2450.68	-0.489934
2461.71	-0.455131
2470.9	-0.426941
2480.09	-0.399543
2491.12	-0.367778
2500.32	-0.342278
2511.35	-0.312896
2520.54	-0.289459
2531.57	-0.262627
2540.76	-0.241367
2551.79	-0.217196
2560.99	-0.198183
2570.18	-0.180205
2581.21	-0.160001
2590.4	-0.144304
2601.43	-0.126829
2610.62	-0.113391
2621.66	-0.0985991
2630.85	-0.0873665
2640.04	-0.07711
2651.07	-0.0660622
2660.26	-0.0578791
2671.29	-0.0492497
2680.49	-0.0430186
2691.52	-0.0366494
2700.71	-0.0322287
2711.74	-0.0279395
2720.93	-0.0251718
2730.12	-0.0231001
2741.16	-0.0214826
2750.35	-0.0208158
2761.38	-0.0207778
2770.57	-0.021338
2781.6	-0.0226648
2790.79	-0.0242727
2801.83	-0.02675
2811.02	-0.0292285
2820.21	-0.0320454
2831.24	-0.0358234
2840.43	-0.0392632
2851.46	-0.0436913
2860.66	-0.047594
2871.69	-0.0524864
2880.88	-0.0567031
2890.07	-0.0610167
2901.1	-0.0662832
2910.29	-0.0707175
2921.32	-0.0760575
2930.52	-0.0804973
2941.55	-0.0857822
2950.74	-0.0901284
2961.77	-0.0952488
2970.96	-0.0994184
2980.16	-0.103485
2991.19	-0.108211
3000.38	-0.11201
3011.41	-0.116386
3020.6	-0.119873
3031.63	-0.123856
3040.82	-0.127003
3050.02	-0.129988
3061.05	-0.133355
3070.24	-0.13598
3081.27	-0.138912
3090.46	-0.141176
3101.49	-0.143677
3110.69	-0.145586
3121.72	-0.147668
3130.91	-0.149232
3140.1	-0.150645
3151.13	-0.152145
3160.32	-0.153236
3171.35	-0.154359
3180.55	-0.155142
3191.58	-0.155903
3200.77	-0.156392
3211.8	-0.156807
3220.99	-0.157012
3230.18	-0.15709
3241.21	-0.157019
3250.41	-0.156823
3261.44	-0.156424
3270.63	-0.155957
3281.66	-0.155233
3290.85	-0.154494
3300.04	-0.153632
3311.07	-0.152434
3320.27	-0.1513
3331.3	-0.149774
3340.49	-0.148366
3351.52	-0.146513
3360.71	-0.144834
3371.74	-0.142657
3380.93	-0.14071
3390.13	-0.138643
3401.16	-0.136009
3410.35	-0.133688
3421.38	-0.130758
3430.57	-0.128198
3441.6	-0.124993
3450.79	-0.122216
3461.83	-0.118763
3471.02	-0.115793
3480.21	-0.112746
3491.24	-0.108995
3500.43	-0.1058
3511.46	-0.101894
3520.65	-0.0985882
3531.68	-0.094571
3540.88	-0.0911911
3550.07	-0.0877908
3561.1	-0.0836947
3570.29	-0.0802779
3581.32	-0.0761856
3590.51	-0.0727914
3601.54	-0.068749
3610.74	-0.065415
3621.77	-0.0614665
3630.96	-0.058228
3640.15	-0.0550439
3651.18	-0.0513037
3660.37	-0.0482613
3671.4	-0.0447081
3680.59	-0.0418347
3691.62	-0.038499
3700.82	-0.0358181
3710.01	-0.0332313
3721.04	-0.0302564
3730.23	-0.0278889
3741.26	-0.0251858
3750.45	-0.0230509
3761.48	-0.0206331
3770.68	-0.0187401
3781.71	-0.0166164
3790.9	-0.0149706
3800.09	-0.0134379
3811.12	-0.0117476
3820.31	-0.0104627
3831.34	-0.00906776
3840.53	-0.00802639
3851.56	-0.00691954
3860.76	-0.00611379
3871.79	-0.00528332
3880.98	-0.00470174
3890.17	-0.00421736
3901.2	-0.00375965
3910.39	-0.00347686
3921.42	-0.00324995
3930.62	-0.00314957
3941.65	-0.0031288
3950.84	-0.003189
3960.03	-0.00331436
3971.06	-0.00354359
3980.25	-0.00379403
3991.28	-0.00415774
4000.47	-0.00450697
4011.51	-0.004973
4020.7	-0.00539385
4031.73	-0.00592937
4040.92	-0.00639442
4050.11	-0.0068706
4061.14	-0.00744891
4070.33	-0.00793028
4081.37	-0.00849938
4090.56	-0.00896055
4101.59	-0.00949098
4110.78	-0.00990839
4121.81	-0.0103731
4131	-0.0107254
4140.19	-0.0110418
4151.23	-0.0113688
4160.42	-0.0115936
4171.45	-0.0118014
4180.64	-0.0119199
4191.67	-0.0119925
4200.86	-0.0119925
4210.06	-0.0119355
4221.09	-0.0117892
4230.28	-0.0116007
4241.31	-0.0112927
4250.5	-0.0109665
4261.53	-0.0104903
4270.72	-0.0100219
4281.76	-0.00937302
4290.95	-0.0087592
4300.14	-0.00807846
4311.17	-0.00717265
4320.36	-0.00634327
4331.39	-0.00525803
4340.59	-0.0042783
4351.62	-0.00301168
4360.81	-0.00187999
4370	-0.000678683
4381.03	0.000855255
4390.22	0.00221093
4401.26	0.00393112
4410.45	0.00544282
4421.48	0.00735119
4430.67	0.00902041
4441.7	0.0111185
4450.89	0.0129462
4460.09	0.014846
4471.12	0.0172208
4480.31	0.0192787
4491.34	0.0218422
4500.53	0.0240559
4511.56	0.0268041
4520.76	0.0291692
4531.79	0.0320952
4540.98	0.0346045
4550.17	0.0371761
4561.2	0.0403406
4570.39	0.0430399
4581.42	0.0463488
4590.62	0.04916
4601.65	0.0525918
4610.84	0.055495
4620.03	0.0584323
4631.06	0.0619948
4640.25	0.0649883
4651.29	0.068601
4660.48	0.0716212
4671.51	0.075247
4680.7	0.0782615
4691.73	0.0818596
4700.92	0.0848332
4710.12	0.087776
4721.15	0.0912559
4730.34	0.0941035
4741.37	0.0974463
4750.56	0.100161
4761.59	0.103321
4770.78	0.105864
4781.82	0.108796
4791.01	0.111132
4800.2	0.113362
4811.23	0.115889
4820.42	0.117862
4831.45	0.120063
4840.65	0.121751
4851.68	0.123594
4860.87	0.124972
4870.06	0.126201
4881.09	0.127475
4890.28	0.128365
4901.31	0.129223
4910.51	0.129762
4921.54	0.130193
4930.73	0.130371
4941.76	0.130369
4950.95	0.130185
4960.15	0.129838
4971.18	0.129207
4980.37	0.128503
4991.4	0.12745
5000.59	0.1264
5011.62	0.12494
5020.81	0.123559
5030.01	0.122033
5041.04	0.120017
5050.23	0.118188
5061.26	0.115823
5070.45	0.113715
5081.48	0.111031
5090.68	0.108671
5101.71	0.105702
5110.9	0.103121
5120.09	0.100448
5131.12	0.0971315
5140.31	0.0942839
5151.34	0.0907769
5160.54	0.0877879
5171.57	0.084132
5180.76	0.0810365
5191.79	0.0772739
5200.98	0.0741071
5210.18	0.0709196
5221.21	0.0670774
5230.4	0.0638697
5241.43	0.0600241
5250.62	0.0568305
5261.65	0.0530219
5270.84	0.0498755
5280.04	0.046761
5291.07	0.0430746
5300.26	0.0400521
5311.29	0.0364933
5320.48	0.0335909
5331.51	0.0301918
5340.71	0.0274348
5351.74	0.024224
5360.93	0.0216347
5370.12	0.019128
5381.15	0.016234
5390.34	0.0139211
5401.37	0.0112685
5410.57	0.00916312
5421.6	0.00676584
5430.79	0.00487766
5441.82	0.00274516
5451.01	0.00108017
5460.21	-0.00048242
5471.24	-0.00222221
5480.43	-0.00355956
5491.46	-0.00503031
5500.65	-0.00614531
5511.68	-0.00735242
5520.87	-0.0082511
5530.07	-0.00905424
5541.1	-0.00989481
5550.29	-0.0104953
5561.32	-0.0110998
5570.51	-0.0115098
5581.54	-0.0118938
5590.74	-0.0121272
5601.77	-0.012308
5610.96	-0.0123798
5620.15	-0.0123832
5631.18	-0.0123017
5640.37	-0.0121663
5651.4	-0.0119277
5660.6	-0.0116692
5671.63	-0.0112922
5680.82	-0.0109259
5690.01	-0.0105155
5701.04	-0.00996888
5710.24	-0.00947146
5721.27	-0.00882829
5730.46	-0.00825672
5741.49	-0.00753168
5750.68	-0.00689749
5761.71	-0.00610359
5770.9	-0.00541689
5780.1	-0.00470931
5791.13	-0.00383497
5800.32	-0.00308713
5811.35	-0.00216877
5820.54	-0.00138751
5831.57	-0.000432619
5840.77	0.000376346
5851.8	0.0013615
5860.99	0.00219338
5870.18	0.00303431
5881.21	0.00405425
5890.4	0.00491236
5901.44	0.00595083
5910.63	0.00682271
5921.66	0.00787575
5930.85	0.00875818
5940.04	0.00964436
5951.07	0.0107118
5960.27	0.0116038
5971.3	0.0126763
5980.49	0.0135709
5991.52	0.0146443
6000.71	0.0155378
6011.74	0.0166076
6020.93	0.0174961
6030.13	0.018381
6041.16	0.0194369
6050.35	0.0203108
6061.38	0.0213509
6070.57	0.0222094
6081.6	0.0232283
6090.8	0.024067
6101.83	0.0250593
6111.02	0.0258736
6120.21	0.0266753
6131.24	0.0276197
6140.43	0.0283909
6151.47	0.0292961
6160.66	0.0300327
6171.69	0.0308942
6180.88	0.0315926
6190.07	0.0322726
6201.1	0.0330634
6210.3	0.0337008
6221.33	0.0344389
6230.52	0.0350312
6241.55	0.0357139
6250.74	0.0362591
6261.77	0.0368845
6270.97	0.0373812
6280.16	0.0378556
6291.19	0.038395
6300.38	0.0388197
6311.41	0.0392993
6320.6	0.039674
6331.63	0.0400937
6340.83	0.0404185
6350.02	0.0407207
6361.05	0.0410538
6370.24	0.0413069
6381.27	0.0415813
6390.47	0.041786
6401.5	0.0420029
6410.69	0.0421601
6421.72	0.0423207
6430.91	0.0424315
6440.1	0.0425215
6451.13	0.0426026
6460.33	0.042648
6471.36	0.0426761
6480.55	0.042678
6491.58	0.0426545
6500.77	0.0426139
6511.8	0.0425401
6521	0.042458
6530.19	0.0423575
6541.22	0.0422125
6550.41	0.0420717
6561.44	0.041879
6570.63	0.0416986
6581.67	0.0414587
6590.86	0.0412392
6600.05	0.0410019
6611.08	0.0406938
6620.27	0.0404175
6631.3	0.0400623
6640.5	0.0397466
6651.53	0.0393438
6660.72	0.0389881
6671.75	0.0385366
6680.94	0.0381397
6690.13	0.0377237
6701.17	0.0371987
6710.36	0.0367392
6721.39	0.036161
6730.58	0.0356562
6741.61	0.0350221
6750.8	0.0344694
6761.83	0.0337763
6771.03	0.033173
6780.22	0.0325456
6791.25	0.03176
6800.44	0.0310773
6811.47	0.0302232
6820.67	0.0294815
6831.7	0.0285545
6840.89	0.0277502
6850.08	0.0269162
6861.11	0.025875
6870.3	0.0249728
6881.33	0.0238474
6890.53	0.0228732
6901.56	0.0216592
6910.75	0.0206094
6921.78	0.0193027
6930.97	0.0181739
6940.17	0.0170082
6951.2	0.01556
6960.39	0.0143113
6971.42	0.0127621
6980.61	0.0114284
6991.64	0.00977608
7000.83	0.00835579
7010.03	0.00689589
7021.06	0.00509168
7030.25	0.00354459
7041.28	0.00163599
7050.47	2.3284e-06
7061.5	-0.00200936
7070.7	-0.00372803
7081.73	-0.00584035
7090.92	-0.00764148
7100.11	-0.009479
7111.14	-0.0117309
7120.33	-0.0136454
7131.37	-0.0159868
7140.56	-0.0179734
7151.59	-0.0203979
7160.78	-0.0224506
7171.81	-0.0249505
7181	-0.0270626
7190.2	-0.0291992
7201.23	-0.0317932
7210.42	-0.0339778
7221.45	-0.0366243
7230.64	-0.0388484
7241.67	-0.0415367
7250.87	-0.0437909
7260.06	-0.0460555
7271.09	-0.0487841
7280.28	-0.0510646
7291.31	-0.0538061
7300.5	-0.0560922
7311.53	-0.0588341
7320.73	-0.0611154
7331.76	-0.0638452
7340.95	-0.0661111
7350.14	-0.0683665
7361.17	-0.0710563
7370.36	-0.0732812
7381.4	-0.0759282
7390.59	-0.0781126
7401.62	-0.0807049
7410.81	-0.0828388
7420	-0.0849467
7431.03	-0.0874392
7440.23	-0.0894833
7451.26	-0.0918941
7460.45	-0.0938661
7471.48	-0.0961855
7480.67	-0.0980775
7491.7	-0.100297
7500.89	-0.102102
7510.09	-0.103865
7521.12	-0.105925
7530.31	-0.107593
7541.34	-0.109535
7550.53	-0.111102
7561.56	-0.112921
7570.76	-0.114385
7581.79	-0.116076
7590.98	-0.117432
7600.17	-0.118738
7611.2	-0.12024
7620.39	-0.121435
7631.42	-0.122804
7640.62	-0.123888
7651.65	-0.125123
7660.84	-0.126097
7670.03	-0.127019
7681.06	-0.12806
7690.26	-0.128873
7701.29	-0.129783
7710.48	-0.130487
7721.51	-0.131267
7730.7	-0.131864
7741.73	-0.132518
7750.92	-0.133012
7760.12	-0.133459
7771.15	-0.133936
7780.34	-0.134283
7791.37	-0.134642
7800.56	-0.134894
7811.59	-0.13514
7820.78	-0.1353
7831.82	-0.135437
7841.01	-0.135508
7850.2	-0.13554
7861.23	-0.135528
7870.42	-0.135477
7881.45	-0.135368
7890.65	-0.135238
7901.68	-0.135036
7910.87	-0.134831
7920.06	-0.134592
7931.09	-0.134264
7940.28	-0.133955
7951.31	-0.133544
7960.51	-0.133168
7971.54	-0.132679
7980.73	-0.132239
7991.76	-0.131675
8000.95	-0.131175
8010.15	-0.130648
8021.18	-0.129981
8030.37	-0.129397
8041.4	-0.128663
8050.59	-0.128025
8061.62	-0.127227
8070.81	-0.126536
8080.01	-0.125822
8091.04	-0.124935
8100.23	-0.124171
8111.26	-0.123226
8120.45	-0.122415
8131.48	-0.121414
8140.68	-0.120557
8151.71	-0.119502
8160.9	-0.118601
8170.09	-0.117681
8181.12	-0.116552
8190.31	-0.11559
8201.34	-0.114412
8210.54	-0.11341
8221.57	-0.112186
8230.76	-0.111146
8241.79	-0.109877
8250.98	-0.108801
8260.18	-0.10771
8271.21	-0.106379
8280.4	-0.105253
8291.43	-0.103883
8300.62	-0.102725
8311.65	-0.101317
8320.84	-0.100128
8330.04	-0.0989251
8341.07	-0.0974642
8350.26	-0.0962322
8361.29	-0.0947367
8370.48	-0.0934762
8381.51	-0.0919469
8390.71	-0.0906585
8401.74	-0.0890957
8410.93	-0.0877795
8420.12	-0.0864506
8431.15	-0.0848391
8440.34	-0.083482
8451.38	-0.0818362
8460.57	-0.08045
8471.6	-0.0787687
8480.79	-0.0773523
8491.82	-0.0756338
8501.01	-0.0741857
8510.21	-0.0727225
8521.24	-0.0709463
8530.43	-0.0694486
8541.46	-0.0676297
8550.65	-0.0660953
8561.68	-0.0642311
8570.88	-0.0626579
8580.07	-0.0610662
8591.1	-0.0591313
8600.29	-0.0574976
8611.32	-0.055511
8620.51	-0.0538333
8631.54	-0.0517929
8640.74	-0.0500696
8651.77	-0.0479737
8660.96	-0.0462037
8670.15	-0.0444122
8681.18	-0.0422339
8690.38	-0.0403951
8701.41	-0.0381602
8710.6	-0.0362744
8721.63	-0.0339839
8730.82	-0.0320525
8740.01	-0.030101
8751.05	-0.0277335
8760.24	-0.0257398
8771.27	-0.0233235
8780.46	-0.021291
8791.49	-0.0188306
8800.68	-0.0167637
8811.71	-0.0142649
8820.91	-0.0121686
8830.1	-0.0100609
8841.13	-0.00751845
8850.32	-0.00539037
8861.35	-0.00282756
8870.55	-0.00068606
8881.58	0.00188839
8890.77	0.00403577
8901.8	0.00661253
8910.99	0.00875778
8920.18	0.0108993
8931.21	0.0134619
8940.41	0.0155892
8951.44	0.0181295
8960.63	0.0202341
8971.66	0.0227419
8980.85	0.0248151
8990.05	0.0268714
9001.08	0.0293139
9010.27	0.0313268
9021.3	0.0337124
9030.49	0.0356739
9041.52	0.0379933
9050.71	0.0398958
9061.75	0.0421401
9070.94	0.0439766
9080.13	0.0457809
9091.16	0.0479017
9100.35	0.0496306
9111.38	0.0516576
9120.58	0.0533056
9131.61	0.0552323
9140.8	0.0567944
9151.83	0.0586153
9161.02	0.0600872
9170.21	0.0615167
9181.25	0.0631754
9190.44	0.0645096
9201.47	0.066052
9210.66	0.0672881
9221.69	0.0687114
9230.88	0.0698472
9240.08	0.0709368
9251.11	0.0721829
9260.3	0.07317
9271.33	0.0742926
9280.52	0.0751763
9291.55	0.0761745
9300.75	0.0769543
9311.78	0.0778277
9320.97	0.0785035
9330.16	0.079132
9341.19	0.079824
9350.38	0.0803488
9361.41	0.0809167
9370.61	0.0813384
9381.64	0.0817828
9390.83	0.0821021
9400.02	0.082375
9411.05	0.0826417
9420.25	0.0828135
9431.28	0.0829595
9440.47	0.0830312
9451.5	0.0830576
9460.69	0.0830303
9471.72	0.0829387
9480.91	0.0828137
9490.11	0.0826446
9501.14	0.0823841
9510.33	0.0821193
9521.36	0.0817447
9530.55	0.0813855
9541.58	0.0808988
9550.78	0.080447
9561.81	0.0798502
9571	0.0793077
9580.19	0.0787246
9591.22	0.0779719
9600.42	0.0773012
9611.45	0.0764448
9620.64	0.0756889
9631.67	0.074732
9640.86	0.0738938
9650.05	0.0730193
9661.08	0.0719228
9670.28	0.0709708
9681.31	0.0697836
9690.5	0.068758
9701.53	0.067485
9710.72	0.0663902
9721.75	0.065037
9730.95	0.0638777
9740.14	0.062691
9751.17	0.0612322
9760.36	0.059989
9771.39	0.0584661
9780.58	0.0571726
9791.62	0.0555932
9800.81	0.054256
9810	0.0529013
9821.03	0.0512545
9830.22	0.0498665
9841.25	0.0481844
9850.45	0.0467708
9861.48	0.0450628
9870.67	0.0436316
9881.7	0.0419075
9890.89	0.0404671
9900.09	0.0390253
9911.12	0.0372957
9920.31	0.0358571
9931.34	0.0341366
9940.53	0.0327098
9951.56	0.0310086
9960.75	0.0296023
9971.79	0.0279309
9980.98	0.0265536
9990.17	0.0251922
10001.2	0.0235821
10010.4	0.0222619
10021.4	0.0207058
10030.6	0.0194345
10041.6	0.0179418
10050.8	0.0167269
10060	0.01554
10071.1	0.0141546
10080.3	0.013034
10091.3	0.0117319
10100.5	0.0106836
10111.5	0.00947167
10120.7	0.00850115
10131.7	0.00738529
10140.9	0.00649705
10150.1	0.00564751
10161.1	0.00468013
10170.3	0.00391807
10181.4	0.00305731
10190.6	0.00238526
10201.6	0.00163361
10210.8	0.0010532
10221.8	0.000412098
10231	-7.59246e-05
10240.2	-0.000521947
10251.2	-0.00100189
10260.4	-0.00135602
10271.5	-0.00172639
10280.6	-0.00199
10291.7	-0.00225295
10300.9	-0.00242823
10310.1	-0.00256429
10321.1	-0.00267675
10330.3	-0.002729
10341.3	-0.00274314
10350.5	-0.0027155
10361.5	-0.00263639
10370.7	-0.00253335
10381.8	-0.0023667
10391	-0.00219325
10400.1	-0.00198956
10411.2	-0.00170681
10420.4	-0.00144063
10431.4	-0.00108635
10440.6	-0.000763467
10451.6	-0.000344682
10460.8	2.89643e-05
10470	0.000423706
10481	0.000923497
10490.2	0.00136029
10501.3	0.00190697
10510.5	0.00237989
10521.5	0.00296643
10530.7	0.00346969
10541.7	0.00408925
10550.9	0.00461726
10560.1	0.00515476
10571.1	0.00581075
10580.3	0.00636535
10591.3	0.0070389
10600.5	0.00760572
10611.6	0.00829115
10620.8	0.00886564
10631.8	0.00955768
10641	0.0101356
10650.2	0.0107138
10661.2	0.0114068
10670.4	0.0119829
10681.4	0.0126712
10690.6	0.0132416
10701.7	0.0139212
10710.8	0.0144827
10720	0.0150392
10731.1	0.0156995
10740.3	0.0162429
10751.3	0.0168857
10760.5	0.0174131
10771.5	0.0180353
10780.7	0.0185441
10791.7	0.0191424
10800.9	0.0196302
10810.1	0.0201075
10821.2	0.0206658
10830.3	0.0211184
10841.4	0.0216455
10850.6	0.0220709
10861.6	0.022564
10870.8	0.0229598
10881.8	0.0234159
10891	0.0237797
10900.2	0.0241281
10911.2	0.0245254
10920.4	0.0248384
10931.5	0.0251917
10940.7	0.025467
10951.7	0.0257737
10960.9	0.0260092
10970.1	0.0262258
10981.1	0.0264603
10990.3	0.0266342
11001.3	0.0268164
11010.5	0.0269457
11021.5	0.0270736
11030.7	0.027157
11041.8	0.027229
11051	0.0272654
11060.2	0.02728
11071.2	0.0272688
11080.4	0.0272353
11091.4	0.0271662
11100.6	0.0270844
11111.6	0.0269573
11120.8	0.0268273
11130	0.0266757
11141	0.0264653
11150.2	0.0262667
11161.3	0.0260006
11170.5	0.0257562
11181.5	0.0254363
11190.7	0.0251479
11201.7	0.0247763
11210.9	0.024446
11220.1	0.0240975
11231.1	0.023656
11240.3	0.0232694
11251.4	0.0227839
11260.5	0.0223621
11271.6	0.0218363
11280.8	0.0213824
11291.8	0.0208202
11301	0.0203377
11310.2	0.0198433
11321.2	0.0192354
11330.4	0.0187173
11341.4	0.0180831
11350.6	0.0175448
11361.7	0.0168883
11370.9	0.0163332
11380	0.0157715
11391.1	0.0150896
11400.3	0.0145156
11411.3	0.0138208
11420.5	0.0132374
11431.5	0.0125328
11440.7	0.0119426
11451.7	0.0112313
11460.9	0.0106365
11470.1	0.0100402
11481.2	0.00932336
11490.4	0.0087252
11501.4	0.0080069
11510.6	0.00740818
11521.6	0.00668988
11530.8	0.00609163
11541.8	0.00537434
11551	0.00477723
11560.2	0.00418079
11571.2	0.00346601
11580.4	0.00287119
11591.5	0.0021584
11600.7	0.00156523
11611.7	0.000854353
11620.9	0.000262688
11630.1	-0.000328365
11641.1	-0.0010369
11650.3	-0.0016268
11661.3	-0.00233412
11670.5	-0.00292314
11681.6	-0.00362952
11690.7	-0.00421783
11701.8	-0.0049234
11711	-0.00551104
11720.2	-0.00609833
11731.2	-0.00680253
11740.4	-0.0073888
11751.4	-0.00809147
11760.6	-0.00867613
11771.6	-0.00937637
11780.8	-0.0099585
11790	-0.0105391
11801.1	-0.0112333
11810.2	-0.0118093
11821.3	-0.012497
11830.5	-0.0130667
11841.5	-0.0137455
11850.7	-0.0143065
11861.7	-0.0149735
11870.9	-0.0155233
11880.1	-0.0160672
11891.1	-0.016711
11900.3	-0.0172395
11911.4	-0.0178629
11920.6	-0.0183727
11931.6	-0.0189717
11940.8	-0.0194594
11951.8	-0.0200299
11961	-0.0204922
11970.2	-0.0209417
11981.2	-0.0214634
11990.4	-0.0218825
12001.4	-0.0223657
12010.6	-0.0227511
12021.7	-0.0231921
12030.9	-0.0235409
12040.1	-0.0238721
12051.1	-0.0242457
12060.3	-0.0245366
12071.3	-0.0248605
12080.5	-0.025109
12091.5	-0.025381
12100.7	-0.0255857
12111.8	-0.0258045
12120.9	-0.0259644
12130.1	-0.0261038
12141.2	-0.0262441
12150.4	-0.0263386
12161.4	-0.0264253
12170.6	-0.0264756
12181.6	-0.0265101
12190.8	-0.0265175
12201.8	-0.0265017
12211	-0.0264684
12220.2	-0.0264174
12231.3	-0.0263338
12240.4	-0.0262463
12251.5	-0.0261208
12260.7	-0.0260002
12271.7	-0.0258376
12280.9	-0.0256881
12290.1	-0.025527
12301.1	-0.0253198
12310.3	-0.0251367
12321.3	-0.0249061
12330.5	-0.0247062
12341.6	-0.0244586
12350.8	-0.0242473
12361.8	-0.0239895
12371	-0.0237726
12380.2	-0.023555
12391.2	-0.0232946
12400.4	-0.0230798
12411.4	-0.0228263
12420.6	-0.02262
12431.6	-0.0223802
12440.8	-0.0221881
12450	-0.0220044
12461.1	-0.0217966
12470.3	-0.021635
12481.3	-0.0214569
12490.5	-0.0213226
12501.5	-0.0211801
12510.7	-0.0210778
12521.7	-0.0209763
12530.9	-0.0209103
12540.1	-0.020862
12551.1	-0.0208285
12560.3	-0.0208218
12571.4	-0.02084
12580.6	-0.0208777
12591.6	-0.0209507
12600.8	-0.0210352
12611.8	-0.0211654
12621	-0.0212983
12630.2	-0.0214537
12641.2	-0.0216698
12650.4	-0.0218748
12661.5	-0.0221507
12670.6	-0.0224054
12681.7	-0.0227407
12690.9	-0.0230445
12700.1	-0.0233702
12711.1	-0.0237897
12720.3	-0.0241625
12731.3	-0.0246371
12740.5	-0.0250548
12751.5	-0.0255817
12760.7	-0.0260415
12771.8	-0.0266172
12781	-0.0271159
12790.1	-0.0276311
12801.2	-0.02827
12810.4	-0.0288185
12821.4	-0.0294949
12830.6	-0.0300726
12841.6	-0.0307812
12850.8	-0.0313834
12860	-0.0319953
12871	-0.0327408
12880.2	-0.0333702
12891.3	-0.0341338
12900.5	-0.0347759
12911.5	-0.0355517
12920.7	-0.0362015
12931.7	-0.0369837
12940.9	-0.0376363
12950.1	-0.0382887
12961.1	-0.0390698
12970.3	-0.0397183
12981.3	-0.040492
12990.5	-0.0411321
13001.6	-0.0418934
13010.8	-0.0425211
13021.8	-0.0432653
13031	-0.043877
13040.2	-0.0444804
13051.2	-0.0451924
13060.4	-0.0457752
13071.4	-0.046461
13080.6	-0.0470206
13091.7	-0.0476774
13100.8	-0.0482119
13110	-0.0487345
13121.1	-0.0493455
13130.3	-0.049841
13141.3	-0.050419
13150.5	-0.0508866
13161.5	-0.051431
13170.7	-0.0518706
13181.7	-0.0523814
13190.9	-0.0527932
13200.1	-0.0531927
13211.2	-0.0536558
13220.3	-0.0540287
13231.4	-0.0544606
13240.6	-0.0548081
13251.6	-0.0552106
13260.8	-0.0555344
13271.8	-0.0559095
13281	-0.0562113
13290.2	-0.0565039
13301.2	-0.0568434
13310.4	-0.057117
13321.5	-0.0574351
13330.7	-0.057692
13341.7	-0.0579913
13350.9	-0.0582337
13360.1	-0.0584701
13371.1	-0.0587467
13380.3	-0.0589716
13391.3	-0.0592354
13400.5	-0.0594507
13411.5	-0.059704
13420.7	-0.0599114
13431.8	-0.060156
13441	-0.0603568
13450.2	-0.0605549
13461.2	-0.0607895
13470.4	-0.0609825
13481.4	-0.0612114
13490.6	-0.0613999
13501.6	-0.0616235
13510.8	-0.0618076
13520	-0.0619896
13531	-0.0622053
13540.2	-0.0623826
13551.3	-0.062592
13560.5	-0.0627636
13571.5	-0.0629657
13580.7	-0.0631305
13591.7	-0.0633234
13600.9	-0.0634799
13610.1	-0.063632
13621.1	-0.0638081
13630.3	-0.063949
13641.4	-0.0641105
13650.5	-0.0642381
13661.6	-0.0643821
13670.8	-0.0644939
13681.8	-0.0646173
13691	-0.0647107
13700.2	-0.0647949
13711.2	-0.0648829
13720.4	-0.0649447
13731.4	-0.0650043
13740.6	-0.0650411
13751.7	-0.0650691
13760.9	-0.0650782
13770	-0.0650739
13781.1	-0.0650503
13790.3	-0.0650146
13801.3	-0.064952
13810.5	-0.0648826
13821.5	-0.0647783
13830.7	-0.0646732
13841.7	-0.0645249
13850.9	-0.0643823
13860.1	-0.064222
13871.2	-0.0640061
13880.4	-0.0638062
13891.4	-0.063542
13900.6	-0.0633013
13911.6	-0.0629877
13920.8	-0.0627055
13931.8	-0.0623418
13941	-0.0620177
13950.2	-0.0616746
13961.2	-0.0612377
13970.4	-0.0608528
13981.5	-0.0603659
13990.7	-0.0599395
14001.7	-0.0594032
14010.9	-0.0589362
14020.1	-0.0584509
14031.1	-0.0578449
14040.3	-0.0573205
14051.3	-0.0566684
14060.5	-0.0561063
14071.6	-0.0554098
14080.7	-0.0548116
14091.8	-0.0540729
14101	-0.0534403
14110.2	-0.0527929
14121.2	-0.0519967
14130.4	-0.0513179
14141.4	-0.0504854
14150.6	-0.0497773
14161.6	-0.0489111
14170.8	-0.0481761
14180	-0.0474296
14191.1	-0.0465193
14200.2	-0.0457493
14211.3	-0.0448122
14220.5	-0.0440211
14231.5	-0.0430602
14240.7	-0.0422505
14251.7	-0.0412687
14260.9	-0.0404427
14270.1	-0.0396102
14281.1	-0.0386032
14290.3	-0.0377581
14301.4	-0.0367375
14310.6	-0.0358822
14321.6	-0.0348508
14330.8	-0.0339877
14341.8	-0.0329485
14351	-0.03208
14360.2	-0.03121
14371.2	-0.0301644
14380.4	-0.0292923
14391.4	-0.0282458
14400.6	-0.0273742
14411.7	-0.0263294
14420.9	-0.0254604
14430.1	-0.0245933
14441.1	-0.0235559
14450.3	-0.0226946
14461.3	-0.0216655
14470.5	-0.0208122
14481.5	-0.0197938
14490.7	-0.0189504
14501.8	-0.0179453
14510.9	-0.0171138
14520.1	-0.0162885
14531.2	-0.0153066
14540.4	-0.0144959
14551.4	-0.0135327
14560.6	-0.0127384
14571.6	-0.0117958
14580.8	-0.0110196
14590	-0.0102521
14601	-0.00934293
14610.2	-0.00859558
14621.3	-0.00771148
14630.4	-0.00698564
14641.5	-0.00612807
14650.7	-0.0054249
14661.7	-0.00459517
14670.9	-0.00391569
14680.1	-0.00324728
14691.1	-0.00246002
14700.3	-0.00181651
14711.3	-0.00105953
14720.5	-0.000441556
14731.6	0.000284468
14740.8	0.000876435
14751.8	0.00157103
14761	0.00213666
14770.2	0.00269026
14781.2	0.00333866
14790.4	0.00386573
14801.4	0.00448229
14810.6	0.00498286
14821.6	0.00556772
14830.8	0.00604196
14840	0.00650432
14851.1	0.00704358
14860.3	0.00748008
14871.3	0.00798856
14880.5	0.00839965
14891.5	0.00887794
14900.7	0.00926415
14911.7	0.00971297
14920.9	0.0100749
14930.1	0.0104261
14941.1	0.0108335
14950.3	0.0111615
14961.4	0.0115415
14970.6	0.0118471
14981.6	0.0122007
14990.8	0.0124847
15001.8	0.0128129
15011	0.0130763
15020.2	0.0133305
15031.2	0.0136238
15040.4	0.0138587
15051.5	0.0141294
15060.7	0.0143459
15071.7	0.0145952
15080.9	0.0147943
15090.1	0.0149859
15101.1	0.0152061
15110.3	0.0153818
15121.3	0.0155836
15130.5	0.0157444
15141.5	0.015929
15150.7	0.0160761
15161.8	0.0162448
15171	0.0163791
15180.2	0.0165081
15191.2	0.016656
15200.4	0.0167739
15211.4	0.0169091
15220.6	0.017017
15231.6	0.0171409
15240.8	0.0172398
15250	0.0173351
15261	0.0174449
15270.2	0.0175328
15281.3	0.0176345
15290.5	0.0177162
15301.5	0.0178111
15310.7	0.0178877
15321.7	0.017977
15330.9	0.0180494
15340.1	0.0181204
15351.1	0.0182037
15360.3	0.0182719
15371.4	0.0183525
15380.5	0.0184189
15391.6	0.0184978
15400.8	0.0185631
15411.8	0.0186413
15421	0.0187064
15430.2	0.0187716
15441.2	0.0188502
15450.4	0.0189161
15461.4	0.0189957
15470.6	0.0190627
15481.7	0.019144
15490.9	0.0192125
15500	0.0192818
15511.1	0.0193661
15520.3	0.0194372
15531.3	0.0195238
15540.5	0.0195969
15551.5	0.0196857
15560.7	0.0197607
15571.7	0.0198517
15580.9	0.0199284
15590.1	0.0200057
15601.2	0.0200994
15610.4	0.020178
15621.4	0.0202729
15630.6	0.0203523
15641.6	0.0204479
15650.8	0.0205276
15661.8	0.0206232
15671	0.0207026
15680.2	0.0207817
15691.2	0.020876
15700.4	0.0209539
15711.5	0.0210464
15720.7	0.0211225
15731.7	0.0212124
15740.9	0.0212861
15750.1	0.0213585
15761.1	0.0214435
15770.3	0.0215127
15781.3	0.0215936
15790.5	0.0216593
15801.6	0.0217357
15810.7	0.0217975
15821.8	0.0218693
15831	0.0219271
15840.2	0.0219831
15851.2	0.022048
15860.4	0.0221002
15871.4	0.0221606
15880.6	0.0222092
15891.6	0.0222657
15900.8	0.0223112
15910	0.0223556
15921.1	0.0224076
15930.2	0.0224499
15941.3	0.0224999
15950.5	0.0225411
15961.5	0.0225903
15970.7	0.0226314
15981.7	0.0226811
15990.9	0.0227232
16000.1	0.0227661
16011.1	0.0228191
16020.3	0.0228648
16031.4	0.0229218
16040.6	0.0229716
16051.6	0.0230343
16060.8	0.0230893
16071.8	0.0231592
16081	0.0232208
16090.2	0.0232858
16101.2	0.0233687
16110.4	0.023442
16121.4	0.0235354
16130.6	0.023618
16141.7	0.0237233
16150.9	0.0238162
16160.1	0.0239141
16171.1	0.0240384
16180.3	0.0241477
16191.3	0.024286
16200.5	0.0244073
16211.5	0.0245602
16220.7	0.0246938
16231.8	0.0248616
16240.9	0.0250077
16250.1	0.0251595
16261.2	0.0253491
16270.4	0.0255132
16281.4	0.0257174
16290.6	0.0258935
16301.6	0.0261118
16310.8	0.0262992
16321.8	0.0265306
16331	0.0267286
16340.2	0.026931
16351.3	0.0271794
16360.4	0.0273908
16371.5	0.0276491
16380.7	0.027868
16391.7	0.0281344
16400.9	0.0283593
16410.1	0.0285863
16421.1	0.028861
16430.3	0.0290914
16441.3	0.029369
16450.5	0.0296009
16461.6	0.0298792
16470.8	0.0301105
16481.8	0.0303869
16491	0.0306156
16500.2	0.0308425
16511.2	0.0311116
16520.4	0.0313327
16531.4	0.0315937
16540.6	0.0318071
16551.6	0.0320576
16560.8	0.0322612
16570	0.0324598
16581.1	0.0326908
16590.3	0.0328769
16601.3	0.033092
16610.5	0.0332639
16621.5	0.0334611
16630.7	0.0336175
16641.7	0.0337952
16650.9	0.0339348
16660.1	0.0340663
16671.1	0.0342134
16680.3	0.0343268
16691.4	0.0344516
16700.6	0.0345462
16711.6	0.0346483
16720.8	0.0347237
16731.8	0.0348027
16741	0.034859
16750.2	0.0349066
16761.2	0.0349524
16770.4	0.0349811
16781.5	0.0350046
16790.6	0.0350151
16801.7	0.0350171
16810.9	0.0350102
16820.1	0.0349956
16831.1	0.0349682
16840.3	0.0349375
16851.3	0.0348916
16860.5	0.034846
16871.5	0.0347829
16880.7	0.0347236
16891.8	0.0346448
16901	0.0345731
16910.1	0.0344961
16921.2	0.0343971
16930.4	0.0343095
16941.4	0.0341984
16950.6	0.0341011
16961.6	0.0339791
16970.8	0.0338733
16980	0.0337637
16991	0.0336276
17000.2	0.0335104
17011.3	0.0333654
17020.5	0.0332409
17031.5	0.0330872
17040.7	0.0329555
17051.7	0.0327928
17060.9	0.0326534
17070.1	0.0325104
17081.1	0.0323335
17090.3	0.0321816
17101.3	0.0319933
17110.5	0.0318311
17121.6	0.0316295
17130.8	0.0314552
17141.8	0.0312377
17151	0.031049
17160.2	0.0308528
17171.2	0.0306068
17180.4	0.030392
17191.4	0.0301216
17200.6	0.0298848
17211.7	0.0295857
17220.8	0.0293231
17230	0.0290473
17241.1	0.0286977
17250.3	0.0283899
17261.3	0.027999
17270.5	0.0276543
17281.5	0.0272164
17290.7	0.02683
17301.7	0.026339
17310.9	0.0259058
17320.1	0.0254496
17331.2	0.0248704
17340.3	0.0243599
17351.4	0.0237124
17360.6	0.0231425
17371.6	0.0224206
17380.8	0.0217862
17391.8	0.020984
17401	0.0202804
17410.2	0.0195439
17421.2	0.0186153
17430.4	0.0178033
17441.5	0.0167819
17450.7	0.0158907
17461.7	0.0147724
17470.9	0.0137989
17480.1	0.0127872
17491.1	0.0115221
17500.3	0.0104249
17511.3	0.00905635
17520.5	0.00787241
17531.5	0.00639943
17540.7	0.00512846
17551.8	0.00355131
17561	0.00219399
17570.2	0.000797932
17581.2	-0.000927826
17590.4	-0.00240736
17601.4	-0.00423145
17610.6	-0.00579112
17621.6	-0.00770887
17630.8	-0.00934423
17640	-0.0110122
17651	-0.0130551
17660.2	-0.0147902
17671.3	-0.0169095
17680.5	-0.0187046
17691.5	-0.020891
17700.7	-0.0227377
17711.7	-0.0249806
17720.9	-0.0268696
17730.1	-0.0287745
17741.1	-0.0310783
17750.3	-0.0330102
17761.4	-0.0353395
17770.5	-0.0372869
17781.6	-0.0396276
17790.8	-0.0415782
17801.8	-0.0439151
17811	-0.045856
17820.2	-0.0477882
17831.2	-0.0500913
17840.4	-0.0519944
17851.4	-0.0542542
17860.6	-0.0561143
17871.7	-0.0583143
17880.9	-0.0601176
17890	-0.0618904
17901.1	-0.0639737
17910.3	-0.0656697
17921.3	-0.0676527
17930.5	-0.0692584
17941.5	-0.0711252
17950.7	-0.0726276
17961.7	-0.0743628
17970.9	-0.0757496
17980.1	-0.0770798
17991.2	-0.0785983
18000.4	-0.0797963
18011.4	-0.0811497
18020.6	-0.0822051
18031.6	-0.0833817
18040.8	-0.0842853
18051.8	-0.0852749
18061	-0.0860187
18070.2	-0.0866877
18081.2	-0.0873899
18090.4	-0.0878898
18101.5	-0.0883862
18110.7	-0.0887125
18121.7	-0.0889983
18130.9	-0.0891478
18140.1	-0.0892163
18151.1	-0.0891912
18160.3	-0.0890809
18171.3	-0.0888414
18180.5	-0.0885528
18191.6	-0.0881004
18200.7	-0.0876356
18211.8	-0.0869736
18221	-0.0863361
18230.2	-0.0856216
18241.2	-0.0846642
18250.4	-0.0837845
18261.4	-0.0826328
18270.6	-0.0815949
18281.6	-0.0802579
18290.8	-0.0790697
18300	-0.0778162
18311.1	-0.0762285
18320.2	-0.0748384
18331.3	-0.073093
18340.5	-0.0715769
18351.5	-0.0696871
18360.7	-0.0680563
18371.7	-0.0660361
18380.9	-0.0643028
18390.1	-0.0625269
18401.1	-0.0603435
18410.3	-0.0584835
18421.4	-0.0562068
18430.6	-0.0542756
18441.6	-0.0519215
18450.8	-0.0499324
18461.8	-0.0475167
18471	-0.0454828
18480.2	-0.043433
18491.2	-0.0409559
18500.4	-0.0388803
18511.4	-0.0363799
18520.6	-0.0342912
18531.7	-0.0317826
18540.9	-0.0296931
18550.1	-0.0276071
18561.1	-0.0251118
18570.3	-0.0230418
18581.3	-0.0205722
18590.5	-0.0185289
18601.5	-0.0160974
18610.7	-0.0140907
18621.8	-0.0117088
18630.9	-0.00974784
18640.1	-0.00781043
18651.2	-0.00551892
18660.4	-0.00363892
18671.4	-0.00142056
18680.6	0.000395155
18691.6	0.0025327
18700.8	0.00427824
18710	0.00599019
18721	0.00799889
18730.2	0.00963382
18741.3	0.0115478
18750.5	0.0131022
18761.5	0.0149179
18770.7	0.0163891
18781.7	0.0181039
18790.9	0.0194904
18800.1	0.0208379
18811.1	0.0224036
18820.3	0.0236655
18831.3	0.0251284
18840.5	0.0263049
18851.6	0.027666
18860.8	0.0287583
18871.8	0.0300192
18881	0.0310289
18890.2	0.032002
18901.2	0.0331218
18910.4	0.0340159
18921.4	0.0350429
18930.6	0.0358612
18941.7	0.0367992
18950.8	0.0375452
18960	0.0382595
18971.1	0.0390761
18980.3	0.0397237
18991.3	0.0404627
19000.5	0.0410478
19011.5	0.0417143
19020.7	0.0422412
19031.7	0.0428405
19040.9	0.0433135
19050.1	0.0437634
19061.2	0.0442743
19070.3	0.0446768
19081.4	0.0451332
19090.6	0.0454925
19101.6	0.0458996
19110.8	0.0462198
19121.8	0.0465824
19131	0.0468674
19140.2	0.0471378
19151.2	0.0474439
19160.4	0.0476845
19171.5	0.0479568
19180.7	0.048171
19191.7	0.0484134
19200.9	0.0486041
19210.1	0.0487851
19221.1	0.0489901
19230.3	0.0491514
19241.3	0.0493343
19250.5	0.0494782
19261.5	0.0496412
19270.7	0.0497696
19281.8	0.0499149
19291	0.0500291
19300.2	0.0501374
19311.2	0.0502596
19320.4	0.0503554
19331.4	0.0504632
19340.6	0.0505471
19351.6	0.050641
19360.8	0.0507136
19370	0.0507811
19381	0.0508553
19390.2	0.0509115
19401.3	0.050972
19410.5	0.0510166
19421.5	0.0510631
19430.7	0.0510958
19441.7	0.0511275
19450.9	0.0511476
19460.1	0.0511616
19471.1	0.0511704
19480.3	0.0511707
19491.4	0.0511624
19500.5	0.0511479
19511.6	0.0511213
19520.8	0.0510912
19531.8	0.0510451
19541	0.0509981
19550.2	0.0509432
19561.2	0.0508665
19570.4	0.0507932
19581.4	0.0506938
19590.6	0.0506012
19601.7	0.050478
19610.9	0.050365
19620	0.0502425
19631.1	0.0500826
19640.3	0.0499384
19651.3	0.0497521
19660.5	0.0495855
19671.5	0.0493719
19680.7	0.0491824
19691.7	0.0489408
19700.9	0.0487278
19710.1	0.0485039
19721.2	0.0482208
19730.4	0.0479729
19741.4	0.047661
19750.6	0.047389
19761.6	0.0470481
19770.8	0.0467521
19781.8	0.0463824
19791	0.0460624
19800.2	0.0457317
19811.2	0.0453208
19820.4	0.0449667
19831.5	0.0445282
19840.7	0.0441514
19851.7	0.0436859
19860.9	0.0432871
19870.1	0.0428786
19881.1	0.0423758
19890.3	0.0419465
19901.3	0.0414195
19910.5	0.0409705
19921.6	0.0404206
19930.7	0.0399531
19941.8	0.0393817
19951	0.038897
19960.2	0.0384049
19971.2	0.0378051
19980.4	0.0372977
19991.4	0.0366804
