0	0
10.2954	0
20.5908	0
30.8863	0
41.1817	0
50.0063	0
60.3018	0
70.5972	0
80.8926	0
91.188	0
100.013	0
110.308	0
120.604	0
130.899	0
141.194	0
150.019	0
160.314	0
170.61	0
180.905	0
191.201	0
200.025	0
210.321	0
220.616	0
230.912	0
241.207	0
250.032	0
260.327	0
270.623	0
280.918	0
291.213	0
300.038	0
310.333	0
320.629	0
330.924	0
341.22	0
350.044	0
360.34	0
370.635	0
380.931	0
391.226	0
400.051	0
410.346	0
420.642	0
430.937	0
441.232	0
450.057	0
460.352	0
470.648	0
480.943	0
491.239	0
500.063	0
510.359	0
520.654	0
530.95	0
541.245	0
550.07	0
560.365	0
570.661	0
580.956	0
591.251	0
600.076	0
610.371	0
620.667	0
630.962	0
641.258	0
650.082	0
660.378	0
670.673	0
680.969	0
691.264	0
700.089	0
710.384	0
720.68	0
730.975	0
741.27	0
750.095	0
760.39	0
770.686	0
780.981	0
791.277	0
800.101	0
810.397	0
820.692	0
830.988	0
841.283	0
850.108	0
860.403	0
870.699	0
880.994	0
891.289	0
900.114	0
910.409	0
920.705	0
931	0
941.296	0
950.12	0
960.416	0
970.711	0
981.007	0
991.302	0
1000.13	0
1010.42	0
1020.72	0
1031.01	0
1041.31	0
1050.13	0
1060.43	0
1070.72	0
1081.02	0
1091.31	0
1100.14	0
1110.43	0
1120.73	0
1131.03	0
1141.32	0
1150.15	0
1160.44	0
1170.74	0
1181.03	0
1191.33	0
1200.15	0
1210.45	0
1220.74	0
1231.04	0
1241.33	0
1250.16	0
1260.45	0
1270.75	0
1281.04	0
1291.34	0
1300.16	0
1310.46	0
1320.76	0
1331.05	0
1341.35	0
1350.17	0
1360.47	0
1370.76	0
1381.06	0
1391.35	0
1400.18	0
1410.47	0
1420.77	0
1431.06	0
1441.36	0
1450.18	0
1460.48	0
1470.77	0
1481.07	0
1491.37	0
1500.19	0
1510.49	0
1520.78	0
1531.08	0
1541.37	0
1550.2	0
1560.49	0
1570.79	0
1581.08	0
1591.38	0
1600.2	0
1610.5	0
1620.79	0
1631.09	0
1641.38	0
1650.21	0
1660.5	0
1670.8	0
1681.1	0
1691.39	0
1700.22	0
1710.51	0
1720.81	0
1731.1	0
1741.4	0
1750.22	0
1760.52	0
1770.81	0
1781.11	0
1791.4	0
1800.23	0
1810.52	0
1820.82	0
1831.11	0
1841.41	0
1850.23	0
1860.53	0
1870.83	0
1881.12	0
1891.42	0
1900.24	0
1910.54	0
1920.83	0
1931.13	0
1941.42	0
1950.25	0
1960.54	0
1970.84	0
1981.13	0
1991.43	0
2000.25	0
2010.55	0
2020.84	0
2031.14	-2.72848e-12
2041.44	-9.09495e-12
2050.26	-1.27329e-11
2060.56	-1.90994e-11
2070.85	-2.45564e-11
2081.15	-3.09228e-11
2091.44	-3.81988e-11
2100.27	-4.91127e-11
2110.56	-6.91216e-11
2120.86	-1.01863e-10
2131.15	-1.59162e-10
2141.45	-2.53749e-10
2150.27	-3.81988e-10
2160.57	-6.20275e-10
2170.86	-1.00317e-09
2181.16	-1.61344e-09
2191.45	-2.57751e-09
2200.28	-3.82806e-09
2210.57	-6.02267e-09
2220.87	-9.39508e-09
2231.16	-1.45301e-08
2241.46	-2.22763e-08
2250.28	-3.19087e-08
2260.58	-4.81368e-08
2270.88	-7.20011e-08
2281.17	-1.06785e-07
2291.47	-1.57051e-07
2300.29	-2.17157e-07
2310.59	-3.1453e-07
2320.88	-4.5189e-07
2331.18	-6.44071e-07
2340	-8.67202e-07
2350.3	-1.21813e-06
2360.59	-1.69794e-06
2370.89	-2.34881e-06
2381.18	-3.2249e-06
2390.01	-4.20684e-06
2400.3	-5.69752e-06
2410.6	-7.66088e-06
2420.89	-1.02277e-05
2431.19	-1.35588e-05
2440.01	-1.71703e-05
2450.31	-2.24731e-05
2460.61	-2.92155e-05
2470.9	-3.77285e-05
2481.2	-4.84032e-05
2490.02	-5.96184e-05
2500.32	-7.55779e-05
2510.61	-9.52078e-05
2520.91	-0.000119194
2531.2	-0.000148314
2540.03	-0.000178018
2550.32	-0.000219061
2560.62	-0.000267996
2570.91	-0.00032598
2581.21	-0.000394272
2590.03	-0.000462033
2600.33	-0.000553119
2610.62	-0.000658599
2620.92	-0.000780048
2631.22	-0.000919093
2640.04	-0.00105354
2650.34	-0.0012297
2660.63	-0.00142824
2670.93	-0.00165082
2681.22	-0.00189904
2690.05	-0.00213338
2700.34	-0.00243322
2710.64	-0.00276279
2720.93	-0.00312327
2731.23	-0.00351567
2740.05	-0.00387803
2750.35	-0.00433168
2760.64	-0.00481896
2770.94	-0.00534001
2781.23	-0.00589471
2790.06	-0.00639666
2800.35	-0.0070126
2810.65	-0.00766033
2820.95	-0.00833864
2831.24	-0.00904604
2840.07	-0.00967421
2850.36	-0.0104307
2860.66	-0.0112106
2870.95	-0.0120111
2881.25	-0.0128296
2890.07	-0.013543
2900.37	-0.0143862
2910.66	-0.0152376
2920.96	-0.0160933
2931.25	-0.016949
2940.08	-0.0176789
2950.37	-0.0185221
2960.67	-0.0193511
2970.96	-0.0201601
2981.26	-0.0209427
2990.08	-0.0215873
3000.38	-0.0223023
3010.67	-0.0229693
3020.97	-0.0235797
3031.26	-0.0241234
3040.09	-0.0245284
3050.38	-0.0249191
3060.68	-0.0252097
3070.98	-0.0253862
3081.27	-0.0254335
3090.09	-0.0253588
3100.39	-0.0251214
3110.69	-0.0247044
3120.98	-0.0240874
3131.28	-0.023249
3140.1	-0.0223369
3150.4	-0.0210261
3160.69	-0.019426
3170.99	-0.0175112
3181.28	-0.0152552
3190.11	-0.0130299
3200.4	-0.0100698
3210.7	-0.00669216
3220.99	-0.00287073
3231.29	0.00142011
3240.11	0.00549021
3250.41	0.0107168
3260.7	0.0164786
3271	0.0227951
3281.29	0.0296829
3290.12	0.0360522
3300.41	0.0440355
3310.71	0.0526211
3321	0.0618127
3331.3	0.0716101
3340.12	0.0804868
3350.42	0.0913943
3360.71	0.102883
3371.01	0.114937
3381.3	0.127533
3390.13	0.138742
3400.42	0.152274
3410.72	0.166263
3421.01	0.180671
3431.31	0.195456
3440.13	0.208394
3450.43	0.223755
3460.72	0.239356
3471.02	0.25514
3481.31	0.271053
3490.14	0.284751
3500.43	0.300746
3510.73	0.316698
3521.02	0.332545
3531.32	0.348224
3540.14	0.361481
3550.44	0.37668
3560.73	0.391529
3571.03	0.405966
3581.32	0.419928
3590.15	0.431471
3600.44	0.444391
3610.74	0.456664
3621.03	0.468235
3631.33	0.479048
3640.15	0.487673
3650.45	0.496941
3660.74	0.505308
3671.04	0.512729
3681.33	0.519163
3690.15	0.523863
3700.45	0.528366
3710.74	0.531784
3721.04	0.53409
3731.33	0.535262
3740.16	0.53535
3750.45	0.534373
3760.75	0.532225
3771.04	0.528902
3781.34	0.524404
3790.16	0.51962
3800.46	0.512963
3810.75	0.505163
3821.05	0.496242
3831.34	0.486223
3840.17	0.476786
3850.46	0.464813
3860.76	0.45184
3871.05	0.437909
3881.35	0.423065
3890.17	0.409651
3900.47	0.393242
3910.76	0.376067
3921.06	0.35818
3931.35	0.339642
3940.18	0.323277
3950.47	0.303686
3960.77	0.283614
3971.06	0.263126
3981.36	0.242283
3990.18	0.224182
4000.48	0.202845
4010.77	0.18133
4021.07	0.1597
4031.36	0.138013
4040.18	0.119425
4050.48	0.0977916
4060.78	0.0762683
4071.07	0.0549114
4081.37	0.0337752
4090.19	0.0158745
4100.48	-0.00471191
4110.78	-0.02493
4121.08	-0.044731
4131.37	-0.0640679
4140.19	-0.0802385
4150.49	-0.0985943
4160.79	-0.116361
4171.08	-0.133497
4181.38	-0.149966
4190.2	-0.163522
4200.5	-0.178654
4210.79	-0.193019
4221.09	-0.206587
4231.38	-0.21933
4240.21	-0.229577
4250.5	-0.240723
4260.8	-0.25098
4271.09	-0.26033
4281.39	-0.268761
4290.21	-0.275246
4300.51	-0.281943
4310.8	-0.287699
4321.1	-0.292514
4331.39	-0.296391
4340.22	-0.298974
4350.51	-0.301133
4360.81	-0.302384
4371.1	-0.302747
4381.4	-0.302242
4390.22	-0.301137
4400.52	-0.29909
4410.82	-0.296255
4421.11	-0.292668
4431.41	-0.288365
4440.23	-0.284137
4450.53	-0.278612
4460.82	-0.272489
4471.12	-0.265815
4481.41	-0.258637
4490.24	-0.252117
4500.53	-0.244128
4510.83	-0.23577
4521.12	-0.227095
4531.42	-0.218148
4540.24	-0.210301
4550.54	-0.200978
4560.83	-0.191518
4571.13	-0.181965
4581.42	-0.172363
4590.25	-0.164124
4600.54	-0.154535
4610.84	-0.145007
4621.13	-0.135575
4631.43	-0.12627
4640.25	-0.118418
4650.55	-0.109426
4660.85	-0.100639
4671.14	-0.0920804
4681.44	-0.083769
4690.26	-0.0768551
4700.56	-0.0690479
4710.85	-0.0615319
4721.15	-0.0543182
4731.44	-0.0474157
4740.27	-0.0417525
4750.56	-0.0354454
4760.86	-0.0294651
4771.15	-0.0238138
4781.45	-0.0184923
4790.27	-0.0141932
4800.57	-0.00948224
4810.86	-0.00509685
4821.16	-0.00103361
4831.45	0.00271182
4840.28	0.00567303
4850.57	0.00884215
4860.87	0.0117096
4871.16	0.0142822
4881.46	0.0165672
4890.28	0.0183026
4900.58	0.020074
4910.87	0.0215807
4921.17	0.0228313
4931.47	0.0238348
4940.29	0.0245052
4950.59	0.0250744
4960.88	0.0254234
4971.18	0.0255622
4980	0.0255213
4990.3	0.0252964
5000.59	0.0248905
5010.89	0.024314
5021.18	0.0235777
5030.01	0.0228275
5040.3	0.021823
5050.6	0.0206895
5060.89	0.019438
5071.19	0.0180792
5080.01	0.0168373
5090.31	0.0153078
5100.6	0.0137014
5110.9	0.0120285
5121.19	0.0102991
5130.02	0.00877922
5140.31	0.00697053
5150.61	0.00513228
5160.9	0.00327315
5171.2	0.00140134
5180.02	-0.000207297
5190.32	-0.00208259
5200.62	-0.00394996
5210.91	-0.00580327
5221.21	-0.00763697
5230.03	-0.00918934
5240.33	-0.010974
5250.62	-0.0127264
5260.92	-0.0144435
5271.21	-0.0161226
5280.04	-0.0175299
5290.33	-0.0191332
5300.63	-0.0206939
5310.92	-0.0222114
5321.22	-0.0236854
5330.04	-0.0249145
5340.34	-0.0263088
5350.63	-0.0276612
5360.93	-0.0289728
5371.22	-0.0302452
5380.05	-0.0313056
5390.34	-0.0325092
5400.64	-0.0336784
5410.94	-0.034815
5421.23	-0.035921
5430.06	-0.0368462
5440.35	-0.0379007
5450.65	-0.0389302
5460.94	-0.0399365
5471.24	-0.0409214
5480.06	-0.0417499
5490.36	-0.0426994
5500.65	-0.0436319
5510.95	-0.0445488
5521.24	-0.0454513
5530.07	-0.0462142
5540.36	-0.0470926
5550.66	-0.0479593
5560.95	-0.0488149
5571.25	-0.0496602
5580.07	-0.0503769
5590.37	-0.0512042
5600.66	-0.0520224
5610.96	-0.0528318
5621.25	-0.0536325
5630.08	-0.0543122
5640.37	-0.0550974
5650.67	-0.0558744
5660.97	-0.0566434
5671.26	-0.0574043
5680.09	-0.0580501
5690.38	-0.0587962
5700.68	-0.0595343
5710.97	-0.0602644
5721.27	-0.0609865
5730.09	-0.061599
5740.39	-0.062306
5750.68	-0.0630048
5760.98	-0.0636952
5771.27	-0.064377
5780.1	-0.0649544
5790.39	-0.0656196
5800.69	-0.0662753
5810.98	-0.0669212
5821.28	-0.0675566
5830.1	-0.0680925
5840.4	-0.0687069
5850.69	-0.0693088
5860.99	-0.0698974
5871.28	-0.0704715
5880.11	-0.0709513
5890.4	-0.0714955
5900.7	-0.0720217
5911	-0.0725283
5921.29	-0.0730137
5930.12	-0.0734116
5940.41	-0.073853
5950.71	-0.0742679
5961	-0.0746542
5971.3	-0.0750099
5980.12	-0.0752887
5990.42	-0.0755814
6000.71	-0.075837
6011.01	-0.0760529
6021.3	-0.0762268
6030.13	-0.0763406
6040.42	-0.0764301
6050.72	-0.0764706
6061.01	-0.0764599
6071.31	-0.0763955
6080.13	-0.0762959
6090.43	-0.076126
6100.72	-0.0758962
6111.02	-0.0756048
6121.31	-0.0752497
6130.14	-0.0748934
6140.43	-0.0744159
6150.73	-0.0738704
6161.03	-0.0732559
6171.32	-0.0725712
6180.15	-0.071928
6190.44	-0.0711113
6200.74	-0.0702229
6211.03	-0.0692627
6221.33	-0.0682307
6230.15	-0.0672893
6240.45	-0.0661251
6250.74	-0.0648907
6261.04	-0.0635871
6271.33	-0.0622155
6280.16	-0.0609868
6290.45	-0.0594929
6300.75	-0.0579357
6311.04	-0.0563172
6321.34	-0.0546396
6330.16	-0.0531564
6340.46	-0.0513755
6350.76	-0.0495429
6361.05	-0.0476613
6371.35	-0.0457336
6380.17	-0.0440471
6390.47	-0.0420423
6400.76	-0.0400006
6411.06	-0.0379253
6421.35	-0.0358198
6430.18	-0.0339937
6440.47	-0.0318412
6450.77	-0.0296686
6461.06	-0.0274791
6471.36	-0.0252764
6480.18	-0.0233805
6490.48	-0.0211624
6500.77	-0.0189409
6511.07	-0.0167195
6521.36	-0.0145015
6530.19	-0.0126055
6540.48	-0.0104024
6550.78	-0.00821185
6561.08	-0.00603698
6571.37	-0.00388075
6580.2	-0.00204961
6590.49	6.43536e-05
6600.79	0.00215161
6611.08	0.00420954
6621.38	0.0062356
6630.2	0.00794501
6640.5	0.0099055
6650.79	0.0118275
6661.09	0.0137087
6671.38	0.0155473
6680.21	0.0170877
6690.5	0.018842
6700.8	0.0205483
6711.09	0.0222051
6721.39	0.0238109
6730.21	0.0251457
6740.51	0.0266531
6750.8	0.0281059
6761.1	0.0295029
6771.39	0.0308432
6780.22	0.0319462
6790.51	0.033179
6800.81	0.0343529
6811.11	0.0354674
6821.4	0.0365222
6830.23	0.0373784
6840.52	0.0383213
6850.82	0.0392039
6861.11	0.0400261
6871.41	0.040788
6880.23	0.0413933
6890.53	0.042044
6900.82	0.0426354
6911.12	0.0431679
6921.41	0.0436422
6930.24	0.044003
6940.53	0.0443712
6950.83	0.0446834
6961.12	0.0449407
6971.42	0.045144
6980.24	0.0452762
6990.54	0.0453823
7000.84	0.0454378
7011.13	0.0454441
7021.43	0.0454025
7030.25	0.0453297
7040.55	0.0452028
7050.84	0.0450321
7061.14	0.0448192
7071.43	0.0445656
7080.26	0.044317
7090.55	0.043992
7100.85	0.0436308
7111.14	0.0432351
7121.44	0.0428065
7130.26	0.0424142
7140.56	0.0419288
7150.85	0.0414152
7161.15	0.040875
7171.44	0.0403097
7180.27	0.0398064
7190.56	0.0391988
7200.86	0.0385707
7211.16	0.0379236
7221.45	0.0372591
7230.28	0.0366767
7240.57	0.0359837
7250.87	0.0352774
7261.16	0.0345594
7271.46	0.0338311
7280.28	0.0331997
7290.58	0.0324559
7300.87	0.0317058
7311.17	0.0309507
7321.46	0.0301921
7330.29	0.02954
7340.58	0.0287782
7350.88	0.0280168
7361.17	0.027257
7371.47	0.0265001
7380.29	0.0258547
7390.59	0.025107
7400.88	0.024366
7411.18	0.0236331
7420	0.0230125
7430.3	0.0222984
7440.59	0.0215963
7450.89	0.0209075
7461.18	0.0202334
7470.01	0.0196684
7480.3	0.0190251
7490.6	0.0184004
7500.9	0.0177954
7511.19	0.0172114
7520.02	0.0167286
7530.31	0.016187
7540.61	0.0156699
7550.9	0.0151784
7561.2	0.0147135
7570.02	0.0143371
7580.32	0.0139244
7590.61	0.013541
7600.91	0.0131878
7611.2	0.0128653
7620.03	0.0126139
7630.32	0.0123502
7640.62	0.0121187
7650.91	0.0119196
7661.21	0.0117532
7670.03	0.0116365
7680.33	0.0115306
7690.62	0.011457
7700.92	0.0114154
7711.21	0.0114053
7720.04	0.0114211
7730.33	0.0114676
7740.63	0.0115433
7750.92	0.0116472
7761.22	0.0117781
7770.04	0.0119109
7780.34	0.0120885
7790.63	0.012289
7800.93	0.0125109
7811.23	0.0127524
7820.05	0.0129735
7830.35	0.0132463
7840.64	0.0135332
7850.94	0.013832
7861.23	0.0141405
7870.06	0.014411
7880.35	0.0147318
7890.65	0.0150558
7900.94	0.0153808
7911.24	0.0157044
7920.06	0.015979
7930.36	0.0162938
7940.65	0.0166005
7950.95	0.0168968
7961.24	0.0171805
7970.07	0.0174117
7980.36	0.0176658
7990.66	0.0179009
8000.95	0.0181149
8011.25	0.0183058
8020.07	0.0184495
8030.37	0.0185923
8040.66	0.0187067
8050.96	0.0187909
8061.25	0.0188433
8070.08	0.0188619
8080.37	0.0188515
8090.67	0.0188054
8100.97	0.0187224
8111.26	0.0186015
8120.09	0.0184669
8130.38	0.0182731
8140.68	0.018039
8150.97	0.017764
8161.27	0.0174477
8170.09	0.0171434
8180.39	0.0167495
8190.68	0.0163137
8200.98	0.0158359
8211.27	0.0153163
8220.1	0.0148379
8230.39	0.0142414
8240.69	0.0136043
8250.98	0.0129269
8261.28	0.0122102
8270.1	0.011565
8280.4	0.0107772
8290.69	0.00995261
8300.99	0.00909223
8311.28	0.00819727
8320.11	0.00740362
8330.4	0.00644791
8340.7	0.00546148
8351	0.00444582
8361.29	0.00340247
8370.12	0.00248737
8380.41	0.00139694
8390.71	0.000283577
8401	-0.00085098
8411.3	-0.00200495
8420.12	-0.00300814
8430.42	-0.00419334
8440.71	-0.00539272
8451.01	-0.00660443
8461.3	-0.00782661
8470.13	-0.00888111
8480.42	-0.0101178
8490.72	-0.0113597
8501.01	-0.0126049
8511.31	-0.0138517
8520.13	-0.0149202
8530.43	-0.0161652
8540.73	-0.0174067
8551.02	-0.0186432
8561.32	-0.0198728
8570.14	-0.0209203
8580.44	-0.0221333
8590.73	-0.0233352
8601.03	-0.0245246
8611.32	-0.0257
8620.15	-0.0266954
8630.44	-0.0278414
8640.74	-0.0289699
8651.03	-0.0300798
8661.33	-0.0311699
8670.15	-0.0320877
8680.45	-0.0331385
8690.74	-0.0341667
8701.04	-0.0351716
8711.33	-0.0361524
8720.16	-0.0369734
8730.45	-0.0379077
8740.75	-0.0388161
8751.05	-0.0396979
8761.34	-0.0405529
8770.17	-0.041264
8780.46	-0.042068
8790.76	-0.042844
8801.05	-0.0435919
8811.35	-0.0443115
8820.17	-0.0449056
8830.47	-0.0455723
8840.76	-0.0462105
8851.06	-0.0468202
8861.35	-0.0474014
8870.18	-0.047877
8880.47	-0.0484058
8890.77	-0.0489066
8901.06	-0.0493797
8911.36	-0.0498254
8920.18	-0.0501858
8930.48	-0.0505813
8940.77	-0.0509505
8951.07	-0.0512937
8961.37	-0.0516113
8970.19	-0.0518636
8980.49	-0.052135
8990.78	-0.0523823
9001.08	-0.052606
9011.37	-0.0528067
9020.2	-0.0529607
9030.49	-0.05312
9040.79	-0.0532579
9051.08	-0.0533749
9061.38	-0.0534716
9070.2	-0.0535389
9080.5	-0.0535996
9090.79	-0.0536416
9101.09	-0.0536657
9111.38	-0.0536722
9120.21	-0.0536644
9130.5	-0.05364
9140.8	-0.0535997
9151.09	-0.0535441
9161.39	-0.0534735
9170.21	-0.0534016
9180.51	-0.0533047
9190.81	-0.0531942
9201.1	-0.0530707
9211.4	-0.0529346
9220.22	-0.0528081
9230.52	-0.0526495
9240.81	-0.0524795
9251.11	-0.0522982
9261.4	-0.0521062
9270.23	-0.0519333
9280.52	-0.0517221
9290.82	-0.051501
9301.11	-0.0512705
9311.41	-0.0510307
9320.23	-0.050818
9330.53	-0.0505619
9340.82	-0.0502973
9351.12	-0.0500246
9361.42	-0.049744
9370.24	-0.0494975
9380.54	-0.049203
9390.83	-0.0489015
9401.13	-0.0485931
9411.42	-0.0482782
9420.25	-0.0480032
9430.54	-0.0476767
9440.84	-0.0473444
9451.13	-0.0470065
9461.43	-0.0466632
9470.25	-0.046365
9480.55	-0.0460124
9490.84	-0.0456552
9501.14	-0.0452936
9511.43	-0.0449278
9520.26	-0.0446111
9530.55	-0.044238
9540.85	-0.0438613
9551.14	-0.0434812
9561.44	-0.0430979
9570.26	-0.0427668
9580.56	-0.0423779
9590.86	-0.0419861
9601.15	-0.0415917
9611.45	-0.0411948
9620.27	-0.0408526
9630.57	-0.0404512
9640.86	-0.0400476
9651.16	-0.0396418
9661.45	-0.0392338
9670.28	-0.0388825
9680.57	-0.0384707
9690.87	-0.0380569
9701.16	-0.0376412
9711.46	-0.0372235
9720.28	-0.0368639
9730.58	-0.0364426
9740.87	-0.0360194
9751.17	-0.0355943
9761.47	-0.0351673
9770.29	-0.0347998
9780.59	-0.0343693
9790.88	-0.0339369
9801.18	-0.0335028
9810	-0.0331293
9820.3	-0.0326919
9830.59	-0.0322529
9840.89	-0.0318122
9851.18	-0.0313701
9860.01	-0.0309901
9870.3	-0.0305455
9880.6	-0.0300998
9890.89	-0.0296532
9901.19	-0.0292057
9910.01	-0.0288217
9920.31	-0.0283734
9930.6	-0.0279249
9940.9	-0.0274765
9951.19	-0.0270284
9960.02	-0.0266449
9970.31	-0.0261984
9980.61	-0.0257531
9990.91	-0.0253094
10001.2	-0.0248677
10010	-0.0244908
10020.3	-0.0240537
10030.6	-0.0236195
10040.9	-0.0231888
10051.2	-0.0227618
10060	-0.0223991
10070.3	-0.0219802
10080.6	-0.0215662
10090.9	-0.0211575
10101.2	-0.0207544
10110	-0.0204137
10120.3	-0.0200221
10130.6	-0.0196372
10140.9	-0.0192594
10151.2	-0.0188888
10160	-0.0185773
10170.3	-0.0182213
10180.6	-0.0178734
10190.9	-0.0175339
10201.2	-0.017203
10210.1	-0.0169265
10220.3	-0.0166122
10230.6	-0.0163072
10240.9	-0.0160115
10251.2	-0.0157252
10260.1	-0.0154875
10270.4	-0.0152191
10280.6	-0.0149604
10290.9	-0.0147115
10301.2	-0.0144724
10310.1	-0.0142753
10320.4	-0.0140545
10330.7	-0.0138436
10340.9	-0.0136425
10351.2	-0.0134512
10360.1	-0.013295
10370.4	-0.0131219
10380.7	-0.0129585
10391	-0.0128048
10401.3	-0.0126607
10410.1	-0.0125448
10420.4	-0.0124184
10430.7	-0.0123015
10441	-0.012194
10451.3	-0.0120959
10460.1	-0.0120191
10470.4	-0.0119382
10480.7	-0.0118664
10491	-0.0118038
10501.3	-0.0117502
10510.1	-0.0117114
10520.4	-0.0116744
10530.7	-0.0116462
10541	-0.0116267
10551.3	-0.0116159
10560.1	-0.0116133
10570.4	-0.0116182
10580.7	-0.0116312
10591	-0.0116524
10601.3	-0.0116815
10610.1	-0.0117125
10620.4	-0.0117557
10630.7	-0.0118061
10641	-0.0118635
10651.3	-0.0119275
10660.1	-0.0119875
10670.4	-0.0120631
10680.7	-0.0121443
10691	-0.0122308
10701.3	-0.012322
10710.1	-0.0124037
10720.4	-0.0125025
10730.7	-0.0126047
10741	-0.0127097
10751.3	-0.0128169
10760.1	-0.0129101
10770.4	-0.0130199
10780.7	-0.01313
10791	-0.0132399
10801.3	-0.013349
10810.1	-0.0134413
10820.4	-0.0135469
10830.7	-0.0136498
10841	-0.0137491
10851.3	-0.0138443
10860.1	-0.0139221
10870.4	-0.0140079
10880.7	-0.0140878
10891	-0.0141611
10901.3	-0.0142272
10910.1	-0.0142779
10920.4	-0.0143296
10930.7	-0.0143727
10941	-0.0144069
10951.3	-0.0144319
10960.1	-0.0144456
10970.4	-0.0144526
10980.7	-0.0144496
10991	-0.0144364
11001.3	-0.0144129
11010.1	-0.0143847
11020.4	-0.0143422
11030.7	-0.0142895
11041	-0.0142267
11051.3	-0.0141542
11060.2	-0.0140843
11070.5	-0.0139941
11080.7	-0.013895
11091	-0.0137872
11101.3	-0.0136712
11110.2	-0.0135657
11120.5	-0.0134359
11130.8	-0.0132995
11141	-0.0131569
11151.3	-0.0130087
11160.2	-0.0128779
11170.5	-0.0127211
11180.8	-0.0125607
11191.1	-0.0123972
11201.3	-0.0122313
11210.2	-0.0120876
11220.5	-0.0119189
11230.8	-0.0117495
11241.1	-0.0115801
11251.4	-0.0114111
11260.2	-0.0112671
11270.5	-0.0111005
11280.8	-0.0109358
11291.1	-0.0107734
11301.4	-0.0106138
11310.2	-0.0104794
11320.5	-0.0103256
11330.8	-0.0101754
11341.1	-0.0100288
11351.4	-0.009886
11360.2	-0.00976666
11370.5	-0.009631
11380.8	-0.00949913
11391.1	-0.00937092
11401.4	-0.00924622
11410.2	-0.00914195
11420.5	-0.00902309
11430.8	-0.00890693
11441.1	-0.00879308
11451.4	-0.00868111
11460.2	-0.00858626
11470.5	-0.00847646
11480.8	-0.00836705
11491.1	-0.00825742
11501.4	-0.00814694
11510.2	-0.00805107
11520.5	-0.00793725
11530.8	-0.00782062
11541.1	-0.00770047
11551.4	-0.00757605
11560.2	-0.00746545
11570.5	-0.00733114
11580.8	-0.00719044
11591.1	-0.0070426
11601.4	-0.00688689
11610.2	-0.00674662
11620.5	-0.00657441
11630.8	-0.00639234
11641.1	-0.00619975
11651.4	-0.00599604
11660.2	-0.00581212
11670.5	-0.00558621
11680.8	-0.0053476
11691.1	-0.00509584
11701.4	-0.0048305
11710.2	-0.00459198
11720.5	-0.00430051
11730.8	-0.00399456
11741.1	-0.00367393
11751.4	-0.00333849
11760.2	-0.00303909
11770.5	-0.00267592
11780.8	-0.00229784
11791.1	-0.00190494
11801.4	-0.00149736
11810.2	-0.00113648
11820.5	-0.000702241
11830.8	-0.00025408
11841.1	0.000207629
11851.4	0.000682455
11860.3	0.00109952
11870.5	0.00159739
11880.8	0.00210687
11891.1	0.00262733
11901.4	0.00315812
11910.3	0.00362077
11920.6	0.00416887
11930.8	0.00472521
11941.1	0.00528902
11951.4	0.00585949
11960.3	0.00635314
11970.6	0.00693378
11980.9	0.00751869
11991.2	0.00810703
12001.4	0.00869794
12010.3	0.00920585
12020.6	0.00979929
12030.9	0.0103929
12041.2	0.0109859
12051.5	0.0115774
12060.3	0.0120827
12070.6	0.0126695
12080.9	0.0132528
12091.2	0.0138318
12101.5	0.0144058
12110.3	0.0148934
12120.6	0.0154566
12130.9	0.0160133
12141.2	0.0165627
12151.5	0.0171046
12160.3	0.0175627
12170.6	0.0180894
12180.9	0.0186074
12191.2	0.0191163
12201.5	0.0196159
12210.3	0.0200366
12220.6	0.0205184
12230.9	0.0209904
12241.2	0.0214524
12250	0.0218404
12260.3	0.0222837
12270.6	0.0227169
12280.9	0.02314
12291.2	0.023553
12300	0.0238989
12310.3	0.0242933
12320.6	0.0246777
12330.9	0.0250523
12341.2	0.0254172
12350	0.0257222
12360.3	0.0260694
12370.6	0.0264071
12380.9	0.0267356
12391.2	0.027055
12400	0.0273216
12410.3	0.0276243
12420.6	0.0279184
12430.9	0.0282037
12441.2	0.0284805
12450	0.0287111
12460.3	0.0289723
12470.6	0.0292253
12480.9	0.0294701
12491.2	0.0297068
12500	0.0299032
12510.3	0.030125
12520.6	0.0303389
12530.9	0.0305448
12541.2	0.030743
12550	0.0309066
12560.3	0.0310903
12570.6	0.0312664
12580.9	0.0314348
12591.2	0.0315956
12600	0.0317275
12610.3	0.0318745
12620.6	0.0320141
12630.9	0.0321465
12641.2	0.0322718
12650.1	0.0323736
12660.3	0.0324861
12670.6	0.0325919
12680.9	0.0326912
12691.2	0.0327843
12700.1	0.0328593
12710.4	0.0329414
12720.7	0.0330181
12730.9	0.0330896
12741.2	0.0331563
12750.1	0.0332099
12760.4	0.0332686
12770.7	0.0333236
12781	0.0333753
12791.2	0.0334242
12800.1	0.0334643
12810.4	0.0335093
12820.7	0.0335529
12831	0.0335957
12841.3	0.0336381
12850.1	0.0336747
12860.4	0.033718
12870.7	0.0337626
12881	0.033809
12891.3	0.0338578
12900.1	0.0339019
12910.4	0.0339566
12920.7	0.0340151
12931	0.0340781
12941.3	0.034146
12950.1	0.0342084
12960.4	0.0342866
12970.7	0.0343709
12981	0.0344616
12991.3	0.0345592
13000.1	0.0346484
13010.4	0.0347592
13020.7	0.0348774
13031	0.0350032
13041.3	0.0351365
13050.1	0.0352569
13060.4	0.0354043
13070.7	0.0355592
13081	0.0357213
13091.3	0.0358904
13100.1	0.0360406
13110.4	0.0362217
13120.7	0.0364087
13131	0.036601
13141.3	0.036798
13150.1	0.0369701
13160.4	0.0371739
13170.7	0.0373804
13181	0.0375884
13191.3	0.0377973
13200.1	0.0379761
13210.4	0.0381835
13220.7	0.0383885
13231	0.03859
13241.3	0.0387866
13250.1	0.0389503
13260.4	0.0391346
13270.7	0.0393101
13281	0.0394755
13291.3	0.0396294
13300.1	0.039751
13310.4	0.0398794
13320.7	0.0399919
13331	0.040087
13341.3	0.040163
13350.1	0.0402118
13360.4	0.0402483
13370.7	0.0402613
13381	0.0402493
13391.3	0.0402107
13400.1	0.0401553
13410.4	0.0400633
13420.7	0.0399405
13431	0.0397856
13441.3	0.039597
13450.2	0.0394077
13460.4	0.0391533
13470.7	0.0388619
13481	0.0385321
13491.3	0.0381631
13500.2	0.0378147
13510.5	0.0373701
13520.8	0.0368837
13531	0.0363546
13541.3	0.0357823
13550.2	0.035257
13560.5	0.034603
13570.8	0.0339046
13581.1	0.0331615
13591.3	0.0323736
13600.2	0.0316625
13610.5	0.0307913
13620.8	0.0298756
13631.1	0.0289156
13641.4	0.0279117
13650.2	0.0270169
13660.5	0.0259332
13670.8	0.0248076
13681.1	0.023641
13691.4	0.0224343
13700.2	0.0213689
13710.5	0.0200908
13720.8	0.0187761
13731.1	0.0174263
13741.4	0.0160428
13750.2	0.0148314
13760.5	0.0133898
13770.8	0.0119195
13781.1	0.0104223
13791.4	0.00890031
13800.2	0.00757753
13810.5	0.00601493
13820.8	0.00443359
13831.1	0.00283578
13841.4	0.00122384
13850.2	-0.000167266
13860.5	-0.00179908
13870.8	-0.00343807
13881.1	-0.00508173
13891.4	-0.00672751
13900.2	-0.00813792
13910.5	-0.0097808
13920.8	-0.0114184
13931.1	-0.0130482
13941.4	-0.0146675
13950.2	-0.0160451
13960.5	-0.0176381
13970.8	-0.0192132
13981.1	-0.020768
13991.4	-0.0223
14000.2	-0.023593
14010.5	-0.0250761
14020.8	-0.0265294
14031.1	-0.0279508
14041.4	-0.029338
14050.2	-0.0304981
14060.5	-0.0318161
14070.8	-0.0330939
14081.1	-0.0343298
14091.4	-0.0355218
14100.2	-0.0365073
14110.5	-0.0376135
14120.8	-0.0386713
14131.1	-0.0396792
14141.4	-0.0406361
14150.2	-0.0414148
14160.5	-0.0422739
14170.8	-0.0430789
14181.1	-0.0438291
14191.4	-0.0445239
14200.2	-0.0450748
14210.5	-0.0456652
14220.8	-0.0461989
14231.1	-0.0466759
14241.4	-0.047096
14250.3	-0.0474109
14260.5	-0.0477258
14270.8	-0.0479846
14281.1	-0.0481876
14291.4	-0.0483355
14300.3	-0.048419
14310.6	-0.0484665
14320.9	-0.0484613
14331.1	-0.0484043
14341.4	-0.0482968
14350.3	-0.0481652
14360.6	-0.0479671
14370.9	-0.0477221
14381.2	-0.0474319
14391.4	-0.0470979
14400.3	-0.046778
14410.6	-0.0463672
14420.9	-0.0459175
14431.2	-0.0454308
14441.5	-0.0449089
14450.3	-0.044435
14460.6	-0.0438528
14470.9	-0.0432409
14481.2	-0.0426013
14491.5	-0.041936
14500.3	-0.0413467
14510.6	-0.0406389
14520.9	-0.039911
14531.2	-0.039165
14541.5	-0.0384029
14550.3	-0.0377383
14560.6	-0.0369512
14570.9	-0.0361535
14581.2	-0.0353468
14590	-0.0346496
14600.3	-0.033831
14610.6	-0.0330083
14620.9	-0.0321832
14631.2	-0.0313573
14640	-0.0306497
14650.3	-0.0298259
14660.6	-0.0290052
14670.9	-0.028189
14681.2	-0.0273782
14690	-0.0266886
14700.3	-0.025891
14710.6	-0.0251019
14720.9	-0.0243222
14731.2	-0.0235526
14740	-0.0229016
14750.3	-0.0221527
14760.6	-0.0214157
14770.9	-0.0206911
14781.2	-0.0199794
14790	-0.0193798
14800.3	-0.0186928
14810.6	-0.0180193
14820.9	-0.0173596
14831.2	-0.0167136
14840	-0.016171
14850.3	-0.0155507
14860.6	-0.0149441
14870.9	-0.0143511
14881.2	-0.0137714
14890	-0.0132851
14900.3	-0.0127298
14910.6	-0.0121872
14920.9	-0.011657
14931.2	-0.0111389
14940	-0.0107042
14950.3	-0.0102077
14960.6	-0.00972226
14970.9	-0.0092476
14981.2	-0.00878336
14990.1	-0.00839347
15000.3	-0.00794766
15010.6	-0.0075113
15020.9	-0.00708411
15031.2	-0.00666579
15040.1	-0.00631411
15050.4	-0.00591162
15060.7	-0.00551737
15070.9	-0.0051312
15081.2	-0.00475298
15090.1	-0.00443505
15100.4	-0.00407142
15110.7	-0.00371564
15121	-0.00336774
15131.2	-0.00302785
15140.1	-0.00274299
15150.4	-0.0024184
15160.7	-0.00210238
15171	-0.00179523
15181.3	-0.00149733
15190.1	-0.00124965
15200.4	-0.000970035
15210.7	-0.000700988
15221	-0.000443072
15231.3	-0.000196909
15240.1	4.22541e-06
15250.4	0.000226741
15260.7	0.000435453
15271	0.000629548
15281.3	0.00080817
15290.1	0.00094828
15300.4	0.00109575
15310.7	0.00122508
15321	0.00133525
15331.3	0.00142523
15340.1	0.00148547
15350.4	0.0015351
15360.7	0.00156141
15371	0.00156328
15381.3	0.00153957
15390.1	0.001498
15400.4	0.00142369
15410.7	0.00132047
15421	0.00118718
15431.3	0.00102266
15440.1	0.000855903
15450.4	0.000630334
15460.7	0.000370288
15471	7.46729e-05
15481.3	-0.00025758
15490.1	-0.000572313
15500.4	-0.00097532
15510.7	-0.00141781
15521	-0.00190071
15531.3	-0.00242487
15540.1	-0.0029076
15550.4	-0.00351048
15560.7	-0.00415675
15571	-0.00484705
15581.3	-0.00558191
15590.1	-0.00624761
15600.4	-0.00706641
15610.7	-0.00793088
15621	-0.00884124
15631.3	-0.00979763
15640.1	-0.010654
15650.4	-0.0116959
15660.7	-0.0127836
15671	-0.0139168
15681.3	-0.0150952
15690.1	-0.0161409
15700.4	-0.0174018
15710.7	-0.0187062
15721	-0.0200533
15731.3	-0.021442
15740.1	-0.0226647
15750.4	-0.0241279
15760.7	-0.0256294
15771	-0.0271677
15781.3	-0.0287414
15790.2	-0.0301171
15800.4	-0.0317519
15810.7	-0.0334169
15821	-0.0351101
15831.3	-0.0368293
15840.2	-0.038322
15850.5	-0.0400836
15860.8	-0.0418645
15871	-0.0436622
15881.3	-0.045474
15890.2	-0.047036
15900.5	-0.0488665
15910.8	-0.0507029
15921.1	-0.0525422
15931.3	-0.0543812
15940.2	-0.0559549
15950.5	-0.057785
15960.8	-0.0596055
15971.1	-0.0614132
15981.4	-0.0632046
15990.2	-0.0647245
16000.5	-0.0664765
16010.8	-0.0682023
16021.1	-0.0698984
16031.4	-0.0715612
16040.2	-0.0729573
16050.5	-0.074549
16060.8	-0.0760975
16071.1	-0.0775992
16081.4	-0.0790508
16090.2	-0.0802525
16100.5	-0.081602
16110.8	-0.0828919
16121.1	-0.0841188
16131.4	-0.0852798
16140.2	-0.0862202
16150.5	-0.0872507
16160.8	-0.0882069
16171.1	-0.0890861
16181.4	-0.0898857
16190.2	-0.0905058
16200.5	-0.0911512
16210.8	-0.0917103
16221.1	-0.0921812
16231.4	-0.092562
16240.2	-0.0928155
16250.5	-0.0930246
16260.8	-0.0931394
16271.1	-0.0931586
16281.4	-0.0930812
16290.2	-0.0929374
16300.5	-0.0926788
16310.8	-0.092322
16321.1	-0.0918667
16331.4	-0.0913129
16340.2	-0.0907601
16350.5	-0.0900242
16360.8	-0.0891911
16371.1	-0.0882615
16381.4	-0.0872364
16390.2	-0.0862827
16400.5	-0.0850837
16410.8	-0.0837934
16421.1	-0.0824133
16431.4	-0.0809456
16440.2	-0.0796195
16450.5	-0.0779949
16460.8	-0.0762893
16471.1	-0.0745054
16481.4	-0.0726461
16490.2	-0.0709946
16500.5	-0.0690031
16510.8	-0.0669452
16521.1	-0.0648242
16531.4	-0.0626435
16540.2	-0.0607297
16550.5	-0.058448
16560.8	-0.0561175
16571.1	-0.0537418
16581.4	-0.0513251
16590.3	-0.049224
16600.5	-0.0467417
16610.8	-0.04423
16621.1	-0.041693
16631.4	-0.0391349
16640.3	-0.0369286
16650.6	-0.0343423
16660.9	-0.0317469
16671.1	-0.0291464
16681.4	-0.0265449
16690.3	-0.0243174
16700.6	-0.0217248
16710.9	-0.0191426
16721.2	-0.0165748
16731.4	-0.014025
16740.3	-0.0118566
16750.6	-0.00935009
16760.9	-0.00687181
16771.2	-0.00442518
16781.5	-0.0020134
16790.3	2.37373e-05
16800.6	0.00236267
16810.9	0.0046583
16821.2	0.00690794
16831.5	0.00910909
16840.3	0.0109554
16850.6	0.0130604
16860.9	0.0151106
16871.2	0.0171042
16881.5	0.0190394
16890.3	0.0206506
16900.6	0.0224736
16910.9	0.0242343
16921.2	0.0259319
16930	0.0273359
16940.3	0.0289138
16950.6	0.0304266
16960.9	0.0318737
16971.2	0.0332551
16980	0.0343868
16990.3	0.035646
17000.6	0.0368397
17010.9	0.0379684
17021.2	0.0390325
17030	0.0398938
17040.3	0.0408399
17050.6	0.0417238
17060.9	0.0425464
17071.2	0.0433089
17080	0.0439155
17090.3	0.0445698
17100.6	0.0451676
17110.9	0.0457107
17121.2	0.0462005
17130	0.0465792
17140.3	0.0469744
17150.6	0.0473212
17160.9	0.0476214
17171.2	0.0478766
17180	0.0480611
17190.3	0.048238
17200.6	0.0483753
17210.9	0.0484749
17221.2	0.0485388
17230	0.0485665
17240.3	0.0485688
17250.6	0.0485407
17260.9	0.0484839
17271.2	0.0484003
17280	0.0483086
17290.3	0.0481797
17300.6	0.0480289
17310.9	0.0478577
17321.2	0.0476679
17330.1	0.0474914
17340.3	0.0472707
17350.6	0.0470356
17360.9	0.0467873
17371.2	0.0465271
17380.1	0.0462957
17390.4	0.0460167
17400.6	0.0457292
17410.9	0.0454343
17421.2	0.0451329
17430.1	0.0448701
17440.4	0.044559
17450.7	0.0442439
17460.9	0.0439254
17471.2	0.0436043
17480.1	0.0433274
17490.4	0.0430029
17500.7	0.0426773
17511	0.0423512
17521.3	0.0420248
17530.1	0.0417451
17540.4	0.0414192
17550.7	0.041094
17561	0.0407697
17571.3	0.0404465
17580.1	0.0401704
17590.4	0.0398497
17600.7	0.0395304
17611	0.0392127
17621.3	0.0388966
17630.1	0.0386271
17640.4	0.0383142
17650.7	0.0380031
17661	0.0376937
17671.3	0.0373861
17680.1	0.0371238
17690.4	0.0368195
17700.7	0.036517
17711	0.0362162
17721.3	0.0359173
17730.1	0.0356624
17740.4	0.0353669
17750.7	0.0350731
17761	0.0347813
17771.3	0.0344914
17780.1	0.0342446
17790.4	0.0339585
17800.7	0.0336746
17811	0.033393
17821.3	0.0331138
17830.1	0.0328764
17840.4	0.0326019
17850.7	0.0323302
17861	0.0320615
17871.3	0.0317958
17880.1	0.0315708
17890.4	0.0313114
17900.7	0.0310557
17911	0.0308038
17921.3	0.0305561
17930.1	0.0303471
17940.4	0.0301075
17950.7	0.0298725
17961	0.0296425
17971.3	0.0294176
17980.1	0.029229
17990.4	0.0290142
18000.7	0.0288051
18011	0.0286019
18021.3	0.0284048
18030.1	0.0282408
18040.4	0.0280555
18050.7	0.0278767
18061	0.0277046
18071.3	0.0275393
18080.1	0.027403
18090.4	0.0272506
18100.7	0.0271051
18111	0.0269666
18121.3	0.0268352
18130.2	0.0267281
18140.4	0.0266097
18150.7	0.0264983
18161	0.0263936
18171.3	0.0262957
18180.2	0.026217
18190.5	0.0261311
18200.7	0.0260514
18211	0.0259778
18221.3	0.0259098
18230.2	0.025856
18240.5	0.0257979
18250.8	0.0257447
18261.1	0.025696
18271.3	0.0256514
18280.2	0.025616
18290.5	0.0255779
18300.8	0.0255425
18311.1	0.0255094
18321.4	0.0254782
18330.2	0.0254524
18340.5	0.025423
18350.8	0.0253938
18361.1	0.0253642
18371.4	0.0253335
18380.2	0.025306
18390.5	0.0252717
18400.8	0.0252345
18411.1	0.0251937
18421.4	0.0251486
18430.2	0.025106
18440.5	0.0250511
18450.8	0.0249898
18461.1	0.0249215
18471.4	0.0248455
18480.2	0.0247735
18490.5	0.024681
18500.8	0.0245787
18511.1	0.0244658
18521.4	0.0243416
18530.2	0.0242255
18540.5	0.0240784
18550.8	0.0239179
18561.1	0.0237434
18571.4	0.0235542
18580.2	0.0233799
18590.5	0.0231617
18600.8	0.0229271
18611.1	0.0226753
18621.4	0.0224059
18630.2	0.0221605
18640.5	0.0218568
18650.8	0.021534
18661.1	0.0211916
18671.4	0.0208291
18680.2	0.0205021
18690.5	0.0201013
18700.8	0.0196794
18711.1	0.0192361
18721.4	0.0187711
18730.2	0.0183552
18740.5	0.0178494
18750.8	0.0173215
18761.1	0.0167714
18771.4	0.0161989
18780.2	0.0156904
18790.5	0.0150765
18800.8	0.0144403
18811.1	0.0137821
18821.4	0.0131019
18830.2	0.0125017
18840.5	0.0117814
18850.8	0.0110401
18861.1	0.0102779
18871.4	0.00949535
18880.2	0.00880872
18890.5	0.00798956
18900.8	0.00715145
18911.1	0.00629498
18921.4	0.00542078
18930.3	0.00465787
18940.5	0.00375259
18950.8	0.00283165
18961.1	0.00189584
18971.4	0.000946016
18980.3	0.000121391
18990.6	-0.000852097
19000.8	-0.00183698
19011.1	-0.00283228
19021.4	-0.00383697
19030.3	-0.00470482
19040.6	-0.00572417
19050.9	-0.00674983
19061.2	-0.00778071
19071.4	-0.00881564
19080.3	-0.00970508
19090.6	-0.0107445
19100.9	-0.0117845
19111.2	-0.0128241
19121.5	-0.0138619
19130.3	-0.0147491
19140.6	-0.0157804
19150.9	-0.0168065
19161.2	-0.0178261
19171.5	-0.018838
19180.3	-0.0196982
19190.6	-0.0206925
19200.9	-0.0216757
19211.2	-0.0226464
19221.5	-0.0236035
19230.3	-0.0244122
19240.6	-0.025341
19250.9	-0.0262529
19261.2	-0.0271469
19270	-0.027898
19280.3	-0.0287558
19290.6	-0.0295925
19300.9	-0.0304073
19311.2	-0.0311991
19320	-0.0318588
19330.3	-0.0326055
19340.6	-0.0333268
19350.9	-0.0340217
19361.2	-0.0346895
19370	-0.0352399
19380.3	-0.0358555
19390.6	-0.036442
19400.9	-0.036999
19411.2	-0.0375257
19420	-0.0379527
19430.3	-0.0384221
19440.6	-0.0388599
19450.9	-0.0392659
19461.2	-0.0396397
19470	-0.0399344
19480.3	-0.0402479
19490.6	-0.0405287
19500.9	-0.0407767
19511.2	-0.0409919
19520	-0.0411503
19530.3	-0.0413046
19540.6	-0.0414263
19550.9	-0.0415156
19561.2	-0.0415727
19570	-0.0415962
19580.3	-0.0415943
19590.6	-0.0415612
19600.9	-0.0414973
19611.2	-0.0414031
19620	-0.0412988
19630.3	-0.0411499
19640.6	-0.0409725
19650.9	-0.0407672
19661.2	-0.0405348
19670	-0.0403146
19680.3	-0.0400341
19690.6	-0.0397287
19700.9	-0.0393996
19711.2	-0.0390477
19720.1	-0.0387286
19730.4	-0.0383369
19740.6	-0.0379253
19750.9	-0.0374949
19761.2	-0.0370469
19770.1	-0.0366497
19780.4	-0.036172
19790.7	-0.03568
19800.9	-0.0351749
19811.2	-0.0346581
19820.1	-0.0342066
19830.4	-0.0336712
19840.7	-0.0331275
19851	-0.032577
19861.2	-0.0320208
19870.1	-0.0315407
19880.4	-0.0309775
19890.7	-0.0304124
19901	-0.0298467
19911.3	-0.0292815
19920.1	-0.0287984
19930.4	-0.0282376
19940.7	-0.0276809
19951	-0.0271294
19961.3	-0.0265843
19970.1	-0.026123
19980.4	-0.0255927
19990.7	-0.0250719
