0	0
10.1663	0
20.3325	0
30.4987	0
40.6649	0
50.8311	0
60.9971	0
70.1464	0
80.3121	0
90.4777	0
100.643	0
110.808	0
120.974	0
130.123	0
140.289	0
150.455	0
160.429	0
170.394	0
180.358	0
190.322	0
200.286	0
210.25	0
220.215	0
230.179	0
240.143	0
250.107	0
260.071	0
270.035	0
280.996	0
290.959	0
300.921	0
310.883	0
320.845	0
330.807	0
340.769	0
350.731	0
360.693	0
370.655	0
380.617	0
390.579	0
400.541	0
410.495	0
420.369	0
430.184	-1.81899e-12
440.974	-8.18545e-12
450.777	-1.72804e-11
460.501	-2.63753e-11
470.142	-4.54747e-11
480.715	-8.36735e-11
490.327	-1.42791e-10
500.9	-2.56478e-10
510.512	-4.33829e-10
520.124	-7.16682e-10
530.675	-1.226e-09
540.201	-1.9636e-09
550.652	-3.24599e-09
560.15	-5.05679e-09
570.596	-8.12179e-09
580.083	-1.23382e-08
590.512	-1.92831e-08
600.931	-2.97341e-08
610.395	-4.35848e-08
620.804	-6.56037e-08
630.268	-9.41654e-08
640.677	-1.38604e-07
650.14	-1.95068e-07
660.55	-2.81154e-07
670.013	-3.88418e-07
680.422	-5.48839e-07
690.832	-7.67842e-07
700.295	-1.03323e-06
710.704	-1.41943e-06
720.167	-1.87947e-06
730.576	-2.53776e-06
740.029	-3.3083e-06
750.409	-4.39091e-06
760.787	-5.77973e-06
770.222	-7.36869e-06
780.6	-9.5536e-06
790.035	-1.20171e-05
800.414	-1.53561e-05
810.793	-1.94793e-05
820.228	-2.40306e-05
830.606	-3.00713e-05
840.041	-3.66507e-05
850.42	-4.52681e-05
860.798	-5.55403e-05
870.233	-6.65093e-05
880.612	-8.05958e-05
890.047	-9.54478e-05
900.425	-0.00011428
910.804	-0.000135985
920.239	-0.000158434
930.617	-0.000186353
940.052	-0.000214863
950.43	-0.000249867
960.809	-0.000288863
970.244	-0.000327895
980.622	-0.000374841
990.057	-0.000421175
1000.44	-0.000476098
1010.81	-0.000535002
1020.25	-0.000591778
1030.63	-0.000657416
1040.06	-0.000719548
1050.44	-0.000789965
1060.82	-0.000861707
1070.25	-0.000927191
1080.63	-0.000998353
1090.07	-0.00106106
1100.45	-0.00112627
1110.82	-0.00118573
1120.26	-0.00123334
1130.64	-0.00127695
1140.07	-0.00130657
1150.45	-0.00132493
1160.83	-0.00132463
1170.26	-0.00130444
1180.64	-0.00125818
1190.08	-0.00119257
1200.45	-0.00108963
1210.83	-0.000947305
1220.26	-0.000773769
1230.64	-0.000221293
1240.07	0.000447599
1250.45	0.00116216
1260.82	0.00137454
1270.26	0.00188055
1280.63	0.0027925
1290.07	0.00364018
1300.44	0.00497039
1310.82	0.00602621
1320.25	0.0085299
1330.59	0.0153845
1340.92	0.0330538
1350.32	0.0497467
1360.64	0.0650031
1370.02	0.0765998
1380.34	0.0852864
1390.66	0.0912663
1400.03	0.0944201
1410.32	0.0962661
1420.62	0.0978884
1430.91	0.100501
1440.27	0.103706
1450.55	0.109275
1460.84	0.118423
1470.2	0.130369
1480.49	0.147994
1490.77	0.171951
1500.13	0.200583
1510.4	0.241334
1520.64	0.294515
1530.87	0.363895
1540.17	0.444335
1550.41	0.555341
1560.64	0.692194
1570.87	0.855343
1580.18	1.02527
1590.41	1.23232
1600.64	1.45401
1610.87	1.68157
1620.1	1.8843
1630.19	2.09432
1640.28	2.28394
1650.37	2.44676
1660.45	2.57857
1670.54	2.67752
1680.63	2.74371
1690.71	2.77862
1700.8	2.78476
1710.89	2.7654
1720.06	2.72869
1730.14	2.67054
1740.23	2.59692
1750.31	2.51068
1760.4	2.41394
1770.49	2.30768
1780.57	2.19163
1790.66	2.06397
1800.75	1.92129
1810.83	1.75833
1820	1.58675
1830.09	1.36465
1840.18	1.09969
1850.26	0.785601
1860.35	0.420958
1870.43	0.0106065
1880.52	-0.21667
1890.61	-0.331283
1900.69	-0.448881
1910.78	-0.514471
1920.87	-0.643136
1930.04	-0.682263
1940.12	-0.720154
1950.21	-0.753431
1960.29	-0.733497
1970.38	-0.762099
1980.47	-0.790638
1990.55	-0.817821
2000.64	-0.842512
2010.73	-0.866032
2020.81	-0.888248
2030.9	-0.912934
2040.07	-0.933065
2050.15	-0.950892
2060.24	-0.965051
2070.33	-0.976165
2080.41	-0.984718
2090.5	-0.991124
2100.58	-0.995715
2110.67	-0.99868
2120.76	-1.0001
2130.84	-0.999984
2140.01	-0.998522
2150.1	-0.995363
2160.19	-0.990524
2170.27	-0.983976
2180.36	-0.975735
2190.44	-0.965856
2200.53	-0.954419
2210.62	-0.941506
2220.7	-0.927199
2230.79	-0.911581
2240.87	-0.894733
2250.04	-0.878422
2260.13	-0.859469
2270.22	-0.839546
2280.3	-0.818754
2290.39	-0.797193
2300.47	-0.774966
2310.56	-0.752178
2320.65	-0.728928
2330.73	-0.705317
2340.82	-0.681439
2350.9	-0.657386
2360.07	-0.635445
2370.16	-0.611306
2380.24	-0.587246
2390.33	-0.563349
2400.42	-0.539692
2410.5	-0.516352
2420.59	-0.493401
2430.67	-0.470907
2440.76	-0.44893
2450.85	-0.427528
2460.02	-0.408612
2470.1	-0.388438
2480.19	-0.368962
2490.27	-0.350215
2500.36	-0.332217
2510.44	-0.314984
2520.53	-0.298522
2530.62	-0.282834
2540.7	-0.267915
2550.79	-0.253753
2560.87	-0.240334
2570.04	-0.228765
2580.13	-0.216709
2590.21	-0.205334
2600.3	-0.194613
2610.39	-0.184521
2620.47	-0.175031
2630.48	-0.166181
2640.57	-0.157816
2650.66	-0.149981
2660.74	-0.142653
2670.83	-0.135813
2680.91	-0.129444
2690.08	-0.124047
2700.17	-0.118529
2710.25	-0.113436
2720.33	-0.108762
2730.38	-0.104494
2740.43	-0.100611
2750.49	-0.097101
2760.54	-0.093953
2770.6	-0.0911543
2780.65	-0.0886924
2790.7	-0.0865538
2800.76	-0.0847249
2810.81	-0.083191
2820.87	-0.0819371
2830	-0.081027
2840.06	-0.0802638
2850.11	-0.0797338
2860.17	-0.0794205
2870.22	-0.0793071
2880.27	-0.0793769
2890.33	-0.0796137
2900.38	-0.0800011
2910.43	-0.0805233
2920.49	-0.0811651
2930.54	-0.0819115
2940.6	-0.0827483
2950.65	-0.0836618
2960.7	-0.0846388
2970.76	-0.0856668
2980.81	-0.0867337
2990.86	-0.0878282
3000	-0.088838
3010.06	-0.0899555
3020.11	-0.0910704
3030.17	-0.0921734
3040.65	-0.0933015
3050.08	-0.094289
3060.13	-0.0953059
3070.19	-0.0962783
3080.24	-0.0971991
3090.29	-0.0980616
3100.35	-0.0988594
3110.4	-0.0995866
3120.46	-0.100238
3130.54	-0.100809
3140.59	-0.101292
3150.01	-0.10166
3160.41	-0.101972
3170.03	-0.102168
3180.17	-0.102274
3190.65	-0.102274
3200.28	-0.102173
3210.73	-0.101953
3220	-0.10166
