0	0
121.145	0
242.29	0
363.435	0.000564611
484.58	0.00561012
605.725	0.0191926
726.869	0.0411959
848.013	0.0826808
969.156	0.131514
1090.3	0.173765
1211.44	0.195419
1332.58	0.192428
1453.72	0.166849
1574.86	0.124864
1696	0.073376
1817.15	0.0194929
1938.29	-0.0302394
2059.43	-0.0704699
2180.58	-0.0979896
2301.72	-0.112097
2422.87	-0.114309
2544.01	-0.10753
2665.16	-0.0951184
2786.3	-0.0801542
2907.44	-0.0650025
3028.59	-0.0511494
3149.73	-0.0392364
3270.88	-0.0292333
3392.02	-0.0206983
3513.16	-0.0130615
3634.31	-0.00586711
3755.45	0.00108242
3876.6	0.00770058
3997.74	0.013692
4118.89	0.0186853
4240.03	0.0223718
4361.18	0.0246089
4482.32	0.0254648
4603.47	0.0252026
4724.61	0.0242156
4845.75	0.0229363
4966.9	0.0217435
5088.04	0.0208895
5209.19	0.0204628
5330.33	0.0203905
5451.48	0.020475
5572.62	0.0204538
5693.77	0.0200657
5814.91	0.0191073
5936.06	0.017471
6057.2	0.015157
6178.34	0.0122623
6299.49	0.00895245
6420.63	0.00542454
6541.78	0.0018708
6662.92	-0.00154928
6784.07	-0.00472446
6905.21	-0.00759402
7026.36	-0.010139
7147.5	-0.0123672
7268.65	-0.0142965
7389.79	-0.0159414
7510.94	-0.0173055
7632.08	-0.0183804
7753.23	-0.0191504
7874.37	-0.0196009
7995.52	-0.0197267
8116.66	-0.0195388
8237.81	-0.0190679
8358.95	-0.018362
8480.1	-0.0174825
8601.24	-0.016496
8722.39	-0.0154663
8843.53	-0.014448
8964.68	-0.0134816
9085.82	-0.0125921
9206.97	-0.0117901
9328.11	-0.0110753
9449.26	-0.0104408
9570.4	-0.00987725
9691.55	-0.00937634
9812.69	-0.00893256
9933.84	-0.00854365
10055	-0.00820964
10176.1	-0.00793127
10297.3	-0.00770819
10418.4	-0.00753765
10539.6	-0.00741373
10660.7	-0.00732755
10781.8	-0.00726801
10903	-0.00722307
11024.1	-0.007181
11145.3	-0.00713152
11266.4	-0.00706649
11387.6	-0.00698016
11508.7	-0.00686896
11629.9	-0.00673102
11751	-0.00656566
11872.2	-0.00637283
11993.3	-0.00615287
12114.4	-0.00590639
12235.6	-0.0056344
12356.7	-0.00533855
12477.9	-0.00502136
12599	-0.00468638
12720.2	-0.00433815
12841.3	-0.00398203
12962.5	-0.00362383
13083.6	-0.00326936
13204.7	-0.00292398
13325.9	-0.00259219
13447	-0.00227736
13568.2	-0.00198162
13689.3	-0.00170582
13810.5	-0.00144975
13931.6	-0.00121229
14052.8	-0.00099172
14173.9	-0.000785897
14295.1	-0.0005925
14416.2	-0.000409155
14537.3	-0.000233551
14658.5	-6.34999e-05
14779.6	0.000103004
14900.8	0.000267737
15021.9	0.000432192
15143.1	0.000597524
15264.2	0.000764494
15385.4	0.000933429
15506.5	0.00110421
15627.6	0.00127631
15748.8	0.0014488
15869.9	0.0016205
15991.1	0.00179002
16112.2	0.00195593
16233.4	0.00211682
16354.5	0.00227142
16475.7	0.00241864
16596.8	0.0025576
16717.9	0.00268765
16839.1	0.0028083
16960.2	0.00291925
17081.4	0.00302026
17202.5	0.00311114
17323.7	0.00319172
17444.8	0.00326177
17566	0.00332098
17687.1	0.00336894
17808.3	0.00340517
17929.4	0.00342906
18050.5	0.00343991
18171.7	0.00343695
18292.8	0.00341936
18414	0.00338634
18535.1	0.0033371
18656.3	0.00327094
18777.4	0.00318731
18898.6	0.00308585
19019.7	0.0029664
19140.8	0.0028291
19262	0.00267434
19383.1	0.00250285
19504.3	0.00231563
19625.4	0.00211397
19746.6	0.0018994
19867.7	0.00167372
19988.9	0.00143886
