0	0
37.4816	0
74.9633	0
112.445	0
149.927	0
187.408	0
224.89	0
262.372	0
299.853	0
337.335	0
374.816	0
412.298	0
449.78	0
487.261	0
524.743	0
562.225	0
599.706	0
637.188	0
674.67	0
712.151	0
749.633	0
787.115	0
824.596	0
862.078	0
899.559	0
937.041	0
974.523	0
1012	0
1049.49	0
1086.97	0
1124.45	0
1161.93	0
1199.41	0
1236.89	0
1274.38	0
1311.86	0
1349.34	0
1386.82	0
1424.3	0
1461.78	0
1499.27	0
1536.75	0
1574.23	0
1611.71	0
1649.19	0
1686.67	0
1724.16	0
1761.64	0
1799.12	0
1836.6	0
1874.08	-9.09495e-13
1911.56	-5.45697e-12
1949.05	-2.00089e-11
1986.53	-6.27551e-11
2024.01	-1.8008e-10
2061.49	-4.81123e-10
2098.97	-1.2069e-09
2136.45	-2.86582e-09
2173.94	-6.47196e-09
2211.42	-1.39662e-08
2248.9	-2.89092e-08
2286.38	-5.75783e-08
2323.86	-1.10658e-07
2361.34	-2.05724e-07
2398.82	-3.70785e-07
2436.31	-6.49152e-07
2473.79	-1.10591e-06
2511.27	-1.83622e-06
2548.75	-2.97556e-06
2586.23	-4.71195e-06
2623.71	-7.29972e-06
2661.19	-1.10744e-05
2698.68	-1.64676e-05
2736.16	-2.402e-05
2773.64	-3.43911e-05
2811.12	-4.83613e-05
2848.6	-6.68253e-05
2886.08	-9.07692e-05
2923.56	-0.00012123
2961.04	-0.000159233
2998.52	-0.000205693
3036	-0.000261291
3073.49	-0.00032631
3110.97	-0.000400427
3148.45	-0.000482471
3185.93	-0.000570137
3223.41	-0.000659669
3260.89	-0.000745512
3298.37	-0.000819957
3335.85	-0.000872778
3373.33	-0.000890886
3410.81	-0.000858032
3448.29	-0.00075456
3485.77	-0.000557255
3523.25	-0.000239299
3560.73	0.000229635
3598.21	0.00088314
3635.69	0.00175765
3673.17	0.00289183
3710.65	0.00432579
3748.13	0.00610013
3785.61	0.00825473
3823.09	0.0108275
3860.57	0.013853
3898.06	0.0173609
3935.54	0.0213742
3973.02	0.0259083
4010.5	0.0309691
4047.98	0.0365518
4085.46	0.0426397
4122.94	0.0492037
4160.42	0.0562016
4197.91	0.0635775
4235.39	0.0712628
4272.87	0.0791762
4310.35	0.0872247
4347.83	0.0953055
4385.31	0.103307
4422.8	0.111113
4460.28	0.118601
4497.76	0.125649
4535.24	0.132137
4572.72	0.137949
4610.2	0.142976
4647.69	0.14712
4685.17	0.150294
4722.65	0.152428
4760.13	0.153467
4797.61	0.153374
4835.09	0.152132
4872.57	0.149743
4910.06	0.146229
4947.54	0.141629
4985.02	0.136003
5022.5	0.129425
5059.98	0.121984
5097.46	0.113782
5134.95	0.104931
5172.43	0.0955482
5209.91	0.0857586
5247.39	0.075687
5284.87	0.0654579
5322.35	0.0551924
5359.84	0.0450062
5397.32	0.0350071
5434.8	0.0252937
5472.28	0.0159539
5509.76	0.00706342
5547.24	-0.0013141
5584.72	-0.00912804
5622.21	-0.0163405
5659.69	-0.0229262
5697.17	-0.0288715
5734.65	-0.0341739
5772.13	-0.0388411
5809.61	-0.0428894
5847.1	-0.0463428
5884.58	-0.0492316
5922.06	-0.0515908
5959.54	-0.0534593
5997.02	-0.0548784
6034.5	-0.0558904
6071.99	-0.0565382
6109.47	-0.0568637
6146.95	-0.0569074
6184.43	-0.0567078
6221.91	-0.0563009
6259.39	-0.0557195
6296.87	-0.0549935
6334.36	-0.0541494
6371.84	-0.0532106
6409.32	-0.0521971
6446.8	-0.0511261
6484.28	-0.0500118
6521.76	-0.0488658
6559.25	-0.0476975
6596.73	-0.0465142
6634.21	-0.0453214
6671.69	-0.0441234
6709.17	-0.0429229
6746.65	-0.0417219
6784.13	-0.0405217
6821.62	-0.0393229
6859.1	-0.0381258
6896.58	-0.0369305
6934.06	-0.035737
6971.54	-0.0345451
7009.02	-0.0333549
7046.51	-0.0321663
7083.99	-0.0309795
7121.47	-0.0297948
7158.95	-0.0286127
7196.43	-0.0274337
7233.91	-0.0262586
7271.4	-0.0250882
7308.88	-0.0239236
7346.36	-0.0227658
7383.84	-0.0216161
7421.32	-0.0204759
7458.8	-0.0193465
7496.29	-0.0182296
7533.77	-0.0171266
7571.25	-0.0160393
7608.73	-0.0149694
7646.21	-0.0139189
7683.69	-0.0128895
7721.18	-0.0118834
7758.66	-0.0109024
7796.14	-0.00994869
7833.62	-0.00902436
7871.1	-0.00813154
7908.58	-0.00727236
7946.06	-0.00644892
7983.55	-0.00566331
8021.03	-0.00491754
8058.51	-0.00421356
8095.99	-0.00355322
8133.47	-0.00293822
8170.95	-0.00237013
8208.43	-0.00185035
8245.92	-0.00138006
8283.4	-0.000960245
8320.88	-0.000591666
8358.36	-0.000274822
8395.84	-9.95718e-06
8433.32	0.00020295
8470.8	0.000364196
8508.29	0.000474352
8545.77	0.000534263
8583.25	0.000545041
8620.73	0.000508061
8658.21	0.000424943
8695.69	0.000297541
8733.18	0.000127927
8770.66	-8.1635e-05
8808.14	-0.000328704
8845.62	-0.00061069
8883.1	-0.000924876
8920.58	-0.00126845
8958.06	-0.00163851
8995.55	-0.00203213
9033.03	-0.00244635
9070.51	-0.00287819
9107.99	-0.00332473
9145.47	-0.00378307
9182.95	-0.00425039
9220.43	-0.00472395
9257.92	-0.00520111
9295.4	-0.00567935
9332.88	-0.00615628
9370.36	-0.00662963
9407.84	-0.00709729
9445.32	-0.00755731
9482.81	-0.00800787
9520.29	-0.00844733
9557.77	-0.0088742
9595.25	-0.00928713
9632.73	-0.00968494
9670.21	-0.0100666
9707.69	-0.0104312
9745.18	-0.010778
9782.66	-0.0111064
9820.14	-0.0114159
9857.62	-0.0117061
9895.1	-0.0119767
9932.58	-0.0122275
9970.07	-0.0124586
10007.5	-0.0126698
10045	-0.0128613
10082.5	-0.0130333
10120	-0.0131859
10157.5	-0.0133194
10195	-0.0134342
10232.4	-0.0135306
10269.9	-0.013609
10307.4	-0.0136697
10344.9	-0.0137133
10382.4	-0.0137401
10419.8	-0.0137506
10457.3	-0.0137452
10494.8	-0.0137244
10532.3	-0.0136885
10569.8	-0.013638
10607.3	-0.0135731
10644.7	-0.0134943
10682.2	-0.0134017
10719.7	-0.0132957
10757.2	-0.0131764
10794.7	-0.013044
10832.1	-0.0128986
10869.6	-0.0127402
10907.1	-0.0125689
10944.6	-0.0123846
10982.1	-0.0121872
11019.6	-0.0119766
11057	-0.0117527
11094.5	-0.0115151
11132	-0.0112637
11169.5	-0.0109982
11207	-0.0107184
11244.4	-0.0104238
11281.9	-0.0101144
11319.4	-0.00978966
11356.9	-0.00944946
11394.4	-0.0090935
11431.8	-0.0087216
11469.3	-0.00833358
11506.8	-0.00792933
11544.3	-0.00750879
11581.8	-0.00707199
11619.3	-0.00661903
11656.7	-0.00615007
11694.2	-0.0056654
11731.7	-0.00516538
11769.2	-0.00465048
11806.7	-0.00412127
11844.1	-0.00357845
11881.6	-0.00302281
11919.1	-0.00245525
11956.6	-0.0018768
11994.1	-0.00128858
12031.6	-0.000691848
12069	-8.79343e-05
12106.5	0.000521707
12144	0.00113553
12181.5	0.0017519
12219	0.00236909
12256.4	0.0029853
12293.9	0.00359864
12331.4	0.0042072
12368.9	0.00480896
12406.4	0.00540189
12443.9	0.00598391
12481.3	0.00655291
12518.8	0.00710676
12556.3	0.00764333
12593.8	0.00816047
12631.3	0.00865606
12668.7	0.00912799
12706.2	0.00957416
12743.7	0.00999253
12781.2	0.0103811
12818.7	0.0107379
12856.2	0.0110611
12893.6	0.0113489
12931.1	0.0115994
12968.6	0.0118112
13006.1	0.0119826
13043.6	0.0121123
13081	0.0121988
13118.5	0.0122411
13156	0.0122381
13193.5	0.0121888
13231	0.0120926
13268.4	0.0119488
13305.9	0.011757
13343.4	0.0115169
13380.9	0.0112285
13418.4	0.0108919
13455.9	0.0105074
13493.3	0.0100756
13530.8	0.00959703
13568.3	0.00907276
13605.8	0.00850391
13643.3	0.00789182
13680.7	0.00723806
13718.2	0.0065444
13755.7	0.00581285
13793.2	0.0050456
13830.7	0.00424503
13868.2	0.00341375
13905.6	0.00255453
13943.1	0.00167032
13980.6	0.000764237
14018.1	-0.000160465
14055.6	-0.00110039
14093	-0.00205202
14130.5	-0.00301176
14168	-0.00397591
14205.5	-0.00494074
14243	-0.00590246
14280.5	-0.00685728
14317.9	-0.00780142
14355.4	-0.00873112
14392.9	-0.00964271
14430.4	-0.0105326
14467.9	-0.0113972
14505.3	-0.0122332
14542.8	-0.0130374
14580.3	-0.0138066
14617.8	-0.0145381
14655.3	-0.0152292
14692.8	-0.0158773
14730.2	-0.0164805
14767.7	-0.0170366
14805.2	-0.017544
14842.7	-0.0180013
14880.2	-0.0184074
14917.6	-0.0187614
14955.1	-0.0190628
14992.6	-0.0193113
15030.1	-0.0195068
15067.6	-0.0196496
15105	-0.0197403
15142.5	-0.0197797
15180	-0.0197687
15217.5	-0.0197088
15255	-0.0196013
15292.5	-0.019448
15329.9	-0.0192508
15367.4	-0.0190116
15404.9	-0.0187327
15442.4	-0.0184164
15479.9	-0.0180652
15517.3	-0.0176815
15554.8	-0.017268
15592.3	-0.0168273
15629.8	-0.0163621
15667.3	-0.015875
15704.8	-0.0153688
15742.2	-0.014846
15779.7	-0.0143094
15817.2	-0.0137614
15854.7	-0.0132046
15892.2	-0.0126414
15929.6	-0.0120741
15967.1	-0.011505
16004.6	-0.0109362
16042.1	-0.0103696
16079.6	-0.00980717
16117.1	-0.0092507
16154.5	-0.0087018
16192	-0.00816198
16229.5	-0.0076326
16267	-0.00711492
16304.5	-0.00661005
16341.9	-0.00611898
16379.4	-0.00564258
16416.9	-0.00518158
16454.4	-0.00473663
16491.9	-0.00430822
16529.4	-0.00389677
16566.8	-0.00350258
16604.3	-0.00312587
16641.8	-0.00276674
16679.3	-0.00242524
16716.8	-0.00210131
16754.2	-0.00179483
16791.7	-0.00150561
16829.2	-0.00123342
16866.7	-0.000977925
16904.2	-0.000738785
16941.6	-0.000515592
16979.1	-0.0003079
17016.6	-0.000115227
17054.1	6.2938e-05
17091.6	0.000227137
17129.1	0.000377933
17166.5	0.000515909
17204	0.000641667
17241.5	0.000755816
17279	0.000858979
17316.5	0.000951783
17353.9	0.00103486
17391.4	0.00110884
17428.9	0.00117435
17466.4	0.00123203
17503.9	0.00128248
17541.4	0.00132632
17578.8	0.00136415
17616.3	0.00139655
17653.8	0.0014241
17691.3	0.00144735
17728.8	0.00146684
17766.2	0.00148309
17803.7	0.0014966
17841.2	0.00150783
17878.7	0.00151723
17916.2	0.00152524
17953.7	0.00153225
17991.1	0.00153863
18028.6	0.00154472
18066.1	0.00155083
18103.6	0.00155725
18141.1	0.00156423
18178.5	0.00157199
18216	0.00158073
18253.5	0.00159059
18291	0.00160173
18328.5	0.00161422
18366	0.00162814
18403.4	0.00164353
18440.9	0.00166039
18478.4	0.00167872
18515.9	0.00169845
18553.4	0.00171953
18590.8	0.00174186
18628.3	0.00176532
18665.8	0.00178976
18703.3	0.00181504
18740.8	0.00184097
18778.2	0.00186737
18815.7	0.00189402
18853.2	0.00192072
18890.7	0.00194723
18928.2	0.00197333
18965.7	0.00199878
19003.1	0.00202334
19040.6	0.00204678
19078.1	0.00206886
19115.6	0.00208934
19153.1	0.00210802
19190.5	0.00212466
19228	0.00213907
19265.5	0.00215105
19303	0.00216043
19340.5	0.00216706
19378	0.00217077
19415.4	0.00217145
19452.9	0.002169
19490.4	0.00216333
19527.9	0.00215437
19565.4	0.00214209
19602.8	0.00212646
19640.3	0.00210749
19677.8	0.00208519
19715.3	0.00205962
19752.8	0.00203084
19790.3	0.00199894
19827.7	0.00196402
19865.2	0.0019262
19902.7	0.00188564
19940.2	0.00184247
19977.7	0.00179688
