0	0
18.7743	0
37.5486	0
56.323	0
75.0973	0
93.8716	0
112.646	0
131.42	0
150.195	0
168.969	0
187.743	0
206.518	0
225.292	0
244.066	0
262.841	0
281.615	0
300.389	0
319.163	0
337.938	0
356.712	0
375.486	0
394.261	0
413.035	0
431.809	0
450.584	0
469.358	0
488.132	0
506.907	0
525.681	0
544.455	0
563.23	0
582.004	0
600.778	0
619.553	0
638.327	0
657.101	0
675.876	0
694.65	0
713.424	0
732.199	0
750.973	0
769.747	0
788.522	0
807.296	0
826.07	0
844.844	0
863.619	0
882.393	0
901.167	0
919.942	0
938.716	0
957.49	0
976.265	0
995.039	0
1013.81	0
1032.59	0
1051.36	0
1070.14	0
1088.91	0
1107.68	0
1126.46	0
1145.23	0
1164.01	0
1182.78	0
1201.56	0
1220.33	0
1239.11	0
1257.88	0
1276.65	0
1295.43	0
1314.2	0
1332.98	0
1351.75	0
1370.53	0
1389.3	0
1408.07	0
1426.85	0
1445.62	-9.09495e-13
1464.4	-9.09495e-13
1483.17	-1.81899e-12
1501.95	-2.72848e-12
1520.72	-7.27596e-12
1539.49	-1.63709e-11
1558.27	-3.72893e-11
1577.04	-8.18545e-11
1595.82	-1.74623e-10
1614.59	-3.61069e-10
1633.37	-7.23958e-10
1652.14	-1.41608e-09
1670.91	-2.70211e-09
1689.69	-5.03678e-09
1708.46	-9.18408e-09
1727.24	-1.63946e-08
1746.01	-2.86745e-08
1764.79	-4.91827e-08
1783.56	-8.27904e-08
1802.33	-1.36875e-07
1821.11	-2.22409e-07
1839.88	-3.55419e-07
1858.66	-5.58935e-07
1877.43	-8.65505e-07
1896.21	-1.3204e-06
1914.98	-1.98562e-06
1933.76	-2.9448e-06
1952.53	-4.30914e-06
1971.3	-6.22435e-06
1990.08	-8.87872e-06
2008.85	-1.25122e-05
2027.63	-1.74267e-05
2046.4	-2.39964e-05
2065.18	-3.268e-05
2083.95	-4.40317e-05
2102.72	-5.87128e-05
2121.5	-7.75018e-05
2140.27	-0.000101304
2159.05	-0.000131157
2177.82	-0.000168236
2196.6	-0.000213851
2215.37	-0.000269442
2234.14	-0.000336567
2252.92	-0.000416883
2271.69	-0.000512117
2290.47	-0.000624034
2309.24	-0.000754385
2328.02	-0.000904853
2346.79	-0.00107699
2365.56	-0.00127211
2384.34	-0.00149125
2403.11	-0.00173501
2421.89	-0.00200347
2440.66	-0.00229605
2459.44	-0.00261138
2478.21	-0.00294716
2496.98	-0.00329997
2515.76	-0.00366517
2534.53	-0.0040367
2553.31	-0.00440693
2572.08	-0.00476652
2590.86	-0.00510424
2609.63	-0.00540688
2628.4	-0.00565911
2647.18	-0.00584338
2665.95	-0.00593989
2684.73	-0.00592654
2703.5	-0.00577892
2722.28	-0.00547044
2741.05	-0.00497235
2759.82	-0.00425398
2778.6	-0.00328289
2797.37	-0.00202521
2816.15	-0.000445951
2834.92	0.00149058
2853.69	0.00382034
2872.47	0.00657897
2891.24	0.00980131
2910.02	0.0135207
2928.79	0.0177684
2947.57	0.0225727
2966.34	0.0279588
2985.11	0.0339472
3003.89	0.0405539
3022.66	0.0477891
3041.44	0.0556571
3060.21	0.0641552
3078.98	0.0732736
3097.76	0.0829948
3116.53	0.0932933
3135.31	0.104135
3154.08	0.115479
3172.85	0.127274
3191.63	0.139462
3210.4	0.151976
3229.17	0.164743
3247.95	0.177682
3266.72	0.190705
3285.5	0.20372
3304.27	0.21663
3323.04	0.229334
3341.82	0.241729
3360.59	0.253708
3379.36	0.265167
3398.14	0.276002
3416.91	0.286109
3435.69	0.29539
3454.46	0.30375
3473.23	0.311101
3492.01	0.31736
3510.78	0.322452
3529.55	0.326313
3548.33	0.328887
3567.1	0.330127
3585.88	0.329999
3604.65	0.32848
3623.42	0.325557
3642.2	0.321231
3660.97	0.315515
3679.74	0.308431
3698.52	0.300015
3717.29	0.290315
3736.07	0.279386
3754.84	0.267298
3773.61	0.254127
3792.39	0.239958
3811.16	0.224885
3829.93	0.209007
3848.71	0.19243
3867.48	0.175263
3886.26	0.15762
3905.03	0.139617
3923.8	0.12137
3942.58	0.102996
3961.35	0.0846105
3980.13	0.066327
3998.9	0.0482556
4017.67	0.0305024
4036.45	0.0131682
4055.22	-0.00365181
4074	-0.0198693
4092.77	-0.035403
4111.55	-0.0501795
4130.32	-0.0641336
4149.09	-0.0772088
4167.87	-0.0893571
4186.64	-0.10054
4205.42	-0.110727
4224.19	-0.119897
4242.97	-0.128039
4261.74	-0.135148
4280.51	-0.141229
4299.29	-0.146293
4318.06	-0.150361
4336.84	-0.153459
4355.61	-0.15562
4374.39	-0.156881
4393.16	-0.157286
4411.93	-0.156882
4430.71	-0.155721
4449.48	-0.153857
4468.26	-0.151347
4487.03	-0.148249
4505.81	-0.144622
4524.58	-0.140527
4543.35	-0.136022
4562.13	-0.131169
4580.9	-0.126023
4599.68	-0.120642
4618.45	-0.115081
4637.23	-0.109391
4656	-0.103621
4674.77	-0.0978189
4693.55	-0.0920272
4712.32	-0.086286
4731.1	-0.0806319
4749.87	-0.0750981
4768.65	-0.0697141
4787.42	-0.0645058
4806.19	-0.0594959
4824.97	-0.0547033
4843.74	-0.0501439
4862.52	-0.0458302
4881.29	-0.0417718
4900.07	-0.0379752
4918.84	-0.0344446
4937.61	-0.0311814
4956.39	-0.0281848
4975.16	-0.025452
4993.94	-0.0229782
5012.71	-0.0207571
5031.48	-0.018781
5050.26	-0.0170408
5069.03	-0.0155268
5087.81	-0.0142279
5106.58	-0.013133
5125.36	-0.01223
5144.13	-0.011507
5162.9	-0.0109515
5181.68	-0.0105513
5200.45	-0.0102942
5219.23	-0.0101684
5238	-0.010162
5256.78	-0.0102639
5275.55	-0.0104633
5294.32	-0.0107498
5313.1	-0.0111137
5331.87	-0.0115458
5350.65	-0.0120374
5369.42	-0.0125805
5388.2	-0.0131676
5406.97	-0.0137918
5425.74	-0.0144467
5444.52	-0.0151265
5463.29	-0.0158259
5482.07	-0.0165399
5500.84	-0.0172642
5519.62	-0.0179945
5538.39	-0.0187273
5557.17	-0.0194592
5575.94	-0.0201869
5594.71	-0.0209078
5613.49	-0.0216192
5632.26	-0.0223186
5651.04	-0.0230038
5669.81	-0.0236727
5688.59	-0.0243233
5707.36	-0.0249538
5726.13	-0.0255623
5744.91	-0.0261473
5763.68	-0.0267072
5782.46	-0.0272404
5801.23	-0.0277456
5820.01	-0.0282214
5838.78	-0.0286666
5857.55	-0.02908
5876.33	-0.0294607
5895.1	-0.0298076
5913.88	-0.03012
5932.65	-0.0303971
5951.43	-0.0306383
5970.2	-0.0308431
5988.97	-0.0310112
6007.75	-0.0311423
6026.52	-0.0312365
6045.3	-0.0312936
6064.07	-0.031314
6082.85	-0.0312979
6101.62	-0.0312457
6120.39	-0.0311581
6139.17	-0.0310356
6157.94	-0.030879
6176.72	-0.0306893
6195.49	-0.0304673
6214.27	-0.0302142
6233.04	-0.0299309
6251.81	-0.0296186
6270.59	-0.0292785
6289.36	-0.0289119
6308.14	-0.02852
6326.91	-0.0281039
6345.69	-0.0276649
6364.46	-0.0272044
6383.23	-0.0267233
6402.01	-0.026223
6420.78	-0.0257046
6439.56	-0.0251691
6458.33	-0.0246176
6477.11	-0.0240512
6495.88	-0.0234707
6514.66	-0.0228771
6533.43	-0.0222712
6552.2	-0.0216539
6570.98	-0.0210259
6589.75	-0.020388
6608.53	-0.0197408
6627.3	-0.0190851
6646.08	-0.0184214
6664.85	-0.0177504
6683.62	-0.0170728
6702.4	-0.0163891
6721.17	-0.0156999
6739.95	-0.0150059
6758.72	-0.0143078
6777.5	-0.0136062
6796.27	-0.0129018
6815.04	-0.0121953
6833.82	-0.0114875
6852.59	-0.0107792
6871.37	-0.0100712
6890.14	-0.00936447
6908.92	-0.00865986
6927.69	-0.00795836
6946.46	-0.00726097
6965.24	-0.00656874
6984.01	-0.00588275
7002.79	-0.0052041
7021.56	-0.00453395
7040.34	-0.00387344
7059.11	-0.00322374
7077.88	-0.00258604
7096.66	-0.00196152
7115.43	-0.00135137
7134.21	-0.000756733
7152.98	-0.000178772
7171.76	0.000381396
7190.53	0.000922684
7209.3	0.00144405
7228.08	0.00194448
7246.85	0.00242305
7265.63	0.00287886
7284.4	0.00331108
7303.18	0.00371897
7321.95	0.00410185
7340.72	0.0044591
7359.5	0.00479021
7378.27	0.00509472
7397.05	0.00537227
7415.82	0.00562258
7434.59	0.00584544
7453.37	0.00604075
7472.14	0.00620844
7490.92	0.00634857
7509.69	0.00646124
7528.47	0.00654663
7547.24	0.00660499
7566.01	0.00663663
7584.79	0.00664191
7603.56	0.00662125
7622.34	0.00657513
7641.11	0.00650405
7659.89	0.00640857
7678.66	0.00628925
7697.43	0.00614672
7716.21	0.0059816
7734.98	0.00579453
7753.76	0.00558617
7772.53	0.00535719
7791.31	0.00510826
7810.08	0.00484005
7828.85	0.00455321
7847.63	0.00424842
7866.4	0.0039263
7885.18	0.00358751
7903.95	0.00323267
7922.73	0.00286237
7941.5	0.00247722
7960.27	0.00207779
7979.05	0.00166464
7997.82	0.00123832
8016.6	0.00079935
8035.37	0.00034825
8054.14	-0.000114478
8072.92	-0.000588343
8091.69	-0.00107286
8110.47	-0.00156757
8129.24	-0.00207199
8148.02	-0.00258565
8166.79	-0.0031081
8185.56	-0.00363887
8204.34	-0.00417749
8223.11	-0.00472349
8241.89	-0.00527637
8260.66	-0.00583566
8279.44	-0.00640084
8298.21	-0.00697139
8316.98	-0.00754679
8335.76	-0.00812647
8354.53	-0.00870988
8373.31	-0.00929643
8392.08	-0.00988551
8410.86	-0.0104765
8429.63	-0.0110687
8448.4	-0.0116616
8467.18	-0.0122544
8485.95	-0.0128464
8504.73	-0.0134369
8523.5	-0.0140252
8542.28	-0.0146105
8561.05	-0.0151921
8579.82	-0.0157691
8598.6	-0.0163409
8617.37	-0.0169067
8636.15	-0.0174656
8654.92	-0.0180168
8673.7	-0.0185596
8692.47	-0.0190931
8711.24	-0.0196166
8730.02	-0.0201294
8748.79	-0.0206305
8767.57	-0.0211193
8786.34	-0.021595
8805.12	-0.0220569
8823.89	-0.0225043
8842.66	-0.0229364
8861.44	-0.0233527
8880.21	-0.0237524
8898.99	-0.024135
8917.76	-0.0244998
8936.54	-0.0248464
8955.31	-0.025174
8974.08	-0.0254824
8992.86	-0.0257709
9011.63	-0.0260392
9030.41	-0.0262869
9049.18	-0.0265135
9067.96	-0.0267188
9086.73	-0.0269025
9105.5	-0.0270643
9124.28	-0.027204
9143.05	-0.0273213
9161.83	-0.0274163
9180.6	-0.0274887
9199.38	-0.0275384
9218.15	-0.0275655
9236.92	-0.0275699
9255.7	-0.0275517
9274.47	-0.0275109
9293.25	-0.0274477
9312.02	-0.0273621
9330.8	-0.0272544
9349.57	-0.0271248
9368.34	-0.0269735
9387.12	-0.0268008
9405.89	-0.026607
9424.67	-0.0263925
9443.44	-0.0261576
9462.22	-0.0259028
9480.99	-0.0256285
9499.76	-0.0253351
9518.54	-0.0250233
9537.31	-0.0246934
9556.09	-0.0243461
9574.86	-0.023982
9593.64	-0.0236018
9612.41	-0.023206
9631.18	-0.0227953
9649.96	-0.0223705
9668.73	-0.0219323
9687.51	-0.0214814
9706.28	-0.0210187
9725.06	-0.0205449
9743.83	-0.0200609
9762.6	-0.0195675
9781.38	-0.0190657
9800.15	-0.0185562
9818.93	-0.01804
9837.7	-0.017518
9856.48	-0.0169912
9875.25	-0.0164605
9894.02	-0.0159268
9912.8	-0.0153911
9931.57	-0.0148544
9950.35	-0.0143176
9969.12	-0.0137817
9987.9	-0.0132478
10006.7	-0.0127167
10025.4	-0.0121894
10044.2	-0.0116669
10063	-0.0111501
10081.8	-0.0106399
10100.5	-0.0101373
10119.3	-0.0096432
10138.1	-0.0091584
10156.9	-0.00868379
10175.6	-0.0082202
10194.4	-0.00776841
10213.2	-0.00732921
10232	-0.00690334
10250.7	-0.00649148
10269.5	-0.00609431
10288.3	-0.00571246
10307.1	-0.00534651
10325.8	-0.004997
10344.6	-0.00466442
10363.4	-0.00434924
10382.2	-0.00405185
10400.9	-0.00377261
10419.7	-0.00351183
10438.5	-0.00326974
10457.3	-0.00304656
10476	-0.00284243
10494.8	-0.00265744
10513.6	-0.00249162
10532.4	-0.00234496
10551.1	-0.00221739
10569.9	-0.00210878
10588.7	-0.00201894
10607.4	-0.00194764
10626.2	-0.00189457
10645	-0.0018594
10663.8	-0.00184173
10682.5	-0.0018411
10701.3	-0.00185701
10720.1	-0.0018889
10738.9	-0.00193618
10757.6	-0.00199821
10776.4	-0.00207428
10795.2	-0.00216366
10814	-0.00226558
10832.7	-0.00237922
10851.5	-0.00250373
10870.3	-0.00263823
10889.1	-0.0027818
10907.8	-0.0029335
10926.6	-0.00309235
10945.4	-0.00325736
10964.2	-0.00342752
10982.9	-0.00360181
11001.7	-0.00377917
11020.5	-0.00395856
11039.3	-0.00413891
11058	-0.00431917
11076.8	-0.00449827
11095.6	-0.00467516
11114.4	-0.00484877
11133.1	-0.00501808
11151.9	-0.00518206
11170.7	-0.00533968
11189.5	-0.00548998
11208.2	-0.00563198
11227	-0.00576475
11245.8	-0.00588739
11264.5	-0.00599901
11283.3	-0.0060988
11302.1	-0.00618595
11320.9	-0.00625971
11339.6	-0.00631939
11358.4	-0.00636431
11377.2	-0.00639387
11396	-0.00640752
11414.7	-0.00640476
11433.5	-0.00638513
11452.3	-0.00634825
11471.1	-0.00629378
11489.8	-0.00622146
11508.6	-0.00613107
11527.4	-0.00602246
11546.2	-0.00589554
11564.9	-0.00575029
11583.7	-0.00558672
11602.5	-0.00540495
11621.3	-0.0052051
11640	-0.00498741
11658.8	-0.00475212
11677.6	-0.00449958
11696.4	-0.00423015
11715.1	-0.00394427
11733.9	-0.00364242
11752.7	-0.00332514
11771.5	-0.002993
11790.2	-0.00264662
11809	-0.00228667
11827.8	-0.00191385
11846.6	-0.0015289
11865.3	-0.0011326
11884.1	-0.000725743
11902.9	-0.000309163
11921.6	0.000116285
11940.4	0.000549727
11959.2	0.000990268
11978	0.001437
11996.7	0.001889
12015.5	0.00234533
12034.3	0.00280507
12053.1	0.00326727
12071.8	0.00373098
12090.6	0.00419527
12109.4	0.00465921
12128.2	0.00512186
12146.9	0.0055823
12165.7	0.00603962
12184.5	0.00649293
12203.3	0.00694133
12222	0.00738397
12240.8	0.00781998
12259.6	0.00824855
12278.4	0.00866884
12297.1	0.00908008
12315.9	0.00948148
12334.7	0.0098723
12353.5	0.0102518
12372.2	0.0106193
12391	0.0109741
12409.8	0.0113155
12428.6	0.0116429
12447.3	0.0119556
12466.1	0.0122532
12484.9	0.0125349
12503.7	0.0128003
12522.4	0.0130488
12541.2	0.0132798
12560	0.013493
12578.7	0.0136878
12597.5	0.0138638
12616.3	0.0140206
12635.1	0.0141576
12653.8	0.0142746
12672.6	0.0143712
12691.4	0.0144469
12710.2	0.0145014
12728.9	0.0145345
12747.7	0.0145459
12766.5	0.0145351
12785.3	0.014502
12804	0.0144464
12822.8	0.0143679
12841.6	0.0142665
12860.4	0.0141419
12879.1	0.013994
12897.9	0.0138227
12916.7	0.0136278
12935.5	0.0134093
12954.2	0.0131672
12973	0.0129014
12991.8	0.012612
13010.6	0.012299
13029.3	0.0119626
13048.1	0.0116029
13066.9	0.0112201
13085.7	0.0108143
13104.4	0.0103859
13123.2	0.00993513
13142	0.00946239
13160.8	0.00896808
13179.5	0.00845263
13198.3	0.00791655
13217.1	0.00736039
13235.8	0.00678475
13254.6	0.00619029
13273.4	0.00557769
13292.2	0.00494772
13310.9	0.00430119
13329.7	0.00363893
13348.5	0.00296187
13367.3	0.00227093
13386	0.00156714
13404.8	0.000851515
13423.6	0.000125155
13442.4	-0.000610818
13461.1	-0.00135524
13479.9	-0.00210691
13498.7	-0.00286459
13517.5	-0.00362702
13536.2	-0.00439291
13555	-0.00516095
13573.8	-0.0059298
13592.6	-0.00669812
13611.3	-0.00746454
13630.1	-0.0082277
13648.9	-0.00898622
13667.7	-0.00973874
13686.4	-0.0104839
13705.2	-0.0112203
13724	-0.0119467
13742.8	-0.0126616
13761.5	-0.0133639
13780.3	-0.0140522
13799.1	-0.0147253
13817.9	-0.0153821
13836.6	-0.0160212
13855.4	-0.0166416
13874.2	-0.0172423
13893	-0.0178222
13911.7	-0.0183803
13930.5	-0.0189158
13949.3	-0.0194277
13968	-0.0199153
13986.8	-0.0203778
14005.6	-0.0208147
14024.4	-0.0212253
14043.1	-0.0216091
14061.9	-0.0219657
14080.7	-0.0222947
14099.5	-0.0225958
14118.2	-0.0228688
14137	-0.0231136
14155.8	-0.0233301
14174.6	-0.0235184
14193.3	-0.0236785
14212.1	-0.0238105
14230.9	-0.0239149
14249.7	-0.0239917
14268.4	-0.0240416
14287.2	-0.0240648
14306	-0.024062
14324.8	-0.0240338
14343.5	-0.0239808
14362.3	-0.0239037
14381.1	-0.0238033
14399.9	-0.0236805
14418.6	-0.0235362
14437.4	-0.0233714
14456.2	-0.0231869
14475	-0.022984
14493.7	-0.0227636
14512.5	-0.0225268
14531.3	-0.022275
14550.1	-0.0220091
14568.8	-0.0217306
14587.6	-0.0214405
14606.4	-0.0211402
14625.1	-0.0208309
14643.9	-0.0205139
14662.7	-0.0201906
14681.5	-0.0198622
14700.2	-0.01953
14719	-0.0191954
14737.8	-0.0188595
14756.6	-0.0185237
14775.3	-0.0181892
14794.1	-0.0178573
14812.9	-0.0175291
14831.7	-0.0172059
14850.4	-0.0168888
14869.2	-0.0165789
14888	-0.0162773
14906.8	-0.0159849
14925.5	-0.0157028
14944.3	-0.0154319
14963.1	-0.0151731
14981.9	-0.0149271
15000.6	-0.0146947
15019.4	-0.0144766
15038.2	-0.0142735
15057	-0.0140858
15075.7	-0.013914
15094.5	-0.0137587
15113.3	-0.0136199
15132.1	-0.0134981
15150.8	-0.0133934
15169.6	-0.0133059
15188.4	-0.0132356
15207.2	-0.0131824
15225.9	-0.0131462
15244.7	-0.0131267
15263.5	-0.0131237
15282.3	-0.0131367
15301	-0.0131652
15319.8	-0.0132088
15338.6	-0.0132667
15357.3	-0.0133383
15376.1	-0.0134228
15394.9	-0.0135194
15413.7	-0.0136271
15432.4	-0.013745
15451.2	-0.013872
15470	-0.014007
15488.8	-0.014149
15507.5	-0.0142967
15526.3	-0.0144488
15545.1	-0.0146041
15563.9	-0.0147614
15582.6	-0.0149192
15601.4	-0.0150762
15620.2	-0.015231
15639	-0.0153823
15657.7	-0.0155287
15676.5	-0.0156687
15695.3	-0.015801
15714.1	-0.0159243
15732.8	-0.0160371
15751.6	-0.0161381
15770.4	-0.0162261
15789.2	-0.0162997
15807.9	-0.0163578
15826.7	-0.0163992
15845.5	-0.0164227
15864.3	-0.0164273
15883	-0.0164119
15901.8	-0.0163757
15920.6	-0.0163178
15939.4	-0.0162373
15958.1	-0.0161335
15976.9	-0.0160059
15995.7	-0.0158538
16014.4	-0.0156768
16033.2	-0.0154745
16052	-0.0152466
16070.8	-0.0149929
16089.5	-0.0147134
16108.3	-0.0144079
16127.1	-0.0140767
16145.9	-0.0137198
16164.6	-0.0133376
16183.4	-0.0129304
16202.2	-0.0124987
16221	-0.0120429
16239.7	-0.0115638
16258.5	-0.011062
16277.3	-0.0105384
16296.1	-0.00999381
16314.8	-0.00942914
16333.6	-0.00884543
16352.4	-0.00824377
16371.2	-0.00762529
16389.9	-0.00699119
16408.7	-0.00634271
16427.5	-0.00568116
16446.3	-0.00500787
16465	-0.0043242
16483.8	-0.00363158
16502.6	-0.00293142
16521.4	-0.00222517
16540.1	-0.0015143
16558.9	-0.000800289
16577.7	-8.4601e-05
16596.5	0.000631284
16615.2	0.0013459
16634	0.00205779
16652.8	0.00276551
16671.5	0.00346765
16690.3	0.00416282
16709.1	0.00484967
16727.9	0.00552686
16746.6	0.00619312
16765.4	0.0068472
16784.2	0.00748791
16803	0.00811412
16821.7	0.00872472
16840.5	0.00931869
16859.3	0.00989505
16878.1	0.0104529
16896.8	0.0109913
16915.6	0.0115096
16934.4	0.012007
16953.2	0.0124829
16971.9	0.0129366
16990.7	0.0133676
17009.5	0.0137755
17028.3	0.0141599
17047	0.0145204
17065.8	0.0148569
17084.6	0.015169
17103.4	0.0154567
17122.1	0.0157199
17140.9	0.0159585
17159.7	0.0161727
17178.5	0.0163626
17197.2	0.0165282
17216	0.0166698
17234.8	0.0167877
17253.6	0.0168822
17272.3	0.0169536
17291.1	0.0170023
17309.9	0.0170288
17328.7	0.0170334
17347.4	0.0170168
17366.2	0.0169795
17385	0.016922
17403.7	0.0168449
17422.5	0.0167487
17441.3	0.0166343
17460.1	0.0165021
17478.8	0.0163528
17497.6	0.0161872
17516.4	0.0160058
17535.2	0.0158094
17553.9	0.0155986
17572.7	0.0153742
17591.5	0.0151369
17610.3	0.0148872
17629	0.014626
17647.8	0.0143538
17666.6	0.0140714
17685.4	0.0137794
17704.1	0.0134785
17722.9	0.0131692
17741.7	0.0128523
17760.5	0.0125283
17779.2	0.0121979
17798	0.0118616
17816.8	0.01152
17835.6	0.0111736
17854.3	0.010823
17873.1	0.0104687
17891.9	0.0101111
17910.7	0.00975091
17929.4	0.00938843
17948.2	0.00902416
17967	0.00865854
17985.8	0.00829199
18004.5	0.00792492
18023.3	0.00755772
18042.1	0.00719078
18060.8	0.00682445
18079.6	0.00645909
18098.4	0.00609505
18117.2	0.00573266
18135.9	0.00537223
18154.7	0.00501407
18173.5	0.0046585
18192.3	0.0043058
18211	0.00395625
18229.8	0.00361014
18248.6	0.00326774
18267.4	0.00292932
18286.1	0.00259513
18304.9	0.00226544
18323.7	0.0019405
18342.5	0.00162056
18361.2	0.00130587
18380	0.000996678
18398.8	0.000693218
18417.6	0.000395734
18436.3	0.000104465
18455.1	-0.000180354
18473.9	-0.000458486
18492.7	-0.0007297
18511.4	-0.000993764
18530.2	-0.00125045
18549	-0.00149953
18567.8	-0.00174079
18586.5	-0.00197399
18605.3	-0.00219894
18624.1	-0.0024154
18642.9	-0.00262317
18661.6	-0.00282206
18680.4	-0.00301185
18699.2	-0.00319237
18717.9	-0.00336341
18736.7	-0.00352481
18755.5	-0.0036764
18774.3	-0.00381801
18793	-0.0039495
18811.8	-0.00407072
18830.6	-0.00418155
18849.4	-0.00428186
18868.1	-0.00437156
18886.9	-0.00445055
18905.7	-0.00451876
18924.5	-0.00457612
18943.2	-0.00462259
18962	-0.00465814
18980.8	-0.00468275
18999.6	-0.00469643
19018.3	-0.00469919
19037.1	-0.00469108
19055.9	-0.00467215
19074.7	-0.00464248
19093.4	-0.00460215
19112.2	-0.0045513
19131	-0.00449003
19149.8	-0.00441852
19168.5	-0.00433692
19187.3	-0.00424542
19206.1	-0.00414424
19224.9	-0.00403359
19243.6	-0.00391372
19262.4	-0.00378489
19281.2	-0.00364738
19300	-0.00350148
19318.7	-0.0033475
19337.5	-0.00318576
19356.3	-0.00301661
19375.1	-0.00284039
19393.8	-0.00265747
19412.6	-0.00246823
19431.4	-0.00227305
19450.1	-0.00207233
19468.9	-0.00186647
19487.7	-0.0016559
19506.5	-0.00144102
19525.2	-0.00122226
19544	-0.00100006
19562.8	-0.000774833
19581.6	-0.000547026
19600.3	-0.000317071
19619.1	-8.54016e-05
19637.9	0.00014755
19656.7	0.000381354
19675.4	0.000615584
19694.2	0.000849818
19713	0.00108364
19731.8	0.00131665
19750.5	0.00154843
19769.3	0.00177861
19788.1	0.00200679
19806.9	0.00223261
19825.6	0.00245571
19844.4	0.00267574
19863.2	0.00289236
19882	0.00310526
19900.7	0.00331412
19919.5	0.00351866
19938.3	0.0037186
19957.1	0.00391367
19975.8	0.00410364
19994.6	0.00428826
