0	0
13.2971	0
26.5942	0
39.8912	0
53.1883	0
66.4854	0
79.7825	0
93.0796	0
106.377	0
119.674	0
132.971	0
146.268	0
159.565	0
172.862	0
186.159	0
199.456	0
212.753	0
226.05	0
239.347	0
252.645	0
265.942	0
279.239	0
292.536	0
305.833	0
319.13	0
332.427	0
345.724	0
359.021	0
372.318	0
385.615	0
398.912	0
412.21	0
425.507	0
438.804	0
452.101	0
465.398	0
478.695	0
491.992	0
505.289	0
518.586	0
531.883	0
545.18	0
558.477	0
571.775	0
585.072	0
598.369	0
611.666	0
624.963	0
638.26	0
651.557	0
664.854	0
678.151	0
691.448	0
704.745	0
718.042	0
731.34	0
744.637	0
757.934	0
771.231	0
784.528	0
797.825	0
811.122	0
824.419	0
837.716	0
851.013	0
864.31	0
877.607	0
890.904	0
904.202	0
917.499	0
930.796	0
944.093	0
957.39	0
970.687	0
983.984	0
997.281	0
1010.58	0
1023.88	0
1037.17	0
1050.47	0
1063.77	0
1077.06	0
1090.36	0
1103.66	0
1116.95	0
1130.25	0
1143.55	0
1156.85	0
1170.14	0
1183.44	0
1196.74	0
1210.03	0
1223.33	0
1236.63	0
1249.93	0
1263.22	0
1276.52	-9.09495e-13
1289.82	-9.09495e-13
1303.11	-1.81899e-12
1316.41	-2.72848e-12
1329.71	-4.54747e-12
1343.01	-8.18545e-12
1356.3	-1.36424e-11
1369.6	-2.27374e-11
1382.9	-3.63798e-11
1396.19	-5.72982e-11
1409.49	-8.91305e-11
1422.79	-1.36424e-10
1436.08	-2.08274e-10
1449.38	-3.16504e-10
1462.68	-4.76575e-10
1475.98	-7.10315e-10
1489.27	-1.05229e-09
1502.57	-1.54614e-09
1515.87	-2.25464e-09
1529.16	-3.26418e-09
1542.46	-4.69208e-09
1555.76	-6.69752e-09
1569.06	-9.49331e-09
1582.35	-1.33668e-08
1595.65	-1.86965e-08
1608.95	-2.59824e-08
1622.24	-3.58787e-08
1635.54	-4.92364e-08
1648.84	-6.7158e-08
1662.14	-9.10577e-08
1675.43	-1.22741e-07
1688.73	-1.64499e-07
1702.03	-2.19227e-07
1715.32	-2.90551e-07
1728.62	-3.82995e-07
1741.92	-5.02174e-07
1755.21	-6.55005e-07
1768.51	-8.49979e-07
1781.81	-1.09745e-06
1795.11	-1.40998e-06
1808.4	-1.80273e-06
1821.7	-2.29392e-06
1835	-2.90528e-06
1848.29	-3.66266e-06
1861.59	-4.59662e-06
1874.89	-5.7431e-06
1888.19	-7.14421e-06
1901.48	-8.84895e-06
1914.78	-1.09142e-05
1928.08	-1.34054e-05
1941.37	-1.63979e-05
1954.67	-1.99776e-05
1967.97	-2.42423e-05
1981.27	-2.93025e-05
1994.56	-3.52827e-05
2007.86	-4.23223e-05
2021.16	-5.05768e-05
2034.45	-6.02186e-05
2047.75	-7.14379e-05
2061.05	-8.44436e-05
2074.34	-9.94638e-05
2087.64	-0.000116746
2100.94	-0.000136559
2114.24	-0.000159188
2127.53	-0.000184941
2140.83	-0.000214144
2154.13	-0.000247137
2167.42	-0.00028428
2180.72	-0.000325943
2194.02	-0.000372508
2207.32	-0.000424364
2220.61	-0.000481901
2233.91	-0.00054551
2247.21	-0.00061557
2260.5	-0.000692448
2273.8	-0.000776487
2287.1	-0.000868
2300.4	-0.00096726
2313.69	-0.00107449
2326.99	-0.00118984
2340.29	-0.00131341
2353.58	-0.00144518
2366.88	-0.00158504
2380.18	-0.00173278
2393.47	-0.00188803
2406.77	-0.00205028
2420.07	-0.00221883
2433.37	-0.00239283
2446.66	-0.00257119
2459.96	-0.0027526
2473.26	-0.0029355
2486.55	-0.00311809
2499.85	-0.00329824
2513.15	-0.00347356
2526.45	-0.0036413
2539.74	-0.0037984
2553.04	-0.00394141
2566.34	-0.00406655
2579.63	-0.00416963
2592.93	-0.00424607
2606.23	-0.00429088
2619.53	-0.00429867
2632.82	-0.00426366
2646.12	-0.00417962
2659.42	-0.00403995
2672.71	-0.00383764
2686.01	-0.00356529
2699.31	-0.00321515
2712.6	-0.00277911
2725.9	-0.00224876
2739.2	-0.00161539
2752.5	-0.000870051
2765.79	-3.57879e-06
2779.09	0.000993347
2792.39	0.00213015
2805.68	0.00341633
2818.98	0.00486133
2832.28	0.00647458
2845.58	0.00826531
2858.87	0.0102426
2872.17	0.0124151
2885.47	0.0147913
2898.76	0.017379
2912.06	0.0201856
2925.36	0.023218
2938.65	0.026482
2951.95	0.0299831
2965.25	0.0337255
2978.55	0.0377127
2991.84	0.0419472
3005.14	0.0464301
3018.44	0.0511616
3031.73	0.0561405
3045.03	0.0613645
3058.33	0.0668297
3071.62	0.0725309
3084.92	0.0784616
3098.22	0.0846136
3111.52	0.0909773
3124.81	0.0975417
3138.11	0.104294
3151.41	0.111221
3164.7	0.118306
3178	0.125532
3191.3	0.132882
3204.59	0.140336
3217.89	0.147872
3231.19	0.155468
3244.48	0.163102
3257.78	0.170748
3271.08	0.178382
3284.37	0.185978
3297.67	0.193509
3310.97	0.200948
3324.27	0.208267
3337.56	0.215439
3350.86	0.222434
3364.16	0.229225
3377.45	0.235785
3390.75	0.242084
3404.05	0.248098
3417.34	0.253798
3430.64	0.259158
3443.94	0.264155
3457.23	0.268764
3470.53	0.272963
3483.83	0.276729
3497.12	0.280044
3510.42	0.282889
3523.72	0.285247
3537.01	0.287103
3550.31	0.288445
3563.61	0.28926
3576.9	0.28954
3590.2	0.289278
3603.5	0.288469
3616.79	0.287111
3630.09	0.285201
3643.39	0.282743
3656.68	0.279739
3669.98	0.276196
3683.28	0.272122
3696.57	0.267526
3709.87	0.262421
3723.17	0.256822
3736.46	0.250743
3749.76	0.244203
3763.06	0.237221
3776.35	0.229819
3789.65	0.222019
3802.95	0.213846
3816.24	0.205325
3829.54	0.196482
3842.84	0.187345
3856.13	0.177943
3869.43	0.168305
3882.72	0.158461
3896.02	0.148441
3909.32	0.138275
3922.61	0.127995
3935.91	0.117632
3949.21	0.107216
3962.5	0.096777
3975.8	0.0863461
3989.1	0.0759526
4002.39	0.0656256
4015.69	0.0553931
4028.99	0.0452827
4042.28	0.0353208
4055.58	0.0255326
4068.88	0.0159425
4082.17	0.00657324
4095.47	-0.00255339
4108.77	-0.0114171
4122.06	-0.0199992
4135.36	-0.0282822
4148.66	-0.0362504
4161.95	-0.0438894
4175.25	-0.0511866
4188.55	-0.0581309
4201.84	-0.0647128
4215.14	-0.0709243
4228.44	-0.0767592
4241.73	-0.0822127
4255.03	-0.0872816
4268.33	-0.0919641
4281.62	-0.0962601
4294.92	-0.100171
4308.22	-0.103699
4321.51	-0.106847
4334.81	-0.109623
4348.11	-0.11203
4361.4	-0.114078
4374.7	-0.115774
4388	-0.117128
4401.3	-0.11815
4414.59	-0.118853
4427.89	-0.119246
4441.19	-0.119344
4454.48	-0.119159
4467.78	-0.118706
4481.08	-0.117997
4494.37	-0.117049
4507.67	-0.115875
4520.97	-0.114491
4534.27	-0.112912
4547.56	-0.111153
4560.86	-0.109229
4574.16	-0.107156
4587.45	-0.104947
4600.75	-0.10262
4614.05	-0.100186
4627.35	-0.0976625
4640.64	-0.0950617
4653.94	-0.0923976
4667.24	-0.0896834
4680.53	-0.0869317
4693.83	-0.084155
4707.13	-0.0813648
4720.42	-0.0785724
4733.72	-0.0757884
4747.02	-0.073023
4760.32	-0.0702855
4773.61	-0.0675849
4786.91	-0.0649295
4800.21	-0.0623269
4813.5	-0.0597843
4826.8	-0.0573081
4840.1	-0.0549043
4853.4	-0.052578
4866.69	-0.0503339
4879.99	-0.0481764
4893.29	-0.0461087
4906.58	-0.0441342
4919.88	-0.0422551
4933.18	-0.0404735
4946.47	-0.0387909
4959.77	-0.0372084
4973.07	-0.0357265
4986.37	-0.0343453
4999.66	-0.0330646
5012.96	-0.0318838
5026.26	-0.0308019
5039.55	-0.0298176
5052.85	-0.0289291
5066.15	-0.0281346
5079.44	-0.0274319
5092.74	-0.0268185
5106.04	-0.0262917
5119.34	-0.0258487
5132.63	-0.0254865
5145.93	-0.0252018
5159.23	-0.0249913
5172.52	-0.0248515
5185.82	-0.0247789
5199.12	-0.0247699
5212.42	-0.0248208
5225.71	-0.0249278
5239.01	-0.0250872
5252.31	-0.0252952
5265.6	-0.025548
5278.9	-0.0258419
5292.2	-0.0261731
5305.49	-0.0265379
5318.79	-0.0269327
5332.09	-0.027354
5345.39	-0.0277982
5358.68	-0.0282618
5371.98	-0.0287415
5385.28	-0.0292342
5398.57	-0.0297365
5411.87	-0.0302455
5425.17	-0.0307583
5438.46	-0.031272
5451.76	-0.0317839
5465.06	-0.0322914
5478.36	-0.0327921
5491.65	-0.0332837
5504.95	-0.033764
5518.25	-0.0342309
5531.54	-0.0346824
5544.84	-0.0351167
5558.14	-0.0355323
5571.44	-0.0359275
5584.73	-0.0363008
5598.03	-0.0366511
5611.33	-0.036977
5624.62	-0.0372777
5637.92	-0.0375521
5651.22	-0.0377994
5664.51	-0.0380189
5677.81	-0.0382101
5691.11	-0.0383724
5704.41	-0.0385055
5717.7	-0.0386091
5731	-0.0386829
5744.3	-0.038727
5757.59	-0.0387413
5770.89	-0.0387258
5784.19	-0.0386808
5797.49	-0.0386065
5810.78	-0.0385032
5824.08	-0.0383712
5837.38	-0.0382111
5850.67	-0.0380232
5863.97	-0.0378082
5877.27	-0.0375666
5890.56	-0.0372991
5903.86	-0.0370064
5917.16	-0.0366891
5930.46	-0.0363481
5943.75	-0.0359842
5957.05	-0.035598
5970.35	-0.0351906
5983.64	-0.0347627
5996.94	-0.0343152
6010.24	-0.0338489
6023.54	-0.0333648
6036.83	-0.0328637
6050.13	-0.0323465
6063.43	-0.0318142
6076.72	-0.0312675
6090.02	-0.0307074
6103.32	-0.0301347
6116.61	-0.0295504
6129.91	-0.0289551
6143.21	-0.0283499
6156.51	-0.0277354
6169.8	-0.0271125
6183.1	-0.0264819
6196.4	-0.0258445
6209.69	-0.0252009
6222.99	-0.0245519
6236.29	-0.0238981
6249.59	-0.0232402
6262.88	-0.0225788
6276.18	-0.0219146
6289.48	-0.0212481
6302.77	-0.02058
6316.07	-0.0199107
6329.37	-0.0192408
6342.67	-0.0185707
6355.96	-0.017901
6369.26	-0.017232
6382.56	-0.0165642
6395.85	-0.015898
6409.15	-0.0152338
6422.45	-0.014572
6435.74	-0.0139128
6449.04	-0.0132566
6462.34	-0.0126037
6475.64	-0.0119544
6488.93	-0.011309
6502.23	-0.0106676
6515.53	-0.0100307
6528.82	-0.00939832
6542.12	-0.00877079
6555.42	-0.00814829
6568.72	-0.00753103
6582.01	-0.00691921
6595.31	-0.00631302
6608.61	-0.00571265
6621.9	-0.00511827
6635.2	-0.00453007
6648.5	-0.00394822
6661.8	-0.00337289
6675.09	-0.00280425
6688.39	-0.00224248
6701.69	-0.00168775
6714.98	-0.00114023
6728.28	-0.000600105
6741.58	-6.75426e-05
6754.87	0.000457274
6768.17	0.000974161
6781.47	0.00148293
6794.77	0.0019834
6808.06	0.00247537
6821.36	0.00295865
6834.66	0.00343303
6847.95	0.00389832
6861.25	0.0043543
6874.55	0.00480076
6887.85	0.0052375
6901.14	0.00566429
6914.44	0.00608091
6927.74	0.00648714
6941.03	0.00688277
6954.33	0.00726756
6967.63	0.00764129
6980.93	0.00800373
6994.22	0.00835466
7007.52	0.00869385
7020.82	0.00902108
7034.11	0.00933612
7047.41	0.00963876
7060.71	0.00992879
7074.01	0.010206
7087.3	0.0104701
7100.6	0.010721
7113.9	0.0109585
7127.19	0.0111823
7140.49	0.0113924
7153.79	0.0115884
7167.08	0.0117702
7180.38	0.0119378
7193.68	0.0120908
7206.98	0.0122293
7220.27	0.0123529
7233.57	0.0124617
7246.87	0.0125555
7260.16	0.0126342
7273.46	0.0126978
7286.76	0.012746
7300.06	0.012779
7313.35	0.0127965
7326.65	0.0127986
7339.95	0.0127853
7353.24	0.0127565
7366.54	0.0127121
7379.84	0.0126523
7393.14	0.0125771
7406.43	0.0124864
7419.73	0.0123803
7433.03	0.0122588
7446.32	0.0121221
7459.62	0.0119702
7472.92	0.0118032
7486.21	0.0116212
7499.51	0.0114243
7512.81	0.0112127
7526.11	0.0109864
7539.4	0.0107456
7552.7	0.0104905
7566	0.0102212
7579.29	0.00993799
7592.59	0.00964094
7605.89	0.00933028
7619.18	0.00900621
7632.48	0.00866895
7645.78	0.00831872
7659.08	0.00795574
7672.37	0.00758025
7685.67	0.00719249
7698.97	0.00679271
7712.26	0.00638118
7725.56	0.00595814
7738.86	0.00552388
7752.15	0.00507867
7765.45	0.00462278
7778.75	0.00415652
7792.05	0.00368016
7805.34	0.00319401
7818.64	0.00269836
7831.94	0.00219354
7845.23	0.00167984
7858.53	0.00115758
7871.83	0.000627097
7885.12	8.86998e-05
7898.42	-0.000457278
7911.72	-0.0010105
7925.02	-0.00157064
7938.31	-0.00213735
7951.61	-0.00271029
7964.91	-0.00328911
7978.2	-0.00387347
7991.5	-0.004463
8004.8	-0.00505736
8018.09	-0.00565618
8031.39	-0.0062591
8044.69	-0.00686576
8057.99	-0.00747579
8071.28	-0.00808883
8084.58	-0.00870449
8097.88	-0.00932241
8111.17	-0.00994221
8124.47	-0.0105635
8137.77	-0.0111859
8151.06	-0.0118091
8164.36	-0.0124327
8177.66	-0.0130562
8190.96	-0.0136793
8204.25	-0.0143016
8217.55	-0.0149227
8230.85	-0.0155423
8244.14	-0.0161599
8257.44	-0.0167752
8270.74	-0.0173877
8284.03	-0.0179972
8297.33	-0.0186031
8310.63	-0.0192052
8323.93	-0.0198031
8337.22	-0.0203962
8350.52	-0.0209844
8363.82	-0.0215672
8377.11	-0.0221442
8390.41	-0.0227151
8403.71	-0.0232795
8417	-0.023837
8430.3	-0.0243872
8443.6	-0.02493
8456.9	-0.0254647
8470.19	-0.0259912
8483.49	-0.0265091
8496.79	-0.027018
8510.08	-0.0275177
8523.38	-0.0280077
8536.68	-0.0284879
8549.98	-0.0289578
8563.27	-0.0294171
8576.57	-0.0298657
8589.87	-0.0303031
8603.16	-0.0307291
8616.46	-0.0311435
8629.76	-0.0315459
8643.05	-0.0319362
8656.35	-0.032314
8669.65	-0.0326792
8682.95	-0.0330315
8696.24	-0.0333707
8709.54	-0.0336966
8722.84	-0.034009
8736.13	-0.0343077
8749.43	-0.0345925
8762.73	-0.0348633
8776.02	-0.0351199
8789.32	-0.0353622
8802.62	-0.03559
8815.92	-0.0358032
8829.21	-0.0360017
8842.51	-0.0361855
8855.81	-0.0363543
8869.1	-0.0365082
8882.4	-0.0366471
8895.7	-0.0367709
8908.99	-0.0368795
8922.29	-0.036973
8935.59	-0.0370513
8948.89	-0.0371144
8962.18	-0.0371623
8975.48	-0.0371951
8988.78	-0.0372126
9002.07	-0.0372151
9015.37	-0.0372025
9028.67	-0.0371748
9041.96	-0.0371322
9055.26	-0.0370747
9068.56	-0.0370024
9081.86	-0.0369154
9095.15	-0.0368138
9108.45	-0.0366977
9121.75	-0.0365673
9135.04	-0.0364226
9148.34	-0.0362639
9161.64	-0.0360913
9174.94	-0.0359049
9188.23	-0.035705
9201.53	-0.0354916
9214.83	-0.0352651
9228.12	-0.0350256
9241.42	-0.0347733
9254.72	-0.0345084
9268.01	-0.0342311
9281.31	-0.0339418
9294.61	-0.0336406
9307.91	-0.0333278
9321.2	-0.0330036
9334.5	-0.0326683
9347.8	-0.0323222
9361.09	-0.0319655
9374.39	-0.0315985
9387.69	-0.0312216
9400.99	-0.030835
9414.28	-0.030439
9427.58	-0.030034
9440.88	-0.0296202
9454.17	-0.0291979
9467.47	-0.0287675
9480.77	-0.0283294
9494.06	-0.0278837
9507.36	-0.027431
9520.66	-0.0269715
9533.96	-0.0265056
9547.25	-0.0260335
9560.55	-0.0255558
9573.85	-0.0250727
9587.14	-0.0245845
9600.44	-0.0240917
9613.74	-0.0235947
9627.04	-0.0230937
9640.33	-0.0225891
9653.63	-0.0220813
9666.93	-0.0215708
9680.22	-0.0210577
9693.52	-0.0205426
9706.82	-0.0200258
9720.11	-0.0195076
9733.41	-0.0189885
9746.71	-0.0184688
9760.01	-0.0179489
9773.3	-0.0174291
9786.6	-0.0169098
9799.9	-0.0163914
9813.19	-0.0158743
9826.49	-0.0153587
9839.79	-0.0148452
9853.09	-0.0143339
9866.38	-0.0138253
9879.68	-0.0133198
9892.98	-0.0128176
9906.27	-0.0123191
9919.57	-0.0118246
9932.87	-0.0113345
9946.16	-0.0108492
9959.46	-0.0103688
9972.76	-0.00989383
9986.06	-0.00942448
9999.35	-0.00896109
10012.7	-0.00850395
10025.9	-0.00805335
10039.2	-0.00760958
10052.5	-0.00717291
10065.8	-0.00674362
10079.1	-0.00632195
10092.4	-0.00590818
10105.7	-0.00550254
10119	-0.00510527
10132.3	-0.00471659
10145.6	-0.00433673
10158.9	-0.00396589
10172.2	-0.00360428
10185.5	-0.00325208
10198.8	-0.00290949
10212.1	-0.00257666
10225.4	-0.00225376
10238.7	-0.00194095
10252	-0.00163836
10265.3	-0.00134612
10278.6	-0.00106436
10291.9	-0.00079318
10305.2	-0.000532685
10318.5	-0.000282961
10331.8	-4.40852e-05
10345.1	0.000183876
10358.4	0.000400867
10371.7	0.000606844
10385	0.000801774
10398.3	0.000985634
10411.6	0.00115841
10424.9	0.00132011
10438.2	0.00147074
10451.5	0.00161032
10464.8	0.00173889
10478	0.00185649
10491.3	0.00196317
10504.6	0.002059
10517.9	0.00214406
10531.2	0.00221844
10544.5	0.00228222
10557.8	0.00233553
10571.1	0.00237847
10584.4	0.00241119
10597.7	0.0024338
10611	0.00244648
10624.3	0.00244936
10637.6	0.00244262
10650.9	0.00242645
10664.2	0.00240101
10677.5	0.00236651
10690.8	0.00232316
10704.1	0.00227116
10717.4	0.00221073
10730.7	0.00214211
10744	0.00206553
10757.3	0.00198123
10770.6	0.00188946
10783.9	0.00179049
10797.2	0.00168458
10810.5	0.00157199
10823.8	0.00145301
10837.1	0.00132792
10850.4	0.001197
10863.7	0.00106056
10877	0.000918881
10890.3	0.000772276
10903.6	0.000621049
10916.9	0.000465511
10930.1	0.000305977
10943.4	0.000142763
10956.7	-2.38106e-05
10970	-0.000193421
10983.3	-0.000365744
10996.6	-0.000540453
11009.9	-0.000717222
11023.2	-0.000895722
11036.5	-0.00107562
11049.8	-0.0012566
11063.1	-0.00143832
11076.4	-0.00162046
11089.7	-0.00180269
11103	-0.00198469
11116.3	-0.00216613
11129.6	-0.00234668
11142.9	-0.00252604
11156.2	-0.00270389
11169.5	-0.00287991
11182.8	-0.00305379
11196.1	-0.00322524
11209.4	-0.00339394
11222.7	-0.00355961
11236	-0.00372196
11249.3	-0.00388069
11262.6	-0.00403553
11275.9	-0.00418622
11289.2	-0.00433247
11302.5	-0.00447404
11315.8	-0.00461067
11329.1	-0.00474211
11342.4	-0.00486814
11355.7	-0.00498852
11369	-0.00510302
11382.2	-0.00521145
11395.5	-0.00531359
11408.8	-0.00540925
11422.1	-0.00549825
11435.4	-0.00558041
11448.7	-0.00565556
11462	-0.00572356
11475.3	-0.00578425
11488.6	-0.0058375
11501.9	-0.00588319
11515.2	-0.00592119
11528.5	-0.00595141
11541.8	-0.00597376
11555.1	-0.00598814
11568.4	-0.00599449
11581.7	-0.00599274
11595	-0.00598285
11608.3	-0.00596478
11621.6	-0.0059385
11634.9	-0.00590399
11648.2	-0.00586124
11661.5	-0.00581025
11674.8	-0.00575105
11688.1	-0.00568366
11701.4	-0.00560811
11714.7	-0.00552445
11728	-0.00543273
11741.3	-0.00533303
11754.6	-0.00522541
11767.9	-0.00510997
11781.2	-0.00498679
11794.5	-0.00485599
11807.8	-0.00471768
11821.1	-0.00457199
11834.3	-0.00441904
11847.6	-0.00425897
11860.9	-0.00409194
11874.2	-0.0039181
11887.5	-0.00373762
11900.8	-0.00355067
11914.1	-0.00335743
11927.4	-0.00315808
11940.7	-0.00295282
11954	-0.00274186
11967.3	-0.00252539
11980.6	-0.00230362
11993.9	-0.00207678
12007.2	-0.00184509
12020.5	-0.00160877
12033.8	-0.00136807
12047.1	-0.0011232
12060.4	-0.000874418
12073.7	-0.000621965
12087	-0.000366088
12100.3	-0.000107037
12113.6	0.000154932
12126.9	0.000419565
12140.2	0.000686603
12153.5	0.000955785
12166.8	0.00122685
12180.1	0.00149953
12193.4	0.00177357
12206.7	0.00204869
12220	0.00232464
12233.3	0.00260114
12246.6	0.00287793
12259.9	0.00315473
12273.2	0.0034313
12286.5	0.00370735
12299.7	0.00398262
12313	0.00425685
12326.3	0.00452978
12339.6	0.00480114
12352.9	0.00507067
12366.2	0.00533812
12379.5	0.00560323
12392.8	0.00586573
12406.1	0.00612539
12419.4	0.00638195
12432.7	0.00663516
12446	0.00688478
12459.3	0.00713057
12472.6	0.00737228
12485.9	0.00760969
12499.2	0.00784255
12512.5	0.00807065
12525.8	0.00829375
12539.1	0.00851164
12552.4	0.00872409
12565.7	0.0089309
12579	0.00913184
12592.3	0.00932673
12605.6	0.00951535
12618.9	0.00969751
12632.2	0.00987302
12645.5	0.0100417
12658.8	0.0102033
12672.1	0.0103578
12685.4	0.0105048
12698.7	0.0106444
12712	0.0107762
12725.3	0.0109001
12738.6	0.0110161
12751.8	0.0111239
12765.1	0.0112234
12778.4	0.0113144
12791.7	0.0113969
12805	0.0114708
12818.3	0.0115358
12831.6	0.0115919
12844.9	0.011639
12858.2	0.0116771
12871.5	0.0117059
12884.8	0.0117254
12898.1	0.0117356
12911.4	0.0117364
12924.7	0.0117278
12938	0.0117096
12951.3	0.0116818
12964.6	0.0116445
12977.9	0.0115975
12991.2	0.0115408
13004.5	0.0114745
13017.8	0.0113986
13031.1	0.0113129
13044.4	0.0112177
13057.7	0.0111128
13071	0.0109983
13084.3	0.0108743
13097.6	0.0107408
13110.9	0.0105978
13124.2	0.0104455
13137.5	0.0102839
13150.8	0.010113
13164.1	0.00993311
13177.4	0.00974417
13190.7	0.00954634
13203.9	0.00933974
13217.2	0.00912452
13230.5	0.0089008
13243.8	0.00866875
13257.1	0.00842853
13270.4	0.00818031
13283.7	0.00792426
13297	0.00766058
13310.3	0.00738946
13323.6	0.00711111
13336.9	0.00682576
13350.2	0.00653361
13363.5	0.00623491
13376.8	0.00592989
13390.1	0.0056188
13403.4	0.0053019
13416.7	0.00497945
13430	0.00465173
13443.3	0.00431901
13456.6	0.00398157
13469.9	0.00363971
13483.2	0.00329372
13496.5	0.0029439
13509.8	0.00259056
13523.1	0.00223402
13536.4	0.00187459
13549.7	0.00151259
13563	0.00114835
13576.3	0.000782193
13589.6	0.00041445
13602.9	4.54571e-05
13616.2	-0.000324452
13629.5	-0.00069494
13642.8	-0.00106567
13656	-0.0014363
13669.3	-0.0018065
13682.6	-0.00217592
13695.9	-0.00254424
13709.2	-0.0029111
13722.5	-0.00327619
13735.8	-0.00363916
13749.1	-0.0039997
13762.4	-0.00435747
13775.7	-0.00471216
13789	-0.00506344
13802.3	-0.00541101
13815.6	-0.00575457
13828.9	-0.0060938
13842.2	-0.00642842
13855.5	-0.00675814
13868.8	-0.00708268
13882.1	-0.00740176
13895.4	-0.00771513
13908.7	-0.00802254
13922	-0.00832372
13935.3	-0.00861846
13948.6	-0.00890652
13961.9	-0.00918768
13975.2	-0.00946174
13988.5	-0.00972851
14001.8	-0.0099878
14015.1	-0.0102394
14028.4	-0.0104833
14041.7	-0.0107191
14055	-0.0109469
14068.3	-0.0111665
14081.6	-0.0113777
14094.9	-0.0115806
14108.1	-0.0117749
14121.4	-0.0119606
14134.7	-0.0121377
14148	-0.0123061
14161.3	-0.0124658
14174.6	-0.0126168
14187.9	-0.0127591
14201.2	-0.0128926
14214.5	-0.0130175
14227.8	-0.0131337
14241.1	-0.0132413
14254.4	-0.0133403
14267.7	-0.0134309
14281	-0.0135132
14294.3	-0.0135871
14307.6	-0.0136529
14320.9	-0.0137107
14334.2	-0.0137605
14347.5	-0.0138027
14360.8	-0.0138373
14374.1	-0.0138645
14387.4	-0.0138844
14400.7	-0.0138974
14414	-0.0139036
14427.3	-0.0139031
14440.6	-0.0138964
14453.9	-0.0138834
14467.2	-0.0138646
14480.5	-0.0138402
14493.8	-0.0138104
14507.1	-0.0137755
14520.4	-0.0137358
14533.7	-0.0136915
14547	-0.0136429
14560.2	-0.0135904
14573.5	-0.0135342
14586.8	-0.0134746
14600.1	-0.0134119
14613.4	-0.0133465
14626.7	-0.0132786
14640	-0.0132085
14653.3	-0.0131366
14666.6	-0.0130631
14679.9	-0.0129884
14693.2	-0.0129128
14706.5	-0.0128366
14719.8	-0.0127601
14733.1	-0.0126835
14746.4	-0.0126073
14759.7	-0.0125317
14773	-0.0124569
14786.3	-0.0123834
14799.6	-0.0123113
14812.9	-0.012241
14826.2	-0.0121726
14839.5	-0.0121066
14852.8	-0.012043
14866.1	-0.0119823
14879.4	-0.0119246
14892.7	-0.0118701
14906	-0.0118191
14919.3	-0.0117718
14932.6	-0.0117284
14945.9	-0.0116891
14959.2	-0.011654
14972.5	-0.0116233
14985.8	-0.0115973
14999.1	-0.0115759
15012.4	-0.0115594
15025.6	-0.0115479
15038.9	-0.0115415
15052.2	-0.0115402
15065.5	-0.0115442
15078.8	-0.0115535
15092.1	-0.0115682
15105.4	-0.0115883
15118.7	-0.0116138
15132	-0.0116447
15145.3	-0.0116811
15158.6	-0.0117229
15171.9	-0.01177
15185.2	-0.0118224
15198.5	-0.0118801
15211.8	-0.011943
15225.1	-0.0120109
15238.4	-0.0120838
15251.7	-0.0121615
15265	-0.012244
15278.3	-0.012331
15291.6	-0.0124224
15304.9	-0.012518
15318.2	-0.0126177
15331.5	-0.0127211
15344.8	-0.0128282
15358.1	-0.0129387
15371.4	-0.0130522
15384.7	-0.0131687
15398	-0.0132878
15411.3	-0.0134093
15424.6	-0.0135328
15437.9	-0.0136581
15451.2	-0.0137849
15464.5	-0.0139129
15477.7	-0.0140417
15491	-0.0141711
15504.3	-0.0143006
15517.6	-0.01443
15530.9	-0.014559
15544.2	-0.0146871
15557.5	-0.014814
15570.8	-0.0149394
15584.1	-0.0150629
15597.4	-0.0151842
15610.7	-0.0153028
15624	-0.0154185
15637.3	-0.0155308
15650.6	-0.0156395
15663.9	-0.015744
15677.2	-0.0158441
15690.5	-0.0159395
15703.8	-0.0160297
15717.1	-0.0161144
15730.4	-0.0161933
15743.7	-0.016266
15757	-0.0163322
15770.3	-0.0163915
15783.6	-0.0164437
15796.9	-0.0164884
15810.2	-0.0165254
15823.5	-0.0165542
15836.8	-0.0165747
15850.1	-0.0165866
15863.4	-0.0165895
15876.7	-0.0165833
15890	-0.0165677
15903.3	-0.0165425
15916.6	-0.0165073
15929.8	-0.0164622
15943.1	-0.0164068
15956.4	-0.0163409
15969.7	-0.0162645
15983	-0.0161774
15996.3	-0.0160793
16009.6	-0.0159703
16022.9	-0.0158502
16036.2	-0.015719
16049.5	-0.0155765
16062.8	-0.0154226
16076.1	-0.0152575
16089.4	-0.015081
16102.7	-0.0148931
16116	-0.0146939
16129.3	-0.0144834
16142.6	-0.0142616
16155.9	-0.0140286
16169.2	-0.0137844
16182.5	-0.0135292
16195.8	-0.0132631
16209.1	-0.0129862
16222.4	-0.0126986
16235.7	-0.0124005
16249	-0.0120921
16262.3	-0.0117735
16275.6	-0.0114451
16288.9	-0.0111069
16302.2	-0.0107592
16315.5	-0.0104023
16328.8	-0.0100364
16342.1	-0.00966185
16355.4	-0.00927886
16368.7	-0.00888775
16381.9	-0.00848884
16395.2	-0.00808244
16408.5	-0.00766888
16421.8	-0.00724851
16435.1	-0.00682168
16448.4	-0.00638874
16461.7	-0.00595007
16475	-0.00550604
16488.3	-0.00505703
16501.6	-0.00460343
16514.9	-0.00414564
16528.2	-0.00368406
16541.5	-0.0032191
16554.8	-0.00275115
16568.1	-0.00228064
16581.4	-0.00180799
16594.7	-0.0013336
16608	-0.000857904
16621.3	-0.000381317
16634.6	9.57408e-05
16647.9	0.000572848
16661.2	0.00104958
16674.5	0.00152553
16687.8	0.00200028
16701.1	0.00247341
16714.4	0.00294451
16727.7	0.00341318
16741	0.00387902
16754.3	0.00434162
16767.6	0.00480061
16780.9	0.00525559
16794.2	0.00570618
16807.5	0.00615201
16820.8	0.00659272
16834.1	0.00702796
16847.3	0.00745736
16860.6	0.0078806
16873.9	0.00829734
16887.2	0.00870726
16900.5	0.00911005
16913.8	0.00950541
16927.1	0.00989304
16940.4	0.0102727
16953.7	0.010644
16967	0.0110068
16980.3	0.0113608
16993.6	0.0117058
17006.9	0.0120416
17020.2	0.0123679
17033.5	0.0126845
17046.8	0.0129913
17060.1	0.0132881
17073.4	0.0135747
17086.7	0.0138509
17100	0.0141166
17113.3	0.0143717
17126.6	0.0146161
17139.9	0.0148496
17153.2	0.0150722
17166.5	0.0152838
17179.8	0.0154843
17193.1	0.0156737
17206.4	0.0158518
17219.7	0.0160188
17233	0.0161744
17246.3	0.0163189
17259.6	0.016452
17272.9	0.0165739
17286.2	0.0166846
17299.4	0.016784
17312.7	0.0168723
17326	0.0169495
17339.3	0.0170156
17352.6	0.0170707
17365.9	0.0171148
17379.2	0.0171482
17392.5	0.0171708
17405.8	0.0171827
17419.1	0.0171841
17432.4	0.0171751
17445.7	0.0171558
17459	0.0171263
17472.3	0.0170868
17485.6	0.0170374
17498.9	0.0169783
17512.2	0.0169095
17525.5	0.0168314
17538.8	0.0167439
17552.1	0.0166474
17565.4	0.0165419
17578.7	0.0164277
17592	0.0163049
17605.3	0.0161737
17618.6	0.0160343
17631.9	0.0158869
17645.2	0.0157317
17658.5	0.0155689
17671.8	0.0153986
17685.1	0.0152211
17698.4	0.0150365
17711.7	0.0148451
17725	0.0146471
17738.3	0.0144426
17751.5	0.0142319
17764.8	0.0140152
17778.1	0.0137927
17791.4	0.0135645
17804.7	0.0133309
17818	0.0130921
17831.3	0.0128482
17844.6	0.0125996
17857.9	0.0123463
17871.2	0.0120886
17884.5	0.0118266
17897.8	0.0115607
17911.1	0.0112909
17924.4	0.0110174
17937.7	0.0107405
17951	0.0104604
17964.3	0.0101772
17977.6	0.00989102
17990.9	0.00960219
18004.2	0.00931082
18017.5	0.0090171
18030.8	0.00872121
18044.1	0.00842333
18057.4	0.00812361
18070.7	0.00782224
18084	0.00751937
18097.3	0.00721518
18110.6	0.00690983
18123.9	0.00660347
18137.2	0.00629627
18150.5	0.00598837
18163.8	0.00567994
18177.1	0.00537112
18190.4	0.00506206
18203.6	0.00475291
18216.9	0.00444381
18230.2	0.0041349
18243.5	0.00382632
18256.8	0.00351821
18270.1	0.0032107
18283.4	0.00290392
18296.7	0.002598
18310	0.00229308
18323.3	0.00198926
18336.6	0.00168669
18349.9	0.00138548
18363.2	0.00108575
18376.5	0.000787613
18389.8	0.000491189
18403.1	0.000196591
18416.4	-9.60706e-05
18429.7	-0.000386686
18443	-0.000675149
18456.3	-0.000961352
18469.6	-0.00124519
18482.9	-0.00152657
18496.2	-0.00180538
18509.5	-0.00208153
18522.8	-0.00235492
18536.1	-0.00262546
18549.4	-0.00289305
18562.7	-0.0031576
18576	-0.00341902
18589.3	-0.00367724
18602.6	-0.00393215
18615.9	-0.00418367
18629.2	-0.00443173
18642.5	-0.00467625
18655.8	-0.00491714
18669	-0.00515433
18682.3	-0.00538774
18695.6	-0.00561731
18708.9	-0.00584295
18722.2	-0.00606461
18735.5	-0.00628221
18748.8	-0.00649568
18762.1	-0.00670498
18775.4	-0.00691003
18788.7	-0.00711077
18802	-0.00730715
18815.3	-0.00749912
18828.6	-0.00768661
18841.9	-0.00786959
18855.2	-0.008048
18868.5	-0.00822179
18881.8	-0.00839093
18895.1	-0.00855537
18908.4	-0.00871507
18921.7	-0.00886999
18935	-0.00902011
18948.3	-0.00916538
18961.6	-0.00930578
18974.9	-0.00944129
18988.2	-0.00957188
19001.5	-0.00969752
19014.8	-0.0098182
19028.1	-0.0099339
19041.4	-0.0100446
19054.7	-0.0101503
19068	-0.010251
19081.3	-0.0103467
19094.6	-0.0104374
19107.9	-0.010523
19121.1	-0.0106036
19134.4	-0.0106792
19147.7	-0.0107499
19161	-0.0108155
19174.3	-0.0108761
19187.6	-0.0109318
19200.9	-0.0109825
19214.2	-0.0110283
19227.5	-0.0110693
19240.8	-0.0111053
19254.1	-0.0111366
19267.4	-0.011163
19280.7	-0.0111846
19294	-0.0112015
19307.3	-0.0112138
19320.6	-0.0112214
19333.9	-0.0112243
19347.2	-0.0112228
19360.5	-0.0112167
19373.8	-0.0112062
19387.1	-0.0111913
19400.4	-0.0111721
19413.7	-0.0111486
19427	-0.0111208
19440.3	-0.011089
19453.6	-0.011053
19466.9	-0.0110131
19480.2	-0.0109692
19493.5	-0.0109214
19506.8	-0.0108699
19520.1	-0.0108146
19533.4	-0.0107557
19546.7	-0.0106932
19560	-0.0106272
19573.2	-0.0105578
19586.5	-0.0104851
19599.8	-0.0104092
19613.1	-0.0103301
19626.4	-0.010248
19639.7	-0.0101629
19653	-0.0100749
19666.3	-0.00998403
19679.6	-0.0098905
19692.9	-0.00979433
19706.2	-0.00969564
19719.5	-0.00959449
19732.8	-0.009491
19746.1	-0.00938523
19759.4	-0.0092773
19772.7	-0.00916728
19786	-0.00905526
19799.3	-0.00894135
19812.6	-0.00882562
19825.9	-0.00870817
19839.2	-0.00858909
19852.5	-0.00846847
19865.8	-0.00834639
19879.1	-0.00822294
19892.4	-0.00809821
19905.7	-0.00797229
19919	-0.00784526
19932.3	-0.0077172
19945.6	-0.0075882
19958.9	-0.00745835
19972.2	-0.00732772
19985.5	-0.00719639
19998.8	-0.00706445
