0	0
230.748	0
461.497	3.63798e-12
692.245	0.0852433
922.993	0.102466
1153.74	0.101662
1384.49	0.0912652
1615.24	0.0891287
1845.99	0.0908959
2076.74	0.0919335
2307.48	0.0882057
2538.23	0.0796096
2768.98	0.0675296
2999.73	0.0537787
3230.48	0.0396502
3461.23	0.0259307
3691.97	0.0130666
3922.72	0.00139254
4153.47	-0.00878975
4384.22	-0.0172362
4614.97	-0.0238364
4845.71	-0.0286572
5076.46	-0.0319254
5307.21	-0.0339618
5537.96	-0.0351053
5768.7	-0.0356568
5999.45	-0.0358533
6230.2	-0.0358644
6460.94	-0.0357996
6691.69	-0.0357178
6922.44	-0.0356363
7153.18	-0.0355384
7383.93	-0.0353834
7614.68	-0.0351151
7845.43	-0.0346715
8076.17	-0.0339924
8306.92	-0.0330269
8537.67	-0.0317383
8768.42	-0.0301093
8999.17	-0.0281443
9229.91	-0.0258708
9460.66	-0.0233383
9691.41	-0.0206149
9922.16	-0.0177821
10152.9	-0.0149281
10383.7	-0.0121409
10614.4	-0.00950194
10845.2	-0.00708008
11075.9	-0.00492821
11306.6	-0.003081
11537.4	-0.00155473
11768.1	-0.000348708
11998.9	0.000552217
12229.6	0.00117436
12460.4	0.0015517
12691.1	0.00172251
12921.9	0.00172642
13152.6	0.00160202
13383.4	0.00138513
13614.1	0.00110761
13844.9	0.000796702
14075.6	0.000474759
14306.4	0.000159239
14537.1	-0.000137041
14767.9	-0.00040552
14998.6	-0.000641382
15229.4	-0.00084296
15460.1	-0.00101108
15690.9	-0.00114836
15921.6	-0.00125854
16152.4	-0.00134588
16383.1	-0.00141455
16613.9	-0.00146828
16844.6	-0.00151004
17075.4	-0.00154194
17306.1	-0.00156523
17536.9	-0.00158042
17767.6	-0.00158747
17998.4	-0.00158605
18229.1	-0.00157571
18459.8	-0.00155611
18690.6	-0.00152715
18921.3	-0.00148901
19152.1	-0.00144219
19382.8	-0.00138744
19613.6	-0.00132575
19844.3	-0.00125819
