0	0
14.7745	0
22.1618	0
36.9363	0
44.3236	0
51.7109	0
66.4854	0
73.8727	0
81.2599	0
96.0345	0
103.422	0
110.809	0
125.584	0
132.971	0
140.358	0
155.133	0
162.52	0
177.294	0
184.682	0
192.069	0
206.843	0
214.231	0
221.618	0
236.393	0
243.78	0
251.167	0
265.942	0
273.329	0
280.716	0
295.491	0
302.878	0
310.265	0
325.04	0
332.427	0
347.202	0
354.589	0
361.976	0
376.751	0
384.138	0
391.525	0
406.3	0
413.687	0
421.074	0
435.849	0
443.236	0
450.623	0
465.398	0
472.785	0
480.172	0
494.947	0
502.334	0
517.109	0
524.496	0
531.883	0
546.658	0
554.045	0
561.432	0
576.207	0
583.594	0
590.981	0
605.756	0
613.143	0
620.53	0
635.305	0
642.692	0
650.08	0
664.854	0
672.241	0
687.016	0
694.403	0
701.79	0
716.565	0
723.952	0
731.34	0
746.114	0
753.501	0
760.889	0
775.663	0
783.05	0
790.438	0
805.212	0
812.599	0
827.374	0
834.761	0
842.149	0
856.923	0
864.31	0
871.698	0
886.472	0
893.859	0
901.247	0
916.021	0
923.408	0
930.796	0
945.57	0
952.958	0
960.345	0
975.119	0
982.507	0
997.281	0
1004.67	0
1012.06	0
1026.83	0
1034.22	0
1041.6	0
1056.38	0
1063.77	0
1071.15	0
1085.93	0
1093.32	0
1100.7	0
1115.48	0
1122.86	0
1130.25	0
1145.03	0
1152.41	0
1167.19	0
1174.58	0
1181.96	0
1196.74	0
1204.12	0
1211.51	0
1226.29	0
1233.67	0
1241.06	0
1255.84	0
1263.22	0
1270.61	0
1285.38	0
1292.77	0
1300.16	0
1314.93	0
1322.32	0
1337.1	0
1344.48	0
1351.87	0
1366.64	0
1374.03	0
1381.42	0
1396.19	0
1403.58	0
1410.97	0
1425.74	0
1433.13	0
1440.52	0
1455.29	0
1462.68	0
1470.07	0
1484.84	0
1492.23	0
1507	0
1514.39	0
1521.78	0
1536.55	0
1543.94	0
1551.33	0
1566.1	0
1573.49	0
1580.88	0
1595.65	0
1603.04	0
1610.42	0
1625.2	0
1632.59	0
1647.36	0
1654.75	0
1662.14	0
1676.91	0
1684.3	0
1691.68	0
1706.46	0
1713.85	0
1721.23	0
1736.01	0
1743.4	0
1750.78	0
1765.56	0
1772.94	0
1780.33	0
1795.11	0
1802.49	0
1817.27	0
1824.66	0
1832.04	0
1846.82	0
1854.2	0
1861.59	0
1876.37	0
1883.75	0
1891.14	0
1905.92	0
1913.3	0
1920.69	0
1935.46	0
1942.85	0
1950.24	0
1965.01	0
1972.4	0
1987.18	0
1994.56	0
2001.95	0
2016.72	0
2024.11	0
2031.5	0
2046.27	0
2053.66	0
2061.05	0
2075.82	9.09495e-13
2083.21	1.81899e-12
2090.6	1.81899e-12
2105.37	3.63798e-12
2112.76	4.54747e-12
2120.15	5.45697e-12
2134.92	8.18545e-12
2142.31	1.00044e-11
2157.08	1.54614e-11
2164.47	1.90994e-11
2171.86	2.36469e-11
2186.63	3.54703e-11
2194.02	4.36557e-11
2201.41	5.36602e-11
2216.18	8.18545e-11
2223.57	1.00044e-10
2230.95	1.22782e-10
2245.73	1.82808e-10
2253.12	2.22826e-10
2260.5	2.71029e-10
2275.28	3.97449e-10
2282.67	4.81123e-10
2290.05	5.80258e-10
2304.83	8.41283e-10
2312.21	1.00954e-09
2326.99	1.4461e-09
2334.38	1.72622e-09
2341.76	2.05728e-09
2356.54	2.90675e-09
2363.93	3.44698e-09
2371.31	4.0809e-09
2386.09	5.6898e-09
2393.47	6.70207e-09
2400.86	7.88168e-09
2415.64	1.08475e-08
2423.02	1.26956e-08
2430.41	1.48357e-08
2445.19	2.01635e-08
2452.57	2.34531e-08
2467.35	3.15877e-08
2474.73	3.65762e-08
2482.12	4.22906e-08
2496.9	5.62886e-08
2504.28	6.47997e-08
2511.67	7.44913e-08
2526.45	9.80253e-08
2533.83	1.12213e-07
2541.22	1.28278e-07
2555.99	1.66952e-07
2563.38	1.90079e-07
2570.77	2.16121e-07
2585.54	2.78298e-07
2592.93	3.15186e-07
2600.32	3.56506e-07
2615.09	4.54365e-07
2622.48	5.11983e-07
2637.25	6.47649e-07
2644.64	7.27082e-07
2652.03	8.15267e-07
2666.8	1.02135e-06
2674.19	1.14114e-06
2681.58	1.27348e-06
2696.35	1.58052e-06
2703.74	1.75775e-06
2711.13	1.95264e-06
2725.9	2.4016e-06
2733.29	2.65901e-06
2740.68	2.94081e-06
2755.45	3.58555e-06
2762.84	3.95281e-06
2770.23	4.35311e-06
2785	5.26301e-06
2792.39	5.77808e-06
2807.16	6.94329e-06
2814.55	7.59988e-06
2821.94	8.31037e-06
2836.71	9.90791e-06
2844.1	1.08029e-05
2851.49	1.17675e-05
2866.26	1.39238e-05
2873.65	1.51251e-05
2881.03	1.6415e-05
2895.81	1.92826e-05
2903.2	2.08714e-05
2910.58	2.25717e-05
2925.36	2.63313e-05
2932.74	2.84039e-05
2940.13	3.06144e-05
2954.91	3.54782e-05
2962.29	3.81469e-05
2977.07	4.39985e-05
2984.46	4.71984e-05
2991.84	5.05931e-05
3006.62	5.80045e-05
3014	6.20409e-05
3021.39	6.63116e-05
3036.17	7.55993e-05
3043.55	8.06392e-05
3050.94	8.59591e-05
3065.72	9.74898e-05
3073.1	0.000103727
3080.49	0.000110298
3095.26	0.000124501
3102.65	0.000132165
3110.04	0.000140226
3124.81	0.000157613
3132.2	0.000166977
3146.97	0.000187154
3154.36	0.000198012
3161.75	0.000209415
3176.52	0.000233968
3183.91	0.000247176
3191.3	0.000261047
3206.07	0.000290917
3213.46	0.000306993
3220.85	0.000323884
3235.62	0.000360301
3243.01	0.000379926
3250.4	0.000400571
3265.17	0.000445164
3272.56	0.000469249
3287.33	0.000521374
3294.72	0.000549584
3302.11	0.000579351
3316.88	0.000643967
3324.27	0.000679047
3331.65	0.00071614
3346.43	0.000796928
3353.82	0.000840928
3361.2	0.000887555
3375.98	0.000989436
3383.36	0.0010451
3390.75	0.0011042
3405.52	0.0012337
3412.91	0.00130463
3420.3	0.00138007
3435.07	0.00154575
3442.46	0.00163668
3457.23	0.0018366
3464.62	0.00194643
3472.01	0.00206342
3486.78	0.00232087
3494.17	0.00246236
3501.56	0.00261312
3516.33	0.00294486
3523.72	0.00312713
3531.11	0.00332126
3545.88	0.00374807
3553.27	0.00398234
3560.65	0.00423162
3575.43	0.00477885
3582.81	0.00507869
3590.2	0.00539734
3604.98	0.00609532
3612.36	0.00647689
3627.14	0.00731106
3634.52	0.00776615
3641.91	0.0082483
3656.68	0.00929924
3664.07	0.00987085
3671.46	0.0104752
3686.23	0.011788
3693.62	0.0124997
3701.01	0.0132504
3715.78	0.0148754
3723.17	0.0157531
3730.55	0.0166766
3745.33	0.0186681
3752.72	0.0197398
3760.1	0.0208644
3774.88	0.0232802
3782.26	0.024575
3797.04	0.0273478
3804.42	0.0288294
3811.81	0.030377
3826.59	0.0336774
3833.97	0.0354337
3841.36	0.0372631
3856.13	0.0411479
3863.52	0.0432065
3870.91	0.0453447
3885.68	0.0498656
3893.07	0.052251
3900.46	0.0547215
3915.23	0.059922
3922.62	0.0626542
3930	0.0654754
3944.78	0.0713878
3952.16	0.0744801
3966.94	0.0809389
3974.32	0.0843055
3981.71	0.0877636
3996.49	0.0949531
4003.87	0.0986834
4011.26	0.102503
4026.03	0.110408
4033.42	0.11449
4040.81	0.118656
4055.58	0.127236
4062.97	0.131646
4070.36	0.136133
4085.13	0.145325
4092.52	0.150026
4107.29	0.159621
4114.68	0.164509
4122.06	0.169451
4136.84	0.179485
4144.23	0.184568
4151.61	0.189689
4166.39	0.200027
4173.77	0.205234
4181.16	0.21046
4195.93	0.220944
4203.32	0.226191
4210.71	0.231434
4225.48	0.241885
4232.87	0.247079
4240.26	0.252245
4255.03	0.262464
4262.42	0.267505
4277.19	0.277414
4284.58	0.28227
4291.97	0.28705
4306.74	0.296358
4314.13	0.300872
4321.51	0.305283
4336.29	0.313772
4343.68	0.317836
4351.06	0.321771
4365.84	0.329228
4373.22	0.332737
4380.61	0.336092
4395.39	0.342316
4402.77	0.345173
4410.16	0.347852
4424.93	0.352658
4432.32	0.354774
4447.1	0.358409
4454.48	0.35992
4461.87	0.36122
4476.64	0.363176
4484.03	0.363825
4491.42	0.36425
4506.19	0.364419
4513.58	0.36416
4520.97	0.363667
4535.74	0.361981
4543.13	0.360785
4550.52	0.359353
4565.29	0.35578
4572.68	0.35364
4580.07	0.351266
4594.84	0.345816
4602.23	0.342745
4617	0.335918
4624.39	0.332169
4631.78	0.328198
4646.55	0.319609
4653.94	0.314997
4661.33	0.310179
4676.1	0.299944
4683.49	0.294535
4690.87	0.288939
4705.65	0.277208
4713.04	0.271084
4720.42	0.264795
4735.2	0.251749
4742.59	0.245004
4757.36	0.231104
4764.75	0.223963
4772.13	0.216703
4786.91	0.201859
4794.3	0.194288
4801.68	0.186628
4816.46	0.171071
4823.85	0.163189
4831.23	0.155247
4846.01	0.139219
4853.39	0.131146
4860.78	0.123045
4875.56	0.106786
4882.94	0.0986429
4890.33	0.0905012
4905.1	0.0742497
4912.49	0.0661541
4927.27	0.050058
4934.65	0.0420711
4942.04	0.0341337
4956.82	0.0184332
4964.2	0.0106824
4971.59	0.00300601
4986.36	-0.0121008
4993.75	-0.0195202
5001.14	-0.0268431
5015.91	-0.0411799
5023.3	-0.0481842
5030.69	-0.0550731
5045.46	-0.0684883
5052.85	-0.0750066
5060.24	-0.081394
5075.01	-0.0937625
5082.4	-0.0997375
5097.17	-0.111256
5104.56	-0.116794
5111.95	-0.122182
5126.72	-0.132502
5134.11	-0.137431
5141.5	-0.142203
5156.27	-0.151276
5163.66	-0.155575
5171.05	-0.159715
5185.82	-0.167518
5193.21	-0.171182
5200.59	-0.174687
5215.37	-0.181224
5222.76	-0.184258
5230.14	-0.187137
5244.92	-0.192434
5252.31	-0.194855
5267.08	-0.19925
5274.47	-0.201228
5281.85	-0.203062
5296.63	-0.206308
5304.02	-0.207724
5311.4	-0.209006
5326.18	-0.211177
5333.56	-0.212071
5340.95	-0.212842
5355.73	-0.214023
5363.11	-0.21444
5370.5	-0.214745
5385.28	-0.215031
5392.66	-0.215019
5400.05	-0.214908
5414.82	-0.2144
5422.21	-0.21401
5436.99	-0.212973
5444.37	-0.212334
5451.76	-0.211617
5466.54	-0.209967
5473.92	-0.20904
5481.31	-0.208048
5496.08	-0.205886
5503.47	-0.204722
5510.86	-0.203506
5525.63	-0.20093
5533.02	-0.199576
5540.41	-0.198183
5555.18	-0.195286
5562.57	-0.193789
5577.34	-0.190708
5584.73	-0.18913
5592.12	-0.18753
5606.89	-0.184273
5614.28	-0.182621
5621.67	-0.180956
5636.44	-0.177594
5643.83	-0.175901
5651.22	-0.174203
5665.99	-0.170797
5673.38	-0.169093
5680.77	-0.167391
5695.54	-0.163994
5702.93	-0.162303
5710.31	-0.160619
5725.09	-0.157274
5732.48	-0.155615
5747.25	-0.152332
5754.64	-0.150708
5762.03	-0.149097
5776.8	-0.145918
5784.19	-0.144351
5791.57	-0.142799
5806.35	-0.139743
5813.74	-0.13824
5821.12	-0.136754
5835.9	-0.133833
5843.29	-0.132399
5850.67	-0.130982
5865.45	-0.1282
5872.83	-0.126835
5880.22	-0.125488
5895	-0.122845
5902.38	-0.121549
5917.16	-0.119007
5924.54	-0.11776
5931.93	-0.116528
5946.71	-0.114112
5954.09	-0.112926
5961.48	-0.111755
5976.26	-0.109453
5983.64	-0.108322
5991.03	-0.107204
6005.8	-0.105004
6013.19	-0.103921
6020.58	-0.102849
6035.35	-0.100735
6042.74	-0.0996926
6050.13	-0.0986592
6064.9	-0.0966173
6072.29	-0.095608
6087.06	-0.0936103
6094.45	-0.092621
6101.84	-0.0916376
6116.61	-0.0896866
6124	-0.0887183
6131.39	-0.0877542
6146.16	-0.0858374
6153.55	-0.084884
6160.94	-0.0839334
6175.71	-0.0820399
6183.1	-0.0810964
6190.49	-0.0801547
6205.26	-0.0782757
6212.65	-0.0773381
6220.04	-0.0764015
6234.81	-0.0745306
6242.2	-0.0735961
6256.97	-0.0717285
6264.36	-0.0707953
6271.75	-0.0698623
6286.52	-0.0679971
6293.91	-0.0670649
6301.3	-0.0661331
6316.07	-0.0642703
6323.46	-0.0633397
6330.84	-0.0624095
6345.62	-0.0605514
6353.01	-0.0596237
6360.39	-0.058697
6375.17	-0.0568476
6382.56	-0.0559252
6397.33	-0.054086
6404.72	-0.0531697
6412.1	-0.0522558
6426.88	-0.0504363
6434.27	-0.0495313
6441.65	-0.0486297
6456.43	-0.046838
6463.81	-0.0459484
6471.2	-0.0450633
6485.98	-0.043308
6493.36	-0.0424383
6500.75	-0.0415742
6515.53	-0.0398644
6522.91	-0.0390191
6530.3	-0.0381807
6545.07	-0.0365255
6552.46	-0.0357092
6567.24	-0.0341007
6574.62	-0.033309
6582.01	-0.032526
6596.79	-0.0309871
6604.17	-0.0302316
6611.56	-0.0294857
6626.33	-0.0280237
6633.72	-0.027308
6641.11	-0.0266026
6655.88	-0.0252238
6663.27	-0.0245506
6670.66	-0.0238885
6685.43	-0.0225977
6692.82	-0.0219693
6700.21	-0.0213522
6714.98	-0.0201528
6722.37	-0.0195704
6737.14	-0.0184405
6744.53	-0.017893
6751.92	-0.0173571
6766.69	-0.0163201
6774.08	-0.0158189
6781.47	-0.0153291
6796.24	-0.0143833
6803.63	-0.0139272
6811.02	-0.0134821
6825.79	-0.0126242
6833.18	-0.0122112
6840.57	-0.0118085
6855.34	-0.0110334
6862.73	-0.0106605
6870.12	-0.0102972
6884.89	-0.00959803
6892.28	-0.00926171
6907.05	-0.0086142
6914.44	-0.00830244
6921.83	-0.00799826
6936.6	-0.00741142
6943.99	-0.0071281
6951.38	-0.00685108
6966.15	-0.00631452
6973.54	-0.00605428
6980.92	-0.00579892
6995.7	-0.00530137
7003.09	-0.00505843
7010.47	-0.00481888
7025.25	-0.00434843
7032.64	-0.00411676
7040.02	-0.00388694
7054.8	-0.00343133
7062.18	-0.00320476
7076.96	-0.00275217
7084.35	-0.00252538
7091.73	-0.00229776
7106.51	-0.00183853
7113.9	-0.00160617
7121.28	-0.00137151
7136.06	-0.000893838
7143.44	-0.00065013
7150.83	-0.00040272
7165.61	0.000104518
7172.99	0.000364985
7180.38	0.000630429
7195.16	0.00117743
7202.54	0.00145955
7217.32	0.00204238
7224.7	0.00234359
7232.09	0.00265165
7246.87	0.00328921
7254.25	0.00361911
7261.64	0.00395669
7276.42	0.00465555
7283.8	0.00501715
7291.19	0.00538704
7305.96	0.00615218
7313.35	0.00654763
7320.74	0.00695179
7335.51	0.00778648
7342.9	0.00821709
7350.29	0.0086566
7365.06	0.00956231
7372.45	0.0100285
7387.22	0.0109874
7394.61	0.01148
7402	0.0119812
7416.77	0.0130094
7424.16	0.0135361
7431.55	0.014071
7446.32	0.0151651
7453.71	0.0157239
7461.1	0.0162903
7475.87	0.0174451
7483.26	0.0180332
7490.65	0.018628
7505.42	0.0198369
7512.81	0.0204506
7520.19	0.02107
7534.97	0.022325
7542.36	0.02296
7557.13	0.0242435
7564.52	0.0248913
7571.91	0.0255427
7586.68	0.0268551
7594.07	0.0275153
7601.45	0.0281777
7616.23	0.0295079
7623.62	0.0301748
7631	0.0308425
7645.78	0.0321785
7653.16	0.0328461
7660.55	0.0335128
7675.33	0.0348424
7682.71	0.0355043
7690.1	0.0361639
7704.88	0.0374743
7712.26	0.0381242
7727.04	0.0394118
7734.42	0.0400486
7741.81	0.0406802
7756.59	0.0419264
7763.97	0.0425401
7771.36	0.043147
7786.13	0.0443392
7793.52	0.0449237
7800.91	0.0455
7815.68	0.0466263
7823.07	0.0471757
7830.46	0.0477154
7845.23	0.0487645
7852.62	0.0492732
7860.01	0.049771
7874.78	0.0507323
7882.17	0.0511953
7896.94	0.0520843
7904.33	0.0525099
7911.72	0.0529225
7926.49	0.0537075
7933.88	0.0540795
7941.27	0.0544375
7956.04	0.0551107
7963.43	0.0554255
7970.82	0.0557255
7985.59	0.0562801
7992.98	0.0565345
8000.36	0.0567734
8015.14	0.0572041
8022.53	0.0573956
8037.3	0.0577304
8044.69	0.0578735
8052.07	0.0580002
8066.85	0.0582043
8074.24	0.0582816
8081.62	0.0583422
8096.4	0.0584135
8103.79	0.0584241
8111.17	0.058418
8125.95	0.0583555
8133.33	0.0582992
8140.72	0.0582261
8155.5	0.05803
8162.88	0.0579071
8170.27	0.0577675
8185.04	0.0574391
8192.43	0.0572503
8207.21	0.0568239
8214.59	0.0565866
8221.98	0.0563333
8236.76	0.0557792
8244.14	0.0554786
8251.53	0.0551625
8266.3	0.0544845
8273.69	0.0541228
8281.08	0.0537461
8295.85	0.0529487
8303.24	0.0525283
8310.63	0.0520937
8325.4	0.0511823
8332.79	0.050706
8340.18	0.0502162
8354.95	0.0491969
8362.34	0.0486678
8377.11	0.0475717
8384.5	0.0470052
8391.89	0.0464267
8406.66	0.0452344
8414.05	0.0446211
8421.44	0.0439967
8436.21	0.0427155
8443.6	0.0420592
8450.98	0.0413927
8465.76	0.0400302
8473.15	0.0393347
8480.53	0.03863
8495.31	0.0371941
8502.7	0.0364634
8510.08	0.0357245
8524.86	0.0342233
8532.24	0.0334616
8547.02	0.0319169
8554.41	0.0311345
8561.79	0.0303458
8576.57	0.0287503
8583.95	0.0279442
8591.34	0.0271327
8606.12	0.025495
8613.5	0.0246693
8620.89	0.0238393
8635.67	0.0221677
8643.05	0.0213266
8650.44	0.0204823
8665.21	0.0187852
8672.6	0.017933
8687.38	0.0162222
8694.76	0.0153643
8702.15	0.014505
8716.93	0.0127834
8724.31	0.0119215
8731.7	0.0110593
8746.47	0.00933486
8753.86	0.0084731
8761.25	0.00761198
8776.02	0.00589265
8783.41	0.00503493
8790.8	0.00417881
8805.57	0.00247238
8812.96	0.00162253
8820.35	0.000775231
8835.12	-0.000910792
8842.51	-0.00174906
8857.28	-0.00341502
8864.67	-0.00424226
8872.06	-0.00506539
8886.83	-0.00669847
8894.22	-0.007508
8901.61	-0.00831259
8916.38	-0.00990613
8923.77	-0.0106947
8931.15	-0.0114775
8945.93	-0.0130252
8953.32	-0.0137898
8960.7	-0.0145478
8975.48	-0.0160438
8982.87	-0.0167814
8990.25	-0.0175119
9005.03	-0.0189507
9012.41	-0.0196588
9027.19	-0.0210515
9034.58	-0.0217358
9041.96	-0.022412
9056.74	-0.0237391
9064.13	-0.0243899
9071.51	-0.025032
9086.29	-0.0262896
9093.67	-0.0269049
9101.06	-0.027511
9115.84	-0.0286955
9123.22	-0.0292736
9130.61	-0.0298423
9145.38	-0.0309506
9152.77	-0.0314903
9160.16	-0.0320201
9174.93	-0.03305
9182.32	-0.0335501
9197.1	-0.03452
9204.48	-0.0349898
9211.87	-0.0354494
9226.64	-0.0363381
9234.03	-0.0367671
9241.42	-0.0371859
9256.19	-0.0379926
9263.58	-0.0383806
9270.97	-0.0387583
9285.74	-0.0394829
9293.13	-0.0398299
9300.52	-0.0401666
9315.29	-0.0408095
9322.68	-0.0411157
9330.07	-0.0414118
9344.84	-0.0419739
9352.23	-0.0422399
9367	-0.0427424
9374.39	-0.0429788
9381.78	-0.0432055
9396.55	-0.04363
9403.94	-0.0438279
9411.33	-0.0440164
9426.1	-0.0443652
9433.49	-0.0445258
9440.87	-0.0446772
9455.65	-0.0449531
9463.04	-0.0450778
9470.42	-0.0451937
9485.2	-0.0453997
9492.59	-0.04549
9507.36	-0.0456459
9514.75	-0.0457116
9522.13	-0.0457694
9536.91	-0.0458615
9544.3	-0.0458961
9551.68	-0.0459232
9566.46	-0.0459554
9573.85	-0.0459607
9581.23	-0.0459591
9596.01	-0.0459354
9603.39	-0.0459136
9610.78	-0.0458853
9625.56	-0.0458099
9632.94	-0.045763
9640.33	-0.0457101
9655.11	-0.0455871
9662.49	-0.0455172
9677.27	-0.0453613
9684.65	-0.0452756
9692.04	-0.0451848
9706.82	-0.0449888
9714.2	-0.0448837
9721.59	-0.0447742
9736.37	-0.0445421
9743.75	-0.0444199
9751.14	-0.0442936
9765.91	-0.0440295
9773.3	-0.043892
9780.69	-0.043751
9795.46	-0.0434589
9802.85	-0.043308
9810.24	-0.0431542
9825.01	-0.0428377
9832.4	-0.0426754
9847.17	-0.042343
9854.56	-0.0421732
9861.95	-0.042001
9876.72	-0.0416504
9884.11	-0.041472
9891.5	-0.0412917
9906.27	-0.0409258
9913.66	-0.0407404
9921.05	-0.0405534
9935.82	-0.0401752
9943.21	-0.0399841
9950.6	-0.0397917
9965.37	-0.0394038
9972.76	-0.0392083
9980.14	-0.0390118
9994.92	-0.0386164
10002.3	-0.0384176
10017.1	-0.038018
10024.5	-0.0378174
10031.9	-0.0376163
10046.6	-0.0372127
10054	-0.0370104
10061.4	-0.0368078
10076.2	-0.0364018
10083.6	-0.0361986
10091	-0.0359952
10105.7	-0.0355882
10113.1	-0.0353847
10120.5	-0.0351812
10135.3	-0.0347743
10142.7	-0.0345709
10150.1	-0.0343677
10164.8	-0.0339617
10172.2	-0.033759
10187	-0.0333542
10194.4	-0.0331521
10201.8	-0.0329503
10216.5	-0.0325474
10223.9	-0.0323464
10231.3	-0.0321457
10246.1	-0.0317451
10253.5	-0.0315453
10260.9	-0.0313458
10275.6	-0.0309476
10283	-0.030749
10290.4	-0.0305507
10305.2	-0.0301551
10312.6	-0.0299577
10327.3	-0.0295637
10334.7	-0.0293672
10342.1	-0.0291709
10356.9	-0.0287791
10364.3	-0.0285836
10371.7	-0.0283883
10386.4	-0.0279983
10393.8	-0.0278036
10401.2	-0.0276091
10416	-0.0272205
10423.4	-0.0270264
10430.8	-0.0268324
10445.5	-0.0264446
10452.9	-0.0262508
10460.3	-0.0260571
10475.1	-0.0256696
10482.5	-0.0254758
10497.3	-0.0250881
10504.6	-0.0248942
10512	-0.0247001
10526.8	-0.0243115
10534.2	-0.024117
10541.6	-0.0239223
10556.4	-0.0235321
10563.7	-0.0233367
10571.1	-0.0231409
10585.9	-0.0227484
10593.3	-0.0225516
10600.7	-0.0223545
10615.4	-0.0219589
10622.8	-0.0217604
10630.2	-0.0215615
10645	-0.021162
10652.4	-0.0209615
10667.2	-0.0205586
10674.5	-0.0203563
10681.9	-0.0201532
10696.7	-0.0197451
10704.1	-0.01954
10711.5	-0.0193341
10726.3	-0.0189201
10733.6	-0.0187118
10741	-0.0185027
10755.8	-0.0180819
10763.2	-0.0178701
10770.6	-0.0176574
10785.4	-0.0172292
10792.7	-0.0170136
10800.1	-0.016797
10814.9	-0.0163606
10822.3	-0.0161409
10837.1	-0.015698
10844.5	-0.015475
10851.8	-0.0152507
10866.6	-0.0147987
10874	-0.014571
10881.4	-0.014342
10896.2	-0.0138804
10903.6	-0.0136477
10910.9	-0.0134138
10925.7	-0.0129421
10933.1	-0.0127043
10940.5	-0.0124652
10955.3	-0.0119831
10962.7	-0.0117401
10970	-0.0114957
10984.8	-0.0110029
10992.2	-0.0107545
11007	-0.0102536
11014.4	-0.0100011
11021.7	-0.00974722
11036.5	-0.00923546
11043.9	-0.00897754
11051.3	-0.00871827
11066.1	-0.00819569
11073.5	-0.00793239
11080.8	-0.00766776
11095.6	-0.00713454
11103	-0.00686598
11110.4	-0.00659611
11125.2	-0.00605256
11132.6	-0.00577889
11147.3	-0.00522785
11154.7	-0.00495052
11162.1	-0.004672
11176.9	-0.00411147
11184.3	-0.0038295
11191.7	-0.00354643
11206.4	-0.00297707
11213.8	-0.00269083
11221.2	-0.00240359
11236	-0.0018262
11243.4	-0.00153611
11250.8	-0.00124513
11265.5	-0.000660636
11272.9	-0.000367186
11280.3	-7.29799e-05
11295.1	0.00051756
11302.5	0.000813821
11317.2	0.00140813
11324.6	0.0017061
11332	0.00200456
11346.8	0.00260279
11354.2	0.00290247
11361.6	0.00320247
11376.3	0.00380325
11383.7	0.00410394
11391.1	0.00440477
11405.9	0.00500664
11413.3	0.0053076
11420.7	0.00560849
11435.4	0.00620992
11442.8	0.00651036
11450.2	0.00681053
11465	0.00740992
11472.4	0.00770901
11487.1	0.00830577
11494.5	0.00860332
11501.9	0.00890025
11516.7	0.00949202
11524.1	0.00978676
11531.5	0.0100807
11546.2	0.0106657
11553.6	0.0109568
11561	0.0112468
11575.8	0.0118235
11583.2	0.01211
11590.6	0.0123953
11605.3	0.0129618
11612.7	0.0132429
11620.1	0.0135226
11634.9	0.0140772
11642.3	0.0143521
11657.1	0.0148968
11664.4	0.0151665
11671.8	0.0154343
11686.6	0.0159643
11694	0.0162263
11701.4	0.0164863
11716.2	0.0169999
11723.5	0.0172535
11730.9	0.0175049
11745.7	0.0180007
11753.1	0.0182451
11760.5	0.0184871
11775.2	0.0189637
11782.6	0.0191983
11790	0.0194302
11804.8	0.0198863
11812.2	0.0201103
11827	0.0205501
11834.3	0.0207658
11841.7	0.0209787
11856.5	0.0213958
11863.9	0.0216
11871.3	0.0218012
11886.1	0.0221946
11893.4	0.0223867
11900.8	0.0225757
11915.6	0.0229443
11923	0.0231239
11930.4	0.0233003
11945.2	0.0236433
11952.5	0.0238099
11967.3	0.0241333
11974.7	0.0242899
11982.1	0.0244433
11996.9	0.0247397
12004.3	0.0248828
12011.6	0.0250225
12026.4	0.0252914
12033.8	0.0254206
12041.2	0.0255464
12056	0.0257873
12063.4	0.0259024
12070.7	0.026014
12085.5	0.0262264
12092.9	0.0263272
12100.3	0.0264244
12115.1	0.026608
12122.5	0.0266943
12137.2	0.026856
12144.6	0.0269313
12152	0.027003
12166.8	0.0271352
12174.2	0.0271958
12181.5	0.0272527
12196.3	0.0273554
12203.7	0.0274011
12211.1	0.0274431
12225.9	0.0275159
12233.3	0.0275467
12240.6	0.0275738
12255.4	0.0276167
12262.8	0.0276324
12270.2	0.0276445
12285	0.0276572
12292.4	0.027658
12307.1	0.0276481
12314.5	0.0276375
12321.9	0.0276231
12336.7	0.027583
12344.1	0.0275573
12351.5	0.0275278
12366.2	0.0274574
12373.6	0.0274165
12381	0.0273719
12395.8	0.0272712
12403.2	0.0272152
12410.6	0.0271554
12425.3	0.0270244
12432.7	0.0269532
12440.1	0.0268783
12454.9	0.026717
12462.3	0.0266307
12477	0.0264468
12484.4	0.0263492
12491.8	0.0262478
12506.6	0.0260338
12514	0.0259211
12521.4	0.0258047
12536.1	0.0255607
12543.5	0.0254331
12550.9	0.0253017
12565.7	0.0250279
12573.1	0.0248854
12580.5	0.0247393
12595.2	0.0244359
12602.6	0.0242787
12610	0.0241179
12624.8	0.0237853
12632.2	0.0236135
12646.9	0.0232593
12654.3	0.0230767
12661.7	0.0228907
12676.5	0.0225079
12683.9	0.0223113
12691.3	0.0221111
12706	0.0217005
12713.4	0.02149
12720.8	0.021276
12735.6	0.0208381
12743	0.0206141
12750.4	0.0203868
12765.1	0.0199223
12772.5	0.0196852
12787.3	0.0192014
12794.7	0.0189548
12802.1	0.0187051
12816.9	0.0181964
12824.2	0.0179375
12831.6	0.0176756
12846.4	0.0171431
12853.8	0.0168726
12861.2	0.0165992
12876	0.0160441
12883.3	0.0157624
12890.7	0.0154782
12905.5	0.0149018
12912.9	0.0146098
12920.3	0.0143153
12935	0.0137191
12942.4	0.0134175
12957.2	0.0128075
12964.6	0.0124992
12972	0.0121888
12986.8	0.0115618
12994.1	0.0112454
13001.5	0.010927
13016.3	0.0102849
13023.7	0.0099612
13031.1	0.00963584
13045.9	0.00898039
13053.2	0.00865041
13060.6	0.00831902
13075.4	0.00765225
13082.8	0.00731699
13090.2	0.00698058
13105	0.00630454
13112.3	0.00596505
13127.1	0.00528347
13134.5	0.0049415
13141.9	0.00459885
13156.7	0.00391177
13164.1	0.00356747
13171.4	0.00322276
13186.2	0.0025324
13193.6	0.00218688
13201	0.00184124
13215.8	0.00114984
13223.2	0.000804232
13230.5	0.000458777
13245.3	-0.000231389
13252.7	-0.000575958
13260.1	-0.000920091
13274.9	-0.00160677
13282.3	-0.00194917
13297	-0.00263176
13304.4	-0.0029718
13311.8	-0.00331092
13326.6	-0.00398612
13334	-0.00432206
13341.3	-0.0046568
13356.1	-0.00532244
13363.5	-0.0056532
13370.9	-0.0059825
13385.7	-0.00663647
13393.1	-0.00696101
13400.4	-0.00728384
13415.2	-0.00792411
13422.6	-0.00824142
13437.4	-0.00887013
13444.8	-0.00918141
13452.2	-0.00949055
13466.9	-0.0101022
13474.3	-0.0104046
13481.7	-0.0107047
13496.5	-0.0112976
13503.9	-0.0115903
13511.3	-0.0118804
13526	-0.0124529
13533.4	-0.0127351
13540.8	-0.0130145
13555.6	-0.013565
13563	-0.013836
13570.4	-0.014104
13585.1	-0.0146312
13592.5	-0.0148902
13607.3	-0.0153991
13614.7	-0.0156488
13622.1	-0.0158954
13636.8	-0.0163788
13644.2	-0.0166156
13651.6	-0.0168492
13666.4	-0.0173063
13673.8	-0.0175297
13681.2	-0.0177498
13695.9	-0.0181796
13703.3	-0.0183894
13710.7	-0.0185956
13725.5	-0.0189975
13732.9	-0.0191932
13740.3	-0.0193853
13755	-0.0197587
13762.4	-0.01994
13777.2	-0.0202919
13784.6	-0.0204623
13792	-0.0206291
13806.7	-0.0209518
13814.1	-0.0211077
13821.5	-0.0212599
13836.3	-0.0215533
13843.7	-0.0216946
13851.1	-0.0218321
13865.8	-0.0220962
13873.2	-0.0222227
13880.6	-0.0223456
13895.4	-0.0225804
13902.8	-0.0226923
13910.2	-0.0228006
13924.9	-0.0230063
13932.3	-0.0231037
13947.1	-0.0232877
13954.5	-0.0233743
13961.9	-0.0234574
13976.7	-0.0236129
13984	-0.0236853
13991.4	-0.0237542
14006.2	-0.0238815
14013.6	-0.0239399
14021	-0.0239949
14035.8	-0.0240945
14043.1	-0.0241393
14050.5	-0.0241806
14065.3	-0.0242532
14072.7	-0.0242845
14080.1	-0.0243125
14094.9	-0.0243586
14102.2	-0.0243768
14117	-0.0244036
14124.4	-0.0244122
14131.8	-0.0244177
14146.6	-0.0244192
14153.9	-0.0244154
14161.3	-0.0244085
14176.1	-0.0243856
14183.5	-0.0243696
14190.9	-0.0243507
14205.7	-0.0243041
14213	-0.0242765
14220.4	-0.024246
14235.2	-0.0241766
14242.6	-0.0241377
14257.4	-0.0240517
14264.8	-0.0240046
14272.1	-0.0239548
14286.9	-0.0238474
14294.3	-0.0237898
14301.7	-0.0237296
14316.5	-0.0236016
14323.9	-0.0235338
14331.2	-0.0234636
14346	-0.023316
14353.4	-0.0232385
14360.8	-0.0231588
14375.6	-0.0229923
14383	-0.0229056
14390.3	-0.0228167
14405.1	-0.0226322
14412.5	-0.0225367
14427.3	-0.0223394
14434.7	-0.0222376
14442.1	-0.0221337
14456.8	-0.02192
14464.2	-0.0218101
14471.6	-0.0216983
14486.4	-0.021469
14493.8	-0.0213515
14501.1	-0.0212322
14515.9	-0.0209882
14523.3	-0.0208636
14530.7	-0.0207372
14545.5	-0.0204794
14552.9	-0.020348
14560.2	-0.020215
14575	-0.0199443
14582.4	-0.0198066
14597.2	-0.0195268
14604.6	-0.0193847
14612	-0.0192412
14626.7	-0.01895
14634.1	-0.0188024
14641.5	-0.0186535
14656.3	-0.0183519
14663.7	-0.0181992
14671.1	-0.0180454
14685.8	-0.0177342
14693.2	-0.0175769
14700.6	-0.0174186
14715.4	-0.0170988
14722.8	-0.0169374
14730.2	-0.016775
14744.9	-0.0164475
14752.3	-0.0162825
14767.1	-0.0159498
14774.5	-0.0157823
14781.9	-0.015614
14796.6	-0.0152754
14804	-0.015105
14811.4	-0.0149341
14826.2	-0.0145904
14833.6	-0.0144177
14841	-0.0142445
14855.7	-0.0138967
14863.1	-0.0137222
14870.5	-0.0135473
14885.3	-0.0131964
14892.7	-0.0130205
14900.1	-0.0128444
14914.8	-0.0124915
14922.2	-0.0123148
14937	-0.011961
14944.4	-0.011784
14951.8	-0.011607
14966.5	-0.0112529
14973.9	-0.011076
14981.3	-0.0108991
14996.1	-0.0105459
15003.5	-0.0103695
15010.9	-0.0101934
15025.6	-0.00984195
15033	-0.0096667
15040.4	-0.00949181
15055.2	-0.00914323
15062.6	-0.00896961
15077.4	-0.00862386
15084.7	-0.00845179
15092.1	-0.00828032
15106.9	-0.00793925
15114.3	-0.00776972
15121.7	-0.00760091
15136.5	-0.00726554
15143.8	-0.00709906
15151.2	-0.00693342
15166	-0.00660478
15173.4	-0.00644184
15180.8	-0.00627987
15195.6	-0.00595894
15202.9	-0.00580005
15210.3	-0.00564224
15225.1	-0.00533001
15232.5	-0.00517564
15247.3	-0.00487054
15254.7	-0.00471987
15262	-0.0045705
15276.8	-0.00427572
15284.2	-0.00413038
15291.6	-0.00398645
15306.4	-0.00370288
15313.7	-0.00356331
15321.1	-0.00342525
15335.9	-0.00315375
15343.3	-0.00302036
15350.7	-0.00288858
15365.5	-0.00262994
15372.8	-0.00250313
15380.2	-0.00237803
15395	-0.00213302
15402.4	-0.00201316
15417.2	-0.00177883
15424.6	-0.00166441
15431.9	-0.00155185
15446.7	-0.00133236
15454.1	-0.00122548
15461.5	-0.00112053
15476.3	-0.000916494
15483.7	-0.000817446
15491	-0.0007204
15505.8	-0.000532381
15513.2	-0.000441439
15520.6	-0.000352562
15535.4	-0.000181061
15542.8	-9.84659e-05
15550.1	-1.79913e-05
15564.9	0.000136545
15572.3	0.000210582
15587.1	0.000352139
15594.5	0.000419637
15601.9	0.000484934
15616.6	0.000608892
15624	0.000667534
15631.4	0.00072394
15646.2	0.000830018
15653.6	0.000879675
15661	0.00092707
15675.7	0.00101505
15683.1	0.00105562
15690.5	0.00109391
15705.3	0.00116364
15712.7	0.00119506
15720	0.00122419
15734.8	0.00127555
15742.2	0.00129778
15757	0.00133535
15764.4	0.00135068
15771.8	0.00136371
15786.5	0.00138289
15793.9	0.00138903
15801.3	0.00139288
15816.1	0.00139373
15823.5	0.00139073
15830.9	0.00138545
15845.6	0.00136809
15853	0.00135601
15860.4	0.00134168
15875.2	0.00130629
15882.6	0.00128524
15897.3	0.00123646
15904.7	0.00120876
15912.1	0.00117886
15926.9	0.00111249
15934.3	0.00107605
15941.7	0.00103745
15956.4	0.000953824
15963.8	0.000908821
15971.2	0.000861707
15986	0.000761204
15993.4	0.000707841
16000.8	0.000652423
16015.5	0.000535482
16022.9	0.00047399
16030.3	0.000410504
16045.1	0.000277621
16052.5	0.000208258
16067.3	6.37769e-05
16074.6	-1.13038e-05
16082	-8.82524e-05
16096.8	-0.000247675
16104.2	-0.000330108
16111.6	-0.000414328
16126.3	-0.000588042
16133.7	-0.000677493
16141.1	-0.000768642
16155.9	-0.000955943
16163.3	-0.00105205
16170.7	-0.00114976
16185.4	-0.00134988
16192.8	-0.00145225
16200.2	-0.00155612
16215	-0.00176825
16222.4	-0.00187646
16237.2	-0.00209702
16244.5	-0.00220932
16251.9	-0.00232292
16266.7	-0.00255392
16274.1	-0.00267125
16281.5	-0.00278977
16296.3	-0.00303023
16303.6	-0.0031521
16311	-0.00327503
16325.8	-0.00352392
16333.2	-0.0036498
16340.6	-0.00377661
16355.4	-0.00403284
16362.7	-0.00416219
16370.1	-0.00429231
16384.9	-0.00455474
16392.3	-0.00468697
16407.1	-0.00495327
16414.5	-0.00508727
16421.8	-0.00522178
16436.6	-0.00549217
16444	-0.00562798
16451.4	-0.00576414
16466.2	-0.00603735
16473.5	-0.00617432
16480.9	-0.00631148
16495.7	-0.0065862
16503.1	-0.00672367
16510.5	-0.00686116
16525.3	-0.00713604
16532.6	-0.00727333
16540	-0.00741048
16554.8	-0.00768413
16562.2	-0.00782055
16577	-0.00809236
16584.4	-0.00822767
16591.7	-0.00836251
16606.5	-0.00863063
16613.9	-0.00876381
16621.3	-0.00889636
16636.1	-0.00915935
16643.5	-0.00928971
16650.8	-0.00941924
16665.6	-0.00967567
16673	-0.00980248
16680.4	-0.00992828
16695.2	-0.0101767
16702.6	-0.0102993
16717.3	-0.0105408
16724.7	-0.0106596
16732.1	-0.0107772
16746.9	-0.0110082
16754.3	-0.0111216
16761.7	-0.0112335
16776.4	-0.0114527
16783.8	-0.0115599
16791.2	-0.0116655
16806	-0.0118715
16813.4	-0.0119719
16820.8	-0.0120705
16835.5	-0.012262
16842.9	-0.012355
16850.3	-0.0124459
16865.1	-0.0126218
16872.5	-0.0127067
16887.2	-0.0128701
16894.6	-0.0129485
16902	-0.0130248
16916.8	-0.0131705
16924.2	-0.01324
16931.6	-0.0133071
16946.3	-0.0134342
16953.7	-0.0134941
16961.1	-0.0135516
16975.9	-0.0136592
16983.3	-0.0137093
16990.7	-0.0137568
17005.4	-0.013844
17012.8	-0.0138838
17020.2	-0.0139209
17035	-0.0139871
17042.4	-0.0140163
17057.1	-0.0140664
17064.5	-0.0140874
17071.9	-0.0141057
17086.7	-0.014134
17094.1	-0.014144
17101.5	-0.0141512
17116.2	-0.0141573
17123.6	-0.0141561
17131	-0.0141522
17145.8	-0.0141359
17153.2	-0.0141236
17160.6	-0.0141085
17175.3	-0.0140698
17182.7	-0.0140463
17190.1	-0.01402
17204.9	-0.0139591
17212.3	-0.0139245
17227.1	-0.013847
17234.4	-0.0138042
17241.8	-0.0137587
17256.6	-0.0136595
17264	-0.013606
17271.4	-0.0135497
17286.1	-0.0134294
17293.5	-0.0133654
17300.9	-0.0132988
17315.7	-0.013158
17323.1	-0.0130839
17330.5	-0.0130073
17345.2	-0.0128469
17352.6	-0.0127631
17360	-0.012677
17374.8	-0.0124979
17382.2	-0.012405
17397	-0.0122126
17404.3	-0.0121132
17411.7	-0.0120117
17426.5	-0.0118027
17433.9	-0.0116952
17441.3	-0.0115858
17456.1	-0.0113615
17463.4	-0.0112466
17470.8	-0.01113
17485.6	-0.0108917
17493	-0.0107702
17500.4	-0.0106471
17515.2	-0.0103966
17522.5	-0.0102692
17537.3	-0.0100104
17544.7	-0.00987917
17552.1	-0.00974674
17566.9	-0.00947858
17574.3	-0.00934295
17581.6	-0.00920637
17596.4	-0.00893057
17603.8	-0.00879147
17611.2	-0.00865164
17626	-0.00837005
17633.4	-0.0082284
17640.7	-0.00808626
17655.5	-0.00780074
17662.9	-0.00765749
17670.3	-0.00751399
17685.1	-0.00722647
17692.4	-0.00708258
17707.2	-0.00679483
17714.6	-0.00665109
17722	-0.00650752
17736.8	-0.00622115
17744.2	-0.00607847
17751.5	-0.0059362
17766.3	-0.00565314
17773.7	-0.00551247
17781.1	-0.00537245
17795.9	-0.00509461
17803.3	-0.0049569
17810.6	-0.00482008
17825.4	-0.00454933
17832.8	-0.00441551
17840.2	-0.00428281
17855	-0.00402097
17862.4	-0.00389194
17877.1	-0.00363793
17884.5	-0.00351307
17891.9	-0.00338969
17906.7	-0.00314762
17914.1	-0.00302903
17921.5	-0.00291213
17936.2	-0.00268361
17943.6	-0.00257208
17951	-0.00246243
17965.8	-0.00224897
17973.2	-0.00214524
17980.6	-0.00204358
17995.3	-0.00184658
18002.7	-0.00175133
18010.1	-0.0016583
18024.9	-0.00147905
18032.3	-0.0013929
18047	-0.00122772
18054.4	-0.00114875
18061.8	-0.00107225
18076.6	-0.000926736
18084	-0.000857784
18091.4	-0.000791404
18106.1	-0.00066646
18113.5	-0.000607943
18120.9	-0.000552092
18135.7	-0.000448466
18143.1	-0.000400728
18150.5	-0.000355731
18165.2	-0.000274014
18172.6	-0.000237321
18180	-0.000203422
18194.8	-0.000144043
18202.2	-0.00011858
18216.9	-7.61358e-05
18224.3	-5.91641e-05
18231.7	-4.50295e-05
18246.5	-2.52742e-05
18253.9	-1.96518e-05
18261.3	-1.68626e-05
18276	-1.97659e-05
18283.4	-2.54461e-05
18290.8	-3.39348e-05
18305.6	-5.92989e-05
18313	-7.61514e-05
18320.4	-9.57671e-05
18335.1	-0.000143228
18342.5	-0.00017104
18357.3	-0.000234736
18364.7	-0.00027058
18372.1	-0.000309058
18386.9	-0.000393823
18394.2	-0.000440061
18401.6	-0.000488832
18416.4	-0.000593865
18423.8	-0.000650066
18431.2	-0.000708683
18445.9	-0.000833031
18453.3	-0.000898694
18460.7	-0.000966635
18475.5	-0.00110921
18482.9	-0.00118376
18490.3	-0.00126043
18505	-0.00142
18512.4	-0.0015028
18527.2	-0.00167423
18534.6	-0.00176277
18542	-0.00185313
18556.8	-0.00203912
18564.1	-0.00213465
18571.5	-0.00223181
18586.3	-0.00243081
18593.7	-0.00253255
18601.1	-0.00263571
18615.9	-0.00284609
18623.2	-0.00295319
18630.6	-0.00306151
18645.4	-0.00328155
18652.8	-0.00339316
18660.2	-0.00350575
18675	-0.00373366
18682.3	-0.00384886
18697.1	-0.00408147
18704.5	-0.00419876
18711.9	-0.00431663
18726.7	-0.00455387
18734.1	-0.00467312
18741.4	-0.00479271
18756.2	-0.00503268
18763.6	-0.00515293
18771	-0.00527329
18785.8	-0.00551406
18793.2	-0.00563436
18800.5	-0.00575452
18815.3	-0.00599418
18822.7	-0.00611357
18830.1	-0.00623258
18844.9	-0.00646923
18852.2	-0.00658675
18867	-0.00681991
18874.4	-0.00693543
18881.8	-0.00705016
18896.6	-0.00727705
18904	-0.0073891
18911.3	-0.00750013
18926.1	-0.00771896
18933.5	-0.00782664
18940.9	-0.0079331
18955.7	-0.00814214
18963.1	-0.00824461
18970.4	-0.00834565
18985.2	-0.00854324
18992.6	-0.00863969
19007.4	-0.00882767
19014.8	-0.0089191
19022.2	-0.00900877
19036.9	-0.00918263
19044.3	-0.00926674
19051.7	-0.00934891
19066.5	-0.00950729
19073.9	-0.00958341
19081.3	-0.00965744
19096	-0.00979906
19103.4	-0.00986659
19110.8	-0.00993188
19125.6	-0.0100556
19133	-0.010114
19140.4	-0.01017
19155.1	-0.0102749
19162.5	-0.0103236
19177.3	-0.0104138
19184.7	-0.0104551
19192.1	-0.0104938
19206.8	-0.0105636
19214.2	-0.0105946
19221.6	-0.010623
19236.4	-0.010672
19243.8	-0.0106924
19251.2	-0.0107102
19265.9	-0.0107378
19273.3	-0.0107475
19280.7	-0.0107545
19295.5	-0.0107604
19302.9	-0.0107593
19310.3	-0.0107554
19325	-0.0107395
19332.4	-0.0107274
19347.2	-0.0106951
19354.6	-0.0106749
19362	-0.0106519
19376.7	-0.0105979
19384.1	-0.0105669
19391.5	-0.0105331
19406.3	-0.0104577
19413.7	-0.010416
19421.1	-0.0103716
19435.8	-0.0102751
19443.2	-0.0102229
19450.6	-0.0101682
19465.4	-0.0100511
19472.8	-0.00998884
19480.2	-0.00992406
19494.9	-0.00978713
19502.3	-0.00971505
19517.1	-0.00956374
19524.5	-0.00948458
19531.9	-0.00940311
19546.7	-0.0092334
19554	-0.00914521
19561.4	-0.00905484
19576.2	-0.0088677
19583.6	-0.00877099
19591	-0.00867224
19605.8	-0.00846874
19613.1	-0.00836407
19620.5	-0.00825751
19635.3	-0.00803882
19642.7	-0.00792679
19650.1	-0.00781301
19664.8	-0.00758038
19672.2	-0.00746161
19687	-0.00721937
19694.4	-0.00709599
19701.8	-0.00697115
19716.6	-0.00671728
19723.9	-0.00658834
19731.3	-0.00645811
19746.1	-0.006194
19753.5	-0.00606021
19760.9	-0.00592531
19775.7	-0.00565238
19783	-0.00551444
19790.4	-0.00537558
19805.2	-0.00509527
19812.6	-0.00495391
19827.4	-0.00466902
19834.8	-0.00452558
19842.1	-0.00438154
19856.9	-0.00409181
19864.3	-0.00394622
19871.7	-0.0038002
19886.5	-0.00350707
19893.9	-0.00336004
19901.2	-0.00321277
19916	-0.00291766
19923.4	-0.00276991
19930.8	-0.00262208
19945.6	-0.00232637
19953	-0.00217857
19960.3	-0.00203086
19975.1	-0.0017359
19982.5	-0.00158872
19997.3	-0.00129516
