<?xml version="1.0"?>
<VTKFile type="Collection" version="0.1" byte_order="LittleEndian">
  <Collection>
    <DataSet timestep="0" group="" part="0" file="paraview/output_swocb_2d_00000000.vtp" />
  </Collection>
</VTKFile>
