Problem size with different number of CPUs using function optimization
THREADS	MTPS	TIMESTEPS	TIMESTEP_SIZE	SECONDS_FOR_SIMULATION	AVERAGE_TRIANGLES	AVERAGE_PARTITIONS
64	40.1715	100	0.000986073	47.7378	1.9177e+07	1162.24
63	40.4636	100	0.000986073	47.3933	1.9177e+07	1162.24
62	40.3253	100	0.000986073	47.5558	1.9177e+07	1162.24
61	41.5266	100	0.000986073	46.18	1.9177e+07	1162.24
60	40.4213	100	0.000986073	47.4428	1.9177e+07	1162.24
59	40.5582	100	0.000986073	47.2827	1.9177e+07	1162.24
58	40.5214	100	0.000986073	47.3256	1.9177e+07	1162.24
57	40.564	100	0.000986073	47.2759	1.9177e+07	1162.24
56	40.8479	100	0.000986073	46.9473	1.9177e+07	1162.24
55	40.7719	100	0.000986073	47.0348	1.9177e+07	1162.24
54	40.7738	100	0.000986073	47.0327	1.9177e+07	1162.24
53	40.6531	100	0.000986073	47.1723	1.9177e+07	1162.24
52	40.826	100	0.000986073	46.9725	1.9177e+07	1162.24
51	40.8432	100	0.000986073	46.9527	1.9177e+07	1162.24
50	40.6863	100	0.000986073	47.1338	1.9177e+07	1162.24
49	40.8803	100	0.000986073	46.9101	1.9177e+07	1162.24
48	40.8858	100	0.000986073	46.9038	1.9177e+07	1162.24
47	40.6896	100	0.000986073	47.1299	1.9177e+07	1162.24
46	40.5992	100	0.000986073	47.2349	1.9177e+07	1162.24
45	40.2489	100	0.000986073	47.646	1.9177e+07	1162.24
44	40.5543	100	0.000986073	47.2872	1.9177e+07	1162.24
43	40.2976	100	0.000986073	47.5884	1.9177e+07	1162.24
42	39.8103	100	0.000986073	48.1709	1.9177e+07	1162.24
41	40.2836	100	0.000986073	47.6049	1.9177e+07	1162.24
40	39.2074	100	0.000986073	48.9116	1.9177e+07	1162.24
39	38.9109	100	0.000986073	49.2844	1.9177e+07	1162.24
38	38.5276	100	0.000986073	49.7747	1.9177e+07	1162.24
37	38.2565	100	0.000986073	50.1275	1.9177e+07	1162.24
36	37.7165	100	0.000986073	50.8451	1.9177e+07	1162.24
35	37.2974	100	0.000986073	51.4165	1.9177e+07	1162.24
34	36.6368	100	0.000986073	52.3435	1.9177e+07	1162.24
33	35.7673	100	0.000986073	53.616	1.9177e+07	1162.24
32	34.3181	100	0.000986073	55.8801	1.9177e+07	1162.24
31	34.7013	100	0.000986073	55.263	1.9177e+07	1162.24
30	34.431	100	0.000986073	55.6969	1.9177e+07	1162.24
29	34.4347	100	0.000986073	55.6909	1.9177e+07	1162.24
28	33.7336	100	0.000986073	56.8484	1.9177e+07	1162.24
27	33.8532	100	0.000986073	56.6476	1.9177e+07	1162.24
26	33.0675	100	0.000986073	57.9935	1.9177e+07	1162.24
25	33.1542	100	0.000986073	57.8418	1.9177e+07	1162.24
24	32.12	100	0.000986073	59.7042	1.9177e+07	1162.24
23	32.1539	100	0.000986073	59.6412	1.9177e+07	1162.24
22	31.0992	100	0.000986073	61.6639	1.9177e+07	1162.24
21	31.2418	100	0.000986073	61.3824	1.9177e+07	1162.24
20	29.6076	100	0.000986073	64.7704	1.9177e+07	1162.24
19	29.8624	100	0.000986073	64.2179	1.9177e+07	1162.24
18	28.4783	100	0.000986073	67.339	1.9177e+07	1162.24
17	28.8725	100	0.000986073	66.4195	1.9177e+07	1162.24
16	27.3512	100	0.000986073	70.114	1.9177e+07	1162.24
15	26.7839	100	0.000986073	71.5989	1.9177e+07	1162.24
14	25.6488	100	0.000986073	74.7676	1.9177e+07	1162.24
13	25.1061	100	0.000986073	76.3838	1.9177e+07	1162.24
12	23.7915	100	0.000986073	80.6044	1.9177e+07	1162.24
11	22.8674	100	0.000986073	83.8616	1.9177e+07	1162.24
10	21.2878	100	0.000986073	90.0844	1.9177e+07	1162.24
9	19.8233	100	0.000986073	96.7396	1.9177e+07	1162.24
8	17.6429	100	0.000986073	108.695	1.9177e+07	1162.24
7	16.2717	100	0.000986073	117.855	1.9177e+07	1162.24
6	14.5705	100	0.000986073	131.615	1.9177e+07	1162.24
5	12.4064	100	0.000986073	154.574	1.9177e+07	1162.24
4	9.95675	100	0.000986073	192.603	1.9177e+07	1162.24
3	8.48626	100	0.000986073	225.977	1.9177e+07	1162.24
2	6.99733	100	0.000986073	274.061	1.9177e+07	1162.24
1	3.5878	100	0.000986073	534.506	1.9177e+07	1162.24
