CPUS:  1 2 3 4 5 6 7 8 9 10 11 12
Problem size with different number of CPUs using function optimization

THREADS	INITIAL_DEPTH	MTPS	SPEEDUP_PER	TIMESTEPS	TIMESTEP_SIZE	AVERAGE_TRIANGLES	AVERAGE_PARTITIONS
1	12	4.23551	1.0000	12753	0.278857	66293.4	89.2244
2	12	8.17752	.9653	12753	0.278857	66293.4	89.2244
3	12	11.9519	.9406	12753	0.278857	66293.4	89.2244
4	12	15.6595	.9242	12753	0.278857	66293.4	89.2244
5	12	19.2727	.9100	12753	0.278857	66293.4	89.2244
6	12	22.68	.8924	12753	0.278857	66293.4	89.2244
7	12	24.752	.8348	12753	0.278857	66293.4	89.2244
8	12	26.7002	.7879	12753	0.278857	66293.4	89.2244
9	12	28.6936	.7527	12753	0.278857	66293.4	89.2244
10	12	30.7613	.7262	12753	0.278857	66293.4	89.2244
11	12	32.7188	.7022	12753	0.278857	66293.4	89.2244
12	12	34.4218	.6772	12753	0.278857	66293.4	89.2244

THREADS	INITIAL_DEPTH	MTPS	SPEEDUP_PER	TIMESTEPS	TIMESTEP_SIZE	AVERAGE_TRIANGLES	AVERAGE_PARTITIONS
1	13	3.92839	1.0000	17919	0.197186	122848	120.339
2	13	7.50115	.9547	17919	0.197186	122848	120.339
3	13	10.9794	.9316	17919	0.197186	122848	120.339
4	13	14.3336	.9121	17919	0.197186	122848	120.339
5	13	17.4582	.8888	17919	0.197186	122848	120.339
6	13	20.6948	.8780	17919	0.197186	122848	120.339
7	13	23.6336	.8594	17919	0.197186	122848	120.339
8	13	26.243	.8350	17919	0.197186	122848	120.339
9	13	28.9869	.8198	17919	0.197186	122848	120.339
10	13	31.4283	.8000	17919	0.197186	122848	120.339
11	13	33.9139	.7848	17919	0.197186	122848	120.339
12	13	35.5416	.7539	17919	0.197186	122848	120.339

THREADS	INITIAL_DEPTH	MTPS	SPEEDUP_PER	TIMESTEPS	TIMESTEP_SIZE	AVERAGE_TRIANGLES	AVERAGE_PARTITIONS
1	14	3.93869	1.0000	25312	0.139428	238091	157.765
2	14	7.46489	.9476	25312	0.139428	238091	157.765
3	14	10.91	.9233	25312	0.139428	238091	157.765
4	14	14.0981	.8948	25312	0.139428	238091	157.765
5	14	17.0704	.8668	25312	0.139428	238091	157.765
6	14	19.8431	.8396	25312	0.139428	238091	157.765
7	14	23.4251	.8496	25312	0.139428	238091	157.765
8	14	26.4069	.8380	25312	0.139428	238091	157.765
9	14	29.2369	.8247	25312	0.139428	238091	157.765
10	14	31.4735	.7990	25312	0.139428	238091	157.765
11	14	33.5483	.7743	25312	0.139428	238091	157.765
12	14	35.5998	.7532	25312	0.139428	238091	157.765

THREADS	INITIAL_DEPTH	MTPS	SPEEDUP_PER	TIMESTEPS	TIMESTEP_SIZE	AVERAGE_TRIANGLES	AVERAGE_PARTITIONS
1	15	3.8401	1.0000	35594	0.0985922	454542	238.981
2	15	7.2942	.9497	35594	0.0985922	454542	238.981
3	15	10.6153	.9214	35594	0.0985922	454542	238.981
4	15	13.6938	.8915	35594	0.0985922	454542	238.981
5	15	16.5013	.8594	35594	0.0985922	454542	238.981
6	15	19.0725	.8277	35594	0.0985922	454542	238.981
7	15	22.5204	.8377	35594	0.0985922	454542	238.981
8	15	25.7149	.8370	35594	0.0985922	454542	238.981
9	15	28.2198	.8165	35594	0.0985922	454542	238.981
10	15	30.2673	.7881	35594	0.0985922	454542	238.981
11	15	32.3984	.7669	35594	0.0985922	454542	238.981
12	15	33.8774	.7351	35594	0.0985922	454542	238.981
