0	0	32768	32768	
135.718	0	32768	32768	
271.435	0	32768	32768	
407.153	0	32768	32768	
542.871	0	32768	32768	
678.589	0	32768	32768	
814.306	0	32768	32768	
950.024	0	32768	32768	
1085.74	0	32768	32768	
1221.46	0	32768	32768	
1357.18	0	32768	32768	
1492.89	0	32768	32768	
1628.61	0	32768	32768	
1764.33	0	32768	32768	
1900.05	0	32768	32768	
2035.77	0	32768	32768	
2171.48	0	32768	32768	
2307.2	0	32768	32768	
2442.92	0	32768	32768	
2578.64	0	32768	32768	
2714.35	0	32768	32768	
2850.07	0	32768	32768	
2985.79	0	32768	32768	
3121.51	0	32768	32768	
3257.23	0	32768	32768	
3392.94	0	32768	32768	
3528.66	0	32768	32768	
3664.38	0	32768	32768	
3800.1	0	32768	32768	
3935.81	0	32768	32768	
4071.53	0	32768	32768	
4207.25	0	32768	32768	
4342.97	0	32768	32768	
4478.68	0	32768	32768	
4614.4	0	32768	32768	
4750.12	0	32768	32768	
4885.84	0	32768	32768	
5021.56	0	32768	32768	
5157.27	0	32768	32768	
5292.99	0	32768	32768	
5428.71	0	32768	32768	
5564.43	0	32768	32768	
5700.14	0	32768	32768	
5835.86	0	32768	32768	
5971.58	0	32768	32768	
6107.3	0	32768	32768	
6243.02	0	32768	32768	
6378.73	0	32768	32768	
6514.45	0	32768	32768	
6650.17	0	32768	32768	
6785.89	0	32768	32768	
6921.6	0	32768	32768	
7057.32	0	32768	32768	
7193.04	0	32768	32768	
7328.76	0	32768	32768	
7464.47	0	32768	32768	
7600.19	0	32768	32768	
7735.91	0	32768	32768	
7871.63	0	32768	32768	
8007.35	0	32768	32768	
8143.06	0	32768	32768	
8278.78	0	32768	32768	
8414.5	0	32768	32768	
8550.22	0	32768	32768	
8685.93	0	32768	32768	
8821.65	0	32768	32768	
8957.37	0	32768	32768	
9093.09	0	32768	32768	
9228.8	0	32768	32768	
9364.52	0	32768	32768	
9500.24	0	32768	32768	
9635.96	0	32768	32768	
9771.68	0	32768	32768	
9907.39	0	32768	32768	
10043.1	0	32768	32768	
10178.8	0	32768	32768	
10314.5	0	32768	32768	
10450.3	0	32768	32768	
10586	0	32768	32768	
10721.7	0	32768	32768	
10857.4	0	32768	32768	
10993.1	0	32768	32768	
11128.9	0	32768	32768	
11264.6	0	32768	32768	
11400.3	0	32768	32768	
11536	0	32768	32768	
11671.7	0	32768	32768	
11807.4	0	32768	32768	
11943.2	0	32768	32768	
12078.9	0	32768	32768	
12214.6	0	32768	32768	
12350.3	0	32768	32768	
12486	0	32768	32768	
12621.7	0	32768	32768	
12757.5	0	32768	32768	
12893.2	0	32768	32768	
13028.9	0	32768	32768	
13164.6	0	32768	32768	
13300.3	0	32768	32768	
13436.1	0	32768	32768	
13571.8	0	32768	32768	
13707.5	0	32768	32768	
13843.2	0	32768	32768	
13978.9	0	32768	32768	
14114.6	0	32768	32768	
14250.4	0	32768	32768	
14386.1	0	32768	32768	
14521.8	0	32768	32768	
14657.5	0	32768	32768	
14793.2	0	32768	32768	
14928.9	0	32768	32768	
15064.7	0	32768	32768	
15200.4	0	32768	32768	
15336.1	0	32768	32768	
15471.8	0	32768	32768	
15607.5	0	32768	32768	
15743.3	0	32768	32768	
15879	0	32768	32768	
16014.7	0	32768	32768	
16150.4	0	32768	32768	
16286.1	0	32768	32768	
16421.8	0	32768	32768	
16557.6	0	32768	32768	
16693.3	0	32768	32768	
16829	0	32768	32768	
16964.7	0	32768	32768	
17100.4	0	32768	32768	
17236.2	0	32768	32768	
17371.9	0	32768	32768	
17507.6	0	32768	32768	
17643.3	0	32768	32768	
17779	0	32768	32768	
17914.7	0	32768	32768	
18050.5	0	32768	32768	
18186.2	0	32768	32768	
18321.9	9.09495e-13	32768	32768	
18457.6	9.09495e-13	32768	32768	
18593.3	1.81899e-12	32768	32768	
18729	3.63798e-12	32768	32768	
18864.8	6.36646e-12	32768	32768	
19000.5	1.18234e-11	32768	32768	
19136.2	2.09184e-11	32768	32768	
19271.9	3.63798e-11	32768	32768	
19407.6	6.36646e-11	32768	32768	
19543.4	1.0823e-10	32768	32768	
19679.1	1.82808e-10	32768	32768	
19814.8	3.0559e-10	32768	32768	
19950.5	5.0477e-10	32768	32768	
20086.2	8.24912e-10	32768	32768	
20221.9	1.33423e-09	32768	32768	
20357.7	2.13731e-09	32768	32768	
20493.4	3.38969e-09	32768	32768	
20629.1	5.326e-09	32768	32768	
20764.8	8.29277e-09	32768	32768	
20900.5	1.27975e-08	32768	32768	
21036.2	1.95778e-08	32768	32768	
21172	2.9695e-08	32768	32768	
21307.7	4.46635e-08	32768	32768	
21443.4	6.66214e-08	32768	32768	
21579.1	9.85619e-08	32768	32768	
21714.8	1.44642e-07	32768	32768	
21850.6	2.10576e-07	32768	32768	
21986.3	3.0415e-07	32768	32768	
22122	4.35878e-07	32768	32768	
22257.7	6.19835e-07	32768	32768	
22393.4	8.74691e-07	32768	32768	
22529.1	1.22499e-06	32768	32768	
22664.9	1.70271e-06	32768	32768	
22800.6	2.34915e-06	32768	32768	
22936.3	3.21719e-06	32768	32768	
23072	4.3739e-06	32768	32768	
23207.7	5.90362e-06	32768	32768	
23343.4	7.91152e-06	32768	32768	
23479.2	1.05275e-05	32768	32768	
23614.9	1.39106e-05	32768	32768	
23750.6	1.8254e-05	32768	32768	
23886.3	2.37899e-05	32768	32768	
24022	3.07954e-05	32768	32768	
24157.8	3.95977e-05	32768	32768	
24293.5	5.05801e-05	32768	32768	
24429.2	6.41873e-05	32768	32768	
24564.9	8.09304e-05	32768	32768	
24700.6	0.000101392	32768	32768	
24836.3	0.000126227	32768	32768	
24972.1	0.000156171	32768	32768	
25107.8	0.000192033	32768	32768	
25243.5	0.000234699	32768	32768	
25379.2	0.00028513	32768	32768	
25514.9	0.00034435	32768	32768	
25650.6	0.000413443	32768	32768	
25786.4	0.000493539	32768	32768	
25922.1	0.000585797	32768	32768	
26057.8	0.000691393	32768	32768	
26193.5	0.00081149	32768	32768	
26329.2	0.000947221	32768	32768	
26465	0.00109966	32768	32768	
26600.7	0.00126979	32768	32768	
26736.4	0.00145848	32768	32768	
26872.1	0.00166644	32768	32768	
27007.8	0.00189419	32768	32768	
27143.5	0.00214205	32768	32768	
27279.3	0.00241008	32768	32768	
27415	0.00269806	32768	32768	
27550.7	0.00300548	32768	32768	
27686.4	0.00333149	32768	32768	
27822.1	0.00367492	32768	32768	
27957.9	0.00403423	32768	32768	
28093.6	0.00440754	32768	32768	
28229.3	0.00479261	32768	32768	
28365	0.00518686	32768	32768	
28500.7	0.00558739	32768	32768	
28636.4	0.00599099	32768	32768	
28772.2	0.00639421	32768	32768	
28907.9	0.00679336	32768	32768	
29043.6	0.00718456	32768	32768	
29179.3	0.00756384	32768	32768	
29315	0.00792712	32768	32768	
29450.7	0.00827035	32768	32768	
29586.5	0.0085895	32768	32768	
29722.2	0.00888067	32768	32768	
29857.9	0.00914014	32768	32768	
29993.6	0.00936442	32768	32768	
30129.3	0.00955032	32768	32768	
30265.1	0.009695	32768	32768	
30400.8	0.009796	32768	32768	
30536.5	0.00985133	32768	32768	
30672.2	0.00985943	32768	32768	
30807.9	0.00981926	32768	32768	
30943.6	0.00973029	32768	32768	
31079.4	0.00959252	32768	32768	
31215.1	0.00940644	32768	32768	
31350.8	0.0091731	32768	32768	
31486.5	0.00889404	32768	32768	
31622.2	0.00857125	32768	32768	
31757.9	0.00820721	32768	32768	
31893.7	0.00780478	32768	32768	
32029.4	0.00736723	32768	32768	
32165.1	0.00689811	32768	32768	
32300.8	0.0064013	32768	32768	
32436.5	0.00588088	32768	32768	
32572.3	0.00534112	32768	32768	
32708	0.00478642	32768	32768	
32843.7	0.00422123	32768	32768	
32979.4	0.00365005	32768	32768	
33115.1	0.00307734	32768	32768	
33250.8	0.00250749	32768	32768	
33386.6	0.00194475	32768	32768	
33522.3	0.00139324	32768	32768	
33658	0.000856852	32768	32768	
33793.7	0.000339257	32768	32768	
33929.4	-0.000156147	32768	32768	
34065.1	-0.00062625	32768	32768	
34200.9	-0.00106826	32768	32768	
34336.6	-0.00147972	32768	32768	
34472.3	-0.00185853	32768	32768	
34608	-0.00220293	32768	32768	
34743.7	-0.00251154	32768	32768	
34879.5	-0.00278335	32768	32768	
35015.2	-0.00301773	32768	32768	
35150.9	-0.00321438	32768	32768	
35286.6	-0.00337339	32768	32768	
35422.3	-0.00349519	32768	32768	
35558	-0.00358054	32768	32768	
35693.8	-0.00363051	32768	32768	
35829.5	-0.00364649	32768	32768	
35965.2	-0.00363011	32768	32768	
36100.9	-0.0035833	32768	32768	
36236.6	-0.00350818	32768	32768	
36372.3	-0.00340709	32768	32768	
36508.1	-0.00328252	32768	32768	
36643.8	-0.00313714	32768	32768	
36779.5	-0.00297371	32768	32768	
36915.2	-0.00279506	32768	32768	
37050.9	-0.00260409	32768	32768	
37186.7	-0.00240373	32768	32768	
37322.4	-0.00219687	32768	32768	
37458.1	-0.0019864	32768	32768	
37593.8	-0.00177511	32768	32768	
37729.5	-0.00156571	32768	32768	
37865.2	-0.00136079	32768	32768	
38001	-0.00116282	32768	32768	
38136.7	-0.000974077	32768	32768	
38272.4	-0.000796675	32768	32768	
38408.1	-0.000632528	32768	32768	
38543.8	-0.000483343	32768	32768	
38679.5	-0.000350605	32768	32768	
38815.3	-0.000235571	32768	32768	
38951	-0.000139266	32768	32768	
39086.7	-6.2478e-05	32768	32768	
39222.4	-5.75913e-06	32768	32768	
39358.1	3.05708e-05	32768	32768	
39493.9	4.64202e-05	32768	32768	
39629.6	4.19179e-05	32768	32768	
39765.3	1.74034e-05	32768	32768	
39901	-2.6584e-05	32768	32768	
40036.7	-8.93187e-05	32768	32768	
40172.4	-0.000169904	32768	32768	
40308.2	-0.000267287	32768	32768	
40443.9	-0.000380275	32768	32768	
40579.6	-0.000507558	32768	32768	
40715.3	-0.00064772	32768	32768	
40851	-0.000799262	32768	32768	
40986.8	-0.00096062	32768	32768	
41122.5	-0.00113018	32768	32768	
41258.2	-0.00130631	32768	32768	
41393.9	-0.00148737	32768	32768	
41529.6	-0.00167169	32768	32768	
41665.3	-0.00185768	32768	32768	
41801.1	-0.00204375	32768	32768	
41936.8	-0.00222838	32768	32768	
42072.5	-0.0024101	32768	32768	
42208.2	-0.00258753	32768	32768	
42343.9	-0.00275939	32768	32768	
42479.6	-0.00292448	32768	32768	
42615.4	-0.0030817	32768	32768	
42751.1	-0.0032301	32768	32768	
42886.8	-0.00336879	32768	32768	
43022.5	-0.00349704	32768	32768	
43158.2	-0.00361424	32768	32768	
