0	0	32768	32768	
135.718	0	32768	32768	
271.435	0	32768	32768	
407.153	0	32768	32768	
542.871	0	32768	32768	
678.589	0	32768	32768	
814.306	0	32768	32768	
950.024	0	32768	32768	
1085.74	0	32768	32768	
1221.46	0	32768	32768	
1357.18	0	32768	32768	
1492.89	0	32768	32768	
1628.61	0	32768	32768	
1764.33	0	32768	32768	
1900.05	0	32768	32768	
2035.77	0	32768	32768	
2171.48	0	32768	32768	
2307.2	0	32768	32768	
2442.92	0	32768	32768	
2578.64	0	32768	32768	
2714.35	0	32768	32768	
2850.07	0	32768	32768	
2985.79	0	32768	32768	
3121.51	0	32768	32768	
3257.23	0	32768	32768	
3392.94	0	32768	32768	
3528.66	0	32768	32768	
3664.38	0	32768	32768	
3800.1	0	32768	32768	
3935.81	0	32768	32768	
4071.53	0	32768	32768	
4207.25	0	32768	32768	
4342.97	0	32768	32768	
4478.68	0	32768	32768	
4614.4	0	32768	32768	
4750.12	0	32768	32768	
4885.84	0	32768	32768	
5021.56	0	32768	32768	
5157.27	0	32768	32768	
5292.99	0	32768	32768	
5428.71	0	32768	32768	
5564.43	0	32768	32768	
5700.14	0	32768	32768	
5835.86	0	32768	32768	
5971.58	0	32768	32768	
6107.3	0	32768	32768	
6243.02	0	32768	32768	
6378.73	0	32768	32768	
6514.45	0	32768	32768	
6650.17	0	32768	32768	
6785.89	0	32768	32768	
6921.6	0	32768	32768	
7057.32	0	32768	32768	
7193.04	0	32768	32768	
7328.76	0	32768	32768	
7464.47	0	32768	32768	
7600.19	0	32768	32768	
7735.91	0	32768	32768	
7871.63	0	32768	32768	
8007.35	0	32768	32768	
8143.06	0	32768	32768	
8278.78	0	32768	32768	
8414.5	0	32768	32768	
8550.22	0	32768	32768	
8685.93	0	32768	32768	
8821.65	0	32768	32768	
8957.37	0	32768	32768	
9093.09	0	32768	32768	
9228.8	0	32768	32768	
9364.52	0	32768	32768	
9500.24	0	32768	32768	
9635.96	0	32768	32768	
9771.68	0	32768	32768	
9907.39	0	32768	32768	
10043.1	0	32768	32768	
10178.8	0	32768	32768	
10314.5	0	32768	32768	
10450.3	0	32768	32768	
10586	0	32768	32768	
10721.7	0	32768	32768	
10857.4	0	32768	32768	
10993.1	0	32768	32768	
11128.9	0	32768	32768	
11264.6	0	32768	32768	
11400.3	0	32768	32768	
11536	0	32768	32768	
11671.7	0	32768	32768	
11807.4	0	32768	32768	
11943.2	0	32768	32768	
12078.9	0	32768	32768	
12214.6	0	32768	32768	
12350.3	0	32768	32768	
12486	0	32768	32768	
12621.7	0	32768	32768	
12757.5	0	32768	32768	
12893.2	0	32768	32768	
13028.9	0	32768	32768	
13164.6	0	32768	32768	
13300.3	0	32768	32768	
13436.1	0	32768	32768	
13571.8	0	32768	32768	
13707.5	0	32768	32768	
13843.2	0	32768	32768	
13978.9	0	32768	32768	
14114.6	0	32768	32768	
14250.4	0	32768	32768	
14386.1	0	32768	32768	
14521.8	0	32768	32768	
14657.5	0	32768	32768	
14793.2	0	32768	32768	
14928.9	0	32768	32768	
15064.7	0	32768	32768	
15200.4	0	32768	32768	
15336.1	0	32768	32768	
15471.8	0	32768	32768	
15607.5	0	32768	32768	
15743.3	0	32768	32768	
15879	0	32768	32768	
16014.7	0	32768	32768	
16150.4	0	32768	32768	
16286.1	0	32768	32768	
16421.8	0	32768	32768	
16557.6	0	32768	32768	
16693.3	0	32768	32768	
16829	0	32768	32768	
16964.7	0	32768	32768	
17100.4	0	32768	32768	
17236.2	0	32768	32768	
17371.9	0	32768	32768	
17507.6	4.54747e-13	32768	32768	
17643.3	4.54747e-13	32768	32768	
17779	4.54747e-13	32768	32768	
17914.7	9.09495e-13	32768	32768	
18050.5	1.36424e-12	32768	32768	
18186.2	1.36424e-12	32768	32768	
18321.9	2.27374e-12	32768	32768	
18457.6	3.18323e-12	32768	32768	
18593.3	4.54747e-12	32768	32768	
18729	6.36646e-12	32768	32768	
18864.8	9.09495e-12	32768	32768	
19000.5	1.27329e-11	32768	32768	
19136.2	1.72804e-11	32768	32768	
19271.9	2.36469e-11	32768	32768	
19407.6	3.18323e-11	32768	32768	
19543.4	4.22915e-11	32768	32768	
19679.1	5.59339e-11	32768	32768	
19814.8	7.32143e-11	32768	32768	
19950.5	9.59517e-11	32768	32768	
20086.2	1.25056e-10	32768	32768	
20221.9	1.6189e-10	32768	32768	
20357.7	2.08729e-10	32768	32768	
20493.4	2.67846e-10	32768	32768	
20629.1	3.4197e-10	32768	32768	
20764.8	4.35193e-10	32768	32768	
20900.5	5.52063e-10	32768	32768	
21036.2	6.97582e-10	32768	32768	
21172	8.78572e-10	32768	32768	
21307.7	1.10276e-09	32768	32768	
21443.4	1.38016e-09	32768	32768	
21579.1	1.72167e-09	32768	32768	
21714.8	2.14186e-09	32768	32768	
21850.6	2.65618e-09	32768	32768	
21986.3	3.28464e-09	32768	32768	
22122	4.04953e-09	32768	32768	
22257.7	4.97676e-09	32768	32768	
22393.4	6.09634e-09	32768	32768	
22529.1	7.44285e-09	32768	32768	
22664.9	9.05402e-09	32768	32768	
22800.6	1.09735e-08	32768	32768	
22936.3	1.32477e-08	32768	32768	
23072	1.5928e-08	32768	32768	
23207.7	1.90698e-08	32768	32768	
23343.4	2.27324e-08	32768	32768	
23479.2	2.69797e-08	32768	32768	
23614.9	3.18796e-08	32768	32768	
23750.6	3.75094e-08	32768	32768	
23886.3	4.39572e-08	32768	32768	
24022	5.13328e-08	32768	32768	
24157.8	5.97811e-08	32768	32768	
24293.5	6.95054e-08	32768	32768	
24429.2	8.08031e-08	32768	32768	
24564.9	9.41209e-08	32768	32768	
24700.6	1.10132e-07	32768	32768	
24836.3	1.2985e-07	32768	32768	
24972.1	1.54791e-07	32768	32768	
25107.8	1.87187e-07	32768	32768	
25243.5	2.30285e-07	32768	32768	
25379.2	2.88739e-07	32768	32768	
25514.9	3.6913e-07	32768	32768	
25650.6	4.80625e-07	32768	32768	
25786.4	6.35826e-07	32768	32768	
25922.1	8.51833e-07	32768	32768	
26057.8	1.15155e-06	32768	32768	
26193.5	1.56528e-06	32768	32768	
26329.2	2.13266e-06	32768	32768	
26465	2.90491e-06	32768	32768	
26600.7	3.94751e-06	32768	32768	
26736.4	5.34326e-06	32768	32768	
26872.1	7.19573e-06	32768	32768	
27007.8	9.63314e-06	32768	32768	
27143.5	1.28126e-05	32768	32768	
27279.3	1.69247e-05	32768	32768	
27415	2.21984e-05	32768	32768	
27550.7	2.89058e-05	32768	32768	
27686.4	3.73675e-05	32768	32768	
27822.1	4.79572e-05	32768	32768	
27957.9	6.11064e-05	32768	32768	
28093.6	7.73087e-05	32768	32768	
28229.3	9.71228e-05	32768	32768	
28365	0.000121175	32768	32768	
28500.7	0.00015016	32768	32768	
28636.4	0.000184841	32768	32768	
28772.2	0.000226049	32768	32768	
28907.9	0.000274673	32768	32768	
29043.6	0.000331662	32768	32768	
29179.3	0.000398011	32768	32768	
29315	0.000474751	32768	32768	
29450.7	0.000562937	32768	32768	
29586.5	0.00066363	32768	32768	
29722.2	0.000777885	32768	32768	
29857.9	0.000906724	32768	32768	
29993.6	0.00105112	32768	32768	
30129.3	0.00121197	32768	32768	
30265.1	0.00139009	32768	32768	
30400.8	0.00158615	32768	32768	
30536.5	0.0018007	32768	32768	
30672.2	0.00203411	32768	32768	
30807.9	0.00228658	32768	32768	
30943.6	0.00255809	32768	32768	
31079.4	0.00284843	32768	32768	
31215.1	0.00315712	32768	32768	
31350.8	0.00348346	32768	32768	
31486.5	0.00382652	32768	32768	
31622.2	0.0041851	32768	32768	
31757.9	0.00455778	32768	32768	
31893.7	0.0049429	32768	32768	
32029.4	0.00533859	32768	32768	
32165.1	0.00574276	32768	32768	
32300.8	0.00615318	32768	32768	
32436.5	0.00656744	32768	32768	
32572.3	0.00698302	32768	32768	
32708	0.00739729	32768	32768	
32843.7	0.00780759	32768	32768	
32979.4	0.00821119	32768	32768	
33115.1	0.00860542	32768	32768	
33250.8	0.00898759	32768	32768	
33386.6	0.00935514	32768	32768	
33522.3	0.00970556	32768	32768	
33658	0.0100365	32768	32768	
33793.7	0.0103458	32768	32768	
33929.4	0.0106313	32768	32768	
34065.1	0.0108913	32768	32768	
34200.9	0.0111241	32768	32768	
34336.6	0.0113283	32768	32768	
34472.3	0.0115027	32768	32768	
34608	0.0116464	32768	32768	
34743.7	0.0117587	32768	32768	
34879.5	0.011839	32768	32768	
35015.2	0.011887	32768	32768	
35150.9	0.0119027	32768	32768	
35286.6	0.0118862	32768	32768	
35422.3	0.0118377	32768	32768	
35558	0.0117577	32768	32768	
35693.8	0.011647	32768	32768	
35829.5	0.011506	32768	32768	
35965.2	0.0113359	32768	32768	
36100.9	0.0111375	32768	32768	
36236.6	0.0109119	32768	32768	
36372.3	0.0106603	32768	32768	
36508.1	0.0103838	32768	32768	
36643.8	0.0100837	32768	32768	
36779.5	0.00976134	32768	32768	
36915.2	0.00941799	32768	32768	
37050.9	0.00905503	32768	32768	
37186.7	0.00867382	32768	32768	
37322.4	0.00827575	32768	32768	
37458.1	0.00786221	32768	32768	
37593.8	0.0074346	32768	32768	
37729.5	0.00699431	32768	32768	
37865.2	0.00654277	32768	32768	
38001	0.00608135	32768	32768	
38136.7	0.00561148	32768	32768	
38272.4	0.00513456	32768	32768	
38408.1	0.004652	32768	32768	
38543.8	0.00416518	32768	32768	
38679.5	0.00367553	32768	32768	
38815.3	0.00318443	32768	32768	
38951	0.00269329	32768	32768	
39086.7	0.00220348	32768	32768	
39222.4	0.00171638	32768	32768	
39358.1	0.00123337	32768	32768	
39493.9	0.000755782	32768	32768	
39629.6	0.000284958	32768	32768	
39765.3	-0.000177801	32768	32768	
39901	-0.000631217	32768	32768	
40036.7	-0.00107405	32768	32768	
40172.4	-0.0015051	32768	32768	
40308.2	-0.0019232	32768	32768	
40443.9	-0.00232725	32768	32768	
40579.6	-0.00271621	32768	32768	
40715.3	-0.0030891	32768	32768	
40851	-0.00344498	32768	32768	
40986.8	-0.00378303	32768	32768	
41122.5	-0.00410248	32768	32768	
41258.2	-0.00440266	32768	32768	
41393.9	-0.00468297	32768	32768	
41529.6	-0.00494291	32768	32768	
41665.3	-0.0051821	32768	32768	
41801.1	-0.00540022	32768	32768	
41936.8	-0.00559708	32768	32768	
42072.5	-0.00577256	32768	32768	
42208.2	-0.00592668	32768	32768	
42343.9	-0.00605954	32768	32768	
42479.6	-0.00617133	32768	32768	
42615.4	-0.00626237	32768	32768	
42751.1	-0.00633305	32768	32768	
42886.8	-0.00638386	32768	32768	
43022.5	-0.00641539	32768	32768	
43158.2	-0.0064283	32768	32768	
