0	0	35832	35832	
36.0427	0	35650	35650	
72.2269	0	35678	35678	
108.411	0	35746	35746	
144.595	0	35848	35848	
180.779	0	35842	35842	
216.989	0	35810	35810	
253.198	0	35776	35776	
289.407	0	35820	35820	
325.616	0	35852	35852	
361.825	0	35842	35842	
398.035	0	35876	35876	
434.244	0	35884	35884	
470.453	0	35918	35918	
507.441	0	35878	35878	
544.429	0	35798	35798	
581.563	0	35702	35702	
618.697	0	35634	35634	
655.831	0	35572	35572	
692.965	0	35514	35514	
730.099	0	35512	35512	
767.233	0	35490	35490	
804.367	0	35458	35458	
841.502	0	35470	35470	
878.636	0	35480	35480	
915.77	0	35454	35454	
952.904	0	35536	35536	
990.038	0	35554	35554	
1027.17	0	35558	35558	
1064.31	0	35582	35582	
1101.44	0	35636	35636	
1138.57	0	35694	35694	
1175.71	0	35750	35750	
1211.97	0	35820	35820	
1248.23	0	35846	35846	
1284.49	0	35868	35868	
1320.75	0	35924	35924	
1357.01	0	35954	35954	
1393.27	0	35990	35990	
1429.53	0	36042	36042	
1465.79	0	36098	36098	
1502.05	0	36170	36170	
1538.31	0	36248	36248	
1574.54	0	36314	36314	
1610.76	0	36364	36364	
1646.99	0	36404	36404	
1683.21	0	36466	36466	
1719.44	0	36512	36512	
1755.66	0	36572	36572	
1791.89	0	36622	36622	
1828.11	0	36654	36654	
1864.34	0	36726	36726	
1900.56	0	36790	36790	
1936.79	0	36872	36872	
1973.01	0	36960	36960	
2009.2	0	37020	37020	
2045.39	0	37058	37058	
2081.57	0	37146	37146	
2117.76	0	37174	37174	
2153.95	0	37232	37232	
2190.14	0	37280	37280	
2226.32	0	37360	37360	
2262.51	0	37414	37414	
2298.7	0	37504	37504	
2334.88	0	37570	37570	
2371.07	-9.09495e-13	37644	37644	
2407.26	-1.81899e-12	37684	37684	
2443.45	-2.72848e-12	37776	37776	
2479.32	-3.63798e-12	37846	37846	
2515.19	-4.54747e-12	37924	37924	
2551.06	-5.45697e-12	37982	37982	
2586.94	-7.27596e-12	38046	38046	
2622.81	-9.09495e-12	38078	38078	
2658.68	-1.18234e-11	38110	38110	
2694.55	-1.54614e-11	38168	38168	
2730.18	-1.90994e-11	38298	38298	
2765.8	-2.45564e-11	38406	38406	
2801.43	-3.09228e-11	38456	38456	
2836.83	-3.81988e-11	38536	38536	
2872.23	-4.72937e-11	38574	38574	
2907.64	-5.82077e-11	38634	38634	
2943.04	-7.09406e-11	38706	38706	
2978.44	-8.6402e-11	38790	38790	
3013.84	-1.04592e-10	38838	38838	
3049.24	-1.2642e-10	38890	38890	
3084.27	-1.51886e-10	38964	38964	
3119.29	-1.80989e-10	39038	39038	
3154.31	-2.14641e-10	39102	39102	
3189.34	-2.53749e-10	39188	39188	
3224.36	-2.99224e-10	39254	39254	
3259.38	-3.51065e-10	39328	39328	
3294.02	-4.10182e-10	39418	39418	
3328.65	-4.77485e-10	39526	39526	
3363.29	-5.52973e-10	39570	39570	
3397.92	-6.39375e-10	39622	39622	
3432.56	-7.36691e-10	39686	39686	
3467.19	-8.4583e-10	39750	39750	
3501.83	-9.67702e-10	39830	39830	
3536.46	-1.10413e-09	39890	39890	
3571.1	-1.25601e-09	39948	39948	
3605.73	-1.42518e-09	40048	40048	
3640.37	-1.61253e-09	40152	40152	
3675	-1.8199e-09	40198	40198	
3709.64	-2.04909e-09	40284	40284	
3744.27	-2.30102e-09	40354	40354	
3778.91	-2.5766e-09	40408	40408	
3813.54	-2.87855e-09	40494	40494	
3848.18	-3.20779e-09	40594	40594	
3882.82	-3.56613e-09	40678	40678	
3917.45	-3.9563e-09	40794	40794	
3952.09	-4.37922e-09	40856	40856	
3986.72	-4.83578e-09	40926	40926	
4021.36	-5.32873e-09	41002	41002	
4055.99	-5.85987e-09	41058	41058	
4090.63	-6.43104e-09	41152	41152	
4125.26	-7.04404e-09	41258	41258	
4159.9	-7.70069e-09	41314	41314	
4194.53	-8.40191e-09	41400	41400	
4229.17	-9.14952e-09	41480	41480	
4263.8	-9.94532e-09	41554	41554	
4298.44	-1.07912e-08	41618	41618	
4333.07	-1.16879e-08	41688	41688	
4367.71	-1.26374e-08	41776	41776	
4402.34	-1.36415e-08	41842	41842	
4436.98	-1.47002e-08	41930	41930	
4471.61	-1.58152e-08	42030	42030	
4506.25	-1.69875e-08	42122	42122	
4540.88	-1.82181e-08	42214	42214	
4575.52	-1.95068e-08	42280	42280	
4610.15	-2.08556e-08	42348	42348	
4644.79	-2.22644e-08	42396	42396	
4679.42	-2.37333e-08	42452	42452	
4714.06	-2.5263e-08	42590	42590	
4748.69	-2.68537e-08	42716	42716	
4783.33	-2.85045e-08	42772	42772	
4817.97	-3.02152e-08	42826	42826	
4852.6	-3.19851e-08	42896	42896	
4887.24	-3.38141e-08	43004	43004	
4921.87	-3.57004e-08	43140	43140	
4956.51	-3.7644e-08	43218	43218	
4991.14	-3.96431e-08	43288	43288	
5025.78	-4.16967e-08	43410	43410	
5060.41	-4.38031e-08	43518	43518	
5095.05	-4.59604e-08	43604	43604	
5129.68	-4.81668e-08	43666	43666	
5164.32	-5.04197e-08	43746	43746	
5198.95	-5.2717e-08	43838	43838	
5233.59	-5.50572e-08	43912	43912	
5268.22	-5.74373e-08	43966	43966	
5302.86	-5.98538e-08	44080	44080	
5337.49	-6.23049e-08	44174	44174	
5372.13	-6.47879e-08	44242	44242	
5406.76	-6.7299e-08	44332	44332	
5441.4	-6.98356e-08	44446	44446	
5476.03	-7.2394e-08	44560	44560	
5510.67	-7.49715e-08	44688	44688	
5545.3	-7.75653e-08	44778	44778	
5579.94	-8.01729e-08	44816	44816	
5614.57	-8.27904e-08	44952	44952	
5649.21	-8.54152e-08	45054	45054	
5683.84	-8.80445e-08	45146	45146	
5718.48	-9.06766e-08	45192	45192	
5753.11	-9.33087e-08	45266	45266	
5787.75	-9.5939e-08	45318	45318	
5822.38	-9.85656e-08	45434	45434	
5857.02	-1.01188e-07	45568	45568	
5891.65	-1.03805e-07	45672	45672	
5926.29	-1.06417e-07	45750	45750	
5960.92	-1.09025e-07	45776	45776	
5995.56	-1.1163e-07	45852	45852	
6030.19	-1.14235e-07	46030	46030	
6064.83	-1.16846e-07	46160	46160	
6099.46	-1.19467e-07	46244	46244	
6134.1	-1.22107e-07	46306	46306	
6168.73	-1.24776e-07	46384	46384	
6203.37	-1.27488e-07	46492	46492	
6238	-1.30254e-07	46596	46596	
6272.64	-1.33093e-07	46700	46700	
6307.27	-1.3602e-07	46770	46770	
6341.91	-1.39053e-07	46856	46856	
6376.54	-1.42209e-07	46904	46904	
6411.18	-1.45506e-07	47026	47026	
6445.81	-1.48965e-07	47140	47140	
6480.45	-1.52612e-07	47238	47238	
6515.08	-1.56474e-07	47296	47296	
6549.72	-1.60588e-07	47354	47354	
6584.35	-1.65001e-07	47442	47442	
6618.99	-1.69767e-07	47596	47596	
6653.62	-1.74944e-07	47682	47682	
6688.26	-1.80593e-07	47808	47808	
6722.89	-1.86782e-07	47914	47914	
6757.52	-1.93593e-07	47974	47974	
6792.16	-2.01129e-07	48098	48098	
6826.79	-2.09512e-07	48242	48242	
6861.43	-2.18868e-07	48306	48306	
6896.06	-2.28725e-07	48384	48384	
6930.7	-2.38961e-07	48444	48444	
6965.33	-2.49599e-07	48548	48548	
6999.96	-2.60756e-07	48668	48668	
7034.6	-2.72632e-07	48760	48760	
7069.23	-2.85519e-07	48874	48874	
7103.87	-2.99814e-07	48942	48942	
7138.5	-3.16029e-07	49032	49032	
7173.14	-3.34615e-07	49162	49162	
7207.77	-3.48857e-07	49270	49270	
7242.4	-3.665e-07	49400	49400	
7277.04	-3.84881e-07	49490	49490	
7311.67	-4.0477e-07	49582	49582	
7346.31	-4.2777e-07	49684	49684	
7380.94	-4.5571e-07	49830	49830	
7415.58	-4.9069e-07	49944	49944	
7450.21	-5.35344e-07	50016	50016	
7484.84	-5.85465e-07	50112	50112	
7519.48	-6.43034e-07	50220	50220	
7554.11	-7.0959e-07	50340	50340	
7588.75	-7.09708e-07	50454	50454	
7623.38	-7.43488e-07	50584	50584	
7658.01	-8.1301e-07	50678	50678	
7692.65	-9.07123e-07	50776	50776	
7727.28	-1.02847e-06	50888	50888	
7761.92	-1.18966e-06	51018	51018	
7796.55	-1.72428e-06	51124	51124	
7831.19	-2.68035e-06	51222	51222	
7865.82	-3.75009e-06	51302	51302	
7900.45	-4.85405e-06	51432	51432	
7935.09	-6.06863e-06	51556	51556	
7969.72	-7.47869e-06	51668	51668	
8004.36	-9.13893e-06	51796	51796	
8038.99	-1.10874e-05	51894	51894	
8073.63	-1.33687e-05	51982	51982	
8108.26	-1.59452e-05	52100	52100	
8142.9	-1.89474e-05	52234	52234	
8177.53	-2.24314e-05	52368	52368	
8212.17	-2.64539e-05	52464	52464	
8246.8	-3.10557e-05	52536	52536	
8281.44	-3.6295e-05	52640	52640	
8316.07	-4.2233e-05	52770	52770	
8350.71	-4.89356e-05	52886	52886	
8385.34	-5.64636e-05	52992	52992	
8419.98	-6.48838e-05	53136	53136	
8454.61	-7.42621e-05	53256	53256	
8489.25	-8.46796e-05	53382	53382	
8523.88	-9.62197e-05	53534	53534	
8558.52	-0.000108965	53624	53624	
8593.15	-0.000122991	53768	53768	
8627.79	-0.00013837	53848	53848	
8662.42	-0.000155167	53932	53932	
8697.06	-0.000173435	54070	54070	
8731.69	-0.000193219	54194	54194	
8766.33	-0.000214549	54302	54302	
8800.96	-0.000237446	54396	54396	
8835.6	-0.000261912	54538	54538	
8870.23	-0.000287934	54672	54672	
8904.87	-0.000315473	54794	54794	
8939.5	-0.00034446	54934	54934	
8974.14	-0.000374791	55068	55068	
9008.77	-0.000406314	55192	55192	
9043.41	-0.000438829	55316	55316	
9078.04	-0.000472073	55442	55442	
9112.68	-0.000505718	55566	55566	
9147.31	-0.000539356	55692	55692	
9181.95	-0.000572495	55798	55798	
9216.58	-0.000604547	55918	55918	
9251.22	-0.000634815	56014	56014	
9285.85	-0.000662482	56180	56180	
9320.49	-0.000686598	56358	56358	
9355.12	-0.000706067	56484	56484	
9389.76	-0.000719629	56620	56620	
9424.39	-0.000725851	56720	56720	
9459.02	-0.000723115	56860	56860	
9493.66	-0.000709601	56984	56984	
9528.29	-0.000683281	57158	57158	
9562.93	-0.000641912	57258	57258	
9597.56	-0.000583022	57390	57390	
9632.2	-0.000503914	57550	57550	
9666.83	-0.00040166	57686	57686	
9701.47	-0.000273102	57834	57834	
9736.1	-0.00011486	57998	57998	
9770.74	7.66621e-05	58118	58118	
9805.37	0.000305259	58200	58200	
9840.01	0.000574907	58322	58322	
9874.64	0.000889741	58462	58462	
9909.28	0.00125402	58588	58588	
9943.91	0.0016721	58784	58784	
9978.55	0.00214838	58872	58872	
10013.2	0.00268727	58972	58972	
10047.8	0.00329314	59128	59128	
10082.5	0.00397024	59266	59266	
10117.1	0.00472269	59392	59392	
10151.7	0.00555436	59538	59538	
10186.4	0.00646885	59686	59686	
10221	0.00746941	59810	59810	
10255.6	0.00855887	59980	59980	
10290.3	0.00973957	60138	60138	
10324.9	0.0110133	60268	60268	
10359.5	0.0123813	60408	60408	
10394.2	0.013844	60508	60508	
10428.8	0.0154012	60628	60628	
10463.4	0.0170521	60748	60748	
10498.1	0.0187948	60890	60890	
10532.7	0.0206267	61032	61032	
10567.3	0.0225443	61186	61186	
10602	0.0245435	61294	61294	
10636.6	0.026619	61444	61444	
10671.2	0.0287647	61566	61566	
10705.9	0.0309739	61730	61730	
10740.5	0.0332388	61864	61864	
10775.1	0.0355512	62010	62010	
10809.8	0.0379018	62164	62164	
10844.4	0.040281	62322	62322	
10879.1	0.0426784	62410	62410	
10913.7	0.0450833	62574	62574	
10948.3	0.0474844	62708	62708	
10983	0.0498704	62842	62842	
11017.6	0.0522294	62976	62976	
11052.2	0.0545498	63158	63158	
11086.9	0.0568196	63282	63282	
11121.5	0.0590273	63402	63402	
11156.1	0.0611613	63560	63560	
11190.8	0.0632104	63686	63686	
11225.4	0.0651637	63852	63852	
11260	0.067011	63978	63978	
11294.7	0.0687425	64106	64106	
11329.3	0.070349	64206	64206	
11363.9	0.0718221	64376	64376	
11398.6	0.0731542	64534	64534	
11433.2	0.0743385	64680	64680	
11467.9	0.0753688	64810	64810	
11502.5	0.0762403	64980	64980	
11537.1	0.0769486	65158	65158	
11571.8	0.0774905	65296	65296	
11606.4	0.0778637	65454	65454	
11641	0.0780667	65604	65604	
11675.7	0.0780991	65762	65762	
11710.4	0.0779608	65906	65906	
11745.1	0.0776527	66052	66052	
11779.8	0.0771767	66250	66250	
11814.5	0.0765356	66376	66376	
11849.2	0.075733	66528	66528	
11884.2	0.0747644	66700	66700	
11919.3	0.0736405	66826	66826	
11954.3	0.0723668	66996	66996	
11989.3	0.0709492	67184	67184	
12024.3	0.0693942	67338	67338	
12059	0.0677274	67544	67544	
12093.6	0.06594	67708	67708	
12128.2	0.064039	67868	67868	
12162.9	0.062032	67976	67976	
12197.5	0.0599263	68130	68130	
12232.1	0.0577296	68262	68262	
12266.8	0.0554496	68460	68460	
12301.4	0.0530937	68584	68584	
12336.1	0.0506697	68762	68762	
12370.7	0.048185	68924	68924	
12405.3	0.045647	69088	69088	
12440	0.0430629	69226	69226	
12474.6	0.0404397	69378	69378	
12509.2	0.0377844	69540	69540	
12543.9	0.0351035	69706	69706	
12578.5	0.0324035	69840	69840	
12613.1	0.0296905	70028	70028	
12647.8	0.0269704	70212	70212	
12682.4	0.024249	70342	70342	
12717	0.0215317	70560	70560	
12751.7	0.0188235	70748	70748	
12786.3	0.0161294	70960	70960	
12820.9	0.013454	71116	71116	
12855.6	0.0108018	71260	71260	
12890.2	0.00817682	71422	71422	
12924.8	0.00558309	71588	71588	
12959.5	0.00302428	71750	71750	
12994.1	0.000503887	71936	71936	
13028.7	-0.00197481	72104	72104	
13063.4	-0.00440872	72276	72276	
13098	-0.00679493	72448	72448	
13132.7	-0.00913069	72572	72572	
13167.3	-0.0114135	72764	72764	
13201.9	-0.0136408	73014	73014	
13236.6	-0.0158104	73184	73184	
13271.2	-0.0179202	73360	73360	
13305.8	-0.0199681	73514	73514	
13340.5	-0.0219524	73666	73666	
13375.1	-0.0238711	73856	73856	
13409.7	-0.0257227	74092	74092	
13444.4	-0.0275057	74330	74330	
13479	-0.0292185	74472	74472	
13513.6	-0.0308599	74610	74610	
13548.3	-0.0324286	74740	74740	
13582.9	-0.0339234	74878	74878	
13617.5	-0.0353434	75128	75128	
13652.2	-0.0366875	75278	75278	
13686.8	-0.0379548	75512	75512	
13721.4	-0.0391445	75670	75670	
13756.1	-0.040256	75810	75810	
13790.7	-0.0412886	75968	75968	
13825.4	-0.042242	76214	76214	
13860	-0.0431157	76404	76404	
13894.6	-0.0439095	76522	76522	
13929.3	-0.0446234	76652	76652	
13963.9	-0.0452573	76842	76842	
13998.5	-0.0458112	77028	77028	
14033.2	-0.0462854	77258	77258	
14067.8	-0.0466797	77428	77428	
14102.4	-0.0469953	77592	77592	
14137.1	-0.0472299	77740	77740	
14171.7	-0.0473861	77926	77926	
14206.3	-0.0474648	78076	78076	
14241	-0.0474733	78284	78284	
14275.6	-0.0473921	78488	78488	
14310.2	-0.0472492	78656	78656	
14344.9	-0.047037	78796	78796	
14379.5	-0.0468221	78932	78932	
14414.2	-0.0465343	79146	79146	
14448.8	-0.046205	79330	79330	
14483.4	-0.0457817	79486	79486	
14518.1	-0.0452891	79628	79628	
14552.7	-0.0447214	79796	79796	
14587.3	-0.0440818	79926	79926	
14622	-0.0433719	80080	80080	
14656.6	-0.0426284	80304	80304	
14691.2	-0.0418055	80542	80542	
14725.9	-0.0409638	80756	80756	
14760.5	-0.040041	80902	80902	
14795.1	-0.0390529	81038	81038	
14829.8	-0.0380147	81230	81230	
14864.4	-0.0369397	81544	81544	
14899	-0.0358303	81798	81798	
14933.7	-0.0346872	82008	82008	
14968.3	-0.0335118	82182	82182	
15002.9	-0.0323035	82336	82336	
15037.6	-0.0310656	82512	82512	
15072.2	-0.0297952	82736	82736	
15106.9	-0.0284924	82894	82894	
15141.5	-0.0271617	83116	83116	
15176.1	-0.0258098	83282	83282	
15210.8	-0.0244398	83492	83492	
15245.4	-0.023054	83694	83694	
15280	-0.0216539	83946	83946	
15314.7	-0.0202411	84154	84154	
15349.3	-0.0188171	84352	84352	
15383.9	-0.0173826	84562	84562	
15418.6	-0.0159385	84776	84776	
15453.2	-0.0144857	85028	85028	
15487.8	-0.013026	85240	85240	
15522.5	-0.011562	85442	85442	
15557.1	-0.0100961	85678	85678	
15591.7	-0.00863073	85870	85870	
15626.4	-0.00716772	86106	86106	
15661	-0.00570851	86274	86274	
15695.7	-0.00425421	86544	86544	
15730.3	-0.00280571	86718	86718	
15764.9	-0.00136385	86868	86868	
15799.6	7.03735e-05	87062	87062	
15834.2	0.00149574	87238	87238	
15868.8	0.00291071	87478	87478	
15903.5	0.00431354	87770	87770	
15938.1	0.00570233	87994	87994	
15972.7	0.00707516	88164	88164	
16007.4	0.00843018	88326	88326	
16042	0.00976561	88560	88560	
16076.6	0.0110798	88768	88768	
16111.3	0.0123709	89022	89022	
16145.9	0.0136375	89206	89206	
16180.5	0.0148777	89406	89406	
16215.2	0.0160896	89614	89614	
16249.8	0.0172713	89880	89880	
16284.5	0.0184208	90048	90048	
16319.1	0.0195361	90228	90228	
16353.7	0.020615	90428	90428	
16388.4	0.0216557	90658	90658	
16423	0.0226563	90858	90858	
16457.6	0.023615	91022	91022	
16492.3	0.0245302	91228	91228	
16526.9	0.0254003	91458	91458	
16561.5	0.0262235	91662	91662	
16596.2	0.0269984	91858	91858	
16630.8	0.0277233	92096	92096	
16665.4	0.0283965	92312	92312	
16700.1	0.0290165	92530	92530	
16734.7	0.0295818	92780	92780	
16769.3	0.0300909	92992	92992	
16804	0.0305426	93224	93224	
16838.6	0.0309357	93418	93418	
16873.3	0.0312693	93622	93622	
16907.9	0.0315426	93794	93794	
16942.5	0.0317549	94000	94000	
16977.2	0.0319057	94250	94250	
17011.8	0.0319944	94420	94420	
17046.4	0.0320209	94648	94648	
17081.1	0.0319849	94794	94794	
17115.7	0.0318862	94988	94988	
17150.3	0.031725	95227	95227	
17185	0.0315013	95533	95533	
17219.6	0.0312155	95837	95837	
17254.2	0.030868	96045	96045	
17288.9	0.0304593	96242	96242	
17323.5	0.0299901	96428	96428	
17358.1	0.0294612	96679	96679	
17392.8	0.0288735	96903	96903	
17427.4	0.0282279	97171	97171	
17462	0.0275257	97433	97433	
17496.7	0.0267679	97629	97629	
17531.3	0.025956	97888	97888	
17566	0.0250912	98094	98094	
17600.6	0.0241752	98317	98317	
17635.2	0.0232095	98581	98581	
17669.9	0.0221959	98809	98809	
17704.5	0.0211364	99010	99010	
17739.1	0.0200328	99286	99286	
17773.8	0.0188874	99548	99548	
17808.4	0.0177022	99758	99758	
17843	0.0164798	100010	100010	
17877.7	0.0152224	100242	100242	
17912.3	0.0139327	100442	100442	
17946.9	0.0126134	100651	100651	
17981.6	0.0112672	100891	100891	
18016.2	0.00989691	101149	101149	
18050.8	0.00850565	101374	101374	
18085.5	0.00709644	101655	101655	
18120.1	0.00567246	101890	101890	
18154.7	0.00423696	102139	102139	
18189.4	0.00279324	102306	102306	
18224	0.00134467	102439	102439	
18258.7	-0.000105364	102650	102650	
18293.3	-0.00155345	102874	102874	
18327.9	-0.00299619	103124	103124	
18362.6	-0.00443018	103336	103336	
18397.2	-0.00585207	103487	103487	
18431.8	-0.00725856	103705	103705	
18466.5	-0.00864639	103904	103904	
18501.1	-0.0100124	104135	104135	
18535.7	-0.0113536	104361	104361	
18570.4	-0.0126671	104621	104621	
18605	-0.0139499	104829	104829	
18639.6	-0.0151996	104986	104986	
18674.3	-0.0164136	105155	105155	
18708.9	-0.0175897	105347	105347	
18743.5	-0.0187256	105556	105556	
18778.2	-0.0198196	105782	105782	
18812.8	-0.02087	105996	105996	
18847.4	-0.0218751	106189	106189	
18882.1	-0.0228337	106333	106333	
18916.7	-0.0237448	106522	106522	
18951.4	-0.0246075	106751	106751	
18986	-0.025421	107016	107016	
19020.6	-0.0261849	107204	107204	
19055.3	-0.0268988	107396	107396	
19089.9	-0.0275628	107572	107572	
19124.5	-0.0281769	107714	107714	
19159.2	-0.0287412	107952	107952	
19193.8	-0.0292563	108142	108142	
19228.4	-0.0297225	108367	108367	
19263.1	-0.0301405	108567	108567	
19297.7	-0.0305112	108720	108720	
19332.3	-0.0308352	108917	108917	
19367	-0.0311135	109090	109090	
19401.6	-0.0313471	109296	109296	
19436.2	-0.0315369	109496	109496	
19470.9	-0.0316839	109659	109659	
19505.5	-0.0317892	109802	109802	
19540.1	-0.0318539	109920	109920	
19574.8	-0.0318788	110086	110086	
19609.4	-0.031865	110291	110291	
19644.1	-0.0318135	110474	110474	
19678.7	-0.0317251	110761	110761	
19713.3	-0.0316008	110967	110967	
19748	-0.0314414	111138	111138	
19782.6	-0.0312478	111391	111391	
19817.2	-0.0310207	111578	111578	
19851.9	-0.0307608	111742	111742	
19886.5	-0.030469	111967	111967	
19921.1	-0.030146	112169	112169	
19955.8	-0.0297925	112416	112416	
19990.4	-0.0294092	112639	112639	
20025	-0.0289968	112809	112809	
20059.7	-0.028556	113006	113006	
20094.3	-0.0280876	113236	113236	
20128.9	-0.0275923	113436	113436	
20163.6	-0.0270708	113658	113658	
20198.2	-0.026524	113839	113839	
20232.9	-0.0259529	114036	114036	
20267.5	-0.0253585	114223	114223	
20302.1	-0.0247421	114430	114430	
20336.8	-0.024105	114651	114651	
20371.4	-0.0234484	114862	114862	
20406	-0.0227737	115077	115077	
20440.7	-0.022082	115257	115257	
20475.3	-0.0213745	115486	115486	
20509.9	-0.0206522	115665	115665	
20544.6	-0.0199161	115893	115893	
20579.2	-0.0191673	116169	116169	
20613.8	-0.0184069	116382	116382	
20648.5	-0.0176358	116579	116579	
20683.1	-0.0168551	116797	116797	
20717.7	-0.0160656	117005	117005	
20752.4	-0.015269	117137	117137	
20787	-0.0144672	117340	117340	
20821.6	-0.0136622	117509	117509	
20856.3	-0.0128556	117760	117760	
20890.9	-0.0120484	117942	117942	
20925.5	-0.0112413	118145	118145	
20960.2	-0.0104347	118337	118337	
20994.8	-0.00962903	118569	118569	
21029.5	-0.00882471	118769	118769	
21064.1	-0.00802225	118996	118996	
21098.7	-0.00722219	119194	119194	
21133.4	-0.00642526	119395	119395	
21168	-0.00563239	119541	119541	
21202.6	-0.00484472	119732	119732	
21237.3	-0.00406351	119925	119925	
21271.9	-0.0032901	120134	120134	
21306.5	-0.00252584	120273	120273	
21341.2	-0.00177208	120441	120441	
21375.8	-0.00103012	120604	120604	
21410.4	-0.000301302	120769	120769	
21445.1	0.000413056	120943	120943	
21479.7	0.00111159	121070	121070	
21514.3	0.0017929	121260	121260	
21549	0.00245547	121462	121462	
21583.6	0.00309766	121708	121708	
21618.2	0.00371774	121906	121906	
21652.9	0.00431394	122070	122070	
21687.5	0.00488456	122239	122239	
21722.2	0.00542806	122379	122379	
21756.8	0.00594309	122587	122587	
21791.4	0.00642849	122861	122861	
21826.1	0.00688331	123079	123079	
21860.7	0.00730675	123253	123253	
21895.3	0.00769814	123428	123428	
21930	0.00805696	123597	123597	
21964.6	0.00838278	123768	123768	
21999.2	0.00867528	123982	123982	
22033.9	0.00893425	124191	124191	
22068.5	0.00915957	124351	124351	
22103.1	0.00935125	124521	124521	
22137.8	0.00950939	124726	124726	
22172.4	0.00963418	124936	124936	
22207	0.00972591	125146	125146	
22241.7	0.00978489	125306	125306	
22276.3	0.00981149	125530	125530	
22310.9	0.00980608	125713	125713	
22345.6	0.00976901	125876	125876	
22380.2	0.00970063	126066	126066	
22414.8	0.00960128	126276	126276	
22449.5	0.00947127	126516	126516	
22484.1	0.00931093	126746	126746	
22518.8	0.0091206	126898	126898	
22553.4	0.00890066	127067	127067	
22588	0.00865156	127216	127216	
22622.7	0.00837381	127368	127368	
22657.3	0.00806798	127578	127578	
22691.9	0.00773474	127777	127777	
22726.6	0.00737485	128004	128004	
22761.2	0.00698913	128175	128175	
22795.8	0.0065785	128324	128324	
22830.5	0.00614398	128521	128521	
22865.1	0.00568667	128749	128749	
22899.7	0.00520778	128989	128989	
22934.4	0.00470861	129173	129173	
22969	0.00419059	129308	129308	
23003.6	0.00365526	129503	129503	
23038.3	0.00310426	129681	129681	
23072.9	0.00253936	129859	129859	
23107.5	0.00196241	130135	130135	
23142.2	0.00137537	130372	130372	
23176.8	0.000780274	130577	130577	
23211.5	0.000179222	130731	130731	
23246.1	-0.000425632	130864	130864	
23280.7	-0.0010321	130981	130981	
23315.4	-0.00163795	131193	131193	
23350	-0.00224097	131406	131406	
23384.6	-0.00283894	131642	131642	
23419.3	-0.00342964	131796	131796	
23453.9	-0.00401091	132004	132004	
23488.5	-0.00458062	132187	132187	
23523.2	-0.00513671	132422	132422	
23557.8	-0.00567722	132632	132632	
23592.4	-0.00620026	132847	132847	
23627.1	-0.00670406	133013	133013	
23661.7	-0.00718696	133197	133197	
23696.3	-0.00764745	133358	133358	
23731	-0.00808413	133509	133509	
23765.6	-0.00849575	133653	133653	
23800.2	-0.00888121	133762	133762	
23834.9	-0.00923955	133951	133951	
23869.5	-0.00956993	134069	134069	
23904.1	-0.00987171	134274	134274	
23938.8	-0.0101444	134509	134509	
23973.4	-0.0103875	134731	134731	
24008.1	-0.010601	134968	134968	
24042.7	-0.0107847	135189	135189	
24077.3	-0.0109389	135415	135415	
24112	-0.0110637	135576	135576	
24146.6	-0.0111596	135706	135706	
24181.2	-0.0112272	135831	135831	
24215.9	-0.0112671	135985	135985	
24250.5	-0.0112803	136131	136131	
24285.1	-0.0112677	136379	136379	
24319.8	-0.0112304	136566	136566	
24354.4	-0.0111694	136802	136802	
24389	-0.011086	136994	136994	
24423.7	-0.0109814	137205	137205	
24458.3	-0.0108567	137405	137405	
24492.9	-0.0107134	137531	137531	
24527.6	-0.0105528	137722	137722	
24562.2	-0.0103773	137840	137840	
24596.8	-0.0101909	137976	137976	
24631.5	-0.00999314	138117	138117	
24666.1	-0.00977807	138252	138252	
24700.8	-0.00955713	138484	138484	
24735.4	-0.00933094	138640	138640	
24770	-0.00910012	138816	138816	
24804.7	-0.00885868	139073	139073	
24839.3	-0.00860976	139206	139206	
24873.9	-0.00835337	139414	139414	
24908.6	-0.00809881	139529	139529	
24943.3	-0.00784568	139665	139665	
24977.9	-0.00759306	139761	139761	
25012.5	-0.00733965	139941	139941	
25047.2	-0.00708563	140127	140127	
25081.8	-0.0068301	140287	140287	
25116.4	-0.00657199	140497	140497	
25151.1	-0.00631128	140653	140653	
25185.7	-0.00604943	140825	140825	
25220.3	-0.00578793	141042	141042	
25255	-0.00552845	141296	141296	
25289.6	-0.00527195	141541	141541	
25324.3	-0.00502796	141676	141676	
25358.9	-0.00478498	141839	141839	
25393.5	-0.0045407	141998	141998	
25428.2	-0.0042976	142171	142171	
25462.8	-0.00405811	142327	142327	
25497.4	-0.00382421	142511	142511	
25532.1	-0.00359702	142693	142693	
25566.7	-0.00337676	142901	142901	
25601.3	-0.00316322	143014	143014	
25636	-0.00295628	143197	143197	
25670.6	-0.00275597	143350	143350	
25705.2	-0.00256239	143566	143566	
25739.9	-0.00237566	143740	143740	
25774.5	-0.00219593	144009	144009	
25809.1	-0.00202355	144240	144240	
25843.8	-0.00185904	144426	144426	
25878.4	-0.00170302	144653	144653	
25913	-0.0015561	144865	144865	
25947.7	-0.0014187	145052	145052	
25982.3	-0.00129104	145102	145102	
26016.9	-0.00117309	145221	145221	
26051.6	-0.00106477	145452	145452	
26086.2	-0.000965891	145704	145704	
26120.8	-0.000876241	145912	145912	
26155.5	-0.000795561	146120	146120	
26190.1	-0.00072353	146308	146308	
26224.7	-0.000659763	146504	146504	
26259.4	-0.000603816	146665	146665	
26294	-0.000555205	146817	146817	
26328.7	-0.000513429	147025	147025	
26363.3	-0.000477997	147257	147257	
26397.9	-0.000448445	147410	147410	
26432.6	-0.000424338	147645	147645	
26467.2	-0.000405263	147821	147821	
26501.8	-0.000390826	148006	148006	
26536.5	-0.000380629	148192	148192	
26571.1	-0.00037427	148445	148445	
26605.7	-0.000371337	148711	148711	
26640.4	-0.000371408	148963	148963	
26675	-0.000374059	149191	149191	
26709.6	-0.000378877	149406	149406	
26744.3	-0.00038547	149609	149609	
26778.9	-0.000393481	149813	149813	
26813.5	-0.000402592	150013	150013	
26848.2	-0.000412533	150164	150164	
26882.8	-0.000423071	150362	150362	
26917.4	-0.000434001	150492	150492	
26952.1	-0.000445139	150658	150658	
26986.7	-0.0004563	150830	150830	
27021.3	-0.000467298	150985	150985	
27056	-0.000477937	151195	151195	
27090.6	-0.000488016	151414	151414	
27125.2	-0.000497327	151597	151597	
27159.9	-0.000505668	151763	151763	
27194.5	-0.000512847	151993	151993	
27229.1	-0.000518681	152195	152195	
27263.8	-0.000522998	152401	152401	
27298.4	-0.000528875	152535	152535	
27333	-0.000526895	152713	152713	
27367.7	-0.000526361	152923	152923	
27402.3	-0.000522175	153060	153060	
27436.9	-0.000516405	153148	153148	
27471.6	-0.000505103	153280	153280	
27506.2	-0.000490299	153463	153463	
27540.9	-0.000472486	153676	153676	
27575.5	-0.000454297	153890	153890	
27610.1	-0.000435322	154125	154125	
27644.8	-0.000414902	154322	154322	
27679.4	-0.000391684	154516	154516	
27714	-0.000364903	154721	154721	
27748.7	-0.000334125	154950	154950	
27783.3	-0.000299329	155131	155131	
27817.9	-0.000260667	155286	155286	
27852.6	-0.000218517	155478	155478	
27887.2	-0.000173405	155663	155663	
27921.8	-0.000125908	155795	155795	
27956.5	-7.65468e-05	155970	155970	
27991.1	-2.57497e-05	156199	156199	
28025.7	2.63077e-05	156436	156436	
28060.4	7.95885e-05	156582	156582	
28095	0.00013389	156777	156777	
28129.6	0.000188927	156985	156985	
28164.3	0.000244378	157147	157147	
28198.9	0.000299932	157353	157353	
28233.5	0.000355263	157513	157513	
28268.2	0.000410022	157672	157672	
28302.8	0.000463803	157850	157850	
28337.4	0.000516143	158035	158035	
28372.1	0.000566536	158265	158265	
28406.7	0.000614457	158440	158440	
28441.3	0.000659389	158612	158612	
28476	0.000700847	158800	158800	
28510.6	0.000738395	158909	158909	
28545.2	0.000771658	159083	159083	
28579.9	0.000800327	159224	159224	
28614.5	0.000824173	159380	159380	
28649.1	0.000843041	159613	159613	
28683.8	0.000856857	159742	159742	
28718.4	0.000865624	159911	159911	
28753	0.000869411	160055	160055	
28787.7	0.000868345	160169	160169	
28822.3	0.000862594	160395	160395	
28856.9	0.000852345	160519	160519	
28891.6	0.000837788	160678	160678	
28926.2	0.000819101	160903	160903	
28960.8	0.00079643	161101	161101	
28995.5	0.000769888	161287	161287	
29030.1	0.000739545	161439	161439	
29064.7	0.00070543	161598	161598	
29099.4	0.000667531	161739	161739	
29134	0.000625798	161796	161796	
29168.6	0.000580145	161919	161919	
29203.3	0.000530453	162066	162066	
29237.9	0.000476574	162252	162252	
29272.5	0.000418328	162438	162438	
29307.2	0.00035551	162571	162571	
29341.8	0.00028789	162716	162716	
29376.4	0.000215218	162939	162939	
29411.1	0.000137228	163178	163178	
29445.7	5.36456e-05	163329	163329	
29480.3	-3.5804e-05	163480	163480	
29515	-0.000131387	163607	163607	
29549.6	-0.000233353	163770	163770	
29584.2	-0.000341926	163972	163972	
29618.9	-0.000457294	164142	164142	
29653.5	-0.000579608	164299	164299	
29688.1	-0.000708972	164414	164414	
29722.8	-0.000845435	164617	164617	
29757.4	-0.000988995	164839	164839	
29792	-0.00113958	165019	165019	
29826.7	-0.00129707	165195	165195	
29861.3	-0.00146126	165402	165402	
29895.9	-0.00163186	165524	165524	
29930.6	-0.00180854	165707	165707	
29965.2	-0.00199086	165867	165867	
29999.8	-0.00217832	166089	166089	
30034.5	-0.00237036	166288	166288	
30069.1	-0.00256633	166436	166436	
30103.7	-0.00276553	166650	166650	
30138.4	-0.00296722	166831	166831	
30173	-0.00317057	166960	166960	
30207.6	-0.00337474	167095	167095	
30242.3	-0.00357884	167226	167226	
30276.9	-0.0037819	167446	167446	
30311.5	-0.00398296	167685	167685	
30346.2	-0.00418099	167970	167970	
30380.8	-0.00437493	168183	168183	
30415.4	-0.00456372	168438	168438	
30450.1	-0.00474628	168656	168656	
30484.7	-0.00492154	168787	168787	
30519.3	-0.00508849	168926	168926	
30554	-0.00524618	169217	169217	
30588.6	-0.00539377	169371	169371	
30623.2	-0.00553055	169515	169515	
30657.8	-0.00565595	169705	169705	
30692.5	-0.00576955	169957	169957	
30727.1	-0.00587106	170134	170134	
30761.7	-0.0059603	170321	170321	
30796.4	-0.00603719	170468	170468	
30831	-0.00610174	170647	170647	
30865.6	-0.00615401	170793	170793	
30900.3	-0.00619409	171051	171051	
30934.9	-0.0062221	171198	171198	
30969.5	-0.00623815	171470	171470	
31004.2	-0.00624235	171639	171639	
31038.8	-0.00623483	171775	171775	
31073.4	-0.0062157	171946	171946	
31108	-0.00618514	172083	172083	
31142.7	-0.00614339	172289	172289	
31177.3	-0.00609079	172496	172496	
31211.9	-0.00602777	172644	172644	
31246.6	-0.00595488	172819	172819	
31281.2	-0.00587278	173059	173059	
31315.8	-0.00578225	173214	173214	
31350.5	-0.00568413	173445	173445	
31385.1	-0.00557936	173560	173560	
31419.7	-0.00546893	173721	173721	
31454.4	-0.00535388	173871	173871	
31489	-0.00523528	174016	174016	
31523.6	-0.00511419	174199	174199	
31558.3	-0.00499165	174333	174333	
31592.9	-0.00486861	174423	174423	
31627.5	-0.00474597	174588	174588	
31662.2	-0.00462452	174815	174815	
31696.8	-0.00450492	174946	174946	
31731.4	-0.0043877	175056	175056	
31766	-0.00427329	175231	175231	
31800.7	-0.00416196	175407	175407	
31835.3	-0.00405388	175659	175659	
31869.9	-0.00394907	175821	175821	
31904.6	-0.00384748	176011	176011	
31939.2	-0.00374891	176120	176120	
31973.8	-0.0036531	176315	176315	
32008.5	-0.00355967	176433	176433	
32043.1	-0.00346818	176670	176670	
32077.7	-0.00337809	176927	176927	
32112.4	-0.00328882	177177	177177	
32147	-0.00319972	177374	177374	
32181.6	-0.00311009	177558	177558	
32216.3	-0.00301921	177750	177750	
32250.9	-0.00292634	177929	177929	
32285.5	-0.00283074	178082	178082	
32320.1	-0.00273167	178279	178279	
32354.8	-0.00262844	178441	178441	
32389.4	-0.0025204	178605	178605	
32424	-0.00240698	178773	178773	
32458.7	-0.0022877	178953	178953	
32493.3	-0.00216219	179068	179068	
32527.9	-0.00203022	179285	179285	
32562.6	-0.00189168	179523	179523	
32597.2	-0.00174662	179706	179706	
32631.8	-0.00159523	179899	179899	
32666.5	-0.00143786	180099	180099	
32701.1	-0.00127502	180284	180284	
32735.7	-0.00110737	180427	180427	
32770.4	-0.000935731	180613	180613	
32805	-0.000761095	180805	180805	
32839.6	-0.000584599	181034	181034	
32874.2	-0.000407524	181263	181263	
32908.9	-0.000231273	181487	181487	
32943.5	-5.73473e-05	181629	181629	
32978.1	0.000112688	181915	181915	
33012.8	0.000277232	182149	182149	
33047.4	0.000434686	182372	182372	
33082	0.000583482	182552	182552	
33116.7	0.000722111	182721	182721	
33151.3	0.000849149	182874	182874	
33185.9	0.000963277	183045	183045	
33220.6	0.00106331	183249	183249	
33255.2	0.0011482	183426	183426	
33289.8	0.00121707	183634	183634	
33324.4	0.00126924	183865	183865	
33359.1	0.00130417	184065	184065	
33393.7	0.00132156	184320	184320	
33428.3	0.00132124	184516	184516	
33463	0.00130328	184699	184699	
33497.6	0.0012679	184893	184893	
33532.2	0.00121553	185050	185050	
33566.9	0.00114684	185171	185171	
33601.5	0.00106266	185246	185246	
33636.1	0.000964	185462	185462	
33670.8	0.00085199	185666	185666	
33705.4	0.000727897	185915	185915	
33740	0.000593118	186194	186194	
33774.7	0.000449195	186421	186421	
33809.3	0.000297779	186599	186599	
33843.9	0.000140601	186802	186802	
33878.5	-2.05793e-05	186967	186967	
33913.2	-0.000183987	187127	187127	
33947.8	-0.000347822	187291	187291	
33982.4	-0.000510248	187420	187420	
34017.1	-0.000669386	187660	187660	
34051.7	-0.000823336	187863	187863	
34086.3	-0.000970222	188106	188106	
34121	-0.00110824	188308	188308	
34155.6	-0.0012357	188490	188490	
34190.2	-0.00135107	188725	188725	
34224.9	-0.00145298	188868	188868	
34259.5	-0.00154028	188961	188961	
34294.1	-0.00161199	189123	189123	
34328.7	-0.00166737	189286	189286	
34363.4	-0.00170587	189525	189525	
34398	-0.00172716	189663	189663	
34432.6	-0.00173115	189835	189835	
34467.3	-0.00171792	190084	190084	
34501.9	-0.00168782	190292	190292	
34536.5	-0.00164138	190508	190508	
34571.2	-0.00157939	190773	190773	
34605.8	-0.00150284	190968	190968	
34640.4	-0.00141296	191170	191170	
34675	-0.00131117	191370	191370	
34709.7	-0.00119908	191596	191596	
34744.3	-0.00107847	191694	191694	
34778.9	-0.000951287	191906	191906	
34813.6	-0.000819571	192089	192089	
34848.2	-0.000685456	192256	192256	
34882.8	-0.000551122	192472	192472	
34917.5	-0.00041875	192729	192729	
34952.1	-0.000290484	192860	192860	
34986.7	-0.000168382	193086	193086	
35021.4	-5.43779e-05	193308	193308	
35056	4.97547e-05	193611	193611	
35090.6	0.000142435	193813	193813	
35125.2	0.000222642	194023	194023	
35159.9	0.000290363	194217	194217	
35194.5	0.000343435	194456	194456	
35229.1	0.000380655	194617	194617	
35263.8	0.000401034	194700	194700	
35298.4	0.000404853	194873	194873	
35333	0.000392501	195087	195087	
35367.7	0.000364451	195279	195279	
35402.3	0.000321788	195534	195534	
35436.9	0.000265796	195690	195690	
35471.5	0.000197903	195910	195910	
35506.2	0.000118709	196089	196089	
35540.8	3.02619e-05	196303	196303	
35575.4	-6.49889e-05	196488	196488	
35610.1	-0.000163726	196589	196589	
35644.7	-0.000263465	196740	196740	
35679.3	-0.000362269	196909	196909	
35714	-0.00045866	197182	197182	
35748.6	-0.000550986	197407	197407	
35783.2	-0.000637359	197621	197621	
35817.9	-0.000715598	197886	197886	
35852.5	-0.00078384	198171	198171	
35887.1	-0.000839437	198422	198422	
35921.7	-0.000880303	198582	198582	
35956.4	-0.00090425	198741	198741	
35991	-0.000912985	198879	198879	
36025.6	-0.000900886	199050	199050	
36060.3	-0.000863905	199255	199255	
36094.9	-0.000798234	199398	199398	
36129.5	-0.000707875	199645	199645	
36164.2	-0.000594403	199857	199857	
36198.8	-0.000458642	200127	200127	
36233.4	-0.000300041	200286	200286	
36268	-0.000118743	200580	200580	
36302.7	8.4663e-05	200680	200680	
36337.3	0.000308811	200818	200818	
36371.9	0.000551914	201080	201080	
36406.6	0.000811737	201320	201320	
36441.2	0.00108569	201497	201497	
36475.8	0.00137082	201686	201686	
36510.5	0.00166381	201860	201860	
36545.1	0.00196108	202090	202090	
36579.7	0.00225887	202316	202316	
36614.3	0.00255336	202528	202528	
36649	0.00284079	202725	202725	
36683.6	0.00311748	202932	202932	
36718.2	0.00337991	203126	203126	
36752.9	0.00362471	203287	203287	
36787.5	0.0038487	203474	203474	
36822.1	0.00404888	203655	203655	
36856.8	0.00422253	203925	203925	
36891.4	0.00436718	204152	204152	
36926	0.0044807	204332	204332	
36960.6	0.00456131	204517	204517	
36995.3	0.00460767	204664	204664	
37029.9	0.00461887	204957	204957	
37064.5	0.00459449	205148	205148	
37099.2	0.00453462	205375	205375	
37133.8	0.00443984	205522	205522	
37168.4	0.00431124	205746	205746	
37203.1	0.00415041	205930	205930	
37237.7	0.00395939	206070	206070	
37272.3	0.00374067	206224	206224	
37306.9	0.00349717	206450	206450	
37341.6	0.00323219	206660	206660	
37376.2	0.00294938	206908	206908	
37410.8	0.00265271	207115	207115	
37445.5	0.00234641	207272	207272	
37480.1	0.00203489	207444	207444	
37514.7	0.00172274	207621	207621	
37549.4	0.00141457	207882	207882	
37584	0.00111504	208097	208097	
37618.6	0.000828675	208300	208300	
37653.2	0.000559888	208508	208508	
37687.9	0.000312846	208731	208731	
37722.5	9.142e-05	208901	208901	
37757.1	-0.000100884	209063	209063	
37791.8	-0.000260989	209219	209219	
37826.4	-0.000386305	209407	209407	
37861	-0.000474783	209621	209621	
37895.7	-0.000524958	209888	209888	
37930.3	-0.000535989	210077	210077	
37964.9	-0.000507684	210276	210276	
37999.5	-0.000440518	210451	210451	
38034.2	-0.000335634	210631	210631	
38068.8	-0.000194835	210798	210798	
38103.4	-2.05579e-05	211065	211065	
38138.1	0.000184161	211287	211287	
38172.7	0.000415737	211600	211600	
38207.3	0.000670099	211796	211796	
38242	0.000942759	211989	211989	
38276.6	0.00122889	212115	212115	
38311.2	0.00152343	212197	212197	
38345.8	0.00182113	212383	212383	
38380.5	0.0021167	212740	212740	
38415.1	0.00240486	212877	212877	
38449.7	0.00268048	213105	213105	
38484.4	0.00293862	213272	213272	
38519	0.00317464	213443	213443	
38553.6	0.00338429	213652	213652	
38588.2	0.00356376	213832	213832	
38622.9	0.00370975	214022	214022	
38657.5	0.00381951	214195	214195	
38692.1	0.00389091	214409	214409	
38726.8	0.00392241	214593	214593	
38761.4	0.00391313	214756	214756	
38796	0.0038628	214958	214958	
38830.7	0.00377178	215110	215110	
38865.3	0.00364105	215368	215368	
38899.9	0.00347213	215714	215714	
38934.5	0.00326708	215890	215890	
38969.2	0.00302845	216130	216130	
39003.8	0.0027592	216356	216356	
39038.4	0.00246265	216614	216614	
39073.1	0.00214243	216825	216825	
39107.7	0.00180241	217062	217062	
39142.3	0.00144661	217282	217282	
39176.9	0.00107917	217510	217510	
39211.6	0.000704261	217746	217746	
39246.2	0.000326019	217975	217975	
39280.8	-5.14921e-05	218204	218204	
39315.5	-0.000424348	218418	218418	
39350.1	-0.000788809	218596	218596	
39384.7	-0.00114136	218754	218754	
39419.4	-0.00147875	218948	218948	
39454	-0.00179802	219229	219229	
39488.6	-0.00209653	219405	219405	
39523.2	-0.00237196	219648	219648	
39557.9	-0.00262236	219829	219829	
39592.5	-0.00284613	220091	220091	
39627.1	-0.00304203	220292	220292	
39661.8	-0.00320918	220570	220570	
39696.4	-0.00334707	220768	220768	
39731	-0.00345553	220936	220936	
39765.6	-0.00353471	221128	221128	
39800.3	-0.0035851	221375	221375	
39834.9	-0.00360746	221566	221566	
39869.5	-0.00360284	221740	221740	
39904.2	-0.00357252	221851	221851	
39938.8	-0.00351799	222041	222041	
39973.4	-0.00344093	222330	222330	
40008.1	-0.00334318	222487	222487	
40042.7	-0.0032267	222817	222817	
40077.3	-0.00309356	222956	222956	
40111.9	-0.00294592	223128	223128	
40146.6	-0.00278595	223283	223283	
40181.2	-0.0026159	223553	223553	
40215.8	-0.00243797	223750	223750	
40250.5	-0.00225438	223933	223933	
40285.1	-0.00206727	224169	224169	
40319.7	-0.00187873	224372	224372	
40354.3	-0.00169076	224558	224558	
40389	-0.00150524	224729	224729	
40423.6	-0.00132395	224960	224960	
40458.2	-0.00114853	225172	225172	
40492.9	-0.000980545	225439	225439	
40527.5	-0.000821355	225716	225716	
40562.1	-0.000672046	225918	225918	
40596.7	-0.000533497	226119	226119	
40631.4	-0.000406327	226302	226302	
40666	-0.000290967	226581	226581	
40700.6	-0.000187701	226705	226705	
40735.3	-9.67139e-05	226931	226931	
40769.9	-1.8111e-05	227197	227197	
40804.5	4.84298e-05	227389	227389	
40839.1	0.000103043	227660	227660	
40873.8	0.000145884	227939	227939	
40908.4	0.000177132	228128	228128	
40943	0.000197181	228333	228333	
40977.7	0.000206664	228510	228510	
41012.3	0.000206492	228669	228669	
41046.9	0.000197736	228899	228899	
41081.5	0.000181634	229085	229085	
41116.2	0.000159506	229232	229232	
41150.8	0.000132716	229402	229402	
41185.4	0.000102592	229607	229607	
41220.1	7.03797e-05	229821	229821	
41254.7	3.71919e-05	230069	230069	
41289.3	4.22588e-06	230320	230320	
41324	-2.74798e-05	230493	230493	
41358.6	-5.72484e-05	230672	230672	
41393.2	-8.45499e-05	230928	230928	
41427.8	-0.000108996	231233	231233	
41462.5	-0.000130223	231328	231328	
41497.1	-0.00014787	231467	231467	
41531.7	-0.000161531	231621	231621	
41566.4	-0.000170747	231867	231867	
41601	-0.000174998	232050	232050	
41635.6	-0.000173709	232326	232326	
41670.2	-0.000166277	232583	232583	
41704.9	-0.000152061	232797	232797	
41739.5	-0.000130273	232898	232898	
41774.1	-0.000100405	233098	233098	
41808.8	-6.05809e-05	233300	233300	
41843.4	-1.15116e-05	233519	233519	
41878	4.83453e-05	233696	233696	
41912.6	0.000125965	233884	233884	
41947.3	0.00020107	234020	234020	
41981.9	0.000280048	234201	234201	
42016.5	0.000369795	234383	234383	
42051.2	0.00049431	234602	234602	
42085.8	0.000572455	234871	234871	
42120.4	0.00066366	235010	235010	
42155	0.000758827	235190	235190	
42189.7	0.000872011	235403	235403	
42224.3	0.00098061	235548	235548	
42258.9	0.0010906	235726	235726	
42293.6	0.00124429	235934	235934	
42328.2	0.00136991	236221	236221	
42362.8	0.00156028	236516	236516	
42397.4	0.00171575	236634	236634	
42432.1	0.00187088	236786	236786	
42466.7	0.00202395	236947	236947	
42501.3	0.00218669	237014	237014	
42536	0.00236894	237205	237205	
42570.6	0.00257261	237359	237359	
42605.2	0.00276703	237559	237559	
42639.8	0.00297677	237800	237800	
42674.5	0.00320332	238031	238031	
42709.1	0.00343831	238252	238252	
42743.7	0.00367328	238537	238537	
42778.4	0.00390874	238825	238825	
42813	0.00413494	239189	239189	
42847.6	0.00434772	239551	239551	
42882.2	0.00454723	239743	239743	
42916.9	0.00473645	240065	240065	
42951.5	0.0049169	240209	240209	
42986.1	0.0050901	240426	240426	
43020.7	0.00524921	240537	240537	
43055.4	0.00539818	240800	240800	
43090	0.00553736	240937	240937	
43124.6	0.00566543	241248	241248	
43159.3	0.00578226	241491	241491	
43193.9	0.00588826	241781	241781	
