0	0	2097152	2097152	
15.3477	0	2097152	2097152	
30.6954	0	2097152	2097152	
46.0431	0	2097152	2097152	
61.3908	0	2097152	2097152	
76.7385	0	2097152	2097152	
92.0862	0	2097152	2097152	
107.434	0	2097152	2097152	
122.782	0	2097152	2097152	
138.129	0	2097152	2097152	
153.477	0	2097152	2097152	
168.825	0	2097152	2097152	
184.172	0	2097152	2097152	
199.52	0	2097152	2097152	
214.868	0	2097152	2097152	
230.215	0	2097152	2097152	
245.563	0	2097152	2097152	
260.911	0	2097152	2097152	
276.259	0	2097152	2097152	
291.606	0	2097152	2097152	
306.954	0	2097152	2097152	
322.302	0	2097152	2097152	
337.649	0	2097152	2097152	
352.997	0	2097152	2097152	
368.345	0	2097152	2097152	
383.692	0	2097152	2097152	
399.04	0	2097152	2097152	
414.388	0	2097152	2097152	
429.735	0	2097152	2097152	
445.083	0	2097152	2097152	
460.431	0	2097152	2097152	
475.779	0	2097152	2097152	
491.126	0	2097152	2097152	
506.474	0	2097152	2097152	
521.822	0	2097152	2097152	
537.169	0	2097152	2097152	
552.517	0	2097152	2097152	
567.865	0	2097152	2097152	
583.212	0	2097152	2097152	
598.56	0	2097152	2097152	
613.908	0	2097152	2097152	
629.256	0	2097152	2097152	
644.603	0	2097152	2097152	
659.951	0	2097152	2097152	
675.299	0	2097152	2097152	
690.646	0	2097152	2097152	
705.994	0	2097152	2097152	
721.342	0	2097152	2097152	
736.689	0	2097152	2097152	
752.037	0	2097152	2097152	
767.385	0	2097152	2097152	
782.732	0	2097152	2097152	
798.08	0	2097152	2097152	
813.428	0	2097152	2097152	
828.776	0	2097152	2097152	
844.123	0	2097152	2097152	
859.471	0	2097152	2097152	
874.819	0	2097152	2097152	
890.166	0	2097152	2097152	
905.514	0	2097152	2097152	
920.862	0	2097152	2097152	
936.209	0	2097152	2097152	
951.557	0	2097152	2097152	
966.905	0	2097152	2097152	
982.252	0	2097152	2097152	
997.6	0	2097152	2097152	
1012.95	0	2097152	2097152	
1028.3	0	2097152	2097152	
1043.64	0	2097152	2097152	
1058.99	0	2097152	2097152	
1074.34	0	2097152	2097152	
1089.69	0	2097152	2097152	
1105.03	0	2097152	2097152	
1120.38	0	2097152	2097152	
1135.73	0	2097152	2097152	
1151.08	0	2097152	2097152	
1166.42	0	2097152	2097152	
1181.77	0	2097152	2097152	
1197.12	0	2097152	2097152	
1212.47	0	2097152	2097152	
1227.82	0	2097152	2097152	
1243.16	0	2097152	2097152	
1258.51	0	2097152	2097152	
1273.86	0	2097152	2097152	
1289.21	0	2097152	2097152	
1304.55	0	2097152	2097152	
1319.9	0	2097152	2097152	
1335.25	0	2097152	2097152	
1350.6	0	2097152	2097152	
1365.94	0	2097152	2097152	
1381.29	0	2097152	2097152	
1396.64	0	2097152	2097152	
1411.99	0	2097152	2097152	
1427.34	0	2097152	2097152	
1442.68	0	2097152	2097152	
1458.03	0	2097152	2097152	
1473.38	0	2097152	2097152	
1488.73	0	2097152	2097152	
1504.07	0	2097152	2097152	
1519.42	0	2097152	2097152	
1534.77	0	2097152	2097152	
1550.12	0	2097152	2097152	
1565.46	0	2097152	2097152	
1580.81	0	2097152	2097152	
1596.16	0	2097152	2097152	
1611.51	0	2097152	2097152	
1626.86	0	2097152	2097152	
1642.2	0	2097152	2097152	
1657.55	0	2097152	2097152	
1672.9	0	2097152	2097152	
1688.25	0	2097152	2097152	
1703.59	0	2097152	2097152	
1718.94	0	2097152	2097152	
1734.29	0	2097152	2097152	
1749.64	0	2097152	2097152	
1764.98	0	2097152	2097152	
1780.33	0	2097152	2097152	
1795.68	0	2097152	2097152	
1811.03	0	2097152	2097152	
1826.38	0	2097152	2097152	
1841.72	0	2097152	2097152	
1857.07	0	2097152	2097152	
1872.42	0	2097152	2097152	
1887.77	0	2097152	2097152	
1903.11	0	2097152	2097152	
1918.46	0	2097152	2097152	
1933.81	0	2097152	2097152	
1949.16	0	2097152	2097152	
1964.5	0	2097152	2097152	
1979.85	0	2097152	2097152	
1995.2	0	2097152	2097152	
2010.55	0	2097152	2097152	
2025.9	0	2097152	2097152	
2041.24	0	2097152	2097152	
2056.59	0	2097152	2097152	
2071.94	0	2097152	2097152	
2087.29	0	2097152	2097152	
2102.63	0	2097152	2097152	
2117.98	0	2097152	2097152	
2133.33	0	2097152	2097152	
2148.68	0	2097152	2097152	
2164.03	0	2097152	2097152	
2179.37	0	2097152	2097152	
2194.72	0	2097152	2097152	
2210.07	0	2097152	2097152	
2225.42	0	2097152	2097152	
2240.76	0	2097152	2097152	
2256.11	0	2097152	2097152	
2271.46	0	2097152	2097152	
2286.81	0	2097152	2097152	
2302.15	0	2097152	2097152	
2317.5	0	2097152	2097152	
2332.85	0	2097152	2097152	
2348.2	0	2097152	2097152	
2363.55	0	2097152	2097152	
2378.89	0	2097152	2097152	
2394.24	0	2097152	2097152	
2409.59	0	2097152	2097152	
2424.94	0	2097152	2097152	
2440.28	0	2097152	2097152	
2455.63	0	2097152	2097152	
2470.98	0	2097152	2097152	
2486.33	0	2097152	2097152	
2501.67	0	2097152	2097152	
2517.02	0	2097152	2097152	
2532.37	0	2097152	2097152	
2547.72	0	2097152	2097152	
2563.07	0	2097152	2097152	
2578.41	0	2097152	2097152	
2593.76	0	2097152	2097152	
2609.11	0	2097152	2097152	
2624.46	0	2097152	2097152	
2639.8	0	2097152	2097152	
2655.15	0	2097152	2097152	
2670.5	0	2097152	2097152	
2685.85	0	2097152	2097152	
2701.19	0	2097152	2097152	
2716.54	0	2097152	2097152	
2731.89	0	2097152	2097152	
2747.24	0	2097152	2097152	
2762.59	0	2097152	2097152	
2777.93	0	2097152	2097152	
2793.28	0	2097152	2097152	
2808.63	0	2097152	2097152	
2823.98	0	2097152	2097152	
2839.32	0	2097152	2097152	
2854.67	0	2097152	2097152	
2870.02	0	2097152	2097152	
2885.37	0	2097152	2097152	
2900.71	0	2097152	2097152	
2916.06	0	2097152	2097152	
2931.41	0	2097152	2097152	
2946.76	0	2097152	2097152	
2962.11	0	2097152	2097152	
2977.45	0	2097152	2097152	
2992.8	0	2097152	2097152	
3008.15	0	2097152	2097152	
3023.5	0	2097152	2097152	
3038.84	0	2097152	2097152	
3054.19	0	2097152	2097152	
3069.54	0	2097152	2097152	
3084.89	0	2097152	2097152	
3100.23	0	2097152	2097152	
3115.58	0	2097152	2097152	
3130.93	0	2097152	2097152	
3146.28	0	2097152	2097152	
3161.63	0	2097152	2097152	
3176.97	0	2097152	2097152	
3192.32	0	2097152	2097152	
3207.67	0	2097152	2097152	
3223.02	0	2097152	2097152	
3238.36	0	2097152	2097152	
3253.71	0	2097152	2097152	
3269.06	0	2097152	2097152	
3284.41	0	2097152	2097152	
3299.75	0	2097152	2097152	
3315.1	0	2097152	2097152	
3330.45	0	2097152	2097152	
3345.8	0	2097152	2097152	
3361.15	0	2097152	2097152	
3376.49	0	2097152	2097152	
3391.84	0	2097152	2097152	
3407.19	0	2097152	2097152	
3422.54	0	2097152	2097152	
3437.88	0	2097152	2097152	
3453.23	0	2097152	2097152	
3468.58	0	2097152	2097152	
3483.93	0	2097152	2097152	
3499.27	0	2097152	2097152	
3514.62	0	2097152	2097152	
3529.97	0	2097152	2097152	
3545.32	0	2097152	2097152	
3560.67	0	2097152	2097152	
3576.01	0	2097152	2097152	
3591.36	0	2097152	2097152	
3606.71	0	2097152	2097152	
3622.06	0	2097152	2097152	
3637.4	0	2097152	2097152	
3652.75	0	2097152	2097152	
3668.1	0	2097152	2097152	
3683.45	0	2097152	2097152	
3698.79	0	2097152	2097152	
3714.14	0	2097152	2097152	
3729.49	0	2097152	2097152	
3744.84	0	2097152	2097152	
3760.19	0	2097152	2097152	
3775.53	0	2097152	2097152	
3790.88	0	2097152	2097152	
3806.23	0	2097152	2097152	
3821.58	0	2097152	2097152	
3836.92	0	2097152	2097152	
3852.27	0	2097152	2097152	
3867.62	0	2097152	2097152	
3882.97	0	2097152	2097152	
3898.31	0	2097152	2097152	
3913.66	0	2097152	2097152	
3929.01	0	2097152	2097152	
3944.36	0	2097152	2097152	
3959.71	0	2097152	2097152	
3975.05	0	2097152	2097152	
3990.4	0	2097152	2097152	
4005.75	0	2097152	2097152	
4021.1	0	2097152	2097152	
4036.44	0	2097152	2097152	
4051.79	0	2097152	2097152	
4067.14	0	2097152	2097152	
4082.49	0	2097152	2097152	
4097.83	0	2097152	2097152	
4113.18	0	2097152	2097152	
4128.53	0	2097152	2097152	
4143.88	0	2097152	2097152	
4159.23	0	2097152	2097152	
4174.57	0	2097152	2097152	
4189.92	0	2097152	2097152	
4205.27	0	2097152	2097152	
4220.62	0	2097152	2097152	
4235.96	0	2097152	2097152	
4251.31	0	2097152	2097152	
4266.66	0	2097152	2097152	
4282.01	0	2097152	2097152	
4297.35	0	2097152	2097152	
4312.7	0	2097152	2097152	
4328.05	0	2097152	2097152	
4343.4	0	2097152	2097152	
4358.75	0	2097152	2097152	
4374.09	0	2097152	2097152	
4389.44	0	2097152	2097152	
4404.79	0	2097152	2097152	
4420.14	0	2097152	2097152	
4435.48	0	2097152	2097152	
4450.83	0	2097152	2097152	
4466.18	0	2097152	2097152	
4481.53	0	2097152	2097152	
4496.87	0	2097152	2097152	
4512.22	0	2097152	2097152	
4527.57	0	2097152	2097152	
4542.92	0	2097152	2097152	
4558.27	0	2097152	2097152	
4573.61	0	2097152	2097152	
4588.96	0	2097152	2097152	
4604.31	0	2097152	2097152	
4619.66	0	2097152	2097152	
4635	0	2097152	2097152	
4650.35	0	2097152	2097152	
4665.7	0	2097152	2097152	
4681.05	0	2097152	2097152	
4696.39	0	2097152	2097152	
4711.74	0	2097152	2097152	
4727.09	0	2097152	2097152	
4742.44	0	2097152	2097152	
4757.79	0	2097152	2097152	
4773.13	0	2097152	2097152	
4788.48	0	2097152	2097152	
4803.83	0	2097152	2097152	
4819.18	0	2097152	2097152	
4834.52	0	2097152	2097152	
4849.87	0	2097152	2097152	
4865.22	0	2097152	2097152	
4880.57	0	2097152	2097152	
4895.91	0	2097152	2097152	
4911.26	0	2097152	2097152	
4926.61	0	2097152	2097152	
4941.96	0	2097152	2097152	
4957.31	0	2097152	2097152	
4972.65	0	2097152	2097152	
4988	0	2097152	2097152	
5003.35	0	2097152	2097152	
5018.7	0	2097152	2097152	
5034.04	0	2097152	2097152	
5049.39	0	2097152	2097152	
5064.74	0	2097152	2097152	
5080.09	0	2097152	2097152	
5095.43	0	2097152	2097152	
5110.78	0	2097152	2097152	
5126.13	0	2097152	2097152	
5141.48	0	2097152	2097152	
5156.83	0	2097152	2097152	
5172.17	0	2097152	2097152	
5187.52	0	2097152	2097152	
5202.87	0	2097152	2097152	
5218.22	0	2097152	2097152	
5233.56	0	2097152	2097152	
5248.91	0	2097152	2097152	
5264.26	0	2097152	2097152	
5279.61	0	2097152	2097152	
5294.95	0	2097152	2097152	
5310.3	0	2097152	2097152	
5325.65	0	2097152	2097152	
5341	0	2097152	2097152	
5356.35	0	2097152	2097152	
5371.69	0	2097152	2097152	
5387.04	0	2097152	2097152	
5402.39	0	2097152	2097152	
5417.74	0	2097152	2097152	
5433.08	0	2097152	2097152	
5448.43	0	2097152	2097152	
5463.78	0	2097152	2097152	
5479.13	0	2097152	2097152	
5494.47	0	2097152	2097152	
5509.82	0	2097152	2097152	
5525.17	0	2097152	2097152	
5540.52	0	2097152	2097152	
5555.87	0	2097152	2097152	
5571.21	0	2097152	2097152	
5586.56	0	2097152	2097152	
5601.91	0	2097152	2097152	
5617.26	0	2097152	2097152	
5632.6	0	2097152	2097152	
5647.95	0	2097152	2097152	
5663.3	0	2097152	2097152	
5678.65	0	2097152	2097152	
5693.99	0	2097152	2097152	
5709.34	0	2097152	2097152	
5724.69	0	2097152	2097152	
5740.04	0	2097152	2097152	
5755.39	0	2097152	2097152	
5770.73	0	2097152	2097152	
5786.08	0	2097152	2097152	
5801.43	0	2097152	2097152	
5816.78	0	2097152	2097152	
5832.12	0	2097152	2097152	
5847.47	0	2097152	2097152	
5862.82	0	2097152	2097152	
5878.17	0	2097152	2097152	
5893.51	0	2097152	2097152	
5908.86	0	2097152	2097152	
5924.21	0	2097152	2097152	
5939.56	0	2097152	2097152	
5954.91	0	2097152	2097152	
5970.25	0	2097152	2097152	
5985.6	0	2097152	2097152	
6000.95	0	2097152	2097152	
6016.3	0	2097152	2097152	
6031.64	0	2097152	2097152	
6046.99	0	2097152	2097152	
6062.34	0	2097152	2097152	
6077.69	0	2097152	2097152	
6093.03	0	2097152	2097152	
6108.38	0	2097152	2097152	
6123.73	0	2097152	2097152	
6139.08	0	2097152	2097152	
6154.43	0	2097152	2097152	
6169.77	0	2097152	2097152	
6185.12	0	2097152	2097152	
6200.47	0	2097152	2097152	
6215.82	0	2097152	2097152	
6231.16	0	2097152	2097152	
6246.51	0	2097152	2097152	
6261.86	0	2097152	2097152	
6277.21	0	2097152	2097152	
6292.56	0	2097152	2097152	
6307.9	0	2097152	2097152	
6323.25	0	2097152	2097152	
6338.6	0	2097152	2097152	
6353.95	0	2097152	2097152	
6369.29	0	2097152	2097152	
6384.64	0	2097152	2097152	
6399.99	0	2097152	2097152	
6415.34	0	2097152	2097152	
6430.68	0	2097152	2097152	
6446.03	0	2097152	2097152	
6461.38	0	2097152	2097152	
6476.73	0	2097152	2097152	
6492.08	0	2097152	2097152	
6507.42	0	2097152	2097152	
6522.77	0	2097152	2097152	
6538.12	0	2097152	2097152	
6553.47	0	2097152	2097152	
6568.81	0	2097152	2097152	
6584.16	0	2097152	2097152	
6599.51	0	2097152	2097152	
6614.86	0	2097152	2097152	
6630.2	0	2097152	2097152	
6645.55	0	2097152	2097152	
6660.9	0	2097152	2097152	
6676.25	0	2097152	2097152	
6691.6	0	2097152	2097152	
6706.94	0	2097152	2097152	
6722.29	0	2097152	2097152	
6737.64	0	2097152	2097152	
6752.99	0	2097152	2097152	
6768.33	0	2097152	2097152	
6783.68	0	2097152	2097152	
6799.03	0	2097152	2097152	
6814.38	0	2097152	2097152	
6829.72	0	2097152	2097152	
6845.07	0	2097152	2097152	
6860.42	0	2097152	2097152	
6875.77	0	2097152	2097152	
6891.12	0	2097152	2097152	
6906.46	0	2097152	2097152	
6921.81	0	2097152	2097152	
6937.16	0	2097152	2097152	
6952.51	0	2097152	2097152	
6967.85	0	2097152	2097152	
6983.2	0	2097152	2097152	
6998.55	0	2097152	2097152	
7013.9	0	2097152	2097152	
7029.24	0	2097152	2097152	
7044.59	0	2097152	2097152	
7059.94	0	2097152	2097152	
7075.29	0	2097152	2097152	
7090.64	0	2097152	2097152	
7105.98	0	2097152	2097152	
7121.33	0	2097152	2097152	
7136.68	0	2097152	2097152	
7152.03	0	2097152	2097152	
7167.37	0	2097152	2097152	
7182.72	0	2097152	2097152	
7198.07	0	2097152	2097152	
7213.42	0	2097152	2097152	
7228.76	0	2097152	2097152	
7244.11	0	2097152	2097152	
7259.46	0	2097152	2097152	
7274.81	0	2097152	2097152	
7290.16	0	2097152	2097152	
7305.5	0	2097152	2097152	
7320.85	0	2097152	2097152	
7336.2	0	2097152	2097152	
7351.55	0	2097152	2097152	
7366.89	0	2097152	2097152	
7382.24	0	2097152	2097152	
7397.59	0	2097152	2097152	
7412.94	0	2097152	2097152	
7428.28	0	2097152	2097152	
7443.63	0	2097152	2097152	
7458.98	0	2097152	2097152	
7474.33	0	2097152	2097152	
7489.68	0	2097152	2097152	
7505.02	0	2097152	2097152	
7520.37	0	2097152	2097152	
7535.72	0	2097152	2097152	
7551.07	0	2097152	2097152	
7566.41	0	2097152	2097152	
7581.76	0	2097152	2097152	
7597.11	0	2097152	2097152	
7612.46	0	2097152	2097152	
7627.8	0	2097152	2097152	
7643.15	0	2097152	2097152	
7658.5	0	2097152	2097152	
7673.85	0	2097152	2097152	
7689.2	0	2097152	2097152	
7704.54	0	2097152	2097152	
7719.89	0	2097152	2097152	
7735.24	0	2097152	2097152	
7750.59	0	2097152	2097152	
7765.93	0	2097152	2097152	
7781.28	0	2097152	2097152	
7796.63	0	2097152	2097152	
7811.98	0	2097152	2097152	
7827.32	0	2097152	2097152	
7842.67	0	2097152	2097152	
7858.02	0	2097152	2097152	
7873.37	0	2097152	2097152	
7888.72	0	2097152	2097152	
7904.06	0	2097152	2097152	
7919.41	0	2097152	2097152	
7934.76	0	2097152	2097152	
7950.11	0	2097152	2097152	
7965.45	0	2097152	2097152	
7980.8	0	2097152	2097152	
7996.15	0	2097152	2097152	
8011.5	0	2097152	2097152	
8026.84	0	2097152	2097152	
8042.19	0	2097152	2097152	
8057.54	0	2097152	2097152	
8072.89	0	2097152	2097152	
8088.24	0	2097152	2097152	
8103.58	0	2097152	2097152	
8118.93	0	2097152	2097152	
8134.28	0	2097152	2097152	
8149.63	0	2097152	2097152	
8164.97	0	2097152	2097152	
8180.32	0	2097152	2097152	
8195.67	0	2097152	2097152	
8211.02	0	2097152	2097152	
8226.36	0	2097152	2097152	
8241.71	0	2097152	2097152	
8257.06	0	2097152	2097152	
8272.41	0	2097152	2097152	
8287.76	0	2097152	2097152	
8303.1	0	2097152	2097152	
8318.45	0	2097152	2097152	
8333.8	0	2097152	2097152	
8349.15	0	2097152	2097152	
8364.49	0	2097152	2097152	
8379.84	0	2097152	2097152	
8395.19	0	2097152	2097152	
8410.54	0	2097152	2097152	
8425.88	0	2097152	2097152	
8441.23	0	2097152	2097152	
8456.58	0	2097152	2097152	
8471.93	0	2097152	2097152	
8487.28	0	2097152	2097152	
8502.62	0	2097152	2097152	
8517.97	0	2097152	2097152	
8533.32	0	2097152	2097152	
8548.67	0	2097152	2097152	
8564.01	0	2097152	2097152	
8579.36	0	2097152	2097152	
8594.71	0	2097152	2097152	
8610.06	0	2097152	2097152	
8625.4	0	2097152	2097152	
8640.75	0	2097152	2097152	
8656.1	0	2097152	2097152	
8671.45	0	2097152	2097152	
8686.8	0	2097152	2097152	
8702.14	0	2097152	2097152	
8717.49	0	2097152	2097152	
8732.84	0	2097152	2097152	
8748.19	0	2097152	2097152	
8763.53	0	2097152	2097152	
8778.88	0	2097152	2097152	
8794.23	0	2097152	2097152	
8809.58	0	2097152	2097152	
8824.92	0	2097152	2097152	
8840.27	0	2097152	2097152	
8855.62	0	2097152	2097152	
8870.97	0	2097152	2097152	
8886.32	0	2097152	2097152	
8901.66	0	2097152	2097152	
8917.01	0	2097152	2097152	
8932.36	0	2097152	2097152	
8947.71	0	2097152	2097152	
8963.05	0	2097152	2097152	
8978.4	0	2097152	2097152	
8993.75	0	2097152	2097152	
9009.1	0	2097152	2097152	
9024.44	0	2097152	2097152	
9039.79	0	2097152	2097152	
9055.14	0	2097152	2097152	
9070.49	0	2097152	2097152	
9085.84	0	2097152	2097152	
9101.18	0	2097152	2097152	
9116.53	0	2097152	2097152	
9131.88	0	2097152	2097152	
9147.23	0	2097152	2097152	
9162.57	0	2097152	2097152	
9177.92	0	2097152	2097152	
9193.27	0	2097152	2097152	
9208.62	0	2097152	2097152	
9223.96	0	2097152	2097152	
9239.31	0	2097152	2097152	
9254.66	0	2097152	2097152	
9270.01	0	2097152	2097152	
9285.36	0	2097152	2097152	
9300.7	0	2097152	2097152	
9316.05	0	2097152	2097152	
9331.4	0	2097152	2097152	
9346.75	0	2097152	2097152	
9362.09	0	2097152	2097152	
9377.44	0	2097152	2097152	
9392.79	0	2097152	2097152	
9408.14	0	2097152	2097152	
9423.48	0	2097152	2097152	
9438.83	0	2097152	2097152	
9454.18	0	2097152	2097152	
9469.53	0	2097152	2097152	
9484.88	0	2097152	2097152	
9500.22	0	2097152	2097152	
9515.57	0	2097152	2097152	
9530.92	0	2097152	2097152	
9546.27	0	2097152	2097152	
9561.61	0	2097152	2097152	
9576.96	0	2097152	2097152	
9592.31	0	2097152	2097152	
9607.66	0	2097152	2097152	
9623	0	2097152	2097152	
9638.35	0	2097152	2097152	
9653.7	0	2097152	2097152	
9669.05	0	2097152	2097152	
9684.4	0	2097152	2097152	
9699.74	0	2097152	2097152	
9715.09	0	2097152	2097152	
9730.44	0	2097152	2097152	
9745.79	0	2097152	2097152	
9761.13	0	2097152	2097152	
9776.48	0	2097152	2097152	
9791.83	0	2097152	2097152	
9807.18	0	2097152	2097152	
9822.52	0	2097152	2097152	
9837.87	0	2097152	2097152	
9853.22	0	2097152	2097152	
9868.57	0	2097152	2097152	
9883.92	0	2097152	2097152	
9899.26	0	2097152	2097152	
9914.61	0	2097152	2097152	
9929.96	0	2097152	2097152	
9945.31	0	2097152	2097152	
9960.65	0	2097152	2097152	
9976	0	2097152	2097152	
9991.35	0	2097152	2097152	
10006.7	0	2097152	2097152	
10022	0	2097152	2097152	
10037.4	0	2097152	2097152	
10052.7	0	2097152	2097152	
10068.1	0	2097152	2097152	
10083.4	0	2097152	2097152	
10098.8	0	2097152	2097152	
10114.1	0	2097152	2097152	
10129.5	0	2097152	2097152	
10144.8	0	2097152	2097152	
10160.2	0	2097152	2097152	
10175.5	0	2097152	2097152	
10190.9	0	2097152	2097152	
10206.2	0	2097152	2097152	
10221.6	0	2097152	2097152	
10236.9	0	2097152	2097152	
10252.3	0	2097152	2097152	
10267.6	0	2097152	2097152	
10283	0	2097152	2097152	
10298.3	0	2097152	2097152	
10313.7	0	2097152	2097152	
10329	0	2097152	2097152	
10344.3	0	2097152	2097152	
10359.7	0	2097152	2097152	
10375	0	2097152	2097152	
10390.4	0	2097152	2097152	
10405.7	0	2097152	2097152	
10421.1	0	2097152	2097152	
10436.4	0	2097152	2097152	
10451.8	0	2097152	2097152	
10467.1	0	2097152	2097152	
10482.5	0	2097152	2097152	
10497.8	0	2097152	2097152	
10513.2	0	2097152	2097152	
10528.5	0	2097152	2097152	
10543.9	0	2097152	2097152	
10559.2	0	2097152	2097152	
10574.6	0	2097152	2097152	
10589.9	0	2097152	2097152	
10605.3	0	2097152	2097152	
10620.6	0	2097152	2097152	
10636	0	2097152	2097152	
10651.3	0	2097152	2097152	
10666.6	0	2097152	2097152	
10682	0	2097152	2097152	
10697.3	0	2097152	2097152	
10712.7	0	2097152	2097152	
10728	0	2097152	2097152	
10743.4	0	2097152	2097152	
10758.7	0	2097152	2097152	
10774.1	0	2097152	2097152	
10789.4	0	2097152	2097152	
10804.8	0	2097152	2097152	
10820.1	0	2097152	2097152	
10835.5	0	2097152	2097152	
10850.8	0	2097152	2097152	
10866.2	0	2097152	2097152	
10881.5	0	2097152	2097152	
10896.9	0	2097152	2097152	
10912.2	0	2097152	2097152	
10927.6	0	2097152	2097152	
10942.9	0	2097152	2097152	
10958.3	0	2097152	2097152	
10973.6	0	2097152	2097152	
10988.9	0	2097152	2097152	
11004.3	0	2097152	2097152	
11019.6	0	2097152	2097152	
11035	0	2097152	2097152	
11050.3	0	2097152	2097152	
11065.7	0	2097152	2097152	
11081	0	2097152	2097152	
11096.4	0	2097152	2097152	
11111.7	0	2097152	2097152	
11127.1	0	2097152	2097152	
11142.4	0	2097152	2097152	
11157.8	0	2097152	2097152	
11173.1	0	2097152	2097152	
11188.5	0	2097152	2097152	
11203.8	0	2097152	2097152	
11219.2	0	2097152	2097152	
11234.5	0	2097152	2097152	
11249.9	0	2097152	2097152	
11265.2	0	2097152	2097152	
11280.6	0	2097152	2097152	
11295.9	0	2097152	2097152	
11311.3	0	2097152	2097152	
11326.6	0	2097152	2097152	
11341.9	0	2097152	2097152	
11357.3	0	2097152	2097152	
11372.6	0	2097152	2097152	
11388	0	2097152	2097152	
11403.3	0	2097152	2097152	
11418.7	0	2097152	2097152	
11434	0	2097152	2097152	
11449.4	0	2097152	2097152	
11464.7	0	2097152	2097152	
11480.1	0	2097152	2097152	
11495.4	0	2097152	2097152	
11510.8	0	2097152	2097152	
11526.1	0	2097152	2097152	
11541.5	0	2097152	2097152	
11556.8	0	2097152	2097152	
11572.2	0	2097152	2097152	
11587.5	0	2097152	2097152	
11602.9	0	2097152	2097152	
11618.2	0	2097152	2097152	
11633.6	0	2097152	2097152	
11648.9	0	2097152	2097152	
11664.2	0	2097152	2097152	
11679.6	0	2097152	2097152	
11694.9	0	2097152	2097152	
11710.3	0	2097152	2097152	
11725.6	0	2097152	2097152	
11741	0	2097152	2097152	
11756.3	0	2097152	2097152	
11771.7	0	2097152	2097152	
11787	0	2097152	2097152	
11802.4	0	2097152	2097152	
11817.7	0	2097152	2097152	
11833.1	0	2097152	2097152	
11848.4	0	2097152	2097152	
11863.8	0	2097152	2097152	
11879.1	0	2097152	2097152	
11894.5	0	2097152	2097152	
11909.8	0	2097152	2097152	
11925.2	0	2097152	2097152	
11940.5	0	2097152	2097152	
11955.9	0	2097152	2097152	
11971.2	0	2097152	2097152	
11986.5	0	2097152	2097152	
12001.9	0	2097152	2097152	
12017.2	0	2097152	2097152	
12032.6	0	2097152	2097152	
12047.9	0	2097152	2097152	
12063.3	0	2097152	2097152	
12078.6	0	2097152	2097152	
12094	0	2097152	2097152	
12109.3	0	2097152	2097152	
12124.7	0	2097152	2097152	
12140	0	2097152	2097152	
12155.4	0	2097152	2097152	
12170.7	0	2097152	2097152	
12186.1	0	2097152	2097152	
12201.4	0	2097152	2097152	
12216.8	0	2097152	2097152	
12232.1	0	2097152	2097152	
12247.5	0	2097152	2097152	
12262.8	0	2097152	2097152	
12278.2	0	2097152	2097152	
12293.5	0	2097152	2097152	
12308.9	0	2097152	2097152	
12324.2	0	2097152	2097152	
12339.5	0	2097152	2097152	
12354.9	0	2097152	2097152	
12370.2	0	2097152	2097152	
12385.6	0	2097152	2097152	
12400.9	0	2097152	2097152	
12416.3	0	2097152	2097152	
12431.6	0	2097152	2097152	
12447	0	2097152	2097152	
12462.3	0	2097152	2097152	
12477.7	0	2097152	2097152	
12493	0	2097152	2097152	
12508.4	0	2097152	2097152	
12523.7	0	2097152	2097152	
12539.1	0	2097152	2097152	
12554.4	0	2097152	2097152	
12569.8	0	2097152	2097152	
12585.1	0	2097152	2097152	
12600.5	0	2097152	2097152	
12615.8	0	2097152	2097152	
12631.2	0	2097152	2097152	
12646.5	0	2097152	2097152	
12661.8	0	2097152	2097152	
12677.2	0	2097152	2097152	
12692.5	0	2097152	2097152	
12707.9	0	2097152	2097152	
12723.2	0	2097152	2097152	
12738.6	0	2097152	2097152	
12753.9	0	2097152	2097152	
12769.3	0	2097152	2097152	
12784.6	0	2097152	2097152	
12800	0	2097152	2097152	
12815.3	0	2097152	2097152	
12830.7	0	2097152	2097152	
12846	0	2097152	2097152	
12861.4	0	2097152	2097152	
12876.7	0	2097152	2097152	
12892.1	0	2097152	2097152	
12907.4	0	2097152	2097152	
12922.8	0	2097152	2097152	
12938.1	0	2097152	2097152	
12953.5	0	2097152	2097152	
12968.8	0	2097152	2097152	
12984.2	0	2097152	2097152	
12999.5	0	2097152	2097152	
13014.8	0	2097152	2097152	
13030.2	0	2097152	2097152	
13045.5	0	2097152	2097152	
13060.9	0	2097152	2097152	
13076.2	0	2097152	2097152	
13091.6	0	2097152	2097152	
13106.9	0	2097152	2097152	
13122.3	0	2097152	2097152	
13137.6	0	2097152	2097152	
13153	0	2097152	2097152	
13168.3	0	2097152	2097152	
13183.7	0	2097152	2097152	
13199	0	2097152	2097152	
13214.4	0	2097152	2097152	
13229.7	0	2097152	2097152	
13245.1	0	2097152	2097152	
13260.4	0	2097152	2097152	
13275.8	0	2097152	2097152	
13291.1	0	2097152	2097152	
13306.5	0	2097152	2097152	
13321.8	0	2097152	2097152	
13337.1	0	2097152	2097152	
13352.5	0	2097152	2097152	
13367.8	0	2097152	2097152	
13383.2	0	2097152	2097152	
13398.5	0	2097152	2097152	
13413.9	0	2097152	2097152	
13429.2	0	2097152	2097152	
13444.6	0	2097152	2097152	
13459.9	0	2097152	2097152	
13475.3	0	2097152	2097152	
13490.6	0	2097152	2097152	
13506	0	2097152	2097152	
13521.3	0	2097152	2097152	
13536.7	0	2097152	2097152	
13552	0	2097152	2097152	
13567.4	0	2097152	2097152	
13582.7	0	2097152	2097152	
13598.1	0	2097152	2097152	
13613.4	0	2097152	2097152	
13628.8	0	2097152	2097152	
13644.1	0	2097152	2097152	
13659.4	0	2097152	2097152	
13674.8	0	2097152	2097152	
13690.1	0	2097152	2097152	
13705.5	0	2097152	2097152	
13720.8	0	2097152	2097152	
13736.2	0	2097152	2097152	
13751.5	0	2097152	2097152	
13766.9	0	2097152	2097152	
13782.2	0	2097152	2097152	
13797.6	0	2097152	2097152	
13812.9	0	2097152	2097152	
13828.3	0	2097152	2097152	
13843.6	0	2097152	2097152	
13859	0	2097152	2097152	
13874.3	0	2097152	2097152	
13889.7	0	2097152	2097152	
13905	0	2097152	2097152	
13920.4	0	2097152	2097152	
13935.7	0	2097152	2097152	
13951.1	0	2097152	2097152	
13966.4	0	2097152	2097152	
13981.8	0	2097152	2097152	
13997.1	0	2097152	2097152	
14012.4	0	2097152	2097152	
14027.8	0	2097152	2097152	
14043.1	0	2097152	2097152	
14058.5	0	2097152	2097152	
14073.8	0	2097152	2097152	
14089.2	0	2097152	2097152	
14104.5	0	2097152	2097152	
14119.9	0	2097152	2097152	
14135.2	0	2097152	2097152	
14150.6	0	2097152	2097152	
14165.9	0	2097152	2097152	
14181.3	0	2097152	2097152	
14196.6	0	2097152	2097152	
14212	0	2097152	2097152	
14227.3	0	2097152	2097152	
14242.7	0	2097152	2097152	
14258	0	2097152	2097152	
14273.4	0	2097152	2097152	
14288.7	0	2097152	2097152	
14304.1	0	2097152	2097152	
14319.4	0	2097152	2097152	
14334.7	0	2097152	2097152	
14350.1	0	2097152	2097152	
14365.4	0	2097152	2097152	
14380.8	0	2097152	2097152	
14396.1	0	2097152	2097152	
14411.5	0	2097152	2097152	
14426.8	0	2097152	2097152	
14442.2	0	2097152	2097152	
14457.5	0	2097152	2097152	
14472.9	0	2097152	2097152	
14488.2	0	2097152	2097152	
14503.6	0	2097152	2097152	
14518.9	0	2097152	2097152	
14534.3	0	2097152	2097152	
14549.6	0	2097152	2097152	
14565	0	2097152	2097152	
14580.3	0	2097152	2097152	
14595.7	0	2097152	2097152	
14611	0	2097152	2097152	
14626.4	0	2097152	2097152	
14641.7	0	2097152	2097152	
14657	0	2097152	2097152	
14672.4	0	2097152	2097152	
14687.7	0	2097152	2097152	
14703.1	0	2097152	2097152	
14718.4	0	2097152	2097152	
14733.8	0	2097152	2097152	
14749.1	0	2097152	2097152	
14764.5	0	2097152	2097152	
14779.8	0	2097152	2097152	
14795.2	0	2097152	2097152	
14810.5	0	2097152	2097152	
14825.9	0	2097152	2097152	
14841.2	0	2097152	2097152	
14856.6	0	2097152	2097152	
14871.9	0	2097152	2097152	
14887.3	0	2097152	2097152	
14902.6	0	2097152	2097152	
14918	0	2097152	2097152	
14933.3	0	2097152	2097152	
14948.7	0	2097152	2097152	
14964	0	2097152	2097152	
14979.4	0	2097152	2097152	
14994.7	0	2097152	2097152	
15010	0	2097152	2097152	
15025.4	0	2097152	2097152	
15040.7	0	2097152	2097152	
15056.1	0	2097152	2097152	
15071.4	0	2097152	2097152	
15086.8	0	2097152	2097152	
15102.1	0	2097152	2097152	
15117.5	0	2097152	2097152	
15132.8	0	2097152	2097152	
15148.2	0	2097152	2097152	
15163.5	0	2097152	2097152	
15178.9	0	2097152	2097152	
15194.2	0	2097152	2097152	
15209.6	0	2097152	2097152	
15224.9	0	2097152	2097152	
15240.3	0	2097152	2097152	
15255.6	0	2097152	2097152	
15271	0	2097152	2097152	
15286.3	0	2097152	2097152	
15301.7	0	2097152	2097152	
15317	0	2097152	2097152	
15332.3	0	2097152	2097152	
15347.7	0	2097152	2097152	
15363	0	2097152	2097152	
15378.4	0	2097152	2097152	
15393.7	0	2097152	2097152	
15409.1	0	2097152	2097152	
15424.4	0	2097152	2097152	
15439.8	0	2097152	2097152	
15455.1	0	2097152	2097152	
15470.5	0	2097152	2097152	
15485.8	0	2097152	2097152	
15501.2	0	2097152	2097152	
15516.5	0	2097152	2097152	
15531.9	0	2097152	2097152	
15547.2	0	2097152	2097152	
15562.6	0	2097152	2097152	
15577.9	0	2097152	2097152	
15593.3	0	2097152	2097152	
15608.6	0	2097152	2097152	
15624	0	2097152	2097152	
15639.3	0	2097152	2097152	
15654.6	0	2097152	2097152	
15670	0	2097152	2097152	
15685.3	0	2097152	2097152	
15700.7	0	2097152	2097152	
15716	0	2097152	2097152	
15731.4	0	2097152	2097152	
15746.7	0	2097152	2097152	
15762.1	0	2097152	2097152	
15777.4	0	2097152	2097152	
15792.8	0	2097152	2097152	
15808.1	0	2097152	2097152	
15823.5	0	2097152	2097152	
15838.8	0	2097152	2097152	
15854.2	0	2097152	2097152	
15869.5	0	2097152	2097152	
15884.9	0	2097152	2097152	
15900.2	0	2097152	2097152	
15915.6	0	2097152	2097152	
15930.9	0	2097152	2097152	
15946.3	0	2097152	2097152	
15961.6	0	2097152	2097152	
15977	0	2097152	2097152	
15992.3	0	2097152	2097152	
16007.6	0	2097152	2097152	
16023	0	2097152	2097152	
16038.3	0	2097152	2097152	
16053.7	0	2097152	2097152	
16069	0	2097152	2097152	
16084.4	0	2097152	2097152	
16099.7	0	2097152	2097152	
16115.1	0	2097152	2097152	
16130.4	0	2097152	2097152	
16145.8	0	2097152	2097152	
16161.1	0	2097152	2097152	
16176.5	0	2097152	2097152	
16191.8	0	2097152	2097152	
16207.2	0	2097152	2097152	
16222.5	0	2097152	2097152	
16237.9	0	2097152	2097152	
16253.2	0	2097152	2097152	
16268.6	0	2097152	2097152	
16283.9	0	2097152	2097152	
16299.3	0	2097152	2097152	
16314.6	0	2097152	2097152	
16329.9	0	2097152	2097152	
16345.3	0	2097152	2097152	
16360.6	0	2097152	2097152	
16376	0	2097152	2097152	
16391.3	0	2097152	2097152	
16406.7	0	2097152	2097152	
16422	0	2097152	2097152	
16437.4	0	2097152	2097152	
16452.7	0	2097152	2097152	
16468.1	0	2097152	2097152	
16483.4	0	2097152	2097152	
16498.8	0	2097152	2097152	
16514.1	0	2097152	2097152	
16529.5	0	2097152	2097152	
16544.8	0	2097152	2097152	
16560.2	0	2097152	2097152	
16575.5	0	2097152	2097152	
16590.9	0	2097152	2097152	
16606.2	0	2097152	2097152	
16621.6	0	2097152	2097152	
16636.9	0	2097152	2097152	
16652.2	0	2097152	2097152	
16667.6	0	2097152	2097152	
16682.9	0	2097152	2097152	
16698.3	0	2097152	2097152	
16713.6	0	2097152	2097152	
16729	0	2097152	2097152	
16744.3	0	2097152	2097152	
16759.7	0	2097152	2097152	
16775	0	2097152	2097152	
16790.4	0	2097152	2097152	
16805.7	0	2097152	2097152	
16821.1	0	2097152	2097152	
16836.4	0	2097152	2097152	
16851.8	0	2097152	2097152	
16867.1	0	2097152	2097152	
16882.5	0	2097152	2097152	
16897.8	0	2097152	2097152	
16913.2	0	2097152	2097152	
16928.5	0	2097152	2097152	
16943.9	0	2097152	2097152	
16959.2	0	2097152	2097152	
16974.6	0	2097152	2097152	
16989.9	0	2097152	2097152	
17005.2	0	2097152	2097152	
17020.6	0	2097152	2097152	
17035.9	0	2097152	2097152	
17051.3	0	2097152	2097152	
17066.6	0	2097152	2097152	
17082	0	2097152	2097152	
17097.3	0	2097152	2097152	
17112.7	0	2097152	2097152	
17128	0	2097152	2097152	
17143.4	0	2097152	2097152	
17158.7	0	2097152	2097152	
17174.1	0	2097152	2097152	
17189.4	0	2097152	2097152	
17204.8	0	2097152	2097152	
17220.1	0	2097152	2097152	
17235.5	0	2097152	2097152	
17250.8	0	2097152	2097152	
17266.2	0	2097152	2097152	
17281.5	0	2097152	2097152	
17296.9	0	2097152	2097152	
17312.2	0	2097152	2097152	
17327.5	0	2097152	2097152	
17342.9	0	2097152	2097152	
17358.2	0	2097152	2097152	
17373.6	0	2097152	2097152	
17388.9	0	2097152	2097152	
17404.3	0	2097152	2097152	
17419.6	0	2097152	2097152	
17435	0	2097152	2097152	
17450.3	0	2097152	2097152	
17465.7	0	2097152	2097152	
17481	0	2097152	2097152	
17496.4	0	2097152	2097152	
17511.7	0	2097152	2097152	
17527.1	0	2097152	2097152	
17542.4	0	2097152	2097152	
17557.8	0	2097152	2097152	
17573.1	0	2097152	2097152	
17588.5	0	2097152	2097152	
17603.8	0	2097152	2097152	
17619.2	0	2097152	2097152	
17634.5	0	2097152	2097152	
17649.8	0	2097152	2097152	
17665.2	0	2097152	2097152	
17680.5	0	2097152	2097152	
17695.9	0	2097152	2097152	
17711.2	0	2097152	2097152	
17726.6	0	2097152	2097152	
17741.9	0	2097152	2097152	
17757.3	0	2097152	2097152	
17772.6	0	2097152	2097152	
17788	0	2097152	2097152	
17803.3	0	2097152	2097152	
17818.7	0	2097152	2097152	
17834	0	2097152	2097152	
17849.4	0	2097152	2097152	
17864.7	0	2097152	2097152	
17880.1	0	2097152	2097152	
17895.4	0	2097152	2097152	
17910.8	0	2097152	2097152	
17926.1	0	2097152	2097152	
17941.5	0	2097152	2097152	
17956.8	0	2097152	2097152	
17972.2	0	2097152	2097152	
17987.5	0	2097152	2097152	
18002.8	0	2097152	2097152	
18018.2	0	2097152	2097152	
18033.5	0	2097152	2097152	
18048.9	0	2097152	2097152	
18064.2	0	2097152	2097152	
18079.6	0	2097152	2097152	
18094.9	0	2097152	2097152	
18110.3	0	2097152	2097152	
18125.6	0	2097152	2097152	
18141	0	2097152	2097152	
18156.3	0	2097152	2097152	
18171.7	0	2097152	2097152	
18187	0	2097152	2097152	
18202.4	0	2097152	2097152	
18217.7	0	2097152	2097152	
18233.1	0	2097152	2097152	
18248.4	0	2097152	2097152	
18263.8	0	2097152	2097152	
18279.1	0	2097152	2097152	
18294.5	0	2097152	2097152	
18309.8	0	2097152	2097152	
18325.1	0	2097152	2097152	
18340.5	0	2097152	2097152	
18355.8	0	2097152	2097152	
18371.2	0	2097152	2097152	
18386.5	0	2097152	2097152	
18401.9	0	2097152	2097152	
18417.2	0	2097152	2097152	
18432.6	0	2097152	2097152	
18447.9	0	2097152	2097152	
18463.3	0	2097152	2097152	
18478.6	0	2097152	2097152	
18494	0	2097152	2097152	
18509.3	0	2097152	2097152	
18524.7	0	2097152	2097152	
18540	0	2097152	2097152	
18555.4	0	2097152	2097152	
18570.7	0	2097152	2097152	
18586.1	0	2097152	2097152	
18601.4	0	2097152	2097152	
18616.8	0	2097152	2097152	
18632.1	0	2097152	2097152	
18647.4	0	2097152	2097152	
18662.8	0	2097152	2097152	
18678.1	0	2097152	2097152	
18693.5	0	2097152	2097152	
18708.8	0	2097152	2097152	
18724.2	0	2097152	2097152	
18739.5	0	2097152	2097152	
18754.9	0	2097152	2097152	
18770.2	0	2097152	2097152	
18785.6	0	2097152	2097152	
18800.9	0	2097152	2097152	
18816.3	0	2097152	2097152	
18831.6	0	2097152	2097152	
18847	0	2097152	2097152	
18862.3	0	2097152	2097152	
18877.7	0	2097152	2097152	
18893	0	2097152	2097152	
18908.4	0	2097152	2097152	
18923.7	0	2097152	2097152	
18939.1	0	2097152	2097152	
18954.4	0	2097152	2097152	
18969.8	0	2097152	2097152	
18985.1	0	2097152	2097152	
19000.4	0	2097152	2097152	
19015.8	0	2097152	2097152	
19031.1	0	2097152	2097152	
19046.5	0	2097152	2097152	
19061.8	0	2097152	2097152	
19077.2	0	2097152	2097152	
19092.5	0	2097152	2097152	
19107.9	0	2097152	2097152	
19123.2	0	2097152	2097152	
19138.6	0	2097152	2097152	
19153.9	0	2097152	2097152	
19169.3	0	2097152	2097152	
19184.6	0	2097152	2097152	
19200	0	2097152	2097152	
19215.3	0	2097152	2097152	
19230.7	0	2097152	2097152	
19246	0	2097152	2097152	
19261.4	0	2097152	2097152	
19276.7	0	2097152	2097152	
19292.1	0	2097152	2097152	
19307.4	0	2097152	2097152	
19322.7	0	2097152	2097152	
19338.1	0	2097152	2097152	
19353.4	0	2097152	2097152	
19368.8	0	2097152	2097152	
19384.1	0	2097152	2097152	
19399.5	0	2097152	2097152	
19414.8	0	2097152	2097152	
19430.2	0	2097152	2097152	
19445.5	0	2097152	2097152	
19460.9	0	2097152	2097152	
19476.2	0	2097152	2097152	
19491.6	0	2097152	2097152	
19506.9	0	2097152	2097152	
19522.3	0	2097152	2097152	
19537.6	0	2097152	2097152	
19553	0	2097152	2097152	
19568.3	0	2097152	2097152	
19583.7	0	2097152	2097152	
19599	0	2097152	2097152	
19614.4	0	2097152	2097152	
19629.7	0	2097152	2097152	
19645	0	2097152	2097152	
19660.4	0	2097152	2097152	
19675.7	0	2097152	2097152	
19691.1	0	2097152	2097152	
19706.4	0	2097152	2097152	
19721.8	0	2097152	2097152	
19737.1	0	2097152	2097152	
19752.5	0	2097152	2097152	
19767.8	0	2097152	2097152	
19783.2	0	2097152	2097152	
19798.5	0	2097152	2097152	
19813.9	0	2097152	2097152	
19829.2	0	2097152	2097152	
19844.6	0	2097152	2097152	
19859.9	0	2097152	2097152	
19875.3	0	2097152	2097152	
19890.6	0	2097152	2097152	
19906	0	2097152	2097152	
19921.3	0	2097152	2097152	
19936.7	0	2097152	2097152	
19952	0	2097152	2097152	
19967.4	0	2097152	2097152	
19982.7	0	2097152	2097152	
19998	0	2097152	2097152	
20013.4	0	2097152	2097152	
20028.7	0	2097152	2097152	
20044.1	0	2097152	2097152	
20059.4	0	2097152	2097152	
20074.8	0	2097152	2097152	
20090.1	0	2097152	2097152	
20105.5	0	2097152	2097152	
20120.8	0	2097152	2097152	
20136.2	0	2097152	2097152	
20151.5	0	2097152	2097152	
20166.9	0	2097152	2097152	
20182.2	0	2097152	2097152	
20197.6	0	2097152	2097152	
20212.9	0	2097152	2097152	
20228.3	0	2097152	2097152	
20243.6	0	2097152	2097152	
20259	0	2097152	2097152	
20274.3	0	2097152	2097152	
20289.7	0	2097152	2097152	
20305	0	2097152	2097152	
20320.3	0	2097152	2097152	
20335.7	0	2097152	2097152	
20351	0	2097152	2097152	
20366.4	0	2097152	2097152	
20381.7	0	2097152	2097152	
20397.1	0	2097152	2097152	
20412.4	0	2097152	2097152	
20427.8	0	2097152	2097152	
20443.1	0	2097152	2097152	
20458.5	0	2097152	2097152	
20473.8	0	2097152	2097152	
20489.2	0	2097152	2097152	
20504.5	0	2097152	2097152	
20519.9	0	2097152	2097152	
20535.2	0	2097152	2097152	
20550.6	0	2097152	2097152	
20565.9	0	2097152	2097152	
20581.3	0	2097152	2097152	
20596.6	0	2097152	2097152	
20612	0	2097152	2097152	
20627.3	0	2097152	2097152	
20642.7	0	2097152	2097152	
20658	0	2097152	2097152	
20673.3	0	2097152	2097152	
20688.7	0	2097152	2097152	
20704	0	2097152	2097152	
20719.4	0	2097152	2097152	
20734.7	0	2097152	2097152	
20750.1	0	2097152	2097152	
20765.4	0	2097152	2097152	
20780.8	0	2097152	2097152	
20796.1	0	2097152	2097152	
20811.5	0	2097152	2097152	
20826.8	0	2097152	2097152	
20842.2	0	2097152	2097152	
20857.5	0	2097152	2097152	
20872.9	0	2097152	2097152	
20888.2	0	2097152	2097152	
20903.6	0	2097152	2097152	
20918.9	0	2097152	2097152	
20934.3	0	2097152	2097152	
20949.6	0	2097152	2097152	
20965	0	2097152	2097152	
20980.3	0	2097152	2097152	
20995.6	0	2097152	2097152	
21011	0	2097152	2097152	
21026.3	0	2097152	2097152	
21041.7	0	2097152	2097152	
21057	0	2097152	2097152	
21072.4	0	2097152	2097152	
21087.7	0	2097152	2097152	
21103.1	0	2097152	2097152	
21118.4	0	2097152	2097152	
21133.8	0	2097152	2097152	
21149.1	0	2097152	2097152	
21164.5	0	2097152	2097152	
21179.8	0	2097152	2097152	
21195.2	0	2097152	2097152	
21210.5	0	2097152	2097152	
21225.9	0	2097152	2097152	
21241.2	0	2097152	2097152	
21256.6	0	2097152	2097152	
21271.9	0	2097152	2097152	
21287.3	0	2097152	2097152	
21302.6	0	2097152	2097152	
21317.9	0	2097152	2097152	
21333.3	0	2097152	2097152	
21348.6	0	2097152	2097152	
21364	0	2097152	2097152	
21379.3	0	2097152	2097152	
21394.7	0	2097152	2097152	
21410	0	2097152	2097152	
21425.4	0	2097152	2097152	
21440.7	0	2097152	2097152	
21456.1	0	2097152	2097152	
21471.4	0	2097152	2097152	
21486.8	0	2097152	2097152	
21502.1	0	2097152	2097152	
21517.5	0	2097152	2097152	
21532.8	0	2097152	2097152	
21548.2	0	2097152	2097152	
21563.5	0	2097152	2097152	
21578.9	0	2097152	2097152	
21594.2	0	2097152	2097152	
21609.6	0	2097152	2097152	
21624.9	0	2097152	2097152	
21640.3	0	2097152	2097152	
21655.6	0	2097152	2097152	
21670.9	0	2097152	2097152	
21686.3	0	2097152	2097152	
21701.6	0	2097152	2097152	
21717	0	2097152	2097152	
21732.3	0	2097152	2097152	
21747.7	0	2097152	2097152	
21763	0	2097152	2097152	
21778.4	0	2097152	2097152	
21793.7	0	2097152	2097152	
21809.1	0	2097152	2097152	
21824.4	0	2097152	2097152	
21839.8	0	2097152	2097152	
21855.1	0	2097152	2097152	
21870.5	0	2097152	2097152	
21885.8	0	2097152	2097152	
21901.2	0	2097152	2097152	
21916.5	0	2097152	2097152	
21931.9	0	2097152	2097152	
21947.2	0	2097152	2097152	
21962.6	0	2097152	2097152	
21977.9	0	2097152	2097152	
21993.2	0	2097152	2097152	
22008.6	0	2097152	2097152	
22023.9	0	2097152	2097152	
22039.3	0	2097152	2097152	
22054.6	0	2097152	2097152	
22070	0	2097152	2097152	
22085.3	0	2097152	2097152	
22100.7	0	2097152	2097152	
22116	0	2097152	2097152	
22131.4	0	2097152	2097152	
22146.7	0	2097152	2097152	
22162.1	0	2097152	2097152	
22177.4	0	2097152	2097152	
22192.8	0	2097152	2097152	
22208.1	0	2097152	2097152	
22223.5	0	2097152	2097152	
22238.8	-9.09495e-13	2097152	2097152	
22254.2	-9.09495e-13	2097152	2097152	
22269.5	-1.81899e-12	2097152	2097152	
22284.9	-1.81899e-12	2097152	2097152	
22300.2	-2.72848e-12	2097152	2097152	
22315.5	-2.72848e-12	2097152	2097152	
22330.9	-3.63798e-12	2097152	2097152	
22346.2	-3.63798e-12	2097152	2097152	
22361.6	-4.54747e-12	2097152	2097152	
22376.9	-5.45697e-12	2097152	2097152	
22392.3	-6.36646e-12	2097152	2097152	
22407.6	-6.36646e-12	2097152	2097152	
22423	-7.27596e-12	2097152	2097152	
22438.3	-8.18545e-12	2097152	2097152	
22453.7	-9.09495e-12	2097152	2097152	
22469	-1.00044e-11	2097152	2097152	
22484.4	-1.09139e-11	2097152	2097152	
22499.7	-1.18234e-11	2097152	2097152	
22515.1	-1.27329e-11	2097152	2097152	
22530.4	-1.36424e-11	2097152	2097152	
22545.8	-1.45519e-11	2097152	2097152	
22561.1	-1.63709e-11	2097152	2097152	
22576.5	-1.81899e-11	2097152	2097152	
22591.8	-2.00089e-11	2097152	2097152	
22607.2	-2.18279e-11	2097152	2097152	
22622.5	-2.45564e-11	2097152	2097152	
22637.9	-2.63753e-11	2097152	2097152	
22653.2	-2.91038e-11	2097152	2097152	
22668.5	-3.18323e-11	2097152	2097152	
22683.9	-3.45608e-11	2097152	2097152	
22699.2	-3.81988e-11	2097152	2097152	
22714.6	-4.18368e-11	2097152	2097152	
22729.9	-4.54747e-11	2097152	2097152	
22745.3	-5.00222e-11	2097152	2097152	
22760.6	-5.45697e-11	2097152	2097152	
22776	-6.00267e-11	2097152	2097152	
22791.3	-6.54836e-11	2097152	2097152	
22806.7	-7.18501e-11	2097152	2097152	
22822	-7.82165e-11	2097152	2097152	
22837.4	-8.54925e-11	2097152	2097152	
22852.7	-9.3678e-11	2097152	2097152	
22868.1	-1.01863e-10	2097152	2097152	
22883.4	-1.10958e-10	2097152	2097152	
22898.8	-1.20963e-10	2097152	2097152	
22914.1	-1.31877e-10	2097152	2097152	
22929.5	-1.437e-10	2097152	2097152	
22944.8	-1.56433e-10	2097152	2097152	
22960.2	-1.70076e-10	2097152	2097152	
22975.5	-1.84627e-10	2097152	2097152	
22990.8	-2.00998e-10	2097152	2097152	
23006.2	-2.19188e-10	2097152	2097152	
23021.5	-2.38288e-10	2097152	2097152	
23036.9	-2.59206e-10	2097152	2097152	
23052.2	-2.81034e-10	2097152	2097152	
23067.6	-3.0559e-10	2097152	2097152	
23082.9	-3.31966e-10	2097152	2097152	
23098.3	-3.6016e-10	2097152	2097152	
23113.6	-3.90173e-10	2097152	2097152	
23129	-4.22915e-10	2097152	2097152	
23144.3	-4.58385e-10	2097152	2097152	
23159.7	-4.97494e-10	2097152	2097152	
23175	-5.38421e-10	2097152	2097152	
23190.4	-5.82986e-10	2097152	2097152	
23205.7	-6.31189e-10	2097152	2097152	
23221.1	-6.83031e-10	2097152	2097152	
23236.4	-7.3851e-10	2097152	2097152	
23251.8	-7.98536e-10	2097152	2097152	
23267.1	-8.6311e-10	2097152	2097152	
23282.5	-9.33142e-10	2097152	2097152	
23297.8	-1.00772e-09	2097152	2097152	
23313.1	-1.08867e-09	2097152	2097152	
23328.5	-1.17507e-09	2097152	2097152	
23343.8	-1.26693e-09	2097152	2097152	
23359.2	-1.36606e-09	2097152	2097152	
23374.5	-1.47338e-09	2097152	2097152	
23389.9	-1.58798e-09	2097152	2097152	
23405.2	-1.71076e-09	2097152	2097152	
23420.6	-1.84264e-09	2097152	2097152	
23435.9	-1.98361e-09	2097152	2097152	
23451.3	-2.13458e-09	2097152	2097152	
23466.6	-2.29647e-09	2097152	2097152	
23482	-2.47019e-09	2097152	2097152	
23497.3	-2.65572e-09	2097152	2097152	
23512.7	-2.85399e-09	2097152	2097152	
23528	-3.06591e-09	2097152	2097152	
23543.4	-3.29328e-09	2097152	2097152	
23558.7	-3.53521e-09	2097152	2097152	
23574.1	-3.79441e-09	2097152	2097152	
23589.4	-4.0709e-09	2097152	2097152	
23604.8	-4.36648e-09	2097152	2097152	
23620.1	-4.68117e-09	2097152	2097152	
23635.5	-5.01768e-09	2097152	2097152	
23650.8	-5.37602e-09	2097152	2097152	
23666.1	-5.75801e-09	2097152	2097152	
23681.5	-6.16456e-09	2097152	2097152	
23696.8	-6.59838e-09	2097152	2097152	
23712.2	-7.0595e-09	2097152	2097152	
23727.5	-7.55153e-09	2097152	2097152	
23742.9	-8.07449e-09	2097152	2097152	
23758.2	-8.6311e-09	2097152	2097152	
23773.6	-9.22228e-09	2097152	2097152	
23788.9	-9.85074e-09	2097152	2097152	
23804.3	-1.05192e-08	2097152	2097152	
23819.6	-1.12286e-08	2097152	2097152	
23835	-1.19826e-08	2097152	2097152	
23850.3	-1.27829e-08	2097152	2097152	
23865.7	-1.36324e-08	2097152	2097152	
23881	-1.45328e-08	2097152	2097152	
23896.4	-1.54887e-08	2097152	2097152	
23911.7	-1.65019e-08	2097152	2097152	
23927.1	-1.75751e-08	2097152	2097152	
23942.4	-1.87119e-08	2097152	2097152	
23957.8	-1.9917e-08	2097152	2097152	
23973.1	-2.1193e-08	2097152	2097152	
23988.4	-2.25427e-08	2097152	2097152	
24003.8	-2.39706e-08	2097152	2097152	
24019.1	-2.54822e-08	2097152	2097152	
24034.5	-2.70793e-08	2097152	2097152	
24049.8	-2.87682e-08	2097152	2097152	
24065.2	-3.05536e-08	2097152	2097152	
24080.5	-3.2438e-08	2097152	2097152	
24095.9	-3.44289e-08	2097152	2097152	
24111.2	-3.65308e-08	2097152	2097152	
24126.6	-3.8749e-08	2097152	2097152	
24141.9	-4.10882e-08	2097152	2097152	
24157.3	-4.35566e-08	2097152	2097152	
24172.6	-4.61587e-08	2097152	2097152	
24188	-4.89008e-08	2097152	2097152	
24203.3	-5.17912e-08	2097152	2097152	
24218.7	-5.48343e-08	2097152	2097152	
24234	-5.80403e-08	2097152	2097152	
24249.4	-6.14145e-08	2097152	2097152	
24264.7	-6.49652e-08	2097152	2097152	
24280.1	-6.87005e-08	2097152	2097152	
24295.4	-7.26295e-08	2097152	2097152	
24310.7	-7.67604e-08	2097152	2097152	
24326.1	-8.11015e-08	2097152	2097152	
24341.4	-8.56635e-08	2097152	2097152	
24356.8	-9.04556e-08	2097152	2097152	
24372.1	-9.54878e-08	2097152	2097152	
24387.5	-1.0077e-07	2097152	2097152	
24402.8	-1.06314e-07	2097152	2097152	
24418.2	-1.1213e-07	2097152	2097152	
24433.5	-1.1823e-07	2097152	2097152	
24448.9	-1.24626e-07	2097152	2097152	
24464.2	-1.31331e-07	2097152	2097152	
24479.6	-1.38357e-07	2097152	2097152	
24494.9	-1.45717e-07	2097152	2097152	
24510.3	-1.53425e-07	2097152	2097152	
24525.6	-1.61495e-07	2097152	2097152	
24541	-1.69942e-07	2097152	2097152	
24556.3	-1.7878e-07	2097152	2097152	
24571.7	-1.88026e-07	2097152	2097152	
24587	-1.97694e-07	2097152	2097152	
24602.4	-2.07802e-07	2097152	2097152	
24617.7	-2.18366e-07	2097152	2097152	
24633.1	-2.29403e-07	2097152	2097152	
24648.4	-2.40932e-07	2097152	2097152	
24663.7	-2.5297e-07	2097152	2097152	
24679.1	-2.65539e-07	2097152	2097152	
24694.4	-2.78656e-07	2097152	2097152	
24709.8	-2.92342e-07	2097152	2097152	
24725.1	-3.06615e-07	2097152	2097152	
24740.5	-3.215e-07	2097152	2097152	
24755.8	-3.37017e-07	2097152	2097152	
24771.2	-3.53188e-07	2097152	2097152	
24786.5	-3.70036e-07	2097152	2097152	
24801.9	-3.87585e-07	2097152	2097152	
24817.2	-4.05859e-07	2097152	2097152	
24832.6	-4.24883e-07	2097152	2097152	
24847.9	-4.44681e-07	2097152	2097152	
24863.3	-4.6528e-07	2097152	2097152	
24878.6	-4.86707e-07	2097152	2097152	
24894	-5.08988e-07	2097152	2097152	
24909.3	-5.32151e-07	2097152	2097152	
24924.7	-5.56224e-07	2097152	2097152	
24940	-5.81237e-07	2097152	2097152	
24955.4	-6.0722e-07	2097152	2097152	
24970.7	-6.34202e-07	2097152	2097152	
24986	-6.62215e-07	2097152	2097152	
25001.4	-6.9129e-07	2097152	2097152	
25016.7	-7.21458e-07	2097152	2097152	
25032.1	-7.52755e-07	2097152	2097152	
25047.4	-7.85212e-07	2097152	2097152	
25062.8	-8.18864e-07	2097152	2097152	
25078.1	-8.53746e-07	2097152	2097152	
25093.5	-8.89893e-07	2097152	2097152	
25108.8	-9.27343e-07	2097152	2097152	
25124.2	-9.6613e-07	2097152	2097152	
25139.5	-1.00629e-06	2097152	2097152	
25154.9	-1.04787e-06	2097152	2097152	
25170.2	-1.0909e-06	2097152	2097152	
25185.6	-1.13542e-06	2097152	2097152	
25200.9	-1.18147e-06	2097152	2097152	
25216.3	-1.22909e-06	2097152	2097152	
25231.6	-1.27833e-06	2097152	2097152	
25247	-1.32922e-06	2097152	2097152	
25262.3	-1.38181e-06	2097152	2097152	
25277.7	-1.43614e-06	2097152	2097152	
25293	-1.49225e-06	2097152	2097152	
25308.3	-1.55019e-06	2097152	2097152	
25323.7	-1.61001e-06	2097152	2097152	
25339	-1.67174e-06	2097152	2097152	
25354.4	-1.73543e-06	2097152	2097152	
25369.7	-1.80113e-06	2097152	2097152	
25385.1	-1.86889e-06	2097152	2097152	
25400.4	-1.93875e-06	2097152	2097152	
25415.8	-2.01076e-06	2097152	2097152	
25431.1	-2.08496e-06	2097152	2097152	
25446.5	-2.16142e-06	2097152	2097152	
25461.8	-2.24017e-06	2097152	2097152	
25477.2	-2.32126e-06	2097152	2097152	
25492.5	-2.40475e-06	2097152	2097152	
25507.9	-2.49068e-06	2097152	2097152	
25523.2	-2.57911e-06	2097152	2097152	
25538.6	-2.67008e-06	2097152	2097152	
25553.9	-2.76365e-06	2097152	2097152	
25569.3	-2.85986e-06	2097152	2097152	
25584.6	-2.95878e-06	2097152	2097152	
25600	-3.06044e-06	2097152	2097152	
25615.3	-3.1649e-06	2097152	2097152	
25630.7	-3.27221e-06	2097152	2097152	
25646	-3.38243e-06	2097152	2097152	
25661.3	-3.49561e-06	2097152	2097152	
25676.7	-3.61179e-06	2097152	2097152	
25692	-3.73104e-06	2097152	2097152	
25707.4	-3.85339e-06	2097152	2097152	
25722.7	-3.97891e-06	2097152	2097152	
25738.1	-4.10765e-06	2097152	2097152	
25753.4	-4.23965e-06	2097152	2097152	
25768.8	-4.37498e-06	2097152	2097152	
25784.1	-4.51367e-06	2097152	2097152	
25799.5	-4.65579e-06	2097152	2097152	
25814.8	-4.80138e-06	2097152	2097152	
25830.2	-4.95049e-06	2097152	2097152	
25845.5	-5.10317e-06	2097152	2097152	
25860.9	-5.25948e-06	2097152	2097152	
25876.2	-5.41946e-06	2097152	2097152	
25891.6	-5.58316e-06	2097152	2097152	
25906.9	-5.75063e-06	2097152	2097152	
25922.3	-5.92191e-06	2097152	2097152	
25937.6	-6.09706e-06	2097152	2097152	
25953	-6.27612e-06	2097152	2097152	
25968.3	-6.45913e-06	2097152	2097152	
25983.6	-6.64615e-06	2097152	2097152	
25999	-6.83721e-06	2097152	2097152	
26014.3	-7.03235e-06	2097152	2097152	
26029.7	-7.23163e-06	2097152	2097152	
26045	-7.43507e-06	2097152	2097152	
26060.4	-7.64273e-06	2097152	2097152	
26075.7	-7.85464e-06	2097152	2097152	
26091.1	-8.07083e-06	2097152	2097152	
26106.4	-8.29135e-06	2097152	2097152	
26121.8	-8.51623e-06	2097152	2097152	
26137.1	-8.74551e-06	2097152	2097152	
26152.5	-8.97921e-06	2097152	2097152	
26167.8	-9.21737e-06	2097152	2097152	
26183.2	-9.46002e-06	2097152	2097152	
26198.5	-9.70719e-06	2097152	2097152	
26213.9	-9.95889e-06	2097152	2097152	
26229.2	-1.02152e-05	2097152	2097152	
26244.6	-1.0476e-05	2097152	2097152	
26259.9	-1.07415e-05	2097152	2097152	
26275.3	-1.10116e-05	2097152	2097152	
26290.6	-1.12864e-05	2097152	2097152	
26305.9	-1.15658e-05	2097152	2097152	
26321.3	-1.18499e-05	2097152	2097152	
26336.6	-1.21387e-05	2097152	2097152	
26352	-1.24322e-05	2097152	2097152	
26367.3	-1.27304e-05	2097152	2097152	
26382.7	-1.30333e-05	2097152	2097152	
26398	-1.33409e-05	2097152	2097152	
26413.4	-1.36533e-05	2097152	2097152	
26428.7	-1.39703e-05	2097152	2097152	
26444.1	-1.4292e-05	2097152	2097152	
26459.4	-1.46185e-05	2097152	2097152	
26474.8	-1.49496e-05	2097152	2097152	
26490.1	-1.52853e-05	2097152	2097152	
26505.5	-1.56257e-05	2097152	2097152	
26520.8	-1.59708e-05	2097152	2097152	
26536.2	-1.63204e-05	2097152	2097152	
26551.5	-1.66746e-05	2097152	2097152	
26566.9	-1.70333e-05	2097152	2097152	
26582.2	-1.73966e-05	2097152	2097152	
26597.6	-1.77643e-05	2097152	2097152	
26612.9	-1.81364e-05	2097152	2097152	
26628.3	-1.85129e-05	2097152	2097152	
26643.6	-1.88937e-05	2097152	2097152	
26658.9	-1.92788e-05	2097152	2097152	
26674.3	-1.96681e-05	2097152	2097152	
26689.6	-2.00615e-05	2097152	2097152	
26705	-2.0459e-05	2097152	2097152	
26720.3	-2.08605e-05	2097152	2097152	
26735.7	-2.1266e-05	2097152	2097152	
26751	-2.16752e-05	2097152	2097152	
26766.4	-2.20882e-05	2097152	2097152	
26781.7	-2.25049e-05	2097152	2097152	
26797.1	-2.29251e-05	2097152	2097152	
26812.4	-2.33488e-05	2097152	2097152	
26827.8	-2.37758e-05	2097152	2097152	
26843.1	-2.42061e-05	2097152	2097152	
26858.5	-2.46394e-05	2097152	2097152	
26873.8	-2.50757e-05	2097152	2097152	
26889.2	-2.55148e-05	2097152	2097152	
26904.5	-2.59567e-05	2097152	2097152	
26919.9	-2.6401e-05	2097152	2097152	
26935.2	-2.68478e-05	2097152	2097152	
26950.6	-2.72967e-05	2097152	2097152	
26965.9	-2.77478e-05	2097152	2097152	
26981.2	-2.82006e-05	2097152	2097152	
26996.6	-2.86552e-05	2097152	2097152	
27011.9	-2.91112e-05	2097152	2097152	
27027.3	-2.95685e-05	2097152	2097152	
27042.6	-3.00269e-05	2097152	2097152	
27058	-3.04861e-05	2097152	2097152	
27073.3	-3.09459e-05	2097152	2097152	
27088.7	-3.14061e-05	2097152	2097152	
27104	-3.18664e-05	2097152	2097152	
27119.4	-3.23266e-05	2097152	2097152	
27134.7	-3.27863e-05	2097152	2097152	
27150.1	-3.32453e-05	2097152	2097152	
27165.4	-3.37033e-05	2097152	2097152	
27180.8	-3.416e-05	2097152	2097152	
27196.1	-3.46151e-05	2097152	2097152	
27211.5	-3.50682e-05	2097152	2097152	
27226.8	-3.5519e-05	2097152	2097152	
27242.2	-3.59671e-05	2097152	2097152	
27257.5	-3.64122e-05	2097152	2097152	
27272.9	-3.68539e-05	2097152	2097152	
27288.2	-3.72918e-05	2097152	2097152	
27303.5	-3.77255e-05	2097152	2097152	
27318.9	-3.81545e-05	2097152	2097152	
27334.2	-3.85784e-05	2097152	2097152	
27349.6	-3.89968e-05	2097152	2097152	
27364.9	-3.94091e-05	2097152	2097152	
27380.3	-3.98149e-05	2097152	2097152	
27395.6	-4.02136e-05	2097152	2097152	
27411	-4.06048e-05	2097152	2097152	
27426.3	-4.09879e-05	2097152	2097152	
27441.7	-4.13623e-05	2097152	2097152	
27457	-4.17274e-05	2097152	2097152	
27472.4	-4.20826e-05	2097152	2097152	
27487.7	-4.24273e-05	2097152	2097152	
27503.1	-4.27608e-05	2097152	2097152	
27518.4	-4.30825e-05	2097152	2097152	
27533.8	-4.33917e-05	2097152	2097152	
27549.1	-4.36876e-05	2097152	2097152	
27564.5	-4.39695e-05	2097152	2097152	
27579.8	-4.42366e-05	2097152	2097152	
27595.2	-4.44881e-05	2097152	2097152	
27610.5	-4.47232e-05	2097152	2097152	
27625.9	-4.49411e-05	2097152	2097152	
27641.2	-4.51408e-05	2097152	2097152	
27656.5	-4.53214e-05	2097152	2097152	
27671.9	-4.5482e-05	2097152	2097152	
27687.2	-4.56215e-05	2097152	2097152	
27702.6	-4.57391e-05	2097152	2097152	
27717.9	-4.58336e-05	2097152	2097152	
27733.3	-4.59039e-05	2097152	2097152	
27748.6	-4.5949e-05	2097152	2097152	
27764	-4.59675e-05	2097152	2097152	
27779.3	-4.59585e-05	2097152	2097152	
27794.7	-4.59205e-05	2097152	2097152	
27810	-4.58522e-05	2097152	2097152	
27825.4	-4.57525e-05	2097152	2097152	
27840.7	-4.56198e-05	2097152	2097152	
27856.1	-4.54527e-05	2097152	2097152	
27871.4	-4.52497e-05	2097152	2097152	
27886.8	-4.50093e-05	2097152	2097152	
27902.1	-4.47299e-05	2097152	2097152	
27917.5	-4.44098e-05	2097152	2097152	
27932.8	-4.40473e-05	2097152	2097152	
27948.2	-4.36405e-05	2097152	2097152	
27963.5	-4.31878e-05	2097152	2097152	
27978.8	-4.2687e-05	2097152	2097152	
27994.2	-4.21362e-05	2097152	2097152	
28009.5	-4.15333e-05	2097152	2097152	
28024.9	-4.08762e-05	2097152	2097152	
28040.2	-4.01626e-05	2097152	2097152	
28055.6	-3.93902e-05	2097152	2097152	
28070.9	-3.85566e-05	2097152	2097152	
28086.3	-3.76592e-05	2097152	2097152	
28101.6	-3.66954e-05	2097152	2097152	
28117	-3.56625e-05	2097152	2097152	
28132.3	-3.45576e-05	2097152	2097152	
28147.7	-3.33778e-05	2097152	2097152	
28163	-3.21199e-05	2097152	2097152	
28178.4	-3.07809e-05	2097152	2097152	
28193.7	-2.93572e-05	2097152	2097152	
28209.1	-2.78455e-05	2097152	2097152	
28224.4	-2.6242e-05	2097152	2097152	
28239.8	-2.45431e-05	2097152	2097152	
28255.1	-2.27447e-05	2097152	2097152	
28270.5	-2.08426e-05	2097152	2097152	
28285.8	-1.88327e-05	2097152	2097152	
28301.1	-1.67103e-05	2097152	2097152	
28316.5	-1.44707e-05	2097152	2097152	
28331.8	-1.21091e-05	2097152	2097152	
28347.2	-9.62038e-06	2097152	2097152	
28362.5	-6.99908e-06	2097152	2097152	
28377.9	-4.23963e-06	2097152	2097152	
28393.2	-1.33618e-06	2097152	2097152	
28408.6	1.71739e-06	2097152	2097152	
28423.9	4.92747e-06	2097152	2097152	
28439.3	8.30075e-06	2097152	2097152	
28454.6	1.18442e-05	2097152	2097152	
28470	1.55652e-05	2097152	2097152	
28485.3	1.94713e-05	2097152	2097152	
28500.7	2.35706e-05	2097152	2097152	
28516	2.78713e-05	2097152	2097152	
28531.4	3.23822e-05	2097152	2097152	
28546.7	3.71125e-05	2097152	2097152	
28562.1	4.20717e-05	2097152	2097152	
28577.4	4.72698e-05	2097152	2097152	
28592.8	5.27172e-05	2097152	2097152	
28608.1	5.84248e-05	2097152	2097152	
28623.5	6.4404e-05	2097152	2097152	
28638.8	7.06668e-05	2097152	2097152	
28654.1	7.72255e-05	2097152	2097152	
28669.5	8.40932e-05	2097152	2097152	
28684.8	9.12834e-05	2097152	2097152	
28700.2	9.88104e-05	2097152	2097152	
28715.5	0.000106689	2097152	2097152	
28730.9	0.000114934	2097152	2097152	
28746.2	0.000123563	2097152	2097152	
28761.6	0.000132592	2097152	2097152	
28776.9	0.000142038	2097152	2097152	
28792.3	0.00015192	2097152	2097152	
28807.6	0.000162256	2097152	2097152	
28823	0.000173068	2097152	2097152	
28838.3	0.000184375	2097152	2097152	
28853.7	0.000196199	2097152	2097152	
28869	0.000208562	2097152	2097152	
28884.4	0.000221489	2097152	2097152	
28899.7	0.000235003	2097152	2097152	
28915.1	0.000249129	2097152	2097152	
28930.4	0.000263894	2097152	2097152	
28945.8	0.000279325	2097152	2097152	
28961.1	0.000295451	2097152	2097152	
28976.4	0.000312301	2097152	2097152	
28991.8	0.000329905	2097152	2097152	
29007.1	0.000348296	2097152	2097152	
29022.5	0.000367506	2097152	2097152	
29037.8	0.000387569	2097152	2097152	
29053.2	0.000408521	2097152	2097152	
29068.5	0.000430398	2097152	2097152	
29083.9	0.000453239	2097152	2097152	
29099.2	0.000477081	2097152	2097152	
29114.6	0.000501967	2097152	2097152	
29129.9	0.000527937	2097152	2097152	
29145.3	0.000555035	2097152	2097152	
29160.6	0.000583305	2097152	2097152	
29176	0.000612795	2097152	2097152	
29191.3	0.00064355	2097152	2097152	
29206.7	0.00067562	2097152	2097152	
29222	0.000709055	2097152	2097152	
29237.4	0.000743908	2097152	2097152	
29252.7	0.000780231	2097152	2097152	
29268.1	0.000818079	2097152	2097152	
29283.4	0.000857509	2097152	2097152	
29298.8	0.000898579	2097152	2097152	
29314.1	0.000941347	2097152	2097152	
29329.4	0.000985876	2097152	2097152	
29344.8	0.00103223	2097152	2097152	
29360.1	0.00108046	2097152	2097152	
29375.5	0.00113065	2097152	2097152	
29390.8	0.00118286	2097152	2097152	
29406.2	0.00123715	2097152	2097152	
29421.5	0.0012936	2097152	2097152	
29436.9	0.00135228	2097152	2097152	
29452.2	0.00141326	2097152	2097152	
29467.6	0.00147661	2097152	2097152	
29482.9	0.00154242	2097152	2097152	
29498.3	0.00161074	2097152	2097152	
29513.6	0.00168168	2097152	2097152	
29529	0.00175529	2097152	2097152	
29544.3	0.00183167	2097152	2097152	
29559.7	0.0019109	2097152	2097152	
29575	0.00199305	2097152	2097152	
29590.4	0.00207821	2097152	2097152	
29605.7	0.00216647	2097152	2097152	
29621.1	0.00225791	2097152	2097152	
29636.4	0.00235261	2097152	2097152	
29651.7	0.00245067	2097152	2097152	
29667.1	0.00255216	2097152	2097152	
29682.4	0.00265718	2097152	2097152	
29697.8	0.00276582	2097152	2097152	
29713.1	0.00287816	2097152	2097152	
29728.5	0.00299429	2097152	2097152	
29743.8	0.0031143	2097152	2097152	
29759.2	0.00323828	2097152	2097152	
29774.5	0.00336632	2097152	2097152	
29789.9	0.00349849	2097152	2097152	
29805.2	0.00363491	2097152	2097152	
29820.6	0.00377563	2097152	2097152	
29835.9	0.00392077	2097152	2097152	
29851.3	0.00407039	2097152	2097152	
29866.6	0.00422459	2097152	2097152	
29882	0.00438344	2097152	2097152	
29897.3	0.00454703	2097152	2097152	
29912.7	0.00471543	2097152	2097152	
29928	0.00488873	2097152	2097152	
29943.4	0.005067	2097152	2097152	
29958.7	0.00525032	2097152	2097152	
29974	0.00543876	2097152	2097152	
29989.4	0.00563238	2097152	2097152	
30004.7	0.00583125	2097152	2097152	
30020.1	0.00603545	2097152	2097152	
30035.4	0.00624502	2097152	2097152	
30050.8	0.00646002	2097152	2097152	
30066.1	0.00668052	2097152	2097152	
30081.5	0.00690655	2097152	2097152	
30096.8	0.00713817	2097152	2097152	
30112.2	0.00737542	2097152	2097152	
30127.5	0.00761834	2097152	2097152	
30142.9	0.00786696	2097152	2097152	
30158.2	0.00812132	2097152	2097152	
30173.6	0.00838142	2097152	2097152	
30188.9	0.0086473	2097152	2097152	
30204.3	0.00891898	2097152	2097152	
30219.6	0.00919644	2097152	2097152	
30235	0.00947971	2097152	2097152	
30250.3	0.00976878	2097152	2097152	
30265.7	0.0100636	2097152	2097152	
30281	0.0103643	2097152	2097152	
30296.4	0.0106707	2097152	2097152	
30311.7	0.0109828	2097152	2097152	
30327	0.0113006	2097152	2097152	
30342.4	0.011624	2097152	2097152	
30357.7	0.0119531	2097152	2097152	
30373.1	0.0122877	2097152	2097152	
30388.4	0.0126277	2097152	2097152	
30403.8	0.0129732	2097152	2097152	
30419.1	0.0133241	2097152	2097152	
30434.5	0.0136801	2097152	2097152	
30449.8	0.0140414	2097152	2097152	
30465.2	0.0144077	2097152	2097152	
30480.5	0.0147789	2097152	2097152	
30495.9	0.015155	2097152	2097152	
30511.2	0.0155357	2097152	2097152	
30526.6	0.0159211	2097152	2097152	
30541.9	0.0163109	2097152	2097152	
30557.3	0.0167049	2097152	2097152	
30572.6	0.0171031	2097152	2097152	
30588	0.0175052	2097152	2097152	
30603.3	0.0179112	2097152	2097152	
30618.7	0.0183207	2097152	2097152	
30634	0.0187336	2097152	2097152	
30649.3	0.0191498	2097152	2097152	
30664.7	0.0195689	2097152	2097152	
30680	0.0199909	2097152	2097152	
30695.4	0.0204154	2097152	2097152	
30710.7	0.0208423	2097152	2097152	
30726.1	0.0212713	2097152	2097152	
30741.4	0.0217021	2097152	2097152	
30756.8	0.0221346	2097152	2097152	
30772.1	0.0225684	2097152	2097152	
30787.5	0.0230033	2097152	2097152	
30802.8	0.023439	2097152	2097152	
30818.2	0.0238752	2097152	2097152	
30833.5	0.0243117	2097152	2097152	
30848.9	0.0247482	2097152	2097152	
30864.2	0.0251843	2097152	2097152	
30879.6	0.0256198	2097152	2097152	
30894.9	0.0260543	2097152	2097152	
30910.3	0.0264876	2097152	2097152	
30925.6	0.0269193	2097152	2097152	
30941	0.0273492	2097152	2097152	
30956.3	0.0277768	2097152	2097152	
30971.6	0.0282018	2097152	2097152	
30987	0.028624	2097152	2097152	
31002.3	0.029043	2097152	2097152	
31017.7	0.0294585	2097152	2097152	
31033	0.02987	2097152	2097152	
31048.4	0.0302773	2097152	2097152	
31063.7	0.0306801	2097152	2097152	
31079.1	0.031078	2097152	2097152	
31094.4	0.0314706	2097152	2097152	
31109.8	0.0318577	2097152	2097152	
31125.1	0.0322388	2097152	2097152	
31140.5	0.0326136	2097152	2097152	
31155.8	0.0329818	2097152	2097152	
31171.2	0.0333431	2097152	2097152	
31186.5	0.0336971	2097152	2097152	
31201.9	0.0340435	2097152	2097152	
31217.2	0.0343819	2097152	2097152	
31232.6	0.0347121	2097152	2097152	
31247.9	0.0350336	2097152	2097152	
31263.3	0.0353463	2097152	2097152	
31278.6	0.0356497	2097152	2097152	
31294	0.0359436	2097152	2097152	
31309.3	0.0362277	2097152	2097152	
31324.6	0.0365016	2097152	2097152	
31340	0.0367652	2097152	2097152	
31355.3	0.037018	2097152	2097152	
31370.7	0.0372598	2097152	2097152	
31386	0.0374905	2097152	2097152	
31401.4	0.0377096	2097152	2097152	
31416.7	0.037917	2097152	2097152	
31432.1	0.0381123	2097152	2097152	
31447.4	0.0382955	2097152	2097152	
31462.8	0.0384662	2097152	2097152	
31478.1	0.0386243	2097152	2097152	
31493.5	0.0387695	2097152	2097152	
31508.8	0.0389017	2097152	2097152	
31524.2	0.0390206	2097152	2097152	
31539.5	0.0391261	2097152	2097152	
31554.9	0.0392181	2097152	2097152	
31570.2	0.0392964	2097152	2097152	
31585.6	0.0393608	2097152	2097152	
31600.9	0.0394113	2097152	2097152	
31616.3	0.0394477	2097152	2097152	
31631.6	0.0394699	2097152	2097152	
31646.9	0.0394779	2097152	2097152	
31662.3	0.0394715	2097152	2097152	
31677.6	0.0394507	2097152	2097152	
31693	0.0394155	2097152	2097152	
31708.3	0.0393659	2097152	2097152	
31723.7	0.0393017	2097152	2097152	
31739	0.039223	2097152	2097152	
31754.4	0.0391298	2097152	2097152	
31769.7	0.0390221	2097152	2097152	
31785.1	0.0388999	2097152	2097152	
31800.4	0.0387634	2097152	2097152	
31815.8	0.0386124	2097152	2097152	
31831.1	0.0384472	2097152	2097152	
31846.5	0.0382677	2097152	2097152	
31861.8	0.0380741	2097152	2097152	
31877.2	0.0378665	2097152	2097152	
31892.5	0.037645	2097152	2097152	
31907.9	0.0374096	2097152	2097152	
31923.2	0.0371607	2097152	2097152	
31938.6	0.0368982	2097152	2097152	
31953.9	0.0366224	2097152	2097152	
31969.2	0.0363335	2097152	2097152	
31984.6	0.0360315	2097152	2097152	
31999.9	0.0357168	2097152	2097152	
32015.3	0.0353895	2097152	2097152	
32030.6	0.0350499	2097152	2097152	
32046	0.0346981	2097152	2097152	
32061.3	0.0343344	2097152	2097152	
32076.7	0.033959	2097152	2097152	
32092	0.0335722	2097152	2097152	
32107.4	0.0331742	2097152	2097152	
32122.7	0.0327653	2097152	2097152	
32138.1	0.0323459	2097152	2097152	
32153.4	0.031916	2097152	2097152	
32168.8	0.0314761	2097152	2097152	
32184.1	0.0310265	2097152	2097152	
32199.5	0.0305674	2097152	2097152	
32214.8	0.0300991	2097152	2097152	
32230.2	0.0296219	2097152	2097152	
32245.5	0.0291362	2097152	2097152	
32260.9	0.0286423	2097152	2097152	
32276.2	0.0281405	2097152	2097152	
32291.6	0.0276311	2097152	2097152	
32306.9	0.0271144	2097152	2097152	
32322.2	0.0265908	2097152	2097152	
32337.6	0.0260606	2097152	2097152	
32352.9	0.0255242	2097152	2097152	
32368.3	0.0249818	2097152	2097152	
32383.6	0.0244338	2097152	2097152	
32399	0.0238805	2097152	2097152	
32414.3	0.0233223	2097152	2097152	
32429.7	0.0227596	2097152	2097152	
32445	0.0221925	2097152	2097152	
32460.4	0.0216216	2097152	2097152	
32475.7	0.021047	2097152	2097152	
32491.1	0.0204692	2097152	2097152	
32506.4	0.0198884	2097152	2097152	
32521.8	0.0193051	2097152	2097152	
32537.1	0.0187194	2097152	2097152	
32552.5	0.0181318	2097152	2097152	
32567.8	0.0175424	2097152	2097152	
32583.2	0.0169518	2097152	2097152	
32598.5	0.0163601	2097152	2097152	
32613.9	0.0157676	2097152	2097152	
32629.2	0.0151747	2097152	2097152	
32644.5	0.0145817	2097152	2097152	
32659.9	0.0139888	2097152	2097152	
32675.2	0.0133963	2097152	2097152	
32690.6	0.0128045	2097152	2097152	
32705.9	0.0122137	2097152	2097152	
32721.3	0.0116242	2097152	2097152	
32736.6	0.0110361	2097152	2097152	
32752	0.0104497	2097152	2097152	
32767.3	0.0098654	2097152	2097152	
32782.7	0.0092833	2097152	2097152	
32798	0.00870367	2097152	2097152	
32813.4	0.00812674	2097152	2097152	
32828.7	0.00755272	2097152	2097152	
32844.1	0.00698184	2097152	2097152	
32859.4	0.0064143	2097152	2097152	
32874.8	0.0058503	2097152	2097152	
32890.1	0.00529003	2097152	2097152	
32905.5	0.00473368	2097152	2097152	
32920.8	0.00418143	2097152	2097152	
32936.2	0.00363344	2097152	2097152	
32951.5	0.0030899	2097152	2097152	
32966.8	0.00255095	2097152	2097152	
32982.2	0.00201674	2097152	2097152	
32997.5	0.00148742	2097152	2097152	
33012.9	0.000963136	2097152	2097152	
33028.2	0.000444006	2097152	2097152	
33043.6	-6.98416e-05	2097152	2097152	
33058.9	-0.000578289	2097152	2097152	
33074.3	-0.00108123	2097152	2097152	
33089.6	-0.00157855	2097152	2097152	
33105	-0.00207015	2097152	2097152	
33120.3	-0.00255596	2097152	2097152	
33135.7	-0.00303587	2097152	2097152	
33151	-0.0035098	2097152	2097152	
33166.4	-0.0039777	2097152	2097152	
33181.7	-0.00443947	2097152	2097152	
33197.1	-0.00489508	2097152	2097152	
33212.4	-0.00534444	2097152	2097152	
33227.8	-0.00578753	2097152	2097152	
33243.1	-0.00622428	2097152	2097152	
33258.5	-0.00665465	2097152	2097152	
33273.8	-0.00707861	2097152	2097152	
33289.2	-0.00749613	2097152	2097152	
33304.5	-0.00790718	2097152	2097152	
33319.8	-0.00831173	2097152	2097152	
33335.2	-0.00870977	2097152	2097152	
33350.5	-0.00910128	2097152	2097152	
33365.9	-0.00948625	2097152	2097152	
33381.2	-0.00986467	2097152	2097152	
33396.6	-0.0102365	2097152	2097152	
33411.9	-0.0106018	2097152	2097152	
33427.3	-0.0109606	2097152	2097152	
33442.6	-0.0113128	2097152	2097152	
33458	-0.0116585	2097152	2097152	
33473.3	-0.0119977	2097152	2097152	
33488.7	-0.0123303	2097152	2097152	
33504	-0.0126565	2097152	2097152	
33519.4	-0.0129762	2097152	2097152	
33534.7	-0.0132894	2097152	2097152	
33550.1	-0.0135962	2097152	2097152	
33565.4	-0.0138966	2097152	2097152	
33580.8	-0.0141906	2097152	2097152	
33596.1	-0.0144783	2097152	2097152	
33611.5	-0.0147596	2097152	2097152	
33626.8	-0.0150347	2097152	2097152	
33642.1	-0.0153035	2097152	2097152	
33657.5	-0.0155661	2097152	2097152	
33672.8	-0.0158224	2097152	2097152	
33688.2	-0.0160727	2097152	2097152	
33703.5	-0.0163168	2097152	2097152	
33718.9	-0.0165549	2097152	2097152	
33734.2	-0.0167869	2097152	2097152	
33749.6	-0.0170129	2097152	2097152	
33764.9	-0.017233	2097152	2097152	
33780.3	-0.0174471	2097152	2097152	
33795.6	-0.0176553	2097152	2097152	
33811	-0.0178578	2097152	2097152	
33826.3	-0.0180544	2097152	2097152	
33841.7	-0.0182453	2097152	2097152	
33857	-0.0184304	2097152	2097152	
33872.4	-0.0186099	2097152	2097152	
33887.7	-0.0187837	2097152	2097152	
33903.1	-0.018952	2097152	2097152	
33918.4	-0.0191147	2097152	2097152	
33933.8	-0.0192719	2097152	2097152	
33949.1	-0.0194236	2097152	2097152	
33964.4	-0.0195699	2097152	2097152	
33979.8	-0.0197108	2097152	2097152	
33995.1	-0.0198463	2097152	2097152	
34010.5	-0.0199766	2097152	2097152	
34025.8	-0.0201016	2097152	2097152	
34041.2	-0.0202214	2097152	2097152	
34056.5	-0.0203359	2097152	2097152	
34071.9	-0.0204454	2097152	2097152	
34087.2	-0.0205497	2097152	2097152	
34102.6	-0.020649	2097152	2097152	
34117.9	-0.0207432	2097152	2097152	
34133.3	-0.0208324	2097152	2097152	
34148.6	-0.0209167	2097152	2097152	
34164	-0.0209961	2097152	2097152	
34179.3	-0.0210706	2097152	2097152	
34194.7	-0.0211403	2097152	2097152	
34210	-0.0212052	2097152	2097152	
34225.4	-0.0212653	2097152	2097152	
34240.7	-0.0213207	2097152	2097152	
34256.1	-0.0213714	2097152	2097152	
34271.4	-0.0214175	2097152	2097152	
34286.8	-0.0214589	2097152	2097152	
34302.1	-0.0214958	2097152	2097152	
34317.4	-0.0215282	2097152	2097152	
34332.8	-0.021556	2097152	2097152	
34348.1	-0.0215794	2097152	2097152	
34363.5	-0.0215984	2097152	2097152	
34378.8	-0.021613	2097152	2097152	
34394.2	-0.0216232	2097152	2097152	
34409.5	-0.0216292	2097152	2097152	
34424.9	-0.0216309	2097152	2097152	
34440.2	-0.0216283	2097152	2097152	
34455.6	-0.0216216	2097152	2097152	
34470.9	-0.0216107	2097152	2097152	
34486.3	-0.0215957	2097152	2097152	
34501.6	-0.0215766	2097152	2097152	
34517	-0.0215534	2097152	2097152	
34532.3	-0.0215263	2097152	2097152	
34547.7	-0.0214953	2097152	2097152	
34563	-0.0214603	2097152	2097152	
34578.4	-0.0214214	2097152	2097152	
34593.7	-0.0213787	2097152	2097152	
34609.1	-0.0213323	2097152	2097152	
34624.4	-0.0212821	2097152	2097152	
34639.7	-0.0212281	2097152	2097152	
34655.1	-0.0211705	2097152	2097152	
34670.4	-0.0211093	2097152	2097152	
34685.8	-0.0210446	2097152	2097152	
34701.1	-0.0209763	2097152	2097152	
34716.5	-0.0209045	2097152	2097152	
34731.8	-0.0208293	2097152	2097152	
34747.2	-0.0207507	2097152	2097152	
34762.5	-0.0206687	2097152	2097152	
34777.9	-0.0205835	2097152	2097152	
34793.2	-0.020495	2097152	2097152	
34808.6	-0.0204033	2097152	2097152	
34823.9	-0.0203084	2097152	2097152	
34839.3	-0.0202105	2097152	2097152	
34854.6	-0.0201095	2097152	2097152	
34870	-0.0200054	2097152	2097152	
34885.3	-0.0198985	2097152	2097152	
34900.7	-0.0197886	2097152	2097152	
34916	-0.0196759	2097152	2097152	
34931.4	-0.0195604	2097152	2097152	
34946.7	-0.0194421	2097152	2097152	
34962	-0.0193212	2097152	2097152	
34977.4	-0.0191976	2097152	2097152	
34992.7	-0.0190714	2097152	2097152	
35008.1	-0.0189427	2097152	2097152	
35023.4	-0.0188115	2097152	2097152	
35038.8	-0.0186779	2097152	2097152	
35054.1	-0.018542	2097152	2097152	
35069.5	-0.0184037	2097152	2097152	
35084.8	-0.0182632	2097152	2097152	
35100.2	-0.0181205	2097152	2097152	
35115.5	-0.0179756	2097152	2097152	
35130.9	-0.0178287	2097152	2097152	
35146.2	-0.0176798	2097152	2097152	
35161.6	-0.0175289	2097152	2097152	
35176.9	-0.0173761	2097152	2097152	
35192.3	-0.0172214	2097152	2097152	
35207.6	-0.017065	2097152	2097152	
35223	-0.0169068	2097152	2097152	
35238.3	-0.016747	2097152	2097152	
35253.7	-0.0165856	2097152	2097152	
35269	-0.0164226	2097152	2097152	
35284.4	-0.0162581	2097152	2097152	
35299.7	-0.0160922	2097152	2097152	
35315	-0.015925	2097152	2097152	
35330.4	-0.0157564	2097152	2097152	
35345.7	-0.0155866	2097152	2097152	
35361.1	-0.0154156	2097152	2097152	
35376.4	-0.0152435	2097152	2097152	
35391.8	-0.0150703	2097152	2097152	
35407.1	-0.0148961	2097152	2097152	
35422.5	-0.0147209	2097152	2097152	
35437.8	-0.0145449	2097152	2097152	
35453.2	-0.014368	2097152	2097152	
35468.5	-0.0141904	2097152	2097152	
35483.9	-0.0140121	2097152	2097152	
35499.2	-0.0138331	2097152	2097152	
35514.6	-0.0136536	2097152	2097152	
35529.9	-0.0134735	2097152	2097152	
35545.3	-0.0132929	2097152	2097152	
35560.6	-0.0131119	2097152	2097152	
35576	-0.0129306	2097152	2097152	
35591.3	-0.012749	2097152	2097152	
35606.7	-0.0125671	2097152	2097152	
35622	-0.0123851	2097152	2097152	
35637.3	-0.0122029	2097152	2097152	
35652.7	-0.0120207	2097152	2097152	
35668	-0.0118384	2097152	2097152	
35683.4	-0.0116562	2097152	2097152	
35698.7	-0.0114741	2097152	2097152	
35714.1	-0.0112921	2097152	2097152	
35729.4	-0.0111104	2097152	2097152	
35744.8	-0.0109289	2097152	2097152	
35760.1	-0.0107477	2097152	2097152	
35775.5	-0.0105668	2097152	2097152	
35790.8	-0.0103864	2097152	2097152	
35806.2	-0.0102065	2097152	2097152	
35821.5	-0.010027	2097152	2097152	
35836.9	-0.00984811	2097152	2097152	
35852.2	-0.00966983	2097152	2097152	
35867.6	-0.00949221	2097152	2097152	
35882.9	-0.00931529	2097152	2097152	
35898.3	-0.00913912	2097152	2097152	
35913.6	-0.00896375	2097152	2097152	
35929	-0.00878921	2097152	2097152	
35944.3	-0.00861556	2097152	2097152	
35959.6	-0.00844283	2097152	2097152	
35975	-0.00827107	2097152	2097152	
35990.3	-0.00810032	2097152	2097152	
36005.7	-0.00793061	2097152	2097152	
36021	-0.00776199	2097152	2097152	
36036.4	-0.0075945	2097152	2097152	
36051.7	-0.00742816	2097152	2097152	
36067.1	-0.00726303	2097152	2097152	
36082.4	-0.00709912	2097152	2097152	
36097.8	-0.00693648	2097152	2097152	
36113.1	-0.00677515	2097152	2097152	
36128.5	-0.00661514	2097152	2097152	
36143.8	-0.00645649	2097152	2097152	
36159.2	-0.00629924	2097152	2097152	
36174.5	-0.00614341	2097152	2097152	
36189.9	-0.00598902	2097152	2097152	
36205.2	-0.00583611	2097152	2097152	
36220.6	-0.00568471	2097152	2097152	
36235.9	-0.00553482	2097152	2097152	
36251.3	-0.00538648	2097152	2097152	
36266.6	-0.00523971	2097152	2097152	
36282	-0.00509453	2097152	2097152	
36297.3	-0.00495096	2097152	2097152	
36312.6	-0.00480902	2097152	2097152	
36328	-0.00466873	2097152	2097152	
36343.3	-0.00453009	2097152	2097152	
36358.7	-0.00439313	2097152	2097152	
36374	-0.00425787	2097152	2097152	
36389.4	-0.0041243	2097152	2097152	
36404.7	-0.00399245	2097152	2097152	
36420.1	-0.00386232	2097152	2097152	
36435.4	-0.00373392	2097152	2097152	
36450.8	-0.00360727	2097152	2097152	
36466.1	-0.00348236	2097152	2097152	
36481.5	-0.00335921	2097152	2097152	
36496.8	-0.00323781	2097152	2097152	
36512.2	-0.00311817	2097152	2097152	
36527.5	-0.00300029	2097152	2097152	
36542.9	-0.00288418	2097152	2097152	
36558.2	-0.00276982	2097152	2097152	
36573.6	-0.00265723	2097152	2097152	
36588.9	-0.00254639	2097152	2097152	
36604.3	-0.00243731	2097152	2097152	
36619.6	-0.00232997	2097152	2097152	
36634.9	-0.00222438	2097152	2097152	
36650.3	-0.00212052	2097152	2097152	
36665.6	-0.00201838	2097152	2097152	
36681	-0.00191796	2097152	2097152	
36696.3	-0.00181925	2097152	2097152	
36711.7	-0.00172223	2097152	2097152	
36727	-0.00162689	2097152	2097152	
36742.4	-0.00153322	2097152	2097152	
36757.7	-0.00144119	2097152	2097152	
36773.1	-0.00135081	2097152	2097152	
36788.4	-0.00126204	2097152	2097152	
36803.8	-0.00117488	2097152	2097152	
36819.1	-0.00108929	2097152	2097152	
36834.5	-0.00100527	2097152	2097152	
36849.8	-0.000922794	2097152	2097152	
36865.2	-0.000841837	2097152	2097152	
36880.5	-0.000762378	2097152	2097152	
36895.9	-0.000684394	2097152	2097152	
36911.2	-0.000607861	2097152	2097152	
36926.6	-0.000532754	2097152	2097152	
36941.9	-0.000459048	2097152	2097152	
36957.2	-0.000386717	2097152	2097152	
36972.6	-0.000315733	2097152	2097152	
36987.9	-0.000246069	2097152	2097152	
37003.3	-0.000177697	2097152	2097152	
37018.6	-0.000110587	2097152	2097152	
37034	-4.471e-05	2097152	2097152	
37049.3	1.99638e-05	2097152	2097152	
37064.7	8.34652e-05	2097152	2097152	
37080	0.000145826	2097152	2097152	
37095.4	0.000207076	2097152	2097152	
37110.7	0.000267249	2097152	2097152	
37126.1	0.000326377	2097152	2097152	
37141.4	0.000384493	2097152	2097152	
37156.8	0.00044163	2097152	2097152	
37172.1	0.000497821	2097152	2097152	
37187.5	0.0005531	2097152	2097152	
37202.8	0.000607501	2097152	2097152	
37218.2	0.000661058	2097152	2097152	
37233.5	0.000713806	2097152	2097152	
37248.9	0.000765779	2097152	2097152	
37264.2	0.000817012	2097152	2097152	
37279.6	0.000867539	2097152	2097152	
37294.9	0.000917395	2097152	2097152	
37310.2	0.000966614	2097152	2097152	
37325.6	0.00101523	2097152	2097152	
37340.9	0.00106328	2097152	2097152	
37356.3	0.0011108	2097152	2097152	
37371.6	0.00115782	2097152	2097152	
37387	0.00120438	2097152	2097152	
37402.3	0.0012505	2097152	2097152	
37417.7	0.00129623	2097152	2097152	
37433	0.0013416	2097152	2097152	
37448.4	0.00138664	2097152	2097152	
37463.7	0.00143137	2097152	2097152	
37479.1	0.00147585	2097152	2097152	
37494.4	0.00152009	2097152	2097152	
37509.8	0.00156413	2097152	2097152	
37525.1	0.00160799	2097152	2097152	
37540.5	0.00165172	2097152	2097152	
37555.8	0.00169534	2097152	2097152	
37571.2	0.00173887	2097152	2097152	
37586.5	0.00178235	2097152	2097152	
37601.9	0.00182581	2097152	2097152	
37617.2	0.00186927	2097152	2097152	
37632.5	0.00191276	2097152	2097152	
37647.9	0.00195631	2097152	2097152	
37663.2	0.00199994	2097152	2097152	
37678.6	0.00204367	2097152	2097152	
37693.9	0.00208752	2097152	2097152	
37709.3	0.00213153	2097152	2097152	
37724.6	0.00217572	2097152	2097152	
37740	0.00222009	2097152	2097152	
37755.3	0.00226468	2097152	2097152	
37770.7	0.00230951	2097152	2097152	
37786	0.00235458	2097152	2097152	
37801.4	0.00239992	2097152	2097152	
37816.7	0.00244555	2097152	2097152	
37832.1	0.00249147	2097152	2097152	
37847.4	0.00253771	2097152	2097152	
37862.8	0.00258427	2097152	2097152	
37878.1	0.00263117	2097152	2097152	
37893.5	0.00267842	2097152	2097152	
37908.8	0.00272603	2097152	2097152	
37924.2	0.002774	2097152	2097152	
37939.5	0.00282235	2097152	2097152	
37954.9	0.00287108	2097152	2097152	
37970.2	0.00292019	2097152	2097152	
37985.5	0.00296969	2097152	2097152	
38000.9	0.00301959	2097152	2097152	
38016.2	0.00306988	2097152	2097152	
38031.6	0.00312056	2097152	2097152	
38046.9	0.00317164	2097152	2097152	
38062.3	0.0032231	2097152	2097152	
38077.6	0.00327496	2097152	2097152	
38093	0.00332719	2097152	2097152	
38108.3	0.00337981	2097152	2097152	
38123.7	0.0034328	2097152	2097152	
38139	0.00348615	2097152	2097152	
38154.4	0.00353985	2097152	2097152	
38169.7	0.00359389	2097152	2097152	
38185.1	0.00364827	2097152	2097152	
38200.4	0.00370296	2097152	2097152	
38215.8	0.00375796	2097152	2097152	
38231.1	0.00381325	2097152	2097152	
38246.5	0.00386882	2097152	2097152	
38261.8	0.00392463	2097152	2097152	
38277.2	0.00398069	2097152	2097152	
38292.5	0.00403696	2097152	2097152	
38307.8	0.00409343	2097152	2097152	
38323.2	0.00415007	2097152	2097152	
38338.5	0.00420686	2097152	2097152	
38353.9	0.00426379	2097152	2097152	
38369.2	0.00432081	2097152	2097152	
38384.6	0.00437791	2097152	2097152	
38399.9	0.00443506	2097152	2097152	
38415.3	0.00449223	2097152	2097152	
38430.6	0.00454939	2097152	2097152	
38446	0.00460651	2097152	2097152	
38461.3	0.00466357	2097152	2097152	
38476.7	0.00472052	2097152	2097152	
38492	0.00477734	2097152	2097152	
38507.4	0.004834	2097152	2097152	
38522.7	0.00489045	2097152	2097152	
38538.1	0.00494667	2097152	2097152	
38553.4	0.00500261	2097152	2097152	
38568.8	0.00505825	2097152	2097152	
38584.1	0.00511354	2097152	2097152	
38599.5	0.00516845	2097152	2097152	
38614.8	0.00522294	2097152	2097152	
38630.1	0.00527697	2097152	2097152	
38645.5	0.0053305	2097152	2097152	
38660.8	0.00538349	2097152	2097152	
38676.2	0.00543589	2097152	2097152	
38691.5	0.00548768	2097152	2097152	
38706.9	0.00553881	2097152	2097152	
38722.2	0.00558923	2097152	2097152	
38737.6	0.00563891	2097152	2097152	
38752.9	0.0056878	2097152	2097152	
38768.3	0.00573586	2097152	2097152	
38783.6	0.00578304	2097152	2097152	
38799	0.00582931	2097152	2097152	
38814.3	0.00587462	2097152	2097152	
38829.7	0.00591893	2097152	2097152	
38845	0.0059622	2097152	2097152	
38860.4	0.00600437	2097152	2097152	
38875.7	0.00604542	2097152	2097152	
38891.1	0.00608529	2097152	2097152	
38906.4	0.00612394	2097152	2097152	
38921.8	0.00616134	2097152	2097152	
38937.1	0.00619743	2097152	2097152	
38952.5	0.00623218	2097152	2097152	
38967.8	0.00626554	2097152	2097152	
38983.1	0.00629747	2097152	2097152	
38998.5	0.00632794	2097152	2097152	
39013.8	0.00635689	2097152	2097152	
39029.2	0.00638429	2097152	2097152	
39044.5	0.0064101	2097152	2097152	
39059.9	0.00643428	2097152	2097152	
39075.2	0.00645679	2097152	2097152	
39090.6	0.00647759	2097152	2097152	
39105.9	0.00649665	2097152	2097152	
39121.3	0.00651392	2097152	2097152	
39136.6	0.00652937	2097152	2097152	
39152	0.00654297	2097152	2097152	
39167.3	0.00655468	2097152	2097152	
39182.7	0.00656446	2097152	2097152	
39198	0.00657229	2097152	2097152	
39213.4	0.00657813	2097152	2097152	
39228.7	0.00658194	2097152	2097152	
39244.1	0.00658371	2097152	2097152	
39259.4	0.00658339	2097152	2097152	
39274.8	0.00658096	2097152	2097152	
39290.1	0.0065764	2097152	2097152	
39305.4	0.00656967	2097152	2097152	
39320.8	0.00656076	2097152	2097152	
39336.1	0.00654963	2097152	2097152	
39351.5	0.00653626	2097152	2097152	
39366.8	0.00652064	2097152	2097152	
39382.2	0.00650273	2097152	2097152	
39397.5	0.00648253	2097152	2097152	
39412.9	0.00646002	2097152	2097152	
39428.2	0.00643517	2097152	2097152	
39443.6	0.00640797	2097152	2097152	
39458.9	0.0063784	2097152	2097152	
39474.3	0.00634646	2097152	2097152	
39489.6	0.00631214	2097152	2097152	
39505	0.00627541	2097152	2097152	
39520.3	0.00623628	2097152	2097152	
39535.7	0.00619473	2097152	2097152	
39551	0.00615076	2097152	2097152	
39566.4	0.00610436	2097152	2097152	
39581.7	0.00605554	2097152	2097152	
39597.1	0.00600429	2097152	2097152	
39612.4	0.0059506	2097152	2097152	
39627.7	0.00589448	2097152	2097152	
39643.1	0.00583594	2097152	2097152	
39658.4	0.00577497	2097152	2097152	
39673.8	0.00571159	2097152	2097152	
39689.1	0.00564579	2097152	2097152	
39704.5	0.00557759	2097152	2097152	
39719.8	0.005507	2097152	2097152	
39735.2	0.00543402	2097152	2097152	
39750.5	0.00535868	2097152	2097152	
39765.9	0.00528098	2097152	2097152	
39781.2	0.00520095	2097152	2097152	
39796.6	0.00511859	2097152	2097152	
39811.9	0.00503393	2097152	2097152	
39827.3	0.00494698	2097152	2097152	
39842.6	0.00485777	2097152	2097152	
39858	0.00476633	2097152	2097152	
39873.3	0.00467267	2097152	2097152	
39888.7	0.00457682	2097152	2097152	
39904	0.00447881	2097152	2097152	
39919.4	0.00437867	2097152	2097152	
39934.7	0.00427643	2097152	2097152	
39950.1	0.00417211	2097152	2097152	
39965.4	0.00406575	2097152	2097152	
39980.7	0.00395739	2097152	2097152	
39996.1	0.00384706	2097152	2097152	
40011.4	0.00373479	2097152	2097152	
40026.8	0.00362062	2097152	2097152	
40042.1	0.0035046	2097152	2097152	
40057.5	0.00338676	2097152	2097152	
40072.8	0.00326714	2097152	2097152	
40088.2	0.00314579	2097152	2097152	
40103.5	0.00302274	2097152	2097152	
40118.9	0.00289805	2097152	2097152	
40134.2	0.00277176	2097152	2097152	
40149.6	0.00264391	2097152	2097152	
40164.9	0.00251455	2097152	2097152	
40180.3	0.00238373	2097152	2097152	
40195.6	0.0022515	2097152	2097152	
40211	0.00211792	2097152	2097152	
40226.3	0.00198302	2097152	2097152	
40241.7	0.00184687	2097152	2097152	
40257	0.00170951	2097152	2097152	
40272.4	0.001571	2097152	2097152	
40287.7	0.00143139	2097152	2097152	
40303	0.00129075	2097152	2097152	
40318.4	0.00114912	2097152	2097152	
40333.7	0.00100655	2097152	2097152	
40349.1	0.000863116	2097152	2097152	
40364.4	0.000718864	2097152	2097152	
40379.8	0.000573854	2097152	2097152	
40395.1	0.000428144	2097152	2097152	
40410.5	0.000281793	2097152	2097152	
40425.8	0.00013486	2097152	2097152	
40441.2	-1.25957e-05	2097152	2097152	
40456.5	-0.000160514	2097152	2097152	
40471.9	-0.000308835	2097152	2097152	
40487.2	-0.000457499	2097152	2097152	
40502.6	-0.000606445	2097152	2097152	
40517.9	-0.000755611	2097152	2097152	
40533.3	-0.000904939	2097152	2097152	
40548.6	-0.00105437	2097152	2097152	
40564	-0.00120383	2097152	2097152	
40579.3	-0.00135328	2097152	2097152	
40594.7	-0.00150264	2097152	2097152	
40610	-0.00165185	2097152	2097152	
40625.3	-0.00180087	2097152	2097152	
40640.7	-0.00194961	2097152	2097152	
40656	-0.00209803	2097152	2097152	
40671.4	-0.00224607	2097152	2097152	
40686.7	-0.00239366	2097152	2097152	
40702.1	-0.00254075	2097152	2097152	
40717.4	-0.00268727	2097152	2097152	
40732.8	-0.00283317	2097152	2097152	
40748.1	-0.00297838	2097152	2097152	
40763.5	-0.00312286	2097152	2097152	
40778.8	-0.00326654	2097152	2097152	
40794.2	-0.00340937	2097152	2097152	
40809.5	-0.00355128	2097152	2097152	
40824.9	-0.00369223	2097152	2097152	
40840.2	-0.00383216	2097152	2097152	
40855.6	-0.00397101	2097152	2097152	
40870.9	-0.00410873	2097152	2097152	
40886.3	-0.00424526	2097152	2097152	
40901.6	-0.00438056	2097152	2097152	
40917	-0.00451457	2097152	2097152	
40932.3	-0.00464724	2097152	2097152	
40947.7	-0.00477852	2097152	2097152	
40963	-0.00490836	2097152	2097152	
40978.3	-0.00503672	2097152	2097152	
40993.7	-0.00516354	2097152	2097152	
41009	-0.00528878	2097152	2097152	
41024.4	-0.00541239	2097152	2097152	
41039.7	-0.00553433	2097152	2097152	
41055.1	-0.00565455	2097152	2097152	
41070.4	-0.00577302	2097152	2097152	
41085.8	-0.00588969	2097152	2097152	
41101.1	-0.00600451	2097152	2097152	
41116.5	-0.00611746	2097152	2097152	
41131.8	-0.00622849	2097152	2097152	
41147.2	-0.00633756	2097152	2097152	
41162.5	-0.00644464	2097152	2097152	
41177.9	-0.00654969	2097152	2097152	
41193.2	-0.00665268	2097152	2097152	
41208.6	-0.00675358	2097152	2097152	
41223.9	-0.00685236	2097152	2097152	
41239.3	-0.00694898	2097152	2097152	
41254.6	-0.00704341	2097152	2097152	
41270	-0.00713564	2097152	2097152	
41285.3	-0.00722562	2097152	2097152	
41300.6	-0.00731334	2097152	2097152	
41316	-0.00739877	2097152	2097152	
41331.3	-0.0074819	2097152	2097152	
41346.7	-0.00756268	2097152	2097152	
41362	-0.00764112	2097152	2097152	
41377.4	-0.00771719	2097152	2097152	
41392.7	-0.00779086	2097152	2097152	
41408.1	-0.00786213	2097152	2097152	
41423.4	-0.00793098	2097152	2097152	
41438.8	-0.00799739	2097152	2097152	
41454.1	-0.00806136	2097152	2097152	
41469.5	-0.00812286	2097152	2097152	
41484.8	-0.0081819	2097152	2097152	
41500.2	-0.00823845	2097152	2097152	
41515.5	-0.00829253	2097152	2097152	
41530.9	-0.0083441	2097152	2097152	
41546.2	-0.00839319	2097152	2097152	
41561.6	-0.00843977	2097152	2097152	
41576.9	-0.00848385	2097152	2097152	
41592.3	-0.00852542	2097152	2097152	
41607.6	-0.00856449	2097152	2097152	
41622.9	-0.00860105	2097152	2097152	
41638.3	-0.00863511	2097152	2097152	
41653.6	-0.00866667	2097152	2097152	
41669	-0.00869574	2097152	2097152	
41684.3	-0.00872233	2097152	2097152	
41699.7	-0.00874643	2097152	2097152	
41715	-0.00876806	2097152	2097152	
41730.4	-0.00878723	2097152	2097152	
41745.7	-0.00880394	2097152	2097152	
41761.1	-0.00881822	2097152	2097152	
41776.4	-0.00883006	2097152	2097152	
41791.8	-0.00883949	2097152	2097152	
41807.1	-0.00884652	2097152	2097152	
41822.5	-0.00885117	2097152	2097152	
41837.8	-0.00885345	2097152	2097152	
41853.2	-0.00885338	2097152	2097152	
41868.5	-0.00885098	2097152	2097152	
41883.9	-0.00884627	2097152	2097152	
41899.2	-0.00883927	2097152	2097152	
41914.6	-0.00883	2097152	2097152	
41929.9	-0.00881848	2097152	2097152	
41945.3	-0.00880474	2097152	2097152	
41960.6	-0.00878881	2097152	2097152	
41975.9	-0.0087707	2097152	2097152	
41991.3	-0.00875044	2097152	2097152	
42006.6	-0.00872806	2097152	2097152	
42022	-0.00870359	2097152	2097152	
42037.3	-0.00867706	2097152	2097152	
42052.7	-0.00864849	2097152	2097152	
42068	-0.00861791	2097152	2097152	
42083.4	-0.00858536	2097152	2097152	
42098.7	-0.00855086	2097152	2097152	
42114.1	-0.00851445	2097152	2097152	
42129.4	-0.00847616	2097152	2097152	
42144.8	-0.00843603	2097152	2097152	
42160.1	-0.00839407	2097152	2097152	
42175.5	-0.00835034	2097152	2097152	
42190.8	-0.00830487	2097152	2097152	
42206.2	-0.00825768	2097152	2097152	
42221.5	-0.00820882	2097152	2097152	
42236.9	-0.00815832	2097152	2097152	
42252.2	-0.00810621	2097152	2097152	
42267.6	-0.00805254	2097152	2097152	
42282.9	-0.00799735	2097152	2097152	
42298.2	-0.00794066	2097152	2097152	
42313.6	-0.00788252	2097152	2097152	
42328.9	-0.00782296	2097152	2097152	
42344.3	-0.00776203	2097152	2097152	
42359.6	-0.00769976	2097152	2097152	
42375	-0.0076362	2097152	2097152	
42390.3	-0.00757137	2097152	2097152	
42405.7	-0.00750533	2097152	2097152	
42421	-0.0074381	2097152	2097152	
42436.4	-0.00736974	2097152	2097152	
42451.7	-0.00730028	2097152	2097152	
42467.1	-0.00722975	2097152	2097152	
42482.4	-0.00715821	2097152	2097152	
42497.8	-0.00708569	2097152	2097152	
42513.1	-0.00701224	2097152	2097152	
42528.5	-0.00693788	2097152	2097152	
42543.8	-0.00686267	2097152	2097152	
42559.2	-0.00678664	2097152	2097152	
42574.5	-0.00670984	2097152	2097152	
42589.9	-0.0066323	2097152	2097152	
42605.2	-0.00655407	2097152	2097152	
42620.5	-0.00647518	2097152	2097152	
42635.9	-0.00639567	2097152	2097152	
42651.2	-0.0063156	2097152	2097152	
42666.6	-0.00623499	2097152	2097152	
42681.9	-0.00615389	2097152	2097152	
42697.3	-0.00607233	2097152	2097152	
42712.6	-0.00599036	2097152	2097152	
42728	-0.00590802	2097152	2097152	
42743.3	-0.00582534	2097152	2097152	
42758.7	-0.00574236	2097152	2097152	
42774	-0.00565913	2097152	2097152	
42789.4	-0.00557568	2097152	2097152	
42804.7	-0.00549206	2097152	2097152	
42820.1	-0.00540829	2097152	2097152	
42835.4	-0.00532442	2097152	2097152	
42850.8	-0.00524048	2097152	2097152	
42866.1	-0.00515652	2097152	2097152	
42881.5	-0.00507257	2097152	2097152	
42896.8	-0.00498867	2097152	2097152	
42912.2	-0.00490485	2097152	2097152	
42927.5	-0.00482115	2097152	2097152	
42942.9	-0.0047376	2097152	2097152	
42958.2	-0.00465425	2097152	2097152	
42973.5	-0.00457112	2097152	2097152	
42988.9	-0.00448826	2097152	2097152	
43004.2	-0.00440569	2097152	2097152	
43019.6	-0.00432345	2097152	2097152	
43034.9	-0.00424158	2097152	2097152	
43050.3	-0.00416011	2097152	2097152	
43065.6	-0.00407907	2097152	2097152	
43081	-0.00399849	2097152	2097152	
43096.3	-0.0039184	2097152	2097152	
43111.7	-0.00383885	2097152	2097152	
43127	-0.00375985	2097152	2097152	
43142.4	-0.00368145	2097152	2097152	
43157.7	-0.00360366	2097152	2097152	
43173.1	-0.00352653	2097152	2097152	
43188.4	-0.00345007	2097152	2097152	
