0	0	135936	135936	
18.4875	0	135734	135734	
37.1736	0	135814	135814	
55.6611	0	135962	135962	
74.1486	0	136114	136114	
92.6361	0	136294	136294	
111.1	0	136458	136458	
129.564	0	136594	136594	
148.029	0	136710	136710	
166.348	0	136682	136682	
184.668	0	136698	136698	
202.987	0	136712	136712	
221.307	0	136762	136762	
239.627	0	136810	136810	
257.946	0	136884	136884	
276.266	0	136966	136966	
294.585	0	137036	137036	
312.905	0	137100	137100	
331.224	0	137150	137150	
349.544	0	137226	137226	
367.864	0	137330	137330	
386.183	0	137422	137422	
404.503	0	137482	137482	
422.822	0	137538	137538	
441.142	0	137630	137630	
459.461	0	137682	137682	
477.781	0	137700	137700	
496.051	0	137724	137724	
514.322	0	137766	137766	
532.592	0	137782	137782	
550.863	0	137830	137830	
569.133	0	137826	137826	
587.404	0	137840	137840	
605.674	0	137910	137910	
623.944	0	137984	137984	
642.215	0	138058	138058	
660.485	0	138120	138120	
678.756	0	138228	138228	
697.026	0	138330	138330	
715.296	0	138402	138402	
733.567	0	138512	138512	
751.837	0	138608	138608	
770.108	0	138678	138678	
788.378	0	138750	138750	
806.648	0	138820	138820	
824.919	0	138916	138916	
843.189	0	138994	138994	
861.46	0	139092	139092	
879.73	0	139170	139170	
898	0	139282	139282	
916.271	0	139366	139366	
934.541	0	139464	139464	
952.812	0	139580	139580	
971.082	0	139660	139660	
989.352	0	139760	139760	
1007.62	0	139858	139858	
1025.89	0	139934	139934	
1044.16	0	140032	140032	
1062.43	0	140098	140098	
1080.7	0	140192	140192	
1098.97	0	140266	140266	
1117.25	0	140382	140382	
1135.52	0	140498	140498	
1153.79	0	140606	140606	
1172.06	0	140732	140732	
1190.33	0	140810	140810	
1208.6	0	140936	140936	
1226.87	0	141034	141034	
1244.88	0	141108	141108	
1262.9	0	141178	141178	
1280.92	0	141248	141248	
1298.93	0	141348	141348	
1316.95	0	141438	141438	
1334.97	0	141574	141574	
1352.64	0	141660	141660	
1370.31	0	141742	141742	
1387.98	0	141808	141808	
1405.64	0	141956	141956	
1422.93	0	142090	142090	
1440.22	0	142186	142186	
1457.51	0	142292	142292	
1474.8	0	142368	142368	
1492.09	0	142450	142450	
1509.38	0	142540	142540	
1526.51	0	142616	142616	
1543.63	0	142684	142684	
1560.76	0	142784	142784	
1577.88	0	142914	142914	
1595.01	0	142982	142982	
1612.13	0	143098	143098	
1629.26	0	143198	143198	
1646.39	0	143292	143292	
1663.51	0	143378	143378	
1680.64	0	143502	143502	
1697.76	0	143594	143594	
1714.76	0	143720	143720	
1731.76	0	143822	143822	
1748.76	0	143918	143918	
1765.76	0	144034	144034	
1782.76	0	144102	144102	
1799.76	0	144168	144168	
1816.76	0	144304	144304	
1833.76	0	144396	144396	
1850.76	0	144514	144514	
1867.76	0	144614	144614	
1884.76	0	144690	144690	
1901.76	0	144742	144742	
1918.76	0	144828	144828	
1935.76	0	144944	144944	
1952.76	0	145094	145094	
1969.76	0	145166	145166	
1986.76	0	145324	145324	
2003.76	0	145402	145402	
2020.76	0	145542	145542	
2037.76	0	145618	145618	
2054.76	0	145750	145750	
2071.74	0	145846	145846	
2088.72	0	145908	145908	
2105.69	0	145966	145966	
2122.67	0	146124	146124	
2139.65	0	146208	146208	
2156.63	0	146280	146280	
2173.61	0	146354	146354	
2190.58	0	146428	146428	
2207.56	0	146500	146500	
2224.54	0	146682	146682	
2241.52	0	146830	146830	
2258.49	0	146976	146976	
2275.47	0	147068	147068	
2292.45	0	147194	147194	
2309.43	0	147286	147286	
2326.41	0	147382	147382	
2343.38	0	147480	147480	
2360.36	0	147560	147560	
2377.34	0	147660	147660	
2394.32	0	147776	147776	
2411.3	0	147860	147860	
2428.27	0	147974	147974	
2445.25	0	148066	148066	
2462.23	0	148192	148192	
2479.21	0	148280	148280	
2496.16	0	148410	148410	
2513.11	0	148560	148560	
2530.06	0	148704	148704	
2547.02	0	148780	148780	
2563.97	0	148920	148920	
2580.92	0	149016	149016	
2597.87	0	149116	149116	
2614.52	0	149198	149198	
2631.16	0	149296	149296	
2647.8	0	149374	149374	
2664.44	0	149544	149544	
2681.08	0	149684	149684	
2697.73	0	149780	149780	
2714.37	0	149848	149848	
2731.01	0	149944	149944	
2747.56	0	150028	150028	
2764.1	0	150162	150162	
2780.65	0	150286	150286	
2797.19	0	150444	150444	
2813.74	0	150548	150548	
2830.28	0	150658	150658	
2846.83	0	150770	150770	
2863.38	0	150896	150896	
2879.92	0	150970	150970	
2896.47	0	151112	151112	
2913.01	0	151208	151208	
2929.56	0	151292	151292	
2946.1	0	151446	151446	
2962.65	0	151534	151534	
2979.2	0	151674	151674	
2995.74	0	151754	151754	
3012.29	0	151846	151846	
3028.83	0	151948	151948	
3045.38	0	152084	152084	
3061.93	0	152242	152242	
3078.47	0	152364	152364	
3095.02	0	152508	152508	
3111.56	0	152640	152640	
3128.11	0	152766	152766	
3144.65	0	152900	152900	
3161.2	0	153032	153032	
3177.72	0	153110	153110	
3194.23	0	153232	153232	
3210.75	0	153352	153352	
3227.26	0	153482	153482	
3243.78	-9.09495e-13	153546	153546	
3260.29	-1.81899e-12	153676	153676	
3276.81	-1.81899e-12	153784	153784	
3293.32	-2.72848e-12	153882	153882	
3309.84	-3.63798e-12	154020	154020	
3326.35	-4.54747e-12	154168	154168	
3342.87	-5.45697e-12	154326	154326	
3359.38	-6.36646e-12	154440	154440	
3375.9	-7.27596e-12	154604	154604	
3392.41	-8.18545e-12	154748	154748	
3408.93	-9.09495e-12	154868	154868	
3425.44	-1.00044e-11	155000	155000	
3441.96	-1.09139e-11	155100	155100	
3458.47	-1.18234e-11	155208	155208	
3474.99	-1.27329e-11	155312	155312	
3491.5	-1.45519e-11	155426	155426	
3508.02	-1.63709e-11	155560	155560	
3524.53	-1.81899e-11	155660	155660	
3541.05	-2.00089e-11	155784	155784	
3557.56	-2.27374e-11	155884	155884	
3574.07	-2.54659e-11	155988	155988	
3590.58	-2.81943e-11	156116	156116	
3607.09	-3.18323e-11	156282	156282	
3623.6	-3.54703e-11	156416	156416	
3640.11	-3.91083e-11	156552	156552	
3656.62	-4.36557e-11	156680	156680	
3673.13	-4.82032e-11	156850	156850	
3689.64	-5.36602e-11	156980	156980	
3706.15	-5.91172e-11	157110	157110	
3722.66	-6.54836e-11	157224	157224	
3739.17	-7.27596e-11	157314	157314	
3755.68	-8.00355e-11	157400	157400	
3772.19	-8.8221e-11	157534	157534	
3788.7	-9.73159e-11	157672	157672	
3805.21	-1.0732e-10	157846	157846	
3821.72	-1.18234e-10	157956	157956	
3838.23	-1.30058e-10	158034	158034	
3854.74	-1.42791e-10	158188	158188	
3871.25	-1.57343e-10	158334	158334	
3887.76	-1.72804e-10	158464	158464	
3904.27	-1.89175e-10	158596	158596	
3920.78	-2.07365e-10	158750	158750	
3937.29	-2.27374e-10	158878	158878	
3953.8	-2.48292e-10	158990	158990	
3970.31	-2.71029e-10	159158	159158	
3986.82	-2.95586e-10	159298	159298	
4003.33	-3.22871e-10	159440	159440	
4019.84	-3.51974e-10	159518	159518	
4036.35	-3.82897e-10	159640	159640	
4052.86	-4.16549e-10	159750	159750	
4069.37	-4.52928e-10	159916	159916	
4085.88	-4.92037e-10	160084	160084	
4102.39	-5.33873e-10	160210	160210	
4118.9	-5.78439e-10	160326	160326	
4135.41	-6.26642e-10	160458	160458	
4151.92	-6.78483e-10	160558	160558	
4168.43	-7.33962e-10	160734	160734	
4184.94	-7.93079e-10	160868	160868	
4201.45	-8.55835e-10	161056	161056	
4217.96	-9.23137e-10	161160	161160	
4234.47	-9.94987e-10	161294	161294	
4250.98	-1.07138e-09	161468	161468	
4267.49	-1.15233e-09	161600	161600	
4284	-1.23873e-09	161766	161766	
4300.51	-1.33059e-09	161890	161890	
4317.02	-1.42882e-09	162006	162006	
4333.53	-1.5325e-09	162146	162146	
4350.04	-1.64255e-09	162232	162232	
4366.55	-1.75987e-09	162340	162340	
4383.06	-1.88356e-09	162464	162464	
4399.57	-2.01453e-09	162616	162616	
4416.08	-2.15368e-09	162784	162784	
4432.59	-2.30011e-09	162850	162850	
4449.1	-2.45473e-09	162968	162968	
4465.61	-2.61844e-09	163130	163130	
4482.12	-2.79124e-09	163318	163318	
4498.63	-2.97314e-09	163466	163466	
4515.14	-3.16413e-09	163626	163626	
4531.65	-3.36604e-09	163772	163772	
4548.16	-3.57795e-09	163910	163910	
4564.67	-3.80078e-09	164050	164050	
4581.18	-4.03452e-09	164210	164210	
4597.69	-4.28008e-09	164336	164336	
4614.2	-4.53747e-09	164472	164472	
4630.71	-4.80668e-09	164596	164596	
4647.22	-5.08953e-09	164736	164736	
4663.73	-5.38512e-09	164834	164834	
4680.24	-5.69435e-09	164940	164940	
4696.75	-6.01722e-09	165098	165098	
4713.26	-6.35464e-09	165298	165298	
4729.77	-6.70661e-09	165466	165466	
4746.28	-7.07405e-09	165578	165578	
4762.79	-7.45786e-09	165708	165708	
4779.3	-7.85712e-09	165870	165870	
4795.81	-8.27276e-09	166056	166056	
4812.32	-8.70568e-09	166236	166236	
4828.83	-9.15588e-09	166398	166398	
4845.34	-9.62336e-09	166558	166558	
4861.85	-1.0109e-08	166720	166720	
4878.36	-1.06138e-08	166844	166844	
4894.87	-1.11377e-08	166988	166988	
4911.38	-1.16806e-08	167132	167132	
4927.89	-1.22436e-08	167316	167316	
4944.4	-1.28266e-08	167430	167430	
4960.91	-1.34296e-08	167570	167570	
4977.42	-1.40535e-08	167716	167716	
4993.93	-1.46983e-08	167872	167872	
5010.44	-1.5365e-08	168026	168026	
5026.95	-1.60535e-08	168184	168184	
5043.46	-1.67647e-08	168314	168314	
5059.97	-1.74978e-08	168508	168508	
5076.48	-1.82536e-08	168648	168648	
5092.99	-1.9033e-08	168806	168806	
5109.5	-1.98352e-08	168968	168968	
5126.01	-2.0661e-08	169078	169078	
5142.52	-2.15105e-08	169258	169258	
5159.03	-2.23845e-08	169360	169360	
5175.54	-2.32822e-08	169530	169530	
5192.05	-2.42044e-08	169692	169692	
5208.56	-2.51512e-08	169854	169854	
5225.07	-2.61225e-08	170030	170030	
5241.58	-2.71184e-08	170170	170170	
5258.09	-2.81389e-08	170320	170320	
5274.6	-2.91848e-08	170460	170460	
5291.11	-3.02553e-08	170636	170636	
5307.62	-3.13503e-08	170788	170788	
5324.13	-3.24708e-08	170914	170914	
5340.64	-3.36158e-08	171076	171076	
5357.15	-3.47864e-08	171216	171216	
5373.66	-3.59814e-08	171368	171368	
5390.17	-3.72011e-08	171538	171538	
5406.68	-3.84453e-08	171734	171734	
5423.19	-3.9714e-08	171892	171892	
5439.7	-4.10064e-08	172060	172060	
5456.21	-4.23233e-08	172206	172206	
5472.72	-4.36639e-08	172394	172394	
5489.23	-4.50273e-08	172512	172512	
5505.74	-4.64142e-08	172682	172682	
5522.25	-4.7824e-08	172808	172808	
5538.76	-4.92555e-08	172952	172952	
5555.27	-5.07089e-08	173086	173086	
5571.78	-5.21841e-08	173246	173246	
5588.29	-5.36802e-08	173394	173394	
5604.8	-5.51972e-08	173536	173536	
5621.31	-5.67343e-08	173680	173680	
5637.82	-5.82904e-08	173800	173800	
5654.33	-5.98648e-08	173924	173924	
5670.84	-6.14573e-08	174126	174126	
5687.35	-6.3068e-08	174312	174312	
5703.86	-6.46951e-08	174524	174524	
5720.37	-6.63385e-08	174644	174644	
5736.88	-6.79966e-08	174818	174818	
5753.39	-6.96691e-08	174940	174940	
5769.9	-7.13553e-08	175086	175086	
5786.41	-7.30552e-08	175230	175230	
5802.92	-7.47659e-08	175406	175406	
5819.43	-7.64876e-08	175550	175550	
5835.94	-7.82193e-08	175744	175744	
5852.45	-7.996e-08	175914	175914	
5868.96	-8.1709e-08	176068	176068	
5885.47	-8.34652e-08	176194	176194	
5901.98	-8.52269e-08	176384	176384	
5918.49	-8.69932e-08	176522	176522	
5935	-8.8763e-08	176672	176672	
5951.51	-9.05357e-08	176854	176854	
5968.02	-9.23092e-08	177058	177058	
5984.53	-9.40827e-08	177190	177190	
6001.04	-9.58553e-08	177400	177400	
6017.55	-9.76261e-08	177598	177598	
6034.06	-9.93932e-08	177770	177770	
6050.57	-1.01155e-07	177896	177896	
6067.08	-1.02911e-07	178040	178040	
6083.59	-1.0466e-07	178174	178174	
6100.1	-1.064e-07	178324	178324	
6116.61	-1.0813e-07	178518	178518	
6133.12	-1.09849e-07	178692	178692	
6149.63	-1.11555e-07	178834	178834	
6166.14	-1.13248e-07	178994	178994	
6182.65	-1.14926e-07	179156	179156	
6199.16	-1.16587e-07	179320	179320	
6215.67	-1.18232e-07	179468	179468	
6232.18	-1.19857e-07	179646	179646	
6248.69	-1.21462e-07	179840	179840	
6265.2	-1.23046e-07	179986	179986	
6281.71	-1.24609e-07	180146	180146	
6298.22	-1.26148e-07	180328	180328	
6314.73	-1.27662e-07	180508	180508	
6331.24	-1.29151e-07	180678	180678	
6347.75	-1.30613e-07	180796	180796	
6364.26	-1.32049e-07	180938	180938	
6380.77	-1.33456e-07	181094	181094	
6397.28	-1.34833e-07	181302	181302	
6413.79	-1.36181e-07	181442	181442	
6430.3	-1.37499e-07	181610	181610	
6446.81	-1.38786e-07	181778	181778	
6463.32	-1.40041e-07	181940	181940	
6479.83	-1.41265e-07	182142	182142	
6496.34	-1.42457e-07	182282	182282	
6512.85	-1.43616e-07	182402	182402	
6529.36	-1.44744e-07	182562	182562	
6545.87	-1.4584e-07	182790	182790	
6562.38	-1.46904e-07	182946	182946	
6578.89	-1.47937e-07	183136	183136	
6595.4	-1.4894e-07	183334	183334	
6611.91	-1.49912e-07	183490	183490	
6628.42	-1.50855e-07	183608	183608	
6644.93	-1.51771e-07	183742	183742	
6661.44	-1.52661e-07	183944	183944	
6677.95	-1.53525e-07	184114	184114	
6694.46	-1.54367e-07	184296	184296	
6710.97	-1.55188e-07	184480	184480	
6727.48	-1.5599e-07	184640	184640	
6743.99	-1.56776e-07	184806	184806	
6760.5	-1.57549e-07	184972	184972	
6777	-1.58312e-07	185104	185104	
6793.51	-1.59068e-07	185284	185284	
6810.02	-1.59821e-07	185426	185426	
6826.53	-1.60576e-07	185582	185582	
6843.04	-1.61336e-07	185794	185794	
6859.55	-1.62107e-07	185984	185984	
6876.06	-1.62894e-07	186176	186176	
6892.57	-1.63703e-07	186348	186348	
6909.08	-1.64539e-07	186514	186514	
6925.59	-1.6541e-07	186690	186690	
6942.1	-1.66322e-07	186896	186896	
6958.61	-1.67283e-07	187032	187032	
6975.12	-1.68302e-07	187234	187234	
6991.63	-1.69387e-07	187416	187416	
7008.14	-1.70547e-07	187566	187566	
7024.65	-1.71792e-07	187738	187738	
7041.16	-1.73132e-07	187926	187926	
7057.67	-1.74579e-07	188110	188110	
7074.18	-1.76145e-07	188290	188290	
7090.69	-1.77842e-07	188480	188480	
7107.2	-1.79683e-07	188648	188648	
7123.71	-1.81682e-07	188818	188818	
7140.22	-1.83853e-07	188970	188970	
7156.73	-1.86214e-07	189136	189136	
7173.24	-1.88778e-07	189328	189328	
7189.75	-1.91565e-07	189536	189536	
7206.26	-1.94593e-07	189748	189748	
7222.77	-1.9788e-07	189900	189900	
7239.27	-2.01446e-07	190020	190020	
7255.78	-2.05312e-07	190192	190192	
7272.29	-2.095e-07	190372	190372	
7288.8	-2.14033e-07	190530	190530	
7305.31	-2.18935e-07	190718	190718	
7321.82	-2.2423e-07	190884	190884	
7338.33	-2.29944e-07	191072	191072	
7354.84	-2.36103e-07	191292	191292	
7371.35	-2.42734e-07	191498	191498	
7387.86	-2.49867e-07	191700	191700	
7404.37	-2.57533e-07	191890	191890	
7420.88	-2.65761e-07	192052	192052	
7437.39	-2.74586e-07	192224	192224	
7453.9	-2.84041e-07	192412	192412	
7470.41	-2.94162e-07	192612	192612	
7486.92	-3.04984e-07	192764	192764	
7503.43	-3.16545e-07	192942	192942	
7519.94	-3.2888e-07	193106	193106	
7536.45	-3.42025e-07	193300	193300	
7552.96	-3.56016e-07	193468	193468	
7569.47	-3.70889e-07	193648	193648	
7585.98	-3.86681e-07	193840	193840	
7602.49	-4.03427e-07	193984	193984	
7618.99	-4.21169e-07	194166	194166	
7635.5	-4.39949e-07	194358	194358	
7652.01	-4.59814e-07	194558	194558	
7668.52	-4.80813e-07	194772	194772	
7685.03	-5.03001e-07	194956	194956	
7701.54	-5.26435e-07	195070	195070	
7718.05	-5.51181e-07	195264	195264	
7734.56	-5.77315e-07	195404	195404	
7751.07	-6.04926e-07	195650	195650	
7767.58	-6.34125e-07	195856	195856	
7784.09	-6.6497e-07	196096	196096	
7800.6	-6.97406e-07	196328	196328	
7817.11	-7.31344e-07	196492	196492	
7833.62	-7.66698e-07	196644	196644	
7850.13	-8.03411e-07	196856	196856	
7866.64	-8.41476e-07	197074	197074	
7883.15	-8.8095e-07	197254	197254	
7899.66	-9.21967e-07	197350	197350	
7916.17	-9.64743e-07	197516	197516	
7932.68	-1.00959e-06	197718	197718	
7949.19	-1.05704e-06	197958	197958	
7965.7	-1.10796e-06	198186	198186	
7982.21	-1.1626e-06	198404	198404	
7998.72	-1.22053e-06	198564	198564	
8015.23	-1.28136e-06	198740	198740	
8031.74	-1.34505e-06	198934	198934	
8048.25	-1.41203e-06	199116	199116	
8064.76	-1.48307e-06	199324	199324	
8081.27	-1.55922e-06	199520	199520	
8097.77	-1.64182e-06	199690	199690	
8114.28	-1.73126e-06	199886	199886	
8130.79	-1.9475e-06	200072	200072	
8147.3	-2.22527e-06	200300	200300	
8163.81	-2.5392e-06	200464	200464	
8180.32	-2.87408e-06	200692	200692	
8196.83	-3.22496e-06	200888	200888	
8213.34	-3.57421e-06	201076	201076	
8229.85	-3.92606e-06	201300	201300	
8246.36	-4.30654e-06	201522	201522	
8262.87	-4.22564e-06	201744	201744	
8279.38	-4.35505e-06	201934	201934	
8295.89	-4.55769e-06	202098	202098	
8312.4	-4.89094e-06	202262	202262	
8328.91	-5.41203e-06	202464	202464	
8345.42	-6.12087e-06	202704	202704	
8361.93	-7.94459e-06	202930	202930	
8378.44	-9.23879e-06	203106	203106	
8394.95	-1.05637e-05	203336	203336	
8411.46	-1.21384e-05	203506	203506	
8427.97	-1.38995e-05	203666	203666	
8444.48	-1.58014e-05	203934	203934	
8460.99	-1.78304e-05	204160	204160	
8477.5	-1.99922e-05	204368	204368	
8494.01	-2.23035e-05	204542	204542	
8510.52	-2.47834e-05	204712	204712	
8527.03	-2.74312e-05	204948	204948	
8543.54	-3.02598e-05	205136	205136	
8560.05	-3.33057e-05	205382	205382	
8576.56	-3.66009e-05	205628	205628	
8593.07	-4.01629e-05	205794	205794	
8609.58	-4.39941e-05	205932	205932	
8626.09	-4.80934e-05	206076	206076	
8642.6	-5.24615e-05	206360	206360	
8659.11	-5.71036e-05	206574	206574	
8675.62	-6.20268e-05	206768	206768	
8692.13	-6.7237e-05	206966	206966	
8708.64	-7.27452e-05	207198	207198	
8725.15	-7.85684e-05	207446	207446	
8741.66	-8.47309e-05	207652	207652	
8758.17	-9.12593e-05	207860	207860	
8774.68	-9.81784e-05	208066	208066	
8791.19	-0.000105509	208244	208244	
8807.7	-0.000113268	208410	208410	
8824.21	-0.000121469	208550	208550	
8840.72	-0.000130124	208832	208832	
8857.23	-0.000139242	209056	209056	
8873.74	-0.000148833	209272	209272	
8890.25	-0.000158908	209454	209454	
8906.76	-0.00016948	209710	209710	
8923.27	-0.000180565	209898	209898	
8939.78	-0.00019218	210100	210100	
8956.29	-0.000204341	210330	210330	
8972.8	-0.000217065	210500	210500	
8989.31	-0.000230366	210730	210730	
9005.82	-0.000244256	210888	210888	
9022.33	-0.000258745	211140	211140	
9038.84	-0.000273842	211404	211404	
9055.35	-0.000289554	211612	211612	
9071.86	-0.00030589	211804	211804	
9088.37	-0.000322857	211966	211966	
9104.88	-0.000340465	212134	212134	
9121.39	-0.000358723	212366	212366	
9137.9	-0.000377643	212642	212642	
9154.41	-0.000397234	212918	212918	
9170.92	-0.000417506	213150	213150	
9187.43	-0.000438467	213352	213352	
9203.94	-0.000460123	213552	213552	
9220.45	-0.000482479	213748	213748	
9236.96	-0.000505535	213988	213988	
9253.47	-0.000529294	214202	214202	
9269.98	-0.000553752	214396	214396	
9286.49	-0.000578907	214646	214646	
9303	-0.000604755	214838	214838	
9319.51	-0.000631289	215094	215094	
9336.02	-0.000658502	215302	215302	
9352.53	-0.000686382	215542	215542	
9369.04	-0.000714917	215730	215730	
9385.55	-0.000744091	215968	215968	
9402.06	-0.000773885	216132	216132	
9418.57	-0.000804276	216380	216380	
9435.08	-0.000835239	216644	216644	
9451.59	-0.000866743	216812	216812	
9468.1	-0.000898757	217116	217116	
9484.61	-0.000931242	217350	217350	
9501.12	-0.00096416	217500	217500	
9517.63	-0.000997465	217732	217732	
9534.14	-0.00103111	217948	217948	
9550.65	-0.00106503	218232	218232	
9567.16	-0.00109918	218446	218446	
9583.67	-0.00113348	218684	218684	
9600.18	-0.00116786	218910	218910	
9616.69	-0.00120225	219116	219116	
9633.2	-0.00123653	219354	219354	
9649.71	-0.00127063	219582	219582	
9666.22	-0.00130443	219836	219836	
9682.73	-0.0013378	220050	220050	
9699.24	-0.00137062	220300	220300	
9715.75	-0.00140275	220550	220550	
9732.26	-0.00143402	220800	220800	
9748.77	-0.00146428	221018	221018	
9765.27	-0.00149332	221258	221258	
9781.78	-0.00152097	221492	221492	
9798.29	-0.00154699	221698	221698	
9814.8	-0.00157115	221946	221946	
9831.31	-0.0015932	222208	222208	
9847.82	-0.00161286	222486	222486	
9864.33	-0.00162985	222748	222748	
9880.84	-0.00164383	222968	222968	
9897.35	-0.00165447	223216	223216	
9913.86	-0.00166141	223464	223464	
9930.37	-0.00166425	223692	223692	
9946.88	-0.00166257	223932	223932	
9963.39	-0.00165593	224150	224150	
9979.9	-0.00164384	224346	224346	
9996.41	-0.0016258	224582	224582	
10012.9	-0.00160127	224866	224866	
10029.4	-0.00156967	225102	225102	
10045.9	-0.00153041	225332	225332	
10062.5	-0.00148283	225558	225558	
10079	-0.00142627	225832	225832	
10095.5	-0.00136001	226128	226128	
10112	-0.0012833	226332	226332	
10128.5	-0.00119536	226578	226578	
10145	-0.00109538	226746	226746	
10161.5	-0.000982494	226968	226968	
10178	-0.000855814	227240	227240	
10194.5	-0.000714415	227448	227448	
10211	-0.000557339	227716	227716	
10227.6	-0.000383593	227978	227978	
10244.1	-0.000192156	228232	228232	
10260.6	1.80241e-05	228488	228488	
10277.1	0.000248026	228754	228754	
10293.6	0.000498955	229000	229000	
10310.1	0.000771934	229264	229264	
10326.6	0.00106811	229478	229478	
10343.1	0.00138864	229692	229692	
10359.6	0.00173471	229890	229890	
10376.1	0.00210748	230162	230162	
10392.7	0.00250815	230372	230372	
10409.2	0.0029379	230630	230630	
10425.7	0.00339791	230836	230836	
10442.2	0.00388934	231032	231032	
10458.7	0.00441334	231294	231294	
10475.2	0.00497106	231550	231550	
10491.7	0.00556357	231854	231854	
10508.2	0.00619196	232194	232194	
10524.7	0.00685724	232426	232426	
10541.2	0.0075604	232614	232614	
10557.8	0.00830235	232840	232840	
10574.3	0.00908397	233084	233084	
10590.8	0.00990604	233258	233258	
10607.3	0.0107693	233558	233558	
10623.8	0.0116743	233816	233816	
10640.3	0.0126218	234056	234056	
10656.8	0.013612	234348	234348	
10673.3	0.0146454	234596	234596	
10689.8	0.0157223	234812	234812	
10706.3	0.0168427	235042	235042	
10722.9	0.0180067	235272	235272	
10739.4	0.0192142	235472	235472	
10755.9	0.0204649	235664	235664	
10772.4	0.0217585	235916	235916	
10788.9	0.0230944	236156	236156	
10805.4	0.0244721	236464	236464	
10821.9	0.0258906	236746	236746	
10838.4	0.0273492	236992	236992	
10854.9	0.0288466	237256	237256	
10871.4	0.0303818	237456	237456	
10888	0.0319532	237724	237724	
10904.5	0.0335594	237940	237940	
10921	0.0351986	238236	238236	
10937.5	0.0368692	238486	238486	
10954	0.038569	238722	238722	
10970.5	0.040296	238956	238956	
10987	0.042048	239188	239188	
11003.5	0.0438226	239440	239440	
11020	0.0456173	239708	239708	
11036.5	0.0474295	239954	239954	
11053	0.0492564	240206	240206	
11069.6	0.0510953	240434	240434	
11086.1	0.0529432	240664	240664	
11102.6	0.0547972	240858	240858	
11119.1	0.056654	241168	241168	
11135.6	0.0585106	241422	241422	
11152.1	0.0603638	241658	241658	
11168.6	0.0622103	241966	241966	
11185.1	0.0640468	242222	242222	
11201.6	0.06587	242484	242484	
11218.1	0.0676765	242760	242760	
11234.7	0.0694631	242976	242976	
11251.2	0.0712263	243174	243174	
11267.7	0.072963	243394	243394	
11284.2	0.0746697	243608	243608	
11300.7	0.0763434	243824	243824	
11317.2	0.0779807	244062	244062	
11333.7	0.0795787	244282	244282	
11350.2	0.0811343	244498	244498	
11366.7	0.0826446	244784	244784	
11383.2	0.0841067	245032	245032	
11399.8	0.0855179	245266	245266	
11416.3	0.0868756	245556	245556	
11432.8	0.0881773	245796	245796	
11449.3	0.0894207	246040	246040	
11465.8	0.0906035	246302	246302	
11482.3	0.0917238	246572	246572	
11498.8	0.0927795	246806	246806	
11515.3	0.093769	246992	246992	
11531.8	0.0946907	247230	247230	
11548.3	0.0955432	247474	247474	
11564.9	0.0963252	247810	247810	
11581.4	0.0970356	248122	248122	
11597.9	0.0976737	248414	248414	
11614.4	0.0982386	248624	248624	
11630.9	0.0987299	248874	248874	
11647.4	0.0991472	249144	249144	
11663.9	0.0994903	249418	249418	
11680.4	0.0997591	249702	249702	
11696.9	0.0999539	249910	249910	
11713.4	0.100075	250144	250144	
11730	0.100123	250412	250412	
11746.5	0.100098	250678	250678	
11763	0.100001	250930	250930	
11779.5	0.0998334	251164	251164	
11796	0.0995959	251406	251406	
11812.5	0.0992897	251640	251640	
11829	0.0989162	251950	251950	
11845.5	0.0984768	252258	252258	
11862	0.097973	252604	252604	
11878.5	0.0974064	252892	252892	
11895.1	0.0967789	253198	253198	
11911.6	0.0960922	253490	253490	
11928.1	0.095348	253796	253796	
11944.6	0.094547	254110	254110	
11961.1	0.093694	254406	254406	
11977.7	0.0927896	254648	254648	
11994.2	0.0918362	254920	254920	
12010.7	0.0908359	255238	255238	
12027.2	0.0897908	255480	255480	
12043.7	0.0887029	255820	255820	
12060.2	0.0875741	256084	256084	
12076.7	0.086407	256364	256364	
12093.2	0.0852036	256592	256592	
12109.8	0.0839661	256850	256850	
12126.3	0.0826966	257168	257168	
12142.8	0.0813972	257448	257448	
12159.3	0.08007	257800	257800	
12175.8	0.078717	258046	258046	
12192.3	0.0773401	258290	258290	
12208.8	0.0759417	258526	258526	
12225.4	0.0745232	258812	258812	
12241.9	0.0730865	259150	259150	
12258.4	0.0716328	259438	259438	
12274.9	0.0701643	259696	259696	
12291.4	0.0686825	260042	260042	
12307.9	0.067189	260346	260346	
12324.4	0.0656853	260568	260568	
12341	0.0641728	260858	260858	
12357.5	0.0626527	261158	261158	
12374	0.0611268	261464	261464	
12390.5	0.0595958	261780	261780	
12407	0.0580609	262062	262062	
12423.5	0.0565225	262346	262346	
12440	0.0549825	262626	262626	
12456.5	0.0534415	262900	262900	
12473	0.0519001	263204	263204	
12489.6	0.0503593	263476	263476	
12506.1	0.0488196	263858	263858	
12522.6	0.0472816	264108	264108	
12539.1	0.0457461	264420	264420	
12555.6	0.0442134	264730	264730	
12572.1	0.042684	265014	265014	
12588.6	0.0411584	265288	265288	
12605.1	0.0396369	265560	265560	
12621.6	0.0381199	265782	265782	
12638.1	0.0366077	265986	265986	
12654.7	0.0351004	266384	266384	
12671.2	0.0335983	266658	266658	
12687.7	0.0321016	266998	266998	
12704.2	0.0306105	267328	267328	
12720.7	0.0291251	267636	267636	
12737.2	0.0276454	267842	267842	
12753.7	0.0261717	268166	268166	
12770.2	0.0247041	268484	268484	
12786.7	0.0232425	268756	268756	
12803.2	0.021787	269044	269044	
12819.8	0.0203378	269338	269338	
12836.3	0.0188949	269652	269652	
12852.8	0.0174583	269928	269928	
12869.3	0.0160281	270236	270236	
12885.8	0.0146045	270502	270502	
12902.3	0.0131873	270786	270786	
12918.8	0.0117769	271112	271112	
12935.3	0.0103732	271380	271380	
12951.8	0.00897626	271730	271730	
12968.3	0.00758632	272026	272026	
12984.9	0.00620345	272300	272300	
13001.4	0.0048278	272620	272620	
13017.9	0.00345951	272882	272882	
13034.4	0.00209876	273174	273174	
13050.9	0.000745707	273460	273460	
13067.4	-0.00059944	273820	273820	
13083.9	-0.00193648	274188	274188	
13100.4	-0.00326519	274506	274506	
13116.9	-0.00458533	274822	274822	
13133.4	-0.00589666	275100	275100	
13150	-0.00719893	275346	275346	
13166.5	-0.00849185	275698	275698	
13183	-0.00977515	276056	276056	
13199.5	-0.0110485	276386	276386	
13216	-0.0123117	276724	276724	
13232.5	-0.0135643	277006	277006	
13249	-0.0148061	277318	277318	
13265.5	-0.0160368	277622	277622	
13282	-0.0172559	277976	277976	
13298.5	-0.0184632	278272	278272	
13315.1	-0.0196584	278614	278614	
13331.6	-0.0208411	278876	278876	
13348.1	-0.022011	279166	279166	
13364.6	-0.0231677	279460	279460	
13381.1	-0.0243109	279768	279768	
13397.6	-0.0254403	280074	280074	
13414.1	-0.0265556	280350	280350	
13430.6	-0.0276564	280638	280638	
13447.1	-0.0287424	280946	280946	
13463.6	-0.0298134	281342	281342	
13480.2	-0.0308689	281648	281648	
13496.7	-0.0319088	281936	281936	
13513.2	-0.0329327	282232	282232	
13529.7	-0.0339404	282554	282554	
13546.2	-0.0349316	282870	282870	
13562.7	-0.035906	283160	283160	
13579.2	-0.0368634	283488	283488	
13595.7	-0.0378035	283844	283844	
13612.2	-0.0387262	284162	284162	
13628.7	-0.0396312	284400	284400	
13645.3	-0.0405184	284660	284660	
13661.8	-0.0413874	284938	284938	
13678.3	-0.0422383	285210	285210	
13694.8	-0.0430707	285580	285580	
13711.3	-0.0438845	285920	285920	
13727.8	-0.0446797	286270	286270	
13744.3	-0.0454559	286638	286638	
13760.8	-0.0462132	286954	286954	
13777.3	-0.0469515	287260	287260	
13793.8	-0.0476705	287586	287586	
13810.4	-0.0483702	287890	287890	
13826.9	-0.0490506	288138	288138	
13843.4	-0.0497116	288414	288414	
13859.9	-0.0503531	288656	288656	
13876.4	-0.050975	288936	288936	
13892.9	-0.0515773	289274	289274	
13909.4	-0.05216	289722	289722	
13925.9	-0.0527231	290080	290080	
13942.4	-0.0532665	290424	290424	
13958.9	-0.0537902	290684	290684	
13975.5	-0.0542942	290980	290980	
13992	-0.0547785	291260	291260	
14008.5	-0.0552431	291624	291624	
14025	-0.0556881	291924	291924	
14041.5	-0.0561133	292218	292218	
14058	-0.056519	292440	292440	
14074.5	-0.056905	292736	292736	
14091	-0.0572714	292968	292968	
14107.5	-0.0576182	293418	293418	
14124	-0.0579454	293760	293760	
14140.6	-0.0582531	294046	294046	
14157.1	-0.0585412	294420	294420	
14173.6	-0.0588099	294762	294762	
14190.1	-0.059059	295046	295046	
14206.6	-0.0592886	295336	295336	
14223.1	-0.0594986	295602	295602	
14239.6	-0.0596891	295910	295910	
14256.1	-0.05986	296242	296242	
14272.6	-0.0600112	296572	296572	
14289.1	-0.0601426	296860	296860	
14305.7	-0.0602543	297136	297136	
14322.2	-0.0603459	297476	297476	
14338.7	-0.0604174	297880	297880	
14355.2	-0.060469	298176	298176	
14371.7	-0.060501	298492	298492	
14388.2	-0.0605121	298764	298764	
14404.7	-0.0605031	299106	299106	
14421.2	-0.0604772	299446	299446	
14437.7	-0.0604348	299754	299754	
14454.2	-0.0603282	300004	300004	
14470.8	-0.0602439	300256	300256	
14487.3	-0.060151	300548	300548	
14503.8	-0.0600446	300798	300798	
14520.3	-0.0599216	301146	301146	
14536.8	-0.0598081	301594	301594	
14553.3	-0.0596879	301994	301994	
14569.8	-0.0595462	302298	302298	
14586.3	-0.0594013	302620	302620	
14602.8	-0.0592385	302890	302890	
14619.3	-0.059047	303164	303164	
14635.9	-0.0588287	303450	303450	
14652.4	-0.0584357	303756	303756	
14668.9	-0.0580482	304122	304122	
14685.4	-0.0576863	304420	304420	
14701.9	-0.0573285	304716	304716	
14718.4	-0.0569623	305000	305000	
14734.9	-0.0565866	305266	305266	
14751.4	-0.0561924	305616	305616	
14767.9	-0.0557788	306054	306054	
14784.4	-0.0553469	306458	306458	
14801	-0.0548981	306756	306756	
14817.5	-0.0544397	307034	307034	
14834	-0.0539614	307280	307280	
14850.5	-0.0534638	307550	307550	
14867	-0.0529471	307872	307872	
14883.5	-0.0524097	308194	308194	
14900	-0.0518518	308536	308536	
14916.5	-0.0512764	308856	308856	
14933	-0.0506856	309180	309180	
14949.5	-0.0500806	309506	309506	
14966.1	-0.0494615	309920	309920	
14982.6	-0.0488288	310246	310246	
14999.1	-0.0481822	310586	310586	
15015.6	-0.0475212	310942	310942	
15032.1	-0.0468446	311262	311262	
15048.6	-0.0461516	311638	311638	
15065.1	-0.0454416	312028	312028	
15081.6	-0.0447148	312372	312372	
15098.1	-0.0439714	312708	312708	
15114.6	-0.0432124	313030	313030	
15131.2	-0.0424387	313292	313292	
15147.7	-0.0416515	313580	313580	
15164.2	-0.0408518	313902	313902	
15180.7	-0.0400404	314206	314206	
15197.2	-0.0392175	314658	314658	
15213.7	-0.0383833	315086	315086	
15230.2	-0.0375378	315530	315530	
15246.7	-0.0366809	315848	315848	
15263.2	-0.0358125	316214	316214	
15279.7	-0.034933	316530	316530	
15296.3	-0.0340428	316822	316822	
15312.8	-0.0331425	317152	317152	
15329.3	-0.0322327	317510	317510	
15345.8	-0.0313138	317916	317916	
15362.3	-0.0303862	318298	318298	
15378.8	-0.02945	318688	318688	
15395.3	-0.0285056	319086	319086	
15411.8	-0.0275532	319506	319506	
15428.3	-0.0265934	319834	319834	
15444.8	-0.0256266	320208	320208	
15461.4	-0.0246534	320612	320612	
15477.9	-0.0236742	320940	320940	
15494.4	-0.0226897	321220	321220	
15510.9	-0.0217002	321586	321586	
15527.4	-0.0207063	321930	321930	
15543.9	-0.0197084	322248	322248	
15560.4	-0.0187067	322642	322642	
15576.9	-0.0177016	323000	323000	
15593.4	-0.0166931	323352	323352	
15609.9	-0.0156816	323772	323772	
15626.5	-0.0146672	324226	324226	
15643	-0.0136503	324548	324548	
15659.5	-0.0126311	324920	324920	
15676	-0.0116101	325242	325242	
15692.5	-0.0105878	325592	325592	
15709	-0.00956461	325954	325954	
15725.5	-0.00854114	326310	326310	
15742	-0.0075179	326628	326628	
15758.5	-0.00649539	326868	326868	
15775	-0.00547405	327268	327268	
15791.6	-0.00445429	327660	327660	
15808.1	-0.00343644	328008	328008	
15824.6	-0.00242083	328342	328342	
15841.1	-0.00140775	328676	328676	
15857.6	-0.000397479	329074	329074	
15874.1	0.000609686	329434	329434	
15890.6	0.00161345	329802	329802	
15907.1	0.0026135	330104	330104	
15923.6	0.00360951	330456	330456	
15940.1	0.00460116	330762	330762	
15956.7	0.00558813	331096	331096	
15973.2	0.00657008	331406	331406	
15989.7	0.0075467	331776	331776	
16006.2	0.00851769	332134	332134	
16022.7	0.00948274	332538	332538	
16039.2	0.0104416	332930	332930	
16055.7	0.0113939	333348	333348	
16072.2	0.0123393	333694	333694	
16088.7	0.0132777	334088	334088	
16105.2	0.0142087	334460	334460	
16121.8	0.0151321	334820	334820	
16138.3	0.0160474	335202	335202	
16154.8	0.0169545	335636	335636	
16171.3	0.017853	335922	335922	
16187.8	0.0187426	336254	336254	
16204.3	0.0196231	336618	336618	
16220.8	0.020494	337004	337004	
16237.3	0.0213552	337406	337406	
16253.8	0.0222062	337822	337822	
16270.3	0.0230467	338208	338208	
16286.9	0.0238766	338514	338514	
16303.4	0.0246953	338928	338928	
16319.9	0.0255026	339294	339294	
16336.4	0.0262981	339636	339636	
16352.9	0.0270816	339936	339936	
16369.4	0.0278528	340236	340236	
16385.9	0.0286112	340604	340604	
16402.4	0.0293566	340930	340930	
16418.9	0.0300887	341352	341352	
16435.4	0.030807	341722	341722	
16452	0.0315113	342066	342066	
16468.5	0.0322012	342436	342436	
16485	0.0328763	342822	342822	
16501.5	0.0335363	343212	343212	
16518	0.0341807	343548	343548	
16534.5	0.0348092	343906	343906	
16551	0.0354214	344276	344276	
16567.5	0.036017	344652	344652	
16584	0.0365955	345108	345108	
16600.5	0.0371567	345412	345412	
16617.1	0.0377001	345768	345768	
16633.6	0.0382254	346110	346110	
16650.1	0.0387323	346496	346496	
16666.6	0.0392205	346834	346834	
16683.1	0.0396895	347242	347242	
16699.6	0.0401392	347586	347586	
16716.1	0.0405691	347930	347930	
16732.6	0.040979	348164	348164	
16749.1	0.0413685	348578	348578	
16765.6	0.0417374	348942	348942	
16782.2	0.0420855	349382	349382	
16798.7	0.0424124	349804	349804	
16815.2	0.042718	350136	350136	
16831.7	0.0430019	350520	350520	
16848.2	0.043264	350918	350918	
16864.7	0.0435041	351306	351306	
16881.2	0.0437219	351644	351644	
16897.7	0.0439174	351946	351946	
16914.2	0.0440903	352364	352364	
16930.7	0.0442405	352860	352860	
16947.3	0.0443679	353234	353234	
16963.8	0.0444725	353694	353694	
16980.3	0.044554	354050	354050	
16996.8	0.0446126	354404	354404	
17013.3	0.044648	354718	354718	
17029.8	0.0446604	355052	355052	
17046.3	0.0446498	355344	355344	
17062.8	0.0446161	355586	355586	
17079.3	0.0445594	355992	355992	
17095.8	0.0444797	356460	356460	
17112.4	0.0443773	356908	356908	
17128.9	0.044252	357266	357266	
17145.4	0.0441041	357628	357628	
17161.9	0.0439337	357848	357848	
17178.4	0.0437409	358176	358176	
17194.9	0.0435259	358626	358626	
17211.4	0.0432888	359082	359082	
17227.9	0.0430299	359550	359550	
17244.4	0.0427492	359994	359994	
17260.9	0.0424471	360368	360368	
17277.5	0.0421238	360750	360750	
17294	0.0417794	361212	361212	
17310.5	0.0414142	361798	361798	
17327	0.0410285	362242	362242	
17343.5	0.0406225	362628	362628	
17360	0.0401965	362986	362986	
17376.5	0.0397507	363344	363344	
17393	0.0392855	363660	363660	
17409.5	0.0388012	364018	364018	
17426	0.038298	364404	364404	
17442.6	0.0377764	364830	364830	
17459.1	0.0372365	365228	365228	
17475.6	0.0366789	365650	365650	
17492.1	0.0361038	366080	366080	
17508.6	0.0355116	366504	366504	
17525.1	0.0349027	366960	366960	
17541.6	0.0342776	367548	367548	
17558.1	0.0336366	367922	367922	
17574.6	0.0329802	368306	368306	
17591.1	0.0323088	368708	368708	
17607.7	0.0316229	369106	369106	
17624.2	0.0309229	369542	369542	
17640.7	0.0302095	370082	370082	
17657.2	0.029483	370470	370470	
17673.7	0.0287441	370932	370932	
17690.2	0.0279932	371250	371250	
17706.7	0.027231	371540	371540	
17723.2	0.0264579	371906	371906	
17739.7	0.0256746	372474	372474	
17756.2	0.0248817	372942	372942	
17772.8	0.0240798	373414	373414	
17789.3	0.0232694	373790	373790	
17805.8	0.0224513	374272	374272	
17822.3	0.0216259	374708	374708	
17838.8	0.0207941	375152	375152	
17855.3	0.0199563	375576	375576	
17871.8	0.0191133	375968	375968	
17888.3	0.0182656	376446	376446	
17904.8	0.0174139	376788	376788	
17921.3	0.0165589	377164	377164	
17937.9	0.0157011	377554	377554	
17954.4	0.0148411	377900	377900	
17970.9	0.0139797	378240	378240	
17987.4	0.0131173	378672	378672	
18003.9	0.0122546	379118	379118	
18020.4	0.0113921	379570	379570	
18036.9	0.0105305	379968	379968	
18053.4	0.00967012	380390	380390	
18069.9	0.00881165	380872	380872	
18086.4	0.00795557	381217	381217	
18103	0.00710236	381660	381660	
18119.5	0.00625249	382077	382077	
18136	0.00540641	382487	382487	
18152.5	0.00456456	382846	382846	
18169	0.00372734	383277	383277	
18185.5	0.00289515	383743	383743	
18202	0.00206836	384286	384286	
18218.5	0.00124729	384706	384706	
18235	0.000432289	385149	385149	
18251.5	-0.000376352	385545	385545	
18268.1	-0.00117835	385923	385923	
18284.6	-0.00197345	386315	386315	
18301.1	-0.0027614	386779	386779	
18317.6	-0.00354199	387186	387186	
18334.1	-0.00431501	387600	387600	
18350.6	-0.00508028	388017	388017	
18367.1	-0.00583764	388361	388361	
18383.6	-0.00658692	388765	388765	
18400.1	-0.00732801	389097	389097	
18416.6	-0.00806077	389505	389505	
18433.2	-0.0087851	389968	389968	
18449.7	-0.00950089	390424	390424	
18466.2	-0.0102081	390914	390914	
18482.7	-0.0109066	391206	391206	
18499.2	-0.0115963	391584	391584	
18515.7	-0.0122772	392046	392046	
18532.2	-0.0129492	392469	392469	
18548.7	-0.0136123	392931	392931	
18565.2	-0.0142664	393373	393373	
18581.7	-0.0149115	393764	393764	
18598.3	-0.0155475	394195	394195	
18614.8	-0.0161744	394581	394581	
18631.3	-0.0167922	394987	394987	
18647.8	-0.0174008	395423	395423	
18664.3	-0.0180001	395887	395887	
18680.8	-0.0185902	396349	396349	
18697.3	-0.019171	396660	396660	
18713.8	-0.0197423	397055	397055	
18730.3	-0.0203042	397519	397519	
18746.8	-0.0208566	397912	397912	
18763.4	-0.0213995	398332	398332	
18779.9	-0.0219327	398695	398695	
18796.4	-0.0224562	399099	399099	
18812.9	-0.0229699	399521	399521	
18829.4	-0.0234738	399920	399920	
18845.9	-0.0239677	400371	400371	
18862.4	-0.0244516	400719	400719	
18878.9	-0.0249254	401189	401189	
18895.4	-0.0253889	401685	401685	
18911.9	-0.0258421	402168	402168	
18928.5	-0.0262849	402570	402570	
18945	-0.0267172	402922	402922	
18961.5	-0.0271388	403341	403341	
18978	-0.0275497	403815	403815	
18994.5	-0.0279498	404248	404248	
19011	-0.028339	404757	404757	
19027.5	-0.0287172	405178	405178	
19044	-0.0290842	405483	405483	
19060.5	-0.0294401	405813	405813	
19077	-0.0297846	406211	406211	
19093.6	-0.0301178	406683	406683	
19110.1	-0.0304396	407152	407152	
19126.6	-0.0307498	407603	407603	
19143.1	-0.0310485	408097	408097	
19159.6	-0.0313356	408599	408599	
19176.1	-0.031611	409020	409020	
19192.6	-0.0318747	409443	409443	
19209.1	-0.0321266	409863	409863	
19225.6	-0.0323668	410257	410257	
19242.1	-0.0325953	410583	410583	
19258.7	-0.0328119	410956	410956	
19275.2	-0.0330168	411334	411334	
19291.7	-0.0332099	411701	411701	
19308.2	-0.0333913	412078	412078	
19324.7	-0.0335609	412452	412452	
19341.2	-0.0337189	412847	412847	
19357.7	-0.0338653	413295	413295	
19374.2	-0.0340001	413697	413697	
19390.7	-0.0341233	414112	414112	
19407.2	-0.0342351	414473	414473	
19423.8	-0.0343355	414879	414879	
19440.3	-0.0344246	415359	415359	
19456.8	-0.0345024	415727	415727	
19473.3	-0.034569	416070	416070	
19489.8	-0.0346245	416466	416466	
19506.3	-0.034669	416929	416929	
19522.8	-0.0347025	417300	417300	
19539.3	-0.0347252	417662	417662	
19555.8	-0.034737	418018	418018	
19572.3	-0.0347382	418427	418427	
19588.9	-0.0347287	418791	418791	
19605.4	-0.0347087	419225	419225	
19621.9	-0.0346782	419593	419593	
19638.4	-0.0346373	419981	419981	
19654.9	-0.034586	420309	420309	
19671.4	-0.0345244	420653	420653	
19687.9	-0.0344526	421101	421101	
19704.4	-0.0343706	421376	421376	
19720.9	-0.0342785	421771	421771	
19737.4	-0.0341764	422127	422127	
19754	-0.0340642	422463	422463	
19770.5	-0.033942	422744	422744	
19787	-0.0338099	423101	423101	
19803.5	-0.0336679	423596	423596	
19820	-0.0335161	424046	424046	
19836.5	-0.0333544	424436	424436	
19853	-0.033183	424756	424756	
19869.5	-0.0330019	425121	425121	
19886	-0.0328112	425422	425422	
19902.5	-0.0326108	425728	425728	
19919.1	-0.0324009	426093	426093	
19935.6	-0.0321815	426530	426530	
19952.1	-0.0319527	426905	426905	
19968.6	-0.0317145	427077	427077	
19985.1	-0.0314671	427422	427422	
20001.6	-0.0312105	427797	427797	
20018.1	-0.0309448	428156	428156	
20034.6	-0.0306702	428572	428572	
20051.1	-0.0303867	429026	429026	
20067.6	-0.0300945	429426	429426	
20084.2	-0.0297937	429721	429721	
20100.7	-0.0294845	430025	430025	
20117.2	-0.029167	430268	430268	
20133.7	-0.0288413	430576	430576	
20150.2	-0.0285077	430994	430994	
20166.7	-0.0281664	431419	431419	
20183.2	-0.0278175	431757	431757	
20199.7	-0.0274613	432072	432072	
20216.2	-0.0270979	432361	432361	
20232.7	-0.0267275	432626	432626	
20249.3	-0.0263505	432897	432897	
20265.8	-0.0259669	433370	433370	
20282.3	-0.0255771	433748	433748	
20298.8	-0.0251813	434149	434149	
20315.3	-0.0247797	434451	434451	
20331.8	-0.0243725	434760	434760	
20348.3	-0.02396	435112	435112	
20364.8	-0.0235424	435505	435505	
20381.3	-0.02312	435906	435906	
20397.8	-0.0226929	436182	436182	
20414.4	-0.0222613	436547	436547	
20430.9	-0.0218256	436898	436898	
20447.4	-0.0213858	437293	437293	
20463.9	-0.0209422	437602	437602	
20480.4	-0.020495	437986	437986	
20496.9	-0.0200443	438377	438377	
20513.4	-0.0195902	438765	438765	
20529.9	-0.019133	439020	439020	
20546.4	-0.0186728	439333	439333	
20562.9	-0.0182097	439601	439601	
20579.5	-0.0177438	439843	439843	
20596	-0.0172751	440188	440188	
20612.5	-0.0168039	440469	440469	
20629	-0.0163302	440820	440820	
20645.5	-0.015854	441082	441082	
20662	-0.0153754	441318	441318	
20678.5	-0.0148945	441622	441622	
20695	-0.0144113	441955	441955	
20711.5	-0.0139259	442262	442262	
20728	-0.0134383	442663	442663	
20744.6	-0.0129485	443143	443143	
20761.1	-0.0124567	443626	443626	
20777.6	-0.0119628	444117	444117	
20794.1	-0.011467	444677	444677	
20810.6	-0.0109692	445102	445102	
20827.1	-0.0104696	445489	445489	
20843.6	-0.0099683	445809	445809	
20860.1	-0.00946535	446120	446120	
20876.6	-0.00896089	446437	446437	
20893.1	-0.00845507	446655	446655	
20909.7	-0.00794806	446987	446987	
20926.2	-0.00744005	447382	447382	
20942.7	-0.00693126	447658	447658	
20959.2	-0.00642191	447882	447882	
20975.7	-0.00591228	448162	448162	
20992.2	-0.00540266	448500	448500	
21008.7	-0.00489338	448987	448987	
21025.2	-0.00438478	449429	449429	
21041.7	-0.00387725	449907	449907	
21058.2	-0.0033712	450452	450452	
21074.8	-0.00286705	450919	450919	
21091.3	-0.00236526	451358	451358	
21107.8	-0.00186634	451751	451751	
21124.3	-0.00137078	452093	452093	
21140.8	-0.000879125	452298	452298	
21157.3	-0.000391923	452567	452567	
21173.8	9.02514e-05	452803	452803	
21190.3	0.000566808	453275	453275	
21206.8	0.00103715	453703	453703	
21223.3	0.00150065	454178	454178	
21239.9	0.0019567	454623	454623	
21256.4	0.00240466	454990	454990	
21272.9	0.00284391	455356	455356	
21289.4	0.00327382	455844	455844	
21305.9	0.00369376	456207	456207	
21322.4	0.00410312	456504	456504	
21338.9	0.00450129	456967	456967	
21355.4	0.00488769	457382	457382	
21371.9	0.00526173	457734	457734	
21388.4	0.00562288	458068	458068	
21405	0.0059706	458437	458437	
21421.5	0.00630439	458801	458801	
21438	0.0066238	459193	459193	
21454.5	0.00692839	459580	459580	
21471	0.00721777	460060	460060	
21487.5	0.00749158	460495	460495	
21504	0.0077495	460897	460897	
21520.5	0.00799128	461284	461284	
21537	0.00821667	461729	461729	
21553.5	0.00842552	462088	462088	
21570.1	0.00861769	462404	462404	
21586.6	0.00879309	462715	462715	
21603.1	0.00895171	463139	463139	
21619.6	0.00909356	463527	463527	
21636.1	0.00921872	463906	463906	
21652.6	0.00932729	464310	464310	
21669.1	0.00941945	464691	464691	
21685.6	0.00949542	465063	465063	
21702.1	0.00955547	465513	465513	
21718.6	0.00959989	465895	465895	
21735.2	0.00962905	466277	466277	
21751.7	0.00964334	466623	466623	
21768.2	0.0096432	467023	467023	
21784.7	0.0096291	467391	467391	
21801.2	0.00960154	467769	467769	
21817.7	0.00956109	468109	468109	
21834.2	0.0095083	468430	468430	
21850.7	0.00944377	468897	468897	
21867.2	0.00936814	469270	469270	
21883.7	0.00928204	469654	469654	
21900.3	0.00918614	469917	469917	
21916.8	0.00908112	470309	470309	
21933.3	0.00896767	470699	470699	
21949.8	0.00884649	471085	471085	
21966.3	0.00871829	471452	471452	
21982.8	0.00858376	471844	471844	
21999.3	0.00844363	472256	472256	
22015.8	0.0082986	472754	472754	
22032.3	0.00814936	473086	473086	
22048.8	0.0079966	473409	473409	
22065.4	0.007841	473706	473706	
22081.9	0.00768322	474125	474125	
22098.4	0.00752391	474540	474540	
22114.9	0.00736368	474876	474876	
22131.4	0.00720314	475241	475241	
22147.9	0.00704287	475536	475536	
22164.4	0.0068834	475972	475972	
22180.9	0.00672527	476326	476326	
22197.4	0.00656896	476665	476665	
22213.9	0.00641492	476994	476994	
22230.5	0.00626358	477332	477332	
22247	0.00611532	477706	477706	
22263.5	0.00597049	478054	478054	
22280	0.00582941	478431	478431	
22296.5	0.00569233	478804	478804	
22313	0.0055595	479273	479273	
22329.5	0.00543112	479659	479659	
22346	0.00530733	479970	479970	
22362.5	0.00518826	480347	480347	
22379	0.00507397	480626	480626	
22395.6	0.00496451	480987	480987	
22412.1	0.00485988	481363	481363	
22428.6	0.00476001	481777	481777	
22445.1	0.00466485	482156	482156	
22461.6	0.00457426	482425	482425	
22478.1	0.00448808	482805	482805	
22494.6	0.00440613	483105	483105	
22511.1	0.00432816	483555	483555	
22527.6	0.00425392	483826	483826	
22544.1	0.0041831	484088	484088	
22560.7	0.00411537	484434	484434	
22577.2	0.00405038	484676	484676	
22593.7	0.00398772	485020	485020	
22610.2	0.00392698	485419	485419	
22626.7	0.00386772	485859	485859	
22643.2	0.00380949	486264	486264	
22659.7	0.0037518	486635	486635	
22676.2	0.00369415	486902	486902	
22692.7	0.00363605	487222	487222	
22709.2	0.00357698	487576	487576	
22725.8	0.00351642	487876	487876	
22742.3	0.00345383	488251	488251	
22758.8	0.00338871	488584	488584	
22775.3	0.00332052	488951	488951	
22791.8	0.00324876	489224	489224	
22808.3	0.00317291	489561	489561	
22824.8	0.00309249	489973	489973	
22841.3	0.00300701	490301	490301	
22857.8	0.00291601	490539	490539	
22874.3	0.00281906	490853	490853	
22890.9	0.00271572	491163	491163	
22907.4	0.00260561	491538	491538	
22923.9	0.00248835	491879	491879	
22940.4	0.00236359	492234	492234	
22956.9	0.00223103	492661	492661	
22973.4	0.00209036	492974	492974	
22989.9	0.00194135	493241	493241	
23006.4	0.00178377	493585	493585	
23022.9	0.00161743	493986	493986	
23039.4	0.00144217	494419	494419	
23056	0.00125789	494727	494727	
23072.5	0.00106449	495031	495031	
23089	0.000861939	495360	495360	
23105.5	0.00065022	495675	495675	
23122	0.000429365	496095	496095	
23138.5	0.000199438	496523	496523	
23155	-3.94575e-05	496911	496911	
23171.5	-0.000287184	497171	497171	
23188	-0.000543566	497468	497468	
23204.5	-0.000808393	497761	497761	
23221.1	-0.00108142	498092	498092	
23237.6	-0.00136237	498415	498415	
23254.1	-0.00165093	498834	498834	
23270.6	-0.00194676	499202	499202	
23287.1	-0.00224948	499595	499595	
23303.6	-0.00255871	499951	499951	
23320.1	-0.002874	500363	500363	
23336.6	-0.00319491	500700	500700	
23353.1	-0.00352096	501133	501133	
23369.6	-0.00385167	501520	501520	
23386.2	-0.00418651	501862	501862	
23402.7	-0.00452495	502191	502191	
23419.2	-0.00486644	502506	502506	
23435.7	-0.00521044	502839	502839	
23452.2	-0.00555637	503170	503170	
23468.7	-0.00590366	503485	503485	
23485.2	-0.00625171	503859	503859	
23501.7	-0.00659995	504188	504188	
23518.2	-0.00694778	504520	504520	
23534.7	-0.00729462	504893	504893	
23551.3	-0.00763989	505290	505290	
23567.8	-0.00798299	505686	505686	
23584.3	-0.00832336	506104	506104	
23600.8	-0.00866043	506535	506535	
23617.3	-0.00899364	506859	506859	
23633.8	-0.00932245	507179	507179	
23650.3	-0.00964633	507570	507570	
23666.8	-0.00996476	507930	507930	
23683.3	-0.0102772	508252	508252	
23699.8	-0.0105833	508593	508593	
23716.4	-0.0108825	508979	508979	
23732.9	-0.0111744	509282	509282	
23749.4	-0.0114585	509698	509698	
23765.9	-0.0117346	509996	509996	
23782.4	-0.0120021	510349	510349	
23798.9	-0.0122609	510675	510675	
23815.4	-0.0125105	511053	511053	
23831.9	-0.0127508	511385	511385	
23848.4	-0.0129813	511777	511777	
23864.9	-0.013202	512186	512186	
23881.5	-0.0134127	512618	512618	
23898	-0.013613	512952	512952	
23914.5	-0.013803	513301	513301	
23931	-0.0139825	513552	513552	
23947.5	-0.0141513	513683	513683	
23964	-0.0143095	514078	514078	
23980.5	-0.014457	514445	514445	
23997	-0.0145937	514770	514770	
24013.5	-0.0147197	515134	515134	
24030	-0.014835	515385	515385	
24046.6	-0.0149396	515719	515719	
24063.1	-0.0150335	516104	516104	
24079.6	-0.0151169	516454	516454	
24096.1	-0.0151898	516700	516700	
24112.6	-0.0152522	516975	516975	
24129.1	-0.0153043	517377	517377	
24145.6	-0.0153463	517707	517707	
24162.1	-0.0153781	518041	518041	
24178.6	-0.0153999	518380	518380	
24195.1	-0.015412	518623	518623	
24211.7	-0.0154143	518870	518870	
24228.2	-0.0154071	519201	519201	
24244.7	-0.0153905	519558	519558	
24261.2	-0.0153647	519760	519760	
24277.7	-0.0153298	520110	520110	
24294.2	-0.0152862	520507	520507	
24310.7	-0.0152339	520757	520757	
24327.2	-0.0151732	521041	521041	
24343.7	-0.0151043	521397	521397	
24360.2	-0.0150275	521762	521762	
24376.8	-0.0149429	522202	522202	
24393.3	-0.0148508	522583	522583	
24409.8	-0.0147515	522871	522871	
24426.3	-0.0146451	523203	523203	
24442.8	-0.014532	523517	523517	
24459.3	-0.0144123	523861	523861	
24475.8	-0.0142863	524225	524225	
24492.3	-0.0141542	524607	524607	
24508.8	-0.0140163	525032	525032	
24525.3	-0.0138726	525310	525310	
24541.9	-0.0137235	525617	525617	
24558.4	-0.0135691	526001	526001	
24574.9	-0.0134096	526339	526339	
24591.4	-0.0132452	526684	526684	
24607.9	-0.0130761	527035	527035	
24624.4	-0.0129023	527406	527406	
24640.9	-0.0127241	527669	527669	
24657.4	-0.0125416	527987	527987	
24673.9	-0.0123548	528340	528340	
24690.4	-0.012164	528736	528736	
24707	-0.0119693	529014	529014	
24723.5	-0.0117706	529313	529313	
24740	-0.0115683	529562	529562	
24756.5	-0.0113623	529828	529828	
24773	-0.0111527	530193	530193	
24789.5	-0.0109397	530557	530557	
24806	-0.0107233	531023	531023	
24822.5	-0.0105037	531417	531417	
24839	-0.0102809	531805	531805	
24855.5	-0.0100551	532143	532143	
24872.1	-0.00982634	532597	532597	
24888.6	-0.00959482	532805	532805	
24905.1	-0.00936063	533119	533119	
24921.6	-0.0091239	533345	533345	
24938.1	-0.00888478	533726	533726	
24954.6	-0.00864342	534028	534028	
24971.1	-0.00839997	534320	534320	
24987.6	-0.0081546	534603	534603	
25004.1	-0.00790749	534903	534903	
25020.6	-0.00765879	535196	535196	
25037.2	-0.00740872	535602	535602	
25053.7	-0.00715744	535897	535897	
25070.2	-0.00690516	536273	536273	
25086.7	-0.00665208	536609	536609	
25103.2	-0.0063984	537009	537009	
25119.7	-0.00614434	537455	537455	
25136.2	-0.00589011	537779	537779	
25152.7	-0.00563593	538061	538061	
25169.2	-0.00538202	538420	538420	
25185.7	-0.00512861	538906	538906	
25202.3	-0.00487591	539328	539328	
25218.8	-0.00462417	539733	539733	
25235.3	-0.0043736	540176	540176	
25251.8	-0.00412444	540531	540531	
25268.3	-0.00387691	540864	540864	
25284.8	-0.00363126	541237	541237	
25301.3	-0.00338772	541652	541652	
25317.8	-0.0031465	542006	542006	
25334.3	-0.00290785	542416	542416	
25350.8	-0.00267198	542685	542685	
25367.4	-0.00243913	543018	543018	
25383.9	-0.00220953	543324	543324	
25400.4	-0.00198337	543647	543647	
25416.9	-0.0017609	544007	544007	
25433.4	-0.00154231	544408	544408	
25449.9	-0.00132781	544780	544780	
25466.4	-0.00111761	545159	545159	
25482.9	-0.00091189	545548	545548	
25499.4	-0.000710849	545975	545975	
25515.9	-0.000514664	546271	546271	
25532.5	-0.000323509	546674	546674	
25549	-0.00013755	547070	547070	
25565.5	4.30543e-05	547420	547420	
25582	0.000218154	547768	547768	
25598.5	0.000387607	548183	548183	
25615	0.000551278	548586	548586	
25631.5	0.00070904	548982	548982	
25648	0.000860774	549274	549274	
25664.5	0.00100637	549458	549458	
25681	0.00114573	549734	549734	
25697.6	0.00127875	550074	550074	
25714.1	0.00140535	550389	550389	
25730.6	0.00152545	550704	550704	
25747.1	0.00163899	551186	551186	
25763.6	0.00174591	551596	551596	
25780.1	0.00184615	551884	551884	
25796.6	0.00193967	552191	552191	
25813.1	0.00202643	552512	552512	
25829.6	0.0021064	552898	552898	
25846.1	0.00217954	553288	553288	
25862.7	0.00224584	553644	553644	
25879.2	0.00230527	553981	553981	
25895.7	0.00235782	554256	554256	
25912.2	0.00240349	554561	554561	
25928.7	0.00244228	554961	554961	
25945.2	0.0024742	555278	555278	
25961.7	0.00249929	555619	555619	
25978.2	0.00251758	556057	556057	
25994.7	0.00252914	556445	556445	
26011.2	0.00253403	556910	556910	
26027.8	0.00253233	557246	557246	
26044.3	0.00252415	557585	557585	
26060.8	0.00250958	557887	557887	
26077.3	0.00248874	558288	558288	
26093.8	0.00246175	558616	558616	
26110.3	0.00242875	558859	558859	
26126.8	0.00238986	559098	559098	
26143.3	0.00234521	559373	559373	
26159.8	0.00229496	559687	559687	
26176.3	0.00223925	560000	560000	
26192.9	0.00217821	560418	560418	
26209.4	0.00211203	560780	560780	
26225.9	0.00204087	561158	561158	
26242.4	0.00196493	561422	561422	
26258.9	0.00188441	561799	561799	
26275.4	0.00179954	562212	562212	
26291.9	0.00171054	562546	562546	
26308.4	0.00161764	562807	562807	
26324.9	0.00152107	563119	563119	
26341.4	0.00142106	563474	563474	
26358	0.00131787	563769	563769	
26374.5	0.00121174	564074	564074	
26391	0.00110292	564545	564545	
26407.5	0.000991679	564816	564816	
26424	0.000878276	565047	565047	
26440.5	0.000762975	565369	565369	
26457	0.000646041	565595	565595	
26473.5	0.000527736	565866	565866	
26490	0.000408322	566169	566169	
26506.5	0.00028806	566558	566558	
26523.1	0.000167211	567049	567049	
26539.6	4.60356e-05	567492	567492	
26556.1	-7.52033e-05	567946	567946	
26572.6	-0.000196242	568388	568388	
26589.1	-0.000316814	568794	568794	
26605.6	-0.000436657	569177	569177	
26622.1	-0.000555505	569588	569588	
26638.6	-0.000673098	569892	569892	
26655.1	-0.000789178	570101	570101	
26671.6	-0.000903497	570454	570454	
26688.2	-0.00101581	570696	570696	
26704.7	-0.00112588	570896	570896	
26721.2	-0.00123349	571300	571300	
26737.7	-0.00133842	571772	571772	
26754.2	-0.00144046	572261	572261	
26770.7	-0.00153941	572748	572748	
26787.2	-0.00163507	573200	573200	
26803.7	-0.00172727	573665	573665	
26820.2	-0.00181582	574110	574110	
26836.8	-0.00190055	574505	574505	
26853.3	-0.00198128	574919	574919	
26869.8	-0.00205785	575383	575383	
26886.3	-0.0021301	575754	575754	
26902.8	-0.00219789	576098	576098	
26919.3	-0.00226106	576377	576377	
26935.8	-0.00231949	576694	576694	
26952.3	-0.00237306	577090	577090	
26968.8	-0.00242164	577497	577497	
26985.3	-0.00246514	577908	577908	
27001.9	-0.00250346	578364	578364	
27018.4	-0.00253651	578824	578824	
27034.9	-0.00256423	579302	579302	
27051.4	-0.00258655	579702	579702	
27067.9	-0.00260341	580197	580197	
27084.4	-0.00261478	580653	580653	
27100.9	-0.00262061	581210	581210	
27117.4	-0.00262088	581675	581675	
27133.9	-0.00261557	581876	581876	
27150.4	-0.00260468	582232	582232	
27167	-0.00258821	582483	582483	
27183.5	-0.00256616	582890	582890	
27200	-0.00253856	583319	583319	
27216.5	-0.00250543	583771	583771	
27233	-0.00246678	584173	584173	
27249.5	-0.00242267	584559	584559	
27266	-0.00237314	585004	585004	
27282.5	-0.00231822	585572	585572	
27299	-0.00225797	585990	585990	
27315.5	-0.00219247	586294	586294	
27332.1	-0.00212176	586737	586737	
27348.6	-0.00204594	587125	587125	
27365.1	-0.00196509	587614	587614	
27381.6	-0.0018793	587988	587988	
27398.1	-0.00178869	588306	588306	
27414.6	-0.00169337	588678	588678	
27431.1	-0.00159347	589039	589039	
27447.6	-0.00148914	589400	589400	
27464.1	-0.0013804	589784	589784	
27480.6	-0.00126742	590180	590180	
27497.2	-0.00115044	590559	590559	
27513.7	-0.00102962	590952	590952	
27530.2	-0.000904398	591317	591317	
27546.7	-0.000775189	591731	591731	
27563.2	-0.000642309	592088	592088	
27579.7	-0.000506356	592462	592462	
27596.2	-0.000367817	592787	592787	
27612.7	-0.000226984	593117	593117	
27629.2	-8.39728e-05	593431	593431	
27645.7	6.11153e-05	593755	593755	
27662.3	0.00020811	594087	594087	
27678.8	0.000356806	594364	594364	
27695.3	0.000507153	594592	594592	
27711.8	0.00065919	594932	594932	
27728.3	0.000813122	595278	595278	
27744.8	0.000969026	595690	595690	
27761.3	0.00112685	595974	595974	
27777.8	0.0012864	596383	596383	
27794.3	0.0014474	596661	596661	
27810.8	0.00160943	596955	596955	
27827.4	0.0017721	597274	597274	
27843.9	0.00193508	597663	597663	
27860.4	0.00209789	598014	598014	
27876.9	0.0022598	598319	598319	
27893.4	0.00242072	598658	598658	
27909.9	0.00258081	598917	598917	
27926.4	0.0027404	599144	599144	
27942.9	0.00289994	599457	599457	
27959.4	0.00305988	599773	599773	
27975.9	0.00322056	599973	599973	
27992.5	0.0033821	600257	600257	
28009	0.00354412	600533	600533	
28025.5	0.00370618	600823	600823	
28042	0.00386776	601102	601102	
28058.5	0.00402842	601369	601369	
28075	0.00418774	601529	601529	
28091.5	0.00434537	601773	601773	
28108	0.004501	602073	602073	
28124.6	0.00465442	602529	602529	
28141.1	0.00480565	602866	602866	
28157.6	0.00495474	603180	603180	
28174.1	0.0051018	603602	603602	
28190.6	0.00524696	603946	603946	
28207.1	0.00539024	604405	604405	
28223.6	0.00553161	604877	604877	
28240.1	0.00567107	605216	605216	
28256.6	0.00580851	605581	605581	
28273.2	0.00594382	605913	605913	
28289.7	0.00607676	606082	606082	
28306.2	0.00620716	606350	606350	
28322.7	0.00633481	606612	606612	
28339.2	0.00645955	606936	606936	
28355.7	0.00658121	607212	607212	
28372.2	0.00669968	607441	607441	
28388.8	0.00681484	607768	607768	
28405.3	0.00692663	608084	608084	
28421.8	0.00703496	608445	608445	
28438.3	0.00713985	608715	608715	
28454.8	0.00724129	609138	609138	
28471.3	0.00733925	609376	609376	
28487.8	0.00743372	609678	609678	
28504.3	0.00752466	609953	609953	
28520.8	0.007612	610234	610234	
28537.4	0.00769566	610605	610605	
28553.9	0.00777557	611019	611019	
28570.4	0.00785162	611358	611358	
28586.9	0.00792373	611838	611838	
28603.4	0.00799184	612220	612220	
28619.9	0.00805589	612493	612493	
28636.4	0.00811587	612772	612772	
28652.9	0.00817177	613042	613042	
28669.4	0.0082236	613276	613276	
28685.9	0.00827137	613556	613556	
28702.5	0.00831513	613896	613896	
28719	0.00835488	614157	614157	
28735.5	0.00839064	614462	614462	
28752	0.00842244	614670	614670	
28768.5	0.00845026	615036	615036	
28785	0.00847412	615480	615480	
28801.5	0.008494	615874	615874	
28818	0.00850988	616316	616316	
28834.5	0.00852174	616656	616656	
28851	0.00852956	616777	616777	
28867.6	0.00853331	617145	617145	
28884.1	0.00853296	617543	617543	
28900.6	0.00852849	617839	617839	
28917.1	0.00851987	618253	618253	
28933.6	0.00850707	618672	618672	
28950.1	0.00849008	619021	619021	
28966.6	0.00846891	619380	619380	
28983.1	0.00844354	619719	619719	
28999.6	0.008414	620067	620067	
29016.2	0.0083803	620438	620438	
29032.7	0.00834246	620723	620723	
29049.2	0.00830051	621184	621184	
29065.7	0.00825447	621503	621503	
29082.2	0.00820438	621802	621802	
29098.7	0.00815025	622233	622233	
29115.2	0.0080921	622525	622525	
29131.7	0.00802997	622835	622835	
29148.2	0.00796385	623238	623238	
29164.7	0.00789378	623704	623704	
29181.3	0.00781976	624057	624057	
29197.8	0.00774183	624441	624441	
29214.3	0.00765999	624658	624658	
29230.8	0.00757429	624989	624989	
29247.3	0.00748473	625399	625399	
29263.8	0.00739135	625859	625859	
29280.3	0.00729418	626263	626263	
29296.8	0.00719324	626636	626636	
29313.3	0.00708857	627011	627011	
29329.8	0.00698019	627439	627439	
29346.4	0.00686813	627740	627740	
29362.9	0.00675243	628021	628021	
29379.4	0.00663311	628332	628332	
29395.9	0.00651022	628590	628590	
29412.4	0.00638379	628924	628924	
29428.9	0.00625386	629368	629368	
29445.4	0.00612048	629826	629826	
29461.9	0.00598371	630277	630277	
29478.4	0.00584359	630557	630557	
29494.9	0.00570019	630947	630947	
29511.5	0.00555357	631150	631150	
29528	0.0054038	631482	631482	
29544.5	0.00525096	631832	631832	
29561	0.00509512	632232	632232	
29577.5	0.00493636	632552	632552	
29594	0.00477476	632972	632972	
29610.5	0.00461041	633363	633363	
29627	0.0044434	633766	633766	
29643.5	0.00427382	634004	634004	
29660	0.00410177	634220	634220	
29676.6	0.00392734	634489	634489	
29693.1	0.00375064	634708	634708	
29709.6	0.00357175	635066	635066	
29726.1	0.0033908	635415	635415	
29742.6	0.00320788	635709	635709	
29759.1	0.00302309	635915	635915	
29775.6	0.00283654	636085	636085	
29792.1	0.00264832	636314	636314	
29808.6	0.00245856	636706	636706	
29825.1	0.00226734	637003	637003	
29841.7	0.00207477	637451	637451	
29858.2	0.00188095	637779	637779	
29874.7	0.001686	638091	638091	
29891.2	0.00149	638436	638436	
29907.7	0.00129306	638817	638817	
29924.2	0.00109528	639285	639285	
29940.7	0.000896765	639433	639433	
29957.2	0.000697606	639731	639731	
29973.7	0.000497899	639956	639956	
29990.2	0.000297735	640245	640245	
30006.8	9.72007e-05	640501	640501	
30023.3	-0.00010362	640748	640748	
30039.8	-0.000304648	640996	640996	
30056.3	-0.000505809	641467	641467	
30072.8	-0.000707032	641788	641788	
30089.3	-0.000908253	642150	642150	
30105.8	-0.00110941	642570	642570	
30122.3	-0.00131045	643072	643072	
30138.8	-0.00151132	643462	643462	
30155.3	-0.00171198	643849	643849	
30171.9	-0.00191239	644118	644118	
30188.4	-0.00211252	644357	644357	
30204.9	-0.00231234	644568	644568	
30221.4	-0.00251183	644754	644754	
30237.9	-0.00271097	645065	645065	
30254.4	-0.00290974	645334	645334	
30270.9	-0.00310815	645650	645650	
30287.4	-0.00330618	645854	645854	
30303.9	-0.00350384	646133	646133	
30320.4	-0.00370111	646455	646455	
30337	-0.00389801	646908	646908	
30353.5	-0.00409454	647346	647346	
30370	-0.0042907	647732	647732	
30386.5	-0.0044865	648074	648074	
30403	-0.00468193	648456	648456	
30419.5	-0.00487702	648756	648756	
30436	-0.00507175	649038	649038	
30452.5	-0.00526613	649376	649376	
30469	-0.00546016	649627	649627	
30485.5	-0.00565384	650001	650001	
30502.1	-0.00584716	650355	650355	
30518.6	-0.00604012	650659	650659	
30535.1	-0.00623271	650932	650932	
30551.6	-0.00642491	651340	651340	
30568.1	-0.00661672	651585	651585	
30584.6	-0.00680809	651942	651942	
30601.1	-0.00699902	652427	652427	
30617.6	-0.00718947	652812	652812	
30634.1	-0.00737939	653080	653080	
30650.6	-0.00756876	653421	653421	
30667.2	-0.00775751	653648	653648	
30683.7	-0.00794561	653919	653919	
30700.2	-0.00813298	654161	654161	
30716.7	-0.00831957	654355	654355	
30733.2	-0.00850532	654672	654672	
30749.7	-0.00869014	655039	655039	
30766.2	-0.00887395	655451	655451	
30782.7	-0.00905669	655966	655966	
30799.2	-0.00923826	656373	656373	
30815.7	-0.00941857	656831	656831	
30832.3	-0.00959752	657275	657275	
30848.8	-0.00977501	657590	657590	
30865.3	-0.00995095	657884	657884	
30881.8	-0.0101252	658272	658272	
30898.3	-0.0102977	658620	658620	
30914.8	-0.0104682	659008	659008	
30931.3	-0.0106368	659253	659253	
30947.8	-0.0108031	659508	659508	
30964.3	-0.0109672	659935	659935	
30980.8	-0.0111289	660204	660204	
30997.4	-0.0112881	660519	660519	
31013.9	-0.0114445	660902	660902	
31030.4	-0.0115982	661228	661228	
31046.9	-0.0117489	661621	661621	
31063.4	-0.0118965	662068	662068	
31079.9	-0.012041	662365	662365	
31096.4	-0.0121821	662662	662662	
31112.9	-0.0123197	662913	662913	
31129.4	-0.0124537	663338	663338	
31145.9	-0.012584	663718	663718	
31162.5	-0.0127105	664049	664049	
31179	-0.0128329	664402	664402	
31195.5	-0.0129514	664879	664879	
31212	-0.0130656	665048	665048	
31228.5	-0.0131755	665368	665368	
31245	-0.013281	665614	665614	
31261.5	-0.013382	665843	665843	
31278	-0.0134784	666068	666068	
31294.5	-0.0135701	666354	666354	
31311	-0.013657	666669	666669	
31327.6	-0.0137391	667095	667095	
31344.1	-0.0138163	667500	667500	
31360.6	-0.0138884	667902	667902	
31377.1	-0.0139555	668334	668334	
31393.6	-0.0140175	668712	668712	
31410.1	-0.0140743	669032	669032	
31426.6	-0.0141259	669291	669291	
31443.1	-0.0141723	669665	669665	
31459.6	-0.0142134	669897	669897	
31476.1	-0.0142492	670212	670212	
31492.7	-0.0142798	670423	670423	
31509.2	-0.014305	670616	670616	
31525.7	-0.0143248	670748	670748	
31542.2	-0.0143394	671068	671068	
31558.7	-0.0143486	671257	671257	
31575.2	-0.0143526	671545	671545	
31591.7	-0.0143512	671945	671945	
31608.2	-0.0143446	672305	672305	
31624.7	-0.0143327	672671	672671	
31641.2	-0.0143155	673103	673103	
31657.8	-0.0142932	673505	673505	
31674.3	-0.0142657	673811	673811	
31690.8	-0.014233	674093	674093	
31707.3	-0.0141953	674403	674403	
31723.8	-0.0141526	674747	674747	
31740.3	-0.0141048	675070	675070	
31756.8	-0.0140521	675388	675388	
31773.3	-0.0139946	675687	675687	
31789.8	-0.0139322	675977	675977	
31806.3	-0.013865	676303	676303	
31822.9	-0.0137932	676607	676607	
31839.4	-0.0137167	676857	676857	
31855.9	-0.0136357	677153	677153	
31872.4	-0.0135502	677531	677531	
31888.9	-0.0134603	677907	677907	
31905.4	-0.0133661	678066	678066	
31921.9	-0.0132677	678387	678387	
31938.4	-0.0131651	678746	678746	
31954.9	-0.0130585	679023	679023	
31971.4	-0.0129479	679312	679312	
31988	-0.0128334	679634	679634	
32004.5	-0.0127152	679919	679919	
32021	-0.0125934	680277	680277	
32037.5	-0.0124681	680533	680533	
32054	-0.0123395	680802	680802	
32070.5	-0.0122076	681034	681034	
32087	-0.0120726	681407	681407	
32103.5	-0.0119347	681712	681712	
32120	-0.011794	682030	682030	
32136.5	-0.0116507	682374	682374	
32153.1	-0.0115049	682784	682784	
32169.6	-0.0113567	683184	683184	
32186.1	-0.0112063	683481	683481	
32202.6	-0.0110538	683899	683899	
32219.1	-0.0108993	684269	684269	
32235.6	-0.0107431	684456	684456	
32252.1	-0.0105852	684693	684693	
32268.6	-0.0104258	685144	685144	
32285.1	-0.0102652	685460	685460	
32301.6	-0.0101035	685838	685838	
32318.2	-0.00994096	686150	686150	
32334.7	-0.00977771	686444	686444	
32351.2	-0.00961392	686762	686762	
32367.7	-0.00944969	687087	687087	
32384.2	-0.00928514	687334	687334	
32400.7	-0.00912034	687660	687660	
32417.2	-0.00895537	687900	687900	
32433.7	-0.00879029	688353	688353	
32450.2	-0.00862518	688777	688777	
32466.7	-0.00846012	689227	689227	
32483.3	-0.0082952	689534	689534	
32499.8	-0.00813054	689902	689902	
32516.3	-0.00796623	690234	690234	
32532.8	-0.00780239	690633	690633	
32549.3	-0.0076391	691018	691018	
32565.8	-0.00747644	691287	691287	
32582.3	-0.00731444	691520	691520	
32598.8	-0.00715313	691873	691873	
32615.3	-0.00699248	692188	692188	
32631.8	-0.00683247	692489	692489	
32648.4	-0.00667304	692907	692907	
32664.9	-0.00651413	693286	693286	
32681.4	-0.00635569	693770	693770	
32697.9	-0.00619767	694064	694064	
32714.4	-0.00604005	694570	694570	
32730.9	-0.0058828	695054	695054	
32747.4	-0.00572592	695413	695413	
32763.9	-0.00556941	695695	695695	
32780.4	-0.00541328	695878	695878	
32796.9	-0.00525752	696124	696124	
32813.5	-0.00510214	696417	696417	
32830	-0.0049471	696669	696669	
32846.5	-0.00479238	697033	697033	
32863	-0.00463792	697267	697267	
32879.5	-0.00448369	697588	697588	
32896	-0.00432964	697974	697974	
32912.5	-0.00417569	698269	698269	
32929	-0.00402182	698621	698621	
32945.5	-0.00386797	699048	699048	
32962	-0.00371409	699547	699547	
32978.6	-0.00356016	699942	699942	
32995.1	-0.00340615	700299	700299	
33011.6	-0.00325202	700567	700567	
33028.1	-0.00309777	700866	700866	
33044.6	-0.00294339	701201	701201	
33061.1	-0.00278887	701529	701529	
33077.6	-0.00263423	701772	701772	
33094.1	-0.00247949	701975	701975	
33110.6	-0.00232469	702293	702293	
33127.1	-0.00216988	702656	702656	
33143.7	-0.00201512	703049	703049	
33160.2	-0.00186047	703533	703533	
33176.7	-0.00170602	704036	704036	
33193.2	-0.00155186	704464	704464	
33209.7	-0.00139807	705071	705071	
33226.2	-0.00124476	705532	705532	
33242.7	-0.00109203	706025	706025	
33259.2	-0.000939998	706401	706401	
33275.7	-0.000788769	706702	706702	
33292.2	-0.000638463	707042	707042	
33308.8	-0.000489196	707471	707471	
33325.3	-0.000341088	707796	707796	
33341.8	-0.000194257	708115	708115	
33358.3	-4.88212e-05	708307	708307	
33374.8	9.51021e-05	708633	708633	
33391.3	0.000237388	708890	708890	
33407.8	0.000377909	709286	709286	
33424.3	0.000516554	709617	709617	
33440.8	0.000653205	710071	710071	
33457.3	0.000787747	710615	710615	
33473.9	0.000920059	711161	711161	
33490.4	0.00105001	711752	711752	
33506.9	0.00117746	712333	712333	
33523.4	0.0013023	712693	712693	
33539.9	0.00142436	713079	713079	
33556.4	0.00154344	713343	713343	
33572.9	0.0016593	713745	713745	
33589.4	0.00177172	714267	714267	
33605.9	0.00188048	714620	714620	
33622.4	0.00198535	714909	714909	
33639	0.00208605	715338	715338	
33655.5	0.00218248	715770	715770	
33672	0.00227474	716132	716132	
33688.5	0.00236316	716468	716468	
33705	0.00244813	716885	716885	
33721.5	0.00252995	717190	717190	
33738	0.00260883	717431	717431	
33754.5	0.00268483	717793	717793	
33771	0.00275798	718193	718193	
33787.5	0.00282825	718574	718574	
33804.1	0.00289563	719013	719013	
33820.6	0.00296011	719376	719376	
33837.1	0.00302176	719733	719733	
33853.6	0.00308061	720056	720056	
33870.1	0.00313677	720401	720401	
33886.6	0.0031903	720668	720668	
33903.1	0.00324131	721057	721057	
33919.6	0.0032899	721497	721497	
33936.1	0.00333614	721847	721847	
33952.6	0.00338012	722213	722213	
33969.2	0.00342189	722454	722454	
33985.7	0.00346151	722683	722683	
34002.2	0.00349903	723079	723079	
34018.7	0.00353451	723481	723481	
34035.2	0.00356804	723940	723940	
34051.7	0.00359973	724353	724353	
34068.2	0.00362968	724597	724597	
34084.7	0.00365805	724809	724809	
34101.2	0.00368498	725096	725096	
34117.7	0.0037106	725391	725391	
34134.3	0.00373506	725641	725641	
34150.8	0.00375848	726093	726093	
34167.3	0.00378096	726413	726413	
34183.8	0.00380259	726748	726748	
34200.3	0.00382341	727068	727068	
34216.8	0.00384346	727451	727451	
34233.3	0.00386277	727666	727666	
34249.8	0.00388134	727905	727905	
34266.3	0.00389917	728199	728199	
34282.8	0.00391624	728510	728510	
34299.4	0.00393254	728744	728744	
34315.9	0.00394803	729129	729129	
34332.4	0.00396267	729403	729403	
34348.9	0.00397641	729699	729699	
34365.4	0.00398917	730020	730020	
34381.9	0.00400087	730411	730411	
34398.4	0.00401142	730763	730763	
34414.9	0.00402072	731074	731074	
34431.4	0.00402866	731338	731338	
34447.9	0.00403512	731545	731545	
34464.5	0.00403997	731765	731765	
34481	0.00404311	731962	731962	
34497.5	0.00404441	732224	732224	
34514	0.00404375	732490	732490	
34530.5	0.00404104	732945	732945	
34547	0.00403615	733278	733278	
34563.5	0.004029	733652	733652	
34580	0.00401949	733996	733996	
34596.5	0.00400753	734427	734427	
34613	0.00399306	734801	734801	
34629.6	0.003976	735162	735162	
34646.1	0.00395632	735553	735553	
34662.6	0.00393397	735890	735890	
34679.1	0.00390894	736196	736196	
34695.6	0.00388123	736552	736552	
34712.1	0.00385086	736769	736769	
34728.6	0.00381788	737031	737031	
34745.1	0.00378235	737307	737307	
34761.6	0.00374434	737707	737707	
34778.1	0.00370396	738155	738155	
34794.7	0.00366135	738583	738583	
34811.2	0.00361664	738851	738851	
34827.7	0.00357	739260	739260	
34844.2	0.00352163	739482	739482	
34860.7	0.00347173	739994	739994	
34877.2	0.00342053	740272	740272	
34893.7	0.00336828	740678	740678	
34910.2	0.00331524	740983	740983	
34926.7	0.00326171	741300	741300	
34943.2	0.00320797	741747	741747	
34959.8	0.00315434	742009	742009	
34976.3	0.00310112	742434	742434	
34992.8	0.00304865	742986	742986	
35009.3	0.00299726	743388	743388	
35025.8	0.00294726	743860	743860	
35042.3	0.002899	744331	744331	
35058.8	0.0028528	744727	744727	
35075.3	0.00280897	745125	745125	
35091.8	0.00276782	745526	745526	
35108.3	0.00272964	745808	745808	
35124.9	0.00269471	746154	746154	
35141.4	0.00266329	746538	746538	
35157.9	0.00263561	746811	746811	
35174.4	0.00261187	747195	747195	
35190.9	0.00259224	747545	747545	
35207.4	0.00257687	747978	747978	
35223.9	0.00256585	748367	748367	
35240.4	0.00255926	748864	748864	
35256.9	0.00255711	749277	749277	
35273.4	0.00255938	749628	749628	
35290	0.00256601	750017	750017	
35306.5	0.00257689	750389	750389	
35323	0.00259186	750600	750600	
35339.5	0.00261075	750861	750861	
35356	0.00263331	751171	751171	
35372.5	0.00265928	751459	751459	
35389	0.00268834	751720	751720	
35405.5	0.00272018	752150	752150	
35422	0.00275441	752463	752463	
35438.6	0.00279065	752853	752853	
35455.1	0.00282847	753284	753284	
35471.6	0.00286746	753676	753676	
35488.1	0.00290713	754125	754125	
35504.6	0.00294701	754513	754513	
35521.1	0.00300104	754770	754770	
35537.6	0.00302594	755082	755082	
35554.1	0.00305863	755452	755452	
35570.6	0.00308739	755686	755686	
35587.2	0.00311593	755895	755895	
35603.7	0.00314015	756208	756208	
35620.2	0.00317389	756572	756572	
35636.7	0.00321019	756907	756907	
35653.2	0.00323927	757339	757339	
35669.7	0.00325613	757697	757697	
35686.2	0.00326297	758078	758078	
35702.7	0.00326093	758542	758542	
35719.2	0.00325405	758971	758971	
35735.7	0.00324116	759309	759309	
35752.3	0.00322285	759630	759630	
35768.8	0.00319872	759882	759882	
35785.3	0.00316868	760364	760364	
35801.8	0.00313199	760669	760669	
35818.3	0.00308793	761063	761063	
35834.8	0.00303588	761419	761419	
35851.3	0.00297557	761825	761825	
35867.8	0.00290698	762221	762221	
35884.3	0.00283031	762580	762580	
35900.8	0.0027459	762906	762906	
35917.4	0.00265417	763285	763285	
35933.9	0.00255557	763640	763640	
35950.4	0.00245053	764098	764098	
35966.9	0.00233948	764567	764567	
35983.4	0.00222282	764893	764893	
35999.9	0.00210091	765218	765218	
36016.4	0.00197416	765490	765490	
36032.9	0.00184301	765819	765819	
36049.4	0.00170793	766217	766217	
36065.9	0.00156949	766793	766793	
36082.5	0.0014283	767123	767123	
36099	0.00128503	767493	767493	
36115.5	0.00114037	767834	767834	
36132	0.000995036	768162	768162	
36148.5	0.000849742	768606	768606	
36165	0.000705186	768949	768949	
36181.5	0.000562043	769294	769294	
36198	0.000420968	769721	769721	
36214.5	0.000282595	770090	770090	
36231	0.00014754	770510	770510	
36247.6	1.64055e-05	770920	770920	
36264.1	-0.000110215	771261	771261	
36280.6	-0.00023174	771665	771665	
36297.1	-0.0003476	771933	771933	
36313.6	-0.000457241	772219	772219	
36330.1	-0.00056013	772647	772647	
36346.6	-0.000655777	773094	773094	
36363.1	-0.000743738	773434	773434	
36379.6	-0.000823646	773741	773741	
36396.1	-0.000895213	774034	774034	
36412.7	-0.000958246	774341	774341	
36429.2	-0.00101263	774722	774722	
36445.7	-0.00105835	774987	774987	
36462.2	-0.00109545	775289	775289	
36478.7	-0.00112402	775744	775744	
36495.2	-0.00114422	776140	776140	
36511.7	-0.00115621	776475	776475	
36528.2	-0.0011602	776795	776795	
36544.7	-0.00115638	777153	777153	
36561.2	-0.00114502	777342	777342	
36577.8	-0.00112637	777660	777660	
36594.3	-0.00110077	777988	777988	
36610.8	-0.00106857	778336	778336	
36627.3	-0.00103021	778754	778754	
36643.8	-0.000986152	779126	779126	
36660.3	-0.000936914	779502	779502	
36676.8	-0.000883048	779768	779768	
36693.3	-0.00082512	780180	780180	
36709.8	-0.000763702	780482	780482	
36726.3	-0.000699353	780780	780780	
36742.9	-0.000632613	781012	781012	
36759.4	-0.000563994	781329	781329	
36775.9	-0.000493979	781720	781720	
36792.4	-0.000423029	782084	782084	
36808.9	-0.000351581	782514	782514	
36825.4	-0.00028006	782812	782812	
36841.9	-0.000208883	782973	782973	
36858.4	-0.000138466	783357	783357	
36874.9	-6.92212e-05	783718	783718	
36891.4	-1.56292e-06	784046	784046	
36908	6.40987e-05	784392	784392	
36924.5	0.00012736	784811	784811	
36941	0.000187831	784999	784999	
36957.5	0.000245138	785310	785310	
36974	0.000298932	785656	785656	
36990.5	0.000348891	786005	786005	
37007	0.000394725	786369	786369	
37023.5	0.000436178	786715	786715	
37040	0.000473031	787029	787029	
37056.5	0.000505101	787370	787370	
37073.1	0.000532243	787747	787747	
37089.6	0.000554349	788136	788136	
37106.1	0.000571346	788449	788449	
37122.6	0.000583198	788953	788953	
37139.1	0.000589901	789328	789328	
37155.6	0.000591479	789754	789754	
37172.1	0.000587988	790049	790049	
37188.6	0.000579506	790332	790332	
37205.1	0.000566136	790563	790563	
37221.6	0.000547998	791010	791010	
37238.2	0.000525231	791413	791413	
37254.7	0.000497988	791743	791743	
37271.2	0.000466434	792150	792150	
37287.7	0.000430747	792536	792536	
37304.2	0.000391114	792889	792889	
37320.7	0.000347729	793259	793259	
37337.2	0.000300795	793648	793648	
37353.7	0.000250524	793889	793889	
37370.2	0.000197128	794168	794168	
37386.7	0.000140827	794578	794578	
37403.3	8.18421e-05	794963	794963	
37419.8	2.0397e-05	795275	795275	
37436.3	-4.32853e-05	795737	795737	
37452.8	-0.000108983	796033	796033	
37469.3	-0.000176475	796381	796381	
37485.8	-0.000245545	796901	796901	
37502.3	-0.000315979	797241	797241	
37518.8	-0.000387569	797582	797582	
37535.3	-0.000460111	797948	797948	
37551.8	-0.000533404	798230	798230	
37568.4	-0.000607257	798585	798585	
37584.9	-0.000681479	798748	798748	
37601.4	-0.000755889	798972	798972	
37617.9	-0.000830308	799247	799247	
37634.4	-0.000904565	799541	799541	
37650.9	-0.000978492	799939	799939	
37667.4	-0.00105193	800306	800306	
37683.9	-0.00112471	800761	800761	
37700.4	-0.00119669	801129	801129	
37716.9	-0.00126772	801478	801478	
37733.5	-0.00133764	801767	801767	
37750	-0.00140632	802083	802083	
37766.5	-0.0014736	802557	802557	
37783	-0.00153934	802850	802850	
37799.5	-0.0016034	803215	803215	
37816	-0.00166561	803523	803523	
37832.5	-0.00172583	803819	803819	
37849	-0.0017839	804131	804131	
37865.5	-0.00183965	804525	804525	
37882	-0.00189291	804793	804793	
37898.6	-0.00194352	805102	805102	
37915.1	-0.00199128	805596	805596	
37931.6	-0.00203604	806006	806006	
37948.1	-0.00207761	806433	806433	
37964.6	-0.00211582	806760	806760	
37981.1	-0.0021505	807105	807105	
37997.6	-0.0021815	807290	807290	
38014.1	-0.00220868	807588	807588	
38030.6	-0.00223189	807928	807928	
38047.1	-0.00225101	808229	808229	
38063.7	-0.00226595	808670	808670	
38080.2	-0.00227662	808959	808959	
38096.7	-0.00228294	809402	809402	
38113.2	-0.00228485	809800	809800	
38129.7	-0.00228232	810149	810149	
38146.2	-0.00227532	810646	810646	
38162.7	-0.00226383	811015	811015	
38179.2	-0.00224785	811414	811414	
38195.7	-0.00222738	811799	811799	
38212.2	-0.00220244	812207	812207	
38228.8	-0.00217306	812578	812578	
38245.3	-0.00213926	812903	812903	
38261.8	-0.00210109	813312	813312	
38278.3	-0.00205858	813690	813690	
38294.8	-0.0020118	814053	814053	
38311.3	-0.0019608	814366	814366	
38327.8	-0.00190566	814743	814743	
38344.3	-0.00184647	815190	815190	
38360.8	-0.00178332	815645	815645	
38377.3	-0.00171633	816064	816064	
38393.9	-0.00164563	816459	816459	
38410.4	-0.00157136	816936	816936	
38426.9	-0.00149371	817354	817354	
38443.4	-0.00141285	817614	817614	
38459.9	-0.001329	817925	817925	
38476.4	-0.00124238	818292	818292	
38492.9	-0.00115325	818657	818657	
38509.4	-0.00106188	819000	819000	
38525.9	-0.000968546	819410	819410	
38542.4	-0.000873549	819848	819848	
38559	-0.000777202	820452	820452	
38575.5	-0.00067983	820867	820867	
38592	-0.000581765	821195	821195	
38608.5	-0.000483345	821534	821534	
38625	-0.000384914	821865	821865	
38641.5	-0.000286819	822222	822222	
38658	-0.000189404	822609	822609	
38674.5	-9.30183e-05	822910	822910	
38691	1.99205e-06	823300	823300	
38707.5	9.52786e-05	823671	823671	
38724.1	0.000186499	823971	823971	
38740.6	0.000275328	824281	824281	
38757.1	0.000361471	824745	824745	
38773.6	0.000444664	825136	825136	
38790.1	0.000524667	825501	825501	
38806.6	0.000601256	825832	825832	
38823.1	0.000674208	826139	826139	
38839.6	0.0007433	826462	826462	
38856.1	0.00080831	826825	826825	
38872.6	0.00086902	827189	827189	
38889.2	0.000925218	827618	827618	
38905.7	0.000976695	828061	828061	
38922.2	0.00102325	828486	828486	
38938.7	0.0010647	828899	828899	
38955.2	0.00110087	829217	829217	
38971.7	0.00113165	829548	829548	
38988.2	0.00115693	829778	829778	
39004.7	0.00117665	830032	830032	
39021.2	0.00119077	830353	830353	
39037.7	0.00119928	830758	830758	
39054.3	0.0012022	831138	831138	
39070.8	0.00120153	831484	831484	
39087.3	0.00119355	831876	831876	
39103.8	0.00118088	832130	832130	
39120.3	0.00116098	832414	832414	
39136.8	0.00113924	832765	832765	
39153.3	0.00111171	833203	833203	
39169.8	0.00107743	833544	833544	
39186.3	0.00103574	833931	833931	
39202.8	0.000987303	834277	834277	
39219.4	0.000934629	834695	834695	
39235.9	0.000877079	835078	835078	
39252.4	0.000815583	835397	835397	
39268.9	0.000751366	835684	835684	
39285.4	0.000685751	836189	836189	
39301.9	0.000618568	836529	836529	
39318.4	0.000548469	837001	837001	
39334.9	0.000473824	837401	837401	
39351.4	0.0003939	837762	837762	
39367.9	0.000308958	838019	838019	
39384.5	0.000219945	838201	838201	
39401	0.000128004	838635	838635	
39417.5	3.40884e-05	838975	838975	
39434	-6.11677e-05	839287	839287	
39450.5	-0.000157426	839699	839699	
39467	-0.000254577	840044	840044	
39483.5	-0.000352576	840305	840305	
39500	-0.000451432	840706	840706	
39516.5	-0.000551161	840929	840929	
39533	-0.000651749	841276	841276	
39549.6	-0.000753118	841568	841568	
39566.1	-0.0008551	841788	841788	
39582.6	-0.000957438	842161	842161	
39599.1	-0.00105983	842506	842506	
39615.6	-0.00116195	842920	842920	
39632.1	-0.00126357	843384	843384	
39648.6	-0.00136447	843736	843736	
39665.1	-0.00146454	844011	844011	
39681.6	-0.00156366	844410	844410	
39698.1	-0.00166174	844757	844757	
39714.7	-0.00175861	845159	845159	
39731.2	-0.00185406	845497	845497	
39747.7	-0.00194776	845859	845859	
39764.2	-0.00203929	846297	846297	
39780.7	-0.00212818	846524	846524	
39797.2	-0.0022139	846949	846949	
39813.7	-0.00229592	847234	847234	
39830.2	-0.00237375	847699	847699	
39846.7	-0.00244692	848112	848112	
39863.2	-0.00251504	848527	848527	
39879.8	-0.00257781	848894	848894	
39896.3	-0.00263496	849369	849369	
39912.8	-0.00268633	849769	849769	
39929.3	-0.00273182	850126	850126	
39945.8	-0.00277137	850502	850502	
39962.3	-0.00280497	851002	851002	
39978.8	-0.00283264	851478	851478	
39995.3	-0.00285438	851836	851836	
40011.8	-0.00287017	852180	852180	
40028.3	-0.00287996	852555	852555	
40044.9	-0.00288364	852886	852886	
40061.4	-0.0028811	853208	853208	
40077.9	-0.00287218	853390	853390	
40094.4	-0.00285674	853720	853720	
40110.9	-0.00283463	854205	854205	
40127.4	-0.00280576	854471	854471	
40143.9	-0.00277005	854859	854859	
40160.4	-0.00272751	855320	855320	
40176.9	-0.00267816	855832	855832	
40193.4	-0.0026221	856242	856242	
40210	-0.00255946	856757	856757	
40226.5	-0.00249039	857314	857314	
40243	-0.00241509	857809	857809	
40259.5	-0.00232813	858240	858240	
40276	-0.00223858	858494	858494	
40292.5	-0.0021955	858788	858788	
40309	-0.00204398	859131	859131	
40325.5	-0.00195917	859338	859338	
40342	-0.00186249	859626	859626	
40358.5	-0.00175783	859860	859860	
40375.1	-0.00164648	860402	860402	
40391.6	-0.0015259	860812	860812	
40408.1	-0.00140009	861314	861314	
40424.6	-0.00127062	861725	861725	
40441.1	-0.00113053	862238	862238	
40457.6	-0.000989312	862569	862569	
40474.1	-0.000847614	862853	862853	
40490.6	-0.000707465	863208	863208	
40507.1	-0.000571965	863526	863526	
40523.6	-0.00051949	863922	863922	
40540.2	-0.00042415	864269	864269	
40556.7	-0.000281551	864520	864520	
40573.2	-0.000184819	864938	864938	
40589.7	-6.15286e-05	865389	865389	
40606.2	8.43577e-05	865722	865722	
40622.7	0.000236715	866111	866111	
40639.2	0.000386677	866391	866391	
40655.7	0.000589942	866805	866805	
40672.2	0.000755893	867217	867217	
40688.7	0.000878353	867592	867592	
40705.3	0.000981926	867956	867956	
40721.8	0.00107185	868210	868210	
40738.3	0.00115327	868594	868594	
40754.8	0.00122297	869030	869030	
40771.3	0.00128705	869267	869267	
40787.8	0.00132999	869676	869676	
40804.3	0.00142172	870095	870095	
40820.8	0.00150569	870359	870359	
40837.3	0.00158328	870847	870847	
40853.8	0.00167567	871359	871359	
40870.4	0.00177886	871737	871737	
40886.9	0.00186041	872092	872092	
40903.4	0.00186514	872565	872565	
40919.9	0.00191311	872939	872939	
40936.4	0.00196828	873367	873367	
40952.9	0.00202574	873791	873791	
40969.4	0.00207584	874118	874118	
40985.9	0.00211817	874386	874386	
41002.4	0.00214947	874655	874655	
41018.9	0.00217269	874947	874947	
41035.5	0.00218991	875543	875543	
41052	0.00220263	876059	876059	
41068.5	0.00221288	876589	876589	
41085	0.00222321	876981	876981	
41101.5	0.00223282	877277	877277	
41118	0.00224102	877511	877511	
41134.5	0.00224869	877895	877895	
41151	0.00225471	878332	878332	
41167.5	0.00225805	878764	878764	
41184	0.00225805	879159	879159	
41200.6	0.00225448	879510	879510	
41217.1	0.0022473	879941	879941	
41233.6	0.00223635	880318	880318	
41250.1	0.0022222	880812	880812	
41266.6	0.00220548	881229	881229	
41283.1	0.00218643	881636	881636	
41299.6	0.00216547	882097	882097	
41316.1	0.00214299	882565	882565	
41332.6	0.00211926	883023	883023	
41349.1	0.00209423	883411	883411	
41365.7	0.00206756	883747	883747	
41382.2	0.00203873	884022	884022	
41398.7	0.00200728	884324	884324	
41415.2	0.00197282	884837	884837	
41431.7	0.00193513	885217	885217	
41448.2	0.00189406	885630	885630	
41464.7	0.00184957	886066	886066	
41481.2	0.00180169	886577	886577	
41497.7	0.00175049	886833	886833	
41514.3	0.00169598	887103	887103	
41530.8	0.00163816	887336	887336	
41547.3	0.00157695	887711	887711	
41563.8	0.00151225	888174	888174	
41580.3	0.00144395	888566	888566	
41596.8	0.00137196	888931	888931	
41613.3	0.00129628	889176	889176	
41629.8	0.00121697	889549	889549	
41646.3	0.0011342	889799	889799	
41662.8	0.00104822	889885	889885	
41679.4	0.000959295	890217	890217	
41695.9	0.000867665	890629	890629	
41712.4	0.000773534	890992	890992	
41728.9	0.000677026	891352	891352	
41745.4	0.000578193	891703	891703	
41761.9	0.000477024	892250	892250	
41778.4	0.000373481	892890	892890	
41794.9	0.000267531	893462	893462	
41811.4	0.000159191	893963	893963	
41827.9	4.85519e-05	894400	894400	
41844.5	-6.41982e-05	894552	894552	
41861	-0.000178775	894857	894857	
41877.5	-0.000294811	895113	895113	
41894	-0.000411909	895291	895291	
41910.5	-0.000529527	895480	895480	
41927	-0.000647209	895723	895723	
41943.5	-0.000764456	895978	895978	
41960	-0.00088077	896168	896168	
41976.5	-0.000995651	896685	896685	
41993	-0.0011086	897216	897216	
42009.6	-0.00121909	897770	897770	
42026.1	-0.00132661	898272	898272	
42042.6	-0.00143063	898902	898902	
42059.1	-0.00153061	899404	899404	
42075.6	-0.00162604	899950	899950	
42092.1	-0.00171641	900386	900386	
42108.6	-0.00180124	900705	900705	
42125.1	-0.0018801	901015	901015	
42141.6	-0.0019526	901285	901285	
42158.1	-0.00201838	901697	901697	
42174.7	-0.00207711	902111	902111	
42191.2	-0.00212851	902311	902311	
42207.7	-0.00217233	902747	902747	
42224.2	-0.00220835	903201	903201	
42240.7	-0.0022364	903623	903623	
42257.2	-0.00225634	904089	904089	
42273.7	-0.00226808	904527	904527	
42290.2	-0.00227159	904990	904990	
42306.7	-0.0022669	905341	905341	
42323.2	-0.00225411	905749	905749	
42339.8	-0.00223332	906247	906247	
42356.3	-0.00220479	906669	906669	
42372.8	-0.00216872	907193	907193	
42389.3	-0.00212536	907590	907590	
42405.8	-0.00207431	908064	908064	
42422.3	-0.00201568	908415	908415	
42438.8	-0.00195034	908629	908629	
42455.3	-0.00187956	909102	909102	
42471.8	-0.00177904	909540	909540	
42488.3	-0.00170139	909903	909903	
42504.9	-0.00162419	910282	910282	
42521.4	-0.001527	910564	910564	
42537.9	-0.00146416	910818	910818	
42554.4	-0.00139415	911245	911245	
42570.9	-0.00126386	911590	911590	
42587.4	-0.00118989	912055	912055	
42603.9	-0.00111144	912615	912615	
42620.4	-0.00102952	913097	913097	
42636.9	-0.000990621	913697	913697	
42653.4	-0.000911134	914227	914227	
42670	-0.000841102	914710	914710	
42686.5	-0.000773495	915049	915049	
42703	-0.000687832	915531	915531	
42719.5	-0.000603814	915939	915939	
42736	-0.000504464	916310	916310	
42752.5	-0.00039905	916712	916712	
42769	-0.000309488	917089	917089	
42785.5	-0.000113265	917583	917583	
42802	7.91028e-06	918062	918062	
42818.5	0.000132706	918408	918408	
42835.1	0.000255792	918840	918840	
42851.6	0.000385312	919274	919274	
42868.1	0.000509675	919558	919558	
42884.6	0.000641145	920024	920024	
42901.1	0.000772574	920394	920394	
42917.6	0.000906036	920812	920812	
42934.1	0.00104097	921171	921171	
42950.6	0.00117978	921616	921616	
42967.1	0.00132252	921995	921995	
42983.6	0.00146925	922404	922404	
43000.2	0.00161956	922881	922881	
43016.7	0.00177323	923332	923332	
43033.2	0.00192996	923608	923608	
43049.7	0.00208946	923779	923779	
43066.2	0.00225143	924148	924148	
43082.7	0.00241557	924450	924450	
43099.2	0.00258152	924724	924724	
43115.7	0.00274896	925097	925097	
43132.2	0.00291772	925384	925384	
43148.7	0.00308776	925885	925885	
43165.3	0.00325905	926368	926368	
43181.8	0.00343157	926836	926836	
43198.3	0.00360533	927318	927318	
