0	0	135936	135936	
18.4875	0	135734	135734	
37.1736	0	135814	135814	
55.6611	0	135962	135962	
74.1486	0	136114	136114	
92.6361	0	136294	136294	
111.1	0	136458	136458	
129.564	0	136594	136594	
148.029	0	136710	136710	
166.348	0	136682	136682	
184.668	0	136698	136698	
202.987	0	136712	136712	
221.307	0	136762	136762	
239.627	0	136810	136810	
257.946	0	136884	136884	
276.266	0	136966	136966	
294.585	0	137036	137036	
312.905	0	137100	137100	
331.224	0	137150	137150	
349.544	0	137226	137226	
367.864	0	137330	137330	
386.183	0	137422	137422	
404.503	0	137482	137482	
422.822	0	137538	137538	
441.142	0	137630	137630	
459.461	0	137682	137682	
477.781	0	137700	137700	
496.051	0	137724	137724	
514.322	0	137766	137766	
532.592	0	137782	137782	
550.863	0	137830	137830	
569.133	0	137826	137826	
587.404	0	137840	137840	
605.674	0	137910	137910	
623.944	0	137984	137984	
642.215	0	138058	138058	
660.485	0	138120	138120	
678.756	0	138228	138228	
697.026	0	138330	138330	
715.296	0	138402	138402	
733.567	0	138512	138512	
751.837	0	138608	138608	
770.108	0	138678	138678	
788.378	0	138750	138750	
806.648	0	138820	138820	
824.919	0	138916	138916	
843.189	0	138994	138994	
861.46	0	139092	139092	
879.73	0	139170	139170	
898	0	139282	139282	
916.271	0	139366	139366	
934.541	0	139464	139464	
952.812	0	139580	139580	
971.082	0	139660	139660	
989.352	0	139760	139760	
1007.62	0	139858	139858	
1025.89	0	139934	139934	
1044.16	0	140032	140032	
1062.43	0	140098	140098	
1080.7	0	140192	140192	
1098.97	0	140266	140266	
1117.25	0	140382	140382	
1135.52	0	140498	140498	
1153.79	0	140606	140606	
1172.06	0	140732	140732	
1190.33	0	140810	140810	
1208.6	0	140936	140936	
1226.87	0	141034	141034	
1244.88	0	141108	141108	
1262.9	0	141178	141178	
1280.92	0	141248	141248	
1298.93	0	141348	141348	
1316.95	0	141438	141438	
1334.97	0	141574	141574	
1352.64	0	141660	141660	
1370.31	0	141742	141742	
1387.98	0	141808	141808	
1405.64	0	141956	141956	
1422.93	0	142090	142090	
1440.22	0	142186	142186	
1457.51	0	142292	142292	
1474.8	0	142368	142368	
1492.09	0	142450	142450	
1509.38	0	142540	142540	
1526.51	0	142616	142616	
1543.63	0	142684	142684	
1560.76	0	142784	142784	
1577.88	0	142914	142914	
1595.01	0	142982	142982	
1612.13	0	143098	143098	
1629.26	0	143198	143198	
1646.39	0	143292	143292	
1663.51	0	143378	143378	
1680.64	0	143502	143502	
1697.76	0	143594	143594	
1714.76	0	143720	143720	
1731.76	0	143822	143822	
1748.76	0	143918	143918	
1765.76	0	144034	144034	
1782.76	0	144102	144102	
1799.76	0	144168	144168	
1816.76	0	144304	144304	
1833.76	0	144396	144396	
1850.76	0	144514	144514	
1867.76	0	144614	144614	
1884.76	0	144690	144690	
1901.76	0	144742	144742	
1918.76	0	144828	144828	
1935.76	0	144944	144944	
1952.76	0	145094	145094	
1969.76	0	145166	145166	
1986.76	0	145324	145324	
2003.76	0	145402	145402	
2020.76	0	145542	145542	
2037.76	0	145618	145618	
2054.76	0	145750	145750	
2071.74	0	145846	145846	
2088.72	0	145908	145908	
2105.69	0	145966	145966	
2122.67	0	146124	146124	
2139.65	0	146208	146208	
2156.63	0	146280	146280	
2173.61	0	146354	146354	
2190.58	0	146428	146428	
2207.56	0	146500	146500	
2224.54	0	146682	146682	
2241.52	0	146830	146830	
2258.49	0	146976	146976	
2275.47	0	147068	147068	
2292.45	0	147194	147194	
2309.43	0	147286	147286	
2326.41	0	147382	147382	
2343.38	0	147480	147480	
2360.36	0	147560	147560	
2377.34	0	147660	147660	
2394.32	0	147776	147776	
2411.3	0	147860	147860	
2428.27	0	147974	147974	
2445.25	0	148066	148066	
2462.23	0	148192	148192	
2479.21	0	148280	148280	
2496.16	0	148410	148410	
2513.11	0	148560	148560	
2530.06	0	148704	148704	
2547.02	0	148780	148780	
2563.97	0	148920	148920	
2580.92	0	149016	149016	
2597.87	0	149116	149116	
2614.52	0	149198	149198	
2631.16	0	149296	149296	
2647.8	0	149374	149374	
2664.44	0	149544	149544	
2681.08	0	149684	149684	
2697.73	0	149780	149780	
2714.37	0	149848	149848	
2731.01	0	149944	149944	
2747.56	0	150028	150028	
2764.1	0	150162	150162	
2780.65	0	150286	150286	
2797.19	0	150444	150444	
2813.74	0	150548	150548	
2830.28	0	150658	150658	
2846.83	0	150770	150770	
2863.38	0	150896	150896	
2879.92	0	150970	150970	
2896.47	0	151112	151112	
2913.01	0	151208	151208	
2929.56	0	151292	151292	
2946.1	0	151446	151446	
2962.65	0	151534	151534	
2979.2	0	151674	151674	
2995.74	0	151754	151754	
3012.29	0	151846	151846	
3028.83	0	151948	151948	
3045.38	0	152084	152084	
3061.93	0	152242	152242	
3078.47	0	152364	152364	
3095.02	0	152508	152508	
3111.56	0	152640	152640	
3128.11	0	152766	152766	
3144.65	0	152900	152900	
3161.2	0	153032	153032	
3177.72	0	153110	153110	
3194.23	0	153232	153232	
3210.75	0	153352	153352	
3227.26	0	153482	153482	
3243.78	0	153546	153546	
3260.29	0	153676	153676	
3276.81	0	153784	153784	
3293.32	0	153882	153882	
3309.84	0	154020	154020	
3326.35	0	154168	154168	
3342.87	0	154326	154326	
3359.38	0	154440	154440	
3375.9	0	154604	154604	
3392.41	0	154748	154748	
3408.93	0	154868	154868	
3425.44	0	155000	155000	
3441.96	0	155100	155100	
3458.47	0	155208	155208	
3474.99	0	155312	155312	
3491.5	0	155426	155426	
3508.02	0	155560	155560	
3524.53	0	155660	155660	
3541.05	0	155784	155784	
3557.56	0	155884	155884	
3574.07	0	155988	155988	
3590.58	0	156116	156116	
3607.09	0	156282	156282	
3623.6	0	156416	156416	
3640.11	0	156552	156552	
3656.62	0	156680	156680	
3673.13	0	156850	156850	
3689.64	0	156980	156980	
3706.15	0	157110	157110	
3722.66	0	157224	157224	
3739.17	0	157314	157314	
3755.68	0	157400	157400	
3772.19	0	157534	157534	
3788.7	0	157672	157672	
3805.21	0	157846	157846	
3821.72	0	157956	157956	
3838.23	0	158034	158034	
3854.74	0	158188	158188	
3871.25	0	158334	158334	
3887.76	0	158464	158464	
3904.27	0	158596	158596	
3920.78	0	158750	158750	
3937.29	0	158878	158878	
3953.8	0	158990	158990	
3970.31	0	159158	159158	
3986.82	0	159298	159298	
4003.33	0	159440	159440	
4019.84	0	159518	159518	
4036.35	0	159640	159640	
4052.86	0	159750	159750	
4069.37	0	159916	159916	
4085.88	0	160084	160084	
4102.39	0	160210	160210	
4118.9	0	160326	160326	
4135.41	0	160458	160458	
4151.92	0	160558	160558	
4168.43	0	160734	160734	
4184.94	0	160868	160868	
4201.45	0	161056	161056	
4217.96	0	161160	161160	
4234.47	0	161294	161294	
4250.98	0	161468	161468	
4267.49	0	161600	161600	
4284	0	161766	161766	
4300.51	0	161890	161890	
4317.02	0	162006	162006	
4333.53	0	162146	162146	
4350.04	0	162232	162232	
4366.55	0	162340	162340	
4383.06	0	162464	162464	
4399.57	0	162616	162616	
4416.08	0	162784	162784	
4432.59	0	162850	162850	
4449.1	0	162968	162968	
4465.61	0	163130	163130	
4482.12	0	163318	163318	
4498.63	0	163466	163466	
4515.14	0	163626	163626	
4531.65	0	163772	163772	
4548.16	0	163910	163910	
4564.67	0	164050	164050	
4581.18	0	164210	164210	
4597.69	0	164336	164336	
4614.2	0	164472	164472	
4630.71	0	164596	164596	
4647.22	0	164736	164736	
4663.73	0	164834	164834	
4680.24	0	164940	164940	
4696.75	0	165098	165098	
4713.26	0	165298	165298	
4729.77	0	165466	165466	
4746.28	0	165578	165578	
4762.79	0	165708	165708	
4779.3	0	165870	165870	
4795.81	0	166056	166056	
4812.32	0	166236	166236	
4828.83	0	166398	166398	
4845.34	0	166558	166558	
4861.85	0	166720	166720	
4878.36	0	166844	166844	
4894.87	0	166988	166988	
4911.38	0	167132	167132	
4927.89	0	167316	167316	
4944.4	0	167430	167430	
4960.91	0	167570	167570	
4977.42	0	167716	167716	
4993.93	0	167872	167872	
5010.44	0	168026	168026	
5026.95	0	168184	168184	
5043.46	0	168314	168314	
5059.97	0	168508	168508	
5076.48	0	168648	168648	
5092.99	0	168806	168806	
5109.5	0	168968	168968	
5126.01	0	169078	169078	
5142.52	0	169258	169258	
5159.03	0	169360	169360	
5175.54	0	169530	169530	
5192.05	0	169692	169692	
5208.56	0	169854	169854	
5225.07	0	170030	170030	
5241.58	0	170170	170170	
5258.09	0	170320	170320	
5274.6	0	170460	170460	
5291.11	0	170636	170636	
5307.62	0	170788	170788	
5324.13	0	170914	170914	
5340.64	0	171076	171076	
5357.15	0	171216	171216	
5373.66	0	171368	171368	
5390.17	0	171538	171538	
5406.68	0	171734	171734	
5423.19	0	171892	171892	
5439.7	0	172060	172060	
5456.21	0	172206	172206	
5472.72	0	172394	172394	
5489.23	0	172512	172512	
5505.74	0	172682	172682	
5522.25	0	172808	172808	
5538.76	0	172952	172952	
5555.27	0	173086	173086	
5571.78	0	173246	173246	
5588.29	0	173394	173394	
5604.8	0	173536	173536	
5621.31	0	173680	173680	
5637.82	0	173800	173800	
5654.33	0	173924	173924	
5670.84	0	174126	174126	
5687.35	0	174312	174312	
5703.86	0	174524	174524	
5720.37	0	174644	174644	
5736.88	0	174818	174818	
5753.39	0	174940	174940	
5769.9	0	175086	175086	
5786.41	0	175230	175230	
5802.92	0	175406	175406	
5819.43	0	175550	175550	
5835.94	0	175744	175744	
5852.45	0	175914	175914	
5868.96	0	176068	176068	
5885.47	0	176194	176194	
5901.98	0	176384	176384	
5918.49	0	176522	176522	
5935	0	176672	176672	
5951.51	0	176854	176854	
5968.02	0	177058	177058	
5984.53	0	177190	177190	
6001.04	0	177400	177400	
6017.55	0	177598	177598	
6034.06	0	177770	177770	
6050.57	0	177896	177896	
6067.08	0	178040	178040	
6083.59	0	178174	178174	
6100.1	0	178324	178324	
6116.61	0	178518	178518	
6133.12	0	178692	178692	
6149.63	0	178834	178834	
6166.14	0	178994	178994	
6182.65	0	179156	179156	
6199.16	0	179320	179320	
6215.67	0	179468	179468	
6232.18	0	179646	179646	
6248.69	0	179840	179840	
6265.2	0	179986	179986	
6281.71	0	180146	180146	
6298.22	0	180328	180328	
6314.73	0	180508	180508	
6331.24	0	180678	180678	
6347.75	0	180796	180796	
6364.26	0	180938	180938	
6380.77	0	181094	181094	
6397.28	0	181302	181302	
6413.79	0	181442	181442	
6430.3	0	181610	181610	
6446.81	0	181778	181778	
6463.32	0	181940	181940	
6479.83	0	182142	182142	
6496.34	0	182282	182282	
6512.85	0	182402	182402	
6529.36	0	182562	182562	
6545.87	0	182790	182790	
6562.38	0	182946	182946	
6578.89	0	183136	183136	
6595.4	0	183334	183334	
6611.91	0	183490	183490	
6628.42	0	183608	183608	
6644.93	0	183742	183742	
6661.44	0	183944	183944	
6677.95	0	184114	184114	
6694.46	0	184296	184296	
6710.97	0	184480	184480	
6727.48	0	184640	184640	
6743.99	0	184806	184806	
6760.5	0	184972	184972	
6777	0	185104	185104	
6793.51	0	185284	185284	
6810.02	0	185426	185426	
6826.53	0	185582	185582	
6843.04	0	185794	185794	
6859.55	0	185984	185984	
6876.06	0	186176	186176	
6892.57	0	186348	186348	
6909.08	0	186514	186514	
6925.59	0	186690	186690	
6942.1	0	186896	186896	
6958.61	0	187032	187032	
6975.12	0	187234	187234	
6991.63	0	187416	187416	
7008.14	0	187566	187566	
7024.65	0	187738	187738	
7041.16	0	187926	187926	
7057.67	0	188110	188110	
7074.18	0	188290	188290	
7090.69	0	188480	188480	
7107.2	0	188648	188648	
7123.71	0	188818	188818	
7140.22	0	188970	188970	
7156.73	0	189136	189136	
7173.24	0	189328	189328	
7189.75	0	189536	189536	
7206.26	0	189748	189748	
7222.77	0	189900	189900	
7239.27	0	190020	190020	
7255.78	0	190192	190192	
7272.29	0	190372	190372	
7288.8	0	190530	190530	
7305.31	0	190718	190718	
7321.82	0	190884	190884	
7338.33	0	191072	191072	
7354.84	0	191292	191292	
7371.35	0	191498	191498	
7387.86	0	191700	191700	
7404.37	0	191890	191890	
7420.88	0	192052	192052	
7437.39	0	192224	192224	
7453.9	0	192412	192412	
7470.41	0	192612	192612	
7486.92	0	192764	192764	
7503.43	0	192942	192942	
7519.94	0	193106	193106	
7536.45	0	193300	193300	
7552.96	0	193468	193468	
7569.47	0	193648	193648	
7585.98	0	193840	193840	
7602.49	0	193984	193984	
7618.99	0	194166	194166	
7635.5	0	194358	194358	
7652.01	0	194558	194558	
7668.52	0	194772	194772	
7685.03	0	194956	194956	
7701.54	0	195070	195070	
7718.05	0	195264	195264	
7734.56	0	195404	195404	
7751.07	0	195650	195650	
7767.58	0	195856	195856	
7784.09	0	196096	196096	
7800.6	0	196328	196328	
7817.11	0	196492	196492	
7833.62	0	196644	196644	
7850.13	0	196856	196856	
7866.64	0	197074	197074	
7883.15	0	197254	197254	
7899.66	0	197350	197350	
7916.17	0	197516	197516	
7932.68	0	197718	197718	
7949.19	0	197958	197958	
7965.7	0	198186	198186	
7982.21	0	198404	198404	
7998.72	0	198564	198564	
8015.23	0	198740	198740	
8031.74	0	198934	198934	
8048.25	0	199116	199116	
8064.76	0	199324	199324	
8081.27	0	199520	199520	
8097.77	0	199690	199690	
8114.28	0	199886	199886	
8130.79	0	200072	200072	
8147.3	0	200300	200300	
8163.81	0	200464	200464	
8180.32	0	200692	200692	
8196.83	0	200888	200888	
8213.34	0	201076	201076	
8229.85	0	201300	201300	
8246.36	0	201522	201522	
8262.87	0	201744	201744	
8279.38	0	201934	201934	
8295.89	0	202098	202098	
8312.4	0	202262	202262	
8328.91	0	202464	202464	
8345.42	0	202704	202704	
8361.93	0	202930	202930	
8378.44	0	203106	203106	
8394.95	0	203336	203336	
8411.46	0	203506	203506	
8427.97	0	203666	203666	
8444.48	0	203934	203934	
8460.99	0	204160	204160	
8477.5	0	204368	204368	
8494.01	0	204542	204542	
8510.52	0	204712	204712	
8527.03	0	204948	204948	
8543.54	0	205136	205136	
8560.05	0	205382	205382	
8576.56	0	205628	205628	
8593.07	0	205794	205794	
8609.58	0	205932	205932	
8626.09	0	206076	206076	
8642.6	0	206360	206360	
8659.11	0	206574	206574	
8675.62	0	206768	206768	
8692.13	0	206966	206966	
8708.64	0	207198	207198	
8725.15	0	207446	207446	
8741.66	0	207652	207652	
8758.17	0	207860	207860	
8774.68	0	208066	208066	
8791.19	0	208244	208244	
8807.7	0	208410	208410	
8824.21	0	208550	208550	
8840.72	0	208832	208832	
8857.23	0	209056	209056	
8873.74	0	209272	209272	
8890.25	0	209454	209454	
8906.76	0	209710	209710	
8923.27	0	209898	209898	
8939.78	0	210100	210100	
8956.29	0	210330	210330	
8972.8	0	210500	210500	
8989.31	0	210730	210730	
9005.82	0	210888	210888	
9022.33	0	211140	211140	
9038.84	0	211404	211404	
9055.35	0	211612	211612	
9071.86	0	211804	211804	
9088.37	0	211966	211966	
9104.88	0	212134	212134	
9121.39	0	212366	212366	
9137.9	0	212642	212642	
9154.41	0	212918	212918	
9170.92	0	213150	213150	
9187.43	0	213352	213352	
9203.94	0	213552	213552	
9220.45	0	213748	213748	
9236.96	0	213988	213988	
9253.47	0	214202	214202	
9269.98	0	214396	214396	
9286.49	0	214646	214646	
9303	0	214838	214838	
9319.51	0	215094	215094	
9336.02	0	215302	215302	
9352.53	0	215542	215542	
9369.04	0	215730	215730	
9385.55	0	215968	215968	
9402.06	0	216132	216132	
9418.57	0	216380	216380	
9435.08	0	216644	216644	
9451.59	0	216812	216812	
9468.1	0	217116	217116	
9484.61	0	217350	217350	
9501.12	0	217500	217500	
9517.63	0	217732	217732	
9534.14	0	217948	217948	
9550.65	0	218232	218232	
9567.16	0	218446	218446	
9583.67	0	218684	218684	
9600.18	0	218910	218910	
9616.69	0	219116	219116	
9633.2	0	219354	219354	
9649.71	0	219582	219582	
9666.22	0	219836	219836	
9682.73	0	220050	220050	
9699.24	0	220300	220300	
9715.75	0	220550	220550	
9732.26	0	220800	220800	
9748.77	0	221018	221018	
9765.27	0	221258	221258	
9781.78	0	221492	221492	
9798.29	0	221698	221698	
9814.8	0	221946	221946	
9831.31	0	222208	222208	
9847.82	0	222486	222486	
9864.33	0	222748	222748	
9880.84	0	222968	222968	
9897.35	0	223216	223216	
9913.86	0	223464	223464	
9930.37	0	223692	223692	
9946.88	0	223932	223932	
9963.39	0	224150	224150	
9979.9	0	224346	224346	
9996.41	0	224582	224582	
10012.9	0	224866	224866	
10029.4	0	225102	225102	
10045.9	0	225332	225332	
10062.5	0	225558	225558	
10079	0	225832	225832	
10095.5	0	226128	226128	
10112	0	226332	226332	
10128.5	0	226578	226578	
10145	0	226746	226746	
10161.5	0	226968	226968	
10178	0	227240	227240	
10194.5	0	227448	227448	
10211	0	227716	227716	
10227.6	0	227978	227978	
10244.1	0	228232	228232	
10260.6	0	228488	228488	
10277.1	0	228754	228754	
10293.6	0	229000	229000	
10310.1	0	229264	229264	
10326.6	0	229478	229478	
10343.1	0	229692	229692	
10359.6	0	229890	229890	
10376.1	0	230162	230162	
10392.7	0	230372	230372	
10409.2	0	230630	230630	
10425.7	0	230836	230836	
10442.2	0	231032	231032	
10458.7	0	231294	231294	
10475.2	0	231550	231550	
10491.7	0	231854	231854	
10508.2	0	232194	232194	
10524.7	0	232426	232426	
10541.2	0	232614	232614	
10557.8	0	232840	232840	
10574.3	0	233084	233084	
10590.8	0	233258	233258	
10607.3	0	233558	233558	
10623.8	0	233816	233816	
10640.3	0	234056	234056	
10656.8	0	234348	234348	
10673.3	0	234596	234596	
10689.8	0	234812	234812	
10706.3	0	235042	235042	
10722.9	0	235272	235272	
10739.4	0	235472	235472	
10755.9	0	235664	235664	
10772.4	0	235916	235916	
10788.9	0	236156	236156	
10805.4	0	236464	236464	
10821.9	0	236746	236746	
10838.4	0	236992	236992	
10854.9	0	237256	237256	
10871.4	0	237456	237456	
10888	0	237724	237724	
10904.5	0	237940	237940	
10921	0	238236	238236	
10937.5	0	238486	238486	
10954	0	238722	238722	
10970.5	0	238956	238956	
10987	0	239188	239188	
11003.5	0	239440	239440	
11020	0	239708	239708	
11036.5	0	239954	239954	
11053	0	240206	240206	
11069.6	0	240434	240434	
11086.1	0	240664	240664	
11102.6	0	240858	240858	
11119.1	0	241168	241168	
11135.6	0	241422	241422	
11152.1	0	241658	241658	
11168.6	0	241966	241966	
11185.1	0	242222	242222	
11201.6	0	242484	242484	
11218.1	0	242760	242760	
11234.7	0	242976	242976	
11251.2	0	243174	243174	
11267.7	0	243394	243394	
11284.2	0	243608	243608	
11300.7	0	243824	243824	
11317.2	0	244062	244062	
11333.7	0	244282	244282	
11350.2	0	244498	244498	
11366.7	0	244784	244784	
11383.2	0	245032	245032	
11399.8	0	245266	245266	
11416.3	0	245556	245556	
11432.8	0	245796	245796	
11449.3	0	246040	246040	
11465.8	0	246302	246302	
11482.3	0	246572	246572	
11498.8	0	246806	246806	
11515.3	-4.54747e-13	246992	246992	
11531.8	-4.54747e-13	247230	247230	
11548.3	-9.09495e-13	247474	247474	
11564.9	-9.09495e-13	247810	247810	
11581.4	-1.36424e-12	248122	248122	
11597.9	-1.81899e-12	248414	248414	
11614.4	-1.81899e-12	248624	248624	
11630.9	-2.27374e-12	248874	248874	
11647.4	-2.27374e-12	249144	249144	
11663.9	-2.72848e-12	249418	249418	
11680.4	-2.72848e-12	249702	249702	
11696.9	-3.18323e-12	249910	249910	
11713.4	-3.63798e-12	250144	250144	
11730	-4.09273e-12	250412	250412	
11746.5	-4.09273e-12	250678	250678	
11763	-4.54747e-12	250930	250930	
11779.5	-5.00222e-12	251164	251164	
11796	-5.45697e-12	251406	251406	
11812.5	-5.45697e-12	251640	251640	
11829	-5.91172e-12	251950	251950	
11845.5	-6.36646e-12	252258	252258	
11862	-6.82121e-12	252604	252604	
11878.5	-7.27596e-12	252892	252892	
11895.1	-7.7307e-12	253198	253198	
11911.6	-8.18545e-12	253490	253490	
11928.1	-8.6402e-12	253796	253796	
11944.6	-9.09495e-12	254110	254110	
11961.1	-9.54969e-12	254406	254406	
11977.7	-1.00044e-11	254648	254648	
11994.2	-1.04592e-11	254920	254920	
12010.7	-1.04592e-11	255238	255238	
12027.2	-1.09139e-11	255480	255480	
12043.7	-1.13687e-11	255820	255820	
12060.2	-1.18234e-11	256084	256084	
12076.7	-1.22782e-11	256364	256364	
12093.2	-1.27329e-11	256592	256592	
12109.8	-1.31877e-11	256850	256850	
12126.3	-1.36424e-11	257168	257168	
12142.8	-1.40972e-11	257448	257448	
12159.3	-1.45519e-11	257800	257800	
12175.8	-1.50067e-11	258046	258046	
12192.3	-1.54614e-11	258290	258290	
12208.8	-1.59162e-11	258526	258526	
12225.4	-1.63709e-11	258812	258812	
12241.9	-1.68257e-11	259150	259150	
12258.4	-1.72804e-11	259438	259438	
12274.9	-1.77351e-11	259696	259696	
12291.4	-1.81899e-11	260042	260042	
12307.9	-1.90994e-11	260346	260346	
12324.4	-2.00089e-11	260568	260568	
12341	-2.04636e-11	260858	260858	
12357.5	-2.13731e-11	261158	261158	
12374	-2.22826e-11	261464	261464	
12390.5	-2.31921e-11	261780	261780	
12407	-2.41016e-11	262062	262062	
12423.5	-2.50111e-11	262346	262346	
12440	-2.59206e-11	262626	262626	
12456.5	-2.68301e-11	262900	262900	
12473	-2.77396e-11	263204	263204	
12489.6	-2.86491e-11	263476	263476	
12506.1	-2.95586e-11	263858	263858	
12522.6	-3.04681e-11	264108	264108	
12539.1	-3.13776e-11	264420	264420	
12555.6	-3.27418e-11	264730	264730	
12572.1	-3.41061e-11	265014	265014	
12588.6	-3.54703e-11	265288	265288	
12605.1	-3.68345e-11	265560	265560	
12621.6	-3.81988e-11	265782	265782	
12638.1	-3.9563e-11	265986	265986	
12654.7	-4.09273e-11	266384	266384	
12671.2	-4.22915e-11	266658	266658	
12687.7	-4.41105e-11	266998	266998	
12704.2	-4.59295e-11	267328	267328	
12720.7	-4.77485e-11	267636	267636	
12737.2	-4.95675e-11	267842	267842	
12753.7	-5.13865e-11	268166	268166	
12770.2	-5.32054e-11	268484	268484	
12786.7	-5.54792e-11	268756	268756	
12803.2	-5.77529e-11	269044	269044	
12819.8	-6.00267e-11	269338	269338	
12836.3	-6.23004e-11	269652	269652	
12852.8	-6.50289e-11	269928	269928	
12869.3	-6.77574e-11	270236	270236	
12885.8	-7.04858e-11	270502	270502	
12902.3	-7.32143e-11	270786	270786	
12918.8	-7.59428e-11	271112	271112	
12935.3	-7.9126e-11	271380	271380	
12951.8	-8.23093e-11	271730	271730	
12968.3	-8.54925e-11	272026	272026	
12984.9	-8.91305e-11	272300	272300	
13001.4	-9.27685e-11	272620	272620	
13017.9	-9.64064e-11	272882	272882	
13034.4	-1.00044e-10	273174	273174	
13050.9	-1.04137e-10	273460	273460	
13067.4	-1.0823e-10	273820	273820	
13083.9	-1.12323e-10	274188	274188	
13100.4	-1.1687e-10	274506	274506	
13116.9	-1.21418e-10	274822	274822	
13133.4	-1.2642e-10	275100	275100	
13150	-1.31422e-10	275346	275346	
13166.5	-1.36424e-10	275698	275698	
13183	-1.41881e-10	276056	276056	
13199.5	-1.47338e-10	276386	276386	
13216	-1.52795e-10	276724	276724	
13232.5	-1.58707e-10	277006	277006	
13249	-1.64619e-10	277318	277318	
13265.5	-1.70985e-10	277622	277622	
13282	-1.77351e-10	277976	277976	
13298.5	-1.84173e-10	278272	278272	
13315.1	-1.90994e-10	278614	278614	
13331.6	-1.9827e-10	278876	278876	
13348.1	-2.06001e-10	279166	279166	
13364.6	-2.13731e-10	279460	279460	
13381.1	-2.21917e-10	279768	279768	
13397.6	-2.30102e-10	280074	280074	
13414.1	-2.38742e-10	280350	280350	
13430.6	-2.47837e-10	280638	280638	
13447.1	-2.56932e-10	280946	280946	
13463.6	-2.66482e-10	281342	281342	
13480.2	-2.76032e-10	281648	281648	
13496.7	-2.86036e-10	281936	281936	
13513.2	-2.96495e-10	282232	282232	
13529.7	-3.07409e-10	282554	282554	
13546.2	-3.18323e-10	282870	282870	
13562.7	-3.29692e-10	283160	283160	
13579.2	-3.41515e-10	283488	283488	
13595.7	-3.53793e-10	283844	283844	
13612.2	-3.66526e-10	284162	284162	
13628.7	-3.79714e-10	284400	284400	
13645.3	-3.93356e-10	284660	284660	
13661.8	-4.06999e-10	284938	284938	
13678.3	-4.21096e-10	285210	285210	
13694.8	-4.35648e-10	285580	285580	
13711.3	-4.51109e-10	285920	285920	
13727.8	-4.66571e-10	286270	286270	
13744.3	-4.82942e-10	286638	286638	
13760.8	-4.99313e-10	286954	286954	
13777.3	-5.16593e-10	287260	287260	
13793.8	-5.34328e-10	287586	287586	
13810.4	-5.52518e-10	287890	287890	
13826.9	-5.71163e-10	288138	288138	
13843.4	-5.90262e-10	288414	288414	
13859.9	-6.09816e-10	288656	288656	
13876.4	-6.3028e-10	288936	288936	
13892.9	-6.51198e-10	289274	289274	
13909.4	-6.72571e-10	289722	289722	
13925.9	-6.94854e-10	290080	290080	
13942.4	-7.17591e-10	290424	290424	
13958.9	-7.40783e-10	290684	290684	
13975.5	-7.64885e-10	290980	290980	
13992	-7.89441e-10	291260	291260	
14008.5	-8.14907e-10	291624	291624	
14025	-8.40828e-10	291924	291924	
14041.5	-8.67658e-10	292218	292218	
14058	-8.94943e-10	292440	292440	
14074.5	-9.23137e-10	292736	292736	
14091	-9.52241e-10	292968	292968	
14107.5	-9.818e-10	293418	293418	
14124	-1.01227e-09	293760	293760	
14140.6	-1.04365e-09	294046	294046	
14157.1	-1.07593e-09	294420	294420	
14173.6	-1.10867e-09	294762	294762	
14190.1	-1.14233e-09	295046	295046	
14206.6	-1.17689e-09	295336	295336	
14223.1	-1.21236e-09	295602	295602	
14239.6	-1.24874e-09	295910	295910	
14256.1	-1.28603e-09	296242	296242	
14272.6	-1.32422e-09	296572	296572	
14289.1	-1.36379e-09	296860	296860	
14305.7	-1.40426e-09	297136	297136	
14322.2	-1.44564e-09	297476	297476	
14338.7	-1.48793e-09	297880	297880	
14355.2	-1.53113e-09	298176	298176	
14371.7	-1.57524e-09	298492	298492	
14388.2	-1.62072e-09	298764	298764	
14404.7	-1.6671e-09	299106	299106	
14421.2	-1.7144e-09	299446	299446	
14437.7	-1.76306e-09	299754	299754	
14454.2	-1.81262e-09	300004	300004	
14470.8	-1.86355e-09	300256	300256	
14487.3	-1.91585e-09	300548	300548	
14503.8	-1.96906e-09	300798	300798	
14520.3	-2.02363e-09	301146	301146	
14536.8	-2.07956e-09	301594	301594	
14553.3	-2.1364e-09	301994	301994	
14569.8	-2.19461e-09	302298	302298	
14586.3	-2.25418e-09	302620	302620	
14602.8	-2.31512e-09	302890	302890	
14619.3	-2.37742e-09	303164	303164	
14635.9	-2.44063e-09	303450	303450	
14652.4	-2.50566e-09	303756	303756	
14668.9	-2.57205e-09	304122	304122	
14685.4	-2.63981e-09	304420	304420	
14701.9	-2.70893e-09	304716	304716	
14718.4	-2.77942e-09	305000	305000	
14734.9	-2.85127e-09	305266	305266	
14751.4	-2.92448e-09	305616	305616	
14767.9	-2.99951e-09	306054	306054	
14784.4	-3.07591e-09	306458	306458	
14801	-3.15367e-09	306756	306756	
14817.5	-3.23325e-09	307034	307034	
14834	-3.3142e-09	307280	307280	
14850.5	-3.39696e-09	307550	307550	
14867	-3.48155e-09	307872	307872	
14883.5	-3.56749e-09	308194	308194	
14900	-3.65526e-09	308536	308536	
14916.5	-3.74484e-09	308856	308856	
14933	-3.83579e-09	309180	309180	
14949.5	-3.92856e-09	309506	309506	
14966.1	-4.02315e-09	309920	309920	
14982.6	-4.11956e-09	310246	310246	
14999.1	-4.21778e-09	310586	310586	
15015.6	-4.31783e-09	310942	310942	
15032.1	-4.41969e-09	311262	311262	
15048.6	-4.52337e-09	311638	311638	
15065.1	-4.62887e-09	312028	312028	
15081.6	-4.73619e-09	312372	312372	
15098.1	-4.84533e-09	312708	312708	
15114.6	-4.95629e-09	313030	313030	
15131.2	-5.06952e-09	313292	313292	
15147.7	-5.18457e-09	313580	313580	
15164.2	-5.30144e-09	313902	313902	
15180.7	-5.42059e-09	314206	314206	
15197.2	-5.54155e-09	314658	314658	
15213.7	-5.66479e-09	315086	315086	
15230.2	-5.78984e-09	315530	315530	
15246.7	-5.91717e-09	315848	315848	
15263.2	-6.04632e-09	316214	316214	
15279.7	-6.17774e-09	316530	316530	
15296.3	-6.31144e-09	316822	316822	
15312.8	-6.44695e-09	317152	317152	
15329.3	-6.58474e-09	317510	317510	
15345.8	-6.7248e-09	317916	317916	
15362.3	-6.86714e-09	318298	318298	
15378.8	-7.01175e-09	318688	318688	
15395.3	-7.15818e-09	319086	319086	
15411.8	-7.30688e-09	319506	319506	
15428.3	-7.45786e-09	319834	319834	
15444.8	-7.61111e-09	320208	320208	
15461.4	-7.76663e-09	320612	320612	
15477.9	-7.92443e-09	320940	320940	
15494.4	-8.08495e-09	321220	321220	
15510.9	-8.24775e-09	321586	321586	
15527.4	-8.41283e-09	321930	321930	
15543.9	-8.58017e-09	322248	322248	
15560.4	-8.74979e-09	322642	322642	
15576.9	-8.92169e-09	323000	323000	
15593.4	-9.09586e-09	323352	323352	
15609.9	-9.2723e-09	323772	323772	
15626.5	-9.45147e-09	324226	324226	
15643	-9.63291e-09	324548	324548	
15659.5	-9.81663e-09	324920	324920	
15676	-1.00031e-08	325242	325242	
15692.5	-1.01918e-08	325592	325592	
15709	-1.03832e-08	325954	325954	
15725.5	-1.0577e-08	326310	326310	
15742	-1.0773e-08	326628	326628	
15758.5	-1.09717e-08	326868	326868	
15775	-1.11727e-08	327268	327268	
15791.6	-1.13764e-08	327660	327660	
15808.1	-1.15824e-08	328008	328008	
15824.6	-1.17911e-08	328342	328342	
15841.1	-1.20021e-08	328676	328676	
15857.6	-1.22159e-08	329074	329074	
15874.1	-1.24323e-08	329434	329434	
15890.6	-1.26511e-08	329802	329802	
15907.1	-1.28725e-08	330104	330104	
15923.6	-1.30963e-08	330456	330456	
15940.1	-1.33227e-08	330762	330762	
15956.7	-1.35515e-08	331096	331096	
15973.2	-1.37829e-08	331406	331406	
15989.7	-1.40171e-08	331776	331776	
16006.2	-1.42536e-08	332134	332134	
16022.7	-1.44928e-08	332538	332538	
16039.2	-1.47347e-08	332930	332930	
16055.7	-1.49789e-08	333348	333348	
16072.2	-1.52259e-08	333694	333694	
16088.7	-1.54755e-08	334088	334088	
16105.2	-1.57274e-08	334460	334460	
16121.8	-1.59821e-08	334820	334820	
16138.3	-1.62395e-08	335202	335202	
16154.8	-1.64991e-08	335636	335636	
16171.3	-1.67615e-08	335922	335922	
16187.8	-1.70262e-08	336254	336254	
16204.3	-1.72936e-08	336618	336618	
16220.8	-1.75637e-08	337004	337004	
16237.3	-1.78366e-08	337406	337406	
16253.8	-1.81117e-08	337822	337822	
16270.3	-1.83895e-08	338208	338208	
16286.9	-1.86701e-08	338514	338514	
16303.4	-1.8953e-08	338928	338928	
16319.9	-1.92385e-08	339294	339294	
16336.4	-1.95269e-08	339636	339636	
16352.9	-1.98174e-08	339936	339936	
16369.4	-2.01107e-08	340236	340236	
16385.9	-2.04068e-08	340604	340604	
16402.4	-2.07051e-08	340930	340930	
16418.9	-2.10061e-08	341352	341352	
16435.4	-2.13099e-08	341722	341722	
16452	-2.1616e-08	342066	342066	
16468.5	-2.19247e-08	342436	342436	
16485	-2.22362e-08	342822	342822	
16501.5	-2.255e-08	343212	343212	
16518	-2.28665e-08	343548	343548	
16534.5	-2.31857e-08	343906	343906	
16551	-2.35073e-08	344276	344276	
16567.5	-2.38315e-08	344652	344652	
16584	-2.41585e-08	345108	345108	
16600.5	-2.44877e-08	345412	345412	
16617.1	-2.48197e-08	345768	345768	
16633.6	-2.51543e-08	346110	346110	
16650.1	-2.54918e-08	346496	346496	
16666.6	-2.58319e-08	346834	346834	
16683.1	-2.61748e-08	347242	347242	
16699.6	-2.652e-08	347586	347586	
16716.1	-2.68678e-08	347930	347930	
16732.6	-2.72184e-08	348164	348164	
16749.1	-2.75718e-08	348578	348578	
16765.6	-2.79279e-08	348942	348942	
16782.2	-2.82866e-08	349382	349382	
16798.7	-2.86482e-08	349804	349804	
16815.2	-2.90124e-08	350136	350136	
16831.7	-2.93794e-08	350520	350520	
16848.2	-2.97491e-08	350918	350918	
16864.7	-3.0122e-08	351306	351306	
16881.2	-3.04976e-08	351644	351644	
16897.7	-3.0876e-08	351946	351946	
16914.2	-3.12575e-08	352364	352364	
16930.7	-3.16418e-08	352860	352860	
16947.3	-3.20292e-08	353234	353234	
16963.8	-3.24198e-08	353694	353694	
16980.3	-3.28132e-08	354050	354050	
16996.8	-3.32097e-08	354404	354404	
17013.3	-3.36095e-08	354718	354718	
17029.8	-3.40124e-08	355052	355052	
17046.3	-3.44189e-08	355344	355344	
17062.8	-3.48286e-08	355586	355586	
17079.3	-3.52416e-08	355992	355992	
17095.8	-3.56581e-08	356460	356460	
17112.4	-3.60783e-08	356908	356908	
17128.9	-3.65017e-08	357266	357266	
17145.4	-3.69291e-08	357628	357628	
17161.9	-3.73602e-08	357848	357848	
17178.4	-3.7795e-08	358176	358176	
17194.9	-3.82338e-08	358626	358626	
17211.4	-3.86767e-08	359082	359082	
17227.9	-3.91237e-08	359550	359550	
17244.4	-3.95753e-08	359994	359994	
17260.9	-4.0031e-08	360368	360368	
17277.5	-4.04912e-08	360750	360750	
17294	-4.09559e-08	361212	361212	
17310.5	-4.14252e-08	361798	361798	
17327	-4.18995e-08	362242	362242	
17343.5	-4.23788e-08	362628	362628	
17360	-4.28636e-08	362986	362986	
17376.5	-4.33533e-08	363344	363344	
17393	-4.38486e-08	363660	363660	
17409.5	-4.43497e-08	364018	364018	
17426	-4.48567e-08	364404	364404	
17442.6	-4.53697e-08	364830	364830	
17459.1	-4.58886e-08	365228	365228	
17475.6	-4.64142e-08	365650	365650	
17492.1	-4.69463e-08	366080	366080	
17508.6	-4.74852e-08	366504	366504	
17525.1	-4.80313e-08	366960	366960	
17541.6	-4.85848e-08	367548	367548	
17558.1	-4.91459e-08	367922	367922	
17574.6	-4.97148e-08	368306	368306	
17591.1	-5.02919e-08	368708	368708	
17607.7	-5.08771e-08	369106	369106	
17624.2	-5.14715e-08	369542	369542	
17640.7	-5.20749e-08	370082	370082	
17657.2	-5.26875e-08	370470	370470	
17673.7	-5.33096e-08	370932	370932	
17690.2	-5.39421e-08	371250	371250	
17706.7	-5.45847e-08	371540	371540	
17723.2	-5.52382e-08	371906	371906	
17739.7	-5.5903e-08	372474	372474	
17756.2	-5.65792e-08	372942	372942	
17772.8	-5.72677e-08	373414	373414	
17789.3	-5.79685e-08	373790	373790	
17805.8	-5.8682e-08	374272	374272	
17822.3	-5.94091e-08	374708	374708	
17838.8	-6.01499e-08	375152	375152	
17855.3	-6.09052e-08	375576	375576	
17871.8	-6.16756e-08	375968	375968	
17888.3	-6.24614e-08	376446	376446	
17904.8	-6.32631e-08	376788	376788	
17921.3	-6.40816e-08	377164	377164	
17937.9	-6.4917e-08	377554	377554	
17954.4	-6.57706e-08	377900	377900	
17970.9	-6.66423e-08	378240	378240	
17987.4	-6.75332e-08	378672	378672	
18003.9	-6.8444e-08	379118	379118	
18020.4	-6.93753e-08	379570	379570	
18036.9	-7.0328e-08	379968	379968	
18053.4	-7.13026e-08	380390	380390	
18069.9	-7.23003e-08	380872	380872	
18086.4	-7.33216e-08	381217	381217	
18103	-7.43671e-08	381660	381660	
18119.5	-7.5438e-08	382077	382077	
18136	-7.65353e-08	382487	382487	
18152.5	-7.76599e-08	382846	382846	
18169	-7.88127e-08	383277	383277	
18185.5	-7.99946e-08	383743	383743	
18202	-8.1207e-08	384286	384286	
18218.5	-8.24502e-08	384706	384706	
18235	-8.37258e-08	385149	385149	
18251.5	-8.5035e-08	385545	385545	
18268.1	-8.63788e-08	385923	385923	
18284.6	-8.77585e-08	386315	386315	
18301.1	-8.9175e-08	386779	386779	
18317.6	-9.06298e-08	387186	387186	
18334.1	-9.21241e-08	387600	387600	
18350.6	-9.36593e-08	388017	388017	
18367.1	-9.52368e-08	388361	388361	
18383.6	-9.6858e-08	388765	388765	
18400.1	-9.85242e-08	389097	389097	
18416.6	-1.00237e-07	389505	389505	
18433.2	-1.01998e-07	389968	389968	
18449.7	-1.03808e-07	390424	390424	
18466.2	-1.0567e-07	390914	390914	
18482.7	-1.07585e-07	391206	391206	
18499.2	-1.09554e-07	391584	391584	
18515.7	-1.1158e-07	392046	392046	
18532.2	-1.13664e-07	392469	392469	
18548.7	-1.15809e-07	392931	392931	
18565.2	-1.18015e-07	393373	393373	
18581.7	-1.20285e-07	393764	393764	
18598.3	-1.22621e-07	394195	394195	
18614.8	-1.25026e-07	394581	394581	
18631.3	-1.275e-07	394987	394987	
18647.8	-1.30046e-07	395423	395423	
18664.3	-1.32668e-07	395887	395887	
18680.8	-1.35365e-07	396349	396349	
18697.3	-1.38142e-07	396660	396660	
18713.8	-1.41e-07	397055	397055	
18730.3	-1.43942e-07	397519	397519	
18746.8	-1.4697e-07	397912	397912	
18763.4	-1.50087e-07	398332	398332	
18779.9	-1.53296e-07	398695	398695	
18796.4	-1.56599e-07	399099	399099	
18812.9	-1.59998e-07	399521	399521	
18829.4	-1.63498e-07	399920	399920	
18845.9	-1.67099e-07	400371	400371	
18862.4	-1.70806e-07	400719	400719	
18878.9	-1.74622e-07	401189	401189	
18895.4	-1.78549e-07	401685	401685	
18911.9	-1.82591e-07	402168	402168	
18928.5	-1.86751e-07	402570	402570	
18945	-1.91031e-07	402922	402922	
18961.5	-1.95436e-07	403341	403341	
18978	-1.99969e-07	403815	403815	
18994.5	-2.04634e-07	404248	404248	
19011	-2.09433e-07	404757	404757	
19027.5	-2.14371e-07	405178	405178	
19044	-2.19451e-07	405483	405483	
19060.5	-2.24677e-07	405813	405813	
19077	-2.30053e-07	406211	406211	
19093.6	-2.35582e-07	406683	406683	
19110.1	-2.4127e-07	407152	407152	
19126.6	-2.47119e-07	407603	407603	
19143.1	-2.53135e-07	408097	408097	
19159.6	-2.59321e-07	408599	408599	
19176.1	-2.65682e-07	409020	409020	
19192.6	-2.72222e-07	409443	409443	
19209.1	-2.78946e-07	409863	409863	
19225.6	-2.85858e-07	410257	410257	
19242.1	-2.92963e-07	410583	410583	
19258.7	-3.00266e-07	410956	410956	
19275.2	-3.07773e-07	411334	411334	
19291.7	-3.15487e-07	411701	411701	
19308.2	-3.23414e-07	412078	412078	
19324.7	-3.3156e-07	412452	412452	
19341.2	-3.3993e-07	412847	412847	
19357.7	-3.48528e-07	413295	413295	
19374.2	-3.57362e-07	413697	413697	
19390.7	-3.66436e-07	414112	414112	
19407.2	-3.75757e-07	414473	414473	
19423.8	-3.8533e-07	414879	414879	
19440.3	-3.95162e-07	415359	415359	
19456.8	-4.05259e-07	415727	415727	
19473.3	-4.15627e-07	416070	416070	
19489.8	-4.26273e-07	416466	416466	
19506.3	-4.37204e-07	416929	416929	
19522.8	-4.48426e-07	417300	417300	
19539.3	-4.59947e-07	417662	417662	
19555.8	-4.71773e-07	418018	418018	
19572.3	-4.83912e-07	418427	418427	
19588.9	-4.9637e-07	418791	418791	
19605.4	-5.09157e-07	419225	419225	
19621.9	-5.22279e-07	419593	419593	
19638.4	-5.35743e-07	419981	419981	
19654.9	-5.49559e-07	420309	420309	
19671.4	-5.63734e-07	420653	420653	
19687.9	-5.78276e-07	421101	421101	
19704.4	-5.93194e-07	421376	421376	
19720.9	-6.08497e-07	421771	421771	
19737.4	-6.24193e-07	422127	422127	
19754	-6.40291e-07	422463	422463	
19770.5	-6.568e-07	422744	422744	
19787	-6.73731e-07	423101	423101	
19803.5	-6.91092e-07	423596	423596	
19820	-7.08894e-07	424046	424046	
19836.5	-7.27147e-07	424436	424436	
19853	-7.45862e-07	424756	424756	
19869.5	-7.65048e-07	425121	425121	
19886	-7.84717e-07	425422	425422	
19902.5	-8.0488e-07	425728	425728	
19919.1	-8.25548e-07	426093	426093	
19935.6	-8.46731e-07	426530	426530	
19952.1	-8.68442e-07	426905	426905	
19968.6	-8.9069e-07	427077	427077	
19985.1	-9.13488e-07	427422	427422	
20001.6	-9.36845e-07	427797	427797	
20018.1	-9.60773e-07	428156	428156	
20034.6	-9.85283e-07	428572	428572	
20051.1	-1.01039e-06	429026	429026	
20067.6	-1.0361e-06	429426	429426	
20084.2	-1.06242e-06	429721	429721	
20100.7	-1.08938e-06	430025	430025	
20117.2	-1.11697e-06	430268	430268	
20133.7	-1.14523e-06	430576	430576	
20150.2	-1.17415e-06	430994	430994	
20166.7	-1.20376e-06	431419	431419	
20183.2	-1.23407e-06	431757	431757	
20199.7	-1.2651e-06	432072	432072	
20216.2	-1.29686e-06	432361	432361	
20232.7	-1.32937e-06	432626	432626	
20249.3	-1.36266e-06	432897	432897	
20265.8	-1.39674e-06	433370	433370	
20282.3	-1.43162e-06	433748	433748	
20298.8	-1.46733e-06	434149	434149	
20315.3	-1.50386e-06	434451	434451	
20331.8	-1.54122e-06	434760	434760	
20348.3	-1.57941e-06	435112	435112	
20364.8	-1.61842e-06	435505	435505	
20381.3	-1.65825e-06	435906	435906	
20397.8	-1.69888e-06	436182	436182	
20414.4	-1.7403e-06	436547	436547	
20430.9	-1.7825e-06	436898	436898	
20447.4	-1.82548e-06	437293	437293	
20463.9	-1.86925e-06	437602	437602	
20480.4	-1.91385e-06	437986	437986	
20496.9	-1.9593e-06	438377	438377	
20513.4	-2.00569e-06	438765	438765	
20529.9	-2.05307e-06	439020	439020	
20546.4	-2.10154e-06	439333	439333	
20562.9	-2.15115e-06	439601	439601	
20579.5	-2.20194e-06	439843	439843	
20596	-2.25399e-06	440188	440188	
20612.5	-2.30732e-06	440469	440469	
20629	-2.36199e-06	440820	440820	
20645.5	-2.41803e-06	441082	441082	
20662	-2.47552e-06	441318	441318	
20678.5	-2.53457e-06	441622	441622	
20695	-2.59535e-06	441955	441955	
20711.5	-2.66098e-06	442262	442262	
20728	-2.72382e-06	442663	442663	
20744.6	-2.78553e-06	443143	443143	
20761.1	-2.84746e-06	443626	443626	
20777.6	-2.91196e-06	444117	444117	
20794.1	-2.97227e-06	444677	444677	
20810.6	-3.03081e-06	445102	445102	
20827.1	-3.08939e-06	445489	445489	
20843.6	-3.14939e-06	445809	445809	
20860.1	-3.21195e-06	446120	446120	
20876.6	-3.27814e-06	446437	446437	
20893.1	-3.34893e-06	446655	446655	
20909.7	-3.42522e-06	446987	446987	
20926.2	-3.50776e-06	447382	447382	
20942.7	-3.59721e-06	447658	447658	
20959.2	-3.69403e-06	447882	447882	
20975.7	-3.79863e-06	448162	448162	
20992.2	-3.91125e-06	448500	448500	
21008.7	-4.03104e-06	448987	448987	
21025.2	-4.10848e-06	449429	449429	
21041.7	-4.23913e-06	449907	449907	
21058.2	-4.44762e-06	450452	450452	
21074.8	-4.70022e-06	450919	450919	
21091.3	-4.97476e-06	451358	451358	
21107.8	-5.25834e-06	451751	451751	
21124.3	-5.54399e-06	452093	452093	
21140.8	-5.82992e-06	452298	452298	
21157.3	-6.11803e-06	452567	452567	
21173.8	-6.41176e-06	452803	452803	
21190.3	-6.71846e-06	453275	453275	
21206.8	-7.03547e-06	453703	453703	
21223.3	-7.3582e-06	454178	454178	
21239.9	-7.69707e-06	454623	454623	
21256.4	-7.58734e-06	454990	454990	
21272.9	-7.68063e-06	455356	455356	
21289.4	-7.92531e-06	455844	455844	
21305.9	-8.21699e-06	456207	456207	
21322.4	-8.5412e-06	456504	456504	
21338.9	-8.9578e-06	456967	456967	
21355.4	-9.46739e-06	457382	457382	
21371.9	-1.00737e-05	457734	457734	
21388.4	-1.07684e-05	458068	458068	
21405	-1.05525e-05	458437	458437	
21421.5	-1.11954e-05	458801	458801	
21438	-1.20948e-05	459193	459193	
21454.5	-1.31599e-05	459580	459580	
21471	-1.433e-05	460060	460060	
21487.5	-1.55945e-05	460495	460495	
21504	-1.69297e-05	460897	460897	
21520.5	-1.83126e-05	461284	461284	
21537	-1.97443e-05	461729	461729	
21553.5	-2.12148e-05	462088	462088	
21570.1	-2.26957e-05	462404	462404	
21586.6	-2.41945e-05	462715	462715	
21603.1	-2.57318e-05	463139	463139	
21619.6	-2.73104e-05	463527	463527	
21636.1	-2.89472e-05	463906	463906	
21652.6	-3.06552e-05	464310	464310	
21669.1	-3.24442e-05	464691	464691	
21685.6	-3.43203e-05	465063	465063	
21702.1	-3.62893e-05	465513	465513	
21718.6	-3.83542e-05	465895	465895	
21735.2	-4.05154e-05	466277	466277	
21751.7	-4.27727e-05	466623	466623	
21768.2	-4.51255e-05	467023	467023	
21784.7	-4.75754e-05	467391	467391	
21801.2	-5.01256e-05	467769	467769	
21817.7	-5.27807e-05	468109	468109	
21834.2	-5.55457e-05	468430	468430	
21850.7	-5.84254e-05	468897	468897	
21867.2	-6.14247e-05	469270	469270	
21883.7	-6.45479e-05	469654	469654	
21900.3	-6.77991e-05	469917	469917	
21916.8	-7.11816e-05	470309	470309	
21933.3	-7.46984e-05	470699	470699	
21949.8	-7.83514e-05	471085	471085	
21966.3	-8.21423e-05	471452	471452	
21982.8	-8.60721e-05	471844	471844	
21999.3	-9.01414e-05	472256	472256	
22015.8	-9.43506e-05	472754	472754	
22032.3	-9.86996e-05	473086	473086	
22048.8	-0.000103188	473409	473409	
22065.4	-0.000107816	473706	473706	
22081.9	-0.000112582	474125	474125	
22098.4	-0.000117485	474540	474540	
22114.9	-0.000122526	474876	474876	
22131.4	-0.000127702	475241	475241	
22147.9	-0.000133013	475536	475536	
22164.4	-0.000138457	475972	475972	
22180.9	-0.000144035	476326	476326	
22197.4	-0.000149746	476665	476665	
22213.9	-0.000155588	476994	476994	
22230.5	-0.000161561	477332	477332	
22247	-0.000167663	477706	477706	
22263.5	-0.000173893	478054	478054	
22280	-0.000180247	478431	478431	
22296.5	-0.000186722	478804	478804	
22313	-0.000193313	479273	479273	
22329.5	-0.000200014	479659	479659	
22346	-0.000206819	479970	479970	
22362.5	-0.000213719	480347	480347	
22379	-0.000220706	480626	480626	
22395.6	-0.000227772	480987	480987	
22412.1	-0.000234906	481363	481363	
22428.6	-0.000242099	481777	481777	
22445.1	-0.000249341	482156	482156	
22461.6	-0.000256619	482425	482425	
22478.1	-0.000263923	482805	482805	
22494.6	-0.00027124	483105	483105	
22511.1	-0.000278558	483555	483555	
22527.6	-0.000285861	483826	483826	
22544.1	-0.000293135	484088	484088	
22560.7	-0.000300364	484434	484434	
22577.2	-0.00030753	484676	484676	
22593.7	-0.000314615	485020	485020	
22610.2	-0.0003216	485419	485419	
22626.7	-0.000328462	485859	485859	
22643.2	-0.00033518	486264	486264	
22659.7	-0.00034173	486635	486635	
22676.2	-0.000348088	486902	486902	
22692.7	-0.000354227	487222	487222	
22709.2	-0.000360121	487576	487576	
22725.8	-0.000365739	487876	487876	
22742.3	-0.000371052	488251	488251	
22758.8	-0.000376028	488584	488584	
22775.3	-0.000380633	488951	488951	
22791.8	-0.000384834	489224	489224	
22808.3	-0.000388594	489561	489561	
22824.8	-0.000391875	489973	489973	
22841.3	-0.000394637	490301	490301	
22857.8	-0.00039684	490539	490539	
22874.3	-0.000398439	490853	490853	
22890.9	-0.000399389	491163	491163	
22907.4	-0.000399641	491538	491538	
22923.9	-0.000399143	491879	491879	
22940.4	-0.000397844	492234	492234	
22956.9	-0.000395685	492661	492661	
22973.4	-0.000392611	492974	492974	
22989.9	-0.00038856	493241	493241	
23006.4	-0.000383469	493585	493585	
23022.9	-0.000377275	493986	493986	
23039.4	-0.000369912	494419	494419	
23056	-0.000361312	494727	494727	
23072.5	-0.000351407	495031	495031	
23089	-0.000340126	495360	495360	
23105.5	-0.000327399	495675	495675	
23122	-0.00031315	496095	496095	
23138.5	-0.000297304	496523	496523	
23155	-0.000279784	496911	496911	
23171.5	-0.000260507	497171	497171	
23188	-0.000239392	497468	497468	
23204.5	-0.000216353	497761	497761	
23221.1	-0.000191302	498092	498092	
23237.6	-0.000164153	498415	498415	
23254.1	-0.000134815	498834	498834	
23270.6	-0.000103198	499202	499202	
23287.1	-6.92106e-05	499595	499595	
23303.6	-3.27589e-05	499951	499951	
23320.1	6.25362e-06	500363	500363	
23336.6	4.79249e-05	500700	500700	
23353.1	9.23546e-05	501133	501133	
23369.6	0.000139644	501520	501520	
23386.2	0.000189896	501862	501862	
23402.7	0.000243216	502191	502191	
23419.2	0.000299715	502506	502506	
23435.7	0.000359507	502839	502839	
23452.2	0.000422708	503170	503170	
23468.7	0.000489439	503485	503485	
23485.2	0.000559818	503859	503859	
23501.7	0.000633961	504188	504188	
23518.2	0.000711983	504520	504520	
23534.7	0.000793996	504893	504893	
23551.3	0.000880113	505290	505290	
23567.8	0.000970444	505686	505686	
23584.3	0.0010651	506104	506104	
23600.8	0.0011642	506535	506535	
23617.3	0.00126785	506859	506859	
23633.8	0.00137617	507179	507179	
23650.3	0.00148928	507570	507570	
23666.8	0.00160729	507930	507930	
23683.3	0.00173031	508252	508252	
23699.8	0.00185846	508593	508593	
23716.4	0.00199184	508979	508979	
23732.9	0.00213057	509282	509282	
23749.4	0.00227475	509698	509698	
23765.9	0.00242448	509996	509996	
23782.4	0.00257987	510349	510349	
23798.9	0.00274101	510675	510675	
23815.4	0.00290801	511053	511053	
23831.9	0.00308095	511385	511385	
23848.4	0.00325994	511777	511777	
23864.9	0.00344507	512186	512186	
23881.5	0.00363642	512618	512618	
23898	0.00383408	512952	512952	
23914.5	0.00403813	513301	513301	
23931	0.00424865	513552	513552	
23947.5	0.0044657	513683	513683	
23964	0.00468935	514078	514078	
23980.5	0.00491967	514445	514445	
23997	0.00515672	514770	514770	
24013.5	0.00540054	515134	515134	
24030	0.00565118	515385	515385	
24046.6	0.0059087	515719	515719	
24063.1	0.00617311	516104	516104	
24079.6	0.00644446	516454	516454	
24096.1	0.00672277	516700	516700	
24112.6	0.00700806	516975	516975	
24129.1	0.00730034	517377	517377	
24145.6	0.00759962	517707	517707	
24162.1	0.00790589	518041	518041	
24178.6	0.00821916	518380	518380	
24195.1	0.0085394	518623	518623	
24211.7	0.00886659	518870	518870	
24228.2	0.0092007	519201	519201	
24244.7	0.00954171	519558	519558	
24261.2	0.00988956	519760	519760	
24277.7	0.0102442	520110	520110	
24294.2	0.0106056	520507	520507	
24310.7	0.0109736	520757	520757	
24327.2	0.0113483	521041	521041	
24343.7	0.0117295	521397	521397	
24360.2	0.0121171	521762	521762	
24376.8	0.012511	522202	522202	
24393.3	0.0129111	522583	522583	
24409.8	0.0133174	522871	522871	
24426.3	0.0137297	523203	523203	
24442.8	0.0141478	523517	523517	
24459.3	0.0145716	523861	523861	
24475.8	0.0150011	524225	524225	
24492.3	0.015436	524607	524607	
24508.8	0.0158761	525032	525032	
24525.3	0.0163214	525310	525310	
24541.9	0.0167716	525617	525617	
24558.4	0.0172266	526001	526001	
24574.9	0.0176861	526339	526339	
24591.4	0.01815	526684	526684	
24607.9	0.0186181	527035	527035	
24624.4	0.0190901	527406	527406	
24640.9	0.0195658	527669	527669	
24657.4	0.0200451	527987	527987	
24673.9	0.0205276	528340	528340	
24690.4	0.0210132	528736	528736	
24707	0.0215016	529014	529014	
24723.5	0.0219926	529313	529313	
24740	0.0224859	529562	529562	
24756.5	0.0229811	529828	529828	
24773	0.0234782	530193	530193	
24789.5	0.0239768	530557	530557	
24806	0.0244766	531023	531023	
24822.5	0.0249774	531417	531417	
24839	0.0254788	531805	531805	
24855.5	0.0259806	532143	532143	
24872.1	0.0264824	532597	532597	
24888.6	0.0269841	532805	532805	
24905.1	0.0274852	533119	533119	
24921.6	0.0279855	533345	533345	
24938.1	0.0284847	533726	533726	
24954.6	0.0289825	534028	534028	
24971.1	0.0294785	534320	534320	
24987.6	0.0299725	534603	534603	
25004.1	0.030464	534903	534903	
25020.6	0.0309529	535196	535196	
25037.2	0.0314388	535602	535602	
25053.7	0.0319214	535897	535897	
25070.2	0.0324003	536273	536273	
25086.7	0.0328753	536609	536609	
25103.2	0.0333459	537009	537009	
25119.7	0.033812	537455	537455	
25136.2	0.0342732	537779	537779	
25152.7	0.0347291	538061	538061	
25169.2	0.0351795	538420	538420	
25185.7	0.035624	538906	538906	
25202.3	0.0360623	539328	539328	
25218.8	0.0364942	539733	539733	
25235.3	0.0369193	540176	540176	
25251.8	0.0373373	540531	540531	
25268.3	0.0377479	540864	540864	
25284.8	0.0381509	541237	541237	
25301.3	0.0385459	541652	541652	
25317.8	0.0389326	542006	542006	
25334.3	0.0393108	542416	542416	
25350.8	0.0396803	542685	542685	
25367.4	0.0400406	543018	543018	
25383.9	0.0403917	543324	543324	
25400.4	0.0407332	543647	543647	
25416.9	0.0410649	544007	544007	
25433.4	0.0413865	544408	544408	
25449.9	0.0416979	544780	544780	
25466.4	0.0419988	545159	545159	
25482.9	0.042289	545548	545548	
25499.4	0.0425682	545975	545975	
25515.9	0.0428364	546271	546271	
25532.5	0.0430933	546674	546674	
25549	0.0433387	547070	547070	
25565.5	0.0435725	547420	547420	
25582	0.0437946	547768	547768	
25598.5	0.0440047	548183	548183	
25615	0.0442027	548586	548586	
25631.5	0.0443886	548982	548982	
25648	0.0445622	549274	549274	
25664.5	0.0447234	549458	549458	
25681	0.0448721	549734	549734	
25697.6	0.0450082	550074	550074	
25714.1	0.0451317	550389	550389	
25730.6	0.0452424	550704	550704	
25747.1	0.0453404	551186	551186	
25763.6	0.0454255	551596	551596	
25780.1	0.0454977	551884	551884	
25796.6	0.0455571	552191	552191	
25813.1	0.0456034	552512	552512	
25829.6	0.0456369	552898	552898	
25846.1	0.0456574	553288	553288	
25862.7	0.0456649	553644	553644	
25879.2	0.0456594	553981	553981	
25895.7	0.0456409	554256	554256	
25912.2	0.0456096	554561	554561	
25928.7	0.0455652	554961	554961	
25945.2	0.045508	555278	555278	
25961.7	0.0454379	555619	555619	
25978.2	0.045355	556057	556057	
25994.7	0.0452592	556445	556445	
26011.2	0.0451507	556910	556910	
26027.8	0.0450294	557246	557246	
26044.3	0.0448955	557585	557585	
26060.8	0.044749	557887	557887	
26077.3	0.0445899	558288	558288	
26093.8	0.0444184	558616	558616	
26110.3	0.0442344	558859	558859	
26126.8	0.044038	559098	559098	
26143.3	0.0438294	559373	559373	
26159.8	0.0436086	559687	559687	
26176.3	0.0433756	560000	560000	
26192.9	0.0431306	560418	560418	
26209.4	0.0428737	560780	560780	
26225.9	0.0426049	561158	561158	
26242.4	0.0423244	561422	561422	
26258.9	0.0420322	561799	561799	
26275.4	0.0417284	562212	562212	
26291.9	0.0414133	562546	562546	
26308.4	0.0410868	562807	562807	
26324.9	0.0407491	563119	563119	
26341.4	0.0404003	563474	563474	
26358	0.0400406	563769	563769	
26374.5	0.03967	564074	564074	
26391	0.0392888	564545	564545	
26407.5	0.0388971	564816	564816	
26424	0.038495	565047	565047	
26440.5	0.0380826	565369	565369	
26457	0.0376602	565595	565595	
26473.5	0.0372279	565866	565866	
26490	0.0367858	566169	566169	
26506.5	0.0363342	566558	566558	
26523.1	0.0358732	567049	567049	
26539.6	0.035403	567492	567492	
26556.1	0.0349238	567946	567946	
26572.6	0.0344357	568388	568388	
26589.1	0.033939	568794	568794	
26605.6	0.0334339	569177	569177	
26622.1	0.0329206	569588	569588	
26638.6	0.0323992	569892	569892	
26655.1	0.03187	570101	570101	
26671.6	0.0313333	570454	570454	
26688.2	0.0307891	570696	570696	
26704.7	0.0302378	570896	570896	
26721.2	0.0296795	571300	571300	
26737.7	0.0291145	571772	571772	
26754.2	0.028543	572261	572261	
26770.7	0.0279652	572748	572748	
26787.2	0.0273814	573200	573200	
26803.7	0.0267917	573665	573665	
26820.2	0.0261965	574110	574110	
26836.8	0.0255959	574505	574505	
26853.3	0.0249902	574919	574919	
26869.8	0.0243796	575383	575383	
26886.3	0.0237644	575754	575754	
26902.8	0.0231447	576098	576098	
26919.3	0.0225209	576377	576377	
26935.8	0.0218931	576694	576694	
26952.3	0.0212615	577090	577090	
26968.8	0.0206265	577497	577497	
26985.3	0.0199882	577908	577908	
27001.9	0.0193469	578364	578364	
27018.4	0.0187028	578824	578824	
27034.9	0.0180562	579302	579302	
27051.4	0.0174071	579702	579702	
27067.9	0.016756	580197	580197	
27084.4	0.016103	580653	580653	
27100.9	0.0154483	581210	581210	
27117.4	0.0147922	581675	581675	
27133.9	0.0141348	581876	581876	
27150.4	0.0134764	582232	582232	
27167	0.0128173	582483	582483	
27183.5	0.0121576	582890	582890	
27200	0.0114975	583319	583319	
27216.5	0.0108373	583771	583771	
27233	0.0101772	584173	584173	
27249.5	0.00951731	584559	584559	
27266	0.00885794	585004	585004	
27282.5	0.00819927	585572	585572	
27299	0.00754149	585990	585990	
27315.5	0.00688482	586294	586294	
27332.1	0.00622945	586737	586737	
27348.6	0.00557559	587125	587125	
27365.1	0.00492343	587614	587614	
27381.6	0.00427316	587988	587988	
27398.1	0.00362498	588306	588306	
27414.6	0.00297909	588678	588678	
27431.1	0.00233567	589039	589039	
27447.6	0.00169492	589400	589400	
27464.1	0.00105702	589784	589784	
27480.6	0.000422145	590180	590180	
27497.2	-0.000209508	590559	590559	
27513.7	-0.000837763	590952	590952	
27530.2	-0.00146244	591317	591317	
27546.7	-0.00208336	591731	591731	
27563.2	-0.00270036	592088	592088	
27579.7	-0.00331325	592462	592462	
27596.2	-0.00392187	592787	592787	
27612.7	-0.00452605	593117	593117	
27629.2	-0.00512563	593431	593431	
27645.7	-0.00572043	593755	593755	
27662.3	-0.00631031	594087	594087	
27678.8	-0.00689509	594364	594364	
27695.3	-0.00747463	594592	594592	
27711.8	-0.00804877	594932	594932	
27728.3	-0.00861736	595278	595278	
27744.8	-0.00918025	595690	595690	
27761.3	-0.0097373	595974	595974	
27777.8	-0.0102884	596383	596383	
27794.3	-0.0108333	596661	596661	
27810.8	-0.011372	596955	596955	
27827.4	-0.0119043	597274	597274	
27843.9	-0.0124302	597663	597663	
27860.4	-0.0129493	598014	598014	
27876.9	-0.0134616	598319	598319	
27893.4	-0.013967	598658	598658	
27909.9	-0.0144655	598917	598917	
27926.4	-0.0149567	599144	599144	
27942.9	-0.0154408	599457	599457	
27959.4	-0.0159175	599773	599773	
27975.9	-0.0163868	599973	599973	
27992.5	-0.0168487	600257	600257	
28009	-0.0173027	600533	600533	
28025.5	-0.0177491	600823	600823	
28042	-0.0181877	601102	601102	
28058.5	-0.0186183	601369	601369	
28075	-0.019041	601529	601529	
28091.5	-0.0194557	601773	601773	
28108	-0.0198623	602073	602073	
28124.6	-0.0202606	602529	602529	
28141.1	-0.0206507	602866	602866	
28157.6	-0.0210324	603180	603180	
28174.1	-0.0214058	603602	603602	
28190.6	-0.0217709	603946	603946	
28207.1	-0.0221275	604405	604405	
28223.6	-0.0224755	604877	604877	
28240.1	-0.0228149	605216	605216	
28256.6	-0.0231458	605581	605581	
28273.2	-0.0234682	605913	605913	
28289.7	-0.023782	606082	606082	
28306.2	-0.0240872	606350	606350	
28322.7	-0.0243836	606612	606612	
28339.2	-0.0246715	606936	606936	
28355.7	-0.0249506	607212	607212	
28372.2	-0.0252211	607441	607441	
28388.8	-0.0254829	607768	607768	
28405.3	-0.025736	608084	608084	
28421.8	-0.0259805	608445	608445	
28438.3	-0.0262163	608715	608715	
28454.8	-0.0264435	609138	609138	
28471.3	-0.0266621	609376	609376	
28487.8	-0.0268721	609678	609678	
28504.3	-0.0270737	609953	609953	
28520.8	-0.0272667	610234	610234	
28537.4	-0.0274513	610605	610605	
28553.9	-0.0276276	611019	611019	
28570.4	-0.0277954	611358	611358	
28586.9	-0.027955	611838	611838	
28603.4	-0.0281063	612220	612220	
28619.9	-0.0282494	612493	612493	
28636.4	-0.0283843	612772	612772	
28652.9	-0.0285112	613042	613042	
28669.4	-0.02863	613276	613276	
28685.9	-0.0287409	613556	613556	
28702.5	-0.0288439	613896	613896	
28719	-0.028939	614157	614157	
28735.5	-0.0290263	614462	614462	
28752	-0.0291059	614670	614670	
28768.5	-0.0291778	615036	615036	
28785	-0.029242	615480	615480	
28801.5	-0.0292987	615874	615874	
28818	-0.0293478	616316	616316	
28834.5	-0.0293893	616656	616656	
28851	-0.0294234	616777	616777	
28867.6	-0.02945	617145	617145	
28884.1	-0.029469	617543	617543	
28900.6	-0.0294801	617839	617839	
28917.1	-0.0294833	618253	618253	
28933.6	-0.029479	618672	618672	
28950.1	-0.0294639	619021	619021	
28966.6	-0.0294428	619380	619380	
28983.1	-0.0294147	619719	619719	
28999.6	-0.0294015	620067	620067	
29016.2	-0.029386	620438	620438	
29032.7	-0.0293629	620723	620723	
29049.2	-0.0293134	621184	621184	
29065.7	-0.0292449	621503	621503	
29082.2	-0.0291853	621802	621802	
29098.7	-0.0291157	622233	622233	
29115.2	-0.0290444	622525	622525	
29131.7	-0.028963	622835	622835	
29148.2	-0.0288798	623238	623238	
29164.7	-0.0288052	623704	623704	
29181.3	-0.028744	624057	624057	
29197.8	-0.0286552	624441	624441	
29214.3	-0.0285221	624658	624658	
29230.8	-0.0284348	624989	624989	
29247.3	-0.0283387	625399	625399	
29263.8	-0.0282359	625859	625859	
29280.3	-0.0281343	626263	626263	
29296.8	-0.0280246	626636	626636	
29313.3	-0.0279151	627011	627011	
29329.8	-0.0277997	627439	627439	
29346.4	-0.0276764	627740	627740	
29362.9	-0.0275495	628021	628021	
29379.4	-0.0274183	628332	628332	
29395.9	-0.0272864	628590	628590	
29412.4	-0.0271548	628924	628924	
29428.9	-0.027022	629368	629368	
29445.4	-0.0268862	629826	629826	
29461.9	-0.0267466	630277	630277	
29478.4	-0.0266032	630557	630557	
29494.9	-0.0264564	630947	630947	
29511.5	-0.0263062	631150	631150	
29528	-0.0261528	631482	631482	
29544.5	-0.025996	631832	631832	
29561	-0.0258362	632232	632232	
29577.5	-0.0256733	632552	632552	
29594	-0.0255073	632972	632972	
29610.5	-0.025338	633363	633363	
29627	-0.0251655	633766	633766	
29643.5	-0.0249897	634004	634004	
29660	-0.024811	634220	634220	
29676.6	-0.0246296	634489	634489	
29693.1	-0.0244455	634708	634708	
29709.6	-0.0242592	635066	635066	
29726.1	-0.0240707	635415	635415	
29742.6	-0.0238802	635709	635709	
29759.1	-0.0236878	635915	635915	
29775.6	-0.0234937	636085	636085	
29792.1	-0.0232977	636314	636314	
29808.6	-0.0231001	636706	636706	
29825.1	-0.0229009	637003	637003	
29841.7	-0.0227001	637451	637451	
29858.2	-0.0224979	637779	637779	
29874.7	-0.0222944	638091	638091	
29891.2	-0.0220897	638436	638436	
29907.7	-0.0218839	638817	638817	
29924.2	-0.0216773	639285	639285	
29940.7	-0.0214699	639433	639433	
29957.2	-0.0212619	639731	639731	
29973.7	-0.0210536	639956	639956	
29990.2	-0.020845	640245	640245	
30006.8	-0.0206364	640501	640501	
30023.3	-0.0204278	640748	640748	
30039.8	-0.0202195	640996	640996	
30056.3	-0.0200114	641467	641467	
30072.8	-0.0198037	641788	641788	
30089.3	-0.0195964	642150	642150	
30105.8	-0.0193896	642570	642570	
30122.3	-0.0191833	643072	643072	
30138.8	-0.0189775	643462	643462	
30155.3	-0.0187722	643849	643849	
30171.9	-0.0185674	644118	644118	
30188.4	-0.018363	644357	644357	
30204.9	-0.0181592	644568	644568	
30221.4	-0.0179558	644754	644754	
30237.9	-0.0177529	645065	645065	
30254.4	-0.0175506	645334	645334	
30270.9	-0.0173487	645650	645650	
30287.4	-0.0171473	645854	645854	
30303.9	-0.0169465	646133	646133	
30320.4	-0.0167462	646455	646455	
30337	-0.0165465	646908	646908	
30353.5	-0.0163473	647346	647346	
30370	-0.0161486	647732	647732	
30386.5	-0.0159504	648074	648074	
30403	-0.0157527	648456	648456	
30419.5	-0.0155556	648756	648756	
30436	-0.0153589	649038	649038	
30452.5	-0.0151627	649376	649376	
30469	-0.0149669	649627	649627	
30485.5	-0.0147715	650001	650001	
30502.1	-0.0145765	650355	650355	
30518.6	-0.0143819	650659	650659	
30535.1	-0.0141877	650932	650932	
30551.6	-0.0139938	651340	651340	
30568.1	-0.0138002	651585	651585	
30584.6	-0.0136069	651942	651942	
30601.1	-0.013414	652427	652427	
30617.6	-0.0132213	652812	652812	
30634.1	-0.0130289	653080	653080	
30650.6	-0.0128368	653421	653421	
30667.2	-0.0126449	653648	653648	
30683.7	-0.0124533	653919	653919	
30700.2	-0.0122618	654161	654161	
30716.7	-0.0120706	654355	654355	
30733.2	-0.0118795	654672	654672	
30749.7	-0.0116886	655039	655039	
30766.2	-0.0114978	655451	655451	
30782.7	-0.0113071	655966	655966	
30799.2	-0.0111165	656373	656373	
30815.7	-0.010926	656831	656831	
30832.3	-0.0107355	657275	657275	
30848.8	-0.010545	657590	657590	
30865.3	-0.0103546	657884	657884	
30881.8	-0.0101642	658272	658272	
30898.3	-0.00997375	658620	658620	
30914.8	-0.00978337	659008	659008	
30931.3	-0.009593	659253	659253	
30947.8	-0.00940266	659508	659508	
30964.3	-0.00921235	659935	659935	
30980.8	-0.00902207	660204	660204	
30997.4	-0.00883183	660519	660519	
31013.9	-0.00864163	660902	660902	
31030.4	-0.0084515	661228	661228	
31046.9	-0.00826143	661621	661621	
31063.4	-0.00807143	662068	662068	
31079.9	-0.00788151	662365	662365	
31096.4	-0.00769154	662662	662662	
31112.9	-0.00750137	662913	662913	
31129.4	-0.00731085	663338	663338	
31145.9	-0.00711984	663718	663718	
31162.5	-0.00692834	664049	664049	
31179	-0.0067366	664402	664402	
31195.5	-0.00654499	664879	664879	
31212	-0.00635392	665048	665048	
31228.5	-0.00616369	665368	665368	
31245	-0.00597439	665614	665614	
31261.5	-0.00578596	665843	665843	
31278	-0.00559814	666068	666068	
31294.5	-0.00541056	666354	666354	
31311	-0.00522287	666669	666669	
31327.6	-0.00503481	667095	667095	
31344.1	-0.00484627	667500	667500	
31360.6	-0.00465725	667902	667902	
31377.1	-0.00446779	668334	668334	
31393.6	-0.00427795	668712	668712	
31410.1	-0.00408774	669032	669032	
31426.6	-0.00389716	669291	669291	
31443.1	-0.00370614	669665	669665	
31459.6	-0.00351462	669897	669897	
31476.1	-0.0033225	670212	670212	
31492.7	-0.00312973	670423	670423	
31509.2	-0.00293627	670616	670616	
31525.7	-0.00274211	670748	670748	
31542.2	-0.00254727	671068	671068	
31558.7	-0.00235179	671257	671257	
31575.2	-0.00215569	671545	671545	
31591.7	-0.00195899	671945	671945	
31608.2	-0.00176168	672305	672305	
31624.7	-0.00156372	672671	672671	
31641.2	-0.00136503	673103	673103	
31657.8	-0.0011655	673505	673505	
31674.3	-0.000965003	673811	673811	
31690.8	-0.000763379	674093	674093	
31707.3	-0.000560457	674403	674403	
31723.8	-0.000356063	674747	674747	
31740.3	-0.00015003	675070	675070	
31756.8	5.779e-05	675388	675388	
31773.3	0.000267515	675687	675687	
31789.8	0.000479222	675977	675977	
31806.3	0.000692941	676303	676303	
31822.9	0.000908648	676607	676607	
31839.4	0.00112627	676857	676857	
31855.9	0.0013457	677153	677153	
31872.4	0.00156678	677531	677531	
31888.9	0.00178935	677907	677907	
31905.4	0.00201324	678066	678066	
31921.9	0.00223829	678387	678387	
31938.4	0.00246435	678746	678746	
31954.9	0.0026913	679023	679023	
31971.4	0.00291904	679312	679312	
31988	0.00314751	679634	679634	
32004.5	0.00337666	679919	679919	
32021	0.00360649	680277	680277	
32037.5	0.00383698	680533	680533	
32054	0.00406815	680802	680802	
32070.5	0.0043	681034	681034	
32087	0.00453253	681407	681407	
32103.5	0.00476573	681712	681712	
32120	0.00499958	682030	682030	
32136.5	0.00523406	682374	682374	
32153.1	0.00546915	682784	682784	
32169.6	0.00570484	683184	683184	
32186.1	0.00594113	683481	683481	
32202.6	0.006178	683899	683899	
32219.1	0.00641544	684269	684269	
32235.6	0.00665343	684456	684456	
32252.1	0.00689194	684693	684693	
32268.6	0.0071309	685144	685144	
32285.1	0.00737026	685460	685460	
32301.6	0.00760991	685838	685838	
32318.2	0.00784973	686150	686150	
32334.7	0.00808956	686444	686444	
32351.2	0.00832925	686762	686762	
32367.7	0.00856861	687087	687087	
32384.2	0.00880747	687334	687334	
32400.7	0.00904566	687660	687660	
32417.2	0.00928304	687900	687900	
32433.7	0.00951949	688353	688353	
32450.2	0.00975491	688777	688777	
32466.7	0.00998925	689227	689227	
32483.3	0.0102224	689534	689534	
32499.8	0.0104544	689902	689902	
32516.3	0.010685	690234	690234	
32532.8	0.0109143	690633	690633	
32549.3	0.0111421	691018	691018	
32565.8	0.0113684	691287	691287	
32582.3	0.011593	691520	691520	
32598.8	0.0118157	691873	691873	
32615.3	0.0120366	692188	692188	
32631.8	0.0122553	692489	692489	
32648.4	0.0124719	692907	692907	
32664.9	0.0126862	693286	693286	
32681.4	0.012898	693770	693770	
32697.9	0.0131074	694064	694064	
32714.4	0.0133141	694570	694570	
32730.9	0.0135182	695054	695054	
32747.4	0.0137194	695413	695413	
32763.9	0.0139178	695695	695695	
32780.4	0.0141132	695878	695878	
32796.9	0.0143056	696124	696124	
32813.5	0.014495	696417	696417	
32830	0.0146812	696669	696669	
32846.5	0.0148643	697033	697033	
32863	0.0150441	697267	697267	
32879.5	0.0152207	697588	697588	
32896	0.015394	697974	697974	
32912.5	0.0155641	698269	698269	
32929	0.0157308	698621	698621	
32945.5	0.0158942	699048	699048	
32962	0.0160543	699547	699547	
32978.6	0.0162111	699942	699942	
32995.1	0.0163645	700299	700299	
33011.6	0.0165146	700567	700567	
33028.1	0.0166613	700866	700866	
33044.6	0.0168046	701201	701201	
33061.1	0.0169445	701529	701529	
33077.6	0.017081	701772	701772	
33094.1	0.0172141	701975	701975	
33110.6	0.0173438	702293	702293	
33127.1	0.01747	702656	702656	
33143.7	0.0175928	703049	703049	
33160.2	0.0177121	703533	703533	
33176.7	0.0178279	704036	704036	
33193.2	0.0179402	704464	704464	
33209.7	0.018049	705071	705071	
33226.2	0.0181542	705532	705532	
33242.7	0.018256	706025	706025	
33259.2	0.0183542	706401	706401	
33275.7	0.0184488	706702	706702	
33292.2	0.0185398	707042	707042	
33308.8	0.0186273	707471	707471	
33325.3	0.0187112	707796	707796	
33341.8	0.0187914	708115	708115	
33358.3	0.0188681	708307	708307	
33374.8	0.0189411	708633	708633	
33391.3	0.0190105	708890	708890	
33407.8	0.0190762	709286	709286	
33424.3	0.0191382	709617	709617	
33440.8	0.0191965	710071	710071	
33457.3	0.0192511	710615	710615	
33473.9	0.0193018	711161	711161	
33490.4	0.0193485	711752	711752	
33506.9	0.0193911	712333	712333	
33523.4	0.0194298	712693	712693	
33539.9	0.0194648	713079	713079	
33556.4	0.0194968	713343	713343	
33572.9	0.0195281	713745	713745	
33589.4	0.0195553	714267	714267	
33605.9	0.0195765	714620	714620	
33622.4	0.0195918	714909	714909	
33639	0.0196017	715338	715338	
33655.5	0.0196069	715770	715770	
33672	0.0196066	716132	716132	
33688.5	0.0196013	716468	716468	
33705	0.0195942	716885	716885	
33721.5	0.0195831	717190	717190	
33738	0.0195676	717431	717431	
33754.5	0.0195484	717793	717793	
33771	0.0195261	718193	718193	
33787.5	0.0195009	718574	718574	
33804.1	0.0194725	719013	719013	
33820.6	0.0194387	719376	719376	
33837.1	0.0193992	719733	719733	
33853.6	0.0193546	720056	720056	
33870.1	0.0193055	720401	720401	
33886.6	0.0192523	720668	720668	
33903.1	0.019195	721057	721057	
33919.6	0.0191338	721497	721497	
33936.1	0.0190683	721847	721847	
33952.6	0.0189985	722213	722213	
33969.2	0.0189243	722454	722454	
33985.7	0.0188458	722683	722683	
34002.2	0.018763	723079	723079	
34018.7	0.018676	723481	723481	
34035.2	0.0185847	723940	723940	
34051.7	0.0184891	724353	724353	
34068.2	0.0183894	724597	724597	
34084.7	0.0182855	724809	724809	
34101.2	0.0181776	725096	725096	
34117.7	0.0180658	725391	725391	
34134.3	0.0179502	725641	725641	
34150.8	0.0178309	726093	726093	
34167.3	0.0177079	726413	726413	
34183.8	0.0175812	726748	726748	
34200.3	0.017451	727068	727068	
34216.8	0.017317	727451	727451	
34233.3	0.0171793	727666	727666	
34249.8	0.017038	727905	727905	
34266.3	0.0168929	728199	728199	
34282.8	0.0167443	728510	728510	
34299.4	0.0165921	728744	728744	
34315.9	0.0164365	729129	729129	
34332.4	0.0162776	729403	729403	
34348.9	0.0161155	729699	729699	
34365.4	0.0159503	730020	730020	
34381.9	0.0157822	730411	730411	
34398.4	0.0156113	730763	730763	
34414.9	0.0154376	731074	731074	
34431.4	0.0152611	731338	731338	
34447.9	0.0150821	731545	731545	
34464.5	0.0149004	731765	731765	
34481	0.0147162	731962	731962	
34497.5	0.0145296	732224	732224	
34514	0.0143406	732490	732490	
34530.5	0.0141493	732945	732945	
34547	0.0139559	733278	733278	
34563.5	0.0137604	733652	733652	
34580	0.013563	733996	733996	
34596.5	0.0133638	734427	734427	
34613	0.0131629	734801	734801	
34629.6	0.0129605	735162	735162	
34646.1	0.0127567	735553	735553	
34662.6	0.0125516	735890	735890	
34679.1	0.0123452	736196	736196	
34695.6	0.0121377	736552	736552	
34712.1	0.011929	736769	736769	
34728.6	0.0117193	737031	737031	
34745.1	0.0115087	737307	737307	
34761.6	0.0112972	737707	737707	
34778.1	0.0110849	738155	738155	
34794.7	0.0108719	738583	738583	
34811.2	0.0106582	738851	738851	
34827.7	0.0104439	739260	739260	
34844.2	0.0102292	739482	739482	
34860.7	0.0100141	739994	739994	
34877.2	0.00979882	740272	740272	
34893.7	0.00958335	740678	740678	
34910.2	0.00936783	740983	740983	
34926.7	0.00915239	741300	741300	
34943.2	0.00893714	741747	741747	
34959.8	0.0087222	742009	742009	
34976.3	0.00850769	742434	742434	
34992.8	0.00829373	742986	742986	
35009.3	0.00808047	743388	743388	
35025.8	0.00786803	743860	743860	
35042.3	0.00765655	744331	744331	
35058.8	0.00744617	744727	744727	
35075.3	0.00723702	745125	745125	
35091.8	0.00702923	745526	745526	
35108.3	0.00682294	745808	745808	
35124.9	0.00661829	746154	746154	
35141.4	0.00641539	746538	746538	
35157.9	0.00621437	746811	746811	
35174.4	0.00601534	747195	747195	
35190.9	0.00581841	747545	747545	
35207.4	0.00562369	747978	747978	
35223.9	0.00543126	748367	748367	
35240.4	0.00524121	748864	748864	
35256.9	0.00505364	749277	749277	
35273.4	0.0048686	749628	749628	
35290	0.00468616	750017	750017	
35306.5	0.00450639	750389	750389	
35323	0.00432935	750600	750600	
35339.5	0.00415508	750861	750861	
35356	0.00398359	751171	751171	
35372.5	0.00381502	751459	751459	
35389	0.00364937	751720	751720	
35405.5	0.00348667	752150	752150	
35422	0.00332697	752463	752463	
35438.6	0.00317031	752853	752853	
35455.1	0.0030167	753284	753284	
35471.6	0.00286615	753676	753676	
35488.1	0.00271878	754125	754125	
35504.6	0.00257456	754513	754513	
35521.1	0.00243351	754770	754770	
35537.6	0.00229561	755082	755082	
35554.1	0.00216098	755452	755452	
35570.6	0.00202956	755686	755686	
35587.2	0.00190138	755895	755895	
35603.7	0.00177645	756208	756208	
35620.2	0.00165476	756572	756572	
35636.7	0.00153631	756907	756907	
35653.2	0.00142111	757339	757339	
35669.7	0.00130914	757697	757697	
35686.2	0.00120041	758078	758078	
35702.7	0.00109488	758542	758542	
35719.2	0.000992562	758971	758971	
35735.7	0.000893421	759309	759309	
35752.3	0.000797438	759630	759630	
35768.8	0.000704588	759882	759882	
35785.3	0.000614842	760364	760364	
35801.8	0.000528168	760669	760669	
35818.3	0.00044453	761063	761063	
35834.8	0.000363892	761419	761419	
35851.3	0.000286212	761825	761825	
35867.8	0.000211448	762221	762221	
35884.3	0.000139556	762580	762580	
35900.8	7.0489e-05	762906	762906	
35917.4	4.19823e-06	763285	763285	
35933.9	-5.93662e-05	763640	763640	
35950.4	-0.000120256	764098	764098	
35966.9	-0.000178523	764567	764567	
35983.4	-0.000234221	764893	764893	
35999.9	-0.000287406	765218	765218	
36016.4	-0.000338133	765490	765490	
36032.9	-0.000386458	765819	765819	
36049.4	-0.000432441	766217	766217	
36065.9	-0.000476137	766793	766793	
36082.5	-0.000517608	767123	767123	
36099	-0.000556912	767493	767493	
36115.5	-0.00059411	767834	767834	
36132	-0.000629264	768162	768162	
36148.5	-0.000662435	768606	768606	
36165	-0.000693686	768949	768949	
36181.5	-0.000723082	769294	769294	
36198	-0.000750687	769721	769721	
36214.5	-0.000776566	770090	770090	
36231	-0.000800788	770510	770510	
36247.6	-0.000823419	770920	770920	
36264.1	-0.00084453	771261	771261	
36280.6	-0.000864189	771665	771665	
36297.1	-0.000882469	771933	771933	
36313.6	-0.00089944	772219	772219	
36330.1	-0.000915174	772647	772647	
36346.6	-0.000929745	773094	773094	
36363.1	-0.000943226	773434	773434	
36379.6	-0.000955693	773741	773741	
36396.1	-0.000967225	774034	774034	
36412.7	-0.000977904	774341	774341	
36429.2	-0.000987814	774722	774722	
36445.7	-0.000997043	774987	774987	
36462.2	-0.00100568	775289	775289	
36478.7	-0.00101382	775744	775744	
36495.2	-0.00102156	776140	776140	
36511.7	-0.00102899	776475	776475	
36528.2	-0.00103618	776795	776795	
36544.7	-0.00104324	777153	777153	
36561.2	-0.00105024	777342	777342	
36577.8	-0.00105724	777660	777660	
36594.3	-0.00106432	777988	777988	
36610.8	-0.00107152	778336	778336	
36627.3	-0.0010789	778754	778754	
36643.8	-0.0010865	779126	779126	
36660.3	-0.00109434	779502	779502	
36676.8	-0.00110246	779768	779768	
36693.3	-0.00111085	780180	780180	
36709.8	-0.00111951	780482	780482	
36726.3	-0.00112843	780780	780780	
36742.9	-0.00113759	781012	781012	
36759.4	-0.00114695	781329	781329	
36775.9	-0.00115645	781720	781720	
36792.4	-0.00116605	782084	782084	
36808.9	-0.00117566	782514	782514	
36825.4	-0.00118521	782812	782812	
36841.9	-0.00119462	782973	782973	
36858.4	-0.00120377	783357	783357	
36874.9	-0.00121257	783718	783718	
36891.4	-0.00122088	784046	784046	
36908	-0.0012286	784392	784392	
36924.5	-0.00123558	784811	784811	
36941	-0.00124169	784999	784999	
36957.5	-0.00124676	785310	785310	
36974	-0.00125066	785656	785656	
36990.5	-0.00125322	786005	786005	
37007	-0.00125429	786369	786369	
37023.5	-0.00125371	786715	786715	
37040	-0.00125132	787029	787029	
37056.5	-0.00124696	787370	787370	
37073.1	-0.0012405	787747	787747	
37089.6	-0.00123179	788136	788136	
37106.1	-0.00122069	788449	788449	
37122.6	-0.00120708	788953	788953	
37139.1	-0.00119083	789328	789328	
37155.6	-0.00117183	789754	789754	
37172.1	-0.00114997	790049	790049	
37188.6	-0.00112513	790332	790332	
37205.1	-0.00109723	790563	790563	
37221.6	-0.0010662	791010	791010	
37238.2	-0.00103198	791413	791413	
37254.7	-0.000994503	791743	791743	
37271.2	-0.000953741	792150	792150	
37287.7	-0.000909786	792536	792536	
37304.2	-0.000862523	792889	792889	
37320.7	-0.000812281	793259	793259	
37337.2	-0.000759552	793648	793648	
37353.7	-0.000704909	793889	793889	
37370.2	-0.000648777	794168	794168	
37386.7	-0.000591065	794578	794578	
37403.3	-0.000519277	794963	794963	
37419.8	-0.000457611	795275	795275	
37436.3	-0.000408443	795737	795737	
37452.8	-0.000355985	796033	796033	
37469.3	-0.000310327	796381	796381	
37485.8	-0.000244429	796901	796901	
37502.3	-0.000169358	797241	797241	
37518.8	-0.000123909	797582	797582	
37535.3	-6.98522e-05	797948	797948	
37551.8	-1.27696e-05	798230	798230	
37568.4	3.67276e-05	798585	798585	
37584.9	8.8373e-05	798748	798748	
37601.4	0.000151283	798972	798972	
37617.9	0.000216494	799247	799247	
37634.4	0.000272224	799541	799541	
37650.9	0.000325146	799939	799939	
37667.4	0.000381018	800306	800306	
37683.9	0.000435286	800761	800761	
37700.4	0.000486362	801129	801129	
37716.9	0.000530876	801478	801478	
37733.5	0.000570488	801767	801767	
37750	0.000607522	802083	802083	
37766.5	0.000640294	802557	802557	
37783	0.000683883	802850	802850	
37799.5	0.000716204	803215	803215	
37816	0.000743977	803523	803523	
37832.5	0.000767225	803819	803819	
37849	0.000784068	804131	804131	
37865.5	0.000795241	804525	804525	
37882	0.000801076	804793	804793	
37898.6	0.000803188	805102	805102	
37915.1	0.000802163	805596	805596	
37931.6	0.00079756	806006	806006	
37948.1	0.000788636	806433	806433	
37964.6	0.000775282	806760	806760	
37981.1	0.00075761	807105	807105	
37997.6	0.000735845	807290	807290	
38014.1	0.00071024	807588	807588	
38030.6	0.000681039	807928	807928	
38047.1	0.000648452	808229	808229	
38063.7	0.000612665	808670	808670	
38080.2	0.000573856	808959	808959	
38096.7	0.000532213	809402	809402	
38113.2	0.000487939	809800	809800	
38129.7	0.000441264	810149	810149	
38146.2	0.000392438	810646	810646	
38162.7	0.00034173	811015	811015	
38179.2	0.00028941	811414	811414	
38195.7	0.000235746	811799	811799	
38212.2	0.000180988	812207	812207	
38228.8	0.000125364	812578	812578	
38245.3	6.90729e-05	812903	812903	
38261.8	1.22862e-05	813312	813312	
38278.3	-4.48512e-05	813690	813690	
38294.8	-0.000102216	814053	814053	
38311.3	-0.000159702	814366	814366	
38327.8	-0.000217213	814743	814743	
38344.3	-0.000274659	815190	815190	
38360.8	-0.000331951	815645	815645	
38377.3	-0.000389004	816064	816064	
38393.9	-0.00044573	816459	816459	
38410.4	-0.000502045	816936	816936	
38426.9	-0.00055787	817354	817354	
38443.4	-0.000613132	817614	817614	
38459.9	-0.00066777	817925	817925	
38476.4	-0.000721736	818292	818292	
38492.9	-0.000774996	818657	818657	
38509.4	-0.000827532	819000	819000	
38525.9	-0.000879343	819410	819410	
38542.4	-0.000930441	819848	819848	
38559	-0.000980851	820452	820452	
38575.5	-0.00103061	820867	820867	
38592	-0.00107976	821195	821195	
38608.5	-0.00112836	821534	821534	
38625	-0.00117646	821865	821865	
38641.5	-0.00122415	822222	822222	
38658	-0.00127149	822609	822609	
38674.5	-0.00131857	822910	822910	
38691	-0.00136549	823300	823300	
38707.5	-0.00141235	823671	823671	
38724.1	-0.00145926	823971	823971	
38740.6	-0.00150633	824281	824281	
38757.1	-0.00155366	824745	824745	
38773.6	-0.00160139	825136	825136	
38790.1	-0.00164961	825501	825501	
38806.6	-0.00169843	825832	825832	
38823.1	-0.00174796	826139	826139	
38839.6	-0.0017983	826462	826462	
38856.1	-0.00184953	826825	826825	
38872.6	-0.00190176	827189	827189	
38889.2	-0.00195506	827618	827618	
38905.7	-0.00200951	828061	828061	
38922.2	-0.0020652	828486	828486	
38938.7	-0.00212219	828899	828899	
38955.2	-0.00218055	829217	829217	
38971.7	-0.00224035	829548	829548	
38988.2	-0.00230164	829778	829778	
39004.7	-0.00236447	830032	830032	
39021.2	-0.00242889	830353	830353	
39037.7	-0.00249491	830758	830758	
39054.3	-0.00256259	831138	831138	
39070.8	-0.00263192	831484	831484	
39087.3	-0.00270292	831876	831876	
39103.8	-0.0027756	832130	832130	
39120.3	-0.00284994	832414	832414	
39136.8	-0.00292593	832765	832765	
39153.3	-0.00300354	833203	833203	
39169.8	-0.00308276	833544	833544	
39186.3	-0.00316354	833931	833931	
39202.8	-0.00324584	834277	834277	
39219.4	-0.00332961	834695	834695	
39235.9	-0.0034148	835078	835078	
39252.4	-0.00350135	835397	835397	
39268.9	-0.00358919	835684	835684	
39285.4	-0.00367825	836189	836189	
39301.9	-0.00376844	836529	836529	
39318.4	-0.0038597	837001	837001	
39334.9	-0.00395194	837401	837401	
39351.4	-0.00404506	837762	837762	
39367.9	-0.00413899	838019	838019	
39384.5	-0.00423361	838201	838201	
39401	-0.00432885	838635	838635	
39417.5	-0.0044246	838975	838975	
39434	-0.00452077	839287	839287	
39450.5	-0.00461726	839699	839699	
39467	-0.00471397	840044	840044	
39483.5	-0.00481081	840305	840305	
39500	-0.00490768	840706	840706	
39516.5	-0.00500449	840929	840929	
39533	-0.00510115	841276	841276	
39549.6	-0.00519756	841568	841568	
39566.1	-0.00529364	841788	841788	
39582.6	-0.0053893	842161	842161	
39599.1	-0.00548446	842506	842506	
39615.6	-0.00557903	842920	842920	
39632.1	-0.00567294	843384	843384	
39648.6	-0.00576612	843736	843736	
39665.1	-0.00585851	844011	844011	
39681.6	-0.00595002	844410	844410	
39698.1	-0.00604061	844757	844757	
39714.7	-0.00613023	845159	845159	
39731.2	-0.00621881	845497	845497	
39747.7	-0.00630632	845859	845859	
39764.2	-0.0063927	846297	846297	
39780.7	-0.00647793	846524	846524	
39797.2	-0.00656198	846949	846949	
39813.7	-0.0066448	847234	847234	
39830.2	-0.00672638	847699	847699	
39846.7	-0.0068067	848112	848112	
39863.2	-0.00688574	848527	848527	
39879.8	-0.00696349	848894	848894	
39896.3	-0.00703994	849369	849369	
39912.8	-0.00711509	849769	849769	
39929.3	-0.00718895	850126	850126	
39945.8	-0.00726152	850502	850502	
39962.3	-0.00733281	851002	851002	
39978.8	-0.00740283	851478	851478	
39995.3	-0.0074716	851836	851836	
40011.8	-0.00753914	852180	852180	
40028.3	-0.00760548	852555	852555	
40044.9	-0.00767063	852886	852886	
40061.4	-0.00773463	853208	853208	
40077.9	-0.00779749	853390	853390	
40094.4	-0.00785926	853720	853720	
40110.9	-0.00791995	854205	854205	
40127.4	-0.00797961	854471	854471	
40143.9	-0.00803827	854859	854859	
40160.4	-0.00809595	855320	855320	
40176.9	-0.00815271	855832	855832	
40193.4	-0.00820856	856242	856242	
40210	-0.00826355	856757	856757	
40226.5	-0.00831771	857314	857314	
40243	-0.00837108	857809	857809	
40259.5	-0.0084237	858240	858240	
40276	-0.00847561	858494	858494	
40292.5	-0.00852683	858788	858788	
40309	-0.0085774	859131	859131	
40325.5	-0.00862736	859338	859338	
40342	-0.00867673	859626	859626	
40358.5	-0.00872555	859860	859860	
40375.1	-0.00877384	860402	860402	
40391.6	-0.00882164	860812	860812	
40408.1	-0.00886897	861314	861314	
40424.6	-0.00891585	861725	861725	
40441.1	-0.00896231	862238	862238	
40457.6	-0.00900837	862569	862569	
40474.1	-0.00905405	862853	862853	
40490.6	-0.00909938	863208	863208	
40507.1	-0.00914436	863526	863526	
40523.6	-0.00918903	863922	863922	
40540.2	-0.0092334	864269	864269	
40556.7	-0.00927748	864520	864520	
40573.2	-0.00932129	864938	864938	
40589.7	-0.00936484	865389	865389	
40606.2	-0.00940815	865722	865722	
40622.7	-0.00945123	866111	866111	
40639.2	-0.00949409	866391	866391	
40655.7	-0.00953675	866805	866805	
40672.2	-0.0095792	867217	867217	
40688.7	-0.00962145	867592	867592	
40705.3	-0.00966352	867956	867956	
40721.8	-0.00970541	868210	868210	
40738.3	-0.00974712	868594	868594	
40754.8	-0.00978865	869030	869030	
40771.3	-0.00983002	869267	869267	
40787.8	-0.00987122	869676	869676	
40804.3	-0.00991225	870095	870095	
40820.8	-0.00995311	870359	870359	
40837.3	-0.00999382	870847	870847	
40853.8	-0.0100344	871359	871359	
40870.4	-0.0100747	871737	871737	
40886.9	-0.0101149	872092	872092	
40903.4	-0.010155	872565	872565	
40919.9	-0.0101949	872939	872939	
40936.4	-0.0102346	873367	873367	
40952.9	-0.0102741	873791	873791	
40969.4	-0.0103135	874118	874118	
40985.9	-0.0103527	874386	874386	
41002.4	-0.0103917	874655	874655	
41018.9	-0.0104306	874947	874947	
41035.5	-0.0104692	875543	875543	
41052	-0.0105077	876059	876059	
41068.5	-0.010546	876589	876589	
41085	-0.0105842	876981	876981	
41101.5	-0.0106221	877277	877277	
41118	-0.0106598	877511	877511	
41134.5	-0.0106974	877895	877895	
41151	-0.0107347	878332	878332	
41167.5	-0.0107718	878764	878764	
41184	-0.0108087	879159	879159	
41200.6	-0.0108453	879510	879510	
41217.1	-0.0108818	879941	879941	
41233.6	-0.0109179	880318	880318	
41250.1	-0.0109538	880812	880812	
41266.6	-0.0109894	881229	881229	
41283.1	-0.0110248	881636	881636	
41299.6	-0.0110598	882097	882097	
41316.1	-0.0110945	882565	882565	
41332.6	-0.0111288	883023	883023	
41349.1	-0.0111628	883411	883411	
41365.7	-0.0111964	883747	883747	
41382.2	-0.0112296	884022	884022	
41398.7	-0.0112623	884324	884324	
41415.2	-0.0112946	884837	884837	
41431.7	-0.0113263	885217	885217	
41448.2	-0.0113576	885630	885630	
41464.7	-0.0113883	886066	886066	
41481.2	-0.0114184	886577	886577	
41497.7	-0.0114479	886833	886833	
41514.3	-0.0114767	887103	887103	
41530.8	-0.0115048	887336	887336	
41547.3	-0.0115322	887711	887711	
41563.8	-0.0115588	888174	888174	
41580.3	-0.0115845	888566	888566	
41596.8	-0.0116095	888931	888931	
41613.3	-0.0116336	889176	889176	
41629.8	-0.0116567	889549	889549	
41646.3	-0.0116789	889799	889799	
41662.8	-0.0117001	889885	889885	
41679.4	-0.0117203	890217	890217	
41695.9	-0.0117395	890629	890629	
41712.4	-0.0117576	890992	890992	
41728.9	-0.0117746	891352	891352	
41745.4	-0.0117905	891703	891703	
41761.9	-0.0118052	892250	892250	
41778.4	-0.0118187	892890	892890	
41794.9	-0.0118309	893462	893462	
41811.4	-0.0118419	893963	893963	
41827.9	-0.0118515	894400	894400	
41844.5	-0.0118597	894552	894552	
41861	-0.0118665	894857	894857	
41877.5	-0.0118719	895113	895113	
41894	-0.0118757	895291	895291	
41910.5	-0.011878	895480	895480	
41927	-0.0118787	895723	895723	
41943.5	-0.0118778	895978	895978	
41960	-0.0118753	896168	896168	
41976.5	-0.0118711	896685	896685	
41993	-0.0118654	897216	897216	
42009.6	-0.011858	897770	897770	
42026.1	-0.0118489	898272	898272	
42042.6	-0.0118383	898902	898902	
42059.1	-0.0118261	899404	899404	
42075.6	-0.0118123	899950	899950	
42092.1	-0.0117969	900386	900386	
42108.6	-0.01178	900705	900705	
42125.1	-0.0117616	901015	901015	
42141.6	-0.0117417	901285	901285	
42158.1	-0.0117203	901697	901697	
42174.7	-0.0116974	902111	902111	
42191.2	-0.0116731	902311	902311	
42207.7	-0.0116474	902747	902747	
42224.2	-0.0116203	903201	903201	
42240.7	-0.0115918	903623	903623	
42257.2	-0.0115619	904089	904089	
42273.7	-0.0115307	904527	904527	
42290.2	-0.0114981	904990	904990	
42306.7	-0.0114641	905341	905341	
42323.2	-0.0114288	905749	905749	
42339.8	-0.0113922	906247	906247	
42356.3	-0.0113542	906669	906669	
42372.8	-0.0113149	907193	907193	
42389.3	-0.0112743	907590	907590	
42405.8	-0.0112324	908064	908064	
42422.3	-0.0111892	908415	908415	
42438.8	-0.0111447	908629	908629	
42455.3	-0.0110989	909102	909102	
42471.8	-0.0110519	909540	909540	
42488.3	-0.0110035	909903	909903	
42504.9	-0.010954	910282	910282	
42521.4	-0.0109032	910564	910564	
42537.9	-0.0108512	910818	910818	
42554.4	-0.0107981	911245	911245	
42570.9	-0.0107437	911590	911590	
42587.4	-0.0106881	912055	912055	
42603.9	-0.0106315	912615	912615	
42620.4	-0.0105737	913097	913097	
42636.9	-0.0105147	913697	913697	
42653.4	-0.0104547	914227	914227	
42670	-0.0103936	914710	914710	
42686.5	-0.0103314	915049	915049	
42703	-0.0102682	915531	915531	
42719.5	-0.010204	915939	915939	
42736	-0.0101387	916310	916310	
42752.5	-0.0100724	916712	916712	
42769	-0.0100051	917089	917089	
42785.5	-0.00993685	917583	917583	
42802	-0.00986761	918062	918062	
42818.5	-0.00979742	918408	918408	
42835.1	-0.00972628	918840	918840	
42851.6	-0.00965421	919274	919274	
42868.1	-0.00958123	919558	919558	
42884.6	-0.00950735	920024	920024	
42901.1	-0.0094326	920394	920394	
42917.6	-0.00935698	920812	920812	
42934.1	-0.00928053	921171	921171	
42950.6	-0.00920327	921616	921616	
42967.1	-0.00912521	921995	921995	
42983.6	-0.00904638	922404	922404	
43000.2	-0.0089668	922881	922881	
43016.7	-0.00888652	923332	923332	
43033.2	-0.00880554	923608	923608	
43049.7	-0.0087239	923779	923779	
43066.2	-0.00864162	924148	924148	
43082.7	-0.00855875	924450	924450	
43099.2	-0.00847532	924724	924724	
43115.7	-0.00839134	925097	925097	
43132.2	-0.00830687	925384	925384	
43148.7	-0.00822194	925885	925885	
43165.3	-0.00813657	926368	926368	
43181.8	-0.00805082	926836	926836	
43198.3	-0.00796471	927318	927318	
