0	0
13.237	0
23.1647	0
33.0924	0
43.0202	0
52.9479	0
62.8756	0
72.8033	0
82.7311	0
92.6588	0
102.587	0
112.514	0
122.442	0
132.37	0
142.297	0
152.225	0
162.153	0
172.081	0
182.008	0
191.936	0
201.864	0
211.792	0
221.719	0
231.647	0
241.575	0
251.502	0
261.43	0
271.358	0
281.286	0
291.213	0
301.141	0
311.069	0
320.997	0
330.924	0
340.852	0
350.78	0
360.707	0
370.635	0
380.563	0
390.491	0
400.418	0
410.346	0
420.274	0
430.202	0
440.129	0
450.057	0
463.294	0
473.222	0
483.149	0
493.077	0
503.005	0
512.933	0
522.86	0
532.788	0
542.716	0
552.644	0
562.571	0
572.499	0
582.427	0
592.354	0
602.282	0
612.21	0
622.138	0
632.065	0
641.993	0
651.921	0
661.849	0
671.776	0
681.704	0
691.632	0
701.559	0
711.487	0
721.415	0
731.343	0
741.27	0
751.198	0
761.126	0
771.054	0
780.981	0
790.909	0
800.837	0
810.764	0
820.692	0
830.62	0
840.548	0
850.475	0
860.403	0
870.331	0
880.259	0
890.186	0
900.114	0
910.042	0
923.279	0
933.206	0
943.134	0
953.062	0
962.99	0
972.917	0
982.845	0
992.773	0
1002.7	0
1012.63	0
1022.56	0
1032.48	0
1042.41	0
1052.34	0
1062.27	0
1072.19	0
1082.12	0
1092.05	0
1101.98	0
1111.91	0
1121.83	0
1131.76	0
1141.69	0
1151.62	0
1161.54	0
1171.47	0
1181.4	0
1191.33	0
1201.26	0
1211.18	0
1221.11	0
1231.04	0
1240.97	0
1250.89	0
1260.82	0
1270.75	0
1280.68	0
1290.6	0
1300.53	0
1310.46	0
1320.39	0
1330.32	0
1340.24	0
1350.17	0
1360.1	0
1370.03	0
1383.26	0
1393.19	0
1403.12	0
1413.05	0
1422.97	0
1432.9	0
1442.83	0
1452.76	0
1462.69	0
1472.61	0
1482.54	0
1492.47	0
1502.4	0
1512.32	0
1522.25	0
1532.18	0
1542.11	0
1552.03	0
1561.96	0
1571.89	0
1581.82	0
1591.75	0
1601.67	0
1611.6	0
1621.53	0
1631.46	0
1641.38	0
1651.31	0
1661.24	0
1671.17	0
1681.1	0
1691.02	0
1700.95	0
1710.88	0
1720.81	0
1730.73	0
1740.66	0
1750.59	0
1760.52	0
1770.44	0
1780.37	0
1790.3	0
1800.23	0
1810.16	0
1820.08	0
1830.01	0
1843.25	0
1853.18	0
1863.1	0
1873.03	0
1882.96	0
1892.89	0
1902.81	0
1912.74	0
1922.67	0
1932.6	0
1942.53	0
1952.45	0
1962.38	0
1972.31	0
1982.24	0
1992.16	0
2002.09	0
2012.02	0
2021.95	0
2031.87	0
2041.8	0
2051.73	0
2061.66	0
2071.59	0
2081.51	0
2091.44	0
2101.37	0
2111.3	0
2121.22	0
2131.15	0
2141.08	0
2151.01	0
2160.94	0
2170.86	0
2180.79	0
2190.72	0
2200.65	0
2210.57	0
2220.5	0
2230.43	0
2240.36	0
2250.28	0
2260.21	0
2270.14	0
2280.07	0
2293.31	0
2303.23	0
2313.16	0
2323.09	0
2333.02	0
2342.94	0
2352.87	0
2362.8	0
2372.73	0
2382.65	0
2392.58	0
2402.51	0
2412.44	0
2422.37	0
2432.29	0
2442.22	0
2452.15	0
2462.08	0
2472	0
2481.93	0
2491.86	0
2501.79	0
2511.72	0
2521.64	0
2531.57	0
2541.5	0
2551.43	0
2561.35	0
2571.28	0
2581.21	0
2591.14	0
2601.06	0
2610.99	0
2620.92	0
2630.85	0
2640.78	0
2650.7	0
2660.63	0
2670.56	0
2680.49	0
2690.41	0
2700.34	0
2710.27	0
2720.2	0
2730.12	0
2740.05	0
2753.29	0
2763.22	0
2773.15	0
2783.07	0
2793	9.09495e-13
2802.93	1.81899e-12
2812.86	4.54747e-12
2822.78	7.27596e-12
2832.71	1.36424e-11
2842.64	2.36469e-11
2852.57	4.00178e-11
2862.49	6.73026e-11
2872.42	1.12777e-10
2882.35	1.85537e-10
2892.28	3.02862e-10
2902.2	4.88399e-10
2912.13	7.77618e-10
2922.06	1.226e-09
2931.99	1.91358e-09
2941.92	2.95768e-09
2951.84	4.52383e-09
2961.77	6.85486e-09
2971.7	1.02873e-08
2981.63	1.52922e-08
2991.55	2.25209e-08
3001.48	3.28619e-08
3011.41	4.75175e-08
3021.34	6.80975e-08
3031.26	9.67329e-08
3041.19	1.36221e-07
3051.12	1.90193e-07
3061.05	2.63318e-07
3070.97	3.61541e-07
3080.9	4.92357e-07
3090.83	6.65121e-07
3100.76	8.91407e-07
3110.69	1.18538e-06
3120.61	1.56423e-06
3130.54	2.04861e-06
3140.47	2.66307e-06
3150.4	3.43658e-06
3160.32	4.40295e-06
3170.25	5.60128e-06
3180.18	7.07633e-06
3190.11	8.87891e-06
3200.03	1.10661e-05
3213.27	1.46913e-05
3223.2	1.8034e-05
3233.13	2.1998e-05
3243.05	2.66674e-05
3252.98	3.21323e-05
3262.91	3.84872e-05
3272.84	4.58308e-05
3282.76	5.42645e-05
3292.69	6.38917e-05
3302.62	7.48162e-05
3312.55	8.71406e-05
3322.47	0.000100965
3332.4	0.000116386
3342.33	0.000133494
3352.26	0.000152372
3362.18	0.000173094
3372.11	0.000195724
3382.04	0.000220315
3391.97	0.000246907
3401.89	0.000275527
3411.82	0.000306188
3421.75	0.000338888
3431.67	0.000373611
3441.6	0.000410327
3451.53	0.000448993
3461.46	0.000489552
3471.38	0.000531936
3481.31	0.000576067
3491.24	0.000621857
3501.17	0.000669211
3511.09	0.000718031
3521.02	0.000768214
3530.95	0.000819656
3540.88	0.000872255
3550.8	0.000925912
3560.73	0.000980532
3570.66	0.00103603
3580.59	0.00109233
3590.51	0.00114937
3600.44	0.00120709
3610.37	0.00126545
3620.29	0.00132443
3630.22	0.00138402
3640.15	0.00144422
3650.08	0.00150507
3660	0.00156659
3673.24	0.00164977
3683.17	0.00171313
3693.09	0.0017774
3703.02	0.00184271
3712.95	0.00190918
3722.88	0.00197694
3732.8	0.00204616
3742.73	0.002117
3752.66	0.00218966
3762.59	0.00226436
3772.51	0.00234134
3782.44	0.00242089
3792.37	0.00250332
3802.3	0.00258903
3812.22	0.00267844
3822.15	0.00277208
3832.08	0.00287056
3842	0.00297463
3851.93	0.00308514
3861.86	0.00320317
3871.79	0.00332994
3881.71	0.00346696
3891.64	0.00361601
3901.57	0.00377921
3911.5	0.00395906
3921.42	0.00415853
3931.35	0.00438113
3941.28	0.00463097
3951.2	0.00491288
3961.13	0.00523247
3971.06	0.0055963
3980.99	0.00601194
3990.91	0.00648814
4000.84	0.00703494
4010.77	0.00766385
4020.7	0.00838796
4030.62	0.00922212
4040.55	0.0101831
4050.48	0.0112897
4060.41	0.0125629
4070.33	0.0140261
4080.26	0.015705
4090.19	0.0176279
4100.12	0.0198258
4110.04	0.022332
4123.28	0.0262159
4133.21	0.029586
4143.14	0.0333939
4153.06	0.0376834
4162.99	0.0424998
4172.92	0.0478899
4182.85	0.0539016
4192.77	0.060583
4202.7	0.0679821
4212.63	0.0761463
4222.56	0.085121
4232.48	0.0949498
4242.41	0.105673
4252.34	0.117326
4262.27	0.12994
4272.19	0.14354
4282.12	0.158146
4292.05	0.173767
4301.98	0.190406
4311.91	0.208056
4321.83	0.226701
4331.76	0.246312
4341.69	0.266852
4351.62	0.288271
4361.54	0.310507
4371.47	0.333488
4381.4	0.357129
4391.33	0.381334
4401.25	0.405997
4411.18	0.431003
4421.11	0.456223
4431.04	0.481525
4440.97	0.506767
4450.89	0.5318
4460.82	0.556471
4470.75	0.580626
4480.68	0.604106
4490.6	0.626753
4500.53	0.64841
4510.46	0.668923
4520.39	0.688145
4530.31	0.705931
4540.24	0.722147
4550.17	0.736667
4560.1	0.749375
4570.02	0.760166
4583.26	0.771419
4593.19	0.777407
4603.12	0.781228
4613.04	0.782838
4622.97	0.782205
4632.9	0.779317
4642.83	0.774174
4652.75	0.766791
4662.68	0.757197
4672.61	0.745434
4682.54	0.731559
4692.47	0.715638
4702.39	0.69775
4712.32	0.677982
4722.25	0.656432
4732.18	0.633205
4742.1	0.608409
4752.03	0.582162
4761.96	0.554584
4771.89	0.525798
4781.81	0.495928
4791.74	0.465102
4801.67	0.433444
4811.6	0.40108
4821.52	0.368134
4831.45	0.334728
4841.38	0.300981
4851.31	0.267008
4861.24	0.232921
4871.16	0.19883
4881.09	0.164837
4891.02	0.131044
4900.95	0.0975448
4910.87	0.0644315
4920.8	0.0317905
4930.73	-0.000296134
4940.66	-0.0317505
4950.58	-0.0624994
4960.51	-0.0924737
4970.44	-0.121609
4980.37	-0.149844
4990.29	-0.177123
5000.22	-0.203395
5010.15	-0.22861
5020.08	-0.252725
5030.01	-0.275701
5043.24	-0.304502
5053.17	-0.324688
5063.1	-0.343632
5073.03	-0.361313
5082.95	-0.377715
5092.88	-0.392823
5102.81	-0.406629
5112.74	-0.419131
5122.66	-0.430327
5132.59	-0.440223
5142.52	-0.448827
5152.45	-0.456154
5162.37	-0.46222
5172.3	-0.467047
5182.23	-0.470662
5192.16	-0.473093
5202.09	-0.474373
5212.01	-0.47454
5221.94	-0.473634
5231.87	-0.471697
5241.8	-0.468775
5251.72	-0.464917
5261.65	-0.460174
5271.58	-0.454597
5281.51	-0.448242
5291.43	-0.441163
5301.36	-0.433417
5311.29	-0.425061
5321.22	-0.416154
5331.15	-0.406751
5341.07	-0.396912
5351	-0.386692
5360.93	-0.376148
5370.86	-0.365334
5380.78	-0.354305
5390.71	-0.343111
5400.64	-0.331803
5410.57	-0.32043
5420.49	-0.309037
5430.42	-0.297667
5440.35	-0.286362
5450.28	-0.275161
5460.2	-0.2641
5470.13	-0.253211
5480.06	-0.242525
5493.3	-0.228641
5503.22	-0.218533
5513.15	-0.208711
5523.08	-0.199193
5533.01	-0.189996
5542.94	-0.181133
5552.86	-0.172617
5562.79	-0.164457
5572.72	-0.15666
5582.65	-0.149232
5592.57	-0.142176
5602.5	-0.135494
5612.43	-0.129186
5622.36	-0.123252
5632.28	-0.117689
5642.21	-0.112493
5652.14	-0.107661
5662.07	-0.103186
5671.99	-0.0990636
5681.92	-0.0952861
5691.85	-0.0918464
5701.78	-0.0887369
5711.71	-0.0859494
5721.63	-0.0834753
5731.56	-0.0813059
5741.49	-0.0794321
5751.42	-0.0778447
5761.34	-0.0765342
5771.27	-0.0754911
5781.2	-0.0747055
5791.13	-0.0741674
5801.05	-0.0738668
5810.98	-0.0737934
5820.91	-0.0739367
5830.84	-0.074286
5840.76	-0.0748303
5850.69	-0.0755587
5860.62	-0.0764596
5870.55	-0.0775216
5880.48	-0.0787326
5890.4	-0.0800805
5900.33	-0.0815529
5910.26	-0.0831371
5920.19	-0.0848201
5930.11	-0.0865886
5940.04	-0.0884293
5953.28	-0.0909722
5963.21	-0.0929279
5973.13	-0.0949097
5983.06	-0.0969036
5992.99	-0.0988955
6002.92	-0.100871
6012.84	-0.102817
6022.77	-0.10472
6032.7	-0.106565
6042.63	-0.10834
6052.56	-0.110032
6062.48	-0.111628
6072.41	-0.113117
6082.34	-0.114486
6092.27	-0.115727
6102.19	-0.116828
6112.12	-0.11778
6122.05	-0.118575
6131.98	-0.119205
6141.9	-0.119664
6151.83	-0.119947
6161.76	-0.120047
6171.69	-0.119962
6181.62	-0.119689
6191.54	-0.119225
6201.47	-0.118571
6211.4	-0.117727
6221.33	-0.116693
6231.25	-0.115472
6241.18	-0.114067
6251.11	-0.112482
6261.04	-0.110722
6270.96	-0.108792
6280.89	-0.1067
6290.82	-0.104451
6300.75	-0.102054
6310.68	-0.099517
6320.6	-0.0968487
6330.53	-0.0940585
6340.46	-0.0911558
6350.39	-0.0881504
6360.31	-0.0850526
6370.24	-0.0818725
6380.17	-0.0786205
6390.1	-0.075307
6400.02	-0.0719421
6413.26	-0.0673936
6423.19	-0.0639487
6433.12	-0.0604858
6443.04	-0.0570146
6452.97	-0.0535442
6462.9	-0.0500835
6472.83	-0.0466409
6482.76	-0.0432246
6492.68	-0.0398421
6502.61	-0.0365006
6512.54	-0.0332069
6522.47	-0.0299674
6532.39	-0.0267877
6542.32	-0.0236734
6552.25	-0.0206293
6562.18	-0.01766
6572.1	-0.0147696
6582.03	-0.0119617
6591.96	-0.00923978
6601.89	-0.00660676
6611.82	-0.00406532
6621.74	-0.00161785
6631.67	0.000733523
6641.6	0.00298691
6651.53	0.00514064
6661.45	0.00719321
6671.38	0.00914326
6681.31	0.0109896
6691.24	0.0127311
6701.16	0.0143667
6711.09	0.0158956
6721.02	0.0173169
6730.95	0.0186297
6740.88	0.0198334
6750.8	0.0209272
6760.73	0.0219104
6770.66	0.0227826
6780.59	0.0235432
6790.51	0.0241918
6800.44	0.0247281
6810.37	0.0251517
6820.3	0.0254628
6830.22	0.0256612
6840.15	0.0257473
6850.08	0.0257215
6860.01	0.0255843
6873.24	0.0252297
6883.17	0.0248365
6893.1	0.0243358
6903.03	0.0237292
6912.96	0.0230188
6922.88	0.0222069
6932.81	0.0212961
6942.74	0.0202893
6952.67	0.0191897
6962.59	0.0180008
6972.52	0.0167264
6982.45	0.0153706
6992.38	0.0139378
7002.3	0.0124325
7012.23	0.0108597
7022.16	0.00922428
7032.09	0.00753166
7042.02	0.00578723
7051.94	0.00399661
7061.87	0.00216551
7071.8	0.000299783
7081.73	-0.00159466
7091.65	-0.00351184
7101.58	-0.00544575
7111.51	-0.00739035
7121.44	-0.00933961
7131.36	-0.0112875
7141.29	-0.0132282
7151.22	-0.0151556
7161.15	-0.017064
7171.08	-0.0189476
7181	-0.0208008
7190.93	-0.0226179
7200.86	-0.0243937
7210.79	-0.0261226
7220.71	-0.0277996
7230.64	-0.0294196
7240.57	-0.0309776
7250.5	-0.0324687
7260.42	-0.0338884
7270.35	-0.0352321
7280.28	-0.0364954
7290.21	-0.0376741
7300.14	-0.0387639
7310.06	-0.0397611
7323.3	-0.04094
7333.23	-0.0417064
7343.15	-0.0423681
7353.08	-0.0429218
7363.01	-0.0433645
7372.94	-0.0436933
7382.87	-0.0439055
7392.79	-0.0439987
7402.72	-0.0439705
7412.65	-0.0438191
7422.58	-0.0435425
7432.5	-0.0431392
7442.43	-0.042608
7452.36	-0.0419477
7462.29	-0.0411577
7472.21	-0.0402374
7482.14	-0.0391868
7492.07	-0.0380059
7502	-0.0366951
7511.92	-0.0352554
7521.85	-0.0336877
7531.78	-0.0319934
7541.71	-0.0301745
7551.63	-0.0282329
7561.56	-0.0261711
7571.49	-0.023992
7581.42	-0.0216987
7591.35	-0.0192948
7601.27	-0.016784
7611.2	-0.0141705
7621.13	-0.011459
7631.06	-0.00865424
7640.98	-0.00576141
7650.91	-0.00278601
7660.84	0.000266149
7670.77	0.003389
7680.69	0.00657619
7690.62	0.00982112
7700.55	0.0131169
7710.48	0.0164566
7720.4	0.0198329
7730.33	0.0232383
7740.26	0.0266654
7750.19	0.0301064
7760.11	0.0335537
7770.04	0.0369994
7783.28	0.0415778
7793.21	0.0449894
7803.13	0.0483736
7813.06	0.0517226
7822.99	0.0550289
7832.92	0.0582852
7842.84	0.0614844
7852.77	0.0646195
7862.7	0.067684
7872.63	0.0706715
7882.56	0.073576
7892.48	0.0763919
7902.41	0.079114
7912.34	0.0817374
7922.27	0.0842577
7932.19	0.0866712
7942.12	0.0889742
7952.05	0.0911638
7961.98	0.0932376
7971.9	0.0951936
7981.83	0.0970303
7991.76	0.0987466
8001.69	0.100342
8011.61	0.101817
8021.54	0.103171
8031.47	0.104405
8041.4	0.105522
8051.33	0.106521
8061.25	0.107406
8071.18	0.108178
8081.11	0.10884
8091.04	0.109396
8100.96	0.109848
8110.89	0.110199
8120.82	0.110453
8130.75	0.110614
8140.67	0.110684
8150.6	0.110669
8160.53	0.110572
8170.46	0.110396
8180.38	0.110145
8190.31	0.109823
8200.24	0.109433
8210.17	0.108979
8220.1	0.108464
8230.02	0.107892
8243.26	0.107045
8253.19	0.106351
8263.12	0.105609
8273.04	0.104822
8282.97	0.103992
8292.9	0.103122
8302.83	0.102215
8312.75	0.101272
8322.68	0.100295
8332.61	0.099287
8342.54	0.0982487
8352.46	0.0971824
8362.39	0.0960897
8372.32	0.0949723
8382.25	0.0938318
8392.18	0.0926698
8402.1	0.0914879
8412.03	0.0902876
8421.96	0.0890703
8431.89	0.0878378
8441.81	0.0865914
8451.74	0.0853326
8461.67	0.084063
8471.6	0.082784
8481.52	0.0814971
8491.45	0.0802037
8501.38	0.0789052
8511.31	0.0776028
8521.24	0.076298
8531.16	0.0749919
8541.09	0.0736855
8551.02	0.07238
8560.95	0.0710761
8570.87	0.0697747
8580.8	0.0684765
8590.73	0.0671818
8600.66	0.065891
8610.59	0.0646043
8620.51	0.0633216
8630.44	0.0620426
8640.37	0.060767
8650.3	0.0594942
8660.22	0.0582233
8670.15	0.0569533
8680.08	0.055683
8690.01	0.0544112
8703.24	0.0527102
8713.17	0.0514283
8723.1	0.050139
8733.03	0.0488403
8742.95	0.0475301
8752.88	0.0462063
8762.81	0.0448664
8772.74	0.0435082
8782.67	0.0421293
8792.59	0.0407275
8802.52	0.0393005
8812.45	0.037846
8822.38	0.0363619
8832.3	0.0348461
8842.23	0.0332969
8852.16	0.0317123
8862.09	0.030091
8872.01	0.0284316
8881.94	0.026733
8891.87	0.0249942
8901.8	0.0232148
8911.73	0.0213943
8921.65	0.0195327
8931.58	0.0176302
8941.51	0.0156873
8951.44	0.0137049
8961.36	0.011684
8971.29	0.00962603
8981.22	0.00753267
8991.15	0.00540587
9001.07	0.00324785
9011	0.00106105
9020.93	-0.00115182
9030.86	-0.00338784
9040.79	-0.00564392
9050.71	-0.00791675
9060.64	-0.0102029
9070.57	-0.0124988
9080.5	-0.0148007
9090.42	-0.0171049
9100.35	-0.0194075
9110.28	-0.0217047
9120.21	-0.0239924
9130.13	-0.0262669
9140.06	-0.0285243
9153.3	-0.0315007
9163.23	-0.0337032
9173.15	-0.0358759
9183.08	-0.0380153
9193.01	-0.040118
9202.94	-0.0421806
9212.87	-0.0441998
9222.79	-0.0461726
9232.72	-0.0480961
9242.65	-0.0499674
9252.58	-0.051784
9262.5	-0.0535434
9272.43	-0.0552433
9282.36	-0.0568817
9292.29	-0.0584564
9302.21	-0.0599657
9312.14	-0.0614081
9322.07	-0.062782
9332	-0.0640861
9341.93	-0.0653192
9351.85	-0.0664805
9361.78	-0.0675691
9371.71	-0.0685843
9381.64	-0.0695257
9391.56	-0.0703928
9401.49	-0.0711856
9411.42	-0.071904
9421.35	-0.0725481
9431.27	-0.0731184
9441.2	-0.0736151
9451.13	-0.074039
9461.06	-0.0743908
9470.99	-0.0746716
9480.91	-0.0748824
9490.84	-0.0750246
9500.77	-0.0750995
9510.7	-0.0751088
9520.62	-0.0750543
9530.55	-0.0749378
9540.48	-0.0747615
9550.41	-0.0745275
9560.34	-0.0742383
9570.26	-0.0738962
9580.19	-0.073504
9590.12	-0.0730642
9600.05	-0.0725797
9613.28	-0.0718692
9623.21	-0.0712918
9633.14	-0.0706795
9643.07	-0.0700354
9652.99	-0.0693626
9662.92	-0.0686642
9672.85	-0.0679432
9682.78	-0.0672027
9692.7	-0.0664456
9702.63	-0.0656748
9712.56	-0.0648933
9722.49	-0.0641037
9732.42	-0.0633086
9742.34	-0.0625107
9752.27	-0.0617121
9762.2	-0.0609152
9772.13	-0.0601221
9782.05	-0.0593346
9791.98	-0.0585545
9801.91	-0.0577834
9811.84	-0.0570227
9821.77	-0.0562736
9831.69	-0.0555373
9841.62	-0.0548145
9851.55	-0.0541061
9861.48	-0.0534127
9871.4	-0.0527346
9881.33	-0.0520723
9891.26	-0.0514258
9901.19	-0.0507953
9911.11	-0.0501807
9921.04	-0.0495819
9930.97	-0.0489986
9940.9	-0.0484306
9950.83	-0.0478776
9960.75	-0.0473391
9970.68	-0.0468147
9980.61	-0.0463041
9990.54	-0.0458068
10000.5	-0.0453224
10010.4	-0.0448505
10020.3	-0.0443906
10030.2	-0.0439424
10040.2	-0.0435057
10050.1	-0.04308
10060	-0.0426652
10073.3	-0.0421289
10083.2	-0.0417389
10093.1	-0.0413594
10103.1	-0.0409904
10113	-0.0406319
10122.9	-0.0402841
10132.8	-0.0399471
10142.8	-0.0396212
10152.7	-0.0393065
10162.6	-0.0390034
10172.5	-0.0387122
10182.5	-0.0384333
10192.4	-0.0381671
10202.3	-0.0379139
10212.3	-0.0376743
10222.2	-0.0374487
10232.1	-0.0372375
10242	-0.0370413
10252	-0.0368605
10261.9	-0.0366957
10271.8	-0.0365472
10281.7	-0.0364155
10291.7	-0.0363012
10301.6	-0.0362046
10311.5	-0.0361263
10321.5	-0.0360666
10331.4	-0.0360259
10341.3	-0.0360046
10351.2	-0.0360031
10361.2	-0.0360217
10371.1	-0.0360606
10381	-0.0361203
10391	-0.036201
10400.9	-0.0363028
10410.8	-0.036426
10420.7	-0.0365707
10430.7	-0.036737
10440.6	-0.0369251
10450.5	-0.0371349
10460.4	-0.0373665
10470.4	-0.0376198
10480.3	-0.0378948
10490.2	-0.0381913
10500.2	-0.0385092
10510.1	-0.0388482
10520	-0.0392079
10533.2	-0.0397195
10543.2	-0.0401265
10553.1	-0.040553
10563	-0.0409985
10573	-0.0414624
10582.9	-0.0419442
10592.8	-0.042443
10602.7	-0.0429581
10612.7	-0.0434889
10622.6	-0.0440343
10632.5	-0.0445936
10642.5	-0.0451657
10652.4	-0.0457498
10662.3	-0.0463446
10672.2	-0.0469492
10682.2	-0.0475625
10692.1	-0.0481833
10702	-0.0488104
10711.9	-0.0494426
10721.9	-0.0500787
10731.8	-0.0507175
10741.7	-0.0513576
10751.7	-0.0519978
10761.6	-0.0526368
10771.5	-0.0532733
10781.4	-0.0539061
10791.4	-0.0545338
10801.3	-0.0551551
10811.2	-0.0557688
10821.2	-0.0563736
10831.1	-0.0569683
10841	-0.0575515
10850.9	-0.058122
10860.9	-0.0586786
10870.8	-0.0592202
10880.7	-0.0597454
10890.6	-0.0602532
10900.6	-0.0607423
10910.5	-0.0612116
10920.4	-0.06166
10930.4	-0.0620863
10940.3	-0.0624895
10950.2	-0.0628684
10960.1	-0.063222
10970.1	-0.0635492
10983.3	-0.0639426
10993.2	-0.0642042
11003.2	-0.064436
11013.1	-0.0646369
11023	-0.064806
11032.9	-0.0649423
11042.9	-0.0650449
11052.8	-0.0651128
11062.7	-0.0651451
11072.7	-0.065141
11082.6	-0.0650994
11092.5	-0.0650197
11102.4	-0.064901
11112.4	-0.0647424
11122.3	-0.0645434
11132.2	-0.064303
11142.1	-0.0640208
11152.1	-0.0636959
11162	-0.0633279
11171.9	-0.0629162
11181.9	-0.0624603
11191.8	-0.0619598
11201.7	-0.0614142
11211.6	-0.0608234
11221.6	-0.0601869
11231.5	-0.0595046
11241.4	-0.0587764
11251.4	-0.0580021
11261.3	-0.0571819
11271.2	-0.0563156
11281.1	-0.0554035
11291.1	-0.0544458
11301	-0.0534426
11310.9	-0.0523944
11320.8	-0.0513015
11330.8	-0.0501644
11340.7	-0.0489836
11350.6	-0.0477597
11360.6	-0.0464934
11370.5	-0.0451853
11380.4	-0.0438362
11390.3	-0.0424469
11400.3	-0.0410184
11410.2	-0.0395515
11420.1	-0.0380471
11430.1	-0.0365064
11443.3	-0.0343974
11453.2	-0.032776
11463.1	-0.0311219
11473.1	-0.0294363
11483	-0.0277205
11492.9	-0.0259755
11502.9	-0.0242028
11512.8	-0.0224037
11522.7	-0.0205794
11532.6	-0.0187313
11542.6	-0.0168608
11552.5	-0.0149694
11562.4	-0.0130583
11572.3	-0.0111291
11582.3	-0.00918314
11592.2	-0.00722197
11602.1	-0.00524706
11612.1	-0.00325991
11622	-0.00126204
11631.9	0.000745014
11641.8	0.00275969
11651.8	0.00478042
11661.7	0.00680561
11671.6	0.00883366
11681.6	0.010863
11691.5	0.0128918
11701.4	0.0149187
11711.3	0.0169418
11721.3	0.0189595
11731.2	0.0209701
11741.1	0.0229719
11751	0.0249632
11761	0.0269422
11770.9	0.0289072
11780.8	0.0308564
11790.8	0.0327881
11800.7	0.0347005
11810.6	0.0365919
11820.5	0.0384605
11830.5	0.0403047
11840.4	0.0421225
11850.3	0.0439125
11860.2	0.0456728
11870.2	0.0474018
11880.1	0.0490979
11890	0.0507595
11903.3	0.0529186
11913.2	0.0544938
11923.1	0.0560296
11933.1	0.0575245
11943	0.0589774
11952.9	0.0603871
11962.8	0.0617524
11972.8	0.0630723
11982.7	0.0643459
11992.6	0.0655724
12002.5	0.066751
12012.5	0.0678813
12022.4	0.0689628
12032.3	0.069995
12042.3	0.0709778
12052.2	0.0719111
12062.1	0.0727951
12072	0.0736298
12082	0.0744157
12091.9	0.0751532
12101.8	0.075843
12111.8	0.0764859
12121.7	0.0770827
12131.6	0.0776345
12141.5	0.0781425
12151.5	0.078608
12161.4	0.0790325
12171.3	0.0794174
12181.2	0.0797645
12191.2	0.0800755
12201.1	0.0803522
12211	0.0805967
12221	0.0808109
12230.9	0.0809968
12240.8	0.0811567
12250.7	0.0812926
12260.7	0.0814067
12270.6	0.0815013
12280.5	0.0815785
12290.4	0.0816404
12300.4	0.0816894
12310.3	0.0817273
12320.2	0.0817564
12330.2	0.0817785
12340.1	0.0817956
12350	0.0818095
12363.3	0.081826
12373.2	0.0818388
12383.1	0.0818536
12393	0.0818718
12403	0.0818943
12412.9	0.0819223
12422.8	0.0819565
12432.7	0.0819977
12442.7	0.0820462
12452.6	0.0821024
12462.5	0.0821666
12472.5	0.0822385
12482.4	0.0823181
12492.3	0.082405
12502.2	0.0824986
12512.2	0.0825983
12522.1	0.0827031
12532	0.082812
12542	0.0829239
12551.9	0.0830375
12561.8	0.0831512
12571.7	0.0832636
12581.7	0.083373
12591.6	0.0834775
12601.5	0.0835753
12611.4	0.0836645
12621.4	0.083743
12631.3	0.0838087
12641.2	0.0838595
12651.2	0.0838933
12661.1	0.0839078
12671	0.0839009
12680.9	0.0838704
12690.9	0.0838141
12700.8	0.0837299
12710.7	0.0836157
12720.6	0.0834694
12730.6	0.0832891
12740.5	0.0830728
12750.4	0.0828186
12760.4	0.0825249
12770.3	0.0821899
12780.2	0.0818122
12790.1	0.0813901
12800.1	0.0809226
12813.3	0.0802261
12823.2	0.0796477
12833.2	0.0790202
12843.1	0.0783427
12853	0.0776147
12862.9	0.0768356
12872.9	0.0760051
12882.8	0.075123
12892.7	0.074189
12902.7	0.0732034
12912.6	0.0721661
12922.5	0.0710777
12932.4	0.0699384
12942.4	0.0687489
12952.3	0.0675098
12962.2	0.0662219
12972.2	0.0648862
12982.1	0.0635038
12992	0.0620757
13001.9	0.0606032
13011.9	0.0590876
13021.8	0.0575305
13031.7	0.0559333
13041.6	0.0542976
13051.6	0.0526252
13061.5	0.0509178
13071.4	0.0491772
13081.4	0.0474054
13091.3	0.0456043
13101.2	0.0437759
13111.1	0.0419222
13121.1	0.0400455
13131	0.0381478
13140.9	0.0362312
13150.8	0.0342981
13160.8	0.0323506
13170.7	0.030391
13180.6	0.0284215
13190.6	0.0264445
13200.5	0.0244622
13210.4	0.0224768
13220.3	0.0204908
13230.3	0.0185063
13240.2	0.0165257
13250.1	0.0145511
13260.1	0.0125849
13273.3	0.00998006
13283.2	0.00804181
13293.1	0.00611916
13303.1	0.0042142
13313	0.002329
13322.9	0.00046557
13332.9	-0.00137413
13342.8	-0.00318818
13352.7	-0.00497473
13362.6	-0.00673201
13372.6	-0.00845829
13382.5	-0.0101519
13392.4	-0.0118114
13402.4	-0.0134352
13412.3	-0.0150219
13422.2	-0.0165702
13432.1	-0.018079
13442.1	-0.0195471
13452	-0.0209735
13461.9	-0.0223573
13471.8	-0.0236977
13481.8	-0.0249941
13491.7	-0.0262459
13501.6	-0.0274526
13511.6	-0.028614
13521.5	-0.0297297
13531.4	-0.0307997
13541.3	-0.031824
13551.3	-0.0328028
13561.2	-0.0337363
13571.1	-0.0346249
13581.1	-0.0354691
13591	-0.0362694
13600.9	-0.0370267
13610.8	-0.0377415
13620.8	-0.038415
13630.7	-0.039048
13640.6	-0.0396417
13650.5	-0.0401971
13660.5	-0.0407156
13670.4	-0.0411983
13680.3	-0.0416468
13690.3	-0.0420622
13700.2	-0.0424462
13710.1	-0.0428002
13720	-0.0431256
13733.3	-0.0435177
13743.2	-0.0437824
13753.1	-0.0440236
13763.1	-0.0442428
13773	-0.0444415
13782.9	-0.0446211
13792.8	-0.0447831
13802.8	-0.0449287
13812.7	-0.0450594
13822.6	-0.0451762
13832.6	-0.0452805
13842.5	-0.0453733
13852.4	-0.0454557
13862.3	-0.0455285
13872.3	-0.0455928
13882.2	-0.0456492
13892.1	-0.0456984
13902	-0.0457411
13912	-0.0457777
13921.9	-0.0458088
13931.8	-0.0458346
13941.8	-0.0458554
13951.7	-0.0458714
13961.6	-0.0458827
13971.5	-0.0458892
13981.5	-0.0458911
13991.4	-0.045888
14001.3	-0.0458799
14011.3	-0.0458666
14021.2	-0.0458477
14031.1	-0.045823
14041	-0.0457921
14051	-0.0457546
14060.9	-0.0457103
14070.8	-0.0456585
14080.7	-0.0455991
14090.7	-0.0455315
14100.6	-0.0454554
14110.5	-0.0453704
14120.5	-0.0452761
14130.4	-0.0451723
14140.3	-0.0450586
14150.2	-0.0449348
14160.2	-0.0448006
14170.1	-0.044656
14180	-0.0445009
14193.3	-0.0442774
14203.2	-0.0440974
14213.1	-0.0439069
14223	-0.043706
14233	-0.0434948
14242.9	-0.0432737
14252.8	-0.0430429
14262.8	-0.0428028
14272.7	-0.0425539
14282.6	-0.0422965
14292.5	-0.0420313
14302.5	-0.0417588
14312.4	-0.0414795
14322.3	-0.0411942
14332.2	-0.0409035
14342.2	-0.0406081
14352.1	-0.0403087
14362	-0.0400061
14372	-0.0397011
14381.9	-0.0393943
14391.8	-0.0390867
14401.7	-0.038779
14411.7	-0.0384719
14421.6	-0.0381662
14431.5	-0.0378627
14441.5	-0.0375621
14451.4	-0.037265
14461.3	-0.0369723
14471.2	-0.0366844
14481.2	-0.0364022
14491.1	-0.0361261
14501	-0.0358566
14510.9	-0.0355944
14520.9	-0.0353398
14530.8	-0.0350932
14540.7	-0.0348551
14550.7	-0.0346258
14560.6	-0.0344054
14570.5	-0.0341943
14580.4	-0.0339926
14590.4	-0.0338004
14600.3	-0.0336178
14610.2	-0.0334447
14620.2	-0.0332812
14630.1	-0.0331271
14640	-0.0329822
14653.2	-0.032803
14663.2	-0.0326788
14673.1	-0.0325629
14683	-0.0324549
14693	-0.0323543
14702.9	-0.0322608
14712.8	-0.0321737
14722.7	-0.0320923
14732.7	-0.0320161
14742.6	-0.0319444
14752.5	-0.0318763
14762.4	-0.0318111
14772.4	-0.0317478
14782.3	-0.0316857
14792.2	-0.0316237
14802.2	-0.0315609
14812.1	-0.0314962
14822	-0.0314285
14831.9	-0.0313568
14841.9	-0.0312798
14851.8	-0.0311964
14861.7	-0.0311054
14871.7	-0.0310055
14881.6	-0.0308956
14891.5	-0.0307742
14901.4	-0.0306402
14911.4	-0.0304923
14921.3	-0.0303291
14931.2	-0.0301493
14941.1	-0.0299517
14951.1	-0.0297351
14961	-0.029498
14970.9	-0.0292395
14980.9	-0.0289582
14990.8	-0.028653
15000.7	-0.0283229
15010.6	-0.0279668
15020.6	-0.0275837
15030.5	-0.0271728
15040.4	-0.0267332
15050.4	-0.0262642
15060.3	-0.0257651
15070.2	-0.0252355
15080.1	-0.0246749
15090.1	-0.0240829
15103.3	-0.0232446
15113.2	-0.022579
15123.2	-0.0218818
15133.1	-0.0211534
15143	-0.020394
15152.9	-0.0196041
15162.9	-0.0187844
15172.8	-0.0179357
15182.7	-0.0170587
15192.6	-0.0161547
15202.6	-0.0152248
15212.5	-0.0142702
15222.4	-0.0132925
15232.4	-0.0122931
15242.3	-0.0112739
15252.2	-0.0102365
15262.1	-0.00918301
15272.1	-0.00811529
15282	-0.0070355
15291.9	-0.00594584
15301.9	-0.00484855
15311.8	-0.00374597
15321.7	-0.00264047
15331.6	-0.00153448
15341.6	-0.000430452
15351.5	0.000669148
15361.4	0.00176184
15371.3	0.00284515
15381.3	0.00391662
15391.2	0.00497381
15401.1	0.00601435
15411.1	0.0070359
15421	0.00803617
15430.9	0.00901297
15440.8	0.00996419
15450.8	0.0108878
15460.7	0.0117819
15470.6	0.0126446
15480.6	0.0134744
15490.5	0.0142696
15500.4	0.0150288
15510.3	0.0157507
15520.3	0.0164342
15530.2	0.0170784
15540.1	0.0176823
15550	0.0182454
15563.3	0.0189316
15573.2	0.0193975
15583.1	0.0198214
15593.1	0.0202032
15603	0.0205432
15612.9	0.0208417
15622.9	0.021099
15632.8	0.0213158
15642.7	0.0214928
15652.6	0.0216308
15662.6	0.0217309
15672.5	0.0217941
15682.4	0.0218215
15692.3	0.0218146
15702.3	0.0217746
15712.2	0.021703
15722.1	0.0216014
15732.1	0.0214713
15742	0.0213145
15751.9	0.0211325
15761.8	0.0209272
15771.8	0.0207003
15781.7	0.0204535
15791.6	0.0201886
15801.5	0.0199074
15811.5	0.0196116
15821.4	0.0193031
15831.3	0.0189834
15841.3	0.0186543
15851.2	0.0183175
15861.1	0.0179744
15871	0.0176266
15881	0.0172755
15890.9	0.0169227
15900.8	0.0165693
15910.8	0.0162166
15920.7	0.0158658
15930.6	0.015518
15940.5	0.015174
15950.5	0.014835
15960.4	0.0145015
15970.3	0.0141744
15980.2	0.0138543
15990.2	0.0135417
16000.1	0.0132369
16010	0.0129404
16023.3	0.0125584
16033.2	0.0122819
16043.1	0.0120142
16053.1	0.0117551
16063	0.0115046
16072.9	0.0112624
16082.8	0.0110282
16092.8	0.0108018
16102.7	0.0105827
16112.6	0.0103704
16122.5	0.0101643
16132.5	0.00996401
16142.4	0.00976876
16152.3	0.00957791
16162.3	0.00939075
16172.2	0.00920654
16182.1	0.0090245
16192	0.00884385
16202	0.00866377
16211.9	0.00848345
16221.8	0.00830204
16231.8	0.00811872
16241.7	0.00793265
16251.6	0.007743
16261.5	0.00754894
16271.5	0.00734965
16281.4	0.00714435
16291.3	0.00693225
16301.2	0.00671258
16311.2	0.0064846
16321.1	0.0062476
16331	0.00600089
16341	0.00574381
16350.9	0.00547571
16360.8	0.00519599
16370.7	0.00490408
16380.7	0.00459942
16390.6	0.00428151
16400.5	0.00394986
16410.4	0.003604
16420.4	0.00324352
16430.3	0.00286801
16440.2	0.0024771
16450.2	0.00207044
16460.1	0.00164773
16470	0.00120865
16483.3	0.000597313
16493.2	0.000119055
16503.1	-0.000376382
16513	-0.0008892
16523	-0.00141958
16532.9	-0.0019677
16542.8	-0.0025337
16552.7	-0.00311771
16562.7	-0.00371986
16572.6	-0.00434025
16582.5	-0.00497897
16592.5	-0.00563609
16602.4	-0.00631168
16612.3	-0.00700576
16622.2	-0.00771838
16632.2	-0.00844953
16642.1	-0.00919921
16652	-0.00996738
16662	-0.010754
16671.9	-0.011559
16681.8	-0.0123822
16691.7	-0.0132235
16701.7	-0.0140828
16711.6	-0.0149598
16721.5	-0.0158543
16731.4	-0.016766
16741.4	-0.0176946
16751.3	-0.0186397
16761.2	-0.0196008
16771.2	-0.0205776
16781.1	-0.0215694
16791	-0.0225756
16800.9	-0.0235956
16810.9	-0.0246287
16820.8	-0.025674
16830.7	-0.0267306
16840.6	-0.0277978
16850.6	-0.0288743
16860.5	-0.0299592
16870.4	-0.0310513
16880.4	-0.0321494
16890.3	-0.0332521
16900.2	-0.0343581
16910.1	-0.035466
16920.1	-0.0365742
16933.3	-0.0380496
16943.2	-0.0391524
16953.2	-0.0402501
16963.1	-0.0413409
16973	-0.042423
16982.9	-0.0434947
16992.9	-0.0445539
17002.8	-0.0455989
17012.7	-0.0466276
17022.7	-0.0476382
17032.6	-0.0486288
17042.5	-0.0495973
17052.4	-0.0505419
17062.4	-0.0514606
17072.3	-0.0523516
17082.2	-0.053213
17092.2	-0.0540429
17102.1	-0.0548396
17112	-0.0556014
17121.9	-0.0563267
17131.9	-0.0570137
17141.8	-0.0576611
17151.7	-0.0582673
17161.6	-0.0588311
17171.6	-0.0593512
17181.5	-0.0598264
17191.4	-0.0602557
17201.4	-0.0606381
17211.3	-0.0609728
17221.2	-0.061259
17231.1	-0.0614962
17241.1	-0.0616838
17251	-0.0618215
17260.9	-0.0619091
17270.9	-0.0619463
17280.8	-0.0619331
17290.7	-0.0618698
17300.6	-0.0617564
17310.6	-0.0615933
17320.5	-0.0613809
17330.4	-0.0611199
17340.3	-0.0608108
17350.3	-0.0604544
17360.2	-0.0600516
17370.1	-0.0596033
17380.1	-0.0591106
17393.3	-0.0583865
17403.2	-0.0577946
17413.1	-0.0571623
17423.1	-0.056491
17433	-0.0557821
17442.9	-0.055037
17452.9	-0.0542574
17462.8	-0.0534447
17472.7	-0.0526005
17482.6	-0.0517266
17492.6	-0.0508244
17502.5	-0.0498958
17512.4	-0.0489424
17522.4	-0.0479658
17532.3	-0.0469678
17542.2	-0.04595
17552.1	-0.0449141
17562.1	-0.0438618
17572	-0.0427946
17581.9	-0.0417142
17591.8	-0.0406222
17601.8	-0.0395201
17611.7	-0.0384094
17621.6	-0.0372915
17631.6	-0.036168
17641.5	-0.0350401
17651.4	-0.0339092
17661.3	-0.0327766
17671.3	-0.0316435
17681.2	-0.030511
17691.1	-0.0293803
17701.1	-0.0282524
17711	-0.0271283
17720.9	-0.026009
17730.8	-0.0248953
17740.8	-0.0237881
17750.7	-0.0226881
17760.6	-0.021596
17770.5	-0.0205125
17780.5	-0.0194382
17790.4	-0.0183736
17800.3	-0.0173193
17810.3	-0.0162755
17820.2	-0.0152429
17830.1	-0.0142216
17840	-0.0132121
17853.3	-0.0118848
17863.2	-0.0109036
17873.1	-0.00993487
17883.1	-0.00897883
17893	-0.00803556
17902.9	-0.00710519
17912.8	-0.0061878
17922.8	-0.00528347
17932.7	-0.00439225
17942.6	-0.0035142
17952.6	-0.00264935
17962.5	-0.00179774
17972.4	-0.000959398
17982.3	-0.000134365
17992.3	0.000677327
18002.2	0.00147563
18012.1	0.0022605
18022	0.00303187
18032	0.00378967
18041.9	0.00453381
18051.8	0.00526419
18061.8	0.00598069
18071.7	0.00668317
18081.6	0.00737147
18091.5	0.00804543
18101.5	0.00870483
18111.4	0.00934947
18121.3	0.00997911
18131.3	0.0105935
18141.2	0.0111923
18151.1	0.0117753
18161	0.0123422
18171	0.0128925
18180.9	0.013426
18190.8	0.0139423
18200.7	0.014441
18210.7	0.0149217
18220.6	0.015384
18230.5	0.0158275
18240.5	0.0162517
18250.4	0.0166562
18260.3	0.0170405
18270.2	0.0174043
18280.2	0.017747
18290.1	0.0180683
18300	0.0183676
18313.3	0.0187318
18323.2	0.0189782
18333.1	0.0192012
18343	0.0194003
18353	0.0195753
18362.9	0.0197256
18372.8	0.0198508
18382.8	0.0199507
18392.7	0.0200249
18402.6	0.0200729
18412.5	0.0200945
18422.5	0.0200894
18432.4	0.0200573
18442.3	0.019998
18452.2	0.0199111
18462.2	0.0197965
18472.1	0.0196539
18482	0.0194832
18492	0.0192842
18501.9	0.0190568
18511.8	0.0188009
18521.7	0.0185163
18531.7	0.018203
18541.6	0.0178609
18551.5	0.0174901
18561.5	0.0170904
18571.4	0.016662
18581.3	0.0162049
18591.2	0.015719
18601.2	0.0152046
18611.1	0.0146617
18621	0.0140904
18630.9	0.0134909
18640.9	0.0128634
18650.8	0.012208
18660.7	0.0115251
18670.7	0.0108149
18680.6	0.0100776
18690.5	0.00931364
18700.4	0.00852333
18710.4	0.00770708
18720.3	0.00686529
18730.2	0.00599845
18740.2	0.00510705
18750.1	0.00419164
18760	0.00325282
18773.2	0.00196575
18783.2	0.000974864
18793.1	-3.71158e-05
18803	-0.00106938
18813	-0.00212107
18822.9	-0.00319125
18832.8	-0.00427896
18842.7	-0.00538315
18852.7	-0.00650272
18862.6	-0.0076365
18872.5	-0.00878326
18882.5	-0.00994171
18892.4	-0.0111105
18902.3	-0.0122882
18912.2	-0.0134733
18922.2	-0.0146643
18932.1	-0.0158595
18942	-0.0170573
18951.9	-0.0182559
18961.9	-0.0194536
18971.8	-0.0206484
18981.7	-0.0218386
18991.7	-0.0230221
19001.6	-0.0241969
19011.5	-0.0253611
19021.4	-0.0265126
19031.4	-0.0276492
19041.3	-0.0287688
19051.2	-0.0298694
19061.1	-0.0309487
19071.1	-0.0320046
19081	-0.0330349
19090.9	-0.0340376
19100.9	-0.0350104
19110.8	-0.0359513
19120.7	-0.0368582
19130.6	-0.037729
19140.6	-0.0385618
19150.5	-0.0393545
19160.4	-0.0401054
19170.4	-0.0408125
19180.3	-0.0414741
19190.2	-0.0420887
19200.1	-0.0426544
19210.1	-0.04317
19223.3	-0.0437768
19233.2	-0.0441699
19243.2	-0.0445085
19253.1	-0.0447915
19263	-0.0450181
19272.9	-0.0451874
19282.9	-0.0452988
19292.8	-0.0453517
19302.7	-0.0453457
19312.7	-0.0452805
19322.6	-0.0451559
19332.5	-0.0449719
19342.4	-0.0447287
19352.4	-0.0444263
19362.3	-0.0440653
19372.2	-0.043646
19382.1	-0.0431691
19392.1	-0.0426353
19402	-0.0420456
19411.9	-0.0414007
19421.9	-0.0407019
19431.8	-0.0399503
19441.7	-0.0391473
19451.6	-0.0382941
19461.6	-0.0373924
19471.5	-0.0364436
19481.4	-0.0354495
19491.3	-0.0344118
19501.3	-0.0333322
19511.2	-0.0322127
19521.1	-0.0310552
19531.1	-0.0298617
19541	-0.0286342
19550.9	-0.0273748
19560.8	-0.0260856
19570.8	-0.0247687
19580.7	-0.0234263
19590.6	-0.0220606
19600.6	-0.0206737
19610.5	-0.0192678
19620.4	-0.0178452
19630.3	-0.0164079
19640.3	-0.0149583
19650.2	-0.0134984
19660.1	-0.0120303
19670	-0.0105563
19683.3	-0.00858509
19693.2	-0.007105
19703.1	-0.00562569
19713.1	-0.00414911
19723	-0.00267717
19732.9	-0.00121172
19742.9	0.000245416
19752.8	0.00169249
19762.7	0.00312781
19772.6	0.00454972
19782.6	0.00595665
19792.5	0.00734707
19802.4	0.00871954
19812.3	0.0100727
19822.3	0.0114051
19832.2	0.0127156
19842.1	0.0140031
19852.1	0.0152662
19862	0.0165041
19871.9	0.0177158
19881.8	0.0189002
19891.8	0.0200567
19901.7	0.0211843
19911.6	0.0222825
19921.5	0.0233505
19931.5	0.0243879
19941.4	0.0253941
19951.3	0.0263688
19961.3	0.0273114
19971.2	0.0282218
19981.1	0.0290997
19991	0.029945
