0	0
10.3422	0
20.6843	0
31.0265	0
41.3687	0
51.7109	0
62.053	0
72.3952	0
82.7374	0
93.0796	0
103.422	0
113.764	0
124.106	0
134.448	0
144.79	0
155.133	0
165.475	0
175.817	0
186.159	0
196.501	0
206.843	0
217.186	0
227.528	0
237.87	0
248.212	0
258.554	0
268.897	0
279.239	0
289.581	0
299.923	0
310.265	0
320.607	0
330.95	0
341.292	0
351.634	0
361.976	0
372.318	9.09495e-13
382.66	2.72848e-12
393.003	6.36646e-12
403.345	1.45519e-11
413.687	3.09228e-11
424.029	6.18456e-11
434.371	1.21872e-10
444.714	2.3465e-10
455.056	4.41105e-10
465.398	8.12179e-10
475.74	1.46247e-09
486.082	2.58115e-09
496.424	4.47017e-09
506.767	7.60338e-09
517.109	1.2712e-08
527.451	2.09056e-08
537.793	3.38423e-08
548.135	5.39658e-08
558.477	8.4824e-08
568.82	1.31501e-07
579.162	2.01188e-07
589.504	3.03934e-07
599.846	4.53616e-07
610.188	6.69186e-07
620.53	9.76254e-07
630.873	1.40907e-06
641.215	2.01301e-06
651.557	2.84759e-06
661.899	3.99029e-06
672.241	5.54097e-06
682.584	7.62747e-06
692.926	1.04121e-05
703.268	1.40993e-05
713.61	1.89452e-05
723.952	2.52682e-05
734.294	3.34615e-05
744.637	4.40081e-05
754.979	5.74975e-05
765.321	7.46456e-05
775.663	9.63165e-05
786.005	0.000123548
796.347	0.000157582
806.69	0.000199893
817.032	0.00025223
827.374	0.00031665
837.716	0.000395569
848.058	0.000491809
858.401	0.00060865
868.743	0.000749892
879.085	0.000919915
889.427	0.00112375
899.769	0.00136714
910.111	0.00165664
920.454	0.00199968
930.796	0.00240461
941.138	0.00288088
951.48	0.003439
961.822	0.00409073
972.164	0.0048491
982.507	0.00572848
992.849	0.0067447
1003.19	0.00791506
1013.53	0.00925842
1023.88	0.0107952
1034.22	0.0125474
1044.56	0.0145387
1054.9	0.0167943
1065.24	0.0193411
1075.59	0.0222073
1085.93	0.0254225
1096.27	0.029018
1106.61	0.0330256
1116.95	0.0374787
1127.3	0.0424111
1137.64	0.0478572
1147.98	0.0538516
1158.32	0.0604291
1168.67	0.0676237
1179.01	0.075469
1189.35	0.0839974
1199.69	0.0932395
1210.03	0.103224
1220.38	0.113978
1230.72	0.125524
1241.06	0.137883
1251.4	0.151071
1261.75	0.1651
1272.09	0.179977
1282.43	0.195706
1292.77	0.212281
1303.11	0.229695
1313.46	0.247932
1323.8	0.266971
1334.14	0.286782
1344.48	0.30733
1354.82	0.328573
1365.17	0.35046
1375.51	0.372936
1385.85	0.395936
1396.19	0.41939
1406.54	0.443219
1416.88	0.467341
1427.22	0.491664
1437.56	0.516094
1447.9	0.54053
1458.25	0.564865
1468.59	0.588991
1478.93	0.612795
1489.27	0.636161
1499.62	0.658972
1509.96	0.68111
1520.3	0.702455
1530.64	0.722889
1540.98	0.742295
1551.33	0.760559
1561.67	0.777568
1572.01	0.793214
1582.35	0.807395
1592.69	0.820013
1603.04	0.830976
1613.38	0.840199
1623.72	0.847606
1634.06	0.853127
1644.41	0.856702
1654.75	0.85828
1665.09	0.85782
1675.43	0.855289
1685.77	0.850668
1696.12	0.843943
1706.46	0.835115
1716.8	0.824194
1727.14	0.811199
1737.49	0.796162
1747.83	0.779122
1758.17	0.760131
1768.51	0.739247
1778.85	0.71654
1789.2	0.692087
1799.54	0.665974
1809.88	0.638294
1820.22	0.609146
1830.56	0.578636
1840.91	0.546877
1851.25	0.513984
1861.59	0.480077
1871.93	0.445281
1882.28	0.409722
1892.62	0.373528
1902.96	0.336828
1913.3	0.299752
1923.64	0.262429
1933.99	0.224986
1944.33	0.18755
1954.67	0.150244
1965.01	0.113191
1975.36	0.0765057
1985.7	0.040302
1996.04	0.00468783
2006.38	-0.0302337
2016.72	-0.0643651
2027.07	-0.0976146
2037.41	-0.129897
2047.75	-0.161133
2058.09	-0.191251
2068.43	-0.220185
2078.78	-0.247876
2089.12	-0.274274
2099.46	-0.299333
2109.8	-0.323017
2120.15	-0.345295
2130.49	-0.366143
2140.83	-0.385544
2151.17	-0.403489
2161.51	-0.419972
2171.86	-0.434998
2182.2	-0.448572
2192.54	-0.46071
2202.88	-0.47143
2213.23	-0.480755
2223.57	-0.488715
2233.91	-0.495342
2244.25	-0.500673
2254.59	-0.504749
2264.94	-0.507612
2275.28	-0.509309
2285.62	-0.509889
2295.96	-0.509404
2306.3	-0.507906
2316.65	-0.505449
2326.99	-0.50209
2337.33	-0.497884
2347.67	-0.492889
2358.02	-0.487161
2368.36	-0.480758
2378.7	-0.473736
2389.04	-0.466152
2399.38	-0.458061
2409.73	-0.449518
2420.07	-0.440576
2430.41	-0.431286
2440.75	-0.4217
2451.1	-0.411866
2461.44	-0.40183
2471.78	-0.391639
2482.12	-0.381335
2492.46	-0.370958
2502.81	-0.360548
2513.15	-0.350142
2523.49	-0.339774
2533.83	-0.329476
2544.17	-0.319278
2554.52	-0.309208
2564.86	-0.299291
2575.2	-0.289552
2585.54	-0.28001
2595.89	-0.270686
2606.23	-0.261595
2616.57	-0.252754
2626.91	-0.244175
2637.25	-0.23587
2647.6	-0.227846
2657.94	-0.220114
2668.28	-0.212677
2678.62	-0.205541
2688.97	-0.198709
2699.31	-0.192182
2709.65	-0.18596
2719.99	-0.180043
2730.33	-0.174427
2740.68	-0.16911
2751.02	-0.164088
2761.36	-0.159356
2771.7	-0.154906
2782.04	-0.150734
2792.39	-0.146831
2802.73	-0.14319
2813.07	-0.139802
2823.41	-0.136659
2833.76	-0.13375
2844.1	-0.131067
2854.44	-0.1286
2864.78	-0.126339
2875.12	-0.124273
2885.47	-0.122393
2895.81	-0.120689
2906.15	-0.119149
2916.49	-0.117764
2926.83	-0.116523
2937.18	-0.115417
2947.52	-0.114436
2957.86	-0.11357
2968.2	-0.112809
2978.55	-0.112145
2988.89	-0.111568
2999.23	-0.11107
3009.57	-0.110641
3019.91	-0.110275
3030.26	-0.109962
3040.6	-0.109696
3050.94	-0.10947
3061.28	-0.109275
3071.62	-0.109106
3081.97	-0.108957
3092.31	-0.108822
3102.65	-0.108694
3112.99	-0.10857
3123.33	-0.108443
3133.68	-0.10831
3144.02	-0.108167
3154.36	-0.108008
3164.7	-0.107831
3175.05	-0.107632
3185.39	-0.107409
3195.73	-0.107159
3206.07	-0.106878
3216.41	-0.106566
3226.76	-0.106219
3237.1	-0.105837
3247.44	-0.105418
3257.78	-0.104961
3268.12	-0.104464
3278.47	-0.103927
3288.81	-0.10335
3299.15	-0.102731
3309.49	-0.102072
3319.83	-0.10137
3330.18	-0.100628
3340.52	-0.0998445
3350.86	-0.0990203
3361.2	-0.0981558
3371.54	-0.0972516
3381.89	-0.0963083
3392.23	-0.0953269
3402.57	-0.0943081
3412.91	-0.0932529
3423.25	-0.0921622
3433.59	-0.0910372
3443.94	-0.0898789
3454.28	-0.0886885
3464.62	-0.0874672
3474.96	-0.0862162
3485.3	-0.0849367
3495.65	-0.0836299
3505.99	-0.0822973
3516.33	-0.0809399
3526.67	-0.0795591
3537.01	-0.0781561
3547.36	-0.0767323
3557.7	-0.0752887
3568.04	-0.0738267
3578.38	-0.0723474
3588.72	-0.070852
3599.06	-0.0693417
3609.41	-0.0678175
3619.75	-0.0662805
3630.09	-0.0647319
3640.43	-0.0631725
3650.77	-0.0616035
3661.12	-0.0600256
3671.46	-0.0584398
3681.8	-0.0568471
3692.14	-0.055248
3702.48	-0.0536436
3712.82	-0.0520345
3723.17	-0.0504213
3733.51	-0.0488049
3743.85	-0.0471857
3754.19	-0.0455644
3764.53	-0.0439415
3774.88	-0.0423175
3785.22	-0.0406929
3795.56	-0.0390682
3805.9	-0.0374438
3816.24	-0.03582
3826.58	-0.0341973
3836.93	-0.0325759
3847.27	-0.0309561
3857.61	-0.0293383
3867.95	-0.0277226
3878.29	-0.0261094
3888.64	-0.0244989
3898.98	-0.0228913
3909.32	-0.0212867
3919.66	-0.0196853
3930	-0.0180874
3940.34	-0.0164931
3950.69	-0.0149025
3961.03	-0.0133158
3971.37	-0.0117332
3981.71	-0.0101548
3992.05	-0.00858065
4002.39	-0.00701102
4012.74	-0.00544603
4023.08	-0.00388583
4033.42	-0.00233056
4043.76	-0.0007804
4054.1	0.000764489
4064.45	0.00230393
4074.79	0.00383773
4085.13	0.00536571
4095.47	0.00688764
4105.81	0.00840333
4116.15	0.00991253
4126.5	0.011415
4136.84	0.0129105
4147.18	0.0143988
4157.52	0.0158795
4167.86	0.0173524
4178.21	0.0188172
4188.55	0.0202736
4198.89	0.0217212
4209.23	0.0231596
4219.57	0.0245886
4229.91	0.0260077
4240.26	0.0274166
4250.6	0.0288148
4260.94	0.030202
4271.28	0.0315776
4281.62	0.0329413
4291.97	0.0342927
4302.31	0.0356311
4312.65	0.0369563
4322.99	0.0382677
4333.33	0.0395648
4343.68	0.0408471
4354.02	0.042114
4364.36	0.0433652
4374.7	0.0446
4385.04	0.045818
4395.39	0.0470185
4405.73	0.0482011
4416.07	0.0493653
4426.41	0.0505103
4436.75	0.0516359
4447.1	0.0527413
4457.44	0.053826
4467.78	0.0548895
4478.12	0.0559312
4488.47	0.0569507
4498.81	0.0579473
4509.15	0.0589205
4519.49	0.0598699
4529.83	0.0607948
4540.18	0.0616948
4550.52	0.0625693
4560.86	0.0634179
4571.2	0.0642401
4581.54	0.0650354
4591.89	0.0658034
4602.23	0.0665436
4612.57	0.0672555
4622.91	0.0679389
4633.26	0.0685931
4643.6	0.069218
4653.94	0.0698131
4664.28	0.0703781
4674.62	0.0709127
4684.97	0.0714165
4695.31	0.0718893
4705.65	0.0723308
4715.99	0.0727408
4726.33	0.0731191
4736.68	0.0734655
4747.02	0.0737798
4757.36	0.074062
4767.7	0.0743119
4778.05	0.0745294
4788.39	0.0747144
4798.73	0.0748671
4809.07	0.0749873
4819.41	0.0750751
4829.76	0.0751306
4840.1	0.0751539
4850.44	0.0751451
4860.78	0.0751043
4871.12	0.0750317
4881.47	0.0749276
4891.81	0.0747922
4902.15	0.0746258
4912.49	0.0744287
4922.84	0.0742011
4933.18	0.0739436
4943.52	0.0736564
4953.86	0.07334
4964.2	0.0729948
4974.55	0.0726213
4984.89	0.0722201
4995.23	0.0717916
5005.57	0.0713364
5015.91	0.0708551
5026.26	0.0703482
5036.6	0.0698165
5046.94	0.0692605
5057.28	0.0686809
5067.63	0.0680784
5077.97	0.0674538
5088.31	0.0668077
5098.65	0.0661409
5108.99	0.0654542
5119.34	0.0647482
5129.68	0.0640239
5140.02	0.0632821
5150.36	0.0625234
5160.7	0.0617489
5171.05	0.0609592
5181.39	0.0601552
5191.73	0.0593378
5202.07	0.0585079
5212.42	0.0576662
5222.76	0.0568137
5233.1	0.0559512
5243.44	0.0550796
5253.78	0.0541997
5264.13	0.0533123
5274.47	0.0524184
5284.81	0.0515188
5295.15	0.0506142
5305.49	0.0497057
5315.84	0.0487938
5326.18	0.0478796
5336.52	0.0469638
5346.86	0.0460471
5357.21	0.0451303
5367.55	0.0442143
5377.89	0.0432997
5388.23	0.0423873
5398.57	0.0414778
5408.92	0.0405719
5419.26	0.0396703
5429.6	0.0387735
5439.94	0.0378823
5450.28	0.0369972
5460.63	0.0361189
5470.97	0.0352479
5481.31	0.0343847
5491.65	0.0335298
5502	0.0326838
5512.34	0.0318471
5522.68	0.0310202
5533.02	0.0302034
5543.36	0.0293972
5553.71	0.0286018
5564.05	0.0278177
5574.39	0.0270451
5584.73	0.0262843
5595.07	0.0255355
5605.42	0.024799
5615.76	0.024075
5626.1	0.0233636
5636.44	0.022665
5646.79	0.0219792
5657.13	0.0213063
5667.47	0.0206465
5677.81	0.0199997
5688.15	0.0193659
5698.5	0.0187451
5708.84	0.0181373
5719.18	0.0175423
5729.52	0.0169601
5739.86	0.0163905
5750.21	0.0158334
5760.55	0.0152887
5770.89	0.0147561
5781.23	0.0142353
5791.58	0.0137263
5801.92	0.0132287
5812.26	0.0127422
5822.6	0.0122665
5832.94	0.0118014
5843.29	0.0113465
5853.63	0.0109015
5863.97	0.0104659
5874.31	0.0100395
5884.66	0.00962183
5895	0.0092125
5905.34	0.0088111
5915.68	0.00841722
5926.02	0.00803042
5936.37	0.00765028
5946.71	0.00727634
5957.05	0.00690815
5967.39	0.00654527
5977.73	0.00618723
5988.08	0.00583357
5998.42	0.00548382
6008.76	0.00513752
6019.1	0.00479421
6029.45	0.00445341
6039.79	0.00411467
6050.13	0.00377753
6060.47	0.00344152
6070.81	0.0031062
6081.16	0.00277111
6091.5	0.00243581
6101.84	0.00209988
6112.18	0.00176288
6122.52	0.00142439
6132.87	0.001084
6143.21	0.000741317
6153.55	0.000395946
6163.89	4.75088e-05
6174.24	-0.000304361
6184.58	-0.000660019
6194.92	-0.00101981
6205.26	-0.00138405
6215.6	-0.00175308
6225.95	-0.00212717
6236.29	-0.00250663
6246.63	-0.00289172
6256.97	-0.0032827
6267.32	-0.00367982
6277.66	-0.00408329
6288	-0.00449332
6298.34	-0.00491012
6308.68	-0.00533385
6319.03	-0.00576468
6329.37	-0.00620275
6339.71	-0.00664819
6350.05	-0.00710111
6360.39	-0.00756161
6370.74	-0.00802976
6381.08	-0.00850564
6391.42	-0.00898927
6401.76	-0.0094807
6412.11	-0.00997994
6422.45	-0.010487
6432.79	-0.0110018
6443.13	-0.0115244
6453.47	-0.0120547
6463.82	-0.0125927
6474.16	-0.0131382
6484.5	-0.0136912
6494.84	-0.0142516
6505.19	-0.0148193
6515.53	-0.0153941
6525.87	-0.0159759
6536.21	-0.0165645
6546.55	-0.0171598
6556.9	-0.0177616
6567.24	-0.0183697
6577.58	-0.0189838
6587.92	-0.0196039
6598.26	-0.0202296
6608.61	-0.0208608
6618.95	-0.0214972
6629.29	-0.0221385
6639.63	-0.0227846
6649.98	-0.023435
6660.32	-0.0240897
6670.66	-0.0247482
6681	-0.0254103
6691.34	-0.0260758
6701.69	-0.0267443
6712.03	-0.0274155
6722.37	-0.0280891
6732.71	-0.0287649
6743.06	-0.0294424
6753.4	-0.0301215
6763.74	-0.0308017
6774.08	-0.0314827
6784.42	-0.0321643
6794.77	-0.0328461
6805.11	-0.0335277
6815.45	-0.0342089
6825.79	-0.0348893
6836.14	-0.0355685
6846.48	-0.0362464
6856.82	-0.0369224
6867.16	-0.0375963
6877.5	-0.0382678
6887.85	-0.0389365
6898.19	-0.039602
6908.53	-0.0402642
6918.87	-0.0409226
6929.21	-0.0415769
6939.56	-0.0422267
6949.9	-0.0428719
6960.24	-0.043512
6970.58	-0.0441467
6980.93	-0.0447758
6991.27	-0.0453988
7001.61	-0.0460156
7011.95	-0.0466257
7022.29	-0.0472289
7032.64	-0.047825
7042.98	-0.0484135
7053.32	-0.0489942
7063.66	-0.0495668
7074.01	-0.0501311
7084.35	-0.0506867
7094.69	-0.0512335
7105.03	-0.051771
7115.37	-0.0522991
7125.72	-0.0528174
7136.06	-0.0533258
7146.4	-0.053824
7156.74	-0.0543117
7167.09	-0.0547887
7177.43	-0.0552548
7187.77	-0.0557097
7198.11	-0.0561533
7208.45	-0.0565852
7218.8	-0.0570053
7229.14	-0.0574133
7239.48	-0.0578092
7249.82	-0.0581926
7260.16	-0.0585634
7270.51	-0.0589214
7280.85	-0.0592665
7291.19	-0.0595984
7301.53	-0.059917
7311.88	-0.0602222
7322.22	-0.0605137
7332.56	-0.0607915
7342.9	-0.0610555
7353.24	-0.0613054
7363.59	-0.0615412
7373.93	-0.0617627
7384.27	-0.0619699
7394.61	-0.0621626
7404.95	-0.0623408
7415.3	-0.0625044
7425.64	-0.0626532
7435.98	-0.0627873
7446.32	-0.0629065
7456.67	-0.0630108
7467.01	-0.0631001
7477.35	-0.0631745
7487.69	-0.0632338
7498.03	-0.063278
7508.38	-0.0633072
7518.72	-0.0633213
7529.06	-0.0633203
7539.4	-0.0633043
7549.74	-0.0632731
7560.09	-0.0632269
7570.43	-0.0631656
7580.77	-0.0630894
7591.11	-0.0629982
7601.46	-0.062892
7611.8	-0.0627711
7622.14	-0.0626353
7632.48	-0.0624848
7642.82	-0.0623196
7653.17	-0.0621398
7663.51	-0.0619456
7673.85	-0.061737
7684.19	-0.0615141
7694.53	-0.0612771
7704.88	-0.061026
7715.22	-0.0607609
7725.56	-0.0604821
7735.9	-0.0601896
7746.25	-0.0598835
7756.59	-0.0595641
7766.93	-0.0592314
7777.27	-0.0588857
7787.61	-0.058527
7797.96	-0.0581556
7808.3	-0.0577716
7818.64	-0.0573753
7828.98	-0.0569667
7839.32	-0.0565461
7849.67	-0.0561137
7860.01	-0.0556696
7870.35	-0.0552141
7880.69	-0.0547474
7891.03	-0.0542696
7901.38	-0.0537811
7911.72	-0.0532819
7922.06	-0.0527723
7932.4	-0.0522526
7942.75	-0.051723
7953.09	-0.0511836
7963.43	-0.0506348
7973.77	-0.0500767
7984.11	-0.0495096
7994.46	-0.0489337
8004.8	-0.0483493
8015.14	-0.0477566
8025.48	-0.0471558
8035.82	-0.0465472
8046.17	-0.045931
8056.51	-0.0453074
8066.85	-0.0446768
8077.19	-0.0440394
8087.54	-0.0433953
8097.88	-0.0427449
8108.22	-0.0420884
8118.56	-0.0414261
8128.9	-0.0407582
8139.25	-0.0400848
8149.59	-0.0394064
8159.93	-0.0387232
8170.27	-0.0380353
8180.61	-0.037343
8190.96	-0.0366467
8201.3	-0.0359464
8211.64	-0.0352426
8221.98	-0.0345353
8232.32	-0.0338249
8242.67	-0.0331117
8253.01	-0.0323957
8263.35	-0.0316774
8273.69	-0.0309569
8284.04	-0.0302344
8294.38	-0.0295103
8304.72	-0.0287847
8315.06	-0.0280578
8325.4	-0.02733
8335.75	-0.0266014
8346.09	-0.0258723
8356.43	-0.0251428
8366.77	-0.0244133
8377.11	-0.023684
8387.46	-0.022955
8397.8	-0.0222266
8408.14	-0.021499
8418.48	-0.0207725
8428.82	-0.0200472
8439.17	-0.0193234
8449.51	-0.0186012
8459.85	-0.017881
8470.19	-0.0171628
8480.54	-0.016447
8490.88	-0.0157337
8501.22	-0.0150231
8511.56	-0.0143154
8521.9	-0.0136108
8532.25	-0.0129096
8542.59	-0.0122119
8552.93	-0.0115179
8563.27	-0.0108278
8573.61	-0.0101418
8583.96	-0.00946009
8594.3	-0.00878286
8604.64	-0.00811027
8614.98	-0.00744252
8625.33	-0.0067798
8635.67	-0.00612226
8646.01	-0.0054701
8656.35	-0.00482348
8666.69	-0.00418257
8677.04	-0.00354755
8687.38	-0.00291858
8697.72	-0.00229581
8708.06	-0.00167942
8718.4	-0.00106956
8728.75	-0.00046639
8739.09	0.000129945
8749.43	0.000719292
8759.77	0.0013015
8770.11	0.00187643
8780.46	0.00244394
8790.8	0.00300389
8801.14	0.00355614
8811.48	0.00410057
8821.83	0.00463704
8832.17	0.00516543
8842.51	0.00568562
8852.85	0.00619748
8863.19	0.00670091
8873.54	0.00719579
8883.88	0.00768202
8894.22	0.00815948
8904.56	0.00862808
8914.9	0.00908773
8925.25	0.00953833
8935.59	0.00997979
8945.93	0.010412
8956.27	0.010835
8966.62	0.0112485
8976.96	0.0116527
8987.3	0.0120473
8997.64	0.0124323
9007.98	0.0128077
9018.33	0.0131734
9028.67	0.0135294
9039.01	0.0138756
9049.35	0.014212
9059.69	0.0145385
9070.04	0.0148552
9080.38	0.015162
9090.72	0.0154588
9101.06	0.0157457
9111.41	0.0160227
9121.75	0.0162897
9132.09	0.0165468
9142.43	0.0167939
9152.77	0.0170311
9163.12	0.0172585
9173.46	0.0174759
9183.8	0.0176835
9194.14	0.0178812
9204.48	0.0180692
9214.83	0.0182474
9225.17	0.0184159
9235.51	0.0185748
9245.85	0.0187241
9256.2	0.0188639
9266.54	0.0189943
9276.88	0.0191152
9287.22	0.0192269
9297.56	0.0193294
9307.91	0.0194227
9318.25	0.0195071
9328.59	0.0195825
9338.93	0.019649
9349.27	0.0197069
9359.62	0.0197561
9369.96	0.0197969
9380.3	0.0198293
9390.64	0.0198534
9400.99	0.0198694
9411.33	0.0198775
9421.67	0.0198777
9432.01	0.0198701
9442.35	0.019855
9452.7	0.0198325
9463.04	0.0198027
9473.38	0.0197658
9483.72	0.019722
9494.06	0.0196713
9504.41	0.0196139
9514.75	0.0195501
9525.09	0.01948
9535.43	0.0194037
9545.78	0.0193214
9556.12	0.0192333
9566.46	0.0191396
9576.8	0.0190404
9587.14	0.0189359
9597.49	0.0188263
9607.83	0.0187117
9618.17	0.0185924
9628.51	0.0184685
9638.86	0.0183401
9649.2	0.0182076
9659.54	0.0180709
9669.88	0.0179304
9680.22	0.0177862
9690.57	0.0176384
9700.91	0.0174873
9711.25	0.0173329
9721.59	0.0171756
9731.93	0.0170154
9742.28	0.0168525
9752.62	0.0166871
9762.96	0.0165194
9773.3	0.0163494
9783.65	0.0161775
9793.99	0.0160036
9804.33	0.0158281
9814.67	0.0156509
9825.01	0.0154724
9835.36	0.0152925
9845.7	0.0151115
9856.04	0.0149296
9866.38	0.0147467
9876.72	0.0145631
9887.07	0.0143789
9897.41	0.0141943
9907.75	0.0140092
9918.09	0.0138239
9928.44	0.0136385
9938.78	0.0134531
9949.12	0.0132677
9959.46	0.0130824
9969.8	0.0128975
9980.15	0.0127128
9990.49	0.0125286
10000.8	0.012345
10011.2	0.0121618
10021.5	0.0119794
10031.9	0.0117977
10042.2	0.0116167
10052.5	0.0114366
10062.9	0.0112574
10073.2	0.011079
10083.6	0.0109017
10093.9	0.0107254
10104.3	0.0105501
10114.6	0.0103759
10124.9	0.0102027
10135.3	0.0100307
10145.6	0.00985982
10156	0.00969004
10166.3	0.0095214
10176.6	0.0093539
10187	0.00918753
10197.3	0.00902228
10207.7	0.00885814
10218	0.0086951
10228.4	0.00853314
10238.7	0.00837223
10249	0.00821235
10259.4	0.00805346
10269.7	0.00789553
10280.1	0.00773853
10290.4	0.00758242
10300.8	0.00742715
10311.1	0.00727268
10321.4	0.00711895
10331.8	0.00696592
10342.1	0.00681354
10352.5	0.00666174
10362.8	0.00651048
10373.1	0.00635969
10383.5	0.00620931
10393.8	0.00605927
10404.2	0.00590952
10414.5	0.00575998
10424.9	0.0056106
10435.2	0.00546129
10445.5	0.005312
10455.9	0.00516266
10466.2	0.00501318
10476.6	0.00486351
10486.9	0.00471358
10497.3	0.0045633
10507.6	0.00441262
10517.9	0.00426145
10528.3	0.00410974
10538.6	0.00395741
10549	0.00380439
10559.3	0.00365062
10569.7	0.00349602
10580	0.00334054
10590.3	0.0031841
10600.7	0.00302664
10611	0.00286811
10621.4	0.00270843
10631.7	0.00254756
10642	0.00238543
10652.4	0.00222199
10662.7	0.00205719
10673.1	0.00189097
10683.4	0.00172329
10693.8	0.0015541
10704.1	0.00138335
10714.4	0.00121101
10724.8	0.00103703
10735.1	0.00086138
10745.5	0.000684024
10755.8	0.000504931
10766.2	0.000324072
10776.5	0.000141422
10786.8	-4.30421e-05
10797.2	-0.00022934
10807.5	-0.000417488
10817.9	-0.000607501
10828.2	-0.00079939
10838.5	-0.000993162
10848.9	-0.00118882
10859.2	-0.00138637
10869.6	-0.00158581
10879.9	-0.00178713
10890.3	-0.00199033
10900.6	-0.0021954
10910.9	-0.00240231
10921.3	-0.00261107
10931.6	-0.00282164
10942	-0.003034
10952.3	-0.00324813
10962.7	-0.00346401
10973	-0.00368159
10983.3	-0.00390085
10993.7	-0.00412174
11004	-0.00434423
11014.4	-0.00456828
11024.7	-0.00479384
11035	-0.00502086
11045.4	-0.00524929
11055.7	-0.00547908
11066.1	-0.00571018
11076.4	-0.00594253
11086.8	-0.00617607
11097.1	-0.00641073
11107.4	-0.00664646
11117.8	-0.00688318
11128.1	-0.00712083
11138.5	-0.00735935
11148.8	-0.00759865
11159.2	-0.00783867
11169.5	-0.00807933
11179.8	-0.00832056
11190.2	-0.00856228
11200.5	-0.0088044
11210.9	-0.00904686
11221.2	-0.00928956
11231.5	-0.00953243
11241.9	-0.00977539
11252.2	-0.0100183
11262.6	-0.0102612
11272.9	-0.0105039
11283.3	-0.0107464
11293.6	-0.0109885
11303.9	-0.0112301
11314.3	-0.0114713
11324.6	-0.0117119
11335	-0.0119518
11345.3	-0.0121909
11355.7	-0.0124291
11366	-0.0126664
11376.3	-0.0129027
11386.7	-0.0131378
11397	-0.0133718
11407.4	-0.0136044
11417.7	-0.0138357
11428.1	-0.0140656
11438.4	-0.0142939
11448.7	-0.0145205
11459.1	-0.0147455
11469.4	-0.0149688
11479.8	-0.0151901
11490.1	-0.0154095
11500.4	-0.015627
11510.8	-0.0158423
11521.1	-0.0160555
11531.5	-0.0162665
11541.8	-0.0164752
11552.2	-0.0166816
11562.5	-0.0168855
11572.8	-0.0170869
11583.2	-0.0172858
11593.5	-0.0174821
11603.9	-0.0176757
11614.2	-0.0178667
11624.6	-0.0180548
11634.9	-0.0182401
11645.2	-0.0184226
11655.6	-0.0186021
11665.9	-0.0187787
11676.3	-0.0189522
11686.6	-0.0191228
11696.9	-0.0192902
11707.3	-0.0194545
11717.6	-0.0196157
11728	-0.0197737
11738.3	-0.0199285
11748.7	-0.02008
11759	-0.0202283
11769.3	-0.0203733
11779.7	-0.0205151
11790	-0.0206535
11800.4	-0.0207886
11810.7	-0.0209203
11821.1	-0.0210487
11831.4	-0.0211738
11841.7	-0.0212955
11852.1	-0.0214138
11862.4	-0.0215289
11872.8	-0.0216405
11883.1	-0.0217488
11893.4	-0.0218538
11903.8	-0.0219555
11914.1	-0.0220538
11924.5	-0.0221489
11934.8	-0.0222407
11945.2	-0.0223292
11955.5	-0.0224145
11965.8	-0.0224966
11976.2	-0.0225755
11986.5	-0.0226512
11996.9	-0.0227238
12007.2	-0.0227934
12017.6	-0.0228598
12027.9	-0.0229232
12038.2	-0.0229837
12048.6	-0.0230412
12058.9	-0.0230957
12069.3	-0.0231474
12079.6	-0.0231963
12089.9	-0.0232424
12100.3	-0.0232857
12110.6	-0.0233264
12121	-0.0233644
12131.3	-0.0233998
12141.7	-0.0234326
12152	-0.023463
12162.3	-0.0234909
12172.7	-0.0235165
12183	-0.0235396
12193.4	-0.0235606
12203.7	-0.0235792
12214.1	-0.0235957
12224.4	-0.0236101
12234.7	-0.0236224
12245.1	-0.0236328
12255.4	-0.0236411
12265.8	-0.0236476
12276.1	-0.0236522
12286.5	-0.023655
12296.8	-0.0236561
12307.1	-0.0236556
12317.5	-0.0236534
12327.8	-0.0236497
12338.2	-0.0236444
12348.5	-0.0236377
12358.8	-0.0236296
12369.2	-0.0236201
12379.5	-0.0236094
12389.9	-0.0235974
12400.2	-0.0235842
12410.6	-0.0235699
12420.9	-0.0235545
12431.2	-0.023538
12441.6	-0.0235206
12451.9	-0.0235021
12462.3	-0.0234828
12472.6	-0.0234626
12483	-0.0234416
12493.3	-0.0234199
12503.6	-0.0233973
12514	-0.0233741
12524.3	-0.0233502
12534.7	-0.0233257
12545	-0.0233006
12555.3	-0.0232749
12565.7	-0.0232487
12576	-0.023222
12586.4	-0.0231948
12596.7	-0.0231672
12607.1	-0.0231391
12617.4	-0.0231107
12627.7	-0.0230818
12638.1	-0.0230526
12648.4	-0.0230231
12658.8	-0.0229932
12669.1	-0.0229631
12679.5	-0.0229326
12689.8	-0.0229019
12700.1	-0.0228709
12710.5	-0.0228396
12720.8	-0.022808
12731.2	-0.0227762
12741.5	-0.0227442
12751.8	-0.0227119
12762.2	-0.0226793
12772.5	-0.0226465
12782.9	-0.0226135
12793.2	-0.0225801
12803.6	-0.0225466
12813.9	-0.0225127
12824.2	-0.0224785
12834.6	-0.0224441
12844.9	-0.0224094
12855.3	-0.0223743
12865.6	-0.0223389
12876	-0.0223031
12886.3	-0.022267
12896.6	-0.0222305
12907	-0.0221936
12917.3	-0.0221562
12927.7	-0.0221184
12938	-0.0220802
12948.3	-0.0220414
12958.7	-0.0220021
12969	-0.0219623
12979.4	-0.0219219
12989.7	-0.0218809
13000.1	-0.0218392
13010.4	-0.0217969
13020.7	-0.0217539
13031.1	-0.0217102
13041.4	-0.0216657
13051.8	-0.0216204
13062.1	-0.0215744
13072.5	-0.0215274
13082.8	-0.0214796
13093.1	-0.0214309
13103.5	-0.0213812
13113.8	-0.0213306
13124.2	-0.0212789
13134.5	-0.0212262
13144.9	-0.0211724
13155.2	-0.0211174
13165.5	-0.0210613
13175.9	-0.0210041
13186.2	-0.0209456
13196.6	-0.0208859
13206.9	-0.0208248
13217.2	-0.0207625
13227.6	-0.0206988
13237.9	-0.0206337
13248.3	-0.0205672
13258.6	-0.0204993
13269	-0.0204299
13279.3	-0.0203589
13289.6	-0.0202865
13300	-0.0202125
13310.3	-0.0201368
13320.7	-0.0200596
13331	-0.0199807
13341.4	-0.0199001
13351.7	-0.0198179
13362	-0.0197339
13372.4	-0.0196482
13382.7	-0.0195607
13393.1	-0.0194714
13403.4	-0.0193803
13413.7	-0.0192874
13424.1	-0.0191927
13434.4	-0.019096
13444.8	-0.0189975
13455.1	-0.0188972
13465.5	-0.0187949
13475.8	-0.0186907
13486.1	-0.0185846
13496.5	-0.0184765
13506.8	-0.0183665
13517.2	-0.0182545
13527.5	-0.0181406
13537.9	-0.0180247
13548.2	-0.0179069
13558.5	-0.0177871
13568.9	-0.0176653
13579.2	-0.0175416
13589.6	-0.0174159
13599.9	-0.0172883
13610.2	-0.0171587
13620.6	-0.0170272
13630.9	-0.0168937
13641.3	-0.0167583
13651.6	-0.016621
13662	-0.0164817
13672.3	-0.0163406
13682.6	-0.0161976
13693	-0.0160528
13703.3	-0.0159061
13713.7	-0.0157576
13724	-0.0156073
13734.4	-0.0154552
13744.7	-0.0153013
13755	-0.0151458
13765.4	-0.0149885
13775.7	-0.0148295
13786.1	-0.0146689
13796.4	-0.0145066
13806.7	-0.0143428
13817.1	-0.0141774
13827.4	-0.0140104
13837.8	-0.013842
13848.1	-0.0136721
13858.5	-0.0135008
13868.8	-0.0133281
13879.1	-0.013154
13889.5	-0.0129787
13899.8	-0.012802
13910.2	-0.0126241
13920.5	-0.0124451
13930.9	-0.0122649
13941.2	-0.0120836
13951.5	-0.0119012
13961.9	-0.0117178
13972.2	-0.0115335
13982.6	-0.0113482
13992.9	-0.011162
14003.3	-0.0109751
14013.6	-0.0107873
14023.9	-0.0105988
14034.3	-0.0104096
14044.6	-0.0102198
14055	-0.0100294
14065.3	-0.00983851
14075.6	-0.00964711
14086	-0.00945527
14096.3	-0.00926306
14106.7	-0.00907052
14117	-0.0088777
14127.4	-0.00868466
14137.7	-0.00849145
14148	-0.00829812
14158.4	-0.00810471
14168.7	-0.0079113
14179.1	-0.00771791
14189.4	-0.00752462
14199.8	-0.00733147
14210.1	-0.0071385
14220.4	-0.00694578
14230.8	-0.00675335
14241.1	-0.00656127
14251.5	-0.00636958
14261.8	-0.00617834
14272.1	-0.00598759
14282.5	-0.00579739
14292.8	-0.00560778
14303.2	-0.00541882
14313.5	-0.00523054
14323.9	-0.005043
14334.2	-0.00485624
14344.5	-0.00467032
14354.9	-0.00448527
14365.2	-0.00430114
14375.6	-0.00411798
14385.9	-0.00393583
14396.3	-0.00375472
14406.6	-0.00357471
14416.9	-0.00339584
14427.3	-0.00321814
14437.6	-0.00304165
14448	-0.00286641
14458.3	-0.00269247
14468.6	-0.00251985
14479	-0.00234859
14489.3	-0.00217874
14499.7	-0.00201031
14510	-0.00184335
14520.4	-0.00167788
14530.7	-0.00151394
14541	-0.00135155
14551.4	-0.00119075
14561.7	-0.00103156
14572.1	-0.000874017
14582.4	-0.000718133
14592.8	-0.000563939
14603.1	-0.000411457
14613.4	-0.000260709
14623.8	-0.000111717
14634.1	3.54999e-05
14644.5	0.000180922
14654.8	0.000324533
14665.1	0.000466315
14675.5	0.000606253
14685.8	0.000744333
14696.2	0.000880541
14706.5	0.00101487
14716.9	0.0011473
14727.2	0.00127782
14737.5	0.00140644
14747.9	0.00153313
14758.2	0.0016579
14768.6	0.00178073
14778.9	0.00190163
14789.3	0.00202058
14799.6	0.0021376
14809.9	0.00225267
14820.3	0.0023658
14830.6	0.00247699
14841	0.00258624
14851.3	0.00269355
14861.7	0.00279893
14872	0.00290238
14882.3	0.00300391
14892.7	0.00310352
14903	0.00320123
14913.4	0.00329704
14923.7	0.00339097
14934	0.00348302
14944.4	0.0035732
14954.7	0.00366152
14965.1	0.00374801
14975.4	0.00383268
14985.8	0.00391553
14996.1	0.00399659
15006.4	0.00407587
15016.8	0.00415339
15027.1	0.00422917
15037.5	0.00430322
15047.8	0.00437557
15058.2	0.00444623
15068.5	0.00451523
15078.8	0.00458259
15089.2	0.00464833
15099.5	0.00471247
15109.9	0.00477504
15120.2	0.00483605
15130.5	0.00489554
15140.9	0.00495352
15151.2	0.00501003
15161.6	0.00506509
15171.9	0.00511873
15182.3	0.00517096
15192.6	0.00522182
15202.9	0.00527134
15213.3	0.00531954
15223.6	0.00536646
15234	0.00541211
15244.3	0.00545653
15254.7	0.00549974
15265	0.00554179
15275.3	0.00558268
15285.7	0.00562246
15296	0.00566116
15306.4	0.00569879
15316.7	0.0057354
15327	0.00577101
15337.4	0.00580566
15347.7	0.00583937
15358.1	0.00587216
15368.4	0.00590409
15378.8	0.00593516
15389.1	0.00596542
15399.4	0.00599488
15409.8	0.00602359
15420.1	0.00605157
15430.5	0.00607886
15440.8	0.00610547
15451.2	0.00613144
15461.5	0.0061568
15471.8	0.00618157
15482.2	0.0062058
15492.5	0.00622949
15502.9	0.00625269
15513.2	0.00627541
15523.5	0.0062977
15533.9	0.00631956
15544.2	0.00634104
15554.6	0.00636215
15564.9	0.00638292
15575.3	0.00640337
15585.6	0.00642354
15595.9	0.00644345
15606.3	0.00646311
15616.6	0.00648256
15627	0.00650181
15637.3	0.00652088
15647.7	0.00653981
15658	0.0065586
15668.3	0.00657729
15678.7	0.00659588
15689	0.0066144
15699.4	0.00663287
15709.7	0.0066513
15720.1	0.00666971
15730.4	0.00668811
15740.7	0.00670653
15751.1	0.00672497
15761.4	0.00674345
15771.8	0.00676198
15782.1	0.00678057
15792.4	0.00679924
15802.8	0.00681799
15813.1	0.00683683
15823.5	0.00685578
15833.8	0.00687483
15844.2	0.006894
15854.5	0.00691329
15864.8	0.0069327
15875.2	0.00695224
15885.5	0.00697191
15895.9	0.0069917
15906.2	0.00701163
15916.6	0.00703169
15926.9	0.00705188
15937.2	0.00707219
15947.6	0.00709263
15957.9	0.00711318
15968.3	0.00713383
15978.6	0.00715459
15988.9	0.00717545
15999.3	0.00719638
16009.6	0.00721739
16020	0.00723846
16030.3	0.00725957
16040.7	0.00728072
16051	0.00730188
16061.3	0.00732305
16071.7	0.00734419
16082	0.0073653
16092.4	0.00738635
16102.7	0.00740733
16113.1	0.0074282
16123.4	0.00744895
16133.7	0.00746955
16144.1	0.00748998
16154.4	0.0075102
16164.8	0.00753019
16175.1	0.00754992
16185.4	0.00756936
16195.8	0.00758848
16206.1	0.00760725
16216.5	0.00762562
16226.8	0.00764358
16237.2	0.00766108
16247.5	0.00767808
16257.8	0.00769455
16268.2	0.00771045
16278.5	0.00772574
16288.9	0.00774037
16299.2	0.00775432
16309.6	0.00776753
16319.9	0.00777997
16330.2	0.00779158
16340.6	0.00780233
16350.9	0.00781217
16361.3	0.00782105
16371.6	0.00782893
16381.9	0.00783576
16392.3	0.00784149
16402.6	0.00784608
16413	0.00784947
16423.3	0.00785162
16433.7	0.00785248
16444	0.00785199
16454.3	0.00785011
16464.7	0.00784679
16475	0.00784197
16485.4	0.00783561
16495.7	0.00782766
16506.1	0.00781806
16516.4	0.00780676
16526.7	0.00779372
16537.1	0.00777888
16547.4	0.00776219
16557.8	0.0077436
16568.1	0.00772306
16578.5	0.00770053
16588.8	0.00767594
16599.1	0.00764927
16609.5	0.00762045
16619.8	0.00758944
16630.2	0.00755619
16640.5	0.00752066
16650.8	0.00748279
16661.2	0.00744256
16671.5	0.00739991
16681.9	0.0073548
16692.2	0.0073072
16702.6	0.00725705
16712.9	0.00720432
16723.2	0.00714898
16733.6	0.00709098
16743.9	0.0070303
16754.3	0.00696689
16764.6	0.00690074
16775	0.00683179
16785.3	0.00676004
16795.6	0.00668545
16806	0.00660799
16816.3	0.00652764
16826.7	0.00644438
16837	0.0063582
16847.3	0.00626906
16857.7	0.00617697
16868	0.00608189
16878.4	0.00598383
16888.7	0.00588277
16899.1	0.00577871
16909.4	0.00567164
16919.7	0.00556156
16930.1	0.00544847
16940.4	0.00533238
16950.8	0.00521328
16961.1	0.00509118
16971.5	0.0049661
16981.8	0.00483804
16992.1	0.00470703
17002.5	0.00457308
17012.8	0.00443621
17023.2	0.00429645
17033.5	0.00415381
17043.8	0.00400834
17054.2	0.00386005
17064.5	0.00370899
17074.9	0.00355519
17085.2	0.00339869
17095.6	0.00323954
17105.9	0.00307777
17116.2	0.00291344
17126.6	0.00274659
17136.9	0.00257729
17147.3	0.00240558
17157.6	0.00223153
17168	0.00205519
17178.3	0.00187664
17188.6	0.00169593
17199	0.00151314
17209.3	0.00132834
17219.7	0.0011416
17230	0.000953004
17240.4	0.000762628
17250.7	0.000570556
17261	0.000376871
17271.4	0.00018166
17281.7	-1.49883e-05
17292.1	-0.000212982
17302.4	-0.000412228
17312.7	-0.00061263
17323.1	-0.000814091
17333.4	-0.00101651
17343.8	-0.00121979
17354.1	-0.00142382
17364.5	-0.0016285
17374.8	-0.00183373
17385.1	-0.00203938
17395.5	-0.00224537
17405.8	-0.00245156
17416.2	-0.00265786
17426.5	-0.00286414
17436.9	-0.00307029
17447.2	-0.00327619
17457.5	-0.00348174
17467.9	-0.0036868
17478.2	-0.00389127
17488.6	-0.00409501
17498.9	-0.00429792
17509.2	-0.00449986
17519.6	-0.00470073
17529.9	-0.0049004
17540.3	-0.00509874
17550.6	-0.00529564
17561	-0.00549097
17571.3	-0.00568462
17581.6	-0.00587646
17592	-0.00606637
17602.3	-0.00625424
17612.7	-0.00643994
17623	-0.00662335
17633.4	-0.00680436
17643.7	-0.00698285
17654	-0.0071587
17664.4	-0.0073318
17674.7	-0.00750204
17685.1	-0.00766931
17695.4	-0.00783349
17705.7	-0.00799447
17716.1	-0.00815216
17726.4	-0.00830643
17736.8	-0.0084572
17747.1	-0.00860435
17757.5	-0.00874779
17767.8	-0.00888743
17778.1	-0.00902316
17788.5	-0.00915489
17798.8	-0.00928254
17809.2	-0.00940601
17819.5	-0.00952523
17829.9	-0.00964011
17840.2	-0.00975057
17850.5	-0.00985653
17860.9	-0.00995793
17871.2	-0.0100547
17881.6	-0.0101467
17891.9	-0.010234
17902.2	-0.0103165
17912.6	-0.010394
17922.9	-0.0104666
17933.3	-0.0105342
17943.6	-0.0105968
17954	-0.0106543
17964.3	-0.0107067
17974.6	-0.0107539
17985	-0.0107959
17995.3	-0.0108327
18005.7	-0.0108642
18016	-0.0108905
18026.4	-0.0109114
18036.7	-0.0109271
18047	-0.0109374
18057.4	-0.0109425
18067.7	-0.0109421
18078.1	-0.0109365
18088.4	-0.0109255
18098.8	-0.0109093
18109.1	-0.0108877
18119.4	-0.0108608
18129.8	-0.0108287
18140.1	-0.0107913
18150.5	-0.0107487
18160.8	-0.0107009
18171.1	-0.0106479
18181.5	-0.0105898
18191.8	-0.0105267
18202.2	-0.0104585
18212.5	-0.0103853
18222.9	-0.0103072
18233.2	-0.0102242
18243.5	-0.0101363
18253.9	-0.0100437
18264.2	-0.00994644
18274.6	-0.00984451
18284.9	-0.00973803
18295.3	-0.00962705
18305.6	-0.00951166
18315.9	-0.00939194
18326.3	-0.00926796
18336.6	-0.00913982
18347	-0.00900759
18357.3	-0.00887138
18367.6	-0.00873126
18378	-0.00858735
18388.3	-0.00843972
18398.7	-0.00828848
18409	-0.00813374
18419.4	-0.00797559
18429.7	-0.00781414
18440	-0.00764949
18450.4	-0.00748176
18460.7	-0.00731105
18471.1	-0.00713747
18481.4	-0.00696115
18491.8	-0.00678218
18502.1	-0.00660069
18512.4	-0.0064168
18522.8	-0.00623061
18533.1	-0.00604225
18543.5	-0.00585184
18553.8	-0.0056595
18564.1	-0.00546534
18574.5	-0.00526949
18584.8	-0.00507207
18595.2	-0.0048732
18605.5	-0.00467301
18615.9	-0.0044716
18626.2	-0.00426911
18636.5	-0.00406566
18646.9	-0.00386137
18657.2	-0.00365635
18667.6	-0.00345074
18677.9	-0.00324464
18688.3	-0.00303819
18698.6	-0.00283149
18708.9	-0.00262467
18719.3	-0.00241784
18729.6	-0.00221112
18740	-0.00200463
18750.3	-0.00179848
18760.6	-0.00159278
18771	-0.00138764
18781.3	-0.00118318
18791.7	-0.000979504
18802	-0.000776719
18812.4	-0.000574931
18822.7	-0.000374246
18833	-0.000174765
18843.4	2.34103e-05
18853.7	0.000220181
18864.1	0.000415449
18874.4	0.00060912
18884.8	0.000801101
18895.1	0.000991299
18905.4	0.00117963
18915.8	0.00136599
18926.1	0.00155032
18936.5	0.00173252
18946.8	0.00191251
18957.2	0.00209022
18967.5	0.00226556
18977.8	0.00243848
18988.2	0.00260888
18998.5	0.00277672
19008.9	0.00294191
19019.2	0.0031044
19029.5	0.00326413
19039.9	0.00342103
19050.2	0.00357504
19060.6	0.00372613
19070.9	0.00387423
19081.3	0.0040193
19091.6	0.00416128
19101.9	0.00430015
19112.3	0.00443584
19122.6	0.00456834
19133	0.0046976
19143.3	0.00482358
19153.7	0.00494626
19164	0.00506561
19174.3	0.0051816
19184.7	0.00529422
19195	0.00540343
19205.4	0.00550922
19215.7	0.00561158
19226	0.00571049
19236.4	0.00580594
19246.7	0.00589792
19257.1	0.00598643
19267.4	0.00607146
19277.8	0.00615301
19288.1	0.00623108
19298.4	0.00630567
19308.8	0.0063768
19319.1	0.00644446
19329.5	0.00650867
19339.8	0.00656944
19350.2	0.00662677
19360.5	0.0066807
19370.8	0.00673123
19381.2	0.00677839
19391.5	0.00682219
19401.9	0.00686266
19412.2	0.00689983
19422.5	0.00693372
19432.9	0.00696437
19443.2	0.00699179
19453.6	0.00701603
19463.9	0.00703712
19474.3	0.00705509
19484.6	0.00706998
19494.9	0.00708183
19505.3	0.00709067
19515.6	0.00709656
19526	0.00709953
19536.3	0.00709963
19546.7	0.00709689
19557	0.00709138
19567.3	0.00708312
19577.7	0.00707218
19588	0.00705861
19598.4	0.00704244
19608.7	0.00702374
19619	0.00700255
19629.4	0.00697894
19639.7	0.00695294
19650.1	0.00692463
19660.4	0.00689404
19670.8	0.00686125
19681.1	0.0068263
19691.4	0.00678925
19701.8	0.00675017
19712.1	0.0067091
19722.5	0.00666611
19732.8	0.00662125
19743.2	0.00657459
19753.5	0.00652619
19763.8	0.0064761
19774.2	0.00642438
19784.5	0.0063711
19794.9	0.00631632
19805.2	0.00626009
19815.6	0.00620248
19825.9	0.00614354
19836.2	0.00608334
19846.6	0.00602194
19856.9	0.0059594
19867.3	0.00589578
19877.6	0.00583113
19887.9	0.00576552
19898.3	0.00569901
19908.6	0.00563166
19919	0.00556353
19929.3	0.00549467
19939.7	0.00542514
19950	0.00535501
19960.3	0.00528432
19970.7	0.00521314
19981	0.00514153
19991.4	0.00506953
