0	0
13.2971	0
26.5942	0
39.8912	0
53.1883	0
66.4854	0
79.7825	0
93.0796	0
106.377	0
119.674	0
132.971	0
146.268	0
159.565	0
172.862	0
186.159	0
199.456	0
212.753	0
226.05	0
239.347	0
252.645	0
265.942	0
279.239	0
292.536	0
305.833	0
319.13	0
332.427	0
345.724	0
359.021	0
372.318	0
385.615	0
398.912	0
412.21	0
425.507	0
438.804	0
452.101	0
465.398	0
478.695	0
491.992	0
505.289	0
518.586	0
531.883	0
545.18	0
558.477	0
571.775	0
585.072	0
598.369	0
611.666	0
624.963	0
638.26	0
651.557	0
664.854	0
678.151	0
691.448	0
704.745	0
718.042	0
731.34	0
744.637	0
757.934	0
771.231	0
784.528	0
797.825	0
811.122	0
824.419	0
837.716	0
851.013	0
864.31	0
877.607	0
890.904	0
904.202	0
917.499	0
930.796	0
944.093	0
957.39	0
970.687	0
983.984	0
997.281	0
1010.58	0
1023.88	0
1037.17	0
1050.47	0
1063.77	0
1077.06	0
1090.36	0
1103.66	0
1116.95	0
1130.25	0
1143.55	0
1156.85	0
1170.14	0
1183.44	0
1196.74	0
1210.03	0
1223.33	0
1236.63	0
1249.93	0
1263.22	0
1276.52	0
1289.82	0
1303.11	0
1316.41	0
1329.71	0
1343.01	0
1356.3	0
1369.6	0
1382.9	0
1396.19	0
1409.49	0
1422.79	0
1436.08	0
1449.38	0
1462.68	0
1475.98	0
1489.27	0
1502.57	0
1515.87	0
1529.16	0
1542.46	0
1555.76	0
1569.06	0
1582.35	0
1595.65	0
1608.95	0
1622.24	0
1635.54	0
1648.84	0
1662.14	0
1675.43	0
1688.73	0
1702.03	0
1715.32	0
1728.62	0
1741.92	0
1755.21	0
1768.51	0
1781.81	0
1795.11	0
1808.4	0
1821.7	0
1835	0
1848.29	0
1861.59	9.09495e-13
1874.89	9.09495e-13
1888.19	1.81899e-12
1901.48	2.72848e-12
1914.78	3.63798e-12
1928.08	5.45697e-12
1941.37	8.18545e-12
1954.67	1.18234e-11
1967.97	1.63709e-11
1981.27	2.36469e-11
1994.56	3.36513e-11
2007.86	4.82032e-11
2021.16	6.73026e-11
2034.45	9.45874e-11
2047.75	1.31877e-10
2061.05	1.82808e-10
2074.34	2.5284e-10
2087.64	3.46517e-10
2100.94	4.73847e-10
2114.24	6.43922e-10
2127.53	8.70386e-10
2140.83	1.17052e-09
2154.13	1.56706e-09
2167.42	2.0882e-09
2180.72	2.77032e-09
2194.02	3.65799e-09
2207.32	4.80759e-09
2220.61	6.29007e-09
2233.91	8.19455e-09
2247.21	1.06293e-08
2260.5	1.37297e-08
2273.8	1.76597e-08
2287.1	2.2621e-08
2300.4	2.88583e-08
2313.69	3.66681e-08
2326.99	4.64088e-08
2340.29	5.85096e-08
2353.58	7.34835e-08
2366.88	9.19435e-08
2380.18	1.14615e-07
2393.47	1.42354e-07
2406.77	1.76174e-07
2420.07	2.17256e-07
2433.37	2.66986e-07
2446.66	3.26972e-07
2459.96	3.99082e-07
2473.26	4.85475e-07
2486.55	5.88633e-07
2499.85	7.11408e-07
2513.15	8.57058e-07
2526.45	1.0293e-06
2539.74	1.23234e-06
2553.04	1.47097e-06
2566.34	1.75057e-06
2579.63	2.0772e-06
2592.93	2.45766e-06
2606.23	2.89955e-06
2619.53	3.41135e-06
2632.82	4.00248e-06
2646.12	4.6834e-06
2659.42	5.46568e-06
2672.71	6.36206e-06
2686.01	7.38659e-06
2699.31	8.55473e-06
2712.6	9.88338e-06
2725.9	1.13911e-05
2739.2	1.30981e-05
2752.5	1.50264e-05
2765.79	1.72003e-05
2779.09	1.96459e-05
2792.39	2.23918e-05
2805.68	2.54691e-05
2818.98	2.89116e-05
2832.28	3.27561e-05
2845.58	3.70429e-05
2858.87	4.18156e-05
2872.17	4.71221e-05
2885.47	5.30145e-05
2898.76	5.95501e-05
2912.06	6.67917e-05
2925.36	7.48082e-05
2938.65	8.3676e-05
2951.95	9.34792e-05
2965.25	0.000104311
2978.55	0.000116275
2991.84	0.000129487
3005.14	0.000144074
3018.44	0.000160182
3031.73	0.000177971
3045.03	0.000197623
3058.33	0.00021934
3071.62	0.00024335
3084.92	0.000269912
3098.22	0.000299314
3111.52	0.000331882
3124.81	0.000367984
3138.11	0.000408033
3151.41	0.000452493
3164.7	0.000501887
3178	0.0005568
3191.3	0.00061789
3204.59	0.000685892
3217.89	0.000761628
3231.19	0.000846016
3244.48	0.000940077
3257.78	0.00104494
3271.08	0.00116188
3284.37	0.00129227
3297.67	0.00143765
3310.97	0.00159972
3324.27	0.00178033
3337.56	0.00198151
3350.86	0.0022055
3364.16	0.00245472
3377.45	0.00273179
3390.75	0.00303958
3404.05	0.00338117
3417.34	0.00375988
3430.64	0.0041793
3443.94	0.00464323
3457.23	0.00515577
3470.53	0.00572127
3483.83	0.00634435
3497.12	0.00702989
3510.42	0.00778303
3523.72	0.00860918
3537.01	0.00951399
3550.31	0.0105034
3563.61	0.0115835
3576.9	0.0127606
3590.2	0.0140414
3603.5	0.0154324
3616.79	0.0169406
3630.09	0.0185729
3643.39	0.0203365
3656.68	0.0222383
3669.98	0.0242854
3683.28	0.0264851
3696.57	0.0288441
3709.87	0.0313693
3723.17	0.0340674
3736.46	0.0369446
3749.76	0.0400072
3763.06	0.0432606
3776.35	0.0467102
3789.65	0.0503606
3802.95	0.054216
3816.24	0.0582798
3829.54	0.0625549
3842.84	0.0670433
3856.13	0.071746
3869.43	0.0766633
3882.72	0.0817945
3896.02	0.0871378
3909.32	0.0926904
3922.61	0.0984482
3935.91	0.104406
3949.21	0.110558
3962.5	0.116896
3975.8	0.123411
3989.1	0.130093
4002.39	0.136931
4015.69	0.143912
4028.99	0.151022
4042.28	0.158245
4055.58	0.165564
4068.88	0.172963
4082.17	0.180422
4095.47	0.187921
4108.77	0.195438
4122.06	0.202952
4135.36	0.210439
4148.66	0.217876
4161.95	0.225238
4175.25	0.2325
4188.55	0.239635
4201.84	0.246619
4215.14	0.253424
4228.44	0.260025
4241.73	0.266394
4255.03	0.272505
4268.33	0.278332
4281.62	0.28385
4294.92	0.289033
4308.22	0.293857
4321.51	0.298298
4334.81	0.302334
4348.11	0.305942
4361.4	0.309103
4374.7	0.311798
4388	0.314009
4401.3	0.31572
4414.59	0.316916
4427.89	0.317585
4441.19	0.317716
4454.48	0.3173
4467.78	0.31633
4481.08	0.314801
4494.37	0.312709
4507.67	0.310055
4520.97	0.306839
4534.27	0.303064
4547.56	0.298736
4560.86	0.293862
4574.16	0.288451
4587.45	0.282514
4600.75	0.276064
4614.05	0.269117
4627.35	0.26169
4640.64	0.2538
4653.94	0.245468
4667.24	0.236716
4680.53	0.227566
4693.83	0.218043
4707.13	0.208172
4720.42	0.19798
4733.72	0.187493
4747.02	0.176741
4760.32	0.165752
4773.61	0.154555
4786.91	0.143179
4800.21	0.131656
4813.5	0.120015
4826.8	0.108285
4840.1	0.0964976
4853.4	0.0846816
4866.69	0.0728664
4879.99	0.0610806
4893.29	0.0493524
4906.58	0.0377091
4919.88	0.0261774
4933.18	0.0147829
4946.47	0.00355005
4959.77	-0.00749744
4973.07	-0.0183373
4986.37	-0.0289482
4999.66	-0.0393105
5012.96	-0.0494054
5026.26	-0.059216
5039.55	-0.0687262
5052.85	-0.0779219
5066.15	-0.0867901
5079.44	-0.0953193
5092.74	-0.103499
5106.04	-0.111322
5119.34	-0.11878
5132.63	-0.125867
5145.93	-0.13258
5159.23	-0.138915
5172.52	-0.14487
5185.82	-0.150446
5199.12	-0.155643
5212.42	-0.160463
5225.71	-0.164909
5239.01	-0.168986
5252.31	-0.172699
5265.6	-0.176054
5278.9	-0.179058
5292.2	-0.181719
5305.49	-0.184046
5318.79	-0.186048
5332.09	-0.187735
5345.39	-0.189117
5358.68	-0.190206
5371.98	-0.191013
5385.28	-0.19155
5398.57	-0.191828
5411.87	-0.191861
5425.17	-0.191659
5438.46	-0.191237
5451.76	-0.190606
5465.06	-0.189778
5478.36	-0.188767
5491.65	-0.187585
5504.95	-0.186243
5518.25	-0.184754
5531.54	-0.183129
5544.84	-0.18138
5558.14	-0.179518
5571.44	-0.177553
5584.73	-0.175497
5598.03	-0.173358
5611.33	-0.171147
5624.62	-0.168873
5637.92	-0.166545
5651.22	-0.16417
5664.51	-0.161757
5677.81	-0.159313
5691.11	-0.156844
5704.41	-0.154358
5717.7	-0.151861
5731	-0.149357
5744.3	-0.146851
5757.59	-0.144349
5770.89	-0.141855
5784.19	-0.139372
5797.49	-0.136903
5810.78	-0.134452
5824.08	-0.132022
5837.38	-0.129614
5850.67	-0.12723
5863.97	-0.124872
5877.27	-0.122541
5890.56	-0.120238
5903.86	-0.117964
5917.16	-0.11572
5930.46	-0.113505
5943.75	-0.11132
5957.05	-0.109165
5970.35	-0.10704
5983.64	-0.104943
5996.94	-0.102875
6010.24	-0.100835
6023.54	-0.0988215
6036.83	-0.096835
6050.13	-0.0948742
6063.43	-0.0929381
6076.72	-0.091026
6090.02	-0.0891369
6103.32	-0.08727
6116.61	-0.0854244
6129.91	-0.0835992
6143.21	-0.0817938
6156.51	-0.0800072
6169.8	-0.0782388
6183.1	-0.076488
6196.4	-0.074754
6209.69	-0.0730366
6222.99	-0.071335
6236.29	-0.0696491
6249.59	-0.0679784
6262.88	-0.0663227
6276.18	-0.0646819
6289.48	-0.0630558
6302.77	-0.0614445
6316.07	-0.059848
6329.37	-0.0582665
6342.67	-0.0567
6355.96	-0.0551489
6369.26	-0.0536134
6382.56	-0.0520939
6395.85	-0.0505908
6409.15	-0.0491045
6422.45	-0.0476355
6435.74	-0.0461842
6449.04	-0.0447512
6462.34	-0.043337
6475.64	-0.0419422
6488.93	-0.0405672
6502.23	-0.0392126
6515.53	-0.0378789
6528.82	-0.0365667
6542.12	-0.0352764
6555.42	-0.0340084
6568.72	-0.0327633
6582.01	-0.0315413
6595.31	-0.0303428
6608.61	-0.0291681
6621.9	-0.0280175
6635.2	-0.0268911
6648.5	-0.025789
6661.8	-0.0247113
6675.09	-0.023658
6688.39	-0.0226291
6701.69	-0.0216243
6714.98	-0.0206435
6728.28	-0.0196864
6741.58	-0.0187526
6754.87	-0.0178418
6768.17	-0.0169533
6781.47	-0.0160867
6794.77	-0.0152414
6808.06	-0.0144165
6821.36	-0.0136114
6834.66	-0.0128252
6847.95	-0.0120571
6861.25	-0.0113061
6874.55	-0.0105712
6887.85	-0.00985145
6901.14	-0.00914567
6914.44	-0.00845279
6927.74	-0.00777166
6941.03	-0.0071011
6954.33	-0.00643989
6967.63	-0.00578684
6980.93	-0.00514069
6994.22	-0.00450021
7007.52	-0.00386415
7020.82	-0.00323128
7034.11	-0.00260036
7047.41	-0.00197017
7060.71	-0.00133953
7074.01	-0.000707246
7087.3	-7.21925e-05
7100.6	0.000566741
7113.9	0.00121062
7127.19	0.00186046
7140.49	0.00251724
7153.79	0.00318186
7167.08	0.0038552
7180.38	0.00453803
7193.68	0.00523109
7206.98	0.00593504
7220.27	0.00665046
7233.57	0.00737787
7246.87	0.0081177
7260.16	0.0088703
7273.46	0.00963595
7286.76	0.0104148
7300.06	0.0112071
7313.35	0.0120127
7326.65	0.0128316
7339.95	0.0136636
7353.24	0.0145086
7366.54	0.0153662
7379.84	0.016236
7393.14	0.0171175
7406.43	0.0180102
7419.73	0.0189134
7433.03	0.0198264
7446.32	0.0207485
7459.62	0.0216786
7472.92	0.022616
7486.21	0.0235596
7499.51	0.0245084
7512.81	0.0254612
7526.11	0.0264169
7539.4	0.0273742
7552.7	0.0283319
7566	0.0292887
7579.29	0.0302431
7592.59	0.031194
7605.89	0.0321397
7619.18	0.0330789
7632.48	0.0340101
7645.78	0.0349318
7659.08	0.0358426
7672.37	0.036741
7685.67	0.0376253
7698.97	0.0384943
7712.26	0.0393463
7725.56	0.0401798
7738.86	0.0409935
7752.15	0.0417859
7765.45	0.0425555
7778.75	0.0433009
7792.05	0.0440208
7805.34	0.0447138
7818.64	0.0453787
7831.94	0.0460141
7845.23	0.046619
7858.53	0.047192
7871.83	0.0477321
7885.12	0.0482381
7898.42	0.0487092
7911.72	0.0491443
7925.02	0.0495426
7938.31	0.0499031
7951.61	0.0502252
7964.91	0.050508
7978.2	0.050751
7991.5	0.0509535
8004.8	0.051115
8018.09	0.051235
8031.39	0.0513132
8044.69	0.0513493
8057.99	0.0513429
8071.28	0.0512939
8084.58	0.0512021
8097.88	0.0510674
8111.17	0.05089
8124.47	0.0506697
8137.77	0.0504068
8151.06	0.0501015
8164.36	0.0497539
8177.66	0.0493644
8190.96	0.0489334
8204.25	0.0484613
8217.55	0.0479486
8230.85	0.0473957
8244.14	0.0468034
8257.44	0.0461721
8270.74	0.0455027
8284.03	0.0447958
8297.33	0.0440523
8310.63	0.0432728
8323.93	0.0424584
8337.22	0.0416099
8350.52	0.0407282
8363.82	0.0398143
8377.11	0.0388693
8390.41	0.0378941
8403.71	0.0368898
8417	0.0358576
8430.3	0.0347985
8443.6	0.0337137
8456.9	0.0326044
8470.19	0.0314718
8483.49	0.0303169
8496.79	0.0291412
8510.08	0.0279457
8523.38	0.0267318
8536.68	0.0255006
8549.98	0.0242536
8563.27	0.0229918
8576.57	0.0217167
8589.87	0.0204294
8603.16	0.0191312
8616.46	0.0178234
8629.76	0.0165074
8643.05	0.0151843
8656.35	0.0138554
8669.65	0.0125219
8682.95	0.0111852
8696.24	0.00984641
8709.54	0.00850679
8722.84	0.00716753
8736.13	0.00582985
8749.43	0.00449491
8762.73	0.00316388
8776.02	0.00183789
8789.32	0.000518078
8802.62	-0.000794466
8815.92	-0.00209866
8829.21	-0.00339344
8842.51	-0.00467779
8855.81	-0.0059507
8869.1	-0.00721118
8882.4	-0.00845828
8895.7	-0.00969109
8908.99	-0.0109087
8922.29	-0.0121103
8935.59	-0.0132949
8948.89	-0.0144619
8962.18	-0.0156104
8975.48	-0.0167397
8988.78	-0.0178491
9002.07	-0.0189379
9015.37	-0.0200054
9028.67	-0.0210512
9041.96	-0.0220746
9055.26	-0.023075
9068.56	-0.0240521
9081.86	-0.0250052
9095.15	-0.0259341
9108.45	-0.0268382
9121.75	-0.0277173
9135.04	-0.0285711
9148.34	-0.0293992
9161.64	-0.0302014
9174.94	-0.0309775
9188.23	-0.0317273
9201.53	-0.0324506
9214.83	-0.0331474
9228.12	-0.0338177
9241.42	-0.0344612
9254.72	-0.0350781
9268.01	-0.0356684
9281.31	-0.0362321
9294.61	-0.0367692
9307.91	-0.03728
9321.2	-0.0377646
9334.5	-0.038223
9347.8	-0.0386556
9361.09	-0.0390626
9374.39	-0.0394442
9387.69	-0.0398006
9400.99	-0.0401322
9414.28	-0.0404394
9427.58	-0.0407224
9440.88	-0.0409815
9454.17	-0.0412173
9467.47	-0.0414301
9480.77	-0.0416203
9494.06	-0.0417883
9507.36	-0.0419346
9520.66	-0.0420597
9533.96	-0.0421639
9547.25	-0.0422479
9560.55	-0.0423121
9573.85	-0.042357
9587.14	-0.0423831
9600.44	-0.0423909
9613.74	-0.0423809
9627.04	-0.0423537
9640.33	-0.0423099
9653.63	-0.0422498
9666.93	-0.0421741
9680.22	-0.0420833
9693.52	-0.0419779
9706.82	-0.0418584
9720.11	-0.0417254
9733.41	-0.0415794
9746.71	-0.0414209
9760.01	-0.0412504
9773.3	-0.0410685
9786.6	-0.0408755
9799.9	-0.040672
9813.19	-0.0404585
9826.49	-0.0402355
9839.79	-0.0400034
9853.09	-0.0397626
9866.38	-0.0395136
9879.68	-0.0392569
9892.98	-0.0389928
9906.27	-0.0387218
9919.57	-0.0384442
9932.87	-0.0381604
9946.16	-0.0378709
9959.46	-0.0375758
9972.76	-0.0372757
9986.06	-0.0369707
9999.35	-0.0366613
10012.7	-0.0363477
10025.9	-0.0360303
10039.2	-0.0357092
10052.5	-0.0353847
10065.8	-0.0350572
10079.1	-0.0347267
10092.4	-0.0343936
10105.7	-0.034058
10119	-0.0337202
10132.3	-0.0333802
10145.6	-0.0330383
10158.9	-0.0326947
10172.2	-0.0323494
10185.5	-0.0320026
10198.8	-0.0316544
10212.1	-0.0313049
10225.4	-0.0309542
10238.7	-0.0306024
10252	-0.0302496
10265.3	-0.0298957
10278.6	-0.029541
10291.9	-0.0291853
10305.2	-0.0288288
10318.5	-0.0284714
10331.8	-0.0281133
10345.1	-0.0277543
10358.4	-0.0273945
10371.7	-0.0270338
10385	-0.0266723
10398.3	-0.02631
10411.6	-0.0259468
10424.9	-0.0255826
10438.2	-0.0252175
10451.5	-0.0248514
10464.8	-0.0244843
10478	-0.024116
10491.3	-0.0237466
10504.6	-0.0233759
10517.9	-0.023004
10531.2	-0.0226307
10544.5	-0.022256
10557.8	-0.0218798
10571.1	-0.0215021
10584.4	-0.0211227
10597.7	-0.0207416
10611	-0.0203588
10624.3	-0.0199741
10637.6	-0.0195875
10650.9	-0.0191989
10664.2	-0.0188082
10677.5	-0.0184154
10690.8	-0.0180204
10704.1	-0.0176232
10717.4	-0.0172236
10730.7	-0.0168216
10744	-0.0164172
10757.3	-0.0160103
10770.6	-0.0156008
10783.9	-0.0151887
10797.2	-0.014774
10810.5	-0.0143566
10823.8	-0.0139364
10837.1	-0.0135135
10850.4	-0.0130879
10863.7	-0.0126594
10877	-0.0122282
10890.3	-0.0117941
10903.6	-0.0113572
10916.9	-0.0109174
10930.1	-0.0104749
10943.4	-0.0100295
10956.7	-0.00958135
10970	-0.00913045
10983.3	-0.00867683
10996.6	-0.00822052
11009.9	-0.00776158
11023.2	-0.00730006
11036.5	-0.00683601
11049.8	-0.0063695
11063.1	-0.00590062
11076.4	-0.00542943
11089.7	-0.00495602
11103	-0.00448049
11116.3	-0.00400295
11129.6	-0.00352349
11142.9	-0.00304223
11156.2	-0.0025593
11169.5	-0.00207481
11182.8	-0.00158891
11196.1	-0.00110173
11209.4	-0.000613419
11222.7	-0.000124131
11236	0.000365977
11249.3	0.000856743
11262.6	0.001348
11275.9	0.00183956
11289.2	0.00233127
11302.5	0.00282292
11315.8	0.00331433
11329.1	0.00380531
11342.4	0.00429566
11355.7	0.00478519
11369	0.00527367
11382.2	0.00576091
11395.5	0.0062467
11408.8	0.00673081
11422.1	0.00721304
11435.4	0.00769316
11448.7	0.00817096
11462	0.0086462
11475.3	0.00911867
11488.6	0.00958814
11501.9	0.0100544
11515.2	0.0105172
11528.5	0.0109763
11541.8	0.0114315
11555.1	0.0118825
11568.4	0.0123292
11581.7	0.0127713
11595	0.0132086
11608.3	0.0136409
11621.6	0.0140679
11634.9	0.0144894
11648.2	0.0149052
11661.5	0.0153151
11674.8	0.0157189
11688.1	0.0161164
11701.4	0.0165073
11714.7	0.0168914
11728	0.0172686
11741.3	0.0176386
11754.6	0.0180013
11767.9	0.0183565
11781.2	0.0187039
11794.5	0.0190435
11807.8	0.0193749
11821.1	0.0196981
11834.3	0.0200128
11847.6	0.020319
11860.9	0.0206164
11874.2	0.0209049
11887.5	0.0211843
11900.8	0.0214545
11914.1	0.0217153
11927.4	0.0219666
11940.7	0.0222083
11954	0.0224403
11967.3	0.0226623
11980.6	0.0228744
11993.9	0.0230764
12007.2	0.0232681
12020.5	0.0234495
12033.8	0.0236205
12047.1	0.0237809
12060.4	0.0239308
12073.7	0.0240699
12087	0.0241983
12100.3	0.0243158
12113.6	0.0244225
12126.9	0.0245181
12140.2	0.0246027
12153.5	0.0246762
12166.8	0.0247386
12180.1	0.0247897
12193.4	0.0248297
12206.7	0.0248583
12220	0.0248757
12233.3	0.0248817
12246.6	0.0248764
12259.9	0.0248598
12273.2	0.0248317
12286.5	0.0247923
12299.7	0.0247415
12313	0.0246793
12326.3	0.0246058
12339.6	0.0245209
12352.9	0.0244247
12366.2	0.0243171
12379.5	0.0241983
12392.8	0.0240682
12406.1	0.0239269
12419.4	0.0237744
12432.7	0.0236108
12446	0.0234361
12459.3	0.0232504
12472.6	0.0230538
12485.9	0.0228463
12499.2	0.0226281
12512.5	0.0223991
12525.8	0.0221595
12539.1	0.0219093
12552.4	0.0216488
12565.7	0.0213779
12579	0.0210968
12592.3	0.0208056
12605.6	0.0205045
12618.9	0.0201935
12632.2	0.0198728
12645.5	0.0195425
12658.8	0.0192028
12672.1	0.0188539
12685.4	0.0184958
12698.7	0.0181289
12712	0.0177531
12725.3	0.0173688
12738.6	0.0169761
12751.8	0.0165752
12765.1	0.0161662
12778.4	0.0157495
12791.7	0.0153251
12805	0.0148934
12818.3	0.0144545
12831.6	0.0140086
12844.9	0.0135561
12858.2	0.0130971
12871.5	0.0126318
12884.8	0.0121606
12898.1	0.0116836
12911.4	0.0112011
12924.7	0.0107135
12938	0.0102208
12951.3	0.00972355
12964.6	0.00922184
12977.9	0.00871601
12991.2	0.00820633
13004.5	0.00769308
13017.8	0.00717656
13031.1	0.00665706
13044.4	0.00613486
13057.7	0.00561027
13071	0.00508358
13084.3	0.00455509
13097.6	0.00402511
13110.9	0.00349392
13124.2	0.00296184
13137.5	0.00242918
13150.8	0.00189622
13164.1	0.00136329
13177.4	0.000830678
13190.7	0.000298692
13203.9	-0.000232367
13217.2	-0.000762197
13230.5	-0.0012905
13243.8	-0.00181697
13257.1	-0.00234133
13270.4	-0.00286327
13283.7	-0.0033825
13297	-0.00389874
13310.3	-0.0044117
13323.6	-0.0049211
13336.9	-0.00542666
13350.2	-0.00592812
13363.5	-0.0064252
13376.8	-0.00691764
13390.1	-0.00740517
13403.4	-0.00788755
13416.7	-0.00836453
13430	-0.00883585
13443.3	-0.0093013
13456.6	-0.00976062
13469.9	-0.0102136
13483.2	-0.01066
13496.5	-0.0110997
13509.8	-0.0115323
13523.1	-0.0119578
13536.4	-0.0123759
13549.7	-0.0127865
13563	-0.0131893
13576.3	-0.0135842
13589.6	-0.0139711
13602.9	-0.0143497
13616.2	-0.0147199
13629.5	-0.0150816
13642.8	-0.0154347
13656	-0.0157789
13669.3	-0.0161143
13682.6	-0.0164407
13695.9	-0.0167579
13709.2	-0.017066
13722.5	-0.0173647
13735.8	-0.0176541
13749.1	-0.017934
13762.4	-0.0182043
13775.7	-0.0184651
13789	-0.0187163
13802.3	-0.0189578
13815.6	-0.0191895
13828.9	-0.0194116
13842.2	-0.0196238
13855.5	-0.0198263
13868.8	-0.020019
13882.1	-0.0202018
13895.4	-0.0203749
13908.7	-0.0205382
13922	-0.0206917
13935.3	-0.0208355
13948.6	-0.0209695
13961.9	-0.0210939
13975.2	-0.0212086
13988.5	-0.0213136
14001.8	-0.0214092
14015.1	-0.0214952
14028.4	-0.0215718
14041.7	-0.021639
14055	-0.0216969
14068.3	-0.0217456
14081.6	-0.0217851
14094.9	-0.0218155
14108.1	-0.0218369
14121.4	-0.0218495
14134.7	-0.0218532
14148	-0.0218483
14161.3	-0.0218347
14174.6	-0.0218127
14187.9	-0.0217822
14201.2	-0.0217435
14214.5	-0.0216967
14227.8	-0.0216418
14241.1	-0.0215789
14254.4	-0.0215083
14267.7	-0.02143
14281	-0.0213442
14294.3	-0.021251
14307.6	-0.0211504
14320.9	-0.0210428
14334.2	-0.0209281
14347.5	-0.0208066
14360.8	-0.0206784
14374.1	-0.0205436
14387.4	-0.0204023
14400.7	-0.0202548
14414	-0.0201011
14427.3	-0.0199414
14440.6	-0.0197759
14453.9	-0.0196047
14467.2	-0.019428
14480.5	-0.0192459
14493.8	-0.0190586
14507.1	-0.0188663
14520.4	-0.018669
14533.7	-0.0184669
14547	-0.0182603
14560.2	-0.0180493
14573.5	-0.017834
14586.8	-0.0176146
14600.1	-0.0173913
14613.4	-0.0171642
14626.7	-0.0169335
14640	-0.0166993
14653.3	-0.0164619
14666.6	-0.0162214
14679.9	-0.0159779
14693.2	-0.0157316
14706.5	-0.0154828
14719.8	-0.0152315
14733.1	-0.0149779
14746.4	-0.0147222
14759.7	-0.0144646
14773	-0.0142052
14786.3	-0.0139443
14799.6	-0.0136819
14812.9	-0.0134182
14826.2	-0.0131534
14839.5	-0.0128878
14852.8	-0.0126213
14866.1	-0.0123543
14879.4	-0.0120869
14892.7	-0.0118192
14906	-0.0115514
14919.3	-0.0112837
14932.6	-0.0110162
14945.9	-0.0107491
14959.2	-0.0104826
14972.5	-0.0102169
14985.8	-0.00995199
14999.1	-0.00968817
15012.4	-0.00942557
15025.6	-0.00916434
15038.9	-0.00890464
15052.2	-0.00864663
15065.5	-0.00839045
15078.8	-0.00813627
15092.1	-0.00788422
15105.4	-0.00763448
15118.7	-0.00738717
15132	-0.00714245
15145.3	-0.00690045
15158.6	-0.00666133
15171.9	-0.00642523
15185.2	-0.00619227
15198.5	-0.00596259
15211.8	-0.00573634
15225.1	-0.00551363
15238.4	-0.0052946
15251.7	-0.00507937
15265	-0.00486807
15278.3	-0.00466081
15291.6	-0.00445771
15304.9	-0.00425889
15318.2	-0.00406446
15331.5	-0.00387453
15344.8	-0.00368919
15358.1	-0.00350856
15371.4	-0.00333273
15384.7	-0.0031618
15398	-0.00299586
15411.3	-0.002835
15424.6	-0.0026793
15437.9	-0.00252885
15451.2	-0.00238372
15464.5	-0.00224398
15477.7	-0.00210972
15491	-0.00198098
15504.3	-0.00185785
15517.6	-0.00174036
15530.9	-0.00162859
15544.2	-0.00152258
15557.5	-0.00142238
15570.8	-0.00132803
15584.1	-0.00123957
15597.4	-0.00115703
15610.7	-0.00108044
15624	-0.00100984
15637.3	-0.000945244
15650.6	-0.000886665
15663.9	-0.000834122
15677.2	-0.000787621
15690.5	-0.00074717
15703.8	-0.000712768
15717.1	-0.000684411
15730.4	-0.000662091
15743.7	-0.000645797
15757	-0.000635511
15770.3	-0.000631213
15783.6	-0.000632876
15796.9	-0.00064047
15810.2	-0.000653962
15823.5	-0.000673313
15836.8	-0.00069848
15850.1	-0.000729416
15863.4	-0.000766068
15876.7	-0.000808382
15890	-0.000856295
15903.3	-0.000909745
15916.6	-0.000968661
15929.8	-0.00103297
15943.1	-0.0011026
15956.4	-0.00117746
15969.7	-0.00125747
15983	-0.00134254
15996.3	-0.00143258
16009.6	-0.00152748
16022.9	-0.00162715
16036.2	-0.00173147
16049.5	-0.00184035
16062.8	-0.00195366
16076.1	-0.00207129
16089.4	-0.00219311
16102.7	-0.00231901
16116	-0.00244885
16129.3	-0.0025825
16142.6	-0.00271983
16155.9	-0.00286069
16169.2	-0.00300495
16182.5	-0.00315245
16195.8	-0.00330305
16209.1	-0.0034566
16222.4	-0.00361295
16235.7	-0.00377193
16249	-0.00393338
16262.3	-0.00409715
16275.6	-0.00426307
16288.9	-0.00443096
16302.2	-0.00460067
16315.5	-0.00477201
16328.8	-0.00494482
16342.1	-0.00511891
16355.4	-0.00529412
16368.7	-0.00547026
16381.9	-0.00564715
16395.2	-0.00582461
16408.5	-0.00600246
16421.8	-0.00618051
16435.1	-0.00635858
16448.4	-0.00653648
16461.7	-0.00671403
16475	-0.00689105
16488.3	-0.00706734
16501.6	-0.00724273
16514.9	-0.00741703
16528.2	-0.00759005
16541.5	-0.0077616
16554.8	-0.00793152
16568.1	-0.00809961
16581.4	-0.0082657
16594.7	-0.0084296
16608	-0.00859114
16621.3	-0.00875015
16634.6	-0.00890644
16647.9	-0.00905986
16661.2	-0.00921024
16674.5	-0.0093574
16687.8	-0.00950118
16701.1	-0.00964144
16714.4	-0.009778
16727.7	-0.00991073
16741	-0.0100395
16754.3	-0.0101641
16767.6	-0.0102844
16780.9	-0.0104003
16794.2	-0.0105117
16807.5	-0.0106185
16820.8	-0.0107204
16834.1	-0.0108174
16847.3	-0.0109095
16860.6	-0.0109964
16873.9	-0.0110781
16887.2	-0.0111545
16900.5	-0.0112255
16913.8	-0.011291
16927.1	-0.011351
16940.4	-0.0114053
16953.7	-0.011454
16967	-0.0114969
16980.3	-0.0115341
16993.6	-0.0115654
17006.9	-0.0115908
17020.2	-0.0116104
17033.5	-0.011624
17046.8	-0.0116317
17060.1	-0.0116335
17073.4	-0.0116293
17086.7	-0.0116193
17100	-0.0116033
17113.3	-0.0115814
17126.6	-0.0115537
17139.9	-0.0115201
17153.2	-0.0114808
17166.5	-0.0114358
17179.8	-0.0113851
17193.1	-0.0113288
17206.4	-0.011267
17219.7	-0.0111997
17233	-0.0111271
17246.3	-0.0110492
17259.6	-0.0109662
17272.9	-0.0108781
17286.2	-0.0107851
17299.4	-0.0106873
17312.7	-0.0105848
17326	-0.0104777
17339.3	-0.0103662
17352.6	-0.0102505
17365.9	-0.0101306
17379.2	-0.0100068
17392.5	-0.0098792
17405.8	-0.00974795
17419.1	-0.00961324
17432.4	-0.00947525
17445.7	-0.00933416
17459	-0.00919014
17472.3	-0.00904339
17485.6	-0.00889411
17498.9	-0.00874248
17512.2	-0.0085887
17525.5	-0.00843297
17538.8	-0.00827551
17552.1	-0.00811651
17565.4	-0.00795617
17578.7	-0.00779472
17592	-0.00763236
17605.3	-0.0074693
17618.6	-0.00730575
17631.9	-0.00714193
17645.2	-0.00697806
17658.5	-0.00681433
17671.8	-0.00665097
17685.1	-0.00648818
17698.4	-0.00632618
17711.7	-0.00616518
17725	-0.00600538
17738.3	-0.00584699
17751.5	-0.00569021
17764.8	-0.00553524
17778.1	-0.00538229
17791.4	-0.00523153
17804.7	-0.00508318
17818	-0.0049374
17831.3	-0.00479439
17844.6	-0.00465433
17857.9	-0.00451739
17871.2	-0.00438374
17884.5	-0.00425355
17897.8	-0.00412697
17911.1	-0.00400416
17924.4	-0.00388526
17937.7	-0.00377043
17951	-0.0036598
17964.3	-0.00355349
17977.6	-0.00345164
17990.9	-0.00335436
18004.2	-0.00326175
18017.5	-0.00317393
18030.8	-0.00309098
18044.1	-0.003013
18057.4	-0.00294007
18070.7	-0.00287227
18084	-0.00280965
18097.3	-0.00275228
18110.6	-0.0027002
18123.9	-0.00265347
18137.2	-0.00261212
18150.5	-0.00257617
18163.8	-0.00254564
18177.1	-0.00252054
18190.4	-0.00250088
18203.6	-0.00248665
18216.9	-0.00247784
18230.2	-0.00247443
18243.5	-0.00247638
18256.8	-0.00248367
18270.1	-0.00249624
18283.4	-0.00251404
18296.7	-0.00253702
18310	-0.00256511
18323.3	-0.00259823
18336.6	-0.00263629
18349.9	-0.00267922
18363.2	-0.00272691
18376.5	-0.00277925
18389.8	-0.00283615
18403.1	-0.00289747
18416.4	-0.00296311
18429.7	-0.00303292
18443	-0.00310678
18456.3	-0.00318453
18469.6	-0.00326604
18482.9	-0.00335116
18496.2	-0.00343972
18509.5	-0.00353156
18522.8	-0.00362652
18536.1	-0.00372442
18549.4	-0.00382509
18562.7	-0.00392835
18576	-0.00403402
18589.3	-0.00414191
18602.6	-0.00425183
18615.9	-0.00436359
18629.2	-0.004477
18642.5	-0.00459185
18655.8	-0.00470795
18669	-0.0048251
18682.3	-0.00494311
18695.6	-0.00506175
18708.9	-0.00518084
18722.2	-0.00530017
18735.5	-0.00541953
18748.8	-0.00553873
18762.1	-0.00565755
18775.4	-0.0057758
18788.7	-0.00589327
18802	-0.00600977
18815.3	-0.00612509
18828.6	-0.00623904
18841.9	-0.00635143
18855.2	-0.00646206
18868.5	-0.00657074
18881.8	-0.00667729
18895.1	-0.00678152
18908.4	-0.00688326
18921.7	-0.00698232
18935	-0.00707854
18948.3	-0.00717174
18961.6	-0.00726177
18974.9	-0.00734846
18988.2	-0.00743166
19001.5	-0.00751122
19014.8	-0.007587
19028.1	-0.00765885
19041.4	-0.00772665
19054.7	-0.00779026
19068	-0.00784957
19081.3	-0.00790445
19094.6	-0.0079548
19107.9	-0.00800052
19121.1	-0.0080415
19134.4	-0.00807765
19147.7	-0.0081089
19161	-0.00813516
19174.3	-0.00815636
19187.6	-0.00817243
19200.9	-0.00818333
19214.2	-0.00818899
19227.5	-0.00818937
19240.8	-0.00818444
19254.1	-0.00817417
19267.4	-0.00815852
19280.7	-0.00813749
19294	-0.00811106
19307.3	-0.00807923
19320.6	-0.00804201
19333.9	-0.00799939
19347.2	-0.00795141
19360.5	-0.00789807
19373.8	-0.00783942
19387.1	-0.00777548
19400.4	-0.0077063
19413.7	-0.00763193
19427	-0.00755241
19440.3	-0.00746781
19453.6	-0.0073782
19466.9	-0.00728364
19480.2	-0.00718421
19493.5	-0.00707999
19506.8	-0.00697107
19520.1	-0.00685754
19533.4	-0.00673949
19546.7	-0.00661703
19560	-0.00649027
19573.2	-0.0063593
19586.5	-0.00622425
19599.8	-0.00608523
19613.1	-0.00594236
19626.4	-0.00579577
19639.7	-0.00564557
19653	-0.00549192
19666.3	-0.00533492
19679.6	-0.00517473
19692.9	-0.00501148
19706.2	-0.0048453
19719.5	-0.00467635
19732.8	-0.00450476
19746.1	-0.00433067
19759.4	-0.00415424
19772.7	-0.00397561
19786	-0.00379493
19799.3	-0.00361234
19812.6	-0.003428
19825.9	-0.00324205
19839.2	-0.00305465
19852.5	-0.00286593
19865.8	-0.00267606
19879.1	-0.00248517
19892.4	-0.00229341
19905.7	-0.00210093
19919	-0.00190787
19932.3	-0.00171437
19945.6	-0.00152058
19958.9	-0.00132663
19972.2	-0.00113267
19985.5	-0.000938817
19998.8	-0.000745218
