0	0
11.8196	0
23.6393	0
35.4589	0
41.3687	0
53.1883	0
65.008	0
70.9178	0
82.7374	0
94.557	0
100.467	0
112.286	0
124.106	0
130.016	0
141.836	0
153.655	0
165.475	0
171.385	0
183.204	0
195.024	0
200.934	0
212.753	0
224.573	0
230.483	0
242.302	0
254.122	0
260.032	0
271.851	0
283.671	0
295.491	0
301.401	0
313.22	0
325.04	0
330.95	0
342.769	0
354.589	0
360.499	0
372.318	0
384.138	0
390.048	0
401.867	0
413.687	0
425.507	0
431.416	0
443.236	0
455.056	0
460.966	0
472.785	0
484.605	0
490.515	0
502.334	0
514.154	0
520.064	0
531.883	0
543.703	0
555.523	0
561.432	0
573.252	0
585.072	0
590.981	0
602.801	0
614.621	0
620.53	0
632.35	0
644.17	0
650.08	0
661.899	0
673.719	0
685.538	0
691.448	0
703.268	0
715.088	0
720.997	0
732.817	0
744.637	0
750.546	0
762.366	0
774.186	0
780.095	0
791.915	0
803.735	0
815.554	0
821.464	0
833.284	0
845.103	0
851.013	0
862.833	0
874.652	0
880.562	0
892.382	0
904.202	0
910.111	0
921.931	0
933.751	0
945.57	0
951.48	0
963.3	0
975.119	0
981.029	0
992.849	0
1004.67	0
1010.58	0
1022.4	0
1034.22	0
1040.13	0
1051.95	0
1063.77	0
1075.59	0
1081.5	0
1093.32	0
1105.14	0
1111.05	0
1122.86	0
1134.68	0
1140.59	0
1152.41	0
1164.23	0
1170.14	0
1181.96	0
1193.78	0
1205.6	0
1211.51	0
1223.33	0
1235.15	0
1241.06	0
1252.88	0
1264.7	0
1270.61	0
1282.43	0
1294.25	0
1300.16	0
1311.98	0
1323.8	0
1335.62	0
1341.53	0
1353.35	0
1365.17	0
1371.08	0
1382.9	0
1394.72	0
1400.63	0
1412.45	0
1424.27	0
1430.18	0
1441.99	-1.81899e-12
1453.81	-3.63798e-12
1465.63	-5.45697e-12
1471.54	-7.27596e-12
1483.36	-1.09139e-11
1495.18	-1.63709e-11
1501.09	-2.00089e-11
1512.91	-3.00133e-11
1524.73	-4.45652e-11
1530.64	-5.54792e-11
1542.46	-8.36735e-11
1554.28	-1.2551e-10
1560.19	-1.53705e-10
1572.01	-2.28283e-10
1583.83	-3.35604e-10
1595.65	-4.91127e-10
1601.56	-5.92081e-10
1613.38	-8.55835e-10
1625.2	-1.22964e-09
1631.11	-1.47065e-09
1642.93	-2.09366e-09
1654.75	-2.96222e-09
1660.66	-3.5152e-09
1672.48	-4.92673e-09
1684.3	-6.86578e-09
1690.21	-8.08723e-09
1702.03	-1.11722e-08
1713.85	-1.53459e-08
1725.67	-2.09602e-08
1731.58	-2.44454e-08
1743.4	-3.31147e-08
1755.21	-4.46198e-08
1761.12	-5.1692e-08
1772.94	-6.91052e-08
1784.76	-9.19126e-08
1790.67	-1.05799e-07
1802.49	-1.39658e-07
1814.31	-1.8345e-07
1820.22	-2.0987e-07
1832.04	-2.73692e-07
1843.86	-3.55242e-07
1855.68	-4.58956e-07
1861.59	-5.20772e-07
1873.41	-6.68238e-07
1885.23	-8.53651e-07
1891.14	-9.63249e-07
1902.96	-1.22248e-06
1914.78	-1.54486e-06
1920.69	-1.7339e-06
1932.51	-2.17739e-06
1944.33	-2.7231e-06
1950.24	-3.04064e-06
1962.06	-3.77976e-06
1973.88	-4.68e-06
1985.7	-5.77213e-06
1991.61	-6.40111e-06
2003.43	-7.84975e-06
2015.25	-9.59023e-06
2021.16	-1.05855e-05
2032.98	-1.28614e-05
2044.8	-1.55703e-05
2050.71	-1.71088e-05
2062.53	-2.06024e-05
2074.34	-2.47233e-05
2080.25	-2.70482e-05
2092.07	-3.22923e-05
2103.89	-3.84238e-05
2115.71	-4.55685e-05
2121.62	-4.95636e-05
2133.44	-5.84934e-05
2145.26	-6.88115e-05
2151.17	-7.45457e-05
2162.99	-8.72826e-05
2174.81	-0.00010188
2180.72	-0.000109944
2192.54	-0.000127746
2204.36	-0.000147986
2210.27	-0.000159101
2222.09	-0.000183495
2233.91	-0.000211014
2245.73	-0.000241962
2251.64	-0.000258822
2263.46	-0.000295521
2275.28	-0.00033648
2281.19	-0.000358667
2293.01	-0.000406685
2304.83	-0.000459871
2310.74	-0.00048852
2322.56	-0.000550168
2334.38	-0.000617937
2340.29	-0.000654235
2352.11	-0.000731895
2363.93	-0.000816614
2375.75	-0.000908748
2381.66	-0.000957701
2393.47	-0.00106158
2405.29	-0.00117366
2411.2	-0.00123286
2423.02	-0.0013577
2434.84	-0.0014913
2440.75	-0.00156143
2452.57	-0.00170837
2464.39	-0.00186424
2470.3	-0.0019455
2482.12	-0.0021146
2493.94	-0.00229227
2505.76	-0.00247816
2511.67	-0.00257406
2523.49	-0.00277139
2535.31	-0.00297552
2541.22	-0.00307987
2553.04	-0.00329256
2564.86	-0.0035096
2570.77	-0.00361934
2582.59	-0.00384037
2594.41	-0.00406205
2600.32	-0.00417256
2612.14	-0.00439164
2623.96	-0.00460622
2635.78	-0.00481377
2641.69	-0.00491405
2653.51	-0.00510573
2665.33	-0.00528283
2671.24	-0.00536482
2683.06	-0.0055133
2694.88	-0.00563772
2700.79	-0.00568956
2712.6	-0.00576964
2724.42	-0.00581416
2730.33	-0.00582148
2742.15	-0.00580285
2753.97	-0.00573509
2765.79	-0.0056122
2771.7	-0.00552813
2783.52	-0.00531063
2795.34	-0.00502166
2801.25	-0.00484818
2813.07	-0.00443872
2824.89	-0.00393971
2830.8	-0.00365424
2842.62	-0.0030065
2854.44	-0.00224972
2860.35	-0.00182792
2872.17	-0.000892397
2883.99	0.000172554
2895.81	0.00137522
2901.72	0.00203078
2913.54	0.00345553
2925.36	0.0050386
2931.27	0.00589204
2943.09	0.00772769
2954.91	0.00974149
2960.82	0.0108176
2972.64	0.0131126
2984.46	0.015604
2990.37	0.0169254
3002.19	0.0197235
3014	0.0227335
3025.82	0.0259606
3031.73	0.0276571
3043.55	0.0312184
3055.37	0.0350072
3061.28	0.0369877
3073.1	0.0411225
3084.92	0.0454899
3090.83	0.047761
3102.65	0.0524782
3114.47	0.0574274
3120.38	0.0599885
3132.2	0.0652819
3144.02	0.0708004
3155.84	0.0765391
3161.75	0.0794893
3173.57	0.0855469
3185.39	0.0918076
3191.3	0.0950114
3203.12	0.10156
3214.94	0.108287
3220.85	0.111713
3232.67	0.118685
3244.49	0.125804
3250.4	0.129413
3262.21	0.136723
3274.03	0.144141
3285.85	0.151648
3291.76	0.15543
3303.58	0.163036
3315.4	0.170685
3321.31	0.174519
3333.13	0.182191
3344.95	0.189851
3350.86	0.19367
3362.68	0.201272
3374.5	0.208804
3380.41	0.212538
3392.23	0.219923
3404.05	0.22718
3415.87	0.234285
3421.78	0.237773
3433.6	0.244604
3445.42	0.251222
3451.33	0.254444
3463.14	0.260698
3474.96	0.266681
3480.87	0.269564
3492.69	0.275097
3504.51	0.280303
3510.42	0.282777
3522.24	0.287453
3534.06	0.291752
3545.88	0.295654
3551.79	0.297451
3563.61	0.300726
3575.43	0.303564
3581.34	0.304814
3593.16	0.306969
3604.98	0.308654
3610.89	0.309317
3622.7	0.310276
3634.52	0.310742
3640.43	0.310788
3652.25	0.310501
3664.07	0.309706
3675.89	0.308402
3681.8	0.307559
3693.62	0.305489
3705.44	0.302912
3711.35	0.301434
3723.17	0.298101
3734.99	0.294272
3740.9	0.292175
3752.72	0.287617
3764.54	0.282586
3770.44	0.279897
3782.26	0.274179
3794.08	0.26802
3805.9	0.261435
3811.81	0.257989
3823.63	0.250798
3835.45	0.243227
3841.36	0.239304
3853.18	0.231199
3865	0.222765
3870.91	0.218431
3882.73	0.209546
3894.55	0.200389
3900.46	0.195717
3912.27	0.186199
3924.09	0.176472
3930	0.171538
3941.82	0.161546
3953.64	0.151409
3965.46	0.141155
3971.37	0.135991
3983.19	0.12561
3995.01	0.115176
4000.92	0.109948
4012.74	0.099485
4024.56	0.0890354
4030.47	0.0838234
4042.29	0.0734407
4054.1	0.0631334
4060.01	0.0580156
4071.83	0.047866
4083.65	0.0378503
4095.47	0.0279904
4101.38	0.0231255
4113.2	0.0135386
4125.02	0.00415852
4130.93	-0.000448137
4142.75	-0.00948352
4154.57	-0.0182677
4160.48	-0.0225605
4172.3	-0.0309385
4184.12	-0.0390279
4190.03	-0.0429604
4201.84	-0.0505933
4213.66	-0.057908
4225.48	-0.0648948
4231.39	-0.0682626
4243.21	-0.0747421
4255.03	-0.0808752
4260.94	-0.08381
4272.76	-0.0894137
4284.58	-0.09466
4290.49	-0.0971484
4302.31	-0.101855
4314.13	-0.106201
4320.04	-0.108239
4331.86	-0.112045
4343.68	-0.115495
4355.5	-0.118591
4361.41	-0.120008
4373.22	-0.122583
4385.04	-0.124817
4390.95	-0.125808
4402.77	-0.127544
4414.59	-0.128957
4420.5	-0.129546
4432.32	-0.130492
4444.14	-0.131138
4450.05	-0.131352
4461.87	-0.131568
4473.69	-0.131511
4485.51	-0.131192
4491.42	-0.130938
4503.24	-0.130249
4515.06	-0.129328
4520.97	-0.128785
4532.79	-0.127541
4544.61	-0.126097
4550.52	-0.125304
4562.34	-0.123585
4574.16	-0.121699
4580.07	-0.120698
4591.89	-0.118585
4603.71	-0.116338
4615.52	-0.11397
4621.43	-0.112744
4633.25	-0.110216
4645.07	-0.107597
4650.98	-0.106258
4662.8	-0.103527
4674.62	-0.100734
4680.53	-0.0993189
4692.35	-0.0964567
4704.17	-0.0935613
4710.08	-0.0921045
4721.9	-0.089179
4733.72	-0.0862457
4745.54	-0.083314
4751.45	-0.0818516
4763.27	-0.0789391
4775.09	-0.0760497
4781	-0.0746161
4792.82	-0.071776
4804.64	-0.0689776
4810.55	-0.0675962
4822.37	-0.0648729
4834.19	-0.0622071
4840.1	-0.0608975
4851.92	-0.058328
4863.74	-0.0558289
4875.56	-0.0534043
4881.47	-0.0522213
4893.29	-0.0499158
4905.11	-0.0476937
4911.02	-0.0466149
4922.83	-0.0445231
4934.65	-0.042521
4940.56	-0.0415542
4952.38	-0.0396898
4964.2	-0.0379188
4970.11	-0.0370687
4981.93	-0.0354394
4993.75	-0.033905
5005.57	-0.0324657
5011.48	-0.0317815
5023.3	-0.0304841
5035.12	-0.0292805
5041.03	-0.0287136
5052.85	-0.0276489
5064.67	-0.0266752
5070.58	-0.0262221
5082.4	-0.025382
5094.22	-0.0246288
5100.13	-0.0242841
5111.95	-0.0236573
5123.77	-0.0231121
5135.59	-0.022646
5141.5	-0.0224418
5153.32	-0.0220896
5165.14	-0.0218101
5171.05	-0.0216967
5182.87	-0.0215208
5194.69	-0.0214105
5200.59	-0.021379
5212.41	-0.0213613
5224.23	-0.0214018
5230.14	-0.0214428
5241.96	-0.0215645
5253.78	-0.0217365
5265.6	-0.0219558
5271.51	-0.0220821
5283.33	-0.0223664
5295.15	-0.0226901
5301.06	-0.0228658
5312.88	-0.023243
5324.7	-0.023652
5330.61	-0.0238675
5342.43	-0.0243188
5354.25	-0.0247945
5360.16	-0.0250406
5371.98	-0.0255477
5383.8	-0.0260723
5395.62	-0.0266115
5401.53	-0.0268859
5413.35	-0.0274423
5425.17	-0.0280071
5431.08	-0.0282918
5442.9	-0.0288644
5454.72	-0.0294394
5460.63	-0.029727
5472.45	-0.0303013
5484.27	-0.0308725
5490.17	-0.0311562
5501.99	-0.031719
5513.81	-0.0322738
5525.63	-0.0328188
5531.54	-0.0330871
5543.36	-0.0336143
5555.18	-0.0341276
5561.09	-0.0343786
5572.91	-0.0348684
5584.73	-0.0353409
5590.64	-0.0355703
5602.46	-0.0360144
5614.28	-0.0364383
5620.19	-0.0366423
5632.01	-0.0370339
5643.83	-0.0374028
5655.65	-0.0377483
5661.56	-0.0379121
5673.38	-0.0382211
5685.2	-0.038505
5691.11	-0.0386374
5702.93	-0.0388827
5714.75	-0.0391019
5720.66	-0.0392015
5732.48	-0.0393808
5744.3	-0.0395332
5750.21	-0.0395993
5762.03	-0.0397112
5773.85	-0.039796
5785.66	-0.0398537
5791.57	-0.0398725
5803.39	-0.0398898
5815.21	-0.0398803
5821.12	-0.0398657
5832.94	-0.0398166
5844.76	-0.0397414
5850.67	-0.0396941
5862.49	-0.0395805
5874.31	-0.0394417
5880.22	-0.039363
5892.04	-0.0391875
5903.86	-0.038988
5915.68	-0.0387651
5921.59	-0.0386451
5933.41	-0.0383883
5945.23	-0.0381097
5951.14	-0.0379623
5962.96	-0.0376521
5974.78	-0.0373216
5980.69	-0.037149
5992.51	-0.0367896
6004.33	-0.0364117
6010.24	-0.036216
6022.06	-0.0358118
6033.88	-0.035391
6045.7	-0.0349543
6051.61	-0.0347303
6063.43	-0.0342712
6075.25	-0.0337981
6081.16	-0.0335566
6092.97	-0.0330639
6104.79	-0.0325592
6110.7	-0.0323025
6122.52	-0.0317809
6134.34	-0.0312491
6140.25	-0.0309795
6152.07	-0.0304336
6163.89	-0.0298791
6175.71	-0.0293168
6181.62	-0.0290328
6193.44	-0.02846
6205.26	-0.0278809
6211.17	-0.0275892
6222.99	-0.0270019
6234.81	-0.02641
6240.72	-0.0261124
6252.54	-0.0255145
6264.36	-0.0249133
6270.27	-0.0246116
6282.09	-0.0240064
6293.91	-0.0233991
6305.73	-0.0227903
6311.64	-0.0224855
6323.46	-0.0218751
6335.28	-0.0212643
6341.19	-0.0209588
6353.01	-0.020348
6364.83	-0.0197375
6370.74	-0.0194326
6382.56	-0.0188235
6394.38	-0.0182156
6400.28	-0.0179122
6412.1	-0.0173067
6423.92	-0.0167032
6435.74	-0.0161018
6441.65	-0.0158019
6453.47	-0.0152042
6465.29	-0.0146091
6471.2	-0.0143126
6483.02	-0.0137219
6494.84	-0.0131343
6500.75	-0.0128417
6512.57	-0.0122589
6524.39	-0.0116797
6530.3	-0.0113914
6542.12	-0.0108175
6553.94	-0.0102473
6565.76	-0.00968086
6571.67	-0.00939911
6583.49	-0.00883855
6595.31	-0.00828198
6601.22	-0.00800522
6613.04	-0.00745477
6624.86	-0.00690847
6630.77	-0.00663689
6642.59	-0.00609694
6654.41	-0.00556129
6660.32	-0.00529509
6672.14	-0.004766
6683.96	-0.00424135
6695.78	-0.0037212
6701.69	-0.00346283
6713.51	-0.00294955
6725.32	-0.00244094
6731.23	-0.0021884
6743.05	-0.00168691
6754.87	-0.00119027
6760.78	-0.000943791
6772.6	-0.00045457
6784.42	2.95896e-05
6790.33	0.000269742
6802.15	0.000746127
6813.97	0.0012172
6825.79	0.00168284
6831.7	0.00191359
6843.52	0.00237087
6855.34	0.0028224
6861.25	0.00304597
6873.07	0.00348863
6884.89	0.00392519
6890.8	0.00414113
6902.62	0.00456824
6914.44	0.00498886
6920.35	0.00519667
6932.17	0.00560721
6943.99	0.0060108
6955.81	0.00640726
6961.72	0.00660276
6973.54	0.00698816
6985.36	0.00736595
6991.27	0.00755192
7003.09	0.00791789
7014.91	0.00827572
7020.82	0.00845152
7032.64	0.00879676
7044.46	0.00913332
7050.37	0.00929828
7062.18	0.00962144
7074	0.00993538
7085.82	0.0102399
7091.73	0.0103885
7103.55	0.0106785
7115.37	0.0109585
7121.28	0.0110947
7133.1	0.0113593
7144.92	0.0116135
7150.83	0.0117365
7162.65	0.0119745
7174.47	0.0122016
7180.38	0.0123109
7192.2	0.0125211
7204.02	0.0127198
7215.84	0.0129068
7221.75	0.0129959
7233.57	0.0131652
7245.39	0.0133224
7251.3	0.0133965
7263.12	0.0135353
7274.94	0.0136618
7280.85	0.0137203
7292.67	0.0138279
7304.49	0.0139227
7310.4	0.0139654
7322.22	0.014041
7334.04	0.0141036
7345.86	0.0141532
7351.77	0.0141731
7363.59	0.014203
7375.4	0.0142197
7381.31	0.0142231
7393.13	0.0142199
7404.95	0.0142035
7410.86	0.0141903
7422.68	0.0141539
7434.5	0.0141042
7440.41	0.0140744
7452.23	0.0140048
7464.05	0.0139219
7475.87	0.0138258
7481.78	0.0137728
7493.6	0.0136569
7505.42	0.013528
7511.33	0.0134586
7523.15	0.0133102
7534.97	0.0131489
7540.88	0.0130634
7552.7	0.0128829
7564.52	0.0126897
7570.43	0.0125884
7582.25	0.0123764
7594.07	0.0121521
7605.89	0.0119156
7611.8	0.0117928
7623.62	0.0115381
7635.44	0.0112716
7641.35	0.011134
7653.17	0.0108499
7664.98	0.0105544
7670.89	0.0104024
7682.71	0.01009
7694.53	0.00976647
7700.44	0.00960064
7712.26	0.0092609
7724.08	0.00891056
7735.9	0.00854982
7741.81	0.0083656
7753.63	0.0079896
7765.45	0.00760368
7771.36	0.00740706
7783.18	0.00700663
7795	0.0065968
7800.91	0.00638842
7812.73	0.00596486
7824.55	0.00553241
7830.46	0.00531293
7842.28	0.00486756
7854.1	0.00441385
7860.01	0.00418394
7871.83	0.00371813
7883.65	0.00324454
7895.47	0.00276339
7901.38	0.00252004
7913.2	0.00202798
7925.02	0.00152892
7930.92	0.00127685
7942.74	0.000767743
7954.56	0.000252236
7960.47	-7.84538e-06
7972.29	-0.000532514
7984.11	-0.00106299
7990.02	-0.00133033
8001.84	-0.00186907
8013.66	-0.00241301
8025.48	-0.00296191
8031.39	-0.00323813
8043.21	-0.003794
8055.03	-0.00435419
8060.94	-0.00463583
8072.76	-0.00520204
8084.58	-0.00577195
8090.49	-0.00605821
8102.31	-0.00663317
8114.13	-0.00721117
8120.04	-0.00750123
8131.86	-0.00808331
8143.68	-0.00866776
8155.5	-0.00925432
8161.41	-0.0095483
8173.23	-0.0101375
8185.05	-0.0107282
8190.96	-0.0110239
8202.77	-0.0116162
8214.59	-0.0122092
8220.5	-0.0125058
8232.32	-0.0130994
8244.14	-0.0136929
8250.05	-0.0139897
8261.87	-0.0145827
8273.69	-0.0151751
8285.51	-0.0157664
8291.42	-0.0160617
8303.24	-0.016651
8315.06	-0.0172386
8320.97	-0.0175317
8332.79	-0.0181162
8344.61	-0.0186982
8350.52	-0.0189882
8362.34	-0.019566
8374.16	-0.0201405
8380.07	-0.0204265
8391.89	-0.0209958
8403.71	-0.0215611
8415.53	-0.0221221
8421.44	-0.022401
8433.26	-0.0229551
8445.08	-0.0235043
8450.99	-0.0237769
8462.8	-0.0243181
8474.62	-0.0248536
8480.53	-0.0251191
8492.35	-0.0256456
8504.17	-0.0261656
8510.08	-0.0264231
8521.9	-0.026933
8533.72	-0.0274358
8545.54	-0.0279313
8551.45	-0.0281761
8563.27	-0.02866
8575.09	-0.0291359
8581	-0.0293708
8592.82	-0.0298341
8604.64	-0.0302888
8610.55	-0.0305128
8622.37	-0.0309541
8634.19	-0.0313861
8640.1	-0.0315986
8651.92	-0.0320162
8663.74	-0.0324241
8675.56	-0.0328219
8681.47	-0.033017
8693.29	-0.0333993
8705.11	-0.0337711
8711.02	-0.033953
8722.84	-0.0343086
8734.66	-0.0346532
8740.56	-0.0348213
8752.38	-0.035149
8764.2	-0.0354653
8770.11	-0.0356191
8781.93	-0.0359179
8793.75	-0.0362049
8805.57	-0.0364799
8811.48	-0.0366129
8823.3	-0.0368697
8835.12	-0.0371143
8841.03	-0.0372319
8852.85	-0.0374578
8864.67	-0.0376712
8870.58	-0.0377732
8882.4	-0.0379676
8894.22	-0.0381492
8900.13	-0.0382353
8911.95	-0.0383977
8923.77	-0.0385472
8935.59	-0.0386837
8941.5	-0.0387471
8953.32	-0.0388641
8965.14	-0.0389681
8971.05	-0.0390151
8982.87	-0.0390995
8994.69	-0.0391707
9000.6	-0.0392014
9012.42	-0.039253
9024.23	-0.0392915
9030.14	-0.0393058
9041.96	-0.0393247
9053.78	-0.0393305
9065.6	-0.0393234
9071.51	-0.0393149
9083.33	-0.0392883
9095.15	-0.0392488
9101.06	-0.0392242
9112.88	-0.0391655
9124.7	-0.0390941
9130.61	-0.0390536
9142.43	-0.0389632
9154.25	-0.0388602
9160.16	-0.0388041
9171.98	-0.0386825
9183.8	-0.0385487
9195.62	-0.0384026
9201.53	-0.0383251
9213.35	-0.038161
9225.17	-0.037985
9231.08	-0.0378926
9242.9	-0.0376991
9254.72	-0.037494
9260.63	-0.0373871
9272.45	-0.037165
9284.27	-0.0369316
9290.18	-0.0368108
9302	-0.036561
9313.81	-0.0363004
9325.63	-0.0360292
9331.54	-0.0358897
9343.36	-0.035603
9355.18	-0.035306
9361.09	-0.0351538
9372.91	-0.034842
9384.73	-0.0345205
9390.64	-0.0343562
9402.46	-0.0340206
9414.28	-0.0336757
9420.19	-0.0335
9432.01	-0.0331418
9443.83	-0.032775
9455.65	-0.0323998
9461.56	-0.0322091
9473.38	-0.0318216
9485.2	-0.0314264
9491.11	-0.0312259
9502.93	-0.0308193
9514.75	-0.0304054
9520.66	-0.0301958
9532.48	-0.0297716
9544.3	-0.0293407
9550.21	-0.0291228
9562.03	-0.0286824
9573.85	-0.028236
9585.67	-0.0277839
9591.58	-0.0275558
9603.39	-0.0270955
9615.21	-0.0266302
9621.12	-0.0263957
9632.94	-0.0259233
9644.76	-0.0254464
9650.67	-0.0252064
9662.49	-0.0247235
9674.31	-0.0242369
9680.22	-0.0239922
9692.04	-0.0235006
9703.86	-0.0230059
9715.68	-0.0225085
9721.59	-0.0222588
9733.41	-0.0217579
9745.23	-0.0212549
9751.14	-0.0210027
9762.96	-0.0204973
9774.78	-0.0199905
9780.69	-0.0197367
9792.51	-0.0192286
9804.33	-0.0187199
9810.24	-0.0184654
9822.06	-0.0179563
9833.88	-0.0174475
9845.7	-0.016939
9851.61	-0.0166851
9863.43	-0.0161778
9875.25	-0.0156717
9881.16	-0.0154192
9892.98	-0.0149154
9904.8	-0.0144134
9910.7	-0.0141632
9922.52	-0.0136646
9934.34	-0.0131685
9940.25	-0.0129216
9952.07	-0.0124299
9963.89	-0.0119414
9975.71	-0.0114565
9981.62	-0.0112154
9993.44	-0.0107363
10005.3	-0.0102613
10011.2	-0.0100255
10023	-0.00955725
10034.8	-0.00909385
10040.7	-0.00886404
10052.5	-0.00840835
10064.4	-0.00795809
10070.3	-0.00773507
10082.1	-0.00729341
10093.9	-0.00685777
10105.7	-0.00642839
10111.6	-0.00621611
10123.5	-0.00579652
10135.3	-0.00538372
10141.2	-0.00517993
10153	-0.00477772
10164.8	-0.00438281
10170.7	-0.00418816
10182.6	-0.00380457
10194.4	-0.00342876
10200.3	-0.00324383
10212.1	-0.00288003
10223.9	-0.00252444
10235.7	-0.00217722
10241.7	-0.00200681
10253.5	-0.00167245
10265.3	-0.00134684
10271.2	-0.00118736
10283	-0.000875142
10294.8	-0.000572005
10300.8	-0.00042388
10312.6	-0.000134592
10324.4	0.000145327
10330.3	0.000281741
10342.1	0.000547417
10353.9	0.000803484
10365.8	0.00104986
10371.7	0.00116939
10383.5	0.00140109
10395.3	0.00162293
10401.2	0.00173014
10413	0.00193709
10424.9	0.00213405
10430.8	0.00222878
10442.6	0.0024107
10454.4	0.00258257
10460.3	0.00266473
10472.1	0.00282149
10484	0.00296817
10495.8	0.00310477
10501.7	0.0031693
10513.5	0.00329082
10525.3	0.00340232
10531.2	0.00345432
10543.1	0.00355084
10554.9	0.00363743
10560.8	0.00367701
10572.6	0.00374881
10584.4	0.00381082
10590.3	0.00383817
10602.2	0.00388564
10614	0.00392352
10625.8	0.00395189
10631.7	0.00396255
10643.5	0.00397685
10655.3	0.00398191
10661.3	0.00398101
10673.1	0.00397242
10684.9	0.00395489
10690.8	0.00394281
10702.6	0.00391212
10714.4	0.00387282
10720.3	0.00385
10732.2	0.00379809
10744	0.00373797
10755.8	0.0036698
10761.7	0.00363276
10773.5	0.00355284
10785.4	0.00346533
10791.3	0.00341877
10803.1	0.0033202
10814.9	0.00321449
10820.8	0.00315903
10832.6	0.00304301
10844.5	0.00292037
10850.4	0.00285664
10862.2	0.00272447
10874	0.00258623
10885.8	0.00244214
10891.7	0.00236798
10903.6	0.00221554
10915.4	0.00205784
10921.3	0.00197709
10933.1	0.00181193
10944.9	0.00164211
10950.8	0.00155553
10962.7	0.00137919
10974.5	0.00119881
10980.4	0.00110719
10992.2	0.000921246
11004	0.000731915
11015.8	0.00053946
11021.7	0.000442144
11033.6	0.000245504
11045.4	4.64069e-05
11051.3	-5.39779e-05
11063.1	-0.000256251
11074.9	-0.000460302
11080.8	-0.000562908
11092.7	-0.000769112
11104.5	-0.00097641
11110.4	-0.00108038
11122.2	-0.0012888
11134	-0.00149763
11145.9	-0.00170659
11151.8	-0.00181103
11163.6	-0.00201966
11175.4	-0.00222775
11181.3	-0.00233149
11193.1	-0.00253823
11205	-0.00274374
11210.9	-0.00284595
11222.7	-0.0030491
11234.5	-0.00325035
11240.4	-0.00335018
11252.2	-0.00354809
11264.1	-0.00374344
11275.9	-0.00393598
11281.8	-0.00403112
11293.6	-0.00421897
11305.4	-0.00440339
11311.3	-0.00449424
11323.1	-0.00467305
11335	-0.00484782
11340.9	-0.00493362
11352.7	-0.00510191
11364.5	-0.00526559
11370.4	-0.00534564
11382.2	-0.005502
11394.1	-0.00565321
11405.9	-0.00579908
11411.8	-0.00586994
11423.6	-0.00600741
11435.4	-0.00613904
11441.3	-0.0062026
11453.2	-0.00632513
11465	-0.00644138
11470.9	-0.0064971
11482.7	-0.00660361
11494.5	-0.00670344
11500.4	-0.0067508
11512.3	-0.00684033
11524.1	-0.00692282
11535.9	-0.00699815
11541.8	-0.00703309
11553.6	-0.00709744
11565.5	-0.00715435
11571.4	-0.00717998
11583.2	-0.00722553
11595	-0.00726341
11600.9	-0.00727944
11612.7	-0.00730564
11624.6	-0.007324
11630.5	-0.00733021
11642.3	-0.00733667
11654.1	-0.00733515
11660	-0.00733139
11671.8	-0.00731784
11683.6	-0.00729625
11695.5	-0.00726659
11701.4	-0.00724874
11713.2	-0.007207
11725	-0.00715721
11730.9	-0.0071293
11742.7	-0.00706747
11754.6	-0.00699765
11760.5	-0.00695977
11772.3	-0.00687806
11784.1	-0.00678848
11790	-0.00674076
11801.8	-0.0066395
11813.7	-0.00653054
11825.5	-0.00641396
11831.4	-0.00635285
11843.2	-0.00622502
11855	-0.00608981
11860.9	-0.00601947
11872.8	-0.0058734
11884.6	-0.00572024
11890.5	-0.00564103
11902.3	-0.00547746
11914.1	-0.00530713
11920	-0.00521946
11931.9	-0.00503924
11943.7	-0.00485262
11955.5	-0.00465975
11961.4	-0.00456102
11973.2	-0.00435909
11985	-0.00415133
11991	-0.00404532
12002.8	-0.00382914
12014.6	-0.00360758
12020.5	-0.00349484
12032.3	-0.00326556
12044.1	-0.00303137
12050.1	-0.00291249
12061.9	-0.0026713
12073.7	-0.0024257
12085.5	-0.00217588
12091.4	-0.00204946
12103.2	-0.00179371
12115.1	-0.00153428
12121	-0.00140325
12132.8	-0.00113868
12144.6	-0.000870957
12150.5	-0.00073598
12162.3	-0.000463931
12174.2	-0.000189271
12180.1	-5.10309e-05
12191.9	0.000227134
12203.7	0.00050736
12215.5	0.000789426
12221.4	0.00093108
12233.3	0.00121549
12245.1	0.00150119
12251	0.00164446
12262.8	0.00193167
12274.6	0.00221963
12280.5	0.00236381
12292.4	0.00265246
12304.2	0.0029413
12310.1	0.00308573
12321.9	0.00337444
12333.7	0.00366281
12345.5	0.00395062
12351.5	0.00409425
12363.3	0.00438081
12375.1	0.00466629
12381	0.00480856
12392.8	0.00509201
12404.6	0.00537386
12410.6	0.00551412
12422.4	0.00579319
12434.2	0.00607014
12440.1	0.00620777
12451.9	0.0064812
12463.7	0.00675203
12475.6	0.00702008
12481.5	0.007153
12493.3	0.00741651
12505.1	0.00767676
12511	0.00780561
12522.8	0.00806064
12534.7	0.00831196
12540.6	0.00843618
12552.4	0.0086816
12564.2	0.00892288
12570.1	0.00904192
12581.9	0.00927666
12593.8	0.00950683
12605.6	0.00973228
12611.5	0.00984317
12623.3	0.0100612
12635.1	0.0102741
12641	0.0103786
12652.9	0.0105835
12664.7	0.0107829
12670.6	0.0108805
12682.4	0.0110714
12694.2	0.0112563
12700.1	0.0113466
12712	0.0115224
12723.8	0.0116921
12735.6	0.0118553
12741.5	0.0119345
12753.3	0.012088
12765.1	0.0122347
12771.1	0.0123056
12782.9	0.012442
12794.7	0.0125715
12800.6	0.0126335
12812.4	0.0127522
12824.2	0.0128636
12830.2	0.0129165
12842	0.0130167
12853.8	0.0131093
12865.6	0.0131943
12871.5	0.0132338
12883.3	0.013307
12895.2	0.0133722
12901.1	0.0134019
12912.9	0.013455
12924.7	0.0135
12930.6	0.0135194
12942.4	0.013552
12954.3	0.0135761
12960.2	0.0135851
12972	0.0135966
12983.8	0.0135995
12995.6	0.0135938
13001.5	0.0135877
13013.4	0.0135689
13025.2	0.0135414
13031.1	0.0135243
13042.9	0.0134835
13054.7	0.0134339
13060.6	0.0134057
13072.5	0.0133427
13084.3	0.0132707
13090.2	0.0132313
13102	0.0131458
13113.8	0.0130514
13125.6	0.0129479
13131.6	0.0128927
13143.4	0.0127757
13155.2	0.0126497
13161.1	0.0125833
13172.9	0.0124438
13184.7	0.0122953
13190.6	0.0122177
13202.5	0.0120559
13214.3	0.0118852
13220.2	0.0117965
13232	0.0116126
13243.8	0.01142
13255.7	0.0112188
13261.6	0.0111149
13273.4	0.0109008
13285.2	0.0106782
13291.1	0.0105638
13302.9	0.0103287
13314.8	0.0100855
13320.7	0.00996081
13332.5	0.00970549
13344.3	0.00944228
13350.2	0.00930775
13362	0.00903297
13373.9	0.00875065
13385.7	0.00846095
13391.6	0.00831339
13403.4	0.00801295
13415.2	0.00770556
13421.1	0.00754932
13433	0.00723187
13444.8	0.00690795
13450.7	0.00674362
13462.5	0.00641039
13474.3	0.00607122
13480.2	0.00589948
13492.1	0.00555182
13503.9	0.0051988
13515.7	0.00484067
13521.6	0.00465975
13533.4	0.00429441
13545.2	0.00392458
13551.1	0.00373806
13563	0.00336201
13574.8	0.00298215
13580.7	0.00279088
13592.5	0.00240583
13604.3	0.0020177
13610.2	0.00182256
13622.1	0.00143033
13633.9	0.00103576
13645.7	0.000639134
13651.6	0.000440152
13663.4	4.10428e-05
13675.3	-0.000359333
13681.2	-0.000559897
13693	-0.000961578
13704.8	-0.00136373
13710.7	-0.00156488
13722.5	-0.00196713
13734.4	-0.00236904
13740.3	-0.00256977
13752.1	-0.00297056
13763.9	-0.00337019
13775.7	-0.00376835
13781.6	-0.00396677
13793.5	-0.0043621
13805.3	-0.00475513
13811.2	-0.00495069
13823	-0.00533968
13834.8	-0.00572559
13840.7	-0.00591728
13852.5	-0.00629796
13864.4	-0.00667476
13870.3	-0.00686161
13882.1	-0.00723202
13893.9	-0.0075978
13905.7	-0.00795866
13911.6	-0.00813714
13923.5	-0.00849007
13935.3	-0.00883735
13941.2	-0.00900879
13953	-0.0093471
13964.8	-0.00967909
13970.7	-0.00984265
13982.6	-0.0101647
13994.4	-0.0104798
14000.3	-0.0106347
14012.1	-0.010939
14023.9	-0.0112357
14035.8	-0.0115248
14041.7	-0.0116663
14053.5	-0.0119434
14065.3	-0.0122123
14071.2	-0.0123436
14083	-0.0125998
14094.9	-0.0128473
14100.8	-0.0129678
14112.6	-0.0132022
14124.4	-0.0134275
14130.3	-0.0135367
14142.1	-0.0137483
14153.9	-0.0139507
14165.8	-0.0141436
14171.7	-0.0142365
14183.5	-0.0144153
14195.3	-0.0145844
14201.2	-0.0146654
14213	-0.0148202
14224.9	-0.0149652
14230.8	-0.0150341
14242.6	-0.0151647
14254.4	-0.0152855
14260.3	-0.0153423
14272.1	-0.0154486
14284	-0.0155453
14295.8	-0.0156324
14301.7	-0.0156724
14313.5	-0.0157452
14325.3	-0.0158085
14331.2	-0.0158367
14343.1	-0.015886
14354.9	-0.0159261
14360.8	-0.0159428
14372.6	-0.0159693
14384.4	-0.015987
14390.3	-0.0159925
14402.2	-0.015997
14414	-0.015993
14425.8	-0.0159807
14431.7	-0.0159715
14443.5	-0.0159469
14455.3	-0.0159145
14461.3	-0.0158954
14473.1	-0.0158515
14484.9	-0.0158003
14490.8	-0.015772
14502.6	-0.0157102
14514.4	-0.0156416
14520.4	-0.0156048
14532.2	-0.0155265
14544	-0.0154421
14555.8	-0.0153518
14561.7	-0.0153046
14573.5	-0.015206
14585.4	-0.0151023
14591.3	-0.0150486
14603.1	-0.0149376
14614.9	-0.0148223
14620.8	-0.014763
14632.6	-0.0146416
14644.5	-0.0145165
14650.4	-0.0144526
14662.2	-0.0143226
14674	-0.0141897
14685.8	-0.0140543
14691.7	-0.0139857
14703.6	-0.013847
14715.4	-0.0137066
14721.3	-0.0136359
14733.1	-0.0134935
14744.9	-0.0133501
14750.8	-0.0132782
14762.7	-0.0131341
14774.5	-0.0129899
14780.4	-0.0129178
14792.2	-0.012774
14804	-0.0126309
14815.8	-0.0124888
14821.8	-0.0124183
14833.6	-0.0122783
14845.4	-0.0121402
14851.3	-0.0120719
14863.1	-0.011937
14874.9	-0.0118047
14880.9	-0.0117395
14892.7	-0.0116116
14904.5	-0.011487
14910.4	-0.011426
14922.2	-0.0113068
14934	-0.0111915
14945.9	-0.0110805
14951.8	-0.0110267
14963.6	-0.0109225
14975.4	-0.0108232
14981.3	-0.0107755
14993.1	-0.0106839
15005	-0.0105977
15010.9	-0.0105568
15022.7	-0.0104791
15034.5	-0.0104074
15040.4	-0.0103739
15052.2	-0.0103114
15064.1	-0.0102554
15075.9	-0.0102058
15081.8	-0.0101835
15093.6	-0.0101441
15105.4	-0.0101115
15111.3	-0.0100978
15123.2	-0.0100757
15135	-0.0100608
15140.9	-0.0100561
15152.7	-0.010052
15164.5	-0.0100553
15170.4	-0.0100597
15182.3	-0.0100741
15194.1	-0.0100959
15205.9	-0.0101252
15211.8	-0.0101427
15223.6	-0.0101832
15235.4	-0.0102311
15241.4	-0.0102579
15253.2	-0.0103169
15265	-0.0103833
15270.9	-0.0104193
15282.7	-0.0104966
15294.5	-0.0105811
15300.5	-0.010626
15312.3	-0.0107211
15324.1	-0.0108231
15330	-0.0108766
15341.8	-0.0109887
15353.6	-0.0111073
15365.5	-0.0112324
15371.4	-0.0112972
15383.2	-0.0114315
15395	-0.0115717
15400.9	-0.0116439
15412.7	-0.0117926
15424.6	-0.0119467
15430.5	-0.0120256
15442.3	-0.0121873
15454.1	-0.0123537
15460	-0.0124386
15471.8	-0.0126117
15483.7	-0.0127888
15495.5	-0.0129697
15501.4	-0.0130614
15513.2	-0.0132474
15525	-0.0134364
15530.9	-0.0135319
15542.8	-0.0137247
15554.6	-0.0139197
15560.5	-0.0140179
15572.3	-0.0142155
15584.1	-0.0144144
15590	-0.0145142
15601.9	-0.0147143
15613.7	-0.0149148
15625.5	-0.0151152
15631.4	-0.0152153
15643.2	-0.015415
15655	-0.0156138
15661	-0.0157126
15672.8	-0.0159092
15684.6	-0.0161037
15690.5	-0.0162001
15702.3	-0.016391
15714.1	-0.0165789
15720	-0.0166716
15731.9	-0.0168544
15743.7	-0.0170331
15755.5	-0.0172076
15761.4	-0.017293
15773.2	-0.0174602
15785.1	-0.017622
15791	-0.0177008
15802.8	-0.0178539
15814.6	-0.0180008
15820.5	-0.0180717
15832.3	-0.0182084
15844.2	-0.0183379
15850.1	-0.0183999
15861.9	-0.0185179
15873.7	-0.0186278
15885.5	-0.0187293
15891.4	-0.0187768
15903.3	-0.018865
15915.1	-0.018944
15921	-0.0189799
15932.8	-0.0190444
15944.6	-0.0190989
15950.5	-0.0191224
15962.4	-0.0191614
15974.2	-0.0191898
15980.1	-0.0191998
15991.9	-0.0192117
16003.7	-0.0192123
16015.5	-0.0192014
16021.4	-0.0191916
16033.3	-0.0191631
16045.1	-0.0191227
16051	-0.0190979
16062.8	-0.0190391
16074.6	-0.018968
16080.5	-0.0189278
16092.4	-0.0188379
16104.2	-0.0187354
16110.1	-0.0186793
16121.9	-0.0185576
16133.7	-0.0184231
16145.6	-0.0182757
16151.5	-0.0181971
16163.3	-0.0180302
16175.1	-0.0178504
16181	-0.0177557
16192.8	-0.0175565
16204.7	-0.0173444
16210.6	-0.0172335
16222.4	-0.0170021
16234.2	-0.016758
16240.1	-0.0166312
16251.9	-0.0163682
16263.8	-0.0160927
16275.6	-0.0158048
16281.5	-0.0156562
16293.3	-0.0153501
16305.1	-0.015032
16311	-0.0148685
16322.9	-0.0145329
16334.7	-0.0141857
16340.6	-0.0140079
16352.4	-0.013644
16364.2	-0.0132692
16370.1	-0.0130779
16381.9	-0.0126872
16393.8	-0.0122864
16405.6	-0.0118757
16411.5	-0.0116667
16423.3	-0.0112416
16435.1	-0.0108074
16441	-0.010587
16452.9	-0.0101397
16464.7	-0.0096841
16470.6	-0.00945331
16482.4	-0.00898596
16494.2	-0.00851122
16500.1	-0.0082712
16512	-0.0077861
16523.8	-0.00729459
16535.6	-0.00679704
16541.5	-0.00654614
16553.3	-0.00604032
16565.2	-0.0055295
16571.1	-0.00527235
16582.9	-0.00475481
16594.7	-0.00423333
16600.6	-0.00397124
16612.4	-0.00344464
16624.3	-0.00291517
16630.2	-0.0026495
16642	-0.00211654
16653.8	-0.00158179
16665.6	-0.00104571
16671.5	-0.000777296
16683.3	-0.000240013
16695.2	0.000297522
16701.1	0.000566249
16712.9	0.00110335
16724.7	0.00163962
16730.6	0.0019073
16742.4	0.00244152
16754.3	0.00297385
16760.2	0.00323916
16772	0.00376786
16783.8	0.00429361
16795.6	0.00481603
16801.5	0.00507586
16813.4	0.00559251
16825.2	0.00610482
16831.1	0.00635924
16842.9	0.00686434
16854.7	0.00736416
16860.6	0.00761198
16872.5	0.0081032
16884.3	0.00858825
16890.2	0.00882835
16902	0.0093035
16913.8	0.00977163
16925.7	0.0102324
16931.6	0.01046
16943.4	0.0109092
16955.2	0.0113503
16961.1	0.0115678
16972.9	0.0119963
16984.7	0.012416
16990.7	0.0126224
17002.5	0.0130285
17014.3	0.0134252
17020.2	0.01362
17032	0.0140021
17043.8	0.0143744
17055.7	0.0147365
17061.6	0.0149137
17073.4	0.0152603
17085.2	0.0155963
17091.1	0.0157603
17102.9	0.0160802
17114.8	0.0163891
17120.7	0.0165394
17132.5	0.0168317
17144.3	0.0171128
17150.2	0.0172491
17162	0.0175132
17173.9	0.0177658
17185.7	0.0180069
17191.6	0.0181231
17203.4	0.0183469
17215.2	0.018559
17221.1	0.0186607
17233	0.0188554
17244.8	0.0190384
17250.7	0.0191255
17262.5	0.019291
17274.3	0.0194448
17280.2	0.0195174
17292.1	0.0196538
17303.9	0.0197787
17315.7	0.019892
17321.6	0.0199444
17333.4	0.0200405
17345.2	0.0201253
17351.2	0.0201635
17363	0.0202315
17374.8	0.0202883
17380.7	0.0203125
17392.5	0.0203528
17404.3	0.0203823
17410.3	0.0203929
17422.1	0.0204063
17433.9	0.0204091
17445.7	0.0204015
17451.6	0.0203938
17463.4	0.0203708
17475.3	0.0203377
17481.2	0.0203175
17493	0.0202696
17504.8	0.0202121
17510.7	0.0201798
17522.5	0.0201081
17534.4	0.0200271
17540.3	0.0199832
17552.1	0.0198887
17563.9	0.0197855
17575.7	0.0196736
17581.6	0.0196145
17593.5	0.01949
17605.3	0.0193574
17611.2	0.0192881
17623	0.0191437
17634.8	0.0189916
17640.7	0.0189127
17652.6	0.0187495
17664.4	0.0185791
17670.3	0.0184912
17682.1	0.0183104
17693.9	0.0181229
17705.7	0.017929
17711.7	0.0178296
17723.5	0.0176263
17735.3	0.017417
17741.2	0.0173101
17753	0.0170922
17764.8	0.0168688
17770.8	0.016755
17782.6	0.0165237
17794.4	0.0162873
17800.3	0.0161673
17812.1	0.0159237
17823.9	0.0156756
17835.8	0.0154231
17841.7	0.0152952
17853.5	0.0150365
17865.3	0.0147738
17871.2	0.0146411
17883	0.0143729
17894.9	0.0141011
17900.8	0.013964
17912.6	0.0136874
17924.4	0.0134077
17930.3	0.0132667
17942.1	0.0129827
17954	0.012696
17965.8	0.0124068
17971.7	0.0122612
17983.5	0.0119685
17995.3	0.0116737
18001.2	0.0115255
18013.1	0.0112277
18024.9	0.0109281
18030.8	0.0107777
18042.6	0.0104757
18054.4	0.0101723
18060.3	0.01002
18072.2	0.00971468
18084	0.00940818
18095.8	0.00910069
18101.7	0.0089466
18113.5	0.00863783
18125.3	0.00832836
18131.3	0.00817339
18143.1	0.00786307
18154.9	0.00755233
18160.8	0.00739683
18172.6	0.00708565
18184.4	0.00677431
18190.4	0.00661861
18202.2	0.00630722
18214	0.00599591
18225.8	0.00568479
18231.7	0.00552933
18243.5	0.00521866
18255.4	0.00490841
18261.3	0.00475347
18273.1	0.00444401
18284.9	0.00413518
18290.8	0.00398103
18302.6	0.00367331
18314.5	0.00336643
18320.4	0.00321333
18332.2	0.00290787
18344	0.00260345
18355.8	0.00230015
18361.7	0.00214894
18373.6	0.00184746
18385.4	0.00154729
18391.3	0.00139771
18403.1	0.00109963
18414.9	0.000803045
18420.8	0.00065533
18432.7	0.000361106
18444.5	6.85466e-05
18450.4	-7.70878e-05
18462.2	-0.000367022
18474	-0.000655121
18485.8	-0.000941317
18491.8	-0.00108368
18503.6	-0.0013669
18515.4	-0.00164804
18521.3	-0.00178782
18533.1	-0.00206574
18544.9	-0.00234143
18550.8	-0.00247841
18562.7	-0.00275063
18574.5	-0.00302045
18580.4	-0.00315444
18592.2	-0.00342055
18604	-0.0036841
18615.9	-0.00394504
18621.8	-0.00407451
18633.6	-0.0043314
18645.4	-0.00458552
18651.3	-0.00471152
18663.1	-0.00496135
18675	-0.00520826
18680.9	-0.0053306
18692.7	-0.005573
18704.5	-0.00581231
18710.4	-0.00593079
18722.2	-0.00616537
18734.1	-0.00639671
18745.9	-0.00662475
18751.8	-0.00673752
18763.6	-0.00696051
18775.4	-0.00718005
18781.3	-0.00728852
18793.2	-0.00750279
18805	-0.00771348
18810.9	-0.00781746
18822.7	-0.00802267
18834.5	-0.00822414
18840.4	-0.00832347
18852.3	-0.00851925
18864.1	-0.00871118
18875.9	-0.00889919
18881.8	-0.00899171
18893.6	-0.00917376
18905.4	-0.00935177
18911.3	-0.00943924
18923.2	-0.0096111
18935	-0.0097788
18940.9	-0.00986108
18952.7	-0.0100225
18964.5	-0.0101796
18970.4	-0.0102565
18982.3	-0.0104072
18994.1	-0.0105534
19005.9	-0.0106953
19011.8	-0.0107646
19023.6	-0.0108997
19035.5	-0.0110304
19041.4	-0.0110941
19053.2	-0.011218
19065	-0.0113373
19070.9	-0.0113953
19082.7	-0.0115077
19094.6	-0.0116156
19100.5	-0.0116677
19112.3	-0.0117686
19124.1	-0.0118647
19130	-0.0119111
19141.8	-0.0120002
19153.7	-0.0120846
19165.5	-0.0121644
19171.4	-0.0122025
19183.2	-0.0122751
19195	-0.012343
19200.9	-0.0123752
19212.7	-0.012436
19224.6	-0.0124921
19230.5	-0.0125184
19242.3	-0.0125674
19254.1	-0.0126118
19260	-0.0126322
19271.8	-0.0126695
19283.7	-0.0127021
19295.5	-0.0127301
19301.4	-0.0127424
19313.2	-0.0127635
19325	-0.01278
19330.9	-0.0127865
19342.8	-0.0127962
19354.6	-0.0128014
19360.5	-0.0128023
19372.3	-0.0128008
19384.1	-0.0127948
19390	-0.0127902
19401.9	-0.0127778
19413.7	-0.012761
19425.5	-0.0127399
19431.4	-0.0127278
19443.2	-0.0127005
19455.1	-0.0126691
19461	-0.0126518
19472.8	-0.0126143
19484.6	-0.0125728
19490.5	-0.0125505
19502.3	-0.0125032
19514.1	-0.012452
19520.1	-0.012425
19531.9	-0.0123681
19543.7	-0.0123077
19555.5	-0.0122436
19561.4	-0.0122103
19573.2	-0.012141
19585.1	-0.0120683
19591	-0.0120307
19602.8	-0.011953
19614.6	-0.0118722
19620.5	-0.0118305
19632.3	-0.011745
19644.2	-0.0116565
19650.1	-0.0116111
19661.9	-0.0115183
19673.7	-0.0114226
19685.5	-0.0113242
19691.4	-0.011274
19703.3	-0.0111717
19715.1	-0.0110669
19721	-0.0110136
19732.8	-0.0109053
19744.6	-0.0107946
19750.5	-0.0107385
19762.4	-0.0106246
19774.2	-0.0105086
19780.1	-0.0104499
19791.9	-0.010331
19803.7	-0.0102103
19815.5	-0.0100879
19821.5	-0.010026
19833.3	-0.00990109
19845.1	-0.00977465
19851	-0.00971088
19862.8	-0.00958232
19874.6	-0.00945244
19880.6	-0.00938703
19892.4	-0.00925534
19904.2	-0.00912255
19910.1	-0.00905577
19921.9	-0.00892149
19933.7	-0.00878632
19945.6	-0.00865033
19951.5	-0.00858206
19963.3	-0.008445
19975.1	-0.00830733
19981	-0.00823829
19992.8	-0.00809984
