0	0
26.6808	0
53.3616	0
80.0424	0
106.723	0
133.404	0
160.085	0
186.766	0
213.446	0
240.127	0
266.808	0
293.489	0
320.17	0
346.85	0
373.531	0
400.212	0
426.893	0
453.574	0
480.254	0
506.935	0
533.616	0
560.297	0
586.978	0
613.658	0
640.339	0
667.02	0
693.701	0
720.382	0
747.062	0
773.743	0
800.424	0
827.105	0
853.786	0
880.466	0
907.147	0
933.828	0
960.509	0
987.19	0
1013.87	0
1040.55	0
1067.23	0
1093.91	0
1120.59	0
1147.27	0
1173.96	0
1200.64	0
1227.32	0
1254	0
1280.68	0
1307.36	0
1334.04	-9.09495e-13
1360.72	-3.63798e-12
1387.4	-1.09139e-11
1414.08	-3.36513e-11
1440.76	-9.82254e-11
1467.44	-2.6921e-10
1494.12	-6.94854e-10
1520.81	-1.6953e-09
1547.49	-3.93811e-09
1574.17	-8.74115e-09
1600.85	-1.86101e-08
1627.53	-3.81269e-08
1654.21	-7.53716e-08
1680.89	-1.44132e-07
1707.57	-2.67204e-07
1734.25	-4.81176e-07
1760.93	-8.43163e-07
1787.61	-1.43997e-06
1814.29	-2.40025e-06
1840.98	-3.91008e-06
1867.66	-6.23236e-06
1894.34	-9.73031e-06
1921.02	-1.48948e-05
1947.7	-2.23749e-05
1974.38	-3.30112e-05
2001.06	-4.78691e-05
2027.74	-6.82701e-05
2054.42	-9.58181e-05
2081.1	-0.000132415
2107.78	-0.000180262
2134.46	-0.000241837
2161.14	-0.000319845
2187.83	-0.000417132
2214.51	-0.000536555
2241.19	-0.000680792
2267.87	-0.000852105
2294.55	-0.00105203
2321.23	-0.00128099
2347.91	-0.00153788
2374.59	-0.0018195
2401.27	-0.00212004
2427.95	-0.00243044
2454.63	-0.00273776
2481.31	-0.00302452
2508	-0.00326813
2534.68	-0.0034403
2561.36	-0.00350664
2588.04	-0.00342632
2614.72	-0.00315202
2641.4	-0.00262999
2668.08	-0.00180047
2694.76	-0.000598374
2721.44	0.00104577
2748.12	0.00320446
2774.8	0.00595165
2801.48	0.0093608
2828.16	0.0135028
2854.84	0.0184434
2881.53	0.024241
2908.21	0.0309439
2934.89	0.0385878
2961.57	0.0471934
2988.25	0.0567642
3014.93	0.0672845
3041.61	0.0787182
3068.29	0.0910072
3094.97	0.104071
3121.65	0.117809
3148.33	0.132095
3175.01	0.146786
3201.69	0.161719
3228.37	0.176716
3255.05	0.191584
3281.73	0.206122
3308.41	0.220123
3335.09	0.233376
3361.77	0.245673
3388.45	0.256814
3415.13	0.266608
3441.81	0.274878
3468.49	0.281466
3495.17	0.286237
3521.85	0.28908
3548.53	0.289911
3575.21	0.288676
3601.89	0.285351
3628.57	0.279944
3655.25	0.272492
3681.93	0.263066
3708.61	0.251763
3735.29	0.238708
3761.97	0.224051
3788.65	0.207964
3815.33	0.190637
3842.01	0.172274
3868.69	0.153091
3895.37	0.13331
3922.05	0.113155
3948.73	0.0928512
3975.41	0.0726173
4002.09	0.0526641
4028.77	0.0331909
4055.45	0.0143825
4082.13	-0.00359292
4108.81	-0.0205861
4135.49	-0.036468
4162.17	-0.0511308
4188.86	-0.0644888
4215.54	-0.0764781
4242.22	-0.0870566
4268.9	-0.0962036
4295.58	-0.103918
4322.26	-0.110218
4348.94	-0.115138
4375.62	-0.11873
4402.3	-0.121057
4428.98	-0.122195
4455.66	-0.12223
4482.34	-0.121255
4509.02	-0.119367
4535.7	-0.116671
4562.38	-0.113268
4589.06	-0.109264
4615.75	-0.10476
4642.43	-0.0998562
4669.11	-0.0946486
4695.79	-0.0892275
4722.47	-0.0836775
4749.15	-0.0780765
4775.83	-0.0724955
4802.51	-0.0669979
4829.19	-0.0616397
4855.87	-0.0564689
4882.55	-0.0515264
4909.23	-0.0468452
4935.91	-0.0424517
4962.59	-0.0383652
4989.28	-0.0345991
5015.96	-0.0311606
5042.64	-0.0280521
5069.32	-0.0252709
5096	-0.0228103
5122.68	-0.02066
5149.36	-0.0188067
5176.04	-0.0172345
5202.72	-0.0159256
5229.4	-0.0148607
5256.08	-0.0140194
5282.76	-0.0133805
5309.44	-0.0129229
5336.12	-0.0126252
5362.8	-0.0124666
5389.48	-0.0124267
5416.17	-0.012486
5442.85	-0.0126262
5469.53	-0.0128297
5496.21	-0.0130805
5522.89	-0.0133636
5549.57	-0.0136657
5576.25	-0.0139745
5602.93	-0.0142792
5629.61	-0.0145703
5656.29	-0.0148398
5682.97	-0.0150807
5709.65	-0.0152872
5736.33	-0.0154548
5763.01	-0.0155797
5789.69	-0.0156594
5816.38	-0.0156922
5843.06	-0.0156769
5869.74	-0.0156135
5896.42	-0.0155022
5923.1	-0.0153439
5949.78	-0.0151402
5976.46	-0.0148929
6003.14	-0.0146041
6029.82	-0.0142764
6056.5	-0.0139125
6083.18	-0.0135155
6109.86	-0.0130885
6136.54	-0.0126347
6163.22	-0.0121575
6189.9	-0.0116604
6216.59	-0.0111469
6243.27	-0.0106204
6269.95	-0.0100845
6296.63	-0.00954269
6323.31	-0.00899842
6349.99	-0.00845513
6376.67	-0.00791621
6403.35	-0.00738498
6430.03	-0.0068647
6456.71	-0.00635854
6483.39	-0.0058696
6510.07	-0.00540087
6536.75	-0.00495524
6563.43	-0.00453549
6590.12	-0.00414428
6616.8	-0.00378415
6643.48	-0.0034575
6670.16	-0.00316658
6696.84	-0.00291348
6723.52	-0.00270015
6750.2	-0.00252834
6776.88	-0.00239965
6803.56	-0.00231547
6830.24	-0.002277
6856.92	-0.00228525
6883.6	-0.00234101
6910.29	-0.00244486
6936.97	-0.00259717
6963.65	-0.00279808
6990.33	-0.00304752
7017.01	-0.0033452
7043.69	-0.00369059
7070.37	-0.00408296
7097.05	-0.00452137
7123.73	-0.00500465
7150.41	-0.00553147
7177.09	-0.00610026
7203.77	-0.0067093
7230.45	-0.00735669
7257.14	-0.00804038
7283.82	-0.00875817
7310.5	-0.00950772
7337.18	-0.0102866
7363.86	-0.0110922
7390.54	-0.0119221
7417.22	-0.0127733
7443.9	-0.0136434
7470.58	-0.0145294
7497.26	-0.0154286
7523.94	-0.0163382
7550.62	-0.0172556
7577.3	-0.0181779
7603.99	-0.0191024
7630.67	-0.0200267
7657.35	-0.0209481
7684.03	-0.0218643
7710.71	-0.0227728
7737.39	-0.0236714
7764.07	-0.0245579
7790.75	-0.0254304
7817.43	-0.0262868
7844.11	-0.0271255
7870.79	-0.0279448
7897.47	-0.028743
7924.15	-0.0295187
7950.84	-0.0302707
7977.52	-0.0309977
8004.2	-0.0316986
8030.88	-0.0323723
8057.56	-0.033018
8084.24	-0.0336348
8110.92	-0.034222
8137.6	-0.0347788
8164.28	-0.0353046
8190.96	-0.0357988
8217.64	-0.0362609
8244.32	-0.0366905
8271	-0.0370869
8297.69	-0.0374498
8324.37	-0.0377787
8351.05	-0.0380732
8377.73	-0.0383328
8404.41	-0.0385572
8431.09	-0.038746
8457.77	-0.0388987
8484.45	-0.0390149
8511.13	-0.0390942
8537.81	-0.0391362
8564.49	-0.0391404
8591.17	-0.0391064
8617.85	-0.0390339
8644.54	-0.0389223
8671.22	-0.0387714
8697.9	-0.0385808
8724.58	-0.0383501
8751.26	-0.038079
8777.94	-0.0377673
8804.62	-0.0374147
8831.3	-0.037021
8857.98	-0.0365862
8884.66	-0.0361101
8911.34	-0.0355927
8938.02	-0.0350342
8964.7	-0.0344348
8991.39	-0.0337946
9018.07	-0.033114
9044.75	-0.0323935
9071.43	-0.0316335
9098.11	-0.0308347
9124.79	-0.0299979
9151.47	-0.029124
9178.15	-0.0282137
9204.83	-0.0272684
9231.51	-0.026289
9258.19	-0.025277
9284.87	-0.0242337
9311.55	-0.0231607
9338.23	-0.0220596
9364.92	-0.0209321
9391.6	-0.0197801
9418.28	-0.0186055
9444.96	-0.0174105
9471.64	-0.0161971
9498.32	-0.0149676
9525	-0.0137244
9551.68	-0.0124697
9578.36	-0.0112062
9605.04	-0.0099364
9631.72	-0.00866287
9658.4	-0.0073883
9685.08	-0.00611542
9711.77	-0.00484698
9738.45	-0.00358576
9765.13	-0.00233458
9791.81	-0.00109623
9818.49	0.000126456
9845.17	0.00133068
9871.85	0.00251365
9898.53	0.00367262
9925.21	0.00480487
9951.89	0.00590773
9978.57	0.00697862
10005.3	0.00801499
10031.9	0.00901442
10058.6	0.00997455
10085.3	0.0108931
10112	0.0117681
10138.7	0.0125973
10165.3	0.0133791
10192	0.0141116
10218.7	0.0147932
10245.4	0.0154226
10272.1	0.0159985
10298.7	0.0165199
10325.4	0.0169857
10352.1	0.0173954
10378.8	0.0177485
10405.5	0.0180444
10432.1	0.0182832
10458.8	0.0184649
10485.5	0.0185897
10512.2	0.018658
10538.9	0.0186706
10565.5	0.0186281
10592.2	0.0185317
10618.9	0.0183825
10645.6	0.0181818
10672.3	0.0179313
10699	0.0176326
10725.6	0.0172875
10752.3	0.0168981
10779	0.0164665
10805.7	0.015995
10832.4	0.015486
10859	0.0149418
10885.7	0.0143651
10912.4	0.0137586
10939.1	0.013125
10965.8	0.0124669
10992.4	0.0117873
11019.1	0.011089
11045.8	0.0103747
11072.5	0.00964743
11099.2	0.00890991
11125.8	0.00816496
11152.5	0.00741534
11179.2	0.00666374
11205.9	0.0059128
11232.6	0.00516509
11259.3	0.00442307
11285.9	0.00368912
11312.6	0.00296551
11339.3	0.00225438
11366	0.00155775
11392.7	0.000877541
11419.3	0.000215496
11446	-0.000426761
11472.7	-0.00104775
11499.4	-0.00164616
11526.1	-0.00222079
11552.7	-0.00277063
11579.4	-0.0032948
11606.1	-0.00379257
11632.8	-0.00426337
11659.5	-0.00470677
11686.1	-0.00512248
11712.8	-0.00551036
11739.5	-0.0058704
11766.2	-0.00620272
11792.9	-0.00650755
11819.5	-0.00678527
11846.2	-0.00703635
11872.9	-0.00726137
11899.6	-0.00746102
11926.3	-0.00763607
11952.9	-0.00778738
11979.6	-0.00791589
12006.3	-0.00802262
12033	-0.00810863
12059.7	-0.00817507
12086.4	-0.00822311
12113	-0.00825399
12139.7	-0.00826898
12166.4	-0.00826937
12193.1	-0.0082565
12219.8	-0.00823171
12246.4	-0.00819637
12273.1	-0.00815187
12299.8	-0.00809957
12326.5	-0.00804088
12353.2	-0.00797717
12379.8	-0.00790983
12406.5	-0.00784021
12433.2	-0.00776969
12459.9	-0.00769958
12486.6	-0.00763122
12513.2	-0.00756589
12539.9	-0.00750485
12566.6	-0.00744935
12593.3	-0.00740056
12620	-0.00735966
12646.7	-0.00732776
12673.3	-0.00730592
12700	-0.00729517
12726.7	-0.00729646
12753.4	-0.00731072
12780.1	-0.00733876
12806.7	-0.00738139
12833.4	-0.0074393
12860.1	-0.00751312
12886.8	-0.00760341
12913.5	-0.00771064
12940.1	-0.00783519
12966.8	-0.00797736
12993.5	-0.00813735
13020.2	-0.00831525
13046.9	-0.00851108
13073.5	-0.00872473
13100.2	-0.00895601
13126.9	-0.00920459
13153.6	-0.00947007
13180.3	-0.00975191
13206.9	-0.0100495
13233.6	-0.0103621
13260.3	-0.0106888
13287	-0.0110288
13313.7	-0.0113809
13340.4	-0.0117441
13367	-0.012117
13393.7	-0.0124985
13420.4	-0.012887
13447.1	-0.0132812
13473.8	-0.0136794
13500.4	-0.0140801
13527.1	-0.0144816
13553.8	-0.0148824
13580.5	-0.0152805
13607.2	-0.0156744
13633.8	-0.0160623
13660.5	-0.0164425
13687.2	-0.0168131
13713.9	-0.0171726
13740.6	-0.0175193
13767.2	-0.0178514
13793.9	-0.0181676
13820.6	-0.0184663
13847.3	-0.018746
13874	-0.0190055
13900.6	-0.0192435
13927.3	-0.0194589
13954	-0.0196507
13980.7	-0.019818
14007.4	-0.0199601
14034.1	-0.0200762
14060.7	-0.020166
14087.4	-0.0202291
14114.1	-0.0202653
14140.8	-0.0202745
14167.5	-0.0202568
14194.1	-0.0202125
14220.8	-0.0201419
14247.5	-0.0200455
14274.2	-0.0199241
14300.9	-0.0197783
14327.5	-0.0196091
14354.2	-0.0194176
14380.9	-0.0192049
14407.6	-0.0189721
14434.3	-0.0187208
14460.9	-0.0184522
14487.6	-0.0181679
14514.3	-0.0178694
14541	-0.0175583
14567.7	-0.0172363
14594.3	-0.0169051
14621	-0.0165662
14647.7	-0.0162215
14674.4	-0.0158726
14701.1	-0.015521
14727.8	-0.0151684
14754.4	-0.0148165
14781.1	-0.0144665
14807.8	-0.0141201
14834.5	-0.0137785
14861.2	-0.0134429
14887.8	-0.0131146
14914.5	-0.0127946
14941.2	-0.0124837
14967.9	-0.0121828
14994.6	-0.0118926
15021.2	-0.0116137
15047.9	-0.0113463
15074.6	-0.0110908
15101.3	-0.0108474
15128	-0.0106159
15154.6	-0.0103964
15181.3	-0.0101884
15208	-0.00999166
15234.7	-0.00980557
15261.4	-0.00962949
15288	-0.00946264
15314.7	-0.00930416
15341.4	-0.00915305
15368.1	-0.00900827
15394.8	-0.00886865
15421.5	-0.00873298
15448.1	-0.00859997
15474.8	-0.00846831
15501.5	-0.00833663
15528.2	-0.00820353
15554.9	-0.00806761
15581.5	-0.00792747
15608.2	-0.0077817
15634.9	-0.00762894
15661.6	-0.00746785
15688.3	-0.00729714
15714.9	-0.00711556
15741.6	-0.00692193
15768.3	-0.00671518
15795	-0.00649428
15821.7	-0.00625832
15848.3	-0.00600648
15875	-0.00573806
15901.7	-0.00545245
15928.4	-0.00514919
15955.1	-0.00482792
15981.7	-0.00448842
16008.4	-0.00413058
16035.1	-0.00375445
16061.8	-0.00336018
16088.5	-0.00294806
16115.2	-0.00251851
16141.8	-0.00207207
16168.5	-0.0016094
16195.2	-0.0011313
16221.9	-0.000638642
16248.6	-0.000132433
16275.2	0.000386232
16301.9	0.000916162
16328.6	0.00145608
16355.3	0.00200464
16382	0.00256042
16408.6	0.00312195
16435.3	0.00368768
16462	0.00425606
16488.7	0.00482549
16515.4	0.00539433
16542	0.00596097
16568.7	0.00652375
16595.4	0.00708106
16622.1	0.00763127
16648.8	0.00817278
16675.4	0.00870405
16702.1	0.00922354
16728.8	0.00972978
16755.5	0.0102214
16782.2	0.0106969
16808.9	0.0111551
16835.5	0.0115948
16862.2	0.0120148
16888.9	0.0124141
16915.6	0.0127916
16942.3	0.0131465
16968.9	0.013478
16995.6	0.0137854
17022.3	0.014068
17049	0.0143253
17075.7	0.0145569
17102.3	0.0147624
17129	0.0149417
17155.7	0.0150945
17182.4	0.0152208
17209.1	0.0153206
17235.7	0.015394
17262.4	0.0154412
17289.1	0.0154624
17315.8	0.0154581
17342.5	0.0154285
17369.1	0.0153742
17395.8	0.0152957
17422.5	0.0151936
17449.2	0.0150686
17475.9	0.0149214
17502.6	0.0147526
17529.2	0.0145632
17555.9	0.0143539
17582.6	0.0141257
17609.3	0.0138793
17636	0.0136158
17662.6	0.0133361
17689.3	0.0130411
17716	0.0127318
17742.7	0.0124093
17769.4	0.0120745
17796	0.0117285
17822.7	0.0113723
17849.4	0.0110068
17876.1	0.0106331
17902.8	0.0102522
17929.4	0.00986519
17956.1	0.00947297
17982.8	0.00907656
18009.5	0.00867694
18036.2	0.00827508
18062.9	0.00787192
18089.5	0.0074684
18116.2	0.00706544
18142.9	0.00666393
18169.6	0.00626477
18196.3	0.00586879
18222.9	0.00547685
18249.6	0.00508975
18276.3	0.00470827
18303	0.00433319
18329.7	0.00396524
18356.3	0.00360513
18383	0.00325354
18409.7	0.00291113
18436.4	0.00257851
18463.1	0.00225628
18489.7	0.001945
18516.4	0.0016452
18543.1	0.00135737
18569.8	0.00108197
18596.5	0.000819434
18623.1	0.000570144
18649.8	0.000334455
18676.5	0.000112684
18703.2	-9.48909e-05
18729.9	-0.00028803
18756.6	-0.000466532
18783.2	-0.000630235
18809.9	-0.000779015
18836.6	-0.000912792
18863.3	-0.00103152
18890	-0.0011352
18916.6	-0.00122387
18943.3	-0.0012976
18970	-0.00135651
18996.7	-0.00140076
19023.4	-0.00143054
19050	-0.00144609
19076.7	-0.00144766
19103.4	-0.00143558
19130.1	-0.00141017
19156.8	-0.0013718
19183.4	-0.0013209
19210.1	-0.00125789
19236.8	-0.00118323
19263.5	-0.00109743
19290.2	-0.00100101
19316.8	-0.000894501
19343.5	-0.000778477
19370.2	-0.000653524
19396.9	-0.000520245
19423.6	-0.000379261
19450.3	-0.000231206
19476.9	-7.67243e-05
19503.6	8.353e-05
19530.3	0.000248896
19557	0.000418708
19583.7	0.000592298
19610.3	0.000769
19637	0.000948147
19663.7	0.00112908
19690.4	0.00131114
19717.1	0.00149369
19743.7	0.00167608
19770.4	0.0018577
19797.1	0.00203794
19823.8	0.0022162
19850.5	0.00239191
19877.1	0.00256451
19903.8	0.00273347
19930.5	0.00289826
19957.2	0.00305841
19983.9	0.00321344
