0	0
11.8196	0
23.6393	0
35.4589	0
41.3687	0
53.1883	0
65.008	0
70.9178	0
82.7374	0
94.557	0
100.467	0
112.286	0
124.106	0
130.016	0
141.836	0
153.655	0
165.475	0
171.385	0
183.204	0
195.024	0
200.934	0
212.753	0
224.573	0
230.483	0
242.302	0
254.122	0
260.032	0
271.851	0
283.671	0
295.491	0
301.401	0
313.22	0
325.04	0
330.95	0
342.769	0
354.589	0
360.499	0
372.318	0
384.138	0
390.048	0
401.867	0
413.687	0
425.507	0
431.416	0
443.236	0
455.056	0
460.966	0
472.785	0
484.605	0
490.515	0
502.334	0
514.154	0
520.064	0
531.883	0
543.703	0
555.523	0
561.432	0
573.252	0
585.072	0
590.981	0
602.801	0
614.621	0
620.53	0
632.35	0
644.17	0
650.08	0
661.899	0
673.719	0
685.538	0
691.448	0
703.268	0
715.088	0
720.997	0
732.817	0
744.637	0
750.546	0
762.366	0
774.186	0
780.095	0
791.915	0
803.735	0
815.554	0
821.464	0
833.284	0
845.103	0
851.013	0
862.833	0
874.652	0
880.562	0
892.382	0
904.202	0
910.111	0
921.931	0
933.751	0
945.57	0
951.48	0
963.3	0
975.119	0
981.029	0
992.849	0
1004.67	0
1010.58	0
1022.4	0
1034.22	0
1040.13	0
1051.95	0
1063.77	0
1075.59	0
1081.5	0
1093.32	0
1105.14	0
1111.05	0
1122.86	0
1134.68	0
1140.59	0
1152.41	0
1164.23	0
1170.14	0
1181.96	0
1193.78	0
1205.6	0
1211.51	0
1223.33	0
1235.15	0
1241.06	0
1252.88	0
1264.7	0
1270.61	0
1282.43	0
1294.25	0
1300.16	0
1311.98	0
1323.8	0
1335.62	0
1341.53	0
1353.35	0
1365.17	0
1371.08	0
1382.9	0
1394.72	0
1400.63	0
1412.45	0
1424.27	0
1430.18	0
1441.99	0
1453.81	0
1465.63	0
1471.54	0
1483.36	0
1495.18	0
1501.09	0
1512.91	0
1524.73	0
1530.64	0
1542.46	0
1554.28	0
1560.19	0
1572.01	0
1583.83	0
1595.65	0
1601.56	0
1613.38	0
1625.2	0
1631.11	0
1642.93	0
1654.75	0
1660.66	0
1672.48	0
1684.3	0
1690.21	0
1702.03	0
1713.85	0
1725.67	0
1731.58	0
1743.4	0
1755.21	0
1761.12	0
1772.94	0
1784.76	0
1790.67	0
1802.49	0
1814.31	0
1820.22	0
1832.04	0
1843.86	0
1855.68	0
1861.59	0
1873.41	0
1885.23	0
1891.14	0
1902.96	0
1914.78	0
1920.69	0
1932.51	0
1944.33	0
1950.24	0
1962.06	0
1973.88	0
1985.7	0
1991.61	0
2003.43	0
2015.25	0
2021.16	0
2032.98	9.09495e-13
2044.8	1.81899e-12
2050.71	1.81899e-12
2062.53	2.72848e-12
2074.34	4.54747e-12
2080.25	5.45697e-12
2092.07	7.27596e-12
2103.89	1.09139e-11
2115.71	1.45519e-11
2121.62	1.63709e-11
2133.44	2.27374e-11
2145.26	3.09228e-11
2151.17	3.63798e-11
2162.99	5.00222e-11
2174.81	6.82121e-11
2180.72	8.00355e-11
2192.54	1.09139e-10
2204.36	1.49157e-10
2210.27	1.73713e-10
2222.09	2.3465e-10
2233.91	3.16504e-10
2245.73	4.25644e-10
2251.64	4.92946e-10
2263.46	6.57565e-10
2275.28	8.74024e-10
2281.19	1.0059e-09
2293.01	1.32968e-09
2304.83	1.74987e-09
2310.74	2.00362e-09
2322.56	2.61934e-09
2334.38	3.41061e-09
2340.29	3.88627e-09
2352.11	5.03132e-09
2363.93	6.48743e-09
2375.75	8.33279e-09
2381.66	9.42964e-09
2393.47	1.20426e-08
2405.29	1.53223e-08
2411.2	1.72595e-08
2423.02	2.18388e-08
2434.84	2.7534e-08
2440.75	3.08755e-08
2452.57	3.87208e-08
2464.39	4.83897e-08
2470.3	5.40249e-08
2482.12	6.7168e-08
2493.94	8.3226e-08
2505.76	1.02779e-07
2511.67	1.14074e-07
2523.49	1.40181e-07
2535.31	1.71707e-07
2541.22	1.89809e-07
2553.04	2.31389e-07
2564.86	2.81196e-07
2570.77	3.09627e-07
2582.59	3.74542e-07
2594.41	4.51697e-07
2600.32	4.95488e-07
2612.14	5.94896e-07
2623.96	7.12158e-07
2635.78	8.50075e-07
2641.69	9.27753e-07
2653.51	1.10271e-06
2665.33	1.30701e-06
2671.24	1.42147e-06
2683.06	1.6779e-06
2694.88	1.97525e-06
2700.79	2.14099e-06
2712.6	2.5104e-06
2724.42	2.93588e-06
2730.33	3.17187e-06
2742.15	3.69524e-06
2753.97	4.29416e-06
2765.79	4.97779e-06
2771.7	5.35447e-06
2783.52	6.18429e-06
2795.34	7.12569e-06
2801.25	7.64207e-06
2813.07	8.7745e-06
2824.89	1.00516e-05
2830.8	1.07492e-05
2842.62	1.22722e-05
2854.44	1.39802e-05
2860.35	1.49093e-05
2872.17	1.69295e-05
2883.99	1.91831e-05
2895.81	2.16916e-05
2901.72	2.30488e-05
2913.54	2.59841e-05
2925.36	2.92357e-05
2931.27	3.09886e-05
2943.09	3.47664e-05
2954.91	3.89323e-05
2960.82	4.11707e-05
2972.64	4.59794e-05
2984.46	5.12602e-05
2990.37	5.40892e-05
3002.19	6.01491e-05
3014	6.67796e-05
3025.82	7.40246e-05
3031.73	7.78923e-05
3043.55	8.61489e-05
3055.37	9.51448e-05
3061.28	9.99374e-05
3073.1	0.00011015
3084.92	0.000121251
3090.83	0.000127156
3102.65	0.000139722
3114.47	0.000153361
3120.38	0.00016061
3132.2	0.000176022
3144.02	0.000192738
3155.84	0.000210866
3161.75	0.000220497
3173.57	0.000240974
3185.39	0.00026319
3191.3	0.000274999
3203.12	0.000300125
3214.94	0.000327417
3220.85	0.00034194
3232.67	0.000372879
3244.49	0.000406551
3250.4	0.000424497
3262.21	0.000462796
3274.03	0.000504579
3285.85	0.000550215
3291.76	0.000574603
3303.58	0.000626802
3315.4	0.000683973
3321.31	0.000714591
3333.13	0.00078026
3344.95	0.000852382
3350.86	0.000891084
3362.68	0.000974251
3374.5	0.00106581
3380.41	0.00111503
3392.23	0.00122095
3404.05	0.00133779
3415.87	0.00146672
3421.78	0.00153614
3433.6	0.00168574
3445.42	0.00185099
3451.33	0.00194
3463.14	0.00213188
3474.96	0.00234386
3480.87	0.00245802
3492.69	0.00270406
3504.51	0.00297571
3510.42	0.00312191
3522.24	0.00343675
3534.06	0.0037839
3545.88	0.00416639
3551.79	0.0043719
3563.61	0.0048136
3575.43	0.00529925
3581.34	0.00555974
3593.16	0.00611858
3604.98	0.00673141
3610.89	0.00705945
3622.7	0.00776166
3634.52	0.00852942
3640.43	0.00893943
3652.25	0.009815
3664.07	0.0107691
3675.89	0.0118074
3681.8	0.0123598
3693.62	0.0135352
3705.44	0.0148096
3711.35	0.0154858
3723.17	0.0169204
3734.99	0.0184698
3740.9	0.0192896
3752.72	0.0210236
3764.54	0.022889
3770.44	0.023873
3782.26	0.0259479
3794.08	0.0281709
3805.9	0.0305486
3811.81	0.0317974
3823.63	0.0344192
3835.45	0.0372115
3841.36	0.0386736
3853.18	0.0417329
3865	0.0449773
3870.91	0.0466706
3882.73	0.0502022
3894.55	0.053931
3900.46	0.0558707
3912.27	0.0599029
3924.09	0.0641413
3930	0.0663388
3941.82	0.0708913
3953.64	0.0756552
3965.46	0.0806311
3971.37	0.0831985
3983.19	0.088492
3995.01	0.0939954
4000.92	0.0968251
4012.74	0.102639
4024.56	0.108654
4030.47	0.111736
4042.29	0.118045
4054.1	0.124541
4060.01	0.127857
4071.83	0.134619
4083.65	0.141547
4095.47	0.148629
4101.38	0.152225
4113.2	0.159519
4125.02	0.166935
4130.93	0.170685
4142.75	0.178259
4154.57	0.185917
4160.48	0.189773
4172.3	0.197526
4184.12	0.205318
4190.03	0.209223
4201.84	0.217037
4213.66	0.22484
4225.48	0.232609
4231.39	0.236474
4243.21	0.244151
4255.03	0.251737
4260.94	0.255489
4272.76	0.262895
4284.58	0.27015
4290.49	0.273713
4302.31	0.280696
4314.13	0.287466
4320.04	0.290764
4331.86	0.29717
4343.68	0.303303
4355.5	0.309139
4361.41	0.311938
4373.22	0.317284
4385.04	0.322275
4390.95	0.324631
4402.77	0.329051
4414.59	0.333062
4420.5	0.33491
4432.32	0.338275
4444.14	0.341186
4450.05	0.342466
4461.87	0.344667
4473.69	0.346375
4485.51	0.347579
4491.42	0.347988
4503.24	0.348413
4515.06	0.348308
4520.97	0.348054
4532.79	0.347141
4544.61	0.345682
4550.52	0.344748
4562.34	0.342467
4574.16	0.339637
4580.07	0.338016
4591.89	0.334366
4603.71	0.330175
4615.52	0.325448
4621.43	0.322887
4633.25	0.317372
4645.07	0.311344
4650.98	0.308142
4662.8	0.301369
4674.62	0.294117
4680.53	0.290315
4692.35	0.282374
4704.17	0.273996
4710.08	0.269648
4721.9	0.260651
4733.72	0.251268
4745.54	0.241521
4751.45	0.236518
4763.27	0.226269
4775.09	0.215716
4781	0.210333
4792.82	0.199372
4804.64	0.188171
4810.55	0.182489
4822.37	0.170979
4834.19	0.159297
4840.1	0.1534
4851.92	0.141511
4863.74	0.129519
4875.56	0.117451
4881.47	0.111397
4893.29	0.0992656
4905.11	0.087126
4911.02	0.0810613
4922.83	0.0689586
4934.65	0.0569124
4940.56	0.0509185
4952.38	0.039004
4964.2	0.0272073
4970.11	0.0213603
4981.93	0.00978321
4993.75	-0.00162017
5005.57	-0.0128291
5011.48	-0.0183545
5023.3	-0.0292352
5035.12	-0.0398743
5041.03	-0.0450979
5052.85	-0.0553433
5064.67	-0.065307
5070.58	-0.0701788
5082.4	-0.0796942
5094.22	-0.0888955
5100.13	-0.0933749
5111.95	-0.102085
5123.77	-0.110456
5135.59	-0.11848
5141.5	-0.12236
5153.32	-0.129853
5165.14	-0.136984
5171.05	-0.140414
5182.87	-0.146998
5194.69	-0.153215
5200.59	-0.156186
5212.41	-0.16185
5224.23	-0.167148
5230.14	-0.16966
5241.96	-0.174411
5253.78	-0.178802
5265.6	-0.182836
5271.51	-0.184721
5283.33	-0.188231
5295.15	-0.191399
5301.06	-0.192857
5312.88	-0.195525
5324.7	-0.19787
5330.61	-0.198925
5342.43	-0.200801
5354.25	-0.202378
5360.16	-0.203056
5371.98	-0.2042
5383.8	-0.205069
5395.62	-0.205673
5401.53	-0.20588
5413.35	-0.206108
5425.17	-0.2061
5431.08	-0.20601
5442.9	-0.205669
5454.72	-0.205119
5460.63	-0.20477
5472.45	-0.203931
5484.27	-0.202913
5490.17	-0.20234
5501.99	-0.201076
5513.81	-0.19966
5525.63	-0.198106
5531.54	-0.19728
5543.36	-0.195538
5555.18	-0.193683
5561.09	-0.192716
5572.91	-0.190712
5584.73	-0.188621
5590.64	-0.187545
5602.46	-0.185341
5614.28	-0.183073
5620.19	-0.181917
5632.01	-0.179568
5643.83	-0.177177
5655.65	-0.174749
5661.56	-0.173524
5673.38	-0.171057
5685.2	-0.168571
5691.11	-0.167323
5702.93	-0.16482
5714.75	-0.162314
5720.66	-0.161062
5732.48	-0.15856
5744.3	-0.156066
5750.21	-0.154824
5762.03	-0.152351
5773.85	-0.149895
5785.66	-0.147461
5791.57	-0.146253
5803.39	-0.143855
5815.21	-0.141486
5821.12	-0.140312
5832.94	-0.137987
5844.76	-0.135694
5850.67	-0.13456
5862.49	-0.132317
5874.31	-0.130108
5880.22	-0.129017
5892.04	-0.12686
5903.86	-0.124739
5915.68	-0.122652
5921.59	-0.121622
5933.41	-0.119587
5945.23	-0.117587
5951.14	-0.116599
5962.96	-0.114648
5974.78	-0.11273
5980.69	-0.111782
5992.51	-0.109909
6004.33	-0.108066
6010.24	-0.107155
6022.06	-0.105353
6033.88	-0.103577
6045.7	-0.101827
6051.61	-0.10096
6063.43	-0.0992439
6075.25	-0.097549
6081.16	-0.0967091
6092.97	-0.0950436
6104.79	-0.0933959
6110.7	-0.0925783
6122.52	-0.0909549
6134.34	-0.0893462
6140.25	-0.0885469
6152.07	-0.0869577
6163.89	-0.0853802
6175.71	-0.0838134
6181.62	-0.0830337
6193.44	-0.0814809
6205.26	-0.0799365
6211.17	-0.0791672
6222.99	-0.0776339
6234.81	-0.0761072
6240.72	-0.0753462
6252.54	-0.0738284
6264.36	-0.072316
6270.27	-0.0715617
6282.09	-0.0700569
6293.91	-0.0685569
6305.73	-0.0670617
6311.64	-0.0663159
6323.46	-0.0648279
6335.28	-0.063345
6341.19	-0.0626054
6353.01	-0.0611304
6364.83	-0.0596611
6370.74	-0.0589287
6382.56	-0.0574688
6394.38	-0.0560159
6400.28	-0.0552922
6412.1	-0.0538508
6423.92	-0.052418
6435.74	-0.0509944
6441.65	-0.0502863
6453.47	-0.0488781
6465.29	-0.0474812
6471.2	-0.0467872
6483.02	-0.0454087
6494.84	-0.0440437
6500.75	-0.0433665
6512.57	-0.0420234
6524.39	-0.0406959
6530.3	-0.0400383
6542.12	-0.0387361
6553.94	-0.0374517
6565.76	-0.0361862
6571.67	-0.0355607
6583.49	-0.034325
6595.31	-0.0331101
6601.22	-0.0325107
6613.04	-0.0313285
6624.86	-0.030169
6630.77	-0.0295979
6642.59	-0.0284736
6654.41	-0.0273736
6660.32	-0.0268328
6672.14	-0.02577
6683.96	-0.0247325
6695.78	-0.0237209
6701.69	-0.0232248
6713.51	-0.0222522
6725.32	-0.021306
6731.23	-0.0208428
6743.05	-0.0199362
6754.87	-0.019056
6760.78	-0.0186258
6772.6	-0.0177851
6784.42	-0.0169705
6790.33	-0.0165728
6802.15	-0.0157968
6813.97	-0.0150459
6825.79	-0.0143199
6831.7	-0.0139659
6843.52	-0.0132759
6855.34	-0.0126092
6861.25	-0.0122844
6873.07	-0.0116512
6884.89	-0.0110393
6890.8	-0.0107411
6902.62	-0.0101596
6914.44	-0.00959702
6920.35	-0.00932256
6932.17	-0.00878659
6943.99	-0.00826696
6955.81	-0.00776252
6961.72	-0.00751563
6973.54	-0.00703173
6985.36	-0.00655996
6991.27	-0.00632824
7003.09	-0.00587229
7014.91	-0.00542524
7020.82	-0.00520463
7032.64	-0.00476844
7044.46	-0.00433779
7050.37	-0.00412412
7062.18	-0.00369924
7074	-0.00327652
7085.82	-0.0028546
7091.73	-0.00264351
7103.55	-0.00222028
7115.37	-0.00179452
7121.28	-0.00158029
7133.1	-0.00114832
7144.92	-0.000710646
7150.83	-0.000489286
7162.65	-4.07759e-05
7174.47	0.000416415
7180.38	0.000648616
7192.2	0.0011209
7204.02	0.00160457
7215.84	0.0021006
7221.75	0.00235354
7233.57	0.00286984
7245.39	0.00340071
7251.3	0.00367186
7263.12	0.00422602
7274.94	0.00479657
7280.85	0.00508817
7292.67	0.00568439
7304.49	0.00629835
7310.4	0.00661212
7322.22	0.00725344
7334.04	0.0079134
7345.86	0.00859222
7351.77	0.00893875
7363.59	0.00964608
7375.4	0.0103725
7381.31	0.0107428
7393.13	0.0114976
7404.95	0.0122712
7410.86	0.012665
7422.68	0.0134662
7434.5	0.0142854
7440.41	0.0147016
7452.23	0.0155469
7464.05	0.0164089
7475.87	0.017287
7481.78	0.0177319
7493.6	0.0186328
7505.42	0.0195478
7511.33	0.0200104
7523.15	0.0209451
7534.97	0.0218917
7540.88	0.0223691
7552.7	0.0233317
7564.52	0.0243035
7570.43	0.0247925
7582.25	0.0257761
7594.07	0.026766
7605.89	0.0277609
7611.8	0.0282599
7623.62	0.02926
7635.44	0.0302619
7641.35	0.0307631
7653.17	0.0317651
7664.98	0.0327654
7670.89	0.0332644
7682.71	0.0342596
7694.53	0.0352494
7700.44	0.0357419
7712.26	0.0367212
7724.08	0.0376916
7735.9	0.0386516
7741.81	0.0391273
7753.63	0.0400691
7765.45	0.040997
7771.36	0.0414552
7783.18	0.0423595
7795	0.0432463
7800.91	0.0436827
7812.73	0.0445408
7824.55	0.0453779
7830.46	0.0457883
7842.28	0.0465917
7854.1	0.047371
7860.01	0.0477512
7871.83	0.0484921
7883.65	0.0492059
7895.47	0.0498915
7901.38	0.0502234
7913.2	0.0508647
7925.02	0.0514751
7930.92	0.0517685
7942.74	0.0523308
7954.56	0.05286
7960.47	0.0531119
7972.29	0.0535898
7984.11	0.0540324
7990.02	0.0542404
8001.84	0.0546289
8013.66	0.0549806
8025.48	0.0552949
8031.39	0.0554378
8043.21	0.0556949
8055.03	0.0559134
8060.94	0.056008
8072.76	0.0561678
8084.58	0.0562881
8090.49	0.0563334
8102.31	0.056394
8114.13	0.0564145
8120.04	0.0564098
8131.86	0.0563702
8143.68	0.0562903
8155.5	0.0561704
8161.41	0.0560953
8173.23	0.0559152
8185.05	0.0556952
8190.96	0.0555703
8202.77	0.0552909
8214.59	0.0549721
8220.5	0.0547981
8232.32	0.0544209
8244.14	0.0540053
8250.05	0.0537832
8261.87	0.0533107
8273.69	0.0528008
8285.51	0.0522541
8291.42	0.0519672
8303.24	0.0513663
8315.06	0.05073
8320.97	0.0503988
8332.79	0.0497107
8344.61	0.0489889
8350.52	0.0486156
8362.34	0.0478445
8374.16	0.0470416
8380.07	0.0466284
8391.89	0.0457792
8403.71	0.0449001
8415.53	0.043992
8421.44	0.0435273
8433.26	0.0425772
8445.08	0.0416004
8450.99	0.0411022
8462.8	0.0400868
8474.62	0.0390469
8480.53	0.038518
8492.35	0.0374431
8504.17	0.0363461
8510.08	0.0357896
8521.9	0.0346612
8533.72	0.0335132
8545.54	0.0323466
8551.45	0.0317566
8563.27	0.0305638
8575.09	0.029355
8581	0.0287448
8592.82	0.0275137
8604.64	0.026269
8610.55	0.025642
8622.37	0.0243789
8634.19	0.0231049
8640.1	0.0224641
8651.92	0.0211756
8663.74	0.0198786
8675.56	0.0185743
8681.47	0.0179197
8693.29	0.0166063
8705.11	0.0152881
8711.02	0.0146274
8722.84	0.0133039
8734.66	0.011978
8740.56	0.0113145
8752.38	0.00998703
8764.2	0.00865973
8770.11	0.00799645
8781.93	0.00667122
8793.75	0.00534857
8805.57	0.00402945
8811.48	0.0033715
8823.3	0.0020594
8835.12	0.000753131
8841.03	0.000102464
8852.85	-0.00119338
8864.67	-0.00248118
8870.58	-0.00312179
8882.4	-0.00439591
8894.22	-0.00565986
8900.13	-0.00628776
8911.95	-0.00753493
8923.77	-0.00876992
8935.59	-0.00999196
8941.5	-0.0105979
8953.32	-0.0117991
8965.14	-0.0129855
8971.05	-0.013573
8982.87	-0.0147359
8994.69	-0.0158824
9000.6	-0.0164492
9012.42	-0.0175697
9024.23	-0.0186722
9030.14	-0.0192164
9041.96	-0.0202907
9053.78	-0.0213455
9065.6	-0.0223803
9071.51	-0.02289
9083.33	-0.0238939
9095.15	-0.0248766
9101.06	-0.0253599
9112.88	-0.02631
9124.7	-0.027238
9130.61	-0.0276935
9142.43	-0.0285874
9154.25	-0.0294583
9160.16	-0.029885
9171.98	-0.0307208
9183.8	-0.0315328
9195.62	-0.0323208
9201.53	-0.0327058
9213.35	-0.0334575
9225.17	-0.0341848
9231.08	-0.0345393
9242.9	-0.0352297
9254.72	-0.0358955
9260.63	-0.0362191
9272.45	-0.0368478
9284.27	-0.0374518
9290.18	-0.0377444
9302	-0.0383112
9313.81	-0.0388533
9325.63	-0.0393708
9331.54	-0.0396203
9343.36	-0.0401011
9355.18	-0.0405574
9361.09	-0.0407766
9372.91	-0.0411968
9384.73	-0.0415931
9390.64	-0.0417823
9402.46	-0.0421432
9414.28	-0.0424807
9420.19	-0.0426408
9432.01	-0.0429439
9443.83	-0.0432244
9455.65	-0.0434826
9461.56	-0.0436034
9473.38	-0.0438287
9485.2	-0.0440326
9491.11	-0.0441266
9502.93	-0.0442991
9514.75	-0.044451
9520.66	-0.0445195
9532.48	-0.0446415
9544.3	-0.044744
9550.21	-0.0447881
9562.03	-0.0448623
9573.85	-0.0449182
9585.67	-0.0449561
9591.58	-0.0449685
9603.39	-0.0449805
9615.21	-0.0449758
9621.12	-0.0449673
9632.94	-0.0449384
9644.76	-0.044894
9650.67	-0.0448662
9662.49	-0.0447994
9674.31	-0.0447183
9680.22	-0.0446726
9692.04	-0.044571
9703.86	-0.0444563
9715.68	-0.044329
9721.59	-0.0442608
9733.41	-0.0441156
9745.23	-0.043959
9751.14	-0.0438766
9762.96	-0.0437038
9774.78	-0.0435207
9780.69	-0.0434255
9792.51	-0.0432281
9804.33	-0.0430216
9810.24	-0.042915
9822.06	-0.0426957
9833.88	-0.0424685
9845.7	-0.0422336
9851.61	-0.0421135
9863.43	-0.0418681
9875.25	-0.0416162
9881.16	-0.0414879
9892.98	-0.0412269
9904.8	-0.0409604
9910.7	-0.0408251
9922.52	-0.0405508
9934.34	-0.0402718
9940.25	-0.0401307
9952.07	-0.0398453
9963.89	-0.039556
9975.71	-0.0392631
9981.62	-0.0391154
9993.44	-0.0388177
10005.3	-0.0385171
10011.2	-0.0383658
10023	-0.0380613
10034.8	-0.0377547
10040.7	-0.0376005
10052.5	-0.0372909
10064.4	-0.0369796
10070.3	-0.0368234
10082.1	-0.0365099
10093.9	-0.0361952
10105.7	-0.0358795
10111.6	-0.0357213
10123.5	-0.0354043
10135.3	-0.0350867
10141.2	-0.0349276
10153	-0.0346093
10164.8	-0.0342906
10170.7	-0.0341311
10182.6	-0.0338121
10194.4	-0.033493
10200.3	-0.0333335
10212.1	-0.0330144
10223.9	-0.0326954
10235.7	-0.0323766
10241.7	-0.0322172
10253.5	-0.0318987
10265.3	-0.0315805
10271.2	-0.0314215
10283	-0.0311038
10294.8	-0.0307864
10300.8	-0.0306278
10312.6	-0.0303109
10324.4	-0.0299944
10330.3	-0.0298362
10342.1	-0.0295202
10353.9	-0.0292045
10365.8	-0.0288891
10371.7	-0.0287316
10383.5	-0.0284166
10395.3	-0.0281019
10401.2	-0.0279446
10413	-0.0276301
10424.9	-0.0273158
10430.8	-0.0271586
10442.6	-0.0268444
10454.4	-0.0265301
10460.3	-0.026373
10472.1	-0.0260586
10484	-0.0257441
10495.8	-0.0254293
10501.7	-0.0252718
10513.5	-0.0249566
10525.3	-0.024641
10531.2	-0.024483
10543.1	-0.0241666
10554.9	-0.0238495
10560.8	-0.0236908
10572.6	-0.0233727
10584.4	-0.0230538
10590.3	-0.0228941
10602.2	-0.0225738
10614	-0.0222525
10625.8	-0.0219301
10631.7	-0.0217685
10643.5	-0.0214442
10655.3	-0.0211187
10661.3	-0.0209554
10673.1	-0.0206276
10684.9	-0.0202984
10690.8	-0.0201331
10702.6	-0.0198014
10714.4	-0.0194679
10720.3	-0.0193004
10732.2	-0.0189641
10744	-0.0186258
10755.8	-0.0182854
10761.7	-0.0181144
10773.5	-0.0177709
10785.4	-0.017425
10791.3	-0.0172512
10803.1	-0.0169019
10814.9	-0.0165501
10820.8	-0.0163732
10832.6	-0.0160177
10844.5	-0.0156595
10850.4	-0.0154794
10862.2	-0.0151172
10874	-0.0147522
10885.8	-0.0143845
10891.7	-0.0141996
10903.6	-0.0138275
10915.4	-0.0134525
10921.3	-0.0132639
10933.1	-0.0128845
10944.9	-0.0125021
10950.8	-0.0123097
10962.7	-0.0119227
10974.5	-0.0115326
10980.4	-0.0113364
10992.2	-0.0109417
11004	-0.0105438
11015.8	-0.0101429
11021.7	-0.00994123
11033.6	-0.00953559
11045.4	-0.00912685
11051.3	-0.00892132
11063.1	-0.00850795
11074.9	-0.00809152
11080.8	-0.00788217
11092.7	-0.00746121
11104.5	-0.00703727
11110.4	-0.0068242
11122.2	-0.00639587
11134	-0.00596469
11145.9	-0.00553071
11151.8	-0.00531269
11163.6	-0.00487463
11175.4	-0.00443394
11181.3	-0.00421264
11193.1	-0.00376816
11205	-0.00332125
11210.9	-0.00309693
11222.7	-0.00264657
11234.5	-0.00219405
11240.4	-0.001967
11252.2	-0.00151143
11264.1	-0.00105396
11275.9	-0.000594718
11281.8	-0.000364476
11293.6	9.71696e-05
11305.4	0.000560252
11311.3	0.000792288
11323.1	0.00125726
11335	0.0017233
11340.9	0.00195668
11352.7	0.00242404
11364.5	0.00289209
11370.4	0.00312631
11382.2	0.00359507
11394.1	0.00406408
11405.9	0.00453318
11411.8	0.00476771
11423.6	0.00523661
11435.4	0.00570514
11441.3	0.00593921
11453.2	0.00640684
11465	0.00687364
11470.9	0.00710666
11482.7	0.00757184
11494.5	0.00803571
11500.4	0.00826708
11512.3	0.00872859
11524.1	0.00918829
11535.9	0.00964597
11541.8	0.00987399
11553.6	0.0103283
11565.5	0.01078
11571.4	0.0110049
11583.2	0.0114525
11595	0.0118971
11600.9	0.0121182
11612.7	0.0125579
11624.6	0.012994
11630.5	0.0132107
11642.3	0.0136412
11654.1	0.0140677
11660	0.0142794
11671.8	0.0146995
11683.6	0.0151151
11695.5	0.015526
11701.4	0.0157296
11713.2	0.0161332
11725	0.0165316
11730.9	0.0167288
11742.7	0.0171191
11754.6	0.0175038
11760.5	0.0176941
11772.3	0.0180701
11784.1	0.0184401
11790	0.0186228
11801.8	0.0189835
11813.7	0.0193378
11825.5	0.0196856
11831.4	0.0198569
11843.2	0.0201946
11855	0.0205253
11860.9	0.020688
11872.8	0.021008
11884.6	0.0213208
11890.5	0.0214744
11902.3	0.0217761
11914.1	0.0220702
11920	0.0222143
11931.9	0.0224968
11943.7	0.0227715
11955.5	0.0230382
11961.4	0.0231685
11973.2	0.023423
11985	0.0236694
11991	0.0237894
12002.8	0.0240233
12014.6	0.0242487
12020.5	0.0243582
12032.3	0.0245709
12044.1	0.0247749
12050.1	0.0248736
12061.9	0.0250645
12073.7	0.0252466
12085.5	0.0254199
12091.4	0.0255032
12103.2	0.025663
12115.1	0.0258139
12121	0.0258859
12132.8	0.0260231
12144.6	0.0261512
12150.5	0.0262118
12162.3	0.0263261
12174.2	0.0264312
12180.1	0.0264803
12191.9	0.0265714
12203.7	0.0266533
12215.5	0.0267257
12221.4	0.0267584
12233.3	0.0268168
12245.1	0.0268658
12251	0.0268867
12262.8	0.0269215
12274.6	0.0269467
12280.5	0.0269558
12292.4	0.0269669
12304.2	0.0269684
12310.1	0.0269656
12321.9	0.0269528
12333.7	0.0269304
12345.5	0.0268985
12351.5	0.026879
12363.3	0.0268327
12375.1	0.0267769
12381	0.0267454
12392.8	0.0266752
12404.6	0.0265955
12410.6	0.026552
12422.4	0.0264579
12434.2	0.0263543
12440.1	0.0262988
12451.9	0.0261809
12463.7	0.0260534
12475.6	0.0259164
12481.5	0.0258443
12493.3	0.0256931
12505.1	0.0255323
12511	0.0254484
12522.8	0.0252736
12534.7	0.0250893
12540.6	0.0249937
12552.4	0.0247954
12564.2	0.0245878
12570.1	0.0244805
12581.9	0.024259
12593.8	0.0240283
12605.6	0.0237884
12611.5	0.0236651
12623.3	0.0234115
12635.1	0.023149
12641	0.0230144
12652.9	0.0227384
12664.7	0.0224536
12670.6	0.0223079
12682.4	0.02201
12694.2	0.0217034
12700.1	0.0215468
12712	0.0212274
12723.8	0.0208995
12735.6	0.0205632
12741.5	0.020392
12753.3	0.0200434
12765.1	0.0196867
12771.1	0.0195054
12782.9	0.0191368
12794.7	0.0187604
12800.6	0.0185694
12812.4	0.0181815
12824.2	0.0177862
12830.2	0.0175858
12842	0.0171796
12853.8	0.0167663
12865.6	0.0163461
12871.5	0.0161334
12883.3	0.015703
12895.2	0.0152662
12901.1	0.0150453
12912.9	0.014599
12924.7	0.0141465
12930.6	0.0139181
12942.4	0.0134569
12954.3	0.0129901
12960.2	0.0127546
12972	0.0122798
12983.8	0.0117998
12995.6	0.011315
13001.5	0.0110708
13013.4	0.0105791
13025.2	0.010083
13031.1	0.00983343
13042.9	0.00933129
13054.7	0.00882541
13060.6	0.00857113
13072.5	0.00806006
13084.3	0.00754584
13090.2	0.00728763
13102	0.00676914
13113.8	0.00624813
13125.6	0.00572485
13131.6	0.00546243
13143.4	0.00493621
13155.2	0.00440836
13161.1	0.00414391
13172.9	0.00361411
13184.7	0.00308334
13190.6	0.00281767
13202.5	0.00228593
13214.3	0.00175388
13220.2	0.00148782
13232	0.00095581
13243.8	0.000424155
13255.7	-0.000106875
13261.6	-0.000372073
13273.4	-0.000901668
13285.2	-0.00142998
13291.1	-0.00169356
13302.9	-0.00221944
13314.8	-0.00274338
13320.7	-0.00300453
13332.5	-0.00352506
13344.3	-0.004043
13350.2	-0.00430092
13362	-0.00481449
13373.9	-0.00532485
13385.7	-0.00583174
13391.6	-0.0060838
13403.4	-0.00658504
13415.2	-0.0070822
13421.1	-0.00732918
13433	-0.0078198
13444.8	-0.00830578
13450.7	-0.00854695
13462.5	-0.00902555
13474.3	-0.00949895
13480.2	-0.00973363
13492.1	-0.0101988
13503.9	-0.0106583
13515.7	-0.0111119
13521.6	-0.0113365
13533.4	-0.0117808
13545.2	-0.0122188
13551.1	-0.0124354
13563	-0.0128635
13574.8	-0.0132848
13580.7	-0.0134928
13592.5	-0.0139036
13604.3	-0.0143072
13610.2	-0.0145062
13622.1	-0.0148987
13633.9	-0.0152836
13645.7	-0.0156609
13651.6	-0.0158466
13663.4	-0.016212
13675.3	-0.0165695
13681.2	-0.0167453
13693	-0.0170906
13704.8	-0.0174277
13710.7	-0.0175931
13722.5	-0.0179176
13734.4	-0.0182337
13740.3	-0.0183886
13752.1	-0.0186919
13763.9	-0.0189865
13775.7	-0.0192725
13781.6	-0.0194122
13793.5	-0.0196851
13805.3	-0.0199491
13811.2	-0.0200778
13823	-0.0203286
13834.8	-0.0205704
13840.7	-0.020688
13852.5	-0.0209166
13864.4	-0.0211361
13870.3	-0.0212426
13882.1	-0.0214488
13893.9	-0.021646
13905.7	-0.0218343
13911.6	-0.0219251
13923.5	-0.0221
13935.3	-0.0222661
13941.2	-0.0223458
13953	-0.0224985
13964.8	-0.0226424
13970.7	-0.0227111
13982.6	-0.0228418
13994.4	-0.0229638
14000.3	-0.0230216
14012.1	-0.0231306
14023.9	-0.023231
14035.8	-0.0233228
14041.7	-0.0233655
14053.5	-0.0234446
14065.3	-0.0235153
14071.2	-0.0235475
14083	-0.0236057
14094.9	-0.0236557
14100.8	-0.0236776
14112.6	-0.0237153
14124.4	-0.023745
14130.3	-0.0237569
14142.1	-0.0237747
14153.9	-0.0237846
14165.8	-0.0237868
14171.7	-0.023785
14183.5	-0.0237758
14195.3	-0.0237589
14201.2	-0.0237477
14213	-0.0237198
14224.9	-0.0236846
14230.8	-0.0236642
14242.6	-0.0236182
14254.4	-0.0235652
14260.3	-0.023536
14272.1	-0.0234726
14284	-0.0234023
14295.8	-0.0233253
14301.7	-0.0232844
14313.5	-0.0231976
14325.3	-0.0231043
14331.2	-0.0230553
14343.1	-0.0229525
14354.9	-0.0228436
14360.8	-0.0227869
14372.6	-0.0226689
14384.4	-0.022545
14390.3	-0.0224809
14402.2	-0.0223483
14414	-0.0222102
14425.8	-0.0220664
14431.7	-0.0219925
14443.5	-0.0218407
14455.3	-0.0216837
14461.3	-0.0216032
14473.1	-0.0214385
14484.9	-0.0212688
14490.8	-0.0211822
14502.6	-0.0210052
14514.4	-0.0208236
14520.4	-0.020731
14532.2	-0.0205426
14544	-0.0203497
14555.8	-0.0201526
14561.7	-0.0200524
14573.5	-0.019849
14585.4	-0.0196417
14591.3	-0.0195365
14603.1	-0.0193233
14614.9	-0.0191064
14620.8	-0.0189966
14632.6	-0.0187743
14644.5	-0.0185487
14650.4	-0.0184346
14662.2	-0.018204
14674	-0.0179702
14685.8	-0.0177335
14691.7	-0.017614
14703.6	-0.0173729
14715.4	-0.0171292
14721.3	-0.0170063
14733.1	-0.0167587
14744.9	-0.0165087
14750.8	-0.0163828
14762.7	-0.0161294
14774.5	-0.0158738
14780.4	-0.0157453
14792.2	-0.0154869
14804	-0.0152266
14815.8	-0.0149647
14821.8	-0.0148331
14833.6	-0.0145689
14845.4	-0.0143033
14851.3	-0.01417
14863.1	-0.0139026
14874.9	-0.0136342
14880.9	-0.0134996
14892.7	-0.0132298
14904.5	-0.0129593
14910.4	-0.0128238
14922.2	-0.0125524
14934	-0.0122806
14945.9	-0.0120085
14951.8	-0.0118724
14963.6	-0.0116001
14975.4	-0.0113279
14981.3	-0.0111918
14993.1	-0.0109199
15005	-0.0106483
15010.9	-0.0105126
15022.7	-0.0102418
15034.5	-0.00997168
15040.4	-0.00983691
15052.2	-0.00956802
15064.1	-0.00930012
15075.9	-0.00903335
15081.8	-0.00890043
15093.6	-0.00863558
15105.4	-0.00837217
15111.3	-0.00824104
15123.2	-0.00798002
15135	-0.00772076
15140.9	-0.00759182
15152.7	-0.00733541
15164.5	-0.00708106
15170.4	-0.00695469
15182.3	-0.00670365
15194.1	-0.00645497
15205.9	-0.00620877
15211.8	-0.00608664
15223.6	-0.00584437
15235.4	-0.00560487
15241.4	-0.0054862
15253.2	-0.00525107
15265	-0.00501898
15270.9	-0.00490412
15282.7	-0.00467682
15294.5	-0.00445284
15300.5	-0.00434213
15312.3	-0.00412332
15324.1	-0.0039081
15330	-0.00380187
15341.8	-0.00359221
15353.6	-0.00338638
15365.5	-0.00318448
15371.4	-0.00308503
15383.2	-0.00288919
15395	-0.0026975
15400.9	-0.00260325
15412.7	-0.00241796
15424.6	-0.00223704
15430.5	-0.00214825
15442.3	-0.00197404
15454.1	-0.0018044
15460	-0.00172132
15471.8	-0.00155868
15483.7	-0.00140079
15495.5	-0.00124773
15501.4	-0.00117302
15513.2	-0.00102732
15525	-0.000886593
15530.9	-0.000818119
15542.8	-0.000684982
15554.6	-0.000556972
15560.5	-0.000494906
15572.3	-0.000374685
15584.1	-0.000259716
15590	-0.000204215
15601.9	-9.72094e-05
15613.7	4.43601e-06
15625.5	0.000100683
15631.4	0.000146771
15643.2	0.000234855
15655	0.000317459
15661	0.000356696
15672.8	0.000431028
15684.6	0.000499815
15690.5	0.000532122
15702.3	0.000592555
15714.1	0.000647398
15720	0.000672719
15731.9	0.000719154
15743.7	0.000759972
15755.5	0.000795168
15761.4	0.000810656
15773.2	0.000837415
15785.1	0.000858549
15791	0.00086701
15802.8	0.000879719
15814.6	0.000886824
15820.5	0.000888277
15832.3	0.000886996
15844.2	0.000880145
15850.1	0.000874636
15861.9	0.000859468
15873.7	0.000838783
15885.5	0.000812609
15891.4	0.000797473
15903.3	0.000763121
15915.1	0.000723361
15921	0.000701463
15932.8	0.000653658
15944.6	0.000600541
15950.5	0.000572004
15962.4	0.000511003
15974.2	0.000444806
15980.1	0.000409774
15991.9	0.00033588
16003.7	0.000256924
16015.5	0.000172964
16021.4	0.000129127
16033.3	3.77771e-05
16045.1	-5.84171e-05
16051	-0.00010831
16062.8	-0.000211641
16074.6	-0.000319641
16080.5	-0.000375367
16092.4	-0.000490225
16104.2	-0.000609557
16110.1	-0.000670874
16121.9	-0.000796758
16133.7	-0.000926903
16145.6	-0.00106122
16151.5	-0.00112991
16163.3	-0.00127031
16175.1	-0.00141464
16181	-0.00148825
16192.8	-0.00163829
16204.7	-0.00179201
16210.6	-0.00187021
16222.4	-0.00202925
16234.2	-0.00219169
16240.1	-0.00227415
16251.9	-0.00244149
16263.8	-0.00261195
16275.6	-0.0027854
16281.5	-0.00287321
16293.3	-0.00305093
16305.1	-0.00323133
16311	-0.0033225
16322.9	-0.00350669
16334.7	-0.00369323
16340.6	-0.00378735
16352.4	-0.00397718
16364.2	-0.00416902
16370.1	-0.00426565
16381.9	-0.00446025
16393.8	-0.0046565
16405.6	-0.00485427
16411.5	-0.00495367
16423.3	-0.00515343
16435.1	-0.00535431
16441	-0.00545514
16452.9	-0.00565744
16464.7	-0.00586049
16470.6	-0.00596225
16482.4	-0.00616612
16494.2	-0.00637035
16500.1	-0.00647254
16512	-0.00667699
16523.8	-0.00688139
16535.6	-0.00708556
16541.5	-0.00718751
16553.3	-0.00739105
16565.2	-0.00759394
16571.1	-0.0076951
16582.9	-0.00789673
16594.7	-0.0080973
16600.6	-0.00819714
16612.4	-0.00839582
16624.3	-0.00859301
16630.2	-0.008691
16642	-0.00888567
16653.8	-0.00907843
16665.6	-0.00926913
16671.5	-0.00936365
16683.3	-0.00955093
16695.2	-0.00973573
16701.1	-0.00982714
16712.9	-0.0100079
16724.7	-0.0101858
16730.6	-0.0102736
16742.4	-0.0104468
16754.3	-0.0106167
16760.2	-0.0107004
16772	-0.010865
16783.8	-0.011026
16795.6	-0.0111832
16801.5	-0.0112603
16813.4	-0.0114114
16825.2	-0.0115582
16831.1	-0.0116301
16842.9	-0.0117704
16854.7	-0.0119061
16860.6	-0.0119722
16872.5	-0.0121009
16884.3	-0.0122246
16890.2	-0.0122846
16902	-0.0124008
16913.8	-0.0125118
16925.7	-0.0126175
16931.6	-0.0126683
16943.4	-0.0127658
16955.2	-0.0128577
16961.1	-0.0129015
16972.9	-0.0129849
16984.7	-0.0130625
16990.7	-0.013099
17002.5	-0.0131677
17014.3	-0.0132303
17020.2	-0.0132594
17032	-0.0133128
17043.8	-0.0133601
17055.7	-0.0134012
17061.6	-0.0134193
17073.4	-0.0134509
17085.2	-0.0134761
17091.1	-0.0134863
17102.9	-0.0135019
17114.8	-0.013511
17120.7	-0.0135132
17132.5	-0.0135126
17144.3	-0.0135055
17150.2	-0.0134996
17162	-0.0134828
17173.9	-0.0134596
17185.7	-0.0134298
17191.6	-0.0134125
17203.4	-0.0133732
17215.2	-0.0133274
17221.1	-0.0133021
17233	-0.0132467
17244.8	-0.0131851
17250.7	-0.013152
17262.5	-0.013081
17274.3	-0.0130039
17280.2	-0.012963
17292.1	-0.0128768
17303.9	-0.0127846
17315.7	-0.0126865
17321.6	-0.0126353
17333.4	-0.0125286
17345.2	-0.0124163
17351.2	-0.0123581
17363	-0.0122375
17374.8	-0.0121116
17380.7	-0.0120467
17392.5	-0.011913
17404.3	-0.0117743
17410.3	-0.0117031
17422.1	-0.0115571
17433.9	-0.0114065
17445.7	-0.0112513
17451.6	-0.0111721
17463.4	-0.0110105
17475.3	-0.0108448
17481.2	-0.0107604
17493	-0.0105889
17504.8	-0.0104137
17510.7	-0.0103248
17522.5	-0.0101444
17534.4	-0.00996085
17540.3	-0.00986792
17552.1	-0.00967991
17563.9	-0.00948918
17575.7	-0.00929593
17581.6	-0.00919842
17593.5	-0.00900178
17605.3	-0.00880313
17611.2	-0.00870312
17623	-0.00850186
17634.8	-0.00829912
17640.7	-0.00819726
17652.6	-0.00799271
17664.4	-0.00778723
17670.3	-0.0076842
17682.1	-0.00747772
17693.9	-0.00727085
17705.7	-0.00706381
17711.7	-0.0069603
17723.5	-0.00675342
17735.3	-0.00654692
17741.2	-0.00644388
17753	-0.00623836
17764.8	-0.00603378
17770.8	-0.0059319
17782.6	-0.00572912
17794.4	-0.0055278
17800.3	-0.00542776
17812.1	-0.00522906
17823.9	-0.00503235
17835.8	-0.00483786
17841.7	-0.00474151
17853.5	-0.00455072
17865.3	-0.00436265
17871.2	-0.0042697
17883	-0.00408608
17894.9	-0.00390568
17900.8	-0.00381674
17912.6	-0.00364151
17924.4	-0.00346995
17930.3	-0.00338561
17942.1	-0.00321991
17954	-0.00305832
17965.8	-0.00290102
17971.7	-0.00282403
17983.5	-0.00267346
17995.3	-0.00252758
18001.2	-0.00245644
18013.1	-0.00231785
18024.9	-0.00218431
18030.8	-0.00211947
18042.6	-0.00199375
18054.4	-0.00187339
18060.3	-0.00181526
18072.2	-0.00170318
18084	-0.00159674
18095.8	-0.00149607
18101.7	-0.00144792
18113.5	-0.00135606
18125.3	-0.00127017
18131.3	-0.0012295
18143.1	-0.00115274
18154.9	-0.00108213
18160.8	-0.00104916
18172.6	-0.000987917
18184.4	-0.000932971
18190.4	-0.000907874
18202.2	-0.000862453
18214	-0.000823421
18225.8	-0.000790802
18231.7	-0.000776901
18243.5	-0.000753926
18255.4	-0.000737386
18261.3	-0.000731529
18273.1	-0.000724633
18284.9	-0.000724149
18290.8	-0.000726304
18302.6	-0.000735392
18314.5	-0.00075082
18320.4	-0.000760899
18332.2	-0.000785757
18344	-0.000816838
18355.8	-0.00085408
18361.7	-0.000874992
18373.6	-0.00092135
18385.4	-0.000973689
18391.3	-0.00100207
18403.1	-0.00106322
18414.9	-0.00113013
18420.8	-0.0011657
18432.7	-0.00124105
18444.5	-0.00132188
18450.4	-0.00136431
18462.2	-0.00145315
18474	-0.00154717
18485.8	-0.00164623
18491.8	-0.00169761
18503.6	-0.00180398
18515.4	-0.00191504
18521.3	-0.00197227
18533.1	-0.00209007
18544.9	-0.00221216
18550.8	-0.00227476
18562.7	-0.00240298
18574.5	-0.00253506
18580.4	-0.0026025
18592.2	-0.00274005
18604	-0.00288102
18615.9	-0.00302522
18621.8	-0.00309847
18633.6	-0.00324716
18645.4	-0.00339858
18651.3	-0.00347526
18663.1	-0.00363043
18675	-0.00378784
18680.9	-0.00386732
18692.7	-0.0040277
18704.5	-0.00418981
18710.4	-0.00427144
18722.2	-0.00443573
18734.1	-0.00460121
18745.9	-0.00476766
18751.8	-0.00485119
18763.6	-0.00501871
18775.4	-0.00518666
18781.3	-0.00527073
18793.2	-0.00543894
18805	-0.00560703
18810.9	-0.00569098
18822.7	-0.00585851
18834.5	-0.0060254
18840.4	-0.00610854
18852.3	-0.00627407
18864.1	-0.00643842
18875.9	-0.00660138
18881.8	-0.00668228
18893.6	-0.00684277
18905.4	-0.00700136
18911.3	-0.00707987
18923.2	-0.00723523
18935	-0.00738817
18940.9	-0.00746368
18952.7	-0.00761266
18964.5	-0.00775874
18970.4	-0.00783064
18982.3	-0.00797204
18994.1	-0.00811009
19005.9	-0.00824462
19011.8	-0.00831051
19023.6	-0.00843942
19035.5	-0.00856439
19041.4	-0.00862534
19053.2	-0.00874408
19065	-0.00885848
19070.9	-0.00891401
19082.7	-0.00902162
19094.6	-0.00912453
19100.5	-0.00917417
19112.3	-0.00926977
19124.1	-0.00936034
19130	-0.00940371
19141.8	-0.00948651
19153.7	-0.00956399
19165.5	-0.00963605
19171.4	-0.00967002
19183.2	-0.00973376
19195	-0.00979185
19200.9	-0.00981874
19212.7	-0.00986819
19224.6	-0.00991178
19230.5	-0.00993136
19242.3	-0.00996605
19254.1	-0.00999474
19260	-0.0100068
19271.8	-0.0100264
19283.7	-0.0100399
19295.5	-0.0100472
19301.4	-0.0100486
19313.2	-0.0100466
19325	-0.0100385
19330.9	-0.0100321
19342.8	-0.0100146
19354.6	-0.00999093
19360.5	-0.00997677
19372.3	-0.0099438
19384.1	-0.00990465
19390	-0.00988276
19401.9	-0.00983439
19413.7	-0.00977992
19425.5	-0.00971937
19431.4	-0.00968684
19443.2	-0.00961728
19455.1	-0.00954179
19461	-0.00950183
19472.8	-0.00941754
19484.6	-0.00932747
19490.5	-0.00928029
19502.3	-0.00918169
19514.1	-0.00907752
19520.1	-0.00902337
19531.9	-0.00891099
19543.7	-0.00879327
19555.5	-0.0086703
19561.4	-0.00860688
19573.2	-0.00847624
19585.1	-0.00834063
19591	-0.00827099
19602.8	-0.00812814
19614.6	-0.00798061
19620.5	-0.00790513
19632.3	-0.00775084
19644.2	-0.00759219
19650.1	-0.00751127
19661.9	-0.00734635
19673.7	-0.00717743
19685.5	-0.00700464
19691.4	-0.00691685
19703.3	-0.00673854
19715.1	-0.00655674
19721	-0.00646458
19732.8	-0.00627783
19744.6	-0.00608797
19750.5	-0.00599192
19762.4	-0.00579769
19774.2	-0.00560074
19780.1	-0.00550129
19791.9	-0.00530056
19803.7	-0.00509752
19815.5	-0.00489232
19821.5	-0.00478896
19833.3	-0.00458083
19845.1	-0.00437094
19851	-0.0042654
19862.8	-0.00405319
19874.6	-0.00383964
19880.6	-0.00373241
19892.4	-0.00351713
19904.2	-0.00330091
19910.1	-0.0031925
19921.9	-0.00297516
19933.7	-0.00275726
19945.6	-0.00253897
19951.5	-0.00242973
19963.3	-0.00221113
19975.1	-0.00199252
19981	-0.00188325
19992.8	-0.00166489
