0	0
11.5399	0
20.7718	0
30.0037	0
41.5436	0
50.7755	0
60.0074	0
71.5473	0
80.7792	0
90.0111	0
101.551	0
110.783	0
120.015	0
131.555	0
140.787	0
150.018	0
161.558	0
170.79	0
180.022	0
191.562	0
200.794	0
210.026	0
221.566	0
230.798	0
240.03	0
251.569	0
260.801	0
270.033	0
281.573	0
290.805	0
300.037	0
311.577	0
320.809	0
330.041	0
341.581	0
350.812	0
360.044	0
371.584	0
380.816	0
390.048	0
401.588	0
410.82	0
420.052	0
431.592	0
440.824	0
450.055	0
461.595	0
470.827	0
480.059	0
491.599	0
500.831	0
510.063	0
521.603	0
530.835	0
540.067	0
551.606	0
560.838	0
570.07	0
581.61	0
590.842	0
600.074	0
611.614	0
620.846	0
630.078	0
641.618	0
650.849	0
660.081	0
671.621	0
680.853	0
690.085	0
701.625	0
710.857	0
720.089	0
731.629	0
740.861	0
750.092	0
761.632	0
770.864	0
780.096	0
791.636	0
800.868	0
810.1	0
821.64	0
830.872	0
840.104	0
851.643	0
860.875	0
870.107	0
881.647	0
890.879	0
900.111	0
911.651	0
920.883	0
930.115	0
941.654	0
950.886	0
960.118	0
971.658	0
980.89	0
990.122	0
1001.66	0
1010.89	0
1020.13	0
1031.67	0
1040.9	0
1050.13	0
1061.67	0
1070.9	0
1080.13	0
1091.67	0
1100.9	0
1110.14	0
1121.68	0
1130.91	0
1140.14	0
1151.68	0
1160.91	0
1170.14	0
1181.68	0
1190.92	0
1200.15	0
1211.69	0
1220.92	0
1230.15	0
1241.69	0
1250.92	0
1260.16	0
1271.7	0
1280.93	0
1290.16	0
1301.7	0
1310.93	0
1320.16	0
1331.7	0
1340.93	0
1350.17	0
1361.71	0
1370.94	0
1380.17	0
1391.71	0
1400.94	0
1410.17	0
1421.71	0
1430.95	0
1440.18	0
1451.72	0
1460.95	0
1470.18	0
1481.72	0
1490.95	0
1500.18	0
1511.72	0
1520.96	0
1530.19	0
1541.73	0
1550.96	0
1560.19	0
1571.73	0
1580.96	0
1590.2	0
1601.74	0
1610.97	0
1620.2	0
1631.74	0
1640.97	0
1650.2	0
1661.74	0
1670.98	0
1680.21	0
1691.75	0
1700.98	0
1710.21	0
1721.75	0
1730.98	0
1740.21	0
1751.75	0
1760.99	0
1770.22	0
1781.76	0
1790.99	0
1800.22	0
1811.76	0
1820.99	0
1830.23	0
1841.77	0
1851	0
1860.23	0
1871.77	0
1881	0
1890.23	0
1901.77	0
1911	0
1920.24	0
1931.78	0
1941.01	0
1950.24	0
1961.78	0
1971.01	0
1980.24	0
1991.78	0
2001.02	0
2010.25	0
2021.79	0
2031.02	0
2040.25	0
2051.79	0
2061.02	0
2070.26	0
2081.79	0
2091.03	0
2100.26	0
2111.8	0
2121.03	0
2130.26	0
2141.8	0
2151.03	0
2160.27	0
2171.81	0
2181.04	0
2190.27	0
2201.81	0
2211.04	0
2220.27	0
2231.81	0
2241.05	0
2250.28	0
2261.82	-9.09495e-13
2271.05	-2.72848e-12
2280.28	-6.36646e-12
2291.82	-1.45519e-11
2301.05	-3.00133e-11
2310.28	-5.82077e-11
2321.82	-1.31877e-10
2331.06	-2.49202e-10
2340.29	-4.66571e-10
2351.83	-9.95897e-10
2361.06	-1.79807e-09
2370.29	-3.19869e-09
2381.83	-6.44559e-09
2391.06	-1.1114e-08
2400.3	-1.89048e-08
2411.84	-3.60342e-08
2421.07	-5.94828e-08
2430.3	-9.69194e-08
2441.84	-1.7524e-07
2451.07	-2.775e-07
2460.3	-4.34037e-07
2471.84	-7.46328e-07
2481.07	-1.13608e-06
2490.31	-1.70917e-06
2501.85	-2.80187e-06
2511.08	-4.10796e-06
2520.31	-5.95604e-06
2531.85	-9.33083e-06
2541.08	-1.32015e-05
2550.31	-1.8481e-05
2561.85	-2.77334e-05
2571.09	-3.79343e-05
2580.32	-5.13694e-05
2591.86	-7.40086e-05
2601.09	-9.80445e-05
2610.32	-0.000128661
2621.86	-0.000178361
2631.09	-0.00022926
2640.33	-0.000292063
2651.87	-0.000390454
2661.1	-0.000487819
2670.33	-0.000604378
2681.87	-0.000780938
2691.1	-0.000950059
2700.33	-0.00114681
2711.87	-0.00143551
2721.1	-0.00170369
2730.34	-0.00200739
2741.88	-0.00243998
2751.11	-0.00283044
2760.34	-0.00326169
2771.88	-0.00385933
2781.11	-0.00438466
2790.34	-0.00495177
2801.88	-0.00571829
2811.12	-0.00637616
2820.35	-0.00707195
2831.89	-0.00799183
2841.12	-0.00876489
2850.35	-0.00956807
2861.89	-0.0106099
2871.12	-0.0114699
2880.35	-0.01235
2891.89	-0.0134737
2901.13	-0.0143875
2910.36	-0.0153113
2921.9	-0.0164754
2931.13	-0.0174106
2940.36	-0.0183464
2951.9	-0.0195127
2961.13	-0.0204401
2970.36	-0.0213596
2981.9	-0.0224942
2991.14	-0.0233871
3000.37	-0.0242643
3011.91	-0.0253345
3021.14	-0.0261665
3030.37	-0.0269738
3041.91	-0.0279432
3051.14	-0.0286825
3060.37	-0.0293853
3071.91	-0.030205
3081.15	-0.0308071
3090.38	-0.0313545
3101.92	-0.0319502
3111.15	-0.0323452
3120.38	-0.0326562
3131.92	-0.0329084
3141.15	-0.0329835
3150.38	-0.0329281
3161.92	-0.0326463
3171.16	-0.0322246
3180.39	-0.031602
3191.93	-0.0304995
3201.16	-0.0293213
3210.39	-0.0278442
3221.93	-0.0255233
3231.16	-0.0232406
3240.39	-0.0205362
3251.93	-0.0165003
3261.16	-0.0126962
3270.4	-0.00833576
3281.94	-0.00204097
3291.17	0.00371712
3300.4	0.0101557
3311.94	0.0192086
3321.17	0.0272867
3330.4	0.0361297
3341.94	0.0482792
3351.17	0.0588823
3360.4	0.0702682
3371.94	0.0855845
3381.18	0.0986806
3390.41	0.112496
3401.95	0.13072
3411.18	0.14601
3420.41	0.161877
3431.95	0.182435
3441.18	0.199385
3450.41	0.216712
3461.95	0.238798
3471.18	0.256722
3480.41	0.274799
3491.95	0.297504
3501.19	0.315673
3510.42	0.333776
3521.96	0.356215
3531.19	0.373943
3540.42	0.391412
3551.96	0.412803
3561.19	0.429499
3570.42	0.445772
3581.96	0.46545
3591.19	0.480609
3600.42	0.495202
3611.96	0.512585
3621.19	0.525752
3630.43	0.538218
3641.96	0.552747
3651.2	0.563476
3660.43	0.573361
3671.97	0.584465
3681.2	0.592291
3690.43	0.59913
3701.97	0.606223
3711.2	0.610681
3720.43	0.614017
3731.97	0.616549
3741.2	0.617224
3750.43	0.616668
3761.97	0.614204
3771.2	0.610797
3780.44	0.606101
3791.97	0.598412
3801.21	0.59081
3810.44	0.581929
3821.98	0.569061
3831.21	0.557385
3840.44	0.544518
3851.98	0.526824
3861.21	0.51144
3870.44	0.495025
3881.98	0.473148
3891.21	0.454641
3900.44	0.435315
3911.98	0.410119
3921.21	0.389223
3930.45	0.367751
3941.99	0.34022
3951.22	0.317734
3960.45	0.294917
3971.99	0.266042
3981.22	0.24274
3990.45	0.219331
4001.99	0.19001
4011.22	0.166574
4020.45	0.143214
4031.99	0.114193
4041.22	0.0911726
4050.46	0.0683685
4062	0.0402224
4071.23	0.018032
4080.46	-0.00383638
4092	-0.0306779
4101.23	-0.0517251
4110.46	-0.0723676
4122	-0.0975661
4131.23	-0.117213
4140.46	-0.13638
4152	-0.159626
4161.24	-0.177623
4170.47	-0.195058
4182.01	-0.21602
4191.24	-0.232089
4200.47	-0.247501
4212.01	-0.265796
4221.24	-0.279615
4230.47	-0.292673
4242.01	-0.307872
4251.25	-0.319091
4260.48	-0.32944
4272.02	-0.341103
4281.25	-0.349378
4290.48	-0.356685
4302.02	-0.364419
4311.25	-0.369462
4320.49	-0.373469
4332.03	-0.377003
4341.26	-0.378642
4350.49	-0.379224
4362.03	-0.378473
4371.26	-0.376703
4380.49	-0.373914
4390.53	-0.369748
4402.07	-0.363563
4411.3	-0.357582
4420.53	-0.35073
4432.07	-0.341015
4441.3	-0.332389
4450.53	-0.323069
4462.07	-0.310538
4471.3	-0.299888
4480.54	-0.288758
4492.08	-0.274277
4501.31	-0.262323
4510.54	-0.250116
4522.08	-0.234611
4531.31	-0.22209
4540.54	-0.209536
4552.08	-0.193891
4561.31	-0.181483
4570.55	-0.169229
4582.09	-0.154202
4591.32	-0.142464
4600.55	-0.131021
4612.09	-0.117178
4621.32	-0.106506
4630.55	-0.0962145
4642.09	-0.0839104
4651.33	-0.074529
4660.56	-0.0655658
4672.1	-0.0549542
4681.33	-0.0469379
4690.56	-0.039338
4702.1	-0.0304138
4711.33	-0.0237246
4720.56	-0.0174245
4732.1	-0.0100791
4741.34	-0.00461182
4750.57	0.000505521
4762.11	0.00642933
4771.34	0.0108052
4780.57	0.0148714
4792.11	0.0195358
4801.34	0.0229455
4810.57	0.02608
4822.11	0.0296244
4831.35	0.0321708
4840.58	0.0344678
4852.12	0.0369979
4861.35	0.0387557
4870.58	0.0402822
4882.12	0.0418711
4891.35	0.0428916
4900.59	0.0436929
4912.13	0.0443912
4921.36	0.0447108
4930.59	0.0448214
4942.13	0.0446708
4951.36	0.0443236
4960.59	0.0437792
4972.13	0.0428285
4981.36	0.0418582
4990.6	0.040708
5002.14	0.0390276
5011.37	0.0374987
5020.6	0.035815
5032.14	0.0335076
5041.37	0.0315121
5050.6	0.0293962
5062.14	0.0266006
5071.38	0.0242594
5080.61	0.0218401
5092.15	0.0187275
5101.38	0.0161845
5110.61	0.0136102
5122.15	0.0103708
5131.38	0.00777975
5140.61	0.00520425
5152.15	0.00202722
5161.39	-0.000465102
5170.62	-0.00290097
5182.16	-0.00585041
5191.39	-0.00812241
5200.62	-0.0103081
5212.16	-0.0129091
5221.39	-0.0148791
5230.63	-0.0167472
5242.17	-0.0189364
5251.4	-0.0205707
5260.63	-0.0221023
5272.17	-0.0238764
5281.4	-0.0251878
5290.63	-0.0264088
5302.17	-0.0278164
5311.4	-0.0288555
5320.64	-0.029825
5332.18	-0.0309502
5341.41	-0.0317901
5350.64	-0.0325849
5362.18	-0.033526
5371.41	-0.0342457
5380.64	-0.0349431
5392.18	-0.035793
5401.42	-0.036462
5410.65	-0.0371265
5422.19	-0.0379569
5431.42	-0.038625
5440.65	-0.0392992
5452.19	-0.040153
5461.42	-0.0408461
5470.65	-0.0415486
5482.19	-0.0424392
5491.43	-0.0431607
5500.66	-0.0438889
5512.2	-0.0448057
5521.43	-0.0455421
5530.66	-0.0462787
5542.2	-0.0471964
5551.43	-0.0479251
5560.66	-0.0486466
5572.2	-0.049535
5581.44	-0.0502325
5590.67	-0.0509163
5602.21	-0.0517495
5611.44	-0.0523975
5620.67	-0.053028
5632.21	-0.0537908
5641.44	-0.0543807
5650.68	-0.0549528
5662.22	-0.0556439
5671.45	-0.0561787
5680.68	-0.0566989
5692.22	-0.0573311
5701.45	-0.057825
5710.68	-0.0583105
5722.22	-0.0589096
5731.45	-0.0593857
5740.69	-0.0598621
5752.23	-0.0604623
5761.46	-0.0609498
5770.69	-0.061447
5782.23	-0.0620866
5791.46	-0.0626163
5800.69	-0.0631647
5812.23	-0.0638806
5821.46	-0.0644803
5830.7	-0.0651061
5842.24	-0.0659278
5851.47	-0.0666183
5860.7	-0.0673392
5872.24	-0.068284
5881.47	-0.0690749
5890.7	-0.0698966
5902.24	-0.0709655
5911.48	-0.0718526
5920.71	-0.072766
5932.25	-0.0739414
5941.48	-0.0749052
5950.71	-0.0758862
5962.25	-0.0771313
5971.48	-0.0781374
5980.71	-0.0791475
5992.25	-0.0804085
6001.49	-0.0814096
6010.72	-0.0823982
6022.26	-0.0836076
6031.49	-0.0845472
6040.72	-0.0854555
6052.26	-0.0865379
6061.49	-0.0873541
6070.73	-0.0881198
6082.26	-0.088997
6091.5	-0.0896278
6100.73	-0.0901897
6112.27	-0.0907869
6121.5	-0.0911745
6130.73	-0.0914766
6142.27	-0.0917276
6151.5	-0.0918219
6160.74	-0.0918176
6172.28	-0.0916684
6181.51	-0.0914306
6190.74	-0.0910847
6202.28	-0.0904973
6211.51	-0.0899014
6220.74	-0.0891922
6232.28	-0.0881455
6241.51	-0.0871797
6250.75	-0.0860999
6262.29	-0.0845908
6271.52	-0.0832574
6280.75	-0.0818136
6292.29	-0.0798565
6301.52	-0.0781717
6310.75	-0.076384
6322.29	-0.0740093
6331.53	-0.0720016
6340.76	-0.0699019
6352.3	-0.0671542
6361.53	-0.0648625
6370.76	-0.0624927
6382.3	-0.0594274
6391.53	-0.0568988
6400.76	-0.0543076
6412.3	-0.0509883
6421.54	-0.0482749
6430.77	-0.0455155
6440	-0.0427155
6451.54	-0.039166
6460.77	-0.0362932
6470	-0.0333965
6481.54	-0.0297495
6490.78	-0.026817
6500.01	-0.0238766
6511.55	-0.0201969
6520.78	-0.0172556
6530.01	-0.0143211
6541.55	-0.0106691
6550.78	-0.00776557
6560.01	-0.00488235
6571.55	-0.00131283
6580.79	0.00151063
6590.02	0.00430161
6601.56	0.00773934
6610.79	0.0104446
6620.02	0.0131064
6631.56	0.0163676
6640.79	0.0189199
6650.03	0.0214187
6661.57	0.0244623
6670.8	0.0268298
6680.03	0.0291343
6691.57	0.0319222
6700.8	0.034075
6710.03	0.0361562
6721.57	0.0386531
6730.8	0.040564
6740.04	0.0423954
6751.58	0.0445696
6760.81	0.0462144
6770.04	0.0477732
6781.58	0.049598
6790.81	0.0509573
6800.04	0.0522256
6811.58	0.0536817
6820.81	0.0547422
6830.05	0.0557093
6841.59	0.0567864
6850.82	0.0575427
6860.05	0.0582058
6871.59	0.0589045
6880.82	0.0593604
6890.05	0.0597259
6901.59	0.0600581
6910.83	0.0602262
6920.06	0.0603096
6931.6	0.0602983
6940.83	0.0601998
6950.06	0.0600246
6961.6	0.0597022
6970.83	0.0593652
6980.06	0.0589614
6991.6	0.0583676
7000.84	0.0578254
7010.07	0.0572272
7021.61	0.0564061
7030.84	0.0556948
7040.07	0.0549389
7051.61	0.0539369
7060.84	0.0530938
7070.08	0.0522176
7081.62	0.0510812
7090.85	0.0501432
7100.08	0.0491833
7111.62	0.0479576
7120.85	0.0469605
7130.08	0.0459519
7141.62	0.04468
7150.85	0.0436572
7160.09	0.042633
7171.63	0.0413549
7180.86	0.0403376
7190.09	0.0393278
7201.63	0.03808
7210.86	0.0370961
7220.09	0.0361277
7231.63	0.0349419
7240.86	0.0340156
7250.1	0.0331111
7261.64	0.0320137
7270.87	0.0311642
7280.1	0.0303415
7291.64	0.0293522
7300.87	0.0285934
7310.1	0.0278644
7321.64	0.0269958
7330.87	0.0263355
7340.11	0.0257063
7351.65	0.0249635
7360.88	0.024404
7370.11	0.0238751
7381.65	0.0232565
7390.88	0.0227949
7400.11	0.0223623
7411.65	0.0218611
7420.88	0.021491
7430.12	0.0211474
7441.66	0.0207539
7450.89	0.0204669
7460.12	0.0202038
7471.66	0.0199071
7480.89	0.0196946
7490.12	0.0195036
7501.66	0.0192938
7510.89	0.0191485
7520.13	0.0190226
7531.67	0.0188919
7540.9	0.0188082
7550.13	0.0187425
7561.67	0.0186855
7570.9	0.0186595
7580.13	0.0186508
7591.67	0.0186636
7600.9	0.0186927
7610.14	0.0187382
7621.67	0.0188177
7630.91	0.0188989
7640.14	0.0189954
7651.68	0.0191367
7660.91	0.0192656
7670.14	0.0194078
7681.68	0.0196031
7690.91	0.0197723
7700.14	0.0199519
7711.68	0.0201893
7720.92	0.0203879
7730.15	0.0205929
7741.69	0.0208556
7750.92	0.0210692
7760.15	0.0212839
7771.69	0.0215513
7780.92	0.0217623
7790.15	0.0219686
7801.69	0.0222172
7810.93	0.0224064
7820.16	0.022585
7831.7	0.0227907
7840.93	0.0229391
7850.16	0.0230714
7861.7	0.0232118
7870.93	0.0233026
7880.16	0.0233727
7891.7	0.0234298
7900.94	0.0234499
7910.17	0.0234465
7921.71	0.0234083
7930.94	0.0233502
7940.17	0.0232674
7951.71	0.0231293
7960.94	0.0229913
7970.17	0.0228294
7981.71	0.0225942
7990.95	0.0223806
8000.18	0.0221453
8011.72	0.0218221
8020.95	0.0215416
8030.18	0.0212428
8041.72	0.0208454
8050.95	0.0205096
8060.18	0.0201593
8071.72	0.0197028
8080.96	0.019324
8090.19	0.0189342
8101.73	0.018433
8110.96	0.0180218
8120.19	0.0176023
8131.73	0.017067
8140.96	0.0166307
8150.19	0.0161875
8161.73	0.0156239
8170.97	0.0151654
8180.2	0.0147
8191.74	0.014108
8200.97	0.0136257
8210.2	0.0131352
8221.74	0.0125095
8230.97	0.0119981
8240.2	0.0114761
8251.74	0.0108077
8260.98	0.0102591
8270.21	0.0096973
8281.75	0.00897519
8290.98	0.0083806
8300.21	0.00777013
8311.75	0.00698358
8320.98	0.00633474
8330.21	0.00566782
8341.75	0.00480794
8350.99	0.0040985
8360.22	0.00336952
8371.76	0.00243044
8380.99	0.00165666
8390.22	0.000862767
8401.76	-0.000157882
8410.99	-0.000996936
8420.23	-0.00185586
8431.77	-0.00295713
8441	-0.0038599
8450.23	-0.00478166
8461.77	-0.00595999
8471	-0.00692308
8480.23	-0.00790386
8491.77	-0.00915405
8501	-0.010173
8510.24	-0.0112082
8521.78	-0.0125244
8531.01	-0.0135945
8540.24	-0.0146794
8551.78	-0.0160557
8561.01	-0.0171724
8570.24	-0.0183025
8581.78	-0.0197336
8591.02	-0.0208926
8600.25	-0.0220638
8611.79	-0.0235444
8621.02	-0.0247415
8630.25	-0.0259495
8641.79	-0.027474
8651.02	-0.0287045
8660.25	-0.029944
8671.79	-0.0315052
8681.03	-0.0327627
8690.26	-0.0340268
8701.8	-0.035615
8711.03	-0.0368906
8720.26	-0.0381695
8731.8	-0.039771
8741.03	-0.0410527
8750.27	-0.0423332
8761.81	-0.0439298
8771.04	-0.0452018
8780.27	-0.0464671
8791.81	-0.0480362
8801.04	-0.0492791
8810.27	-0.0505088
8821.81	-0.0520239
8831.04	-0.0532158
8840.28	-0.0543872
8851.82	-0.0558193
8861.05	-0.0569366
8870.28	-0.0580262
8881.82	-0.0593461
8891.05	-0.0603657
8900.28	-0.061351
8911.82	-0.0625313
8921.06	-0.0634324
8930.29	-0.0642935
8941.83	-0.0653113
8951.06	-0.0660772
8960.29	-0.0667989
8971.83	-0.0676374
8981.06	-0.0682565
8990.29	-0.0688291
9001.83	-0.0694789
9011.07	-0.0699457
9020.3	-0.0703654
9031.84	-0.0708242
9041.07	-0.0711389
9050.3	-0.0714076
9061.84	-0.0716798
9071.07	-0.0718474
9080.31	-0.0719714
9091.85	-0.0720663
9101.08	-0.0720954
9110.31	-0.072084
9121.85	-0.0720142
9131.08	-0.0719153
9140.31	-0.0717791
9151.85	-0.0715583
9161.08	-0.0713423
9170.32	-0.0710923
9181.86	-0.0707337
9191.09	-0.0704109
9200.32	-0.0700572
9211.86	-0.0695729
9221.09	-0.0691527
9230.32	-0.0687042
9241.86	-0.0681049
9251.1	-0.0675954
9260.33	-0.0670602
9271.87	-0.0663558
9281.1	-0.0657651
9290.33	-0.0651509
9301.87	-0.0643516
9311.1	-0.0636879
9320.33	-0.0630036
9331.87	-0.0621207
9341.11	-0.0613936
9350.34	-0.0606493
9361.88	-0.0596965
9371.11	-0.0589177
9380.34	-0.0581257
9391.88	-0.0571192
9401.11	-0.0563026
9410.35	-0.0554774
9421.88	-0.0544362
9431.12	-0.0535975
9440.35	-0.0527553
9451.89	-0.0517002
9461.12	-0.0508563
9470.35	-0.0500143
9481.89	-0.0489667
9491.12	-0.0481347
9500.36	-0.0473095
9511.9	-0.04629
9521.13	-0.0454856
9530.36	-0.0446926
9541.9	-0.0437192
9551.13	-0.0429559
9560.36	-0.0422076
9571.9	-0.0412942
9581.13	-0.0405822
9590.37	-0.0398872
9601.91	-0.0390434
9611.14	-0.0383884
9620.37	-0.0377516
9631.91	-0.0369811
9641.14	-0.036385
9650.37	-0.0358067
9661.91	-0.0351083
9671.15	-0.0345687
9680.38	-0.0340453
9691.92	-0.0334132
9701.15	-0.0329241
9710.38	-0.0324489
9721.92	-0.0318732
9731.15	-0.0314261
9740.39	-0.0309899
9751.92	-0.0304582
9761.16	-0.0300426
9770.39	-0.0296344
9781.93	-0.029133
9791.16	-0.0287375
9800.39	-0.028346
9811.93	-0.0278604
9821.16	-0.0274737
9830.4	-0.0270875
9841.94	-0.0266041
9851.17	-0.0262156
9860.4	-0.0258246
9871.94	-0.025331
9881.17	-0.0249315
9890.4	-0.024527
9901.94	-0.0240135
9911.18	-0.0235957
9920.41	-0.0231713
9931.95	-0.0226309
9941.18	-0.0221903
9950.41	-0.0217422
9961.95	-0.0211715
9971.18	-0.0207065
9980.41	-0.0202341
9991.95	-0.0196337
10001.2	-0.0191459
10010.4	-0.0186519
10022	-0.0180267
10031.2	-0.017521
10040.4	-0.0170114
10052	-0.0163702
10061.2	-0.0158549
10070.4	-0.0153387
10082	-0.0146938
10091.2	-0.0141797
10100.4	-0.0136683
10112	-0.0130348
10121.2	-0.0125343
10130.4	-0.0120405
10142	-0.0114348
10151.2	-0.0109609
10160.4	-0.0104977
10172	-0.00993557
10181.2	-0.00950064
10190.4	-0.0090799
10202	-0.00857529
10211.2	-0.00818962
10220.4	-0.00782071
10232	-0.007384
10241.2	-0.00705471
10250.4	-0.00674362
10262	-0.00638062
10271.2	-0.00611099
10280.5	-0.00585976
10292	-0.00557129
10301.2	-0.00536061
10310.5	-0.00516735
10322	-0.0049495
10331.2	-0.00479348
10340.5	-0.004653
10352	-0.00449815
10361.2	-0.00438996
10370.5	-0.00429489
10382	-0.00419331
10391.2	-0.00412493
10400.5	-0.00406721
10412	-0.00400901
10421.2	-0.00397287
10430.5	-0.00394539
10442	-0.00392255
10451.2	-0.00391306
10460.5	-0.00391112
10472	-0.00391916
10481.2	-0.00393398
10490.5	-0.00395641
10502	-0.00399556
10511.2	-0.00403627
10520.5	-0.00408589
10532	-0.00416142
10541.3	-0.00423356
10550.5	-0.004317
10562	-0.00443862
10571.3	-0.00455095
10580.5	-0.00467775
10592	-0.00485817
10601.3	-0.00502133
10610.5	-0.00520233
10622	-0.00545515
10631.3	-0.00567977
10640.5	-0.00592518
10652	-0.00626226
10661.3	-0.00655688
10670.5	-0.00687415
10682	-0.00730299
10691.3	-0.00767195
10700.5	-0.0080638
10712	-0.00858525
10721.3	-0.00902704
10730.5	-0.00948987
10742	-0.0100964
10751.3	-0.0106026
10760.5	-0.0111257
10772	-0.0118009
10781.3	-0.0123557
10790.5	-0.0129213
10802.1	-0.0136399
10811.3	-0.0142211
10820.5	-0.0148051
10832.1	-0.0155348
10841.3	-0.016115
10850.5	-0.0166888
10862.1	-0.0173926
10871.3	-0.0179414
10880.5	-0.0184743
10892.1	-0.0191139
10901.3	-0.0196007
10910.5	-0.0200628
10922.1	-0.0206015
10931.3	-0.0209985
10940.5	-0.021363
10952.1	-0.02177
10961.3	-0.0220546
10970.5	-0.0223011
10982.1	-0.0225539
10991.3	-0.0227108
11000.5	-0.0228268
11012.1	-0.0229136
11021.3	-0.0229366
11030.5	-0.0229185
11042.1	-0.0228392
11051.3	-0.0227313
11060.5	-0.0225853
11072.1	-0.0223511
11081.3	-0.0221245
11090.5	-0.021865
11102.1	-0.0214975
11111.3	-0.0211718
11120.6	-0.0208203
11132.1	-0.0203488
11141.3	-0.019949
11150.6	-0.019532
11162.1	-0.0189906
11171.3	-0.0185448
11180.6	-0.0180906
11192.1	-0.0175151
11201.3	-0.0170516
11210.6	-0.0165882
11222.1	-0.0160126
11231.3	-0.0155578
11240.6	-0.0151103
11252.1	-0.0145643
11261.3	-0.0141402
11270.6	-0.0137293
11282.1	-0.0132361
11291.3	-0.0128594
11300.6	-0.0124996
11312.1	-0.0120749
11321.3	-0.0117559
11330.6	-0.0114557
11342.1	-0.0111074
11351.3	-0.0108502
11360.6	-0.0106119
11372.1	-0.0103403
11381.4	-0.0101434
11390.6	-0.00996388
11402.1	-0.00976296
11411.4	-0.00961993
11420.6	-0.0094916
11432.1	-0.00935026
11441.4	-0.00925107
11450.6	-0.00916293
11462.1	-0.00906634
11471.4	-0.00899835
11480.6	-0.00893715
11492.1	-0.00886806
11501.4	-0.00881701
11510.6	-0.00876815
11522.1	-0.00870796
11531.4	-0.00865874
11540.6	-0.008607
11552.1	-0.00853657
11561.4	-0.00847386
11570.6	-0.00840394
11582.1	-0.00830422
11591.4	-0.00821289
11600.6	-0.00810979
11612.1	-0.0079623
11621.4	-0.00782782
11630.6	-0.00767726
11642.2	-0.00746458
11651.4	-0.00727337
11660.6	-0.00706219
11672.2	-0.00676847
11681.4	-0.00650842
11690.6	-0.00622506
11702.2	-0.00583671
11711.4	-0.00549773
11720.6	-0.00513283
11732.2	-0.00463932
11741.4	-0.004214
11750.6	-0.00376112
11762.2	-0.00315586
11771.4	-0.00264015
11780.6	-0.00209643
11792.2	-0.00137759
11801.4	-0.000771504
11810.6	-0.000138304
11822.2	0.000690449
11831.4	0.00138237
11840.6	0.00209905
11852.2	0.00302813
11861.4	0.00379656
11870.6	0.0045859
11882.2	0.00559977
11891.4	0.00643065
11900.6	0.00727725
11912.2	0.00835478
11921.4	0.00922983
11930.6	0.0101142
11942.2	0.0112296
11951.4	0.0121272
11960.6	0.0130269
11972.2	0.014151
11981.4	0.0150472
11990.7	0.0159379
12002.2	0.0170402
12011.4	0.0179103
12020.7	0.0187676
12032.2	0.0198179
12041.4	0.0206384
12050.7	0.0214393
12062.2	0.0224099
12071.4	0.0231598
12080.7	0.0238844
12092.2	0.0247523
12101.4	0.0254148
12110.7	0.0260478
12122.2	0.0267962
12131.4	0.0273599
12140.7	0.0278918
12152.2	0.0285116
12161.4	0.0289713
12170.7	0.0293989
12182.2	0.0298889
12191.4	0.030246
12200.7	0.0305727
12212.2	0.0309398
12221.4	0.0312018
12230.7	0.0314369
12242.2	0.0316951
12251.4	0.0318749
12260.7	0.0320327
12272.2	0.0322015
12281.5	0.0323159
12290.7	0.0324139
12302.2	0.0325162
12311.5	0.032584
12320.7	0.0326414
12332.2	0.032701
12341.5	0.0327412
12350.7	0.0327764
12362.2	0.0328157
12371.5	0.0328452
12380.7	0.0328743
12392.2	0.0329118
12401.5	0.032944
12410.7	0.0329788
12422.2	0.0330273
12431.5	0.0330704
12440.7	0.0331178
12452.2	0.0331831
12461.5	0.03324
12470.7	0.0333008
12482.2	0.0333816
12491.5	0.0334494
12500.7	0.0335191
12512.2	0.0336076
12521.5	0.0336783
12530.7	0.0337476
12542.3	0.0338307
12551.5	0.0338928
12560.7	0.0339495
12572.3	0.0340108
12581.5	0.0340507
12590.7	0.0340809
12602.3	0.0341033
12611.5	0.0341075
12620.7	0.0340981
12632.3	0.034066
12641.5	0.0340227
12650.7	0.0339631
12662.3	0.0338646
12671.5	0.033766
12680.7	0.0336494
12692.3	0.0334783
12701.5	0.033321
12710.7	0.0331458
12722.3	0.0329022
12731.5	0.0326883
12740.7	0.0324583
12752.3	0.0321493
12761.5	0.0318862
12770.7	0.0316102
12782.3	0.031249
12791.5	0.0309488
12800.7	0.0306402
12812.3	0.0302451
12821.5	0.0299237
12830.7	0.0295993
12842.3	0.0291923
12851.5	0.0288679
12860.8	0.0285464
12872.3	0.0281516
12881.5	0.0278436
12890.8	0.0275446
12902.3	0.0271862
12911.5	0.0269139
12920.8	0.0266564
12932.3	0.0263576
12941.5	0.026139
12950.8	0.0259402
12962.3	0.0257218
12971.5	0.0255727
12980.8	0.0254476
12992.3	0.025327
13001.5	0.0252602
13010.8	0.0252207
13020	0.0252095
13031.5	0.0252361
13040.8	0.0252906
13050	0.025375
13061.5	0.0255232
13070.8	0.0256761
13080	0.0258596
13091.6	0.0261318
13100.8	0.0263837
13110	0.0266655
13121.6	0.0270591
13130.8	0.0274065
13140	0.0277819
13151.6	0.0282893
13160.8	0.0287247
13170	0.029185
13181.6	0.0297936
13190.8	0.0303055
13200	0.0308381
13211.6	0.0315304
13220.8	0.0321036
13230	0.032692
13241.6	0.0334461
13250.8	0.0340616
13260	0.0346859
13271.6	0.0354752
13280.8	0.036111
13290	0.036748
13301.6	0.0375423
13310.8	0.0381732
13320	0.0387971
13331.6	0.0395633
13340.8	0.040162
13350	0.040745
13361.6	0.0414476
13370.8	0.0419853
13380	0.0424985
13391.6	0.0431011
13400.8	0.0435489
13410.1	0.0439632
13421.6	0.04443
13430.8	0.0447594
13440.1	0.045047
13451.6	0.045344
13460.8	0.0455287
13470.1	0.0456641
13481.6	0.0457607
13490.8	0.0457774
13500.1	0.0457384
13511.6	0.0456087
13520.8	0.0454383
13530.1	0.0452072
13541.6	0.044831
13550.8	0.044459
13560.1	0.0440228
13571.6	0.0433863
13580.8	0.0428034
13590.1	0.0421545
13601.6	0.0412503
13610.8	0.0404524
13620.1	0.0395883
13631.6	0.0384156
13640.8	0.0374037
13650.1	0.036327
13661.6	0.034891
13670.9	0.033671
13680.1	0.0323889
13691.6	0.0307005
13700.9	0.0292828
13710.1	0.0278068
13721.6	0.0258824
13730.9	0.0242813
13740.1	0.0226273
13751.6	0.0204882
13760.9	0.0187221
13770.1	0.0169096
13781.6	0.0145819
13790.9	0.012673
13800.1	0.0107252
13811.6	0.00823962
13820.9	0.00621366
13830.1	0.00415739
13841.6	0.00154875
13850.9	-0.000565202
13860.1	-0.0026999
13871.6	-0.00539269
13880.9	-0.00756256
13890.1	-0.00974276
13901.6	-0.0124775
13910.9	-0.0146687
13920.1	-0.0168591
13931.7	-0.0195909
13940.9	-0.021767
13950.1	-0.0239309
13961.7	-0.0266132
13970.9	-0.0287367
13980.1	-0.0308364
13991.7	-0.0334223
14000.9	-0.0354558
14010.1	-0.0374541
14021.7	-0.0398974
14030.9	-0.0418042
14040.1	-0.0436651
14051.7	-0.0459218
14060.9	-0.0476678
14070.1	-0.0493578
14081.7	-0.0513873
14090.9	-0.0529412
14100.1	-0.0544304
14111.7	-0.0561971
14120.9	-0.057532
14130.1	-0.0587948
14141.7	-0.0602691
14150.9	-0.0613631
14160.1	-0.0623794
14171.7	-0.0635384
14180.9	-0.0643752
14190.1	-0.0651306
14201.7	-0.0659592
14210.9	-0.0665289
14220.1	-0.0670153
14231.7	-0.0675061
14240.9	-0.067805
14250.2	-0.0680208
14261.7	-0.0681746
14270.9	-0.0682055
14280.2	-0.0681556
14291.7	-0.0679811
14300.9	-0.0677534
14310.2	-0.0674488
14321.7	-0.0669627
14330.9	-0.0664915
14340.2	-0.0659495
14351.7	-0.0651756
14360.9	-0.0644821
14370.2	-0.0637253
14381.7	-0.0626943
14390.9	-0.0618047
14400.2	-0.0608609
14411.7	-0.0596093
14420.9	-0.0585544
14430.2	-0.0574553
14441.7	-0.0560246
14450.9	-0.0548385
14460.2	-0.0536194
14471.7	-0.0520544
14481	-0.0507738
14490.2	-0.0494717
14501.7	-0.0478193
14511	-0.0464818
14520.2	-0.0451344
14531.7	-0.0434413
14541	-0.042084
14550.2	-0.0407279
14561.7	-0.0390392
14571	-0.0376972
14580.2	-0.0363665
14591.7	-0.0347232
14601	-0.033428
14610.2	-0.0321528
14621.7	-0.0305904
14631	-0.0293685
14640.2	-0.0281735
14651.7	-0.0267204
14661	-0.0255922
14670.2	-0.024496
14681.7	-0.0231724
14691	-0.0221518
14700.2	-0.021166
14711.7	-0.0199834
14721	-0.0190773
14730.2	-0.0182068
14741.8	-0.0171683
14751	-0.0163769
14760.2	-0.0156198
14771.8	-0.0147208
14781	-0.0140383
14790.2	-0.0133873
14801.8	-0.0126162
14811	-0.0120318
14820.2	-0.0114748
14831.8	-0.0108149
14841	-0.010314
14850.2	-0.00983553
14861.8	-0.00926627
14871	-0.00883184
14880.2	-0.00841417
14891.8	-0.00791292
14901	-0.00752643
14910.2	-0.00715092
14921.8	-0.00669428
14931	-0.00633705
14940.2	-0.00598515
14951.8	-0.00555026
14961	-0.00520436
14970.2	-0.00485857
14981.8	-0.00442424
14991	-0.00407337
15000.2	-0.00371804
15011.8	-0.00326572
15021	-0.00289595
15030.2	-0.00251799
15041.8	-0.00203261
15051	-0.00163296
15060.3	-0.00122243
15071.8	-0.000693084
15081	-0.00025608
15090.3	0.000193329
15101.8	0.000772868
15111	0.00125083
15120.3	0.0017415
15131.8	0.00237243
15141	0.00289089
15150.3	0.0034211
15161.8	0.00409951
15171	0.00465396
15180.3	0.00521795
15191.8	0.005935
15201	0.00651705
15210.3	0.00710536
15221.8	0.0078477
15231	0.00844555
15240.3	0.00904544
15251.8	0.00979595
15261	0.010395
15270.3	0.0109912
15281.8	0.0117298
15291	0.0123135
15300.3	0.0128888
15311.8	0.0135937
15321.1	0.014144
15330.3	0.0146804
15341.8	0.0153287
15351.1	0.0158275
15360.3	0.0163066
15371.8	0.0168755
15381.1	0.0173045
15390.3	0.0177084
15401.8	0.0181756
15411.1	0.0185173
15420.3	0.0188286
15431.8	0.0191729
15441.1	0.0194105
15450.3	0.0196128
15461.8	0.0198138
15471.1	0.0199314
15480.3	0.0200088
15491.8	0.0200472
15501.1	0.0200292
15510.3	0.0199666
15521.8	0.0198232
15531.1	0.0196548
15540.3	0.019437
15551.9	0.0190932
15561.1	0.0187592
15570.3	0.0183713
15581.9	0.0178085
15591.1	0.0172942
15600.3	0.0167215
15611.9	0.0159214
15621.1	0.0152123
15630.3	0.0144406
15641.9	0.0133858
15651.1	0.0124686
15660.3	0.0114849
15671.9	0.0101602
15681.1	0.00902334
15690.3	0.00781698
15701.9	0.00621029
15711.1	0.00484526
15720.3	0.00340897
15731.9	0.00151301
15741.1	-8.43231e-05
15750.3	-0.00175315
15761.9	-0.00393926
15771.1	-0.00576756
15780.3	-0.00766567
15791.9	-0.010135
15801.1	-0.0121864
15810.3	-0.0143037
15821.9	-0.0170404
15831.1	-0.0192996
15840.3	-0.0216185
15851.9	-0.0245973
15861.1	-0.0270413
15870.4	-0.0295363
15881.9	-0.0327221
15891.1	-0.0353201
15900.4	-0.0379581
15911.9	-0.0413062
15921.1	-0.04402
15930.4	-0.0467608
15941.9	-0.050218
15951.1	-0.0530029
15960.4	-0.0557999
15971.9	-0.0593054
15981.1	-0.0621112
15990.4	-0.0649126
16001.9	-0.0684001
16011.1	-0.0711723
16020.4	-0.0739226
16031.9	-0.0773217
16041.1	-0.0800032
16050.4	-0.0826451
16061.9	-0.0858834
16071.1	-0.0884163
16080.4	-0.0908919
16091.9	-0.0938976
