0	0
59.7117	0
119.423	0
179.135	0
238.847	0
298.559	0
358.27	0
417.982	0
477.694	0
537.405	0
597.117	0
656.829	0
716.541	0
776.252	0
835.964	0
895.676	0
955.388	0
1015.1	0
1074.81	0
1134.52	0
1194.23	0
1253.95	0
1313.66	0
1373.37	0
1433.08	0
1492.79	0
1552.5	0
1612.22	0
1671.93	0
1731.64	9.09495e-13
1791.35	2.36469e-11
1851.06	2.00089e-10
1910.77	1.12232e-09
1970.49	4.82396e-09
2030.2	1.70876e-08
2089.91	5.21632e-08
2149.62	1.41328e-07
2209.33	3.47048e-07
2269.05	7.84786e-07
2328.76	1.65528e-06
2388.47	3.2925e-06
2448.18	6.23903e-06
2507.89	1.13753e-05
2567.6	2.01565e-05
2627.31	3.50567e-05
2687.03	6.03754e-05
2746.74	0.000103628
2806.45	0.000177773
2866.16	0.000304521
2925.87	0.000518843
2985.58	0.000874567
3045.29	0.00145062
3105	0.002357
3164.71	0.00373926
3224.42	0.00577975
3284.13	0.00869425
3343.84	0.0127223
3403.55	0.0181105
3463.26	0.0250898
3522.97	0.0338464
3582.68	0.0444908
3642.39	0.0570274
3702.1	0.0713291
3761.81	0.0871207
3821.52	0.103975
3881.23	0.121325
3940.94	0.138486
4000.65	0.154701
4060.36	0.169185
4120.07	0.181184
4179.78	0.19003
4239.5	0.195186
4299.21	0.196292
4358.92	0.193182
4418.63	0.185894
4478.34	0.174664
4538.05	0.159896
4597.77	0.142135
4657.48	0.122017
4717.19	0.100232
4776.9	0.0774761
4836.61	0.0544193
4896.32	0.0316717
4956.04	0.00976492
5015.75	-0.0108605
5075.46	-0.0298589
5135.17	-0.0469777
5194.88	-0.0620502
5254.59	-0.074986
5314.3	-0.0857605
5374.02	-0.0944032
5433.73	-0.100988
5493.44	-0.105622
5553.15	-0.108441
5612.86	-0.109598
5672.57	-0.109258
5732.28	-0.107595
5792	-0.104784
5851.71	-0.100998
5911.42	-0.0964044
5971.13	-0.0911652
6030.84	-0.0854311
6090.55	-0.0793427
6150.27	-0.0730298
6209.98	-0.066611
6269.69	-0.0601939
6329.4	-0.0538749
6389.11	-0.0477397
6448.82	-0.0418626
6508.53	-0.0363066
6568.25	-0.031123
6627.96	-0.0263511
6687.67	-0.0220177
6747.38	-0.0181376
6807.09	-0.0147141
6866.8	-0.0117392
6926.52	-0.00919549
6986.23	-0.00705709
7045.94	-0.00529155
7105.65	-0.00386152
7165.36	-0.00272655
7225.07	-0.00184475
7284.79	-0.00117436
7344.5	-0.000675026
7404.21	-0.000308968
7463.92	-4.18242e-05
7523.63	0.000156675
7583.35	0.000312263
7643.06	0.000445892
7702.77	0.000573668
7762.48	0.000706963
7822.19	0.000852669
7881.9	0.00101359
7941.61	0.00118894
8001.33	0.00137491
8061.04	0.00156532
8120.75	0.00175222
8180.46	0.00192657
8240.17	0.00207879
8299.88	0.00219931
8359.59	0.00227904
8419.31	0.00230975
8479.02	0.00228436
8538.73	0.00219716
8598.44	0.00204402
8658.15	0.00182242
8717.86	0.00153153
8777.57	0.00117221
8837.29	0.000746945
8897	0.000259786
8956.71	-0.000283779
9016.42	-0.000876961
9076.13	-0.00151184
9135.84	-0.00217954
9195.55	-0.00287044
9255.26	-0.0035744
9314.98	-0.00428094
9374.69	-0.00497944
9434.4	-0.00565941
9494.11	-0.0063106
9553.82	-0.00692323
9613.53	-0.00748811
9673.25	-0.00799683
9732.96	-0.00844184
9792.67	-0.00881661
9852.38	-0.00911565
9912.09	-0.00933467
9971.8	-0.00947052
10031.5	-0.00952133
10091.2	-0.00948643
10150.9	-0.00936638
10210.6	-0.00916294
10270.4	-0.00887899
10330.1	-0.00851852
10389.8	-0.00808647
10449.5	-0.0075887
10509.2	-0.00703185
10568.9	-0.00642325
10628.6	-0.00577076
10688.3	-0.0050827
10748.1	-0.00436769
10807.8	-0.00363453
10867.5	-0.00289209
10927.2	-0.00214917
10986.9	-0.00141441
11046.6	-0.000696168
11106.3	-2.43231e-06
11166	0.000659271
11225.7	0.00128195
11285.5	0.00185921
11345.2	0.00238533
11404.9	0.00285526
11464.6	0.00326469
11524.3	0.00361005
11584	0.00388854
11643.7	0.00409809
11703.4	0.00423742
11763.2	0.00430592
11822.9	0.00430375
11882.6	0.00423169
11942.3	0.0040912
