0	0
78.6488	0
157.298	0
235.946	0
314.595	0
393.244	0
471.893	0
550.541	0
629.19	0
707.839	0
786.488	0
865.137	0
943.785	0
1022.43	0
1101.08	0
1179.73	0
1258.38	0
1337.03	0
1415.68	0
1494.33	0
1572.98	0
1651.62	0
1730.27	8.07631e-10
1808.92	7.26868e-09
1887.57	3.59942e-08
1966.22	1.3638e-07
2044.87	4.55616e-07
2123.52	1.42043e-06
2202.16	4.16857e-06
2280.81	1.1425e-05
2359.46	2.90459e-05
2438.11	6.84097e-05
2516.76	0.000149683
2595.4	0.00030575
2674.05	0.000586281
2752.7	0.00106116
2831.34	0.00182232
2909.99	0.00298297
2988.64	0.00467355
3067.29	0.00703402
3145.93	0.0102027
3224.58	0.0143022
3303.23	0.0194243
3381.87	0.0256147
3460.52	0.0328594
3539.17	0.0410755
3617.82	0.0501058
3696.46	0.05972
3775.11	0.0696216
3853.76	0.0794605
3932.41	0.08885
4011.06	0.097388
4089.71	0.104679
4168.35	0.110359
4247	0.114113
4325.65	0.115697
4404.3	0.114949
4482.95	0.111801
4561.6	0.106281
4640.25	0.0985087
4718.9	0.0886938
4797.55	0.0771196
4876.19	0.0641296
4954.84	0.0501102
5033.49	0.0354709
5112.14	0.0206265
5190.79	0.00597877
5269.44	-0.00809908
5348.09	-0.0212752
5426.74	-0.0332688
5505.38	-0.0438568
5584.03	-0.0528765
5662.68	-0.0602258
5741.33	-0.0658604
5819.98	-0.0697892
5898.63	-0.0720678
5977.28	-0.0727914
6055.92	-0.0720867
6134.57	-0.0701043
6213.22	-0.0670108
6291.87	-0.0629819
6370.52	-0.0581962
6449.17	-0.0528295
6527.82	-0.0470508
6606.47	-0.0410182
6685.11	-0.0348771
6763.76	-0.0287579
6842.41	-0.0227751
6921.06	-0.0170275
6999.71	-0.0115977
7078.36	-0.00655347
7157.01	-0.00194791
7235.65	0.00217901
7314.3	0.00579955
7392.95	0.00889709
7471.6	0.011465
7550.25	0.0135059
7628.9	0.01503
7707.55	0.0160553
7786.19	0.0166057
7864.84	0.0167105
7943.49	0.0164039
8022.14	0.0157238
8100.79	0.0147107
8179.44	0.0134076
8258.09	0.0118587
8336.73	0.0101086
8415.38	0.00820176
8494.03	0.00618196
8572.68	0.00409141
8651.33	0.00197039
8729.98	-0.00014325
8808.62	-0.00221449
8887.27	-0.00421148
8965.92	-0.00610583
9044.57	-0.0078728
9123.22	-0.00949148
9201.87	-0.0109448
9280.52	-0.0122198
9359.16	-0.0133072
9437.81	-0.0142016
9516.46	-0.0149012
9595.11	-0.0154076
9673.76	-0.0157256
9752.41	-0.0158628
9831.06	-0.0158294
9909.7	-0.0156376
9988.35	-0.0153017
10067	-0.0148373
10145.7	-0.0142613
10224.3	-0.0135913
10302.9	-0.0128452
10381.6	-0.0120414
10460.2	-0.0111978
10538.9	-0.0103319
10617.5	-0.00946072
10696.2	-0.00860006
10774.8	-0.00776469
10853.5	-0.00696805
10932.1	-0.00622207
11010.8	-0.00553714
11089.4	-0.00492199
11168.1	-0.00438365
11246.7	-0.00392746
11325.4	-0.00355706
11404	-0.00327445
11482.7	-0.00308006
11561.3	-0.00297282
11640	-0.00295028
11718.6	-0.00300872
11797.3	-0.00314329
11875.9	-0.00334812
11954.6	-0.00361653
