MODE: ipmo_prog0
PARCOUNT: 16
PROBLEMS: 1
Running on INWEST
Using iPMO

Programs:
 + ../../build/sierpi_intel_ipmo_tsunami_parallel_release  -u 10 -U 10 -T 1000 -n 40 -d 12
 + ../../build/sierpi_intel_ipmo_tsunami_parallel_release  -u 10 -U 10 -T 1000 -n 40 -d 12
 + ../../build/sierpi_intel_ipmo_tsunami_parallel_release  -u 10 -U 10 -T 1000 -n 40 -d 10
 + ../../build/sierpi_intel_ipmo_tsunami_parallel_release  -u 10 -U 10 -T 1000 -n 40 -d 12
 + ../../build/sierpi_intel_ipmo_tsunami_parallel_release  -u 10 -U 10 -T 1000 -n 40 -d 10

Sat Mar 31 15:29:49 CEST 2012
iPMO: Prog0 parallel execution with ipmo (16 times)
Waiting for job 54918
54932: CHANGING RESSOURCES
54932: CHANGING RESSOURCES
54927: CHANGING RESSOURCES
54922: CHANGING RESSOURCES
54931: CHANGING RESSOURCES
54929: CHANGING RESSOURCES
54921: CHANGING RESSOURCES
54925: CHANGING RESSOURCES
54933: CHANGING RESSOURCES
54926: CHANGING RESSOURCES
54924: CHANGING RESSOURCES
54923: CHANGING RESSOURCES
54919: CHANGING RESSOURCES
54928: CHANGING RESSOURCES
54920: CHANGING RESSOURCES
54930: CHANGING RESSOURCES
54918: CHANGING RESSOURCES

 + Terminating after 1000 timesteps with equal number of triangles -> EXIT
 + Final timestep: 6749

6750 TS (Timesteps)
715.114 ST (SIMULATION_TIME)
0.100037 TSS (Timestep size)
50.0205 SFS (Overall seconds for Simulation)
437983904 TP (Triangles processed)
0.00741045 ASPT (Averaged Seconds per Timestep)
64886.5 TPST (Triangles Processed in Average per Simulation Timestep)
48.6681 PPST (Clusters Processed in Average per Simulation Timestep)
8.75609 MTPS (Million Triangles per Second)
-8.75609 MTPSPT (Million Triangles per Second per Thread)
1.98018 EDMBPT (ElementData Megabyte per Timestep (RW))
267.215 EDMBPS (ElementData Megabyte per Second (RW))
SUM CLIENT SHUTDOWN HINT: 437.984
SUM CLIENT SHUTDOWN HINT DIV TIME: 0
54922: CHANGING RESSOURCES
54929: CHANGING RESSOURCES
54928: CHANGING RESSOURCES
54932: CHANGING RESSOURCES

 + Terminating after 1000 timesteps with equal number of triangles -> EXIT
 + Final timestep: 6749

6750 TS (Timesteps)
715.114 ST (SIMULATION_TIME)
0.100037 TSS (Timestep size)
50.5093 SFS (Overall seconds for Simulation)
437983904 TP (Triangles processed)
0.00748287 ASPT (Averaged Seconds per Timestep)
64886.5 TPST (Triangles Processed in Average per Simulation Timestep)
48.6681 PPST (Clusters Processed in Average per Simulation Timestep)
8.67134 MTPS (Million Triangles per Second)
-8.67134 MTPSPT (Million Triangles per Second per Thread)
1.98018 EDMBPT (ElementData Megabyte per Timestep (RW))
264.628 EDMBPS (ElementData Megabyte per Second (RW))
SUM CLIENT SHUTDOWN HINT: 875.968
SUM CLIENT SHUTDOWN HINT DIV TIME: 0
54922: CHANGING RESSOURCES
54927: CHANGING RESSOURCES
54924: CHANGING RESSOURCES

 + Terminating after 1000 timesteps with equal number of triangles -> EXIT
 + Final timestep: 6749

6750 TS (Timesteps)
715.114 ST (SIMULATION_TIME)
0.100037 TSS (Timestep size)
50.7418 SFS (Overall seconds for Simulation)
437983904 TP (Triangles processed)
0.00751731 ASPT (Averaged Seconds per Timestep)
64886.5 TPST (Triangles Processed in Average per Simulation Timestep)
48.6681 PPST (Clusters Processed in Average per Simulation Timestep)
8.63161 MTPS (Million Triangles per Second)
-8.63161 MTPSPT (Million Triangles per Second per Thread)
1.98018 EDMBPT (ElementData Megabyte per Timestep (RW))
263.416 EDMBPS (ElementData Megabyte per Second (RW))
SUM CLIENT SHUTDOWN HINT: 1313.95
SUM CLIENT SHUTDOWN HINT DIV TIME: 0
54921: CHANGING RESSOURCES
54931: CHANGING RESSOURCES

 + Terminating after 1000 timesteps with equal number of triangles -> EXIT
 + Final timestep: 6749

6750 TS (Timesteps)
715.114 ST (SIMULATION_TIME)
0.100037 TSS (Timestep size)
50.8127 SFS (Overall seconds for Simulation)
437983904 TP (Triangles processed)
0.0075278 ASPT (Averaged Seconds per Timestep)
64886.5 TPST (Triangles Processed in Average per Simulation Timestep)
48.6681 PPST (Clusters Processed in Average per Simulation Timestep)
8.61958 MTPS (Million Triangles per Second)
-8.61958 MTPSPT (Million Triangles per Second per Thread)
1.98018 EDMBPT (ElementData Megabyte per Timestep (RW))
263.049 EDMBPS (ElementData Megabyte per Second (RW))
SUM CLIENT SHUTDOWN HINT: 1751.94
SUM CLIENT SHUTDOWN HINT DIV TIME: 0
54918: CHANGING RESSOURCES
54932: CHANGING RESSOURCES
54928: CHANGING RESSOURCES

 + Terminating after 1000 timesteps with equal number of triangles -> EXIT
 + Final timestep: 6749

6750 TS (Timesteps)
715.114 ST (SIMULATION_TIME)
0.100037 TSS (Timestep size)
50.9565 SFS (Overall seconds for Simulation)
437983904 TP (Triangles processed)
0.00754912 ASPT (Averaged Seconds per Timestep)
64886.5 TPST (Triangles Processed in Average per Simulation Timestep)
48.6681 PPST (Clusters Processed in Average per Simulation Timestep)
8.59524 MTPS (Million Triangles per Second)
-8.59524 MTPSPT (Million Triangles per Second per Thread)
1.98018 EDMBPT (ElementData Megabyte per Timestep (RW))
262.306 EDMBPS (ElementData Megabyte per Second (RW))
SUM CLIENT SHUTDOWN HINT: 2189.92
SUM CLIENT SHUTDOWN HINT DIV TIME: 0
54927: CHANGING RESSOURCES
54918: CHANGING RESSOURCES
54931: CHANGING RESSOURCES
54924: CHANGING RESSOURCES
54929: CHANGING RESSOURCES

 + Terminating after 1000 timesteps with equal number of triangles -> EXIT
 + Final timestep: 6749

6750 TS (Timesteps)
715.114 ST (SIMULATION_TIME)
0.100037 TSS (Timestep size)
50.9902 SFS (Overall seconds for Simulation)
437983904 TP (Triangles processed)
0.0075541 ASPT (Averaged Seconds per Timestep)
64886.5 TPST (Triangles Processed in Average per Simulation Timestep)
48.6681 PPST (Clusters Processed in Average per Simulation Timestep)
8.58958 MTPS (Million Triangles per Second)
-8.58958 MTPSPT (Million Triangles per Second per Thread)
1.98018 EDMBPT (ElementData Megabyte per Timestep (RW))
262.133 EDMBPS (ElementData Megabyte per Second (RW))
SUM CLIENT SHUTDOWN HINT: 2627.9
SUM CLIENT SHUTDOWN HINT DIV TIME: 0
54930: CHANGING RESSOURCES
54922: CHANGING RESSOURCES
Waiting for job 54919

 + Terminating after 1000 timesteps with equal number of triangles -> EXIT
 + Final timestep: 6749

6750 TS (Timesteps)
715.114 ST (SIMULATION_TIME)
0.100037 TSS (Timestep size)
51.0813 SFS (Overall seconds for Simulation)
437983904 TP (Triangles processed)
0.0075676 ASPT (Averaged Seconds per Timestep)
64886.5 TPST (Triangles Processed in Average per Simulation Timestep)
48.6681 PPST (Clusters Processed in Average per Simulation Timestep)
8.57425 MTPS (Million Triangles per Second)
-8.57425 MTPSPT (Million Triangles per Second per Thread)
1.98018 EDMBPT (ElementData Megabyte per Timestep (RW))
261.665 EDMBPS (ElementData Megabyte per Second (RW))
SUM CLIENT SHUTDOWN HINT: 3065.89
SUM CLIENT SHUTDOWN HINT DIV TIME: 0
54929: CHANGING RESSOURCES
54924: CHANGING RESSOURCES
54932: CHANGING RESSOURCES

 + Terminating after 1000 timesteps with equal number of triangles -> EXIT
 + Final timestep: 6749

6750 TS (Timesteps)
715.114 ST (SIMULATION_TIME)
0.100037 TSS (Timestep size)
51.0906 SFS (Overall seconds for Simulation)
437983904 TP (Triangles processed)
0.00756898 ASPT (Averaged Seconds per Timestep)
64886.5 TPST (Triangles Processed in Average per Simulation Timestep)
48.6681 PPST (Clusters Processed in Average per Simulation Timestep)
8.57268 MTPS (Million Triangles per Second)
-8.57268 MTPSPT (Million Triangles per Second per Thread)
1.98018 EDMBPT (ElementData Megabyte per Timestep (RW))
261.618 EDMBPS (ElementData Megabyte per Second (RW))
SUM CLIENT SHUTDOWN HINT: 3503.87
SUM CLIENT SHUTDOWN HINT DIV TIME: 0
54921: CHANGING RESSOURCES
54928: CHANGING RESSOURCES
54919: CHANGING RESSOURCES
54931: CHANGING RESSOURCES

 + Terminating after 1000 timesteps with equal number of triangles -> EXIT
 + Final timestep: 6749

6750 TS (Timesteps)
715.114 ST (SIMULATION_TIME)
0.100037 TSS (Timestep size)
58.5553 SFS (Overall seconds for Simulation)
437983904 TP (Triangles processed)
0.00867487 ASPT (Averaged Seconds per Timestep)
64886.5 TPST (Triangles Processed in Average per Simulation Timestep)
48.6681 PPST (Clusters Processed in Average per Simulation Timestep)
7.47983 MTPS (Million Triangles per Second)
-7.47983 MTPSPT (Million Triangles per Second per Thread)
1.98018 EDMBPT (ElementData Megabyte per Timestep (RW))
228.266 EDMBPS (ElementData Megabyte per Second (RW))
SUM CLIENT SHUTDOWN HINT: 3941.86
SUM CLIENT SHUTDOWN HINT DIV TIME: 0
54921: CHANGING RESSOURCES
54929: CHANGING RESSOURCES
54924: CHANGING RESSOURCES

 + Terminating after 1000 timesteps with equal number of triangles -> EXIT
 + Final timestep: 6749

6750 TS (Timesteps)
715.114 ST (SIMULATION_TIME)
0.100037 TSS (Timestep size)
59.0649 SFS (Overall seconds for Simulation)
437983904 TP (Triangles processed)
0.00875036 ASPT (Averaged Seconds per Timestep)
64886.5 TPST (Triangles Processed in Average per Simulation Timestep)
48.6681 PPST (Clusters Processed in Average per Simulation Timestep)
7.4153 MTPS (Million Triangles per Second)
-7.4153 MTPSPT (Million Triangles per Second per Thread)
1.98018 EDMBPT (ElementData Megabyte per Timestep (RW))
226.297 EDMBPS (ElementData Megabyte per Second (RW))
SUM CLIENT SHUTDOWN HINT: 4379.84
SUM CLIENT SHUTDOWN HINT DIV TIME: 0
54929: CHANGING RESSOURCES
54927: CHANGING RESSOURCES

 + Terminating after 1000 timesteps with equal number of triangles -> EXIT
 + Final timestep: 6749

6750 TS (Timesteps)
715.114 ST (SIMULATION_TIME)
0.100037 TSS (Timestep size)
59.1358 SFS (Overall seconds for Simulation)
437983904 TP (Triangles processed)
0.00876086 ASPT (Averaged Seconds per Timestep)
64886.5 TPST (Triangles Processed in Average per Simulation Timestep)
48.6681 PPST (Clusters Processed in Average per Simulation Timestep)
7.40641 MTPS (Million Triangles per Second)
-7.40641 MTPSPT (Million Triangles per Second per Thread)
1.98018 EDMBPT (ElementData Megabyte per Timestep (RW))
226.026 EDMBPS (ElementData Megabyte per Second (RW))
SUM CLIENT SHUTDOWN HINT: 4817.82
SUM CLIENT SHUTDOWN HINT DIV TIME: 0
54928: CHANGING RESSOURCES
54929: CHANGING RESSOURCES
54927: CHANGING RESSOURCES

 + Terminating after 1000 timesteps with equal number of triangles -> EXIT
 + Final timestep: 6749

6750 TS (Timesteps)
715.114 ST (SIMULATION_TIME)
0.100037 TSS (Timestep size)
59.2265 SFS (Overall seconds for Simulation)
437983904 TP (Triangles processed)
0.0087743 ASPT (Averaged Seconds per Timestep)
64886.5 TPST (Triangles Processed in Average per Simulation Timestep)
48.6681 PPST (Clusters Processed in Average per Simulation Timestep)
7.39506 MTPS (Million Triangles per Second)
-7.39506 MTPSPT (Million Triangles per Second per Thread)
1.98018 EDMBPT (ElementData Megabyte per Timestep (RW))
225.679 EDMBPS (ElementData Megabyte per Second (RW))
SUM CLIENT SHUTDOWN HINT: 5255.81
SUM CLIENT SHUTDOWN HINT DIV TIME: 0
54931: CHANGING RESSOURCES
54924: CHANGING RESSOURCES
Waiting for job 54920
Waiting for job 54921
Waiting for job 54922
Waiting for job 54923
Waiting for job 54924

 + Terminating after 1000 timesteps with equal number of triangles -> EXIT
 + Final timestep: 6749

6750 TS (Timesteps)
715.114 ST (SIMULATION_TIME)
0.100037 TSS (Timestep size)
59.2842 SFS (Overall seconds for Simulation)
437983904 TP (Triangles processed)
0.00878284 ASPT (Averaged Seconds per Timestep)
64886.5 TPST (Triangles Processed in Average per Simulation Timestep)
48.6681 PPST (Clusters Processed in Average per Simulation Timestep)
7.38787 MTPS (Million Triangles per Second)
-7.38787 MTPSPT (Million Triangles per Second per Thread)
1.98018 EDMBPT (ElementData Megabyte per Timestep (RW))
225.46 EDMBPS (ElementData Megabyte per Second (RW))
SUM CLIENT SHUTDOWN HINT: 5693.79
SUM CLIENT SHUTDOWN HINT DIV TIME: 0
54927: CHANGING RESSOURCES
54924: CHANGING RESSOURCES

 + Terminating after 1000 timesteps with equal number of triangles -> EXIT
 + Final timestep: 6749

6750 TS (Timesteps)
715.114 ST (SIMULATION_TIME)
0.100037 TSS (Timestep size)
59.3341 SFS (Overall seconds for Simulation)
437983904 TP (Triangles processed)
0.00879024 ASPT (Averaged Seconds per Timestep)
64886.5 TPST (Triangles Processed in Average per Simulation Timestep)
48.6681 PPST (Clusters Processed in Average per Simulation Timestep)
7.38166 MTPS (Million Triangles per Second)
-7.38166 MTPSPT (Million Triangles per Second per Thread)
1.98018 EDMBPT (ElementData Megabyte per Timestep (RW))
225.27 EDMBPS (ElementData Megabyte per Second (RW))
SUM CLIENT SHUTDOWN HINT: 6131.77
SUM CLIENT SHUTDOWN HINT DIV TIME: 0
54927: CHANGING RESSOURCES
54924: CHANGING RESSOURCES

 + Terminating after 1000 timesteps with equal number of triangles -> EXIT
 + Final timestep: 6749

6750 TS (Timesteps)
715.114 ST (SIMULATION_TIME)
0.100037 TSS (Timestep size)
59.8367 SFS (Overall seconds for Simulation)
437983904 TP (Triangles processed)
0.00886469 ASPT (Averaged Seconds per Timestep)
64886.5 TPST (Triangles Processed in Average per Simulation Timestep)
48.6681 PPST (Clusters Processed in Average per Simulation Timestep)
7.31966 MTPS (Million Triangles per Second)
-7.31966 MTPSPT (Million Triangles per Second per Thread)
1.98018 EDMBPT (ElementData Megabyte per Timestep (RW))
223.378 EDMBPS (ElementData Megabyte per Second (RW))
SUM CLIENT SHUTDOWN HINT: 6569.76
SUM CLIENT SHUTDOWN HINT DIV TIME: 0
54927: CHANGING RESSOURCES
Waiting for job 54925
Waiting for job 54926
Waiting for job 54927

 + Terminating after 1000 timesteps with equal number of triangles -> EXIT
 + Final timestep: 6749

6750 TS (Timesteps)
715.114 ST (SIMULATION_TIME)
0.100037 TSS (Timestep size)
61.0875 SFS (Overall seconds for Simulation)
437983904 TP (Triangles processed)
0.00904999 ASPT (Averaged Seconds per Timestep)
64886.5 TPST (Triangles Processed in Average per Simulation Timestep)
48.6681 PPST (Clusters Processed in Average per Simulation Timestep)
7.16978 MTPS (Million Triangles per Second)
-7.16978 MTPSPT (Million Triangles per Second per Thread)
1.98018 EDMBPT (ElementData Megabyte per Timestep (RW))
218.804 EDMBPS (ElementData Megabyte per Second (RW))
SUM CLIENT SHUTDOWN HINT: 7007.74
SUM CLIENT SHUTDOWN HINT DIV TIME: 115.152
Waiting for job 54928
Waiting for job 54929
Waiting for job 54930
Waiting for job 54931
Waiting for job 54932
Waiting for job 54933
Sat Mar 31 15:30:50 CEST 2012
Seconds: 61
