0	0
14.7745	0
29.5491	0
44.3236	0
59.0981	0
73.8727	0
88.6472	0
103.422	0
118.196	0
132.971	0
147.745	0
162.52	0
177.294	0
192.069	0
206.843	0
221.618	0
236.393	0
251.167	0
265.942	0
280.716	0
295.491	0
310.265	0
325.04	0
339.814	0
354.589	0
369.363	0
384.138	0
398.912	0
413.687	0
428.462	0
443.236	0
458.011	0
472.785	0
487.56	0
502.334	0
517.109	0
531.883	0
546.658	0
561.432	0
576.207	9.09495e-13
590.981	2.72848e-12
605.756	9.09495e-12
620.53	3.63798e-11
635.305	1.29148e-10
650.08	4.25644e-10
664.854	1.30058e-09
679.629	3.7162e-09
694.403	9.98807e-09
709.178	2.5354e-08
723.952	6.10307e-08
738.727	1.39802e-07
753.501	3.05728e-07
768.276	6.40153e-07
783.05	1.2869e-06
797.825	2.49007e-06
812.599	4.64858e-06
827.374	8.39146e-06
842.149	1.46784e-05
856.923	2.49288e-05
871.698	4.1184e-05
886.472	6.6303e-05
901.247	0.000104196
916.021	0.000160098
930.796	0.000240886
945.57	0.000355441
960.345	0.000515076
975.119	0.000734031
989.894	0.00103006
1004.67	0.00142512
1019.44	0.00194626
1034.22	0.00262656
1048.99	0.00350641
1063.77	0.00463484
1078.54	0.00607123
1093.32	0.00788701
1108.09	0.0101677
1122.86	0.0130146
1137.64	0.0165473
1152.41	0.0209046
1167.19	0.0262465
1181.96	0.0327543
1196.74	0.040631
1211.51	0.0500999
1226.29	0.0614023
1241.06	0.0747935
1255.84	0.0905385
1270.61	0.108905
1285.38	0.130153
1300.16	0.154532
1314.93	0.182262
1329.71	0.21353
1344.48	0.248473
1359.26	0.287173
1374.03	0.329638
1388.81	0.375802
1403.58	0.425507
1418.36	0.478508
1433.13	0.534459
1447.9	0.59292
1462.68	0.653354
1477.45	0.715135
1492.23	0.777556
1507	0.839836
1521.78	0.901137
1536.55	0.960574
1551.33	1.01724
1566.1	1.07021
1580.88	1.11859
1595.65	1.16148
1610.42	1.19807
1625.2	1.22758
1639.97	1.24932
1654.75	1.26271
1669.52	1.26728
1684.3	1.26266
1699.07	1.24862
1713.85	1.22508
1728.62	1.19206
1743.4	1.14976
1758.17	1.09848
1772.94	1.03867
1787.72	0.970876
1802.49	0.895785
1817.27	0.814163
1832.04	0.726865
1846.82	0.634815
1861.59	0.538991
1876.37	0.440407
1891.14	0.340094
1905.92	0.239088
1920.69	0.138404
1935.46	0.0390366
1950.24	-0.0580736
1965.01	-0.152043
1979.79	-0.242057
1994.56	-0.327385
2009.34	-0.40738
2024.11	-0.481493
2038.89	-0.549273
2053.66	-0.610368
2068.43	-0.664527
2083.21	-0.711595
2097.98	-0.751516
2112.76	-0.784319
2127.53	-0.81012
2142.31	-0.829109
2157.08	-0.841544
2171.86	-0.847745
2186.63	-0.848079
2201.41	-0.842956
2216.18	-0.832819
2230.95	-0.818133
2245.73	-0.799379
2260.5	-0.777046
2275.28	-0.751623
2290.05	-0.723591
2304.83	-0.693421
2319.6	-0.661565
2334.38	-0.628456
2349.15	-0.5945
2363.93	-0.560076
2378.7	-0.525535
2393.47	-0.491196
2408.25	-0.457345
2423.02	-0.424238
2437.8	-0.392098
2452.57	-0.361118
2467.35	-0.331459
2482.12	-0.303255
2496.9	-0.276612
2511.67	-0.251608
2526.45	-0.228301
2541.22	-0.206724
2555.99	-0.18689
2570.77	-0.168796
2585.54	-0.152419
2600.32	-0.137725
2615.09	-0.124666
2629.87	-0.113184
2644.64	-0.103212
2659.42	-0.0946733
2674.19	-0.087489
2688.97	-0.0815737
2703.74	-0.0768395
2718.51	-0.0731964
2733.29	-0.0705537
2748.06	-0.068821
2762.84	-0.0679088
2777.61	-0.0677295
2792.39	-0.0681978
2807.16	-0.0692315
2821.94	-0.0707521
2836.71	-0.0726845
2851.49	-0.0749583
2866.26	-0.0775069
2881.03	-0.0802687
2895.81	-0.0831863
2910.58	-0.0862071
2925.36	-0.089283
2940.13	-0.0923703
2954.91	-0.0954297
2969.68	-0.0984262
2984.46	-0.101329
2999.23	-0.10411
3014	-0.106746
3028.78	-0.109217
3043.55	-0.111505
3058.33	-0.113596
3073.1	-0.11548
3087.88	-0.117146
3102.65	-0.118588
3117.43	-0.119802
3132.2	-0.120784
3146.97	-0.121533
3161.75	-0.122051
3176.52	-0.122338
3191.3	-0.122399
3206.07	-0.122237
3220.85	-0.121859
3235.62	-0.121269
3250.39	-0.120476
3265.17	-0.119487
3279.94	-0.118311
3294.72	-0.116957
3309.49	-0.115434
3324.27	-0.113754
3339.04	-0.111925
3353.81	-0.109959
3368.59	-0.107866
3383.36	-0.105658
3398.14	-0.103345
3412.91	-0.100939
3427.69	-0.09845
3442.46	-0.0958891
3457.23	-0.0932666
3472.01	-0.0905928
3486.78	-0.0878774
3501.56	-0.0851297
3516.33	-0.0823587
3531.1	-0.0795727
3545.88	-0.0767795
3560.65	-0.0739862
3575.43	-0.0711993
3590.2	-0.0684248
3604.97	-0.0656677
3619.75	-0.0629326
3634.52	-0.0602233
3649.3	-0.0575428
3664.07	-0.0548937
3678.84	-0.0522776
3693.62	-0.0496959
3708.39	-0.0471491
3723.17	-0.0446371
3737.94	-0.0421596
3752.71	-0.0397155
3767.49	-0.0373036
3782.26	-0.034922
3797.04	-0.0325688
3811.81	-0.0302416
3826.58	-0.0279381
3841.36	-0.0256555
3856.13	-0.0233912
3870.91	-0.0211423
3885.68	-0.0189063
3900.45	-0.0166805
3915.23	-0.0144622
3930	-0.0122491
3944.77	-0.010039
3959.55	-0.00782982
3974.32	-0.00561987
3989.1	-0.00340764
4003.87	-0.00119189
4018.64	0.0010283
4033.42	0.00325359
4048.19	0.0054843
4062.97	0.0077205
4077.74	0.00996197
4092.51	0.0122082
4107.29	0.0144585
4122.06	0.0167117
4136.83	0.0189669
4151.61	0.0212224
4166.38	0.0234768
4181.16	0.0257283
4195.93	0.0279752
4210.7	0.0302154
4225.48	0.032447
4240.25	0.0346678
4255.03	0.0368757
4269.8	0.0390687
4284.58	0.0412444
4299.35	0.0434008
4314.12	0.0455358
4328.9	0.047647
4343.67	0.0497326
4358.45	0.0517902
4373.22	0.0538178
4388	0.0558134
4402.77	0.0577748
4417.54	0.0597
4432.32	0.0615867
4447.09	0.063433
4461.87	0.0652366
4476.64	0.0669954
4491.42	0.0687071
4506.19	0.0703694
4520.97	0.07198
4535.74	0.0735365
4550.51	0.0750363
4565.29	0.0764771
4580.06	0.0778562
4594.84	0.079171
4609.61	0.0804189
4624.39	0.0815972
4639.16	0.0827032
4653.94	0.0837343
4668.71	0.0846878
4683.48	0.0855612
4698.26	0.0863518
4713.03	0.0870574
4727.81	0.0876756
4742.58	0.0882042
4757.36	0.0886412
4772.13	0.0889848
4786.91	0.0892335
4801.68	0.0893859
4816.46	0.0894408
4831.23	0.0893975
4846	0.0892554
4860.78	0.0890143
4875.55	0.0886743
4890.33	0.0882357
4905.1	0.0876994
4919.88	0.0870663
4934.65	0.0863379
4949.43	0.085516
4964.2	0.0846025
4978.97	0.0835999
4993.75	0.0825109
5008.52	0.0813383
5023.3	0.0800855
5038.07	0.078756
5052.85	0.0773535
5067.62	0.075882
5082.4	0.0743457
5097.17	0.0727488
5111.94	0.0710959
5126.72	0.0693917
5141.49	0.0676408
5156.27	0.0658481
5171.04	0.0640183
5185.82	0.0621565
5200.59	0.0602676
5215.37	0.0583564
5230.14	0.0564279
5244.91	0.0544868
5259.69	0.052538
5274.46	0.0505862
5289.24	0.0486358
5304.01	0.0466915
5318.79	0.0447576
5333.56	0.0428382
5348.34	0.0409376
5363.11	0.0390595
5377.89	0.0372079
5392.66	0.0353862
5407.43	0.0335979
5422.21	0.0318462
5436.98	0.0301341
5451.76	0.0284646
5466.53	0.0268402
5481.31	0.0252635
5496.08	0.0237367
5510.86	0.0222618
5525.63	0.0208407
5540.4	0.0194751
5555.18	0.0181663
5569.95	0.0169155
5584.73	0.0157238
5599.5	0.0145919
5614.28	0.0135203
5629.05	0.0125094
5643.83	0.0115593
5658.6	0.0106698
5673.38	0.00984066
5688.15	0.00907121
5702.92	0.00836067
5717.7	0.00770803
5732.47	0.00711204
5747.25	0.00657125
5762.02	0.00608398
5776.8	0.00564835
5791.57	0.00526229
5806.35	0.00492351
5821.12	0.00462957
5835.89	0.00437782
5850.67	0.00416548
5865.44	0.00398959
5880.22	0.00384705
5894.99	0.00373467
5909.77	0.00364911
5924.54	0.00358697
5939.32	0.00354473
5954.09	0.00351887
5968.87	0.00350577
5983.64	0.00350183
5998.41	0.00350343
6013.19	0.00350695
6027.96	0.00350884
6042.74	0.00350558
6057.51	0.00349372
6072.29	0.00346991
6087.06	0.0034309
6101.84	0.00337355
6116.61	0.0032949
6131.39	0.0031921
6146.16	0.0030625
6160.93	0.00290359
6175.71	0.0027131
6190.48	0.00248891
6205.26	0.00222915
6220.03	0.00193214
6234.81	0.00159642
6249.58	0.00122075
6264.36	0.000804124
6279.13	0.000345755
6293.91	-0.000154926
6308.68	-0.000698266
6323.45	-0.0012844
6338.23	-0.00191325
6353	-0.00258455
6367.78	-0.00329781
6382.55	-0.00405239
6397.33	-0.00484745
6412.1	-0.00568202
6426.88	-0.00655493
6441.65	-0.00746492
6456.42	-0.00841056
6471.2	-0.00939035
6485.97	-0.0104027
6500.75	-0.0114458
6515.52	-0.0125179
6530.3	-0.0136173
6545.07	-0.0147419
6559.85	-0.0158899
6574.62	-0.0170594
6589.4	-0.0182484
6604.17	-0.0194548
6618.94	-0.0206769
6633.72	-0.0219126
6648.49	-0.02316
6663.27	-0.0244174
6678.04	-0.0256827
6692.82	-0.0269544
6707.59	-0.0282306
6722.37	-0.0295097
6737.14	-0.0307901
6751.92	-0.0320702
6766.69	-0.0333486
6781.46	-0.0346237
6796.24	-0.0358943
6811.01	-0.037159
6825.79	-0.0384167
6840.56	-0.0396661
6855.34	-0.040906
6870.11	-0.0421355
6884.89	-0.0433535
6899.66	-0.044559
6914.44	-0.045751
6929.21	-0.0469287
6943.99	-0.0480912
6958.76	-0.0492376
6973.53	-0.0503671
6988.31	-0.0514789
7003.08	-0.0525722
7017.86	-0.0536462
7032.63	-0.0547002
7047.41	-0.0557334
7062.18	-0.056745
7076.96	-0.0577342
7091.73	-0.0587003
7106.51	-0.0596425
7121.28	-0.06056
7136.05	-0.0614521
7150.83	-0.0623178
7165.6	-0.0631565
7180.38	-0.0639673
7195.15	-0.0647493
7209.93	-0.0655018
7224.7	-0.066224
7239.48	-0.0669149
7254.25	-0.0675739
7269.02	-0.0682
7283.8	-0.0687925
7298.57	-0.0693505
7313.35	-0.0698733
7328.12	-0.07036
7342.9	-0.0708101
7357.67	-0.0712227
7372.45	-0.0715971
7387.22	-0.0719328
7402	-0.072229
7416.77	-0.0724852
7431.54	-0.072701
7446.32	-0.0728757
7461.09	-0.073009
7475.87	-0.0731006
7490.64	-0.0731501
7505.42	-0.0731572
7520.19	-0.0731218
7534.97	-0.0730438
7549.74	-0.0729231
7564.51	-0.0727597
7579.29	-0.0725538
7594.06	-0.0723054
7608.84	-0.0720149
7623.61	-0.0716826
7638.39	-0.0713087
7653.16	-0.0708938
7667.94	-0.0704383
7682.71	-0.0699429
7697.48	-0.0694082
7712.26	-0.0688348
7727.03	-0.0682237
7741.81	-0.0675755
7756.58	-0.0668913
7771.36	-0.0661718
7786.13	-0.0654181
7800.91	-0.0646313
7815.68	-0.0638124
7830.45	-0.0629624
7845.23	-0.0620826
7860	-0.061174
7874.78	-0.060238
7889.55	-0.0592756
7904.33	-0.0582882
7919.1	-0.0572769
7933.88	-0.056243
7948.65	-0.0551878
7963.42	-0.0541124
7978.2	-0.0530182
7992.97	-0.0519063
8007.75	-0.0507781
8022.52	-0.0496346
8037.3	-0.0484771
8052.07	-0.0473067
8066.85	-0.0461247
8081.62	-0.044932
8096.39	-0.0437298
8111.17	-0.0425192
8125.94	-0.0413012
8140.72	-0.0400767
8155.49	-0.0388467
8170.27	-0.0376121
8185.04	-0.0363738
8199.82	-0.0351327
8214.59	-0.0338895
8229.36	-0.0326451
8244.14	-0.0314001
8258.91	-0.0301552
8273.69	-0.0289111
8288.46	-0.0276684
8303.24	-0.0264277
8318.01	-0.0251896
8332.79	-0.0239546
8347.56	-0.0227231
8362.33	-0.0214958
8377.11	-0.0202729
8391.88	-0.019055
8406.66	-0.0178425
8421.43	-0.0166358
8436.21	-0.0154352
8450.98	-0.0142412
8465.76	-0.0130542
8480.53	-0.0118744
8495.3	-0.0107022
8510.08	-0.00953816
8524.85	-0.00838248
8539.63	-0.00723558
8554.4	-0.00609786
8569.18	-0.00496972
8583.95	-0.00385156
8598.73	-0.00274382
8613.5	-0.00164693
8628.27	-0.000561352
8643.05	0.00051244
8657.82	0.00157395
8672.6	0.00262267
8687.37	0.00365807
8702.15	0.00467959
8716.92	0.00568666
8731.7	0.00667871
8746.47	0.00765512
8761.24	0.00861528
8776.02	0.00955855
8790.79	0.0104843
8805.57	0.0113918
8820.34	0.0122805
8835.12	0.0131496
8849.89	0.0139986
8864.67	0.0148266
8879.44	0.0156331
8894.22	0.0164173
8908.99	0.0171786
8923.76	0.0179163
8938.54	0.0186297
8953.31	0.0193184
8968.09	0.0199815
8982.86	0.0206185
8997.64	0.0212289
9012.41	0.0218121
9027.19	0.0223676
9041.96	0.0228949
9056.73	0.0233936
9071.51	0.0238632
9086.28	0.0243033
9101.06	0.0247137
9115.83	0.0250941
9130.61	0.0254441
9145.38	0.0257636
9160.16	0.0260524
9174.93	0.0263105
9189.7	0.0265378
9204.48	0.0267342
9219.25	0.0268999
9234.03	0.0270349
9248.8	0.0271394
9263.58	0.0272137
9278.35	0.0272578
9293.13	0.0272723
9307.9	0.0272575
9322.68	0.0272137
9337.45	0.0271415
9352.22	0.0270414
9367	0.0269139
9381.77	0.0267598
9396.55	0.0265797
9411.32	0.0263743
9426.1	0.0261444
9440.87	0.0258909
9455.65	0.0256146
9470.42	0.0253163
9485.19	0.0249972
9499.97	0.0246581
9514.74	0.0243001
9529.52	0.0239242
9544.29	0.0235316
9559.07	0.0231234
9573.84	0.0227007
9588.62	0.0222646
9603.39	0.0218165
9618.17	0.0213574
9632.94	0.0208886
9647.71	0.0204114
9662.49	0.019927
9677.26	0.0194366
9692.04	0.0189414
9706.81	0.0184428
9721.59	0.0179419
9736.36	0.0174399
9751.14	0.0169381
9765.91	0.0164377
9780.68	0.0159398
9795.46	0.0154455
9810.23	0.0149559
9825.01	0.0144722
9839.78	0.0139953
9854.56	0.0135263
9869.33	0.013066
9884.11	0.0126154
9898.88	0.0121752
9913.66	0.0117464
9928.43	0.0113296
9943.2	0.0109254
9957.98	0.0105345
9972.75	0.0101575
9987.53	0.00979474
10002.3	0.00944669
10017.1	0.00911367
10031.9	0.00879595
10046.6	0.00849371
10061.4	0.00820708
10076.2	0.00793611
10090.9	0.00768078
10105.7	0.00744099
10120.5	0.00721659
10135.3	0.00700735
10150	0.00681297
10164.8	0.00663309
10179.6	0.00646729
10194.4	0.00631509
10209.1	0.00617595
10223.9	0.00604927
10238.7	0.00593441
10253.5	0.00583069
10268.2	0.00573736
10283	0.00565365
10297.8	0.00557874
10312.6	0.0055118
10327.3	0.00545195
10342.1	0.00539829
10356.9	0.00534991
10371.7	0.00530588
10386.4	0.00526525
10401.2	0.00522708
10416	0.00519042
10430.8	0.00515431
10445.5	0.00511782
10460.3	0.00508
10475.1	0.00503995
10489.9	0.00499676
10504.6	0.00494954
10519.4	0.00489744
10534.2	0.00483964
10549	0.00477532
10563.7	0.00470373
10578.5	0.00462414
10593.3	0.00453586
10608.1	0.00443824
10622.8	0.00433066
10637.6	0.00421257
10652.4	0.00408345
10667.2	0.00394283
10681.9	0.00379028
10696.7	0.00362543
10711.5	0.00344795
10726.3	0.00325757
10741	0.00305406
10755.8	0.00283724
10770.6	0.00260698
10785.4	0.00236319
10800.1	0.00210584
10814.9	0.00183495
10829.7	0.00155057
10844.5	0.0012528
10859.2	0.000941776
10874	0.000617691
10888.8	0.000280765
10903.5	-6.8741e-05
10918.3	-0.000430531
10933.1	-0.000804274
10947.9	-0.00118961
10962.6	-0.00158614
10977.4	-0.00199346
10992.2	-0.0024111
11007	-0.00283861
11021.7	-0.00327549
11036.5	-0.00372124
11051.3	-0.00417531
11066.1	-0.00463718
11080.8	-0.00510628
11095.6	-0.00558204
11110.4	-0.00606388
11125.2	-0.00655122
11139.9	-0.00704346
11154.7	-0.00754
11169.5	-0.00804024
11184.3	-0.00854359
11199	-0.00904942
11213.8	-0.00955715
11228.6	-0.0100662
11243.4	-0.0105759
11258.1	-0.0110857
11272.9	-0.011595
11287.7	-0.0121033
11302.5	-0.0126099
11317.2	-0.0131143
11332	-0.013616
11346.8	-0.0141143
11361.6	-0.0146088
11376.3	-0.0150989
11391.1	-0.015584
11405.9	-0.0160638
11420.7	-0.0165376
11435.4	-0.017005
11450.2	-0.0174656
11465	-0.0179188
11479.8	-0.0183642
11494.5	-0.0188013
11509.3	-0.0192298
11524.1	-0.0196492
11538.9	-0.0200591
11553.6	-0.0204592
11568.4	-0.020849
11583.2	-0.0212282
11598	-0.0215964
11612.7	-0.0219534
11627.5	-0.0222987
11642.3	-0.0226322
11657	-0.0229535
11671.8	-0.0232624
11686.6	-0.0235586
11701.4	-0.0238419
11716.1	-0.024112
11730.9	-0.0243689
11745.7	-0.0246123
11760.5	-0.0248422
11775.2	-0.0250583
11790	-0.0252606
11804.8	-0.025449
11819.6	-0.0256235
11834.3	-0.025784
11849.1	-0.0259306
11863.9	-0.0260633
11878.7	-0.0261821
11893.4	-0.0262872
11908.2	-0.0263786
11923	-0.0264566
11937.8	-0.0265212
11952.5	-0.0265726
11967.3	-0.0266112
11982.1	-0.0266372
11996.9	-0.0266507
12011.6	-0.0266523
12026.4	-0.0266422
12041.2	-0.0266207
12056	-0.0265884
12070.7	-0.0265455
12085.5	-0.0264925
12100.3	-0.02643
12115.1	-0.0263583
12129.8	-0.0262781
12144.6	-0.0261897
12159.4	-0.0260938
12174.2	-0.0259909
12188.9	-0.0258815
12203.7	-0.0257663
12218.5	-0.0256458
12233.3	-0.0255206
12248	-0.0253913
12262.8	-0.0252586
12277.6	-0.0251229
12292.4	-0.0249848
12307.1	-0.024845
12321.9	-0.0247041
12336.7	-0.0245626
12351.5	-0.0244209
12366.2	-0.0242798
12381	-0.0241397
12395.8	-0.0240011
12410.6	-0.0238645
12425.3	-0.0237303
12440.1	-0.023599
12454.9	-0.023471
12469.6	-0.0233467
12484.4	-0.0232264
12499.2	-0.0231105
12514	-0.0229992
12528.7	-0.0228929
12543.5	-0.0227917
12558.3	-0.0226959
12573.1	-0.0226056
12587.8	-0.0225209
12602.6	-0.0224421
12617.4	-0.0223691
12632.2	-0.0223019
12646.9	-0.0222407
12661.7	-0.0221854
12676.5	-0.0221358
12691.3	-0.0220921
12706	-0.0220539
12720.8	-0.0220213
12735.6	-0.021994
12750.4	-0.0219719
12765.1	-0.0219548
12779.9	-0.0219424
12794.7	-0.0219345
12809.5	-0.0219309
12824.2	-0.0219311
12839	-0.0219351
12853.8	-0.0219423
12868.6	-0.0219526
12883.3	-0.0219656
12898.1	-0.0219809
12912.9	-0.0219983
12927.7	-0.0220173
12942.4	-0.0220375
12957.2	-0.0220587
12972	-0.0220805
12986.8	-0.0221025
13001.5	-0.0221243
13016.3	-0.0221457
13031.1	-0.0221661
13045.9	-0.0221854
13060.6	-0.022203
13075.4	-0.0222188
13090.2	-0.0222323
13105	-0.0222433
13119.7	-0.0222514
13134.5	-0.0222563
13149.3	-0.0222576
13164.1	-0.0222552
13178.8	-0.0222487
13193.6	-0.0222379
13208.4	-0.0222224
13223.1	-0.022202
13237.9	-0.0221766
13252.7	-0.0221457
13267.5	-0.0221093
13282.2	-0.0220671
13297	-0.0220188
13311.8	-0.0219644
13326.6	-0.0219035
13341.3	-0.0218361
13356.1	-0.0217619
13370.9	-0.0216808
13385.7	-0.0215927
13400.4	-0.0214974
13415.2	-0.0213947
13430	-0.0212847
13444.8	-0.021167
13459.5	-0.0210417
13474.3	-0.0209087
13489.1	-0.0207679
13503.9	-0.0206191
13518.6	-0.0204624
13533.4	-0.0202976
13548.2	-0.0201248
13563	-0.019944
13577.7	-0.019755
13592.5	-0.0195579
13607.3	-0.0193526
13622.1	-0.0191393
13636.8	-0.0189179
13651.6	-0.0186884
13666.4	-0.018451
13681.2	-0.0182056
13695.9	-0.0179524
13710.7	-0.0176914
13725.5	-0.0174227
13740.3	-0.0171464
13755	-0.0168627
13769.8	-0.0165718
13784.6	-0.0162736
13799.4	-0.0159685
13814.1	-0.0156566
13828.9	-0.0153381
13843.7	-0.0150132
13858.5	-0.0146822
13873.2	-0.0143451
13888	-0.0140024
13902.8	-0.0136542
13917.6	-0.0133009
13932.3	-0.0129427
13947.1	-0.0125798
13961.9	-0.0122127
13976.7	-0.0118416
13991.4	-0.0114668
14006.2	-0.0110887
14021	-0.0107076
14035.7	-0.0103238
14050.5	-0.0099378
14065.3	-0.00954983
14080.1	-0.00916029
14094.8	-0.00876954
14109.6	-0.00837797
14124.4	-0.00798593
14139.2	-0.00759382
14153.9	-0.007202
14168.7	-0.00681084
14183.5	-0.00642072
14198.3	-0.00603202
14213	-0.00564508
14227.8	-0.00526029
14242.6	-0.00487799
14257.4	-0.00449854
14272.1	-0.00412227
14286.9	-0.00374953
14301.7	-0.00338065
14316.5	-0.00301593
14331.2	-0.00265568
14346	-0.00230021
14360.8	-0.0019498
14375.6	-0.00160471
14390.3	-0.00126522
14405.1	-0.000931552
14419.9	-0.000603956
14434.7	-0.000282645
14449.4	3.21768e-05
14464.2	0.00034032
14479	0.000641611
14493.8	0.000935891
14508.5	0.00122301
14523.3	0.00150285
14538.1	0.0017753
14552.9	0.00204025
14567.6	0.00229761
14582.4	0.00254734
14597.2	0.00278936
14612	0.00302365
14626.7	0.00325017
14641.5	0.00346893
14656.3	0.00367991
14671.1	0.00388314
14685.8	0.00407865
14700.6	0.00426647
14715.4	0.00444667
14730.2	0.00461929
14744.9	0.00478443
14759.7	0.00494216
14774.5	0.00509258
14789.2	0.00523579
14804	0.0053719
14818.8	0.00550103
14833.6	0.00562331
14848.3	0.00573888
14863.1	0.00584786
14877.9	0.0059504
14892.7	0.00604665
14907.4	0.00613677
14922.2	0.00622091
14937	0.00629923
14951.8	0.0063719
14966.5	0.00643907
14981.3	0.00650091
14996.1	0.00655759
15010.9	0.00660927
15025.6	0.00665613
15040.4	0.00669834
15055.2	0.00673605
15070	0.00676943
15084.7	0.00679866
15099.5	0.00682389
15114.3	0.00684529
15129.1	0.00686301
15143.8	0.00687722
15158.6	0.00688808
15173.4	0.00689574
15188.2	0.00690034
15202.9	0.00690205
15217.7	0.00690101
15232.5	0.00689736
15247.3	0.00689126
15262	0.00688283
15276.8	0.00687221
15291.6	0.00685956
15306.4	0.00684499
15321.1	0.00682864
15335.9	0.00681064
15350.7	0.00679112
15365.5	0.00677021
15380.2	0.00674803
15395	0.0067247
15409.8	0.00670035
15424.6	0.00667511
15439.3	0.00664908
15454.1	0.00662239
15468.9	0.00659516
15483.7	0.00656751
15498.4	0.00653956
15513.2	0.00651142
15528	0.00648321
15542.8	0.00645505
15557.5	0.00642706
15572.3	0.00639935
15587.1	0.00637204
15601.8	0.00634526
15616.6	0.00631911
15631.4	0.00629371
15646.2	0.00626919
15660.9	0.00624566
15675.7	0.00622324
15690.5	0.00620205
15705.3	0.00618221
15720	0.00616383
15734.8	0.00614704
15749.6	0.00613195
15764.4	0.00611868
15779.1	0.00610734
15793.9	0.00609805
15808.7	0.00609093
15823.5	0.00608608
15838.2	0.00608363
15853	0.00608367
15867.8	0.00608632
15882.6	0.00609168
15897.3	0.00609985
15912.1	0.00611094
15926.9	0.00612503
15941.7	0.00614223
15956.4	0.00616261
15971.2	0.00618627
15986	0.00621328
16000.8	0.00624373
16015.5	0.00627766
16030.3	0.00631516
16045.1	0.00635627
16059.9	0.00640106
16074.6	0.00644955
16089.4	0.00650179
16104.2	0.00655781
16119	0.00661762
16133.7	0.00668124
16148.5	0.00674866
16163.3	0.00681989
16178.1	0.00689491
16192.8	0.00697368
16207.6	0.00705616
16222.4	0.00714232
16237.2	0.00723208
16251.9	0.00732538
16266.7	0.00742213
16281.5	0.00752222
16296.3	0.00762555
16311	0.00773198
16325.8	0.00784139
16340.6	0.00795361
16355.3	0.00806847
16370.1	0.00818578
16384.9	0.00830536
16399.7	0.00842697
16414.4	0.00855039
16429.2	0.00867536
16444	0.00880162
16458.8	0.00892888
16473.5	0.00905685
16488.3	0.0091852
16503.1	0.0093136
16517.9	0.0094417
16532.6	0.00956912
16547.4	0.00969548
16562.2	0.00982037
16577	0.00994337
16591.7	0.010064
16606.5	0.0101819
16621.3	0.0102966
16636.1	0.0104075
16650.8	0.0105142
16665.6	0.0106161
16680.4	0.0107127
16695.2	0.0108035
16709.9	0.010888
16724.7	0.0109655
16739.5	0.0110355
16754.3	0.0110974
16769	0.0111507
16783.8	0.0111946
16798.6	0.0112288
16813.4	0.0112525
16828.1	0.0112651
16842.9	0.0112661
16857.7	0.0112548
16872.5	0.0112307
16887.2	0.0111932
16902	0.0111418
16916.8	0.0110758
16931.6	0.0109947
16946.3	0.010898
16961.1	0.0107851
16975.9	0.0106557
16990.7	0.0105092
17005.4	0.0103451
17020.2	0.0101632
17035	0.00996289
17049.8	0.00974395
17064.5	0.00950602
17079.3	0.00924884
17094.1	0.00897217
17108.9	0.00867582
17123.6	0.00835963
17138.4	0.00802351
17153.2	0.00766739
17167.9	0.00729128
17182.7	0.00689521
17197.5	0.0064793
17212.3	0.00604369
17227	0.00558859
17241.8	0.00511428
17256.6	0.00462109
17271.4	0.00410938
17286.1	0.00357962
17300.9	0.0030323
17315.7	0.00246799
17330.5	0.00188731
17345.2	0.00129095
17360	0.000679636
17374.8	5.4179e-05
17389.6	-0.000584569
17404.3	-0.0012357
17419.1	-0.00189824
17433.9	-0.00257118
17448.7	-0.00325346
17463.4	-0.00394395
17478.2	-0.00464149
17493	-0.00534489
17507.8	-0.0060529
17522.5	-0.00676425
17537.3	-0.00747761
17552.1	-0.00819164
17566.9	-0.00890498
17581.6	-0.00961624
17596.4	-0.010324
17611.2	-0.0110268
17626	-0.0117233
17640.7	-0.012412
17655.5	-0.0130914
17670.3	-0.0137601
17685.1	-0.0144168
17699.8	-0.0150598
17714.6	-0.0156879
17729.4	-0.0162997
17744.2	-0.0168938
17758.9	-0.0174688
17773.7	-0.0180235
17788.5	-0.0185566
17803.3	-0.0190668
17818	-0.0195531
17832.8	-0.0200142
17847.6	-0.0204491
17862.4	-0.0208568
17877.1	-0.0212363
17891.9	-0.0215867
17906.7	-0.0219072
17921.4	-0.0221971
17936.2	-0.0224556
17951	-0.0226821
17965.8	-0.0228762
17980.5	-0.0230372
17995.3	-0.0231649
18010.1	-0.0232589
18024.9	-0.023319
18039.6	-0.0233451
18054.4	-0.023337
18069.2	-0.0232949
18084	-0.0232187
18098.7	-0.0231088
18113.5	-0.0229652
18128.3	-0.0227885
18143.1	-0.0225789
18157.8	-0.022337
18172.6	-0.0220633
18187.4	-0.0217584
18202.2	-0.0214231
18216.9	-0.0210581
18231.7	-0.0206643
18246.5	-0.0202425
18261.3	-0.0197937
18276	-0.0193189
18290.8	-0.0188191
18305.6	-0.0182954
18320.4	-0.0177491
18335.1	-0.0171812
18349.9	-0.016593
18364.7	-0.0159857
18379.5	-0.0153607
18394.2	-0.0147192
18409	-0.0140626
18423.8	-0.0133921
18438.6	-0.0127092
18453.3	-0.0120153
18468.1	-0.0113116
18482.9	-0.0105997
18497.7	-0.0098807
18512.4	-0.00915614
18527.2	-0.00842733
18542	-0.0076956
18556.8	-0.00696228
18571.5	-0.00622867
18586.3	-0.00549605
18601.1	-0.00476567
18615.9	-0.00403875
18630.6	-0.00331649
18645.4	-0.00260005
18660.2	-0.00189054
18675	-0.00118906
18689.7	-0.000496651
18704.5	0.000185691
18719.3	0.000857001
18734	0.00151636
18748.8	0.00216291
18763.6	0.00279582
18778.4	0.00341432
18793.1	0.00401768
18807.9	0.00460522
18822.7	0.00517632
18837.5	0.00573039
18852.2	0.00626691
18867	0.0067854
18881.8	0.00728541
18896.6	0.00776658
18911.3	0.00822856
18926.1	0.00867106
18940.9	0.00909385
18955.7	0.00949671
18970.4	0.00987951
18985.2	0.0102421
19000	0.0105845
19014.8	0.0109066
19029.5	0.0112084
19044.3	0.01149
19059.1	0.0117515
19073.9	0.011993
19088.6	0.0122146
19103.4	0.0124165
19118.2	0.012599
19133	0.0127622
19147.7	0.0129065
19162.5	0.0130321
19177.3	0.0131394
19192.1	0.0132287
19206.8	0.0133004
19221.6	0.0133547
19236.4	0.0133922
19251.2	0.0134132
19265.9	0.0134182
19280.7	0.0134076
19295.5	0.0133818
19310.3	0.0133412
19325	0.0132864
19339.8	0.0132179
19354.6	0.0131359
19369.4	0.0130412
19384.1	0.0129341
19398.9	0.0128151
19413.7	0.0126847
19428.5	0.0125434
19443.2	0.0123916
19458	0.0122299
19472.8	0.0120586
19487.5	0.0118784
19502.3	0.0116896
19517.1	0.0114927
19531.9	0.0112881
19546.6	0.0110764
19561.4	0.0108579
19576.2	0.0106331
19591	0.0104024
19605.7	0.0101663
19620.5	0.00992504
19635.3	0.00967915
19650.1	0.00942899
19664.8	0.00917496
19679.6	0.00891741
19694.4	0.00865673
19709.2	0.00839326
19723.9	0.00812736
19738.7	0.00785937
19753.5	0.00758962
19768.3	0.00731844
19783	0.00704614
19797.8	0.00677303
19812.6	0.00649943
19827.4	0.00622562
19842.1	0.0059519
19856.9	0.00567856
19871.7	0.00540587
19886.5	0.00513412
19901.2	0.00486357
19916	0.00459451
19930.8	0.00432719
19945.6	0.00406189
19960.3	0.00379887
19975.1	0.00353838
19989.9	0.00328071
