THREADS	MTPS	TIMESTEPS	TIMESTEP_SIZE	SECONDS_FOR_SIMULATION	AVERAGE_TRIANGLES	AVERAGE_PARTITIONS
80	53.8023	100	0.000491318	35.4017	1.90469e+07	1158.74
79	53.2935	100	0.000491318	35.7397	1.90469e+07	1158.74
78	56.4276	100	0.000491318	33.7546	1.90469e+07	1158.74
77	55.1638	100	0.000491318	34.5279	1.90469e+07	1158.74
76	54.3572	100	0.000491318	35.0403	1.90469e+07	1158.74
75	52.464	100	0.000491318	36.3048	1.90469e+07	1158.74
74	51.5351	100	0.000491318	36.9591	1.90469e+07	1158.74
73	52.0355	100	0.000491318	36.6037	1.90469e+07	1158.74
72	52.3661	100	0.000491318	36.3726	1.90469e+07	1158.74
71	51.717	100	0.000491318	36.8291	1.90469e+07	1158.74
70	51.4312	100	0.000491318	37.0338	1.90469e+07	1158.74
69	52.9754	100	0.000491318	35.9542	1.90469e+07	1158.74
68	52.4838	100	0.000491318	36.291	1.90469e+07	1158.74
67	53.247	100	0.000491318	35.7709	1.90469e+07	1158.74
66	52.7426	100	0.000491318	36.1129	1.90469e+07	1158.74
65	53.2259	100	0.000491318	35.7851	1.90469e+07	1158.74
64	51.2689	100	0.000491318	37.151	1.90469e+07	1158.74
63	54.4022	100	0.000491318	35.0113	1.90469e+07	1158.74
62	54.3462	100	0.000491318	35.0474	1.90469e+07	1158.74
61	54.3777	100	0.000491318	35.0271	1.90469e+07	1158.74
60	53.2688	100	0.000491318	35.7562	1.90469e+07	1158.74
59	55.1968	100	0.000491318	34.5073	1.90469e+07	1158.74
58	55.1127	100	0.000491318	34.5599	1.90469e+07	1158.74
57	53.0774	100	0.000491318	35.8852	1.90469e+07	1158.74
56	53.6891	100	0.000491318	35.4763	1.90469e+07	1158.74
55	50.5469	100	0.000491318	37.6817	1.90469e+07	1158.74
54	52.8493	100	0.000491318	36.04	1.90469e+07	1158.74
53	51.9758	100	0.000491318	36.6457	1.90469e+07	1158.74
52	52.3203	100	0.000491318	36.4044	1.90469e+07	1158.74
51	50.0779	100	0.000491318	38.0346	1.90469e+07	1158.74
50	49.9937	100	0.000491318	38.0986	1.90469e+07	1158.74
49	48.5454	100	0.000491318	39.2352	1.90469e+07	1158.74
48	47.4256	100	0.000491318	40.1616	1.90469e+07	1158.74
47	49.0245	100	0.000491318	38.8518	1.90469e+07	1158.74
46	45.6	100	0.000491318	41.7695	1.90469e+07	1158.74
45	47.7988	100	0.000491318	39.8481	1.90469e+07	1158.74
44	46.5202	100	0.000491318	40.9433	1.90469e+07	1158.74
43	46.5249	100	0.000491318	40.9392	1.90469e+07	1158.74
42	45.2962	100	0.000491318	42.0497	1.90469e+07	1158.74
41	44.7886	100	0.000491318	42.5263	1.90469e+07	1158.74
40	44.6436	100	0.000491318	42.6644	1.90469e+07	1158.74
39	44.3977	100	0.000491318	42.9007	1.90469e+07	1158.74
38	44.0259	100	0.000491318	43.263	1.90469e+07	1158.74
37	43.0166	100	0.000491318	44.2781	1.90469e+07	1158.74
36	42.1217	100	0.000491318	45.2187	1.90469e+07	1158.74
35	41.6914	100	0.000491318	45.6855	1.90469e+07	1158.74
34	42.1434	100	0.000491318	45.1954	1.90469e+07	1158.74
33	40.842	100	0.000491318	46.6356	1.90469e+07	1158.74
32	40.1557	100	0.000491318	47.4326	1.90469e+07	1158.74
31	40.1064	100	0.000491318	47.4909	1.90469e+07	1158.74
30	38.9654	100	0.000491318	48.8817	1.90469e+07	1158.74
29	39.2731	100	0.000491318	48.4986	1.90469e+07	1158.74
28	38.856	100	0.000491318	49.0192	1.90469e+07	1158.74
27	38.3319	100	0.000491318	49.6894	1.90469e+07	1158.74
26	38.0612	100	0.000491318	50.0428	1.90469e+07	1158.74
25	37.8887	100	0.000491318	50.2707	1.90469e+07	1158.74
24	38.8028	100	0.000491318	49.0865	1.90469e+07	1158.74
23	38.9145	100	0.000491318	48.9456	1.90469e+07	1158.74
22	38.3851	100	0.000491318	49.6206	1.90469e+07	1158.74
21	39.4089	100	0.000491318	48.3315	1.90469e+07	1158.74
20	39.4772	100	0.000491318	48.2478	1.90469e+07	1158.74
19	38.1826	100	0.000491318	49.8838	1.90469e+07	1158.74
18	36.6772	100	0.000491318	51.9312	1.90469e+07	1158.74
17	34.9605	100	0.000491318	54.4813	1.90469e+07	1158.74
16	32.7881	100	0.000491318	58.091	1.90469e+07	1158.74
15	31.0668	100	0.000491318	61.3095	1.90469e+07	1158.74
14	29.5516	100	0.000491318	64.453	1.90469e+07	1158.74
13	27.5268	100	0.000491318	69.194	1.90469e+07	1158.74
12	25.7281	100	0.000491318	74.0316	1.90469e+07	1158.74
11	23.6604	100	0.000491318	80.5013	1.90469e+07	1158.74
10	21.6096	100	0.000491318	88.1409	1.90469e+07	1158.74
9	19.859	100	0.000491318	95.9109	1.90469e+07	1158.74
8	18.0466	100	0.000491318	105.543	1.90469e+07	1158.74
7	16.0972	100	0.000491318	118.324	1.90469e+07	1158.74
6	13.953	100	0.000491318	136.508	1.90469e+07	1158.74
5	11.8007	100	0.000491318	161.405	1.90469e+07	1158.74
4	9.89864	100	0.000491318	192.419	1.90469e+07	1158.74
3	7.69579	100	0.000491318	247.498	1.90469e+07	1158.74
2	5.20426	100	0.000491318	365.987	1.90469e+07	1158.74
1	2.66148	100	0.000491318	715.651	1.90469e+07	1158.74
