MODE: ipmo_prog0
PARCOUNT: 21
PROBLEMS: 1
Running on INWEST
Using iPMO

Programs:
 + ../../build/sierpi_intel_ipmo_tsunami_parallel_release  -u 10 -U 10 -T 1000 -n 4 -d 14
 + ../../build/sierpi_intel_ipmo_tsunami_parallel_release  -u 10 -U 10 -T 1000 -n 4 -d 14
 + ../../build/sierpi_intel_ipmo_tsunami_parallel_release  -u 10 -U 10 -T 1000 -n 4 -d 12
 + ../../build/sierpi_intel_ipmo_tsunami_parallel_release  -u 10 -U 10 -T 1000 -n 4 -d 12
 + ../../build/sierpi_intel_ipmo_tsunami_parallel_release  -u 10 -U 10 -T 1000 -n 4 -d 12
 + ../../build/sierpi_intel_ipmo_tsunami_parallel_release  -u 10 -U 10 -T 1000 -n 4 -d 12
 + ../../build/sierpi_intel_ipmo_tsunami_parallel_release  -u 10 -U 10 -T 1000 -n 4 -d 12
 + ../../build/sierpi_intel_ipmo_tsunami_parallel_release  -u 10 -U 10 -T 1000 -n 4 -d 12
 + ../../build/sierpi_intel_ipmo_tsunami_parallel_release  -u 10 -U 10 -T 1000 -n 4 -d 12
 + ../../build/sierpi_intel_ipmo_tsunami_parallel_release  -u 10 -U 10 -T 1000 -n 4 -d 12

Mon Apr  2 04:22:35 CEST 2012
iPMO: Prog0 parallel execution with ipmo (21 times)
Waiting for job 55454
55455: CHANGING RESSOURCES
55455: CHANGING RESSOURCES
55472: CHANGING RESSOURCES
55462: CHANGING RESSOURCES
55462: CHANGING RESSOURCES
55472: CHANGING RESSOURCES
55469: CHANGING RESSOURCES
55474: CHANGING RESSOURCES
55472: CHANGING RESSOURCES
55462: CHANGING RESSOURCES
55455: CHANGING RESSOURCES
55461: CHANGING RESSOURCES
55460: CHANGING RESSOURCES
55459: CHANGING RESSOURCES
55473: CHANGING RESSOURCES
55467: CHANGING RESSOURCES
55457: CHANGING RESSOURCES
55463: CHANGING RESSOURCES
55471: CHANGING RESSOURCES
55456: CHANGING RESSOURCES
55470: CHANGING RESSOURCES
55465: CHANGING RESSOURCES
55466: CHANGING RESSOURCES
55454: CHANGING RESSOURCES
55464: CHANGING RESSOURCES
55458: CHANGING RESSOURCES
55468: CHANGING RESSOURCES

 + Terminating after 1000 timesteps with equal number of triangles -> EXIT
 + Final timestep: 59579

59580 TS (Timesteps)
3022.12 ST (SIMULATION_TIME)
0.0500175 TSS (Timestep size)
3178.19 SFS (Overall seconds for Simulation)
20954211547 TP (Triangles processed)
0.0533432 ASPT (Averaged Seconds per Timestep)
351699 TPST (Triangles Processed in Average per Simulation Timestep)
95.0841 PPST (Clusters Processed in Average per Simulation Timestep)
6.59313 MTPS (Million Triangles per Second)
-6.59313 MTPSPT (Million Triangles per Second per Thread)
10.733 EDMBPT (ElementData Megabyte per Timestep (RW))
201.206 EDMBPS (ElementData Megabyte per Second (RW))
SUM CLIENT SHUTDOWN HINT: 20954.2
SUM CLIENT SHUTDOWN HINT DIV TIME: 0
55458: CHANGING RESSOURCES
55456: CHANGING RESSOURCES

 + Terminating after 1000 timesteps with equal number of triangles -> EXIT
 + Final timestep: 59579

59580 TS (Timesteps)
3022.12 ST (SIMULATION_TIME)
0.0500175 TSS (Timestep size)
3259.17 SFS (Overall seconds for Simulation)
20954211547 TP (Triangles processed)
0.0547025 ASPT (Averaged Seconds per Timestep)
351699 TPST (Triangles Processed in Average per Simulation Timestep)
95.0841 PPST (Clusters Processed in Average per Simulation Timestep)
6.4293 MTPS (Million Triangles per Second)
-6.4293 MTPSPT (Million Triangles per Second per Thread)
10.733 EDMBPT (ElementData Megabyte per Timestep (RW))
196.207 EDMBPS (ElementData Megabyte per Second (RW))
SUM CLIENT SHUTDOWN HINT: 41908.4
SUM CLIENT SHUTDOWN HINT DIV TIME: 0
55455: CHANGING RESSOURCES
55461: CHANGING RESSOURCES

 + Terminating after 1000 timesteps with equal number of triangles -> EXIT
 + Final timestep: 59579

59580 TS (Timesteps)
3022.12 ST (SIMULATION_TIME)
0.0500175 TSS (Timestep size)
3266.85 SFS (Overall seconds for Simulation)
20954211547 TP (Triangles processed)
0.0548313 ASPT (Averaged Seconds per Timestep)
351699 TPST (Triangles Processed in Average per Simulation Timestep)
95.0841 PPST (Clusters Processed in Average per Simulation Timestep)
6.41419 MTPS (Million Triangles per Second)
-6.41419 MTPSPT (Million Triangles per Second per Thread)
10.733 EDMBPT (ElementData Megabyte per Timestep (RW))
195.746 EDMBPS (ElementData Megabyte per Second (RW))
SUM CLIENT SHUTDOWN HINT: 62862.6
SUM CLIENT SHUTDOWN HINT DIV TIME: 0
55458: CHANGING RESSOURCES
55472: CHANGING RESSOURCES

 + Terminating after 1000 timesteps with equal number of triangles -> EXIT
 + Final timestep: 59579

59580 TS (Timesteps)
3022.12 ST (SIMULATION_TIME)
0.0500175 TSS (Timestep size)
3288.95 SFS (Overall seconds for Simulation)
20954211547 TP (Triangles processed)
0.0552023 ASPT (Averaged Seconds per Timestep)
351699 TPST (Triangles Processed in Average per Simulation Timestep)
95.0841 PPST (Clusters Processed in Average per Simulation Timestep)
6.37109 MTPS (Million Triangles per Second)
-6.37109 MTPSPT (Million Triangles per Second per Thread)
10.733 EDMBPT (ElementData Megabyte per Timestep (RW))
194.43 EDMBPS (ElementData Megabyte per Second (RW))
SUM CLIENT SHUTDOWN HINT: 83816.8
SUM CLIENT SHUTDOWN HINT DIV TIME: 0
55456: CHANGING RESSOURCES
55464: CHANGING RESSOURCES

 + Terminating after 1000 timesteps with equal number of triangles -> EXIT
 + Final timestep: 59579

59580 TS (Timesteps)
3022.12 ST (SIMULATION_TIME)
0.0500175 TSS (Timestep size)
3289.27 SFS (Overall seconds for Simulation)
20954211547 TP (Triangles processed)
0.0552076 ASPT (Averaged Seconds per Timestep)
351699 TPST (Triangles Processed in Average per Simulation Timestep)
95.0841 PPST (Clusters Processed in Average per Simulation Timestep)
6.37047 MTPS (Million Triangles per Second)
-6.37047 MTPSPT (Million Triangles per Second per Thread)
10.733 EDMBPT (ElementData Megabyte per Timestep (RW))
194.411 EDMBPS (ElementData Megabyte per Second (RW))
SUM CLIENT SHUTDOWN HINT: 104771
SUM CLIENT SHUTDOWN HINT DIV TIME: 0
55457: CHANGING RESSOURCES
55454: CHANGING RESSOURCES

 + Terminating after 1000 timesteps with equal number of triangles -> EXIT
 + Final timestep: 59579

59580 TS (Timesteps)
3022.12 ST (SIMULATION_TIME)
0.0500175 TSS (Timestep size)
3291.75 SFS (Overall seconds for Simulation)
20954211547 TP (Triangles processed)
0.0552493 ASPT (Averaged Seconds per Timestep)
351699 TPST (Triangles Processed in Average per Simulation Timestep)
95.0841 PPST (Clusters Processed in Average per Simulation Timestep)
6.36567 MTPS (Million Triangles per Second)
-6.36567 MTPSPT (Million Triangles per Second per Thread)
10.733 EDMBPT (ElementData Megabyte per Timestep (RW))
194.265 EDMBPS (ElementData Megabyte per Second (RW))
SUM CLIENT SHUTDOWN HINT: 125725
SUM CLIENT SHUTDOWN HINT DIV TIME: 0
55459: CHANGING RESSOURCES
55460: CHANGING RESSOURCES
55466: CHANGING RESSOURCES

 + Terminating after 1000 timesteps with equal number of triangles -> EXIT
 + Final timestep: 59579

59580 TS (Timesteps)
3022.12 ST (SIMULATION_TIME)
0.0500175 TSS (Timestep size)
3298.92 SFS (Overall seconds for Simulation)
20954211547 TP (Triangles processed)
0.0553696 ASPT (Averaged Seconds per Timestep)
351699 TPST (Triangles Processed in Average per Simulation Timestep)
95.0841 PPST (Clusters Processed in Average per Simulation Timestep)
6.35183 MTPS (Million Triangles per Second)
-6.35183 MTPSPT (Million Triangles per Second per Thread)
10.733 EDMBPT (ElementData Megabyte per Timestep (RW))
193.843 EDMBPS (ElementData Megabyte per Second (RW))
SUM CLIENT SHUTDOWN HINT: 146679
SUM CLIENT SHUTDOWN HINT DIV TIME: 0
55468: CHANGING RESSOURCES
55469: CHANGING RESSOURCES

 + Terminating after 1000 timesteps with equal number of triangles -> EXIT
 + Final timestep: 59579

59580 TS (Timesteps)
3022.12 ST (SIMULATION_TIME)
0.0500175 TSS (Timestep size)
3305.02 SFS (Overall seconds for Simulation)
20954211547 TP (Triangles processed)
0.055472 ASPT (Averaged Seconds per Timestep)
351699 TPST (Triangles Processed in Average per Simulation Timestep)
95.0841 PPST (Clusters Processed in Average per Simulation Timestep)
6.34012 MTPS (Million Triangles per Second)
-6.34012 MTPSPT (Million Triangles per Second per Thread)
10.733 EDMBPT (ElementData Megabyte per Timestep (RW))
193.485 EDMBPS (ElementData Megabyte per Second (RW))
SUM CLIENT SHUTDOWN HINT: 167634
SUM CLIENT SHUTDOWN HINT DIV TIME: 0
55464: CHANGING RESSOURCES
55474: CHANGING RESSOURCES
55463: CHANGING RESSOURCES

 + Terminating after 1000 timesteps with equal number of triangles -> EXIT
 + Final timestep: 59579

59580 TS (Timesteps)
3022.12 ST (SIMULATION_TIME)
0.0500175 TSS (Timestep size)
3309.51 SFS (Overall seconds for Simulation)
20954211547 TP (Triangles processed)
0.0555473 ASPT (Averaged Seconds per Timestep)
351699 TPST (Triangles Processed in Average per Simulation Timestep)
95.0841 PPST (Clusters Processed in Average per Simulation Timestep)
6.33152 MTPS (Million Triangles per Second)
-6.33152 MTPSPT (Million Triangles per Second per Thread)
10.733 EDMBPT (ElementData Megabyte per Timestep (RW))
193.223 EDMBPS (ElementData Megabyte per Second (RW))
SUM CLIENT SHUTDOWN HINT: 188588
SUM CLIENT SHUTDOWN HINT DIV TIME: 0
55454: CHANGING RESSOURCES
55466: CHANGING RESSOURCES
55457: CHANGING RESSOURCES

 + Terminating after 1000 timesteps with equal number of triangles -> EXIT
 + Final timestep: 59579

59580 TS (Timesteps)
3022.12 ST (SIMULATION_TIME)
0.0500175 TSS (Timestep size)
3355.32 SFS (Overall seconds for Simulation)
20954211547 TP (Triangles processed)
0.0563162 ASPT (Averaged Seconds per Timestep)
351699 TPST (Triangles Processed in Average per Simulation Timestep)
95.0841 PPST (Clusters Processed in Average per Simulation Timestep)
6.24508 MTPS (Million Triangles per Second)
-6.24508 MTPSPT (Million Triangles per Second per Thread)
10.733 EDMBPT (ElementData Megabyte per Timestep (RW))
190.585 EDMBPS (ElementData Megabyte per Second (RW))
SUM CLIENT SHUTDOWN HINT: 209542
SUM CLIENT SHUTDOWN HINT DIV TIME: 0
55460: CHANGING RESSOURCES
55474: CHANGING RESSOURCES
55468: CHANGING RESSOURCES
55469: CHANGING RESSOURCES
Waiting for job 55455
Waiting for job 55456

 + Terminating after 1000 timesteps with equal number of triangles -> EXIT
 + Final timestep: 59579

59580 TS (Timesteps)
3022.12 ST (SIMULATION_TIME)
0.0500175 TSS (Timestep size)
3368.31 SFS (Overall seconds for Simulation)
20954211547 TP (Triangles processed)
0.0565343 ASPT (Averaged Seconds per Timestep)
351699 TPST (Triangles Processed in Average per Simulation Timestep)
95.0841 PPST (Clusters Processed in Average per Simulation Timestep)
6.22098 MTPS (Million Triangles per Second)
-6.22098 MTPSPT (Million Triangles per Second per Thread)
10.733 EDMBPT (ElementData Megabyte per Timestep (RW))
189.849 EDMBPS (ElementData Megabyte per Second (RW))
SUM CLIENT SHUTDOWN HINT: 230496
SUM CLIENT SHUTDOWN HINT DIV TIME: 0
55458: CHANGING RESSOURCES
55456: CHANGING RESSOURCES
55472: CHANGING RESSOURCES

 + Terminating after 1000 timesteps with equal number of triangles -> EXIT
 + Final timestep: 59579

59580 TS (Timesteps)
3022.12 ST (SIMULATION_TIME)
0.0500175 TSS (Timestep size)
3368.84 SFS (Overall seconds for Simulation)
20954211547 TP (Triangles processed)
0.0565431 ASPT (Averaged Seconds per Timestep)
351699 TPST (Triangles Processed in Average per Simulation Timestep)
95.0841 PPST (Clusters Processed in Average per Simulation Timestep)
6.22001 MTPS (Million Triangles per Second)
-6.22001 MTPSPT (Million Triangles per Second per Thread)
10.733 EDMBPT (ElementData Megabyte per Timestep (RW))
189.82 EDMBPS (ElementData Megabyte per Second (RW))
SUM CLIENT SHUTDOWN HINT: 251451
SUM CLIENT SHUTDOWN HINT DIV TIME: 0
55458: CHANGING RESSOURCES
55464: CHANGING RESSOURCES
55456: CHANGING RESSOURCES
55472: CHANGING RESSOURCES

 + Terminating after 1000 timesteps with equal number of triangles -> EXIT
 + Final timestep: 59579

59580 TS (Timesteps)
3022.12 ST (SIMULATION_TIME)
0.0500175 TSS (Timestep size)
3380.66 SFS (Overall seconds for Simulation)
20954211547 TP (Triangles processed)
0.0567416 ASPT (Averaged Seconds per Timestep)
351699 TPST (Triangles Processed in Average per Simulation Timestep)
95.0841 PPST (Clusters Processed in Average per Simulation Timestep)
6.19826 MTPS (Million Triangles per Second)
-6.19826 MTPSPT (Million Triangles per Second per Thread)
10.733 EDMBPT (ElementData Megabyte per Timestep (RW))
189.156 EDMBPS (ElementData Megabyte per Second (RW))
SUM CLIENT SHUTDOWN HINT: 272405
SUM CLIENT SHUTDOWN HINT DIV TIME: 0
55469: CHANGING RESSOURCES
55468: CHANGING RESSOURCES
55457: CHANGING RESSOURCES
55466: CHANGING RESSOURCES
55460: CHANGING RESSOURCES

 + Terminating after 1000 timesteps with equal number of triangles -> EXIT
 + Final timestep: 59579

59580 TS (Timesteps)
3022.12 ST (SIMULATION_TIME)
0.0500175 TSS (Timestep size)
3381.86 SFS (Overall seconds for Simulation)
20954211547 TP (Triangles processed)
0.0567616 ASPT (Averaged Seconds per Timestep)
351699 TPST (Triangles Processed in Average per Simulation Timestep)
95.0841 PPST (Clusters Processed in Average per Simulation Timestep)
6.19607 MTPS (Million Triangles per Second)
-6.19607 MTPSPT (Million Triangles per Second per Thread)
10.733 EDMBPT (ElementData Megabyte per Timestep (RW))
189.089 EDMBPS (ElementData Megabyte per Second (RW))
SUM CLIENT SHUTDOWN HINT: 293359
SUM CLIENT SHUTDOWN HINT DIV TIME: 0
55460: CHANGING RESSOURCES
55458: CHANGING RESSOURCES
55472: CHANGING RESSOURCES
55456: CHANGING RESSOURCES
55457: CHANGING RESSOURCES

 + Terminating after 1000 timesteps with equal number of triangles -> EXIT
 + Final timestep: 59579

59580 TS (Timesteps)
3022.12 ST (SIMULATION_TIME)
0.0500175 TSS (Timestep size)
3418.44 SFS (Overall seconds for Simulation)
20954211547 TP (Triangles processed)
0.0573757 ASPT (Averaged Seconds per Timestep)
351699 TPST (Triangles Processed in Average per Simulation Timestep)
95.0841 PPST (Clusters Processed in Average per Simulation Timestep)
6.12975 MTPS (Million Triangles per Second)
-6.12975 MTPSPT (Million Triangles per Second per Thread)
10.733 EDMBPT (ElementData Megabyte per Timestep (RW))
187.065 EDMBPS (ElementData Megabyte per Second (RW))
SUM CLIENT SHUTDOWN HINT: 314313
SUM CLIENT SHUTDOWN HINT DIV TIME: 0
55456: CHANGING RESSOURCES
55458: CHANGING RESSOURCES
55472: CHANGING RESSOURCES
55469: CHANGING RESSOURCES

 + Terminating after 1000 timesteps with equal number of triangles -> EXIT
 + Final timestep: 59579

59580 TS (Timesteps)
3022.12 ST (SIMULATION_TIME)
0.0500175 TSS (Timestep size)
3460.72 SFS (Overall seconds for Simulation)
20954211547 TP (Triangles processed)
0.0580852 ASPT (Averaged Seconds per Timestep)
351699 TPST (Triangles Processed in Average per Simulation Timestep)
95.0841 PPST (Clusters Processed in Average per Simulation Timestep)
6.05488 MTPS (Million Triangles per Second)
-6.05488 MTPSPT (Million Triangles per Second per Thread)
10.733 EDMBPT (ElementData Megabyte per Timestep (RW))
184.78 EDMBPS (ElementData Megabyte per Second (RW))
SUM CLIENT SHUTDOWN HINT: 335267
SUM CLIENT SHUTDOWN HINT DIV TIME: 0
55469: CHANGING RESSOURCES
55458: CHANGING RESSOURCES
55456: CHANGING RESSOURCES
55472: CHANGING RESSOURCES
55460: CHANGING RESSOURCES

 + Terminating after 1000 timesteps with equal number of triangles -> EXIT
 + Final timestep: 59579

59580 TS (Timesteps)
3022.12 ST (SIMULATION_TIME)
0.0500175 TSS (Timestep size)
3467.13 SFS (Overall seconds for Simulation)
20954211547 TP (Triangles processed)
0.0581928 ASPT (Averaged Seconds per Timestep)
351699 TPST (Triangles Processed in Average per Simulation Timestep)
95.0841 PPST (Clusters Processed in Average per Simulation Timestep)
6.04368 MTPS (Million Triangles per Second)
-6.04368 MTPSPT (Million Triangles per Second per Thread)
10.733 EDMBPT (ElementData Megabyte per Timestep (RW))
184.439 EDMBPS (ElementData Megabyte per Second (RW))
SUM CLIENT SHUTDOWN HINT: 356222
SUM CLIENT SHUTDOWN HINT DIV TIME: 0
55460: CHANGING RESSOURCES
55456: CHANGING RESSOURCES
55458: CHANGING RESSOURCES
55472: CHANGING RESSOURCES

 + Terminating after 1000 timesteps with equal number of triangles -> EXIT
 + Final timestep: 59579

59580 TS (Timesteps)
3022.12 ST (SIMULATION_TIME)
0.0500175 TSS (Timestep size)
3470.25 SFS (Overall seconds for Simulation)
20954211547 TP (Triangles processed)
0.0582451 ASPT (Averaged Seconds per Timestep)
351699 TPST (Triangles Processed in Average per Simulation Timestep)
95.0841 PPST (Clusters Processed in Average per Simulation Timestep)
6.03825 MTPS (Million Triangles per Second)
-6.03825 MTPSPT (Million Triangles per Second per Thread)
10.733 EDMBPT (ElementData Megabyte per Timestep (RW))
184.273 EDMBPS (ElementData Megabyte per Second (RW))
SUM CLIENT SHUTDOWN HINT: 377176
SUM CLIENT SHUTDOWN HINT DIV TIME: 0
55456: CHANGING RESSOURCES
55472: CHANGING RESSOURCES
55458: CHANGING RESSOURCES

 + Terminating after 1000 timesteps with equal number of triangles -> EXIT
 + Final timestep: 59579

59580 TS (Timesteps)
3022.12 ST (SIMULATION_TIME)
0.0500175 TSS (Timestep size)
3476.93 SFS (Overall seconds for Simulation)
20954211547 TP (Triangles processed)
0.0583573 ASPT (Averaged Seconds per Timestep)
351699 TPST (Triangles Processed in Average per Simulation Timestep)
95.0841 PPST (Clusters Processed in Average per Simulation Timestep)
6.02665 MTPS (Million Triangles per Second)
-6.02665 MTPSPT (Million Triangles per Second per Thread)
10.733 EDMBPT (ElementData Megabyte per Timestep (RW))
183.919 EDMBPS (ElementData Megabyte per Second (RW))
SUM CLIENT SHUTDOWN HINT: 398130
SUM CLIENT SHUTDOWN HINT DIV TIME: 0
55458: CHANGING RESSOURCES

 + Terminating after 1000 timesteps with equal number of triangles -> EXIT
 + Final timestep: 59579

59580 TS (Timesteps)
3022.12 ST (SIMULATION_TIME)
0.0500175 TSS (Timestep size)
3618.96 SFS (Overall seconds for Simulation)
20954211547 TP (Triangles processed)
0.0607412 ASPT (Averaged Seconds per Timestep)
351699 TPST (Triangles Processed in Average per Simulation Timestep)
95.0841 PPST (Clusters Processed in Average per Simulation Timestep)
5.79012 MTPS (Million Triangles per Second)
-5.79012 MTPSPT (Million Triangles per Second per Thread)
10.733 EDMBPT (ElementData Megabyte per Timestep (RW))
176.701 EDMBPS (ElementData Megabyte per Second (RW))
SUM CLIENT SHUTDOWN HINT: 419084
SUM CLIENT SHUTDOWN HINT DIV TIME: 0
55456: CHANGING RESSOURCES

 + Terminating after 1000 timesteps with equal number of triangles -> EXIT
 + Final timestep: 59579

59580 TS (Timesteps)
3022.12 ST (SIMULATION_TIME)
0.0500175 TSS (Timestep size)
3686.78 SFS (Overall seconds for Simulation)
20954211547 TP (Triangles processed)
0.0618795 ASPT (Averaged Seconds per Timestep)
351699 TPST (Triangles Processed in Average per Simulation Timestep)
95.0841 PPST (Clusters Processed in Average per Simulation Timestep)
5.68361 MTPS (Million Triangles per Second)
-5.68361 MTPSPT (Million Triangles per Second per Thread)
10.733 EDMBPT (ElementData Megabyte per Timestep (RW))
173.45 EDMBPS (ElementData Megabyte per Second (RW))
SUM CLIENT SHUTDOWN HINT: 440038
SUM CLIENT SHUTDOWN HINT DIV TIME: 119.358
Waiting for job 55457
Waiting for job 55458
Waiting for job 55459
Waiting for job 55460
Waiting for job 55461
Waiting for job 55462
Waiting for job 55463
Waiting for job 55464
Waiting for job 55465
Waiting for job 55466
Waiting for job 55467
Waiting for job 55468
Waiting for job 55469
Waiting for job 55470
Waiting for job 55471
Waiting for job 55472
Waiting for job 55473
Waiting for job 55474
Mon Apr  2 05:24:02 CEST 2012
Seconds: 3687
