MODE: ipmo_prog0
PARCOUNT: 33
PROBLEMS: 1
Running on INWEST
Using iPMO

Programs:
 + ../../build/sierpi_intel_ipmo_tsunami_parallel_release  -u 10 -U 10 -T 1000 -n 4 -d 14
 + ../../build/sierpi_intel_ipmo_tsunami_parallel_release  -u 10 -U 10 -T 1000 -n 4 -d 14
 + ../../build/sierpi_intel_ipmo_tsunami_parallel_release  -u 10 -U 10 -T 1000 -n 4 -d 12
 + ../../build/sierpi_intel_ipmo_tsunami_parallel_release  -u 10 -U 10 -T 1000 -n 4 -d 12
 + ../../build/sierpi_intel_ipmo_tsunami_parallel_release  -u 10 -U 10 -T 1000 -n 4 -d 12
 + ../../build/sierpi_intel_ipmo_tsunami_parallel_release  -u 10 -U 10 -T 1000 -n 4 -d 12
 + ../../build/sierpi_intel_ipmo_tsunami_parallel_release  -u 10 -U 10 -T 1000 -n 4 -d 12
 + ../../build/sierpi_intel_ipmo_tsunami_parallel_release  -u 10 -U 10 -T 1000 -n 4 -d 12
 + ../../build/sierpi_intel_ipmo_tsunami_parallel_release  -u 10 -U 10 -T 1000 -n 4 -d 12
 + ../../build/sierpi_intel_ipmo_tsunami_parallel_release  -u 10 -U 10 -T 1000 -n 4 -d 12

Tue Apr  3 08:21:23 CEST 2012
iPMO: Prog0 parallel execution with ipmo (33 times)
Waiting for job 19563
19575: CHANGING RESSOURCES
19574: CHANGING RESSOURCES
19570: CHANGING RESSOURCES
19574: CHANGING RESSOURCES
19591: CHANGING RESSOURCES
19575: CHANGING RESSOURCES
19574: CHANGING RESSOURCES
19563: CHANGING RESSOURCES
19570: CHANGING RESSOURCES
19568: CHANGING RESSOURCES
19592: CHANGING RESSOURCES
19587: CHANGING RESSOURCES
19586: CHANGING RESSOURCES
19569: CHANGING RESSOURCES
19588: CHANGING RESSOURCES
19594: CHANGING RESSOURCES
19565: CHANGING RESSOURCES
19571: CHANGING RESSOURCES
19595: CHANGING RESSOURCES
19567: CHANGING RESSOURCES
19589: CHANGING RESSOURCES
19564: CHANGING RESSOURCES
19584: CHANGING RESSOURCES
19566: CHANGING RESSOURCES
19573: CHANGING RESSOURCES
19583: CHANGING RESSOURCES
19580: CHANGING RESSOURCES
19582: CHANGING RESSOURCES
19572: CHANGING RESSOURCES
19577: CHANGING RESSOURCES
19581: CHANGING RESSOURCES
19579: CHANGING RESSOURCES
19590: CHANGING RESSOURCES
19576: CHANGING RESSOURCES
19578: CHANGING RESSOURCES
19585: CHANGING RESSOURCES
19593: CHANGING RESSOURCES

 + Terminating after 1000 timesteps with equal number of triangles -> EXIT
 + Final timestep: 59579

59580 TS (Timesteps)
3022.12 ST (SIMULATION_TIME)
0.0500175 TSS (Timestep size)
3217.3 SFS (Overall seconds for Simulation)
20954211547 TP (Triangles processed)
0.0539996 ASPT (Averaged Seconds per Timestep)
351699 TPST (Triangles Processed in Average per Simulation Timestep)
95.0841 PPST (Clusters Processed in Average per Simulation Timestep)
6.51298 MTPS (Million Triangles per Second)
-6.51298 MTPSPT (Million Triangles per Second per Thread)
10.733 EDMBPT (ElementData Megabyte per Timestep (RW))
198.76 EDMBPS (ElementData Megabyte per Second (RW))
SUM CLIENT SHUTDOWN HINT: 20954.2
SUM CLIENT SHUTDOWN HINT DIV TIME: 0
19582: CHANGING RESSOURCES
19563: CHANGING RESSOURCES

 + Terminating after 1000 timesteps with equal number of triangles -> EXIT
 + Final timestep: 59579

59580 TS (Timesteps)
3022.12 ST (SIMULATION_TIME)
0.0500175 TSS (Timestep size)
3258.44 SFS (Overall seconds for Simulation)
20954211547 TP (Triangles processed)
0.0546901 ASPT (Averaged Seconds per Timestep)
351699 TPST (Triangles Processed in Average per Simulation Timestep)
95.0841 PPST (Clusters Processed in Average per Simulation Timestep)
6.43076 MTPS (Million Triangles per Second)
-6.43076 MTPSPT (Million Triangles per Second per Thread)
10.733 EDMBPT (ElementData Megabyte per Timestep (RW))
196.251 EDMBPS (ElementData Megabyte per Second (RW))
SUM CLIENT SHUTDOWN HINT: 41908.4
SUM CLIENT SHUTDOWN HINT DIV TIME: 0
19587: CHANGING RESSOURCES
19567: CHANGING RESSOURCES

 + Terminating after 1000 timesteps with equal number of triangles -> EXIT
 + Final timestep: 59579

59580 TS (Timesteps)
3022.12 ST (SIMULATION_TIME)
0.0500175 TSS (Timestep size)
3273.12 SFS (Overall seconds for Simulation)
20954211547 TP (Triangles processed)
0.0549365 ASPT (Averaged Seconds per Timestep)
351699 TPST (Triangles Processed in Average per Simulation Timestep)
95.0841 PPST (Clusters Processed in Average per Simulation Timestep)
6.40191 MTPS (Million Triangles per Second)
-6.40191 MTPSPT (Million Triangles per Second per Thread)
10.733 EDMBPT (ElementData Megabyte per Timestep (RW))
195.371 EDMBPS (ElementData Megabyte per Second (RW))
SUM CLIENT SHUTDOWN HINT: 62862.6
SUM CLIENT SHUTDOWN HINT DIV TIME: 0
19583: CHANGING RESSOURCES
19571: CHANGING RESSOURCES

 + Terminating after 1000 timesteps with equal number of triangles -> EXIT
 + Final timestep: 59579

59580 TS (Timesteps)
3022.12 ST (SIMULATION_TIME)
0.0500175 TSS (Timestep size)
3291.24 SFS (Overall seconds for Simulation)
20954211547 TP (Triangles processed)
0.0552407 ASPT (Averaged Seconds per Timestep)
351699 TPST (Triangles Processed in Average per Simulation Timestep)
95.0841 PPST (Clusters Processed in Average per Simulation Timestep)
6.36666 MTPS (Million Triangles per Second)
-6.36666 MTPSPT (Million Triangles per Second per Thread)
10.733 EDMBPT (ElementData Megabyte per Timestep (RW))
194.295 EDMBPS (ElementData Megabyte per Second (RW))
SUM CLIENT SHUTDOWN HINT: 83816.8
SUM CLIENT SHUTDOWN HINT DIV TIME: 0
19569: CHANGING RESSOURCES
19573: CHANGING RESSOURCES

 + Terminating after 1000 timesteps with equal number of triangles -> EXIT
 + Final timestep: 59579

59580 TS (Timesteps)
3022.12 ST (SIMULATION_TIME)
0.0500175 TSS (Timestep size)
3307.24 SFS (Overall seconds for Simulation)
20954211547 TP (Triangles processed)
0.0555092 ASPT (Averaged Seconds per Timestep)
351699 TPST (Triangles Processed in Average per Simulation Timestep)
95.0841 PPST (Clusters Processed in Average per Simulation Timestep)
6.33587 MTPS (Million Triangles per Second)
-6.33587 MTPSPT (Million Triangles per Second per Thread)
10.733 EDMBPT (ElementData Megabyte per Timestep (RW))
193.355 EDMBPS (ElementData Megabyte per Second (RW))
SUM CLIENT SHUTDOWN HINT: 104771
SUM CLIENT SHUTDOWN HINT DIV TIME: 0
19572: CHANGING RESSOURCES
19587: CHANGING RESSOURCES
19580: CHANGING RESSOURCES
19594: CHANGING RESSOURCES

 + Terminating after 1000 timesteps with equal number of triangles -> EXIT
 + Final timestep: 59579

59580 TS (Timesteps)
3022.12 ST (SIMULATION_TIME)
0.0500175 TSS (Timestep size)
3315.06 SFS (Overall seconds for Simulation)
20954211547 TP (Triangles processed)
0.0556405 ASPT (Averaged Seconds per Timestep)
351699 TPST (Triangles Processed in Average per Simulation Timestep)
95.0841 PPST (Clusters Processed in Average per Simulation Timestep)
6.32091 MTPS (Million Triangles per Second)
-6.32091 MTPSPT (Million Triangles per Second per Thread)
10.733 EDMBPT (ElementData Megabyte per Timestep (RW))
192.899 EDMBPS (ElementData Megabyte per Second (RW))
SUM CLIENT SHUTDOWN HINT: 125725
SUM CLIENT SHUTDOWN HINT DIV TIME: 0
19583: CHANGING RESSOURCES
19589: CHANGING RESSOURCES
19565: CHANGING RESSOURCES
19586: CHANGING RESSOURCES

 + Terminating after 1000 timesteps with equal number of triangles -> EXIT
 + Final timestep: 59579

59580 TS (Timesteps)
3022.12 ST (SIMULATION_TIME)
0.0500175 TSS (Timestep size)
3426.83 SFS (Overall seconds for Simulation)
20954211547 TP (Triangles processed)
0.0575164 ASPT (Averaged Seconds per Timestep)
351699 TPST (Triangles Processed in Average per Simulation Timestep)
95.0841 PPST (Clusters Processed in Average per Simulation Timestep)
6.11476 MTPS (Million Triangles per Second)
-6.11476 MTPSPT (Million Triangles per Second per Thread)
10.733 EDMBPT (ElementData Megabyte per Timestep (RW))
186.608 EDMBPS (ElementData Megabyte per Second (RW))
SUM CLIENT SHUTDOWN HINT: 146679
SUM CLIENT SHUTDOWN HINT DIV TIME: 0
19571: CHANGING RESSOURCES
19576: CHANGING RESSOURCES
19566: CHANGING RESSOURCES
19587: CHANGING RESSOURCES

 + Terminating after 1000 timesteps with equal number of triangles -> EXIT
 + Final timestep: 59579

59580 TS (Timesteps)
3022.12 ST (SIMULATION_TIME)
0.0500175 TSS (Timestep size)
4590.66 SFS (Overall seconds for Simulation)
20954211547 TP (Triangles processed)
0.0770504 ASPT (Averaged Seconds per Timestep)
351699 TPST (Triangles Processed in Average per Simulation Timestep)
95.0841 PPST (Clusters Processed in Average per Simulation Timestep)
4.56453 MTPS (Million Triangles per Second)
-4.56453 MTPSPT (Million Triangles per Second per Thread)
10.733 EDMBPT (ElementData Megabyte per Timestep (RW))
139.298 EDMBPS (ElementData Megabyte per Second (RW))
SUM CLIENT SHUTDOWN HINT: 167634
SUM CLIENT SHUTDOWN HINT DIV TIME: 0
19595: CHANGING RESSOURCES
19584: CHANGING RESSOURCES

 + Terminating after 1000 timesteps with equal number of triangles -> EXIT
 + Final timestep: 59579

59580 TS (Timesteps)
3022.12 ST (SIMULATION_TIME)
0.0500175 TSS (Timestep size)
4695.95 SFS (Overall seconds for Simulation)
20954211547 TP (Triangles processed)
0.0788176 ASPT (Averaged Seconds per Timestep)
351699 TPST (Triangles Processed in Average per Simulation Timestep)
95.0841 PPST (Clusters Processed in Average per Simulation Timestep)
4.46218 MTPS (Million Triangles per Second)
-4.46218 MTPSPT (Million Triangles per Second per Thread)
10.733 EDMBPT (ElementData Megabyte per Timestep (RW))
136.175 EDMBPS (ElementData Megabyte per Second (RW))
SUM CLIENT SHUTDOWN HINT: 188588
SUM CLIENT SHUTDOWN HINT DIV TIME: 0
19583: CHANGING RESSOURCES
19573: CHANGING RESSOURCES
19579: CHANGING RESSOURCES
19581: CHANGING RESSOURCES

 + Terminating after 1000 timesteps with equal number of triangles -> EXIT
 + Final timestep: 59579

59580 TS (Timesteps)
3022.12 ST (SIMULATION_TIME)
0.0500175 TSS (Timestep size)
4706.4 SFS (Overall seconds for Simulation)
20954211547 TP (Triangles processed)
0.078993 ASPT (Averaged Seconds per Timestep)
351699 TPST (Triangles Processed in Average per Simulation Timestep)
95.0841 PPST (Clusters Processed in Average per Simulation Timestep)
4.45228 MTPS (Million Triangles per Second)
-4.45228 MTPSPT (Million Triangles per Second per Thread)
10.733 EDMBPT (ElementData Megabyte per Timestep (RW))
135.873 EDMBPS (ElementData Megabyte per Second (RW))
SUM CLIENT SHUTDOWN HINT: 209542
SUM CLIENT SHUTDOWN HINT DIV TIME: 0
19591: CHANGING RESSOURCES
19588: CHANGING RESSOURCES

 + Terminating after 1000 timesteps with equal number of triangles -> EXIT
 + Final timestep: 59579

59580 TS (Timesteps)
3022.12 ST (SIMULATION_TIME)
0.0500175 TSS (Timestep size)
4765.67 SFS (Overall seconds for Simulation)
20954211547 TP (Triangles processed)
0.0799877 ASPT (Averaged Seconds per Timestep)
351699 TPST (Triangles Processed in Average per Simulation Timestep)
95.0841 PPST (Clusters Processed in Average per Simulation Timestep)
4.39691 MTPS (Million Triangles per Second)
-4.39691 MTPSPT (Million Triangles per Second per Thread)
10.733 EDMBPT (ElementData Megabyte per Timestep (RW))
134.183 EDMBPS (ElementData Megabyte per Second (RW))
SUM CLIENT SHUTDOWN HINT: 230496
SUM CLIENT SHUTDOWN HINT DIV TIME: 0
19577: CHANGING RESSOURCES
19585: CHANGING RESSOURCES

 + Terminating after 1000 timesteps with equal number of triangles -> EXIT
 + Final timestep: 59579

59580 TS (Timesteps)
3022.12 ST (SIMULATION_TIME)
0.0500175 TSS (Timestep size)
4935.81 SFS (Overall seconds for Simulation)
20954211547 TP (Triangles processed)
0.0828434 ASPT (Averaged Seconds per Timestep)
351699 TPST (Triangles Processed in Average per Simulation Timestep)
95.0841 PPST (Clusters Processed in Average per Simulation Timestep)
4.24534 MTPS (Million Triangles per Second)
-4.24534 MTPSPT (Million Triangles per Second per Thread)
10.733 EDMBPT (ElementData Megabyte per Timestep (RW))
129.558 EDMBPS (ElementData Megabyte per Second (RW))
SUM CLIENT SHUTDOWN HINT: 251451
SUM CLIENT SHUTDOWN HINT DIV TIME: 0
19593: CHANGING RESSOURCES
19590: CHANGING RESSOURCES
19594: CHANGING RESSOURCES
19571: CHANGING RESSOURCES

 + Terminating after 1000 timesteps with equal number of triangles -> EXIT
 + Final timestep: 59579

59580 TS (Timesteps)
3022.12 ST (SIMULATION_TIME)
0.0500175 TSS (Timestep size)
4962.81 SFS (Overall seconds for Simulation)
20954211547 TP (Triangles processed)
0.0832966 ASPT (Averaged Seconds per Timestep)
351699 TPST (Triangles Processed in Average per Simulation Timestep)
95.0841 PPST (Clusters Processed in Average per Simulation Timestep)
4.22225 MTPS (Million Triangles per Second)
-4.22225 MTPSPT (Million Triangles per Second per Thread)
10.733 EDMBPT (ElementData Megabyte per Timestep (RW))
128.853 EDMBPS (ElementData Megabyte per Second (RW))
SUM CLIENT SHUTDOWN HINT: 272405
SUM CLIENT SHUTDOWN HINT DIV TIME: 0
19594: CHANGING RESSOURCES
19573: CHANGING RESSOURCES

 + Terminating after 1000 timesteps with equal number of triangles -> EXIT
 + Final timestep: 59579

59580 TS (Timesteps)
3022.12 ST (SIMULATION_TIME)
0.0500175 TSS (Timestep size)
4968.37 SFS (Overall seconds for Simulation)
20954211547 TP (Triangles processed)
0.0833899 ASPT (Averaged Seconds per Timestep)
351699 TPST (Triangles Processed in Average per Simulation Timestep)
95.0841 PPST (Clusters Processed in Average per Simulation Timestep)
4.21752 MTPS (Million Triangles per Second)
-4.21752 MTPSPT (Million Triangles per Second per Thread)
10.733 EDMBPT (ElementData Megabyte per Timestep (RW))
128.709 EDMBPS (ElementData Megabyte per Second (RW))
SUM CLIENT SHUTDOWN HINT: 293359
SUM CLIENT SHUTDOWN HINT DIV TIME: 0
19563: CHANGING RESSOURCES
19587: CHANGING RESSOURCES

 + Terminating after 1000 timesteps with equal number of triangles -> EXIT
 + Final timestep: 59579

59580 TS (Timesteps)
3022.12 ST (SIMULATION_TIME)
0.0500175 TSS (Timestep size)
5047.04 SFS (Overall seconds for Simulation)
20954211547 TP (Triangles processed)
0.0847103 ASPT (Averaged Seconds per Timestep)
351699 TPST (Triangles Processed in Average per Simulation Timestep)
95.0841 PPST (Clusters Processed in Average per Simulation Timestep)
4.15178 MTPS (Million Triangles per Second)
-4.15178 MTPSPT (Million Triangles per Second per Thread)
10.733 EDMBPT (ElementData Megabyte per Timestep (RW))
126.702 EDMBPS (ElementData Megabyte per Second (RW))
SUM CLIENT SHUTDOWN HINT: 314313
SUM CLIENT SHUTDOWN HINT DIV TIME: 0
19571: CHANGING RESSOURCES
19573: CHANGING RESSOURCES
19583: CHANGING RESSOURCES
Waiting for job 19564
Waiting for job 19565
Waiting for job 19566
Waiting for job 19567
Waiting for job 19568
Waiting for job 19569
Waiting for job 19570
Waiting for job 19571

 + Terminating after 1000 timesteps with equal number of triangles -> EXIT
 + Final timestep: 59579

59580 TS (Timesteps)
3022.12 ST (SIMULATION_TIME)
0.0500175 TSS (Timestep size)
5103.94 SFS (Overall seconds for Simulation)
20954211547 TP (Triangles processed)
0.0856653 ASPT (Averaged Seconds per Timestep)
351699 TPST (Triangles Processed in Average per Simulation Timestep)
95.0841 PPST (Clusters Processed in Average per Simulation Timestep)
4.1055 MTPS (Million Triangles per Second)
-4.1055 MTPSPT (Million Triangles per Second per Thread)
10.733 EDMBPT (ElementData Megabyte per Timestep (RW))
125.29 EDMBPS (ElementData Megabyte per Second (RW))
SUM CLIENT SHUTDOWN HINT: 335267
SUM CLIENT SHUTDOWN HINT DIV TIME: 0
19594: CHANGING RESSOURCES
19572: CHANGING RESSOURCES
19580: CHANGING RESSOURCES

 + Terminating after 1000 timesteps with equal number of triangles -> EXIT
 + Final timestep: 59579

59580 TS (Timesteps)
3022.12 ST (SIMULATION_TIME)
0.0500175 TSS (Timestep size)
5174.82 SFS (Overall seconds for Simulation)
20954211547 TP (Triangles processed)
0.086855 ASPT (Averaged Seconds per Timestep)
351699 TPST (Triangles Processed in Average per Simulation Timestep)
95.0841 PPST (Clusters Processed in Average per Simulation Timestep)
4.04926 MTPS (Million Triangles per Second)
-4.04926 MTPSPT (Million Triangles per Second per Thread)
10.733 EDMBPT (ElementData Megabyte per Timestep (RW))
123.574 EDMBPS (ElementData Megabyte per Second (RW))
SUM CLIENT SHUTDOWN HINT: 356222
SUM CLIENT SHUTDOWN HINT DIV TIME: 0
19595: CHANGING RESSOURCES
19584: CHANGING RESSOURCES

 + Terminating after 1000 timesteps with equal number of triangles -> EXIT
 + Final timestep: 59579

59580 TS (Timesteps)
3022.12 ST (SIMULATION_TIME)
0.0500175 TSS (Timestep size)
5188.69 SFS (Overall seconds for Simulation)
20954211547 TP (Triangles processed)
0.0870877 ASPT (Averaged Seconds per Timestep)
351699 TPST (Triangles Processed in Average per Simulation Timestep)
95.0841 PPST (Clusters Processed in Average per Simulation Timestep)
4.03844 MTPS (Million Triangles per Second)
-4.03844 MTPSPT (Million Triangles per Second per Thread)
10.733 EDMBPT (ElementData Megabyte per Timestep (RW))
123.243 EDMBPS (ElementData Megabyte per Second (RW))
SUM CLIENT SHUTDOWN HINT: 377176
SUM CLIENT SHUTDOWN HINT DIV TIME: 0
19581: CHANGING RESSOURCES
19579: CHANGING RESSOURCES
19588: CHANGING RESSOURCES

 + Terminating after 1000 timesteps with equal number of triangles -> EXIT
 + Final timestep: 59579

59580 TS (Timesteps)
3022.12 ST (SIMULATION_TIME)
0.0500175 TSS (Timestep size)
5199.75 SFS (Overall seconds for Simulation)
20954211547 TP (Triangles processed)
0.0872735 ASPT (Averaged Seconds per Timestep)
351699 TPST (Triangles Processed in Average per Simulation Timestep)
95.0841 PPST (Clusters Processed in Average per Simulation Timestep)
4.02985 MTPS (Million Triangles per Second)
-4.02985 MTPSPT (Million Triangles per Second per Thread)
10.733 EDMBPT (ElementData Megabyte per Timestep (RW))
122.981 EDMBPS (ElementData Megabyte per Second (RW))
SUM CLIENT SHUTDOWN HINT: 398130
SUM CLIENT SHUTDOWN HINT DIV TIME: 0
19585: CHANGING RESSOURCES
19577: CHANGING RESSOURCES
19591: CHANGING RESSOURCES

 + Terminating after 1000 timesteps with equal number of triangles -> EXIT
 + Final timestep: 59579

59580 TS (Timesteps)
3022.12 ST (SIMULATION_TIME)
0.0500175 TSS (Timestep size)
5207.13 SFS (Overall seconds for Simulation)
20954211547 TP (Triangles processed)
0.0873972 ASPT (Averaged Seconds per Timestep)
351699 TPST (Triangles Processed in Average per Simulation Timestep)
95.0841 PPST (Clusters Processed in Average per Simulation Timestep)
4.02414 MTPS (Million Triangles per Second)
-4.02414 MTPSPT (Million Triangles per Second per Thread)
10.733 EDMBPT (ElementData Megabyte per Timestep (RW))
122.807 EDMBPS (ElementData Megabyte per Second (RW))
SUM CLIENT SHUTDOWN HINT: 419084
SUM CLIENT SHUTDOWN HINT DIV TIME: 0
19584: CHANGING RESSOURCES
19590: CHANGING RESSOURCES
19593: CHANGING RESSOURCES

 + Terminating after 1000 timesteps with equal number of triangles -> EXIT
 + Final timestep: 59579

59580 TS (Timesteps)
3022.12 ST (SIMULATION_TIME)
0.0500175 TSS (Timestep size)
5226.93 SFS (Overall seconds for Simulation)
20954211547 TP (Triangles processed)
0.0877296 ASPT (Averaged Seconds per Timestep)
351699 TPST (Triangles Processed in Average per Simulation Timestep)
95.0841 PPST (Clusters Processed in Average per Simulation Timestep)
4.0089 MTPS (Million Triangles per Second)
-4.0089 MTPSPT (Million Triangles per Second per Thread)
10.733 EDMBPT (ElementData Megabyte per Timestep (RW))
122.342 EDMBPS (ElementData Megabyte per Second (RW))
SUM CLIENT SHUTDOWN HINT: 440038
SUM CLIENT SHUTDOWN HINT DIV TIME: 0
19595: CHANGING RESSOURCES
19581: CHANGING RESSOURCES
19584: CHANGING RESSOURCES
19579: CHANGING RESSOURCES
19588: CHANGING RESSOURCES

 + Terminating after 1000 timesteps with equal number of triangles -> EXIT
 + Final timestep: 59579

59580 TS (Timesteps)
3022.12 ST (SIMULATION_TIME)
0.0500175 TSS (Timestep size)
5230.14 SFS (Overall seconds for Simulation)
20954211547 TP (Triangles processed)
0.0877835 ASPT (Averaged Seconds per Timestep)
351699 TPST (Triangles Processed in Average per Simulation Timestep)
95.0841 PPST (Clusters Processed in Average per Simulation Timestep)
4.00643 MTPS (Million Triangles per Second)
-4.00643 MTPSPT (Million Triangles per Second per Thread)
10.733 EDMBPT (ElementData Megabyte per Timestep (RW))
122.267 EDMBPS (ElementData Megabyte per Second (RW))
SUM CLIENT SHUTDOWN HINT: 460993
SUM CLIENT SHUTDOWN HINT DIV TIME: 0
19595: CHANGING RESSOURCES
19585: CHANGING RESSOURCES
19577: CHANGING RESSOURCES
19593: CHANGING RESSOURCES
19591: CHANGING RESSOURCES

 + Terminating after 1000 timesteps with equal number of triangles -> EXIT
 + Final timestep: 59579

59580 TS (Timesteps)
3022.12 ST (SIMULATION_TIME)
0.0500175 TSS (Timestep size)
5363.68 SFS (Overall seconds for Simulation)
20954211547 TP (Triangles processed)
0.0900248 ASPT (Averaged Seconds per Timestep)
351699 TPST (Triangles Processed in Average per Simulation Timestep)
95.0841 PPST (Clusters Processed in Average per Simulation Timestep)
3.90669 MTPS (Million Triangles per Second)
-3.90669 MTPSPT (Million Triangles per Second per Thread)
10.733 EDMBPT (ElementData Megabyte per Timestep (RW))
119.223 EDMBPS (ElementData Megabyte per Second (RW))
SUM CLIENT SHUTDOWN HINT: 481947
SUM CLIENT SHUTDOWN HINT DIV TIME: 0
19595: CHANGING RESSOURCES
19571: CHANGING RESSOURCES
19590: CHANGING RESSOURCES
19584: CHANGING RESSOURCES

 + Terminating after 1000 timesteps with equal number of triangles -> EXIT
 + Final timestep: 59579

59580 TS (Timesteps)
3022.12 ST (SIMULATION_TIME)
0.0500175 TSS (Timestep size)
5379.64 SFS (Overall seconds for Simulation)
20954211547 TP (Triangles processed)
0.0902928 ASPT (Averaged Seconds per Timestep)
351699 TPST (Triangles Processed in Average per Simulation Timestep)
95.0841 PPST (Clusters Processed in Average per Simulation Timestep)
3.89509 MTPS (Million Triangles per Second)
-3.89509 MTPSPT (Million Triangles per Second per Thread)
10.733 EDMBPT (ElementData Megabyte per Timestep (RW))
118.869 EDMBPS (ElementData Megabyte per Second (RW))
SUM CLIENT SHUTDOWN HINT: 502901
SUM CLIENT SHUTDOWN HINT DIV TIME: 0
19579: CHANGING RESSOURCES
19571: CHANGING RESSOURCES
19595: CHANGING RESSOURCES
19584: CHANGING RESSOURCES

 + Terminating after 1000 timesteps with equal number of triangles -> EXIT
 + Final timestep: 59579

59580 TS (Timesteps)
3022.12 ST (SIMULATION_TIME)
0.0500175 TSS (Timestep size)
5379.88 SFS (Overall seconds for Simulation)
20954211547 TP (Triangles processed)
0.0902968 ASPT (Averaged Seconds per Timestep)
351699 TPST (Triangles Processed in Average per Simulation Timestep)
95.0841 PPST (Clusters Processed in Average per Simulation Timestep)
3.89492 MTPS (Million Triangles per Second)
-3.89492 MTPSPT (Million Triangles per Second per Thread)
10.733 EDMBPT (ElementData Megabyte per Timestep (RW))
118.863 EDMBPS (ElementData Megabyte per Second (RW))
SUM CLIENT SHUTDOWN HINT: 523855
SUM CLIENT SHUTDOWN HINT DIV TIME: 0
19581: CHANGING RESSOURCES
19588: CHANGING RESSOURCES
19585: CHANGING RESSOURCES

 + Terminating after 1000 timesteps with equal number of triangles -> EXIT
 + Final timestep: 59579

59580 TS (Timesteps)
3022.12 ST (SIMULATION_TIME)
0.0500175 TSS (Timestep size)
5405.64 SFS (Overall seconds for Simulation)
20954211547 TP (Triangles processed)
0.0907292 ASPT (Averaged Seconds per Timestep)
351699 TPST (Triangles Processed in Average per Simulation Timestep)
95.0841 PPST (Clusters Processed in Average per Simulation Timestep)
3.87636 MTPS (Million Triangles per Second)
-3.87636 MTPSPT (Million Triangles per Second per Thread)
10.733 EDMBPT (ElementData Megabyte per Timestep (RW))
118.297 EDMBPS (ElementData Megabyte per Second (RW))
SUM CLIENT SHUTDOWN HINT: 544810
SUM CLIENT SHUTDOWN HINT DIV TIME: 0
19579: CHANGING RESSOURCES
19595: CHANGING RESSOURCES
19584: CHANGING RESSOURCES
19571: CHANGING RESSOURCES
19581: CHANGING RESSOURCES

 + Terminating after 1000 timesteps with equal number of triangles -> EXIT
 + Final timestep: 59579

59580 TS (Timesteps)
3022.12 ST (SIMULATION_TIME)
0.0500175 TSS (Timestep size)
5443.64 SFS (Overall seconds for Simulation)
20954211547 TP (Triangles processed)
0.0913668 ASPT (Averaged Seconds per Timestep)
351699 TPST (Triangles Processed in Average per Simulation Timestep)
95.0841 PPST (Clusters Processed in Average per Simulation Timestep)
3.8493 MTPS (Million Triangles per Second)
-3.8493 MTPSPT (Million Triangles per Second per Thread)
10.733 EDMBPT (ElementData Megabyte per Timestep (RW))
117.471 EDMBPS (ElementData Megabyte per Second (RW))
SUM CLIENT SHUTDOWN HINT: 565764
SUM CLIENT SHUTDOWN HINT DIV TIME: 0
19571: CHANGING RESSOURCES
19584: CHANGING RESSOURCES
19595: CHANGING RESSOURCES

 + Terminating after 1000 timesteps with equal number of triangles -> EXIT
 + Final timestep: 59579

59580 TS (Timesteps)
3022.12 ST (SIMULATION_TIME)
0.0500175 TSS (Timestep size)
5513.97 SFS (Overall seconds for Simulation)
20954211547 TP (Triangles processed)
0.0925473 ASPT (Averaged Seconds per Timestep)
351699 TPST (Triangles Processed in Average per Simulation Timestep)
95.0841 PPST (Clusters Processed in Average per Simulation Timestep)
3.8002 MTPS (Million Triangles per Second)
-3.8002 MTPSPT (Million Triangles per Second per Thread)
10.733 EDMBPT (ElementData Megabyte per Timestep (RW))
115.973 EDMBPS (ElementData Megabyte per Second (RW))
SUM CLIENT SHUTDOWN HINT: 586718
SUM CLIENT SHUTDOWN HINT DIV TIME: 0
19571: CHANGING RESSOURCES
19595: CHANGING RESSOURCES
19585: CHANGING RESSOURCES
19581: CHANGING RESSOURCES
19579: CHANGING RESSOURCES

 + Terminating after 1000 timesteps with equal number of triangles -> EXIT
 + Final timestep: 59579

59580 TS (Timesteps)
3022.12 ST (SIMULATION_TIME)
0.0500175 TSS (Timestep size)
5521.18 SFS (Overall seconds for Simulation)
20954211547 TP (Triangles processed)
0.0926683 ASPT (Averaged Seconds per Timestep)
351699 TPST (Triangles Processed in Average per Simulation Timestep)
95.0841 PPST (Clusters Processed in Average per Simulation Timestep)
3.79524 MTPS (Million Triangles per Second)
-3.79524 MTPSPT (Million Triangles per Second per Thread)
10.733 EDMBPT (ElementData Megabyte per Timestep (RW))
115.822 EDMBPS (ElementData Megabyte per Second (RW))
SUM CLIENT SHUTDOWN HINT: 607672
SUM CLIENT SHUTDOWN HINT DIV TIME: 0
19571: CHANGING RESSOURCES
19579: CHANGING RESSOURCES
19581: CHANGING RESSOURCES
19595: CHANGING RESSOURCES

 + Terminating after 1000 timesteps with equal number of triangles -> EXIT
 + Final timestep: 59579

59580 TS (Timesteps)
3022.12 ST (SIMULATION_TIME)
0.0500175 TSS (Timestep size)
5538.22 SFS (Overall seconds for Simulation)
20954211547 TP (Triangles processed)
0.0929543 ASPT (Averaged Seconds per Timestep)
351699 TPST (Triangles Processed in Average per Simulation Timestep)
95.0841 PPST (Clusters Processed in Average per Simulation Timestep)
3.78357 MTPS (Million Triangles per Second)
-3.78357 MTPSPT (Million Triangles per Second per Thread)
10.733 EDMBPT (ElementData Megabyte per Timestep (RW))
115.465 EDMBPS (ElementData Megabyte per Second (RW))
SUM CLIENT SHUTDOWN HINT: 628626
SUM CLIENT SHUTDOWN HINT DIV TIME: 0
19571: CHANGING RESSOURCES
19579: CHANGING RESSOURCES
19581: CHANGING RESSOURCES

 + Terminating after 1000 timesteps with equal number of triangles -> EXIT
 + Final timestep: 59579

59580 TS (Timesteps)
3022.12 ST (SIMULATION_TIME)
0.0500175 TSS (Timestep size)
5541.32 SFS (Overall seconds for Simulation)
20954211547 TP (Triangles processed)
0.0930063 ASPT (Averaged Seconds per Timestep)
351699 TPST (Triangles Processed in Average per Simulation Timestep)
95.0841 PPST (Clusters Processed in Average per Simulation Timestep)
3.78145 MTPS (Million Triangles per Second)
-3.78145 MTPSPT (Million Triangles per Second per Thread)
10.733 EDMBPT (ElementData Megabyte per Timestep (RW))
115.401 EDMBPS (ElementData Megabyte per Second (RW))
SUM CLIENT SHUTDOWN HINT: 649581
SUM CLIENT SHUTDOWN HINT DIV TIME: 0
19571: CHANGING RESSOURCES
19581: CHANGING RESSOURCES

 + Terminating after 1000 timesteps with equal number of triangles -> EXIT
 + Final timestep: 59579

59580 TS (Timesteps)
3022.12 ST (SIMULATION_TIME)
0.0500175 TSS (Timestep size)
5561 SFS (Overall seconds for Simulation)
20954211547 TP (Triangles processed)
0.0933367 ASPT (Averaged Seconds per Timestep)
351699 TPST (Triangles Processed in Average per Simulation Timestep)
95.0841 PPST (Clusters Processed in Average per Simulation Timestep)
3.76807 MTPS (Million Triangles per Second)
-3.76807 MTPSPT (Million Triangles per Second per Thread)
10.733 EDMBPT (ElementData Megabyte per Timestep (RW))
114.992 EDMBPS (ElementData Megabyte per Second (RW))
SUM CLIENT SHUTDOWN HINT: 670535
SUM CLIENT SHUTDOWN HINT DIV TIME: 0
19571: CHANGING RESSOURCES

 + Terminating after 1000 timesteps with equal number of triangles -> EXIT
 + Final timestep: 59579

59580 TS (Timesteps)
3022.12 ST (SIMULATION_TIME)
0.0500175 TSS (Timestep size)
5561.55 SFS (Overall seconds for Simulation)
20954211547 TP (Triangles processed)
0.0933459 ASPT (Averaged Seconds per Timestep)
351699 TPST (Triangles Processed in Average per Simulation Timestep)
95.0841 PPST (Clusters Processed in Average per Simulation Timestep)
3.76769 MTPS (Million Triangles per Second)
-3.76769 MTPSPT (Million Triangles per Second per Thread)
10.733 EDMBPT (ElementData Megabyte per Timestep (RW))
114.981 EDMBPS (ElementData Megabyte per Second (RW))
SUM CLIENT SHUTDOWN HINT: 691489
SUM CLIENT SHUTDOWN HINT DIV TIME: 124.34
Waiting for job 19572
Waiting for job 19573
Waiting for job 19574
Waiting for job 19575
Waiting for job 19576
Waiting for job 19577
Waiting for job 19578
Waiting for job 19579
Waiting for job 19580
Waiting for job 19581
Waiting for job 19582
Waiting for job 19583
Waiting for job 19584
Waiting for job 19585
Waiting for job 19586
Waiting for job 19587
Waiting for job 19588
Waiting for job 19589
Waiting for job 19590
Waiting for job 19591
Waiting for job 19592
Waiting for job 19593
Waiting for job 19594
Waiting for job 19595
Tue Apr  3 09:54:04 CEST 2012
Seconds: 5561
