0	0
53.5566	0
107.113	0
160.67	0
214.226	0
267.783	0
321.339	0
374.896	0
428.453	0
482.009	0
535.566	0
589.122	0
642.679	0
696.235	0
749.792	0
803.349	0
856.905	0
910.462	0
964.018	0
1017.57	0
1071.13	0
1124.69	0
1178.24	0
1231.8	0
1285.36	0
1338.91	0
1392.47	0
1446.03	0
1499.58	0
1553.14	2.72848e-12
1606.7	2.09184e-11
1660.25	1.10958e-10
1713.81	4.76575e-10
1767.36	1.73804e-09
1820.92	5.56702e-09
1874.47	1.59989e-08
1928.03	4.19186e-08
1981.58	1.01383e-07
2035.14	2.28617e-07
2088.69	4.84682e-07
2142.25	9.73039e-07
2195.8	1.86176e-06
2249.36	3.41546e-06
2302.91	6.04286e-06
2356.47	1.03714e-05
2410.02	1.73701e-05
2463.57	2.85545e-05
2517.13	4.63283e-05
2570.68	7.45337e-05
2624.24	0.000119302
2677.79	0.000190302
2731.35	0.000302474
2784.9	0.000478296
2838.46	0.000750554
2892.01	0.00116549
2945.57	0.00178606
2999.12	0.00269487
3052.68	0.0039963
3106.23	0.00581713
3159.79	0.00830507
3213.34	0.0116246
3266.9	0.0159496
3320.46	0.0214533
3374.01	0.0282946
3427.57	0.0366028
3481.13	0.0464607
3534.68	0.0578887
3588.24	0.0708298
3641.8	0.0851392
3695.35	0.100578
3748.91	0.116813
3802.47	0.133427
3856.02	0.149927
3909.58	0.165772
3963.14	0.180393
4016.69	0.193225
4070.25	0.203736
4123.8	0.211457
4177.36	0.216007
4230.92	0.217114
4284.47	0.21463
4338.03	0.208536
4391.59	0.198943
4445.14	0.186082
4498.7	0.170287
4552.26	0.151981
4605.81	0.131649
4659.37	0.109815
4712.92	0.0870169
4766.48	0.063785
4820.04	0.0406227
4873.59	0.01799
4927.15	-0.00370843
4980.71	-0.0241303
5034.26	-0.0430001
5087.82	-0.0601094
5141.38	-0.0753141
5194.93	-0.0885302
5248.49	-0.0997277
5302.05	-0.108923
5355.6	-0.116173
5409.16	-0.121566
5462.72	-0.125215
5516.27	-0.127252
5569.83	-0.127821
5623.39	-0.127073
5676.94	-0.125163
5730.5	-0.122242
5784.06	-0.118458
5837.61	-0.113954
5891.17	-0.108861
5944.73	-0.103303
5998.28	-0.09739
6051.84	-0.0912238
6105.39	-0.0848941
6158.95	-0.0784801
6212.51	-0.0720508
6266.06	-0.0656662
6319.62	-0.0593772
6373.18	-0.0532273
6426.73	-0.0472523
6480.29	-0.0414822
6533.85	-0.0359406
6587.4	-0.0306465
6640.96	-0.0256137
6694.52	-0.0208523
6748.07	-0.0163686
6801.63	-0.0121659
6855.18	-0.00824493
6908.74	-0.00460406
6962.3	-0.00124014
7015.85	0.00185129
7069.41	0.00467557
7122.97	0.00723856
7176.52	0.00954637
7230.08	0.0116051
7283.63	0.0134208
7337.19	0.0149992
7390.75	0.0163457
7444.3	0.0174656
7497.86	0.018364
7551.41	0.0190459
7604.97	0.0195162
7658.53	0.0197804
7712.08	0.0198439
7765.64	0.0197129
7819.2	0.0193943
7872.75	0.0188954
7926.31	0.0182249
7979.86	0.0173922
8033.42	0.0164076
8086.98	0.0152826
8140.53	0.0140298
8194.09	0.0126624
8247.65	0.0111949
8301.2	0.0096421
8354.76	0.00801969
8408.31	0.0063437
8461.87	0.00463037
8515.43	0.00289604
8568.98	0.00115689
8622.54	-0.000571226
8676.1	-0.00227296
8729.65	-0.00393367
8783.21	-0.00553953
8836.77	-0.00707769
8890.32	-0.00853641
8943.88	-0.00990512
8997.43	-0.0111745
9050.99	-0.0123365
9104.55	-0.0133845
9158.1	-0.0143132
9211.66	-0.0151184
9265.22	-0.0157974
9318.77	-0.0163487
9372.33	-0.0167721
9425.89	-0.0170683
9479.44	-0.0172391
9533	-0.0172874
9586.56	-0.0172169
9640.11	-0.0170319
9693.67	-0.0167379
9747.23	-0.0163404
9800.78	-0.015846
9854.34	-0.0152615
9907.9	-0.014594
9961.45	-0.0138512
10015	-0.0130408
10068.6	-0.012171
10122.1	-0.0112498
10175.7	-0.0102857
10229.2	-0.00928686
10282.8	-0.00826176
10336.3	-0.00721868
10389.9	-0.00616591
10443.5	-0.00511158
10497	-0.0040637
10550.6	-0.0030301
10604.1	-0.00201838
10657.7	-0.00103588
10711.2	-8.96619e-05
10764.8	0.000813542
10818.4	0.00166736
10871.9	0.00246581
10925.5	0.00320335
10979	0.00387486
11032.6	0.00447574
11086.1	0.00500188
11139.7	0.00544969
11193.3	0.00581616
11246.8	0.00609882
11300.4	0.0062958
11353.9	0.0064058
11407.5	0.00642812
11461	0.00636266
11514.6	0.00620989
11568.1	0.00597086
11621.7	0.00564718
11675.3	0.005241
11728.8	0.00475501
11782.4	0.00419236
11835.9	0.0035567
11889.5	0.00285209
11943	0.00208298
11996.6	0.00125421
12050.2	0.000370905
12103.7	-0.000561521
12157.3	-0.00153742
12210.8	-0.00255095
12264.4	-0.00359612
12317.9	-0.00466684
12371.5	-0.00575697
12425.1	-0.00686031
12478.6	-0.00797073
12532.2	-0.00908211
12585.7	-0.0101885
12639.3	-0.0112839
12692.8	-0.0123627
12746.4	-0.0134194
12799.9	-0.0144486
12853.5	-0.0154453
12907.1	-0.0164047
12960.6	-0.0173222
13014.2	-0.0181937
13067.7	-0.0190152
13121.3	-0.0197832
13174.8	-0.0204943
13228.4	-0.0211457
13282	-0.0217348
13335.5	-0.0222594
13389.1	-0.0227176
13442.6	-0.0231078
13496.2	-0.0234288
13549.7	-0.0236799
13603.3	-0.0238605
13656.9	-0.0239704
13710.4	-0.0240098
13764	-0.0239791
13817.5	-0.0238791
13871.1	-0.0237109
13924.6	-0.0234759
13978.2	-0.0231758
14031.8	-0.0228124
14085.3	-0.0223881
14138.9	-0.0219052
14192.4	-0.0213665
14246	-0.0207748
14299.5	-0.0201333
14353.1	-0.0194453
14406.6	-0.0187143
14460.2	-0.0179439
14513.8	-0.0171379
14567.3	-0.0163001
14620.9	-0.0154345
14674.4	-0.0145451
14728	-0.013636
14781.5	-0.0127111
14835.1	-0.0117747
14888.7	-0.0108306
14942.2	-0.00988275
14995.8	-0.0089351
15049.3	-0.00799134
15102.9	-0.00705508
15156.4	-0.00612977
15210	-0.00521867
15263.6	-0.00432486
15317.1	-0.00345121
15370.7	-0.00260037
15424.2	-0.00177475
15477.8	-0.000976522
15531.3	-0.000207622
15584.9	0.000530268
15638.4	0.00123571
15692	0.00190751
15745.6	0.00254472
15799.1	0.00314659
15852.7	0.00371262
15906.2	0.0042425
15959.8	0.00473612
16013.3	0.00519353
16066.9	0.00561496
16120.5	0.00600075
16174	0.00635139
16227.6	0.00666747
16281.1	0.00694965
16334.7	0.00719868
16388.2	0.00741535
16441.8	0.00760051
16495.4	0.007755
16548.9	0.00787971
16602.5	0.0079755
16656	0.00804325
16709.6	0.00808382
16763.1	0.00809805
16816.7	0.00808676
16870.2	0.00805076
16923.8	0.00799083
16977.4	0.00790776
17030.9	0.00780231
17084.5	0.00767523
17138	0.00752728
17191.6	0.00735924
17245.1	0.0071719
17298.7	0.00696606
17352.3	0.00674258
17405.8	0.00650235
17459.4	0.0062463
17512.9	0.00597543
17566.5	0.00569078
17620	0.00539349
17673.6	0.00508472
17727.2	0.00476573
17780.7	0.00443784
17834.3	0.00410244
17887.8	0.00376098
17941.4	0.00341495
17994.9	0.00306592
18048.5	0.00271549
18102	0.00236529
18155.6	0.00201696
18209.2	0.00167218
18262.7	0.00133261
18316.3	0.000999904
18369.8	0.000675673
18423.4	0.000361501
18476.9	5.89139e-05
18530.5	-0.000230632
18584.1	-0.000505759
18637.6	-0.000765183
18691.2	-0.00100772
18744.7	-0.00123231
18798.3	-0.00143801
18851.8	-0.00162399
18905.4	-0.00178958
18959	-0.00193423
19012.5	-0.00205756
19066.1	-0.0021593
19119.6	-0.00223936
19173.2	-0.00229776
19226.7	-0.00233467
19280.3	-0.00235041
19333.8	-0.00234541
19387.4	-0.00232024
19441	-0.00227556
19494.5	-0.00221215
19548.1	-0.0021309
19601.6	-0.00203275
19655.2	-0.00191874
19708.7	-0.00178997
19762.3	-0.00164758
19815.9	-0.00149276
19869.4	-0.00132673
19923	-0.00115073
19976.5	-0.000965993
