0	0
13.138	0
26.2759	0
32.8449	0
45.9829	0
52.5519	0
65.6898	0
72.2588	0
85.3968	0
91.9658	0
105.104	0
111.673	0
124.811	0
131.38	0
144.518	0
151.087	0
164.225	0
170.794	0
183.932	0
190.501	0
203.638	0
210.207	0
223.345	0
236.483	0
243.052	0
256.19	0
262.759	0
275.897	0
282.466	0
295.604	0
302.173	0
315.311	0
321.88	0
335.018	0
341.587	0
354.725	0
361.294	0
374.432	0
381.001	0
394.139	0
400.708	0
413.846	0
420.415	0
433.553	0
440.122	0
453.26	0
466.398	0
472.967	0
486.105	0
492.674	0
505.812	0
512.381	0
525.519	0
532.088	0
545.226	0
551.795	0
564.933	0
571.502	0
584.639	0
591.208	0
604.346	0
610.915	0
624.053	0
630.622	0
643.76	0
650.329	0
663.467	0
670.036	0
683.174	0
696.312	0
702.881	0
716.019	0
722.588	0
735.726	0
742.295	0
755.433	0
762.002	0
775.14	0
781.709	0
794.847	0
801.416	0
814.554	0
821.123	0
834.261	0
840.83	0
853.968	0
860.537	0
873.675	0
880.244	0
893.382	0
906.52	0
913.089	0
926.227	0
932.796	0
945.934	0
952.503	0
965.641	0
972.209	0
985.347	0
991.916	0
1005.05	0
1011.62	0
1024.76	0
1031.33	0
1044.47	0
1051.04	0
1064.18	0
1070.74	0
1083.88	0
1090.45	0
1103.59	0
1110.16	0
1123.3	0
1136.43	0
1143	0
1156.14	0
1162.71	0
1175.85	0
1182.42	0
1195.55	0
1202.12	0
1215.26	0
1221.83	0
1234.97	0
1241.54	0
1254.68	0
1261.24	0
1274.38	0
1280.95	0
1294.09	0
1300.66	0
1313.8	0
1320.37	0
1333.5	0
1340.07	0
1353.21	0
1366.35	0
1372.92	0
1386.06	0
1392.62	0
1405.76	0
1412.33	0
1425.47	0
1432.04	0
1445.18	0
1451.74	0
1464.88	0
1471.45	0
1484.59	0
1491.16	0
1504.3	0
1510.87	0
1524	0
1530.57	0
1543.71	0
1550.28	0
1563.42	0
1576.56	0
1583.12	0
1596.26	0
1602.83	0
1615.97	0
1622.54	0
1635.68	0
1642.25	0
1655.38	0
1661.95	0
1675.09	0
1681.66	0
1694.8	0
1701.37	0
1714.5	0
1721.07	0
1734.21	0
1740.78	0
1753.92	0
1760.49	0
1773.62	0
1780.19	0
1793.33	0
1806.47	0
1813.04	0
1826.18	0
1832.74	0
1845.88	0
1852.45	0
1865.59	0
1872.16	0
1885.3	0
1891.86	0
1905	0
1911.57	0
1924.71	0
1931.28	0
1944.42	0
1950.98	0
1964.12	0
1970.69	0
1983.83	0
1990.4	0
2003.54	0
2010.1	0
2023.24	0
2036.38	0
2042.95	0
2056.09	0
2062.65	0
2075.79	0
2082.36	0
2095.5	0
2102.07	0
2115.21	0
2121.77	0
2134.91	0
2141.48	0
2154.62	0
2161.19	0
2174.32	0
2180.89	0
2194.03	0
2200.6	0
2213.74	0
2220.31	0
2233.44	0
2240.01	0
2253.15	0
2266.29	0
2272.86	0
2285.99	0
2292.56	0
2305.7	0
2312.27	0
2325.41	0
2331.97	0
2345.11	0
2351.68	0
2364.82	0
2371.39	0
2384.52	0
2391.09	0
2404.23	0
2410.8	0
2423.94	0
2430.5	0
2443.64	0
2450.21	0
2463.35	0
2476.49	0
2483.05	0
2496.19	0
2502.76	0
2515.9	0
2522.47	0
2535.6	0
2542.17	0
2555.31	0
2561.88	0
2575.01	0
2581.58	0
2594.72	0
2601.29	0
2614.43	0
2620.99	0
2634.13	0
2640.7	0
2653.84	0
2660.41	0
2673.54	0
2680.11	0
2693.25	0
2706.39	0
2712.96	0
2726.09	0
2732.66	0
2745.8	0
2752.37	0
2765.5	0
2772.07	0
2785.21	0
2791.78	0
2804.92	0
2811.48	0
2824.62	0
2831.19	0
2844.33	0
2850.9	0
2864.03	0
2870.6	0
2883.74	-9.09495e-13
2890.31	-9.09495e-13
2903.45	-9.09495e-13
2910.02	-1.81899e-12
2923.15	-3.63798e-12
2936.29	-6.36646e-12
2942.86	-9.09495e-12
2956	-1.63709e-11
2962.56	-2.18279e-11
2975.7	-3.81988e-11
2982.27	-4.91127e-11
2995.41	-8.2764e-11
3001.98	-1.0732e-10
3015.12	-1.7917e-10
3021.68	-2.29193e-10
3034.82	-3.74712e-10
3041.39	-4.76575e-10
3054.53	-7.67614e-10
3061.1	-9.68612e-10
3074.23	-1.5325e-09
3080.8	-1.91994e-09
3093.94	-2.99042e-09
3100.51	-3.71801e-09
3113.65	-5.70708e-09
3120.22	-7.04586e-09
3133.35	-1.06602e-08
3146.49	-1.59771e-08
3153.06	-1.94923e-08
3166.2	-2.88137e-08
3172.77	-3.49137e-08
3185.91	-5.09208e-08
3192.48	-6.12927e-08
3205.61	-8.82292e-08
3212.18	-1.05515e-07
3225.32	-1.49961e-07
3231.89	-1.78219e-07
3245.03	-2.50167e-07
3251.6	-2.95494e-07
3264.73	-4.09809e-07
3271.3	-4.81187e-07
3284.44	-6.59556e-07
3291.01	-7.69967e-07
3304.15	-1.04341e-06
3310.72	-1.21126e-06
3323.86	-1.62334e-06
3330.42	-1.8742e-06
3343.56	-2.48495e-06
3350.13	-2.8538e-06
3363.27	-3.74447e-06
3376.41	-4.87988e-06
3382.98	-5.55689e-06
3396.11	-7.17038e-06
3402.68	-8.12539e-06
3415.82	-1.03844e-05
3422.39	-1.17119e-05
3435.53	-1.48293e-05
3442.1	-1.66487e-05
3455.23	-2.0891e-05
3461.8	-2.33504e-05
3474.94	-2.90463e-05
3481.51	-3.23271e-05
3494.65	-3.98755e-05
3501.22	-4.41962e-05
3514.35	-5.40747e-05
3520.92	-5.96951e-05
3534.06	-7.2467e-05
3540.63	-7.96914e-05
3553.77	-9.60125e-05
3560.34	-0.000105193
3573.48	-0.000125816
3580.04	-0.000137354
3593.18	-0.000163133
3606.32	-0.000192875
3612.89	-0.000209372
3626.03	-0.000245919
3632.6	-0.000266094
3645.73	-0.00031057
3652.3	-0.000335007
3665.44	-0.000388631
3672.01	-0.000417963
3685.15	-0.000482039
3691.72	-0.000516938
3704.85	-0.000592852
3711.42	-0.000634027
3724.56	-0.000723226
3731.13	-0.000771416
3744.27	-0.0008754
3750.84	-0.000931363
3763.97	-0.00105166
3770.54	-0.00111617
3783.68	-0.00125433
3790.25	-0.00132815
3803.39	-0.0014857
3816.53	-0.00165702
3823.09	-0.00174804
3836.23	-0.0019412
3842.8	-0.00204349
3855.94	-0.00225986
3862.51	-0.00237408
3875.65	-0.00261489
3882.21	-0.00274161
3895.35	-0.00300793
3901.92	-0.00314763
3915.06	-0.0034403
3921.63	-0.00359334
3934.77	-0.00391292
3941.34	-0.00407949
3954.47	-0.00442618
3961.04	-0.00460628
3974.18	-0.00497987
3980.75	-0.00517327
3993.89	-0.00557299
4000.46	-0.00577916
4013.59	-0.0062036
4020.16	-0.00642165
4033.3	-0.00686864
4046.44	-0.00732899
4053.01	-0.00756365
4066.15	-0.00804074
4072.71	-0.00828259
4085.85	-0.00877131
4092.42	-0.00901745
4105.56	-0.00951126
4112.13	-0.00975801
4125.27	-0.0102487
4131.83	-0.0104914
4144.97	-0.0109687
4151.54	-0.0112019
4164.68	-0.0116534
4171.25	-0.0118702
4184.39	-0.0122812
4190.96	-0.0124735
4204.09	-0.0128263
4210.66	-0.0129846
4223.8	-0.0132589
4230.37	-0.0133722
4243.51	-0.0135443
4250.08	-0.0136001
4263.21	-0.0136433
4276.35	-0.013584
4282.92	-0.0135115
4296.06	-0.0132714
4302.63	-0.0130999
4315.76	-0.0126437
4322.33	-0.0123548
4335.47	-0.0116443
4342.04	-0.0112182
4355.18	-0.0102127
4361.75	-0.00962855
4374.89	-0.0082854
4381.45	-0.00752151
4394.59	-0.00579678
4401.16	-0.004831
4414.3	-0.00268027
4420.87	-0.00149043
4434.01	0.00113024
4440.57	0.00256578
4453.71	0.00569874
4460.28	0.00740057
4473.42	0.0110854
4486.56	0.0151583
4493.13	0.0173448
4506.26	0.0220261
4512.83	0.0245237
4525.97	0.0298394
4532.54	0.0326595
4545.68	0.0386283
4552.25	0.041778
4565.38	0.0484098
4571.95	0.0518918
4585.09	0.0591868
4591.66	0.0629986
4604.8	0.0709464
4611.37	0.0750799
4624.51	0.0836587
4631.07	0.0881001
4644.21	0.0972759
4650.78	0.102005
4663.92	0.111732
4670.49	0.116723
4683.63	0.126942
4690.19	0.132163
4703.33	0.142804
4716.47	0.153682
4723.04	0.159197
4736.18	0.170354
4742.75	0.175985
4755.88	0.187321
4762.45	0.193015
4775.59	0.204423
4782.16	0.210125
4795.3	0.221488
4801.87	0.227137
4815.01	0.238335
4821.57	0.24387
4834.71	0.254776
4841.28	0.260133
4854.42	0.270621
4860.99	0.275736
4874.13	0.285677
4880.69	0.290488
4893.83	0.299757
4900.4	0.304202
4913.54	0.312678
4920.11	0.316697
4933.25	0.324265
4946.38	0.33117
4952.95	0.334359
4966.09	0.340184
4972.66	0.342811
4985.8	0.34747
4992.37	0.349494
5005.5	0.35291
5012.07	0.354296
5025.21	0.35641
5031.78	0.357132
5044.92	0.357896
5051.49	0.357935
5064.63	0.357321
5071.19	0.356666
5084.33	0.354659
5090.9	0.353307
5104.04	0.34991
5110.61	0.347867
5123.75	0.343099
5130.31	0.340377
5143.45	0.334272
5150.02	0.330893
5163.16	0.3235
5176.3	0.315282
5182.87	0.310874
5196	0.30148
5202.57	0.296503
5215.71	0.286014
5222.28	0.280513
5235.42	0.269024
5241.99	0.263047
5255.13	0.250659
5261.69	0.244259
5274.83	0.23108
5281.4	0.224313
5294.54	0.210459
5301.11	0.203384
5314.25	0.188973
5320.81	0.18165
5333.95	0.166805
5340.52	0.159296
5353.66	0.144141
5360.23	0.136509
5373.37	0.12117
5386.5	0.105778
5393.07	0.0980793
5406.21	0.0827109
5412.78	0.0750548
5425.92	0.0598328
5432.49	0.0522801
5445.62	0.0373246
5452.19	0.0299346
5465.33	0.0153618
5471.9	0.0081915
5485.04	-0.00588671
5491.61	-0.0127828
5504.75	-0.0262604
5511.31	-0.0328308
5524.45	-0.0456082
5531.02	-0.0518051
5544.16	-0.0637907
5550.73	-0.0695702
5563.87	-0.0806812
5570.44	-0.0860045
5583.57	-0.0961678
5590.14	-0.101001
5603.28	-0.110155
5616.42	-0.118608
5622.99	-0.122565
5636.12	-0.129933
5642.69	-0.13334
5655.83	-0.139594
5662.4	-0.142441
5675.54	-0.147569
5682.11	-0.149851
5695.25	-0.153854
5701.81	-0.155576
5714.95	-0.158469
5721.52	-0.159643
5734.66	-0.161455
5741.23	-0.162099
5754.37	-0.162875
5760.94	-0.163014
5774.07	-0.162811
5780.64	-0.162476
5793.78	-0.161363
5800.35	-0.160592
5813.49	-0.158648
5820.06	-0.157484
5833.19	-0.154798
5846.33	-0.151669
5852.9	-0.149953
5866.04	-0.146245
5872.61	-0.144265
5885.75	-0.140081
5892.31	-0.137889
5905.45	-0.133334
5912.02	-0.130983
5925.16	-0.126161
5931.73	-0.123702
5944.87	-0.118717
5951.44	-0.116201
5964.57	-0.111149
5971.14	-0.108623
5984.28	-0.103596
5990.85	-0.101105
6003.99	-0.096188
6010.56	-0.093771
6023.69	-0.0890396
6030.26	-0.0867325
6043.4	-0.0822522
6056.54	-0.0779707
6063.11	-0.0759112
6076.24	-0.0719669
6082.81	-0.0700861
6095.95	-0.066516
6102.52	-0.0648296
6115.66	-0.0616598
6122.23	-0.0601782
6135.37	-0.0574245
6141.93	-0.0561529
6155.07	-0.0538207
6161.64	-0.0527596
6174.78	-0.0508452
6181.35	-0.0499906
6194.49	-0.0484821
6201.05	-0.0478261
6214.19	-0.0467043
6220.76	-0.0462356
6233.9	-0.0454752
6240.47	-0.04518
6253.61	-0.0447507
6260.17	-0.0446128
6273.31	-0.0444807
6286.45	-0.0445268
6293.02	-0.0446114
6306.16	-0.0448932
6312.73	-0.0450862
6325.86	-0.0455658
6332.43	-0.0458481
6345.57	-0.0464877
6352.14	-0.0468408
6365.28	-0.0476038
6371.85	-0.0480098
6384.98	-0.0488616
6391.55	-0.0493037
6404.69	-0.0502121
6411.26	-0.050675
6424.4	-0.0516107
6430.97	-0.0520806
6444.1	-0.0530176
6450.67	-0.0534822
6463.81	-0.0543978
6470.38	-0.0548467
6483.52	-0.0557218
6490.09	-0.0561461
6503.22	-0.0569647
6516.36	-0.0577383
6522.93	-0.0581068
6536.07	-0.0588043
6542.64	-0.0591325
6555.77	-0.0597459
6562.34	-0.0600304
6575.48	-0.060554
6582.05	-0.0607926
6595.19	-0.0612228
6601.76	-0.0614141
6614.89	-0.0617489
6621.46	-0.0618922
6634.6	-0.062131
6641.17	-0.0622265
6654.31	-0.0623696
6660.88	-0.0624174
6674.01	-0.062466
6680.58	-0.0624669
6693.72	-0.0624225
6700.29	-0.0623773
6713.43	-0.0622415
6726.57	-0.0620459
6733.13	-0.0619259
6746.27	-0.061642
6752.84	-0.0614783
6765.98	-0.0611079
6772.55	-0.0609014
6785.69	-0.0604461
6792.25	-0.0601975
6805.39	-0.0596589
6811.96	-0.059369
6825.1	-0.0587485
6831.67	-0.058418
6844.81	-0.0577171
6851.37	-0.0573468
6864.51	-0.0565669
6871.08	-0.0561576
6884.22	-0.0553006
6890.79	-0.0548531
6903.93	-0.0539208
6910.49	-0.0534362
6923.63	-0.0524308
6930.2	-0.0519103
6943.34	-0.0508346
6956.48	-0.0497136
6963.05	-0.0491366
6976.18	-0.0479506
6982.75	-0.0473421
6995.89	-0.0460951
7002.46	-0.0454571
7015.6	-0.0441535
7022.17	-0.0434884
7035.3	-0.0421332
7041.87	-0.0414437
7055.01	-0.0400423
7061.58	-0.0393311
7074.72	-0.0378894
7081.29	-0.0371596
7094.43	-0.0356839
7100.99	-0.0349387
7114.13	-0.0334355
7120.7	-0.0326783
7133.84	-0.0311544
7140.41	-0.0303886
7153.55	-0.0288511
7160.11	-0.0280802
7173.25	-0.0265361
7186.39	-0.0249916
7192.96	-0.0242201
7206.1	-0.0226808
7212.67	-0.0219136
7225.8	-0.0203865
7232.37	-0.0196271
7245.51	-0.0181189
7252.08	-0.0173708
7265.22	-0.0158881
7271.79	-0.0151544
7284.93	-0.0137037
7291.49	-0.0129874
7304.63	-0.0115748
7311.2	-0.0108791
7324.34	-0.00951036
7330.91	-0.00883798
7344.05	-0.00751865
7350.61	-0.0068723
7363.75	-0.0056076
7370.32	-0.00498981
7383.46	-0.00378467
7390.03	-0.00319782
7403.17	-0.00205684
7416.3	-0.000961052
7422.87	-0.00043068
7436.01	0.000593912
7442.58	0.00108771
7455.72	0.00203727
7462.29	0.00249265
7475.43	0.00336364
7481.99	0.0037789
7495.13	0.00456808
7501.7	0.00494167
7514.84	0.00564609
7521.41	0.00597662
7534.55	0.00659364
7541.12	0.00687987
7554.25	0.00740717
7560.82	0.00764803
7573.96	0.00808365
7580.53	0.00827824
7593.67	0.00862059
7600.24	0.00876821
7613.37	0.00901606
7626.51	0.00920044
7633.08	0.00926876
7646.22	0.00935758
7652.79	0.00937807
7665.93	0.00937126
7672.49	0.00934402
7685.63	0.00924205
7692.2	0.00916743
7705.34	0.00897123
7711.91	0.00884983
7725.05	0.00856089
7731.62	0.00839357
7744.75	0.00801389
7751.32	0.0078018
7764.46	0.00733392
7771.03	0.00707847
7784.17	0.00652548
7790.74	0.00622835
7803.87	0.00559387
7810.44	0.005257
7823.58	0.00454518
7830.15	0.00417076
7843.29	0.00338624
7856.43	0.00255607
7862.99	0.00212461
7876.13	0.00123049
7882.7	0.00076849
7895.84	-0.000183745
7902.41	-0.000673287
7915.55	-0.00167746
7922.11	-0.00219136
7935.25	-0.00324096
7941.82	-0.0037759
7954.96	-0.00486415
7961.53	-0.00541668
7974.67	-0.00653658
7981.24	-0.00710315
7994.37	-0.00824755
8000.94	-0.00882457
8014.08	-0.00998619
8020.65	-0.01057
8033.79	-0.0117415
8040.36	-0.0123285
8053.49	-0.0135026
8060.06	-0.014089
8073.2	-0.0152585
8086.34	-0.0164209
8092.91	-0.0169985
8106.05	-0.0181445
8112.61	-0.0187121
8125.75	-0.0198347
8132.32	-0.0203889
8145.46	-0.0214816
8152.03	-0.0220193
8165.17	-0.0230756
8171.74	-0.0235936
8184.87	-0.0246076
8191.44	-0.0251029
8204.58	-0.0260688
8211.15	-0.0265387
8224.29	-0.0274512
8230.86	-0.0278931
8243.99	-0.0287471
8250.56	-0.0291587
8263.7	-0.0299496
8270.27	-0.0303286
8283.41	-0.0310524
8296.55	-0.0317292
8303.11	-0.0320496
8316.25	-0.0326532
8322.82	-0.0329362
8335.96	-0.0334635
8342.53	-0.0337076
8355.67	-0.034156
8362.24	-0.03436
8375.37	-0.0347272
8381.94	-0.0348902
8395.08	-0.0351743
8401.65	-0.0352954
8414.79	-0.0354951
8421.36	-0.0355736
8434.49	-0.0356878
8441.06	-0.0357233
8454.2	-0.0357513
8460.77	-0.0357436
8473.91	-0.035685
8480.48	-0.0356341
8493.61	-0.0354889
8500.18	-0.0353947
8513.32	-0.0351634
8526.46	-0.0348749
8533.03	-0.0347094
8546.17	-0.0343361
8552.74	-0.0341284
8565.87	-0.0336714
8572.44	-0.0334223
8585.58	-0.0328831
8592.15	-0.0325933
8605.29	-0.0319739
8611.86	-0.0316444
8624.99	-0.0309467
8631.56	-0.0305787
8644.7	-0.0298053
8651.27	-0.0294001
8664.41	-0.0285535
8670.98	-0.0281125
8684.12	-0.027196
8690.68	-0.0267207
8703.82	-0.0257374
8710.39	-0.0252297
8723.53	-0.0241833
8730.1	-0.023645
8743.24	-0.0225393
8756.37	-0.0213965
8762.94	-0.0208117
8776.08	-0.0196168
8782.65	-0.0190071
8795.79	-0.0177647
8802.36	-0.0171324
8815.49	-0.0158474
8822.06	-0.0151951
8835.2	-0.0138726
8841.77	-0.0132029
8854.91	-0.0118482
8861.48	-0.0111638
8874.62	-0.00978249
8881.18	-0.00908618
8894.32	-0.00768388
8900.89	-0.00697852
8914.03	-0.00556106
8920.6	-0.00484959
8933.74	-0.00342286
8940.31	-0.00270824
8953.44	-0.00127819
8960.01	-0.000563407
8973.15	0.000864007
8986.29	0.00228636
8992.86	0.00299482
9006	0.00440468
9012.56	0.00510544
9025.7	0.00649703
9032.27	0.00718723
9045.41	0.0085549
9051.98	0.00923177
9065.12	0.0105701
9071.69	0.0112309
9084.82	0.0125346
9091.39	0.013177
9104.53	0.0144411
9111.1	0.0150625
9124.24	0.0162825
9130.81	0.0168807
9143.94	0.0180522
9150.51	0.0186251
9163.65	0.0197442
9170.22	0.0202899
9183.36	0.0213531
9196.5	0.0223771
9203.07	0.0228741
9216.2	0.0238372
9222.77	0.0243031
9235.91	0.0252029
9242.48	0.0256366
9255.62	0.0264711
9262.19	0.0268717
9275.32	0.0276395
9281.89	0.0280064
9295.03	0.0287064
9301.6	0.0290393
9314.74	0.0296708
9321.31	0.0299694
9334.44	0.0305325
9341.01	0.0307969
9354.15	0.0312916
9360.72	0.031522
9373.86	0.0319492
9380.43	0.0321461
9393.57	0.0325068
9400.13	0.0326708
9413.27	0.0329665
9426.41	0.0332198
9432.98	0.0333309
9446.12	0.0335224
9452.69	0.0336031
9465.82	0.033735
9472.39	0.0337866
9485.53	0.0338616
9492.1	0.0338854
9505.24	0.0339063
9511.81	0.0339037
9524.95	0.0338734
9531.51	0.0338461
9544.65	0.0337678
9551.22	0.0337172
9564.36	0.0335943
9570.93	0.0335222
9584.07	0.0333578
9590.63	0.0332659
9603.77	0.0330636
9610.34	0.0329536
9623.48	0.0327168
9630.05	0.0325903
9643.19	0.0323223
9656.32	0.0320353
9662.89	0.0318852
9676.03	0.0315725
9682.6	0.0314103
9695.74	0.0310751
9702.31	0.0309023
9715.45	0.0305474
9722.01	0.0303655
9735.15	0.0299937
9741.72	0.0298041
9754.86	0.029418
9761.43	0.0292217
9774.57	0.0288236
9781.13	0.0286219
9794.27	0.0282137
9800.84	0.0280075
9813.98	0.0275911
9820.55	0.0273811
9833.69	0.026958
9840.26	0.0267449
9853.39	0.0263162
9866.53	0.0258842
9873.1	0.0256671
9886.24	0.0252309
9892.81	0.0250117
9905.94	0.0245715
9912.51	0.0243504
9925.65	0.0239063
9932.22	0.0236833
9945.36	0.0232352
9951.93	0.02301
9965.07	0.0225573
9971.63	0.0223297
9984.77	0.0218718
9991.34	0.0216415
10004.5	0.0211775
10011	0.0209438
10024.2	0.0204726
10030.8	0.0202351
10043.9	0.0197556
10050.5	0.0195135
10063.6	0.0190243
10070.2	0.018777
10083.3	0.0182767
10096.4	0.0177681
10103	0.0175106
10116.2	0.0169886
10122.7	0.016724
10135.9	0.016187
10142.4	0.0159146
10155.6	0.0153614
10162.1	0.0150805
10175.3	0.0145098
10181.8	0.0142199
10195	0.0136305
10201.5	0.013331
10214.7	0.0127219
10221.3	0.0124124
10234.4	0.0117829
10241	0.011463
10254.1	0.0108125
10260.7	0.0104819
10273.8	0.00980997
10280.4	0.00946864
10293.5	0.00877519
10300.1	0.00842309
10313.2	0.0077082
10326.4	0.0069792
10332.9	0.00660948
10346.1	0.00585976
10352.6	0.00547985
10365.8	0.00471018
10372.3	0.00432053
10385.5	0.00353191
10392	0.00313307
10405.2	0.00232671
10411.8	0.00191934
10424.9	0.00109667
10431.5	0.000681536
10444.6	-0.000155843
10451.2	-0.000577895
10464.3	-0.00142821
10470.9	-0.00185626
10484	-0.00271761
10490.6	-0.00315068
10503.7	-0.00402106
10510.3	-0.00445813
10523.4	-0.00533546
10536.6	-0.00621624
10543.1	-0.00665764
10556.3	-0.00754183
10562.8	-0.0079844
10576	-0.00886989
10582.5	-0.00931258
10595.7	-0.0101973
10602.3	-0.0106391
10615.4	-0.011521
10622	-0.011961
10635.1	-0.0128382
10641.7	-0.0132754
10654.8	-0.0141462
10661.4	-0.0145797
10674.5	-0.0154424
10681.1	-0.0158715
10694.2	-0.0167248
10700.8	-0.0171488
10713.9	-0.0179913
10720.5	-0.0184096
10733.6	-0.0192403
10740.2	-0.0196525
10753.3	-0.0204704
10766.5	-0.0212795
10773	-0.0216807
10786.2	-0.0224761
10792.8	-0.0228704
10805.9	-0.0236518
10812.5	-0.024039
10825.6	-0.0248063
10832.2	-0.0251864
10845.3	-0.0259397
10851.9	-0.0263129
10865	-0.0270523
10871.6	-0.0274186
10884.7	-0.0281446
10891.3	-0.0285043
10904.4	-0.0292173
10911	-0.0295707
10924.1	-0.0302713
10930.7	-0.0306187
10943.8	-0.0313077
10950.4	-0.0316494
10963.5	-0.0323274
10970.1	-0.0326638
10983.3	-0.0333316
10996.4	-0.033993
11003	-0.0343215
11016.1	-0.0349739
11022.7	-0.035298
11035.8	-0.0359422
11042.4	-0.0362624
11055.5	-0.0368989
11062.1	-0.0372154
11075.2	-0.0378449
11081.8	-0.0381579
11094.9	-0.0387807
11101.5	-0.0390905
11114.6	-0.0397069
11121.2	-0.0400136
11134.3	-0.0406239
11140.9	-0.0409275
11154	-0.0415317
11160.6	-0.0418322
11173.8	-0.0424301
11180.3	-0.0427274
11193.5	-0.0433188
11200	-0.0436128
11213.2	-0.0441973
11226.3	-0.0447768
11232.9	-0.0450646
11246	-0.0456362
11252.6	-0.0459198
11265.7	-0.0464826
11272.3	-0.0467616
11285.4	-0.0473146
11292	-0.0475884
11305.1	-0.0481306
11311.7	-0.0483988
11324.8	-0.0489289
11331.4	-0.0491907
11344.5	-0.0497076
11351.1	-0.0499624
11364.3	-0.0504645
11370.8	-0.0507116
11384	-0.0511975
11390.5	-0.0514362
11403.7	-0.0519044
11410.2	-0.0521338
11423.4	-0.0525827
11436.5	-0.053018
11443.1	-0.0532302
11456.2	-0.0536435
11462.8	-0.0538443
11475.9	-0.054234
11482.5	-0.0544226
11495.6	-0.0547871
11502.2	-0.0549627
11515.3	-0.0553004
11521.9	-0.0554622
11535	-0.0557714
11541.6	-0.0559186
11554.8	-0.0561978
11561.3	-0.0563296
11574.5	-0.0565773
11581	-0.056693
11594.2	-0.0569077
11600.7	-0.0570065
11613.9	-0.0571869
11620.4	-0.0572682
11633.6	-0.0574128
11640.1	-0.0574759
11653.3	-0.0575835
11666.4	-0.0576658
11673	-0.0576973
11686.1	-0.0577406
11692.7	-0.0577524
11705.8	-0.0577559
11712.4	-0.0577475
11725.5	-0.0577101
11732.1	-0.0576811
11745.3	-0.0576021
11751.8	-0.0575521
11765	-0.0574308
11771.5	-0.0573595
11784.7	-0.0571954
11791.2	-0.0571025
11804.4	-0.0568951
11810.9	-0.0567806
11824.1	-0.0565296
11830.6	-0.0563932
11843.8	-0.0560986
11850.4	-0.0559404
11863.5	-0.0556021
11870.1	-0.055422
11883.2	-0.0550402
11896.3	-0.0546295
11902.9	-0.0544134
11916	-0.0539598
11922.6	-0.0537224
11935.8	-0.0532264
11942.3	-0.052968
11955.5	-0.0524303
11962	-0.0521513
11975.2	-0.0515728
11981.7	-0.0512735
11994.9	-0.0506552
12001.4	-0.0503363
12014.6	-0.0496792
12021.1	-0.0493412
12034.3	-0.0486465
12040.9	-0.04829
12054	-0.0475591
12060.6	-0.0471849
12073.7	-0.0464191
12080.3	-0.0460277
12093.4	-0.0452285
12106.5	-0.0444079
12113.1	-0.0439898
12126.3	-0.0431383
12132.8	-0.0427051
12146	-0.0418243
12152.5	-0.0413768
12165.7	-0.0404682
12172.2	-0.0400073
12185.4	-0.0390726
12191.9	-0.0385989
12205.1	-0.0376395
12211.6	-0.0371539
12224.8	-0.0361714
12231.4	-0.0356746
12244.5	-0.0346703
12251.1	-0.034163
12264.2	-0.0331383
12270.8	-0.0326212
12283.9	-0.0315775
12290.5	-0.0310511
12303.6	-0.0299895
12310.2	-0.0294545
12323.3	-0.0283763
12336.5	-0.0272874
12343	-0.0267392
12356.2	-0.0256353
12362.7	-0.0250797
12375.9	-0.0239616
12382.4	-0.0233992
12395.6	-0.0222677
12402.1	-0.0216988
12415.3	-0.0205546
12421.9	-0.0199795
12435	-0.0188234
12441.6	-0.0182424
12454.7	-0.0170749
12461.3	-0.0164883
12474.4	-0.01531
12481	-0.0147181
12494.1	-0.0135294
12500.7	-0.0129326
12513.8	-0.0117341
12520.4	-0.0111326
12533.5	-0.00992483
12540.1	-0.00931876
12553.2	-0.00810237
12566.4	-0.00688051
12572.9	-0.00626763
12586.1	-0.00503814
12592.6	-0.00442161
12605.8	-0.00318519
12612.4	-0.00256538
12625.5	-0.00132283
12632.1	-0.000700184
12645.2	0.000547604
12651.8	0.00117263
12664.9	0.00242466
12671.5	0.00305153
12684.6	0.00430668
12691.2	0.00493482
12704.3	0.00619185
12710.9	0.0068206
12724	0.00807816
12730.6	0.00870681
12743.7	0.00996341
12750.3	0.0105912
12763.4	0.0118452
12770	0.0124713
12783.1	0.013721
12796.3	0.0149669
12802.9	0.0155881
12816	0.0168266
12822.6	0.0174436
12835.7	0.0186726
12842.3	0.0192844
12855.4	0.020502
12862	0.0211076
12875.1	0.0223116
12881.7	0.0229098
12894.8	0.0240981
12901.4	0.0246878
12914.5	0.0258581
12921.1	0.0264384
12934.2	0.0275886
12940.8	0.0281582
12953.9	0.0292861
12960.5	0.029844
12973.7	0.0309475
12980.2	0.0314927
12993.4	0.0325696
13006.5	0.0336277
13013.1	0.0341494
13026.2	0.0351777
13032.8	0.0356841
13045.9	0.0366808
13052.5	0.037171
13065.6	0.0381344
13072.2	0.0386075
13085.3	0.0395361
13091.9	0.0399915
13105	0.0408839
13111.6	0.0413208
13124.7	0.0421757
13131.3	0.0425937
13144.4	0.0434102
13151	0.0438086
13164.2	0.0445858
13170.7	0.0449644
13183.9	0.0457015
13190.4	0.04606
13203.6	0.0467566
13210.1	0.0470947
13223.3	0.0477505
13236.4	0.0483791
13243	0.0486831
13256.1	0.0492706
13262.7	0.0495542
13275.8	0.050101
13282.4	0.0503643
13295.5	0.0508706
13302.1	0.0511137
13315.2	0.05158
13321.8	0.0518032
13334.9	0.05223
13341.5	0.0524337
13354.7	0.0528218
13361.2	0.0530063
13374.4	0.0533564
13380.9	0.0535221
13394.1	0.0538351
13400.6	0.0539825
13413.8	0.0542593
13420.3	0.0543889
13433.5	0.0546306
13440	0.0547428
13453.2	0.0549503
13466.3	0.0551356
13472.9	0.0552201
13486	0.0553729
13492.6	0.0554414
13505.7	0.0555629
13512.3	0.0556159
13525.4	0.0557068
13532	0.0557449
13545.2	0.0558063
13551.7	0.0558298
13564.9	0.0558627
13571.4	0.0558721
13584.6	0.0558771
13591.1	0.0558729
13604.3	0.0558509
13610.8	0.0558333
13624	0.055785
13630.5	0.0557544
13643.7	0.0556805
13650.3	0.0556372
13663.4	0.0555381
13676.5	0.0554224
13683.1	0.0553585
13696.2	0.0552184
13702.8	0.0551423
13715.9	0.0549782
13722.5	0.0548901
13735.7	0.0547021
13742.2	0.0546021
13755.4	0.0543904
13761.9	0.0542787
13775.1	0.0540434
13781.6	0.0539199
13794.8	0.0536611
13801.3	0.0535258
13814.5	0.0532436
13821	0.0530965
13834.2	0.0527906
13840.8	0.0526318
13853.9	0.0523023
13860.5	0.0521316
13873.6	0.0517782
13880.2	0.0515956
13893.3	0.0512183
13906.4	0.0508249
13913	0.0506222
13926.2	0.0502045
13932.7	0.0499896
13945.9	0.0495474
13952.4	0.0493202
13965.6	0.0488533
13972.1	0.0486136
13985.3	0.0481218
13991.8	0.0478696
14005	0.0473525
14011.5	0.0470876
14024.7	0.046545
14031.3	0.0462673
14044.4	0.045699
14051	0.0454084
14064.1	0.0448141
14070.7	0.0445105
14083.8	0.0438899
14090.4	0.043573
14103.5	0.042926
14110.1	0.0425958
14123.2	0.041922
14136.4	0.0412302
14142.9	0.0408775
14156.1	0.0401585
14162.6	0.0397922
14175.8	0.0390457
14182.3	0.0386656
14195.5	0.0378914
14202	0.0374974
14215.2	0.0366953
14221.8	0.0362872
14234.9	0.0354569
14241.5	0.0350346
14254.6	0.0341759
14261.2	0.0337394
14274.3	0.032852
14280.9	0.0324012
14294	0.031485
14300.6	0.0310197
14313.7	0.0300746
14320.3	0.0295947
14333.4	0.0286205
14346.6	0.0276269
14353.1	0.0271227
14366.3	0.0260999
14372.8	0.0255812
14386	0.0245291
14392.6	0.0239958
14405.7	0.0229146
14412.3	0.0223668
14425.4	0.0212566
14432	0.0206943
14445.1	0.0195554
14451.7	0.0189789
14464.8	0.0178115
14471.4	0.0172208
14484.5	0.0160255
14491.1	0.015421
14504.2	0.0141982
14510.8	0.0135801
14523.9	0.0123306
14530.5	0.0116993
14543.6	0.0104238
14550.2	0.00977973
14563.3	0.00847928
14576.5	0.00716281
14583.1	0.00649873
14596.2	0.00515929
14602.8	0.00448409
14615.9	0.00312314
14622.5	0.00243757
14635.6	0.00105676
14642.2	0.000361721
14655.3	-0.00103708
14661.9	-0.0017406
14675	-0.00315529
14681.6	-0.00386619
14694.7	-0.00529443
14701.3	-0.00601148
14714.4	-0.0074507
14721	-0.00817256
14734.1	-0.00961993
14740.7	-0.0103451
14753.8	-0.0117976
14760.4	-0.0125245
14773.6	-0.0139787
14780.1	-0.0147056
14793.3	-0.0161579
14806.4	-0.017607
14813	-0.0183297
14826.1	-0.0197704
14832.7	-0.020488
14845.8	-0.0219162
14852.4	-0.0226265
14865.5	-0.0240378
14872.1	-0.0247385
14885.2	-0.0261284
14891.8	-0.0268172
14904.9	-0.028181
14911.5	-0.0288555
14924.6	-0.0301883
14931.2	-0.0308461
14944.3	-0.0321431
14950.9	-0.0327817
14964.1	-0.0340378
14970.6	-0.0346548
14983.8	-0.0358651
14990.3	-0.036458
15003.5	-0.0376176
15010	-0.0381839
15023.2	-0.0392879
15036.3	-0.0403523
15042.9	-0.040869
15056	-0.04187
15062.6	-0.0423539
15075.7	-0.0432872
15082.3	-0.0437361
15095.4	-0.0445974
15102	-0.0450094
15115.1	-0.0457948
15121.7	-0.046168
15134.8	-0.046874
15141.4	-0.0472066
15154.6	-0.04783
15161.1	-0.0481205
15174.3	-0.0486585
15180.8	-0.0489057
15194	-0.0493558
15200.5	-0.0495586
15213.7	-0.0499191
15220.2	-0.0500766
15233.4	-0.050346
15246.5	-0.0505541
15253.1	-0.0506351
15266.2	-0.0507509
15272.8	-0.0507858
15285.9	-0.0508093
15292.5	-0.0507981
15305.6	-0.05073
15312.2	-0.0506732
15325.3	-0.0505145
15331.9	-0.0504127
15345.1	-0.0501652
15351.6	-0.0500196
15364.8	-0.0496854
15371.3	-0.0494972
15384.5	-0.0490792
15391	-0.0488499
15404.2	-0.0483515
15410.7	-0.0480829
15423.9	-0.0475079
15430.4	-0.047202
15443.6	-0.0465548
15450.2	-0.046214
15463.3	-0.0454994
15476.4	-0.0447426
15483	-0.0443493
15496.1	-0.043534
15502.7	-0.0431128
15515.8	-0.0422449
15522.4	-0.0417989
15535.6	-0.0408845
15542.1	-0.0404168
15555.3	-0.0394622
15561.8	-0.0389761
15575	-0.037988
15581.5	-0.0374868
15594.7	-0.0364719
15601.2	-0.035959
15614.4	-0.0349241
15620.9	-0.0344029
15634.1	-0.0333549
15640.7	-0.0328288
15653.8	-0.0317745
15660.4	-0.0312469
15673.5	-0.030193
15680.1	-0.0296673
15693.2	-0.0286202
15706.3	-0.0275813
15712.9	-0.0270658
15726.1	-0.0260443
15732.6	-0.0255389
15745.8	-0.0245406
15752.3	-0.0240482
15765.5	-0.0230786
15772	-0.0226019
15785.2	-0.021666
15791.7	-0.0212074
15804.9	-0.0203099
15811.4	-0.0198716
15824.6	-0.0190167
15831.2	-0.0186006
15844.3	-0.0177919
15850.9	-0.0173996
15864	-0.0166402
15870.6	-0.0162732
15883.7	-0.0155656
15890.3	-0.015225
15903.4	-0.014571
15916.6	-0.0139536
15923.1	-0.0136587
15936.3	-0.0130968
15942.8	-0.0128299
15956	-0.0123239
15962.5	-0.0120849
15975.7	-0.0116347
15982.2	-0.0114234
15995.4	-0.0110281
16001.9	-0.010844
16015.1	-0.0105023
16021.7	-0.0103446
16034.8	-0.0100548
16041.4	-0.00992252
16054.5	-0.0096824
16061.1	-0.0095743
16074.2	-0.00938121
16080.8	-0.0092959
16093.9	-0.00914688
16100.5	-0.00908281
16113.6	-0.00897459
16120.2	-0.00893005
16133.3	-0.00885913
16146.5	-0.00881104
16153	-0.00879503
16166.2	-0.00877804
16172.7	-0.00877662
16185.9	-0.00878687
16192.4	-0.0087981
16205.6	-0.00883171
16212.2	-0.00885365
16225.3	-0.00890675
16231.9	-0.00893748
16245	-0.00900626
16251.6	-0.00904389
16264.7	-0.00912465
16271.3	-0.00916738
16284.4	-0.00925654
16291	-0.0093026
16304.1	-0.00939674
16310.7	-0.00944447
16323.8	-0.00954036
16330.4	-0.00958818
16343.5	-0.00968275
16350.1	-0.00972918
16363.2	-0.00981957
16376.4	-0.00990566
16382.9	-0.00994673
16396.1	-0.0100243
16402.7	-0.0100605
16415.8	-0.0101271
16422.4	-0.0101572
16435.5	-0.0102106
16442.1	-0.0102337
16455.2	-0.0102719
16461.8	-0.0102869
16474.9	-0.010308
16481.5	-0.0103139
16494.6	-0.0103161
16501.2	-0.0103121
16514.3	-0.0102937
16520.9	-0.0102791
16534	-0.0102387
16540.6	-0.0102127
16553.7	-0.0101488
16560.3	-0.0101108
16573.4	-0.0100223
16580	-0.00997177
16593.2	-0.00985766
16606.3	-0.00972603
16612.9	-0.00965354
16626	-0.00949512
16632.6	-0.00940915
16645.7	-0.00922362
16652.3	-0.00912407
16665.4	-0.00891145
16672	-0.00879843
16685.1	-0.00855912
16691.7	-0.00843294
16704.8	-0.00816778
16711.4	-0.00802896
16724.5	-0.00773927
16731.1	-0.0075886
16744.2	-0.00727616
16750.8	-0.00711466
16763.9	-0.0067818
16770.5	-0.00661075
16783.7	-0.00626028
16790.2	-0.00608122
16803.4	-0.00571644
16816.5	-0.00534416
16823.1	-0.00515576
16836.2	-0.00477559
16842.8	-0.0045843
16855.9	-0.00420052
16862.5	-0.00400854
16875.6	-0.00362564
16882.2	-0.00343524
16895.3	-0.0030578
16901.9	-0.00287126
16915	-0.0025038
16921.6	-0.00232336
16934.7	-0.00197025
16941.3	-0.00179802
16954.4	-0.00146331
16961	-0.00130124
16974.2	-0.000988588
16980.7	-0.000838363
16993.9	-0.000550907
17000.4	-0.00041396
17013.6	-0.000154245
17020.1	-3.16901e-05
17033.3	0.000198379
17046.4	0.000407953
17053	0.000504936
17066.1	0.000683164
17072.7	0.000764391
17085.8	0.000911111
17092.4	0.000976652
17105.5	0.00109229
17112.1	0.0011425
17125.2	0.00122801
17131.8	0.00126348
17144.9	0.00132025
17151.5	0.00134176
17164.7	0.00137153
17171.2	0.00138002
17184.4	0.00138479
17190.9	0.00138132
17204.1	0.00136327
17210.6	0.00134895
17223.8	0.00131037
17230.3	0.00128637
17243.5	0.00122962
17250.1	0.00119713
17263.2	0.00112458
17276.3	0.00104284
17282.9	0.000998855
17296	0.000905333
17302.6	0.000856068
17315.7	0.000753217
17322.3	0.00069991
17335.4	0.00059024
17342	0.000534167
17355.2	0.000420283
17361.7	0.000362775
17374.9	0.000247402
17381.4	0.000189856
17394.6	7.58623e-05
17401.1	1.97507e-05
17414.3	-8.98427e-05
17420.8	-0.000142973
17434	-0.000245003
17440.6	-0.000293539
17453.7	-0.000384731
17460.3	-0.000427015
17473.4	-0.000504031
17486.5	-0.000569742
17493.1	-0.000597902
17506.2	-0.000643936
17512.8	-0.000661463
17525.9	-0.000684704
17532.5	-0.000690099
17545.7	-0.000687692
17552.2	-0.000679612
17565.4	-0.000649067
17571.9	-0.000626376
17585.1	-0.000565665
17591.6	-0.00052748
17604.8	-0.000435119
17611.3	-0.000380845
17624.5	-0.000255958
17631.1	-0.000185319
17644.2	-2.76817e-05
17650.8	5.92672e-05
17663.9	0.000249208
17670.5	0.000352077
17683.6	0.000573211
17690.2	0.000691282
17703.3	0.00094186
17716.4	0.0012108
17723	0.00135178
17736.2	0.00164596
17742.7	0.00179879
17755.9	0.00211499
17762.4	0.00227795
17775.6	0.00261253
17782.1	0.00278369
17795.3	0.00313261
17801.8	0.00330988
17815	0.00366876
17821.6	0.00384986
17834.7	0.00421404
17841.3	0.00439657
17854.4	0.00476108
17861	0.00494248
17874.1	0.00530208
17880.7	0.00547968
17893.8	0.00582888
17900.4	0.00599984
17913.5	0.00633288
17920.1	0.00649427
17933.2	0.00680512
17946.4	0.00709772
17952.9	0.0072363
17966.1	0.00749621
17972.6	0.00761683
17985.8	0.00783754
17992.3	0.00793692
18005.5	0.0081119
18012.1	0.00818678
18025.2	0.00830956
18031.8	0.00835676
18044.9	0.0084211
18051.5	0.00843759
18064.6	0.00843768
18071.2	0.00842069
18084.3	0.0083513
18090.9	0.00829842
18104	0.00815515
18110.6	0.0080644
18123.7	0.00784386
18130.3	0.00771383
18143.4	0.00741381
18150	0.00724372
18163.1	0.00686336
18176.3	0.00642968
18182.8	0.00619305
18196	0.00568089
18202.6	0.00540571
18215.7	0.00481825
18222.3	0.0045065
18235.4	0.00384845
18242	0.00350285
18255.1	0.00278038
18261.7	0.00240435
18274.8	0.00162494
18281.4	0.00122253
18294.5	0.000394801
18301.1	-2.94487e-05
18314.2	-0.000895965
18320.8	-0.0013371
18333.9	-0.00223221
18340.5	-0.00268502
18353.6	-0.00359815
18360.2	-0.0040573
18373.3	-0.00497776
18386.5	-0.00589724
18393.1	-0.00635518
18406.2	-0.00726464
18412.8	-0.00771509
18425.9	-0.00860481
18432.5	-0.00904309
18445.6	-0.0099041
18452.2	-0.0103259
18465.3	-0.0111502
18471.9	-0.0115518
18485	-0.0123323
18491.6	-0.0127105
18504.7	-0.0134412
18511.3	-0.0137933
18524.4	-0.0144696
18531	-0.0147935
18544.1	-0.0154117
18550.7	-0.0157058
18563.8	-0.0162634
18570.4	-0.0165267
18583.6	-0.0170222
18590.1	-0.0172542
18603.3	-0.0176868
18616.4	-0.0180777
18623	-0.0182575
18636.1	-0.0185863
18642.7	-0.0187355
18655.8	-0.0190036
18662.4	-0.0191228
18675.5	-0.0193321
18682.1	-0.0194225
18695.2	-0.0195752
18701.8	-0.019638
18714.9	-0.0197369
18721.5	-0.0197734
18734.6	-0.0198214
18741.2	-0.0198332
18754.3	-0.0198334
18760.9	-0.0198222
18774.1	-0.0197782
18780.6	-0.0197457
18793.8	-0.0196609
18800.3	-0.019609
18813.5	-0.0194873
18820	-0.0194179
18833.2	-0.0192634
18846.3	-0.0190892
18852.9	-0.0189954
18866	-0.0187956
18872.6	-0.0186902
18885.7	-0.0184694
18892.3	-0.0183547
18905.4	-0.0181179
18912	-0.0179964
18925.1	-0.0177487
18931.7	-0.0176231
18944.8	-0.01737
18951.4	-0.017243
18964.6	-0.0169899
18971.1	-0.0168643
18984.3	-0.0166169
18990.8	-0.0164956
19004	-0.0162595
19010.5	-0.0161453
19023.7	-0.0159262
19030.2	-0.0158219
19043.4	-0.015625
19056.5	-0.0154459
19063.1	-0.0153637
19076.2	-0.015215
19082.8	-0.0151491
19095.9	-0.0150351
19102.5	-0.0149875
19115.6	-0.0149117
19122.2	-0.0148838
19135.3	-0.0148489
19141.9	-0.014842
19155.1	-0.0148498
19161.6	-0.0148646
19174.8	-0.014916
19181.3	-0.0149525
19194.5	-0.0150473
19201	-0.0151053
19214.2	-0.0152422
19220.7	-0.0153208
19233.9	-0.0154976
19240.4	-0.0155954
19253.6	-0.0158088
19260.2	-0.0159239
19273.3	-0.0161697
19286.4	-0.0164343
19293	-0.016573
19306.1	-0.0168612
19312.7	-0.0170102
19325.8	-0.0173159
19332.4	-0.017472
19345.6	-0.0177886
19352.1	-0.0179485
19365.3	-0.0182692
19371.8	-0.0184293
19385	-0.0187472
19391.5	-0.0189043
19404.7	-0.0192126
19411.2	-0.0193632
19424.4	-0.0196555
19430.9	-0.0197966
19444.1	-0.020067
19450.7	-0.0201958
19463.8	-0.020439
19470.4	-0.020553
19483.5	-0.0207646
19490.1	-0.0208618
19503.2	-0.0210383
19516.3	-0.02119
19522.9	-0.0212563
19536.1	-0.0213693
19542.6	-0.021416
19555.8	-0.0214896
19562.3	-0.0215165
19575.5	-0.0215509
19582	-0.0215584
19595.2	-0.0215547
19601.7	-0.0215437
19614.9	-0.0215038
19621.4	-0.0214753
19634.6	-0.0214019
19641.2	-0.0213574
19654.3	-0.0212535
19660.9	-0.0211945
19674	-0.0210636
19680.6	-0.020992
19693.7	-0.0208375
19700.3	-0.020755
19713.4	-0.0205804
19726.6	-0.0203944
19733.1	-0.0202974
19746.3	-0.0200966
19752.8	-0.019993
19766	-0.0197802
19772.5	-0.0196712
19785.7	-0.0194485
19792.2	-0.0193351
19805.4	-0.0191044
19811.9	-0.0189873
19825.1	-0.0187498
19831.7	-0.0186294
19844.8	-0.0183858
19851.4	-0.0182626
19864.5	-0.0180132
19871.1	-0.0178871
19884.2	-0.0176319
19890.8	-0.0175029
19903.9	-0.0172419
19910.5	-0.0171098
19923.6	-0.0168426
19930.2	-0.0167074
19943.3	-0.0164338
19956.5	-0.0161559
19963	-0.0160154
19976.2	-0.0157314
19982.7	-0.0155879
19995.9	-0.0152984
