0	0
10.1663	0
20.3325	0
30.4987	0
40.6649	0
50.8311	0
60.9971	0
70.1464	0
80.3121	0
90.4777	0
100.643	0
110.808	0
120.974	0
130.123	0
140.289	0
150.455	0
160.429	0
170.394	0
180.358	0
190.322	0
200.286	0
210.25	0
220.215	0
230.179	0
240.143	0
250.107	0
260.071	0
270.035	0
280.996	0
290.959	0
300.921	0
310.883	0
320.845	0
330.807	0
340.769	0
350.731	0
360.693	0
370.655	0
380.617	0
390.579	0
400.541	0
410.495	0
420.369	0
430.184	0
440.974	0
450.777	0
460.501	0
470.142	0
480.715	0
490.327	0
500.9	0
510.512	0
520.124	0
530.675	0
540.201	0
550.652	0
560.15	0
570.596	0
580.083	0
590.512	0
600.931	0
610.395	0
620.804	0
630.268	0
640.677	0
650.14	0
660.55	0
670.013	0
680.422	0
690.832	0
700.295	0
710.704	0
720.167	0
730.576	0
740.029	0
750.409	0
760.787	0
770.222	0
780.6	0
790.035	0
800.414	0
810.793	0
820.228	0
830.606	0
840.041	0
850.42	0
860.798	0
870.233	0
880.612	0
890.047	0
900.425	0
910.804	0
920.239	0
930.617	0
940.052	0
950.43	0
960.809	0
970.244	0
980.622	0
990.057	0
1000.44	0
1010.81	0
1020.25	0
1030.63	0
1040.06	0
1050.44	0
1060.82	0
1070.25	0
1080.63	0
1090.07	0
1100.45	0
1110.82	0
1120.26	0
1130.64	0
1140.07	0
1150.45	0
1160.83	0
1170.26	0
1180.64	0
1190.08	0
1200.45	0
1210.83	0
1220.26	0
1230.64	0
1240.07	0
1250.45	0
1260.82	0
1270.26	0
1280.63	0
1290.07	0
1300.44	0
1310.82	0
1320.25	0
1330.59	-3.63798e-12
1340.92	-1.09139e-11
1350.32	-2.00089e-11
1360.64	-3.00133e-11
1370.02	-3.91083e-11
1380.34	-4.91127e-11
1390.66	-6.36646e-11
1400.03	-8.18545e-11
1410.32	-1.0732e-10
1420.62	-1.41881e-10
1430.91	-1.88265e-10
1440.27	-2.46473e-10
1450.55	-3.31056e-10
1460.84	-4.44743e-10
1470.2	-5.81167e-10
1480.49	-7.79437e-10
1490.77	-1.04319e-09
1500.13	-1.35606e-09
1510.4	-1.80535e-09
1520.64	-2.39106e-09
1530.87	-3.15595e-09
1540.17	-4.04998e-09
1550.41	-5.31145e-09
1560.64	-6.93763e-09
1570.87	-9.02946e-09
1580.18	-1.14405e-08
1590.41	-1.47911e-08
1600.64	-1.90548e-08
1610.87	-2.44581e-08
1620.1	-3.05536e-08
1630.19	-3.88409e-08
1640.28	-4.92055e-08
1650.37	-6.21339e-08
1660.45	-7.82093e-08
1670.54	-9.81317e-08
1680.63	-1.22743e-07
1690.71	-1.53052e-07
1700.8	-1.9026e-07
1710.89	-2.35803e-07
1720.06	-2.85861e-07
1730.14	-3.52285e-07
1740.23	-4.32882e-07
1750.31	-5.3039e-07
1760.4	-6.48021e-07
1770.49	-7.89521e-07
1780.57	-9.59256e-07
1790.66	-1.1623e-06
1800.75	-1.40451e-06
1810.83	-1.69267e-06
1820	-2.00105e-06
1830.09	-2.39955e-06
1840.18	-2.87001e-06
1850.26	-3.42396e-06
1860.35	-4.07458e-06
1870.43	-4.83679e-06
1880.52	-5.72748e-06
1890.61	-6.76576e-06
1900.69	-7.9731e-06
1910.78	-9.37364e-06
1920.87	-1.09944e-05
1930.04	-1.26843e-05
1940.12	-1.48122e-05
1950.21	-1.7258e-05
1960.29	-2.00626e-05
1970.38	-2.32715e-05
1980.47	-2.69347e-05
1990.55	-3.11072e-05
2000.64	-3.58494e-05
2010.73	-4.12272e-05
2020.81	-4.73129e-05
2030.9	-5.41848e-05
2040.07	-6.1186e-05
2050.15	-6.98017e-05
2060.24	-7.94716e-05
2070.33	-9.03024e-05
2080.41	-0.000102409
2090.5	-0.000115915
2100.58	-0.000130951
2110.67	-0.000147658
2120.76	-0.000166186
2130.84	-0.000186693
2140.01	-0.000207195
2150.1	-0.000231956
2160.19	-0.000259211
2170.27	-0.000289155
2180.36	-0.000321995
2190.44	-0.000357942
2200.53	-0.000397221
2210.62	-0.000440063
2220.7	-0.000486708
2230.79	-0.000537403
2240.87	-0.000592404
2250.04	-0.000646361
2260.13	-0.000710314
2270.22	-0.000779351
2280.3	-0.000853749
2290.39	-0.00093379
2300.47	-0.00101976
2310.56	-0.00111193
2320.65	-0.0012106
2330.73	-0.00131605
2340.82	-0.00142856
2350.9	-0.00154842
2360.07	-0.00166397
2370.16	-0.00179858
2380.24	-0.0019413
2390.33	-0.00209237
2400.42	-0.00225204
2410.5	-0.00242053
2420.59	-0.00259803
2430.67	-0.00278474
2440.76	-0.00298083
2450.85	-0.00318644
2460.02	-0.00338173
2470.1	-0.00360585
2480.19	-0.00383979
2490.27	-0.00408359
2500.36	-0.00433727
2510.44	-0.00460082
2520.53	-0.00487418
2530.62	-0.00515728
2540.7	-0.00544999
2550.79	-0.00575215
2560.87	-0.00606356
2570.04	-0.00635449
2580.13	-0.00668287
2590.21	-0.00701969
2600.3	-0.00736459
2610.39	-0.00771716
2620.47	-0.00807694
2630.48	-0.00844077
2640.57	-0.00881341
2650.66	-0.00919164
2660.74	-0.00957484
2670.83	-0.00996232
2680.91	-0.0103534
2690.08	-0.0107113
2700.17	-0.011107
2710.25	-0.0115039
2720.33	-0.0119006
2730.38	-0.0122961
2740.43	-0.01269
2750.49	-0.0130814
2760.54	-0.0134692
2770.6	-0.0138525
2780.65	-0.0142302
2790.7	-0.014601
2800.76	-0.0149641
2810.81	-0.0153181
2820.87	-0.0156619
2830	-0.0159647
2840.06	-0.0162859
2850.11	-0.0165935
2860.17	-0.0168863
2870.22	-0.0171631
2880.27	-0.0174229
2890.33	-0.0176643
2900.38	-0.0178862
2910.43	-0.0180875
2920.49	-0.0182671
2930.54	-0.0184239
2940.6	-0.0185567
2950.65	-0.0186647
2960.7	-0.0187467
2970.76	-0.0188019
2980.81	-0.0188292
2990.86	-0.018828
3000	-0.0188013
3010.06	-0.0187431
3020.11	-0.0186541
3030.17	-0.0185337
3040.65	-0.0183739
3050.08	-0.0182
3060.13	-0.0179826
3070.19	-0.0177319
3080.24	-0.0174475
3090.29	-0.0171294
3100.35	-0.0167776
3110.4	-0.0163919
3120.46	-0.0159724
3130.54	-0.015517
3140.59	-0.0150284
3150.01	-0.0145398
3160.41	-0.0139681
3170.03	-0.0134119
3180.17	-0.0127967
3190.65	-0.0121246
3200.28	-0.0114771
3210.73	-0.0107363
3220	-0.0100334
