THREADS	MTPS	TIMESTEPS	TIMESTEP_SIZE	SECONDS_FOR_SIMULATION	AVERAGE_TRIANGLES	AVERAGE_PARTITIONS
64	74.9006	100	0.000491318	25.4296	1.90469e+07	1158.74
63	74.2407	100	0.000491318	25.6556	1.90469e+07	1158.74
62	73.9623	100	0.000491318	25.7522	1.90469e+07	1158.74
61	74.0403	100	0.000491318	25.7251	1.90469e+07	1158.74
60	73.939	100	0.000491318	25.7603	1.90469e+07	1158.74
59	73.4279	100	0.000491318	25.9396	1.90469e+07	1158.74
58	72.5329	100	0.000491318	26.2597	1.90469e+07	1158.74
57	71.3614	100	0.000491318	26.6908	1.90469e+07	1158.74
56	71.0255	100	0.000491318	26.817	1.90469e+07	1158.74
55	70.6881	100	0.000491318	26.945	1.90469e+07	1158.74
54	70.1575	100	0.000491318	27.1488	1.90469e+07	1158.74
53	69.9211	100	0.000491318	27.2406	1.90469e+07	1158.74
52	68.9495	100	0.000491318	27.6244	1.90469e+07	1158.74
51	67.9971	100	0.000491318	28.0114	1.90469e+07	1158.74
50	67.3791	100	0.000491318	28.2683	1.90469e+07	1158.74
49	66.5892	100	0.000491318	28.6036	1.90469e+07	1158.74
48	65.353	100	0.000491318	29.1447	1.90469e+07	1158.74
47	64.4025	100	0.000491318	29.5748	1.90469e+07	1158.74
46	64.4667	100	0.000491318	29.5453	1.90469e+07	1158.74
45	62.9432	100	0.000491318	30.2605	1.90469e+07	1158.74
44	62.4595	100	0.000491318	30.4948	1.90469e+07	1158.74
43	59.7359	100	0.000491318	31.8852	1.90469e+07	1158.74
42	60.1207	100	0.000491318	31.6811	1.90469e+07	1158.74
41	58.1093	100	0.000491318	32.7777	1.90469e+07	1158.74
40	56.6238	100	0.000491318	33.6376	1.90469e+07	1158.74
39	55.3722	100	0.000491318	34.398	1.90469e+07	1158.74
38	54.1519	100	0.000491318	35.1731	1.90469e+07	1158.74
37	54.0056	100	0.000491318	35.2684	1.90469e+07	1158.74
36	52.4237	100	0.000491318	36.3326	1.90469e+07	1158.74
35	49.8747	100	0.000491318	38.1895	1.90469e+07	1158.74
34	49.1932	100	0.000491318	38.7186	1.90469e+07	1158.74
33	47.4762	100	0.000491318	40.1189	1.90469e+07	1158.74
32	46.1075	100	0.000491318	41.3098	1.90469e+07	1158.74
31	45.3703	100	0.000491318	41.981	1.90469e+07	1158.74
30	44.8449	100	0.000491318	42.4729	1.90469e+07	1158.74
29	44.6062	100	0.000491318	42.7001	1.90469e+07	1158.74
28	43.9464	100	0.000491318	43.3412	1.90469e+07	1158.74
27	43.1772	100	0.000491318	44.1133	1.90469e+07	1158.74
26	41.9985	100	0.000491318	45.3514	1.90469e+07	1158.74
25	41.5712	100	0.000491318	45.8175	1.90469e+07	1158.74
24	40.7951	100	0.000491318	46.6892	1.90469e+07	1158.74
23	39.8021	100	0.000491318	47.854	1.90469e+07	1158.74
22	38.9535	100	0.000491318	48.8966	1.90469e+07	1158.74
21	38.2051	100	0.000491318	49.8544	1.90469e+07	1158.74
20	37.4682	100	0.000491318	50.8349	1.90469e+07	1158.74
19	35.8474	100	0.000491318	53.1334	1.90469e+07	1158.74
18	34.4996	100	0.000491318	55.209	1.90469e+07	1158.74
17	32.7724	100	0.000491318	58.1187	1.90469e+07	1158.74
16	31.4347	100	0.000491318	60.592	1.90469e+07	1158.74
15	30.1394	100	0.000491318	63.1962	1.90469e+07	1158.74
14	29.0727	100	0.000491318	65.5148	1.90469e+07	1158.74
13	27.8345	100	0.000491318	68.4292	1.90469e+07	1158.74
12	26.6701	100	0.000491318	71.4167	1.90469e+07	1158.74
11	24.5179	100	0.000491318	77.6858	1.90469e+07	1158.74
10	22.4538	100	0.000491318	84.827	1.90469e+07	1158.74
9	20.2543	100	0.000491318	94.0391	1.90469e+07	1158.74
8	17.963	100	0.000491318	106.034	1.90469e+07	1158.74
7	16.6674	100	0.000491318	114.277	1.90469e+07	1158.74
6	15.3515	100	0.000491318	124.072	1.90469e+07	1158.74
5	13.9855	100	0.000491318	136.19	1.90469e+07	1158.74
4	12.6397	100	0.000491318	150.691	1.90469e+07	1158.74
3	9.55917	100	0.000491318	199.253	1.90469e+07	1158.74
2	6.62803	100	0.000491318	287.369	1.90469e+07	1158.74
1	3.34714	100	0.000491318	569.05	1.90469e+07	1158.74
