STARTING WORLD SCHEDULER SERVER
CLIENT SETUP: adding client 38317
 + TIMESTAMP: 0.314884
START TIMESTAMP: 0.314929
+++++++++++++++++++++++++++++++++++++++++++++++++++++++++++
+ Client Mapping:
  > Client 38317 (0):	

+ Core Mapping:	0 0 0 0 0 0 0 0 0 0 0 0 0 0 0 0 0 0 0 0 0 0 0 0 0 0 0 0 0 0 0 0 0 0 0 0 0 0 0 0 
+ Optimal point: 
+++++++++++++++++++++++++++++++++++++++++++++++++++++++++++
CLIENT SETUP: adding client 38319
 + TIMESTAMP: 0.315061
+++++++++++++++++++++++++++++++++++++++++++++++++++++++++++
+ Client Mapping:
  > Client 38317 (0):	
  > Client 38319 (0):	

+ Core Mapping:	0 0 0 0 0 0 0 0 0 0 0 0 0 0 0 0 0 0 0 0 0 0 0 0 0 0 0 0 0 0 0 0 0 0 0 0 0 0 0 0 
+ Optimal point: 
+++++++++++++++++++++++++++++++++++++++++++++++++++++++++++
INVADE: client 38319
 + TIMESTAMP: 0.31511
RESSOURCE DISTRIBUTION CHANGED
++++++++++++++++++++++++++++++++++++++++++++++++
INVADE (38319)
  + pid: 38319
  + min_cores: 1
  + max_cores: 512
  + scalability graph: 
1, 1.39494, 1.5699, 1.6742, 1.74538, 1.79792, 1.83875, 1.87167, 1.89893, 1.922, 1.94184, 1.95915, 1.97442, 1.98802, 2.00024, 2.0113, 2.02136, 2.03058, 2.03906, 2.04689, 2.05415, 2.06092, 2.06724, 2.07316, 2.07872, 2.08396, 2.0889, 2.09358, 2.09801, 2.10222, 2.10622, 2.11003, 2.11367, 2.11715, 2.12048, 2.12367, 2.12672, 2.12966, 2.13248, 2.1352, 
Number of clients: 2

+++++++++++++++++++++++++++++++++++++++++++++++++++++++++++
+ Client Mapping:
  > Client 38317 (0):	
  > Client 38319 (1):	0 

+ Core Mapping:	38319 0 0 0 0 0 0 0 0 0 0 0 0 0 0 0 0 0 0 0 0 0 0 0 0 0 0 0 0 0 0 0 0 0 0 0 0 0 0 0 
+ Optimal point: 39 1 
+++++++++++++++++++++++++++++++++++++++++++++++++++++++++++
INVADE: client 38317
 + TIMESTAMP: 0.315257
RESSOURCE DISTRIBUTION CHANGED
++++++++++++++++++++++++++++++++++++++++++++++++
INVADE (38317)
  + pid: 38317
  + min_cores: 1
  + max_cores: 512
  + scalability graph: 
1, 1.39494, 1.5699, 1.6742, 1.74538, 1.79792, 1.83875, 1.87167, 1.89893, 1.922, 1.94184, 1.95915, 1.97442, 1.98802, 2.00024, 2.0113, 2.02136, 2.03058, 2.03906, 2.04689, 2.05415, 2.06092, 2.06724, 2.07316, 2.07872, 2.08396, 2.0889, 2.09358, 2.09801, 2.10222, 2.10622, 2.11003, 2.11367, 2.11715, 2.12048, 2.12367, 2.12672, 2.12966, 2.13248, 2.1352, 
Number of clients: 2

+++++++++++++++++++++++++++++++++++++++++++++++++++++++++++
+ Client Mapping:
  > Client 38317 (20):	1 2 3 4 5 6 7 8 9 10 11 12 13 14 15 16 17 18 19 20 
  > Client 38319 (1):	0 

+ Core Mapping:	38319 38317 38317 38317 38317 38317 38317 38317 38317 38317 38317 38317 38317 38317 38317 38317 38317 38317 38317 38317 38317 0 0 0 0 0 0 0 0 0 0 0 0 0 0 0 0 0 0 0 
+ Optimal point: 20 20 
+++++++++++++++++++++++++++++++++++++++++++++++++++++++++++
++++++++++++++++++++++++++++++++++++++++++++++++
 + TIMESTAMP: 0.326846
REINVADE (38319)
  + pid: 38319
  + min_cores: 1
  + max_cores: 512
  + scalability graph: 
1, 1.39494, 1.5699, 1.6742, 1.74538, 1.79792, 1.83875, 1.87167, 1.89893, 1.922, 1.94184, 1.95915, 1.97442, 1.98802, 2.00024, 2.0113, 2.02136, 2.03058, 2.03906, 2.04689, 2.05415, 2.06092, 2.06724, 2.07316, 2.07872, 2.08396, 2.0889, 2.09358, 2.09801, 2.10222, 2.10622, 2.11003, 2.11367, 2.11715, 2.12048, 2.12367, 2.12672, 2.12966, 2.13248, 2.1352, 
Number of clients: 2

+++++++++++++++++++++++++++++++++++++++++++++++++++++++++++
+ Client Mapping:
  > Client 38317 (20):	1 2 3 4 5 6 7 8 9 10 11 12 13 14 15 16 17 18 19 20 
  > Client 38319 (20):	0 21 22 23 24 25 26 27 28 29 30 31 32 33 34 35 36 37 38 39 

+ Core Mapping:	38319 38317 38317 38317 38317 38317 38317 38317 38317 38317 38317 38317 38317 38317 38317 38317 38317 38317 38317 38317 38317 38319 38319 38319 38319 38319 38319 38319 38319 38319 38319 38319 38319 38319 38319 38319 38319 38319 38319 38319 
+ Optimal point: 20 20 
+++++++++++++++++++++++++++++++++++++++++++++++++++++++++++
CLIENT SETUP: adding client 38316
 + TIMESTAMP: 0.3958
+++++++++++++++++++++++++++++++++++++++++++++++++++++++++++
+ Client Mapping:
  > Client 38317 (20):	1 2 3 4 5 6 7 8 9 10 11 12 13 14 15 16 17 18 19 20 
  > Client 38319 (20):	0 21 22 23 24 25 26 27 28 29 30 31 32 33 34 35 36 37 38 39 
  > Client 38316 (0):	

+ Core Mapping:	38319 38317 38317 38317 38317 38317 38317 38317 38317 38317 38317 38317 38317 38317 38317 38317 38317 38317 38317 38317 38317 38319 38319 38319 38319 38319 38319 38319 38319 38319 38319 38319 38319 38319 38319 38319 38319 38319 38319 38319 
+ Optimal point: 20 20 
+++++++++++++++++++++++++++++++++++++++++++++++++++++++++++
INVADE: client 38316
 + TIMESTAMP: 0.395918
++++++++++++++++++++++++++++++++++++++++++++++++
 + TIMESTAMP: 0.397736
REINVADE (38317)
  + pid: 38317
  + min_cores: 1
  + max_cores: 512
  + scalability graph: 
1, 1.39494, 1.5699, 1.6742, 1.74538, 1.79792, 1.83875, 1.87167, 1.89893, 1.922, 1.94184, 1.95915, 1.97442, 1.98802, 2.00024, 2.0113, 2.02136, 2.03058, 2.03906, 2.04689, 2.05415, 2.06092, 2.06724, 2.07316, 2.07872, 2.08396, 2.0889, 2.09358, 2.09801, 2.10222, 2.10622, 2.11003, 2.11367, 2.11715, 2.12048, 2.12367, 2.12672, 2.12966, 2.13248, 2.1352, 
Number of clients: 3

+++++++++++++++++++++++++++++++++++++++++++++++++++++++++++
+ Client Mapping:
  > Client 38317 (14):	7 8 9 10 11 12 13 14 15 16 17 18 19 20 
  > Client 38319 (20):	0 21 22 23 24 25 26 27 28 29 30 31 32 33 34 35 36 37 38 39 
  > Client 38316 (0):	

+ Core Mapping:	38319 0 0 0 0 0 0 38317 38317 38317 38317 38317 38317 38317 38317 38317 38317 38317 38317 38317 38317 38319 38319 38319 38319 38319 38319 38319 38319 38319 38319 38319 38319 38319 38319 38319 38319 38319 38319 38319 
+ Optimal point: 14 13 13 
+++++++++++++++++++++++++++++++++++++++++++++++++++++++++++
CLIENT SETUP: adding client 38318
 + TIMESTAMP: 0.397884
+++++++++++++++++++++++++++++++++++++++++++++++++++++++++++
+ Client Mapping:
  > Client 38317 (14):	7 8 9 10 11 12 13 14 15 16 17 18 19 20 
  > Client 38319 (20):	0 21 22 23 24 25 26 27 28 29 30 31 32 33 34 35 36 37 38 39 
  > Client 38316 (0):	
  > Client 38318 (0):	

+ Core Mapping:	38319 0 0 0 0 0 0 38317 38317 38317 38317 38317 38317 38317 38317 38317 38317 38317 38317 38317 38317 38319 38319 38319 38319 38319 38319 38319 38319 38319 38319 38319 38319 38319 38319 38319 38319 38319 38319 38319 
+ Optimal point: 14 13 13 
+++++++++++++++++++++++++++++++++++++++++++++++++++++++++++
INVADE: client 38318
 + TIMESTAMP: 0.3983
RESSOURCE DISTRIBUTION CHANGED
++++++++++++++++++++++++++++++++++++++++++++++++
INVADE (38318)
  + pid: 38318
  + min_cores: 1
  + max_cores: 512
  + scalability graph: 
1, 1.39494, 1.5699, 1.6742, 1.74538, 1.79792, 1.83875, 1.87167, 1.89893, 1.922, 1.94184, 1.95915, 1.97442, 1.98802, 2.00024, 2.0113, 2.02136, 2.03058, 2.03906, 2.04689, 2.05415, 2.06092, 2.06724, 2.07316, 2.07872, 2.08396, 2.0889, 2.09358, 2.09801, 2.10222, 2.10622, 2.11003, 2.11367, 2.11715, 2.12048, 2.12367, 2.12672, 2.12966, 2.13248, 2.1352, 
Number of clients: 4

+++++++++++++++++++++++++++++++++++++++++++++++++++++++++++
+ Client Mapping:
  > Client 38317 (14):	7 8 9 10 11 12 13 14 15 16 17 18 19 20 
  > Client 38319 (20):	0 21 22 23 24 25 26 27 28 29 30 31 32 33 34 35 36 37 38 39 
  > Client 38316 (0):	
  > Client 38318 (6):	1 2 3 4 5 6 

+ Core Mapping:	38319 38318 38318 38318 38318 38318 38318 38317 38317 38317 38317 38317 38317 38317 38317 38317 38317 38317 38317 38317 38317 38319 38319 38319 38319 38319 38319 38319 38319 38319 38319 38319 38319 38319 38319 38319 38319 38319 38319 38319 
+ Optimal point: 10 10 10 10 
+++++++++++++++++++++++++++++++++++++++++++++++++++++++++++
++++++++++++++++++++++++++++++++++++++++++++++++
 + TIMESTAMP: 0.402949
REINVADE (38319)
  + pid: 38319
  + min_cores: 1
  + max_cores: 512
  + scalability graph: 
1, 1.39494, 1.5699, 1.6742, 1.74538, 1.79792, 1.83875, 1.87167, 1.89893, 1.922, 1.94184, 1.95915, 1.97442, 1.98802, 2.00024, 2.0113, 2.02136, 2.03058, 2.03906, 2.04689, 2.05415, 2.06092, 2.06724, 2.07316, 2.07872, 2.08396, 2.0889, 2.09358, 2.09801, 2.10222, 2.10622, 2.11003, 2.11367, 2.11715, 2.12048, 2.12367, 2.12672, 2.12966, 2.13248, 2.1352, 
Number of clients: 4

+++++++++++++++++++++++++++++++++++++++++++++++++++++++++++
+ Client Mapping:
  > Client 38317 (14):	7 8 9 10 11 12 13 14 15 16 17 18 19 20 
  > Client 38319 (10):	30 31 32 33 34 35 36 37 38 39 
  > Client 38316 (0):	
  > Client 38318 (6):	1 2 3 4 5 6 

+ Core Mapping:	0 38318 38318 38318 38318 38318 38318 38317 38317 38317 38317 38317 38317 38317 38317 38317 38317 38317 38317 38317 38317 0 0 0 0 0 0 0 0 0 38319 38319 38319 38319 38319 38319 38319 38319 38319 38319 
+ Optimal point: 10 10 10 10 
+++++++++++++++++++++++++++++++++++++++++++++++++++++++++++
++++++++++++++++++++++++++++++++++++++++++++++++
 + TIMESTAMP: 0.438986
REINVADE (38318)
  + pid: 38318
  + min_cores: 1
  + max_cores: 512
  + scalability graph: 
1, 1.39494, 1.5699, 1.6742, 1.74538, 1.79792, 1.83875, 1.87167, 1.89893, 1.922, 1.94184, 1.95915, 1.97442, 1.98802, 2.00024, 2.0113, 2.02136, 2.03058, 2.03906, 2.04689, 2.05415, 2.06092, 2.06724, 2.07316, 2.07872, 2.08396, 2.0889, 2.09358, 2.09801, 2.10222, 2.10622, 2.11003, 2.11367, 2.11715, 2.12048, 2.12367, 2.12672, 2.12966, 2.13248, 2.1352, 
Number of clients: 4

+++++++++++++++++++++++++++++++++++++++++++++++++++++++++++
+ Client Mapping:
  > Client 38317 (14):	7 8 9 10 11 12 13 14 15 16 17 18 19 20 
  > Client 38319 (10):	30 31 32 33 34 35 36 37 38 39 
  > Client 38316 (0):	
  > Client 38318 (10):	1 2 3 4 5 6 0 21 22 23 

+ Core Mapping:	38318 38318 38318 38318 38318 38318 38318 38317 38317 38317 38317 38317 38317 38317 38317 38317 38317 38317 38317 38317 38317 38318 38318 38318 0 0 0 0 0 0 38319 38319 38319 38319 38319 38319 38319 38319 38319 38319 
+ Optimal point: 10 10 10 10 
+++++++++++++++++++++++++++++++++++++++++++++++++++++++++++
++++++++++++++++++++++++++++++++++++++++++++++++
 + TIMESTAMP: 0.474572
REINVADE (38317)
  + pid: 38317
  + min_cores: 1
  + max_cores: 512
  + scalability graph: 
1, 1.39494, 1.5699, 1.6742, 1.74538, 1.79792, 1.83875, 1.87167, 1.89893, 1.922, 1.94184, 1.95915, 1.97442, 1.98802, 2.00024, 2.0113, 2.02136, 2.03058, 2.03906, 2.04689, 2.05415, 2.06092, 2.06724, 2.07316, 2.07872, 2.08396, 2.0889, 2.09358, 2.09801, 2.10222, 2.10622, 2.11003, 2.11367, 2.11715, 2.12048, 2.12367, 2.12672, 2.12966, 2.13248, 2.1352, 
Number of clients: 4

+++++++++++++++++++++++++++++++++++++++++++++++++++++++++++
+ Client Mapping:
  > Client 38317 (10):	11 12 13 14 15 16 17 18 19 20 
  > Client 38319 (10):	30 31 32 33 34 35 36 37 38 39 
  > Client 38316 (0):	
  > Client 38318 (10):	1 2 3 4 5 6 0 21 22 23 

+ Core Mapping:	38318 38318 38318 38318 38318 38318 38318 0 0 0 0 38317 38317 38317 38317 38317 38317 38317 38317 38317 38317 38318 38318 38318 0 0 0 0 0 0 38319 38319 38319 38319 38319 38319 38319 38319 38319 38319 
+ Optimal point: 10 10 10 10 
+++++++++++++++++++++++++++++++++++++++++++++++++++++++++++
++++++++++++++++++++++++++++++++++++++++++++++++
 + TIMESTAMP: 0.596194
REINVADE (38316)
  + pid: 38316
  + min_cores: 1
  + max_cores: 512
  + scalability graph: 
1, 1.39494, 1.5699, 1.6742, 1.74538, 1.79792, 1.83875, 1.87167, 1.89893, 1.922, 1.94184, 1.95915, 1.97442, 1.98802, 2.00024, 2.0113, 2.02136, 2.03058, 2.03906, 2.04689, 2.05415, 2.06092, 2.06724, 2.07316, 2.07872, 2.08396, 2.0889, 2.09358, 2.09801, 2.10222, 2.10622, 2.11003, 2.11367, 2.11715, 2.12048, 2.12367, 2.12672, 2.12966, 2.13248, 2.1352, 
Number of clients: 4

+++++++++++++++++++++++++++++++++++++++++++++++++++++++++++
+ Client Mapping:
  > Client 38317 (10):	11 12 13 14 15 16 17 18 19 20 
  > Client 38319 (10):	30 31 32 33 34 35 36 37 38 39 
  > Client 38316 (10):	7 8 9 10 24 25 26 27 28 29 
  > Client 38318 (10):	1 2 3 4 5 6 0 21 22 23 

+ Core Mapping:	38318 38318 38318 38318 38318 38318 38318 38316 38316 38316 38316 38317 38317 38317 38317 38317 38317 38317 38317 38317 38317 38318 38318 38318 38316 38316 38316 38316 38316 38316 38319 38319 38319 38319 38319 38319 38319 38319 38319 38319 
+ Optimal point: 10 10 10 10 
+++++++++++++++++++++++++++++++++++++++++++++++++++++++++++
CLIENT SHUTDOWN: client 38317
 + TIMESTAMP: 763.441
+++++++++++++++++++++++++++++++++++++++++++++++++++++++++++
+ Client Mapping:
  > Client 38317 (0):	
  > Client 38319 (10):	30 31 32 33 34 35 36 37 38 39 
  > Client 38316 (10):	7 8 9 10 24 25 26 27 28 29 
  > Client 38318 (10):	1 2 3 4 5 6 0 21 22 23 

+ Core Mapping:	38318 38318 38318 38318 38318 38318 38318 38316 38316 38316 38316 0 0 0 0 0 0 0 0 0 0 38318 38318 38318 38316 38316 38316 38316 38316 38316 38319 38319 38319 38319 38319 38319 38319 38319 38319 38319 
+ Optimal point: 10 10 10 10 
+++++++++++++++++++++++++++++++++++++++++++++++++++++++++++
client (38317) shutdown hint: 20954.2
sum_client_shutdown_hint: 20954.2
sum_client_shutdown_hint_div_time: 0
++++++++++++++++++++++++++++++++++++++++++++++++
 + TIMESTAMP: 763.449
REINVADE (38316)
  + pid: 38316
  + min_cores: 1
  + max_cores: 512
  + scalability graph: 
1, 1.39494, 1.5699, 1.6742, 1.74538, 1.79792, 1.83875, 1.87167, 1.89893, 1.922, 1.94184, 1.95915, 1.97442, 1.98802, 2.00024, 2.0113, 2.02136, 2.03058, 2.03906, 2.04689, 2.05415, 2.06092, 2.06724, 2.07316, 2.07872, 2.08396, 2.0889, 2.09358, 2.09801, 2.10222, 2.10622, 2.11003, 2.11367, 2.11715, 2.12048, 2.12367, 2.12672, 2.12966, 2.13248, 2.1352, 
Number of clients: 3

+++++++++++++++++++++++++++++++++++++++++++++++++++++++++++
+ Client Mapping:
  > Client 38319 (10):	30 31 32 33 34 35 36 37 38 39 
  > Client 38316 (13):	7 8 9 10 24 25 26 27 28 29 11 12 13 
  > Client 38318 (10):	1 2 3 4 5 6 0 21 22 23 

+ Core Mapping:	38318 38318 38318 38318 38318 38318 38318 38316 38316 38316 38316 38316 38316 38316 0 0 0 0 0 0 0 38318 38318 38318 38316 38316 38316 38316 38316 38316 38319 38319 38319 38319 38319 38319 38319 38319 38319 38319 
+ Optimal point: 14 13 13 
+++++++++++++++++++++++++++++++++++++++++++++++++++++++++++
++++++++++++++++++++++++++++++++++++++++++++++++
 + TIMESTAMP: 763.452
REINVADE (38318)
  + pid: 38318
  + min_cores: 1
  + max_cores: 512
  + scalability graph: 
1, 1.39494, 1.5699, 1.6742, 1.74538, 1.79792, 1.83875, 1.87167, 1.89893, 1.922, 1.94184, 1.95915, 1.97442, 1.98802, 2.00024, 2.0113, 2.02136, 2.03058, 2.03906, 2.04689, 2.05415, 2.06092, 2.06724, 2.07316, 2.07872, 2.08396, 2.0889, 2.09358, 2.09801, 2.10222, 2.10622, 2.11003, 2.11367, 2.11715, 2.12048, 2.12367, 2.12672, 2.12966, 2.13248, 2.1352, 
Number of clients: 3

+++++++++++++++++++++++++++++++++++++++++++++++++++++++++++
+ Client Mapping:
  > Client 38319 (10):	30 31 32 33 34 35 36 37 38 39 
  > Client 38316 (13):	7 8 9 10 24 25 26 27 28 29 11 12 13 
  > Client 38318 (13):	1 2 3 4 5 6 0 21 22 23 14 15 16 

+ Core Mapping:	38318 38318 38318 38318 38318 38318 38318 38316 38316 38316 38316 38316 38316 38316 38318 38318 38318 0 0 0 0 38318 38318 38318 38316 38316 38316 38316 38316 38316 38319 38319 38319 38319 38319 38319 38319 38319 38319 38319 
+ Optimal point: 14 13 13 
+++++++++++++++++++++++++++++++++++++++++++++++++++++++++++
++++++++++++++++++++++++++++++++++++++++++++++++
 + TIMESTAMP: 763.46
REINVADE (38319)
  + pid: 38319
  + min_cores: 1
  + max_cores: 512
  + scalability graph: 
1, 1.39494, 1.5699, 1.6742, 1.74538, 1.79792, 1.83875, 1.87167, 1.89893, 1.922, 1.94184, 1.95915, 1.97442, 1.98802, 2.00024, 2.0113, 2.02136, 2.03058, 2.03906, 2.04689, 2.05415, 2.06092, 2.06724, 2.07316, 2.07872, 2.08396, 2.0889, 2.09358, 2.09801, 2.10222, 2.10622, 2.11003, 2.11367, 2.11715, 2.12048, 2.12367, 2.12672, 2.12966, 2.13248, 2.1352, 
Number of clients: 3

+++++++++++++++++++++++++++++++++++++++++++++++++++++++++++
+ Client Mapping:
  > Client 38319 (14):	30 31 32 33 34 35 36 37 38 39 17 18 19 20 
  > Client 38316 (13):	7 8 9 10 24 25 26 27 28 29 11 12 13 
  > Client 38318 (13):	1 2 3 4 5 6 0 21 22 23 14 15 16 

+ Core Mapping:	38318 38318 38318 38318 38318 38318 38318 38316 38316 38316 38316 38316 38316 38316 38318 38318 38318 38319 38319 38319 38319 38318 38318 38318 38316 38316 38316 38316 38316 38316 38319 38319 38319 38319 38319 38319 38319 38319 38319 38319 
+ Optimal point: 14 13 13 
+++++++++++++++++++++++++++++++++++++++++++++++++++++++++++
CLIENT SHUTDOWN: client 38319
 + TIMESTAMP: 764.008
+++++++++++++++++++++++++++++++++++++++++++++++++++++++++++
+ Client Mapping:
  > Client 38319 (0):	
  > Client 38316 (13):	7 8 9 10 24 25 26 27 28 29 11 12 13 
  > Client 38318 (13):	1 2 3 4 5 6 0 21 22 23 14 15 16 

+ Core Mapping:	38318 38318 38318 38318 38318 38318 38318 38316 38316 38316 38316 38316 38316 38316 38318 38318 38318 0 0 0 0 38318 38318 38318 38316 38316 38316 38316 38316 38316 0 0 0 0 0 0 0 0 0 0 
+ Optimal point: 14 13 13 
+++++++++++++++++++++++++++++++++++++++++++++++++++++++++++
client (38319) shutdown hint: 20954.2
sum_client_shutdown_hint: 41908.4
sum_client_shutdown_hint_div_time: 0
++++++++++++++++++++++++++++++++++++++++++++++++
 + TIMESTAMP: 764.015
REINVADE (38318)
  + pid: 38318
  + min_cores: 1
  + max_cores: 512
  + scalability graph: 
1, 1.39494, 1.5699, 1.6742, 1.74538, 1.79792, 1.83875, 1.87167, 1.89893, 1.922, 1.94184, 1.95915, 1.97442, 1.98802, 2.00024, 2.0113, 2.02136, 2.03058, 2.03906, 2.04689, 2.05415, 2.06092, 2.06724, 2.07316, 2.07872, 2.08396, 2.0889, 2.09358, 2.09801, 2.10222, 2.10622, 2.11003, 2.11367, 2.11715, 2.12048, 2.12367, 2.12672, 2.12966, 2.13248, 2.1352, 
Number of clients: 2

+++++++++++++++++++++++++++++++++++++++++++++++++++++++++++
+ Client Mapping:
  > Client 38316 (13):	7 8 9 10 24 25 26 27 28 29 11 12 13 
  > Client 38318 (20):	1 2 3 4 5 6 0 21 22 23 14 15 16 17 18 19 20 30 31 32 

+ Core Mapping:	38318 38318 38318 38318 38318 38318 38318 38316 38316 38316 38316 38316 38316 38316 38318 38318 38318 38318 38318 38318 38318 38318 38318 38318 38316 38316 38316 38316 38316 38316 38318 38318 38318 0 0 0 0 0 0 0 
+ Optimal point: 20 20 
+++++++++++++++++++++++++++++++++++++++++++++++++++++++++++
++++++++++++++++++++++++++++++++++++++++++++++++
 + TIMESTAMP: 764.015
REINVADE (38316)
  + pid: 38316
  + min_cores: 1
  + max_cores: 512
  + scalability graph: 
1, 1.39494, 1.5699, 1.6742, 1.74538, 1.79792, 1.83875, 1.87167, 1.89893, 1.922, 1.94184, 1.95915, 1.97442, 1.98802, 2.00024, 2.0113, 2.02136, 2.03058, 2.03906, 2.04689, 2.05415, 2.06092, 2.06724, 2.07316, 2.07872, 2.08396, 2.0889, 2.09358, 2.09801, 2.10222, 2.10622, 2.11003, 2.11367, 2.11715, 2.12048, 2.12367, 2.12672, 2.12966, 2.13248, 2.1352, 
Number of clients: 2

+++++++++++++++++++++++++++++++++++++++++++++++++++++++++++
+ Client Mapping:
  > Client 38316 (20):	7 8 9 10 24 25 26 27 28 29 11 12 13 33 34 35 36 37 38 39 
  > Client 38318 (20):	1 2 3 4 5 6 0 21 22 23 14 15 16 17 18 19 20 30 31 32 

+ Core Mapping:	38318 38318 38318 38318 38318 38318 38318 38316 38316 38316 38316 38316 38316 38316 38318 38318 38318 38318 38318 38318 38318 38318 38318 38318 38316 38316 38316 38316 38316 38316 38318 38318 38318 38316 38316 38316 38316 38316 38316 38316 
+ Optimal point: 20 20 
+++++++++++++++++++++++++++++++++++++++++++++++++++++++++++
CLIENT SHUTDOWN: client 38318
 + TIMESTAMP: 768.516
+++++++++++++++++++++++++++++++++++++++++++++++++++++++++++
+ Client Mapping:
  > Client 38316 (20):	7 8 9 10 24 25 26 27 28 29 11 12 13 33 34 35 36 37 38 39 
  > Client 38318 (0):	

+ Core Mapping:	0 0 0 0 0 0 0 38316 38316 38316 38316 38316 38316 38316 0 0 0 0 0 0 0 0 0 0 38316 38316 38316 38316 38316 38316 0 0 0 38316 38316 38316 38316 38316 38316 38316 
+ Optimal point: 20 20 
+++++++++++++++++++++++++++++++++++++++++++++++++++++++++++
client (38318) shutdown hint: 20954.2
sum_client_shutdown_hint: 62862.6
sum_client_shutdown_hint_div_time: 0
++++++++++++++++++++++++++++++++++++++++++++++++
 + TIMESTAMP: 768.527
REINVADE (38316)
  + pid: 38316
  + min_cores: 1
  + max_cores: 512
  + scalability graph: 
1, 1.39494, 1.5699, 1.6742, 1.74538, 1.79792, 1.83875, 1.87167, 1.89893, 1.922, 1.94184, 1.95915, 1.97442, 1.98802, 2.00024, 2.0113, 2.02136, 2.03058, 2.03906, 2.04689, 2.05415, 2.06092, 2.06724, 2.07316, 2.07872, 2.08396, 2.0889, 2.09358, 2.09801, 2.10222, 2.10622, 2.11003, 2.11367, 2.11715, 2.12048, 2.12367, 2.12672, 2.12966, 2.13248, 2.1352, 
Number of clients: 1

+++++++++++++++++++++++++++++++++++++++++++++++++++++++++++
+ Client Mapping:
  > Client 38316 (40):	7 8 9 10 24 25 26 27 28 29 11 12 13 33 34 35 36 37 38 39 0 1 2 3 4 5 6 14 15 16 17 18 19 20 21 22 23 30 31 32 

+ Core Mapping:	38316 38316 38316 38316 38316 38316 38316 38316 38316 38316 38316 38316 38316 38316 38316 38316 38316 38316 38316 38316 38316 38316 38316 38316 38316 38316 38316 38316 38316 38316 38316 38316 38316 38316 38316 38316 38316 38316 38316 38316 
+ Optimal point: 40 
+++++++++++++++++++++++++++++++++++++++++++++++++++++++++++
CLIENT SHUTDOWN: client 38316
 + TIMESTAMP: 768.818
+++++++++++++++++++++++++++++++++++++++++++++++++++++++++++
+ Client Mapping:
  > Client 38316 (0):	

+ Core Mapping:	0 0 0 0 0 0 0 0 0 0 0 0 0 0 0 0 0 0 0 0 0 0 0 0 0 0 0 0 0 0 0 0 0 0 0 0 0 0 0 0 
+ Optimal point: 40 
+++++++++++++++++++++++++++++++++++++++++++++++++++++++++++
client (38316) shutdown hint: 20954.2
sum_client_shutdown_hint: 83816.8
sum_client_shutdown_hint_div_time: 0
END TIMESTAMP: 768.818
OVERALL TIME: 768.503
 + sum_client_shutdown_hint: 83816.8
 + sum_client_shutdown_hint/time: 109.065
sum_client_shutdown_hint: 83816.8
sum_client_shutdown_hint_div_time: 109.065
