THREADS	MTPS	TIMESTEPS	TIMESTEP_SIZE	SECONDS_FOR_SIMULATION	AVERAGE_TRIANGLES	AVERAGE_PARTITIONS
80	69.2571	100	0.000491318	27.5018	1.90469e+07	1158.74
79	68.861	100	0.000491318	27.66	1.90469e+07	1158.74
78	67.7638	100	0.000491318	28.1078	1.90469e+07	1158.74
77	68.8854	100	0.000491318	27.6501	1.90469e+07	1158.74
76	68.451	100	0.000491318	27.8256	1.90469e+07	1158.74
75	67.657	100	0.000491318	28.1522	1.90469e+07	1158.74
74	67.2609	100	0.000491318	28.318	1.90469e+07	1158.74
73	68.0298	100	0.000491318	27.9979	1.90469e+07	1158.74
72	68.0561	100	0.000491318	27.9871	1.90469e+07	1158.74
71	67.4649	100	0.000491318	28.2324	1.90469e+07	1158.74
70	66.9947	100	0.000491318	28.4305	1.90469e+07	1158.74
69	66.6513	100	0.000491318	28.5769	1.90469e+07	1158.74
68	67.5921	100	0.000491318	28.1792	1.90469e+07	1158.74
67	65.7426	100	0.000491318	28.9719	1.90469e+07	1158.74
66	64.0111	100	0.000491318	29.7556	1.90469e+07	1158.74
65	67.7744	100	0.000491318	28.1034	1.90469e+07	1158.74
64	67.5076	100	0.000491318	28.2145	1.90469e+07	1158.74
63	62.4517	100	0.000491318	30.4986	1.90469e+07	1158.74
62	66.3801	100	0.000491318	28.6937	1.90469e+07	1158.74
61	66.6836	100	0.000491318	28.5631	1.90469e+07	1158.74
60	64.6624	100	0.000491318	29.4559	1.90469e+07	1158.74
59	65.9167	100	0.000491318	28.8954	1.90469e+07	1158.74
58	66.4209	100	0.000491318	28.6761	1.90469e+07	1158.74
57	62.9709	100	0.000491318	30.2471	1.90469e+07	1158.74
56	65.826	100	0.000491318	28.9352	1.90469e+07	1158.74
55	58.7692	100	0.000491318	32.4097	1.90469e+07	1158.74
54	63.6695	100	0.000491318	29.9153	1.90469e+07	1158.74
53	64.5141	100	0.000491318	29.5236	1.90469e+07	1158.74
52	63.5541	100	0.000491318	29.9696	1.90469e+07	1158.74
51	64.7843	100	0.000491318	29.4005	1.90469e+07	1158.74
50	63.1383	100	0.000491318	30.167	1.90469e+07	1158.74
49	62.2852	100	0.000491318	30.5802	1.90469e+07	1158.74
48	60.6587	100	0.000491318	31.4001	1.90469e+07	1158.74
47	63.8309	100	0.000491318	29.8396	1.90469e+07	1158.74
46	62.3694	100	0.000491318	30.5389	1.90469e+07	1158.74
45	64.9745	100	0.000491318	29.3145	1.90469e+07	1158.74
44	61.5616	100	0.000491318	30.9396	1.90469e+07	1158.74
43	64.1637	100	0.000491318	29.6849	1.90469e+07	1158.74
42	64.8136	100	0.000491318	29.3872	1.90469e+07	1158.74
41	64.2257	100	0.000491318	29.6562	1.90469e+07	1158.74
40	62.0671	100	0.000491318	30.6876	1.90469e+07	1158.74
39	59.8946	100	0.000491318	31.8007	1.90469e+07	1158.74
38	62.9239	100	0.000491318	30.2698	1.90469e+07	1158.74
37	59.1589	100	0.000491318	32.1962	1.90469e+07	1158.74
36	60.9792	100	0.000491318	31.2351	1.90469e+07	1158.74
35	60.6721	100	0.000491318	31.3932	1.90469e+07	1158.74
34	60.6851	100	0.000491318	31.3865	1.90469e+07	1158.74
33	58.7484	100	0.000491318	32.4212	1.90469e+07	1158.74
32	58.4237	100	0.000491318	32.6013	1.90469e+07	1158.74
31	58.0403	100	0.000491318	32.8167	1.90469e+07	1158.74
30	57.0943	100	0.000491318	33.3604	1.90469e+07	1158.74
29	55.4561	100	0.000491318	34.3459	1.90469e+07	1158.74
28	55.0601	100	0.000491318	34.593	1.90469e+07	1158.74
27	52.6982	100	0.000491318	36.1434	1.90469e+07	1158.74
26	50.2463	100	0.000491318	37.9071	1.90469e+07	1158.74
25	49.4257	100	0.000491318	38.5365	1.90469e+07	1158.74
24	48.729	100	0.000491318	39.0874	1.90469e+07	1158.74
23	48.539	100	0.000491318	39.2404	1.90469e+07	1158.74
22	47.2847	100	0.000491318	40.2813	1.90469e+07	1158.74
21	45.9259	100	0.000491318	41.4731	1.90469e+07	1158.74
20	44.0931	100	0.000491318	43.197	1.90469e+07	1158.74
19	42.5927	100	0.000491318	44.7187	1.90469e+07	1158.74
18	39.7573	100	0.000491318	47.908	1.90469e+07	1158.74
17	39.3676	100	0.000491318	48.3822	1.90469e+07	1158.74
16	37.0745	100	0.000491318	51.3747	1.90469e+07	1158.74
15	35.3264	100	0.000491318	53.917	1.90469e+07	1158.74
14	33.4584	100	0.000491318	56.9271	1.90469e+07	1158.74
13	31.3764	100	0.000491318	60.7045	1.90469e+07	1158.74
12	29.2404	100	0.000491318	65.1391	1.90469e+07	1158.74
11	27.053	100	0.000491318	70.4059	1.90469e+07	1158.74
10	24.7799	100	0.000491318	76.8642	1.90469e+07	1158.74
9	22.4242	100	0.000491318	84.9391	1.90469e+07	1158.74
8	19.9463	100	0.000491318	95.4908	1.90469e+07	1158.74
7	17.5956	100	0.000491318	108.248	1.90469e+07	1158.74
6	15.1444	100	0.000491318	125.769	1.90469e+07	1158.74
5	12.6437	100	0.000491318	150.643	1.90469e+07	1158.74
4	10.1522	100	0.000491318	187.614	1.90469e+07	1158.74
3	7.65549	100	0.000491318	248.801	1.90469e+07	1158.74
2	5.21637	100	0.000491318	365.138	1.90469e+07	1158.74
1	2.6612	100	0.000491318	715.727	1.90469e+07	1158.74
