Testrun	IPMO	IPMO_NONBLOCKING	OMP
1	2.36883	2.21153	2.18470
2	2.35741	2.22864	2.17989
3	2.46683	2.25091	2.18130
4	2.37072	2.25830	2.18530
5	2.31616	2.26521	2.18419
6	2.38060	2.21371	2.18215
7	2.43315	2.23925	2.17978
8	2.38539	2.18688	2.17912
9	2.40421	2.26203	2.17366
10	2.35870	2.22609	2.18651
11	2.36068	2.24352	2.17776
12	2.38482	2.16940	2.18591
13	2.33682	2.24292	2.18183
14	2.42981	2.17870	2.18457
15	2.35107	2.17709	2.18227
16	2.33928	2.23356	2.18071
17	2.41322	2.19534	2.18190
18	2.40810	2.20530	2.18419
19	2.35010	2.25210	2.18031
20	2.29043	2.20742	2.17703
21	2.40720	2.16990	2.18192
22	2.40467	2.22599	2.18375
23	2.41044	2.21072	2.18002
24	2.43002	2.26305	2.17942
25	2.40126	2.26679	2.18174

