%%MatrixMarket matrix array real general
4 10
1.
1.
1.
1.
0.
.2763932023
.7236067977
1.
0.
.7639320228e-1
.5236067977
1.
0.
.2111456181e-1
.3788854381
1.
1.
.7236067977
.2763932023
0.
0.
.2000000000
.2000000000
0.
0.
.5527864047e-1
.1447213596
0.
1.
.5236067977
.7639320228e-1
0.
0.
.1447213596
.5527864047e-1
0.
1.
.3788854381
.2111456181e-1
0.
