
Timesteps: 196608
INITIAL_DEPTH	SPLITTING_SIZE	MTPS	AVERAGE_TRIANGLES	AVERAGE_PARTITIONS
10	64	11.1082	2048	64
10	128	13.3357	2048	32
10	256	14.3697	2048	16
10	512	16.0291	2048	8
10	1024	12.1346	2048	4
10	2048	8.08447	2048	2
10	4096	8.07204	2048	2
10	8192	8.09034	2048	2
10	16384	7.88923	2048	2
10	32768	8.08433	2048	2
10	65536	8.02155	2048	2
10	131072	8.10813	2048	2
10	262144	8.00605	2048	2
10	524288	8.10255	2048	2

Timesteps: 98304
INITIAL_DEPTH	SPLITTING_SIZE	MTPS	AVERAGE_TRIANGLES	AVERAGE_PARTITIONS
11	64	14.472	4096	128
11	128	17.7041	4096	64
11	256	20.2665	4096	32
11	512	20.4043	4096	16
11	1024	20.9237	4096	8
11	2048	13.8291	4096	4
11	4096	8.46899	4096	2
11	8192	8.49026	4096	2
11	16384	8.46265	4096	2
11	32768	8.49855	4096	2
11	65536	8.52166	4096	2
11	131072	8.56895	4096	2
11	262144	8.43761	4096	2
11	524288	8.49332	4096	2

Timesteps: 49152
INITIAL_DEPTH	SPLITTING_SIZE	MTPS	AVERAGE_TRIANGLES	AVERAGE_PARTITIONS
12	64	17.7922	8192	256
12	128	22.0536	8192	128
12	256	25.3067	8192	64
12	512	27.6947	8192	32
12	1024	25.9174	8192	16
12	2048	26.0624	8192	8
12	4096	15.9898	8192	4
12	8192	9.14578	8192	2
12	16384	9.1756	8192	2
12	32768	9.04432	8192	2
12	65536	9.12002	8192	2
12	131072	9.15883	8192	2
12	262144	9.14159	8192	2
12	524288	9.10451	8192	2

Timesteps: 24576
INITIAL_DEPTH	SPLITTING_SIZE	MTPS	AVERAGE_TRIANGLES	AVERAGE_PARTITIONS
13	64	20.4804	16384	512
13	128	26.1002	16384	256
13	256	30.7086	16384	128
13	512	33.0301	16384	64
13	1024	34.2014	16384	32
13	2048	29.7862	16384	16
13	4096	29.8513	16384	8
13	8192	16.8986	16384	4
13	16384	9.42305	16384	2
13	32768	9.4045	16384	2
13	65536	9.32217	16384	2
13	131072	9.36935	16384	2
13	262144	9.37011	16384	2
13	524288	9.49661	16384	2

Timesteps: 12288
INITIAL_DEPTH	SPLITTING_SIZE	MTPS	AVERAGE_TRIANGLES	AVERAGE_PARTITIONS
14	64	22.2642	32768	1024
14	128	28.9301	32768	512
14	256	34.9616	32768	256
14	512	38.5794	32768	128
14	1024	40.0102	32768	64
14	2048	40.4057	32768	32
14	4096	34.0483	32768	16
14	8192	33.2079	32768	8
14	16384	18.3505	32768	4
14	32768	9.95117	32768	2
14	65536	9.91438	32768	2
14	131072	9.96662	32768	2
14	262144	9.96634	32768	2
14	524288	9.79835	32768	2

Timesteps: 6144
INITIAL_DEPTH	SPLITTING_SIZE	MTPS	AVERAGE_TRIANGLES	AVERAGE_PARTITIONS
15	64	21.6077	65536	2048
15	128	29.8957	65536	1024
15	256	37.0094	65536	512
15	512	41.4136	65536	256
15	1024	44.4885	65536	128
15	2048	44.2067	65536	64
15	4096	44.2628	65536	32
15	8192	36.1641	65536	16
15	16384	34.3968	65536	8
15	32768	18.7587	65536	4
15	65536	10.0391	65536	2
15	131072	9.94156	65536	2
15	262144	10.0265	65536	2
15	524288	10.0408	65536	2

Timesteps: 3072
INITIAL_DEPTH	SPLITTING_SIZE	MTPS	AVERAGE_TRIANGLES	AVERAGE_PARTITIONS
16	64	20.0989	131072	4096
16	128	28.1245	131072	2048
16	256	36.2564	131072	1024
16	512	42.4023	131072	512
16	1024	46.3591	131072	256
16	2048	48.3503	131072	128
16	4096	48.173	131072	64
16	8192	47.4422	131072	32
16	16384	38.2025	131072	16
16	32768	36.3454	131072	8
16	65536	19.4379	131072	4
16	131072	10.4342	131072	2
16	262144	10.4846	131072	2
16	524288	10.4977	131072	2

Timesteps: 1536
INITIAL_DEPTH	SPLITTING_SIZE	MTPS	AVERAGE_TRIANGLES	AVERAGE_PARTITIONS
17	64	19.2009	262144	8192
17	128	26.8526	262144	4096
17	256	34.2094	262144	2048
17	512	39.3427	262144	1024
17	1024	43.4927	262144	512
17	2048	45.5052	262144	256
17	4096	46.8005	262144	128
17	8192	45.2101	262144	64
17	16384	45.0708	262144	32
17	32768	35.9143	262144	16
17	65536	33.4942	262144	8
17	131072	18.9513	262144	4
17	262144	10.1042	262144	2
17	524288	10.202	262144	2

Timesteps: 768
INITIAL_DEPTH	SPLITTING_SIZE	MTPS	AVERAGE_TRIANGLES	AVERAGE_PARTITIONS
18	64	18.7015	524288	16384
18	128	26.3253	524288	8192
18	256	33.709	524288	4096
18	512	39.5316	524288	2048
18	1024	43.1658	524288	1024
18	2048	45.1855	524288	512
18	4096	46.4901	524288	256
18	8192	46.9702	524288	128
18	16384	44.7242	524288	64
18	32768	44.7911	524288	32
18	65536	35.5561	524288	16
18	131072	34.9231	524288	8
18	262144	19.2485	524288	4
18	524288	10.4505	524288	2

Timesteps: 384
INITIAL_DEPTH	SPLITTING_SIZE	MTPS	AVERAGE_TRIANGLES	AVERAGE_PARTITIONS
19	64	18.6488	1.04858e+06	32768
19	128	26.5087	1.04858e+06	16384
19	256	33.7928	1.04858e+06	8192
19	512	39.5006	1.04858e+06	4096
19	1024	43.2941	1.04858e+06	2048
19	2048	45.1076	1.04858e+06	1024
19	4096	46.7476	1.04858e+06	512
19	8192	47.0884	1.04858e+06	256
19	16384	47.6564	1.04858e+06	128
19	32768	44.898	1.04858e+06	64
19	65536	44.6982	1.04858e+06	32
19	131072	35.5023	1.04858e+06	16
19	262144	34.4623	1.04858e+06	8
19	524288	19.1245	1.04858e+06	4

Timesteps: 192
INITIAL_DEPTH	SPLITTING_SIZE	MTPS	AVERAGE_TRIANGLES	AVERAGE_PARTITIONS
20	64	18.2422	2.09715e+06	65536
20	128	25.5351	2.09715e+06	32768
20	256	33.8976	2.09715e+06	16384
20	512	39.7969	2.09715e+06	8192
20	1024	43.8204	2.09715e+06	4096
20	2048	46.0074	2.09715e+06	2048
20	4096	47.6366	2.09715e+06	1024
20	8192	48.6463	2.09715e+06	512
20	16384	48.447	2.09715e+06	256
20	32768	48.7533	2.09715e+06	128
20	65536	45.7965	2.09715e+06	64
20	131072	45.8462	2.09715e+06	32
20	262144	36.3715	2.09715e+06	16
20	524288	35.2621	2.09715e+06	8

Timesteps: 96
INITIAL_DEPTH	SPLITTING_SIZE	MTPS	AVERAGE_TRIANGLES	AVERAGE_PARTITIONS
21	64	18.1826	4.1943e+06	131072
21	128	25.9002	4.1943e+06	65536
21	256	33.7667	4.1943e+06	32768
21	512	39.8795	4.1943e+06	16384
21	1024	43.468	4.1943e+06	8192
21	2048	45.7032	4.1943e+06	4096
21	4096	47.5218	4.1943e+06	2048
21	8192	47.8524	4.1943e+06	1024
21	16384	48.9667	4.1943e+06	512
21	32768	48.3123	4.1943e+06	256
21	65536	48.2178	4.1943e+06	128
21	131072	45.3827	4.1943e+06	64
21	262144	45.0335	4.1943e+06	32
21	524288	36.062	4.1943e+06	16

Timesteps: 48
INITIAL_DEPTH	SPLITTING_SIZE	MTPS	AVERAGE_TRIANGLES	AVERAGE_PARTITIONS
22	64	17.9599	8.38861e+06	262144
22	128	25.6329	8.38861e+06	131072
22	256	33.4703	8.38861e+06	65536
22	512	39.7265	8.38861e+06	32768
22	1024	43.4108	8.38861e+06	16384
22	2048	46.0524	8.38861e+06	8192
22	4096	47.8865	8.38861e+06	4096
22	8192	48.9585	8.38861e+06	2048
22	16384	49.6502	8.38861e+06	1024
22	32768	49.835	8.38861e+06	512
22	65536	49.4282	8.38861e+06	256
22	131072	48.9519	8.38861e+06	128
22	262144	46.2404	8.38861e+06	64
22	524288	46.1912	8.38861e+06	32

Timesteps: 24
INITIAL_DEPTH	SPLITTING_SIZE	MTPS	AVERAGE_TRIANGLES	AVERAGE_PARTITIONS
23	64	17.9219	1.67772e+07	524288
23	128	25.7635	1.67772e+07	262144
23	256	33.3619	1.67772e+07	131072
23	512	39.4225	1.67772e+07	65536
23	1024	43.7239	1.67772e+07	32768
23	2048	45.9141	1.67772e+07	16384
23	4096	47.8661	1.67772e+07	8192
23	8192	48.6788	1.67772e+07	4096
23	16384	49.1312	1.67772e+07	2048
23	32768	49.1851	1.67772e+07	1024
23	65536	48.9633	1.67772e+07	512
23	131072	48.8065	1.67772e+07	256
23	262144	48.7552	1.67772e+07	128
23	524288	45.8891	1.67772e+07	64

Timesteps: 12
INITIAL_DEPTH	SPLITTING_SIZE	MTPS	AVERAGE_TRIANGLES	AVERAGE_PARTITIONS
24	64	17.7711	3.35544e+07	1.04858e+06
24	128	25.4665	3.35544e+07	524288
24	256	33.2788	3.35544e+07	262144
24	512	39.2116	3.35544e+07	131072
24	1024	43.7079	3.35544e+07	65536
24	2048	46.4107	3.35544e+07	32768
24	4096	48.0921	3.35544e+07	16384
24	8192	49.5135	3.35544e+07	8192
24	16384	49.4145	3.35544e+07	4096
24	32768	49.7634	3.35544e+07	2048
24	65536	50.2219	3.35544e+07	1024
24	131072	49.6487	3.35544e+07	512
24	262144	49.5959	3.35544e+07	256
24	524288	48.923	3.35544e+07	128
