0	0
175.501	0
351.002	0
526.503	-0.000694346
702.004	0.165437
877.505	0.365068
1053.01	0.52349
1228.51	0.576441
1404.01	0.551527
1579.51	0.479576
1755.01	0.386497
1930.51	0.285145
2106.01	0.186766
2281.51	0.0993866
2457.01	0.0280468
2632.5	-0.0263439
2808	-0.0652371
2983.49	-0.0911697
3158.99	-0.106798
3334.48	-0.11477
3509.98	-0.117569
3685.48	-0.117299
3860.97	-0.115393
4036.47	-0.1125
4211.97	-0.108614
4387.46	-0.103412
4562.96	-0.0966235
4738.46	-0.0883203
4913.96	-0.0790041
5089.46	-0.0695244
5264.96	-0.0608792
5440.47	-0.0539871
5615.97	-0.0494989
5791.47	-0.0476876
5966.97	-0.0484292
6142.47	-0.0512658
6317.97	-0.0555239
6493.48	-0.0604578
6668.98	-0.0653824
6844.48	-0.0697692
7019.98	-0.0732933
7195.48	-0.0758296
7370.98	-0.0774114
7546.48	-0.0781683
7721.98	-0.0782622
7897.48	-0.077835
8072.98	-0.0769772
8248.49	-0.0757191
8423.99	-0.0740417
8599.49	-0.0719
8774.99	-0.0692504
8950.49	-0.0660739
9125.99	-0.0623913
9301.49	-0.0582672
9476.99	-0.053803
9652.49	-0.0491237
9827.99	-0.04436
10003.5	-0.0396327
10179	-0.0350398
10354.5	-0.0306502
10530	-0.0265023
10705.5	-0.0226087
10881	-0.0189631
11056.5	-0.0155487
11232	-0.0123453
11407.5	-0.00933513
11583	-0.00650519
11758.5	-0.00384817
11934	-0.00136105
12109.5	0.000956897
12285	0.00310606
12460.5	0.00508785
12636	0.00690503
12811.5	0.0085612
12987	0.0100596
13162.5	0.0114017
13338	0.0125861
13513.5	0.0136081
13689	0.0144596
13864.5	0.0151303
14040	0.015609
14215.5	0.0158854
14391	0.0159517
14566.5	0.0158044
14742	0.0154446
14917.5	0.014879
15093	0.0141195
15268.5	0.0131827
15444	0.0120892
15619.5	0.0108622
15795	0.00952692
15970.5	0.00810962
16146	0.00663653
16321.5	0.00513334
16497	0.0036246
16672.5	0.00213324
16848	0.000680167
17023.5	-0.000716067
17199	-0.00203953
17374.5	-0.00327709
17550	-0.00441848
17725.5	-0.00545634
17901	-0.006386
18076.5	-0.0072053
18252	-0.0079143
18427.5	-0.00851486
18603	-0.0090103
18778.5	-0.00940504
18954	-0.00970426
19129.5	-0.00991364
19305	-0.0100392
19480.5	-0.0100869
19656	-0.010063
19831.5	-0.00997361
