0	0
10.1663	0
20.3325	0
30.4987	0
40.6649	0
50.8311	0
60.9971	0
70.1464	0
80.3121	0
90.4777	0
100.643	0
110.808	0
120.974	0
130.123	0
140.289	0
150.455	0
160.429	0
170.394	0
180.358	0
190.322	0
200.286	0
210.25	0
220.215	0
230.179	0
240.143	0
250.107	0
260.071	0
270.035	0
280.996	0
290.959	0
300.921	0
310.883	0
320.845	0
330.807	0
340.769	0
350.731	0
360.693	0
370.655	0
380.617	0
390.579	0
400.541	0
410.495	0
420.369	0
430.184	0
440.974	0
450.777	0
460.501	0
470.142	0
480.715	0
490.327	0
500.9	0
510.512	0
520.124	0
530.675	0
540.201	0
550.652	0
560.15	0
570.596	0
580.083	0
590.512	0
600.931	0
610.395	0
620.804	0
630.268	0
640.677	0
650.14	0
660.55	0
670.013	0
680.422	0
690.832	0
700.295	0
710.704	0
720.167	0
730.576	0
740.029	0
750.409	0
760.787	0
770.222	0
780.6	0
790.035	0
800.414	0
810.793	0
820.228	0
830.606	0
840.041	0
850.42	0
860.798	0
870.233	0
880.612	0
890.047	0
900.425	0
910.804	0
920.239	0
930.617	0
940.052	0
950.43	0
960.809	0
970.244	0
980.622	0
990.057	0
1000.44	0
1010.81	0
1020.25	0
1030.63	0
1040.06	0
1050.44	0
1060.82	0
1070.25	0
1080.63	0
1090.07	0
1100.45	0
1110.82	0
1120.26	0
1130.64	0
1140.07	0
1150.45	0
1160.83	0
1170.26	0
1180.64	0
1190.08	0
1200.45	0
1210.83	0
1220.26	0
1230.64	0
1240.07	0
1250.45	0
1260.82	0
1270.26	0
1280.63	0
1290.07	0
1300.44	0
1310.82	0
1320.25	0
1330.59	0
1340.92	0
1350.32	0
1360.64	0
1370.02	0
1380.34	0
1390.66	0
1400.03	0
1410.32	0
1420.62	0
1430.91	0
1440.27	0
1450.55	0
1460.84	0
1470.2	0
1480.49	0
1490.77	0
1500.13	0
1510.4	0
1520.64	0
1530.87	0
1540.17	0
1550.41	0
1560.64	0
1570.87	0
1580.18	0
1590.41	0
1600.64	0
1610.87	0
1620.1	0
1630.19	0
1640.28	0
1650.37	0
1660.45	0
1670.54	0
1680.63	0
1690.71	0
1700.8	0
1710.89	0
1720.06	0
1730.14	0
1740.23	0
1750.31	0
1760.4	0
1770.49	0
1780.57	0
1790.66	0
1800.75	0
1810.83	0
1820	0
1830.09	0
1840.18	0
1850.26	0
1860.35	0
1870.43	0
1880.52	0
1890.61	0
1900.69	0
1910.78	0
1920.87	0
1930.04	0
1940.12	0
1950.21	0
1960.29	0
1970.38	0
1980.47	0
1990.55	0
2000.64	0
2010.73	0
2020.81	0
2030.9	0
2040.07	0
2050.15	0
2060.24	0
2070.33	0
2080.41	0
2090.5	0
2100.58	0
2110.67	0
2120.76	0
2130.84	0
2140.01	0
2150.1	0
2160.19	0
2170.27	0
2180.36	0
2190.44	0
2200.53	-2.72848e-12
2210.62	-1.09139e-11
2220.7	-1.81899e-11
2230.79	-2.72848e-11
2240.87	-3.63798e-11
2250.04	-4.54747e-11
2260.13	-5.54792e-11
2270.22	-6.54836e-11
2280.3	-7.54881e-11
2290.39	-8.54925e-11
2300.47	-9.54969e-11
2310.56	-1.10958e-10
2320.65	-1.30967e-10
2330.73	-1.50976e-10
2340.82	-1.80989e-10
2350.9	-2.17369e-10
2360.07	-2.58296e-10
2370.16	-3.13776e-10
2380.24	-3.81988e-10
2390.33	-4.69299e-10
2400.42	-5.77529e-10
2410.5	-7.10315e-10
2420.59	-8.74024e-10
2430.67	-1.07684e-09
2440.76	-1.32695e-09
2450.85	-1.63527e-09
2460.02	-1.97451e-09
2470.1	-2.42653e-09
2480.19	-2.97678e-09
2490.27	-3.6498e-09
2500.36	-4.46562e-09
2510.44	-5.45606e-09
2520.53	-6.65295e-09
2530.62	-8.09723e-09
2540.7	-9.83891e-09
2550.79	-1.19289e-08
2560.87	-1.44346e-08
2570.04	-1.71422e-08
2580.13	-2.06719e-08
2590.21	-2.4882e-08
2600.3	-2.98915e-08
2610.39	-3.58432e-08
2620.47	-4.29e-08
2630.48	-5.11855e-08
2640.57	-6.10371e-08
2650.66	-7.26532e-08
2660.74	-8.63211e-08
2670.83	-1.02375e-07
2680.91	-1.212e-07
2690.08	-1.41084e-07
2700.17	-1.66462e-07
2710.25	-1.96063e-07
2720.33	-2.30479e-07
2730.38	-2.70398e-07
2740.43	-3.16692e-07
2750.49	-3.70292e-07
2760.54	-4.32245e-07
2770.6	-5.03732e-07
2780.65	-5.86086e-07
2790.7	-6.80804e-07
2800.76	-7.89563e-07
2810.81	-9.14243e-07
2820.87	-1.05695e-06
2830	-1.20429e-06
2840.06	-1.38814e-06
2850.11	-1.59762e-06
2860.17	-1.83591e-06
2870.22	-2.10658e-06
2880.27	-2.41354e-06
2890.33	-2.76115e-06
2900.38	-3.1542e-06
2910.43	-3.59797e-06
2920.49	-4.09827e-06
2930.54	-4.6615e-06
2940.6	-5.29463e-06
2950.65	-6.00535e-06
2960.7	-6.80202e-06
2970.76	-7.69379e-06
2980.81	-8.69061e-06
2990.86	-9.80333e-06
3000	-1.09254e-05
3010.06	-1.22929e-05
3020.11	-1.38134e-05
3030.17	-1.55017e-05
3040.65	-1.74587e-05
3050.08	-1.9406e-05
3060.13	-2.16949e-05
3070.19	-2.42231e-05
3080.24	-2.70124e-05
3090.29	-3.00855e-05
3100.35	-3.34672e-05
3110.4	-3.71838e-05
3120.46	-4.12635e-05
3130.54	-4.57523e-05
3140.59	-5.06513e-05
3150.01	-5.5665e-05
3160.41	-6.17043e-05
3170.03	-6.77928e-05
3180.17	-7.47698e-05
3190.65	-8.26457e-05
3200.28	-9.05078e-05
3210.73	-9.97702e-05
3220	-0.000108675
