0	0
16.252	0
32.504	0
48.756	0
65.008	0
81.2599	0
97.5119	0
113.764	0
130.016	0
146.268	0
162.52	0
178.772	0
195.024	0
211.276	0
227.528	0
243.78	0
260.032	0
276.284	0
292.536	0
308.788	0
325.04	0
341.292	0
357.544	9.09495e-13
373.796	2.72848e-12
390.048	7.27596e-12
406.3	2.36469e-11
422.552	7.45786e-11
438.804	2.21007e-10
455.056	6.14818e-10
471.308	1.61344e-09
487.56	4.01633e-09
503.812	9.5215e-09
520.064	2.15741e-08
536.316	4.68699e-08
552.568	9.7918e-08
568.82	1.9724e-07
585.072	3.84026e-07
601.324	7.24335e-07
617.576	1.32629e-06
633.828	2.36208e-06
650.08	4.09911e-06
666.332	6.943e-06
682.584	1.14959e-05
698.836	1.86339e-05
715.088	2.96089e-05
731.34	4.61787e-05
747.591	7.07738e-05
763.843	0.000106705
780.095	0.000158423
796.347	0.000231831
812.599	0.000334669
828.851	0.000476967
845.103	0.000671576
861.355	0.000934784
877.607	0.00128702
893.859	0.00175362
910.111	0.0023657
926.363	0.00316104
942.615	0.00418501
958.867	0.00549153
975.119	0.00714391
991.371	0.00921564
1007.62	0.011791
1023.88	0.0149656
1040.13	0.018846
1056.38	0.0235502
1072.63	0.0292062
1088.88	0.0359514
1105.14	0.0439302
1121.39	0.0532925
1137.64	0.0641902
1153.89	0.076774
1170.14	0.0911895
1186.4	0.107573
1202.65	0.126045
1218.9	0.146708
1235.15	0.16964
1251.4	0.194888
1267.66	0.222464
1283.91	0.252344
1300.16	0.284457
1316.41	0.318689
1332.66	0.354876
1348.92	0.392803
1365.17	0.432206
1381.42	0.472774
1397.67	0.514148
1413.92	0.555925
1430.18	0.597667
1446.43	0.638901
1462.68	0.679131
1478.93	0.717843
1495.18	0.754516
1511.43	0.788628
1527.69	0.819668
1543.94	0.847143
1560.19	0.870592
1576.44	0.889588
1592.69	0.903752
1608.95	0.912758
1625.2	0.916341
1641.45	0.914299
1657.7	0.906502
1673.95	0.892889
1690.21	0.873475
1706.46	0.848348
1722.71	0.817669
1738.96	0.781666
1755.21	0.740635
1771.47	0.694933
1787.72	0.644969
1803.97	0.591202
1820.22	0.534131
1836.47	0.474285
1852.73	0.412221
1868.98	0.348507
1885.23	0.283721
1901.48	0.218437
1917.73	0.153223
1933.99	0.0886267
1950.24	0.0251736
1966.49	-0.0366415
1982.74	-0.0963589
1998.99	-0.153559
2015.25	-0.207868
2031.5	-0.258955
2047.75	-0.306543
2064	-0.350401
2080.25	-0.390351
2096.51	-0.426264
2112.76	-0.45806
2129.01	-0.485707
2145.26	-0.509215
2161.51	-0.528638
2177.77	-0.544068
2194.02	-0.555633
2210.27	-0.56349
2226.52	-0.567823
2242.77	-0.568842
2259.03	-0.566771
2275.28	-0.561853
2291.53	-0.554339
2307.78	-0.544489
2324.03	-0.532564
2340.29	-0.518828
2356.54	-0.503539
2372.79	-0.486953
2389.04	-0.469313
2405.29	-0.450857
2421.55	-0.431808
2437.8	-0.412376
2454.05	-0.392756
2470.3	-0.373128
2486.55	-0.353657
2502.81	-0.334489
2519.06	-0.315756
2535.31	-0.297572
2551.56	-0.280035
2567.81	-0.263227
2584.07	-0.247217
2600.32	-0.232058
2616.57	-0.217789
2632.82	-0.204437
2649.07	-0.192019
2665.33	-0.180537
2681.58	-0.169989
2697.83	-0.160361
2714.08	-0.151631
2730.33	-0.143772
2746.59	-0.13675
2762.84	-0.130529
2779.09	-0.125066
2795.34	-0.120315
2811.59	-0.116231
2827.85	-0.112765
2844.1	-0.109866
2860.35	-0.107485
2876.6	-0.105573
2892.85	-0.10408
2909.11	-0.102958
2925.36	-0.102162
2941.61	-0.101646
2957.86	-0.101367
2974.11	-0.101285
2990.36	-0.101361
3006.62	-0.101561
3022.87	-0.10185
3039.12	-0.102197
3055.37	-0.102575
3071.62	-0.102958
3087.88	-0.103323
3104.13	-0.10365
3120.38	-0.10392
3136.63	-0.104117
3152.88	-0.104228
3169.14	-0.104241
3185.39	-0.104148
3201.64	-0.10394
3217.89	-0.103611
3234.14	-0.103157
3250.39	-0.102576
3266.65	-0.101867
3282.9	-0.101028
3299.15	-0.100062
3315.4	-0.0989692
3331.65	-0.0977535
3347.9	-0.0964184
3364.16	-0.094968
3380.41	-0.093407
3396.66	-0.0917407
3412.91	-0.0899747
3429.16	-0.0881148
3445.41	-0.0861669
3461.66	-0.0841373
3477.92	-0.082032
3494.17	-0.0798572
3510.42	-0.0776189
3526.67	-0.0753231
3542.92	-0.0729756
3559.17	-0.0705819
3575.43	-0.0681474
3591.68	-0.0656771
3607.93	-0.063176
3624.18	-0.0606484
3640.43	-0.0580986
3656.68	-0.0555306
3672.93	-0.0529479
3689.19	-0.0503539
3705.44	-0.0477515
3721.69	-0.0451436
3737.94	-0.0425325
3754.19	-0.0399204
3770.44	-0.0373092
3786.69	-0.0347008
3802.94	-0.0320965
3819.2	-0.0294977
3835.45	-0.0269054
3851.7	-0.0243208
3867.95	-0.0217447
3884.2	-0.0191777
3900.45	-0.0166206
3916.7	-0.014074
3932.96	-0.0115384
3949.21	-0.00901433
3965.46	-0.0065023
3981.71	-0.00400282
3997.96	-0.00151642
4014.21	0.000956345
4030.46	0.00341487
4046.71	0.0058585
4062.97	0.00828651
4079.22	0.0106981
4095.47	0.0130924
4111.72	0.0154685
4127.97	0.0178254
4144.22	0.0201618
4160.48	0.0224766
4176.73	0.0247684
4192.98	0.0270359
4209.23	0.0292776
4225.48	0.0314918
4241.73	0.0336769
4257.98	0.0358311
4274.24	0.0379527
4290.49	0.0400396
4306.74	0.04209
4322.99	0.0441019
4339.24	0.0460731
4355.49	0.0480015
4371.75	0.049885
4388	0.0517214
4404.25	0.0535085
4420.5	0.0552441
4436.75	0.056926
4453.01	0.058552
4469.26	0.0601199
4485.51	0.0616275
4501.76	0.0630728
4518.01	0.0644537
4534.27	0.0657681
4550.52	0.0670142
4566.77	0.0681901
4583.02	0.069294
4599.27	0.0703242
4615.53	0.0712793
4631.78	0.0721577
4648.03	0.0729583
4664.28	0.0736797
4680.53	0.074321
4696.79	0.0748813
4713.04	0.0753599
4729.29	0.0757563
4745.54	0.0760701
4761.79	0.0763011
4778.04	0.0764494
4794.3	0.0765151
4810.55	0.0764985
4826.8	0.0764003
4843.05	0.0762213
4859.3	0.0759623
4875.56	0.0756246
4891.81	0.0752095
4908.06	0.0747184
4924.31	0.0741533
4940.56	0.0735158
4956.82	0.0728082
4973.07	0.0720326
4989.32	0.0711915
5005.57	0.0702874
5021.82	0.069323
5038.08	0.0683011
5054.33	0.0672248
5070.58	0.066097
5086.83	0.064921
5103.08	0.0637
5119.34	0.0624373
5135.59	0.0611365
5151.84	0.0598008
5168.09	0.0584338
5184.34	0.0570391
5200.6	0.0556201
5216.85	0.0541804
5233.1	0.0527236
5249.35	0.0512529
5265.6	0.049772
5281.85	0.0482843
5298.11	0.0467929
5314.36	0.0453012
5330.61	0.0438123
5346.86	0.0423293
5363.11	0.0408551
5379.37	0.0393925
5395.62	0.0379442
5411.87	0.0365127
5428.12	0.0351005
5444.37	0.0337098
5460.63	0.0323427
5476.88	0.031001
5493.13	0.0296866
5509.38	0.028401
5525.63	0.0271455
5541.89	0.0259215
5558.14	0.0247299
5574.39	0.0235716
5590.64	0.0224472
5606.89	0.0213573
5623.15	0.0203021
5639.4	0.0192817
5655.65	0.0182961
5671.9	0.0173452
5688.15	0.0164284
5704.41	0.0155452
5720.66	0.0146951
5736.91	0.013877
5753.16	0.0130901
5769.41	0.0123332
5785.67	0.011605
5801.92	0.0109043
5818.17	0.0102295
5834.42	0.00957914
5850.67	0.00895153
5866.93	0.00834495
5883.18	0.00775764
5899.43	0.00718774
5915.68	0.00663336
5931.93	0.00609259
5948.18	0.00556348
5964.44	0.00504407
5980.69	0.00453239
5996.94	0.00402648
6013.19	0.00352439
6029.44	0.00302422
6045.7	0.00252406
6061.95	0.00202207
6078.2	0.00151647
6094.45	0.00100551
6110.7	0.000487519
6126.96	-3.90964e-05
6143.21	-0.000575857
6159.46	-0.0011242
6175.71	-0.00168547
6191.96	-0.00226092
6208.22	-0.0028517
6224.47	-0.00345887
6240.72	-0.00408338
6256.97	-0.00472606
6273.22	-0.00538767
6289.48	-0.00606881
6305.73	-0.00677001
6321.98	-0.00749168
6338.23	-0.00823411
6354.48	-0.00899751
6370.74	-0.00978195
6386.99	-0.0105874
6403.24	-0.0114138
6419.49	-0.0122609
6435.74	-0.0131283
6452	-0.0140157
6468.25	-0.0149226
6484.5	-0.0158485
6500.75	-0.0167925
6517	-0.0177541
6533.26	-0.0187323
6549.51	-0.0197264
6565.76	-0.0207354
6582.01	-0.0217582
6598.26	-0.0227939
6614.52	-0.0238414
6630.77	-0.0248994
6647.02	-0.0259669
6663.27	-0.0270426
6679.52	-0.0281252
6695.78	-0.0292136
6712.03	-0.0303063
6728.28	-0.0314021
6744.53	-0.0324996
6760.78	-0.0335975
6777.04	-0.0346944
6793.29	-0.0357891
6809.54	-0.0368801
6825.79	-0.037966
6842.04	-0.0390456
6858.3	-0.0401174
6874.55	-0.0411802
6890.8	-0.0422327
6907.05	-0.0432734
6923.3	-0.0443011
6939.56	-0.0453146
6955.81	-0.0463126
6972.06	-0.0472938
6988.31	-0.048257
7004.56	-0.0492011
7020.82	-0.0501249
7037.07	-0.0510272
7053.32	-0.0519069
7069.57	-0.052763
7085.82	-0.0535945
7102.08	-0.0544002
7118.33	-0.0551792
7134.58	-0.0559306
7150.83	-0.0566535
7167.08	-0.0573469
7183.34	-0.05801
7199.59	-0.0586421
7215.84	-0.0592424
7232.09	-0.05981
7248.34	-0.0603445
7264.6	-0.060845
7280.85	-0.061311
7297.1	-0.061742
7313.35	-0.0621374
7329.6	-0.0624968
7345.86	-0.0628197
7362.11	-0.0631058
7378.36	-0.0633546
7394.61	-0.063566
7410.86	-0.0637396
7427.12	-0.0638753
7443.37	-0.063973
7459.62	-0.0640324
7475.87	-0.0640536
7492.12	-0.0640366
7508.38	-0.0639814
7524.63	-0.0638881
7540.88	-0.0637567
7557.13	-0.0635876
7573.38	-0.0633808
7589.64	-0.0631368
7605.89	-0.0628558
7622.14	-0.0625381
7638.39	-0.0621841
7654.64	-0.0617944
7670.89	-0.0613693
7687.15	-0.0609094
7703.4	-0.0604153
7719.65	-0.0598875
7735.9	-0.0593268
7752.15	-0.0587336
7768.41	-0.0581089
7784.66	-0.0574532
7800.91	-0.0567673
7817.16	-0.0560521
7833.41	-0.0553083
7849.67	-0.0545367
7865.92	-0.0537383
7882.17	-0.0529139
7898.42	-0.0520644
7914.67	-0.0511906
7930.93	-0.0502937
7947.18	-0.0493744
7963.43	-0.0484337
7979.68	-0.0474727
7995.93	-0.0464922
8012.18	-0.0454932
8028.44	-0.0444768
8044.69	-0.0434439
8060.94	-0.0423955
8077.19	-0.0413326
8093.44	-0.0402562
8109.7	-0.0391673
8125.95	-0.0380669
8142.2	-0.0369559
8158.45	-0.0358353
8174.7	-0.0347061
8190.96	-0.0335693
8207.21	-0.0324259
8223.46	-0.0312767
8239.71	-0.0301227
8255.96	-0.0289649
8272.21	-0.0278042
8288.47	-0.0266416
8304.72	-0.0254778
8320.97	-0.0243138
8337.22	-0.0231506
8353.47	-0.0219889
8369.73	-0.0208296
8385.98	-0.0196737
8402.23	-0.0185218
8418.48	-0.017375
8434.73	-0.0162339
8450.99	-0.0150994
8467.24	-0.0139722
8483.49	-0.0128532
8499.74	-0.0117432
8515.99	-0.0106428
8532.25	-0.00955283
8548.5	-0.00847404
8564.75	-0.00740713
8581	-0.0063528
8597.25	-0.00531174
8613.5	-0.00428464
8629.76	-0.00327216
8646.01	-0.00227494
8662.26	-0.00129362
8678.51	-0.000328829
8694.76	0.000618841
8711.02	0.0015488
8727.27	0.00246048
8743.52	0.00335332
8759.77	0.0042268
8776.02	0.00508039
8792.28	0.0059136
8808.53	0.00672596
8824.78	0.00751701
8841.03	0.00828632
8857.28	0.00903348
8873.54	0.00975811
8889.79	0.0104598
8906.04	0.0111383
8922.29	0.0117933
8938.54	0.0124244
8954.8	0.0130314
8971.05	0.0136142
8987.3	0.0141724
9003.55	0.0147059
9019.8	0.0152146
9036.05	0.0156983
9052.31	0.0161571
9068.56	0.0165908
9084.81	0.0169994
9101.06	0.0173829
9117.31	0.0177414
9133.57	0.0180751
9149.82	0.0183839
9166.07	0.018668
9182.32	0.0189277
9198.57	0.0191631
9214.83	0.0193744
9231.08	0.0195621
9247.33	0.0197263
9263.58	0.0198674
9279.83	0.0199858
9296.09	0.0200818
9312.34	0.020156
9328.59	0.0202088
9344.84	0.0202406
9361.09	0.020252
9377.35	0.0202435
9393.6	0.0202157
9409.85	0.0201691
9426.1	0.0201043
9442.35	0.0200221
9458.61	0.0199229
9474.86	0.0198075
9491.11	0.0196766
9507.36	0.0195307
9523.61	0.0193707
9539.87	0.0191971
9556.12	0.0190108
9572.37	0.0188124
9588.62	0.0186027
9604.87	0.0183823
9621.12	0.0181519
9637.38	0.0179124
9653.63	0.0176643
9669.88	0.0174085
9686.13	0.0171455
9702.38	0.0168761
9718.64	0.0166009
9734.89	0.0163206
9751.14	0.0160359
9767.39	0.0157473
9783.64	0.0154555
9799.9	0.015161
9816.15	0.0148645
9832.4	0.0145663
9848.65	0.0142672
9864.9	0.0139675
9881.16	0.0136677
9897.41	0.0133682
9913.66	0.0130696
9929.91	0.012772
9946.16	0.0124759
9962.42	0.0121817
9978.67	0.0118895
9994.92	0.0115996
10011.2	0.0113123
10027.4	0.0110278
10043.7	0.0107463
10059.9	0.0104678
10076.2	0.0101924
10092.4	0.0099203
10108.7	0.00965148
10124.9	0.00938597
10141.2	0.00912375
10157.4	0.00886477
10173.7	0.00860899
10189.9	0.0083563
10206.2	0.0081066
10222.4	0.00785974
10238.7	0.00761558
10255	0.00737393
10271.2	0.00713459
10287.5	0.00689736
10303.7	0.00666199
10320	0.00642826
10336.2	0.00619591
10352.5	0.00596465
10368.7	0.00573423
10385	0.00550435
10401.2	0.00527472
10417.5	0.00504504
10433.7	0.00481503
10450	0.00458437
10466.2	0.00435277
10482.5	0.00411992
10498.7	0.00388554
10515	0.00364932
10531.2	0.00341099
10547.5	0.00317027
10563.7	0.00292688
10580	0.00268057
10596.2	0.0024311
10612.5	0.00217821
10628.7	0.0019217
10645	0.00166134
10661.3	0.00139696
10677.5	0.00112836
10693.8	0.000855398
10710	0.00057792
10726.3	0.000295804
10742.5	8.94262e-06
10758.8	-0.000282752
10775	-0.000579347
10791.3	-0.000880891
10807.5	-0.00118741
10823.8	-0.00149893
10840	-0.00181541
10856.3	-0.00213684
10872.5	-0.00246317
10888.8	-0.00279432
10905	-0.0031302
10921.3	-0.00347071
10937.5	-0.00381571
10953.8	-0.00416506
10970	-0.0045186
10986.3	-0.00487614
11002.5	-0.00523749
11018.8	-0.00560243
11035	-0.00597073
11051.3	-0.00634216
11067.6	-0.00671645
11083.8	-0.00709333
11100.1	-0.00747252
11116.3	-0.00785372
11132.6	-0.00823665
11148.8	-0.00862097
11165.1	-0.00900637
11181.3	-0.00939252
11197.6	-0.00977908
11213.8	-0.0101657
11230.1	-0.0105521
11246.3	-0.0109378
11262.6	-0.0113226
11278.8	-0.0117061
11295.1	-0.0120879
11311.3	-0.0124676
11327.6	-0.012845
11343.8	-0.0132196
11360.1	-0.0135912
11376.3	-0.0139594
11392.6	-0.0143238
11408.8	-0.0146841
11425.1	-0.01504
11441.3	-0.0153912
11457.6	-0.0157374
11473.9	-0.0160783
11490.1	-0.0164136
11506.4	-0.0167429
11522.6	-0.0170661
11538.9	-0.0173829
11555.1	-0.0176931
11571.4	-0.0179964
11587.6	-0.0182926
11603.9	-0.0185814
11620.1	-0.0188629
11636.4	-0.0191366
11652.6	-0.0194026
11668.9	-0.0196605
11685.1	-0.0199104
11701.4	-0.0201522
11717.6	-0.0203856
11733.9	-0.0206106
11750.1	-0.0208272
11766.4	-0.0210354
11782.6	-0.021235
11798.9	-0.0214261
11815.1	-0.0216086
11831.4	-0.0217827
11847.6	-0.0219482
11863.9	-0.0221053
11880.2	-0.022254
11896.4	-0.0223944
11912.7	-0.0225266
11928.9	-0.0226506
11945.2	-0.0227666
11961.4	-0.0228747
11977.7	-0.0229751
11993.9	-0.0230678
12010.2	-0.0231531
12026.4	-0.0232311
12042.7	-0.023302
12058.9	-0.0233659
12075.2	-0.0234231
12091.4	-0.0234738
12107.7	-0.0235181
12123.9	-0.0235563
12140.2	-0.0235887
12156.4	-0.0236153
12172.7	-0.0236365
12188.9	-0.0236524
12205.2	-0.0236633
12221.4	-0.0236695
12237.7	-0.0236711
12253.9	-0.0236684
12270.2	-0.0236616
12286.4	-0.023651
12302.7	-0.0236367
12319	-0.023619
12335.2	-0.0235981
12351.5	-0.0235742
12367.7	-0.0235475
12384	-0.0235182
12400.2	-0.0234866
12416.5	-0.0234527
12432.7	-0.0234168
12449	-0.0233791
12465.2	-0.0233396
12481.5	-0.0232986
12497.7	-0.0232563
12514	-0.0232126
12530.2	-0.0231679
12546.5	-0.0231221
12562.7	-0.0230754
12579	-0.0230279
12595.2	-0.0229797
12611.5	-0.0229308
12627.7	-0.0228813
12644	-0.0228312
12660.2	-0.0227807
12676.5	-0.0227296
12692.7	-0.0226782
12709	-0.0226262
12725.3	-0.0225738
12741.5	-0.022521
12757.8	-0.0224677
12774	-0.0224138
12790.3	-0.0223594
12806.5	-0.0223044
12822.8	-0.0222487
12839	-0.0221923
12855.3	-0.0221351
12871.5	-0.022077
12887.8	-0.0220179
12904	-0.0219577
12920.3	-0.0218964
12936.5	-0.0218337
12952.8	-0.0217697
12969	-0.0217041
12985.3	-0.0216369
13001.5	-0.0215678
13017.8	-0.0214969
13034	-0.021424
13050.3	-0.0213488
13066.5	-0.0212713
13082.8	-0.0211914
13099	-0.0211089
13115.3	-0.0210237
13131.6	-0.0209355
13147.8	-0.0208444
13164.1	-0.0207501
13180.3	-0.0206525
13196.6	-0.0205515
13212.8	-0.020447
13229.1	-0.0203388
13245.3	-0.0202267
13261.6	-0.0201108
13277.8	-0.0199908
13294.1	-0.0198667
13310.3	-0.0197384
13326.6	-0.0196057
13342.8	-0.0194686
13359.1	-0.0193269
13375.3	-0.0191807
13391.6	-0.0190298
13407.8	-0.0188741
13424.1	-0.0187137
13440.3	-0.0185484
13456.6	-0.0183783
13472.8	-0.0182032
13489.1	-0.0180232
13505.3	-0.0178383
13521.6	-0.0176483
13537.9	-0.0174535
13554.1	-0.0172536
13570.4	-0.0170489
13586.6	-0.0168392
13602.9	-0.0166247
13619.1	-0.0164054
13635.4	-0.0161813
13651.6	-0.0159525
13667.9	-0.015719
13684.1	-0.015481
13700.4	-0.0152385
13716.6	-0.0149917
13732.9	-0.0147406
13749.1	-0.0144853
13765.4	-0.014226
13781.6	-0.0139627
13797.9	-0.0136957
13814.1	-0.0134251
13830.4	-0.013151
13846.6	-0.0128735
13862.9	-0.0125929
13879.1	-0.0123092
13895.4	-0.0120227
13911.6	-0.0117335
13927.9	-0.0114419
13944.2	-0.0111479
13960.4	-0.0108518
13976.7	-0.0105538
13992.9	-0.0102541
14009.2	-0.00995289
14025.4	-0.00965033
14041.7	-0.00934664
14057.9	-0.00904204
14074.2	-0.00873672
14090.4	-0.0084309
14106.7	-0.00812479
14122.9	-0.00781859
14139.2	-0.0075125
14155.4	-0.00720674
14171.7	-0.00690152
14187.9	-0.00659703
14204.2	-0.00629347
14220.4	-0.00599106
14236.7	-0.00568999
14252.9	-0.00539045
14269.2	-0.00509263
14285.4	-0.00479673
14301.7	-0.00450292
14317.9	-0.0042114
14334.2	-0.00392233
14350.5	-0.00363589
14366.7	-0.00335225
14383	-0.00307156
14399.2	-0.00279398
14415.5	-0.00251966
14431.7	-0.00224876
14448	-0.0019814
14464.2	-0.00171772
14480.5	-0.00145784
14496.7	-0.00120189
14513	-0.000949978
14529.2	-0.000702209
14545.5	-0.000458684
14561.7	-0.000219495
14578	1.52718e-05
14594.2	0.000245539
14610.5	0.000471235
14626.7	0.000692295
14643	0.000908663
14659.2	0.00112029
14675.5	0.00132713
14691.7	0.00152914
14708	0.00172631
14724.2	0.0019186
14740.5	0.00210601
14756.8	0.00228852
14773	0.00246613
14789.3	0.00263885
14805.5	0.00280669
14821.8	0.00296966
14838	0.0031278
14854.3	0.00328112
14870.5	0.00342967
14886.8	0.00357349
14903	0.00371262
14919.3	0.00384711
14935.5	0.00397704
14951.8	0.00410245
14968	0.00422341
14984.3	0.00434
15000.5	0.0044523
15016.8	0.00456038
15033	0.00466433
15049.3	0.00476423
15065.5	0.00486019
15081.8	0.0049523
15098	0.00504065
15114.3	0.00512534
15130.5	0.00520649
15146.8	0.00528419
15163.1	0.00535857
15179.3	0.00542972
15195.6	0.00549777
15211.8	0.00556282
15228.1	0.005625
15244.3	0.00568442
15260.6	0.00574119
15276.8	0.00579545
15293.1	0.00584731
15309.3	0.00589689
15325.6	0.0059443
15341.8	0.00598968
15358.1	0.00603314
15374.3	0.00607479
15390.6	0.00611476
15406.8	0.00615317
15423.1	0.00619012
15439.3	0.00622574
15455.6	0.00626014
15471.8	0.00629342
15488.1	0.0063257
15504.3	0.00635709
15520.6	0.00638769
15536.8	0.00641759
15553.1	0.00644691
15569.4	0.00647572
15585.6	0.00650414
15601.9	0.00653223
15618.1	0.0065601
15634.4	0.00658781
15650.6	0.00661545
15666.9	0.00664308
15683.1	0.00667078
15699.4	0.00669861
15715.6	0.00672662
15731.9	0.00675486
15748.1	0.00678339
15764.4	0.00681225
15780.6	0.00684146
15796.9	0.00687107
15813.1	0.00690109
15829.4	0.00693154
15845.6	0.00696243
15861.9	0.00699377
15878.1	0.00702556
15894.4	0.00705778
15910.6	0.00709043
15926.9	0.00712347
15943.1	0.00715688
15959.4	0.00719063
15975.6	0.00722466
15991.9	0.00725893
16008.2	0.00729337
16024.4	0.00732793
16040.7	0.00736253
16056.9	0.00739708
16073.2	0.0074315
16089.4	0.0074657
16105.7	0.00749956
16121.9	0.00753299
16138.2	0.00756586
16154.4	0.00759804
16170.7	0.00762942
16186.9	0.00765984
16203.2	0.00768917
16219.4	0.00771726
16235.7	0.00774394
16251.9	0.00776906
16268.2	0.00779244
16284.4	0.00781392
16300.7	0.00783331
16316.9	0.00785043
16333.2	0.00786509
16349.4	0.0078771
16365.7	0.00788627
16381.9	0.00789239
16398.2	0.00789527
16414.5	0.0078947
16430.7	0.00789048
16447	0.0078824
16463.2	0.00787025
16479.5	0.00785382
16495.7	0.00783291
16512	0.00780731
16528.2	0.00777682
16544.5	0.00774123
16560.7	0.00770035
16577	0.00765397
16593.2	0.00760191
16609.5	0.00754397
16625.7	0.00747998
16642	0.00740976
16658.2	0.00733313
16674.5	0.00724994
16690.7	0.00716003
16707	0.00706325
16723.2	0.00695947
16739.5	0.00684856
16755.7	0.0067304
16772	0.00660489
16788.2	0.00647194
16804.5	0.00633145
16820.8	0.00618338
16837	0.00602765
16853.3	0.00586422
16869.5	0.00569308
16885.8	0.00551421
16902	0.00532761
16918.3	0.0051333
16934.5	0.00493132
16950.8	0.00472172
16967	0.00450456
16983.3	0.00427994
16999.5	0.00404796
17015.8	0.00380873
17032	0.0035624
17048.3	0.00330911
17064.5	0.00304906
17080.8	0.00278241
17097	0.00250939
17113.3	0.00223022
17129.5	0.00194514
17145.8	0.00165442
17162	0.00135833
17178.3	0.00105717
17194.5	0.000751242
17210.8	0.00044088
17227.1	0.000126425
17243.3	-0.000191766
17259.6	-0.000513323
17275.8	-0.00083786
17292.1	-0.00116498
17308.3	-0.00149427
17324.6	-0.00182531
17340.8	-0.00215766
17357.1	-0.00249089
17373.3	-0.00282454
17389.6	-0.00315814
17405.8	-0.00349124
17422.1	-0.00382335
17438.3	-0.004154
17454.6	-0.0044827
17470.8	-0.00480896
17487.1	-0.0051323
17503.3	-0.00545221
17519.6	-0.00576822
17535.8	-0.00607982
17552.1	-0.00638654
17568.3	-0.00668787
17584.6	-0.00698336
17600.8	-0.0072725
17617.1	-0.00755485
17633.4	-0.00782993
17649.6	-0.0080973
17665.9	-0.0083565
17682.1	-0.00860711
17698.4	-0.00884871
17714.6	-0.00908089
17730.9	-0.00930326
17747.1	-0.00951543
17763.4	-0.00971704
17779.6	-0.00990775
17795.9	-0.0100872
17812.1	-0.0102552
17828.4	-0.0104113
17844.6	-0.0105553
17860.9	-0.0106869
17877.1	-0.010806
17893.4	-0.0109122
17909.6	-0.0110055
17925.9	-0.0110856
17942.1	-0.0111525
17958.4	-0.0112059
17974.6	-0.0112459
17990.9	-0.0112722
18007.1	-0.011285
18023.4	-0.0112841
18039.7	-0.0112696
18055.9	-0.0112414
18072.2	-0.0111997
18088.4	-0.0111445
18104.7	-0.0110759
18120.9	-0.0109941
18137.2	-0.0108991
18153.4	-0.0107912
18169.7	-0.0106704
18185.9	-0.0105372
18202.2	-0.0103915
18218.4	-0.0102338
18234.7	-0.0100643
18250.9	-0.00988332
18267.2	-0.00969109
18283.4	-0.00948799
18299.7	-0.00927434
18315.9	-0.00905053
18332.2	-0.00881692
18348.4	-0.00857391
18364.7	-0.0083219
18380.9	-0.0080613
18397.2	-0.00779256
18413.4	-0.0075161
18429.7	-0.00723238
18446	-0.00694186
18462.2	-0.006645
18478.5	-0.00634228
18494.7	-0.00603417
18511	-0.00572116
18527.2	-0.00540374
18543.5	-0.0050824
18559.7	-0.00475762
18576	-0.0044299
18592.2	-0.00409973
18608.5	-0.0037676
18624.7	-0.003434
18641	-0.00309941
18657.2	-0.00276432
18673.5	-0.00242919
18689.7	-0.0020945
18706	-0.00176072
18722.2	-0.00142828
18738.5	-0.00109765
18754.7	-0.000769256
18771	-0.000443526
18787.2	-0.000120879
18803.5	0.00019828
18819.7	0.000513558
18836	0.000824574
18852.3	0.00113096
18868.5	0.00143236
18884.8	0.00172843
18901	0.00201885
18917.3	0.0023033
18933.5	0.00258149
18949.8	0.00285314
18966	0.00311797
18982.3	0.00337574
18998.5	0.00362622
19014.8	0.00386919
19031	0.00410444
19047.3	0.00433179
19063.5	0.00455106
19079.8	0.00476211
19096	0.00496481
19112.3	0.00515902
19128.5	0.00534464
19144.8	0.00552159
19161	0.00568979
19177.3	0.00584919
19193.5	0.00599973
19209.8	0.00614141
19226	0.0062742
19242.3	0.00639811
19258.6	0.00651315
19274.8	0.00661936
19291.1	0.00671678
19307.3	0.00680546
19323.6	0.00688549
19339.8	0.00695693
19356.1	0.00701989
19372.3	0.00707447
19388.6	0.00712079
19404.8	0.00715898
19421.1	0.00718917
19437.3	0.00721152
19453.6	0.00722618
19469.8	0.00723331
19486.1	0.00723309
19502.3	0.00722571
19518.6	0.00721134
19534.8	0.0071902
19551.1	0.00716247
19567.3	0.00712837
19583.6	0.00708812
19599.8	0.00704192
19616.1	0.00699
19632.3	0.0069326
19648.6	0.00686993
19664.8	0.00680224
19681.1	0.00672975
19697.4	0.00665272
19713.6	0.00657137
19729.9	0.00648594
19746.1	0.00639669
19762.4	0.00630385
19778.6	0.00620766
19794.9	0.00610837
19811.1	0.00600622
19827.4	0.00590145
19843.6	0.0057943
19859.9	0.00568501
19876.1	0.00557381
19892.4	0.00546094
19908.6	0.00534663
19924.9	0.0052311
19941.1	0.00511458
19957.4	0.0049973
19973.6	0.00487947
19989.9	0.0047613
