0	0
16.3148	0
24.4721	0
32.6293	0
40.7865	0
57.1005	0
65.2573	0
73.4141	0
81.5708	0
97.8842	0
106.041	0
114.198	0
122.354	0
130.511	0
146.577	0
154.572	0
162.559	0
170.547	0
186.521	0
194.508	0
202.495	0
210.482	0
226.456	0
234.444	0
242.431	0
250.4	0
266.34	0
274.31	0
282.297	0
290.284	0
306.258	0
314.245	0
322.232	0
330.218	0
346.175	0
354.162	0
362.149	0
370.135	0
386.109	0
394.096	0
401.896	0
417.498	0
425.299	0
433.1	0
440.901	0
456.329	0
464.044	0
471.739	0
487.168	0
494.774	0
502.381	0
517.595	0
525.186	0
532.796	0
540.406	0
555.586	0
563.156	0
570.727	0
585.868	0
593.45	0
601.031	0
616.194	0
623.775	0
631.357	0
646.52	0
654.101	0
661.682	0
676.845	0
684.427	0
692.008	0
707.153	0
714.727	0
722.301	0
737.439	0
745.003	0
752.568	0
760.132	0
775.261	0
782.826	0
790.39	0
805.519	0
813.084	0
820.648	0
835.777	0
843.342	0
850.906	0
866.035	0
873.599	0
881.164	0
896.293	0
903.857	0
911.421	0
926.55	0
934.114	0
941.679	0
956.807	0
964.372	0
971.936	0
987.065	0
994.629	0
1002.19	0
1017.32	0
1024.89	0
1032.45	0
1040.02	0
1055.14	0
1062.71	0
1070.27	0
1085.4	0
1092.97	0
1100.53	0
1115.66	0
1123.22	0
1130.79	0
1145.92	0
1153.48	0
1161.04	0
1176.17	0
1183.74	0
1191.3	0
1206.43	0
1213.99	0
1221.56	0
1236.69	0
1244.25	0
1251.82	0
1266.94	0
1274.51	0
1282.07	0
1297.11	0
1304.63	0
1312.15	0
1327.18	0
1334.69	0
1342.2	0
1357.23	0
1364.75	0
1372.26	0
1387.29	0
1394.81	0
1402.32	0
1417.35	0
1424.87	0
1432.37	0
1447.36	0
1454.86	-9.09495e-13
1462.33	-1.81899e-12
1477.3	-3.63798e-12
1484.78	-5.45697e-12
1492.26	-7.27596e-12
1507.19	-1.36424e-11
1514.65	-1.81899e-11
1522.1	-2.45564e-11
1537.01	-4.27463e-11
1544.47	-5.63887e-11
1551.92	-7.45786e-11
1566.83	-1.27329e-10
1574.29	-1.66438e-10
1581.74	-2.1646e-10
1596.65	-3.61979e-10
1604.1	-4.65661e-10
1611.55	-5.97538e-10
1626.44	-9.74978e-10
1633.89	-1.23964e-09
1641.33	-1.57252e-09
1656.23	-2.5093e-09
1663.67	-3.15686e-09
1671.12	-3.96085e-09
1686.01	-6.18547e-09
1693.46	-7.69978e-09
1700.9	-9.56061e-09
1715.79	-1.46292e-08
1723.24	-1.80289e-08
1730.69	-2.21653e-08
1745.58	-3.32602e-08
1753.02	-4.05989e-08
1760.47	-4.9441e-08
1775.36	-7.28196e-08
1782.81	-8.80755e-08
1790.25	-1.06291e-07
1805.14	-1.53788e-07
1812.59	-1.84386e-07
1820.04	-2.20602e-07
1834.92	-3.13752e-07
1842.36	-3.72994e-07
1857.24	-5.23951e-07
1864.68	-6.19073e-07
1872.11	-7.30028e-07
1886.98	-1.00927e-06
1894.42	-1.1833e-06
1901.85	-1.38473e-06
1916.72	-1.88576e-06
1924.16	-2.19458e-06
1931.59	-2.54913e-06
1946.45	-3.421e-06
1953.88	-3.95266e-06
1961.31	-4.55904e-06
1976.17	-6.03416e-06
1983.6	-6.92453e-06
1991.03	-7.93308e-06
2005.89	-1.03611e-05
2013.32	-1.18123e-05
2020.75	-1.34453e-05
2035.61	-1.73376e-05
2043.04	-1.96419e-05
2050.47	-2.22184e-05
2065.33	-2.83007e-05
2072.76	-3.18687e-05
2080.2	-3.58337e-05
2095.06	-4.51076e-05
2102.49	-5.05e-05
2117.35	-6.30277e-05
2124.78	-7.02654e-05
2132.21	-7.82262e-05
2147.07	-9.65606e-05
2154.5	-0.000107065
2161.93	-0.000118555
2176.79	-0.000144794
2184.22	-0.000159707
2191.65	-0.00017593
2206.51	-0.000212679
2213.94	-0.000233402
2221.37	-0.000255828
2236.23	-0.000306229
2243.66	-0.000334433
2251.09	-0.000364802
2265.95	-0.000432531
2273.38	-0.000470153
2280.81	-0.000510461
2295.67	-0.000599689
2303.1	-0.000648896
2310.53	-0.00070136
2325.39	-0.000816656
2332.82	-0.000879791
2340.25	-0.000946785
2355.11	-0.00109297
2362.54	-0.00117246
2377.4	-0.00134499
2384.83	-0.00143832
2392.26	-0.00153656
2407.12	-0.0017483
2414.55	-0.00186206
2421.98	-0.00198125
2436.84	-0.00223637
2444.27	-0.0023725
2451.7	-0.00251447
2466.56	-0.00281623
2473.99	-0.00297614
2481.42	-0.00314213
2496.28	-0.00349245
2503.71	-0.00367678
2511.14	-0.00386721
2525.96	-0.00426508
2533.37	-0.00447268
2540.77	-0.00468606
2555.57	-0.00512956
2562.96	-0.0053589
2570.34	-0.00559338
2585.11	-0.00607686
2592.5	-0.00632537
2607.27	-0.00683446
2614.65	-0.00709437
2622.03	-0.00735737
2636.8	-0.00789099
2644.19	-0.0081607
2651.57	-0.00843171
2666.34	-0.00897545
2673.73	-0.00924705
2681.11	-0.00951765
2695.84	-0.0100517
2703.2	-0.0103145
2710.57	-0.0105737
2725.29	-0.0110775
2732.66	-0.0113207
2740.02	-0.011557
2754.75	-0.012005
2762.11	-0.012215
2776.84	-0.0126023
2784.2	-0.0127776
2791.56	-0.0129393
2806.29	-0.0132181
2813.65	-0.013333
2821.02	-0.0134302
2835.74	-0.0135672
2843.11	-0.0136047
2850.47	-0.0136202
2865.2	-0.0135808
2872.56	-0.0135236
2887.29	-0.0133291
2894.65	-0.0131896
2902.01	-0.0130206
2916.74	-0.0125898
2924.1	-0.012326
2931.47	-0.0120288
2946.19	-0.0113301
2953.56	-0.010927
2960.92	-0.0104869
2975.64	-0.00949283
2983.01	-0.00893714
2990.37	-0.00834136
3005.1	-0.00702751
3012.46	-0.00630873
3027.19	-0.00474508
3034.55	-0.00389833
3041.91	-0.00300627
3056.64	-0.00110211
3064	-9.6187e-05
3071.37	0.000943966
3086.09	0.00315599
3093.46	0.00434783
3100.82	0.0056052
3115.55	0.008366
3122.91	0.00993947
3130.27	0.0117255
3145	0.0118092
3152.36	0.0128476
3167.09	0.0168898
3174.45	0.0199713
3181.82	0.0233548
3196.54	0.0395411
3203.9	0.0460744
3211.27	0.0526622
3225.99	0.0665169
3233.36	0.0738528
3240.72	0.0814928
3255.45	0.097815
3262.81	0.106564
3270.17	0.115712
3284.9	0.135128
3292.26	0.145316
3306.99	0.166371
3314.35	0.177161
3321.72	0.188103
3336.44	0.210443
3343.8	0.221851
3351.17	0.233422
3365.89	0.257052
3373.26	0.269103
3380.62	0.281287
3395.35	0.305923
3402.71	0.318289
3410.07	0.33063
3424.8	0.355096
3432.16	0.367166
3446.89	0.390876
3454.25	0.402477
3461.61	0.41388
3476.34	0.435971
3483.7	0.44659
3491.07	0.456874
3505.79	0.476282
3513.15	0.485339
3520.52	0.493928
3535.24	0.509617
3542.61	0.516688
3557.33	0.529221
3564.7	0.534656
3572.06	0.539518
3586.78	0.547447
3594.15	0.550477
3601.51	0.552859
3616.24	0.555611
3623.6	0.555952
3630.96	0.55559
3645.69	0.55272
3653.05	0.550201
3660.41	0.546955
3675.14	0.538268
3682.5	0.532828
3697.23	0.519764
3704.59	0.512152
3711.96	0.50383
3726.68	0.485104
3734.04	0.474729
3741.41	0.4637
3756.13	0.439752
3763.5	0.42687
3770.86	0.413409
3785.59	0.384831
3792.95	0.369755
3800.31	0.354184
3815.04	0.321647
3822.4	0.304729
3837.13	0.269721
3844.49	0.251683
3851.85	0.233327
3866.58	0.195776
3873.94	0.176658
3881.31	0.157289
3896.03	0.11803
3903.4	0.0984507
3910.76	0.0784285
3925.48	0.0401363
3932.85	0.0146859
3940.21	-0.00211446
3954.94	-0.0271411
3962.3	-0.0381134
3977.03	-0.0431005
3984.39	-0.0485941
3991.75	-0.0753341
4006.48	-0.0872339
4013.84	-0.093412
4021.21	-0.0995181
4035.93	-0.112943
4043.3	-0.119442
4050.66	-0.125483
4065.39	-0.137196
4072.75	-0.14247
4080.11	-0.147335
4094.84	-0.156011
4102.2	-0.159918
4116.93	-0.167059
4124.29	-0.170344
4131.68	-0.173477
4146.46	-0.17931
4153.84	-0.182049
4161.23	-0.184692
4176.01	-0.189706
4183.39	-0.192076
4190.78	-0.194344
4205.56	-0.19852
4212.95	-0.20039
4220.33	-0.20209
4235.11	-0.204922
4242.5	-0.20603
4257.27	-0.2076
4264.66	-0.208062
4272.05	-0.208313
4286.82	-0.208215
4294.21	-0.207886
4301.6	-0.207387
4316.37	-0.205929
4323.76	-0.204994
4331.15	-0.203938
4345.93	-0.201491
4353.31	-0.200114
4360.7	-0.198639
4375.48	-0.195404
4382.86	-0.193643
4390.26	-0.191785
4405.04	-0.187773
4412.43	-0.185617
4427.21	-0.181005
4434.6	-0.178552
4442	-0.176005
4456.89	-0.170605
4464.33	-0.167783
4471.78	-0.164887
4486.67	-0.158908
4494.11	-0.155839
4501.55	-0.152729
4516.61	-0.14634
4524.13	-0.143109
4531.66	-0.139861
4546.71	-0.133331
4554.23	-0.130058
4561.76	-0.126782
4576.81	-0.120235
4584.34	-0.116968
4591.86	-0.113707
4606.91	-0.107212
4614.44	-0.103983
4621.97	-0.100769
4637.02	-0.0943996
4644.54	-0.0912504
4652.07	-0.0881296
4667.12	-0.081988
4674.65	-0.0789747
4682.17	-0.0760044
4697.22	-0.0702062
4704.75	-0.0673842
4712.28	-0.0646171
4727.33	-0.0592555
4734.85	-0.0566644
4742.38	-0.0541346
4757.43	-0.0492626
4764.96	-0.0469215
4772.48	-0.0446443
4780.01	-0.0424311
4795.06	-0.038198
4802.59	-0.0361784
4810.11	-0.0342238
4825.16	-0.0305107
4832.69	-0.0287528
4840.21	-0.027061
4855.27	-0.0238769
4862.79	-0.0223851
4870.32	-0.0209603
4885.37	-0.0183117
4892.9	-0.0170876
4900.42	-0.0159299
4915.47	-0.0138115
4923	-0.0128496
4930.52	-0.0119515
4945.58	-0.0103429
4953.1	-0.00963047
4960.63	-0.00897776
4975.68	-0.00784706
4983.21	-0.00736676
4990.73	-0.0069416
5005.78	-0.00625206
5013.31	-0.00598535
5020.84	-0.00576914
5035.92	-0.00548302
5043.47	-0.00541139
5051.01	-0.0053858
5066.12	-0.00546805
5073.68	-0.00557364
5081.25	-0.00572054
5096.38	-0.00613296
5103.94	-0.00639581
5111.51	-0.00669462
5126.63	-0.00739462
5134.2	-0.00779306
5141.76	-0.00822197
5156.89	-0.00916581
5164.46	-0.00967809
5172.02	-0.0102155
5187.15	-0.0113609
5194.71	-0.0119664
5202.28	-0.0125921
5217.41	-0.0138996
5224.97	-0.0145791
5232.54	-0.0152743
5240.1	-0.0159842
5255.23	-0.0174435
5262.79	-0.0181908
5270.36	-0.0189486
5285.49	-0.0204912
5293.05	-0.0212741
5300.62	-0.0220634
5315.75	-0.0236573
5323.31	-0.02446
5330.88	-0.0252654
5346	-0.0268806
5353.57	-0.0276887
5361.13	-0.028496
5376.26	-0.0301051
5383.83	-0.0309054
5391.39	-0.0317019
5406.52	-0.0332807
5414.08	-0.0340617
5421.65	-0.0348362
5436.78	-0.0363637
5444.34	-0.0371154
5451.91	-0.0378584
5467.03	-0.0393162
5474.6	-0.0400301
5482.16	-0.0407333
5497.29	-0.042106
5504.86	-0.0427748
5512.42	-0.0434312
5527.55	-0.0447059
5535.11	-0.0453235
5542.68	-0.0459274
5550.24	-0.0465175
5565.37	-0.0476547
5572.94	-0.0482014
5580.5	-0.0487331
5595.63	-0.0497506
5603.15	-0.0502331
5610.67	-0.0506998
5625.7	-0.0515854
5633.22	-0.0520037
5640.73	-0.0524055
5655.75	-0.0531583
5663.27	-0.0535095
5670.79	-0.0538434
5685.82	-0.0544589
5693.33	-0.05474
5700.85	-0.0550032
5715.88	-0.0554751
5723.39	-0.0556835
5730.91	-0.0558733
5745.94	-0.0561967
5753.44	-0.0563298
5760.94	-0.0564438
5775.93	-0.0566146
5783.41	-0.0566709
5790.89	-0.0567081
5805.85	-0.0567244
5813.33	-0.0567034
5820.81	-0.056663
5835.74	-0.056524
5843.2	-0.0564255
5850.65	-0.0563077
5865.56	-0.0560143
5873.02	-0.0558388
5880.47	-0.0556441
5895.38	-0.0551978
5902.84	-0.0549463
5910.3	-0.0546762
5925.2	-0.0540808
5932.65	-0.0537558
5940.1	-0.0534128
5955	-0.0526737
5962.44	-0.0522782
5977.33	-0.0514365
5984.78	-0.0509907
5992.23	-0.0505287
6007.12	-0.0495572
6014.56	-0.0490483
6022.01	-0.0485245
6036.9	-0.0474334
6044.35	-0.0468667
6051.79	-0.0462865
6066.69	-0.0450868
6074.13	-0.044468
6081.58	-0.0438372
6096.47	-0.0425406
6103.92	-0.0418756
6111.36	-0.0412
6126.25	-0.0398184
6133.7	-0.0391131
6141.15	-0.0383986
6156.04	-0.0369434
6163.48	-0.0362041
6170.92	-0.0354569
6185.8	-0.0339407
6193.23	-0.0331729
6200.67	-0.0323987
6215.54	-0.0308327
6222.97	-0.0300416
6230.41	-0.0292457
6245.28	-0.0276411
6252.72	-0.0268332
6260.15	-0.0260222
6275.01	-0.0243941
6282.44	-0.0235773
6297.3	-0.0219414
6304.73	-0.0211234
6312.16	-0.0203062
6327.02	-0.0186767
6334.45	-0.0178658
6341.88	-0.0170583
6356.74	-0.0154569
6364.17	-0.0146643
6371.6	-0.0138782
6386.47	-0.0123284
6393.9	-0.0115662
6401.33	-0.0108134
6416.19	-0.00933911
6423.62	-0.00861892
6431.05	-0.00791094
6445.91	-0.00653401
6453.34	-0.00586619
6460.77	-0.00521279
6475.63	-0.003951
6483.06	-0.00334333
6490.49	-0.00275154
6505.35	-0.0016164
6512.78	-0.0010733
6520.21	-0.000546585
6535.07	0.00045786
6542.5	0.000935816
6557.36	0.00184415
6564.79	0.00227505
6572.22	0.00269084
6587.08	0.00347845
6594.51	0.00385096
6601.94	0.00420972
6616.8	0.00488716
6624.23	0.00520629
6631.66	0.0055126
6646.52	0.00608743
6653.95	0.00635637
6661.38	0.00661332
6676.25	0.00709229
6683.68	0.00731491
6691.11	0.00752654
6705.97	0.00791908
6713.4	0.0081016
6720.83	0.00827617
6735.69	0.0086101
6743.12	0.00877532
6750.55	0.00894322
6765.41	0.00929684
6772.84	0.00948649
6780.27	0.00968655
6795.13	0.0101132
6802.56	0.010337
6817.42	0.0108054
6824.85	0.0110515
6832.28	0.0113059
6847.14	0.0117817
6854.57	0.0120186
6861.99	0.0122668
6876.79	0.0128056
6884.2	0.0131051
6891.6	0.0134246
6906.4	0.0141067
6913.8	0.0144589
6921.19	0.0148122
6935.96	0.0155144
6943.34	0.0158609
6950.73	0.0162034
6965.5	0.0168439
6972.88	0.0171518
6980.27	0.0174591
6995.04	0.0180504
7002.42	0.0183452
7017.19	0.0193641
7024.57	0.0197631
7031.96	0.0201517
7046.73	0.0207693
7054.11	0.0210205
7061.5	0.021257
7076.27	0.0217945
7083.65	0.0220638
7091.04	0.0222904
7105.81	0.022616
7113.19	0.0227348
7120.57	0.0228509
7135.34	0.0231253
7142.73	0.0232743
7150.11	0.0234192
7164.88	0.0236711
7172.27	0.0237715
7187.04	0.023926
7194.42	0.023985
7201.81	0.0240343
7216.58	0.0241087
7223.96	0.0241356
7231.34	0.0241556
7246.11	0.0241713
7253.5	0.0241649
7260.88	0.0241478
7275.65	0.0240784
7283.04	0.0240256
7290.42	0.0239607
7305.19	0.023796
7312.58	0.0236974
7327.34	0.0234699
7334.73	0.023341
7342.11	0.0232014
7356.88	0.0228855
7364.27	0.0227069
7371.65	0.0225128
7386.42	0.0220758
7393.81	0.0218326
7401.19	0.0215736
7415.96	0.0210111
7423.35	0.0207103
7430.73	0.0203988
7445.5	0.0197544
7452.88	0.0194276
7460.27	0.0191013
7475.04	0.0184609
7482.42	0.0181516
7497.19	0.0175592
7504.58	0.0172761
7511.96	0.0170016
7526.73	0.0164812
7534.11	0.016229
7541.5	0.0159802
7556.27	0.0154991
7563.65	0.01527
7571.04	0.0150487
7585.81	0.0146265
7593.19	0.0144243
7600.58	0.014228
7615.35	0.0138512
7622.73	0.0136612
7630.12	0.0135058
7644.88	0.0131338
7652.27	0.0129025
7667.04	0.0124077
7674.43	0.012172
7681.81	0.0117717
7696.59	0.0112704
7703.98	0.0110999
7711.37	0.0109533
7726.14	0.0107143
7733.53	0.0106029
7740.92	0.0104747
7755.69	0.0100929
7763.08	0.00995108
7770.47	0.00979318
7785.24	0.00955859
7792.63	0.00894432
7800.02	0.00858879
7814.8	0.00818811
7822.18	0.00804256
7836.96	0.00801138
7844.35	0.00790764
7851.73	0.00774545
7866.51	0.00729174
7873.9	0.00696156
7881.29	0.00670164
7896.06	0.00622925
7903.45	0.00599522
7910.84	0.00609991
7925.61	0.00567287
7933	0.00543375
7940.39	0.00518913
7955.16	0.00467177
7962.55	0.00443014
7977.33	0.00393354
7984.72	0.00365968
7992.1	0.00334464
8006.88	0.00266615
8014.27	0.00231762
8021.66	0.00196664
8036.43	0.0012542
8043.82	0.000889607
8051.21	0.000518945
8065.98	-0.000238016
8073.37	-0.000621583
8080.76	-0.00100651
8095.53	-0.00177672
8102.92	-0.00216187
8110.31	-0.00254759
8125.09	-0.00332273
8132.47	-0.003713
8147.25	-0.00450079
8154.64	-0.00489899
8162.02	-0.00530044
8176.8	-0.00611375
8184.19	-0.00652569
8191.58	-0.00694104
8206.35	-0.00778124
8213.74	-0.00820559
8221.13	-0.00863242
8235.9	-0.00949244
8243.29	-0.00992513
8250.68	-0.0103593
8265.45	-0.0112315
8272.84	-0.0116692
8280.23	-0.0121077
8295.01	-0.012987
8302.39	-0.0134274
8317.17	-0.0143091
8324.56	-0.0147501
8331.95	-0.0151909
8346.72	-0.0160711
8354.11	-0.0165101
8361.47	-0.0169466
8376.2	-0.0178157
8383.56	-0.018248
8390.93	-0.0186784
8405.65	-0.0195334
8413.02	-0.0199577
8420.38	-0.0203796
8435.11	-0.0212158
8442.47	-0.0216299
8457.2	-0.0224496
8464.56	-0.022855
8471.92	-0.0232572
8486.65	-0.024052
8494.01	-0.0244443
8501.38	-0.024833
8516.1	-0.0255997
8523.47	-0.0259774
8530.83	-0.0263512
8545.56	-0.027087
8552.92	-0.0274488
8560.28	-0.0278066
8575.01	-0.0285094
8582.37	-0.0288544
8597.1	-0.0295315
8604.46	-0.0298635
8611.83	-0.0301912
8626.55	-0.0308333
8633.92	-0.0311478
8641.28	-0.0314579
8656.01	-0.0320649
8663.37	-0.0323619
8670.73	-0.0326545
8685.46	-0.0332268
8692.82	-0.0335064
8700.19	-0.0337817
8714.91	-0.0343195
8722.28	-0.034582
8737	-0.0350941
8744.37	-0.0353437
8751.73	-0.0355891
8766.46	-0.0360668
8773.82	-0.0362993
8781.18	-0.0365274
8795.91	-0.0369705
8803.28	-0.0371856
8810.64	-0.0373963
8825.37	-0.0378046
8832.73	-0.0380021
8840.09	-0.0381952
8854.82	-0.0385682
8862.18	-0.0387481
8876.91	-0.0390944
8884.27	-0.0392608
8891.64	-0.0394228
8906.36	-0.0397334
8913.73	-0.0398819
8921.09	-0.0400259
8935.82	-0.0403004
8943.18	-0.0404309
8950.54	-0.0405568
8965.27	-0.040795
8972.63	-0.0409072
8987.36	-0.041118
8994.72	-0.0412166
9002.09	-0.0413105
9016.81	-0.0414845
9024.18	-0.0415646
9031.54	-0.04164
9046.27	-0.0417771
9053.63	-0.0418386
9060.99	-0.0418955
9075.72	-0.0419954
9083.08	-0.0420384
9090.45	-0.0420767
9105.17	-0.0421394
9112.54	-0.0421638
9127.26	-0.0421986
9134.63	-0.042209
9141.99	-0.0422148
9156.72	-0.0422124
9164.08	-0.0422042
9171.44	-0.0421914
9186.17	-0.0421517
9193.53	-0.0421249
9200.9	-0.0420935
9215.62	-0.0420167
9222.99	-0.0419713
9230.35	-0.0419212
9245.08	-0.0418072
9252.44	-0.0417431
9267.17	-0.0416011
9274.53	-0.0415232
9281.89	-0.0414405
9296.62	-0.0412613
9303.98	-0.0411648
9311.35	-0.0410636
9326.07	-0.0408474
9333.46	-0.040732
9340.85	-0.0406119
9355.63	-0.0403581
9363.01	-0.0402243
9370.4	-0.040086
9385.18	-0.0397959
9392.57	-0.0396442
9407.34	-0.0393275
9414.73	-0.0391626
9422.12	-0.0389934
9436.89	-0.0386425
9444.28	-0.0384608
9451.67	-0.038275
9466.45	-0.0378913
9473.83	-0.0376937
9481.22	-0.0374921
9496	-0.0370778
9503.39	-0.0368651
9510.78	-0.0366488
9525.57	-0.0362058
9532.96	-0.0359792
9540.35	-0.0357494
9555.13	-0.0352801
9562.52	-0.0350409
9577.3	-0.0345534
9584.7	-0.0343053
9592.14	-0.0340526
9607.03	-0.033539
9614.48	-0.0332781
9621.92	-0.0330147
9636.81	-0.0324804
9644.26	-0.0322096
9651.7	-0.0319365
9666.59	-0.0313835
9674.04	-0.0311037
9681.48	-0.0308219
9696.37	-0.030252
9703.82	-0.0299642
9711.26	-0.0296744
9726.34	-0.0290819
9733.88	-0.028783
9741.42	-0.0284823
9756.51	-0.0278761
9764.05	-0.0275707
9771.59	-0.0272638
9786.7	-0.0266449
9794.26	-0.0263331
9801.82	-0.0260201
9816.96	-0.0253903
9824.54	-0.0250736
9832.11	-0.0247559
9847.26	-0.0241179
9854.84	-0.0237978
9862.42	-0.0234771
9877.57	-0.022834
9885.14	-0.0225118
9892.72	-0.0221893
9900.22	-0.0218696
9915.25	-0.0212288
9922.77	-0.0209084
9930.28	-0.0205881
9945.32	-0.019948
9952.83	-0.0196284
9960.35	-0.0193092
9975.36	-0.0186731
9982.86	-0.0183564
9990.36	-0.0180404
10005.4	-0.017411
10012.8	-0.0170989
10020.3	-0.0167875
10035.3	-0.0161682
10042.7	-0.0158605
10050.2	-0.0155542
10065.2	-0.0149462
10072.7	-0.0146445
10080.1	-0.0143457
10095	-0.0137533
10102.5	-0.01346
10117.4	-0.0128796
10124.9	-0.0125926
10132.3	-0.0123078
10147.2	-0.0117453
10154.7	-0.0114677
10162.1	-0.0111926
10177	-0.0106503
10184.5	-0.0103833
10192	-0.0101191
10206.9	-0.00959966
10214.3	-0.00934445
10221.8	-0.00909232
10236.7	-0.00859756
10244.1	-0.00835506
10251.6	-0.00811603
10266.4	-0.00764822
10273.9	-0.00741957
10281.3	-0.00719449
10296.2	-0.00675529
10303.7	-0.00654129
10311.1	-0.00633108
10326	-0.0059223
10333.5	-0.00572382
10340.9	-0.00552934
10355.8	-0.0051526
10363.2	-0.00497043
10370.7	-0.00479244
10385.6	-0.00444919
10393	-0.004284
10400.5	-0.00412315
10415.4	-0.00381458
10422.8	-0.00366693
10430.3	-0.00352373
10445.1	-0.00325101
10452.6	-0.00312149
10460	-0.00299648
10474.9	-0.0027601
10482.3	-0.00264873
10497.2	-0.00243974
10504.6	-0.00234212
10512	-0.00224905
10526.9	-0.00207655
10534.3	-0.00199711
10541.8	-0.00192218
10556.6	-0.00178583
10564	-0.00172438
10571.5	-0.00166739
10586.3	-0.00156674
10593.8	-0.00152306
10601.2	-0.0014838
10616.1	-0.00141853
10623.5	-0.00139254
10630.9	-0.00137099
10645.8	-0.0013413
10653.2	-0.00133323
10660.6	-0.0013297
10675.5	-0.00133648
10682.9	-0.00134686
10690.4	-0.00136194
10705.2	-0.00140633
10712.7	-0.00143564
10720.1	-0.00146967
10734.9	-0.00155166
10742.4	-0.00159943
10757.2	-0.00170784
10764.7	-0.00176809
10772.1	-0.00183209
10787	-0.00197026
10794.4	-0.00204387
10801.8	-0.0021201
10816.7	-0.00227916
10824.1	-0.00236138
10831.5	-0.00244499
10846.4	-0.00261531
10853.8	-0.00270151
10861.3	-0.00278811
10876.1	-0.00296185
10883.6	-0.0030487
10891	-0.00313539
10905.8	-0.00330802
10913.3	-0.00339385
10920.7	-0.00347932
10935.6	-0.00364907
10943	-0.00373333
10950.4	-0.00381716
10965.3	-0.00398352
10972.7	-0.00406602
10980.1	-0.00414805
10995	-0.00431062
11002.4	-0.00439112
11017.3	-0.00455041
11024.7	-0.00462915
11032.2	-0.00470724
11047	-0.00486138
11054.4	-0.00493737
11061.9	-0.00501259
11076.7	-0.00516063
11084.2	-0.00523338
11091.6	-0.00530526
11106.5	-0.00544626
11113.9	-0.00551532
11121.3	-0.00558339
11136.2	-0.00571637
11143.6	-0.00578122
11151	-0.00584492
11165.9	-0.00596871
11173.3	-0.0060287
11180.8	-0.00608734
11195.6	-0.00620037
11203.1	-0.00625463
11210.5	-0.00630728
11225.3	-0.00640751
11232.8	-0.00645492
11240.2	-0.00650041
11255.1	-0.00658532
11262.5	-0.00662456
11277.4	-0.00669612
11284.8	-0.00672827
11292.2	-0.00675786
11307.1	-0.00680901
11314.5	-0.00683037
11321.9	-0.00684881
11336.8	-0.0068765
11344.2	-0.00688557
11351.7	-0.00689133
11366.5	-0.00689257
11373.9	-0.00688788
11381.4	-0.00687952
11396.2	-0.00685149
11403.7	-0.00683165
11411.1	-0.00680783
11426	-0.00674795
11433.4	-0.00671175
11440.8	-0.0066713
11455.7	-0.00657736
11463.1	-0.00652377
11470.5	-0.00646569
11485.4	-0.00633581
11492.8	-0.00626392
11500.3	-0.00618731
11515.1	-0.00601979
11522.6	-0.00592878
11537.4	-0.00573211
11544.8	-0.00562641
11552.3	-0.00551578
11567.1	-0.00527976
11574.6	-0.0051544
11582	-0.00502419
11596.9	-0.00474936
11604.3	-0.00460485
11611.7	-0.00445571
11626.6	-0.00414379
11634	-0.00398117
11641.4	-0.00381421
11656.3	-0.00346738
11663.8	-0.00328746
11671.2	-0.00310349
11686.1	-0.0027237
11693.6	-0.00252803
11701	-0.00232858
11715.9	-0.0019186
11723.3	-0.00170819
11730.8	-0.00149423
11745.7	-0.00105589
11753.1	-0.000831606
11760.6	-0.000603984
11775.5	-0.000138925
11782.9	9.84079e-05
11790.4	0.000338872
11805.3	0.000828979
11812.7	0.00107851
11820.2	0.00133095
11835.1	0.00184433
11842.5	0.00210556
11857.4	0.002636
11864.9	0.0029051
11872.4	0.00317669
11887.3	0.0037271
11894.7	0.0040058
11902.2	0.00428672
11917.1	0.00485501
11924.6	0.00514222
11932	0.00543139
11947	0.00601527
11954.4	0.00631071
11961.9	0.0066078
11976.9	0.00720661
11984.4	0.00750815
11991.9	0.00781102
12006.8	0.00842034
12014.3	0.00872662
12021.8	0.00903386
12036.7	0.00965086
12044.2	0.00996044
12051.7	0.0102706
12066.8	0.0108986
12074.4	0.0112131
12081.9	0.0115278
12097.1	0.0121575
12104.6	0.0124722
12112.2	0.0127868
12127.3	0.0134148
12134.8	0.0137282
12142.4	0.0140408
12157.5	0.0146639
12165.1	0.014974
12172.6	0.0152831
12180.2	0.0155909
12195.3	0.0162025
12202.9	0.0165059
12210.4	0.0168076
12225.5	0.0174049
12233.1	0.0177002
12240.6	0.0179929
12255.7	0.0185688
12263.3	0.0188506
12270.9	0.0191233
12286	0.019732
12293.5	0.0200373
12301.1	0.0201425
12316.2	0.0205859
12323.8	0.0208123
12331.3	0.0210404
12346.4	0.0215101
12354	0.0217638
12361.5	0.0220306
12376.7	0.0226034
12384.2	0.0229079
12391.8	0.0232153
12406.9	0.0238161
12414.4	0.0241045
12422	0.0243841
12437.1	0.0249183
12444.7	0.0251733
12452.2	0.0254206
12467.3	0.0258956
12474.9	0.0261245
12482.5	0.0263479
12490	0.0265658
12505.1	0.0269828
12512.7	0.0271808
12520.2	0.027371
12535.4	0.0277261
12542.9	0.0278903
12550.5	0.028045
12565.6	0.0283293
12573.1	0.0284591
12580.7	0.028581
12595.8	0.0288029
12603.4	0.0289038
12610.9	0.0289986
12626	0.0291716
12633.6	0.0292505
12641.1	0.0293249
12656.2	0.0294607
12663.7	0.0295221
12671.2	0.0295792
12686.3	0.0296799
12693.8	0.0297233
12701.3	0.0297617
12716.4	0.0298237
12723.9	0.0298471
12731.4	0.0298656
12746.5	0.029888
12754	0.0298921
12761.5	0.0298918
12776.6	0.0298785
12784.1	0.0298658
12791.6	0.0298493
12806.7	0.0298052
12814.2	0.0297777
12821.8	0.0297466
12836.8	0.0296734
12844.3	0.0296313
12851.9	0.0295853
12866.9	0.0294816
12874.4	0.0294238
12882	0.029362
12897	0.0292264
12904.5	0.0291527
12912.1	0.0290751
12927.1	0.0289089
12934.6	0.0288203
12942.2	0.0287282
12957.2	0.0285333
12964.7	0.0284305
12972.3	0.028324
12987.3	0.0280996
12994.8	0.0279816
13002.4	0.0278594
13017.4	0.0276024
13025	0.0274674
13032.5	0.0273279
13040	0.0271838
13055.1	0.0268818
13062.6	0.0267237
13070.1	0.0265608
13085.2	0.0262202
13092.7	0.0260423
13100.2	0.0258593
13115.3	0.0254771
13122.8	0.0252777
13130.3	0.0250727
13145.4	0.0246451
13152.9	0.0244223
13160.4	0.0241934
13175.5	0.0237166
13183	0.0234686
13190.5	0.023214
13205.6	0.0226851
13213.1	0.0224105
13220.6	0.0221292
13235.7	0.021546
13243.2	0.021244
13250.7	0.0209352
13265.8	0.0202965
13273.3	0.0199666
13280.8	0.0196297
13295.9	0.0189345
13303.4	0.0185762
13310.9	0.0182108
13326	0.0174587
13333.5	0.017072
13341	0.0166782
13356.1	0.0158698
13363.6	0.0154552
13371.1	0.0150336
13386.2	0.0141687
13393.7	0.0137245
13401.3	0.0132714
13416.3	0.0123275
13423.8	0.0118275
13431.4	0.0112768
13446.4	0.00988231
13453.9	0.00927342
13461.5	0.00864101
13476.5	0.00782333
13484	0.00654243
13491.6	0.00615561
13506.6	0.00530291
13514.1	0.00483195
13521.7	0.0043443
13536.7	0.00319748
13544.2	0.00268113
13551.8	0.00218558
13566.8	0.00122257
13574.3	0.00074449
13581.9	0.000265223
13596.9	-0.000693582
13604.5	-0.00117402
13612	-0.00165647
13627	-0.00263261
13634.6	-0.00313016
13642.1	-0.00363601
13657.1	-0.00467149
13664.7	-0.00519861
13672.2	-0.00572971
13687.2	-0.00679713
13694.8	-0.00733051
13702.3	-0.00786209
13717.3	-0.00891653
13724.9	-0.00943834
13732.4	-0.00995624
13747.4	-0.0109806
13755	-0.0114877
13762.5	-0.0119919
13770	-0.0124936
13785.1	-0.013491
13792.6	-0.013987
13800.1	-0.0144813
13815.2	-0.0154639
13822.7	-0.0159516
13830.2	-0.0164362
13845.3	-0.0173942
13852.8	-0.0178665
13860.3	-0.0183337
13875.4	-0.019251
13882.9	-0.0197004
13890.4	-0.0201434
13905.5	-0.0210095
13913	-0.0214325
13920.5	-0.0218489
13935.6	-0.0226618
13943.1	-0.0230584
13950.6	-0.0234484
13965.7	-0.0242089
13973.2	-0.0245792
13980.7	-0.0249427
13995.8	-0.0256486
14003.3	-0.0259907
14010.9	-0.0263252
14025.9	-0.0269707
14033.4	-0.0272812
14041	-0.0275834
14056	-0.0281622
14063.5	-0.0284385
14071.1	-0.028706
14086.1	-0.0292147
14093.6	-0.0294558
14101.2	-0.0296881
14116.2	-0.0301267
14123.7	-0.0303329
14131.3	-0.0305305
14146.3	-0.0309
14153.8	-0.0310719
14161.4	-0.0312352
14176.4	-0.031536
14184	-0.0316734
14191.5	-0.0318021
14206.5	-0.0320333
14214.1	-0.0321358
14221.6	-0.0322295
14236.6	-0.0323907
14244.2	-0.0324581
14251.7	-0.0325169
14266.7	-0.0326086
14274.3	-0.0326418
14281.8	-0.0326666
14296.8	-0.0326914
14304.4	-0.0326917
14311.9	-0.0326841
14326.9	-0.0326454
14334.5	-0.0326145
14342	-0.0325761
14357.1	-0.0324767
14364.6	-0.0324159
14372.2	-0.0323477
14387.2	-0.0321898
14395	-0.0320969
14402.9	-0.0319964
14410.7	-0.0318884
14426.3	-0.0316494
14434.2	-0.0315185
14442	-0.0313802
14457.7	-0.0310822
14465.6	-0.0309227
14473.4	-0.0307563
14481.2	-0.0305832
14496.9	-0.0302175
14504.8	-0.0300252
14512.6	-0.0298268
14520.5	-0.0296224
14536.2	-0.0291966
14544	-0.0289753
14551.9	-0.0287481
14567.8	-0.0282756
14575.7	-0.0280318
14583.6	-0.0277832
14591.5	-0.0275299
14607.4	-0.0270099
14615.3	-0.0267434
14623.2	-0.0264727
14631.1	-0.026198
14647	-0.0256369
14654.9	-0.0253508
14662.8	-0.0250612
14670.7	-0.0247682
14686.6	-0.0241725
14694.5	-0.0238702
14702.4	-0.0235651
14710.4	-0.0232574
14726.2	-0.022635
14734.1	-0.0223206
14742.1	-0.0220045
14757.9	-0.0213677
14765.8	-0.0210476
14773.7	-0.0207265
14781.7	-0.0204047
14797.5	-0.0197602
14805.4	-0.0194379
14813.4	-0.0191159
14821.3	-0.0187945
14837.1	-0.0181543
14845.1	-0.0178361
14853	-0.0175193
14860.9	-0.0172044
14876.7	-0.0165807
14884.7	-0.0162725
14892.6	-0.0159666
14900.5	-0.0156636
14916.4	-0.0150676
14924.4	-0.0147753
14932.3	-0.0144871
14940.2	-0.014203
14956.3	-0.0136405
14964.5	-0.0133629
14972.6	-0.0130908
14980.8	-0.0128246
14996.9	-0.0123169
15005	-0.0120728
15012.9	-0.0118389
15020.9	-0.0116118
15036.7	-0.011179
15044.7	-0.0109737
15052.6	-0.0107759
15060.6	-0.0105861
15076.5	-0.0102316
15084.5	-0.0100674
15092.4	-0.00991212
15100.4	-0.00976604
15116.3	-0.00950228
15124.3	-0.00938501
15132.2	-0.00927775
15140.2	-0.00918068
15156.1	-0.00901787
15164.1	-0.00895247
15172	-0.00889797
15187.9	-0.00882228
15195.9	-0.00880139
15203.8	-0.00879198
15211.8	-0.00879418
15227.7	-0.00883389
15235.7	-0.00887161
15243.6	-0.00892136
15251.6	-0.00898323
15267.5	-0.0091436
15275.4	-0.00924104
15283.3	-0.00935132
15291.2	-0.00947385
15307	-0.00975571
15315	-0.00991505
15322.9	-0.0100866
15330.8	-0.0102696
15346.5	-0.0106716
15354.4	-0.0108905
15362.3	-0.0111212
15370.2	-0.0113636
15385.9	-0.0118833
15393.8	-0.0121602
15401.7	-0.0124484
15417.5	-0.0130575
15425.3	-0.0133759
15433.1	-0.0137045
15440.9	-0.0140431
15456.6	-0.0147496
15464.4	-0.0151168
15472.3	-0.0154931
15480.1	-0.015878
15495.7	-0.0166727
15503.6	-0.0170817
15511.4	-0.0174982
15527	-0.0183516
15534.9	-0.0187878
15542.7	-0.0192299
15550.5	-0.0196773
15566.2	-0.0205867
15574	-0.0210478
15581.8	-0.0215126
15597.5	-0.0224512
15605.3	-0.0229242
15613.1	-0.023399
15620.9	-0.0238751
15636.6	-0.0248293
15644.4	-0.0253065
15652.2	-0.025783
15660.1	-0.0262585
15675.7	-0.027204
15683.5	-0.0276732
15691.4	-0.0281393
15707	-0.0290604
15714.8	-0.0295144
15722.7	-0.0299635
15730.5	-0.0304072
15746.1	-0.0312766
15754	-0.0317013
15761.8	-0.0321189
15777.4	-0.0329308
15785.3	-0.0333244
15793.1	-0.0337091
15800.9	-0.0340847
15816.6	-0.0348068
15824.3	-0.0351476
15832	-0.0354782
15847.4	-0.0361071
15855.1	-0.036405
15862.9	-0.0366914
15870.6	-0.0369661
15886	-0.0374792
15893.7	-0.0377173
15901.4	-0.0379423
15916.8	-0.0383538
15924.5	-0.0385398
15932.2	-0.0387124
15947.6	-0.0390168
15955.3	-0.0391484
15963	-0.0392659
15970.7	-0.0393691
15986.1	-0.0395332
15993.7	-0.0395939
16001.4	-0.0396402
16016.8	-0.0396896
16024.5	-0.0396926
16032.1	-0.039681
16047.5	-0.0396142
16055.2	-0.039559
16062.8	-0.0394891
16070.5	-0.0394048
16085.9	-0.0391924
16093.6	-0.0390645
16101.2	-0.0389222
16116.6	-0.0385944
16124.3	-0.0384092
16131.9	-0.0382097
16147.3	-0.0377687
16155	-0.0375273
16162.6	-0.0372721
16170.3	-0.0370033
16185.7	-0.0364251
16193.3	-0.036116
16201	-0.0357937
16216.4	-0.0351104
16224	-0.0347496
16231.7	-0.0343764
16247.1	-0.0335929
16254.7	-0.0331832
16262.4	-0.0327616
16270.1	-0.0323285
16285.5	-0.0314283
16293.1	-0.0309617
16300.8	-0.0304843
16316.2	-0.0294982
16323.8	-0.02899
16331.5	-0.028472
16346.9	-0.0274075
16354.5	-0.0268616
16362.2	-0.0263069
16377.6	-0.0251722
16385.2	-0.0245927
16392.9	-0.0240056
16400.6	-0.0234109
16415.9	-0.0222005
16423.6	-0.0215853
16431.3	-0.0209637
16446.6	-0.0197026
16454.3	-0.0190636
16462	-0.0184194
16477.4	-0.0171164
16485	-0.0164581
16492.7	-0.0157956
16500.4	-0.0151292
16515.7	-0.0137856
16523.4	-0.0131089
16531.1	-0.0124294
16546.4	-0.0110626
16554.1	-0.0103758
16561.8	-0.00968711
16577.1	-0.00830497
16584.8	-0.007612
16592.5	-0.0069181
16600.2	-0.0062235
16615.5	-0.00483321
16623.2	-0.004138
16630.9	-0.00344308
16646.2	-0.00205506
16653.9	-0.00136247
16661.6	-0.000671128
16676.9	0.000706788
16684.6	0.00139288
16692.2	0.00207059
16707.4	0.00341852
16715	0.0040869
16722.6	0.00475381
16730.2	0.00541739
16745.4	0.006727
16753	0.00737602
16760.5	0.00802091
16775.7	0.0092984
16783.3	0.0099306
16790.8	0.0105579
16806	0.0117968
16813.6	0.0124081
16821.2	0.0130138
16836.3	0.0142073
16843.9	0.0147949
16851.5	0.0153761
16866.6	0.0165174
16874.2	0.0170779
16881.8	0.0176313
16896.9	0.0187153
16904.5	0.0192461
16912	0.0197693
16927.2	0.0206725
16934.7	0.0212102
16942.3	0.0217236
16957.4	0.0227665
16965	0.0232648
16972.6	0.023739
16980.1	0.0241965
16995.2	0.0250993
17002.8	0.025553
17010.4	0.0260051
17025.5	0.0268788
17033.1	0.0272893
17040.6	0.0276783
17055.8	0.0283944
17063.3	0.028727
17070.9	0.0290481
17086	0.0296715
17093.6	0.0299792
17101.2	0.0302855
17116.3	0.0308872
17123.8	0.0311768
17131.4	0.0314546
17146.5	0.0319637
17154.1	0.0321921
17161.7	0.032403
17176.8	0.0327771
17184.4	0.0329443
17191.9	0.0331008
17207.1	0.033388
17214.6	0.0335206
17222.2	0.0336462
17237.3	0.0338755
17244.9	0.0339781
17252.4	0.0340718
17260	0.0341561
17275.1	0.0342944
17282.7	0.0343478
17290.3	0.0343904
17305.4	0.0344423
17313	0.0344516
17320.5	0.0344499
17335.7	0.0344144
17343.2	0.0343812
17350.8	0.0343386
17365.9	0.0342277
17373.5	0.0341609
17381	0.0340875
17396.2	0.033923
17403.7	0.0338327
17411.3	0.0337373
17426.4	0.0335307
17434	0.0334192
17441.6	0.0333019
17456.7	0.0330488
17464.2	0.0329135
17471.7	0.0327717
17486.8	0.0324689
17494.3	0.0323083
17501.8	0.0321419
17516.8	0.0317928
17524.3	0.0316108
17531.9	0.0314243
17546.9	0.0310392
17554.4	0.030841
17561.9	0.0306398
17576.9	0.0302275
17584.4	0.0300173
17592	0.029804
17607	0.0293693
17614.5	0.0291479
17622	0.0289237
17637.1	0.028467
17644.6	0.0282343
17652.1	0.0279988
17667.1	0.0275196
17674.6	0.027276
17682.1	0.0270299
17697.2	0.0265313
17704.7	0.0262793
17712.2	0.0260257
17727.2	0.0255152
17734.8	0.0252588
17742.3	0.0250019
17757.3	0.0244876
17764.8	0.0242304
17772.3	0.0239733
17787.4	0.0234594
17794.9	0.0232026
17802.4	0.0229456
17817.4	0.0224309
17824.9	0.0221728
17832.5	0.021914
17847.5	0.0213937
17855	0.0211321
17862.5	0.0208694
17870	0.0206056
17885.1	0.0200748
17892.6	0.019808
17900.1	0.0195404
17915.1	0.0190036
17922.6	0.0187346
17930.2	0.0184654
17945.2	0.0179273
17952.7	0.0176587
17960.2	0.0173904
17975.2	0.0168552
17982.8	0.0165884
17990.3	0.0163221
18005.3	0.0157912
18012.8	0.0155265
18020.3	0.0152621
18035.4	0.0147346
18042.9	0.0144714
18050.4	0.0142085
18065.4	0.0136838
18072.9	0.013422
18080.5	0.0131605
18095.5	0.0126389
18103	0.0123788
18110.5	0.0121192
18125.6	0.0116015
18133.1	0.0113435
18140.6	0.011086
18155.6	0.0105724
18163.1	0.0103163
18170.6	0.0100607
18185.7	0.00958085
18193.2	0.00904836
18200.7	0.0088396
18215.7	0.00839927
18223.3	0.00815342
18230.8	0.00789262
18245.8	0.00736459
18253.3	0.00710343
18260.8	0.00684108
18275.9	0.0063221
18283.4	0.00606675
18290.9	0.00581305
18305.9	0.00530584
18313.4	0.00505104
18321	0.00479533
18336	0.00428225
18343.5	0.00402558
18351	0.00376931
18366	0.00325905
18373.6	0.00300539
18381.1	0.00275278
18396.1	0.00225056
18403.6	0.00200079
18411.1	0.00175176
18426.2	0.00125556
18433.7	0.00100825
18441.2	0.000761415
18456.2	0.000269151
18463.7	2.37778e-05
18471.3	-0.000221031
18486.3	-0.000708739
18493.8	-0.000951534
18501.3	-0.00119356
18516.4	-0.00167521
18523.9	-0.00191478
18531.4	-0.0021535
18546.4	-0.00262841
18553.9	-0.0028646
18561.4	-0.00309994
18576.5	-0.00356812
18584	-0.00380094
18591.5	-0.0040329
18606.5	-0.00449421
18614.1	-0.00472353
18621.6	-0.00495193
18636.6	-0.0054059
18644.1	-0.00563142
18651.6	-0.00585593
18666.7	-0.00630185
18674.2	-0.00652321
18681.7	-0.00674347
18696.7	-0.00718061
18704.2	-0.00739743
18711.8	-0.00761307
18726.8	-0.00804065
18734.3	-0.00825255
18741.8	-0.00846316
18756.8	-0.00888037
18764.4	-0.00908693
18771.9	-0.00929207
18786.9	-0.00969802
18794.4	-0.00989877
18801.9	-0.010098
18817	-0.0104917
18824.5	-0.0106861
18832	-0.0108789
18847	-0.0112593
18854.5	-0.0114468
18862.1	-0.0116326
18877.1	-0.0119985
18884.6	-0.0121786
18892.1	-0.0123567
18907.2	-0.0127069
18914.7	-0.0128788
18922.2	-0.0130487
18937.2	-0.0133817
18944.7	-0.0135448
18952.2	-0.0137056
18967.3	-0.01402
18974.8	-0.0141736
18982.3	-0.0143246
18997.3	-0.014619
19004.9	-0.0147622
19012.4	-0.0149028
19027.4	-0.0151756
19034.9	-0.0153078
19042.4	-0.0154371
19057.5	-0.0156869
19065	-0.0158074
19072.5	-0.0159247
19080	-0.016039
19095	-0.0162582
19102.6	-0.016363
19110.1	-0.0164646
19125.1	-0.0166579
19132.6	-0.0167495
19140.1	-0.0168378
19155.2	-0.0170041
19162.7	-0.017082
19170.2	-0.0171565
19185.2	-0.0172949
19192.7	-0.0173588
19200.3	-0.0174192
19215.3	-0.017529
19222.8	-0.0175785
19230.3	-0.0176244
19245.3	-0.017705
19252.8	-0.0177398
19260.2	-0.0177707
19275	-0.0178216
19282.4	-0.0178418
19297.1	-0.0178714
19304.5	-0.0178809
19311.8	-0.0178869
19326.6	-0.0178885
19333.9	-0.0178841
19341.3	-0.0178762
19356	-0.0178502
19363.4	-0.0178321
19370.8	-0.0178106
19385.5	-0.0177575
19392.8	-0.017726
19400.2	-0.0176913
19414.9	-0.017612
19422.3	-0.0175676
19437	-0.0174692
19444.4	-0.0174154
19451.7	-0.0173585
19466.5	-0.0172358
19473.8	-0.01717
19481.2	-0.0171012
19495.9	-0.0169553
19503.3	-0.0168781
19510.7	-0.0167982
19525.4	-0.0166304
19532.7	-0.0165426
19540.1	-0.0164523
19554.8	-0.0162642
19562.2	-0.0161666
19576.9	-0.0159644
19584.3	-0.0158599
19591.7	-0.0157533
19606.4	-0.0155337
19613.7	-0.0154209
19621.1	-0.0153061
19635.8	-0.0150709
19643.2	-0.0149507
19650.6	-0.0148286
19665.3	-0.0145797
19672.6	-0.0144528
19680	-0.0143245
19694.7	-0.0140636
19702.1	-0.0139311
19716.8	-0.0136625
19724.2	-0.0135264
19731.6	-0.0133892
19746.3	-0.0131118
19753.6	-0.0129717
19761	-0.0128307
19775.7	-0.0125464
19783.1	-0.0124031
19790.5	-0.0122592
19805.2	-0.0119697
19812.6	-0.0118241
19827.3	-0.0115318
19834.6	-0.011385
19842	-0.011238
19856.7	-0.0109433
19864.1	-0.0107957
19871.5	-0.010648
19886.2	-0.0103524
19893.6	-0.0102046
19900.9	-0.0100569
19915.6	-0.00976193
19923	-0.0096147
19930.4	-0.00946769
19945.1	-0.00917453
19952.5	-0.00902844
19967.2	-0.00873744
19974.5	-0.00859258
19981.9	-0.00844821
19996.6	-0.008161
