0	0
13.2971	0
26.5942	0
39.8912	0
53.1883	0
66.4854	0
79.7825	0
93.0796	0
106.377	0
119.674	0
132.971	0
146.268	0
159.565	0
172.862	0
186.159	0
199.456	0
212.753	0
226.05	0
239.347	0
252.645	0
265.942	0
279.239	0
292.536	0
305.833	0
319.13	0
332.427	0
345.724	0
359.021	9.09495e-13
372.318	1.81899e-12
385.615	4.54747e-12
398.912	1.18234e-11
412.21	3.18323e-11
425.507	8.00355e-11
438.804	1.91903e-10
452.101	4.42014e-10
465.398	9.78616e-10
478.695	2.09002e-09
491.992	4.31919e-09
505.289	8.64929e-09
518.586	1.68175e-08
531.883	3.18041e-08
545.18	5.85915e-08
558.477	1.05308e-07
571.775	1.84908e-07
585.072	3.17597e-07
598.369	5.34246e-07
611.666	8.81124e-07
624.963	1.42633e-06
638.26	2.26839e-06
651.557	3.54761e-06
664.854	5.46077e-06
678.151	8.28003e-06
691.448	1.23767e-05
704.745	1.82515e-05
718.042	2.6571e-05
731.34	3.82137e-05
744.637	5.4325e-05
757.934	7.6384e-05
771.231	0.000106283
784.528	0.000146421
797.825	0.000199816
811.122	0.000270232
824.419	0.000362331
837.716	0.000481838
851.013	0.000635736
864.31	0.000832483
877.607	0.00108225
890.904	0.00139717
904.202	0.00179164
917.499	0.0022826
930.796	0.00288984
944.093	0.00363634
957.39	0.00454856
970.687	0.00565674
983.984	0.00699521
997.281	0.00860262
1010.58	0.0105221
1023.88	0.0128016
1037.17	0.0154935
1050.47	0.018655
1063.77	0.022348
1077.06	0.0266385
1090.36	0.0315964
1103.66	0.0372948
1116.95	0.0438096
1130.25	0.0512184
1143.55	0.0595994
1156.85	0.0690305
1170.14	0.0795879
1183.44	0.0913443
1196.74	0.104368
1210.03	0.11872
1223.33	0.134455
1236.63	0.151615
1249.93	0.170233
1263.22	0.190327
1276.52	0.211901
1289.82	0.234941
1303.11	0.259418
1316.41	0.285281
1329.71	0.312461
1343.01	0.340867
1356.3	0.370389
1369.6	0.400896
1382.9	0.432233
1396.19	0.46423
1409.49	0.496695
1422.79	0.52942
1436.08	0.562179
1449.38	0.594735
1462.68	0.626837
1475.98	0.658227
1489.27	0.688639
1502.57	0.717805
1515.87	0.745456
1529.16	0.771327
1542.46	0.795157
1555.76	0.816697
1569.06	0.835709
1582.35	0.851971
1595.65	0.865279
1608.95	0.87545
1622.24	0.882326
1635.54	0.885772
1648.84	0.885682
1662.14	0.881978
1675.43	0.874612
1688.73	0.863565
1702.03	0.848852
1715.32	0.830516
1728.62	0.80863
1741.92	0.783299
1755.21	0.754653
1768.51	0.722851
1781.81	0.688076
1795.11	0.650534
1808.4	0.610453
1821.7	0.568075
1835	0.523663
1848.29	0.477489
1861.59	0.429835
1874.89	0.380992
1888.19	0.331253
1901.48	0.280913
1914.78	0.230266
1928.08	0.179601
1941.37	0.129201
1954.67	0.0793399
1967.97	0.0302795
1981.27	-0.0177314
1994.56	-0.0644587
2007.86	-0.109685
2021.16	-0.153212
2034.45	-0.194858
2047.75	-0.234464
2061.05	-0.271889
2074.34	-0.307014
2087.64	-0.339741
2100.94	-0.369992
2114.24	-0.397709
2127.53	-0.422857
2140.83	-0.445417
2154.13	-0.46539
2167.42	-0.482794
2180.72	-0.497665
2194.02	-0.510053
2207.32	-0.520022
2220.61	-0.527649
2233.91	-0.533024
2247.21	-0.536246
2260.5	-0.537422
2273.8	-0.536666
2287.1	-0.534101
2300.4	-0.529851
2313.69	-0.524046
2326.99	-0.516817
2340.29	-0.508295
2353.58	-0.498614
2366.88	-0.487904
2380.18	-0.476295
2393.47	-0.463911
2406.77	-0.450877
2420.07	-0.43731
2433.37	-0.423323
2446.66	-0.409024
2459.96	-0.394517
2473.26	-0.379895
2486.55	-0.36525
2499.85	-0.350665
2513.15	-0.336214
2526.45	-0.32197
2539.74	-0.307993
2553.04	-0.29434
2566.34	-0.281062
2579.63	-0.268201
2592.93	-0.255795
2606.23	-0.243873
2619.53	-0.232463
2632.82	-0.221584
2646.12	-0.21125
2659.42	-0.201473
2672.71	-0.192256
2686.01	-0.183602
2699.31	-0.175509
2712.6	-0.16797
2725.9	-0.160976
2739.2	-0.154517
2752.5	-0.148576
2765.79	-0.143138
2779.09	-0.138184
2792.39	-0.133695
2805.68	-0.129648
2818.98	-0.126022
2832.28	-0.122793
2845.58	-0.119938
2858.87	-0.117432
2872.17	-0.115251
2885.47	-0.113371
2898.76	-0.111767
2912.06	-0.110415
2925.36	-0.109292
2938.65	-0.108375
2951.95	-0.107642
2965.25	-0.10707
2978.55	-0.10664
2991.84	-0.106331
3005.14	-0.106124
3018.44	-0.106002
3031.73	-0.105946
3045.03	-0.105942
3058.33	-0.105975
3071.62	-0.106029
3084.92	-0.106093
3098.22	-0.106155
3111.52	-0.106203
3124.81	-0.106228
3138.11	-0.10622
3151.41	-0.106173
3164.7	-0.106078
3178	-0.10593
3191.3	-0.105723
3204.59	-0.105452
3217.89	-0.105114
3231.19	-0.104705
3244.48	-0.104224
3257.78	-0.103667
3271.08	-0.103035
3284.37	-0.102326
3297.67	-0.10154
3310.97	-0.100677
3324.27	-0.0997384
3337.56	-0.0987249
3350.86	-0.0976378
3364.16	-0.0964789
3377.45	-0.0952502
3390.75	-0.0939539
3404.05	-0.0925924
3417.34	-0.0911683
3430.64	-0.0896843
3443.94	-0.0881432
3457.23	-0.086548
3470.53	-0.0849016
3483.83	-0.083207
3497.12	-0.0814672
3510.42	-0.0796853
3523.72	-0.0778642
3537.01	-0.0760069
3550.31	-0.0741162
3563.61	-0.072195
3576.9	-0.0702459
3590.2	-0.0682717
3603.5	-0.0662749
3616.79	-0.0642578
3630.09	-0.0622229
3643.39	-0.0601723
3656.68	-0.0581081
3669.98	-0.0560323
3683.28	-0.0539467
3696.57	-0.051853
3709.87	-0.0497529
3723.17	-0.0476477
3736.46	-0.0455389
3749.76	-0.0434278
3763.06	-0.0413154
3776.35	-0.0392028
3789.65	-0.0370909
3802.95	-0.0349807
3816.24	-0.0328728
3829.54	-0.0307681
3842.84	-0.028667
3856.13	-0.0265702
3869.43	-0.0244781
3882.72	-0.0223913
3896.02	-0.0203101
3909.32	-0.0182348
3922.61	-0.016166
3935.91	-0.0141038
3949.21	-0.0120486
3962.5	-0.0100006
3975.8	-0.00796024
3989.1	-0.00592772
4002.39	-0.00390335
4015.69	-0.00188745
4028.99	0.000119658
4042.28	0.00211763
4055.58	0.0041061
4068.88	0.00608467
4082.17	0.00805292
4095.47	0.0100104
4108.77	0.0119566
4122.06	0.013891
4135.36	0.0158131
4148.66	0.0177222
4161.95	0.0196177
4175.25	0.021499
4188.55	0.0233652
4201.84	0.0252157
4215.14	0.0270497
4228.44	0.0288663
4241.73	0.0306646
4255.03	0.0324438
4268.33	0.0342029
4281.62	0.0359409
4294.92	0.0376569
4308.22	0.0393497
4321.51	0.0410183
4334.81	0.0426616
4348.11	0.0442786
4361.4	0.045868
4374.7	0.0474288
4388	0.0489598
4401.3	0.0504598
4414.59	0.0519276
4427.89	0.0533621
4441.19	0.054762
4454.48	0.0561262
4467.78	0.0574535
4481.08	0.0587428
4494.37	0.0599928
4507.67	0.0612025
4520.97	0.0623706
4534.27	0.0634962
4547.56	0.0645781
4560.86	0.0656153
4574.16	0.0666069
4587.45	0.0675517
4600.75	0.0684489
4614.05	0.0692977
4627.35	0.0700971
4640.64	0.0708465
4653.94	0.071545
4667.24	0.072192
4680.53	0.0727869
4693.83	0.0733291
4707.13	0.0738182
4720.42	0.0742538
4733.72	0.0746354
4747.02	0.074963
4760.32	0.0752362
4773.61	0.0754549
4786.91	0.0756192
4800.21	0.0757291
4813.5	0.0757847
4826.8	0.0757863
4840.1	0.075734
4853.4	0.0756284
4866.69	0.0754699
4879.99	0.075259
4893.29	0.0749964
4906.58	0.0746829
4919.88	0.0743191
4933.18	0.073906
4946.47	0.0734446
4959.77	0.0729358
4973.07	0.0723809
4986.37	0.071781
4999.66	0.0711373
5012.96	0.0704512
5026.26	0.069724
5039.55	0.0689573
5052.85	0.0681525
5066.15	0.0673112
5079.44	0.066435
5092.74	0.0655256
5106.04	0.0645846
5119.34	0.0636138
5132.63	0.0626151
5145.93	0.06159
5159.23	0.0605406
5172.52	0.0594687
5185.82	0.058376
5199.12	0.0572645
5212.42	0.0561361
5225.71	0.0549926
5239.01	0.0538359
5252.31	0.0526678
5265.6	0.0514903
5278.9	0.0503051
5292.2	0.0491141
5305.49	0.0479191
5318.79	0.0467217
5332.09	0.0455237
5345.39	0.0443269
5358.68	0.0431327
5371.98	0.0419429
5385.28	0.0407589
5398.57	0.0395823
5411.87	0.0384144
5425.17	0.0372566
5438.46	0.0361103
5451.76	0.0349767
5465.06	0.0338569
5478.36	0.032752
5491.65	0.0316631
5504.95	0.0305912
5518.25	0.029537
5531.54	0.0285015
5544.84	0.0274853
5558.14	0.0264891
5571.44	0.0255135
5584.73	0.0245589
5598.03	0.0236258
5611.33	0.0227145
5624.62	0.0218252
5637.92	0.0209582
5651.22	0.0201135
5664.51	0.0192911
5677.81	0.0184911
5691.11	0.0177133
5704.41	0.0169575
5717.7	0.0162234
5731	0.0155107
5744.3	0.0148191
5757.59	0.014148
5770.89	0.0134969
5784.19	0.0128653
5797.49	0.0122526
5810.78	0.011658
5824.08	0.0110809
5837.38	0.0105205
5850.67	0.00997594
5863.97	0.00944638
5877.27	0.00893096
5890.56	0.00842876
5903.86	0.00793884
5917.16	0.00746023
5930.46	0.00699195
5943.75	0.00653299
5957.05	0.00608235
5970.35	0.005639
5983.64	0.00520191
5996.94	0.00477006
6010.24	0.00434241
6023.54	0.00391793
6036.83	0.00349563
6050.13	0.00307448
6063.43	0.00265351
6076.72	0.00223174
6090.02	0.00180822
6103.32	0.00138202
6116.61	0.000952242
6129.91	0.000518014
6143.21	7.84938e-05
6156.51	-0.000367128
6169.8	-0.000819624
6183.1	-0.00127973
6196.4	-0.00174815
6209.69	-0.00222553
6222.99	-0.00271249
6236.29	-0.00320961
6249.59	-0.00371741
6262.88	-0.00423637
6276.18	-0.00476694
6289.48	-0.0053095
6302.77	-0.00586441
6316.07	-0.00643195
6329.37	-0.00701239
6342.67	-0.00760592
6355.96	-0.00821271
6369.26	-0.00883287
6382.56	-0.00946646
6395.85	-0.0101135
6409.15	-0.010774
6422.45	-0.0114479
6435.74	-0.012135
6449.04	-0.0128352
6462.34	-0.0135483
6475.64	-0.0142742
6488.93	-0.0150124
6502.23	-0.0157628
6515.53	-0.016525
6528.82	-0.0172986
6542.12	-0.0180832
6555.42	-0.0188783
6568.72	-0.0196836
6582.01	-0.0204985
6595.31	-0.0213225
6608.61	-0.0221551
6621.9	-0.0229957
6635.2	-0.0238437
6648.5	-0.0246985
6661.8	-0.0255596
6675.09	-0.0264262
6688.39	-0.0272977
6701.69	-0.0281734
6714.98	-0.0290527
6728.28	-0.0299349
6741.58	-0.0308193
6754.87	-0.0317052
6768.17	-0.0325919
6781.47	-0.0334786
6794.77	-0.0343647
6808.06	-0.0352494
6821.36	-0.036132
6834.66	-0.0370118
6847.95	-0.0378881
6861.25	-0.0387601
6874.55	-0.0396271
6887.85	-0.0404884
6901.14	-0.0413434
6914.44	-0.0421912
6927.74	-0.0430312
6941.03	-0.0438628
6954.33	-0.0446851
6967.63	-0.0454976
6980.93	-0.0462996
6994.22	-0.0470903
7007.52	-0.0478693
7020.82	-0.0486357
7034.11	-0.0493891
7047.41	-0.0501287
7060.71	-0.050854
7074.01	-0.0515644
7087.3	-0.0522593
7100.6	-0.0529381
7113.9	-0.0536003
7127.19	-0.0542453
7140.49	-0.0548727
7153.79	-0.0554818
7167.08	-0.0560723
7180.38	-0.0566435
7193.68	-0.0571952
7206.98	-0.0577267
7220.27	-0.0582378
7233.57	-0.0587279
7246.87	-0.0591967
7260.16	-0.0596437
7273.46	-0.0600688
7286.76	-0.0604714
7300.06	-0.0608512
7313.35	-0.061208
7326.65	-0.0615415
7339.95	-0.0618514
7353.24	-0.0621375
7366.54	-0.0623995
7379.84	-0.0626371
7393.14	-0.0628504
7406.43	-0.063039
7419.73	-0.0632027
7433.03	-0.0633416
7446.32	-0.0634555
7459.62	-0.0635442
7472.92	-0.0636078
7486.21	-0.0636462
7499.51	-0.0636593
7512.81	-0.0636472
7526.11	-0.0636098
7539.4	-0.0635472
7552.7	-0.0634596
7566	-0.0633468
7579.29	-0.0632091
7592.59	-0.0630466
7605.89	-0.0628594
7619.18	-0.0626477
7632.48	-0.0624116
7645.78	-0.0621513
7659.08	-0.0618671
7672.37	-0.0615592
7685.67	-0.0612278
7698.97	-0.0608732
7712.26	-0.0604958
7725.56	-0.0600957
7738.86	-0.0596734
7752.15	-0.0592291
7765.45	-0.0587632
7778.75	-0.0582761
7792.05	-0.0577681
7805.34	-0.0572397
7818.64	-0.0566912
7831.94	-0.0561231
7845.23	-0.0555358
7858.53	-0.0549297
7871.83	-0.0543053
7885.12	-0.053663
7898.42	-0.0530033
7911.72	-0.0523268
7925.02	-0.0516337
7938.31	-0.0509248
7951.61	-0.0502004
7964.91	-0.0494611
7978.2	-0.0487073
7991.5	-0.0479397
8004.8	-0.0471586
8018.09	-0.0463647
8031.39	-0.0455585
8044.69	-0.0447404
8057.99	-0.0439111
8071.28	-0.043071
8084.58	-0.0422207
8097.88	-0.0413607
8111.17	-0.0404916
8124.47	-0.0396138
8137.77	-0.038728
8151.06	-0.0378347
8164.36	-0.0369343
8177.66	-0.0360274
8190.96	-0.0351146
8204.25	-0.0341964
8217.55	-0.0332732
8230.85	-0.0323457
8244.14	-0.0314142
8257.44	-0.0304794
8270.74	-0.0295418
8284.03	-0.0286018
8297.33	-0.0276599
8310.63	-0.0267167
8323.93	-0.0257727
8337.22	-0.0248283
8350.52	-0.0238839
8363.82	-0.0229402
8377.11	-0.0219976
8390.41	-0.0210564
8403.71	-0.0201173
8417	-0.0191807
8430.3	-0.018247
8443.6	-0.0173166
8456.9	-0.01639
8470.19	-0.0154677
8483.49	-0.0145501
8496.79	-0.0136376
8510.08	-0.0127307
8523.38	-0.0118297
8536.68	-0.010935
8549.98	-0.0100472
8563.27	-0.00916653
8576.57	-0.00829344
8589.87	-0.00742832
8603.16	-0.00657154
8616.46	-0.0057235
8629.76	-0.00488455
8643.05	-0.00405507
8656.35	-0.00323542
8669.65	-0.00242594
8682.95	-0.00162699
8696.24	-0.000838898
8709.54	-6.20009e-05
8722.84	0.000703379
8736.13	0.00145692
8749.43	0.00219833
8762.73	0.00292728
8776.02	0.0036435
8789.32	0.00434671
8802.62	0.00503661
8815.92	0.00571295
8829.21	0.00637548
8842.51	0.00702393
8855.81	0.00765808
8869.1	0.0082777
8882.4	0.00888257
8895.7	0.00947249
8908.99	0.0100473
8922.29	0.0106067
8935.59	0.0111506
8948.89	0.0116788
8962.18	0.0121913
8975.48	0.0126878
8988.78	0.0131682
9002.07	0.0136324
9015.37	0.0140803
9028.67	0.0145118
9041.96	0.0149269
9055.26	0.0153255
9068.56	0.0157075
9081.86	0.016073
9095.15	0.0164219
9108.45	0.0167541
9121.75	0.0170698
9135.04	0.017369
9148.34	0.0176516
9161.64	0.0179177
9174.94	0.0181675
9188.23	0.018401
9201.53	0.0186182
9214.83	0.0188194
9228.12	0.0190046
9241.42	0.0191739
9254.72	0.0193276
9268.01	0.0194658
9281.31	0.0195887
9294.61	0.0196965
9307.91	0.0197894
9321.2	0.0198676
9334.5	0.0199313
9347.8	0.0199808
9361.09	0.0200164
9374.39	0.0200384
9387.69	0.0200469
9400.99	0.0200423
9414.28	0.020025
9427.58	0.0199951
9440.88	0.0199531
9454.17	0.0198993
9467.47	0.0198339
9480.77	0.0197574
9494.06	0.0196701
9507.36	0.0195724
9520.66	0.0194646
9533.96	0.019347
9547.25	0.0192202
9560.55	0.0190843
9573.85	0.0189399
9587.14	0.0187873
9600.44	0.0186268
9613.74	0.0184589
9627.04	0.018284
9640.33	0.0181024
9653.63	0.0179145
9666.93	0.0177206
9680.22	0.0175213
9693.52	0.0173167
9706.82	0.0171074
9720.11	0.0168936
9733.41	0.0166758
9746.71	0.0164543
9760.01	0.0162294
9773.3	0.0160015
9786.6	0.0157708
9799.9	0.0155378
9813.19	0.0153028
9826.49	0.015066
9839.79	0.0148278
9853.09	0.0145884
9866.38	0.0143481
9879.68	0.0141072
9892.98	0.0138659
9906.27	0.0136245
9919.57	0.0133832
9932.87	0.0131422
9946.16	0.0129018
9959.46	0.012662
9972.76	0.0124232
9986.06	0.0121854
9999.35	0.0119489
10012.7	0.0117137
10025.9	0.01148
10039.2	0.0112479
10052.5	0.0110175
10065.8	0.0107888
10079.1	0.0105621
10092.4	0.0103372
10105.7	0.0101143
10119	0.00989341
10132.3	0.00967452
10145.6	0.00945767
10158.9	0.00924284
10172.2	0.00903001
10185.5	0.00881918
10198.8	0.00861029
10212.1	0.00840329
10225.4	0.00819814
10238.7	0.00799477
10252	0.00779309
10265.3	0.00759302
10278.6	0.00739446
10291.9	0.00719732
10305.2	0.00700148
10318.5	0.00680683
10331.8	0.00661324
10345.1	0.00642058
10358.4	0.00622872
10371.7	0.00603752
10385	0.00584684
10398.3	0.00565652
10411.6	0.00546642
10424.9	0.00527639
10438.2	0.00508627
10451.5	0.0048959
10464.8	0.00470513
10478	0.00451381
10491.3	0.00432177
10504.6	0.00412885
10517.9	0.00393492
10531.2	0.0037398
10544.5	0.00354336
10557.8	0.00334544
10571.1	0.0031459
10584.4	0.00294461
10597.7	0.00274142
10611	0.0025362
10624.3	0.00232883
10637.6	0.00211919
10650.9	0.00190717
10664.2	0.00169265
10677.5	0.00147553
10690.8	0.00125572
10704.1	0.00103312
10717.4	0.000807671
10730.7	0.000579284
10744	0.000347897
10757.3	0.000113454
10770.6	-0.000124095
10783.9	-0.000364791
10797.2	-0.000608666
10810.5	-0.000855745
10823.8	-0.00110604
10837.1	-0.00135957
10850.4	-0.00161631
10863.7	-0.00187627
10877	-0.00213943
10890.3	-0.00240575
10903.6	-0.0026752
10916.9	-0.00294774
10930.1	-0.00322331
10943.4	-0.00350185
10956.7	-0.00378329
10970	-0.00406756
10983.3	-0.00435457
10996.6	-0.00464423
11009.9	-0.00493643
11023.2	-0.00523107
11036.5	-0.00552804
11049.8	-0.00582721
11063.1	-0.00612846
11076.4	-0.00643166
11089.7	-0.00673666
11103	-0.00704333
11116.3	-0.0073515
11129.6	-0.00766103
11142.9	-0.00797176
11156.2	-0.00828352
11169.5	-0.00859615
11182.8	-0.00890946
11196.1	-0.0092233
11209.4	-0.00953748
11222.7	-0.00985182
11236	-0.0101661
11249.3	-0.0104803
11262.6	-0.010794
11275.9	-0.0111071
11289.2	-0.0114195
11302.5	-0.0117309
11315.8	-0.0120412
11329.1	-0.0123502
11342.4	-0.0126576
11355.7	-0.0129633
11369	-0.0132671
11382.2	-0.0135689
11395.5	-0.0138684
11408.8	-0.0141654
11422.1	-0.0144599
11435.4	-0.0147515
11448.7	-0.0150402
11462	-0.0153258
11475.3	-0.0156081
11488.6	-0.0158869
11501.9	-0.0161621
11515.2	-0.0164335
11528.5	-0.0167011
11541.8	-0.0169646
11555.1	-0.0172239
11568.4	-0.0174788
11581.7	-0.0177294
11595	-0.0179753
11608.3	-0.0182166
11621.6	-0.0184531
11634.9	-0.0186847
11648.2	-0.0189113
11661.5	-0.0191329
11674.8	-0.0193492
11688.1	-0.0195604
11701.4	-0.0197662
11714.7	-0.0199667
11728	-0.0201618
11741.3	-0.0203513
11754.6	-0.0205354
11767.9	-0.0207139
11781.2	-0.0208868
11794.5	-0.0210542
11807.8	-0.0212159
11821.1	-0.021372
11834.3	-0.0215225
11847.6	-0.0216673
11860.9	-0.0218066
11874.2	-0.0219403
11887.5	-0.0220684
11900.8	-0.0221909
11914.1	-0.022308
11927.4	-0.0224197
11940.7	-0.0225259
11954	-0.0226268
11967.3	-0.0227224
11980.6	-0.0228128
11993.9	-0.0228981
12007.2	-0.0229782
12020.5	-0.0230534
12033.8	-0.0231237
12047.1	-0.0231892
12060.4	-0.0232499
12073.7	-0.023306
12087	-0.0233576
12100.3	-0.0234048
12113.6	-0.0234477
12126.9	-0.0234864
12140.2	-0.0235209
12153.5	-0.0235515
12166.8	-0.0235783
12180.1	-0.0236013
12193.4	-0.0236206
12206.7	-0.0236365
12220	-0.023649
12233.3	-0.0236582
12246.6	-0.0236643
12259.9	-0.0236674
12273.2	-0.0236675
12286.5	-0.023665
12299.7	-0.0236597
12313	-0.0236519
12326.3	-0.0236418
12339.6	-0.0236293
12352.9	-0.0236146
12366.2	-0.0235979
12379.5	-0.0235792
12392.8	-0.0235587
12406.1	-0.0235364
12419.4	-0.0235125
12432.7	-0.023487
12446	-0.0234601
12459.3	-0.0234319
12472.6	-0.0234024
12485.9	-0.0233717
12499.2	-0.02334
12512.5	-0.0233072
12525.8	-0.0232735
12539.1	-0.0232389
12552.4	-0.0232036
12565.7	-0.0231674
12579	-0.0231307
12592.3	-0.0230932
12605.6	-0.0230552
12618.9	-0.0230167
12632.2	-0.0229776
12645.5	-0.0229381
12658.8	-0.0228982
12672.1	-0.0228578
12685.4	-0.022817
12698.7	-0.0227759
12712	-0.0227344
12725.3	-0.0226925
12738.6	-0.0226503
12751.8	-0.0226077
12765.1	-0.0225647
12778.4	-0.0225214
12791.7	-0.0224776
12805	-0.0224335
12818.3	-0.0223888
12831.6	-0.0223437
12844.9	-0.0222981
12858.2	-0.022252
12871.5	-0.0222053
12884.8	-0.0221579
12898.1	-0.0221099
12911.4	-0.0220612
12924.7	-0.0220117
12938	-0.0219613
12951.3	-0.0219101
12964.6	-0.021858
12977.9	-0.0218048
12991.2	-0.0217506
13004.5	-0.0216952
13017.8	-0.0216386
13031.1	-0.0215808
13044.4	-0.0215216
13057.7	-0.021461
13071	-0.0213989
13084.3	-0.0213353
13097.6	-0.02127
13110.9	-0.021203
13124.2	-0.0211343
13137.5	-0.0210637
13150.8	-0.0209911
13164.1	-0.0209166
13177.4	-0.02084
13190.7	-0.0207612
13203.9	-0.0206803
13217.2	-0.020597
13230.5	-0.0205114
13243.8	-0.0204233
13257.1	-0.0203328
13270.4	-0.0202397
13283.7	-0.020144
13297	-0.0200456
13310.3	-0.0199444
13323.6	-0.0198405
13336.9	-0.0197337
13350.2	-0.0196241
13363.5	-0.0195114
13376.8	-0.0193958
13390.1	-0.0192772
13403.4	-0.0191555
13416.7	-0.0190307
13430	-0.0189027
13443.3	-0.0187716
13456.6	-0.0186373
13469.9	-0.0184997
13483.2	-0.0183589
13496.5	-0.0182149
13509.8	-0.0180676
13523.1	-0.017917
13536.4	-0.0177631
13549.7	-0.017606
13563	-0.0174456
13576.3	-0.0172819
13589.6	-0.0171149
13602.9	-0.0169447
13616.2	-0.0167713
13629.5	-0.0165947
13642.8	-0.0164149
13656	-0.0162319
13669.3	-0.0160459
13682.6	-0.0158567
13695.9	-0.0156645
13709.2	-0.0154693
13722.5	-0.0152712
13735.8	-0.0150702
13749.1	-0.0148663
13762.4	-0.0146597
13775.7	-0.0144503
13789	-0.0142383
13802.3	-0.0140238
13815.6	-0.0138067
13828.9	-0.0135871
13842.2	-0.0133653
13855.5	-0.0131411
13868.8	-0.0129147
13882.1	-0.0126863
13895.4	-0.0124558
13908.7	-0.0122234
13922	-0.0119892
13935.3	-0.0117532
13948.6	-0.0115156
13961.9	-0.0112764
13975.2	-0.0110358
13988.5	-0.0107939
14001.8	-0.0105507
14015.1	-0.0103064
14028.4	-0.0100611
14041.7	-0.00981484
14055	-0.00956781
14068.3	-0.00932008
14081.6	-0.00907177
14094.9	-0.00882299
14108.1	-0.00857386
14121.4	-0.00832447
14134.7	-0.00807495
14148	-0.00782541
14161.3	-0.00757595
14174.6	-0.0073267
14187.9	-0.00707775
14201.2	-0.00682923
14214.5	-0.00658124
14227.8	-0.00633389
14241.1	-0.00608729
14254.4	-0.00584155
14267.7	-0.00559677
14281	-0.00535305
14294.3	-0.0051105
14307.6	-0.00486923
14320.9	-0.00462933
14334.2	-0.00439089
14347.5	-0.00415403
14360.8	-0.00391882
14374.1	-0.00368536
14387.4	-0.00345375
14400.7	-0.00322406
14414	-0.00299639
14427.3	-0.00277082
14440.6	-0.00254742
14453.9	-0.00232628
14467.2	-0.00210747
14480.5	-0.00189107
14493.8	-0.00167714
14507.1	-0.00146575
14520.4	-0.00125696
14533.7	-0.00105084
14547	-0.000847442
14560.2	-0.000646822
14573.5	-0.000449032
14586.8	-0.000254121
14600.1	-6.21355e-05
14613.4	0.000126882
14626.7	0.000312892
14640	0.000495858
14653.3	0.000675746
14666.6	0.000852526
14679.9	0.00102617
14693.2	0.00119666
14706.5	0.00136396
14719.8	0.00152807
14733.1	0.00168897
14746.4	0.00184664
14759.7	0.00200107
14773	0.00215227
14786.3	0.00230023
14799.6	0.00244495
14812.9	0.00258642
14826.2	0.00272467
14839.5	0.00285969
14852.8	0.0029915
14866.1	0.00312011
14879.4	0.00324554
14892.7	0.0033678
14906	0.00348693
14919.3	0.00360294
14932.6	0.00371586
14945.9	0.00382573
14959.2	0.00393256
14972.5	0.0040364
14985.8	0.00413728
14999.1	0.00423524
15012.4	0.00433032
15025.6	0.00442255
15038.9	0.00451199
15052.2	0.00459869
15065.5	0.00468267
15078.8	0.00476401
15092.1	0.00484273
15105.4	0.00491891
15118.7	0.00499259
15132	0.00506382
15145.3	0.00513266
15158.6	0.00519917
15171.9	0.0052634
15185.2	0.00532542
15198.5	0.00538529
15211.8	0.00544305
15225.1	0.00549879
15238.4	0.00555255
15251.7	0.00560441
15265	0.00565442
15278.3	0.00570265
15291.6	0.00574916
15304.9	0.00579402
15318.2	0.00583728
15331.5	0.00587903
15344.8	0.00591931
15358.1	0.0059582
15371.4	0.00599576
15384.7	0.00603206
15398	0.00606715
15411.3	0.0061011
15424.6	0.00613398
15437.9	0.00616584
15451.2	0.00619676
15464.5	0.00622678
15477.7	0.00625597
15491	0.0062844
15504.3	0.00631211
15517.6	0.00633918
15530.9	0.00636564
15544.2	0.00639157
15557.5	0.00641701
15570.8	0.00644201
15584.1	0.00646663
15597.4	0.00649093
15610.7	0.00651493
15624	0.00653871
15637.3	0.00656229
15650.6	0.00658572
15663.9	0.00660905
15677.2	0.00663231
15690.5	0.00665555
15703.8	0.00667879
15717.1	0.00670207
15730.4	0.00672542
15743.7	0.00674888
15757	0.00677246
15770.3	0.0067962
15783.6	0.00682011
15796.9	0.00684421
15810.2	0.00686852
15823.5	0.00689306
15836.8	0.00691783
15850.1	0.00694285
15863.4	0.00696812
15876.7	0.00699364
15890	0.00701942
15903.3	0.00704544
15916.6	0.00707171
15929.8	0.00709822
15943.1	0.00712495
15956.4	0.00715188
15969.7	0.00717901
15983	0.00720631
15996.3	0.00723375
16009.6	0.00726131
16022.9	0.00728895
16036.2	0.00731664
16049.5	0.00734435
16062.8	0.00737203
16076.1	0.00739963
16089.4	0.00742712
16102.7	0.00745444
16116	0.00748154
16129.3	0.00750836
16142.6	0.00753484
16155.9	0.00756091
16169.2	0.00758652
16182.5	0.00761159
16195.8	0.00763605
16209.1	0.00765983
16222.4	0.00768284
16235.7	0.00770501
16249	0.00772625
16262.3	0.00774649
16275.6	0.00776562
16288.9	0.00778356
16302.2	0.00780021
16315.5	0.00781549
16328.8	0.00782928
16342.1	0.0078415
16355.4	0.00785205
16368.7	0.00786081
16381.9	0.00786769
16395.2	0.00787258
16408.5	0.00787537
16421.8	0.00787596
16435.1	0.00787423
16448.4	0.00787008
16461.7	0.0078634
16475	0.00785407
16488.3	0.00784198
16501.6	0.00782703
16514.9	0.00780911
16528.2	0.0077881
16541.5	0.0077639
16554.8	0.00773639
16568.1	0.00770547
16581.4	0.00767104
16594.7	0.00763298
16608	0.0075912
16621.3	0.0075456
16634.6	0.00749608
16647.9	0.00744253
16661.2	0.00738488
16674.5	0.00732303
16687.8	0.00725688
16701.1	0.00718637
16714.4	0.0071114
16727.7	0.0070319
16741	0.0069478
16754.3	0.00685904
16767.6	0.00676554
16780.9	0.00666725
16794.2	0.00656412
16807.5	0.00645609
16820.8	0.00634313
16834.1	0.0062252
16847.3	0.00610226
16860.6	0.0059743
16873.9	0.00584128
16887.2	0.00570321
16900.5	0.00556006
16913.8	0.00541185
16927.1	0.00525857
16940.4	0.00510025
16953.7	0.0049369
16967	0.00476856
16980.3	0.00459525
16993.6	0.00441702
17006.9	0.00423392
17020.2	0.00404602
17033.5	0.00385336
17046.8	0.00365604
17060.1	0.00345412
17073.4	0.0032477
17086.7	0.00303687
17100	0.00282175
17113.3	0.00260243
17126.6	0.00237904
17139.9	0.00215171
17153.2	0.00192057
17166.5	0.00168576
17179.8	0.00144744
17193.1	0.00120575
17206.4	0.000960873
17219.7	0.000712967
17233	0.000462213
17246.3	0.000208796
17259.6	-4.70942e-05
17272.9	-0.000305259
17286.2	-0.000565496
17299.4	-0.000827596
17312.7	-0.00109134
17326	-0.00135652
17339.3	-0.0016229
17352.6	-0.00189025
17365.9	-0.00215834
17379.2	-0.00242693
17392.5	-0.00269577
17405.8	-0.00296463
17419.1	-0.00323324
17432.4	-0.00350136
17445.7	-0.00376874
17459	-0.00403511
17472.3	-0.00430021
17485.6	-0.00456379
17498.9	-0.00482558
17512.2	-0.00508532
17525.5	-0.00534274
17538.8	-0.00559759
17552.1	-0.0058496
17565.4	-0.00609851
17578.7	-0.00634405
17592	-0.00658598
17605.3	-0.00682402
17618.6	-0.00705793
17631.9	-0.00728746
17645.2	-0.00751235
17658.5	-0.00773237
17671.8	-0.00794726
17685.1	-0.0081568
17698.4	-0.00836075
17711.7	-0.00855888
17725	-0.00875098
17738.3	-0.00893682
17751.5	-0.0091162
17764.8	-0.00928891
17778.1	-0.00945477
17791.4	-0.00961357
17804.7	-0.00976514
17818	-0.0099093
17831.3	-0.0100459
17844.6	-0.0101748
17857.9	-0.0102957
17871.2	-0.0104087
17884.5	-0.0105135
17897.8	-0.0106101
17911.1	-0.0106982
17924.4	-0.0107779
17937.7	-0.010849
17951	-0.0109114
17964.3	-0.0109651
17977.6	-0.01101
17990.9	-0.0110461
18004.2	-0.0110732
18017.5	-0.0110915
18030.8	-0.0111007
18044.1	-0.0111011
18057.4	-0.0110924
18070.7	-0.0110749
18084	-0.0110484
18097.3	-0.011013
18110.6	-0.0109687
18123.9	-0.0109157
18137.2	-0.0108539
18150.5	-0.0107834
18163.8	-0.0107044
18177.1	-0.0106168
18190.4	-0.0105209
18203.6	-0.0104167
18216.9	-0.0103043
18230.2	-0.0101839
18243.5	-0.0100556
18256.8	-0.00991961
18270.1	-0.00977599
18283.4	-0.00962494
18296.7	-0.00946665
18310	-0.00930128
18323.3	-0.00912902
18336.6	-0.00895007
18349.9	-0.00876463
18363.2	-0.0085729
18376.5	-0.0083751
18389.8	-0.00817145
18403.1	-0.00796218
18416.4	-0.0077475
18429.7	-0.00752767
18443	-0.0073029
18456.3	-0.00707346
18469.6	-0.00683958
18482.9	-0.00660152
18496.2	-0.00635952
18509.5	-0.00611385
18522.8	-0.00586476
18536.1	-0.0056125
18549.4	-0.00535736
18562.7	-0.00509957
18576	-0.00483941
18589.3	-0.00457714
18602.6	-0.00431303
18615.9	-0.00404733
18629.2	-0.00378032
18642.5	-0.00351224
18655.8	-0.00324337
18669	-0.00297396
18682.3	-0.00270427
18695.6	-0.00243454
18708.9	-0.00216505
18722.2	-0.00189602
18735.5	-0.00162771
18748.8	-0.00136037
18762.1	-0.00109422
18775.4	-0.000829507
18788.7	-0.000566458
18802	-0.000305298
18815.3	-4.62497e-05
18828.6	0.000210472
18841.9	0.000464657
18855.2	0.000716099
18868.5	0.000964598
18881.8	0.00120996
18895.1	0.001452
18908.4	0.00169053
18921.7	0.00192538
18935	0.00215638
18948.3	0.00238336
18961.6	0.00260617
18974.9	0.00282466
18988.2	0.00303869
19001.5	0.00324812
19014.8	0.00345283
19028.1	0.00365268
19041.4	0.00384757
19054.7	0.00403739
19068	0.00422204
19081.3	0.00440143
19094.6	0.00457546
19107.9	0.00474406
19121.1	0.00490716
19134.4	0.00506469
19147.7	0.0052166
19161	0.00536283
19174.3	0.00550334
19187.6	0.0056381
19200.9	0.00576707
19214.2	0.00589023
19227.5	0.00600756
19240.8	0.00611906
19254.1	0.00622471
19267.4	0.00632453
19280.7	0.00641852
19294	0.00650669
19307.3	0.00658907
19320.6	0.00666568
19333.9	0.00673656
19347.2	0.00680174
19360.5	0.00686127
19373.8	0.0069152
19387.1	0.00696357
19400.4	0.00700646
19413.7	0.00704391
19427	0.00707601
19440.3	0.00710283
19453.6	0.00712443
19466.9	0.00714091
19480.2	0.00715234
19493.5	0.00715883
19506.8	0.00716045
19520.1	0.00715731
19533.4	0.0071495
19546.7	0.00713714
19560	0.00712032
19573.2	0.00709915
19586.5	0.00707374
19599.8	0.00704422
19613.1	0.00701068
19626.4	0.00697326
19639.7	0.00693207
19653	0.00688723
19666.3	0.00683886
19679.6	0.0067871
19692.9	0.00673206
19706.2	0.00667387
19719.5	0.00661267
19732.8	0.00654857
19746.1	0.00648171
19759.4	0.00641223
19772.7	0.00634024
19786	0.00626588
19799.3	0.00618928
19812.6	0.00611057
19825.9	0.00602988
19839.2	0.00594735
19852.5	0.00586309
19865.8	0.00577724
19879.1	0.00568994
19892.4	0.00560129
19905.7	0.00551144
19919	0.00542051
19932.3	0.00532861
19945.6	0.00523589
19958.9	0.00514245
19972.2	0.00504841
19985.5	0.00495391
19998.8	0.00485904
