0	0
13.237	0
23.1647	0
33.0924	0
43.0202	0
52.9479	0
62.8756	0
72.8033	0
82.7311	0
92.6588	0
102.587	0
112.514	0
122.442	0
132.37	0
142.297	0
152.225	0
162.153	0
172.081	0
182.008	0
191.936	0
201.864	0
211.792	0
221.719	0
231.647	0
241.575	0
251.502	0
261.43	0
271.358	0
281.286	0
291.213	0
301.141	0
311.069	0
320.997	0
330.924	0
340.852	0
350.78	0
360.707	0
370.635	0
380.563	0
390.491	0
400.418	0
410.346	0
420.274	0
430.202	0
440.129	0
450.057	0
463.294	0
473.222	0
483.149	0
493.077	0
503.005	0
512.933	0
522.86	0
532.788	0
542.716	0
552.644	0
562.571	0
572.499	0
582.427	0
592.354	0
602.282	0
612.21	0
622.138	0
632.065	0
641.993	0
651.921	0
661.849	0
671.776	0
681.704	0
691.632	0
701.559	0
711.487	0
721.415	0
731.343	0
741.27	0
751.198	0
761.126	0
771.054	0
780.981	0
790.909	0
800.837	0
810.764	0
820.692	0
830.62	0
840.548	0
850.475	0
860.403	0
870.331	0
880.259	0
890.186	0
900.114	0
910.042	0
923.279	0
933.206	0
943.134	0
953.062	0
962.99	0
972.917	0
982.845	0
992.773	0
1002.7	0
1012.63	0
1022.56	0
1032.48	0
1042.41	0
1052.34	0
1062.27	0
1072.19	0
1082.12	0
1092.05	0
1101.98	0
1111.91	0
1121.83	0
1131.76	0
1141.69	0
1151.62	0
1161.54	0
1171.47	0
1181.4	0
1191.33	0
1201.26	0
1211.18	0
1221.11	0
1231.04	0
1240.97	0
1250.89	0
1260.82	0
1270.75	0
1280.68	0
1290.6	0
1300.53	0
1310.46	0
1320.39	0
1330.32	0
1340.24	0
1350.17	0
1360.1	0
1370.03	0
1383.26	0
1393.19	0
1403.12	0
1413.05	0
1422.97	0
1432.9	0
1442.83	0
1452.76	0
1462.69	0
1472.61	0
1482.54	0
1492.47	0
1502.4	0
1512.32	0
1522.25	0
1532.18	0
1542.11	0
1552.03	0
1561.96	0
1571.89	0
1581.82	0
1591.75	0
1601.67	0
1611.6	0
1621.53	0
1631.46	0
1641.38	0
1651.31	0
1661.24	0
1671.17	0
1681.1	0
1691.02	0
1700.95	0
1710.88	0
1720.81	0
1730.73	0
1740.66	0
1750.59	0
1760.52	0
1770.44	0
1780.37	0
1790.3	0
1800.23	0
1810.16	0
1820.08	0
1830.01	0
1843.25	0
1853.18	0
1863.1	0
1873.03	0
1882.96	0
1892.89	0
1902.81	0
1912.74	0
1922.67	0
1932.6	0
1942.53	0
1952.45	0
1962.38	0
1972.31	0
1982.24	0
1992.16	0
2002.09	0
2012.02	0
2021.95	0
2031.87	0
2041.8	0
2051.73	0
2061.66	0
2071.59	0
2081.51	0
2091.44	0
2101.37	0
2111.3	0
2121.22	0
2131.15	0
2141.08	0
2151.01	0
2160.94	0
2170.86	0
2180.79	0
2190.72	0
2200.65	0
2210.57	0
2220.5	0
2230.43	0
2240.36	0
2250.28	0
2260.21	0
2270.14	0
2280.07	0
2293.31	0
2303.23	0
2313.16	0
2323.09	0
2333.02	0
2342.94	0
2352.87	0
2362.8	0
2372.73	0
2382.65	0
2392.58	0
2402.51	0
2412.44	0
2422.37	0
2432.29	0
2442.22	0
2452.15	0
2462.08	0
2472	0
2481.93	0
2491.86	0
2501.79	0
2511.72	0
2521.64	0
2531.57	0
2541.5	0
2551.43	0
2561.35	0
2571.28	0
2581.21	0
2591.14	0
2601.06	0
2610.99	0
2620.92	0
2630.85	0
2640.78	0
2650.7	0
2660.63	0
2670.56	0
2680.49	0
2690.41	0
2700.34	0
2710.27	0
2720.2	0
2730.12	0
2740.05	0
2753.29	0
2763.22	0
2773.15	0
2783.07	0
2793	0
2802.93	0
2812.86	0
2822.78	0
2832.71	0
2842.64	0
2852.57	0
2862.49	0
2872.42	0
2882.35	0
2892.28	0
2902.2	0
2912.13	0
2922.06	0
2931.99	0
2941.92	0
2951.84	0
2961.77	0
2971.7	0
2981.63	0
2991.55	0
3001.48	0
3011.41	0
3021.34	0
3031.26	0
3041.19	0
3051.12	0
3061.05	0
3070.97	0
3080.9	0
3090.83	0
3100.76	0
3110.69	0
3120.61	0
3130.54	0
3140.47	0
3150.4	0
3160.32	0
3170.25	-1.81899e-12
3180.18	-4.54747e-12
3190.11	-8.18545e-12
3200.03	-1.36424e-11
3213.27	-2.72848e-11
3223.2	-4.54747e-11
3233.13	-7.36691e-11
3243.05	-1.20963e-10
3252.98	-1.94632e-10
3262.91	-3.11047e-10
3272.84	-4.92037e-10
3282.76	-7.71252e-10
3292.69	-1.19871e-09
3302.62	-1.84536e-09
3312.55	-2.81761e-09
3322.47	-4.26189e-09
3332.4	-6.39102e-09
3342.33	-9.49967e-09
3352.26	-1.40017e-08
3362.18	-2.04654e-08
3372.11	-2.96632e-08
3382.04	-4.26462e-08
3391.97	-6.08188e-08
3401.89	-8.60491e-08
3411.82	-1.20798e-07
3421.75	-1.68274e-07
3431.67	-2.32635e-07
3441.6	-3.19214e-07
3451.53	-4.34798e-07
3461.46	-5.87952e-07
3471.38	-7.89391e-07
3481.31	-1.05242e-06
3491.24	-1.39342e-06
3501.17	-1.83239e-06
3511.09	-2.39359e-06
3521.02	-3.10618e-06
3530.95	-4.00493e-06
3540.88	-5.13106e-06
3550.8	-6.53299e-06
3560.73	-8.26723e-06
3570.66	-1.03992e-05
3580.59	-1.30042e-05
3590.51	-1.61682e-05
3600.44	-1.99887e-05
3610.37	-2.45754e-05
3620.29	-3.00514e-05
3630.22	-3.65531e-05
3640.15	-4.42316e-05
3650.08	-5.32526e-05
3660	-6.37971e-05
3673.24	-8.05676e-05
3683.17	-9.5457e-05
3693.09	-0.000112585
3703.02	-0.000132198
3712.95	-0.000154561
3722.88	-0.000179951
3732.8	-0.000208659
3742.73	-0.000240992
3752.66	-0.000277268
3762.59	-0.000317818
3772.51	-0.000362987
3782.44	-0.000413128
3792.37	-0.000468607
3802.3	-0.000529798
3812.22	-0.000597086
3822.15	-0.000670863
3832.08	-0.000751528
3842	-0.000839491
3851.93	-0.000935163
3861.86	-0.00103896
3871.79	-0.00115131
3881.71	-0.00127264
3891.64	-0.00140338
3901.57	-0.00154394
3911.5	-0.00169477
3921.42	-0.00185628
3931.35	-0.0020289
3941.28	-0.00221303
3951.2	-0.00240909
3961.13	-0.00261746
3971.06	-0.00283852
3980.99	-0.00307263
3990.91	-0.00332013
4000.84	-0.00358133
4010.77	-0.00385653
4020.7	-0.00414597
4030.62	-0.00444989
4040.55	-0.00476846
4050.48	-0.00510184
4060.41	-0.00545013
4070.33	-0.00581337
4080.26	-0.00619156
4090.19	-0.00658465
4100.12	-0.00699251
4110.04	-0.00741495
4123.28	-0.00800045
4133.21	-0.00845579
4143.14	-0.00892453
4153.06	-0.00940612
4162.99	-0.00989992
4172.92	-0.0104052
4182.85	-0.0109209
4192.77	-0.0114462
4202.7	-0.0119798
4212.63	-0.0125204
4222.56	-0.0130664
4232.48	-0.0136161
4242.41	-0.0141676
4252.34	-0.0147185
4262.27	-0.0152665
4272.19	-0.0158087
4282.12	-0.016342
4292.05	-0.016863
4301.98	-0.0173678
4311.91	-0.0178522
4321.83	-0.0183115
4331.76	-0.0187406
4341.69	-0.0191336
4351.62	-0.0194845
4361.54	-0.0197865
4371.47	-0.0200321
4381.4	-0.0202133
4391.33	-0.0203216
4401.25	-0.0203474
4411.18	-0.0202809
4421.11	-0.0201113
4431.04	-0.0198272
4440.97	-0.0194163
4450.89	-0.018866
4460.82	-0.0181626
4470.75	-0.0172922
4480.68	-0.0162399
4490.6	-0.0149907
4500.53	-0.0135288
4510.46	-0.0118383
4520.39	-0.00990296
4530.31	-0.00770645
4540.24	-0.00523246
4550.17	-0.00246488
4560.1	0.000612072
4570.02	0.00401365
4583.26	0.00907907
4593.19	0.0132931
4603.12	0.0178764
4613.04	0.0228398
4622.97	0.0281925
4632.9	0.0339421
4642.83	0.0400942
4652.75	0.0466523
4662.68	0.053618
4672.61	0.0609903
4682.54	0.0687659
4692.47	0.076939
4702.39	0.0855013
4712.32	0.0944421
4722.25	0.103748
4732.18	0.113403
4742.1	0.123389
4752.03	0.133685
4761.96	0.144269
4771.89	0.155114
4781.81	0.166195
4791.74	0.177482
4801.67	0.188945
4811.6	0.200551
4821.52	0.212267
4831.45	0.224057
4841.38	0.235886
4851.31	0.247717
4861.24	0.259513
4871.16	0.271234
4881.09	0.282843
4891.02	0.2943
4900.95	0.305567
4910.87	0.316603
4920.8	0.327369
4930.73	0.337827
4940.66	0.347937
4950.58	0.357662
4960.51	0.366963
4970.44	0.375804
4980.37	0.384149
4990.29	0.391962
5000.22	0.399209
5010.15	0.405858
5020.08	0.411878
5030.01	0.41724
5043.24	0.423319
5053.17	0.427042
5063.1	0.430025
5073.03	0.432247
5082.95	0.433693
5092.88	0.434347
5102.81	0.434201
5112.74	0.433245
5122.66	0.431477
5132.59	0.428896
5142.52	0.425504
5152.45	0.421308
5162.37	0.416318
5172.3	0.410548
5182.23	0.404015
5192.16	0.396739
5202.09	0.388744
5212.01	0.380056
5221.94	0.370706
5231.87	0.360724
5241.8	0.350145
5251.72	0.339006
5261.65	0.327343
5271.58	0.315197
5281.51	0.302607
5291.43	0.289613
5301.36	0.276257
5311.29	0.262579
5321.22	0.24862
5331.15	0.234418
5341.07	0.220012
5351	0.20544
5360.93	0.190737
5370.86	0.175938
5380.78	0.161075
5390.71	0.146178
5400.64	0.131277
5410.57	0.116398
5420.49	0.101567
5430.42	0.0868071
5440.35	0.0721408
5450.28	0.0575888
5460.2	0.043171
5470.13	0.028906
5480.06	0.0148122
5493.3	-0.00368266
5503.22	-0.0173082
5513.15	-0.0307035
5523.08	-0.0438504
5533.01	-0.0567301
5542.94	-0.0693232
5552.86	-0.0816094
5562.79	-0.0935673
5572.72	-0.105175
5582.65	-0.116409
5592.57	-0.127245
5602.5	-0.137659
5612.43	-0.147624
5622.36	-0.157115
5632.28	-0.166106
5642.21	-0.174571
5652.14	-0.182484
5662.07	-0.189819
5671.99	-0.196553
5681.92	-0.202664
5691.85	-0.208131
5701.78	-0.212935
5711.71	-0.217061
5721.63	-0.220496
5731.56	-0.223229
5741.49	-0.225256
5751.42	-0.226572
5761.34	-0.227181
5771.27	-0.227086
5781.2	-0.226298
5791.13	-0.224831
5801.05	-0.222703
5810.98	-0.219935
5820.91	-0.216554
5830.84	-0.212589
5840.76	-0.208074
5850.69	-0.203046
5860.62	-0.197543
5870.55	-0.191607
5880.48	-0.185284
5890.4	-0.178619
5900.33	-0.171658
5910.26	-0.164451
5920.19	-0.157046
5930.11	-0.149492
5940.04	-0.141836
5953.28	-0.131554
5963.21	-0.123846
5973.13	-0.116191
5983.06	-0.10863
5992.99	-0.101205
6002.92	-0.0939536
6012.84	-0.0869101
6022.77	-0.0801075
6032.7	-0.0735751
6042.63	-0.0673394
6052.56	-0.0614237
6062.48	-0.0558483
6072.41	-0.0506303
6082.34	-0.0457837
6092.27	-0.0413195
6102.19	-0.0372458
6112.12	-0.0335676
6122.05	-0.0302875
6131.98	-0.0274051
6141.9	-0.0249178
6151.83	-0.0228204
6161.76	-0.0211056
6171.69	-0.019764
6181.62	-0.0187843
6191.54	-0.0181535
6201.47	-0.0178569
6211.4	-0.0178784
6221.33	-0.0182007
6231.25	-0.0188052
6241.18	-0.0196726
6251.11	-0.0207826
6261.04	-0.0221144
6270.96	-0.0236466
6280.89	-0.0253575
6290.82	-0.0272252
6300.75	-0.0292279
6310.68	-0.0313439
6320.6	-0.0335517
6330.53	-0.0358303
6340.46	-0.0381592
6350.39	-0.0405186
6360.31	-0.0428896
6370.24	-0.0452542
6380.17	-0.0475954
6390.1	-0.0498974
6400.02	-0.0521456
6413.26	-0.0550368
6423.19	-0.0571102
6433.12	-0.0590909
6443.04	-0.0609704
6452.97	-0.0627413
6462.9	-0.0643981
6472.83	-0.0659364
6482.76	-0.0673532
6492.68	-0.068647
6502.61	-0.0698174
6512.54	-0.0708652
6522.47	-0.0717922
6532.39	-0.0726013
6542.32	-0.0732963
6552.25	-0.0738815
6562.18	-0.0743623
6572.1	-0.0747441
6582.03	-0.0750331
6591.96	-0.0752355
6601.89	-0.0753579
6611.82	-0.0754067
6621.74	-0.0753884
6631.67	-0.0753093
6641.6	-0.0751756
6651.53	-0.0749929
6661.45	-0.0747667
6671.38	-0.0745018
6681.31	-0.0742027
6691.24	-0.0738733
6701.16	-0.0735169
6711.09	-0.0731364
6721.02	-0.072734
6730.95	-0.0723113
6740.88	-0.0718694
6750.8	-0.0714091
6760.73	-0.0709305
6770.66	-0.0704333
6780.59	-0.0699168
6790.51	-0.06938
6800.44	-0.0688217
6810.37	-0.0682402
6820.3	-0.067634
6830.22	-0.0670012
6840.15	-0.0663398
6850.08	-0.0656481
6860.01	-0.0649242
6873.24	-0.0639058
6883.17	-0.0631001
6893.1	-0.062257
6903.03	-0.0613753
6912.96	-0.0604541
6922.88	-0.0594929
6932.81	-0.0584913
6942.74	-0.0574493
6952.67	-0.0563673
6962.59	-0.0552461
6972.52	-0.0540864
6982.45	-0.0528898
6992.38	-0.0516578
7002.3	-0.0503923
7012.23	-0.0490955
7022.16	-0.04777
7032.09	-0.0464184
7042.02	-0.0450437
7051.94	-0.0436488
7061.87	-0.042237
7071.8	-0.0408117
7081.73	-0.0393763
7091.65	-0.0379343
7101.58	-0.0364891
7111.51	-0.0350443
7121.44	-0.0336032
7131.36	-0.0321691
7141.29	-0.0307454
7151.22	-0.0293351
7161.15	-0.0279412
7171.08	-0.0265664
7181	-0.0252132
7190.93	-0.023884
7200.86	-0.022581
7210.79	-0.0213058
7220.71	-0.0200602
7230.64	-0.0188454
7240.57	-0.0176626
7250.5	-0.0165125
7260.42	-0.0153956
7270.35	-0.0143123
7280.28	-0.0132626
7290.21	-0.0122463
7300.14	-0.0112629
7310.06	-0.010312
7323.3	-0.00909293
7333.23	-0.00821408
7343.15	-0.00736431
7353.08	-0.00654234
7363.01	-0.00574681
7372.94	-0.00497628
7382.87	-0.00422927
7392.79	-0.00350428
7402.72	-0.0027998
7412.65	-0.00211437
7422.58	-0.00144656
7432.5	-0.000795015
7442.43	-0.00015846
7452.36	0.000464264
7462.29	0.0010742
7472.21	0.00167224
7482.14	0.00225916
7492.07	0.00283553
7502	0.00340179
7511.92	0.00395819
7521.85	0.00450481
7531.78	0.00504155
7541.71	0.00556813
7551.63	0.00608411
7561.56	0.00658887
7571.49	0.00708165
7581.42	0.00756152
7591.35	0.00802743
7601.27	0.0084782
7611.2	0.00891255
7621.13	0.00932909
7631.06	0.00972637
7640.98	0.0101029
7650.91	0.0104571
7660.84	0.0107874
7670.77	0.0110922
7680.69	0.01137
7690.62	0.0116193
7700.55	0.0118385
7710.48	0.0120264
7720.4	0.0121815
7730.33	0.0123026
7740.26	0.0123886
7750.19	0.0124385
7760.11	0.0124515
7770.04	0.0124269
7783.28	0.0123344
7793.21	0.0122198
7803.13	0.0120662
7813.06	0.0118734
7822.99	0.0116417
7832.92	0.0113711
7842.84	0.011062
7852.77	0.0107149
7862.7	0.0103304
7872.63	0.00990935
7882.56	0.00945248
7892.48	0.00896078
7902.41	0.00843529
7912.34	0.00787712
7922.27	0.00728747
7932.19	0.00666758
7942.12	0.00601874
7952.05	0.00534228
7961.98	0.00463956
7971.9	0.00391196
7981.83	0.00316085
7991.76	0.00238762
8001.69	0.00159366
8011.61	0.000780321
8021.54	-5.10391e-05
8031.47	-0.00089909
8041.4	-0.00176252
8051.33	-0.00264006
8061.25	-0.00353045
8071.18	-0.00443246
8081.11	-0.00534489
8091.04	-0.00626658
8100.96	-0.00719637
8110.89	-0.00813316
8120.82	-0.00907583
8130.75	-0.0100233
8140.67	-0.0109745
8150.6	-0.0119285
8160.53	-0.0128841
8170.46	-0.0138404
8180.38	-0.0147964
8190.31	-0.015751
8200.24	-0.0167033
8210.17	-0.0176524
8220.1	-0.0185972
8230.02	-0.0195367
8243.26	-0.0207798
8253.19	-0.0217036
8263.12	-0.0226191
8273.04	-0.0235254
8282.97	-0.0244216
8292.9	-0.0253069
8302.83	-0.0261803
8312.75	-0.0270411
8322.68	-0.0278885
8332.61	-0.0287217
8342.54	-0.02954
8352.46	-0.0303425
8362.39	-0.0311287
8372.32	-0.0318977
8382.25	-0.032649
8392.18	-0.0333819
8402.1	-0.0340958
8412.03	-0.03479
8421.96	-0.035464
8431.89	-0.0361172
8441.81	-0.0367489
8451.74	-0.0373587
8461.67	-0.0379457
8471.6	-0.0385095
8481.52	-0.0390495
8491.45	-0.0395649
8501.38	-0.040055
8511.31	-0.0405192
8521.24	-0.0409566
8531.16	-0.0413665
8541.09	-0.0417481
8551.02	-0.0421004
8560.95	-0.0424224
8570.87	-0.0427133
8580.8	-0.0429719
8590.73	-0.0431972
8600.66	-0.043388
8610.59	-0.0435431
8620.51	-0.0436614
8630.44	-0.0437415
8640.37	-0.0437822
8650.3	-0.0437822
8660.22	-0.0437402
8670.15	-0.0436547
8680.08	-0.0435246
8690.01	-0.0433485
8703.24	-0.04304
8713.17	-0.0427517
8723.1	-0.0424133
8733.03	-0.0420238
8742.95	-0.041582
8752.88	-0.041087
8762.81	-0.040538
8772.74	-0.0399342
8782.67	-0.039275
8792.59	-0.03856
8802.52	-0.0377886
8812.45	-0.0369608
8822.38	-0.0360764
8832.3	-0.0351356
8842.23	-0.0341386
8852.16	-0.0330857
8862.09	-0.0319777
8872.01	-0.0308152
8881.94	-0.0295992
8891.87	-0.0283308
8901.8	-0.0270112
8911.73	-0.025642
8921.65	-0.0242246
8931.58	-0.0227608
8941.51	-0.0212526
8951.44	-0.019702
8961.36	-0.0181112
8971.29	-0.0164825
8981.22	-0.0148184
8991.15	-0.0131214
9001.07	-0.0113941
9011	-0.00963938
9020.93	-0.00785999
9030.86	-0.00605885
9040.79	-0.00423891
9050.71	-0.00240318
9060.64	-0.000554696
9070.57	0.00130347
9080.5	0.00316822
9090.42	0.00503649
9100.35	0.00690519
9110.28	0.00877126
9120.21	0.0106317
9130.13	0.0124834
9140.06	0.0143235
9153.3	0.0167538
9163.23	0.0185556
9173.15	0.0203364
9183.08	0.0220934
9193.01	0.0238242
9202.94	0.0255262
9212.87	0.027197
9222.79	0.0288343
9232.72	0.030436
9242.65	0.032
9252.58	0.0335242
9262.5	0.035007
9272.43	0.0364464
9282.36	0.037841
9292.29	0.0391892
9302.21	0.0404897
9312.14	0.0417411
9322.07	0.0429425
9332	0.0440926
9341.93	0.0451907
9351.85	0.046236
9361.78	0.0472277
9371.71	0.0481654
9381.64	0.0490486
9391.56	0.049877
9401.49	0.0506504
9411.42	0.0513686
9421.35	0.0520315
9431.27	0.0526394
9441.2	0.0531923
9451.13	0.0536905
9461.06	0.0541344
9470.99	0.0545244
9480.91	0.0548611
9490.84	0.0551449
9500.77	0.0553767
9510.7	0.0555572
9520.62	0.0556871
9530.55	0.0557675
9540.48	0.0557992
9550.41	0.0557833
9560.34	0.0557209
9570.26	0.0556132
9580.19	0.0554614
9590.12	0.0552667
9600.05	0.0550305
9613.28	0.0546533
9623.21	0.0543256
9633.14	0.0539612
9643.07	0.0535616
9652.99	0.0531282
9662.92	0.0526629
9672.85	0.0521671
9682.78	0.0516425
9692.7	0.0510908
9702.63	0.0505137
9712.56	0.0499129
9722.49	0.0492901
9732.42	0.0486471
9742.34	0.0479854
9752.27	0.0473069
9762.2	0.0466132
9772.13	0.045906
9782.05	0.0451868
9791.98	0.0444573
9801.91	0.0437191
9811.84	0.0429735
9821.77	0.0422221
9831.69	0.0414663
9841.62	0.0407073
9851.55	0.0399464
9861.48	0.0391847
9871.4	0.0384234
9881.33	0.0376633
9891.26	0.0369056
9901.19	0.0361508
9911.11	0.0353998
9921.04	0.0346531
9930.97	0.0339114
9940.9	0.0331749
9950.83	0.032444
9960.75	0.031719
9970.68	0.031
9980.61	0.030287
9990.54	0.0295799
10000.5	0.0288786
10010.4	0.028183
10020.3	0.0274927
10030.2	0.0268073
10040.2	0.0261264
10050.1	0.0254495
10060	0.0247761
10073.3	0.0238827
10083.2	0.023215
10093.1	0.0225487
10103.1	0.0218831
10113	0.0212175
10122.9	0.0205511
10132.8	0.0198832
10142.8	0.0192132
10152.7	0.0185402
10162.6	0.0178635
10172.5	0.0171826
10182.5	0.0164968
10192.4	0.0158053
10202.3	0.0151077
10212.3	0.0144034
10222.2	0.0136918
10232.1	0.0129725
10242	0.0122451
10252	0.0115092
10261.9	0.0107645
10271.8	0.0100106
10281.7	0.00924744
10291.7	0.00847477
10301.6	0.0076925
10311.5	0.00690057
10321.5	0.00609898
10331.4	0.00528779
10341.3	0.00446711
10351.2	0.00363711
10361.2	0.00279801
10371.1	0.00195009
10381	0.00109368
10391	0.00022917
10400.9	-0.000642999
10410.8	-0.00152234
10420.7	-0.0024083
10430.7	-0.00330029
10440.6	-0.00419768
10450.5	-0.00509975
10460.4	-0.00600579
10470.4	-0.006915
10480.3	-0.00782656
10490.2	-0.00873961
10500.2	-0.00965323
10510.1	-0.0105665
10520	-0.0114784
10533.2	-0.0126905
10543.2	-0.0135954
10553.1	-0.0144956
10563	-0.0153898
10573	-0.0162772
10582.9	-0.0171566
10592.8	-0.0180268
10602.7	-0.0188869
10612.7	-0.0197357
10622.6	-0.0205722
10632.5	-0.0213954
10642.5	-0.0222041
10652.4	-0.0229975
10662.3	-0.0237746
10672.2	-0.0245346
10682.2	-0.0252766
10692.1	-0.0259998
10702	-0.0267035
10711.9	-0.0273871
10721.9	-0.0280501
10731.8	-0.0286919
10741.7	-0.0293122
10751.7	-0.0299106
10761.6	-0.0304871
10771.5	-0.0310414
10781.4	-0.0315735
10791.4	-0.0320837
10801.3	-0.0325719
10811.2	-0.0330387
10821.2	-0.0334843
10831.1	-0.0339092
10841	-0.0343141
10850.9	-0.0346996
10860.9	-0.0350666
10870.8	-0.0354159
10880.7	-0.0357484
10890.6	-0.0360652
10900.6	-0.0363675
10910.5	-0.0366562
10920.4	-0.0369328
10930.4	-0.0371985
10940.3	-0.0374545
10950.2	-0.0377022
10960.1	-0.0379431
10970.1	-0.0381784
10983.3	-0.0384861
10993.2	-0.038714
11003.2	-0.0389411
11013.1	-0.0391687
11023	-0.0393981
11032.9	-0.0396306
11042.9	-0.0398675
11052.8	-0.04011
11062.7	-0.0403592
11072.7	-0.0406162
11082.6	-0.0408819
11092.5	-0.0411573
11102.4	-0.0414432
11112.4	-0.0417404
11122.3	-0.0420496
11132.2	-0.0423712
11142.1	-0.0427058
11152.1	-0.0430537
11162	-0.0434152
11171.9	-0.0437905
11181.9	-0.0441797
11191.8	-0.0445827
11201.7	-0.0449994
11211.6	-0.0454296
11221.6	-0.0458731
11231.5	-0.0463293
11241.4	-0.046798
11251.4	-0.0472785
11261.3	-0.0477702
11271.2	-0.0482725
11281.1	-0.0487846
11291.1	-0.0493058
11301	-0.0498351
11310.9	-0.0503718
11320.8	-0.0509148
11330.8	-0.0514634
11340.7	-0.0520165
11350.6	-0.0525731
11360.6	-0.0531323
11370.5	-0.0536931
11380.4	-0.0542545
11390.3	-0.0548156
11400.3	-0.0553755
11410.2	-0.0559332
11420.1	-0.0564878
11430.1	-0.0570385
11443.3	-0.0577653
11453.2	-0.0583038
11463.1	-0.0588359
11473.1	-0.0593608
11483	-0.0598779
11492.9	-0.0603868
11502.9	-0.0608867
11512.8	-0.0613774
11522.7	-0.0618582
11532.6	-0.0623289
11542.6	-0.0627891
11552.5	-0.0632385
11562.4	-0.0636768
11572.3	-0.0641038
11582.3	-0.0645192
11592.2	-0.064923
11602.1	-0.0653148
11612.1	-0.0656946
11622	-0.0660623
11631.9	-0.0664176
11641.8	-0.0667605
11651.8	-0.0670908
11661.7	-0.0674083
11671.6	-0.0677129
11681.6	-0.0680044
11691.5	-0.0682825
11701.4	-0.0685471
11711.3	-0.0687978
11721.3	-0.0690343
11731.2	-0.0692563
11741.1	-0.0694633
11751	-0.0696551
11761	-0.069831
11770.9	-0.0699906
11780.8	-0.0701334
11790.8	-0.0702588
11800.7	-0.0703661
11810.6	-0.0704547
11820.5	-0.070524
11830.5	-0.0705732
11840.4	-0.0706017
11850.3	-0.0706087
11860.2	-0.0705935
11870.2	-0.0705553
11880.1	-0.0704934
11890	-0.0704072
11903.3	-0.070253
11913.2	-0.0701072
11923.1	-0.0699348
11933.1	-0.0697353
11943	-0.069508
11952.9	-0.0692526
11962.8	-0.0689686
11972.8	-0.0686556
11982.7	-0.0683134
11992.6	-0.0679419
12002.5	-0.0675408
12012.5	-0.0671102
12022.4	-0.0666501
12032.3	-0.0661607
12042.3	-0.0656422
12052.2	-0.065095
12062.1	-0.0645194
12072	-0.063916
12082	-0.0632854
12091.9	-0.0626282
12101.8	-0.0619453
12111.8	-0.0612375
12121.7	-0.0605056
12131.6	-0.0597507
12141.5	-0.0589738
12151.5	-0.0581761
12161.4	-0.0573585
12171.3	-0.0565224
12181.2	-0.0556689
12191.2	-0.0547992
12201.1	-0.0539147
12211	-0.0530164
12221	-0.0521057
12230.9	-0.0511838
12240.8	-0.0502519
12250.7	-0.0493111
12260.7	-0.0483626
12270.6	-0.0474074
12280.5	-0.0464467
12290.4	-0.0454814
12300.4	-0.0445123
12310.3	-0.0435403
12320.2	-0.0425663
12330.2	-0.0415907
12340.1	-0.0406144
12350	-0.0396376
12363.3	-0.0383355
12373.2	-0.0373595
12383.1	-0.0363841
12393	-0.0354096
12403	-0.0344359
12412.9	-0.033463
12422.8	-0.0324908
12432.7	-0.031519
12442.7	-0.0305473
12452.6	-0.0295753
12462.5	-0.0286027
12472.5	-0.0276288
12482.4	-0.0266532
12492.3	-0.0256752
12502.2	-0.0246942
12512.2	-0.0237095
12522.1	-0.0227204
12532	-0.0217261
12542	-0.0207258
12551.9	-0.0197188
12561.8	-0.0187044
12571.7	-0.0176817
12581.7	-0.0166499
12591.6	-0.0156085
12601.5	-0.0145566
12611.4	-0.0134935
12621.4	-0.0124187
12631.3	-0.0113316
12641.2	-0.0102315
12651.2	-0.00911806
12661.1	-0.00799076
12671	-0.00684925
12680.9	-0.00569323
12690.9	-0.00452245
12700.8	-0.00333676
12710.7	-0.00213605
12720.6	-0.000920325
12730.6	0.000310366
12740.5	0.00155588
12750.4	0.002816
12760.4	0.00409042
12770.3	0.00537877
12780.2	0.00668059
12790.1	0.00799536
12800.1	0.00932247
12813.3	0.01111
12823.2	0.0124631
12833.2	0.013826
12843.1	0.0151979
12853	0.0165777
12862.9	0.0179644
12872.9	0.019357
12882.8	0.0207543
12892.7	0.0221551
12902.7	0.0235583
12912.6	0.0249625
12922.5	0.0263666
12932.4	0.0277692
12942.4	0.029169
12952.3	0.0305646
12962.2	0.0319547
12972.2	0.0333379
12982.1	0.0347128
12992	0.036078
13001.9	0.0374323
13011.9	0.0387741
13021.8	0.0401023
13031.7	0.0414154
13041.6	0.0427122
13051.6	0.0439913
13061.5	0.0452517
13071.4	0.046492
13081.4	0.047711
13091.3	0.0489078
13101.2	0.0500812
13111.1	0.0512301
13121.1	0.0523537
13131	0.053451
13140.9	0.0545211
13150.8	0.0555633
13160.8	0.0565768
13170.7	0.057561
13180.6	0.0585153
13190.6	0.0594391
13200.5	0.060332
13210.4	0.0611936
13220.3	0.0620237
13230.3	0.0628218
13240.2	0.0635879
13250.1	0.0643219
13260.1	0.0650237
13273.3	0.0659095
13283.2	0.0665365
13293.1	0.0671317
13303.1	0.0676954
13313	0.0682279
13322.9	0.0687295
13332.9	0.0692008
13342.8	0.0696421
13352.7	0.0700541
13362.6	0.0704374
13372.6	0.0707925
13382.5	0.0711203
13392.4	0.0714213
13402.4	0.0716963
13412.3	0.0719463
13422.2	0.0721718
13432.1	0.0723739
13442.1	0.0725533
13452	0.072711
13461.9	0.0728477
13471.8	0.0729645
13481.8	0.0730621
13491.7	0.0731415
13501.6	0.0732035
13511.6	0.0732491
13521.5	0.0732789
13531.4	0.073294
13541.3	0.073295
13551.3	0.0732828
13561.2	0.0732581
13571.1	0.0732217
13581.1	0.0731741
13591	0.073116
13600.9	0.0730481
13610.8	0.0729709
13620.8	0.0728848
13630.7	0.0727904
13640.6	0.0726881
13650.5	0.0725781
13660.5	0.0724609
13670.4	0.0723367
13680.3	0.0722056
13690.3	0.0720679
13700.2	0.0719237
13710.1	0.071773
13720	0.0716159
13733.3	0.0713963
13743.2	0.071224
13753.1	0.071045
13763.1	0.0708593
13773	0.0706665
13782.9	0.0704665
13792.8	0.070259
13802.8	0.0700439
13812.7	0.0698208
13822.6	0.0695895
13832.6	0.0693496
13842.5	0.0691009
13852.4	0.0688429
13862.3	0.0685756
13872.3	0.0682984
13882.2	0.0680112
13892.1	0.0677137
13902	0.0674055
13912	0.0670865
13921.9	0.0667564
13931.8	0.066415
13941.8	0.0660621
13951.7	0.0656976
13961.6	0.0653214
13971.5	0.0649332
13981.5	0.0645331
13991.4	0.0641211
14001.3	0.0636971
14011.3	0.0632611
14021.2	0.0628132
14031.1	0.0623534
14041	0.0618819
14051	0.0613988
14060.9	0.0609043
14070.8	0.0603984
14080.7	0.0598815
14090.7	0.0593536
14100.6	0.0588151
14110.5	0.0582662
14120.5	0.057707
14130.4	0.0571378
14140.3	0.0565589
14150.2	0.0559705
14160.2	0.0553728
14170.1	0.054766
14180	0.0541503
14193.3	0.0533159
14203.2	0.0526802
14213.1	0.0520362
14223	0.0513839
14233	0.0507234
14242.9	0.0500548
14252.8	0.0493781
14262.8	0.0486932
14272.7	0.0480002
14282.6	0.0472989
14292.5	0.0465891
14302.5	0.0458708
14312.4	0.0451437
14322.3	0.0444076
14332.2	0.0436622
14342.2	0.0429071
14352.1	0.0421422
14362	0.0413669
14372	0.0405809
14381.9	0.0397838
14391.8	0.038975
14401.7	0.0381542
14411.7	0.0373209
14421.6	0.0364745
14431.5	0.0356145
14441.5	0.0347404
14451.4	0.0338517
14461.3	0.0329478
14471.2	0.0320282
14481.2	0.0310925
14491.1	0.03014
14501	0.0291704
14510.9	0.028183
14520.9	0.0271776
14530.8	0.0261536
14540.7	0.0251106
14550.7	0.0240483
14560.6	0.0229664
14570.5	0.0218646
14580.4	0.0207425
14590.4	0.0196001
14600.3	0.0184371
14610.2	0.0172534
14620.2	0.016049
14630.1	0.0148238
14640	0.0135779
14653.2	0.0118847
14663.2	0.010591
14673.1	0.0092771
14683	0.0079433
14693	0.00658994
14702.9	0.00521744
14712.8	0.00382624
14722.7	0.00241685
14732.7	0.00098986
14742.6	-0.000454113
14752.5	-0.00191438
14762.4	-0.0033902
14772.4	-0.00488078
14782.3	-0.00638525
14792.2	-0.00790273
14802.2	-0.00943224
14812.1	-0.0109728
14822	-0.0125233
14831.9	-0.0140826
14841.9	-0.0156497
14851.8	-0.0172232
14861.7	-0.018802
14871.7	-0.0203846
14881.6	-0.0219699
14891.5	-0.0235564
14901.4	-0.0251426
14911.4	-0.0267271
14921.3	-0.0283085
14931.2	-0.029885
14941.1	-0.0314553
14951.1	-0.0330175
14961	-0.0345702
14970.9	-0.0361115
14980.9	-0.0376398
14990.8	-0.0391534
15000.7	-0.0406505
15010.6	-0.0421292
15020.6	-0.0435878
15030.5	-0.0450244
15040.4	-0.0464372
15050.4	-0.0478243
15060.3	-0.0491839
15070.2	-0.0505139
15080.1	-0.0518127
15090.1	-0.0530781
15103.3	-0.0547104
15113.2	-0.055891
15123.2	-0.057032
15133.1	-0.0581317
15143	-0.0591882
15152.9	-0.0601996
15162.9	-0.0611643
15172.8	-0.0620804
15182.7	-0.0629464
15192.6	-0.0637604
15202.6	-0.0645211
15212.5	-0.0652267
15222.4	-0.0658759
15232.4	-0.0664672
15242.3	-0.0669994
15252.2	-0.0674712
15262.1	-0.0678814
15272.1	-0.068229
15282	-0.0685131
15291.9	-0.0687328
15301.9	-0.0688874
15311.8	-0.0689763
15321.7	-0.0689989
15331.6	-0.068955
15341.6	-0.0688442
15351.5	-0.0686665
15361.4	-0.068422
15371.3	-0.0681108
15381.3	-0.0677332
15391.2	-0.0672898
15401.1	-0.0667811
15411.1	-0.066208
15421	-0.0655714
15430.9	-0.0648723
15440.8	-0.064112
15450.8	-0.0632919
15460.7	-0.0624136
15470.6	-0.0614787
15480.6	-0.060489
15490.5	-0.0594466
15500.4	-0.0583536
15510.3	-0.0572122
15520.3	-0.0560249
15530.2	-0.054794
15540.1	-0.0535224
15550	-0.0522127
15563.3	-0.0504121
15573.2	-0.0490249
15583.1	-0.0476096
15593.1	-0.0461692
15603	-0.0447072
15612.9	-0.0432268
15622.9	-0.0417313
15632.8	-0.0402242
15642.7	-0.0387089
15652.6	-0.037189
15662.6	-0.0356679
15672.5	-0.0341491
15682.4	-0.0326363
15692.3	-0.0311328
15702.3	-0.0296422
15712.2	-0.0281679
15722.1	-0.0267133
15732.1	-0.0252818
15742	-0.0238767
15751.9	-0.0225012
15761.8	-0.0211585
15771.8	-0.0198516
15781.7	-0.0185835
15791.6	-0.0173571
15801.5	-0.0161751
15811.5	-0.0150401
15821.4	-0.0139546
15831.3	-0.0129209
15841.3	-0.0119412
15851.2	-0.0110177
15861.1	-0.0101521
15871	-0.0093462
15881	-0.00860155
15890.9	-0.00791954
15900.8	-0.00730135
15910.8	-0.00674802
15920.7	-0.00626036
15930.6	-0.00583904
15940.5	-0.0054845
15950.5	-0.00519701
15960.4	-0.00497665
15970.3	-0.0048233
15980.2	-0.00473666
15990.2	-0.00471623
16000.1	-0.00476131
16010	-0.00487105
16023.3	-0.00511608
16033.2	-0.00537226
16043.1	-0.00568889
16053.1	-0.00606433
16063	-0.00649679
16072.9	-0.00698431
16082.8	-0.00752478
16092.8	-0.00811596
16102.7	-0.00875547
16112.6	-0.00944078
16122.5	-0.0101693
16132.5	-0.0109382
16142.4	-0.0117447
16152.3	-0.0125859
16162.3	-0.0134587
16172.2	-0.0143601
16182.1	-0.0152869
16192	-0.016236
16202	-0.017204
16211.9	-0.0181878
16221.8	-0.019184
16231.8	-0.0201895
16241.7	-0.0212009
16251.6	-0.0222149
16261.5	-0.0232285
16271.5	-0.0242383
16281.4	-0.0252413
16291.3	-0.0262345
16301.2	-0.0272148
16311.2	-0.0281794
16321.1	-0.0291254
16331	-0.0300501
16341	-0.030951
16350.9	-0.0318257
16360.8	-0.0326716
16370.7	-0.0334868
16380.7	-0.0342691
16390.6	-0.0350166
16400.5	-0.0357275
16410.4	-0.0364003
16420.4	-0.0370335
16430.3	-0.0376259
16440.2	-0.0381763
16450.2	-0.0386839
16460.1	-0.0391478
16470	-0.0395675
16483.3	-0.0400575
16493.2	-0.0403727
16503.1	-0.0406428
16513	-0.040868
16523	-0.0410487
16532.9	-0.0411851
16542.8	-0.041278
16552.7	-0.041328
16562.7	-0.0413359
16572.6	-0.0413028
16582.5	-0.0412297
16592.5	-0.0411179
16602.4	-0.0409685
16612.3	-0.0407831
16622.2	-0.0405631
16632.2	-0.04031
16642.1	-0.0400255
16652	-0.0397112
16662	-0.0393689
16671.9	-0.0390003
16681.8	-0.0386072
16691.7	-0.0381913
16701.7	-0.0377545
16711.6	-0.0372987
16721.5	-0.0368254
16731.4	-0.0363367
16741.4	-0.0358341
16751.3	-0.0353194
16761.2	-0.0347943
16771.2	-0.0342603
16781.1	-0.0337191
16791	-0.0331722
16800.9	-0.0326209
16810.9	-0.0320667
16820.8	-0.0315108
16830.7	-0.0309545
16840.6	-0.0303989
16850.6	-0.0298451
16860.5	-0.0292939
16870.4	-0.0287464
16880.4	-0.0282032
16890.3	-0.0276651
16900.2	-0.0271328
16910.1	-0.0266068
16920.1	-0.0260875
16933.3	-0.0254063
16943.2	-0.0249041
16953.2	-0.0244096
16963.1	-0.023923
16973	-0.0234444
16982.9	-0.0229737
16992.9	-0.022511
17002.8	-0.0220561
17012.7	-0.0216089
17022.7	-0.0211692
17032.6	-0.0207368
17042.5	-0.0203115
17052.4	-0.019893
17062.4	-0.019481
17072.3	-0.0190752
17082.2	-0.0186752
17092.2	-0.0182807
17102.1	-0.0178914
17112	-0.017507
17121.9	-0.0171271
17131.9	-0.0167515
17141.8	-0.0163797
17151.7	-0.0160116
17161.6	-0.0156468
17171.6	-0.0152851
17181.5	-0.0149264
17191.4	-0.0145703
17201.4	-0.0142168
17211.3	-0.0138656
17221.2	-0.0135167
17231.1	-0.01317
17241.1	-0.0128255
17251	-0.0124832
17260.9	-0.012143
17270.9	-0.011805
17280.8	-0.0114692
17290.7	-0.0111359
17300.6	-0.0108051
17310.6	-0.0104769
17320.5	-0.0101515
17330.4	-0.00982921
17340.3	-0.00951012
17350.3	-0.0091945
17360.2	-0.00888258
17370.1	-0.00857459
17380.1	-0.00827081
17393.3	-0.00787273
17403.2	-0.00757973
17413.1	-0.00729178
17423.1	-0.00700912
17433	-0.00673198
17442.9	-0.00646059
17452.9	-0.00619515
17462.8	-0.00593586
17472.7	-0.00568288
17482.6	-0.00543635
17492.6	-0.0051964
17502.5	-0.00496311
17512.4	-0.00473656
17522.4	-0.00451677
17532.3	-0.00430374
17542.2	-0.00409744
17552.1	-0.00389781
17562.1	-0.00370473
17572	-0.00351806
17581.9	-0.00333765
17591.8	-0.00316327
17601.8	-0.00299468
17611.7	-0.00283161
17621.6	-0.00267374
17631.6	-0.00252073
17641.5	-0.00237221
17651.4	-0.00222776
17661.3	-0.00208697
17671.3	-0.00194938
17681.2	-0.0018145
17691.1	-0.00168184
17701.1	-0.00155089
17711	-0.00142111
17720.9	-0.00129197
17730.8	-0.00116291
17740.8	-0.00103339
17750.7	-0.000902837
17760.6	-0.000770704
17770.5	-0.000636441
17780.5	-0.000499504
17790.4	-0.000359364
17800.3	-0.000215504
17810.3	-6.74284e-05
17820.2	8.53399e-05
17830.1	0.000243252
17840	0.000406733
17853.3	0.000634045
17863.2	0.000811993
17873.1	0.000996691
17883.1	0.00118841
17893	0.00138739
17902.9	0.00159383
17912.8	0.00180786
17922.8	0.0020296
17932.7	0.0022591
17942.6	0.00249638
17952.6	0.0027414
17962.5	0.00299407
17972.4	0.00325428
17982.3	0.00352184
17992.3	0.00379654
18002.2	0.0040781
18012.1	0.00436622
18022	0.00466054
18032	0.00496068
18041.9	0.0052662
18051.8	0.00557664
18061.8	0.0058915
18071.7	0.00621024
18081.6	0.00653231
18091.5	0.00685712
18101.5	0.00718408
18111.4	0.00751254
18121.3	0.00784187
18131.3	0.00817143
18141.2	0.00850054
18151.1	0.00882854
18161	0.00915477
18171	0.00947855
18180.9	0.00979923
18190.8	0.0101161
18200.7	0.0104287
18210.7	0.0107361
18220.6	0.011038
18230.5	0.0113336
18240.5	0.0116224
18250.4	0.0119039
18260.3	0.0121775
18270.2	0.0124429
18280.2	0.0126994
18290.1	0.0129467
18300	0.0131844
18313.3	0.0134859
18323.2	0.0136999
18333.1	0.0139034
18343	0.014096
18353	0.0142776
18362.9	0.014448
18372.8	0.0146072
18382.8	0.014755
18392.7	0.0148913
18402.6	0.0150163
18412.5	0.0151299
18422.5	0.0152321
18432.4	0.0153232
18442.3	0.0154031
18452.2	0.015472
18462.2	0.0155301
18472.1	0.0155775
18482	0.0156146
18492	0.0156415
18501.9	0.0156585
18511.8	0.0156657
18521.7	0.0156636
18531.7	0.0156524
18541.6	0.0156324
18551.5	0.0156039
18561.5	0.0155672
18571.4	0.0155226
18581.3	0.0154704
18591.2	0.015411
18601.2	0.0153447
18611.1	0.0152718
18621	0.0151925
18630.9	0.0151074
18640.9	0.0150165
18650.8	0.0149203
18660.7	0.0148191
18670.7	0.0147131
18680.6	0.0146027
18690.5	0.0144882
18700.4	0.0143699
18710.4	0.014248
18720.3	0.0141229
18730.2	0.0139949
18740.2	0.0138642
18750.1	0.0137312
18760	0.0135961
18773.2	0.0134135
18783.2	0.0132749
18793.1	0.0131354
18803	0.0129952
18813	0.0128548
18822.9	0.0127144
18832.8	0.0125744
18842.7	0.0124352
18852.7	0.0122972
18862.6	0.0121608
18872.5	0.0120264
18882.5	0.0118943
18892.4	0.0117652
18902.3	0.0116394
18912.2	0.0115173
18922.2	0.0113995
18932.1	0.0112865
18942	0.0111787
18951.9	0.0110767
18961.9	0.010981
18971.8	0.0108921
18981.7	0.0108105
18991.7	0.0107369
19001.6	0.0106716
19011.5	0.0106153
19021.4	0.0105686
19031.4	0.0105318
19041.3	0.0105056
19051.2	0.0104905
19061.1	0.0104869
19071.1	0.0104953
19081	0.0105162
19090.9	0.01055
19100.9	0.0105971
19110.8	0.0106579
19120.7	0.0107328
19130.6	0.010822
19140.6	0.0109259
19150.5	0.0110445
19160.4	0.0111783
19170.4	0.0113272
19180.3	0.0114914
19190.2	0.011671
19200.1	0.0118658
19210.1	0.012076
19223.3	0.0123796
19233.2	0.0126248
19243.2	0.0128846
19253.1	0.0131588
19263	0.0134469
19272.9	0.0137486
19282.9	0.0140634
19292.8	0.0143907
19302.7	0.0147299
19312.7	0.0150803
19322.6	0.0154413
19332.5	0.0158121
19342.4	0.0161919
19352.4	0.0165798
19362.3	0.0169749
19372.2	0.0173762
19382.1	0.0177827
19392.1	0.0181934
19402	0.0186073
19411.9	0.0190232
19421.9	0.0194399
19431.8	0.0198564
19441.7	0.0202714
19451.6	0.0206838
19461.6	0.0210923
19471.5	0.0214957
19481.4	0.0218928
19491.3	0.0222825
19501.3	0.0226634
19511.2	0.0230344
19521.1	0.0233942
19531.1	0.0237418
19541	0.024076
19550.9	0.0243955
19560.8	0.0246995
19570.8	0.0249867
19580.7	0.0252563
19590.6	0.0255071
19600.6	0.0257384
19610.5	0.0259492
19620.4	0.0261387
19630.3	0.0263061
19640.3	0.0264508
19650.2	0.0265721
19660.1	0.0266694
19670	0.0267423
19683.3	0.0268006
19693.2	0.0268147
19703.1	0.0268032
19713.1	0.0267658
19723	0.0267025
19732.9	0.026613
19742.9	0.0264976
19752.8	0.0263562
19762.7	0.026189
19772.6	0.0259963
19782.6	0.0257784
19792.5	0.0255355
19802.4	0.0252683
19812.3	0.0249771
19822.3	0.0246626
19832.2	0.0243252
19842.1	0.0239658
19852.1	0.0235851
19862	0.0231837
19871.9	0.0227626
19881.8	0.0223225
19891.8	0.0218644
19901.7	0.0213892
19911.6	0.0208979
19921.5	0.0203913
19931.5	0.0198705
19941.4	0.0193366
19951.3	0.0187905
19961.3	0.0182332
19971.2	0.0176657
19981.1	0.0170891
19991	0.0165044
