0	0
11.8196	0
23.6393	0
35.4589	0
41.3687	0
53.1883	0
65.008	0
70.9178	0
82.7374	0
94.557	0
100.467	0
112.286	0
124.106	0
130.016	0
141.836	0
153.655	0
165.475	0
171.385	0
183.204	0
195.024	0
200.934	0
212.753	0
224.573	0
230.483	0
242.302	0
254.122	0
260.032	0
271.851	0
283.671	0
295.491	0
301.401	0
313.22	0
325.04	0
330.95	0
342.769	0
354.589	0
360.499	0
372.318	9.09495e-13
384.138	2.72848e-12
390.048	4.54747e-12
401.867	9.09495e-12
413.687	2.09184e-11
425.507	4.72937e-11
431.416	6.91216e-11
443.236	1.4461e-10
455.056	2.95586e-10
460.966	4.18368e-10
472.785	8.21274e-10
484.605	1.57252e-09
490.515	2.15641e-09
502.334	3.9845e-09
514.154	7.20229e-09
520.064	9.60517e-09
531.883	1.68275e-08
543.703	2.8911e-08
555.523	4.87571e-08
561.432	6.28952e-08
573.252	1.03324e-07
585.072	1.66968e-07
590.981	2.10994e-07
602.801	3.33105e-07
614.621	5.18238e-07
620.53	6.42994e-07
632.35	9.79805e-07
644.17	1.47365e-06
650.08	1.79875e-06
661.899	2.65568e-06
673.719	3.87528e-06
685.538	5.59213e-06
691.448	6.69052e-06
703.268	9.50258e-06
715.088	1.33621e-05
720.997	1.57877e-05
732.817	2.18862e-05
744.637	3.00692e-05
750.546	3.51306e-05
762.366	4.76526e-05
774.186	6.41177e-05
780.095	7.41571e-05
791.915	9.86385e-05
803.735	0.000130249
815.554	0.000170791
821.464	0.000195077
833.284	0.000253252
845.103	0.000326694
851.013	0.000370196
862.833	0.000473224
874.652	0.000601425
880.562	0.000676582
892.382	0.000852731
904.202	0.00106902
910.111	0.0011946
921.931	0.00148609
933.751	0.00183956
945.57	0.00226615
951.48	0.00251076
963.3	0.00307137
975.119	0.00374015
981.029	0.00412042
992.849	0.00498448
1004.67	0.00600384
1010.58	0.00657875
1022.4	0.0078743
1034.22	0.00938627
1040.13	0.0102323
1051.95	0.0121234
1063.77	0.0143073
1075.59	0.0168188
1081.5	0.0182089
1093.32	0.0212824
1105.14	0.0247807
1111.05	0.0267024
1122.86	0.0309184
1134.68	0.0356689
1140.59	0.038259
1152.41	0.0438983
1164.23	0.0501891
1170.14	0.0535937
1181.96	0.0609507
1193.78	0.0690768
1205.6	0.078017
1211.51	0.0828059
1223.33	0.0930468
1235.15	0.104204
1241.06	0.110136
1252.88	0.122729
1264.7	0.136315
1270.61	0.143487
1282.43	0.158597
1294.25	0.174739
1300.16	0.183198
1311.98	0.200889
1323.8	0.2196
1335.62	0.239312
1341.53	0.249534
1353.35	0.270686
1365.17	0.292744
1371.08	0.304095
1382.9	0.3274
1394.72	0.351449
1400.63	0.363725
1412.45	0.388726
1424.27	0.414238
1430.18	0.427153
1441.99	0.453223
1453.81	0.479513
1465.63	0.505888
1471.54	0.519064
1483.36	0.545302
1495.18	0.571261
1501.09	0.584089
1512.91	0.60934
1524.73	0.633919
1530.64	0.645906
1542.46	0.669174
1554.28	0.691366
1560.19	0.702008
1572.01	0.722286
1583.83	0.741095
1595.65	0.758286
1601.56	0.766231
1613.38	0.780733
1625.2	0.793279
1631.11	0.798781
1642.93	0.808174
1654.75	0.815338
1660.66	0.818055
1672.48	0.821712
1684.3	0.822944
1690.21	0.822634
1702.03	0.820137
1713.85	0.815113
1725.67	0.80755
1731.58	0.802816
1743.4	0.791454
1755.21	0.777589
1761.12	0.769731
1772.94	0.752197
1784.76	0.732296
1790.67	0.721482
1802.49	0.698183
1814.31	0.672742
1820.22	0.659254
1832.04	0.630815
1843.86	0.600539
1855.68	0.568564
1861.59	0.551986
1873.41	0.517746
1885.23	0.482192
1891.14	0.463975
1902.96	0.426764
1914.78	0.388662
1920.69	0.369331
1932.51	0.330218
1944.33	0.29065
1950.24	0.27075
1962.06	0.230825
1973.88	0.190878
1985.7	0.151074
1991.61	0.131277
2003.43	0.0919929
2015.25	0.0532482
2021.16	0.0341243
2032.98	-0.0035385
2044.8	-0.0403101
2050.71	-0.0583219
2062.53	-0.0935235
2074.34	-0.127537
2080.25	-0.144066
2092.07	-0.176109
2103.89	-0.20673
2115.71	-0.235853
2121.62	-0.249831
2133.44	-0.276588
2145.26	-0.301704
2151.17	-0.313634
2162.99	-0.33622
2174.81	-0.35709
2180.72	-0.366876
2192.54	-0.385148
2204.36	-0.401687
2210.27	-0.40931
2222.09	-0.423273
2233.91	-0.435544
2245.73	-0.446152
2251.64	-0.450845
2263.46	-0.459032
2275.28	-0.465662
2281.19	-0.46841
2293.01	-0.472803
2304.83	-0.475778
2310.74	-0.476753
2322.56	-0.477721
2334.38	-0.477436
2340.29	-0.476845
2352.11	-0.474814
2363.93	-0.471709
2375.75	-0.467607
2381.66	-0.465206
2393.47	-0.459749
2405.29	-0.453483
2411.2	-0.450071
2423.02	-0.442733
2434.84	-0.434773
2440.75	-0.430583
2452.57	-0.421824
2464.39	-0.41262
2470.3	-0.407872
2482.12	-0.398126
2493.94	-0.388099
2505.76	-0.37785
2511.67	-0.372661
2523.49	-0.362189
2535.31	-0.351635
2541.22	-0.346344
2553.04	-0.33576
2564.86	-0.325213
2570.77	-0.319967
2582.59	-0.309553
2594.41	-0.299274
2600.32	-0.294197
2612.14	-0.284183
2623.96	-0.274383
2635.78	-0.264822
2641.69	-0.260137
2653.51	-0.250975
2665.33	-0.242102
2671.24	-0.237779
2683.06	-0.229368
2694.88	-0.221279
2700.79	-0.217359
2712.6	-0.209769
2724.42	-0.20252
2730.33	-0.199024
2742.15	-0.19229
2753.97	-0.185901
2765.79	-0.179854
2771.7	-0.176958
2783.52	-0.171419
2795.34	-0.166211
2801.25	-0.16373
2813.07	-0.159007
2824.89	-0.154598
2830.8	-0.152507
2842.62	-0.148549
2854.44	-0.14488
2860.35	-0.143149
2872.17	-0.13989
2883.99	-0.13689
2895.81	-0.134136
2901.72	-0.132847
2913.54	-0.130439
2925.36	-0.128245
2931.27	-0.127225
2943.09	-0.125327
2954.91	-0.123612
2960.82	-0.122818
2972.64	-0.12135
2984.46	-0.120031
2990.37	-0.119423
3002.18	-0.118304
3014	-0.117304
3025.82	-0.11641
3031.73	-0.115999
3043.55	-0.115243
3055.37	-0.114565
3061.28	-0.114253
3073.1	-0.113674
3084.92	-0.113148
3090.83	-0.112902
3102.65	-0.112439
3114.47	-0.112007
3120.38	-0.111801
3132.2	-0.111401
3144.02	-0.111012
3155.84	-0.110629
3161.75	-0.110438
3173.57	-0.110051
3185.39	-0.109654
3191.3	-0.10945
3203.12	-0.109029
3214.94	-0.108586
3220.85	-0.108355
3232.67	-0.107871
3244.48	-0.107357
3250.39	-0.107087
3262.21	-0.106521
3274.03	-0.105916
3285.85	-0.105272
3291.76	-0.104934
3303.58	-0.104226
3315.4	-0.103475
3321.31	-0.103083
3333.13	-0.102264
3344.95	-0.1014
3350.86	-0.100951
3362.68	-0.100019
3374.5	-0.0990403
3380.41	-0.0985341
3392.23	-0.0974876
3404.05	-0.0963964
3415.87	-0.0952612
3421.78	-0.0946774
3433.6	-0.0934778
3445.41	-0.0922368
3451.32	-0.091601
3463.14	-0.0902998
3474.96	-0.0889602
3480.87	-0.0882764
3492.69	-0.0868818
3504.51	-0.0854524
3510.42	-0.0847251
3522.24	-0.0832463
3534.06	-0.0817366
3545.88	-0.0801976
3551.79	-0.0794176
3563.61	-0.0778376
3575.43	-0.0762323
3581.34	-0.0754207
3593.16	-0.0737805
3604.98	-0.0721189
3610.89	-0.0712806
3622.7	-0.06959
3634.52	-0.0678817
3640.43	-0.0670215
3652.25	-0.0652896
3664.07	-0.0635437
3675.89	-0.0617851
3681.8	-0.0609014
3693.62	-0.0591261
3705.44	-0.0573411
3711.35	-0.0564454
3723.17	-0.0546481
3734.99	-0.0528439
3740.9	-0.0519396
3752.72	-0.0501269
3764.53	-0.0483097
3770.44	-0.0473996
3782.26	-0.0455772
3794.08	-0.0437523
3805.9	-0.0419256
3811.81	-0.0410117
3823.63	-0.0391836
3835.45	-0.0373552
3841.36	-0.0364411
3853.18	-0.0346134
3865	-0.0327868
3870.91	-0.0318741
3882.73	-0.03005
3894.55	-0.028228
3900.46	-0.0273179
3912.27	-0.0254999
3924.09	-0.0236848
3930	-0.0227786
3941.82	-0.0209687
3953.64	-0.0191625
3965.46	-0.0173604
3971.37	-0.016461
3983.19	-0.0146654
3995.01	-0.0128745
4000.92	-0.0119809
4012.74	-0.0101974
4024.56	-0.00841919
4030.47	-0.00753213
4042.29	-0.00576225
4054.1	-0.00399824
4060.01	-0.00311851
4071.83	-0.00136378
4083.65	0.000384438
4095.47	0.00212585
4101.38	0.00299391
4113.2	0.00472456
4125.02	0.00644764
4130.93	0.00730623
4142.75	0.00901731
4154.57	0.0107199
4160.48	0.011568
4172.3	0.0132572
4184.12	0.0149369
4190.03	0.0157731
4201.85	0.0174379
4213.66	0.019092
4225.48	0.0207351
4231.39	0.0215523
4243.21	0.0231778
4255.03	0.0247909
4260.94	0.0255926
4272.76	0.0271859
4284.58	0.0287654
4290.49	0.0295498
4302.31	0.0311073
4314.13	0.0326494
4320.04	0.0334144
4331.86	0.034932
4343.68	0.0364324
4355.5	0.037915
4361.41	0.0386493
4373.23	0.0401037
4385.05	0.0415384
4390.95	0.0422481
4402.77	0.0436517
4414.59	0.0450338
4420.5	0.0457164
4432.32	0.0470646
4444.14	0.0483892
4450.05	0.0490423
4461.87	0.05033
4473.69	0.0515921
4485.51	0.0528279
4491.42	0.0534356
4503.24	0.0546303
4515.06	0.0557967
4520.97	0.056369
4532.79	0.0574913
4544.61	0.0585833
4550.52	0.0591178
4562.34	0.0601629
4574.16	0.0611759
4580.07	0.0616701
4591.89	0.0626335
4603.71	0.0635629
4615.53	0.0644576
4621.44	0.0648918
4633.26	0.0657334
4645.08	0.0665387
4650.98	0.0669276
4662.8	0.0676774
4674.62	0.0683896
4680.53	0.0687314
4692.35	0.069386
4704.17	0.0700018
4710.08	0.0702949
4721.9	0.0708515
4733.72	0.071368
4745.54	0.0718443
4751.45	0.0720673
4763.27	0.0724825
4775.09	0.0728568
4781	0.0730285
4792.82	0.073341
4804.64	0.073612
4810.55	0.073732
4822.37	0.0739408
4834.19	0.0741081
4840.1	0.0741761
4851.92	0.0742812
4863.74	0.0743448
4875.56	0.0743673
4881.47	0.0743631
4893.29	0.0743241
4905.11	0.0742445
4911.02	0.0741895
4922.84	0.0740496
4934.66	0.0738699
4940.57	0.0737653
4952.38	0.0735268
4964.2	0.0732499
4970.11	0.0730971
4981.93	0.0727634
4993.75	0.0723927
5005.57	0.0719856
5011.48	0.0717686
5023.3	0.0713084
5035.12	0.0708137
5041.03	0.0705536
5052.85	0.0700087
5064.67	0.0694315
5070.58	0.0691311
5082.4	0.0685071
5094.22	0.0678531
5100.13	0.0675152
5111.95	0.0668182
5123.77	0.0660939
5135.59	0.0653432
5141.5	0.0649583
5153.32	0.0641703
5165.14	0.0633587
5171.05	0.0629445
5182.87	0.0620999
5194.69	0.0612347
5200.6	0.0607948
5212.42	0.0599011
5224.24	0.0589898
5230.15	0.058528
5241.96	0.0575927
5253.78	0.056643
5265.6	0.0556801
5271.51	0.0551941
5283.33	0.0542137
5295.15	0.0532232
5301.06	0.0527246
5312.88	0.0517212
5324.7	0.0507108
5330.61	0.0502033
5342.43	0.0491846
5354.25	0.0481618
5360.16	0.0476493
5371.98	0.0466225
5383.8	0.0455946
5395.62	0.0445667
5401.53	0.044053
5413.35	0.0430269
5425.17	0.0420035
5431.08	0.041493
5442.9	0.0404754
5454.72	0.0394628
5460.63	0.0389588
5472.45	0.0379556
5484.27	0.0369598
5490.18	0.0364649
5502	0.0354818
5513.82	0.034508
5525.63	0.0335445
5531.54	0.0330668
5543.36	0.0321198
5555.18	0.0311847
5561.09	0.0307218
5572.91	0.0298057
5584.73	0.0289029
5590.64	0.0284566
5602.46	0.0275747
5614.28	0.0267072
5620.19	0.026279
5632.01	0.0254339
5643.83	0.0246041
5655.65	0.0237899
5661.56	0.0233888
5673.38	0.0225984
5685.2	0.0218241
5691.11	0.021443
5702.93	0.020693
5714.75	0.0199592
5720.66	0.0195985
5732.48	0.0188891
5744.3	0.0181959
5750.21	0.0178553
5762.03	0.0171862
5773.85	0.0165329
5785.67	0.0158953
5791.58	0.0155822
5803.4	0.0149676
5815.22	0.0143679
5821.13	0.0140736
5832.94	0.0134958
5844.76	0.012932
5850.67	0.0126553
5862.49	0.0121119
5874.31	0.0115816
5880.22	0.0113211
5892.04	0.0108094
5903.86	0.0103094
5915.68	0.0098207
5921.59	0.00958038
5933.41	0.00910748
5945.23	0.0086444
5951.14	0.00841635
5962.96	0.00796686
5974.78	0.00752566
5980.69	0.00730797
5992.51	0.00687801
6004.33	0.00645474
6010.24	0.00624542
6022.06	0.00583096
6033.88	0.00542155
6045.7	0.00501653
6051.61	0.00481546
6063.43	0.00441577
6075.25	0.00401882
6081.16	0.00382117
6092.98	0.00342709
6104.8	0.00303412
6110.71	0.00283785
6122.53	0.00244533
6134.34	0.00205235
6140.25	0.00185548
6152.07	0.00146063
6163.89	0.0010638
6175.71	0.000664407
6181.62	0.000463574
6193.44	5.92911e-05
6205.26	-0.000348924
6211.17	-0.000554667
6222.99	-0.000969741
6234.81	-0.00139
6240.72	-0.00160221
6252.54	-0.00203111
6264.36	-0.0024663
6270.27	-0.00268638
6282.09	-0.00313177
6293.91	-0.00358443
6305.73	-0.0040447
6311.64	-0.0042778
6323.46	-0.00475008
6335.28	-0.00523072
6341.19	-0.00547425
6353.01	-0.00596791
6364.83	-0.0064705
6370.74	-0.00672521
6382.56	-0.00724157
6394.38	-0.00776729
6400.29	-0.0080337
6412.11	-0.00857368
6423.93	-0.00912328
6435.75	-0.00968255
6441.65	-0.00996582
6453.47	-0.0105396
6465.29	-0.0111231
6471.2	-0.0114185
6483.02	-0.0120165
6494.84	-0.012624
6500.75	-0.0129314
6512.57	-0.0135531
6524.39	-0.014184
6530.3	-0.014503
6542.12	-0.0151476
6553.94	-0.015801
6565.76	-0.0164631
6571.67	-0.0167973
6583.49	-0.017472
6595.31	-0.0181547
6601.22	-0.018499
6613.04	-0.0191933
6624.86	-0.0198949
6630.77	-0.0202483
6642.59	-0.0209604
6654.41	-0.0216789
6660.32	-0.0220405
6672.14	-0.0227682
6683.96	-0.0235015
6695.78	-0.02424
6701.69	-0.0246111
6713.51	-0.0253567
6725.33	-0.0261066
6731.24	-0.026483
6743.06	-0.0272384
6754.88	-0.027997
6760.79	-0.0283773
6772.6	-0.0291398
6784.42	-0.0299043
6790.33	-0.0302872
6802.15	-0.0310539
6813.97	-0.0318215
6825.79	-0.0325895
6831.7	-0.0329736
6843.52	-0.0337413
6855.34	-0.0345083
6861.25	-0.0348914
6873.07	-0.0356564
6884.89	-0.0364193
6890.8	-0.0367999
6902.62	-0.0375591
6914.44	-0.038315
6920.35	-0.0386917
6932.17	-0.039442
6943.99	-0.0401879
6955.81	-0.040929
6961.72	-0.0412976
6973.54	-0.0420305
6985.36	-0.0427574
6991.27	-0.0431185
7003.09	-0.0438354
7014.91	-0.0445452
7020.82	-0.0448973
7032.64	-0.0455955
7044.46	-0.0462853
7050.37	-0.046627
7062.19	-0.0473035
7074.01	-0.0479706
7085.83	-0.0486279
7091.74	-0.0489527
7103.55	-0.0495944
7115.37	-0.0502252
7121.28	-0.0505364
7133.1	-0.0511501
7144.92	-0.0517519
7150.83	-0.0520482
7162.65	-0.0526315
7174.47	-0.0532019
7180.38	-0.0534821
7192.2	-0.0540326
7204.02	-0.0545692
7215.84	-0.0550918
7221.75	-0.0553477
7233.57	-0.0558485
7245.39	-0.0563344
7251.3	-0.0565717
7263.12	-0.0570346
7274.94	-0.0574819
7280.85	-0.0576995
7292.67	-0.0581227
7304.49	-0.0585295
7310.4	-0.0587267
7322.22	-0.0591085
7334.04	-0.0594732
7345.86	-0.0598207
7351.77	-0.0599879
7363.59	-0.0603091
7375.41	-0.0606125
7381.32	-0.0607575
7393.14	-0.0610338
7404.96	-0.061292
7410.87	-0.0614141
7422.68	-0.0616446
7434.5	-0.0618564
7440.41	-0.0619552
7452.23	-0.0621388
7464.05	-0.0623035
7475.87	-0.0624491
7481.78	-0.0625147
7493.6	-0.0626315
7505.42	-0.0627291
7511.33	-0.0627706
7523.15	-0.0628391
7534.97	-0.0628883
7540.88	-0.0629056
7552.7	-0.0629256
7564.52	-0.0629262
7570.43	-0.0629192
7582.25	-0.0628906
7594.07	-0.0628426
7605.89	-0.0627752
7611.8	-0.0627343
7623.62	-0.0626379
7635.44	-0.0625223
7641.35	-0.0624573
7653.17	-0.0623129
7664.99	-0.0621496
7670.9	-0.0620608
7682.72	-0.0618691
7694.54	-0.0616586
7700.44	-0.0615464
7712.26	-0.061308
7724.08	-0.0610513
7735.9	-0.0607764
7741.81	-0.0606321
7753.63	-0.0603301
7765.45	-0.0600104
7771.36	-0.0598439
7783.18	-0.0594978
7795	-0.0591345
7800.91	-0.0589465
7812.73	-0.0585577
7824.55	-0.0581522
7830.46	-0.0579432
7842.28	-0.0575132
7854.1	-0.057067
7860.01	-0.056838
7871.83	-0.0563683
7883.65	-0.0558832
7895.47	-0.055383
7901.38	-0.0551273
7913.2	-0.0546049
7925.02	-0.0540682
7930.93	-0.0537946
7942.75	-0.0532369
7954.57	-0.0526657
7960.48	-0.0523751
7972.29	-0.0517841
7984.11	-0.0511803
7990.02	-0.0508737
8001.84	-0.0502514
8013.66	-0.0496171
8025.48	-0.0489712
8031.39	-0.0486441
8043.21	-0.0479815
8055.03	-0.0473082
8060.94	-0.0469676
8072.76	-0.0462789
8084.58	-0.0455803
8090.49	-0.0452275
8102.31	-0.0445149
8114.13	-0.0437933
8120.04	-0.0434293
8131.86	-0.042695
8143.68	-0.0419527
8155.5	-0.0412028
8161.41	-0.040825
8173.23	-0.0400643
8185.05	-0.0392968
8190.96	-0.0389106
8202.78	-0.0381337
8214.6	-0.0373509
8220.51	-0.0369575
8232.33	-0.0361667
8244.14	-0.0353709
8250.05	-0.0349713
8261.87	-0.0341689
8273.69	-0.0333624
8285.51	-0.0325523
8291.42	-0.032146
8303.24	-0.031331
8315.06	-0.0305133
8320.97	-0.0301035
8332.79	-0.0292823
8344.61	-0.0284592
8350.52	-0.0280471
8362.34	-0.0272218
8374.16	-0.0263955
8380.07	-0.025982
8391.89	-0.0251548
8403.71	-0.0243274
8415.53	-0.0235001
8421.44	-0.0230867
8433.26	-0.0222603
8445.08	-0.0214348
8450.99	-0.0210226
8462.81	-0.0201993
8474.63	-0.0193777
8480.54	-0.0189677
8492.36	-0.0181495
8504.18	-0.0173338
8510.08	-0.016927
8521.9	-0.0161158
8533.72	-0.0153079
8545.54	-0.0145036
8551.45	-0.014103
8563.27	-0.0133048
8575.09	-0.012511
8581	-0.0121159
8592.82	-0.0113292
8604.64	-0.0105477
8610.55	-0.010159
8622.37	-0.00938566
8634.19	-0.00861817
8640.1	-0.00823669
8651.92	-0.00747844
8663.74	-0.00672669
8675.56	-0.0059817
8681.47	-0.00561182
8693.29	-0.00487746
8705.11	-0.00415051
8711.02	-0.00378988
8722.84	-0.0030745
8734.66	-0.00236714
8740.57	-0.00201654
8752.39	-0.00132166
8764.21	-0.000635382
8770.12	-0.000295545
8781.94	0.000377389
8793.75	0.00104115
8805.57	0.00169553
8811.48	0.00201914
8823.3	0.00265905
8835.12	0.00328906
8841.03	0.00360029
8852.85	0.00421508
8864.67	0.00481949
8870.58	0.00511774
8882.4	0.00570624
8894.22	0.00628391
8900.13	0.00656863
8911.95	0.00712975
8923.77	0.00767964
8935.59	0.00821814
8941.5	0.00848307
8953.32	0.00900422
8965.14	0.00951364
8971.05	0.00976391
8982.87	0.0102555
8994.69	0.010735
9000.6	0.0109703
9012.42	0.0114315
9024.24	0.0118805
9030.15	0.0121004
9041.97	0.0125307
9053.79	0.0129486
9065.61	0.0133539
9071.51	0.0135518
9083.33	0.013938
9095.15	0.0143116
9101.06	0.0144936
9112.88	0.014848
9124.7	0.0151896
9130.61	0.0153556
9142.43	0.0156779
9154.25	0.0159874
9160.16	0.0161373
9171.98	0.0164276
9183.8	0.016705
9195.62	0.0169695
9201.53	0.017097
9213.35	0.0173425
9225.17	0.0175752
9231.08	0.0176868
9242.9	0.0179006
9254.72	0.0181018
9260.63	0.0181977
9272.45	0.0183802
9284.27	0.0185503
9290.18	0.0186308
9302	0.0187825
9313.82	0.0189222
9325.64	0.0190499
9331.55	0.0191092
9343.37	0.0192192
9355.19	0.0193174
9361.09	0.0193623
9372.91	0.0194433
9384.73	0.0195131
9390.64	0.0195438
9402.46	0.0195969
9414.28	0.0196392
9420.19	0.0196563
9432.01	0.0196827
9443.83	0.0196986
9455.65	0.0197043
9461.56	0.0197034
9473.38	0.0196942
9485.2	0.0196753
9491.11	0.0196623
9502.93	0.0196293
9514.75	0.0195872
9520.66	0.0195628
9532.48	0.0195073
9544.3	0.0194434
9550.21	0.0194083
9562.03	0.0193319
9573.85	0.0192476
9585.67	0.0191556
9591.58	0.0191068
9603.4	0.0190036
9615.22	0.0188935
9621.13	0.0188358
9632.95	0.0187154
9644.77	0.0185887
9650.68	0.0185229
9662.49	0.018387
9674.31	0.0182452
9680.22	0.0181722
9692.04	0.0180223
9703.86	0.0178671
9715.68	0.0177071
9721.59	0.0176253
9733.41	0.0174584
9745.23	0.0172872
9751.14	0.0172001
9762.96	0.017023
9774.78	0.0168422
9780.69	0.0167505
9792.51	0.0165647
9804.33	0.0163759
9810.24	0.0162804
9822.06	0.0160874
9833.88	0.0158919
9845.7	0.0156942
9851.61	0.0155946
9863.43	0.0153939
9875.25	0.0151915
9881.16	0.0150897
9892.98	0.0148851
9904.8	0.0146793
9910.71	0.014576
9922.53	0.0143687
9934.35	0.0141607
9940.26	0.0140565
9952.08	0.0138476
9963.9	0.0136385
9975.71	0.0134291
9981.62	0.0133244
9993.44	0.0131151
10005.3	0.0129059
10011.2	0.0128015
10023	0.0125928
10034.8	0.0123847
10040.7	0.0122808
10052.5	0.0120736
10064.4	0.0118672
10070.3	0.0117642
10082.1	0.0115591
10093.9	0.0113549
10105.7	0.0111518
10111.6	0.0110506
10123.5	0.0108492
10135.3	0.0106489
10141.2	0.0105493
10153	0.0103509
10164.8	0.0101538
10170.7	0.0100557
10182.6	0.00986059
10194.4	0.0096668
10200.3	0.00957041
10212.1	0.00937865
10223.9	0.00918824
10235.7	0.00899916
10241.7	0.00890512
10253.5	0.00871801
10265.3	0.00853219
10271.2	0.00843976
10283	0.00825581
10294.8	0.00807306
10300.8	0.00798212
10312.6	0.00780108
10324.4	0.00762111
10330.3	0.0075315
10342.1	0.00735303
10353.9	0.00717548
10365.8	0.00699877
10371.7	0.00691071
10383.5	0.00673514
10395.3	0.00656022
10401.2	0.00647298
10413	0.00629889
10424.9	0.00612524
10430.8	0.00603856
10442.6	0.00586541
10454.4	0.00569248
10460.3	0.00560606
10472.1	0.00543327
10484	0.00526046
10495.8	0.00508752
10501.7	0.00500098
10513.5	0.00482767
10525.3	0.00465399
10531.2	0.00456698
10543.1	0.00439255
10554.9	0.0042175
10560.8	0.00412971
10572.6	0.00395354
10584.4	0.00377651
10590.3	0.00368763
10602.2	0.00350911
10614	0.00332948
10625.8	0.00314865
10631.7	0.00305776
10643.5	0.00287496
10655.3	0.00269074
10661.3	0.00259807
10673.1	0.00241156
10684.9	0.00222342
10690.8	0.00212872
10702.6	0.001938
10714.4	0.00174547
10720.4	0.0016485
10732.2	0.00145313
10744	0.00125578
10755.8	0.0010564
10761.7	0.000955934
10773.5	0.000753407
10785.4	0.000548721
10791.3	0.000445555
10803.1	0.000237552
10814.9	2.72924e-05
10820.8	-7.86938e-05
10832.6	-0.000292396
10844.5	-0.000508425
10850.4	-0.000617317
10862.2	-0.00083687
10874	-0.00105879
10885.8	-0.00128307
10891.7	-0.00139611
10903.6	-0.00162396
10915.4	-0.00185417
10921.3	-0.00197016
10933.1	-0.0022039
10944.9	-0.00243997
10950.8	-0.00255887
10962.7	-0.00279839
10974.5	-0.00304018
10980.4	-0.0031619
10992.2	-0.00340701
11004	-0.00365428
11015.8	-0.00390367
11021.8	-0.00402914
11033.6	-0.0042816
11045.4	-0.00453604
11051.3	-0.00466398
11063.1	-0.00492126
11074.9	-0.00518035
11080.8	-0.00531056
11092.7	-0.00557222
11104.5	-0.00583551
11110.4	-0.00596773
11122.2	-0.00623329
11134	-0.00650024
11145.9	-0.00676851
11151.8	-0.0069031
11163.6	-0.00717315
11175.4	-0.00744426
11181.3	-0.00758018
11193.1	-0.00785268
11205	-0.00812599
11210.9	-0.00826291
11222.7	-0.00853721
11234.5	-0.00881202
11240.4	-0.00894959
11252.2	-0.00922497
11264.1	-0.00950057
11275.9	-0.00977629
11281.8	-0.00991414
11293.6	-0.0101898
11305.4	-0.0104652
11311.3	-0.0106028
11323.2	-0.0108778
11335	-0.0111522
11340.9	-0.0112891
11352.7	-0.0115625
11364.5	-0.0118351
11370.4	-0.0119711
11382.2	-0.0122422
11394.1	-0.0125121
11405.9	-0.0127808
11411.8	-0.0129147
11423.6	-0.0131812
11435.4	-0.0134462
11441.3	-0.0135781
11453.2	-0.0138405
11465	-0.014101
11470.9	-0.0142305
11482.7	-0.014488
11494.5	-0.0147433
11500.4	-0.0148701
11512.3	-0.0151219
11524.1	-0.0153713
11535.9	-0.0156181
11541.8	-0.0157405
11553.6	-0.0159833
11565.5	-0.0162232
11571.4	-0.0163421
11583.2	-0.0165776
11595	-0.01681
11600.9	-0.016925
11612.7	-0.0171527
11624.6	-0.017377
11630.5	-0.0174879
11642.3	-0.0177071
11654.1	-0.0179228
11660	-0.0180293
11671.8	-0.0182396
11683.7	-0.0184462
11695.5	-0.018649
11701.4	-0.018749
11713.2	-0.0189461
11725	-0.0191393
11730.9	-0.0192344
11742.7	-0.0194215
11754.6	-0.0196047
11760.5	-0.0196947
11772.3	-0.0198717
11784.1	-0.0200446
11790	-0.0201294
11801.8	-0.020296
11813.7	-0.0204583
11825.5	-0.0206164
11831.4	-0.0206938
11843.2	-0.0208455
11855	-0.0209929
11860.9	-0.021065
11872.8	-0.0212059
11884.6	-0.0213426
11890.5	-0.0214093
11902.3	-0.0215394
11914.1	-0.0216653
11920	-0.0217266
11931.9	-0.0218461
11943.7	-0.0219613
11955.5	-0.0220722
11961.4	-0.0221261
11973.2	-0.0222307
11985.1	-0.0223312
11991	-0.0223798
12002.8	-0.0224741
12014.6	-0.0225642
12020.5	-0.0226078
12032.3	-0.0226919
12044.1	-0.022772
12050.1	-0.0228105
12061.9	-0.0228847
12073.7	-0.0229551
12085.5	-0.0230216
12091.4	-0.0230535
12103.2	-0.0231144
12115.1	-0.0231717
12121	-0.023199
12132.8	-0.023251
12144.6	-0.0232994
12150.5	-0.0233223
12162.3	-0.0233657
12174.2	-0.0234057
12180.1	-0.0234244
12191.9	-0.0234596
12203.7	-0.0234917
12215.5	-0.0235207
12221.4	-0.023534
12233.3	-0.0235586
12245.1	-0.0235803
12251	-0.0235901
12262.8	-0.0236076
12274.6	-0.0236225
12280.5	-0.023629
12292.4	-0.0236401
12304.2	-0.0236487
12310.1	-0.0236521
12321.9	-0.0236571
12333.7	-0.0236599
12345.5	-0.0236606
12351.5	-0.0236601
12363.3	-0.0236576
12375.1	-0.0236532
12381	-0.0236503
12392.8	-0.023643
12404.6	-0.023634
12410.6	-0.0236288
12422.4	-0.0236173
12434.2	-0.0236041
12440.1	-0.0235969
12451.9	-0.0235815
12463.7	-0.0235647
12475.6	-0.0235466
12481.5	-0.023537
12493.3	-0.0235169
12505.1	-0.0234957
12511	-0.0234847
12522.8	-0.0234618
12534.7	-0.0234379
12540.6	-0.0234255
12552.4	-0.0234002
12564.2	-0.0233739
12570.1	-0.0233605
12581.9	-0.023333
12593.8	-0.0233048
12605.6	-0.0232758
12611.5	-0.023261
12623.3	-0.0232311
12635.1	-0.0232004
12641	-0.0231849
12652.9	-0.0231534
12664.7	-0.0231214
12670.6	-0.0231052
12682.4	-0.0230724
12694.2	-0.0230392
12700.1	-0.0230224
12712	-0.0229885
12723.8	-0.0229541
12735.6	-0.0229194
12741.5	-0.0229019
12753.3	-0.0228665
12765.1	-0.0228308
12771.1	-0.0228128
12782.9	-0.0227765
12794.7	-0.0227398
12800.6	-0.0227214
12812.4	-0.0226841
12824.2	-0.0226465
12830.2	-0.0226275
12842	-0.0225893
12853.8	-0.0225507
12865.6	-0.0225117
12871.5	-0.022492
12883.3	-0.0224523
12895.2	-0.0224121
12901.1	-0.0223918
12912.9	-0.0223509
12924.7	-0.0223095
12930.6	-0.0222886
12942.4	-0.0222463
12954.3	-0.0222034
12960.2	-0.0221817
12972	-0.0221379
12983.8	-0.0220933
12995.6	-0.0220481
13001.5	-0.0220252
13013.4	-0.0219788
13025.2	-0.0219316
13031.1	-0.0219077
13042.9	-0.0218592
13054.7	-0.0218098
13060.6	-0.0217847
13072.5	-0.0217338
13084.3	-0.0216819
13090.2	-0.0216555
13102	-0.021602
13113.8	-0.0215473
13125.6	-0.0214914
13131.6	-0.021463
13143.4	-0.0214052
13155.2	-0.0213461
13161.1	-0.021316
13172.9	-0.0212549
13184.7	-0.0211923
13190.7	-0.0211604
13202.5	-0.0210956
13214.3	-0.0210291
13220.2	-0.0209953
13232	-0.0209265
13243.8	-0.020856
13255.7	-0.0207837
13261.6	-0.0207469
13273.4	-0.020672
13285.2	-0.0205952
13291.1	-0.0205561
13302.9	-0.0204764
13314.8	-0.0203948
13320.7	-0.0203533
13332.5	-0.0202686
13344.3	-0.020182
13350.2	-0.0201378
13362	-0.020048
13373.9	-0.019956
13385.7	-0.0198618
13391.6	-0.0198139
13403.4	-0.0197163
13415.2	-0.0196165
13421.1	-0.0195657
13433	-0.0194624
13444.8	-0.0193567
13450.7	-0.019303
13462.5	-0.0191938
13474.3	-0.0190821
13480.2	-0.0190254
13492.1	-0.0189101
13503.9	-0.0187923
13515.7	-0.0186721
13521.6	-0.018611
13533.4	-0.018487
13545.2	-0.0183605
13551.2	-0.0182963
13563	-0.018166
13574.8	-0.0180332
13580.7	-0.0179658
13592.5	-0.0178292
13604.3	-0.01769
13610.2	-0.0176195
13622.1	-0.0174765
13633.9	-0.017331
13645.7	-0.017183
13651.6	-0.017108
13663.4	-0.0169563
13675.3	-0.016802
13681.2	-0.0167239
13693	-0.016566
13704.8	-0.0164055
13710.7	-0.0163244
13722.5	-0.0161604
13734.4	-0.0159939
13740.3	-0.0159098
13752.1	-0.0157398
13763.9	-0.0155675
13775.7	-0.015393
13781.6	-0.0153048
13793.5	-0.0151269
13805.3	-0.0149468
13811.2	-0.0148559
13823	-0.0146725
13834.8	-0.0144871
13840.7	-0.0143936
13852.6	-0.0142051
13864.4	-0.0140147
13870.3	-0.0139187
13882.1	-0.0137254
13893.9	-0.0135302
13905.7	-0.0133332
13911.6	-0.0132341
13923.5	-0.0130345
13935.3	-0.0128333
13941.2	-0.0127321
13953	-0.0125286
13964.8	-0.0123235
13970.7	-0.0122204
13982.6	-0.0120133
13994.4	-0.0118047
14000.3	-0.0117
14012.1	-0.0114896
14023.9	-0.011278
14035.8	-0.0110654
14041.7	-0.0109586
14053.5	-0.0107445
14065.3	-0.0105294
14071.2	-0.0104215
14083	-0.0102051
14094.9	-0.00998806
14100.8	-0.00987927
14112.6	-0.00966122
14124.4	-0.00944262
14130.3	-0.00933314
14142.1	-0.00911386
14154	-0.00889421
14165.8	-0.00867429
14171.7	-0.00856424
14183.5	-0.00834403
14195.3	-0.00812373
14201.2	-0.00801356
14213	-0.00779326
14224.9	-0.00757306
14230.8	-0.00746302
14242.6	-0.0072431
14254.4	-0.00702348
14260.3	-0.00691379
14272.1	-0.00669474
14284	-0.00647616
14295.8	-0.00625814
14301.7	-0.00614935
14313.5	-0.00593229
14325.3	-0.00571595
14331.2	-0.00560808
14343.1	-0.00539298
14354.9	-0.00517879
14360.8	-0.00507206
14372.6	-0.00485936
14384.4	-0.00464775
14390.3	-0.00454237
14402.2	-0.0043325
14414	-0.00412388
14425.8	-0.00391658
14431.7	-0.00381343
14443.5	-0.00360821
14455.4	-0.00340445
14461.3	-0.00330314
14473.1	-0.00310169
14484.9	-0.00290184
14490.8	-0.00280254
14502.6	-0.00260522
14514.4	-0.00240965
14520.4	-0.00231253
14532.2	-0.00211967
14544	-0.00192868
14555.8	-0.00173961
14561.7	-0.00164582
14573.5	-0.00145971
14585.4	-0.00127564
14591.3	-0.00118438
14603.1	-0.00100343
14614.9	-0.000824615
14620.8	-0.000736018
14632.6	-0.000560466
14644.5	-0.000387134
14650.4	-0.000301311
14662.2	-0.000131369
14674	3.62764e-05
14685.8	0.000201597
14691.7	0.000283378
14703.6	0.000445165
14715.4	0.000604567
14721.3	0.000683367
14733.1	0.000839152
14744.9	0.000992504
14750.8	0.00106826
14762.7	0.00121793
14774.5	0.00136514
14780.4	0.00143781
14792.2	0.00158128
14804	0.00172226
14815.9	0.00186073
14821.8	0.00192903
14833.6	0.00206374
14845.4	0.00219595
14851.3	0.0022611
14863.1	0.00238954
14874.9	0.00251546
14880.9	0.00257748
14892.7	0.00269964
14904.5	0.00281931
14910.4	0.00287821
14922.2	0.00299415
14934	0.00310761
14945.9	0.00321861
14951.8	0.00327319
14963.6	0.00338052
14975.4	0.00348543
14981.3	0.00353698
14993.1	0.00363828
15005	0.00373721
15010.9	0.00378578
15022.7	0.00388117
15034.5	0.00397424
15040.4	0.00401991
15052.2	0.00410954
15064.1	0.00419691
15075.9	0.00428204
15081.8	0.00432378
15093.6	0.00440561
15105.4	0.00448528
15111.3	0.00452432
15123.2	0.00460081
15135	0.00467522
15140.9	0.00471166
15152.7	0.00478301
15164.5	0.00485237
15170.4	0.00488631
15182.3	0.00495274
15194.1	0.00501728
15205.9	0.00507994
15211.8	0.00511059
15223.6	0.00517053
15235.4	0.0052287
15241.4	0.00525714
15253.2	0.00531274
15265	0.00536667
15270.9	0.00539302
15282.7	0.00544453
15294.5	0.00549448
15300.5	0.00551889
15312.3	0.00556658
15324.1	0.00561281
15330	0.0056354
15341.8	0.00567953
15353.6	0.00572232
15365.5	0.00576381
15371.4	0.00578408
15383.2	0.0058237
15395	0.00586212
15400.9	0.0058809
15412.7	0.00591762
15424.6	0.00595326
15430.5	0.00597069
15442.3	0.00600479
15454.1	0.00603792
15460	0.00605413
15471.8	0.00608588
15483.7	0.00611676
15495.5	0.00614682
15501.4	0.00616156
15513.2	0.00619047
15525	0.00621865
15530.9	0.00623249
15542.8	0.00625968
15554.6	0.00628626
15560.5	0.00629933
15572.3	0.00632505
15584.1	0.00635026
15590	0.00636268
15601.9	0.00638718
15613.7	0.00641125
15625.5	0.00643494
15631.4	0.00644665
15643.2	0.00646982
15655	0.00649269
15661	0.00650402
15672.8	0.0065265
15684.6	0.00654876
15690.5	0.00655981
15702.3	0.00658179
15714.1	0.00660363
15720.1	0.0066145
15731.9	0.00663616
15743.7	0.00665774
15755.5	0.00667927
15761.4	0.00669002
15773.2	0.0067115
15785.1	0.00673299
15791	0.00674373
15802.8	0.00676525
15814.6	0.00678682
15820.5	0.00679762
15832.3	0.00681929
15844.2	0.00684104
15850.1	0.00685195
15861.9	0.00687384
15873.7	0.00689585
15885.5	0.00691798
15891.4	0.0069291
15903.3	0.00695142
15915.1	0.00697387
15921	0.00698515
15932.8	0.00700782
15944.6	0.00703061
15950.5	0.00704206
15962.4	0.00706506
15974.2	0.00708819
15980.1	0.0070998
15991.9	0.00712311
16003.7	0.00714653
16015.5	0.00717005
16021.5	0.00718184
16033.3	0.00720548
16045.1	0.00722918
16051	0.00724105
16062.8	0.00726481
16074.6	0.00728858
16080.5	0.00730046
16092.4	0.00732421
16104.2	0.00734792
16110.1	0.00735974
16121.9	0.00738332
16133.7	0.00740678
16145.6	0.00743009
16151.5	0.00744168
16163.3	0.0074647
16175.1	0.00748747
16181	0.00749876
16192.8	0.0075211
16204.7	0.0075431
16210.6	0.00755396
16222.4	0.00757537
16234.2	0.00759632
16240.1	0.00760661
16251.9	0.00762679
16263.8	0.00764639
16275.6	0.00766536
16281.5	0.0076746
16293.3	0.00769252
16305.1	0.00770968
16311	0.00771795
16322.9	0.00773385
16334.7	0.00774883
16340.6	0.00775596
16352.4	0.00776946
16364.2	0.00778188
16370.1	0.00778767
16382	0.00779837
16393.8	0.00780783
16405.6	0.00781599
16411.5	0.00781956
16423.3	0.00782564
16435.1	0.00783024
16441	0.00783196
16452.9	0.00783422
16464.7	0.00783483
16470.6	0.00783449
16482.4	0.00783248
16494.2	0.00782863
16500.1	0.007826
16512	0.00781927
16523.8	0.00781052
16535.6	0.00779968
16541.5	0.00779345
16553.3	0.00777933
16565.2	0.00776294
16571.1	0.00775387
16582.9	0.00773393
16594.7	0.00771153
16600.6	0.00769938
16612.4	0.00767316
16624.3	0.00764431
16630.2	0.00762887
16642	0.00759592
16653.8	0.00756017
16665.6	0.00752154
16671.5	0.00750112
16683.4	0.00745805
16695.2	0.00741193
16701.1	0.00738772
16712.9	0.00733692
16724.7	0.00728293
16730.6	0.00725472
16742.4	0.00719584
16754.3	0.00713361
16760.2	0.00710123
16772	0.0070339
16783.8	0.00696311
16795.6	0.00688881
16801.5	0.00685032
16813.4	0.00677067
16825.2	0.0066874
16831.1	0.00664439
16842.9	0.00655562
16854.7	0.00646315
16860.6	0.00641551
16872.5	0.00631742
16884.3	0.00621556
16890.2	0.00616321
16902	0.00605564
16913.8	0.00594426
16925.7	0.00582904
16931.6	0.00576999
16943.4	0.005649
16955.2	0.00552417
16961.1	0.00546031
16972.9	0.00532971
16984.8	0.00519527
16990.7	0.00512662
17002.5	0.00498644
17014.3	0.00484247
17020.2	0.00476906
17032	0.00461942
17043.8	0.00446605
17055.7	0.00430897
17061.6	0.00422905
17073.4	0.00406648
17085.2	0.00390031
17091.1	0.00381589
17102.9	0.0036444
17114.8	0.00346944
17120.7	0.00338068
17132.5	0.00320062
17144.3	0.00301725
17150.2	0.00292435
17162	0.00273614
17173.9	0.00254481
17185.7	0.00235043
17191.6	0.00225213
17203.4	0.00205335
17215.2	0.00185175
17221.1	0.00174992
17233	0.00154428
17244.8	0.00133608
17250.7	0.00123105
17262.5	0.00101921
17274.3	0.000805089
17280.2	0.000697208
17292.1	0.000479884
17303.9	0.000260584
17315.7	3.94353e-05
17321.6	-7.17905e-05
17333.4	-0.000295461
17345.2	-0.00052064
17351.2	-0.000633751
17363	-0.000860928
17374.8	-0.00108925
17380.7	-0.0012038
17392.5	-0.00143357
17404.3	-0.0016641
17410.3	-0.00177961
17422.1	-0.00201101
17433.9	-0.00224278
17445.7	-0.00247475
17451.6	-0.00259077
17463.4	-0.00282275
17475.3	-0.00305453
17481.2	-0.00317029
17493	-0.00340144
17504.8	-0.00363195
17510.7	-0.00374692
17522.5	-0.00397616
17534.4	-0.00420433
17540.3	-0.00431796
17552.1	-0.00454419
17563.9	-0.00476892
17575.7	-0.00499197
17581.6	-0.0051028
17593.5	-0.00532299
17605.3	-0.00554104
17611.2	-0.00564922
17623	-0.00586376
17634.8	-0.00607573
17640.7	-0.0061807
17652.6	-0.0063885
17664.4	-0.00659329
17670.3	-0.00669451
17682.1	-0.00689449
17693.9	-0.00709105
17705.7	-0.00728402
17711.7	-0.00737911
17723.5	-0.00756639
17735.3	-0.00774967
17741.2	-0.00783976
17753	-0.00801676
17764.8	-0.00818938
17770.8	-0.00827399
17782.6	-0.00843975
17794.4	-0.00860076
17800.3	-0.00867944
17812.1	-0.00883306
17823.9	-0.00898158
17835.8	-0.00912487
17841.7	-0.00919451
17853.5	-0.00932972
17865.3	-0.00945939
17871.2	-0.00952211
17883	-0.00964325
17894.9	-0.00975858
17900.8	-0.00981402
17912.6	-0.00992043
17924.4	-0.0100208
17930.3	-0.0100686
17942.1	-0.0101597
17954	-0.0102445
17965.8	-0.0103229
17971.7	-0.0103597
17983.5	-0.0104284
17995.3	-0.0104906
18001.2	-0.0105192
18013.1	-0.0105716
18024.9	-0.0106172
18030.8	-0.0106375
18042.6	-0.0106731
18054.4	-0.0107019
18060.3	-0.0107138
18072.2	-0.0107324
18084	-0.0107443
18095.8	-0.0107493
18101.7	-0.0107493
18113.5	-0.0107441
18125.3	-0.010732
18131.3	-0.0107235
18143.1	-0.0107012
18154.9	-0.0106722
18160.8	-0.0106552
18172.6	-0.0106161
18184.4	-0.0105703
18190.4	-0.0105448
18202.2	-0.0104891
18214	-0.0104267
18225.8	-0.0103578
18231.7	-0.0103209
18243.5	-0.0102423
18255.4	-0.0101574
18261.3	-0.0101126
18273.1	-0.0100182
18284.9	-0.00991774
18290.8	-0.00986522
18302.6	-0.00975566
18314.5	-0.00964019
18320.4	-0.00958026
18332.2	-0.0094561
18344	-0.00932628
18355.8	-0.00919092
18361.7	-0.00912121
18373.6	-0.00897776
18385.4	-0.00882909
18391.3	-0.00875283
18403.1	-0.00859656
18414.9	-0.00843539
18420.8	-0.00835301
18432.7	-0.00818476
18444.5	-0.00801197
18450.4	-0.00792392
18462.2	-0.00774459
18474	-0.00756111
18485.8	-0.00737363
18491.8	-0.00727843
18503.6	-0.00708524
18515.4	-0.00688845
18521.3	-0.00678875
18533.1	-0.00658687
18544.9	-0.0063818
18550.9	-0.00627813
18562.7	-0.00606861
18574.5	-0.00585633
18580.4	-0.00574922
18592.2	-0.00553313
18604	-0.00531473
18615.9	-0.00509419
18621.8	-0.00498317
18633.6	-0.00475975
18645.4	-0.00453463
18651.3	-0.00442149
18663.1	-0.00419415
18675	-0.00396556
18680.9	-0.00385085
18692.7	-0.00362071
18704.5	-0.00338975
18710.4	-0.00327402
18722.2	-0.00304218
18734.1	-0.00280996
18745.9	-0.00257753
18751.8	-0.0024613
18763.6	-0.00222889
18775.4	-0.00199671
18781.3	-0.00188075
18793.2	-0.00164921
18805	-0.00141832
18810.9	-0.00130316
18822.7	-0.00107352
18834.5	-0.000844925
18840.4	-0.000731066
18852.3	-0.000504323
18864.1	-0.000279006
18875.9	-5.52649e-05
18881.8	5.59686e-05
18893.6	0.000277071
18905.4	0.000496236
18911.4	0.000605049
18923.2	0.000821049
18935	0.00103477
18940.9	0.00114074
18952.7	0.0013508
18964.5	0.00155826
18970.4	0.00166098
18982.3	0.00186431
18994.1	0.00206476
19005.9	0.00226219
19011.8	0.00235975
19023.6	0.00255248
19035.5	0.00274193
19041.4	0.0028354
19053.2	0.00301977
19065	0.00320064
19070.9	0.00328972
19082.7	0.00346516
19094.6	0.00363688
19100.5	0.00372132
19112.3	0.00388732
19124.1	0.00404942
19130	0.00412898
19141.8	0.0042851
19153.7	0.00443715
19165.5	0.00458508
19171.4	0.00465749
19183.2	0.00479915
19195	0.00493657
19200.9	0.00500368
19212.8	0.00513467
19224.6	0.00526132
19230.5	0.00532301
19242.3	0.00544311
19254.1	0.00555879
19260	0.00561498
19271.8	0.00572403
19283.7	0.00582863
19295.5	0.00592877
19301.4	0.00597717
19313.2	0.00607061
19325	0.00615959
19330.9	0.0062024
19342.8	0.00628469
19354.6	0.00636252
19360.5	0.00639977
19372.3	0.00647095
19384.1	0.00653771
19390	0.00656944
19401.9	0.00662962
19413.7	0.00668545
19425.5	0.00673694
19431.4	0.00676108
19443.2	0.00680615
19455.1	0.00684698
19461	0.00686581
19472.8	0.00690036
19484.6	0.00693077
19490.5	0.00694444
19502.3	0.00696874
19514.2	0.00698903
19520.1	0.00699769
19531.9	0.00701206
19543.7	0.00702256
19555.5	0.00702925
19561.4	0.00703118
19573.2	0.00703227
19585.1	0.00702971
19591	0.00702707
19602.8	0.00701915
19614.6	0.00700775
19620.5	0.00700077
19632.3	0.00698428
19644.2	0.00696449
19650.1	0.00695338
19661.9	0.00692879
19673.7	0.00690109
19685.5	0.00687036
19691.4	0.00685389
19703.3	0.00681877
19715.1	0.00678083
19721	0.00676082
19732.8	0.0067188
19744.6	0.00667417
19750.5	0.0066509
19762.4	0.00660251
19774.2	0.00655171
19780.1	0.00652544
19791.9	0.00647122
19803.7	0.00641481
19815.6	0.00635631
19821.5	0.0063263
19833.3	0.00626483
19845.1	0.00620149
19851	0.00616915
19862.8	0.00610317
19874.6	0.00603554
19880.6	0.00600114
19892.4	0.0059312
19904.2	0.00585985
19910.1	0.00582366
19921.9	0.00575033
19933.7	0.00567579
19945.6	0.00560014
19951.5	0.00556192
19963.3	0.00548476
19975.1	0.00540669
19981	0.00536734
19992.8	0.00528808
