0	0	815804
100.524	0	895250
200.25	0	916924
300.199	0	942762
400.097	0	971358
500.191	0	1000510
600.805	0	1032848
700.025	0	1067364
800.875	0	1105960
900.178	0	1145846
1000.22	0	1189490
1100.58	0	1235006
1200.31	0	1277684
1300.05	0	1317806
