MODE: omp_prog0_single_core
PARCOUNT: 1
PROBLEMS: 1
Running on INWEST
Using OMP

Programs:
 + ../../build/sierpi_intel_omp_tsunami_parallel_release  -u 10 -U 10 -T 1000 -n 40 -d 12
 + ../../build/sierpi_intel_omp_tsunami_parallel_release  -u 10 -U 10 -T 1000 -n 40 -d 12
 + ../../build/sierpi_intel_omp_tsunami_parallel_release  -u 10 -U 10 -T 1000 -n 40 -d 10
 + ../../build/sierpi_intel_omp_tsunami_parallel_release  -u 10 -U 10 -T 1000 -n 40 -d 12
 + ../../build/sierpi_intel_omp_tsunami_parallel_release  -u 10 -U 10 -T 1000 -n 40 -d 10

Sat Mar 31 16:15:00 CEST 2012
OMP: Prog0 parallel execution (1 times)
Waiting for job 30750

 + Terminating after 1000 timesteps with equal number of triangles -> EXIT
 + Final timestep: 6749

6750 TS (Timesteps)
715.114 ST (SIMULATION_TIME)
0.100037 TSS (Timestep size)
106.204 SFS (Overall seconds for Simulation)
437983904 TP (Triangles processed)
0.0157339 ASPT (Averaged Seconds per Timestep)
64886.5 TPST (Triangles Processed in Average per Simulation Timestep)
48.6681 PPST (Partitions Processed in Average per Simulation Timestep)
4.12399 MTPS (Million Triangles per Second)
4.12399 MTPSPT (Million Triangles per Second per Thread)
1.98018 EDMBPT (ElementData Megabyte per Timestep (RW))
125.854 EDMBPS (ElementData Megabyte per Second (RW))
Sat Mar 31 16:16:46 CEST 2012
Seconds: 106
