Problem size with different number of CPUs using function optimization
THREADS	MTPS	TIMESTEPS	TIMESTEP_SIZE	SECONDS_FOR_SIMULATION	AVERAGE_TRIANGLES	AVERAGE_PARTITIONS
64	22.497	100	0.000491318	84.664	1.90469e+07	1158.74
63	22.4812	100	0.000491318	84.7238	1.90469e+07	1158.74
62	22.1985	100	0.000491318	85.8028	1.90469e+07	1158.74
61	22.6351	100	0.000491318	84.1477	1.90469e+07	1158.74
60	22.589	100	0.000491318	84.3192	1.90469e+07	1158.74
59	22.6151	100	0.000491318	84.2223	1.90469e+07	1158.74
58	22.6725	100	0.000491318	84.0088	1.90469e+07	1158.74
57	22.6977	100	0.000491318	83.9157	1.90469e+07	1158.74
56	22.6557	100	0.000491318	84.0712	1.90469e+07	1158.74
55	22.3909	100	0.000491318	85.0652	1.90469e+07	1158.74
54	22.7188	100	0.000491318	83.8376	1.90469e+07	1158.74
53	22.7676	100	0.000491318	83.6579	1.90469e+07	1158.74
52	22.7912	100	0.000491318	83.5712	1.90469e+07	1158.74
51	22.723	100	0.000491318	83.8223	1.90469e+07	1158.74
50	22.7279	100	0.000491318	83.8039	1.90469e+07	1158.74
49	22.5322	100	0.000491318	84.532	1.90469e+07	1158.74
48	22.7451	100	0.000491318	83.7407	1.90469e+07	1158.74
47	22.7484	100	0.000491318	83.7287	1.90469e+07	1158.74
46	22.4858	100	0.000491318	84.7066	1.90469e+07	1158.74
45	22.7465	100	0.000491318	83.7354	1.90469e+07	1158.74
44	22.5374	100	0.000491318	84.5126	1.90469e+07	1158.74
43	22.6707	100	0.000491318	84.0155	1.90469e+07	1158.74
42	22.2693	100	0.000491318	85.5301	1.90469e+07	1158.74
41	22.1418	100	0.000491318	86.0225	1.90469e+07	1158.74
40	22.4616	100	0.000491318	84.7977	1.90469e+07	1158.74
39	22.0649	100	0.000491318	86.3222	1.90469e+07	1158.74
38	22.5865	100	0.000491318	84.3288	1.90469e+07	1158.74
37	22.0517	100	0.000491318	86.3738	1.90469e+07	1158.74
36	21.9787	100	0.000491318	86.6606	1.90469e+07	1158.74
35	22.1009	100	0.000491318	86.1815	1.90469e+07	1158.74
34	21.833	100	0.000491318	87.2393	1.90469e+07	1158.74
33	21.7195	100	0.000491318	87.6952	1.90469e+07	1158.74
32	21.4355	100	0.000491318	88.857	1.90469e+07	1158.74
31	21.6684	100	0.000491318	87.9019	1.90469e+07	1158.74
30	21.4863	100	0.000491318	88.6467	1.90469e+07	1158.74
29	21.6162	100	0.000491318	88.1141	1.90469e+07	1158.74
28	21.3525	100	0.000491318	89.2022	1.90469e+07	1158.74
27	21.5474	100	0.000491318	88.3955	1.90469e+07	1158.74
26	21.1548	100	0.000491318	90.0361	1.90469e+07	1158.74
25	21.3019	100	0.000491318	89.414	1.90469e+07	1158.74
24	20.5499	100	0.000491318	92.6862	1.90469e+07	1158.74
23	20.8218	100	0.000491318	91.4757	1.90469e+07	1158.74
22	20.0897	100	0.000491318	94.8093	1.90469e+07	1158.74
21	20.6105	100	0.000491318	92.4138	1.90469e+07	1158.74
20	19.5547	100	0.000491318	97.4033	1.90469e+07	1158.74
19	20.2772	100	0.000491318	93.9328	1.90469e+07	1158.74
18	19.2925	100	0.000491318	98.7271	1.90469e+07	1158.74
17	20.4938	100	0.000491318	92.9397	1.90469e+07	1158.74
16	19.9695	100	0.000491318	95.3798	1.90469e+07	1158.74
15	19.7806	100	0.000491318	96.2907	1.90469e+07	1158.74
14	19.0878	100	0.000491318	99.7859	1.90469e+07	1158.74
13	18.8111	100	0.000491318	101.254	1.90469e+07	1158.74
12	18.0329	100	0.000491318	105.623	1.90469e+07	1158.74
11	17.6121	100	0.000491318	108.147	1.90469e+07	1158.74
10	16.5591	100	0.000491318	115.024	1.90469e+07	1158.74
9	15.8579	100	0.000491318	120.11	1.90469e+07	1158.74
8	14.1446	100	0.000491318	134.658	1.90469e+07	1158.74
7	13.5032	100	0.000491318	141.055	1.90469e+07	1158.74
6	12.1029	100	0.000491318	157.374	1.90469e+07	1158.74
5	10.8194	100	0.000491318	176.044	1.90469e+07	1158.74
4	8.62516	100	0.000491318	220.83	1.90469e+07	1158.74
3	7.57332	100	0.000491318	251.5	1.90469e+07	1158.74
2	6.34614	100	0.000491318	300.134	1.90469e+07	1158.74
1	3.32383	100	0.000491318	573.041	1.90469e+07	1158.74
