Depth		0	10	20	30	40	50	60	70	80	90	100	110	120	130	140	150	160	170	180	190	200	210	220	230	240	250	260	270	280	290	300	310	320	330	340	350	360	370	380	390	400	410	420	430	440	450	460	470	480	490	500	510	520	530	540	550	560	570	580	590	600	610	620	630	640	650	660	670	680	690	700	710	720	730	740	750	760	770	780	790	800	810	820	830	840	850	860	870	880
8	2256	2256	2573	2832	3072	3372	3629	3868	4146	4294	4400	4595	4676	4650	4769	4839	4940	5049	5219	5322	5486	5631	5730	5890	6037	6148	6279	6450	6571	6725	6798	6940	7107	7168	7316	7457	7526	7630	7773	7873	7983	8134	8199	8349	8406	8523	8636	8737	8871	8979	9045	9127	9127	9087	8988	8859	8757	8575	8306	7954	7633	7243	6813	6315	5948	5523	5090	4775	4336	3921	3642	3404	3135	2912	2681	2498	2288	2096	1904	1725	1546	1380	1219	1078	961	838	753	673	606	548
9	4460	4460	5040	5511	6013	6526	7021	7566	7998	8234	8525	8660	8767	8845	8968	9055	9269	9447	9637	9850	10125	10347	10528	10805	11029	11286	11482	11719	11891	12148	12385	12595	12815	13011	13220	13429	13657	13903	14112	14257	14455	14704	14866	15062	15248	15459	15691	15830	16018	16217	16343	16459	16475	16350	16245	16079	15913	15540	15011	14421	13754	12960	12199	11528	10826	10112	9335	8685	7907	7201	6703	6230	5788	5383	4915	4580	4226	3863	3507	3208	2867	2546	2277	1996	1760	1572	1396	1259	1157	1044
10	8816	8816	9881	10844	11811	12776	13787	14807	15649	16118	16421	16666	16918	16921	16953	17137	17477	17840	18223	18580	19020	19408	19840	20264	20706	21113	21528	21968	22345	22794	23165	23678	23992	24409	24770	25143	25551	25870	26335	26653	27034	27394	27779	28143	28380	28773	29152	29454	29798	30153	30428	30733	30676	30542	30239	29934	29583	28949	28020	26884	25531	24107	22833	21531	20245	18902	17550	16120	14703	13413	12485	11560	10781	10036	9241	8558	7917	7267	6635	6013	5438	4852	4336	3797	3378	3003	2671	2426	2247	2060
11	17471	17471	19528	21383	23253	25139	27146	29072	30762	31348	31597	31984	31837	32359	32384	32779	33272	33835	34511	35187	35873	36721	37425	38173	39017	39746	40512	41389	42048	42759	43545	44302	44931	45713	46512	47267	47850	48742	49281	49914	50614	51118	51888	52484	53019	53654	54283	54861	55440	56140	56547	57233	57087	56733	56376	55509	54584	53577	51961	49657	47079	44938	42474	40064	37599	35191	32664	29984	27294	24887	23100	21444	19934	18478	17216	15891	14697	13530	12373	11231	10167	9106	8105	7164	6363	5651	5075	4651	4337	4167
12	34769	34769	38688	42300	46001	49816	53649	57383	60575	61519	61711	61827	61798	61379	61567	62021	63217	64553	66016	68450	69322	70712	72021	73447	74936	76213	77340	79457	80428	81323	82418	84227	85605	86965	88035	89676	90788	91874	93224	94510	95666	96746	97935	99163	100188	100954	102189	103341	104176	105199	106188	107196	107309	106650	105608	104127	102414	100482	97419	93301	89509	85397	81160	76757	72163	67308	62384	57084	51521	47729	44212	41135	38158	35574	33076	30629	28293	26085	23880	21787	19750	17766	15841	14018	12460	11094	9996	9158	8599	8286
13	69232	69232	76779	83872	91089	98543	106107	113255	118863	119444	119189	118474	117296	116145	115898	117206	119687	121539	126878	127863	128814	131134	134167	136540	138420	140906	142461	144205	146195	148525	150912	157332	158630	160023	160802	163038	164870	170471	171124	172437	173497	175367	177291	179520	181137	183064	184808	187116	188653	190612	192328	193920	194251	192521	190530	187386	183728	180613	176627	169916	162789	155912	148014	139698	131076	122142	112900	103210	94776	87391	80963	75161	69944	64954	60434	55953	51769	47707	43788	39934	36268	32687	29225	25948	23114	20781	18894	17559	16741	16420
14	138093	138093	152680	166665	180971	195751	210699	224646	234278	235208	234360	230117	228233	226425	226077	230100	233150	236241	240920	249243	250645	255674	261721	268044	271862	276571	278481	282937	287182	292880	295759	301218	303111	306817	310764	315835	319247	322971	326975	331170	334194	338757	341669	345059	349058	353000	355953	359634	362026	366376	369072	371921	371630	368420	363598	357697	350805	343245	337803	327555	316303	302307	287299	270924	254545	236190	217296	197688	181541	168025	156142	145393	135365	126003	117142	108578	100451	92641	85057	77758	70760	63905	57334	50999	45550	41002	37429	34886	33360	32780

