0	0
10.0257	0
20.9861	0
30.9481	0
40.91	0
50.87	0
60.7888	0
70.619	0
80.4281	0
90.2373	0
100.046	0
110.836	0
120.646	0
130.455	0
140.264	0
150.073	0
160.863	0
170.672	0
180.481	0
190.29	0
200.099	0
210.889	0
220.698	0
230.507	0
240.317	0
250.126	0
260.916	0
270.725	0
280.534	0
290.343	0
300.152	0
310.942	0
320.751	0
330.56	0
340.369	0
350.178	0
360.968	0
370.777	0
380.586	0
390.395	0
400.204	0
410.013	0
420.803	0
430.612	0
440.421	0
450.23	0
460.039	0
470.829	0
480.638	0
490.447	0
500.256	0
510.065	0
520.855	0
530.663	0
540.472	0
550.281	0
560.09	0
570.88	0
580.688	0
590.497	0
600.306	0
610.114	0
620.904	0
630.713	0
640.521	0
650.33	0
660.138	0
670.928	0
680.737	0
690.545	0
700.354	0
710.162	0
720.952	0
730.76	0
740.569	0
750.378	0
760.186	0
770.976	0
780.785	0
790.593	0
800.402	0
810.211	0
820.019	0
830.809	0
840.618	0
850.426	0
860.235	0
870.044	0
880.833	0
890.642	0
900.45	0
910.259	0
920.067	0
930.857	0
940.665	0
950.474	0
960.282	0
970.091	0
980.88	0
990.688	0
1000.5	0
1010.31	0
1020.11	0
1030.9	0
1040.71	0
1050.52	0
1060.33	0
1070.14	0
1080.92	0
1090.73	0
1100.54	0
1110.35	0
1120.16	0
1130.95	0
1140.75	0
1150.56	0
1160.37	0
1170.18	0
1180.97	0
1190.78	0
1200.58	0
1210.39	0
1220.2	0
1230.01	0
1240.8	0
1250.6	0
1260.41	0
1270.22	0
1280.03	0
1290.82	0
1300.62	0
1310.43	0
1320.24	0
1330.05	0
1340.84	0
1350.64	0
1360.45	0
1370.26	0
1380.07	0
1390.86	0
1400.66	0
1410.47	0
1420.28	0
1430.09	0
1440.88	0
1450.68	0
1460.49	0
1470.3	0
1480.11	0
1490.9	0
1500.7	0
1510.51	0
1520.32	0
1530.13	0
1540.92	0
1550.72	0
1560.53	0
1570.34	0
1580.15	0
1590.94	0
1600.74	0
1610.55	0
1620.36	0
1630.17	0
1640.96	0
1650.76	0
1660.57	0
1670.38	0
1680.19	0
1690.98	0
1700.79	0
1710.59	-3.63798e-12
1720.4	-1.00044e-11
1730.21	-1.72804e-11
1740.02	-2.54659e-11
1750.81	-3.54703e-11
1760.62	-4.45652e-11
1770.42	-5.36602e-11
1780.23	-6.27551e-11
1790.04	-7.63976e-11
1800.83	-9.64064e-11
1810.64	-1.24601e-10
1820.45	-1.63709e-10
1830.26	-2.20098e-10
1840.07	-3.01043e-10
1850.86	-4.30191e-10
1860.66	-5.99357e-10
1870.47	-8.34916e-10
1880.28	-1.16506e-09
1890.09	-1.62254e-09
1900.88	-2.32831e-09
1910.69	-3.22234e-09
1920.5	-4.44379e-09
1930.31	-6.1018e-09
1940.12	-8.34461e-09
1950.91	-1.17152e-08
1960.72	-1.58752e-08
1970.52	-2.14177e-08
1980.33	-2.87691e-08
1990.14	-3.84744e-08
2000.93	-5.27025e-08
2010.74	-6.98456e-08
2020.55	-9.21655e-08
2030.36	-1.21102e-07
2040.17	-1.5846e-07
2050.96	-2.11972e-07
2060.77	-2.74966e-07
2070.58	-3.55231e-07
2080.39	-4.57087e-07
2090.2	-5.85812e-07
2100.01	-7.47839e-07
2110.8	-9.73898e-07
2120.61	-1.23321e-06
2130.42	-1.55564e-06
2140.23	-1.95499e-06
2150.04	-2.44775e-06
2160.83	-3.12109e-06
2170.64	-3.87787e-06
2180.45	-4.80085e-06
2190.26	-5.92242e-06
2200.07	-7.28038e-06
2210.86	-9.09977e-06
2220.67	-1.11054e-05
2230.48	-1.3507e-05
2240.29	-1.6373e-05
2250.09	-1.97813e-05
2260.89	-2.42632e-05
2270.69	-2.91138e-05
2280.5	-3.48222e-05
2290.31	-4.1518e-05
2300.12	-4.93464e-05
2310.91	-5.94598e-05
2320.72	-7.02159e-05
2330.53	-8.26673e-05
2340.34	-9.70363e-05
2350.15	-0.000113567
2360.94	-0.000134567
2370.75	-0.000156535
2380.56	-0.000181571
2390.37	-0.000210021
2400.18	-0.000242254
2410.97	-0.000282557
2420.78	-0.000324062
2430.59	-0.000370673
2440.4	-0.000422869
2450.21	-0.00048116
2460.02	-0.000546079
2470.81	-0.000625813
2480.62	-0.000706497
2490.43	-0.000795615
2500.24	-0.000893792
2510.05	-0.00100167
2520.84	-0.00113233
2530.65	-0.00126274
2540.46	-0.00140493
2550.27	-0.00155957
2560.08	-0.00172736
2570.87	-0.00192793
2580.68	-0.00212553
2590.49	-0.00233837
2600.3	-0.00256708
2610.11	-0.0028123
2620.9	-0.00310179
2630.71	-0.00338355
2640.52	-0.00368355
2650.33	-0.00400226
2660.14	-0.00434011
2670.93	-0.00473431
2680.74	-0.00511352
2690.55	-0.00551282
2700.36	-0.00593239
2710.16	-0.00637232
2720.96	-0.00687975
2730.76	-0.00736231
2740.57	-0.00786493
2750.38	-0.0083873
2760.19	-0.008929
2770	-0.00948951
2780.79	-0.010127
2790.6	-0.0107247
2800.41	-0.0113387
2810.22	-0.011968
2820.03	-0.0126114
2830.82	-0.0133336
2840.63	-0.0140017
2850.44	-0.0146791
2860.25	-0.0153639
2870.06	-0.016054
2880.85	-0.0168166
2890.66	-0.0175105
2900.47	-0.0182023
2910.28	-0.0188893
2920.09	-0.0195687
2930.88	-0.0203035
2940.69	-0.0209566
2950.5	-0.0215921
2960.31	-0.0222066
2970.12	-0.0227964
2980.91	-0.0234122
2990.72	-0.023938
3000.53	-0.0244274
3010.34	-0.0248763
3020.15	-0.0252808
3030.94	-0.0256697
3040.75	-0.0259679
3050.56	-0.0262091
3060.37	-0.0263895
3070.18	-0.026505
3080.97	-0.0265524
3090.77	-0.0265191
3100.58	-0.0264091
3110.39	-0.0262187
3120.2	-0.0259447
3130.01	-0.0255835
3140.8	-0.0250817
3150.61	-0.0245275
3160.42	-0.0238763
3170.23	-0.0231255
3180.04	-0.022274
3190.83	-0.021216
3200.64	-0.0201286
3210.45	-0.0189476
3220.26	-0.0176782
3230.07	-0.0162098
3240.86	-0.0140393
3250.67	-0.0116904
3260.48	-0.00890326
3270.29	-0.00712687
3280.1	-0.00328974
3290.89	0.00181379
3300.69	0.00644209
3310.5	0.0118108
3320.31	0.0202019
3330.12	0.0298602
3340.91	0.0406969
3350.72	0.0519893
3360.53	0.0676884
3370.34	0.0854407
3380.15	0.10364
3390.94	0.124796
3400.75	0.144354
3410.56	0.165677
3420.37	0.187333
3430.18	0.219454
3440.97	0.256944
3450.78	0.28653
3460.59	0.316381
3470.4	0.343692
3480.21	0.36963
3490.01	0.394384
3500.81	0.419802
3510.61	0.442125
3520.42	0.463036
3530.23	0.482994
3540.04	0.501873
3550.83	0.521672
3560.64	0.538945
3570.45	0.55545
3580.26	0.571381
3590.07	0.586795
3600.86	0.603317
3610.67	0.617881
3620.48	0.631872
3630.29	0.645184
3640.1	0.657709
3650.89	0.670447
3660.7	0.680886
3670.51	0.690066
3680.31	0.697857
3690.12	0.704161
3700.91	0.709247
3710.72	0.712026
3720.53	0.712893
3730.34	0.711737
3740.15	0.708487
3750.94	0.702426
3760.75	0.6946
3770.56	0.684538
3780.37	0.672235
3790.18	0.657706
3800.97	0.639167
3810.78	0.620008
3820.59	0.598696
3830.4	0.57531
3840.2	0.549973
3850.01	0.522842
3860.8	0.491149
3870.61	0.460889
3880.42	0.429496
3890.23	0.397217
3900.04	0.364299
3910.83	0.327647
3920.64	0.294191
3930.45	0.26086
3940.26	0.227894
3950.07	0.195516
3960.86	0.160813
3970.67	0.13027
3980.47	0.10081
3990.28	0.0725065
4000.09	0.0453817
4010.88	0.0168758
4020.69	-0.00789601
4030.5	-0.0316692
4040.31	-0.0545449
4050.12	-0.0766328
4060.91	-0.100155
4070.72	-0.120958
4080.53	-0.141317
4090.34	-0.161327
4100.15	-0.181064
4110.94	-0.202523
4120.74	-0.221827
4130.55	-0.240929
4140.36	-0.259796
4150.17	-0.278379
4160.96	-0.298427
4170.77	-0.316234
4180.58	-0.333586
4190.39	-0.350432
4200.2	-0.366719
4210.01	-0.382391
4220.8	-0.398842
4230.61	-0.412991
4240.42	-0.426271
4250.22	-0.438569
4260.03	-0.449759
4270.82	-0.460622
4280.63	-0.469021
4290.44	-0.475852
4300.25	-0.480954
4310.06	-0.484172
4320.85	-0.485363
4330.66	-0.484177
4340.47	-0.480735
4350.28	-0.474989
4360.09	-0.466939
4370.88	-0.455483
4380.69	-0.442812
4390.5	-0.428136
4400.3	-0.411627
4410.11	-0.39348
4420.9	-0.371879
4430.71	-0.350987
4440.52	-0.329126
4450.33	-0.306511
4460.14	-0.283348
4470.93	-0.257477
4480.74	-0.233818
4490.55	-0.210231
4500.36	-0.18692
4510.17	-0.164098
4520.96	-0.139821
4530.76	-0.118744
4540.57	-0.0988378
4550.38	-0.080299
4560.19	-0.0632955
4570	-0.0479542
4580.79	-0.0330884
4590.6	-0.0214191
4600.41	-0.0114619
4610.22	-0.00311476
4620.03	0.00377258
4630.82	0.00988632
4640.63	0.0143426
4650.44	0.0179746
4660.24	0.0209947
4670.05	0.0235991
4680.84	0.0261875
4690.65	0.0284399
4700.46	0.0307033
4710.27	0.0330464
4720.08	0.0355055
4730.87	0.0383534
4740.68	0.0410545
4750.49	0.043826
4760.3	0.0466199
4770.1	0.0493808
4780.89	0.0523111
4790.7	0.0548178
4800.51	0.0571233
4810.32	0.0591851
4820.13	0.060969
4830.92	0.0625806
4840.73	0.0637102
4850.54	0.0645137
4860.35	0.0649925
4870.16	0.0651538
4880.94	0.0649784
4890.75	0.0645123
4900.56	0.0637671
4910.37	0.0627519
4920.18	0.0614715
4930.97	0.059756
4940.78	0.0579117
4950.59	0.0557874
4960.4	0.0533732
4970.2	0.0506598
4980.01	0.0476403
4990.8	0.0439621
5000.61	0.0402976
5010.42	0.0363383
5020.23	0.0321023
5030.04	0.0276155
5040.83	0.0224309
5050.63	0.0175359
5060.44	0.012517
5070.25	0.00742694
5080.06	0.0023229
5090.85	-0.0032364
5100.66	-0.00817407
5110.47	-0.0129389
5120.27	-0.0174737
5130.08	-0.0217261
5140.87	-0.0260234
5150.68	-0.0295439
5160.49	-0.0326675
5170.3	-0.035375
5180.11	-0.0376567
5190.9	-0.0396736
5200.7	-0.0410677
5210.51	-0.0420606
5220.32	-0.0426772
5230.13	-0.04295
5240.92	-0.0428996
5250.73	-0.0425834
5260.54	-0.04206
5270.35	-0.0413803
5280.15	-0.0405963
5290.94	-0.039675
5300.75	-0.0388378
5310.56	-0.0380492
5320.37	-0.0373515
5330.18	-0.0367815
5340.97	-0.0363383
5350.78	-0.0361272
5360.58	-0.0361146
5370.39	-0.0363075
5380.2	-0.0367055
5390.01	-0.0373012
5400.8	-0.0381684
5410.61	-0.0391286
5420.42	-0.0402283
5430.23	-0.041441
5440.03	-0.0427382
5450.82	-0.0442279
5460.63	-0.0456075
5470.44	-0.046982
5480.25	-0.0483245
5490.06	-0.0496103
5500.85	-0.0509325
5510.66	-0.0520297
5520.47	-0.0530105
5530.27	-0.0538623
5540.08	-0.0545763
5550.87	-0.0551961
5560.68	-0.0556075
5570.49	-0.0558757
5580.3	-0.0560057
5590.11	-0.0560046
5600.9	-0.0558635
5610.71	-0.0556203
5620.51	-0.0552811
5630.32	-0.0548599
5640.13	-0.0543718
5650.92	-0.0537765
5660.73	-0.0532002
5670.54	-0.0526078
5680.35	-0.0520165
5690.16	-0.0514437
5700.95	-0.0508554
5710.75	-0.0503773
5720.56	-0.0499706
5730.37	-0.0496515
5740.18	-0.0494362
5750.97	-0.0493372
5760.78	-0.0493886
5770.59	-0.0495887
5780.4	-0.0499501
5790.21	-0.0504843
5800.01	-0.051201
5810.8	-0.0522102
5820.61	-0.0533351
5830.42	-0.0546621
5840.23	-0.0561933
5850.04	-0.0579284
5860.83	-0.0600693
5870.64	-0.0622207
5880.45	-0.064559
5890.26	-0.0670728
5900.07	-0.0697483
5910.85	-0.0728579
5920.66	-0.0758152
5930.47	-0.0788741
5940.28	-0.0820108
5950.09	-0.0851997
5960.88	-0.0887358
5970.69	-0.0919464
5980.5	-0.095124
5990.31	-0.0982407
6000.12	-0.101269
6010.91	-0.104465
6020.72	-0.107221
6030.52	-0.109809
6040.33	-0.112206
6050.14	-0.114393
6060.93	-0.116533
6070.74	-0.118223
6080.55	-0.119655
6090.36	-0.120822
6100.17	-0.121717
6110.96	-0.122384
6120.77	-0.1227
6130.58	-0.122743
6140.39	-0.122515
6150.2	-0.122023
6160	-0.121273
6170.79	-0.120159
6180.6	-0.118893
6190.41	-0.117392
6200.22	-0.115667
6210.03	-0.113723
6220.82	-0.111342
6230.63	-0.108966
6240.44	-0.106393
6250.25	-0.103633
6260.06	-0.100691
6270.85	-0.0972555
6280.66	-0.0939588
6290.47	-0.0905066
6300.28	-0.0869087
6310.09	-0.083176
6320.88	-0.0789287
6330.69	-0.0749531
6340.49	-0.0708828
6350.3	-0.0667325
6360.11	-0.0625173
6370.9	-0.0578241
6380.71	-0.0535229
6390.52	-0.0492042
6400.33	-0.0448822
6410.14	-0.0405705
6420.93	-0.035854
6430.74	-0.031602
6440.55	-0.0273937
6450.36	-0.0232369
6460.17	-0.019138
6470.96	-0.014702
6480.77	-0.0107394
6490.58	-0.00684602
6500.39	-0.00302345
6510.2	0.000727663
6520.01	0.0044073
6530.8	0.00837297
6540.6	0.0119046
6550.41	0.0153676
6560.22	0.0187633
6570.03	0.0220933
6580.82	0.0256825
6590.63	0.0288802
6600.44	0.0320178
6610.25	0.0350971
6620.06	0.03812
6630.85	0.0413823
6640.66	0.0442928
6650.47	0.0471521
6660.28	0.0499616
6670.09	0.052722
6680.88	0.055702
6690.69	0.0583591
6700.5	0.0609652
6710.31	0.0635176
6720.12	0.0660127
6730.91	0.0686855
6740.72	0.0710438
6750.53	0.0733269
6760.33	0.0755272
6770.14	0.0776367
6780.93	0.079842
6790.74	0.0817332
6800.55	0.0835078
6810.36	0.0851582
6820.17	0.0866781
6830.96	0.0881927
6840.77	0.0894222
6850.58	0.0905088
6860.39	0.0914515
6870.2	0.0922506
6880.01	0.0929078
6890.8	0.09347
6900.61	0.0938388
6910.42	0.0940762
6920.23	0.0941861
6930.03	0.094172
6940.82	0.0940165
6950.63	0.0937496
6960.44	0.0933631
6970.25	0.0928555
6980.06	0.0922231
6990.85	0.0913772
7000.66	0.0904639
7010.47	0.0894045
7020.28	0.0881893
7030.09	0.0868083
7040.88	0.0850853
7050.69	0.083323
7060.5	0.0813649
7070.3	0.0792038
7080.11	0.0768345
7090.9	0.0739844
7100.71	0.0711716
7110.52	0.0681507
7120.33	0.0649275
7130.14	0.0615112
7140.93	0.0575447
7150.74	0.0537657
7160.55	0.0498405
7170.36	0.0457897
7180.16	0.0416367
7190.95	0.0369806
7200.76	0.0326976
7210.57	0.0283966
7220.38	0.0241079
7230.19	0.0198623
7240.98	0.0152789
7250.79	0.0112244
7260.6	0.0073076
7270.41	0.00355678
7280.22	-1.98991e-06
7290.02	-0.00334529
7300.81	-0.00675008
7310.62	-0.00957959
7320.43	-0.0121434
7330.24	-0.0144337
7340.05	-0.016447
7350.84	-0.0183428
7360.65	-0.019782
7370.46	-0.0209595
7380.27	-0.0218877
7390.08	-0.0225814
7400.87	-0.0230935
7410.67	-0.0233506
7420.48	-0.0234281
7430.29	-0.0233439
7440.1	-0.0231146
7450.89	-0.0227128
7460.7	-0.0222252
7470.51	-0.0216314
7480.32	-0.0209384
7490.13	-0.0201506
7500.92	-0.0191768
7510.73	-0.0181935
7520.54	-0.0171146
7530.34	-0.0159367
7540.15	-0.0146561
7550.94	-0.013124
7560.75	-0.0116157
7570.56	-0.00999553
7580.37	-0.00826313
7590.18	-0.00642026
7600.97	-0.00427022
7610.78	-0.00221077
7620.59	-6.04332e-05
7630.4	0.00216982
7640.21	0.00446694
7650.01	0.00681599
7660.8	0.00944015
7670.61	0.0118428
7680.42	0.0142422
7690.23	0.0166186
7700.04	0.018952
7710.83	0.021445
7720.64	0.023623
7730.45	0.0256969
7740.26	0.0276484
7750.07	0.0294605
7760.86	0.0312742
7770.67	0.0327447
7780.48	0.0340332
7790.28	0.0351302
7800.09	0.0360284
7810.88	0.0367811
7820.69	0.0372491
7830.5	0.0375112
7840.31	0.03757
7850.12	0.0374303
7860.91	0.0370556
7870.72	0.0365231
7880.53	0.0358183
7890.34	0.0349525
7900.15	0.033938
7910.94	0.0326657
7920.75	0.0313818
7930.55	0.0299912
7940.36	0.0285084
7950.17	0.0269487
7960.96	0.0251627
7970.77	0.023493
7980.58	0.0217972
7990.39	0.0200935
8000.2	0.0184012
8010.01	0.0167404
8020.8	0.0149753
8030.61	0.0134506
8040.42	0.012025
8050.23	0.0107211
8060.04	0.0095606
8070.83	0.00847445
8080.63	0.00768063
8090.44	0.00708811
8100.25	0.0067101
8110.06	0.00655607
8120.85	0.00665151
8130.66	0.00697955
8140.47	0.00753274
8150.28	0.0083016
8160.09	0.00927195
8170.88	0.0105498
8180.69	0.0118782
8190.5	0.0133387
8200.31	0.0149031
8210.11	0.0165416
8220.9	0.0183936
8230.71	0.0200903
8240.52	0.0217704
8250.33	0.023408
8260.14	0.0249803
8270.93	0.0266111
8280.74	0.0279871
8290.55	0.0292493
8300.36	0.0303897
8310.17	0.0314033
8320.96	0.0323696
8330.77	0.0331131
8340.58	0.0337299
8350.38	0.0342227
8360.19	0.0345947
8370	0.0348487
8380.79	0.0349944
8390.6	0.0350068
8400.41	0.0349051
8410.22	0.0346886
8420.03	0.0343556
8430.82	0.033852
8440.63	0.0332661
8450.44	0.0325553
8460.25	0.0317169
8470.05	0.0307487
8480.84	0.0295321
8490.65	0.0282881
8500.46	0.0269134
8510.27	0.0254101
8520.08	0.0237815
8530.87	0.0218504
8540.68	0.0199735
8550.49	0.0179871
8560.3	0.0158974
8570.11	0.0137108
8580.9	0.0112007
8590.7	0.00882963
8600.51	0.00637869
8610.32	0.00385178
8620.13	0.00125177
8630.92	-0.00169063
8640.73	-0.00443984
8650.54	-0.00726037
8660.35	-0.0101537
8670.16	-0.0131222
8680.95	-0.0164775
8690.76	-0.0196128
8700.57	-0.022832
8710.37	-0.0261375
8720.18	-0.0295308
8730.97	-0.0333655
8740.78	-0.0369431
8750.59	-0.0406052
8760.4	-0.0443472
8770.21	-0.0481622
8780.02	-0.0520417
8790.81	-0.0563705
8800.62	-0.0603473
8810.43	-0.0643479
8820.23	-0.0683553
8830.04	-0.0723509
8840.83	-0.0767082
8850.64	-0.0806121
