0	0
37.4816	0
74.9633	0
112.445	0
149.927	0
187.408	0
224.89	0
262.372	0
299.853	0
337.335	0
374.816	0
412.298	0
449.78	0
487.261	0
524.743	0
562.225	0
599.706	0
637.188	0
674.67	0
712.151	0
749.633	0
787.115	0
824.596	0
862.078	0
899.559	0
937.041	0
974.523	0
1012	0
1049.49	0
1086.97	0
1124.45	0
1161.93	0
1199.41	0
1236.89	0
1274.38	0
1311.86	0
1349.34	0
1386.82	0
1424.3	0
1461.78	0
1499.27	0
1536.75	0
1574.23	0
1611.71	9.09495e-13
1649.19	3.63798e-12
1686.67	1.18234e-11
1724.16	3.91083e-11
1761.64	1.14596e-10
1799.12	3.10138e-10
1836.6	7.86713e-10
1874.08	1.87993e-09
1911.56	4.24916e-09
1949.05	9.13678e-09
1986.53	1.87692e-08
2024.01	3.69701e-08
2061.49	7.00593e-08
2098.97	1.28097e-07
2136.45	2.26564e-07
2173.94	3.88539e-07
2211.42	6.47425e-07
2248.9	1.05029e-06
2286.38	1.66184e-06
2323.86	2.56919e-06
2361.34	3.88756e-06
2398.82	5.76729e-06
2436.31	8.40305e-06
2473.79	1.20463e-05
2511.27	1.7023e-05
2548.75	2.37597e-05
2586.23	3.2822e-05
2623.71	4.49704e-05
2661.19	6.1241e-05
2698.68	8.30589e-05
2736.16	0.000112393
2773.64	0.000151965
2811.12	0.000205511
2848.6	0.000278126
2886.08	0.000376665
2923.56	0.00051023
2961.04	0.000690719
2998.52	0.000933429
3036	0.00125769
3073.49	0.0016875
3110.97	0.00225211
3148.45	0.00298652
3185.93	0.00393183
3223.41	0.00513535
3260.89	0.00665044
3298.37	0.00853605
3335.85	0.0108558
3373.33	0.0136767
3410.81	0.0170674
3448.29	0.0210959
3485.77	0.0258272
3523.25	0.0313201
3560.73	0.0376242
3598.21	0.0447764
3635.69	0.0527977
3673.17	0.0616899
3710.65	0.0714328
3748.13	0.0819817
3785.61	0.0932659
3823.09	0.105187
3860.57	0.11762
3898.06	0.130413
3935.54	0.14339
3973.02	0.156352
4010.5	0.169084
4047.98	0.181355
4085.46	0.19293
4122.94	0.203568
4160.42	0.213036
4197.91	0.22111
4235.39	0.227582
4272.87	0.23227
4310.35	0.235018
4347.83	0.235705
4385.31	0.234246
4422.8	0.230596
4460.28	0.224751
4497.76	0.216749
4535.24	0.206668
4572.72	0.194625
4610.2	0.180774
4647.69	0.165298
4685.17	0.148409
4722.65	0.130341
4760.13	0.111342
4797.61	0.091673
4835.09	0.0715957
4872.57	0.0513717
4910.06	0.0312548
4947.54	0.0114865
4985.02	-0.00770877
5022.5	-0.0261271
5059.98	-0.043588
5097.46	-0.0599371
5134.95	-0.075047
5172.43	-0.0888182
5209.91	-0.101179
5247.39	-0.112084
5284.87	-0.121514
5322.35	-0.129475
5359.84	-0.135991
5397.32	-0.141107
5434.8	-0.144886
5472.28	-0.147401
5509.76	-0.148737
5547.24	-0.148988
5584.72	-0.148252
5622.21	-0.146629
5659.69	-0.144222
5697.17	-0.14113
5734.65	-0.137451
5772.13	-0.133278
5809.61	-0.128698
5847.1	-0.123792
5884.58	-0.118635
5922.06	-0.113296
5959.54	-0.107834
5997.02	-0.102304
6034.5	-0.0967517
6071.99	-0.0912185
6109.47	-0.0857387
6146.95	-0.0803411
6184.43	-0.0750497
6221.91	-0.0698839
6259.39	-0.0648589
6296.87	-0.0599865
6334.36	-0.0552754
6371.84	-0.0507315
6409.32	-0.0463585
6446.8	-0.0421581
6484.28	-0.0381304
6521.76	-0.0342738
6559.25	-0.030586
6596.73	-0.0270634
6634.21	-0.0237018
6671.69	-0.020496
6709.17	-0.0174409
6746.65	-0.0145305
6784.13	-0.0117588
6821.62	-0.00911983
6859.1	-0.00660729
6896.58	-0.00421521
6934.06	-0.00193776
6971.54	0.000230566
7009.02	0.00229489
7046.51	0.00425984
7083.99	0.00612948
7121.47	0.00790725
7158.95	0.00959591
7196.43	0.0111975
7233.91	0.0127134
7271.4	0.0141441
7308.88	0.0154895
7346.36	0.0167487
7383.84	0.0179203
7421.32	0.0190022
7458.8	0.0199919
7496.29	0.0208864
7533.77	0.0216824
7571.25	0.0223764
7608.73	0.022965
7646.21	0.0234446
7683.69	0.0238118
7721.18	0.0240638
7758.66	0.0241976
7796.14	0.0242113
7833.62	0.0241033
7871.1	0.0238725
7908.58	0.023519
7946.06	0.0230432
7983.55	0.0224467
8021.03	0.0217319
8058.51	0.0209018
8095.99	0.0199606
8133.47	0.0189132
8170.95	0.0177652
8208.43	0.0165231
8245.92	0.0151941
8283.4	0.0137859
8320.88	0.0123067
8358.36	0.0107654
8395.84	0.00917104
8433.32	0.00753293
8470.8	0.00586063
8508.29	0.00416375
8545.77	0.00245184
8583.25	0.000734379
8620.73	-0.000979379
8658.21	-0.00268045
8695.69	-0.00436022
8733.18	-0.00601048
8770.66	-0.00762351
8808.14	-0.0091921
8845.62	-0.0107096
8883.1	-0.0121701
8920.58	-0.013568
8958.06	-0.0148986
8995.55	-0.0161579
9033.03	-0.0173422
9070.51	-0.0184487
9107.99	-0.0194752
9145.47	-0.0204199
9182.95	-0.0212818
9220.43	-0.0220603
9257.92	-0.0227553
9295.4	-0.0233671
9332.88	-0.0238965
9370.36	-0.0243446
9407.84	-0.0247129
9445.32	-0.0250032
9482.81	-0.0252174
9520.29	-0.0253578
9557.77	-0.0254266
9595.25	-0.0254264
9632.73	-0.0253598
9670.21	-0.0252294
9707.69	-0.0250378
9745.18	-0.0247878
9782.66	-0.024482
9820.14	-0.0241231
9857.62	-0.0237136
9895.1	-0.0232561
9932.58	-0.022753
9970.07	-0.0222068
10007.5	-0.0216197
10045	-0.020994
10082.5	-0.0203318
10120	-0.0196353
10157.5	-0.0189064
10195	-0.018147
10232.4	-0.0173592
10269.9	-0.0165446
10307.4	-0.0157053
10344.9	-0.0148428
10382.4	-0.013959
10419.8	-0.0130557
10457.3	-0.0121346
10494.8	-0.0111975
10532.3	-0.0102462
10569.8	-0.00928245
10607.3	-0.00830822
10644.7	-0.00732539
10682.2	-0.00633589
10719.7	-0.00534175
10757.2	-0.00434503
10794.7	-0.00334785
10832.1	-0.00235239
10869.6	-0.0013609
10907.1	-0.000375652
10944.6	0.000600995
10982.1	0.00156666
11019.6	0.0025189
11057	0.00345527
11094.5	0.00437327
11132	0.0052704
11169.5	0.00614416
11207	0.00699204
11244.4	0.00781156
11281.9	0.00860026
11319.4	0.00935573
11356.9	0.0100756
11394.4	0.0107576
11431.8	0.0113995
11469.3	0.0119992
11506.8	0.0125547
11544.3	0.013064
11581.8	0.0135255
11619.3	0.0139374
11656.7	0.0142984
11694.2	0.014607
11731.7	0.0148622
11769.2	0.015063
11806.7	0.0152086
11844.1	0.0152984
11881.6	0.0153319
11919.1	0.0153091
11956.6	0.0152298
11994.1	0.0150943
12031.6	0.014903
12069	0.0146564
12106.5	0.0143554
12144	0.014001
12181.5	0.0135943
12219	0.0131367
12256.4	0.0126298
12293.9	0.0120753
12331.4	0.0114751
12368.9	0.0108313
12406.4	0.010146
12443.9	0.0094216
12481.3	0.00866058
12518.8	0.00786551
12556.3	0.0070391
12593.8	0.00618413
12631.3	0.00530348
12668.7	0.00440008
12706.2	0.00347693
12743.7	0.00253708
12781.2	0.0015836
12818.7	0.000619571
12856.2	-0.000351904
12893.6	-0.00132774
12931.1	-0.00230488
12968.6	-0.00328028
13006.1	-0.00425097
13043.6	-0.00521401
13081	-0.00616655
13118.5	-0.00710581
13156	-0.00802911
13193.5	-0.00893387
13231	-0.00981761
13268.4	-0.010678
13305.9	-0.0115127
13343.4	-0.0123198
13380.9	-0.0130973
13418.4	-0.0138433
13455.9	-0.0145563
13493.3	-0.0152346
13530.8	-0.0158771
13568.3	-0.0164825
13605.8	-0.0170499
13643.3	-0.0175783
13680.7	-0.0180672
13718.2	-0.018516
13755.7	-0.0189244
13793.2	-0.0192922
13830.7	-0.0196193
13868.2	-0.019906
13905.6	-0.0201524
13943.1	-0.020359
13980.6	-0.0205264
14018.1	-0.0206552
14055.6	-0.0207462
14093	-0.0208005
14130.5	-0.020819
14168	-0.0208028
14205.5	-0.0207532
14243	-0.0206716
14280.5	-0.0205593
14317.9	-0.0204177
14355.4	-0.0202484
14392.9	-0.020053
14430.4	-0.0198331
14467.9	-0.0195903
14505.3	-0.0193262
14542.8	-0.0190427
14580.3	-0.0187412
14617.8	-0.0184237
14655.3	-0.0180916
14692.8	-0.0177468
14730.2	-0.0173908
14767.7	-0.0170252
14805.2	-0.0166517
14842.7	-0.0162719
14880.2	-0.0158871
14917.6	-0.0154988
14955.1	-0.0151085
14992.6	-0.0147175
15030.1	-0.0143271
15067.6	-0.0139384
15105	-0.0135527
15142.5	-0.0131709
15180	-0.0127941
15217.5	-0.0124232
15255	-0.0120589
15292.5	-0.0117022
15329.9	-0.0113536
15367.4	-0.0110137
15404.9	-0.010683
15442.4	-0.0103619
15479.9	-0.0100509
15517.3	-0.00975001
15554.8	-0.00945953
15592.3	-0.00917953
15629.8	-0.00890999
15667.3	-0.00865085
15704.8	-0.00840196
15742.2	-0.00816308
15779.7	-0.00793392
15817.2	-0.00771411
15854.7	-0.00750324
15892.2	-0.00730082
15929.6	-0.00710631
15967.1	-0.00691913
16004.6	-0.00673864
16042.1	-0.00656418
16079.6	-0.00639506
16117.1	-0.00623056
16154.5	-0.00606994
16192	-0.00591245
16229.5	-0.00575736
16267	-0.00560391
16304.5	-0.00545137
16341.9	-0.00529905
16379.4	-0.00514624
16416.9	-0.00499231
16454.4	-0.00483664
16491.9	-0.00467867
16529.4	-0.00451791
16566.8	-0.0043539
16604.3	-0.00418626
16641.8	-0.00401469
16679.3	-0.00383894
16716.8	-0.00365886
16754.2	-0.00347437
16791.7	-0.00328546
16829.2	-0.00309224
16866.7	-0.00289486
16904.2	-0.00269357
16941.6	-0.00248871
16979.1	-0.00228068
17016.6	-0.00206998
17054.1	-0.00185714
17091.6	-0.00164279
17129.1	-0.00142761
17166.5	-0.00121232
17204	-0.000997706
17241.5	-0.000784576
17279	-0.000573773
17316.5	-0.00036616
17353.9	-0.000162611
17391.4	3.59972e-05
17428.9	0.000228795
17466.4	0.000414928
17503.9	0.00059357
17541.4	0.000763927
17578.8	0.000925251
17616.3	0.00107684
17653.8	0.00121807
17691.3	0.00134836
17728.8	0.00146721
17766.2	0.00157421
17803.7	0.00166904
17841.2	0.00175144
17878.7	0.00182127
17916.2	0.00187848
17953.7	0.0019231
17991.1	0.00195529
18028.6	0.00197528
18066.1	0.0019834
18103.6	0.00198008
18141.1	0.00196584
18178.5	0.00194128
18216	0.00190708
18253.5	0.00186401
18291	0.00181288
18328.5	0.00175459
18366	0.00169009
18403.4	0.00162035
18440.9	0.00154642
18478.4	0.00146933
18515.9	0.00139017
18553.4	0.00131002
18590.8	0.00122997
18628.3	0.00115109
18665.8	0.00107444
18703.3	0.00100108
18740.8	0.000931984
18778.2	0.000868132
18815.7	0.000810433
18853.2	0.000759746
18890.7	0.000716868
18928.2	0.000682526
18965.7	0.00065738
19003.1	0.000642008
19040.6	0.000636913
19078.1	0.000642512
19115.6	0.000659138
19153.1	0.000687038
19190.5	0.000726375
19228	0.000777223
19265.5	0.000839572
19303	0.000913328
19340.5	0.000998317
19378	0.00109429
19415.4	0.00120091
19452.9	0.00131778
19490.4	0.00144445
19527.9	0.00158038
19565.4	0.00172498
19602.8	0.00187764
19640.3	0.00203766
19677.8	0.00220433
19715.3	0.0023769
19752.8	0.00255459
19790.3	0.0027366
19827.7	0.00292212
19865.2	0.00311032
19902.7	0.00330038
19940.2	0.00349146
19977.7	0.00368276
