0	0
14.6651	0
29.3302	0
43.9953	0
58.6604	0
73.3255	0
87.9906	0
102.656	0
117.321	0
131.986	0
146.651	0
161.316	0
175.981	0
190.646	0
205.311	0
219.977	0
234.642	0
249.307	0
263.972	0
278.637	0
293.302	0
307.967	0
322.632	0
337.297	0
351.963	0
366.628	0
381.293	0
395.958	0
410.623	0
425.288	0
439.953	0
454.618	0
469.283	0
483.949	0
498.614	0
513.279	0
527.944	0
542.609	0
557.274	0
571.939	0
586.604	0
601.269	0
615.934	0
630.6	0
645.265	0
659.93	0
674.595	0
689.26	0
703.925	0
718.59	0
733.255	0
747.92	0
762.586	0
777.251	0
791.916	0
806.581	0
821.246	0
835.911	0
850.576	0
865.241	0
879.906	0
894.572	0
909.237	0
923.902	0
938.567	0
953.232	0
967.897	0
982.562	0
997.227	0
1011.89	0
1026.56	0
1041.22	0
1055.89	0
1070.55	0
1085.22	0
1099.88	0
1114.55	0
1129.21	0
1143.88	0
1158.54	0
1173.21	0
1187.87	0
1202.54	0
1217.2	0
1231.87	0
1246.53	0
1261.2	0
1275.86	0
1290.53	0
1305.19	0
1319.86	0
1334.52	0
1349.19	0
1363.85	0
1378.52	0
1393.19	0
1407.85	0
1422.52	0
1437.18	0
1451.85	0
1466.51	0
1481.18	0
1495.84	0
1510.51	0
1525.17	0
1539.84	0
1554.5	0
1569.17	0
1583.83	0
1598.5	0
1613.16	0
1627.83	0
1642.49	0
1657.16	0
1671.82	0
1686.49	0
1701.15	0
1715.82	0
1730.48	0
1745.15	0
1759.81	0
1774.48	0
1789.14	0
1803.81	0
1818.47	0
1833.14	0
1847.8	0
1862.47	0
1877.13	0
1891.8	0
1906.46	0
1921.13	0
1935.79	0
1950.46	0
1965.12	0
1979.79	0
1994.45	0
2009.12	0
2023.78	0
2038.45	0
2053.11	0
2067.78	0
2082.45	0
2097.11	0
2111.78	0
2126.44	0
2141.11	0
2155.77	0
2170.44	0
2185.1	0
2199.77	0
2214.43	0
2229.1	0
2243.76	0
2258.43	0
2273.09	0
2287.76	0
2302.42	0
2317.09	1.81899e-12
2331.75	3.63798e-12
2346.42	6.36646e-12
2361.08	1.18234e-11
2375.75	2.09184e-11
2390.41	3.63798e-11
2405.08	6.18456e-11
2419.74	1.03682e-10
2434.41	1.71894e-10
2449.07	2.81943e-10
2463.74	4.54747e-10
2478.4	7.24867e-10
2493.07	1.14233e-09
2507.73	1.77624e-09
2522.4	2.73212e-09
2537.06	4.15366e-09
2551.73	6.2455e-09
2566.39	9.28958e-09
2581.06	1.36724e-08
2595.72	1.99188e-08
2610.39	2.87273e-08
2625.05	4.10264e-08
2639.72	5.80312e-08
2654.38	8.13188e-08
2669.05	1.12915e-07
2683.71	1.55389e-07
2698.38	2.1198e-07
2713.04	2.86722e-07
2727.71	3.84597e-07
2742.37	5.11694e-07
2757.04	6.75394e-07
2771.7	8.84561e-07
2786.37	1.14974e-06
2801.03	1.48337e-06
2815.7	1.9e-06
2830.36	2.41651e-06
2845.03	3.05229e-06
2859.69	3.82948e-06
2874.36	4.77312e-06
2889.02	5.91131e-06
2903.69	7.27535e-06
2918.35	8.89985e-06
2933.02	1.08228e-05
2947.68	1.30855e-05
2962.35	1.57327e-05
2977.01	1.88124e-05
2991.68	2.2376e-05
3006.34	2.64777e-05
3021	3.11749e-05
3035.67	3.65276e-05
3050.33	4.25982e-05
3065	4.94516e-05
3079.66	5.71548e-05
3094.33	6.57765e-05
3108.99	7.53871e-05
3123.66	8.60587e-05
3138.32	9.78648e-05
3152.99	0.00011088
3167.65	0.000125182
3182.32	0.000140848
3196.98	0.000157958
3211.64	0.000176598
3226.31	0.000196852
3240.97	0.000218814
3255.64	0.000242581
3270.3	0.000268259
3284.97	0.000295967
3299.63	0.000325833
3314.3	0.000358007
3328.96	0.000392661
3343.62	0.000429995
3358.29	0.000470244
3372.95	0.000513693
3387.62	0.000560679
3402.28	0.000611613
3416.95	0.000666991
3431.61	0.000727416
3446.28	0.000793618
3460.94	0.000866487
3475.6	0.000947099
3490.27	0.00103675
3504.93	0.00113702
3519.6	0.00124978
3534.26	0.00137728
3548.93	0.00152221
3563.59	0.00168774
3578.25	0.00187763
3592.92	0.00209627
3607.58	0.0023488
3622.25	0.00264121
3636.91	0.00298037
3651.58	0.00337421
3666.24	0.00383177
3680.91	0.00436331
3695.57	0.00498042
3710.23	0.00569608
3724.9	0.00652477
3739.56	0.00748252
3754.23	0.00858697
3768.89	0.00985738
3783.56	0.0113147
3798.22	0.0129814
3812.89	0.0148816
3827.55	0.0170409
3842.22	0.0194862
3856.88	0.0222457
3871.54	0.0253483
3886.21	0.0288238
3900.87	0.0327024
3915.54	0.0370144
3930.2	0.0417894
3944.87	0.0470566
3959.53	0.0528437
3974.2	0.0591767
3988.86	0.0660792
4003.53	0.0735721
4018.19	0.0816726
4032.86	0.090394
4047.52	0.0997451
4062.19	0.109729
4076.85	0.120345
4091.52	0.131584
4106.18	0.143431
4120.85	0.155865
4135.51	0.168856
4150.18	0.18237
4164.84	0.196362
4179.51	0.210782
4194.17	0.22557
4208.84	0.24066
4223.5	0.255981
4238.17	0.271453
4252.83	0.28699
4267.5	0.302503
4282.16	0.317895
4296.83	0.333067
4311.49	0.347918
4326.16	0.362342
4340.82	0.376234
4355.49	0.389489
4370.15	0.402001
4384.82	0.41367
4399.48	0.424394
4414.15	0.434078
4428.81	0.442634
4443.48	0.449976
4458.14	0.456028
4472.81	0.460721
4487.47	0.463994
4502.14	0.465796
4516.8	0.466087
4531.47	0.464835
4546.13	0.46202
4560.8	0.457632
4575.46	0.451673
4590.13	0.444156
4604.79	0.435104
4619.46	0.42455
4634.12	0.412539
4648.79	0.399125
4663.45	0.384369
4678.12	0.368346
4692.78	0.351133
4707.45	0.332817
4722.11	0.313492
4736.78	0.293256
4751.44	0.272212
4766.11	0.250468
4780.77	0.228132
4795.44	0.205317
4810.1	0.182134
4824.77	0.158697
4839.43	0.135116
4854.1	0.111502
4868.76	0.0879632
4883.43	0.064603
4898.09	0.0415225
4912.76	0.0188177
4927.42	-0.00342027
4942.09	-0.0251057
4956.75	-0.046159
4971.42	-0.0665068
4986.08	-0.0860825
5000.75	-0.104826
5015.41	-0.122685
5030.08	-0.139613
5044.74	-0.155572
5059.41	-0.17053
5074.08	-0.184462
5088.74	-0.197352
5103.41	-0.209188
5118.07	-0.219965
5132.74	-0.229685
5147.4	-0.238357
5162.07	-0.245993
5176.73	-0.252612
5191.4	-0.258236
5206.06	-0.262895
5220.73	-0.266619
5235.39	-0.269445
5250.06	-0.27141
5264.72	-0.272556
5279.39	-0.272927
5294.05	-0.272568
5308.72	-0.271527
5323.38	-0.269851
5338.05	-0.267591
5352.71	-0.264795
5367.38	-0.261513
5382.04	-0.257794
5396.71	-0.253686
5411.37	-0.249238
5426.04	-0.244496
5440.7	-0.239506
5455.37	-0.23431
5470.03	-0.228951
5484.7	-0.223469
5499.36	-0.217901
5514.03	-0.212283
5528.69	-0.206649
5543.36	-0.201029
5558.02	-0.195452
5572.69	-0.189943
5587.35	-0.184527
5602.02	-0.179225
5616.68	-0.174054
5631.35	-0.169031
5646.01	-0.16417
5660.68	-0.159482
5675.34	-0.154977
5690.01	-0.15066
5704.67	-0.146538
5719.34	-0.142612
5734	-0.138885
5748.67	-0.135354
5763.33	-0.132019
5778	-0.128874
5792.66	-0.125915
5807.33	-0.123135
5821.99	-0.120527
5836.66	-0.118082
5851.32	-0.115791
5865.99	-0.113643
5880.65	-0.111628
5895.32	-0.109735
5909.98	-0.107952
5924.65	-0.106267
5939.31	-0.104669
5953.98	-0.103145
5968.64	-0.101685
5983.31	-0.100276
5997.97	-0.0989073
6012.64	-0.097568
6027.3	-0.0962476
6041.97	-0.0949362
6056.63	-0.0936246
6071.3	-0.092304
6085.96	-0.0909663
6100.63	-0.0896044
6115.29	-0.0882116
6129.96	-0.0867822
6144.62	-0.0853111
6159.29	-0.0837942
6173.95	-0.0822281
6188.62	-0.0806101
6203.28	-0.0789384
6217.95	-0.077212
6232.61	-0.0754307
6247.28	-0.0735948
6261.94	-0.0717056
6276.61	-0.0697647
6291.27	-0.0677747
6305.94	-0.0657386
6320.6	-0.0636599
6335.27	-0.0615428
6349.93	-0.0593916
6364.6	-0.0572113
6379.26	-0.0550072
6393.93	-0.0527847
6408.59	-0.0505498
6423.26	-0.0483083
6437.92	-0.0460663
6452.59	-0.0438301
6467.25	-0.0416058
6481.92	-0.0393997
6496.58	-0.0372178
6511.25	-0.0350663
6525.91	-0.032951
6540.58	-0.0308776
6555.24	-0.0288515
6569.91	-0.0268778
6584.57	-0.0249615
6599.24	-0.0231071
6613.9	-0.0213187
6628.57	-0.0196001
6643.23	-0.0179546
6657.9	-0.0163852
6672.56	-0.0148943
6687.23	-0.0134839
6701.9	-0.0121556
6716.56	-0.0109105
6731.23	-0.00974903
6745.89	-0.00867142
6760.56	-0.00767727
6775.22	-0.00676574
6789.89	-0.00593552
6804.55	-0.00518488
6819.22	-0.00451163
6833.88	-0.00391316
6848.55	-0.00338647
6863.21	-0.00292819
6877.88	-0.00253457
6892.54	-0.00220155
6907.21	-0.00192475
6921.87	-0.00169954
6936.54	-0.00152102
6951.2	-0.00138407
6965.87	-0.0012834
6980.53	-0.00121357
6995.2	-0.00116899
7009.86	-0.00114403
7024.53	-0.00113295
7039.19	-0.00113004
7053.86	-0.00112956
7068.52	-0.00112585
7083.19	-0.00111329
7097.85	-0.0010864
7112.52	-0.00103981
7127.18	-0.000968343
7141.85	-0.000866989
7156.51	-0.000730976
7171.18	-0.000555773
7185.84	-0.000337121
7200.51	-7.10487e-05
7215.17	0.000246102
7229.84	0.00061766
7244.5	0.00104661
7259.17	0.00153558
7273.83	0.00208682
7288.5	0.00270221
7303.16	0.00338324
7317.83	0.00413101
7332.49	0.0049462
7347.16	0.00582913
7361.82	0.00677972
7376.49	0.00779747
7391.15	0.00888152
7405.82	0.0100306
7420.48	0.0112432
7435.15	0.0125173
7449.81	0.0138505
7464.48	0.0152403
7479.14	0.0166838
7493.81	0.0181776
7508.47	0.0197183
7523.14	0.0213021
7537.8	0.0229251
7552.47	0.024583
7567.13	0.0262716
7581.8	0.0279861
7596.46	0.0297221
7611.13	0.0314747
7625.79	0.0332391
7640.46	0.0350103
7655.12	0.0367834
7669.79	0.0385534
7684.45	0.0403153
7699.12	0.0420643
7713.78	0.0437955
7728.45	0.045504
7743.11	0.0471852
7757.78	0.0488344
7772.44	0.0504473
7787.11	0.0520195
7801.77	0.0535469
7816.44	0.0550256
7831.1	0.0564517
7845.77	0.0578217
7860.43	0.0591323
7875.1	0.0603802
7889.76	0.0615627
7904.43	0.0626769
7919.09	0.0637205
7933.76	0.0646911
7948.42	0.0655868
7963.09	0.0664059
7977.75	0.0671468
7992.42	0.0678081
8007.08	0.0683889
8021.75	0.0688882
8036.41	0.0693054
8051.08	0.06964
8065.74	0.0698917
8080.41	0.0700606
8095.07	0.0701466
8109.74	0.07015
8124.4	0.0700713
8139.07	0.0699111
8153.73	0.06967
8168.4	0.069349
8183.06	0.0689489
8197.73	0.0684709
8212.39	0.0679161
8227.06	0.0672858
8241.72	0.0665814
8256.39	0.0658042
8271.05	0.0649558
8285.72	0.0640377
8300.38	0.0630514
8315.05	0.0619988
8329.71	0.0608813
8344.38	0.0597008
8359.04	0.058459
8373.71	0.0571577
8388.37	0.0557986
8403.04	0.0543837
8417.7	0.0529147
8432.37	0.0513935
8447.03	0.049822
8461.7	0.0482021
8476.36	0.0465357
8491.03	0.0448247
8505.69	0.0430711
8520.36	0.0412768
8535.02	0.0394439
8549.69	0.0375743
8564.35	0.03567
8579.02	0.0337332
8593.69	0.0317659
8608.35	0.0297703
8623.02	0.0277484
8637.68	0.0257024
8652.35	0.0236346
8667.01	0.0215471
8681.68	0.0194423
8696.34	0.0173225
8711.01	0.01519
8725.67	0.0130471
8740.34	0.0108962
8755	0.00873991
8769.67	0.00658055
8784.33	0.00442064
8799	0.0022627
8813.66	0.000109258
8828.33	-0.00203713
8842.99	-0.0041739
8857.66	-0.00629849
8872.32	-0.00840831
8886.99	-0.0105008
8901.65	-0.0125734
8916.32	-0.0146235
8930.98	-0.0166487
8945.65	-0.0186464
8960.31	-0.0206142
8974.98	-0.0225496
8989.64	-0.0244503
9004.31	-0.0263139
9018.97	-0.0281383
9033.64	-0.0299212
9048.3	-0.0316605
9062.97	-0.0333543
9077.63	-0.0350006
9092.3	-0.0365977
9106.96	-0.0381437
9121.63	-0.0396371
9136.29	-0.0410764
9150.96	-0.0424604
9165.62	-0.0437877
9180.29	-0.0450573
9194.95	-0.0462682
9209.62	-0.0474196
9224.28	-0.0485108
9238.95	-0.0495414
9253.61	-0.050511
9268.28	-0.0514192
9282.94	-0.052266
9297.61	-0.0530516
9312.27	-0.053776
9326.94	-0.0544396
9341.6	-0.0550429
9356.27	-0.0555866
9370.93	-0.0560713
9385.6	-0.0564979
9400.26	-0.0568675
9414.93	-0.0571811
9429.59	-0.0574399
9444.26	-0.0576453
9458.92	-0.0577986
9473.59	-0.0579014
9488.25	-0.0579553
9502.92	-0.0579619
9517.59	-0.0579229
9532.25	-0.0578402
9546.92	-0.0577154
9561.58	-0.0575506
9576.25	-0.0573475
9590.91	-0.0571081
9605.58	-0.0568344
9620.24	-0.0565283
9634.91	-0.0561917
9649.57	-0.0558266
9664.24	-0.0554349
9678.9	-0.0550184
9693.57	-0.0545792
9708.23	-0.054119
9722.9	-0.0536396
9737.56	-0.0531428
9752.23	-0.0526303
9766.89	-0.0521038
9781.56	-0.0515649
9796.22	-0.0510151
9810.89	-0.0504559
9825.55	-0.0498887
9840.22	-0.049315
9854.88	-0.0487359
9869.55	-0.0481527
9884.21	-0.0475665
9898.88	-0.0469785
9913.54	-0.0463895
9928.21	-0.0458007
9942.87	-0.0452128
9957.54	-0.0446266
9972.2	-0.0440429
9986.87	-0.0434624
10001.5	-0.0428856
10016.2	-0.0423132
10030.9	-0.0417456
10045.5	-0.0411833
10060.2	-0.0406266
10074.9	-0.0400759
10089.5	-0.0395315
10104.2	-0.0389937
10118.9	-0.0384625
10133.5	-0.0379383
10148.2	-0.0374211
10162.8	-0.0369111
10177.5	-0.0364082
10192.2	-0.0359126
10206.8	-0.0354242
10221.5	-0.034943
10236.2	-0.034469
10250.8	-0.0340021
10265.5	-0.0335423
10280.2	-0.0330894
10294.8	-0.0326432
10309.5	-0.0322038
10324.2	-0.031771
10338.8	-0.0313445
10353.5	-0.0309242
10368.2	-0.03051
10382.8	-0.0301015
10397.5	-0.0296988
10412.2	-0.0293014
10426.8	-0.0289092
10441.5	-0.028522
10456.2	-0.0281394
10470.8	-0.0277613
10485.5	-0.0273874
10500.1	-0.0270173
10514.8	-0.0266509
10529.5	-0.0262877
10544.1	-0.0259276
10558.8	-0.02557
10573.5	-0.0252148
10588.1	-0.0248616
10602.8	-0.0245099
10617.5	-0.0241595
10632.1	-0.0238099
10646.8	-0.0234607
10661.5	-0.0231115
10676.1	-0.022762
10690.8	-0.0224116
10705.5	-0.0220599
10720.1	-0.0217064
10734.8	-0.0213508
10749.5	-0.0209925
10764.1	-0.0206309
10778.8	-0.0202658
10793.4	-0.0198964
10808.1	-0.0195225
10822.8	-0.0191433
10837.4	-0.0187585
10852.1	-0.0183675
10866.8	-0.0179699
10881.4	-0.017565
10896.1	-0.0171525
10910.8	-0.0167319
10925.4	-0.0163026
10940.1	-0.0158643
10954.8	-0.0154164
10969.4	-0.0149585
10984.1	-0.0144902
10998.8	-0.0140112
11013.4	-0.013521
11028.1	-0.0130192
11042.8	-0.0125056
11057.4	-0.0119799
11072.1	-0.0114418
11086.7	-0.010891
11101.4	-0.0103274
11116.1	-0.00975073
11130.7	-0.00916095
11145.4	-0.00855794
11160.1	-0.00794164
11174.7	-0.00731205
11189.4	-0.00666919
11204.1	-0.00601314
11218.7	-0.00534401
11233.4	-0.00466196
11248.1	-0.00396719
11262.7	-0.00325994
11277.4	-0.0025405
11292.1	-0.0018092
11306.7	-0.00106642
11321.4	-0.000312557
11336.1	0.000451923
11350.7	0.00122653
11365.4	0.00201074
11380	0.00280398
11394.7	0.00360566
11409.4	0.00441514
11424	0.00523176
11438.7	0.00605484
11453.4	0.00688365
11468	0.00771747
11482.7	0.00855553
11497.4	0.00939706
11512	0.0102413
11526.7	0.0110874
11541.4	0.0119345
11556	0.012782
11570.7	0.0136289
11585.4	0.0144744
11600	0.0153177
11614.7	0.016158
11629.4	0.0169945
11644	0.0178265
11658.7	0.0186531
11673.4	0.0194735
11688	0.0202872
11702.7	0.0210933
11717.3	0.0218911
11732	0.02268
11746.7	0.0234594
11761.3	0.0242286
11776	0.024987
11790.7	0.0257342
11805.3	0.0264695
11820	0.0271925
11834.7	0.0279028
11849.3	0.0285999
11864	0.0292834
11878.7	0.0299529
11893.3	0.0306082
11908	0.031249
11922.7	0.0318749
11937.3	0.0324857
11952	0.0330813
11966.7	0.0336614
11981.3	0.0342259
11996	0.0347746
