%%MatrixMarket matrix array real general
20 20
.5000000000
0.
0.
0.
0.
0.
0.
0.
0.
0.
0.
0.
0.
0.
0.
0.
0.
0.
0.
0.
0.
.5000000000
0.
0.
0.
0.
0.
0.
0.
0.
0.
0.
0.
0.
0.
0.
0.
0.
0.
0.
0.
0.
.5000000000
0.
0.
0.
0.
0.
0.
0.
0.
0.
0.
0.
0.
0.
0.
0.
0.
0.
0.
0.
0.
.5000000000
0.
0.
0.
0.
0.
0.
0.
0.
0.
0.
0.
0.
0.
0.
0.
0.
0.
0.
0.
0.
-.5000000000
0.
0.
0.
0.
0.
.5000000000
0.
0.
0.
0.
0.
0.
0.
0.
0.
0.
0.
0.
0.
0.
-.5000000000
0.
0.
0.
0.
0.
.5000000000
0.
0.
0.
0.
0.
0.
0.
0.
0.
0.
0.
0.
0.
0.
-.5000000000
0.
0.
0.
0.
0.
.5000000000
0.
0.
0.
0.
0.
0.
0.
0.
0.
0.
0.
0.
0.
0.
.5000000000
0.
0.
0.
0.
0.
-.4082482906
0.
0.
.5000000000
0.
0.
0.
0.
0.
0.
0.
0.
0.
0.
0.
.5000000000
0.
0.
0.
0.
0.
-.4082482906
0.
0.
.5000000000
0.
0.
0.
0.
0.
0.
0.
0.
0.
0.
0.
-.5000000000
0.
0.
0.
0.
0.
.3872983346
0.
0.
-.3872983346
.5000000000
1.224744872
0.
0.
0.
-.5000000000
0.
0.
0.
0.
0.
-.5000000000
0.
0.
0.
0.
0.
0.
0.
0.
0.
0.
1.224744872
0.
0.
0.
-.5000000000
0.
0.
0.
0.
0.
-.5000000000
0.
0.
0.
0.
0.
0.
0.
0.
0.
0.
1.224744872
0.
0.
0.
-.5000000000
0.
0.
0.
0.
0.
-.5000000000
0.
0.
0.
0.
0.
0.
0.
0.
0.
0.
0.
-1.936491673
0.
0.
1.224744872
0.
0.
1.936491673
0.
0.
0.
0.
0.
-1.224744872
0.
0.
0.
0.
0.
0.
0.
0.
-1.936491673
0.
0.
1.224744872
0.
0.
1.936491673
0.
0.
0.
0.
0.
-1.224744872
0.
0.
0.
0.
0.
0.
0.
0.
0.
2.645751311
0.
-1.936491673
0.
0.
0.
-2.160246899
0.
.5000000000
2.645751311
0.
.5000000000
-1.936491673
1.936491673
0.
0.
0.
-1.581138830
0.
0.
.5000000000
0.
0.
-1.581138830
0.
0.
.4082482906
0.
0.
.5000000000
0.
0.
0.
0.
1.936491673
0.
0.
0.
-1.581138830
0.
0.
.5000000000
0.
0.
-1.581138830
0.
0.
.4082482906
0.
0.
.5000000000
0.
0.
0.
0.
0.
0.
-4.183300132
0.
0.
5.291502622
0.
-1.936491673
4.183300132
0.
0.
0.
0.
-.5000000000
-5.291502622
0.
.5000000000
1.936491673
2.645751311
0.
0.
0.
-3.240370350
0.
0.
2.049390154
0.
-.5000000000
-3.240370350
0.
0.
1.673320053
0.
-.3872983346
2.049390154
0.
-.3872983346
-.5000000000
