%%MatrixMarket matrix array real general
20 4
-.6050149664e-1
-.7275878641e-2
-.6521815710e-3
-.5357858524e-4
-.1028964625e-1
-.1237427527e-2
-.1109182092e-3
-.1129611617e-2
-.1358465079e-3
-.1071571705e-3
-.1379081491
-.1658476255e-1
-.1486593859e-2
-.3708465643e-1
-.4459781576e-2
-.5562324896e-2
-.2029121820
-.2440211387e-1
-.7454968932e-1
-.2579821713
-.1134259259
-.1364054309e-1
-.1222685433e-2
-.1004471126e-3
-.9168839524e-1
-.110263988e-1
-.9883636770e-3
-.4784216114e-1
-.5753473514e-2
-.2157101540e-1
-.1861472469
-.2238597139e-1
-.2006591748e-2
-.2379187449
-.2861198511e-1
-.1696127377
-.1971947192
-.2371453477e-1
-.3443504935
-.1805083621
-.1134259259
-.1364054309e-1
-.1222685433e-2
-.1004471126e-3
-.1861472469
-.2238597139e-1
-.2006591748e-2
-.1971947192
-.2371453477e-1
-.1805083621
-.9168839524e-1
-.110263988e-1
-.9883636770e-3
-.2379187449
-.2861198511e-1
-.3443504935
-.4784216114e-1
-.5753473514e-2
-.1696127377
-.2157101540e-1
-.6050149664e-1
-.7275878641e-2
-.6521815710e-3
-.5357858524e-4
-.1379081491
-.1658476255e-1
-.1486593859e-2
-.2029121820
-.2440211387e-1
-.2579821713
-.1028964625e-1
-.1237427527e-2
-.1109182092e-3
-.3708465643e-1
-.4459781576e-2
-.7454968932e-1
-.1129611617e-2
-.1358465079e-3
-.5562324896e-2
-.1071571705e-3
