%%MatrixMarket matrix array real general
20 13
.2115239854
0.
0.
0.
.1727086110
0.
0.
.9102543031e-1
0.
.4145480460e-1
.1727086110
0.
0.
.2229658579
0.
.1605537679
.9102543031e-1
0.
.1605537679
.4145480460e-1
-.2483574787
0.
0.
0.
-.1583812334
0.
0.
-.6519654444e-1
0.
-.2319043083e-1
-.2915866302
0.
0.
-.2940113453
0.
-.1653553812
-.2209796851
0.
-.3044263349
-.1447106438
-.2483574787
0.
0.
0.
-.1583812334
0.
0.
-.6519654444e-1
0.
-.2319043083e-1
-.1583812334
0.
0.
-.1596982669
0.
-.8981615242e-1
-.6519654444e-1
0.
-.8981615242e-1
-.2319043083e-1
-.2483574787
0.
0.
0.
-.2915866302
0.
0.
-.2209796851
0.
-.1447106438
-.1583812334
0.
0.
-.2940113453
0.
-.3044263349
-.6519654444e-1
0.
-.1653553812
-.2319043083e-1
-.7544438409e-1
0.
0.
0.
-.1203605898e-1
0.
0.
-.1239470160e-2
0.
-.1102938321e-3
-.1607281271
0.
0.
-.4054331706e-1
0.
-.5704327255e-2
-.2210300030
0.
-.7617492052e-1
-.2626479148
-.7544438409e-1
0.
0.
0.
-.1203605898e-1
0.
0.
-.1239470160e-2
0.
-.1102938321e-3
-.1203605898e-1
0.
0.
-.3036069443e-2
0.
-.4271661750e-3
-.1239470160e-2
0.
-.4271661750e-3
-.1102938321e-3
-.7544438409e-1
0.
0.
0.
-.1607281271
0.
0.
-.2210300030
0.
-.2626479148
-.1203605898e-1
0.
0.
-.4054331706e-1
0.
-.7617492052e-1
-.1239470160e-2
0.
-.5704327255e-2
-.1102938321e-3
-.1090553265
0.
0.
0.
-.8357572982e-1
0.
0.
-.4134355830e-1
0.
-.1767253736e-1
-.1300663927e-1
0.
0.
-.1576044208e-1
0.
-.1065195826e-1
-.1001331061e-2
0.
-.1657732202e-2
-.6661218231e-4
-.1090553265
0.
0.
0.
-.1705475346
0.
0.
-.1721624317
0.
-.1501739875
-.8357572982e-1
0.
0.
-.2066563455
0.
-.2850198285
-.4134355830e-1
0.
-.1396721461
-.1767253736e-1
-.1090553265
0.
0.
0.
-.1300663927e-1
0.
0.
-.1001331061e-2
0.
-.6661218231e-4
-.1705475346
0.
0.
-.3216130505e-1
0.
-.3382825861e-2
-.1721624317
0.
-.4435677800e-1
-.1501739875
-.1090553265
0.
0.
0.
-.1300663927e-1
0.
0.
-.1001331061e-2
0.
-.6661218231e-4
-.8357572982e-1
0.
0.
-.1576044208e-1
0.
-.1657732202e-2
-.4134355830e-1
0.
-.1065195826e-1
-.1767253736e-1
-.1090553265
0.
0.
0.
-.8357572982e-1
0.
0.
-.4134355830e-1
0.
-.1767253736e-1
-.1705475346
0.
0.
-.2066563455
0.
-.1396721461
-.1721624317
0.
-.2850198285
-.1501739875
-.1090553265
0.
0.
0.
-.1705475346
0.
0.
-.1721624317
0.
-.1501739875
-.1300663927e-1
0.
0.
-.3216130505e-1
0.
-.4435677800e-1
-.1001331061e-2
0.
-.3382825861e-2
-.6661218231e-4
