0	0
29.6453	0
59.2907	0
88.936	0
118.581	0
148.227	0
177.872	0
207.517	0
237.163	0
266.808	0
296.453	0
326.099	0
355.744	0
385.389	0
415.035	0
444.68	4.54747e-11
474.325	7.48514e-10
503.971	6.39375e-09
533.616	3.88127e-08
563.261	1.84225e-07
592.907	7.26617e-07
622.552	2.48017e-06
652.197	7.50079e-06
681.843	2.0412e-05
711.488	5.0612e-05
741.133	0.000115677
770.779	0.000246409
800.424	0.000494243
830.069	0.000941995
859.715	0.00171899
889.36	0.00302102
919.005	0.00513429
948.651	0.00846044
978.296	0.0135379
1007.94	0.0210532
1037.59	0.0318359
1067.23	0.0468318
1096.88	0.0670525
1126.52	0.0935022
1156.17	0.127085
1185.81	0.168502
1215.46	0.218148
1245.1	0.276013
1274.75	0.341608
1304.39	0.413911
1334.04	0.491355
1363.69	0.571848
1393.33	0.652835
1422.98	0.731399
1452.62	0.804397
1482.27	0.868618
1511.91	0.92096
1541.56	0.958611
1571.2	0.979218
1600.85	0.981038
1630.49	0.963048
1660.14	0.925019
1689.78	0.867539
1719.43	0.79198
1749.07	0.700428
1778.72	0.595564
1808.37	0.480522
1838.01	0.358721
1867.66	0.233692
1897.3	0.108917
1926.95	-0.0123279
1956.59	-0.127097
1986.24	-0.232874
2015.88	-0.327639
2045.53	-0.409906
2075.17	-0.478727
2104.82	-0.533671
2134.46	-0.574787
2164.11	-0.602542
2193.75	-0.617753
2223.4	-0.621518
2253.05	-0.615132
2282.69	-0.600024
2312.34	-0.577682
2341.98	-0.5496
2371.63	-0.517224
2401.27	-0.481911
2430.92	-0.444902
2460.56	-0.4073
2490.21	-0.370055
2519.85	-0.333962
2549.5	-0.299658
2579.14	-0.267633
2608.79	-0.238236
2638.43	-0.211692
2668.08	-0.18811
2697.73	-0.167506
2727.37	-0.149814
2757.02	-0.134901
2786.66	-0.122587
2816.31	-0.11265
2845.95	-0.104847
2875.6	-0.098919
2905.24	-0.0946002
2934.89	-0.0916285
2964.53	-0.0897494
2994.18	-0.0887213
3023.82	-0.0883191
3053.47	-0.0883368
3083.11	-0.0885889
3112.76	-0.0889116
3142.4	-0.0891628
3172.05	-0.0892226
3201.69	-0.0889917
3231.34	-0.0883914
3260.98	-0.0873621
3290.63	-0.0858621
3320.27	-0.0838661
3349.92	-0.0813636
3379.56	-0.0783572
3409.2	-0.0748614
3438.85	-0.0709005
3468.49	-0.066507
3498.14	-0.0617202
3527.78	-0.0565847
3557.43	-0.0511487
3587.07	-0.0454629
3616.72	-0.0395792
3646.36	-0.0335494
3676	-0.0274246
3705.65	-0.0212539
3735.29	-0.0150839
3764.94	-0.0089579
3794.58	-0.00291586
3824.23	0.00300644
3853.87	0.00877736
3883.52	0.0143696
3913.16	0.01976
3942.8	0.02493
3972.45	0.0298646
4002.09	0.034553
4031.74	0.0389877
4061.38	0.0431645
4091.03	0.047082
4120.67	0.0507411
4150.32	0.0541449
4179.96	0.0572978
4209.61	0.0602057
4239.25	0.0628753
4268.9	0.0653137
4298.54	0.0675282
4328.19	0.0695259
4357.83	0.0713137
4387.48	0.0728978
4417.12	0.0742837
4446.77	0.0754759
4476.41	0.0764781
4506.06	0.077293
4535.7	0.0779222
4565.35	0.0783665
4594.99	0.0786258
4624.64	0.0786992
4654.28	0.0785852
4683.93	0.078282
4713.57	0.0777873
4743.22	0.0770988
4772.86	0.0762144
4802.51	0.0751322
4832.15	0.0738508
4861.8	0.0723694
4891.45	0.0706881
4921.09	0.068808
4950.74	0.0667313
4980.38	0.0644614
5010.03	0.062003
5039.67	0.059362
5069.32	0.056546
5098.96	0.0535638
5128.61	0.0504254
5158.25	0.0471424
5187.9	0.0437275
5217.54	0.0401943
5247.19	0.0365577
5276.83	0.0328333
5306.48	0.0290372
5336.12	0.0251864
5365.77	0.0212978
5395.41	0.0173888
5425.06	0.0134764
5454.7	0.00957758
5484.35	0.00570886
5513.99	0.00188614
5543.64	-0.00187545
5573.28	-0.00556165
5602.93	-0.00915923
5632.57	-0.0126561
5662.22	-0.0160414
5691.86	-0.0193055
5721.51	-0.0224401
5751.15	-0.0254383
5780.8	-0.0282946
5810.45	-0.0310047
5840.09	-0.0335656
5869.74	-0.0359755
5899.38	-0.0382339
5929.03	-0.0403413
5958.67	-0.0422991
5988.32	-0.0441098
6017.96	-0.0457764
6047.61	-0.0473027
6077.25	-0.0486931
6106.9	-0.0499523
6136.54	-0.0510855
6166.19	-0.0520981
6195.83	-0.0529956
6225.48	-0.0537835
6255.12	-0.0544674
6284.77	-0.0550528
6314.41	-0.055545
6344.06	-0.055949
6373.7	-0.0562698
6403.35	-0.0565118
6432.99	-0.0566795
6462.64	-0.0567767
6492.29	-0.056807
6521.93	-0.0567737
6551.58	-0.0566798
6581.22	-0.0565277
6610.87	-0.0563198
6640.51	-0.0560581
6670.16	-0.055744
6699.8	-0.055379
6729.45	-0.0549642
6759.09	-0.0545004
6788.74	-0.0539882
6818.38	-0.053428
6848.03	-0.0528201
6877.67	-0.0521647
6907.32	-0.0514616
6936.97	-0.0507108
6966.61	-0.0499122
6996.26	-0.0490655
7025.9	-0.0481706
7055.55	-0.0472273
7085.19	-0.0462355
7114.84	-0.0451952
7144.48	-0.0441065
7174.13	-0.0429696
7203.77	-0.0417849
7233.42	-0.040553
7263.06	-0.0392745
7292.71	-0.0379505
7322.35	-0.0365821
7352	-0.0351709
7381.64	-0.0337184
7411.29	-0.0322267
7440.94	-0.0306978
7470.58	-0.0291342
7500.23	-0.0275387
7529.87	-0.025914
7559.52	-0.0242634
7589.16	-0.0225902
7618.81	-0.0208979
7648.45	-0.0191901
7678.1	-0.0174708
7707.74	-0.0157438
7737.39	-0.0140132
7767.03	-0.0122831
7796.68	-0.0105577
7826.32	-0.00884109
7855.97	-0.0071375
7885.61	-0.00545101
7915.26	-0.00378568
7944.91	-0.0021455
7974.55	-0.00053432
8004.2	0.0010441
8033.84	0.00258614
8063.49	0.00408835
8093.13	0.00554744
8122.78	0.00696027
8152.42	0.00832392
8182.07	0.00963563
8211.71	0.0108928
8241.36	0.0120932
8271	0.0132344
8300.65	0.0143147
8330.29	0.0153321
8359.94	0.016285
8389.58	0.0171721
8419.23	0.0179921
8448.88	0.0187438
8478.52	0.0194265
8508.17	0.0200395
8537.81	0.020582
8567.46	0.0210539
8597.1	0.0214548
8626.75	0.0217847
8656.39	0.0220438
8686.04	0.0222323
8715.68	0.0223507
8745.33	0.0223996
8774.97	0.0223798
8804.62	0.0222923
8834.26	0.0221382
8863.91	0.0219189
8893.55	0.0216358
8923.2	0.0212906
8952.85	0.0208853
8982.49	0.0204218
9012.14	0.0199024
9041.78	0.0193295
9071.43	0.0187055
9101.07	0.0180334
9130.72	0.0173158
9160.36	0.016556
9190.01	0.0157569
9219.65	0.0149219
9249.3	0.0140543
9278.94	0.0131577
9308.59	0.0122354
9338.23	0.0112911
9367.88	0.0103284
9397.52	0.00935085
9427.17	0.00836197
9456.81	0.00736528
9486.46	0.00636422
9516.11	0.0053621
9545.75	0.00436213
9575.4	0.00336737
9605.04	0.0023807
9634.69	0.00140482
9664.33	0.000442198
9693.98	-0.000504891
9723.62	-0.00143444
9753.27	-0.00234467
9782.91	-0.00323409
9812.56	-0.00410146
9842.2	-0.00494582
9871.85	-0.00576647
9901.49	-0.006563
9931.14	-0.00733523
9960.78	-0.00808327
9990.43	-0.00880744
10020.1	-0.0095083
10049.7	-0.0101866
10079.4	-0.0108434
10109	-0.0114797
10138.7	-0.0120968
10168.3	-0.0126961
10197.9	-0.0132791
10227.6	-0.0138474
10257.2	-0.0144026
10286.9	-0.0149462
10316.5	-0.0154799
10346.2	-0.0160053
10375.8	-0.0165238
10405.5	-0.017037
10435.1	-0.0175462
10464.8	-0.0180525
10494.4	-0.0185572
10524	-0.019061
10553.7	-0.0195649
10583.3	-0.0200694
10613	-0.020575
10642.6	-0.0210819
10672.3	-0.0215903
10701.9	-0.0221
10731.6	-0.0226107
10761.2	-0.0231221
10790.9	-0.0236335
10820.5	-0.0241441
10850.1	-0.0246531
10879.8	-0.0251594
10909.4	-0.0256618
10939.1	-0.0261591
10968.7	-0.0266498
10998.4	-0.0271327
11028	-0.027606
11057.7	-0.0280684
11087.3	-0.0285182
11117	-0.0289538
11146.6	-0.0293736
11176.2	-0.029776
11205.9	-0.0301594
11235.5	-0.0305223
11265.2	-0.0308632
11294.8	-0.0311807
11324.5	-0.0314735
11354.1	-0.0317402
11383.8	-0.0319797
11413.4	-0.0321911
11443	-0.0323732
11472.7	-0.0325252
11502.3	-0.0326466
11532	-0.0327366
11561.6	-0.0327949
11591.3	-0.032821
11620.9	-0.0328149
11650.6	-0.0327766
11680.2	-0.0327061
11709.9	-0.0326036
11739.5	-0.0324697
11769.1	-0.0323047
11798.8	-0.0321095
11828.4	-0.0318847
11858.1	-0.0316313
11887.7	-0.0313503
11917.4	-0.0310428
11947	-0.0307102
11976.7	-0.0303537
12006.3	-0.0299748
12036	-0.029575
12065.6	-0.0291558
12095.2	-0.0287189
12124.9	-0.0282659
12154.5	-0.0277986
12184.2	-0.0273185
12213.8	-0.0268275
12243.5	-0.0263273
12273.1	-0.0258196
12302.8	-0.025306
12332.4	-0.0247883
12362.1	-0.0242679
12391.7	-0.0237465
12421.3	-0.0232255
12451	-0.0227064
12480.6	-0.0221905
12510.3	-0.0216791
12539.9	-0.0211733
12569.6	-0.0206742
12599.2	-0.0201828
12628.9	-0.0196999
12658.5	-0.0192264
12688.2	-0.0187629
12717.8	-0.01831
12747.4	-0.0178683
12777.1	-0.017438
12806.7	-0.0170195
12836.4	-0.0166129
12866	-0.0162185
12895.7	-0.0158362
12925.3	-0.015466
12955	-0.0151079
12984.6	-0.0147615
13014.3	-0.0144268
13043.9	-0.0141035
13073.5	-0.0137912
13103.2	-0.0134896
13132.8	-0.0131984
13162.5	-0.0129171
13192.1	-0.0126454
13221.8	-0.0123828
13251.4	-0.012129
13281.1	-0.0118835
13310.7	-0.011646
13340.4	-0.011416
13370	-0.0111931
13399.6	-0.0109771
13429.3	-0.0107675
13458.9	-0.010564
13488.6	-0.0103664
13518.2	-0.0101743
13547.9	-0.0099874
13577.5	-0.00980552
13607.2	-0.00962839
13636.8	-0.00945577
13666.4	-0.00928746
13696.1	-0.00912325
13725.7	-0.00896294
13755.4	-0.00880635
13785	-0.00865328
13814.7	-0.00850355
13844.3	-0.00835699
13874	-0.00821341
13903.6	-0.00807263
13933.3	-0.00793445
13962.9	-0.00779869
13992.5	-0.00766514
14022.2	-0.0075336
14051.8	-0.00740385
14081.5	-0.00727565
14111.1	-0.00714877
14140.8	-0.00702296
14170.4	-0.00689796
14200.1	-0.00677348
14229.7	-0.00664925
14259.4	-0.00652495
14289	-0.00640027
14318.6	-0.00627489
14348.3	-0.00614845
14377.9	-0.00602061
14407.6	-0.005891
14437.2	-0.00575924
14466.9	-0.00562494
14496.5	-0.0054877
14526.2	-0.00534712
14555.8	-0.00520279
14585.5	-0.00505429
14615.1	-0.0049012
14644.7	-0.0047431
14674.4	-0.00457956
14704	-0.00441017
14733.7	-0.00423451
14763.3	-0.00405217
14793	-0.00386275
14822.6	-0.00366585
14852.3	-0.00346109
14881.9	-0.00324811
14911.6	-0.00302654
14941.2	-0.00279605
14970.8	-0.00255631
15000.5	-0.00230704
15030.1	-0.00204794
15059.8	-0.00177875
15089.4	-0.00149925
15119.1	-0.00120922
15148.7	-0.000908483
15178.4	-0.000596869
15208	-0.000274252
15237.7	5.94703e-05
15267.3	0.000404371
15296.9	0.000760491
15326.6	0.00112784
15356.2	0.0015064
15385.9	0.00189611
15415.5	0.00229687
15445.2	0.00270857
15474.8	0.00313102
15504.5	0.00356404
15534.1	0.00400737
15563.7	0.00446071
15593.4	0.00492375
15623	0.0053961
15652.7	0.00587734
15682.3	0.00636699
15712	0.00686452
15741.6	0.00736937
15771.3	0.00788091
15800.9	0.00839843
15830.6	0.00892122
15860.2	0.00944847
15889.8	0.00997932
15919.5	0.0105129
15949.1	0.0110481
15978.8	0.0115841
16008.4	0.0121197
16038.1	0.0126537
16067.7	0.013185
16097.4	0.0137123
16127	0.0142343
16156.7	0.0147497
16186.3	0.0152571
16215.9	0.0157551
16245.6	0.0162421
16275.2	0.0167168
16304.9	0.0171776
16334.5	0.017623
16364.2	0.0180515
16393.8	0.0184616
16423.5	0.0188517
16453.1	0.0192205
16482.8	0.0195664
16512.4	0.019888
16542	0.020184
16571.7	0.0204531
16601.3	0.0206941
16631	0.0209058
16660.6	0.0210873
16690.3	0.0212375
16719.9	0.0213556
16749.6	0.0214409
16779.2	0.021493
16808.9	0.0215112
16838.5	0.0214954
16868.1	0.0214455
16897.8	0.0213613
16927.4	0.0212432
16957.1	0.0210914
16986.7	0.0209066
17016.4	0.0206893
17046	0.0204403
17075.7	0.0201608
17105.3	0.0198518
17135	0.0195147
17164.6	0.0191509
17194.2	0.0187621
17223.9	0.0183498
17253.5	0.0179161
17283.2	0.0174627
17312.8	0.0169918
17342.5	0.0165055
17372.1	0.0160059
17401.8	0.0154953
17431.4	0.0149759
17461	0.0144501
17490.7	0.0139201
17520.3	0.0133882
17550	0.0128566
17579.6	0.0123276
17609.3	0.0118033
17638.9	0.0112857
17668.6	0.0107769
17698.2	0.0102786
17727.9	0.00979267
17757.5	0.00932073
17787.1	0.00886424
17816.8	0.00842456
17846.4	0.00800286
17876.1	0.00760017
17905.7	0.00721734
17935.4	0.00685507
17965	0.00651387
17994.7	0.00619409
18024.3	0.00589588
18054	0.00561926
18083.6	0.00536406
18113.2	0.00512995
18142.9	0.00491645
18172.5	0.00472294
18202.2	0.00454865
18231.8	0.00439269
18261.5	0.00425404
18291.1	0.00413158
18320.8	0.00402409
18350.4	0.00393028
18380.1	0.00384877
18409.7	0.00377814
18439.3	0.00371692
18469	0.00366359
18498.6	0.00361664
18528.3	0.00357454
18557.9	0.00353576
18587.6	0.00349881
18617.2	0.00346221
18646.9	0.00342454
18676.5	0.00338442
18706.2	0.00334053
18735.8	0.00329163
18765.4	0.00323655
18795.1	0.00317421
18824.7	0.00310362
18854.4	0.0030239
18884	0.00293425
18913.7	0.00283399
18943.3	0.00272255
18973	0.00259945
19002.6	0.00246433
19032.3	0.00231696
19061.9	0.00215719
19091.5	0.00198499
19121.2	0.00180043
19150.8	0.00160369
19180.5	0.00139505
19210.1	0.00117487
19239.8	0.0009436
19269.4	0.000701792
19299.1	0.000450061
19328.7	0.000189097
19358.3	-8.03435e-05
19388	-0.000357443
19417.6	-0.000641331
19447.3	-0.000931092
19476.9	-0.00122577
19506.6	-0.00152438
19536.2	-0.00182589
19565.9	-0.00212929
19595.5	-0.00243352
19625.2	-0.00273752
19654.8	-0.00304024
19684.4	-0.00334063
19714.1	-0.00363765
19743.7	-0.00393028
19773.4	-0.00421751
19803	-0.00449838
19832.7	-0.00477195
19862.3	-0.00503729
19892	-0.00529356
19921.6	-0.00553991
19951.3	-0.00577558
19980.9	-0.00599983
