0	0
18.6583	0
27.9875	0
37.3166	0
46.6458	0
55.975	0
65.3041	0
74.6333	0
83.9624	0
93.2916	0
102.621	0
111.95	0
121.279	0
130.608	0
149.267	0
158.596	0
167.925	0
177.254	0
186.583	0
195.912	0
205.242	0
214.571	0
223.9	0
233.229	0
242.558	0
251.887	0
261.216	0
270.546	0
289.204	0
298.533	0
307.862	0
317.191	0
326.521	0
335.85	0
345.179	0
354.508	0
363.837	0
373.166	0
382.496	0
391.825	0
401.154	0
410.483	0
429.141	0
438.471	0
447.8	0
457.129	0
466.458	0
475.787	0
485.116	0
494.446	0
503.775	0
513.104	0
522.433	0
531.762	0
541.091	0
550.42	0
569.079	0
578.408	0
587.737	0
597.066	0
606.395	0
615.725	0
625.054	0
634.383	0
643.712	0
653.041	0
662.37	0
671.7	0
681.029	0
690.358	0
709.016	0
718.345	0
727.675	0
737.004	0
746.333	0
755.662	0
764.991	0
774.32	0
783.649	0
792.979	0
802.308	0
811.637	0
820.966	0
830.295	0
848.954	0
858.283	0
867.612	0
876.941	0
886.27	0
895.599	0
904.929	0
914.258	0
923.587	0
932.916	0
942.245	0
951.574	0
960.904	0
970.233	0
988.891	0
998.22	0
1007.55	0
1016.88	0
1026.21	0
1035.54	0
1044.87	0
1054.2	0
1063.52	0
1072.85	0
1082.18	0
1091.51	0
1100.84	0
1110.17	0
1128.83	0
1138.16	0
1147.49	0
1156.82	0
1166.15	0
1175.47	0
1184.8	0
1194.13	0
1203.46	0
1212.79	0
1222.12	0
1231.45	0
1240.78	0
1250.11	0
1268.77	0
1278.09	0
1287.42	0
1296.75	0
1306.08	0
1315.41	0
1324.74	0
1334.07	0
1343.4	0
1352.73	0
1362.06	0
1371.39	0
1380.72	0
1390.04	0
1408.7	0
1418.03	0
1427.36	0
1436.69	0
1446.02	0
1455.35	0
1464.68	0
1474.01	0
1483.34	0
1492.67	0
1501.99	0
1511.32	0
1520.65	0
1539.31	0
1548.64	0
1557.97	0
1567.3	0
1576.63	0
1585.96	0
1595.29	0
1604.62	0
1613.94	0
1623.27	0
1632.6	0
1641.93	0
1651.26	0
1660.59	0
1679.25	0
1688.58	0
1697.91	0
1707.24	0
1716.57	0
1725.89	0
1735.22	0
1744.55	0
1753.88	0
1763.21	0
1772.54	0
1781.87	0
1791.2	0
1800.53	-9.09495e-13
1819.19	-1.81899e-12
1828.52	-3.63798e-12
1837.84	-6.36646e-12
1847.17	-1.09139e-11
1856.5	-1.72804e-11
1865.83	-2.72848e-11
1875.16	-4.27463e-11
1884.49	-6.54836e-11
1893.82	-1.00954e-10
1903.15	-1.53705e-10
1912.48	-2.32831e-10
1921.81	-3.50155e-10
1931.14	-5.23869e-10
1940.47	-7.76708e-10
1959.12	-1.67347e-09
1968.45	-2.43108e-09
1977.78	-3.50792e-09
1987.11	-5.02769e-09
1996.44	-7.16045e-09
2005.77	-1.01327e-08
2015.1	-1.42481e-08
2024.43	-1.99125e-08
2033.76	-2.76586e-08
2043.09	-3.81906e-08
2052.42	-5.24224e-08
2061.74	-7.15418e-08
2071.07	-9.70813e-08
2080.4	-1.31002e-07
2099.06	-2.34644e-07
2108.39	-3.11514e-07
2117.72	-4.11397e-07
2127.05	-5.40504e-07
2136.38	-7.06519e-07
2145.71	-9.18905e-07
2155.04	-1.18925e-06
2164.37	-1.53167e-06
2173.69	-1.96326e-06
2183.02	-2.50463e-06
2192.35	-3.18048e-06
2201.68	-4.0203e-06
2211.01	-5.05904e-06
2220.34	-6.33803e-06
2239	-9.81898e-06
2248.33	-1.21437e-05
2257.66	-1.49562e-05
2266.99	-1.83447e-05
2276.32	-2.241e-05
2285.64	-2.72674e-05
2294.97	-3.30476e-05
2304.3	-3.98985e-05
2313.63	-4.79866e-05
2322.96	-5.74981e-05
2332.29	-6.86409e-05
2341.62	-8.16454e-05
2350.95	-9.67661e-05
2360.28	-0.000114283
2378.94	-0.000157757
2388.27	-0.000184409
2397.59	-0.000214848
2406.92	-0.000249493
2416.25	-0.000288791
2425.58	-0.000333219
2434.91	-0.00038328
2444.24	-0.000439504
2453.57	-0.000502448
2462.9	-0.000572689
2472.23	-0.000650829
2481.56	-0.000737484
2490.89	-0.000833288
2500.22	-0.000938887
2518.87	-0.00118208
2528.2	-0.00132097
2537.53	-0.00147227
2546.86	-0.00163659
2556.19	-0.00181455
2565.52	-0.00200673
2574.85	-0.00221368
2584.18	-0.00243592
2593.51	-0.0026739
2602.84	-0.00292802
2612.16	-0.00319862
2621.49	-0.00348598
2630.82	-0.00379026
2640.15	-0.00411157
2658.81	-0.00480513
2668.14	-0.00517703
2677.47	-0.00556524
2686.8	-0.00596926
2696.13	-0.00638844
2705.46	-0.00682199
2714.79	-0.00726894
2724.11	-0.00772815
2733.44	-0.00819829
2742.77	-0.00867783
2752.1	-0.00916505
2761.43	-0.009658
2770.76	-0.0101545
2780.09	-0.0106522
2798.75	-0.01164
2808.08	-0.0121241
2817.41	-0.0125971
2826.74	-0.0130553
2836.06	-0.0134947
2845.39	-0.0139108
2854.72	-0.014299
2864.05	-0.0146544
2873.38	-0.0149715
2882.71	-0.0152448
2892.04	-0.0154683
2901.37	-0.0156357
2910.7	-0.0157402
2920.03	-0.015775
2938.69	-0.0156055
2948.01	-0.0153857
2957.34	-0.0150648
2966.67	-0.0146343
2976	-0.0140855
2985.33	-0.0134091
2994.66	-0.012596
3003.99	-0.0116366
3013.32	-0.0105214
3022.65	-0.00924041
3031.98	-0.00778393
3041.31	-0.00614206
3050.63	-0.00430492
3069.29	-5.79678e-06
3078.62	0.00247535
3087.95	0.00518997
3097.28	0.008147
3106.61	0.011355
3115.94	0.0148221
3125.27	0.018556
3134.6	0.0225635
3143.93	0.0268512
3153.26	0.0314247
3162.58	0.0362889
3171.91	0.0414477
3181.24	0.0469043
3190.57	0.0526607
3209.23	0.0650763
3218.56	0.0717342
3227.89	0.0786893
3237.22	0.085938
3246.55	0.0934754
3255.87	0.101295
3265.2	0.10939
3274.53	0.117751
3283.86	0.126367
3293.19	0.135227
3302.52	0.144319
3311.85	0.153627
3321.18	0.163136
3330.51	0.172829
3349.17	0.192694
3358.49	0.202825
3367.82	0.21306
3377.15	0.223377
3386.48	0.233751
3395.81	0.244158
3405.14	0.254573
3414.47	0.264969
3423.8	0.275319
3433.13	0.285596
3442.46	0.295773
3451.78	0.305821
3461.11	0.315711
3470.44	0.325416
3489.1	0.344153
3498.43	0.353128
3507.76	0.361805
3517.09	0.370155
3526.42	0.378151
3535.74	0.385768
3545.07	0.392978
3554.4	0.399758
3563.73	0.406084
3573.06	0.411933
3582.39	0.417283
3591.72	0.422114
3601.05	0.426407
3610.38	0.430143
3629.03	0.435885
3638.36	0.437861
3647.69	0.439226
3657.02	0.439969
3666.35	0.440081
3675.68	0.439557
3685.01	0.438392
3694.34	0.436583
3703.66	0.434128
3712.99	0.431028
3722.32	0.427287
3731.65	0.422907
3740.98	0.417896
3750.31	0.412261
3768.97	0.399158
3778.3	0.391714
3787.62	0.383694
3796.95	0.375114
3806.28	0.365991
3815.61	0.356345
3824.94	0.346195
3834.27	0.335563
3843.6	0.324471
3852.93	0.312944
3862.25	0.301007
3871.58	0.288684
3880.91	0.276004
3890.24	0.262993
3908.9	0.236093
3918.23	0.222262
3927.56	0.208218
3936.88	0.193989
3946.21	0.179606
3955.54	0.1651
3964.87	0.150502
3974.2	0.135841
3983.53	0.121149
3992.86	0.106456
4002.19	0.0917924
4011.51	0.0771868
4020.84	0.0626689
4030.17	0.0482675
4048.83	0.019926
4058.16	0.00604013
4067.49	-0.00762103
4076.82	-0.0210324
4086.14	-0.0341697
4095.47	-0.04701
4104.8	-0.0595309
4114.13	-0.0717115
4123.46	-0.0835318
4132.79	-0.0949731
4142.12	-0.106018
4151.45	-0.11665
4160.78	-0.126854
4170.1	-0.136616
4188.76	-0.154768
4198.09	-0.163137
4207.42	-0.171022
4216.75	-0.178418
4226.08	-0.185318
4235.41	-0.191719
4244.74	-0.197617
4254.06	-0.203011
4263.39	-0.207901
4272.72	-0.212288
4282.05	-0.216175
4291.38	-0.219566
4300.71	-0.222464
4310.04	-0.224878
4328.7	-0.228279
4338.02	-0.229284
4347.35	-0.22984
4356.68	-0.229958
4366.01	-0.22965
4375.34	-0.22893
4384.67	-0.227811
4394	-0.226308
4403.33	-0.224437
4412.66	-0.222214
4421.99	-0.219655
4431.32	-0.216777
4440.64	-0.213598
4459.3	-0.206405
4468.63	-0.202429
4477.96	-0.198223
4487.29	-0.193805
4496.62	-0.189195
4505.95	-0.18441
4515.28	-0.179469
4524.61	-0.17439
4533.94	-0.16919
4543.26	-0.163886
4552.59	-0.158497
4561.92	-0.153038
4571.25	-0.147526
4580.58	-0.141977
4599.24	-0.130829
4608.57	-0.125258
4617.9	-0.119709
4627.23	-0.114194
4636.56	-0.108725
4645.89	-0.103315
4655.21	-0.0979746
4664.54	-0.0927145
4673.87	-0.0875443
4683.2	-0.0824735
4692.53	-0.0775103
4701.86	-0.0726628
4711.19	-0.067938
4720.52	-0.0633425
4739.18	-0.0545622
4748.51	-0.0503871
4757.84	-0.0463611
4767.16	-0.0424873
4776.49	-0.0387688
4785.82	-0.0352077
4795.15	-0.0318057
4804.48	-0.0285641
4813.81	-0.0254835
4823.14	-0.0225643
4832.47	-0.0198062
4841.8	-0.0172086
4851.13	-0.0147704
4860.46	-0.0124903
4879.11	-0.00839701
4888.44	-0.00657929
4897.77	-0.00491075
4907.1	-0.00338844
4916.43	-0.00200923
4925.76	-0.000769728
4935.09	0.000333615
4944.42	0.00130453
4953.75	0.0021469
4963.08	0.00286472
4972.4	0.00346211
4981.73	0.00394327
4991.06	0.00431248
5000.39	0.00457407
5019.05	0.00479188
5028.38	0.0047569
5037.71	0.00463186
5047.04	0.00442113
5056.37	0.00412907
5065.7	0.00375998
5075.03	0.00331811
5084.35	0.00280767
5093.68	0.00223276
5103.01	0.00159745
5112.34	0.000905675
5121.67	0.000161317
5131	-0.000631857
5140.33	-0.00147018
5158.99	-0.00326813
5168.32	-0.00422098
5177.65	-0.00520539
5186.97	-0.00621827
5196.3	-0.00725662
5205.63	-0.00831757
5214.96	-0.00939836
5224.29	-0.0104964
5233.62	-0.011609
5242.95	-0.012734
5252.28	-0.0138689
5261.61	-0.0150116
5270.94	-0.0161599
5280.27	-0.017312
5298.92	-0.0196199
5308.25	-0.0207722
5317.58	-0.0219213
5326.91	-0.0230656
5336.24	-0.0242037
5345.57	-0.0253343
5354.9	-0.0264561
5364.23	-0.0275679
5373.56	-0.0286684
5382.89	-0.0297568
5392.22	-0.0308318
5401.54	-0.0318927
5410.87	-0.0329384
5420.2	-0.0339681
5438.86	-0.0359763
5448.19	-0.0369533
5457.52	-0.0379113
5466.85	-0.0388497
5476.18	-0.0397677
5485.51	-0.0406649
5494.84	-0.0415407
5504.17	-0.0423945
5513.49	-0.0432258
5522.82	-0.0440343
5532.15	-0.0448193
5541.48	-0.0455805
5550.81	-0.0463175
5560.14	-0.0470299
5578.8	-0.0483796
5588.13	-0.0490162
5597.46	-0.0496269
5606.79	-0.0502115
5616.11	-0.0507698
5625.44	-0.0513014
5634.77	-0.0518062
5644.1	-0.0522841
5653.43	-0.0527349
5662.76	-0.0531584
5672.09	-0.0535545
5681.42	-0.0539232
5690.75	-0.0542645
5700.08	-0.0545782
5718.74	-0.0551229
5728.06	-0.0553541
5737.39	-0.0555577
5746.72	-0.0557341
5756.05	-0.0558832
5765.38	-0.0560051
5774.71	-0.0561001
5784.04	-0.0561682
5793.37	-0.0562098
5802.7	-0.0562249
5812.03	-0.0562138
5821.36	-0.0561769
5830.69	-0.0561142
5840.01	-0.0560262
5858.67	-0.0557754
5868	-0.0556133
5877.33	-0.0554271
5886.66	-0.0552173
5895.99	-0.0549843
5905.32	-0.0547284
5914.65	-0.0544501
5923.98	-0.0541498
5933.31	-0.053828
5942.64	-0.0534852
5951.96	-0.0531217
5961.29	-0.0527382
5970.62	-0.052335
5989.28	-0.0514718
5998.61	-0.0510129
6007.94	-0.0505365
6017.27	-0.0500431
6026.6	-0.0495332
6035.93	-0.0490075
6045.26	-0.0484665
6054.58	-0.0479108
6063.91	-0.0473409
6073.24	-0.0467574
6082.57	-0.046161
6091.9	-0.0455522
6101.23	-0.0449316
6110.56	-0.0442998
6129.22	-0.0430052
6138.55	-0.0423435
6147.88	-0.041673
6157.21	-0.0409944
6166.53	-0.0403082
6175.86	-0.0396151
6185.19	-0.0389157
6194.52	-0.0382104
6203.85	-0.0375001
6213.18	-0.0367851
6222.51	-0.0360662
6231.84	-0.0353438
6241.17	-0.0346187
6250.5	-0.0338912
6269.16	-0.0324315
6278.48	-0.0317004
6287.81	-0.0309691
6297.14	-0.0302381
6306.47	-0.029508
6315.8	-0.0287791
6325.13	-0.028052
6334.46	-0.027327
6343.79	-0.0266046
6353.12	-0.0258851
6362.45	-0.025169
6371.78	-0.0244567
6381.11	-0.0237483
6390.43	-0.0230443
6409.09	-0.0216506
6418.42	-0.0209614
6427.75	-0.0202775
6437.08	-0.0195992
6446.41	-0.0189268
6455.74	-0.0182602
6465.07	-0.0175997
6474.4	-0.0169453
6483.73	-0.0162973
6493.06	-0.0156555
6502.38	-0.0150201
6511.71	-0.0143911
6521.04	-0.0137685
6530.37	-0.0131522
6549.03	-0.0119386
6558.36	-0.0113411
6567.69	-0.0107498
6577.02	-0.0101644
6586.35	-0.00958483
6595.68	-0.00901103
6605.01	-0.00844279
6614.33	-0.00787997
6623.66	-0.00732238
6632.99	-0.00676983
6642.32	-0.00622215
6651.65	-0.00567912
6660.98	-0.00514055
6670.31	-0.00460621
6688.97	-0.00354942
6698.3	-0.00302653
6707.63	-0.00250701
6716.96	-0.00199067
6726.28	-0.00147727
6735.61	-0.000966627
6744.94	-0.000458524
6754.27	4.72328e-05
6763.6	0.000550832
6772.93	0.00105245
6782.26	0.00155227
6791.59	0.00205045
6800.92	0.00254713
6810.25	0.00304246
6828.91	0.00402956
6838.23	0.00452154
6847.56	0.00501258
6856.89	0.00550277
6866.22	0.00599215
6875.55	0.00648075
6884.88	0.00696861
6894.21	0.00745573
6903.54	0.00794209
6912.87	0.00842766
6922.2	0.00891241
6931.53	0.00939627
6940.86	0.00987915
6950.18	0.010361
6968.84	0.0113209
6978.17	0.0117988
6987.5	0.0122751
6996.83	0.0127496
7006.16	0.0132221
7015.49	0.0136925
7024.82	0.0141605
7034.15	0.0146258
7043.48	0.0150883
7052.81	0.0155477
7062.13	0.0160038
7071.46	0.0164562
7080.79	0.0169047
7090.12	0.0173491
7108.78	0.018224
7118.11	0.018654
7127.44	0.0190787
7136.77	0.0194976
7146.1	0.0199106
7155.43	0.0203173
7164.76	0.0207173
7174.08	0.0211104
7183.41	0.0214964
7192.74	0.0218748
7202.07	0.0222453
7211.4	0.0226078
7220.73	0.0229618
7230.06	0.0233072
7248.72	0.0239707
7258.05	0.0242883
7267.38	0.0245963
7276.71	0.0248942
7286.03	0.0251819
7295.36	0.0254592
7304.69	0.0257258
7314.02	0.0259816
7323.35	0.0262263
7332.68	0.0264598
7342.01	0.026682
7351.34	0.0268927
7360.67	0.0270917
7379.33	0.0274542
7388.65	0.0276175
7397.98	0.0277688
7407.31	0.0279079
7416.64	0.0280348
7425.97	0.0281494
7435.3	0.0282517
7444.63	0.0283417
7453.96	0.0284194
7463.29	0.0284847
7472.62	0.0285377
7481.95	0.0285783
7491.28	0.0286068
7500.6	0.0286229
7519.26	0.0286187
7528.59	0.0285985
7537.92	0.0285663
7547.25	0.0285222
7556.58	0.0284662
7565.91	0.0283986
7575.24	0.0283193
7584.57	0.0282284
7593.9	0.0281262
7603.22	0.0280127
7612.55	0.0278879
7621.88	0.0277521
7631.21	0.0276054
7640.54	0.0274478
7659.2	0.0271006
7668.53	0.0269113
7677.86	0.0267116
7687.19	0.0265016
7696.52	0.0262815
7705.84	0.0260514
7715.17	0.0258114
7724.5	0.0255616
7733.83	0.0253021
7743.16	0.025033
7752.49	0.0247543
7761.82	0.0244662
7771.15	0.0241688
7780.48	0.0238621
7799.14	0.023221
7808.46	0.0228869
7817.79	0.0225437
7827.12	0.0221915
7836.45	0.0218303
7845.78	0.0214603
7855.11	0.0210814
7864.44	0.0206936
7873.77	0.0202971
7883.1	0.0198917
7892.43	0.0194776
7901.76	0.0190547
7911.08	0.0186231
7920.41	0.0181828
7939.07	0.017276
7948.4	0.0168096
7957.73	0.0163346
7967.06	0.0158509
7976.39	0.0153586
7985.72	0.0148577
7995.05	0.0143483
8004.38	0.0138304
8013.7	0.0133039
8023.03	0.012769
8032.36	0.0122258
8041.69	0.0116742
8051.02	0.0111144
8060.35	0.0105464
8079.01	0.00938631
8088.34	0.00879438
8097.67	0.00819469
8107	0.00758736
8116.32	0.00697255
8125.65	0.00635039
8134.98	0.00572106
8144.31	0.00508473
8153.64	0.00444159
8162.97	0.00379184
8172.3	0.00313569
8181.63	0.00247337
8190.96	0.00180512
8200.29	0.00113118
8218.94	-0.000232672
8228.27	-0.000922033
8237.6	-0.00161595
8246.93	-0.00231413
8256.26	-0.00301624
8265.59	-0.00372195
8274.92	-0.00443093
8284.25	-0.00514282
8293.58	-0.00585727
8302.91	-0.0065739
8312.24	-0.00729236
8321.56	-0.00801225
8330.89	-0.00873319
8340.22	-0.00945478
8358.88	-0.0108983
8368.21	-0.0116195
8377.54	-0.0123397
8386.87	-0.0130585
8396.2	-0.0137755
8405.53	-0.0144903
8414.86	-0.0152026
8424.19	-0.0159117
8433.51	-0.0166175
8442.84	-0.0173194
8452.17	-0.018017
8461.5	-0.01871
8470.83	-0.019398
8480.16	-0.0200805
8498.82	-0.0214276
8508.15	-0.0220915
8517.48	-0.0227485
8526.81	-0.0233981
8536.13	-0.0240401
8545.46	-0.0246741
8554.79	-0.0252998
8564.12	-0.0259169
8573.45	-0.0265251
8582.78	-0.027124
8592.11	-0.0277134
8601.44	-0.0282931
8610.77	-0.0288628
8620.1	-0.0294222
8638.76	-0.0305093
8648.08	-0.0310366
8657.41	-0.0315528
8666.74	-0.0320578
8676.07	-0.0325513
8685.4	-0.0330333
8694.73	-0.0335036
8704.06	-0.0339622
8713.39	-0.0344088
8722.72	-0.0348435
8732.05	-0.0352661
8741.38	-0.0356767
8750.7	-0.0360751
8760.03	-0.0364613
8778.69	-0.0371974
8788.02	-0.0375471
8797.35	-0.0378848
8806.68	-0.0382104
8816.01	-0.038524
8825.34	-0.0388256
8834.67	-0.0391154
8844	-0.0393933
8853.33	-0.0396596
8862.65	-0.0399144
8871.98	-0.0401576
8881.31	-0.0403896
8890.64	-0.0406104
8909.3	-0.0410191
8918.63	-0.0412073
8927.96	-0.041385
8937.29	-0.0415524
8946.62	-0.0417096
8955.95	-0.0418568
8965.28	-0.0419942
8974.6	-0.0421221
8983.93	-0.0422406
8993.26	-0.0423499
9002.59	-0.0424503
9011.92	-0.042542
9021.25	-0.0426251
9030.58	-0.0426999
9049.24	-0.0428255
9058.57	-0.0428767
9067.9	-0.0429205
9077.23	-0.042957
9086.55	-0.0429865
9095.88	-0.0430093
9105.21	-0.0430254
9114.54	-0.0430351
9123.87	-0.0430387
9133.2	-0.0430362
9142.53	-0.043028
9151.86	-0.0430141
9161.19	-0.0429949
9170.52	-0.0429704
9189.17	-0.0429064
9198.5	-0.0428672
9207.83	-0.0428235
9217.16	-0.0427753
9226.49	-0.0427229
9235.82	-0.0426663
9245.15	-0.0426057
9254.48	-0.0425413
9263.81	-0.042473
9273.14	-0.0424012
9282.47	-0.0423258
9291.8	-0.0422469
9301.12	-0.0421646
9310.45	-0.0420791
9329.11	-0.0418986
9338.44	-0.0418036
9347.77	-0.0417056
9357.1	-0.0416047
9366.43	-0.0415008
9375.76	-0.041394
9385.09	-0.0412843
9394.42	-0.0411718
9403.75	-0.0410564
9413.07	-0.0409382
9422.4	-0.0408171
9431.73	-0.0406932
9441.06	-0.0405664
9450.39	-0.0404368
9469.05	-0.0401688
9478.38	-0.0400304
9487.71	-0.039889
9497.04	-0.0397446
9506.37	-0.0395971
9515.7	-0.0394466
9525.02	-0.0392929
9534.35	-0.039136
9543.68	-0.0389758
9553.01	-0.0388124
9562.34	-0.0386456
9571.67	-0.0384754
9581	-0.0383017
9590.33	-0.0381245
9608.99	-0.0377593
9618.32	-0.0375712
9627.65	-0.0373793
9636.97	-0.0371837
9646.3	-0.0369841
9655.63	-0.0367807
9664.96	-0.0365733
9674.29	-0.0363619
9683.62	-0.0361465
9692.95	-0.0359269
9702.28	-0.0357032
9711.61	-0.0354754
9720.94	-0.0352434
9730.27	-0.0350071
9748.92	-0.0345219
9758.25	-0.0342729
9767.58	-0.0340195
9776.91	-0.0337619
9786.24	-0.0335001
9795.57	-0.0332339
9804.9	-0.0329635
9814.23	-0.0326888
9823.56	-0.03241
9832.89	-0.0321269
9842.22	-0.0318396
9851.54	-0.0315483
9860.87	-0.0312529
9870.2	-0.0309534
9888.86	-0.0303428
9898.19	-0.0300317
9907.52	-0.0297169
9916.85	-0.0293984
9926.18	-0.0290763
9935.51	-0.0287508
9944.84	-0.0284219
9954.17	-0.0280897
9963.49	-0.0277543
9972.82	-0.027416
9982.15	-0.0270747
9991.48	-0.0267306
10000.8	-0.0263839
10010.1	-0.0260346
10028.8	-0.0253291
10038.1	-0.0249732
10047.5	-0.0246153
10056.8	-0.0242557
10066.1	-0.0238944
10075.4	-0.0235317
10084.8	-0.0231677
10094.1	-0.0228027
10103.4	-0.0224367
10112.8	-0.0220699
10122.1	-0.0217026
10131.4	-0.0213349
10140.7	-0.020967
10150.1	-0.020599
10168.7	-0.0198638
10178.1	-0.0194969
10187.4	-0.0191307
10196.7	-0.0187654
10206.1	-0.0184012
10215.4	-0.0180382
10224.7	-0.0176768
10234	-0.017317
10243.4	-0.016959
10252.7	-0.016603
10262	-0.0162492
10271.4	-0.0158979
10280.7	-0.015549
10290	-0.0152029
10308.7	-0.0145195
10318	-0.0141826
10327.3	-0.0138491
10336.7	-0.0135192
10346	-0.0131929
10355.3	-0.0128705
10364.6	-0.0125522
10374	-0.012238
10383.3	-0.011928
10392.6	-0.0116226
10402	-0.0113217
10411.3	-0.0110254
10420.6	-0.010734
10439.3	-0.0101661
10448.6	-0.00988983
10457.9	-0.00961879
10467.3	-0.0093531
10476.6	-0.00909285
10485.9	-0.00883812
10495.3	-0.00858899
10504.6	-0.00834554
10513.9	-0.00810784
10523.2	-0.00787594
10532.6	-0.00764992
10541.9	-0.00742982
10551.2	-0.0072157
10560.6	-0.00700759
10579.2	-0.00660955
10588.5	-0.00641969
10597.9	-0.00623596
10607.2	-0.00605838
10616.5	-0.00588696
10625.9	-0.00572172
10635.2	-0.00556266
10644.5	-0.00540976
10653.9	-0.00526304
10663.2	-0.00512248
10672.5	-0.00498806
10681.8	-0.00485977
10691.2	-0.00473759
10700.5	-0.00462149
10719.2	-0.00440742
10728.5	-0.00430939
10737.8	-0.0042173
10747.1	-0.00413113
10756.5	-0.00405081
10765.8	-0.00397632
10775.1	-0.00390759
10784.5	-0.00384458
10793.8	-0.00378724
10803.1	-0.0037355
10812.4	-0.00368932
10821.8	-0.00364862
10831.1	-0.00361334
10840.4	-0.00358343
10859.1	-0.00353943
10868.4	-0.0035252
10877.8	-0.00351605
10887.1	-0.00351191
10896.4	-0.00351271
10905.7	-0.00351836
10915.1	-0.00352878
10924.4	-0.0035439
10933.7	-0.00356362
10943.1	-0.00358786
10952.4	-0.00361653
10961.7	-0.00364954
10971	-0.00368679
10980.4	-0.00372819
10999	-0.00382301
11008.4	-0.00387623
11017.7	-0.00393317
11027	-0.00399373
11036.3	-0.00405778
11045.7	-0.00412521
11055	-0.00419588
11064.3	-0.00426968
11073.7	-0.00434646
11083	-0.0044261
11092.3	-0.00450845
11101.7	-0.00459336
11111	-0.00468069
11120.3	-0.00477027
11139	-0.00495557
11148.3	-0.00505095
11157.6	-0.00514792
11167	-0.0052463
11176.3	-0.00534589
11185.6	-0.00544652
11194.9	-0.00554799
11204.3	-0.00565009
11213.6	-0.00575263
11222.9	-0.00585538
11232.3	-0.00595814
11241.6	-0.00606068
11250.9	-0.00616279
11260.2	-0.00626423
11278.9	-0.00646417
11288.2	-0.0065622
11297.6	-0.00665861
11306.9	-0.00675315
11316.2	-0.00684558
11325.6	-0.00693564
11334.9	-0.00702308
11344.2	-0.00710763
11353.5	-0.00718906
11362.9	-0.00726709
11372.2	-0.00734146
11381.5	-0.00741192
11390.9	-0.00747821
11400.2	-0.00754007
11418.8	-0.00764947
11428.2	-0.0076965
11437.5	-0.00773808
11446.8	-0.00777397
11456.2	-0.00780391
11465.5	-0.00782767
11474.8	-0.00784502
11484.1	-0.00785571
11493.5	-0.00785954
11502.8	-0.00785626
11512.1	-0.00784568
11521.5	-0.00782759
11530.8	-0.00780178
11540.1	-0.00776808
11558.8	-0.00767623
11568.1	-0.00761775
11577.4	-0.0075507
11586.8	-0.00747491
11596.1	-0.00739027
11605.4	-0.00729664
11614.8	-0.00719392
11624.1	-0.00708199
11633.4	-0.00696077
11642.7	-0.00683017
11652.1	-0.00669013
11661.4	-0.0065406
11670.7	-0.00638153
11680.1	-0.00621289
11698.7	-0.00584682
11708	-0.0056494
11717.4	-0.00544241
11726.7	-0.00522587
11736	-0.00499985
11745.4	-0.00476438
11754.7	-0.00451955
11764	-0.00426542
11773.4	-0.00400211
11782.7	-0.0037297
11792	-0.00344833
11801.3	-0.00315812
11810.7	-0.0028592
11829.3	-0.0022359
11838.7	-0.00191185
11848	-0.00157978
11857.3	-0.00123987
11866.6	-0.000892344
11876	-0.000537402
11885.3	-0.00017527
11894.6	0.000193819
11904	0.000569627
11913.3	0.000951907
11922.6	0.0013404
11931.9	0.00173485
11941.3	0.00213499
11950.6	0.00254054
11969.3	0.00336676
11978.6	0.00378686
11987.9	0.00421122
11997.2	0.00463954
12006.6	0.00507154
12015.9	0.0055069
12025.2	0.00594532
12034.6	0.00638649
12043.9	0.0068301
12053.2	0.00727584
12062.6	0.00772341
12071.9	0.00817249
12081.2	0.00862277
12090.5	0.00907394
12109.2	0.00997774
12118.5	0.0104298
12127.9	0.0108814
12137.2	0.0113325
12146.5	0.0117827
12155.8	0.0122316
12165.2	0.012679
12174.5	0.0131247
12183.8	0.0135683
12193.2	0.0140096
12202.5	0.0144483
12211.8	0.0148841
12221.1	0.0153168
12230.5	0.0157462
12249.1	0.0165938
12258.5	0.0170117
12267.8	0.0174252
12277.1	0.0178343
12286.5	0.0182386
12295.8	0.0186381
12305.1	0.0190325
12314.4	0.0194215
12323.8	0.0198052
12333.1	0.0201832
12342.4	0.0205555
12351.8	0.0209219
12361.1	0.0212822
12370.4	0.0216363
12389.1	0.0223256
12398.4	0.0226605
12407.7	0.0229889
12417.1	0.0233105
12426.4	0.0236254
12435.7	0.0239335
12445	0.0242347
12454.4	0.024529
12463.7	0.0248163
12473	0.0250966
12482.4	0.0253699
12491.7	0.0256361
12501	0.0258953
12510.4	0.0261475
12529	0.0266308
12538.3	0.0268619
12547.7	0.0270861
12557	0.0273033
12566.3	0.0275137
12575.7	0.0277172
12585	0.027914
12594.3	0.028104
12603.6	0.0282874
12613	0.0284642
12622.3	0.0286344
12631.6	0.0287983
12641	0.0289558
12650.3	0.029107
12668.9	0.0293909
12678.3	0.0295238
12687.6	0.0296508
12696.9	0.029772
12706.3	0.0298874
12715.6	0.0299972
12724.9	0.0301014
12734.3	0.0302001
12743.6	0.0302934
12752.9	0.0303815
12762.2	0.0304643
12771.6	0.030542
12780.9	0.0306146
12790.2	0.0306822
12808.9	0.0308027
12818.2	0.0308556
12827.5	0.0309039
12836.9	0.0309474
12846.2	0.0309862
12855.5	0.0310204
12864.9	0.03105
12874.2	0.0310749
12883.5	0.0310952
12892.8	0.031111
12902.2	0.0311221
12911.5	0.0311286
12920.8	0.0311305
12930.2	0.0311277
12948.8	0.0311078
12958.2	0.0310906
12967.5	0.0310685
12976.8	0.0310414
12986.1	0.0310092
12995.5	0.0309719
13004.8	0.0309293
13014.1	0.0308812
13023.5	0.0308276
13032.8	0.0307684
13042.1	0.0307033
13051.4	0.0306323
13060.8	0.0305552
13070.1	0.0304718
13088.8	0.0302854
13098.1	0.030182
13107.4	0.0300717
13116.7	0.0299541
13126.1	0.029829
13135.4	0.0296964
13144.7	0.0295559
13154.1	0.0294073
13163.4	0.0292505
13172.7	0.0290851
13182.1	0.028911
13191.4	0.028728
13200.7	0.0285358
13210	0.0283341
13228.7	0.0279018
13238	0.0276707
13247.4	0.0274292
13256.7	0.0271773
13266	0.0269147
13275.3	0.0266412
13284.7	0.0263567
13294	0.0260608
13303.3	0.0257535
13312.7	0.0254346
13322	0.0251039
13331.3	0.0247613
13340.6	0.0244066
13359.3	0.0236605
13368.6	0.0232689
13378	0.0228649
13387.3	0.0224482
13396.6	0.0220189
13406	0.0215769
13415.3	0.0211222
13424.6	0.0206548
13433.9	0.0201747
13443.3	0.0196819
13452.6	0.0191765
13461.9	0.0186584
13471.3	0.0181279
13480.6	0.0175849
13499.2	0.0164621
13508.6	0.0158826
13517.9	0.0152913
13527.2	0.0146883
13536.6	0.0140739
13545.9	0.0134482
13555.2	0.0128116
13564.5	0.0121643
13573.9	0.0115066
13583.2	0.0108387
13592.5	0.0101611
13601.9	0.00947412
13611.2	0.00877802
13620.5	0.00807324
13639.2	0.00663923
13648.5	0.00591086
13657.8	0.00517549
13667.2	0.00443359
13676.5	0.00368564
13685.8	0.00293213
13695.2	0.00217357
13704.5	0.00141047
13713.8	0.000643369
13723.1	-0.000127199
13732.5	-0.00090068
13741.8	-0.00167651
13751.1	-0.00245413
13760.5	-0.00323295
13779.1	-0.00479188
13788.4	-0.00557079
13797.8	-0.00634854
13807.1	-0.00712453
13816.4	-0.00789815
13825.8	-0.00866879
13835.1	-0.00943586
13844.4	-0.0101987
13853.8	-0.0109568
13863.1	-0.0117096
13872.4	-0.0124563
13881.7	-0.0131965
13891.1	-0.0139295
13900.4	-0.0146547
13919.1	-0.0160798
13928.4	-0.0167785
13937.7	-0.0174672
13947	-0.0181454
13956.4	-0.0188126
13965.7	-0.0194683
13975	-0.020112
13984.4	-0.0207432
13993.7	-0.0213615
14003	-0.0219663
14012.3	-0.0225573
14021.7	-0.0231341
14031	-0.0236962
14040.3	-0.0242434
14059	-0.0252912
14068.3	-0.0257912
14077.7	-0.0262749
14087	-0.026742
14096.3	-0.0271922
14105.6	-0.0276253
14115	-0.0280411
14124.3	-0.0284393
14133.6	-0.0288199
14143	-0.0291826
14152.3	-0.0295274
14161.6	-0.029854
14170.9	-0.0301625
14180.3	-0.0304528
14198.9	-0.0309784
14208.3	-0.0312137
14217.6	-0.0314308
14226.9	-0.0316296
14236.2	-0.0318102
14245.6	-0.0319726
14254.9	-0.0321171
14264.2	-0.0322436
14273.6	-0.0323524
14282.9	-0.0324435
14292.2	-0.0325172
14301.6	-0.0325736
14310.9	-0.0326129
14320.2	-0.0326355
14338.9	-0.0326309
14348.2	-0.0326044
14357.5	-0.032562
14366.9	-0.0325041
14376.2	-0.032431
14385.5	-0.032343
14394.8	-0.0322404
14404.2	-0.0321235
14413.5	-0.0319928
14422.8	-0.0318485
14432.2	-0.031691
14441.5	-0.0315207
14450.8	-0.031338
14460.1	-0.0311432
14478.8	-0.0307191
14488.1	-0.0304905
14497.5	-0.0302515
14506.8	-0.0300024
14516.1	-0.0297437
14525.4	-0.0294757
14534.8	-0.029199
14544.1	-0.0289138
14553.4	-0.0286206
14562.8	-0.0283199
14572.1	-0.028012
14581.4	-0.0276974
14590.8	-0.0273764
14600.1	-0.0270496
14618.7	-0.0263797
14628.1	-0.0260376
14637.4	-0.0256911
14646.7	-0.0253408
14656.1	-0.024987
14665.4	-0.02463
14674.7	-0.0242704
14684	-0.0239084
14693.4	-0.0235445
14702.7	-0.023179
14712	-0.0228124
14721.4	-0.0224449
14730.7	-0.0220769
14740	-0.0217088
14758.7	-0.0209738
14768	-0.0206075
14777.3	-0.0202425
14786.7	-0.0198791
14796	-0.0195177
14805.3	-0.0191586
14814.7	-0.018802
14824	-0.0184484
14833.3	-0.018098
14842.6	-0.0177512
14852	-0.0174082
14861.3	-0.0170693
14870.6	-0.0167349
14889.3	-0.0160806
14898.6	-0.0157613
14907.9	-0.0154477
14917.3	-0.0151399
14926.6	-0.0148382
14935.9	-0.0145431
14945.3	-0.0142546
14954.6	-0.0139731
14963.9	-0.0136989
14973.2	-0.0134322
14982.6	-0.0131732
14991.9	-0.0129223
15001.2	-0.0126797
15010.6	-0.0124456
15029.2	-0.012004
15038.6	-0.0117971
15047.9	-0.0115996
15057.2	-0.0114119
15066.5	-0.0112342
15075.9	-0.0110668
15085.2	-0.0109098
15094.5	-0.0107635
15103.9	-0.0106281
15113.2	-0.0105038
15122.5	-0.0103908
15131.8	-0.0102894
15141.2	-0.0101998
15150.5	-0.0101221
15169.2	-0.0100034
15178.5	-0.00996271
15187.8	-0.00993473
15197.1	-0.00991963
15206.5	-0.00991757
15215.8	-0.00992869
15225.1	-0.00995317
15234.5	-0.00999112
15243.8	-0.0100427
15253.1	-0.010108
15262.5	-0.0101872
15271.8	-0.0102803
15281.1	-0.0103875
15290.4	-0.0105088
15309.1	-0.0107941
15318.4	-0.0109582
15327.8	-0.0111367
15337.1	-0.0113296
15346.4	-0.0115368
15355.7	-0.0117584
15365.1	-0.0119943
15374.4	-0.0122446
15383.7	-0.0125091
15393.1	-0.0127878
15402.4	-0.0130807
15411.7	-0.0133875
15421	-0.0137082
15430.4	-0.0140427
15449	-0.0147523
15458.4	-0.0151271
15467.7	-0.0155149
15477	-0.0159154
15486.4	-0.0163286
15495.7	-0.016754
15505	-0.0171913
15514.3	-0.0176404
15523.7	-0.0181008
15533	-0.0185723
15542.3	-0.0190543
15551.7	-0.0195466
15561	-0.0200488
15570.3	-0.0205603
15589	-0.0216098
15598.3	-0.0221468
15607.6	-0.0226913
15617	-0.0232428
15626.3	-0.0238007
15635.6	-0.0243644
15644.9	-0.0249334
15654.3	-0.0255071
15663.6	-0.0260849
15672.9	-0.0266661
15682.3	-0.0272501
15691.6	-0.0278362
15700.9	-0.0284238
15710.3	-0.0290121
15728.9	-0.0301883
15738.2	-0.0307746
15747.6	-0.0313588
15756.9	-0.0319402
15766.2	-0.0325179
15775.6	-0.0330912
15784.9	-0.0336594
15794.2	-0.0342216
15803.5	-0.0347771
15812.9	-0.0353251
15822.2	-0.0358649
15831.5	-0.0363955
15840.9	-0.0369163
15850.2	-0.0374265
15868.8	-0.0384117
15878.2	-0.0388852
15887.5	-0.0393449
15896.8	-0.0397901
15906.2	-0.04022
15915.5	-0.0406339
15924.8	-0.0410311
15934.2	-0.0414107
15943.5	-0.0417721
15952.8	-0.0421147
15962.1	-0.0424376
15971.5	-0.0427403
15980.8	-0.0430221
15990.1	-0.0432824
16008.8	-0.043736
16018.1	-0.0439282
16027.4	-0.0440965
16036.8	-0.0442405
16046.1	-0.0443597
16055.4	-0.0444535
16064.8	-0.0445216
16074.1	-0.0445636
16083.4	-0.044579
16092.7	-0.0445675
16102.1	-0.0445288
16111.4	-0.0444626
16120.7	-0.0443686
16130.1	-0.0442466
16148.7	-0.0439179
16158.1	-0.0437108
16167.4	-0.0434752
16176.7	-0.0432109
16186	-0.0429179
16195.4	-0.0425962
16204.7	-0.0422459
16214	-0.041867
16223.4	-0.0414596
16232.7	-0.0410239
16242	-0.0405601
16251.3	-0.0400683
16260.7	-0.0395489
16270	-0.039002
16288.7	-0.0378273
16298	-0.0372003
16307.3	-0.0365472
16316.6	-0.0358686
16326	-0.035165
16335.3	-0.0344368
16344.6	-0.0336846
16354	-0.0329089
16363.3	-0.0321103
16372.6	-0.0312895
16382	-0.030447
16391.3	-0.0295836
16400.6	-0.0286999
16419.3	-0.0268744
16428.6	-0.0259342
16437.9	-0.0249767
16447.3	-0.0240026
16456.6	-0.0230128
16465.9	-0.0220081
16475.2	-0.0209894
16484.6	-0.0199574
16493.9	-0.0189131
16503.2	-0.0178572
16512.6	-0.0167908
16521.9	-0.0157147
16531.2	-0.0146297
16540.5	-0.0135369
16559.2	-0.011331
16568.5	-0.0102199
16577.9	-0.00910443
16587.2	-0.00798561
16596.5	-0.00686434
16605.9	-0.0057415
16615.2	-0.004618
16624.5	-0.00349473
16633.8	-0.00237257
16643.2	-0.00125241
16652.5	-0.000135109
16661.8	0.000978478
16671.2	0.0020875
16680.5	0.00319114
16699.1	0.00537897
16708.5	0.00646157
16717.8	0.0075356
16727.1	0.0086003
16736.5	0.00965494
16745.8	0.0106988
16755.1	0.0117312
16764.4	0.0127514
16773.8	0.0137588
16783.1	0.0147528
16792.4	0.0157327
16801.8	0.016698
16811.1	0.0176481
16820.4	0.0185824
16839.1	0.0204018
16848.4	0.0212859
16857.7	0.0221523
16867.1	0.0230006
16876.4	0.0238304
16885.7	0.0246413
16895.1	0.0254331
16904.4	0.0262053
16913.7	0.0269577
16923	0.02769
16932.4	0.028402
16941.7	0.0290934
16951	0.0297641
16960.4	0.0304139
16979	0.0316501
16988.3	0.0322363
16997.7	0.0328011
17007	0.0333446
17016.3	0.0338666
17025.7	0.0343671
17035	0.0348461
17044.3	0.0353038
17053.7	0.03574
17063	0.036155
17072.3	0.0365487
17081.6	0.0369214
17091	0.037273
17100.3	0.0376038
17119	0.0382036
17128.3	0.0384729
17137.6	0.0387221
17146.9	0.0389514
17156.3	0.0391611
17165.6	0.0393513
17174.9	0.0395224
17184.3	0.0396745
17193.6	0.0398081
17202.9	0.0399233
17212.2	0.0400205
17221.6	0.0401
17230.9	0.0401621
17240.2	0.0402071
17258.9	0.0402471
17268.2	0.0402428
17277.6	0.0402228
17286.9	0.0401874
17296.2	0.0401369
17305.5	0.0400718
17314.9	0.0399924
17324.2	0.039899
17333.5	0.039792
17342.9	0.0396717
17352.2	0.0395386
17361.5	0.039393
17370.8	0.0392353
17380.2	0.0390658
17398.8	0.0386929
17408.2	0.0384902
17417.5	0.0382772
17426.8	0.0380542
17436.1	0.0378216
17445.5	0.0375797
17454.8	0.0373289
17464.1	0.0370696
17473.5	0.0368019
17482.8	0.0365264
17492.1	0.0362433
17501.5	0.0359529
17510.8	0.0356555
17520.1	0.0353516
17538.8	0.034725
17548.1	0.0344031
17557.4	0.0340757
17566.8	0.0337431
17576.1	0.0334058
17585.4	0.0330638
17594.7	0.0327176
17604.1	0.0323673
17613.4	0.0320132
17622.7	0.0316556
17632.1	0.0312948
17641.4	0.0309308
17650.7	0.0305641
17660	0.0301948
17678.7	0.0294493
17688	0.0290736
17697.4	0.028696
17706.7	0.028317
17716	0.0279366
17725.4	0.027555
17734.7	0.0271724
17744	0.026789
17753.3	0.0264049
17762.7	0.0260203
17772	0.0256353
17781.3	0.0252502
17790.7	0.0248649
17809.3	0.0240947
17818.6	0.02371
17828	0.0233257
17837.3	0.0229419
17846.6	0.0225587
17856	0.0221763
17865.3	0.0217947
17874.6	0.021414
17883.9	0.0210343
17893.3	0.0206556
17902.6	0.0202781
17911.9	0.0199017
17921.3	0.0195266
17930.6	0.0191528
17949.3	0.0184093
17958.6	0.0180397
17967.9	0.0176715
17977.2	0.0173048
17986.6	0.0169397
17995.9	0.016576
18005.2	0.0162139
18014.6	0.0158534
18023.9	0.0154944
18033.2	0.015137
18042.5	0.0147811
18051.9	0.0144268
18061.2	0.014074
18070.5	0.0137227
18089.2	0.0130245
18098.5	0.0126776
18107.8	0.0123321
18117.2	0.011988
18126.5	0.0116452
18135.8	0.0113038
18145.2	0.0109635
18154.5	0.0106245
18163.8	0.0102866
18173.2	0.00994975
18182.5	0.00961399
18191.8	0.0092792
18201.1	0.00894534
18210.5	0.00861234
18229.1	0.00794865
18238.5	0.00761784
18247.8	0.00728762
18257.1	0.00695792
18266.4	0.00662868
18275.8	0.00629983
18285.1	0.00597129
18294.4	0.00564299
18303.8	0.00531486
18313.1	0.00498682
18322.4	0.00465881
18331.7	0.00433076
18341.1	0.00400259
18350.4	0.00367424
18369.1	0.0030167
18378.4	0.00268738
18387.7	0.00235762
18397.1	0.00202734
18406.4	0.00169649
18415.7	0.00136501
18425	0.00103285
18434.4	0.000699946
18443.7	0.00036626
18453	3.17408e-05
18462.4	-0.000303653
18471.7	-0.000639961
18481	-0.000977219
18490.3	-0.00131546
18509	-0.00199499
18518.3	-0.00233632
18527.7	-0.00267872
18537	-0.0030222
18546.3	-0.00336675
18555.6	-0.00371239
18565	-0.0040591
18574.3	-0.00440688
18583.6	-0.00475571
18593	-0.00510557
18602.3	-0.00545644
18611.6	-0.00580827
18621	-0.00616104
18630.3	-0.00651469
18648.9	-0.00722447
18658.3	-0.00758047
18667.6	-0.00793713
18676.9	-0.00829438
18686.3	-0.00865213
18695.6	-0.00901031
18704.9	-0.00936881
18714.2	-0.00972755
18723.6	-0.0100864
18732.9	-0.0104453
18742.2	-0.0108041
18751.6	-0.0111627
18760.9	-0.011521
18770.2	-0.0118788
18788.9	-0.0125925
18798.2	-0.0129481
18807.5	-0.0133027
18816.9	-0.0136561
18826.2	-0.0140082
18835.5	-0.0143587
18844.9	-0.0147076
18854.2	-0.0150547
18863.5	-0.0153997
18872.8	-0.0157425
18882.2	-0.016083
18891.5	-0.0164209
18900.8	-0.0167561
18910.2	-0.0170883
18928.8	-0.0177433
18938.1	-0.0180656
18947.5	-0.0183842
18956.8	-0.0186989
18966.1	-0.0190095
18975.5	-0.0193158
18984.8	-0.0196177
18994.1	-0.0199148
19003.4	-0.0202071
19012.8	-0.0204943
19022.1	-0.0207762
19031.4	-0.0210527
19040.8	-0.0213235
19050.1	-0.0215885
19068.7	-0.0221002
19078.1	-0.0223465
19087.4	-0.0225863
19096.7	-0.0228194
19106.1	-0.0230455
19115.4	-0.0232646
19124.7	-0.0234765
19134.1	-0.023681
19143.4	-0.0238779
19152.7	-0.0240672
19162	-0.0242487
19171.4	-0.0244222
19180.7	-0.0245877
19190	-0.024745
19208.7	-0.0250346
19218	-0.0251667
19227.3	-0.0252902
19236.7	-0.0254051
19246	-0.0255112
19255.3	-0.0256085
19264.7	-0.0256969
19274	-0.0257765
19283.3	-0.025847
19292.6	-0.0259086
19302	-0.0259612
19311.3	-0.0260048
19320.6	-0.0260393
19339.3	-0.0260813
19348.6	-0.0260887
19358	-0.0260872
19367.3	-0.0260768
19376.6	-0.0260575
19385.9	-0.0260294
19395.3	-0.0259924
19404.6	-0.0259469
19413.9	-0.0258926
19423.3	-0.0258299
19432.6	-0.0257588
19441.9	-0.0256793
19451.2	-0.0255916
19460.6	-0.0254959
19479.2	-0.0252807
19488.6	-0.0251616
19497.9	-0.0250349
19507.2	-0.0249009
19516.5	-0.0247597
19525.9	-0.0246115
19535.2	-0.0244565
19544.5	-0.0242948
19553.9	-0.0241267
19563.2	-0.0239523
19572.5	-0.0237719
19581.9	-0.0235856
19591.2	-0.0233937
19600.5	-0.0231963
19619.2	-0.0227863
19628.5	-0.022574
19637.8	-0.0223572
19647.2	-0.0221361
19656.5	-0.0219109
19665.8	-0.0216819
19675.1	-0.0214493
19684.5	-0.0212133
19693.8	-0.0209743
19703.1	-0.0207323
19712.5	-0.0204877
19721.8	-0.0202407
19731.1	-0.0199915
19740.4	-0.0197404
19759.1	-0.0192333
19768.4	-0.0189777
19777.8	-0.0187212
19787.1	-0.0184638
19796.4	-0.0182059
19805.8	-0.0179476
19815.1	-0.0176892
19824.4	-0.0174309
19833.7	-0.0171728
19843.1	-0.0169152
19852.4	-0.0166583
19861.7	-0.0164022
19871.1	-0.0161472
19880.4	-0.0158934
19899	-0.0153902
19908.4	-0.0151411
19917.7	-0.0148938
19927	-0.0146486
19936.4	-0.0144056
19945.7	-0.0141648
19955	-0.0139265
19964.3	-0.0136907
19973.7	-0.0134576
19983	-0.0132272
19992.3	-0.0129997
