0	0
10.2954	0
20.5908	0
30.8863	0
41.1817	0
51.4771	0
61.7725	0
72.068	0
82.3634	0
90.0849	0
100.38	0
110.676	0
120.971	0
131.267	0
141.562	0
151.857	0
162.153	0
172.448	0
180.17	0
190.465	0
200.761	0
211.056	0
221.352	0
231.647	0
241.942	0
252.238	0
262.533	0
270.255	0
280.55	0
290.846	0
301.141	0
311.437	0
321.732	0
332.027	0
342.323	0
350.044	0
360.34	0
370.635	0
380.931	0
391.226	0
401.521	0
411.817	0
422.112	0
432.408	0
440.129	0
450.425	0
460.72	0
471.016	0
481.311	0
491.606	0
501.902	0
512.197	0
522.493	0
530.214	0
540.51	0
550.805	0
561.1	0
571.396	0
581.691	0
591.987	0
602.282	0
610.004	0
620.299	0
630.595	0
640.89	0
651.185	0
661.481	0
671.776	0
682.072	0
692.367	0
700.089	0
710.384	0
720.68	0
730.975	0
741.27	0
751.566	0
761.861	0
772.157	0
782.452	0
790.174	0
800.469	0
810.764	0
821.06	0
831.355	0
841.651	0
851.946	0
862.242	0
872.537	2.72848e-12
880.259	7.27596e-12
890.554	2.36469e-11
900.849	6.45741e-11
911.145	1.71894e-10
921.44	4.40195e-10
931.736	1.09048e-09
942.031	2.61298e-09
952.327	6.06269e-09
960.048	1.11659e-08
970.343	2.45445e-08
980.639	5.2386e-08
990.934	1.08646e-07
1001.23	2.19139e-07
1011.53	4.30216e-07
1021.82	8.22691e-07
1032.12	1.53353e-06
1042.41	2.78843e-06
1050.13	4.29743e-06
1060.43	7.49383e-06
1070.72	1.27703e-05
1081.02	2.12801e-05
1091.31	3.46962e-05
1101.61	5.53837e-05
1111.91	8.66014e-05
1122.2	0.000132725
1132.5	0.000199485
1140.22	0.000267428
1150.51	0.000388956
1160.81	0.000555601
1171.1	0.000779879
1181.4	0.00107628
1191.7	0.00146114
1201.99	0.00195238
1212.29	0.00256914
1220.01	0.00312602
1230.3	0.00401041
1240.6	0.00507521
1250.89	0.00633977
1261.19	0.00782264
1271.48	0.00954156
1281.78	0.0115139
1292.08	0.0137576
1302.37	0.0162925
1310.09	0.0183989
1320.39	0.0215047
1330.68	0.0249851
1340.98	0.0288897
1351.27	0.0332845
1361.57	0.038255
1371.86	0.0439108
1382.16	0.0503884
1392.46	0.0578542
1400.18	0.06422
1410.47	0.0739113
1420.77	0.0852122
1431.06	0.0984055
1441.36	0.113799
1451.65	0.131718
1461.95	0.152499
1472.25	0.176478
1482.54	0.203978
1490.26	0.227094
1500.56	0.261449
1510.85	0.300039
1521.15	0.343021
1531.44	0.39047
1541.74	0.442376
1552.03	0.49863
1562.33	0.559021
1570.05	0.606841
1580.35	0.673642
1590.64	0.743456
1600.94	0.815692
1611.23	0.889675
1621.53	0.964661
1631.82	1.03985
1642.12	1.11443
1652.42	1.18753
1660.14	1.24087
1670.43	1.30936
1680.73	1.37409
1691.02	1.43433
1701.32	1.48935
1711.61	1.53854
1721.91	1.58134
1732.2	1.61727
1742.5	1.64592
1750.22	1.66246
1760.52	1.67768
1770.81	1.68494
1781.11	1.68414
1791.4	1.67521
1801.7	1.65816
1811.99	1.63306
1822.29	1.60002
1830.01	1.57012
1840.31	1.52357
1850.6	1.46961
1860.9	1.40851
1871.19	1.34058
1881.49	1.26617
1891.78	1.18568
1902.08	1.09954
1912.37	1.00823
1920.1	0.936683
1930.39	0.837629
1940.69	0.734946
1950.98	0.629271
1961.28	0.521271
1971.57	0.411643
1981.87	0.301104
1992.16	0.190386
2002.46	0.0802258
2010.18	-0.00158433
2020.48	-0.109003
2030.77	-0.213873
2041.07	-0.315514
2051.36	-0.413279
2061.66	-0.50657
2071.95	-0.594839
2082.25	-0.677596
2092.54	-0.754419
2100.27	-0.807924
2110.56	-0.873548
2120.86	-0.932435
2131.15	-0.984431
2141.45	-1.02946
2151.74	-1.06752
2162.04	-1.09866
2172.33	-1.12304
2180.06	-1.13698
2190.35	-1.15
2200.65	-1.1569
2210.94	-1.15802
2221.24	-1.15372
2231.53	-1.14441
2241.83	-1.13048
2252.12	-1.11238
2262.42	-1.09053
2270.14	-1.07195
2280.44	-1.04458
2290.73	-1.01464
2301.03	-0.982524
2311.32	-0.948605
2321.62	-0.913242
2331.91	-0.876764
2342.21	-0.839473
2352.5	-0.801647
2360.23	-0.773076
2370.52	-0.734895
2380.82	-0.6968
2391.11	-0.658974
2401.41	-0.621576
2411.7	-0.584745
2422	-0.548606
2432.29	-0.513264
2440.01	-0.487336
2450.31	-0.453606
2460.61	-0.420903
2470.9	-0.389291
2481.2	-0.358825
2491.49	-0.329553
2501.79	-0.301519
2512.08	-0.274756
2522.38	-0.249295
2530.1	-0.231068
2540.4	-0.207938
2550.69	-0.186162
2560.99	-0.165748
2571.28	-0.146699
2581.58	-0.129015
2591.87	-0.112686
2602.17	-0.0977006
2612.46	-0.0840412
2620.18	-0.0746532
2630.48	-0.0632567
2640.78	-0.053113
2651.07	-0.0441872
2661.37	-0.036441
2671.66	-0.0298325
2681.96	-0.0243168
2692.25	-0.0198464
2702.55	-0.0163715
2710.27	-0.0143877
2720.56	-0.0125299
2730.86	-0.0115224
2741.16	-0.0113104
2751.45	-0.0118385
2761.75	-0.0130513
2772.04	-0.0148934
2782.34	-0.0173095
2790.06	-0.0194656
2800.35	-0.022756
2810.65	-0.0264728
2820.95	-0.0305643
2831.24	-0.0349802
2841.54	-0.0396716
2851.83	-0.0445913
2862.13	-0.0496938
2872.42	-0.0549359
2880.14	-0.058934
2890.44	-0.0643219
2900.73	-0.0697408
2911.03	-0.0751557
2921.32	-0.0805339
2931.62	-0.0858453
2941.92	-0.0910624
2952.21	-0.0961604
2962.51	-0.101117
2970.23	-0.10473
2980.52	-0.109394
2990.82	-0.113869
3001.11	-0.118144
3011.41	-0.122208
3021.7	-0.126054
3032	-0.129677
3042.3	-0.133074
3050.02	-0.135472
3060.31	-0.138471
3070.61	-0.141245
3080.9	-0.143797
3091.2	-0.146131
3101.49	-0.148252
3111.79	-0.150166
3122.08	-0.15188
3132.38	-0.1534
3140.1	-0.154416
3150.4	-0.155613
3160.69	-0.156633
3170.99	-0.157482
3181.28	-0.158166
3191.58	-0.15869
3201.87	-0.159057
3212.17	-0.15927
3222.46	-0.159333
3230.18	-0.159281
3240.48	-0.159082
3250.77	-0.158734
3261.07	-0.158238
3271.36	-0.157591
3281.66	-0.156794
3291.96	-0.155843
3302.25	-0.154738
3312.55	-0.153477
3320.27	-0.152427
3330.56	-0.150888
3340.86	-0.149188
3351.15	-0.147326
3361.45	-0.145303
3371.74	-0.143118
3382.04	-0.140773
3392.33	-0.13827
3400.05	-0.13629
3410.35	-0.133519
3420.64	-0.1306
3430.94	-0.127539
3441.23	-0.124344
3451.53	-0.121022
3461.82	-0.117581
3472.12	-0.114032
3482.42	-0.110384
3490.14	-0.10759
3500.43	-0.103797
3510.73	-0.0999363
3521.02	-0.0960216
3531.32	-0.092065
3541.61	-0.0880794
3551.91	-0.0840774
3562.2	-0.080072
3572.5	-0.0760758
3580.22	-0.0730921
3590.51	-0.0691415
3600.81	-0.0652332
3611.1	-0.0613786
3621.4	-0.0575883
3631.69	-0.0538725
3641.99	-0.0502409
3652.28	-0.0467024
3660	-0.0441146
3670.3	-0.0407586
3680.59	-0.0375169
3690.89	-0.0343961
3701.18	-0.0314019
3711.48	-0.0285395
3721.77	-0.0258134
3732.07	-0.0232276
3742.36	-0.0207852
3750.09	-0.0190493
3760.38	-0.0168641
3770.68	-0.0148282
3780.97	-0.0129426
3791.27	-0.0112079
3801.56	-0.00962377
3811.86	-0.0081896
3822.15	-0.0069041
3832.45	-0.00576543
3840.17	-0.00500639
3850.46	-0.00411863
3860.76	-0.00336985
3871.05	-0.00275619
3881.35	-0.00227323
3891.64	-0.00191608
3901.94	-0.00167933
3912.23	-0.00155709
3922.53	-0.00154303
3930.25	-0.00159941
3940.54	-0.00175811
3950.84	-0.00200541
3961.13	-0.00233354
3971.43	-0.00273439
3981.72	-0.00319963
3992.02	-0.00372072
4002.31	-0.00428897
4010.03	-0.00474083
4020.33	-0.00537045
4030.62	-0.00602302
4040.92	-0.00668979
4051.21	-0.00736214
4061.51	-0.00803163
4071.8	-0.00869005
4082.1	-0.00932951
4092.4	-0.00994242
4100.12	-0.0103804
4110.41	-0.0109298
4120.71	-0.011434
4131	-0.0118871
4141.3	-0.0122835
4151.59	-0.0126185
4161.89	-0.0128875
4172.18	-0.0130867
4182.48	-0.0132129
4190.2	-0.0132577
4200.5	-0.0132492
4210.79	-0.0131607
4221.09	-0.0129906
4231.38	-0.0127377
4241.68	-0.0124008
4251.97	-0.0119794
4262.27	-0.0114729
4272.56	-0.0108812
4280.28	-0.0103813
4290.58	-0.00963993
4300.88	-0.00881307
4311.17	-0.00790069
4321.47	-0.00690276
4331.76	-0.0058192
4342.06	-0.00464984
4352.35	-0.00339441
4360.07	-0.00239615
4370.37	-0.000989145
4380.66	0.000505223
4390.96	0.00208764
4401.26	0.00375887
4411.55	0.00551977
4421.85	0.00737121
4432.14	0.00931407
4442.44	0.0113492
4450.16	0.0129366
4460.45	0.015135
4470.75	0.0174274
4481.04	0.0198141
4491.34	0.0222951
4501.63	0.02487
4511.93	0.0275382
4522.23	0.0302983
4532.52	0.0331487
4540.24	0.0353443
4550.54	0.0383468
4560.83	0.0414319
4571.13	0.0445954
4581.42	0.0478327
4591.72	0.0511382
4602.01	0.0545059
4612.31	0.0579287
4620.03	0.0605275
4630.33	0.064028
4640.62	0.0675609
4650.92	0.0711167
4661.21	0.0746851
4671.51	0.0782555
4681.8	0.0818165
4692.1	0.0853565
4702.39	0.0888635
4710.11	0.0914647
4720.41	0.0948842
4730.71	0.0982363
4741	0.101509
4751.3	0.104688
4761.59	0.107764
4771.89	0.110722
4782.18	0.113551
4792.48	0.11624
4800.2	0.118159
4810.49	0.120578
4820.79	0.122828
4831.09	0.1249
4841.38	0.126787
4851.68	0.12848
4861.97	0.129973
4872.27	0.13126
4882.56	0.132336
4890.28	0.133002
4900.58	0.1337
4910.87	0.134178
4921.17	0.134435
4931.46	0.134469
4941.76	0.134281
4952.06	0.133872
4962.35	0.133245
4970.07	0.132632
4980.37	0.131628
4990.66	0.130414
5000.96	0.128994
5011.25	0.127375
5021.55	0.125562
5031.84	0.123562
5042.14	0.121382
5052.44	0.119029
5060.16	0.117156
5070.45	0.114521
5080.75	0.111737
5091.04	0.108813
5101.34	0.105759
5111.63	0.102585
5121.93	0.0993
5132.22	0.0959155
5142.52	0.0924417
5150.24	0.0897843
5160.54	0.0861801
5170.83	0.0825165
5181.13	0.0788043
5191.42	0.0750545
5201.72	0.0712782
5212.01	0.0674861
5222.31	0.0636892
5230.03	0.0608448
5240.33	0.0570651
5250.62	0.0533096
5260.92	0.0495883
5271.21	0.0459112
5281.51	0.0422879
5291.8	0.0387276
5302.1	0.0352392
5312.39	0.031831
5320.11	0.0293324
5330.41	0.0260837
5340.71	0.022936
5351	0.019896
5361.3	0.0169698
5371.59	0.0141627
5381.89	0.0114796
5392.18	0.00892485
5402.48	0.00650194
5410.2	0.00477311
5420.49	0.00258775
5430.79	0.000540898
5441.09	-0.00136625
5451.38	-0.00313313
5461.68	-0.00475978
5471.97	-0.00624687
5482.27	-0.00759562
5492.56	-0.00880785
5500.28	-0.0096288
5510.58	-0.010608
5520.87	-0.0114582
5531.17	-0.0121831
5541.46	-0.0127866
5551.76	-0.013273
5562.06	-0.0136471
5572.35	-0.0139136
5580.07	-0.0140459
5590.37	-0.0141366
5600.66	-0.014134
5610.96	-0.0140436
5621.25	-0.0138707
5631.55	-0.0136208
5641.84	-0.0132993
5652.14	-0.0129112
5662.44	-0.0124618
5670.16	-0.0120874
5680.45	-0.0115422
5690.75	-0.0109487
5701.04	-0.0103112
5711.34	-0.00963371
5721.63	-0.00892004
5731.93	-0.00817369
5742.22	-0.00739791
5752.52	-0.00659564
5760.24	-0.00597817
5770.54	-0.0051358
5780.83	-0.00427364
5791.13	-0.00339365
5801.42	-0.00249753
5811.72	-0.00158681
5822.01	-0.000662801
5832.31	0.000273361
5840.03	0.00098285
5850.33	0.00193795
5860.62	0.00290274
5870.92	0.00387651
5881.21	0.00485859
5891.51	0.00584838
5901.8	0.00684525
5912.1	0.00784859
5922.39	0.00885777
5930.11	0.00961808
5940.41	0.0106358
5950.71	0.0116574
5961	0.012682
5971.3	0.0137086
5981.59	0.0147363
5991.89	0.015764
6002.18	0.0167905
6012.48	0.0178146
6020.2	0.0185803
6030.49	0.019597
6040.79	0.0206076
6051.09	0.0216105
6061.38	0.0226043
6071.68	0.0235874
6081.97	0.0245585
6092.27	0.0255158
6102.56	0.0264579
6110.28	0.0271537
6120.58	0.0280657
6130.87	0.0289586
6141.17	0.0298309
6151.47	0.0306815
6161.76	0.0315092
6172.06	0.0323128
6182.35	0.0330913
6190.07	0.0336581
6200.37	0.0343906
6210.66	0.0350956
6220.96	0.0357727
6231.25	0.0364211
6241.55	0.0370405
6251.85	0.0376305
6262.14	0.0381908
6272.44	0.0387213
6280.16	0.0390995
6290.45	0.0395775
6300.75	0.0400255
6311.04	0.0404436
6321.34	0.040832
6331.63	0.0411908
6341.93	0.0415203
6352.23	0.0418208
6362.52	0.0420925
6370.24	0.0422776
6380.54	0.0424998
6390.83	0.0426942
6401.13	0.0428612
6411.42	0.0430012
6421.72	0.0431147
6432.01	0.0432019
6442.31	0.0432633
6450.03	0.0432927
6460.33	0.0433099
6470.62	0.0433024
6480.92	0.0432705
6491.21	0.0432147
6501.51	0.0431353
6511.8	0.0430326
6522.1	0.042907
6532.39	0.0427588
6540.12	0.0426329
6550.41	0.0424457
6560.71	0.0422365
6571	0.0420057
6581.3	0.0417532
6591.59	0.0414794
6601.89	0.0411843
6612.18	0.0408679
6622.48	0.0405302
6630.2	0.040263
6640.5	0.0398879
6650.79	0.0394914
6661.09	0.0390732
6671.38	0.0386329
6681.68	0.0381704
6691.97	0.0376851
6702.27	0.0371766
6712.56	0.0366444
6720.29	0.0362293
6730.58	0.035654
6740.88	0.035053
6751.17	0.0344256
6761.47	0.0337708
6771.76	0.0330876
6782.06	0.032375
6792.35	0.031632
6800.07	0.031054
6810.37	0.0302547
6820.66	0.0294216
6830.96	0.0285533
6841.26	0.0276485
6851.55	0.0267059
6861.85	0.025724
6872.14	0.0247015
6882.44	0.023637
6890.16	0.0228103
6900.45	0.0216691
6910.75	0.0204821
6921.04	0.0192483
6931.34	0.0179664
6941.64	0.0166352
6951.93	0.0152537
6962.23	0.0138211
6972.52	0.0123364
6980.24	0.0111884
6990.54	0.00961117
7000.83	0.00798035
7011.13	0.00629565
7021.43	0.00455692
7031.72	0.00276418
7042.02	0.000917616
7052.31	-0.000982396
7060.03	-0.00244216
7070.33	-0.00443429
7080.62	-0.00647794
7090.92	-0.00857205
7101.21	-0.0107154
7111.51	-0.0129066
7121.81	-0.015144
7132.1	-0.0174259
7142.4	-0.0197504
7150.12	-0.0215205
7160.41	-0.0239144
7170.71	-0.0263448
7181	-0.0288091
7191.3	-0.0313049
7201.59	-0.0338293
7211.89	-0.0363796
7222.19	-0.0389527
7232.48	-0.0415456
7240.2	-0.0435015
7250.5	-0.0461216
7260.79	-0.0487529
7271.09	-0.0513921
7281.38	-0.0540358
7291.68	-0.0566808
7301.97	-0.0593237
7312.27	-0.0619611
7322.56	-0.0645897
7330.29	-0.0665534
7340.58	-0.0691587
7350.88	-0.0717461
7361.17	-0.0743125
7371.47	-0.0768546
7381.76	-0.0793694
7392.06	-0.0818538
7402.35	-0.0843049
7410.07	-0.0861197
7420.37	-0.0885058
7430.67	-0.090851
7440.96	-0.0931527
7451.26	-0.0954085
7461.55	-0.0976161
7471.85	-0.0997733
7482.14	-0.101878
7492.44	-0.103928
7500.16	-0.105429
7510.45	-0.10738
7520.75	-0.109272
7531.04	-0.111104
7541.34	-0.112874
7551.64	-0.114582
7561.93	-0.116226
7572.23	-0.117806
7582.52	-0.11932
7590.24	-0.120413
7600.54	-0.121813
7610.83	-0.123147
7621.13	-0.124414
7631.42	-0.125615
7641.72	-0.12675
7652.01	-0.127819
7662.31	-0.128823
7670.03	-0.129533
7680.33	-0.130423
7690.62	-0.131249
7700.92	-0.132011
7711.21	-0.132711
7721.51	-0.133349
7731.8	-0.133927
7742.1	-0.134444
7752.39	-0.134903
7760.12	-0.135209
7770.41	-0.135567
7780.71	-0.135869
7791	-0.136117
7801.3	-0.136312
7811.59	-0.136454
7821.89	-0.136546
7832.18	-0.136588
7842.48	-0.136581
7850.2	-0.136545
7860.49	-0.136457
7870.79	-0.136324
7881.09	-0.136147
7891.38	-0.135927
7901.68	-0.135665
7911.97	-0.135364
7922.27	-0.135022
7932.56	-0.134643
7940.28	-0.134334
7950.58	-0.13389
7960.87	-0.13341
7971.17	-0.132895
7981.46	-0.132347
7991.76	-0.131766
8002.06	-0.131152
8012.35	-0.130507
8020.07	-0.130003
8030.37	-0.129304
8040.66	-0.128576
8050.96	-0.127818
8061.25	-0.127032
8071.55	-0.126218
8081.84	-0.125377
8092.14	-0.124509
8102.43	-0.123614
8110.16	-0.122926
8120.45	-0.121986
8130.75	-0.121021
8141.04	-0.120031
8151.34	-0.119018
8161.63	-0.11798
8171.93	-0.116919
8182.22	-0.115836
8192.52	-0.11473
8200.24	-0.113886
8210.54	-0.112743
8220.83	-0.111578
8231.13	-0.110393
8241.42	-0.109189
8251.72	-0.107965
8262.01	-0.106722
8272.31	-0.105461
8280.03	-0.104503
8290.33	-0.103212
8300.62	-0.101903
8310.92	-0.100578
8321.21	-0.0992364
8331.51	-0.0978795
8341.8	-0.0965074
8352.1	-0.0951204
8362.39	-0.0937186
8370.11	-0.0926578
8380.41	-0.0912309
8390.71	-0.0897897
8401	-0.0883342
8411.3	-0.0868645
8421.59	-0.0853804
8431.89	-0.0838817
8442.18	-0.0823681
8452.48	-0.0808394
8460.2	-0.0796826
8470.49	-0.0781262
8480.79	-0.0765533
8491.09	-0.0749632
8501.38	-0.0733553
8511.68	-0.0717287
8521.97	-0.0700828
8532.27	-0.0684166
8542.56	-0.0667294
8550.28	-0.0654495
8560.58	-0.0637231
8570.87	-0.061973
8581.17	-0.0601985
8591.47	-0.0583985
8601.76	-0.0565721
8612.06	-0.0547186
8622.35	-0.0528373
8630.07	-0.0514075
8640.37	-0.0494756
8650.66	-0.047514
8660.96	-0.0455223
8671.26	-0.0435001
8681.55	-0.0414472
8691.85	-0.0393635
8702.14	-0.037249
8712.44	-0.0351039
8720.16	-0.0334753
8730.45	-0.0312776
8740.75	-0.0290507
8751.04	-0.0267953
8761.34	-0.0245124
8771.64	-0.022203
8781.93	-0.0198686
8792.23	-0.0175104
8802.52	-0.0151302
8810.24	-0.0133315
8820.54	-0.0109169
8830.83	-0.00848534
8841.13	-0.00603898
8851.42	-0.00358007
8861.72	-0.00111096
8872.02	0.00136587
8882.31	0.00384787
8890.03	0.0057112
8900.33	0.0081959
8910.62	0.0106784
8920.92	0.0131559
8931.21	0.0156257
8941.51	0.0180849
8951.8	0.0205307
8962.1	0.0229603
8972.4	0.0253709
8980.12	0.0271648
8990.41	0.0295356
9000.71	0.0318801
9011	0.0341955
9021.3	0.0364794
9031.59	0.0387293
9041.89	0.0409429
9052.18	0.0431179
9062.48	0.0452521
9070.2	0.0468248
9080.5	0.0488829
9090.79	0.0508948
9101.09	0.0528589
9111.38	0.0547734
9121.68	0.056637
9131.97	0.058448
9142.27	0.0602054
9152.56	0.0619079
9160.29	0.0631482
9170.58	0.0647522
9180.88	0.0662986
9191.17	0.0677868
9201.47	0.069216
9211.76	0.0705857
9222.06	0.0718954
9232.35	0.0731447
9240.08	0.0740418
9250.37	0.0751847
9260.67	0.0762664
9270.96	0.077287
9281.26	0.0782463
9291.55	0.0791442
9301.85	0.0799809
9312.14	0.0807565
9322.44	0.081471
9330.16	0.0819669
9340.46	0.0825749
9350.75	0.0831224
9361.05	0.0836094
9371.34	0.0840364
9381.64	0.0844035
9391.93	0.0847109
9402.23	0.084959
9412.52	0.085148
9420.24	0.0852512
9430.54	0.0853374
9440.84	0.0853653
9451.13	0.0853352
9461.43	0.0852472
9471.72	0.0851018
9482.02	0.0848991
9492.31	0.0846396
9500.03	0.0844077
9510.33	0.0840493
9520.63	0.0836348
9530.92	0.0831646
9541.22	0.082639
9551.51	0.0820585
9561.81	0.0814235
9572.1	0.0807345
9582.4	0.0799919
9590.12	0.0794002
9600.41	0.0785653
9610.71	0.0776785
9621.01	0.0767406
9631.3	0.0757523
9641.6	0.0747145
9651.89	0.0736281
9662.19	0.0724943
9672.48	0.0713139
9680.2	0.070399
9690.5	0.0691404
9700.79	0.0678389
9711.09	0.066496
9721.39	0.0651133
9731.68	0.0636925
9741.98	0.0622352
9752.27	0.0607435
9762.57	0.0592192
9770.29	0.0580559
9780.58	0.0564797
9790.88	0.0548769
9801.18	0.0532499
9811.47	0.0516009
9821.77	0.0499326
9832.06	0.0482474
9842.36	0.0465481
9850.08	0.0452658
9860.37	0.043548
9870.67	0.0418235
9880.96	0.0400951
9891.26	0.0383655
9901.56	0.0366377
9911.85	0.0349144
9922.15	0.0331987
9932.44	0.0314932
9940.16	0.0302225
9950.46	0.0285418
9960.75	0.0268792
9971.05	0.0252373
9981.34	0.0236189
9991.64	0.0220266
10001.9	0.020463
10012.2	0.0189305
10022.5	0.0174316
10030.2	0.016331
10040.5	0.0148965
10050.8	0.0135018
10061.1	0.012149
10071.4	0.0108401
10081.7	0.00957686
10092	0.00836104
10102.3	0.00719426
10110	0.00635224
10120.3	0.00527475
10130.6	0.00425006
10140.9	0.00327929
10151.2	0.00236342
10161.5	0.00150328
10171.8	0.000699585
10182.1	-4.7118e-05
10192.4	-0.000736414
10200.1	-0.00121555
10210.4	-0.00180382
10220.7	-0.0023343
10231	-0.00280711
10241.3	-0.00322251
10251.6	-0.00358093
10261.9	-0.0038829
10272.2	-0.00412911
10282.5	-0.00432038
10290.2	-0.00442833
10300.5	-0.00452578
10310.8	-0.00457117
10321.1	-0.00456577
10331.4	-0.00451095
10341.7	-0.00440819
10352	-0.00425906
10362.3	-0.00406522
10372.6	-0.00382841
10380.3	-0.00362369
10390.6	-0.00331607
10400.9	-0.00297059
10411.2	-0.00258921
10421.5	-0.00217393
10431.8	-0.00172676
10442.1	-0.00124974
10452.4	-0.00074491
10460.1	-0.000349276
10470.4	0.000199288
10480.7	0.000770059
10491	0.00136104
10501.3	0.00197026
10511.6	0.0025958
10521.9	0.00323577
10532.1	0.00388836
10542.4	0.0045518
10550.2	0.00505546
10560.5	0.00573381
10570.8	0.00641849
10581.1	0.00710798
10591.3	0.00780084
10601.6	0.00849571
10611.9	0.0091913
10622.2	0.0098864
10632.5	0.0105799
10640.2	0.0110982
10650.5	0.0117863
10660.8	0.0124699
10671.1	0.0131483
10681.4	0.0138204
10691.7	0.0144856
10702	0.0151431
10712.3	0.0157922
10720	0.0162731
10730.3	0.0169058
10740.6	0.0175284
10750.9	0.0181401
10761.2	0.0187405
10771.5	0.0193288
10781.8	0.0199046
10792.1	0.0204672
10802.4	0.0210161
10810.1	0.0214183
10820.4	0.0219415
10830.7	0.0224493
10841	0.022941
10851.3	0.0234159
10861.6	0.0238734
10871.9	0.0243127
10882.2	0.0247331
10892.5	0.0251339
10900.2	0.0254212
10910.5	0.025786
10920.8	0.0261291
10931.1	0.0264498
10941.4	0.0267473
10951.7	0.027021
10962	0.02727
10972.3	0.0274937
10982.6	0.0276914
10990.3	0.0278222
11000.6	0.0279728
11010.9	0.0280957
11021.2	0.0281903
11031.5	0.0282562
11041.8	0.0282929
11052.1	0.0283001
11062.4	0.0282775
11070.1	0.0282408
11080.4	0.0281656
11090.7	0.0280601
11101	0.0279244
11111.3	0.0277586
11121.6	0.0275628
11131.9	0.0273374
11142.1	0.0270827
11152.4	0.0267991
11160.2	0.0265678
11170.5	0.026235
11180.8	0.025875
11191.1	0.0254887
11201.3	0.0250767
11211.6	0.0246401
11221.9	0.0241798
11232.2	0.0236968
11242.5	0.0231923
11250.3	0.0228005
11260.5	0.0222611
11270.8	0.0217034
11281.1	0.0211286
11291.4	0.0205381
11301.7	0.0199331
11312	0.0193149
11322.3	0.0186848
11330	0.0182052
11340.3	0.0175574
11350.6	0.0169011
11360.9	0.0162376
11371.2	0.015568
11381.5	0.0148935
11391.8	0.0142152
11402.1	0.0135341
11412.4	0.012851
11420.1	0.0123381
11430.4	0.0116539
11440.7	0.0109701
11451	0.0102874
11461.3	0.00960632
11471.6	0.0089275
11481.9	0.00825132
11492.2	0.00757815
11502.5	0.00690825
11510.2	0.0064081
11520.5	0.00574436
11530.8	0.00508424
11541.1	0.00442774
11551.4	0.00377477
11561.7	0.00312518
11572	0.00247878
11582.3	0.0018353
11592.6	0.00119446
11600.3	0.000715341
11610.6	7.82577e-05
11620.9	-0.000557198
11631.2	-0.00119143
11641.5	-0.00182485
11651.8	-0.00245787
11662.1	-0.00309089
11672.4	-0.00372431
11680.1	-0.00419985
11690.4	-0.00483481
11700.7	-0.00547107
11711	-0.00610888
11721.3	-0.00674845
11731.6	-0.0073899
11741.9	-0.00803331
11752.1	-0.00867868
11762.4	-0.00932592
11770.2	-0.00981248
11780.5	-0.0104626
11790.8	-0.0111138
11801.1	-0.0117659
11811.3	-0.0124184
11821.6	-0.0130705
11831.9	-0.0137217
11842.2	-0.0143713
11852.5	-0.0150183
11860.3	-0.0155013
11870.5	-0.0161416
11880.8	-0.0167766
11891.1	-0.0174052
11901.4	-0.0180262
11911.7	-0.0186385
11922	-0.0192406
11932.3	-0.0198314
11940	-0.0202661
11950.3	-0.0208337
11960.6	-0.0213861
11970.9	-0.0219221
11981.2	-0.0224402
11991.5	-0.0229391
12001.8	-0.0234175
12012.1	-0.0238742
12022.4	-0.0243079
12030.1	-0.0246175
12040.4	-0.0250084
12050.7	-0.0253733
12061	-0.0257114
12071.3	-0.0260217
12081.6	-0.0263037
12091.9	-0.0265565
12102.2	-0.0267798
12112.5	-0.0269732
12120.2	-0.0270983
12130.5	-0.0272386
12140.8	-0.0273484
12151.1	-0.027428
12161.4	-0.0274773
12171.7	-0.0274969
12182	-0.0274872
12192.3	-0.0274488
12202.6	-0.0273825
12210.3	-0.0273148
12220.6	-0.0272017
12230.9	-0.0270632
12241.2	-0.0269006
12251.5	-0.0267152
12261.8	-0.0265084
12272.1	-0.0262816
12282.4	-0.0260364
12290.1	-0.0258415
12300.4	-0.0255682
12310.7	-0.0252814
12321	-0.0249828
12331.3	-0.0246743
12341.6	-0.0243579
12351.9	-0.0240355
12362.1	-0.0237093
12372.4	-0.0233811
12380.2	-0.023135
12390.5	-0.0228084
12400.8	-0.0224855
12411.1	-0.0221683
12421.3	-0.0218589
12431.6	-0.0215591
12441.9	-0.021271
12452.2	-0.0209964
12462.5	-0.0207372
12470.3	-0.020554
12480.5	-0.020326
12490.8	-0.0201181
12501.1	-0.0199319
12511.4	-0.019769
12521.7	-0.0196307
12532	-0.0195184
12542.3	-0.0194334
12550	-0.0193883
12560.3	-0.0193536
12570.6	-0.0193492
12580.9	-0.0193757
12591.2	-0.0194339
12601.5	-0.0195245
12611.8	-0.0196479
12622.1	-0.0198046
12632.4	-0.0199948
12640.1	-0.0201595
12650.4	-0.0204085
12660.7	-0.0206912
12671	-0.0210072
12681.3	-0.0213564
12691.6	-0.0217382
12701.9	-0.0221522
12712.2	-0.0225976
12722.5	-0.0230737
12730.2	-0.0234505
12740.5	-0.0239782
12750.8	-0.0245339
12761.1	-0.0251166
12771.4	-0.025725
12781.7	-0.0263577
12792	-0.0270134
12802.3	-0.0276906
12812.6	-0.0283877
12820.3	-0.0289227
12830.6	-0.0296509
12840.9	-0.0303945
12851.2	-0.0311519
12861.5	-0.0319213
12871.8	-0.0327009
12882.1	-0.033489
12892.4	-0.0342837
12900.1	-0.034883
12910.4	-0.0356851
12920.7	-0.0364889
12931	-0.0372929
12941.3	-0.0380951
12951.6	-0.0388941
12961.9	-0.0396881
12972.2	-0.0404756
12982.4	-0.0412551
12990.2	-0.0418337
13000.5	-0.0425958
13010.8	-0.0433462
13021.1	-0.0440836
13031.4	-0.044807
13041.6	-0.0455152
13051.9	-0.0462073
13062.2	-0.0468825
13072.5	-0.0475401
13080.3	-0.0480213
13090.5	-0.0486465
13100.8	-0.0492525
13111.1	-0.049839
13121.4	-0.0504057
13131.7	-0.0509525
13142	-0.0514792
13152.3	-0.0519861
13160	-0.0523533
13170.3	-0.0528257
13180.6	-0.0532788
13190.9	-0.0537129
13201.2	-0.0541287
13211.5	-0.0545265
13221.8	-0.054907
13232.1	-0.0552709
13242.4	-0.0556189
13250.1	-0.05587
13260.4	-0.0561921
13270.7	-0.0565006
13281	-0.0567964
13291.3	-0.0570803
13301.6	-0.0573533
13311.9	-0.0576164
13322.2	-0.0578703
13332.5	-0.0581162
13340.2	-0.0582959
13350.5	-0.0585297
13360.8	-0.0587579
13371.1	-0.0589813
13381.4	-0.0592007
13391.7	-0.0594169
13402	-0.0596305
13412.3	-0.0598422
13420	-0.0600001
13430.3	-0.06021
13440.6	-0.0604194
13450.9	-0.0606287
13461.2	-0.0608384
13471.5	-0.0610487
13481.8	-0.0612597
13492.1	-0.0614715
13502.4	-0.0616842
13510.1	-0.0618442
13520.4	-0.0620581
13530.7	-0.0622724
13541	-0.0624869
13551.3	-0.0627011
13561.6	-0.0629147
13571.9	-0.063127
13582.2	-0.0633376
13592.4	-0.0635456
13600.2	-0.0636997
13610.5	-0.0639017
13620.8	-0.0640991
13631.1	-0.0642912
13641.4	-0.0644769
13651.6	-0.0646553
13661.9	-0.0648254
13672.2	-0.0649864
13682.5	-0.065137
13690.3	-0.0652427
13700.6	-0.0653729
13710.8	-0.06549
13721.1	-0.0655931
13731.4	-0.0656809
13741.7	-0.0657527
13752	-0.0658073
13762.3	-0.0658439
13770	-0.0658589
13780.3	-0.0658617
13790.6	-0.065844
13800.9	-0.0658051
13811.2	-0.0657441
13821.5	-0.0656604
13831.8	-0.0655533
13842.1	-0.0654224
13852.4	-0.065267
13860.1	-0.0651341
13870.4	-0.0649349
13880.7	-0.0647101
13891	-0.0644595
13901.3	-0.0641829
13911.6	-0.0638802
13921.9	-0.0635513
13932.2	-0.0631961
13942.5	-0.0628147
13950.2	-0.0625116
13960.5	-0.0620847
13970.8	-0.0616321
13981.1	-0.061154
13991.4	-0.0606508
14001.7	-0.0601228
14012	-0.0595705
14022.3	-0.0589943
14030	-0.0585467
14040.3	-0.0579299
14050.6	-0.0572906
14060.9	-0.0566295
14071.2	-0.0559471
14081.5	-0.0552441
14091.8	-0.0545212
14102.1	-0.053779
14112.4	-0.0530183
14120.1	-0.052436
14130.4	-0.0516444
14140.7	-0.0508362
14151	-0.0500121
14161.3	-0.0491729
14171.6	-0.0483191
14181.9	-0.0474517
14192.2	-0.0465712
14202.5	-0.0456784
14210.2	-0.0450012
14220.5	-0.0440887
14230.8	-0.0431658
14241.1	-0.0422332
14251.4	-0.0412917
14261.7	-0.0403419
14271.9	-0.0393845
14282.2	-0.0384202
14292.5	-0.0374497
14300.3	-0.0367181
14310.6	-0.0357382
14320.9	-0.0347538
14331.1	-0.0337657
14341.4	-0.0327744
14351.7	-0.0317806
14362	-0.030785
14372.3	-0.0297881
14380	-0.02904
14390.3	-0.0280425
14400.6	-0.0270455
14410.9	-0.0260496
14421.2	-0.0250555
14431.5	-0.0240639
14441.8	-0.0230752
14452.1	-0.0220902
14462.4	-0.0211095
14470.1	-0.0203771
14480.4	-0.0194053
14490.7	-0.0184394
14501	-0.0174801
14511.3	-0.0165279
14521.6	-0.0155835
14531.9	-0.0146474
14542.2	-0.0137201
14552.5	-0.0128022
14560.2	-0.0121203
14570.5	-0.0112202
14580.8	-0.010331
14591.1	-0.00945307
14601.4	-0.00858699
14611.7	-0.00773319
14622	-0.00689209
14632.3	-0.00606411
14640	-0.00545197
14650.3	-0.00464785
14660.6	-0.00385785
14670.9	-0.00308229
14681.2	-0.00232144
14691.5	-0.00157557
14701.8	-0.000844915
14712.1	-0.000129679
14722.4	0.000569961
14730.1	0.00108436
14740.4	0.00175637
14750.7	0.00241243
14761	0.00305248
14771.3	0.00367646
14781.6	0.00428436
14791.9	0.00487617
14802.2	0.00545193
14812.5	0.00601169
14820.2	0.00642104
14830.5	0.00695297
14840.8	0.00746914
14851.1	0.00796967
14861.4	0.00845472
14871.7	0.00892443
14882	0.00937899
14892.2	0.00981859
14902.5	0.0102434
14910.3	0.0105525
14920.6	0.010952
14930.9	0.0113373
14941.1	0.0117088
14951.4	0.0120665
14961.7	0.0124109
14972	0.0127421
14982.3	0.0130604
14990.1	0.0132909
15000.3	0.0135873
15010.6	0.0138716
15020.9	0.014144
15031.2	0.0144049
15041.5	0.0146546
15051.8	0.0148933
15062.1	0.0151213
15072.4	0.015339
15080.1	0.0154956
15090.4	0.0156959
15100.7	0.0158867
15111	0.0160683
15121.3	0.0162411
15131.6	0.0164053
15141.9	0.0165613
15152.2	0.0167095
15162.5	0.0168502
15170.2	0.0169509
15180.5	0.0170793
15190.8	0.0172011
15201.1	0.0173167
15211.4	0.0174264
15221.7	0.0175307
15232	0.0176298
15242.3	0.0177242
15250	0.0177922
15260.3	0.0178791
15270.6	0.0179624
15280.9	0.0180423
15291.2	0.0181191
15301.5	0.0181933
15311.8	0.0182652
15322.1	0.0183352
15332.4	0.0184035
15340.1	0.0184539
15350.4	0.0185202
15360.7	0.0185858
15371	0.018651
15381.3	0.0187159
15391.6	0.018781
15401.9	0.0188465
15412.2	0.0189126
15422.5	0.0189794
15430.2	0.0190302
15440.5	0.0190989
15450.8	0.0191688
15461.1	0.0192401
15471.4	0.0193128
15481.7	0.0193871
15492	0.0194629
15502.2	0.0195402
15512.5	0.0196191
15520.3	0.0196793
15530.6	0.0197607
15540.9	0.0198435
15551.2	0.0199274
15561.4	0.0200124
15571.7	0.0200983
15582	0.0201848
15592.3	0.0202718
15600.1	0.0203372
15610.3	0.0204243
15620.6	0.0205113
15630.9	0.0205976
15641.2	0.0206832
15651.5	0.0207677
15661.8	0.0208508
15672.1	0.0209321
15682.4	0.0210116
15690.1	0.0210697
15700.4	0.0211451
15710.7	0.0212177
15721	0.0212875
15731.3	0.0213541
15741.6	0.0214175
15751.9	0.0214773
15762.2	0.0215336
15772.5	0.0215861
15780.2	0.0216231
15790.5	0.021669
15800.8	0.0217111
15811.1	0.0217494
15821.4	0.021784
15831.7	0.0218149
15842	0.0218424
15852.3	0.0218664
15860	0.0218823
15870.3	0.0219009
15880.6	0.0219168
15890.9	0.0219301
15901.2	0.0219413
15911.5	0.0219506
15921.8	0.0219583
15932.1	0.0219649
15942.4	0.0219708
15950.1	0.0219749
15960.4	0.0219804
15970.7	0.0219863
15981	0.021993
15991.3	0.022001
16001.6	0.0220108
16011.9	0.0220228
16022.2	0.0220375
16032.5	0.0220554
16040.2	0.0220712
16050.5	0.0220959
16060.8	0.022125
16071.1	0.022159
16081.4	0.0221985
16091.7	0.0222438
16102	0.0222954
16112.3	0.0223538
16122.5	0.0224192
16130.3	0.0224732
16140.6	0.022552
16150.9	0.022639
16161.2	0.0227344
16171.4	0.0228385
16181.7	0.0229516
16192	0.023074
16202.3	0.0232058
16210.1	0.023311
16220.4	0.0234597
16230.6	0.0236183
16240.9	0.0237867
16251.2	0.023965
16261.5	0.0241531
16271.8	0.0243511
16282.1	0.0245587
16292.4	0.0247759
16300.1	0.0249449
16310.4	0.0251782
16320.7	0.0254203
16331	0.025671
16341.3	0.0259299
16351.6	0.0261964
16361.9	0.0264703
16372.2	0.0267509
16382.5	0.0270377
16390.2	0.0272565
16400.5	0.0275528
16410.8	0.0278536
16421.1	0.0281583
16431.4	0.0284662
16441.7	0.0287764
16452	0.0290884
16462.3	0.0294012
16470	0.029636
16480.3	0.0299485
16490.6	0.0302597
16500.9	0.0305688
16511.2	0.030875
16521.5	0.0311774
16531.8	0.0314754
16542.1	0.031768
16552.4	0.0320544
16560.1	0.0322649
16570.4	0.0325389
16580.7	0.0328048
16591	0.0330618
16601.3	0.0333095
16611.6	0.033547
16621.9	0.033774
16632.2	0.0339897
16642.5	0.0341939
16650.2	0.0343391
16660.5	0.0345218
16670.8	0.0346919
16681.1	0.034849
16691.4	0.0349929
16701.7	0.0351234
16712	0.0352405
16722.3	0.035344
16732.5	0.035434
16740.3	0.0354926
16750.6	0.0355591
16760.9	0.0356124
16771.2	0.0356526
16781.5	0.0356802
16791.7	0.0356952
16802	0.0356983
16812.3	0.0356896
16820.1	0.0356757
16830.4	0.0356478
16840.7	0.0356094
16850.9	0.0355613
16861.2	0.0355039
16871.5	0.0354378
16881.8	0.0353636
16892.1	0.0352819
16902.4	0.0351933
16910.1	0.0351228
16920.4	0.0350236
16930.7	0.0349192
16941	0.0348102
16951.3	0.034697
16961.6	0.0345803
16971.9	0.0344605
16982.2	0.034338
16992.5	0.0342133
17000.2	0.0341185
17010.5	0.0339907
17020.8	0.0338616
17031.1	0.0337312
17041.4	0.0335998
17051.7	0.0334675
17062	0.033334
17072.3	0.0331995
17080	0.0330978
17090.3	0.0329608
17100.6	0.032822
17110.9	0.032681
17121.2	0.0325372
17131.5	0.0323901
17141.8	0.0322388
17152.1	0.0320828
17162.4	0.0319209
17170.1	0.0317952
17180.4	0.0316208
17190.7	0.0314378
17201	0.0312449
17211.3	0.0310408
17221.6	0.030824
17231.9	0.0305931
17242.2	0.0303465
17252.5	0.0300827
17260.2	0.0298724
17270.5	0.0295742
17280.8	0.0292539
17291.1	0.0289097
17301.4	0.0285397
17311.7	0.0281419
17322	0.0277145
17332.3	0.0272555
17342.6	0.0267629
17350.3	0.0263702
17360.6	0.0258142
17370.9	0.0252192
17381.2	0.0245833
17391.5	0.0239047
17401.7	0.0231815
17412	0.022412
17422.3	0.0215945
17430.1	0.0209488
17440.4	0.0200434
17450.7	0.0190856
17460.9	0.0180742
17471.2	0.0170079
17481.5	0.0158856
17491.8	0.0147062
17502.1	0.013469
17512.4	0.0121733
17520.1	0.0111628
17530.4	0.0097634
17540.7	0.00830445
17551	0.00678584
17561.3	0.00520773
17571.6	0.00357045
17581.9	0.00187451
17592.2	0.000120658
17602.5	-0.00169018
17610.2	-0.00308501
17620.5	-0.00499267
17630.8	-0.00695364
17641.1	-0.0089662
17651.4	-0.0110284
17661.7	-0.013138
17672	-0.0152928
17682.3	-0.0174901
17690	-0.0191643
17700.3	-0.0214292
17710.6	-0.0237285
17720.9	-0.0260589
17731.2	-0.0284168
17741.5	-0.0307987
17751.8	-0.0332005
17762.1	-0.0356185
17772.4	-0.0380483
17780.1	-0.0398759
17790.4	-0.0423162
17800.7	-0.0447562
17811	-0.0471915
17821.3	-0.0496173
17831.6	-0.0520289
17841.9	-0.0544215
17852.2	-0.0567901
17862.5	-0.0591299
17870.2	-0.0608629
17880.5	-0.0631404
17890.8	-0.0653756
17901.1	-0.0675636
17911.4	-0.0696996
17921.7	-0.0717788
17932	-0.0737966
17942.3	-0.0757482
17952.6	-0.0776293
17960.3	-0.0789912
17970.6	-0.0807384
17980.9	-0.0824034
17991.2	-0.0839822
18001.5	-0.0854711
18011.8	-0.0868665
18022	-0.088165
18032.3	-0.0893635
18040.1	-0.090195
18050.4	-0.0912115
18060.7	-0.0921204
18071	-0.0929196
18081.2	-0.093607
18091.5	-0.0941808
18101.8	-0.0946397
18112.1	-0.0949823
18122.4	-0.0952079
18130.2	-0.0952998
18140.4	-0.095319
18150.7	-0.0952202
18161	-0.0950033
18171.3	-0.0946688
18181.6	-0.0942175
18191.9	-0.0936503
18202.2	-0.0929685
18212.5	-0.0921736
18220.2	-0.0915043
18230.5	-0.0905159
18240.8	-0.08942
18251.1	-0.0882191
18261.4	-0.0869157
18271.7	-0.0855128
18282	-0.0840136
18292.3	-0.0824213
18300	-0.0811682
18310.3	-0.0794216
18320.6	-0.077592
18330.9	-0.0756833
18341.2	-0.0736996
18351.5	-0.0716451
18361.8	-0.0695241
18372.1	-0.067341
18382.4	-0.0651003
18390.1	-0.0633846
18400.4	-0.0610539
18410.7	-0.0586781
18421	-0.0562619
18431.3	-0.0538098
18441.6	-0.0513266
18451.9	-0.0488167
18462.2	-0.0462849
18472.5	-0.0437356
18480.2	-0.0418148
18490.5	-0.0392457
18500.8	-0.0366712
18511.1	-0.0340955
18521.4	-0.031523
18531.7	-0.0289575
18542	-0.026403
18552.3	-0.0238634
18562.6	-0.0213422
18570.3	-0.0194656
18580.6	-0.0169851
18590.9	-0.0145323
18601.2	-0.0121105
18611.5	-0.00972236
18621.8	-0.0073708
18632.1	-0.00505835
18642.3	-0.00278743
18650.1	-0.00111285
18660.4	0.00108012
18670.7	0.00322584
18681	0.00532257
18691.3	0.00736872
18701.5	0.00936292
18711.8	0.0113039
18722.1	0.0131907
18732.4	0.0150224
18740.2	0.0163596
18750.4	0.0180933
18760.7	0.0197703
18771	0.0213903
18781.3	0.0229533
18791.6	0.0244592
18801.9	0.0259083
18812.2	0.0273008
18822.5	0.0286372
18830.2	0.0296029
18840.5	0.0308424
18850.8	0.0320275
18861.1	0.0331592
18871.4	0.0342382
18881.7	0.0352658
18892	0.036243
18902.3	0.037171
18910	0.0378355
18920.3	0.0386806
18930.6	0.0394801
18940.9	0.0402356
18951.2	0.0409484
18961.5	0.0416201
18971.8	0.0422523
18982.1	0.0428466
18992.4	0.0434044
19000.1	0.0437998
19010.4	0.0442979
19020.7	0.0447639
19031	0.0451995
19041.3	0.0456064
19051.6	0.0459861
19061.9	0.0463401
19072.2	0.0466699
19082.5	0.0469772
19090.2	0.0471937
19100.5	0.0474648
19110.8	0.0477173
19121.1	0.0479524
19131.4	0.0481714
19141.7	0.0483757
19152	0.0485663
19162.3	0.0487444
19172.6	0.0489112
19180.3	0.0490293
19190.6	0.0491785
19200.9	0.0493189
19211.2	0.0494513
19221.5	0.0495766
19231.8	0.0496954
19242.1	0.0498084
19252.4	0.0499161
19260.1	0.0499938
19270.4	0.0500935
19280.7	0.0501892
19291	0.0502812
19301.3	0.0503699
19311.5	0.0504553
19321.8	0.0505376
19332.1	0.0506171
19342.4	0.0506936
19350.2	0.050749
19360.5	0.0508204
19370.7	0.0508887
19381	0.0509537
19391.3	0.0510154
19401.6	0.0510735
19411.9	0.0511277
19422.2	0.0511777
19432.5	0.0512233
19440.2	0.0512543
19450.5	0.0512911
19460.8	0.0513225
19471.1	0.0513479
19481.4	0.0513669
19491.7	0.0513792
19502	0.0513842
19512.3	0.0513816
19520	0.0513742
19530.3	0.051357
19540.6	0.0513308
19550.9	0.0512951
19561.2	0.0512496
19571.5	0.0511937
19581.8	0.051127
19592.1	0.0510492
19602.4	0.0509597
19610.1	0.0508847
19620.4	0.0507739
19630.7	0.0506505
19641	0.050514
19651.3	0.0503642
19661.6	0.0502006
19671.9	0.0500231
19682.2	0.0498314
19692.5	0.0496253
19700.2	0.049461
19710.5	0.049229
19720.8	0.0489821
19731.1	0.04872
19741.4	0.0484427
19751.7	0.04815
19762	0.047842
19772.3	0.0475185
19782.6	0.0471796
19790.3	0.0469153
19800.6	0.0465495
19810.9	0.0461684
19821.2	0.0457721
19831.5	0.0453608
19841.8	0.0449346
19852.1	0.0444936
19862.4	0.0440381
19870.1	0.0436871
19880.4	0.0432069
19890.7	0.0427128
19901	0.0422053
19911.3	0.0416846
19921.5	0.0411511
19931.8	0.0406053
19942.1	0.0400474
19952.4	0.039478
19960.2	0.0390436
19970.5	0.0384551
19980.7	0.0378563
19991	0.0372477
