MODE: ipmo_prog0
PARCOUNT: 13
PROBLEMS: 1
Running on INWEST
Using iPMO

Programs:
 + ../../build/sierpi_intel_ipmo_tsunami_parallel_release  -u 10 -U 10 -T 1000 -n 4 -d 14
 + ../../build/sierpi_intel_ipmo_tsunami_parallel_release  -u 10 -U 10 -T 1000 -n 4 -d 14
 + ../../build/sierpi_intel_ipmo_tsunami_parallel_release  -u 10 -U 10 -T 1000 -n 4 -d 12
 + ../../build/sierpi_intel_ipmo_tsunami_parallel_release  -u 10 -U 10 -T 1000 -n 4 -d 12
 + ../../build/sierpi_intel_ipmo_tsunami_parallel_release  -u 10 -U 10 -T 1000 -n 4 -d 12
 + ../../build/sierpi_intel_ipmo_tsunami_parallel_release  -u 10 -U 10 -T 1000 -n 4 -d 12
 + ../../build/sierpi_intel_ipmo_tsunami_parallel_release  -u 10 -U 10 -T 1000 -n 4 -d 12
 + ../../build/sierpi_intel_ipmo_tsunami_parallel_release  -u 10 -U 10 -T 1000 -n 4 -d 12
 + ../../build/sierpi_intel_ipmo_tsunami_parallel_release  -u 10 -U 10 -T 1000 -n 4 -d 12
 + ../../build/sierpi_intel_ipmo_tsunami_parallel_release  -u 10 -U 10 -T 1000 -n 4 -d 12

Sun Apr  1 21:42:33 CEST 2012
iPMO: Prog0 parallel execution with ipmo (13 times)
Waiting for job 44489
44490: CHANGING RESSOURCES
44490: CHANGING RESSOURCES
44495: CHANGING RESSOURCES
44496: CHANGING RESSOURCES
44500: CHANGING RESSOURCES
44494: CHANGING RESSOURCES
44489: CHANGING RESSOURCES
44492: CHANGING RESSOURCES
44491: CHANGING RESSOURCES
44493: CHANGING RESSOURCES
44498: CHANGING RESSOURCES
44499: CHANGING RESSOURCES
44497: CHANGING RESSOURCES

 + Terminating after 1000 timesteps with equal number of triangles -> EXIT
 + Final timestep: 59579

59580 TS (Timesteps)
3022.12 ST (SIMULATION_TIME)
0.0500175 TSS (Timestep size)
1873.71 SFS (Overall seconds for Simulation)
20954211547 TP (Triangles processed)
0.0314487 ASPT (Averaged Seconds per Timestep)
351699 TPST (Triangles Processed in Average per Simulation Timestep)
95.0841 PPST (Partitions Processed in Average per Simulation Timestep)
11.1833 MTPS (Million Triangles per Second)
-11.1833 MTPSPT (Million Triangles per Second per Thread)
10.733 EDMBPT (ElementData Megabyte per Timestep (RW))
341.286 EDMBPS (ElementData Megabyte per Second (RW))
SUM CLIENT SHUTDOWN HINT: 20954.2
SUM CLIENT SHUTDOWN HINT DIV TIME: 0
44497: CHANGING RESSOURCES
44496: CHANGING RESSOURCES
44491: CHANGING RESSOURCES
44494: CHANGING RESSOURCES

 + Terminating after 1000 timesteps with equal number of triangles -> EXIT
 + Final timestep: 59579

59580 TS (Timesteps)
3022.12 ST (SIMULATION_TIME)
0.0500175 TSS (Timestep size)
2134.25 SFS (Overall seconds for Simulation)
20954211547 TP (Triangles processed)
0.0358217 ASPT (Averaged Seconds per Timestep)
351699 TPST (Triangles Processed in Average per Simulation Timestep)
95.0841 PPST (Partitions Processed in Average per Simulation Timestep)
9.81805 MTPS (Million Triangles per Second)
-9.81805 MTPSPT (Million Triangles per Second per Thread)
10.733 EDMBPT (ElementData Megabyte per Timestep (RW))
299.623 EDMBPS (ElementData Megabyte per Second (RW))
SUM CLIENT SHUTDOWN HINT: 41908.4
SUM CLIENT SHUTDOWN HINT DIV TIME: 0
44489: CHANGING RESSOURCES
44492: CHANGING RESSOURCES
44495: CHANGING RESSOURCES
44501: CHANGING RESSOURCES

 + Terminating after 1000 timesteps with equal number of triangles -> EXIT
 + Final timestep: 59579

59580 TS (Timesteps)
3022.12 ST (SIMULATION_TIME)
0.0500175 TSS (Timestep size)
2225.56 SFS (Overall seconds for Simulation)
20954211547 TP (Triangles processed)
0.0373542 ASPT (Averaged Seconds per Timestep)
351699 TPST (Triangles Processed in Average per Simulation Timestep)
95.0841 PPST (Partitions Processed in Average per Simulation Timestep)
9.41523 MTPS (Million Triangles per Second)
-9.41523 MTPSPT (Million Triangles per Second per Thread)
10.733 EDMBPT (ElementData Megabyte per Timestep (RW))
287.33 EDMBPS (ElementData Megabyte per Second (RW))
SUM CLIENT SHUTDOWN HINT: 62862.6
SUM CLIENT SHUTDOWN HINT DIV TIME: 0
44500: CHANGING RESSOURCES
44490: CHANGING RESSOURCES
44499: CHANGING RESSOURCES

 + Terminating after 1000 timesteps with equal number of triangles -> EXIT
 + Final timestep: 59579

59580 TS (Timesteps)
3022.12 ST (SIMULATION_TIME)
0.0500175 TSS (Timestep size)
2230.45 SFS (Overall seconds for Simulation)
20954211547 TP (Triangles processed)
0.0374363 ASPT (Averaged Seconds per Timestep)
351699 TPST (Triangles Processed in Average per Simulation Timestep)
95.0841 PPST (Partitions Processed in Average per Simulation Timestep)
9.39459 MTPS (Million Triangles per Second)
-9.39459 MTPSPT (Million Triangles per Second per Thread)
10.733 EDMBPT (ElementData Megabyte per Timestep (RW))
286.7 EDMBPS (ElementData Megabyte per Second (RW))
SUM CLIENT SHUTDOWN HINT: 83816.8
SUM CLIENT SHUTDOWN HINT DIV TIME: 0
44500: CHANGING RESSOURCES
44497: CHANGING RESSOURCES
44499: CHANGING RESSOURCES
44496: CHANGING RESSOURCES

 + Terminating after 1000 timesteps with equal number of triangles -> EXIT
 + Final timestep: 59579

59580 TS (Timesteps)
3022.12 ST (SIMULATION_TIME)
0.0500175 TSS (Timestep size)
2244.69 SFS (Overall seconds for Simulation)
20954211547 TP (Triangles processed)
0.0376752 ASPT (Averaged Seconds per Timestep)
351699 TPST (Triangles Processed in Average per Simulation Timestep)
95.0841 PPST (Partitions Processed in Average per Simulation Timestep)
9.33503 MTPS (Million Triangles per Second)
-9.33503 MTPSPT (Million Triangles per Second per Thread)
10.733 EDMBPT (ElementData Megabyte per Timestep (RW))
284.883 EDMBPS (ElementData Megabyte per Second (RW))
SUM CLIENT SHUTDOWN HINT: 104771
SUM CLIENT SHUTDOWN HINT DIV TIME: 0
44495: CHANGING RESSOURCES
44492: CHANGING RESSOURCES
44489: CHANGING RESSOURCES
44491: CHANGING RESSOURCES

 + Terminating after 1000 timesteps with equal number of triangles -> EXIT
 + Final timestep: 59579

59580 TS (Timesteps)
3022.12 ST (SIMULATION_TIME)
0.0500175 TSS (Timestep size)
2278.66 SFS (Overall seconds for Simulation)
20954211547 TP (Triangles processed)
0.0382454 ASPT (Averaged Seconds per Timestep)
351699 TPST (Triangles Processed in Average per Simulation Timestep)
95.0841 PPST (Partitions Processed in Average per Simulation Timestep)
9.19584 MTPS (Million Triangles per Second)
-9.19584 MTPSPT (Million Triangles per Second per Thread)
10.733 EDMBPT (ElementData Megabyte per Timestep (RW))
280.635 EDMBPS (ElementData Megabyte per Second (RW))
SUM CLIENT SHUTDOWN HINT: 125725
SUM CLIENT SHUTDOWN HINT DIV TIME: 0
44499: CHANGING RESSOURCES
44489: CHANGING RESSOURCES
44491: CHANGING RESSOURCES
44500: CHANGING RESSOURCES
44497: CHANGING RESSOURCES

 + Terminating after 1000 timesteps with equal number of triangles -> EXIT
 + Final timestep: 59579

59580 TS (Timesteps)
3022.12 ST (SIMULATION_TIME)
0.0500175 TSS (Timestep size)
2328.97 SFS (Overall seconds for Simulation)
20954211547 TP (Triangles processed)
0.0390898 ASPT (Averaged Seconds per Timestep)
351699 TPST (Triangles Processed in Average per Simulation Timestep)
95.0841 PPST (Partitions Processed in Average per Simulation Timestep)
8.99721 MTPS (Million Triangles per Second)
-8.99721 MTPSPT (Million Triangles per Second per Thread)
10.733 EDMBPT (ElementData Megabyte per Timestep (RW))
274.573 EDMBPS (ElementData Megabyte per Second (RW))
SUM CLIENT SHUTDOWN HINT: 146679
SUM CLIENT SHUTDOWN HINT DIV TIME: 0
44499: CHANGING RESSOURCES
44495: CHANGING RESSOURCES
44500: CHANGING RESSOURCES
44497: CHANGING RESSOURCES
44492: CHANGING RESSOURCES
Waiting for job 44490
Waiting for job 44491

 + Terminating after 1000 timesteps with equal number of triangles -> EXIT
 + Final timestep: 59579

59580 TS (Timesteps)
3022.12 ST (SIMULATION_TIME)
0.0500175 TSS (Timestep size)
2335.64 SFS (Overall seconds for Simulation)
20954211547 TP (Triangles processed)
0.0392017 ASPT (Averaged Seconds per Timestep)
351699 TPST (Triangles Processed in Average per Simulation Timestep)
95.0841 PPST (Partitions Processed in Average per Simulation Timestep)
8.97151 MTPS (Million Triangles per Second)
-8.97151 MTPSPT (Million Triangles per Second per Thread)
10.733 EDMBPT (ElementData Megabyte per Timestep (RW))
273.789 EDMBPS (ElementData Megabyte per Second (RW))
SUM CLIENT SHUTDOWN HINT: 167634
SUM CLIENT SHUTDOWN HINT DIV TIME: 0
44497: CHANGING RESSOURCES
44500: CHANGING RESSOURCES
44495: CHANGING RESSOURCES
44499: CHANGING RESSOURCES

 + Terminating after 1000 timesteps with equal number of triangles -> EXIT
 + Final timestep: 59579

59580 TS (Timesteps)
3022.12 ST (SIMULATION_TIME)
0.0500175 TSS (Timestep size)
2338.65 SFS (Overall seconds for Simulation)
20954211547 TP (Triangles processed)
0.0392522 ASPT (Averaged Seconds per Timestep)
351699 TPST (Triangles Processed in Average per Simulation Timestep)
95.0841 PPST (Partitions Processed in Average per Simulation Timestep)
8.95997 MTPS (Million Triangles per Second)
-8.95997 MTPSPT (Million Triangles per Second per Thread)
10.733 EDMBPT (ElementData Megabyte per Timestep (RW))
273.437 EDMBPS (ElementData Megabyte per Second (RW))
SUM CLIENT SHUTDOWN HINT: 188588
SUM CLIENT SHUTDOWN HINT DIV TIME: 0
44500: CHANGING RESSOURCES
44491: CHANGING RESSOURCES
44499: CHANGING RESSOURCES
44495: CHANGING RESSOURCES

 + Terminating after 1000 timesteps with equal number of triangles -> EXIT
 + Final timestep: 59579

59580 TS (Timesteps)
3022.12 ST (SIMULATION_TIME)
0.0500175 TSS (Timestep size)
2339.97 SFS (Overall seconds for Simulation)
20954211547 TP (Triangles processed)
0.0392744 ASPT (Averaged Seconds per Timestep)
351699 TPST (Triangles Processed in Average per Simulation Timestep)
95.0841 PPST (Partitions Processed in Average per Simulation Timestep)
8.95491 MTPS (Million Triangles per Second)
-8.95491 MTPSPT (Million Triangles per Second per Thread)
10.733 EDMBPT (ElementData Megabyte per Timestep (RW))
273.282 EDMBPS (ElementData Megabyte per Second (RW))
SUM CLIENT SHUTDOWN HINT: 209542
SUM CLIENT SHUTDOWN HINT DIV TIME: 0
44495: CHANGING RESSOURCES
44499: CHANGING RESSOURCES
44500: CHANGING RESSOURCES
Waiting for job 44492
Waiting for job 44493
Waiting for job 44494
Waiting for job 44495

 + Terminating after 1000 timesteps with equal number of triangles -> EXIT
 + Final timestep: 59579

59580 TS (Timesteps)
3022.12 ST (SIMULATION_TIME)
0.0500175 TSS (Timestep size)
2340.22 SFS (Overall seconds for Simulation)
20954211547 TP (Triangles processed)
0.0392786 ASPT (Averaged Seconds per Timestep)
351699 TPST (Triangles Processed in Average per Simulation Timestep)
95.0841 PPST (Partitions Processed in Average per Simulation Timestep)
8.95395 MTPS (Million Triangles per Second)
-8.95395 MTPSPT (Million Triangles per Second per Thread)
10.733 EDMBPT (ElementData Megabyte per Timestep (RW))
273.253 EDMBPS (ElementData Megabyte per Second (RW))
SUM CLIENT SHUTDOWN HINT: 230496
SUM CLIENT SHUTDOWN HINT DIV TIME: 0
44500: CHANGING RESSOURCES
44495: CHANGING RESSOURCES

 + Terminating after 1000 timesteps with equal number of triangles -> EXIT
 + Final timestep: 59579

59580 TS (Timesteps)
3022.12 ST (SIMULATION_TIME)
0.0500175 TSS (Timestep size)
2342.84 SFS (Overall seconds for Simulation)
20954211547 TP (Triangles processed)
0.0393226 ASPT (Averaged Seconds per Timestep)
351699 TPST (Triangles Processed in Average per Simulation Timestep)
95.0841 PPST (Partitions Processed in Average per Simulation Timestep)
8.94394 MTPS (Million Triangles per Second)
-8.94394 MTPSPT (Million Triangles per Second per Thread)
10.733 EDMBPT (ElementData Megabyte per Timestep (RW))
272.947 EDMBPS (ElementData Megabyte per Second (RW))
SUM CLIENT SHUTDOWN HINT: 251451
SUM CLIENT SHUTDOWN HINT DIV TIME: 0
44495: CHANGING RESSOURCES

 + Terminating after 1000 timesteps with equal number of triangles -> EXIT
 + Final timestep: 59579

59580 TS (Timesteps)
3022.12 ST (SIMULATION_TIME)
0.0500175 TSS (Timestep size)
2349.56 SFS (Overall seconds for Simulation)
20954211547 TP (Triangles processed)
0.0394354 ASPT (Averaged Seconds per Timestep)
351699 TPST (Triangles Processed in Average per Simulation Timestep)
95.0841 PPST (Partitions Processed in Average per Simulation Timestep)
8.91835 MTPS (Million Triangles per Second)
-8.91835 MTPSPT (Million Triangles per Second per Thread)
10.733 EDMBPT (ElementData Megabyte per Timestep (RW))
272.166 EDMBPS (ElementData Megabyte per Second (RW))
SUM CLIENT SHUTDOWN HINT: 272405
SUM CLIENT SHUTDOWN HINT DIV TIME: 115.947
Waiting for job 44496
Waiting for job 44497
Waiting for job 44498
Waiting for job 44499
Waiting for job 44500
Waiting for job 44501
Sun Apr  1 22:21:43 CEST 2012
Seconds: 2350
