MODE: ipmo_prog0
PARCOUNT: 26
PROBLEMS: 1
Running on INWEST
Using iPMO

Programs:
 + ../../build/sierpi_intel_ipmo_tsunami_parallel_release  -u 10 -U 10 -T 1000 -n 4 -d 14
 + ../../build/sierpi_intel_ipmo_tsunami_parallel_release  -u 10 -U 10 -T 1000 -n 4 -d 14
 + ../../build/sierpi_intel_ipmo_tsunami_parallel_release  -u 10 -U 10 -T 1000 -n 4 -d 12
 + ../../build/sierpi_intel_ipmo_tsunami_parallel_release  -u 10 -U 10 -T 1000 -n 4 -d 12
 + ../../build/sierpi_intel_ipmo_tsunami_parallel_release  -u 10 -U 10 -T 1000 -n 4 -d 12
 + ../../build/sierpi_intel_ipmo_tsunami_parallel_release  -u 10 -U 10 -T 1000 -n 4 -d 12
 + ../../build/sierpi_intel_ipmo_tsunami_parallel_release  -u 10 -U 10 -T 1000 -n 4 -d 12
 + ../../build/sierpi_intel_ipmo_tsunami_parallel_release  -u 10 -U 10 -T 1000 -n 4 -d 12
 + ../../build/sierpi_intel_ipmo_tsunami_parallel_release  -u 10 -U 10 -T 1000 -n 4 -d 12
 + ../../build/sierpi_intel_ipmo_tsunami_parallel_release  -u 10 -U 10 -T 1000 -n 4 -d 12

Mon Apr  2 09:56:36 CEST 2012
iPMO: Prog0 parallel execution with ipmo (26 times)
Waiting for job 65324
65346: CHANGING RESSOURCES
65346: CHANGING RESSOURCES
65345: CHANGING RESSOURCES
65330: CHANGING RESSOURCES
65344: CHANGING RESSOURCES
65328: CHANGING RESSOURCES
65325: CHANGING RESSOURCES
65324: CHANGING RESSOURCES
65338: CHANGING RESSOURCES
65326: CHANGING RESSOURCES
65332: CHANGING RESSOURCES
65342: CHANGING RESSOURCES
65325: CHANGING RESSOURCES
65336: CHANGING RESSOURCES
65338: CHANGING RESSOURCES
65328: CHANGING RESSOURCES
65346: CHANGING RESSOURCES
65344: CHANGING RESSOURCES
65324: CHANGING RESSOURCES
65330: CHANGING RESSOURCES
65336: CHANGING RESSOURCES
65327: CHANGING RESSOURCES
65345: CHANGING RESSOURCES
65329: CHANGING RESSOURCES
65333: CHANGING RESSOURCES
65337: CHANGING RESSOURCES
65341: CHANGING RESSOURCES
65335: CHANGING RESSOURCES
65331: CHANGING RESSOURCES
65347: CHANGING RESSOURCES
65348: CHANGING RESSOURCES
65340: CHANGING RESSOURCES
65334: CHANGING RESSOURCES
65343: CHANGING RESSOURCES
65339: CHANGING RESSOURCES
65349: CHANGING RESSOURCES

 + Terminating after 1000 timesteps with equal number of triangles -> EXIT
 + Final timestep: 59579

59580 TS (Timesteps)
3022.12 ST (SIMULATION_TIME)
0.0500175 TSS (Timestep size)
3245.65 SFS (Overall seconds for Simulation)
20954211547 TP (Triangles processed)
0.0544755 ASPT (Averaged Seconds per Timestep)
351699 TPST (Triangles Processed in Average per Simulation Timestep)
95.0841 PPST (Partitions Processed in Average per Simulation Timestep)
6.45609 MTPS (Million Triangles per Second)
-6.45609 MTPSPT (Million Triangles per Second per Thread)
10.733 EDMBPT (ElementData Megabyte per Timestep (RW))
197.024 EDMBPS (ElementData Megabyte per Second (RW))
SUM CLIENT SHUTDOWN HINT: 20954.2
SUM CLIENT SHUTDOWN HINT DIV TIME: 0
65329: CHANGING RESSOURCES
65345: CHANGING RESSOURCES
65336: CHANGING RESSOURCES
65339: CHANGING RESSOURCES

 + Terminating after 1000 timesteps with equal number of triangles -> EXIT
 + Final timestep: 59579

59580 TS (Timesteps)
3022.12 ST (SIMULATION_TIME)
0.0500175 TSS (Timestep size)
3313 SFS (Overall seconds for Simulation)
20954211547 TP (Triangles processed)
0.0556059 ASPT (Averaged Seconds per Timestep)
351699 TPST (Triangles Processed in Average per Simulation Timestep)
95.0841 PPST (Partitions Processed in Average per Simulation Timestep)
6.32485 MTPS (Million Triangles per Second)
-6.32485 MTPSPT (Million Triangles per Second per Thread)
10.733 EDMBPT (ElementData Megabyte per Timestep (RW))
193.019 EDMBPS (ElementData Megabyte per Second (RW))
SUM CLIENT SHUTDOWN HINT: 41908.4
SUM CLIENT SHUTDOWN HINT DIV TIME: 0
65333: CHANGING RESSOURCES
65349: CHANGING RESSOURCES
65330: CHANGING RESSOURCES
65348: CHANGING RESSOURCES

 + Terminating after 1000 timesteps with equal number of triangles -> EXIT
 + Final timestep: 59579

59580 TS (Timesteps)
3022.12 ST (SIMULATION_TIME)
0.0500175 TSS (Timestep size)
3339.24 SFS (Overall seconds for Simulation)
20954211547 TP (Triangles processed)
0.0560463 ASPT (Averaged Seconds per Timestep)
351699 TPST (Triangles Processed in Average per Simulation Timestep)
95.0841 PPST (Partitions Processed in Average per Simulation Timestep)
6.27515 MTPS (Million Triangles per Second)
-6.27515 MTPSPT (Million Triangles per Second per Thread)
10.733 EDMBPT (ElementData Megabyte per Timestep (RW))
191.502 EDMBPS (ElementData Megabyte per Second (RW))
SUM CLIENT SHUTDOWN HINT: 62862.6
SUM CLIENT SHUTDOWN HINT DIV TIME: 0
65344: CHANGING RESSOURCES
65337: CHANGING RESSOURCES
65335: CHANGING RESSOURCES
65345: CHANGING RESSOURCES

 + Terminating after 1000 timesteps with equal number of triangles -> EXIT
 + Final timestep: 59579

59580 TS (Timesteps)
3022.12 ST (SIMULATION_TIME)
0.0500175 TSS (Timestep size)
3347.48 SFS (Overall seconds for Simulation)
20954211547 TP (Triangles processed)
0.0561846 ASPT (Averaged Seconds per Timestep)
351699 TPST (Triangles Processed in Average per Simulation Timestep)
95.0841 PPST (Partitions Processed in Average per Simulation Timestep)
6.2597 MTPS (Million Triangles per Second)
-6.2597 MTPSPT (Million Triangles per Second per Thread)
10.733 EDMBPT (ElementData Megabyte per Timestep (RW))
191.031 EDMBPS (ElementData Megabyte per Second (RW))
SUM CLIENT SHUTDOWN HINT: 83816.8
SUM CLIENT SHUTDOWN HINT DIV TIME: 0
65341: CHANGING RESSOURCES
65343: CHANGING RESSOURCES
65328: CHANGING RESSOURCES
65330: CHANGING RESSOURCES

 + Terminating after 1000 timesteps with equal number of triangles -> EXIT
 + Final timestep: 59579

59580 TS (Timesteps)
3022.12 ST (SIMULATION_TIME)
0.0500175 TSS (Timestep size)
3450.73 SFS (Overall seconds for Simulation)
20954211547 TP (Triangles processed)
0.0579176 ASPT (Averaged Seconds per Timestep)
351699 TPST (Triangles Processed in Average per Simulation Timestep)
95.0841 PPST (Partitions Processed in Average per Simulation Timestep)
6.0724 MTPS (Million Triangles per Second)
-6.0724 MTPSPT (Million Triangles per Second per Thread)
10.733 EDMBPT (ElementData Megabyte per Timestep (RW))
185.315 EDMBPS (ElementData Megabyte per Second (RW))
SUM CLIENT SHUTDOWN HINT: 104771
SUM CLIENT SHUTDOWN HINT DIV TIME: 0
65340: CHANGING RESSOURCES
65347: CHANGING RESSOURCES

 + Terminating after 1000 timesteps with equal number of triangles -> EXIT
 + Final timestep: 59579

59580 TS (Timesteps)
3022.12 ST (SIMULATION_TIME)
0.0500175 TSS (Timestep size)
3480.96 SFS (Overall seconds for Simulation)
20954211547 TP (Triangles processed)
0.058425 ASPT (Averaged Seconds per Timestep)
351699 TPST (Triangles Processed in Average per Simulation Timestep)
95.0841 PPST (Partitions Processed in Average per Simulation Timestep)
6.01966 MTPS (Million Triangles per Second)
-6.01966 MTPSPT (Million Triangles per Second per Thread)
10.733 EDMBPT (ElementData Megabyte per Timestep (RW))
183.706 EDMBPS (ElementData Megabyte per Second (RW))
SUM CLIENT SHUTDOWN HINT: 125725
SUM CLIENT SHUTDOWN HINT DIV TIME: 0
65328: CHANGING RESSOURCES

 + Terminating after 1000 timesteps with equal number of triangles -> EXIT
 + Final timestep: 59579

59580 TS (Timesteps)
3022.12 ST (SIMULATION_TIME)
0.0500175 TSS (Timestep size)
3534.87 SFS (Overall seconds for Simulation)
20954211547 TP (Triangles processed)
0.0593298 ASPT (Averaged Seconds per Timestep)
351699 TPST (Triangles Processed in Average per Simulation Timestep)
95.0841 PPST (Partitions Processed in Average per Simulation Timestep)
5.92786 MTPS (Million Triangles per Second)
-5.92786 MTPSPT (Million Triangles per Second per Thread)
10.733 EDMBPT (ElementData Megabyte per Timestep (RW))
180.904 EDMBPS (ElementData Megabyte per Second (RW))
SUM CLIENT SHUTDOWN HINT: 146679
SUM CLIENT SHUTDOWN HINT DIV TIME: 0
65329: CHANGING RESSOURCES
65349: CHANGING RESSOURCES

 + Terminating after 1000 timesteps with equal number of triangles -> EXIT
 + Final timestep: 59579

59580 TS (Timesteps)
3022.12 ST (SIMULATION_TIME)
0.0500175 TSS (Timestep size)
3584.55 SFS (Overall seconds for Simulation)
20954211547 TP (Triangles processed)
0.0601636 ASPT (Averaged Seconds per Timestep)
351699 TPST (Triangles Processed in Average per Simulation Timestep)
95.0841 PPST (Partitions Processed in Average per Simulation Timestep)
5.8457 MTPS (Million Triangles per Second)
-5.8457 MTPSPT (Million Triangles per Second per Thread)
10.733 EDMBPT (ElementData Megabyte per Timestep (RW))
178.397 EDMBPS (ElementData Megabyte per Second (RW))
SUM CLIENT SHUTDOWN HINT: 167634
SUM CLIENT SHUTDOWN HINT DIV TIME: 0
65328: CHANGING RESSOURCES
65345: CHANGING RESSOURCES

 + Terminating after 1000 timesteps with equal number of triangles -> EXIT
 + Final timestep: 59579

59580 TS (Timesteps)
3022.12 ST (SIMULATION_TIME)
0.0500175 TSS (Timestep size)
3635.81 SFS (Overall seconds for Simulation)
20954211547 TP (Triangles processed)
0.061024 ASPT (Averaged Seconds per Timestep)
351699 TPST (Triangles Processed in Average per Simulation Timestep)
95.0841 PPST (Partitions Processed in Average per Simulation Timestep)
5.76328 MTPS (Million Triangles per Second)
-5.76328 MTPSPT (Million Triangles per Second per Thread)
10.733 EDMBPT (ElementData Megabyte per Timestep (RW))
175.881 EDMBPS (ElementData Megabyte per Second (RW))
SUM CLIENT SHUTDOWN HINT: 188588
SUM CLIENT SHUTDOWN HINT DIV TIME: 0
65326: CHANGING RESSOURCES
65324: CHANGING RESSOURCES
65325: CHANGING RESSOURCES

 + Terminating after 1000 timesteps with equal number of triangles -> EXIT
 + Final timestep: 59579

59580 TS (Timesteps)
3022.12 ST (SIMULATION_TIME)
0.0500175 TSS (Timestep size)
3667.63 SFS (Overall seconds for Simulation)
20954211547 TP (Triangles processed)
0.061558 ASPT (Averaged Seconds per Timestep)
351699 TPST (Triangles Processed in Average per Simulation Timestep)
95.0841 PPST (Partitions Processed in Average per Simulation Timestep)
5.71329 MTPS (Million Triangles per Second)
-5.71329 MTPSPT (Million Triangles per Second per Thread)
10.733 EDMBPT (ElementData Megabyte per Timestep (RW))
174.356 EDMBPS (ElementData Megabyte per Second (RW))
SUM CLIENT SHUTDOWN HINT: 209542
SUM CLIENT SHUTDOWN HINT DIV TIME: 0
65336: CHANGING RESSOURCES
65339: CHANGING RESSOURCES
65342: CHANGING RESSOURCES

 + Terminating after 1000 timesteps with equal number of triangles -> EXIT
 + Final timestep: 59579

59580 TS (Timesteps)
3022.12 ST (SIMULATION_TIME)
0.0500175 TSS (Timestep size)
3676.02 SFS (Overall seconds for Simulation)
20954211547 TP (Triangles processed)
0.0616989 ASPT (Averaged Seconds per Timestep)
351699 TPST (Triangles Processed in Average per Simulation Timestep)
95.0841 PPST (Partitions Processed in Average per Simulation Timestep)
5.70024 MTPS (Million Triangles per Second)
-5.70024 MTPSPT (Million Triangles per Second per Thread)
10.733 EDMBPT (ElementData Megabyte per Timestep (RW))
173.958 EDMBPS (ElementData Megabyte per Second (RW))
SUM CLIENT SHUTDOWN HINT: 230496
SUM CLIENT SHUTDOWN HINT DIV TIME: 0
65333: CHANGING RESSOURCES
65348: CHANGING RESSOURCES
65335: CHANGING RESSOURCES

 + Terminating after 1000 timesteps with equal number of triangles -> EXIT
 + Final timestep: 59579

59580 TS (Timesteps)
3022.12 ST (SIMULATION_TIME)
0.0500175 TSS (Timestep size)
3678.99 SFS (Overall seconds for Simulation)
20954211547 TP (Triangles processed)
0.0617488 ASPT (Averaged Seconds per Timestep)
351699 TPST (Triangles Processed in Average per Simulation Timestep)
95.0841 PPST (Partitions Processed in Average per Simulation Timestep)
5.69564 MTPS (Million Triangles per Second)
-5.69564 MTPSPT (Million Triangles per Second per Thread)
10.733 EDMBPT (ElementData Megabyte per Timestep (RW))
173.817 EDMBPS (ElementData Megabyte per Second (RW))
SUM CLIENT SHUTDOWN HINT: 251451
SUM CLIENT SHUTDOWN HINT DIV TIME: 0
65337: CHANGING RESSOURCES
Waiting for job 65325
Waiting for job 65326
Waiting for job 65327
Waiting for job 65328
Waiting for job 65329
65343: CHANGING RESSOURCES
65341: CHANGING RESSOURCES

 + Terminating after 1000 timesteps with equal number of triangles -> EXIT
 + Final timestep: 59579

59580 TS (Timesteps)
3022.12 ST (SIMULATION_TIME)
0.0500175 TSS (Timestep size)
3708.8 SFS (Overall seconds for Simulation)
20954211547 TP (Triangles processed)
0.0622491 ASPT (Averaged Seconds per Timestep)
351699 TPST (Triangles Processed in Average per Simulation Timestep)
95.0841 PPST (Partitions Processed in Average per Simulation Timestep)
5.64986 MTPS (Million Triangles per Second)
-5.64986 MTPSPT (Million Triangles per Second per Thread)
10.733 EDMBPT (ElementData Megabyte per Timestep (RW))
172.42 EDMBPS (ElementData Megabyte per Second (RW))
SUM CLIENT SHUTDOWN HINT: 272405
SUM CLIENT SHUTDOWN HINT DIV TIME: 0
65336: CHANGING RESSOURCES
65340: CHANGING RESSOURCES
65347: CHANGING RESSOURCES

 + Terminating after 1000 timesteps with equal number of triangles -> EXIT
 + Final timestep: 59579

59580 TS (Timesteps)
3022.12 ST (SIMULATION_TIME)
0.0500175 TSS (Timestep size)
3743.82 SFS (Overall seconds for Simulation)
20954211547 TP (Triangles processed)
0.0628369 ASPT (Averaged Seconds per Timestep)
351699 TPST (Triangles Processed in Average per Simulation Timestep)
95.0841 PPST (Partitions Processed in Average per Simulation Timestep)
5.59701 MTPS (Million Triangles per Second)
-5.59701 MTPSPT (Million Triangles per Second per Thread)
10.733 EDMBPT (ElementData Megabyte per Timestep (RW))
170.807 EDMBPS (ElementData Megabyte per Second (RW))
SUM CLIENT SHUTDOWN HINT: 293359
SUM CLIENT SHUTDOWN HINT DIV TIME: 0
65339: CHANGING RESSOURCES
65336: CHANGING RESSOURCES
65335: CHANGING RESSOURCES
65333: CHANGING RESSOURCES
65348: CHANGING RESSOURCES

 + Terminating after 1000 timesteps with equal number of triangles -> EXIT
 + Final timestep: 59579

59580 TS (Timesteps)
3022.12 ST (SIMULATION_TIME)
0.0500175 TSS (Timestep size)
4293.43 SFS (Overall seconds for Simulation)
20954211547 TP (Triangles processed)
0.0720615 ASPT (Averaged Seconds per Timestep)
351699 TPST (Triangles Processed in Average per Simulation Timestep)
95.0841 PPST (Partitions Processed in Average per Simulation Timestep)
4.88053 MTPS (Million Triangles per Second)
-4.88053 MTPSPT (Million Triangles per Second per Thread)
10.733 EDMBPT (ElementData Megabyte per Timestep (RW))
148.942 EDMBPS (ElementData Megabyte per Second (RW))
SUM CLIENT SHUTDOWN HINT: 314313
SUM CLIENT SHUTDOWN HINT DIV TIME: 0
65343: CHANGING RESSOURCES
65339: CHANGING RESSOURCES
65347: CHANGING RESSOURCES
65337: CHANGING RESSOURCES
65341: CHANGING RESSOURCES

 + Terminating after 1000 timesteps with equal number of triangles -> EXIT
 + Final timestep: 59579

59580 TS (Timesteps)
3022.12 ST (SIMULATION_TIME)
0.0500175 TSS (Timestep size)
4433.04 SFS (Overall seconds for Simulation)
20954211547 TP (Triangles processed)
0.0744049 ASPT (Averaged Seconds per Timestep)
351699 TPST (Triangles Processed in Average per Simulation Timestep)
95.0841 PPST (Partitions Processed in Average per Simulation Timestep)
4.72682 MTPS (Million Triangles per Second)
-4.72682 MTPSPT (Million Triangles per Second per Thread)
10.733 EDMBPT (ElementData Megabyte per Timestep (RW))
144.251 EDMBPS (ElementData Megabyte per Second (RW))
SUM CLIENT SHUTDOWN HINT: 335267
SUM CLIENT SHUTDOWN HINT DIV TIME: 0
65340: CHANGING RESSOURCES
65329: CHANGING RESSOURCES
65339: CHANGING RESSOURCES

 + Terminating after 1000 timesteps with equal number of triangles -> EXIT
 + Final timestep: 59579

59580 TS (Timesteps)
3022.12 ST (SIMULATION_TIME)
0.0500175 TSS (Timestep size)
4531.54 SFS (Overall seconds for Simulation)
20954211547 TP (Triangles processed)
0.076058 ASPT (Averaged Seconds per Timestep)
351699 TPST (Triangles Processed in Average per Simulation Timestep)
95.0841 PPST (Partitions Processed in Average per Simulation Timestep)
4.62408 MTPS (Million Triangles per Second)
-4.62408 MTPSPT (Million Triangles per Second per Thread)
10.733 EDMBPT (ElementData Megabyte per Timestep (RW))
141.116 EDMBPS (ElementData Megabyte per Second (RW))
SUM CLIENT SHUTDOWN HINT: 356222
SUM CLIENT SHUTDOWN HINT DIV TIME: 0
65339: CHANGING RESSOURCES
65329: CHANGING RESSOURCES
65348: CHANGING RESSOURCES
65333: CHANGING RESSOURCES

 + Terminating after 1000 timesteps with equal number of triangles -> EXIT
 + Final timestep: 59579

59580 TS (Timesteps)
3022.12 ST (SIMULATION_TIME)
0.0500175 TSS (Timestep size)
4540.73 SFS (Overall seconds for Simulation)
20954211547 TP (Triangles processed)
0.0762123 ASPT (Averaged Seconds per Timestep)
351699 TPST (Triangles Processed in Average per Simulation Timestep)
95.0841 PPST (Partitions Processed in Average per Simulation Timestep)
4.61472 MTPS (Million Triangles per Second)
-4.61472 MTPSPT (Million Triangles per Second per Thread)
10.733 EDMBPT (ElementData Megabyte per Timestep (RW))
140.83 EDMBPS (ElementData Megabyte per Second (RW))
SUM CLIENT SHUTDOWN HINT: 377176
SUM CLIENT SHUTDOWN HINT DIV TIME: 0
65337: CHANGING RESSOURCES
65340: CHANGING RESSOURCES
65335: CHANGING RESSOURCES

 + Terminating after 1000 timesteps with equal number of triangles -> EXIT
 + Final timestep: 59579

59580 TS (Timesteps)
3022.12 ST (SIMULATION_TIME)
0.0500175 TSS (Timestep size)
4570.71 SFS (Overall seconds for Simulation)
20954211547 TP (Triangles processed)
0.0767154 ASPT (Averaged Seconds per Timestep)
351699 TPST (Triangles Processed in Average per Simulation Timestep)
95.0841 PPST (Partitions Processed in Average per Simulation Timestep)
4.58446 MTPS (Million Triangles per Second)
-4.58446 MTPSPT (Million Triangles per Second per Thread)
10.733 EDMBPT (ElementData Megabyte per Timestep (RW))
139.907 EDMBPS (ElementData Megabyte per Second (RW))
SUM CLIENT SHUTDOWN HINT: 398130
SUM CLIENT SHUTDOWN HINT DIV TIME: 0
65333: CHANGING RESSOURCES
65348: CHANGING RESSOURCES
65339: CHANGING RESSOURCES
65337: CHANGING RESSOURCES
65335: CHANGING RESSOURCES
Waiting for job 65330
Waiting for job 65331
Waiting for job 65332
Waiting for job 65333

 + Terminating after 1000 timesteps with equal number of triangles -> EXIT
 + Final timestep: 59579

59580 TS (Timesteps)
3022.12 ST (SIMULATION_TIME)
0.0500175 TSS (Timestep size)
4585.31 SFS (Overall seconds for Simulation)
20954211547 TP (Triangles processed)
0.0769605 ASPT (Averaged Seconds per Timestep)
351699 TPST (Triangles Processed in Average per Simulation Timestep)
95.0841 PPST (Partitions Processed in Average per Simulation Timestep)
4.56986 MTPS (Million Triangles per Second)
-4.56986 MTPSPT (Million Triangles per Second per Thread)
10.733 EDMBPT (ElementData Megabyte per Timestep (RW))
139.461 EDMBPS (ElementData Megabyte per Second (RW))
SUM CLIENT SHUTDOWN HINT: 419084
SUM CLIENT SHUTDOWN HINT DIV TIME: 0
65340: CHANGING RESSOURCES
65348: CHANGING RESSOURCES
65343: CHANGING RESSOURCES
65335: CHANGING RESSOURCES
Waiting for job 65334
Waiting for job 65335

 + Terminating after 1000 timesteps with equal number of triangles -> EXIT
 + Final timestep: 59579

59580 TS (Timesteps)
3022.12 ST (SIMULATION_TIME)
0.0500175 TSS (Timestep size)
4624.6 SFS (Overall seconds for Simulation)
20954211547 TP (Triangles processed)
0.07762 ASPT (Averaged Seconds per Timestep)
351699 TPST (Triangles Processed in Average per Simulation Timestep)
95.0841 PPST (Partitions Processed in Average per Simulation Timestep)
4.53103 MTPS (Million Triangles per Second)
-4.53103 MTPSPT (Million Triangles per Second per Thread)
10.733 EDMBPT (ElementData Megabyte per Timestep (RW))
138.276 EDMBPS (ElementData Megabyte per Second (RW))
SUM CLIENT SHUTDOWN HINT: 440038
SUM CLIENT SHUTDOWN HINT DIV TIME: 0
65340: CHANGING RESSOURCES
65335: CHANGING RESSOURCES
65343: CHANGING RESSOURCES
65337: CHANGING RESSOURCES
65348: CHANGING RESSOURCES

 + Terminating after 1000 timesteps with equal number of triangles -> EXIT
 + Final timestep: 59579

59580 TS (Timesteps)
3022.12 ST (SIMULATION_TIME)
0.0500175 TSS (Timestep size)
4659.86 SFS (Overall seconds for Simulation)
20954211547 TP (Triangles processed)
0.0782118 ASPT (Averaged Seconds per Timestep)
351699 TPST (Triangles Processed in Average per Simulation Timestep)
95.0841 PPST (Partitions Processed in Average per Simulation Timestep)
4.49675 MTPS (Million Triangles per Second)
-4.49675 MTPSPT (Million Triangles per Second per Thread)
10.733 EDMBPT (ElementData Megabyte per Timestep (RW))
137.23 EDMBPS (ElementData Megabyte per Second (RW))
SUM CLIENT SHUTDOWN HINT: 460993
SUM CLIENT SHUTDOWN HINT DIV TIME: 0
65343: CHANGING RESSOURCES
65348: CHANGING RESSOURCES
65340: CHANGING RESSOURCES
65337: CHANGING RESSOURCES
Waiting for job 65336
Waiting for job 65337

 + Terminating after 1000 timesteps with equal number of triangles -> EXIT
 + Final timestep: 59579

59580 TS (Timesteps)
3022.12 ST (SIMULATION_TIME)
0.0500175 TSS (Timestep size)
4665.81 SFS (Overall seconds for Simulation)
20954211547 TP (Triangles processed)
0.0783116 ASPT (Averaged Seconds per Timestep)
351699 TPST (Triangles Processed in Average per Simulation Timestep)
95.0841 PPST (Partitions Processed in Average per Simulation Timestep)
4.49102 MTPS (Million Triangles per Second)
-4.49102 MTPSPT (Million Triangles per Second per Thread)
10.733 EDMBPT (ElementData Megabyte per Timestep (RW))
137.055 EDMBPS (ElementData Megabyte per Second (RW))
SUM CLIENT SHUTDOWN HINT: 481947
SUM CLIENT SHUTDOWN HINT DIV TIME: 0
65337: CHANGING RESSOURCES
65348: CHANGING RESSOURCES
65340: CHANGING RESSOURCES

 + Terminating after 1000 timesteps with equal number of triangles -> EXIT
 + Final timestep: 59579

59580 TS (Timesteps)
3022.12 ST (SIMULATION_TIME)
0.0500175 TSS (Timestep size)
4682.41 SFS (Overall seconds for Simulation)
20954211547 TP (Triangles processed)
0.0785902 ASPT (Averaged Seconds per Timestep)
351699 TPST (Triangles Processed in Average per Simulation Timestep)
95.0841 PPST (Partitions Processed in Average per Simulation Timestep)
4.47509 MTPS (Million Triangles per Second)
-4.47509 MTPSPT (Million Triangles per Second per Thread)
10.733 EDMBPT (ElementData Megabyte per Timestep (RW))
136.569 EDMBPS (ElementData Megabyte per Second (RW))
SUM CLIENT SHUTDOWN HINT: 502901
SUM CLIENT SHUTDOWN HINT DIV TIME: 0
65337: CHANGING RESSOURCES
65340: CHANGING RESSOURCES

 + Terminating after 1000 timesteps with equal number of triangles -> EXIT
 + Final timestep: 59579

59580 TS (Timesteps)
3022.12 ST (SIMULATION_TIME)
0.0500175 TSS (Timestep size)
4742.72 SFS (Overall seconds for Simulation)
20954211547 TP (Triangles processed)
0.0796025 ASPT (Averaged Seconds per Timestep)
351699 TPST (Triangles Processed in Average per Simulation Timestep)
95.0841 PPST (Partitions Processed in Average per Simulation Timestep)
4.41818 MTPS (Million Triangles per Second)
-4.41818 MTPSPT (Million Triangles per Second per Thread)
10.733 EDMBPT (ElementData Megabyte per Timestep (RW))
134.832 EDMBPS (ElementData Megabyte per Second (RW))
SUM CLIENT SHUTDOWN HINT: 523855
SUM CLIENT SHUTDOWN HINT DIV TIME: 0
65340: CHANGING RESSOURCES
Waiting for job 65338
Waiting for job 65339
Waiting for job 65340

 + Terminating after 1000 timesteps with equal number of triangles -> EXIT
 + Final timestep: 59579

59580 TS (Timesteps)
3022.12 ST (SIMULATION_TIME)
0.0500175 TSS (Timestep size)
4754.1 SFS (Overall seconds for Simulation)
20954211547 TP (Triangles processed)
0.0797935 ASPT (Averaged Seconds per Timestep)
351699 TPST (Triangles Processed in Average per Simulation Timestep)
95.0841 PPST (Partitions Processed in Average per Simulation Timestep)
4.40761 MTPS (Million Triangles per Second)
-4.40761 MTPSPT (Million Triangles per Second per Thread)
10.733 EDMBPT (ElementData Megabyte per Timestep (RW))
134.51 EDMBPS (ElementData Megabyte per Second (RW))
SUM CLIENT SHUTDOWN HINT: 544810
SUM CLIENT SHUTDOWN HINT DIV TIME: 114.601
Waiting for job 65341
Waiting for job 65342
Waiting for job 65343
Waiting for job 65344
Waiting for job 65345
Waiting for job 65346
Waiting for job 65347
Waiting for job 65348
Waiting for job 65349
Mon Apr  2 11:15:50 CEST 2012
Seconds: 4754
