MODE: ipmo_prog0
PARCOUNT: 27
PROBLEMS: 1
Running on INWEST
Using iPMO

Programs:
 + ../../build/sierpi_intel_ipmo_tsunami_parallel_release  -u 10 -U 10 -T 1000 -n 4 -d 14
 + ../../build/sierpi_intel_ipmo_tsunami_parallel_release  -u 10 -U 10 -T 1000 -n 4 -d 14
 + ../../build/sierpi_intel_ipmo_tsunami_parallel_release  -u 10 -U 10 -T 1000 -n 4 -d 12
 + ../../build/sierpi_intel_ipmo_tsunami_parallel_release  -u 10 -U 10 -T 1000 -n 4 -d 12
 + ../../build/sierpi_intel_ipmo_tsunami_parallel_release  -u 10 -U 10 -T 1000 -n 4 -d 12
 + ../../build/sierpi_intel_ipmo_tsunami_parallel_release  -u 10 -U 10 -T 1000 -n 4 -d 12
 + ../../build/sierpi_intel_ipmo_tsunami_parallel_release  -u 10 -U 10 -T 1000 -n 4 -d 12
 + ../../build/sierpi_intel_ipmo_tsunami_parallel_release  -u 10 -U 10 -T 1000 -n 4 -d 12
 + ../../build/sierpi_intel_ipmo_tsunami_parallel_release  -u 10 -U 10 -T 1000 -n 4 -d 12
 + ../../build/sierpi_intel_ipmo_tsunami_parallel_release  -u 10 -U 10 -T 1000 -n 4 -d 12

Mon Apr  2 23:50:35 CEST 2012
iPMO: Prog0 parallel execution with ipmo (27 times)
Waiting for job 4824
4837: CHANGING RESSOURCES
4837: CHANGING RESSOURCES
4829: CHANGING RESSOURCES
4834: CHANGING RESSOURCES
4834: CHANGING RESSOURCES
4835: CHANGING RESSOURCES
4829: CHANGING RESSOURCES
4845: CHANGING RESSOURCES
4830: CHANGING RESSOURCES
4824: CHANGING RESSOURCES
4844: CHANGING RESSOURCES
4843: CHANGING RESSOURCES
4847: CHANGING RESSOURCES
4834: CHANGING RESSOURCES
4845: CHANGING RESSOURCES
4830: CHANGING RESSOURCES
4824: CHANGING RESSOURCES
4829: CHANGING RESSOURCES
4843: CHANGING RESSOURCES
4837: CHANGING RESSOURCES
4832: CHANGING RESSOURCES
4831: CHANGING RESSOURCES
4833: CHANGING RESSOURCES
4849: CHANGING RESSOURCES
4825: CHANGING RESSOURCES
4841: CHANGING RESSOURCES
4839: CHANGING RESSOURCES
4846: CHANGING RESSOURCES
4842: CHANGING RESSOURCES
4836: CHANGING RESSOURCES
4848: CHANGING RESSOURCES
4850: CHANGING RESSOURCES
4838: CHANGING RESSOURCES
4827: CHANGING RESSOURCES
4828: CHANGING RESSOURCES
4826: CHANGING RESSOURCES
4840: CHANGING RESSOURCES

 + Terminating after 1000 timesteps with equal number of triangles -> EXIT
 + Final timestep: 59579

59580 TS (Timesteps)
3022.12 ST (SIMULATION_TIME)
0.0500175 TSS (Timestep size)
3241.1 SFS (Overall seconds for Simulation)
20954211547 TP (Triangles processed)
0.0543991 ASPT (Averaged Seconds per Timestep)
351699 TPST (Triangles Processed in Average per Simulation Timestep)
95.0841 PPST (Partitions Processed in Average per Simulation Timestep)
6.46516 MTPS (Million Triangles per Second)
-6.46516 MTPSPT (Million Triangles per Second per Thread)
10.733 EDMBPT (ElementData Megabyte per Timestep (RW))
197.301 EDMBPS (ElementData Megabyte per Second (RW))
SUM CLIENT SHUTDOWN HINT: 21004.2
SUM CLIENT SHUTDOWN HINT DIV TIME: 4081.97
4845: CHANGING RESSOURCES
4840: CHANGING RESSOURCES

 + Terminating after 1000 timesteps with equal number of triangles -> EXIT
 + Final timestep: 59579

59580 TS (Timesteps)
3022.12 ST (SIMULATION_TIME)
0.0500175 TSS (Timestep size)
3247.87 SFS (Overall seconds for Simulation)
20954211547 TP (Triangles processed)
0.0545128 ASPT (Averaged Seconds per Timestep)
351699 TPST (Triangles Processed in Average per Simulation Timestep)
95.0841 PPST (Partitions Processed in Average per Simulation Timestep)
6.45167 MTPS (Million Triangles per Second)
-6.45167 MTPSPT (Million Triangles per Second per Thread)
10.733 EDMBPT (ElementData Megabyte per Timestep (RW))
196.889 EDMBPS (ElementData Megabyte per Second (RW))
SUM CLIENT SHUTDOWN HINT: 41958.4
SUM CLIENT SHUTDOWN HINT DIV TIME: 4081.97
4824: CHANGING RESSOURCES
4830: CHANGING RESSOURCES

 + Terminating after 1000 timesteps with equal number of triangles -> EXIT
 + Final timestep: 59579

59580 TS (Timesteps)
3022.12 ST (SIMULATION_TIME)
0.0500175 TSS (Timestep size)
3254.19 SFS (Overall seconds for Simulation)
20954211547 TP (Triangles processed)
0.0546189 ASPT (Averaged Seconds per Timestep)
351699 TPST (Triangles Processed in Average per Simulation Timestep)
95.0841 PPST (Partitions Processed in Average per Simulation Timestep)
6.43914 MTPS (Million Triangles per Second)
-6.43914 MTPSPT (Million Triangles per Second per Thread)
10.733 EDMBPT (ElementData Megabyte per Timestep (RW))
196.507 EDMBPS (ElementData Megabyte per Second (RW))
SUM CLIENT SHUTDOWN HINT: 62912.6
SUM CLIENT SHUTDOWN HINT DIV TIME: 4081.97
4844: CHANGING RESSOURCES
4843: CHANGING RESSOURCES

 + Terminating after 1000 timesteps with equal number of triangles -> EXIT
 + Final timestep: 59579

59580 TS (Timesteps)
3022.12 ST (SIMULATION_TIME)
0.0500175 TSS (Timestep size)
3324.25 SFS (Overall seconds for Simulation)
20954211547 TP (Triangles processed)
0.0557947 ASPT (Averaged Seconds per Timestep)
351699 TPST (Triangles Processed in Average per Simulation Timestep)
95.0841 PPST (Partitions Processed in Average per Simulation Timestep)
6.30345 MTPS (Million Triangles per Second)
-6.30345 MTPSPT (Million Triangles per Second per Thread)
10.733 EDMBPT (ElementData Megabyte per Timestep (RW))
192.366 EDMBPS (ElementData Megabyte per Second (RW))
SUM CLIENT SHUTDOWN HINT: 83866.8
SUM CLIENT SHUTDOWN HINT DIV TIME: 4081.97
4846: CHANGING RESSOURCES
4842: CHANGING RESSOURCES
4850: CHANGING RESSOURCES
4831: CHANGING RESSOURCES

 + Terminating after 1000 timesteps with equal number of triangles -> EXIT
 + Final timestep: 59579

59580 TS (Timesteps)
3022.12 ST (SIMULATION_TIME)
0.0500175 TSS (Timestep size)
3356.59 SFS (Overall seconds for Simulation)
20954211547 TP (Triangles processed)
0.0563376 ASPT (Averaged Seconds per Timestep)
351699 TPST (Triangles Processed in Average per Simulation Timestep)
95.0841 PPST (Partitions Processed in Average per Simulation Timestep)
6.2427 MTPS (Million Triangles per Second)
-6.2427 MTPSPT (Million Triangles per Second per Thread)
10.733 EDMBPT (ElementData Megabyte per Timestep (RW))
190.512 EDMBPS (ElementData Megabyte per Second (RW))
SUM CLIENT SHUTDOWN HINT: 104821
SUM CLIENT SHUTDOWN HINT DIV TIME: 4081.97
4838: CHANGING RESSOURCES
4847: CHANGING RESSOURCES
4826: CHANGING RESSOURCES
4839: CHANGING RESSOURCES

 + Terminating after 1000 timesteps with equal number of triangles -> EXIT
 + Final timestep: 59579

59580 TS (Timesteps)
3022.12 ST (SIMULATION_TIME)
0.0500175 TSS (Timestep size)
3361.37 SFS (Overall seconds for Simulation)
20954211547 TP (Triangles processed)
0.0564178 ASPT (Averaged Seconds per Timestep)
351699 TPST (Triangles Processed in Average per Simulation Timestep)
95.0841 PPST (Partitions Processed in Average per Simulation Timestep)
6.23383 MTPS (Million Triangles per Second)
-6.23383 MTPSPT (Million Triangles per Second per Thread)
10.733 EDMBPT (ElementData Megabyte per Timestep (RW))
190.241 EDMBPS (ElementData Megabyte per Second (RW))
SUM CLIENT SHUTDOWN HINT: 125775
SUM CLIENT SHUTDOWN HINT DIV TIME: 4081.97
4848: CHANGING RESSOURCES
4836: CHANGING RESSOURCES

 + Terminating after 1000 timesteps with equal number of triangles -> EXIT
 + Final timestep: 59579

59580 TS (Timesteps)
3022.12 ST (SIMULATION_TIME)
0.0500175 TSS (Timestep size)
3398.22 SFS (Overall seconds for Simulation)
20954211547 TP (Triangles processed)
0.0570363 ASPT (Averaged Seconds per Timestep)
351699 TPST (Triangles Processed in Average per Simulation Timestep)
95.0841 PPST (Partitions Processed in Average per Simulation Timestep)
6.16623 MTPS (Million Triangles per Second)
-6.16623 MTPSPT (Million Triangles per Second per Thread)
10.733 EDMBPT (ElementData Megabyte per Timestep (RW))
188.178 EDMBPS (ElementData Megabyte per Second (RW))
SUM CLIENT SHUTDOWN HINT: 146729
SUM CLIENT SHUTDOWN HINT DIV TIME: 4081.97
4850: CHANGING RESSOURCES
4826: CHANGING RESSOURCES

 + Terminating after 1000 timesteps with equal number of triangles -> EXIT
 + Final timestep: 59579

59580 TS (Timesteps)
3022.12 ST (SIMULATION_TIME)
0.0500175 TSS (Timestep size)
3405.55 SFS (Overall seconds for Simulation)
20954211547 TP (Triangles processed)
0.0571593 ASPT (Averaged Seconds per Timestep)
351699 TPST (Triangles Processed in Average per Simulation Timestep)
95.0841 PPST (Partitions Processed in Average per Simulation Timestep)
6.15296 MTPS (Million Triangles per Second)
-6.15296 MTPSPT (Million Triangles per Second per Thread)
10.733 EDMBPT (ElementData Megabyte per Timestep (RW))
187.773 EDMBPS (ElementData Megabyte per Second (RW))
SUM CLIENT SHUTDOWN HINT: 167684
SUM CLIENT SHUTDOWN HINT DIV TIME: 4081.97
4831: CHANGING RESSOURCES
4832: CHANGING RESSOURCES

 + Terminating after 1000 timesteps with equal number of triangles -> EXIT
 + Final timestep: 59579

59580 TS (Timesteps)
3022.12 ST (SIMULATION_TIME)
0.0500175 TSS (Timestep size)
3507.99 SFS (Overall seconds for Simulation)
20954211547 TP (Triangles processed)
0.0588787 ASPT (Averaged Seconds per Timestep)
351699 TPST (Triangles Processed in Average per Simulation Timestep)
95.0841 PPST (Partitions Processed in Average per Simulation Timestep)
5.97328 MTPS (Million Triangles per Second)
-5.97328 MTPSPT (Million Triangles per Second per Thread)
10.733 EDMBPT (ElementData Megabyte per Timestep (RW))
182.29 EDMBPS (ElementData Megabyte per Second (RW))
SUM CLIENT SHUTDOWN HINT: 188638
SUM CLIENT SHUTDOWN HINT DIV TIME: 4081.97
4838: CHANGING RESSOURCES
4826: CHANGING RESSOURCES

 + Terminating after 1000 timesteps with equal number of triangles -> EXIT
 + Final timestep: 59579

59580 TS (Timesteps)
3022.12 ST (SIMULATION_TIME)
0.0500175 TSS (Timestep size)
3615.63 SFS (Overall seconds for Simulation)
20954211547 TP (Triangles processed)
0.0606853 ASPT (Averaged Seconds per Timestep)
351699 TPST (Triangles Processed in Average per Simulation Timestep)
95.0841 PPST (Partitions Processed in Average per Simulation Timestep)
5.79545 MTPS (Million Triangles per Second)
-5.79545 MTPSPT (Million Triangles per Second per Thread)
10.733 EDMBPT (ElementData Megabyte per Timestep (RW))
176.863 EDMBPS (ElementData Megabyte per Second (RW))
SUM CLIENT SHUTDOWN HINT: 209592
SUM CLIENT SHUTDOWN HINT DIV TIME: 4081.97
4825: CHANGING RESSOURCES
4840: CHANGING RESSOURCES
4833: CHANGING RESSOURCES

 + Terminating after 1000 timesteps with equal number of triangles -> EXIT
 + Final timestep: 59579

59580 TS (Timesteps)
3022.12 ST (SIMULATION_TIME)
0.0500175 TSS (Timestep size)
3657.03 SFS (Overall seconds for Simulation)
20954211547 TP (Triangles processed)
0.0613801 ASPT (Averaged Seconds per Timestep)
351699 TPST (Triangles Processed in Average per Simulation Timestep)
95.0841 PPST (Partitions Processed in Average per Simulation Timestep)
5.72985 MTPS (Million Triangles per Second)
-5.72985 MTPSPT (Million Triangles per Second per Thread)
10.733 EDMBPT (ElementData Megabyte per Timestep (RW))
174.861 EDMBPS (ElementData Megabyte per Second (RW))
SUM CLIENT SHUTDOWN HINT: 230546
SUM CLIENT SHUTDOWN HINT DIV TIME: 4081.97
4845: CHANGING RESSOURCES
4830: CHANGING RESSOURCES
4824: CHANGING RESSOURCES

 + Terminating after 1000 timesteps with equal number of triangles -> EXIT
 + Final timestep: 59579

59580 TS (Timesteps)
3022.12 ST (SIMULATION_TIME)
0.0500175 TSS (Timestep size)
3735.09 SFS (Overall seconds for Simulation)
20954211547 TP (Triangles processed)
0.0626903 ASPT (Averaged Seconds per Timestep)
351699 TPST (Triangles Processed in Average per Simulation Timestep)
95.0841 PPST (Partitions Processed in Average per Simulation Timestep)
5.6101 MTPS (Million Triangles per Second)
-5.6101 MTPSPT (Million Triangles per Second per Thread)
10.733 EDMBPT (ElementData Megabyte per Timestep (RW))
171.207 EDMBPS (ElementData Megabyte per Second (RW))
SUM CLIENT SHUTDOWN HINT: 251501
SUM CLIENT SHUTDOWN HINT DIV TIME: 4081.97
4842: CHANGING RESSOURCES
4844: CHANGING RESSOURCES
4843: CHANGING RESSOURCES

 + Terminating after 1000 timesteps with equal number of triangles -> EXIT
 + Final timestep: 59579

59580 TS (Timesteps)
3022.12 ST (SIMULATION_TIME)
0.0500175 TSS (Timestep size)
3829.42 SFS (Overall seconds for Simulation)
20954211547 TP (Triangles processed)
0.0642736 ASPT (Averaged Seconds per Timestep)
351699 TPST (Triangles Processed in Average per Simulation Timestep)
95.0841 PPST (Partitions Processed in Average per Simulation Timestep)
5.4719 MTPS (Million Triangles per Second)
-5.4719 MTPSPT (Million Triangles per Second per Thread)
10.733 EDMBPT (ElementData Megabyte per Timestep (RW))
166.989 EDMBPS (ElementData Megabyte per Second (RW))
SUM CLIENT SHUTDOWN HINT: 272455
SUM CLIENT SHUTDOWN HINT DIV TIME: 4081.97
4839: CHANGING RESSOURCES
4846: CHANGING RESSOURCES
4847: CHANGING RESSOURCES

 + Terminating after 1000 timesteps with equal number of triangles -> EXIT
 + Final timestep: 59579

59580 TS (Timesteps)
3022.12 ST (SIMULATION_TIME)
0.0500175 TSS (Timestep size)
4354.6 SFS (Overall seconds for Simulation)
20954211547 TP (Triangles processed)
0.0730882 ASPT (Averaged Seconds per Timestep)
351699 TPST (Triangles Processed in Average per Simulation Timestep)
95.0841 PPST (Partitions Processed in Average per Simulation Timestep)
4.81198 MTPS (Million Triangles per Second)
-4.81198 MTPSPT (Million Triangles per Second per Thread)
10.733 EDMBPT (ElementData Megabyte per Timestep (RW))
146.85 EDMBPS (ElementData Megabyte per Second (RW))
SUM CLIENT SHUTDOWN HINT: 293409
SUM CLIENT SHUTDOWN HINT DIV TIME: 4081.97
4848: CHANGING RESSOURCES
4845: CHANGING RESSOURCES
4836: CHANGING RESSOURCES

 + Terminating after 1000 timesteps with equal number of triangles -> EXIT
 + Final timestep: 59579

59580 TS (Timesteps)
3022.12 ST (SIMULATION_TIME)
0.0500175 TSS (Timestep size)
4449.15 SFS (Overall seconds for Simulation)
20954211547 TP (Triangles processed)
0.0746753 ASPT (Averaged Seconds per Timestep)
351699 TPST (Triangles Processed in Average per Simulation Timestep)
95.0841 PPST (Partitions Processed in Average per Simulation Timestep)
4.70971 MTPS (Million Triangles per Second)
-4.70971 MTPSPT (Million Triangles per Second per Thread)
10.733 EDMBPT (ElementData Megabyte per Timestep (RW))
143.729 EDMBPS (ElementData Megabyte per Second (RW))
SUM CLIENT SHUTDOWN HINT: 314363
SUM CLIENT SHUTDOWN HINT DIV TIME: 4081.97
4843: CHANGING RESSOURCES
4824: CHANGING RESSOURCES
4842: CHANGING RESSOURCES
4844: CHANGING RESSOURCES

 + Terminating after 1000 timesteps with equal number of triangles -> EXIT
 + Final timestep: 59579

59580 TS (Timesteps)
3022.12 ST (SIMULATION_TIME)
0.0500175 TSS (Timestep size)
4463.58 SFS (Overall seconds for Simulation)
20954211547 TP (Triangles processed)
0.0749175 ASPT (Averaged Seconds per Timestep)
351699 TPST (Triangles Processed in Average per Simulation Timestep)
95.0841 PPST (Partitions Processed in Average per Simulation Timestep)
4.69448 MTPS (Million Triangles per Second)
-4.69448 MTPSPT (Million Triangles per Second per Thread)
10.733 EDMBPT (ElementData Megabyte per Timestep (RW))
143.264 EDMBPS (ElementData Megabyte per Second (RW))
SUM CLIENT SHUTDOWN HINT: 335317
SUM CLIENT SHUTDOWN HINT DIV TIME: 4081.97
4839: CHANGING RESSOURCES
4824: CHANGING RESSOURCES
4848: CHANGING RESSOURCES
4847: CHANGING RESSOURCES
4846: CHANGING RESSOURCES

 + Terminating after 1000 timesteps with equal number of triangles -> EXIT
 + Final timestep: 59579

59580 TS (Timesteps)
3022.12 ST (SIMULATION_TIME)
0.0500175 TSS (Timestep size)
4464.29 SFS (Overall seconds for Simulation)
20954211547 TP (Triangles processed)
0.0749294 ASPT (Averaged Seconds per Timestep)
351699 TPST (Triangles Processed in Average per Simulation Timestep)
95.0841 PPST (Partitions Processed in Average per Simulation Timestep)
4.69373 MTPS (Million Triangles per Second)
-4.69373 MTPSPT (Million Triangles per Second per Thread)
10.733 EDMBPT (ElementData Megabyte per Timestep (RW))
143.241 EDMBPS (ElementData Megabyte per Second (RW))
SUM CLIENT SHUTDOWN HINT: 356272
SUM CLIENT SHUTDOWN HINT DIV TIME: 4081.97
4836: CHANGING RESSOURCES
4831: CHANGING RESSOURCES
4838: CHANGING RESSOURCES
Waiting for job 4825
Waiting for job 4826
Waiting for job 4827
Waiting for job 4828
Waiting for job 4829
Waiting for job 4830
Waiting for job 4831

 + Terminating after 1000 timesteps with equal number of triangles -> EXIT
 + Final timestep: 59579

59580 TS (Timesteps)
3022.12 ST (SIMULATION_TIME)
0.0500175 TSS (Timestep size)
4536.05 SFS (Overall seconds for Simulation)
20954211547 TP (Triangles processed)
0.0761338 ASPT (Averaged Seconds per Timestep)
351699 TPST (Triangles Processed in Average per Simulation Timestep)
95.0841 PPST (Partitions Processed in Average per Simulation Timestep)
4.61948 MTPS (Million Triangles per Second)
-4.61948 MTPSPT (Million Triangles per Second per Thread)
10.733 EDMBPT (ElementData Megabyte per Timestep (RW))
140.975 EDMBPS (ElementData Megabyte per Second (RW))
SUM CLIENT SHUTDOWN HINT: 377226
SUM CLIENT SHUTDOWN HINT DIV TIME: 4081.97
4843: CHANGING RESSOURCES
4842: CHANGING RESSOURCES
4838: CHANGING RESSOURCES
4831: CHANGING RESSOURCES

 + Terminating after 1000 timesteps with equal number of triangles -> EXIT
 + Final timestep: 59579

59580 TS (Timesteps)
3022.12 ST (SIMULATION_TIME)
0.0500175 TSS (Timestep size)
4537.99 SFS (Overall seconds for Simulation)
20954211547 TP (Triangles processed)
0.0761664 ASPT (Averaged Seconds per Timestep)
351699 TPST (Triangles Processed in Average per Simulation Timestep)
95.0841 PPST (Partitions Processed in Average per Simulation Timestep)
4.61751 MTPS (Million Triangles per Second)
-4.61751 MTPSPT (Million Triangles per Second per Thread)
10.733 EDMBPT (ElementData Megabyte per Timestep (RW))
140.915 EDMBPS (ElementData Megabyte per Second (RW))
SUM CLIENT SHUTDOWN HINT: 398180
SUM CLIENT SHUTDOWN HINT DIV TIME: 4081.97
4846: CHANGING RESSOURCES
4836: CHANGING RESSOURCES
4839: CHANGING RESSOURCES
4848: CHANGING RESSOURCES
4847: CHANGING RESSOURCES

 + Terminating after 1000 timesteps with equal number of triangles -> EXIT
 + Final timestep: 59579

59580 TS (Timesteps)
3022.12 ST (SIMULATION_TIME)
0.0500175 TSS (Timestep size)
4552.13 SFS (Overall seconds for Simulation)
20954211547 TP (Triangles processed)
0.0764037 ASPT (Averaged Seconds per Timestep)
351699 TPST (Triangles Processed in Average per Simulation Timestep)
95.0841 PPST (Partitions Processed in Average per Simulation Timestep)
4.60316 MTPS (Million Triangles per Second)
-4.60316 MTPSPT (Million Triangles per Second per Thread)
10.733 EDMBPT (ElementData Megabyte per Timestep (RW))
140.477 EDMBPS (ElementData Megabyte per Second (RW))
SUM CLIENT SHUTDOWN HINT: 419134
SUM CLIENT SHUTDOWN HINT DIV TIME: 4081.97
4847: CHANGING RESSOURCES
4843: CHANGING RESSOURCES
4846: CHANGING RESSOURCES
4839: CHANGING RESSOURCES
4831: CHANGING RESSOURCES

 + Terminating after 1000 timesteps with equal number of triangles -> EXIT
 + Final timestep: 59579

59580 TS (Timesteps)
3022.12 ST (SIMULATION_TIME)
0.0500175 TSS (Timestep size)
4574.81 SFS (Overall seconds for Simulation)
20954211547 TP (Triangles processed)
0.0767843 ASPT (Averaged Seconds per Timestep)
351699 TPST (Triangles Processed in Average per Simulation Timestep)
95.0841 PPST (Partitions Processed in Average per Simulation Timestep)
4.58035 MTPS (Million Triangles per Second)
-4.58035 MTPSPT (Million Triangles per Second per Thread)
10.733 EDMBPT (ElementData Megabyte per Timestep (RW))
139.781 EDMBPS (ElementData Megabyte per Second (RW))
SUM CLIENT SHUTDOWN HINT: 440088
SUM CLIENT SHUTDOWN HINT DIV TIME: 4081.97
4848: CHANGING RESSOURCES
4839: CHANGING RESSOURCES
4846: CHANGING RESSOURCES
4831: CHANGING RESSOURCES

 + Terminating after 1000 timesteps with equal number of triangles -> EXIT
 + Final timestep: 59579

59580 TS (Timesteps)
3022.12 ST (SIMULATION_TIME)
0.0500175 TSS (Timestep size)
4602.23 SFS (Overall seconds for Simulation)
20954211547 TP (Triangles processed)
0.0772446 ASPT (Averaged Seconds per Timestep)
351699 TPST (Triangles Processed in Average per Simulation Timestep)
95.0841 PPST (Partitions Processed in Average per Simulation Timestep)
4.55305 MTPS (Million Triangles per Second)
-4.55305 MTPSPT (Million Triangles per Second per Thread)
10.733 EDMBPT (ElementData Megabyte per Timestep (RW))
138.948 EDMBPS (ElementData Megabyte per Second (RW))
SUM CLIENT SHUTDOWN HINT: 461043
SUM CLIENT SHUTDOWN HINT DIV TIME: 4081.97
4847: CHANGING RESSOURCES
4848: CHANGING RESSOURCES
4831: CHANGING RESSOURCES
4836: CHANGING RESSOURCES
4839: CHANGING RESSOURCES

 + Terminating after 1000 timesteps with equal number of triangles -> EXIT
 + Final timestep: 59579

59580 TS (Timesteps)
3022.12 ST (SIMULATION_TIME)
0.0500175 TSS (Timestep size)
4633.14 SFS (Overall seconds for Simulation)
20954211547 TP (Triangles processed)
0.0777634 ASPT (Averaged Seconds per Timestep)
351699 TPST (Triangles Processed in Average per Simulation Timestep)
95.0841 PPST (Partitions Processed in Average per Simulation Timestep)
4.52268 MTPS (Million Triangles per Second)
-4.52268 MTPSPT (Million Triangles per Second per Thread)
10.733 EDMBPT (ElementData Megabyte per Timestep (RW))
138.021 EDMBPS (ElementData Megabyte per Second (RW))
SUM CLIENT SHUTDOWN HINT: 481997
SUM CLIENT SHUTDOWN HINT DIV TIME: 4081.97
4836: CHANGING RESSOURCES
4831: CHANGING RESSOURCES
4847: CHANGING RESSOURCES

 + Terminating after 1000 timesteps with equal number of triangles -> EXIT
 + Final timestep: 59579

59580 TS (Timesteps)
3022.12 ST (SIMULATION_TIME)
0.0500175 TSS (Timestep size)
4686.51 SFS (Overall seconds for Simulation)
20954211547 TP (Triangles processed)
0.0786592 ASPT (Averaged Seconds per Timestep)
351699 TPST (Triangles Processed in Average per Simulation Timestep)
95.0841 PPST (Partitions Processed in Average per Simulation Timestep)
4.47117 MTPS (Million Triangles per Second)
-4.47117 MTPSPT (Million Triangles per Second per Thread)
10.733 EDMBPT (ElementData Megabyte per Timestep (RW))
136.449 EDMBPS (ElementData Megabyte per Second (RW))
SUM CLIENT SHUTDOWN HINT: 502951
SUM CLIENT SHUTDOWN HINT DIV TIME: 4081.97
4831: CHANGING RESSOURCES
4836: CHANGING RESSOURCES
4839: CHANGING RESSOURCES

 + Terminating after 1000 timesteps with equal number of triangles -> EXIT
 + Final timestep: 59579

59580 TS (Timesteps)
3022.12 ST (SIMULATION_TIME)
0.0500175 TSS (Timestep size)
4703.28 SFS (Overall seconds for Simulation)
20954211547 TP (Triangles processed)
0.0789406 ASPT (Averaged Seconds per Timestep)
351699 TPST (Triangles Processed in Average per Simulation Timestep)
95.0841 PPST (Partitions Processed in Average per Simulation Timestep)
4.45523 MTPS (Million Triangles per Second)
-4.45523 MTPSPT (Million Triangles per Second per Thread)
10.733 EDMBPT (ElementData Megabyte per Timestep (RW))
135.963 EDMBPS (ElementData Megabyte per Second (RW))
SUM CLIENT SHUTDOWN HINT: 523905
SUM CLIENT SHUTDOWN HINT DIV TIME: 4081.97
4836: CHANGING RESSOURCES
4839: CHANGING RESSOURCES
Waiting for job 4832
Waiting for job 4833
Waiting for job 4834
Waiting for job 4835
Waiting for job 4836

 + Terminating after 1000 timesteps with equal number of triangles -> EXIT
 + Final timestep: 59579

59580 TS (Timesteps)
3022.12 ST (SIMULATION_TIME)
0.0500175 TSS (Timestep size)
4720.89 SFS (Overall seconds for Simulation)
20954211547 TP (Triangles processed)
0.0792361 ASPT (Averaged Seconds per Timestep)
351699 TPST (Triangles Processed in Average per Simulation Timestep)
95.0841 PPST (Partitions Processed in Average per Simulation Timestep)
4.43862 MTPS (Million Triangles per Second)
-4.43862 MTPSPT (Million Triangles per Second per Thread)
10.733 EDMBPT (ElementData Megabyte per Timestep (RW))
135.456 EDMBPS (ElementData Megabyte per Second (RW))
SUM CLIENT SHUTDOWN HINT: 544860
SUM CLIENT SHUTDOWN HINT DIV TIME: 4081.97
4839: CHANGING RESSOURCES
Waiting for job 4837
Waiting for job 4838
Waiting for job 4839

 + Terminating after 1000 timesteps with equal number of triangles -> EXIT
 + Final timestep: 59579

59580 TS (Timesteps)
3022.12 ST (SIMULATION_TIME)
0.0500175 TSS (Timestep size)
4721.39 SFS (Overall seconds for Simulation)
20954211547 TP (Triangles processed)
0.0792446 ASPT (Averaged Seconds per Timestep)
351699 TPST (Triangles Processed in Average per Simulation Timestep)
95.0841 PPST (Partitions Processed in Average per Simulation Timestep)
4.43814 MTPS (Million Triangles per Second)
-4.43814 MTPSPT (Million Triangles per Second per Thread)
10.733 EDMBPT (ElementData Megabyte per Timestep (RW))
135.441 EDMBPS (ElementData Megabyte per Second (RW))
SUM CLIENT SHUTDOWN HINT: 565814
SUM CLIENT SHUTDOWN HINT DIV TIME: 119.842
Waiting for job 4840
Waiting for job 4841
Waiting for job 4842
Waiting for job 4843
Waiting for job 4844
Waiting for job 4845
Waiting for job 4846
Waiting for job 4847
Waiting for job 4848
Waiting for job 4849
Waiting for job 4850
Tue Apr  3 01:09:17 CEST 2012
Seconds: 4722
