0	0
59.5073	0
119.015	0
178.522	0
238.029	0
297.537	0
357.044	0
416.551	0
476.058	0
535.566	0
595.073	0
654.58	0
714.088	0
773.595	0
833.102	0
892.61	0
952.117	0
1011.62	0
1071.13	0
1130.64	0
1190.15	0
1249.65	0
1309.16	0
1368.67	0
1428.18	0
1487.68	0
1547.19	0
1606.7	0
1666.2	6.36646e-12
1725.71	6.27551e-11
1785.22	4.00178e-10
1844.72	1.92358e-09
1904.23	7.56336e-09
1963.73	2.54286e-08
2023.24	7.52798e-08
2082.74	2.0037e-07
2142.25	4.8706e-07
2201.75	1.09474e-06
2261.26	2.29881e-06
2320.76	4.55089e-06
2380.27	8.56543e-06
2439.77	1.54552e-05
2499.28	2.6965e-05
2558.78	4.58998e-05
2618.29	7.69103e-05
2677.79	0.000127876
2737.3	0.000212187
2796.8	0.000352245
2856.31	0.0005844
2915.81	0.000965328
2975.32	0.00157948
3034.82	0.00254674
3094.33	0.00402888
3153.84	0.00623304
3213.34	0.00941007
3272.85	0.0138459
3332.36	0.0198448
3391.87	0.0277033
3451.37	0.0376777
3510.88	0.0499454
3570.39	0.0645654
3629.89	0.0814432
3689.4	0.100304
3748.91	0.12068
3808.42	0.141917
3867.92	0.163197
3927.43	0.183581
3986.94	0.20207
4046.44	0.217676
4105.95	0.229488
4165.46	0.236748
4224.97	0.238904
4284.47	0.235657
4343.98	0.226973
4403.49	0.213088
4462.99	0.194484
4522.5	0.171843
4582.01	0.146003
4641.51	0.117888
4701.02	0.0884569
4760.53	0.0586395
4820.04	0.0292951
4879.54	0.00117485
4939.05	-0.0251
4998.56	-0.0490486
5058.07	-0.0703307
5117.57	-0.0887372
5177.08	-0.104177
5236.59	-0.116657
5296.09	-0.126268
5355.6	-0.133161
5415.11	-0.137536
5474.62	-0.139623
5534.12	-0.139672
5593.63	-0.137941
5653.14	-0.134688
5712.65	-0.130164
5772.15	-0.124608
5831.66	-0.11824
5891.17	-0.11126
5950.67	-0.103847
6010.18	-0.0961572
6069.69	-0.0883235
6129.2	-0.0804591
6188.7	-0.0726583
6248.21	-0.0649987
6307.72	-0.0575437
6367.22	-0.0503446
6426.73	-0.0434422
6486.24	-0.0368683
6545.75	-0.030647
6605.25	-0.024795
6664.76	-0.0193228
6724.27	-0.0142349
6783.77	-0.00953082
6843.28	-0.00520548
6902.79	-0.00125049
6962.3	0.0023451
7021.8	0.00559376
7081.31	0.00850855
7140.82	0.0111023
7200.32	0.0133871
7259.83	0.0153737
7319.34	0.0170715
7378.84	0.0184884
7438.35	0.0196312
7497.86	0.0205054
7557.36	0.0211161
7616.87	0.0214684
7676.38	0.0215671
7735.88	0.0214181
7795.39	0.0210281
7854.9	0.0204051
7914.4	0.0195589
7973.91	0.0185011
8033.42	0.0172453
8092.93	0.0158073
8152.43	0.0142049
8211.94	0.0124582
8271.45	0.0105887
8330.95	0.00861956
8390.46	0.0065752
8449.97	0.00448063
8509.47	0.00236121
8568.98	0.000242081
8628.49	-0.00185218
8688	-0.00389805
8747.5	-0.00587337
8807.01	-0.0077577
8866.52	-0.00953253
8926.02	-0.0111815
8985.53	-0.0126906
9045.04	-0.0140481
9104.55	-0.0152448
9164.05	-0.0162736
9223.56	-0.01713
9283.07	-0.0178116
9342.57	-0.0183182
9402.08	-0.0186513
9461.59	-0.0188145
9521.1	-0.0188128
9580.6	-0.0186526
9640.11	-0.0183416
9699.62	-0.0178885
9759.13	-0.0173028
9818.63	-0.0165948
9878.14	-0.0157755
9937.65	-0.0148561
9997.16	-0.0138483
10056.7	-0.0127639
10116.2	-0.0116152
10175.7	-0.0104142
10235.2	-0.00917309
10294.7	-0.00790407
10354.2	-0.00661916
10413.7	-0.00533026
10473.2	-0.00404903
10532.7	-0.0027869
10592.2	-0.00155495
10651.7	-0.000363895
10711.2	0.000776005
10770.8	0.00185499
10830.3	0.00286385
10889.8	0.00379404
10949.3	0.00463767
11008.8	0.00538764
11068.3	0.00603762
11127.8	0.00658217
11187.3	0.00701674
11246.8	0.00733773
11306.3	0.00754251
11365.8	0.00762943
11425.3	0.00759785
11484.8	0.00744813
11544.3	0.00718159
11603.9	0.00680054
11663.4	0.0063082
11722.9	0.00570869
11782.4	0.00500694
11841.9	0.00420868
11901.4	0.00332036
11960.9	0.00234905
12020.4	0.0013024
12079.9	0.00018853
12139.4	-0.000984022
12198.9	-0.0022064
12258.4	-0.00346953
12317.9	-0.00476416
12377.4	-0.00608099
12437	-0.00741072
12496.5	-0.00874414
12556	-0.0100722
12615.5	-0.011386
12675	-0.0126771
12734.5	-0.0139373
12794	-0.0151587
12853.5	-0.0163339
12913	-0.017456
12972.5	-0.0185187
13032	-0.0195161
13091.5	-0.0204427
13151	-0.0212938
13210.5	-0.0220652
13270.1	-0.0227532
13329.6	-0.0233548
13389.1	-0.0238673
13448.6	-0.0242889
13508.1	-0.0246182
13567.6	-0.0248541
13627.1	-0.0249965
13686.6	-0.0250454
13746.1	-0.0250016
13805.6	-0.0248662
13865.1	-0.0246408
13924.6	-0.0243277
13984.1	-0.0239293
14043.7	-0.0234486
14103.2	-0.0228891
14162.7	-0.0222547
14222.2	-0.0215494
14281.7	-0.0207779
14341.2	-0.0199451
14400.7	-0.0190561
14460.2	-0.0181164
14519.7	-0.0171316
14579.2	-0.0161078
14638.7	-0.0150507
14698.2	-0.0139667
14757.7	-0.0128619
14817.2	-0.0117424
14876.8	-0.0106145
14936.3	-0.00948406
14995.8	-0.0083571
15055.3	-0.00723928
15114.8	-0.00613605
15174.3	-0.00505256
15233.8	-0.00399364
15293.3	-0.00296375
15352.8	-0.00196692
15412.3	-0.00100678
15471.8	-8.65037e-05
15531.3	0.000791184
15590.8	0.00162403
15650.3	0.00241024
15709.9	0.00314847
15769.4	0.0038378
15828.9	0.00447774
15888.4	0.00506816
15947.9	0.00560931
16007.4	0.00610173
16066.9	0.00654622
16126.4	0.00694386
16185.9	0.00729586
16245.4	0.00760361
16304.9	0.0078686
16364.4	0.00809236
16423.9	0.00827646
16483.4	0.00842248
16543	0.00853193
16602.5	0.00860628
16662	0.00864692
16721.5	0.00865516
16781	0.0086322
16840.5	0.00857915
16900	0.00849703
16959.5	0.00838677
17019	0.00824925
17078.5	0.0080853
17138	0.00789569
17197.5	0.00768121
17257	0.00744268
17316.6	0.00718094
17376.1	0.0068969
17435.6	0.00659158
17495.1	0.00626609
17554.6	0.00592168
17614.1	0.00555975
17673.6	0.00518185
17733.1	0.00478969
17792.6	0.00438515
17852.1	0.00397027
17911.6	0.00354724
17971.1	0.00311838
18030.6	0.00268616
18090.1	0.00225315
18149.7	0.00182197
18209.2	0.00139533
18268.7	0.000975941
18328.2	0.000566512
18387.7	0.000169713
18447.2	-0.000211862
18506.7	-0.000575723
18566.2	-0.000919515
18625.7	-0.00124105
18685.2	-0.00153833
18744.7	-0.00180958
18804.2	-0.00205325
18863.7	-0.00226807
18923.2	-0.00245299
18982.8	-0.00260729
19042.3	-0.0027305
19101.8	-0.00282243
19161.3	-0.00288318
19220.8	-0.00291312
19280.3	-0.00291288
19339.8	-0.00288332
19399.3	-0.00282553
19458.8	-0.00274083
19518.3	-0.0026307
19577.8	-0.00249678
19637.3	-0.00234086
19696.8	-0.00216482
19756.3	-0.00197065
19815.9	-0.00176038
19875.4	-0.00153607
19934.9	-0.0012998
19994.4	-0.00105363
