0	0
13.1551	0
26.3101	0
32.8877	0
46.0427	0
52.6203	0
65.7753	0
72.3529	0
85.5079	0
92.0855	0
105.241	0
111.818	0
124.973	0
131.551	0
144.706	0
151.283	0
164.438	0
171.016	0
184.171	0
190.748	0
203.904	0
210.481	0
223.636	0
230.214	0
243.369	0
256.524	0
263.101	0
276.256	0
282.834	0
295.989	0
302.567	0
315.722	0
322.299	0
335.454	0
342.032	0
355.187	0
361.764	0
374.919	0
381.497	0
394.652	0
401.23	0
414.385	0
420.962	0
434.117	0
440.695	0
453.85	0
460.427	0
473.582	0
480.16	0
493.315	0
506.47	0
513.048	0
526.203	0
532.78	0
545.935	0
552.513	0
565.668	0
572.245	0
585.401	0
591.978	0
605.133	0
611.711	0
624.866	0
631.443	0
644.598	0
651.176	0
664.331	0
670.908	0
684.064	0
690.641	0
703.796	0
710.374	0
723.529	0
730.106	0
743.261	0
756.416	0
762.994	0
776.149	0
782.727	0
795.882	0
802.459	0
815.614	0
822.192	0
835.347	0
841.924	0
855.079	0
861.657	0
874.812	0
881.39	0
894.545	0
901.122	0
914.277	0
920.855	0
934.01	0
940.587	0
953.742	0
960.32	0
973.475	0
980.053	0
993.208	0
1006.36	0
1012.94	0
1026.1	0
1032.67	0
1045.83	0
1052.41	0
1065.56	0
1072.14	0
1085.29	0
1091.87	0
1105.03	0
1111.6	0
1124.76	0
1131.34	0
1144.49	0
1151.07	0
1164.22	0
1170.8	0
1183.96	0
1190.53	0
1203.69	0
1210.27	0
1223.42	0
1236.58	0
1243.15	0
1256.31	0
1262.89	0
1276.04	0
1282.62	0
1295.77	0
1302.35	0
1315.51	0
1322.08	0
1335.24	0
1341.82	0
1354.97	0
1361.55	0
1374.7	0
1381.28	0
1394.44	0
1401.01	0
1414.17	0
1420.75	0
1433.9	0
1440.48	0
1453.63	0
1460.21	0
1473.37	0
1486.52	0
1493.1	0
1506.25	0
1512.83	0
1525.99	0
1532.57	0
1545.72	0
1552.3	0
1565.45	0
1572.03	0
1585.19	0
1591.76	0
1604.92	0
1611.5	0
1624.65	0
1631.23	0
1644.38	0
1650.96	0
1664.12	0
1670.69	0
1683.85	0
1690.43	0
1703.58	0
1710.16	0
1723.31	0
1736.47	0
1743.05	0
1756.2	0
1762.78	0
1775.93	0
1782.51	0
1795.67	0
1802.24	0
1815.4	0
1821.97	0
1835.13	0
1841.71	0
1854.86	0
1861.44	0
1874.59	0
1881.17	0
1894.33	0
1900.9	0
1914.06	0
1920.64	0
1933.79	0
1940.37	0
1953.52	0
1960.1	0
1973.26	0
1986.41	0
1992.99	0
2006.14	0
2012.72	0
2025.87	0
2032.45	0
2045.61	0
2052.18	0
2065.34	0
2071.92	0
2085.07	0
2091.65	0
2104.8	0
2111.38	0
2124.53	0
2131.11	0
2144.27	0
2150.84	0
2164	0
2170.58	0
2183.73	0
2190.31	0
2203.46	0
2210.04	0
2223.19	0
2236.35	0
2242.93	0
2256.08	0
2262.66	0
2275.81	0
2282.39	0
2295.54	0
2302.12	0
2315.28	0
2321.85	0
2335.01	0
2341.58	0
2354.74	0
2361.32	0
2374.47	0
2381.05	0
2394.2	0
2400.78	0
2413.93	0
2420.51	0
2433.67	0
2440.24	0
2453.4	0
2466.55	0
2473.13	0
2486.28	0
2492.86	0
2506.01	0
2512.59	0
2525.74	0
2532.32	0
2545.48	0
2552.05	0
2565.21	0
2571.78	9.09495e-13
2584.94	1.81899e-12
2591.52	2.72848e-12
2604.67	6.36646e-12
2611.25	9.09495e-12
2624.4	1.72804e-11
2630.98	2.27374e-11
2644.13	3.91083e-11
2650.71	5.18412e-11
2663.86	9.004e-11
2670.44	1.17325e-10
2683.6	1.9736e-10
2690.17	2.54659e-10
2703.33	4.21096e-10
2716.48	6.86668e-10
2723.06	8.73115e-10
2736.21	1.39789e-09
2742.79	1.76169e-09
2755.94	2.77578e-09
2762.52	3.46881e-09
2775.68	5.3742e-09
2782.25	6.66205e-09
2795.41	1.01572e-08
2801.98	1.24919e-08
2815.14	1.87483e-08
2821.72	2.28802e-08
2834.87	3.38214e-08
2841.45	4.09673e-08
2854.6	5.96683e-08
2861.18	7.175e-08
2874.33	1.0301e-07
2880.91	1.22993e-07
2894.06	1.74125e-07
2900.64	2.06473e-07
2913.8	2.88358e-07
2920.37	3.3964e-07
2933.53	4.68101e-07
2940.11	5.47761e-07
2953.26	7.45288e-07
2966.41	1.00559e-06
2972.99	1.16446e-06
2986.15	1.552e-06
2992.72	1.78636e-06
3005.88	2.35266e-06
3012.46	2.69208e-06
3025.61	3.5047e-06
3032.19	3.9875e-06
3045.34	5.13312e-06
3051.92	5.80801e-06
3065.07	7.39553e-06
3071.65	8.32303e-06
3084.81	1.04864e-05
3091.38	1.17402e-05
3104.54	1.46406e-05
3111.12	1.63084e-05
3124.27	2.01361e-05
3130.85	2.23203e-05
3144	2.72945e-05
3150.58	3.01119e-05
3163.74	3.64801e-05
3170.31	4.00613e-05
3183.47	4.80968e-05
3190.05	5.2584e-05
3203.2	6.25816e-05
3216.36	7.40591e-05
3222.93	8.03968e-05
3236.09	9.43589e-05
3242.67	0.000102019
3255.82	0.000118785
3262.4	0.000127925
3275.55	0.000147807
3282.13	0.000158581
3295.29	0.000181874
3301.86	0.000194422
3315.02	0.000221394
3321.6	0.000235842
3334.75	0.000266722
3341.33	0.000283174
3354.48	0.000318148
3361.06	0.000336684
3374.22	0.000375883
3380.79	0.000396554
3393.95	0.000440053
3400.53	0.000462882
3413.68	0.000510695
3420.26	0.000535675
3433.41	0.00058776
3446.57	0.000642643
3453.15	0.000671117
3466.3	0.000730088
3472.88	0.000760568
3486.03	0.000823467
3492.61	0.000855867
3505.77	0.000922518
3512.34	0.000956749
3525.5	0.00102698
3532.08	0.00106297
3545.23	0.00113665
3551.81	0.00117434
3564.96	0.00125142
3571.54	0.00129082
3584.7	0.00137138
3591.27	0.00141256
3604.43	0.00149687
3611.01	0.00154004
3624.16	0.00162864
3630.74	0.00167416
3643.89	0.001768
3650.47	0.00181647
3663.63	0.001917
3670.2	0.0019693
3683.36	0.0020787
3696.51	0.00219567
3703.09	0.00225751
3716.25	0.00238914
3722.82	0.00245953
3735.98	0.00261114
3742.56	0.00269315
3755.71	0.00287186
3762.29	0.0029696
3775.44	0.00318483
3782.02	0.0033037
3795.18	0.00356779
3801.75	0.00371477
3814.91	0.00404358
3821.49	0.00422763
3834.64	0.00464131
3841.22	0.00487373
3854.37	0.00539755
3860.95	0.0056924
3874.11	0.0063576
3880.68	0.00673217
3893.84	0.00757687
3900.41	0.00805208
3913.57	0.0091221
3920.15	0.00972294
3933.3	0.0110726
3946.46	0.0126432
3953.03	0.0135209
3966.19	0.0154818
3972.77	0.0165737
3985.92	0.0190036
3992.5	0.0203514
4005.65	0.0233381
4012.23	0.0249878
4025.39	0.0286272
4031.96	0.0306284
4045.12	0.0350229
4051.7	0.0374281
4064.85	0.0426845
4071.43	0.0455478
4084.58	0.0517747
4091.16	0.0551501
4104.32	0.062454
4110.89	0.0663937
4124.05	0.0748751
4130.63	0.0794269
4143.78	0.0891755
4150.36	0.0943806
4163.51	0.10547
4170.09	0.111361
4183.25	0.123844
4196.4	0.137272
4202.98	0.144342
4216.13	0.15919
4222.71	0.166965
4235.87	0.183203
4242.44	0.191659
4255.6	0.209219
4262.18	0.218311
4275.33	0.237085
4281.91	0.246748
4295.06	0.266581
4301.64	0.276729
4314.8	0.297426
4321.37	0.307948
4334.53	0.32927
4341.11	0.340038
4354.26	0.361707
4360.84	0.372573
4373.99	0.394277
4380.57	0.405077
4393.73	0.426475
4400.3	0.437033
4413.46	0.457763
4420.04	0.467895
4433.19	0.487585
4446.35	0.506372
4452.92	0.515375
4466.08	0.532498
4472.66	0.540578
4485.81	0.555677
4492.39	0.562659
4505.54	0.5754
4512.12	0.581125
4525.28	0.591206
4531.85	0.595532
4545.01	0.60269
4551.59	0.605498
4564.74	0.609521
4571.32	0.610717
4584.47	0.611445
4591.05	0.610964
4604.21	0.608295
4610.78	0.606101
4623.94	0.599991
4630.52	0.596078
4643.67	0.586546
4650.25	0.580937
4663.4	0.568061
4676.56	0.553025
4683.14	0.544721
4696.29	0.526592
4702.87	0.516791
4716.02	0.495786
4722.6	0.48461
4735.76	0.460989
4742.33	0.448577
4755.49	0.422636
4762.07	0.409145
4775.22	0.381212
4781.8	0.36681
4794.95	0.337233
4801.53	0.322098
4814.69	0.291239
4821.26	0.275555
4834.42	0.243784
4841	0.227738
4854.15	0.195425
4860.73	0.1792
4873.88	0.146711
4880.46	0.130486
4893.62	0.0981735
4900.19	0.0821225
4913.35	0.0503218
4926.5	0.0190389
4933.08	0.00363334
4946.24	-0.0266268
4952.81	-0.0414513
4965.97	-0.0704179
4972.55	-0.0845332
4985.7	-0.111965
4992.28	-0.125259
5005.43	-0.150947
5012.01	-0.163323
5025.17	-0.187092
5031.74	-0.19847
5044.9	-0.220177
5051.48	-0.230495
5064.63	-0.250033
5071.21	-0.259245
5084.36	-0.276538
5090.94	-0.284614
5104.1	-0.299621
5110.67	-0.306549
5123.83	-0.319258
5130.41	-0.32504
5143.56	-0.335469
5150.14	-0.340121
5163.29	-0.348316
5176.45	-0.355061
5183.03	-0.3579
5196.18	-0.362541
5202.76	-0.364355
5215.91	-0.367
5222.49	-0.367845
5235.65	-0.368618
5242.22	-0.36856
5255.38	-0.3676
5261.96	-0.366713
5275.11	-0.36417
5281.69	-0.362532
5294.84	-0.358566
5301.42	-0.356256
5314.58	-0.351032
5321.15	-0.348136
5334.31	-0.341821
5340.89	-0.338422
5354.04	-0.331186
5360.62	-0.327367
5373.77	-0.319376
5380.35	-0.31522
5393.51	-0.306634
5400.08	-0.302221
5413.24	-0.293196
5426.39	-0.283961
5432.97	-0.279285
5446.13	-0.269851
5452.71	-0.265109
5465.86	-0.255607
5472.44	-0.250862
5485.59	-0.241412
5492.17	-0.23672
5505.33	-0.227429
5511.9	-0.222841
5525.06	-0.213805
5531.64	-0.209366
5544.79	-0.200668
5551.37	-0.196416
5564.52	-0.188125
5571.1	-0.184092
5584.26	-0.176267
5590.83	-0.17248
5603.99	-0.165168
5610.57	-0.161646
5623.72	-0.154881
5630.3	-0.15164
5643.45	-0.145447
5650.03	-0.142496
5663.19	-0.136889
5676.34	-0.131677
5682.92	-0.129219
5696.07	-0.124596
5702.65	-0.122431
5715.81	-0.118391
5722.38	-0.116513
5735.54	-0.113039
5742.12	-0.111439
5755.27	-0.108508
5761.85	-0.107174
5775	-0.10476
5781.58	-0.103676
5794.74	-0.101745
5801.31	-0.100894
5814.47	-0.0994104
5821.05	-0.0987731
5834.2	-0.097696
5840.78	-0.0972515
5853.93	-0.0965383
5860.51	-0.0962645
5873.67	-0.0958701
5880.24	-0.0957443
5893.4	-0.0956221
5906.55	-0.0956553
5913.13	-0.0957235
5926.29	-0.0959499
5932.86	-0.0961029
5946.02	-0.0964753
5952.6	-0.0966895
5965.75	-0.0971611
5972.33	-0.0974135
5985.48	-0.0979392
5992.06	-0.0982076
6005.22	-0.0987437
6011.79	-0.0990068
6024.95	-0.0995123
6031.53	-0.0997503
6044.68	-0.100187
6051.26	-0.100381
6064.41	-0.100713
6070.99	-0.100848
6084.15	-0.101044
6090.72	-0.101103
6103.88	-0.101135
6110.46	-0.101106
6123.61	-0.100952
6130.19	-0.100824
6143.34	-0.100462
6156.5	-0.0999542
6163.08	-0.0996435
6176.23	-0.0989061
6182.81	-0.0984785
6195.96	-0.0975041
6202.54	-0.0969568
6215.7	-0.0957419
6222.27	-0.0950743
6235.43	-0.0936197
6242	-0.0928333
6255.16	-0.0911439
6261.74	-0.0902419
6274.89	-0.0883263
6281.47	-0.0873139
6294.62	-0.0851838
6301.2	-0.0840678
6314.36	-0.0817384
6320.93	-0.080527
6334.09	-0.0780159
6340.67	-0.0767185
6353.82	-0.0740458
6360.4	-0.0726729
6373.55	-0.0698605
6380.13	-0.0684235
6393.29	-0.0654948
6406.44	-0.0625021
6413.02	-0.0609853
6426.17	-0.0579176
6432.75	-0.0563696
6445.91	-0.0532524
6452.48	-0.0516861
6465.64	-0.048545
6472.22	-0.046973
6485.37	-0.0438333
6491.95	-0.0422684
6505.1	-0.0391549
6511.68	-0.0376092
6524.84	-0.034546
6531.41	-0.0330312
6544.57	-0.0300414
6551.14	-0.0285687
6564.3	-0.0256739
6570.88	-0.0242539
6584.03	-0.0214743
6590.61	-0.0201167
6603.76	-0.017471
6610.34	-0.0161848
6623.5	-0.01369
6630.07	-0.0124831
6643.23	-0.0101543
6656.38	-0.00794355
6662.96	-0.00688414
6676.12	-0.00486026
6682.69	-0.00389687
6695.85	-0.00206965
6702.43	-0.00120668
6715.58	0.000416135
6722.16	0.00117535
6735.31	0.00258812
6741.89	0.00324128
6755.05	0.00444048
6761.62	0.00498636
6774.78	0.00597058
6781.36	0.006409
6794.51	0.00717893
6801.09	0.00751076
6814.24	0.00806919
6820.82	0.00829632
6833.98	0.00864803
6840.55	0.00877336
6853.71	0.00892513
6860.29	0.00895253
6873.44	0.00891303
6880.02	0.00884729
6893.17	0.00862699
6906.33	0.00829283
6912.9	0.00808487
6926.06	0.00759108
6932.64	0.0073069
6945.79	0.00666822
6952.37	0.00631551
6965.52	0.00554801
6972.1	0.00513512
6985.26	0.00425602
6991.83	0.00379184
7004.99	0.00281939
7011.57	0.00231324
7024.72	0.00126648
7031.3	0.00072806
7044.45	-0.000373328
7051.03	-0.000934062
7064.19	-0.00206999
7070.76	-0.00264293
7083.92	-0.00379309
7090.5	-0.00436805
7103.65	-0.00551212
7110.23	-0.00607899
7123.38	-0.00719684
7136.54	-0.00828621
7143.12	-0.00881752
7156.27	-0.00984809
7162.85	-0.0103453
7176	-0.0112984
7182.58	-0.0117523
7195.74	-0.0126102
7202.31	-0.0130123
7215.47	-0.0137583
7222.05	-0.0141005
7235.2	-0.014719
7241.78	-0.0149939
7254.93	-0.015471
7261.51	-0.0156718
7274.67	-0.0159948
7281.25	-0.0161157
7294.4	-0.0162736
7300.98	-0.0163095
7314.13	-0.016293
7320.71	-0.0162398
7333.87	-0.0160414
7340.44	-0.0158957
7353.6	-0.01551
7360.18	-0.0152695
7373.33	-0.0146927
7386.49	-0.0139873
7393.06	-0.0135863
7406.22	-0.0126881
7412.8	-0.0121909
7425.95	-0.0111013
7432.53	-0.0105091
7445.68	-0.00923156
7452.26	-0.0085467
7465.42	-0.00708656
7471.99	-0.00631209
7485.15	-0.00467658
7491.73	-0.00381655
7504.88	-0.00201462
7511.46	-0.0010739
7524.61	0.000883858
7531.19	0.00189956
7544.35	0.00400103
7550.92	0.00508529
7564.08	0.00731695
7570.66	0.00846271
7583.81	0.0108098
7590.39	0.0120094
7603.54	0.0144561
7610.12	0.0157014
7623.28	0.0182311
7636.43	0.0208064
7643.01	0.0221087
7656.16	0.0247378
7662.74	0.0260624
7675.9	0.0287271
7682.47	0.0300651
7695.63	0.0327472
7702.21	0.0340894
7715.36	0.0367709
7721.94	0.0381083
7735.09	0.0407714
7741.67	0.0420952
7754.83	0.0447227
7761.4	0.0460244
7774.56	0.0485996
7781.14	0.0498712
7794.29	0.0523784
7800.87	0.0536124
7814.02	0.0560369
7820.6	0.0572261
7833.76	0.0595545
7840.33	0.0606924
7853.49	0.0629125
7860.07	0.0639935
7873.22	0.0660945
7886.38	0.0681108
7892.95	0.069086
7906.11	0.0709684
7912.69	0.0718749
7925.84	0.0736167
7932.42	0.0744514
7945.57	0.0760473
7952.15	0.076808
7965.31	0.0782541
7971.88	0.0789392
7985.04	0.0802332
7991.62	0.0808419
8004.77	0.0819828
8011.35	0.082515
8024.5	0.083503
8031.08	0.083959
8044.24	0.0847957
8050.81	0.0851766
8063.97	0.0858643
8070.55	0.0861715
8083.7	0.0867138
8090.28	0.0869493
8103.43	0.0873502
8110.01	0.0875162
8123.17	0.0877806
8136.32	0.0879569
8142.9	0.0880128
8156.05	0.0880617
8162.63	0.0880553
8175.79	0.0879825
8182.36	0.0879167
8195.52	0.0877282
8202.1	0.0876061
8215.25	0.0873078
8221.83	0.0871323
8234.98	0.0867302
8241.56	0.0865041
8254.72	0.0860038
8261.29	0.08573
8274.45	0.0851369
8281.03	0.084818
8294.18	0.0841371
8300.76	0.0837755
8313.91	0.0830115
8320.49	0.0826095
8333.65	0.0817666
8340.22	0.0813261
8353.38	0.0804081
8366.53	0.0794418
8373.11	0.078941
8386.27	0.0779047
8392.84	0.0773696
8406	0.0762657
8412.58	0.0756973
8425.73	0.0745279
8432.31	0.0739271
8445.46	0.0726937
8452.04	0.0720612
8465.2	0.0707647
8471.77	0.0701009
8484.93	0.0687423
8491.51	0.0680475
8504.66	0.066627
8511.24	0.0659013
8524.39	0.0644191
8530.97	0.0636625
8544.13	0.0621185
8550.7	0.061331
8563.86	0.059725
8570.44	0.0589064
8583.59	0.0572381
8590.17	0.0563882
8603.33	0.0546573
8616.48	0.0528845
8623.06	0.0519824
8636.21	0.0501467
8642.79	0.0492132
8655.95	0.0473148
8662.52	0.0463499
8675.68	0.0443891
8682.26	0.0433932
8695.41	0.0413706
8701.99	0.0403442
8715.14	0.0382611
8721.72	0.0372047
8734.88	0.0350627
8741.45	0.0339774
8754.61	0.0317787
8761.19	0.0306656
8774.34	0.0284129
8780.92	0.0272736
8794.07	0.0249703
8800.65	0.0238067
8813.81	0.0214568
8820.38	0.0202711
8833.54	0.0178793
8840.12	0.016674
8853.27	0.0142458
8866.43	0.0117966
8873	0.0105651
8886.16	0.00808992
8892.74	0.00684712
8905.89	0.00435314
8912.47	0.00310282
8925.62	0.000597726
8932.2	-0.000656123
8945.36	-0.00316406
8951.93	-0.00441718
8965.09	-0.00691924
8971.67	-0.00816716
8984.82	-0.0106542
8991.4	-0.0118923
9004.55	-0.0143549
9011.13	-0.0155783
9024.29	-0.0180069
9030.86	-0.0192109
9044.02	-0.0215956
9050.6	-0.0227752
9063.75	-0.0251064
9070.33	-0.0262568
9083.49	-0.0285248
9090.06	-0.0296412
9103.22	-0.0318366
9116.37	-0.0339785
9122.95	-0.0350282
9136.11	-0.0370826
9142.68	-0.0380864
9155.84	-0.0400452
9162.42	-0.0409992
9175.57	-0.0428545
9182.15	-0.0437551
9195.3	-0.0455002
9201.88	-0.046344
9215.04	-0.0479727
9221.61	-0.0487569
9234.77	-0.050264
9241.35	-0.0509863
9254.5	-0.0523674
9261.08	-0.0530258
9274.23	-0.0542777
9280.81	-0.0548708
9293.97	-0.0559912
9300.54	-0.0565182
9313.7	-0.0575059
9320.28	-0.0579664
9333.43	-0.0588212
9340.01	-0.0592155
9353.16	-0.0599384
9366.32	-0.0605744
9372.9	-0.0608601
9386.05	-0.061368
9392.63	-0.0615906
9405.78	-0.0619741
9412.36	-0.0621355
9425.52	-0.0623992
9432.09	-0.0625021
9445.25	-0.0626514
9451.83	-0.0626985
9464.98	-0.0627397
9471.56	-0.0627345
9484.71	-0.0626745
9491.29	-0.0626205
9504.45	-0.0624669
9511.02	-0.0623681
9524.18	-0.0621288
9530.76	-0.0619893
9543.91	-0.061673
9550.49	-0.0614971
9563.64	-0.0611124
9570.22	-0.0609045
9583.38	-0.0604603
9596.53	-0.0599815
9603.11	-0.0597303
9616.26	-0.059207
9622.84	-0.0589358
9636	-0.0583769
9642.57	-0.0580901
9655.73	-0.0575042
9662.31	-0.057206
9675.46	-0.0566014
9682.04	-0.0562959
9695.19	-0.0556806
9701.77	-0.0553717
9714.93	-0.0547532
9721.5	-0.0544444
9734.66	-0.0538296
9741.24	-0.0535243
9754.39	-0.0529196
9760.97	-0.0526208
9774.12	-0.0520317
9780.7	-0.0517421
9793.86	-0.0511738
9800.43	-0.0508956
9813.59	-0.0503524
9820.17	-0.0500877
9833.32	-0.0495732
9846.48	-0.0490794
9853.05	-0.0488406
9866.21	-0.04838
9872.79	-0.0481583
9885.94	-0.0477326
9892.52	-0.0475287
9905.67	-0.047139
9912.25	-0.0469533
9925.41	-0.0466002
9931.98	-0.0464328
9945.14	-0.0461162
9951.72	-0.0459669
9964.87	-0.0456863
9971.45	-0.0455547
9984.6	-0.045309
9991.18	-0.0451946
10004.3	-0.0449823
10010.9	-0.0448843
10024.1	-0.0447037
10030.6	-0.044621
10043.8	-0.0444702
10050.4	-0.0444018
10063.5	-0.0442783
10070.1	-0.044223
10083.3	-0.0441246
10096.4	-0.0440414
10103	-0.0440052
10116.2	-0.0439427
10122.7	-0.0439162
10135.9	-0.043872
10142.5	-0.0438539
10155.6	-0.0438253
10162.2	-0.0438144
10175.4	-0.0437989
10181.9	-0.043794
10195.1	-0.0437892
10201.7	-0.0437892
10214.8	-0.043793
10221.4	-0.0437966
10234.5	-0.0438069
10241.1	-0.0438133
10254.3	-0.0438281
10260.9	-0.0438364
10274	-0.0438541
10280.6	-0.0438634
10293.7	-0.0438824
10300.3	-0.0438921
10313.5	-0.0439112
10320.1	-0.0439205
10333.2	-0.0439386
10346.4	-0.0439554
10352.9	-0.0439632
10366.1	-0.0439774
10372.7	-0.0439838
10385.8	-0.0439948
10392.4	-0.0439995
10405.6	-0.0440068
10412.1	-0.0440095
10425.3	-0.0440127
10431.9	-0.0440132
10445	-0.044012
10451.6	-0.0440103
10464.8	-0.0440045
10471.3	-0.0440004
10484.5	-0.0439898
10491.1	-0.0439833
10504.2	-0.0439678
10510.8	-0.0439588
10524	-0.0439382
10530.5	-0.0439266
10543.7	-0.0439008
10550.3	-0.0438865
10563.4	-0.0438552
10570	-0.0438382
10583.2	-0.0438012
10596.3	-0.0437601
10602.9	-0.0437381
10616	-0.0436906
10622.6	-0.0436652
10635.8	-0.0436109
10642.4	-0.0435819
10655.5	-0.0435199
10662.1	-0.0434869
10675.2	-0.0434165
10681.8	-0.0433791
10695	-0.0432993
10701.6	-0.0432569
10714.7	-0.0431667
10721.3	-0.0431188
10734.4	-0.0430168
10741	-0.0429627
10754.2	-0.0428476
10760.7	-0.0427866
10773.9	-0.0426568
10780.5	-0.042588
10793.6	-0.0424419
10800.2	-0.0423645
10813.4	-0.0422002
10826.5	-0.0420227
10833.1	-0.0419288
10846.3	-0.0417299
10852.8	-0.0416247
10866	-0.0414023
10872.6	-0.0412847
10885.7	-0.0410366
10892.3	-0.0409056
10905.5	-0.0406295
10912	-0.040484
10925.2	-0.0401776
10931.8	-0.0400165
10944.9	-0.0396776
10951.5	-0.0394996
10964.7	-0.0391259
10971.2	-0.03893
10984.4	-0.0385193
10991	-0.0383043
11004.1	-0.0378543
11010.7	-0.0376192
11023.8	-0.0371279
11030.4	-0.0368716
11043.6	-0.0363371
11050.2	-0.0360586
11063.3	-0.0354789
11076.5	-0.034868
11083	-0.0345507
11096.2	-0.0338919
11102.8	-0.0335502
11115.9	-0.0328421
11122.5	-0.0324754
11135.7	-0.0317167
11142.2	-0.0313245
11155.4	-0.0305142
11162	-0.0300961
11175.1	-0.0292336
11181.7	-0.0287892
11194.9	-0.027874
11201.4	-0.0274032
11214.6	-0.0264351
11221.2	-0.0259379
11234.3	-0.0249172
11240.9	-0.0243937
11254.1	-0.0233207
11260.6	-0.0227712
11273.8	-0.0216467
11280.4	-0.0210717
11293.5	-0.0198968
11300.1	-0.0192969
11313.3	-0.0180729
11326.4	-0.0168172
11333	-0.0161777
11346.1	-0.014876
11352.7	-0.0142141
11365.9	-0.0128687
11372.5	-0.0121855
11385.6	-0.0107991
11392.2	-0.0100961
11405.3	-0.00867136
11411.9	-0.00795003
11425.1	-0.00649032
11431.7	-0.00575232
11444.8	-0.00426106
11451.4	-0.00350821
11464.5	-0.00198914
11471.1	-0.00122336
11484.3	0.000319542
11490.9	0.0010962
11504	0.00265873
11510.6	0.00344412
11523.7	0.00502188
11530.3	0.00581374
11543.5	0.00740215
11550.1	0.00819818
11563.2	0.00979253
11576.4	0.0113882
11582.9	0.0121858
11596.1	0.0137793
11602.7	0.0145746
11615.8	0.016161
11622.4	0.0169515
11635.6	0.0185259
11642.1	0.0193092
11655.3	0.0208666
11661.9	0.0216402
11675	0.0231758
11681.6	0.0239372
11694.8	0.0254462
11701.3	0.0261932
11714.5	0.0276709
11721.1	0.0284011
11734.2	0.0298431
11740.8	0.0305543
11754	0.0319563
11760.5	0.0326466
11773.7	0.0340046
11780.3	0.0346719
11793.4	0.0359823
11806.6	0.0372589
11813.2	0.0378841
11826.3	0.0391076
11832.9	0.0397055
11846	0.0408731
11852.6	0.0414424
11865.8	0.0425516
11872.3	0.0430913
11885.5	0.0441402
11892.1	0.0446493
11905.2	0.0456363
11911.8	0.0461142
11925	0.0470384
11931.5	0.0474846
11944.7	0.0483453
11951.3	0.0487597
11964.4	0.0495567
11971	0.0499393
11984.2	0.0506729
11990.7	0.051024
