
Threads: 
THREADS	MAGIC_NUMBER	MTPS	AVERAGE_TRIANGLES	AVERAGE_PARTITIONS
12	1	30.6687	844746	1368.58
12	2	32.3526	844746	700.488
12	3	33.0438	844746	488.883
12	4	33.5439	844746	362.349
12	5	33.8709	844746	279.657
12	6	33.6032	844746	254.772
12	7	33.8254	844746	238.851
12	8	33.7712	844746	189.924
12	9	34.0143	844746	158.627
12	10	33.7758	844746	148.832
12	11	33.9081	844746	140.677
12	12	33.9201	844746	134.876
12	13	33.7158	844746	129.836
12	14	33.8053	844746	124.697
12	15	33.9241	844746	114.534
12	16	33.7071	844746	101.189
12	17	33.8907	844746	94.119
12	18	33.4325	844746	85.893
12	19	33.4013	844746	83.0508
12	20	33.5427	844746	80.6065
12	21	33.6113	844746	78.2483
12	22	33.4396	844746	75.7779
12	23	33.3177	844746	73.7643
12	24	33.5318	844746	72.1577
12	25	33.5041	844746	70.5255
12	26	33.1914	844746	68.9013

Threads: 
THREADS	MAGIC_NUMBER	MTPS	AVERAGE_TRIANGLES	AVERAGE_PARTITIONS
11	1	29.1191	844746	1368.58
11	2	30.8648	844746	700.488
11	3	31.7172	844746	488.883
11	4	32.0159	844746	362.349
11	5	32.3416	844746	279.657
11	6	32.372	844746	254.772
11	7	32.8131	844746	238.851
11	8	32.7273	844746	189.924
11	9	32.8397	844746	158.627
11	10	32.8383	844746	148.832
11	11	33.1922	844746	140.677
11	12	32.757	844746	134.876
11	13	32.8897	844746	129.836
11	14	33.015	844746	124.697
11	15	32.8251	844746	114.534
11	16	32.7355	844746	101.189
11	17	32.7102	844746	94.119
11	18	32.9654	844746	85.893
11	19	32.6441	844746	83.0508
11	20	32.5201	844746	80.6065
11	21	32.5434	844746	78.2483
11	22	32.4753	844746	75.7779
11	23	32.4798	844746	73.7643
11	24	32.5594	844746	72.1577
11	25	32.4952	844746	70.5255
11	26	32.4338	844746	68.9013

Threads: 
THREADS	MAGIC_NUMBER	MTPS	AVERAGE_TRIANGLES	AVERAGE_PARTITIONS
10	1	27.877	844746	1368.58
10	2	29.4485	844746	700.488
10	3	30.3709	844746	488.883
10	4	30.4987	844746	362.349
10	5	30.9966	844746	279.657
10	6	30.9152	844746	254.772
10	7	31.103	844746	238.851
10	8	31.0776	844746	189.924
10	9	30.9952	844746	158.627
10	10	31.1832	844746	148.832
10	11	31.0659	844746	140.677
10	12	31.0948	844746	134.876
10	13	31.1554	844746	129.836
10	14	31.0669	844746	124.697
10	15	31.1235	844746	114.534
10	16	30.9949	844746	101.189
10	17	31.2054	844746	94.119
10	18	30.9373	844746	85.893
10	19	30.8886	844746	83.0508
10	20	30.8073	844746	80.6065
10	21	30.8303	844746	78.2483
10	22	30.7962	844746	75.7779
10	23	30.701	844746	73.7643
10	24	30.6274	844746	72.1577
10	25	30.8114	844746	70.5255
10	26	30.873	844746	68.9013

Threads: 
THREADS	MAGIC_NUMBER	MTPS	AVERAGE_TRIANGLES	AVERAGE_PARTITIONS
9	1	25.8753	844746	1368.58
9	2	27.5357	844746	700.488
9	3	28.2372	844746	488.883
9	4	28.5487	844746	362.349
9	5	28.9236	844746	279.657
9	6	28.8898	844746	254.772
9	7	28.9806	844746	238.851
9	8	29.1844	844746	189.924
9	9	29.0848	844746	158.627
9	10	29.2153	844746	148.832
9	11	29.2425	844746	140.677
9	12	29.1276	844746	134.876
9	13	29.3573	844746	129.836
9	14	29.2405	844746	124.697
9	15	29.1301	844746	114.534
9	16	29.1116	844746	101.189
9	17	29.1801	844746	94.119
9	18	29.056	844746	85.893
9	19	28.9006	844746	83.0508
9	20	28.771	844746	80.6065
9	21	28.849	844746	78.2483
9	22	28.8799	844746	75.7779
9	23	28.8468	844746	73.7643
9	24	28.7727	844746	72.1577
9	25	28.7995	844746	70.5255
9	26	28.6183	844746	68.9013

Threads: 
THREADS	MAGIC_NUMBER	MTPS	AVERAGE_TRIANGLES	AVERAGE_PARTITIONS
8	1	23.4719	844746	1368.58
8	2	24.8869	844746	700.488
8	3	25.7136	844746	488.883
8	4	26.0711	844746	362.349
8	5	26.4074	844746	279.657
8	6	26.504	844746	254.772
8	7	26.5566	844746	238.851
8	8	26.6054	844746	189.924
8	9	26.5974	844746	158.627
8	10	26.6073	844746	148.832
8	11	26.8148	844746	140.677
8	12	26.7014	844746	134.876
8	13	26.6651	844746	129.836
8	14	26.7314	844746	124.697
8	15	26.8508	844746	114.534
8	16	26.6949	844746	101.189
8	17	26.6579	844746	94.119
8	18	26.5527	844746	85.893
8	19	26.4497	844746	83.0508
8	20	26.5548	844746	80.6065
8	21	26.4478	844746	78.2483
8	22	26.3946	844746	75.7779
8	23	26.4742	844746	73.7643
8	24	26.4594	844746	72.1577
8	25	26.5043	844746	70.5255
8	26	26.3722	844746	68.9013

Threads: 
THREADS	MAGIC_NUMBER	MTPS	AVERAGE_TRIANGLES	AVERAGE_PARTITIONS
7	1	20.4809	844746	1368.58
7	2	21.8179	844746	700.488
7	3	22.3956	844746	488.883
7	4	22.7884	844746	362.349
7	5	23.0575	844746	279.657
7	6	23.1415	844746	254.772
7	7	23.2243	844746	238.851
7	8	23.3228	844746	189.924
7	9	23.468	844746	158.627
7	10	24.7951	844746	148.832
7	11	24.7795	844746	140.677
7	12	24.7918	844746	134.876
7	13	24.8173	844746	129.836
7	14	24.7816	844746	124.697
7	15	24.7832	844746	114.534
7	16	24.7548	844746	101.189
7	17	24.7421	844746	94.119
7	18	24.7033	844746	85.893
7	19	24.7054	844746	83.0508
7	20	24.6809	844746	80.6065
7	21	24.6314	844746	78.2483
7	22	24.6477	844746	75.7779
7	23	24.6498	844746	73.7643
7	24	24.5959	844746	72.1577
7	25	24.624	844746	70.5255
7	26	24.5675	844746	68.9013

Threads: 
THREADS	MAGIC_NUMBER	MTPS	AVERAGE_TRIANGLES	AVERAGE_PARTITIONS
6	1	19.6948	844746	1368.58
6	2	20.8283	844746	700.488
6	3	21.2916	844746	488.883
6	4	21.6168	844746	362.349
6	5	21.8329	844746	279.657
6	6	21.8929	844746	254.772
6	7	21.9323	844746	238.851
6	8	22.0254	844746	189.924
6	9	22.0983	844746	158.627
6	10	22.1289	844746	148.832
6	11	22.1359	844746	140.677
6	12	22.1412	844746	134.876
6	13	22.1392	844746	129.836
6	14	22.1506	844746	124.697
6	15	22.1464	844746	114.534
6	16	22.1106	844746	101.189
6	17	22.0935	844746	94.119
6	18	22.0685	844746	85.893
6	19	22.0688	844746	83.0508
6	20	22.0611	844746	80.6065
6	21	22.0484	844746	78.2483
6	22	22.0443	844746	75.7779
6	23	22.0384	844746	73.7643
6	24	22.0285	844746	72.1577
6	25	22.0048	844746	70.5255
6	26	21.9995	844746	68.9013

Threads: 
THREADS	MAGIC_NUMBER	MTPS	AVERAGE_TRIANGLES	AVERAGE_PARTITIONS
5	1	17.0738	844746	1368.58
5	2	18.0674	844746	700.488
5	3	18.5059	844746	488.883
5	4	18.799	844746	362.349
5	5	19.0013	844746	279.657
5	6	19.073	844746	254.772
5	7	19.1054	844746	238.851
5	8	19.2148	844746	189.924
5	9	19.2797	844746	158.627
5	10	19.3184	844746	148.832
5	11	19.3357	844746	140.677
5	12	19.3492	844746	134.876
5	13	19.3438	844746	129.836
5	14	19.3642	844746	124.697
5	15	19.3637	844746	114.534
5	16	19.3406	844746	101.189
5	17	19.3395	844746	94.119
5	18	19.326	844746	85.893
5	19	19.3227	844746	83.0508
5	20	19.325	844746	80.6065
5	21	19.3068	844746	78.2483
5	22	19.3042	844746	75.7779
5	23	19.3097	844746	73.7643
5	24	19.3037	844746	72.1577
5	25	19.2892	844746	70.5255
5	26	19.2852	844746	68.9013

Threads: 
THREADS	MAGIC_NUMBER	MTPS	AVERAGE_TRIANGLES	AVERAGE_PARTITIONS
4	1	14.1104	844746	1368.58
4	2	14.9714	844746	700.488
4	3	15.3382	844746	488.883
4	4	15.6062	844746	362.349
4	5	15.7902	844746	279.657
4	6	15.8557	844746	254.772
4	7	15.8998	844746	238.851
4	8	16.0101	844746	189.924
4	9	16.0884	844746	158.627
4	10	16.1112	844746	148.832
4	11	16.1391	844746	140.677
4	12	16.147	844746	134.876
4	13	16.1555	844746	129.836
4	14	16.1706	844746	124.697
4	15	16.1675	844746	114.534
4	16	16.1716	844746	101.189
4	17	16.1873	844746	94.119
4	18	16.1815	844746	85.893
4	19	16.185	844746	83.0508
4	20	16.1825	844746	80.6065
