0	0
18.668	0
28.002	0
37.3361	0
46.6701	0
56.0041	0
65.3381	0
74.6721	0
84.0061	0
93.3401	0
102.674	0
112.008	0
121.342	0
130.676	0
140.01	0
158.678	0
168.012	0
177.346	0
186.68	0
196.014	0
205.348	0
214.682	0
224.016	0
233.35	0
242.684	0
252.018	0
261.352	0
270.686	0
280.02	0
298.688	0
308.022	0
317.356	0
326.69	0
336.025	0
345.359	0
354.693	0
364.027	0
373.361	0
382.695	0
392.029	0
401.363	0
410.697	0
420.031	0
438.699	0
448.033	0
457.367	0
466.701	0
476.035	0
485.369	0
494.703	0
504.037	0
513.371	0
522.705	0
532.039	0
541.373	0
550.707	0
560.041	0
578.709	0
588.043	0
597.377	0
606.711	0
616.045	0
625.379	0
634.713	0
644.047	0
653.381	0
662.715	0
672.049	0
681.383	0
690.717	0
700.051	0
718.719	0
728.053	0
737.387	0
746.721	0
756.055	0
765.389	0
774.723	0
784.057	0
793.391	0
802.725	0
812.059	0
821.393	0
830.727	0
840.061	0
858.729	0
868.063	0
877.397	0
886.731	0
896.065	0
905.399	0
914.733	0
924.067	0
933.401	0
942.735	0
952.069	0
961.403	0
970.737	0
980.071	0
998.74	0
1008.07	0
1017.41	0
1026.74	0
1036.08	0
1045.41	0
1054.74	0
1064.08	0
1073.41	0
1082.75	0
1092.08	0
1101.41	0
1110.75	0
1120.08	0
1138.75	0
1148.08	0
1157.42	0
1166.75	0
1176.09	0
1185.42	0
1194.75	0
1204.09	0
1213.42	0
1222.76	0
1232.09	0
1241.42	0
1250.76	0
1260.09	0
1278.76	0
1288.09	0
1297.43	0
1306.76	0
1316.1	0
1325.43	0
1334.76	0
1344.1	0
1353.43	0
1362.77	0
1372.1	0
1381.43	0
1390.77	0
1400.1	0
1418.77	0
1428.1	0
1437.44	0
1446.77	0
1456.11	0
1465.44	0
1474.77	0
1484.11	0
1493.44	0
1502.78	0
1512.11	0
1521.44	0
1530.78	0
1540.11	0
1558.78	0
1568.11	0
1577.45	0
1586.78	0
1596.12	0
1605.45	0
1614.78	0
1624.12	0
1633.45	0
1642.79	0
1652.12	0
1661.45	0
1670.79	0
1680.12	0
1698.79	0
1708.12	0
1717.46	0
1726.79	0
1736.13	0
1745.46	0
1754.79	0
1764.13	0
1773.46	0
1782.8	0
1792.13	0
1801.46	0
1810.8	0
1820.13	0
1838.8	0
1848.13	0
1857.47	0
1866.8	0
1876.14	0
1885.47	0
1894.8	0
1904.14	0
1913.47	0
1922.81	0
1932.14	0
1941.47	0
1950.81	0
1960.14	0
1978.81	0
1988.15	0
1997.48	0
2006.81	0
2016.15	0
2025.48	0
2034.82	0
2044.15	0
2053.48	0
2062.82	0
2072.15	0
2081.49	0
2090.82	0
2100.15	0
2118.82	0
2128.16	0
2137.49	0
2146.82	0
2156.16	0
2165.49	0
2174.83	0
2184.16	0
2193.49	0
2202.83	0
2212.16	0
2221.5	0
2230.83	0
2240.16	0
2258.83	0
2268.17	0
2277.5	0
2286.83	0
2296.17	0
2305.5	0
2314.84	0
2324.17	0
2333.5	0
2342.84	0
2352.17	0
2361.51	9.09495e-13
2370.84	9.09495e-13
2380.17	1.81899e-12
2398.84	3.63798e-12
2408.18	5.45697e-12
2417.51	8.18545e-12
2426.84	1.27329e-11
2436.18	1.81899e-11
2445.51	2.54659e-11
2454.85	3.63798e-11
2464.18	5.09317e-11
2473.51	7.09406e-11
2482.85	9.82254e-11
2492.18	1.33696e-10
2501.52	1.82808e-10
2510.85	2.47383e-10
2520.18	3.33785e-10
2538.85	5.98448e-10
2548.19	7.96717e-10
2557.52	1.05592e-09
2566.85	1.39244e-09
2576.19	1.8299e-09
2585.52	2.39379e-09
2594.86	3.11866e-09
2604.19	4.04725e-09
2613.52	5.23141e-09
2622.86	6.73572e-09
2632.19	8.63838e-09
2641.53	1.10367e-08
2650.86	1.40481e-08
2660.19	1.78152e-08
2678.86	2.83389e-08
2688.2	3.55503e-08
2697.53	4.44406e-08
2706.86	5.536e-08
2716.2	6.87269e-08
2725.53	8.50314e-08
2734.87	1.04853e-07
2744.2	1.28867e-07
2753.53	1.57866e-07
2762.87	1.92766e-07
2772.2	2.34632e-07
2781.54	2.84695e-07
2790.87	3.44366e-07
2800.2	4.15268e-07
2818.87	5.98426e-07
2828.21	7.15183e-07
2837.54	8.52228e-07
2846.87	1.01261e-06
2856.21	1.19975e-06
2865.54	1.41749e-06
2874.88	1.6701e-06
2884.21	1.96233e-06
2893.54	2.29947e-06
2902.88	2.68733e-06
2912.21	3.13234e-06
2921.55	3.64153e-06
2930.88	4.22261e-06
2940.21	4.884e-06
2958.88	6.48502e-06
2968.22	7.44527e-06
2977.55	8.52712e-06
2986.88	9.74297e-06
2996.22	1.11061e-05
3005.55	1.26306e-05
3014.89	1.43316e-05
3024.22	1.62251e-05
3033.55	1.83279e-05
3042.89	2.06579e-05
3052.22	2.32339e-05
3061.56	2.60754e-05
3070.89	2.92031e-05
3080.22	3.26382e-05
3098.89	4.05206e-05
3108.23	4.50147e-05
3117.56	4.99097e-05
3126.89	5.52309e-05
3136.23	6.10041e-05
3145.56	6.72554e-05
3154.9	7.40118e-05
3164.23	8.13005e-05
3173.56	8.91491e-05
3182.9	9.75855e-05
3192.23	0.000106638
3201.57	0.000116334
3210.9	0.000126704
3220.23	0.000137775
3238.9	0.000162134
3248.24	0.00017548
3257.57	0.000189642
3266.9	0.000204648
3276.24	0.000220527
3285.57	0.000237306
3294.9	0.000255016
3304.24	0.000273684
3313.57	0.00029334
3322.91	0.000314013
3332.24	0.000335734
3341.57	0.000358534
3350.91	0.000382445
3360.24	0.0004075
3378.91	0.000461188
3388.24	0.0004899
3397.58	0.000519915
3406.91	0.00055128
3416.24	0.000584049
3425.58	0.000618281
3434.91	0.00065404
3444.25	0.000691402
3453.58	0.000730448
3462.91	0.000771272
3472.25	0.00081398
3481.58	0.000858692
3490.92	0.000905546
3500.25	0.000954696
3518.92	0.00106062
3528.25	0.00111782
3537.58	0.00117818
3546.92	0.001242
3556.25	0.00130961
3565.59	0.00138139
3574.92	0.00145776
3584.25	0.00153921
3593.59	0.00162629
3602.92	0.00171959
3612.25	0.00181981
3621.59	0.00192771
3630.92	0.00204416
3640.26	0.0021701
3658.92	0.00245488
3668.26	0.00261622
3677.59	0.00279208
3686.92	0.00298407
3696.26	0.00319397
3705.59	0.00342371
3714.93	0.00367544
3724.26	0.00395149
3733.59	0.00425442
3742.93	0.004587
3752.26	0.00495225
3761.59	0.00535344
3770.93	0.00579412
3780.26	0.0062781
3798.93	0.00739269
3808.26	0.00803243
3817.6	0.00873374
3826.93	0.00950198
3836.26	0.0103429
3845.6	0.0112624
3854.93	0.0122669
3864.26	0.0133632
3873.6	0.0145582
3882.93	0.0158594
3892.27	0.0172743
3901.6	0.0188111
3910.93	0.0204778
3920.27	0.0222832
3938.93	0.026345
3948.27	0.0286197
3957.6	0.0310693
3966.93	0.0337033
3976.27	0.0365311
3985.6	0.0395625
3994.94	0.0428067
4004.27	0.0462734
4013.6	0.0499718
4022.94	0.053911
4032.27	0.0580997
4041.6	0.0625463
4050.94	0.067259
4060.27	0.0722453
4078.94	0.0830655
4088.27	0.0889113
4097.61	0.0950541
4106.94	0.101498
4116.27	0.108245
4125.61	0.115298
4134.94	0.122658
4144.27	0.130322
4153.61	0.138291
4162.94	0.14656
4172.27	0.155126
4181.61	0.163981
4190.94	0.173119
4200.28	0.18253
4218.94	0.202128
4228.28	0.212288
4237.61	0.22267
4246.94	0.233254
4256.28	0.244023
4265.61	0.254957
4274.95	0.266032
4284.28	0.277226
4293.61	0.288513
4302.95	0.299866
4312.28	0.311259
4321.61	0.322661
4330.95	0.334043
4340.28	0.345373
4358.95	0.367746
4368.28	0.378722
4377.62	0.389512
4386.95	0.400082
4396.29	0.410395
4405.62	0.420417
4414.95	0.430112
4424.29	0.439446
4433.62	0.448383
4442.96	0.45689
4452.29	0.464932
4461.62	0.472477
4470.96	0.479493
4480.29	0.48595
4498.96	0.497069
4508.29	0.501678
4517.63	0.505619
4526.96	0.50887
4536.29	0.51141
4545.63	0.513221
4554.96	0.514285
4564.3	0.514589
4573.63	0.51412
4582.96	0.512869
4592.3	0.51083
4601.63	0.507996
4610.97	0.504365
4620.3	0.499939
4638.97	0.488714
4648.3	0.481927
4657.64	0.474371
4666.97	0.466058
4676.31	0.457003
4685.64	0.447224
4694.97	0.436739
4704.31	0.425572
4713.64	0.413745
4722.97	0.401284
4732.31	0.388216
4741.64	0.374571
4750.98	0.36038
4760.31	0.345675
4778.98	0.314857
4788.31	0.298816
4797.65	0.2824
4806.98	0.26565
4816.31	0.248601
4825.65	0.231293
4834.98	0.213765
4844.32	0.196056
4853.65	0.178206
4862.98	0.160253
4872.32	0.142236
4881.65	0.124193
4890.99	0.106164
4900.32	0.0881855
4918.99	0.0525258
4928.32	0.0349159
4937.66	0.0174983
4946.99	0.000305986
4956.32	-0.0166293
4965.66	-0.0332772
4974.99	-0.0496085
4984.33	-0.0655956
4993.66	-0.0812123
5002.99	-0.096434
5012.33	-0.111238
5021.66	-0.125602
5031	-0.139506
5040.33	-0.152933
5059	-0.178292
5068.33	-0.190195
5077.67	-0.201565
5087	-0.212393
5096.33	-0.22267
5105.67	-0.23239
5115	-0.241549
5124.34	-0.250143
5133.67	-0.258171
5143	-0.265633
5152.34	-0.27253
5161.67	-0.278866
5171.01	-0.284645
5180.34	-0.289872
5199.01	-0.2987
5208.34	-0.302319
5217.68	-0.305421
5227.01	-0.308017
5236.34	-0.310121
5245.68	-0.311745
5255.01	-0.312903
5264.35	-0.31361
5273.68	-0.313882
5283.01	-0.313735
5292.35	-0.313185
5301.68	-0.312249
5311.02	-0.310945
5320.35	-0.309291
5339.02	-0.305005
5348.35	-0.30241
5357.69	-0.299537
5367.02	-0.296407
5376.35	-0.293036
5385.69	-0.289445
5395.02	-0.28565
5404.36	-0.28167
5413.69	-0.277523
5423.02	-0.273226
5432.36	-0.268797
5441.69	-0.264252
5451.02	-0.259609
5460.36	-0.254882
5479.03	-0.245241
5488.36	-0.240357
5497.69	-0.235449
5507.03	-0.23053
5516.36	-0.225614
5525.7	-0.220712
5535.03	-0.215837
5544.36	-0.210999
5553.7	-0.20621
5563.03	-0.201477
5572.37	-0.196812
5581.7	-0.192221
5591.03	-0.187714
5600.37	-0.183297
5619.04	-0.17476
5628.37	-0.170652
5637.7	-0.166656
5647.04	-0.162778
5656.37	-0.15902
5665.71	-0.155386
5675.04	-0.151879
5684.37	-0.1485
5693.71	-0.145251
5703.04	-0.142132
5712.38	-0.139144
5721.71	-0.136287
5731.04	-0.133561
5740.38	-0.130965
5759.05	-0.126155
5768.38	-0.123938
5777.71	-0.121843
5787.05	-0.119867
5796.38	-0.118008
5805.72	-0.116262
5815.05	-0.114626
5824.38	-0.113095
5833.72	-0.111666
5843.05	-0.110335
5852.39	-0.109097
5861.72	-0.107947
5871.05	-0.106882
5880.39	-0.105896
5899.06	-0.104142
5908.39	-0.103364
5917.72	-0.102646
5927.06	-0.101982
5936.39	-0.101368
5945.72	-0.100798
5955.06	-0.100268
5964.39	-0.099772
5973.73	-0.0993059
5983.06	-0.0988646
5992.39	-0.0984436
6001.73	-0.0980381
6011.06	-0.0976437
6020.4	-0.097256
6039.06	-0.096484
6048.4	-0.0960918
6057.73	-0.0956902
6067.07	-0.0952759
6076.4	-0.0948453
6085.73	-0.0943952
6095.07	-0.0939226
6104.4	-0.0934246
6113.74	-0.0928987
6123.07	-0.0923424
6132.4	-0.0917534
6141.74	-0.0911297
6151.07	-0.0904695
6160.41	-0.0897712
6179.07	-0.088255
6188.41	-0.0874349
6197.74	-0.0865723
6207.08	-0.0856666
6216.41	-0.0847176
6225.74	-0.0837249
6235.08	-0.0826887
6244.41	-0.0816091
6253.75	-0.0804865
6263.08	-0.0793214
6272.41	-0.0781145
6281.75	-0.0768669
6291.08	-0.0755794
6300.42	-0.0742533
6319.08	-0.0714907
6328.42	-0.0700573
6337.75	-0.0685915
6347.09	-0.067095
6356.42	-0.0655698
6365.75	-0.0640179
6375.09	-0.0624415
6384.42	-0.0608428
6393.76	-0.059224
6403.09	-0.0575875
6412.42	-0.0559356
6421.76	-0.0542708
6431.09	-0.0525956
6440.43	-0.0509125
6459.09	-0.0475326
6468.43	-0.0458409
6477.76	-0.0441513
6487.1	-0.0424666
6496.43	-0.040789
6505.76	-0.0391213
6515.1	-0.0374657
6524.43	-0.0358247
6533.77	-0.0342008
6543.1	-0.0325961
6552.43	-0.031013
6561.77	-0.0294538
6571.1	-0.0279204
6580.44	-0.0264151
6599.1	-0.0234963
6608.44	-0.0220866
6617.77	-0.0207123
6627.11	-0.0193752
6636.44	-0.0180767
6645.77	-0.0168182
6655.11	-0.0156012
6664.44	-0.0144269
6673.78	-0.0132964
6683.11	-0.0122106
6692.44	-0.0111706
6701.78	-0.010177
6711.11	-0.00923071
6720.45	-0.00833213
6739.11	-0.00667991
6748.45	-0.00592683
6757.78	-0.00522261
6767.12	-0.00456723
6776.45	-0.00396058
6785.78	-0.00340242
6795.12	-0.00289238
6804.45	-0.00243001
6813.79	-0.00201473
6823.12	-0.00164587
6832.45	-0.00132263
6841.79	-0.00104413
6851.12	-0.000809381
6860.46	-0.00061729
6879.12	-0.000356262
6888.46	-0.000284683
6897.79	-0.000250489
6907.13	-0.000252147
6916.46	-0.000288047
6925.79	-0.000356503
6935.13	-0.000455759
6944.46	-0.000583994
6953.8	-0.000739322
6963.13	-0.000919803
6972.46	-0.00112344
6981.8	-0.00134819
6991.13	-0.00159197
7000.47	-0.00185266
7019.13	-0.00241605
7028.47	-0.00271437
7037.8	-0.00302079
7047.14	-0.00333306
7056.47	-0.00364895
7065.8	-0.00396617
7075.14	-0.00428249
7084.47	-0.00459563
7093.81	-0.00490337
7103.14	-0.00520348
7112.47	-0.00549376
7121.81	-0.00577202
7131.14	-0.00603614
7140.48	-0.00628399
7159.14	-0.00672268
7168.48	-0.00690953
7177.81	-0.00707215
7187.15	-0.00720866
7196.48	-0.00731729
7205.81	-0.00739631
7215.15	-0.00744405
7224.48	-0.00745895
7233.82	-0.00743949
7243.15	-0.00738427
7252.48	-0.00729194
7261.82	-0.00716127
7271.15	-0.00699109
7280.49	-0.00678036
7299.15	-0.00623346
7308.49	-0.00589567
7317.82	-0.00551406
7327.16	-0.00508809
7336.49	-0.00461729
7345.82	-0.00410133
7355.16	-0.00353997
7364.49	-0.00293307
7373.83	-0.00228061
7383.16	-0.00158267
7392.49	-0.000839456
7401.83	-5.12534e-05
7411.16	0.000781528
7420.5	0.00165838
7439.16	0.00354172
7448.5	0.00454668
7457.83	0.00559264
7467.17	0.0066786
7476.5	0.00780343
7485.83	0.00896595
7495.17	0.0101649
7504.5	0.0113988
7513.84	0.0126663
7523.17	0.0139659
7532.5	0.0152959
7541.84	0.0166547
7551.17	0.0180405
7560.51	0.0194515
7579.17	0.0223416
7588.51	0.0238168
7597.84	0.0253095
7607.17	0.0268176
7616.51	0.0283391
7625.84	0.0298717
7635.18	0.0314135
7644.51	0.0329622
7653.84	0.0345156
7663.18	0.0360716
7672.51	0.0376279
7681.85	0.0391825
7691.18	0.0407332
7700.51	0.0422776
7719.18	0.0453396
7728.52	0.0468529
7737.85	0.0483515
7747.18	0.0498335
7756.52	0.0512968
7765.85	0.0527395
7775.19	0.0541597
7784.52	0.0555555
7793.85	0.0569251
7803.19	0.0582666
7812.52	0.0595785
7821.86	0.0608591
7831.19	0.0621067
7840.52	0.06332
7859.19	0.0656377
7868.53	0.0667395
7877.86	0.0678016
7887.19	0.0688229
7896.53	0.0698023
7905.86	0.0707388
7915.2	0.0716316
7924.53	0.0724798
7933.86	0.0732827
7943.2	0.0740396
7952.53	0.07475
7961.87	0.0754134
7971.2	0.0760293
7980.53	0.0765975
7999.2	0.0775894
8008.53	0.0780129
8017.87	0.0783879
8027.2	0.0787147
8036.54	0.0789932
8045.87	0.0792236
8055.2	0.0794061
8064.54	0.0795411
8073.87	0.0796288
8083.21	0.0796698
8092.54	0.0796644
8101.87	0.0796133
8111.21	0.0795169
8120.54	0.0793758
8139.21	0.0789626
8148.54	0.0786918
8157.88	0.0783792
8167.21	0.0780257
8176.55	0.0776321
8185.88	0.0771992
8195.21	0.0767279
8204.55	0.0762191
8213.88	0.0756738
8223.22	0.0750929
8232.55	0.0744772
8241.88	0.0738279
8251.22	0.0731457
8260.55	0.0724318
8279.22	0.0709124
8288.55	0.0701089
8297.89	0.0692774
8307.22	0.0684189
8316.56	0.0675344
8325.89	0.0666248
8335.22	0.0656911
8344.56	0.064734
8353.89	0.0637546
8363.23	0.0627537
8372.56	0.0617322
8381.89	0.0606909
8391.23	0.0596306
8400.56	0.0585522
8419.23	0.056344
8428.56	0.0552158
8437.9	0.0540724
8447.23	0.0529146
8456.57	0.0517431
8465.9	0.0505585
8475.23	0.0493614
8484.57	0.0481526
8493.9	0.0469325
8503.24	0.0457017
8512.57	0.0444609
8521.9	0.0432105
8531.24	0.041951
8540.57	0.040683
8559.24	0.0381234
8568.57	0.0368327
8577.91	0.0355354
8587.24	0.0342317
8596.58	0.0329223
8605.91	0.0316074
8615.24	0.0302876
8624.58	0.0289631
8633.91	0.0276344
8643.25	0.0263018
8652.58	0.0249657
8661.91	0.0236265
8671.25	0.0222846
8680.58	0.0209403
8699.25	0.0182461
8708.58	0.0168969
8717.92	0.0155468
8727.25	0.0141962
8736.59	0.0128454
8745.92	0.011495
8755.25	0.0101451
8764.59	0.00879638
8773.92	0.00744909
8783.26	0.00610368
8792.59	0.00476059
8801.92	0.00342025
8811.26	0.0020831
8820.59	0.000749617
8839.26	-0.00190451
8848.59	-0.00322419
8857.93	-0.00453829
8867.26	-0.00584629
8876.6	-0.00714769
8885.93	-0.00844196
8895.26	-0.00972855
8904.6	-0.0110069
8913.93	-0.0122765
8923.27	-0.0135368
8932.6	-0.0147872
8941.93	-0.0160272
8951.27	-0.0172561
8960.6	-0.0184733
8979.27	-0.0208707
8988.6	-0.0220496
8997.94	-0.0232145
9007.27	-0.0243649
9016.61	-0.0255001
9025.94	-0.0266197
9035.27	-0.0277229
9044.61	-0.0288093
9053.94	-0.0298782
9063.28	-0.0309292
9072.61	-0.0319616
9081.94	-0.032975
9091.28	-0.0339688
9100.61	-0.0349425
9119.28	-0.0368278
9128.61	-0.0377384
9137.95	-0.0386271
9147.28	-0.0394934
9156.62	-0.0403369
9165.95	-0.0411574
9175.28	-0.0419543
9184.62	-0.0427275
9193.95	-0.0434766
9203.29	-0.0442013
9212.62	-0.0449013
9221.95	-0.0455766
9231.29	-0.0462268
9240.62	-0.0468518
9259.29	-0.0480257
9268.62	-0.0485745
9277.96	-0.0490977
9287.29	-0.0495953
9296.63	-0.0500674
9305.96	-0.0505141
9315.29	-0.0509353
9324.63	-0.0513313
9333.96	-0.051702
9343.3	-0.0520479
9352.63	-0.0523689
9361.96	-0.0526654
9371.3	-0.0529376
9380.63	-0.0531859
9399.3	-0.0536117
9408.63	-0.0537899
9417.97	-0.0539456
9427.3	-0.0540791
9436.64	-0.0541909
9445.97	-0.0542814
9455.3	-0.0543512
9464.64	-0.0544007
9473.97	-0.0544304
9483.31	-0.054441
9492.64	-0.0544328
9501.97	-0.0544066
9511.31	-0.0543628
9520.64	-0.0543021
9539.31	-0.0541323
9548.64	-0.0540244
9557.98	-0.0539021
9567.31	-0.0537659
9576.65	-0.0536164
9585.98	-0.0534544
9595.31	-0.0532804
9604.65	-0.0530951
9613.98	-0.0528991
9623.32	-0.052693
9632.65	-0.0524775
9641.98	-0.0522532
9651.32	-0.0520206
9660.65	-0.0517804
9679.32	-0.0512795
9688.65	-0.0510199
9697.99	-0.0507551
9707.32	-0.0504854
9716.66	-0.0502115
9725.99	-0.0499339
9735.32	-0.049653
9744.66	-0.0493694
9753.99	-0.0490836
9763.33	-0.0487959
9772.66	-0.0485068
9781.99	-0.0482168
9791.33	-0.0479261
9800.66	-0.0476353
9819.33	-0.0470545
9828.66	-0.0467652
9838	-0.0464771
9847.33	-0.0461903
9856.67	-0.0459053
9866	-0.0456222
9875.33	-0.0453412
9884.67	-0.0450627
9894	-0.0447867
9903.34	-0.0445135
9912.67	-0.0442432
9922	-0.043976
9931.34	-0.0437119
9940.67	-0.0434512
9950.01	-0.0431938
9968.67	-0.0426896
9978.01	-0.0424428
9987.34	-0.0421997
9996.68	-0.0419603
10006	-0.0417245
10015.3	-0.0414924
10024.7	-0.041264
10034	-0.0410393
10043.3	-0.0408182
10052.7	-0.0406007
10062	-0.0403868
10071.3	-0.0401763
10080.7	-0.0399694
10090	-0.0397659
10108.7	-0.0393687
10118	-0.0391749
10127.4	-0.0389843
10136.7	-0.0387967
10146	-0.038612
10155.4	-0.0384302
10164.7	-0.0382511
10174	-0.0380748
10183.4	-0.037901
10192.7	-0.0377297
10202	-0.0375608
10211.4	-0.0373942
10220.7	-0.0372298
10230	-0.0370675
10248.7	-0.036749
10258	-0.0365926
10267.4	-0.036438
10276.7	-0.036285
10286	-0.0361337
10295.4	-0.0359838
10304.7	-0.0358354
10314	-0.0356884
10323.4	-0.0355427
10332.7	-0.0353981
10342	-0.0352547
10351.4	-0.0351124
10360.7	-0.0349711
10370	-0.0348307
10388.7	-0.0345524
10398	-0.0344144
10407.4	-0.034277
10416.7	-0.0341402
10426	-0.034004
10435.4	-0.0338682
10444.7	-0.0337329
10454	-0.0335978
10463.4	-0.0334631
10472.7	-0.0333285
10482	-0.0331941
10491.4	-0.0330597
10500.7	-0.0329254
10510	-0.0327909
10528.7	-0.0325215
10538	-0.0323864
10547.4	-0.0322508
10556.7	-0.0321148
10566	-0.0319782
10575.4	-0.031841
10584.7	-0.031703
10594.1	-0.0315641
10603.4	-0.0314242
10612.7	-0.0312833
10622.1	-0.0311412
10631.4	-0.0309978
10640.7	-0.030853
10650.1	-0.0307066
10668.7	-0.0304087
10678.1	-0.0302569
10687.4	-0.030103
10696.7	-0.0299468
10706.1	-0.0297882
10715.4	-0.0296271
10724.7	-0.0294633
10734.1	-0.0292966
10743.4	-0.0291268
10752.7	-0.0289538
10762.1	-0.0287774
10771.4	-0.0285975
10780.7	-0.0284137
10790.1	-0.028226
10808.7	-0.0278379
10818.1	-0.0276372
10827.4	-0.0274317
10836.7	-0.0272213
10846.1	-0.0270058
10855.4	-0.0267848
10864.7	-0.0265584
10874.1	-0.0263262
10883.4	-0.026088
10892.7	-0.0258437
10902.1	-0.025593
10911.4	-0.0253357
10920.7	-0.0250716
10930.1	-0.0248006
10948.7	-0.0242368
10958.1	-0.0239436
10967.4	-0.0236427
10976.7	-0.0233338
10986.1	-0.0230168
10995.4	-0.0226915
11004.7	-0.0223577
11014.1	-0.0220153
11023.4	-0.0216641
11032.8	-0.0213039
11042.1	-0.0209346
11051.4	-0.0205561
11060.8	-0.0201682
11070.1	-0.0197708
11088.8	-0.018947
11098.1	-0.0185204
11107.4	-0.018084
11116.8	-0.0176375
11126.1	-0.0171809
11135.4	-0.0167143
11144.8	-0.0162375
11154.1	-0.0157504
11163.4	-0.0152532
11172.8	-0.0147457
11182.1	-0.014228
11191.4	-0.0137001
11200.8	-0.0131619
11210.1	-0.0126136
11228.8	-0.0114867
11238.1	-0.0109083
11247.4	-0.0103199
11256.8	-0.00972175
11266.1	-0.00911392
11275.4	-0.00849653
11284.8	-0.00786973
11294.1	-0.00723366
11303.4	-0.0065885
11312.8	-0.00593442
11322.1	-0.0052716
11331.4	-0.00460027
11340.8	-0.00392062
11350.1	-0.0032329
11368.8	-0.00183417
11378.1	-0.0011237
11387.4	-0.000406167
11396.8	0.000318124
11406.1	0.00104888
11415.4	0.0017858
11424.8	0.00252855
11434.1	0.00327683
11443.4	0.00403028
11452.8	0.00478857
11462.1	0.00555133
11471.4	0.00631822
11480.8	0.00708887
11490.1	0.00786289
11508.8	0.00941954
11518.1	0.0102014
11527.5	0.0109851
11536.8	0.0117702
11546.1	0.0125563
11555.5	0.013343
11564.8	0.0141299
11574.1	0.0149166
11583.5	0.0157027
11592.8	0.0164878
11602.1	0.0172714
11611.5	0.0180532
11620.8	0.0188327
11630.1	0.0196095
11648.8	0.0211535
11658.1	0.0219199
11667.5	0.022682
11676.8	0.0234395
11686.1	0.0241919
11695.5	0.0249389
11704.8	0.0256801
11714.1	0.0264152
11723.5	0.0271438
11732.8	0.0278655
11742.1	0.0285801
11751.5	0.0292871
11760.8	0.0299863
11770.1	0.0306774
11788.8	0.032034
11798.1	0.032699
11807.5	0.0333547
11816.8	0.0340008
11826.1	0.0346373
11835.5	0.0352638
11844.8	0.03588
11854.1	0.036486
11863.5	0.0370813
11872.8	0.0376659
11882.1	0.0382395
11891.5	0.0388021
11900.8	0.0393536
11910.1	0.0398936
11928.8	0.0409394
11938.1	0.0414449
11947.5	0.0419387
11956.8	0.0424208
11966.2	0.0428911
11975.5	0.0433495
11984.8	0.043796
11994.2	0.0442307
