0	0
87.3875	0
174.775	0
262.163	0
349.55	0
436.938	0
524.325	0
611.713	0
699.1	0
786.488	0
873.875	0
961.263	0
1048.65	0
1136.04	0
1223.43	0
1310.81	0
1398.2	0
1485.59	0
1572.98	0
1660.36	0
1747.75	0
1835.14	0
1922.53	9.11405e-09
2009.91	6.68097e-08
2097.3	2.82032e-07
2184.69	9.95445e-07
2272.07	3.3343e-06
2359.46	1.06314e-05
2446.85	3.13806e-05
2534.23	8.4332e-05
2621.62	0.000205867
2709	0.000458905
2796.39	0.00094157
2883.78	0.001793
2971.16	0.00319347
3058.55	0.00535642
3145.93	0.00851139
3233.32	0.0128785
3320.7	0.0186372
3408.09	0.0258929
3495.48	0.034647
3582.86	0.0447743
3670.25	0.0560126
3757.63	0.0679659
3845.02	0.0801224
3932.41	0.0918848
4019.8	0.102612
4107.18	0.111664
4194.57	0.118451
4281.96	0.122479
4369.35	0.123381
4456.73	0.120953
4544.12	0.115161
4631.51	0.106146
4718.9	0.094213
4806.28	0.0798087
4893.67	0.063491
4981.06	0.0458919
5068.45	0.0276775
5155.83	0.00950892
5243.22	-0.00799349
5330.61	-0.0242801
5418	-0.0388942
5505.38	-0.0514863
5592.77	-0.0618196
5680.16	-0.0697683
5767.55	-0.0753093
5854.93	-0.0785106
5942.32	-0.0795149
6029.71	-0.0785237
6117.1	-0.0757806
6204.48	-0.0715551
6291.87	-0.0661288
6379.26	-0.0597834
6466.64	-0.05279
6554.03	-0.045402
6641.42	-0.0378492
6728.81	-0.0303338
6816.19	-0.0230294
6903.58	-0.0160801
6990.97	-0.00960212
7078.36	-0.00368556
7165.74	0.00160297
7253.13	0.00621771
7340.52	0.0101311
7427.91	0.0133316
7515.29	0.0158216
7602.68	0.017616
7690.07	0.0187408
7777.45	0.0192321
7864.84	0.0191347
7952.23	0.0185009
8039.62	0.0173891
8127	0.0158623
8214.39	0.0139864
8301.78	0.0118288
8389.17	0.0094569
8476.55	0.00693654
8563.94	0.00433118
8651.33	0.00170083
8738.71	-0.000898691
8826.1	-0.00341638
8913.49	-0.0058066
9000.88	-0.00802952
9088.26	-0.0100515
9175.65	-0.0118454
9263.04	-0.0133907
9350.42	-0.0146735
9437.81	-0.0156865
9525.2	-0.0164287
9612.59	-0.0169047
9699.97	-0.0171245
9787.36	-0.0171027
9874.75	-0.0168577
9962.14	-0.0164113
10049.5	-0.0157878
10136.9	-0.0150131
10224.3	-0.0141147
10311.7	-0.0131206
10399.1	-0.012059
10486.5	-0.0109576
10573.8	-0.00984298
10661.2	-0.00874047
10748.6	-0.00767341
10836	-0.0066629
10923.4	-0.00572745
11010.8	-0.00488278
11098.2	-0.00414168
11185.6	-0.00351397
11272.9	-0.00300647
11360.3	-0.00262311
11447.7	-0.00236507
11535.1	-0.00223089
11622.5	-0.00221672
11709.9	-0.00231655
11797.3	-0.0025224
11884.7	-0.00282464
11972	-0.00321225
