0	0
11.0308	0
22.0616	0
33.0924	0
40.4463	0
51.4771	0
62.5079	0
73.5387	0
80.8926	0
91.9234	0
102.954	0
110.308	0
121.339	0
132.37	0
143.401	0
150.754	0
161.785	0
172.816	0
180.17	0
191.201	0
202.231	0
213.262	0
220.616	0
231.647	0
242.678	0
250.032	0
261.062	0
272.093	0
283.124	0
290.478	0
301.509	0
312.54	0
323.57	0
330.924	0
341.955	0
352.986	0
360.34	0
371.371	0
382.401	0
393.432	0
400.786	0
411.817	0
422.848	0
430.202	0
441.232	0
452.263	0
463.294	0
470.648	0
481.679	0
492.709	0
500.063	0
511.094	0
522.125	0
533.156	0
540.51	0
551.54	0
562.571	0
573.602	0
580.956	0
591.987	0
603.018	0
610.371	0
621.402	0
632.433	0
643.464	0
650.818	0
661.849	0
672.879	0
680.233	0
691.264	0
702.295	0
713.326	0
720.68	0
731.71	0
742.741	0
750.095	0
761.126	0
772.157	0
783.187	0
790.541	0
801.572	0
812.603	0
823.634	0
830.988	0
842.018	0
853.049	0
860.403	0
871.434	0
882.465	0
893.496	0
900.849	0
911.88	9.09495e-13
922.911	7.27596e-12
930.265	1.81899e-11
941.296	6.18456e-11
952.327	2.00089e-10
963.357	6.12999e-10
970.711	1.25874e-09
981.742	3.56249e-09
992.773	9.62427e-09
1000.13	1.82108e-08
1011.16	4.57267e-08
1022.19	1.10133e-07
1033.22	2.54808e-07
1040.57	4.36203e-07
1051.6	9.46789e-07
1062.63	1.98125e-06
1073.67	4.00204e-06
1081.02	6.27442e-06
1092.05	1.19804e-05
1103.08	2.21481e-05
1110.43	3.27853e-05
1121.47	5.7566e-05
1132.5	9.81291e-05
1143.53	0.00016255
1150.88	0.000224079
1161.91	0.000354599
1172.94	0.000546611
1180.3	0.000719163
1191.33	0.00106319
1202.36	0.0015346
1213.39	0.00216448
1220.74	0.00268869
1231.77	0.00365618
1242.8	0.00486978
1250.16	0.00583034
1261.19	0.0075176
1272.22	0.00951902
1283.25	0.0118498
1290.6	0.0135915
1301.64	0.0164907
1312.67	0.0197384
1320.02	0.0221011
1331.05	0.0259528
1342.08	0.0301998
1353.11	0.0348922
1360.47	0.0383066
1371.5	0.0439419
1382.53	0.0503338
1393.56	0.0576899
1400.91	0.0632594
1411.94	0.0728501
1422.97	0.0842635
1430.33	0.0930993
1441.36	0.108554
1452.39	0.127124
1463.42	0.14937
1470.77	0.166529
1481.81	0.196184
1492.84	0.23102
1500.19	0.257366
1511.22	0.301873
1522.25	0.352636
1533.28	0.409825
1540.64	0.451526
1551.67	0.519323
1562.7	0.593107
1570.05	0.645365
1581.08	0.727832
1592.11	0.814411
1603.14	0.904062
1610.5	0.964955
1621.53	1.05704
1632.56	1.14883
1643.59	1.23893
1650.94	1.29739
1661.98	1.38167
1673.01	1.46075
1680.36	1.51
1691.39	1.57789
1702.42	1.63779
1713.45	1.68891
1720.81	1.7178
1731.84	1.75302
1742.87	1.77818
1750.22	1.78925
1761.25	1.79722
1772.28	1.79482
1783.31	1.78212
1790.67	1.768
1801.7	1.73848
1812.73	1.69917
1820.08	1.66765
1831.11	1.61261
1842.15	1.54856
1853.18	1.47582
1860.53	1.42269
1871.56	1.33634
1882.59	1.24241
1893.62	1.14139
1900.98	1.07039
1912.01	0.958872
1923.04	0.841962
1930.39	0.761398
1941.42	0.637242
1952.45	0.509922
1963.48	0.380409
1970.84	0.293352
1981.87	0.162476
1992.9	0.0322149
2000.25	-0.0537465
2011.28	-0.180568
2022.31	-0.303906
2033.35	-0.422739
2040.7	-0.498985
2051.73	-0.608225
2062.76	-0.710589
2070.12	-0.77465
2081.15	-0.864003
2092.18	-0.9448
2103.21	-1.01663
2110.56	-1.05938
2121.59	-1.11569
2132.62	-1.16253
2143.65	-1.19996
2151.01	-1.21976
2162.04	-1.24193
2173.07	-1.25539
2180.42	-1.25972
2191.45	-1.25967
2202.48	-1.25225
2213.52	-1.23811
2220.87	-1.22527
2231.9	-1.20141
2242.93	-1.17265
2250.28	-1.1511
2261.32	-1.11573
2272.35	-1.07728
2283.38	-1.03638
2290.73	-1.00804
2301.76	-0.964308
2312.79	-0.91955
2320.15	-0.889356
2331.18	-0.843815
2342.21	-0.798272
2353.24	-0.75301
2360.59	-0.72311
2371.62	-0.678823
2382.65	-0.635359
2390.01	-0.60691
2401.04	-0.565111
2412.07	-0.52445
2423.1	-0.485007
2430.45	-0.459422
2441.49	-0.422157
2452.52	-0.386276
2463.55	-0.351828
2470.9	-0.329683
2481.93	-0.297725
2492.96	-0.267318
2500.32	-0.247926
2511.35	-0.220181
2522.38	-0.194075
2533.41	-0.16963
2540.76	-0.154265
2551.79	-0.132624
2562.82	-0.112673
2570.18	-0.10031
2581.21	-0.0831626
2592.24	-0.0676766
2603.27	-0.0538252
2610.62	-0.0454824
2621.66	-0.0342754
2632.69	-0.0245951
2640.04	-0.0189639
2651.07	-0.0117079
2662.1	-0.00582582
2673.13	-0.00125159
2680.49	0.00110544
2691.52	0.00365542
2702.55	0.00508815
2713.58	0.00547855
2720.93	0.00519714
2731.96	0.00401884
2742.99	0.00200061
2750.35	0.000225788
2761.38	-0.00302511
2772.41	-0.00691694
2783.44	-0.0113774
2790.79	-0.0146319
2801.83	-0.0198838
2812.86	-0.0255201
2820.21	-0.0294588
2831.24	-0.0355916
2842.27	-0.0419396
2853.3	-0.0484441
2860.66	-0.0528395
2871.69	-0.0594814
2882.72	-0.0661365
2890.07	-0.0705568
2901.1	-0.0771288
2912.13	-0.0835934
2923.16	-0.0899118
2930.52	-0.0940254
2941.55	-0.100024
2952.58	-0.105793
2963.61	-0.111306
2970.96	-0.11483
2981.99	-0.119876
2993.02	-0.124623
3000.38	-0.127618
3011.41	-0.131849
3022.44	-0.135765
3033.47	-0.139369
3040.82	-0.141599
3051.86	-0.14469
3062.89	-0.147486
3070.24	-0.14919
3081.27	-0.151517
3092.3	-0.153579
3103.33	-0.155392
3110.69	-0.156468
3121.72	-0.157896
3132.75	-0.159111
3140.1	-0.15981
3151.13	-0.160702
3162.16	-0.161414
3173.19	-0.161957
3180.55	-0.162228
3191.58	-0.162505
3202.61	-0.16263
3213.64	-0.162606
3220.99	-0.162507
3232.02	-0.162235
3243.05	-0.161812
3250.41	-0.161445
3261.44	-0.160764
3272.47	-0.159922
3283.5	-0.158911
3290.85	-0.158142
3301.88	-0.156837
3312.91	-0.155347
3320.27	-0.154248
3331.3	-0.152435
3342.33	-0.150422
3353.36	-0.148203
3360.71	-0.146609
3371.74	-0.144044
3382.77	-0.141271
3390.13	-0.139308
3401.16	-0.136193
3412.19	-0.132879
3423.22	-0.129375
3430.57	-0.126937
3441.6	-0.123137
3452.63	-0.119175
3463.66	-0.115066
3471.02	-0.112253
3482.05	-0.107935
3493.08	-0.103516
3500.43	-0.100522
3511.46	-0.0959752
3522.49	-0.0913776
3533.52	-0.0867491
3540.88	-0.083656
3551.91	-0.0790194
3562.94	-0.0744033
3570.29	-0.0713461
3581.32	-0.0668038
3592.35	-0.0623282
3603.38	-0.0579348
3610.73	-0.0550586
3621.77	-0.0508336
3632.8	-0.0467266
3640.15	-0.0440597
3651.18	-0.0401737
3662.21	-0.0364331
3673.24	-0.0328462
3680.59	-0.0305439
3691.62	-0.0272288
3702.65	-0.0240846
3710.01	-0.0220858
3721.04	-0.0192368
3732.07	-0.0165698
3743.1	-0.0140875
3750.45	-0.0125363
3761.48	-0.0103661
3772.51	-0.00838451
3783.54	-0.00659173
3790.9	-0.00550124
3801.93	-0.00402177
3812.96	-0.00272832
3820.31	-0.00196824
3831.34	-0.000979266
3842.37	-0.000168451
3853.4	0.000468516
3860.76	0.000799052
3871.79	0.00115793
3882.82	0.0013582
3890.17	0.00140709
3901.2	0.00135924
3912.23	0.00117348
3923.26	0.000858939
3930.61	0.000582511
3941.64	7.54467e-05
3952.68	-0.000532817
3960.03	-0.000988925
3971.06	-0.00174021
3982.09	-0.00256118
3993.12	-0.00343928
4000.47	-0.00405012
4011.5	-0.00499495
4022.53	-0.00596255
4033.57	-0.00694001
4040.92	-0.00759081
4051.95	-0.00855651
4062.98	-0.0094988
4070.33	-0.0101082
4081.36	-0.0109858
4092.39	-0.0118102
4103.43	-0.0125717
4110.78	-0.0130399
4121.81	-0.013677
4132.84	-0.0142293
4140.19	-0.0145473
4151.22	-0.0149449
4162.26	-0.0152431
4173.29	-0.0154384
4180.64	-0.0155101
4191.67	-0.0155285
4202.7	-0.0154391
4210.05	-0.0153193
4221.09	-0.0150497
4232.12	-0.0146728
4243.15	-0.0141899
4250.5	-0.0138097
4261.53	-0.0131536
4272.56	-0.0123961
4283.59	-0.0115392
4290.95	-0.0109135
4301.98	-0.00989479
4313.01	-0.00878101
4320.36	-0.00798626
4331.39	-0.00671639
4342.42	-0.00535357
4353.45	-0.00389777
4360.81	-0.00287536
4371.84	-0.00126325
4382.87	0.000444232
4390.22	0.00163636
4401.25	0.00350678
4412.29	0.00547794
4423.32	0.00755241
4430.67	0.00899413
4441.7	0.0112469
4452.73	0.0136105
4460.09	0.0152491
4471.12	0.0178032
4482.15	0.0204748
4493.18	0.0232657
4500.53	0.0251933
4511.56	0.0281859
4522.59	0.0312998
4533.62	0.0345343
4540.98	0.0367569
4552.01	0.0401882
4563.04	0.0437332
4570.39	0.0461574
4581.42	0.0498804
4592.45	0.0537013
4603.48	0.0576116
4610.84	0.0602634
4621.87	0.0643003
4632.9	0.0683972
4640.25	0.0711553
4651.28	0.0753219
4662.31	0.0795098
4673.35	0.0837025
4680.7	0.0864917
4691.73	0.0906529
4702.76	0.0947705
4710.11	0.0974818
4721.14	0.101484
4732.18	0.10539
4743.21	0.109182
4750.56	0.111636
4761.59	0.115194
4772.62	0.118587
4783.65	0.121797
4791.01	0.123828
4802.04	0.126699
4813.07	0.129346
4820.42	0.13098
4831.45	0.133225
4842.48	0.135216
4853.51	0.136941
4860.87	0.137941
4871.9	0.139209
4882.93	0.140196
4890.28	0.140695
4901.31	0.141205
4912.34	0.141427
4923.37	0.141362
4930.73	0.14116
4941.76	0.14062
4952.79	0.1398
4960.14	0.139101
4971.17	0.137825
4982.21	0.136286
4993.24	0.134489
5000.59	0.133152
5011.62	0.130947
5022.65	0.128508
5030.01	0.126758
5041.04	0.123955
5052.07	0.120949
5063.1	0.117751
5070.45	0.115519
5081.48	0.11203
5092.51	0.108383
5103.54	0.104593
5110.9	0.101993
5121.93	0.0979943
5132.96	0.0938891
5140.31	0.0911004
5151.34	0.0868502
5162.37	0.0825327
5173.41	0.0781625
5180.76	0.0752271
5191.79	0.0708022
5202.82	0.0663641
5210.17	0.0634053
5221.21	0.0589779
5232.24	0.0545761
5243.27	0.0502142
5250.62	0.0473352
5261.65	0.0430703
5272.68	0.0388814
5280.04	0.0361373
5291.07	0.0321031
5302.1	0.0281779
5313.13	0.0243727
5320.48	0.0219078
5331.51	0.0183259
5342.54	0.0148905
5353.57	0.01161
5360.93	0.00951277
5371.96	0.00650669
5382.99	0.00367343
5390.34	0.00188307
5401.37	-0.000651762
5412.4	-0.00300301
5423.44	-0.00516858
5430.79	-0.00650858
5441.82	-0.00836291
5452.85	-0.0100311
5460.2	-0.0110407
5471.24	-0.0124032
5482.27	-0.0135864
5493.3	-0.0145947
5500.65	-0.0151722
5511.68	-0.0159006
5522.71	-0.0164695
5530.07	-0.0167636
5541.1	-0.0170825
5552.13	-0.0172617
5563.16	-0.0173095
5570.51	-0.0172726
5581.54	-0.0171207
5592.57	-0.0168606
5603.6	-0.0165012
5610.96	-0.0162108
5621.99	-0.0157055
5633.02	-0.0151238
5640.37	-0.0146977
5651.4	-0.0140069
5662.43	-0.0132607
5673.47	-0.0124662
5680.82	-0.0119129
5691.85	-0.0110519
5702.88	-0.0101586
5710.23	-0.00954768
5721.27	-0.00861138
5732.3	-0.00765472
5743.33	-0.00668108
5750.68	-0.00602396
5761.71	-0.00502799
5772.74	-0.00402136
5780.1	-0.00334509
5791.13	-0.00232372
5802.16	-0.00129466
5813.19	-0.000258352
5820.54	0.000436462
5831.57	0.00148461
5842.6	0.00254003
5853.63	0.00360302
5860.99	0.00431604
5872.02	0.00539239
5883.05	0.00647719
5890.4	0.0072052
5901.43	0.00830453
5912.46	0.00941263
5923.5	0.0105293
5930.85	0.0112783
5941.88	0.0124082
5952.91	0.013545
5960.26	0.0143062
5971.3	0.0154521
5982.33	0.0166014
5993.36	0.0177526
6000.71	0.01852
6011.74	0.0196697
6022.77	0.0208154
6030.13	0.021576
6041.16	0.0227099
6052.19	0.0238333
6063.22	0.0249435
6070.57	0.025675
6081.6	0.0267575
6092.63	0.0278198
6103.66	0.0288595
6111.02	0.0295389
6122.05	0.0305357
6133.08	0.031504
6140.43	0.0321327
6151.46	0.0330492
6162.5	0.0339325
6173.53	0.0347812
6180.88	0.0353273
6191.91	0.036116
6202.94	0.0368676
6210.3	0.0373479
6221.33	0.0380366
6232.36	0.0386873
6243.39	0.0392999
6250.74	0.0396871
6261.77	0.0402365
6272.8	0.0407482
6280.16	0.0410688
6291.19	0.041519
6302.22	0.0419329
6313.25	0.0423113
6320.6	0.042544
6331.63	0.0428644
6342.66	0.0431509
6350.02	0.0433234
6361.05	0.0435548
6372.08	0.0437542
6383.11	0.043922
6390.46	0.0440167
6401.5	0.0441334
6412.53	0.0442202
6423.56	0.0442777
6430.91	0.0442999
6441.94	0.0443096
6452.97	0.0442913
6460.33	0.0442638
6471.36	0.0442001
6482.39	0.0441096
6493.42	0.0439929
6500.77	0.0439008
6511.8	0.0437414
6522.83	0.043557
6530.19	0.0434204
6541.22	0.0431953
6552.25	0.0429463
6563.28	0.0426737
6570.63	0.042479
6581.66	0.0421679
6592.7	0.041834
6600.05	0.0415988
6611.08	0.0412275
6622.11	0.0408338
6633.14	0.0404177
6640.5	0.0401279
6651.53	0.0396744
6662.56	0.0391982
6673.59	0.0386989
6680.94	0.038353
6691.97	0.0378141
6703	0.0372505
6710.36	0.0368607
6721.39	0.0362542
6732.42	0.0356205
6743.45	0.0349584
6750.8	0.0345006
6761.83	0.0337882
6772.86	0.0330437
6780.22	0.0325285
6791.25	0.0317265
6802.28	0.0308874
6813.31	0.0300094
6820.66	0.0294015
6831.7	0.0284541
6842.73	0.0274621
6850.08	0.0267749
6861.11	0.0257039
6872.14	0.0245824
6883.17	0.0234084
6890.53	0.0225955
6901.56	0.0213291
6912.59	0.0200047
6923.62	0.0186203
6930.97	0.0176632
6942	0.0161751
6953.03	0.0146226
6960.39	0.0135513
6971.42	0.0118891
6982.45	0.0101596
6993.48	0.00836237
7000.83	0.00712629
7011.86	0.00521521
7022.9	0.00323584
7030.25	0.00187849
7041.28	-0.000213782
7052.31	-0.00237278
7063.34	-0.00459739
7070.7	-0.00611624
7081.73	-0.00844697
7092.76	-0.010839
7100.11	-0.0124667
7111.14	-0.014956
7122.17	-0.0175005
7133.2	-0.0200973
7140.56	-0.0218562
7151.59	-0.0245336
7162.62	-0.027255
7173.65	-0.0300171
7181	-0.0318792
7192.03	-0.0347009
7203.06	-0.0375533
7210.42	-0.03947
7221.45	-0.0423648
7232.48	-0.0452796
7243.51	-0.0482102
7250.86	-0.0501707
7261.89	-0.0531183
7272.93	-0.0560704
7280.28	-0.0580388
7291.31	-0.0609886
7302.34	-0.0639312
7313.37	-0.0668623
7320.73	-0.0688077
7331.76	-0.0717098
7342.79	-0.0745887
7350.14	-0.076493
7361.17	-0.0793238
7372.2	-0.0821201
7383.23	-0.0848779
7390.59	-0.0866929
7401.62	-0.0893775
7412.65	-0.0920131
7420	-0.0937411
7431.03	-0.0962869
7442.06	-0.0987743
7453.09	-0.1012
7460.45	-0.102781
7471.48	-0.105097
7482.51	-0.107344
7493.54	-0.109519
7500.89	-0.110928
7511.92	-0.112978
7522.95	-0.114951
7530.31	-0.116223
7541.34	-0.118063
7552.37	-0.119823
7563.4	-0.121501
7570.75	-0.122573
7581.79	-0.124112
7592.82	-0.125568
7600.17	-0.126493
7611.2	-0.127809
7622.23	-0.129043
7633.26	-0.130194
7640.62	-0.130916
7651.65	-0.13193
7662.68	-0.132864
7670.03	-0.133443
7681.06	-0.134245
7692.09	-0.134969
7703.12	-0.135618
7710.48	-0.136009
7721.51	-0.136535
7732.54	-0.136989
7743.57	-0.137373
7750.92	-0.137591
7761.95	-0.137863
7772.98	-0.138069
7780.34	-0.138172
7791.37	-0.138275
7802.4	-0.138319
7813.43	-0.138304
7820.78	-0.138264
7831.81	-0.138157
7842.84	-0.137999
7850.2	-0.137865
7861.23	-0.137623
7872.26	-0.137334
7883.29	-0.136998
7890.64	-0.136751
7901.67	-0.136343
7912.71	-0.135894
7920.06	-0.135573
7931.09	-0.135059
7942.12	-0.134507
7953.15	-0.13392
7960.51	-0.133508
7971.54	-0.132863
7982.57	-0.132185
7993.6	-0.131474
8000.95	-0.130983
8011.98	-0.13022
8023.01	-0.129428
8030.37	-0.128883
8041.4	-0.12804
8052.43	-0.127169
8063.46	-0.12627
8070.81	-0.125654
8081.84	-0.124708
8092.87	-0.123733
8100.23	-0.123068
8111.26	-0.122047
8122.29	-0.120999
8133.32	-0.119924
8140.67	-0.119192
8151.7	-0.118072
8162.74	-0.116926
8170.09	-0.116147
8181.12	-0.114956
8192.15	-0.11374
8203.18	-0.112499
8210.54	-0.111658
8221.57	-0.110376
8232.6	-0.109071
8243.63	-0.107743
8250.98	-0.106845
8262.01	-0.10548
8273.04	-0.104095
8280.4	-0.103161
8291.43	-0.101744
8302.46	-0.100308
8313.49	-0.0988558
8320.84	-0.0978786
8331.87	-0.0964
8342.9	-0.0949068
8350.26	-0.0939037
8361.29	-0.0923881
8372.32	-0.09086
8383.35	-0.08932
8390.7	-0.088287
8401.74	-0.0867281
8412.77	-0.0851581
8420.12	-0.0841054
8431.15	-0.0825169
8442.18	-0.0809171
8453.21	-0.0793054
8460.57	-0.0782239
8471.6	-0.0765907
8482.63	-0.0749434
8493.66	-0.0732807
8501.01	-0.0721629
8512.04	-0.0704714
8523.07	-0.0687603
8530.43	-0.0676079
8541.46	-0.0658603
8552.49	-0.0640882
8563.52	-0.0622893
8570.87	-0.0610742
8581.9	-0.0592261
8592.94	-0.0573456
8600.29	-0.0560729
8611.32	-0.0541336
8622.35	-0.0521564
8633.38	-0.0501394
8640.74	-0.0487717
8651.77	-0.0466846
8662.8	-0.0445534
8670.15	-0.0431076
8681.18	-0.0409006
8692.21	-0.0386471
8703.24	-0.0363467
8710.6	-0.0347869
8721.63	-0.0324082
8732.66	-0.0299831
8740.01	-0.0283409
8751.04	-0.0258403
8762.07	-0.0232963
8773.11	-0.0207106
8780.46	-0.0189646
8791.49	-0.0163141
8802.52	-0.0136282
8813.55	-0.0109099
8820.91	-0.00908123
8831.94	-0.00631612
8842.97	-0.00352773
8850.32	-0.00165778
8861.35	0.0011607
8872.38	0.00399174
8883.41	0.00683103
8890.77	0.0087263
8901.8	0.0115695
8912.83	0.0144091
8920.18	0.0162978
8931.21	0.0191212
8942.24	0.0219289
8953.27	0.0247163
8960.63	0.0265613
8971.66	0.0293054
8982.69	0.0320179
8990.04	0.0338067
9001.07	0.0364575
9012.11	0.0390663
9023.14	0.0416294
9030.49	0.043311
9041.52	0.0457905
9052.55	0.0482156
9063.58	0.0505835
9070.94	0.052129
9081.97	0.0543959
9093	0.056599
9100.35	0.0580313
9111.38	0.0601237
9122.41	0.0621474
9133.44	0.0641008
9140.8	0.0653634
9151.83	0.067197
9162.86	0.0689573
9170.21	0.0700898
9181.24	0.0717263
9192.27	0.0732878
9203.31	0.074774
9210.66	0.0757227
9221.69	0.0770828
9232.72	0.0783673
9240.07	0.0791816
9251.11	0.0803402
9262.14	0.0814236
9273.17	0.0824323
9280.52	0.0830634
9291.55	0.0839483
9302.58	0.0847598
9313.61	0.0854982
9320.97	0.0859503
9332	0.0865686
9343.03	0.0871155
9350.38	0.0874408
9361.41	0.0878703
9372.44	0.0882303
9383.47	0.0885212
9390.83	0.0886772
9401.86	0.0888544
9412.89	0.0889643
9420.24	0.0890003
9431.27	0.0889988
9442.31	0.0889311
9453.34	0.0887977
9460.69	0.0886723
9471.72	0.08843
9482.75	0.0881226
9490.11	0.0878818
9501.14	0.0874667
9512.17	0.0869872
9523.2	0.0864435
9530.55	0.0860454
9541.58	0.0853949
9552.61	0.0846805
9563.64	0.0839024
9571	0.0833483
9582.03	0.0824644
9593.06	0.0815172
9600.41	0.0808508
9611.44	0.0797989
9622.48	0.0786848
9633.51	0.0775089
9640.86	0.0766909
9651.89	0.0754136
9662.92	0.0740764
9670.28	0.0731523
9681.31	0.0717178
9692.34	0.0702265
9703.37	0.06868
9710.72	0.067619
9721.75	0.0659841
9732.78	0.0642987
9740.14	0.0631481
9751.17	0.0613836
9762.2	0.0595749
9773.23	0.0577247
9780.58	0.0564697
9791.61	0.0545571
9802.64	0.0526114
9813.68	0.050636
9821.03	0.0493043
9832.06	0.0472875
9843.09	0.045251
9850.44	0.0438844
9861.48	0.0418241
9872.51	0.039755
9883.54	0.0376814
9890.89	0.0362987
9901.92	0.0342274
9912.95	0.0321633
9920.31	0.0307934
9931.34	0.0287511
9942.37	0.0267277
9953.4	0.0247277
9960.75	0.0234094
9971.78	0.0214577
9982.81	0.0195405
9990.17	0.0182836
10001.2	0.0164328
10012.2	0.014627
10023.3	0.0128699
10030.6	0.0117272
10041.6	0.0100589
10052.7	0.00844807
10060	0.00740771
10071.1	0.00589953
10082.1	0.00445657
10093.1	0.0030813
10100.5	0.0022032
10111.5	0.000945709
10122.5	-0.000238496
10133.6	-0.00134773
10140.9	-0.00204484
10152	-0.003026
10163	-0.0039288
10170.3	-0.00448672
10181.4	-0.0052572
10192.4	-0.00594762
10203.4	-0.00655779
10210.8	-0.00692
10221.8	-0.00739663
10232.8	-0.00779367
10240.2	-0.00801448
10251.2	-0.00828054
10262.3	-0.0084694
10273.3	-0.00858241
10280.6	-0.00861638
10291.7	-0.0086066
10302.7	-0.00852569
10310.1	-0.0084333
10321.1	-0.0082388
10332.1	-0.00797946
10343.2	-0.007658
10350.5	-0.0074106
10361.5	-0.00699213
10372.6	-0.00651962
10383.6	-0.00599638
10391	-0.00562103
10402	-0.00502083
10413	-0.00437917
10420.4	-0.00393014
10431.4	-0.00322738
10442.4	-0.00249281
10453.5	-0.00173005
10460.8	-0.00120766
10471.8	-0.000405852
10482.9	0.00041473
10490.2	0.000970547
10501.3	0.00181499
10512.3	0.0026695
10523.3	0.00353108
10530.7	0.00410799
10541.7	0.00497513
10552.7	0.00584221
10560.1	0.00641907
10571.1	0.00728097
10582.2	0.0081371
10593.2	0.00898568
10600.5	0.00954645
10611.6	0.0103792
10622.6	0.0112007
10633.6	0.01201
10641	0.0125424
10652	0.0133298
10663	0.0141031
10670.4	0.0146107
10681.4	0.0153599
10692.5	0.0160942
10703.5	0.0168137
10710.8	0.017285
10721.9	0.0179795
10732.9	0.018659
10740.3	0.0191037
10751.3	0.0197582
10762.3	0.0203978
10773.4	0.0210223
10780.7	0.0214302
10791.7	0.0220294
10802.8	0.022613
10810.1	0.0229932
10821.2	0.0235501
10832.2	0.0240902
10843.2	0.024613
10850.6	0.0249515
10861.6	0.0254437
10872.6	0.0259162
10883.7	0.026368
10891	0.0266572
10902	0.027072
10913.1	0.0274629
10920.4	0.0277096
10931.5	0.0280576
10942.5	0.028378
10953.5	0.0286693
10960.9	0.0288466
10971.9	0.0290863
10982.9	0.029293
10990.3	0.0294119
11001.3	0.0295608
11012.4	0.0296732
11023.4	0.0297481
11030.7	0.0297767
11041.8	0.0297867
11052.8	0.0297566
11060.2	0.029714
11071.2	0.0296159
11082.2	0.0294763
11093.2	0.029295
11100.6	0.0291511
11111.6	0.0289005
11122.7	0.0286087
11130	0.0283916
11141	0.0280323
11152.1	0.0276337
11163.1	0.0271967
11170.5	0.0268847
11181.5	0.0263866
11192.5	0.0258538
11203.6	0.025288
11210.9	0.0248933
11221.9	0.0242765
11233	0.0236319
11240.3	0.0231877
11251.4	0.0225014
11262.4	0.0217931
11273.4	0.0210652
11280.8	0.0205703
11291.8	0.019815
11302.8	0.0190465
11310.2	0.018528
11321.2	0.0177429
11332.2	0.0169508
11343.3	0.0161542
11350.6	0.0156216
11361.7	0.0148222
11372.7	0.0140239
11380	0.0134932
11391.1	0.0127009
11402.1	0.0119144
11413.1	0.0111354
11420.5	0.0106208
11431.5	0.00985712
11442.6	0.00910405
11453.6	0.0083625
11460.9	0.00787488
11472	0.00715397
11483	0.00644596
11490.4	0.00598121
11501.4	0.00529497
11512.4	0.00462163
11523.4	0.00396086
11530.8	0.00352707
11541.8	0.00288598
11552.9	0.00225569
11560.2	0.00184104
11571.2	0.00122658
11582.3	0.000620117
11593.3	2.03728e-05
11600.7	-0.000376388
11611.7	-0.000967974
11622.7	-0.0015566
11630.1	-0.0019481
11641.1	-0.00253511
11652.1	-0.00312317
11663.2	-0.00371376
11670.5	-0.0041096
11681.6	-0.00470756
11692.6	-0.00531173
11703.6	-0.00592331
11711	-0.0063357
11722	-0.00696198
11733	-0.00759826
11740.4	-0.00802832
11751.4	-0.00868262
11762.4	-0.00934826
11773.5	-0.0100254
11780.8	-0.0104831
11791.9	-0.011179
11802.9	-0.0118857
11810.2	-0.0123624
11821.3	-0.0130853
11832.3	-0.0138166
11843.3	-0.0145549
11850.7	-0.0150503
11861.7	-0.0157969
11872.8	-0.0165459
11880.1	-0.0170457
11891.1	-0.0177942
11902.2	-0.0185394
11913.2	-0.0192787
11920.6	-0.0197671
11931.6	-0.0204908
11942.6	-0.0212016
11953.6	-0.0218965
11961	-0.0223497
11972	-0.0230121
11983.1	-0.0236513
11990.4	-0.0240631
12001.4	-0.0246574
12012.5	-0.0252213
12023.5	-0.0257523
12030.9	-0.0260868
12041.9	-0.0265579
12052.9	-0.0269901
12060.3	-0.0272558
12071.3	-0.0276194
12082.3	-0.0279398
12093.4	-0.0282157
12100.7	-0.0283744
12111.8	-0.0285742
12122.8	-0.0287274
12130.1	-0.0288036
12141.2	-0.0288789
12152.2	-0.0289076
12163.2	-0.0288902
12170.6	-0.0288533
12181.6	-0.0287608
12192.6	-0.0286248
12203.7	-0.0284466
12211	-0.0283053
12222.1	-0.0280607
12233.1	-0.027779
12240.4	-0.0275715
12251.5	-0.0272328
12262.5	-0.0268633
12273.5	-0.0264655
12280.9	-0.0261861
12291.9	-0.0257477
12302.9	-0.0252889
12310.3	-0.0249732
12321.3	-0.0244872
12332.4	-0.0239892
12343.4	-0.0234825
12350.7	-0.0231414
12361.8	-0.0226273
12372.8	-0.0221131
12380.2	-0.0217719
12391.2	-0.0212649
12402.2	-0.0207664
12413.3	-0.0202797
12420.6	-0.0199633
12431.6	-0.019503
12442.7	-0.0190626
12450	-0.0187814
12461.1	-0.0183803
12472.1	-0.0180065
12483.1	-0.0176626
12490.5	-0.0174511
12501.5	-0.0171623
12512.5	-0.0169096
12523.6	-0.0166951
12530.9	-0.0165743
12541.9	-0.0164278
12553	-0.0163242
12560.3	-0.0162798
12571.4	-0.0162512
12582.4	-0.0162691
12593.4	-0.0163347
12600.8	-0.0164053
12611.8	-0.016552
12622.8	-0.016748
12630.2	-0.0169063
12641.2	-0.0171852
12652.3	-0.0175137
12663.3	-0.0178917
12670.6	-0.018171
12681.7	-0.0186303
12692.7	-0.0191373
12700.1	-0.0195014
12711.1	-0.0200857
12722.1	-0.0207146
12733.2	-0.0213867
12740.5	-0.0218578
12751.5	-0.0225977
12762.6	-0.0233758
12773.6	-0.0241899
12781	-0.0247514
12792	-0.0256202
12803	-0.0265184
12810.4	-0.0271322
12821.4	-0.0280736
12832.4	-0.029037
12843.5	-0.0300196
12850.8	-0.0306839
12861.8	-0.0316919
12872.9	-0.0327111
12880.2	-0.0333952
12891.3	-0.0344261
12902.3	-0.0354601
12913.3	-0.036494
12920.7	-0.0371818
12931.7	-0.0382092
12942.7	-0.0392287
12950.1	-0.0399027
12961.1	-0.0409031
12972.2	-0.0418885
12983.2	-0.0428566
12990.5	-0.0434912
13001.6	-0.0444252
13012.6	-0.0453361
13023.6	-0.0462219
13031	-0.0467977
13042	-0.0476381
13053	-0.0484494
13060.4	-0.0489736
13071.4	-0.0497339
13082.5	-0.0504626
13093.5	-0.0511589
13100.8	-0.051605
13111.9	-0.0522467
13122.9	-0.0528555
13130.3	-0.0532431
13141.3	-0.0537974
13152.3	-0.0543197
13163.4	-0.0548105
13170.7	-0.0551206
13181.7	-0.0555609
13192.8	-0.0559724
13200.1	-0.0562313
13211.2	-0.0565976
13222.2	-0.0569386
13233.2	-0.0572559
13240.6	-0.0574551
13251.6	-0.0577368
13262.6	-0.0579995
13273.7	-0.058245
13281	-0.0584001
13292	-0.0586213
13303.1	-0.0588304
13310.4	-0.0589641
13321.5	-0.0591575
13332.5	-0.059344
13343.5	-0.0595254
13350.9	-0.0596443
13361.9	-0.0598212
13372.9	-0.0599976
13380.3	-0.0601157
13391.3	-0.0602946
13402.4	-0.060477
13413.4	-0.0606641
13420.7	-0.0607919
13431.8	-0.060989
13442.8	-0.0611934
13450.2	-0.061334
13461.2	-0.0615518
13472.2	-0.0617783
13483.2	-0.0620136
13490.6	-0.0621755
13501.6	-0.0624257
13512.7	-0.0626844
13520	-0.0628615
13531	-0.0631335
13542.1	-0.0634126
13553.1	-0.063698
13560.5	-0.0638911
13571.5	-0.0641844
13582.5	-0.0644809
13593.6	-0.0647791
13600.9	-0.0649781
13611.9	-0.0652757
13623	-0.0655708
13630.3	-0.0657653
13641.4	-0.0660522
13652.4	-0.0663316
13663.4	-0.0666017
13670.8	-0.0667755
13681.8	-0.0670256
13692.8	-0.0672611
13700.2	-0.0674089
13711.2	-0.0676156
13722.2	-0.0678024
13733.3	-0.0679676
13740.6	-0.0680647
13751.7	-0.0681896
13762.7	-0.0682882
13770	-0.0683385
13781.1	-0.0683896
13792.1	-0.0684104
13803.1	-0.0683995
13810.5	-0.068374
13821.5	-0.0683078
13832.6	-0.0682071
13843.6	-0.0680711
13850.9	-0.0679605
13862	-0.0677642
13873	-0.0675313
13880.4	-0.0673554
13891.4	-0.0670606
13902.4	-0.0667286
13913.4	-0.0663595
13920.8	-0.0660928
13931.8	-0.0656623
13942.9	-0.0651955
13950.2	-0.0648643
13961.2	-0.0643382
13972.3	-0.0637773
13983.3	-0.0631824
13990.7	-0.0627674
14001.7	-0.0621179
14012.7	-0.0614368
14020.1	-0.0609658
14031.1	-0.0602344
14042.1	-0.0594743
14053.2	-0.0586867
14060.5	-0.0581468
14071.6	-0.0573156
14082.6	-0.0564599
14093.6	-0.0555809
14101	-0.0549824
14112	-0.0540669
14123	-0.0531312
14130.4	-0.0524966
14141.4	-0.0515294
14152.4	-0.0505449
14163.5	-0.049544
14170.8	-0.0488682
14181.9	-0.0478424
14192.9	-0.0468029
14200.2	-0.0461027
14211.3	-0.0450425
14222.3	-0.0439711
14233.3	-0.0428893
14240.7	-0.0421627
14251.7	-0.0410655
14262.8	-0.03996
14270.1	-0.039219
14281.1	-0.0381017
14292.2	-0.0369783
14303.2	-0.0358495
14310.6	-0.0350944
14321.6	-0.0339585
14332.6	-0.0328192
14343.6	-0.0316773
14351	-0.0309151
14362	-0.0297707
14373.1	-0.0286258
14380.4	-0.0278627
14391.4	-0.0267188
14402.5	-0.0255767
14413.5	-0.0244371
14420.9	-0.0236792
14431.9	-0.0225458
14442.9	-0.0214174
14450.3	-0.0206682
14461.3	-0.01955
14472.3	-0.0184391
14483.4	-0.0173365
14490.7	-0.0166065
14501.8	-0.0155199
14512.8	-0.0144441
14520.1	-0.0137333
14531.2	-0.0126776
14542.2	-0.0116351
14553.2	-0.0106068
14560.6	-0.00992951
14571.6	-0.00892669
14582.6	-0.00794028
14590	-0.00729216
14601	-0.00633477
14612.1	-0.00539575
14623.1	-0.00447574
14630.4	-0.00387325
14641.5	-0.00298623
14652.5	-0.00211967
14663.5	-0.00127403
14670.9	-0.000722065
14681.9	8.79329e-05
14693	0.000876171
14700.3	0.00138947
14711.3	0.00214103
14722.4	0.00287045
14733.4	0.0035777
14740.8	0.0040369
14751.8	0.0047073
14762.8	0.00535577
14770.2	0.00577598
14781.2	0.00638831
14792.2	0.00697931
14803.3	0.0075493
14810.6	0.00791779
14821.6	0.00845354
14832.7	0.00896929
14840	0.00930223
14851.1	0.00978561
14862.1	0.0102502
14873.1	0.0106964
14880.5	0.010984
14891.5	0.0114008
14902.5	0.0118005
14913.6	0.0121837
14920.9	0.0124303
14932	0.012787
14943	0.0131284
14950.3	0.0133477
14961.4	0.0136647
14972.4	0.0139675
14983.4	0.0142566
14990.8	0.0144419
15001.8	0.014709
15012.8	0.0149633
15020.2	0.015126
15031.2	0.0153599
15042.3	0.015582
15053.3	0.0157925
15060.6	0.0159265
15071.7	0.0161184
15082.7	0.0162996
15090.1	0.0164145
15101.1	0.0165783
15112.1	0.0167321
15123.2	0.0168762
15130.5	0.0169669
15141.5	0.0170955
15152.6	0.0172151
15163.6	0.0173262
15171	0.0173957
15182	0.0174933
15193	0.0175834
15200.4	0.0176394
15211.4	0.0177178
15222.4	0.0177898
15233.5	0.0178558
15240.8	0.0178968
15251.8	0.0179541
15262.9	0.0180068
15270.2	0.0180397
15281.3	0.0180861
15292.3	0.0181293
15303.3	0.0181701
15310.7	0.0181962
15321.7	0.018234
15332.7	0.018271
15340.1	0.0182953
15351.1	0.0183319
15362.2	0.018369
15373.2	0.0184071
15380.5	0.0184333
15391.6	0.0184741
15402.6	0.0185172
15413.6	0.0185629
15421	0.018595
15432	0.0186458
15443	0.0187
15450.4	0.0187382
15461.4	0.0187985
15472.5	0.0188626
15483.5	0.0189306
15490.8	0.0189781
15501.9	0.0190525
15512.9	0.0191306
15520.3	0.0191847
15531.3	0.0192687
15542.3	0.019356
15553.4	0.0194463
15560.7	0.019508
15571.7	0.0196025
15582.8	0.0196992
15590.1	0.0197646
15601.2	0.0198639
15612.2	0.0199643
15623.2	0.0200653
15630.6	0.0201327
15641.6	0.0202338
15652.6	0.0203343
15663.7	0.0204339
15671	0.0204995
15682	0.0205965
15693.1	0.0206913
15700.4	0.0207532
15711.5	0.0208436
15722.5	0.0209309
15733.5	0.0210147
15740.9	0.0210685
15751.9	0.0211457
15762.9	0.0212187
15770.3	0.0212648
15781.3	0.0213301
15792.4	0.0213905
15803.4	0.0214459
15810.7	0.0214799
15821.8	0.0215268
15832.8	0.0215685
15840.2	0.0215934
15851.2	0.0216267
15862.2	0.0216549
15873.2	0.0216785
15880.6	0.0216917
15891.6	0.0217079
15902.7	0.0217202
15910	0.0217264
15921	0.021733
15932.1	0.021737
15943.1	0.0217388
15950.5	0.0217392
15961.5	0.021739
15972.5	0.0217384
15983.6	0.0217383
15990.9	0.0217388
16001.9	0.0217413
16013	0.0217464
16020.3	0.0217518
16031.4	0.0217634
16042.4	0.0217801
16053.4	0.0218029
16060.8	0.021822
16071.8	0.021857
16082.8	0.0219005
16090.2	0.0219347
16101.2	0.0219945
16112.2	0.0220652
16123.3	0.0221476
16130.6	0.0222094
16141.7	0.0223131
16152.7	0.0224304
16160	0.0225165
16171.1	0.022658
16182.1	0.0228146
16193.1	0.0229868
16200.5	0.0231105
16211.5	0.0233094
16222.6	0.0235246
16233.6	0.0237562
16240.9	0.0239198
16252	0.0241787
16263	0.0244538
16270.4	0.024646
16281.4	0.0249474
16292.4	0.0252641
16303.4	0.0255955
16310.8	0.0258243
16321.8	0.0261787
16332.9	0.026546
16340.2	0.0267976
16351.3	0.0271843
16362.3	0.0275812
16373.3	0.0279874
16380.7	0.0282627
16391.7	0.0286816
16402.7	0.0291063
16410.1	0.0293922
16421.1	0.0298238
16432.1	0.0302578
16443.2	0.0306926
16450.5	0.0309822
16461.6	0.0314151
16472.6	0.031845
16483.6	0.0322702
16491	0.0325504
16502	0.0329646
16513	0.0333704
16520.4	0.0336354
16531.4	0.0340238
16542.5	0.0343999
16553.5	0.0347625
16560.8	0.0349961
16571.9	0.0353334
16582.9	0.0356539
16590.3	0.0358578
16601.3	0.0361482
16612.3	0.0364192
16623.3	0.0366702
16630.7	0.0368259
16641.7	0.0370418
16652.8	0.0372358
16660.1	0.0373529
16671.1	0.0375098
16682.2	0.0376441
16693.2	0.0377556
16700.6	0.0378173
16711.6	0.037891
16722.6	0.0379422
16733.7	0.0379712
16741	0.0379785
16752	0.0379717
16763.1	0.0379441
16770.4	0.0379146
16781.5	0.0378541
16792.5	0.0377751
16803.5	0.0376784
16810.9	0.0376047
16821.9	0.0374811
16832.9	0.0373429
16840.3	0.0372433
16851.3	0.0370835
16862.3	0.0369126
16873.4	0.036732
16880.7	0.0366068
16891.8	0.036413
16902.8	0.0362132
16910.1	0.0360774
16921.2	0.0358708
16932.2	0.0356621
16943.2	0.0354525
16950.6	0.035313
16961.6	0.0351051
16972.7	0.0348998
16980	0.034765
16991	0.0345667
17002.1	0.034374
17013.1	0.0341879
17020.5	0.0340678
17031.5	0.0338944
17042.5	0.0337293
17053.5	0.0335732
17060.9	0.0334742
17071.9	0.0333336
17083	0.0332025
17090.3	0.0331202
17101.3	0.0330044
17112.4	0.0328974
17123.4	0.0327986
17130.8	0.0327368
17141.8	0.0326498
17152.8	0.0325684
17160.2	0.0325167
17171.2	0.0324418
17182.2	0.0323687
17193.3	0.0322956
17200.6	0.0322459
17211.7	0.0321682
17222.7	0.0320848
17230	0.0320248
17241.1	0.0319262
17252.1	0.0318149
17263.1	0.0316878
17270.5	0.0315929
17281.5	0.0314329
17292.5	0.0312488
17303.6	0.0310371
17310.9	0.030879
17322	0.0306136
17333	0.0303113
17340.3	0.0300873
17351.4	0.0297151
17362.4	0.029296
17373.4	0.0288264
17380.8	0.0284833
17391.8	0.0279211
17402.9	0.0272985
17410.2	0.0268482
17421.2	0.0261171
17432.3	0.0253163
17443.3	0.0244427
17450.7	0.0238182
17461.7	0.0228162
17472.7	0.0217334
17480.1	0.0209653
17491.1	0.0197422
17502.1	0.0184319
17513.2	0.0170325
17520.5	0.0160493
17531.5	0.0144979
17542.6	0.0128538
17553.6	0.0111161
17561	0.00990548
17572	0.00801113
17583	0.00602292
17590.4	0.00464557
17601.4	0.0025024
17612.4	0.000267787
17623.5	-0.0020566
17630.8	-0.00365507
17641.9	-0.00612429
17652.9	-0.00867682
17660.2	-0.0104232
17671.3	-0.0131073
17682.3	-0.0158653
17693.3	-0.0186928
17700.7	-0.0206141
17711.7	-0.0235469
17722.7	-0.0265357
17730.1	-0.0285566
17741.1	-0.031626
17752.2	-0.0347354
17763.2	-0.0378782
17770.5	-0.0399884
17781.6	-0.0431711
17792.6	-0.0463679
17803.6	-0.0495711
17811	-0.0517063
17822	-0.0549027
17833.1	-0.0580841
17840.4	-0.0601926
17851.4	-0.0633305
17862.5	-0.066431
17873.5	-0.0694857
17880.9	-0.0714925
17891.9	-0.0744519
17902.9	-0.0773428
17910.3	-0.0792278
17921.3	-0.0819861
17932.3	-0.0846538
17943.4	-0.0872232
17950.7	-0.0888776
17961.7	-0.0912658
17972.8	-0.0935355
17980.1	-0.0949794
17991.2	-0.0970363
18002.2	-0.0989569
18013.2	-0.100735
18020.6	-0.101839
18031.6	-0.103367
18042.6	-0.10474
18053.7	-0.105951
18061	-0.106668
18072.1	-0.107603
18083.1	-0.108369
18090.4	-0.108784
18101.5	-0.109261
18112.5	-0.109562
18123.5	-0.109688
18130.9	-0.109673
18141.9	-0.109504
18152.9	-0.109159
18160.3	-0.108831
18171.3	-0.108195
18182.4	-0.107386
18193.4	-0.106407
18200.7	-0.105662
18211.8	-0.104407
18222.8	-0.102992
18230.2	-0.101961
18241.2	-0.100288
18252.2	-0.0984667
18263.3	-0.0965025
18270.6	-0.0951165
18281.6	-0.0929274
18292.7	-0.0906118
18300	-0.0890011
18311.1	-0.0864896
18322.1	-0.08387
18333.1	-0.0811497
18340.5	-0.0792838
18351.5	-0.0764123
18362.5	-0.0734603
18373.6	-0.0704357
18380.9	-0.0683829
18391.9	-0.0652549
18403	-0.0620755
18410.3	-0.0599311
18421.4	-0.0566834
18432.4	-0.0534052
18443.4	-0.0501041
18450.8	-0.0478945
18461.8	-0.0445722
18472.8	-0.0412469
18480.2	-0.0390319
18491.2	-0.0357174
18502.3	-0.0324185
18513.3	-0.0291416
18520.6	-0.0269723
18531.7	-0.0237459
18542.7	-0.0205577
18550.1	-0.018456
18561.1	-0.0153432
18572.1	-0.0122825
18583.1	-0.00927845
18590.5	-0.00730937
18601.5	-0.00440918
18612.6	-0.00157644
18623.6	0.00118544
18630.9	0.00298579
18642	0.00562286
18653	0.00818157
18660.4	0.00984274
18671.4	0.0122661
18682.4	0.014606
18693.5	0.016861
18700.8	0.0183167
18711.8	0.0204281
18722.9	0.0224526
18730.2	0.0237539
18741.3	0.0256331
18752.3	0.0274252
18763.3	0.0291309
18770.7	0.0302202
18781.7	0.0317834
18792.7	0.0332624
18800.1	0.0342023
18811.1	0.0355441
18822.1	0.0368057
18833.2	0.0379891
18840.5	0.0387354
18851.6	0.0397927
18862.6	0.0407772
18873.6	0.0416915
18881	0.0422632
18892	0.0430659
18903	0.0438052
18910.4	0.0442642
18921.4	0.044904
18932.5	0.0454878
18943.5	0.0460185
18950.8	0.0463444
18961.9	0.0467933
18972.9	0.0471971
18980.3	0.0474427
18991.3	0.0477778
19002.3	0.0480757
19013.3	0.0483393
19020.7	0.0484973
19031.7	0.04871
19042.8	0.0488959
19050.1	0.0490063
19061.1	0.0491536
19072.2	0.0492811
19083.2	0.0493914
19090.6	0.0494565
19101.6	0.0495433
19112.6	0.049619
19123.7	0.0496856
19131	0.049726
19142	0.0497818
19153.1	0.0498335
19160.4	0.0498665
19171.5	0.0499148
19182.5	0.049963
19193.5	0.0500123
19200.9	0.0500463
19211.9	0.0500997
19222.9	0.0501568
19230.3	0.0501973
19241.3	0.050262
19252.3	0.0503319
19263.4	0.0504074
19270.7	0.050461
19281.8	0.0505462
19292.8	0.0506374
19300.1	0.0507013
19311.2	0.050802
19322.2	0.0509079
19333.2	0.0510187
19340.6	0.0510951
19351.6	0.051213
19362.7	0.0513342
19370	0.0514166
19381	0.0515418
19392.1	0.0516683
19403.1	0.0517951
19410.5	0.0518795
19421.5	0.0520048
19432.5	0.0521279
19443.5	0.0522477
19450.9	0.0523252
19461.9	0.0524371
19473	0.0525427
19480.3	0.0526091
19491.3	0.0527019
19502.4	0.0527856
19513.4	0.052859
19520.8	0.0529017
19531.8	0.0529556
19542.8	0.0529964
19550.2	0.0530159
19561.2	0.0530327
19572.2	0.0530339
19583.3	0.0530186
19590.6	0.0529987
19601.7	0.0529539
19612.7	0.0528903
19620	0.0528372
19631.1	0.052741
19642.1	0.0526242
19653.1	0.0524864
19660.5	0.0523825
19671.5	0.0522085
19682.5	0.0520123
19693.6	0.0517935
19700.9	0.0516349
19712	0.0513778
19723	0.0510975
19730.3	0.0508977
19741.4	0.0505785
19752.4	0.050236
19763.4	0.0498701
19770.8	0.0496132
19781.8	0.0492086
19792.9	0.0487811
19800.2	0.0484834
19811.2	0.0480181
19822.3	0.0475306
19833.3	0.0470212
19840.7	0.0466696
19851.7	0.0461247
19862.7	0.0455591
19870.1	0.0451708
19881.1	0.0445718
19892.1	0.0439537
19903.2	0.0433169
19910.5	0.0428824
19921.5	0.0422161
19932.6	0.0415329
19943.6	0.0408337
19951	0.040359
19962	0.0396347
19973	0.0388963
19980.4	0.0383967
19991.4	0.0376368
