0	0
14.5977	0
21.8966	0
36.4944	0
43.7932	0
51.0921	0
65.6898	0
72.9887	0
80.2876	0
94.8853	0
102.184	0
116.782	0
124.081	0
131.38	0
145.977	0
153.276	0
160.575	0
175.173	0
182.472	0
197.069	0
204.368	0
211.667	0
226.265	0
233.564	0
240.863	0
255.46	0
262.759	0
270.058	0
284.656	0
291.955	0
306.553	0
313.851	0
321.15	0
335.748	0
343.047	0
350.346	0
364.944	0
372.242	0
386.84	0
394.139	0
401.438	0
416.036	0
423.334	0
430.633	0
445.231	0
452.53	0
467.128	0
474.427	0
481.725	0
496.323	0
503.622	0
510.921	0
525.519	0
532.818	0
540.116	0
554.714	0
562.013	0
576.611	0
583.91	0
591.208	0
605.806	0
613.105	0
620.404	0
635.002	0
642.301	0
656.898	0
664.197	0
671.496	0
686.094	0
693.393	0
700.692	0
715.289	0
722.588	0
737.186	0
744.485	0
751.784	0
766.381	0
773.68	0
780.979	0
795.577	0
802.876	0
810.175	0
824.772	0
832.071	0
846.669	0
853.968	0
861.267	0
875.864	0
883.163	0
890.462	0
905.06	0
912.359	0
926.956	0
934.255	0
941.554	0
956.152	0
963.451	0
970.75	0
985.347	0
992.646	0
1007.24	0
1014.54	0
1021.84	0
1036.44	0
1043.74	0
1051.04	0
1065.64	0
1072.93	0
1080.23	0
1094.83	0
1102.13	0
1116.73	0
1124.03	0
1131.32	0
1145.92	0
1153.22	0
1160.52	0
1175.12	0
1182.42	0
1197.01	0
1204.31	0
1211.61	0
1226.21	0
1233.51	0
1240.81	0
1255.41	0
1262.7	0
1270	0
1284.6	0
1291.9	0
1306.5	0
1313.8	0
1321.1	0
1335.69	0
1342.99	0
1350.29	0
1364.89	0
1372.19	0
1386.79	0
1394.08	0
1401.38	0
1415.98	0
1423.28	0
1430.58	0
1445.18	0
1452.47	0
1467.07	0
1474.37	0
1481.67	0
1496.27	0
1503.57	0
1510.87	0
1525.46	0
1532.76	0
1540.06	0
1554.66	0
1561.96	0
1576.56	0
1583.85	0
1591.15	0
1605.75	0
1613.05	0
1620.35	0
1634.95	0
1642.25	0
1656.84	0
1664.14	0
1671.44	0
1686.04	0
1693.34	0
1700.64	0
1715.23	0
1722.53	0
1737.13	0
1744.43	0
1751.73	0
1766.33	0
1773.62	0
1780.92	0
1795.52	0
1802.82	0
1810.12	0
1824.72	0
1832.01	0
1846.61	0
1853.91	0
1861.21	0
1875.81	0
1883.11	0
1890.4	0
1905	0
1912.3	0
1926.9	0
1934.2	0
1941.5	0
1956.09	0
1963.39	0
1970.69	0
1985.29	0
1992.59	0
2007.18	0
2014.48	0
2021.78	0
2036.38	0
2043.68	0
2050.98	0
2065.57	0
2072.87	0
2080.17	0
2094.77	0
2102.07	0
2116.67	0
2123.96	0
2131.26	0
2145.86	0
2153.16	0
2160.46	0
2175.05	0
2182.35	0
2196.95	0
2204.25	0
2211.55	0
2226.14	0
2233.44	0
2240.74	0
2255.34	0
2262.64	0
2277.24	0
2284.53	0
2291.83	0
2306.43	0
2313.73	0
2321.03	0
2335.62	0
2342.92	0
2350.22	0
2364.82	0
2372.12	0
2386.71	0
2394.01	0
2401.31	0
2415.91	0
2423.21	0
2430.5	0
2445.1	0
2452.4	0
2467	0
2474.3	0
2481.59	0
2496.19	0
2503.49	0
2510.79	0
2525.38	0
2532.68	0
2547.28	0
2554.58	0
2561.88	0
2576.47	0
2583.77	0
2591.07	0
2605.67	0
2612.97	0
2620.26	0
2634.86	0
2642.16	0
2656.76	0
2664.06	0
2671.35	0
2685.95	0
2693.25	0
2700.55	0
2715.14	0
2722.44	0
2737.04	0
2744.34	0
2751.64	0
2766.23	0
2773.53	0
2780.83	0
2795.43	0
2802.73	0
2810.02	0
2824.62	0
2831.92	0
2846.52	0
2853.82	0
2861.11	0
2875.71	0
2883.01	0
2890.31	0
2904.91	-9.09495e-13
2912.2	-9.09495e-13
2926.8	-9.09495e-13
2934.1	-9.09495e-13
2941.4	-9.09495e-13
2956	-1.81899e-12
2963.29	-2.72848e-12
2970.59	-4.54747e-12
2985.19	-1.09139e-11
2992.49	-1.54614e-11
3007.09	-2.91038e-11
3014.39	-3.91083e-11
3021.68	-5.36602e-11
3036.28	-1.00044e-10
3043.58	-1.35515e-10
3050.88	-1.81899e-10
3065.48	-3.2378e-10
3072.77	-4.30191e-10
3080.07	-5.69344e-10
3094.67	-9.86802e-10
3101.97	-1.29148e-09
3116.57	-2.18915e-09
3123.87	-2.8358e-09
3131.16	-3.66072e-09
3145.76	-6.03995e-09
3153.06	-7.71888e-09
3160.36	-9.83073e-09
3174.96	-1.57934e-08
3182.26	-1.99216e-08
3196.85	-3.14003e-08
3204.15	-3.92383e-08
3211.45	-4.88817e-08
3226.05	-7.5177e-08
3233.35	-9.2813e-08
3240.65	-1.14252e-07
3255.25	-1.71628e-07
3262.54	-2.09456e-07
3277.14	-3.09347e-07
3284.44	-3.7439e-07
3291.74	-4.51878e-07
3306.34	-6.53012e-07
3313.64	-7.81899e-07
3320.94	-9.33793e-07
3335.53	-1.32164e-06
3342.83	-1.5664e-06
3350.13	-1.85188e-06
3364.73	-2.56949e-06
3372.03	-3.01576e-06
3386.62	-4.125e-06
3393.92	-4.80757e-06
3401.22	-5.59031e-06
3415.82	-7.5081e-06
3423.12	-8.67238e-06
3430.42	-9.99548e-06
3445.02	-1.31933e-05
3452.31	-1.51098e-05
3466.91	-1.9697e-05
3474.21	-2.2421e-05
3481.51	-2.54712e-05
3496.11	-3.26816e-05
3503.41	-3.69135e-05
3510.7	-4.16153e-05
3525.3	-5.26003e-05
3532.6	-5.89765e-05
3547.2	-7.375e-05
3554.5	-8.22577e-05
3561.8	-9.15912e-05
3576.39	-0.00011299
3583.69	-0.000125191
3590.99	-0.000138488
3605.59	-0.000168674
3612.89	-0.000185723
3620.19	-0.000204189
3634.78	-0.000245724
3642.08	-0.000268979
3656.68	-0.000320944
3663.98	-0.000349858
3671.28	-0.000380864
3685.88	-0.000449586
3693.18	-0.000487524
3700.47	-0.000527999
3715.07	-0.000617023
3722.37	-0.000665811
3736.97	-0.000772544
3744.27	-0.000830734
3751.57	-0.000892305
3766.16	-0.00102609
3773.46	-0.00109856
3780.76	-0.00117491
3795.36	-0.00133975
3802.66	-0.00142849
3817.26	-0.00161922
3824.55	-0.00172146
3831.85	-0.00182842
3846.45	-0.002057
3853.75	-0.00217884
3861.05	-0.00230585
3875.65	-0.00257577
3882.94	-0.00271888
3890.24	-0.00286752
3904.84	-0.00318175
3912.14	-0.00334747
3926.74	-0.00369642
3934.04	-0.00387973
3941.33	-0.00406899
3955.93	-0.00446538
3963.23	-0.00467252
3970.53	-0.00488561
3985.13	-0.00532948
3992.43	-0.00556015
4007.02	-0.00603855
4014.32	-0.00628605
4021.62	-0.00653891
4036.22	-0.00705999
4043.52	-0.00732778
4050.82	-0.0076001
4065.41	-0.0081571
4072.71	-0.00844112
4080.01	-0.00872831
4094.61	-0.00931042
4101.91	-0.00960434
4116.51	-0.0101951
4123.81	-0.0104906
4131.1	-0.0107852
4145.7	-0.0113685
4153	-0.0116555
4160.3	-0.011938
4174.9	-0.0124852
4182.2	-0.0127475
4196.79	-0.0132431
4204.09	-0.0134734
4211.39	-0.01369
4225.99	-0.0140753
4233.29	-0.0142404
4240.59	-0.0143844
4255.18	-0.014601
4262.48	-0.0146691
4277.08	-0.014713
4284.38	-0.0146836
4291.68	-0.0146166
4306.28	-0.0143578
4313.57	-0.0141602
4320.87	-0.013913
4335.47	-0.0132569
4342.77	-0.0128414
4350.07	-0.0123631
4364.67	-0.0112036
4371.97	-0.0105153
4386.56	-0.00890304
4393.86	-0.0079717
4401.16	-0.00695186
4415.76	-0.00463166
4423.06	-0.00332379
4430.36	-0.00191245
4444.95	0.0012352
4452.25	0.00297865
4466.85	0.00682196
4474.15	0.00892838
4481.45	0.0111621
4496.05	0.0160231
4503.34	0.0186557
4510.64	0.0214262
4525.24	0.0273896
4532.54	0.0305861
4547.14	0.0374157
4554.44	0.0410508
4561.74	0.0448337
4576.33	0.0528435
4583.63	0.0570698
4590.93	0.0614429
4605.53	0.0706245
4612.83	0.0754297
4620.13	0.080375
4634.72	0.0906749
4642.02	0.0960232
4656.62	0.107098
4663.92	0.112815
4671.22	0.118646
4685.82	0.130627
4693.11	0.136766
4700.41	0.142994
4715.01	0.155694
4722.31	0.16215
4736.91	0.175237
4744.21	0.181851
4751.5	0.188501
4766.1	0.20187
4773.4	0.208571
4780.7	0.21527
4795.3	0.228622
4802.6	0.235255
4817.19	0.248383
4824.49	0.254857
4831.79	0.261257
4846.39	0.273792
4853.69	0.279906
4860.99	0.285903
4875.59	0.297504
4882.88	0.303088
4890.18	0.308513
4904.78	0.318849
4912.08	0.323739
4926.68	0.332919
4933.98	0.33719
4941.27	0.341237
4955.87	0.348625
4963.17	0.351951
4970.47	0.355022
4985.07	0.360372
4992.37	0.362638
5006.96	0.366327
5014.26	0.36774
5021.56	0.368859
5036.16	0.370204
5043.46	0.370425
5050.76	0.37034
5065.35	0.369252
5072.65	0.368247
5087.25	0.365315
5094.55	0.363389
5101.85	0.36116
5116.45	0.355796
5123.75	0.352667
5131.04	0.349245
5145.64	0.341539
5152.94	0.337263
5160.24	0.332712
5174.84	0.32281
5182.14	0.31747
5196.73	0.306049
5204.03	0.299981
5211.33	0.293685
5225.93	0.280443
5233.23	0.273513
5240.53	0.266388
5255.12	0.25159
5262.42	0.243936
5277.02	0.228162
5284.32	0.220062
5291.62	0.211833
5306.22	0.195026
5313.52	0.186469
5320.81	0.177822
5335.41	0.160299
5342.71	0.151443
5350.01	0.142538
5364.61	0.124621
5371.91	0.115628
5386.5	0.0976249
5393.8	0.0886341
5401.1	0.0796638
5415.7	0.0618233
5423	0.0529725
5430.3	0.0441805
5444.89	0.0268112
5452.19	0.0182522
5466.79	0.00143107
5474.09	-0.00681336
5481.39	-0.0149355
5495.99	-0.030779
5503.29	-0.0384839
5510.58	-0.0460338
5525.18	-0.0606373
5532.48	-0.0676763
5547.08	-0.0811937
5554.38	-0.0876588
5561.68	-0.09392
5576.27	-0.105807
5583.57	-0.111422
5590.87	-0.116812
5605.47	-0.126897
5612.77	-0.131585
5620.07	-0.136031
5634.66	-0.144189
5641.96	-0.147895
5656.56	-0.154556
5663.86	-0.157508
5671.16	-0.160207
5685.76	-0.164848
5693.06	-0.166792
5700.35	-0.168487
5714.95	-0.171138
5722.25	-0.1721
5736.85	-0.173312
5744.15	-0.173571
5751.45	-0.173605
5766.04	-0.173018
5773.34	-0.172409
5780.64	-0.171598
5795.24	-0.169396
5802.54	-0.168019
5817.14	-0.164754
5824.44	-0.162881
5831.73	-0.160859
5846.33	-0.156402
5853.63	-0.153985
5860.93	-0.151453
5875.53	-0.146085
5882.83	-0.143266
5890.12	-0.14037
5904.72	-0.134382
5912.02	-0.131308
5926.62	-0.125047
5933.92	-0.121876
5941.22	-0.11869
5955.81	-0.112307
5963.11	-0.109126
5970.41	-0.105961
5985.01	-0.0997128
5992.31	-0.0966427
6006.91	-0.0906436
6014.2	-0.0877266
6021.5	-0.0848721
6036.1	-0.0793708
6043.4	-0.0767333
6050.7	-0.0741768
6065.3	-0.0693212
6072.6	-0.0670285
6087.19	-0.062726
6094.49	-0.0607204
6101.79	-0.0588141
6116.39	-0.0553034
6123.69	-0.0537003
6130.99	-0.0521991
6145.58	-0.0495014
6152.88	-0.0483037
6160.18	-0.0472055
6174.78	-0.045302
6182.08	-0.0444935
6196.67	-0.0431527
6203.97	-0.0426158
6211.27	-0.0421646
6225.87	-0.041508
6233.17	-0.0412966
6240.47	-0.0411591
6255.06	-0.0410926
6262.36	-0.0411569
6276.96	-0.0414634
6284.26	-0.0416986
6291.56	-0.0419837
6306.16	-0.0426898
6313.45	-0.0431038
6320.75	-0.0435537
6335.35	-0.0445482
6342.65	-0.0450861
6357.25	-0.0462272
6364.55	-0.0468243
6371.84	-0.0474352
6386.44	-0.0486871
6393.74	-0.0493229
6401.04	-0.0499618
6415.64	-0.05124
6422.94	-0.0518748
6430.23	-0.0525042
6444.83	-0.053739
6452.13	-0.0543411
6466.73	-0.0555074
6474.03	-0.0560689
6481.33	-0.0566144
6495.92	-0.0576534
6503.22	-0.0581452
6510.52	-0.0586176
6525.12	-0.0595016
6532.42	-0.0599122
6547.02	-0.060669
6554.31	-0.0610146
6561.61	-0.0613382
6576.21	-0.0619188
6583.51	-0.0621759
6590.81	-0.0624108
6605.41	-0.0628148
6612.7	-0.0629841
6620	-0.0631318
6634.6	-0.0633636
6641.9	-0.0634481
6656.5	-0.0635554
6663.8	-0.0635787
6671.09	-0.0635822
6685.69	-0.0635305
6692.99	-0.0634759
6700.29	-0.0634024
6714.89	-0.0631995
6722.19	-0.0630706
6736.78	-0.0627587
6744.08	-0.0625761
6751.38	-0.0623759
6765.98	-0.0619233
6773.28	-0.0616712
6780.58	-0.0614019
6795.17	-0.0608123
6802.47	-0.0604922
6817.07	-0.0598017
6824.37	-0.0594314
6831.67	-0.0590445
6846.26	-0.0582212
6853.56	-0.0577849
6860.86	-0.0573322
6875.46	-0.0563782
6882.76	-0.0558769
6890.06	-0.0553597
6904.66	-0.0542777
6911.95	-0.0537132
6926.55	-0.0525379
6933.85	-0.0519275
6941.15	-0.0513022
6955.75	-0.0500078
6963.05	-0.0493391
6970.34	-0.0486566
6984.94	-0.0472509
6992.24	-0.0465285
7006.84	-0.0450463
7014.14	-0.0442872
7021.44	-0.0435167
7036.03	-0.0419432
7043.33	-0.0411411
7050.63	-0.0403295
7065.23	-0.0386793
7072.53	-0.0378418
7087.13	-0.0361448
7094.42	-0.0352863
7101.72	-0.034422
7116.32	-0.0326779
7123.62	-0.0317993
7130.92	-0.0309172
7145.52	-0.0291445
7152.82	-0.0282552
7160.11	-0.0273646
7174.71	-0.0255822
7182.01	-0.0246915
7196.61	-0.022914
7203.91	-0.0220284
7211.21	-0.0211457
7225.8	-0.0193909
7233.1	-0.0185199
7240.4	-0.017654
7255	-0.0159394
7262.3	-0.0150917
7276.9	-0.013418
7284.19	-0.012593
7291.49	-0.0117765
7306.09	-0.0101708
7313.39	-0.00938251
7320.69	-0.0086045
7335.29	-0.00708098
7342.59	-0.00633627
7357.18	-0.00488289
7364.48	-0.00417496
7371.78	-0.00348002
7386.38	-0.00213051
7393.68	-0.00147661
7400.98	-0.000837045
7415.57	0.000397807
7422.87	0.000992488
7430.17	0.00157161
7444.77	0.00268206
7452.07	0.00321283
7466.67	0.00422417
7473.97	0.00470423
7481.26	0.00516688
7495.86	0.00603907
7503.16	0.00644816
7510.46	0.00683896
7525.06	0.00756487
7532.36	0.0078996
7546.95	0.00851172
7554.25	0.00878877
7561.55	0.00904629
7576.15	0.00950212
7583.45	0.00970019
7590.75	0.0098782
7605.34	0.0101737
7612.64	0.010291
7627.24	0.0104643
7634.54	0.0105203
7641.84	0.0105558
7656.44	0.0105653
7663.74	0.0105392
7671.03	0.0104927
7685.63	0.0103385
7692.93	0.010231
7700.23	0.0101032
7714.83	0.00978769
7722.13	0.00960014
7736.72	0.00916629
7744.02	0.00892037
7751.32	0.00865539
7765.92	0.00806919
7773.22	0.00774848
7780.52	0.00740974
7795.11	0.00667932
7802.41	0.0062883
7817.01	0.00545635
7824.31	0.00501615
7831.61	0.00456033
7846.21	0.00360345
7853.51	0.00310325
7860.8	0.00258913
7875.4	0.00152099
7882.7	0.000967942
7897.3	-0.000173643
7904.6	-0.00076115
7911.9	-0.0013591
7926.49	-0.00258416
7933.79	-0.00321017
7941.09	-0.00384443
7955.69	-0.0051354
7962.99	-0.00579095
7970.29	-0.00645245
7984.88	-0.00779091
7992.18	-0.00846669
8006.78	-0.00982838
8014.08	-0.0105131
8021.38	-0.0111996
8035.98	-0.0125756
8043.28	-0.0132639
8050.57	-0.0139515
8065.17	-0.0153228
8072.47	-0.0160053
8087.07	-0.0173608
8094.37	-0.0180328
8101.67	-0.0187002
8116.26	-0.0200191
8123.56	-0.0206694
8130.86	-0.021313
8145.46	-0.0225779
8152.76	-0.0231983
8160.06	-0.0238098
8174.65	-0.0250047
8181.95	-0.0255872
8196.55	-0.0267199
8203.85	-0.0272692
8211.15	-0.0278067
8225.75	-0.0288445
8233.05	-0.0293441
8240.34	-0.0298302
8254.94	-0.030761
8262.24	-0.031205
8276.84	-0.0320485
8284.14	-0.0324475
8291.44	-0.0328309
8306.03	-0.03355
8313.33	-0.0338852
8320.63	-0.0342039
8335.23	-0.0347909
8342.53	-0.0350589
8357.13	-0.0355428
8364.42	-0.0357585
8371.72	-0.0359565
8386.32	-0.0362988
8393.62	-0.0364429
8400.92	-0.0365689
8415.52	-0.0367661
8422.82	-0.0368373
8430.11	-0.03689
8444.71	-0.0369402
8452.01	-0.0369377
8466.61	-0.0368771
8473.91	-0.0368192
8481.21	-0.0367428
8495.8	-0.0365348
8503.1	-0.0364034
8510.4	-0.0362537
8525	-0.0358998
8532.3	-0.0356958
8546.9	-0.035234
8554.19	-0.0349765
8561.49	-0.0347014
8576.09	-0.0340988
8583.39	-0.0337716
8590.69	-0.0334274
8605.29	-0.0326883
8612.59	-0.0322939
8627.18	-0.031456
8634.48	-0.031013
8641.78	-0.0305542
8656.38	-0.02959
8663.68	-0.0290851
8670.98	-0.0285654
8685.57	-0.0274822
8692.87	-0.0269193
8700.17	-0.0263426
8714.77	-0.0251487
8722.07	-0.0245322
8736.67	-0.0232615
8743.97	-0.0226079
8751.26	-0.0219427
8765.86	-0.0205786
8773.16	-0.0198804
8780.46	-0.0191719
8795.06	-0.0177257
8802.36	-0.0169887
8816.95	-0.015489
8824.25	-0.0147271
8831.55	-0.0139578
8846.15	-0.0123983
8853.45	-0.0116091
8860.75	-0.0108142
8875.35	-0.009209
8882.64	-0.00839963
8897.24	-0.0067697
8904.54	-0.00595008
8911.84	-0.00512799
8926.44	-0.00347834
8933.74	-0.00265174
8941.03	-0.00182461
8955.63	-0.000170672
8962.93	0.000655153
8970.23	0.00147957
8984.83	0.00312224
8992.13	0.00393954
9006.72	0.00556365
9014.02	0.00636953
9021.32	0.00717067
9035.92	0.00875688
9043.22	0.00954106
9050.52	0.0103187
9065.12	0.0118526
9072.41	0.012608
9087.01	0.0140936
9094.31	0.0148231
9101.61	0.0155432
9116.21	0.0169536
9123.51	0.0176432
9130.81	0.018322
9145.4	0.0196457
9152.7	0.02029
9160	0.0209222
9174.6	0.0221493
9181.9	0.0227437
9196.5	0.0238928
9203.79	0.0244472
9211.09	0.0249877
9225.69	0.0260269
9232.99	0.0265252
9240.29	0.0270091
9254.89	0.0279331
9262.19	0.0283731
9276.78	0.0292084
9284.08	0.0296037
9291.38	0.029984
9305.98	0.0306994
9313.28	0.0310346
9320.58	0.0313547
9335.17	0.03195
9342.47	0.0322253
9357.07	0.0327313
9364.37	0.0329622
9371.67	0.0331785
9386.27	0.0335678
9393.57	0.0337411
9400.86	0.0339003
9415.46	0.034177
9422.76	0.0342949
9430.06	0.0343994
9444.66	0.0345689
9451.96	0.0346344
9466.55	0.0347278
9473.85	0.0347561
9481.15	0.0347726
9495.75	0.034771
9503.05	0.0347533
9510.35	0.0347247
9524.94	0.0346361
9532.24	0.0345765
9546.84	0.0344284
9554.14	0.0343403
9561.44	0.0342434
9576.04	0.0340238
9583.34	0.0339018
9590.63	0.033772
9605.23	0.0334903
9612.53	0.0333389
9627.13	0.0330167
9634.43	0.0328464
9641.73	0.0326703
9656.32	0.032302
9663.62	0.0321104
9670.92	0.031914
9685.52	0.0315085
9692.82	0.0312997
9700.12	0.0310873
9714.71	0.0306526
9722.01	0.0304307
9736.61	0.029979
9743.91	0.0297497
9751.21	0.0295182
9765.81	0.0290496
9773.11	0.028813
9780.4	0.0285749
9795	0.0280951
9802.3	0.0278538
9816.9	0.0273686
9824.2	0.027125
9831.5	0.026881
9846.09	0.0263916
9853.39	0.0261464
9860.69	0.025901
9875.29	0.0254096
9882.59	0.0251637
9897.19	0.0246715
9904.48	0.0244252
9911.78	0.0241788
9926.38	0.0236855
9933.68	0.0234385
9940.98	0.0231912
9955.58	0.0226956
9962.88	0.0224471
9970.17	0.022198
9984.77	0.0216979
9992.07	0.0214466
10006.7	0.0209411
10014	0.0206867
10021.3	0.0204309
10035.9	0.0199151
10043.2	0.0196547
10050.5	0.0193925
10065.1	0.018862
10072.4	0.0185935
10087	0.0180492
10094.3	0.0177732
10101.6	0.0174943
10116.2	0.0169275
10123.4	0.0166394
10130.7	0.0163479
10145.3	0.0157542
10152.6	0.0154518
10167.2	0.0148353
10174.5	0.014521
10181.8	0.0142024
10196.4	0.0135522
10203.7	0.0132203
10211	0.0128839
10225.6	0.0121971
10232.9	0.0118464
10240.2	0.011491
10254.8	0.0107653
10262.1	0.010395
10276.7	0.00963939
10284	0.00925406
10291.3	0.00886371
10305.9	0.00806802
10313.2	0.00766271
10320.5	0.00725248
10335.1	0.00641743
10342.4	0.00599272
10357	0.0051293
10364.3	0.00469075
10371.6	0.00424776
10386.2	0.0033489
10393.5	0.00289324
10400.8	0.0024336
10415.4	0.00150289
10422.7	0.0010321
10430	0.000557889
10444.6	-0.000400191
10451.9	-0.000883734
10466.5	-0.00185898
10473.8	-0.00235033
10481.1	-0.00284393
10495.7	-0.00383713
10503	-0.00433636
10510.3	-0.0048371
10524.9	-0.0058423
10532.2	-0.00634638
10546.8	-0.00735656
10554.1	-0.00786227
10561.4	-0.00836814
10576	-0.00937961
10583.3	-0.00988484
10590.6	-0.0103895
10605.2	-0.0113963
10612.5	-0.0118982
10627.1	-0.012898
10634.4	-0.0133955
10641.7	-0.0138914
10656.3	-0.0148773
10663.6	-0.015367
10670.9	-0.0158545
10685.5	-0.0168221
10692.8	-0.017302
10700.1	-0.0177792
10714.7	-0.018725
10722	-0.0191934
10736.6	-0.020121
10743.8	-0.02058
10751.1	-0.0210358
10765.7	-0.0219375
10773	-0.0223833
10780.3	-0.0228258
10794.9	-0.0237005
10802.2	-0.0241328
10816.8	-0.0249871
10824.1	-0.0254093
10831.4	-0.0258281
10846	-0.0266558
10853.3	-0.0270648
10860.6	-0.0274706
10875.2	-0.0282729
10882.5	-0.0286696
10897.1	-0.029454
10904.4	-0.029842
10911.7	-0.0302272
10926.3	-0.0309897
10933.6	-0.0313672
10940.9	-0.0317423
10955.5	-0.0324854
10962.8	-0.0328537
10970.1	-0.0332199
10984.7	-0.0339463
10992	-0.0343067
11006.6	-0.0350224
11013.9	-0.0353777
11021.2	-0.0357315
11035.8	-0.0364348
11043.1	-0.0367844
11050.4	-0.0371328
11065	-0.0378259
11072.3	-0.0381708
11086.9	-0.0388574
11094.2	-0.0391992
11101.5	-0.0395401
11116.1	-0.0402191
11123.4	-0.0405572
11130.7	-0.0408945
11145.3	-0.0415665
11152.6	-0.0419012
11167.2	-0.0425679
11174.5	-0.0428999
11181.8	-0.0432309
11196.4	-0.0438901
11203.7	-0.0442181
11211	-0.044545
11225.6	-0.0451953
11232.9	-0.0455186
11240.2	-0.0458405
11254.8	-0.04648
11262.1	-0.0467974
11276.7	-0.0474272
11284	-0.0477394
11291.3	-0.0480496
11305.9	-0.0486638
11313.2	-0.0489676
11320.5	-0.049269
11335.1	-0.0498642
11342.4	-0.0501578
11357	-0.0507363
11364.3	-0.051021
11371.5	-0.0513025
11386.1	-0.0518553
11393.4	-0.0521263
11400.7	-0.0523936
11415.3	-0.0529164
11422.6	-0.0531716
11437.2	-0.0536691
11444.5	-0.0539111
11451.8	-0.0541484
11466.4	-0.0546083
11473.7	-0.0548307
11481	-0.0550479
11495.6	-0.055466
11502.9	-0.0556667
11510.2	-0.0558616
11524.8	-0.0562336
11532.1	-0.0564104
11546.7	-0.0567451
11554	-0.0569027
11561.3	-0.0570537
11575.9	-0.0573351
11583.2	-0.0574654
11590.5	-0.0575886
11605.1	-0.0578131
11612.4	-0.0579142
11627	-0.0580937
11634.3	-0.0581718
11641.6	-0.0582421
11656.2	-0.0583585
11663.5	-0.0584046
11670.8	-0.0584424
11685.4	-0.0584929
11692.7	-0.0585054
11707.3	-0.0585047
11714.6	-0.0584913
11721.9	-0.0584691
11736.5	-0.058398
11743.8	-0.058349
11751.1	-0.058291
11765.7	-0.0581476
11773	-0.0580621
11780.3	-0.0579675
11794.9	-0.0577503
11802.2	-0.0576278
11816.8	-0.0573547
11824.1	-0.057204
11831.4	-0.057044
11846	-0.0566959
11853.3	-0.0565077
11860.6	-0.0563102
11875.2	-0.055887
11882.5	-0.0556614
11897.1	-0.0551824
11904.4	-0.054929
11911.7	-0.0546665
11926.3	-0.054114
11933.6	-0.0538242
11940.9	-0.0535254
11955.5	-0.0529013
11962.8	-0.0525761
11970.1	-0.0522422
11984.7	-0.0515487
11992	-0.0511893
12006.6	-0.0504457
12013.8	-0.0500617
12021.1	-0.0496697
12035.7	-0.0488622
12043	-0.0484469
12050.3	-0.0480241
12064.9	-0.0471564
12072.2	-0.0467118
12086.8	-0.0458017
12094.1	-0.0453364
12101.4	-0.0448645
12116	-0.0439015
12123.3	-0.0434106
12130.6	-0.0429136
12145.2	-0.0419021
12152.5	-0.0413878
12167.1	-0.0403428
12174.4	-0.0398124
12181.7	-0.0392769
12196.3	-0.0381912
12203.6	-0.0376412
12210.9	-0.0370866
12225.5	-0.0359642
12232.8	-0.0353967
12240.1	-0.034825
12254.7	-0.0336699
12262	-0.0330867
12276.6	-0.0319094
12283.9	-0.0313155
12291.2	-0.0307183
12305.8	-0.0295141
12313.1	-0.0289074
12320.4	-0.0282976
12335	-0.0270693
12342.3	-0.026451
12356.9	-0.0252061
12364.2	-0.0245797
12371.5	-0.0239508
12386.1	-0.0226855
12393.4	-0.0220492
12400.7	-0.0214105
12415.3	-0.0201262
12422.6	-0.0194806
12437.2	-0.0181828
12444.5	-0.0175306
12451.8	-0.0168763
12466.4	-0.0155614
12473.7	-0.0149007
12481	-0.0142381
12495.6	-0.0129066
12502.9	-0.0122379
12510.2	-0.0115672
12524.8	-0.01022
12532.1	-0.0095435
12546.7	-0.00818491
12554	-0.00750285
12561.3	-0.00681899
12575.9	-0.00544599
12583.2	-0.00475693
12590.5	-0.0040662
12605.1	-0.00267992
12612.4	-0.00198448
12627	-0.000589215
12634.3	0.000110481
12641.6	0.00081147
12656.1	0.00221705
12663.4	0.00292149
12670.7	0.00362692
12685.3	0.00504043
12692.6	0.00574831
12707.2	0.00716583
12714.5	0.00787526
12721.8	0.00858499
12736.4	0.0100048
12743.7	0.0107147
12751	0.0114244
12765.6	0.0128425
12772.9	0.0135507
12780.2	0.0142581
12794.8	0.01567
12802.1	0.0163741
12816.7	0.0177779
12824	0.0184772
12831.3	0.0191746
12845.9	0.0205629
12853.2	0.0212535
12860.5	0.0219413
12875.1	0.0233084
12882.4	0.0239871
12897	0.0253343
12904.3	0.0260022
12911.6	0.0266662
12926.2	0.0279815
12933.5	0.0286324
12940.8	0.0292786
12955.4	0.0305559
12962.7	0.0311868
12977.3	0.0324318
12984.6	0.0330456
12991.9	0.0336535
13006.5	0.0348504
13013.8	0.0354392
13021.1	0.0360213
13035.7	0.0371648
13043	0.037726
13050.3	0.0382799
13064.9	0.0393652
13072.2	0.0398965
13086.8	0.0409354
13094.1	0.0414429
13101.4	0.0419423
13116	0.0429163
13123.3	0.0433907
13130.6	0.0438566
13145.2	0.0447627
13152.5	0.0452027
13167.1	0.0460564
13174.4	0.04647
13181.7	0.0468748
13196.3	0.0476575
13203.6	0.0480354
13210.9	0.0484043
13225.5	0.0491154
13232.8	0.0494574
13240.1	0.0497905
13254.7	0.0504299
13262	0.0507363
13276.6	0.0513225
13283.9	0.0516025
13291.1	0.0518737
13305.7	0.0523902
13313	0.0526356
13320.3	0.0528725
13334.9	0.0533212
13342.2	0.053533
13356.8	0.0539324
13364.1	0.05412
13371.4	0.0542996
13386	0.0546355
13393.3	0.0547919
13400.6	0.0549407
13415.2	0.055216
13422.5	0.0553427
13437.1	0.0555746
13444.4	0.0556801
13451.7	0.0557786
13466.3	0.0559554
13473.6	0.0560339
13480.9	0.0561058
13495.5	0.0562306
13502.8	0.0562836
13510.1	0.0563304
13524.7	0.056406
13532	0.0564349
13546.6	0.0564755
13553.9	0.0564872
13561.2	0.0564934
13575.8	0.0564894
13583.1	0.0564792
13590.4	0.0564638
13605	0.0564173
13612.3	0.0563863
13626.9	0.0563091
13634.2	0.0562631
13641.5	0.056212
13656.1	0.0560953
13663.4	0.0560296
13670.7	0.0559592
13685.3	0.0558039
13692.6	0.0557192
13707.2	0.0555357
13714.5	0.0554369
13721.8	0.0553334
13736.4	0.0551124
13743.7	0.054995
13751	0.0548729
13765.6	0.0546148
13772.9	0.0544787
13780.2	0.054338
13794.8	0.0540426
13802.1	0.0538879
13816.7	0.0535643
13824	0.0533955
13831.3	0.0532219
13845.9	0.0528604
13853.2	0.0526725
13860.5	0.0524798
13875.1	0.0520799
13882.4	0.0518727
13897	0.0514436
13904.3	0.0512216
13911.6	0.0509947
13926.2	0.050526
13933.5	0.0502841
13940.7	0.0500372
13955.3	0.0495283
13962.6	0.0492661
13977.2	0.0487265
13984.5	0.048449
13991.8	0.0481663
14006.4	0.0475853
14013.7	0.047287
14021	0.0469833
14035.6	0.0463603
14042.9	0.0460408
14050.2	0.045716
14064.8	0.0450503
14072.1	0.0447094
14086.7	0.0440113
14094	0.0436542
14101.3	0.0432915
14115.9	0.0425498
14123.2	0.0421707
14130.5	0.0417861
14145.1	0.0410001
14152.4	0.0405988
14167	0.0397793
14174.3	0.0393611
14181.6	0.0389372
14196.2	0.0380724
14203.5	0.0376315
14210.8	0.0371848
14225.4	0.0362741
14232.7	0.0358101
14240	0.0353402
14254.6	0.034383
14261.9	0.0338956
14276.5	0.032903
14283.8	0.0323978
14291.1	0.0318866
14305.7	0.0308463
14313	0.0303172
14320.3	0.0297819
14334.9	0.0286932
14342.2	0.0281397
14356.8	0.0270143
14364.1	0.0264424
14371.4	0.0258643
14386	0.0246895
14393.3	0.0240928
14400.6	0.0234898
14415.2	0.0222652
14422.5	0.0216435
14437.1	0.0203813
14444.4	0.0197409
14451.7	0.0190941
14466.3	0.0177819
14473.6	0.0171165
14480.9	0.0164448
14495.5	0.0150829
14502.8	0.0143927
14510.1	0.0136964
14524.7	0.0122855
14532	0.0115711
14546.6	0.0101244
14553.9	0.00939223
14561.2	0.00865432
14575.8	0.0071615
14583.1	0.00640674
14590.3	0.00564654
14604.9	0.00411021
14612.2	0.00333429
14626.8	0.00176757
14634.1	0.000977024
14641.4	0.000181879
14656	-0.00142159
14663.3	-0.00222959
14670.6	-0.00304153
14685.2	-0.00467649
14692.5	-0.0054991
14707.1	-0.00715355
14714.4	-0.00798493
14721.7	-0.00881876
14736.3	-0.0104928
14743.6	-0.0113325
14750.9	-0.0121736
14765.5	-0.0138588
14772.8	-0.0147024
14780.1	-0.0155462
14794.7	-0.0172333
14802	-0.0180758
14816.6	-0.0197573
14823.9	-0.0205956
14831.2	-0.0214317
14845.8	-0.023096
14853.1	-0.0239234
14860.4	-0.0247472
14875	-0.0263822
14882.3	-0.0271926
14896.9	-0.0287974
14904.2	-0.0295908
14911.5	-0.0303778
14926.1	-0.0319307
14933.4	-0.0326958
14940.7	-0.0334526
14955.3	-0.0349403
14962.6	-0.0356701
14977.2	-0.0370999
14984.5	-0.037799
14991.8	-0.038487
15006.4	-0.0398279
15013.7	-0.0404801
15021	-0.0411196
15035.6	-0.0423586
15042.9	-0.0429575
15050.2	-0.043542
15064.8	-0.0446667
15072.1	-0.0452061
15086.7	-0.0462373
15094	-0.0467284
15101.3	-0.0472027
15115.9	-0.0480998
15123.2	-0.048522
15130.5	-0.0489262
15145.1	-0.0496796
15152.4	-0.0500283
15167	-0.0506685
15174.3	-0.0509597
15181.6	-0.0512312
15196.2	-0.0517147
15203.5	-0.0519264
15210.8	-0.0521179
15225.4	-0.0524397
15232.6	-0.0525698
15247.2	-0.0527682
15254.5	-0.0528364
15261.8	-0.0528839
15276.4	-0.0529168
15283.7	-0.0529022
15291	-0.052867
15305.6	-0.0527352
15312.9	-0.0526387
15320.2	-0.0525219
15334.8	-0.0522284
15342.1	-0.052052
15356.7	-0.0516406
15364	-0.0514062
15371.3	-0.0511529
15385.9	-0.0505908
15393.2	-0.0502825
15400.5	-0.0499566
15415.1	-0.049253
15422.4	-0.048876
15437	-0.0480737
15444.3	-0.0476491
15451.6	-0.0472094
15466.2	-0.0462867
15473.5	-0.0458045
15480.8	-0.0453091
15495.4	-0.0442806
15502.7	-0.0437484
15510	-0.0432051
15524.6	-0.0420868
15531.9	-0.0415129
15546.5	-0.0403386
15553.8	-0.0397393
15561.1	-0.0391325
15575.7	-0.0378993
15583	-0.0372739
15590.3	-0.0366435
15604.9	-0.0353699
15612.2	-0.034728
15626.8	-0.0334365
15634.1	-0.0327882
15641.4	-0.032139
15656	-0.0308402
15663.3	-0.0301917
15670.6	-0.0295446
15685.2	-0.0282568
15692.5	-0.0276172
15707.1	-0.0263492
15714.4	-0.025722
15721.7	-0.0250998
15736.3	-0.0238731
15743.6	-0.0232694
15750.9	-0.0226727
15765.5	-0.0215025
15772.8	-0.0209298
15780.1	-0.0203658
15794.7	-0.0192659
15802	-0.0187306
15816.6	-0.0176912
15823.9	-0.0171877
15831.2	-0.0166954
15845.8	-0.0157453
15853.1	-0.0152881
15860.4	-0.0148431
15874.9	-0.0139903
15882.2	-0.0135829
15896.8	-0.0128067
15904.1	-0.0124381
15911.4	-0.0120827
15926	-0.0114116
15933.3	-0.0110959
15940.6	-0.0107935
15955.2	-0.0102286
15962.5	-0.00996589
15977.1	-0.00947988
15984.4	-0.00925636
15991.7	-0.00904567
16006.3	-0.00866228
16013.6	-0.00848927
16020.9	-0.00832849
16035.5	-0.00804283
16042.8	-0.00791754
16050.1	-0.00780365
16064.7	-0.00760908
16072	-0.0075279
16086.6	-0.0073964
16093.9	-0.00734552
16101.2	-0.00730415
16115.8	-0.00724879
16123.1	-0.00723416
16130.4	-0.00722782
16145	-0.0072387
16152.3	-0.00725526
16166.9	-0.00730897
16174.2	-0.00734544
16181.5	-0.00738787
16196.1	-0.00748928
16203.4	-0.00754757
16210.7	-0.00761048
16225.3	-0.00774877
16232.6	-0.00782348
16247.2	-0.00798239
16254.5	-0.00806593
16261.8	-0.00815176
16276.4	-0.00832901
16283.7	-0.0084198
16291	-0.00851161
16305.6	-0.00869709
16312.9	-0.00879015
16320.2	-0.00888303
16334.8	-0.00906711
16342.1	-0.00915773
16356.7	-0.00933476
16364	-0.00942063
16371.3	-0.00950438
16385.9	-0.00966449
16393.2	-0.00974036
16400.5	-0.00981309
16415.1	-0.00994825
16422.4	-0.0100102
16437	-0.0101218
16444.3	-0.0101709
16451.6	-0.0102154
16466.2	-0.0102896
16473.5	-0.0103189
16480.8	-0.0103428
16495.4	-0.0103736
16502.6	-0.0103802
16517.2	-0.0103751
16524.5	-0.0103632
16531.8	-0.0103448
16546.4	-0.0102884
16553.7	-0.0102502
16561	-0.0102052
16575.6	-0.0100948
16582.9	-0.0100292
16590.2	-0.00995678
16604.8	-0.00979125
16612.1	-0.00969821
16626.7	-0.00949187
16634	-0.00937873
16641.3	-0.00925907
16655.9	-0.00900073
16663.2	-0.00886234
16670.5	-0.00871804
16685.1	-0.00841252
16692.4	-0.00825174
16707	-0.00791539
16714.3	-0.00774037
16721.6	-0.00756117
16736.2	-0.00719153
16743.5	-0.00700175
16750.8	-0.00680912
16765.4	-0.00641679
16772.7	-0.00621784
16780	-0.00601754
16794.6	-0.00561449
16801.9	-0.00541252
16816.5	-0.0050097
16823.8	-0.00480964
16831.1	-0.004611
16845.7	-0.00421951
16853	-0.00402741
16860.3	-0.00383822
16874.9	-0.00346994
16882.2	-0.00329149
16896.8	-0.0029475
16904.1	-0.00278251
16911.4	-0.00262251
16926	-0.00231841
16933.3	-0.0021747
16940.6	-0.00203677
16955.2	-0.00177879
16962.5	-0.00165896
16977.1	-0.00143799
16984.4	-0.00133695
16991.7	-0.00124221
17006.3	-0.00107162
17013.6	-0.000995695
17020.9	-0.000925936
17035.5	-0.000804587
17042.8	-0.000752792
17050.1	-0.000706759
17064.7	-0.00063143
17072	-0.000601836
17086.6	-0.000557983
17093.9	-0.00054338
17101.2	-0.000533422
17115.8	-0.00052671
17123.1	-0.000529584
17130.4	-0.000536362
17144.9	-0.000560879
17152.2	-0.000578246
17166.8	-0.000622277
17174.1	-0.000648579
17181.4	-0.000677501
17196	-0.000742509
17203.3	-0.000778251
17210.6	-0.000815928
17225.2	-0.000896419
17232.5	-0.000938904
17247.1	-0.00102754
17254.4	-0.00107335
17261.7	-0.00111995
17276.3	-0.00121483
17283.6	-0.00126277
17290.9	-0.00131081
17305.5	-0.00140647
17312.8	-0.00145373
17320.1	-0.00150036
17334.7	-0.00159093
17342	-0.00163446
17356.6	-0.00171699
17363.9	-0.00175556
17371.2	-0.00179203
17385.8	-0.00185778
17393.1	-0.00188661
17400.4	-0.00191243
17415	-0.00195413
17422.3	-0.00196954
17436.9	-0.00198836
17444.2	-0.00199133
17451.5	-0.00198971
17466.1	-0.00197188
17473.4	-0.0019553
17480.7	-0.00193334
17495.3	-0.00187269
17502.6	-0.00183368
17517.2	-0.00173766
17524.5	-0.00168044
17531.8	-0.00161695
17546.4	-0.00147095
17553.7	-0.00138836
17561	-0.00129935
17575.6	-0.00110212
17582.9	-0.000993956
17590.2	-0.000879504
17604.8	-0.00063206
17612.1	-0.000499272
17626.7	-0.000216205
17634	-6.62289e-05
17641.3	8.9149e-05
17655.9	0.000415345
17663.2	0.000585749
17670.5	0.000760726
17685.1	0.00112344
17692.4	0.00131068
17707	0.00169556
17714.3	0.00189266
17721.6	0.00209246
17736.2	0.00249901
17743.5	0.00270513
17750.8	0.00291271
17765.4	0.00333098
17772.6	0.00354097
17787.2	0.00396095
17794.5	0.0041702
17801.8	0.00437847
17816.4	0.00479052
17823.7	0.00499351
17831	0.00519394
17845.6	0.00558542
17852.9	0.00577561
17860.2	0.00596152
17874.8	0.00631864
17882.1	0.00648892
17896.7	0.00681051
17904	0.00696084
17911.3	0.00710353
17925.9	0.00736397
17933.2	0.00748069
17940.5	0.00758774
17955.1	0.00777075
17962.4	0.00784571
17977	0.00796006
17984.3	0.00799849
17991.6	0.00802379
18006.2	0.00803326
18013.5	0.0080166
18020.8	0.00798516
18035.4	0.00787652
18042.7	0.0077987
18050	0.00770485
18064.6	0.00746817
18071.9	0.00732501
18086.5	0.00698847
18093.8	0.006795
18101.1	0.00658475
18115.7	0.0061142
18123	0.00585419
18130.3	0.00557795
18144.9	0.00497785
18152.2	0.00465464
18166.8	0.00396392
18174.1	0.00359732
18181.4	0.00321726
18196	0.00241905
18203.3	0.00200215
18210.6	0.00157428
18225.2	0.000688446
18232.5	0.000231986
18247.1	-0.000704121
18254.4	-0.00118215
18261.7	-0.00166573
18276.3	-0.00264617
18283.6	-0.00314135
18290.9	-0.00363869
18305.5	-0.0046365
18312.8	-0.00513531
18320.1	-0.00563295
18334.7	-0.00662156
18342	-0.00711099
18356.6	-0.00807635
18363.9	-0.00855087
18371.2	-0.00901908
18385.8	-0.00993399
18393.1	-0.0103795
18400.4	-0.0108164
18414.9	-0.0116622
18422.2	-0.0120701
18436.8	-0.0128543
18444.1	-0.0132298
18451.4	-0.0135938
18466	-0.0142865
18473.3	-0.0146147
18480.6	-0.0149307
18495.2	-0.0155252
18502.5	-0.0158036
18517.1	-0.0163225
18524.4	-0.0165629
18531.7	-0.0167908
18546.3	-0.0172089
18553.6	-0.0173994
18560.9	-0.0175776
18575.5	-0.0178977
18582.8	-0.0180399
18590.1	-0.0181705
18604.7	-0.0183974
18612	-0.0184942
18626.6	-0.0186554
18633.9	-0.0187203
18641.2	-0.018775
18655.8	-0.0188549
18663.1	-0.0188806
18670.4	-0.0188971
18685	-0.0189035
18692.3	-0.018894
18706.9	-0.0188508
18714.2	-0.0188177
18721.5	-0.0187772
18736.1	-0.0186754
18743.4	-0.0186146
18750.7	-0.0185477
18765.3	-0.0183963
18772.6	-0.0183126
18787.2	-0.0181303
18794.5	-0.0180325
18801.8	-0.0179307
18816.4	-0.0177162
18823.7	-0.0176042
18831	-0.0174896
18845.6	-0.0172537
18852.9	-0.0171332
18860.2	-0.0170115
18874.8	-0.016766
18882.1	-0.0166429
18896.7	-0.0163983
18904	-0.0162775
18911.3	-0.0161582
18925.9	-0.0159259
18933.2	-0.0158138
18940.5	-0.0157047
18955.1	-0.0154978
18962.4	-0.0154006
18977	-0.0152208
18984.3	-0.015139
18991.6	-0.0150629
19006.2	-0.0149296
19013.5	-0.0148729
19020.8	-0.0148234
19035.4	-0.0147465
19042.6	-0.0147197
19057.2	-0.0146904
19064.5	-0.0146883
19071.8	-0.0146947
19086.4	-0.0147335
19093.7	-0.014766
19101	-0.0148073
19115.6	-0.0149163
19122.9	-0.0149839
19130.2	-0.0150601
19144.8	-0.0152378
19152.1	-0.0153389
19166.7	-0.0155649
19174	-0.0156891
19181.3	-0.0158205
19195.9	-0.0161034
19203.2	-0.0162541
19210.5	-0.0164106
19225.1	-0.0167388
19232.4	-0.0169098
19247	-0.0172628
19254.3	-0.0174438
19261.6	-0.0176273
19276.2	-0.0179991
19283.5	-0.0181863
19290.8	-0.0183737
19305.4	-0.0187468
19312.7	-0.0189313
19320	-0.0191137
19334.6	-0.01947
19341.9	-0.0196429
19356.5	-0.0199752
19363.8	-0.0201337
19371.1	-0.0202865
19385.7	-0.0205729
19393	-0.0207057
19400.3	-0.020831
19414.9	-0.0210577
19422.2	-0.0211584
19436.8	-0.0213332
19444.1	-0.0214068
19451.4	-0.0214709
19466	-0.0215701
19473.3	-0.0216049
19480.6	-0.0216298
19495.2	-0.0216498
19502.5	-0.0216449
19517.1	-0.0216056
19524.4	-0.0215714
19531.7	-0.0215277
19546.3	-0.0214126
19553.6	-0.0213416
19560.9	-0.021262
19575.5	-0.0210779
19582.8	-0.020974
19590.1	-0.0208627
19604.7	-0.020619
19612	-0.0204873
19626.6	-0.0202061
19633.9	-0.0200573
19641.2	-0.0199035
19655.8	-0.0195824
19663.1	-0.0194159
19670.4	-0.0192458
19684.9	-0.0188964
19692.2	-0.0187177
19706.8	-0.018354
19714.1	-0.0181697
19721.4	-0.0179839
19736	-0.0176095
19743.3	-0.0174212
19750.6	-0.0172326
19765.2	-0.0168549
19772.5	-0.0166662
19787.1	-0.0162899
19794.4	-0.0161026
19801.7	-0.015916
19816.3	-0.0155451
19823.6	-0.0153611
19830.9	-0.015178
19845.5	-0.0148152
19852.8	-0.0146355
19860.1	-0.014457
19874.7	-0.0141037
19882	-0.013929
19896.6	-0.0135837
19903.9	-0.0134131
19911.2	-0.0132439
19925.8	-0.0129101
19933.1	-0.0127455
19940.4	-0.0125827
19955	-0.0122623
19962.3	-0.012105
19976.9	-0.0117968
19984.2	-0.0116461
19991.5	-0.011498
