0	0
10.3422	0
20.6843	0
31.0265	0
41.3687	0
51.7109	0
62.053	0
72.3952	0
82.7374	0
93.0796	0
103.422	0
113.764	0
124.106	0
134.448	0
144.79	0
155.133	0
165.475	0
175.817	0
186.159	0
196.501	0
206.843	0
217.186	0
227.528	0
237.87	0
248.212	0
258.554	0
268.897	0
279.239	0
289.581	0
299.923	0
310.265	0
320.607	0
330.95	0
341.292	0
351.634	0
361.976	0
372.318	0
382.66	0
393.003	0
403.345	0
413.687	0
424.029	0
434.371	0
444.714	0
455.056	0
465.398	0
475.74	0
486.082	0
496.424	0
506.767	0
517.109	0
527.451	0
537.793	0
548.135	0
558.477	0
568.82	0
579.162	0
589.504	0
599.846	0
610.188	0
620.53	0
630.873	0
641.215	0
651.557	0
661.899	0
672.241	0
682.584	0
692.926	0
703.268	0
713.61	0
723.952	0
734.294	0
744.637	0
754.979	0
765.321	0
775.663	0
786.005	0
796.347	0
806.69	0
817.032	0
827.374	0
837.716	0
848.058	0
858.401	0
868.743	0
879.085	0
889.427	0
899.769	0
910.111	0
920.454	0
930.796	0
941.138	0
951.48	0
961.822	0
972.164	0
982.507	0
992.849	0
1003.19	0
1013.53	0
1023.88	0
1034.22	0
1044.56	0
1054.9	0
1065.24	0
1075.59	0
1085.93	0
1096.27	0
1106.61	0
1116.95	0
1127.3	0
1137.64	0
1147.98	0
1158.32	0
1168.67	0
1179.01	0
1189.35	0
1199.69	0
1210.03	0
1220.38	0
1230.72	0
1241.06	0
1251.4	0
1261.75	0
1272.09	0
1282.43	0
1292.77	0
1303.11	0
1313.46	0
1323.8	0
1334.14	0
1344.48	0
1354.82	0
1365.17	0
1375.51	0
1385.85	0
1396.19	0
1406.54	0
1416.88	0
1427.22	0
1437.56	0
1447.9	0
1458.25	0
1468.59	0
1478.93	0
1489.27	0
1499.62	0
1509.96	0
1520.3	0
1530.64	0
1540.98	0
1551.33	0
1561.67	0
1572.01	0
1582.35	0
1592.69	0
1603.04	0
1613.38	0
1623.72	0
1634.06	0
1644.41	0
1654.75	0
1665.09	0
1675.43	0
1685.77	0
1696.12	0
1706.46	0
1716.8	0
1727.14	0
1737.49	0
1747.83	0
1758.17	0
1768.51	0
1778.85	0
1789.2	0
1799.54	0
1809.88	0
1820.22	0
1830.56	0
1840.91	0
1851.25	0
1861.59	0
1871.93	0
1882.28	0
1892.62	0
1902.96	0
1913.3	0
1923.64	0
1933.99	0
1944.33	0
1954.67	0
1965.01	0
1975.36	0
1985.7	0
1996.04	0
2006.38	0
2016.72	0
2027.07	0
2037.41	0
2047.75	0
2058.09	0
2068.43	0
2078.78	0
2089.12	0
2099.46	0
2109.8	0
2120.15	0
2130.49	0
2140.83	0
2151.17	9.09495e-13
2161.51	9.09495e-13
2171.86	1.81899e-12
2182.2	2.72848e-12
2192.54	3.63798e-12
2202.88	5.45697e-12
2213.23	7.27596e-12
2223.57	1.00044e-11
2233.91	1.36424e-11
2244.25	1.90994e-11
2254.59	2.63753e-11
2264.94	3.63798e-11
2275.28	5.00222e-11
2285.62	6.91216e-11
2295.96	9.45874e-11
2306.3	1.28239e-10
2316.65	1.73713e-10
2326.99	2.3465e-10
2337.33	3.15595e-10
2347.67	4.22006e-10
2358.02	5.62068e-10
2368.36	7.44876e-10
2378.7	9.83164e-10
2389.04	1.29239e-09
2399.38	1.69257e-09
2409.73	2.20734e-09
2420.07	2.86764e-09
2430.41	3.70983e-09
2440.75	4.78212e-09
2451.1	6.14e-09
2461.44	7.85349e-09
2471.78	1.0009e-08
2482.12	1.27084e-08
2492.46	1.60771e-08
2502.81	2.02654e-08
2513.15	2.54558e-08
2523.49	3.18632e-08
2533.83	3.97476e-08
2544.17	4.94156e-08
2554.52	6.1229e-08
2564.86	7.56163e-08
2575.2	9.30795e-08
2585.54	1.14207e-07
2595.89	1.39687e-07
2606.23	1.70315e-07
2616.57	2.07016e-07
2626.91	2.5086e-07
2637.25	3.03072e-07
2647.6	3.65063e-07
2657.94	4.38444e-07
2668.28	5.25049e-07
2678.62	6.26965e-07
2688.97	7.46549e-07
2699.31	8.86465e-07
2709.65	1.04971e-06
2719.99	1.23965e-06
2730.33	1.46003e-06
2740.68	1.71504e-06
2751.02	2.00935e-06
2761.36	2.3481e-06
2771.7	2.73698e-06
2782.04	3.18228e-06
2792.39	3.69087e-06
2802.73	4.27031e-06
2813.07	4.92882e-06
2823.41	5.67538e-06
2833.76	6.51971e-06
2844.1	7.47235e-06
2854.44	8.54468e-06
2864.78	9.74896e-06
2875.12	1.10983e-05
2885.47	1.26069e-05
2895.81	1.42897e-05
2906.15	1.61628e-05
2916.49	1.82433e-05
2926.84	2.05492e-05
2937.18	2.30996e-05
2947.52	2.59147e-05
2957.86	2.90159e-05
2968.2	3.24253e-05
2978.55	3.61665e-05
2988.89	4.0264e-05
2999.23	4.47433e-05
3009.57	4.96311e-05
3019.91	5.49553e-05
3030.26	6.07448e-05
3040.6	6.70297e-05
3050.94	7.38411e-05
3061.28	8.12115e-05
3071.62	8.91744e-05
3081.97	9.77647e-05
3092.31	0.000107019
3102.65	0.000116974
3112.99	0.00012767
3123.34	0.000139147
3133.68	0.000151448
3144.02	0.000164617
3154.36	0.000178703
3164.7	0.000193755
3175.05	0.000209825
3185.39	0.000226971
3195.73	0.000245251
3206.07	0.000264733
3216.41	0.000285485
3226.76	0.000307585
3237.1	0.000331115
3247.44	0.000356169
3257.78	0.000382847
3268.12	0.000411262
3278.47	0.000441538
3288.81	0.000473814
3299.15	0.000508245
3309.49	0.000545005
3319.83	0.000584288
3330.18	0.000626312
3340.52	0.000671321
3350.86	0.00071959
3361.2	0.000771428
3371.54	0.000827178
3381.89	0.000887229
3392.23	0.000952015
3402.57	0.00102202
3412.91	0.00109779
3423.25	0.00117992
3433.6	0.00126909
3443.94	0.00136604
3454.28	0.00147162
3464.62	0.00158673
3474.96	0.00171239
3485.31	0.00184972
3495.65	0.00199997
3505.99	0.00216448
3516.33	0.00234474
3526.67	0.00254237
3537.01	0.00275915
3547.36	0.00299701
3557.7	0.00325805
3568.04	0.00354452
3578.38	0.00385889
3588.72	0.00420381
3599.07	0.00458211
3609.41	0.00499685
3619.75	0.00545129
3630.09	0.00594893
3640.43	0.00649346
3650.77	0.00708884
3661.12	0.00773922
3671.46	0.00844902
3681.8	0.00922287
3692.14	0.0100656
3702.48	0.0109824
3712.83	0.0119786
3723.17	0.0130596
3733.51	0.0142312
3743.85	0.0154993
3754.19	0.0168702
3764.53	0.01835
3774.88	0.0199451
3785.22	0.0216622
3795.56	0.0235079
3805.9	0.0254888
3816.24	0.0276118
3826.58	0.0298836
3836.93	0.032311
3847.27	0.0349006
3857.61	0.037659
3867.95	0.0405926
3878.29	0.0437077
3888.64	0.0470103
3898.98	0.0505061
3909.32	0.0542004
3919.66	0.0580984
3930	0.0622044
3940.34	0.0665226
3950.69	0.0710565
3961.03	0.0758091
3971.37	0.0807825
3981.71	0.0859785
3992.05	0.0913978
4002.39	0.0970405
4012.74	0.102906
4023.08	0.108992
4033.42	0.115296
4043.76	0.121815
4054.1	0.128544
4064.44	0.135478
4074.79	0.142609
4085.13	0.149931
4095.47	0.157433
4105.81	0.165107
4116.15	0.172942
4126.5	0.180924
4136.84	0.189041
4147.18	0.197279
4157.52	0.205623
4167.86	0.214055
4178.2	0.222559
4188.55	0.231116
4198.89	0.239707
4209.23	0.248312
4219.57	0.25691
4229.91	0.26548
4240.26	0.273999
4250.6	0.282444
4260.94	0.290792
4271.28	0.29902
4281.62	0.307103
4291.96	0.315016
4302.31	0.322736
4312.65	0.330238
4322.99	0.337498
4333.33	0.344491
4343.67	0.351193
4354.02	0.357581
4364.36	0.363632
4374.7	0.369322
4385.04	0.37463
4395.38	0.379536
4405.73	0.384018
4416.07	0.388057
4426.41	0.391635
4436.75	0.394736
4447.09	0.397343
4457.44	0.399441
4467.78	0.401018
4478.12	0.402061
4488.46	0.402561
4498.81	0.402508
4509.15	0.401896
4519.49	0.400718
4529.83	0.398971
4540.17	0.396653
4550.52	0.393762
4560.86	0.3903
4571.2	0.38627
4581.54	0.381676
4591.88	0.376525
4602.23	0.370823
4612.57	0.36458
4622.91	0.357808
4633.25	0.350518
4643.6	0.342724
4653.94	0.334442
4664.28	0.325688
4674.62	0.316481
4684.96	0.306839
4695.31	0.296783
4705.65	0.286334
4715.99	0.275514
4726.33	0.264347
4736.67	0.252857
4747.02	0.241068
4757.36	0.229005
4767.7	0.216696
4778.04	0.204165
4788.39	0.19144
4798.73	0.178548
4809.07	0.165515
4819.41	0.152368
4829.75	0.139136
4840.1	0.125844
4850.44	0.112519
4860.78	0.0991878
4871.12	0.0858765
4881.46	0.0726105
4891.81	0.0594149
4902.15	0.046314
4912.49	0.0333316
4922.83	0.0204906
4933.18	0.00781329
4943.52	-0.00467902
4953.86	-0.0169659
4964.2	-0.0290279
4974.54	-0.0408465
4984.89	-0.0524042
4995.23	-0.0636847
5005.57	-0.0746726
5015.91	-0.0853538
5026.25	-0.0957152
5036.6	-0.105745
5046.94	-0.115432
5057.28	-0.124767
5067.62	-0.133741
5077.97	-0.142347
5088.31	-0.150579
5098.65	-0.158432
5108.99	-0.165902
5119.33	-0.172985
5129.68	-0.17968
5140.02	-0.185987
5150.36	-0.191905
5160.7	-0.197436
5171.04	-0.202581
5181.39	-0.207344
5191.73	-0.211729
5202.07	-0.215741
5212.41	-0.219384
5222.76	-0.222665
5233.1	-0.225592
5243.44	-0.228171
5253.78	-0.230412
5264.12	-0.232321
5274.47	-0.23391
5284.81	-0.235188
5295.15	-0.236164
5305.49	-0.236849
5315.83	-0.237255
5326.18	-0.237392
5336.52	-0.237271
5346.86	-0.236905
5357.2	-0.236304
5367.55	-0.235481
5377.89	-0.234447
5388.23	-0.233215
5398.57	-0.231795
5408.91	-0.230201
5419.26	-0.228444
5429.6	-0.226535
5439.94	-0.224486
5450.28	-0.222308
5460.62	-0.220012
5470.97	-0.21761
5481.31	-0.215111
5491.65	-0.212527
5501.99	-0.209867
5512.34	-0.20714
5522.68	-0.204358
5533.02	-0.201527
5543.36	-0.198658
5553.7	-0.195759
5564.05	-0.192837
5574.39	-0.1899
5584.73	-0.186955
5595.07	-0.18401
5605.41	-0.18107
5615.76	-0.178141
5626.1	-0.17523
5636.44	-0.172341
5646.78	-0.169479
5657.13	-0.166648
5667.47	-0.163853
5677.81	-0.161097
5688.15	-0.158383
5698.49	-0.155715
5708.84	-0.153094
5719.18	-0.150524
5729.52	-0.148005
5739.86	-0.145539
5750.2	-0.143128
5760.55	-0.140772
5770.89	-0.138472
5781.23	-0.136228
5791.57	-0.13404
5801.92	-0.131909
5812.26	-0.129833
5822.6	-0.127811
5832.94	-0.125844
5843.28	-0.12393
5853.63	-0.122068
5863.97	-0.120255
5874.31	-0.118492
5884.65	-0.116776
5894.99	-0.115104
5905.34	-0.113477
5915.68	-0.11189
5926.02	-0.110343
5936.36	-0.108832
5946.71	-0.107357
5957.05	-0.105914
5967.39	-0.104502
5977.73	-0.103118
5988.07	-0.10176
5998.42	-0.100425
6008.76	-0.0991119
6019.1	-0.0978178
6029.44	-0.0965407
6039.79	-0.0952784
6050.13	-0.0940289
6060.47	-0.0927902
6070.81	-0.0915604
6081.15	-0.0903376
6091.5	-0.08912
6101.84	-0.0879061
6112.18	-0.0866941
6122.52	-0.0854827
6132.86	-0.0842704
6143.21	-0.083056
6153.55	-0.0818384
6163.89	-0.0806164
6174.23	-0.0793892
6184.58	-0.078156
6194.92	-0.0769159
6205.26	-0.0756686
6215.6	-0.0744134
6225.94	-0.0731501
6236.29	-0.0718783
6246.63	-0.070598
6256.97	-0.0693091
6267.31	-0.0680117
6277.65	-0.0667061
6288	-0.0653924
6298.34	-0.0640711
6308.68	-0.0627426
6319.02	-0.0614075
6329.37	-0.0600665
6339.71	-0.0587203
6350.05	-0.0573697
6360.39	-0.0560156
6370.73	-0.0546588
6381.08	-0.0533005
6391.42	-0.0519416
6401.76	-0.0505833
6412.1	-0.0492266
6422.45	-0.0478729
6432.79	-0.0465232
6443.13	-0.0451788
6453.47	-0.0438411
6463.81	-0.0425111
6474.16	-0.0411903
6484.5	-0.0398799
6494.84	-0.0385811
6505.18	-0.0372953
6515.52	-0.0360237
6525.87	-0.0347675
6536.21	-0.0335279
6546.55	-0.0323062
6556.89	-0.0311034
6567.24	-0.0299207
6577.58	-0.0287591
6587.92	-0.0276197
6598.26	-0.0265034
6608.6	-0.0254112
6618.95	-0.0243438
6629.29	-0.0233022
6639.63	-0.022287
6649.97	-0.0212988
6660.32	-0.0203384
6670.66	-0.0194061
6681	-0.0185025
6691.34	-0.0176279
6701.68	-0.0167827
6712.03	-0.015967
6722.37	-0.015181
6732.71	-0.0144248
6743.05	-0.0136983
6753.4	-0.0130014
6763.74	-0.012334
6774.08	-0.0116958
6784.42	-0.0110865
6794.76	-0.0105057
6805.11	-0.00995288
6815.45	-0.0094275
6825.79	-0.00892892
6836.13	-0.00845645
6846.47	-0.00800931
6856.82	-0.00758668
6867.16	-0.00718764
6877.5	-0.00681125
6887.84	-0.00645648
6898.19	-0.00612227
6908.53	-0.00580748
6918.87	-0.00551095
6929.21	-0.00523145
6939.55	-0.00496773
6949.9	-0.0047185
6960.24	-0.00448241
6970.58	-0.00425812
6980.92	-0.00404423
6991.27	-0.00383935
7001.61	-0.00364203
7011.95	-0.00345086
7022.29	-0.00326437
7032.63	-0.00308112
7042.98	-0.00289965
7053.32	-0.00271852
7063.66	-0.00253627
7074	-0.00235148
7084.35	-0.00216273
7094.69	-0.00196863
7105.03	-0.00176779
7115.37	-0.00155888
7125.71	-0.00134058
7136.06	-0.0011116
7146.4	-0.00087071
7156.74	-0.0006167
7167.08	-0.000348415
7177.42	-6.47463e-05
7187.77	0.000235365
7198.11	0.000552923
7208.45	0.000888878
7218.79	0.00124412
7229.14	0.00161947
7239.48	0.00201571
7249.82	0.00243352
7260.16	0.00287355
7270.5	0.00333636
7280.85	0.00382245
7291.19	0.00433223
7301.53	0.00486607
7311.87	0.00542423
7322.22	0.00600694
7332.56	0.00661432
7342.9	0.00724643
7353.24	0.00790325
7363.58	0.00858471
7373.93	0.00929063
7384.27	0.0100208
7394.61	0.0107749
7404.95	0.0115525
7415.29	0.0123532
7425.64	0.0131766
7435.98	0.0140219
7446.32	0.0148887
7456.66	0.015776
7467.01	0.0166833
7477.35	0.0176097
7487.69	0.0185542
7498.03	0.0195159
7508.37	0.0204939
7518.72	0.0214872
7529.06	0.0224945
7539.4	0.0235149
7549.74	0.024547
7560.08	0.0255898
7570.43	0.026642
7580.77	0.0277023
7591.11	0.0287693
7601.45	0.0298419
7611.79	0.0309185
7622.14	0.0319979
7632.48	0.0330787
7642.82	0.0341594
7653.16	0.0352387
7663.51	0.0363152
7673.85	0.0373874
7684.19	0.0384539
7694.53	0.0395133
7704.87	0.0405642
7715.22	0.0416052
7725.56	0.0426349
7735.9	0.043652
7746.24	0.0446551
7756.58	0.0456428
7766.93	0.0466138
7777.27	0.047567
7787.61	0.0485009
7797.95	0.0494144
7808.3	0.0503063
7818.64	0.0511754
7828.98	0.0520206
7839.32	0.0528408
7849.66	0.0536349
7860.01	0.054402
7870.35	0.055141
7880.69	0.0558511
7891.03	0.0565313
7901.37	0.0571808
7911.72	0.0577989
7922.06	0.0583847
7932.4	0.0589376
7942.74	0.059457
7953.08	0.0599421
7963.43	0.0603925
7973.77	0.0608077
7984.11	0.0611872
7994.45	0.0615306
8004.8	0.0618374
8015.14	0.0621075
8025.48	0.0623406
8035.82	0.0625364
8046.16	0.0626947
8056.51	0.0628154
8066.85	0.0628984
8077.19	0.0629438
8087.53	0.0629514
8097.87	0.0629213
8108.22	0.0628537
8118.56	0.0627486
8128.9	0.0626062
8139.24	0.0624267
8149.58	0.0622103
8159.93	0.0619574
8170.27	0.0616681
8180.61	0.0613429
8190.95	0.0609821
8201.3	0.0605862
8211.64	0.0601554
8221.98	0.0596904
8232.32	0.0591916
8242.66	0.0586594
8253.01	0.0580944
8263.35	0.0574973
8273.69	0.0568684
8284.03	0.0562085
8294.37	0.0555182
8304.72	0.054798
8315.06	0.0540487
8325.4	0.0532708
8335.74	0.0524651
8346.08	0.0516322
8356.43	0.0507729
8366.77	0.0498878
8377.11	0.0489778
8387.45	0.0480434
8397.8	0.0470854
8408.14	0.0461047
8418.48	0.0451019
8428.82	0.0440777
8439.16	0.0430331
8449.51	0.0419687
8459.85	0.0408852
8470.19	0.0397836
8480.53	0.0386645
8490.87	0.0375287
8501.22	0.0363771
8511.56	0.0352103
8521.9	0.0340292
8532.24	0.0328346
8542.58	0.0316272
8552.93	0.0304079
8563.27	0.0291774
8573.61	0.0279364
8583.95	0.0266858
8594.3	0.0254264
8604.64	0.0241589
8614.98	0.0228841
8625.32	0.0216028
8635.66	0.0203157
8646.01	0.0190236
8656.35	0.0177273
8666.69	0.0164275
8677.03	0.015125
8687.37	0.0138205
8697.72	0.0125148
8708.06	0.0112087
8718.4	0.00990275
8728.74	0.00859782
8739.09	0.00729461
8749.43	0.00599385
8759.77	0.00469624
8770.11	0.00340251
8780.45	0.00211335
8790.8	0.000829453
8801.14	-0.000448479
8811.48	-0.00171977
8821.82	-0.00298374
8832.16	-0.00423972
8842.51	-0.00548706
8852.85	-0.00672511
8863.19	-0.00795323
8873.53	-0.00917078
8883.88	-0.0103772
8894.22	-0.0115717
8904.56	-0.0127539
8914.9	-0.0139231
8925.24	-0.0150788
8935.59	-0.0162204
8945.93	-0.0173473
8956.27	-0.018459
8966.61	-0.019555
8976.95	-0.0206348
8987.3	-0.0216978
8997.64	-0.0227437
9007.98	-0.0237719
9018.32	-0.0247821
9028.67	-0.0257737
9039.01	-0.0267464
9049.35	-0.0276998
9059.69	-0.0286336
9070.03	-0.0295472
9080.38	-0.0304405
9090.72	-0.0313132
9101.06	-0.0321648
9111.4	-0.0329952
9121.74	-0.033804
9132.09	-0.0345911
9142.43	-0.0353563
9152.77	-0.0360993
9163.11	-0.03682
9173.46	-0.0375182
9183.8	-0.0381938
9194.14	-0.0388467
9204.48	-0.0394768
9214.82	-0.040084
9225.17	-0.0406684
9235.51	-0.0412298
9245.85	-0.0417684
9256.19	-0.042284
9266.53	-0.0427768
9276.88	-0.0432468
9287.22	-0.0436942
9297.56	-0.0441189
9307.9	-0.0445212
9318.25	-0.0449012
9328.59	-0.0452591
9338.93	-0.045595
9349.27	-0.0459091
9359.61	-0.0462017
9369.96	-0.0464731
9380.3	-0.0467234
9390.64	-0.046953
9400.98	-0.0471621
9411.32	-0.047351
9421.67	-0.0475202
9432.01	-0.0476698
9442.35	-0.0478002
9452.69	-0.0479119
9463.04	-0.0480051
9473.38	-0.0480803
9483.72	-0.0481379
9494.06	-0.0481782
9504.4	-0.0482016
9514.75	-0.0482087
9525.09	-0.0481998
9535.43	-0.0481753
9545.77	-0.0481357
9556.11	-0.0480814
9566.46	-0.0480129
9576.8	-0.0479307
9587.14	-0.0478351
9597.48	-0.0477266
9607.83	-0.0476058
9618.17	-0.0474729
9628.51	-0.0473286
9638.85	-0.0471733
9649.19	-0.0470073
9659.54	-0.0468312
9669.88	-0.0466454
9680.22	-0.0464503
9690.56	-0.0462465
9700.9	-0.0460342
9711.25	-0.045814
9721.59	-0.0455862
9731.93	-0.0453514
9742.27	-0.0451098
9752.62	-0.0448619
9762.96	-0.044608
9773.3	-0.0443486
9783.64	-0.0440841
9793.98	-0.0438147
9804.33	-0.0435409
9814.67	-0.0432629
9825.01	-0.0429812
9835.35	-0.042696
9845.7	-0.0424077
9856.04	-0.0421166
9866.38	-0.0418229
9876.72	-0.0415269
9887.06	-0.0412289
9897.41	-0.0409292
9907.75	-0.040628
9918.09	-0.0403256
9928.43	-0.0400221
9938.77	-0.0397178
9949.12	-0.0394129
9959.46	-0.0391076
9969.8	-0.038802
9980.14	-0.0384964
9990.49	-0.0381909
10000.8	-0.0378856
10011.2	-0.0375807
10021.5	-0.0372763
10031.9	-0.0369725
10042.2	-0.0366694
10052.5	-0.0363672
10062.9	-0.036066
10073.2	-0.0357657
10083.6	-0.0354666
10093.9	-0.0351686
10104.2	-0.0348718
10114.6	-0.0345763
10124.9	-0.0342821
10135.3	-0.0339892
10145.6	-0.0336977
10156	-0.0334076
10166.3	-0.0331189
10176.6	-0.0328316
10187	-0.0325458
10197.3	-0.0322613
10207.7	-0.0319783
10218	-0.0316967
10228.4	-0.0314165
10238.7	-0.0311376
10249	-0.0308601
10259.4	-0.0305839
10269.7	-0.0303089
10280.1	-0.0300352
10290.4	-0.0297627
10300.8	-0.0294913
10311.1	-0.0292211
10321.4	-0.0289519
10331.8	-0.0286837
10342.1	-0.0284164
10352.5	-0.0281501
10362.8	-0.0278846
10373.1	-0.0276199
10383.5	-0.0273559
10393.8	-0.0270925
10404.2	-0.0268297
10414.5	-0.0265675
10424.9	-0.0263057
10435.2	-0.0260443
10445.5	-0.0257832
10455.9	-0.0255223
10466.2	-0.0252616
10476.6	-0.025001
10486.9	-0.0247404
10497.3	-0.0244798
10507.6	-0.024219
10517.9	-0.023958
10528.3	-0.0236967
10538.6	-0.0234351
10549	-0.0231731
10559.3	-0.0229105
10569.6	-0.0226473
10580	-0.0223835
10590.3	-0.0221189
10600.7	-0.0218535
10611	-0.0215871
10621.4	-0.0213198
10631.7	-0.0210514
10642	-0.0207819
10652.4	-0.0205111
10662.7	-0.020239
10673.1	-0.0199656
10683.4	-0.0196906
10693.8	-0.0194141
10704.1	-0.019136
10714.4	-0.0188562
10724.8	-0.0185746
10735.1	-0.0182912
10745.5	-0.0180058
10755.8	-0.0177184
10766.1	-0.0174289
10776.5	-0.0171372
10786.8	-0.0168434
10797.2	-0.0165472
10807.5	-0.0162486
10817.9	-0.0159476
10828.2	-0.0156441
10838.5	-0.015338
10848.9	-0.0150293
10859.2	-0.0147179
10869.6	-0.0144037
10879.9	-0.0140866
10890.3	-0.0137668
10900.6	-0.0134439
10910.9	-0.0131181
10921.3	-0.0127893
10931.6	-0.0124574
10942	-0.0121224
10952.3	-0.0117842
10962.6	-0.0114428
10973	-0.0110982
10983.3	-0.0107504
10993.7	-0.0103993
11004	-0.0100449
11014.4	-0.00968716
11024.7	-0.00932611
11035	-0.00896174
11045.4	-0.00859403
11055.7	-0.00822299
11066.1	-0.00784862
11076.4	-0.00747093
11086.8	-0.00708993
11097.1	-0.00670565
11107.4	-0.00631812
11117.8	-0.00592735
11128.1	-0.0055334
11138.5	-0.00513629
11148.8	-0.00473608
11159.2	-0.00433281
11169.5	-0.00392655
11179.8	-0.00351735
11190.2	-0.00310529
11200.5	-0.00269043
11210.9	-0.00227286
11221.2	-0.00185265
11231.5	-0.00142991
11241.9	-0.00100471
11252.2	-0.00057717
11262.6	-0.000147386
11272.9	0.00028453
11283.3	0.000718464
11293.6	0.00115429
11303.9	0.0015919
11314.3	0.00203114
11324.6	0.00247189
11335	0.00291401
11345.3	0.00335736
11355.7	0.00380178
11366	0.00424713
11376.3	0.00469326
11386.7	0.00514
11397	0.00558719
11407.4	0.00603467
11417.7	0.00648226
11428	0.00692981
11438.4	0.00737713
11448.7	0.00782405
11459.1	0.0082704
11469.4	0.00871598
11479.8	0.00916063
11490.1	0.00960416
11500.4	0.0100464
11510.8	0.0104871
11521.1	0.0109262
11531.5	0.0113634
11541.8	0.0117986
11552.2	0.0122315
11562.5	0.012662
11572.8	0.01309
11583.2	0.0135151
11593.5	0.0139373
11603.9	0.0143564
11614.2	0.0147722
11624.5	0.0151844
11634.9	0.015593
11645.2	0.0159978
11655.6	0.0163986
11665.9	0.0167952
11676.3	0.0171874
11686.6	0.0175752
11696.9	0.0179583
11707.3	0.0183366
11717.6	0.01871
11728	0.0190783
11738.3	0.0194414
11748.7	0.019799
11759	0.0201512
11769.3	0.0204978
11779.7	0.0208386
11790	0.0211735
11800.4	0.0215024
11810.7	0.0218252
11821	0.0221419
11831.4	0.0224522
11841.7	0.0227561
11852.1	0.0230535
11862.4	0.0233444
11872.8	0.0236286
11883.1	0.023906
11893.4	0.0241767
11903.8	0.0244404
11914.1	0.0246972
11924.5	0.0249471
11934.8	0.0251898
11945.2	0.0254255
11955.5	0.0256539
11965.8	0.0258752
11976.2	0.0260893
11986.5	0.0262961
11996.9	0.0264955
12007.2	0.0266877
12017.6	0.0268724
12027.9	0.0270498
12038.2	0.0272198
12048.6	0.0273823
12058.9	0.0275375
12069.3	0.0276851
12079.6	0.0278254
12089.9	0.0279581
12100.3	0.0280834
12110.6	0.0282012
12121	0.0283115
12131.3	0.0284144
12141.7	0.0285097
12152	0.0285976
12162.3	0.028678
12172.7	0.0287509
12183	0.0288164
12193.4	0.0288743
12203.7	0.0289249
12214.1	0.0289679
12224.4	0.0290035
12234.7	0.0290316
12245.1	0.0290523
12255.4	0.0290655
12265.8	0.0290713
12276.1	0.0290696
12286.4	0.0290605
12296.8	0.0290439
12307.1	0.0290199
12317.5	0.0289884
12327.8	0.0289495
12338.2	0.0289031
12348.5	0.0288493
12358.8	0.028788
12369.2	0.0287192
12379.5	0.028643
12389.9	0.0285593
12400.2	0.0284681
12410.6	0.0283694
12420.9	0.0282633
12431.2	0.0281496
12441.6	0.0280284
12451.9	0.0278997
12462.3	0.0277635
12472.6	0.0276198
12482.9	0.0274685
12493.3	0.0273096
12503.6	0.0271432
12514	0.0269692
12524.3	0.0267877
12534.7	0.0265985
12545	0.0264018
12555.3	0.0261975
12565.7	0.0259857
12576	0.0257662
12586.4	0.0255392
12596.7	0.0253046
12607.1	0.0250624
12617.4	0.0248127
12627.7	0.0245554
12638.1	0.0242906
12648.4	0.0240183
12658.8	0.0237385
12669.1	0.0234513
12679.4	0.0231566
12689.8	0.0228545
12700.1	0.022545
12710.5	0.0222282
12720.8	0.0219041
12731.2	0.0215727
12741.5	0.0212342
12751.8	0.0208885
12762.2	0.0205358
12772.5	0.0201761
12782.9	0.0198094
12793.2	0.0194359
12803.6	0.0190556
12813.9	0.0186687
12824.2	0.0182751
12834.6	0.0178751
12844.9	0.0174686
12855.3	0.0170559
12865.6	0.016637
12876	0.016212
12886.3	0.0157812
12896.6	0.0153445
12907	0.0149022
12917.3	0.0144543
12927.7	0.0140011
12938	0.0135427
12948.3	0.0130792
12958.7	0.0126108
12969	0.0121377
12979.4	0.01166
12989.7	0.0111779
13000.1	0.0106917
13010.4	0.0102014
13020.7	0.00970726
13031.1	0.00920952
13041.4	0.00870835
13051.8	0.00820395
13062.1	0.00769652
13072.5	0.00718629
13082.8	0.00667345
13093.1	0.00615824
13103.5	0.00564086
13113.8	0.00512153
13124.2	0.00460049
13134.5	0.00407796
13144.8	0.00355417
13155.2	0.00302935
13165.5	0.00250373
13175.9	0.00197754
13186.2	0.00145102
13196.6	0.000924396
13206.9	0.000397914
13217.2	-0.000128196
13227.6	-0.000653697
13237.9	-0.00117835
13248.3	-0.00170193
13258.6	-0.0022242
13269	-0.00274492
13279.3	-0.00326387
13289.6	-0.00378081
13300	-0.00429551
13310.3	-0.00480775
13320.7	-0.00531731
13331	-0.00582396
13341.3	-0.00632748
13351.7	-0.00682767
13362	-0.00732429
13372.4	-0.00781716
13382.7	-0.00830605
13393.1	-0.00879077
13403.4	-0.00927112
13413.7	-0.00974691
13424.1	-0.0102179
13434.4	-0.010684
13444.8	-0.011145
13455.1	-0.0116007
13465.5	-0.0120509
13475.8	-0.0124954
13486.1	-0.0129342
13496.5	-0.013367
13506.8	-0.0137937
13517.2	-0.0142141
13527.5	-0.0146282
13537.8	-0.0150357
13548.2	-0.0154366
13558.5	-0.0158307
13568.9	-0.0162179
13579.2	-0.0165981
13589.6	-0.0169712
13599.9	-0.0173371
13610.2	-0.0176956
13620.6	-0.0180468
13630.9	-0.0183905
13641.3	-0.0187266
13651.6	-0.0190551
13662	-0.0193759
13672.3	-0.0196889
13682.6	-0.0199942
13693	-0.0202915
13703.3	-0.020581
13713.7	-0.0208626
13724	-0.0211361
13734.4	-0.0214017
13744.7	-0.0216593
13755	-0.0219088
13765.4	-0.0221502
13775.7	-0.0223837
13786.1	-0.022609
13796.4	-0.0228263
13806.7	-0.0230356
13817.1	-0.0232368
13827.4	-0.02343
13837.8	-0.0236152
13848.1	-0.0237925
13858.5	-0.0239617
13868.8	-0.0241231
13879.1	-0.0242766
13889.5	-0.0244223
13899.8	-0.0245602
13910.2	-0.0246903
13920.5	-0.0248127
13930.9	-0.0249275
13941.2	-0.0250346
13951.5	-0.0251343
13961.9	-0.0252265
13972.2	-0.0253112
13982.6	-0.0253886
13992.9	-0.0254588
14003.2	-0.0255217
14013.6	-0.0255775
14023.9	-0.0256262
14034.3	-0.0256679
14044.6	-0.0257027
14055	-0.0257307
14065.3	-0.0257519
14075.6	-0.0257665
14086	-0.0257744
14096.3	-0.0257758
14106.7	-0.0257707
14117	-0.0257593
14127.4	-0.0257417
14137.7	-0.0257178
14148	-0.0256878
14158.4	-0.0256518
14168.7	-0.0256099
14179.1	-0.0255621
14189.4	-0.0255085
14199.7	-0.0254493
14210.1	-0.0253844
14220.4	-0.025314
14230.8	-0.0252382
14241.1	-0.0251571
14251.5	-0.0250706
14261.8	-0.024979
14272.1	-0.0248822
14282.5	-0.0247805
14292.8	-0.0246737
14303.2	-0.0245621
14313.5	-0.0244458
14323.9	-0.0243247
14334.2	-0.024199
14344.5	-0.0240687
14354.9	-0.0239339
14365.2	-0.0237948
14375.6	-0.0236513
14385.9	-0.0235036
14396.2	-0.0233517
14406.6	-0.0231956
14416.9	-0.0230356
14427.3	-0.0228716
14437.6	-0.0227037
14448	-0.022532
14458.3	-0.0223566
14468.6	-0.0221775
14479	-0.0219948
14489.3	-0.0218086
14499.7	-0.0216189
14510	-0.0214258
14520.4	-0.0212294
14530.7	-0.0210297
14541	-0.0208269
14551.4	-0.0206209
14561.7	-0.020412
14572.1	-0.0202
14582.4	-0.0199851
14592.8	-0.0197674
14603.1	-0.0195469
14613.4	-0.0193238
14623.8	-0.019098
14634.1	-0.0188696
14644.5	-0.0186388
14654.8	-0.0184056
14665.1	-0.01817
14675.5	-0.0179321
14685.8	-0.0176921
14696.2	-0.0174499
14706.5	-0.0172057
14716.9	-0.0169596
14727.2	-0.0167115
14737.5	-0.0164616
14747.9	-0.01621
14758.2	-0.0159568
14768.6	-0.0157019
14778.9	-0.0154456
14789.3	-0.0151878
14799.6	-0.0149287
14809.9	-0.0146684
14820.3	-0.0144069
14830.6	-0.0141443
14841	-0.0138807
14851.3	-0.0136162
14861.6	-0.0133509
14872	-0.0130849
14882.3	-0.0128182
14892.7	-0.012551
14903	-0.0122834
14913.4	-0.0120153
14923.7	-0.011747
14934	-0.0114786
14944.4	-0.01121
14954.7	-0.0109415
14965.1	-0.0106731
14975.4	-0.0104049
14985.8	-0.0101371
14996.1	-0.00986961
15006.4	-0.00960266
15016.8	-0.00933633
15027.1	-0.0090707
15037.5	-0.00880589
15047.8	-0.00854199
15058.1	-0.0082791
15068.5	-0.00801733
15078.8	-0.00775677
15089.2	-0.00749753
15099.5	-0.00723971
15109.9	-0.00698341
15120.2	-0.00672872
15130.5	-0.00647576
15140.9	-0.00622462
15151.2	-0.00597539
15161.6	-0.00572818
15171.9	-0.00548309
15182.3	-0.00524021
15192.6	-0.00499964
15202.9	-0.00476148
15213.3	-0.00452582
15223.6	-0.00429275
15234	-0.00406236
15244.3	-0.00383476
15254.6	-0.00361002
15265	-0.00338824
15275.3	-0.0031695
15285.7	-0.00295389
15296	-0.0027415
15306.4	-0.00253241
15316.7	-0.00232669
15327	-0.00212443
15337.4	-0.00192571
15347.7	-0.00173059
15358.1	-0.00153917
15368.4	-0.0013515
15378.8	-0.00116765
15389.1	-0.000987704
15399.4	-0.000811717
15409.8	-0.000639755
15420.1	-0.00047188
15430.5	-0.000308152
15440.8	-0.000148627
15451.2	6.63778e-06
15461.5	0.00015759
15471.8	0.00030418
15482.2	0.000446357
15492.5	0.000584075
15502.9	0.000717292
15513.2	0.000845963
15523.5	0.000970051
15533.9	0.00108952
15544.2	0.00120433
15554.6	0.00131444
15564.9	0.00141984
15575.3	0.00152049
15585.6	0.00161637
15595.9	0.00170744
15606.3	0.00179369
15616.6	0.0018751
15627	0.00195166
15637.3	0.00202333
15647.7	0.00209012
15658	0.00215201
15668.3	0.00220899
15678.7	0.00226105
15689	0.00230818
15699.4	0.00235039
15709.7	0.00238767
15720	0.00242002
15730.4	0.00244745
15740.7	0.00246994
15751.1	0.00248752
15761.4	0.00250019
15771.8	0.00250795
15782.1	0.00251082
15792.4	0.00250881
15802.8	0.00250193
15813.1	0.0024902
15823.5	0.00247363
15833.8	0.00245224
15844.2	0.00242606
15854.5	0.00239509
15864.8	0.00235937
15875.2	0.00231892
15885.5	0.00227376
15895.9	0.00222392
15906.2	0.00216943
15916.5	0.00211032
15926.9	0.00204662
15937.2	0.00197836
15947.6	0.00190558
15957.9	0.0018283
15968.3	0.00174657
15978.6	0.00166042
15988.9	0.0015699
15999.3	0.00147504
16009.6	0.00137589
16020	0.00127248
16030.3	0.00116487
16040.7	0.0010531
16051	0.000937213
16061.3	0.000817263
16071.7	0.0006933
16082	0.000565376
16092.4	0.000433545
16102.7	0.000297861
16113	0.000158382
16123.4	1.51657e-05
16133.7	-0.000131727
16144.1	-0.000282236
16154.4	-0.000436296
16164.8	-0.000593842
16175.1	-0.000754807
16185.4	-0.000919123
16195.8	-0.00108672
16206.1	-0.00125752
16216.5	-0.00143146
16226.8	-0.00160845
16237.2	-0.00178842
16247.5	-0.00197128
16257.8	-0.00215696
16268.2	-0.00234538
16278.5	-0.00253643
16288.9	-0.00273004
16299.2	-0.00292612
16309.6	-0.00312456
16319.9	-0.00332529
16330.2	-0.00352819
16340.6	-0.00373318
16350.9	-0.00394014
16361.3	-0.00414898
16371.6	-0.00435958
16381.9	-0.00457185
16392.3	-0.00478567
16402.6	-0.00500093
16413	-0.00521751
16423.3	-0.0054353
16433.7	-0.00565418
16444	-0.00587403
16454.3	-0.00609472
16464.7	-0.00631614
16475	-0.00653814
16485.4	-0.00676062
16495.7	-0.00698343
16506.1	-0.00720644
16516.4	-0.00742952
16526.7	-0.00765253
16537.1	-0.00787534
16547.4	-0.00809781
16557.8	-0.00831979
16568.1	-0.00854114
16578.4	-0.00876173
16588.8	-0.00898141
16599.1	-0.00920003
16609.5	-0.00941744
16619.8	-0.0096335
16630.2	-0.00984806
16640.5	-0.010061
16650.8	-0.0102721
16661.2	-0.0104813
16671.5	-0.0106883
16681.9	-0.0108932
16692.2	-0.0110956
16702.6	-0.0112955
16712.9	-0.0114927
16723.2	-0.011687
16733.6	-0.0118783
16743.9	-0.0120665
16754.3	-0.0122514
16764.6	-0.0124329
16774.9	-0.0126108
16785.3	-0.0127849
16795.6	-0.0129552
16806	-0.0131215
16816.3	-0.0132836
16826.7	-0.0134415
16837	-0.0135949
16847.3	-0.0137437
16857.7	-0.0138879
16868	-0.0140273
16878.4	-0.0141617
16888.7	-0.014291
16899.1	-0.0144152
16909.4	-0.0145341
16919.7	-0.0146476
16930.1	-0.0147555
16940.4	-0.0148578
16950.8	-0.0149544
16961.1	-0.0150452
16971.4	-0.01513
16981.8	-0.0152089
16992.1	-0.0152816
17002.5	-0.0153482
17012.8	-0.0154085
17023.2	-0.0154625
17033.5	-0.0155101
17043.8	-0.0155512
17054.2	-0.0155858
17064.5	-0.0156139
17074.9	-0.0156354
17085.2	-0.0156502
17095.6	-0.0156583
17105.9	-0.0156598
17116.2	-0.0156545
17126.6	-0.0156424
17136.9	-0.0156235
17147.3	-0.0155979
17157.6	-0.0155655
17168	-0.0155264
17178.3	-0.0154805
17188.6	-0.0154278
17199	-0.0153684
17209.3	-0.0153023
17219.7	-0.0152295
17230	-0.0151502
17240.3	-0.0150642
17250.7	-0.0149717
17261	-0.0148728
17271.4	-0.0147675
17281.7	-0.0146558
17292.1	-0.0145379
17302.4	-0.0144138
17312.7	-0.0142836
17323.1	-0.0141475
17333.4	-0.0140054
17343.8	-0.0138576
17354.1	-0.0137041
17364.5	-0.013545
17374.8	-0.0133805
17385.1	-0.0132107
17395.5	-0.0130356
17405.8	-0.0128556
17416.2	-0.0126706
17426.5	-0.0124809
17436.8	-0.0122865
17447.2	-0.0120877
17457.5	-0.0118846
17467.9	-0.0116774
17478.2	-0.0114662
17488.6	-0.0112512
17498.9	-0.0110326
17509.2	-0.0108106
17519.6	-0.0105852
17529.9	-0.0103569
17540.3	-0.0101256
17550.6	-0.00989163
17561	-0.00965516
17571.3	-0.0094164
17581.6	-0.00917552
17592	-0.00893275
17602.3	-0.00868828
17612.7	-0.00844231
17623	-0.00819505
17633.3	-0.00794671
17643.7	-0.0076975
17654	-0.00744763
17664.4	-0.00719731
17674.7	-0.00694676
17685.1	-0.00669617
17695.4	-0.00644578
17705.7	-0.00619578
17716.1	-0.00594639
17726.4	-0.00569782
17736.8	-0.00545029
17747.1	-0.005204
17757.5	-0.00495916
17767.8	-0.00471599
17778.1	-0.00447468
17788.5	-0.00423544
17798.8	-0.00399849
17809.2	-0.003764
17819.5	-0.0035322
17829.9	-0.00330327
17840.2	-0.0030774
17850.5	-0.0028548
17860.9	-0.00263564
17871.2	-0.00242012
17881.6	-0.00220841
17891.9	-0.0020007
17902.2	-0.00179716
17912.6	-0.00159796
17922.9	-0.00140327
17933.3	-0.00121325
17943.6	-0.00102807
17954	-0.000847877
17964.3	-0.000672821
17974.6	-0.000503049
17985	-0.000338703
17995.3	-0.000179919
18005.7	-2.68281e-05
18016	0.000120444
18026.4	0.000261776
18036.7	0.000397053
18047	0.000526164
18057.4	0.000649007
18067.7	0.000765481
18078.1	0.000875495
18088.4	0.000978962
18098.7	0.0010758
18109.1	0.00116593
18119.4	0.0012493
18129.8	0.00132582
18140.1	0.00139546
18150.5	0.00145815
18160.8	0.00151386
18171.1	0.00156254
18181.5	0.00160418
18191.8	0.00163873
18202.2	0.00166618
18212.5	0.00168653
18222.9	0.00169976
18233.2	0.00170588
18243.5	0.00170489
18253.9	0.00169681
18264.2	0.00168166
18274.6	0.00165947
18284.9	0.00163026
18295.2	0.00159409
18305.6	0.00155099
18315.9	0.00150102
18326.3	0.00144423
18336.6	0.0013807
18347	0.00131049
18357.3	0.00123368
18367.6	0.00115035
18378	0.0010606
18388.3	0.00096451
18398.7	0.000862191
18409	0.000753746
18419.4	0.000639287
18429.7	0.000518933
18440	0.000392806
18450.4	0.000261034
18460.7	0.000123751
18471.1	-1.89044e-05
18481.4	-0.00016679
18491.7	-0.000319757
18502.1	-0.000477653
18512.4	-0.00064032
18522.8	-0.000807598
18533.1	-0.00097932
18543.5	-0.00115532
18553.8	-0.00133542
18564.1	-0.00151944
18574.5	-0.0017072
18584.8	-0.00189852
18595.2	-0.00209322
18605.5	-0.00229109
18615.9	-0.00249195
18626.2	-0.00269561
18636.5	-0.00290185
18646.9	-0.00311048
18657.2	-0.00332131
18667.6	-0.00353411
18677.9	-0.0037487
18688.3	-0.00396485
18698.6	-0.00418236
18708.9	-0.00440101
18719.3	-0.00462061
18729.6	-0.00484092
18740	-0.00506175
18750.3	-0.00528287
18760.6	-0.00550408
18771	-0.00572516
18781.3	-0.00594589
18791.7	-0.00616606
18802	-0.00638547
18812.4	-0.0066039
18822.7	-0.00682114
18833	-0.00703698
18843.4	-0.00725121
18853.7	-0.00746363
18864.1	-0.00767403
18874.4	-0.00788222
18884.8	-0.00808798
18895.1	-0.00829113
18905.4	-0.00849147
18915.8	-0.00868881
18926.1	-0.00888296
18936.5	-0.00907373
18946.8	-0.00926094
18957.1	-0.00944441
18967.5	-0.00962396
18977.8	-0.00979943
18988.2	-0.00997065
18998.5	-0.0101375
19008.9	-0.0102997
19019.2	-0.0104572
19029.5	-0.0106098
19039.9	-0.0107574
19050.2	-0.0108998
19060.6	-0.0110369
19070.9	-0.0111686
19081.3	-0.0112947
19091.6	-0.0114151
19101.9	-0.0115298
19112.3	-0.0116385
19122.6	-0.0117413
19133	-0.0118379
19143.3	-0.0119283
19153.6	-0.0120125
19164	-0.0120903
19174.3	-0.0121616
19184.7	-0.0122264
19195	-0.0122847
19205.4	-0.0123363
19215.7	-0.0123813
19226	-0.0124195
19236.4	-0.012451
19246.7	-0.0124757
19257.1	-0.0124935
19267.4	-0.0125046
19277.8	-0.0125087
19288.1	-0.0125061
19298.4	-0.0124965
19308.8	-0.0124801
19319.1	-0.0124568
19329.5	-0.0124268
19339.8	-0.0123899
19350.1	-0.0123462
19360.5	-0.0122958
19370.8	-0.0122387
19381.2	-0.012175
19391.5	-0.0121046
19401.9	-0.0120277
19412.2	-0.0119443
19422.5	-0.0118545
19432.9	-0.0117584
19443.2	-0.011656
19453.6	-0.0115474
19463.9	-0.0114327
19474.3	-0.011312
19484.6	-0.0111855
19494.9	-0.0110531
19505.3	-0.010915
19515.6	-0.0107714
19526	-0.0106223
19536.3	-0.0104679
19546.7	-0.0103083
19557	-0.0101435
19567.3	-0.00997385
19577.7	-0.00979934
19588	-0.00962014
19598.4	-0.0094364
19608.7	-0.00924825
19619	-0.00905586
19629.4	-0.00885935
19639.7	-0.00865889
19650.1	-0.00845463
19660.4	-0.00824672
19670.8	-0.00803533
19681.1	-0.0078206
19691.4	-0.00760271
19701.8	-0.00738181
19712.1	-0.00715807
19722.5	-0.00693165
19732.8	-0.00670272
19743.2	-0.00647144
19753.5	-0.00623798
19763.8	-0.0060025
19774.2	-0.00576518
19784.5	-0.00552617
19794.9	-0.00528565
19805.2	-0.00504378
19815.5	-0.00480073
19825.9	-0.00455666
19836.2	-0.00431174
19846.6	-0.00406612
19856.9	-0.00381998
19867.3	-0.00357346
19877.6	-0.00332674
19887.9	-0.00307996
19898.3	-0.00283329
19908.6	-0.00258687
19919	-0.00234086
19929.3	-0.00209541
19939.7	-0.00185066
19950	-0.00160676
19960.3	-0.00136386
19970.7	-0.00112208
19981	-0.000881576
19991.4	-0.000642471
