0	0
10.1663	0
20.3326	0
30.4988	0
40.665	0
50.8311	0
60.9972	0
71.1631	0
81.329	0
91.4947	0
101.66	0
111.826	0
121.992	0
130.124	0
140.29	0
150.455	0
160.621	0
170.787	0
180.953	0
191.119	0
201.285	0
211.443	0
221.5	0
231.475	0
241.439	0
251.403	0
261.367	0
271.331	0
281.294	0
291.258	0
301.222	0
311.186	0
321.149	0
331.113	0
341.077	0
351.04	0
361.004	0
370.967	0
380.931	0
390.894	0
400.858	0
410.821	0
420.785	0
430.748	0
440.711	0
450.671	0
460.494	0
470.309	0
480.118	0
491.857	0
501.554	0
511.177	0
520.79	0
530.402	0
540.014	0
551.549	0
561.157	0
570.719	0
580.244	0
591.645	0
601.147	0
610.645	0
620.131	0
631.505	0
640.971	0
650.434	0
661.791	0
671.254	0
680.718	0
690.181	0
701.537	0
711.001	0
720.464	0
731.82	0
741.284	0
750.747	0
760.21	0
771.565	0
781.009	0
790.447	0
801.772	0
811.209	0
820.646	0
830.084	0
841.408	0
850.846	0
860.283	0
871.608	0
881.045	0
890.482	0
901.807	0
911.244	0
920.681	0
930.119	0
941.443	0
950.88	0
960.318	0
971.642	0
981.079	0
990.517	0
1001.84	0
1011.28	0
1020.72	0
1030.15	0
1041.48	0
1050.91	0
1060.35	0
1071.68	0
1081.11	0
1090.55	0
1101.88	0
1111.31	0
1120.75	0
1130.19	0
1141.51	0
1150.95	0
1160.39	0
1171.71	0
1181.15	0
1190.58	0
1200.02	0
1211.35	0
1220.78	0
1230.22	0
1241.54	0
1250.97	0
1260.41	0
1271.73	0
1281.16	0
1290.59	0
1300.03	0
1311.35	0
1320.78	0
1330.22	0
1341.54	0
1350.97	0
1360.39	-2.72848e-12
1371.68	-7.27596e-12
1381.07	-1.18234e-11
1390.46	-1.63709e-11
1401.73	-2.18279e-11
1411.12	-2.91038e-11
1420.5	-3.81988e-11
1431.76	-5.18412e-11
1441.13	-6.73026e-11
1450.49	-8.91305e-11
1461.72	-1.24601e-10
1471.08	-1.64619e-10
1480.43	-2.19188e-10
1491.66	-3.065e-10
1501.01	-4.06544e-10
1510.36	-5.35692e-10
1521.58	-7.43057e-10
1530.94	-9.7225e-10
1540.29	-1.26875e-09
1551.49	-1.73804e-09
1560.79	-2.25009e-09
1570.1	-2.90129e-09
1581.27	-3.92083e-09
1590.58	-5.02314e-09
1601.75	-6.7339e-09
1610.93	-8.53925e-09
1620.19	-1.08248e-08
1631.36	-1.43418e-08
1640.67	-1.80717e-08
1651.84	-2.37551e-08
1661.08	-2.96895e-08
1670.28	-3.69655e-08
1681.32	-4.79095e-08
1690.51	-5.92872e-08
1701.55	-7.62875e-08
1710.75	-9.38435e-08
1721.79	-1.19904e-07
1730.98	-1.46645e-07
1740.18	-1.78888e-07
1751.22	-2.26305e-07
1760.42	-2.74526e-07
1771.45	-3.45006e-07
1780.65	-4.1625e-07
1791.69	-5.19756e-07
1800.89	-6.23775e-07
1810.08	-7.46843e-07
1821.12	-9.2413e-07
1830.32	-1.10083e-06
1841.36	-1.35393e-06
1850.56	-1.6048e-06
1861.59	-1.96218e-06
1870.79	-2.3145e-06
1881.83	-2.81371e-06
1891.03	-3.30326e-06
1900.22	-3.86981e-06
1911.26	-4.66647e-06
1920.46	-5.44193e-06
1931.49	-6.52684e-06
1940.69	-7.57764e-06
1951.73	-9.04048e-06
1960.93	-1.04505e-05
1970.13	-1.20569e-05
1981.16	-1.42777e-05
1990.36	-1.64035e-05
2001.4	-1.93284e-05
2010.6	-2.21155e-05
2021.63	-2.59327e-05
2030.83	-2.95536e-05
2040.03	-3.36199e-05
2051.06	-3.91532e-05
2060.26	-4.43686e-05
2071.3	-5.14346e-05
2080.5	-5.80662e-05
2091.53	-6.70129e-05
2100.73	-7.53744e-05
2111.77	-8.6608e-05
2120.97	-9.70638e-05
2130.16	-0.000108607
2141.2	-0.000124023
2150.4	-0.000138289
2161.44	-0.000157266
2170.63	-0.000174758
2181.67	-0.000197937
2190.87	-0.00021922
2200.07	-0.00024243
2211.1	-0.000273015
2220.3	-0.000300947
2231.34	-0.000337617
2240.53	-0.000370982
2251.57	-0.000414627
2260.77	-0.000454194
2271.81	-0.000505766
2281	-0.000552354
2290.2	-0.000602416
2301.24	-0.00066733
2310.44	-0.000725675
2321.47	-0.000801066
2330.67	-0.000868595
2341.71	-0.000955556
2350.9	-0.00103318
2360.1	-0.0011157
2371.14	-0.00122145
2380.34	-0.00131538
2391.37	-0.00143535
2400.57	-0.00154157
2411.61	-0.00167677
2420.8	-0.00179609
2430	-0.0019216
2441.04	-0.00208061
2450.24	-0.00222026
2461.27	-0.00239659
2470.47	-0.00255094
2481.51	-0.00274521
2490.7	-0.0029147
2501.74	-0.00312731
2510.94	-0.00331221
2520.13	-0.00350413
2531.17	-0.00374372
2540.37	-0.00395106
2551.41	-0.00420902
2560.6	-0.0044315
2571.64	-0.00470735
2580.84	-0.00494444
2590.03	-0.00518792
2601.07	-0.00548825
2610.27	-0.00574506
2621.3	-0.00606066
2630.5	-0.00632952
2641.54	-0.0066587
2650.74	-0.00693803
2661.77	-0.00727868
2670.97	-0.00756657
2680.17	-0.00785764
2691.2	-0.00821039
2700.4	-0.00850663
2711.44	-0.00886401
2720.63	-0.0091627
2731.67	-0.00952122
2740.87	-0.0098193
2750.07	-0.010116
2761.1	-0.0104692
2770.3	-0.0107604
2781.29	-0.0111034
2790.44	-0.0113837
2801.41	-0.0117127
2810.56	-0.0119798
2821.53	-0.0122906
2830.68	-0.0125406
2841.65	-0.0128282
2850.8	-0.0130566
2861.78	-0.0133159
2870.92	-0.0135186
2880.07	-0.0137081
2891.04	-0.0139168
2900.19	-0.0140742
2911.16	-0.0142418
2920.31	-0.0143627
2931.28	-0.0144841
2940.43	-0.0145644
2951.4	-0.0146345
2960.55	-0.0146702
2971.52	-0.0146844
2980.67	-0.0146717
2991.64	-0.0146258
3000.79	-0.0145612
3011.76	-0.0144511
3020.91	-0.0143315
3030.05	-0.0141861
3041.03	-0.0139767
3050.17	-0.0137726
3061.15	-0.0134917
3070.29	-0.013227
3081.27	-0.0128724
3090.41	-0.0125457
3101.39	-0.0121162
3110.53	-0.0117271
3121.51	-0.0112226
3130.65	-0.0107708
3141.63	-0.0101903
3150.77	-0.0096741
3161.75	-0.00901722
3170.89	-0.00844083
3180.04	-0.0078407
3191.01	-0.00708774
3200.16	-0.00642982
3211.13	-0.00560344
3220.28	-0.00487834
3231.25	-0.00394266
3240.4	-0.00308511
3251.37	-0.0022024
3260.52	-0.00211832
3271.49	-0.00145286
3280.64	-0.000534326
3291.61	0.000884462
3300.76	0.00295492
3311.73	0.00655354
3320.88	0.00977843
3330.02	0.0115958
3341	0.0202569
3350.14	0.0339071
3361.12	0.0511071
3370.26	0.0672224
3381.24	0.0890595
3390.38	0.107452
3401.35	0.130485
3410.5	0.150897
3421.47	0.176631
3430.62	0.198571
3441.59	0.22437
3450.74	0.24558
3461.71	0.271425
3470.86	0.293294
3480	0.315195
3490.98	0.34111
3500.12	0.362406
3511.1	0.387746
3520.24	0.408541
3531.22	0.432761
3540.36	0.452171
3551.34	0.47457
3560.48	0.492548
3571.46	0.513274
3580.6	0.529801
3591.57	0.54874
3600.72	0.563757
3611.69	0.580734
3620.84	0.593879
3631.81	0.608364
3640.96	0.619359
3650.1	0.629359
3661.08	0.639964
3670.22	0.64755
3681.2	0.655083
3690.34	0.660018
3701.32	0.664249
3710.46	0.666249
3721.43	0.666653
3730.58	0.665229
3741.55	0.661323
3750.7	0.656179
3761.67	0.647648
3770.82	0.638509
3781.79	0.625041
3790.94	0.611692
3800.08	0.596373
3811.06	0.575346
3820.2	0.555606
3831.18	0.529274
3840.32	0.505158
3851.3	0.473647
3860.44	0.445266
3871.42	0.408677
3880.56	0.376063
3891.53	0.334317
3900.68	0.297256
3911.65	0.249864
3920.8	0.207728
3931.77	0.153608
3940.92	0.105099
3950.06	0.0532471
3961.04	-0.0137771
3970.18	-0.0409422
3981.16	-0.0546752
3990.3	-0.0763116
4001.28	-0.0902725
4010.42	-0.0984158
4021.4	-0.106142
4030.54	-0.112157
4041.52	-0.112652
4050.66	-0.125652
4061.64	-0.130495
4070.78	-0.13435
4081.76	-0.138681
4090.9	-0.142241
4100.05	-0.146011
4111.02	-0.150093
4120.17	-0.153315
4131.14	-0.156873
4140.29	-0.159541
4151.26	-0.16239
4160.41	-0.164501
4171.38	-0.166763
4180.54	-0.168461
4191.61	-0.170318
4200.83	-0.171729
4210.05	-0.173034
4221.11	-0.174474
4230.33	-0.175572
4241.39	-0.176764
4250.61	-0.177643
4261.67	-0.178546
4270.89	-0.179158
4280.11	-0.179629
4291.18	-0.179997
4300.4	-0.18013
4311.48	-0.180076
4320.71	-0.179854
4331.78	-0.179377
4341.02	-0.178812
4350.25	-0.178101
4361.32	-0.177067
4370.56	-0.176063
4381.63	-0.174698
4390.87	-0.173437
4400.1	-0.172067
4411.18	-0.170287
4420.41	-0.168693
4431.48	-0.166652
4440.71	-0.164846
4451.8	-0.162554
4461.04	-0.160542
4470.28	-0.15844
4481.4	-0.155793
4490.69	-0.153492
4501.85	-0.150624
4511.15	-0.148152
4520.45	-0.145613
4531.64	-0.14248
4540.99	-0.1398
4550.36	-0.137069
4561.6	-0.133738
4570.97	-0.130925
4580.34	-0.128084
4591.58	-0.124647
4600.95	-0.121765
4610.32	-0.118872
4621.56	-0.115393
4630.93	-0.112491
4640.3	-0.109592
4651.54	-0.106122
4660.91	-0.103243
4670.28	-0.100378
4681.52	-0.0969656
4690.89	-0.094147
4700.26	-0.0913551
4711.5	-0.088045
4720.87	-0.085324
4730.24	-0.0826405
4741.48	-0.0794738
4750.85	-0.0768827
4760.22	-0.0743378
4771.46	-0.0713477
4780.83	-0.0689115
4790.2	-0.0665275
4801.44	-0.0637376
4810.81	-0.0614733
4820.17	-0.059265
4831.42	-0.0566905
4840.79	-0.0546086
4850.15	-0.0525853
4861.4	-0.0502352
4870.77	-0.0483423
4880.13	-0.0465094
4891.38	-0.0443894
4900.75	-0.0426892
4910.11	-0.0410497
4921.36	-0.0391626
4930.73	-0.0376568
4940.09	-0.0362117
4951.34	-0.0345575
4960.71	-0.0332456
4970.07	-0.0319937
4981.32	-0.0305705
4990.69	-0.0294499
5000.05	-0.0283883
5011.3	-0.0271918
5020.67	-0.0262586
5030.04	-0.025383
5041.28	-0.0244075
5050.65	-0.0236567
5060.02	-0.0229617
5071.26	-0.0222005
5080.63	-0.0216262
5090.01	-0.0211048
5101.3	-0.0205483
5110.71	-0.0201424
5120.15	-0.0197878
5131.47	-0.01943
5140.91	-0.0191877
5150.34	-0.0189951
5161.67	-0.0188286
5171.11	-0.0187427
5180.54	-0.0187039
5191.87	-0.0187182
5201.31	-0.0187798
5210.74	-0.0188856
5220.18	-0.0190347
5231.5	-0.0192692
5240.94	-0.0195098
5250.38	-0.0197905
5261.7	-0.0201787
5271.14	-0.0205437
5280.58	-0.0209453
5290.02	-0.0213823
5301.34	-0.0219519
5310.78	-0.0224627
5320.21	-0.023005
5331.54	-0.0236957
5340.98	-0.024303
5350.41	-0.0249376
5361.74	-0.0257333
5371.17	-0.0264232
5380.61	-0.0271359
5390.05	-0.0278701
5401.37	-0.0287773
5410.81	-0.0295535
5420.25	-0.0303464
5431.57	-0.0313178
5441.01	-0.0321423
5450.45	-0.0329789
5461.77	-0.0339966
5471.21	-0.0348547
5480.65	-0.0357202
5490.08	-0.036592
5501.41	-0.0376444
5510.84	-0.0385251
5520.28	-0.0394079
5531.61	-0.0404683
5541.04	-0.0413514
5550.48	-0.0422325
5561.8	-0.0432862
5571.23	-0.0441599
5580.67	-0.0450286
5590.1	-0.0458914
5601.42	-0.0469174
5610.85	-0.0477638
5620.29	-0.0486013
5631.61	-0.0495934
5641.04	-0.0504085
5650.48	-0.0512121
5661.8	-0.0521603
5671.23	-0.052936
5680.66	-0.0536971
5690.07	-0.0544428
5701.34	-0.055316
5710.74	-0.0560259
5720.13	-0.0567195
5731.39	-0.0575282
5740.78	-0.0581822
5750.16	-0.0588176
5761.41	-0.0595541
5770.78	-0.0601451
5780.13	-0.0607154
5791.36	-0.0613719
5800.72	-0.061895
5810.08	-0.0623955
5821.3	-0.0629657
5830.65	-0.0634148
5840.01	-0.0638398
5851.23	-0.064317
5860.58	-0.0646867
5871.81	-0.0650961
5881.13	-0.065407
5890.44	-0.0656905
5901.61	-0.0659945
5910.92	-0.066217
5920.22	-0.0664111
5931.39	-0.0666056
5940.7	-0.0667354
5950.01	-0.0668351
5961.18	-0.0669147
5970.49	-0.0669471
5981.66	-0.0669447
5990.93	-0.0669082
6000.14	-0.0668405
6011.17	-0.0667177
6020.37	-0.0665803
6031.41	-0.0663732
6040.61	-0.0661651
6051.64	-0.0658725
6060.84	-0.0655927
6070.04	-0.0652801
6081.08	-0.0648617
6090.28	-0.0644767
6101.31	-0.0639711
6110.51	-0.0635135
6121.55	-0.0629207
6130.75	-0.0623904
6141.78	-0.0617104
6150.98	-0.0611075
6160.18	-0.0604715
6171.22	-0.0596649
6180.41	-0.0589565
6191.45	-0.0580629
6200.65	-0.0572819
6211.69	-0.0563012
6220.88	-0.0554475
6230.08	-0.0545605
6241.12	-0.0534521
6250.32	-0.0524914
6261.35	-0.0512939
6270.55	-0.0502584
6281.59	-0.0489702
6290.79	-0.0478583
6301.82	-0.0464773
6311.02	-0.0452871
6320.22	-0.0440606
6331.26	-0.0425404
6340.45	-0.0412327
6351.49	-0.0396138
6360.69	-0.0382232
6371.73	-0.0365041
6380.92	-0.0350296
6390.12	-0.0335171
6401.16	-0.0316525
6410.36	-0.0300581
6421.39	-0.0280976
6430.59	-0.026426
6441.63	-0.0243762
6450.83	-0.0226332
6460.02	-0.0208628
6471.06	-0.0187082
6480.26	-0.016889
6491.3	-0.0146816
6500.49	-0.0128286
6511.53	-0.0106545
6520.73	-0.00884847
6531.77	-0.00664474
6540.96	-0.00477948
6550.16	-0.00286511
6561.2	-0.000837357
6570.4	1.1342e-05
6581.43	0.00178918
6590.63	0.00348018
6601.67	0.00569077
6610.87	0.0101746
6620.06	0.0137472
6631.1	0.0157154
6640.3	0.0195115
6651.34	0.0262046
6660.53	0.0320023
6671.57	0.0383236
6680.77	0.0433619
6691.81	0.0475006
6701	0.0502512
6710.2	0.0528668
6721.24	0.0553942
6730.44	0.0570446
6741.47	0.0584641
6750.67	0.0591359
6761.71	0.0596453
6770.91	0.0600188
6780.1	0.0603926
6791.14	0.0608241
6800.34	0.0610582
6811.38	0.0610078
6820.57	0.0606488
6831.61	0.0598609
6840.81	0.0588461
6850.01	0.05734
6861.04	0.054609
6870.24	0.0514315
6881.28	0.0466426
6890.48	0.0421388
6901.51	0.0366795
6910.71	0.0325362
6921.75	0.0284355
6930.95	0.0258336
6940.14	0.0239377
6951.18	0.022486
6960.38	0.0218199
6971.42	0.0214172
6980.61	0.0212092
6991.65	0.0209341
7000.85	0.020639
7010.05	0.0203147
7021.08	0.0199637
7030.28	0.0197455
7041.32	0.0195818
7050.52	0.0195172
7061.55	0.0195159
7070.75	0.0195775
7081.79	0.0197225
7090.99	0.0198833
7100.19	0.0200446
7111.22	0.0201809
7120.42	0.0202118
7131.46	0.0201452
7140.66	0.0200319
7151.69	0.0198846
7160.89	0.0197959
7170.09	0.0197641
7181.13	0.0198134
7190.32	0.0199236
7201.31	0.0201168
7210.45	0.0203005
7221.43	0.0205016
7230.57	0.020617
7241.55	0.0206635
7250.69	0.0206244
7261.67	0.0205092
7270.81	0.0203891
7281.79	0.0202592
7290.93	0.0201889
7300.08	0.0201655
7311.05	0.0201974
7320.2	0.0202577
7331.17	0.0203374
7340.32	0.0203829
7351.29	0.0203844
7360.44	0.0203264
7371.41	0.0201843
7380.56	0.0200226
7391.53	0.0198149
7400.68	0.0196595
7411.65	0.0195136
7420.8	0.0194259
7431.77	0.0193525
7440.92	0.0193099
7450.07	0.0192751
7461.04	0.019222
7470.19	0.0191389
7481.16	0.0189399
7490.31	0.018645
7501.28	0.0180917
7510.43	0.0174598
7521.4	0.0165441
7530.55	0.0157232
7541.52	0.0147759
7550.67	0.0140961
7561.64	0.0134501
7570.79	0.0130498
7581.76	0.0126713
7590.91	0.0123758
7600.05	0.0121511
7611.03	0.012025
7620.17	0.0119553
7631.15	0.0118204
7640.29	0.0116846
7651.27	0.0115297
7660.41	0.0115353
7671.39	0.0116287
7680.53	0.0117359
7691.51	0.0118725
7700.65	0.0119675
7711.63	0.0120532
7720.77	0.0121066
7731.75	0.0121579
7740.89	0.0121982
7750.04	0.0122469
7761.01	0.0123316
7770.16	0.0124361
7781.13	0.0126147
7790.28	0.0128151
7801.25	0.0131241
7810.4	0.013445
7821.37	0.0139187
7830.52	0.0144018
7841.49	0.015111
7850.64	0.0158295
7861.61	0.0168672
7870.76	0.0178915
7881.73	0.019318
7890.88	0.0206634
7900.02	0.0221309
7911	0.0240081
7920.14	0.0256217
7931.12	0.0275602
7940.26	0.0291747
7951.24	0.0308748
7960.38	0.0321106
7971.36	0.0334057
7980.5	0.0344056
7991.48	0.0354273
8000.62	0.0358994
8011.6	0.0361427
8020.74	0.0361897
8031.72	0.0360306
8040.86	0.0357774
8050.01	0.0354482
8060.98	0.0349284
8070.13	0.0344344
8081.1	0.0338375
8090.25	0.0333065
8101.22	0.0324881
8110.37	0.0315843
8121.34	0.0302994
8130.49	0.0291492
8141.46	0.0277669
8150.61	0.0266739
8161.58	0.0254246
8170.73	0.0243872
8181.7	0.0231517
8190.85	0.0221745
8201.82	0.0210643
8210.97	0.0201148
8220.12	0.0190586
8231.09	0.0176163
8240.24	0.0163198
8251.21	0.0147629
8260.36	0.0135319
8271.33	0.0121365
8280.48	0.0109504
8291.45	0.00854908
8300.6	0.00704932
8311.57	0.00415587
8320.72	0.00263067
8331.69	0.000548857
8340.84	-0.000984478
8351.81	-0.00123043
8360.96	-0.00258587
8370.1	-0.00517894
8381.08	-0.00651727
8390.22	-0.00770224
8401.2	-0.00906615
8410.34	-0.0102114
8421.32	-0.0116072
8430.46	-0.0127697
8441.44	-0.0141504
8450.58	-0.0152843
8461.56	-0.016628
8470.7	-0.0177393
8481.68	-0.0190683
8490.82	-0.0201737
8501.8	-0.0214963
8510.94	-0.0225922
8520.09	-0.0236788
8531.06	-0.0249663
8540.21	-0.0260222
8551.24	-0.0272726
8560.46	-0.0282962
8571.53	-0.0294979
8580.75	-0.0304772
8591.81	-0.0316265
8601.03	-0.0325637
8610.25	-0.0334831
8621.31	-0.0345644
8630.53	-0.0354482
8641.6	-0.0364891
8650.82	-0.037341
8660.03	-0.0381791
8671.1	-0.039167
8680.32	-0.0399758
8691.38	-0.0409289
8700.6	-0.0417088
8711.66	-0.0426277
8720.88	-0.0433794
8730.1	-0.0441184
8741.17	-0.0449886
8750.39	-0.0457003
8761.45	-0.0465381
8770.67	-0.0472228
8781.73	-0.0480286
8790.96	-0.0486871
8800.19	-0.0493333
8811.27	-0.0500922
8820.5	-0.0507103
8831.58	-0.0514342
8840.81	-0.0520221
8850.04	-0.0525955
8861.12	-0.0532635
8870.35	-0.053803
8881.43	-0.0544287
8890.66	-0.0549316
8901.74	-0.0555118
8910.97	-0.0559754
8920.2	-0.0564204
8931.28	-0.0569294
8940.51	-0.0573322
8951.59	-0.0577895
8960.82	-0.0581485
8970.05	-0.0584872
8981.13	-0.0588667
8990.36	-0.0591602
9001.44	-0.0594848
9010.67	-0.0597324
9021.75	-0.0600018
9030.98	-0.060203
9040.21	-0.0603832
9051.29	-0.0605715
9060.52	-0.0607051
9071.61	-0.0608379
9080.92	-0.0609259
9090.28	-0.0609929
9101.52	-0.0610451
9110.89	-0.0610651
9120.26	-0.061064
9131.5	-0.0610351
9140.87	-0.0609882
9150.24	-0.060921
9161.48	-0.0608138
9170.85	-0.0607027
9180.22	-0.0605722
9191.46	-0.0603905
9200.83	-0.0602186
9210.2	-0.0600286
9221.44	-0.0597771
9230.81	-0.0595486
9240.18	-0.0593034
9251.42	-0.0589876
9260.79	-0.0587072
9270.16	-0.0584116
9281.4	-0.0580375
9290.77	-0.0577103
9300.14	-0.0573696
9311.38	-0.0569436
9320.75	-0.0565751
9330.12	-0.0561948
9341.36	-0.0557236
9350.73	-0.0553194
9360.1	-0.0549051
9371.34	-0.0543955
9380.71	-0.0539611
9390.08	-0.0535185
9401.32	-0.052977
9410.69	-0.0525179
9420.06	-0.0520521
9431.3	-0.0514849
9440.67	-0.0510059
9450.04	-0.0505216
9461.28	-0.0499341
9470.65	-0.0494396
9480.02	-0.0489411
9491.27	-0.048338
9500.63	-0.0478318
9510	-0.0473225
9521.25	-0.0467078
9530.61	-0.046193
9541.86	-0.0455723
9551.23	-0.045053
9560.6	-0.044532
9571.84	-0.043905
9581.21	-0.0433812
9590.58	-0.0428563
9601.85	-0.042224
9611.24	-0.0416961
9620.63	-0.0411681
9630.01	-0.0406401
9641.26	-0.0400066
9650.63	-0.0394789
9661.87	-0.0388466
9671.22	-0.03832
9680.58	-0.0377938
9691.81	-0.0371632
9701.16	-0.0366386
9710.52	-0.0361147
9721.74	-0.0354872
9731.09	-0.0349654
9740.44	-0.0344447
9751.67	-0.0338217
9761	-0.033305
9770.31	-0.0327916
9781.48	-0.0321777
9790.79	-0.0316682
9800.1	-0.0311608
9811.27	-0.0305549
9820.57	-0.0300527
9831.75	-0.0294535
9841.05	-0.0289573
9850.36	-0.0284641
9861.53	-0.0278763
9870.84	-0.0273903
9880.09	-0.0269106
9891.14	-0.0263429
9900.33	-0.0258741
9911.37	-0.0253167
9920.57	-0.0248566
9931.61	-0.02431
9940.8	-0.0238591
9950	-0.0234127
9961.04	-0.0228829
9970.24	-0.0224465
9981.27	-0.0219289
9990.47	-0.0215027
10001.5	-0.0209976
10010.7	-0.020582
10021.7	-0.0200896
10030.9	-0.0196846
10040.1	-0.0192844
10051.2	-0.0188106
10060.4	-0.018421
10071.4	-0.0179599
10080.6	-0.0175808
10091.6	-0.0171321
10100.8	-0.0167633
10110	-0.016399
10121.1	-0.0159679
10130.3	-0.0156134
10141.3	-0.0151939
10150.5	-0.0148489
10161.6	-0.0144405
10170.7	-0.0141047
10181.8	-0.0137069
10191	-0.0133799
10200.2	-0.0130567
10211.2	-0.0126738
10220.4	-0.0123589
10231.5	-0.0119858
10240.7	-0.011679
10251.7	-0.0113154
10260.9	-0.0110164
10270.1	-0.0107209
10281.1	-0.0103709
10290.3	-0.0100831
10301.4	-0.00974231
10310.6	-0.00946222
10321.6	-0.0091308
10330.8	-0.00885855
10341.8	-0.00853662
10351	-0.0082724
10360.2	-0.0080119
10371.3	-0.00770433
10380.5	-0.00745228
10391.5	-0.00715506
10400.7	-0.00691185
10411.7	-0.00662547
10420.9	-0.00639151
10430.1	-0.00616191
10441.2	-0.00589229
10450.4	-0.00567264
10461.4	-0.00541527
10470.6	-0.00520608
10481.6	-0.00496155
10490.8	-0.00476333
10500	-0.00457025
10511.1	-0.00434549
10520.3	-0.00416408
10531.3	-0.00395362
10540.5	-0.00378436
10551.5	-0.00358874
10560.7	-0.00343208
10571.8	-0.00325187
10581	-0.00310829
10590.2	-0.00297083
10601.2	-0.00281414
10610.4	-0.0026906
10621.4	-0.00255105
10630.6	-0.00244223
10641.7	-0.00232092
10650.9	-0.00222784
10660.1	-0.00214232
10671.1	-0.00205006
10680.3	-0.00198215
10691.3	-0.00191188
10700.5	-0.00186301
10711.6	-0.0018164
10720.8	-0.00178789
10731.8	-0.00176642
10741	-0.00175933
10750.2	-0.00176214
10761.2	-0.00177855
10770.4	-0.00180292
10781.5	-0.00184454
10790.7	-0.00188902
10801.7	-0.00195324
10810.9	-0.00201492
10820.1	-0.00208312
10831.1	-0.00217229
10840.3	-0.00225156
10851.4	-0.00235118
10860.6	-0.00243683
10871.6	-0.00254139
10880.8	-0.00262905
10890	-0.0027164
10901.1	-0.00281998
10910.2	-0.0029047
10921.3	-0.00300395
10930.5	-0.00308442
10941.5	-0.00317824
10950.7	-0.00325424
10961.8	-0.00334313
10971	-0.00341563
10980.2	-0.00348711
10991.2	-0.00357209
11000.4	-0.00364271
11011.4	-0.00372778
11020.6	-0.00379932
11031.7	-0.00388634
11040.9	-0.0039601
11050.1	-0.00403513
11061.1	-0.00412701
11070.3	-0.00420516
11081.3	-0.00430086
11090.5	-0.00438219
11101.6	-0.0044816
11110.8	-0.00456588
11121.8	-0.00466859
11131	-0.00475539
11140.2	-0.00484317
11151.2	-0.00494964
11160.4	-0.00503915
11171.4	-0.0051469
11180.6	-0.00523699
11191.5	-0.00534542
11200.7	-0.00543586
11211.7	-0.00554423
11220.8	-0.00563419
11231.8	-0.0057414
11240.9	-0.00582988
11250.1	-0.00591731
11261	-0.00602045
11270.2	-0.00610459
11281.2	-0.00620289
11290.3	-0.00628217
11301.3	-0.00637354
11310.4	-0.00644604
11321.4	-0.00652795
11330.6	-0.00659137
11341.5	-0.0066608
11350.7	-0.00671238
11361.7	-0.00676576
11370.8	-0.00680231
11381.8	-0.00683549
11390.9	-0.00685332
11400.1	-0.00686131
11411	-0.00685669
11420.2	-0.00683993
11431.2	-0.00680299
11440.3	-0.0067571
11451.3	-0.00668257
11460.4	-0.00660327
11471.4	-0.00648626
11480.5	-0.00636973
11491.5	-0.00620614
11500.7	-0.00604946
11511.6	-0.0058365
11520.8	-0.00563804
11531.8	-0.00537465
11540.9	-0.00513434
11550	-0.00487544
11561	-0.00454093
11570.2	-0.00424308
11581.1	-0.0038639
11590.3	-0.00353085
11601.3	-0.00311217
11610.4	-0.00274861
11621.4	-0.00229631
11630.5	-0.00190725
11641.5	-0.00142727
11650.6	-0.00101744
11661.6	-0.000515073
11670.8	-8.84678e-05
11681.7	0.000432106
11690.9	0.000872547
11700	0.00131861
11711	0.00186092
11720.2	0.0023185
11731.1	0.00287425
11740.3	0.00334289
11751.3	0.0039119
11760.4	0.0043917
11771.4	0.0049743
11780.5	0.00546558
11791.5	0.0060621
11800.6	0.00656501
11811.6	0.00717533
11820.8	0.00768938
11831.7	0.00831234
11840.9	0.00883604
11850	0.00936333
11861	0.0099999
11870.1	0.0105327
11881.1	0.0111735
11890.3	0.0117074
11901.2	0.0123464
11910.4	0.0128764
11921.4	0.0135068
11930.5	0.0140239
11941.5	0.0146336
11950.6	0.0151343
11961.6	0.0157262
11970.7	0.0162123
11981.7	0.0165005
11990.9	0.0168464
12000	0.0172594
12011	0.0177807
12020.1	0.0183134
12031.1	0.0188483
12040.2	0.0192776
12051.2	0.0197813
12060.4	0.0203582
12071.3	0.0212759
12080.5	0.0221185
12091.5	0.023126
12100.6	0.0240176
12111.6	0.0250342
12120.7	0.0257563
12131.7	0.0264572
12140.8	0.0269454
12151.8	0.0274668
12161	0.0278545
12170.1	0.0282085
12181.1	0.0286058
12190.2	0.0289142
12201.2	0.0292583
12210.4	0.0295352
12221.3	0.0298698
12230.5	0.0301546
12241.5	0.0304995
12250.6	0.0307777
12261.6	0.0310774
12270.7	0.0312817
12281.7	0.0314635
12290.8	0.0315707
12301.8	0.0316718
12311	0.0317534
12320.1	0.0318445
12331.1	0.0319706
12340.2	0.0320884
12351.2	0.0322405
12360.3	0.0323727
12371.3	0.0325319
12380.5	0.0326586
12391.4	0.0327917
12400.6	0.0328772
12411.6	0.0329407
12420.7	0.032959
12431.7	0.0329427
12440.8	0.0329025
12451.8	0.032829
12460.9	0.0327508
12470.1	0.0326606
12481.1	0.0325428
12490.2	0.0324436
12501.2	0.0323323
12510.3	0.0322508
12521.3	0.0321664
12530.5	0.0321021
12541.4	0.032022
12550.6	0.0319455
12561.6	0.0318361
12570.8	0.0317303
12580	0.0316141
12591.1	0.0314663
12600.3	0.03134
12611.4	0.0311881
12620.6	0.0310634
12631.7	0.0309186
12640.9	0.0308046
12650.1	0.0306981
12661.2	0.0305806
12670.4	0.0304883
12681.5	0.0303767
12690.7	0.0302756
12701.8	0.0301366
12711.1	0.0300034
12720.3	0.029855
12731.4	0.0296621
12740.7	0.0294946
12751.8	0.0292943
12761.2	0.029133
12770.6	0.0289812
12781.8	0.028815
12791.2	0.0286903
12800.5	0.0285774
12811.8	0.0284546
12821.2	0.0283595
12830.5	0.0282669
12841.8	0.0281528
12851.1	0.0280506
12860.5	0.0279397
12871.7	0.0277951
12881.1	0.0276678
12890.5	0.0275382
12901.7	0.0273855
12911.1	0.0272648
12920.5	0.0271524
12931.7	0.0270298
12941.1	0.0269376
12950.4	0.0268536
12961.7	0.0267613
12971.1	0.0266895
12980.4	0.0266201
12991.7	0.0265362
13001	0.026462
13010.4	0.0263798
13021.6	0.0262658
13031	0.0261558
13040.4	0.0260319
13051.6	0.0258684
13061	0.0257234
13070.4	0.0255744
13081.6	0.0253941
13091	0.0252448
13100.3	0.0250973
13111.6	0.024923
13121	0.0247796
13130.3	0.0246368
13141.6	0.0244644
13150.9	0.0243178
13160.3	0.0241666
13171.5	0.0239763
13180.9	0.0238086
13190.3	0.0236312
13201.5	0.0234047
13210.9	0.0232045
13220.3	0.0229947
13231.5	0.0227313
13240.9	0.0225032
13250.2	0.0222679
13261.5	0.0219762
13270.9	0.0217247
13280.2	0.0214645
13291.5	0.0211385
13300.8	0.0208529
13310.2	0.0205523
13321.4	0.0201684
13330.8	0.0198266
13340.2	0.019463
13351.4	0.0189965
13360.8	0.018582
13370.2	0.0181449
13381.4	0.0175919
13390.8	0.0171092
13400.1	0.016608
13411.4	0.0159829
13420.8	0.0154416
13430.1	0.0148799
13441.4	0.0141745
13450.7	0.0135552
13460.1	0.0128986
13471.4	0.0120323
13480.7	0.0111621
13490.1	0.0100043
13501.3	0.0085255
13510.7	0.00806928
13520.1	0.00703503
13531.3	0.00623271
13540.7	0.00566386
13550	0.00511534
13561.3	0.00447685
13570.7	0.00370582
13580	0.00322821
13591.3	0.00262545
13600.6	0.00208183
13610	0.00147935
13621.3	0.000692577
13630.6	2.86132e-05
13641.9	-0.000757837
13651.2	-0.00140798
13660.6	-0.00205917
13671.8	-0.00284746
13681.2	-0.00351045
13690.6	-0.00418007
13701.8	-0.00499441
13711.2	-0.0056841
13720.6	-0.00638578
13731.8	-0.00724465
13741.2	-0.00797364
13750.5	-0.00871291
13761.8	-0.00961042
13771.2	-0.0103642
13780.5	-0.011121
13791.8	-0.0120302
13801.1	-0.0127872
13810.5	-0.0135422
13821.7	-0.0144447
13831.1	-0.0151936
13840.5	-0.0159394
13851.7	-0.0168302
13861.1	-0.0175691
13870.5	-0.0183048
13881.7	-0.0191833
13891.1	-0.0199111
13900.4	-0.0206347
13911.7	-0.0214965
13921.1	-0.0222085
13930.4	-0.0229142
13941.7	-0.0237516
13951	-0.024441
13960.4	-0.0251221
13971.7	-0.0259277
13981	-0.026589
13990.4	-0.0272407
14001.6	-0.0280098
14011	-0.0286396
14020.4	-0.0292591
14031.6	-0.0299884
14041	-0.0305841
14050.3	-0.0311685
14061.6	-0.0318546
14071	-0.0324131
14080.3	-0.0329593
14091.6	-0.0335979
14100.9	-0.0341158
14110.3	-0.0346202
14121.6	-0.0352073
14130.9	-0.0356811
14140.3	-0.0361407
14151.5	-0.036673
14160.9	-0.0371003
14170.3	-0.0375128
14181.5	-0.0379878
14190.9	-0.0383669
14200.3	-0.0387306
14211.5	-0.0391465
14220.9	-0.0394758
14230.2	-0.0397893
14241.5	-0.0401445
14250.8	-0.0404228
14260.2	-0.0406854
14271.5	-0.0409803
14281	-0.0412083
14290.5	-0.0414201
14301.8	-0.0416525
14311.4	-0.0418282
14320.9	-0.0419884
14330.6	-0.0421327
14340.4	-0.0422603
14350.1	-0.0423707
14361.9	-0.0424804
14371.7	-0.0425525
14381.5	-0.042607
14391.3	-0.0426441
14401.1	-0.042664
14410.9	-0.0426666
14420.8	-0.0426522
14430.6	-0.0426208
14440.4	-0.0425726
14450.2	-0.0425076
14461.9	-0.0424079
14471.8	-0.0423067
14481.6	-0.0421894
14491.4	-0.042056
14501.2	-0.0419068
14511	-0.0417419
14520.8	-0.0415617
14530.6	-0.0413663
14540.4	-0.0411556
14550.3	-0.0409291
14560.2	-0.0406874
14570.1	-0.0404313
14581.9	-0.0401052
14591.8	-0.0398183
14601.7	-0.0395178
14611.6	-0.0392039
14621.5	-0.0388771
14631.4	-0.0385375
14641.3	-0.0381854
14651.2	-0.0378211
14661.1	-0.0374449
14671	-0.0370571
14680.9	-0.0366579
14690.8	-0.0362477
14700.6	-0.0358267
14710.5	-0.0353953
14720.4	-0.0349538
14730.3	-0.0345025
14740.2	-0.0340417
14750.1	-0.0335717
14760	-0.033093
14771.9	-0.0325074
14781.8	-0.0320105
14791.7	-0.0315059
14801.5	-0.030994
14811.4	-0.0304752
14821.3	-0.0299498
14831.2	-0.0294182
14841.1	-0.0288808
14851	-0.028338
14860.9	-0.0277901
14870.8	-0.0272377
14880.7	-0.0266811
14890.6	-0.0261208
14900.5	-0.0255572
14910.4	-0.0249916
14920.2	-0.0244237
14930.1	-0.0238539
14942	-0.0231683
14951.8	-0.0225962
14961.7	-0.0220239
14971.6	-0.0214519
14981.5	-0.0208808
14991.3	-0.0203112
15001.2	-0.0197436
15011.1	-0.0191787
15021	-0.0186172
15030.8	-0.01806
15040.7	-0.0175075
15050.6	-0.0169602
15060.4	-0.0164206
15070.2	-0.0158902
15081.9	-0.0152634
15091.7	-0.0147505
15101.4	-0.0142466
15111.2	-0.013752
15120.9	-0.013267
15130.7	-0.0127925
15140.4	-0.0123292
15150.1	-0.0118781
15161.7	-0.0113547
15171.3	-0.0109319
15181	-0.0105219
15190.7	-0.0101252
15200.3	-0.00974255
15211.9	-0.00930262
15221.5	-0.00895205
15231.2	-0.00861648
15240.8	-0.00829629
15250.4	-0.00799186
15260.1	-0.00770354
15271.7	-0.00737931
15281.3	-0.00712764
15290.9	-0.00689316
15300.6	-0.00667621
15310.2	-0.00647713
15321.8	-0.00626229
15331.4	-0.00610372
15341.1	-0.00596412
15350.7	-0.00584388
15360.3	-0.00574337
15371.9	-0.00564938
15381.6	-0.00559371
15391.2	-0.00555911
15400.8	-0.00554603
15410.5	-0.00555492
15420.1	-0.00558625
15431.7	-0.00565416
15441.3	-0.00573656
15451	-0.00584296
15460.6	-0.00597383
15470.3	-0.00612965
15481.8	-0.0063502
15491.5	-0.00656248
15501.1	-0.00680108
15510.7	-0.00706637
15520.4	-0.00735869
15530	-0.00767832
15541.6	-0.00809822
15551.2	-0.00847862
15560.9	-0.00888683
15570.5	-0.00932287
15580.2	-0.00978666
15591.7	-0.0103797
15601.4	-0.0109039
15611	-0.0114552
15620.6	-0.012033
15630.3	-0.0126368
15641.9	-0.013395
15651.5	-0.0140538
15661.1	-0.0147364
15670.8	-0.0154419
15680.4	-0.0161691
15690.1	-0.0169171
15701.6	-0.0178404
15711.3	-0.0186298
15720.9	-0.0194358
15730.6	-0.0202571
15740.2	-0.0210922
15751.8	-0.0221103
15761.4	-0.0229702
15771	-0.0238388
15780.7	-0.0247145
15790.3	-0.0255954
15801.9	-0.026657
15811.5	-0.0275434
15821.2	-0.0284296
15830.8	-0.0293136
15840.5	-0.0301938
15850.1	-0.0310685
15861.7	-0.0321086
15871.4	-0.0329692
15881.1	-0.0338263
15890.9	-0.0346712
15900.7	-0.0355013
15910.5	-0.0363151
15920.3	-0.0371111
15930.1	-0.0378876
15941.8	-0.0387918
15951.6	-0.0395206
15961.4	-0.0402256
15971.2	-0.0409056
15981	-0.0415594
15990.7	-0.042186
16000.5	-0.0427842
16010.3	-0.0433533
16020.1	-0.0438919
16031.8	-0.0444967
16041.6	-0.0449651
16051.3	-0.0454012
16061	-0.0458039
16070.7	-0.046173
16080.4	-0.0465077
16090.1	-0.0468086
16101.7	-0.047125
16111.3	-0.0473511
16120.9	-0.0475433
16130.5	-0.047702
16140.1	-0.047827
16151.6	-0.0479326
16161.2	-0.0479838
16170.9	-0.0480017
16180.5	-0.0479864
16190.1	-0.0479382
16201.6	-0.0478374
16211.2	-0.047718
16220.8	-0.0475667
16230.4	-0.0473839
16240	-0.0471702
16251.6	-0.0468734
16261.2	-0.0465932
16270.8	-0.0462835
16280.3	-0.0459463
16291.8	-0.0455068
16301.3	-0.0451118
16310.8	-0.0446904
16320.3	-0.0442432
16331.7	-0.0436742
16341.1	-0.0431736
16350.6	-0.0426496
16360.1	-0.0421032
16371.4	-0.0414181
16380.9	-0.0408234
16390.4	-0.0402077
16401.7	-0.0394419
16411.2	-0.0387822
16420.6	-0.0381034
16430.1	-0.0374063
16441.5	-0.0365462
16450.9	-0.0358107
16460.4	-0.0350587
16471.7	-0.0341353
16481.2	-0.0333499
16490.6	-0.0325512
16500.1	-0.0317386
16511.4	-0.0307459
16520.8	-0.0299047
16530.3	-0.0290513
16541.6	-0.0280121
16551	-0.027134
16560.5	-0.0262456
16571.8	-0.0251668
16581.2	-0.0242579
16590.7	-0.0233405
16600.1	-0.0224153
16611.4	-0.0212956
16620.9	-0.0203553
16630.3	-0.0194092
16641.6	-0.018267
16651.1	-0.0173101
16660.5	-0.0163494
16671.8	-0.0151922
16681.3	-0.0142251
16690.7	-0.013256
16700.2	-0.0122857
16711.5	-0.0111204
16720.9	-0.0101492
16730.4	-0.00917867
16741.7	-0.00801554
16751.1	-0.00704822
16760.6	-0.00608325
16771.9	-0.00492915
16781.3	-0.00397123
16790.8	-0.00301734
16800.2	-0.00206799
16811.5	-0.000935445
16820.9	2.20602e-06
16830.4	0.000933769
16841.7	0.00204295
16851.1	0.00295948
16860.6	0.00386846
16870	0.00476943
16881.3	0.00583943
16890.8	0.00672129
16900.2	0.00759381
16911.5	0.00862792
16921	0.00947848
16930.4	0.0103185
16941.7	0.0113119
16951.2	0.012127
16960.6	0.0129306
16970	0.0137222
16981.4	0.014656
16990.8	0.0154204
17000.2	0.016172
17011.6	0.0170568
17021	0.0177795
17030.4	0.0184889
17041.7	0.0192963
17051.2	0.0199273
17060.6	0.0205809
17070.1	0.0212227
17081.4	0.0222414
17090.8	0.0230068
17100.2	0.0236083
17111.5	0.0243618
17121	0.025017
17130.4	0.0255799
17141.6	0.0261559
17151	0.026676
17160.4	0.0272674
17171.7	0.0279877
17181.1	0.0285228
17190.5	0.0289807
17201.7	0.0294591
17211.1	0.0298375
17220.4	0.0302248
17231.7	0.0307217
17241	0.0311679
17250.4	0.0316315
17261.6	0.0321771
17271	0.0325947
17280.3	0.0329622
17291.5	0.0333329
17300.9	0.0335933
17310.2	0.0338269
17321.5	0.0340944
17330.8	0.0343192
17340.1	0.0345495
17351.3	0.034834
17360.6	0.035075
17371.8	0.0353622
17381.1	0.0355914
17390.4	0.0358017
17401.6	0.0360176
17410.9	0.0361615
17420.2	0.0362734
17431.4	0.0363734
17440.7	0.0364376
17451.8	0.036503
17461.1	0.0365527
17470.5	0.036599
17481.5	0.0366479
17490.7	0.0366819
17501.8	0.0367154
17511	0.0367384
17520.2	0.0367576
17531.2	0.0367731
17540.4	0.0367749
17551.5	0.0367568
17560.6	0.0367212
17571.7	0.0366535
17580.9	0.0365798
17590.1	0.0364952
17601.1	0.0363854
17610.3	0.0362894
17621.4	0.0361684
17630.6	0.0360604
17641.6	0.0359186
17650.8	0.0357889
17661.8	0.03562
17671	0.0354702
17680.2	0.0353139
17691.3	0.0351189
17700.5	0.0349501
17711.5	0.0347392
17720.7	0.0345561
17731.7	0.0343287
17740.9	0.0341342
17750.1	0.0339368
17761.2	0.0336967
17770.4	0.0334937
17781.4	0.0332445
17790.6	0.0330305
17801.6	0.0327649
17810.8	0.0325366
17820	0.0323029
17831.1	0.0320172
17840.3	0.0317755
17851.3	0.0314812
17860.5	0.0312311
17871.5	0.0309229
17880.7	0.0306577
17891.8	0.0303279
17901	0.0300441
17910.2	0.029754
17921.2	0.0294019
17930.4	0.0291099
17941.4	0.0287674
17950.6	0.0284927
17961.7	0.0281793
17970.9	0.0279318
17980.1	0.0276949
17991.1	0.0274196
18000.3	0.0271921
18011.3	0.0269136
18020.5	0.0266716
18031.6	0.0263643
18040.8	0.0260926
18051.8	0.025749
18061	0.0254513
18070.2	0.0251475
18081.2	0.0247816
18090.4	0.0244807
18101.5	0.0241298
18110.7	0.0238481
18121.7	0.0235236
18130.9	0.0232631
18140.1	0.0230094
18151.1	0.0227102
18160.3	0.0224624
18171.4	0.0221635
18180.6	0.0219114
18191.6	0.0216039
18200.8	0.0213429
18210	0.0210772
18221.1	0.0207521
18230.3	0.0204761
18241.3	0.0201388
18250.5	0.0198528
18261.5	0.0195041
18270.7	0.0192094
18281.8	0.0188518
18291	0.0185514
18300.2	0.0182497
18311.2	0.0178872
18320.4	0.0175856
18331.4	0.0172247
18340.6	0.0169246
18351.7	0.0165645
18360.9	0.0162633
18370.1	0.0159596
18381.1	0.0155902
18390.3	0.0152764
18401.3	0.0148907
18410.5	0.0145602
18421.6	0.0141512
18430.8	0.0137995
18441.8	0.0133646
18451	0.0129919
18460.2	0.0126108
18471.2	0.0121436
18480.4	0.0117469
18491.5	0.0112628
18500.7	0.0108529
18511.7	0.0103533
18520.9	0.00980373
18530.1	0.0093484
18541.1	0.00845356
18550.3	0.00784137
18561.4	0.0070986
18570.6	0.00653613
18581.6	0.00570025
18590.8	0.00527283
18600	0.00482533
18611	0.00425101
18620.2	0.00375037
18631.3	0.00315163
18640.5	0.0026576
18651.5	0.00207138
18660.7	0.00158836
18671.7	0.00101935
18680.9	0.000553413
18690.1	9.2474e-05
18701.2	-0.000457821
18710.4	-0.000916133
18721.4	-0.00146642
18730.6	-0.00192459
18741.7	-0.00247228
18750.8	-0.00292547
18760	-0.00337451
18771.1	-0.00390662
18780.3	-0.00434369
18791.3	-0.0048601
18800.5	-0.00528361
18811.6	-0.0057838
18820.8	-0.00619416
18831.8	-0.00667914
18841	-0.00707733
18850.2	-0.00747025
18861.2	-0.00793494
18870.4	-0.00831654
18881.5	-0.00876771
18890.7	-0.00913804
18901.7	-0.00957562
18910.9	-0.00993455
18920.1	-0.0102883
18931.1	-0.0107059
18940.3	-0.0110482
18951.4	-0.0114522
18960.6	-0.0117833
18971.6	-0.0121739
18980.8	-0.012494
18991.8	-0.0128716
19001	-0.013181
19010.2	-0.0134857
19021.3	-0.013845
19030.5	-0.0141394
19041.5	-0.0144865
19050.7	-0.0147704
19061.7	-0.0151037
19070.8	-0.0153766
19081.8	-0.0156982
19090.9	-0.0159614
19100.1	-0.0162202
19111	-0.0165249
19120.2	-0.016774
19131.2	-0.0170672
19140.3	-0.0173066
19151.3	-0.0175881
19160.4	-0.0178177
19171.4	-0.0180874
19180.6	-0.0183071
19191.5	-0.0185648
19200.7	-0.0187744
19211.6	-0.0190199
19220.8	-0.0192193
19231.8	-0.0194524
19240.9	-0.0196414
19250.1	-0.0198255
19261	-0.0200401
19270.2	-0.0202135
19281.2	-0.0204151
19290.3	-0.0205776
19301.3	-0.020766
19310.4	-0.0209173
19321.4	-0.0210922
19330.5	-0.0212323
19341.5	-0.0213936
19350.7	-0.0215222
19361.6	-0.0216696
19370.8	-0.0217866
19381.8	-0.02192
19390.9	-0.0220253
19400	-0.0221251
19411	-0.0222379
19420.2	-0.0223258
19431.1	-0.0224242
19440.3	-0.0225001
19451.3	-0.0225839
19460.4	-0.0226478
19471.4	-0.022717
19480.5	-0.0227686
19491.5	-0.0228232
19500.6	-0.0228626
19511.6	-0.0229025
19520.8	-0.0229295
19531.7	-0.0229546
19540.9	-0.0229694
19550	-0.0229785
19561	-0.0229821
19570.2	-0.0229789
19581.1	-0.0229678
19590.3	-0.0229523
19601.2	-0.0229265
19610.4	-0.0228988
19621.4	-0.0228583
19630.5	-0.0228186
19641.5	-0.0227636
19650.6	-0.0227119
19661.6	-0.0226426
19670.8	-0.022579
19681.7	-0.0224957
19690.9	-0.0224204
19700	-0.02234
19711	-0.0222365
19720.1	-0.0221447
19731.1	-0.0220278
19740.3	-0.0219249
19751.2	-0.0217949
19760.4	-0.0216812
19771.4	-0.0215384
19780.5	-0.0214142
19791.5	-0.0212589
19800.6	-0.0211245
19811.6	-0.0209572
19820.7	-0.020813
19831.7	-0.0206341
19840.9	-0.0204804
19850	-0.0203225
19861	-0.0201276
19870.1	-0.0199609
19881.1	-0.0197556
19890.2	-0.0195804
19901.2	-0.0193653
19910.4	-0.0191821
19921.3	-0.0189577
19930.5	-0.0187671
19941.5	-0.0185341
19950.6	-0.0183365
19961.6	-0.0180956
19970.7	-0.0178917
19981.7	-0.0176435
19990.9	-0.0174339
