0	0
13.138	0
26.2759	0
32.8449	0
45.9829	0
52.5519	0
65.6898	0
72.2588	0
85.3968	0
91.9658	0
105.104	0
111.673	0
124.811	0
131.38	0
144.518	0
151.087	0
164.225	0
170.794	0
183.932	0
190.501	0
203.638	0
210.207	0
223.345	0
236.483	0
243.052	0
256.19	0
262.759	0
275.897	0
282.466	0
295.604	0
302.173	0
315.311	0
321.88	0
335.018	0
341.587	0
354.725	0
361.294	0
374.432	0
381.001	0
394.139	0
400.708	0
413.846	0
420.415	0
433.553	0
440.122	0
453.26	0
466.398	0
472.967	0
486.105	0
492.674	0
505.812	0
512.381	0
525.519	0
532.088	0
545.226	0
551.795	0
564.933	0
571.502	0
584.639	0
591.208	0
604.346	0
610.915	0
624.053	0
630.622	0
643.76	0
650.329	0
663.467	0
670.036	0
683.174	0
696.312	0
702.881	0
716.019	0
722.588	0
735.726	0
742.295	0
755.433	0
762.002	0
775.14	0
781.709	0
794.847	0
801.416	0
814.554	0
821.123	0
834.261	0
840.83	0
853.968	0
860.537	0
873.675	0
880.244	0
893.382	0
906.52	0
913.089	0
926.227	0
932.796	0
945.934	0
952.503	0
965.641	0
972.209	0
985.347	0
991.916	0
1005.05	0
1011.62	0
1024.76	0
1031.33	0
1044.47	0
1051.04	0
1064.18	0
1070.74	0
1083.88	0
1090.45	0
1103.59	0
1110.16	0
1123.3	0
1136.43	0
1143	0
1156.14	0
1162.71	0
1175.85	0
1182.42	0
1195.55	0
1202.12	0
1215.26	0
1221.83	0
1234.97	0
1241.54	0
1254.68	0
1261.24	0
1274.38	0
1280.95	0
1294.09	0
1300.66	0
1313.8	0
1320.37	0
1333.5	0
1340.07	0
1353.21	0
1366.35	0
1372.92	0
1386.06	0
1392.62	0
1405.76	0
1412.33	0
1425.47	0
1432.04	0
1445.18	0
1451.74	0
1464.88	0
1471.45	0
1484.59	0
1491.16	0
1504.3	0
1510.87	0
1524	0
1530.57	0
1543.71	0
1550.28	0
1563.42	0
1576.56	0
1583.12	0
1596.26	0
1602.83	0
1615.97	0
1622.54	0
1635.68	0
1642.25	0
1655.38	0
1661.95	0
1675.09	0
1681.66	0
1694.8	0
1701.37	0
1714.5	0
1721.07	0
1734.21	0
1740.78	0
1753.92	0
1760.49	0
1773.62	0
1780.19	0
1793.33	0
1806.47	0
1813.04	0
1826.18	0
1832.74	0
1845.88	0
1852.45	0
1865.59	0
1872.16	0
1885.3	0
1891.86	0
1905	0
1911.57	0
1924.71	-9.09495e-13
1931.28	-1.81899e-12
1944.42	-4.54747e-12
1950.98	-6.36646e-12
1964.12	-1.36424e-11
1970.69	-1.90994e-11
1983.83	-4.00178e-11
1990.4	-5.63887e-11
2003.54	-1.0823e-10
2010.1	-1.48248e-10
2023.24	-2.78305e-10
2036.38	-5.13865e-10
2042.95	-6.94854e-10
2056.09	-1.25419e-09
2062.65	-1.67438e-09
2075.79	-2.95313e-09
2082.36	-3.899e-09
2095.5	-6.72208e-09
2102.07	-8.77935e-09
2115.21	-1.48184e-08
2121.77	-1.91512e-08
2134.91	-3.1665e-08
2141.48	-4.05107e-08
2154.62	-6.56546e-08
2161.19	-8.31742e-08
2174.32	-1.32211e-07
2180.89	-1.65903e-07
2194.03	-2.58815e-07
2200.6	-3.21786e-07
2213.74	-4.92954e-07
2220.31	-6.07431e-07
2233.44	-9.1429e-07
2240.01	-1.11688e-06
2253.15	-1.65263e-06
2266.29	-2.41837e-06
2272.86	-2.91353e-06
2285.99	-4.19488e-06
2292.56	-5.01356e-06
2305.7	-7.10578e-06
2312.27	-8.42701e-06
2325.41	-1.17628e-05
2331.97	-1.38455e-05
2345.11	-1.90424e-05
2351.68	-2.22513e-05
2364.82	-3.01673e-05
2371.39	-3.50028e-05
2384.52	-4.67996e-05
2391.09	-5.39306e-05
2404.23	-7.1141e-05
2410.8	-8.14389e-05
2423.94	-0.000106034
2430.5	-0.000120604
2443.64	-0.000155052
2450.21	-0.000175265
2463.35	-0.000222581
2476.49	-0.000280434
2483.05	-0.000313856
2496.19	-0.000390873
2502.76	-0.000434969
2515.9	-0.000535661
2522.47	-0.000592813
2535.6	-0.000722174
2542.17	-0.000794979
2555.31	-0.000958367
2561.88	-0.00104957
2575.01	-0.00125256
2581.58	-0.00136497
2594.72	-0.00161316
2601.29	-0.00174954
2614.43	-0.00204832
2620.99	-0.00221127
2634.13	-0.00256557
2640.7	-0.0027574
2653.84	-0.00317146
2660.41	-0.00339406
2673.54	-0.00387113
2680.11	-0.00412583
2693.25	-0.00466793
2706.39	-0.00525381
2712.96	-0.00556311
2726.09	-0.00621407
2732.66	-0.00655546
2745.8	-0.00726918
2752.37	-0.00764103
2765.5	-0.0084132
2772.07	-0.00881281
2785.21	-0.00963695
2791.78	-0.0100605
2804.92	-0.0109277
2811.48	-0.0113701
2824.62	-0.0122689
2831.19	-0.0127237
2844.33	-0.0136395
2850.9	-0.0140986
2864.03	-0.0150137
2870.6	-0.0154673
2883.74	-0.0163599
2890.31	-0.0167961
2903.45	-0.0176402
2910.02	-0.0180447
2923.15	-0.0188091
2936.29	-0.0195003
2942.86	-0.0198128
2956	-0.0203594
2962.56	-0.0205881
2975.7	-0.020942
2982.27	-0.0210611
2995.41	-0.0211672
3001.98	-0.0211471
3015.12	-0.0209423
3021.68	-0.0207497
3034.82	-0.0201634
3041.39	-0.019761
3054.53	-0.0187152
3061.1	-0.0180623
3074.23	-0.0164727
3080.8	-0.0155258
3093.94	-0.0133028
3100.51	-0.0120163
3113.65	-0.00906748
3120.22	-0.00739471
3133.35	-0.0036268
3146.49	0.000737878
3153.06	0.00315624
3166.2	0.00848834
3172.77	0.0114109
3185.91	0.0177896
3192.48	0.0212533
3205.61	0.028746
3212.18	0.0327807
3225.32	0.0414389
3231.89	0.046066
3245.03	0.055922
3251.6	0.0611522
3264.73	0.072216
3271.3	0.0780481
3284.44	0.0903046
3291.01	0.0967243
3304.15	0.110131
3310.72	0.11711
3323.86	0.131597
3330.42	0.139094
3343.56	0.154561
3350.13	0.162518
3363.27	0.17884
3376.41	0.195646
3382.98	0.204208
3396.11	0.221599
3402.68	0.230406
3415.82	0.248187
3422.39	0.257137
3435.53	0.275097
3442.1	0.284081
3455.23	0.301991
3461.8	0.310891
3474.94	0.328513
3481.51	0.337208
3494.65	0.354296
3501.22	0.362661
3514.35	0.378966
3520.92	0.386879
3534.06	0.402156
3540.63	0.409494
3553.77	0.423505
3560.34	0.430153
3573.48	0.442671
3580.04	0.448518
3593.18	0.459332
3606.32	0.468904
3612.89	0.473199
3626.03	0.480763
3632.6	0.484015
3645.73	0.489423
3652.3	0.491564
3665.44	0.494695
3672.01	0.495673
3685.15	0.496438
3691.72	0.496217
3704.85	0.494559
3711.42	0.493118
3724.56	0.489015
3731.13	0.486352
3744.27	0.479814
3750.84	0.475943
3763.97	0.467014
3770.54	0.461965
3783.68	0.450723
3790.25	0.444542
3803.39	0.431094
3816.53	0.416249
3823.09	0.408323
3836.23	0.391511
3842.8	0.382645
3855.94	0.364043
3862.51	0.35433
3875.65	0.334135
3882.21	0.323677
3895.35	0.302102
3901.92	0.29101
3915.06	0.268282
3921.63	0.256672
3934.77	0.233028
3941.34	0.22102
3954.47	0.196703
3961.04	0.184421
3974.18	0.159677
3980.75	0.147244
3993.89	0.122322
4000.46	0.10986
4013.59	0.0850045
4020.16	0.0726366
4033.3	0.0480867
4046.44	0.0238705
4053.01	0.011919
4066.15	-0.0116095
4072.71	-0.0231627
4085.85	-0.0457891
4092.42	-0.0568401
4105.56	-0.0783641
4112.13	-0.0888166
4125.27	-0.109054
4131.83	-0.11882
4144.97	-0.137604
4151.54	-0.146606
4164.68	-0.163791
4171.25	-0.171961
4184.39	-0.187423
4190.96	-0.194704
4204.09	-0.208343
4210.66	-0.214692
4223.8	-0.226433
4230.37	-0.231818
4243.51	-0.241611
4250.08	-0.246016
4263.21	-0.253838
4276.35	-0.260348
4282.92	-0.263113
4296.06	-0.267674
4302.63	-0.269475
4315.76	-0.272135
4322.33	-0.273002
4335.47	-0.273834
4342.04	-0.273809
4355.18	-0.272907
4361.75	-0.272042
4374.89	-0.269521
4381.45	-0.267879
4394.59	-0.263871
4401.16	-0.261521
4414.3	-0.256174
4420.87	-0.253193
4434.01	-0.246664
4440.57	-0.243133
4453.71	-0.235587
4460.28	-0.23159
4473.42	-0.223196
4486.56	-0.214331
4493.13	-0.209746
4506.26	-0.200315
4512.83	-0.195487
4525.97	-0.185653
4532.54	-0.180663
4545.68	-0.170581
4552.25	-0.165505
4565.38	-0.155322
4571.95	-0.15023
4585.09	-0.140079
4591.66	-0.135035
4604.8	-0.125039
4611.37	-0.1201
4624.51	-0.110366
4631.07	-0.105582
4644.21	-0.0962039
4650.78	-0.0916182
4663.92	-0.0826736
4670.49	-0.078322
4683.63	-0.0698758
4690.19	-0.065787
4703.33	-0.0578903
4716.47	-0.0503817
4723.04	-0.0467773
4736.18	-0.039875
4742.75	-0.0365792
4755.88	-0.0303022
4762.45	-0.0273219
4775.59	-0.0216793
4782.16	-0.0190169
4795.3	-0.0140088
4801.87	-0.0116623
4815.01	-0.00728143
4821.57	-0.00524543
4834.71	-0.00147763
4841.28	0.00025636
4854.42	0.00343066
4860.99	0.00487367
4874.13	0.00747871
4880.69	0.00864386
4893.83	0.0107077
4900.4	0.0116098
4913.54	0.0131634
4920.11	0.0138186
4933.25	0.0148954
4946.38	0.0156737
4952.95	0.015956
4966.09	0.0163166
4972.66	0.0163992
4985.8	0.0163789
4992.37	0.0162802
5005.5	0.0159161
5012.07	0.0156548
5025.21	0.0149838
5031.78	0.0145782
5044.92	0.0136367
5051.49	0.0131047
5064.63	0.0119283
5071.19	0.0112875
5084.33	0.00991027
5090.9	0.0091774
5104.04	0.00763198
5110.61	0.00682284
5123.75	0.00513991
5130.31	0.0042693
5143.45	0.00247738
5150.02	0.00155898
5163.16	-0.000315803
5176.3	-0.00223255
5182.87	-0.00320359
5196	-0.00516529
5202.57	-0.00615381
5215.71	-0.00814122
5222.28	-0.00913826
5235.42	-0.0111347
5241.99	-0.0121326
5255.13	-0.014124
5261.69	-0.0151163
5274.83	-0.017091
5281.4	-0.0180724
5294.54	-0.0200208
5301.11	-0.020987
5314.25	-0.0229016
5320.81	-0.0238494
5333.95	-0.0257244
5340.52	-0.0266511
5353.66	-0.0284821
5360.23	-0.029386
5373.37	-0.0311696
5386.5	-0.0329204
5393.07	-0.0337832
5406.21	-0.0354831
5412.78	-0.03632
5425.92	-0.0379673
5432.49	-0.0387777
5445.62	-0.0403713
5452.19	-0.0411544
5465.33	-0.0426929
5471.9	-0.0434481
5485.04	-0.0449302
5491.61	-0.0456568
5504.75	-0.0470808
5511.31	-0.047778
5524.45	-0.0491421
5531.02	-0.0498087
5544.16	-0.0511107
5550.73	-0.0517458
5563.87	-0.0529833
5570.44	-0.0535855
5583.57	-0.0547558
5590.14	-0.0553237
5603.28	-0.056424
5616.42	-0.057476
5622.99	-0.0579834
5636.12	-0.0589604
5642.69	-0.0594295
5655.83	-0.0603285
5662.4	-0.0607579
5675.54	-0.0615758
5682.11	-0.0619641
5695.25	-0.0626983
5701.81	-0.063044
5714.95	-0.0636919
5721.52	-0.0639938
5734.66	-0.064553
5741.23	-0.0648101
5754.37	-0.0652786
5760.94	-0.0654898
5774.07	-0.0658658
5780.64	-0.0660304
5793.78	-0.0663125
5800.35	-0.0664298
5813.49	-0.0666167
5820.06	-0.0666862
5833.19	-0.0667772
5846.33	-0.0668037
5852.9	-0.0667928
5866.04	-0.0667225
5872.61	-0.066663
5885.75	-0.0664956
5892.31	-0.0663877
5905.45	-0.0661232
5912.02	-0.0659668
5925.16	-0.0656055
5931.73	-0.0654008
5944.87	-0.0649433
5951.44	-0.0646906
5964.57	-0.0641375
5971.14	-0.0638372
5984.28	-0.0631895
5990.85	-0.0628422
6003.99	-0.062101
6010.56	-0.0617074
6023.69	-0.0608743
6030.26	-0.0604352
6043.4	-0.0595121
6056.54	-0.0585301
6063.11	-0.0580173
6076.24	-0.0569491
6082.81	-0.0563939
6095.95	-0.0552423
6102.52	-0.0546463
6115.66	-0.0534145
6122.23	-0.0527793
6135.37	-0.0514712
6141.93	-0.0507989
6155.07	-0.0494187
6161.64	-0.0487114
6174.78	-0.0472638
6181.35	-0.0465242
6194.49	-0.0450145
6201.05	-0.0442451
6214.19	-0.042679
6220.76	-0.041883
6233.9	-0.0402667
6240.47	-0.0394472
6253.61	-0.0377873
6260.17	-0.0369477
6273.31	-0.0352512
6286.45	-0.0335344
6293.02	-0.0326694
6306.16	-0.0309284
6312.73	-0.0300532
6325.86	-0.0282957
6332.43	-0.0274143
6345.57	-0.0256482
6352.14	-0.0247644
6365.28	-0.0229976
6371.85	-0.0221155
6384.98	-0.020356
6391.55	-0.0194794
6404.69	-0.0177349
6411.26	-0.0168678
6424.4	-0.0151459
6430.97	-0.0142919
6444.1	-0.0125999
6450.67	-0.0117626
6463.81	-0.0101074
6470.38	-0.00929027
6483.52	-0.00767848
6490.09	-0.00688453
6503.22	-0.00532212
6516.36	-0.0037957
6522.93	-0.00304669
6536.07	-0.00157842
6542.64	-0.000859641
6555.77	0.00054606
6562.34	0.00123256
6575.48	0.00257193
6582.05	0.00322444
6595.19	0.00449439
6601.76	0.00511156
6614.89	0.00630973
6621.46	0.00689054
6634.6	0.00801526
6641.17	0.00855906
6654.31	0.00960937
6660.88	0.0101158
6674.01	0.0110915
6680.58	0.0115607
6693.72	0.012462
6700.29	0.0128943
6713.43	0.0137224
6726.57	0.0145025
6733.13	0.0148749
6746.27	0.0155848
6752.84	0.0159227
6765.98	0.0165649
6772.55	0.0168697
6785.69	0.0174472
6792.25	0.0177205
6805.39	0.0182368
6811.96	0.0184803
6825.1	0.0189391
6831.67	0.0191549
6844.81	0.0195602
6851.37	0.0197503
6864.51	0.0201064
6871.08	0.020273
6884.22	0.0205843
6890.79	0.0207295
6903.93	0.0210005
6910.49	0.0211267
6923.63	0.0213618
6930.2	0.0214712
6943.34	0.0216748
6956.48	0.0218598
6963.05	0.0219459
6976.18	0.0221065
6982.75	0.0221814
6995.89	0.0223214
7002.46	0.022387
7015.6	0.0225102
7022.17	0.0225683
7035.3	0.022678
7041.87	0.0227301
7055.01	0.0228293
7061.58	0.0228768
7074.72	0.0229682
7081.29	0.0230123
7094.43	0.0230981
7100.99	0.0231399
7114.13	0.0232219
7120.7	0.0232621
7133.84	0.0233417
7140.41	0.023381
7153.55	0.0234592
7160.11	0.023498
7173.25	0.0235754
7186.39	0.0236524
7192.96	0.0236908
7206.1	0.0237673
7212.67	0.0238054
7225.8	0.0238812
7232.37	0.0239188
7245.51	0.0239932
7252.08	0.02403
7265.22	0.0241023
7271.79	0.0241378
7284.93	0.0242071
7291.49	0.0242408
7304.63	0.024306
7311.2	0.0243374
7324.34	0.0243972
7330.91	0.0244256
7344.05	0.0244789
7350.61	0.0245036
7363.75	0.0245491
7370.32	0.0245696
7383.46	0.0246059
7390.03	0.0246215
7403.17	0.0246475
7416.3	0.0246658
7422.87	0.0246721
7436.01	0.0246782
7442.58	0.024678
7455.72	0.0246709
7462.29	0.0246638
7475.43	0.0246425
7481.99	0.0246281
7495.13	0.0245917
7501.7	0.0245696
7514.84	0.0245174
7521.41	0.0244872
7534.55	0.0244184
7541.12	0.0243798
7554.25	0.0242939
7560.82	0.0242465
7573.96	0.0241428
7580.53	0.0240864
7593.67	0.0239643
7600.24	0.0238986
7613.37	0.0237575
7626.51	0.0236035
7633.08	0.0235215
7646.22	0.0233475
7652.79	0.0232553
7665.93	0.0230605
7672.49	0.0229577
7685.63	0.0227414
7692.2	0.0226277
7705.34	0.022389
7711.91	0.0222639
7725.05	0.0220018
7731.62	0.0218648
7744.75	0.0215784
7751.32	0.0214289
7764.46	0.0211171
7771.03	0.0209546
7784.17	0.020616
7790.74	0.0204399
7803.87	0.0200734
7810.44	0.019883
7823.58	0.0194873
7830.15	0.0192819
7843.29	0.0188557
7856.43	0.0184085
7862.99	0.0181767
7876.13	0.0176967
7882.7	0.0174483
7895.84	0.0169344
7902.41	0.0166687
7915.55	0.0161196
7922.11	0.0158361
7935.25	0.0152509
7941.82	0.0149491
7954.96	0.0143268
7961.53	0.0140062
7974.67	0.0133462
7981.24	0.0130066
7994.37	0.0123083
8000.94	0.0119494
8014.08	0.0112125
8020.65	0.0108344
8033.79	0.010059
8040.36	0.00966162
8053.49	0.00884784
8060.06	0.00843146
8073.2	0.00757994
8086.34	0.00670374
8092.91	0.00625653
8106.05	0.00534424
8112.61	0.00487932
8125.75	0.00393237
8132.32	0.00345054
8145.46	0.00247069
8152.03	0.00197291
8165.17	0.000962242
8171.74	0.000449628
8184.87	-0.000589454
8191.44	-0.00111562
8204.58	-0.00218041
8211.15	-0.0027187
8224.29	-0.0038062
8230.86	-0.00435505
8243.99	-0.005462
8250.56	-0.00601972
8263.7	-0.00714262
8270.27	-0.00770739
8283.41	-0.00884252
8296.55	-0.00998366
8303.11	-0.0105559
8316.25	-0.0117027
8322.82	-0.0122768
8335.96	-0.0134252
8342.53	-0.013999
8355.67	-0.0151447
8362.24	-0.0157161
8375.37	-0.016855
8381.94	-0.017422
8395.08	-0.0185498
8401.65	-0.0191102
8414.79	-0.0202227
8421.36	-0.0207744
8434.49	-0.0218677
8441.06	-0.0224087
8454.2	-0.0234786
8460.77	-0.0240071
8473.91	-0.0250498
8480.48	-0.0255638
8493.61	-0.0265759
8500.18	-0.0270736
8513.32	-0.0280515
8526.46	-0.029005
8533.03	-0.0294721
8546.17	-0.0303863
8552.74	-0.0308332
8565.87	-0.0317055
8572.44	-0.0321308
8585.58	-0.032959
8592.15	-0.0333617
8605.29	-0.0341437
8611.86	-0.0345228
8624.99	-0.0352569
8631.56	-0.0356117
8644.7	-0.0362966
8651.27	-0.0366265
8664.41	-0.0372612
8670.98	-0.0375658
8684.12	-0.0381496
8690.68	-0.0384287
8703.82	-0.0389613
8710.39	-0.0392148
8723.53	-0.0396963
8730.1	-0.0399243
8743.24	-0.040355
8756.37	-0.0407522
8762.94	-0.0409383
8776.08	-0.041286
8782.65	-0.0414476
8795.79	-0.0417469
8802.36	-0.0418847
8815.49	-0.042137
8822.06	-0.0422517
8835.2	-0.0424586
8841.77	-0.042551
8854.91	-0.0427144
8861.48	-0.0427856
8874.62	-0.0429075
8881.18	-0.0429584
8894.32	-0.0430409
8900.89	-0.0430727
8914.03	-0.0431182
8920.6	-0.0431321
8933.74	-0.0431428
8940.31	-0.04314
8953.44	-0.0431186
8960.01	-0.0431003
8973.15	-0.0430492
8986.29	-0.0429798
8992.86	-0.0429385
9006	-0.0428435
9012.56	-0.0427902
9025.7	-0.0426723
9032.27	-0.042608
9045.41	-0.0424697
9051.98	-0.0423958
9065.12	-0.0422393
9071.69	-0.0421569
9084.82	-0.0419847
9091.39	-0.041895
9104.53	-0.0417091
9111.1	-0.0416132
9124.24	-0.0414159
9130.81	-0.0413147
9143.94	-0.0411078
9150.51	-0.0410024
9163.65	-0.0407878
9170.22	-0.040679
9183.36	-0.0404585
9196.5	-0.0402348
9203.07	-0.040122
9216.2	-0.0398949
9222.77	-0.0397807
9235.91	-0.0395513
9242.48	-0.0394363
9255.62	-0.0392058
9262.19	-0.0390905
9275.32	-0.0388599
9281.89	-0.0387448
9295.03	-0.0385149
9301.6	-0.0384003
9314.74	-0.0381718
9321.31	-0.038058
9334.44	-0.0378315
9341.01	-0.0377188
9354.15	-0.0374945
9360.72	-0.037383
9373.86	-0.0371612
9380.43	-0.037051
9393.57	-0.0368319
9400.13	-0.036723
9413.27	-0.0365065
9426.41	-0.0362917
9432.98	-0.0361848
9446.12	-0.0359723
9452.69	-0.0358665
9465.82	-0.0356558
9472.39	-0.0355509
9485.53	-0.0353417
9492.1	-0.0352373
9505.24	-0.035029
9511.81	-0.0349249
9524.95	-0.0347167
9531.51	-0.0346126
9544.65	-0.0344039
9551.22	-0.0342993
9564.36	-0.0340892
9570.93	-0.0339837
9584.07	-0.0337714
9590.63	-0.0336645
9603.77	-0.033449
9610.34	-0.0333403
9623.48	-0.0331206
9630.05	-0.0330095
9643.19	-0.0327846
9656.32	-0.0325557
9662.89	-0.0324396
9676.03	-0.0322037
9682.6	-0.0320839
9695.74	-0.0318402
9702.31	-0.0317162
9715.45	-0.0314636
9722.01	-0.031335
9735.15	-0.0310726
9741.72	-0.0309388
9754.86	-0.0306658
9761.43	-0.0305265
9774.57	-0.030242
9781.13	-0.0300968
9794.27	-0.0298002
9800.84	-0.0296487
9813.98	-0.0293393
9820.55	-0.0291814
9833.69	-0.0288588
9840.26	-0.0286941
9853.39	-0.0283579
9866.53	-0.0280124
9873.1	-0.0278362
9886.24	-0.0274768
9892.81	-0.0272936
9905.94	-0.0269203
9912.51	-0.0267301
9925.65	-0.0263429
9932.22	-0.0261458
9945.36	-0.025745
9951.93	-0.0255413
9965.07	-0.0251273
9971.63	-0.024917
9984.77	-0.0244903
9991.34	-0.0242739
10004.5	-0.0238351
10011	-0.0236129
10024.2	-0.0231628
10030.8	-0.0229352
10043.9	-0.0224747
10050.5	-0.0222421
10063.6	-0.0217723
10070.2	-0.0215352
10083.3	-0.0210571
10096.4	-0.0205741
10103	-0.0203309
10116.2	-0.0198415
10122.7	-0.0195955
10135.9	-0.0191011
10142.4	-0.0188529
10155.6	-0.0183549
10162.1	-0.0181052
10175.3	-0.0176048
10181.8	-0.0173544
10195	-0.0168532
10201.5	-0.0166026
10214.7	-0.0161021
10221.3	-0.0158522
10234.4	-0.0153538
10241	-0.0151053
10254.1	-0.0146104
10260.7	-0.0143642
10273.8	-0.0138743
10280.4	-0.0136309
10293.5	-0.0131476
10300.1	-0.0129078
10313.2	-0.0124325
10326.4	-0.0119631
10332.9	-0.0117309
10346.1	-0.0112719
10352.6	-0.0110451
10365.8	-0.0105976
10372.3	-0.0103769
10385.5	-0.00994213
10392	-0.00972814
10405.2	-0.00930729
10411.8	-0.00910054
10424.9	-0.00869469
10431.5	-0.00849568
10444.6	-0.00810579
10451.2	-0.00791499
10464.3	-0.00754192
10470.9	-0.00735972
10484	-0.00700422
10490.6	-0.00683097
10503.7	-0.00649365
10510.3	-0.00632963
10523.4	-0.00601099
10536.6	-0.00570501
10543.1	-0.00555681
10556.3	-0.00527004
10562.8	-0.00513148
10576	-0.00486405
10582.5	-0.00473517
10595.7	-0.00448708
10602.3	-0.00436786
10615.4	-0.00413899
10622	-0.00402932
10635.1	-0.00381944
10641.7	-0.00371918
10654.8	-0.00352791
10661.4	-0.00343686
10674.5	-0.00326376
10681.1	-0.00318166
10694.2	-0.00302619
10700.8	-0.00295275
10713.9	-0.0028143
10720.5	-0.00274921
10733.6	-0.00262711
10740.2	-0.00257003
10753.3	-0.00246358
10766.5	-0.00236718
10773	-0.00232264
10786.2	-0.0022407
10792.8	-0.00220322
10805.9	-0.00213505
10812.5	-0.00210429
10825.6	-0.00204921
10832.2	-0.00202484
10845.3	-0.00198225
10851.9	-0.00196397
10865	-0.00193331
10871.6	-0.00192088
10884.7	-0.00190167
10891.3	-0.00189485
10904.4	-0.00188669
10911	-0.00188532
10924.1	-0.0018879
10930.7	-0.00189184
10943.8	-0.00190495
10950.4	-0.00191411
10963.5	-0.00193761
10970.1	-0.00195195
10983.3	-0.0019858
10996.4	-0.00202656
11003	-0.00204953
11016.1	-0.00210069
11022.7	-0.0021289
11035.8	-0.00219058
11042.4	-0.00222408
11055.5	-0.00229642
11062.1	-0.00233528
11075.2	-0.00241842
11081.8	-0.00246271
11094.9	-0.00255678
11101.5	-0.00260656
11114.6	-0.00271164
11121.2	-0.00276694
11134.3	-0.00288305
11140.9	-0.00294385
11154	-0.00307092
11160.6	-0.00313717
11173.8	-0.00327502
11180.3	-0.00334658
11193.5	-0.00349487
11200	-0.00357155
11213.2	-0.00372981
11226.3	-0.00389436
11232.9	-0.00397889
11246	-0.0041522
11252.6	-0.00424087
11265.7	-0.00442196
11272.3	-0.00451424
11285.4	-0.00470192
11292	-0.00479716
11305.1	-0.00499003
11311.7	-0.00508749
11324.8	-0.00528396
11331.4	-0.00538278
11344.5	-0.00558105
11351.1	-0.00568029
11364.3	-0.00587838
11370.8	-0.005977
11384	-0.00617275
11390.5	-0.00626964
11403.7	-0.00646076
11410.2	-0.00655472
11423.4	-0.00673878
11436.5	-0.00691673
11443.1	-0.00700307
11456.2	-0.00716972
11462.8	-0.00724975
11475.9	-0.00740249
11482.5	-0.00747491
11495.6	-0.00761111
11502.2	-0.00767462
11515.3	-0.0077917
11521.9	-0.00784501
11535	-0.00794045
11541.6	-0.00798231
11554.8	-0.00805368
11561.3	-0.00808292
11574.5	-0.00812791
11581	-0.00814342
11594.2	-0.00815992
11600.7	-0.00816069
11613.9	-0.00814676
11620.4	-0.00813187
11633.6	-0.0080858
11640.1	-0.00805446
11653.3	-0.0079748
11666.4	-0.00787206
11673	-0.00781189
11686.1	-0.00767373
11692.7	-0.00759566
11705.8	-0.00742136
11712.4	-0.00732509
11725.5	-0.00711424
11732.1	-0.00699964
11745.3	-0.00675213
11751.8	-0.00661923
11765	-0.00633524
11771.5	-0.0061842
11784.7	-0.00586422
11791.2	-0.00569537
11804.4	-0.00534017
11810.9	-0.00515395
11824.1	-0.00476458
11830.6	-0.00456158
11843.8	-0.00413934
11850.4	-0.00392027
11863.5	-0.00346669
11870.1	-0.00323238
11883.2	-0.00274921
11896.3	-0.0022474
11902.9	-0.00198977
11916	-0.0014617
11922.6	-0.00119148
11935.8	-0.000639347
11942.3	-0.000357678
11955.5	0.000216203
11962	0.000508146
11975.2	0.00110136
11981.7	0.00140235
11994.9	0.00201242
12001.4	0.00232121
12014.6	0.00294561
12021.1	0.00326093
12034.3	0.00389713
12040.9	0.00421771
12054	0.00486317
12060.6	0.00518776
12073.7	0.00583997
12080.3	0.00616732
12093.4	0.00682382
12106.5	0.00748183
12113.1	0.00781108
12126.3	0.00846941
12132.8	0.00879823
12146	0.00945459
12152.5	0.00978187
12165.7	0.0104341
12172.2	0.0107587
12185.4	0.0114047
12191.9	0.0117257
12205.1	0.0123634
12211.6	0.0126798
12224.8	0.0133073
12231.4	0.0136182
12244.5	0.0142339
12251.1	0.0145384
12264.2	0.0151404
12270.8	0.0154378
12283.9	0.0160247
12290.5	0.0163142
12303.6	0.0168846
12310.2	0.0171654
12323.3	0.017718
12336.5	0.018258
12343	0.0185231
12356.2	0.0190433
12362.7	0.0192983
12375.9	0.0197978
12382.4	0.0200422
12395.6	0.0205201
12402.1	0.0207535
12415.3	0.0212091
12421.9	0.0214312
12435	0.0218638
12441.6	0.0220743
12454.7	0.0224835
12461.3	0.0226822
12474.4	0.0230676
12481	0.0232544
12494.1	0.0236159
12500.7	0.0237907
12513.8	0.0241282
12520.4	0.0242909
12533.5	0.0246045
12540.1	0.0247554
12553.2	0.0250453
12566.4	0.0253196
12572.9	0.025451
12586.1	0.0257023
12592.6	0.0258224
12605.8	0.0260513
12612.4	0.0261604
12625.5	0.0263677
12632.1	0.0264661
12645.2	0.0266528
12651.8	0.0267411
12664.9	0.026908
12671.5	0.0269867
12684.6	0.027135
12691.2	0.0272047
12704.3	0.0273356
12710.9	0.027397
12724	0.0275118
12730.6	0.0275654
12743.7	0.0276654
12750.3	0.027712
12763.4	0.0277988
12770	0.027839
12783.1	0.0279138
12796.3	0.0279814
12802.9	0.0280128
12816	0.0280708
12822.6	0.0280976
12835.7	0.0281474
12842.3	0.0281704
12855.4	0.0282131
12862	0.0282329
12875.1	0.0282698
12881.7	0.0282869
12894.8	0.0283189
12901.4	0.0283338
12914.5	0.0283617
12921.1	0.0283748
12934.2	0.0283993
12940.8	0.0284108
12953.9	0.0284324
12960.5	0.0284425
12973.7	0.0284612
12980.2	0.0284699
12993.4	0.0284858
13006.5	0.0284997
13013.1	0.0285057
13026.2	0.028516
13032.8	0.0285201
13045.9	0.0285259
13052.5	0.0285276
13065.6	0.0285279
13072.2	0.0285264
13085.3	0.0285198
13091.9	0.0285144
13105	0.0284991
13111.6	0.028489
13124.7	0.0284631
13131.3	0.0284471
13144.4	0.0284083
13151	0.0283852
13164.2	0.0283311
13170.7	0.0282997
13183.9	0.0282274
13190.4	0.0281863
13203.6	0.0280931
13210.1	0.0280407
13223.3	0.0279234
13236.4	0.0277884
13243	0.0277138
13256.1	0.0275494
13262.7	0.0274593
13275.8	0.0272623
13282.4	0.027155
13295.5	0.026922
13302.1	0.026796
13315.2	0.0265239
13321.8	0.0263774
13334.9	0.026063
13341.5	0.0258946
13354.7	0.0255349
13361.2	0.0253431
13374.4	0.0249352
13380.9	0.0247188
13394.1	0.0242602
13400.6	0.0240177
13413.8	0.0235061
13420.3	0.0232367
13433.5	0.02267
13440	0.0223726
13453.2	0.0217494
13466.3	0.0210877
13472.9	0.0207424
13486	0.0200223
13492.6	0.0196476
13505.7	0.0188688
13512.3	0.0184646
13525.4	0.017627
13532	0.0171935
13545.2	0.0162977
13551.7	0.0158353
13564.9	0.0148822
13571.4	0.0143916
13584.6	0.0133829
13591.1	0.012865
13604.3	0.0118028
13610.8	0.0112588
13624	0.0101457
13630.5	0.00957699
13643.7	0.0084162
13650.3	0.00782453
13663.4	0.00661972
13676.5	0.00538783
13683.1	0.00476234
13696.2	0.00349359
13702.8	0.00285086
13715.9	0.00155014
13722.5	0.000892731
13735.7	-0.00043467
13742.2	-0.00110403
13755.4	-0.00245246
13761.9	-0.00313087
13775.1	-0.00449437
13781.6	-0.00517878
13794.8	-0.00655113
13801.3	-0.00723836
13814.5	-0.00861314
13821	-0.00929994
13834.2	-0.0106706
13840.8	-0.0113536
13853.9	-0.0127134
13860.5	-0.0133893
13873.6	-0.0147316
13880.2	-0.0153971
13893.3	-0.016715
13906.4	-0.0180132
13913	-0.0186539
13926.2	-0.0199169
13932.7	-0.0205384
13945.9	-0.0217599
13952.4	-0.0223591
13965.6	-0.023533
13972.1	-0.024107
13985.3	-0.0252275
13991.8	-0.0257734
14005	-0.0268351
14011.5	-0.0273503
14024.7	-0.0283481
14031.3	-0.0288302
14044.4	-0.0297595
14051	-0.0302063
14064.1	-0.031063
14070.7	-0.0314725
14083.8	-0.032253
14090.4	-0.0326236
14103.5	-0.0333247
14110.1	-0.0336549
14123.2	-0.0342742
14136.4	-0.0348378
14142.9	-0.0350984
14156.1	-0.0355772
14162.6	-0.0357952
14175.8	-0.0361882
14182.3	-0.0363632
14195.5	-0.03667
14202	-0.0368018
14215.2	-0.0370227
14221.8	-0.0371117
14234.9	-0.0372472
14241.5	-0.0372939
14254.6	-0.0373454
14261.2	-0.0373505
14274.3	-0.0373199
14280.9	-0.0372844
14294	-0.0371739
14300.6	-0.0370991
14313.7	-0.0369114
14320.3	-0.0367988
14333.4	-0.036537
14346.6	-0.0362278
14353.1	-0.0360559
14366.3	-0.0356786
14372.8	-0.0354737
14386	-0.0350325
14392.6	-0.0347966
14405.7	-0.0342957
14412.3	-0.034031
14425.4	-0.0334748
14432	-0.0331837
14445.1	-0.0325767
14451.7	-0.0322615
14464.8	-0.0316086
14471.4	-0.0312715
14484.5	-0.0305774
14491.1	-0.0302209
14504.2	-0.0294903
14510.8	-0.0291168
14523.9	-0.0283545
14530.5	-0.0279663
14543.6	-0.0271769
14550.2	-0.0267763
14563.3	-0.0259644
14576.5	-0.02514
14583.1	-0.0247236
14596.2	-0.0238839
14602.8	-0.023461
14615.9	-0.0226101
14622.5	-0.0221826
14635.6	-0.0213245
14642.2	-0.0208942
14655.3	-0.0200325
14661.9	-0.0196014
14675	-0.0187396
14681.6	-0.0183093
14694.7	-0.0174506
14701.3	-0.0170226
14714.4	-0.0161701
14721	-0.0157459
14734.1	-0.0149022
14740.7	-0.0144831
14753.8	-0.0136509
14760.4	-0.013238
14773.6	-0.0124195
14780.1	-0.0120141
14793.3	-0.0112115
14806.4	-0.0104205
14813	-0.0100296
14826.1	-0.00925761
14832.7	-0.00887664
14845.8	-0.00812521
14852.4	-0.00775493
14865.5	-0.0070256
14872.1	-0.00666672
14885.2	-0.00596088
14891.8	-0.00561407
14904.9	-0.00493301
14911.5	-0.0045989
14924.6	-0.00394383
14931.2	-0.003623
14944.3	-0.00299508
14950.9	-0.00268811
14964.1	-0.00208848
14970.6	-0.00179594
14983.8	-0.00122571
14990.3	-0.000948162
15003.5	-0.000408496
15010	-0.000146512
15023.2	0.000361425
15036.3	0.00084753
15042.9	0.00108222
15056	0.00153451
15062.6	0.00175197
15075.7	0.0021691
15082.3	0.00236862
15095.4	0.00274916
15102	0.00293001
15115.1	0.00327242
15121.7	0.00343379
15134.8	0.00373643
15141.4	0.0038775
15154.6	0.00413862
15161.1	0.00425847
15174.3	0.00447623
15180.8	0.00457392
15194	0.00474636
15200.5	0.00482089
15213.7	0.00494597
15220.2	0.00499629
15233.4	0.0050719
15246.5	0.00511331
15253.1	0.00512088
15266.2	0.00510915
15272.8	0.0050896
15285.9	0.00502249
15292.5	0.00497469
15305.6	0.00484998
15312.2	0.00477283
15325.3	0.00458831
15331.9	0.00448071
15345.1	0.00423426
15351.6	0.00409518
15364.8	0.00378478
15371.3	0.00361324
15384.5	0.003237
15391	0.00303211
15404.2	0.00258834
15410.7	0.00234929
15423.9	0.00183653
15430.4	0.00156267
15443.6	0.000979714
15450.2	0.000670517
15463.3	1.64871e-05
15476.4	-0.000685242
15483	-0.00105404
15496.1	-0.0018275
15502.7	-0.00223216
15515.8	-0.00307721
15522.4	-0.00351754
15535.6	-0.00443357
15542.1	-0.00490915
15555.3	-0.00589505
15561.8	-0.0064052
15575	-0.00745936
15581.5	-0.00800314
15594.7	-0.00912339
15601.2	-0.00969957
15614.4	-0.0108832
15620.9	-0.0114903
15634.1	-0.0127339
15640.7	-0.0133701
15653.8	-0.0146699
15660.4	-0.015333
15673.5	-0.0166845
15680.1	-0.0173722
15693.2	-0.0187703
15706.3	-0.0201962
15712.9	-0.0209188
15726.1	-0.0223815
15732.6	-0.0231209
15745.8	-0.0246138
15752.3	-0.0253665
15765.5	-0.0268825
15772	-0.0276449
15785.2	-0.0291763
15791.7	-0.0299444
15804.9	-0.0314832
15811.4	-0.0322529
15824.6	-0.0337905
15831.2	-0.0345575
15844.3	-0.0360852
15850.9	-0.0368449
15864	-0.0383535
15870.6	-0.0391014
15883.7	-0.0405816
15890.3	-0.0413128
15903.4	-0.042755
15916.6	-0.0441664
15923.1	-0.0448593
15936.3	-0.0462167
15942.8	-0.0468801
15956	-0.0481737
15962.5	-0.0488029
15975.7	-0.0500232
15982.2	-0.0506134
15995.4	-0.051751
16001.9	-0.0522975
16015.1	-0.0533434
16021.7	-0.0538418
16034.8	-0.0547871
16041.4	-0.0552331
16054.5	-0.0560695
16061.1	-0.056459
16074.2	-0.0571785
16080.8	-0.0575078
16093.9	-0.0581032
16100.5	-0.0583687
16113.6	-0.0588334
16120.2	-0.059032
16133.3	-0.0593601
16146.5	-0.0595941
16153	-0.0596753
16166.2	-0.0597646
16172.7	-0.0597724
16185.9	-0.0597133
16192.4	-0.0596461
16205.6	-0.0594359
16212.2	-0.0592927
16225.3	-0.0589296
16231.9	-0.0587097
16245	-0.058193
16251.6	-0.0578963
16264.7	-0.0572264
16271.3	-0.0568533
16284.4	-0.0560315
16291	-0.0555831
16304.1	-0.0546119
16310.7	-0.0540895
16323.8	-0.0529724
16330.4	-0.0523781
16343.5	-0.0511197
16350.1	-0.050456
16363.2	-0.0490617
16376.4	-0.0475803
16382.9	-0.0468079
16396.1	-0.0452018
16402.7	-0.044369
16415.8	-0.0426462
16422.4	-0.0417571
16435.5	-0.0399261
16442.1	-0.0389852
16455.2	-0.0370552
16461.8	-0.0360673
16474.9	-0.0340482
16481.5	-0.0330181
16494.6	-0.0309201
16501.2	-0.0298533
16514.3	-0.0276869
16520.9	-0.0265885
16534	-0.0243646
16540.6	-0.0232402
16553.7	-0.0209697
16560.3	-0.0198247
16573.4	-0.0175185
16580	-0.0163585
16593.2	-0.0140274
16606.3	-0.0116858
16612.9	-0.0105125
16626	-0.00816381
16632.6	-0.00698953
16645.7	-0.00464396
16652.3	-0.00347377
16665.4	-0.00114126
16672	2.00007e-05
16685.1	0.00232993
16691.7	0.0034776
16704.8	0.00575585
16711.4	0.00688547
16724.5	0.00912337
16731.1	0.0102307
16744.2	0.01242
16750.8	0.0135011
16763.9	0.0156341
16770.5	0.0166851
16783.7	0.0187542
16790.2	0.0197716
16803.4	0.02177
16816.5	0.0237176
16823.1	0.0246714
16836.2	0.0265375
16842.8	0.027449
16855.9	0.0292276
16862.5	0.0300941
16875.6	0.0317796
16882.2	0.0325982
16895.3	0.0341856
16901.9	0.0349539
16915	0.0364383
16921.6	0.037154
16934.7	0.0385312
16941.3	0.0391923
16954.4	0.0404584
16961	0.0410631
16974.2	0.042215
16980.7	0.0427619
16993.9	0.0437969
17000.4	0.0442848
17013.6	0.0452009
17020.1	0.045629
17033.3	0.0464251
17046.4	0.0471408
17053	0.0474686
17066.1	0.0480639
17072.7	0.0483317
17085.8	0.0488075
17092.4	0.0490158
17105.5	0.0493738
17112.1	0.0495238
17125.2	0.0497665
17131.8	0.0498595
17144.9	0.0499901
17151.5	0.050028
17164.7	0.0500504
17171.2	0.0500354
17184.4	0.0499542
17190.9	0.0498886
17204.1	0.0497089
17210.6	0.0495954
17223.8	0.0493228
17230.3	0.0491643
17243.5	0.0488047
17250.1	0.0486043
17263.2	0.048164
17276.3	0.0476734
17282.9	0.0474102
17296	0.0468496
17302.6	0.0465529
17315.7	0.0459287
17322.3	0.045602
17335.4	0.0449207
17342	0.044567
17355.2	0.0438352
17361.7	0.0434577
17374.9	0.0426815
17381.4	0.0422834
17394.6	0.0414689
17401.1	0.0410533
17414.3	0.0402066
17420.8	0.0397763
17434	0.0389032
17440.6	0.0384611
17453.7	0.0375674
17460.3	0.0371164
17473.4	0.0362074
17486.5	0.0352914
17493.1	0.0348314
17506.2	0.0339091
17512.8	0.0334473
17525.9	0.0325237
17532.5	0.0320626
17545.7	0.0311428
17552.2	0.0306847
17565.4	0.0297735
17571.9	0.0293208
17585.1	0.0284226
17591.6	0.0279775
17604.8	0.0270967
17611.3	0.0266613
17624.5	0.0258018
17631.1	0.0253781
17644.2	0.0245436
17650.8	0.0241332
17663.9	0.0233271
17670.5	0.0229317
17683.6	0.0221568
17690.2	0.0217776
17703.3	0.0210364
17716.4	0.0203188
17723	0.0199691
17736.2	0.0192882
17742.7	0.0189572
17755.9	0.0183143
17762.4	0.0180024
17775.6	0.0173979
17782.1	0.0171053
17795.3	0.0165395
17801.8	0.0162661
17815	0.0157383
17821.6	0.0154838
17834.7	0.014993
17841.3	0.0147566
17854.4	0.0143012
17861	0.014082
17874.1	0.0136597
17880.7	0.0134564
17893.8	0.0130644
17900.4	0.0128754
17913.5	0.0125102
17920.1	0.0123335
17933.2	0.011991
17946.4	0.0116609
17952.9	0.0114998
17966.1	0.011184
17972.6	0.0110288
17985.8	0.0107217
17992.3	0.0105691
18005.5	0.0102644
18012.1	0.0101115
18025.2	0.00980244
18031.8	0.00964559
18044.9	0.00932526
18051.5	0.00916097
18064.6	0.00882215
18071.2	0.00864681
18084.3	0.00828229
18090.9	0.00809232
18104	0.00769505
18110.6	0.007487
18123.7	0.00705026
18130.3	0.00682089
18143.4	0.00633852
18150	0.00608492
18163.1	0.00555146
18176.3	0.00498136
18182.8	0.00468201
18196	0.00405381
18202.6	0.00372464
18215.7	0.0030356
18222.3	0.00267555
18235.4	0.00192417
18242	0.00153281
18255.1	0.000718868
18261.7	0.00029641
18274.8	-0.000578992
18281.4	-0.00103167
18294.5	-0.00196615
18301.1	-0.00244754
18314.2	-0.00343748
18320.8	-0.0039455
18333.9	-0.00498616
18340.5	-0.00551817
18353.6	-0.00660382
18360.2	-0.00715672
18373.3	-0.00828078
18386.5	-0.00942644
18393.1	-0.0100063
18406.2	-0.011178
18412.8	-0.011769
18425.9	-0.0129588
18432.5	-0.0135568
18445.6	-0.0147567
18452.2	-0.0153577
18465.3	-0.0165596
18471.9	-0.0171597
18485	-0.0183557
18491.6	-0.018951
18504.7	-0.0201338
18511.3	-0.0207206
18524.4	-0.0218832
18531	-0.0224583
18544.1	-0.0235945
18550.7	-0.024155
18563.8	-0.0252592
18570.4	-0.0258024
18583.6	-0.02687
18590.1	-0.0273939
18603.3	-0.0284209
18616.4	-0.0294192
18623	-0.0299073
18636.1	-0.0308606
18642.7	-0.0313258
18655.8	-0.0322327
18662.4	-0.0326744
18675.5	-0.0335341
18682.1	-0.0339521
18695.2	-0.0347648
18701.8	-0.0351594
18714.9	-0.0359256
18721.5	-0.0362974
18734.6	-0.0370186
18741.2	-0.0373682
18754.3	-0.0380461
18760.9	-0.0383747
18774.1	-0.0390115
18780.6	-0.0393202
18793.8	-0.0399185
18800.3	-0.0402085
18813.5	-0.040771
18820	-0.0410438
18833.2	-0.0415732
18846.3	-0.0420822
18852.9	-0.0423295
18866	-0.0428102
18872.6	-0.0430439
18885.7	-0.0434991
18892.3	-0.0437208
18905.4	-0.0441531
18912	-0.0443641
18925.1	-0.0447761
18931.7	-0.0449775
18944.8	-0.0453716
18951.4	-0.0455646
18964.6	-0.045943
18971.1	-0.0461287
18984.3	-0.0464936
18990.8	-0.046673
19004	-0.0470262
19010.5	-0.0472003
19023.7	-0.0475436
19030.2	-0.0477131
19043.4	-0.0480482
19056.5	-0.0483786
19063.1	-0.0485422
19076.2	-0.0488667
19082.8	-0.0490277
19095.9	-0.0493474
19102.5	-0.0495062
19115.6	-0.049822
19122.2	-0.0499791
19135.3	-0.0502918
19141.9	-0.0504474
19155.1	-0.0507573
19161.6	-0.0509115
19174.8	-0.0512186
19181.3	-0.0513715
19194.5	-0.0516755
19201	-0.0518266
19214.2	-0.0521267
19220.7	-0.0522756
19233.9	-0.0525706
19240.4	-0.0527165
19253.6	-0.0530046
19260.2	-0.0531465
19273.3	-0.0534253
19286.4	-0.0536964
19293	-0.0538286
19306.1	-0.0540854
19312.7	-0.0542096
19325.8	-0.0544484
19332.4	-0.0545626
19345.6	-0.0547792
19352.1	-0.0548812
19365.3	-0.055071
19371.8	-0.0551584
19385	-0.0553165
19391.5	-0.0553868
19404.7	-0.0555082
19411.2	-0.0555588
19424.4	-0.0556383
19430.9	-0.0556666
19444.1	-0.0556991
19450.7	-0.0557027
19463.8	-0.0556833
19470.4	-0.0556598
19483.5	-0.055584
19490.1	-0.0555312
19503.2	-0.0553951
19516.3	-0.0552168
19522.9	-0.0551115
19536.1	-0.0548679
19542.6	-0.0547294
19555.8	-0.0544186
19562.3	-0.0542462
19575.5	-0.0538674
19582	-0.0536609
19595.2	-0.0532143
19601.7	-0.0529743
19614.9	-0.0524612
19621.4	-0.0521884
19634.6	-0.0516113
19641.2	-0.0513074
19654.3	-0.0506697
19660.9	-0.0503366
19674	-0.0496429
19680.6	-0.049283
19693.7	-0.0485386
19700.3	-0.0481548
19713.4	-0.0473658
19726.6	-0.0465506
19733.1	-0.0461342
19746.3	-0.0452855
19752.8	-0.0448541
19766	-0.0439789
19772.5	-0.043536
19785.7	-0.0426414
19792.2	-0.0421904
19805.4	-0.0412832
19811.9	-0.0408275
19825.1	-0.039914
19831.7	-0.0394567
19844.8	-0.0385428
19851.4	-0.0380866
19864.5	-0.0371774
19871.1	-0.0367247
19884.2	-0.0358245
19890.8	-0.0353773
19903.9	-0.0344896
19910.5	-0.0340493
19923.6	-0.0331767
19930.2	-0.0327444
19943.3	-0.0318886
19956.5	-0.0310445
19963	-0.0306269
19976.2	-0.0298008
19982.7	-0.0293922
19995.9	-0.0285838
