0	0
10.3657	0
20.7315	0
31.0972	0
41.4629	0
51.8287	0
62.1944	0
72.5601	0
82.9259	0
93.2916	0
103.657	0
114.023	0
124.389	0
134.755	0
145.12	0
155.486	0
165.852	0
176.217	0
186.583	0
196.949	0
207.315	0
217.68	0
228.046	0
238.412	0
248.778	0
259.143	0
269.509	0
279.875	0
290.241	0
300.606	0
310.972	0
321.338	0
331.703	0
342.069	0
352.435	0
362.801	0
373.166	0
383.532	0
393.898	0
404.264	0
414.629	0
424.995	0
435.361	0
445.727	0
456.092	0
466.458	0
476.824	0
487.189	0
497.555	0
507.921	0
518.287	0
528.652	0
539.018	0
549.384	0
559.75	0
570.115	0
580.481	0
590.847	0
601.213	0
611.578	0
621.944	0
632.31	0
642.676	0
653.041	0
663.407	0
673.773	0
684.138	0
694.504	0
704.87	0
715.236	0
725.601	0
735.967	0
746.333	0
756.699	0
767.064	0
777.43	0
787.796	0
798.162	0
808.527	0
818.893	0
829.259	0
839.624	0
849.99	0
860.356	0
870.722	0
881.087	0
891.453	0
901.819	0
912.185	0
922.55	0
932.916	0
943.282	0
953.648	0
964.013	0
974.379	0
984.745	0
995.11	0
1005.48	0
1015.84	0
1026.21	0
1036.57	0
1046.94	0
1057.3	0
1067.67	0
1078.04	0
1088.4	0
1098.77	0
1109.13	0
1119.5	0
1129.86	0
1140.23	0
1150.6	0
1160.96	0
1171.33	0
1181.69	0
1192.06	0
1202.43	0
1212.79	0
1223.16	0
1233.52	0
1243.89	0
1254.25	0
1264.62	0
1274.99	0
1285.35	0
1295.72	0
1306.08	0
1316.45	0
1326.81	0
1337.18	0
1347.55	0
1357.91	0
1368.28	0
1378.64	0
1389.01	0
1399.37	0
1409.74	0
1420.11	0
1430.47	0
1440.84	0
1451.2	0
1461.57	0
1471.93	0
1482.3	0
1492.67	0
1503.03	0
1513.4	0
1523.76	0
1534.13	0
1544.49	0
1554.86	0
1565.23	0
1575.59	0
1585.96	0
1596.32	0
1606.69	0
1617.05	0
1627.42	0
1637.79	0
1648.15	0
1658.52	0
1668.88	0
1679.25	0
1689.61	0
1699.98	0
1710.35	0
1720.71	0
1731.08	0
1741.44	0
1751.81	0
1762.17	0
1772.54	0
1782.91	0
1793.27	0
1803.64	0
1814	0
1824.37	0
1834.73	0
1845.1	-9.09495e-13
1855.47	-1.81899e-12
1865.83	-3.63798e-12
1876.2	-6.36646e-12
1886.56	-1.18234e-11
1896.93	-2.00089e-11
1907.3	-3.36513e-11
1917.66	-5.72982e-11
1928.03	-9.3678e-11
1938.39	-1.53705e-10
1948.76	-2.50111e-10
1959.12	-4.02906e-10
1969.49	-6.42103e-10
1979.86	-1.01227e-09
1990.22	-1.58161e-09
2000.59	-2.44745e-09
2010.95	-3.75167e-09
2021.32	-5.6998e-09
2031.68	-8.5829e-09
2042.05	-1.28121e-08
2052.42	-1.89639e-08
2062.78	-2.78351e-08
2073.15	-4.05234e-08
2083.51	-5.85223e-08
2093.88	-8.38527e-08
2104.24	-1.19222e-07
2114.61	-1.6823e-07
2124.98	-2.35625e-07
2135.34	-3.27617e-07
2145.71	-4.52275e-07
2156.07	-6.19992e-07
2166.44	-8.44058e-07
2176.8	-1.14135e-06
2187.17	-1.53312e-06
2197.54	-2.04596e-06
2207.9	-2.71292e-06
2218.27	-3.57473e-06
2228.63	-4.68129e-06
2239	-6.09331e-06
2249.36	-7.8841e-06
2259.73	-1.01417e-05
2270.1	-1.29709e-05
2280.46	-1.6496e-05
2290.83	-2.08631e-05
2301.19	-2.62429e-05
2311.56	-3.2834e-05
2321.92	-4.08651e-05
2332.29	-5.05986e-05
2342.66	-6.23338e-05
2353.02	-7.64091e-05
2363.39	-9.32055e-05
2373.75	-0.000113149
2384.12	-0.000136713
2394.48	-0.000164421
2404.85	-0.000196845
2415.22	-0.000234611
2425.58	-0.000278398
2435.95	-0.000328933
2446.31	-0.000386998
2456.68	-0.00045342
2467.04	-0.000529075
2477.41	-0.000614877
2487.78	-0.00071178
2498.14	-0.000820768
2508.51	-0.000942846
2518.87	-0.00107904
2529.24	-0.00123037
2539.6	-0.00139788
2549.97	-0.00158256
2560.34	-0.00178541
2570.7	-0.00200736
2581.07	-0.00224931
2591.43	-0.00251209
2601.8	-0.00279644
2612.16	-0.00310301
2622.53	-0.00343233
2632.9	-0.00378481
2643.26	-0.00416072
2653.63	-0.00456015
2663.99	-0.00498305
2674.36	-0.00542913
2684.73	-0.00589795
2695.09	-0.00638879
2705.46	-0.00690071
2715.82	-0.00743253
2726.19	-0.00798277
2736.55	-0.00854966
2746.92	-0.00913114
2757.29	-0.00972481
2767.65	-0.0103279
2778.02	-0.0109373
2788.38	-0.0115496
2798.75	-0.0121609
2809.11	-0.0127667
2819.48	-0.0133625
2829.85	-0.013943
2840.21	-0.0145025
2850.58	-0.0150348
2860.94	-0.0155333
2871.31	-0.0159907
2881.67	-0.0163993
2892.04	-0.0167507
2902.41	-0.0170361
2912.77	-0.0172459
2923.14	-0.0173702
2933.5	-0.0173983
2943.87	-0.017319
2954.23	-0.0171205
2964.6	-0.0167906
2974.97	-0.0163163
2985.33	-0.0156845
2995.7	-0.0148813
3006.06	-0.0138925
3016.43	-0.0127037
3026.79	-0.0113001
3037.16	-0.00966672
3047.53	-0.00778844
3057.89	-0.00565016
3068.26	-0.00323686
3078.62	-0.000533699
3088.99	0.00247386
3099.35	0.00579992
3109.72	0.00945801
3120.09	0.013461
3130.45	0.0178208
3140.82	0.0225485
3151.18	0.0276539
3161.55	0.0331458
3171.91	0.0390313
3182.28	0.0453162
3192.64	0.0520045
3203.01	0.0590984
3213.38	0.0665982
3223.74	0.0745024
3234.11	0.0828071
3244.47	0.0915065
3254.84	0.100592
3265.2	0.110054
3275.57	0.119878
3285.94	0.130051
3296.3	0.140554
3306.67	0.151367
3317.03	0.162468
3327.4	0.173832
3337.76	0.185433
3348.13	0.197242
3358.49	0.209228
3368.86	0.221358
3379.23	0.233597
3389.59	0.245909
3399.96	0.258256
3410.32	0.270599
3420.69	0.282897
3431.05	0.295109
3441.42	0.307192
3451.78	0.319105
3462.15	0.330803
3472.52	0.342244
3482.88	0.353384
3493.25	0.36418
3503.61	0.374589
3513.98	0.38457
3524.34	0.394081
3534.71	0.403082
3545.07	0.411535
3555.44	0.419402
3565.8	0.426649
3576.17	0.43324
3586.54	0.439146
3596.9	0.444335
3607.27	0.448781
3617.63	0.45246
3628	0.45535
3638.36	0.45743
3648.73	0.458684
3659.09	0.4591
3669.46	0.458666
3679.82	0.457374
3690.19	0.455219
3700.55	0.452201
3710.92	0.448321
3721.29	0.443583
3731.65	0.437994
3742.02	0.431566
3752.38	0.424312
3762.75	0.416247
3773.11	0.407393
3783.48	0.39777
3793.84	0.387402
3804.21	0.376317
3814.57	0.364545
3824.94	0.352116
3835.3	0.339064
3845.67	0.325426
3856.03	0.311238
3866.4	0.296539
3876.77	0.28137
3887.13	0.265772
3897.5	0.249789
3907.86	0.233464
3918.23	0.216841
3928.59	0.199967
3938.96	0.182886
3949.32	0.165645
3959.69	0.148289
3970.05	0.130865
3980.42	0.113417
3990.78	0.0959923
4001.15	0.0786343
4011.51	0.0613873
4021.88	0.0442946
4032.24	0.0273985
4042.61	0.0107402
4052.98	-0.00564057
4063.34	-0.0217051
4073.71	-0.0374163
4084.07	-0.0527387
4094.44	-0.0676385
4104.8	-0.0820835
4115.17	-0.0960436
4125.53	-0.109491
4135.9	-0.122398
4146.26	-0.134742
4156.63	-0.146501
4166.99	-0.157654
4177.36	-0.168184
4187.73	-0.178076
4198.09	-0.187317
4208.46	-0.195897
4218.82	-0.203806
4229.19	-0.211039
4239.55	-0.217592
4249.92	-0.223464
4260.28	-0.228656
4270.65	-0.233171
4281.01	-0.237013
4291.38	-0.240192
4301.75	-0.242715
4312.11	-0.244595
4322.48	-0.245844
4332.84	-0.246479
4343.21	-0.246516
4353.57	-0.245974
4363.94	-0.244872
4374.3	-0.243233
4384.67	-0.241079
4395.04	-0.238433
4405.4	-0.235321
4415.77	-0.231769
4426.13	-0.227804
4436.5	-0.223451
4446.86	-0.21874
4457.23	-0.213698
4467.59	-0.208354
4477.96	-0.202735
4488.33	-0.196871
4498.69	-0.190789
4509.06	-0.184518
4519.42	-0.178086
4529.79	-0.171518
4540.15	-0.164842
4550.52	-0.158084
4560.89	-0.151269
4571.25	-0.144421
4581.62	-0.137563
4591.98	-0.130718
4602.35	-0.123907
4612.72	-0.117151
4623.08	-0.110468
4633.45	-0.103877
4643.81	-0.0973943
4654.18	-0.0910356
4664.54	-0.0848155
4674.91	-0.0787472
4685.27	-0.0728428
4695.64	-0.0671131
4706.01	-0.0615679
4716.37	-0.0562158
4726.74	-0.051064
4737.1	-0.0461191
4747.47	-0.0413863
4757.83	-0.0368698
4768.2	-0.0325729
4778.57	-0.0284979
4788.93	-0.0246463
4799.3	-0.0210186
4809.66	-0.0176147
4820.03	-0.0144335
4830.39	-0.0114733
4840.76	-0.00873182
4851.13	-0.00620605
4861.49	-0.00389247
4871.86	-0.00178702
4882.22	0.000114796
4892.59	0.00181793
4902.95	0.0033277
4913.32	0.00464974
4923.69	0.00579001
4934.05	0.00675469
4944.42	0.00755019
4954.78	0.0081831
4965.15	0.00866012
4975.51	0.00898807
4985.88	0.00917385
4996.25	0.00922438
5006.61	0.00914661
5016.98	0.00894745
5027.34	0.00863379
5037.71	0.00821245
5048.07	0.00769015
5058.44	0.00707352
5068.81	0.00636903
5079.17	0.00558305
5089.54	0.00472176
5099.9	0.0037912
5110.27	0.00279718
5120.63	0.00174537
5131	0.000641203
5141.37	-0.000510076
5151.73	-0.00170344
5162.1	-0.00293408
5172.46	-0.00419741
5182.83	-0.00548904
5193.19	-0.00680482
5203.56	-0.00814082
5213.93	-0.0094933
5224.29	-0.0108588
5234.66	-0.0122339
5245.02	-0.0136155
5255.39	-0.0150008
5265.75	-0.016387
5276.12	-0.0177715
5286.48	-0.019152
5296.85	-0.0205262
5307.22	-0.0218921
5317.58	-0.0232477
5327.95	-0.0245913
5338.31	-0.0259212
5348.68	-0.0272359
5359.04	-0.0285338
5369.41	-0.0298138
5379.78	-0.0310744
5390.14	-0.0323147
5400.51	-0.0335334
5410.87	-0.0347296
5421.24	-0.0359023
5431.6	-0.0370506
5441.97	-0.0381737
5452.34	-0.0392708
5462.7	-0.0403411
5473.07	-0.0413839
5483.43	-0.0423986
5493.8	-0.0433845
5504.16	-0.0443409
5514.53	-0.0452673
5524.9	-0.0461632
5535.26	-0.047028
5545.63	-0.0478612
5555.99	-0.0486623
5566.36	-0.0494309
5576.72	-0.0501665
5587.09	-0.0508688
5597.46	-0.0515375
5607.82	-0.052172
5618.19	-0.0527723
5628.55	-0.053338
5638.92	-0.0538688
5649.28	-0.0543646
5659.65	-0.0548252
5670.02	-0.0552504
5680.38	-0.0556403
5690.75	-0.0559946
5701.11	-0.0563135
5711.48	-0.0565969
5721.84	-0.0568448
5732.21	-0.0570575
5742.58	-0.0572349
5752.94	-0.0573774
5763.31	-0.0574851
5773.67	-0.0575582
5784.04	-0.057597
5794.4	-0.0576019
5804.77	-0.0575733
5815.14	-0.0575114
5825.5	-0.0574167
5835.87	-0.0572897
5846.23	-0.0571309
5856.6	-0.0569406
5866.96	-0.0567196
5877.33	-0.0564683
5887.7	-0.0561874
5898.06	-0.0558773
5908.43	-0.0555388
5918.79	-0.0551725
5929.16	-0.054779
5939.52	-0.0543591
5949.89	-0.0539134
5960.26	-0.0534427
5970.62	-0.0529476
5980.99	-0.052429
5991.35	-0.0518875
6001.72	-0.051324
6012.09	-0.0507392
6022.45	-0.0501339
6032.82	-0.0495089
6043.18	-0.0488651
6053.55	-0.0482032
6063.91	-0.0475241
6074.28	-0.0468287
6084.65	-0.0461177
6095.01	-0.045392
6105.38	-0.0446525
6115.74	-0.0439001
6126.11	-0.0431356
6136.47	-0.0423598
6146.84	-0.0415738
6157.21	-0.0407783
6167.57	-0.0399742
6177.94	-0.0391624
6188.3	-0.0383437
6198.67	-0.0375191
6209.03	-0.0366894
6219.4	-0.0358554
6229.77	-0.035018
6240.13	-0.034178
6250.5	-0.0333362
6260.86	-0.0324935
6271.23	-0.0316505
6281.59	-0.0308082
6291.96	-0.0299671
6302.33	-0.0291281
6312.69	-0.0282919
6323.06	-0.027459
6333.42	-0.0266301
6343.79	-0.0258059
6354.15	-0.024987
6364.52	-0.0241737
6374.89	-0.0233668
6385.25	-0.0225665
6395.62	-0.0217734
6405.98	-0.0209879
6416.35	-0.0202102
6426.71	-0.0194408
6437.08	-0.0186799
6447.45	-0.0179276
6457.81	-0.0171843
6468.18	-0.01645
6478.54	-0.0157248
6488.91	-0.0150089
6499.27	-0.0143022
6509.64	-0.0136047
6520.01	-0.0129165
6530.37	-0.0122373
6540.74	-0.0115671
6551.1	-0.0109057
6561.47	-0.010253
6571.83	-0.00960873
6582.2	-0.00897264
6592.57	-0.00834447
6602.93	-0.00772395
6613.3	-0.00711075
6623.66	-0.00650456
6634.03	-0.00590503
6644.39	-0.0053118
6654.76	-0.0047245
6665.13	-0.00414277
6675.49	-0.00356622
6685.86	-0.00299446
6696.22	-0.00242711
6706.59	-0.00186379
6716.95	-0.00130412
6727.32	-0.00074773
6737.69	-0.000194252
6748.05	0.000356662
6758.42	0.000905349
6768.78	0.00145213
6779.15	0.00199731
6789.52	0.00254118
6799.88	0.00308398
6810.25	0.00362598
6820.61	0.00416738
6830.98	0.00470836
6841.34	0.0052491
6851.71	0.00578973
6862.08	0.00633035
6872.44	0.00687103
6882.81	0.00741183
6893.17	0.00795275
6903.54	0.00849378
6913.9	0.00903486
6924.27	0.00957593
6934.64	0.0101169
6945	0.0106575
6955.37	0.0111977
6965.73	0.0117373
6976.1	0.0122759
6986.46	0.0128135
6996.83	0.0133495
7007.2	0.0138839
7017.56	0.0144161
7027.93	0.014946
7038.29	0.015473
7048.66	0.0159967
7059.02	0.0165168
7069.39	0.0170329
7079.76	0.0175444
7090.12	0.0180509
7100.49	0.0185519
7110.85	0.019047
7121.22	0.0195356
7131.58	0.0200172
7141.95	0.0204915
7152.32	0.0209578
7162.68	0.0214156
7173.05	0.0218645
7183.41	0.022304
7193.78	0.0227336
7204.14	0.0231528
7214.51	0.0235612
7224.88	0.0239583
7235.24	0.0243437
7245.61	0.0247169
7255.97	0.0250776
7266.34	0.0254253
7276.7	0.0257598
7287.07	0.0260806
7297.44	0.0263875
7307.8	0.0266801
7318.17	0.0269581
7328.53	0.0272214
7338.9	0.0274696
7349.26	0.0277025
7359.63	0.02792
7370	0.028122
7380.36	0.0283082
7390.73	0.0284786
7401.09	0.028633
7411.46	0.0287715
7421.82	0.028894
7432.19	0.0290004
7442.56	0.0290907
7452.92	0.0291651
7463.29	0.0292234
7473.65	0.0292659
7484.02	0.0292926
7494.38	0.0293035
7504.75	0.0292988
7515.12	0.0292787
7525.48	0.0292432
7535.85	0.0291926
7546.21	0.029127
7556.58	0.0290466
7566.94	0.0289516
7577.31	0.0288421
7587.68	0.0287184
7598.04	0.0285808
7608.41	0.0284293
7618.77	0.0282642
7629.14	0.0280858
7639.5	0.0278942
7649.87	0.0276897
7660.23	0.0274724
7670.6	0.0272425
7680.97	0.0270004
7691.33	0.026746
7701.7	0.0264797
7712.06	0.0262015
7722.43	0.0259117
7732.79	0.0256104
7743.16	0.0252978
7753.53	0.0249738
7763.89	0.0246388
7774.26	0.0242927
7784.62	0.0239357
7794.99	0.0235678
7805.35	0.0231892
7815.72	0.0227998
7826.09	0.0223996
7836.45	0.0219889
7846.82	0.0215674
7857.18	0.0211353
7867.55	0.0206926
7877.91	0.0202391
7888.28	0.0197751
7898.64	0.0193003
7909.01	0.0188148
7919.38	0.0183185
7929.74	0.0178115
7940.11	0.0172936
7950.47	0.016765
7960.84	0.0162254
7971.2	0.0156749
7981.57	0.0151136
7991.94	0.0145413
8002.3	0.0139581
8012.67	0.013364
8023.03	0.012759
8033.4	0.0121431
8043.76	0.0115164
8054.13	0.010879
8064.5	0.0102309
8074.86	0.00957221
8085.23	0.00890308
8095.59	0.00822363
8105.96	0.00753403
8116.32	0.00683444
8126.69	0.00612506
8137.06	0.00540613
8147.42	0.00467789
8157.79	0.00394061
8168.15	0.00319457
8178.52	0.0024401
8188.88	0.00167754
8199.25	0.000907238
8209.62	0.000129589
8219.98	-0.000655003
8230.35	-0.00144611
8240.71	-0.00224328
8251.08	-0.00304605
8261.44	-0.00385392
8271.81	-0.00466639
8282.17	-0.00548293
8292.54	-0.00630301
8302.91	-0.00712606
8313.27	-0.00795152
8323.64	-0.0087788
8334	-0.00960731
8344.37	-0.0104364
8354.73	-0.0112656
8365.1	-0.0120941
8375.47	-0.0129214
8385.83	-0.0137469
8396.2	-0.0145698
8406.56	-0.0153896
8416.93	-0.0162057
8427.29	-0.0170174
8437.66	-0.017824
8448.03	-0.0186251
8458.39	-0.0194198
8468.76	-0.0202078
8479.12	-0.0209883
8489.49	-0.0217607
8499.85	-0.0225246
8510.22	-0.0232793
8520.59	-0.0240243
8530.95	-0.0247591
8541.32	-0.0254831
8551.68	-0.0261959
8562.05	-0.026897
8572.41	-0.0275859
8582.78	-0.0282623
8593.15	-0.0289257
8603.51	-0.0295757
8613.88	-0.030212
8624.24	-0.0308342
8634.61	-0.031442
8644.97	-0.0320352
8655.34	-0.0326134
8665.71	-0.0331764
8676.07	-0.0337241
8686.44	-0.0342562
8696.8	-0.0347726
8707.17	-0.0352731
8717.53	-0.0357576
8727.9	-0.0362261
8738.27	-0.0366785
8748.63	-0.0371148
8759	-0.0375349
8769.36	-0.0379389
8779.73	-0.0383268
8790.09	-0.0386987
8800.46	-0.0390547
8810.83	-0.0393948
8821.19	-0.0397192
8831.56	-0.0400281
8841.92	-0.0403216
8852.29	-0.0405999
8862.65	-0.0408631
8873.02	-0.0411117
8883.39	-0.0413457
8893.75	-0.0415654
8904.12	-0.041771
8914.48	-0.041963
8924.85	-0.0421414
8935.21	-0.0423067
8945.58	-0.0424592
8955.95	-0.0425991
8966.31	-0.0427268
8976.68	-0.0428426
8987.04	-0.0429469
8997.41	-0.0430399
9007.77	-0.0431221
9018.14	-0.0431937
9028.51	-0.0432551
9038.87	-0.0433067
9049.24	-0.0433488
9059.6	-0.0433818
9069.97	-0.0434059
9080.33	-0.0434215
9090.7	-0.0434289
9101.07	-0.0434285
9111.43	-0.0434206
9121.8	-0.0434055
9132.16	-0.0433834
9142.53	-0.0433548
9152.89	-0.0433198
9163.26	-0.0432787
9173.63	-0.0432319
9183.99	-0.0431795
9194.36	-0.0431218
9204.72	-0.0430591
9215.09	-0.0429916
9225.45	-0.0429194
9235.82	-0.0428428
9246.19	-0.042762
9256.55	-0.0426771
9266.92	-0.0425883
9277.28	-0.0424957
9287.65	-0.0423995
9298.01	-0.0422998
9308.38	-0.0421968
9318.75	-0.0420904
9329.11	-0.0419808
9339.48	-0.041868
9349.84	-0.0417522
9360.21	-0.0416333
9370.57	-0.0415114
9380.94	-0.0413865
9391.31	-0.0412586
9401.67	-0.0411278
9412.04	-0.0409939
9422.4	-0.0408571
9432.77	-0.0407172
9443.13	-0.0405742
9453.5	-0.040428
9463.87	-0.0402787
9474.23	-0.0401261
9484.6	-0.0399702
9494.96	-0.0398109
9505.33	-0.0396481
9515.69	-0.0394817
9526.06	-0.0393116
9536.43	-0.0391377
9546.79	-0.0389599
9557.16	-0.0387781
9567.52	-0.0385922
9577.89	-0.0384021
9588.25	-0.0382077
9598.62	-0.0380088
9608.99	-0.0378054
9619.35	-0.0375973
9629.72	-0.0373845
9640.08	-0.0371667
9650.45	-0.036944
9660.81	-0.0367163
9671.18	-0.0364833
9681.55	-0.0362451
9691.91	-0.0360016
9702.28	-0.0357526
9712.64	-0.0354982
9723.01	-0.0352382
9733.37	-0.0349726
9743.74	-0.0347014
9754.11	-0.0344244
9764.47	-0.0341418
9774.84	-0.0338534
9785.2	-0.0335592
9795.57	-0.0332593
9805.93	-0.0329536
9816.3	-0.0326422
9826.67	-0.0323251
9837.03	-0.0320024
9847.4	-0.031674
9857.76	-0.0313401
9868.13	-0.0310007
9878.49	-0.0306559
9888.86	-0.0303059
9899.23	-0.0299506
9909.59	-0.0295903
9919.96	-0.029225
9930.32	-0.028855
9940.69	-0.0284802
9951.05	-0.028101
9961.42	-0.0277174
9971.79	-0.0273297
9982.15	-0.026938
9992.52	-0.0265425
10002.9	-0.0261435
10013.2	-0.0257411
10023.6	-0.0253355
10034	-0.0249271
10044.3	-0.0245159
10054.7	-0.0241024
10065.1	-0.0236866
10075.4	-0.0232689
10085.8	-0.0228496
10096.2	-0.0224288
10106.5	-0.0220069
10116.9	-0.0215841
10127.3	-0.0211607
10137.6	-0.020737
10148	-0.0203132
10158.4	-0.0198897
10168.7	-0.0194668
10179.1	-0.0190446
10189.5	-0.0186235
10199.8	-0.0182038
10210.2	-0.0177857
10220.6	-0.0173696
10230.9	-0.0169558
10241.3	-0.0165444
10251.7	-0.0161358
10262	-0.0157302
10272.4	-0.015328
10282.8	-0.0149293
10293.1	-0.0145345
10303.5	-0.0141438
10313.9	-0.0137574
10324.2	-0.0133756
10334.6	-0.0129986
10345	-0.0126267
10355.3	-0.0122601
10365.7	-0.0118989
10376	-0.0115435
10386.4	-0.011194
10396.8	-0.0108506
10407.1	-0.0105135
10417.5	-0.0101829
10427.9	-0.00985884
10438.2	-0.00954162
10448.6	-0.00923134
10459	-0.00892815
10469.3	-0.00863217
10479.7	-0.00834352
10490.1	-0.00806232
10500.4	-0.00778867
10510.8	-0.00752267
10521.2	-0.00726438
10531.5	-0.00701389
10541.9	-0.00677127
10552.3	-0.00653656
10562.6	-0.00630981
10573	-0.00609105
10583.4	-0.00588033
10593.7	-0.00567764
10604.1	-0.00548301
10614.5	-0.00529643
10624.8	-0.00511791
10635.2	-0.00494741
10645.6	-0.00478494
10655.9	-0.00463045
10666.3	-0.00448391
10676.7	-0.00434529
10687	-0.00421453
10697.4	-0.00409159
10707.8	-0.00397641
10718.1	-0.00386892
10728.5	-0.00376906
10738.8	-0.00367676
10749.2	-0.00359195
10759.6	-0.00351454
10769.9	-0.00344446
10780.3	-0.00338163
10790.7	-0.00332595
10801	-0.00327734
10811.4	-0.00323572
10821.8	-0.00320098
10832.1	-0.00317304
10842.5	-0.0031518
10852.9	-0.00313716
10863.2	-0.00312903
10873.6	-0.0031273
10884	-0.00313188
10894.3	-0.00314266
10904.7	-0.00315954
10915.1	-0.00318241
10925.4	-0.00321117
10935.8	-0.00324571
10946.2	-0.00328591
10956.5	-0.00333166
10966.9	-0.00338284
10977.3	-0.00343934
10987.6	-0.00350102
10998	-0.00356777
11008.4	-0.00363944
11018.7	-0.00371591
11029.1	-0.00379702
11039.5	-0.00388264
11049.8	-0.00397261
11060.2	-0.00406677
11070.6	-0.00416495
11080.9	-0.00426698
11091.3	-0.00437268
11101.7	-0.00448186
11112	-0.00459432
11122.4	-0.00470986
11132.7	-0.00482825
11143.1	-0.00494928
11153.5	-0.00507272
11163.8	-0.0051983
11174.2	-0.0053258
11184.6	-0.00545493
11194.9	-0.00558542
11205.3	-0.005717
11215.7	-0.00584936
11226	-0.0059822
11236.4	-0.00611522
11246.8	-0.00624808
11257.1	-0.00638045
11267.5	-0.00651199
11277.9	-0.00664234
11288.2	-0.00677116
11298.6	-0.00689807
11309	-0.0070227
11319.3	-0.00714467
11329.7	-0.00726359
11340.1	-0.00737906
11350.4	-0.0074907
11360.8	-0.0075981
11371.2	-0.00770087
11381.5	-0.00779858
11391.9	-0.00789085
11402.3	-0.00797726
11412.6	-0.00805741
11423	-0.00813089
11433.4	-0.00819731
11443.7	-0.00825627
11454.1	-0.00830738
11464.5	-0.00835026
11474.8	-0.00838452
11485.2	-0.00840981
11495.5	-0.00842575
11505.9	-0.00843201
11516.3	-0.00842824
11526.6	-0.00841412
11537	-0.00838934
11547.4	-0.0083536
11557.7	-0.00830662
11568.1	-0.00824814
11578.5	-0.0081779
11588.8	-0.00809569
11599.2	-0.00800128
11609.6	-0.00789449
11619.9	-0.00777514
11630.3	-0.00764308
11640.7	-0.00749818
11651	-0.00734034
11661.4	-0.00716946
11671.8	-0.00698549
11682.1	-0.00678838
11692.5	-0.00657811
11702.9	-0.00635468
11713.2	-0.00611812
11723.6	-0.00586849
11734	-0.00560585
11744.3	-0.0053303
11754.7	-0.00504195
11765.1	-0.00474095
11775.4	-0.00442745
11785.8	-0.00410164
11796.2	-0.00376373
11806.5	-0.00341394
11816.9	-0.0030525
11827.3	-0.00267969
11837.6	-0.00229579
11848	-0.0019011
11858.3	-0.00149593
11868.7	-0.00108063
11879.1	-0.000655537
11889.4	-0.000221019
11899.8	0.000222543
11910.2	0.000674758
11920.5	0.00113522
11930.9	0.00160352
11941.3	0.00207921
11951.6	0.00256188
11962	0.00305108
11972.4	0.00354634
11982.7	0.00404722
11993.1	0.00455325
12003.5	0.00506396
12013.8	0.00557888
12024.2	0.00609752
12034.6	0.00661942
12044.9	0.00714408
12055.3	0.00767105
12065.7	0.00819982
12076	0.00872993
12086.4	0.0092609
12096.8	0.00979227
12107.1	0.0103235
12117.5	0.0108543
12127.9	0.011384
12138.2	0.0119123
12148.6	0.0124387
12159	0.0129628
12169.3	0.0134841
12179.7	0.0140022
12190.1	0.0145168
12200.4	0.0150273
12210.8	0.0155335
12221.1	0.0160349
12231.5	0.0165312
12241.9	0.017022
12252.2	0.017507
12262.6	0.0179858
12273	0.0184582
12283.3	0.0189238
12293.7	0.0193824
12304.1	0.0198336
12314.4	0.0202772
12324.8	0.0207131
12335.2	0.0211408
12345.5	0.0215603
12355.9	0.0219714
12366.3	0.0223738
12376.6	0.0227674
12387	0.023152
12397.4	0.0235275
12407.7	0.0238938
12418.1	0.0242508
12428.5	0.0245984
12438.8	0.0249365
12449.2	0.0252651
12459.6	0.0255842
12469.9	0.0258936
12480.3	0.0261935
12490.7	0.0264837
12501	0.0267644
12511.4	0.0270355
12521.8	0.0272972
12532.1	0.0275494
12542.5	0.0277923
12552.9	0.0280259
12563.2	0.0282503
12573.6	0.0284657
12583.9	0.0286721
12594.3	0.0288697
12604.7	0.0290586
12615	0.029239
12625.4	0.029411
12635.8	0.0295748
12646.1	0.0297305
12656.5	0.0298784
12666.9	0.0300186
12677.2	0.0301512
12687.6	0.0302765
12698	0.0303947
12708.3	0.0305058
12718.7	0.0306102
12729.1	0.030708
12739.4	0.0307993
12749.8	0.0308844
12760.2	0.0309634
12770.5	0.0310365
12780.9	0.0311038
12791.3	0.0311656
12801.6	0.0312218
12812	0.0312727
12822.4	0.0313184
12832.7	0.031359
12843.1	0.0313946
12853.5	0.0314253
12863.8	0.0314511
12874.2	0.0314722
12884.6	0.0314885
12894.9	0.0315001
12905.3	0.0315069
12915.7	0.0315091
12926	0.0315065
12936.4	0.0314992
12946.7	0.031487
12957.1	0.0314698
12967.5	0.0314477
12977.8	0.0314204
12988.2	0.0313878
12998.6	0.0313499
13008.9	0.0313063
13019.3	0.0312569
13029.7	0.0312015
13040	0.0311399
13050.4	0.0310719
13060.8	0.0309971
13071.1	0.0309152
13081.5	0.0308261
13091.9	0.0307294
13102.2	0.0306247
13112.6	0.0305118
13123	0.0303902
13133.3	0.0302597
13143.7	0.0301198
13154.1	0.0299702
13164.4	0.0298105
13174.8	0.0296403
13185.2	0.0294592
13195.5	0.0292668
13205.9	0.0290628
13216.3	0.0288466
13226.6	0.028618
13237	0.0283765
13247.4	0.0281217
13257.7	0.0278533
13268.1	0.0275709
13278.5	0.0272741
13288.8	0.0269625
13299.2	0.0266358
13309.5	0.0262937
13319.9	0.0259359
13330.3	0.025562
13340.6	0.0251719
13351	0.0247651
13361.4	0.0243416
13371.7	0.0239011
13382.1	0.0234434
13392.5	0.0229683
13402.8	0.0224757
13413.2	0.0219656
13423.6	0.0214378
13433.9	0.0208923
13444.3	0.0203291
13454.7	0.0197482
13465	0.0191497
13475.4	0.0185336
13485.8	0.0179002
13496.1	0.0172494
13506.5	0.0165817
13516.9	0.0158971
13527.2	0.0151959
13537.6	0.0144785
13548	0.0137452
13558.3	0.0129964
13568.7	0.0122325
13579.1	0.0114539
13589.4	0.0106611
13599.8	0.0098547
13610.2	0.0090352
13620.5	0.00820319
13630.9	0.0073593
13641.3	0.00650419
13651.6	0.00563853
13662	0.00476304
13672.3	0.00387846
13682.7	0.00298556
13693.1	0.00208514
13703.4	0.00117801
13713.8	0.000265009
13724.2	-0.000652992
13734.5	-0.00157512
13744.9	-0.00250047
13755.3	-0.00342814
13765.6	-0.00435719
13776	-0.0052867
13786.4	-0.0062157
13796.7	-0.00714325
13807.1	-0.00806839
13817.5	-0.00899015
13827.8	-0.00990756
13838.2	-0.0108197
13848.6	-0.0117255
13858.9	-0.0126241
13869.3	-0.0135145
13879.7	-0.0143958
13890	-0.0152671
13900.4	-0.0161273
13910.8	-0.0169757
13921.1	-0.0178114
13931.5	-0.0186334
13941.9	-0.0194409
13952.2	-0.0202332
13962.6	-0.0210093
13973	-0.0217686
13983.3	-0.0225103
13993.7	-0.0232336
14004.1	-0.0239379
14014.4	-0.0246225
14024.8	-0.0252868
14035.1	-0.0259302
14045.5	-0.0265522
14055.9	-0.0271521
14066.2	-0.0277296
14076.6	-0.0282842
14087	-0.0288155
14097.3	-0.0293231
14107.7	-0.0298067
14118.1	-0.030266
14128.4	-0.0307007
14138.8	-0.0311106
14149.2	-0.0314956
14159.5	-0.0318555
14169.9	-0.0321903
14180.3	-0.0324998
14190.6	-0.032784
14201	-0.033043
14211.4	-0.0332769
14221.7	-0.0334857
14232.1	-0.0336695
14242.5	-0.0338286
14252.8	-0.0339631
14263.2	-0.0340732
14273.6	-0.0341593
14283.9	-0.0342216
14294.3	-0.0342605
14304.7	-0.0342762
14315	-0.0342693
14325.4	-0.0342401
14335.8	-0.034189
14346.1	-0.0341165
14356.5	-0.0340232
14366.9	-0.0339094
14377.2	-0.0337757
14387.6	-0.0336227
14398	-0.0334509
14408.3	-0.0332609
14418.7	-0.0330533
14429	-0.0328287
14439.4	-0.0325876
14449.8	-0.0323307
14460.1	-0.0320587
14470.5	-0.0317721
14480.9	-0.0314716
14491.2	-0.0311578
14501.6	-0.0308315
14512	-0.0304931
14522.3	-0.0301434
14532.7	-0.0297831
14543.1	-0.0294127
14553.4	-0.0290329
14563.8	-0.0286443
14574.2	-0.0282476
14584.5	-0.0278435
14594.9	-0.0274324
14605.3	-0.027015
14615.6	-0.026592
14626	-0.026164
14636.4	-0.0257314
14646.7	-0.025295
14657.1	-0.0248552
14667.5	-0.0244126
14677.8	-0.0239679
14688.2	-0.0235214
14698.6	-0.0230738
14708.9	-0.0226256
14719.3	-0.0221772
14729.7	-0.0217293
14740	-0.0212822
14750.4	-0.0208364
14760.8	-0.0203925
14771.1	-0.0199508
14781.5	-0.0195119
14791.8	-0.0190761
14802.2	-0.0186439
14812.6	-0.0182157
14822.9	-0.017792
14833.3	-0.0173731
14843.7	-0.0169594
14854	-0.0165514
14864.4	-0.0161494
14874.8	-0.0157538
14885.1	-0.0153649
14895.5	-0.0149833
14905.9	-0.0146091
14916.2	-0.0142428
14926.6	-0.0138847
14937	-0.0135352
14947.3	-0.0131947
14957.7	-0.0128634
14968.1	-0.0125418
14978.4	-0.0122301
14988.8	-0.0119288
14999.2	-0.0116381
15009.5	-0.0113585
15019.9	-0.0110901
15030.3	-0.0108335
15040.6	-0.0105889
15051	-0.0103566
15061.4	-0.010137
15071.7	-0.00993048
15082.1	-0.00973727
15092.5	-0.00955773
15102.8	-0.0093922
15113.2	-0.009241
15123.6	-0.00910445
15133.9	-0.00898288
15144.3	-0.00887659
15154.6	-0.00878589
15165	-0.00871109
15175.4	-0.00865249
15185.7	-0.00861039
15196.1	-0.00858507
15206.5	-0.0085768
15216.8	-0.00858585
15227.2	-0.0086125
15237.6	-0.00865697
15247.9	-0.00871952
15258.3	-0.00880036
15268.7	-0.00889971
15279	-0.00901776
15289.4	-0.00915469
15299.8	-0.00931067
15310.1	-0.00948584
15320.5	-0.00968032
15330.9	-0.00989423
15341.2	-0.0101276
15351.6	-0.0103806
15362	-0.0106532
15372.3	-0.0109454
15382.7	-0.0112572
15393.1	-0.0115886
15403.4	-0.0119395
15413.8	-0.0123098
15424.2	-0.0126993
15434.5	-0.013108
15444.9	-0.0135356
15455.3	-0.013982
15465.6	-0.0144468
15476	-0.0149297
15486.4	-0.0154305
15496.7	-0.0159489
15507.1	-0.0164843
15517.4	-0.0170364
15527.8	-0.0176046
15538.2	-0.0181886
15548.5	-0.0187878
15558.9	-0.0194015
15569.3	-0.0200293
15579.6	-0.0206703
15590	-0.021324
15600.4	-0.0219896
15610.7	-0.0226663
15621.1	-0.0233534
15631.5	-0.02405
15641.8	-0.0247553
15652.2	-0.0254684
15662.6	-0.0261883
15672.9	-0.0269141
15683.3	-0.0276447
15693.7	-0.0283792
15704	-0.0291165
15714.4	-0.0298555
15724.8	-0.0305952
15735.1	-0.0313343
15745.5	-0.0320718
15755.9	-0.0328065
15766.2	-0.0335372
15776.6	-0.0342626
15787	-0.0349817
15797.3	-0.035693
15807.7	-0.0363955
15818.1	-0.0370878
15828.4	-0.0377687
15838.8	-0.0384369
15849.2	-0.0390913
15859.5	-0.0397304
15869.9	-0.0403531
15880.3	-0.0409581
15890.6	-0.0415443
15901	-0.0421102
15911.3	-0.0426548
15921.7	-0.0431769
15932.1	-0.0436752
15942.4	-0.0441487
15952.8	-0.0445961
15963.2	-0.0450165
15973.5	-0.0454086
15983.9	-0.0457715
15994.3	-0.0461041
16004.6	-0.0464056
16015	-0.0466749
16025.4	-0.0469111
16035.7	-0.0471135
16046.1	-0.0472811
16056.5	-0.0474133
16066.8	-0.0475094
16077.2	-0.0475686
16087.6	-0.0475904
16097.9	-0.0475742
16108.3	-0.0475196
16118.7	-0.0474261
16129	-0.0472932
16139.4	-0.0471208
16149.8	-0.0469085
16160.1	-0.0466561
16170.5	-0.0463635
16180.9	-0.0460307
16191.2	-0.0456575
16201.6	-0.0452441
16212	-0.0447906
16222.3	-0.0442972
16232.7	-0.043764
16243.1	-0.0431914
16253.4	-0.0425798
16263.8	-0.0419296
16274.1	-0.0412413
16284.5	-0.0405155
16294.9	-0.0397526
16305.2	-0.0389535
16315.6	-0.0381188
16326	-0.0372494
16336.3	-0.036346
16346.7	-0.0354096
16357.1	-0.034441
16367.4	-0.0334414
16377.8	-0.0324116
16388.2	-0.0313528
16398.5	-0.0302661
16408.9	-0.0291528
16419.3	-0.0280139
16429.6	-0.0268507
16440	-0.0256645
16450.4	-0.0244565
16460.7	-0.0232282
16471.1	-0.0219809
16481.5	-0.0207159
16491.8	-0.0194347
16502.2	-0.0181387
16512.6	-0.0168292
16522.9	-0.0155078
16533.3	-0.0141759
16543.7	-0.0128349
16554	-0.0114863
16564.4	-0.0101316
16574.8	-0.00877226
16585.1	-0.00740969
16595.5	-0.00604535
16605.9	-0.00468069
16616.2	-0.00331712
16626.6	-0.00195607
16636.9	-0.000598924
16647.3	0.000752946
16657.7	0.00209819
16668	0.00343547
16678.4	0.00476349
16688.8	0.00608099
16699.1	0.00738671
16709.5	0.00867945
16719.9	0.00995803
16730.2	0.0112213
16740.6	0.0124682
16751	0.0136976
16761.3	0.0149085
16771.7	0.0161
16782.1	0.017271
16792.4	0.0184207
16802.8	0.0195483
16813.2	0.0206528
16823.5	0.0217337
16833.9	0.02279
16844.3	0.0238212
16854.6	0.0248267
16865	0.0258058
16875.4	0.026758
16885.7	0.0276829
16896.1	0.02858
16906.5	0.0294488
16916.8	0.0302892
16927.2	0.0311006
16937.6	0.031883
16947.9	0.0326361
16958.3	0.0333596
16968.7	0.0340536
16979	0.0347178
16989.4	0.0353523
16999.7	0.035957
17010.1	0.0365321
17020.5	0.0370775
17030.8	0.0375933
17041.2	0.0380798
17051.6	0.038537
17061.9	0.0389652
17072.3	0.0393647
17082.7	0.0397356
17093	0.0400784
17103.4	0.0403933
17113.8	0.0406807
17124.1	0.040941
17134.5	0.0411745
17144.9	0.0413817
17155.2	0.0415631
17165.6	0.041719
17176	0.04185
17186.3	0.0419566
17196.7	0.0420392
17207.1	0.0420985
17217.4	0.0421348
17227.8	0.0421488
17238.2	0.042141
17248.5	0.042112
17258.9	0.0420624
17269.3	0.0419926
17279.6	0.0419034
17290	0.0417952
17300.4	0.0416686
17310.7	0.0415243
17321.1	0.0413628
17331.5	0.0411847
17341.8	0.0409906
17352.2	0.040781
17362.5	0.0405565
17372.9	0.0403177
17383.3	0.0400651
17393.6	0.0397994
17404	0.039521
17414.4	0.0392305
17424.7	0.0389285
17435.1	0.0386154
17445.5	0.0382919
17455.8	0.0379583
17466.2	0.0376152
17476.6	0.0372632
17486.9	0.0369026
17497.3	0.0365339
17507.7	0.0361577
17518	0.0357744
17528.4	0.0353844
17538.8	0.0349882
17549.1	0.0345861
17559.5	0.0341786
17569.9	0.033766
17580.2	0.0333489
17590.6	0.0329275
17601	0.0325022
17611.3	0.0320733
17621.7	0.0316413
17632.1	0.0312064
17642.4	0.030769
17652.8	0.0303294
17663.2	0.0298878
17673.5	0.0294446
17683.9	0.029
17694.3	0.0285544
17704.6	0.0281079
17715	0.0276609
17725.4	0.0272135
17735.7	0.026766
17746.1	0.0263186
17756.4	0.0258715
17766.8	0.0254249
17777.2	0.024979
17787.5	0.024534
17797.9	0.02409
17808.3	0.0236472
17818.6	0.0232058
17829	0.0227659
17839.4	0.0223276
17849.7	0.021891
17860.1	0.0214564
17870.5	0.0210237
17880.8	0.020593
17891.2	0.0201646
17901.6	0.0197384
17911.9	0.0193145
17922.3	0.0188929
17932.7	0.0184738
17943	0.0180572
17953.4	0.0176431
17963.8	0.0172316
17974.1	0.0168227
17984.5	0.0164163
17994.9	0.0160125
18005.2	0.0156114
18015.6	0.0152128
18026	0.0148169
18036.3	0.0144235
18046.7	0.0140326
18057.1	0.0136442
18067.4	0.0132583
18077.8	0.0128748
18088.2	0.0124937
18098.5	0.0121149
18108.9	0.0117383
18119.2	0.0113638
18129.6	0.0109915
18140	0.0106211
18150.3	0.0102526
18160.7	0.00988599
18171.1	0.00952106
18181.4	0.00915774
18191.8	0.00879592
18202.2	0.00843549
18212.5	0.00807633
18222.9	0.00771834
18233.3	0.00736137
18243.6	0.00700532
18254	0.00665005
18264.4	0.00629544
18274.7	0.00594135
18285.1	0.00558765
18295.5	0.00523421
18305.8	0.00488089
18316.2	0.00452757
18326.6	0.0041741
18336.9	0.00382037
18347.3	0.00346622
18357.7	0.00311154
18368	0.0027562
18378.4	0.00240006
18388.8	0.00204302
18399.1	0.00168494
18409.5	0.00132572
18419.9	0.000965234
18430.2	0.000603385
18440.6	0.000240067
18451	-0.000124816
18461.3	-0.000491355
18471.7	-0.000859635
18482	-0.00122973
18492.4	-0.00160172
18502.8	-0.00197567
18513.1	-0.00235162
18523.5	-0.00272963
18533.9	-0.00310973
18544.2	-0.00349196
18554.6	-0.00387634
18565	-0.00426288
18575.3	-0.00465158
18585.7	-0.00504243
18596.1	-0.00543542
18606.4	-0.00583052
18616.8	-0.00622768
18627.2	-0.00662686
18637.5	-0.007028
18647.9	-0.00743102
18658.3	-0.00783584
18668.6	-0.00824237
18679	-0.0086505
18689.4	-0.00906011
18699.7	-0.00947108
18710.1	-0.00988326
18720.5	-0.0102965
18730.8	-0.0107107
18741.2	-0.0111255
18751.6	-0.011541
18761.9	-0.0119567
18772.3	-0.0123727
18782.7	-0.0127885
18793	-0.0132041
18803.4	-0.0136191
18813.8	-0.0140334
18824.1	-0.0144466
18834.5	-0.0148586
18844.8	-0.015269
18855.2	-0.0156775
18865.6	-0.016084
18875.9	-0.016488
18886.3	-0.0168893
18896.7	-0.0172877
18907	-0.0176827
18917.4	-0.0180741
18927.8	-0.0184615
18938.1	-0.0188447
18948.5	-0.0192232
18958.9	-0.0195969
18969.2	-0.0199653
18979.6	-0.0203281
18990	-0.0206851
19000.3	-0.0210358
19010.7	-0.0213799
19021.1	-0.0217172
19031.4	-0.0220472
19041.8	-0.0223698
19052.2	-0.0226845
19062.5	-0.0229911
19072.9	-0.0232892
19083.3	-0.0235785
19093.6	-0.0238588
19104	-0.0241298
19114.4	-0.0243911
19124.7	-0.0246426
19135.1	-0.0248839
19145.5	-0.0251149
19155.8	-0.0253352
19166.2	-0.0255446
19176.6	-0.025743
19186.9	-0.0259301
19197.3	-0.0261057
19207.6	-0.0262696
19218	-0.0264218
19228.4	-0.0265619
19238.7	-0.02669
19249.1	-0.0268058
19259.5	-0.0269093
19269.8	-0.0270003
19280.2	-0.0270789
19290.6	-0.0271448
19300.9	-0.0271982
19311.3	-0.0272389
19321.7	-0.027267
19332	-0.0272824
19342.4	-0.0272852
19352.8	-0.0272754
19363.1	-0.0272531
19373.5	-0.0272183
19383.9	-0.0271712
19394.2	-0.0271118
19404.6	-0.0270403
19415	-0.0269567
19425.3	-0.0268614
19435.7	-0.0267543
19446.1	-0.0266358
19456.4	-0.026506
19466.8	-0.0263652
19477.2	-0.0262135
19487.5	-0.0260512
19497.9	-0.0258786
19508.3	-0.0256959
19518.6	-0.0255035
19529	-0.0253015
19539.4	-0.0250904
19549.7	-0.0248705
19560.1	-0.024642
19570.5	-0.0244054
19580.8	-0.0241609
19591.2	-0.0239089
19601.5	-0.0236498
19611.9	-0.023384
19622.3	-0.0231118
19632.6	-0.0228335
19643	-0.0225497
19653.4	-0.0222607
19663.7	-0.0219668
19674.1	-0.0216685
19684.5	-0.0213662
19694.8	-0.0210603
19705.2	-0.0207511
19715.6	-0.020439
19725.9	-0.0201245
19736.3	-0.0198079
19746.7	-0.0194897
19757	-0.0191702
19767.4	-0.0188498
19777.8	-0.0185288
19788.1	-0.0182077
19798.5	-0.0178867
19808.9	-0.0175663
19819.2	-0.0172468
19829.6	-0.0169286
19840	-0.0166119
19850.3	-0.0162971
19860.7	-0.0159844
19871.1	-0.0156742
19881.4	-0.0153668
19891.8	-0.0150625
19902.2	-0.0147614
19912.5	-0.0144639
19922.9	-0.0141701
19933.3	-0.0138803
19943.6	-0.0135947
19954	-0.0133135
19964.3	-0.0130369
19974.7	-0.012765
19985.1	-0.012498
19995.4	-0.012236
