MODE: ipmo_prog0
PARCOUNT: 15
PROBLEMS: 1
Running on INWEST
Using iPMO

Programs:
 + ../../build/sierpi_intel_ipmo_tsunami_parallel_release  -u 10 -U 10 -T 1000 -n 40 -d 12
 + ../../build/sierpi_intel_ipmo_tsunami_parallel_release  -u 10 -U 10 -T 1000 -n 40 -d 12
 + ../../build/sierpi_intel_ipmo_tsunami_parallel_release  -u 10 -U 10 -T 1000 -n 40 -d 10
 + ../../build/sierpi_intel_ipmo_tsunami_parallel_release  -u 10 -U 10 -T 1000 -n 40 -d 12
 + ../../build/sierpi_intel_ipmo_tsunami_parallel_release  -u 10 -U 10 -T 1000 -n 40 -d 10

Sat Mar 31 15:28:51 CEST 2012
iPMO: Prog0 parallel execution with ipmo (15 times)
Waiting for job 53682
53685: CHANGING RESSOURCES
53685: CHANGING RESSOURCES
53690: CHANGING RESSOURCES
53689: CHANGING RESSOURCES
53693: CHANGING RESSOURCES
53692: CHANGING RESSOURCES
53694: CHANGING RESSOURCES
53691: CHANGING RESSOURCES
53696: CHANGING RESSOURCES
53682: CHANGING RESSOURCES
53688: CHANGING RESSOURCES
53695: CHANGING RESSOURCES
53683: CHANGING RESSOURCES
53686: CHANGING RESSOURCES
53687: CHANGING RESSOURCES
53684: CHANGING RESSOURCES

 + Terminating after 1000 timesteps with equal number of triangles -> EXIT
 + Final timestep: 6749

6750 TS (Timesteps)
715.114 ST (SIMULATION_TIME)
0.100037 TSS (Timestep size)
50.038 SFS (Overall seconds for Simulation)
437983904 TP (Triangles processed)
0.00741303 ASPT (Averaged Seconds per Timestep)
64886.5 TPST (Triangles Processed in Average per Simulation Timestep)
48.6681 PPST (Clusters Processed in Average per Simulation Timestep)
8.75303 MTPS (Million Triangles per Second)
-8.75303 MTPSPT (Million Triangles per Second per Thread)
1.98018 EDMBPT (ElementData Megabyte per Timestep (RW))
267.121 EDMBPS (ElementData Megabyte per Second (RW))
SUM CLIENT SHUTDOWN HINT: 437.984
SUM CLIENT SHUTDOWN HINT DIV TIME: 0
53688: CHANGING RESSOURCES
53683: CHANGING RESSOURCES
53691: CHANGING RESSOURCES

 + Terminating after 1000 timesteps with equal number of triangles -> EXIT
 + Final timestep: 6749

6750 TS (Timesteps)
715.114 ST (SIMULATION_TIME)
0.100037 TSS (Timestep size)
50.185 SFS (Overall seconds for Simulation)
437983904 TP (Triangles processed)
0.00743481 ASPT (Averaged Seconds per Timestep)
64886.5 TPST (Triangles Processed in Average per Simulation Timestep)
48.6681 PPST (Clusters Processed in Average per Simulation Timestep)
8.72739 MTPS (Million Triangles per Second)
-8.72739 MTPSPT (Million Triangles per Second per Thread)
1.98018 EDMBPT (ElementData Megabyte per Timestep (RW))
266.339 EDMBPS (ElementData Megabyte per Second (RW))
SUM CLIENT SHUTDOWN HINT: 875.968
SUM CLIENT SHUTDOWN HINT DIV TIME: 0
53694: CHANGING RESSOURCES
53684: CHANGING RESSOURCES
Waiting for job 53683

 + Terminating after 1000 timesteps with equal number of triangles -> EXIT
 + Final timestep: 6749

6750 TS (Timesteps)
715.114 ST (SIMULATION_TIME)
0.100037 TSS (Timestep size)
50.4222 SFS (Overall seconds for Simulation)
437983904 TP (Triangles processed)
0.00746995 ASPT (Averaged Seconds per Timestep)
64886.5 TPST (Triangles Processed in Average per Simulation Timestep)
48.6681 PPST (Clusters Processed in Average per Simulation Timestep)
8.68634 MTPS (Million Triangles per Second)
-8.68634 MTPSPT (Million Triangles per Second per Thread)
1.98018 EDMBPT (ElementData Megabyte per Timestep (RW))
265.086 EDMBPS (ElementData Megabyte per Second (RW))
SUM CLIENT SHUTDOWN HINT: 1313.95
SUM CLIENT SHUTDOWN HINT DIV TIME: 0
53690: CHANGING RESSOURCES
53685: CHANGING RESSOURCES

 + Terminating after 1000 timesteps with equal number of triangles -> EXIT
 + Final timestep: 6749

6750 TS (Timesteps)
715.114 ST (SIMULATION_TIME)
0.100037 TSS (Timestep size)
50.4646 SFS (Overall seconds for Simulation)
437983904 TP (Triangles processed)
0.00747624 ASPT (Averaged Seconds per Timestep)
64886.5 TPST (Triangles Processed in Average per Simulation Timestep)
48.6681 PPST (Clusters Processed in Average per Simulation Timestep)
8.67903 MTPS (Million Triangles per Second)
-8.67903 MTPSPT (Million Triangles per Second per Thread)
1.98018 EDMBPT (ElementData Megabyte per Timestep (RW))
264.863 EDMBPS (ElementData Megabyte per Second (RW))
SUM CLIENT SHUTDOWN HINT: 1751.94
SUM CLIENT SHUTDOWN HINT DIV TIME: 0
53695: CHANGING RESSOURCES
53683: CHANGING RESSOURCES
53684: CHANGING RESSOURCES
53688: CHANGING RESSOURCES

 + Terminating after 1000 timesteps with equal number of triangles -> EXIT
 + Final timestep: 6749

6750 TS (Timesteps)
715.114 ST (SIMULATION_TIME)
0.100037 TSS (Timestep size)
50.5204 SFS (Overall seconds for Simulation)
437983904 TP (Triangles processed)
0.0074845 ASPT (Averaged Seconds per Timestep)
64886.5 TPST (Triangles Processed in Average per Simulation Timestep)
48.6681 PPST (Clusters Processed in Average per Simulation Timestep)
8.66945 MTPS (Million Triangles per Second)
-8.66945 MTPSPT (Million Triangles per Second per Thread)
1.98018 EDMBPT (ElementData Megabyte per Timestep (RW))
264.571 EDMBPS (ElementData Megabyte per Second (RW))
SUM CLIENT SHUTDOWN HINT: 2189.92
SUM CLIENT SHUTDOWN HINT DIV TIME: 0
53691: CHANGING RESSOURCES
53693: CHANGING RESSOURCES
53692: CHANGING RESSOURCES

 + Terminating after 1000 timesteps with equal number of triangles -> EXIT
 + Final timestep: 6749

6750 TS (Timesteps)
715.114 ST (SIMULATION_TIME)
0.100037 TSS (Timestep size)
50.6456 SFS (Overall seconds for Simulation)
437983904 TP (Triangles processed)
0.00750305 ASPT (Averaged Seconds per Timestep)
64886.5 TPST (Triangles Processed in Average per Simulation Timestep)
48.6681 PPST (Clusters Processed in Average per Simulation Timestep)
8.64802 MTPS (Million Triangles per Second)
-8.64802 MTPSPT (Million Triangles per Second per Thread)
1.98018 EDMBPT (ElementData Megabyte per Timestep (RW))
263.917 EDMBPS (ElementData Megabyte per Second (RW))
SUM CLIENT SHUTDOWN HINT: 2627.9
SUM CLIENT SHUTDOWN HINT DIV TIME: 0
53684: CHANGING RESSOURCES
53694: CHANGING RESSOURCES
53683: CHANGING RESSOURCES

 + Terminating after 1000 timesteps with equal number of triangles -> EXIT
 + Final timestep: 6749

6750 TS (Timesteps)
715.114 ST (SIMULATION_TIME)
0.100037 TSS (Timestep size)
50.6686 SFS (Overall seconds for Simulation)
437983904 TP (Triangles processed)
0.00750646 ASPT (Averaged Seconds per Timestep)
64886.5 TPST (Triangles Processed in Average per Simulation Timestep)
48.6681 PPST (Clusters Processed in Average per Simulation Timestep)
8.64409 MTPS (Million Triangles per Second)
-8.64409 MTPSPT (Million Triangles per Second per Thread)
1.98018 EDMBPT (ElementData Megabyte per Timestep (RW))
263.797 EDMBPS (ElementData Megabyte per Second (RW))
SUM CLIENT SHUTDOWN HINT: 3065.89
SUM CLIENT SHUTDOWN HINT DIV TIME: 0
53693: CHANGING RESSOURCES
53687: CHANGING RESSOURCES
53691: CHANGING RESSOURCES

 + Terminating after 1000 timesteps with equal number of triangles -> EXIT
 + Final timestep: 6749

6750 TS (Timesteps)
715.114 ST (SIMULATION_TIME)
0.100037 TSS (Timestep size)
50.7385 SFS (Overall seconds for Simulation)
437983904 TP (Triangles processed)
0.00751681 ASPT (Averaged Seconds per Timestep)
64886.5 TPST (Triangles Processed in Average per Simulation Timestep)
48.6681 PPST (Clusters Processed in Average per Simulation Timestep)
8.63218 MTPS (Million Triangles per Second)
-8.63218 MTPSPT (Million Triangles per Second per Thread)
1.98018 EDMBPT (ElementData Megabyte per Timestep (RW))
263.433 EDMBPS (ElementData Megabyte per Second (RW))
SUM CLIENT SHUTDOWN HINT: 3503.87
SUM CLIENT SHUTDOWN HINT DIV TIME: 0
53693: CHANGING RESSOURCES
53683: CHANGING RESSOURCES
53684: CHANGING RESSOURCES
53688: CHANGING RESSOURCES

 + Terminating after 1000 timesteps with equal number of triangles -> EXIT
 + Final timestep: 6749

6750 TS (Timesteps)
715.114 ST (SIMULATION_TIME)
0.100037 TSS (Timestep size)
50.7742 SFS (Overall seconds for Simulation)
437983904 TP (Triangles processed)
0.00752211 ASPT (Averaged Seconds per Timestep)
64886.5 TPST (Triangles Processed in Average per Simulation Timestep)
48.6681 PPST (Clusters Processed in Average per Simulation Timestep)
8.6261 MTPS (Million Triangles per Second)
-8.6261 MTPSPT (Million Triangles per Second per Thread)
1.98018 EDMBPT (ElementData Megabyte per Timestep (RW))
263.248 EDMBPS (ElementData Megabyte per Second (RW))
SUM CLIENT SHUTDOWN HINT: 3941.86
SUM CLIENT SHUTDOWN HINT DIV TIME: 0
53684: CHANGING RESSOURCES
53694: CHANGING RESSOURCES
53688: CHANGING RESSOURCES
53691: CHANGING RESSOURCES
53683: CHANGING RESSOURCES

 + Terminating after 1000 timesteps with equal number of triangles -> EXIT
 + Final timestep: 6749

6750 TS (Timesteps)
715.114 ST (SIMULATION_TIME)
0.100037 TSS (Timestep size)
50.8833 SFS (Overall seconds for Simulation)
437983904 TP (Triangles processed)
0.00753827 ASPT (Averaged Seconds per Timestep)
64886.5 TPST (Triangles Processed in Average per Simulation Timestep)
48.6681 PPST (Clusters Processed in Average per Simulation Timestep)
8.60761 MTPS (Million Triangles per Second)
-8.60761 MTPSPT (Million Triangles per Second per Thread)
1.98018 EDMBPT (ElementData Megabyte per Timestep (RW))
262.684 EDMBPS (ElementData Megabyte per Second (RW))
SUM CLIENT SHUTDOWN HINT: 4379.84
SUM CLIENT SHUTDOWN HINT DIV TIME: 0
53688: CHANGING RESSOURCES
53691: CHANGING RESSOURCES
53683: CHANGING RESSOURCES

 + Terminating after 1000 timesteps with equal number of triangles -> EXIT
 + Final timestep: 6749

6750 TS (Timesteps)
715.114 ST (SIMULATION_TIME)
0.100037 TSS (Timestep size)
57.1351 SFS (Overall seconds for Simulation)
437983904 TP (Triangles processed)
0.00846446 ASPT (Averaged Seconds per Timestep)
64886.5 TPST (Triangles Processed in Average per Simulation Timestep)
48.6681 PPST (Clusters Processed in Average per Simulation Timestep)
7.66576 MTPS (Million Triangles per Second)
-7.66576 MTPSPT (Million Triangles per Second per Thread)
1.98018 EDMBPT (ElementData Megabyte per Timestep (RW))
233.94 EDMBPS (ElementData Megabyte per Second (RW))
SUM CLIENT SHUTDOWN HINT: 4817.82
SUM CLIENT SHUTDOWN HINT DIV TIME: 0
53684: CHANGING RESSOURCES
53694: CHANGING RESSOURCES

 + Terminating after 1000 timesteps with equal number of triangles -> EXIT
 + Final timestep: 6749

6750 TS (Timesteps)
715.114 ST (SIMULATION_TIME)
0.100037 TSS (Timestep size)
57.1703 SFS (Overall seconds for Simulation)
437983904 TP (Triangles processed)
0.00846968 ASPT (Averaged Seconds per Timestep)
64886.5 TPST (Triangles Processed in Average per Simulation Timestep)
48.6681 PPST (Clusters Processed in Average per Simulation Timestep)
7.66104 MTPS (Million Triangles per Second)
-7.66104 MTPSPT (Million Triangles per Second per Thread)
1.98018 EDMBPT (ElementData Megabyte per Timestep (RW))
233.796 EDMBPS (ElementData Megabyte per Second (RW))
SUM CLIENT SHUTDOWN HINT: 5255.81
SUM CLIENT SHUTDOWN HINT DIV TIME: 0
53684: CHANGING RESSOURCES
53694: CHANGING RESSOURCES

 + Terminating after 1000 timesteps with equal number of triangles -> EXIT
 + Final timestep: 6749

6750 TS (Timesteps)
715.114 ST (SIMULATION_TIME)
0.100037 TSS (Timestep size)
57.3553 SFS (Overall seconds for Simulation)
437983904 TP (Triangles processed)
0.00849708 ASPT (Averaged Seconds per Timestep)
64886.5 TPST (Triangles Processed in Average per Simulation Timestep)
48.6681 PPST (Clusters Processed in Average per Simulation Timestep)
7.63633 MTPS (Million Triangles per Second)
-7.63633 MTPSPT (Million Triangles per Second per Thread)
1.98018 EDMBPT (ElementData Megabyte per Timestep (RW))
233.042 EDMBPS (ElementData Megabyte per Second (RW))
SUM CLIENT SHUTDOWN HINT: 5693.79
SUM CLIENT SHUTDOWN HINT DIV TIME: 0
53694: CHANGING RESSOURCES

 + Terminating after 1000 timesteps with equal number of triangles -> EXIT
 + Final timestep: 6749

6750 TS (Timesteps)
715.114 ST (SIMULATION_TIME)
0.100037 TSS (Timestep size)
57.3985 SFS (Overall seconds for Simulation)
437983904 TP (Triangles processed)
0.00850348 ASPT (Averaged Seconds per Timestep)
64886.5 TPST (Triangles Processed in Average per Simulation Timestep)
48.6681 PPST (Clusters Processed in Average per Simulation Timestep)
7.63058 MTPS (Million Triangles per Second)
-7.63058 MTPSPT (Million Triangles per Second per Thread)
1.98018 EDMBPT (ElementData Megabyte per Timestep (RW))
232.867 EDMBPS (ElementData Megabyte per Second (RW))
SUM CLIENT SHUTDOWN HINT: 6131.77
SUM CLIENT SHUTDOWN HINT DIV TIME: 0
53694: CHANGING RESSOURCES

 + Terminating after 1000 timesteps with equal number of triangles -> EXIT
 + Final timestep: 6749

6750 TS (Timesteps)
715.114 ST (SIMULATION_TIME)
0.100037 TSS (Timestep size)
57.421 SFS (Overall seconds for Simulation)
437983904 TP (Triangles processed)
0.00850681 ASPT (Averaged Seconds per Timestep)
64886.5 TPST (Triangles Processed in Average per Simulation Timestep)
48.6681 PPST (Clusters Processed in Average per Simulation Timestep)
7.62759 MTPS (Million Triangles per Second)
-7.62759 MTPSPT (Million Triangles per Second per Thread)
1.98018 EDMBPT (ElementData Megabyte per Timestep (RW))
232.776 EDMBPS (ElementData Megabyte per Second (RW))
SUM CLIENT SHUTDOWN HINT: 6569.76
SUM CLIENT SHUTDOWN HINT DIV TIME: 114.874
Waiting for job 53684
Waiting for job 53685
Waiting for job 53686
Waiting for job 53687
Waiting for job 53688
Waiting for job 53689
Waiting for job 53690
Waiting for job 53691
Waiting for job 53692
Waiting for job 53693
Waiting for job 53694
Waiting for job 53695
Waiting for job 53696
Sat Mar 31 15:29:49 CEST 2012
Seconds: 58
