0	0
13.0982	0
26.1961	0
39.2939	0
52.3916	0
65.4893	0
78.5871	0
91.6848	0
104.782	0
117.88	0
130.978	0
144.076	0
157.174	0
170.271	0
183.369	0
196.467	0
209.565	0
222.663	0
235.761	9.09495e-13
248.86	1.81899e-12
261.958	3.63798e-12
275.056	7.27596e-12
288.154	1.18234e-11
301.252	1.81899e-11
314.35	2.72848e-11
327.448	4.00178e-11
340.546	5.72982e-11
352.676	7.82165e-11
364.806	1.06411e-10
376.936	1.42791e-10
389.066	1.90084e-10
401.196	2.51021e-10
413.326	3.29237e-10
425.456	4.29281e-10
437.586	5.55701e-10
449.715	7.15772e-10
461.845	9.16771e-10
473.975	1.1687e-09
486.105	1.48157e-09
498.235	1.86901e-09
510.365	2.3465e-09
522.495	2.93221e-09
534.625	3.64798e-09
546.755	4.51837e-09
558.838	5.56975e-09
570.922	6.83849e-09
583.006	8.36371e-09
595.089	1.019e-08
607.173	1.23673e-08
619.257	1.49539e-08
631.34	1.80144e-08
643.424	2.16223e-08
655.507	2.58588e-08
667.591	3.08146e-08
679.674	3.65917e-08
691.758	4.33038e-08
703.841	5.10754e-08
715.925	6.00467e-08
728.008	7.03722e-08
740.092	8.2222e-08
752.175	9.57853e-08
764.259	1.1127e-07
776.287	1.28828e-07
788.315	1.48772e-07
800.344	1.71377e-07
812.372	1.9695e-07
824.4	2.25778e-07
836.429	2.58134e-07
848.457	2.94292e-07
860.485	3.34524e-07
872.514	3.79114e-07
884.542	4.28355e-07
896.57	4.82557e-07
908.598	5.4205e-07
920.627	6.0713e-07
932.655	6.78071e-07
944.683	7.55138e-07
956.711	8.38588e-07
968.739	9.28681e-07
980.767	1.02569e-06
992.796	1.12989e-06
1004.82	1.2416e-06
1016.85	1.36115e-06
1028.88	1.48888e-06
1040.91	1.62521e-06
1052.94	1.77056e-06
1064.96	1.92542e-06
1076.99	2.09031e-06
1089.02	2.26583e-06
1101.05	2.45261e-06
1113.08	2.65139e-06
1125.1	2.86293e-06
1137.13	3.08811e-06
1149.16	3.32789e-06
1161.19	3.58331e-06
1173.22	3.85552e-06
1185.24	4.14577e-06
1197.27	4.45543e-06
1209.3	4.78598e-06
1221.33	5.139e-06
1233.36	5.51619e-06
1245.38	5.91936e-06
1257.41	6.35046e-06
1269.44	6.81154e-06
1281.47	7.30476e-06
1293.49	7.83245e-06
1305.52	8.39702e-06
1317.55	9.00106e-06
1329.58	9.64727e-06
1341.61	1.03385e-05
1353.63	1.10778e-05
1365.66	1.18683e-05
1377.69	1.27134e-05
1389.72	1.36166e-05
1401.74	1.45816e-05
1413.77	1.56124e-05
1425.8	1.6713e-05
1437.83	1.7888e-05
1449.85	1.91419e-05
1461.88	2.04795e-05
1473.91	2.1906e-05
1485.94	2.34318e-05
1497.96	2.50669e-05
1509.99	2.68199e-05
1522.02	2.86979e-05
1534.05	3.07067e-05
1546.07	3.28516e-05
1558.1	3.51372e-05
1570.13	3.75679e-05
1582.16	4.01476e-05
1594.18	4.28804e-05
1606.21	4.57703e-05
1618.24	4.88217e-05
1630.27	5.20392e-05
1642.29	5.54275e-05
1654.32	5.89924e-05
1666.35	6.27396e-05
1678.38	6.6676e-05
1690.4	7.08089e-05
1702.43	7.51463e-05
1714.46	7.96974e-05
1726.49	8.44719e-05
1738.51	8.94806e-05
1750.54	9.47354e-05
1762.57	0.000100249
1774.6	0.000106035
1786.63	0.000112108
1798.65	0.000118484
1810.68	0.000125181
1822.71	0.000132215
1834.74	0.000139607
1846.76	0.000147371
1858.79	0.000155521
1870.82	0.000164068
1882.85	0.000173025
1894.87	0.0001824
1906.9	0.000192205
1918.93	0.000202451
1930.96	0.000213149
1942.98	0.000224311
1955.01	0.000235949
1967.04	0.000248078
1979.07	0.000260712
1991.1	0.000273868
2003.12	0.000287565
2015.15	0.000301822
2027.18	0.000316662
2039.21	0.000332108
2051.24	0.000348189
2063.26	0.000364932
2075.29	0.00038237
2087.32	0.000400534
2099.35	0.000419462
2111.38	0.00043919
2123.4	0.000459759
2135.43	0.000481211
2147.46	0.00050359
2159.49	0.00049949
2171.52	0.000496815
2183.54	0.000495444
2195.57	0.000495275
2207.6	0.000496222
2219.63	0.00049821
2231.66	0.00050118
2243.69	0.000505086
2255.71	0.000509889
2267.74	0.000515565
2279.77	0.000522094
2291.8	0.000529467
2303.83	0.000537682
2315.86	0.000546743
2327.66	0.000556476
2339.47	0.000567048
2351.28	0.000578477
2363.09	0.000590785
2374.9	0.000604
2386.7	0.00061815
2398.51	0.000633271
2410.32	0.0006494
2422.13	0.000666576
2433.94	0.000684843
2445.75	0.000704245
2457.55	0.000724832
2469.36	0.000746653
2481.17	0.00076976
2492.98	0.000794209
2504.79	0.000820056
2516.6	0.00084742
2528.4	0.000876149
2540.21	0.000906135
2552.02	0.0009373
2563.83	0.000969593
2575.64	0.00100298
2587.44	0.00103746
2599.25	0.00107303
2611.06	0.0011097
2622.87	0.00114751
2634.68	0.0011865
2646.48	0.00122671
2658.29	0.00126821
2670.1	0.00131108
2681.91	0.0013554
2693.72	0.00140127
2705.53	0.0014488
2717.33	0.00149811
2729.14	0.00154934
2740.95	0.00160261
2752.76	0.00165805
2764.57	0.0017158
2776.37	0.00177599
2788.18	0.00183874
2799.99	0.00190419
2811.8	0.00197248
2823.61	0.00204375
2835.41	0.00211814
2847.22	0.00228177
2859.03	0.0024452
2870.84	0.00260846
2882.65	0.00277033
2894.45	0.00293031
2906.26	0.0030884
2918.07	0.00324495
2929.88	0.00340055
2941.69	0.00355602
2953.49	0.00371227
2965.3	0.00387031
2977.11	0.00403119
2988.92	0.00419599
3000.72	0.00436582
3012.53	0.00454176
3024.34	0.00472495
3036.15	0.00491652
3047.96	0.00511759
3059.76	0.00532777
3071.57	0.00554534
3083.38	0.00576958
3095.19	0.00600031
3107	0.00623781
3118.8	0.00648268
3130.61	0.00673587
3142.42	0.00699864
3154.23	0.00727255
3166.03	0.00755944
3177.84	0.00786141
3189.65	0.00818072
3201.46	0.00891572
3213.27	0.00963073
3225.07	0.0103115
3236.88	0.0109617
3248.69	0.0115931
3260.5	0.0122199
3272.3	0.0128579
3284.11	0.0135223
3295.92	0.0142269
3307.73	0.0149831
3319.54	0.0158003
3331.34	0.0166852
3343.15	0.0176425
3354.96	0.0186754
3366.77	0.0197855
3378.58	0.0209698
3390.38	0.0236526
3402.19	0.0260859
3414	0.0283852
3425.81	0.0306285
3437.61	0.0328656
3449.42	0.0351258
3461.23	0.0374255
3473.04	0.0397728
3484.85	0.0421715
3496.65	0.0446226
3508.46	0.0471266
3520.27	0.0496837
3532.08	0.052294
3543.89	0.0549581
3555.69	0.0576769
3567.5	0.0604513
3579.31	0.0632823
3591.12	0.0661698
3602.92	0.0691131
3614.73	0.0721107
3626.54	0.0751609
3638.35	0.0782622
3650.16	0.0814132
3661.96	0.0846134
3673.77	0.0878624
3685.58	0.0911599
3697.39	0.0945059
3709.2	0.0979002
3721	0.101342
3732.81	0.10483
3744.62	0.108363
3756.43	0.111939
3768.24	0.115555
3780.04	0.119206
3791.85	0.122891
3803.66	0.126603
3815.47	0.130339
3827.28	0.134093
3839.09	0.13786
3850.89	0.141634
3862.7	0.14541
3874.51	0.149181
3886.32	0.152941
3898.13	0.156684
3909.93	0.160404
3921.74	0.164094
3933.55	0.167747
3945.36	0.171357
3957.17	0.174918
3968.98	0.178423
3980.78	0.181865
3992.59	0.185237
4004.4	0.188532
4016.21	0.191745
4028.02	0.194866
4039.82	0.19789
4051.63	0.200809
4063.44	0.203615
4075.25	0.206302
4087.06	0.208861
4098.87	0.211285
4110.7	0.213571
4122.53	0.215706
4134.36	0.217683
4146.19	0.219495
4158.02	0.221134
4169.85	0.222593
4181.68	0.223866
4193.51	0.224946
4205.34	0.225826
4217.17	0.226502
4229	0.226966
4240.83	0.227215
4252.66	0.227244
4264.49	0.227049
4276.32	0.226625
4288.15	0.225969
4299.98	0.22508
4311.81	0.223953
4323.64	0.222589
4335.47	0.220985
4347.3	0.21914
4359.13	0.217055
4370.96	0.214729
4382.79	0.212163
4394.62	0.209359
4406.45	0.206317
4418.28	0.203039
4430.11	0.199528
4441.94	0.195787
4453.77	0.191819
4465.81	0.187552
4477.86	0.183058
4489.9	0.178342
4501.95	0.17341
4513.99	0.168267
4526.03	0.162918
4538.08	0.157371
4550.12	0.15163
4562.17	0.145705
4574.21	0.139604
4586.26	0.133338
4598.3	0.126918
4610.34	0.12036
4622.39	0.113648
4634.43	0.106779
4646.48	0.0997551
4658.52	0.092596
4670.57	0.0853309
4682.61	0.0779969
4694.65	0.0706343
4706.7	0.0632832
4718.74	0.0559807
4730.79	0.0487599
4742.83	0.041649
4754.88	0.0346719
4766.92	0.0247056
4778.96	0.0162453
4791.01	0.00852019
4803.05	0.00144232
4815.1	-0.00508182
4827.14	-0.0111595
4839.19	-0.0168566
4851.23	-0.0222158
4863.27	-0.0272661
4875.32	-0.0320287
4887.36	-0.0365204
4899.41	-0.0407552
4911.45	-0.0447459
4923.5	-0.0485043
4935.54	-0.038652
4947.59	-0.0411539
4959.63	-0.043543
4971.67	-0.0461558
4983.72	-0.050009
4995.76	-0.0533574
5007.81	-0.0563222
5019.85	-0.058995
5031.9	-0.0614452
5043.94	-0.0637215
5055.99	-0.0659133
5068.03	-0.0680339
5080.07	-0.0700935
5092.12	-0.0720991
5104.16	-0.0740544
5116.21	-0.0759608
5128.25	-0.0776366
5140.3	-0.0792718
5152.34	-0.0809073
5164.39	-0.0824591
5176.43	-0.0839097
5188.48	-0.085268
5200.52	-0.0865433
5212.65	-0.0877528
5224.78	-0.0888936
5236.91	-0.0899712
5249.04	-0.0909899
5261.17	-0.0919535
5273.3	-0.092865
5285.43	-0.0937272
5297.56	-0.0945428
5309.69	-0.0953141
5321.82	-0.0897871
5333.95	-0.0902851
5346.08	-0.0911167
5358.21	-0.0920418
5370.34	-0.0928774
5382.47	-0.0936282
5394.6	-0.0942826
5406.73	-0.0948487
5418.86	-0.0953318
5430.99	-0.0957393
5443.12	-0.0960782
5455.25	-0.0963552
5467.38	-0.0965765
5479.51	-0.0967481
5491.64	-0.0968756
5503.77	-0.0969638
5515.9	-0.0970166
5528.03	-0.0970375
5540.16	-0.0970297
5552.24	-0.0969962
5564.32	-0.0969394
5576.41	-0.0968616
5588.49	-0.0967644
5600.57	-0.0966495
5612.66	-0.0965181
5624.74	-0.0963715
5636.82	-0.0962108
5648.91	-0.0960367
5660.94	-0.095851
5672.96	-0.0956536
5684.99	-0.0954452
5697.02	-0.095234
5709.05	-0.0949956
5721.08	-0.0947613
5733.11	-0.0945288
5745.13	-0.0942961
5757.16	-0.0940566
5769.19	-0.0938085
5781.22	-0.0935522
5793.25	-0.0932877
5805.28	-0.0930153
5817.3	-0.0927349
5829.33	-0.0924466
5841.36	-0.0921503
5853.39	-0.0918461
5865.42	-0.0915338
5877.45	-0.0912134
5889.47	-0.0908847
5901.5	-0.0905477
5913.53	-0.0902023
5925.56	-0.0898484
5937.59	-0.089486
5949.61	-0.0891149
5961.64	-0.0887353
5973.67	-0.088347
5985.7	-0.0879502
5997.73	-0.0875448
6009.76	-0.087131
6021.78	-0.0867089
6033.81	-0.0862786
6045.84	-0.0858402
6057.87	-0.0853942
6069.9	-0.0862498
6081.93	-0.0860594
6093.95	-0.0858541
6105.98	-0.0856348
6118.01	-0.0854018
6130.04	-0.077536
6142.07	-0.0770635
6154.1	-0.0765862
6166.12	-0.0761038
6178.15	-0.0756162
6190.18	-0.0756913
6202.21	-0.0757414
6214.24	-0.0757677
6226.27	-0.0757687
6238.29	-0.0757457
6250.32	-0.0757
6262.35	-0.0756326
6274.38	-0.0755444
6286.41	-0.0754362
6298.44	-0.0753088
6310.46	-0.0751627
6322.49	-0.0749984
6334.52	-0.0748164
6346.55	-0.074617
6358.58	-0.0744008
6370.6	-0.074168
6382.63	-0.0739193
6394.66	-0.0736549
6406.69	-0.0733753
6418.72	-0.0730808
6430.75	-0.0727717
6442.77	-0.0724483
6454.8	-0.0721109
6466.83	-0.0717599
6478.86	-0.0713955
6490.89	-0.071018
6502.92	-0.0706277
6514.94	-0.0702249
6526.97	-0.0698096
6539	-0.0693822
6551.03	-0.0689429
6563.06	-0.0684918
6575.09	-0.0680292
6587.11	-0.0675552
6599.14	-0.0670701
6611.17	-0.066574
6623.2	-0.0660672
6635.23	-0.0655498
6647.26	-0.0650221
6659.28	-0.0644844
6671.31	-0.0639367
6683.34	-0.0633794
6695.37	-0.0628126
6707.4	-0.0622363
6719.43	-0.0616512
6731.45	-0.0610582
6743.48	-0.0604578
6755.51	-0.0598509
6767.54	-0.0592388
6779.57	-0.0586222
6791.6	-0.0580018
6803.62	-0.057378
6815.65	-0.0567515
6827.68	-0.0561227
6839.71	-0.0554918
6851.74	-0.0548591
6863.76	-0.0542246
6875.79	-0.0535885
6887.82	-0.0529507
6899.85	-0.0523112
6911.88	-0.05167
6923.91	-0.051027
6935.93	-0.050239
6947.96	-0.0494604
6959.99	-0.0486903
6972.02	-0.0479277
6984.05	-0.0471718
6996.08	-0.0464218
7008.1	-0.0456771
7020.13	-0.0449356
7032.16	-0.0441968
7044.19	-0.0434606
7056.22	-0.0427265
7068.25	-0.0419943
7080.27	-0.0412636
7092.3	-0.0405344
7104.33	-0.0390469
7116.36	-0.0376239
7128.39	-0.0362648
7140.42	-0.0349672
7152.44	-0.0337272
7164.47	-0.03254
7176.5	-0.0314002
7188.53	-0.0303021
7200.56	-0.0292405
7212.59	-0.0282106
7224.61	-0.0272075
7236.64	-0.0262269
7248.67	-0.0252647
7260.7	-0.0243172
7272.73	-0.023381
7284.76	-0.0224532
7296.78	-0.0215311
7308.81	-0.0206127
7320.84	-0.019696
7332.87	-0.0187796
7344.9	-0.0178624
7356.93	-0.0169435
7368.95	-0.0160226
7380.98	-0.0150993
7393.01	-0.0141737
7405.04	-0.0132513
7417.07	-0.0123354
7429.1	-0.0114284
7441.12	-0.0105315
7453.15	-0.00964511
7465.18	-0.00876901
7477.21	-0.0079026
7489.24	-0.00704495
7501.27	-0.00619496
7513.29	-0.00535146
7525.32	-0.00451333
7537.35	-0.00367956
7549.38	-0.0028494
7561.41	-0.00202234
7573.44	-0.00119815
7585.46	-0.000376838
7597.49	0.000445501
7609.52	0.00219841
7621.55	0.00375169
7633.58	0.00515933
7645.61	0.00644467
7657.63	0.00762382
7669.66	0.00872016
7681.69	0.00975617
7693.72	0.0107501
7705.75	0.011715
7717.78	0.0126591
7729.8	0.0135798
7741.83	0.0144751
7753.86	0.0153437
7765.89	0.0161849
7777.92	0.0169997
7789.95	0.0177302
7801.97	0.018417
7814	0.0190779
7826.03	0.0197194
7838.06	0.0203427
7850.09	0.0210422
7862.12	0.0217279
7874.14	0.0224142
7886.17	0.023094
7898.2	0.0237538
7910.23	0.0243794
7922.26	0.0249589
7934.29	0.0254836
7946.31	0.0259471
7958.34	0.0263457
7970.37	0.0266774
7982.4	0.0269422
7994.43	0.0271495
8006.46	0.0272985
8018.48	0.0273865
8030.51	0.027411
8042.54	0.0273713
8054.57	0.0272682
8066.6	0.0271036
8078.63	0.0268806
8090.65	0.0266025
8102.68	0.0262729
8114.49	0.0259024
8126.3	0.0254894
8138.11	0.0250376
8149.92	0.0245507
8161.72	0.0240321
8173.53	0.0234852
8185.34	0.0229132
8197.15	0.022319
8208.96	0.0217059
8220.76	0.0210769
8232.57	0.0204346
8244.38	0.0197806
8256.19	0.019116
8268	0.0184413
8279.81	0.0177568
8291.61	0.0170624
8303.42	0.0163581
8315.23	0.0156442
8327.04	0.0149168
8338.85	0.0141725
8350.65	0.0134098
8362.46	0.0126296
8374.27	0.0118349
8386.08	0.0105497
8397.89	0.00946845
8409.7	0.00852493
8421.5	0.00762759
8433.31	0.00677272
8445.12	0.00595587
8456.93	0.00517282
8468.74	0.0059004
8480.54	0.00530725
8492.35	0.00469818
8504.16	0.00428805
8515.97	0.0037037
8527.78	0.00298092
8539.59	0.00233377
8551.39	0.00174373
8563.2	0.00119701
8575.01	0.00068332
8586.82	0.000195051
8598.63	-0.000270009
8610.43	-0.000724578
8622.24	-0.00118182
8634.05	-0.00162622
8645.86	-0.00204788
8657.67	-0.00244801
8669.48	-0.00282821
8681.28	-0.00319024
8693.09	-0.00152516
8704.9	-0.00108018
8716.71	-0.00136937
8728.52	-0.00170167
8740.32	-0.00201835
8752.13	-0.00232049
8763.94	-0.0026091
8775.75	-0.0028851
8787.56	-0.00314172
8799.37	-0.00338146
8811.17	-0.00360917
8822.98	-0.00382704
8834.79	-0.00403597
8846.6	-0.0042367
8858.41	-0.00442989
8870.22	-0.00461616
8882.02	-0.00479607
8893.83	-0.00497011
8905.64	-0.00513876
8917.45	-0.00530242
8929.26	-0.00546147
8941.06	-0.00561622
8952.87	-0.00576698
8964.68	-0.005914
8976.49	-0.00605748
8988.3	-0.0031362
9000.11	-0.00595293
9011.91	-0.00599924
9023.72	-0.00604658
9035.53	-0.00609484
9047.34	-0.00614391
9059.15	-0.00619367
9070.95	-0.00626929
9082.76	-0.00634356
9094.57	-0.00641638
9106.38	-0.00648772
9118.19	-0.0065575
9130	-0.00662568
9141.8	-0.0066922
9153.61	-0.00675703
9165.42	-0.00682011
9177.23	-0.00688141
9189.04	-0.00694089
9200.85	-0.00699852
9212.65	-0.00705425
9224.46	-0.00710807
9236.27	-0.00715993
9248.08	-0.00720981
9259.89	-0.00725767
9271.69	-0.0073035
9283.5	-0.00734726
9295.31	-0.00738894
9307.12	-0.0074285
9318.93	-0.00746594
9330.74	-0.00750122
9342.54	-0.00753433
9354.35	-0.00756526
9366.16	-0.00759399
9377.97	-0.0076205
9389.78	-0.00764478
9401.58	-0.00766681
9413.39	-0.00768658
9425.2	-0.00770408
9437.01	-0.00771928
9448.82	-0.00773217
9460.63	-0.00774276
9472.43	-0.00775103
9484.24	-0.00775697
9496.05	-0.00776059
9507.86	-0.00776187
9519.67	-0.00776082
9531.48	-0.00775745
9543.28	-0.00775177
9555.09	-0.0077438
9566.9	-0.00773356
9578.71	-0.00772108
9590.52	-0.00770555
9602.33	-0.00768715
9614.13	-0.007666
9625.94	-0.00764224
9637.75	-0.007616
9649.56	-0.0075874
9661.37	-0.00755655
9673.2	-0.00752348
9685.03	-0.00748836
9696.86	-0.00745126
9708.69	-0.00741229
9720.52	-0.00737151
9732.35	-0.00732902
9744.18	-0.00728488
9756.01	-0.00723916
9767.84	-0.00719193
9779.67	-0.00714325
9791.5	-0.00709318
9803.33	-0.00704178
9815.16	-0.00698732
9826.99	-0.00693238
9838.82	-0.00687692
9850.65	-0.00682093
9862.48	-0.00676441
9874.31	-0.00670733
9886.14	-0.0066497
9897.97	-0.00659149
9909.8	-0.00653272
9921.63	-0.00647337
9933.46	-0.00641344
9945.29	-0.00635294
9957.12	-0.00629187
9968.95	-0.00623023
9980.78	-0.00616803
9992.61	-0.00610527
10004.4	-0.00604196
10016.3	-0.00597811
10028.1	-0.00591373
10039.9	-0.00584884
10051.8	-0.00578345
10063.6	-0.00571757
10075.4	-0.00565119
10087.3	-0.00558434
10099.1	-0.00551703
10110.9	-0.00544928
10122.7	-0.00538108
10134.6	-0.00531247
10146.4	-0.00524346
10158.2	-0.00517407
10170.1	-0.00510432
10181.9	-0.00503423
10193.7	-0.00496381
10205.6	-0.0048931
10217.4	-0.00482211
10229.2	-0.00475086
10241	-0.00467939
10252.9	-0.0046077
10264.7	-0.00453583
10276.5	-0.0044638
10288.4	-0.00439163
10300.2	-0.00431934
10312	-0.00424696
10323.9	-0.00417452
10335.7	-0.00410203
10347.5	-0.00402953
10359.3	-0.00395703
10371.2	-0.00388456
10383	-0.00381214
10394.8	-0.0037398
10406.7	-0.00366755
10418.5	-0.00359544
10430.3	-0.0035235
10442.2	-0.00345174
10454	-0.00338021
10465.8	-0.00330892
10477.6	-0.0032379
10489.5	-0.00316718
10501.3	-0.00309678
10513.1	-0.00302672
10525	-0.00295703
10536.8	-0.00288771
10548.6	-0.0028188
10560.5	-0.00275031
10572.3	-0.00268225
10584.1	-0.00261465
10596.2	-0.00254631
10608.2	-0.00247847
10620.3	-0.00241116
10632.3	-0.00234439
10644.3	-0.00227817
10656.4	-0.00221252
10668.4	-0.00214746
10680.5	-0.002083
10692.5	-0.00201916
10704.6	-0.00195596
10716.6	-0.00189342
10728.7	-0.00183155
10740.7	-0.00177037
10752.7	-0.00170992
10764.8	-0.00165019
10776.8	-0.00159121
10788.9	-0.00153301
10800.9	-0.00147559
10813	-0.00141898
10825	-0.00136318
10837.1	-0.00130823
10849.1	-0.00125413
10861.1	-0.00120091
10873.2	-0.00114857
10885.2	-0.00109714
10897.6	-0.00104517
10910	-0.00099419
10922.4	-0.000944217
10934.8	-0.000895266
10947.2	-0.000847353
10959.6	-0.000800492
10972	-0.0007547
10984.4	-0.000709989
10996.8	-0.000666373
11009.2	-0.000623865
11021.5	-0.000582479
11033.9	-0.000542226
11046.3	-0.000503118
11058.7	-0.000465165
11071.1	-0.000428378
11083.5	-0.000392768
11096.5	-0.000356571
11109.6	-0.000321694
11122.6	-0.000288146
11135.6	-0.000255937
11148.7	-0.000225073
11161.7	-0.000195563
11174.7	-0.000167412
11187.8	-0.000140626
11200.8	-0.00011521
11213.8	-9.11678e-05
11226.8	-6.85023e-05
11239.9	-4.72159e-05
11252.9	-2.731e-05
11265.9	-8.78532e-06
11279	8.35851e-06
11292	2.41225e-05
11305	3.85086e-05
11318.1	5.15193e-05
11331.1	6.31583e-05
11344.1	7.34297e-05
11357.1	8.23384e-05
11370.2	8.98901e-05
11383.2	9.60913e-05
11396.2	0.000100949
11409.3	0.000104471
11422.3	0.000106665
11435.3	0.00010754
11448.4	0.000107107
11461.4	0.000105374
11474.4	0.000102354
11487.4	9.80555e-05
11500.5	9.24917e-05
11513.5	8.56743e-05
11526.5	7.76159e-05
11540.7	6.75434e-05
11554.8	5.60419e-05
11568.9	4.31287e-05
11583.1	2.8822e-05
11597.2	1.31402e-05
11611.3	-3.89779e-06
11625.5	-2.22727e-05
11639.6	-4.19647e-05
11653.7	-6.29539e-05
11667.9	-8.52199e-05
11682	-0.000108742
11696.1	-0.000133499
11710.3	-0.00015947
11724.4	-0.000186633
11738.5	-0.000214967
11752.7	-0.000244449
11766.8	-0.000275059
11780.9	-0.000306773
11795.1	-0.000339569
11809.2	-0.000373424
11823.3	-0.000408317
11837.5	-0.000444224
11851.6	-0.000481122
11865.7	-0.00051899
11879.9	-0.000557803
11894	-0.000597539
11908.1	-0.000638176
11922.3	-0.00067969
11936.4	-0.000722057
11950.5	-0.000765257
11964.7	-0.000809264
11978.8	-0.000854058
11992.9	-0.000899614
