0	0
16.1343	0
32.2682	0
48.402	0
64.5356	0
80.6691	0
96.8026	0
112.936	0
129.069	0
145.203	0
161.336	0
177.469	0
193.217	0
208.964	-9.09495e-13
224.712	-2.72848e-12
240.459	-5.45697e-12
256.206	-1.09139e-11
271.953	-1.90994e-11
287.7	-3.09228e-11
303.447	-4.82032e-11
319.194	-7.18501e-11
334.94	-1.03682e-10
350.687	-1.437e-10
366.433	-1.91903e-10
382.18	-2.48292e-10
397.19	-3.08319e-10
412.936	-3.73802e-10
427.946	-4.32919e-10
443.692	-4.83851e-10
459.438	-5.12046e-10
475.184	-5.01132e-10
490.93	-4.311e-10
505.94	-2.83762e-10
520.893	-3.27418e-11
535.846	3.55612e-10
550.799	9.19499e-10
565.751	1.70621e-09
580.704	2.77032e-09
595.657	4.17731e-09
610.61	6.00176e-09
625.563	8.33279e-09
640.516	1.12741e-08
655.485	1.49494e-08
670.454	1.94968e-08
685.424	2.50793e-08
700.393	3.1836e-08
715.363	3.9895e-08
730.332	4.93828e-08
745.216	6.03686e-08
760.101	7.30397e-08
774.985	8.75543e-08
789.869	1.04092e-07
804.754	1.22795e-07
819.638	1.43783e-07
834.522	1.67166e-07
849.407	1.93049e-07
864.376	2.21706e-07
879.345	2.5313e-07
894.313	2.87465e-07
909.282	3.24883e-07
924.251	3.65586e-07
939.22	4.09813e-07
954.129	4.57656e-07
969.097	5.09817e-07
984.066	5.66512e-07
999.035	6.282e-07
1014	6.95413e-07
1028.97	7.68771e-07
1043.94	8.48988e-07
1058.91	9.36878e-07
1073.88	1.03337e-06
1088.85	1.13949e-06
1103.81	1.2564e-06
1118.78	1.38537e-06
1133.75	1.52778e-06
1148.72	1.68518e-06
1163.69	1.85923e-06
1178.66	2.05173e-06
1193.62	2.26467e-06
1208.59	2.50016e-06
1223.56	2.76052e-06
1238.53	3.04824e-06
1253.5	3.36604e-06
1268.47	3.71684e-06
1283.43	4.1038e-06
1298.35	4.52899e-06
1313.27	4.99723e-06
1328.19	5.51249e-06
1343.11	6.07911e-06
1358.03	6.7048e-06
1372.95	7.39728e-06
1387.87	8.16212e-06
1402.79	9.00343e-06
1417.71	9.92475e-06
1432.63	1.09293e-05
1447.55	1.20203e-05
1462.46	1.3201e-05
1477.38	1.4475e-05
1492.3	1.58462e-05
1507.22	1.73189e-05
1522.14	1.88984e-05
1537.06	2.05903e-05
1551.98	2.24014e-05
1566.9	2.43391e-05
1581.82	2.64121e-05
1596.74	2.86301e-05
1611.65	3.1004e-05
1626.57	3.3546e-05
1641.49	3.62696e-05
1656.41	3.91896e-05
1671.33	4.23223e-05
1686.25	4.56856e-05
1701.17	4.92983e-05
1716.09	5.31782e-05
1731	5.73397e-05
1745.62	6.17052e-05
1760.24	6.6364e-05
1774.86	7.13269e-05
1789.47	7.66048e-05
1804.09	8.22092e-05
1818.71	8.81529e-05
1833.32	9.44497e-05
1847.94	0.000101115
1862.56	0.000108167
1877.17	0.000115624
1891.79	0.000123509
1906.41	0.000131846
1921.03	0.000140663
1935.64	0.000149989
1950.26	0.000159859
1964.88	0.000170309
1979.49	0.000181377
1994.11	0.000193106
2008.73	0.000205541
2023.34	0.000218728
2037.96	0.000215658
2052.58	0.000213753
2067.19	0.000212888
2081.81	0.000212967
2096.43	0.000213913
2111.04	0.000215663
2125.66	0.000218165
2140.28	0.000221382
2154.89	0.000225286
2169.51	0.00022986
2184.12	0.000235096
2198.74	0.000240995
2213.36	0.000247563
2227.97	0.000254817
2242.59	0.000262777
2257.21	0.000271471
2271.82	0.000280932
2286.44	0.000291198
2301.05	0.000302313
2315.67	0.000314326
2330.28	0.000327283
2344.9	0.000341244
2359.51	0.000356268
2374.12	0.000372416
2388.73	0.000389755
2403.34	0.000408406
2417.95	0.000428202
2432.57	0.000449036
2447.18	0.000470842
2461.79	0.000493596
2476.41	0.000517285
2491.03	0.000541926
2505.64	0.000567555
2520.26	0.000594224
2534.87	0.000621999
2549.49	0.000650963
2564.11	0.000681211
2578.72	0.000712854
2593.34	0.000746022
2607.95	0.000780858
2622.57	0.000817527
2637.19	0.000856196
2651.8	0.000897032
2666.42	0.000940196
2681.04	0.000985849
2695.65	0.00103415
2710.27	0.00108526
2724.88	0.00113936
2739.5	0.00119662
2754.12	0.00132719
2768.73	0.00145819
2783.35	0.00158786
2797.96	0.00171562
2812.58	0.00184173
2827.2	0.0019668
2841.81	0.00209173
2856.43	0.0022176
2871.05	0.00234565
2885.66	0.00247717
2900.28	0.00261353
2914.89	0.00275615
2929.51	0.00290649
2944.13	0.00306603
2958.74	0.00323424
2973.36	0.00340924
2987.98	0.00359058
3002.59	0.0037785
3017.21	0.00397375
3031.83	0.0041775
3046.44	0.00439141
3061.06	0.00461763
3075.68	0.00485882
3090.29	0.0051179
3104.91	0.00573119
3119.53	0.0063209
3134.14	0.00686948
3148.76	0.00738659
3163.38	0.00789115
3178	0.00840658
3192.61	0.00895591
3207.23	0.00955934
3221.85	0.0102334
3236.46	0.010992
3251.08	0.0117888
3265.7	0.0126301
3280.32	0.0135403
3294.97	0.0156036
3309.63	0.0176193
3324.29	0.0196937
3338.95	0.0218857
3353.6	0.0242114
3368.26	0.0266691
3382.92	0.0292538
3397.57	0.0319547
3412.23	0.0349171
3426.89	0.0381356
3441.55	0.0415292
3456.2	0.045025
3470.86	0.0485824
3485.52	0.0521935
3500.17	0.0558528
3514.83	0.0595744
3529.49	0.0633913
3544.15	0.0673388
3558.8	0.0714453
3573.46	0.0757296
3588.12	0.080202
3602.77	0.0848672
3617.43	0.0897271
3632.09	0.0947819
3646.75	0.100033
3661.4	0.105482
3676.06	0.111135
3690.72	0.116994
3705.37	0.123059
3720.03	0.129326
3734.69	0.135786
3749.35	0.142429
3764	0.149242
3778.66	0.156211
3793.32	0.163323
3807.98	0.170568
3822.63	0.177936
3837.29	0.18542
3851.95	0.193013
3866.61	0.200706
3881.26	0.208492
3895.92	0.216361
3910.58	0.2243
3925.24	0.232295
3939.89	0.240331
3954.55	0.248387
3969.21	0.256444
3983.87	0.264477
3998.52	0.27246
4013.18	0.280365
4027.84	0.288161
4042.5	0.295813
4057.16	0.303288
4071.81	0.310545
4086.47	0.317548
4101.13	0.324254
4115.79	0.330623
4130.45	0.336614
4145.1	0.342185
4159.76	0.347294
4174.42	0.351901
4189.08	0.355966
4203.74	0.359451
4218.39	0.36232
4233.05	0.364537
4247.71	0.366069
4262.52	0.366894
4277.34	0.366958
4292.15	0.366234
4306.96	0.364697
4321.78	0.362325
4336.59	0.359098
4351.4	0.355001
4366.22	0.350019
4381.03	0.344143
4395.84	0.337365
4410.66	0.329683
4425.47	0.321098
4440.28	0.311615
4455.1	0.30124
4469.91	0.289986
4484.72	0.277866
4499.54	0.264904
4514.35	0.251129
4529.17	0.236581
4543.98	0.221277
4558.79	0.205219
4573.61	0.18843
4588.42	0.170979
4603.23	0.153005
4618.05	0.134645
4632.86	0.115952
4647.67	0.0970226
4662.49	0.0754522
4677.3	0.054789
4692.12	0.0348883
4706.93	0.0160866
4721.74	0.000800577
4736.56	-0.0155997
4751.37	-0.0365292
4766.18	-0.0529909
4781	-0.0672347
4795.81	-0.0796105
4810.63	-0.0905355
4825.44	-0.0980406
4840.25	-0.104208
4855.07	-0.110633
4869.88	-0.117226
4884.7	-0.123902
4899.51	-0.130513
4914.32	-0.121243
4929.14	-0.126866
4944.79	-0.132084
4960.37	-0.138328
4975.95	-0.142707
4991.52	-0.148252
5007.1	-0.152849
5022.67	-0.156776
5038.25	-0.160194
5053.82	-0.163169
5069.4	-0.165824
5084.97	-0.168212
5100.55	-0.170391
5115.56	-0.172338
5130.56	-0.174029
5145.51	-0.17579
5160.46	-0.177423
5175.41	-0.17892
5190.37	-0.180285
5205.32	-0.181529
5220.27	-0.182658
5235.16	-0.18367
5250.04	-0.184572
5264.93	-0.185365
5279.81	-0.18605
5294.69	-0.18663
5309.58	-0.181027
5324.46	-0.180472
5339.35	-0.181254
5354.23	-0.181797
5369.12	-0.182223
5384	-0.182539
5398.88	-0.182726
5413.77	-0.182795
5428.65	-0.182758
5443.54	-0.182626
5458.42	-0.182409
5473.31	-0.182114
5488.19	-0.18175
5503.16	-0.181324
5518.13	-0.18084
5533.04	-0.180307
5548.01	-0.179724
5562.98	-0.179119
5577.95	-0.178495
5592.92	-0.177852
5607.89	-0.177191
5622.86	-0.176512
5637.82	-0.175815
5652.79	-0.1751
5667.76	-0.174366
5682.73	-0.173613
5697.7	-0.172855
5712.67	-0.172075
5727.64	-0.171287
5742.61	-0.170486
5757.58	-0.169666
5772.55	-0.168794
5787.52	-0.167888
5802.49	-0.166949
5817.46	-0.165977
5832.43	-0.164973
5847.4	-0.163937
5862.37	-0.162868
5877.34	-0.161768
5892.31	-0.160635
5907.27	-0.159469
5922.24	-0.158272
5937.21	-0.157041
5952.18	-0.155778
5967.15	-0.154483
5982.12	-0.153155
5997.09	-0.151793
6012.06	-0.150407
6027.03	-0.149002
6041.95	-0.14759
6056.87	-0.146169
6071.79	-0.149081
6086.71	-0.14828
6101.63	-0.147452
6116.55	-0.146599
6131.47	-0.145722
6146.39	-0.144603
6161.31	-0.143481
6176.22	-0.142352
6191.14	-0.141216
6206.06	-0.140069
6220.98	-0.13891
6235.9	-0.137736
6250.82	-0.136545
6265.74	-0.135337
6280.66	-0.134109
6295.58	-0.13286
6310.5	-0.13159
6325.42	-0.130296
6340.34	-0.128978
6354.95	-0.127663
6369.57	-0.1252
6384.19	-0.122734
6398.81	-0.120294
6413.42	-0.117891
6428.04	-0.115532
6442.66	-0.113215
6457.27	-0.110936
6471.89	-0.10869
6486.51	-0.106467
6501.13	-0.10426
6515.74	-0.102061
6530.36	-0.0998617
6544.98	-0.0976555
6559.59	-0.0954356
6574.21	-0.0931963
6588.83	-0.0909325
6603.44	-0.0886396
6618.06	-0.0863141
6632.68	-0.0839658
6647.3	-0.0816131
6661.91	-0.0792648
6676.53	-0.0769239
6691.15	-0.0745892
6705.76	-0.0722561
6720.38	-0.0699177
6735	-0.0675653
6749.61	-0.0651893
6764.23	-0.0627806
6778.85	-0.0603313
6793.47	-0.0578364
6808.08	-0.0526575
6822.7	-0.0479659
6837.32	-0.0437319
6851.93	-0.0398686
6866.55	-0.0362611
6881.17	-0.0327927
6895.78	-0.0293632
6910.4	-0.025898
6925.02	-0.0223497
6939.64	-0.0186943
6954.25	-0.0149918
6968.87	-0.0112477
6983.49	-0.00751295
6998.1	-0.00377368
7012.72	-0.000294128
7027.34	0.00614879
7041.96	0.0119343
7056.57	0.0176604
7071.19	0.0233711
7085.81	0.0290007
7100.42	0.034417
7115.04	0.0395029
7129.66	0.0441716
7144.27	0.048866
7158.89	0.0534305
7173.51	0.0575721
7188.13	0.0611107
7202.74	0.0639988
7217.36	0.0662834
7231.98	0.0680617
7246.59	0.0693862
7261.21	0.0703394
7275.83	0.071018
7290.44	0.0715079
7305.06	0.0718711
7319.68	0.0721452
7334.3	0.0723488
7348.91	0.0724895
7363.53	0.0725692
7378.15	0.0725874
7392.76	0.0725419
7407.38	0.0724359
7422	0.0722777
7436.61	0.072075
7451.23	0.0718303
7465.85	0.0715367
7480.47	0.0711797
7495.08	0.0707397
7509.7	0.0701964
7524.32	0.069532
7538.93	0.0687343
7553.55	0.0677985
7568.17	0.0667281
7582.78	0.065534
7597.4	0.064233
7612.02	0.0628453
7626.63	0.0613926
7641.25	0.0598963
7655.86	0.0583759
7670.48	0.0568475
7685.09	0.055324
7699.7	0.0538154
7714.31	0.0523283
7728.92	0.0508663
7743.54	0.0494306
7758.15	0.0480201
7772.76	0.0466315
7787.37	0.0452599
7801.98	0.0438986
7816.6	0.042539
7831.22	0.0411724
7845.83	0.0397892
7860.45	0.0383794
7875.07	0.036933
7889.68	0.0354414
7904.3	0.033897
7918.92	0.0322899
7933.54	0.0306107
7948.15	0.0288542
7962.77	0.0270125
7977.39	0.0250841
7992	0.0230708
8006.62	0.0209664
8021.24	0.0184027
8035.85	0.0158802
8050.47	0.0135086
8065.09	0.0112896
8079.71	0.00912327
8094.32	0.00772227
8108.94	0.00579371
8123.56	0.00312301
8138.17	0.0010499
8152.79	-0.000750392
8167.41	-0.00232664
8182.02	-0.00338985
8196.64	-0.00440919
8211.26	-0.0054014
8225.88	-0.00638605
8240.49	-0.00736912
8255.11	-0.00834407
8269.73	-0.00930063
8284.34	-0.00827714
8298.96	-0.00890058
8313.58	-0.0102062
8328.19	-0.0109593
8342.81	-0.0117739
8357.43	-0.0124767
8372.05	-0.0131142
8386.66	-0.0137024
8401.28	-0.0142595
8415.9	-0.01479
8430.51	-0.0153023
8445.13	-0.0158061
8459.75	-0.0163099
8474.36	-0.0168207
8488.98	-0.0173277
8503.6	-0.0178732
8518.21	-0.0185562
8532.83	-0.0192021
8547.45	-0.0198224
8562.07	-0.0204254
8576.68	-0.0210167
8591.3	-0.0215997
8605.92	-0.0221631
8620.53	-0.0227145
8635.15	-0.0215843
8649.77	-0.0215469
8664.38	-0.0221333
8679	-0.0226751
8693.62	-0.0231918
8708.24	-0.0236837
8722.85	-0.0241516
8737.47	-0.0245802
8752.09	-0.0249751
8766.7	-0.0253408
8781.32	-0.0256812
8795.94	-0.0259999
8810.55	-0.0262993
8825.17	-0.0265815
8839.79	-0.0268479
8854.41	-0.0270995
8869.02	-0.0273361
8883.64	-0.027558
8898.26	-0.0277654
8912.87	-0.0279587
8927.49	-0.0281626
8942.11	-0.0283463
8956.72	-0.0285111
8971.34	-0.0286582
8985.96	-0.0287885
9000.58	-0.0289018
9015.19	-0.0289993
9029.81	-0.0290819
9044.43	-0.0291505
9059.04	-0.029206
9073.66	-0.0293213
9088.28	-0.0294135
9102.89	-0.0294845
9117.51	-0.0295362
9132.13	-0.0295702
9146.75	-0.0295876
9161.36	-0.0295898
9175.98	-0.0295775
9190.6	-0.0295515
9205.21	-0.0295126
9219.83	-0.0294596
9234.45	-0.029393
9249.06	-0.0293132
9263.68	-0.0292206
9278.3	-0.0291155
9292.92	-0.0289982
9307.53	-0.0272329
9322.15	-0.0271599
9336.77	-0.0270801
9351.38	-0.0269931
9366	-0.0268985
9380.62	-0.026796
9395.24	-0.0266851
9409.85	-0.0265657
9424.47	-0.0264375
9439.09	-0.0263002
9453.7	-0.0261536
9468.32	-0.0259977
9482.94	-0.0258322
9497.55	-0.0256571
9512.17	-0.0254722
9526.79	-0.0252776
9541.41	-0.0250733
9556.02	-0.024857
9570.64	-0.0246292
9585.26	-0.0243905
9599.87	-0.0241413
9614.49	-0.023882
9629.11	-0.0236132
9643.77	-0.0233344
9658.42	-0.0230467
9673.08	-0.0227506
9687.74	-0.0224462
9702.4	-0.022134
9717.06	-0.0218143
9731.71	-0.0214874
9746.37	-0.0211536
9761.03	-0.0208134
9775.69	-0.0204669
9790.35	-0.0201146
9805	-0.0197566
9819.66	-0.0193932
9834.32	-0.0190246
9848.98	-0.0186509
9863.64	-0.0182725
9878.29	-0.0178893
9892.95	-0.0175016
9907.61	-0.0171096
9922.27	-0.0167199
9936.92	-0.016332
9951.58	-0.0159451
9966.24	-0.0155652
9980.9	-0.0151906
9995.56	-0.0148217
10010.2	-0.014457
10024.9	-0.0140951
10039.5	-0.0137346
10054.2	-0.0133744
10068.8	-0.0130137
10083.5	-0.0126515
10098.2	-0.0122871
10112.8	-0.0119199
10127.5	-0.0115493
10142.1	-0.0111749
10156.8	-0.0107962
10171.5	-0.010413
10186.1	-0.0098957
10200.8	-0.00938526
10215.4	-0.00888069
10230.1	-0.00838117
10244.7	-0.00788607
10259.4	-0.00739481
10274.1	-0.00690694
10288.7	-0.00642205
10303.4	-0.00593976
10318	-0.00545975
10332.7	-0.00498171
10347.3	-0.00428861
10362	-0.00364548
10376.7	-0.00304408
10391.3	-0.0024774
10406	-0.00193947
10420.6	-0.00142522
10435.3	-0.000930383
10450	-0.000451368
10464.6	1.47969e-05
10479.3	0.000470476
10493.9	0.000917688
10508.6	0.00135826
10523.2	0.00179384
10537.9	0.00222582
10552.6	0.0026554
10567.2	0.00308359
10581.9	0.00351117
10596.5	0.00393872
10611.2	0.00436663
10625.8	0.0047951
10640.5	0.00522421
10655.2	0.00565441
10670.3	0.00608472
10685.4	0.00648469
10700.6	0.00686339
10715.7	0.00722775
10730.8	0.00758322
10746	0.0079342
10761.1	0.00828414
10776.2	0.00863579
10791.4	0.00899132
10806.5	0.00935243
10821.6	0.00971975
10836.8	0.0100928
10851.9	0.0104708
10867	0.010853
10882.2	0.011239
10897.7	0.011666
10913.3	0.0121837
10928.9	0.0127967
10944.5	0.0134661
10960	0.0141568
10975.6	0.0148455
10991.2	0.0155196
11006.8	0.016175
11022.4	0.0168121
11037.9	0.0180587
11053.5	0.0196462
11069.1	0.0212116
11084.7	0.0224649
11100.2	0.0233982
11115.8	0.0240584
11131.4	0.0245115
11147	0.0248097
11162.5	0.0250061
11178.1	0.0251396
11193.7	0.0252356
11209.3	0.0253107
11224.8	0.0253578
11240.4	0.0253748
11256	0.0253692
11271.6	0.0253518
11287.1	0.0253322
11302.7	0.0253184
11318.3	0.0253123
11333.9	0.0253105
11349.4	0.0253055
11365	0.0252892
11380.6	0.0252536
11396.2	0.0251924
11411.7	0.0251023
11427.3	0.0249832
11442.9	0.0248374
11458.5	0.0246689
11474	0.024482
11489.6	0.0242804
11505.2	0.0240667
11520.8	0.0238419
11536.3	0.0236054
11551.9	0.0233553
11567.5	0.0230882
11583.1	0.0228001
11598.6	0.0224867
11614.2	0.0221432
11629.8	0.0217657
11645.4	0.0213504
11661	0.0208949
11676.5	0.0203978
11692.1	0.0198588
11707.7	0.0192792
11723.3	0.018661
11738.8	0.0180074
11754.4	0.0173223
11770	0.0166103
11785.6	0.0158748
11801.1	0.0151195
11816.7	0.0143446
11832.3	0.013555
11847.9	0.0127573
11863.4	0.0119637
11879	0.0110671
11894.6	0.0102036
11910.2	0.00938997
11925.7	0.00907028
11941.3	0.00835642
11956.9	0.00756329
11972.5	0.00686436
11988	0.00636329
