Problem size with different number of CPUs using function optimization
THREADS	INITIAL_DEPTH	MTPS	SPEEDUP_PER	TIMESTEPS	TIMESTEP_SIZE	SECONDS_FOR_SIMULATION	AVERAGE_TRIANGLES	AVERAGE_PARTITIONS
64	20	108.982		100	0.000986073	17.5965	1.9177e+07	1162.24
63	20	108.342		100	0.000986073	17.7004	1.9177e+07	1162.24
62	20	108.04		100	0.000986073	17.7498	1.9177e+07	1162.24
61	20	106.228		100	0.000986073	18.0527	1.9177e+07	1162.24
60	20	104.507		100	0.000986073	18.35	1.9177e+07	1162.24
59	20	105.218		100	0.000986073	18.2259	1.9177e+07	1162.24
58	20	104.146		100	0.000986073	18.4135	1.9177e+07	1162.24
57	20	101.154		100	0.000986073	18.9582	1.9177e+07	1162.24
56	20	101.274		100	0.000986073	18.9357	1.9177e+07	1162.24
55	20	99.9811		100	0.000986073	19.1806	1.9177e+07	1162.24
54	20	99.0859		100	0.000986073	19.3539	1.9177e+07	1162.24
53	20	98.1194		100	0.000986073	19.5446	1.9177e+07	1162.24
52	20	96.5452		100	0.000986073	19.8632	1.9177e+07	1162.24
51	20	94.5132		100	0.000986073	20.2903	1.9177e+07	1162.24
50	20	93.0036		100	0.000986073	20.6196	1.9177e+07	1162.24
49	20	91.5692		100	0.000986073	20.9426	1.9177e+07	1162.24
48	20	89.9929		100	0.000986073	21.3094	1.9177e+07	1162.24
47	20	87.6594		100	0.000986073	21.8767	1.9177e+07	1162.24
46	20	87.8267		100	0.000986073	21.835	1.9177e+07	1162.24
45	20	85.714		100	0.000986073	22.3732	1.9177e+07	1162.24
44	20	84.3853		100	0.000986073	22.7255	1.9177e+07	1162.24
43	20	82.3854		100	0.000986073	23.2772	1.9177e+07	1162.24
42	20	81.4732		100	0.000986073	23.5378	1.9177e+07	1162.24
41	20	79.5429		100	0.000986073	24.109	1.9177e+07	1162.24
40	20	76.7498		100	0.000986073	24.9864	1.9177e+07	1162.24
39	20	75.3609		100	0.000986073	25.4469	1.9177e+07	1162.24
38	20	74.1552		100	0.000986073	25.8606	1.9177e+07	1162.24
37	20	72.0183		100	0.000986073	26.6279	1.9177e+07	1162.24
36	20	71.431		100	0.000986073	26.8469	1.9177e+07	1162.24
35	20	68.6036		100	0.000986073	27.9533	1.9177e+07	1162.24
34	20	67.3484		100	0.000986073	28.4743	1.9177e+07	1162.24
33	20	65.0448		100	0.000986073	29.4828	1.9177e+07	1162.24
32	20	63.1209		100	0.000986073	30.3814	1.9177e+07	1162.24
31	20	61.6415		100	0.000986073	31.1105	1.9177e+07	1162.24
30	20	61.0725		100	0.000986073	31.4004	1.9177e+07	1162.24
29	20	59.5159		100	0.000986073	32.2216	1.9177e+07	1162.24
28	20	58.8164		100	0.000986073	32.6048	1.9177e+07	1162.24
27	20	57.3279		100	0.000986073	33.4514	1.9177e+07	1162.24
26	20	56.0202		100	0.000986073	34.2323	1.9177e+07	1162.24
25	20	54.6601		100	0.000986073	35.0841	1.9177e+07	1162.24
24	20	53.3189		100	0.000986073	35.9666	1.9177e+07	1162.24
23	20	51.6043		100	0.000986073	37.1616	1.9177e+07	1162.24
22	20	50.1698		100	0.000986073	38.2242	1.9177e+07	1162.24
21	20	48.4393		100	0.000986073	39.5897	1.9177e+07	1162.24
20	20	47.1308		100	0.000986073	40.6889	1.9177e+07	1162.24
19	20	44.8925		100	0.000986073	42.7176	1.9177e+07	1162.24
18	20	42.6287		100	0.000986073	44.9861	1.9177e+07	1162.24
17	20	40.3464		100	0.000986073	47.5308	1.9177e+07	1162.24
16	20	38.0171		100	0.000986073	50.4431	1.9177e+07	1162.24
15	20	36.2645		100	0.000986073	52.881	1.9177e+07	1162.24
14	20	34.4481		100	0.000986073	55.6693	1.9177e+07	1162.24
13	20	32.6181		100	0.000986073	58.7924	1.9177e+07	1162.24
12	20	30.7885		100	0.000986073	62.2861	1.9177e+07	1162.24
11	20	28.2312		100	0.000986073	67.9284	1.9177e+07	1162.24
10	20	25.6138		100	0.000986073	74.8697	1.9177e+07	1162.24
9	20	22.9968		100	0.000986073	83.39	1.9177e+07	1162.24
8	20	20.3592		100	0.000986073	94.1931	1.9177e+07	1162.24
7	20	18.7354		100	0.000986073	102.357	1.9177e+07	1162.24
6	20	17.0836		100	0.000986073	112.254	1.9177e+07	1162.24
5	20	15.4097		100	0.000986073	124.447	1.9177e+07	1162.24
4	20	13.7067		100	0.000986073	139.909	1.9177e+07	1162.24
3	20	10.3448		100	0.000986073	185.378	1.9177e+07	1162.24
2	20	7.01356		100	0.000986073	273.427	1.9177e+07	1162.24
1	20	3.51729	1.0000	100	0.000986073	545.221	1.9177e+07	1162.24
