time,surface_elevation,reference_data,number_of_local_cells,number_of_global_cells
0,9.04797e-06,-2,262144,262144
1.00028,9.04894e-06,-2,262144,262144
2.00057,9.05005e-06,-2,262144,262144
3.00088,9.05116e-06,-2,262144,262144
4.0002,9.05227e-06,-2,262144,262144
5.00052,9.05338e-06,-2,262144,262144
6.00085,9.05447e-06,-2,262144,262144
7.00018,9.05534e-06,-2,262144,262144
8.00052,9.05542e-06,-2,262144,262144
9.00085,9.05341e-06,-2,262144,262144
10.0002,9.04712e-06,-2,262144,262144
11.0006,9.03349e-06,-2,262144,262144
12.0009,9.00883e-06,-2,262144,262144
13.0004,8.96913e-06,-2,262144,262144
14.0008,8.91023e-06,-2,262144,262144
15.0003,8.82842e-06,-2,262144,262144
16.0009,8.72011e-06,-2,262144,262144
17.0006,8.58264e-06,-2,262144,262144
18.0004,8.41366e-06,-2,262144,262144
19.0005,8.21152e-06,-2,262144,262144
20.0006,7.97528e-06,-2,262144,262144
21.0003,7.70465e-06,-2,262144,262144
22.0009,7.39924e-06,-2,262144,262144
23.001,7.06002e-06,-2,262144,262144
24.0005,6.68778e-06,-2,262144,262144
25.0005,6.28325e-06,-2,262144,262144
26.0009,5.84775e-06,-2,262144,262144
27.0006,5.38328e-06,-2,262144,262144
28.0002,4.89109e-06,-2,262144,262144
29.0005,4.37242e-06,-2,262144,262144
30.0003,0.000805943,-2,262144,262144
31.0004,0.00106174,-2,262144,262144
32.0004,0.0013947,-2,262144,262144
33.0001,0.00184474,-2,262144,262144
34.0009,0.00247032,-2,262144,262144
35.0006,0.00367523,-2,262144,262144
36.0003,0.0048089,-2,262144,262144
37.0001,0.00603565,-2,262144,262144
38.0008,0.00698152,-2,262144,262144
39.0006,0.00910391,-2,262144,262144
40.0003,0.0121879,-2,262144,262144
41,0.0160617,-2,262144,262144
42.0008,0.0207682,-2,262144,262144
43.0005,0.0259389,-2,262144,262144
44.0002,0.0312577,-2,262144,262144
45.001,0.0364252,-2,262144,262144
46.0007,0.0407649,-2,262144,262144
47.0004,0.0440053,-2,262144,262144
48.0002,0.0464462,-2,262144,262144
49.0009,0.0479746,-2,262144,262144
50.0007,0.0484806,-2,262144,262144
51.0004,0.0482074,-2,262144,262144
52.0001,0.0473844,-2,262144,262144
53.0009,0.0460981,-2,262144,262144
54.0006,0.0444363,-2,262144,262144
55.0003,0.042432,-2,262144,262144
56.0001,0.0401719,-2,262144,262144
57.0008,0.0378597,-2,262144,262144
58.0006,0.0363072,-2,262144,262144
59.0003,0.0347517,-2,262144,262144
60,0.0330762,-2,262144,262144
61.0008,0.0312072,-2,262144,262144
62.0005,0.029266,-2,262144,262144
63.0002,0.0274666,-2,262144,262144
64.001,0.0238505,-2,262144,262144
65.0007,0.0191327,-2,262144,262144
66.0004,-0.0108458,-2,262144,262144
67,-0.00181276,-2,262144,262144
68.0008,-0.0101741,-2,262144,262144
69.0005,0.00205583,-2,262144,262144
70.0002,0.00964512,-2,262144,262144
71.0009,-0.0116077,-2,262144,262144
72.0005,-0.0115731,-2,262144,262144
73.0007,-0.011429,-2,262144,262144
74.0004,-0.00959507,-2,262144,262144
75.0005,-0.0103902,-2,262144,262144
76,-0.0101251,-2,262144,262144
77.0001,-0.00992205,-2,262144,262144
78.0008,-0.00975668,-2,262144,262144
79,-0.00961687,-2,262144,262144
80.0001,-0.0094946,-2,262144,262144
81.0001,-0.00938514,-2,262144,262144
82.0008,-0.00928524,-2,262144,262144
83.0008,-0.00919297,-2,262144,262144
84.0002,-0.00910685,-2,262144,262144
85.0001,-0.00902574,-2,262144,262144
86.0008,-0.00894888,-2,262144,262144
87.0001,-0.00887584,-2,262144,262144
88.0004,-0.008806,-2,262144,262144
89.0005,-0.00873907,-2,262144,262144
90.0005,-0.00867476,-2,262144,262144
91.0005,-0.0086128,-2,262144,262144
92.0004,-0.008553,-2,262144,262144
93.0003,-0.00849517,-2,262144,262144
94.0002,-0.00843916,-2,262144,262144
95.001,-0.00838478,-2,262144,262144
96.0008,-0.00833202,-2,262144,262144
97.0005,-0.00828072,-2,262144,262144
98.0003,-0.00823079,-2,262144,262144
99,-0.00818213,-2,262144,262144
100.001,-0.00813464,-2,262144,262144
101,-0.00808833,-2,262144,262144
102,-0.00804309,-2,262144,262144
103.001,-0.00799882,-2,262144,262144
104.001,-0.00795556,-2,262144,262144
105,-0.00791322,-2,262144,262144
106.001,-0.0078717,-2,262144,262144
107.001,-0.00783104,-2,262144,262144
108,-0.00779118,-2,262144,262144
109,-0.00775206,-2,262144,262144
110.001,-0.00771362,-2,262144,262144
111,-0.00767591,-2,262144,262144
112,-0.00763885,-2,262144,262144
113.001,-0.00760238,-2,262144,262144
114.001,-0.00756656,-2,262144,262144
115,-0.0075313,-2,262144,262144
116.001,-0.00749657,-2,262144,262144
117.001,-0.00746241,-2,262144,262144
118,-0.00742876,-2,262144,262144
119.001,-0.00739557,-2,262144,262144
