time,surface_elevation,reference_data,number_of_local_cells,number_of_global_cells
0,9.13605e-05,-2,262144,262144
1.0002,0.000108899,-2,262144,262144
2.00042,0.000131225,-2,262144,262144
3.00064,0.000159723,-2,262144,262144
4.00088,0.000196197,-2,262144,262144
5.00112,0.000243017,-2,262144,262144
6.00137,0.000303312,-2,262144,262144
7.00022,0.000381105,-2,262144,262144
8.00048,0.000482125,-2,262144,262144
9.00074,0.000613637,-2,262144,262144
10.001,0.000785482,-2,262144,262144
11.0013,0.00101083,-2,262144,262144
12.0002,0.00129225,-2,262144,262144
13.0005,0.00163023,-2,262144,262144
14.0009,0.00214807,-2,262144,262144
15.0013,0.00278273,-2,262144,262144
16.0004,0.00338026,-2,262144,262144
17.0011,0.00415332,-2,262144,262144
18.0004,0.0051177,-2,262144,262144
19.0014,0.00630098,-2,262144,262144
20.0005,0.00772219,-2,262144,262144
21.0012,0.00940013,-2,262144,262144
22.0011,0.0113271,-2,262144,262144
23.0006,0.0134687,-2,262144,262144
24.0011,0.0157515,-2,262144,262144
25.0014,0.018046,-2,262144,262144
26.0012,0.0201819,-2,262144,262144
27.0004,0.0219701,-2,262144,262144
28.0001,0.0232447,-2,262144,262144
29.0002,0.0238968,-2,262144,262144
30.0002,0.0238997,-2,262144,262144
31.0001,0.0233049,-2,262144,262144
32.0011,0.0222177,-2,262144,262144
33.0013,0.0207738,-2,262144,262144
34,0.0191114,-2,262144,262144
35.0003,0.0173488,-2,262144,262144
36.0005,0.0155895,-2,262144,262144
37.0007,0.0139098,-2,262144,262144
38.0009,0.0123627,-2,262144,262144
39.0012,0.0109785,-2,262144,262144
40.0014,0.0097707,-2,262144,262144
41.0002,0.00874168,-2,262144,262144
42.0004,0.00820123,-2,262144,262144
43.0006,0.00820141,-2,262144,262144
44.0008,0.00820158,-2,262144,262144
45.0011,0.00820175,-2,262144,262144
46.0013,0.00820193,-2,262144,262144
47.0001,0.0082021,-2,262144,262144
48.0003,0.00820228,-2,262144,262144
49.0005,0.00820245,-2,262144,262144
50.0007,0.00820263,-2,262144,262144
51.001,0.0082028,-2,262144,262144
52.0012,0.00820298,-2,262144,262144
53.0014,0.00820315,-2,262144,262144
54.0002,0.00897313,-2,262144,262144
55.0004,0.00996691,-2,262144,262144
56.0006,0.0106754,-2,262144,262144
57.0009,0.0109536,-2,262144,262144
58.0011,0.0111672,-2,262144,262144
59.0013,0.0112418,-2,262144,262144
60.0001,0.0112536,-2,262144,262144
61.0003,0.0114328,-2,262144,262144
62.0005,0.0117576,-2,262144,262144
63.0008,0.0121074,-2,262144,262144
64.0005,0.0124578,-2,262144,262144
65.0006,0.0127993,-2,262144,262144
66.0003,0.0131482,-2,262144,262144
67.0014,0.0135061,-2,262144,262144
68.0011,0.0138673,-2,262144,262144
69.0007,0.0142291,-2,262144,262144
70.0013,0.0145768,-2,262144,262144
71.0002,0.0149006,-2,262144,262144
72.0002,0.0151943,-2,262144,262144
73.0012,0.0154507,-2,262144,262144
74.0002,0.0156642,-2,262144,262144
75,0.0158306,-2,262144,262144
76.0006,0.0159463,-2,262144,262144
77.0006,0.0159997,-2,262144,262144
78.0014,0.0159918,-2,262144,262144
79.0001,0.0159205,-2,262144,262144
80.001,0.0157871,-2,262144,262144
81.0012,0.015579,-2,262144,262144
82.0008,0.015327,-2,262144,262144
83.0012,0.014689,-2,262144,262144
84.0011,0.0118818,-2,262144,262144
85.0005,0.00862696,-2,262144,262144
86.0009,0.0064936,-2,262144,262144
87.0009,0.00695008,-2,262144,262144
88.0006,0.0054218,-2,262144,262144
89.0001,0.00134698,-2,262144,262144
90.0008,-0.00108489,-2,262144,262144
91.0001,-0.00111837,-2,262144,262144
92.0008,-0.0017775,-2,262144,262144
93.0001,-0.00314765,-2,262144,262144
94.0007,-0.00390782,-2,262144,262144
95.0014,-0.00389472,-2,262144,262144
96.0005,-0.00339518,-2,262144,262144
97.0012,-0.00327259,-2,262144,262144
98.0003,-0.00298863,-2,262144,262144
99.0009,-0.0022253,-2,262144,262144
100,-0.00184213,-2,262144,262144
101.001,-0.00172981,-2,262144,262144
102.001,-0.00165116,-2,262144,262144
103,-0.00155241,-2,262144,262144
104.001,-0.00142771,-2,262144,262144
105,-0.00129063,-2,262144,262144
106.001,-0.00114684,-2,262144,262144
107.001,-0.000997754,-2,262144,262144
108,-0.000848945,-2,262144,262144
109.001,-0.00071066,-2,262144,262144
110,-0.000585201,-2,262144,262144
111.001,-0.000466015,-2,262144,262144
112.001,-0.000345579,-2,262144,262144
113,-0.000241011,-2,262144,262144
114.001,-0.000167073,-2,262144,262144
115,-0.000116628,-2,262144,262144
116.001,-8.33917e-05,-2,262144,262144
117.001,-6.41648e-05,-2,262144,262144
118,-5.17265e-05,-2,262144,262144
119.001,-4.01757e-05,-2,262144,262144
