time,surface_elevation,reference_data,number_of_local_cells,number_of_global_cells
0,9.14617e-05,-2,524288,524288
1.00028,0.000109013,-2,524288,524288
2.00007,0.000131345,-2,524288,524288
3.00037,0.000159863,-2,524288,524288
4.00018,0.000196343,-2,524288,524288
5,0.000243164,-2,524288,524288
6.00032,0.000303486,-2,524288,524288
7.00014,0.000381398,-2,524288,524288
8.00046,0.000482499,-2,524288,524288
9.00028,0.000614056,-2,524288,524288
10.0001,0.000785969,-2,524288,524288
11.0005,0.00101157,-2,524288,524288
12.0003,0.00129384,-2,524288,524288
13.0002,0.00163219,-2,524288,524288
14.0002,0.00205641,-2,524288,524288
15.0002,0.00260963,-2,524288,524288
16.0002,0.00359969,-2,524288,524288
17.0004,0.00431159,-2,524288,524288
18.0002,0.00524341,-2,524288,524288
19.0003,0.00640781,-2,524288,524288
20.0004,0.0078249,-2,524288,524288
21.0001,0.00950682,-2,524288,524288
22.0003,0.0114497,-2,524288,524288
23,0.0136138,-2,524288,524288
24.0002,0.0159184,-2,524288,524288
25.0003,0.0182258,-2,524288,524288
26.0003,0.0203536,-2,524288,524288
27,0.0221038,-2,524288,524288
28.0003,0.0233103,-2,524288,524288
29.0002,0.0238755,-2,524288,524288
30.0001,0.023791,-2,524288,524288
31.0001,0.0231242,-2,524288,524288
32.0002,0.0219911,-2,524288,524288
33.0004,0.0205269,-2,524288,524288
34.0002,0.0188652,-2,524288,524288
35.0004,0.0171207,-2,524288,524288
36.0001,0.0153892,-2,524288,524288
37.0003,0.0137392,-2,524288,524288
38,0.0122205,-2,524288,524288
39.0003,0.010861,-2,524288,524288
40.0005,0.00967411,-2,524288,524288
41.0002,0.00865995,-2,524288,524288
42.0004,0.00812399,-2,524288,524288
43.0002,0.00812405,-2,524288,524288
44.0004,0.00812411,-2,524288,524288
45.0001,0.00812417,-2,524288,524288
46.0003,0.00812424,-2,524288,524288
47.0001,0.0081243,-2,524288,524288
48.0003,0.00812436,-2,524288,524288
49,0.00812442,-2,524288,524288
50.0002,0.00812448,-2,524288,524288
51.0005,0.00812455,-2,524288,524288
52.0002,0.00812461,-2,524288,524288
53.0004,0.00812467,-2,524288,524288
54.0001,0.00812473,-2,524288,524288
55.0003,0.00812479,-2,524288,524288
56.0001,0.00812485,-2,524288,524288
57.0003,0.00812492,-2,524288,524288
58,0.00812498,-2,524288,524288
59.0002,0.00812504,-2,524288,524288
60.0005,0.0081251,-2,524288,524288
61.0002,0.00812516,-2,524288,524288
62.0004,0.00812522,-2,524288,524288
63.0001,0.00812528,-2,524288,524288
64.0004,0.00812535,-2,524288,524288
65.0001,0.00812541,-2,524288,524288
66.0003,0.00812547,-2,524288,524288
67,0.00812553,-2,524288,524288
68.0002,0.00812559,-2,524288,524288
69.0005,0.00812565,-2,524288,524288
70.0002,0.00812571,-2,524288,524288
71.0004,0.00812577,-2,524288,524288
72.0001,0.00812584,-2,524288,524288
73.0004,0.0081259,-2,524288,524288
74.0001,0.00812596,-2,524288,524288
75.0003,0.00812602,-2,524288,524288
76,0.00812608,-2,524288,524288
77.0002,0.00812614,-2,524288,524288
78.0005,0.0081262,-2,524288,524288
79.0002,0.00812626,-2,524288,524288
80.0004,0.00812633,-2,524288,524288
81.0001,0.00812639,-2,524288,524288
82.0004,0.00812645,-2,524288,524288
83.0001,0.00812651,-2,524288,524288
84.0003,0.00812657,-2,524288,524288
85,0.00812663,-2,524288,524288
86.0003,0.00812669,-2,524288,524288
87.0005,0.00812675,-2,524288,524288
88.0002,0.00812681,-2,524288,524288
89.0004,0.00812688,-2,524288,524288
90.0001,0.00812694,-2,524288,524288
91.0004,0.008127,-2,524288,524288
92.0001,0.00812706,-2,524288,524288
93.0003,0.00812712,-2,524288,524288
94,0.00812718,-2,524288,524288
95.0003,0.00812724,-2,524288,524288
96.0005,0.0081273,-2,524288,524288
97.0002,0.00812736,-2,524288,524288
98.0004,0.00812743,-2,524288,524288
99.0001,0.00812749,-2,524288,524288
100,0.00812755,-2,524288,524288
101,0.00812761,-2,524288,524288
102,0.00812767,-2,524288,524288
103,0.00812773,-2,524288,524288
104,0.00812779,-2,524288,524288
105,0.00812785,-2,524288,524288
106,0.00812791,-2,524288,524288
107,0.00812798,-2,524288,524288
108,0.00812804,-2,524288,524288
109,0.0081281,-2,524288,524288
110,0.00812816,-2,524288,524288
111,0.00812822,-2,524288,524288
112,0.00812828,-2,524288,524288
113,0.00812834,-2,524288,524288
114,0.0081284,-2,524288,524288
115,0.00812846,-2,524288,524288
116,0.00812852,-2,524288,524288
117,0.00812859,-2,524288,524288
118,0.00812865,-2,524288,524288
119,0.00812871,-2,524288,524288
