time,surface_elevation,reference_data,number_of_local_cells,number_of_global_cells
0,9.04295e-06,-2,262144,262144
1.0002,9.04518e-06,-2,262144,262144
2.00042,9.04676e-06,-2,262144,262144
3.00064,9.04833e-06,-2,262144,262144
4.00088,9.04989e-06,-2,262144,262144
5.00112,9.05108e-06,-2,262144,262144
6.00137,9.05006e-06,-2,262144,262144
7.00022,9.04192e-06,-2,262144,262144
8.00048,9.01818e-06,-2,262144,262144
9.00074,8.96791e-06,-2,262144,262144
10.001,8.87961e-06,-2,262144,262144
11.0013,8.74283e-06,-2,262144,262144
12.0002,8.54946e-06,-2,262144,262144
13.0005,8.29279e-06,-2,262144,262144
14.0009,7.96903e-06,-2,262144,262144
15.0013,7.57607e-06,-2,262144,262144
16.0004,7.11408e-06,-2,262144,262144
17.0011,6.58276e-06,-2,262144,262144
18.0004,5.98589e-06,-2,262144,262144
19.0014,5.32507e-06,-2,262144,262144
20.0005,4.60682e-06,-2,262144,262144
21.0012,3.83331e-06,-2,262144,262144
22.0011,3.01131e-06,-2,262144,262144
23.0006,2.14601e-06,-2,262144,262144
24.0011,1.24159e-06,-2,262144,262144
25.0014,3.04879e-07,-2,262144,262144
26.0012,-6.58593e-07,-2,262144,262144
27.0004,-1.64357e-06,-2,262144,262144
28.0001,-2.64658e-06,-2,262144,262144
29.0002,-3.6633e-06,-2,262144,262144
30.0002,-1.2315e-06,-2,262144,262144
31.0001,0.00105564,-2,262144,262144
32.0011,0.00140098,-2,262144,262144
33.0013,0.0018852,-2,262144,262144
34,0.0029059,-2,262144,262144
35.0003,0.00380633,-2,262144,262144
36.0005,0.00475769,-2,262144,262144
37.0007,0.00524004,-2,262144,262144
38.0009,0.00655242,-2,262144,262144
39.0012,0.00868675,-2,262144,262144
40.0014,0.0116125,-2,262144,262144
41.0002,0.0151701,-2,262144,262144
42.0004,0.0196165,-2,262144,262144
43.0006,0.0248246,-2,262144,262144
44.0008,0.030504,-2,262144,262144
45.0011,0.036019,-2,262144,262144
46.0013,0.0407047,-2,262144,262144
47.0001,0.0442022,-2,262144,262144
48.0003,0.0465003,-2,262144,262144
49.0005,0.0477238,-2,262144,262144
50.0007,0.0480682,-2,262144,262144
51.001,0.0477195,-2,262144,262144
52.0012,0.04683,-2,262144,262144
53.0014,0.0455191,-2,262144,262144
54.0002,0.043884,-2,262144,262144
55.0004,0.0419631,-2,262144,262144
56.0006,0.0398274,-2,262144,262144
57.0009,0.0374751,-2,262144,262144
58.0011,0.034931,-2,262144,262144
59.0013,0.0321849,-2,262144,262144
60.0001,0.0292455,-2,262144,262144
61.0003,0.0260938,-2,262144,262144
62.0005,0.0228539,-2,262144,262144
63.0008,0.0186771,-2,262144,262144
64.0005,0.00588696,-2,262144,262144
65.0006,0.00656895,-2,262144,262144
66.0003,-0.00112288,-2,262144,262144
67.0014,-0.00391513,-2,262144,262144
68.0011,-0.00220043,-2,262144,262144
69.0007,-0.0115294,-2,262144,262144
70.0013,-0.0115232,-2,262144,262144
71.0002,-0.0115065,-2,262144,262144
72.0002,-0.0115237,-2,262144,262144
73.0012,-0.00812691,-2,262144,262144
74.0002,-0.0114952,-2,262144,262144
75,-0.00834892,-2,262144,262144
76.0006,-0.00658281,-2,262144,262144
77.0006,-0.00696597,-2,262144,262144
78.0014,-0.00637044,-2,262144,262144
79.0001,-0.0058995,-2,262144,262144
80.001,-0.00581127,-2,262144,262144
81.0012,-0.00577564,-2,262144,262144
82.0008,-0.00549898,-2,262144,262144
83.0012,-0.004838,-2,262144,262144
84.0011,-0.00417584,-2,262144,262144
85.0005,-0.00352394,-2,262144,262144
86.0009,-0.0028915,-2,262144,262144
87.0009,-0.00230813,-2,262144,262144
88.0006,-0.00192391,-2,262144,262144
89.0001,-0.00172224,-2,262144,262144
90.0008,-0.00149206,-2,262144,262144
91.0001,-0.00127535,-2,262144,262144
92.0008,-0.0010739,-2,262144,262144
93.0001,-0.000886941,-2,262144,262144
94.0007,-0.000715155,-2,262144,262144
95.0014,-0.000582369,-2,262144,262144
96.0005,-0.000476552,-2,262144,262144
97.0012,-0.000360104,-2,262144,262144
98.0003,-0.000259683,-2,262144,262144
99.0009,-0.000141586,-2,262144,262144
100,-1.18188e-06,-2,262144,262144
101.001,0.000141226,-2,262144,262144
102.001,0.000261992,-2,262144,262144
103,0.000357647,-2,262144,262144
104.001,0.000428411,-2,262144,262144
105,0.000491759,-2,262144,262144
106.001,0.000560582,-2,262144,262144
107.001,0.000609734,-2,262144,262144
108,0.000594209,-2,262144,262144
109.001,0.00051165,-2,262144,262144
110,0.000406215,-2,262144,262144
111.001,0.000324489,-2,262144,262144
112.001,0.000285515,-2,262144,262144
113,0.000264011,-2,262144,262144
114.001,0.00024094,-2,262144,262144
115,0.000207537,-2,262144,262144
116.001,0.000180903,-2,262144,262144
117.001,0.000165638,-2,262144,262144
118,0.000214901,-2,262144,262144
119.001,0.000238359,-2,262144,262144
