time,surface_elevation,reference_data,number_of_local_cells,number_of_global_cells
0,9.03041e-05,-2,2048,2048
1.03394,0.000108728,-2,2048,2048
2.02297,0.000131302,-2,2048,2048
3.01205,0.000160144,-2,2048,2048
4.00118,0.000197105,-2,2048,2048
5.03533,0.000247075,-2,2048,2048
6.02457,0.000309075,-2,2048,2048
7.01385,0.00038934,-2,2048,2048
8.00318,0.000493635,-2,2048,2048
9.03752,0.000636612,-2,2048,2048
10.0269,0.000815131,-2,2048,2048
11.0164,0.00104267,-2,2048,2048
12.006,0.00132668,-2,2048,2048
13.0406,0.00169647,-2,2048,2048
14.0303,0.00213789,-2,2048,2048
15.02,0.00268574,-2,2048,2048
16.0099,0.00336282,-2,2048,2048
17.045,0.00423548,-2,2048,2048
18.0352,0.00525406,-2,2048,2048
19.0257,0.00647615,-2,2048,2048
20.0171,0.00791944,-2,2048,2048
21.0099,0.00958904,-2,2048,2048
22.0046,0.0114688,-2,2048,2048
23.0015,0.0135124,-2,2048,2048
24.0007,0.0156373,-2,2048,2048
25.0023,0.0177247,-2,2048,2048
26.0062,0.0196304,-2,2048,2048
27.0122,0.0212054,-2,2048,2048
28.0202,0.0223252,-2,2048,2048
29.03,0.0229124,-2,2048,2048
30.0412,0.0229482,-2,2048,2048
31.0077,0.0225012,-2,2048,2048
32.0214,0.0216038,-2,2048,2048
33.0356,0.0203688,-2,2048,2048
34.0036,0.0189773,-2,2048,2048
35.0176,0.0173981,-2,2048,2048
36.0314,0.015785,-2,2048,2048
37.045,0.0142113,-2,2048,2048
38.0124,0.0127961,-2,2048,2048
39.0257,0.0114396,-2,2048,2048
40.0389,0.0102328,-2,2048,2048
41.0059,0.00922817,-2,2048,2048
42.0188,0.0083308,-2,2048,2048
43.0316,0.00758367,-2,2048,2048
44.0443,0.00697412,-2,2048,2048
45.0109,0.00650728,-2,2048,2048
46.0235,0.0061242,-2,2048,2048
47.0359,0.00583536,-2,2048,2048
48.0022,0.00563579,-2,2048,2048
49.0144,0.00549564,-2,2048,2048
50.0265,0.00541673,-2,2048,2048
51.0385,0.00539128,-2,2048,2048
52.0044,0.0054111,-2,2048,2048
53.0162,0.00547315,-2,2048,2048
54.0278,0.00557315,-2,2048,2048
55.0393,0.00570732,-2,2048,2048
56.0048,0.00586435,-2,2048,2048
57.016,0.00605699,-2,2048,2048
58.0271,0.00627729,-2,2048,2048
59.0381,0.00652527,-2,2048,2048
60.0029,0.00678856,-2,2048,2048
61.0136,0.00709286,-2,2048,2048
62.024,0.00742522,-2,2048,2048
63.0342,0.00778114,-2,2048,2048
64.0443,0.00815211,-2,2048,2048
65.0082,0.00851,-2,2048,2048
66.0042,0.00887368,-2,2048,2048
67.0134,0.00922881,-2,2048,2048
68.0301,0.00957038,-2,2048,2048
69.0387,0.00989358,-2,2048,2048
70.0012,0.0101865,-2,2048,2048
71.0091,0.0104717,-2,2048,2048
72.0166,0.0107252,-2,2048,2048
73.0237,0.010936,-2,2048,2048
74.0304,0.0110957,-2,2048,2048
75.0365,0.0112004,-2,2048,2048
76.0421,0.0112497,-2,2048,2048
77.0016,0.0112455,-2,2048,2048
78.0062,0.0111877,-2,2048,2048
79.0103,0.0110788,-2,2048,2048
80.0139,0.010934,-2,2048,2048
81.0171,0.0107621,-2,2048,2048
82.0198,0.0104808,-2,2048,2048
83.0221,0.00985663,-2,2048,2048
84.0241,0.00862099,-2,2048,2048
85.0257,0.00668368,-2,2048,2048
86.0271,0.00420297,-2,2048,2048
87.0282,0.00147699,-2,2048,2048
88.0293,-0.00119798,-2,2048,2048
89.0302,-0.00360487,-2,2048,2048
90.0312,-0.005614,-2,2048,2048
91.0322,-0.00716628,-2,2048,2048
92.0331,-0.00827348,-2,2048,2048
93.0341,-0.00897348,-2,2048,2048
94.035,-0.00932175,-2,2048,2048
95.036,-0.00938132,-2,2048,2048
96.037,-0.0092155,-2,2048,2048
97.0379,-0.00888313,-2,2048,2048
98.0389,-0.00843516,-2,2048,2048
99.0398,-0.00791299,-2,2048,2048
100.041,-0.00734801,-2,2048,2048
101.042,-0.00676275,-2,2048,2048
102.043,-0.00617271,-2,2048,2048
103.044,-0.00558837,-2,2048,2048
104.045,-0.00501713,-2,2048,2048
105,-0.00448968,-2,2048,2048
106.001,-0.00396152,-2,2048,2048
107.002,-0.0034644,-2,2048,2048
108.003,-0.00300413,-2,2048,2048
109.004,-0.00258513,-2,2048,2048
110.005,-0.00220957,-2,2048,2048
111.007,-0.00187711,-2,2048,2048
112.008,-0.00158548,-2,2048,2048
113.009,-0.00133135,-2,2048,2048
114.01,-0.00111125,-2,2048,2048
115.011,-0.000922016,-2,2048,2048
116.012,-0.000760764,-2,2048,2048
117.014,-0.000624487,-2,2048,2048
118.015,-0.000509639,-2,2048,2048
119.016,-0.00041216,-2,2048,2048
