time,surface_elevation,reference_data,number_of_local_cells,number_of_global_cells
0,9.13099e-05,-2,131072,131072
1.00128,0.000108845,-2,131072,131072
2.00058,0.000131139,-2,131072,131072
3.00188,0.000159658,-2,131072,131072
4.0012,0.00019609,-2,131072,131072
5.00053,0.000242851,-2,131072,131072
6.00186,0.000303198,-2,131072,131072
7.0012,0.000381041,-2,131072,131072
8.00055,0.000481998,-2,131072,131072
9.00188,0.000613724,-2,131072,131072
10.0012,0.000785561,-2,131072,131072
11.0006,0.0010109,-2,131072,131072
12,0.00129256,-2,131072,131072
13.0014,0.00163153,-2,131072,131072
14.0009,0.0020555,-2,131072,131072
15.0004,0.00259452,-2,131072,131072
16,0.00332536,-2,131072,131072
17.0017,0.00415237,-2,131072,131072
18.0016,0.00511854,-2,131072,131072
19.0017,0.00629688,-2,131072,131072
20.0007,0.00771868,-2,131072,131072
21.0013,0.00939636,-2,131072,131072
22.002,0.0113234,-2,131072,131072
23.001,0.0134615,-2,131072,131072
24.0005,0.0157381,-2,131072,131072
25.0006,0.0180275,-2,131072,131072
26.001,0.0201606,-2,131072,131072
27.0016,0.0219491,-2,131072,131072
28.0001,0.0232233,-2,131072,131072
29.0005,0.0238837,-2,131072,131072
30.0002,0.0238287,-2,131072,131072
31.0013,0.0233033,-2,131072,131072
32.0013,0.0222289,-2,131072,131072
33.002,0.0207925,-2,131072,131072
34.0007,0.0191372,-2,131072,131072
35.0015,0.0173792,-2,131072,131072
36.0002,0.0156266,-2,131072,131072
37.001,0.0139489,-2,131072,131072
38.0018,0.012402,-2,131072,131072
39.0005,0.0110202,-2,131072,131072
40.0013,0.00981209,-2,131072,131072
41.002,0.00878165,-2,131072,131072
42.0007,0.00826696,-2,131072,131072
43.0015,0.00826721,-2,131072,131072
44.0002,0.00826747,-2,131072,131072
45.001,0.00826772,-2,131072,131072
46.0018,0.00826798,-2,131072,131072
47.0005,0.0085454,-2,131072,131072
48.0012,0.00887985,-2,131072,131072
49.002,0.00902193,-2,131072,131072
50.0007,0.00906687,-2,131072,131072
51.0015,0.00912435,-2,131072,131072
52.0002,0.00919482,-2,131072,131072
53.001,0.00928089,-2,131072,131072
54.0017,0.00939409,-2,131072,131072
55.0002,0.00956426,-2,131072,131072
56.0001,0.00975528,-2,131072,131072
57.0014,0.00989703,-2,131072,131072
58.002,0.00996208,-2,131072,131072
59.002,0.0100725,-2,131072,131072
60.0013,0.010286,-2,131072,131072
61.0002,0.0105932,-2,131072,131072
62.0009,0.0108959,-2,131072,131072
63.0013,0.0111817,-2,131072,131072
64.0014,0.0115257,-2,131072,131072
65.001,0.0118976,-2,131072,131072
66.0016,0.0122803,-2,131072,131072
67.002,0.0126818,-2,131072,131072
68.0006,0.0131572,-2,131072,131072
69.001,0.0137019,-2,131072,131072
70.001,0.0140803,-2,131072,131072
71.0008,0.014319,-2,131072,131072
72.0001,0.0145171,-2,131072,131072
73.0009,0.0146831,-2,131072,131072
74.0011,0.014799,-2,131072,131072
75.0008,0.0148609,-2,131072,131072
76.002,0.0148635,-2,131072,131072
77.0006,0.0147983,-2,131072,131072
78.0005,0.0146629,-2,131072,131072
79.0018,0.0144651,-2,131072,131072
80.0003,0.0142259,-2,131072,131072
81.0001,0.0140047,-2,131072,131072
82.0012,0.0137537,-2,131072,131072
83.0018,0.0129024,-2,131072,131072
84.0019,0.0117831,-2,131072,131072
85.0016,0.010379,-2,131072,131072
86.0009,0.00793896,-2,131072,131072
87.002,0.0034944,-2,131072,131072
88.0008,-0.00110919,-2,131072,131072
89.0014,-0.00466273,-2,131072,131072
90.0001,-0.00697151,-2,131072,131072
91.0006,-0.00814713,-2,131072,131072
92.0012,-0.00836537,-2,131072,131072
93.0018,-0.00796219,-2,131072,131072
94.0004,-0.00700808,-2,131072,131072
95.0009,-0.00401916,-2,131072,131072
96.0015,-0.00377062,-2,131072,131072
97.0001,-0.0031178,-2,131072,131072
98.0006,-0.00364013,-2,131072,131072
99.0012,-0.0040612,-2,131072,131072
100.002,-0.00392903,-2,131072,131072
101,-0.00349498,-2,131072,131072
102.001,-0.00299188,-2,131072,131072
103.001,-0.00250424,-2,131072,131072
104.002,-0.00203311,-2,131072,131072
105.001,-0.00162904,-2,131072,131072
106.001,-0.0013149,-2,131072,131072
107.002,-0.00105643,-2,131072,131072
108,-0.000838787,-2,131072,131072
109.001,-0.000678752,-2,131072,131072
110.001,-0.000590813,-2,131072,131072
111.002,-0.000557329,-2,131072,131072
112,-0.000543772,-2,131072,131072
113.001,-0.000539366,-2,131072,131072
114.002,-0.000543552,-2,131072,131072
115,-0.000547307,-2,131072,131072
116.001,-0.000548709,-2,131072,131072
117.001,-0.000545199,-2,131072,131072
118.002,-0.000531293,-2,131072,131072
119,-0.000504713,-2,131072,131072
