time,surface_elevation,reference_data,number_of_local_cells,number_of_global_cells
0,8.82968e-06,-2,512,512
1.07892,9.09455e-06,-2,512,512
2.06801,9.27605e-06,-2,512,512
3.05719,9.44531e-06,-2,512,512
4.04646,9.60653e-06,-2,512,512
5.03583,9.76505e-06,-2,512,512
6.0253,9.92673e-06,-2,512,512
7.01485,1.0098e-05,-2,512,512
8.00448,1.02858e-05,-2,512,512
9.08418,1.05189e-05,-2,512,512
10.074,1.07681e-05,-2,512,512
11.0639,1.10619e-05,-2,512,512
12.0539,1.1413e-05,-2,512,512
13.044,1.18392e-05,-2,512,512
14.0342,1.23831e-05,-2,512,512
15.0246,1.31311e-05,-2,512,512
16.0151,1.42074e-05,-2,512,512
17.0058,1.58863e-05,-2,512,512
18.0868,1.97352e-05,-2,512,512
19.0785,2.67997e-05,-2,512,512
20.0712,3.87265e-05,-2,512,512
21.0654,5.70436e-05,-2,512,512
22.0614,8.68741e-05,-2,512,512
23.0594,0.000149328,-2,512,512
24.0596,0.000243376,-2,512,512
25.062,0.00036702,-2,512,512
26.0666,0.000542413,-2,512,512
27.0733,0.000770869,-2,512,512
28.0819,0.00105635,-2,512,512
29.0003,0.00137604,-2,512,512
30.0119,0.0018126,-2,512,512
31.0247,0.002365,-2,512,512
32.0385,0.00306903,-2,512,512
33.0528,0.00396985,-2,512,512
34.0669,0.00512313,-2,512,512
35.0809,0.0064743,-2,512,512
36.0026,0.00754414,-2,512,512
37.0163,0.00899855,-2,512,512
38.0298,0.0110651,-2,512,512
39.0432,0.0132033,-2,512,512
40.0564,0.0156503,-2,512,512
41.0695,0.0193313,-2,512,512
42.0824,0.0228591,-2,512,512
43.0032,0.0260611,-2,512,512
44.016,0.0295776,-2,512,512
45.0286,0.0329903,-2,512,512
46.0412,0.0361504,-2,512,512
47.0536,0.0388729,-2,512,512
48.0659,0.0410029,-2,512,512
49.0781,0.0424999,-2,512,512
50.0902,0.0434541,-2,512,512
51.0102,0.0438947,-2,512,512
52.0221,0.0438672,-2,512,512
53.0339,0.0432869,-2,512,512
54.0456,0.0422292,-2,512,512
55.0571,0.0407796,-2,512,512
56.0685,0.0389862,-2,512,512
57.0797,0.036914,-2,512,512
58.0907,0.0345897,-2,512,512
59.0097,0.032254,-2,512,512
60.0204,0.0293892,-2,512,512
61.031,0.0260129,-2,512,512
62.0412,0.021896,-2,512,512
63.0513,0.0147351,-2,512,512
64.061,0.0077815,-2,512,512
65.0705,-0.000443178,-2,512,512
66.0797,-0.00652333,-2,512,512
67.0886,-0.00652333,-2,512,512
68.0055,-0.00652333,-2,512,512
69.0137,-0.00652333,-2,512,512
70.0216,-0.00652333,-2,512,512
71.0291,-0.00652333,-2,512,512
72.0362,-0.00652333,-2,512,512
73.0429,-0.00652333,-2,512,512
74.0493,-0.00652333,-2,512,512
75.0552,-0.00652333,-2,512,512
76.0608,-0.00652333,-2,512,512
77.0659,-0.00652333,-2,512,512
78.0705,-0.00652333,-2,512,512
79.0748,-0.00652333,-2,512,512
80.0785,-0.00652333,-2,512,512
81.0819,-0.00652333,-2,512,512
82.0849,-0.00652333,-2,512,512
83.0875,-0.00652333,-2,512,512
84.0897,-0.00652333,-2,512,512
85.0007,-0.00652333,-2,512,512
86.0025,-0.00652333,-2,512,512
87.0042,-0.00652333,-2,512,512
88.0059,-0.00652333,-2,512,512
89.0076,-0.00650415,-2,512,512
90.0094,-0.00646111,-2,512,512
91.0111,-0.00629372,-2,512,512
92.0129,-0.00598188,-2,512,512
93.0146,-0.00556797,-2,512,512
94.0164,-0.00509747,-2,512,512
95.0182,-0.00464904,-2,512,512
96.02,-0.00423332,-2,512,512
97.0218,-0.00379887,-2,512,512
98.0236,-0.00337141,-2,512,512
99.0254,-0.00296484,-2,512,512
100.027,-0.00258639,-2,512,512
101.029,-0.00223848,-2,512,512
102.031,-0.00191987,-2,512,512
103.033,-0.00162722,-2,512,512
104.035,-0.00135643,-2,512,512
105.037,-0.0011034,-2,512,512
106.039,-0.000864375,-2,512,512
107.041,-0.0006361,-2,512,512
108.043,-0.000415946,-2,512,512
109.045,-0.000201896,-2,512,512
110.047,7.55031e-06,-2,512,512
111.049,0.000213496,-2,512,512
112.051,0.000416729,-2,512,512
113.053,0.000617769,-2,512,512
114.055,0.000816871,-2,512,512
115.058,0.00101403,-2,512,512
116.06,0.00120897,-2,512,512
117.062,0.00140121,-2,512,512
118.064,0.00159002,-2,512,512
119.067,0.00177444,-2,512,512
