Unsupported glibc/kernel combination. 
Please contact LRZ HPC support to fix the module.
Warning from RANK 14: more nodes than initial clusters available!
Warning from RANK 4: more nodes than initial clusters available!
Warning from RANK 2: more nodes than initial clusters available!
Warning from RANK 7: more nodes than initial clusters available!
Warning from RANK 9: more nodes than initial clusters available!
Warning from RANK 12: more nodes than initial clusters available!
Warning from RANK 5: more nodes than initial clusters available!
Warning from RANK 15: more nodes than initial clusters available!
Warning from RANK 3: more nodes than initial clusters available!
Warning from RANK 6: more nodes than initial clusters available!
Warning from RANK 13: more nodes than initial clusters available!
Warning from RANK 10: more nodes than initial clusters available!
Warning from RANK 8: more nodes than initial clusters available!
Warning from RANK 11: more nodes than initial clusters available!
mac-snb03:3827:68863700: 13461655 us(13461655 us!!!):  dereg_pd Invalid argument
mac-snb03:3827:68061700: 13461656 us(13461656 us!!!):  dereg_pd Invalid argument
[5] rtc_invalidate error 393216
[5] rtc_invalidate error 393216
Assertion failed in file ../../i_rtc_hook.c at line 207: 0
Assertion failed in file ../../i_rtc_hook.c at line 207: 0
internal ABORT - process 5
internal ABORT - process 5
*** glibc detected *** ../../build/sierpi_intel_mpi_tbb_sacsp_hyperbolic_parallel_tsunami_b0_release: double free or corruption (!prev): 0x00000000007c5850 ***
======= Backtrace: =========
/lib64/libc.so.6(+0x75358)[0x2ab134fa3358]
/lib64/libc.so.6(cfree+0x6c)[0x2ab134fa82fc]
/lrz/sys/intel/mpi_41_0_030/intel64/lib/libmpi.so.4(+0x19ee9d)[0x2ab13324ae9d]
/lib64/libc.so.6(+0x35821)[0x2ab134f63821]
/lib64/libc.so.6(+0x35845)[0x2ab134f63845]
/lrz/sys/intel/mpi_41_0_030/intel64/lib/libmpi.so.4(MPIU_Exit+0x6)[0x2ab13321ae96]
/lrz/sys/intel/mpi_41_0_030/intel64/lib/libmpi.so.4(MPID_Abort+0x6e)[0x2ab13328750e]
/lrz/sys/intel/mpi_41_0_030/intel64/lib/libmpi.so.4(MPIR_Assert_fail+0x22)[0x2ab13314f262]
/lrz/sys/intel/mpi_41_0_030/intel64/lib/libmpi.so.4(+0x19ef38)[0x2ab13324af38]
../../build/sierpi_intel_mpi_tbb_sacsp_hyperbolic_parallel_tsunami_b0_release[0x42cca8]
../../build/sierpi_intel_mpi_tbb_sacsp_hyperbolic_parallel_tsunami_b0_release[0x42b2fc]
/lrz/mnt/sys.x86_64/intel/icc_121_367/composer_xe_2011_sp1.13.367/tbb/lib/intel64//cc4.1.0_libc2.4_kernel2.6.16.21/libtbb.so.2(+0x25753)[0x2ab132b31753]
../../build/sierpi_intel_mpi_tbb_sacsp_hyperbolic_parallel_tsunami_b0_release[0x42af87]
/lrz/mnt/sys.x86_64/intel/icc_121_367/composer_xe_2011_sp1.13.367/tbb/lib/intel64//cc4.1.0_libc2.4_kernel2.6.16.21/libtbb.so.2(+0x24b99)[0x2ab132b30b99]
/lrz/mnt/sys.x86_64/intel/icc_121_367/composer_xe_2011_sp1.13.367/tbb/lib/intel64//cc4.1.0_libc2.4_kernel2.6.16.21/libtbb.so.2(+0x21f9c)[0x2ab132b2df9c]
/lrz/mnt/sys.x86_64/intel/icc_121_367/composer_xe_2011_sp1.13.367/tbb/lib/intel64//cc4.1.0_libc2.4_kernel2.6.16.21/libtbb.so.2(+0x2001b)[0x2ab132b2c01b]
/lrz/mnt/sys.x86_64/intel/icc_121_367/composer_xe_2011_sp1.13.367/tbb/lib/intel64//cc4.1.0_libc2.4_kernel2.6.16.21/libtbb.so.2(+0x1d627)[0x2ab132b29627]
/lrz/mnt/sys.x86_64/intel/icc_121_367/composer_xe_2011_sp1.13.367/tbb/lib/intel64//cc4.1.0_libc2.4_kernel2.6.16.21/libtbb.so.2(+0x1d536)[0x2ab132b29536]
/lib64/libpthread.so.0(+0x77b6)[0x2ab1338e87b6]
/lib64/libc.so.6(clone+0x6d)[0x2ab1350059cd]
======= Memory map: ========
00400000-005bb000 r-xp 00000000 00:16 120397889                          /home/hpc/pr63so/di69fol/workspace/sierpi_2013_03_17_mpi_scalability/build/sierpi_intel_mpi_tbb_sacsp_hyperbolic_parallel_tsunami_b0_release
007ba000-007bb000 r--p 001ba000 00:16 120397889                          /home/hpc/pr63so/di69fol/workspace/sierpi_2013_03_17_mpi_scalability/build/sierpi_intel_mpi_tbb_sacsp_hyperbolic_parallel_tsunami_b0_release
007bb000-007c5000 rw-p 001bb000 00:16 120397889                          /home/hpc/pr63so/di69fol/workspace/sierpi_2013_03_17_mpi_scalability/build/sierpi_intel_mpi_tbb_sacsp_hyperbolic_parallel_tsunami_b0_release
007c5000-0bcd5000 rw-p 00000000 00:00 0                                  [heap]
2ab1326e7000-2ab132706000 r-xp 00000000 08:02 1458178                    /lib64/ld-2.11.3.so
2ab132706000-2ab132707000 rw-p 00000000 00:00 0 
2ab132741000-2ab132742000 rw-p 00000000 00:00 0 
2ab132905000-2ab132906000 r--p 0001e000 08:02 1458178                    /lib64/ld-2.11.3.so
2ab132906000-2ab132907000 rw-p 0001f000 08:02 1458178                    /lib64/ld-2.11.3.so
2ab132907000-2ab132908000 rw-p 00000000 00:00 0 
2ab132908000-2ab13290a000 r-xp 00000000 08:02 1458191                    /lib64/libdl-2.11.3.so
2ab13290a000-2ab132b0a000 ---p 00002000 08:02 1458191                    /lib64/libdl-2.11.3.so
2ab132b0a000-2ab132b0b000 r--p 00002000 08:02 1458191                    /lib64/libdl-2.11.3.so
2ab132b0b000-2ab132b0c000 rw-p 00003000 08:02 1458191                    /lib64/libdl-2.11.3.so
2ab132b0c000-2ab132b52000 r-xp 00000000 00:17 95219352                   /lrz/mnt/sys.x86_64/intel/icc_121_367/composer_xe_2011_sp1.13.367/tbb/lib/intel64/cc4.1.0_libc2.4_kernel2.6.16.21/libtbb.so.2
2ab132b52000-2ab132c52000 ---p 00046000 00:17 95219352                   /lrz/mnt/sys.x86_64/intel/icc_121_367/composer_xe_2011_sp1.13.367/tbb/lib/intel64/cc4.1.0_libc2.4_kernel2.6.16.21/libtbb.so.2
2ab132c52000-2ab132c57000 rw-p 00046000 00:17 95219352                   /lrz/mnt/sys.x86_64/intel/icc_121_367/composer_xe_2011_sp1.13.367/tbb/lib/intel64/cc4.1.0_libc2.4_kernel2.6.16.21/libtbb.so.2
2ab132c57000-2ab132c59000 rw-p 00000000 00:00 0 
2ab132c59000-2ab132c79000 r-xp 00000000 00:17 92340704                   /lrz/mnt/sys.x86_64/intel/mpi_41_0_030/intel64/lib/libmpigc4.so.4.1
2ab132c79000-2ab132e78000 ---p 00020000 00:17 92340704                   /lrz/mnt/sys.x86_64/intel/mpi_41_0_030/intel64/lib/libmpigc4.so.4.1
2ab132e78000-2ab132e7b000 rw-p 0001f000 00:17 92340704                   /lrz/mnt/sys.x86_64/intel/mpi_41_0_030/intel64/lib/libmpigc4.so.4.1
2ab132e7b000-2ab132e7c000 rw-p 00000000 00:00 0 
2ab132e7c000-2ab132eab000 r-xp 00000000 00:17 92340710                   /lrz/mnt/sys.x86_64/intel/mpi_41_0_030/intel64/lib/libmpigf.so.4.1
2ab132eab000-2ab1330ab000 ---p 0002f000 00:17 92340710                   /lrz/mnt/sys.x86_64/intel/mpi_41_0_030/intel64/lib/libmpigf.so.4.1
2ab1330ab000-2ab1330ac000 rw-p 0002f000 00:17 92340710                   /lrz/mnt/sys.x86_64/intel/mpi_41_0_030/intel64/lib/libmpigf.so.4.1
2ab1330ac000-2ab13346b000 r-xp 00000000 00:17 88906265                   /lrz/mnt/sys.x86_64/intel/mpi_41_0_030/intel64/lib/libmpi.so.4.1
2ab13346b000-2ab13366b000 ---p 003bf000 00:17 88906265                   /lrz/mnt/sys.x86_64/intel/mpi_41_0_030/intel64/lib/libmpi.so.4.1
2ab13366b000-2ab13368b000 rw-p 003bf000 00:17 88906265                   /lrz/mnt/sys.x86_64/intel/mpi_41_0_030/intel64/lib/libmpi.so.4.1
2ab13368b000-2ab1336d7000 rw-p 00000000 00:00 0 
2ab1336d7000-2ab1336df000 r-xp 00000000 08:02 1458215                    /lib64/librt-2.11.3.so
2ab1336df000-2ab1338de000 ---p 00008000 08:02 1458215                    /lib64/librt-2.11.3.so
2ab1338de000-2ab1338df000 r--p 00007000 08:02 1458215                    /lib64/librt-2.11.3.so
2ab1338df000-2ab1338e0000 rw-p 00008000 08:02 1458215                    /lib64/librt-2.11.3.so
2ab1338e0000-2ab1338e1000 rw-p 00000000 00:00 0 
2ab1338e1000-2ab1338f8000 r-xp 00000000 08:02 1458211                    /lib64/libpthread-2.11.3.so
2ab1338f8000-2ab133af8000 ---p 00017000 08:02 1458211                    /lib64/libpthread-2.11.3.so
2ab133af8000-2ab133af9000 r--p 00017000 08:02 1458211                    /lib64/libpthread-2.11.3.so
2ab133af9000-2ab133afa000 rw-p 00018000 08:02 1458211                    /lib64/libpthread-2.11.3.so
2ab133afa000-2ab133afe000 rw-p 00000000 00:00 0 
2ab133afe000-2ab133d86000 r-xp 00000000 00:17 86074683                   /lrz/mnt/sys.x86_64/intel/icc_121_367/composer_xe_2011_sp1.13.367/compiler/lib/intel64/libimf.so
2ab133d86000-2ab133e86000 ---p 00288000 00:17 86074683                   /lrz/mnt/sys.x86_64/intel/icc_121_367/composer_xe_2011_sp1.13.367/compiler/lib/intel64/libimf.so
2ab133e86000-2ab133eca000 rw-p 00288000 00:17 86074683                   /lrz/mnt/sys.x86_64/intel/icc_121_367/composer_xe_2011_sp1.13.367/compiler/lib/intel64/libimf.so
2ab133eca000-2ab134542000 r-xp 00000000 00:17 86883428                   /lrz/mnt/sys.x86_64/intel/icc_121_367/composer_xe_2011_sp1.13.367/compiler/lib/intel64/libsvml.so
2ab134542000-2ab134642000 ---p 00678000 00:17 86883428                   /lrz/mnt/sys.x86_64/intel/icc_121_367/composer_xe_2011_sp1.13.367/compiler/lib/intel64/libsvml.so
2ab134642000-2ab134644000 rw-p 00678000 00:17 86883428                   /lrz/mnt/sys.x86_64/intel/icc_121_367/composer_xe_2011_sp1.13.367/compiler/lib/intel64/libsvml.so
2ab134644000-2ab134645000 rw-p 00000000 00:00 0 
2ab134645000-2ab1346a0000 r-xp 00000000 08:02 1458193                    /lib64/libm-2.11.3.so
2ab1346a0000-2ab13489f000 ---p 0005b000 08:02 1458193                    /lib64/libm-2.11.3.so
2ab13489f000-2ab1348a0000 r--p 0005a000 08:02 1458193                    /lib64/libm-2.11.3.so
2ab1348a0000-2ab1348be000 rw-p 0005b000 08:02 1458193                    /lib64/libm-2.11.3.so
2ab1348be000-2ab1349a9000 r-xp 00000000 08:02 3229810                    /usr/lib64/libstdc++.so.6.0.16
2ab1349a9000-2ab134ba9000 ---p 000eb000 08:02 3229810                    /usr/lib64/libstdc++.so.6.0.16
2ab134ba9000-2ab134bb1000 r--p 000eb000 08:02 3229810                    /usr/lib64/libstdc++.so.6.0.16
2ab134bb1000-2ab134bb3000 rw-p 000f3000 08:02 3229810                    /usr/lib64/libstdc++.so.6.0.16
2ab134bb3000-2ab134bc8000 rw-p 00000000 00:00 0 
2ab134bc8000-2ab134bdd000 r-xp 00000000 08:02 1458298                    /lib64/libgcc_s.so.1
2ab134bdd000-2ab134ddc000 ---p 00015000 08:02 1458298                    /lib64/libgcc_s.so.1
2ab134ddc000-2ab134ddd000 r--p 00014000 08:02 1458298                    /lib64/libgcc_s.so.1
2ab134ddd000-2ab134dde000 rw-p 00015000 08:02 1458298                    /lib64/libgcc_s.so.1
2ab134dde000-2ab134ddf000 rw-p 00000000 00:00 0 
2ab134ddf000-2ab134e2b000 r-xp 00000000 00:17 86074685                   /lrz/mnt/sys.x86_64/intel/icc_121_367/composer_xe_2011_sp1.13.367/compiler/lib/intel64/libintlc.so.5
2ab134e2b000-2ab134f2a000 ---p 0004c000 00:17 86074685                   /lrz/mnt/sys.x86_64/intel/icc_121_367/composer_xe_2011_sp1.13.367/compiler/lib/intel64/libintlc.so.5
2ab134f2a000-2ab134f2d000 rw-p 0004b000 00:17 86074685                   /lrz/mnt/sys.x86_64/intel/icc_121_367/composer_xe_2011_sp1.13.367/compiler/lib/intel64/libintlc.so.5
2ab134f2d000-2ab134f2e000 rw-p 00000000 00:00 0 
2ab134f2e000-2ab135099000 r-xp 00000000 08:02 1458185                    /lib64/libc-2.11.3.so
2ab135099000-2ab135298000 ---p 0016b000 08:02 1458185                    /lib64/libc-2.11.3.so
2ab135298000-2ab13529c000 r--p 0016a000 08:02 1458185                    /lib64/libc-2.11.3.so
2ab13529c000-2ab13529d000 rw-p 0016e000 08:02 1458185                    /lib64/libc-2.11.3.so
2ab13529d000-2ab1352a6000 rw-p 00000000 00:00 0 
2ab1352a6000-2ab1362c7000 rw-s 00000000 00:10 4202015                    /dev/shm/Intel_MPI_Ex2Zow (deleted)
2ab1362c7000-2ab1362fc000 r--s 00000000 08:02 4883257                    /var/run/nscd/db96IlBw (deleted)
2ab136301000-2ab13630b000 r-xp 00000000 08:02 5310000                    /usr/lib64/libdat2.so.2.0.0
2ab13630b000-2ab13650a000 ---p 0000a000 08:02 5310000                    /usr/lib64/libdat2.so.2.0.0
2ab13650a000-2ab13650b000 r--p 00009000 08:02 5310000                    /usr/lib64/libdat2.so.2.0.0
2ab13650b000-2ab13650c000 rw-p 0000a000 08:02 5310000                    /usr/lib64/libdat2.so.2.0.0
2ab13650c000-2ab13651a000 r-xp 00000000 08:02 5309934                    /usr/lib64/libibverbs.so.1.0.0
2ab13651a000-2ab136719000 ---p 0000e000 08:02 5309934                    /usr/lib64/libibverbs.so.1.0.0
2ab136719000-2ab13671a000 r--p 0000d000 08:02 5309934                    /usr/lib64/libibverbs.so.1.0.0
2ab13671a000-2ab13671b000 rw-p 0000e000 08:02 5309934                    /usr/lib64/libibverbs.so.1.0.0
2ab13671b000-2ab13673a000 r-xp 00000000 08:02 5309996                    /usr/lib64/libdaploscm.so.2.0.0
2ab13673a000-2ab136939000 ---p 0001f000 08:02 5309996                    /usr/lib64/libdaploscm.so.2.0.0
2ab136939000-2ab13693a000 r--p 0001e000 08:02 5309996                    /usr/lib64/libdaploscm.so.2.0.0
2ab13693a000-2ab13693b000 rw-p 0001f000 08:02 5309996                    /usr/lib64/libdaploscm.so.2.0.0
2ab13693b000-2ab13693c000 -w-s cf2f7000 00:0f 24665                      /dev/infiniband/uverbs0
2ab13693c000-2ab13693d000 -w-s cf6f7000 00:0f 24665                      /dev/infiniband/uverbs0
2ab136975000-2ab13697d000 r-xp 00000000 08:02 5309948                    /usr/lib64/libmlx4-rdmav2.so
2ab13697d000-2ab136b7c000 ---p 00008000 08:02 5309948                    /usr/lib64/libmlx4-rdmav2.so
2ab136b7c000-2ab136b7d000 r--p 00007000 08:02 5309948                    /usr/lib64/libmlx4-rdmav2.so
2ab136b7d000-2ab136b7e000 rw-p 00008000 08:02 5309948                    /usr/lib64/libmlx4-rdmav2.so
2ab136b7e000-2ab136b88000 r-xp 00000000 08:02 5309946                    /usr/lib64/libmlx4-m-rdmav2.so
2ab136b88000-2ab136d87000 ---p 0000a000 08:02 5309946                    /usr/lib64/libmlx4-m-rdmav2.so
2ab136d87000-2ab136d88000 r--p 00009000 08:02 5309946                    /usr/lib64/libmlx4-m-rdmav2.so
2ab136d88000-2ab136d89000 rw-p 0000a000 08:02 5309946                    /usr/lib64/libmlx4-m-rdmav2.so
2ab136d89000-2ab136d90000 r-xp 00000000 08:02 5309953                    /usr/lib64/libmthca-rdmav2.so
2ab136d90000-2ab136f90000 ---p 00007000 08:02 5309953                    /usr/lib64/libmthca-rdmav2.so
2ab136f90000-2ab136f91000 r--p 00007000 08:02 5309953                    /usr/lib64/libmthca-rdmav2.so
2ab136f91000-2ab136f92000 rw-p 00008000 08:02 5309953                    /usr/lib64/libmthca-rdmav2.so
2ab136f92000-2ab136f97000 r-xp 00000000 08:02 5309945                    /usr/lib64/libnes-rdmav2.so
2ab136f97000-2ab137197000 ---p 00005000 08:02 5309945                    /usr/lib64/libnes-rdmav2.so
2ab137197000-2ab137198000 r--p 00005000 08:02 5309945                    /usr/lib64/libnes-rdmav2.so
2ab137198000-2ab137199000 rw-p 00006000 08:02 5309945                    /usr/lib64/libnes-rdmav2.so
2ab137199000-2ab13719e000 r-xp 00000000 08:02 5309949                    /usr/lib64/libcxgb3-rdmav2.so
2ab13719e000-2ab13739d000 ---p 00005000 08:02 5309949                    /usr/lib64/libcxgb3-rdmav2.so
2ab13739d000-2ab13739e000 r--p 00004000 08:02 5309949                    /usr/lib64/libcxgb3-rdmav2.so
2ab13739e000-2ab13739f000 rw-p 00005000 08:02 5309949                    /usr/lib64/libcxgb3-rdmav2.so
2ab13739f000-2ab1373a0000 ---p 00000000 00:00 0 
2ab1373a0000-2ab1375a0000 rw-p 00000000 00:00 0 
2ab1375a0000-2ab1375a1000 ---p 00000000 00:00 0 
2ab1375a1000-2ab13841f000 rw-p 00000000 00:00 0 
2ab13841f000-2ab138444000 r-xp 00000000 00:17 95219356                   /lrz/mnt/sys.x86_64/intel/icc_121_367/composer_xe_2011_sp1.13.367/tbb/lib/intel64/cc4.1.0_libc2.4_kernel2.6.16.21/libtbbmalloc.so.2
2ab138444000-2ab138544000 ---p 00025000 00:17 95219356                   /lrz/mnt/sys.x86_64/intel/icc_121_367/composer_xe_2011_sp1.13.367/tbb/lib/intel64/cc4.1.0_libc2.4_kernel2.6.16.21/libtbbmalloc.so.2
2ab138544000-2ab138547000 rw-p 00025000 00:17 95219356                   /lrz/mnt/sys.x86_64/intel/icc_121_367/composer_xe_2011_sp1.13.367/tbb/lib/intel64/cc4.1.0_libc2.4_kernel2.6.16.21/libtbbmalloc.so.2
2ab138547000-2ab13877b000 rw-p 00000000 00:00 0 
2ab13887c000-2ab1388bd000 rw-s 00000000 00:10 4202906                    /dev/shm/Intel_MPI_15QKh5 (deleted)
2ab1388bd000-2ab138905000 rw-p 00000000 00:00 0 
2ab13d916000-2ab13d95e000 rw-p 00000000 00:00 0 
2ab140000000-2ab140161000 rw-p 00000000 00:00 0 
2ab140161000-2ab144000000 ---p 00000000 00:00 0 
2ab144000000-2ab1455c4000 rw-p 00000000 00:00 0 
2ab1455c4000-2ab148000000 ---p 00000000 00:00 0 
2ab14c000000-2ab14c612000 rw-p 00000000 00:00 0 
2ab14c612000-2ab150000000 ---p 00000000 00:00 0 
2ab150000000-2ab1500f8000 rw-p 00000000 00:00 0 
2ab1500f8000-2ab154000000 ---p 00000000 00:00 0 
2ab158000000-2ab15bff3000 rw-p 00000000 00:00 0 
2ab15bff3000-2ab15c000000 ---p 00000000 00:00 0 
2ab15c000000-2ab15fff3000 rw-p 00000000 00:00 0 
2ab15fff3000-2ab160000000 ---p 00000000 00:00 0 
2ab160000000-2ab160161000 rw-p 00000000 00:00 0 
2ab160161000-2ab164000000 ---p 00000000 00:00 0 
2ab167c61000-2ab167c62000 ---p 00000000 00:00 0 
2ab167c62000-2ab168062000 rw-p 00000000 00:00 0 
2ab168062000-2ab168063000 ---p 00000000 00:00 0 
2ab168063000-2ab168463000 rw-p 00000000 00:00 0 
2ab168463000-2ab168464000 ---p 00000000 00:00 0 
2ab168464000-2ab168864000 rw-p 00000000 00:00 0 
2ab168864000-2ab168865000 ---p 00000000 00:00 0 
2ab168865000-2ab168c65000 rw-p 00000000 00:00 0 
2ab168c65000-2ab168c66000 ---p 00000000 00:00 0 
2ab168c66000-2ab169066000 rw-p 00000000 00:00 0 
2ab169066000-2ab169067000 ---p 00000000 00:00 0 
2ab169067000-2ab169467000 rw-p 00000000 00:00 0 
2ab169467000-2ab169468000 ---p 00000000 00:00 0 
2ab169468000-2ab169868000 rw-p 00000000 00:00 0 
2ab16c000000-2ab16f8ed000 rw-p 00000000 00:00 0 
2ab16f8ed000-2ab170000000 ---p 00000000 00:00 0 
2ab170000000-2ab173c03000 rw-p 00000000 00:00 0 
2ab173c03000-2ab174000000 ---p 00000000 00:00 0 
2ab17c000000-2ab17f6cd000 rw-p 00000000 00:00 0 
2ab17f6cd000-2ab180000000 ---p 00000000 00:00 0 
2ab180000000-2ab183c87000 rw-p 00000000 00:00 0 
2ab183c87000-2ab184000000 ---p 00000000 00:00 0 
2ab188000000-2ab18be27000 rw-p 00000000 00:00 0 
2ab18be27000-2ab18c000000 ---p 00000000 00:00 0 
2ab18c000000-2ab18fb07000 rw-p 00000000 00:00 0 
2ab18fb07000-2ab190000000 ---p 00000000 00:00 0 
2ab190000000-2ab193fd6000 rw-p 00000000 00:00 0 
2ab193fd6000-2ab194000000 ---p 00000000 00:00 0 
2ab1a0000000-2ab1a3ff7000 rw-p 00000000 00:00 0 
2ab1a3ff7000-2ab1a4000000 ---p 00000000 00:00 0 
2ab1a4000000-2ab1a76cd000 rw-p 00000000 00:00 0 
2ab1a76cd000-2ab1a8000000 ---p 00000000 00:00 0 
2ab1a8000000-2ab1abc53000 rw-p 00000000 00:00 0 
2ab1abc53000-2ab1ac000000 ---p 00000000 00:00 0 
7fffdcf07000-7fffdcf2c000 rw-p 00000000 00:00 0                          [stack]
7fffdcf92000-7fffdcf93000 r-xp 00000000 00:00 0                          [vdso]
ffffffffff600000-ffffffffff601000 r-xp 00000000 00:00 0                  [vsyscall]
[1:mac-snb01] unexpected disconnect completion event from [5:mac-snb03]
Assertion failed in file ../../dapl_conn_rc.c at line 1128: 0
internal ABORT - process 1
[14:mac-snb08] unexpected disconnect completion event from [5:mac-snb03]
[2:mac-snb02] unexpected disconnect completion event from [5:mac-snb03]
Assertion failed in file ../../dapl_conn_rc.c at line 1128: 0
[6:mac-snb04] unexpected disconnect completion event from [5:mac-snb03]
Assertion failed in file ../../dapl_conn_rc.c at line 1128: 0
internal ABORT - process 6
[10:mac-snb06] unexpected disconnect completion event from [5:mac-snb03]
Assertion failed in file ../../dapl_conn_rc.c at line 1128: 0
Assertion failed in file ../../dapl_conn_rc.c at line 1128: 0
internal ABORT - process 14
[13:mac-snb07] unexpected disconnect completion event from [5:mac-snb03]
Assertion failed in file ../../dapl_conn_rc.c at line 1128: 0
internal ABORT - process 13
internal ABORT - process 2
internal ABORT - process 10
[0:mac-snb01] unexpected disconnect completion event from [5:mac-snb03]
Assertion failed in file ../../dapl_conn_rc.c at line 1128: 0
internal ABORT - process 0
[15:mac-snb08] unexpected disconnect completion event from [5:mac-snb03]
Assertion failed in file ../../dapl_conn_rc.c at line 1128: 0
internal ABORT - process 15
[12:mac-snb07] unexpected disconnect completion event from [5:mac-snb03]
Assertion failed in file ../../dapl_conn_rc.c at line 1128: 0
[3:mac-snb02] unexpected disconnect completion event from [5:mac-snb03]
Assertion failed in file ../../dapl_conn_rc.c at line 1128: 0
internal ABORT - process 3
internal ABORT - process 12
[8:mac-snb05] unexpected disconnect completion event from [5:mac-snb03]
Assertion failed in file ../../dapl_conn_rc.c at line 1128: 0
[11:mac-snb06] unexpected disconnect completion event from [5:mac-snb03]
Assertion failed in file ../../dapl_conn_rc.c at line 1128: 0
internal ABORT - process 8
internal ABORT - process 11
APPLICATION TERMINATED WITH THE EXIT STRING: Aborted (signal 6)
