Problem size with different number of CPUs using function optimization
THREADS	MTPS	TIMESTEPS	TIMESTEP_SIZE	SECONDS_FOR_SIMULATION	AVERAGE_TRIANGLES	AVERAGE_PARTITIONS
80	69.1279	100	0.000491318	27.5531	1.90469e+07	1158.74
79	68.6631	100	0.000491318	27.7397	1.90469e+07	1158.74
78	67.8789	100	0.000491318	28.0601	1.90469e+07	1158.74
77	67.4641	100	0.000491318	28.2326	1.90469e+07	1158.74
76	67.5946	100	0.000491318	28.1781	1.90469e+07	1158.74
75	66.144	100	0.000491318	28.7962	1.90469e+07	1158.74
74	65.4215	100	0.000491318	29.1141	1.90469e+07	1158.74
73	66.472	100	0.000491318	28.6541	1.90469e+07	1158.74
72	65.756	100	0.000491318	28.966	1.90469e+07	1158.74
71	65.5269	100	0.000491318	29.0673	1.90469e+07	1158.74
70	65.1585	100	0.000491318	29.2317	1.90469e+07	1158.74
69	65.0608	100	0.000491318	29.2755	1.90469e+07	1158.74
68	66.6722	100	0.000491318	28.568	1.90469e+07	1158.74
67	67.0399	100	0.000491318	28.4113	1.90469e+07	1158.74
66	64.059	100	0.000491318	29.7334	1.90469e+07	1158.74
65	65.6109	100	0.000491318	29.0301	1.90469e+07	1158.74
64	64.9099	100	0.000491318	29.3436	1.90469e+07	1158.74
63	64.9553	100	0.000491318	29.3231	1.90469e+07	1158.74
62	66.7892	100	0.000491318	28.5179	1.90469e+07	1158.74
61	66.2322	100	0.000491318	28.7578	1.90469e+07	1158.74
60	66.73	100	0.000491318	28.5433	1.90469e+07	1158.74
59	66.5054	100	0.000491318	28.6397	1.90469e+07	1158.74
58	66.1519	100	0.000491318	28.7927	1.90469e+07	1158.74
57	65.6907	100	0.000491318	28.9948	1.90469e+07	1158.74
56	63.4616	100	0.000491318	30.0133	1.90469e+07	1158.74
55	63.2001	100	0.000491318	30.1375	1.90469e+07	1158.74
54	62.6222	100	0.000491318	30.4156	1.90469e+07	1158.74
53	61.9963	100	0.000491318	30.7226	1.90469e+07	1158.74
52	60.9948	100	0.000491318	31.2271	1.90469e+07	1158.74
51	59.4473	100	0.000491318	32.04	1.90469e+07	1158.74
50	59.4994	100	0.000491318	32.0119	1.90469e+07	1158.74
49	59.121	100	0.000491318	32.2168	1.90469e+07	1158.74
48	58.1079	100	0.000491318	32.7785	1.90469e+07	1158.74
47	57.1236	100	0.000491318	33.3434	1.90469e+07	1158.74
46	58.9006	100	0.000491318	32.3374	1.90469e+07	1158.74
45	53.4277	100	0.000491318	35.6499	1.90469e+07	1158.74
44	54.1214	100	0.000491318	35.1929	1.90469e+07	1158.74
43	53.4447	100	0.000491318	35.6386	1.90469e+07	1158.74
42	53.0402	100	0.000491318	35.9103	1.90469e+07	1158.74
41	52.5586	100	0.000491318	36.2394	1.90469e+07	1158.74
40	51.5934	100	0.000491318	36.9173	1.90469e+07	1158.74
39	50.6993	100	0.000491318	37.5684	1.90469e+07	1158.74
38	50.7592	100	0.000491318	37.5241	1.90469e+07	1158.74
37	49.7656	100	0.000491318	38.2733	1.90469e+07	1158.74
36	49.5032	100	0.000491318	38.4761	1.90469e+07	1158.74
35	49.7431	100	0.000491318	38.2906	1.90469e+07	1158.74
34	48.6831	100	0.000491318	39.1243	1.90469e+07	1158.74
33	48.234	100	0.000491318	39.4886	1.90469e+07	1158.74
32	49.2236	100	0.000491318	38.6947	1.90469e+07	1158.74
31	45.5305	100	0.000491318	41.8333	1.90469e+07	1158.74
30	46.7387	100	0.000491318	40.7519	1.90469e+07	1158.74
29	46.2499	100	0.000491318	41.1826	1.90469e+07	1158.74
28	46.4751	100	0.000491318	40.9831	1.90469e+07	1158.74
27	45.6437	100	0.000491318	41.7296	1.90469e+07	1158.74
26	45.1763	100	0.000491318	42.1613	1.90469e+07	1158.74
25	44.0313	100	0.000491318	43.2577	1.90469e+07	1158.74
24	45.5234	100	0.000491318	41.8398	1.90469e+07	1158.74
23	45.2545	100	0.000491318	42.0884	1.90469e+07	1158.74
22	45.2369	100	0.000491318	42.1048	1.90469e+07	1158.74
21	45.3418	100	0.000491318	42.0074	1.90469e+07	1158.74
20	45.1232	100	0.000491318	42.2109	1.90469e+07	1158.74
19	43.4382	100	0.000491318	43.8483	1.90469e+07	1158.74
18	41.4259	100	0.000491318	45.9783	1.90469e+07	1158.74
17	39.405	100	0.000491318	48.3363	1.90469e+07	1158.74
16	36.96	100	0.000491318	51.5338	1.90469e+07	1158.74
15	34.3323	100	0.000491318	55.4781	1.90469e+07	1158.74
14	32.6684	100	0.000491318	58.3038	1.90469e+07	1158.74
13	30.8041	100	0.000491318	61.8325	1.90469e+07	1158.74
12	28.548	100	0.000491318	66.7188	1.90469e+07	1158.74
11	26.2305	100	0.000491318	72.6136	1.90469e+07	1158.74
10	23.9684	100	0.000491318	79.4668	1.90469e+07	1158.74
9	22.6117	100	0.000491318	84.2348	1.90469e+07	1158.74
8	20.9343	100	0.000491318	90.9843	1.90469e+07	1158.74
7	17.7626	100	0.000491318	107.23	1.90469e+07	1158.74
6	15.4054	100	0.000491318	123.638	1.90469e+07	1158.74
5	13.11	100	0.000491318	145.285	1.90469e+07	1158.74
4	11.2976	100	0.000491318	168.593	1.90469e+07	1158.74
3	8.87678	100	0.000491318	214.57	1.90469e+07	1158.74
2	6.02744	100	0.000491318	316.004	1.90469e+07	1158.74
1	3.11456	100	0.000491318	611.545	1.90469e+07	1158.74
