0	0	8584140
10.1915	0	8595204
20.373	0	8602496
30.5545	0	8606478
40.736	0	8609350
50.9166	0	8611872
60.0761	0	8613762
70.2436	0	8615752
80.4112	0	8617656
90.5786	0	8619066
100.746	0	8620300
110.913	0	8621566
120.066	0	8622934
130.256	0	8624460
140.46	0	8626062
150.663	0	8627792
160.867	0	8629300
170.051	0	8630550
180.254	0	8631972
190.459	0	8633314
200.665	0	8634728
210.875	0	8636318
220.065	0	8637752
230.275	0	8639536
240.507	0	8641254
250.731	0	8642954
260.943	0	8644814
270.135	0	8646594
280.408	0	8648678
290.707	0	8650788
301.006	0	8652910
310.275	0	8655014
320.573	0	8657290
330.831	0	8659706
340.027	0	8661994
350.245	0	8664432
360.477	0	8666904
370.711	0	8669382
380.945	0	8671728
390.138	0	8673712
400.352	0	8676012
410.618	0	8678470
420.918	0	8680764
430.189	0	8682714
440.49	0	8684954
450.791	0	8687158
460.062	0	8689046
470.364	0	8691066
480.665	0	8692926
490.967	0	8694802
500.239	0	8696436
510.541	0	8698144
520.843	0	8699854
530.115	0	8701394
540.417	0	8703068
550.72	0	8704608
561.023	0	8706230
570.295	0	8707840
580.598	0	8709778
590.901	0	8711730
600.174	0	8713668
610.478	0	8715850
620.781	0	8718084
630.054	0	8720078
640.358	0	8722306
650.661	0	8724648
660.964	0	8727030
670.237	0	8729096
680.54	0	8731524
690.844	0	8733860
700.117	0	8735870
710.42	0	8738174
720.723	0	8740362
731.026	0	8742552
740.299	0	8744670
750.602	0	8747180
760.905	0	8749708
770.178	0	8752092
780.481	0	8754496
790.784	0	8757150
800.056	0	8759488
810.359	0	8762304
820.622	0	8764792
830.867	0	8767484
840.083	0	8769740
850.321	0	8772446
860.536	0	8775182
870.75	0	8777874
880.96	0	8780452
890.143	0	8782930
900.346	0	8785810
910.55	0	8788706
920.754	0	8791502
930.956	0	8794354
940.138	0	8796950
950.34	0	8799684
960.54	0	8802398
970.737	0	8805052
980.934	0	8807626
990.111	0	8809976
1000.31	0	8812606
1010.51	0	8815306
1020.7	0	8817988
1030.88	0	8820898
1040.04	0	8823458
1050.22	0	8826522
1060.4	0	8829390
1070.58	0	8832454
1080.75	0	8835464
1090.93	0	8838284
1100.09	0	8840748
1110.27	0	8843196
1120.45	0	8845652
1130.63	0	8848020
1140.8	0	8850372
1150.98	0	8852520
1160.14	0	8854276
1170.32	0	8856034
1180.5	0	8857878
1190.67	0	8859846
1200.84	0	8862050
1211.01	0	8864272
1220.17	0	8866434
1230.34	0	8868630
1240.51	0	8870792
1250.68	0	8872734
1260.85	0	8874824
1270	0	8876380
1280.17	0	8877900
1290.34	0	8879276
1300.51	0	8880714
1310.69	0	8882024
1320.86	0	8883104
1330.01	0	8884426
1340.18	0	8885938
1350.35	0	8887282
1360.52	0	8888698
1370.69	0	8890240
1380.86	0	8891906
1390.01	0	8893566
1400.18	0	8895288
1410.35	0	8897044
1420.52	0	8898820
1430.7	0	8900682
1440.87	0	8902526
1450.02	0	8904102
1460.19	0	8905846
1470.36	0	8907468
1480.53	0	8909412
1490.71	0	8911060
1500.93	0	8912770
1510.19	0	8914152
1520.54	0	8915854
1531.03	0	8917600
1540.61	0	8918932
1550.27	0	8920420
1561.04	0	8921918
1570.74	0	8923408
1580.44	0	8924648
1590.13	0	8925648
1600.91	0	8926716
1610.61	0	8927888
1620.31	0	8928934
1630.01	0	8930044
1640.78	0	8931200
1650.48	0	8931838
1660.18	0	8932462
1670.96	0	8933248
1680.66	0	8933608
1690.35	0	8934192
1700.05	0	8934706
1710.83	0	8935506
1720.56	0	8936194
1730.37	0	8936794
1740.46	0	8937538
1750.57	0	8938192
1760.73	0	8938822
1770.9	0	8939302
1781.06	0	8939790
1790.11	0	8940168
1800.3	0	8940408
1810.49	0	8940756
1820.7	0	8941148
1830.91	0	8941506
1840.02	0	8941692
1850.34	0	8942090
1860.68	0	8942522
1871.02	0	8942962
1880.21	0	8943586
1890.54	0	8944008
1900.88	0	8944586
1910.07	0	8945170
1920.41	0	8945928
1930.75	0	8946514
1941.1	0	8946978
1950.29	0	8947550
1960.63	0	8948174
1970.98	0	8948640
1980.17	0	8948994
1990.51	0	8949314
2000.86	0	8949692
2010.05	0	8950070
2020.39	0	8950528
2030.74	0	8950810
2041.08	0	8951240
2050.28	0	8951698
2060.62	0	8952288
2070.96	0	8952816
2080.16	0	8953420
2090.5	0	8954162
2100.84	0	8954956
2110.03	0	8955654
2120.35	0	8956438
2130.67	0	8956994
2140.98	0	8957538
2150.14	0	8958020
2160.45	0	8958644
2170.76	0	8959232
2181.06	0	8960016
2190.23	0	8960510
2200.53	0	8961140
2210.84	0	8961558
2220	0	8962102
2230.31	0	8962584
2240.62	0	8963118
2250.92	0	8963514
2260.08	0	8964062
2270.37	0	8964528
2280.66	0	8965100
2290.94	0	8965658
2300.08	0	8966156
2310.37	0	8966826
2320.65	0	8967464
2330.93	0	8967762
2340.07	0	8968356
2350.36	0	8968790
2360.64	0	8969520
2370.91	0	8970028
2380.01	0	8970730
2390.25	0	8971384
2400.48	0	8972192
2410.71	0	8972736
2420.94	0	8973540
2430.03	0	8974056
2440.25	0	8974848
2450.48	0	8975596
2460.71	0	8976220
2470.93	0	8976568
2480.02	0	8976964
2490.25	0	8977618
2500.47	0	8977880
2510.7	0	8978214
2520.93	0	8978426
2530.02	0	8978758
2540.24	0	8978894
2550.47	0	8979006
2560.69	0	8979178
2570.92	0	8979438
2580.01	0	8979686
2590.23	0	8980354
2600.46	0	8980962
2610.68	0	8981508
2620.91	0	8982320
2631.13	0	8983034
2640.22	0	8983866
2650.46	0	8984690
2660.69	0	8985580
2670.93	0	8986672
2680.02	0	8987540
2690.26	0	8988618
2700.49	0	8989730
2710.72	0	8990940
2720.96	0	8992156
2730.05	0	8993190
2740.29	0	8994328
2750.52	0	8995366
2760.75	0	8996714
2770.99	0	8997870
2780.08	0	8998892
2790.32	0	8999898
2800.55	0	9000962
2810.79	0	9002166
2821.04	0	9003164
2830.15	0	9004234
2840.39	0	9005356
2850.64	0	9006222
2860.89	0	9006846
2870	0	9007330
2880.25	0	9008042
2890.5	2.72848e-12	9008842
2900.75	9.09495e-12	9009682
2910.98	1.54614e-11	9010488
2920.08	2.09184e-11	9010994
2930.32	2.81943e-11	9011818
2940.55	3.54703e-11	9012476
2950.78	4.36557e-11	9013256
2961.02	5.91172e-11	9013910
2970.12	8.4583e-11	9014344
2980.35	1.31877e-10	9014912
2990.59	2.21007e-10	9015476
3000.82	3.79259e-10	9015990
3011.06	6.53927e-10	9016558
3020.15	1.05865e-09	9017050
3030.39	1.80353e-09	9017510
3040.62	3.04135e-09	9017982
3050.86	5.0677e-09	9018552
3061.1	8.33734e-09	9019082
3070.19	1.28393e-08	9019654
3080.43	2.0611e-08	9020102
3090.67	3.26627e-08	9020600
3100.9	5.11e-08	9021068
3111.14	7.8936e-08	9021568
3120.24	1.14965e-07	9022052
3130.47	1.73453e-07	9022472
3140.71	2.58509e-07	9022900
3150.94	3.80654e-07	9023350
3160.04	5.31587e-07	9023774
3170.28	7.65486e-07	9024336
3180.51	1.08964e-06	9024826
3190.75	1.53352e-06	9025414
3200.99	2.13421e-06	9025908
3210.08	2.83676e-06	9026378
3220.32	3.86737e-06	9026922
3230.56	5.21658e-06	9027366
3240.79	6.96334e-06	9027942
3251.03	9.20015e-06	9028708
3260.13	1.16858e-05	9029516
3270.36	1.51514e-05	9030304
3280.6	1.94554e-05	9031274
3290.83	2.47462e-05	9032302
3301.07	3.1185e-05	9033476
3310.17	3.80112e-05	9034586
3320.4	4.7096e-05	9035674
3330.66	5.78668e-05	9036692
3340.93	7.05265e-05	9037970
3350.07	8.35155e-05	9039048
3360.36	0.000100235	9040256
3370.64	0.000119342	9041262
3380.92	0.000140998	9042216
3390.05	0.0001625	9043044
3400.33	0.000189316	9044114
3410.57	0.000218906	9044870
3420.79	0.000251328	9045438
3431	0.000286636	9046126
3440.07	0.000320452	9046838
3450.28	0.000361184	9047460
3460.49	0.00040468	9047970
3470.71	0.000450821	9048320
3480.92	0.000499454	9048792
3491.13	0.000550393	9049562
3500.2	0.000597439	9050122
3510.41	0.000652142	9050688
3520.63	0.000708487	9051354
3530.84	0.000766214	9052078
3541.05	0.000825057	9052770
3550.12	0.000878087	9053164
3560.34	0.000938327	9053970
3570.55	0.00099895	9054724
3580.76	0.00105974	9055430
3590.97	0.00112049	9056114
3600.05	0.00117434	9056728
3610.26	0.00123464	9057608
3620.47	0.00129455	9058602
3630.68	0.00135405	9059390
3640.89	0.00141314	9060206
3651.1	0.00147188	9061054
3660.18	0.00152389	9061600
3670.39	0.0015823	9062278
3680.6	0.0016408	9062630
3690.81	0.0016996	9063434
3701.02	0.00175897	9063966
3710.1	0.00181245	9064560
3720.31	0.00187368	9065084
3730.52	0.00193632	9065622
3740.74	0.00200071	9066372
3750.96	0.0020672	9067240
3760.05	0.00212823	9067878
3770.28	0.00219929	9068804
3780.51	0.00227311	9069528
3790.73	0.00234989	9070242
3800.96	0.00242979	9071072
3810.05	0.00250353	9072034
3820.27	0.00258964	9073002
3830.5	0.00267915	9073846
3840.73	0.00277213	9074900
3850.94	0.00286852	9075992
3861.11	0.00296807	9076718
3870.14	0.00305952	9077692
3880.29	0.00316604	9078514
3890.44	0.00327665	9079608
3900.59	0.00339178	9080512
3910.75	0.003512	9081324
3920.9	0.00363807	9082072
3931.05	0.00377101	9082924
3940.07	0.00389599	9083748
3950.23	0.00404573	9084930
3960.38	0.00420705	9085858
3970.53	0.00438234	9086846
3980.68	0.00457449	9088080
3990.83	0.00478689	9089310
4000.99	0.0050235	9090338
4010.01	0.00525788	9091154
4020.16	0.00555338	9092080
4030.31	0.00588838	9093020
4040.47	0.00626965	9093964
4050.62	0.00670492	9094684
4060.77	0.00720289	9095610
4070.92	0.00777337	9096604
4081.07	0.00842742	9097538
4090.1	0.00908895	9098356
4100.25	0.00993596	9098930
4110.4	0.0109067	9099766
4120.55	0.0120187	9100466
4130.71	0.0132914	9101246
4140.86	0.0147473	9101818
4151.03	0.0164109	9102352
4160.07	0.0180883	9103244
4170.29	0.0202325	9103972
4180.52	0.022677	9104776
4190.75	0.0254598	9105629
4201	0.0286253	9106623
4210.11	0.0317943	9107440
4220.35	0.0358037	9108318
4230.6	0.0403351	9108929
4240.85	0.0454456	9109705
4251.09	0.051196	9110183
4260.21	0.0568991	9110751
4270.47	0.0640452	9111363
4280.72	0.0720202	9111857
4290.97	0.0808913	9112325
4300.05	0.0895696	9112789
4310.27	0.100311	9113263
4320.49	0.112157	9113564
4330.7	0.125185	9113803
4340.79	0.139283	9114457
4350.87	0.154684	9114919
4360.96	0.171512	9115559
4371.05	0.189836	9116032
4380.02	0.207433	9116556
4390.11	0.228713	9117212
4400.2	0.251517	9117806
4410.29	0.275733	9118513
4420.38	0.302253	9119241
4430.47	0.336238	9120015
4440.56	0.390167	9120731
4450.65	0.44308	9121631
4460.74	0.496398	9122327
4470.82	0.551585	9123349
4480.91	0.605858	9124099
4491	0.659576	9124813
4501.08	0.709694	9125857
4510.08	0.75302	9126618
4520.33	0.798337	9127566
4530.49	0.840438	9128531
4540.57	0.879157	9129407
4550.66	0.914697	9130201
4560.75	0.947264	9131323
4570.84	0.976182	9132273
4580.93	1.00109	9133061
4591.02	1.02135	9133789
4601.1	1.03682	9134391
4610.07	1.04629	9134970
4620.16	1.04998	9135381
4630.26	1.04722	9135593
4640.35	1.04095	9135563
4650.44	1.03154	9135937
4660.53	1.01877	9136207
4670.62	1.00323	9136451
4680.72	0.984849	9136864
4690.81	0.964081	9137174
4700.9	0.94126	9137644
4710.99	0.916674	9138036
4721.08	0.8906	9138244
4730.06	0.866451	9138496
4740.15	0.838873	9138950
4750.24	0.785613	9139199
4760.33	0.729974	9139167
4770.42	0.679951	9139313
4780.51	0.626246	9139621
4790.68	0.574954	9139781
4800.96	0.521328	9139769
4810.11	0.475051	9140265
4820.41	0.423869	9140653
4830.7	0.373925	9141391
4840.99	0.326298	9141667
4850.14	0.285191	9142033
4860.44	0.241033	9142532
4870.73	0.1979	9143138
4881.02	0.156104	9143892
4890.18	0.119444	9144296
4900.48	0.0788999	9144812
4910.55	0.0396995	9145138
4920.62	0.000895138	9145874
4930.68	-0.0375072	9146480
4940.74	-0.0755626	9146830
4950.8	-0.113117	9147470
4960.86	-0.150246	9147788
4970.92	-0.186774	9148476
4980.98	-0.222615	9149075
4991.04	-0.257623	9149501
5001.1	-0.291676	9149979
5010.05	-0.321027	9150509
5020.11	-0.352856	9151057
5030.17	-0.383261	9151717
5040.23	-0.412051	9152339
5050.29	-0.439073	9152989
5060.35	-0.464177	9153511
5070.41	-0.487241	9154533
5080.47	-0.508162	9155167
5090.53	-0.526883	9155775
5100.6	-0.543385	9156579
5110.66	-0.557663	9157090
5120.72	-0.569893	9157682
5130.78	-0.579394	9158222
5140.84	-0.583961	9158448
5150.9	-0.585761	9158574
5160.96	-0.586588	9158866
5171.02	-0.586584	9159028
5181.09	-0.585518	9159170
5190.03	-0.583881	9159414
5200.09	-0.581024	9159676
5210.15	-0.577318	9159672
5220.22	-0.572559	9159642
5230.49	-0.566672	9159892
5240.79	-0.559669	9160150
5251.11	-0.551552	9160165
5260.28	-0.543408	9160339
5270.59	-0.533243	9160535
5280.91	-0.522052	9160719
5290.08	-0.511298	9161048
5300.39	-0.498372	9161240
5310.71	-0.484644	9161132
5321.02	-0.470198	9161347
5330.19	-0.456823	9161445
5340.51	-0.441249	9161189
5350.85	-0.425177	9161097
5360.05	-0.410578	9160719
5370.39	-0.393891	9160358
5380.74	-0.377015	9159977
5391.08	-0.360043	9159529
5400.28	-0.344946	9159121
5410.62	-0.328027	9158881
5420.96	-0.311259	9158751
5430.16	-0.296547	9158481
5440.5	-0.280282	9158251
5450.85	-0.264392	9157921
5460.04	-0.250641	9157793
5470.39	-0.235649	9157261
5480.73	-0.221216	9157034
5491.07	-0.207393	9156577
5500.27	-0.195649	9156015
5510.61	-0.183081	9155847
5520.96	-0.171218	9155709
5530.15	-0.161277	9155673
5540.5	-0.150779	9155997
5550.84	-0.141004	9156167
5560.04	-0.132912	9156479
5570.38	-0.124478	9156845
5580.69	-0.116727	9157062
5591.01	-0.109612	9157170
5600.18	-0.103796	9157455
5610.49	-0.0977926	9157319
5620.81	-0.0923247	9157625
5631.12	-0.0873534	9158041
5640.29	-0.0833197	9158503
5650.61	-0.079182	9159011
5660.92	-0.0754357	9159454
5670.09	-0.0724106	9159837
5680.41	-0.0693269	9160067
5690.72	-0.0665602	9160389
5701.04	-0.0640913	9160801
5710.21	-0.0621337	9161143
5720.53	-0.0601857	9161725
5730.84	-0.0584963	9162259
5740.01	-0.0572048	9162563
5750.33	-0.0559814	9162843
5760.64	-0.0549945	9162836
5770.96	-0.0542375	9163029
5780.13	-0.0537522	9163227
5790.45	-0.0534118	9163381
5800.76	-0.0532837	9163535
5811.08	-0.0533646	9164111
5820.25	-0.053611	9164653
5830.56	-0.0540859	9165427
5840.94	-0.0547784	9165863
5850.18	-0.0555825	9166233
5860.59	-0.0567039	9166787
5870.99	-0.0580617	9167155
5880.23	-0.0594717	9167486
5890.64	-0.0612889	9167966
5901.04	-0.0633497	9168240
5910.29	-0.0653822	9168490
5920.69	-0.0678869	9168792
5931.09	-0.0706122	9169086
5940.34	-0.0732096	9169378
5950.74	-0.0763161	9169828
5961.15	-0.0796073	9170328
5970.41	-0.0826737	9170686
5980.83	-0.0862651	9170964
5990.09	-0.0895683	9171415
6000.5	-0.0933886	9171679
6010.92	-0.0972951	9172177
6020.18	-0.100817	9172175
6030.61	-0.104814	9172563
6041.03	-0.108809	9172445
6050.29	-0.112335	9172463
6060.72	-0.116244	9171899
6071.14	-0.120062	9171571
6080.41	-0.123355	9171271
6090.83	-0.126914	9171139
6100.09	-0.129925	9170967
6110.52	-0.133106	9171361
6120.94	-0.136035	9171571
6130.2	-0.138396	9171625
6140.63	-0.140744	9171753
6151.05	-0.142732	9171923
6160.31	-0.144171	9172347
6170.7	-0.145395	9172737
6181.08	-0.146185	9172851
6190.28	-0.146517	9173093
6200.63	-0.146474	9173363
6210.97	-0.145993	9173567
6220.15	-0.145207	9174025
6230.47	-0.143932	9174595
6240.77	-0.142259	9175227
6251.06	-0.140209	9175913
6260.19	-0.138085	9176289
6270.46	-0.135372	9176889
6280.73	-0.132337	9177333
6291	-0.129002	9177717
6300.11	-0.125807	9178345
6310.34	-0.121981	9178779
6320.56	-0.117923	9178888
6330.77	-0.113654	9179178
6340.98	-0.109194	9179464
6350.05	-0.105087	9179538
6360.24	-0.100325	9179720
6370.43	-0.0954276	9179976
6380.59	-0.0904167	9180154
6390.75	-0.0853114	9180680
6400.9	-0.0801252	9181006
6411.05	-0.0748772	9180974
6420.07	-0.0701784	9180989
6430.22	-0.0648758	9180933
6440.37	-0.05958	9180939
6450.52	-0.0543169	9181161
6460.66	-0.0491128	9181307
6470.81	-0.0439945	9181810
6480.95	-0.0389905	9182052
6491.08	-0.0341231	9182400
6500.09	-0.0299267	9183005
6510.23	-0.0253703	9183183
6520.36	-0.0210048	9183498
6530.49	-0.0168444	9183754
6540.63	-0.0129001	9184128
6550.76	-0.00917895	9184274
6560.89	-0.00568459	9184535
6571.02	-0.00241689	9185049
6580.03	0.000300154	9185139
6590.16	0.00315144	9185561
6600.3	0.00579344	9185797
6610.43	0.00823646	9186041
6620.56	0.0104921	9186471
6630.74	0.0125822	9187119
6640.93	0.0145107	9187435
6651.11	0.0162879	9187837
6660.15	0.0177509	9188306
6670.31	0.019276	9188909
6680.46	0.020688	9188999
6690.62	0.0219982	9189383
6700.77	0.0232169	9189577
6710.93	0.0243539	9189845
6721.08	0.0254179	9190213
6730.11	0.0263095	9190375
6740.27	0.0272586	9190697
6750.42	0.0281578	9191001
6760.56	0.029014	9191277
6770.69	0.0298334	9191595
6780.82	0.0306219	9191945
6790.96	0.0313829	9192209
6801.09	0.0321171	9192355
6810.1	0.0327459	9192487
6820.23	0.0334224	9192485
6830.37	0.0340589	9192541
6840.5	0.0346458	9192281
6850.63	0.035171	9192145
6860.77	0.0356213	9191727
6870.9	0.0359828	9191335
6881.04	0.0362416	9190899
6890.04	0.0363747	9190565
6900.18	0.0364044	9190393
6910.31	0.036296	9190371
6920.45	0.0360397	9190363
6930.58	0.0356269	9190719
6940.72	0.0350501	9190735
6950.85	0.0343028	9191103
6960.99	0.03338	9191457
6971.12	0.0322775	9191933
6980.13	0.0311446	9192563
6990.26	0.0296969	9193123
7000.4	0.0280665	9193701
7010.53	0.026256	9194205
7020.67	0.0242704	9194803
7030.8	0.0221171	9194981
7040.96	0.0198005	9195157
7050.02	0.0176111	9195283
7060.23	0.0150199	9195437
7070.44	0.0123105	9195632
7080.66	0.00950477	9195892
7090.88	0.00662361	9196456
7101.12	0.00368395	9196596
7110.27	0.00103276	9197022
7120.63	-0.00198273	9197314
7131.02	-0.00499304	9197754
7140.26	-0.00764211	9198208
7150.65	-0.0105748	9198311
7161.03	-0.0134394	9198455
7170.26	-0.0159169	9198613
7180.61	-0.0186133	9199023
7190.96	-0.0212122	9199287
7200.16	-0.0234379	9199643
7210.51	-0.0258457	9199997
7220.86	-0.0281535	9200595
7230.06	-0.0301245	9200969
7240.4	-0.0322571	9201597
7250.75	-0.0343071	9202464
7261.1	-0.036283	9203533
7270.3	-0.0379836	9204300
7280.65	-0.0398397	9205015
7290.99	-0.0416421	9205733
7300.19	-0.0432024	9206217
7310.53	-0.0449118	9206809
7320.87	-0.0465713	9207457
7330.07	-0.0480012	9207851
7340.41	-0.0495526	9208369
7350.75	-0.0510343	9208767
7361.09	-0.0524349	9208983
7370.29	-0.0536008	9208991
7380.63	-0.0548106	9208959
7390.97	-0.0558979	9208995
7400.18	-0.0567501	9208736
7410.58	-0.0575694	9208303
7420.98	-0.0582229	9207951
7430.22	-0.0586552	9207645
7440.62	-0.0589648	9207497
7451	-0.0590804	9207081
7460.19	-0.0590174	9206321
7470.49	-0.05876	9205779
7480.76	-0.0583069	9205279
7491.02	-0.0576605	9204729
7500.15	-0.0569265	9204445
7510.42	-0.0559274	9204007
7520.69	-0.0547516	9203495
7530.96	-0.0534074	9203116
7540.09	-0.0520782	9202784
7550.35	-0.0504398	9202524
7560.62	-0.048658	9202400
7570.89	-0.046741	9202280
7580.02	-0.0449293	9202048
7590.29	-0.0427761	9201957
7600.56	-0.0405061	9201777
7610.83	-0.0381245	9201766
7621.06	-0.0356421	9201718
7630.13	-0.0333529	9201534
7640.3	-0.030689	9201736
7650.44	-0.027931	9201658
7660.56	-0.0250764	9201844
7670.68	-0.0221203	9201820
7680.8	-0.0190623	9201904
7690.92	-0.0159022	9201858
7701.04	-0.0126405	9202156
7710.03	-0.00965635	9202190
7720.15	-0.00620505	9202250
7730.27	-0.00265599	9202050
7740.38	0.000988184	9201740
7750.5	0.00472424	9201280
7760.62	0.0085485	9200586
7770.74	0.0124569	9199856
7780.85	0.0164454	9199548
7790.97	0.0205095	9198884
7801.09	0.024645	9198355
7810.08	0.0283774	9197765
7820.2	0.0326387	9197090
7830.35	0.0369681	9196809
7840.5	0.0413535	9196450
7850.63	0.0457735	9196034
7860.75	0.0502294	9195848
7870.86	0.0547159	9195630
7880.98	0.059223	9195266
7891.1	0.0637389	9194810
7900.09	0.0677492	9194580
7910.21	0.0722422	9194514
7920.33	0.0766988	9194314
7930.44	0.0810999	9194324
7940.56	0.0854252	9194360
7950.68	0.0896531	9194468
7960.8	0.0937617	9194492
7970.92	0.0977288	9194599
7981.02	0.101526	9194701
7990.96	0.105084	9194569
8000.87	0.108438	9194621
8010.78	0.111583	9194577
8020.69	0.114506	9194524
8030.6	0.117197	9194470
8040.51	0.11965	9194205
8050.41	0.121862	9193919
8060.31	0.123836	9193997
8070.22	0.125576	9193827
8080.12	0.12709	9193851
8090.03	0.12839	9194060
8101.03	0.129601	9193963
8110.93	0.130499	9194043
8120.84	0.131234	9194252
8130.74	0.131825	9194297
8140.65	0.132291	9194453
8150.55	0.132653	9194670
8160.45	0.132927	9194749
8170.36	0.13313	9194805
8180.26	0.133277	9194696
8190.17	0.133378	9194912
8200.07	0.133444	9195152
8211.1	0.133481	9195547
8220.04	0.133488	9195813
8230.11	0.13347	9196170
8240.2	0.133422	9196400
8250.32	0.133338	9196750
8260.44	0.133212	9197040
8270.56	0.133033	9197445
8280.68	0.13279	9197993
8290.79	0.132471	9198363
8300.91	0.132063	9198653
8311.03	0.131552	9198881
8320.03	0.131002	9199121
8330.15	0.130264	9199549
8340.27	0.129388	9199767
8350.39	0.128364	9200035
8360.51	0.127185	9200285
8370.63	0.125842	9200629
8380.75	0.124331	9200898
8390.87	0.122649	9200650
8400.99	0.120796	9200614
8411.11	0.118771	9200353
8420.1	0.116831	9200164
8430.22	0.114494	9199876
8440.34	0.112	9199430
8450.46	0.109357	9199150
8460.58	0.106574	9198741
8470.73	0.103655	9198351
8480.95	0.100601	9197793
8490.06	0.0977889	9197370
8500.32	0.0945361	9196870
8510.58	0.0912076	9196467
8520.85	0.0878209	9195967
8531.11	0.0843931	9195666
8540.24	0.0813259	9195514
8550.5	0.077869	9195408
8560.76	0.0744226	9195409
8571.03	0.0710045	9195179
8580.15	0.0680043	9194907
8590.41	0.0646877	9194509
8600.68	0.061449	9194326
8610.94	0.0583042	9193670
8620.06	0.0555999	9193378
8630.33	0.0526726	9192906
8640.59	0.0498793	9192703
8650.85	0.0472316	9192258
8661.09	0.0447453	9191704
8670.19	0.0426724	9191366
8680.42	0.0404997	9190946
8690.66	0.0385006	9190330
8700.89	0.0366783	9189814
8711.12	0.035034	9189194
8720.22	0.0337213	9188650
8730.45	0.0324099	9187934
8740.68	0.0312697	9187221
8750.91	0.0302948	9186555
8760.01	0.0295608	9186126
8770.24	0.0288759	9185438
8780.47	0.0283293	9184671
8790.7	0.0279085	9183879
8800.93	0.0275991	9183269
8810.04	0.0274047	9182703
8820.26	0.0272614	9182316
8830.47	0.0271795	9181734
8840.68	0.0271393	9181276
8850.89	0.0271199	9180934
8861.1	0.0270999	9180854
8870.17	0.0270639	9181066
8880.38	0.0269826	9181146
8890.59	0.0268372	9181320
8900.8	0.0266064	9181417
8911.01	0.02627	9181308
8920.08	0.025867	9181226
8930.29	0.0252815	9180840
8940.5	0.0245417	9180532
8950.71	0.0236359	9179975
8960.91	0.0225549	9179659
8971.11	0.0212933	9179190
8980.17	0.0200192	9178527
8990.36	0.018414	9177836
9000.54	0.0166348	9177457
9010.66	0.0146946	9177303
9020.77	0.0125999	9177217
9030.88	0.0103616	9177149
9040.99	0.00799486	9176655
9051.1	0.00551733	9176321
9060.09	0.00323747	9175965
9070.2	0.000603561	9175558
9080.3	-0.00208364	9175283
9090.41	-0.00480351	9174747
9100.52	-0.00753583	9174543
9110.63	-0.0102612	9174405
9120.74	-0.0129616	9173989
9130.85	-0.0156205	9173838
9140.95	-0.0182231	9173390
9151.06	-0.0207571	9172913
9160.05	-0.022945	9172561
9170.19	-0.0253281	9171815
9180.33	-0.0276214	9171304
9190.49	-0.0298187	9171220
9200.65	-0.0319193	9171042
9210.82	-0.0339218	9171004
9220.94	-0.035821	9170923
9231.05	-0.0376267	9170841
9240.04	-0.0391598	9170835
9250.14	-0.0408107	9171063
9260.25	-0.0423909	9171245
9270.36	-0.0439095	9171381
9280.47	-0.0453757	9171471
9290.58	-0.0467992	9171413
9300.69	-0.0481898	9171305
9310.8	-0.0495569	9171093
9320.91	-0.0509093	9171247
9331.02	-0.052255	9171065
9340	-0.0534512	9170993
9350.11	-0.0548022	9171305
9360.22	-0.0561629	9171853
9370.33	-0.0575359	9172301
9380.44	-0.0589221	9173097
9390.55	-0.0603202	9173591
9400.66	-0.0617272	9174073
9410.77	-0.063138	9174481
9420.88	-0.0645454	9175437
9430.99	-0.0659406	9175891
9441.1	-0.0673127	9176626
9450.09	-0.0685032	9177202
9460.2	-0.0697977	9177552
9470.31	-0.0710309	9177852
9480.42	-0.0721881	9177932
9490.53	-0.0732542	9178238
9500.64	-0.0742145	9178668
9510.75	-0.075055	9178998
9520.86	-0.075763	9179170
9531	-0.0763282	9179290
9540.05	-0.0767027	9179394
9550.24	-0.0769711	9179574
9560.44	-0.0770726	9179522
9570.63	-0.0770057	9179558
9580.82	-0.0767719	9180082
9591.01	-0.0763761	9180124
9600.07	-0.0758949	9180154
9610.26	-0.0752183	9180102
9620.45	-0.0744122	9180426
9630.64	-0.0734935	9180234
9640.84	-0.0724819	9180174
9651.03	-0.0713987	9180024
9660.09	-0.0703945	9179990
9670.28	-0.06924	9180284
9680.47	-0.0680828	9180500
9690.66	-0.0669472	9180488
9700.85	-0.0658568	9180350
9711.04	-0.064834	9180332
9720.1	-0.0639982	9180452
9730.29	-0.0631572	9180378
9740.48	-0.0624363	9180140
9750.68	-0.0618481	9179929
9760.87	-0.0614018	9179799
9771.06	-0.0611029	9179641
9780.12	-0.0609625	9179353
9790.31	-0.060944	9179294
9800.5	-0.0610677	9179288
9810.69	-0.0613249	9179010
9820.88	-0.0617033	9178976
9831.08	-0.0621875	9178973
9840.14	-0.0626922	9179086
9850.33	-0.0633251	9179170
9860.52	-0.0640056	9179366
9870.71	-0.0647102	9179240
9880.9	-0.0654145	9179301
9891.1	-0.0660937	9179419
9900.16	-0.0666564	9179373
9910.35	-0.0672212	9179517
9920.54	-0.0676915	9179832
9930.73	-0.0680459	9179986
9940.92	-0.0682644	9179938
9951.11	-0.0683296	9180194
9960.15	-0.0682471	9180340
9970.3	-0.0679861	9180038
9980.43	-0.0675386	9179649
9990.57	-0.066898	9179059
10000.7	-0.0660609	9178503
10010.8	-0.0650269	9178034
10021	-0.0637988	9177276
10031.1	-0.0623821	9176895
10040.1	-0.060971	9176591
10050.3	-0.0592224	9176292
10060.4	-0.0573155	9175576
10070.5	-0.0552652	9175587
10080.7	-0.0530879	9175609
10090.8	-0.0508016	9175514
10100.9	-0.0484252	9175098
10111.1	-0.0459786	9175134
10120.1	-0.0437611	9175405
10130.2	-0.0412367	9175424
10140.4	-0.0387003	9175666
10150.5	-0.0361715	9175736
10160.6	-0.0336692	9175765
10170.8	-0.0312111	9176104
10180.9	-0.028814	9176666
10191.1	-0.0264931	9176766
10200.1	-0.0244999	9177064
10210.3	-0.0223507	9177450
10220.5	-0.0203143	9177799
10230.6	-0.0184003	9177975
10240.8	-0.0166164	9178121
10251	-0.0149688	9178211
10260	-0.0136234	9178697
10270.2	-0.0122463	9179086
10280.4	-0.0110149	9179335
10290.6	-0.0099301	9179448
10300.7	-0.00899184	9179859
10310.9	-0.00819938	9180352
10321.1	-0.00755125	9181033
10330.1	-0.00709467	9181648
10340.3	-0.0067133	9182468
10350.4	-0.00646932	9182966
10360.6	-0.00635972	9183620
10370.8	-0.00638136	9184114
10380.9	-0.00653101	9184685
10391.1	-0.00680541	9185135
10400.1	-0.00715145	9185547
10410.3	-0.00765281	9185955
10420.5	-0.00826991	9186302
10430.6	-0.00899991	9186641
10440.8	-0.00984044	9186830
10451	-0.0107926	9187128
10460.1	-0.0117284	9187593
10470.3	-0.0128798	9187511
10480.5	-0.014134	9187703
10490.7	-0.0154893	9187628
10500.9	-0.0169444	9187716
10510	-0.0183201	9187795
10520.2	-0.0199589	9187964
10530.4	-0.0216934	9188140
10540.6	-0.0235229	9187974
10550.8	-0.0254461	9187553
10561	-0.0274616	9187153
10570.1	-0.0293292	9186659
10580.3	-0.031514	9186347
10590.5	-0.0337853	9185897
10600.7	-0.0361399	9185442
10610.9	-0.0385745	9185264
10621.1	-0.0410848	9185018
10630.1	-0.043376	9184582
10640.3	-0.0460158	9184356
10650.5	-0.0487157	9184378
10660.7	-0.0514689	9184330
10670.9	-0.0542681	9184113
10681.1	-0.0571053	9183673
10690.2	-0.0596524	9183475
10700.4	-0.0625389	9182863
10710.6	-0.0654399	9182195
10720.8	-0.0683462	9181781
10731	-0.0712469	9181290
10740.1	-0.0738133	9180695
10750.3	-0.0766787	9180075
10760.5	-0.0795128	9179443
10770.7	-0.0823052	9178364
10780.9	-0.0850493	9177348
10791.1	-0.0877392	9176544
10800.2	-0.0900797	9175540
10810.4	-0.0926508	9174402
10820.6	-0.0951512	9173035
10830.8	-0.0975768	9172075
10841	-0.0999238	9170955
10850.1	-0.101942	9170141
10860.3	-0.104132	9169041
10870.5	-0.106237	9167829
10880.7	-0.108254	9166805
10890.9	-0.110182	9165999
10901.1	-0.112019	9164894
10910.1	-0.113575	9163960
10920.3	-0.115238	9162912
10930.5	-0.116806	9161553
10940.7	-0.118278	9160199
10950.9	-0.119652	9159067
10961.1	-0.120926	9157886
10970.2	-0.121971	9156704
10980.4	-0.123047	9155652
10990.6	-0.124012	9154844
11000.8	-0.124864	9153802
11011	-0.125596	9152974
11020.1	-0.126144	9152562
11030.3	-0.126639	9151772
11040.5	-0.127	9151033
11050.7	-0.127223	9150287
11061	-0.1273	9149850
11070.2	-0.127241	9149242
11080.5	-0.127025	9149322
11090.8	-0.126647	9149313
11101.1	-0.126103	9149208
11110.2	-0.125476	9149151
11120.5	-0.124606	9148661
11130.8	-0.123561	9148057
11141.1	-0.122338	9147765
11150.3	-0.121101	9147343
11160.6	-0.11954	9146921
11170.9	-0.117803	9146429
11180	-0.116111	9145965
11190.3	-0.114045	9145435
11200.6	-0.111814	9144823
11210.9	-0.109424	9144379
11221.1	-0.106875	9143981
11230.2	-0.104481	9143857
11240.5	-0.101649	9144031
11250.7	-0.0986762	9143991
11260.9	-0.0955884	9143877
11271	-0.0923932	9143814
11280	-0.0894647	9143920
11290.1	-0.0860783	9144366
11300.2	-0.0825965	9144873
11310.3	-0.0790272	9144947
11320.4	-0.0753796	9145229
11330.5	-0.0716629	9145445
11340.6	-0.0678866	9145563
11350.7	-0.0640604	9145599
11360.7	-0.0601938	9145818
11370.8	-0.0562965	9145642
11380.9	-0.0523782	9145395
11391	-0.0484486	9144993
11401.1	-0.0445171	9144699
11410.1	-0.0410286	9144448
11420.2	-0.0371185	9143954
11430.3	-0.0332261	9143658
11440.4	-0.0293586	9143196
11450.6	-0.0255141	9143074
11460.8	-0.0217097	9143299
11471	-0.0179652	9143457
11480.1	-0.0146931	9143359
11490.3	-0.011082	9143281
11500.5	-0.00755099	9143343
11510.8	-0.00410603	9143375
11521	-0.000752185	9143339
11530.1	0.00214898	9143005
11540.3	0.00532096	9142203
11550.5	0.00839552	9141643
11560.8	0.0113694	9141545
11571	0.0142379	9141525
11580.1	0.016699	9141609
11590.4	0.0193683	9141577
11600.6	0.0219336	9141734
11610.9	0.0243968	9141826
11621.1	0.0267606	9141482
11630.2	0.0287811	9141226
11640.5	0.030967	9140644
11650.7	0.033065	9139766
11661	0.0350802	9139082
11670.1	0.0368062	9138414
11680.3	0.0386797	9137636
11690.6	0.0404866	9136774
11700.8	0.0422328	9136143
11711.1	0.04392	9135703
11720.1	0.0453754	9135327
11730.3	0.0469623	9135079
11740.3	0.048506	9135225
11750.4	0.0500125	9135387
11760.4	0.0514876	9135319
11770.4	0.052941	9135405
11780.4	0.054377	9135337
11790.5	0.0557996	9135211
11800.5	0.0572121	9135045
11810.5	0.0586175	9135359
11820.5	0.0600184	9135361
11830.5	0.061417	9135321
11840.5	0.0628152	9134911
11850.6	0.0642141	9134473
11860.6	0.0656149	9133979
11870.6	0.0670181	9133291
11880.6	0.068424	9132499
11890.6	0.0698331	9131907
11900.7	0.0712458	9131299
11910.7	0.0726635	9130318
11920.8	0.0740813	9129745
11930.8	0.0754977	9128859
11940.9	0.0769113	9127817
11951	0.0783219	9126531
11961.1	0.0797279	9125699
11970.1	0.0809738	9124645
11980.2	0.0823652	9124001
11990.4	0.0837453	9123251
12000.6	0.085107	9122659
12010.8	0.0864463	9122191
12021	0.0877595	9121839
12031.1	0.0890402	9121347
12040.1	0.0901497	9120881
12050.3	0.0913625	9120555
12060.5	0.0925338	9120265
12070.6	0.0936595	9120117
12080.8	0.0947354	9120053
12090.9	0.0957575	9120149
12101.1	0.096722	9120211
12110.1	0.0975277	9120191
12120.3	0.0983732	9120313
12130.4	0.0991511	9120767
12140.6	0.0998586	9121159
12150.7	0.100493	9121595
12160.8	0.101052	9121694
12170.9	0.101537	9121803
12181	0.101946	9121605
12190	0.102248	9121193
12200.1	0.10252	9120717
12210.2	0.102721	9120247
12220.3	0.102855	9120200
12230.4	0.102925	9120404
12240.5	0.102937	9120285
12250.7	0.102896	9120299
12260.8	0.102808	9120369
12270.9	0.102682	9120334
12281	0.102523	9119870
12291.1	0.102342	9119350
12300.1	0.102168	9118800
12310.2	0.101966	9118534
12320.3	0.101767	9117984
12330.4	0.101579	9117620
12340.5	0.101411	9117082
12350.6	0.101272	9116312
12360.7	0.101169	9116005
12370.8	0.101111	9115217
12380.9	0.101103	9114611
12391	0.101153	9114261
12400.1	0.101249	9113897
12410.2	0.10142	9113287
12420.3	0.10166	9112541
12430.5	0.101972	9111707
12440.6	0.102356	9110545
12450.8	0.102813	9109455
12461	0.103343	9108576
12470.1	0.103873	9107402
12480.3	0.104534	9106270
12490.5	0.105258	9105498
12500.7	0.10604	9104982
12511	0.106872	9104258
12520.1	0.107649	9103738
12530.3	0.108555	9103259
12540.3	0.109479	9103087
12550.4	0.110416	9102845
12560.4	0.111361	9102878
12570.4	0.112307	9102732
12580.3	0.113243	9102583
12590.2	0.114154	9102419
12600.1	0.115031	9102464
12611	0.11596	9102261
12620.8	0.116746	9102036
12630.6	0.117476	9102106
12640.4	0.118141	9102312
12650.2	0.118733	9102377
12660.1	0.119242	9102471
12671	0.119703	9102575
12680.8	0.120014	9102487
12690.6	0.120221	9102280
12700.4	0.120317	9101788
12710.2	0.120297	9100764
12720	0.120156	9099777
12730.9	0.119852	9098494
12740.8	0.119443	9097614
12750.6	0.118903	9097004
12760.4	0.11823	9096288
12770.2	0.117423	9095610
12780	0.116481	9094865
12790.9	0.115275	9093777
12800.8	0.114042	9092809
12810.7	0.11267	9091619
12820.6	0.111164	9090460
12830.6	0.109528	9089392
12840.5	0.107763	9088062
12850.5	0.105866	9087140
12860.5	0.103833	9086219
12870.6	0.101675	9085507
12880.7	0.0994022	9084685
12890.8	0.0970199	9084411
12900.8	0.0945332	9083925
12910.9	0.0919472	9083507
12921	0.0892646	9083069
12930	0.0867976	9082925
12940.2	0.0839315	9082854
12950.4	0.0809817	9082850
12960.5	0.0779706	9082876
12970.6	0.0749262	9083015
12980.5	0.0718406	9083152
12990.5	0.0687064	9083473
13000.5	0.065526	9083795
13010.5	0.0623053	9083857
13020.4	0.0590504	9083876
13030.4	0.0557673	9083957
13040.4	0.052462	9084011
13050.3	0.0491406	9083699
13060.3	0.045809	9083517
13070.3	0.0424741	9083136
13080.2	0.0391693	9082758
13090	0.0358885	9082546
13100.9	0.0322726	9082338
13110.7	0.0290457	9082484
13120.4	0.0258417	9082438
13130.2	0.0226654	9082516
13141	0.0191742	9082378
13150.8	0.0160709	9082308
13160.6	0.0130084	9081899
13170.4	0.00999033	9081660
13180.1	0.00702003	9081288
13191	0.00377936	9080810
13200.7	0.000919327	9080418
13210.5	-0.00188471	9079914
13220.3	-0.0046308	9079569
13230.1	-0.0073176	9079023
13240.9	-0.0102318	9078173
13250.7	-0.0127986	9077417
13260.5	-0.0153028	9076622
13270.3	-0.0177271	9075861
13281	-0.0203291	9074834
13290.7	-0.0225976	9074014
13300.3	-0.0248035	9073057
13311	-0.0271819	9072167
13320.7	-0.0292577	9071311
13330.3	-0.0312724	9070226
13341.1	-0.0334396	9069004
13350.7	-0.0353262	9068086
13360.3	-0.0371525	9067090
13371.1	-0.0391111	9066004
13380.7	-0.0408104	9065154
13390.3	-0.0424493	9064335
13401.1	-0.0441992	9063579
13410.7	-0.0457096	9063033
13420.4	-0.0471582	9062311
13431.1	-0.0486943	9061437
13440.7	-0.0500097	9060853
13450.4	-0.0512602	9060200
13460	-0.0524448	9059422
13470.7	-0.053684	9058574
13480.5	-0.0547334	9057801
13490.3	-0.0557186	9057088
13500.2	-0.0566348	9056304
13510.1	-0.0574733	9055556
13521	-0.0583112	9054463
13530.9	-0.0589788	9053749
13540.8	-0.0595626	9053049
13550.6	-0.0600614	9052023
13560.4	-0.0604754	9051409
13570.2	-0.0608036	9050791
13580.1	-0.0610454	9050146
13591	-0.0612122	9049470
13600.8	-0.0612707	9049204
13610.7	-0.0612429	9048730
13620.5	-0.0611298	9048041
13630.3	-0.0609328	9047788
13640.1	-0.0606538	9047089
13651.1	-0.0602508	9046609
13660.9	-0.0598078	9046432
13670.7	-0.0592928	9045984
13680.5	-0.0587116	9045727
13690.3	-0.0580698	9045325
13700.1	-0.0573714	9045000
13710.9	-0.0565358	9044276
13720.7	-0.0557372	9043903
13730.4	-0.0549014	9043624
13740.2	-0.0540358	9043546
13751	-0.0530525	9043272
13760.7	-0.0521562	9043076
13770.3	-0.0512599	9043086
13781	-0.0502685	9043388
13790.6	-0.0493877	9043342
13800.2	-0.048526	9043468
13810.9	-0.0476003	9043411
13820.5	-0.046804	9043301
13830.2	-0.0460501	9043191
13840.8	-0.0452704	9043155
13850.5	-0.044628	9042977
13860.1	-0.0440478	9042753
13870.8	-0.0434826	9042621
13880.4	-0.0430505	9042339
13890	-0.0426949	9042137
13900.7	-0.0423933	9042209
13910.3	-0.0422087	9041823
13921	-0.0421016	9041243
13930.7	-0.0420945	9040590
13940.4	-0.0421728	9039806
13950.1	-0.0423356	9039154
13960.9	-0.042613	9038284
13970.7	-0.0429469	9037358
13980.4	-0.0433574	9036544
13990.2	-0.0438388	9035940
14001	-0.0444503	9035085
14010.8	-0.0450639	9034343
14020.6	-0.04573	9033693
14030.4	-0.0464415	9032633
14040.3	-0.0471914	9031687
14050.1	-0.0479727	9030660
14060	-0.0487767	9029769
14071	-0.0496831	9028657
14080.9	-0.0505008	9027687
14090.8	-0.0513112	9026573
14100.7	-0.0521066	9025663
14110.7	-0.052877	9024639
14120.7	-0.0536166	9023625
14130.7	-0.0543161	9022697
14140.8	-0.0549688	9021944
14150.9	-0.0555656	9021036
14161.1	-0.0560979	9019991
14170.1	-0.0565081	9019013
14180.1	-0.0568954	9018000
14190.2	-0.0572014	9016900
14200.2	-0.0574231	9015611
14210.3	-0.0575577	9014649
14220.3	-0.0576032	9013497
14230.4	-0.0575584	9012505
14240.4	-0.0574229	9011220
14250.5	-0.0571973	9010025
14260.5	-0.0568829	9008677
14270.6	-0.0564819	9007391
14280.6	-0.0559972	9006377
14290.7	-0.0554324	9005161
14300.7	-0.054792	9003701
14310.8	-0.0540808	9002431
14320.8	-0.0533045	9000681
14330.9	-0.0524678	8999470
14341	-0.0515756	8998370
14350	-0.0507391	8997486
14360.2	-0.0497535	8996742
14370.5	-0.0487297	8996184
14380.8	-0.0476807	8995704
14391.1	-0.0466147	8995418
14400.2	-0.0456591	8995168
14410.5	-0.0445824	8994664
14420.7	-0.0435113	8994378
14431	-0.0424531	8994127
14440.2	-0.0415292	8993814
14450.4	-0.0405144	8993706
14460.7	-0.0395318	8993466
14471	-0.0385869	8993218
14480.1	-0.0377826	8993256
14490.4	-0.0369232	8993344
14500.6	-0.0361159	8993641
14510.8	-0.0353621	8993845
14521.1	-0.0346635	8993909
14530.1	-0.0340902	8994114
14540.4	-0.0334998	8994274
14550.6	-0.0329674	8994392
14560.8	-0.0324927	8994456
14571.1	-0.0320747	8994290
14580.1	-0.0317496	8994348
14590.4	-0.031434	8994322
14600.6	-0.0311693	8994376
14610.8	-0.0309523	8994286
14621.1	-0.0307795	8994224
14630.2	-0.03066	8994260
14640.6	-0.0305607	8994243
14650.9	-0.0304954	8994257
14660.1	-0.0304626	8993983
14670.4	-0.0304501	8993531
14680.7	-0.0304594	8993125
14691	-0.0304863	8992605
14700.2	-0.030522	8991804
14710.5	-0.0305723	8991234
14720.8	-0.0306301	8990714
14731.1	-0.0306927	8989733
14740.2	-0.0307504	8988851
14750.5	-0.0308157	8988060
14760.8	-0.0308799	8987178
14771	-0.0309419	8986301
14780.1	-0.0309947	8985090
14790.2	-0.0310513	8983966
14800.4	-0.0311056	8983184
14810.5	-0.0311583	8982286
14820.6	-0.0312105	8981528
14830.7	-0.0312635	8980520
14840.8	-0.0313189	8978885
14850.9	-0.0313786	8977233
14861	-0.0314442	8975547
14870	-0.0315091	8973713
14880.1	-0.0315912	8971555
14890.2	-0.0316846	8969215
14900.4	-0.0317908	8966765
14910.5	-0.031911	8964331
14920.7	-0.0320457	8961637
14930.8	-0.0321951	8959317
14940.9	-0.0323589	8956780
14950.9	-0.032536	8954591
14961	-0.0327257	8952392
14971.1	-0.0329257	8950306
14981.1	-0.0331334	8948022
14991.1	-0.0333447	8945803
15001.1	-0.0335567	8943670
15011.1	-0.033765	8941778
15021.1	-0.0339645	8939970
15031	-0.0341495	8938313
15041	-0.0343138	8936441
15051	-0.0344512	8934352
15061.1	-0.0345541	8932356
15070	-0.0346106	8930821
15080.2	-0.0346271	8929104
15090.5	-0.0345845	8927201
15100.8	-0.034473	8925124
15111.1	-0.0342832	8923129
15120.4	-0.0340422	8921267
15130.7	-0.0336823	8919308
15141.1	-0.0332209	8917573
15150.2	-0.0327197	8916147
15160.6	-0.0320497	8914461
15170.8	-0.031264	8912826
15181	-0.0303577	8911073
15190.1	-0.029447	8909978
15200.3	-0.0283006	8908608
15210.4	-0.0270218	8907866
15220.6	-0.0256091	8906794
15230.8	-0.024062	8905654
15241	-0.0223812	8904662
15250	-0.0207763	8903764
15260.2	-0.0188488	8902801
15270.4	-0.0167958	8901765
15280.6	-0.0146224	8900680
15290.8	-0.0123372	8899862
15300.9	-0.00995112	8898846
15311	-0.0074701	8897892
15320	-0.00519667	8896986
15330.1	-0.00256765	8896152
15340.2	0.0001301	8895402
15350.3	0.00288609	8894618
15360.4	0.00568873	8893848
15370.5	0.00852594	8893122
15380.5	0.0113853	8892386
15390.6	0.0142592	8891615
15400.9	0.0171632	8890623
15411.1	0.0200544	8889748
15420.3	0.0226141	8888820
15430.6	0.0254692	8887995
15441	0.0282758	8887242
15450.2	0.0307013	8886655
15460.5	0.0333295	8885889
15470.6	0.0358407	8884861
15480.7	0.0382498	8883973
15490.9	0.0405496	8883068
15501	0.0427311	8882453
15511.1	0.044786	8881847
15520.1	0.0465004	8881225
15530.3	0.0482969	8880414
15540.4	0.0499486	8879607
15550.5	0.0514508	8879151
15560.8	0.0528149	8878569
15570.1	0.0539101	8877994
15580.5	0.0549898	8877351
15591.1	0.0559065	8876626
15600.5	0.056579	8875946
15611.1	0.0571736	8874895
15620.5	0.0575599	8874192
15631.1	0.0578376	8873582
15640.6	0.0579481	8873021
15651.1	0.0579241	8872347
15660.5	0.0577766	8871807
15670.9	0.0574766	8871090
15680.2	0.0570972	8870240
15690.6	0.0565504	8869333
15701.1	0.0558844	8868360
15710.3	0.0551988	8867469
15720.7	0.0543301	8866575
15731.1	0.0533669	8865374
15740.4	0.0524389	8864118
15750.8	0.0513201	8862811
15760.2	0.0502621	8861853
15770.7	0.04901	8860552
15780.1	0.0478553	8859170
15790.6	0.0465207	8857847
15801.1	0.0451575	8856540
15810.4	0.0439288	8855114
15820.9	0.0425348	8853827
15830.2	0.0412917	8852673
15840.7	0.0398972	8851584
15850	0.0386688	8850501
15860.5	0.0373066	8849522
15870.9	0.0359719	8848496
15880.2	0.0348138	8847640
15890.6	0.0335468	8846788
15901	0.0323228	8845783
15910.3	0.031275	8844906
15920.7	0.0301453	8843648
15931.1	0.0290674	8842371
15940.8	0.0281226	8841447
15951	0.0271808	8840637
15960	0.0264016	8840043
15970.3	0.0255677	8839237
15980.6	0.0247953	8838510
15990.9	0.0240836	8837714
16001.1	0.0234318	8836860
16010.1	0.0229093	8836154
16020.4	0.0223646	8835382
16030.7	0.0218732	8834663
16041	0.0214321	8833749
16051.3	0.0210374	8832767
16060.3	0.0207268	8832078
16070.6	0.0204073	8831344
16080.9	0.0201213	8830555
16091.2	0.019864	8829688
16100.2	0.0196586	8828880
16110.6	0.0194418	8827883
16120.9	0.0192394	8826787
16131.2	0.019046	8825992
16140.3	0.0188801	8825260
16150.6	0.01869	8824563
16161	0.0184947	8824069
16170	0.018316	8823429
16180.3	0.0180989	8822638
16190.7	0.0178643	8821826
16201	0.0176087	8820978
16210.1	0.017365	8820069
16220.4	0.0170611	8819145
16230.7	0.0167271	8818180
16241.1	0.016361	8817236
16250.1	0.016014	8816311
16260.4	0.0155858	8815286
16270.7	0.0151215	8814180
16281	0.0146203	8813255
16291.3	0.0140814	8812260
16300.3	0.0135787	8811469
16310.6	0.0129686	8810394
16320.9	0.0123205	8809124
16331.2	0.0116348	8808196
16340.2	0.0110042	8807366
16350.5	0.0102494	8806402
16360.7	0.00945879	8805687
16371	0.00863336	8804791
16380	0.00788338	8804033
16390.3	0.00699564	8803396
16400.6	0.00607646	8802766
16410.9	0.0051272	8802189
16421.2	0.00414931	8801616
16430.2	0.00327137	8801113
16440.5	0.00224396	8800467
16450.8	0.00119248	8799875
16461.1	0.000118027	8799175
16470.1	-0.000839665	8798661
16480.4	-0.00195213	8798017
16490.8	-0.00309011	8797511
16501.3	-0.00426241	8796802
16510.6	-0.00530502	8796175
16521.1	-0.00650897	8795461
16530.6	-0.007593	8794812
16540.1	-0.00869772	8794112
16551.1	-0.00997286	8793286
16560.7	-0.0110951	8792562
16570.3	-0.0122224	8791808
16581.2	-0.0135159	8790837
16590.8	-0.0146515	8790011
16600.4	-0.0157901	8789265
16611.3	-0.0170943	8788445
16620.9	-0.0182379	8787665
16630.5	-0.0193837	8786896
16640.1	-0.0205316	8785888
16651	-0.0218465	8784804
16660.6	-0.0229999	8783906
16670.2	-0.0241566	8783027
16681.1	-0.0254834	8781977
16690.7	-0.0266494	8780895
16700.3	-0.0278211	8779929
16711.3	-0.0291686	8779005
16720.9	-0.0303578	8778203
16730.5	-0.031559	8777499
16740.1	-0.0327698	8776856
16751	-0.0341653	8776008
16760.6	-0.035393	8775262
16770	-0.0366259	8774580
16780.8	-0.0380421	8773942
16790.1	-0.0392946	8773365
16800.8	-0.040745	8772681
16810.1	-0.042034	8772127
16820.7	-0.0435325	8771467
16830	-0.0448671	8770911
16840.7	-0.0464205	8770320
16850	-0.0478053	8769780
16860.6	-0.0494182	8769292
16871.3	-0.0510642	8768820
16880.6	-0.0525321	8768494
16891.3	-0.0542417	8768020
16900.6	-0.0557656	8767773
16911.2	-0.0575405	8767413
16920.6	-0.05913	8767163
16931.3	-0.0609802	8766961
16940.7	-0.0626253	8766781
16950.1	-0.0642934	8766525
16961.3	-0.0663059	8766521
16970.7	-0.0680156	8766381
16980.1	-0.0697423	8766351
16991	-0.071775	8766378
17000.4	-0.0735298	8766354
17011.3	-0.0755873	8766316
17021	-0.0774072	8766240
17030.6	-0.0792276	8766266
17040.3	-0.0810439	8766335
17051.6	-0.0831514	8766267
17061.4	-0.0849722	8766291
17071.2	-0.0867718	8766275
17081	-0.0885442	8766271
17090.8	-0.090283	8766261
17100.6	-0.0919815	8766241
17110.4	-0.0936327	8766215
17120.3	-0.0952296	8766195
17130.1	-0.0967648	8766179
17141.5	-0.0984679	8766221
17151.3	-0.0998438	8766181
17161.2	-0.101134	8766131
17171	-0.102331	8766073
17180.8	-0.103428	8766053
17190.6	-0.104416	8765993
17200.6	-0.105301	8766009
17210.6	-0.106065	8765943
17220.6	-0.106695	8765821
17230.6	-0.107184	8765787
17240.6	-0.107527	8765629
17250.6	-0.107718	8765567
17260.6	-0.107752	8765521
17270.7	-0.107625	8765456
17280.7	-0.107334	8765374
17291	-0.106858	8765291
17301.6	-0.106188	8765221
17310.4	-0.105484	8765109
17321	-0.104467	8765143
17331.7	-0.103254	8765174
17340.8	-0.10207	8765180
17351.7	-0.100475	8765157
17360.8	-0.0990016	8765189
17370.8	-0.0972471	8765323
17380.6	-0.095362	8765235
17390.5	-0.0933391	8765129
17400.7	-0.0911203	8765047
17411.3	-0.088687	8765065
17420.1	-0.0865448	8765005
17430.8	-0.0838653	8764883
17441.4	-0.0810782	8764800
17450.3	-0.0786823	8764802
17460.9	-0.0757302	8764768
17471.5	-0.0727061	8764732
17480.4	-0.0701402	8764696
17491.1	-0.0670107	8764770
17501.6	-0.0638747	8764796
17510.3	-0.061269	8764754
17520.7	-0.0581525	8764684
17531	-0.0550456	8764572
17541.5	-0.0519209	8764496
17551.5	-0.048918	8764413
17561.5	-0.0459533	8764311
17571.5	-0.043018	8764269
17581.6	-0.0401181	8764275
17591.6	-0.0372593	8764197
17601.7	-0.0344101	8764207
17610.4	-0.0320123	8764165
17620.7	-0.0292048	8764182
17631.4	-0.0263768	8764184
17640.3	-0.0240708	8764191
17650.9	-0.0213665	8764149
17661.6	-0.0187323	8764017
17670.5	-0.0165726	8763952
17681.4	-0.0140116	8763844
17690.6	-0.0119303	8763772
17701.5	-0.00950279	8763732
17710.6	-0.00753844	8763704
17721.4	-0.00528522	8763687
17731.6	-0.00320738	8763693
17740.6	-0.00144939	8763590
17751.5	0.000624198	8763579
17760.6	0.0022967	8763569
17771.4	0.00419864	8763569
17780.3	0.00572746	8763460
17791.3	0.00752309	8763372
17800.4	0.00896015	8763190
17811.3	0.0106117	8763119
17820.4	0.0119264	8763009
17831.4	0.0134294	8762869
17840.5	0.0146188	8762909
17851.4	0.0159636	8762847
17860.4	0.0170157	8762783
17871.2	0.0182014	8762789
17880.3	0.0191253	8762941
17891.1	0.0201583	8763085
17900.2	0.0209592	8763247
17911.2	0.0218438	8763338
17920.3	0.0225168	8763384
17931.2	0.0232474	8763493
17940.1	0.0237852	8763541
17951	0.0243717	8763521
17960.1	0.0248053	8763469
17971.1	0.0252608	8763479
17980.2	0.0255898	8763509
17991.1	0.0259285	8763711
18000.2	0.0261681	8763863
18010.8	0.0264036	8763945
18021.4	0.026598	8763952
18030.4	0.0267348	8763960
18041.2	0.026875	8763942
18050.2	0.0269742	8764046
18061	0.0270797	8764076
18070.1	0.027162	8764096
18081	0.0272588	8764162
18090	0.0273431	8764254
18100.9	0.0274555	8764338
18110.1	0.0275622	8764286
18121	0.027711	8764440
18130.1	0.0278557	8764486
18141.1	0.028058	8764508
18150.2	0.0282526	8764554
18161.1	0.0285198	8764596
18170.2	0.0287715	8764617
18181.2	0.0291088	8764585
18190.3	0.029419	8764391
18201.1	0.0298218	8764200
18211.7	0.0302479	8764088
18220.6	0.0306249	8763980
18231.1	0.0311007	8763874
18241.7	0.0315975	8763800
18250.6	0.0320236	8763737
18261.2	0.0325441	8763636
18271.7	0.0330684	8763574
18280.6	0.033503	8763420
18291.2	0.0340154	8763347
18301.4	0.0344949	8763349
18311.6	0.0349483	8763197
18320.3	0.0353095	8763058
18330.6	0.0357078	8762847
18341	0.0360607	8762803
18351.4	0.036361	8762737
18360.1	0.0365659	8762705
18370.4	0.0367518	8762593
18380.9	0.036867	8762516
18391.6	0.0369038	8762404
18400.5	0.0368684	8762226
18411.1	0.0367423	8762078
18420	0.0365649	8762062
18430.7	0.0362637	8761982
18441.1	0.0358721	8761934
18451.4	0.0353893	8761956
18461.4	0.0348251	8761964
18471.3	0.0341847	8761952
18480.9	0.0334724	8761908
18490.5	0.0326901	8761840
18501.5	0.0316918	8761772
18510.8	0.0307669	8761750
18520.1	0.0297782	8761790
18531	0.0285411	8761824
18540.7	0.0273683	8761770
18550.5	0.0261248	8761710
18560.4	0.0248216	8761618
18570.2	0.0234696	8761504
18580	0.022076	8761332
18591.5	0.0204056	8761206
18601.3	0.018943	8760974
18611.2	0.0174576	8760834
18621.1	0.0159351	8760756
18631.1	0.0144084	8760720
18641	0.0128847	8760736
18651.1	0.0113416	8760721
18661.5	0.00976099	8760710
18670.2	0.00845542	8760656
18680.8	0.0068948	8760698
18691.4	0.00536488	8760686
18700.2	0.00411694	8760717
18710.7	0.00265535	8760763
18721.3	0.00123604	8760807
18730	9.11761e-05	8760869
18740.4	-0.00122282	8760875
18750.8	-0.00249563	8760941
18761.4	-0.00374122	8760929
18770.2	-0.00474501	8760920
18780.7	-0.0059104	8760960
18791.3	-0.00703599	8760945
18800.1	-0.00794636	8761004
18810.5	-0.00899767	8761040
18820.9	-0.0100169	8760974
18831.1	-0.0109959	8760963
18841.4	-0.0119777	8760841
18850.1	-0.0127955	8760775
18860.7	-0.0137891	8760754
18871.2	-0.0147884	8760722
18880	-0.0156309	8760627
18890.6	-0.0166606	8760509
18901.1	-0.0177178	8760529
18911.7	-0.0188096	8760547
18920.5	-0.01975	8760459
18931	-0.0209243	8760417
18941.6	-0.0221532	8760421
18950.4	-0.0232228	8760413
18960.9	-0.0245654	8760413
18971.5	-0.0259761	8760447
18980.3	-0.0272063	8760383
18990.8	-0.02875	8760377
19001.4	-0.0303684	8760281
19010.2	-0.0317743	8760207
19020.8	-0.0335291	8760075
19031.2	-0.035337	8759951
19041.5	-0.0371866	8759898
19050	-0.0387608	8759878
19060.5	-0.0407403	8759782
19070.9	-0.0427785	8759698
19081.4	-0.0448487	8759564
19091.7	-0.0469303	8759556
19100.3	-0.0486828	8759531
19110.6	-0.0507977	8759463
19120.9	-0.0529146	8759437
19131.2	-0.055021	8759383
19141.5	-0.0571041	8759337
19150.1	-0.0588123	8759379
19160.4	-0.0608169	8759280
19170.7	-0.0627588	8759256
19181	-0.0646238	8759235
19191.3	-0.0663979	8759063
19201.6	-0.0680672	8759075
19210.2	-0.0693686	8758967
19220.5	-0.0708114	8758987
19230.9	-0.0721131	8758919
19241.2	-0.0732624	8758955
19251.5	-0.074249	8758893
19260.1	-0.0749403	8758854
19270.4	-0.0756058	8758879
19280.7	-0.0760862	8758936
19291.1	-0.0763779	8758970
19301.5	-0.0764723	8759068
19310.3	-0.0763962	8759087
19320.5	-0.0761258	8759166
19330.7	-0.0756641	8759241
19341.1	-0.0750043	8759291
19351.4	-0.0741526	8759394
19361.6	-0.0731214	8759460
19370.1	-0.072144	8759510
19380	-0.070839	8759520
19391.6	-0.0691287	8759602
19401.6	-0.0675039	8759569
19411.7	-0.0657211	8759588
19420.1	-0.0641389	8759474
19430.1	-0.0621474	8759430
19440.2	-0.0600402	8759394
19450.2	-0.0578565	8759176
19460.3	-0.0555742	8759102
19470.4	-0.0532189	8759017
19480.5	-0.0508062	8758930
19490.7	-0.0483477	8758872
19500.8	-0.0458545	8758857
19510.9	-0.0433372	8758755
19521.2	-0.0407489	8758597
19531.6	-0.0381442	8758459
19540.3	-0.0359764	8758341
19550.6	-0.0333855	8758197
19561	-0.0308127	8758116
19571.4	-0.0282643	8758080
19580.1	-0.0261631	8757981
19590.5	-0.0236722	8757967
19600.8	-0.0212369	8758032
19610.8	-0.0189065	8757960
19620.8	-0.0166133	8757884
19630.8	-0.0143577	8757900
19640.9	-0.0121231	8757890
19650.8	-0.00996165	8757839
19661	-0.00777458	8757919
19671.2	-0.00562174	8757957
19681.5	-0.00348175	8757977
19690.2	-0.00170549	8758034
19700.6	0.000401	8757994
19711	0.00248322	8758056
19721.3	0.00454442	8757994
19731.6	0.00655977	8757992
19740	0.00820727	8757970
19750.1	0.0101734	8757888
19760.4	0.0121613	8757676
19770.8	0.0141615	8757619
19781.2	0.016155	8757462
19791.6	0.0181427	8757364
19800.1	0.0197781	8757358
19810.5	0.0217477	8757396
19820.9	0.0237198	8757462
19831.3	0.0256847	8757438
19841.6	0.0276407	8757467
19850.3	0.0292617	8757543
19860.6	0.0311817	8757575
19870.6	0.0330285	8757593
19880.6	0.0348558	8757683
19890.8	0.0366904	8757701
19901.1	0.0385116	8757741
19911.4	0.0402992	8757657
19921.5	0.0420331	8757671
19931.7	0.0437176	8757656
19940.2	0.045097	8757747
19950.5	0.0467144	8757701
19960.8	0.0482755	8757729
19971.1	0.0497731	8757783
19981.4	0.0512025	8757895
19991.7	0.052559	8757949
