0	0	8584140
10.1915	0	8595204
20.373	0	8602496
30.5545	0	8606478
40.736	0	8609350
50.9166	0	8611872
60.0761	0	8613762
70.2436	0	8615752
80.4112	0	8617656
90.5786	0	8619066
100.746	0	8620300
110.913	0	8621566
120.066	0	8622934
130.256	0	8624460
140.46	0	8626062
150.663	0	8627792
160.867	0	8629300
170.051	0	8630550
180.254	0	8631972
190.459	0	8633314
200.665	0	8634728
210.875	0	8636318
220.065	0	8637752
230.275	0	8639536
240.507	0	8641254
250.731	0	8642954
260.943	0	8644814
270.135	0	8646594
280.408	0	8648678
290.707	0	8650788
301.006	0	8652910
310.275	0	8655014
320.573	0	8657290
330.831	0	8659706
340.027	0	8661994
350.245	0	8664432
360.477	0	8666904
370.711	0	8669382
380.945	0	8671728
390.138	0	8673712
400.352	0	8676012
410.618	0	8678470
420.918	0	8680764
430.189	0	8682714
440.49	0	8684954
450.791	0	8687158
460.062	0	8689046
470.364	0	8691066
480.665	0	8692926
490.967	0	8694802
500.239	0	8696436
510.541	0	8698144
520.843	0	8699854
530.115	0	8701394
540.417	0	8703068
550.72	0	8704608
561.023	0	8706230
570.295	0	8707840
580.598	0	8709778
590.901	0	8711730
600.174	0	8713668
610.478	0	8715850
620.781	0	8718084
630.054	0	8720078
640.358	0	8722306
650.661	0	8724648
660.964	0	8727030
670.237	0	8729096
680.54	0	8731524
690.844	0	8733860
700.117	0	8735870
710.42	0	8738174
720.723	0	8740362
731.026	0	8742552
740.299	0	8744670
750.602	0	8747180
760.905	0	8749708
770.178	0	8752092
780.481	0	8754496
790.784	0	8757150
800.056	0	8759488
810.359	0	8762304
820.622	0	8764792
830.867	0	8767484
840.083	0	8769740
850.321	0	8772446
860.536	0	8775182
870.75	0	8777874
880.96	0	8780452
890.143	0	8782930
900.346	0	8785810
910.55	0	8788706
920.754	0	8791502
930.956	0	8794354
940.138	0	8796950
950.34	0	8799684
960.54	0	8802398
970.737	0	8805052
980.934	0	8807626
990.111	0	8809976
1000.31	0	8812606
1010.51	0	8815306
1020.7	0	8817988
1030.88	0	8820898
1040.04	0	8823458
1050.22	0	8826522
1060.4	0	8829390
1070.58	0	8832454
1080.75	0	8835464
1090.93	0	8838284
1100.09	0	8840748
1110.27	0	8843196
1120.45	0	8845652
1130.63	0	8848020
1140.8	0	8850372
1150.98	0	8852520
1160.14	0	8854276
1170.32	0	8856034
1180.5	0	8857878
1190.67	0	8859846
1200.84	0	8862050
1211.01	0	8864272
1220.17	0	8866434
1230.34	0	8868630
1240.51	0	8870792
1250.68	0	8872734
1260.85	0	8874824
1270	0	8876380
1280.17	0	8877900
1290.34	0	8879276
1300.51	0	8880714
1310.69	0	8882024
1320.86	0	8883104
1330.01	0	8884426
1340.18	0	8885938
1350.35	0	8887282
1360.52	0	8888698
1370.69	0	8890240
1380.86	0	8891906
1390.01	0	8893566
1400.18	0	8895288
1410.35	0	8897044
1420.52	0	8898820
1430.7	0	8900682
1440.87	0	8902526
1450.02	0	8904102
1460.19	0	8905846
1470.36	0	8907468
1480.53	0	8909412
1490.71	0	8911060
1500.93	0	8912770
1510.19	0	8914152
1520.54	0	8915854
1531.03	0	8917600
1540.61	0	8918932
1550.27	0	8920420
1561.04	0	8921918
1570.74	0	8923408
1580.44	0	8924648
1590.13	0	8925648
1600.91	0	8926716
1610.61	0	8927888
1620.31	0	8928934
1630.01	0	8930044
1640.78	0	8931200
1650.48	0	8931838
1660.18	0	8932462
1670.96	0	8933248
1680.66	0	8933608
1690.35	0	8934192
1700.05	0	8934706
1710.83	0	8935506
1720.56	0	8936194
1730.37	0	8936794
1740.46	0	8937538
1750.57	0	8938192
1760.73	0	8938822
1770.9	0	8939302
1781.06	0	8939790
1790.11	0	8940168
1800.3	0	8940408
1810.49	0	8940756
1820.7	0	8941148
1830.91	0	8941506
1840.02	0	8941692
1850.34	0	8942090
1860.68	0	8942522
1871.02	0	8942962
1880.21	0	8943586
1890.54	0	8944008
1900.88	0	8944586
1910.07	0	8945170
1920.41	0	8945928
1930.75	0	8946514
1941.1	0	8946978
1950.29	0	8947550
1960.63	0	8948174
1970.98	0	8948640
1980.17	0	8948994
1990.51	0	8949314
2000.86	0	8949692
2010.05	0	8950070
2020.39	0	8950528
2030.74	0	8950810
2041.08	0	8951240
2050.28	0	8951698
2060.62	0	8952288
2070.96	0	8952816
2080.16	0	8953420
2090.5	0	8954162
2100.84	0	8954956
2110.03	0	8955654
2120.35	0	8956438
2130.67	0	8956994
2140.98	0	8957538
2150.14	0	8958020
2160.45	0	8958644
2170.76	0	8959232
2181.06	0	8960016
2190.23	0	8960510
2200.53	0	8961140
2210.84	0	8961558
2220	0	8962102
2230.31	0	8962584
2240.62	0	8963118
2250.92	-3.63798e-12	8963514
2260.08	-9.09495e-12	8964062
2270.37	-1.72804e-11	8964528
2280.66	-2.36469e-11	8965100
2290.94	-3.09228e-11	8965658
2300.08	-3.72893e-11	8966156
2310.37	-5.00222e-11	8966826
2320.65	-7.54881e-11	8967464
2330.93	-1.30058e-10	8967762
2340.07	-2.23736e-10	8968356
2350.36	-4.311e-10	8968790
2360.64	-8.34007e-10	8969520
2370.91	-1.60708e-09	8970028
2380.01	-2.84581e-09	8970730
2390.25	-5.34055e-09	8971384
2400.48	-9.86711e-09	8972192
2410.71	-1.79371e-08	8972736
2420.94	-3.20915e-08	8973540
2430.03	-5.31072e-08	8974056
2440.25	-9.22109e-08	8974848
2450.48	-1.57631e-07	8975596
2460.71	-2.65344e-07	8976220
2470.93	-4.39923e-07	8976568
2480.02	-6.809e-07	8976964
2490.25	-1.09759e-06	8977618
2500.47	-1.74369e-06	8977880
2510.7	-2.73064e-06	8978214
2520.93	-4.21616e-06	8978426
2530.02	-6.13096e-06	8978758
2540.24	-9.22223e-06	8978894
2550.47	-1.36858e-05	8979006
2560.69	-2.00412e-05	8979178
2570.92	-2.89659e-05	8979438
2580.01	-3.97535e-05	8979686
2590.23	-5.60846e-05	8980354
2600.46	-7.81427e-05	8980962
2610.68	-0.000107548	8981508
2620.91	-0.000146243	8982320
2631.13	-0.000196517	8983034
2640.22	-0.000253059	8983866
2650.46	-0.000332791	8984690
2660.69	-0.000432761	8985580
2670.93	-0.000556589	8986672
2680.02	-0.00068982	8987540
2690.26	-0.000869445	8988618
2700.49	-0.00108454	8989730
2710.72	-0.00133921	8990940
2720.96	-0.0016374	8992156
2730.05	-0.00194197	8993190
2740.29	-0.00233202	8994328
2750.52	-0.00277489	8995366
2760.75	-0.00327266	8996714
2770.99	-0.00382662	8997870
2780.08	-0.0043666	8998892
2790.32	-0.00502727	8999898
2800.55	-0.0057431	9000962
2810.79	-0.00651245	9002166
2821.04	-0.00733299	9003164
2830.15	-0.00810186	9004234
2840.39	-0.00900759	9005356
2850.64	-0.00995213	9006222
2860.89	-0.0109307	9006846
2870	-0.011825	9007330
2880.25	-0.0128541	9008042
2890.5	-0.0139027	9008842
2900.75	-0.0149658	9009682
2910.98	-0.016038	9010488
2920.08	-0.0169955	9010994
2930.32	-0.0180744	9011818
2940.55	-0.0191514	9012476
2950.78	-0.0202228	9013256
2961.02	-0.0212851	9013910
2970.12	-0.0222192	9014344
2980.35	-0.0232556	9014912
2990.59	-0.0242738	9015476
3000.82	-0.0252708	9015990
3011.06	-0.0262434	9016558
3020.15	-0.027085	9017050
3030.39	-0.0280032	9017510
3040.62	-0.0288877	9017982
3050.86	-0.0297351	9018552
3061.1	-0.0305413	9019082
3070.19	-0.03122	9019654
3080.43	-0.0319365	9020102
3090.67	-0.0325978	9020600
3100.9	-0.0331976	9021068
3111.14	-0.0337283	9021568
3120.24	-0.034135	9022052
3130.47	-0.0345096	9022472
3140.71	-0.0347845	9022900
3150.94	-0.0349446	9023350
3160.04	-0.0349763	9023774
3170.28	-0.0348685	9024336
3180.51	-0.0345853	9024826
3190.75	-0.0340979	9025414
3200.99	-0.0333734	9025908
3210.08	-0.0324994	9026378
3220.32	-0.0312186	9026922
3230.56	-0.0295762	9027366
3240.79	-0.0275189	9027942
3251.03	-0.0249882	9028708
3260.13	-0.0222905	9029516
3270.36	-0.0186905	9030304
3280.6	-0.0144253	9031274
3290.83	-0.00942348	9032302
3301.07	-0.00361391	9033476
3310.17	0.00228451	9034586
3320.4	0.00980661	9035674
3330.66	0.0183394	9036692
3340.93	0.0279435	9037970
3350.07	0.0374106	9039048
3360.36	0.0491243	9040256
3370.64	0.0619726	9041262
3380.92	0.0759585	9042216
3390.05	0.0893345	9043044
3400.33	0.10541	9044114
3410.57	0.122481	9044870
3420.79	0.1405	9045438
3431	0.159424	9046126
3440.07	0.176964	9046838
3450.28	0.197448	9047460
3460.49	0.218677	9047970
3470.71	0.240603	9048320
3480.92	0.263187	9048792
3491.13	0.286432	9049562
3500.2	0.30768	9050122
3510.41	0.332922	9050688
3520.63	0.365496	9051354
3530.84	0.393311	9052078
3541.05	0.415459	9052770
3550.12	0.435713	9053164
3560.34	0.45614	9053970
3570.55	0.475121	9054724
3580.76	0.494229	9055430
3590.97	0.511754	9056114
3600.05	0.527214	9056728
3610.26	0.544285	9057608
3620.47	0.560493	9058602
3630.68	0.576369	9059390
3640.89	0.591269	9060206
3651.1	0.60542	9061054
3660.18	0.617315	9061600
3670.39	0.629539	9062278
3680.6	0.640676	9062630
3690.81	0.650631	9063434
3701.02	0.658388	9063966
3710.1	0.663329	9064560
3720.31	0.666814	9065084
3730.52	0.667883	9065622
3740.74	0.667709	9066372
3750.96	0.665852	9067240
3760.05	0.663149	9067878
3770.28	0.658836	9068804
3780.51	0.653175	9069528
3790.73	0.646106	9070242
3800.96	0.637553	9071072
3810.05	0.628736	9072034
3820.27	0.617458	9073002
3830.5	0.604763	9073846
3840.73	0.590666	9074900
3850.94	0.575219	9075992
3861.11	0.558521	9076718
3870.14	0.542624	9077692
3880.29	0.523574	9078514
3890.44	0.503342	9079608
3900.59	0.481981	9080512
3910.75	0.45958	9081324
3920.9	0.436769	9082072
3931.05	0.402146	9082924
3940.07	0.366037	9083748
3950.23	0.331224	9084930
3960.38	0.29662	9085858
3970.53	0.263232	9086846
3980.68	0.231772	9088080
3990.83	0.200252	9089310
4000.99	0.170737	9090338
4010.01	0.144754	9091154
4020.16	0.116667	9092080
4030.31	0.0896014	9093020
4040.47	0.0632039	9093964
4050.62	0.0377911	9094684
4060.77	0.012867	9095610
4070.92	-0.0114219	9096604
4081.07	-0.0353299	9097538
4090.1	-0.0562161	9098356
4100.25	-0.0793082	9098930
4110.4	-0.102095	9099766
4120.55	-0.12451	9100466
4130.71	-0.146648	9101246
4140.86	-0.16849	9101818
4151.03	-0.190003	9102352
4160.07	-0.208838	9103244
4170.29	-0.229701	9103972
4180.52	-0.250146	9104776
4190.75	-0.270128	9105629
4201	-0.289626	9106623
4210.11	-0.306491	9107440
4220.35	-0.324884	9108318
4230.6	-0.342606	9108929
4240.85	-0.35957	9109705
4251.09	-0.37566	9110183
4260.21	-0.389113	9110751
4270.47	-0.403137	9111363
4280.72	-0.415768	9111857
4290.97	-0.426613	9112325
4300.05	-0.435464	9112789
4310.27	-0.441945	9113263
4320.49	-0.44667	9113564
4330.7	-0.446089	9113803
4340.79	-0.445246	9114457
4350.87	-0.442941	9114919
4360.96	-0.439085	9115559
4371.05	-0.433823	9116032
4380.02	-0.427965	9116556
4390.11	-0.420105	9117212
4400.2	-0.410905	9117806
4410.29	-0.400467	9118513
4420.38	-0.388863	9119241
4430.47	-0.376165	9120015
4440.56	-0.36245	9120731
4450.65	-0.347799	9121631
4460.74	-0.332297	9122327
4470.82	-0.316021	9123349
4480.91	-0.29905	9124099
4491	-0.281471	9124813
4501.08	-0.26338	9125857
4510.08	-0.246904	9126618
4520.33	-0.227862	9127566
4530.49	-0.208859	9128531
4540.57	-0.190024	9129407
4550.66	-0.171418	9130201
4560.75	-0.153245	9131323
4570.84	-0.13571	9132273
4580.93	-0.119007	9133061
4591.02	-0.103302	9133789
4601.1	-0.0887219	9134391
4610.07	-0.076773	9134970
4620.16	-0.0644965	9135381
4630.26	-0.0534402	9135593
4640.35	-0.043549	9135563
4650.44	-0.0347355	9135937
4660.53	-0.0268912	9136207
4670.62	-0.0198948	9136451
4680.72	-0.0136222	9136864
4690.81	-0.00795345	9137174
4700.9	-0.00278018	9137644
4710.99	0.00199113	9138036
4721.08	0.00643728	9138244
4730.06	0.0101655	9138496
4740.15	0.0141493	9138950
4750.24	0.017942	9139199
4760.33	0.0215655	9139167
4770.42	0.0250322	9139313
4780.51	0.0283462	9139621
4790.68	0.0315288	9139781
4800.96	0.0345787	9139769
4810.11	0.0371417	9140265
4820.41	0.0398414	9140653
4830.7	0.0423317	9141391
4840.99	0.0445972	9141667
4850.14	0.0464106	9142033
4860.44	0.0482131	9142532
4870.73	0.0497522	9143138
4881.02	0.0510173	9143892
4890.18	0.0519047	9144296
4900.48	0.0526297	9144812
4910.55	0.0530525	9145138
4920.62	0.0531888	9145874
4930.68	0.0530363	9146480
4940.74	0.0525933	9146830
4950.8	0.0518589	9147470
4960.86	0.0508341	9147788
4970.92	0.0495218	9148476
4980.98	0.0479276	9149075
4991.04	0.0460597	9149501
5001.1	0.0439286	9149979
5010.05	0.0418243	9150509
5020.11	0.0392352	9151057
5030.17	0.0364291	9151717
5040.23	0.033427	9152339
5050.29	0.0302523	9152989
5060.35	0.0269307	9153511
5070.41	0.0234895	9154533
5080.47	0.0199577	9155167
5090.53	0.0163653	9155775
5100.6	0.0127427	9156579
5110.66	0.00912062	9157090
5120.72	0.00552899	9157682
5130.78	0.00199667	9158222
5140.84	-0.00144902	9158448
5150.9	-0.00478273	9158574
5160.96	-0.00798133	9158866
5171.02	-0.0110243	9159028
5181.09	-0.0138938	9159170
5190.03	-0.0162872	9159414
5200.09	-0.0187924	9159676
5210.15	-0.0210921	9159672
5220.22	-0.0231833	9159642
5230.49	-0.0251015	9159892
5240.79	-0.0268097	9160150
5251.11	-0.0283128	9160165
5260.28	-0.0294843	9160339
5270.59	-0.0306311	9160535
5280.91	-0.031614	9160719
5290.08	-0.0323662	9161048
5300.39	-0.0330954	9161240
5310.71	-0.0337222	9161132
5321.02	-0.034269	9161347
5330.19	-0.0347057	9161445
5340.51	-0.0351607	9161189
5350.85	-0.0355966	9161097
5360.05	-0.0359814	9160719
5370.39	-0.0364248	9160358
5380.74	-0.0368912	9159977
5391.08	-0.0373902	9159529
5400.28	-0.0378662	9159121
5410.62	-0.0384414	9158881
5420.96	-0.0390594	9158751
5430.16	-0.0396436	9158481
5440.5	-0.0403366	9158251
5450.85	-0.0410626	9157921
5460.04	-0.0417302	9157793
5470.39	-0.0424996	9157261
5480.73	-0.0432806	9157034
5491.07	-0.0440647	9156577
5500.27	-0.0447572	9156015
5510.61	-0.0455235	9155847
5520.96	-0.0462683	9155709
5530.15	-0.046906	9155673
5540.5	-0.0475893	9155997
5550.84	-0.0482303	9156167
5560.04	-0.0487601	9156479
5570.38	-0.0493057	9156845
5580.69	-0.0497945	9157062
5591.01	-0.0502253	9157170
5600.18	-0.0505585	9157455
5610.49	-0.0508776	9157319
5620.81	-0.0511392	9157625
5631.12	-0.0513462	9158041
5640.29	-0.051488	9158503
5650.61	-0.0516052	9159011
5660.92	-0.0516844	9159454
5670.09	-0.0517296	9159837
5680.41	-0.051761	9160067
5690.72	-0.0517819	9160389
5701.04	-0.0518042	9160801
5710.21	-0.0518353	9161143
5720.53	-0.0518947	9161725
5730.84	-0.0519928	9162259
5740.01	-0.0521231	9162563
5750.33	-0.0523298	9162843
5760.64	-0.0526116	9162836
5770.96	-0.0529796	9163029
5780.13	-0.0533872	9163227
5790.45	-0.0539441	9163381
5800.76	-0.0546123	9163535
5811.08	-0.0553981	9164111
5820.25	-0.0561992	9164653
5830.56	-0.0572194	9165427
5840.94	-0.0583747	9165863
5850.18	-0.059515	9166233
5860.59	-0.060923	9166787
5870.99	-0.0624626	9167155
5880.23	-0.0639401	9167486
5890.64	-0.0657217	9167966
5901.04	-0.0676254	9168240
5910.29	-0.0694148	9168490
5920.69	-0.0715302	9168792
5931.09	-0.0737444	9169086
5940.34	-0.0757865	9169378
5950.74	-0.0781547	9169828
5961.15	-0.0805863	9170328
5970.41	-0.0827861	9170686
5980.83	-0.085287	9170964
5990.09	-0.0875185	9171415
6000.5	-0.0900204	9171679
6010.92	-0.0924934	9172177
6020.18	-0.0946506	9172175
6030.61	-0.0970153	9172563
6041.03	-0.0992903	9172445
6050.29	-0.101222	9172463
6060.72	-0.103276	9171899
6071.14	-0.105186	9171571
6080.41	-0.10675	9171271
6090.83	-0.108346	9171139
6100.09	-0.109608	9170967
6110.52	-0.11084	9171361
6120.94	-0.111865	9171571
6130.2	-0.112595	9171625
6140.63	-0.113207	9171753
6151.05	-0.113591	9171923
6160.31	-0.11374	9172347
6170.7	-0.113688	9172737
6181.08	-0.113405	9172851
6190.28	-0.11296	9173093
6200.63	-0.112244	9173363
6210.97	-0.111301	9173567
6220.15	-0.110276	9174025
6230.47	-0.108916	9174595
6240.77	-0.107341	9175227
6251.06	-0.105559	9175913
6260.19	-0.103805	9176289
6270.46	-0.101645	9176889
6280.73	-0.0992923	9177333
6291	-0.0967561	9177717
6300.11	-0.0943568	9178345
6310.34	-0.091509	9178779
6320.56	-0.0885056	9178888
6330.77	-0.0853576	9179178
6340.98	-0.0820753	9179464
6350.05	-0.0790559	9179538
6360.24	-0.0755563	9179720
6370.43	-0.0719575	9179976
6380.59	-0.0682746	9180154
6390.75	-0.0645199	9180680
6400.9	-0.060701	9181006
6411.05	-0.0568285	9180974
6420.07	-0.0533502	9180989
6430.22	-0.0494067	9180933
6440.37	-0.045441	9180939
6450.52	-0.0414631	9181161
6460.66	-0.0374821	9181307
6470.81	-0.0335073	9181810
6480.95	-0.0295488	9182052
6491.08	-0.0256125	9182400
6500.09	-0.0221353	9183005
6510.23	-0.0182529	9183183
6520.36	-0.0144061	9183498
6530.49	-0.0105988	9183754
6540.63	-0.00683452	9184128
6550.76	-0.00311588	9184274
6560.89	0.000554889	9184535
6571.02	0.00417606	9185049
6580.03	0.00735221	9185139
6590.16	0.0108765	9185561
6600.3	0.0143485	9185797
6610.43	0.0177678	9186041
6620.56	0.0211342	9186471
6630.74	0.0244628	9187119
6640.93	0.027741	9187435
6651.11	0.0309636	9187837
6660.15	0.0337805	9188306
6670.31	0.0368927	9188909
6680.46	0.0399503	9188999
6690.62	0.0429521	9189383
6700.77	0.0458969	9189577
6710.93	0.0487825	9189845
6721.08	0.0516068	9190213
6730.11	0.0540635	9190375
6740.27	0.0567636	9190697
6750.42	0.0593915	9191001
6760.56	0.0619425	9191277
6770.69	0.0644116	9191595
6780.82	0.0667963	9191945
6790.96	0.0690914	9192209
6801.09	0.0712918	9192355
6810.1	0.0731636	9192487
6820.23	0.0751699	9192485
6830.37	0.0770659	9192541
6840.5	0.0788466	9192281
6850.63	0.0805073	9192145
6860.77	0.0820439	9191727
6870.9	0.0834524	9191335
6881.04	0.0847296	9190899
6890.04	0.0857522	9190565
6900.18	0.0867737	9190393
6910.31	0.0876563	9190371
6920.45	0.088398	9190363
6930.58	0.0889969	9190719
6940.72	0.0894511	9190735
6950.85	0.0897586	9191103
6960.99	0.0899171	9191457
6971.12	0.0899244	9191933
6980.13	0.0898017	9192563
6990.26	0.0895159	9193123
7000.4	0.0890706	9193701
7010.53	0.0884625	9194205
7020.67	0.0876885	9194803
7030.8	0.0867454	9194981
7040.96	0.0856274	9195157
7050.02	0.0844824	9195283
7060.23	0.0830239	9195437
7070.44	0.0813841	9195632
7080.66	0.0795639	9195892
7090.88	0.0775642	9196456
7101.12	0.0753838	9196596
7110.27	0.0732907	9197022
7120.63	0.0707557	9197314
7131.02	0.0680505	9197754
7140.26	0.065515	9198208
7150.65	0.0625256	9198311
7161.03	0.0594058	9198455
7170.26	0.0565355	9198613
7180.61	0.0532172	9199023
7190.96	0.0498143	9199287
7200.16	0.0467324	9199643
7210.51	0.0432184	9199997
7220.86	0.0396739	9200595
7230.06	0.0365138	9200969
7240.4	0.0329665	9201597
7250.75	0.0294469	9202464
7261.1	0.0259747	9203533
7270.3	0.0229438	9204300
7280.65	0.019615	9205015
7290.99	0.0163865	9205733
7300.19	0.0136141	9206217
7310.53	0.0106179	9206809
7320.87	0.00776459	9207457
7330.07	0.00535768	9207851
7340.41	0.0028045	9208369
7350.75	0.000422948	9208767
7361.09	-0.00178048	9208983
7370.29	-0.00358566	9208991
7380.63	-0.005441	9208959
7390.97	-0.00710913	9208995
7400.18	-0.0084354	9208736
7410.58	-0.00975619	9208303
7420.98	-0.0108901	9207951
7430.22	-0.0117437	9207645
7440.62	-0.0125329	9207497
7451	-0.0131448	9207081
7460.19	-0.0135433	9206321
7470.49	-0.0138349	9205779
7480.76	-0.0139672	9205279
7491.02	-0.0139463	9204729
7500.15	-0.0138035	9204445
7510.42	-0.0135078	9204007
7520.69	-0.0130743	9203495
7530.96	-0.0125085	9203116
7540.09	-0.0118991	9202784
7550.35	-0.0110991	9202524
7560.62	-0.0101838	9202400
7570.89	-0.00915962	9202280
7580.02	-0.00816319	9202048
7590.29	-0.0069518	9201957
7600.56	-0.00565182	9201777
7610.83	-0.00427139	9201766
7621.06	-0.00282313	9201718
7630.13	-0.00148581	9201534
7640.3	6.50381e-05	9201736
7650.44	0.0016569	9201658
7660.56	0.0032819	9201844
7670.68	0.00493315	9201820
7680.8	0.00660058	9201904
7690.92	0.00827376	9201858
7701.04	0.00994198	9202156
7710.03	0.0114119	9202190
7720.15	0.0130408	9202250
7730.27	0.014633	9202050
7740.38	0.0161773	9201740
7750.5	0.017663	9201280
7760.62	0.0190796	9200586
7770.74	0.0204171	9199856
7780.85	0.021666	9199548
7790.97	0.0228179	9198884
7801.09	0.023865	9198355
7810.08	0.0247023	9197765
7820.2	0.0255347	9197090
7830.35	0.0262474	9196809
7840.5	0.0268354	9196450
7850.63	0.027295	9196034
7860.75	0.0276272	9195848
7870.86	0.0278328	9195630
7880.98	0.0279137	9195266
7891.1	0.0278729	9194810
7900.09	0.0277376	9194580
7910.21	0.027479	9194514
7920.33	0.0271135	9194314
7930.44	0.0266483	9194324
7940.56	0.0260917	9194360
7950.68	0.0254526	9194468
7960.8	0.0247407	9194492
7970.92	0.0239666	9194599
7981.02	0.023143	9194701
7990.96	0.0222939	9194569
8000.87	0.021421	9194621
8010.78	0.0205333	9194577
8020.69	0.0196428	9194524
8030.6	0.0187615	9194470
8040.51	0.0179014	9194205
8050.41	0.0170739	9193919
8060.31	0.0162901	9193997
8070.22	0.0155609	9193827
8080.12	0.0148964	9193851
8090.03	0.0143061	9194060
8101.03	0.0137472	9193963
8110.93	0.0133394	9194043
8120.84	0.013028	9194252
8130.74	0.0128177	9194297
8140.65	0.0127115	9194453
8150.55	0.012711	9194670
8160.45	0.0128164	9194749
8170.36	0.0130263	9194805
8180.26	0.0133376	9194696
8190.17	0.0137459	9194912
8200.07	0.0142454	9195152
8211.1	0.0149005	9195547
8220.04	0.0154999	9195813
8230.11	0.0162398	9196170
8240.2	0.01704	9196400
8250.32	0.0178899	9196750
8260.44	0.0187755	9197040
8270.56	0.0196849	9197445
8280.68	0.0206058	9197993
8290.79	0.0215262	9198363
8300.91	0.0224344	9198653
8311.03	0.023319	9198881
8320.03	0.0240769	9199121
8330.15	0.024888	9199549
8340.27	0.0256462	9199767
8350.39	0.0263425	9200035
8360.51	0.0269688	9200285
8370.63	0.0275178	9200629
8380.75	0.0279829	9200898
8390.87	0.0283581	9200650
8400.99	0.0286382	9200614
8411.11	0.0288186	9200353
8420.1	0.0288921	9200164
8430.22	0.0288739	9199876
8440.34	0.0287461	9199430
8450.46	0.0285065	9199150
8460.58	0.028153	9198741
8470.73	0.0276829	9198351
8480.95	0.0270922	9197793
8490.06	0.026465	9197370
8500.32	0.0256453	9196870
8510.58	0.0247055	9196467
8520.85	0.0236463	9195967
8531.11	0.0224684	9195666
8540.24	0.0213226	9195514
8550.5	0.0199233	9195408
8560.76	0.0184085	9195409
8571.03	0.0167797	9195179
8580.15	0.0152371	9194907
8590.41	0.0133966	9194509
8600.68	0.0114461	9194326
8610.94	0.00938715	9193670
8620.06	0.00746715	9193378
8630.33	0.00520753	9192906
8640.59	0.00284403	9192703
8650.85	0.000378399	9192258
8661.09	-0.00218089	9191704
8670.19	-0.00453704	9191366
8680.42	-0.00727767	9190946
8690.66	-0.010111	9190330
8700.89	-0.0130334	9189814
8711.12	-0.0160418	9189194
8720.22	-0.0187848	9188650
8730.45	-0.0219443	9187934
8740.68	-0.0251767	9187221
8750.91	-0.0284764	9186555
8760.01	-0.0314607	9186126
8770.24	-0.0348693	9185438
8780.47	-0.0383248	9184671
8790.7	-0.0418186	9183879
8800.93	-0.0453414	9183269
8810.04	-0.0484921	9182703
8820.26	-0.0520391	9182316
8830.47	-0.0555803	9181734
8840.68	-0.0591073	9181276
8850.89	-0.0626081	9180934
8861.1	-0.0660698	9180854
8870.17	-0.0691034	9181066
8880.38	-0.0724551	9181146
8890.59	-0.0757293	9181320
8900.8	-0.0789124	9181417
8911.01	-0.0819914	9181308
8920.08	-0.0846306	9181226
8930.29	-0.0874787	9180840
8940.5	-0.0901876	9180532
8950.71	-0.0927461	9179975
8960.91	-0.095145	9179659
8971.11	-0.097375	9179190
8980.17	-0.0992084	9178527
8990.36	-0.1011	9177836
9000.54	-0.102803	9177457
9010.66	-0.10431	9177303
9020.77	-0.105627	9177217
9030.88	-0.106753	9177149
9040.99	-0.10769	9176655
9051.1	-0.108438	9176321
9060.09	-0.108946	9175965
9070.2	-0.109344	9175558
9080.3	-0.109562	9175283
9090.41	-0.109605	9174747
9100.52	-0.109477	9174543
9110.63	-0.109185	9174405
9120.74	-0.108734	9173989
9130.85	-0.108129	9173838
9140.95	-0.107379	9173390
9151.06	-0.106487	9172913
9160.05	-0.105581	9172561
9170.19	-0.104438	9171815
9180.33	-0.103169	9171304
9190.49	-0.101781	9171220
9200.65	-0.100278	9171042
9210.82	-0.0986669	9171004
9220.94	-0.096959	9170923
9231.05	-0.0951561	9170841
9240.04	-0.0934758	9170835
9250.14	-0.0915017	9171063
9260.25	-0.0894432	9171245
9270.36	-0.0873048	9171381
9280.47	-0.0850914	9171471
9290.58	-0.0828077	9171413
9300.69	-0.0804588	9171305
9310.8	-0.0780504	9171093
9320.91	-0.0755883	9171247
9331.02	-0.0730788	9171065
9340	-0.0708138	9170993
9350.11	-0.0682336	9171305
9360.22	-0.0656269	9171853
9370.33	-0.0630019	9172301
9380.44	-0.0603671	9173097
9390.55	-0.0577314	9173591
9400.66	-0.0551041	9174073
9410.77	-0.0524948	9174481
9420.88	-0.049913	9175437
9430.99	-0.0473686	9175891
9441.1	-0.0448713	9176626
9450.09	-0.0426988	9177202
9460.2	-0.0403167	9177552
9470.31	-0.0380089	9177852
9480.42	-0.0357843	9177932
9490.53	-0.0336512	9178238
9500.64	-0.0316173	9178668
9510.75	-0.0296899	9178998
9520.86	-0.0278749	9179170
9531	-0.0261745	9179290
9540.05	-0.0247614	9179394
9550.24	-0.0232923	9179574
9560.44	-0.021956	9179522
9570.63	-0.0207549	9179558
9580.82	-0.0196906	9180082
9591.01	-0.0187639	9180124
9600.07	-0.0180553	9180154
9610.26	-0.0173869	9180102
9620.45	-0.0168529	9180426
9630.64	-0.0164506	9180234
9640.84	-0.0161764	9180174
9651.03	-0.016026	9180024
9660.09	-0.0159924	9179990
9670.28	-0.0160618	9180284
9680.47	-0.016239	9180500
9690.66	-0.0165172	9180488
9700.85	-0.0168893	9180350
9711.04	-0.0173477	9180332
9720.1	-0.0178213	9180452
9730.29	-0.0184212	9180378
9740.48	-0.0190842	9180140
9750.68	-0.019802	9179929
9760.87	-0.0205661	9179799
9771.06	-0.0213683	9179641
9780.12	-0.0221068	9179353
9790.31	-0.0229587	9179294
9800.5	-0.0238256	9179288
9810.69	-0.0246997	9179010
9820.88	-0.0255738	9178976
9831.08	-0.0264406	9178973
9840.14	-0.0271997	9179086
9850.33	-0.0280346	9179170
9860.52	-0.0288435	9179366
9870.71	-0.0296201	9179240
9880.9	-0.0303586	9179301
9891.1	-0.0310536	9179419
9900.16	-0.0316303	9179373
9910.35	-0.0322281	9179517
9920.54	-0.0327671	9179832
9930.73	-0.0332424	9179986
9940.92	-0.033649	9179938
9951.11	-0.0339824	9180194
9960.15	-0.0342132	9180340
9970.3	-0.0343958	9180038
9980.43	-0.0344935	9179649
9990.57	-0.034503	9179059
10000.7	-0.0344207	9178503
10010.8	-0.0342437	9178034
10021	-0.0339695	9177276
10031.1	-0.0335962	9176895
10040.1	-0.0331801	9176591
10050.3	-0.0326166	9176292
10060.4	-0.0319521	9175576
10070.5	-0.0311877	9175587
10080.7	-0.030325	9175609
10090.8	-0.0293668	9175514
10100.9	-0.0283168	9175098
10111.1	-0.0271795	9175134
10120.1	-0.0260997	9175405
10130.2	-0.0248131	9175424
10140.4	-0.0234574	9175666
10150.5	-0.0220403	9175736
10160.6	-0.0205702	9175765
10170.8	-0.019056	9176104
10180.9	-0.0175069	9176666
10191.1	-0.0159324	9176766
10200.1	-0.0145153	9177064
10210.3	-0.012912	9177450
10220.5	-0.0113107	9177799
10230.6	-0.00972066	9177975
10240.8	-0.00815066	9178121
10251	-0.00660894	9178211
10260	-0.00526917	9178697
10270.2	-0.00380213	9179086
10280.4	-0.00238279	9179335
10290.6	-0.00101584	9179448
10300.7	0.000294525	9179859
10310.9	0.00154498	9180352
10321.1	0.00273305	9181033
10330.1	0.00373538	9181648
10340.3	0.0048017	9182468
10350.4	0.00580284	9182966
10360.6	0.00673913	9183620
10370.8	0.00761141	9184114
10380.9	0.00842098	9184685
10391.1	0.00916947	9185135
10400.1	0.00978506	9185547
10410.3	0.0104235	9185955
10420.5	0.0110066	9186302
10430.6	0.0115367	9186641
10440.8	0.0120157	9186830
10451	0.0124471	9187128
10460.1	0.0127902	9187593
10470.3	0.0131322	9187511
10480.5	0.0134287	9187703
10490.7	0.0136803	9187628
10500.9	0.0138874	9187716
10510	0.0140341	9187795
10520.2	0.0141566	9187964
10530.4	0.0142332	9188140
10540.6	0.0142625	9187974
10550.8	0.0142427	9187553
10561	0.0141715	9187153
10570.1	0.0140628	9186659
10580.3	0.0138868	9186347
10590.5	0.0136505	9185897
10600.7	0.0133505	9185442
10610.9	0.0129829	9185264
10621.1	0.0125437	9185018
10630.1	0.0120901	9184582
10640.3	0.011505	9184356
10650.5	0.0108371	9184378
10660.7	0.0100829	9184330
10670.9	0.00923925	9184113
10681.1	0.00830331	9183673
10690.2	0.00739212	9183475
10700.4	0.00627618	9182863
10710.6	0.00506274	9182195
10720.8	0.00375161	9181781
10731	0.00234414	9181290
10740.1	0.00101362	9180695
10750.3	-0.000570139	9180075
10760.5	-0.00224231	9179443
10770.7	-0.00399679	9178364
10780.9	-0.00582834	9177348
10791.1	-0.00773084	9176544
10800.2	-0.00947535	9175540
10810.4	-0.0114901	9174402
10820.6	-0.0135511	9173035
10830.8	-0.0156478	9172075
10841	-0.0177694	9170955
10850.1	-0.0196667	9170141
10860.3	-0.0218031	9169041
10870.5	-0.0239295	9167829
10880.7	-0.0260333	9166805
10890.9	-0.0281017	9165999
10901.1	-0.030122	9164894
10910.1	-0.0318674	9163960
10920.3	-0.0337632	9162912
10930.5	-0.0355759	9161553
10940.7	-0.0372947	9160199
10950.9	-0.0389092	9159067
10961.1	-0.0404103	9157886
10970.2	-0.0416427	9156704
10980.4	-0.0429081	9155652
10990.6	-0.0440396	9154844
11000.8	-0.0450326	9153802
11011	-0.045884	9152974
11020.1	-0.0465207	9152562
11030.3	-0.0471018	9151772
11040.5	-0.0475409	9151033
11050.7	-0.0478405	9150287
11061	-0.0480042	9149850
11070.2	-0.0480386	9149242
11080.5	-0.0479586	9149322
11090.8	-0.0477607	9149313
11101.1	-0.0474544	9149208
11110.2	-0.0470994	9149151
11120.5	-0.0466172	9148661
11130.8	-0.0460586	9148057
11141.1	-0.045436	9147765
11150.3	-0.044839	9147343
11160.6	-0.0441298	9146921
11170.9	-0.043393	9146429
11180	-0.0427251	9145965
11190.3	-0.0419698	9145435
11200.6	-0.0412223	9144823
11210.9	-0.0404932	9144379
11221.1	-0.0397899	9143981
11230.2	-0.0391929	9143857
11240.5	-0.0385593	9144031
11250.7	-0.0379716	9143991
11260.9	-0.0374368	9143877
11271	-0.0369566	9143814
11280	-0.0365756	9143920
11290.1	-0.036198	9144366
11300.2	-0.0358725	9144873
11310.3	-0.0355966	9144947
11320.4	-0.0353669	9145229
11330.5	-0.0351788	9145445
11340.6	-0.0350269	9145563
11350.7	-0.0349051	9145599
11360.7	-0.0348065	9145818
11370.8	-0.0347238	9145642
11380.9	-0.0346493	9145395
11391	-0.0345755	9144993
11401.1	-0.0344945	9144699
11410.1	-0.0344106	9144448
11420.2	-0.0342962	9143954
11430.3	-0.0341539	9143658
11440.4	-0.0339774	9143196
11450.6	-0.0337603	9143074
11460.8	-0.0334979	9143299
11471	-0.0331869	9143457
11480.1	-0.0328673	9143359
11490.3	-0.0324571	9143281
11500.5	-0.0319923	9143343
11510.8	-0.0314724	9143375
11521	-0.030898	9143339
11530.1	-0.0303424	9143005
11540.3	-0.029668	9142203
11550.5	-0.0289428	9141643
11560.8	-0.0281692	9141545
11571	-0.027351	9141525
11580.1	-0.0265884	9141609
11590.4	-0.0256935	9141577
11600.6	-0.0247621	9141734
11610.9	-0.0237967	9141826
11621.1	-0.0227992	9141482
11630.2	-0.0218873	9141226
11640.5	-0.0208337	9140644
11650.7	-0.0197515	9139766
11661	-0.0186408	9139082
11670.1	-0.0176291	9138414
11680.3	-0.0164624	9137636
11690.6	-0.0152642	9136774
11700.8	-0.0140323	9136143
11711.1	-0.0127676	9135703
11720.1	-0.0116138	9135327
11730.3	-0.0102854	9135079
11740.3	-0.00891919	9135225
11750.4	-0.00751223	9135387
11760.4	-0.00606173	9135319
11770.4	-0.00456039	9135405
11780.4	-0.00300569	9135337
11790.5	-0.00139562	9135211
11800.5	0.000271368	9135045
11810.5	0.00199633	9135359
11820.5	0.00377977	9135361
11830.5	0.00562155	9135321
11840.5	0.00752091	9134911
11850.6	0.00947644	9134473
11860.6	0.011486	9133979
11870.6	0.0135469	9133291
11880.6	0.0156556	9132499
11890.6	0.0178094	9131907
11900.7	0.0200047	9131299
11910.7	0.02224	9130318
11920.8	0.0245034	9129745
11930.8	0.0267885	9128859
11940.9	0.029089	9127817
11951	0.0314005	9126531
11961.1	0.0337164	9125699
11970.1	0.0357759	9124645
11980.2	0.0380809	9124001
11990.4	0.0403692	9123251
12000.6	0.0426259	9122659
12010.8	0.0448417	9122191
12021	0.0470079	9121839
12031.1	0.0491123	9121347
12040.1	0.0509271	9120881
12050.3	0.0529002	9120555
12060.5	0.0547939	9120265
12070.6	0.0566013	9120117
12080.8	0.0583159	9120053
12090.9	0.0599322	9120149
12101.1	0.0614449	9120211
12110.1	0.0626991	9120191
12120.3	0.0640048	9120313
12130.4	0.0651963	9120767
12140.6	0.0662712	9121159
12150.7	0.0672274	9121595
12160.8	0.0680629	9121694
12170.9	0.06878	9121803
12181	0.0693805	9121605
12190	0.0698179	9121193
12200.1	0.0702036	9120717
12210.2	0.0704795	9120247
12220.3	0.0706494	9120200
12230.4	0.0707177	9120404
12240.5	0.0706892	9120285
12250.7	0.0705695	9120299
12260.8	0.0703645	9120369
12270.9	0.0700808	9120334
12281	0.0697252	9119870
12291.1	0.0693049	9119350
12300.1	0.068883	9118800
12310.2	0.0683612	9118534
12320.3	0.067797	9117984
12330.4	0.0671982	9117620
12340.5	0.066573	9117082
12350.6	0.0659291	9116312
12360.7	0.0652743	9116005
12370.8	0.064616	9115217
12380.9	0.063961	9114611
12391	0.0633148	9114261
12400.1	0.0627532	9113897
12410.2	0.0621418	9113287
12420.3	0.0615566	9112541
12430.5	0.0610016	9111707
12440.6	0.0604797	9110545
12450.8	0.059993	9109455
12461	0.0595415	9108576
12470.1	0.0591698	9107402
12480.3	0.0587845	9106270
12490.5	0.0584328	9105498
12500.7	0.0581114	9104982
12511	0.0578159	9104258
12520.1	0.0575708	9103738
12530.3	0.05731	9103259
12540.3	0.0570597	9103087
12550.4	0.0568117	9102845
12560.4	0.0565569	9102878
12570.4	0.0562868	9102732
12580.3	0.0559941	9102583
12590.2	0.0556724	9102419
12600.1	0.0553146	9102464
12611	0.0548645	9102261
12620.8	0.0544041	9102036
12630.6	0.0538845	9102106
12640.4	0.0533004	9102312
12650.2	0.052647	9102377
12660.1	0.0519205	9102471
12671	0.0510241	9102575
12680.8	0.0501353	9102487
12690.6	0.049168	9102280
12700.4	0.0481226	9101788
12710.2	0.0470007	9100764
12720	0.0458048	9099777
12730.9	0.0443934	9098494
12740.8	0.0430535	9097614
12750.6	0.0416532	9097004
12760.4	0.0401983	9096288
12770.2	0.0386953	9095610
12780	0.0371511	9094865
12790.9	0.0353929	9093777
12800.8	0.0337769	9092809
12810.7	0.0321354	9091619
12820.6	0.0304819	9090460
12830.6	0.0288257	9089392
12840.5	0.0271724	9088062
12850.5	0.0255247	9087140
12860.5	0.0238837	9086219
12870.6	0.022263	9085507
12880.7	0.0206741	9084685
12890.8	0.0191221	9084411
12900.8	0.0176119	9083925
12910.9	0.0161473	9083507
12921	0.0147306	9083069
12930	0.0135113	9082925
12940.2	0.012186	9082854
12950.4	0.0109155	9082850
12960.5	0.00970818	9082876
12970.6	0.00857189	9083015
12980.5	0.00749997	9083152
12990.5	0.00648728	9083473
13000.5	0.0055326	9083795
13010.5	0.00463584	9083857
13020.4	0.00379688	9083876
13030.4	0.00301555	9083957
13040.4	0.00229178	9084011
13050.3	0.00162557	9083699
13060.3	0.00101709	9083517
13070.3	0.000466844	9083136
13080.2	-2.0775e-05	9082758
13090	-0.000447894	9082546
13100.9	-0.000851889	9082338
13110.7	-0.00115173	9082484
13120.4	-0.00139065	9082438
13130.2	-0.00156702	9082516
13141	-0.00168745	9082378
13150.8	-0.00172576	9082308
13160.6	-0.00169564	9081899
13170.4	-0.00159509	9081660
13180.1	-0.00142217	9081288
13191	-0.00114291	9080810
13200.7	-0.000811327	9080418
13210.5	-0.000402209	9079914
13220.3	8.56082e-05	9079569
13230.1	0.000653025	9079023
13240.9	0.00137742	9078173
13250.7	0.00211674	9077417
13260.5	0.00293635	9076622
13270.3	0.00382886	9075861
13281	0.00490256	9074834
13290.7	0.00594267	9074014
13300.3	0.00705244	9073057
13311	0.00836367	9072167
13320.7	0.0096101	9071311
13330.3	0.010915	9070226
13341.1	0.0124275	9069004
13350.7	0.0138396	9068086
13360.3	0.0152937	9067090
13371.1	0.0169515	9066004
13380.7	0.0184741	9065154
13390.3	0.0200189	9064335
13401.1	0.0217525	9063579
13410.7	0.0233205	9063033
13420.4	0.024888	9062311
13431.1	0.0266201	9061437
13440.7	0.0281621	9060853
13450.4	0.0296801	9060200
13460	0.0311671	9059422
13470.7	0.0327763	9058574
13480.5	0.0341856	9057801
13490.3	0.035551	9057088
13500.2	0.0368623	9056304
13510.1	0.0381032	9055556
13521	0.0393905	9054463
13530.9	0.0404596	9053749
13540.8	0.0414375	9053049
13550.6	0.042319	9052023
13560.4	0.0431016	9051409
13570.2	0.0437812	9050791
13580.1	0.0443541	9050146
13591	0.0448616	9049470
13600.8	0.0451993	9049204
13610.7	0.0454222	9048730
13620.5	0.0455288	9048041
13630.3	0.045518	9047788
13640.1	0.0453894	9047089
13651.1	0.0451083	9046609
13660.9	0.0447317	9046432
13670.7	0.044239	9045984
13680.5	0.0436335	9045727
13690.3	0.042918	9045325
13700.1	0.0420934	9045000
13710.9	0.0410518	9044276
13720.7	0.0400044	9043903
13730.4	0.0388559	9043624
13740.2	0.0376094	9043546
13751	0.0361202	9043272
13760.7	0.0346897	9043076
13770.3	0.033183	9043086
13781	0.0314158	9043388
13790.6	0.0297437	9043342
13800.2	0.027998	9043468
13810.9	0.0259767	9043411
13820.5	0.0240881	9043301
13830.2	0.0221375	9043191
13840.8	0.0199022	9043155
13850.5	0.0178333	9042977
13860.1	0.0157143	9042753
13870.8	0.0133055	9042621
13880.4	0.0110929	9042339
13890	0.00884177	9042137
13900.7	0.00629999	9042209
13910.3	0.00397998	9041823
13921	0.00136617	9041243
13930.7	-0.00101832	9040590
13940.4	-0.00343233	9039806
13950.1	-0.00586541	9039154
13960.9	-0.00858272	9038284
13970.7	-0.0110408	9037358
13980.4	-0.0135086	9036544
13990.2	-0.0159756	9035940
14001	-0.0187109	9035085
14010.8	-0.021167	9034343
14020.6	-0.0236118	9033693
14030.4	-0.0260411	9032633
14040.3	-0.0284528	9031687
14050.1	-0.0308455	9030660
14060	-0.0332139	9029769
14071	-0.0358022	9028657
14080.9	-0.0380879	9027687
14090.8	-0.0403272	9026573
14100.7	-0.0425191	9025663
14110.7	-0.0446553	9024639
14120.7	-0.046738	9023625
14130.7	-0.0487599	9022697
14140.8	-0.0507203	9021944
14150.9	-0.0526107	9021036
14161.1	-0.0544222	9019991
14170.1	-0.0559492	9019013
14180.1	-0.0575729	9018000
14190.2	-0.0590973	9016900
14200.2	-0.0605221	9015611
14210.3	-0.0618443	9014649
14220.3	-0.063061	9013497
14230.4	-0.0641698	9012505
14240.4	-0.0651684	9011220
14250.5	-0.0660554	9010025
14260.5	-0.0668296	9008677
14270.6	-0.0674902	9007391
14280.6	-0.0680371	9006377
14290.7	-0.0684706	9005161
14300.7	-0.0687915	9003701
14310.8	-0.069001	9002431
14320.8	-0.0691009	9000681
14330.9	-0.0690933	8999470
14341	-0.06898	8998370
14350	-0.0687918	8997486
14360.2	-0.0684827	8996742
14370.5	-0.0680733	8996184
14380.8	-0.0675692	8995704
14391.1	-0.0669754	8995418
14400.2	-0.0663762	8995168
14410.5	-0.0656269	8994664
14420.7	-0.0648033	8994378
14431	-0.0639112	8994127
14440.2	-0.0630657	8993814
14450.4	-0.0620609	8993706
14460.7	-0.0610053	8993466
14471	-0.0599053	8993218
14480.1	-0.0588953	8993256
14490.4	-0.0577302	8993344
14500.6	-0.0565417	8993641
14510.8	-0.0553338	8993845
14521.1	-0.0541117	8993909
14530.1	-0.053018	8994114
14540.4	-0.0517844	8994274
14550.6	-0.0505525	8994392
14560.8	-0.0493272	8994456
14571.1	-0.0481133	8994290
14580.1	-0.0470474	8994348
14590.4	-0.0458668	8994322
14600.6	-0.0447093	8994376
14610.8	-0.0435785	8994286
14621.1	-0.0424748	8994224
14630.2	-0.0415176	8994260
14640.6	-0.0404678	8994243
14650.9	-0.039455	8994257
14660.1	-0.0385875	8993983
14670.4	-0.0376526	8993531
14680.7	-0.036758	8993125
14691	-0.0359041	8992605
14700.2	-0.0351794	8991804
14710.5	-0.0344025	8991234
14720.8	-0.0336659	8990714
14731.1	-0.0329687	8989733
14740.2	-0.0323814	8988851
14750.5	-0.031756	8988060
14760.8	-0.0311678	8987178
14771	-0.0306159	8986301
14780.1	-0.0301537	8985090
14790.2	-0.0296648	8983966
14800.4	-0.0292046	8983184
14810.5	-0.0287705	8982286
14820.6	-0.0283596	8981528
14830.7	-0.0279696	8980520
14840.8	-0.027598	8978885
14850.9	-0.0272424	8977233
14861	-0.0269002	8975547
14870	-0.0266051	8973713
14880.1	-0.026281	8971555
14890.2	-0.0259624	8969215
14900.4	-0.0256465	8966765
14910.5	-0.0253305	8964331
14920.7	-0.0250124	8961637
14930.8	-0.02469	8959317
14940.9	-0.0243606	8956780
14950.9	-0.0240217	8954591
14961	-0.0236698	8952392
14971.1	-0.0233028	8950306
14981.1	-0.0229182	8948022
14991.1	-0.0225154	8945803
15001.1	-0.0220901	8943670
15011.1	-0.0216402	8941778
15021.1	-0.0211637	8939970
15031	-0.0206586	8938313
15041	-0.0201232	8936441
15051	-0.0195541	8934352
15061.1	-0.0189505	8932356
15070	-0.0183816	8930821
15080.2	-0.0177024	8929104
15090.5	-0.0169784	8927201
15100.8	-0.0162111	8925124
15111.1	-0.0154006	8923129
15120.4	-0.0146464	8921267
15130.7	-0.0137607	8919308
15141.1	-0.0128355	8917573
15150.2	-0.011981	8916147
15160.6	-0.0109877	8914461
15170.8	-0.0099639	8912826
15181	-0.0089098	8911073
15190.1	-0.0079476	8909978
15200.3	-0.00683794	8908608
15210.4	-0.00570051	8907866
15220.6	-0.00453789	8906794
15230.8	-0.00335287	8905654
15241	-0.00214848	8904662
15250	-0.00106423	8903764
15260.2	0.000167928	8902801
15270.4	0.00140983	8901765
15280.6	0.00265793	8900680
15290.8	0.00390728	8899862
15300.9	0.0051525	8898846
15311	0.00639139	8897892
15320	0.00748252	8896986
15330.1	0.00869759	8896152
15340.2	0.00989779	8895402
15350.3	0.0110801	8894618
15360.4	0.0122414	8893848
15370.5	0.0133788	8893122
15380.5	0.0144893	8892386
15390.6	0.0155723	8891615
15400.9	0.0166354	8890623
15411.1	0.0176647	8889748
15420.3	0.0185532	8888820
15430.6	0.0195203	8887995
15441	0.0204474	8887242
15450.2	0.0212305	8886655
15460.5	0.0220602	8885889
15470.6	0.0228347	8884861
15480.7	0.0235605	8883973
15490.9	0.0242365	8883068
15501	0.0248611	8882453
15511.1	0.0254326	8881847
15520.1	0.0258943	8881225
15530.3	0.0263601	8880414
15540.4	0.0267671	8879607
15550.5	0.0271132	8879151
15560.8	0.0273989	8878569
15570.1	0.0275993	8877994
15580.5	0.0277572	8877351
15591.1	0.0278396	8876626
15600.5	0.0278454	8875946
15611.1	0.0277727	8874895
15620.5	0.0276349	8874192
15631.1	0.0273941	8873582
15640.6	0.0271011	8873021
15651.1	0.0266807	8872347
15660.5	0.0262241	8871807
15670.9	0.025616	8871090
15680.2	0.024989	8870240
15690.6	0.0241826	8869333
15701.1	0.0232662	8868360
15710.3	0.0223561	8867469
15720.7	0.0212224	8866575
15731.1	0.0199697	8865374
15740.4	0.0187546	8864118
15750.8	0.0172682	8862811
15760.2	0.0158329	8861853
15770.7	0.0140892	8860552
15780.1	0.0124314	8859170
15790.6	0.010448	8857847
15801.1	0.00833942	8856540
15810.4	0.00635959	8855114
15820.9	0.00401294	8853827
15830.2	0.00182122	8852673
15840.7	-0.000760812	8851584
15850	-0.00315509	8850501
15860.5	-0.00595722	8849522
15870.9	-0.00887118	8848496
15880.2	-0.0115523	8847640
15890.6	-0.0146711	8846788
15901	-0.0178948	8845783
15910.3	-0.0208445	8844906
15920.7	-0.0242534	8843648
15931.1	-0.0277654	8842371
15940.8	-0.0310897	8841447
15951	-0.0346763	8840637
15960	-0.0378895	8840043
15970.3	-0.041625	8839237
15980.6	-0.0454191	8838510
15990.9	-0.0492646	8837714
16001.1	-0.0531537	8836860
16010.1	-0.0565862	8836154
16020.4	-0.0605352	8835382
16030.7	-0.0645037	8834663
16041	-0.0684824	8833749
16051.3	-0.0724618	8832767
16060.3	-0.0759365	8832078
16070.6	-0.0798971	8831344
16080.9	-0.0838337	8830555
16091.2	-0.0877369	8829688
16100.2	-0.0911125	8828880
16110.6	-0.0949122	8827883
16120.9	-0.0986387	8826787
16131.2	-0.10228	8825992
16140.3	-0.105387	8825260
16150.6	-0.108838	8824563
16161	-0.112169	8824069
16170	-0.114976	8823429
16180.3	-0.118053	8822638
16190.7	-0.120977	8821826
16201	-0.123737	8820978
16210.1	-0.12601	8820069
16220.4	-0.128436	8819145
16230.7	-0.130672	8818180
16241.1	-0.132707	8817236
16250.1	-0.134309	8816311
16260.4	-0.135932	8815286
16270.7	-0.137331	8814180
16281	-0.138501	8813255
16291.3	-0.139435	8812260
16300.3	-0.140055	8811469
16310.6	-0.140535	8810394
16320.9	-0.140766	8809124
16331.2	-0.140746	8808196
16340.2	-0.140521	8807366
16350.5	-0.140025	8806402
16360.7	-0.139276	8805687
16371	-0.138273	8804791
16380	-0.137188	8804033
16390.3	-0.135713	8803396
16400.6	-0.133991	8802766
16410.9	-0.132024	8802189
16421.2	-0.129818	8801616
16430.2	-0.127696	8801113
16440.5	-0.125057	8800467
16450.8	-0.122195	8799875
16461.1	-0.119118	8799175
16470.1	-0.116254	8798661
16480.4	-0.112795	8798017
16490.8	-0.109121	8797511
16501.3	-0.105204	8796802
16510.6	-0.101616	8796175
16521.1	-0.0973603	8795461
16530.6	-0.0934335	8794812
16540.1	-0.0893472	8794112
16551.1	-0.0845344	8793286
16560.7	-0.0802226	8792562
16570.3	-0.075828	8791808
16581.2	-0.0707183	8790837
16590.8	-0.0661834	8790011
16600.4	-0.0616005	8789265
16611.3	-0.0563183	8788445
16620.9	-0.0516698	8787665
16630.5	-0.0470081	8786896
16640.1	-0.0423441	8785888
16651	-0.0370244	8784804
16660.6	-0.0323908	8783906
16670.2	-0.0277874	8783027
16681.1	-0.0225761	8781977
16690.7	-0.0180703	8780895
16700.3	-0.0136245	8779929
16711.3	-0.00862738	8779005
16720.9	-0.00433212	8778203
16730.5	-0.000113509	8777499
16740.1	0.00400775	8776856
16751	0.00858494	8776008
16760.6	0.0124511	8775262
16770	0.0161771	8774580
16780.8	0.0202587	8773942
16790.1	0.0236894	8773365
16800.8	0.0274516	8772681
16810.1	0.030606	8772127
16820.7	0.0340523	8771467
16830	0.0369255	8770911
16840.7	0.040043	8770320
16850	0.042623	8769780
16860.6	0.0454001	8769292
16871.3	0.0479919	8768820
16880.6	0.0501063	8768494
16891.3	0.0523459	8768020
16900.6	0.0541501	8767773
16911.2	0.0560353	8767413
16920.6	0.0575365	8767163
16931.3	0.0590735	8766961
16940.7	0.0602603	8766781
16950.1	0.0612996	8766525
16961.3	0.0623462	8766521
16970.7	0.0630669	8766381
16980.1	0.0636443	8766351
16991	0.0641393	8766378
17000.4	0.064413	8766354
17011.3	0.0645601	8766316
17021	0.0645398	8766240
17030.6	0.0643824	8766266
17040.3	0.064092	8766335
17051.6	0.0635912	8766267
17061.4	0.0630187	8766291
17071.2	0.0623255	8766275
17081	0.0615178	8766271
17090.8	0.0606023	8766261
17100.6	0.0595864	8766241
17110.4	0.0584774	8766215
17120.3	0.0572832	8766195
17130.1	0.056012	8766179
17141.5	0.0544427	8766221
17151.3	0.0530335	8766181
17161.2	0.0515743	8766131
17171	0.0500738	8766073
17180.8	0.0485408	8766053
17190.6	0.0469841	8765993
17200.6	0.0453909	8766009
17210.6	0.0437805	8765943
17220.6	0.0421721	8765821
17230.6	0.0405745	8765787
17240.6	0.0389959	8765629
17250.6	0.0374444	8765567
17260.6	0.0359276	8765521
17270.7	0.0344527	8765456
17280.7	0.0330265	8765374
17291	0.031607	8765291
17301.6	0.0302291	8765221
17310.4	0.0291341	8765109
17321	0.0278917	8765143
17331.7	0.0267258	8765174
17340.8	0.0258007	8765180
17351.7	0.024779	8765157
17360.8	0.0240032	8765189
17370.8	0.0232363	8765323
17380.6	0.0225582	8765235
17390.5	0.0219628	8765129
17400.7	0.0214359	8765047
17411.3	0.0209813	8765065
17420.1	0.0206701	8765005
17430.8	0.0203794	8764883
17441.4	0.0201757	8764800
17450.3	0.0200694	8764802
17460.9	0.0200143	8764768
17471.5	0.0200332	8764732
17480.4	0.0201016	8764696
17491.1	0.0202421	8764770
17501.6	0.0204384	8764796
17510.3	0.0206388	8764754
17520.7	0.0209175	8764684
17531	0.0212327	8764572
17541.5	0.0215822	8764496
17551.5	0.0219445	8764413
17561.5	0.0223236	8764311
17571.5	0.0227163	8764269
17581.6	0.0231177	8764275
17591.6	0.023523	8764197
17601.7	0.0239331	8764207
17610.4	0.0242804	8764165
17620.7	0.0246866	8764182
17631.4	0.0250918	8764184
17640.3	0.0254166	8764191
17650.9	0.0257877	8764149
17661.6	0.0261356	8764017
17670.5	0.0264082	8763952
17681.4	0.0267136	8763844
17690.6	0.0269449	8763772
17701.5	0.0271925	8763732
17710.6	0.027373	8763704
17721.4	0.0275556	8763687
17731.6	0.027698	8763693
17740.6	0.0277975	8763590
17751.5	0.0278878	8763579
17760.6	0.0279376	8763569
17771.4	0.0279675	8763569
17780.3	0.0279697	8763460
17791.3	0.0279459	8763372
17800.4	0.0279054	8763190
17811.3	0.0278341	8763119
17820.4	0.0277577	8763009
17831.4	0.0276485	8762869
17840.5	0.027545	8762909
17851.4	0.0274097	8762847
17860.4	0.0272903	8762783
17871.2	0.0271419	8762789
17880.3	0.0270167	8762941
17891.1	0.0268678	8763085
17900.2	0.0267473	8763247
17911.2	0.0266115	8763338
17920.3	0.0265088	8763384
17931.2	0.0264021	8763493
17940.1	0.0263308	8763541
17951	0.0262668	8763521
17960.1	0.0262354	8763469
17971.1	0.0262278	8763479
17980.2	0.026249	8763509
17991.1	0.0263103	8763711
18000.2	0.0263934	8763863
18010.8	0.0265295	8763945
18021.4	0.0267094	8763952
18030.4	0.0268959	8763960
18041.2	0.027168	8763942
18050.2	0.0274319	8764046
18061	0.0277956	8764076
18070.1	0.0281421	8764096
18081	0.0286022	8764162
18090	0.0290244	8764254
18100.9	0.0295812	8764338
18110.1	0.0300828	8764286
18121	0.0307279	8764440
18130.1	0.0312998	8764486
18141.1	0.0320245	8764508
18150.2	0.0326579	8764554
18161.1	0.0334501	8764596
18170.2	0.0341339	8764617
18181.2	0.0349786	8764585
18190.3	0.0356993	8764391
18201.1	0.036573	8764200
18211.7	0.0374369	8764088
18220.6	0.0381604	8763980
18231.1	0.039029	8763874
18241.7	0.0398932	8763800
18250.6	0.0406059	8763737
18261.2	0.0414477	8763636
18271.7	0.0422699	8763574
18280.6	0.0429365	8763420
18291.2	0.0437099	8763347
18301.4	0.0444271	8763349
18311.6	0.0451058	8763197
18320.3	0.0456522	8763058
18330.6	0.0462693	8762847
18341	0.0468415	8762803
18351.4	0.0473665	8762737
18360.1	0.0477663	8762705
18370.4	0.0481996	8762593
18380.9	0.0485844	8762516
18391.6	0.0489214	8762404
18400.5	0.0491597	8762226
18411.1	0.0493951	8762078
18420	0.0495495	8762062
18430.7	0.0496855	8761982
18441.1	0.0497689	8761934
18451.4	0.049805	8761956
18461.4	0.0497979	8761964
18471.3	0.0497531	8761952
18480.9	0.0496752	8761908
18490.5	0.0495682	8761840
18501.5	0.0494114	8761772
18510.8	0.0492535	8761750
18520.1	0.0490765	8761790
18531	0.0488485	8761824
18540.7	0.0486292	8761770
18550.5	0.0483962	8761710
18560.4	0.0481535	8761618
18570.2	0.0479048	8761504
18580	0.0476528	8761332
18591.5	0.0473573	8761206
18601.3	0.0471047	8760974
18611.2	0.0468538	8760834
18621.1	0.046602	8760756
18631.1	0.046354	8760720
18641	0.0461097	8760736
18651.1	0.0458636	8760721
18661.5	0.0456106	8760710
18670.2	0.0453987	8760656
18680.8	0.0451384	8760698
18691.4	0.0448717	8760686
18700.2	0.0446418	8760717
18710.7	0.044353	8760763
18721.3	0.0440458	8760807
18730	0.0437731	8760869
18740.4	0.0434252	8760875
18750.8	0.0430442	8760941
18761.4	0.0426191	8760929
18770.2	0.0422312	8760920
18780.7	0.0417201	8760960
18791.3	0.041154	8760945
18800.1	0.0406362	8761004
18810.5	0.0399628	8761040
18820.9	0.039225	8760974
18831.1	0.0384315	8760963
18841.4	0.0375486	8760841
18850.1	0.0367459	8760775
18860.7	0.03569	8760754
18871.2	0.0345439	8760722
18880	0.0335181	8760627
18890.6	0.0322005	8760509
18901.1	0.0307871	8760529
18911.7	0.0292778	8760547
18920.5	0.0279486	8760459
18931	0.0262637	8760417
18941.6	0.0244842	8760421
18950.4	0.0229313	8760413
18960.9	0.0209865	8760413
18971.5	0.0189565	8760447
18980.3	0.017203	8760383
18990.8	0.0150293	8760377
19001.4	0.012785	8760281
19010.2	0.0108655	8760207
19020.8	0.00850897	8760075
19031.2	0.00612589	8759951
19041.5	0.00373271	8759898
19050	0.00172946	8759878
19060.5	-0.000748921	8759782
19070.9	-0.00325724	8759698
19081.4	-0.00576462	8759564
19091.7	-0.00824965	8759556
19100.3	-0.0103175	8759531
19110.6	-0.0127883	8759463
19120.9	-0.0152401	8759437
19131.2	-0.0176653	8759383
19141.5	-0.0200564	8759337
19150.1	-0.0220178	8759379
19160.4	-0.024328	8759280
19170.7	-0.0265849	8759256
19181	-0.0287823	8759235
19191.3	-0.0309149	8759063
19201.6	-0.0329777	8759075
19210.2	-0.0346402	8758967
19220.5	-0.0365642	8758987
19230.9	-0.0384079	8758919
19241.2	-0.0401687	8758955
19251.5	-0.041845	8758893
19260.1	-0.0431766	8758854
19270.4	-0.0446956	8758879
19280.7	-0.0461289	8758936
19291.1	-0.0474876	8758970
19301.5	-0.0487713	8759068
19310.3	-0.0497769	8759087
19320.5	-0.0508872	8759166
19330.7	-0.0519159	8759241
19341.1	-0.0528839	8759291
19351.4	-0.0537845	8759394
19361.6	-0.0546158	8759460
19370.1	-0.0552521	8759510
19380	-0.0559569	8759520
19391.6	-0.0567165	8759602
19401.6	-0.0573223	8759569
19411.7	-0.0578967	8759588
19420.1	-0.0583478	8759474
19430.1	-0.0588564	8759430
19440.2	-0.0593395	8759394
19450.2	-0.0597944	8759176
19460.3	-0.0602316	8759102
19470.4	-0.0606506	8759017
19480.5	-0.0610531	8758930
19490.7	-0.0614411	8758872
19500.8	-0.0618159	8758857
19510.9	-0.0621787	8758755
19521.2	-0.0625375	8758597
19531.6	-0.0628857	8758459
19540.3	-0.063166	8758341
19550.6	-0.0634897	8758197
19561	-0.0637984	8758116
19571.4	-0.0640899	8758080
19580.1	-0.0643182	8757981
19590.5	-0.064572	8757967
19600.8	-0.0647993	8758032
19610.8	-0.0649935	8757960
19620.8	-0.0651578	8757884
19630.8	-0.0652886	8757900
19640.9	-0.0653824	8757890
19650.8	-0.0654333	8757839
19661	-0.0654387	8757919
19671.2	-0.0653918	8757957
19681.5	-0.0652867	8757977
19690.2	-0.0651501	8758034
19700.6	-0.0649237	8757994
19711	-0.0646252	8758056
19721.3	-0.0642501	8757994
19731.6	-0.0638016	8757992
19740	-0.0633716	8757970
19750.1	-0.0627807	8757888
19760.4	-0.0620947	8757676
19770.8	-0.0613122	8757619
19781.2	-0.0604389	8757462
19791.6	-0.0594743	8757364
19800.1	-0.0586103	8757358
19810.5	-0.0574858	8757396
19820.9	-0.0562684	8757462
19831.3	-0.0549652	8757438
19841.6	-0.0535794	8757467
19850.3	-0.0523644	8757543
19860.6	-0.0508478	8757575
19870.6	-0.0493096	8757593
19880.6	-0.047711	8757683
19890.8	-0.0460287	8757701
19901.1	-0.0442807	8757741
19911.4	-0.0424872	8757657
19921.5	-0.0406714	8757671
19931.7	-0.0388318	8757656
19940.2	-0.037267	8757747
19950.5	-0.0353604	8757701
19960.8	-0.0334407	8757729
19971.1	-0.0315179	8757783
19981.4	-0.0295998	8757895
19991.7	-0.027694	8757949
