0	0
13.138	0
26.2759	0
32.8449	0
45.9829	0
52.5519	0
65.6898	0
72.2588	0
85.3968	0
91.9658	0
105.104	0
111.673	0
124.811	0
131.38	0
144.518	0
151.087	0
164.225	0
170.794	0
183.932	0
190.501	0
203.638	0
210.207	0
223.345	0
236.483	0
243.052	0
256.19	0
262.759	0
275.897	0
282.466	0
295.604	0
302.173	0
315.311	0
321.88	0
335.018	0
341.587	0
354.725	0
361.294	0
374.432	0
381.001	0
394.139	0
400.708	0
413.846	0
420.415	0
433.553	0
440.122	0
453.26	0
466.398	0
472.967	0
486.105	0
492.674	0
505.812	0
512.381	0
525.519	0
532.088	0
545.226	0
551.795	0
564.933	0
571.502	0
584.639	0
591.208	0
604.346	0
610.915	0
624.053	0
630.622	0
643.76	0
650.329	0
663.467	0
670.036	0
683.174	0
696.312	0
702.881	0
716.019	0
722.588	0
735.726	0
742.295	0
755.433	0
762.002	0
775.14	0
781.709	0
794.847	0
801.416	0
814.554	0
821.123	0
834.261	0
840.83	0
853.968	0
860.537	0
873.675	0
880.244	0
893.382	0
906.52	0
913.089	0
926.227	0
932.796	0
945.934	0
952.503	0
965.641	0
972.209	0
985.347	0
991.916	0
1005.05	0
1011.62	0
1024.76	0
1031.33	0
1044.47	0
1051.04	0
1064.18	0
1070.74	0
1083.88	0
1090.45	0
1103.59	0
1110.16	0
1123.3	0
1136.43	0
1143	0
1156.14	0
1162.71	0
1175.85	0
1182.42	0
1195.55	0
1202.12	0
1215.26	0
1221.83	0
1234.97	0
1241.54	0
1254.68	0
1261.24	0
1274.38	0
1280.95	0
1294.09	0
1300.66	0
1313.8	0
1320.37	0
1333.5	0
1340.07	0
1353.21	0
1366.35	0
1372.92	0
1386.06	0
1392.62	0
1405.76	0
1412.33	0
1425.47	0
1432.04	0
1445.18	0
1451.74	0
1464.88	0
1471.45	0
1484.59	0
1491.16	0
1504.3	0
1510.87	0
1524	0
1530.57	0
1543.71	0
1550.28	0
1563.42	0
1576.56	0
1583.12	0
1596.26	0
1602.83	0
1615.97	0
1622.54	0
1635.68	0
1642.25	0
1655.38	0
1661.95	0
1675.09	0
1681.66	0
1694.8	0
1701.37	0
1714.5	0
1721.07	0
1734.21	0
1740.78	0
1753.92	0
1760.49	0
1773.62	0
1780.19	0
1793.33	0
1806.47	0
1813.04	0
1826.18	0
1832.74	0
1845.88	0
1852.45	0
1865.59	0
1872.16	0
1885.3	0
1891.86	0
1905	0
1911.57	0
1924.71	0
1931.28	0
1944.42	0
1950.98	0
1964.12	0
1970.69	0
1983.83	0
1990.4	0
2003.54	0
2010.1	0
2023.24	0
2036.38	0
2042.95	0
2056.09	0
2062.65	0
2075.79	0
2082.36	0
2095.5	0
2102.07	0
2115.21	0
2121.77	0
2134.91	0
2141.48	0
2154.62	0
2161.19	0
2174.32	0
2180.89	0
2194.03	0
2200.6	0
2213.74	0
2220.31	0
2233.44	0
2240.01	0
2253.15	0
2266.29	0
2272.86	0
2285.99	0
2292.56	0
2305.7	0
2312.27	0
2325.41	0
2331.97	0
2345.11	0
2351.68	0
2364.82	0
2371.39	0
2384.52	0
2391.09	0
2404.23	0
2410.8	0
2423.94	0
2430.5	0
2443.64	0
2450.21	0
2463.35	0
2476.49	0
2483.05	0
2496.19	0
2502.76	0
2515.9	0
2522.47	0
2535.6	0
2542.17	0
2555.31	9.09495e-13
2561.88	9.09495e-13
2575.01	1.81899e-12
2581.58	2.72848e-12
2594.72	5.45697e-12
2601.29	7.27596e-12
2614.43	1.45519e-11
2620.99	1.90994e-11
2634.13	3.36513e-11
2640.7	4.45652e-11
2653.84	7.63976e-11
2660.41	1.00044e-10
2673.54	1.69166e-10
2680.11	2.19188e-10
2693.25	3.63798e-10
2706.39	5.95719e-10
2712.96	7.58519e-10
2726.09	1.22054e-09
2732.66	1.54159e-09
2745.8	2.43745e-09
2752.37	3.05226e-09
2765.5	4.74756e-09
2772.07	5.89625e-09
2785.21	9.02401e-09
2791.78	1.11204e-08
2804.92	1.67538e-08
2811.48	2.04845e-08
2824.62	3.03917e-08
2831.19	3.68809e-08
2844.33	5.39112e-08
2850.9	6.49425e-08
2864.03	9.3567e-08
2870.6	1.11912e-07
2883.74	1.58981e-07
2890.31	1.88834e-07
2903.45	2.64602e-07
2910.02	3.1217e-07
2923.15	4.31633e-07
2936.29	5.91649e-07
2942.86	6.90471e-07
2956	9.34469e-07
2962.56	1.08373e-06
2975.7	1.44864e-06
2982.27	1.6698e-06
2995.41	2.20534e-06
3001.98	2.52698e-06
3015.12	3.29862e-06
3021.68	3.75796e-06
3034.82	4.85002e-06
3041.39	5.49451e-06
3054.53	7.01328e-06
3061.1	7.9021e-06
3074.23	9.97868e-06
3080.8	1.1184e-05
3093.94	1.39766e-05
3100.51	1.55846e-05
3113.65	1.928e-05
3120.22	2.13913e-05
3133.35	2.62049e-05
3146.49	3.18976e-05
3153.06	3.51095e-05
3166.2	4.23398e-05
3172.77	4.63896e-05
3185.91	5.54394e-05
3192.48	6.04725e-05
3205.61	7.16396e-05
3212.18	7.78076e-05
3225.32	9.13981e-05
3231.89	9.88545e-05
3245.03	0.000115174
3251.6	0.000124069
3264.73	0.000143411
3271.3	0.000153888
3284.44	0.000176526
3291.01	0.000188713
3304.15	0.000214888
3310.72	0.000228897
3323.86	0.000258808
3330.42	0.000274727
3343.56	0.000308527
3350.13	0.000326419
3363.27	0.000364205
3376.41	0.000404676
3382.98	0.00042592
3396.11	0.00047042
3402.68	0.000493671
3415.82	0.000542158
3422.39	0.000567384
3435.53	0.000619773
3442.1	0.000646924
3455.23	0.000703104
3461.8	0.000732119
3474.94	0.000791966
3481.51	0.000822784
3494.65	0.00088618
3501.22	0.000918749
3514.35	0.000985611
3520.92	0.0010199
3534.06	0.00109021
3540.63	0.00112623
3553.77	0.00120005
3560.34	0.00123788
3573.48	0.00131543
3580.04	0.0013552
3593.18	0.00143689
3606.32	0.00152168
3612.89	0.00156535
3626.03	0.00165557
3632.6	0.00170226
3645.73	0.00179922
3652.3	0.0018497
3665.44	0.00195529
3672.01	0.00201068
3685.15	0.00212752
3691.72	0.00218937
3704.85	0.00232109
3711.42	0.00239151
3724.56	0.00254306
3731.13	0.00262491
3744.27	0.00280289
3750.84	0.00289999
3763.97	0.0031132
3770.54	0.00323058
3783.68	0.00349051
3790.25	0.00363473
3803.39	0.00395631
3816.53	0.0043293
3823.09	0.0045381
3836.23	0.00500725
3842.8	0.00527068
3855.94	0.0058639
3862.51	0.0061975
3875.65	0.00694922
3882.21	0.007372
3895.35	0.00832412
3901.92	0.00885904
3915.06	0.0100617
3921.63	0.0107361
3934.77	0.0122486
3941.34	0.0130943
3954.47	0.0149853
3961.04	0.0160392
3974.18	0.018387
3980.75	0.0196906
3993.89	0.022583
4000.46	0.0241825
4013.59	0.0277159
4020.16	0.0296613
4033.3	0.0339394
4046.44	0.0387742
4053.01	0.0414158
4066.15	0.0471784
4072.71	0.0503117
4085.85	0.0571131
4092.42	0.0607931
4105.56	0.0687407
4112.13	0.0730193
4125.27	0.082212
4131.83	0.0871357
4144.97	0.0976591
4151.54	0.103266
4164.68	0.115187
4171.25	0.121506
4184.39	0.134867
4190.96	0.141911
4204.09	0.156724
4210.66	0.164491
4223.8	0.180735
4230.37	0.189204
4243.51	0.206817
4250.08	0.215948
4263.21	0.234826
4276.35	0.254467
4282.92	0.26455
4296.06	0.285185
4302.63	0.295711
4315.76	0.317116
4322.33	0.327965
4335.47	0.349875
4342.04	0.360903
4355.18	0.383015
4361.75	0.394062
4374.89	0.41604
4381.45	0.426931
4394.59	0.448413
4401.16	0.458962
4414.3	0.479568
4420.87	0.489583
4434.01	0.508928
4440.57	0.518215
4453.71	0.535912
4460.28	0.544282
4473.42	0.559961
4486.56	0.574098
4493.13	0.580543
4506.26	0.592097
4512.83	0.597174
4525.97	0.605855
4532.54	0.609431
4545.68	0.614994
4552.25	0.61696
4565.38	0.619215
4571.95	0.619489
4585.09	0.618303
4591.66	0.616834
4604.8	0.612134
4611.37	0.608902
4624.51	0.600679
4631.07	0.595694
4644.21	0.584
4650.78	0.577303
4663.92	0.56225
4670.49	0.553913
4683.63	0.535669
4690.19	0.525788
4703.33	0.504573
4716.47	0.481522
4723.04	0.469349
4736.18	0.44379
4742.75	0.430441
4755.88	0.4027
4762.45	0.388346
4775.59	0.358772
4782.16	0.343594
4795.3	0.312557
4801.87	0.296741
4815.01	0.264621
4821.57	0.24836
4834.71	0.21554
4841.28	0.199024
4854.42	0.165883
4860.99	0.1493
4874.13	0.116208
4880.69	0.0997393
4893.83	0.0670507
4900.4	0.0508681
4913.54	0.0189159
4920.11	0.00318048
4933.25	-0.0277269
4946.38	-0.0577801
4952.95	-0.07245
4966.09	-0.101008
4972.66	-0.114871
4985.8	-0.141708
4992.37	-0.154659
5005.5	-0.179579
5012.07	-0.191531
5025.21	-0.214377
5031.78	-0.225258
5044.92	-0.245907
5051.49	-0.255665
5064.63	-0.274029
5071.19	-0.282628
5084.33	-0.298651
5090.9	-0.306073
5104.04	-0.319735
5110.61	-0.325976
5123.75	-0.337286
5130.31	-0.342359
5143.45	-0.351356
5150.02	-0.355287
5163.16	-0.362037
5176.3	-0.367336
5182.87	-0.369457
5196	-0.37267
5202.57	-0.373777
5215.71	-0.375027
5222.28	-0.375186
5235.42	-0.374612
5241.99	-0.373897
5255.13	-0.371652
5261.69	-0.370141
5274.83	-0.366387
5281.4	-0.364163
5294.54	-0.359069
5301.11	-0.356219
5314.25	-0.349958
5320.81	-0.346567
5333.95	-0.339314
5340.52	-0.33547
5353.66	-0.327396
5360.23	-0.323185
5373.37	-0.314459
5386.5	-0.305389
5393.07	-0.300747
5406.21	-0.291292
5412.78	-0.286494
5425.92	-0.276801
5432.49	-0.271921
5445.62	-0.262128
5452.19	-0.25723
5465.33	-0.247464
5471.9	-0.242609
5485.04	-0.232984
5491.61	-0.228226
5504.75	-0.218843
5511.31	-0.214229
5524.45	-0.205177
5531.02	-0.200748
5544.16	-0.192103
5550.73	-0.187894
5563.87	-0.179718
5570.44	-0.175757
5583.57	-0.168102
5590.14	-0.164412
5603.28	-0.157315
5616.42	-0.150608
5622.99	-0.147403
5636.12	-0.141294
5642.69	-0.138392
5655.83	-0.132893
5662.4	-0.130297
5675.54	-0.12541
5682.11	-0.123118
5695.25	-0.118835
5701.81	-0.116843
5714.95	-0.113151
5721.52	-0.111448
5734.66	-0.108325
5741.23	-0.106901
5754.37	-0.10432
5760.94	-0.10316
5774.07	-0.101089
5780.64	-0.100175
5793.78	-0.0985784
5800.35	-0.0978913
5813.49	-0.0967282
5820.06	-0.0962474
5833.19	-0.0954748
5846.33	-0.0949374
5852.9	-0.0947504
5866.04	-0.0945267
5872.61	-0.0944846
5885.75	-0.0945267
5892.31	-0.0946053
5905.45	-0.0948645
5912.02	-0.0950395
5925.16	-0.095467
5931.73	-0.0957141
5944.87	-0.0962617
5951.44	-0.096557
5964.57	-0.0971776
5971.14	-0.0974978
5984.28	-0.0981459
5990.85	-0.0984688
6003.99	-0.0991009
6010.56	-0.0994054
6023.69	-0.0999806
6030.26	-0.100247
6043.4	-0.100728
6056.54	-0.101126
6063.11	-0.10129
6076.24	-0.101538
6082.81	-0.10162
6095.95	-0.101691
6102.52	-0.101677
6115.66	-0.101547
6122.23	-0.101428
6135.37	-0.101077
6141.93	-0.100844
6155.07	-0.100258
6161.64	-0.0999042
6174.78	-0.0990731
6181.35	-0.0985951
6194.49	-0.0975133
6201.05	-0.0969093
6214.19	-0.0955755
6220.76	-0.094846
6233.9	-0.0932633
6240.47	-0.0924108
6253.61	-0.0905862
6260.17	-0.0896153
6273.31	-0.0875595
6286.45	-0.0853574
6293.02	-0.0842036
6306.16	-0.0817955
6312.73	-0.0805433
6325.86	-0.0779482
6332.43	-0.0766076
6345.57	-0.0738467
6352.14	-0.0724288
6365.28	-0.0695252
6371.85	-0.068042
6384.98	-0.0650201
6391.55	-0.0634842
6404.69	-0.0603698
6411.26	-0.0587941
6424.4	-0.0556133
6430.97	-0.0540111
6444.1	-0.0507904
6450.67	-0.049175
6463.81	-0.0459409
6470.38	-0.0443253
6483.52	-0.0411039
6490.09	-0.0395009
6503.22	-0.0363175
6516.36	-0.033173
6522.93	-0.0316186
6536.07	-0.028552
6542.64	-0.0270422
6555.77	-0.0240759
6562.34	-0.0226216
6575.48	-0.0197762
6582.05	-0.0183873
6595.19	-0.0156822
6601.76	-0.014368
6614.89	-0.0118205
6621.46	-0.0105891
6634.6	-0.00821503
6641.17	-0.00707384
6654.31	-0.00488672
6660.88	-0.00384209
6674.01	-0.00185369
6680.58	-0.00091099
6693.72	0.000868998
6700.29	0.00170544
6713.43	0.00326937
6726.57	0.00468604
6733.13	0.00533856
6746.27	0.00653107
6752.84	0.00707083
6765.98	0.00803711
6772.55	0.00846362
6785.69	0.00920368
6792.25	0.00951746
6805.39	0.0100334
6811.96	0.010236
6825.1	0.010532
6831.67	0.010626
6844.81	0.0107081
6851.37	0.0106971
6864.51	0.0105734
6871.08	0.0104619
6884.22	0.0101425
6890.79	0.00993595
6903.93	0.00943254
6910.49	0.00913721
6923.63	0.00846326
6930.2	0.00808631
6943.34	0.00725685
6956.48	0.00633277
6963.05	0.00583765
6976.18	0.00478624
6982.75	0.004232
6995.89	0.00307177
7002.46	0.00246795
7015.6	0.00121844
7022.17	0.000575014
7035.3	-0.000743408
7041.87	-0.00141607
7055.01	-0.00278241
7061.58	-0.00347369
7074.72	-0.0048665
7081.29	-0.00556561
7094.43	-0.0069632
7100.99	-0.00765928
7114.13	-0.00903997
7120.7	-0.00972218
7133.84	-0.0110644
7140.41	-0.0117221
7153.55	-0.0130047
7160.11	-0.0136274
7173.25	-0.0148299
7186.39	-0.0159678
7192.96	-0.0165099
7206.1	-0.0175352
7212.67	-0.0180164
7225.8	-0.018911
7232.37	-0.0193225
7245.51	-0.0200694
7252.08	-0.0204031
7265.22	-0.020987
7271.79	-0.0212356
7284.93	-0.0216425
7291.49	-0.0217995
7304.63	-0.0220173
7311.2	-0.0220771
7324.34	-0.0220954
7330.91	-0.0220532
7344.05	-0.0218637
7350.61	-0.0217157
7363.75	-0.0213119
7370.32	-0.0210555
7383.46	-0.0204331
7390.03	-0.0200667
7403.17	-0.0192234
7416.3	-0.0182327
7422.87	-0.0176823
7436.01	-0.016472
7442.58	-0.0158125
7455.72	-0.0143861
7462.29	-0.0136199
7475.43	-0.0119833
7481.99	-0.0111137
7495.13	-0.00927463
7501.7	-0.00830619
7514.84	-0.00627456
7521.41	-0.00521268
7534.55	-0.0030003
7541.12	-0.00185132
7554.25	0.000528186
7560.82	0.00175702
7573.96	0.0042884
7580.53	0.00558908
7593.67	0.00825558
7600.24	0.00961938
7613.37	0.0124029
7626.51	0.0152539
7633.08	0.016702
7646.22	0.0196376
7652.79	0.0211229
7665.93	0.0241227
7672.49	0.0256349
7685.63	0.0286778
7692.2	0.0302063
7705.34	0.0332712
7711.91	0.0348054
7725.05	0.0378711
7731.62	0.0394004
7744.75	0.0424459
7751.32	0.0439599
7764.46	0.0469649
7771.03	0.0484536
7784.17	0.0513982
7790.74	0.052852
7803.87	0.0557174
7810.44	0.0571272
7823.58	0.0598958
7830.15	0.0612529
7843.29	0.0639084
7856.43	0.0664799
7862.99	0.0677323
7876.13	0.0701667
7882.7	0.0713473
7895.84	0.0736322
7902.41	0.0747353
7915.55	0.07686
7922.11	0.0778808
7935.25	0.0798366
7941.82	0.080771
7954.96	0.0825509
7961.53	0.0833958
7974.67	0.0849944
7981.24	0.0857477
7994.37	0.0871613
8000.94	0.0878214
8014.08	0.0890481
8020.65	0.0896145
8033.79	0.0906537
8040.36	0.0911266
8053.49	0.0919794
8060.06	0.0923596
8073.2	0.0930282
8086.34	0.093576
8092.91	0.0938051
8106.05	0.0941751
8112.61	0.0943166
8125.75	0.094514
8132.32	0.0945707
8145.46	0.0946015
8152.03	0.0945764
8165.17	0.0944472
8171.74	0.0943438
8184.87	0.0940617
8191.44	0.0938837
8204.58	0.0934561
8211.15	0.0932074
8224.29	0.0926421
8230.86	0.0923265
8243.99	0.0916313
8250.56	0.0912527
8263.7	0.0904355
8270.27	0.0899978
8283.41	0.0890664
8296.55	0.088063
8303.11	0.0875353
8316.25	0.08643
8322.82	0.0858532
8335.96	0.0846532
8342.53	0.0840307
8355.67	0.0827426
8362.24	0.0820778
8375.37	0.0807079
8381.94	0.0800037
8395.08	0.078558
8401.65	0.0778171
8414.79	0.0763009
8421.36	0.0755261
8434.49	0.0739443
8441.06	0.0731378
8454.2	0.0714948
8460.77	0.0706587
8473.91	0.0689585
8480.48	0.0680948
8493.61	0.0663408
8500.18	0.065451
8513.32	0.0636464
8526.46	0.0618096
8533.03	0.0608794
8546.17	0.0589963
8552.74	0.0580435
8565.87	0.0561161
8572.44	0.0551416
8585.58	0.0531718
8592.15	0.0521767
8605.29	0.0501662
8611.86	0.0491511
8624.99	0.0471014
8631.56	0.0460671
8644.7	0.0439797
8651.27	0.0429269
8664.41	0.0408033
8670.98	0.0397327
8684.12	0.0375744
8690.68	0.0364869
8703.82	0.0342956
8710.39	0.033192
8723.53	0.0309696
8730.1	0.0298509
8743.24	0.0275995
8756.37	0.02533
8762.94	0.024189
8776.08	0.0218949
8782.65	0.0207422
8795.79	0.0184267
8802.36	0.0172642
8815.49	0.0149307
8822.06	0.0137603
8835.2	0.011413
8841.77	0.0102367
8854.91	0.00788024
8861.48	0.00670058
8874.62	0.00433992
8881.18	0.00315953
8894.32	0.000800267
8900.89	-0.000377943
8914.03	-0.00272978
8920.6	-0.00390268
8933.74	-0.00624062
8940.31	-0.00740488
8953.44	-0.00972205
8960.01	-0.0108741
8973.15	-0.0131633
8986.29	-0.0154297
8992.86	-0.0165533
9006	-0.0187792
9012.56	-0.0198806
9025.7	-0.0220581
9032.27	-0.0231334
9045.41	-0.0252548
9051.98	-0.0263001
9065.12	-0.0283576
9071.69	-0.029369
9084.82	-0.0313549
9091.39	-0.0323287
9104.53	-0.0342356
9111.1	-0.0351681
9124.24	-0.036989
9130.81	-0.0378767
9143.94	-0.0396048
9150.51	-0.0404446
9163.65	-0.0420738
9170.22	-0.0428626
9183.36	-0.0443874
9196.5	-0.0458396
9203.07	-0.046538
9216.2	-0.0478781
9222.77	-0.0485193
9235.91	-0.0497435
9242.48	-0.0503261
9255.62	-0.0514316
9262.19	-0.0519544
9275.32	-0.0529393
9281.89	-0.0534015
9295.03	-0.0542649
9301.6	-0.0546661
9314.74	-0.0554079
9321.31	-0.0557485
9334.44	-0.0563695
9341.01	-0.05665
9354.15	-0.057152
9360.72	-0.0573737
9373.86	-0.0577593
9380.43	-0.0579237
9393.57	-0.0581965
9400.13	-0.0583055
9413.27	-0.0584699
9426.41	-0.0585648
9432.98	-0.058587
9446.12	-0.0585824
9452.69	-0.0585563
9465.82	-0.0584583
9472.39	-0.0583872
9485.53	-0.0582028
9492.1	-0.0580902
9505.24	-0.0578265
9511.81	-0.0576762
9524.95	-0.0573408
9531.51	-0.0571566
9544.65	-0.0567575
9551.22	-0.0565435
9564.36	-0.0560888
9570.93	-0.055849
9584.07	-0.0553468
9590.63	-0.0550853
9603.77	-0.0545438
9610.34	-0.0542647
9623.48	-0.053692
9630.05	-0.0533992
9643.19	-0.0528031
9656.32	-0.0521956
9662.89	-0.0518886
9676.03	-0.0512701
9682.6	-0.0509593
9695.74	-0.0503367
9702.31	-0.0500256
9715.45	-0.0494053
9722.01	-0.0490969
9735.15	-0.048485
9741.72	-0.0481821
9754.86	-0.0475838
9761.43	-0.047289
9774.57	-0.0467092
9781.13	-0.0464246
9794.27	-0.0458674
9800.84	-0.0455951
9813.98	-0.045064
9820.55	-0.0448056
9833.69	-0.0443035
9840.26	-0.0440602
9853.39	-0.0435896
9866.53	-0.0431408
9873.1	-0.0429248
9886.24	-0.04251
9892.81	-0.0423113
9905.94	-0.0419312
9912.51	-0.0417499
9925.65	-0.0414049
9932.22	-0.0412411
9945.36	-0.040931
9951.93	-0.0407846
9965.07	-0.040509
9971.63	-0.0403796
9984.77	-0.0401374
9991.34	-0.0400245
10004.5	-0.0398147
10011	-0.0397177
10024.2	-0.0395389
10030.8	-0.0394569
10043.9	-0.0393075
10050.5	-0.0392398
10063.6	-0.039118
10070.2	-0.0390637
10083.3	-0.0389678
10096.4	-0.0388881
10103	-0.0388541
10116.2	-0.0387972
10122.7	-0.0387741
10135.9	-0.0387382
10142.4	-0.0387251
10155.6	-0.0387085
10162.1	-0.0387046
10175.3	-0.0387056
10181.8	-0.0387102
10195	-0.0387272
10201.5	-0.0387394
10214.7	-0.038771
10221.3	-0.0387903
10234.4	-0.0388353
10241	-0.038861
10254.1	-0.0389183
10260.7	-0.0389498
10273.8	-0.0390184
10280.4	-0.0390553
10293.5	-0.0391344
10300.1	-0.0391764
10313.2	-0.0392652
10326.4	-0.0393601
10332.9	-0.0394099
10346.1	-0.0395137
10352.6	-0.0395677
10365.8	-0.03968
10372.3	-0.0397382
10385.5	-0.0398585
10392	-0.0399206
10405.2	-0.0400488
10411.8	-0.0401147
10424.9	-0.0402503
10431.5	-0.04032
10444.6	-0.0404628
10451.2	-0.040536
10464.3	-0.0406858
10470.9	-0.0407624
10484	-0.0409187
10490.6	-0.0409985
10503.7	-0.041161
10510.3	-0.0412436
10523.4	-0.0414118
10536.6	-0.0415833
10543.1	-0.0416702
10556.3	-0.0418462
10562.8	-0.0419351
10576	-0.0421147
10582.5	-0.0422052
10595.7	-0.0423874
10602.3	-0.0424789
10615.4	-0.0426624
10622	-0.0427542
10635.1	-0.0429377
10641.7	-0.0430292
10654.8	-0.0432111
10661.4	-0.0433014
10674.5	-0.04348
10681.1	-0.0435681
10694.2	-0.0437415
10700.8	-0.0438265
10713.9	-0.0439925
10720.5	-0.0440732
10733.6	-0.0442296
10740.2	-0.0443049
10753.3	-0.0444491
10766.5	-0.0445839
10773	-0.0446473
10786.2	-0.0447656
10792.8	-0.0448202
10805.9	-0.0449192
10812.5	-0.0449633
10825.6	-0.0450401
10832.2	-0.0450725
10845.3	-0.0451241
10851.9	-0.0451431
10865	-0.0451665
10871.6	-0.0451706
10884.7	-0.0451627
10891.3	-0.0451504
10904.4	-0.0451082
10911	-0.0450779
10924.1	-0.0449982
10930.7	-0.0449484
10943.8	-0.0448283
10950.4	-0.0447575
10963.5	-0.0445939
10970.1	-0.0445008
10983.3	-0.0442909
10996.4	-0.0440487
11003	-0.043915
11016.1	-0.043622
11022.7	-0.0434624
11035.8	-0.0431162
11042.4	-0.0429294
11055.5	-0.0425277
11062.1	-0.0423127
11075.2	-0.0418535
11081.8	-0.0416092
11094.9	-0.0410907
11101.5	-0.0408163
11114.6	-0.0402369
11121.2	-0.0399317
11134.3	-0.0392902
11140.9	-0.0389537
11154	-0.038249
11160.6	-0.0378808
11173.8	-0.0371123
11180.3	-0.0367121
11193.5	-0.0358795
11200	-0.0354472
11213.2	-0.0345506
11226.3	-0.0336113
11232.9	-0.0331258
11246	-0.0321233
11252.6	-0.0316063
11265.7	-0.0305413
11272.3	-0.0299935
11285.4	-0.0288674
11292	-0.0282893
11305.1	-0.0271038
11311.7	-0.0264965
11324.8	-0.0252535
11331.4	-0.024618
11344.5	-0.0233198
11351.1	-0.0226574
11364.3	-0.0213068
11370.8	-0.0206189
11384	-0.0192188
11390.5	-0.018507
11403.7	-0.0170607
11410.2	-0.0163267
11423.4	-0.0148379
11436.5	-0.0133228
11443.1	-0.012556
11456.2	-0.0110051
11462.8	-0.0102214
11475.9	-0.00863872
11482.5	-0.0078403
11495.6	-0.00623053
11502.2	-0.0054197
11515.3	-0.00378749
11521.9	-0.00296664
11535	-0.00131686
11541.6	-0.000488465
11554.8	0.00117391
11561.3	0.00200732
11574.5	0.00367719
11581	0.00451307
11594.2	0.00618528
11600.7	0.00702103
11613.9	0.00869038
11620.4	0.00952341
11633.6	0.0111847
11640.1	0.0120125
11653.3	0.0136606
11666.4	0.0152972
11673	0.0161104
11686.1	0.0177255
11692.7	0.0185267
11705.8	0.0201154
11712.4	0.0209023
11725.5	0.0224599
11732.1	0.0232302
11745.3	0.0247523
11751.8	0.0255038
11765	0.0269863
11771.5	0.027717
11784.7	0.029156
11791.2	0.029864
11804.4	0.0312559
11810.9	0.0319395
11824.1	0.0332811
11830.6	0.0339388
11843.8	0.0352273
11850.4	0.0358579
11863.5	0.0370908
11870.1	0.037693
11883.2	0.0388684
11896.3	0.0400046
11902.9	0.0405577
11916	0.041634
11922.6	0.042157
11935.8	0.0431725
11942.3	0.0436651
11955.5	0.0446196
11962	0.0450816
11975.2	0.0459752
11981.7	0.0464069
11994.9	0.0472402
12001.4	0.0476419
12014.6	0.0484158
12021.1	0.0487881
12034.3	0.049504
12040.9	0.0498478
12054	0.0505075
12060.6	0.0508237
12073.7	0.0514294
12080.3	0.0517192
12093.4	0.0522733
12106.5	0.0527944
12113.1	0.0530431
12126.3	0.0535173
12132.8	0.0537432
12146	0.0541735
12152.5	0.0543782
12165.7	0.0547678
12172.2	0.054953
12185.4	0.0553051
12191.9	0.0554724
12205.1	0.0557905
12211.6	0.0559415
12224.8	0.0562287
12231.4	0.0563651
12244.5	0.0566246
12251.1	0.056748
12264.2	0.0569829
12270.8	0.0570947
12283.9	0.0573079
12290.5	0.0574095
12303.6	0.0576035
12310.2	0.0576961
12323.3	0.0578733
12336.5	0.0580404
12343	0.0581204
12356.2	0.0582738
12362.7	0.0583473
12375.9	0.0584884
12382.4	0.0585561
12395.6	0.0586859
12402.1	0.0587481
12415.3	0.0588671
12421.9	0.0589239
12435	0.0590322
12441.6	0.0590837
12454.7	0.059181
12461.3	0.0592268
12474.4	0.0593123
12481	0.059352
12494.1	0.0594246
12500.7	0.0594574
12513.8	0.0595155
12520.4	0.0595406
12533.5	0.0595823
12540.1	0.0595986
12553.2	0.0596215
12566.4	0.0596304
12572.9	0.0596292
12586.1	0.0596149
12592.6	0.0596014
12605.8	0.0595608
12612.4	0.0595334
12625.5	0.0594633
12632.1	0.0594203
12645.2	0.0593175
12651.8	0.0592572
12664.9	0.0591182
12671.5	0.059039
12684.6	0.0588604
12691.2	0.0587605
12704.3	0.0585389
12710.9	0.0584168
12724	0.0581489
12730.6	0.0580028
12743.7	0.0576856
12750.3	0.057514
12763.4	0.0571445
12770	0.0569461
12783.1	0.0565215
12796.3	0.0560589
12802.9	0.055813
12816	0.0552916
12822.6	0.0550158
12835.7	0.0544337
12842.3	0.0541273
12855.4	0.0534832
12862	0.0531454
12875.1	0.0524382
12881.7	0.0520688
12894.8	0.051298
12901.4	0.0508966
12914.5	0.0500621
12921.1	0.0496289
12934.2	0.048731
12940.8	0.0482663
12953.9	0.0473058
12960.5	0.0468101
12973.7	0.0457883
12980.2	0.0452624
12993.4	0.044181
13006.5	0.043061
13013.1	0.042487
13026.2	0.0413113
13032.8	0.0407101
13045.9	0.0394815
13052.5	0.0388546
13065.6	0.0375765
13072.2	0.0369256
13085.3	0.0356014
13091.9	0.0349284
13105	0.033562
13111.6	0.032869
13124.7	0.0314646
13131.3	0.0307536
13144.4	0.0293155
13151	0.0285888
13164.2	0.0271216
13170.7	0.0263816
13183.9	0.02489
13190.4	0.024139
13203.6	0.0226278
13210.1	0.0218682
13223.3	0.0203423
13236.4	0.0188093
13243	0.0180408
13256.1	0.0165011
13262.7	0.0157305
13275.8	0.0141889
13282.4	0.0134185
13295.5	0.0118797
13302.1	0.0111119
13315.2	0.00958044
13321.8	0.00881734
13334.9	0.00729756
13341.5	0.00654134
13354.7	0.00503735
13361.2	0.00429003
13374.4	0.00280574
13380.9	0.00206919
13394.1	0.000608238
13400.6	-0.000115789
13413.8	-0.00155005
13420.3	-0.00225995
13433.5	-0.00366447
13440	-0.00435879
13453.2	-0.00573082
13466.3	-0.00707982
13472.9	-0.00774537
13486	-0.009058
13492.6	-0.00970487
13505.7	-0.0109792
13512.3	-0.0116065
13525.4	-0.012841
13532	-0.0134481
13545.2	-0.0146414
13551.7	-0.0152276
13564.9	-0.0163788
13571.4	-0.0169437
13584.6	-0.018052
13591.1	-0.0185954
13604.3	-0.0196604
13610.8	-0.020182
13624	-0.0212035
13630.5	-0.0217033
13643.7	-0.0226812
13650.3	-0.0231593
13663.4	-0.0240939
13676.5	-0.0249999
13683.1	-0.0254421
13696.2	-0.0263054
13702.8	-0.0267265
13715.9	-0.0275478
13722.5	-0.0279481
13735.7	-0.0287281
13742.2	-0.0291079
13755.4	-0.0298474
13761.9	-0.0302073
13775.1	-0.0309072
13781.6	-0.0312475
13794.8	-0.0319088
13801.3	-0.03223
13814.5	-0.0328537
13821	-0.0331563
13834.2	-0.0337433
13840.8	-0.0340278
13853.9	-0.0345791
13860.5	-0.0348461
13873.6	-0.0353627
13880.2	-0.0356125
13893.3	-0.0360955
13906.4	-0.0365565
13913	-0.0367789
13926.2	-0.0372078
13932.7	-0.0374144
13945.9	-0.0378121
13952.4	-0.0380033
13965.6	-0.0383707
13972.1	-0.038547
13985.3	-0.038885
13991.8	-0.0390468
14005	-0.0393562
14011.5	-0.0395039
14024.7	-0.0397855
14031.3	-0.0399196
14044.4	-0.0401743
14051	-0.0402951
14064.1	-0.0405236
14070.7	-0.0406315
14083.8	-0.0408347
14090.4	-0.0409301
14103.5	-0.0411088
14110.1	-0.0411921
14123.2	-0.041347
14136.4	-0.0414865
14142.9	-0.0415505
14156.1	-0.0416675
14162.6	-0.0417205
14175.8	-0.0418158
14182.3	-0.0418582
14195.5	-0.0419326
14202	-0.0419648
14215.2	-0.0420191
14221.8	-0.0420414
14234.9	-0.0420764
14241.5	-0.0420892
14254.6	-0.0421057
14261.2	-0.0421095
14274.3	-0.0421083
14280.9	-0.0421033
14294	-0.0420851
14300.6	-0.0420719
14313.7	-0.0420374
14320.3	-0.0420162
14333.4	-0.0419661
14346.6	-0.0419059
14353.1	-0.0418722
14366.3	-0.0417975
14372.8	-0.0417567
14386	-0.041668
14392.6	-0.0416202
14405.7	-0.041518
14412.3	-0.0414636
14425.4	-0.0413482
14432	-0.0412873
14445.1	-0.0411591
14451.7	-0.0410918
14464.8	-0.0409509
14471.4	-0.0408773
14484.5	-0.0407237
14491.1	-0.0406438
14504.2	-0.0404777
14510.8	-0.0403914
14523.9	-0.0402125
14530.5	-0.0401198
14543.6	-0.0399277
14550.2	-0.0398284
14563.3	-0.0396229
14576.5	-0.0394081
14583.1	-0.0392971
14596.2	-0.0390679
14602.8	-0.0389495
14615.9	-0.0387052
14622.5	-0.0385791
14635.6	-0.0383187
14642.2	-0.0381844
14655.3	-0.0379071
14661.9	-0.0377641
14675	-0.0374689
14681.6	-0.0373166
14694.7	-0.0370024
14701.3	-0.0368404
14714.4	-0.0365061
14721	-0.0363337
14734.1	-0.0359781
14740.7	-0.0357948
14753.8	-0.0354167
14760.4	-0.0352218
14773.6	-0.0348201
14780.1	-0.0346132
14793.3	-0.0341867
14806.4	-0.0337432
14813	-0.0335148
14826.1	-0.0330448
14832.7	-0.032803
14845.8	-0.0323055
14852.4	-0.0320498
14865.5	-0.0315241
14872.1	-0.0312541
14885.2	-0.0306996
14891.8	-0.0304151
14904.9	-0.0298313
14911.5	-0.029532
14924.6	-0.0289187
14931.2	-0.0286046
14944.3	-0.0279616
14950.9	-0.0276327
14964.1	-0.0269602
14970.6	-0.0266167
14983.8	-0.0259152
14990.3	-0.0255573
15003.5	-0.0248275
15010	-0.0244557
15023.2	-0.0236984
15036.3	-0.0229236
15042.9	-0.0225297
15056	-0.0217296
15062.6	-0.0213236
15075.7	-0.0204999
15082.3	-0.0200826
15095.4	-0.0192373
15102	-0.0188096
15115.1	-0.0179449
15121.7	-0.0175081
15134.8	-0.0166263
15141.4	-0.0161816
15154.6	-0.0152854
15161.1	-0.0148342
15174.3	-0.0139265
15180.8	-0.0134703
15194	-0.012554
15200.5	-0.0120943
15213.7	-0.0111726
15220.2	-0.010711
15233.4	-0.00978724
15246.5	-0.00886392
15253.1	-0.0084029
15266.2	-0.0074831
15272.8	-0.0070247
15285.9	-0.00611185
15292.5	-0.00565777
15305.6	-0.00475528
15312.2	-0.00430723
15325.3	-0.00341846
15331.9	-0.0029781
15345.1	-0.00210634
15351.6	-0.0016753
15364.8	-0.000823723
15371.3	-0.000403535
15384.5	0.00042483
15391	0.000832689
15404.2	0.001635
15410.7	0.00202916
15423.9	0.00280278
15430.4	0.00318198
15443.6	0.0039245
15450.2	0.00428759
15463.3	0.00499688
15476.4	0.00568293
15483	0.00601701
15496.1	0.00666685
15502.7	0.00698245
15515.8	0.00759468
15522.4	0.00789118
15535.6	0.0084647
15542.1	0.00874163
15555.3	0.00927566
15561.8	0.00953269
15575	0.0100267
15581.5	0.0102637
15594.7	0.0107176
15601.2	0.0109345
15614.4	0.0113482
15620.9	0.0115451
15634.1	0.0119192
15640.7	0.0120964
15653.8	0.0124314
15660.4	0.0125892
15673.5	0.0128859
15680.1	0.0130249
15693.2	0.0132845
15706.3	0.0135199
15712.9	0.0136288
15726.1	0.0138293
15732.6	0.0139211
15745.8	0.0140881
15752.3	0.0141635
15765.5	0.0142987
15772	0.0143586
15785.2	0.0144636
15791.7	0.0145089
15804.9	0.0145856
15811.4	0.0146171
15824.6	0.0146672
15831.2	0.0146859
15844.3	0.0147111
15850.9	0.0147178
15864	0.0147199
15870.6	0.0147155
15883.7	0.0146962
15890.3	0.0146815
15903.4	0.0146424
15916.6	0.014591
15923.1	0.0145608
15936.3	0.0144919
15942.8	0.0144534
15956	0.0143684
15962.5	0.014322
15975.7	0.014222
15982.2	0.0141684
15995.4	0.0140543
16001.9	0.0139939
16015.1	0.0138666
16021.7	0.0137997
16034.8	0.0136597
16041.4	0.0135866
16054.5	0.0134343
16061.1	0.0133551
16074.2	0.0131908
16080.8	0.0131056
16093.9	0.0129293
16100.5	0.0128382
16113.6	0.0126497
16120.2	0.0125525
16133.3	0.0123517
16146.5	0.0121424
16153	0.0120344
16166.2	0.0118119
16172.7	0.0116972
16185.9	0.0114608
16192.4	0.0113389
16205.6	0.0110878
16212.2	0.0109583
16225.3	0.0106915
16231.9	0.010554
16245	0.0102706
16251.6	0.0101245
16264.7	0.0098234
16271.3	0.00966821
16284.4	0.00934827
16291	0.00918339
16304.1	0.00884351
16310.7	0.00866837
16323.8	0.0083074
16330.4	0.00812144
16343.5	0.00773825
16350.1	0.00754091
16363.2	0.00713444
16376.4	0.00671187
16382.9	0.0064944
16396.1	0.00604688
16402.7	0.00581671
16415.8	0.00534335
16422.4	0.00510007
16435.5	0.00460012
16442.1	0.00434338
16455.2	0.00381621
16461.8	0.00354573
16474.9	0.00299086
16481.5	0.00270644
16494.6	0.00212357
16501.2	0.00182511
16514.3	0.00121411
16520.9	0.000901588
16534	0.000262536
16540.6	-6.39611e-05
16553.7	-0.000730788
16560.3	-0.00107106
16573.4	-0.00176516
16580	-0.00211891
16593.2	-0.00283956
16606.3	-0.0035774
16612.9	-0.0039526
16626	-0.00471525
16632.6	-0.00510255
16645.7	-0.00588867
16652.3	-0.00628731
16665.4	-0.0070953
16672	-0.00750444
16685.1	-0.00833248
16691.7	-0.00875114
16704.8	-0.00959717
16711.4	-0.0100243
16724.5	-0.010886
16731.1	-0.0113203
16744.2	-0.0121953
16750.8	-0.0126355
16763.9	-0.013521
16770.5	-0.0139658
16783.7	-0.0148588
16790.2	-0.0153067
16803.4	-0.0162043
16816.5	-0.0171031
16823.1	-0.0175526
16836.2	-0.0184505
16842.8	-0.0188986
16855.9	-0.0197922
16862.5	-0.0202373
16875.6	-0.0211231
16882.2	-0.0215633
16895.3	-0.0224376
16901.9	-0.0228713
16915	-0.0237304
16921.6	-0.0241556
16934.7	-0.024996
16941.3	-0.0254108
16954.4	-0.0262288
16961	-0.0266315
16974.2	-0.0274233
16980.7	-0.0278121
16993.9	-0.0285743
17000.4	-0.0289474
17013.6	-0.0296764
17020.1	-0.0300321
17033.3	-0.0307247
17046.4	-0.0313911
17053	-0.0317141
17066.1	-0.0323387
17072.7	-0.0326401
17085.8	-0.03322
17092.4	-0.0334983
17105.5	-0.0340308
17112.1	-0.0342848
17125.2	-0.0347674
17131.8	-0.0349957
17144.9	-0.0354261
17151.5	-0.0356279
17164.7	-0.0360041
17171.2	-0.0361784
17184.4	-0.0364987
17190.9	-0.0366447
17204.1	-0.0369077
17210.6	-0.0370247
17223.8	-0.0372293
17230.3	-0.0373169
17243.5	-0.0374622
17250.1	-0.03752
17263.2	-0.0376056
17276.3	-0.0376513
17282.9	-0.0376592
17296	-0.0376449
17302.6	-0.0376229
17315.7	-0.037549
17322.3	-0.0374973
17335.4	-0.0373645
17342	-0.0372835
17355.2	-0.0370925
17361.7	-0.0369828
17374.9	-0.0367349
17381.4	-0.0365971
17394.6	-0.0362938
17401.1	-0.0361286
17414.3	-0.0357715
17420.8	-0.0355799
17434	-0.0351711
17440.6	-0.0349541
17453.7	-0.0344956
17460.3	-0.0342543
17473.4	-0.0337485
17486.5	-0.0332125
17493.1	-0.0329336
17506.2	-0.0323547
17512.8	-0.032055
17525.9	-0.0314358
17532.5	-0.0311167
17545.7	-0.0304603
17552.2	-0.0301233
17565.4	-0.0294326
17571.9	-0.0290792
17585.1	-0.0283573
17591.6	-0.0279892
17604.8	-0.0272393
17611.3	-0.0268579
17624.5	-0.0260833
17631.1	-0.0256903
17644.2	-0.0248941
17650.8	-0.0244912
17663.9	-0.0236766
17670.5	-0.0232654
17683.6	-0.0224358
17690.2	-0.0220178
17703.3	-0.0211764
17716.4	-0.0203288
17723	-0.0199031
17736.2	-0.019049
17742.7	-0.0186208
17755.9	-0.0177632
17762.4	-0.0173341
17775.6	-0.0164761
17782.1	-0.0160475
17795.3	-0.015192
17801.8	-0.0147654
17815	-0.0139153
17821.6	-0.0134921
17834.7	-0.0126503
17841.3	-0.0122319
17854.4	-0.011401
17861	-0.0109888
17874.1	-0.0101714
17880.7	-0.00976662
17893.8	-0.0089654
17900.4	-0.00856925
17913.5	-0.00778657
17920.1	-0.0074003
17933.2	-0.00663852
17946.4	-0.00589192
17952.9	-0.00552463
17966.1	-0.00480263
17972.6	-0.00444817
17985.8	-0.00375288
17992.3	-0.00341227
18005.5	-0.0027457
18012.1	-0.00241993
18025.2	-0.00178399
18031.8	-0.00147401
18044.9	-0.000870528
18051.5	-0.000577223
18064.6	-7.95384e-06
18071.2	0.000267825
18084.3	0.000801225
18090.9	0.00105867
18104	0.00155463
18110.6	0.00179297
18123.7	0.00225
18130.3	0.00246853
18143.4	0.00288523
18150	0.00308325
18163.1	0.00345831
18176.3	0.00380493
18182.8	0.00396741
18196	0.00427041
18202.6	0.00441081
18215.7	0.00466913
18222.3	0.00478694
18235.4	0.00499962
18242	0.00509439
18255.1	0.00526058
18261.7	0.0053319
18274.8	0.00545085
18281.4	0.00549839
18294.5	0.00556947
18301.1	0.00559295
18314.2	0.00561565
18320.8	0.00561484
18333.9	0.00558881
18340.5	0.00556357
18353.6	0.00548856
18360.2	0.0054388
18373.3	0.00531474
18386.5	0.005158
18393.1	0.0050674
18406.2	0.00486182
18412.8	0.00474688
18425.9	0.00449279
18432.5	0.00435371
18445.6	0.00405165
18452.2	0.00388875
18465.3	0.00353943
18471.9	0.0033531
18485	0.00295741
18491.6	0.00274816
18504.7	0.0023072
18511.3	0.00207564
18524.4	0.00159071
18531	0.00133752
18544.1	0.00081014
18550.7	0.000536139
18563.8	-3.19771e-05
18570.4	-0.000325877
18583.6	-0.000932792
18590.1	-0.00124557
18603.3	-0.00188913
18616.4	-0.00255583
18623	-0.00289751
18636.1	-0.0035968
18642.7	-0.00395412
18655.8	-0.00468329
18662.4	-0.00505482
18675.5	-0.00581096
18682.1	-0.00619521
18695.2	-0.00697519
18701.8	-0.00737055
18714.9	-0.00817108
18721.5	-0.00857586
18734.6	-0.00939346
18741.2	-0.00980587
18754.3	-0.0106369
18760.9	-0.0110551
18774.1	-0.0118957
18780.6	-0.0123178
18793.8	-0.0131641
18800.3	-0.013588
18813.5	-0.014436
18820	-0.0148597
18833.2	-0.0157053
18846.3	-0.0165468
18852.9	-0.0169655
18866	-0.0177976
18872.6	-0.0182105
18885.7	-0.0190287
18892.3	-0.0194336
18905.4	-0.0202337
18912	-0.0206285
18925.1	-0.0214063
18931.7	-0.0217888
18944.8	-0.02254
18951.4	-0.0229081
18964.6	-0.0236285
18971.1	-0.0239802
18984.3	-0.0246657
18990.8	-0.0249991
19004	-0.0256457
19010.5	-0.0259587
19023.7	-0.0265627
19030.2	-0.0268534
19043.4	-0.0274112
19056.5	-0.0279362
19063.1	-0.0281859
19076.2	-0.028659
19082.8	-0.0288821
19095.9	-0.0293003
19102.5	-0.0294951
19115.6	-0.0298556
19122.2	-0.0300209
19135.3	-0.0303211
19141.9	-0.0304558
19155.1	-0.0306935
19161.6	-0.0307964
19174.8	-0.0309698
19181.3	-0.0310401
19194.5	-0.0311476
19201	-0.0311846
19214.2	-0.0312249
19220.7	-0.031228
19233.9	-0.0312002
19240.4	-0.0311692
19253.6	-0.0310728
19260.2	-0.0310074
19273.3	-0.0308423
19286.4	-0.0306313
19293	-0.0305087
19306.1	-0.0302295
19312.7	-0.0300729
19325.8	-0.0297262
19332.4	-0.0295361
19345.6	-0.029123
19352.1	-0.0289
19365.3	-0.0284219
19371.8	-0.028167
19385	-0.0276257
19391.5	-0.0273396
19404.7	-0.0267373
19411.2	-0.0264213
19424.4	-0.0257603
19430.9	-0.0254155
19444.1	-0.0246985
19450.7	-0.0243265
19463.8	-0.0235564
19470.4	-0.0231586
19483.5	-0.0223385
19490.1	-0.0219166
19503.2	-0.02105
19516.3	-0.0201543
19522.9	-0.019696
19536.1	-0.0187598
19542.6	-0.0182823
19555.8	-0.0173093
19562.3	-0.0168144
19575.5	-0.0158088
19582	-0.0152985
19595.2	-0.0142641
19601.7	-0.0137405
19614.9	-0.0126816
19621.4	-0.0121467
19634.6	-0.0110674
19641.2	-0.0105234
19654.3	-0.00942778
19660.9	-0.00887669
19674	-0.00776903
19680.6	-0.00721294
19693.7	-0.00609737
19700.3	-0.00553835
19713.4	-0.00441895
19726.6	-0.00329925
19733.1	-0.00273983
19746.3	-0.00162295
19752.8	-0.00106592
19766	4.42803e-05
19772.5	0.000597031
19785.7	0.00169682
19792.2	0.00224346
19805.4	0.00332925
19811.9	0.00386802
19825.1	0.00493637
19831.7	0.00546559
19844.8	0.00651324
19851.4	0.00703132
19864.5	0.00805518
19871.1	0.00856062
19884.2	0.00955778
19890.8	0.0100492
19903.9	0.0110169
19910.5	0.011493
19923.6	0.0124288
19930.2	0.0128883
19943.3	0.0137899
19956.5	0.0146676
19963	0.0150971
19976.2	0.0159371
19982.7	0.0163474
19995.9	0.0171481
