0	0
11.0308	0
22.0616	0
30.8863	0
41.9171	0
50.7417	0
61.7725	0
70.5972	0
81.628	0
90.4526	0
101.483	0
110.308	0
121.339	0
130.164	0
141.194	0
150.019	0
161.05	0
172.081	0
180.905	0
191.936	0
200.761	0
211.792	0
220.616	0
231.647	0
240.472	0
251.502	0
260.327	0
271.358	0
280.183	0
291.213	0
300.038	0
311.069	0
322.1	0
330.924	0
341.955	0
350.78	0
361.811	0
370.635	0
381.666	0
390.491	0
401.521	0
410.346	0
421.377	0
430.202	0
441.232	0
450.057	0
461.088	0
472.119	0
480.943	0
491.974	0
500.799	0
511.83	0
520.654	0
531.685	0
540.51	0
551.54	0
560.365	0
571.396	0
580.221	0
591.251	0
600.076	0
611.107	0
622.138	0
630.962	0
641.993	0
650.818	0
661.849	0
670.673	0
681.704	0
690.529	0
701.559	0
710.384	0
721.415	0
730.24	0
741.27	0
750.095	0
761.126	0
772.157	0
780.981	0
792.012	0
800.837	0
811.868	0
820.692	0
831.723	0
840.548	0
851.578	0
860.403	0
871.434	0
880.259	0
891.289	0
900.114	0
911.145	0
922.176	0
931	0
942.031	0
950.856	0
961.887	0
970.711	0
981.742	0
990.567	0
1001.6	0
1010.42	0
1021.45	0
1030.28	0
1041.31	0
1050.13	0
1061.16	0
1072.19	0
1081.02	0
1092.05	0
1100.87	0
1111.91	0
1120.73	0
1131.76	0
1140.59	0
1151.62	0
1160.44	0
1171.47	0
1180.3	0
1191.33	0
1200.15	0
1211.18	0
1220.01	0
1231.04	0
1242.07	0
1250.89	0
1261.92	0
1270.75	0
1281.78	0
1290.6	0
1301.64	0
1310.46	0
1321.49	0
1330.32	0
1341.35	0
1350.17	0
1361.2	0
1370.03	0
1381.06	0
1392.09	0
1400.91	0
1411.94	0
1420.77	0
1431.8	0
1440.62	0
1451.65	0
1460.48	0
1471.51	0
1480.33	0
1491.37	0
1500.19	0
1511.22	0
1520.05	0
1531.08	0
1542.11	0
1550.93	0
1561.96	0
1570.79	0
1581.82	0
1590.64	0
1601.67	0
1610.5	0
1621.53	0
1630.35	0
1641.38	0
1650.21	0
1661.24	0
1670.06	0
1681.1	0
1692.13	0
1700.95	0
1711.98	0
1720.81	0
1731.84	0
1740.66	0
1751.69	0
1760.52	0
1771.55	0
1780.37	0
1791.4	0
1800.23	0
1811.26	0
1820.08	0
1831.11	0
1842.15	0
1850.97	0
1862	0
1870.83	0
1881.86	0
1890.68	0
1901.71	0
1910.54	0
1921.57	0
1930.39	0
1941.42	0
1950.25	0
1961.28	0
1970.1	0
1981.13	0
1992.16	0
2000.99	0
2012.02	0
2020.84	0
2031.87	0
2040.7	0
2051.73	0
2060.56	0
2071.59	0
2080.41	-1.81899e-12
2091.44	-4.54747e-12
2100.27	-7.27596e-12
2111.3	-1.18234e-11
2120.12	-1.54614e-11
2131.15	-2.63753e-11
2142.18	-4.36557e-11
2151.01	-6.82121e-11
2162.04	-1.21872e-10
2170.86	-1.91903e-10
2181.89	-3.4197e-10
2190.72	-5.38421e-10
2201.75	-9.40418e-10
2210.57	-1.45883e-09
2221.6	-2.49838e-09
2230.43	-3.81169e-09
2241.46	-6.39193e-09
2250.28	-9.58426e-09
2261.32	-1.57361e-08
2270.14	-2.32012e-08
2281.17	-3.73102e-08
2292.2	-5.93263e-08
2301.03	-8.52888e-08
2312.06	-1.3294e-07
2320.88	-1.88135e-07
2331.91	-2.87609e-07
2340.74	-4.00829e-07
2351.77	-6.01282e-07
2360.59	-8.25573e-07
2371.62	-1.21586e-06
2380.45	-1.64532e-06
2391.48	-2.38012e-06
2400.3	-3.1756e-06
2411.33	-4.51442e-06
2420.16	-5.94095e-06
2431.19	-8.30361e-06
2440.01	-1.07823e-05
2451.05	-1.48238e-05
2462.08	-2.01983e-05
2470.9	-2.57062e-05
2481.93	-3.44781e-05
2490.76	-4.33375e-05
2501.79	-5.7242e-05
2510.61	-7.10873e-05
2521.64	-9.25091e-05
2530.47	-0.000113546
2541.5	-0.000145647
2550.32	-0.00017675
2561.35	-0.000223574
2570.18	-0.00026835
2581.21	-0.000334881
2590.03	-0.000397695
2601.06	-0.000489848
2612.1	-0.000599104
2620.92	-0.000700302
2631.95	-0.000845966
2640.78	-0.0009793
2651.81	-0.00116898
2660.63	-0.00134062
2671.66	-0.00158205
2680.49	-0.00179811
2691.52	-0.00209869
2700.34	-0.00236483
2711.37	-0.00273119
2720.2	-0.00305225
2731.23	-0.00348972
2740.05	-0.00386932
2751.08	-0.00438152
2762.11	-0.00493603
2770.94	-0.00541017
2781.97	-0.00604076
2790.79	-0.00657515
2801.83	-0.00727963
2810.65	-0.00787152
2821.68	-0.00864523
2830.51	-0.00928991
2841.54	-0.0101258
2850.36	-0.0108167
2861.39	-0.0117054
2870.22	-0.0124343
2881.25	-0.0133646
2890.07	-0.0141216
2901.1	-0.0150801
2912.13	-0.016048
2920.96	-0.0168258
2931.99	-0.0177978
2940.81	-0.0185719
2951.84	-0.0195301
2960.67	-0.0202851
2971.7	-0.0212088
2980.52	-0.0219272
2991.55	-0.0227927
3000.38	-0.0234537
3011.41	-0.0242328
3020.23	-0.0248119
3031.26	-0.0254708
3040.09	-0.025938
3051.12	-0.0264355
3062.15	-0.0268223
3070.98	-0.0270405
3082.01	-0.0271834
3090.83	-0.0271807
3101.86	-0.0270122
3110.69	-0.0267299
3121.72	-0.0261703
3130.54	-0.0255395
3141.57	-0.0244964
3150.4	-0.0234381
3161.43	-0.021807
3170.25	-0.0202334
3181.28	-0.0178999
3190.11	-0.0157164
3201.14	-0.0125592
3212.17	-0.00889105
3220.99	-0.00556325
3232.02	-0.00088091
3240.85	0.0033052
3251.88	0.00911632
3260.7	0.0142474
3271.73	0.0212874
3280.56	0.0274355
3291.59	0.035783
3300.41	0.0430004
3311.44	0.0527054
3320.27	0.0610191
3331.3	0.0720979
3340.12	0.0815059
3351.15	0.0939364
3362.18	0.107093
3371.01	0.118125
3382.04	0.132519
3390.86	0.144494
3401.89	0.159999
3410.72	0.172802
3421.75	0.189258
3430.57	0.202746
3441.6	0.219956
3450.43	0.233962
3461.46	0.251705
3470.28	0.266042
3481.31	0.284076
3490.14	0.298543
3501.17	0.316609
3512.2	0.334579
3521.02	0.348829
3532.05	0.366415
3540.88	0.38025
3551.91	0.397183
3560.73	0.410388
3571.76	0.4264
3580.59	0.438764
3591.62	0.453596
3600.44	0.464916
3611.47	0.47832
3620.3	0.488402
3631.33	0.500143
3640.15	0.508805
3651.18	0.518665
3660	0.525742
3671.03	0.533526
3682.07	0.540081
3690.89	0.544407
3701.92	0.548633
3710.74	0.551044
3721.77	0.552817
3730.6	0.553229
3741.63	0.552465
3750.45	0.550823
3761.48	0.547475
3770.31	0.54376
3781.34	0.537825
3790.16	0.532051
3801.19	0.523568
3810.02	0.515785
3821.05	0.504838
3832.08	0.492574
3840.9	0.481844
3851.93	0.467328
3860.76	0.454866
3871.79	0.43828
3880.61	0.424245
3891.64	0.405803
3900.47	0.390377
3911.5	0.370316
3920.32	0.353694
3931.35	0.332268
3940.18	0.31466
3951.21	0.292134
3960.03	0.273753
3971.06	0.250395
3982.09	0.226691
3990.92	0.207533
4001.95	0.183411
4010.77	0.164022
4021.8	0.139737
4030.62	0.120318
4041.66	0.0961167
4050.48	0.0768589
4061.51	0.0529748
4070.33	0.0340604
4081.36	0.0107143
4090.19	-0.00768479
4101.22	-0.0302841
4110.04	-0.048006
4121.07	-0.0696623
4132.11	-0.090714
4140.93	-0.107083
4151.96	-0.12691
4160.79	-0.142231
4171.82	-0.160666
4180.64	-0.174811
4191.67	-0.1917
4200.5	-0.204551
4211.53	-0.219755
4220.35	-0.231207
4231.38	-0.244603
4240.21	-0.254564
4251.24	-0.266047
4260.06	-0.274442
4271.09	-0.28393
4282.12	-0.292284
4290.95	-0.298141
4301.98	-0.304424
4310.8	-0.308618
4321.83	-0.31282
4330.66	-0.315354
4341.69	-0.317496
4350.51	-0.318402
4361.54	-0.31854
4370.37	-0.317874
4381.4	-0.316097
4390.22	-0.313944
4401.26	-0.310372
4410.08	-0.30684
4421.11	-0.301624
4432.14	-0.295569
4440.97	-0.29016
4452	-0.282742
4460.82	-0.276324
4471.85	-0.267749
4480.68	-0.260489
4491.71	-0.250973
4500.53	-0.243048
4511.56	-0.23281
4520.39	-0.224396
4531.42	-0.213654
4540.24	-0.204923
4551.27	-0.193889
4560.1	-0.185004
4571.13	-0.173874
4582.16	-0.16277
4590.98	-0.153941
4602.01	-0.143013
4610.84	-0.134385
4621.87	-0.123778
4630.69	-0.11546
4641.72	-0.105298
4650.55	-0.0973777
4661.58	-0.0877607
4670.4	-0.0803088
4681.44	-0.071313
4690.26	-0.0643823
4701.29	-0.0560628
4710.12	-0.0496893
4721.15	-0.0420822
4732.18	-0.0348802
4741	-0.0294126
4752.03	-0.0229467
4760.86	-0.0180687
4771.89	-0.0123378
4780.71	-0.00804426
4791.74	-0.00303721
4800.57	0.000684104
4811.6	0.00498601
4820.42	0.00815243
4831.45	0.0117735
4840.28	0.0144062
4851.31	0.0173747
4860.13	0.0194976
4871.16	0.0218448
4882.19	0.0238611
4891.02	0.025243
4902.05	0.0266906
4910.87	0.0276317
4921.91	0.0285465
4930.73	0.0290762
4941.76	0.0294957
4950.58	0.0296447
4961.62	0.0296079
4970.44	0.029408
4981.47	0.0289557
4990.3	0.0284402
5001.33	0.0276149
5010.15	0.0268184
5021.18	0.0256641
5030.01	0.0246225
5041.04	0.0231846
5052.07	0.0216093
5060.89	0.0202596
5071.92	0.0184729
5080.75	0.0169728
5091.78	0.0150213
5100.6	0.0134076
5111.63	0.0113366
5120.46	0.00964491
5131.49	0.00749779
5140.31	0.00576184
5151.34	0.00357914
5160.17	0.00182983
5171.2	-0.000351809
5180.02	-0.00208696
5191.06	-0.00423554
5202.09	-0.00635386
5210.91	-0.00802178
5221.94	-0.0100679
5230.77	-0.0116703
5241.8	-0.0136262
5250.62	-0.0151511
5261.65	-0.0170047
5270.48	-0.0184445
5281.51	-0.0201892
5290.33	-0.0215406
5301.36	-0.0231745
5310.19	-0.0244379
5321.22	-0.0259636
5330.04	-0.0271425
5341.07	-0.0285659
5352.1	-0.029936
5360.93	-0.0309958
5371.96	-0.0322777
5380.78	-0.033271
5391.81	-0.0344754
5400.64	-0.0354112
5411.67	-0.0365491
5420.49	-0.037436
5431.53	-0.0385182
5440.35	-0.0393646
5451.38	-0.0404009
5460.21	-0.0412141
5471.24	-0.042213
5480.06	-0.0429994
5491.09	-0.043968
5502.12	-0.0449223
5510.95	-0.0456763
5521.98	-0.0466082
5530.8	-0.0473457
5541.83	-0.0482584
5550.66	-0.0489815
5561.69	-0.049877
5570.51	-0.0505868
5581.54	-0.0514661
5590.37	-0.0521633
5601.4	-0.0530267
5610.22	-0.0537112
5621.25	-0.0545588
5630.08	-0.0552305
5641.11	-0.056062
5652.14	-0.0568844
5660.96	-0.0575358
5672	-0.0583417
5680.82	-0.0589799
5691.85	-0.0597694
5700.68	-0.0603944
5711.71	-0.0611676
5720.53	-0.0617796
5731.56	-0.0625367
5740.39	-0.0631359
5751.42	-0.0638772
5760.24	-0.0644639
5771.27	-0.0651894
5780.1	-0.0657635
5791.13	-0.0664731
5802.16	-0.0671736
5810.98	-0.0677272
5822.01	-0.0684102
5830.84	-0.0689491
5841.87	-0.0696128
5850.69	-0.0701351
5861.72	-0.0707764
5870.55	-0.0712793
5881.58	-0.071894
5890.4	-0.0723737
5901.43	-0.0729566
5910.26	-0.0734083
5921.29	-0.0739527
5930.11	-0.0743706
5941.15	-0.0748688
5952.18	-0.0753376
5961	-0.0756894
5972.03	-0.0760977
5980.86	-0.0763971
5991.89	-0.0767345
6000.71	-0.0769729
6011.74	-0.0772286
6020.57	-0.0773972
6031.6	-0.0775599
6040.42	-0.0776495
6051.45	-0.0777079
6060.28	-0.0777095
6071.31	-0.0776525
6080.13	-0.0775576
6091.16	-0.0773748
6102.19	-0.0771179
6111.02	-0.0768571
6122.05	-0.07646
6130.87	-0.076084
6141.91	-0.0755392
6150.73	-0.0750424
6161.76	-0.0743439
6170.59	-0.0737223
6181.62	-0.072866
6190.44	-0.0721171
6201.47	-0.0711008
6210.3	-0.0702237
6221.33	-0.0690473
6230.15	-0.0680427
6241.18	-0.0667082
6250.01	-0.0655784
6261.04	-0.0640899
6272.07	-0.0625182
6280.89	-0.0612026
6291.92	-0.0594872
6300.75	-0.0580599
6311.78	-0.0562096
6320.6	-0.0546785
6331.63	-0.052704
6340.46	-0.0510782
6351.49	-0.0489914
6360.31	-0.0472809
6371.35	-0.045095
6380.17	-0.0433107
6391.2	-0.0410397
6400.03	-0.0391932
6411.06	-0.0368518
6422.09	-0.0344779
6430.91	-0.0325584
6441.94	-0.0301376
6450.77	-0.0281867
6461.8	-0.0257343
6470.62	-0.0237643
6481.65	-0.0212953
6490.48	-0.019318
6501.51	-0.0168472
6510.33	-0.014874
6521.36	-0.0124156
6530.19	-0.0104578
6541.22	-0.00802518
6550.04	-0.00609327
6561.07	-0.00369933
6572.11	-0.00133212
6580.93	0.00053999
6591.96	0.00285017
6600.79	0.00467228
6611.82	0.0069147
6620.64	0.00867856
6631.67	0.0108433
6640.5	0.0125413
6651.53	0.0146194
6660.35	0.0162447
6671.38	0.0182278
6680.21	0.0197742
6691.24	0.021655
6700.06	0.0231168
6711.09	0.0248889
6722.12	0.0265979
6730.95	0.0279188
6741.98	0.0295105
6750.8	0.0307357
6761.83	0.0322057
6770.66	0.033332
6781.69	0.0346768
6790.51	0.0357017
6801.55	0.0369186
6810.37	0.0378404
6821.4	0.0389277
6830.23	0.0397453
6841.26	0.040702
6850.08	0.0414152
6861.11	0.0422414
6872.14	0.0429955
6880.97	0.0435471
6892	0.0441725
6900.82	0.044622
6911.85	0.045121
6920.68	0.0454705
6931.71	0.0458462
6940.53	0.0460986
6951.56	0.0463548
6960.39	0.0465134
6971.42	0.0466548
6980.24	0.0467234
6991.27	0.046755
7000.1	0.0467381
7011.13	0.0466657
7022.16	0.0465382
7030.99	0.0463977
7042.02	0.0461758
7050.84	0.0459626
7061.87	0.045653
7070.7	0.0453723
7081.73	0.0449819
7090.55	0.0446392
7101.58	0.0441749
7110.41	0.0437759
7121.44	0.0432445
7130.26	0.0427947
7141.29	0.0422033
7150.12	0.0417082
7161.15	0.0410635
7172.18	0.040392
7181	0.039837
7192.03	0.0391224
7200.86	0.0385354
7211.89	0.0377841
7220.71	0.0371701
7231.75	0.0363879
7240.57	0.0357516
7251.6	0.0349445
7260.43	0.0342905
7271.46	0.0334641
7280.28	0.0327968
7291.31	0.0319564
7300.14	0.03128
7311.17	0.0304309
7322.2	0.0295793
7331.02	0.0288972
7342.05	0.0280448
7350.88	0.0273643
7361.91	0.0265164
7370.73	0.0258415
7381.76	0.0250033
7390.59	0.0243381
7401.62	0.0235148
7410.44	0.0228637
7421.47	0.0220607
7430.3	0.021428
7441.33	0.0206506
7450.15	0.0200407
7461.18	0.0192946
7470.01	0.018712
7481.04	0.0180029
7492.07	0.0173168
7500.89	0.0167857
7511.93	0.0161454
7520.75	0.0156531
7531.78	0.0150641
7540.61	0.014615
7551.64	0.0140826
7560.46	0.0136808
7571.49	0.0132099
7580.32	0.0128591
7591.35	0.0124541
7600.17	0.0121576
7611.2	0.0118222
7620.03	0.0115827
7631.06	0.0113197
7642.09	0.0110979
7650.91	0.0109504
7661.94	0.0108035
7670.77	0.0107161
7681.8	0.0106443
7690.62	0.0106167
7701.65	0.0106189
7710.48	0.0106496
7721.51	0.0107235
7730.33	0.0108102
7741.36	0.0109519
7750.19	0.0110911
7761.22	0.0112959
7770.04	0.0114832
7781.07	0.0117449
7792.1	0.0120351
7800.93	0.0122862
7811.96	0.0126217
7820.78	0.0129055
7831.82	0.0132774
7840.64	0.0135867
7851.67	0.0139856
7860.5	0.0143126
7871.53	0.0147286
7880.35	0.0150651
7891.38	0.0154877
7900.21	0.0158253
7911.24	0.016244
7920.06	0.0165743
7931.09	0.0169785
7942.12	0.0173703
7950.95	0.0176725
7961.98	0.0180337
7970.8	0.0183076
7981.83	0.0186286
7990.66	0.0188665
8001.69	0.019138
8010.51	0.0193328
8021.54	0.0195462
8030.37	0.0196913
8041.4	0.0198387
8050.22	0.0199282
8061.25	0.0200028
8070.08	0.0200315
8081.11	0.0200271
8092.14	0.0199766
8100.96	0.019902
8112	0.0197651
8120.82	0.0196198
8131.85	0.0193928
8140.68	0.0191743
8151.71	0.0188547
8160.53	0.0185616
8171.56	0.0181479
8180.39	0.0177791
8191.42	0.0172709
8200.24	0.0168266
8211.27	0.0162244
8220.1	0.0157054
8231.13	0.0150107
8242.16	0.0142657
8250.98	0.013634
8262.01	0.0128008
8270.84	0.0121
8281.87	0.0111825
8290.69	0.0104162
8301.72	0.00941922
8310.55	0.00859144
8321.58	0.00752049
8330.4	0.00663597
8341.43	0.00549729
8350.26	0.00456125
8361.29	0.00336166
8370.11	0.00237978
8381.15	0.00112662
8392.18	-0.00015298
8401	-0.00119407
8412.03	-0.00251509
8420.86	-0.00358608
8431.89	-0.00494039
8440.71	-0.00603473
8451.74	-0.0074141
8460.57	-0.00852517
8471.6	-0.00992135
8480.42	-0.0110426
8491.45	-0.0124474
8500.28	-0.0135724
8511.31	-0.014978
8520.13	-0.0161005
8531.16	-0.0174992
8542.2	-0.0188908
8551.02	-0.0199976
8562.05	-0.0213712
8570.88	-0.0224609
8581.91	-0.0238098
8590.73	-0.0248773
8601.76	-0.0261954
8610.59	-0.027236
8621.62	-0.0285179
8630.44	-0.0295273
8641.47	-0.0307678
8650.3	-0.0317424
8661.33	-0.0329371
8670.15	-0.0338734
8681.18	-0.0350184
8690.01	-0.0359135
8701.04	-0.0370055
8712.07	-0.0380667
8720.89	-0.038893
8731.92	-0.0398969
8740.75	-0.0406766
8751.78	-0.0416212
8760.6	-0.0423527
8771.64	-0.0432365
8780.46	-0.0439189
8791.49	-0.0447407
8800.32	-0.0453732
8811.35	-0.0461324
8820.17	-0.0467147
8831.2	-0.0474111
8840.03	-0.0479432
8851.06	-0.048577
8862.09	-0.0491763
8870.91	-0.049631
8881.94	-0.0501688
8890.77	-0.0505747
8901.8	-0.0510521
8910.62	-0.0514103
8921.65	-0.0518288
8930.48	-0.0521405
8941.51	-0.0525019
8950.33	-0.0527688
8961.36	-0.0530752
8970.19	-0.0532989
8981.22	-0.0535525
8990.04	-0.0537349
9001.08	-0.0539382
9012.11	-0.0541145
9020.93	-0.0542369
9031.96	-0.054367
9040.79	-0.0544533
9051.82	-0.0545398
9060.64	-0.0545923
9071.67	-0.0546378
9080.5	-0.0546586
9091.53	-0.0546658
9100.35	-0.054657
9111.38	-0.0546284
9120.21	-0.0545919
9131.24	-0.0545299
9140.06	-0.0544677
9151.09	-0.0543745
9162.13	-0.054265
9170.95	-0.054166
9181.98	-0.0540285
9190.81	-0.0539078
9201.84	-0.0537441
9210.66	-0.0536031
9221.69	-0.0534148
9230.52	-0.0532547
9241.55	-0.0530433
9250.37	-0.0528653
9261.4	-0.052632
9270.23	-0.0524371
9281.26	-0.0521832
9290.08	-0.0519722
9301.11	-0.0516988
9312.14	-0.0514151
9320.97	-0.0511808
9332	-0.0508792
9340.82	-0.0506311
9351.85	-0.0503127
9360.68	-0.0500515
9371.71	-0.0497173
9380.53	-0.049444
9391.57	-0.049095
9400.39	-0.0488104
9411.42	-0.0484479
9420.25	-0.0481527
9431.28	-0.0477778
9440.1	-0.0474731
9451.13	-0.0470868
9462.16	-0.0466948
9470.99	-0.0463772
9482.02	-0.0459756
9490.84	-0.0456509
9501.87	-0.045241
9510.7	-0.0449101
9521.73	-0.044493
9530.55	-0.0441566
9541.58	-0.0437333
9550.41	-0.0433923
9561.44	-0.0429636
9570.26	-0.0426188
9581.29	-0.0421856
9590.12	-0.0418375
9601.15	-0.0414005
9612.18	-0.0409615
9621.01	-0.0406091
9632.04	-0.0401671
9640.86	-0.0398123
9651.89	-0.0393674
9660.72	-0.0390104
9671.75	-0.0385628
9680.57	-0.0382036
9691.6	-0.0377533
9700.43	-0.0373919
9711.46	-0.0369387
9720.28	-0.036575
9731.31	-0.0361188
9740.14	-0.0357525
9751.17	-0.035293
9762.2	-0.0348316
9771.02	-0.034461
9782.06	-0.0339959
9790.88	-0.0336223
9801.91	-0.0331534
9810.74	-0.0327767
9821.77	-0.0323039
9830.59	-0.0319241
9841.62	-0.0314473
9850.45	-0.0310645
9861.48	-0.0305841
9870.3	-0.0301984
9881.33	-0.0297147
9890.16	-0.0293267
9901.19	-0.0288403
9910.01	-0.0284504
9921.04	-0.0279622
9932.07	-0.0274734
9940.9	-0.0270821
9951.93	-0.0265931
9960.75	-0.0262022
9971.78	-0.0257144
9980.61	-0.0253251
9991.64	-0.0248399
10000.5	-0.0244534
10011.5	-0.0239726
10020.3	-0.0235903
10031.4	-0.0231156
10040.2	-0.0227389
10051.2	-0.0222723
10060	-0.0219028
10071.1	-0.021446
10082.1	-0.0209955
10090.9	-0.02064
10101.9	-0.0202021
10110.8	-0.0198575
10121.8	-0.0194341
10130.6	-0.0191016
10141.7	-0.0186941
10150.5	-0.0183749
10161.5	-0.0179848
10170.3	-0.01768
10181.4	-0.0173085
10190.2	-0.0170189
10201.2	-0.0166668
10210	-0.0163931
10221.1	-0.0160612
10232.1	-0.0157408
10240.9	-0.0154928
10252	-0.0151932
10260.8	-0.0149619
10271.8	-0.0146834
10280.6	-0.0144689
10291.7	-0.0142113
10300.5	-0.0140136
10311.5	-0.0137768
10320.4	-0.0135956
10331.4	-0.0133793
10340.2	-0.0132144
10351.2	-0.0130182
10360.1	-0.0128692
10371.1	-0.0126927
10382.1	-0.012527
10391	-0.0124021
10402	-0.0122555
10410.8	-0.0121457
10421.8	-0.0120178
10430.7	-0.0119229
10441.7	-0.0118136
10450.5	-0.0117334
10461.6	-0.0116424
10470.4	-0.0115769
10481.4	-0.0115041
10490.2	-0.0114531
10501.3	-0.0113986
10510.1	-0.0113623
10521.1	-0.011326
10532.1	-0.0112999
10541	-0.0112863
10552	-0.0112786
10560.8	-0.0112797
10571.9	-0.0112903
10580.7	-0.011306
10591.7	-0.0113348
10600.5	-0.0113649
10611.6	-0.0114115
10620.4	-0.0114558
10631.4	-0.0115197
10640.2	-0.0115776
10651.3	-0.011658
10660.1	-0.0117286
10671.1	-0.0118245
10682.2	-0.0119282
10691	-0.0120165
10702	-0.0121331
10710.8	-0.012231
10721.9	-0.0123584
10730.7	-0.012464
10741.7	-0.0125998
10750.6	-0.0127111
10761.6	-0.0128526
10770.4	-0.0129671
10781.4	-0.0131112
10790.3	-0.0132265
10801.3	-0.0133699
10810.1	-0.0134833
10821.2	-0.0136226
10832.2	-0.013758
10841	-0.0138629
10852	-0.0139887
10860.9	-0.0140845
10871.9	-0.0141973
10880.7	-0.0142814
10891.8	-0.014378
10900.6	-0.0144479
10911.6	-0.0145253
10920.4	-0.0145788
10931.5	-0.0146344
10940.3	-0.0146696
10951.3	-0.0147014
10960.1	-0.0147169
10971.2	-0.0147233
10982.2	-0.0147152
10991	-0.0146981
11002.1	-0.0146634
11010.9	-0.0146249
11021.9	-0.0145637
11030.7	-0.0145042
11041.8	-0.014417
11050.6	-0.0143373
11061.6	-0.0142255
11070.4	-0.0141268
11081.5	-0.0139924
11090.3	-0.0138764
11101.3	-0.0137217
11110.2	-0.0135906
11121.2	-0.0134183
11130	-0.0132745
11141	-0.013088
11152.1	-0.0128951
11160.9	-0.0127368
11171.9	-0.012535
11180.8	-0.0123711
11191.8	-0.012164
11200.6	-0.0119974
11211.6	-0.0117886
11220.5	-0.011622
11231.5	-0.011415
11240.3	-0.011251
11251.4	-0.0110488
11260.2	-0.0108899
11271.2	-0.0106954
11280	-0.0105436
11291.1	-0.0103591
11302.1	-0.010181
11310.9	-0.0100435
11322	-0.00987812
11330.8	-0.00975119
11341.8	-0.00959942
11350.6	-0.0094836
11361.7	-0.00934584
11370.5	-0.00924118
11381.5	-0.00911716
11390.3	-0.00902321
11401.4	-0.00891207
11410.2	-0.0088279
11421.2	-0.00872818
11430.1	-0.0086524
11441.1	-0.0085621
11452.1	-0.00847599
11460.9	-0.00840954
11472	-0.00832877
11480.8	-0.00826537
11491.8	-0.00818679
11500.6	-0.00812378
11511.7	-0.00804393
11520.5	-0.00797844
11531.5	-0.0078936
11540.4	-0.0078226
11551.4	-0.00772892
11560.2	-0.00764928
11571.2	-0.00754284
11580.1	-0.00745143
11591.1	-0.00732835
11602.1	-0.00719437
11611	-0.00707859
11622	-0.00692218
11630.8	-0.00678706
11641.8	-0.0066048
11650.7	-0.00644773
11661.7	-0.00623654
11670.5	-0.0060552
11681.6	-0.0058124
11690.4	-0.00560483
11701.4	-0.00532819
11710.2	-0.00509281
11721.3	-0.00478063
11730.1	-0.0045163
11741.1	-0.00416744
11752.2	-0.00379792
11761	-0.0034874
11772	-0.00308061
11780.8	-0.00274036
11791.9	-0.00229671
11800.7	-0.0019273
11811.7	-0.00144779
11820.5	-0.00105028
11831.6	-0.000536511
11840.4	-0.000112406
11851.4	0.000433456
11860.3	0.000882214
11871.3	0.00145749
11880.1	0.00192856
11891.1	0.00253011
11902.2	0.00314474
11911	0.00364511
11922	0.00428037
11930.8	0.00479567
11941.9	0.00544758
11950.7	0.00597453
11961.7	0.0066389
11970.6	0.00717412
11981.6	0.00784669
11990.4	0.00838675
12001.4	0.00906324
12010.3	0.00960475
12021.3	0.010281
12030.1	0.0108206
12041.2	0.0114926
12052.2	0.0121605
12061	0.0126912
12072	0.0133491
12080.9	0.0138705
12091.9	0.0145152
12100.7	0.0150247
12111.8	0.0156533
12120.6	0.0161491
12131.6	0.0167592
12140.4	0.0172393
12151.5	0.017829
12160.3	0.0182922
12171.3	0.01886
12180.1	0.0193052
12191.2	0.0198502
12202.2	0.0203822
12211	0.0207984
12222.1	0.0213069
12230.9	0.0217042
12241.9	0.0221891
12250.7	0.0225678
12261.8	0.0230296
12270.6	0.02339
12281.6	0.0238294
12290.5	0.0241721
12301.5	0.0245899
12310.3	0.0249157
12321.3	0.0253128
12330.2	0.0256225
12341.2	0.0260001
12350	0.0262946
12361	0.0266536
12372.1	0.0270028
12380.9	0.0272753
12391.9	0.0276074
12400.8	0.0278666
12411.8	0.0281826
12420.6	0.0284292
12431.6	0.0287296
12440.5	0.028964
12451.5	0.0292494
12460.3	0.0294718
12471.4	0.0297424
12480.2	0.029953
12491.2	0.030209
12500	0.0304079
12511.1	0.030649
12522.1	0.0308819
12530.9	0.0310622
12542	0.0312799
12550.8	0.0314479
12561.8	0.0316502
12570.6	0.0318056
12581.7	0.0319919
12590.5	0.0321345
12601.5	0.0323046
12610.3	0.0324341
12621.4	0.0325877
12630.2	0.032704
12641.2	0.032841
12650.1	0.0329439
12661.1	0.0330644
12672.1	0.0331758
12680.9	0.0332585
12692	0.033354
12700.8	0.0334243
12711.8	0.0335046
12720.7	0.0335632
12731.7	0.0336295
12740.5	0.0336773
12751.5	0.033731
12760.4	0.0337694
12771.4	0.0338122
12780.2	0.0338427
12791.2	0.0338767
12800.1	0.033901
12811.1	0.0339285
12822.1	0.0339535
12831	0.0339722
12842	0.0339949
12850.8	0.0340128
12861.8	0.034036
12870.7	0.0340556
12881.7	0.0340822
12890.5	0.0341057
12901.6	0.0341388
12910.4	0.0341687
12921.4	0.0342111
12930.2	0.0342497
12941.3	0.0343043
12950.1	0.0343537
12961.1	0.0344231
12972.2	0.0345018
12981	0.0345718
12992	0.0346686
13000.8	0.0347538
13011.9	0.0348705
13020.7	0.0349722
13031.7	0.0351099
13040.5	0.0352288
13051.6	0.0353882
13060.4	0.0355244
13071.4	0.0357055
13080.3	0.0358589
13091.3	0.0360611
13100.1	0.0362309
13111.1	0.0364528
13122.2	0.036685
13131	0.0368775
13142	0.037126
13150.9	0.0373305
13161.9	0.0375924
13170.7	0.037806
13181.7	0.0380774
13190.6	0.038297
13201.6	0.0385735
13210.4	0.0387952
13221.4	0.0390717
13230.3	0.0392913
13241.3	0.0395623
13250.1	0.0397751
13261.2	0.0400343
13272.2	0.0402843
13281	0.0404762
13292	0.0407041
13300.9	0.0408756
13311.9	0.0410744
13320.7	0.0412197
13331.8	0.0413821
13340.6	0.0414953
13351.6	0.041614
13360.4	0.0416892
13371.5	0.0417567
13380.3	0.041788
13391.3	0.041797
13400.1	0.0417787
13411.2	0.0417222
13420	0.0416487
13431	0.0415198
13442.1	0.0413478
13450.9	0.0411781
13461.9	0.0409241
13470.7	0.0406864
13481.8	0.0403448
13490.6	0.040035
13501.6	0.0396009
13510.5	0.0392153
13521.5	0.0386846
13530.3	0.0382203
13541.3	0.0375895
13550.2	0.0370442
13561.2	0.036311
13570	0.0356829
13581.1	0.0348457
13592.1	0.0339505
13600.9	0.0331925
13611.9	0.0321929
13620.8	0.0313517
13631.8	0.0302487
13640.6	0.0293255
13651.6	0.0281213
13660.5	0.0271182
13671.5	0.0258159
13680.3	0.0247359
13691.4	0.0233395
13700.2	0.0221863
13711.2	0.0207011
13720	0.0194791
13731.1	0.0179113
13742.1	0.0163004
13750.9	0.0149824
13762	0.0133003
13770.8	0.0119285
13781.8	0.0101835
13790.6	0.00876495
13801.7	0.00696619
13810.5	0.00550858
13821.5	0.00366595
13830.3	0.00217737
13841.4	0.000301316
13850.2	-0.00120967
13861.2	-0.00310819
13870.1	-0.00463265
13881.1	-0.00654229
13892.1	-0.0084531
13900.9	-0.00998016
13912	-0.0118839
13920.8	-0.0134006
13931.8	-0.0152855
13940.7	-0.0167824
13951.7	-0.0186366
13960.5	-0.0201042
13971.5	-0.021916
13980.4	-0.0233451
13991.4	-0.0251032
14000.2	-0.0264848
14011.3	-0.028178
14020.1	-0.0295035
14031.1	-0.0311213
14042.1	-0.0326929
14051	-0.0339149
14062	-0.035396
14070.8	-0.0365421
14081.9	-0.0379239
14090.7	-0.0389873
14101.7	-0.0402619
14110.5	-0.0412367
14121.6	-0.0423973
14130.4	-0.0432783
14141.4	-0.0443188
14150.2	-0.0451018
14161.3	-0.0460176
14170.1	-0.0466991
14181.1	-0.0474865
14192.2	-0.0482013
14201	-0.0487205
14212	-0.0493036
14220.8	-0.049717
14231.9	-0.0501677
14240.7	-0.0504753
14251.7	-0.0507942
14260.5	-0.050997
14271.6	-0.0511858
14280.4	-0.0512857
14291.4	-0.0513474
14300.3	-0.051347
14311.3	-0.0512857
14320.1	-0.0511888
14331.1	-0.0510093
14342.2	-0.0507668
14351	-0.0505287
14362	-0.0501778
14370.9	-0.0498558
14381.9	-0.0494037
14390.7	-0.0490038
14401.7	-0.0484585
14410.6	-0.0479874
14421.6	-0.0473573
14430.4	-0.046822
14441.5	-0.0461161
14450.3	-0.0455238
14461.3	-0.0447513
14470.1	-0.0441095
14481.2	-0.0432799
14492.2	-0.0424227
14501	-0.041719
14512.1	-0.0408193
14520.9	-0.0400854
14531.9	-0.0391527
14540.7	-0.038396
14551.8	-0.0374393
14560.6	-0.0366669
14571.6	-0.0356948
14580.4	-0.0349134
14591.5	-0.0339342
14600.3	-0.0331503
14611.3	-0.0321717
14620.2	-0.0313911
14631.2	-0.03042
14640	-0.0296481
14651	-0.0286909
14662.1	-0.0277439
14670.9	-0.0269947
14681.9	-0.0260699
14690.8	-0.0253403
14701.8	-0.0244421
14710.6	-0.0237352
14721.6	-0.0228672
14730.5	-0.0221856
14741.5	-0.0213504
14750.3	-0.020696
14761.3	-0.0198955
14770.2	-0.0192695
14781.2	-0.0185052
14790	-0.0179083
14801.1	-0.0171804
14812.1	-0.0164728
14820.9	-0.0159213
14831.9	-0.0152498
14840.8	-0.0147267
14851.8	-0.0140902
14860.6	-0.0135945
14871.7	-0.0129916
14880.5	-0.0125221
14891.5	-0.0119508
14900.3	-0.0115058
14911.4	-0.0109639
14920.2	-0.0105416
14931.2	-0.0100269
14940	-0.00962534
14951.1	-0.00913533
14962.1	-0.00865794
14970.9	-0.00828459
14982	-0.00782798
14990.8	-0.0074703
15001.8	-0.00703211
15010.6	-0.00668826
15021.7	-0.0062663
15030.5	-0.00593464
15041.5	-0.00552698
15050.4	-0.0052061
15061.4	-0.00481116
15070.2	-0.00449991
15081.2	-0.00411648
15090.1	-0.00381408
15101.1	-0.00344137
15112.1	-0.00307446
15121	-0.0027851
15132	-0.00242867
15140.8	-0.00214783
15151.8	-0.00180236
15160.7	-0.00153065
15171.7	-0.00119718
15180.5	-0.000935634
15191.5	-0.000615726
15200.4	-0.000365821
15211.4	-6.15811e-05
15220.2	0.00017479
15231.3	0.000460728
15240.1	0.000681255
15251.1	0.000945755
15262.1	0.00119681
15271	0.00138718
15282	0.00161098
15290.8	0.00177787
15301.9	0.00197014
15310.7	0.00210997
15321.7	0.00226603
15330.5	0.00237495
15341.6	0.00248984
15350.4	0.00256374
15361.4	0.00263222
15370.2	0.00266682
15381.3	0.00268344
15390.1	0.00267434
15401.1	0.00263353
15412.2	0.00255837
15421	0.00247234
15432	0.00233097
15440.8	0.00218974
15451.9	0.00197657
15460.7	0.00177569
15471.7	0.00148527
15480.6	0.00122046
15491.6	0.000847531
15500.4	0.000514694
15511.4	5.42909e-05
15520.3	-0.000350403
15531.3	-0.00090287
15540.1	-0.00138292
15551.2	-0.00203159
15562.2	-0.00273531
15571	-0.00333859
15582	-0.00414387
15590.9	-0.00482952
15601.9	-0.00573897
15610.7	-0.00650881
15621.7	-0.00752434
15630.6	-0.00837956
15641.6	-0.00950226
15650.4	-0.0104434
15661.5	-0.0116735
15670.3	-0.0127004
15681.3	-0.0140372
15690.1	-0.0151488
15701.2	-0.0165906
15712.2	-0.0180896
15721	-0.0193294
15732.1	-0.0209287
15740.9	-0.0222471
15751.9	-0.0239423
15760.7	-0.0253353
15771.8	-0.027121
15780.6	-0.0285838
15791.6	-0.0304532
15800.4	-0.03198
15811.5	-0.0339254
15820.3	-0.0355096
15831.3	-0.0375221
15840.2	-0.0391561
15851.2	-0.0412258
15860	-0.0429012
15871	-0.0450171
15882.1	-0.0471534
15890.9	-0.0488747
15901.9	-0.0510381
15910.8	-0.0527758
15921.8	-0.0549528
15930.6	-0.0566958
15941.6	-0.0588724
15950.5	-0.060609
15961.5	-0.0627701
15970.3	-0.0644883
15981.4	-0.0666186
15990.2	-0.0683058
16001.2	-0.0703893
16010	-0.0720327
16021.1	-0.0740533
16032.1	-0.0760319
16040.9	-0.0775811
16051.9	-0.0794715
16060.8	-0.0809436
16071.8	-0.0827294
16080.6	-0.0841115
16091.7	-0.0857768
16100.5	-0.0870563
16111.5	-0.0885857
16120.3	-0.0897504
16131.4	-0.091129
16140.2	-0.0921674
16151.2	-0.0933811
16160.1	-0.0942821
16171.1	-0.0953178
16182.1	-0.0962494
16190.9	-0.0969172
16202	-0.0976526
16210.8	-0.0981595
16221.8	-0.0986887
16230.6	-0.0990271
16241.7	-0.0993418
16250.5	-0.0995056
16261.5	-0.0995988
16270.4	-0.0995832
16281.4	-0.0994497
16290.2	-0.0992512
16301.2	-0.0988877
16310.1	-0.0985044
16321.1	-0.0979093
16332.1	-0.0971857
16341	-0.0965144
16352	-0.0955606
16360.8	-0.0947064
16371.8	-0.0935258
16380.7	-0.092492
16391.7	-0.0910899
16400.5	-0.0898816
16411.6	-0.0882651
16420.4	-0.0868887
16431.4	-0.0850668
16440.2	-0.0835302
16451.3	-0.0815135
16460.1	-0.0798259
16471.1	-0.077627
16482.2	-0.0753326
16491	-0.0734314
16502	-0.0709769
16510.8	-0.0689538
16521.9	-0.0663549
16530.7	-0.0642231
16541.7	-0.061497
16550.5	-0.0592706
16561.6	-0.0564352
16570.4	-0.0541287
16581.4	-0.0512028
16590.3	-0.0488315
16601.3	-0.0458343
16610.1	-0.0434139
16621.1	-0.040365
16632.2	-0.0372959
16641	-0.0348301
16652	-0.03174
16660.8	-0.0292653
16671.9	-0.0261736
16680.7	-0.0237053
16691.7	-0.0206311
16700.6	-0.0181843
16711.6	-0.0151462
16720.4	-0.0127354
16731.4	-0.00975104
16740.3	-0.00739004
16751.3	-0.00447611
16760.1	-0.00217784
16771.2	0.000650024
16782.2	0.00342379
16791	0.00560102
16802	0.008267
16810.9	0.010353
16821.9	0.0128991
16830.7	0.0148847
16841.8	0.0173003
16850.6	0.0191778
16861.6	0.0214539
16870.4	0.0232167
16881.5	0.025346
16890.3	0.026989
16901.3	0.0289658
16910.1	0.030485
16921.2	0.0323054
16930	0.0336983
16941	0.0353599
16952.1	0.0369329
16960.9	0.0381276
16971.9	0.0395413
16980.7	0.0406091
16991.8	0.0418653
17000.6	0.0428081
17011.6	0.0439097
17020.5	0.0447305
17031.5	0.0456819
17040.3	0.0463845
17051.3	0.0471912
17060.2	0.0477805
17071.2	0.048449
17080	0.0489306
17091	0.0494682
17102.1	0.0499366
17110.9	0.0502633
17121.9	0.0506137
17130.8	0.0508495
17141.8	0.051091
17150.6	0.0512433
17161.6	0.0513851
17170.5	0.0514615
17181.5	0.0515131
17190.3	0.0515211
17201.4	0.051492
17210.2	0.0514393
17221.2	0.0513389
17230	0.0512329
17241.1	0.0510706
17252.1	0.0508777
17260.9	0.0507032
17272	0.0504619
17280.8	0.050252
17291.8	0.0499705
17300.6	0.0497316
17311.7	0.0494175
17320.5	0.0491554
17331.5	0.0488158
17340.3	0.0485358
17351.4	0.048177
17360.2	0.0478839
17371.2	0.0475114
17380.1	0.0472095
17391.1	0.0468283
17402.1	0.0464441
17410.9	0.0461354
17422	0.0457488
17430.8	0.0454394
17441.8	0.0450533
17450.7	0.0447455
17461.7	0.0443625
17470.5	0.044058
17481.5	0.04368
17490.4	0.0433799
17501.4	0.0430081
17510.2	0.0427135
17521.3	0.0423487
17530.1	0.0420599
17541.1	0.0417025
17552.1	0.0413493
17561	0.0410697
17572	0.0407238
17580.8	0.0404499
17591.8	0.040111
17600.7	0.0398423
17611.7	0.0395097
17620.5	0.0392458
17631.6	0.0389187
17640.4	0.0386591
17651.4	0.0383369
17660.2	0.0380808
17671.3	0.0377627
17680.1	0.0375096
17691.1	0.0371949
17702.2	0.0368818
17711	0.0366324
17722	0.0363218
17730.8	0.0360743
17741.9	0.035766
17750.7	0.0355201
17761.7	0.0352137
17770.5	0.0349694
17781.6	0.034665
17790.4	0.0344223
17801.4	0.0341201
17810.3	0.0338794
17821.3	0.0335797
17830.1	0.0333412
17841.1	0.0330447
17852.2	0.0327503
17861	0.0325164
17872	0.0322264
17880.9	0.0319964
17891.9	0.0317118
17900.7	0.0314866
17911.7	0.0312084
17920.6	0.0309888
17931.6	0.0307184
17940.4	0.0305054
17951.5	0.0302439
17960.3	0.0300386
17971.3	0.0297872
17980.1	0.0295906
17991.2	0.0293507
18002.2	0.0291177
18011	0.0289365
18022	0.0287168
18030.9	0.0285467
18041.9	0.0283414
18050.7	0.0281831
18061.8	0.0279931
18070.6	0.0278475
18081.6	0.0276736
18090.4	0.0275411
18101.5	0.0273839
18110.3	0.0272649
18121.3	0.0271247
18130.2	0.0270195
18141.2	0.0268966
18150	0.0268052
18161	0.0266994
18172.1	0.026603
18180.9	0.0265326
18191.9	0.0264527
18200.7	0.0263952
18211.8	0.026331
18220.6	0.0262857
18231.6	0.0262361
18240.5	0.026202
18251.5	0.0261658
18260.3	0.0261418
18271.3	0.0261174
18280.2	0.026102
18291.2	0.0260874
18300	0.0260792
18311.1	0.0260724
18322.1	0.026069
18330.9	0.0260682
18341.9	0.0260688
18350.8	0.0260702
18361.8	0.0260722
18370.6	0.0260735
18381.7	0.0260741
18390.5	0.0260731
18401.5	0.0260692
18410.3	0.0260633
18421.4	0.0260518
18430.2	0.0260386
18441.2	0.0260162
18450	0.0259929
18461.1	0.0259563
18472.1	0.0259104
18480.9	0.0258662
18492	0.0258007
18500.8	0.0257396
18511.8	0.0256512
18520.6	0.0255704
18531.7	0.0254559
18540.5	0.0253527
18551.5	0.0252086
18560.4	0.0250806
18571.4	0.0249037
18580.2	0.0247482
18591.2	0.0245354
18600.1	0.0243501
18611.1	0.0240985
18622.1	0.0238243
18630.9	0.023588
18642	0.0232708
18650.8	0.0229991
18661.8	0.0226366
18670.7	0.0223278
18681.7	0.0219178
18690.5	0.0215703
18701.5	0.021111
18710.4	0.0207234
18721.4	0.0202134
18730.2	0.0197847
18741.3	0.0192227
18750.1	0.0187522
18761.1	0.0181375
18772.1	0.0174934
18781	0.0169568
18792	0.0162596
18800.8	0.0156807
18811.9	0.0149306
18820.7	0.0143096
18831.7	0.0135074
18840.5	0.0128451
18851.6	0.011992
18860.4	0.0112895
18871.4	0.0103869
18880.2	0.00964572
18891.3	0.00869583
18900.1	0.00791769
18911.1	0.00692293
18922.2	0.00590448
18931	0.00507332
18942	0.00401474
18950.8	0.00315285
18961.9	0.00205768
18970.7	0.00116805
18981.7	4.02399e-05
18990.6	-0.000873814
19001.6	-0.00202998
19010.4	-0.00296489
19021.4	-0.00414478
19030.3	-0.00509674
19041.3	-0.00629544
19050.1	-0.00726041
19061.2	-0.00847277
19072.2	-0.0096904
19081	-0.0106672
19092	-0.01189
19100.9	-0.0128687
19111.9	-0.0140912
19120.7	-0.0150673
19131.7	-0.0162836
19140.6	-0.0172526
19151.6	-0.0184571
19160.4	-0.0194142
19171.5	-0.0206011
19180.3	-0.0215419
19191.3	-0.0227054
19200.1	-0.0236253
19211.2	-0.0247599
19222.2	-0.0258761
19231	-0.0267546
19242.1	-0.0278334
19250.9	-0.0286799
19261.9	-0.0297161
19270.7	-0.0305266
19281.8	-0.0315152
19290.6	-0.0322858
19301.6	-0.0332222
19310.4	-0.0339492
19321.5	-0.0348292
19330.3	-0.0355093
19341.3	-0.0363286
19350.2	-0.0369588
19361.2	-0.0377139
19370	-0.0382913
19381	-0.038979
19392.1	-0.0396279
19400.9	-0.0401186
19411.9	-0.0406958
19420.8	-0.0411283
19431.8	-0.0416316
19440.6	-0.0420043
19451.6	-0.0424321
19460.5	-0.0427437
19471.5	-0.0430948
19480.3	-0.0433447
19491.4	-0.0436183
19500.2	-0.043806
19511.2	-0.0440018
19520	-0.0441274
19531.1	-0.0442458
19542.1	-0.0443213
19550.9	-0.0443512
19561.9	-0.0443506
19570.8	-0.0443201
19581.8	-0.0442449
19590.6	-0.0441554
19601.7	-0.0440076
19610.5	-0.043861
19621.5	-0.0436429
19630.3	-0.0434413
19641.4	-0.043156
19650.2	-0.0429019
19661.2	-0.0425528
19670	-0.042249
19681.1	-0.0418398
19692.1	-0.0413991
19700.9	-0.0410247
19712	-0.0405306
19720.8	-0.0401153
19731.8	-0.0395727
19740.6	-0.0391207
19751.7	-0.0385346
19760.5	-0.03805
19771.5	-0.0374259
19780.4	-0.0369131
19791.4	-0.0362567
19800.2	-0.0357203
19811.2	-0.0350375
19820.1	-0.0344824
19831.1	-0.0337791
19842.1	-0.0330671
19851	-0.0324926
19862	-0.0317698
19870.8	-0.0311892
19881.8	-0.0304618
19890.7	-0.02988
19901.7	-0.0291542
19910.5	-0.0285761
19921.6	-0.027858
19930.4	-0.0272885
19941.4	-0.0265841
19950.2	-0.0260277
19961.3	-0.0253426
19970.1	-0.024804
19981.1	-0.0241437
19992.1	-0.0234994
