0	0
11.8196	0
23.6393	0
35.4589	0
47.2785	0
59.0981	0
70.9178	0
82.7374	0
94.557	0
106.377	0
118.196	0
130.016	0
141.836	0
153.655	0
165.475	0
177.294	0
189.114	0
200.934	0
212.753	0
224.573	0
236.393	0
248.212	0
260.032	0
271.851	0
283.671	0
295.491	0
307.31	0
319.13	0
330.95	0
342.769	0
354.589	0
366.408	0
378.228	0
390.048	0
401.867	0
413.687	0
425.507	0
437.326	0
449.146	0
460.966	0
472.785	0
484.605	0
496.424	0
508.244	0
520.064	0
531.883	0
543.703	0
555.523	0
567.342	0
579.162	0
590.981	0
602.801	0
614.621	0
626.44	0
638.26	0
650.08	0
661.899	0
673.719	0
685.538	0
697.358	0
709.178	0
720.997	0
732.817	0
744.637	0
756.456	0
768.276	0
780.095	0
791.915	0
803.735	0
815.554	0
827.374	0
839.194	0
851.013	0
862.833	0
874.652	0
886.472	0
898.292	0
910.111	0
921.931	0
933.751	0
945.57	0
957.39	0
969.21	0
981.029	0
992.849	0
1004.67	0
1016.49	0
1028.31	0
1040.13	0
1051.95	0
1063.77	0
1075.59	0
1087.41	0
1099.23	0
1111.05	0
1122.86	0
1134.68	0
1146.5	0
1158.32	0
1170.14	0
1181.96	0
1193.78	0
1205.6	0
1217.42	0
1229.24	0
1241.06	0
1252.88	0
1264.7	0
1276.52	0
1288.34	0
1300.16	0
1311.98	0
1323.8	0
1335.62	0
1347.44	0
1359.26	0
1371.08	0
1382.9	0
1394.72	0
1406.54	0
1418.36	0
1430.18	0
1441.99	0
1453.81	0
1465.63	0
1477.45	0
1489.27	0
1501.09	0
1512.91	0
1524.73	0
1536.55	0
1548.37	0
1560.19	0
1572.01	0
1583.83	0
1595.65	0
1607.47	0
1619.29	0
1631.11	0
1642.93	0
1654.75	0
1666.57	0
1678.39	0
1690.21	0
1702.03	0
1713.85	0
1725.67	0
1737.49	0
1749.3	0
1761.12	0
1772.94	0
1784.76	0
1796.58	0
1808.4	0
1820.22	0
1832.04	0
1843.86	0
1855.68	0
1867.5	0
1879.32	0
1891.14	0
1902.96	0
1914.78	0
1926.6	0
1938.42	0
1950.24	0
1962.06	0
1973.88	0
1985.7	0
1997.52	0
2009.34	0
2021.16	0
2032.98	0
2044.8	0
2056.62	0
2068.43	0
2080.25	0
2092.07	0
2103.89	0
2115.71	0
2127.53	0
2139.35	0
2151.17	0
2162.99	0
2174.81	0
2186.63	0
2198.45	0
2210.27	0
2222.09	0
2233.91	0
2245.73	0
2257.55	0
2269.37	0
2281.19	0
2293.01	0
2304.83	0
2316.65	0
2328.47	0
2340.29	0
2352.11	0
2363.93	0
2375.75	0
2387.56	0
2399.38	0
2411.2	0
2423.02	0
2434.84	0
2446.66	0
2458.48	0
2470.3	0
2482.12	0
2493.94	0
2505.76	0
2517.58	-9.09495e-13
2529.4	-9.09495e-13
2541.22	-1.81899e-12
2553.04	-2.72848e-12
2564.86	-4.54747e-12
2576.68	-6.36646e-12
2588.5	-1.00044e-11
2600.32	-1.45519e-11
2612.14	-2.18279e-11
2623.96	-3.18323e-11
2635.78	-4.63842e-11
2647.6	-6.73026e-11
2659.42	-9.73159e-11
2671.24	-1.40062e-10
2683.06	-1.99179e-10
2694.88	-2.81943e-10
2706.69	-3.9654e-10
2718.51	-5.54792e-10
2730.33	-7.71252e-10
2742.15	-1.06775e-09
2753.97	-1.46974e-09
2765.79	-2.0118e-09
2777.61	-2.74122e-09
2789.43	-3.7162e-09
2801.25	-5.01313e-09
2813.07	-6.72935e-09
2824.89	-8.99036e-09
2836.71	-1.19553e-08
2848.53	-1.58252e-08
2860.35	-2.0852e-08
2872.17	-2.73521e-08
2883.99	-3.57195e-08
2895.81	-4.64452e-08
2907.63	-6.01322e-08
2919.45	-7.75244e-08
2931.27	-9.95324e-08
2943.09	-1.27265e-07
2954.91	-1.6207e-07
2966.73	-2.05575e-07
2978.55	-2.59738e-07
2990.37	-3.2691e-07
3002.19	-4.09892e-07
3014	-5.12018e-07
3025.82	-6.37237e-07
3037.64	-7.90204e-07
3049.46	-9.76394e-07
3061.28	-1.20221e-06
3073.1	-1.47513e-06
3084.92	-1.80382e-06
3096.74	-2.19835e-06
3108.56	-2.67029e-06
3120.38	-3.23298e-06
3132.2	-3.90166e-06
3144.02	-4.69375e-06
3155.84	-5.62905e-06
3167.66	-6.73e-06
3179.48	-8.02195e-06
3191.3	-9.53345e-06
3203.12	-1.12965e-05
3214.94	-1.3347e-05
3226.76	-1.57247e-05
3238.58	-1.84742e-05
3250.4	-2.16445e-05
3262.21	-2.52899e-05
3274.03	-2.94702e-05
3285.85	-3.42509e-05
3297.67	-3.97038e-05
3309.49	-4.5907e-05
3321.31	-5.29456e-05
3333.13	-6.09118e-05
3344.95	-6.99052e-05
3356.77	-8.00332e-05
3368.59	-9.1411e-05
3380.41	-0.000104162
3392.23	-0.000118418
3404.05	-0.00013432
3415.87	-0.000152016
3427.69	-0.000171663
3439.51	-0.000193428
3451.32	-0.000217484
3463.14	-0.000244014
3474.96	-0.000273208
3486.78	-0.000305264
3498.6	-0.000340386
3510.42	-0.000378786
3522.24	-0.000420681
3534.06	-0.000466291
3545.88	-0.000515841
3557.7	-0.000569559
3569.52	-0.000627674
3581.34	-0.000690415
3593.16	-0.000758006
3604.98	-0.00083067
3616.79	-0.000908622
3628.61	-0.00099207
3640.43	-0.00108121
3652.25	-0.00117622
3664.07	-0.00127727
3675.89	-0.00138449
3687.71	-0.00149801
3699.53	-0.00161792
3711.35	-0.00174426
3723.17	-0.00187707
3734.99	-0.0020163
3746.81	-0.0021619
3758.62	-0.00231372
3770.44	-0.00247159
3782.26	-0.00263524
3794.08	-0.00280435
3805.9	-0.0029785
3817.72	-0.0031572
3829.54	-0.00333986
3841.36	-0.00352577
3853.18	-0.00371414
3865	-0.00390403
3876.82	-0.00409439
3888.63	-0.00428404
3900.45	-0.00447163
3912.27	-0.00465568
3924.09	-0.00483455
3935.91	-0.00500641
3947.73	-0.00516929
3959.55	-0.00532101
3971.37	-0.00545922
3983.19	-0.00558135
3995.01	-0.00568465
4006.83	-0.00576618
4018.64	-0.00582276
4030.46	-0.00585104
4042.28	-0.00584742
4054.1	-0.00580811
4065.92	-0.00572913
4077.74	-0.00560628
4089.56	-0.00543515
4101.38	-0.00521116
4113.2	-0.00492953
4125.02	-0.00458533
4136.84	-0.00417345
4148.66	-0.00368864
4160.47	-0.00312552
4172.29	-0.00247862
4184.11	-0.00174235
4195.93	-0.00091107
4207.75	2.08983e-05
4219.57	0.00105925
4231.39	0.00220968
4243.21	0.00347781
4255.03	0.00486921
4266.85	0.00638932
4278.67	0.00804345
4290.49	0.00983671
4302.31	0.011774
4314.13	0.01386
4325.94	0.016099
4337.76	0.018495
4349.58	0.0210516
4361.4	0.0237721
4373.22	0.0266591
4385.04	0.0297151
4396.86	0.0329415
4408.68	0.0363397
4420.5	0.0399102
4432.32	0.0436529
4444.14	0.047567
4455.96	0.0516511
4467.78	0.055903
4479.6	0.0603199
4491.42	0.064898
4503.24	0.0696329
4515.06	0.0745194
4526.88	0.0795514
4538.7	0.0847222
4550.52	0.090024
4562.34	0.0954486
4574.15	0.100987
4585.97	0.106628
4597.79	0.112362
4609.61	0.118178
4621.43	0.124063
4633.25	0.130004
4645.07	0.135987
4656.89	0.142
4668.71	0.148027
4680.53	0.154053
4692.35	0.160062
4704.17	0.166039
4715.99	0.171967
4727.81	0.177829
4739.63	0.18361
4751.45	0.189291
4763.27	0.194856
4775.09	0.200288
4786.91	0.205569
4798.73	0.210684
4810.55	0.215615
4822.37	0.220346
4834.19	0.22486
4846.01	0.229143
4857.82	0.233178
4869.64	0.236952
4881.46	0.240451
4893.28	0.24366
4905.1	0.246568
4916.92	0.249163
4928.74	0.251433
4940.56	0.253368
4952.38	0.25496
4964.2	0.2562
4976.02	0.257081
4987.84	0.257597
4999.66	0.257744
5011.48	0.257516
5023.3	0.256911
5035.12	0.255928
5046.94	0.254566
5058.76	0.252827
5070.58	0.250711
5082.4	0.248221
5094.22	0.245363
5106.04	0.242141
5117.86	0.238561
5129.68	0.234632
5141.49	0.230361
5153.31	0.225758
5165.13	0.220835
5176.95	0.215601
5188.77	0.210071
5200.59	0.204256
5212.41	0.198172
5224.23	0.191833
5236.05	0.185254
5247.87	0.178453
5259.69	0.171445
5271.51	0.164248
5283.33	0.15688
5295.15	0.149358
5306.97	0.141702
5318.79	0.133929
5330.61	0.126059
5342.43	0.118111
5354.25	0.110104
5366.07	0.102056
5377.89	0.0939858
5389.71	0.0859131
5401.53	0.0778558
5413.35	0.0698319
5425.16	0.0618592
5436.98	0.0539551
5448.8	0.0461362
5460.62	0.0384189
5472.44	0.0308189
5484.26	0.0233512
5496.08	0.01603
5507.9	0.00886907
5519.72	0.00188118
5531.54	-0.00492165
5543.36	-0.0115282
5555.18	-0.0179282
5567	-0.0241122
5578.82	-0.0300716
5590.64	-0.0357988
5602.46	-0.0412872
5614.28	-0.046531
5626.1	-0.0515253
5637.92	-0.0562664
5649.74	-0.0607511
5661.56	-0.0649775
5673.38	-0.0689444
5685.2	-0.0726516
5697.02	-0.0760996
5708.84	-0.0792898
5720.65	-0.0822245
5732.47	-0.0849067
5744.29	-0.0873401
5756.11	-0.089529
5767.93	-0.0914786
5779.75	-0.0931947
5791.57	-0.0946834
5803.39	-0.0959516
5815.21	-0.0970065
5827.03	-0.097856
5838.85	-0.0985081
5850.67	-0.0989712
5862.49	-0.0992542
5874.31	-0.0993661
5886.13	-0.099316
5897.95	-0.0991134
5909.77	-0.0987676
5921.59	-0.0982883
5933.41	-0.0976849
5945.23	-0.0969671
5957.05	-0.0961442
5968.87	-0.0952257
5980.69	-0.0942208
5992.51	-0.0931385
6004.33	-0.0919878
6016.15	-0.0907772
6027.96	-0.0895153
6039.78	-0.0882099
6051.6	-0.086869
6063.42	-0.0855001
6075.24	-0.0841101
6087.06	-0.0827061
6098.88	-0.0812942
6110.7	-0.0798807
6122.52	-0.0784711
6134.34	-0.0770707
6146.16	-0.0756843
6157.98	-0.0743165
6169.8	-0.0729713
6181.62	-0.0716525
6193.44	-0.0703632
6205.26	-0.0691066
6217.08	-0.0678852
6228.9	-0.066701
6240.72	-0.0655562
6252.54	-0.064452
6264.36	-0.0633899
6276.18	-0.0623706
6288	-0.0613947
6299.82	-0.0604627
6311.64	-0.0595745
6323.46	-0.0587299
6335.27	-0.0579285
6347.09	-0.0571698
6358.91	-0.0564528
6370.73	-0.0557765
6382.55	-0.0551398
6394.37	-0.0545413
6406.19	-0.0539796
6418.01	-0.0534531
6429.83	-0.0529601
6441.65	-0.0524988
6453.47	-0.0520674
6465.29	-0.051664
6477.11	-0.0512866
6488.93	-0.0509332
6500.75	-0.0506019
6512.57	-0.0502906
6524.39	-0.0499972
6536.21	-0.0497199
6548.03	-0.0494564
6559.85	-0.049205
6571.67	-0.0489636
6583.49	-0.0487304
6595.31	-0.0485034
6607.13	-0.048281
6618.95	-0.0480612
6630.77	-0.0478426
6642.59	-0.0476234
6654.4	-0.0474021
6666.22	-0.0471772
6678.04	-0.0469474
6689.86	-0.0467114
6701.68	-0.0464678
6713.5	-0.0462156
6725.32	-0.0459537
6737.14	-0.045681
6748.96	-0.0453968
6760.78	-0.0451002
6772.6	-0.0447904
6784.42	-0.0444669
6796.24	-0.044129
6808.06	-0.0437764
6819.88	-0.0434085
6831.7	-0.0430251
6843.52	-0.0426259
6855.34	-0.0422108
6867.16	-0.0417798
6878.98	-0.0413328
6890.8	-0.0408698
6902.62	-0.040391
6914.44	-0.0398967
6926.26	-0.0393871
6938.08	-0.0388625
6949.9	-0.0383234
6961.72	-0.0377701
6973.54	-0.0372033
6985.36	-0.0366235
6997.17	-0.0360312
7008.99	-0.0354273
7020.81	-0.0348123
7032.63	-0.0341872
7044.45	-0.0335525
7056.27	-0.0329093
7068.09	-0.0322584
7079.91	-0.0316006
7091.73	-0.030937
7103.55	-0.0302684
7115.37	-0.0295958
7127.19	-0.0289204
7139.01	-0.0282429
7150.83	-0.0275646
7162.65	-0.0268865
7174.47	-0.0262095
7186.29	-0.0255347
7198.11	-0.0248632
7209.93	-0.0241961
7221.75	-0.0235344
7233.57	-0.022879
7245.39	-0.0222311
7257.21	-0.0215917
7269.03	-0.0209617
7280.85	-0.0203421
7292.67	-0.0197338
7304.49	-0.0191379
7316.3	-0.0185552
7328.12	-0.0179865
7339.94	-0.0174328
7351.76	-0.0168947
7363.58	-0.0163731
7375.4	-0.0158688
7387.22	-0.0153823
7399.04	-0.0149143
7410.86	-0.0144655
7422.68	-0.0140364
7434.5	-0.0136275
7446.32	-0.0132393
7458.14	-0.0128721
7469.96	-0.0125264
7481.78	-0.0122024
7493.6	-0.0119005
7505.42	-0.0116207
7517.24	-0.0113634
7529.06	-0.0111286
7540.88	-0.0109162
7552.7	-0.0107265
7564.52	-0.0105592
7576.34	-0.0104142
7588.16	-0.0102915
7599.97	-0.0101908
7611.79	-0.0101119
7623.61	-0.0100544
7635.43	-0.010018
7647.25	-0.0100023
7659.07	-0.0100068
7670.89	-0.0100311
7682.71	-0.0100745
7694.53	-0.0101366
7706.35	-0.0102168
7718.17	-0.0103142
7729.99	-0.0104284
7741.81	-0.0105585
7753.63	-0.0107038
7765.45	-0.0108634
7777.27	-0.0110367
7789.09	-0.0112228
7800.91	-0.0114207
7812.73	-0.0116296
7824.55	-0.0118487
7836.37	-0.0120769
7848.19	-0.0123135
7860	-0.0125573
7871.82	-0.0128075
7883.64	-0.0130631
7895.46	-0.0133232
7907.28	-0.0135868
7919.1	-0.0138529
7930.92	-0.0141206
7942.74	-0.0143889
7954.56	-0.0146568
7966.38	-0.0149235
7978.2	-0.015188
7990.02	-0.0154494
8001.84	-0.0157068
8013.66	-0.0159594
8025.48	-0.0162061
8037.3	-0.0164463
8049.12	-0.0166791
8060.94	-0.0169038
8072.76	-0.0171194
8084.58	-0.0173254
8096.4	-0.017521
8108.22	-0.0177055
8120.03	-0.0178782
8131.85	-0.0180386
8143.67	-0.0181861
8155.49	-0.01832
8167.31	-0.01844
8179.13	-0.0185455
8190.95	-0.018636
8202.77	-0.0187112
8214.59	-0.0187706
8226.41	-0.018814
8238.23	-0.0188411
8250.05	-0.0188515
8261.87	-0.018845
8273.69	-0.0188215
8285.51	-0.0187808
8297.33	-0.0187227
8309.15	-0.0186473
8320.97	-0.0185543
8332.79	-0.0184439
8344.61	-0.0183161
8356.43	-0.0181708
8368.25	-0.0180083
8380.07	-0.0178285
8391.88	-0.0176317
8403.7	-0.0174181
8415.52	-0.0171878
8427.34	-0.0169411
8439.16	-0.0166782
8450.98	-0.0163996
8462.8	-0.0161054
8474.62	-0.015796
8486.44	-0.0154718
8498.26	-0.0151332
8510.08	-0.0147806
8521.9	-0.0144144
8533.72	-0.0140352
8545.54	-0.0136433
8557.36	-0.0132392
8569.18	-0.0128236
8581	-0.0123968
8592.82	-0.0119594
8604.64	-0.011512
8616.46	-0.0110551
8628.28	-0.0105892
8640.1	-0.0101151
8651.92	-0.00963321
8663.73	-0.00914416
8675.55	-0.00864854
8687.37	-0.00814697
8699.19	-0.00764005
8711.01	-0.00712838
8722.83	-0.00661258
8734.65	-0.00609326
8746.47	-0.00557102
8758.29	-0.00504647
8770.11	-0.00452022
8781.93	-0.00399287
8793.75	-0.00346502
8805.57	-0.00293726
8817.39	-0.00241018
8829.21	-0.00188435
8841.03	-0.00136035
8852.85	-0.000838748
8864.67	-0.000320085
8876.49	0.000195089
8888.31	0.000706242
8900.13	0.00121285
8911.95	0.00171441
8923.77	0.00221042
8935.59	0.0027004
8947.4	0.00318388
8959.22	0.0036604
8971.04	0.00412952
8982.86	0.00459083
8994.68	0.0050439
9006.5	0.00548836
9018.32	0.00592381
9030.14	0.00634992
9041.96	0.00676632
9053.78	0.0071727
9065.6	0.00756876
9077.42	0.0079542
9089.24	0.00832875
9101.06	0.00869217
9112.88	0.00904422
9124.7	0.00938469
9136.52	0.00971337
9148.34	0.0100301
9160.16	0.0103347
9171.98	0.0106271
9183.8	0.010907
9195.62	0.0111745
9207.44	0.0114294
9219.26	0.0116717
9231.07	0.0119013
9242.89	0.0121181
9254.71	0.0123222
9266.53	0.0125135
9278.35	0.0126921
9290.17	0.012858
9301.99	0.0130113
9313.81	0.0131519
9325.63	0.01328
9337.45	0.0133957
9349.27	0.013499
9361.09	0.01359
9372.91	0.013669
9384.73	0.0137359
9396.55	0.0137911
9408.37	0.0138345
9420.19	0.0138664
9432.01	0.013887
9443.83	0.0138964
9455.65	0.0138948
9467.47	0.0138824
9479.29	0.0138594
9491.11	0.013826
9502.93	0.0137824
9514.75	0.0137288
9526.56	0.0136654
9538.38	0.0135925
9550.2	0.0135103
9562.02	0.0134189
9573.84	0.0133186
9585.66	0.0132096
9597.48	0.0130921
9609.3	0.0129664
9621.12	0.0128326
9632.94	0.0126909
9644.76	0.0125416
9656.58	0.0123849
9668.4	0.0122209
9680.22	0.0120499
9692.04	0.0118721
9703.86	0.0116875
9715.68	0.0114965
9727.5	0.0112992
9739.32	0.0110957
9751.14	0.0108862
9762.96	0.0106709
9774.78	0.01045
9786.6	0.0102235
9798.42	0.00999163
9810.24	0.00975452
9822.06	0.0095123
9833.87	0.00926509
9845.69	0.00901301
9857.51	0.00875616
9869.33	0.00849466
9881.15	0.00822862
9892.97	0.00795812
9904.79	0.00768326
9916.61	0.00740414
9928.43	0.00712084
9940.25	0.00683344
9952.07	0.00654202
9963.89	0.00624666
9975.71	0.00594743
9987.53	0.00564441
9999.35	0.00533766
10011.2	0.00502725
10023	0.00471325
10034.8	0.00439573
10046.6	0.00407476
10058.4	0.00375039
10070.3	0.00342271
10082.1	0.00309177
10093.9	0.00275765
10105.7	0.00242042
10117.5	0.00208014
10129.4	0.0017369
10141.2	0.00139077
10153	0.00104182
10164.8	0.000690147
10176.6	0.000335827
10188.5	-2.10513e-05
10200.3	-0.000380397
10212.1	-0.000742117
10223.9	-0.00110611
10235.7	-0.00147228
10247.6	-0.00184053
10259.4	-0.00221074
10271.2	-0.0025828
10283	-0.0029566
10294.8	-0.00333202
10306.7	-0.00370894
10318.5	-0.00408724
10330.3	-0.00446679
10342.1	-0.00484746
10353.9	-0.00522912
10365.8	-0.00561163
10377.6	-0.00599486
10389.4	-0.00637867
10401.2	-0.00676291
10413	-0.00714745
10424.9	-0.00753214
10436.7	-0.00791685
10448.5	-0.00830142
10460.3	-0.00868571
10472.1	-0.00906959
10484	-0.0094529
10495.8	-0.0098355
10507.6	-0.0102173
10519.4	-0.010598
10531.2	-0.0109777
10543.1	-0.0113561
10554.9	-0.0117331
10566.7	-0.0121086
10578.5	-0.0124824
10590.3	-0.0128544
10602.1	-0.0132246
10614	-0.0135928
10625.8	-0.0139588
10637.6	-0.0143226
10649.4	-0.0146841
10661.2	-0.0150431
10673.1	-0.0153997
10684.9	-0.0157536
10696.7	-0.0161048
10708.5	-0.0164532
10720.3	-0.0167988
10732.2	-0.0171415
10744	-0.0174811
10755.8	-0.0178178
10767.6	-0.0181513
10779.4	-0.0184817
10791.3	-0.0188089
10803.1	-0.0191329
10814.9	-0.0194536
10826.7	-0.019771
10838.5	-0.0200851
10850.4	-0.0203959
10862.2	-0.0207033
10874	-0.0210073
10885.8	-0.021308
10897.6	-0.0216052
10909.5	-0.0218991
10921.3	-0.0221895
10933.1	-0.0224765
10944.9	-0.0227602
10956.7	-0.0230404
10968.6	-0.0233172
10980.4	-0.0235907
10992.2	-0.0238607
11004	-0.0241273
11015.8	-0.0243906
11027.7	-0.0246505
11039.5	-0.024907
11051.3	-0.0251601
11063.1	-0.0254098
11074.9	-0.0256561
11086.8	-0.0258991
11098.6	-0.0261386
11110.4	-0.0263748
11122.2	-0.0266075
11134	-0.0268368
11145.9	-0.0270626
11157.7	-0.0272849
11169.5	-0.0275036
11181.3	-0.0277188
11193.1	-0.0279305
11205	-0.0281384
11216.8	-0.0283427
11228.6	-0.0285432
11240.4	-0.02874
11252.2	-0.0289328
11264	-0.0291217
11275.9	-0.0293066
11287.7	-0.0294874
11299.5	-0.029664
11311.3	-0.0298364
11323.1	-0.0300043
11335	-0.0301678
11346.8	-0.0303267
11358.6	-0.030481
11370.4	-0.0306304
11382.2	-0.0307749
11394.1	-0.0309143
11405.9	-0.0310486
11417.7	-0.0311776
11429.5	-0.0313011
11441.3	-0.031419
11453.2	-0.0315312
11465	-0.0316375
11476.8	-0.0317378
11488.6	-0.0318319
11500.4	-0.0319197
11512.3	-0.032001
11524.1	-0.0320757
11535.9	-0.0321436
11547.7	-0.0322045
11559.5	-0.0322583
11571.4	-0.0323049
11583.2	-0.032344
11595	-0.0323756
11606.8	-0.0323995
11618.6	-0.0324154
11630.5	-0.0324234
11642.3	-0.0324231
11654.1	-0.0324145
11665.9	-0.0323975
11677.7	-0.0323718
11689.6	-0.0323374
11701.4	-0.0322941
11713.2	-0.0322417
11725	-0.0321803
11736.8	-0.0321096
11748.7	-0.0320295
11760.5	-0.0319399
11772.3	-0.0318407
11784.1	-0.0317318
11795.9	-0.0316132
11807.8	-0.0314847
11819.6	-0.0313462
11831.4	-0.0311977
11843.2	-0.0310391
11855	-0.0308703
11866.8	-0.0306913
11878.7	-0.030502
11890.5	-0.0303024
11902.3	-0.0300925
11914.1	-0.0298721
11925.9	-0.0296414
11937.8	-0.0294003
11949.6	-0.0291487
11961.4	-0.0288867
11973.2	-0.0286142
11985	-0.0283314
11996.9	-0.0280382
12008.7	-0.0277345
12020.5	-0.0274206
12032.3	-0.0270964
12044.1	-0.0267619
12056	-0.0264172
12067.8	-0.0260624
12079.6	-0.0256975
12091.4	-0.0253226
12103.2	-0.0249378
12115.1	-0.0245432
12126.9	-0.0241388
12138.7	-0.0237248
12150.5	-0.0233012
12162.3	-0.0228682
12174.2	-0.0224259
12186	-0.0219744
12197.8	-0.0215138
12209.6	-0.0210443
12221.4	-0.020566
12233.3	-0.020079
12245.1	-0.0195835
12256.9	-0.0190797
12268.7	-0.0185676
12280.5	-0.0180476
12292.4	-0.0175196
12304.2	-0.0169839
12316	-0.0164407
12327.8	-0.0158901
12339.6	-0.0153324
12351.5	-0.0147677
12363.3	-0.0141962
12375.1	-0.0136181
12386.9	-0.0130336
12398.7	-0.0124429
12410.6	-0.0118462
12422.4	-0.0112438
12434.2	-0.0106358
12446	-0.0100224
12457.8	-0.00940393
12469.7	-0.00878056
12481.5	-0.00815251
12493.3	-0.00752002
12505.1	-0.00688332
12516.9	-0.00624265
12528.7	-0.00559824
12540.6	-0.00495034
12552.4	-0.00429918
12564.2	-0.00364503
12576	-0.00298811
12587.8	-0.00232869
12599.7	-0.00166702
12611.5	-0.00100335
12623.3	-0.000337936
12635.1	0.000328959
12646.9	0.000997075
12658.8	0.00166615
12670.6	0.00233593
12682.4	0.00300613
12694.2	0.00367651
12706	0.00434678
12717.9	0.00501669
12729.7	0.00568596
12741.5	0.00635432
12753.3	0.00702151
12765.1	0.00768726
12777	0.00835129
12788.8	0.00901333
12800.6	0.00967312
12812.4	0.0103304
12824.2	0.0109849
12836.1	0.0116363
12847.9	0.0122844
12859.7	0.0129288
12871.5	0.0135695
12883.3	0.014206
12895.2	0.0148381
12907	0.0154655
12918.8	0.0160881
12930.6	0.0167054
12942.4	0.0173174
12954.3	0.0179236
12966.1	0.018524
12977.9	0.0191181
12989.7	0.0197058
13001.5	0.0202869
13013.4	0.020861
13025.2	0.021428
13037	0.0219876
13048.8	0.0225396
13060.6	0.0230837
13072.5	0.0236197
13084.3	0.0241475
13096.1	0.0246667
13107.9	0.0251772
13119.7	0.0256788
13131.5	0.0261712
13143.4	0.0266542
13155.2	0.0271278
13167	0.0275915
13178.8	0.0280453
13190.6	0.028489
13202.5	0.0289224
13214.3	0.0293453
13226.1	0.0297575
13237.9	0.0301589
13249.7	0.0305493
13261.6	0.0309285
13273.4	0.0312964
13285.2	0.0316528
13297	0.0319976
13308.8	0.0323306
13320.7	0.0326517
13332.5	0.0329608
13344.3	0.0332576
13356.1	0.0335422
13367.9	0.0338143
13379.8	0.0340739
13391.6	0.0343208
13403.4	0.034555
13415.2	0.0347762
13427	0.0349845
13438.9	0.0351797
13450.7	0.0353617
13462.5	0.0355304
13474.3	0.0356858
13486.1	0.0358277
13498	0.0359561
13509.8	0.036071
13521.6	0.0361721
13533.4	0.0362596
13545.2	0.0363332
13557.1	0.036393
13568.9	0.0364389
13580.7	0.0364709
13592.5	0.0364888
13604.3	0.0364928
13616.2	0.0364826
13628	0.0364584
13639.8	0.03642
13651.6	0.0363674
13663.4	0.0363007
13675.3	0.0362197
13687.1	0.0361246
13698.9	0.0360152
13710.7	0.0358916
13722.5	0.0357538
13734.3	0.0356018
13746.2	0.0354355
13758	0.0352551
13769.8	0.0350605
13781.6	0.0348517
13793.4	0.0346288
13805.3	0.0343918
13817.1	0.0341407
13828.9	0.0338756
13840.7	0.0335965
13852.5	0.0333036
13864.4	0.0329967
13876.2	0.0326761
13888	0.0323417
13899.8	0.0319937
13911.6	0.0316321
13923.5	0.031257
13935.3	0.0308685
13947.1	0.0304667
13958.9	0.0300517
13970.7	0.0296236
13982.6	0.0291825
13994.4	0.0287285
14006.2	0.0282618
14018	0.0277825
14029.8	0.0272907
14041.7	0.0267866
14053.5	0.0262704
14065.3	0.0257422
14077.1	0.0252021
14088.9	0.0246504
14100.8	0.0240871
14112.6	0.0235126
14124.4	0.022927
14136.2	0.0223305
14148	0.0217234
14159.9	0.0211058
14171.7	0.0204779
14183.5	0.0198401
14195.3	0.0191925
14207.1	0.0185353
14219	0.017869
14230.8	0.0171936
14242.6	0.0165096
14254.4	0.0158171
14266.2	0.0151165
14278.1	0.014408
14289.9	0.013692
14301.7	0.0129688
14313.5	0.0122387
14325.3	0.011502
14337.2	0.0107591
14349	0.0100102
14360.8	0.00925587
14372.6	0.00849633
14384.4	0.00773196
14396.2	0.00696316
14408.1	0.0061903
14419.9	0.00541376
14431.7	0.00463394
14443.5	0.00385124
14455.3	0.00306607
14467.2	0.00227884
14479	0.00148998
14490.8	0.000699896
14502.6	-9.09715e-05
14514.4	-0.000882189
14526.3	-0.00167332
14538.1	-0.00246391
14549.9	-0.00325353
14561.7	-0.00404171
14573.5	-0.004828
14585.4	-0.00561195
14597.2	-0.00639309
14609	-0.00717097
14620.8	-0.00794511
14632.6	-0.00871506
14644.5	-0.00948034
14656.3	-0.0102405
14668.1	-0.0109951
14679.9	-0.0117436
14691.7	-0.0124856
14703.6	-0.0132206
14715.4	-0.0139481
14727.2	-0.0146678
14739	-0.0153791
14750.8	-0.0160816
14762.7	-0.0167749
14774.5	-0.0174585
14786.3	-0.018132
14798.1	-0.018795
14809.9	-0.019447
14821.8	-0.0200876
14833.6	-0.0207165
14845.4	-0.0213332
14857.2	-0.0219373
14869	-0.0225285
14880.9	-0.0231065
14892.7	-0.0236708
14904.5	-0.0242212
14916.3	-0.0247572
14928.1	-0.0252786
14940	-0.0257851
14951.8	-0.0262764
14963.6	-0.0267522
14975.4	-0.0272122
14987.2	-0.0276563
14999	-0.0280841
15010.9	-0.0284955
15022.7	-0.0288903
15034.5	-0.0292683
15046.3	-0.0296293
15058.1	-0.0299732
15070	-0.0302998
15081.8	-0.0306091
15093.6	-0.030901
15105.4	-0.0311754
15117.2	-0.0314322
15129.1	-0.0316714
15140.9	-0.031893
15152.7	-0.032097
15164.5	-0.0322834
15176.3	-0.0324523
15188.2	-0.0326036
15200	-0.0327376
15211.8	-0.0328543
15223.6	-0.0329537
15235.4	-0.0330361
15247.3	-0.0331016
15259.1	-0.0331504
15270.9	-0.0331826
15282.7	-0.0331985
15294.5	-0.0331982
15306.4	-0.033182
15318.2	-0.0331502
15330	-0.0331031
15341.8	-0.0330409
15353.6	-0.0329638
15365.5	-0.0328724
15377.3	-0.0327667
15389.1	-0.0326473
15400.9	-0.0325144
15412.7	-0.0323685
15424.6	-0.0322098
15436.4	-0.0320388
15448.2	-0.0318558
15460	-0.0316613
15471.8	-0.0314557
15483.7	-0.0312394
15495.5	-0.0310128
15507.3	-0.0307763
15519.1	-0.0305304
15530.9	-0.0302756
15542.8	-0.0300122
15554.6	-0.0297407
15566.4	-0.0294615
15578.2	-0.0291751
15590	-0.028882
15601.9	-0.0285826
15613.7	-0.0282773
15625.5	-0.0279666
15637.3	-0.0276509
15649.1	-0.0273307
15660.9	-0.0270063
15672.8	-0.0266783
15684.6	-0.026347
15696.4	-0.0260128
15708.2	-0.0256762
15720	-0.0253375
15731.9	-0.0249972
15743.7	-0.0246557
15755.5	-0.0243132
15767.3	-0.0239702
15779.1	-0.023627
15791	-0.023284
15802.8	-0.0229414
15814.6	-0.0225997
15826.4	-0.0222591
15838.2	-0.0219199
15850.1	-0.0215823
15861.9	-0.0212467
15873.7	-0.0209134
15885.5	-0.0205824
15897.3	-0.0202542
15909.2	-0.0199288
15921	-0.0196065
15932.8	-0.0192875
15944.6	-0.018972
15956.4	-0.01866
15968.3	-0.0183518
15980.1	-0.0180474
15991.9	-0.017747
16003.7	-0.0174507
16015.5	-0.0171586
16027.4	-0.0168707
16039.2	-0.0165871
16051	-0.0163079
16062.8	-0.0160331
16074.6	-0.0157627
16086.5	-0.0154967
16098.3	-0.0152351
16110.1	-0.0149779
16121.9	-0.0147251
16133.7	-0.0144766
16145.6	-0.0142325
16157.4	-0.0139926
16169.2	-0.0137569
16181	-0.0135253
16192.8	-0.0132977
16204.7	-0.0130741
16216.5	-0.0128543
16228.3	-0.0126382
16240.1	-0.0124258
16251.9	-0.0122169
16263.7	-0.0120113
16275.6	-0.0118091
16287.4	-0.01161
16299.2	-0.0114138
16311	-0.0112206
16322.8	-0.01103
16334.7	-0.010842
16346.5	-0.0106565
16358.3	-0.0104732
16370.1	-0.0102921
16381.9	-0.0101129
16393.8	-0.00993558
16405.6	-0.00975993
16417.4	-0.00958582
16429.2	-0.00941309
16441	-0.0092416
16452.9	-0.00907122
16464.7	-0.00890179
16476.5	-0.00873317
16488.3	-0.00856524
16500.1	-0.00839786
16512	-0.0082309
16523.8	-0.00806424
16535.6	-0.00789775
16547.4	-0.00773132
16559.2	-0.00756484
16571.1	-0.0073982
16582.9	-0.0072313
16594.7	-0.00706405
16606.5	-0.00689635
16618.3	-0.00672811
16630.2	-0.00655927
16642	-0.00638974
16653.8	-0.00621946
16665.6	-0.00604836
16677.4	-0.00587639
16689.3	-0.0057035
16701.1	-0.00552965
16712.9	-0.00535479
16724.7	-0.0051789
16736.5	-0.00500195
16748.4	-0.00482393
16760.2	-0.0046448
16772	-0.00446458
16783.8	-0.00428326
16795.6	-0.00410083
16807.5	-0.00391732
16819.3	-0.00373272
16831.1	-0.00354708
16842.9	-0.0033604
16854.7	-0.00317272
16866.5	-0.00298407
16878.4	-0.0027945
16890.2	-0.00260405
16902	-0.00241276
16913.8	-0.00222069
16925.6	-0.0020279
16937.5	-0.00183445
16949.3	-0.0016404
16961.1	-0.00144581
16972.9	-0.00125077
16984.7	-0.00105534
16996.6	-0.000859608
17008.4	-0.000663643
17020.2	-0.000467532
17032	-0.000271357
17043.8	-7.52055e-05
17055.7	0.000120835
17067.5	0.000316674
17079.3	0.000512222
17091.1	0.000707386
17102.9	0.000902072
17114.8	0.00109619
17126.6	0.00128964
17138.4	0.00148233
17150.2	0.00167416
17162	0.00186504
17173.9	0.00205488
17185.7	0.00224357
17197.5	0.00243103
17209.3	0.00261716
17221.1	0.00280187
17233	0.00298506
17244.8	0.00316664
17256.6	0.00334652
17268.4	0.00352462
17280.2	0.00370085
17292.1	0.00387511
17303.9	0.00404733
17315.7	0.00421743
17327.5	0.00438531
17339.3	0.00455091
17351.2	0.00471415
17363	0.00487495
17374.8	0.00503324
17386.6	0.00518895
17398.4	0.005342
17410.3	0.00549235
17422.1	0.00563991
17433.9	0.00578464
17445.7	0.00592647
17457.5	0.00606534
17469.4	0.00620121
17481.2	0.00633403
17493	0.00646373
17504.8	0.00659029
17516.6	0.00671365
17528.4	0.00683378
17540.3	0.00695063
17552.1	0.00706418
17563.9	0.00717439
17575.7	0.00728123
17587.5	0.00738467
17599.4	0.00748469
17611.2	0.00758127
17623	0.00767439
17634.8	0.00776403
17646.6	0.00785017
17658.5	0.00793281
17670.3	0.00801193
17682.1	0.00808753
17693.9	0.0081596
17705.7	0.00822814
17717.6	0.00829316
17729.4	0.00835464
17741.2	0.0084126
17753	0.00846705
17764.8	0.00851799
17776.7	0.00856543
17788.5	0.00860938
17800.3	0.00864987
17812.1	0.00868691
17823.9	0.00872051
17835.8	0.0087507
17847.6	0.0087775
17859.4	0.00880094
17871.2	0.00882103
17883	0.00883782
17894.9	0.00885133
17906.7	0.00886159
17918.5	0.00886863
17930.3	0.00887249
17942.1	0.00887321
17954	0.00887082
17965.8	0.00886536
17977.6	0.00885688
17989.4	0.00884541
18001.2	0.00883101
18013.1	0.0088137
18024.9	0.00879355
18036.7	0.0087706
18048.5	0.00874489
18060.3	0.00871648
18072.2	0.00868542
18084	0.00865177
18095.8	0.00861556
18107.6	0.00857687
18119.4	0.00853574
18131.2	0.00849223
18143.1	0.00844641
18154.9	0.00839832
18166.7	0.00834803
18178.5	0.0082956
18190.3	0.00824109
18202.2	0.00818456
18214	0.00812608
18225.8	0.00806571
18237.6	0.00800352
18249.4	0.00793956
18261.3	0.00787391
18273.1	0.00780663
18284.9	0.00773779
18296.7	0.00766746
18308.5	0.0075957
18320.4	0.00752259
18332.2	0.00744819
18344	0.00737257
18355.8	0.0072958
18367.6	0.00721796
18379.5	0.00713911
18391.3	0.00705932
18403.1	0.00697866
18414.9	0.00689721
18426.7	0.00681503
18438.6	0.00673219
18450.4	0.00664877
18462.2	0.00656483
18474	0.00648044
18485.8	0.00639568
18497.7	0.0063106
18509.5	0.00622529
18521.3	0.0061398
18533.1	0.00605421
18544.9	0.00596858
18556.8	0.00588298
18568.6	0.00579746
18580.4	0.00571211
18592.2	0.00562697
18604	0.00554211
18615.9	0.00545759
18627.7	0.00537348
18639.5	0.00528982
18651.3	0.00520668
18663.1	0.0051241
18675	0.00504215
18686.8	0.00496088
18698.6	0.00488034
18710.4	0.00480057
18722.2	0.00472162
18734.1	0.00464354
18745.9	0.00456637
18757.7	0.00449016
18769.5	0.00441493
18781.3	0.00434073
18793.1	0.00426758
18805	0.00419554
18816.8	0.00412461
18828.6	0.00405483
18840.4	0.00398623
18852.2	0.00391882
18864.1	0.00385263
18875.9	0.00378767
18887.7	0.00372396
18899.5	0.00366151
18911.3	0.00360032
18923.2	0.00354041
18935	0.00348178
18946.8	0.00342442
18958.6	0.00336834
18970.4	0.00331352
18982.3	0.00325997
18994.1	0.00320767
19005.9	0.00315661
19017.7	0.00310677
19029.5	0.00305813
19041.4	0.00301067
19053.2	0.00296436
19065	0.00291918
19076.8	0.0028751
19088.6	0.00283208
19100.5	0.00279009
19112.3	0.00274908
19124.1	0.00270903
19135.9	0.00266988
19147.7	0.00263158
19159.6	0.0025941
19171.4	0.00255738
19183.2	0.00252137
19195	0.00248601
19206.8	0.00245124
19218.7	0.00241701
19230.5	0.00238326
19242.3	0.00234992
19254.1	0.00231692
19265.9	0.00228421
19277.8	0.00225172
19289.6	0.00221937
19301.4	0.00218709
19313.2	0.00215482
19325	0.00212249
19336.9	0.00209001
19348.7	0.00205731
19360.5	0.00202432
19372.3	0.00199097
19384.1	0.00195717
19395.9	0.00192286
19407.8	0.00188795
19419.6	0.00185236
19431.4	0.00181603
19443.2	0.00177887
19455	0.00174081
19466.9	0.00170178
19478.7	0.00166169
19490.5	0.00162047
19502.3	0.00157805
19514.1	0.00153436
19526	0.00148932
19537.8	0.00144286
19549.6	0.00139492
19561.4	0.00134543
19573.2	0.00129431
19585.1	0.00124151
19596.9	0.00118696
19608.7	0.0011306
19620.5	0.00107237
19632.3	0.00101221
19644.2	0.000950071
19656	0.000885897
19667.8	0.000819637
19679.6	0.000751243
19691.4	0.00068067
19703.3	0.000607874
19715.1	0.000532815
19726.9	0.000455455
19738.7	0.000375759
19750.5	0.000293695
19762.4	0.000209233
19774.2	0.000122348
19786	3.30169e-05
19797.8	-5.87814e-05
19809.6	-0.000153063
19821.5	-0.000249843
19833.3	-0.000349131
19845.1	-0.000450935
19856.9	-0.000555259
19868.7	-0.000662104
19880.6	-0.000771467
19892.4	-0.000883344
19904.2	-0.000997726
19916	-0.0011146
19927.8	-0.00123395
19939.7	-0.00135576
19951.5	-0.00148001
19963.3	-0.00160666
19975.1	-0.0017357
19986.9	-0.00186709
19998.8	-0.0020008
