0	0
53.5566	0
107.113	0
160.67	0
214.226	0
267.783	0
321.339	0
374.896	0
428.453	0
482.009	0
535.566	0
589.122	0
642.679	0
696.235	0
749.792	0
803.349	0
856.905	0
910.462	0
964.018	0
1017.57	0
1071.13	0
1124.69	0
1178.24	0
1231.8	0
1285.36	0
1338.91	0
1392.47	0
1446.03	0
1499.58	0
1553.14	0
1606.7	0
1660.25	0
1713.81	0
1767.36	0
1820.92	-9.09495e-13
1874.47	-7.27596e-12
1928.03	-5.27507e-11
1981.58	-2.81943e-10
2035.14	-1.2169e-09
2088.69	-4.46471e-09
2142.25	-1.43655e-08
2195.8	-4.14566e-08
2249.36	-1.09048e-07
2302.91	-2.64682e-07
2356.47	-5.98498e-07
2410.02	-1.27027e-06
2463.57	-2.54581e-06
2517.13	-4.84097e-06
2570.68	-8.76732e-06
2624.24	-1.51675e-05
2677.79	-2.51207e-05
2731.35	-3.98897e-05
2784.9	-6.07728e-05
2838.46	-8.88182e-05
2892.01	-0.000124358
2945.57	-0.000166323
2999.12	-0.000211319
3052.68	-0.000252469
3106.23	-0.000278055
3159.79	-0.000270043
3213.34	-0.000202613
3266.9	-4.08528e-05
3320.46	0.000260202
3374.01	0.000755971
3427.57	0.00151199
3481.13	0.0026027
3534.68	0.00410916
3588.24	0.00611584
3641.8	0.00870638
3695.35	0.0119585
3748.91	0.0159386
3802.47	0.0206954
3856.02	0.0262549
3909.58	0.0326147
3963.14	0.03974
4016.69	0.0475606
4070.25	0.05597
4123.8	0.0648255
4177.36	0.0739513
4230.92	0.0831431
4284.47	0.0921741
4338.03	0.100804
4391.59	0.108786
4445.14	0.115881
4498.7	0.121861
4552.26	0.126528
4605.81	0.129712
4659.37	0.131288
4712.92	0.131175
4766.48	0.129344
4820.04	0.125816
4873.59	0.120662
4927.15	0.113999
4980.71	0.105986
5034.26	0.0968144
5087.82	0.0867031
5141.38	0.0758866
5194.93	0.0646072
5248.49	0.0531057
5302.05	0.041613
5355.6	0.0303432
5409.16	0.0194874
5462.72	0.00920916
5516.27	-0.000357914
5569.83	-0.00911198
5623.39	-0.0169827
5676.94	-0.0239299
5730.5	-0.0299415
5784.06	-0.0350297
5837.61	-0.0392284
5891.17	-0.042588
5944.73	-0.0451725
5998.28	-0.0470547
6051.84	-0.0483131
6105.39	-0.0490285
6158.95	-0.0492809
6212.51	-0.0491477
6266.06	-0.0487013
6319.62	-0.0480082
6373.18	-0.0471279
6426.73	-0.0461121
6480.29	-0.0450053
6533.85	-0.0438441
6587.4	-0.042658
6640.96	-0.0414697
6694.52	-0.0402961
6748.07	-0.0391484
6801.63	-0.0380335
6855.18	-0.0369541
6908.74	-0.0359098
6962.3	-0.0348979
7015.85	-0.0339137
7069.41	-0.0329511
7122.97	-0.0320032
7176.52	-0.0310629
7230.08	-0.030123
7283.63	-0.0291764
7337.19	-0.0282168
7390.75	-0.0272387
7444.3	-0.0262372
7497.86	-0.0252088
7551.41	-0.0241508
7604.97	-0.0230619
7658.53	-0.0219418
7712.08	-0.0207914
7765.64	-0.0196126
7819.2	-0.0184084
7872.75	-0.0171827
7926.31	-0.01594
7979.86	-0.0146858
8033.42	-0.0134259
8086.98	-0.0121666
8140.53	-0.0109143
8194.09	-0.00967577
8247.65	-0.00845756
8301.2	-0.00726616
8354.76	-0.00610781
8408.31	-0.00498839
8461.87	-0.00391336
8515.43	-0.00288767
8568.98	-0.00191572
8622.54	-0.0010013
8676.1	-0.000147612
8729.65	0.000642809
8783.21	0.00136804
8836.77	0.00202679
8890.32	0.00261834
8943.88	0.00314259
8997.43	0.00359992
9050.99	0.00399124
9104.55	0.00431789
9158.1	0.00458161
9211.66	0.00478451
9265.22	0.00492899
9318.77	0.00501769
9372.33	0.0050535
9425.89	0.00503945
9479.44	0.00497869
9533	0.00487446
9586.56	0.00473005
9640.11	0.00454876
9693.67	0.00433386
9747.23	0.00408858
9800.78	0.00381608
9854.34	0.00351941
9907.9	0.00320152
9961.45	0.00286519
10015	0.00251308
10068.6	0.0021477
10122.1	0.00177135
10175.7	0.0013862
10229.2	0.000994217
10282.8	0.000597216
10336.3	0.000196835
10389.9	-0.000205444
10443.5	-0.000608291
10497	-0.00101051
10550.6	-0.00141103
10604.1	-0.00180888
10657.7	-0.00220319
10711.2	-0.00259315
10764.8	-0.00297801
10818.4	-0.00335707
10871.9	-0.00372964
10925.5	-0.00409503
10979	-0.00445256
11032.6	-0.00480153
11086.1	-0.0051412
11139.7	-0.00547083
11193.3	-0.00578962
11246.8	-0.00609676
11300.4	-0.0063914
11353.9	-0.00667267
11407.5	-0.0069397
11461	-0.00719162
11514.6	-0.00742758
11568.1	-0.00764675
11621.7	-0.00784838
11675.3	-0.00803178
11728.8	-0.00819636
11782.4	-0.00834163
11835.9	-0.00846726
11889.5	-0.00857307
11943	-0.00865904
11996.6	-0.00872536
12050.2	-0.0087724
12103.7	-0.00880075
12157.3	-0.00881122
12210.8	-0.00880485
12264.4	-0.00878287
12317.9	-0.00874676
12371.5	-0.00869817
12425.1	-0.00863896
12478.6	-0.00857116
12532.2	-0.00849692
12585.7	-0.00841856
12639.3	-0.00833845
12692.8	-0.00825904
12746.4	-0.00818279
12799.9	-0.00811215
12853.5	-0.00804955
12907.1	-0.00799728
12960.6	-0.00795754
13014.2	-0.00793234
13067.7	-0.0079235
13121.3	-0.00793261
13174.8	-0.00796098
13228.4	-0.00800962
13282	-0.00807926
13335.5	-0.00817024
13389.1	-0.00828259
13442.6	-0.00841596
13496.2	-0.00856966
13549.7	-0.00874261
13603.3	-0.0089334
13656.9	-0.00914028
13710.4	-0.00936118
13764	-0.00959373
13817.5	-0.0098353
13871.1	-0.010083
13924.6	-0.0103339
13978.2	-0.0105846
14031.8	-0.0108318
14085.3	-0.0110723
14138.9	-0.0113024
14192.4	-0.0115189
14246	-0.0117183
14299.5	-0.0118975
14353.1	-0.0120533
14406.6	-0.0121829
14460.2	-0.0122835
14513.8	-0.0123528
14567.3	-0.0123886
14620.9	-0.0123891
14674.4	-0.0123528
14728	-0.0122785
14781.5	-0.0121655
14835.1	-0.0120132
14888.7	-0.0118217
14942.2	-0.0115912
14995.8	-0.0113223
15049.3	-0.011016
15102.9	-0.0106735
15156.4	-0.0102964
15210	-0.00988657
15263.6	-0.0094461
15317.1	-0.00897728
15370.7	-0.00848261
15424.2	-0.00796477
15477.8	-0.00742652
15531.3	-0.00687077
15584.9	-0.00630045
15638.4	-0.00571856
15692	-0.00512808
15745.6	-0.004532
15799.1	-0.00393323
15852.7	-0.00333463
15906.2	-0.00273895
15959.8	-0.00214883
16013.3	-0.00156679
16066.9	-0.000995195
16120.5	-0.000436241
16174	0.000108031
16227.6	0.000635763
16281.1	0.00114528
16334.7	0.00163509
16388.2	0.00210389
16441.8	0.00255057
16495.4	0.00297419
16548.9	0.003374
16602.5	0.00374942
16656	0.00410005
16709.6	0.00442562
16763.1	0.00472604
16816.7	0.00500137
16870.2	0.00525176
16923.8	0.00547752
16977.4	0.00567907
17030.9	0.00585691
17084.5	0.00601164
17138	0.00614395
17191.6	0.00625458
17245.1	0.00634436
17298.7	0.00641414
17352.3	0.00646482
17405.8	0.00649733
17459.4	0.00651262
17512.9	0.00651165
17566.5	0.0064954
17620	0.00646483
17673.6	0.0064209
17727.2	0.00636454
17780.7	0.00629669
17834.3	0.00621821
17887.8	0.00612998
17941.4	0.00603281
17994.9	0.00592749
18048.5	0.00581474
18102	0.00569525
18155.6	0.00556968
18209.2	0.0054386
18262.7	0.00530255
18316.3	0.00516203
18369.8	0.00501746
18423.4	0.00486924
18476.9	0.0047177
18530.5	0.00456314
18584.1	0.0044058
18637.6	0.00424588
18691.2	0.00408356
18744.7	0.00391896
18798.3	0.00375218
18851.8	0.0035833
18905.4	0.00341237
18959	0.00323941
19012.5	0.00306445
19066.1	0.0028875
19119.6	0.00270856
19173.2	0.00252763
19226.7	0.00234472
19280.3	0.00215985
19333.8	0.00197303
19387.4	0.00178431
19441	0.00159375
19494.5	0.00140142
19548.1	0.00120741
19601.6	0.00101185
19655.2	0.000814881
19708.7	0.000616675
19762.3	0.000417425
19815.9	0.000217351
19869.4	1.66959e-05
19923	-0.000184273
19976.5	-0.000385269
