0	0
13.2971	0
26.5942	0
39.8912	0
53.1883	0
66.4854	0
79.7825	0
93.0796	0
106.377	0
119.674	0
132.971	0
146.268	0
159.565	0
172.862	0
186.159	0
199.456	0
212.753	0
226.05	0
239.347	0
252.645	0
265.942	0
279.239	0
292.536	0
305.833	0
319.13	0
332.427	0
345.724	0
359.021	0
372.318	0
385.615	0
398.912	0
412.21	0
425.507	0
438.804	0
452.101	0
465.398	0
478.695	0
491.992	0
505.289	0
518.586	0
531.883	0
545.18	0
558.477	9.09495e-13
571.775	3.63798e-12
585.072	1.18234e-11
598.369	3.63798e-11
611.666	1.09139e-10
624.963	3.10138e-10
638.26	8.34007e-10
651.557	2.13095e-09
664.854	5.18503e-09
678.151	1.20544e-08
691.448	2.68519e-08
704.745	5.74564e-08
718.042	1.18386e-07
731.34	2.35405e-07
744.637	4.52666e-07
757.934	8.43373e-07
771.231	1.52519e-06
784.528	2.68177e-06
797.825	4.59202e-06
811.122	7.66867e-06
824.419	1.25079e-05
837.716	1.99516e-05
851.013	3.11641e-05
864.31	4.77242e-05
877.607	7.17349e-05
890.904	0.000105952
904.202	0.000153933
917.499	0.000220211
930.796	0.000310491
944.093	0.000431886
957.39	0.000593179
970.687	0.000805136
983.984	0.00108087
997.281	0.00143627
1010.58	0.00189049
1023.88	0.00246652
1037.17	0.00319182
1050.47	0.00409912
1063.77	0.00522715
1077.06	0.00662158
1090.36	0.00833594
1103.66	0.0104325
1116.95	0.0129834
1130.25	0.0160711
1143.55	0.0197895
1156.85	0.024244
1170.14	0.0295523
1183.44	0.0358435
1196.74	0.0432581
1210.03	0.0519468
1223.33	0.0620685
1236.63	0.0737886
1249.93	0.0872756
1263.22	0.102698
1276.52	0.120221
1289.82	0.139999
1303.11	0.162175
1316.41	0.186873
1329.71	0.214191
1343.01	0.244198
1356.3	0.276929
1369.6	0.312378
1382.9	0.350495
1396.19	0.391182
1409.49	0.434288
1422.79	0.479613
1436.08	0.526899
1449.38	0.575837
1462.68	0.626066
1475.98	0.677177
1489.27	0.728715
1502.57	0.780185
1515.87	0.83106
1529.16	0.880786
1542.46	0.928792
1555.76	0.974496
1569.06	1.01732
1582.35	1.05668
1595.65	1.09203
1608.95	1.12284
1622.24	1.14862
1635.54	1.16892
1648.84	1.18335
1662.14	1.19157
1675.43	1.19331
1688.73	1.18837
1702.03	1.17661
1715.32	1.15799
1728.62	1.13252
1741.92	1.10031
1755.21	1.06154
1768.51	1.01644
1781.81	0.965345
1795.11	0.908631
1808.4	0.846742
1821.7	0.780175
1835	0.709471
1848.29	0.635211
1861.59	0.558008
1874.89	0.478496
1888.19	0.397321
1901.48	0.315137
1914.78	0.232595
1928.08	0.150332
1941.37	0.0689708
1954.67	-0.0108934
1967.97	-0.0886981
1981.27	-0.163919
1994.56	-0.236073
2007.86	-0.304725
2021.16	-0.369491
2034.45	-0.430039
2047.75	-0.48609
2061.05	-0.537421
2074.34	-0.583866
2087.64	-0.625309
2100.94	-0.661689
2114.24	-0.692997
2127.53	-0.719267
2140.83	-0.740582
2154.13	-0.757064
2167.42	-0.76887
2180.72	-0.776193
2194.02	-0.779252
2207.32	-0.778292
2220.61	-0.773578
2233.91	-0.765388
2247.21	-0.754014
2260.5	-0.739756
2273.8	-0.722915
2287.1	-0.703795
2300.4	-0.682698
2313.69	-0.659917
2326.99	-0.635739
2340.29	-0.610443
2353.58	-0.584291
2366.88	-0.557535
2380.18	-0.530411
2393.47	-0.503138
2406.77	-0.47592
2420.07	-0.448943
2433.37	-0.422374
2446.66	-0.396365
2459.96	-0.37105
2473.26	-0.346546
2486.55	-0.322952
2499.85	-0.300353
2513.15	-0.278819
2526.45	-0.258404
2539.74	-0.23915
2553.04	-0.221084
2566.34	-0.204225
2579.63	-0.188578
2592.93	-0.17414
2606.23	-0.160897
2619.53	-0.148829
2632.82	-0.137908
2646.12	-0.1281
2659.42	-0.119367
2672.71	-0.111664
2686.01	-0.104944
2699.31	-0.099157
2712.6	-0.0942498
2725.9	-0.0901682
2739.2	-0.0868568
2752.5	-0.0842597
2765.79	-0.0823208
2779.09	-0.0809846
2792.39	-0.0801962
2805.68	-0.0799019
2818.98	-0.0800496
2832.28	-0.0805885
2845.58	-0.08147
2858.87	-0.0826476
2872.17	-0.084077
2885.47	-0.085716
2898.76	-0.0875253
2912.06	-0.0894676
2925.36	-0.0915082
2938.65	-0.0936152
2951.95	-0.0957588
2965.25	-0.0979117
2978.55	-0.100049
2991.84	-0.102148
3005.14	-0.104189
3018.44	-0.106153
3031.73	-0.108025
3045.03	-0.109789
3058.33	-0.111434
3071.63	-0.112948
3084.92	-0.114324
3098.22	-0.115553
3111.52	-0.116629
3124.81	-0.117548
3138.11	-0.118306
3151.41	-0.118901
3164.7	-0.119331
3178	-0.119597
3191.3	-0.119699
3204.59	-0.119638
3217.89	-0.119417
3231.19	-0.119038
3244.49	-0.118506
3257.78	-0.117824
3271.08	-0.116997
3284.38	-0.116031
3297.67	-0.114929
3310.97	-0.1137
3324.27	-0.112348
3337.56	-0.11088
3350.86	-0.109303
3364.16	-0.107623
3377.45	-0.105848
3390.75	-0.103985
3404.05	-0.10204
3417.34	-0.10002
3430.64	-0.0979339
3443.94	-0.095787
3457.23	-0.0935866
3470.53	-0.0913392
3483.83	-0.0890514
3497.12	-0.0867295
3510.42	-0.0843794
3523.72	-0.0820068
3537.01	-0.0796173
3550.31	-0.077216
3563.61	-0.0748075
3576.9	-0.0723964
3590.2	-0.0699868
3603.5	-0.0675822
3616.79	-0.0651861
3630.09	-0.0628013
3643.39	-0.0604305
3656.68	-0.0580757
3669.98	-0.0557388
3683.28	-0.0534212
3696.57	-0.0511241
3709.87	-0.0488481
3723.17	-0.0465938
3736.46	-0.0443613
3749.76	-0.0421505
3763.06	-0.039961
3776.35	-0.0377922
3789.65	-0.0356434
3802.95	-0.0335135
3816.24	-0.0314015
3829.54	-0.0293061
3842.84	-0.0272259
3856.13	-0.0251596
3869.43	-0.0231058
3882.72	-0.0210629
3896.02	-0.0190295
3909.32	-0.0170041
3922.61	-0.0149855
3935.91	-0.0129722
3949.21	-0.0109631
3962.5	-0.00895699
3975.8	-0.00695286
3989.1	-0.0049498
4002.39	-0.00294707
4015.69	-0.00094404
4028.99	0.00105978
4042.28	0.00306471
4055.58	0.00507094
4068.88	0.0070785
4082.17	0.00908729
4095.47	0.0110971
4108.76	0.0131074
4122.06	0.0151178
4135.36	0.0171277
4148.65	0.0191362
4161.95	0.0211425
4175.25	0.0231457
4188.54	0.0251446
4201.84	0.0271383
4215.14	0.0291255
4228.43	0.0311048
4241.73	0.0330751
4255.03	0.035035
4268.32	0.0369831
4281.62	0.038918
4294.92	0.0408381
4308.21	0.0427422
4321.51	0.0446286
4334.81	0.046496
4348.11	0.0483427
4361.4	0.0501673
4374.7	0.0519682
4388	0.0537439
4401.29	0.0554929
4414.59	0.0572135
4427.89	0.0589043
4441.18	0.0605636
4454.48	0.0621897
4467.78	0.0637812
4481.07	0.0653363
4494.37	0.0668534
4507.67	0.0683307
4520.97	0.0697666
4534.26	0.0711594
4547.56	0.0725072
4560.86	0.0738083
4574.15	0.075061
4587.45	0.0762634
4600.75	0.0774138
4614.05	0.0785104
4627.34	0.0795514
4640.64	0.080535
4653.94	0.0814595
4667.23	0.0823231
4680.53	0.0831243
4693.83	0.0838614
4707.12	0.0845329
4720.42	0.0851372
4733.72	0.085673
4747.02	0.0861391
4760.31	0.0865341
4773.61	0.0868571
4786.91	0.0871071
4800.2	0.0872832
4813.5	0.0873849
4826.8	0.0874117
4840.09	0.0873631
4853.39	0.087239
4866.69	0.0870394
4879.99	0.0867645
4893.28	0.0864146
4906.58	0.0859904
4919.88	0.0854924
4933.17	0.0849217
4946.47	0.0842792
4959.77	0.0835665
4973.07	0.0827848
4986.36	0.0819358
4999.66	0.0810213
5012.96	0.0800434
5026.25	0.0790041
5039.55	0.0779057
5052.85	0.0767506
5066.14	0.0755414
5079.44	0.0742808
5092.74	0.0729715
5106.04	0.0716164
5119.33	0.0702185
5132.63	0.0687808
5145.93	0.0673064
5159.22	0.0657986
5172.52	0.0642604
5185.82	0.0626952
5199.11	0.0611061
5212.41	0.0594965
5225.71	0.0578697
5239.01	0.0562288
5252.3	0.0545771
5265.6	0.0529178
5278.9	0.0512541
5292.19	0.0495891
5305.49	0.0479258
5318.79	0.0462673
5332.08	0.0446163
5345.38	0.0429759
5358.68	0.0413488
5371.98	0.0397376
5385.27	0.0381448
5398.57	0.0365731
5411.87	0.0350247
5425.16	0.033502
5438.46	0.032007
5451.76	0.0305418
5465.06	0.0291084
5478.35	0.0277085
5491.65	0.0263438
5504.95	0.0250159
5518.24	0.0237261
5531.54	0.0224759
5544.84	0.0212662
5558.13	0.0200982
5571.43	0.0189727
5584.73	0.0178905
5598.03	0.0168521
5611.32	0.0158582
5624.62	0.0149089
5637.92	0.0140045
5651.21	0.0131451
5664.51	0.0123305
5677.81	0.0115605
5691.11	0.0108349
5704.4	0.010153
5717.7	0.0095142
5731	0.00891782
5744.29	0.00836292
5757.59	0.00784847
5770.89	0.00737333
5784.18	0.00693622
5797.48	0.00653576
5810.78	0.00617046
5824.08	0.0058387
5837.37	0.00553878
5850.67	0.0052689
5863.97	0.00502718
5877.26	0.00481164
5890.56	0.00462023
5903.86	0.00445086
5917.16	0.00430135
5930.45	0.00416948
5943.75	0.004053
5957.05	0.00394961
5970.34	0.00385701
5983.64	0.00377287
5996.94	0.00369486
6010.23	0.00362065
6023.53	0.00354793
6036.83	0.00347443
6050.13	0.00339788
6063.42	0.00331607
6076.72	0.00322685
6090.02	0.00312811
6103.31	0.00301783
6116.61	0.00289404
6129.91	0.00275487
6143.21	0.00259853
6156.5	0.00242333
6169.8	0.00222768
6183.1	0.0020101
6196.39	0.0017692
6209.69	0.00150374
6222.99	0.00121256
6236.29	0.000894654
6249.58	0.000549108
6262.88	0.00017515
6276.18	-0.000227876
6289.47	-0.000660499
6302.77	-0.00112313
6316.07	-0.00161605
6329.36	-0.00213943
6342.66	-0.00269332
6355.96	-0.00327765
6369.26	-0.00389226
6382.55	-0.00453686
6395.85	-0.00521108
6409.15	-0.00591442
6422.44	-0.00664632
6435.74	-0.00740613
6449.04	-0.00819311
6462.34	-0.00900645
6475.63	-0.00984525
6488.93	-0.0107086
6502.23	-0.0115955
6515.52	-0.0125048
6528.82	-0.0134356
6542.12	-0.0143866
6555.41	-0.0153567
6568.71	-0.0163447
6582.01	-0.0173494
6595.31	-0.0183696
6608.6	-0.019404
6621.9	-0.0204515
6635.2	-0.0215107
6648.49	-0.0225805
6661.79	-0.0236595
6675.09	-0.0247467
6688.39	-0.0258408
6701.68	-0.0269406
6714.98	-0.028045
6728.28	-0.0291529
6741.57	-0.030263
6754.87	-0.0313745
6768.17	-0.0324861
6781.47	-0.0335969
6794.76	-0.0347059
6808.06	-0.0358121
6821.36	-0.0369146
6834.65	-0.0380124
6847.95	-0.0391047
6861.25	-0.0401907
6874.55	-0.0412694
6887.84	-0.0423402
6901.14	-0.0434022
6914.44	-0.0444547
6927.73	-0.0454969
6941.03	-0.0465281
6954.33	-0.0475477
6967.62	-0.0485549
6980.92	-0.0495491
6994.22	-0.0505296
7007.52	-0.0514958
7020.81	-0.0524471
7034.11	-0.0533829
7047.41	-0.0543024
7060.7	-0.0552052
7074	-0.0560906
7087.3	-0.056958
7100.6	-0.0578068
7113.89	-0.0586365
7127.19	-0.0594464
7140.49	-0.0602359
7153.78	-0.0610045
7167.08	-0.0617515
7180.38	-0.0624764
7193.68	-0.0631786
7206.97	-0.0638576
7220.27	-0.0645127
7233.57	-0.0651433
7246.86	-0.065749
7260.16	-0.0663291
7273.46	-0.0668831
7286.76	-0.0674105
7300.05	-0.0679107
7313.35	-0.0683832
7326.65	-0.0688275
7339.94	-0.0692431
7353.24	-0.0696296
7366.54	-0.0699865
7379.83	-0.0703133
7393.13	-0.0706097
7406.43	-0.0708753
7419.73	-0.0711096
7433.02	-0.0713125
7446.32	-0.0714835
7459.62	-0.0716225
7472.91	-0.0717291
7486.21	-0.0718032
7499.51	-0.0718446
7512.8	-0.0718532
7526.1	-0.0718288
7539.4	-0.0717715
7552.7	-0.0716812
7565.99	-0.0715579
7579.29	-0.0714017
7592.59	-0.0712126
7605.88	-0.0709909
7619.18	-0.0707367
7632.48	-0.0704503
7645.77	-0.0701318
7659.07	-0.0697817
7672.37	-0.0694002
7685.67	-0.0689877
7698.96	-0.0685446
7712.26	-0.0680714
7725.56	-0.0675686
7738.85	-0.0670367
7752.15	-0.0664763
7765.45	-0.0658879
7778.74	-0.0652722
7792.04	-0.0646297
7805.34	-0.0639612
7818.64	-0.0632674
7831.93	-0.062549
7845.23	-0.0618066
7858.53	-0.0610411
7871.82	-0.0602533
7885.12	-0.0594438
7898.42	-0.0586136
7911.71	-0.0577633
7925.01	-0.0568939
7938.31	-0.0560061
7951.61	-0.0551008
7964.9	-0.0541788
7978.2	-0.0532409
7991.5	-0.0522879
8004.79	-0.0513206
8018.09	-0.0503399
8031.39	-0.0493466
8044.68	-0.0483415
8057.98	-0.0473253
8071.28	-0.0462988
8084.58	-0.0452628
8097.87	-0.044218
8111.17	-0.0431652
8124.47	-0.0421051
8137.76	-0.0410384
8151.06	-0.0399657
8164.36	-0.0388878
8177.65	-0.0378052
8190.95	-0.0367186
8204.25	-0.0356286
8217.55	-0.0345358
8230.84	-0.0334408
8244.14	-0.0323441
8257.44	-0.0312462
8270.73	-0.0301476
8284.03	-0.0290489
8297.33	-0.0279506
8310.62	-0.0268529
8323.92	-0.0257565
8337.22	-0.0246618
8350.52	-0.0235691
8363.81	-0.0224788
8377.11	-0.0213914
8390.41	-0.0203072
8403.7	-0.0192266
8417	-0.0181499
8430.3	-0.0170774
8443.59	-0.0160096
8456.89	-0.0149468
8470.19	-0.0138892
8483.49	-0.0128373
8496.78	-0.0117913
8510.08	-0.0107515
8523.38	-0.00971834
8536.67	-0.00869207
8549.97	-0.00767304
8563.27	-0.00666158
8576.56	-0.00565801
8589.86	-0.00466269
8603.16	-0.00367595
8616.46	-0.00269814
8629.75	-0.00172962
8643.05	-0.000770754
8656.35	0.00017809
8669.64	0.00111653
8682.94	0.00204419
8696.24	0.00296067
8709.53	0.00386557
8722.83	0.00475848
8736.13	0.005639
8749.43	0.00650669
8762.72	0.00736114
8776.02	0.00820192
8789.32	0.00902858
8802.61	0.0098407
8815.91	0.0106378
8829.21	0.0114195
8842.51	0.0121853
8855.8	0.0129348
8869.1	0.0136675
8882.4	0.014383
8895.69	0.0150809
8908.99	0.0157607
8922.29	0.016422
8935.58	0.0170644
8948.88	0.0176874
8962.18	0.0182908
8975.48	0.018874
8988.77	0.0194368
9002.07	0.0199788
9015.37	0.0204995
9028.66	0.0209988
9041.96	0.0214763
9055.26	0.0219318
9068.55	0.0223649
9081.85	0.0227754
9095.15	0.0231631
9108.45	0.0235278
9121.74	0.0238694
9135.04	0.0241877
9148.34	0.0244826
9161.63	0.0247539
9174.93	0.0250017
9188.23	0.025226
9201.53	0.0254266
9214.82	0.0256037
9228.12	0.0257573
9241.42	0.0258875
9254.71	0.0259945
9268.01	0.0260783
9281.31	0.0261393
9294.6	0.0261775
9307.9	0.0261933
9321.2	0.0261869
9334.5	0.0261586
9347.79	0.0261089
9361.09	0.026038
9374.39	0.0259464
9387.68	0.0258345
9400.98	0.0257028
9414.28	0.0255518
9427.57	0.025382
9440.87	0.0251939
9454.17	0.0249881
9467.47	0.0247653
9480.76	0.024526
9494.06	0.0242709
9507.36	0.0240007
9520.65	0.023716
9533.95	0.0234176
9547.25	0.0231061
9560.55	0.0227824
9573.84	0.0224471
9587.14	0.0221011
9600.44	0.0217452
9613.73	0.02138
9627.03	0.0210065
9640.33	0.0206254
9653.62	0.0202376
9666.92	0.0198438
9680.22	0.0194448
9693.52	0.0190416
9706.81	0.0186348
9720.11	0.0182253
9733.41	0.0178138
9746.7	0.0174013
9760	0.0169884
9773.3	0.0165759
9786.6	0.0161646
9799.89	0.0157552
9813.19	0.0153483
9826.49	0.0149448
9839.78	0.0145452
9853.08	0.0141503
9866.38	0.0137606
9879.67	0.0133767
9892.97	0.0129992
9906.27	0.0126286
9919.57	0.0122655
9932.86	0.0119103
9946.16	0.0115633
9959.46	0.0112252
9972.75	0.0108961
9986.05	0.0105764
9999.35	0.0102664
10012.6	0.00996639
10025.9	0.00967653
10039.2	0.009397
10052.5	0.00912794
10065.8	0.00886943
10079.1	0.00862152
10092.4	0.00838424
10105.7	0.00815754
10119	0.00794137
10132.3	0.00773563
10145.6	0.00754016
10158.9	0.0073548
10172.2	0.00717933
10185.5	0.00701351
10198.8	0.00685705
10212.1	0.00670964
10225.4	0.00657094
10238.7	0.00644058
10252	0.00631816
10265.3	0.00620325
10278.6	0.00609541
10291.9	0.00599417
10305.2	0.00589903
10318.5	0.00580949
10331.8	0.00572502
10345.1	0.00564509
10358.4	0.00556914
10371.7	0.00549661
10385	0.00542692
10398.3	0.00535952
10411.6	0.00529381
10424.9	0.00522921
10438.2	0.00516515
10451.4	0.00510103
10464.7	0.0050363
10478	0.00497038
10491.3	0.0049027
10504.6	0.00483272
10517.9	0.00475989
10531.2	0.00468369
10544.5	0.00460361
10557.8	0.00451913
10571.1	0.0044298
10584.4	0.00433514
10597.7	0.00423471
10611	0.00412809
10624.3	0.00401489
10637.6	0.00389472
10650.9	0.00376724
10664.2	0.00363212
10677.5	0.00348906
10690.8	0.00333778
10704.1	0.00317803
10717.4	0.00300959
10730.7	0.00283226
10744	0.00264587
10757.3	0.00245028
10770.6	0.00224537
10783.9	0.00203105
10797.2	0.00180726
10810.5	0.00157396
10823.8	0.00133115
10837.1	0.00107883
10850.4	0.000817052
10863.7	0.000545871
10877	0.000265379
10890.3	-2.43155e-05
10903.5	-0.000323078
10916.8	-0.000630753
10930.1	-0.000947167
10943.4	-0.00127212
10956.7	-0.00160541
10970	-0.00194679
10983.3	-0.00229601
10996.6	-0.00265282
11009.9	-0.00301693
11023.2	-0.00338804
11036.5	-0.00376585
11049.8	-0.00415003
11063.1	-0.00454025
11076.4	-0.00493617
11089.7	-0.00533744
11103	-0.0057437
11116.3	-0.00615457
11129.6	-0.00656969
11142.9	-0.00698867
11156.2	-0.00741112
11169.5	-0.00783666
11182.8	-0.00826489
11196.1	-0.00869541
11209.4	-0.00912783
11222.7	-0.00956175
11236	-0.00999677
11249.3	-0.0104325
11262.6	-0.0108685
11275.9	-0.0113044
11289.2	-0.0117398
11302.5	-0.0121744
11315.8	-0.0126076
11329.1	-0.0130392
11342.4	-0.0134687
11355.7	-0.0138959
11368.9	-0.0143202
11382.2	-0.0147413
11395.5	-0.0151589
11408.8	-0.0155727
11422.1	-0.0159821
11435.4	-0.016387
11448.7	-0.016787
11462	-0.0171817
11475.3	-0.0175709
11488.6	-0.0179541
11501.9	-0.0183312
11515.2	-0.0187017
11528.5	-0.0190655
11541.8	-0.0194221
11555.1	-0.0197715
11568.4	-0.0201132
11581.7	-0.020447
11595	-0.0207728
11608.3	-0.0210902
11621.6	-0.021399
11634.9	-0.0216991
11648.2	-0.0219902
11661.5	-0.0222721
11674.8	-0.0225447
11688.1	-0.0228078
11701.4	-0.0230612
11714.7	-0.0233049
11728	-0.0235386
11741.3	-0.0237623
11754.6	-0.0239758
11767.9	-0.0241792
11781.2	-0.0243723
11794.5	-0.024555
11807.8	-0.0247274
11821	-0.0248894
11834.3	-0.025041
11847.6	-0.0251822
11860.9	-0.025313
11874.2	-0.0254335
11887.5	-0.0255437
11900.8	-0.0256437
11914.1	-0.0257337
11927.4	-0.0258136
11940.7	-0.0258836
11954	-0.0259439
11967.3	-0.0259946
11980.6	-0.0260359
11993.9	-0.0260679
12007.2	-0.0260909
12020.5	-0.026105
12033.8	-0.0261106
12047.1	-0.0261078
12060.4	-0.0260969
12073.7	-0.0260782
12087	-0.026052
12100.3	-0.0260185
12113.6	-0.025978
12126.9	-0.0259309
12140.2	-0.0258775
12153.5	-0.0258181
12166.8	-0.0257531
12180.1	-0.0256828
12193.4	-0.0256075
12206.7	-0.0255277
12220	-0.0254436
12233.3	-0.0253557
12246.6	-0.0252643
12259.9	-0.0251697
12273.1	-0.0250724
12286.4	-0.0249727
12299.7	-0.0248709
12313	-0.0247675
12326.3	-0.0246628
12339.6	-0.024557
12352.9	-0.0244506
12366.2	-0.024344
12379.5	-0.0242373
12392.8	-0.024131
12406.1	-0.0240254
12419.4	-0.0239206
12432.7	-0.0238172
12446	-0.0237152
12459.3	-0.0236149
12472.6	-0.0235167
12485.9	-0.0234207
12499.2	-0.0233271
12512.5	-0.0232362
12525.8	-0.023148
12539.1	-0.0230629
12552.4	-0.0229809
12565.7	-0.0229022
12579	-0.0228269
12592.3	-0.022755
12605.6	-0.0226868
12618.9	-0.0226221
12632.2	-0.0225612
12645.5	-0.022504
12658.8	-0.0224504
12672.1	-0.0224007
12685.4	-0.0223546
12698.7	-0.0223122
12712	-0.0222735
12725.2	-0.0222383
12738.5	-0.0222066
12751.8	-0.0221783
12765.1	-0.0221534
12778.4	-0.0221316
12791.7	-0.0221129
12805	-0.0220971
12818.3	-0.022084
12831.6	-0.0220736
12844.9	-0.0220656
12858.2	-0.0220599
12871.5	-0.0220563
12884.8	-0.0220545
12898.1	-0.0220545
12911.4	-0.022056
12924.7	-0.0220587
12938	-0.0220625
12951.3	-0.0220671
12964.6	-0.0220724
12977.9	-0.0220781
12991.2	-0.022084
13004.5	-0.0220898
13017.8	-0.0220954
13031.1	-0.0221005
13044.4	-0.0221049
13057.7	-0.0221083
13071	-0.0221106
13084.3	-0.0221115
13097.6	-0.0221108
13110.9	-0.0221083
13124.2	-0.0221038
13137.5	-0.022097
13150.8	-0.0220878
13164.1	-0.0220759
13177.3	-0.0220612
13190.6	-0.0220434
13203.9	-0.0220225
13217.2	-0.0219981
13230.5	-0.0219701
13243.8	-0.0219384
13257.1	-0.0219027
13270.4	-0.021863
13283.7	-0.021819
13297	-0.0217706
13310.3	-0.0217177
13323.6	-0.0216601
13336.9	-0.0215977
13350.2	-0.0215304
13363.5	-0.0214579
13376.8	-0.0213804
13390.1	-0.0212975
13403.4	-0.0212092
13416.7	-0.0211155
13430	-0.0210162
13443.3	-0.0209112
13456.6	-0.0208005
13469.9	-0.020684
13483.2	-0.0205616
13496.5	-0.0204333
13509.8	-0.0202991
13523.1	-0.0201588
13536.4	-0.0200125
13549.7	-0.0198601
13563	-0.0197016
13576.3	-0.019537
13589.6	-0.0193663
13602.9	-0.0191894
13616.2	-0.0190065
13629.4	-0.0188174
13642.7	-0.0186223
13656	-0.0184211
13669.3	-0.018214
13682.6	-0.0180008
13695.9	-0.0177818
13709.2	-0.0175569
13722.5	-0.0173263
13735.8	-0.0170899
13749.1	-0.016848
13762.4	-0.0166005
13775.7	-0.0163476
13789	-0.0160894
13802.3	-0.015826
13815.6	-0.0155575
13828.9	-0.0152841
13842.2	-0.0150059
13855.5	-0.014723
13868.8	-0.0144356
13882.1	-0.0141439
13895.4	-0.013848
13908.7	-0.0135482
13922	-0.0132445
13935.3	-0.0129371
13948.6	-0.0126264
13961.9	-0.0123124
13975.2	-0.0119953
13988.5	-0.0116755
14001.8	-0.011353
14015.1	-0.0110281
14028.4	-0.0107011
14041.7	-0.0103721
14055	-0.0100414
14068.3	-0.00970918
14081.6	-0.00937574
14094.8	-0.00904129
14108.1	-0.00870607
14121.4	-0.00837032
14134.7	-0.00803427
14148	-0.00769817
14161.3	-0.00736226
14174.6	-0.00702679
14187.9	-0.00669198
14201.2	-0.00635808
14214.5	-0.00602533
14227.8	-0.00569395
14241.1	-0.00536419
14254.4	-0.00503626
14267.7	-0.0047104
14281	-0.00438682
14294.3	-0.00406574
14307.6	-0.00374737
14320.9	-0.00343191
14334.2	-0.00311958
14347.5	-0.00281055
14360.8	-0.00250503
14374.1	-0.00220319
14387.4	-0.00190521
14400.7	-0.00161127
14414	-0.00132151
14427.3	-0.00103609
14440.6	-0.000755168
14453.9	-0.000478875
14467.2	-0.000207342
14480.5	5.9308e-05
14493.8	0.00032096
14507.1	0.000577507
14520.4	0.000828851
14533.7	0.0010749
14546.9	0.00131558
14560.2	0.00155081
14573.5	0.00178054
14586.8	0.00200469
14600.1	0.00222323
14613.4	0.00243611
14626.7	0.0026433
14640	0.00284478
14653.3	0.00304054
14666.6	0.00323055
14679.9	0.00341483
14693.2	0.00359337
14706.5	0.0037662
14719.8	0.00393333
14733.1	0.00409478
14746.4	0.00425059
14759.7	0.0044008
14773	0.00454545
14786.3	0.0046846
14799.6	0.00481829
14812.9	0.0049466
14826.2	0.00506958
14839.5	0.00518731
14852.8	0.00529986
14866.1	0.0054073
14879.4	0.00550973
14892.7	0.00560723
14906	0.00569988
14919.3	0.00578778
14932.6	0.00587102
14945.9	0.0059497
14959.2	0.00602392
14972.5	0.00609378
14985.8	0.00615938
14999	0.00622083
15012.3	0.00627823
15025.6	0.00633169
15038.9	0.00638131
15052.2	0.00642722
15065.5	0.0064695
15078.8	0.00650828
15092.1	0.00654366
15105.4	0.00657575
15118.7	0.00660467
15132	0.00663051
15145.3	0.00665339
15158.6	0.00667342
15171.9	0.0066907
15185.2	0.00670535
15198.5	0.00671746
15211.8	0.00672715
15225.1	0.00673451
15238.4	0.00673966
15251.7	0.0067427
15265	0.00674373
15278.3	0.00674285
15291.6	0.00674016
15304.9	0.00673576
15318.2	0.00672976
15331.5	0.00672224
15344.8	0.00671332
15358.1	0.00670308
15371.4	0.00669161
15384.7	0.00667902
15398	0.00666541
15411.3	0.00665085
15424.6	0.00663545
15437.9	0.0066193
15451.1	0.00660249
15464.4	0.00658511
15477.7	0.00656725
15491	0.006549
15504.3	0.00653045
15517.6	0.0065117
15530.9	0.00649282
15544.2	0.00647391
15557.5	0.00645506
15570.8	0.00643634
15584.1	0.00641786
15597.4	0.0063997
15610.7	0.00638194
15624	0.00636467
15637.3	0.00634797
15650.6	0.00633193
15663.9	0.00631664
15677.2	0.00630218
15690.5	0.00628863
15703.8	0.00627608
15717.1	0.0062646
15730.4	0.00625429
15743.7	0.00624521
15757	0.00623746
15770.3	0.00623111
15783.6	0.00622623
15796.9	0.00622291
15810.2	0.00622122
15823.5	0.00622124
15836.8	0.00622303
15850.1	0.00622667
15863.4	0.00623223
15876.7	0.00623977
15890	0.00624937
15903.2	0.00626107
15916.5	0.00627496
15929.8	0.00629107
15943.1	0.00630947
15956.4	0.00633021
15969.7	0.00635334
15983	0.0063789
15996.3	0.00640695
16009.6	0.00643751
16022.9	0.00647061
16036.2	0.00650631
16049.5	0.00654461
16062.8	0.00658554
16076.1	0.00662911
16089.4	0.00667535
16102.7	0.00672426
16116	0.00677583
16129.3	0.00683007
16142.6	0.00688696
16155.9	0.00694649
16169.2	0.00700864
16182.5	0.00707338
16195.8	0.00714066
16209.1	0.00721046
16222.4	0.00728272
16235.7	0.00735739
16249	0.00743439
16262.3	0.00751366
16275.6	0.00759512
16288.9	0.00767867
16302.2	0.00776423
16315.5	0.00785168
16328.8	0.00794092
16342.1	0.00803181
16355.4	0.00812423
16368.6	0.00821804
16381.9	0.00831308
16395.2	0.00840919
16408.5	0.00850622
16421.8	0.00860397
16435.1	0.00870226
16448.4	0.00880089
16461.7	0.00889966
16475	0.00899835
16488.3	0.00909672
16501.6	0.00919455
16514.9	0.00929159
16528.2	0.00938759
16541.5	0.00948227
16554.8	0.00957537
16568.1	0.00966661
16581.4	0.00975569
16594.7	0.00984232
16608	0.00992619
16621.3	0.010007
16634.6	0.0100844
16647.9	0.0101581
16661.2	0.0102277
16674.5	0.0102929
16687.8	0.0103534
16701.1	0.0104087
16714.4	0.0104587
16727.7	0.0105028
16741	0.0105407
16754.3	0.0105721
16767.6	0.0105966
16780.9	0.0106138
16794.2	0.0106234
16807.5	0.010625
16820.7	0.0106182
16834	0.0106027
16847.3	0.0105781
16860.6	0.0105441
16873.9	0.0105003
16887.2	0.0104463
16900.5	0.0103819
16913.8	0.0103067
16927.1	0.0102205
16940.4	0.0101228
16953.7	0.0100134
16967	0.00989207
16980.3	0.0097585
16993.6	0.00961244
17006.9	0.00945368
17020.2	0.00928199
17033.5	0.00909717
17046.8	0.00889905
17060.1	0.00868747
17073.4	0.00846231
17086.7	0.00822344
17100	0.00797079
17113.3	0.00770428
17126.6	0.00742389
17139.9	0.00712959
17153.2	0.00682141
17166.5	0.0064994
17179.8	0.00616361
17193.1	0.00581416
17206.4	0.00545118
17219.7	0.00507482
17233	0.00468528
17246.3	0.00428278
17259.6	0.00386758
17272.8	0.00343996
17286.1	0.00300024
17299.4	0.00254876
17312.7	0.00208591
17326	0.00161209
17339.3	0.00112775
17352.6	0.000633358
17365.9	0.000129415
17379.2	-0.000383547
17392.5	-0.000904969
17405.8	-0.00143426
17419.1	-0.00197081
17432.4	-0.00251398
17445.7	-0.00306309
17459	-0.00361746
17472.3	-0.00417637
17485.6	-0.00473908
17498.9	-0.00530485
17512.2	-0.00587289
17525.5	-0.00644242
17538.8	-0.00701261
17552.1	-0.00758266
17565.4	-0.00815173
17578.7	-0.00871896
17592	-0.0092835
17605.3	-0.00984449
17618.6	-0.0104011
17631.9	-0.0109524
17645.2	-0.0114975
17658.5	-0.0120356
17671.8	-0.0125658
17685.1	-0.0130872
17698.4	-0.013599
17711.7	-0.0141003
17724.9	-0.0145904
17738.2	-0.0150682
17751.5	-0.0155332
17764.8	-0.0159844
17778.1	-0.0164211
17791.4	-0.0168425
17804.7	-0.0172479
17818	-0.0176366
17831.3	-0.0180079
17844.6	-0.0183611
17857.9	-0.0186957
17871.2	-0.019011
17884.5	-0.0193065
17897.8	-0.0195816
17911.1	-0.0198359
17924.4	-0.0200689
17937.7	-0.0202801
17951	-0.0204692
17964.3	-0.0206359
17977.6	-0.0207798
17990.9	-0.0209007
18004.2	-0.0209983
18017.5	-0.0210725
18030.8	-0.0211232
18044.1	-0.0211502
18057.4	-0.0211535
18070.7	-0.0211331
18084	-0.021089
18097.3	-0.0210213
18110.6	-0.0209301
18123.9	-0.0208155
18137.2	-0.0206778
18150.5	-0.0205173
18163.8	-0.0203341
18177.1	-0.0201286
18190.3	-0.0199012
18203.6	-0.0196522
18216.9	-0.0193821
18230.2	-0.0190913
18243.5	-0.0187804
18256.8	-0.0184499
18270.1	-0.0181003
18283.4	-0.0177322
18296.7	-0.0173463
18310	-0.0169431
18323.3	-0.0165235
18336.6	-0.0160879
18349.9	-0.0156373
18363.2	-0.0151722
18376.5	-0.0146935
18389.8	-0.0142019
18403.1	-0.0136982
18416.4	-0.0131832
18429.7	-0.0126577
18443	-0.0121225
18456.3	-0.0115785
18469.6	-0.0110264
18482.9	-0.0104671
18496.2	-0.00990142
18509.5	-0.0093302
18522.8	-0.00875426
18536.1	-0.00817444
18549.4	-0.00759154
18562.7	-0.00700639
18576	-0.0064198
18589.3	-0.00583256
18602.6	-0.00524545
18615.9	-0.00465925
18629.2	-0.00407473
18642.4	-0.00349261
18655.7	-0.00291365
18669	-0.00233853
18682.3	-0.00176797
18695.6	-0.00120262
18708.9	-0.000643153
18722.2	-9.01888e-05
18735.5	0.00045566
18748.8	0.000993806
18762.1	0.00152368
18775.4	0.00204476
18788.7	0.00255651
18802	0.00305845
18815.3	0.00355011
18828.6	0.00403106
18841.9	0.00450087
18855.2	0.00495917
18868.5	0.00540558
18881.8	0.00583978
18895.1	0.00626145
18908.4	0.00667031
18921.7	0.00706611
18935	0.0074486
18948.3	0.00781758
18961.6	0.00817287
18974.9	0.00851431
18988.2	0.00884177
19001.5	0.00915513
19014.8	0.00945432
19028.1	0.00973926
19041.4	0.0100099
19054.7	0.0102663
19068	0.0105083
19081.3	0.0107361
19094.5	0.0109497
19107.8	0.011149
19121.1	0.0113343
19134.4	0.0115055
19147.7	0.0116629
19161	0.0118065
19174.3	0.0119365
19187.6	0.0120531
19200.9	0.0121564
19214.2	0.0122466
19227.5	0.0123239
19240.8	0.0123885
19254.1	0.0124407
19267.4	0.0124806
19280.7	0.0125086
19294	0.0125248
19307.3	0.0125296
19320.6	0.0125231
19333.9	0.0125058
19347.2	0.0124777
19360.5	0.0124394
19373.8	0.0123909
19387.1	0.0123326
19400.4	0.0122649
19413.7	0.012188
19427	0.0121022
19440.3	0.0120078
19453.6	0.0119052
19466.9	0.0117945
19480.2	0.0116763
19493.5	0.0115506
19506.8	0.0114179
19520.1	0.0112785
19533.4	0.0111326
19546.6	0.0109806
19559.9	0.0108228
19573.2	0.0106594
19586.5	0.0104908
19599.8	0.0103172
19613.1	0.010139
19626.4	0.0099564
19639.7	0.0097697
19653	0.0095792
19666.3	0.00938515
19679.6	0.00918784
19692.9	0.00898752
19706.2	0.00878446
19719.5	0.00857892
19732.8	0.00837115
19746.1	0.0081614
19759.4	0.0079499
19772.7	0.00773691
19786	0.00752264
19799.3	0.00730732
19812.6	0.00709119
19825.9	0.00687446
19839.2	0.00665733
19852.5	0.00644002
19865.8	0.00622273
19879.1	0.00600566
19892.4	0.00578899
19905.7	0.00557292
19919	0.00535762
19932.3	0.00514328
19945.6	0.00493006
19958.9	0.00471814
19972.2	0.00450767
19985.5	0.0042988
19998.7	0.00409171
