0	0
11.7662	0
20.5908	0
32.357	0
41.1817	0
50.0063	0
61.7725	0
70.5972	0
82.3634	0
91.188	0
100.013	0
111.779	0
120.604	0
132.37	0
141.194	0
150.019	0
161.785	0
170.61	0
182.376	0
191.201	0
200.025	0
211.792	0
220.616	0
232.382	0
241.207	0
250.032	0
261.798	0
270.623	0
282.389	0
291.213	0
300.038	0
311.804	0
320.629	0
332.395	0
341.22	0
350.044	0
361.811	0
370.635	0
382.401	0
391.226	0
400.051	0
411.817	0
420.642	0
432.408	0
441.232	0
450.057	0
461.823	0
470.648	0
482.414	0
491.239	0
500.063	0
511.83	0
520.654	0
532.42	0
541.245	0
550.07	0
561.836	0
570.661	0
582.427	0
591.251	0
600.076	0
611.842	0
620.667	0
632.433	0
641.258	0
650.082	0
661.849	0
670.673	0
682.439	0
691.264	0
700.089	0
711.855	0
720.68	0
732.446	0
741.27	0
750.095	0
761.861	0
770.686	0
782.452	0
791.277	0
800.101	0
811.868	0
820.692	0
832.458	0
841.283	0
850.108	0
861.874	0
870.699	0
882.465	0
891.289	0
900.114	0
911.88	0
920.705	0
932.471	0
941.296	0
950.12	0
961.887	0
970.711	0
982.477	0
991.302	0
1000.13	0
1011.89	0
1020.72	0
1032.48	0
1041.31	0
1050.13	0
1061.9	0
1070.72	0
1082.49	0
1091.31	0
1100.14	0
1111.91	0
1120.73	0
1132.5	0
1141.32	0
1150.15	0
1161.91	0
1170.74	0
1182.5	0
1191.33	0
1200.15	0
1211.92	0
1220.74	0
1232.51	0
1241.33	0
1250.16	0
1261.92	0
1270.75	0
1282.52	0
1291.34	0
1300.16	0
1311.93	0
1320.76	0
1332.52	0
1341.35	0
1350.17	0
1361.94	0
1370.76	0
1382.53	0
1391.35	0
1400.18	0
1411.94	0
1420.77	0
1432.53	0
1441.36	0
1450.18	0
1461.95	0
1470.77	0
1482.54	0
1491.37	0
1500.19	0
1511.96	0
1520.78	0
1532.55	0
1541.37	0
1550.2	0
1561.96	0
1570.79	0
1582.55	0
1591.38	0
1600.2	0
1611.97	0
1620.79	0
1632.56	0
1641.38	0
1650.21	0
1661.98	0
1670.8	0
1682.57	0
1691.39	0
1700.22	0
1711.98	0
1720.81	0
1732.57	0
1741.4	0
1750.22	0
1761.99	0
1770.81	0
1782.58	0
1791.4	0
1800.23	0
1811.99	0
1820.82	0
1832.59	0
1841.41	0
1850.23	0
1862	0
1870.83	0
1882.59	0
1891.42	0
1900.24	0
1912.01	0
1920.83	0
1932.6	0
1941.42	0
1950.25	0
1962.01	0
1970.84	0
1982.6	0
1991.43	0
2000.25	0
2012.02	0
2020.84	0
2032.61	0
2041.44	0
2050.26	0
2062.03	0
2070.85	0
2082.62	0
2091.44	0
2100.27	0
2112.03	0
2120.86	0
2132.62	0
2141.45	0
2150.27	0
2162.04	0
2170.86	0
2182.63	0
2191.45	0
2200.28	0
2212.04	0
2220.87	0
2232.64	0
2241.46	0
2250.28	0
2262.05	0
2270.88	0
2282.64	0
2291.47	0
2300.29	0
2312.06	0
2320.88	0
2332.65	0
2341.47	0
2350.3	0
2362.06	0
2370.89	0
2382.65	0
2391.48	0
2400.3	0
2412.07	0
2420.89	0
2432.66	0
2441.49	0
2450.31	0
2462.08	0
2470.9	0
2482.67	0
2491.49	0
2500.32	0
2512.08	0
2520.91	0
2532.67	0
2541.5	0
2550.32	0
2562.09	0
2570.91	0
2582.68	0
2591.5	0
2600.33	0
2612.1	0
2620.92	0
2632.69	0
2641.51	0
2650.34	0
2662.1	0
2670.93	0
2682.69	0
2691.52	0
2700.34	0
2712.11	0
2720.93	0
2732.7	0
2741.52	0
2750.35	0
2762.11	0
2770.94	9.09495e-13
2782.71	3.63798e-12
2791.53	6.36646e-12
2800.35	1.00044e-11
2812.12	1.63709e-11
2820.95	2.63753e-11
2832.71	4.72937e-11
2841.54	7.27596e-11
2850.36	1.12777e-10
2862.13	1.9827e-10
2870.95	2.99224e-10
2882.72	5.12955e-10
2891.54	7.62157e-10
2900.37	1.12323e-09
2912.13	1.86265e-09
2920.96	2.7012e-09
2932.72	4.38467e-09
2941.55	6.25278e-09
2950.37	8.85575e-09
2962.14	1.39353e-08
2970.96	1.94259e-08
2982.73	2.99369e-08
2991.55	4.10901e-08
3000.38	5.60358e-08
3012.14	8.39018e-08
3020.97	1.12733e-07
3032.74	1.65533e-07
3041.56	2.1923e-07
3050.38	2.88593e-07
3062.15	4.12512e-07
3070.97	5.35574e-07
3082.74	7.51767e-07
3091.57	9.63029e-07
3100.39	1.22674e-06
3112.16	1.67942e-06
3120.98	2.11201e-06
3132.75	2.84306e-06
3141.57	3.53123e-06
3150.4	4.36318e-06
3162.16	5.73913e-06
3170.99	7.00765e-06
3182.75	9.07534e-06
3191.58	1.0955e-05
3200.4	1.31608e-05
3212.17	1.66851e-05
3220.99	1.98275e-05
3232.76	2.47812e-05
3241.58	2.9141e-05
3250.41	3.41183e-05
3262.17	4.18212e-05
3271	4.84808e-05
3282.76	5.86608e-05
3291.59	6.73572e-05
3300.41	7.70371e-05
3312.18	9.15871e-05
3321	0.000103815
3332.77	0.00012199
3341.59	0.0001371
3350.42	0.000153535
3362.18	0.000177595
3371.01	0.000197304
3382.77	0.000225866
3391.6	0.000249035
3400.42	0.000273723
3412.19	0.000309022
3421.01	0.000337284
3432.78	0.000377337
3441.6	0.000409134
3450.43	0.00044241
3462.19	0.000489023
3471.02	0.000525616
3482.78	0.000576497
3491.61	0.000616159
3500.43	0.000657046
3512.2	0.000713365
3521.02	0.000756878
3532.79	0.000816475
3541.61	0.000862278
3550.44	0.000908963
3562.2	0.000972484
3571.03	0.00102101
3582.79	0.00108681
3591.62	0.00113693
3600.44	0.00118768
3612.21	0.00125627
3621.03	0.00130839
3632.8	0.00137877
3641.62	0.00143224
3650.44	0.00148631
3662.21	0.00155937
3671.03	0.00161495
3682.8	0.00169019
3691.62	0.00174754
3700.45	0.00180577
3712.21	0.00188492
3721.04	0.00194553
3732.8	0.00202823
3741.63	0.00209184
3750.45	0.00215698
3762.22	0.00224648
3771.04	0.00231586
3782.81	0.0024118
3791.63	0.00248668
3800.46	0.0025644
3812.22	0.00267311
3821.05	0.00275902
3832.81	0.00288036
3841.64	0.00297728
3850.46	0.00308007
3862.23	0.00322777
3871.05	0.00334787
3882.82	0.00352275
3891.64	0.00366687
3900.47	0.003824
3912.23	0.00405726
3921.06	0.00425307
3932.82	0.00454728
3941.65	0.00479701
3950.47	0.00507584
3962.24	0.00550047
3971.06	0.0058651
3982.83	0.00642388
3991.65	0.00690606
4000.47	0.00745073
4012.24	0.00828905
4021.06	0.00901442
4032.83	0.0101312
4041.65	0.0110968
4050.48	0.0121874
4062.24	0.0138617
4071.07	0.0153042
4082.84	0.0175107
4091.66	0.0194038
4100.48	0.0215246
4112.25	0.0247464
4121.07	0.0274898
4132.84	0.031633
4141.66	0.0351397
4150.49	0.03902
4162.26	0.0448259
4171.08	0.0496931
4182.85	0.0569242
4191.67	0.0629432
4200.5	0.0695061
4212.26	0.0791537
4221.09	0.0870986
4232.85	0.0986877
4241.68	0.108158
4250.5	0.118319
4262.27	0.132972
4271.09	0.144811
4282.86	0.161744
4291.68	0.175312
4300.51	0.189624
4312.27	0.209851
4321.1	0.225864
4332.86	0.2483
4341.69	0.265907
4350.51	0.284146
4362.28	0.309375
4371.1	0.328918
4382.87	0.355699
4391.7	0.376246
4400.52	0.397112
4412.29	0.4253
4421.11	0.44661
4432.88	0.475086
4441.7	0.496371
4450.53	0.51749
4462.29	0.54522
4471.12	0.565567
4482.88	0.591904
4491.71	0.610932
4500.53	0.629227
4512.3	0.652311
4521.12	0.668517
4532.89	0.688476
4541.71	0.702095
4550.54	0.714468
4562.3	0.728895
4571.13	0.738075
4582.89	0.748015
4591.72	0.753678
4600.54	0.757757
4612.31	0.760675
4621.13	0.76094
4632.9	0.758701
4641.72	0.755072
4650.55	0.749774
4662.32	0.740138
4671.14	0.73101
4682.91	0.716362
4691.73	0.703567
4700.55	0.689272
4712.32	0.667969
4721.15	0.650384
4732.91	0.624916
4741.74	0.604388
4750.56	0.582716
4762.33	0.552173
4771.15	0.528131
4782.92	0.494715
4791.74	0.46874
4800.57	0.442072
4812.33	0.405581
4821.16	0.377619
4832.92	0.3397
4841.75	0.310885
4850.57	0.281838
4862.34	0.242877
4871.16	0.21358
4882.93	0.174552
4891.75	0.145398
4900.58	0.116417
4912.34	0.0781582
4921.17	0.0498292
4932.94	0.012655
4941.76	-0.0147056
4950.58	-0.0415624
4962.35	-0.0765024
4971.18	-0.101996
4982.94	-0.134955
4991.77	-0.158849
5000.59	-0.181993
5012.36	-0.211627
5021.18	-0.232893
5030.01	-0.253304
5041.77	-0.279145
5050.6	-0.297467
5062.36	-0.320445
5071.19	-0.33657
5080.01	-0.351729
5091.78	-0.37042
5100.6	-0.383288
5112.37	-0.398902
5121.19	-0.409454
5130.02	-0.419014
5141.78	-0.430224
5150.61	-0.43749
5162.37	-0.445675
5171.2	-0.450702
5180.02	-0.454795
5191.79	-0.458829
5200.61	-0.460814
5212.38	-0.462118
5221.21	-0.462122
5230.03	-0.461322
5241.8	-0.459054
5250.62	-0.456492
5262.39	-0.451992
5271.21	-0.447848
5280.04	-0.443084
5291.8	-0.435829
5300.63	-0.429759
5312.39	-0.420898
5321.22	-0.413727
5330.04	-0.406148
5341.81	-0.395472
5350.63	-0.387087
5362.4	-0.375474
5371.22	-0.366487
5380.05	-0.357302
5391.81	-0.344808
5400.64	-0.335297
5412.41	-0.32249
5421.23	-0.312831
5430.05	-0.303159
5441.82	-0.290293
5450.64	-0.2807
5462.41	-0.268034
5471.24	-0.258657
5480.06	-0.24941
5491.83	-0.237318
5500.65	-0.228449
5512.42	-0.216923
5521.24	-0.208522
5530.07	-0.200345
5541.83	-0.189808
5550.66	-0.182193
5562.42	-0.17244
5571.25	-0.165434
5580.07	-0.158699
5591.84	-0.150146
5600.66	-0.144057
5612.43	-0.136376
5621.25	-0.130943
5630.08	-0.125793
5641.84	-0.119362
5650.67	-0.114864
5662.44	-0.109295
5671.26	-0.105436
5680.08	-0.101845
5691.85	-0.0974676
5700.67	-0.0944857
5712.44	-0.0909024
5721.27	-0.0885023
5730.09	-0.0863424
5741.86	-0.0838258
5750.68	-0.082203
5762.45	-0.08038
5771.27	-0.0792599
5780.1	-0.0783441
5791.86	-0.0774292
5800.69	-0.0769634
5812.45	-0.0766227
5821.28	-0.0765678
5830.1	-0.0766767
5841.87	-0.0770632
5850.69	-0.077524
5862.46	-0.0783512
5871.28	-0.0791206
5880.11	-0.0800085
5891.87	-0.081362
5900.7	-0.0824931
5912.47	-0.0841394
5921.29	-0.0854661
5930.11	-0.0868614
5941.88	-0.0888129
5950.71	-0.0903328
5962.47	-0.0924165
5971.3	-0.0940099
5980.12	-0.0956192
5991.89	-0.0977731
6000.71	-0.0993826
6012.48	-0.101503
6021.3	-0.103062
6030.13	-0.104584
6041.89	-0.106542
6050.72	-0.107944
6062.48	-0.109712
6071.31	-0.110949
6080.13	-0.112104
6091.9	-0.1135
6100.72	-0.114432
6112.49	-0.115509
6121.31	-0.116184
6130.14	-0.116741
6141.9	-0.11729
6150.73	-0.117553
6162.5	-0.117696
6171.32	-0.117645
6180.14	-0.117457
6191.91	-0.116988
6200.74	-0.116472
6212.5	-0.115566
6221.33	-0.114722
6230.15	-0.113739
6241.92	-0.112216
6250.74	-0.110915
6262.51	-0.108978
6271.33	-0.107376
6280.16	-0.10565
6291.92	-0.103165
6300.75	-0.10117
6312.51	-0.0983421
6321.34	-0.0961038
6330.16	-0.0937711
6341.93	-0.0905244
6350.75	-0.0879951
6362.52	-0.0845092
6371.35	-0.0818183
6380.17	-0.0790691
6391.94	-0.0753245
6400.76	-0.0724656
6412.53	-0.0685988
6421.35	-0.0656663
6430.18	-0.0627132
6441.94	-0.0587545
6450.77	-0.0557778
6462.53	-0.0518099
6471.36	-0.0488423
6480.18	-0.0458879
6491.95	-0.0419788
6500.77	-0.0390759
6512.54	-0.0352532
6521.36	-0.0324278
6530.19	-0.0296429
6541.95	-0.0259995
6550.78	-0.023324
6562.55	-0.0198393
6571.37	-0.0172918
6580.19	-0.0148041
6591.96	-0.0115848
6600.78	-0.0092466
6612.55	-0.00623497
6621.38	-0.00405828
6630.2	-0.0019539
6641.97	0.000736644
6650.79	0.00266618
6662.56	0.00511853
6671.38	0.00686597
6680.21	0.00853353
6691.97	0.010631
6700.8	0.0121084
6712.56	0.0139493
6721.39	0.0152323
6730.21	0.0164309
6741.98	0.0178966
6750.8	0.0188959
6762.57	0.0200943
6771.39	0.020892
6780.22	0.0216028
6791.98	0.0224149
6800.81	0.022922
6812.58	0.0234623
6821.4	0.0237655
6830.22	0.0239816
6841.99	0.0241347
6850.82	0.0241487
6862.58	0.0240341
6871.41	0.0238491
6880.23	0.0235801
6892	0.0230926
6900.82	0.0226319
6912.59	0.0218936
6921.41	0.0212488
6930.24	0.0205279
6942	0.0194516
6950.83	0.0185609
6962.59	0.0172664
6971.42	0.0162185
6980.24	0.0151077
6992.01	0.0135335
7000.83	0.0122871
7012.6	0.0105433
7021.42	0.00917839
7030.25	0.00776843
7042.02	0.00582456
7050.84	0.00432346
7062.61	0.00227158
7071.43	0.000699844
7080.26	-0.000895675
7092.02	-0.00305317
7100.85	-0.00468871
7112.61	-0.00688499
7121.44	-0.00853864
7130.26	-0.0101933
7142.03	-0.0123941
7150.85	-0.0140356
7162.62	-0.0162042
7171.44	-0.0178108
7180.27	-0.0193959
7192.03	-0.0214694
7200.86	-0.0229896
7212.62	-0.0249632
7221.45	-0.0263985
7230.27	-0.0277916
7242.04	-0.0295772
7250.86	-0.0308582
7262.63	-0.0324824
7271.46	-0.0336336
7280.28	-0.034724
7292.05	-0.0360781
7300.87	-0.0370152
7312.64	-0.0381548
7321.46	-0.0389237
7330.29	-0.0396162
7342.05	-0.0404165
7350.88	-0.0409216
7362.64	-0.0414642
7371.47	-0.0417702
7380.29	-0.0419878
7392.06	-0.0421373
7400.88	-0.0421419
7412.65	-0.042002
7421.47	-0.041786
7430.3	-0.0414736
7442.06	-0.0409054
7450.89	-0.0403647
7462.65	-0.03949
7471.48	-0.0387182
7480.3	-0.037847
7492.07	-0.0365311
7500.89	-0.0354287
7512.66	-0.033806
7521.48	-0.0324752
7530.31	-0.031048
7542.08	-0.0289971
7550.9	-0.0273499
7562.67	-0.0250112
7571.49	-0.0231529
7580.31	-0.0212075
7592.08	-0.0184823
7600.91	-0.0163433
7612.67	-0.0133696
7621.5	-0.0110522
7630.32	-0.00866349
7642.09	-0.00537387
7650.91	-0.00283283
7662.68	0.000646304
7671.5	0.00331872
7680.33	0.00604051
7692.09	0.00973878
7700.92	0.0125585
7712.68	0.0163707
7721.51	0.019263
7730.33	0.0221782
7742.1	0.0260924
7750.92	0.0290418
7762.69	0.032983
7771.51	0.0359389
7780.34	0.0388889
7792.1	0.0428043
7800.93	0.0457209
7812.69	0.0495734
7821.52	0.0524292
7830.34	0.0552508
7842.11	0.0589516
7850.93	0.0616753
7862.7	0.0652292
7871.53	0.067831
7880.35	0.0703738
7892.12	0.0736658
7900.94	0.0760564
7912.71	0.0791333
7921.53	0.081354
7930.36	0.0834971
7942.12	0.0862299
7950.95	0.0881831
7962.71	0.0906554
7971.54	0.0924087
7980.36	0.0940741
7992.13	0.0961565
8000.95	0.0976138
8012.72	0.099417
8021.54	0.100665
8030.37	0.101822
8042.13	0.103228
8050.96	0.104179
8062.72	0.105312
8071.55	0.106062
8080.37	0.106728
8092.14	0.107488
8100.96	0.107964
8112.73	0.108478
8121.55	0.108775
8130.38	0.108999
8142.15	0.109187
8150.97	0.109249
8162.74	0.109229
8171.56	0.109141
8180.39	0.108992
8192.15	0.108704
8200.98	0.108424
8212.74	0.107969
8221.57	0.107569
8230.39	0.107122
8242.16	0.106455
8250.98	0.105905
8262.75	0.105109
8271.57	0.104468
8280.4	0.10379
8292.16	0.102832
8300.99	0.102077
8312.75	0.101022
8321.58	0.100197
8330.4	0.0993448
8342.17	0.0981694
8350.99	0.09726
8362.76	0.0960127
8371.59	0.0950529
8380.41	0.0940737
8392.18	0.0927399
8401	0.0917199
8412.77	0.090336
8421.59	0.0892817
8430.42	0.0882144
8442.18	0.0867732
8451.01	0.0856799
8462.77	0.0842079
8471.6	0.0830943
8480.42	0.0819736
8492.19	0.0804699
8501.01	0.0793362
8512.78	0.0778182
8521.6	0.0766761
8530.43	0.0755316
8542.19	0.074003
8551.02	0.0728555
8562.79	0.071325
8571.61	0.0701774
8580.43	0.0690302
8592.2	0.067502
8601.03	0.066357
8612.79	0.064832
8621.62	0.0636894
8630.44	0.0625475
8642.21	0.0610257
8651.03	0.0598843
8662.8	0.0583615
8671.62	0.0572178
8680.45	0.0560719
8692.21	0.0545393
8701.04	0.0533849
8712.8	0.0518373
8721.63	0.0506688
8730.45	0.0494924
8742.22	0.0479092
8751.04	0.0467091
8762.81	0.0450898
8771.64	0.0438589
8780.46	0.0426127
8792.23	0.0409246
8801.05	0.039637
8812.82	0.037889
8821.64	0.036553
8830.47	0.0351943
8842.23	0.0333454
8851.06	0.0319294
8862.82	0.0300008
8871.65	0.0285229
8880.47	0.0270172
8892.24	0.0249656
8901.06	0.0233934
8912.83	0.0212523
8921.65	0.0196128
8930.48	0.0179446
8942.24	0.0156761
8951.07	0.0139424
8962.84	0.0115888
8971.66	0.00979323
8980.48	0.00797286
8992.25	0.00550912
9001.08	0.00363565
9012.84	0.00110636
9021.67	-0.000811949
9030.49	-0.00274655
9042.26	-0.00534801
9051.08	-0.00731297
9062.85	-0.00994731
9071.67	-0.011931
9080.5	-0.0139188
9092.26	-0.0165717
9101.09	-0.01856
9112.85	-0.0212047
9121.68	-0.0231801
9130.5	-0.0251458
9142.27	-0.0277473
9151.09	-0.0296807
9162.86	-0.0322302
9171.68	-0.034118
9180.51	-0.0359821
9192.28	-0.0384271
9201.1	-0.0402273
9212.87	-0.0425791
9221.69	-0.0443036
9230.52	-0.0459923
9242.28	-0.0481849
9251.11	-0.0497826
9262.87	-0.0518474
9271.7	-0.0533447
9280.52	-0.0547964
9292.29	-0.0566587
9301.11	-0.0579987
9312.88	-0.0597076
9321.7	-0.0609294
9330.53	-0.0620989
9342.29	-0.0635755
9351.12	-0.0646199
9362.88	-0.0659271
9371.71	-0.066843
9380.53	-0.067703
9392.3	-0.0687625
9401.12	-0.0694914
9412.89	-0.0703757
9421.72	-0.0709733
9430.54	-0.0715148
9442.31	-0.0721502
9451.13	-0.0725622
9462.9	-0.0730266
9471.72	-0.073312
9480.55	-0.0735442
9492.31	-0.0737727
9501.14	-0.0738844
9512.9	-0.0739559
9521.73	-0.0739528
9530.55	-0.0739026
9542.32	-0.0737647
9551.14	-0.0736098
9562.91	-0.0733377
9571.73	-0.0730864
9580.56	-0.0727966
9592.32	-0.0723531
9601.15	-0.0719801
9612.92	-0.0714323
9621.74	-0.070986
9630.57	-0.0705115
9642.33	-0.0698383
9651.16	-0.0693055
9662.92	-0.0685615
9671.75	-0.0679809
9680.57	-0.0673831
9692.34	-0.0665624
9701.16	-0.0659316
9712.93	-0.0650736
9721.75	-0.0644197
9730.58	-0.0637588
9742.34	-0.0628694
9751.17	-0.0621983
9762.93	-0.0613009
9771.76	-0.0606276
9780.58	-0.0599557
9792.35	-0.0590639
9801.17	-0.0583995
9812.94	-0.0575215
9821.77	-0.0568702
9830.59	-0.0562259
9842.36	-0.0553788
9851.18	-0.0547535
9860.01	-0.0541372
9871.77	-0.0533303
9880.6	-0.0527368
9892.36	-0.0519614
9901.19	-0.0513922
9910.01	-0.0508336
9921.78	-0.0501057
9930.6	-0.0495723
9942.37	-0.0488779
9951.19	-0.0483696
9960.02	-0.0478719
9971.78	-0.0472246
9980.61	-0.0467512
9992.38	-0.0461358
10001.2	-0.0456858
10010	-0.0452456
10021.8	-0.0446736
10030.6	-0.0442557
10042.4	-0.0437128
10051.2	-0.0433164
10060	-0.0429291
10071.8	-0.0424266
10080.6	-0.0420602
10092.4	-0.0415855
10101.2	-0.0412399
10110	-0.0409033
10121.8	-0.0404687
10130.6	-0.0401534
10142.4	-0.0397475
10151.2	-0.0394543
10160	-0.0391707
10171.8	-0.0388082
10180.6	-0.0385481
10192.4	-0.0382178
10201.2	-0.0379827
10210	-0.0377586
10221.8	-0.0374778
10230.6	-0.0372808
10242.4	-0.0370372
10251.2	-0.0368691
10260.1	-0.0367139
10271.8	-0.0365276
10280.6	-0.0364036
10292.4	-0.0362602
10301.2	-0.0361693
10310.1	-0.036093
10321.8	-0.0360147
10330.7	-0.0359737
10342.4	-0.0359434
10351.2	-0.0359393
10360.1	-0.0359512
10371.8	-0.0359927
10380.7	-0.0360431
10392.4	-0.0361365
10401.2	-0.0362263
10410.1	-0.0363332
10421.8	-0.0365026
10430.7	-0.0366497
10442.4	-0.0368729
10451.3	-0.0370606
10460.1	-0.0372655
10471.8	-0.0375656
10480.7	-0.0378107
10492.4	-0.038164
10501.3	-0.0384486
10510.1	-0.0387498
10521.9	-0.0391769
10530.7	-0.039516
10542.4	-0.0399926
10551.3	-0.0403679
10560.1	-0.0407581
10571.9	-0.0413008
10580.7	-0.0417241
10592.4	-0.0423092
10601.3	-0.0427629
10610.1	-0.0432288
10621.9	-0.0438677
10630.7	-0.0443595
10642.5	-0.0450306
10651.3	-0.0455447
10660.1	-0.0460671
10671.9	-0.0467754
10680.7	-0.0473144
10692.5	-0.048042
10701.3	-0.0485933
10710.1	-0.0491484
10721.9	-0.0498932
10730.7	-0.0504541
10742.5	-0.0512033
10751.3	-0.0517652
10760.1	-0.052326
10771.9	-0.0530705
10780.7	-0.0536253
10792.5	-0.0543586
10801.3	-0.0549026
10810.1	-0.0554404
10821.9	-0.0561464
10830.7	-0.0566664
10842.5	-0.0573455
10851.3	-0.057843
10860.1	-0.0583294
10871.9	-0.0589592
10880.7	-0.0594163
10892.5	-0.0600041
10901.3	-0.0604275
10910.1	-0.0608352
10921.9	-0.0613527
10930.7	-0.0617204
10942.5	-0.0621818
10951.3	-0.0625053
10960.1	-0.0628087
10971.9	-0.0631805
10980.7	-0.063434
10992.5	-0.0637367
11001.3	-0.0639364
11010.1	-0.0641119
11021.9	-0.0643072
11030.7	-0.0644238
11042.5	-0.0645381
11051.3	-0.0645922
11060.2	-0.0646186
11071.9	-0.0646095
11080.7	-0.0645688
11092.5	-0.0644683
11101.3	-0.0643576
11110.2	-0.0642161
11121.9	-0.0639785
11130.8	-0.0637632
11142.5	-0.0634256
11151.3	-0.0631342
11160.2	-0.0628095
11171.9	-0.0623242
11180.8	-0.0619207
11192.5	-0.0613293
11201.3	-0.0608455
11210.2	-0.0603269
11221.9	-0.0595811
11230.8	-0.0589809
11242.5	-0.058126
11251.4	-0.0574437
11260.2	-0.0567263
11271.9	-0.0557151
11280.8	-0.0549159
11292.5	-0.053796
11301.4	-0.0529157
11310.2	-0.052001
11322	-0.0507283
11330.8	-0.0497343
11342.5	-0.0483572
11351.4	-0.0472859
11360.2	-0.0461823
11372	-0.044661
11380.8	-0.0434835
11392.5	-0.0418656
11401.4	-0.0406172
11410.2	-0.0393394
11422	-0.037591
11430.8	-0.0362472
11442.6	-0.0344133
11451.4	-0.0330072
11460.2	-0.0315758
11472	-0.029629
11480.8	-0.0281414
11492.6	-0.0261227
11501.4	-0.0245834
11510.2	-0.0230235
11522	-0.0209129
11530.8	-0.0193081
11542.6	-0.0171412
11551.4	-0.0154968
11560.2	-0.0138369
11572	-0.0116015
11580.8	-0.00990954
11592.6	-0.00763493
11601.4	-0.0059163
11610.2	-0.00418798
11622	-0.00187028
11630.8	-0.000123413
11642.6	0.00221514
11651.4	0.00397471
11660.2	0.0057379
11672	0.00809255
11680.8	0.00985989
11692.6	0.012216
11701.4	0.0139813
11710.2	0.0157439
11722	0.0180877
11730.8	0.0198394
11742.6	0.0221644
11751.4	0.0238987
11760.2	0.0256237
11772	0.0279071
11780.8	0.0296056
11792.6	0.0318495
11801.4	0.0335152
11810.2	0.0351648
11822	0.0373374
11830.8	0.0389451
11842.6	0.0410577
11851.4	0.0426173
11860.3	0.0441545
11872	0.0461672
11880.8	0.0476478
11892.6	0.0495813
11901.4	0.0509997
11910.3	0.0523898
11922	0.0541978
11930.8	0.0555185
11942.6	0.0572309
11951.4	0.0584778
11960.3	0.0596918
11972	0.0612582
11980.9	0.0623931
11992.6	0.063852
12001.4	0.0649049
12010.3	0.0659221
12022	0.0672222
12030.9	0.0681548
12042.6	0.0693417
12051.4	0.0701891
12060.3	0.0710001
12072	0.0720249
12080.9	0.0727514
12092.6	0.0736644
12101.5	0.0743079
12110.3	0.0749167
12122	0.0756753
12130.9	0.0762052
12142.6	0.0768612
12151.5	0.0773162
12160.3	0.0777405
12172.1	0.0782601
12180.9	0.0786166
12192.6	0.0790496
12201.5	0.0793441
12210.3	0.079614
12222.1	0.0799376
12230.9	0.0801548
12242.6	0.0804127
12251.5	0.0805842
12260.3	0.0807383
12272.1	0.0809191
12280.9	0.0810378
12292.7	0.0811761
12301.5	0.0812666
12310.3	0.0813471
12322.1	0.0814411
12330.9	0.0815031
12342.7	0.0815768
12351.5	0.0816267
12360.3	0.081673
12372.1	0.0817312
12380.9	0.0817731
12392.7	0.0818284
12401.5	0.0818703
12410.3	0.0819133
12422.1	0.0819733
12430.9	0.0820208
12442.7	0.0820882
12451.5	0.0821421
12460.3	0.082199
12472.1	0.0822796
12480.9	0.0823435
12492.7	0.082433
12501.5	0.0825029
12510.3	0.0825749
12522.1	0.082673
12530.9	0.0827476
12542.7	0.0828471
12551.5	0.0829207
12560.3	0.0829925
12572.1	0.0830839
12580.9	0.0831479
12592.7	0.0832252
12601.5	0.0832756
12610.3	0.0833183
12622.1	0.0833611
12630.9	0.0833809
12642.7	0.0833887
12651.5	0.0833787
12660.3	0.0833538
12672.1	0.0832949
12680.9	0.0832298
12692.7	0.0831126
12701.5	0.0830001
12710.4	0.0828651
12722.1	0.0826479
12730.9	0.0824555
12742.7	0.0821574
12751.5	0.0819011
12760.4	0.0816155
12772.1	0.0811874
12781	0.0808296
12792.7	0.0803016
12801.5	0.0798664
12810.4	0.0793967
12822.1	0.0787156
12831	0.0781628
12842.7	0.0773688
12851.5	0.07673
12860.4	0.0760536
12872.1	0.0750928
12881	0.0743278
12892.7	0.0732482
12901.6	0.0723939
12910.4	0.0715014
12922.1	0.0702522
12931	0.0692712
12942.7	0.067905
12951.6	0.0668372
12960.4	0.065733
12972.2	0.0642049
12981	0.063018
12992.7	0.061382
13001.6	0.0601161
13010.4	0.0588177
13022.2	0.0570377
13031	0.0556672
13042.7	0.0537947
13051.6	0.0523577
13060.4	0.0508941
13072.2	0.0489033
13081	0.0473823
13092.8	0.0453195
13101.6	0.043748
13110.4	0.0421571
13122.2	0.0400082
13131	0.0383774
13142.8	0.0361805
13151.6	0.0345178
13160.4	0.0328438
13172.2	0.0305969
13181	0.0289024
13192.8	0.0266337
13201.6	0.0249271
13210.4	0.0232178
13222.2	0.0209372
13231	0.0192275
13242.8	0.016952
13251.6	0.0152502
13260.4	0.0135543
13272.2	0.0113048
13281	0.00962831
13292.8	0.00740987
13301.6	0.00576053
13310.4	0.00412514
13322.2	0.00196863
13331	0.000370949
13342.8	-0.00173061
13351.6	-0.00328369
13360.4	-0.00481565
13372.2	-0.00682347
13381	-0.00830182
13392.8	-0.0102343
13401.6	-0.0116534
13410.4	-0.0130456
13422.2	-0.0148584
13431	-0.0161845
13442.8	-0.0179063
13451.6	-0.0191623
13460.4	-0.0203871
13472.2	-0.0219709
13481	-0.0231212
13492.8	-0.0246042
13501.6	-0.0256779
13510.5	-0.0267184
13522.2	-0.0280536
13531	-0.029016
13542.8	-0.0302468
13551.6	-0.0311309
13560.5	-0.0319816
13572.2	-0.0330644
13581.1	-0.0338382
13592.8	-0.0348194
13601.6	-0.035518
13610.5	-0.0361852
13622.2	-0.0370267
13631.1	-0.0376225
13642.8	-0.0383711
13651.6	-0.038899
13660.5	-0.039399
13672.2	-0.0400236
13681.1	-0.0404615
13692.8	-0.0410061
13701.7	-0.0413863
13710.5	-0.0417433
13722.2	-0.0421846
13731.1	-0.0424907
13742.8	-0.0428676
13751.7	-0.0431279
13760.5	-0.04337
13772.3	-0.0436661
13781.1	-0.0438693
13792.8	-0.0441166
13801.7	-0.0442855
13810.5	-0.0444411
13822.3	-0.0446292
13831.1	-0.0447567
13842.8	-0.0449099
13851.7	-0.0450131
13860.5	-0.0451069
13872.3	-0.0452185
13881.1	-0.0452927
13892.9	-0.0453798
13901.7	-0.0454369
13910.5	-0.0454874
13922.3	-0.0455449
13931.1	-0.0455811
13942.9	-0.0456205
13951.7	-0.0456436
13960.5	-0.0456614
13972.3	-0.045677
13981.1	-0.0456828
13992.9	-0.0456824
14001.7	-0.0456762
14010.5	-0.0456648
14022.3	-0.0456413
14031.1	-0.0456175
14042.9	-0.0455771
14051.7	-0.0455401
14060.5	-0.0454973
14072.3	-0.0454309
14081.1	-0.0453739
14092.9	-0.0452878
14101.7	-0.0452156
14110.5	-0.0451366
14122.3	-0.0450205
14131.1	-0.0449252
14142.9	-0.0447868
14151.7	-0.0446744
14160.5	-0.0445547
14172.3	-0.0443833
14181.1	-0.044246
14192.9	-0.0440513
14201.7	-0.0438965
14210.5	-0.0437342
14222.3	-0.0435065
14231.1	-0.0433273
14242.9	-0.0430775
14251.7	-0.0428822
14260.5	-0.0426803
14272.3	-0.0424014
14281.1	-0.0421852
14292.9	-0.0418882
14301.7	-0.0416593
14310.6	-0.0414256
14322.3	-0.041107
14331.1	-0.0408634
14342.9	-0.0405332
14351.7	-0.040282
14360.6	-0.0400282
14372.3	-0.0396868
14381.2	-0.0394289
14392.9	-0.0390836
14401.7	-0.0388242
14410.6	-0.0385648
14422.3	-0.0382199
14431.2	-0.0379626
14442.9	-0.0376221
14451.7	-0.0373692
14460.6	-0.0371189
14472.3	-0.03679
14481.2	-0.0365474
14492.9	-0.0362301
14501.8	-0.0359973
14510.6	-0.0357691
14522.3	-0.0354727
14531.2	-0.0352567
14542.9	-0.0349773
14551.8	-0.0347747
14560.6	-0.0345781
14572.4	-0.0343257
14581.2	-0.0341438
14590	-0.0339684
14601.8	-0.0337446
14610.6	-0.0335843
14622.4	-0.0333808
14631.2	-0.0332355
14640	-0.0330966
14651.8	-0.032921
14660.6	-0.0327963
14672.4	-0.0326388
14681.2	-0.0325271
14690	-0.0324204
14701.8	-0.0322857
14710.6	-0.0321898
14722.4	-0.032068
14731.2	-0.0319806
14740	-0.0318962
14751.8	-0.0317873
14760.6	-0.0317077
14772.4	-0.0316034
14781.2	-0.0315257
14790	-0.0314478
14801.8	-0.0313424
14810.6	-0.0312614
14822.4	-0.0311496
14831.2	-0.0310618
14840	-0.0309698
14851.8	-0.0308395
14860.6	-0.030735
14872.4	-0.030585
14881.2	-0.0304635
14890	-0.0303335
14901.8	-0.0301454
14910.6	-0.0299922
14922.4	-0.0297702
14931.2	-0.0295895
14940	-0.0293956
14951.8	-0.0291153
14960.6	-0.0288877
14972.4	-0.0285598
14981.2	-0.0282946
14990.1	-0.0280121
15001.8	-0.0276073
15010.6	-0.0272819
15022.4	-0.0268179
15031.2	-0.0264466
15040.1	-0.0260548
15051.8	-0.0254998
15060.6	-0.0250586
15072.4	-0.0244366
15081.2	-0.0239445
15090.1	-0.0234303
15101.8	-0.0227101
15110.7	-0.0221441
15122.4	-0.0213549
15131.2	-0.0207374
15140.1	-0.0200982
15151.8	-0.0192127
15160.7	-0.0185241
15172.4	-0.0175744
15181.3	-0.0168391
15190.1	-0.0160848
15201.8	-0.0150509
15210.7	-0.0142552
15222.4	-0.0131691
15231.3	-0.0123368
15240.1	-0.0114905
15251.8	-0.0103423
15260.7	-0.00946766
15272.4	-0.00828594
15281.3	-0.00738962
15290.1	-0.00648619
15301.9	-0.0052729
15310.7	-0.00435822
15322.4	-0.00313512
15331.3	-0.00221703
15340.1	-0.00129995
15351.9	-8.13202e-05
15360.7	0.000827594
15372.5	0.00202988
15381.3	0.00292246
15390.1	0.00380557
15401.9	0.0049658
15410.7	0.00582118
15422.5	0.00693932
15431.3	0.00775941
15440.1	0.00856217
15451.9	0.00960341
15460.7	0.010361
15472.5	0.0113377
15481.3	0.012044
15490.1	0.0127266
15501.9	0.0135983
15510.7	0.0142222
15522.5	0.0150129
15531.3	0.0155742
15540.1	0.0161077
15551.9	0.0167749
15560.7	0.0172417
15572.5	0.0178188
15581.3	0.0182174
15590.1	0.0185865
15601.9	0.0190329
15610.7	0.0193334
15622.5	0.0196886
15631.3	0.0199214
15640.1	0.0201256
15651.9	0.0203542
15660.7	0.0204935
15672.5	0.0206375
15681.3	0.020715
15690.1	0.0207671
15701.9	0.0207983
15710.7	0.0207942
15722.5	0.0207534
15731.3	0.0206975
15740.1	0.020621
15751.9	0.0204886
15760.7	0.0203678
15772.5	0.0201799
15781.3	0.0200203
15790.2	0.0198456
15801.9	0.0195913
15810.7	0.0193859
15822.5	0.0190943
15831.3	0.0188636
15840.2	0.0186238
15851.9	0.0182916
15860.7	0.0180344
15872.5	0.0176824
15881.3	0.0174128
15890.2	0.0171393
15901.9	0.0167702
15910.8	0.016491
15922.5	0.016117
15931.3	0.0158361
15940.2	0.0155555
15951.9	0.0151831
15960.8	0.0149058
15972.5	0.0145395
15981.4	0.014268
15990.2	0.0139997
16001.9	0.0136476
16010.8	0.013388
16022.5	0.0130484
16031.4	0.0127987
16040.2	0.0125536
16051.9	0.0122339
16060.8	0.0119995
16072.5	0.011694
16081.4	0.0114702
16090.2	0.0112507
16102	0.0109646
16110.8	0.0107546
16122.5	0.0104804
16131.4	0.0102787
16140.2	0.01008
16152	0.00981919
16160.8	0.00962623
16172.6	0.00937172
16181.4	0.00918239
16190.2	0.00899392
16202	0.00874317
16210.8	0.00855492
16222.6	0.00830279
16231.4	0.00811221
16240.2	0.00791983
16252	0.00765966
16260.8	0.00746115
16272.6	0.00719102
16281.4	0.0069837
16290.2	0.0067718
16302	0.0064813
16310.8	0.00625684
16322.6	0.00594791
16331.4	0.00570838
16340.2	0.00546166
16352	0.00512075
16360.8	0.00485559
16372.6	0.00448863
16381.4	0.00420285
16390.2	0.00390762
16402	0.00349866
16410.8	0.00318002
16422.6	0.00273866
16431.4	0.00239487
16440.2	0.00203982
16452	0.00154844
16460.8	0.00116608
16472.6	0.00063741
16481.4	0.000226469
16490.2	-0.000197072
16502	-0.000781718
16510.8	-0.00123537
16522.6	-0.00186076
16531.4	-0.00234537
16540.2	-0.00284347
16552	-0.00352877
16560.8	-0.00405876
16572.6	-0.00478689
16581.4	-0.00534919
16590.3	-0.00592544
16602	-0.00671551
16610.8	-0.0073244
16622.6	-0.00815802
16631.4	-0.00879955
16640.3	-0.00945503
16652	-0.0103506
16660.8	-0.0110383
16672.6	-0.0119767
16681.4	-0.0126962
16690.3	-0.0134292
16702	-0.014427
16710.9	-0.0151905
16722.6	-0.0162284
16731.4	-0.0170214
16740.3	-0.0178265
16752	-0.0189184
16760.9	-0.0197507
16772.6	-0.0208775
16781.5	-0.021735
16790.3	-0.0226025
16802	-0.0237739
16810.9	-0.0246629
16822.6	-0.025861
16831.5	-0.0267685
16840.3	-0.0276828
16852	-0.0289114
16860.9	-0.029839
16872.6	-0.0310826
16881.5	-0.0320193
16890.3	-0.0329586
16902.1	-0.0342132
16910.9	-0.0351547
16922.6	-0.036409
16931.5	-0.0373475
16940.3	-0.0382831
16952.1	-0.0395239
16960.9	-0.0404483
16972.7	-0.0416701
16981.5	-0.0425771
16990.3	-0.0434747
17002.1	-0.0446548
17010.9	-0.0455258
17022.7	-0.0466661
17031.5	-0.0475039
17040.3	-0.0483255
17052.1	-0.0493935
17060.9	-0.0501724
17072.7	-0.0511793
17081.5	-0.0519091
17090.3	-0.0526159
17102.1	-0.0535205
17110.9	-0.0541693
17122.7	-0.0549928
17131.5	-0.0555778
17140.3	-0.0561338
17152.1	-0.0568285
17160.9	-0.0573134
17172.7	-0.0579102
17181.5	-0.0583195
17190.3	-0.0586952
17202.1	-0.0591428
17210.9	-0.0594377
17222.7	-0.0597757
17231.5	-0.0599871
17240.3	-0.0601622
17252.1	-0.0603386
17260.9	-0.0604277
17272.7	-0.060489
17281.5	-0.0604916
17290.3	-0.060457
17302.1	-0.0603534
17310.9	-0.0602327
17322.7	-0.060015
17331.5	-0.0598095
17340.3	-0.0595682
17352.1	-0.0591916
17360.9	-0.0588687
17372.7	-0.0583852
17381.5	-0.0579837
17390.4	-0.0575497
17402.1	-0.0569216
17410.9	-0.0564144
17422.7	-0.0556918
17431.5	-0.0551162
17440.4	-0.0545126
17452.1	-0.0536661
17460.9	-0.0530011
17472.7	-0.0520763
17481.5	-0.0513554
17490.4	-0.0506122
17502.1	-0.0495884
17511	-0.0487974
17522.7	-0.0477137
17531.5	-0.0468806
17540.4	-0.0460313
17552.1	-0.0448755
17561	-0.0439925
17572.7	-0.0427956
17581.6	-0.0418846
17590.4	-0.0409634
17602.1	-0.0397209
17611	-0.0387797
17622.7	-0.037514
17631.6	-0.036558
17640.4	-0.0355973
17652.1	-0.0343103
17661	-0.0333418
17672.7	-0.0320476
17681.6	-0.0310759
17690.4	-0.030104
17702.2	-0.0288093
17711	-0.02784
17722.7	-0.0265512
17731.6	-0.025588
17740.4	-0.0246285
17752.2	-0.0233557
17761	-0.0224067
17772.8	-0.0211498
17781.6	-0.020214
17790.4	-0.0192845
17802.2	-0.0180557
17811	-0.0171424
17822.8	-0.0159365
17831.6	-0.0150412
17840.4	-0.0141541
17852.2	-0.0129843
17861	-0.0121171
17872.8	-0.0109746
17881.6	-0.0101283
17890.4	-0.00929117
17902.2	-0.00818959
17911	-0.00737448
17922.8	-0.00630262
17931.6	-0.00551005
17940.4	-0.00472727
17952.2	-0.00369894
17961	-0.0029393
17972.8	-0.00194204
17981.6	-0.00120587
17990.4	-0.000479868
18002.2	0.000472228
18011	0.00117428
18022.8	0.0020942
18031.6	0.00277192
18040.4	0.00343908
18052.2	0.00431205
18061	0.0049542
18072.8	0.00579344
18081.6	0.00640998
18090.4	0.00701534
18102.2	0.00780483
18111	0.0083835
18122.8	0.00913681
18131.6	0.00968787
18140.4	0.0102268
18152.2	0.0109261
18161	0.0114358
18172.8	0.0120954
18181.6	0.0125748
18190.5	0.0130407
18202.2	0.0136405
18211	0.0140741
18222.8	0.0146297
18231.6	0.0150294
18240.5	0.015414
18252.2	0.0159031
18261	0.0162516
18272.8	0.0166914
18281.6	0.0170022
18290.5	0.0172963
18302.2	0.017662
18311.1	0.0179161
18322.8	0.0182273
18331.6	0.0184397
18340.5	0.0186338
18352.2	0.0188636
18361.1	0.0190138
18372.8	0.0191842
18381.7	0.0192891
18390.5	0.0193742
18402.2	0.0194565
18411.1	0.0194945
18422.8	0.019513
18431.7	0.0195026
18440.5	0.0194712
18452.2	0.0193962
18461.1	0.0193149
18472.8	0.0191729
18481.7	0.019041
18490.5	0.0188871
18502.3	0.0186476
18511.1	0.0184421
18522.8	0.0181335
18531.7	0.0178759
18540.5	0.017596
18552.3	0.0171877
18561.1	0.0168553
18572.9	0.016377
18581.7	0.0159921
18590.5	0.0155847
18602.3	0.0150067
18611.1	0.0145471
18622.9	0.0138998
18631.7	0.0133884
18640.5	0.0128551
18652.3	0.0121102
18661.1	0.0115262
18672.9	0.0107143
18681.7	0.0100807
18690.5	0.00942625
18702.3	0.00852165
18711.1	0.00781959
18722.9	0.00685265
18731.7	0.00610478
18740.5	0.0053379
18752.3	0.00428656
18761.1	0.00347703
18772.9	0.00237054
18781.7	0.00152102
18790.5	0.000655284
18802.3	-0.000523225
18811.1	-0.00142443
18822.9	-0.00264783
18831.7	-0.00358081
18840.5	-0.00452617
18852.3	-0.00580452
18861.1	-0.00677562
18872.9	-0.00808517
18881.7	-0.00907722
18890.5	-0.0100767
18902.3	-0.0114191
18911.1	-0.0124319
18922.9	-0.0137882
18931.7	-0.0148085
18940.5	-0.0158301
18952.3	-0.0171923
18961.1	-0.0182123
18972.9	-0.019568
18981.7	-0.0205797
18990.6	-0.0215858
19002.3	-0.022916
19011.1	-0.0239036
19022.9	-0.0252043
19031.7	-0.026166
19040.6	-0.0271144
19052.3	-0.0283558
19061.1	-0.0292677
19072.9	-0.0304554
19081.7	-0.0313232
19090.6	-0.0321699
19102.3	-0.0332636
19111.2	-0.0340557
19122.9	-0.0350718
19131.7	-0.0358022
19140.6	-0.0365041
19152.3	-0.0373935
19161.2	-0.0380241
19172.9	-0.0388143
19181.8	-0.0393675
19190.6	-0.0398858
19202.3	-0.0405209
19211.2	-0.040954
19222.9	-0.0414723
19231.8	-0.0418155
19240.6	-0.0421191
19252.3	-0.0424608
19261.2	-0.0426692
19272.9	-0.042882
19281.8	-0.0429924
19290.6	-0.0430602
19302.4	-0.0430839
19311.2	-0.0430513
19320	-0.0429755
19331.8	-0.0428071
19340.6	-0.0426303
19352.4	-0.0423275
19361.2	-0.0420504
19370	-0.0417308
19381.8	-0.041239
19390.6	-0.0408215
19402.4	-0.040201
19411.2	-0.0396885
19420	-0.0391363
19431.8	-0.0383395
19440.6	-0.0376975
19452.4	-0.036784
19461.2	-0.0360569
19470	-0.0352949
19481.8	-0.0342263
19490.6	-0.0333869
19502.4	-0.0322189
19511.2	-0.031308
19520	-0.0303685
19531.8	-0.0290733
19540.6	-0.0280718
19552.4	-0.0266986
19561.2	-0.025642
19570	-0.0245641
19581.8	-0.0230959
19590.6	-0.0219734
19602.4	-0.0204508
19611.2	-0.0192912
19620	-0.0181179
19631.8	-0.0165349
19640.6	-0.0153353
19652.4	-0.0137221
19661.2	-0.0125036
19670	-0.0112793
19681.8	-0.00964007
19690.6	-0.0084073
19702.4	-0.00676156
19711.2	-0.00552738
19720.1	-0.00429469
19731.8	-0.00265554
19740.6	-0.00143104
19752.4	0.000192935
19761.2	0.00140293
19770.1	0.00260487
19781.8	0.0041931
19790.7	0.00537218
19802.4	0.00692629
19811.2	0.00807716
19820.1	0.00921442
19831.8	0.0107081
19840.7	0.0118103
19852.4	0.0132543
19861.2	0.0143172
19870.1	0.0153621
19881.8	0.0167262
19890.7	0.0177266
19902.4	0.0190292
19911.3	0.0199821
19920.1	0.0209138
19931.8	0.0221224
19940.7	0.023003
19952.4	0.0241422
19961.3	0.0249699
19970.1	0.0257745
19981.9	0.0268109
19990.7	0.0275606
