0	0
157.951	0
315.902	0
473.853	0
631.803	0
789.754	0
947.705	0
1105.66	0
1263.61	0
1421.56	-5.07027e-05
1579.51	0.000943993
1737.46	0.00497483
1895.41	0.0140397
2053.36	0.0292829
2211.31	0.050707
2369.26	0.0772804
2527.2	0.107178
2685.15	0.138019
2843.1	0.167143
3001.04	0.191938
3158.99	0.210218
3316.93	0.220527
3474.88	0.222312
3632.83	0.215922
3790.77	0.202447
3948.72	0.183466
4106.67	0.160757
4264.62	0.136045
4422.57	0.110812
4580.51	0.0861925
4738.46	0.0629558
4896.41	0.0415376
5054.36	0.0221165
5212.31	0.00469972
5370.27	-0.010798
5528.22	-0.024494
5686.17	-0.0365008
5844.12	-0.046912
6002.07	-0.0558036
6160.02	-0.0632442
6317.97	-0.0693071
6475.93	-0.074078
6633.88	-0.0776577
6791.83	-0.0801587
6949.78	-0.0816975
7107.73	-0.0823866
7265.68	-0.0823269
7423.63	-0.081604
7581.58	-0.0802884
7739.53	-0.0784385
7897.48	-0.0761062
8055.44	-0.0733434
8213.39	-0.0702064
8371.34	-0.0667594
8529.29	-0.0630745
8687.24	-0.0592296
8845.19	-0.0553044
9003.14	-0.0513758
9161.09	-0.0475129
9319.04	-0.0437742
9476.99	-0.0402053
9634.94	-0.0368388
9792.89	-0.0336958
9950.84	-0.0307881
10108.8	-0.0281205
10266.7	-0.0256938
10424.7	-0.0235058
10582.6	-0.0215526
10740.6	-0.0198289
10898.5	-0.0183267
11056.5	-0.0170354
11214.4	-0.0159402
11372.4	-0.0150225
11530.3	-0.0142591
11688.3	-0.0136238
11846.2	-0.013088
12004.2	-0.0126224
12162.1	-0.0121987
12320.1	-0.011791
12478	-0.0113769
12636	-0.0109382
12793.9	-0.0104614
12951.9	-0.00993737
13109.8	-0.00936088
13267.8	-0.00873018
13425.7	-0.00804617
13583.7	-0.00731192
13741.7	-0.00653216
13899.6	-0.00571298
14057.6	-0.00486175
14215.5	-0.00398697
14373.5	-0.00309835
14531.4	-0.0022067
14689.4	-0.00132389
14847.3	-0.000462631
15005.3	0.000363791
15163.2	0.00114188
15321.2	0.00185832
15479.1	0.00250041
15637.1	0.00305646
15795	0.0035161
15953	0.00387062
16110.9	0.00411316
16268.9	0.00423884
16426.8	0.00424488
16584.8	0.00413063
16742.7	0.00389758
16900.7	0.00354933
17058.6	0.00309154
17216.6	0.00253183
17374.5	0.00187963
17532.5	0.00114607
17690.4	0.000343663
17848.4	-0.000513892
18006.3	-0.00141206
18164.3	-0.00233581
18322.2	-0.00326994
18480.2	-0.00419948
18638.1	-0.00511001
18796.1	-0.00598796
18954	-0.00682089
19112	-0.00759769
19269.9	-0.00830873
19427.9	-0.008946
19585.8	-0.00950308
19743.8	-0.00997525
19901.7	-0.0103593
