0	0
11.8196	0
23.6393	0
35.4589	0
47.2785	0
59.0981	0
70.9178	0
82.7374	0
94.557	0
106.377	0
118.196	0
130.016	0
141.836	0
153.655	0
165.475	0
177.294	0
189.114	0
200.934	0
212.753	0
224.573	0
236.393	0
248.212	0
260.032	0
271.851	0
283.671	0
295.491	0
307.31	0
319.13	0
330.95	0
342.769	0
354.589	0
366.408	9.09495e-13
378.228	2.72848e-12
390.048	6.36646e-12
401.867	1.45519e-11
413.687	3.36513e-11
425.507	7.45786e-11
437.326	1.6189e-10
449.146	3.39242e-10
460.966	6.91216e-10
472.785	1.3697e-09
484.605	2.64117e-09
496.424	4.96766e-09
508.244	9.12132e-09
520.064	1.63718e-08
531.883	2.876e-08
543.703	4.95011e-08
555.523	8.35607e-08
567.342	1.38475e-07
579.162	2.25486e-07
590.981	3.61084e-07
602.801	5.69099e-07
614.621	8.83457e-07
626.44	1.35179e-06
638.26	2.04012e-06
650.08	3.03877e-06
661.899	4.46994e-06
673.719	6.49706e-06
685.538	9.3364e-06
697.358	1.32714e-05
709.178	1.86697e-05
720.997	2.60046e-05
732.817	3.58795e-05
744.637	4.90577e-05
756.456	6.64978e-05
768.276	8.93944e-05
780.095	0.000119226
791.915	0.000157811
803.735	0.000207369
815.554	0.000270596
827.374	0.000350744
839.194	0.000451717
851.013	0.000578168
862.833	0.000735616
874.652	0.000930571
886.472	0.00117067
898.292	0.00146481
910.111	0.00182332
921.931	0.00225811
933.751	0.00278284
945.57	0.00341309
957.39	0.00416652
969.21	0.00506304
981.029	0.00612498
992.849	0.00737718
1004.67	0.00884717
1016.49	0.0105652
1028.31	0.0125644
1040.13	0.0148807
1051.95	0.0175529
1063.77	0.0206225
1075.59	0.0241335
1087.41	0.0281327
1099.23	0.0326686
1111.05	0.0377919
1122.86	0.0435545
1134.68	0.0500095
1146.5	0.0572101
1158.32	0.0652095
1170.14	0.0740599
1181.96	0.0838117
1193.78	0.0945129
1205.6	0.106208
1217.42	0.118938
1229.24	0.132738
1241.06	0.147636
1252.88	0.163654
1264.7	0.180808
1276.52	0.199101
1288.34	0.21853
1300.16	0.239079
1311.98	0.260722
1323.8	0.283423
1335.62	0.307131
1347.44	0.331784
1359.26	0.357308
1371.08	0.383615
1382.9	0.410606
1394.72	0.43817
1406.54	0.466181
1418.36	0.494507
1430.18	0.523001
1441.99	0.551511
1453.81	0.579872
1465.63	0.607917
1477.45	0.63547
1489.27	0.662351
1501.09	0.688378
1512.91	0.713369
1524.73	0.737141
1536.55	0.759513
1548.37	0.780311
1560.19	0.799362
1572.01	0.816506
1583.83	0.831587
1595.65	0.844462
1607.47	0.855001
1619.29	0.863085
1631.11	0.868611
1642.93	0.871491
1654.75	0.871655
1666.57	0.869047
1678.39	0.863633
1690.21	0.855395
1702.03	0.844332
1713.85	0.830466
1725.67	0.813832
1737.49	0.794487
1749.3	0.772504
1761.12	0.747973
1772.94	0.721
1784.76	0.691707
1796.58	0.660228
1808.4	0.626713
1820.22	0.591321
1832.04	0.554221
1843.86	0.515594
1855.68	0.475625
1867.5	0.434506
1879.32	0.392432
1891.14	0.349604
1902.96	0.306222
1914.78	0.262484
1926.6	0.218588
1938.42	0.174731
1950.24	0.131102
1962.06	0.0878866
1973.88	0.0452622
1985.7	0.0033988
1997.52	-0.0375424
2009.34	-0.0774101
2021.16	-0.116063
2032.98	-0.153372
2044.8	-0.189219
2056.62	-0.223496
2068.43	-0.256111
2080.25	-0.286982
2092.07	-0.31604
2103.89	-0.343227
2115.71	-0.368501
2127.53	-0.391829
2139.35	-0.413191
2151.17	-0.432578
2162.99	-0.449993
2174.81	-0.465447
2186.63	-0.478964
2198.45	-0.490576
2210.27	-0.500323
2222.09	-0.508253
2233.91	-0.514423
2245.73	-0.518894
2257.55	-0.521735
2269.37	-0.523018
2281.19	-0.522821
2293.01	-0.521226
2304.83	-0.518315
2316.65	-0.514176
2328.47	-0.508895
2340.29	-0.502563
2352.11	-0.495266
2363.93	-0.487095
2375.75	-0.478138
2387.56	-0.46848
2399.38	-0.458208
2411.2	-0.447405
2423.02	-0.436151
2434.84	-0.424524
2446.66	-0.412598
2458.48	-0.400447
2470.3	-0.388136
2482.12	-0.375731
2493.94	-0.363293
2505.76	-0.350878
2517.58	-0.338538
2529.4	-0.326322
2541.22	-0.314276
2553.04	-0.302439
2564.86	-0.290848
2576.68	-0.279537
2588.5	-0.268534
2600.32	-0.257865
2612.14	-0.247551
2623.96	-0.237611
2635.78	-0.228061
2647.6	-0.218911
2659.42	-0.210171
2671.24	-0.201847
2683.06	-0.193944
2694.88	-0.186461
2706.69	-0.179398
2718.51	-0.172751
2730.33	-0.166516
2742.15	-0.160686
2753.97	-0.155251
2765.79	-0.150202
2777.61	-0.145529
2789.43	-0.141218
2801.25	-0.137256
2813.07	-0.13363
2824.89	-0.130324
2836.71	-0.127324
2848.53	-0.124615
2860.35	-0.122179
2872.17	-0.120001
2883.99	-0.118065
2895.81	-0.116354
2907.63	-0.114853
2919.45	-0.113546
2931.27	-0.112416
2943.09	-0.111449
2954.91	-0.110629
2966.73	-0.109942
2978.55	-0.109374
2990.37	-0.10891
3002.18	-0.108538
3014	-0.108244
3025.82	-0.108018
3037.64	-0.107847
3049.46	-0.10772
3061.28	-0.107628
3073.1	-0.107559
3084.92	-0.107506
3096.74	-0.10746
3108.56	-0.107412
3120.38	-0.107356
3132.2	-0.107285
3144.02	-0.107193
3155.84	-0.107074
3167.66	-0.106922
3179.48	-0.106735
3191.3	-0.106507
3203.12	-0.106234
3214.94	-0.105915
3226.76	-0.105546
3238.57	-0.105125
3250.39	-0.104651
3262.21	-0.104121
3274.03	-0.103535
3285.85	-0.102893
3297.67	-0.102193
3309.49	-0.101436
3321.31	-0.100622
3333.13	-0.0997509
3344.95	-0.0988239
3356.77	-0.0978418
3368.59	-0.0968055
3380.41	-0.0957162
3392.23	-0.0945754
3404.05	-0.0933846
3415.87	-0.0921452
3427.69	-0.0908592
3439.5	-0.0895281
3451.32	-0.088154
3463.14	-0.0867387
3474.96	-0.0852842
3486.78	-0.0837925
3498.6	-0.0822656
3510.42	-0.0807053
3522.24	-0.0791139
3534.06	-0.0774932
3545.88	-0.0758452
3557.7	-0.0741718
3569.52	-0.0724749
3581.34	-0.0707563
3593.16	-0.0690178
3604.97	-0.0672612
3616.79	-0.0654881
3628.61	-0.0637001
3640.43	-0.0618987
3652.25	-0.0600855
3664.07	-0.0582618
3675.89	-0.0564289
3687.71	-0.0545881
3699.53	-0.0527407
3711.35	-0.0508876
3723.17	-0.0490299
3734.99	-0.0471687
3746.8	-0.0453048
3758.62	-0.043439
3770.44	-0.0415721
3782.26	-0.0397049
3794.08	-0.037838
3805.9	-0.035972
3817.72	-0.0341074
3829.54	-0.0322448
3841.36	-0.0303846
3853.18	-0.0285272
3865	-0.0266731
3876.82	-0.0248225
3888.63	-0.0229758
3900.45	-0.0211333
3912.27	-0.0192952
3924.09	-0.0174618
3935.91	-0.0156334
3947.73	-0.0138102
3959.55	-0.0119923
3971.37	-0.01018
3983.19	-0.00837358
3995.01	-0.00657314
4006.83	-0.00477894
4018.65	-0.0029912
4030.46	-0.00121014
4042.28	0.000563979
4054.1	0.00233092
4065.92	0.00409041
4077.74	0.00584215
4089.56	0.00758586
4101.38	0.0093212
4113.2	0.0110478
4125.02	0.0127654
4136.84	0.0144735
4148.66	0.0161717
4160.48	0.0178596
4172.3	0.0195368
4184.11	0.0212027
4195.93	0.0228569
4207.75	0.0244987
4219.57	0.0261278
4231.39	0.0277434
4243.21	0.029345
4255.03	0.030932
4266.85	0.0325037
4278.67	0.0340594
4290.49	0.0355985
4302.31	0.0371203
4314.13	0.038624
4325.95	0.0401089
4337.77	0.0415742
4349.59	0.0430193
4361.41	0.0444432
4373.22	0.0458453
4385.04	0.0472246
4396.86	0.0485805
4408.68	0.049912
4420.5	0.0512184
4432.32	0.0524989
4444.14	0.0537525
4455.96	0.0549786
4467.78	0.0561762
4479.6	0.0573445
4491.42	0.0584828
4503.24	0.0595903
4515.06	0.0606661
4526.88	0.0617095
4538.7	0.0627196
4550.52	0.0636958
4562.34	0.0646374
4574.16	0.0655435
4585.98	0.0664136
4597.8	0.0672469
4609.62	0.0680428
4621.44	0.0688008
4633.26	0.0695201
4645.07	0.0702003
4656.89	0.0708409
4668.71	0.0714413
4680.53	0.0720012
4692.35	0.07252
4704.17	0.0729976
4715.99	0.0734334
4727.81	0.0738273
4739.63	0.074179
4751.45	0.0744883
4763.27	0.074755
4775.09	0.0749792
4786.91	0.0751606
4798.73	0.0752994
4810.55	0.0753955
4822.37	0.0754491
4834.19	0.0754603
4846.01	0.0754293
4857.83	0.0753564
4869.65	0.0752419
4881.47	0.0750861
4893.29	0.0748895
4905.11	0.0746525
4916.93	0.0743756
4928.75	0.0740594
4940.56	0.0737045
4952.38	0.0733115
4964.2	0.0728813
4976.02	0.0724144
4987.84	0.0719118
4999.66	0.0713742
5011.48	0.0708026
5023.3	0.0701979
5035.12	0.069561
5046.94	0.068893
5058.76	0.0681949
5070.58	0.0674677
5082.4	0.0667126
5094.22	0.0659308
5106.04	0.0651233
5117.86	0.0642913
5129.68	0.0634361
5141.5	0.062559
5153.32	0.061661
5165.14	0.0607436
5176.96	0.0598079
5188.78	0.0588553
5200.6	0.0578871
5212.42	0.0569045
5224.23	0.0559089
5236.05	0.0549015
5247.87	0.0538837
5259.69	0.0528567
5271.51	0.0518219
5283.33	0.0507804
5295.15	0.0497336
5306.97	0.0486827
5318.79	0.0476289
5330.61	0.0465735
5342.43	0.0455176
5354.25	0.0444624
5366.07	0.043409
5377.89	0.0423585
5389.71	0.041312
5401.53	0.0402706
5413.35	0.0392352
5425.17	0.0382068
5436.99	0.0371864
5448.81	0.0361749
5460.63	0.0351731
5472.45	0.0341818
5484.27	0.0332018
5496.09	0.0322339
5507.91	0.0312786
5519.72	0.0303368
5531.54	0.0294089
5543.36	0.0284954
5555.18	0.027597
5567	0.026714
5578.82	0.0258469
5590.64	0.0249959
5602.46	0.0241615
5614.28	0.0233438
5626.1	0.022543
5637.92	0.0217595
5649.74	0.0209931
5661.56	0.0202441
5673.38	0.0195123
5685.2	0.0187979
5697.02	0.0181007
5708.84	0.0174207
5720.66	0.0167576
5732.48	0.0161112
5744.3	0.0154814
5756.12	0.0148678
5767.94	0.0142701
5779.76	0.0136881
5791.58	0.0131211
5803.4	0.012569
5815.21	0.0120312
5827.03	0.0115072
5838.85	0.0109965
5850.67	0.0104986
5862.49	0.0100129
5874.31	0.00953879
5886.13	0.00907573
5897.95	0.00862306
5909.77	0.00818014
5921.59	0.00774631
5933.41	0.0073209
5945.23	0.00690323
5957.05	0.00649261
5968.87	0.00608833
5980.69	0.00568969
5992.51	0.00529599
6004.33	0.00490651
6016.15	0.00452055
6027.97	0.0041374
6039.79	0.00375637
6051.61	0.00337675
6063.43	0.00299785
6075.25	0.00261901
6087.07	0.00223954
6098.89	0.0018588
6110.71	0.00147615
6122.52	0.00109096
6134.34	0.000702622
6146.16	0.000310548
6157.98	-8.58324e-05
6169.8	-0.000487069
6181.62	-0.000893688
6193.44	-0.0013062
6205.26	-0.00172507
6217.08	-0.00215078
6228.9	-0.00258374
6240.72	-0.00302436
6252.54	-0.00347302
6264.36	-0.00393007
6276.18	-0.00439584
6288	-0.00487063
6299.82	-0.00535469
6311.64	-0.00584827
6323.46	-0.00635157
6335.28	-0.00686479
6347.1	-0.00738807
6358.92	-0.00792155
6370.74	-0.0084653
6382.56	-0.00901941
6394.38	-0.00958392
6406.2	-0.0101588
6418.02	-0.0107441
6429.83	-0.0113398
6441.65	-0.0119457
6453.47	-0.0125619
6465.29	-0.0131881
6477.11	-0.0138243
6488.93	-0.0144702
6500.75	-0.0151257
6512.57	-0.0157906
6524.39	-0.0164646
6536.21	-0.0171475
6548.03	-0.017839
6559.85	-0.0185388
6571.67	-0.0192467
6583.49	-0.0199622
6595.31	-0.0206851
6607.13	-0.021415
6618.95	-0.0221514
6630.77	-0.0228941
6642.59	-0.0236427
6654.41	-0.0243966
6666.23	-0.0251555
6678.05	-0.025919
6689.87	-0.0266866
6701.69	-0.0274578
6713.51	-0.0282322
6725.33	-0.0290094
6737.15	-0.0297888
6748.97	-0.0305699
6760.78	-0.0313524
6772.6	-0.0321357
6784.42	-0.0329192
6796.24	-0.0337026
6808.06	-0.0344853
6819.88	-0.0352668
6831.7	-0.0360466
6843.52	-0.0368242
6855.34	-0.0375991
6867.16	-0.0383709
6878.98	-0.0391389
6890.8	-0.0399028
6902.62	-0.040662
6914.44	-0.041416
6926.26	-0.0421643
6938.08	-0.0429065
6949.9	-0.0436421
6961.72	-0.0443706
6973.54	-0.0450915
6985.36	-0.0458043
6997.18	-0.0465086
7009	-0.047204
7020.82	-0.04789
7032.64	-0.0485661
7044.46	-0.0492319
7056.28	-0.049887
7068.1	-0.0505309
7079.92	-0.0511633
7091.73	-0.0517837
7103.55	-0.0523917
7115.37	-0.052987
7127.19	-0.0535691
7139.01	-0.0541377
7150.83	-0.0546924
7162.65	-0.0552329
7174.47	-0.0557588
7186.29	-0.0562697
7198.11	-0.0567654
7209.93	-0.0572456
7221.75	-0.0577098
7233.57	-0.0581579
7245.39	-0.0585895
7257.21	-0.0590043
7269.03	-0.0594022
7280.85	-0.0597828
7292.67	-0.0601458
7304.49	-0.0604912
7316.31	-0.0608186
7328.13	-0.0611278
7339.95	-0.0614187
7351.77	-0.061691
7363.59	-0.0619446
7375.41	-0.0621793
7387.23	-0.062395
7399.04	-0.0625915
7410.86	-0.0627688
7422.68	-0.0629266
7434.5	-0.0630649
7446.32	-0.0631837
7458.14	-0.0632828
7469.96	-0.0633622
7481.78	-0.0634218
7493.6	-0.0634617
7505.42	-0.0634817
7517.24	-0.0634819
7529.06	-0.0634622
7540.88	-0.0634228
7552.7	-0.0633636
7564.52	-0.0632847
7576.34	-0.0631861
7588.16	-0.0630679
7599.98	-0.0629302
7611.8	-0.062773
7623.62	-0.0625965
7635.44	-0.0624008
7647.26	-0.062186
7659.08	-0.0619523
7670.9	-0.0616998
7682.71	-0.0614286
7694.53	-0.061139
7706.35	-0.0608312
7718.17	-0.0605052
7729.99	-0.0601614
7741.81	-0.0598
7753.63	-0.0594211
7765.45	-0.0590251
7777.27	-0.0586121
7789.09	-0.0581824
7800.91	-0.0577363
7812.73	-0.057274
7824.55	-0.0567959
7836.37	-0.0563021
7848.19	-0.0557931
7860.01	-0.0552691
7871.83	-0.0547304
7883.65	-0.0541773
7895.47	-0.0536101
7907.29	-0.0530293
7919.11	-0.052435
7930.93	-0.0518277
7942.75	-0.0512076
7954.56	-0.0505752
7966.38	-0.0499308
7978.2	-0.0492746
7990.02	-0.0486072
8001.84	-0.0479288
8013.66	-0.0472398
8025.48	-0.0465406
8037.3	-0.0458315
8049.12	-0.0451129
8060.94	-0.0443852
8072.76	-0.0436487
8084.58	-0.0429038
8096.4	-0.042151
8108.22	-0.0413904
8120.04	-0.0406226
8131.86	-0.0398479
8143.68	-0.0390667
8155.5	-0.0382793
8167.32	-0.0374862
8179.14	-0.0366876
8190.96	-0.035884
8202.78	-0.0350757
8214.6	-0.0342631
8226.41	-0.0334465
8238.23	-0.0326264
8250.05	-0.0318031
8261.87	-0.0309769
8273.69	-0.0301482
8285.51	-0.0293173
8297.33	-0.0284847
8309.15	-0.0276506
8320.97	-0.0268154
8332.79	-0.0259794
8344.61	-0.0251431
8356.43	-0.0243067
8368.25	-0.0234705
8380.07	-0.0226349
8391.89	-0.0218003
8403.71	-0.020967
8415.53	-0.0201352
8427.35	-0.0193053
8439.17	-0.0184777
8450.99	-0.0176526
8462.81	-0.0168304
8474.63	-0.0160113
8486.45	-0.0151957
8498.26	-0.0143839
8510.08	-0.0135762
8521.9	-0.0127729
8533.72	-0.0119742
8545.54	-0.0111804
8557.36	-0.0103919
8569.18	-0.00960899
8581	-0.00883184
8592.82	-0.00806077
8604.64	-0.00729606
8616.46	-0.00653797
8628.28	-0.00578677
8640.1	-0.00504272
8651.92	-0.00430607
8663.74	-0.00357709
8675.56	-0.002856
8687.38	-0.00214307
8699.2	-0.00143853
8711.02	-0.000742619
8722.84	-5.55627e-05
8734.66	0.00062241
8746.48	0.00129108
8758.3	0.00195022
8770.11	0.00259963
8781.93	0.0032391
8793.75	0.00386843
8805.57	0.00448742
8817.39	0.00509589
8829.21	0.00569364
8841.03	0.0062805
8852.85	0.0068563
8864.67	0.00742086
8876.49	0.00797404
8888.31	0.00851567
8900.13	0.00904561
8911.95	0.00956372
8923.77	0.0100699
8935.59	0.0105639
8947.41	0.0110457
8959.23	0.0115153
8971.05	0.0119723
8982.87	0.0124169
8994.69	0.0128489
9006.51	0.0132681
9018.33	0.0136746
9030.15	0.0140683
9041.97	0.014449
9053.78	0.0148169
9065.6	0.0151717
9077.42	0.0155136
9089.24	0.0158424
9101.06	0.0161582
9112.88	0.0164609
9124.7	0.0167506
9136.52	0.0170272
9148.34	0.0172909
9160.16	0.0175416
9171.98	0.0177793
9183.8	0.0180041
9195.62	0.0182161
9207.44	0.0184154
9219.26	0.0186019
9231.08	0.0187759
9242.9	0.0189373
9254.72	0.0190864
9266.54	0.0192231
9278.36	0.0193476
9290.18	0.0194601
9302	0.0195607
9313.82	0.0196495
9325.64	0.0197267
9337.46	0.0197925
9349.27	0.0198469
9361.09	0.0198902
9372.91	0.0199226
9384.73	0.0199442
9396.55	0.0199553
9408.37	0.0199561
9420.19	0.0199466
9432.01	0.0199273
9443.83	0.0198983
9455.65	0.0198598
9467.47	0.019812
9479.29	0.0197552
9491.11	0.0196897
9502.93	0.0196156
9514.75	0.0195332
9526.57	0.0194428
9538.39	0.0193447
9550.21	0.019239
9562.03	0.019126
9573.85	0.0190061
9585.67	0.0188794
9597.49	0.0187463
9609.31	0.0186069
9621.13	0.0184616
9632.95	0.0183107
9644.76	0.0181543
9656.58	0.0179928
9668.4	0.0178264
9680.22	0.0176554
9692.04	0.0174801
9703.86	0.0173007
9715.68	0.0171174
9727.5	0.0169306
9739.32	0.0167404
9751.14	0.0165471
9762.96	0.0163511
9774.78	0.0161524
9786.6	0.0159513
9798.42	0.0157482
9810.24	0.0155431
9822.06	0.0153363
9833.88	0.015128
9845.7	0.0149185
9857.52	0.014708
9869.34	0.0144965
9881.16	0.0142844
9892.98	0.0140718
9904.8	0.0138588
9916.62	0.0136458
9928.44	0.0134327
9940.26	0.0132197
9952.07	0.0130071
9963.89	0.012795
9975.71	0.0125833
9987.53	0.0123724
9999.35	0.0121623
10011.2	0.0119531
10023	0.0117449
10034.8	0.0115379
10046.6	0.0113319
10058.5	0.0111273
10070.3	0.0109239
10082.1	0.010722
10093.9	0.0105214
10105.7	0.0103223
10117.5	0.0101247
10129.4	0.00992857
10141.2	0.00973399
10153	0.00954095
10164.8	0.00934945
10176.6	0.00915948
10188.5	0.00897104
10200.3	0.00878409
10212.1	0.00859861
10223.9	0.00841457
10235.7	0.00823193
10247.6	0.00805064
10259.4	0.00787066
10271.2	0.00769192
10283	0.00751437
10294.8	0.00733793
10306.7	0.00716253
10318.5	0.0069881
10330.3	0.00681455
10342.1	0.0066418
10353.9	0.00646977
10365.8	0.00629836
10377.6	0.00612747
10389.4	0.00595702
10401.2	0.00578689
10413	0.00561698
10424.9	0.00544721
10436.7	0.00527745
10448.5	0.0051076
10460.3	0.00493756
10472.1	0.00476721
10484	0.00459646
10495.8	0.00442519
10507.6	0.00425329
10519.4	0.00408066
10531.2	0.00390719
10543.1	0.00373278
10554.9	0.00355733
10566.7	0.00338073
10578.5	0.00320289
10590.3	0.0030237
10602.2	0.00284307
10614	0.00266092
10625.8	0.00247715
10637.6	0.00229168
10649.4	0.00210442
10661.3	0.0019153
10673.1	0.00172424
10684.9	0.00153118
10696.7	0.00133604
10708.5	0.00113876
10720.4	0.000939286
10732.2	0.000737564
10744	0.000533545
10755.8	0.000327185
10767.6	0.000118446
10779.4	-9.27062e-05
10791.3	-0.000306301
10803.1	-0.000522361
10814.9	-0.000740906
10826.7	-0.000961948
10838.5	-0.0011855
10850.4	-0.00141155
10862.2	-0.00164011
10874	-0.00187117
10885.8	-0.00210471
10897.6	-0.00234072
10909.5	-0.00257917
10921.3	-0.00282003
10933.1	-0.00306327
10944.9	-0.00330884
10956.7	-0.00355672
10968.6	-0.00380684
10980.4	-0.00405915
10992.2	-0.00431359
11004	-0.0045701
11015.8	-0.00482861
11027.7	-0.00508905
11039.5	-0.00535134
11051.3	-0.0056154
11063.1	-0.00588114
11074.9	-0.00614849
11086.8	-0.00641733
11098.6	-0.00668758
11110.4	-0.00695914
11122.2	-0.0072319
11134	-0.00750576
11145.9	-0.0077806
11157.7	-0.00805632
11169.5	-0.00833281
11181.3	-0.00860994
11193.1	-0.00888759
11205	-0.00916565
11216.8	-0.00944399
11228.6	-0.00972249
11240.4	-0.010001
11252.2	-0.0102794
11264.1	-0.0105577
11275.9	-0.0108355
11287.7	-0.0111129
11299.5	-0.0113896
11311.3	-0.0116656
11323.2	-0.0119408
11335	-0.0122149
11346.8	-0.0124879
11358.6	-0.0127596
11370.4	-0.0130299
11382.2	-0.0132987
11394.1	-0.0135659
11405.9	-0.0138312
11417.7	-0.0140947
11429.5	-0.0143561
11441.3	-0.0146154
11453.2	-0.0148724
11465	-0.0151271
11476.8	-0.0153792
11488.6	-0.0156287
11500.4	-0.0158755
11512.3	-0.0161194
11524.1	-0.0163604
11535.9	-0.0165984
11547.7	-0.0168332
11559.5	-0.0170648
11571.4	-0.017293
11583.2	-0.0175178
11595	-0.0177391
11606.8	-0.0179569
11618.6	-0.0181709
11630.5	-0.0183812
11642.3	-0.0185877
11654.1	-0.0187903
11665.9	-0.0189889
11677.7	-0.0191836
11689.6	-0.0193741
11701.4	-0.0195606
11713.2	-0.0197429
11725	-0.0199209
11736.8	-0.0200948
11748.7	-0.0202643
11760.5	-0.0204295
11772.3	-0.0205904
11784.1	-0.020747
11795.9	-0.0208991
11807.8	-0.0210469
11819.6	-0.0211902
11831.4	-0.0213292
11843.2	-0.0214637
11855	-0.0215938
11866.9	-0.0217196
11878.7	-0.0218409
11890.5	-0.0219579
11902.3	-0.0220705
11914.1	-0.0221788
11926	-0.0222828
11937.8	-0.0223825
11949.6	-0.022478
11961.4	-0.0225693
11973.2	-0.0226564
11985.1	-0.0227394
11996.9	-0.0228183
12008.7	-0.0228932
12020.5	-0.0229642
12032.3	-0.0230312
12044.1	-0.0230944
12056	-0.0231538
12067.8	-0.0232095
12079.6	-0.0232615
12091.4	-0.0233099
12103.2	-0.0233548
12115.1	-0.0233963
12126.9	-0.0234344
12138.7	-0.0234692
12150.5	-0.0235008
12162.3	-0.0235293
12174.2	-0.0235547
12186	-0.0235771
12197.8	-0.0235966
12209.6	-0.0236134
12221.4	-0.0236274
12233.3	-0.0236387
12245.1	-0.0236475
12256.9	-0.0236539
12268.7	-0.0236578
12280.5	-0.0236595
12292.4	-0.0236589
12304.2	-0.0236562
12316	-0.0236514
12327.8	-0.0236447
12339.6	-0.0236361
12351.5	-0.0236257
12363.3	-0.0236135
12375.1	-0.0235997
12386.9	-0.0235844
12398.7	-0.0235675
12410.6	-0.0235492
12422.4	-0.0235296
12434.2	-0.0235087
12446	-0.0234866
12457.8	-0.0234634
12469.7	-0.0234391
12481.5	-0.0234137
12493.3	-0.0233874
12505.1	-0.0233602
12516.9	-0.0233322
12528.8	-0.0233034
12540.6	-0.0232738
12552.4	-0.0232436
12564.2	-0.0232127
12576	-0.0231812
12587.9	-0.0231491
12599.7	-0.0231166
12611.5	-0.0230835
12623.3	-0.02305
12635.1	-0.023016
12646.9	-0.0229816
12658.8	-0.0229469
12670.6	-0.0229118
12682.4	-0.0228763
12694.2	-0.0228405
12706	-0.0228044
12717.9	-0.0227679
12729.7	-0.0227312
12741.5	-0.0226941
12753.3	-0.0226567
12765.1	-0.0226191
12777	-0.0225811
12788.8	-0.0225427
12800.6	-0.0225041
12812.4	-0.0224651
12824.2	-0.0224257
12836.1	-0.0223859
12847.9	-0.0223458
12859.7	-0.0223052
12871.5	-0.0222641
12883.3	-0.0222226
12895.2	-0.0221806
12907	-0.022138
12918.8	-0.0220948
12930.6	-0.022051
12942.4	-0.0220066
12954.3	-0.0219615
12966.1	-0.0219156
12977.9	-0.021869
12989.7	-0.0218216
13001.5	-0.0217733
13013.4	-0.0217241
13025.2	-0.021674
13037	-0.0216228
13048.8	-0.0215707
13060.6	-0.0215174
13072.5	-0.0214629
13084.3	-0.0214073
13096.1	-0.0213505
13107.9	-0.0212923
13119.7	-0.0212328
13131.6	-0.0211719
13143.4	-0.0211095
13155.2	-0.0210457
13167	-0.0209802
13178.8	-0.0209132
13190.7	-0.0208446
13202.5	-0.0207742
13214.3	-0.020702
13226.1	-0.0206281
13237.9	-0.0205523
13249.7	-0.0204746
13261.6	-0.020395
13273.4	-0.0203134
13285.2	-0.0202298
13297	-0.020144
13308.8	-0.0200562
13320.7	-0.0199662
13332.5	-0.019874
13344.3	-0.0197796
13356.1	-0.0196829
13367.9	-0.0195839
13379.8	-0.0194825
13391.6	-0.0193788
13403.4	-0.0192727
13415.2	-0.0191642
13427	-0.0190533
13438.9	-0.0189398
13450.7	-0.0188239
13462.5	-0.0187055
13474.3	-0.0185845
13486.1	-0.018461
13498	-0.018335
13509.8	-0.0182064
13521.6	-0.0180752
13533.4	-0.0179414
13545.2	-0.0178051
13557.1	-0.0176662
13568.9	-0.0175247
13580.7	-0.0173807
13592.5	-0.017234
13604.3	-0.0170848
13616.2	-0.0169331
13628	-0.0167788
13639.8	-0.016622
13651.6	-0.0164627
13663.4	-0.016301
13675.3	-0.0161368
13687.1	-0.0159701
13698.9	-0.015801
13710.7	-0.0156296
13722.5	-0.0154558
13734.4	-0.0152797
13746.2	-0.0151014
13758	-0.0149208
13769.8	-0.014738
13781.6	-0.014553
13793.5	-0.014366
13805.3	-0.0141769
13817.1	-0.0139858
13828.9	-0.0137927
13840.7	-0.0135977
13852.6	-0.0134009
13864.4	-0.0132022
13876.2	-0.0130019
13888	-0.0127998
13899.8	-0.0125962
13911.6	-0.012391
13923.5	-0.0121842
13935.3	-0.0119761
13947.1	-0.0117666
13958.9	-0.0115558
13970.7	-0.0113438
13982.6	-0.0111307
13994.4	-0.0109165
14006.2	-0.0107012
14018	-0.0104851
14029.8	-0.010268
14041.7	-0.0100502
14053.5	-0.0098317
14065.3	-0.00961255
14077.1	-0.00939284
14088.9	-0.00917265
14100.8	-0.00895207
14112.6	-0.00873116
14124.4	-0.00851
14136.2	-0.00828868
14148	-0.00806727
14159.9	-0.00784585
14171.7	-0.00762449
14183.5	-0.00740328
14195.3	-0.0071823
14207.1	-0.00696161
14219	-0.0067413
14230.8	-0.00652145
14242.6	-0.00630212
14254.4	-0.0060834
14266.2	-0.00586536
14278.1	-0.00564807
14289.9	-0.00543161
14301.7	-0.00521604
14313.5	-0.00500145
14325.3	-0.00478789
14337.2	-0.00457545
14349	-0.00436418
14360.8	-0.00415416
14372.6	-0.00394544
14384.4	-0.0037381
14396.3	-0.00353219
14408.1	-0.00332779
14419.9	-0.00312494
14431.7	-0.00292371
14443.5	-0.00272415
14455.4	-0.00252633
14467.2	-0.00233028
14479	-0.00213607
14490.8	-0.00194375
14502.6	-0.00175337
14514.4	-0.00156496
14526.3	-0.00137859
14538.1	-0.00119428
14549.9	-0.00101209
14561.7	-0.000832053
14573.5	-0.000654205
14585.4	-0.000478584
14597.2	-0.000305224
14609	-0.000134158
14620.8	3.45837e-05
14632.6	0.000200973
14644.5	0.000364984
14656.3	0.000526591
14668.1	0.000685772
14679.9	0.000842506
14691.7	0.000996774
14703.6	0.00114856
14715.4	0.00129785
14727.2	0.00144463
14739	0.00158888
14750.8	0.00173061
14762.7	0.00186979
14774.5	0.00200644
14786.3	0.00214053
14798.1	0.00227208
14809.9	0.00240108
14821.8	0.00252753
14833.6	0.00265144
14845.4	0.00277281
14857.2	0.00289164
14869	0.00300796
14880.9	0.00312176
14892.7	0.00323307
14904.5	0.00334189
14916.3	0.00344823
14928.1	0.00355212
14940	0.00365358
14951.8	0.00375262
14963.6	0.00384926
14975.4	0.00394354
14987.2	0.00403546
14999.1	0.00412506
15010.9	0.00421236
15022.7	0.00429739
15034.5	0.00438019
15046.3	0.00446077
15058.2	0.00453917
15070	0.00461543
15081.8	0.00468957
15093.6	0.00476163
15105.4	0.00483165
15117.3	0.00489967
15129.1	0.00496571
15140.9	0.00502982
15152.7	0.00509203
15164.5	0.00515239
15176.3	0.00521094
15188.2	0.00526771
15200	0.00532275
15211.8	0.00537609
15223.6	0.00542779
15235.4	0.00547789
15247.3	0.00552642
15259.1	0.00557343
15270.9	0.00561897
15282.7	0.00566308
15294.5	0.0057058
15306.4	0.00574718
15318.2	0.00578726
15330	0.0058261
15341.8	0.00586372
15353.6	0.00590019
15365.5	0.00593554
15377.3	0.00596982
15389.1	0.00600307
15400.9	0.00603534
15412.7	0.00606667
15424.6	0.00609711
15436.4	0.0061267
15448.2	0.00615549
15460	0.00618351
15471.8	0.00621082
15483.7	0.00623744
15495.5	0.00626344
15507.3	0.00628883
15519.1	0.00631368
15530.9	0.00633801
15542.8	0.00636187
15554.6	0.00638529
15566.4	0.00640832
15578.2	0.00643098
15590	0.00645332
15601.9	0.00647538
15613.7	0.00649718
15625.5	0.00651875
15637.3	0.00654014
15649.1	0.00656137
15661	0.00658248
15672.8	0.00660348
15684.6	0.00662442
15696.4	0.00664531
15708.2	0.00666618
15720.1	0.00668706
15731.9	0.00670797
15743.7	0.00672892
15755.5	0.00674995
15767.3	0.00677106
15779.1	0.00679228
15791	0.00681362
15802.8	0.00683509
15814.6	0.00685671
15826.4	0.00687849
15838.2	0.00690043
15850.1	0.00692255
15861.9	0.00694485
15873.7	0.00696733
15885.5	0.00698999
15897.3	0.00701284
15909.2	0.00703587
15921	0.00705908
15932.8	0.00708247
15944.6	0.00710602
15956.4	0.00712973
15968.3	0.00715359
15980.1	0.00717759
15991.9	0.0072017
16003.7	0.00722592
16015.5	0.00725022
16027.4	0.00727458
16039.2	0.00729898
16051	0.0073234
16062.8	0.00734781
16074.6	0.00737217
16086.5	0.00739646
16098.3	0.00742065
16110.1	0.0074447
16121.9	0.00746857
16133.7	0.00749223
16145.6	0.00751563
16157.4	0.00753873
16169.2	0.00756149
16181	0.00758385
16192.8	0.00760578
16204.7	0.00762722
16216.5	0.00764813
16228.3	0.00766843
16240.1	0.00768809
16251.9	0.00770704
16263.8	0.00772523
16275.6	0.00774259
16287.4	0.00775906
16299.2	0.00777459
16311	0.00778909
16322.9	0.00780252
16334.7	0.0078148
16346.5	0.00782586
16358.3	0.00783563
16370.1	0.00784405
16381.9	0.00785103
16393.8	0.00785652
16405.6	0.00786043
16417.4	0.00786269
16429.2	0.00786322
16441	0.00786195
16452.9	0.00785881
16464.7	0.00785372
16476.5	0.00784659
16488.3	0.00783736
16500.1	0.00782595
16512	0.00781228
16523.8	0.00779628
16535.6	0.00777786
16547.4	0.00775696
16559.2	0.00773349
16571.1	0.00770738
16582.9	0.00767857
16594.7	0.00764696
16606.5	0.00761251
16618.3	0.00757512
16630.2	0.00753474
16642	0.00749129
16653.8	0.00744471
16665.6	0.00739493
16677.4	0.00734189
16689.3	0.00728553
16701.1	0.00722579
16712.9	0.00716261
16724.7	0.00709593
16736.5	0.00702571
16748.4	0.00695189
16760.2	0.00687443
16772	0.00679328
16783.8	0.00670839
16795.6	0.00661974
16807.5	0.00652728
16819.3	0.00643098
16831.1	0.00633082
16842.9	0.00622676
16854.7	0.00611879
16866.6	0.00600689
16878.4	0.00589104
16890.2	0.00577123
16902	0.00564746
16913.8	0.00551972
16925.7	0.00538801
16937.5	0.00525234
16949.3	0.00511272
16961.1	0.00496917
16972.9	0.0048217
16984.8	0.00467034
16996.6	0.00451511
17008.4	0.00435605
17020.2	0.00419319
17032	0.00402657
17043.8	0.00385625
17055.7	0.00368227
17067.5	0.00350469
17079.3	0.00332358
17091.1	0.00313898
17102.9	0.00295098
17114.8	0.00275966
17126.6	0.00256508
17138.4	0.00236734
17150.2	0.00216652
17162	0.00196272
17173.9	0.00175603
17185.7	0.00154657
17197.5	0.00133443
17209.3	0.00111973
17221.1	0.000902581
17233	0.00068311
17244.8	0.000461438
17256.6	0.000237695
17268.4	1.20131e-05
17280.2	-0.000215471
17292.1	-0.000444616
17303.9	-0.000675279
17315.7	-0.000907312
17327.5	-0.00114056
17339.3	-0.00137488
17351.2	-0.00161011
17363	-0.00184608
17374.8	-0.00208263
17386.6	-0.0023196
17398.4	-0.00255683
17410.3	-0.00279413
17422.1	-0.00303134
17433.9	-0.00326828
17445.7	-0.00350478
17457.5	-0.00374066
17469.4	-0.00397574
17481.2	-0.00420983
17493	-0.00444277
17504.8	-0.00467436
17516.6	-0.00490442
17528.5	-0.00513277
17540.3	-0.00535923
17552.1	-0.00558362
17563.9	-0.00580575
17575.7	-0.00602544
17587.6	-0.00624251
17599.4	-0.00645678
17611.2	-0.00666806
17623	-0.0068762
17634.8	-0.00708099
17646.6	-0.00728228
17658.5	-0.00747989
17670.3	-0.00767365
17682.1	-0.00786339
17693.9	-0.00804896
17705.7	-0.00823017
17717.6	-0.00840689
17729.4	-0.00857895
17741.2	-0.0087462
17753	-0.00890849
17764.8	-0.00906568
17776.7	-0.00921763
17788.5	-0.0093642
17800.3	-0.00950527
17812.1	-0.00964069
17823.9	-0.00977036
17835.8	-0.00989415
17847.6	-0.010012
17859.4	-0.0101237
17871.2	-0.0102292
17883	-0.0103284
17894.9	-0.0104212
17906.7	-0.0105076
17918.5	-0.0105874
17930.3	-0.0106606
17942.1	-0.0107271
17954	-0.0107869
17965.8	-0.0108398
17977.6	-0.010886
17989.4	-0.0109252
18001.2	-0.0109574
18013.1	-0.0109827
18024.9	-0.0110011
18036.7	-0.0110124
18048.5	-0.0110167
18060.3	-0.011014
18072.2	-0.0110043
18084	-0.0109876
18095.8	-0.0109639
18107.6	-0.0109332
18119.4	-0.0108956
18131.3	-0.0108511
18143.1	-0.0107997
18154.9	-0.0107415
18166.7	-0.0106765
18178.5	-0.0106049
18190.4	-0.0105266
18202.2	-0.0104417
18214	-0.0103504
18225.8	-0.0102526
18237.6	-0.0101485
18249.5	-0.0100382
18261.3	-0.00992183
18273.1	-0.00979941
18284.9	-0.00967108
18296.7	-0.00953695
18308.5	-0.00939716
18320.4	-0.00925183
18332.2	-0.00910108
18344	-0.00894504
18355.8	-0.00878387
18367.6	-0.00861769
18379.5	-0.00844665
18391.3	-0.00827091
18403.1	-0.00809062
18414.9	-0.00790593
18426.7	-0.00771701
18438.6	-0.00752401
18450.4	-0.00732711
18462.2	-0.00712646
18474	-0.00692224
18485.8	-0.00671463
18497.7	-0.00650379
18509.5	-0.00628991
18521.3	-0.00607316
18533.1	-0.00585372
18544.9	-0.00563176
18556.8	-0.00540749
18568.6	-0.00518106
18580.4	-0.00495268
18592.2	-0.00472251
18604	-0.00449075
18615.9	-0.00425757
18627.7	-0.00402316
18639.5	-0.00378771
18651.3	-0.00355139
18663.1	-0.00331438
18675	-0.00307687
18686.8	-0.00283904
18698.6	-0.00260106
18710.4	-0.00236311
18722.2	-0.00212537
18734.1	-0.001888
18745.9	-0.00165118
18757.7	-0.00141507
18769.5	-0.00117985
18781.3	-0.000945681
18793.2	-0.000712719
18805	-0.000481124
18816.8	-0.000251055
18828.6	-2.26621e-05
18840.4	0.000203903
18852.3	0.000428494
18864.1	0.000650968
18875.9	0.000871184
18887.7	0.00108901
18899.5	0.0013043
18911.3	0.00151694
18923.2	0.0017268
18935	0.00193376
18946.8	0.00213769
18958.6	0.00233849
18970.4	0.00253605
18982.3	0.00273026
18994.1	0.00292102
19005.9	0.00310824
19017.7	0.00329181
19029.5	0.00347166
19041.4	0.0036477
19053.2	0.00381985
19065	0.00398803
19076.8	0.00415218
19088.6	0.00431222
19100.5	0.0044681
19112.3	0.00461976
19124.1	0.00476714
19135.9	0.0049102
19147.7	0.00504889
19159.6	0.00518317
19171.4	0.005313
19183.2	0.00543836
19195	0.00555922
19206.8	0.00567556
19218.7	0.00578735
19230.5	0.00589458
19242.3	0.00599724
19254.1	0.00609533
19265.9	0.00618883
19277.8	0.00627776
19289.6	0.00636212
19301.4	0.00644192
19313.2	0.00651717
19325	0.00658789
19336.9	0.00665409
19348.7	0.0067158
19360.5	0.00677305
19372.3	0.00682587
19384.1	0.0068743
19396	0.00691836
19407.8	0.0069581
19419.6	0.00699356
19431.4	0.00702479
19443.2	0.00705184
19455.1	0.00707475
19466.9	0.00709359
19478.7	0.0071084
19490.5	0.00711926
19502.3	0.00712621
19514.2	0.00712933
19526	0.00712867
19537.8	0.00712432
19549.6	0.00711633
19561.4	0.00710478
19573.2	0.00708974
19585.1	0.0070713
19596.9	0.00704952
19608.7	0.00702449
19620.5	0.00699628
19632.3	0.00696498
19644.2	0.00693066
19656	0.00689343
19667.8	0.00685335
19679.6	0.00681051
19691.4	0.00676501
19703.3	0.00671692
19715.1	0.00666634
19726.9	0.00661336
19738.7	0.00655806
19750.5	0.00650054
19762.4	0.00644088
19774.2	0.00637918
19786	0.00631553
19797.8	0.00625001
19809.6	0.00618273
19821.5	0.00611376
19833.3	0.00604321
19845.1	0.00597115
19856.9	0.00589769
19868.7	0.00582291
19880.6	0.0057469
19892.4	0.00566976
19904.2	0.00559156
19916	0.0055124
19927.8	0.00543237
19939.7	0.00535156
19951.5	0.00527004
19963.3	0.00518791
19975.1	0.00510525
19986.9	0.00502214
19998.8	0.00493866
