0	0
10.2954	0
20.5908	0
30.8863	0
41.1817	0
50.0063	0
60.3018	0
70.5972	0
80.8926	0
91.188	0
100.013	0
110.308	0
120.604	0
130.899	0
141.194	0
150.019	0
160.314	0
170.61	0
180.905	0
191.201	0
200.025	0
210.321	0
220.616	0
230.912	0
241.207	0
250.032	0
260.327	0
270.623	0
280.918	0
291.213	0
300.038	0
310.333	0
320.629	0
330.924	0
341.22	0
350.044	0
360.34	0
370.635	0
380.931	0
391.226	0
400.051	0
410.346	0
420.642	0
430.937	0
441.232	0
450.057	0
460.352	0
470.648	0
480.943	0
491.239	0
500.063	0
510.359	0
520.654	0
530.95	0
541.245	0
550.07	0
560.365	0
570.661	0
580.956	0
591.251	0
600.076	0
610.371	0
620.667	0
630.962	0
641.258	0
650.082	0
660.378	0
670.673	0
680.969	0
691.264	0
700.089	0
710.384	0
720.68	0
730.975	0
741.27	0
750.095	0
760.39	0
770.686	0
780.981	0
791.277	0
800.101	0
810.397	0
820.692	0
830.988	2.72848e-12
841.283	9.09495e-12
850.108	1.81899e-11
860.403	4.27463e-11
870.699	1.03682e-10
880.994	2.44654e-10
891.289	5.68434e-10
900.114	1.14596e-09
910.409	2.53567e-09
920.705	5.46152e-09
931	1.1466e-08
941.296	2.34759e-08
950.12	4.25525e-08
960.416	8.32988e-08
970.711	1.59307e-07
981.007	2.97835e-07
991.302	5.44637e-07
1000.13	8.98113e-07
1010.42	1.57857e-06
1020.72	2.71809e-06
1031.01	4.58733e-06
1041.31	7.59218e-06
1050.13	1.15165e-05
1060.43	1.84043e-05
1070.72	2.88817e-05
1081.02	4.45276e-05
1091.31	6.74731e-05
1100.14	9.5065e-05
1110.43	0.000139667
1120.73	0.000201934
1131.03	0.00028744
1141.32	0.000402994
1150.15	0.000532088
1160.44	0.0007261
1170.74	0.000977149
1181.03	0.00129739
1191.33	0.00170029
1200.15	0.00212253
1210.45	0.00271866
1220.74	0.003442
1231.04	0.00430976
1241.33	0.00533985
1250.16	0.00636607
1260.45	0.00774766
1270.75	0.00934746
1281.04	0.0111879
1291.34	0.0132944
1300.16	0.0153338
1310.46	0.0180165
1320.76	0.0210654
1331.05	0.0245314
1341.35	0.0284766
1350.17	0.0322971
1360.47	0.037347
1370.76	0.0431391
1381.06	0.0498015
1391.35	0.0574836
1400.18	0.0650091
1410.47	0.0750553
1420.77	0.0866662
1431.06	0.100069
1441.36	0.115507
1450.18	0.130548
1460.48	0.150431
1470.77	0.17307
1481.07	0.198702
1491.37	0.227548
1500.19	0.254976
1510.49	0.290265
1520.78	0.329201
1531.08	0.371838
1541.37	0.418168
1550.2	0.460761
1560.49	0.513688
1570.79	0.569887
1581.08	0.629067
1591.38	0.690859
1600.2	0.745571
1610.5	0.810997
1620.79	0.877614
1631.09	0.944816
1641.38	1.01196
1650.21	1.06897
1660.5	1.13423
1670.8	1.19749
1681.1	1.25808
1691.39	1.31533
1700.22	1.36127
1710.51	1.41068
1720.81	1.45506
1731.1	1.4939
1741.4	1.52677
1750.22	1.54988
1760.52	1.57066
1770.81	1.58451
1781.11	1.59122
1791.4	1.59064
1800.23	1.58427
1810.52	1.56996
1820.82	1.54823
1831.11	1.51917
1841.41	1.48288
1850.23	1.44615
1860.53	1.39692
1870.83	1.34105
1881.12	1.27886
1891.42	1.21067
1900.24	1.14774
1910.54	1.06945
1920.83	0.986371
1931.13	0.89898
1941.42	0.807799
1950.25	0.727048
1960.54	0.630324
1970.84	0.531464
1981.13	0.431088
1991.43	0.329829
2000.25	0.242817
2010.55	0.141613
2020.84	0.0413483
2031.14	-0.057354
2041.44	-0.153889
2050.26	-0.234467
2060.56	-0.325462
2070.85	-0.41272
2081.15	-0.495769
2091.44	-0.574181
2100.27	-0.637414
2110.56	-0.706259
2120.86	-0.769542
2131.15	-0.827048
2141.45	-0.878624
2150.27	-0.91804
2160.57	-0.958398
2170.86	-0.992709
2181.16	-1.02104
2191.45	-1.04351
2200.28	-1.05822
2210.57	-1.07027
2220.87	-1.07702
2231.16	-1.07876
2241.46	-1.07577
2250.28	-1.0697
2260.58	-1.0588
2270.88	-1.04412
2281.17	-1.02601
2291.47	-1.00483
2300.29	-0.984482
2310.59	-0.958496
2320.88	-0.930402
2331.18	-0.900519
2340	-0.873712
2350.3	-0.841299
2360.59	-0.807919
2370.89	-0.773826
2381.18	-0.739253
2390.01	-0.7094
2400.3	-0.674491
2410.6	-0.639668
2420.89	-0.605094
2431.19	-0.570916
2440.01	-0.542036
2450.31	-0.508932
2460.61	-0.476562
2470.9	-0.44502
2481.2	-0.414389
2490.02	-0.388914
2500.32	-0.360157
2510.61	-0.332491
2520.91	-0.305962
2531.2	-0.280608
2540.03	-0.259837
2550.32	-0.236745
2560.62	-0.214901
2570.91	-0.194319
2581.21	-0.175006
2590.03	-0.159462
2600.33	-0.142506
2610.62	-0.12681
2620.92	-0.112362
2631.22	-0.099145
2640.04	-0.0887794
2650.34	-0.077788
2660.63	-0.0679556
2670.93	-0.0592501
2681.22	-0.0516359
2690.05	-0.045949
2700.34	-0.0402578
2710.64	-0.0355415
2720.93	-0.0317553
2731.23	-0.0288526
2740.05	-0.0270314
2750.35	-0.0256413
2760.64	-0.0249949
2770.94	-0.0250419
2781.23	-0.0257319
2790.06	-0.0267967
2800.35	-0.028547
2810.65	-0.0307968
2820.95	-0.033497
2831.24	-0.0365993
2840.07	-0.0395429
2850.36	-0.043268
2860.66	-0.0472641
2870.95	-0.051488
2881.25	-0.0558984
2890.07	-0.059797
2900.37	-0.06445
2910.66	-0.0691816
2920.96	-0.0739579
2931.25	-0.0787475
2940.08	-0.0828411
2950.37	-0.0875792
2960.67	-0.0922528
2970.96	-0.0968391
2981.26	-0.101318
2990.08	-0.105057
3000.38	-0.10929
3010.67	-0.113368
3020.97	-0.117282
3031.26	-0.12102
3040.09	-0.124079
3050.38	-0.127472
3060.68	-0.130671
3070.98	-0.133675
3081.27	-0.13648
3090.09	-0.138726
3100.39	-0.141163
3110.69	-0.143402
3120.98	-0.145447
3131.28	-0.147299
3140.1	-0.148736
3150.4	-0.150239
3160.69	-0.15156
3170.99	-0.152702
3181.28	-0.153667
3190.11	-0.154358
3200.4	-0.155006
3210.7	-0.155488
3220.99	-0.155806
3231.29	-0.155962
3240.11	-0.155968
3250.41	-0.155828
3260.7	-0.15553
3271	-0.155076
3281.29	-0.154465
3290.12	-0.153818
3300.41	-0.152919
3310.71	-0.151865
3321	-0.150656
3331.3	-0.149292
3340.12	-0.148
3350.42	-0.146351
3360.71	-0.14455
3371.01	-0.142598
3381.3	-0.140497
3390.13	-0.13858
3400.42	-0.13621
3410.72	-0.1337
3421.01	-0.131055
3431.31	-0.128279
3440.13	-0.125799
3450.43	-0.122796
3460.72	-0.119681
3471.02	-0.11646
3481.31	-0.113143
3490.14	-0.110229
3500.43	-0.106756
3510.73	-0.103213
3521.02	-0.0996088
3531.32	-0.095955
3540.14	-0.0927914
3550.44	-0.0890731
3560.73	-0.0853355
3571.03	-0.0815896
3581.32	-0.0778463
3590.15	-0.0746478
3600.44	-0.0709375
3610.74	-0.0672598
3621.03	-0.0636247
3631.33	-0.0600421
3640.15	-0.05702
3650.45	-0.053559
3660.74	-0.0501758
3671.04	-0.0468782
3681.33	-0.0436739
3690.15	-0.0410067
3700.45	-0.0379932
3710.74	-0.035091
3721.04	-0.0323055
3731.33	-0.0296412
3740.16	-0.0274571
3750.45	-0.0250284
3760.75	-0.022731
3771.04	-0.0205672
3781.34	-0.018539
3790.16	-0.0169093
3800.46	-0.0151355
3810.75	-0.0134991
3821.05	-0.0119996
3831.34	-0.0106363
3840.17	-0.00957481
3850.46	-0.00845964
3860.76	-0.00747476
3871.05	-0.00661717
3881.35	-0.00588336
3890.17	-0.0053499
3900.47	-0.00483507
3910.76	-0.00443147
3921.06	-0.00413385
3931.35	-0.00393662
3940.18	-0.00384293
3950.47	-0.00381599
3960.77	-0.00387149
3971.06	-0.0040026
3981.36	-0.00420223
3990.18	-0.0044224
4000.48	-0.00472994
4010.77	-0.00508491
4021.07	-0.00547973
4031.36	-0.00590679
4040.18	-0.00629275
4050.48	-0.0067596
4060.78	-0.00723719
4071.07	-0.00771822
4081.37	-0.00819555
4090.19	-0.0085965
4100.48	-0.0090488
4110.78	-0.0094783
4121.08	-0.00987887
4131.37	-0.0102447
4140.19	-0.0105264
4150.49	-0.0108135
4160.79	-0.0110511
4171.08	-0.0112349
4181.38	-0.0113607
4190.2	-0.0114196
4200.5	-0.0114283
4210.79	-0.0113694
4221.09	-0.0112402
4231.38	-0.0110384
4240.21	-0.0108059
4250.5	-0.0104637
4260.8	-0.0100434
4271.09	-0.00954361
4281.39	-0.00896312
4290.21	-0.0084005
4300.51	-0.00766737
4310.8	-0.00685079
4321.1	-0.00595003
4331.39	-0.00496441
4340.22	-0.00405158
4350.51	-0.00290677
4360.81	-0.00167546
4371.1	-0.000357137
4381.4	0.00104867
4390.22	0.00232362
4400.52	0.00389304
4410.82	0.00555111
4421.11	0.00729809
4431.41	0.00913421
4440.23	0.010779
4450.53	0.0127808
4460.82	0.0148716
4471.12	0.017051
4481.41	0.0193184
4490.24	0.0213313
4500.53	0.0237596
4510.83	0.0262726
4521.12	0.0288685
4531.42	0.031545
4540.24	0.0339014
4550.54	0.0367202
4560.83	0.039611
4571.13	0.0425695
4581.42	0.0455912
4590.25	0.0482278
4600.54	0.0513532
4610.84	0.0545259
4621.13	0.0577394
4631.43	0.0609865
4640.25	0.0637906
4650.55	0.0670795
4660.85	0.0703789
4671.14	0.0736799
4681.44	0.0769732
4690.26	0.0797827
4700.56	0.0830359
4710.85	0.0862532
4721.15	0.0894243
4731.44	0.0925386
4740.27	0.095155
4750.56	0.0981364
4760.86	0.101031
4771.15	0.103829
4781.45	0.10652
4790.27	0.108734
4800.57	0.111201
4810.86	0.113534
4821.16	0.115724
4831.45	0.117763
4840.28	0.119385
4850.57	0.121124
4860.87	0.122691
4871.16	0.124081
4881.46	0.125288
4890.28	0.126174
4900.58	0.12703
4910.87	0.127693
4921.17	0.128159
4931.47	0.128427
4940.29	0.128498
4950.59	0.128396
4960.88	0.128095
4971.18	0.127596
4980	0.127013
4990.3	0.126151
5000.59	0.125099
5010.89	0.12386
5021.18	0.122438
5030.01	0.121078
5040.3	0.119329
5050.6	0.117414
5060.89	0.115338
5071.19	0.113108
5080.01	0.111079
5090.31	0.108583
5100.6	0.105956
5110.9	0.103205
5121.19	0.100339
5130.02	0.0977986
5140.31	0.0947446
5150.61	0.0916024
5160.9	0.0883817
5171.2	0.0850922
5180.02	0.0822252
5190.32	0.078834
5200.62	0.0754022
5210.91	0.0719396
5221.21	0.0684562
5230.03	0.0654612
5240.33	0.0619647
5250.62	0.058475
5260.92	0.0550012
5271.21	0.0515526
5280.04	0.0486233
5290.33	0.0452447
5300.63	0.0419158
5310.92	0.0386447
5321.22	0.0354388
5330.04	0.0327485
5340.34	0.029683
5350.63	0.0267024
5360.93	0.0238127
5371.22	0.0210195
5380.05	0.0187059
5390.34	0.0161047
5400.64	0.013613
5410.94	0.0112343
5421.23	0.00897174
5430.06	0.00712664
5440.35	0.00508579
5450.65	0.00316675
5460.94	0.00137052
5471.24	-0.000302401
5480.06	-0.00163818
5490.36	-0.00308246
5500.65	-0.00440468
5510.95	-0.00560615
5521.24	-0.00668859
5530.07	-0.00752325
5540.36	-0.00839052
5550.66	-0.00914573
5560.95	-0.00979195
5571.25	-0.0103325
5580.07	-0.0107144
5590.37	-0.0110684
5600.66	-0.0113273
5610.96	-0.0114954
5621.25	-0.0115766
5630.08	-0.0115804
5640.37	-0.0115118
5650.67	-0.0113685
5660.97	-0.0111548
5671.26	-0.0108749
5680.09	-0.0105855
5690.38	-0.0101936
5700.68	-0.00974704
5710.97	-0.00924964
5721.27	-0.00870507
5730.09	-0.00820339
5740.39	-0.00758036
5750.68	-0.0069197
5760.98	-0.00622442
5771.27	-0.00549735
5780.1	-0.00485086
5790.39	-0.00407162
5800.69	-0.00326767
5810.98	-0.00244116
5821.28	-0.00159407
5830.1	-0.000853011
5840.4	2.75264e-05
5850.69	0.000923751
5860.99	0.00183419
5871.28	0.00275747
5880.11	0.00355809
5890.4	0.00450187
5900.7	0.005455
5911	0.00641639
5921.29	0.00738497
5930.12	0.0082201
5940.41	0.00919927
5950.71	0.0101827
5961	0.0111693
5971.3	0.0121581
5980.12	0.0130066
5990.42	0.0139966
6000.71	0.0149858
6011.01	0.0159731
6021.3	0.0169572
6030.13	0.0177974
6040.42	0.0187726
6050.72	0.0197414
6061.01	0.0207025
6071.31	0.0216547
6080.13	0.0224628
6090.43	0.0233952
6100.72	0.0243152
6111.02	0.0252215
6121.31	0.026113
6130.14	0.0268644
6140.43	0.0277253
6150.73	0.028568
6161.03	0.0293916
6171.32	0.030195
6180.15	0.0308668
6190.44	0.0316302
6200.74	0.0323708
6211.03	0.0330878
6221.33	0.0337805
6230.15	0.0343544
6240.45	0.0350002
6250.74	0.03562
6261.04	0.0362133
6271.33	0.0367798
6280.16	0.0372437
6290.45	0.0377594
6300.75	0.0382474
6311.04	0.0387077
6321.34	0.0391401
6330.16	0.0394885
6340.46	0.0398691
6350.76	0.0402218
6361.05	0.0405468
6371.35	0.0408442
6380.17	0.0410773
6390.47	0.0413239
6400.76	0.0415434
6411.06	0.0417362
6421.35	0.0419025
6430.18	0.0420241
6440.47	0.0421419
6450.77	0.042234
6461.06	0.0423008
6471.36	0.0423425
6480.18	0.0423585
6490.48	0.0423545
6500.77	0.0423262
6511.07	0.042274
6521.36	0.0421981
6530.19	0.0421143
6540.48	0.041995
6550.78	0.0418526
6561.08	0.0416874
6571.37	0.0414993
6580.2	0.04132
6590.49	0.0410899
6600.79	0.0408371
6611.08	0.0405617
6621.38	0.0402636
6630.2	0.0399899
6640.5	0.0396494
6650.79	0.0392856
6661.09	0.0388986
6671.38	0.0384878
6680.21	0.0381165
6690.5	0.0376607
6700.8	0.03718
6711.09	0.0366739
6721.39	0.0361417
6730.21	0.0356645
6740.51	0.0350824
6750.8	0.0344724
6761.1	0.0338336
6771.39	0.0331653
6780.22	0.0325683
6790.51	0.0318428
6800.81	0.0310852
6811.11	0.0302944
6821.4	0.0294696
6830.23	0.0287346
6840.52	0.0278437
6850.82	0.0269158
6861.11	0.0259498
6871.41	0.0249447
6880.23	0.0240513
6890.53	0.0229709
6900.82	0.0218486
6911.12	0.0206833
6921.41	0.0194743
6930.24	0.0184026
6940.53	0.0171101
6950.83	0.0157717
6961.12	0.0143867
6971.42	0.0129544
6980.24	0.0116889
6990.54	0.0101679
7000.84	0.00859871
7011.13	0.00698109
7021.43	0.00531501
7030.25	0.00384843
7040.55	0.00209264
7050.84	0.000288936
7061.14	-0.00156226
7071.43	-0.00346036
7080.26	-0.00512413
7090.55	-0.00710739
7100.85	-0.00913519
7111.14	-0.0112064
7121.44	-0.0133199
7130.26	-0.0151639
7140.56	-0.017352
7150.85	-0.019578
7161.15	-0.0218402
7171.44	-0.0241368
7180.27	-0.026131
7190.56	-0.0284859
7200.86	-0.0308691
7211.16	-0.0332784
7221.45	-0.0357113
7230.28	-0.0378135
7240.57	-0.0402837
7250.87	-0.0427701
7261.16	-0.0452701
7271.46	-0.047781
7280.28	-0.0499397
7290.58	-0.0524632
7300.87	-0.0549894
7311.17	-0.0575154
7321.46	-0.0600382
7330.29	-0.0621958
7340.58	-0.0647049
7350.88	-0.0672024
7361.17	-0.0696854
7371.47	-0.0721511
7380.29	-0.0742485
7390.59	-0.0766743
7400.88	-0.0790747
7411.18	-0.081447
7420	-0.083456
7430.3	-0.0857691
7440.59	-0.0880467
7450.89	-0.0902864
7461.18	-0.092486
7470.01	-0.0943376
7480.3	-0.0964566
7490.6	-0.0985293
7500.9	-0.100554
7511.19	-0.102529
7520.02	-0.10418
7530.31	-0.106057
7540.61	-0.10788
7550.9	-0.109648
7561.2	-0.111358
7570.02	-0.112778
7580.32	-0.114379
7590.61	-0.115921
7600.91	-0.117403
7611.2	-0.118824
7620.03	-0.119993
7630.32	-0.121299
7640.62	-0.122544
7650.91	-0.123726
7661.21	-0.124846
7670.03	-0.125757
7680.33	-0.126762
7690.62	-0.127705
7700.92	-0.128587
7711.21	-0.129408
7720.04	-0.130064
7730.33	-0.130773
7740.63	-0.131424
7750.92	-0.132015
7761.22	-0.132549
7770.04	-0.132962
7780.34	-0.133391
7790.63	-0.133765
7800.93	-0.134084
7811.23	-0.13435
7820.05	-0.134537
7830.35	-0.134707
7840.64	-0.134826
7850.94	-0.134896
7861.23	-0.134918
7870.06	-0.134899
7880.35	-0.134834
7890.65	-0.134724
7900.94	-0.134569
7911.24	-0.134371
7920.06	-0.134168
7930.36	-0.133893
7940.65	-0.133577
7950.95	-0.133222
7961.24	-0.132828
7970.07	-0.132461
7980.36	-0.131998
7990.66	-0.131499
8000.95	-0.130965
8011.25	-0.130396
8020.07	-0.129883
8030.37	-0.129252
8040.66	-0.12859
8050.96	-0.127896
8061.25	-0.127172
8070.08	-0.126527
8080.37	-0.125746
8090.67	-0.124937
8100.97	-0.1241
8111.26	-0.123234
8120.09	-0.122471
8130.38	-0.121555
8140.68	-0.120614
8150.97	-0.119646
8161.27	-0.118654
8170.09	-0.117784
8180.39	-0.116746
8190.68	-0.115685
8200.98	-0.1146
8211.27	-0.113493
8220.1	-0.112527
8230.39	-0.111379
8240.69	-0.11021
8250.98	-0.10902
8261.28	-0.10781
8270.1	-0.106757
8280.4	-0.105511
8290.69	-0.104245
8300.99	-0.102961
8311.28	-0.101658
8320.11	-0.100527
8330.4	-0.0991914
8340.7	-0.0978381
8351	-0.0964677
8361.29	-0.0950803
8370.12	-0.0938776
8380.41	-0.0924591
8390.71	-0.0910239
8401	-0.0895721
8411.3	-0.0881036
8420.12	-0.0868317
8430.42	-0.0853323
8440.71	-0.0838159
8451.01	-0.0822825
8461.3	-0.0807316
8470.13	-0.0793883
8480.42	-0.0778044
8490.72	-0.0762021
8501.01	-0.0745811
8511.31	-0.0729409
8520.13	-0.0715194
8530.43	-0.0698423
8540.73	-0.0681446
8551.02	-0.0664258
8561.32	-0.0646853
8570.14	-0.0631759
8580.44	-0.0613938
8590.73	-0.0595886
8601.03	-0.0577599
8611.32	-0.0559071
8620.15	-0.0542997
8630.44	-0.0524013
8640.74	-0.0504779
8651.03	-0.0485294
8661.33	-0.0465554
8670.15	-0.0448432
8680.45	-0.042822
8690.74	-0.0407754
8701.04	-0.0387037
8711.33	-0.0366071
8720.16	-0.0347905
8730.45	-0.0326489
8740.75	-0.0304838
8751.05	-0.0282961
8761.34	-0.0260865
8770.17	-0.0241758
8780.46	-0.0219282
8790.76	-0.0196619
8801.05	-0.017378
8811.35	-0.0150779
8820.17	-0.0130948
8830.47	-0.0107689
8840.76	-0.00843153
8851.06	-0.00608439
8861.35	-0.00372939
8870.18	-0.00170604
8880.47	0.000658319
8890.77	0.00302475
8901.06	0.00539111
8911.36	0.00775521
8920.18	0.00977807
8930.48	0.012132
8940.77	0.0144772
8951.07	0.0168113
8961.37	0.019132
8970.19	0.0211088
8980.49	0.0233986
8990.78	0.0256684
9001.08	0.0279159
9011.37	0.030139
9020.2	0.0320233
9030.49	0.0341952
9040.79	0.0363364
9051.08	0.0384449
9061.38	0.0405188
9070.2	0.0422674
9080.5	0.0442719
9090.79	0.0462364
9101.09	0.0481593
9111.38	0.0500389
9120.21	0.0516144
9130.5	0.0534097
9140.8	0.0551576
9151.09	0.0568568
9161.39	0.0585061
9170.21	0.0598792
9180.51	0.0614329
9190.81	0.0629339
9201.1	0.0643811
9211.4	0.0657739
9220.22	0.0669238
9230.52	0.0682137
9240.81	0.0694472
9251.11	0.0706241
9261.4	0.0717438
9270.23	0.0726578
9280.52	0.0736705
9290.82	0.0746252
9301.11	0.0755217
9311.41	0.07636
9320.23	0.0770321
9330.53	0.0777621
9340.82	0.0784336
9351.12	0.0790469
9361.42	0.0796019
9370.24	0.0800313
9380.54	0.0804785
9390.83	0.0808679
9401.13	0.0811997
9411.42	0.0814741
9420.25	0.0816638
9430.54	0.0818322
9440.84	0.0819441
9451.13	0.0819996
9461.43	0.0819992
9470.25	0.0819545
9480.55	0.081851
9490.84	0.0816925
9501.14	0.0814795
9511.43	0.0812123
9520.26	0.0809406
9530.55	0.0805741
9540.85	0.0801549
9551.14	0.0796835
9561.44	0.0791603
9570.26	0.0786712
9580.56	0.0780537
9590.86	0.0773863
9601.15	0.0766698
9611.45	0.0759048
9620.27	0.0752112
9630.57	0.0743585
9640.86	0.0734598
9651.16	0.072516
9661.45	0.0715283
9670.28	0.0706474
9680.57	0.0695808
9690.87	0.0684735
9701.16	0.0673266
9711.46	0.0661415
9720.28	0.0650964
9730.58	0.0638441
9740.87	0.0625579
9751.17	0.0612392
9761.47	0.0598898
9770.29	0.05871
9780.59	0.0573081
9790.88	0.0558806
9801.18	0.0544294
9810	0.0531682
9820.3	0.0516783
9830.59	0.0501705
9840.89	0.048647
9851.18	0.04711
9860.01	0.0457835
9870.3	0.0442273
9880.6	0.0426641
9890.89	0.0410961
9901.19	0.0395258
9910.01	0.0381798
9920.31	0.0366114
9930.6	0.0350476
9940.9	0.0334906
9951.19	0.0319429
9960.02	0.0306255
9970.31	0.0291013
9980.61	0.0275932
9990.91	0.0261035
10001.2	0.0246343
10010	0.0233932
10020.3	0.0219683
10030.6	0.0205702
10040.9	0.0192012
10051.2	0.0178631
10060	0.0167422
10070.3	0.0154667
10080.6	0.0142274
10090.9	0.0130261
10101.2	0.0118644
10110	0.0109013
10120.3	0.00981698
10130.6	0.00877625
10140.9	0.00778029
10151.2	0.00683021
10160	0.0060531
10170.3	0.00519068
10180.6	0.0043766
10190.9	0.00361146
10201.2	0.0028958
10210.1	0.00232204
10220.3	0.00169917
10230.6	0.00112655
10240.9	0.000604214
10251.2	0.000132086
10260.1	-0.000232782
10270.4	-0.000612281
10280.6	-0.00094244
10290.9	-0.00122378
10301.2	-0.00145692
10310.1	-0.00161895
10320.4	-0.00176459
10330.7	-0.00186437
10340.9	-0.00191928
10351.2	-0.00193041
10360.1	-0.00190596
10370.4	-0.00183888
10380.7	-0.0017315
10391	-0.00158517
10401.3	-0.00140129
10410.1	-0.00121488
10420.4	-0.000965132
10430.7	-0.000682075
10441	-0.000367262
10451.3	-2.22681e-05
10460.1	0.000296257
10470.4	0.000693069
10480.7	0.00111549
10491	0.0015619
10501.3	0.00203071
10510.1	0.00244916
10520.4	0.00295534
10530.7	0.00347939
10541	0.00401978
10551.3	0.00457499
10560.1	0.00506155
10570.4	0.00564036
10580.7	0.00622982
10591	0.00682854
10601.3	0.00743517
10610.1	0.00796044
10620.4	0.00857829
10630.7	0.0092004
10641	0.00982556
10651.3	0.0104526
10660.1	0.0109907
10670.4	0.0116183
10680.7	0.0122446
10691	0.0128687
10701.3	0.0134895
10710.1	0.0140182
10720.4	0.0146304
10730.7	0.0152367
10741	0.0158361
10751.3	0.0164278
10760.1	0.0169282
10770.4	0.0175034
10780.7	0.0180685
10791	0.0186227
10801.3	0.0191653
10810.1	0.0196205
10820.4	0.0201394
10830.7	0.0206445
10841	0.021135
10851.3	0.0216101
10860.1	0.0220047
10870.4	0.0224495
10880.7	0.0228769
10891	0.0232863
10901.3	0.023677
10910.1	0.0239964
10920.4	0.0243504
10930.7	0.0246838
10941	0.024996
10951.3	0.0252863
10960.1	0.0255173
10970.4	0.0257655
10980.7	0.0259902
10991	0.026191
11001.3	0.0263674
11010.1	0.0264988
11020.4	0.0266287
11030.7	0.0267331
11041	0.0268116
11051.3	0.026864
11060.2	0.0268879
11070.5	0.0268913
11080.7	0.0268681
11091	0.0268182
11101.3	0.0267417
11110.2	0.0266549
11120.5	0.0265291
11130.8	0.0263769
11141	0.0261986
11151.3	0.0259944
11160.2	0.0257991
11170.5	0.0255478
11180.8	0.0252718
11191.1	0.0249716
11201.3	0.0246477
11210.2	0.0243516
11220.5	0.0239853
11230.8	0.0235971
11241.1	0.0231878
11251.4	0.0227581
11260.2	0.0223741
11270.5	0.0219087
11280.8	0.0214253
11291.1	0.0209246
11301.4	0.0204077
11310.2	0.0199524
11320.5	0.0194077
11330.8	0.0188492
11341.1	0.018278
11351.4	0.0176949
11360.2	0.0171862
11370.5	0.0165834
11380.8	0.0159712
11391.1	0.0153504
11401.4	0.0147219
11410.2	0.0141776
11420.5	0.0135368
11430.8	0.0128904
11441.1	0.0122391
11451.4	0.0115835
11460.2	0.0110187
11470.5	0.0103568
11480.8	0.00969229
11491.1	0.00902561
11501.4	0.00835719
11510.2	0.00778319
11520.5	0.00711257
11530.8	0.00644123
11541.1	0.00576943
11551.4	0.00509742
11560.2	0.0045214
11570.5	0.00384949
11580.8	0.00317785
11591.1	0.00250659
11601.4	0.00183579
11610.2	0.00126125
11620.5	0.000591496
11630.8	-7.76297e-05
11641.1	-0.000746091
11651.4	-0.00141386
11660.2	-0.00198564
11670.5	-0.00265202
11680.8	-0.00331757
11691.1	-0.00398225
11701.4	-0.00464596
11710.2	-0.00521402
11720.5	-0.00587566
11730.8	-0.00653596
11741.1	-0.00719475
11751.4	-0.00785179
11760.2	-0.00841338
11770.5	-0.00906646
11780.8	-0.00971694
11791.1	-0.0103644
11801.4	-0.0110085
11810.2	-0.0115575
11820.5	-0.012194
11830.8	-0.0128256
11841.1	-0.0134518
11851.4	-0.0140718
11860.3	-0.0145979
11870.5	-0.0152048
11880.8	-0.0158035
11891.1	-0.0163933
11901.4	-0.0169734
11910.3	-0.0174623
11920.6	-0.0180222
11930.8	-0.0185699
11941.1	-0.0191046
11951.4	-0.0196255
11960.3	-0.0200603
11970.6	-0.0205531
11980.9	-0.0210296
11991.2	-0.0214889
12001.4	-0.0219303
12010.3	-0.0222937
12020.6	-0.0226997
12030.9	-0.0230855
12041.2	-0.0234506
12051.5	-0.0237943
12060.3	-0.0240715
12070.6	-0.0243741
12080.9	-0.0246539
12091.2	-0.0249106
12101.5	-0.0251438
12110.3	-0.0253249
12120.6	-0.0255141
12130.9	-0.0256795
12141.2	-0.0258211
12151.5	-0.0259389
12160.3	-0.0260213
12170.6	-0.0260958
12180.9	-0.0261474
12191.2	-0.0261766
12201.5	-0.0261839
12210.3	-0.0261733
12220.6	-0.0261417
12230.9	-0.0260903
12241.2	-0.0260199
12250	-0.0259452
12260.3	-0.0258422
12270.6	-0.0257231
12280.9	-0.0255891
12291.2	-0.0254414
12300	-0.0253048
12310.3	-0.0251351
12320.6	-0.0249555
12330.9	-0.0247674
12341.2	-0.0245723
12350	-0.0244005
12360.3	-0.0241962
12370.6	-0.0239892
12380.9	-0.023781
12391.2	-0.0235732
12400	-0.0233966
12410.3	-0.0231936
12420.6	-0.0229954
12430.9	-0.0228035
12441.2	-0.0226195
12450	-0.0224691
12460.3	-0.0223035
12470.6	-0.02215
12480.9	-0.0220098
12491.2	-0.0218843
12500	-0.0217894
12510.3	-0.0216945
12520.6	-0.0216179
12530.9	-0.0215605
12541.2	-0.0215235
12550	-0.0215086
12560.3	-0.0215118
12570.6	-0.0215378
12580.9	-0.0215874
12591.2	-0.0216612
12600	-0.0217442
12610.3	-0.0218645
12620.6	-0.0220103
12630.9	-0.0221821
12641.2	-0.0223799
12650.1	-0.0225704
12660.3	-0.022817
12670.6	-0.0230899
12680.9	-0.0233888
12691.2	-0.0237136
12700.1	-0.0240123
12710.4	-0.0243842
12720.7	-0.0247809
12730.9	-0.0252017
12741.2	-0.0256462
12750.1	-0.0260453
12760.4	-0.0265315
12770.7	-0.0270391
12781	-0.0275671
12791.2	-0.0281146
12800.1	-0.0285986
12810.4	-0.0291795
12820.7	-0.0297769
12831	-0.0303895
12841.3	-0.0310162
12850.1	-0.0315637
12860.4	-0.0322132
12870.7	-0.0328733
12881	-0.0335426
12891.3	-0.0342198
12900.1	-0.0348056
12910.4	-0.0354941
12920.7	-0.0361867
12931	-0.0368822
12941.3	-0.0375794
12950.1	-0.0381773
12960.4	-0.0388741
12970.7	-0.0395691
12981	-0.040261
12991.3	-0.0409486
13000.1	-0.0415339
13010.4	-0.042211
13020.7	-0.0428808
13031	-0.0435426
13041.3	-0.0441953
13050.1	-0.044747
13060.4	-0.0453809
13070.7	-0.0460035
13081	-0.0466144
13091.3	-0.0472128
13100.1	-0.0477155
13110.4	-0.0482896
13120.7	-0.04885
13131	-0.0493964
13141.3	-0.0499286
13150.1	-0.0503734
13160.4	-0.0508787
13170.7	-0.0513695
13181	-0.0518458
13191.3	-0.0523076
13200.1	-0.052692
13210.4	-0.0531273
13220.7	-0.0535486
13231	-0.0539561
13241.3	-0.0543504
13250.1	-0.0546779
13260.4	-0.0550482
13270.7	-0.0554062
13281	-0.0557525
13291.3	-0.0560873
13300.1	-0.0563657
13310.4	-0.0566808
13320.7	-0.056986
13331	-0.0572818
13341.3	-0.0575687
13350.1	-0.0578079
13360.4	-0.0580797
13370.7	-0.0583441
13381	-0.0586016
13391.3	-0.0588525
13400.1	-0.0590628
13410.4	-0.0593028
13420.7	-0.0595375
13431	-0.0597672
13441.3	-0.0599923
13450.2	-0.0601817
13460.4	-0.0603988
13470.7	-0.0606119
13481	-0.060821
13491.3	-0.0610264
13500.2	-0.0611995
13510.5	-0.0613979
13520.8	-0.0615926
13531	-0.0617833
13541.3	-0.06197
13550.2	-0.0621267
13560.5	-0.0623054
13570.8	-0.0624793
13581.1	-0.0626481
13591.3	-0.0628115
13600.2	-0.0629469
13610.5	-0.063099
13620.8	-0.0632444
13631.1	-0.0633826
13641.4	-0.0635129
13650.2	-0.0636179
13660.5	-0.0637321
13670.8	-0.0638368
13681.1	-0.0639313
13691.4	-0.064015
13700.2	-0.0640775
13710.5	-0.0641392
13720.8	-0.0641881
13731.1	-0.0642236
13741.4	-0.0642449
13750.2	-0.0642514
13760.5	-0.0642447
13770.8	-0.064222
13781.1	-0.0641827
13791.4	-0.064126
13800.2	-0.0640633
13810.5	-0.0639732
13820.8	-0.0638641
13831.1	-0.0637358
13841.4	-0.0635876
13850.2	-0.0634444
13860.5	-0.0632583
13870.8	-0.0630513
13881.1	-0.0628229
13891.4	-0.062573
13900.2	-0.0623415
13910.5	-0.062051
13920.8	-0.0617384
13931.1	-0.0614036
13941.4	-0.0610465
13950.2	-0.0607227
13960.5	-0.0603241
13970.8	-0.0599034
13981.1	-0.0594605
13991.4	-0.0589956
14000.2	-0.0585797
14010.5	-0.0580744
14020.8	-0.0575478
14031.1	-0.057
14041.4	-0.0564315
14050.2	-0.0559279
14060.5	-0.0553217
14070.8	-0.0546959
14081.1	-0.0540508
14091.4	-0.053387
14100.2	-0.0528034
14110.5	-0.0521059
14120.8	-0.0513912
14131.1	-0.0506597
14141.4	-0.049912
14150.2	-0.0492587
14160.5	-0.0484825
14170.8	-0.0476918
14181.1	-0.0468873
14191.4	-0.0460695
14200.2	-0.0453585
14210.5	-0.0445178
14220.8	-0.0436658
14231.1	-0.0428031
14241.4	-0.0419302
14250.3	-0.0411746
14260.5	-0.0402848
14270.8	-0.0393869
14281.1	-0.0384815
14291.4	-0.0375693
14300.3	-0.0367825
14310.6	-0.0358594
14320.9	-0.0349313
14331.1	-0.033999
14341.4	-0.033063
14350.3	-0.0322584
14360.6	-0.0313175
14370.9	-0.0303749
14381.2	-0.0294311
14391.4	-0.0284869
14400.3	-0.0276776
14410.6	-0.0267342
14420.9	-0.025792
14431.2	-0.0248517
14441.5	-0.023914
14450.3	-0.0231126
14460.6	-0.0221811
14470.9	-0.0212538
14481.2	-0.0203312
14491.5	-0.0194139
14500.3	-0.0186323
14510.6	-0.0177262
14520.9	-0.0168271
14531.2	-0.0159352
14541.5	-0.0150512
14550.3	-0.0143001
14560.6	-0.0134319
14570.9	-0.0125729
14581.2	-0.0117235
14590	-0.0110034
14600.3	-0.0101729
14610.6	-0.00935324
14620.9	-0.00854469
14631.2	-0.00774764
14640	-0.00707384
14650.3	-0.00629899
14660.6	-0.00553652
14670.9	-0.00478671
14681.2	-0.00404981
14690	-0.00342864
14700.3	-0.00271631
14710.6	-0.00201751
14720.9	-0.0013324
14731.2	-0.000661126
14740	-9.68606e-05
14750.3	0.000548387
14760.6	0.00117948
14770.9	0.00179636
14781.2	0.00239897
14790	0.00290412
14800.3	0.00348017
14810.6	0.00404192
14820.9	0.00458939
14831.2	0.00512264
14840	0.00556842
14850.3	0.00607541
14860.6	0.00656838
14870.9	0.00704744
14881.2	0.00751271
14890	0.00790063
14900.3	0.00834066
14910.6	0.00876731
14920.9	0.00918077
14931.2	0.0095812
14940	0.0099142
14950.3	0.010291
14960.6	0.0106553
14970.9	0.0110074
14981.2	0.0113475
14990.1	0.0116296
15000.3	0.011948
15010.6	0.0122551
15020.9	0.0125511
15031.2	0.0128364
15040.1	0.0130724
15050.4	0.0133383
15060.7	0.0135941
15070.9	0.0138401
15081.2	0.0140767
15090.1	0.0142721
15100.4	0.0144917
15110.7	0.0147027
15121	0.0149053
15131.2	0.0150998
15140.1	0.0152603
15150.4	0.0154406
15160.7	0.0156136
15171	0.0157796
15181.3	0.015939
15190.1	0.0160705
15200.4	0.0162184
15210.7	0.0163604
15221	0.0164969
15231.3	0.0166282
15240.1	0.0167368
15250.4	0.0168593
15260.7	0.0169774
15271	0.0170914
15281.3	0.0172016
15290.1	0.0172933
15300.4	0.0173973
15310.7	0.0174983
15321	0.0175966
15331.3	0.0176924
15340.1	0.0177728
15350.4	0.0178648
15360.7	0.0179551
15371	0.0180439
15381.3	0.0181314
15390.1	0.0182056
15400.4	0.0182913
15410.7	0.0183764
15421	0.0184611
15431.3	0.0185454
15440.1	0.0186176
15450.4	0.0187017
15460.7	0.0187861
15471	0.0188707
15481.3	0.0189556
15490.1	0.0190288
15500.4	0.0191147
15510.7	0.0192012
15521	0.0192883
15531.3	0.0193762
15540.1	0.0194521
15550.4	0.0195413
15560.7	0.0196313
15571	0.019722
15581.3	0.0198134
15590.1	0.0198923
15600.4	0.0199848
15610.7	0.020078
15621	0.0201715
15631.3	0.0202655
15640.1	0.0203463
15650.4	0.0204406
15660.7	0.0205351
15671	0.0206295
15681.3	0.0207237
15690.1	0.0208042
15700.4	0.0208977
15710.7	0.0209907
15721	0.0210829
15731.3	0.0211743
15740.1	0.0212519
15750.4	0.0213414
15760.7	0.0214296
15771	0.0215166
15781.3	0.0216021
15790.2	0.0216742
15800.4	0.0217568
15810.7	0.0218377
15821	0.021917
15831.3	0.0219945
15840.2	0.0220594
15850.5	0.0221336
15860.8	0.022206
15871	0.0222767
15881.3	0.0223458
15890.2	0.0224037
15900.5	0.0224699
15910.8	0.0225347
15921.1	0.0225983
15931.3	0.0226609
15940.2	0.0227138
15950.5	0.0227748
15960.8	0.0228354
15971.1	0.0228958
15981.4	0.0229561
15990.2	0.0230081
16000.5	0.0230692
16010.8	0.0231311
16021.1	0.0231941
16031.4	0.0232585
16040.2	0.023315
16050.5	0.0233828
16060.8	0.023453
16071.1	0.0235257
16081.4	0.0236014
16090.2	0.0236687
16100.5	0.0237506
16110.8	0.0238362
16121.1	0.0239259
16131.4	0.0240198
16140.2	0.024104
16150.5	0.0242066
16160.8	0.0243141
16171.1	0.0244268
16181.4	0.0245449
16190.2	0.0246504
16200.5	0.0247788
16210.8	0.0249129
16221.1	0.0250528
16231.4	0.0251985
16240.2	0.0253282
16250.5	0.0254849
16260.8	0.0256476
16271.1	0.0258161
16281.4	0.0259903
16290.2	0.0261443
16300.5	0.026329
16310.8	0.0265192
16321.1	0.0267145
16331.4	0.026915
16340.2	0.0270906
16350.5	0.0272997
16360.8	0.0275131
16371.1	0.0277304
16381.4	0.0279514
16390.2	0.0281434
16400.5	0.0283701
16410.8	0.0285994
16421.1	0.0288307
16431.4	0.0290637
16440.2	0.0292644
16450.5	0.0294993
16460.8	0.0297344
16471.1	0.0299694
16481.4	0.0302037
16490.2	0.0304036
16500.5	0.0306352
16510.8	0.0308647
16521.1	0.0310915
16531.4	0.031315
16540.2	0.0315037
16550.5	0.03172
16560.8	0.0319316
16571.1	0.0321381
16581.4	0.0323389
16590.3	0.0325063
16600.5	0.0326955
16610.8	0.0328779
16621.1	0.033053
16631.4	0.0332205
16640.3	0.0333577
16650.6	0.0335102
16660.9	0.033654
16671.1	0.0337891
16681.4	0.0339151
16690.3	0.0340158
16700.6	0.0341245
16710.9	0.0342237
16721.2	0.0343133
16731.4	0.0343931
16740.3	0.0344538
16750.6	0.0345155
16760.9	0.0345675
16771.2	0.0346098
16781.5	0.0346424
16790.3	0.0346628
16800.6	0.0346779
16810.9	0.0346837
16821.2	0.0346804
16831.5	0.0346683
16840.3	0.0346509
16850.6	0.0346228
16860.9	0.0345864
16871.2	0.034542
16881.5	0.0344899
16890.3	0.0344392
16900.6	0.0343733
16910.9	0.0343003
16921.2	0.0342205
16930	0.0341468
16940.3	0.0340549
16950.6	0.0339569
16960.9	0.0338528
16971.2	0.0337428
16980	0.033644
16990.3	0.0335234
17000.6	0.0333972
17010.9	0.0332655
17021.2	0.0331281
17030	0.0330059
17040.3	0.0328581
17050.6	0.0327043
17060.9	0.0325445
17071.2	0.0323784
17080	0.0322308
17090.3	0.0320521
17100.6	0.0318661
17110.9	0.0316724
17121.2	0.0314703
17130	0.0312901
17140.3	0.0310711
17150.6	0.030842
17160.9	0.030602
17171.2	0.0303504
17180	0.0301247
17190.3	0.0298491
17200.6	0.0295593
17210.9	0.0292541
17221.2	0.0289327
17230	0.0286433
17240.3	0.0282886
17250.6	0.0279142
17260.9	0.0275191
17271.2	0.0271019
17280	0.0267258
17290.3	0.0262643
17300.6	0.0257771
17310.9	0.0252629
17321.2	0.0247203
17330.1	0.0242316
17340.3	0.0236329
17350.6	0.0230021
17360.9	0.0223379
17371.2	0.0216392
17380.1	0.0210117
17390.4	0.0202455
17400.6	0.0194412
17410.9	0.0185979
17421.2	0.0177145
17430.1	0.0169247
17440.4	0.0159643
17450.7	0.0149614
17460.9	0.013915
17471.2	0.0128246
17480.1	0.0118546
17490.4	0.0106811
17500.7	0.00946236
17511	0.00819812
17521.3	0.00688827
17530.1	0.00572926
17540.4	0.00433485
17550.7	0.00289525
17561	0.00141084
17571.3	-0.000117829
17580.1	-0.00146283
17590.4	-0.00307177
17600.7	-0.00472261
17611	-0.00641427
17621.3	-0.00814547
17630.1	-0.00965977
17640.4	-0.0114606
17650.7	-0.0132965
17661	-0.0151657
17671.3	-0.0170663
17680.1	-0.0187186
17690.4	-0.0206716
17700.7	-0.0226495
17711	-0.0246497
17721.3	-0.0266697
17730.1	-0.0284147
17740.4	-0.0304639
17750.7	-0.0325246
17761	-0.0345938
17771.3	-0.0366682
17780.1	-0.038448
17790.4	-0.0405235
17800.7	-0.0425947
17811	-0.0446582
17821.3	-0.0467103
17830.1	-0.0484576
17840.4	-0.0504792
17850.7	-0.0524792
17861	-0.0544539
17871.3	-0.0563996
17880.1	-0.0580416
17890.4	-0.0599238
17900.7	-0.0617666
17911	-0.0635664
17921.3	-0.0653196
17930.1	-0.0667827
17940.4	-0.0684402
17950.7	-0.0700413
17961	-0.0715828
17971.3	-0.0730613
17980.1	-0.0742763
17990.4	-0.07563
18000.7	-0.0769122
18011	-0.0781204
18021.3	-0.0792518
18030.1	-0.0801587
18040.4	-0.0811412
18050.7	-0.0820403
18061	-0.0828542
18071.3	-0.0835808
18080.1	-0.0841331
18090.4	-0.0846937
18100.7	-0.0851629
18111	-0.0855397
18121.3	-0.0858231
18130.2	-0.0859912
18140.4	-0.0860994
18150.7	-0.0861128
18161	-0.0860311
18171.3	-0.0858544
18180.2	-0.0856276
18190.5	-0.0852754
18200.7	-0.0848294
18211	-0.0842906
18221.3	-0.0836598
18230.2	-0.0830469
18240.5	-0.0822488
18250.8	-0.0813627
18261.1	-0.0803904
18271.3	-0.0793336
18280.2	-0.0783621
18290.5	-0.0771542
18300.8	-0.075868
18311.1	-0.0745061
18321.4	-0.0730712
18330.2	-0.0717851
18340.5	-0.0702217
18350.8	-0.0685932
18361.1	-0.0669028
18371.4	-0.0651536
18380.2	-0.0636098
18390.5	-0.0617598
18400.8	-0.0598603
18411.1	-0.0579146
18421.4	-0.0559263
18430.2	-0.0541907
18440.5	-0.0521323
18450.8	-0.0500411
18461.1	-0.0479208
18471.4	-0.0457747
18480.2	-0.0439173
18490.5	-0.0417327
18500.8	-0.0395323
18511.1	-0.0373195
18521.4	-0.0350976
18530.2	-0.0331885
18540.5	-0.0309586
18550.8	-0.0287289
18561.1	-0.0265026
18571.4	-0.0242827
18580.2	-0.0223872
18590.5	-0.0201869
18600.8	-0.0180011
18611.1	-0.0158325
18621.4	-0.0136836
18630.2	-0.0118593
18640.5	-0.00975346
18650.8	-0.00767403
18661.1	-0.0056231
18671.4	-0.00360264
18680.2	-0.00189647
18690.5	6.26049e-05
18700.8	0.00198627
18711.1	0.00387304
18721.4	0.00572156
18730.2	0.00727464
18740.5	0.00904899
18750.8	0.0107819
18761.1	0.0124726
18771.4	0.0141203
18780.2	0.0154978
18790.5	0.0170641
18800.8	0.0185859
18811.1	0.0200629
18821.4	0.021495
18830.2	0.0226867
18840.5	0.0240353
18850.8	0.0253391
18861.1	0.0265982
18871.4	0.027813
18880.2	0.0288192
18890.5	0.0299528
18900.8	0.0310434
18911.1	0.0320916
18921.4	0.0330981
18930.3	0.0339282
18940.5	0.0348593
18950.8	0.0357509
18961.1	0.036604
18971.4	0.0374195
18980.3	0.0380893
18990.6	0.0388376
19000.8	0.0395511
19011.1	0.0402309
19021.4	0.0408782
19030.3	0.0414078
19040.6	0.0419973
19050.9	0.0425574
19061.2	0.0430891
19071.4	0.0435936
19080.3	0.044005
19090.6	0.0444617
19100.9	0.0448943
19111.2	0.0453037
19121.5	0.045691
19130.3	0.0460062
19140.6	0.0463553
19150.9	0.0466851
19161.2	0.0469966
19171.5	0.0472907
19180.3	0.0475296
19190.6	0.0477938
19200.9	0.0480429
19211.2	0.0482777
19221.5	0.0484991
19230.3	0.0486786
19240.6	0.0488766
19250.9	0.049063
19261.2	0.0492382
19270	0.04938
19280.3	0.0495359
19290.6	0.049682
19300.9	0.0498188
19311.2	0.0499466
19320	0.0500491
19330.3	0.050161
19340.6	0.0502645
19350.9	0.05036
19361.2	0.0504477
19370	0.0505166
19380.3	0.0505899
19390.6	0.0506555
19400.9	0.0507135
19411.2	0.050764
19420	0.0508011
19430.3	0.0508372
19440.6	0.0508655
19450.9	0.050886
19461.2	0.0508984
19470	0.0509025
19480.3	0.0508996
19490.6	0.0508881
19500.9	0.050868
19511.2	0.0508389
19520	0.0508068
19530.3	0.0507606
19540.6	0.0507048
19550.9	0.0506392
19561.2	0.0505636
19570	0.0504907
19580.3	0.0503958
19590.6	0.0502902
19600.9	0.0501736
19611.2	0.0500459
19620	0.0499273
19630.3	0.0497782
19640.6	0.0496173
19650.9	0.0494444
19661.2	0.0492594
19670	0.0490909
19680.3	0.0488828
19690.6	0.0486621
19700.9	0.0484287
19711.2	0.0481824
19720.1	0.047961
19730.4	0.0476906
19740.6	0.0474072
19750.9	0.0471107
19761.2	0.0468011
19770.1	0.0465254
19780.4	0.0461915
19790.7	0.0458447
19800.9	0.0454849
19811.2	0.0451122
19820.1	0.0447827
19830.4	0.0443865
19840.7	0.0439778
19851	0.0435569
19861.2	0.0431238
19870.1	0.0427432
19880.4	0.0422882
19890.7	0.0418219
19901	0.0413443
19911.3	0.0408559
19920.1	0.0404289
19930.4	0.0399211
19940.7	0.0394034
19951	0.0388761
19961.3	0.0383396
19970.1	0.0378726
19980.4	0.03732
19990.7	0.0367592
