Problem size with different number of CPUs using function optimization
THREADS	MTPS	TIMESTEPS	TIMESTEP_SIZE	SECONDS_FOR_SIMULATION	AVERAGE_TRIANGLES	AVERAGE_PARTITIONS
64	22.5458	100	0.000491318	84.4812	1.90469e+07	1158.74
63	22.513	100	0.000491318	84.6039	1.90469e+07	1158.74
62	22.5923	100	0.000491318	84.3069	1.90469e+07	1158.74
61	22.592	100	0.000491318	84.3083	1.90469e+07	1158.74
60	22.5782	100	0.000491318	84.3596	1.90469e+07	1158.74
59	22.2966	100	0.000491318	85.4253	1.90469e+07	1158.74
58	22.6618	100	0.000491318	84.0484	1.90469e+07	1158.74
57	22.6573	100	0.000491318	84.0653	1.90469e+07	1158.74
56	22.6046	100	0.000491318	84.2611	1.90469e+07	1158.74
55	22.6062	100	0.000491318	84.2553	1.90469e+07	1158.74
54	22.7437	100	0.000491318	83.746	1.90469e+07	1158.74
53	22.7023	100	0.000491318	83.8985	1.90469e+07	1158.74
52	22.5942	100	0.000491318	84.2998	1.90469e+07	1158.74
51	22.7221	100	0.000491318	83.8255	1.90469e+07	1158.74
50	22.759	100	0.000491318	83.6896	1.90469e+07	1158.74
49	22.6823	100	0.000491318	83.9726	1.90469e+07	1158.74
48	22.6305	100	0.000491318	84.1647	1.90469e+07	1158.74
47	22.7057	100	0.000491318	83.886	1.90469e+07	1158.74
46	22.7926	100	0.000491318	83.5663	1.90469e+07	1158.74
45	22.7346	100	0.000491318	83.7793	1.90469e+07	1158.74
44	22.5963	100	0.000491318	84.2923	1.90469e+07	1158.74
43	22.4215	100	0.000491318	84.9494	1.90469e+07	1158.74
42	22.7042	100	0.000491318	83.8915	1.90469e+07	1158.74
41	22.6456	100	0.000491318	84.1087	1.90469e+07	1158.74
40	22.1818	100	0.000491318	85.8672	1.90469e+07	1158.74
39	22.5323	100	0.000491318	84.5315	1.90469e+07	1158.74
38	22.2857	100	0.000491318	85.4671	1.90469e+07	1158.74
37	22.3315	100	0.000491318	85.2918	1.90469e+07	1158.74
36	22.1425	100	0.000491318	86.0196	1.90469e+07	1158.74
35	22.2619	100	0.000491318	85.5585	1.90469e+07	1158.74
34	22.3504	100	0.000491318	85.2194	1.90469e+07	1158.74
33	22.6394	100	0.000491318	84.1317	1.90469e+07	1158.74
32	22.6824	100	0.000491318	83.9722	1.90469e+07	1158.74
31	22.6313	100	0.000491318	84.1619	1.90469e+07	1158.74
30	22.9048	100	0.000491318	83.1569	1.90469e+07	1158.74
29	22.584	100	0.000491318	84.338	1.90469e+07	1158.74
28	22.4816	100	0.000491318	84.7223	1.90469e+07	1158.74
27	22.5666	100	0.000491318	84.403	1.90469e+07	1158.74
26	22.6323	100	0.000491318	84.1582	1.90469e+07	1158.74
25	22.6392	100	0.000491318	84.1323	1.90469e+07	1158.74
24	22.7546	100	0.000491318	83.7056	1.90469e+07	1158.74
23	22.6612	100	0.000491318	84.0508	1.90469e+07	1158.74
22	22.62	100	0.000491318	84.204	1.90469e+07	1158.74
21	22.4697	100	0.000491318	84.7672	1.90469e+07	1158.74
20	22.2125	100	0.000491318	85.7484	1.90469e+07	1158.74
19	21.9739	100	0.000491318	86.6798	1.90469e+07	1158.74
18	21.7734	100	0.000491318	87.4779	1.90469e+07	1158.74
17	21.3249	100	0.000491318	89.3177	1.90469e+07	1158.74
16	20.9182	100	0.000491318	91.0542	1.90469e+07	1158.74
15	20.3989	100	0.000491318	93.3721	1.90469e+07	1158.74
14	20.0353	100	0.000491318	95.0669	1.90469e+07	1158.74
13	19.5877	100	0.000491318	97.2389	1.90469e+07	1158.74
12	18.8983	100	0.000491318	100.786	1.90469e+07	1158.74
11	18.2266	100	0.000491318	104.501	1.90469e+07	1158.74
10	17.5098	100	0.000491318	108.778	1.90469e+07	1158.74
9	16.5999	100	0.000491318	114.741	1.90469e+07	1158.74
8	15.3971	100	0.000491318	123.705	1.90469e+07	1158.74
7	14.5243	100	0.000491318	131.139	1.90469e+07	1158.74
6	13.5858	100	0.000491318	140.197	1.90469e+07	1158.74
5	12.5987	100	0.000491318	151.182	1.90469e+07	1158.74
4	11.6425	100	0.000491318	163.598	1.90469e+07	1158.74
3	9.20917	100	0.000491318	206.825	1.90469e+07	1158.74
2	6.39726	100	0.000491318	297.735	1.90469e+07	1158.74
1	3.32407	100	0.000491318	573	1.90469e+07	1158.74
