Executable + params: ../../build/sierpi_intel_tbb_tsunami_parallel_release -o 32768 -A 1 -d 20 -a 8 -t 100
Problem size with different number of CPUs using function optimization
THREADS	MTPS	TIMESTEPS	TIMESTEP_SIZE	SECONDS_FOR_SIMULATION	AVERAGE_TRIANGLES	AVERAGE_PARTITIONS
40	63.727	100	0.000491318		1.9047e+07	1158.74
32	54.2842	100	0.000491318		1.9047e+07	1158.74
30	43.1682	100	0.000491318		1.9047e+07	1158.74
20	24.9815	100	0.000491318		1.9047e+07	1158.74
16	21.1523	100	0.000491318		1.9047e+07	1158.74
10	12.9489	100	0.000491318		1.9047e+07	1158.74
8	11.9993	100	0.000491318		1.9047e+07	1158.74
4	8.92319	100	0.000491318		1.9047e+07	1158.74
2	4.98636	100	0.000491318		1.9047e+07	1158.74
1	2.53045	100	0.000491318		1.9047e+07	1158.74
