0	0	366784
7.98197	0	383484
15.9526	0	395096
22.9259	0	403758
29.8991	0	412222
36.8723	0	420824
43.8421	0	428350
49.8	0	434224
56.698	0	439916
62.5835	0	444180
69.4498	0	449148
75.3351	0	453100
81.2148	0	456594
87.0629	0	459358
93.8361	0	463276
99.6143	0	466052
105.382	0	468906
111.149	0	471456
114.994	0	473336
120.761	0	475826
125.567	0	478002
131.34	0	480682
136.161	0	482500
141.969	0	485038
147.761	0	487510
153.537	0	489964
159.26	0	492340
164.018	0	494172
169.72	0	496552
175.421	0	498932
180.171	0	500640
185.87	0	502984
190.634	0	504916
195.409	0	506500
201.158	0	508632
206.03	0	510390
211.889	0	512078
216.827	0	513766
222.775	0	515680
227.737	0	517136
232.771	0	519020
238.872	0	521122
243.953	0	522876
249.028	0	524676
255.121	0	526706
260.207	-1.81899e-12	528562
265.29	-6.36646e-12	530128
271.389	-1.18234e-11	532250
276.472	-1.63709e-11	534016
281.554	-2.09184e-11	535676
286.637	-2.54659e-11	537588
291.72	-3.00133e-11	539530
297.819	-3.54703e-11	541392
302.901	-4.00178e-11	543392
307.984	-4.63842e-11	545284
313.067	-5.54792e-11	546848
318.153	-6.45741e-11	548794
323.24	-7.36691e-11	550570
328.329	-8.2764e-11	552080
333.418	-9.54969e-11	553918
338.505	-1.09139e-10	555874
343.592	-1.22782e-10	557518
348.649	-1.40062e-10	559434
353.662	-1.58252e-10	561304
358.674	-1.78261e-10	563396
364.68	-2.05546e-10	565750
368.681	-2.25555e-10	567550
373.675	-2.5284e-10	569828
378.66	-2.82853e-10	571834
383.641	-3.15595e-10	573896
387.627	-3.44698e-10	575778
392.608	-3.84716e-10	577794
397.589	-4.28372e-10	579826
402.57	-4.76575e-10	582184
407.551	-5.29326e-10	584296
412.532	-5.86624e-10	586342
416.517	-6.36646e-10	587950
421.498	-7.03949e-10	590414
426.479	-7.78527e-10	592546
430.464	-8.43102e-10	594122
434.448	-9.13133e-10	595688
439.429	-1.00681e-09	598098
444.41	-1.10867e-09	600168
448.395	-1.1978e-09	601936
453.378	-1.31695e-09	604136
457.365	-1.42063e-09	605772
462.352	-1.56069e-09	607714
466.343	-1.68075e-09	609406
471.346	-1.84355e-09	611606
476.354	-2.0209e-09	613482
479.364	-2.13458e-09	614546
480.373	-2.17369e-09	615026
484.412	-2.33831e-09	616598
489.451	-2.55932e-09	619038
493.472	-2.75031e-09	620332
497.482	-2.95222e-09	622070
502.477	-3.22416e-09	624126
506.467	-3.45517e-09	625836
