0	0
14.7745	0
29.5491	0
44.3236	0
59.0981	0
73.8727	0
88.6472	0
103.422	0
118.196	0
132.971	0
147.745	0
162.52	0
177.294	0
192.069	0
206.843	0
221.618	0
236.393	0
251.167	0
265.942	0
280.716	0
295.491	0
310.265	0
325.04	0
339.814	0
354.589	0
369.363	0
384.138	0
398.912	0
413.687	0
428.462	0
443.236	0
458.011	0
472.785	0
487.56	0
502.334	0
517.109	0
531.883	0
546.658	0
561.432	0
576.207	0
590.981	0
605.756	0
620.53	0
635.305	0
650.08	0
664.854	0
679.629	0
694.403	0
709.178	0
723.952	0
738.727	0
753.501	0
768.276	0
783.05	0
797.825	0
812.599	0
827.374	0
842.149	0
856.923	0
871.698	0
886.472	0
901.247	0
916.021	0
930.796	0
945.57	0
960.345	0
975.119	0
989.894	0
1004.67	0
1019.44	0
1034.22	0
1048.99	0
1063.77	0
1078.54	0
1093.32	0
1108.09	0
1122.86	0
1137.64	0
1152.41	0
1167.19	0
1181.96	0
1196.74	0
1211.51	0
1226.29	0
1241.06	0
1255.84	0
1270.61	0
1285.38	0
1300.16	0
1314.93	0
1329.71	0
1344.48	0
1359.26	0
1374.03	0
1388.81	0
1403.58	0
1418.36	0
1433.13	0
1447.9	0
1462.68	0
1477.45	0
1492.23	0
1507	0
1521.78	0
1536.55	0
1551.33	0
1566.1	0
1580.88	0
1595.65	0
1610.42	0
1625.2	0
1639.97	0
1654.75	0
1669.52	0
1684.3	0
1699.07	0
1713.85	0
1728.62	0
1743.4	0
1758.17	0
1772.94	0
1787.72	0
1802.49	0
1817.27	0
1832.04	0
1846.82	0
1861.59	0
1876.37	0
1891.14	0
1905.92	0
1920.69	0
1935.46	0
1950.24	0
1965.01	0
1979.79	0
1994.56	0
2009.34	0
2024.11	0
2038.89	0
2053.66	0
2068.43	0
2083.21	0
2097.98	0
2112.76	0
2127.53	0
2142.31	0
2157.08	-9.09495e-13
2171.86	-1.81899e-12
2186.63	-2.72848e-12
2201.41	-3.63798e-12
2216.18	-5.45697e-12
2230.95	-8.18545e-12
2245.73	-1.27329e-11
2260.5	-1.90994e-11
2275.28	-2.81943e-11
2290.05	-4.09273e-11
2304.83	-5.91172e-11
2319.6	-8.6402e-11
2334.38	-1.24601e-10
2349.15	-1.77351e-10
2363.93	-2.5193e-10
2378.7	-3.57431e-10
2393.47	-5.02951e-10
2408.25	-7.03039e-10
2423.02	-9.78616e-10
2437.8	-1.35424e-09
2452.57	-1.86355e-09
2467.35	-2.55204e-09
2482.12	-3.477e-09
2496.9	-4.71391e-09
2511.67	-6.35828e-09
2526.45	-8.53561e-09
2541.22	-1.14042e-08
2555.99	-1.51649e-08
2570.77	-2.00725e-08
2585.54	-2.6449e-08
2600.32	-3.46954e-08
2615.09	-4.53119e-08
2629.87	-5.89225e-08
2644.64	-7.62948e-08
2659.42	-9.83764e-08
2674.19	-1.26325e-07
2688.97	-1.61555e-07
2703.74	-2.05785e-07
2718.51	-2.6109e-07
2733.29	-3.29976e-07
2748.06	-4.15442e-07
2762.84	-5.21078e-07
2777.61	-6.51152e-07
2792.39	-8.10726e-07
2807.16	-1.00578e-06
2821.94	-1.24333e-06
2836.71	-1.53163e-06
2851.49	-1.88029e-06
2866.26	-2.30048e-06
2881.03	-2.80517e-06
2895.81	-3.40931e-06
2910.58	-4.13011e-06
2925.36	-4.98727e-06
2940.13	-6.00331e-06
2954.91	-7.20383e-06
2969.68	-8.61786e-06
2984.46	-1.02782e-05
2999.23	-1.22218e-05
3014	-1.44899e-05
3028.78	-1.7129e-05
3043.55	-2.01904e-05
3058.33	-2.37314e-05
3073.1	-2.7815e-05
3087.88	-3.2511e-05
3102.65	-3.78955e-05
3117.43	-4.40522e-05
3132.2	-5.10717e-05
3146.97	-5.90527e-05
3161.75	-6.81016e-05
3176.52	-7.83328e-05
3191.3	-8.98689e-05
3206.07	-0.000102841
3220.85	-0.000117387
3235.62	-0.000133654
3250.39	-0.000151795
3265.17	-0.000171971
3279.94	-0.000194349
3294.72	-0.0002191
3309.49	-0.000246399
3324.27	-0.000276426
3339.04	-0.000309359
3353.81	-0.000345376
3368.59	-0.000384652
3383.36	-0.000427356
3398.14	-0.000473647
3412.91	-0.000523674
3427.68	-0.000577567
3442.46	-0.000635439
3457.23	-0.000697376
3472.01	-0.000763436
3486.78	-0.00083364
3501.56	-0.000907969
3516.33	-0.000986356
3531.1	-0.00106868
3545.88	-0.00115476
3560.65	-0.00124434
3575.43	-0.00133709
3590.2	-0.00143259
3604.97	-0.00153034
3619.75	-0.00162971
3634.52	-0.00172999
3649.3	-0.00183031
3664.07	-0.00192969
3678.84	-0.002027
3693.62	-0.00212096
3708.39	-0.00221013
3723.17	-0.00229289
3737.94	-0.00236746
3752.71	-0.00243183
3767.49	-0.00248385
3782.26	-0.00252111
3797.04	-0.00254103
3811.81	-0.00254081
3826.58	-0.00251741
3841.36	-0.00246759
3856.13	-0.00238788
3870.91	-0.00227459
3885.68	-0.0021238
3900.45	-0.00193141
3915.23	-0.00169307
3930	-0.00140426
3944.78	-0.00106027
3959.55	-0.000656187
3974.32	-0.000186977
3989.1	0.000352555
4003.87	0.000967717
4018.65	0.00166391
4033.42	0.00244662
4048.19	0.00332135
4062.97	0.00429363
4077.74	0.00536896
4092.52	0.00655277
4107.29	0.00785042
4122.06	0.0092671
4136.84	0.0108078
4151.61	0.0124775
4166.39	0.0142805
4181.16	0.0162211
4195.93	0.0183033
4210.71	0.0205304
4225.48	0.0229055
4240.26	0.0254312
4255.03	0.0281093
4269.8	0.0309413
4284.58	0.033928
4299.35	0.0370695
4314.13	0.0403652
4328.9	0.0438138
4343.68	0.0474132
4358.45	0.0511605
4373.22	0.0550521
4388	0.0590833
4402.77	0.0632489
4417.55	0.0675425
4432.32	0.0719571
4447.1	0.0764846
4461.87	0.0811164
4476.65	0.0858427
4491.42	0.0906529
4506.19	0.0955359
4520.97	0.10048
4535.74	0.105471
4550.52	0.110497
4565.29	0.115543
4580.07	0.120595
4594.84	0.125637
4609.62	0.130653
4624.39	0.135628
4639.16	0.140545
4653.94	0.145386
4668.71	0.150136
4683.49	0.154778
4698.26	0.159293
4713.04	0.163666
4727.81	0.16788
4742.59	0.171917
4757.36	0.175762
4772.14	0.179399
4786.91	0.182812
4801.68	0.185987
4816.46	0.188911
4831.23	0.191568
4846.01	0.193948
4860.78	0.196037
4875.56	0.197827
4890.33	0.199307
4905.11	0.200468
4919.88	0.201303
4934.65	0.201807
4949.43	0.201972
4964.2	0.201797
4978.98	0.201279
4993.75	0.200415
5008.53	0.199206
5023.3	0.197654
5038.08	0.195761
5052.85	0.193531
5067.62	0.190969
5082.4	0.188082
5097.17	0.184876
5111.95	0.181361
5126.72	0.177547
5141.5	0.173444
5156.27	0.169065
5171.05	0.164422
5185.82	0.15953
5200.6	0.154402
5215.37	0.149054
5230.14	0.143503
5244.92	0.137764
5259.69	0.131856
5274.47	0.125795
5289.24	0.119599
5304.02	0.113286
5318.79	0.106876
5333.57	0.100385
5348.34	0.0938329
5363.11	0.0872374
5377.89	0.0806167
5392.66	0.0739886
5407.44	0.0673706
5422.21	0.0607798
5436.99	0.0542329
5451.76	0.0477459
5466.54	0.0413344
5481.31	0.0350131
5496.09	0.0287964
5510.86	0.0226974
5525.63	0.0167289
5540.41	0.0109026
5555.18	0.00522936
5569.96	-0.000280711
5584.73	-0.00561853
5599.51	-0.0107759
5614.28	-0.0157456
5629.06	-0.0205212
5643.83	-0.0250974
5658.6	-0.0294696
5673.38	-0.0336344
5688.15	-0.037589
5702.93	-0.0413317
5717.7	-0.0448615
5732.48	-0.0481784
5747.25	-0.051283
5762.03	-0.0541767
5776.8	-0.0568619
5791.58	-0.0593413
5806.35	-0.0616184
5821.12	-0.0636973
5835.9	-0.0655827
5850.67	-0.0672798
5865.45	-0.0687941
5880.22	-0.0701316
5895	-0.0712988
5909.77	-0.0723024
5924.55	-0.0731493
5939.32	-0.0738467
5954.09	-0.0744019
5968.87	-0.0748224
5983.64	-0.0751159
5998.42	-0.0752899
6013.19	-0.075352
6027.97	-0.0753098
6042.74	-0.0751708
6057.52	-0.0749424
6072.29	-0.0746319
6087.07	-0.0742464
6101.84	-0.0737928
6116.61	-0.0732778
6131.39	-0.0727079
6146.16	-0.0720892
6160.94	-0.0714277
6175.71	-0.0707291
6190.49	-0.0699987
6205.26	-0.0692415
6220.04	-0.0684624
6234.81	-0.0676657
6249.59	-0.0668556
6264.36	-0.0660358
6279.13	-0.0652098
6293.91	-0.0643808
6308.68	-0.0635516
6323.46	-0.0627249
6338.23	-0.0619027
6353.01	-0.0610873
6367.78	-0.0602801
6382.56	-0.0594827
6397.33	-0.0586963
6412.11	-0.0579218
6426.88	-0.05716
6441.65	-0.0564114
6456.43	-0.0556762
6471.2	-0.0549548
6485.98	-0.054247
6500.75	-0.0535527
6515.53	-0.0528716
6530.3	-0.0522033
6545.08	-0.0515473
6559.85	-0.0509029
6574.63	-0.0502695
6589.4	-0.0496463
6604.17	-0.0490324
6618.95	-0.0484272
6633.72	-0.0478296
6648.5	-0.0472388
6663.27	-0.0466539
6678.05	-0.0460741
6692.82	-0.0454984
6707.6	-0.0449261
6722.37	-0.0443562
6737.15	-0.043788
6751.92	-0.0432208
6766.69	-0.042654
6781.47	-0.0420868
6796.24	-0.0415186
6811.02	-0.0409491
6825.79	-0.0403778
6840.57	-0.0398042
6855.34	-0.0392281
6870.12	-0.0386492
6884.89	-0.0380675
6899.67	-0.0374827
6914.44	-0.036895
6929.21	-0.0363043
6943.99	-0.0357108
6958.76	-0.0351146
6973.54	-0.0345161
6988.31	-0.0339155
7003.09	-0.0333132
7017.86	-0.0327097
7032.64	-0.0321054
7047.41	-0.031501
7062.19	-0.0308969
7076.96	-0.0302938
7091.73	-0.0296923
7106.51	-0.0290932
7121.28	-0.0284972
7136.06	-0.027905
7150.83	-0.0273173
7165.61	-0.026735
7180.38	-0.0261589
7195.16	-0.0255897
7209.93	-0.0250282
7224.71	-0.0244753
7239.48	-0.0239316
7254.25	-0.0233981
7269.03	-0.0228753
7283.8	-0.0223641
7298.58	-0.0218651
7313.35	-0.0213791
7328.13	-0.0209066
7342.9	-0.0204484
7357.68	-0.0200049
7372.45	-0.0195767
7387.23	-0.0191643
7402	-0.0187681
7416.77	-0.0183885
7431.55	-0.0180259
7446.32	-0.0176806
7461.1	-0.0173528
7475.87	-0.0170427
7490.65	-0.0167504
7505.42	-0.016476
7520.2	-0.0162196
7534.97	-0.015981
7549.74	-0.0157603
7564.52	-0.0155572
7579.29	-0.0153716
7594.07	-0.0152032
7608.84	-0.0150516
7623.62	-0.0149166
7638.39	-0.0147978
7653.17	-0.0146946
7667.94	-0.0146066
7682.71	-0.0145331
7697.49	-0.0144737
7712.26	-0.0144277
7727.04	-0.0143944
7741.81	-0.0143731
7756.59	-0.014363
7771.36	-0.0143635
7786.14	-0.0143736
7800.91	-0.0143926
7815.68	-0.0144196
7830.46	-0.0144537
7845.23	-0.0144942
7860.01	-0.01454
7874.78	-0.0145902
7889.56	-0.0146441
7904.33	-0.0147006
7919.11	-0.0147589
7933.88	-0.014818
7948.65	-0.014877
7963.43	-0.0149351
7978.2	-0.0149913
7992.98	-0.0150448
8007.75	-0.0150948
8022.53	-0.0151403
8037.3	-0.0151807
8052.08	-0.015215
8066.85	-0.0152426
8081.62	-0.0152628
8096.4	-0.0152747
8111.17	-0.0152778
8125.95	-0.0152714
8140.72	-0.015255
8155.5	-0.0152279
8170.27	-0.0151896
8185.05	-0.0151397
8199.82	-0.0150777
8214.59	-0.0150032
8229.37	-0.0149159
8244.14	-0.0148154
8258.92	-0.0147015
8273.69	-0.0145739
8288.47	-0.0144325
8303.24	-0.014277
8318.02	-0.0141075
8332.79	-0.0139239
8347.56	-0.013726
8362.34	-0.0135141
8377.11	-0.0132881
8391.89	-0.0130482
8406.66	-0.0127944
8421.44	-0.0125271
8436.21	-0.0122464
8450.99	-0.0119525
8465.76	-0.0116459
8480.53	-0.0113267
8495.31	-0.0109955
8510.08	-0.0106525
8524.86	-0.0102983
8539.63	-0.00993319
8554.41	-0.00955774
8569.18	-0.00917245
8583.96	-0.00877783
8598.73	-0.00837445
8613.51	-0.00796286
8628.28	-0.00754366
8643.05	-0.00711744
8657.83	-0.00668483
8672.6	-0.00624646
8687.38	-0.00580296
8702.15	-0.00535497
8716.93	-0.00490317
8731.7	-0.0044482
8746.48	-0.00399074
8761.25	-0.00353144
8776.02	-0.00307097
8790.8	-0.00261
8805.57	-0.00214918
8820.35	-0.00168919
8835.12	-0.00123065
8849.9	-0.000774229
8864.67	-0.000320548
8879.45	0.000129765
8894.22	0.000576099
8908.99	0.00101785
8923.77	0.00145444
8938.54	0.00188528
8953.32	0.00230983
8968.09	0.00272754
8982.87	0.00313789
8997.64	0.00354038
9012.42	0.00393452
9027.19	0.00431984
9041.96	0.0046959
9056.74	0.00506228
9071.51	0.00541856
9086.29	0.00576437
9101.06	0.00609934
9115.84	0.00642313
9130.61	0.00673543
9145.39	0.00703593
9160.16	0.00732437
9174.94	0.00760049
9189.71	0.00786406
9204.48	0.00811487
9219.26	0.00835274
9234.03	0.00857749
9248.81	0.00878899
9263.58	0.0089871
9278.36	0.00917172
9293.13	0.00934277
9307.91	0.00950018
9322.68	0.0096439
9337.45	0.00977391
9352.23	0.00989019
9367	0.00999274
9381.78	0.0100816
9396.55	0.0101568
9411.33	0.0102184
9426.1	0.0102664
9440.88	0.010301
9455.65	0.0103222
9470.43	0.0103301
9485.2	0.0103249
9499.97	0.0103066
9514.75	0.0102755
9529.52	0.0102316
9544.3	0.0101752
9559.07	0.0101064
9573.85	0.0100253
9588.62	0.00993217
9603.4	0.00982717
9618.17	0.0097105
9632.94	0.00958236
9647.72	0.00944294
9662.49	0.00929246
9677.27	0.00913113
9692.04	0.00895916
9706.82	0.00877677
9721.59	0.00858419
9736.37	0.00838164
9751.14	0.00816934
9765.92	0.00794751
9780.69	0.00771639
9795.46	0.00747621
9810.24	0.00722719
9825.01	0.00696956
9839.79	0.00670355
9854.56	0.0064294
9869.34	0.00614733
9884.11	0.00585756
9898.89	0.00556034
9913.66	0.00525589
9928.44	0.00494442
9943.21	0.00462618
9957.98	0.00430139
9972.76	0.00397026
9987.53	0.00363303
10002.3	0.00328991
10017.1	0.00294113
10031.9	0.00258691
10046.6	0.00222746
10061.4	0.00186301
10076.2	0.00149377
10091	0.00111996
10105.7	0.000741786
10120.5	0.000359467
10135.3	-2.67859e-05
10150.1	-0.000416761
10164.8	-0.00081025
10179.6	-0.00120704
10194.4	-0.00160694
10209.2	-0.00200972
10223.9	-0.00241519
10238.7	-0.00282314
10253.5	-0.00323338
10268.2	-0.00364569
10283	-0.00405989
10297.8	-0.00447577
10312.6	-0.00489314
10327.3	-0.0053118
10342.1	-0.00573156
10356.9	-0.00615222
10371.7	-0.0065736
10386.4	-0.00699551
10401.2	-0.00741776
10416	-0.00784016
10430.8	-0.00826254
10445.5	-0.00868471
10460.3	-0.0091065
10475.1	-0.00952772
10489.9	-0.00994819
10504.6	-0.0103678
10519.4	-0.0107862
10534.2	-0.0112035
10549	-0.0116193
10563.7	-0.0120335
10578.5	-0.012446
10593.3	-0.0128566
10608.1	-0.0132651
10622.8	-0.0136714
10637.6	-0.0140754
10652.4	-0.0144768
10667.2	-0.0148755
10681.9	-0.0152715
10696.7	-0.0156645
10711.5	-0.0160543
10726.3	-0.016441
10741	-0.0168242
10755.8	-0.017204
10770.6	-0.01758
10785.4	-0.0179523
10800.1	-0.0183207
10814.9	-0.018685
10829.7	-0.0190452
10844.5	-0.019401
10859.2	-0.0197524
10874	-0.0200993
10888.8	-0.0204414
10903.6	-0.0207788
10918.3	-0.0211112
10933.1	-0.0214385
10947.9	-0.0217607
10962.7	-0.0220775
10977.4	-0.0223889
10992.2	-0.0226947
11007	-0.0229949
11021.8	-0.0232892
11036.5	-0.0235775
11051.3	-0.0238598
11066.1	-0.0241359
11080.8	-0.0244057
11095.6	-0.0246689
11110.4	-0.0249256
11125.2	-0.0251756
11139.9	-0.0254187
11154.7	-0.0256547
11169.5	-0.0258837
11184.3	-0.0261054
11199	-0.0263196
11213.8	-0.0265263
11228.6	-0.0267252
11243.4	-0.0269164
11258.1	-0.0270995
11272.9	-0.0272745
11287.7	-0.0274412
11302.5	-0.0275994
11317.2	-0.0277491
11332	-0.02789
11346.8	-0.028022
11361.6	-0.028145
11376.3	-0.0282589
11391.1	-0.0283633
11405.9	-0.0284583
11420.7	-0.0285437
11435.4	-0.0286192
11450.2	-0.0286848
11465	-0.0287404
11479.8	-0.0287857
11494.5	-0.0288206
11509.3	-0.0288451
11524.1	-0.0288589
11538.9	-0.0288619
11553.6	-0.0288539
11568.4	-0.028835
11583.2	-0.0288048
11598	-0.0287634
11612.7	-0.0287105
11627.5	-0.0286461
11642.3	-0.0285701
11657.1	-0.0284823
11671.8	-0.0283827
11686.6	-0.0282711
11701.4	-0.0281476
11716.2	-0.0280119
11730.9	-0.027864
11745.7	-0.0277039
11760.5	-0.0275315
11775.3	-0.0273468
11790	-0.0271496
11804.8	-0.0269401
11819.6	-0.026718
11834.3	-0.0264834
11849.1	-0.0262364
11863.9	-0.0259768
11878.7	-0.0257048
11893.4	-0.0254202
11908.2	-0.0251232
11923	-0.0248138
11937.8	-0.024492
11952.5	-0.0241578
11967.3	-0.0238113
11982.1	-0.0234527
11996.9	-0.0230819
12011.6	-0.0226991
12026.4	-0.0223043
12041.2	-0.0218977
12056	-0.0214794
12070.7	-0.0210496
12085.5	-0.0206082
12100.3	-0.0201556
12115.1	-0.0196919
12129.8	-0.0192172
12144.6	-0.0187317
12159.4	-0.0182357
12174.2	-0.0177292
12188.9	-0.0172125
12203.7	-0.0166859
12218.5	-0.0161495
12233.3	-0.0156037
12248	-0.0150485
12262.8	-0.0144844
12277.6	-0.0139115
12292.4	-0.0133301
12307.1	-0.0127405
12321.9	-0.012143
12336.7	-0.0115379
12351.5	-0.0109254
12366.2	-0.010306
12381	-0.00967984
12395.8	-0.00904732
12410.6	-0.00840876
12425.3	-0.00776451
12440.1	-0.00711489
12454.9	-0.00646026
12469.7	-0.00580097
12484.4	-0.00513738
12499.2	-0.00446986
12514	-0.00379878
12528.8	-0.00312451
12543.5	-0.00244744
12558.3	-0.00176793
12573.1	-0.00108639
12587.9	-0.000403194
12602.6	0.000281258
12617.4	0.00096657
12632.2	0.00165235
12646.9	0.00233818
12661.7	0.00302368
12676.5	0.00370843
12691.3	0.00439203
12706	0.00507408
12720.8	0.00575416
12735.6	0.00643187
12750.4	0.0071068
12765.1	0.00777855
12779.9	0.00844669
12794.7	0.00911084
12809.5	0.00977058
12824.2	0.0104255
12839	0.0110752
12853.8	0.0117193
12868.6	0.0123574
12883.3	0.0129891
12898.1	0.013614
12912.9	0.0142317
12927.7	0.0148418
12942.4	0.015444
12957.2	0.0160378
12972	0.0166229
12986.8	0.0171989
13001.5	0.0177655
13016.3	0.0183222
13031.1	0.0188688
13045.9	0.0194048
13060.6	0.01993
13075.4	0.020444
13090.2	0.0209464
13105	0.021437
13119.7	0.0219153
13134.5	0.0223812
13149.3	0.0228342
13164.1	0.0232741
13178.8	0.0237006
13193.6	0.0241134
13208.4	0.0245122
13223.2	0.0248968
13237.9	0.0252668
13252.7	0.0256221
13267.5	0.0259624
13282.3	0.0262874
13297	0.0265969
13311.8	0.0268907
13326.6	0.0271686
13341.4	0.0274304
13356.1	0.0276759
13370.9	0.0279048
13385.7	0.0281171
13400.4	0.0283125
13415.2	0.0284909
13430	0.0286522
13444.8	0.0287962
13459.5	0.0289228
13474.3	0.0290319
13489.1	0.0291233
13503.9	0.0291971
13518.6	0.029253
13533.4	0.029291
13548.2	0.0293111
13563	0.0293132
13577.7	0.0292973
13592.5	0.0292633
13607.3	0.0292112
13622.1	0.0291411
13636.8	0.0290529
13651.6	0.0289466
13666.4	0.0288223
13681.2	0.02868
13695.9	0.0285198
13710.7	0.0283417
13725.5	0.0281458
13740.3	0.0279322
13755	0.0277011
13769.8	0.0274524
13784.6	0.0271864
13799.4	0.0269031
13814.1	0.0266028
13828.9	0.0262856
13843.7	0.0259516
13858.5	0.0256011
13873.2	0.0252343
13888	0.0248513
13902.8	0.0244524
13917.6	0.0240379
13932.3	0.0236079
13947.1	0.0231628
13961.9	0.0227028
13976.7	0.0222282
13991.4	0.0217394
14006.2	0.0212365
14021	0.02072
14035.8	0.0201902
14050.5	0.0196474
14065.3	0.019092
14080.1	0.0185243
14094.9	0.0179447
14109.6	0.0173537
14124.4	0.0167516
14139.2	0.0161388
14154	0.0155158
14168.7	0.014883
14183.5	0.0142408
14198.3	0.0135897
14213	0.0129301
14227.8	0.0122625
14242.6	0.0115874
14257.4	0.0109053
14272.1	0.0102166
14286.9	0.00952194
14301.7	0.0088217
14316.5	0.00811644
14331.2	0.00740666
14346	0.0066929
14360.8	0.00597568
14375.6	0.00525553
14390.3	0.00453299
14405.1	0.00380858
14419.9	0.00308287
14434.7	0.00235637
14449.4	0.00162964
14464.2	0.00090323
14479	0.000177671
14493.8	-0.000546488
14508.5	-0.00126871
14523.3	-0.00198844
14538.1	-0.00270515
14552.9	-0.00341831
14567.6	-0.00412738
14582.4	-0.00483183
14597.2	-0.00553115
14612	-0.00622482
14626.7	-0.00691231
14641.5	-0.00759315
14656.3	-0.00826682
14671.1	-0.00893283
14685.8	-0.00959072
14700.6	-0.01024
14715.4	-0.0108802
14730.2	-0.011511
14744.9	-0.0121318
14759.7	-0.0127422
14774.5	-0.0133418
14789.3	-0.0139303
14804	-0.0145072
14818.8	-0.0150721
14833.6	-0.0156248
14848.4	-0.0161648
14863.1	-0.0166919
14877.9	-0.0172056
14892.7	-0.0177058
14907.5	-0.0181922
14922.2	-0.0186644
14937	-0.0191223
14951.8	-0.0195656
14966.5	-0.0199941
14981.3	-0.0204077
14996.1	-0.020806
15010.9	-0.0211891
15025.6	-0.0215567
15040.4	-0.0219087
15055.2	-0.0222451
15070	-0.0225657
15084.7	-0.0228705
15099.5	-0.0231594
15114.3	-0.0234325
15129.1	-0.0236896
15143.8	-0.0239309
15158.6	-0.0241564
15173.4	-0.024366
15188.2	-0.0245599
15202.9	-0.0247381
15217.7	-0.0249007
15232.5	-0.0250479
15247.3	-0.0251798
15262	-0.0252965
15276.8	-0.0253981
15291.6	-0.025485
15306.4	-0.0255571
15321.1	-0.0256148
15335.9	-0.0256583
15350.7	-0.0256877
15365.5	-0.0257034
15380.2	-0.0257056
15395	-0.0256945
15409.8	-0.0256704
15424.6	-0.0256336
15439.3	-0.0255845
15454.1	-0.0255232
15468.9	-0.0254501
15483.7	-0.0253655
15498.4	-0.0252697
15513.2	-0.0251631
15528	-0.025046
15542.8	-0.0249187
15557.5	-0.0247816
15572.3	-0.0246349
15587.1	-0.0244792
15601.9	-0.0243146
15616.6	-0.0241415
15631.4	-0.0239603
15646.2	-0.0237714
15661	-0.023575
15675.7	-0.0233715
15690.5	-0.0231613
15705.3	-0.0229447
15720.1	-0.0227221
15734.8	-0.0224936
15749.6	-0.0222598
15764.4	-0.0220209
15779.1	-0.0217772
15793.9	-0.021529
15808.7	-0.0212767
15823.5	-0.0210205
15838.2	-0.0207608
15853	-0.0204977
15867.8	-0.0202317
15882.6	-0.0199629
15897.3	-0.0196917
15912.1	-0.0194182
15926.9	-0.0191427
15941.7	-0.0188655
15956.4	-0.0185867
15971.2	-0.0183067
15986	-0.0180256
16000.8	-0.0177435
16015.5	-0.0174608
16030.3	-0.0171775
16045.1	-0.0168939
16059.9	-0.0166102
16074.6	-0.0163263
16089.4	-0.0160426
16104.2	-0.0157592
16119	-0.0154761
16133.7	-0.0151935
16148.5	-0.0149115
16163.3	-0.0146303
16178.1	-0.0143498
16192.8	-0.0140702
16207.6	-0.0137917
16222.4	-0.0135141
16237.2	-0.0132377
16251.9	-0.0129624
16266.7	-0.0126884
16281.5	-0.0124156
16296.3	-0.0121441
16311	-0.011874
16325.8	-0.0116052
16340.6	-0.0113379
16355.4	-0.0110719
16370.1	-0.0108074
16384.9	-0.0105443
16399.7	-0.0102827
16414.5	-0.0100225
16429.2	-0.00976378
16444	-0.0095065
16458.8	-0.00925067
16473.6	-0.00899627
16488.3	-0.00874331
16503.1	-0.00849176
16517.9	-0.00824163
16532.6	-0.0079929
16547.4	-0.00774555
16562.2	-0.00749958
16577	-0.00725496
16591.7	-0.00701169
16606.5	-0.00676976
16621.3	-0.00652914
16636.1	-0.00628984
16650.8	-0.00605183
16665.6	-0.00581512
16680.4	-0.00557968
16695.2	-0.00534552
16709.9	-0.00511263
16724.7	-0.004881
16739.5	-0.00465064
16754.3	-0.00442155
16769	-0.00419371
16783.8	-0.00396715
16798.6	-0.00374187
16813.4	-0.00351788
16828.1	-0.00329518
16842.9	-0.0030738
16857.7	-0.00285374
16872.5	-0.00263503
16887.2	-0.00241768
16902	-0.00220173
16916.8	-0.00198719
16931.6	-0.00177409
16946.3	-0.00156247
16961.1	-0.00135235
16975.9	-0.00114378
16990.7	-0.000936775
17005.4	-0.00073139
17020.2	-0.00052766
17035	-0.000325628
17049.8	-0.000125338
17064.5	7.31649e-05
17079.3	0.000269833
17094.1	0.000464618
17108.9	0.00065747
17123.6	0.000848337
17138.4	0.00103717
17153.2	0.00122391
17168	0.00140851
17182.7	0.00159091
17197.5	0.00177106
17212.3	0.0019489
17227.1	0.00212438
17241.8	0.00229744
17256.6	0.00246802
17271.4	0.00263607
17286.2	0.00280154
17300.9	0.00296437
17315.7	0.0031245
17330.5	0.00328189
17345.2	0.00343647
17360	0.0035882
17374.8	0.00373703
17389.6	0.00388291
17404.3	0.00402578
17419.1	0.00416561
17433.9	0.00430235
17448.7	0.00443595
17463.4	0.00456637
17478.2	0.00469358
17493	0.00481753
17507.8	0.00493819
17522.5	0.00505553
17537.3	0.0051695
17552.1	0.00528009
17566.9	0.00538727
17581.6	0.00549101
17596.4	0.00559129
17611.2	0.00568808
17626	0.00578138
17640.7	0.00587117
17655.5	0.00595743
17670.3	0.00604015
17685.1	0.00611934
17699.8	0.00619497
17714.6	0.00626706
17729.4	0.00633561
17744.2	0.00640061
17758.9	0.00646207
17773.7	0.00652001
17788.5	0.00657443
17803.3	0.00662535
17818	0.00667278
17832.8	0.00671675
17847.6	0.00675728
17862.4	0.0067944
17877.1	0.00682812
17891.9	0.00685848
17906.7	0.00688552
17921.5	0.00690926
17936.2	0.00692975
17951	0.00694702
17965.8	0.00696111
17980.6	0.00697207
17995.3	0.00697994
18010.1	0.00698477
18024.9	0.00698661
18039.7	0.00698552
18054.4	0.00698153
18069.2	0.00697472
18084	0.00696512
18098.8	0.00695281
18113.5	0.00693784
18128.3	0.00692027
18143.1	0.00690017
18157.8	0.00687759
18172.6	0.00685259
18187.4	0.00682525
18202.2	0.00679563
18216.9	0.00676379
18231.7	0.0067298
18246.5	0.00669373
18261.3	0.00665565
18276	0.00661562
18290.8	0.00657371
18305.6	0.00652998
18320.4	0.00648452
18335.1	0.00643738
18349.9	0.00638863
18364.7	0.00633835
18379.5	0.00628659
18394.2	0.00623342
18409	0.00617891
18423.8	0.00612313
18438.6	0.00606613
18453.3	0.00600798
18468.1	0.00594875
18482.9	0.0058885
18497.7	0.00582727
18512.4	0.00576515
18527.2	0.00570217
18542	0.00563839
18556.8	0.00557388
18571.5	0.00550868
18586.3	0.00544285
18601.1	0.00537642
18615.9	0.00530946
18630.6	0.005242
18645.4	0.00517409
18660.2	0.00510578
18675	0.00503709
18689.7	0.00496807
18704.5	0.00489875
18719.3	0.00482916
18734.1	0.00475934
18748.8	0.00468932
18763.6	0.00461911
18778.4	0.00454875
18793.2	0.00447825
18807.9	0.00440764
18822.7	0.00433692
18837.5	0.00426613
18852.3	0.00419525
18867	0.00412432
18881.8	0.00405332
18896.6	0.00398228
18911.3	0.00391118
18926.1	0.00384003
18940.9	0.00376884
18955.7	0.00369758
18970.4	0.00362626
18985.2	0.00355487
19000	0.0034834
19014.8	0.00341184
19029.5	0.00334016
19044.3	0.00326835
19059.1	0.0031964
19073.9	0.00312428
19088.6	0.00305198
19103.4	0.00297945
19118.2	0.0029067
19133	0.00283367
19147.7	0.00276035
19162.5	0.00268671
19177.3	0.00261271
19192.1	0.00253832
19206.8	0.00246351
19221.6	0.00238825
19236.4	0.0023125
19251.2	0.00223622
19265.9	0.00215938
19280.7	0.00208195
19295.5	0.00200388
19310.3	0.00192513
19325	0.00184568
19339.8	0.00176548
19354.6	0.00168449
19369.4	0.00160268
19384.1	0.00152002
19398.9	0.00143646
19413.7	0.00135196
19428.5	0.0012665
19443.2	0.00118005
19458	0.00109255
19472.8	0.00100399
19487.6	0.000914335
19502.3	0.00082355
19517.1	0.000731608
19531.9	0.000638483
19546.7	0.000544148
19561.4	0.000448581
19576.2	0.000351757
19591	0.000253657
19605.8	0.000154263
19620.5	5.35587e-05
19635.3	-4.84712e-05
19650.1	-0.000151838
19664.9	-0.000256552
19679.6	-0.00036262
19694.4	-0.000470048
19709.2	-0.000578838
19723.9	-0.000688989
19738.7	-0.0008005
19753.5	-0.000913365
19768.3	-0.00102758
19783	-0.00114312
19797.8	-0.00125999
19812.6	-0.00137816
19827.4	-0.00149762
19842.1	-0.00161834
19856.9	-0.00174031
19871.7	-0.00186348
19886.5	-0.00198784
19901.2	-0.00211334
19916	-0.00223996
19930.8	-0.00236765
19945.6	-0.00249637
19960.3	-0.00262607
19975.1	-0.00275671
19989.9	-0.00288824
