0	0
10.3534	0
20.7068	0
31.0603	0
41.4137	0
51.7671	0
62.1205	0
72.4739	0
82.8273	0
93.1808	0
103.534	0
113.888	0
124.241	0
134.594	0
144.948	0
150.125	0
160.478	0
170.831	0
181.185	0
191.538	0
201.892	0
212.245	0
222.598	0
232.952	0
243.305	0
253.659	0
264.012	0
274.366	0
284.719	0
295.072	0
300.249	0
310.603	0
320.956	0
331.309	0
341.663	0
352.016	0
362.37	0
372.723	0
383.076	0
393.43	0
403.783	0
414.137	0
424.49	0
434.844	0
440.02	0
450.374	0
460.727	0
471.081	0
481.434	0
491.787	0
502.141	0
512.494	0
522.848	0
533.201	0
543.554	0
553.908	0
564.261	0
574.615	0
584.968	0
590.145	0
600.498	0
610.852	0
621.205	0
631.559	0
641.912	0
652.265	0
662.619	0
672.972	0
683.326	0
693.679	0
704.032	0
714.386	0
724.739	0
735.093	0
740.269	0
750.623	0
760.976	0
771.33	0
781.683	0
792.037	0
802.39	0
812.743	0
823.097	0
833.45	0
843.804	0
854.157	0
864.51	0
874.864	0
880.041	0
890.394	0
900.747	0
911.101	0
921.454	0
931.808	0
942.161	0
952.514	0
962.868	0
973.221	0
983.575	0
993.928	0
1004.28	0
1014.63	0
1024.99	0
1030.17	0
1040.52	0
1050.87	0
1061.23	0
1071.58	0
1081.93	0
1092.29	0
1102.64	0
1112.99	0
1123.35	0
1133.7	0
1144.05	0
1154.41	0
1164.76	0
1175.11	0
1180.29	0
1190.64	0
1201	0
1211.35	0
1221.7	0
1232.06	0
1242.41	0
1252.76	0
1263.12	0
1273.47	0
1283.82	0
1294.18	0
1304.53	0
1314.88	0
1320.06	0
1330.41	0
1340.77	0
1351.12	0
1361.47	0
1371.83	0
1382.18	0
1392.53	0
1402.89	0
1413.24	0
1423.6	0
1433.95	0
1444.3	0
1454.66	0
1465.01	0
1470.19	0
1480.54	0
1490.89	0
1501.25	0
1511.6	0
1521.95	0
1532.31	0
1542.66	0
1553.01	0
1563.37	0
1573.72	0
1584.07	0
1594.43	0
1604.78	0
1615.13	0
1620.31	0
1630.66	0
1641.02	0
1651.37	0
1661.72	0
1672.08	0
1682.43	0
1692.78	0
1703.14	0
1713.49	0
1723.84	0
1734.2	0
1744.55	0
1754.9	0
1760.08	0
1770.43	0
1780.79	0
1791.14	0
1801.49	0
1811.85	0
1822.2	0
1832.56	0
1842.91	0
1853.26	0
1863.62	0
1873.97	0
1884.32	0
1894.68	0
1905.03	0
1910.21	0
1920.56	0
1930.91	0
1941.27	0
1951.62	0
1961.97	0
1972.33	0
1982.68	0
1993.03	0
2003.39	0
2013.74	0
2024.09	0
2034.45	0
2044.8	0
2055.15	0
2060.33	0
2070.68	0
2081.04	0
2091.39	0
2101.74	0
2112.1	0
2122.45	0
2132.8	0
2143.16	0
2153.51	0
2163.86	0
2174.22	0
2184.57	0
2194.92	0
2200.1	0
2210.45	0
2220.81	0
2231.16	0
2241.52	0
2251.87	0
2262.22	0
2272.58	0
2282.93	0
2293.28	0
2303.64	0
2313.99	0
2324.34	0
2334.7	0
2345.05	0
2350.23	0
2360.58	0
2370.93	0
2381.29	0
2391.64	0
2401.99	0
2412.35	0
2422.7	0
2433.05	0
2443.41	0
2453.76	0
2464.11	0
2474.47	0
2484.82	0
2495.17	0
2500.35	0
2510.7	0
2521.06	0
2531.41	0
2541.76	0
2552.12	0
2562.47	0
2572.82	0
2583.18	0
2593.53	0
2603.88	0
2614.24	0
2624.59	0
2634.94	0
2640.12	0
2650.47	0
2660.83	0
2671.18	0
2681.54	9.09495e-13
2691.89	9.09495e-13
2702.24	1.81899e-12
2712.6	3.63798e-12
2722.95	5.45697e-12
2733.3	1.00044e-11
2743.66	1.63709e-11
2754.01	2.81943e-11
2764.36	4.63842e-11
2774.72	7.45786e-11
2785.07	1.18234e-10
2790.25	1.49157e-10
2800.6	2.3374e-10
2810.95	3.63798e-10
2821.31	5.61158e-10
2831.66	8.56744e-10
2842.01	1.29785e-09
2852.37	1.94996e-09
2862.72	2.90675e-09
2873.07	4.29645e-09
2883.43	6.29916e-09
2893.78	9.16134e-09
2904.13	1.32213e-08
2914.49	1.89311e-08
2924.84	2.69029e-08
2930.02	3.19797e-08
2940.37	4.49354e-08
2950.72	6.2676e-08
2961.08	8.6784e-08
2971.43	1.19306e-07
2981.78	1.62857e-07
2992.14	2.20756e-07
3002.49	2.97185e-07
3012.84	3.9736e-07
3023.2	5.27752e-07
3033.55	6.96308e-07
3043.9	9.12725e-07
3054.26	1.18873e-06
3064.61	1.53842e-06
3074.96	1.97856e-06
3080.14	2.23861e-06
3090.49	2.85266e-06
3100.85	3.61328e-06
3111.2	4.54957e-06
3121.55	5.69499e-06
3131.91	7.08773e-06
3142.26	8.77102e-06
3152.61	1.07934e-05
3162.97	1.3209e-05
3173.32	1.60775e-05
3183.67	1.94644e-05
3194.03	2.3441e-05
3204.38	2.80838e-05
3214.73	3.34749e-05
3225.09	3.97009e-05
3230.26	4.31552e-05
3240.62	5.08052e-05
3250.97	5.95237e-05
3261.32	6.94087e-05
3271.68	8.05595e-05
3282.03	9.3075e-05
3292.38	0.000107053
3302.74	0.000122589
3313.09	0.000139773
3323.44	0.000158692
3333.79	0.000179423
3344.15	0.000202039
3354.5	0.000226599
3364.85	0.000253155
3370.03	0.000267194
3380.38	0.000296813
3390.74	0.000328503
3401.09	0.000362272
3411.44	0.000398115
3421.8	0.000436014
3432.15	0.000475938
3442.5	0.000517845
3452.86	0.000561682
3463.21	0.000607386
3473.56	0.000654886
3483.91	0.000704103
3494.27	0.000754954
3504.62	0.000807353
3514.97	0.000861214
3520.15	0.000888665
3530.5	0.000944556
3540.86	0.0010017
3551.21	0.00106002
3561.56	0.00111944
3571.92	0.00117992
3582.27	0.0012414
3592.62	0.00130385
3602.97	0.00136725
3613.33	0.0014316
3623.68	0.00149691
3634.03	0.00156322
3644.39	0.00163057
3654.74	0.00169904
3665.09	0.00176874
3670.27	0.00180409
3680.62	0.00187587
3690.97	0.00194925
3701.33	0.00202445
3711.68	0.00210171
3722.03	0.00218134
3732.39	0.0022637
3742.74	0.00234922
3753.09	0.00243842
3763.44	0.00253188
3773.8	0.00263035
3784.15	0.00273466
3794.5	0.00284582
3804.86	0.00296503
3810.03	0.00302809
3820.38	0.0031621
3830.74	0.0033082
3841.09	0.00346849
3851.44	0.00364551
3861.8	0.00384218
3872.15	0.00406192
3882.5	0.00430875
3892.85	0.00458729
3903.21	0.00490292
3913.56	0.00526181
3923.91	0.00567106
3934.27	0.0061388
3944.62	0.00667426
3954.97	0.00728794
3960.15	0.00762775
3970.5	0.0083814
3980.85	0.00924564
3991.21	0.0102362
4001.56	0.0113705
4011.91	0.0126678
4022.27	0.0141493
4032.62	0.0158382
4042.97	0.0177596
4053.32	0.0199408
4063.68	0.0224109
4074.03	0.0252011
4084.38	0.0283445
4094.74	0.0318759
4105.09	0.0358316
4110.27	0.0379803
4120.62	0.0426436
4130.97	0.0478275
4141.33	0.0535715
4151.68	0.0599157
4162.03	0.0668994
4172.38	0.0745614
4182.74	0.0829388
4193.09	0.0920668
4203.44	0.101978
4213.8	0.112701
4224.15	0.124261
4234.5	0.136679
4244.86	0.14997
4250.03	0.156945
4260.39	0.171558
4270.74	0.187053
4281.09	0.203419
4291.45	0.22064
4301.8	0.238688
4312.15	0.257528
4322.51	0.277117
4332.86	0.297399
4343.21	0.31831
4353.57	0.339777
4363.92	0.361719
4374.27	0.384042
4384.63	0.406647
4394.98	0.429426
4400.16	0.440845
4410.51	0.463667
4420.86	0.486364
4431.22	0.508805
4441.57	0.530858
4451.92	0.552387
4462.28	0.573255
4472.63	0.593324
4482.98	0.612458
4493.34	0.630524
4503.69	0.647391
4514.04	0.662934
4524.4	0.677036
4534.75	0.689585
4545.1	0.700479
4550.28	0.705275
4560.63	0.713514
4570.99	0.719884
4581.34	0.724321
4591.69	0.72677
4602.05	0.72719
4612.4	0.725554
4622.75	0.721845
4633.11	0.716062
4643.46	0.708215
4653.81	0.698326
4664.17	0.686431
4674.52	0.672575
4684.87	0.656817
4690.05	0.648245
4700.4	0.629761
4710.76	0.609562
4721.11	0.587735
4731.46	0.564379
4741.82	0.539596
4752.17	0.513496
4762.52	0.486191
4772.88	0.457798
4783.23	0.428437
4793.58	0.398228
4803.94	0.367294
4814.29	0.335756
4824.64	0.303737
4835	0.271356
4840.17	0.255066
4850.53	0.222363
4860.88	0.18959
4871.23	0.156857
4881.59	0.124272
4891.94	0.0919391
4902.3	0.0599578
4912.65	0.0284232
4923	-0.00257446
4933.36	-0.0329496
4943.71	-0.0626217
4954.06	-0.0915153
4964.42	-0.11956
4974.77	-0.146691
4985.12	-0.172849
4990.3	-0.185545
5000.65	-0.210141
5011.01	-0.233637
5021.36	-0.255991
5031.71	-0.277167
5042.07	-0.297133
5052.42	-0.315865
5062.77	-0.33334
5073.13	-0.349543
5083.48	-0.364463
5093.83	-0.378094
5104.19	-0.390434
5114.54	-0.401487
5124.89	-0.41126
5130.07	-0.41567
5140.42	-0.423548
5150.78	-0.430186
5161.13	-0.435604
5171.48	-0.439831
5181.84	-0.442896
5192.19	-0.444833
5202.54	-0.445678
5212.9	-0.445471
5223.25	-0.444256
5233.6	-0.442077
5243.96	-0.438981
5254.31	-0.435018
5264.66	-0.430239
5275.02	-0.424696
5280.19	-0.421654
5290.55	-0.415066
5300.9	-0.407848
5311.25	-0.400057
5321.61	-0.391748
5331.96	-0.382975
5342.31	-0.373792
5352.67	-0.364255
5363.02	-0.354415
5373.37	-0.344325
5383.73	-0.334035
5394.08	-0.323593
5404.43	-0.313048
5414.79	-0.302444
5425.14	-0.291824
5430.32	-0.286521
5440.67	-0.275955
5451.02	-0.265471
5461.38	-0.255106
5471.73	-0.244891
5482.08	-0.234858
5492.44	-0.225034
5502.79	-0.215444
5513.14	-0.206112
5523.5	-0.197058
5533.85	-0.1883
5544.2	-0.179854
5554.56	-0.171734
5564.91	-0.16395
5570.09	-0.160188
5580.44	-0.152927
5590.79	-0.146023
5601.15	-0.13948
5611.5	-0.133301
5621.85	-0.127488
5632.21	-0.12204
5642.56	-0.116956
5652.91	-0.112234
5663.27	-0.107869
5673.62	-0.103856
5683.97	-0.100189
5694.33	-0.0968618
5704.68	-0.0938666
5715.03	-0.091195
5720.21	-0.0899777
5730.57	-0.0877746
5740.92	-0.0858716
5751.27	-0.0842585
5761.63	-0.0829247
5771.98	-0.0818588
5782.33	-0.0810496
5792.69	-0.0804851
5803.04	-0.0801533
5813.39	-0.0800417
5823.75	-0.0801377
5834.1	-0.0804285
5844.45	-0.0809009
5854.81	-0.0815417
5865.16	-0.0823373
5870.34	-0.0827889
5880.69	-0.0837913
5891.04	-0.0849142
5901.4	-0.0861437
5911.75	-0.0874658
5922.1	-0.0888664
5932.46	-0.0903315
5942.81	-0.0918469
5953.16	-0.0933986
5963.52	-0.0949727
5973.87	-0.0965553
5984.22	-0.0981329
5994.58	-0.0996919
6004.93	-0.101219
6010.11	-0.101967
6020.46	-0.103423
6030.81	-0.104816
6041.17	-0.106134
6051.52	-0.107366
6061.87	-0.108501
6072.23	-0.109529
6082.58	-0.11044
6092.93	-0.111226
6103.29	-0.111879
6113.64	-0.112391
6123.99	-0.112756
6134.35	-0.112968
6144.7	-0.113022
6155.05	-0.112915
6160.23	-0.112799
6170.58	-0.112444
6180.94	-0.111921
6191.29	-0.111229
6201.64	-0.110369
6212	-0.109341
6222.35	-0.108146
6232.7	-0.106789
6243.06	-0.105271
6253.41	-0.103596
6263.76	-0.101771
6274.12	-0.0997988
6284.47	-0.0976868
6294.82	-0.0954413
6300	-0.0942706
6310.35	-0.0918381
6320.71	-0.0892905
6331.06	-0.086636
6341.41	-0.083883
6351.77	-0.0810401
6362.12	-0.0781162
6372.47	-0.0751202
6382.83	-0.0720614
6393.18	-0.0689487
6403.53	-0.0657915
6413.89	-0.0625986
6424.24	-0.0593791
6434.59	-0.0561417
6444.95	-0.0528952
6450.12	-0.0512711
6460.48	-0.0480266
6470.83	-0.0447934
6481.18	-0.0415795
6491.54	-0.0383922
6501.89	-0.0352387
6512.24	-0.032126
6522.6	-0.0290604
6532.95	-0.0260482
6543.3	-0.0230952
6553.66	-0.0202068
6564.01	-0.0173884
6574.37	-0.0146446
6584.72	-0.01198
6595.07	-0.00939881
6600.25	-0.00814071
6610.6	-0.00569183
6620.96	-0.00333555
6631.31	-0.00107506
6641.66	0.00108672
6652.02	0.0031471
6662.37	0.00510364
6672.72	0.00695415
6683.08	0.00869663
6693.43	0.0103293
6703.78	0.0118506
6714.14	0.0132593
6724.49	0.014554
6734.84	0.015734
6740.02	0.0162807
6750.37	0.017287
6760.73	0.0181771
6771.08	0.0189506
6781.43	0.0196075
6791.79	0.0201479
6802.14	0.0205723
6812.49	0.0208813
6822.85	0.0210757
6833.2	0.0211566
6843.55	0.0211254
6853.91	0.0209837
6864.26	0.0207332
6874.61	0.0203761
6884.97	0.0199148
6890.14	0.0196458
6900.5	0.0190332
6910.85	0.0183233
6921.2	0.0175195
6931.56	0.0166253
6941.91	0.0156445
6952.26	0.0145812
6962.62	0.0134396
6972.97	0.0122242
6983.32	0.0109398
6993.68	0.00959119
7004.03	0.00818355
7014.38	0.00672214
7024.74	0.00521238
7035.09	0.00365986
7040.27	0.00286933
7050.62	0.00126334
7060.97	-0.000371012
7071.33	-0.00202782
7081.68	-0.00370111
7092.03	-0.00538488
7102.39	-0.00707312
7112.74	-0.0087598
7123.09	-0.0104389
7133.45	-0.0121045
7143.8	-0.0137506
7154.16	-0.0153715
7164.51	-0.0169612
7174.86	-0.0185142
7180.04	-0.0192751
7190.39	-0.0207626
7200.75	-0.0221995
7211.1	-0.0235808
7221.45	-0.0249013
7231.81	-0.0261561
7242.16	-0.0273403
7252.51	-0.0284495
7262.87	-0.0294792
7273.22	-0.0304251
7283.57	-0.0312834
7293.93	-0.0320502
7304.28	-0.0327219
7314.63	-0.0332952
7324.99	-0.0337669
7330.16	-0.0339638
7340.52	-0.0342779
7350.87	-0.0344838
7361.22	-0.0345791
7371.58	-0.0345619
7381.93	-0.0344304
7392.28	-0.0341833
7402.64	-0.0338193
7412.99	-0.0333376
7423.34	-0.0327376
7433.7	-0.0320189
7444.05	-0.0311817
7454.4	-0.0302262
7464.76	-0.0291531
7475.11	-0.0279632
7480.28	-0.0273249
7490.64	-0.0259624
7500.99	-0.0244869
7511.34	-0.0229004
7521.7	-0.0212054
7532.05	-0.0194044
7542.4	-0.0175005
7552.76	-0.015497
7563.11	-0.0133974
7573.46	-0.0112056
7583.82	-0.00892572
7594.17	-0.00656229
7604.52	-0.00411997
7614.88	-0.00160372
7620.05	-0.000319476
7630.41	0.00229788
7640.76	0.00497578
7651.11	0.00770853
7661.47	0.0104902
7671.82	0.0133148
7682.17	0.0161761
7692.53	0.0190679
7702.88	0.0219837
7713.23	0.0249171
7723.59	0.0278616
7733.94	0.0308108
7744.29	0.0337581
7754.65	0.036697
7765	0.0396213
7770.18	0.041076
7780.53	0.0439665
7790.88	0.0468268
7801.24	0.049651
7811.59	0.0524334
7821.94	0.0551684
7832.3	0.0578508
7842.65	0.0604753
7853	0.0630373
7863.36	0.0655323
7873.71	0.0679561
7884.06	0.0703048
7894.42	0.0725749
7904.77	0.0747631
7915.12	0.0768667
7920.3	0.077886
7930.65	0.0798581
7941.01	0.08174
7951.36	0.08353
7961.71	0.085227
7972.07	0.08683
7982.42	0.0883385
7992.77	0.0897522
8003.13	0.0910711
8013.48	0.0922957
8023.83	0.0934265
8034.19	0.0944645
8044.54	0.0954107
8054.89	0.0962666
8060.07	0.0966612
8070.42	0.0973845
8080.78	0.0980217
8091.13	0.0985748
8101.48	0.0990458
8111.83	0.0994369
8122.19	0.0997505
8132.54	0.0999887
8142.89	0.100154
8153.25	0.100249
8163.6	0.100276
8173.95	0.100237
8184.31	0.100135
8194.66	0.0999713
8205.01	0.0997493
8210.19	0.0996171
8220.54	0.0993112
8230.9	0.0989521
8241.25	0.0985417
8251.6	0.0980822
8261.96	0.0975752
8272.31	0.0970227
8282.66	0.0964263
8293.02	0.0957877
8303.37	0.0951084
8313.72	0.0943899
8324.08	0.0936335
8334.43	0.0928406
8344.78	0.0920124
8355.14	0.09115
8360.32	0.0907064
8370.67	0.0897948
8381.02	0.0888517
8391.38	0.0878779
8401.73	0.0868745
8412.08	0.0858421
8422.44	0.0847816
8432.79	0.0836938
8443.14	0.0825792
8453.5	0.0814386
8463.85	0.0802725
8474.2	0.0790814
8484.56	0.0778659
8494.91	0.0766264
8500.09	0.0759978
8510.44	0.074723
8520.79	0.0734251
8531.15	0.0721045
8541.5	0.0707612
8551.85	0.0693955
8562.21	0.0680074
8572.56	0.0665972
8582.91	0.0651647
8593.27	0.06371
8603.62	0.062233
8613.97	0.0607335
8624.33	0.0592114
8634.68	0.0576664
8645.03	0.0560985
8650.21	0.0553058
8660.56	0.0537027
8670.92	0.052076
8681.27	0.0504252
8691.62	0.0487501
8701.98	0.0470504
8712.33	0.0453259
8722.68	0.0435762
8733.04	0.0418013
8743.39	0.0400008
8753.74	0.0381749
8764.1	0.0363234
8774.45	0.0344464
8784.8	0.0325441
8795.16	0.0306167
8800.33	0.0296438
8810.69	0.0276795
8821.04	0.0256914
8831.39	0.02368
8841.75	0.0216463
8852.1	0.0195911
8862.45	0.0175156
8872.81	0.0154211
8883.16	0.013309
8893.51	0.0111808
8903.87	0.00903842
8914.22	0.00688359
8924.57	0.00471838
8934.93	0.00254499
8940.1	0.00145594
8950.46	-0.000725356
8960.81	-0.00290881
8971.17	-0.00509179
8981.52	-0.00727157
8991.87	-0.00944531
9002.23	-0.0116101
9012.58	-0.0137629
9022.93	-0.0159007
9033.29	-0.0180204
9043.64	-0.0201189
9053.99	-0.022193
9064.35	-0.0242396
9074.7	-0.0262555
9085.05	-0.0282376
9090.23	-0.029215
9100.58	-0.0311407
9110.94	-0.0330249
9121.29	-0.0348649
9131.64	-0.0366578
9142	-0.0384009
9152.35	-0.0400914
9162.7	-0.0417271
9173.06	-0.0433054
9183.41	-0.0448241
9193.76	-0.0462813
9204.12	-0.047675
9214.47	-0.0490034
9224.82	-0.050265
9230	-0.0508703
9240.35	-0.0520291
9250.71	-0.0531181
9261.06	-0.0541361
9271.41	-0.0550826
9281.77	-0.0559569
9292.12	-0.0567589
9302.47	-0.0574882
9312.83	-0.058145
9323.18	-0.0587295
9333.53	-0.0592423
9343.89	-0.0596838
9354.24	-0.060055
9364.59	-0.060357
9374.95	-0.0605908
9380.12	-0.0606827
9390.48	-0.0608171
9400.83	-0.0608872
9411.18	-0.0608949
9421.54	-0.0608422
9431.89	-0.0607312
9442.24	-0.0605641
9452.6	-0.0603435
9462.95	-0.0600719
9473.31	-0.0597519
9483.66	-0.0593863
9494.01	-0.0589781
9504.37	-0.0585302
9514.72	-0.0580457
9525.07	-0.0575278
9530.25	-0.0572572
9540.6	-0.056695
9550.96	-0.0561072
9561.31	-0.0554973
9571.66	-0.0548684
9582.02	-0.0542238
9592.37	-0.0535668
9602.72	-0.0529005
9613.08	-0.0522281
9623.43	-0.0515527
9633.78	-0.0508773
9644.14	-0.0502049
9654.49	-0.0495382
9664.84	-0.0488801
9670.02	-0.048555
9680.37	-0.0479145
9690.73	-0.0472888
9701.08	-0.0466801
9711.43	-0.0460905
9721.79	-0.045522
9732.14	-0.0449764
9742.49	-0.0444553
9752.85	-0.0439601
9763.2	-0.0434921
9773.55	-0.0430523
9783.91	-0.0426417
9794.26	-0.0422609
9804.61	-0.0419105
9814.97	-0.041591
9820.14	-0.0414428
9830.5	-0.0411698
9840.85	-0.0409277
9851.2	-0.0407164
9861.56	-0.0405356
9871.91	-0.0403847
9882.26	-0.0402632
9892.62	-0.0401703
9902.97	-0.0401052
9913.32	-0.0400669
9923.68	-0.0400543
9934.03	-0.0400664
9944.38	-0.0401019
9954.74	-0.0401596
9965.09	-0.0402382
9970.27	-0.040285
9980.62	-0.0403923
9990.97	-0.0405172
10001.3	-0.0406581
10011.7	-0.0408137
10022	-0.0409825
10032.4	-0.0411632
10042.7	-0.0413544
10053.1	-0.0415547
10063.4	-0.0417629
10073.8	-0.0419776
10084.2	-0.0421976
10094.5	-0.0424218
10104.9	-0.0426491
10110	-0.0427635
10120.4	-0.0429933
10130.7	-0.0432237
10141.1	-0.0434536
10151.5	-0.0436824
10161.8	-0.0439091
10172.2	-0.0441332
10182.5	-0.0443541
10192.9	-0.0445711
10203.2	-0.0447838
10213.6	-0.0449918
10223.9	-0.0451948
10234.3	-0.0453925
10244.6	-0.0455847
10255	-0.0457713
10260.2	-0.0458625
10270.5	-0.0460406
10280.9	-0.046213
10291.2	-0.0463799
10301.6	-0.0465413
10311.9	-0.0466974
10322.3	-0.0468485
10332.6	-0.0469949
10343	-0.0471368
10353.3	-0.0472746
10363.7	-0.0474087
10374.1	-0.0475394
10384.4	-0.0476673
10394.8	-0.0477928
10405.1	-0.0479163
10410.3	-0.0479775
10420.6	-0.0480989
10431	-0.0482197
10441.3	-0.0483401
10451.7	-0.0484608
10462.1	-0.0485822
10472.4	-0.0487047
10482.8	-0.0488289
10493.1	-0.0489551
10503.5	-0.0490838
10513.8	-0.0492153
10524.2	-0.04935
10534.5	-0.0494882
10544.9	-0.0496302
10550.1	-0.0497027
10560.4	-0.0498509
10570.8	-0.0500034
10581.1	-0.0501604
10591.5	-0.0503219
10601.8	-0.0504881
10612.2	-0.0506589
10622.5	-0.0508343
10632.9	-0.0510142
10643.2	-0.0511984
10653.6	-0.0513867
10663.9	-0.0515788
10674.3	-0.0517746
10684.7	-0.0519735
10695	-0.0521752
10700.2	-0.052277
10710.5	-0.0524821
10720.9	-0.0526887
10731.2	-0.0528963
10741.6	-0.0531043
10751.9	-0.053312
10762.3	-0.0535188
10772.7	-0.0537237
10783	-0.0539262
10793.4	-0.0541253
10803.7	-0.0543202
10814.1	-0.05451
10824.4	-0.0546938
10834.8	-0.0548706
10845.1	-0.0550396
10850.3	-0.0551207
10860.7	-0.0552759
10871	-0.0554205
10881.4	-0.0555537
10891.7	-0.0556743
10902.1	-0.0557813
10912.4	-0.0558735
10922.8	-0.05595
10933.1	-0.0560095
10943.5	-0.056051
10953.8	-0.0560734
10964.2	-0.0560755
10974.5	-0.0560564
10984.9	-0.0560148
10990.1	-0.0559853
11000.4	-0.0559081
11010.8	-0.0558059
11021.1	-0.0556775
11031.5	-0.0555221
11041.8	-0.0553385
11052.2	-0.0551258
11062.6	-0.0548831
11072.9	-0.0546095
11083.3	-0.054304
11093.6	-0.0539659
11104	-0.0535943
11114.3	-0.0531885
11124.7	-0.0527478
11135	-0.0522714
11140.2	-0.0520197
11150.6	-0.0514889
11160.9	-0.050921
11171.3	-0.0503155
11181.6	-0.0496721
11192	-0.0489904
11202.3	-0.0482701
11212.7	-0.0475109
11223	-0.0467126
11233.4	-0.0458752
11243.7	-0.0449986
11254.1	-0.0440827
11264.4	-0.0431278
11274.8	-0.0421338
11285.1	-0.0411012
11290.3	-0.0405704
11300.7	-0.0394801
11311	-0.038352
11321.4	-0.0371864
11331.7	-0.0359839
11342.1	-0.034745
11352.4	-0.0334704
11362.8	-0.0321609
11373.2	-0.0308172
11383.5	-0.0294401
11393.9	-0.0280305
11404.2	-0.0265895
11414.6	-0.025118
11424.9	-0.0236171
11430.1	-0.022856
11440.4	-0.021313
11450.8	-0.0197436
11461.2	-0.018149
11471.5	-0.0165303
11481.9	-0.0148891
11492.2	-0.0132266
11502.6	-0.0115442
11512.9	-0.00984349
11523.3	-0.00812589
11533.6	-0.00639293
11544	-0.00464617
11554.3	-0.00288719
11564.7	-0.0011176
11575	0.000660962
11580.2	0.00155309
11590.6	0.003342
11600.9	0.00513572
11611.3	0.00693253
11621.6	0.00873072
11632	0.0105286
11642.3	0.0123244
11652.7	0.0141163
11663	0.0159028
11673.4	0.0176819
11683.8	0.019452
11694.1	0.0212113
11704.5	0.0229581
11714.8	0.0246907
11725.2	0.0264074
11730.3	0.0272593
11740.7	0.028949
11751.1	0.0306186
11761.4	0.0322665
11771.8	0.0338911
11782.1	0.0354909
11792.5	0.0370643
11802.8	0.0386098
11813.2	0.040126
11823.5	0.0416116
11833.9	0.0430652
11844.2	0.0444854
11854.6	0.0458712
11864.9	0.0472214
11870.1	0.0478828
11880.5	0.0491775
11890.8	0.050434
11901.2	0.0516515
11911.5	0.0528291
11921.9	0.0539662
11932.2	0.0550621
11942.6	0.0561163
11952.9	0.0571283
11963.3	0.058098
11973.6	0.0590249
11984	0.0599091
11994.4	0.0607504
12004.7	0.0615491
12015.1	0.0623053
12020.2	0.0626675
12030.6	0.0633605
12040.9	0.0640121
12051.3	0.0646226
12061.7	0.065193
12072	0.0657239
12082.4	0.0662162
12092.7	0.0666709
12103.1	0.0670891
12113.4	0.0674721
12123.8	0.0678209
12134.1	0.068137
12144.5	0.0684218
12154.8	0.0686767
12160	0.0687935
12170.4	0.0690066
12180.7	0.0691937
12191.1	0.0693567
12201.4	0.069497
12211.8	0.0696165
12222.1	0.0697169
12232.5	0.0697999
12242.8	0.0698673
12253.2	0.0699207
12263.5	0.069962
12273.9	0.0699927
12284.2	0.0700145
12294.6	0.070029
12305	0.0700378
12310.1	0.0700404
12320.5	0.0700433
12330.8	0.0700439
12341.2	0.0700435
12351.5	0.0700434
12361.9	0.0700447
12372.3	0.0700482
12382.6	0.070055
12393	0.0700657
12403.3	0.070081
12413.7	0.0701015
12424	0.0701275
12434.4	0.0701593
12444.7	0.0701971
12455.1	0.0702408
12460.3	0.0702649
12470.6	0.0703174
12481	0.0703754
12491.3	0.0704385
12501.7	0.070506
12512	0.0705774
12522.4	0.0706519
12532.7	0.0707286
12543.1	0.0708064
12553.4	0.0708844
12563.8	0.0709613
12574.1	0.0710358
12584.5	0.0711066
12594.8	0.0711723
12600	0.0712028
12610.4	0.071258
12620.7	0.0713042
12631.1	0.0713399
12641.4	0.0713634
12651.8	0.071373
12662.1	0.0713671
12672.5	0.0713438
12682.9	0.0713017
12693.2	0.0712389
12703.6	0.0711537
12713.9	0.0710446
12724.3	0.07091
12734.6	0.0707482
12745	0.0705577
12750.1	0.0704513
12760.5	0.070215
12770.9	0.0699466
12781.2	0.0696447
12791.6	0.069308
12801.9	0.0689354
12812.3	0.0685259
12822.6	0.0680786
12833	0.0675924
12843.3	0.0670668
12853.7	0.0665009
12864	0.0658943
12874.4	0.0652465
12884.7	0.0645572
12895.1	0.0638261
12900.3	0.0634449
12910.6	0.0626509
12921	0.0618151
12931.3	0.0609376
12941.7	0.0600185
12952	0.0590584
12962.4	0.0580577
12972.7	0.0570168
12983.1	0.0559366
12993.5	0.0548178
13003.8	0.0536613
13014.2	0.052468
13024.5	0.0512389
13034.9	0.0499753
13040	0.0493309
13050.4	0.0480178
13060.8	0.0466733
13071.1	0.0452988
13081.5	0.0438958
13091.8	0.042466
13102.2	0.0410107
13112.5	0.0395318
13122.9	0.038031
13133.2	0.0365098
13143.6	0.0349703
13153.9	0.0334141
13164.3	0.0318432
13174.6	0.0302593
13185	0.0286644
13190.2	0.0278635
13200.5	0.0262556
13210.9	0.0246416
13221.2	0.0230232
13231.6	0.0214024
13241.9	0.019781
13252.3	0.0181611
13262.6	0.0165443
13273	0.0149326
13283.3	0.0133277
13293.7	0.0117315
13304.1	0.0101457
13314.4	0.00857187
13324.8	0.00701174
13335.1	0.00546688
13340.3	0.00470064
13350.6	0.00318151
13361	0.00168133
13371.4	0.000201469
13381.7	-0.00125678
13392.1	-0.0026922
13402.4	-0.00410364
13412.8	-0.00549005
13423.1	-0.00685044
13433.5	-0.00818391
13443.8	-0.00948966
13454.2	-0.0107669
13464.5	-0.0120151
13474.9	-0.0132337
13480.1	-0.0138317
13490.4	-0.015005
13500.8	-0.0161476
13511.1	-0.0172593
13521.5	-0.01834
13531.8	-0.0193896
13542.2	-0.020408
13552.5	-0.0213955
13562.9	-0.0223521
13573.2	-0.0232781
13583.6	-0.0241738
13594	-0.0250396
13604.3	-0.0258759
13614.7	-0.0266832
13625	-0.0274621
13630.2	-0.0278411
13640.5	-0.0285785
13650.9	-0.0292891
13661.2	-0.0299735
13671.6	-0.0306326
13682	-0.031267
13692.3	-0.0318776
13702.7	-0.0324652
13713	-0.0330305
13723.4	-0.0335744
13733.7	-0.0340977
13744.1	-0.0346013
13754.4	-0.0350858
13764.8	-0.0355521
13775.1	-0.0360009
13780.3	-0.036219
13790.7	-0.036643
13801	-0.0370514
13811.4	-0.0374447
13821.7	-0.0378237
13832.1	-0.0381889
13842.4	-0.0385408
13852.8	-0.03888
13863.1	-0.039207
13873.5	-0.0395221
13883.8	-0.0398257
13894.2	-0.0401181
13904.6	-0.0403997
13914.9	-0.0406706
13920.1	-0.0408022
13930.4	-0.0410575
13940.8	-0.0413026
13951.1	-0.0415375
13961.5	-0.0417624
13971.9	-0.0419773
13982.2	-0.042182
13992.6	-0.0423767
14002.9	-0.0425613
14013.3	-0.0427356
14023.6	-0.0428995
14034	-0.043053
14044.3	-0.043196
14054.7	-0.0433282
14065	-0.0434496
14070.2	-0.0435062
14080.6	-0.0436111
14090.9	-0.0437048
14101.3	-0.0437873
14111.6	-0.0438583
14122	-0.0439178
14132.3	-0.0439658
14142.7	-0.0440022
14153	-0.0440269
14163.4	-0.04404
14173.7	-0.0440414
14184.1	-0.0440312
14194.4	-0.0440095
14204.8	-0.0439764
14215.2	-0.0439319
14220.3	-0.0439055
14230.7	-0.0438445
14241	-0.0437726
14251.4	-0.0436901
14261.7	-0.0435973
14272.1	-0.0434944
14282.5	-0.0433819
14292.8	-0.0432599
14303.2	-0.043129
14313.5	-0.0429894
14323.9	-0.0428416
14334.2	-0.042686
14344.6	-0.042523
14354.9	-0.0423532
14360.1	-0.0422658
14370.5	-0.0420865
14380.8	-0.0419014
14391.2	-0.0417111
14401.5	-0.0415159
14411.9	-0.0413164
14422.2	-0.041113
14432.6	-0.0409062
14442.9	-0.0406965
14453.3	-0.0404841
14463.6	-0.0402696
14474	-0.0400534
14484.3	-0.0398358
14494.7	-0.0396171
14505.1	-0.0393977
14510.2	-0.0392879
14520.6	-0.039068
14530.9	-0.038848
14541.3	-0.0386282
14551.6	-0.0384088
14562	-0.0381899
14572.3	-0.0379716
14582.7	-0.0377539
14593.1	-0.037537
14603.4	-0.0373208
14613.8	-0.0371052
14624.1	-0.0368902
14634.5	-0.0366757
14644.8	-0.0364614
14655.2	-0.0362472
14660.4	-0.0361401
14670.7	-0.0359255
14681.1	-0.0357102
14691.4	-0.035494
14701.8	-0.0352764
14712.1	-0.035057
14722.5	-0.0348353
14732.8	-0.0346109
14743.2	-0.0343832
14753.5	-0.0341516
14763.9	-0.0339156
14774.2	-0.0336745
14784.6	-0.0334278
14794.9	-0.0331747
14800.1	-0.0330455
14810.5	-0.0327816
14820.8	-0.0325096
14831.2	-0.0322289
14841.5	-0.0319385
14851.9	-0.031638
14862.2	-0.0313264
14872.6	-0.0310032
14883	-0.0306676
14893.3	-0.0303188
14903.7	-0.0299562
14914	-0.0295792
14924.4	-0.029187
14934.7	-0.0287791
14945.1	-0.0283549
14950.2	-0.0281365
14960.6	-0.0276868
14971	-0.0272195
14981.3	-0.0267342
14991.7	-0.0262305
15002	-0.0257081
15012.4	-0.0251667
15022.7	-0.0246061
15033.1	-0.0240261
15043.4	-0.0234269
15053.8	-0.0228082
15064.1	-0.0221703
15074.5	-0.0215134
15084.8	-0.0208375
15090	-0.0204927
15100.4	-0.0197892
15110.7	-0.019068
15121.1	-0.0183294
15131.4	-0.0175742
15141.8	-0.016803
15152.1	-0.0160166
15162.5	-0.0152159
15172.8	-0.0144019
15183.2	-0.0135756
15193.6	-0.0127381
15203.9	-0.0118906
15214.3	-0.0110344
15224.6	-0.0101707
15235	-0.00930094
15240.1	-0.00886423
15250.5	-0.00798806
15260.9	-0.00710949
15271.2	-0.00623005
15281.6	-0.00535132
15291.9	-0.00447492
15302.3	-0.00360245
15312.6	-0.00273558
15323	-0.00187594
15333.3	-0.00102519
15343.7	-0.000184975
15354	0.000643076
15364.4	0.00145735
15374.7	0.00225626
15385.1	0.00303827
15390.3	0.00342246
15400.6	0.00417629
15411	0.00490953
15421.3	0.00562081
15431.7	0.00630883
15442	0.00697232
15452.4	0.00761014
15462.7	0.0082212
15473.1	0.00880448
15483.4	0.00935908
15493.8	0.00988418
15504.2	0.010379
15514.5	0.0108431
15524.9	0.0112757
15530	0.0114801
15540.4	0.0118649
15550.7	0.0122174
15561.1	0.0125375
15571.5	0.0128251
15581.8	0.0130802
15592.2	0.0133031
15602.5	0.0134938
15612.9	0.0136528
15623.2	0.0137805
15633.6	0.0138774
15643.9	0.0139442
15654.3	0.0139814
15664.6	0.0139899
15675	0.0139705
15680.2	0.0139506
15690.5	0.0138911
15700.9	0.0138062
15711.2	0.0136968
15721.6	0.013564
15731.9	0.0134091
15742.3	0.0132333
15752.6	0.0130377
15763	0.0128235
15773.3	0.0125922
15783.7	0.0123449
15794	0.0120828
15804.4	0.0118075
15814.8	0.0115199
15825.1	0.0112216
15830.3	0.0110687
15840.6	0.0107564
15851	0.0104364
15861.3	0.0101098
15871.7	0.00977775
15882.1	0.00944141
15892.4	0.00910185
15902.8	0.00876009
15913.1	0.0084171
15923.5	0.00807382
15933.8	0.00773111
15944.2	0.00738978
15954.5	0.00705058
15964.9	0.00671422
15970.1	0.00654729
15980.4	0.00621632
15990.8	0.00588962
16001.1	0.00556766
16011.5	0.00525085
16021.8	0.00493952
16032.2	0.00463394
16042.5	0.00433433
16052.9	0.00404083
16063.2	0.00375353
16073.6	0.00347245
16083.9	0.00319756
16094.3	0.00292877
16104.7	0.00266594
16115	0.00240887
16120.2	0.00228242
16130.5	0.00203351
16140.9	0.00178967
16151.2	0.00155053
16161.6	0.00131569
16171.9	0.00108473
16182.3	0.000857156
16192.7	0.00063248
16203	0.000410166
16213.4	0.000189655
16223.7	-2.96346e-05
16234.1	-0.000248305
16244.4	-0.000466975
16254.8	-0.000686282
16265.1	-0.000906871
16270.3	-0.00101785
16280.7	-0.0012416
16291	-0.00146828
16301.4	-0.00169857
16311.7	-0.00193315
16322.1	-0.00217267
16332.4	-0.0024178
16342.8	-0.00266921
16353.1	-0.00292756
16363.5	-0.00319348
16373.8	-0.00346761
16384.2	-0.00375057
16394.5	-0.00404296
16404.9	-0.00434539
16410.1	-0.00450054
16420.4	-0.00481908
16430.8	-0.00514904
16441.1	-0.00549096
16451.5	-0.00584532
16461.8	-0.0062126
16472.2	-0.00659327
16482.6	-0.00698774
16492.9	-0.00739642
16503.3	-0.00781967
16513.6	-0.00825784
16524	-0.00871124
16534.3	-0.00918015
16544.7	-0.0096648
16555	-0.0101654
16560.2	-0.0104218
16570.6	-0.0109467
16580.9	-0.0114879
16591.3	-0.0120455
16601.6	-0.0126196
16612	-0.0132102
16622.3	-0.0138172
16632.7	-0.0144405
16643	-0.0150801
16653.4	-0.0157357
16663.7	-0.0164072
16674.1	-0.0170943
16684.4	-0.0177966
16694.8	-0.0185139
16705.1	-0.0192457
16710.3	-0.0196169
16720.7	-0.0203696
16731	-0.0211357
16741.4	-0.0219144
16751.7	-0.0227052
16762.1	-0.0235075
16772.4	-0.0243204
16782.8	-0.0251433
16793.2	-0.0259752
16803.5	-0.0268154
16813.9	-0.0276628
16824.2	-0.0285165
16834.6	-0.0293755
16844.9	-0.0302387
16850.1	-0.0306715
16860.5	-0.031539
16870.8	-0.0324077
16881.2	-0.0332767
16891.5	-0.0341445
16901.9	-0.03501
16912.2	-0.0358718
16922.6	-0.0367286
16932.9	-0.0375789
16943.3	-0.0384215
16953.6	-0.0392549
16964	-0.0400777
16974.3	-0.0408884
16984.7	-0.0416857
16995	-0.042468
17000.2	-0.0428531
17010.6	-0.0436104
17020.9	-0.0443491
17031.3	-0.0450679
17041.6	-0.0457653
17052	-0.04644
17062.3	-0.0470905
17072.7	-0.0477157
17083	-0.0483141
17093.4	-0.0488845
17103.8	-0.0494257
17114.1	-0.0499364
17124.5	-0.0504157
17134.8	-0.0508623
17145.2	-0.0512753
17150.3	-0.0514688
17160.7	-0.0518296
17171.1	-0.0521544
17181.4	-0.0524425
17191.8	-0.0526932
17202.1	-0.0529057
17212.5	-0.0530796
17222.8	-0.0532143
17233.2	-0.0533093
17243.5	-0.0533644
17253.9	-0.0533792
17264.2	-0.0533536
17274.6	-0.0532874
17284.9	-0.0531807
17290.1	-0.0531121
17300.5	-0.0529447
17310.8	-0.0527369
17321.2	-0.0524892
17331.5	-0.0522017
17341.9	-0.0518749
17352.2	-0.0515093
17362.6	-0.0511055
17372.9	-0.050664
17383.3	-0.0501856
17393.7	-0.0496711
17404	-0.0491211
17414.4	-0.0485367
17424.7	-0.0479188
17435.1	-0.0472683
17440.2	-0.0469312
17450.6	-0.0462338
17460.9	-0.0455066
17471.3	-0.0447507
17481.7	-0.0439673
17492	-0.0431575
17502.4	-0.0423227
17512.7	-0.0414641
17523.1	-0.040583
17533.4	-0.0396807
17543.8	-0.0387585
17554.1	-0.0378178
17564.5	-0.0368598
17574.8	-0.035886
17580	-0.0353936
17590.4	-0.0343985
17600.7	-0.0333909
17611.1	-0.032372
17621.4	-0.0313432
17631.8	-0.0303058
17642.1	-0.029261
17652.5	-0.0282102
17662.8	-0.0271544
17673.2	-0.0260949
17683.5	-0.0250329
17693.9	-0.0239696
17704.3	-0.022906
17714.6	-0.0218431
17725	-0.0207822
17730.1	-0.0202527
17740.5	-0.0191964
17750.8	-0.0181443
17761.2	-0.0170975
17771.6	-0.0160567
17781.9	-0.0150229
17792.3	-0.0139968
17802.6	-0.0129792
17813	-0.0119708
17823.3	-0.0109723
17833.7	-0.00998432
17844	-0.00900756
17854.4	-0.00804255
17864.7	-0.00708986
17875.1	-0.00615001
17880.3	-0.00568505
17890.6	-0.00476536
17901	-0.00385969
17911.3	-0.00296845
17921.7	-0.00209204
17932	-0.00123083
17942.4	-0.000385184
17952.7	0.000444573
17963.1	0.00125812
17973.4	0.00205517
17983.8	0.00283542
17994.1	0.00359862
18004.5	0.00434449
18014.9	0.00507278
18020	0.00543026
18030.4	0.00613173
18040.7	0.00681503
18051.1	0.00747992
18061.4	0.00812618
18071.8	0.00875357
18082.2	0.00936186
18092.5	0.00995083
18102.9	0.0105203
18113.2	0.0110699
18123.6	0.0115995
18133.9	0.0121088
18144.3	0.0125977
18154.6	0.0130657
18165	0.0135128
18170.2	0.0137283
18180.5	0.0141434
18190.9	0.0145367
18201.2	0.0149081
18211.6	0.0152572
18221.9	0.0155839
18232.3	0.0158877
18242.6	0.0161684
18253	0.0164257
18263.3	0.0166594
18273.7	0.016869
18284	0.0170544
18294.4	0.0172152
18304.8	0.0173511
18315.1	0.0174619
18320.3	0.0175077
18330.6	0.0175802
18341	0.0176268
18351.3	0.0176472
18361.7	0.0176413
18372	0.0176087
18382.4	0.0175493
18392.8	0.0174627
18403.1	0.0173488
18413.5	0.0172074
18423.8	0.0170383
18434.2	0.0168414
18444.5	0.0166165
18454.9	0.0163634
18460.1	0.0162264
18470.4	0.0159311
18480.8	0.0156075
18491.1	0.0152556
18501.5	0.0148754
18511.8	0.014467
18522.2	0.0140304
18532.5	0.0135657
18542.9	0.0130731
18553.2	0.0125527
18563.6	0.0120048
18573.9	0.0114295
18584.3	0.0108272
18594.6	0.0101981
18605	0.00954278
18610.2	0.00920535
18620.5	0.00851128
18630.9	0.007792
18641.2	0.00704801
18651.6	0.0062799
18661.9	0.00548829
18672.3	0.00467384
18682.7	0.00383726
18693	0.00297932
18703.4	0.00210082
18713.7	0.00120264
18724.1	0.000285681
18734.4	-0.000649098
18744.8	-0.00160068
18755.1	-0.00256802
18760.3	-0.00305724
18770.7	-0.00404611
18781	-0.00504785
18791.4	-0.00606126
18801.7	-0.00708505
18812.1	-0.00811791
18822.4	-0.00915847
18832.8	-0.0102053
18843.1	-0.011257
18853.5	-0.0123121
18863.8	-0.013369
18874.2	-0.0144263
18884.5	-0.0154822
18894.9	-0.0165352
18900.1	-0.0170601
18910.4	-0.0181056
18920.8	-0.0191441
18931.1	-0.0201738
18941.5	-0.021193
18951.8	-0.0222001
18962.2	-0.0231932
18972.5	-0.0241706
18982.9	-0.0251306
18993.3	-0.0260715
19003.6	-0.0269915
19014	-0.0278889
19024.3	-0.0287621
19034.7	-0.0296092
19045	-0.0304288
19050.2	-0.0308277
19060.5	-0.0316028
19070.9	-0.0323462
19081.3	-0.0330565
19091.6	-0.0337322
19102	-0.0343718
19112.3	-0.034974
19122.7	-0.0355373
19133	-0.0360606
19143.4	-0.0365426
19153.7	-0.0369822
19164.1	-0.0373784
19174.4	-0.0377301
19184.8	-0.0380364
19195.1	-0.0382966
19200.3	-0.0384091
19210.7	-0.0385986
19221	-0.0387402
19231.4	-0.0388334
19241.7	-0.0388777
19252.1	-0.0388729
19262.4	-0.0388186
19272.8	-0.0387147
19283.1	-0.0385611
19293.5	-0.0383579
19303.9	-0.0381052
19314.2	-0.0378032
19324.6	-0.0374523
19334.9	-0.0370528
19340.1	-0.036835
19350.4	-0.0363637
19360.8	-0.0358453
19371.2	-0.0352804
19381.5	-0.0346701
19391.9	-0.034015
19402.2	-0.0333162
19412.6	-0.0325748
19422.9	-0.0317919
19433.3	-0.0309686
19443.6	-0.0301063
19454	-0.0292063
19464.3	-0.02827
19474.7	-0.0272988
19485	-0.0262942
19490.2	-0.0257798
19500.6	-0.0247281
19510.9	-0.023647
19521.3	-0.0225381
19531.6	-0.0214031
19542	-0.0202437
19552.3	-0.0190618
19562.7	-0.0178589
19573	-0.016637
19583.4	-0.0153978
19593.7	-0.0141431
19604.1	-0.0128747
19614.5	-0.0115943
19624.8	-0.0103038
19635.2	-0.00900504
19640.3	-0.00835307
19650.7	-0.00704507
19661	-0.00573312
19671.4	-0.00441894
19681.8	-0.00310423
19692.1	-0.00179065
19702.5	-0.000479834
19712.8	0.000826611
19723.2	0.00212713
19733.5	0.00342019
19743.9	0.00470432
19754.2	0.00597807
19764.6	0.00724007
19774.9	0.00848897
19780.1	0.0091081
19790.5	0.0103349
19800.8	0.0115456
19811.2	0.0127388
19821.5	0.0139135
19831.9	0.0150687
19842.2	0.0162033
19852.6	0.0173164
19862.9	0.0184072
19873.3	0.0194747
19883.6	0.0205183
19894	0.0215372
19904.4	0.0225307
19914.7	0.0234983
19925.1	0.0244393
19930.2	0.0248997
19940.6	0.0258
19950.9	0.0266727
19961.3	0.0275172
19971.6	0.0283334
19982	0.0291209
19992.4	0.0298794
