Initial Depth: 8
5376	5342	6640	7890	9290	10738	12294	13822	15588	17330	18613	20232	21771	23282	24691	25977	27116	28179	29126	29811	30324	30694	30946	31028	30946	30809	30515	30116	29580	29084	28736	28287	27847	27559	27254	27215	27193	27169	27334	27458	27602	27843	28005	28190	28410	28679	28937	29100	29357	29578	29826	30017	30262	30438	30670	30813	30740	30460	30085	29543	28883	27932	26775	25438	24038	22440	20769	19088	17233	15672	14358	12917	11536	10246	9317	8513	7846	7186	6625	6063	5553	5017	4530	4041	3598	3135	2718	2336	2018	1664	1383	1138	949	775	664	581	540	

Initial Depth: 9
10308	10240	12638	15066	17696	20466	23402	26576	30064	33372	35881	38856	41764	44653	47439	49973	52150	54112	55915	57404	58374	58992	59311	59374	59244	58809	58159	57189	56133	55292	54412	53518	52583	51975	51559	51410	51304	51371	51572	51947	52126	52564	52994	53310	53753	54111	54577	55016	55485	55821	56299	56663	57138	57419	57892	58301	58344	57921	57179	56218	55125	53331	51169	48648	45820	42708	39428	36100	32611	29672	26907	24186	21604	19165	17426	15895	14632	13448	12398	11329	10357	9367	8463	7558	6714	5836	5055	4296	3628	3019	2526	2076	1712	1434	1229	1105	1036	

Initial Depth: 10
19944	19860	24606	29330	34388	39826	45688	51726	58324	64728	69506	75178	80855	86280	91731	96473	100740	104557	107956	110845	112724	113959	114546	114556	114036	113132	111678	109648	107383	105557	103853	102001	100173	98992	98356	97996	97827	98037	98406	99006	99595	100396	101138	101815	102571	103343	104118	104892	105608	106390	107233	108014	108823	109499	110277	111003	111326	110603	109331	107543	105447	102261	98132	93222	87763	81718	75259	68374	61827	56263	50910	45736	40599	36416	33241	30468	28062	25881	23825	21853	20010	18229	16458	14731	13100	11441	9899	8457	7176	6020	5005	4100	3396	2846	2446	2185	2064	

Initial Depth: 11
39012	38900	47924	57148	67014	77572	88924	101186	114166	126302	135432	146238	157077	167612	178147	187531	195679	203033	209594	215380	218991	221096	222185	222069	220834	218538	215241	211232	206769	202980	199305	195759	192285	190016	188679	188110	187977	188303	189022	189993	191420	192783	194237	195583	197048	198427	199972	201358	202912	204417	205884	207338	208797	210281	211753	213104	214129	213278	210782	207483	203301	197625	189641	180019	169292	157335	144617	131080	118201	107318	96918	86686	76507	68617	62426	57174	52672	48600	44766	41067	37558	34086	30691	27498	24359	21351	18398	15645	13134	10944	9076	7505	6235	5278	4607	4224	

Initial Depth: 12
76788	76580	94136	112242	131654	152558	174996	198880	224416	247936	265652	286394	307324	327786	347919	366390	382225	396319	408951	420159	427407	431451	433113	432545	429715	424979	418140	409299	400674	393008	385537	378115	371475	367475	365070	363879	363559	364146	365412	367351	369786	372241	374789	377455	380129	382909	385523	388262	390881	393593	396201	398857	401597	404175	406922	409527	411988	410474	406151	399619	391420	380885	365481	346749	325614	302032	276323	249194	226599	205422	185064	165014	146768	132726	121465	111717	103197	95538	88123	80996	74109	67462	61048	54845	48736	42841	37130	31558	26606	22229	18496	15268	12689	10738	9344	8513	

Initial Depth: 13
151824	151572	185826	221244	259480	300742	345024	392446	442722	488386	522844	562838	603330	643306	682390	719037	749885	777329	801769	823317	837761	845888	848637	846757	840373	829977	815670	797252	780205	764686	749489	734303	720910	713318	708582	706277	705842	707001	709729	713833	718570	723516	728552	733664	738737	743933	748954	754293	759394	764687	769859	775178	780344	785566	790635	795896	800863	798973	790636	778017	762157	741935	711796	674911	632574	585930	535235	481041	435089	393248	353125	313416	276666	249327	227316	208694	192511	177531	163500	150017	137084	124536	112433	100724	89300	78237	67406	57114	47900	39918	32985	27318	22819	19534	17451	16476	

Initial Depth: 14
301052	300698	367842	437736	513542	595272	682594	776310	876026	964552	1032896	1109984	1189486	1267628	1344438	1416665	1477744	1531602	1579591	1622182	1651613	1666876	1671917	1667053	1653560	1632286	1602606	1566220	1532868	1501439	1470287	1439087	1414582	1399690	1389720	1384362	1382679	1384063	1388590	1395404	1403922	1412462	1421311	1430154	1439200	1448299	1457427	1466630	1476088	1485152	1494622	1503778	1513017	1522330	1531548	1540876	1549510	1547967	1531461	1506445	1473986	1435009	1376364	1303298	1219486	1126149	1024366	924105	838231	757349	678931	601242	540294	491108	450734	416145	385688	357231	329759	303440	277953	253149	229366	206093	183461	161318	139751	119042	100210	83851	69800	57731	48099	40992	36019	33353	

Initial Depth: 15
598636	598152	729796	868190	1018134	1179768	1353582	1539882	1738410	1908898	2046294	2195696	2352516	2506970	2659827	2808615	2933403	3043349	3140233	3227120	3288918	3321568	3332650	3324427	3299257	3256504	3198740	3124045	3055876	2993440	2931203	2868453	2814700	2783435	2763164	2751680	2748014	2751267	2759865	2774195	2790690	2807612	2825133	2842609	2860286	2878475	2896646	2915096	2933055	2951280	2969576	2988136	3006123	3024146	3042151	3060341	3077847	3076848	3045134	2995601	2931754	2854954	2739209	2594144	2427224	2241914	2039544	1826068	1651935	1489655	1333153	1176312	1041481	941149	860664	792486	733118	677292	624276	573175	524138	476884	431089	386663	343447	301494	260463	220724	184995	154087	127659	105648	88507	76322	68689	65628	

