0	0
17.7294	0
35.4589	0
53.1883	0
70.9178	0
88.6472	0
106.377	0
124.106	0
141.836	0
159.565	0
177.294	0
195.024	0
212.753	0
230.483	0
248.212	0
265.942	0
283.671	0
301.401	0
319.13	0
336.859	0
354.589	0
372.318	0
390.048	0
407.777	0
425.507	0
443.236	0
460.966	0
478.695	0
496.424	0
514.154	0
531.883	0
549.613	0
567.342	0
585.072	0
602.801	0
620.53	0
638.26	0
655.989	0
673.719	0
691.448	0
709.178	0
726.907	0
744.637	0
762.366	0
780.095	0
797.825	0
815.554	0
833.284	0
851.013	0
868.743	0
886.472	0
904.202	0
921.931	0
939.66	0
957.39	0
975.119	0
992.849	0
1010.58	0
1028.31	0
1046.04	0
1063.77	0
1081.5	0
1099.23	0
1116.95	0
1134.68	0
1152.41	0
1170.14	0
1187.87	0
1205.6	0
1223.33	0
1241.06	0
1258.79	0
1276.52	0
1294.25	0
1311.98	0
1329.71	0
1347.44	0
1365.17	0
1382.9	0
1400.63	0
1418.36	0
1436.08	0
1453.81	0
1471.54	0
1489.27	0
1507	0
1524.73	0
1542.46	0
1560.19	0
1577.92	0
1595.65	0
1613.38	0
1631.11	0
1648.84	0
1666.57	0
1684.3	0
1702.03	0
1719.76	0
1737.49	0
1755.21	0
1772.94	0
1790.67	0
1808.4	0
1826.13	0
1843.86	9.09495e-13
1861.59	9.09495e-13
1879.32	9.09495e-13
1897.05	1.81899e-12
1914.74	3.63798e-12
1932.32	5.45697e-12
1949.77	9.09495e-12
1967.08	1.45519e-11
1984.22	2.36469e-11
2001.2	3.81988e-11
2017.99	5.91172e-11
2034.59	9.1859e-11
2050.99	1.40972e-10
2067.2	2.11912e-10
2083.24	3.16504e-10
2099.14	4.66571e-10
2114.91	6.79393e-10
2130.61	9.79526e-10
2146.25	1.40153e-09
2161.88	1.98906e-09
2177.52	2.80397e-09
2193.19	3.92811e-09
2208.76	5.45333e-09
2224.18	7.49787e-09
2239.4	1.02045e-08
2254.55	1.37852e-08
2269.64	1.84864e-08
2284.53	2.45609e-08
2299.23	3.2338e-08
2314.01	4.24188e-08
2328.97	5.55247e-08
2344.09	7.24858e-08
2359.35	9.43601e-08
2374.73	1.22455e-07
2390.23	1.58368e-07
2405.82	2.04039e-07
2421.49	2.61845e-07
2437.22	3.34673e-07
2453.02	4.26005e-07
2468.88	5.40039e-07
2484.79	6.8179e-07
2500.77	8.57227e-07
2516.78	1.07325e-06
2532.83	1.33811e-06
2548.92	1.66145e-06
2565.09	2.05564e-06
2581.33	2.534e-06
2597.63	3.1119e-06
2613.97	3.80685e-06
2630.35	4.63899e-06
2646.76	5.63127e-06
2663.2	6.80969e-06
2679.66	8.20315e-06
2696.14	9.8445e-06
2712.64	1.17708e-05
2729.16	1.40232e-05
2745.69	1.66477e-05
2762.24	1.96955e-05
2778.8	2.32231e-05
2795.37	2.72933e-05
2811.95	3.19754e-05
2828.53	3.73441e-05
2845.08	4.3475e-05
2861.61	5.04575e-05
2878.11	5.83936e-05
2894.57	6.73819e-05
2910.99	7.75445e-05
2927.37	8.90181e-05
2943.71	0.000101957
2960.02	0.00011653
2976.29	0.000132931
2992.52	0.000151375
3008.7	0.000172102
3024.83	0.000195394
3040.91	0.000221557
3056.94	0.000250961
3072.89	0.000283959
3088.78	0.000321066
3104.61	0.000362822
3120.38	0.000409813
3136.12	0.000462842
3151.82	0.000522731
3167.48	0.000590464
3183.13	0.000667176
3198.77	0.000754181
3214.4	0.000852991
3230.04	0.000965343
3245.69	0.00109322
3261.38	0.00123912
3277.1	0.00140566
3292.87	0.00159577
3308.67	0.00181278
3324.53	0.00206077
3340.43	0.00234365
3356.36	0.00266616
3372.3	0.00303295
3388.24	0.00344956
3404.2	0.0039222
3420.17	0.00445753
3436.15	0.00506286
3452.14	0.00574613
3468.14	0.00651587
3484.15	0.00738121
3500.16	0.00835189
3516.19	0.00943833
3532.22	0.0106516
3548.26	0.0120032
3564.31	0.0135052
3580.37	0.0151704
3596.43	0.0170117
3612.51	0.0190422
3628.59	0.0212756
3644.67	0.0237252
3660.77	0.0264048
3676.86	0.0293278
3692.97	0.0325075
3709.08	0.0359566
3725.19	0.0396874
3741.31	0.0437113
3757.43	0.0480388
3773.56	0.0526791
3789.69	0.0576378
3805.8	0.0629201
3821.92	0.0685302
3838.04	0.0744769
3854.18	0.0807602
3870.32	0.0873777
3886.46	0.0943252
3902.61	0.101596
3918.77	0.10918
3934.93	0.117065
3951.09	0.125236
3967.26	0.133674
3983.42	0.142358
3999.59	0.151263
4015.77	0.160362
4031.95	0.169623
4048.12	0.179014
4064.3	0.188497
4080.49	0.198033
4096.67	0.207581
4112.85	0.217097
4129.04	0.226534
4145.22	0.235845
4161.41	0.244981
4177.59	0.253892
4193.78	0.262527
4209.96	0.270834
4226.14	0.278763
4242.32	0.286263
4258.49	0.293283
4274.66	0.299775
4290.82	0.305693
4306.98	0.310992
4323.12	0.315631
4339.26	0.319572
4355.39	0.322779
4371.52	0.32522
4387.63	0.326868
4403.74	0.327699
4419.84	0.327693
4435.93	0.326835
4452.01	0.325115
4468.08	0.322528
4484.14	0.319072
4500.2	0.31475
4516.26	0.30957
4532.31	0.303543
4548.36	0.296687
4564.4	0.289024
4580.45	0.280579
4596.49	0.271383
4612.53	0.261469
4628.57	0.250877
4644.61	0.239646
4660.65	0.227824
4676.69	0.215458
4692.73	0.202599
4708.77	0.189301
4724.8	0.175621
4740.84	0.161616
4756.88	0.147347
4772.91	0.132876
4788.95	0.118265
4804.99	0.103579
4821.03	0.0888833
4837.07	0.0742454
4853.12	0.0597329
4869.16	0.0454147
4885.21	0.0313612
4901.26	0.0176436
4917.32	0.00433518
4933.37	-0.00848958
4949.43	-0.020754
4965.49	-0.032379
4981.55	-0.043282
4997.61	-0.0533776
5013.67	-0.0625775
5029.73	-0.0707891
5045.79	-0.0779153
5061.85	-0.0838541
5077.91	-0.0884977
5093.97	-0.091732
5110.03	-0.093436
5126.09	-0.0934814
5142.17	-0.0917286
5158.28	-0.0880256
5174.41	-0.0822118
5190.55	-0.0741199
5206.71	-0.0635752
5222.88	-0.0503961
5239.06	-0.0343962
5255.25	-0.0153831
5271.44	0.0068411
5287.64	0.0324748
5303.84	0.0617146
5320.05	0.0947582
5336.26	0.131799
5352.48	0.173023
5368.69	0.218606
5384.91	0.26871
5401.13	0.323476
5417.36	0.383026
5433.59	0.447453
5449.82	0.51682
5466.05	0.591153
5482.28	0.670438
5498.51	0.754614
5514.75	0.843569
5530.98	0.937141
5547.22	1.03511
5563.45	1.1372
5579.69	1.24307
5595.92	1.35231
5612.14	1.46438
5628.35	1.5787
5644.54	1.69468
5660.73	1.81167
5676.9	1.92898
5693.06	2.04582
5709.22	2.16139
5725.37	2.27482
5741.51	2.38518
5757.64	2.49155
5773.77	2.59296
5789.9	2.68844
5806.01	2.77699
5822.13	2.85764
5838.23	2.92943
5854.33	2.99142
5870.43	3.04273
5886.51	3.08249
5902.6	3.10992
5918.68	3.12431
5934.75	3.125
5950.83	3.11146
5966.89	3.08322
5982.96	3.03993
5999.02	2.98135
6015.08	2.90737
6031.14	2.81797
6047.19	2.71327
6063.25	2.59353
6079.3	2.45911
6095.36	2.3105
6111.41	2.14832
6127.47	1.97332
6143.53	1.78635
6159.59	1.58838
6175.65	1.38046
6191.71	1.16377
6207.77	0.939549
6223.84	0.709104
6239.9	0.473815
6255.97	0.235111
6272.04	-0.00554746
6288.12	-0.24667
6304.2	-0.486759
6320.27	-0.724319
6336.37	-0.958089
6352.49	-1.18664
6368.63	-1.40851
6384.78	-1.62226
6400.95	-1.82655
6417.12	-2.02012
6433.31	-2.20179
6449.51	-2.37052
6465.72	-2.52533
6481.94	-2.66539
6498.17	-2.78999
6514.4	-2.89854
6530.64	-2.99058
6546.88	-3.06579
6563.13	-3.12398
6579.39	-3.1651
6595.65	-3.18923
6611.91	-3.1966
6628.17	-3.18754
6644.42	-3.16255
6660.66	-3.12223
6676.89	-3.06727
6693.12	-2.99846
6709.34	-2.91666
6725.55	-2.82283
6741.75	-2.71797
6757.95	-2.60312
6774.14	-2.47937
6790.32	-2.34785
6806.5	-2.20968
6822.67	-2.06601
6838.83	-1.91797
6854.99	-1.7667
6871.14	-1.61329
6887.29	-1.45882
6903.44	-1.30432
6919.58	-1.15078
6935.71	-0.999138
6951.84	-0.850277
6967.97	-0.705014
6984.09	-0.564103
7000.21	-0.428218
7016.33	-0.297973
7032.45	-0.173906
7048.56	-0.0564894
7064.67	0.0538875
7080.77	0.156908
7096.87	0.252329
7112.97	0.339982
7129.06	0.419765
7145.15	0.491642
7161.24	0.555635
7177.33	0.611821
7193.42	0.660335
7209.5	0.701356
7225.58	0.735113
7241.66	0.76187
7257.74	0.781928
7273.82	0.795619
7289.9	0.8033
7305.98	0.805347
7322.06	0.802153
7338.14	0.794124
7354.22	0.781671
7370.3	0.765211
7386.39	0.74516
7402.47	0.72193
7418.56	0.695927
7434.64	0.667549
7450.73	0.637178
7466.82	0.605181
7482.91	0.571911
7499.01	0.537703
7515.1	0.502871
7531.2	0.46771
7547.3	0.43249
7563.4	0.397461
7579.5	0.36285
7595.61	0.328859
7611.71	0.29567
7627.82	0.263439
7643.92	0.232304
7660.03	0.20238
7676.14	0.173763
7692.25	0.146531
7708.36	0.120742
7724.46	0.096435
7740.56	0.0736333
7756.66	0.052344
7772.76	0.0325618
7788.86	0.0142696
7804.95	-0.00256015
7821.05	-0.0179641
7837.15	-0.0319873
7853.24	-0.0446818
7869.33	-0.0561008
7885.4	-0.0663009
7901.44	-0.0753532
7917.47	-0.083332
7933.5	-0.0903254
7949.55	-0.0964029
7965.6	-0.101635
7981.66	-0.106093
7997.73	-0.109847
8013.79	-0.112968
8029.86	-0.115525
8045.92	-0.117584
8061.98	-0.11921
8078.03	-0.120466
8094.09	-0.121413
8110.15	-0.122105
8126.21	-0.122597
8142.27	-0.122937
8158.33	-0.123174
8174.39	-0.123349
8190.45	-0.123503
8206.51	-0.123674
8222.57	-0.123894
8238.62	-0.124195
8254.68	-0.124603
8270.74	-0.125143
8286.79	-0.125838
8302.85	-0.126705
8318.91	-0.127762
8334.97	-0.129021
8351.04	-0.130496
8367.11	-0.132195
8383.18	-0.134125
8399.27	-0.136291
8415.36	-0.138696
8431.45	-0.141342
8447.54	-0.144226
8463.64	-0.147346
8479.74	-0.150698
8495.85	-0.154277
8511.96	-0.158074
8528.07	-0.162081
8544.19	-0.166288
8560.3	-0.170683
8576.43	-0.175254
8592.55	-0.179986
8608.67	-0.184864
8624.8	-0.189875
8640.94	-0.195
8657.08	-0.200222
8673.23	-0.205523
8689.39	-0.210884
8705.56	-0.216282
8721.73	-0.221697
8737.91	-0.227106
8754.09	-0.232486
8770.27	-0.237814
8786.45	-0.243065
8802.63	-0.248216
8818.81	-0.253241
8834.98	-0.258117
8851.16	-0.262818
8867.33	-0.26732
8883.5	-0.271597
8899.67	-0.275626
8915.83	-0.279381
8931.98	-0.282838
8948.14	-0.285974
8964.28	-0.288766
8980.42	-0.291192
8996.55	-0.293229
9012.68	-0.294858
9028.8	-0.296059
9044.89	-0.296812
9060.95	-0.297102
9077	-0.296915
9093.03	-0.296237
9109.04	-0.295056
9125.05	-0.293362
9141.04	-0.291144
9157.02	-0.288394
9173	-0.285108
9188.97	-0.28128
9204.93	-0.276908
9220.89	-0.271991
9236.85	-0.266529
9252.8	-0.260526
9268.76	-0.253987
9284.71	-0.246922
9300.65	-0.239342
9316.59	-0.231258
9332.52	-0.222681
9348.46	-0.213627
9364.43	-0.204093
9380.43	-0.194099
9396.45	-0.18367
9412.49	-0.17283
9428.55	-0.161605
9444.62	-0.150023
9460.67	-0.138136
9476.72	-0.12597
9492.75	-0.113556
9508.79	-0.100925
9524.88	-0.0880569
9540.99	-0.0750167
9557.09	-0.0618751
9573.2	-0.0486387
9589.33	-0.035337
9605.48	-0.0220194
9621.62	-0.00873451
9637.75	0.00447978
9653.88	0.0175872
9670	0.0305527
9686.11	0.0433419
9702.21	0.0559208
9718.31	0.0682594
9734.4	0.0803278
9750.49	0.0920974
9766.56	0.103539
9782.63	0.114628
9798.68	0.12534
9814.71	0.135657
9830.74	0.145562
9846.75	0.155039
9862.75	0.164077
9878.73	0.172667
9894.69	0.180801
9910.63	0.188477
9926.56	0.195694
9942.47	0.202454
9958.36	0.208764
9974.24	0.214629
9990.09	0.220062
10005.9	0.225077
10021.7	0.229689
10037.5	0.233918
10053.4	0.237784
10069.2	0.241311
10085	0.244523
10100.8	0.247443
10116.7	0.250098
10132.5	0.252515
10148.4	0.254722
10164.3	0.256749
10180.2	0.258627
10196.1	0.260387
10212	0.262061
10228	0.26368
10244	0.265279
10260	0.266888
10276.1	0.268538
10292.3	0.270259
10308.4	0.272078
10324.6	0.274022
10340.8	0.276118
10357.1	0.278386
10373.3	0.280849
10389.6	0.283526
10405.8	0.286431
10422.1	0.289577
10438.4	0.29297
10454.6	0.296616
10470.8	0.300518
10487.1	0.304676
10503.3	0.309088
10519.5	0.313745
10535.6	0.31864
10551.8	0.323761
10568	0.329093
10584.1	0.33462
10600.2	0.340324
10616.4	0.346183
10632.5	0.352176
10648.6	0.358278
10664.7	0.364466
10680.7	0.370712
10696.8	0.376994
10712.9	0.383287
10729	0.389564
10745.1	0.395798
10761.2	0.401956
10777.2	0.408009
10793.3	0.413932
10809.3	0.4197
10825.4	0.42529
10841.4	0.430681
10857.4	0.435854
10873.4	0.440791
10889.4	0.445476
10905.3	0.449894
10921.3	0.454032
10937.3	0.457879
10953.2	0.461427
10969.2	0.46467
10985.2	0.467604
11001.2	0.470224
11017.3	0.472526
11033.3	0.474508
11049.3	0.476169
11065.4	0.477512
11081.5	0.478537
11097.6	0.47925
11113.7	0.479654
11129.8	0.479753
11145.9	0.479553
11162	0.47906
11178.1	0.478281
11194.3	0.477219
11210.4	0.475881
11226.5	0.474272
11242.7	0.472396
11258.8	0.470258
11274.9	0.46786
11291.1	0.465204
11307.2	0.462292
11323.4	0.459124
11339.5	0.455699
11355.7	0.452017
11371.8	0.448076
11388	0.443871
11404.1	0.439403
11420.3	0.434666
11436.4	0.429658
11452.6	0.424375
11468.7	0.418815
11484.9	0.412976
11501	0.406855
11517.2	0.400454
11533.3	0.393771
11549.5	0.386811
11565.6	0.379576
11581.8	0.372071
11597.9	0.364304
11614	0.356285
11630.1	0.348025
11646.3	0.339537
11662.4	0.330837
11678.5	0.321941
11694.6	0.312868
11710.7	0.303638
11726.7	0.294274
11742.8	0.2848
11758.9	0.275239
11774.9	0.265617
11791	0.255961
11807.1	0.246299
11823.1	0.236658
11839.2	0.227067
11855.2	0.217551
11871.3	0.208139
11887.3	0.198854
11903.3	0.189722
11919.4	0.180765
11935.4	0.172007
11951.5	0.163465
11967.5	0.155158
11983.5	0.147099
11999.6	0.1393
12015.7	0.131774
12031.7	0.124532
12047.8	0.11758
12063.9	0.110922
12079.9	0.104559
12096	0.0984904
12112.1	0.0927126
12128.2	0.0872232
12144.2	0.0820162
12160.3	0.0770842
12176.4	0.0724179
12192.5	0.068007
12208.5	0.0638405
12224.6	0.0599062
12240.7	0.0561925
12256.8	0.052688
12256.8	0.0526679
12256.9	0.0526511
12257	0.0526344
12257.1	0.0526177
12257.2	0.052601
12257.2	0.0525844
12257.3	0.0525677
12257.4	0.0525511
12257.5	0.0525345
12257.6	0.0525179
12257.6	0.0525012
12257.7	0.0524846
12257.8	0.0524681
12257.9	0.0524515
12257.9	0.052435
12258	0.0524184
12258.1	0.0524019
12258.2	0.0523854
12258.3	0.0523689
12258.3	0.0523524
12258.4	0.0523359
12258.5	0.0523194
12258.6	0.0523029
12258.7	0.0522864
12258.7	0.0522699
12258.8	0.0522534
12258.9	0.0522369
12259	0.0522203
12259	0.0522038
12259.1	0.0521872
12259.2	0.0521706
12259.3	0.0521541
12259.4	0.0521375
12259.4	0.052121
12259.5	0.0521044
12259.6	0.0520878
12259.7	0.0520713
12259.8	0.0520547
12259.8	0.0520381
12259.9	0.0520216
12260	0.052005
12260.1	0.0519884
12260.2	0.0519719
12260.2	0.0519553
12260.3	0.0519387
12260.4	0.0519222
12260.5	0.0519056
12260.5	0.0518891
12260.6	0.0518725
12260.7	0.051856
12260.8	0.0518394
12260.9	0.0518229
12261	0.0518029
12261.1	0.051783
12261.8	0.0516331
12262.6	0.0514688
12263.5	0.0512845
12264.5	0.0510689
12265.8	0.050807
12267.4	0.0504749
12269.6	0.0500268
12272.7	0.049411
12276.5	0.0486419
12276.7	0.0486187
12276.8	0.0485858
12281.4	0.0477005
12285.9	0.0468287
12290.5	0.0459659
12290.7	0.0459191
12290.9	0.0458903
12291	0.0458655
12291.1	0.0458422
12291.3	0.0458173
12291.4	0.0457915
12291.5	0.0457672
12291.6	0.0457631
12291.6	0.0457601
12291.6	0.0457575
12291.6	0.045755
12291.6	0.0457525
12291.6	0.0457499
12291.6	0.0457473
12291.6	0.0457448
12291.7	0.0457422
12291.7	0.0457395
12291.7	0.0457369
12291.7	0.0457343
12291.7	0.0457316
12291.7	0.0457289
12291.7	0.0457262
12291.8	0.0457234
12291.8	0.0457206
12291.8	0.0457177
12291.8	0.0457148
12291.8	0.0457119
12291.8	0.045709
12291.9	0.045706
12291.9	0.045703
12291.9	0.0456999
12291.9	0.0456969
12291.9	0.0456938
12291.9	0.0456907
12292	0.0456875
12292	0.0456844
12292	0.0456812
12292	0.045678
12292	0.0456748
12292	0.0456716
12292.1	0.0456683
12292.1	0.045665
12292.1	0.0456617
12292.1	0.0456583
12292.1	0.0456549
12292.1	0.0456515
12292.2	0.045648
12292.2	0.0456445
12292.2	0.0456409
12292.2	0.0456371
12292.2	0.045633
12292.3	0.045629
12292.3	0.0456168
12292.4	0.0456103
12292.4	0.0456053
12292.4	0.0456003
12292.5	0.0455862
12292.6	0.045576
12292.6	0.0455695
12292.7	0.0455565
12292.7	0.0455425
12292.8	0.0455338
12292.9	0.0455186
12292.9	0.0455074
12293	0.0454896
12293.1	0.0454752
12293.2	0.0454592
12293.3	0.0454421
12293.4	0.0454236
12293.5	0.0454032
12293.6	0.0453827
12293.7	0.0453609
12293.8	0.0453375
12294	0.0453126
12294.1	0.0452863
12294.3	0.0452585
12294.4	0.0452294
12294.6	0.0451991
12294.8	0.0451674
12294.9	0.0451343
12295.1	0.0450998
12295.3	0.0450639
12295.5	0.0450267
12295.6	0.0450196
12295.6	0.0450091
12295.7	0.0449997
12295.7	0.0449903
12295.8	0.0449811
12295.8	0.0449719
12295.9	0.0449627
12295.9	0.0449524
12296	0.0449421
12296	0.0449319
12296.1	0.0449204
12296.2	0.0449091
12296.2	0.0448977
12296.3	0.0448864
12296.3	0.0448854
12296.3	0.0448846
12296.3	0.0448838
12296.3	0.044883
12296.3	0.0448822
12296.3	0.0448813
12296.3	0.0448805
12296.3	0.0448797
12296.3	0.0448789
12296.6	0.0448362
12296.8	0.0447935
12297	0.0447509
12297	0.0447502
12297	0.0447495
12297	0.0447489
12297	0.0447482
12297	0.0447475
12297.1	0.0447469
12297.1	0.0447462
12297.1	0.0447456
12297.1	0.0447449
12297.1	0.0447442
12297.1	0.0447436
12297.1	0.0447429
12297.1	0.0447422
12297.1	0.0447416
12297.1	0.0447409
12297.1	0.0447403
12297.1	0.0447396
12297.1	0.0447389
12297.1	0.0447383
12297.1	0.0447376
12297.1	0.044737
12297.1	0.0447363
12297.1	0.0447356
12297.1	0.044735
12297.1	0.0447343
12297.1	0.0447336
12297.1	0.044733
12297.1	0.0447323
12297.1	0.0447311
12297.1	0.04473
12297.2	0.0447283
12297.2	0.0447233
12297.2	0.0447184
12297.3	0.0447102
12297.3	0.0447019
12297.3	0.0446936
12297.4	0.0446854
12297.4	0.0446771
12297.5	0.0446688
12297.5	0.0446606
12297.6	0.0446523
12297.6	0.044644
12297.7	0.0446358
12297.7	0.0446275
12297.7	0.0446192
12297.8	0.0446149
12297.8	0.0446142
12297.8	0.0446135
12297.8	0.0446129
12297.8	0.0446122
12297.8	0.0446115
12297.8	0.0446108
12297.8	0.0446102
12297.8	0.0446095
12297.8	0.0446088
12297.8	0.0446081
12297.8	0.0446075
12297.8	0.0446068
12297.8	0.0446061
12297.8	0.0446054
12297.8	0.0446047
12297.8	0.044604
12297.8	0.0446033
12297.8	0.0446027
12297.9	0.0445881
12298	0.0445652
12298.2	0.0445416
12298.3	0.0445175
12298.4	0.0444926
12298.6	0.0444668
12298.7	0.0444405
12298.9	0.0444141
12299	0.0443875
12299.2	0.0443606
12299.3	0.0443335
12299.5	0.0443064
12299.6	0.0442792
12299.8	0.0442519
12299.9	0.0442243
12300.1	0.0441962
12300.2	0.0441681
12300.4	0.04414
12300.5	0.0441117
12300.7	0.0440831
12300.9	0.044054
12301	0.0440243
12301.2	0.0439939
12301.4	0.0439634
12301.4	0.0439634
12301.4	0.0439633
12301.4	0.0439633
12301.4	0.0439633
12301.4	0.0439633
12301.4	0.0439632
12301.4	0.0439632
12301.4	0.0439632
12301.4	0.0439632
12301.4	0.0439631
12301.4	0.0439631
12301.4	0.0439631
12301.4	0.0439631
12301.4	0.043963
12301.4	0.043963
12301.4	0.043963
12301.4	0.0439629
12301.4	0.0439629
12301.4	0.0439629
12301.4	0.0439629
12301.4	0.0439628
12301.4	0.0439628
12301.4	0.0439628
12301.4	0.0439628
12301.4	0.0439627
12301.4	0.0439627
12301.4	0.0439627
12301.4	0.0439627
12301.4	0.0439626
12301.4	0.0439626
12301.4	0.0439626
12301.4	0.0439626
12301.4	0.0439625
12301.4	0.0439625
12301.4	0.0439625
12301.4	0.0439624
12301.4	0.0439624
12301.4	0.0439624
12301.4	0.0439624
12301.4	0.0439623
12301.4	0.0439623
12301.4	0.0439623
12301.4	0.0439622
12301.4	0.0439621
12301.4	0.043962
12301.4	0.043962
12301.4	0.0439619
12301.4	0.0439618
12301.4	0.0439617
12301.4	0.0439617
12301.4	0.0439616
12301.4	0.0439615
12301.4	0.0439614
12301.4	0.0439613
12301.4	0.0439613
12301.4	0.0439612
12301.4	0.0439611
12301.4	0.043961
12301.4	0.0439609
12301.4	0.0439608
12301.4	0.0439608
12301.4	0.0439606
12301.4	0.0439604
12301.4	0.0439602
12301.4	0.04396
12301.4	0.0439598
12301.4	0.0439596
12301.4	0.0439595
12301.4	0.0439593
12301.4	0.0439591
12301.4	0.0439589
12301.4	0.0439587
12301.4	0.0439584
12301.6	0.0439274
12301.7	0.0438962
12301.8	0.0438922
12301.8	0.0438897
12301.8	0.0438886
12301.8	0.0438879
12301.8	0.0438877
12301.8	0.0438875
12301.8	0.0438873
12301.8	0.0438866
12301.8	0.043886
12301.8	0.0438853
12301.8	0.0438846
12301.8	0.043884
12301.8	0.0438833
12301.8	0.0438827
12301.8	0.043882
12301.8	0.0438806
12301.8	0.0438791
12302	0.0438574
12302.1	0.0438323
12302.2	0.0438073
12302.4	0.043782
12302.5	0.0437561
12302.7	0.0437293
12302.8	0.0437007
12302.9	0.043687
12303.1	0.0436549
12303.3	0.043621
12303.5	0.0435837
12303.7	0.0435466
12303.9	0.0435055
12304.2	0.0434611
12304.4	0.0434142
12304.7	0.0433661
12305	0.0433178
12305.3	0.0432689
12305.5	0.043219
12305.8	0.0431678
12306.1	0.0431147
12306.1	0.0431146
12306.1	0.0431144
12306.1	0.0431143
12306.1	0.0431143
12306.1	0.0431143
12306.1	0.0431143
12306.1	0.0431143
12306.1	0.0431143
12306.1	0.0431142
12306.1	0.0431142
12306.1	0.0431142
12306.1	0.0431142
12306.1	0.0431142
12306.1	0.0431142
12306.1	0.0431142
12306.1	0.0431141
12306.1	0.0431141
12306.1	0.0431141
12306.1	0.0431141
12306.1	0.0431141
12306.1	0.0431141
12306.1	0.0431141
12306.1	0.0431141
12306.1	0.0431141
12306.1	0.0431141
12306.1	0.0431141
12306.1	0.0431141
12306.1	0.0431141
12306.1	0.0431141
12306.1	0.0431141
12306.1	0.0431141
12306.1	0.0431141
12306.1	0.0431141
12306.1	0.0431141
12306.1	0.0431141
12306.1	0.0431141
12306.1	0.0431141
12306.1	0.0431141
12306.1	0.0431141
12306.1	0.0431141
12306.1	0.0431141
12306.1	0.0431141
12306.1	0.0431141
12306.1	0.0431141
12306.1	0.0431141
12306.1	0.0431141
12306.1	0.0431141
12306.1	0.0431141
12306.1	0.0431141
12306.1	0.0431141
12306.1	0.0431141
12306.1	0.0431141
12306.1	0.0431141
12306.1	0.0431141
12306.1	0.0431141
12306.1	0.0431141
12306.1	0.0431141
12306.1	0.0431141
12306.1	0.0431141
12306.1	0.0431141
12306.1	0.0431141
12306.1	0.0431141
12306.1	0.0431141
12306.1	0.0431141
12306.1	0.0431141
12306.1	0.0431141
12306.1	0.0431141
12306.1	0.0431141
12306.1	0.0431141
12306.1	0.0431141
12306.1	0.0431141
12306.1	0.0431141
12306.1	0.0431141
12306.1	0.0431141
12306.1	0.0431141
12306.1	0.0431141
12306.1	0.0431141
12306.1	0.0431141
12306.1	0.0431141
12306.1	0.0431141
12306.1	0.0431141
12306.1	0.0431141
12306.1	0.0431141
12306.1	0.0431141
12306.1	0.0431141
12306.1	0.0431141
12306.1	0.0431141
12306.1	0.0431141
12306.1	0.0431141
12306.1	0.0431141
12306.1	0.0431141
12306.1	0.0431141
12306.1	0.0431141
12306.1	0.0431141
12306.1	0.0431141
12306.1	0.0431141
12306.1	0.0431141
12306.1	0.0431141
12306.1	0.0431141
12306.1	0.0431141
12306.1	0.0431141
12310	0.0424326
12320	0.0407201
12330.1	0.0390611
12340	0.037477
12350	0.0359458
12360.1	0.0344627
12370.1	0.0330447
12380.1	0.0316825
12390.2	0.0303584
12400.1	0.0291152
12410.3	0.0278883
12420.1	0.0267587
12430.3	0.0256383
12440.4	0.0245903
12450.4	0.0235954
12460.1	0.0226733
12470	0.021788
12480.1	0.020945
12490.1	0.0201525
12500	0.0194182
12510.4	0.0187057
12520.6	0.0180659
12530.4	0.0174988
12540.5	0.0169644
12550.3	0.0165005
12560.5	0.016071
12570.3	0.0157088
12580.6	0.0153817
12590.4	0.0151187
12600.5	0.0149004
12610.8	0.0147303
12620.2	0.0146182
12630.8	0.0145418
12640.5	0.0145152
12650.3	0.0145291
12660.3	0.0145826
12670.4	0.0146746
12680.6	0.0148034
12690	0.0149495
12700.5	0.015141
12710.6	0.0153487
12720.9	0.0155802
12730.6	0.015812
12740.5	0.0160543
12750.8	0.0163101
12760.6	0.0165509
12771.3	0.0168014
12780.9	0.01701
12790.4	0.0171967
12801.2	0.0173757
12810.7	0.0174954
12820.1	0.0175743
12831	0.0176066
12840.9	0.0175726
12851.1	0.0174652
12860.3	0.0172996
12871.4	0.0169976
12881.1	0.0166385
12890.8	0.0161799
12900.6	0.0156106
12910.5	0.0149173
12920.4	0.0140881
12930.6	0.0130974
12941.1	0.0119116
12950.1	0.0107536
12961.3	0.00913275
12970.9	0.00756345
12980.7	0.00577067
12990.9	0.00373249
13001.3	0.00142784
13011.9	-0.00115527
13020.5	-0.0034182
13031.3	-0.00649411
13042.1	-0.00987326
13050.9	-0.0128161
13062	-0.0168055
13071	-0.0202556
13080	-0.0239644
13091.6	-0.0290213
13101	-0.0334425
13110.6	-0.0382301
13120.3	-0.0434187
13130.2	-0.0490482
13140.3	-0.0551632
13150.6	-0.0618141
13160.9	-0.0690647
13171.4	-0.0770052
13182	-0.0857654
13190.1	-0.0929813
13200.4	-0.103101
13211.6	-0.115226
13220.2	-0.125582
13231.9	-0.141561
13241.1	-0.155607
13250.4	-0.171761
13262.9	-0.197145
13272.5	-0.219763
13282.2	-0.246193
13292	-0.277271
13302	-0.314018
13312.1	-0.357662
13322.2	-0.409497
13332.5	-0.471237
13342.9	-0.544981
13353.4	-0.632536
13360.3	-0.699119
13370.6	-0.813119
13380.9	-0.946598
13391.2	-1.10286
13401.5	-1.28582
13411.8	-1.49997
13422.2	-1.75057
13432.6	-2.04362
13443.1	-2.38603
13450.2	-2.64556
13460.9	-3.08825
13471.7	-3.60369
13482.6	-4.20239
13493.6	-4.89391
13500.9	-5.41227
13512.1	-6.28574
13523.3	-7.28792
13530.8	-8.0358
13542.2	-9.2908
13553.8	-10.7234
13561.5	-11.788
13573.3	-13.5666
13581.2	-14.8846
13593.2	-17.0804
13601.4	-18.7023
13613.7	-21.3958
13622	-23.3763
13630.4	-25.5144
13643.1	-29.0377
13651.7	-31.6124
13664.2	-35.6651
13672.9	-38.7307
13681.8	-42.0148
13690.7	-45.5277
13704.2	-51.2336
13713.3	-55.3301
13721.3	-59.1263
13730.5	-63.6845
13743.6	-70.6224
13753.9	-76.3957
13762.5	-81.4764
13771.9	-87.2294
13781.4	-93.2679
13793.7	-101.5
13802	-107.307
13810.9	-113.682
13820.2	-120.622
13834.7	-131.886
13844.5	-139.81
13854.3	-148.028
13864.2	-156.533
13874.1	-165.322
13884.1	-174.396
13894.1	-183.756
13904.2	-193.401
13914.3	-203.331
13924.5	-213.54
13934.7	-224.027
13945	-234.787
13950.2	-240.268
13960.6	-251.432
13971	-262.864
13981.5	-274.564
13992.1	-286.533
14002.7	-298.767
14013.4	-311.257
14024.2	-323.977
14034.9	-336.921
14040.3	-343.475
14051.2	-356.745
14062.1	-370.228
14073	-383.92
14084	-397.798
14095	-411.859
14100.5	-418.957
14111.6	-433.29
14122.7	-447.803
14133.8	-462.496
14145	-477.369
14150.6	-484.873
14160.5	-498.235
14171.8	-513.541
14181.7	-527.011
14193.1	-542.662
14204.6	-558.496
14210.1	-566.146
14225.7	-587.876
14231.5	-595.997
14241.4	-610.009
14251.8	-624.66
14262.8	-640.244
14273.5	-655.569
14284	-670.617
14294.4	-685.566
14304.6	-700.232
14315.2	-715.603
14320.5	-723.252
14331.3	-738.955
14342.8	-755.757
14350.6	-767.136
14362.3	-784.351
14371.1	-797.311
14380.7	-811.39
14394.6	-832.004
14401	-841.353
14414.1	-860.93
14422.6	-873.506
14431.2	-886.229
14443.6	-904.828
14451.9	-917.157
14460	-929.306
14472	-947.224
14480.2	-959.548
14495.1	-981.806
14501.9	-992.07
14510	-1004.17
14520	-1019.18
14530.1	-1034.32
14540.2	-1049.43
14550.2	-1064.54
14560.1	-1079.23
14570.4	-1094.69
14580.2	-1109.41
14590.2	-1124.44
14600.4	-1139.6
14610	-1153.96
14620	-1168.87
14630	-1183.77
14640.1	-1198.72
14650.2	-1213.67
14660.2	-1228.52
14670.1	-1243.16
14680.4	-1258.37
14690.1	-1272.61
14700.2	-1287.31
14710.4	-1302.28
14720.4	-1316.86
14730.7	-1331.8
14740.2	-1345.59
14750.5	-1360.53
14760.7	-1375.15
14770.7	-1389.47
14781.1	-1404.4
14791	-1418.42
14800.1	-1431.29
14810.9	-1446.64
14820.8	-1460.54
14831.1	-1474.87
14840.1	-1487.5
14850	-1501.23
14860	-1515.06
14870	-1528.83
14880	-1542.54
14890.1	-1556.24
14900.1	-1569.83
14910.1	-1583.39
14920.1	-1596.74
14930.1	-1610.08
14940	-1623.27
14950	-1636.32
14960	-1649.26
14970.1	-1662.14
14980	-1674.88
14990	-1687.83
15000	-1701.13
15010.1	-1715.14
15020	-1730.15
15030.2	-1747.01
15040.1	-1765.09
15050.1	-1785.66
15060.1	-1808.51
15070.4	-1834.5
15080	-1861.52
15090.4	-1893.34
15100.2	-1925.64
15110.2	-1961.04
15120.2	-1998.26
15130.1	-2037.29
15140.3	-2078.74
15150	-2119.87
15160.5	-2164.86
15170.2	-2207.61
15180.3	-2252.59
15190.3	-2297.21
15200.1	-2341.28
15210.7	-2388.49
15220.9	-2434.06
15230.7	-2477.12
15241	-2521.97
15250.6	-2563.24
15260.6	-2605.72
15271	-2649.32
15280.5	-2688.25
15290.3	-2727.77
15300.5	-2767.89
15311.1	-2808.64
15320.5	-2844.14
15330.3	-2880.43
15340.6	-2917.73
15351.3	-2955.93
15360.6	-2988.18
15370	-3020.6
15381.7	-3059.63
15391.7	-3092.26
15401.9	-3125.03
15410.3	-3151.35
15420.7	-3183.26
15431.7	-3216.31
15442.1	-3246.74
15451.3	-3273.17
15460	-3297.81
15470.1	-3325.8
15480.3	-3353.11
15490.5	-3380.13
15500	-3404.86
15510.7	-3431.74
15520.8	-3456.65
15531.3	-3482.06
15541.7	-3506.76
15551.6	-3529.68
15560.5	-3549.79
15570.4	-3571.76
15581.2	-3595.27
15590.8	-3615.64
15601.5	-3637.92
15610.6	-3656.46
15623	-3681.21
15631.9	-3698.65
15642.5	-3719.11
15652.5	-3737.87
15662.7	-3756.71
15673.2	-3775.64
15680.4	-3788.32
15691.3	-3807.41
15702.6	-3826.61
15710.2	-3839.46
15722	-3858.82
15730	-3871.78
15742.4	-3891.32
15750.8	-3904.4
15762.3	-3921.91
15771.2	-3935.09
15780.2	-3948.32
15794	-3968.21
15803.5	-3981.51
15812.2	-3993.56
15824.9	-4010.84
15832.1	-4020.41
15841.7	-4033.13
15852	-4046.43
15862.5	-4059.77
15873.3	-4073.15
15880.6	-4082.12
15890.1	-4093.63
15900.7	-4106.17
15910.7	-4117.9
15920.7	-4129.26
15931.5	-4141.46
15941.2	-4152.16
15954.1	-4166.13
15965	-4177.75
15973	-4186.14
15980.7	-4194.19
15990.9	-4204.61
16003.5	-4217.32
16015.9	-4229.55
16021.9	-4235.46
16033.9	-4247.03
16045.5	-4257.97
16051.3	-4263.42
16062.7	-4274.05
16074	-4284.38
16085.9	-4295.06
16091.7	-4300.26
16101.5	-4308.91
16112.8	-4318.74
16123.8	-4328.26
16134.6	-4337.5
16142.5	-4344.07
16155.9	-4355.27
16161.6	-4359.95
16171.3	-4367.93
16185.1	-4379.06
16193.2	-4385.55
16200.3	-4391.2
16212.9	-4401.11
16220.3	-4406.93
16234.8	-4418.13
16241.9	-4423.55
16254.3	-4432.95
16260.5	-4437.66
16270.1	-4444.84
16286.3	-4456.89
16292.7	-4461.58
16305.2	-4470.7
16311.3	-4475.13
16325.8	-4485.58
16332.9	-4490.64
16340	-4495.71
16354.7	-4506.08
16361.5	-4510.89
16376.2	-4521.13
16382.9	-4525.72
16395.8	-4534.66
16402.2	-4539
16414.9	-4547.64
16421.4	-4552.08
16430.9	-4558.46
16445.3	-4568.12
16450.1	-4571.32
16460.9	-4578.45
16470.5	-4584.79
16480.7	-4591.45
16493.4	-4599.73
16502.7	-4605.74
16513.5	-4612.71
16527.3	-4621.45
16533.5	-4625.41
16544.5	-4632.3
16550.1	-4635.79
16564.2	-4644.59
16572.6	-4649.72
16580.9	-4654.82
16591.5	-4661.3
16600.9	-4666.98
16610.2	-4672.54
16623	-4680.14
16630.8	-4684.74
16640	-4690.1
16650.1	-4695.92
16660.1	-4701.67
16670.1	-4707.38
16680.1	-4713.02
16690	-4718.56
16700.4	-4724.27
16710.2	-4729.61
16720.6	-4735.26
16730	-4740.29
16740.7	-4745.97
16750.1	-4750.85
16760.1	-4756.05
16770.4	-4761.3
16780.8	-4766.54
16790.1	-4771.21
16800.7	-4776.42
16810.6	-4781.23
16820.8	-4786.15
16830.2	-4790.63
16841	-4795.7
16850.1	-4799.9
16860.8	-4804.81
16870.8	-4809.31
16881.2	-4813.94
16890.7	-4818.12
16900.7	-4822.47
16911.4	-4827.02
16921	-4831.1
16931.2	-4835.34
16940.1	-4839.02
16951.4	-4843.62
16961.4	-4847.62
16971.9	-4851.77
16980.6	-4855.19
16992.1	-4859.61
17001.8	-4863.3
17012.2	-4867.23
17020.4	-4870.28
17031.8	-4874.44
17040.6	-4877.64
17052.7	-4882
17062.2	-4885.35
17071.1	-4888.47
17081.1	-4891.93
17091.4	-4895.44
17100.9	-4898.68
17111.8	-4902.3
17121.6	-4905.58
17133.8	-4909.55
17142.1	-4912.24
17150.3	-4914.87
17163.4	-4919.03
17172.4	-4921.84
17181.5	-4924.69
17190	-4927.32
17200.3	-4930.45
17210	-4933.4
17220.2	-4936.47
17230.1	-4939.4
17240.3	-4942.39
17250.4	-4945.34
17261.1	-4948.43
17270.6	-4951.14
17280.5	-4953.96
17290	-4956.63
17300.2	-4959.46
17310.1	-4962.18
17320.2	-4964.96
17330.8	-4967.81
17340.8	-4970.5
17351.1	-4973.23
17360.1	-4975.59
17370	-4978.18
17380.8	-4980.95
17390.7	-4983.48
17402.1	-4986.37
17410.8	-4988.52
17421.6	-4991.19
17430.5	-4993.38
17440.3	-4995.74
17450.4	-4998.21
17460.2	-5000.57
17470.6	-5003.04
17480.1	-5005.28
17490.3	-5007.69
17500.2	-5009.98
17511.1	-5012.46
17521.2	-5014.73
17532	-5017.11
17540.6	-5018.99
17551.3	-5021.29
17560.1	-5023.16
17570.3	-5025.31
17581.9	-5027.71
17593.8	-5030.1
17601	-5031.54
17613.2	-5033.95
17620.5	-5035.37
17634.9	-5038.11
17641.9	-5039.42
17653.8	-5041.61
17660.7	-5042.86
17673.8	-5045.19
17680.6	-5046.39
17693.9	-5048.69
17704	-5050.38
17713.9	-5052.03
17724.1	-5053.68
17730.5	-5054.7
17740.6	-5056.27
17753.1	-5058.19
17761.8	-5059.5
17772.8	-5061.11
17782.7	-5062.54
17790.2	-5063.59
17800.4	-5065.01
17810.1	-5066.31
17820.1	-5067.61
17830.2	-5068.92
17840.4	-5070.18
17850	-5071.34
17860	-5072.53
17870	-5073.68
17880.2	-5074.8
17890.2	-5075.88
17900.3	-5076.94
17910.1	-5077.93
17920.1	-5078.91
17930.1	-5079.86
17940.3	-5080.79
17950	-5081.65
17960.3	-5082.52
17970.6	-5083.36
17980.4	-5084.12
17990	-5084.84
18000	-5085.56
18010.1	-5086.25
18020.1	-5086.89
18030.2	-5087.52
18040.9	-5088.14
18051	-5088.69
18061.4	-5089.22
18070.3	-5089.65
18081	-5090.14
18090.3	-5090.53
18100.4	-5090.92
18111.1	-5091.3
18120.2	-5091.6
18132.3	-5091.95
18142.4	-5092.22
18150.2	-5092.4
18161	-5092.62
18172	-5092.82
18180.6	-5092.95
18192.6	-5093.09
18202.1	-5093.18
18212.3	-5093.26
18222.9	-5093.3
18230.3	-5093.32
18241.5	-5093.32
18253	-5093.3
18260.7	-5093.26
18272.5	-5093.19
18280.4	-5093.12
18290.2	-5093.03
18300	-5092.91
18310	-5092.78
18320	-5092.64
18330	-5092.48
18340	-5092.3
18350	-5092.12
18360.1	-5091.93
18370.1	-5091.72
18380.1	-5091.51
18390.2	-5091.3
18400.1	-5091.08
18410	-5090.86
18420.3	-5090.63
18430.3	-5090.4
18440.1	-5090.18
18450.5	-5089.94
18460.2	-5089.72
18470.2	-5089.5
18480.4	-5089.28
18490	-5089.08
18500.2	-5088.87
18510.3	-5088.67
18520.2	-5088.49
18530.7	-5088.3
18540.8	-5088.13
18550.6	-5087.98
18560.8	-5087.84
18570.6	-5087.71
18580.7	-5087.6
18590.3	-5087.5
18600.2	-5087.42
18610.5	-5087.35
18620	-5087.31
18631.1	-5087.28
18640	-5087.27
18650.5	-5087.28
18660.1	-5087.31
18671.3	-5087.37
18681.4	-5087.45
18690.3	-5087.54
18701	-5087.67
18710.4	-5087.81
18720	-5087.97
18731.6	-5088.19
18740	-5088.37
18750.4	-5088.62
18761.1	-5088.91
18770.2	-5089.17
18781.4	-5089.52
18790.9	-5089.85
18800.6	-5090.21
18810.6	-5090.6
18820.8	-5091.02
18831.2	-5091.49
18841.8	-5091.99
18850.5	-5092.42
18861.6	-5093
18870.6	-5093.49
18882.2	-5094.15
18891.6	-5094.71
18901.2	-5095.3
18910.9	-5095.93
18920.8	-5096.6
18930.9	-5097.29
18941.2	-5098.03
18951.7	-5098.8
18962.3	-5099.62
18970.4	-5100.25
18981.4	-5101.14
18991.2	-5101.95
19002.5	-5102.91
19011.2	-5103.67
19022.9	-5104.71
19031.8	-5105.53
19040.9	-5106.37
19050	-5107.24
19062.5	-5108.44
19072	-5109.37
19081.6	-5110.33
19091.3	-5111.33
19101	-5112.33
19111	-5113.38
19121.2	-5114.46
19131	-5115.52
19141.4	-5116.66
19152	-5117.84
19162.4	-5119
19173	-5120.22
19180.4	-5121.06
19191.5	-5122.34
19202.8	-5123.67
19210.4	-5124.56
19222	-5125.94
19233.7	-5127.35
19241.6	-5128.31
19253.7	-5129.78
19261.8	-5130.77
19274.1	-5132.29
19282.4	-5133.32
19290.8	-5134.37
19303.5	-5135.96
19312.1	-5137.04
19321.3	-5138.21
19330	-5139.32
19343.3	-5141.01
19352.2	-5142.16
19361.3	-5143.32
19370.4	-5144.5
19384.2	-5146.29
19393.5	-5147.49
19402.9	-5148.72
19412.4	-5149.95
19423.6	-5151.41
19433.3	-5152.68
19443.1	-5153.96
19453	-5155.26
19463	-5156.57
19473	-5157.89
19483.2	-5159.23
19492.3	-5160.43
19502.7	-5161.8
19513.2	-5163.18
19523.8	-5164.57
19534.5	-5165.98
19540.4	-5166.77
19551.1	-5168.18
19561.3	-5169.53
19572.1	-5170.94
19580	-5171.99
19590	-5173.31
19600	-5174.63
19610.2	-5175.97
19620.4	-5177.31
19630	-5178.58
19640.4	-5179.95
19650.3	-5181.25
19660.5	-5182.6
19670.4	-5183.9
19681.4	-5185.33
19690.3	-5186.51
19700.6	-5187.86
19710.1	-5189.09
19721.7	-5190.62
19730.6	-5191.78
19740.4	-5193.06
19750.9	-5194.43
19762.3	-5195.92
19770.4	-5196.99
19780	-5198.24
19790.1	-5199.55
19800	-5200.85
19810.5	-5202.21
19820.4	-5203.51
19830.5	-5204.83
19840.2	-5206.1
19850.7	-5207.47
19860.1	-5208.7
19870.1	-5210
19880	-5211.29
19890	-5212.6
19900	-5213.91
19910	-5215.22
19920	-5216.53
19930.1	-5217.84
19940.1	-5219.15
19950.3	-5220.48
19960	-5221.75
19970.1	-5223.07
19980	-5224.38
19990.4	-5225.73
