0	0
11.0308	0
22.0616	0
30.8863	0
41.9171	0
50.7417	0
61.7725	0
70.5972	0
81.628	0
90.4526	0
101.483	0
110.308	0
121.339	0
130.164	0
141.194	0
150.019	0
161.05	0
172.081	0
180.905	0
191.936	0
200.761	0
211.792	0
220.616	0
231.647	0
240.472	0
251.502	0
260.327	0
271.358	0
280.183	0
291.213	0
300.038	0
311.069	0
322.1	0
330.924	0
341.955	0
350.78	0
361.811	0
370.635	0
381.666	0
390.491	0
401.521	0
410.346	0
421.377	0
430.202	0
441.232	0
450.057	0
461.088	0
472.119	0
480.943	0
491.974	0
500.799	0
511.83	0
520.654	0
531.685	0
540.51	0
551.54	0
560.365	0
571.396	0
580.221	0
591.251	0
600.076	0
611.107	0
622.138	0
630.962	0
641.993	0
650.818	0
661.849	0
670.673	0
681.704	0
690.529	0
701.559	0
710.384	0
721.415	0
730.24	0
741.27	0
750.095	0
761.126	0
772.157	0
780.981	0
792.012	0
800.837	0
811.868	0
820.692	0
831.723	0
840.548	0
851.578	0
860.403	0
871.434	0
880.259	0
891.289	0
900.114	0
911.145	0
922.176	0
931	0
942.031	0
950.856	0
961.887	0
970.711	0
981.742	0
990.567	0
1001.6	0
1010.42	0
1021.45	0
1030.28	0
1041.31	0
1050.13	0
1061.16	0
1072.19	0
1081.02	0
1092.05	0
1100.87	0
1111.91	0
1120.73	0
1131.76	0
1140.59	0
1151.62	0
1160.44	0
1171.47	0
1180.3	0
1191.33	0
1200.15	0
1211.18	0
1220.01	0
1231.04	0
1242.07	0
1250.89	0
1261.92	0
1270.75	0
1281.78	0
1290.6	0
1301.64	0
1310.46	0
1321.49	0
1330.32	0
1341.35	0
1350.17	0
1361.2	0
1370.03	0
1381.06	0
1392.09	0
1400.91	0
1411.94	0
1420.77	0
1431.8	0
1440.62	0
1451.65	0
1460.48	0
1471.51	0
1480.33	0
1491.37	0
1500.19	0
1511.22	0
1520.05	0
1531.08	0
1542.11	0
1550.93	0
1561.96	0
1570.79	0
1581.82	0
1590.64	0
1601.67	0
1610.5	0
1621.53	0
1630.35	0
1641.38	0
1650.21	0
1661.24	0
1670.06	0
1681.1	0
1692.13	0
1700.95	0
1711.98	0
1720.81	0
1731.84	0
1740.66	0
1751.69	0
1760.52	0
1771.55	0
1780.37	0
1791.4	0
1800.23	0
1811.26	0
1820.08	0
1831.11	0
1842.15	0
1850.97	0
1862	0
1870.83	0
1881.86	0
1890.68	0
1901.71	0
1910.54	0
1921.57	0
1930.39	0
1941.42	0
1950.25	0
1961.28	0
1970.1	0
1981.13	0
1992.16	0
2000.99	0
2012.02	0
2020.84	0
2031.87	0
2040.7	0
2051.73	0
2060.56	0
2071.59	0
2080.41	0
2091.44	0
2100.27	0
2111.3	0
2120.12	0
2131.15	0
2142.18	0
2151.01	0
2162.04	0
2170.86	0
2181.89	0
2190.72	0
2201.75	0
2210.57	0
2221.6	0
2230.43	0
2241.46	0
2250.28	0
2261.32	0
2270.14	0
2281.17	0
2292.2	0
2301.03	0
2312.06	0
2320.88	0
2331.91	0
2340.74	0
2351.77	0
2360.59	0
2371.62	0
2380.45	0
2391.48	0
2400.3	0
2411.33	0
2420.16	0
2431.19	0
2440.01	0
2451.05	0
2462.08	0
2470.9	0
2481.93	0
2490.76	0
2501.79	0
2510.61	0
2521.64	0
2530.47	0
2541.5	0
2550.32	0
2561.35	0
2570.18	0
2581.21	0
2590.03	0
2601.06	0
2612.1	0
2620.92	0
2631.95	0
2640.78	0
2651.81	0
2660.63	0
2671.66	0
2680.49	0
2691.52	0
2700.34	0
2711.37	0
2720.2	1.81899e-12
2731.23	5.45697e-12
2740.05	8.18545e-12
2751.08	1.27329e-11
2762.11	1.81899e-11
2770.94	2.45564e-11
2781.97	3.72893e-11
2790.79	5.27507e-11
2801.83	8.2764e-11
2810.65	1.20963e-10
2821.68	1.94632e-10
2830.51	2.82853e-10
2841.54	4.502e-10
2850.36	6.49379e-10
2861.39	1.01954e-09
2870.22	1.45246e-09
2881.25	2.24281e-09
2890.07	3.15231e-09
2901.1	4.78485e-09
2912.13	7.19865e-09
2920.96	9.91531e-09
2931.99	1.46765e-08
2940.81	1.99561e-08
2951.84	2.90693e-08
2960.67	3.90291e-08
2971.7	5.59685e-08
2980.52	7.42211e-08
2991.55	1.04825e-07
3000.38	1.37342e-07
3011.41	1.91103e-07
3020.23	2.47456e-07
3031.26	3.39353e-07
3040.09	4.3441e-07
3051.12	5.8736e-07
3062.15	7.88065e-07
3070.98	9.91542e-07
3082.01	1.3124e-06
3090.83	1.63364e-06
3101.86	2.13387e-06
3110.69	2.6286e-06
3121.72	3.3896e-06
3130.54	4.13331e-06
3141.57	5.2637e-06
3150.4	6.35563e-06
3161.43	7.99608e-06
3170.25	9.56286e-06
3181.28	1.18902e-05
3190.11	1.40886e-05
3201.14	1.73183e-05
3212.17	2.1157e-05
3220.99	2.47234e-05
3232.02	2.9877e-05
3240.85	3.46163e-05
3251.88	4.13949e-05
3260.7	4.75666e-05
3271.73	5.63072e-05
3280.56	6.41886e-05
3291.59	7.52439e-05
3300.41	8.51196e-05
3311.44	9.88446e-05
3320.27	0.000110995
3331.3	0.00012773
3340.12	0.000142417
3351.15	0.000162473
3362.18	0.00018449
3371.01	0.000203564
3382.04	0.000229282
3390.86	0.000251388
3401.89	0.000280966
3410.72	0.000306199
3421.75	0.000339715
3430.57	0.000368106
3441.6	0.000405555
3450.43	0.000437067
3461.46	0.000478364
3470.28	0.000512897
3481.31	0.000557883
3490.14	0.000595284
3501.17	0.000643739
3512.2	0.000694009
3521.02	0.000735476
3532.05	0.000788799
3540.88	0.000832595
3551.91	0.000888689
3560.73	0.000934595
3571.76	0.000993199
3580.59	0.00104102
3591.62	0.00110191
3600.44	0.0011515
3611.47	0.00121453
3620.3	0.00126578
3631.33	0.00133088
3640.15	0.0013838
3651.18	0.00145101
3660	0.00150566
3671.03	0.00157514
3682.07	0.00164602
3690.89	0.00170379
3701.92	0.0017775
3710.74	0.00183776
3721.77	0.0019149
3730.6	0.00197823
3741.63	0.00205966
3750.45	0.00212686
3761.48	0.00221378
3770.31	0.00228597
3781.34	0.00238003
3790.16	0.00245878
3801.19	0.00256229
3810.02	0.00264976
3821.05	0.00276591
3832.08	0.0028909
3840.9	0.00299835
3851.93	0.00314359
3860.76	0.00326994
3871.79	0.00344278
3880.61	0.00359492
3891.64	0.00380544
3900.47	0.00399275
3911.5	0.00425461
3920.32	0.00448978
3931.35	0.00482129
3940.18	0.00512118
3951.21	0.00554656
3960.03	0.00593334
3971.06	0.00648418
3982.09	0.0071216
3990.92	0.00770337
4001.95	0.00853381
4010.77	0.00929186
4021.8	0.0103732
4030.62	0.0113589
4041.66	0.0127621
4050.48	0.014038
4061.51	0.0158487
4070.33	0.0174893
4081.36	0.0198084
4090.19	0.0219009
4101.22	0.024845
4110.04	0.0274885
4121.07	0.031189
4132.11	0.0353713
4140.93	0.0390951
4151.96	0.0442623
4160.79	0.0488364
4171.82	0.0551454
4180.64	0.0606963
4191.67	0.0683051
4200.5	0.0749576
4211.53	0.084018
4220.35	0.0918887
4231.38	0.102538
4240.21	0.111728
4251.24	0.124078
4260.06	0.134665
4271.09	0.148795
4282.12	0.163931
4290.95	0.176766
4301.98	0.19371
4310.8	0.207976
4321.83	0.226672
4330.66	0.242298
4341.69	0.262626
4350.51	0.279487
4361.54	0.301253
4370.37	0.319167
4381.4	0.342106
4390.22	0.36083
4401.26	0.384607
4410.08	0.403848
4421.11	0.428061
4432.14	0.452324
4440.97	0.471669
4452	0.495639
4460.82	0.514546
4471.85	0.537708
4480.68	0.555755
4491.71	0.577573
4500.53	0.594331
4511.56	0.614271
4520.39	0.629318
4531.42	0.646865
4540.24	0.659803
4551.27	0.674482
4560.1	0.68495
4571.13	0.696339
4582.16	0.705744
4590.98	0.711775
4602.01	0.717379
4610.84	0.720273
4621.87	0.721858
4630.69	0.721477
4641.72	0.718917
4650.55	0.715198
4661.58	0.708463
4670.4	0.70142
4681.44	0.690575
4690.26	0.680296
4701.29	0.665492
4710.12	0.652131
4721.15	0.633602
4732.18	0.613129
4741	0.59542
4752.03	0.571717
4760.86	0.551574
4771.89	0.525025
4780.71	0.502772
4791.74	0.473801
4800.57	0.449786
4811.6	0.418839
4820.42	0.393426
4831.45	0.360961
4840.28	0.334518
4851.31	0.300995
4860.13	0.273888
4871.16	0.239758
4882.19	0.20548
4891.02	0.17804
4902.05	0.143823
4910.87	0.116594
4921.91	0.0828366
4930.73	0.0561257
4941.76	0.0231975
4950.58	-0.00271173
4961.62	-0.0344734
4970.44	-0.0593245
4981.47	-0.0896161
4990.3	-0.11318
5001.33	-0.141733
5010.15	-0.16381
5021.18	-0.190393
5030.01	-0.210811
5041.04	-0.235227
5052.07	-0.25837
5060.89	-0.275937
5071.92	-0.296683
5080.75	-0.312289
5091.78	-0.330536
5100.6	-0.344114
5111.63	-0.359799
5120.46	-0.371312
5131.49	-0.384406
5140.31	-0.393845
5151.34	-0.404355
5160.17	-0.41174
5171.2	-0.419707
5180.02	-0.425083
5191.06	-0.43058
5202.09	-0.434748
5210.91	-0.437149
5221.94	-0.439018
5230.77	-0.439636
5241.8	-0.439351
5250.62	-0.438311
5261.65	-0.436038
5270.48	-0.433479
5281.51	-0.429404
5290.33	-0.42548
5301.36	-0.419799
5310.19	-0.414674
5321.22	-0.407597
5330.04	-0.40144
5341.07	-0.393179
5352.1	-0.384355
5360.93	-0.376934
5371.96	-0.367261
5380.78	-0.359244
5391.81	-0.348931
5400.64	-0.340484
5411.67	-0.32973
5420.49	-0.321008
5431.53	-0.310004
5440.35	-0.301153
5451.38	-0.290073
5460.21	-0.281227
5471.24	-0.27023
5480.06	-0.261508
5491.09	-0.250735
5502.12	-0.240141
5510.95	-0.231818
5521.98	-0.221631
5530.8	-0.213672
5541.83	-0.203986
5550.66	-0.196461
5561.69	-0.187352
5570.51	-0.180313
5581.54	-0.171839
5590.37	-0.165328
5601.4	-0.157532
5610.22	-0.151576
5621.25	-0.144486
5630.08	-0.139102
5641.11	-0.132734
5652.14	-0.12677
5660.96	-0.122287
5672	-0.117045
5680.82	-0.113138
5691.85	-0.108607
5700.68	-0.105262
5711.71	-0.101425
5720.53	-0.0986252
5731.56	-0.095456
5740.39	-0.0931792
5751.42	-0.0906479
5760.24	-0.088868
5771.27	-0.08694
5780.1	-0.0856277
5791.13	-0.0842647
5802.16	-0.0831978
5810.98	-0.0825486
5822.01	-0.081981
5830.84	-0.0817133
5841.87	-0.0815994
5850.69	-0.0816757
5861.72	-0.0819677
5870.55	-0.082349
5881.58	-0.082997
5890.4	-0.0836426
5901.43	-0.0845948
5910.26	-0.0854627
5921.29	-0.086666
5930.11	-0.087713
5941.15	-0.0891129
5952.18	-0.0905982
5961	-0.0918364
5972.03	-0.0934321
5980.86	-0.0947365
5991.89	-0.0963874
6000.71	-0.0977138
6011.74	-0.099365
6020.57	-0.10067
6031.6	-0.102268
6040.42	-0.10351
6051.45	-0.105004
6060.28	-0.106144
6071.31	-0.107485
6080.13	-0.108485
6091.16	-0.10963
6102.19	-0.110648
6111.02	-0.111364
6122.05	-0.112126
6130.87	-0.112624
6141.91	-0.113099
6150.73	-0.113356
6161.76	-0.113518
6170.59	-0.113517
6181.62	-0.113348
6190.44	-0.113077
6201.47	-0.112565
6210.3	-0.112017
6221.33	-0.111157
6230.15	-0.110331
6241.18	-0.109125
6250.01	-0.108025
6261.04	-0.106481
6272.07	-0.104757
6280.89	-0.10325
6291.92	-0.101212
6300.75	-0.0994631
6311.78	-0.0971353
6320.6	-0.0951648
6331.63	-0.0925738
6340.46	-0.0904048
6351.49	-0.0875813
6360.31	-0.0852394
6371.35	-0.0822169
6380.17	-0.0797297
6391.2	-0.0765434
6400.03	-0.0739395
6411.06	-0.0706258
6422.09	-0.067257
6430.91	-0.06453
6441.94	-0.0610905
6450.77	-0.0583211
6461.8	-0.0548464
6470.62	-0.0520627
6481.65	-0.0485868
6490.48	-0.0458152
6501.51	-0.0423703
6510.33	-0.0396357
6521.36	-0.0362517
6530.19	-0.033577
6541.22	-0.030281
6550.04	-0.027687
6561.07	-0.0245038
6572.11	-0.021393
6580.93	-0.0189606
6591.96	-0.0159954
6600.79	-0.013687
6611.82	-0.0108853
6620.64	-0.00871407
6631.67	-0.00609129
6640.5	-0.00406861
6651.53	-0.0016378
6660.35	0.000226686
6671.38	0.00245448
6680.21	0.00415271
6691.24	0.0061683
6700.06	0.00769359
6711.09	0.00948945
6722.12	0.0111605
6730.95	0.0124065
6741.98	0.013849
6750.8	0.0149105
6761.83	0.0161206
6770.66	0.0169949
6781.69	0.01797
6790.51	0.0186557
6801.55	0.0193945
6810.37	0.019891
6821.4	0.0203936
6830.23	0.0207016
6841.26	0.0209696
6850.08	0.0210909
6861.11	0.0211274
6872.14	0.0210372
6880.97	0.020875
6892	0.0205616
6900.82	0.0202236
6911.85	0.0196945
6920.68	0.0191877
6931.71	0.0184524
6940.53	0.0177851
6951.56	0.0168552
6960.39	0.0160373
6971.42	0.0149262
6980.24	0.0139693
6991.27	0.0126922
7000.1	0.0116091
7011.13	0.0101832
7022.16	0.00868247
7030.99	0.00743211
7042.02	0.00581216
7050.84	0.00447461
7061.87	0.00275621
7070.7	0.00134854
7081.73	-0.000446454
7090.55	-0.0019064
7101.58	-0.0037553
7110.41	-0.00524912
7121.44	-0.0071287
7130.26	-0.00863765
7141.29	-0.0105244
7150.12	-0.0120296
7161.15	-0.0138998
7172.18	-0.0157507
7181	-0.0172127
7192.03	-0.0190109
7200.86	-0.0204215
7211.89	-0.0221442
7220.71	-0.0234855
7231.75	-0.0251106
7240.57	-0.0263653
7251.6	-0.0278716
7260.43	-0.0290231
7271.46	-0.0303904
7280.28	-0.0314229
7291.31	-0.0326321
7300.14	-0.0335308
7311.17	-0.0345641
7322.2	-0.0354924
7331.02	-0.0361562
7342.05	-0.0368836
7350.88	-0.0373808
7361.91	-0.0378932
7370.73	-0.0382134
7381.76	-0.0384984
7390.59	-0.0386322
7401.62	-0.0386792
7410.44	-0.0386189
7421.47	-0.0384193
7430.3	-0.0381588
7441.33	-0.0377059
7450.15	-0.0372409
7461.18	-0.0365304
7470.01	-0.0358581
7481.04	-0.0348878
7492.07	-0.0337731
7500.89	-0.0327778
7511.93	-0.0314049
7520.75	-0.0302044
7531.78	-0.0285774
7540.61	-0.027176
7551.64	-0.0253018
7560.46	-0.0237061
7571.49	-0.021594
7580.32	-0.0198126
7591.35	-0.0174747
7600.17	-0.0155183
7611.2	-0.0129691
7620.03	-0.0108502
7631.06	-0.00810698
7642.09	-0.00526414
7650.91	-0.00292245
7661.94	8.32769e-05
7670.77	0.00254636
7681.8	0.00569219
7690.62	0.00825769
7701.65	0.011519
7710.48	0.0141666
7721.51	0.0175172
7730.33	0.0202254
7741.36	0.023638
7750.19	0.0263846
7761.22	0.029831
7770.04	0.0325931
7781.07	0.0360447
7792.1	0.0394867
7800.93	0.0422276
7811.96	0.0456304
7820.78	0.0483287
7831.82	0.0516646
7840.64	0.0542986
7851.67	0.057541
7860.5	0.06009
7871.53	0.0632138
7880.35	0.0656584
7891.38	0.0686406
7900.21	0.0709633
7911.24	0.073783
7920.06	0.0759683
7931.09	0.0786074
7942.12	0.0811393
7950.95	0.0830849
7961.98	0.0854136
7970.8	0.0871921
7981.83	0.0893071
7990.66	0.0909111
8001.69	0.0928048
8010.51	0.0942297
8021.54	0.0958976
8030.37	0.097141
8041.4	0.0985815
8050.22	0.0996433
8061.25	0.100858
8070.08	0.10174
8081.11	0.102732
8092.14	0.103603
8100.96	0.104214
8112	0.104873
8120.82	0.105318
8131.85	0.105773
8140.68	0.106059
8151.71	0.106321
8160.53	0.106457
8171.56	0.106536
8180.39	0.106531
8191.42	0.10644
8200.24	0.106303
8211.27	0.106054
8220.1	0.105796
8231.13	0.105401
8242.16	0.10493
8250.98	0.104502
8262.01	0.103904
8270.84	0.103379
8281.87	0.102666
8290.69	0.102053
8301.72	0.101235
8310.55	0.100543
8321.58	0.0996323
8330.4	0.0988693
8341.43	0.0978752
8350.26	0.0970494
8361.29	0.0959814
8370.11	0.0951002
8381.15	0.0939673
8392.18	0.092802
8401	0.0918481
8412.03	0.0906308
8420.86	0.0896383
8431.89	0.0883764
8440.71	0.0873511
8451.74	0.0860516
8460.57	0.0849989
8471.6	0.0836682
8480.42	0.082593
8491.45	0.081237
8500.28	0.0801435
8511.31	0.0787673
8520.13	0.0776595
8531.16	0.0762675
8542.2	0.0748683
8551.02	0.0737444
8562.05	0.0723346
8570.88	0.0712032
8581.91	0.0697851
8590.73	0.0686476
8601.76	0.0672224
8610.59	0.0660794
8621.62	0.0646472
8630.44	0.0634985
8641.47	0.0620585
8650.3	0.0609029
8661.33	0.0594532
8670.15	0.0582887
8681.18	0.0568264
8690.01	0.0556503
8701.04	0.0541715
8712.07	0.0526815
8720.89	0.0514805
8731.92	0.0499665
8740.75	0.0487441
8751.78	0.0472004
8760.6	0.0459519
8771.64	0.0443727
8780.46	0.0430934
8791.49	0.0414726
8800.32	0.0401576
8811.35	0.0384894
8820.17	0.0371343
8831.2	0.0354132
8840.03	0.0340138
8851.06	0.0322351
8862.09	0.0304227
8870.91	0.0289478
8881.94	0.0270723
8890.77	0.025546
8901.8	0.0236055
8910.62	0.0220268
8921.65	0.0200206
8930.48	0.0183897
8941.51	0.0163191
8950.33	0.0146375
8961.36	0.0125049
8970.19	0.0107754
8981.22	0.00858532
8990.04	0.00681194
9001.08	0.0045703
9012.11	0.00230316
9020.93	0.000472819
9031.96	-0.00183356
9040.79	-0.00369155
9051.82	-0.00602746
9060.64	-0.00790484
9071.67	-0.0102594
9080.5	-0.0121471
9091.53	-0.0145085
9100.35	-0.0163966
9111.38	-0.0187523
9120.21	-0.0206306
9131.24	-0.0229674
9140.06	-0.0248253
9151.09	-0.0271298
9162.13	-0.0294107
9170.95	-0.0312156
9181.98	-0.0334435
9190.81	-0.0352008
9201.84	-0.0373628
9210.66	-0.0390624
9221.69	-0.0411461
9230.52	-0.0427782
9241.55	-0.0447718
9250.37	-0.0463274
9261.4	-0.0482202
9270.23	-0.049691
9281.26	-0.051473
9290.08	-0.0528515
9301.11	-0.0545139
9312.14	-0.0561066
9320.97	-0.057329
9332	-0.0587909
9340.82	-0.0599064
9351.85	-0.0612318
9360.68	-0.0622364
9371.71	-0.0634212
9380.53	-0.0643119
9391.57	-0.0653532
9400.39	-0.0661283
9411.42	-0.0670244
9420.25	-0.0676832
9431.28	-0.068434
9440.1	-0.0689769
9451.13	-0.0695835
9462.16	-0.070111
9470.99	-0.0704767
9482.02	-0.0708644
9490.84	-0.0711198
9501.87	-0.0713719
9510.7	-0.0715211
9521.73	-0.0716432
9530.55	-0.0716909
9541.58	-0.0716897
9550.41	-0.0716417
9561.44	-0.0715247
9570.26	-0.0713872
9581.29	-0.0711628
9590.12	-0.070943
9601.15	-0.0706203
9612.18	-0.0702472
9621.01	-0.0699144
9632.04	-0.0694581
9640.86	-0.0690629
9651.89	-0.0685338
9660.72	-0.0680844
9671.75	-0.0674927
9680.57	-0.0669974
9691.6	-0.0663534
9700.43	-0.0658202
9711.46	-0.065134
9720.28	-0.0645709
9731.31	-0.0638521
9740.14	-0.0632667
9751.17	-0.0625243
9762.2	-0.0617727
9771.02	-0.0611663
9782.06	-0.0604041
9790.88	-0.0597922
9801.91	-0.0590266
9810.74	-0.0584148
9821.77	-0.0576523
9830.59	-0.0570452
9841.62	-0.0562914
9850.45	-0.0556932
9861.48	-0.0549526
9870.3	-0.0543666
9881.33	-0.0536432
9890.16	-0.0530721
9901.19	-0.0523687
9910.01	-0.0518147
9921.04	-0.0511336
9932.07	-0.0504656
9940.9	-0.049941
9951.93	-0.0492976
9960.75	-0.048793
9971.78	-0.0481751
9980.61	-0.0476911
9991.64	-0.047099
10000.5	-0.0466358
10011.5	-0.0460699
10020.3	-0.0456277
10031.4	-0.0450879
10040.2	-0.0446666
10051.2	-0.044153
10060	-0.0437527
10071.1	-0.0432654
10082.1	-0.0427927
10090.9	-0.0424251
10101.9	-0.0419789
10110.8	-0.0416327
10121.8	-0.0412135
10130.6	-0.0408891
10141.7	-0.0404974
10150.5	-0.0401953
10161.5	-0.039832
10170.3	-0.0395529
10181.4	-0.039219
10190.2	-0.038964
10201.2	-0.0386607
10210	-0.0384308
10221.1	-0.0381596
10232.1	-0.0379068
10240.9	-0.0377182
10252	-0.0374999
10260.8	-0.0373396
10271.8	-0.0371575
10280.6	-0.0370268
10291.7	-0.0368825
10300.5	-0.0367828
10311.5	-0.036678
10320.4	-0.0366105
10331.4	-0.0365469
10340.2	-0.0365129
10351.2	-0.0364919
10360.1	-0.0364925
10371.1	-0.0365154
10382.1	-0.036563
10391	-0.0366193
10402	-0.0367124
10410.8	-0.0368053
10421.8	-0.0369445
10430.7	-0.0370744
10441.7	-0.0372599
10450.5	-0.037427
10461.6	-0.037659
10470.4	-0.037863
10481.4	-0.038141
10490.2	-0.0383816
10501.3	-0.0387048
10510.1	-0.0389811
10521.1	-0.0393483
10532.1	-0.0397393
10541	-0.0400689
10552	-0.0405012
10560.8	-0.0408629
10571.9	-0.0413343
10580.7	-0.0417262
10591.7	-0.042234
10600.5	-0.0426538
10611.6	-0.0431948
10620.4	-0.0436399
10631.4	-0.0442107
10640.2	-0.0446782
10651.3	-0.0452749
10660.1	-0.0457615
10671.1	-0.0463801
10682.2	-0.0470089
10691	-0.0475183
10702	-0.0481619
10710.8	-0.0486813
10721.9	-0.0493348
10730.7	-0.0498602
10741.7	-0.0505187
10750.6	-0.0510459
10761.6	-0.0517042
10770.4	-0.0522291
10781.4	-0.0528819
10790.3	-0.0534003
10801.3	-0.0540422
10810.1	-0.0545498
10821.2	-0.0551755
10832.2	-0.0557899
10841	-0.0562721
10852	-0.0568619
10860.9	-0.0573224
10871.9	-0.0578823
10880.7	-0.0583168
10891.8	-0.0588416
10900.6	-0.0592459
10911.6	-0.0597305
10920.4	-0.0601007
10931.5	-0.0605401
10940.3	-0.0608721
10951.3	-0.0612614
10960.1	-0.0615514
10971.2	-0.0618859
10982.2	-0.0621881
10991	-0.0624055
11002.1	-0.0626459
11010.9	-0.0628122
11021.9	-0.0629866
11030.7	-0.0630985
11041.8	-0.0632029
11050.6	-0.0632572
11061.6	-0.0632878
11070.4	-0.0632817
11081.5	-0.063235
11090.3	-0.0631658
11101.3	-0.0630385
11110.2	-0.0629035
11121.2	-0.0626927
11130	-0.0624899
11141	-0.062193
11152.1	-0.0618472
11160.9	-0.0615349
11171.9	-0.0610995
11180.8	-0.0607149
11191.8	-0.0601882
11200.6	-0.05973
11211.6	-0.0591109
11220.5	-0.0585782
11231.5	-0.0578656
11240.3	-0.0572579
11251.4	-0.0564514
11260.2	-0.0557687
11271.2	-0.0548683
11280	-0.0541106
11291.1	-0.0531169
11302.1	-0.0520716
11310.9	-0.0511986
11322	-0.0500616
11330.8	-0.0491159
11341.8	-0.0478889
11350.6	-0.0468719
11361.7	-0.045557
11370.5	-0.0444707
11381.5	-0.0430705
11390.3	-0.0419171
11401.4	-0.0404347
11410.2	-0.0392168
11421.2	-0.0376555
11430.1	-0.036376
11441.1	-0.0347397
11452.1	-0.0330634
11460.9	-0.0316946
11472	-0.0299501
11480.8	-0.0285284
11491.8	-0.0267202
11500.6	-0.0252497
11511.7	-0.0233829
11520.5	-0.0218676
11531.5	-0.0199475
11540.4	-0.0183917
11551.4	-0.0164239
11560.2	-0.0148323
11571.2	-0.0128225
11580.1	-0.0111997
11591.1	-0.00915397
11602.1	-0.00709098
11611	-0.00542942
11622	-0.00334019
11630.8	-0.00166022
11641.8	0.000448791
11650.7	0.00214197
11661.7	0.00426418
11670.5	0.00596525
11681.6	0.00809396
11690.4	0.00979752
11701.4	0.0119259
11710.2	0.0136265
11721.3	0.0157478
11730.1	0.0174398
11741.1	0.019547
11752.2	0.0216433
11761	0.0233112
11772	0.0253827
11780.8	0.0270279
11791.9	0.0290676
11800.7	0.0306847
11811.7	0.032686
11820.5	0.0342696
11831.6	0.0362257
11840.4	0.0377705
11851.4	0.039675
11860.3	0.041176
11871.3	0.0430226
11880.1	0.044475
11891.1	0.0462579
11902.2	0.048003
11911	0.0493707
11922	0.0510438
11930.8	0.0523519
11941.9	0.0539481
11950.7	0.055193
11961.7	0.0567081
11970.6	0.0578868
11981.6	0.0593173
11990.4	0.0604271
12001.4	0.0617702
12010.3	0.0628091
12021.3	0.0640627
12030.1	0.0650294
12041.2	0.0661922
12052.2	0.0673042
12061	0.0681574
12072	0.0691782
12080.9	0.0699586
12091.9	0.0708892
12100.7	0.071598
12111.8	0.0724399
12120.6	0.0730787
12131.6	0.0738346
12140.4	0.0744058
12151.5	0.0750789
12160.3	0.0755855
12171.3	0.07618
12180.1	0.0766255
12191.2	0.0771461
12202.2	0.0776278
12211	0.0779864
12222.1	0.0784027
12230.9	0.0787112
12241.9	0.0790679
12250.7	0.0793313
12261.8	0.0796346
12270.6	0.0798578
12281.6	0.0801142
12290.5	0.0803023
12301.5	0.0805179
12310.3	0.0806759
12321.3	0.0808569
12330.2	0.0809897
12341.2	0.081142
12350	0.0812539
12361	0.0813829
12372.1	0.0815011
12380.9	0.0815887
12391.9	0.0816908
12400.8	0.0817672
12411.8	0.0818569
12420.6	0.0819247
12431.6	0.082005
12440.5	0.0820661
12451.5	0.0821391
12460.3	0.0821949
12471.4	0.0822616
12480.2	0.0823125
12491.2	0.082373
12500	0.0824188
12511.1	0.0824724
12522.1	0.0825214
12530.9	0.0825569
12542	0.0825958
12550.8	0.082622
12561.8	0.0826476
12570.6	0.0826617
12581.7	0.0826702
12590.5	0.0826688
12601.5	0.0826555
12610.3	0.0826346
12621.4	0.0825942
12630.2	0.0825494
12641.2	0.0824764
12650.1	0.082403
12661.1	0.0822912
12672.1	0.0821551
12680.9	0.0820275
12692	0.0818428
12700.8	0.0816738
12711.8	0.0814343
12720.7	0.0812189
12731.7	0.0809183
12740.5	0.0806517
12751.5	0.0802841
12760.4	0.0799615
12771.4	0.0795214
12780.2	0.0791387
12791.2	0.0786209
12800.1	0.0781742
12811.1	0.0775742
12822.1	0.076927
12831	0.0763744
12842	0.0756393
12850.8	0.0750153
12861.8	0.0741899
12870.7	0.0734928
12881.7	0.0725751
12890.5	0.0718037
12901.6	0.0707928
12910.4	0.0699467
12921.4	0.0688425
12930.2	0.067922
12941.3	0.0667253
12950.1	0.0657313
12961.1	0.0644437
12972.2	0.0631066
12981	0.0620019
12992	0.0605782
13000.8	0.0594056
13011.9	0.0578989
13020.7	0.0566616
13031.7	0.0550765
13040.5	0.0537785
13051.6	0.0521201
13060.4	0.0507658
13071.4	0.0490399
13080.3	0.0476342
13091.3	0.0458473
13100.1	0.0443953
13111.1	0.0425543
13122.2	0.0406863
13131	0.039174
13142	0.0372634
13150.9	0.0357202
13161.9	0.0337748
13170.7	0.0322071
13181.7	0.0302351
13190.6	0.0286493
13201.6	0.0266589
13210.4	0.0250617
13221.4	0.0230614
13230.3	0.0214596
13241.3	0.0194576
13250.1	0.0178579
13261.2	0.0158627
13272.2	0.0138748
13281	0.0122914
13292	0.0103229
13300.9	0.00875819
13311.9	0.00681699
13320.7	0.00527721
13331.8	0.00337087
13340.6	0.00186189
13351.6	-2.40117e-06
13360.4	-0.001475
13371.5	-0.0032905
13380.3	-0.00472151
13391.3	-0.00648198
13400.1	-0.00786662
13411.2	-0.00956636
13420	-0.0109003
13431	-0.0125343
13442.1	-0.0141297
13450.9	-0.0153774
13461.9	-0.0169004
13470.7	-0.0180888
13481.8	-0.0195361
13490.6	-0.0206628
13501.6	-0.0220316
13510.5	-0.0230948
13521.5	-0.0243834
13530.3	-0.0253818
13541.3	-0.026589
13550.2	-0.027522
13561.2	-0.0286473
13570	-0.0295149
13581.1	-0.0305588
13592.1	-0.0315577
13600.9	-0.0323247
13611.9	-0.0332439
13620.8	-0.0339479
13631.8	-0.0347893
13640.6	-0.0354321
13651.6	-0.0361982
13660.5	-0.0367818
13671.5	-0.0374757
13680.3	-0.0380028
13691.4	-0.0386277
13700.2	-0.0391011
13711.2	-0.0396608
13720	-0.0400836
13731.1	-0.040582
13742.1	-0.0410481
13750.9	-0.0413986
13762	-0.0418099
13770.8	-0.0421182
13781.8	-0.0424787
13790.6	-0.0427481
13801.7	-0.043062
13810.5	-0.0432956
13821.5	-0.0435668
13830.3	-0.0437679
13841.4	-0.0440001
13850.2	-0.0441714
13861.2	-0.0443682
13870.1	-0.0445124
13881.1	-0.0446769
13892.1	-0.0448246
13900.9	-0.0449313
13912	-0.0450509
13920.8	-0.0451361
13931.8	-0.0452298
13940.7	-0.0452949
13951.7	-0.0453646
13960.5	-0.0454111
13971.5	-0.0454581
13980.4	-0.045487
13991.4	-0.0455126
14000.2	-0.0455247
14011.3	-0.0455295
14020.1	-0.0455253
14031.1	-0.04551
14042.1	-0.0454837
14051	-0.0454547
14062	-0.0454086
14070.8	-0.0453639
14081.9	-0.0452982
14090.7	-0.0452378
14101.7	-0.0451525
14110.5	-0.0450763
14121.6	-0.0449713
14130.4	-0.0448795
14141.4	-0.0447548
14150.2	-0.0446473
14161.3	-0.0445032
14170.1	-0.0443801
14181.1	-0.0442167
14192.2	-0.0440428
14201	-0.0438962
14212	-0.0437037
14220.8	-0.0435426
14231.9	-0.0433324
14240.7	-0.0431573
14251.7	-0.0429303
14260.5	-0.0427423
14271.6	-0.0424997
14280.4	-0.0422998
14291.4	-0.042043
14300.3	-0.0418324
14311.3	-0.0415632
14320.1	-0.0413433
14331.1	-0.0410634
14342.2	-0.0407784
14351	-0.0405472
14362	-0.0402548
14370.9	-0.0400186
14381.9	-0.0397209
14390.7	-0.0394814
14401.7	-0.0391807
14410.6	-0.0389397
14421.6	-0.0386384
14430.4	-0.0383977
14441.5	-0.038098
14450.3	-0.0378595
14461.3	-0.0375635
14470.1	-0.0373288
14481.2	-0.0370387
14492.2	-0.0367526
14501	-0.036527
14512.1	-0.0362496
14520.9	-0.0360316
14531.9	-0.0357645
14540.7	-0.0355552
14551.8	-0.0352995
14560.6	-0.0350999
14571.6	-0.0348567
14580.4	-0.0346674
14591.5	-0.0344373
14600.3	-0.0342586
14611.3	-0.0340419
14620.2	-0.0338739
14631.2	-0.0336706
14640	-0.0335131
14651	-0.0333225
14662.1	-0.0331387
14670.9	-0.0329963
14681.9	-0.0328237
14690.8	-0.0326897
14701.8	-0.0325269
14710.6	-0.0324
14721.6	-0.032245
14730.5	-0.0321235
14741.5	-0.031974
14750.3	-0.0318559
14761.3	-0.0317094
14770.2	-0.0315925
14781.2	-0.0314459
14790	-0.0313276
14801.1	-0.0311776
14812.1	-0.0310243
14820.9	-0.0308984
14831.9	-0.030736
14840.8	-0.0306014
14851.8	-0.0304262
14860.6	-0.0302797
14871.7	-0.0300876
14880.5	-0.029926
14891.5	-0.0297129
14900.3	-0.0295328
14911.4	-0.0292946
14920.2	-0.0290928
14931.2	-0.0288255
14940	-0.0285988
14951.1	-0.0282984
14962.1	-0.027978
14970.9	-0.0277065
14982	-0.0273473
14990.8	-0.0270435
15001.8	-0.0266424
15010.6	-0.0263038
15021.7	-0.0258578
15030.5	-0.0254824
15041.5	-0.0249893
15050.4	-0.0245754
15061.4	-0.0240333
15070.2	-0.0235797
15081.2	-0.0229876
15090.1	-0.0224936
15101.1	-0.0218508
15112.1	-0.02118
15121	-0.0206232
15132	-0.0199024
15140.8	-0.0193062
15151.8	-0.0185369
15160.7	-0.0179027
15171.7	-0.017087
15180.5	-0.0164168
15191.5	-0.0155578
15200.4	-0.0148543
15211.4	-0.0139557
15220.2	-0.0132221
15231.3	-0.0122883
15240.1	-0.0115286
15251.1	-0.0105647
15262.1	-0.0095865
15271	-0.00879492
15282	-0.00779582
15290.8	-0.00699008
15301.9	-0.00597658
15310.7	-0.00516206
15321.7	-0.00414108
15330.5	-0.00332342
15341.6	-0.00230215
15350.4	-0.00148718
15361.4	-0.00047295
15370.2	0.000333421
15381.3	0.00133321
15390.1	0.00212509
15401.1	0.00310312
15412.2	0.00406598
15421	0.0048239
15432	0.00575407
15440.8	0.00648316
15451.9	0.00737407
15460.7	0.00806926
15471.7	0.00891482
15480.6	0.00957146
15491.6	0.0103662
15500.4	0.0109801
15511.4	0.0117191
15520.3	0.0122867
15531.3	0.0129659
15540.1	0.0134843
15551.2	0.0141003
15562.2	0.0146801
15571	0.0151175
15582	0.0156306
15590.9	0.0160141
15601.9	0.0164594
15610.7	0.0167883
15621.7	0.0171654
15630.6	0.0174399
15641.6	0.0177493
15650.4	0.0179701
15661.5	0.018213
15670.3	0.0183813
15681.3	0.0185598
15690.1	0.0186776
15701.2	0.0187943
15712.2	0.018878
15721	0.0189219
15732.1	0.0189491
15740.9	0.0189494
15751.9	0.0189241
15760.7	0.018884
15771.8	0.0188105
15780.6	0.0187338
15791.6	0.0186167
15800.4	0.0185071
15811.5	0.0183513
15820.3	0.0182126
15831.3	0.0180229
15840.2	0.0178591
15851.2	0.0176404
15860	0.0174554
15871	0.0172125
15882.1	0.0169582
15890.9	0.0167474
15901.9	0.0164759
15910.8	0.0162531
15921.8	0.0159686
15930.6	0.015737
15941.6	0.0154433
15950.5	0.0152058
15961.5	0.0149063
15970.3	0.0146654
15981.4	0.0143632
15990.2	0.0141212
16001.2	0.0138188
16010	0.0135774
16021.1	0.0132768
16032.1	0.012978
16040.9	0.0127404
16051.9	0.0124456
16060.8	0.0122116
16071.8	0.0119216
16080.6	0.0116917
16091.7	0.0114069
16100.5	0.0111811
16111.5	0.0109014
16120.3	0.0106795
16131.4	0.0104043
16140.2	0.0101857
16151.2	0.00991407
16160.1	0.00969786
16171.1	0.00942859
16182.1	0.00915996
16190.9	0.00894516
16202	0.0086763
16210.8	0.00846057
16221.8	0.00818954
16230.6	0.00797123
16241.7	0.00769589
16250.5	0.00747322
16261.5	0.00719128
16270.4	0.00696239
16281.4	0.00667148
16290.2	0.00643444
16301.2	0.00613211
16310.1	0.00588495
16321.1	0.00556876
16332.1	0.00524381
16341	0.00497705
16352	0.00463447
16360.8	0.00435267
16371.8	0.00399014
16380.7	0.00369147
16391.7	0.00330675
16400.5	0.00298947
16411.6	0.00258046
16420.4	0.00224295
16431.4	0.00180768
16440.2	0.00144841
16451.3	0.000985076
16460.1	0.000602691
16471.1	0.000109666
16482.2	-0.000400487
16491	-0.000821219
16502	-0.00136321
16510.8	-0.00180988
16521.9	-0.00238484
16530.7	-0.00285826
16541.7	-0.00346708
16550.5	-0.00396789
16561.6	-0.00461125
16570.4	-0.00513991
16581.4	-0.00581826
16590.3	-0.00637501
16601.3	-0.00708855
16610.1	-0.00767346
16621.1	-0.00842215
16632.2	-0.00919024
16641	-0.00981859
16652	-0.0106212
16660.8	-0.0112769
16671.9	-0.0121133
16680.7	-0.0127957
16691.7	-0.0136648
16700.6	-0.0143729
16711.6	-0.0152734
16720.4	-0.016006
16731.4	-0.0169363
16740.3	-0.0176918
16751.3	-0.0186499
16760.1	-0.0194268
16771.2	-0.0204103
16782.2	-0.0214068
16791	-0.0222128
16802	-0.0232304
16810.9	-0.024052
16821.9	-0.0250876
16830.7	-0.0259221
16841.8	-0.026972
16850.6	-0.0278165
16861.6	-0.0288768
16870.4	-0.029728
16881.5	-0.0307944
16890.3	-0.0316487
16901.3	-0.0327167
16910.1	-0.0335702
16921.2	-0.0346348
16930	-0.0354836
16941	-0.0365396
16952.1	-0.0375885
16960.9	-0.0384213
16971.9	-0.039453
16980.7	-0.0402697
16991.8	-0.0412784
17000.6	-0.0420743
17011.6	-0.043054
17020.5	-0.0438243
17031.5	-0.044769
17040.3	-0.0455089
17051.3	-0.0464125
17060.2	-0.0471172
17071.2	-0.0479737
17080	-0.0486383
17091	-0.0494418
17102.1	-0.0502133
17110.9	-0.0508064
17121.9	-0.0515162
17130.8	-0.0520576
17141.8	-0.0527003
17150.6	-0.0531861
17161.6	-0.0537568
17170.5	-0.0541832
17181.5	-0.0546775
17190.3	-0.0550411
17201.4	-0.055455
17210.2	-0.055753
17221.2	-0.0560832
17230	-0.0563131
17241.1	-0.0565569
17252.1	-0.0567518
17260.9	-0.0568722
17272	-0.0569778
17280.8	-0.0570263
17291.8	-0.0570417
17300.6	-0.0570179
17311.7	-0.0569429
17320.5	-0.0568469
17331.5	-0.056682
17340.3	-0.0565144
17351.4	-0.0562608
17360.2	-0.056023
17371.2	-0.0556825
17380.1	-0.0553762
17391.1	-0.0549516
17402.1	-0.0544814
17410.9	-0.0540733
17422	-0.053524
17430.8	-0.0530541
17441.8	-0.0524298
17450.7	-0.0519015
17461.7	-0.0512065
17470.5	-0.0506236
17481.5	-0.0498626
17490.4	-0.049229
17501.4	-0.0484074
17510.2	-0.0477273
17521.3	-0.0468503
17530.1	-0.0461281
17541.1	-0.0452012
17552.1	-0.044249
17561	-0.0434703
17572	-0.0424771
17580.8	-0.0416677
17591.8	-0.0406391
17600.7	-0.0398036
17611.7	-0.0387451
17620.5	-0.0378879
17631.6	-0.036805
17640.4	-0.0359304
17651.4	-0.0348282
17660.2	-0.0339404
17671.3	-0.0328241
17680.1	-0.0319268
17691.1	-0.0308012
17702.2	-0.0296724
17711	-0.0287678
17722	-0.0276365
17730.8	-0.0267316
17741.9	-0.0256018
17750.7	-0.0246997
17761.7	-0.0235751
17770.5	-0.0226785
17781.6	-0.0215625
17790.4	-0.020674
17801.4	-0.0195696
17810.3	-0.0186915
17821.3	-0.0176014
17830.1	-0.0167358
17841.1	-0.0156624
17852.2	-0.0145992
17861	-0.0137564
17872	-0.0127132
17880.9	-0.011887
17891.9	-0.0108654
17900.7	-0.0100572
17911.7	-0.00905862
17920.6	-0.00826941
17931.6	-0.00729527
17940.4	-0.00652606
17951.5	-0.00557746
17960.3	-0.0048291
17971.3	-0.00390704
17980.1	-0.00318028
17991.2	-0.00228567
18002.2	-0.00140667
18011	-0.000714881
18022	0.00013538
18030.9	0.000803859
18041.9	0.00162459
18050.7	0.00226912
18061.8	0.00305951
18070.6	0.00367944
18081.6	0.00443866
18090.4	0.0050333
18101.5	0.00576045
18110.3	0.00632907
18121.3	0.0070232
18130.2	0.00756498
18141.2	0.00822504
18150	0.00873913
18161	0.00936399
18172.1	0.00996877
18180.9	0.0104379
18191.9	0.0110055
18200.7	0.0114444
18211.8	0.0119735
18220.6	0.012381
18231.6	0.0128702
18240.5	0.0132451
18251.5	0.0136929
18260.3	0.014034
18271.3	0.0144388
18280.2	0.0147449
18291.2	0.0151051
18300	0.0153749
18311.1	0.0156889
18322.1	0.0159766
18330.9	0.0161874
18341.9	0.0164265
18350.8	0.0165978
18361.8	0.0167867
18370.6	0.0169174
18381.7	0.0170547
18390.5	0.0171435
18401.5	0.0172279
18410.3	0.0172738
18421.4	0.017304
18430.2	0.0173061
18441.2	0.0172809
18450	0.0172384
18461.1	0.0171569
18472.1	0.0170437
18480.9	0.0169303
18492	0.0167595
18500.8	0.0165998
18511.8	0.0163709
18520.6	0.0161644
18531.7	0.015877
18540.5	0.0156236
18551.5	0.0152774
18560.4	0.014977
18571.4	0.0145721
18580.2	0.0142247
18591.2	0.0137613
18600.1	0.0133672
18611.1	0.0128457
18622.1	0.0122921
18630.9	0.0118264
18642	0.011216
18650.8	0.0107051
18661.8	0.0100388
18670.7	0.00948379
18681.7	0.00876297
18690.5	0.00816501
18701.5	0.00739137
18710.4	0.0067519
18721.4	0.00592742
18730.2	0.00524817
18741.3	0.00437516
18750.1	0.00365812
18761.1	0.00273927
18772.1	0.00179623
18781	0.00102507
18792	4.10906e-05
18800.8	-0.000761408
18811.9	-0.00178267
18820.7	-0.00261342
18831.7	-0.00366791
18840.5	-0.00452349
18851.6	-0.00560674
18860.4	-0.00648341
18871.4	-0.00759053
18880.2	-0.00848423
18891.3	-0.00960993
18900.1	-0.0105163
18911.1	-0.0116549
18922.2	-0.0127981
18931	-0.0137146
18942	-0.0148611
18950.8	-0.0157778
18961.9	-0.0169211
18970.7	-0.0178324
18981.7	-0.0189657
18990.6	-0.0198662
19001.6	-0.0209822
19010.4	-0.0218661
19021.4	-0.0229578
19030.3	-0.0238192
19041.3	-0.0248791
19050.1	-0.0257121
19061.2	-0.0267328
19072.2	-0.0277285
19081	-0.0285055
19092	-0.0294506
19100.9	-0.0301842
19111.9	-0.0310714
19120.7	-0.0317559
19131.7	-0.0325782
19140.6	-0.0332082
19151.6	-0.0339591
19160.4	-0.0345294
19171.5	-0.0352026
19180.3	-0.0357083
19191.3	-0.036298
19200.1	-0.0367348
19211.2	-0.0372357
19222.2	-0.0376853
19231	-0.0380072
19242.1	-0.0383611
19250.9	-0.0386049
19261.9	-0.0388597
19270.7	-0.0390229
19281.8	-0.0391756
19290.6	-0.0392562
19301.6	-0.0393048
19310.4	-0.0393016
19321.5	-0.0392448
19330.3	-0.039157
19341.3	-0.0389943
19350.2	-0.038822
19361.2	-0.0385539
19370	-0.0382975
19381	-0.0379252
19392.1	-0.0374957
19400.9	-0.0371114
19411.9	-0.036581
19420.8	-0.0361172
19431.8	-0.035489
19440.6	-0.0349484
19451.6	-0.0342262
19460.5	-0.0336122
19471.5	-0.0328005
19480.3	-0.0321168
19491.4	-0.0312206
19500.2	-0.0304714
19511.2	-0.0294963
19520	-0.0286864
19531.1	-0.0276383
19542.1	-0.0265525
19550.9	-0.025658
19561.9	-0.0245093
19570.8	-0.0235673
19581.8	-0.0223627
19590.6	-0.0213787
19601.7	-0.0201252
19610.5	-0.019105
19621.5	-0.0178098
19630.3	-0.0167591
19641.4	-0.0154295
19650.2	-0.0143542
19661.2	-0.0129975
19670	-0.0119035
19681.1	-0.0105268
19692.1	-0.00914226
19700.9	-0.00803031
19712	-0.00663682
19720.8	-0.0055205
19731.8	-0.00412493
19740.6	-0.00300962
19751.7	-0.00161858
19760.5	-0.000509433
19771.5	0.000870785
19780.4	0.00196884
19791.4	0.00333223
19800.2	0.00441453
19811.2	0.00575546
19820.1	0.00681764
19831.1	0.00813083
19842.1	0.00942648
19851	0.0104494
19862	0.0117099
19870.8	0.0127029
19881.8	0.013924
19890.7	0.014884
19901.7	0.0160618
19910.5	0.0169858
19921.6	0.018117
19930.4	0.0190025
19941.4	0.0200841
19950.2	0.0209288
19961.3	0.0219583
19970.1	0.0227603
19981.1	0.0237355
19992.1	0.0246797
