0	0
16.252	0
32.504	0
48.756	0
65.008	0
81.2599	0
97.5119	0
113.764	0
130.016	0
146.268	0
162.52	0
178.772	0
195.024	0
211.276	0
227.528	0
243.78	0
260.032	0
276.284	0
292.536	0
308.788	0
325.04	0
341.292	0
357.544	0
373.796	0
390.048	0
406.3	0
422.552	0
438.804	0
455.056	0
471.308	0
487.56	0
503.812	0
520.064	0
536.316	0
552.568	0
568.82	0
585.072	0
601.324	0
617.576	0
633.828	0
650.08	0
666.332	0
682.584	0
698.836	0
715.088	0
731.34	0
747.591	0
763.843	0
780.095	0
796.347	0
812.599	0
828.851	0
845.103	0
861.355	0
877.607	0
893.859	0
910.111	0
926.363	0
942.615	0
958.867	0
975.119	0
991.371	0
1007.62	0
1023.88	0
1040.13	0
1056.38	0
1072.63	0
1088.88	0
1105.14	0
1121.39	0
1137.64	0
1153.89	0
1170.14	0
1186.4	0
1202.65	0
1218.9	0
1235.15	0
1251.4	0
1267.66	0
1283.91	0
1300.16	0
1316.41	0
1332.66	0
1348.92	0
1365.17	0
1381.42	0
1397.67	0
1413.92	0
1430.18	0
1446.43	0
1462.68	0
1478.93	0
1495.18	0
1511.43	0
1527.69	0
1543.94	0
1560.19	0
1576.44	0
1592.69	0
1608.95	0
1625.2	0
1641.45	0
1657.7	0
1673.95	0
1690.21	0
1706.46	0
1722.71	0
1738.96	0
1755.21	0
1771.47	0
1787.72	0
1803.97	0
1820.22	0
1836.47	0
1852.73	0
1868.98	0
1885.23	0
1901.48	0
1917.73	0
1933.99	0
1950.24	0
1966.49	0
1982.74	0
1998.99	0
2015.25	0
2031.5	0
2047.75	0
2064	0
2080.25	0
2096.51	0
2112.76	0
2129.01	0
2145.26	-9.09495e-13
2161.51	-9.09495e-13
2177.77	-1.81899e-12
2194.02	-2.72848e-12
2210.27	-4.54747e-12
2226.52	-7.27596e-12
2242.77	-1.18234e-11
2259.03	-1.72804e-11
2275.28	-2.63753e-11
2291.53	-4.09273e-11
2307.78	-6.18456e-11
2324.03	-9.27685e-11
2340.29	-1.39153e-10
2356.54	-2.07365e-10
2372.79	-3.065e-10
2389.04	-4.4929e-10
2405.29	-6.53927e-10
2421.55	-9.44965e-10
2437.8	-1.35606e-09
2454.05	-1.93359e-09
2470.3	-2.73849e-09
2486.55	-3.85535e-09
2502.81	-5.3933e-09
2519.06	-7.49878e-09
2535.31	-1.03646e-08
2551.56	-1.42418e-08
2567.81	-1.94568e-08
2584.07	-2.64317e-08
2600.32	-3.57095e-08
2616.57	-4.79822e-08
2632.82	-6.41276e-08
2649.07	-8.52569e-08
2665.33	-1.12765e-07
2681.58	-1.48394e-07
2697.83	-1.94311e-07
2714.08	-2.53192e-07
2730.33	-3.28333e-07
2746.59	-4.23766e-07
2762.84	-5.44402e-07
2779.09	-6.9619e-07
2795.34	-8.86309e-07
2811.59	-1.12337e-06
2827.85	-1.41768e-06
2844.1	-1.78145e-06
2860.35	-2.22919e-06
2876.6	-2.77794e-06
2892.85	-3.44774e-06
2909.11	-4.26193e-06
2925.36	-5.24769e-06
2941.61	-6.43644e-06
2957.86	-7.86441e-06
2974.11	-9.57313e-06
2990.36	-1.161e-05
3006.62	-1.40291e-05
3022.87	-1.68914e-05
3039.12	-2.02657e-05
3055.37	-2.42293e-05
3071.62	-2.88686e-05
3087.88	-3.42794e-05
3104.13	-4.05682e-05
3120.38	-4.78519e-05
3136.63	-5.62591e-05
3152.88	-6.59299e-05
3169.14	-7.70166e-05
3185.39	-8.96836e-05
3201.64	-0.000104108
3217.89	-0.000120477
3234.14	-0.000138994
3250.39	-0.000159868
3266.65	-0.000183321
3282.9	-0.000209584
3299.15	-0.000238894
3315.4	-0.000271494
3331.65	-0.000307629
3347.9	-0.000347543
3364.16	-0.000391477
3380.41	-0.000439662
3396.66	-0.000492318
3412.91	-0.000549644
3429.16	-0.000611814
3445.41	-0.000678972
3461.66	-0.00075122
3477.92	-0.000828612
3494.17	-0.000911143
3510.42	-0.000998741
3526.67	-0.00109125
3542.92	-0.00118843
3559.17	-0.00128994
3575.43	-0.00139529
3591.68	-0.0015039
3607.93	-0.00161502
3624.18	-0.00172774
3640.43	-0.00184097
3656.68	-0.00195343
3672.93	-0.00206362
3689.19	-0.00216984
3705.44	-0.00227012
3721.69	-0.00236224
3737.94	-0.0024437
3754.19	-0.00251174
3770.44	-0.00256327
3786.69	-0.00259491
3802.94	-0.00260295
3819.2	-0.00258336
3835.45	-0.00253179
3851.7	-0.00244354
3867.95	-0.00231357
3884.2	-0.00213655
3900.45	-0.0019068
3916.7	-0.00161833
3932.96	-0.00126488
3949.21	-0.000839906
3965.46	-0.000336614
3981.71	0.000252003
3997.96	0.000933137
4014.21	0.00171413
4030.46	0.00260241
4046.71	0.00360549
4062.97	0.00473086
4079.22	0.00598596
4095.47	0.00737813
4111.72	0.00891452
4127.97	0.010602
4144.22	0.0124473
4160.48	0.0144564
4176.73	0.0166352
4192.98	0.0189888
4209.23	0.0215219
4225.48	0.0242382
4241.73	0.0271411
4257.98	0.0302326
4274.24	0.0335143
4290.49	0.0369865
4306.74	0.0406485
4322.99	0.0444987
4339.24	0.0485342
4355.49	0.0527508
4371.75	0.0571434
4388	0.0617052
4404.25	0.0664286
4420.5	0.0713044
4436.75	0.076322
4453.01	0.0814699
4469.26	0.0867351
4485.51	0.0921033
4501.76	0.0975591
4518.01	0.103086
4534.27	0.108666
4550.52	0.114281
4566.77	0.119911
4583.02	0.125536
4599.27	0.131135
4615.53	0.136685
4631.78	0.142164
4648.03	0.14755
4664.28	0.15282
4680.53	0.157951
4696.79	0.162918
4713.04	0.167701
4729.29	0.172275
4745.54	0.176618
4761.79	0.18071
4778.04	0.184529
4794.3	0.188055
4810.55	0.191268
4826.8	0.194152
4843.05	0.196688
4859.3	0.198863
4875.56	0.200662
4891.81	0.202072
4908.06	0.203084
4924.31	0.203688
4940.56	0.203877
4956.82	0.203645
4973.07	0.20299
4989.32	0.20191
5005.57	0.200406
5021.82	0.198479
5038.08	0.196135
5054.33	0.193379
5070.58	0.19022
5086.83	0.186668
5103.08	0.182734
5119.34	0.178432
5135.59	0.173776
5151.84	0.168784
5168.09	0.163473
5184.34	0.157863
5200.6	0.151973
5216.85	0.145826
5233.1	0.139443
5249.35	0.132848
5265.6	0.126065
5281.85	0.119118
5298.11	0.112032
5314.36	0.104832
5330.61	0.0975422
5346.86	0.0901882
5363.11	0.0827946
5379.37	0.0753858
5395.62	0.0679859
5411.87	0.0606183
5428.12	0.0533056
5444.37	0.0460698
5460.63	0.0389319
5476.88	0.0319118
5493.13	0.0250286
5509.38	0.0182999
5525.63	0.0117424
5541.89	0.00537119
5558.14	-0.000799631
5574.39	-0.00675752
5590.64	-0.0124913
5606.89	-0.0179911
5623.15	-0.0232486
5639.4	-0.0282567
5655.65	-0.0330099
5671.9	-0.0375038
5688.15	-0.0417357
5704.41	-0.0457039
5720.66	-0.0494081
5736.91	-0.0528491
5753.16	-0.056029
5769.41	-0.0589508
5785.67	-0.0616188
5801.92	-0.0640379
5818.17	-0.0662142
5834.42	-0.0681544
5850.67	-0.0698661
5866.93	-0.0713572
5883.18	-0.0726366
5899.43	-0.0737135
5915.68	-0.0745973
5931.93	-0.075298
5948.18	-0.0758259
5964.44	-0.0761911
5980.69	-0.0764042
5996.94	-0.0764756
6013.19	-0.0764158
6029.44	-0.0762352
6045.7	-0.0759438
6061.95	-0.0755519
6078.2	-0.075069
6094.45	-0.0745047
6110.7	-0.0738681
6126.96	-0.0731681
6143.21	-0.0724128
6159.46	-0.0716104
6175.71	-0.0707683
6191.96	-0.0698936
6208.22	-0.0689928
6224.47	-0.068072
6240.72	-0.0671368
6256.97	-0.0661925
6273.22	-0.0652436
6289.48	-0.0642942
6305.73	-0.0633482
6321.98	-0.0624088
6338.23	-0.0614787
6354.48	-0.0605605
6370.74	-0.059656
6386.99	-0.0587669
6403.24	-0.0578945
6419.49	-0.0570397
6435.74	-0.056203
6452	-0.0553848
6468.25	-0.0545852
6484.5	-0.0538039
6500.75	-0.0530405
6517	-0.0522945
6533.26	-0.0515651
6549.51	-0.0508513
6565.76	-0.0501523
6582.01	-0.0494668
6598.26	-0.0487936
6614.52	-0.0481316
6630.77	-0.0474795
6647.02	-0.0468359
6663.27	-0.0461996
6679.52	-0.0455694
6695.78	-0.0449439
6712.03	-0.044322
6728.28	-0.0437026
6744.53	-0.0430846
6760.78	-0.042467
6777.04	-0.0418489
6793.29	-0.0412296
6809.54	-0.0406084
6825.79	-0.0399845
6842.04	-0.0393576
6858.3	-0.0387273
6874.55	-0.0380933
6890.8	-0.0374554
6907.05	-0.0368136
6923.3	-0.036168
6939.56	-0.0355186
6955.81	-0.0348659
6972.06	-0.0342101
6988.31	-0.0335516
7004.56	-0.0328912
7020.82	-0.0322293
7037.07	-0.0315667
7053.32	-0.0309042
7069.57	-0.0302426
7085.82	-0.0295828
7102.08	-0.0289257
7118.33	-0.0282724
7134.58	-0.0276239
7150.83	-0.0269811
7167.08	-0.0263453
7183.34	-0.0257174
7199.59	-0.0250985
7215.84	-0.0244898
7232.09	-0.0238922
7248.34	-0.0233069
7264.6	-0.0227348
7280.85	-0.0221769
7297.1	-0.0216342
7313.35	-0.0211076
7329.6	-0.0205979
7345.86	-0.020106
7362.11	-0.0196326
7378.36	-0.0191783
7394.61	-0.0187438
7410.86	-0.0183296
7427.12	-0.0179361
7443.37	-0.0175638
7459.62	-0.017213
7475.87	-0.0168839
7492.12	-0.0165765
7508.38	-0.0162911
7524.63	-0.0160275
7540.88	-0.0157856
7557.13	-0.0155653
7573.38	-0.0153662
7589.64	-0.0151881
7605.89	-0.0150305
7622.14	-0.0148928
7638.39	-0.0147745
7654.64	-0.014675
7670.89	-0.0145934
7687.15	-0.014529
7703.4	-0.014481
7719.65	-0.0144485
7735.9	-0.0144304
7752.15	-0.0144258
7768.41	-0.0144337
7784.66	-0.0144528
7800.91	-0.0144821
7817.16	-0.0145205
7833.41	-0.0145667
7849.67	-0.0146195
7865.92	-0.0146778
7882.17	-0.0147403
7898.42	-0.0148057
7914.67	-0.0148729
7930.93	-0.0149406
7947.18	-0.0150076
7963.43	-0.0150726
7979.68	-0.0151346
7995.93	-0.0151923
8012.18	-0.0152447
8028.44	-0.0152906
8044.69	-0.0153289
8060.94	-0.0153588
8077.19	-0.0153791
8093.44	-0.0153889
8109.7	-0.0153874
8125.95	-0.0153738
8142.2	-0.0153472
8158.45	-0.015307
8174.7	-0.0152524
8190.96	-0.015183
8207.21	-0.0150982
8223.46	-0.0149974
8239.71	-0.0148803
8255.96	-0.0147466
8272.21	-0.0145959
8288.47	-0.0144281
8304.72	-0.0142429
8320.97	-0.0140404
8337.22	-0.0138205
8353.47	-0.0135832
8369.73	-0.0133287
8385.98	-0.0130571
8402.23	-0.0127686
8418.48	-0.0124635
8434.73	-0.0121421
8450.99	-0.0118049
8467.24	-0.0114522
8483.49	-0.0110846
8499.74	-0.0107026
8515.99	-0.0103068
8532.25	-0.0098978
8548.5	-0.00947622
8564.75	-0.00904279
8581	-0.00859825
8597.25	-0.00814334
8613.5	-0.00767885
8629.76	-0.0072056
8646.01	-0.00672441
8662.26	-0.00623614
8678.51	-0.00574165
8694.76	-0.00524183
8711.02	-0.00473755
8727.27	-0.00422971
8743.52	-0.00371922
8759.77	-0.00320697
8776.02	-0.00269386
8792.28	-0.00218078
8808.53	-0.00166864
8824.78	-0.0011583
8841.03	-0.000650631
8857.28	-0.000146493
8873.54	0.000353276
8889.79	0.000847856
8906.04	0.00133644
8922.29	0.00181825
8938.54	0.00229253
8954.8	0.00275855
8971.05	0.00321559
8987.3	0.00366297
9003.55	0.00410004
9019.8	0.00452618
9036.05	0.0049408
9052.31	0.00534332
9068.56	0.00573323
9084.81	0.00611001
9101.06	0.00647321
9117.31	0.00682239
9133.57	0.00715714
9149.82	0.0074771
9166.07	0.00778194
9182.32	0.00807134
9198.57	0.00834503
9214.83	0.00860279
9231.08	0.00884439
9247.33	0.00906966
9263.58	0.00927846
9279.83	0.00947066
9296.09	0.00964617
9312.34	0.00980494
9328.59	0.00994693
9344.84	0.0100721
9361.09	0.0101806
9377.35	0.0102723
9393.6	0.0103473
9409.85	0.0104057
9426.1	0.0104477
9442.35	0.0104733
9458.61	0.0104827
9474.86	0.0104761
9491.11	0.0104536
9507.36	0.0104154
9523.61	0.0103617
9539.87	0.0102928
9556.12	0.0102089
9572.37	0.0101102
9588.62	0.00999699
9604.87	0.0098695
9621.12	0.00972801
9637.38	0.00957281
9653.63	0.00940418
9669.88	0.00922239
9686.13	0.00902776
9702.38	0.00882057
9718.64	0.00860112
9734.89	0.00836972
9751.14	0.00812667
9767.39	0.00787228
9783.64	0.00760685
9799.9	0.0073307
9816.15	0.00704414
9832.4	0.00674747
9848.65	0.006441
9864.9	0.00612505
9881.16	0.00579991
9897.41	0.00546589
9913.66	0.0051233
9929.91	0.00477245
9946.16	0.00441363
9962.42	0.00404715
9978.67	0.0036733
9994.92	0.00329238
10011.2	0.00290469
10027.4	0.00251052
10043.7	0.00211016
10059.9	0.00170391
10076.2	0.00129204
10092.4	0.000874853
10108.7	0.000452627
10124.9	2.56456e-05
10141.2	-0.000405811
10157.4	-0.000841462
10173.7	-0.00128103
10189.9	-0.00172425
10206.2	-0.00217083
10222.4	-0.00262051
10238.7	-0.00307302
10255	-0.00352808
10271.2	-0.00398545
10287.5	-0.00444484
10303.7	-0.004906
10320	-0.00536868
10336.2	-0.00583261
10352.5	-0.00629753
10368.7	-0.00676321
10385	-0.00722938
10401.2	-0.0076958
10417.5	-0.00816223
10433.7	-0.00862842
10450	-0.00909414
10466.2	-0.00955915
10482.5	-0.0100232
10498.7	-0.0104861
10515	-0.0109476
10531.2	-0.0114075
10547.5	-0.0118655
10563.7	-0.0123215
10580	-0.0127753
10596.2	-0.0132265
10612.5	-0.0136751
10628.7	-0.0141207
10645	-0.0145633
10661.3	-0.0150026
10677.5	-0.0154384
10693.8	-0.0158706
10710	-0.0162989
10726.3	-0.0167232
10742.5	-0.0171432
10758.8	-0.0175589
10775	-0.0179699
10791.3	-0.0183762
10807.5	-0.0187776
10823.8	-0.0191739
10840	-0.0195649
10856.3	-0.0199505
10872.5	-0.0203305
10888.8	-0.0207047
10905	-0.0210729
10921.3	-0.0214351
10937.5	-0.021791
10953.8	-0.0221404
10970	-0.0224833
10986.3	-0.0228193
11002.5	-0.0231485
11018.8	-0.0234705
11035	-0.0237853
11051.3	-0.0240926
11067.6	-0.0243923
11083.8	-0.0246842
11100.1	-0.0249681
11116.3	-0.0252439
11132.6	-0.0255113
11148.8	-0.0257702
11165.1	-0.0260205
11181.3	-0.0262618
11197.6	-0.0264941
11213.8	-0.0267171
11230.1	-0.0269307
11246.3	-0.0271346
11262.6	-0.0273287
11278.8	-0.0275127
11295.1	-0.0276865
11311.3	-0.0278498
11327.6	-0.0280025
11343.8	-0.0281444
11360.1	-0.0282752
11376.3	-0.0283947
11392.6	-0.0285028
11408.8	-0.0285993
11425.1	-0.0286839
11441.3	-0.0287564
11457.6	-0.0288167
11473.9	-0.0288646
11490.1	-0.0288998
11506.4	-0.0289222
11522.6	-0.0289316
11538.9	-0.0289277
11555.1	-0.0289105
11571.4	-0.0288798
11587.6	-0.0288354
11603.9	-0.0287771
11620.1	-0.0287047
11636.4	-0.0286183
11652.6	-0.0285175
11668.9	-0.0284022
11685.1	-0.0282724
11701.4	-0.0281279
11717.6	-0.0279687
11733.9	-0.0277946
11750.1	-0.0276055
11766.4	-0.0274014
11782.6	-0.0271823
11798.9	-0.0269479
11815.1	-0.0266985
11831.4	-0.0264338
11847.6	-0.0261539
11863.9	-0.0258588
11880.2	-0.0255485
11896.4	-0.025223
11912.7	-0.0248824
11928.9	-0.0245267
11945.2	-0.024156
11961.4	-0.0237704
11977.7	-0.0233699
11993.9	-0.0229548
12010.2	-0.022525
12026.4	-0.0220808
12042.7	-0.0216223
12058.9	-0.0211497
12075.2	-0.0206631
12091.4	-0.0201628
12107.7	-0.019649
12123.9	-0.0191219
12140.2	-0.0185817
12156.4	-0.0180287
12172.7	-0.0174632
12188.9	-0.0168855
12205.2	-0.0162958
12221.4	-0.0156945
12237.7	-0.0150818
12253.9	-0.0144582
12270.2	-0.013824
12286.4	-0.0131796
12302.7	-0.0125253
12319	-0.0118614
12335.2	-0.0111885
12351.5	-0.0105069
12367.7	-0.00981711
12384	-0.00911944
12400.2	-0.00841438
12416.5	-0.00770239
12432.7	-0.00698392
12449	-0.00625944
12465.2	-0.00552944
12481.5	-0.00479439
12497.7	-0.00405479
12514	-0.00331113
12530.2	-0.00256392
12546.5	-0.00181368
12562.7	-0.00106091
12579	-0.000306147
12595.2	0.000450088
12611.5	0.00120726
12627.7	0.00196485
12644	0.0027223
12660.2	0.00347908
12676.5	0.00423465
12692.7	0.00498846
12709	0.00573996
12725.3	0.00648862
12741.5	0.00723389
12757.8	0.00797522
12774	0.00871206
12790.3	0.00944387
12806.5	0.0101701
12822.8	0.0108902
12839	0.0116037
12855.3	0.01231
12871.5	0.0130086
12887.8	0.013699
12904	0.0143806
12920.3	0.0150529
12936.5	0.0157154
12952.8	0.0163677
12969	0.0170091
12985.3	0.0176393
13001.5	0.0182576
13017.8	0.0188638
13034	0.0194571
13050.3	0.0200373
13066.5	0.0206039
13082.8	0.0211564
13099	0.0216943
13115.3	0.0222173
13131.6	0.0227249
13147.8	0.0232167
13164.1	0.0236924
13180.3	0.0241514
13196.6	0.0245936
13212.8	0.0250184
13229.1	0.0254256
13245.3	0.0258148
13261.6	0.0261856
13277.8	0.0265378
13294.1	0.0268711
13310.3	0.0271851
13326.6	0.0274796
13342.8	0.0277543
13359.1	0.028009
13375.3	0.0282435
13391.6	0.0284574
13407.8	0.0286507
13424.1	0.0288231
13440.3	0.0289744
13456.6	0.0291045
13472.8	0.0292132
13489.1	0.0293005
13505.3	0.0293661
13521.6	0.0294099
13537.9	0.029432
13554.1	0.0294322
13570.4	0.0294105
13586.6	0.0293669
13602.9	0.0293012
13619.1	0.0292136
13635.4	0.029104
13651.6	0.0289725
13667.9	0.0288191
13684.1	0.0286439
13700.4	0.028447
13716.6	0.0282284
13732.9	0.0279884
13749.1	0.027727
13765.4	0.0274443
13781.6	0.0271407
13797.9	0.0268162
13814.1	0.0264711
13830.4	0.0261056
13846.6	0.0257199
13862.9	0.0253144
13879.1	0.0248893
13895.4	0.0244448
13911.6	0.0239815
13927.9	0.0234994
13944.2	0.0229991
13960.4	0.0224809
13976.7	0.0219452
13992.9	0.0213924
14009.2	0.020823
14025.4	0.0202373
14041.7	0.0196359
14057.9	0.0190192
14074.2	0.0183877
14090.4	0.0177419
14106.7	0.0170824
14122.9	0.0164097
14139.2	0.0157244
14155.4	0.015027
14171.7	0.0143182
14187.9	0.0135985
14204.2	0.0128685
14220.4	0.0121289
14236.7	0.0113803
14252.9	0.0106234
14269.2	0.00985884
14285.4	0.00908726
14301.7	0.00830936
14317.9	0.00752583
14334.2	0.00673737
14350.5	0.0059447
14366.7	0.00514851
14383	0.00434952
14399.2	0.00354846
14415.5	0.00274605
14431.7	0.00194302
14448	0.00114009
14464.2	0.000337997
14480.5	-0.000462529
14496.7	-0.00126076
14513	-0.00205598
14529.2	-0.00284746
14545.5	-0.00363448
14561.7	-0.00441634
14578	-0.00519232
14594.2	-0.00596173
14610.5	-0.00672389
14626.7	-0.0074781
14643	-0.00822372
14659.2	-0.00896007
14675.5	-0.00968652
14691.7	-0.0104024
14708	-0.0111072
14724.2	-0.0118002
14740.5	-0.0124809
14756.8	-0.0131488
14773	-0.0138032
14789.3	-0.0144436
14805.5	-0.0150696
14821.8	-0.0156806
14838	-0.0162762
14854.3	-0.016856
14870.5	-0.0174195
14886.8	-0.0179664
14903	-0.0184963
14919.3	-0.0190088
14935.5	-0.0195036
14951.8	-0.0199805
14968	-0.0204392
14984.3	-0.0208794
15000.5	-0.0213009
15016.8	-0.0217036
15033	-0.0220873
15049.3	-0.0224519
15065.5	-0.0227972
15081.8	-0.0231233
15098	-0.02343
15114.3	-0.0237173
15130.5	-0.0239853
15146.8	-0.024234
15163.1	-0.0244634
15179.3	-0.0246736
15195.6	-0.0248648
15211.8	-0.0250371
15228.1	-0.0251906
15244.3	-0.0253255
15260.6	-0.025442
15276.8	-0.0255405
15293.1	-0.025621
15309.3	-0.0256839
15325.6	-0.0257295
15341.8	-0.025758
15358.1	-0.0257699
15374.3	-0.0257654
15390.6	-0.025745
15406.8	-0.0257089
15423.1	-0.0256576
15439.3	-0.0255915
15455.6	-0.0255109
15471.8	-0.0254164
15488.1	-0.0253083
15504.3	-0.0251871
15520.6	-0.0250532
15536.8	-0.0249071
15553.1	-0.0247492
15569.4	-0.02458
15585.6	-0.0244
15601.9	-0.0242096
15618.1	-0.0240093
15634.4	-0.0237995
15650.6	-0.0235808
15666.9	-0.0233536
15683.1	-0.0231182
15699.4	-0.0228753
15715.6	-0.0226253
15731.9	-0.0223685
15748.1	-0.0221054
15764.4	-0.0218365
15780.6	-0.0215621
15796.9	-0.0212828
15813.1	-0.0209988
15829.4	-0.0207105
15845.6	-0.0204184
15861.9	-0.0201229
15878.1	-0.0198242
15894.4	-0.0195227
15910.6	-0.0192188
15926.9	-0.0189127
15943.1	-0.0186049
15959.4	-0.0182954
15975.6	-0.0179848
15991.9	-0.0176731
16008.2	-0.0173607
16024.4	-0.0170478
16040.7	-0.0167347
16056.9	-0.0164215
16073.2	-0.0161084
16089.4	-0.0157956
16105.7	-0.0154834
16121.9	-0.0151718
16138.2	-0.014861
16154.4	-0.0145511
16170.7	-0.0142423
16186.9	-0.0139347
16203.2	-0.0136283
16219.4	-0.0133233
16235.7	-0.0130198
16251.9	-0.0127178
16268.2	-0.0124173
16284.4	-0.0121185
16300.7	-0.0118214
16316.9	-0.0115259
16333.2	-0.0112322
16349.4	-0.0109403
16365.7	-0.0106501
16381.9	-0.0103617
16398.2	-0.0100751
16414.5	-0.00979025
16430.7	-0.00950721
16447	-0.00922594
16463.2	-0.00894644
16479.5	-0.00866869
16495.7	-0.00839267
16512	-0.00811837
16528.2	-0.00784577
16544.5	-0.00757485
16560.7	-0.00730558
16577	-0.00703796
16593.2	-0.00677196
16609.5	-0.00650755
16625.7	-0.00624474
16642	-0.00598349
16658.2	-0.00572379
16674.5	-0.00546564
16690.7	-0.00520902
16707	-0.00495392
16723.2	-0.00470035
16739.5	-0.0044483
16755.7	-0.00419776
16772	-0.00394875
16788.2	-0.00370128
16804.5	-0.00345535
16820.8	-0.00321098
16837	-0.00296819
16853.3	-0.002727
16869.5	-0.00248744
16885.8	-0.00224953
16902	-0.00201331
16918.3	-0.00177882
16934.5	-0.00154609
16950.8	-0.00131517
16967	-0.0010861
16983.3	-0.000858939
16999.5	-0.000633734
17015.8	-0.000410541
17032	-0.000189418
17048.3	2.95739e-05
17064.5	0.000246372
17080.8	0.000460911
17097	0.000673124
17113.3	0.000882943
17129.5	0.0010903
17145.8	0.00129511
17162	0.00149732
17178.3	0.00169684
17194.5	0.0018936
17210.8	0.00208753
17227.1	0.00227855
17243.3	0.00246658
17259.6	0.00265156
17275.8	0.0028334
17292.1	0.00301203
17308.3	0.00318738
17324.6	0.00335938
17340.8	0.00352795
17357.1	0.00369304
17373.3	0.00385456
17389.6	0.00401245
17405.8	0.00416666
17422.1	0.00431711
17438.3	0.00446375
17454.6	0.00460653
17470.8	0.00474538
17487.1	0.00488027
17503.3	0.00501114
17519.6	0.00513794
17535.8	0.00526064
17552.1	0.0053792
17568.3	0.00549359
17584.6	0.00560376
17600.8	0.00570971
17617.1	0.00581139
17633.4	0.00590881
17649.6	0.00600193
17665.9	0.00609074
17682.1	0.00617525
17698.4	0.00625544
17714.6	0.00633132
17730.9	0.00640288
17747.1	0.00647015
17763.4	0.00653313
17779.6	0.00659183
17795.9	0.00664628
17812.1	0.0066965
17828.4	0.00674252
17844.6	0.00678437
17860.9	0.00682209
17877.1	0.00685572
17893.4	0.00688529
17909.6	0.00691086
17925.9	0.00693247
17942.1	0.00695018
17958.4	0.00696404
17974.6	0.00697411
17990.9	0.00698047
18007.1	0.00698316
18023.4	0.00698226
18039.7	0.00697784
18055.9	0.00696997
18072.2	0.00695873
18088.4	0.0069442
18104.7	0.00692645
18120.9	0.00690557
18137.2	0.00688163
18153.4	0.00685474
18169.7	0.00682496
18185.9	0.0067924
18202.2	0.00675713
18218.4	0.00671925
18234.7	0.00667884
18250.9	0.00663601
18267.2	0.00659083
18283.4	0.00654341
18299.7	0.00649384
18315.9	0.00644219
18332.2	0.00638858
18348.4	0.00633308
18364.7	0.00627579
18380.9	0.0062168
18397.2	0.00615619
18413.4	0.00609406
18429.7	0.00603049
18446	0.00596557
18462.2	0.00589938
18478.5	0.00583199
18494.7	0.0057635
18511	0.00569397
18527.2	0.00562349
18543.5	0.00555213
18559.7	0.00547995
18576	0.00540704
18592.2	0.00533344
18608.5	0.00525924
18624.7	0.00518448
18641	0.00510922
18657.2	0.00503352
18673.5	0.00495744
18689.7	0.00488101
18706	0.00480428
18722.2	0.0047273
18738.5	0.0046501
18754.7	0.00457271
18771	0.00449518
18787.2	0.00441752
18803.5	0.00433976
18819.7	0.00426192
18836	0.00418401
18852.3	0.00410606
18868.5	0.00402807
18884.8	0.00395005
18901	0.00387199
18917.3	0.00379391
18933.5	0.00371579
18949.8	0.00363764
18966	0.00355943
18982.3	0.00348116
18998.5	0.0034028
19014.8	0.00332434
19031	0.00324576
19047.3	0.00316704
19063.5	0.00308813
19079.8	0.00300901
19096	0.00292966
19112.3	0.00285003
19128.5	0.00277008
19144.8	0.00268977
19161	0.00260908
19177.3	0.00252794
19193.5	0.00244632
19209.8	0.00236416
19226	0.00228143
19242.3	0.00219807
19258.6	0.00211403
19274.8	0.00202927
19291.1	0.00194373
19307.3	0.00185736
19323.6	0.00177011
19339.8	0.00168193
19356.1	0.00159277
19372.3	0.00150257
19388.6	0.0014113
19404.8	0.00131889
19421.1	0.0012253
19437.3	0.00113049
19453.6	0.00103441
19469.8	0.000937008
19486.1	0.000838252
19502.3	0.0007381
19518.6	0.000636513
19534.8	0.000533455
19551.1	0.000428894
19567.3	0.000322799
19583.6	0.000215142
19599.8	0.000105897
19616.1	-4.95574e-06
19632.3	-0.000117436
19648.6	-0.000231559
19664.8	-0.000347337
19681.1	-0.000464778
19697.4	-0.000583886
19713.6	-0.000704663
19729.9	-0.000827104
19746.1	-0.000951205
19762.4	-0.00107695
19778.6	-0.00120433
19794.9	-0.00133333
19811.1	-0.00146391
19827.4	-0.00159606
19843.6	-0.00172973
19859.9	-0.0018649
19876.1	-0.00200153
19892.4	-0.00213956
19908.6	-0.00227896
19924.9	-0.00241966
19941.1	-0.00256161
19957.4	-0.00270475
19973.6	-0.00284902
19989.9	-0.00299434
