0	0
256.387	0
512.774	0
769.161	0
1025.55	0
1281.94	0
1538.32	0
1794.71	0.00579639
2051.1	0.0119015
2307.48	0.0199423
2563.87	0.028304
2820.26	0.0383747
3076.64	0.0487598
3333.03	0.0582216
3589.42	0.0648281
3845.81	0.0678945
4102.19	0.0672768
4358.58	0.0634902
4614.97	0.0570862
4871.35	0.0487243
5127.74	0.0390386
5384.12	0.0286866
5640.51	0.0182384
5896.9	0.00815871
6153.28	-0.00121429
6409.67	-0.00962415
6666.05	-0.0168715
6922.44	-0.0227977
7178.82	-0.0272983
7435.21	-0.0303379
7691.59	-0.0319637
7947.98	-0.0323044
8204.37	-0.0315585
8460.75	-0.029972
8717.14	-0.0278119
8973.53	-0.025337
9229.91	-0.0227716
9486.3	-0.0202874
9742.69	-0.0179952
9999.08	-0.0159481
10255.5	-0.0141537
10511.8	-0.0125904
10768.2	-0.0112241
11024.6	-0.0100214
11281	-0.00895731
11537.4	-0.00801746
11793.8	-0.00719591
12050.2	-0.00649054
12306.6	-0.00589815
12562.9	-0.00541076
12819.3	-0.00501428
13075.7	-0.00468944
13332.1	-0.00441444
13588.5	-0.00416828
13844.9	-0.00393376
14101.3	-0.00369942
14357.7	-0.00346
14614	-0.00321567
14870.4	-0.00297038
15126.8	-0.00272988
15383.2	-0.00250008
15639.6	-0.00228582
15896	-0.00209049
16152.4	-0.00191615
16408.8	-0.00176394
16665.1	-0.00163469
16921.5	-0.00152914
17177.9	-0.00144804
17434.3	-0.00139182
17690.7	-0.00136017
17947.1	-0.00135158
18203.5	-0.00136302
18459.8	-0.00138993
18716.2	-0.00142646
18972.6	-0.00146603
19229	-0.0015019
19485.4	-0.00152792
19741.8	-0.00153899
19998.2	-0.00153146
