0	0
109.03	0
218.061	0
327.091	0
436.122	0
545.152	0
654.182	0
763.212	0
872.242	0
981.271	0
1090.3	4.11092e-08
1199.33	-3.67114e-06
1308.35	-3.41723e-05
1417.38	-0.000144237
1526.41	-0.000406156
1635.43	-0.000876017
1744.46	-0.00153931
1853.49	-0.00226047
1962.52	-0.00275822
2071.55	-0.00262112
2180.58	-0.00136815
2289.61	0.00145268
2398.64	0.00614692
2507.67	0.0127672
2616.7	0.0210482
2725.73	0.0304044
2834.76	0.0399959
2943.79	0.048848
3052.82	0.0559996
3161.85	0.0606487
3270.88	0.0622687
3379.91	0.0606765
3488.94	0.056044
3597.97	0.0488569
3707	0.0398325
3816.03	0.0298128
3925.06	0.0196524
4034.09	0.0101173
4143.12	0.00180942
4252.15	-0.00487715
4361.18	-0.00976633
4470.21	-0.0128804
4579.24	-0.0143986
4688.27	-0.0146043
4797.3	-0.0138289
4906.33	-0.0124034
5015.36	-0.0106202
5124.39	-0.00871137
5233.42	-0.00683974
5342.45	-0.00510349
5451.48	-0.00354839
5560.51	-0.00218437
5669.54	-0.00100208
5778.57	1.34527e-05
5887.6	0.000873919
5996.63	0.00158401
6105.66	0.00214216
6214.69	0.00254429
6323.72	0.00278892
6432.75	0.00288166
6541.78	0.00283818
6650.81	0.00268462
6759.84	0.0024556
6868.87	0.00219027
6977.9	0.00192722
7086.93	0.00169937
7195.96	0.00152965
7304.99	0.00142838
7414.02	0.00139248
7523.05	0.00140668
7632.08	0.00144635
7741.11	0.00148131
7850.15	0.00148005
7959.18	0.00141365
8068.21	0.00125893
8177.24	0.00100043
8286.27	0.000631207
8395.3	0.00015249
8504.33	-0.000427556
8613.36	-0.00109559
8722.39	-0.00183502
8831.42	-0.00262784
8940.45	-0.00345608
9049.48	-0.00430279
9158.51	-0.00515257
9267.54	-0.00599168
9376.57	-0.0068079
9485.6	-0.00759028
9594.63	-0.00832883
9703.66	-0.00901437
9812.69	-0.00963857
9921.72	-0.010194
10030.8	-0.0106745
10139.8	-0.0110752
10248.8	-0.0113931
10357.8	-0.0116269
10466.9	-0.0117773
10575.9	-0.0118467
10684.9	-0.0118391
10794	-0.0117595
10903	-0.0116139
11012	-0.0114088
11121.1	-0.0111507
11230.1	-0.010846
11339.1	-0.0105011
11448.1	-0.0101219
11557.2	-0.00971406
11666.2	-0.00928287
11775.2	-0.00883349
11884.3	-0.00837086
11993.3	-0.00789976
12102.3	-0.00742477
12211.4	-0.00695025
12320.4	-0.00648031
12429.4	-0.00601867
12538.5	-0.00556868
12647.5	-0.00513319
12756.5	-0.00471459
12865.5	-0.00431477
12974.6	-0.00393516
13083.6	-0.00357673
13192.6	-0.00324008
13301.7	-0.00292547
13410.7	-0.00263285
13519.7	-0.00236194
13628.8	-0.00211221
13737.8	-0.00188291
13846.8	-0.00167313
13955.8	-0.00148173
14064.9	-0.00130744
14173.9	-0.0011488
14282.9	-0.00100424
14392	-0.000872072
14501	-0.000750558
14610	-0.000637927
14719.1	-0.000532435
14828.1	-0.0004324
14937.1	-0.000336246
15046.2	-0.000242535
15155.2	-0.000150004
15264.2	-5.75806e-05
15373.2	3.55948e-05
15482.3	0.000130159
15591.3	0.000226518
15700.3	0.00032485
15809.4	0.000425104
15918.4	0.000527012
16027.4	0.000630099
16136.5	0.000733703
16245.5	0.000836996
16354.5	0.000939013
16463.5	0.00103868
16572.6	0.00113486
16681.6	0.00122637
16790.6	0.00131203
16899.7	0.00139073
17008.7	0.00146141
17117.7	0.00152312
17226.8	0.00157508
17335.8	0.00161665
17444.8	0.00164737
17553.9	0.00166698
17662.9	0.0016754
17771.9	0.00167277
17880.9	0.0016594
17990	0.00163575
18099	0.00160247
18208	0.00156031
18317.1	0.00151016
18426.1	0.00145296
18535.1	0.00138973
18644.2	0.0013215
18753.2	0.00124929
18862.2	0.00117411
18971.2	0.00109692
19080.3	0.00101859
19189.3	0.000939912
19298.3	0.000861584
19407.4	0.000784181
19516.4	0.000708168
19625.4	0.000633893
19734.5	0.000561589
19843.5	0.000491383
19952.5	0.000423304
