0	0
12.201	0
20.335	0
32.5359	0
40.6698	0
52.8706	0
61.0045	0
73.2051	0
81.3387	0
93.5391	0
101.673	0
113.873	0
122.006	0
130.14	0
142.34	0
150.474	0
162.674	0
170.808	0
183.008	0
191.142	0
203.308	0
211.356	0
223.316	0
231.287	0
243.244	0
251.215	0
263.172	0
271.144	0
283.101	0
291.072	0
303.028	0
310.999	0
322.956	0
330.927	0
342.884	0
350.855	0
362.811	0
370.782	0
382.739	0
390.71	0
402.666	0
410.637	0
422.594	0
430.531	0
442.427	0
450.276	0
462.038	0
473.849	0
481.694	0
493.242	0
500.934	0
512.472	0
520.165	0
531.704	0
543.243	0
550.893	0
562.311	0
573.729	0
581.331	0
592.731	0
600.33	0
611.702	0
623.068	0
630.645	0
642.004	0
653.363	0
660.936	0
672.295	0
683.654	0
691.227	0
702.585	0
710.158	0
721.517	0
732.876	0
740.449	0
751.807	0
763.163	0
770.722	0
782.048	0
793.378	0
800.931	0
812.26	0
823.589	0
831.142	0
842.471	0
850.024	0
861.353	0
872.683	0
880.236	0
891.565	0
902.894	0
910.447	0
921.776	0
933.105	0
940.658	0
951.987	0
963.316	0
970.869	0
982.198	0
993.528	0
1001.08	0
1012.41	0
1023.74	0
1031.29	0
1042.62	0
1050.17	0
1061.5	0
1072.83	0
1080.38	0
1091.71	0
1103.04	0
1110.6	0
1121.93	0
1133.25	0
1140.81	0
1152.14	0
1163.47	0
1171.02	0
1182.35	0
1193.68	0
1201.23	0
1212.56	0
1220.11	0
1231.43	0
1242.75	0
1250.29	0
1261.62	0
1272.94	0
1280.48	0
1291.8	0
1303.12	0
1310.67	0
1321.99	0
1333.31	0
1340.85	0
1352.17	0
1363.49	0
1371.03	0
1382.31	-9.09495e-13
1393.56	-2.72848e-12
1401.07	-3.63798e-12
1412.34	-6.36646e-12
1423.6	-9.09495e-12
1431.09	-1.18234e-11
1442.33	-1.72804e-11
1453.57	-2.54659e-11
1461.06	-3.27418e-11
1472.3	-4.72937e-11
1483.54	-6.91216e-11
1491.03	-8.8221e-11
1502.27	-1.27329e-10
1513.51	-1.82808e-10
1521	-2.32831e-10
1532.23	-3.31056e-10
1543.45	-4.69299e-10
1550.9	-5.90262e-10
1562.08	-8.25821e-10
1573.26	-1.15142e-09
1580.72	-1.43336e-09
1591.9	-1.98179e-09
1603.08	-2.72576e-09
1610.54	-3.36149e-09
1621.72	-4.58294e-09
1632.9	-6.21912e-09
1640.36	-7.60156e-09
1651.49	-1.02182e-08
1662.53	-1.36388e-08
1673.59	-1.81308e-08
1680.96	-2.18652e-08
1692.02	-2.88492e-08
1703.08	-3.78959e-08
1710.45	-4.53438e-08
1721.51	-5.91353e-08
1732.57	-7.6795e-08
1743.63	-9.93123e-08
1751	-1.17614e-07
1762.06	-1.51068e-07
1773.12	-1.93261e-07
1780.49	-2.27251e-07
1791.55	-2.88824e-07
1802.61	-3.6567e-07
1813.66	-4.61207e-07
1821.04	-5.37278e-07
1832.1	-6.73464e-07
1843.15	-8.41097e-07
1850.53	-9.73492e-07
1861.59	-1.20858e-06
1872.65	-1.49518e-06
1880.02	-1.71978e-06
1891.08	-2.11544e-06
1902.14	-2.59336e-06
1913.19	-3.16869e-06
1920.57	-3.61492e-06
1931.63	-4.3929e-06
1942.68	-5.32123e-06
1950.06	-6.03608e-06
1961.12	-7.27342e-06
1972.17	-8.73738e-06
1983.23	-1.04641e-05
1990.61	-1.17812e-05
2001.66	-1.40392e-05
2012.72	-1.66811e-05
2020.1	-1.86829e-05
2031.15	-2.20921e-05
2042.21	-2.60496e-05
2053.27	-3.06304e-05
2060.64	-3.40711e-05
2071.7	-3.98796e-05
2082.76	-4.65526e-05
2090.13	-5.15343e-05
2101.19	-5.98925e-05
2112.25	-6.94253e-05
2123.31	-8.0269e-05
2130.68	-8.82989e-05
2141.74	-0.000101662
2152.8	-0.000116757
2160.17	-0.000127871
2171.23	-0.000146262
2182.29	-0.000166897
2193.35	-0.000189993
2200.72	-0.00020687
2211.78	-0.000234584
2222.84	-0.000265402
2230.21	-0.000287803
2241.27	-0.000324392
2252.33	-0.000364822
2263.39	-0.000409392
2270.76	-0.000441559
2281.82	-0.000493726
2292.88	-0.000550885
2300.25	-0.000591929
2311.31	-0.000658157
2322.36	-0.000730289
2333.42	-0.000808676
2340.8	-0.000864585
2351.85	-0.000954187
2362.91	-0.00105099
2370.29	-0.0011197
2381.34	-0.00122929
2392.4	-0.00134701
2403.46	-0.00147318
2410.83	-0.00156216
2421.89	-0.00170313
2432.95	-0.00185337
2440.32	-0.00195881
2451.38	-0.00212508
2462.44	-0.00230128
2473.5	-0.0024876
2480.87	-0.00261751
2491.93	-0.00282102
2502.99	-0.00303498
2510.36	-0.00318345
2521.42	-0.00341491
2532.48	-0.00365683
2543.53	-0.00390912
2550.91	-0.00408301
2561.96	-0.00435223
2573.02	-0.00463128
2580.4	-0.00482263
2591.45	-0.00511732
2602.51	-0.00542084
2613.57	-0.00573265
2620.94	-0.00594485
2632	-0.00626915
2643.06	-0.0066
2650.43	-0.0068238
2661.49	-0.00716373
2672.55	-0.00750786
2683.61	-0.00785518
2690.98	-0.00808794
2700.03	-0.00837459
2711.09	-0.0087248
2722.15	-0.00907395
2733.21	-0.00942066
2740.58	-0.0096497
2751.64	-0.00998887
2762.69	-0.0103216
2770.07	-0.010539
2781.1	-0.0108564
2792.13	-0.0111627
2803.16	-0.0114561
2810.52	-0.0116437
2821.55	-0.0119115
2832.58	-0.0121613
2843.61	-0.0123914
2850.96	-0.0125327
2861.99	-0.0127251
2873.02	-0.0128924
2880.38	-0.012989
2891.41	-0.0131098
2902.44	-0.0132002
2913.47	-0.0132581
2920.82	-0.0132777
2931.85	-0.0132772
2942.88	-0.0132392
2950.24	-0.0131921
2961.27	-0.0130877
2972.3	-0.0129411
2983.33	-0.0127508
2990.68	-0.0125989
3001.72	-0.0123325
3012.75	-0.0120187
3020.1	-0.0117826
3031.13	-0.0113872
3042.16	-0.0109415
3053.19	-0.0104445
3060.55	-0.0100843
3071.58	-0.00950034
3082.61	-0.00886385
3093.64	-0.00817453
3100.99	-0.00768531
3112.02	-0.00690609
3123.05	-0.00607127
3130.41	-0.00548539
3141.44	-0.00456724
3152.47	-0.00360652
3163.5	-0.0025973
3170.85	-0.00189741
3181.88	-0.000789833
3192.91	0.000398907
3200.27	0.00126409
3211.3	0.00270915
3222.33	0.00307225
3233.36	0.00368321
3240.71	0.00451277
3251.74	0.00625938
3262.77	0.00841517
3270.13	0.0124742
3281.16	0.018206
3292.19	0.0223821
3303.22	0.0323387
3310.57	0.040835
3321.6	0.0535468
3332.63	0.0665625
3343.66	0.0813478
3351.02	0.0919098
3362.05	0.108472
3373.08	0.12614
3380.43	0.138552
3391.46	0.157845
3402.49	0.177375
3413.52	0.196951
3420.88	0.210216
3431.91	0.230746
3442.94	0.252022
3450.29	0.266462
3461.32	0.288291
3472.35	0.310244
3483.38	0.332246
3490.74	0.34684
3501.77	0.368428
3512.8	0.389541
3520.15	0.403355
3531.18	0.423711
3542.21	0.443576
3553.24	0.462803
3560.6	0.475182
3571.63	0.492975
3582.66	0.509709
3590.01	0.520215
3601.04	0.534925
3612.07	0.54832
3623.1	0.560354
3630.46	0.567598
3641.49	0.577252
3652.52	0.585393
3663.55	0.591938
3670.9	0.595371
3681.93	0.599063
3692.96	0.600947
3700.31	0.601173
3711.34	0.599937
3722.37	0.596776
3733.4	0.591648
3740.76	0.587114
3751.79	0.578614
3762.82	0.568048
3770.17	0.559851
3781.2	0.545826
3792.23	0.529747
3803.26	0.511649
3810.62	0.498485
3821.65	0.477125
3832.68	0.453874
3840.03	0.437348
3851.06	0.411063
3862.09	0.383039
3873.12	0.353347
3880.48	0.332664
3891.51	0.300368
3902.54	0.266612
3913.57	0.231466
3920.92	0.207291
3931.95	0.169943
3942.98	0.131333
3950.34	0.1049
3961.37	0.064367
3972.4	0.0227107
3983.43	-0.0120805
3990.78	-0.0350753
4001.81	-0.0524879
4012.84	-0.0671271
4020.2	-0.0749274
4031.23	-0.0843654
4042.26	-0.0851896
4053.29	-0.103848
4060.64	-0.107902
4071.67	-0.113842
4082.7	-0.119458
4090.06	-0.123008
4101.09	-0.128826
4112.12	-0.134289
4123.15	-0.139359
4130.5	-0.142585
4141.53	-0.147037
4152.56	-0.150987
4163.59	-0.154477
4170.95	-0.156584
4181.98	-0.159464
4193.01	-0.162064
4200.39	-0.163671
4211.45	-0.165915
4222.52	-0.167991
4233.58	-0.169917
4240.96	-0.171118
4252.03	-0.17279
4263.09	-0.174287
4270.47	-0.175174
4281.54	-0.176318
4292.6	-0.177212
4303.67	-0.177838
4311.05	-0.1781
4322.13	-0.178255
4333.21	-0.178129
4340.59	-0.177892
4351.67	-0.177321
4362.75	-0.176506
4370.13	-0.175837
4381.21	-0.17466
4392.29	-0.17329
4403.37	-0.171745
4410.75	-0.170622
4421.83	-0.168807
4432.91	-0.166839
4440.3	-0.165444
4451.37	-0.163229
4462.46	-0.160865
4473.55	-0.158357
4480.94	-0.156605
4492.09	-0.153848
4503.25	-0.150955
4510.69	-0.148955
4521.85	-0.145858
4533.02	-0.142654
4540.48	-0.140461
4551.71	-0.13709
4562.94	-0.133647
4570.42	-0.131319
4581.65	-0.127786
4592.88	-0.124215
4600.37	-0.121819
4611.6	-0.118208
4622.83	-0.114584
4630.31	-0.112165
4641.54	-0.108536
4652.77	-0.104915
4660.26	-0.102507
4671.49	-0.0989114
4682.72	-0.0953399
4690.2	-0.0929757
4701.43	-0.0894598
4712.66	-0.0859864
4720.15	-0.0836978
4731.38	-0.08031
4742.61	-0.0769822
4750.09	-0.0747998
4761.32	-0.0715843
4772.55	-0.0684429
4780.04	-0.0663918
4791.27	-0.0633829
4802.5	-0.0604578
4813.73	-0.0576193
4821.21	-0.0557761
4832.44	-0.0530867
4843.67	-0.0504891
4851.16	-0.048809
4862.39	-0.0463676
4873.62	-0.0440216
4881.1	-0.0425111
4892.33	-0.0403264
4903.56	-0.0382397
4911.05	-0.0369032
4922.28	-0.0349811
4933.51	-0.0331582
4941	-0.0319982
4952.22	-0.0303409
4963.45	-0.0287826
4970.94	-0.0277984
4982.17	-0.0264038
4993.4	-0.0251063
5000.89	-0.0242947
5012.12	-0.0231565
5023.35	-0.0221123
5030.83	-0.0214677
5042.06	-0.020577
5053.29	-0.0197762
5060.78	-0.0192917
5072.01	-0.0186374
5083.26	-0.0180678
5090.77	-0.0177346
5102.08	-0.0173023
5113.41	-0.0169514
5120.96	-0.0167622
5132.29	-0.016544
5143.62	-0.0164026
5151.17	-0.01635
5162.5	-0.0163318
5170.05	-0.0163593
5181.38	-0.0164581
5192.71	-0.016624
5200.26	-0.0167707
5211.59	-0.0170432
5222.92	-0.0173763
5230.47	-0.017631
5241.8	-0.0180598
5253.13	-0.0185428
5260.69	-0.0188937
5272.02	-0.0194613
5283.34	-0.0200764
5290.9	-0.0205114
5302.23	-0.0211998
5313.56	-0.0219286
5321.11	-0.0224357
5332.44	-0.0232262
5343.77	-0.0240502
5351.32	-0.0246168
5362.65	-0.0254907
5370.2	-0.0260881
5381.53	-0.0270044
5392.86	-0.0279426
5400.41	-0.0285789
5411.74	-0.0295478
5423.07	-0.0305316
5430.62	-0.0311946
5441.95	-0.0321976
5453.28	-0.033209
5460.84	-0.0338866
5472.16	-0.0349063
5483.49	-0.0359281
5491.05	-0.0366092
5502.38	-0.0376294
5513.71	-0.0386459
5521.26	-0.0393206
5532.58	-0.0403262
5540.13	-0.0409916
5551.45	-0.0419813
5562.77	-0.0429593
5570.32	-0.0436042
5581.64	-0.0445595
5592.96	-0.0454992
5600.51	-0.0461163
5611.83	-0.047027
5623.15	-0.0479187
5630.7	-0.048502
5642.02	-0.0493593
5653.34	-0.0501947
5660.87	-0.0507378
5672.19	-0.0515341
5683.51	-0.0523058
5691.06	-0.0528061
5702.33	-0.0535315
5713.59	-0.0542291
5721.1	-0.0546791
5732.36	-0.0553307
5743.62	-0.055953
5751.12	-0.056351
5762.36	-0.056922
5773.6	-0.0574619
5781.09	-0.0578043
5792.33	-0.0582908
5803.57	-0.0587442
5811.06	-0.0590277
5822.3	-0.0594243
5833.54	-0.0597857
5841.03	-0.0600068
5852.27	-0.060308
5863.5	-0.0605722
5870.97	-0.060727
5882.15	-0.0609269
5893.33	-0.0610884
5900.78	-0.0611744
5911.96	-0.0612703
5923.15	-0.061326
5930.6	-0.0613405
5941.79	-0.0613279
5952.97	-0.0612736
5960.42	-0.0612141
5971.61	-0.0610893
5982.79	-0.0609218
5990.19	-0.060787
6001.24	-0.0605507
6012.3	-0.0602715
6023.36	-0.0599495
6030.73	-0.059711
6041.79	-0.0593175
6052.85	-0.058881
6060.22	-0.0585661
6071.28	-0.0580582
6082.34	-0.0575075
6093.39	-0.0569144
6100.77	-0.0564954
6111.83	-0.055832
6122.88	-0.0551267
6130.26	-0.0546335
6141.32	-0.0538593
6152.38	-0.0530442
6163.43	-0.0521884
6170.81	-0.0515955
6181.87	-0.0506728
6192.92	-0.0497103
6200.3	-0.0490466
6211.36	-0.0480181
6222.41	-0.0469503
6233.47	-0.0458432
6240.85	-0.0450834
6251.9	-0.0439108
6262.96	-0.0426989
6270.34	-0.041869
6281.39	-0.0405911
6292.45	-0.0392732
6303.51	-0.0379151
6310.89	-0.0369872
6321.94	-0.0355615
6333	-0.0340949
6340.38	-0.0330943
6351.43	-0.0315593
6362.49	-0.0299834
6373.55	-0.0283669
6380.92	-0.027267
6391.98	-0.0255847
6403.04	-0.0238644
6410.41	-0.0226974
6421.47	-0.0209182
6432.53	-0.019107
6443.59	-0.0172669
6450.96	-0.0160261
6462.02	-0.014147
6473.08	-0.0122506
6480.45	-0.0109796
6491.51	-0.00906721
6502.57	-0.00715379
6513.63	-0.0052464
6521	-0.0039819
6532.06	-0.00210173
6543.12	-0.000248903
6550.49	0.000966782
6561.55	0.00275421
6572.61	0.00448987
6583.67	0.00616382
6591.04	0.00724006
6602.1	0.00878573
6613.16	0.0102356
6620.53	0.0111446
6631.59	0.0124186
6642.65	0.013584
6650.02	0.0142526
6661.08	0.0150693
6672.14	0.0157924
6683.2	0.0165044
6690.57	0.0172204
6701.63	0.018209
6712.69	0.0194577
6720.06	0.0200814
6731.12	0.021262
6742.18	0.0222987
6753.24	0.0229494
6760.61	0.0232553
6771.67	0.0236321
6782.73	0.0240246
6790.1	0.0242629
6801.16	0.0244849
6812.22	0.024556
6823.28	0.0245663
6830.65	0.0245723
6841.71	0.0245827
6852.77	0.0245763
6860.14	0.0245517
6871.2	0.0244838
6882.26	0.024394
6893.32	0.0242978
6900.69	0.0242341
6911.75	0.0241704
6922.81	0.0241334
6930.18	0.0241023
6941.24	0.0240641
6952.3	0.0240592
6963.36	0.0240811
6970.73	0.0241018
6981.79	0.0241349
6992.85	0.0241699
7000.22	0.0241946
7011.28	0.0242319
7022.34	0.0242675
7033.39	0.0243026
7040.77	0.0243302
7051.83	0.0244017
7062.89	0.0244973
7070.26	0.0245621
7081.32	0.0246617
7092.38	0.0247711
7103.43	0.0249035
7110.81	0.0250072
7121.87	0.0251814
7132.92	0.0253568
7140.3	0.0254555
7151.36	0.0255517
7162.42	0.0255942
7173.47	0.0256228
7180.84	0.0256494
7191.9	0.0257041
7202.96	0.0257684
7210.33	0.0258136
7221.37	0.0258818
7232.41	0.0259385
7243.44	0.0259621
7250.79	0.0259528
7261.82	0.0259063
7272.85	0.0258378
7280.21	0.0257874
7291.24	0.0257041
7302.27	0.0256013
7313.3	0.0254683
7320.65	0.0253618
7331.68	0.0251799
7342.71	0.02498
7350.07	0.024841
7361.1	0.0246285
7372.13	0.024413
7383.16	0.024193
7390.51	0.0240418
7401.54	0.0238058
7412.58	0.0235571
7423.61	0.0232969
7430.96	0.023118
7441.99	0.0228416
7453.02	0.022552
7460.38	0.0223471
7471.41	0.0220126
7482.44	0.021634
7493.47	0.0212035
7500.82	0.020888
7511.85	0.0203802
7522.88	0.0198484
7530.24	0.0194916
7541.27	0.0189681
7552.3	0.0184761
7563.33	0.018036
7570.68	0.0177788
7581.71	0.017451
7592.74	0.0171925
7600.1	0.0170568
7611.13	0.0169015
7622.16	0.0167968
7633.19	0.0167368
7640.54	0.0167204
7651.57	0.016728
7662.6	0.0167645
7673.64	0.0168172
7680.99	0.0168577
7692.02	0.0169262
7703.05	0.0170061
7710.4	0.0170665
7721.43	0.0171671
7732.47	0.0172777
7743.5	0.0173962
7750.85	0.0174788
7761.88	0.0176053
7772.91	0.0177321
7780.27	0.0178186
7791.3	0.01796
7802.33	0.018128
7813.36	0.01833
7820.71	0.0184825
7831.74	0.0187329
7842.77	0.0190028
7850.13	0.0191909
7861.16	0.019482
7872.19	0.0197798
7883.22	0.0200789
7890.57	0.0202763
7901.6	0.0205645
7912.63	0.0208372
7923.66	0.0210863
7931.02	0.0212343
7942.05	0.0214212
7953.08	0.0215557
7960.43	0.0216109
7971.46	0.0216352
7982.49	0.0215826
7993.53	0.0214481
8000.88	0.0213113
8011.91	0.0210346
8022.94	0.020672
8030.29	0.0203831
8041.33	0.0198803
8052.36	0.019297
8063.39	0.018637
8070.74	0.0181567
8081.77	0.0173799
8092.8	0.0165407
8100.16	0.0159495
8111.19	0.0150191
8122.22	0.01404
8133.25	0.0130112
8140.6	0.0122904
8151.63	0.011108
8162.66	0.00904226
8170.02	0.00810915
8181.05	0.00696217
8192.08	0.00525039
8203.11	0.00482153
8210.46	0.00398988
8221.49	0.00276048
8232.53	0.000460129
8243.56	-0.000720791
8250.91	-0.00145303
8261.94	-0.00248451
8272.97	-0.00346161
8280.33	-0.00410591
8291.36	-0.00507109
8302.39	-0.00603166
8313.42	-0.00698252
8320.77	-0.0076098
8331.8	-0.00854153
8342.83	-0.00946455
8350.19	-0.0100764
8361.22	-0.0109903
8372.25	-0.0119006
8383.28	-0.0128077
8390.63	-0.0134106
8401.66	-0.0143122
8412.69	-0.0152099
8420.05	-0.0158061
8431.08	-0.0166965
8442.11	-0.0175819
8453.14	-0.0184617
8460.49	-0.0190449
8471.53	-0.0199143
8482.56	-0.0207768
8493.59	-0.0216317
8500.94	-0.0221972
8511.97	-0.0230383
8523	-0.0238704
8530.36	-0.02442
8541.42	-0.0252388
8552.49	-0.0260477
8563.55	-0.0268462
8570.93	-0.0273729
8582	-0.0281542
8593.06	-0.028925
8600.44	-0.0294332
8611.51	-0.0301868
8622.57	-0.0309302
8633.64	-0.0316635
8641.01	-0.0321467
8652.08	-0.0328632
8663.15	-0.0335697
8670.52	-0.0340352
8681.59	-0.034725
8692.66	-0.0354048
8700.03	-0.0358522
8711.1	-0.0365148
8722.16	-0.0371669
8733.23	-0.0378083
8740.61	-0.0382298
8751.67	-0.0388527
8762.74	-0.0394642
8770.12	-0.0398654
8781.18	-0.0404571
8792.25	-0.0410366
8803.31	-0.0416035
8810.69	-0.0419742
8821.76	-0.0425194
8832.82	-0.043051
8840.2	-0.0433977
8851.27	-0.043906
8862.33	-0.0443999
8873.4	-0.044879
8880.77	-0.0451901
8891.84	-0.045644
8902.92	-0.0460823
8910.3	-0.0463657
8921.37	-0.0467773
8932.44	-0.0471728
8943.52	-0.0475516
8950.91	-0.0477948
8961.99	-0.0481452
8973.07	-0.0484784
8980.45	-0.0486908
8991.53	-0.0489948
9002.61	-0.049281
9013.69	-0.0495493
9021.07	-0.0497182
9032.15	-0.0499564
9043.23	-0.0501765
9050.62	-0.050313
9061.7	-0.0505027
9072.79	-0.0506742
9080.21	-0.0507786
9091.38	-0.0509202
9102.6	-0.0510437
9110.09	-0.0511156
9121.32	-0.0512076
9132.55	-0.0512808
9140.03	-0.0513191
9151.26	-0.0513609
9162.49	-0.0513839
9173.72	-0.0513883
9181.21	-0.051381
9192.44	-0.0513545
9203.67	-0.0513098
9211.15	-0.0512699
9222.38	-0.0511951
9233.61	-0.0511025
9241.1	-0.051031
9252.33	-0.0509093
9263.56	-0.0507706
9271.05	-0.0506687
9282.28	-0.0505022
9293.51	-0.0503196
9300.99	-0.050189
9312.22	-0.0499803
9323.45	-0.0497565
9330.94	-0.0495991
9342.17	-0.0493513
9353.4	-0.0490895
9360.88	-0.0489076
9372.11	-0.0486239
9383.34	-0.0483278
9390.83	-0.0481237
9402.06	-0.0478079
9413.29	-0.0474809
9420.78	-0.0472571
9432.01	-0.0469128
9443.23	-0.0465588
9450.72	-0.0463176
9461.95	-0.0459485
9473.18	-0.0455709
9480.67	-0.0453147
9491.9	-0.044924
9503.13	-0.0445261
9510.61	-0.0442569
9521.84	-0.0438478
9533.07	-0.0434324
9540.56	-0.0431522
9551.79	-0.0427273
9563.02	-0.042297
9570.5	-0.0420073
9581.75	-0.0415682
9593.02	-0.0411238
9600.55	-0.0408242
9611.87	-0.0403705
9623.19	-0.0399128
9630.72	-0.0396063
9641.99	-0.0391447
9653.24	-0.0386802
9660.76	-0.0383686
9672.02	-0.0378988
9683.26	-0.0374272
9690.75	-0.0371113
9701.99	-0.0366355
9713.23	-0.0361573
9720.72	-0.0358373
9731.96	-0.0353557
9743.2	-0.0348722
9750.69	-0.0345489
9761.93	-0.0340627
9773.17	-0.0335752
9780.65	-0.0332497
9791.87	-0.0327611
9803.04	-0.0322735
9810.49	-0.0319479
9821.68	-0.0314587
9832.86	-0.030969
9840.31	-0.0306423
9851.5	-0.0301522
9862.68	-0.029662
9870.14	-0.0293352
9881.32	-0.0288452
9892.5	-0.0283555
9903.68	-0.0278663
9911.14	-0.0275406
9922.22	-0.0270567
9933.27	-0.026575
9940.65	-0.0262542
9951.71	-0.0257738
9962.76	-0.0252944
9970.14	-0.0249755
9981.2	-0.0244981
9992.25	-0.024022
10003.3	-0.0235473
10010.7	-0.0232317
10021.7	-0.0227594
10032.8	-0.0222888
10040.2	-0.0219759
10051.2	-0.0215081
10062.3	-0.021042
10073.4	-0.0205777
10080.7	-0.0202693
10091.8	-0.0198082
10102.8	-0.0193492
10110.2	-0.0190443
10121.3	-0.0185888
10132.3	-0.0181355
10143.4	-0.0176846
10150.8	-0.0173853
10161.8	-0.0169384
10172.9	-0.0164941
10180.3	-0.0161994
10191.3	-0.0157596
10202.4	-0.0153227
10213.4	-0.0148889
10220.8	-0.0146014
10231.9	-0.0141729
10242.9	-0.0137477
10250.3	-0.0134663
10261.4	-0.0130472
10272.4	-0.0126318
10283.5	-0.0122205
10290.8	-0.0119486
10301.9	-0.0115442
10313	-0.0111444
10320.3	-0.0108803
10331.4	-0.0104883
10342.5	-0.0101011
10353.5	-0.00971906
10360.9	-0.00946728
10371.9	-0.00909413
10383	-0.00872655
10390.4	-0.00848467
10401.4	-0.00812675
10412.5	-0.00777484
10423.6	-0.00742909
10430.9	-0.00720208
10442	-0.00686693
10453	-0.00653831
10460.4	-0.00632292
10471.5	-0.00600545
10482.5	-0.00569483
10493.6	-0.00539113
10501	-0.00519256
10512	-0.0049006
10523.1	-0.00461577
10530.5	-0.00442987
10541.5	-0.00415704
10552.6	-0.00389149
10563.6	-0.00363327
10571	-0.00346522
10582.1	-0.00321935
10593.1	-0.00298101
10600.5	-0.00282637
10611.6	-0.00260091
10622.6	-0.00238346
10633.7	-0.00217431
10641	-0.00203966
10652.1	-0.00184518
10663.2	-0.00166014
10670.5	-0.00154229
10681.6	-0.00137421
10692.6	-0.00121709
10700	-0.00111876
10711.1	-0.000981319
10722.1	-0.000856471
10733.2	-0.000744701
10740.6	-0.000677622
10751.6	-0.000588247
10762.7	-0.000512253
10770.1	-0.00046883
10781.1	-0.000414041
10792.2	-0.000370773
10803.2	-0.000337723
10810.6	-0.00032059
10821.7	-0.000300946
10832.7	-0.000286995
10840.1	-0.000280015
10851.2	-0.000271845
10862.2	-0.000265084
10873.3	-0.000258251
10880.7	-0.00025294
10891.7	-0.000242804
10902.8	-0.000228901
10910.1	-0.000216962
10921.2	-0.00019434
10932.3	-0.000165485
10943.3	-0.000130156
10950.7	-0.000103127
10961.7	-5.78927e-05
10972.8	-7.9336e-06
10980.2	2.74438e-05
10991.2	8.28289e-05
11002.3	0.0001402
11013.4	0.000198852
11020.7	0.000238391
11031.8	0.000298004
11042.8	0.00035755
11050.2	0.000396943
11061.3	0.000455113
11072.3	0.000511541
11083.4	0.000565457
11090.8	0.000599619
11101.8	0.000647654
11112.9	0.000691301
11120.3	0.000717742
11131.3	0.000753265
11142.4	0.000783882
11153.4	0.000809964
11160.8	0.000825167
11171.9	0.000845417
11182.9	0.000863703
11190.3	0.000875519
11201.4	0.000893885
11212.4	0.000914574
11223.5	0.000939371
11230.8	0.000959078
11241.9	0.000994657
11253	0.00103884
11260.3	0.00107376
11271.4	0.00113507
11282.4	0.00120785
11293.4	0.00129262
11300.8	0.00135588
11311.8	0.00146073
11322.9	0.00157706
11330.2	0.00166055
11341.2	0.00179388
11352.3	0.0019357
11363.3	0.00208447
11370.7	0.00218672
11381.7	0.00234346
11392.7	0.00250278
11400.1	0.00260964
11411.1	0.00276979
11422.1	0.00292854
11433.2	0.00308469
11440.5	0.00318683
11451.5	0.00333648
11462.6	0.00348129
11473.6	0.00362084
11481	0.00371085
11492	0.00384131
11503	0.00396646
11510.4	0.0040471
11521.4	0.0041642
11532.4	0.00427715
11543.5	0.00438657
11550.8	0.0044579
11561.9	0.00456295
11572.9	0.00466632
11580.2	0.00473463
11591.3	0.00483668
11602.3	0.00493882
11613.3	0.00504163
11620.7	0.00511084
11631.7	0.00521603
11642.7	0.00532333
11650.1	0.00539627
11661.1	0.0055081
11672.2	0.00562318
11683.2	0.00574182
11690.5	0.005823
11701.6	0.005948
11712.6	0.00607704
11723.6	0.00621038
11731	0.0063018
11742	0.00644301
11753.1	0.00658946
11760.4	0.00669019
11771.4	0.00684621
11782.5	0.00700835
11793.5	0.00717673
11800.9	0.00729247
11811.9	0.00747122
11822.9	0.00765597
11830.3	0.00778232
11841.3	0.0079764
11852.3	0.00817561
11863.4	0.00837964
11870.7	0.00851816
11881.7	0.00872953
11892.8	0.00894501
11900.1	0.00909084
11911.2	0.00931278
11922.2	0.00953841
11933.2	0.00976756
11940.6	0.00992221
11951.6	0.0101568
11962.6	0.0103944
11973.7	0.0106346
11981	0.0107961
11992.1	0.0110401
12003.1	0.011286
12010.4	0.011451
12021.5	0.0116997
12032.5	0.0119499
12043.5	0.0122015
12050.9	0.01237
12061.9	0.0126236
12072.9	0.0128777
12080.3	0.0130469
12091.3	0.0132998
12102.4	0.0135512
12113.4	0.0138015
12120.7	0.0139682
12131.8	0.0142181
12142.8	0.0144683
12150.2	0.0146356
12161.2	0.0148877
12172.2	0.0151355
12183.3	0.0153797
12190.6	0.0155429
12201.6	0.0157921
12212.7	0.0160408
12220	0.0162067
12231.1	0.0165549
12242.1	0.0169964
12253.1	0.0173409
12260.5	0.0175463
12271.5	0.0178514
12282.5	0.0181932
12293.6	0.0181862
12300.9	0.0182383
12311.9	0.0185008
12323	0.0188696
12330.3	0.0191066
12341.4	0.019208
12352.4	0.019482
12363.4	0.0198655
12370.8	0.0201163
12381.8	0.0208057
12392.8	0.0210378
12400.2	0.0211515
12411.2	0.0213691
12422.3	0.0216747
12433.3	0.0219594
12440.6	0.0221136
12451.7	0.0222963
12462.7	0.0224546
12470.1	0.0225448
12481.1	0.0226483
12492.1	0.0227158
12503.1	0.0227689
12510.5	0.0228079
12521.5	0.0228836
12532.6	0.02298
12543.6	0.0230809
12550.9	0.0231456
12562	0.0232394
12573	0.0233249
12580.4	0.0233732
12591.5	0.0234318
12602.5	0.0234792
12613.6	0.0235154
12621	0.0235293
12632	0.023529
12643.1	0.0235054
12650.5	0.0234817
12661.6	0.0234433
12672.7	0.0234077
12680.1	0.0233862
12691.1	0.0233561
12702.2	0.0233272
12713.3	0.0232972
12720.8	0.0232749
12731.9	0.0232374
12743.2	0.0231969
12750.6	0.0231701
12761.9	0.0231327
12773.1	0.023099
12780.6	0.0230775
12791.8	0.023043
12803.1	0.0230009
12810.5	0.0229676
12821.8	0.0229127
12833	0.0228584
12840.5	0.0228248
12851.7	0.0227783
12862.9	0.0227334
12870.4	0.022703
12881.7	0.0226568
12892.9	0.0226108
12900.4	0.0225806
12911.6	0.0225359
12922.8	0.0224904
12930.3	0.0224589
12941.6	0.0224084
12952.8	0.0223527
12960.3	0.0223119
12971.5	0.0222442
12982.7	0.0221671
12990.2	0.0221096
13001.4	0.0220139
13012.7	0.0219077
13020.2	0.0218322
13031.4	0.0217144
13042.6	0.021594
13050.1	0.0215136
13061.3	0.0213939
13072.6	0.0212754
13080.1	0.0211964
13091.3	0.0210767
13102.5	0.020953
13113.7	0.0208224
13121.2	0.0207302
13132.5	0.0205825
13143.7	0.0204221
13151.2	0.0203075
13162.4	0.0201241
13173.6	0.0199268
13181.1	0.0197878
13192.3	0.0195686
13203.6	0.0193371
13211.1	0.019176
13222.3	0.0189244
13233.5	0.0186605
13241	0.0184775
13252.2	0.0181915
13263.5	0.0178905
13271	0.0176807
13282.2	0.017351
13293.4	0.0170019
13300.9	0.0167575
13312.1	0.0163728
13323.4	0.0159655
13330.8	0.0156812
13342.1	0.0152361
13353.3	0.0147694
13360.8	0.0144472
13372	0.0139486
13383.3	0.0134339
13390.7	0.0130827
13402	0.0125453
13413.2	0.011996
13420.7	0.0116231
13431.9	0.011049
13443.1	0.0104241
13450.6	0.00989703
13461.9	0.00879212
13473.1	0.00809867
13480.6	0.00765591
13491.8	0.00703445
13503	0.00639395
13510.5	0.00556856
13521.8	0.00503485
13533	0.00447489
13540.5	0.00408397
13551.7	0.00346219
13562.9	0.00274548
13570.4	0.00227316
13581.6	0.00158918
13592.9	0.000915609
13600.4	0.00046697
13611.6	-0.000207893
13622.8	-0.000886954
13630.3	-0.00134339
13641.5	-0.00203535
13652.8	-0.00273792
13660.3	-0.00321336
13671.5	-0.00393801
13682.7	-0.00467572
13690.2	-0.00517367
13701.4	-0.00592748
13712.7	-0.00668652
13720.1	-0.00719384
13731.4	-0.00795467
13742.6	-0.00871333
13750.1	-0.0092171
13761.3	-0.00996904
13772.5	-0.0107162
13780	-0.0112116
13791.3	-0.0119509
13802.5	-0.012686
13813.7	-0.013417
13821.2	-0.013902
13832.4	-0.0146259
13843.7	-0.0153451
13851.2	-0.0158215
13862.4	-0.016531
13873.6	-0.0172333
13881.1	-0.0176972
13892.3	-0.0183857
13903.6	-0.0190647
13911	-0.0195118
13922.3	-0.0201737
13933.5	-0.0208246
13941	-0.0212524
13952.2	-0.0218843
13963.5	-0.0225045
13970.9	-0.0229112
13982.2	-0.023511
13993.4	-0.024098
14000.9	-0.0244821
14012.1	-0.0250469
14023.3	-0.0255977
14030.8	-0.0259569
14042.1	-0.0264832
14053.3	-0.0269941
14060.8	-0.027326
14072	-0.0278103
14083.2	-0.0282783
14090.7	-0.028581
14102	-0.0290209
14113.2	-0.0294438
14120.7	-0.0297161
14131.9	-0.0301102
14143.1	-0.0304867
14150.6	-0.030728
14161.8	-0.0310751
14173.1	-0.0314043
14180.6	-0.0316139
14191.8	-0.0319132
14203	-0.0321943
14210.5	-0.0323716
14221.7	-0.0326222
14233	-0.0328545
14240.5	-0.0329992
14251.7	-0.0332008
14262.9	-0.0333842
14270.4	-0.0334964
14281.7	-0.0336497
14293	-0.033785
14300.5	-0.0338654
14311.9	-0.0339707
14323.2	-0.0340577
14330.9	-0.0341063
14342.5	-0.0341641
14350.2	-0.0341922
14361.9	-0.0342189
14373.6	-0.0342267
14381.5	-0.0342213
14393.3	-0.0341974
14401.1	-0.0341709
14412.9	-0.0341155
14420.7	-0.0340681
14432.5	-0.0339816
14440.3	-0.0339137
14452.1	-0.0337966
14463.9	-0.0336615
14471.7	-0.0335615
14483.5	-0.033397
14491.3	-0.0332777
14503.1	-0.0330846
14511	-0.0329465
14522.8	-0.0327254
14530.7	-0.0325683
14542.5	-0.032319
14550.4	-0.032144
14562.3	-0.0318687
14570.2	-0.0316768
14582.1	-0.0313767
14590	-0.0311686
14601.9	-0.0308448
14613.8	-0.0305072
14621.7	-0.0302747
14633.6	-0.0299151
14641.5	-0.0296682
14653.4	-0.0292876
14661.3	-0.0290271
14673.1	-0.0286265
14681.1	-0.0283531
14692.9	-0.0279338
14700.9	-0.0276483
14712.7	-0.0272114
14720.6	-0.0269146
14732.5	-0.0264615
14740.4	-0.0261545
14752.3	-0.0256867
14760.2	-0.0253703
14772.1	-0.0248893
14780	-0.0245647
14791.9	-0.0240722
14803.8	-0.0235736
14811.7	-0.0232382
14823.6	-0.0227309
14831.5	-0.0223903
14843.4	-0.0218762
14851.3	-0.0215316
14863.1	-0.0210126
14871.1	-0.0206654
14882.9	-0.0201433
14890.8	-0.0197948
14902.7	-0.0192717
14910.6	-0.0189232
14922.5	-0.0184013
14930.4	-0.0180542
14942.3	-0.0175356
14950.2	-0.0171912
14962.1	-0.0166782
14970	-0.0163389
14981.9	-0.0158343
14993.7	-0.0153355
15001.6	-0.0150066
15013.5	-0.0145196
15021.4	-0.0141994
15033.3	-0.0137267
15041.2	-0.0134169
15053	-0.0129611
15060.9	-0.0126636
15072.8	-0.0122274
15080.7	-0.0119438
15092.6	-0.0115299
15100.5	-0.0112621
15112.3	-0.0108732
15120.2	-0.0106229
15132.1	-0.0102617
15143.9	-0.00991839
15151.9	-0.00969987
15163.7	-0.00938835
15171.6	-0.0091919
15183.5	-0.00891472
15191.4	-0.00874197
15203.2	-0.00850171
15211.1	-0.00835425
15223	-0.00815291
15230.9	-0.00803228
15242.8	-0.00787229
15250.6	-0.007781
15262.3	-0.00766558
15270.1	-0.00760329
15281.8	-0.00753234
15293.5	-0.007489
15301.3	-0.00747579
15313	-0.0074798
15320.8	-0.00749865
15332.5	-0.0075516
15340.3	-0.00760361
15352	-0.00770711
15363.7	-0.00784166
15371.5	-0.00794886
15383.2	-0.00813624
15390.9	-0.00827907
15402.6	-0.00852047
15410.4	-0.00869965
15422.1	-0.00899602
15433.8	-0.00932571
15441.6	-0.0095641
15453.3	-0.00994966
15461.1	-0.0102254
15472.8	-0.0106669
15480.5	-0.0109798
15492.2	-0.0114769
15500	-0.0118267
15511.7	-0.0123786
15523.4	-0.0129627
15531.2	-0.0133697
15542.9	-0.014006
15550.7	-0.0144471
15562.4	-0.0151334
15570.2	-0.0156069
15581.8	-0.0163401
15593.5	-0.0170999
15601.3	-0.0176204
15613	-0.0184211
15620.8	-0.0189675
15632.5	-0.0198047
15640.3	-0.0203738
15652	-0.0212424
15663.7	-0.0221272
15671.4	-0.022725
15683.1	-0.0236321
15690.9	-0.0242428
15702.6	-0.0251661
15710.4	-0.0257855
15722.1	-0.0267186
15733.8	-0.0276543
15741.6	-0.0282784
15753.3	-0.0292133
15761.1	-0.0298346
15772.7	-0.0307618
15780.5	-0.0313759
15792.2	-0.032289
15800	-0.0328914
15811.7	-0.0337838
15823.4	-0.0346608
15831.2	-0.0352358
15842.9	-0.0360824
15850.7	-0.0366351
15862.3	-0.0374455
15870.1	-0.0379724
15881.8	-0.0387413
15893.5	-0.0394829
15901.3	-0.0399614
15913	-0.0406557
15920.8	-0.0411011
15932.5	-0.041742
15940.3	-0.0421474
15951.9	-0.0427287
15963.6	-0.0432747
15971.4	-0.0436186
15982.9	-0.0441001
15990.7	-0.0444006
16002.2	-0.0448196
16013.8	-0.0452005
16021.5	-0.0454329
16033.1	-0.0457487
16040.8	-0.045937
16052.3	-0.0461863
16060	-0.0463304
16071.6	-0.0465132
16083.1	-0.0466557
16090.8	-0.0467285
16102.3	-0.0468041
16110	-0.0468322
16121.6	-0.0468409
16133.1	-0.0468098
16140.8	-0.0467672
16152.3	-0.0466705
16163.8	-0.046535
16171.4	-0.0464231
16182.9	-0.0462234
16190.6	-0.0460691
16202.1	-0.0458064
16213.6	-0.0455064
16221.2	-0.045286
16232.7	-0.0449252
16240.4	-0.0446648
16251.9	-0.0442447
16263.4	-0.0437898
16271	-0.0434675
16282.5	-0.0429561
16290.2	-0.0425968
16301.7	-0.0420308
16313.2	-0.041433
16320.8	-0.0410172
16332.3	-0.0403681
16343.8	-0.0396893
16351.5	-0.0392206
16363	-0.0384941
16370.6	-0.0379944
16382.1	-0.0372224
16393.6	-0.0364245
16401.3	-0.0358785
16412.8	-0.0350392
16420.4	-0.0344665
16431.9	-0.0335905
16443.3	-0.0326965
16450.9	-0.0320889
16462.3	-0.0311621
16473.7	-0.0302167
16481.3	-0.0295764
16492.7	-0.028603
16500.3	-0.0279459
16511.7	-0.0269474
16523	-0.025935
16530.6	-0.0252524
16542	-0.024218
16553.3	-0.0231716
16560.9	-0.0224679
16572.2	-0.0214039
16583.6	-0.0203307
16591.2	-0.0196104
16602.5	-0.0185237
16610.1	-0.0177954
16621.5	-0.0166978
16632.8	-0.0155949
16640.4	-0.0148594
16651.7	-0.0137527
16663	-0.0126428
16670.6	-0.0119016
16681.9	-0.0107885
16693.2	-0.00967463
16700.8	-0.008932
16712.1	-0.00781859
16723.5	-0.00670653
16731	-0.0059663
16742.3	-0.00485824
16753.7	-0.00375361
16761.2	-0.00301949
16772.5	-0.00192229
16780.1	-0.00119382
16791.4	-0.000106138
16802.8	0.000974859
16810.3	0.00169146
16821.6	0.00275975
16833	0.0038195
16840.5	0.00452094
16851.9	0.00556502
16863.2	0.00659888
16870.7	0.00728214
16882.1	0.00829764
16893.4	0.00930141
16900.9	0.0099638
16912.3	0.0109469
16923.6	0.0119169
16931.2	0.0125561
16942.5	0.0135033
16950	0.014127
16961.4	0.0150504
16972.7	0.0159589
16980.3	0.0165562
16991.6	0.0174392
17002.9	0.0183065
17010.5	0.0188758
17021.8	0.0197161
17033.1	0.020561
17040.7	0.0210013
17052	0.0218067
17063.3	0.0227014
17070.9	0.0232674
17082.2	0.0241173
17093.5	0.0249495
17101.1	0.0254739
17112.4	0.0261979
17123.7	0.0268459
17131.3	0.0272503
17142.6	0.0278514
17150.2	0.0282631
17161.5	0.0288995
17172.8	0.0295412
17180.3	0.0299625
17191.7	0.0305775
17203	0.0311674
17210.5	0.0315431
17221.9	0.0320752
17233.2	0.0325692
17240.7	0.0328807
17252	0.0333282
17263.3	0.0337568
17270.9	0.0340334
17282.2	0.0344335
17293.5	0.0348149
17301	0.0350575
17312.3	0.0354051
17323.6	0.0357309
17331.1	0.0359346
17342.3	0.0362181
17353.6	0.0364746
17361.1	0.036631
17372.3	0.0368456
17383.6	0.0370382
17391	0.0371554
17402.3	0.0373149
17413.5	0.0374548
17421	0.037537
17432.3	0.0376436
17443.5	0.0377304
17451	0.0377773
17462.2	0.0378313
17473.5	0.0378652
17481	0.0378762
17492.2	0.0378751
17503.4	0.0378524
17510.9	0.0378257
17522	0.037769
17533.2	0.0376943
17540.7	0.037636
17551.9	0.0375385
17563	0.0374321
17570.5	0.0373575
17581.7	0.0372413
17592.9	0.0371197
17600.3	0.0370347
17611.5	0.0368988
17622.7	0.0367493
17630.1	0.0366402
17641.3	0.0364603
17652.5	0.0362597
17663.7	0.0360389
17671.1	0.0358815
17682.3	0.0356329
17693.5	0.0353728
17701	0.0351949
17712.1	0.0349242
17723.3	0.0346511
17730.8	0.0344685
17742	0.0341946
17753.1	0.0339203
17760.6	0.0337369
17771.8	0.0334604
17783	0.0331809
17790.4	0.0329922
17801.6	0.032706
17812.6	0.0324161
17823.6	0.0321194
17831	0.0319176
17842	0.0316087
17853.1	0.0312929
17860.4	0.0310787
17871.5	0.0307527
17882.5	0.030422
17893.5	0.0300877
17900.9	0.0298636
17911.9	0.0295261
17923	0.029188
17930.3	0.0289619
17941.4	0.0286225
17952.5	0.0282823
17963.5	0.0279407
17970.9	0.0277117
17981.9	0.0273659
17993	0.0270167
18000.4	0.0267818
18011.4	0.0264263
18022.5	0.0260674
18033.6	0.0257055
18040.9	0.025463
18052	0.0250982
18063	0.0247327
18070.4	0.0244892
18081.5	0.0241244
18092.5	0.0237605
18103.6	0.0233974
18111	0.0231555
18122	0.0227924
18133.1	0.0224279
18140.5	0.0221834
18151.5	0.0218136
18162.6	0.021439
18173.6	0.0210587
18181	0.0208019
18192.1	0.0204118
18203.1	0.0200163
18210.5	0.0197502
18221.6	0.0193482
18232.6	0.018944
18243.7	0.0185388
18251	0.0182687
18262.1	0.0178643
18273.2	0.0174614
18280.5	0.0171937
18291.6	0.0167939
18302.7	0.016396
18310	0.0161318
18321.1	0.0157366
18332.1	0.0153424
18343.2	0.0149484
18350.6	0.0146853
18361.6	0.0142892
18372.7	0.0138903
18380.1	0.0136222
18391.1	0.0132161
18402.2	0.0128047
18413.2	0.0123874
18420.6	0.012106
18431.7	0.0116795
18442.7	0.0112483
18450.1	0.0109589
18461.2	0.0105225
18472.2	0.0100792
18483.3	0.00936578
18490.7	0.00906878
18501.7	0.00847171
18512.8	0.00795299
18520.1	0.00740925
18531.2	0.00702461
18542.3	0.00663241
18553.3	0.00622348
18560.7	0.00592235
18571.8	0.00547788
18582.8	0.00503233
18590.2	0.00473771
18601.2	0.00429875
18612.3	0.0038636
18623.4	0.00343516
18630.7	0.00315209
18641.8	0.00272777
18652.8	0.00230008
18660.2	0.00201211
18671.3	0.00157606
18682.3	0.00113637
18693.4	0.000694896
18700.8	0.000400492
18711.8	-4.01634e-05
18722.9	-0.000478796
18730.3	-0.000769814
18741.3	-0.00120409
18752.4	-0.00163572
18763.4	-0.00206487
18770.8	-0.0023497
18781.9	-0.00277513
18792.9	-0.00319845
18800.3	-0.00347947
18811.4	-0.00389913
18822.4	-0.00431638
18833.5	-0.004731
18840.9	-0.00500584
18851.9	-0.00541558
18863	-0.00582213
18870.3	-0.00609131
18881.4	-0.00649221
18892.5	-0.00688957
18903.5	-0.0072833
18910.9	-0.00754373
18921.9	-0.00793126
18933	-0.00831498
18940.4	-0.00856865
18951.4	-0.00894589
18962.5	-0.00931917
18973.6	-0.00968842
18980.9	-0.00993232
18992	-0.0102947
19003	-0.010653
19010.4	-0.0108894
19021.5	-0.0112406
19032.5	-0.0115874
19043.6	-0.0119297
19051	-0.0121555
19062	-0.0124903
19073.1	-0.0128205
19080.5	-0.013038
19091.5	-0.0133603
19102.6	-0.0136777
19113.6	-0.0139902
19121	-0.0141954
19132	-0.0144989
19143.1	-0.0147968
19150.4	-0.0149924
19161.5	-0.0152813
19172.5	-0.0155645
19183.5	-0.015842
19190.9	-0.0160237
19201.9	-0.0162914
19212.9	-0.0165529
19220.3	-0.0167238
19231.3	-0.0169748
19242.4	-0.0172193
19253.4	-0.0174572
19260.7	-0.017612
19271.8	-0.0178385
19282.8	-0.018058
19290.2	-0.0182003
19301.2	-0.0184077
19312.2	-0.0186077
19323.2	-0.0188002
19330.6	-0.0189243
19341.6	-0.0191041
19352.7	-0.019276
19360	-0.0193862
19371	-0.0195449
19382.1	-0.0196955
19393.1	-0.019838
19400.5	-0.0199285
19411.5	-0.0200572
19422.5	-0.0201777
19433.6	-0.0202899
19440.9	-0.02036
19451.9	-0.0204581
19463	-0.0205478
19470.3	-0.0206029
19481.4	-0.0206785
19492.4	-0.0207457
19503.4	-0.0208044
19510.8	-0.0208388
19521.8	-0.0208835
19532.8	-0.0209198
19540.2	-0.0209393
19551.2	-0.0209617
19562.2	-0.0209758
19573.3	-0.0209817
19580.6	-0.0209811
19591.7	-0.0209735
19602.7	-0.0209579
19610	-0.0209431
19621.1	-0.0209145
19632.1	-0.0208781
19643.1	-0.0208341
19650.5	-0.0208006
19661.5	-0.0207443
19672.6	-0.0206807
19683.6	-0.0206101
19690.9	-0.0205591
19702	-0.0204769
19713	-0.020388
19720.4	-0.0203251
19731.4	-0.0202254
19742.4	-0.0201194
19753.4	-0.0200073
19760.8	-0.0199292
19771.8	-0.0198073
19782.9	-0.0196796
19790.2	-0.0195914
19801.2	-0.0194545
19812.3	-0.0193124
19823.3	-0.0191652
19830.7	-0.0190642
19841.7	-0.0189088
19852.7	-0.0187486
19860.1	-0.0186393
19871.1	-0.0184716
19882.1	-0.0182996
19893.2	-0.0181234
19900.5	-0.0180036
19911.6	-0.0178208
19922.6	-0.0176342
19933.6	-0.0174439
19941	-0.0173151
19952	-0.017119
19963	-0.0169198
19970.4	-0.0167852
19981.4	-0.0165808
19992.4	-0.0163735
