0	0
157.951	0
315.902	0
473.853	0
631.803	0
789.754	0
947.705	0
1105.66	0
1263.61	0
1421.56	0
1579.51	0
1737.46	0
1895.41	0
2053.36	-2.99937e-06
2211.31	2.76106e-05
2369.26	0.000223933
2527.2	0.000854154
2685.15	0.00232989
2843.1	0.00517633
3001.04	0.00996066
3158.99	0.0171825
3316.93	0.0271467
3474.88	0.0398535
3632.83	0.0549392
3790.77	0.0716859
3948.72	0.0890989
4106.67	0.106031
4264.62	0.121327
4422.57	0.133963
4580.51	0.143152
4738.46	0.148408
4896.41	0.149568
5054.36	0.146765
5212.31	0.140369
5370.27	0.130925
5528.22	0.119068
5686.17	0.10546
5844.12	0.0907356
6002.07	0.0754655
6160.02	0.0601369
6317.97	0.0451475
6475.93	0.030808
6633.88	0.0173513
6791.83	0.0049428
6949.78	-0.00630902
7107.73	-0.0163436
7265.68	-0.0251407
7423.63	-0.0327129
7581.58	-0.0391002
7739.53	-0.044363
7897.48	-0.048576
8055.44	-0.0518222
8213.39	-0.0541875
8371.34	-0.0557564
8529.29	-0.0566093
8687.24	-0.0568211
8845.19	-0.0564621
9003.14	-0.0555987
9161.09	-0.0542954
9319.04	-0.0526168
9476.99	-0.0506281
9634.94	-0.0483957
9792.89	-0.0459866
9950.84	-0.0434664
10108.8	-0.0408975
10266.7	-0.0383369
10424.7	-0.0358343
10582.6	-0.0334305
10740.6	-0.0311567
10898.5	-0.0290348
11056.5	-0.0270778
11214.4	-0.0252914
11372.4	-0.0236748
11530.3	-0.0222229
11688.3	-0.0209271
11846.2	-0.0197764
12004.2	-0.0187585
12162.1	-0.01786
12320.1	-0.0170669
12478	-0.0163648
12636	-0.0157389
12793.9	-0.0151744
12951.9	-0.0146568
13109.8	-0.0141719
13267.8	-0.0137066
13425.7	-0.0132488
13583.7	-0.0127881
13741.7	-0.0123153
13899.6	-0.0118232
14057.6	-0.0113062
14215.5	-0.0107601
14373.5	-0.0101824
14531.4	-0.00957179
14689.4	-0.00892836
14847.3	-0.00825334
15005.3	-0.00754923
15163.2	-0.00681975
15321.2	-0.00606997
15479.1	-0.00530626
15637.1	-0.00453631
15795	-0.00376902
15953	-0.00301436
16110.9	-0.00228311
16268.9	-0.0015866
16426.8	-0.000936279
16584.8	-0.000343424
16742.7	0.000181307
16900.7	0.000628221
17058.6	0.000988919
17216.6	0.00125658
17374.5	0.00142617
17532.5	0.00149462
17690.4	0.00146089
17848.4	0.00132602
18006.3	0.0010931
18164.3	0.000767161
18322.2	0.000355093
18480.2	-0.000134578
18638.1	-0.000691885
18796.1	-0.00130569
18954	-0.00196393
19112	-0.00265397
19269.9	-0.00336285
19427.9	-0.00407765
19585.8	-0.0047857
19743.8	-0.00547495
19901.7	-0.00613413
