0	0
11.0308	0
20.2231	0
31.254	0
40.4463	0
51.4771	0
60.6694	0
71.7003	0
80.8926	0
90.0849	0
101.116	0
110.308	0
121.339	0
130.531	0
141.562	0
150.754	0
161.785	0
170.978	0
180.17	0
191.201	0
200.393	0
211.424	0
220.616	0
231.647	0
240.839	0
250.032	0
261.062	0
270.255	0
281.286	0
290.478	0
301.509	0
310.701	0
321.732	0
330.924	0
340.117	0
351.147	0
360.34	0
371.371	0
380.563	0
391.594	0
400.786	0
411.817	0
421.009	0
430.202	0
441.232	0
450.425	0
461.456	0
470.648	0
481.679	0
490.871	0
500.063	0
511.094	0
520.286	0
531.317	0
540.51	0
551.54	0
560.733	0
571.764	0
580.956	0
590.148	0
601.179	0
610.371	0
621.402	0
630.595	0
641.625	0
650.818	0
660.01	0
671.041	0
680.233	0
691.264	0
700.456	0
711.487	0
720.68	0
731.71	0
740.903	0
750.095	0
761.126	0
770.318	0
781.349	0
790.541	0
801.572	0
810.764	0
821.795	0
830.988	0
840.18	0
851.211	0
860.403	0
871.434	0
880.626	0
891.657	0
900.849	0
910.042	0
921.073	0
930.265	0
941.296	0
950.488	0
961.519	0
970.711	0
981.742	0
990.934	0
1000.13	0
1011.16	0
1020.35	0
1031.38	0
1040.57	0
1051.6	0
1060.8	0
1071.83	0
1081.02	0
1090.21	0
1101.24	0
1110.43	0
1121.47	0
1130.66	0
1141.69	0
1150.88	0
1160.07	0
1171.1	0
1180.3	0
1191.33	0
1200.52	0
1211.55	0
1220.74	0
1231.77	0
1240.97	0
1250.16	0
1261.19	0
1270.38	0
1281.41	0
1290.6	0
1301.64	0
1310.83	0
1320.02	0
1331.05	0
1340.24	0
1351.27	0
1360.47	0
1371.5	0
1380.69	0
1391.72	0
1400.91	0
1410.11	0
1421.14	0
1430.33	0
1441.36	0
1450.55	0
1461.58	0
1470.77	0
1481.81	0
1491	0
1500.19	0
1511.22	0
1520.41	0
1531.44	0
1540.64	0
1551.67	0
1560.86	0
1570.05	0
1581.08	0
1590.27	0
1601.31	0
1610.5	0
1621.53	0
1630.72	0
1641.75	0
1650.94	0
1660.14	0
1671.17	0
1680.36	0
1691.39	0
1700.58	0
1711.61	0
1720.81	0
1731.84	0
1741.03	0
1750.22	0
1761.25	0
1770.44	0
1781.48	0
1790.67	0
1801.7	0
1810.89	0
1820.08	0
1831.11	0
1840.31	0
1851.34	0
1860.53	0
1871.56	0
1880.75	0
1891.78	0
1900.98	0
1910.17	0
1921.2	0
1930.39	0
1941.42	0
1950.61	0
1961.65	0
1970.84	0
1980.03	0
1991.06	0
2000.25	0
2011.28	0
2020.48	0
2031.51	0
2040.7	0
2051.73	0
2060.92	-1.81899e-12
2070.12	-5.45697e-12
2081.15	-1.00044e-11
2090.34	-1.36424e-11
2101.37	-1.90994e-11
2110.56	-2.72848e-11
2121.59	-4.27463e-11
2130.78	-6.45741e-11
2141.82	-1.09139e-10
2151.01	-1.72804e-10
2160.2	-2.72848e-10
2171.23	-4.72028e-10
2180.42	-7.41238e-10
2191.45	-1.2642e-09
2200.65	-1.95814e-09
2211.68	-3.27691e-09
2220.87	-4.99131e-09
2230.06	-7.54426e-09
2241.09	-1.22654e-08
2250.28	-1.82354e-08
2261.32	-2.90611e-08
2270.51	-4.25052e-08
2281.54	-6.64377e-08
2290.73	-9.56343e-08
2301.76	-1.46677e-07
2310.95	-2.07869e-07
2320.15	-2.92548e-07
2331.18	-4.36865e-07
2340.37	-6.05666e-07
2351.4	-8.88504e-07
2360.59	-1.21393e-06
2371.62	-1.75024e-06
2380.82	-2.35746e-06
2390.01	-3.15524e-06
2401.04	-4.43962e-06
2410.23	-5.86117e-06
2421.26	-8.11435e-06
2430.45	-1.05707e-05
2441.49	-1.44052e-05
2450.68	-1.8524e-05
2461.71	-2.48592e-05
2470.9	-3.15666e-05
2480.09	-3.98594e-05
2491.12	-5.23505e-05
2500.32	-6.53089e-05
2511.35	-8.45578e-05
2520.54	-0.000104258
2531.57	-0.000133127
2540.76	-0.000162284
2551.79	-0.000204451
2560.99	-0.000246495
2570.18	-0.000295733
2581.21	-0.000365632
2590.4	-0.000434077
2601.43	-0.000530055
2610.62	-0.000622912
2621.66	-0.000751578
2630.85	-0.000874617
2640.04	-0.00101339
2651.07	-0.00120248
2660.26	-0.00138038
2671.29	-0.00162013
2680.49	-0.00184326
2691.52	-0.00214078
2700.71	-0.00241481
2711.74	-0.00277645
2720.93	-0.0031062
2730.12	-0.00346256
2741.16	-0.00392617
2750.35	-0.00434302
2761.38	-0.00488026
2770.57	-0.00535889
2781.6	-0.0059702
2790.79	-0.00651003
2801.83	-0.00719351
2811.02	-0.00779194
2820.21	-0.0084156
2831.24	-0.00919568
2840.43	-0.00987057
2851.46	-0.0107079
2860.66	-0.0114266
2871.69	-0.0123111
2880.88	-0.0130642
2890.07	-0.0138294
2901.1	-0.0147601
2910.29	-0.0155431
2921.32	-0.0164872
2930.52	-0.0172742
2941.55	-0.0182141
2950.74	-0.0189894
2961.77	-0.0199048
2970.96	-0.0206502
2980.16	-0.0213753
2991.19	-0.0222117
3000.38	-0.0228745
3011.41	-0.0236204
3020.6	-0.0241935
3031.63	-0.0248127
3040.82	-0.0252627
3050.02	-0.0256439
3061.05	-0.0259978
3070.24	-0.0261948
3081.27	-0.0262974
3090.46	-0.0262575
3101.49	-0.0260399
3110.69	-0.025701
3121.72	-0.0250827
3130.91	-0.0243725
3140.1	-0.0234671
3151.13	-0.0220978
3160.32	-0.0206994
3171.35	-0.0186835
3180.55	-0.0166988
3191.58	-0.0139212
3200.77	-0.0112525
3211.8	-0.00759467
3220.99	-0.00414327
3230.18	-0.000304309
3241.21	0.00484062
3250.41	0.00959753
3261.44	0.0158939
3270.63	0.0216483
3281.66	0.0291819
3290.85	0.0359961
3300.04	0.0433066
3311.07	0.0527423
3320.27	0.0611613
3331.3	0.0719309
3340.49	0.0814571
3351.52	0.0935404
3360.71	0.104141
3371.74	0.117479
3380.93	0.129088
3390.13	0.141125
3401.16	0.156102
3410.35	0.168994
3421.38	0.184916
3430.57	0.198522
3441.6	0.215203
3450.79	0.229356
3461.83	0.246581
3471.02	0.26109
3480.21	0.275695
3491.24	0.293284
3500.43	0.307943
3511.46	0.325466
3520.65	0.339959
3531.68	0.357148
3540.88	0.371249
3550.07	0.385097
3561.1	0.401316
3570.29	0.414445
3581.32	0.429669
3590.51	0.44186
3601.54	0.455829
3610.74	0.466871
3621.77	0.479339
3630.96	0.489032
3640.15	0.498049
3651.18	0.507928
3660.37	0.515335
3671.4	0.523184
3680.59	0.528824
3691.62	0.53447
3700.82	0.538211
3710.01	0.541053
3721.04	0.543249
3730.23	0.544049
3741.26	0.543755
3750.45	0.542454
3761.48	0.539618
3770.68	0.536191
3781.71	0.530804
3790.9	0.52526
3800.09	0.518768
3811.12	0.509743
3820.31	0.501214
3831.34	0.489798
3840.53	0.479329
3851.56	0.465658
3860.76	0.453378
3871.79	0.437624
3880.98	0.42369
3890.17	0.409063
3901.2	0.39065
3910.39	0.374638
3921.42	0.354685
3930.62	0.337495
3941.65	0.316256
3950.84	0.298102
3960.03	0.279585
3971.06	0.256947
3980.25	0.23779
3991.28	0.214518
4000.47	0.194944
4011.51	0.171303
4020.7	0.151528
4031.73	0.127774
4040.92	0.108009
4050.11	0.088317
4061.14	0.0648384
4070.33	0.0454465
4081.37	0.0224424
4090.56	0.00353849
4101.59	-0.0187723
4110.78	-0.0370115
4121.81	-0.0584232
4131	-0.0758313
4140.19	-0.0928095
4151.23	-0.112572
4160.42	-0.128497
4171.45	-0.146911
4180.64	-0.161643
4191.67	-0.178548
4200.86	-0.191962
4210.06	-0.204738
4221.09	-0.219197
4230.28	-0.230497
4241.31	-0.243128
4250.5	-0.252862
4261.53	-0.263572
4270.72	-0.271672
4281.76	-0.280389
4290.95	-0.286808
4300.14	-0.292454
4311.17	-0.298206
4320.36	-0.302145
4331.39	-0.305855
4340.59	-0.308103
4351.62	-0.309804
4360.81	-0.310404
4370	-0.310275
4381.03	-0.309184
4390.22	-0.307516
4401.26	-0.304637
4410.45	-0.301536
4421.48	-0.297012
4430.67	-0.292607
4441.7	-0.286605
4450.89	-0.281044
4460.09	-0.275012
4471.12	-0.267198
4480.31	-0.260249
4491.34	-0.251442
4500.53	-0.243754
4511.56	-0.234165
4520.76	-0.225916
4531.79	-0.21576
4540.98	-0.207124
4550.17	-0.198369
4561.2	-0.187754
4570.39	-0.178854
4581.42	-0.168158
4590.62	-0.159266
4601.65	-0.148661
4610.84	-0.139911
4620.03	-0.131265
4631.06	-0.12106
4640.25	-0.112722
4651.29	-0.102943
4660.48	-0.0950034
4671.51	-0.085749
4680.7	-0.0782801
4691.73	-0.0696259
4700.92	-0.0626824
4710.12	-0.0559912
4721.15	-0.0483041
4730.34	-0.0421892
4741.37	-0.0352061
4750.56	-0.0296854
4761.59	-0.0234207
4770.78	-0.0185006
4781.82	-0.012956
4791.01	-0.00863344
4800.2	-0.0045793
4811.23	-6.46643e-05
4820.42	0.00340957
4831.45	0.00723896
4840.65	0.0101521
4851.68	0.0133215
4860.87	0.0156964
4870.06	0.0178352
4881.09	0.0200977
4890.28	0.0217367
4901.31	0.0234168
4910.51	0.0245853
4921.54	0.0257192
4930.73	0.0264481
4941.76	0.0270739
4950.95	0.0273959
4960.15	0.0275441
4971.18	0.0275027
4980.37	0.0272941
4991.4	0.0268459
5000.59	0.0263165
5011.62	0.0255055
5020.81	0.0246925
5030.01	0.0237632
5041.04	0.0225057
5050.23	0.0213484
5061.26	0.0198407
5070.45	0.0184943
5081.48	0.0167827
5090.68	0.0152856
5101.71	0.0134158
5110.9	0.0118055
5120.09	0.0101558
5131.12	0.00813413
5140.31	0.00642264
5151.34	0.00434668
5160.54	0.00260567
5171.57	0.000512131
5180.76	-0.00122953
5191.79	-0.00330825
5200.98	-0.00502557
5210.18	-0.00672469
5221.21	-0.00873422
5230.4	-0.0103803
5241.43	-0.012317
5250.62	-0.0138959
5261.65	-0.0157455
5270.84	-0.0172474
5280.04	-0.0187122
5291.07	-0.0204201
5300.26	-0.0218012
5311.29	-0.023408
5320.48	-0.0247052
5331.51	-0.0262125
5340.71	-0.0274285
5351.74	-0.0288411
5360.93	-0.029981
5370.12	-0.0310884
5381.15	-0.0323766
5390.34	-0.0334179
5401.37	-0.0346315
5410.57	-0.0356147
5421.6	-0.0367633
5430.79	-0.0376963
5441.82	-0.0387894
5451.01	-0.0396798
5460.21	-0.0405533
5471.24	-0.0415808
5480.43	-0.0424214
5491.46	-0.0434131
5500.65	-0.0442263
5511.68	-0.0451879
5520.87	-0.0459783
5530.07	-0.0467593
5541.1	-0.0476852
5550.29	-0.0484479
5561.32	-0.049353
5570.51	-0.0500992
5581.54	-0.0509855
5590.74	-0.0517165
5601.77	-0.0525851
5610.96	-0.0533018
5620.15	-0.0540121
5631.18	-0.054856
5640.37	-0.0555522
5651.4	-0.0563794
5660.6	-0.0570618
5671.63	-0.0578724
5680.82	-0.058541
5690.01	-0.0592033
5701.04	-0.0599898
5710.24	-0.0606383
5721.27	-0.0614083
5730.46	-0.062043
5741.49	-0.0627964
5750.68	-0.0634173
5761.71	-0.064154
5770.9	-0.0647607
5780.1	-0.0653609
5791.13	-0.0660723
5800.32	-0.0666574
5811.35	-0.0673499
5820.54	-0.0679186
5831.57	-0.0685904
5840.77	-0.0691408
5851.8	-0.0697891
5860.99	-0.0703184
5870.18	-0.070837
5881.21	-0.0714441
5890.4	-0.0719361
5901.44	-0.0725084
5910.63	-0.0729689
5921.66	-0.0734999
5930.85	-0.0739229
5940.04	-0.0743267
5951.07	-0.0747838
5960.27	-0.0751399
5971.3	-0.0755352
5980.49	-0.0758359
5991.52	-0.0761595
6000.71	-0.0763961
6011.74	-0.0766376
6020.93	-0.0768013
6030.13	-0.076929
6041.16	-0.0770318
6050.35	-0.0770734
6061.38	-0.0770677
6070.57	-0.0770145
6081.6	-0.0768899
6090.8	-0.0767335
6101.83	-0.0764804
6111.02	-0.0762132
6120.21	-0.0758934
6131.24	-0.0754384
6140.43	-0.0749984
6151.47	-0.0743961
6160.66	-0.0738311
6171.69	-0.0730764
6180.88	-0.0723829
6190.07	-0.0716303
6201.1	-0.0706488
6210.3	-0.0697654
6221.33	-0.0686271
6230.52	-0.0676136
6241.55	-0.0663201
6250.74	-0.0651786
6261.77	-0.0637337
6270.97	-0.0624681
6280.16	-0.0611478
6291.19	-0.0594932
6300.38	-0.0580574
6311.41	-0.0562684
6320.6	-0.0547247
6331.63	-0.0528115
6340.83	-0.0511689
6350.02	-0.0494845
6361.05	-0.0474112
6370.24	-0.0456429
6381.27	-0.0434755
6390.47	-0.0416344
6401.5	-0.0393869
6410.69	-0.0374851
6421.72	-0.035172
6430.91	-0.0332218
6440.1	-0.0312537
6451.13	-0.0288721
6460.33	-0.0268738
6471.36	-0.0244636
6480.55	-0.0224478
6491.58	-0.0200238
6500.77	-0.0180027
6511.8	-0.0155797
6521	-0.0135653
6530.19	-0.0115578
6541.22	-0.00916114
6550.41	-0.00717688
6561.44	-0.00481463
6570.63	-0.00286433
6581.67	-0.000548964
6590.86	0.00135733
6600.05	0.00324048
6611.08	0.00546708
6620.27	0.00729282
6631.3	0.00944543
6640.5	0.0112054
6651.53	0.0132745
6660.72	0.0149611
6671.75	0.0169379
6680.94	0.0185443
6690.13	0.0201122
6701.17	0.0219411
6710.36	0.0234201
6721.39	0.0251391
6730.58	0.0265241
6741.61	0.0281277
6750.8	0.0294144
6761.83	0.0308978
6771.03	0.0320826
6780.22	0.0332202
6791.25	0.0345222
6800.44	0.0355541
6811.47	0.0367282
6820.67	0.0376528
6831.7	0.0386975
6840.89	0.0395138
6850.08	0.0402809
6861.11	0.0411364
6870.3	0.0417954
6881.33	0.0425216
6890.53	0.0430733
6901.56	0.0436718
6910.75	0.044118
6921.78	0.0445912
6930.97	0.0449344
6940.17	0.0452316
6951.2	0.0455287
6960.39	0.0457274
6971.42	0.0459086
6980.61	0.0460128
6991.64	0.046083
7000.83	0.0460969
7010.03	0.0460714
7021.06	0.0459902
7030.25	0.0458817
7041.28	0.0457039
7050.47	0.0455175
7061.5	0.0452497
7070.7	0.0449911
7081.73	0.04464
7090.92	0.0443148
7100.11	0.0439613
7111.14	0.0435013
7120.33	0.0430896
7131.37	0.0425633
7140.56	0.0420993
7151.59	0.0415137
7160.78	0.041003
7171.81	0.0403648
7181	0.0398131
7190.2	0.0392447
7201.23	0.0385419
7210.42	0.0379403
7221.45	0.037201
7230.64	0.0365716
7241.67	0.035802
7250.87	0.0351498
7260.06	0.034489
7271.09	0.0336859
7280.28	0.0330094
7291.31	0.0321904
7300.5	0.0315031
7311.53	0.0306738
7320.73	0.0299801
7331.76	0.0291461
7340.95	0.0284507
7350.14	0.0277561
7361.17	0.0269248
7370.36	0.0262351
7381.4	0.0254125
7390.59	0.0247323
7401.62	0.0239239
7410.81	0.0232577
7420	0.0225996
7431.03	0.0218216
7440.23	0.0211843
7451.26	0.0204343
7460.45	0.0198226
7471.48	0.0191061
7480.67	0.0185248
7491.7	0.0178476
7500.89	0.0173013
7510.09	0.0167725
7521.12	0.0161623
7530.31	0.0156752
7541.34	0.0151176
7550.53	0.0146763
7561.56	0.0141763
7570.76	0.0137849
7581.79	0.0133468
7590.98	0.0130088
7600.17	0.012696
7611.2	0.0123547
7620.39	0.0120992
7631.42	0.0118279
7640.62	0.0116315
7651.65	0.011432
7660.84	0.0112958
7670.03	0.0111871
7681.06	0.0110928
7690.26	0.0110441
7701.29	0.0110211
7710.48	0.011031
7721.51	0.0110771
7730.7	0.0111432
7741.73	0.0112549
7750.92	0.0113739
7760.12	0.0115155
7771.15	0.0117139
7780.34	0.0119017
7791.37	0.012152
7800.56	0.0123801
7811.59	0.0126751
7820.78	0.012937
7831.82	0.0132683
7841.01	0.0135568
7850.2	0.0138548
7861.23	0.0142226
7870.42	0.0145357
7881.45	0.0149166
7890.65	0.0152364
7901.68	0.0156203
7910.87	0.0159383
7920.06	0.0162526
7931.09	0.0166225
7940.28	0.0169225
7951.31	0.0172701
7960.51	0.0175474
7971.54	0.0178629
7980.73	0.0181093
7991.76	0.0183831
8000.95	0.0185911
8010.15	0.0187791
8021.18	0.0189764
8030.37	0.0191156
8041.4	0.0192505
8050.59	0.0193346
8061.62	0.0193999
8070.81	0.0194234
8080.01	0.0194176
8091.04	0.0193708
8100.23	0.0192976
8111.26	0.0191676
8120.45	0.0190234
8131.48	0.0188065
8140.68	0.0185885
8151.71	0.0182817
8160.9	0.0179881
8170.09	0.0176596
8181.12	0.0172195
8190.31	0.0168142
8201.34	0.0162818
8210.54	0.0158
8221.57	0.0151762
8230.76	0.0146189
8241.79	0.0139056
8250.98	0.0132748
8260.18	0.0126113
8271.21	0.0117731
8280.4	0.0110403
8291.43	0.010121
8300.62	0.00932266
8311.65	0.00832725
8320.84	0.00746775
8330.04	0.00658207
8341.07	0.00548625
8350.26	0.00454689
8361.29	0.00339001
8370.48	0.00240268
8381.51	0.00119186
8390.71	0.000162675
8401.74	-0.00109457
8410.93	-0.0021592
8420.12	-0.00323778
8431.15	-0.00454852
8440.34	-0.00565288
8451.38	-0.00699051
8460.57	-0.00811391
8471.6	-0.00947033
8480.79	-0.010606
8491.82	-0.0119732
8501.01	-0.0131145
8510.21	-0.0142563
8521.24	-0.015625
8530.43	-0.0167631
8541.46	-0.0181238
8550.65	-0.019252
8561.68	-0.0205974
8570.88	-0.0217101
8580.07	-0.0228138
8591.1	-0.0241251
8600.29	-0.0252056
8611.32	-0.0264859
8620.51	-0.0275383
8631.54	-0.0287822
8640.74	-0.029802
8651.77	-0.0310045
8660.96	-0.0319879
8670.15	-0.0329535
8681.18	-0.034088
8690.38	-0.0350123
8701.41	-0.0360955
8710.6	-0.0369757
8721.63	-0.0380045
8730.82	-0.0388382
8740.01	-0.0396503
8751.05	-0.0405954
8760.24	-0.0413584
8771.27	-0.0422438
8780.46	-0.0429564
8791.49	-0.0437808
8800.68	-0.0444421
8811.71	-0.0452046
8820.91	-0.0458142
8830.1	-0.0464002
8841.13	-0.0470723
8850.32	-0.0476065
8861.35	-0.0482166
8870.55	-0.0486994
8881.58	-0.0492483
8890.77	-0.0496804
8901.8	-0.0501691
8910.99	-0.0505516
8920.18	-0.050912
8931.21	-0.0513156
8940.41	-0.0516283
8951.44	-0.0519756
8960.63	-0.0522423
8971.66	-0.0525355
8980.85	-0.0527579
8990.05	-0.0529609
9001.08	-0.0531795
9010.27	-0.0533412
9021.3	-0.0535114
9030.49	-0.053634
9041.52	-0.0537586
9050.71	-0.0538442
9061.75	-0.0539257
9070.94	-0.0539765
9080.13	-0.0540122
9091.16	-0.0540358
9100.35	-0.0540399
9111.38	-0.0540268
9120.58	-0.0540013
9131.61	-0.0539539
9140.8	-0.0539008
9151.83	-0.0538215
9161.02	-0.0537427
9170.21	-0.0536528
9181.25	-0.0535307
9190.44	-0.0534175
9201.47	-0.0532684
9210.66	-0.0531335
9221.69	-0.0529592
9230.88	-0.052804
9240.08	-0.0526399
9251.11	-0.0524317
9260.3	-0.0522491
9271.33	-0.0520193
9280.52	-0.0518193
9291.55	-0.0515692
9300.75	-0.0513528
9311.78	-0.0510837
9320.97	-0.0508519
9330.16	-0.0506133
9341.19	-0.0503185
9350.38	-0.0500659
9361.41	-0.0497547
9370.61	-0.0494889
9381.64	-0.0491625
9390.83	-0.0488845
9400.02	-0.0486012
9411.05	-0.0482544
9420.25	-0.0479602
9431.28	-0.0476008
9440.47	-0.0472965
9451.5	-0.0469256
9460.69	-0.0466121
9471.72	-0.0462308
9480.91	-0.045909
9490.11	-0.0455837
9501.14	-0.045189
9510.33	-0.0448567
9521.36	-0.044454
9530.55	-0.0441154
9541.58	-0.0437057
9550.78	-0.0433616
9561.81	-0.0429457
9571	-0.0425968
9580.19	-0.0422458
9591.22	-0.0418221
9600.42	-0.0414671
9611.45	-0.0410388
9620.64	-0.0406801
9631.67	-0.0402476
9640.86	-0.0398855
9650.05	-0.039522
9661.08	-0.0390838
9670.28	-0.0387172
9681.31	-0.0382754
9690.5	-0.0379058
9701.53	-0.0374603
9710.72	-0.0370876
9721.75	-0.0366385
9730.95	-0.0362626
9740.14	-0.0358854
9751.17	-0.0354307
9760.36	-0.0350502
9771.39	-0.0345915
9780.58	-0.0342077
9791.62	-0.033745
9800.81	-0.0333578
9810	-0.032969
9821.03	-0.0325005
9830.22	-0.0321084
9841.25	-0.0316359
9850.45	-0.0312407
9861.48	-0.0307647
9870.67	-0.0303666
9881.7	-0.0298874
9890.89	-0.0294869
9900.09	-0.0290856
9911.12	-0.0286029
9920.31	-0.0282001
9931.34	-0.0277162
9940.53	-0.0273128
9951.56	-0.0268287
9960.75	-0.0264257
9971.79	-0.0259427
9980.98	-0.0255412
9990.17	-0.0251408
10001.2	-0.0246621
10010.4	-0.0242651
10021.4	-0.0237914
10030.6	-0.0233992
10041.6	-0.0229322
10050.8	-0.0225463
10060	-0.0221637
10071.1	-0.0217095
10080.3	-0.0213355
10091.3	-0.0208923
10100.5	-0.0205282
10111.5	-0.0200979
10120.7	-0.0197451
10131.7	-0.0193291
10140.9	-0.018989
10150.1	-0.018655
10161.1	-0.0182627
10170.3	-0.0179431
10181.4	-0.0175686
10190.6	-0.0172643
10201.6	-0.0169087
10210.8	-0.0166205
10221.8	-0.0162847
10231	-0.0160134
10240.2	-0.0157498
10251.2	-0.0154439
10260.4	-0.0151977
10271.5	-0.0149128
10280.6	-0.0146843
10291.7	-0.0144207
10300.9	-0.0142099
10310.1	-0.0140072
10321.1	-0.0137745
10330.3	-0.0135894
10341.3	-0.0133779
10350.5	-0.0132103
10361.5	-0.0130197
10370.7	-0.0128695
10381.8	-0.0126995
10391	-0.0125663
10400.1	-0.0124408
10411.2	-0.0123003
10420.4	-0.0121915
10431.4	-0.0120709
10440.6	-0.0119786
10451.6	-0.0118776
10460.8	-0.0118016
10470	-0.0117329
10481	-0.0116601
10490.2	-0.0116074
10501.3	-0.0115537
10510.5	-0.0115168
10521.5	-0.011482
10530.7	-0.0114608
10541.7	-0.0114446
10550.9	-0.0114389
10560.1	-0.01144
10571.1	-0.0114505
10580.3	-0.0114666
10591.3	-0.0114948
10600.5	-0.0115255
10611.6	-0.0115709
10620.8	-0.0116156
10631.8	-0.0116772
10641	-0.0117351
10650.2	-0.0117987
10661.2	-0.0118822
10670.4	-0.0119575
10681.4	-0.0120542
10690.6	-0.0121398
10701.7	-0.012248
10710.8	-0.0123424
10720	-0.0124402
10731.1	-0.0125614
10740.3	-0.0126652
10751.3	-0.0127924
10760.5	-0.0129
10771.5	-0.0130304
10780.7	-0.0131395
10791.7	-0.0132702
10800.9	-0.0133783
10810.1	-0.0134851
10821.2	-0.0136107
10830.3	-0.0137126
10841.4	-0.0138308
10850.6	-0.0139253
10861.6	-0.0140331
10870.8	-0.0141176
10881.8	-0.0142118
10891	-0.0142839
10900.2	-0.0143496
10911.2	-0.0144195
10920.4	-0.0144697
10931.5	-0.0145198
10940.7	-0.0145528
10951.7	-0.0145813
10960.9	-0.0145956
10970.1	-0.0146012
10981.1	-0.0145959
10990.3	-0.0145816
11001.3	-0.0145523
11010.5	-0.0145177
11021.5	-0.0144642
11030.7	-0.0144097
11041.8	-0.0143325
11051	-0.0142586
11060.2	-0.0141763
11071.2	-0.0140667
11080.4	-0.0139667
11091.4	-0.0138369
11100.6	-0.013721
11111.6	-0.0135732
11120.8	-0.0134434
11130	-0.0133079
11141	-0.0131388
11150.2	-0.0129928
11161.3	-0.0128125
11170.5	-0.0126586
11181.5	-0.0124703
11190.7	-0.012311
11201.7	-0.0121178
11210.9	-0.0119557
11220.1	-0.0117933
11231.1	-0.0115985
11240.3	-0.0114369
11251.4	-0.0112446
11260.5	-0.0110861
11271.6	-0.0108987
11280.8	-0.0107453
11291.8	-0.010565
11301	-0.0104182
11310.2	-0.010275
11321.2	-0.0101079
11330.4	-0.00997299
11341.4	-0.00981638
11350.6	-0.00969039
11361.7	-0.00954465
11370.9	-0.00942774
11380	-0.00931487
11391.1	-0.00918461
11400.3	-0.0090802
11411.3	-0.00895956
11420.5	-0.00886262
11431.5	-0.00875017
11440.7	-0.0086593
11451.7	-0.0085531
11460.9	-0.0084665
11470.1	-0.00838116
11481.2	-0.00827973
11490.4	-0.00819545
11501.4	-0.00809381
11510.6	-0.00800805
11521.6	-0.00790302
11530.8	-0.00781305
11541.8	-0.00770125
11551	-0.00760419
11560.2	-0.00750293
11571.2	-0.00737504
11580.4	-0.00726243
11591.5	-0.00711916
11600.7	-0.00699229
11611.7	-0.00683022
11620.9	-0.0066863
11630.1	-0.00653376
11641.1	-0.00633859
11650.3	-0.00616527
11661.3	-0.00594377
11670.5	-0.00574743
11681.6	-0.00549709
11690.7	-0.00527579
11701.8	-0.00499452
11711	-0.0047467
11720.2	-0.00448642
11731.2	-0.00415736
11740.4	-0.00386903
11751.4	-0.00350594
11760.6	-0.00318905
11771.6	-0.00279159
11780.8	-0.00244609
11790	-0.0020877
11801.1	-0.0016408
11810.2	-0.00125458
11821.3	-0.000774875
11830.5	-0.000361912
11841.5	0.000149021
11850.7	0.00058719
11861.7	0.00112726
11870.9	0.0015887
11880.1	0.00205996
11891.1	0.00263774
11900.3	0.00312881
11911.4	0.00372875
11920.6	0.00423687
11931.6	0.0048555
11940.8	0.0053777
11951.8	0.00601135
11961	0.00654446
11970.2	0.00708147
11981.2	0.00773007
11990.4	0.00827325
12001.4	0.00892729
12010.6	0.00947337
12021.7	0.0101289
12030.9	0.0106747
12040.1	0.0112193
12051.1	0.0118705
12060.3	0.0124103
12071.3	0.0130541
12080.5	0.0135864
12091.5	0.0142195
12100.7	0.0147418
12111.8	0.0153615
12120.9	0.0158715
12130.1	0.0163752
12141.2	0.016971
12150.4	0.0174597
12161.4	0.0180366
12170.6	0.0185089
12181.6	0.0190653
12190.8	0.0195202
12201.8	0.0200551
12211	0.0204917
12220.2	0.0209198
12231.3	0.0214222
12240.4	0.0218315
12251.5	0.0223113
12260.7	0.0227017
12271.7	0.0231589
12280.9	0.0235306
12290.1	0.0238939
12301.1	0.0243188
12310.3	0.024664
12321.3	0.0250675
12330.5	0.025395
12341.6	0.0257778
12350.8	0.0260883
12361.8	0.026451
12371	0.0267451
12380.2	0.027032
12391.2	0.0273669
12400.4	0.0276383
12411.4	0.0279549
12420.6	0.0282114
12431.6	0.0285103
12440.8	0.0287522
12450	0.0289877
12461.1	0.0292618
12470.3	0.0294833
12481.3	0.0297407
12490.5	0.0299483
12501.5	0.0301893
12510.7	0.0303833
12521.7	0.0306079
12530.9	0.0307883
12540.1	0.0309625
12551.1	0.0311634
12560.3	0.031324
12571.4	0.0315086
12580.6	0.0316556
12591.6	0.0318238
12600.8	0.0319572
12611.8	0.0321093
12621	0.0322292
12630.2	0.0323431
12641.2	0.0324718
12650.4	0.0325726
12661.5	0.0326857
12670.6	0.0327737
12681.7	0.032872
12690.9	0.0329478
12700.1	0.0330185
12711.1	0.0330965
12720.3	0.0331562
12731.3	0.0332218
12740.5	0.0332717
12751.5	0.0333264
12760.7	0.0333679
12771.8	0.0334133
12781	0.0334479
12790.1	0.0334799
12801.2	0.0335155
12810.4	0.0335433
12821.4	0.033575
12830.6	0.0336005
12841.6	0.0336308
12850.8	0.0336562
12860	0.0336823
12871	0.0337151
12880.2	0.0337443
12891.3	0.0337823
12900.5	0.0338168
12911.5	0.0338625
12920.7	0.0339046
12931.7	0.0339605
12940.9	0.0340122
12950.1	0.0340688
12961.1	0.0341439
12970.3	0.0342128
12981.3	0.0343035
12990.5	0.0343862
13001.6	0.0344942
13010.8	0.0345918
13021.8	0.0347182
13031	0.0348316
13040.2	0.0349522
13051.2	0.0351066
13060.4	0.0352433
13071.4	0.035417
13080.6	0.0355695
13091.7	0.0357616
13100.8	0.035929
13110	0.0361027
13121.1	0.0363191
13130.3	0.0365056
13141.3	0.0367359
13150.5	0.0369329
13161.5	0.0371742
13170.7	0.0373788
13181.7	0.0376276
13190.9	0.0378366
13200.1	0.0380464
13211.2	0.0382981
13220.3	0.0385066
13231.4	0.0387541
13240.6	0.0389569
13251.6	0.0391946
13260.8	0.0393868
13271.8	0.0396086
13281	0.0397849
13290.2	0.0399521
13301.2	0.0401393
13310.4	0.0402825
13321.5	0.0404374
13330.7	0.0405509
13341.7	0.0406666
13350.9	0.0407445
13360.1	0.0408041
13371.1	0.0408501
13380.3	0.0408655
13391.3	0.0408549
13400.5	0.0408204
13411.5	0.0407464
13420.7	0.0406564
13431.8	0.0405125
13441	0.0403616
13450.2	0.0401814
13461.2	0.0399252
13470.4	0.0396772
13481.4	0.0393369
13490.6	0.0390169
13501.6	0.038588
13510.8	0.0381923
13520	0.0377611
13531	0.0371961
13540.2	0.0366851
13551.3	0.0360229
13560.5	0.03543
13571.5	0.0346687
13580.7	0.0339927
13591.7	0.0331312
13600.9	0.0323715
13610.1	0.0315739
13621.1	0.0305669
13630.3	0.0296864
13641.4	0.0285809
13650.5	0.0276193
13661.6	0.0264176
13670.8	0.0253772
13681.8	0.0240829
13691	0.0229671
13700.2	0.0218183
13711.2	0.0203974
13720.4	0.0191794
13731.4	0.0176786
13740.6	0.0163967
13751.7	0.0148228
13760.9	0.013483
13770	0.0121191
13781.1	0.0104526
13790.3	0.00904082
13801.3	0.0073214
13810.5	0.00586939
13821.5	0.00410651
13830.7	0.00262244
13841.7	0.000826201
13850.9	-0.000681313
13860.1	-0.00219652
13871.2	-0.00402227
13880.4	-0.00554772
13891.4	-0.00738015
13900.6	-0.00890646
13911.6	-0.0107342
13920.8	-0.0122518
13931.8	-0.0140634
13941	-0.0155627
13950.2	-0.0170506
13961.2	-0.0188182
13970.4	-0.020274
13981.5	-0.0219974
13990.7	-0.0234118
14001.7	-0.0250802
14010.9	-0.0264442
14020.1	-0.0277825
14031.1	-0.029352
14040.3	-0.0306276
14051.3	-0.032117
14060.5	-0.033322
14071.6	-0.0347224
14080.7	-0.0358496
14091.8	-0.0371526
14101	-0.0381956
14110.2	-0.0391982
14121.2	-0.0403467
14130.4	-0.0412569
14141.4	-0.0422916
14150.6	-0.0431049
14161.6	-0.0440209
14170.8	-0.0447335
14180	-0.0453995
14191.1	-0.0461365
14200.2	-0.0466983
14211.3	-0.0473093
14220.5	-0.0477656
14231.5	-0.0482497
14240.7	-0.0486003
14251.7	-0.0489577
14260.9	-0.0492031
14270.1	-0.0494012
14281.1	-0.0495771
14290.3	-0.0496727
14301.4	-0.0497272
14310.6	-0.0497233
14321.6	-0.0496604
14330.8	-0.0495607
14341.8	-0.0493854
14351	-0.0491944
14360.2	-0.0489635
14371.2	-0.0486355
14380.4	-0.0483212
14391.4	-0.0478966
14400.6	-0.0475049
14411.7	-0.0469914
14420.9	-0.0465289
14430.1	-0.0460366
14441.1	-0.0454084
14450.3	-0.0448555
14461.3	-0.044159
14470.5	-0.0435529
14481.5	-0.0427971
14490.7	-0.0421453
14501.8	-0.0413391
14510.9	-0.0406491
14520.1	-0.0399442
14531.2	-0.0390809
14540.4	-0.0383485
14551.4	-0.0374566
14560.6	-0.036704
14571.6	-0.0357919
14580.8	-0.0350259
14590	-0.0342559
14601	-0.0333286
14610.2	-0.0325546
14621.3	-0.0316259
14630.4	-0.0308535
14641.5	-0.02993
14650.7	-0.0291645
14661.7	-0.0282523
14670.9	-0.0274985
14680.1	-0.0267514
14691.1	-0.0258647
14700.3	-0.0251349
14711.3	-0.0242712
14720.5	-0.023562
14731.6	-0.0227245
14740.8	-0.0220384
14751.8	-0.02123
14761	-0.020569
14770.2	-0.0199199
14781.2	-0.019157
14790.4	-0.0185347
14801.4	-0.0178044
14810.6	-0.0172095
14821.6	-0.0165121
14830.8	-0.0159446
14840	-0.0153895
14851.1	-0.0147395
14860.3	-0.0142111
14871.3	-0.0135927
14880.5	-0.0130901
14891.5	-0.0125018
14900.7	-0.0120237
14911.7	-0.0114641
14920.9	-0.0110091
14930.1	-0.0105641
14941.1	-0.0100428
14950.3	-0.0096185
14961.4	-0.00912106
14970.6	-0.00871586
14981.6	-0.00824029
14990.8	-0.00785249
15001.8	-0.00739686
15011	-0.00702491
15020.2	-0.00665968
15031.2	-0.00622991
15040.4	-0.00587855
15051.5	-0.00546472
15060.7	-0.00512614
15071.7	-0.00472712
15080.9	-0.00440053
15090.1	-0.0040792
15101.1	-0.00370047
15110.3	-0.00339056
15121.3	-0.00302552
15130.5	-0.00272709
15141.5	-0.00237603
15150.7	-0.00208954
15161.8	-0.00175329
15171	-0.00147961
15180.2	-0.00121217
15191.2	-0.000899889
15200.4	-0.000647286
15211.4	-0.000353905
15220.6	-0.000118053
15231.6	0.000153897
15240.8	0.000370683
15250	0.000577932
15261	0.0008132
15270.2	0.000997324
15281.3	0.00120296
15290.5	0.00136073
15301.5	0.00153266
15310.7	0.00166054
15321.7	0.00179435
15330.9	0.00188851
15340.1	0.00196603
15351.1	0.00203586
15360.3	0.00207371
15371.4	0.00209337
15380.5	0.00208725
15391.6	0.00205152
15400.8	0.00199703
15411.8	0.0019006
15421	0.00179329
15430.2	0.00166052
15441.2	0.00146629
15450.4	0.0012743
15461.4	0.00100643
15470.6	0.000750952
15481.7	0.000404407
15490.9	8.13486e-05
15500	-0.000273714
15511.1	-0.000743112
15520.3	-0.00117123
15531.3	-0.00173037
15540.5	-0.0022349
15551.5	-0.00288755
15560.7	-0.00347142
15571.7	-0.00422082
15580.9	-0.00488647
15590.1	-0.00558996
15601.2	-0.00648456
15610.4	-0.00727239
15621.4	-0.00826888
15630.6	-0.00914202
15641.6	-0.0102412
15650.8	-0.0111999
15661.8	-0.0124016
15671	-0.0134456
15680.2	-0.0145278
15691.2	-0.0158766
15700.4	-0.0170419
15711.5	-0.0184891
15720.7	-0.019735
15731.7	-0.021277
15740.9	-0.0226001
15750.1	-0.023957
15761.1	-0.0256285
15770.3	-0.0270562
15781.3	-0.0288095
15790.5	-0.0303024
15801.6	-0.0321301
15810.7	-0.0336818
15821.8	-0.0355758
15831	-0.0371789
15840.2	-0.0388028
15851.2	-0.0407762
15860.4	-0.0424392
15871.4	-0.0444541
15880.6	-0.0461469
15891.6	-0.0481916
15900.8	-0.049904
15910	-0.0516219
15921.1	-0.0536871
15930.2	-0.0554086
15941.3	-0.0574713
15950.5	-0.0591848
15961.5	-0.0612307
15970.7	-0.0629239
15981.7	-0.064938
15990.9	-0.0665985
16000.1	-0.0682399
16011.1	-0.0701805
16020.3	-0.0717704
16031.4	-0.0736414
16040.6	-0.0751668
16051.6	-0.0769527
16060.8	-0.0784006
16071.8	-0.0800858
16081	-0.0814435
16090.2	-0.082756
16101.2	-0.0842678
16110.4	-0.085472
16121.4	-0.0868467
16130.6	-0.0879309
16141.7	-0.0891547
16150.9	-0.0901076
16160.1	-0.0909974
16171.1	-0.091979
16180.3	-0.0927227
16191.3	-0.0935234
16200.5	-0.0941121
16211.5	-0.0947218
16220.7	-0.0951475
16231.8	-0.0955573
16240.9	-0.0958132
16250.1	-0.09599
16261.2	-0.0960964
16270.4	-0.0960959
16281.4	-0.0959873
16290.6	-0.095806
16301.6	-0.0954789
16310.8	-0.0951148
16321.8	-0.0945677
16331	-0.0940202
16340.2	-0.0933896
16351.3	-0.0925237
16360.4	-0.0917117
16371.5	-0.0906297
16380.7	-0.0896395
16391.7	-0.0883464
16400.9	-0.0871828
16410.1	-0.0859422
16421.1	-0.0843542
16430.3	-0.0829497
16441.3	-0.0811697
16450.5	-0.0796096
16461.6	-0.0776484
16470.8	-0.0759423
16481.8	-0.0738121
16491	-0.0719707
16500.2	-0.0700717
16511.2	-0.0677204
16520.4	-0.0657038
16531.4	-0.0632193
16540.6	-0.0610984
16551.6	-0.0584971
16560.8	-0.0562859
16570	-0.0540385
16581.1	-0.0512983
16590.3	-0.0489822
16601.3	-0.0461686
16610.5	-0.0437991
16621.5	-0.0409307
16630.7	-0.0385233
16641.7	-0.0356188
16650.9	-0.0331891
16660.1	-0.0307543
16671.1	-0.0278305
16680.3	-0.0253959
16691.4	-0.0224813
16700.6	-0.0200618
16711.6	-0.0171741
16720.8	-0.0147842
16731.8	-0.0119404
16741	-0.00959398
16750.2	-0.00727166
16761.2	-0.00452039
16770.4	-0.00226022
16781.5	0.0004093
16790.6	0.00259563
16801.7	0.00517001
16810.9	0.00727187
16820.1	0.00933214
16831.1	0.011747
16840.3	0.0137094
16851.3	0.016002
16860.5	0.017859
16871.5	0.020021
16880.7	0.021766
16891.8	0.0237905
16901	0.0254185
16910.1	0.0269921
16921.2	0.0288075
16930.4	0.0302591
16941.4	0.0319268
16950.6	0.0332545
16961.6	0.034773
16970.8	0.0359762
16980	0.0371229
16991	0.0384248
17000.2	0.0394483
17011.3	0.0406034
17020.5	0.0415058
17031.5	0.0425174
17040.7	0.043302
17051.7	0.0441745
17060.9	0.0448454
17070.1	0.0454661
17081.1	0.0461463
17090.3	0.0466606
17101.3	0.0472166
17110.5	0.0476305
17121.6	0.0480697
17130.8	0.0483895
17141.8	0.0487199
17151	0.0489524
17160.2	0.0491476
17171.2	0.0493345
17180.4	0.0494528
17191.4	0.0495518
17200.6	0.0496003
17211.7	0.0496201
17220.8	0.0496062
17230	0.0495664
17241.1	0.0494863
17250.3	0.0493944
17261.3	0.0492561
17270.5	0.049119
17281.5	0.0489304
17290.7	0.0487547
17301.7	0.0485235
17310.9	0.0483153
17320.1	0.0480942
17331.2	0.0478137
17340.3	0.0475683
17351.4	0.0472617
17360.6	0.0469971
17371.6	0.0466702
17380.8	0.0463908
17391.8	0.0460486
17401	0.0457585
17410.2	0.0454647
17421.2	0.0451082
17430.4	0.0448084
17441.5	0.0444465
17450.7	0.0441435
17461.7	0.0437791
17470.9	0.0434752
17480.1	0.0431714
17491.1	0.0428075
17500.3	0.0425051
17511.3	0.0421436
17520.5	0.0418438
17531.5	0.0414859
17540.7	0.0411894
17551.8	0.0408359
17561	0.0405432
17570.2	0.0402524
17581.2	0.0399059
17590.4	0.0396192
17601.4	0.0392777
17610.6	0.038995
17621.6	0.0386583
17630.8	0.0383796
17640	0.0381025
17651	0.0377723
17660.2	0.0374988
17671.3	0.0371726
17680.5	0.0369023
17691.5	0.0365798
17700.7	0.0363125
17711.7	0.0359934
17720.9	0.0357289
17730.1	0.0354656
17741.1	0.0351512
17750.3	0.0348905
17761.4	0.0345793
17770.5	0.0343212
17781.6	0.0340132
17790.8	0.033758
17801.8	0.0334536
17811	0.0332015
17820.2	0.032951
17831.2	0.0326525
17840.4	0.0324058
17851.4	0.0321122
17860.6	0.0318698
17871.7	0.0315819
17880.9	0.0313447
17890	0.03111
17901.1	0.030832
17910.3	0.0306036
17921.3	0.0303337
17930.5	0.0301126
17941.5	0.0298519
17950.7	0.0296388
17961.7	0.0293885
17970.9	0.0291845
17980.1	0.0289849
17991.2	0.0287516
18000.4	0.0285625
18011.4	0.0283421
18020.6	0.0281642
18031.6	0.0279579
18040.8	0.027792
18051.8	0.0276005
18061	0.0274473
18070.2	0.0273
18081.2	0.0271312
18090.4	0.0269973
18101.5	0.0268448
18110.7	0.0267245
18121.7	0.0265885
18130.9	0.0264819
18140.1	0.0263816
18151.1	0.0262695
18160.3	0.0261827
18171.3	0.0260865
18180.5	0.0260129
18191.6	0.0259322
18200.7	0.0258711
18211.8	0.0258049
18221	0.0257555
18230.2	0.025711
18241.2	0.0256639
18250.4	0.0256295
18261.4	0.0255937
18270.6	0.025568
18281.6	0.0255416
18290.8	0.0255231
18300	0.0255072
18311.1	0.0254911
18320.2	0.0254796
18331.3	0.0254677
18340.5	0.0254588
18351.5	0.0254485
18360.7	0.0254398
18371.7	0.0254285
18380.9	0.0254177
18390.1	0.0254052
18401.1	0.0253872
18410.3	0.025369
18421.4	0.0253427
18430.6	0.0253163
18441.6	0.0252785
18450.8	0.0252412
18461.8	0.0251886
18471	0.0251377
18480.2	0.0250798
18491.2	0.0250001
18500.4	0.0249246
18511.4	0.0248222
18520.6	0.0247264
18531.7	0.0245982
18540.9	0.0244795
18550.1	0.0243496
18561.1	0.0241782
18570.3	0.0240217
18581.3	0.0238168
18590.5	0.0236312
18601.5	0.0233901
18610.7	0.0231732
18621.8	0.0228932
18630.9	0.0226429
18640.1	0.0223767
18651.2	0.0220358
18660.4	0.0217333
18671.4	0.0213479
18680.6	0.0210077
18691.6	0.020576
18700.8	0.0201964
18710	0.0197987
18721	0.0192971
18730.2	0.0188585
18741.3	0.0183075
18750.5	0.0178275
18761.5	0.0172264
18770.7	0.0167045
18781.7	0.0160531
18790.9	0.0154893
18800.1	0.0149066
18811.1	0.0141823
18820.3	0.0135582
18831.3	0.0127847
18840.5	0.01212
18851.6	0.0112984
18860.8	0.0105942
18871.8	0.00972624
18881	0.00898415
18890.2	0.00822541
18901.2	0.00729354
18910.4	0.00649971
18921.4	0.00552711
18930.6	0.00470055
18941.7	0.00369025
18950.8	0.00283366
18960	0.0019644
18971.1	0.000905488
18980.3	1.06851e-05
18991.3	-0.00107686
19000.5	-0.00199378
19011.5	-0.00310569
19020.7	-0.00404103
19031.7	-0.00517272
19040.9	-0.00612256
19050.1	-0.00707764
19061.2	-0.00822943
19070.3	-0.00919297
19081.4	-0.0103523
19090.6	-0.01132
19101.6	-0.0124816
19110.8	-0.0134489
19121.8	-0.0146073
19131	-0.0155697
19140.2	-0.0165284
19151.2	-0.0176725
19160.4	-0.0186196
19171.5	-0.0197472
19180.7	-0.0206782
19191.7	-0.0217836
19200.9	-0.022694
19210.1	-0.0235936
19221.1	-0.0246574
19230.3	-0.02553
19241.3	-0.0265588
19250.5	-0.0274001
19261.5	-0.0283891
19270.7	-0.0291951
19281.8	-0.0301394
19291	-0.0309063
19300.2	-0.0316542
19311.2	-0.0325256
19320.4	-0.0332293
19331.4	-0.0340456
19340.6	-0.0347017
19351.6	-0.0354592
19360.8	-0.0360649
19370	-0.0366469
19381	-0.0373131
19390.2	-0.0378409
19401.3	-0.0384409
19410.5	-0.0389125
19421.5	-0.039444
19430.7	-0.0398577
19441.7	-0.0403187
19450.9	-0.0406731
19460.1	-0.0410002
19471.1	-0.0413564
19480.3	-0.0416228
19491.4	-0.0419059
19500.5	-0.0421113
19511.6	-0.0423211
19520.8	-0.0424654
19531.8	-0.042602
19541	-0.0426855
19550.2	-0.0427417
19561.2	-0.0427732
19570.4	-0.0427699
19581.4	-0.0427308
19590.6	-0.0426694
19601.7	-0.0425615
19610.9	-0.0424436
19620	-0.0423007
19631.1	-0.042097
19640.3	-0.0419009
19651.3	-0.0416348
19660.5	-0.0413881
19671.5	-0.041063
19680.7	-0.0407687
19691.7	-0.0403884
19700.9	-0.0400497
19710.1	-0.039692
19721.2	-0.0392388
19730.4	-0.0388422
19741.4	-0.0383445
19750.6	-0.0379129
19761.6	-0.0373757
19770.8	-0.0369132
19781.8	-0.0363418
19791	-0.0358529
19800.2	-0.0353536
19811.2	-0.034742
19820.4	-0.034223
19831.5	-0.0335906
19840.7	-0.0330568
19851.7	-0.0324094
19860.9	-0.0318655
19870.1	-0.0313186
19881.1	-0.0306598
19890.3	-0.0301099
19901.3	-0.0294503
19910.5	-0.0289021
19921.6	-0.0282475
19930.7	-0.0277057
19941.8	-0.0270615
19951	-0.0265307
19960.2	-0.0260063
19971.2	-0.0253868
19980.4	-0.0248796
19991.4	-0.024283
