0	0	438848
10.9754	0	461570
20.9384	0	476872
30.9003	0	489736
40.8626	0	499982
50.8141	0	506802
60.6735	0	512982
70.4826	0	518356
80.2916	0	523052
90.0689	0	526698
100.74	0	530862
110.372	0	534056
120.97	0	537466
130.701	0	539762
140.575	0	542536
150.543	0	545964
160.597	0	548638
170.752	0	551392
180.918	0	553896
190.068	0	556110
200.234	0	558684
210.4	0	560874
220.566	0	563470
230.732	0	566212
240.898	0	569152
250.056	0	571982
260.259	0	574830
270.461	0	577984
280.645	0	580676
290.815	0	583614
300.99	0	586470
310.164	0	589234
320.361	0	592082
330.56	0	595176
340.739	0	598514
350.913	0	601880
360.063	0	605042
370.229	0	608502
380.394	0	612014
390.559	0	615456
400.725	0	618904
410.893	0	621894
420.063	0	624942
430.27	0	628576
440.472	0	631606
450.674	0	634926
460.876	0	638072
470.056	0	641014
480.253	0	644490
490.449	0	647694
500.646	0	650756
510.844	0	653768
520.031	0	656772
530.245	0	659942
540.424	0	663666
550.604	0	667098
560.816	0	670592
570.054	0	673710
580.319	0	677330
590.598	0	681060
600.901	0	684520
610.174	0	688162
620.477	0	691762
630.78	0	695614
640.053	0	698772
650.356	0	702578
660.659	0	706094
670.962	0	709988
680.234	0	713548
690.537	0	717104
700.84	0	720802
710.093	0	724418
720.345	0	728216
730.586	0	732090
740.826	0	736080
750.042	0	739734
760.282	0	743804
770.522	0	747956
780.762	0	752068
791.003	0	756218
800.214	0	760164
810.422	0	764526
820.626	0	768726
830.83	0	772764
840.013	0	776582
850.216	0	781062
860.418	0	785516
870.62	0	790206
880.823	0	794578
890.004	0	798566
900.201	0	802830
910.398	0	807424
920.595	0	811822
930.792	0	816128
940.989	0	820640
950.161	0	824708
960.34	0	828748
970.518	0	833122
980.684	0	837520
990.851	0	841712
1000	0	845628
1010.17	0	850032
1020.33	0	854262
1030.5	0	859008
1040.67	0	863634
1050.83	0	868440
1061	0	873448
1070.15	0	877886
1080.32	0	883024
1090.49	0	887798
1100.65	0	892472
1110.82	0	897004
1120.99	0	901580
1130.14	0	905842
1140.31	0	910510
1150.48	0	914974
1160.64	0	919624
1170.81	0	924112
1180.98	0	928840
1190.13	0	933012
1200.3	0	937852
1210.47	0	942680
1220.64	0	947722
1230.8	0	952488
1240.97	0	957212
1250.12	0	961444
1260.29	0	965778
1270.46	0	970350
1280.63	0	974740
1290.8	0	978956
1300.97	0	983694
1310.12	0	987676
1320.29	0	992544
1330.46	0	997172
1340.63	0	1002322
1350.8	0	1006766
1360.96	0	1011400
1370.12	0	1015660
1380.29	0	1020116
1390.45	0	1024584
1400.57	0	1028928
1410.68	0	1033292
1420.77	0	1037226
1430.87	0	1041550
1440.97	0	1045996
1450.05	0	1049784
1460.15	0	1054520
1470.25	0	1059034
1480.34	0	1063400
1490.44	0	1068276
1500.54	0	1072846
1510.63	0	1077078
1520.73	0	1081754
1530.82	0	1086006
1540.92	0	1090096
1550.01	0	1093586
1560.1	0	1097460
1570.2	0	1101260
1580.3	0	1104478
1590.39	0	1107460
1600.49	0	1110408
1610.59	0	1113212
1620.68	0	1116520
1630.78	0	1119538
1640.88	0	1122190
1650.98	0	1125212
1660.06	0	1127378
1670.16	0	1130560
1680.26	0	1133586
1690.35	0	1136288
1700.45	0	1139618
1710.55	0	1142304
1720.64	0	1145546
1730.74	0	1148416
1740.84	0	1151656
1750.93	0	1154720
1760.02	0	1157000
1770.12	0	1159936
1780.22	0	1162548
1790.34	0	1165438
1800.6	0	1168100
1810.87	0	1170718
1820.12	0	1173244
1830.47	0	1176006
1840.9	0	1178872
1850.32	0	1181396
1860.8	0	1184708
1870.18	0	1187350
1880.7	0	1190178
1890.13	0	1192928
1900.6	0	1195956
1910.02	0	1198704
1920.46	0	1201462
1930.89	0	1204102
1940.28	0	1206456
1950.72	0	1208966
1960.1	0	1211544
1970.45	0	1214044
1980.79	0	1217280
1990.07	0	1219646
2000.41	0	1222656
2010.71	0	1225164
2021.01	0	1228084
2030.33	0	1230818
2040.65	0	1233572
2050.97	0	1236690
2060.24	0	1238824
2070.57	0	1241996
2080.99	0	1244796
2090.39	0	1247304
2100.85	0	1250626
2110.13	0	1253072
2120.44	0	1256520
2130.76	0	1259584
2140.18	0	1262034
2150.57	0	1265460
2160.89	0	1268488
2170.19	0	1271432
2180.52	0	1273918
2190.94	0	1277110
2200.27	0	1280022
2210.59	0	1283022
2220.94	0	1285982
2230.24	0	1288796
2240.55	0	1292122
2250.9	0	1295290
2260.24	-9.09495e-13	1298076
2270.63	-7.27596e-12	1300806
2280.95	-1.45519e-11	1304570
2290.24	-2.09184e-11	1307004
2300.58	-2.91038e-11	1309874
2310.89	-3.81988e-11	1311934
2320.2	-4.63842e-11	1314328
2330.57	-5.54792e-11	1316212
2340.89	-6.45741e-11	1318538
2350.21	-7.27596e-11	1320686
2360.56	-8.18545e-11	1323366
2370.9	-9.09495e-11	1325972
2380.24	-1.06411e-10	1328420
2390.62	-1.24601e-10	1330612
2401	-1.47338e-10	1332714
2410.39	-1.71894e-10	1335242
2420.83	-2.07365e-10	1337644
2430.23	-2.46473e-10	1340102
2440.64	-3.01043e-10	1342118
2450.99	-3.68345e-10	1344138
2460.34	-4.43833e-10	1345902
2470.8	-5.48425e-10	1347622
2480.3	-6.64841e-10	1349678
2490.95	-8.24912e-10	1351646
2500.54	-1.00317e-09	1353702
2510.32	-1.22327e-09	1355922
2520.91	-1.51522e-09	1358776
2530.24	-1.8299e-09	1360952
2540.66	-2.25464e-09	1363748
2550.26	-2.73212e-09	1366588
2560.77	-3.36331e-09	1369222
2570.05	-4.03725e-09	1371594
2580.55	-4.95493e-09	1374478
2590.06	-5.95537e-09	1376986
2600.38	-7.25868e-09	1379862
2610.75	-8.84029e-09	1383020
2620.14	-1.0552e-08	1385924
2630.51	-1.28039e-08	1389082
2640.82	-1.54923e-08	1391768
2650.15	-1.83763e-08	1394494
2660.6	-2.22053e-08	1397499
2671.02	-2.67737e-08	1400503
2680.38	-3.1614e-08	1403433
2690.68	-3.78977e-08	1406721
2700.98	-4.53492e-08	1409599
2710.4	-5.33473e-08	1412219
2720.74	-6.3641e-08	1415327
2730.07	-7.45176e-08	1417557
2740.44	-8.86494e-08	1420851
2750.87	-1.05369e-07	1422871
2760.27	-1.22926e-07	1425355
2770.74	-1.45708e-07	1427703
2780.17	-1.69533e-07	1429509
2790.59	-2.00112e-07	1431073
2800.02	-2.3212e-07	1432791
2810.48	-2.73239e-07	1435585
2820.86	-3.20679e-07	1437869
2830.22	-3.69956e-07	1439363
2840.73	-4.33631e-07	1441701
2850.16	-4.99266e-07	1443667
2860.68	-5.83449e-07	1445917
2870.2	-6.70698e-07	1447819
2880.84	-7.82555e-07	1449379
2890.48	-8.98582e-07	1450974
2901	-1.04329e-06	1453370
2910.42	-1.19082e-06	1454876
2920.77	-1.37523e-06	1456462
2930.15	-1.56468e-06	1457952
2940.82	-1.80916e-06	1459832
2950.22	-2.05353e-06	1461868
2960.67	-2.36033e-06	1463476
2970.11	-2.67328e-06	1465450
2980.61	-3.06611e-06	1467192
2990	-3.46138e-06	1468570
3000.54	-3.96054e-06	1471330
3011.02	-4.5208e-06	1472886
3020.3	-5.07725e-06	1474203
3030.61	-5.76821e-06	1476555
3041.04	-6.55317e-06	1478967
3050.45	-7.34323e-06	1481241
3060.82	-8.31378e-06	1482899
3070.09	-9.27913e-06	1484927
3080.41	-1.04724e-05	1487185
3090.73	-1.18035e-05	1489021
3100.03	-1.31311e-05	1490733
3110.93	-1.48574e-05	1492859
3120.46	-1.65326e-05	1494671
3130.08	-1.83955e-05	1497065
3140.7	-2.06688e-05	1499357
3150.27	-2.29272e-05	1501715
3160.87	-2.56904e-05	1503897
3170.71	-2.85148e-05	1506615
3180.72	-3.16686e-05	1509238
3190.62	-3.50937e-05	1511470
3200.78	-3.89431e-05	1514576
3210.93	-4.31635e-05	1517260
3221.09	-4.77849e-05	1520148
3230.11	-5.22552e-05	1522922
3240.27	-5.77229e-05	1525676
3250.42	-6.36893e-05	1528264
3260.58	-7.01923e-05	1530838
3270.73	-7.72731e-05	1533404
3280.89	-8.49779e-05	1536096
3291.07	-9.33618e-05	1538678
3300.13	-0.000101416	1540938
3310.31	-0.000111197	1543584
3320.53	-0.000121815	1545962
3330.74	-0.000133302	1548676
3340.9	-0.000145647	1551272
3350.58	-0.00015832	1553478
3360.58	-0.000172406	1556091
3370.06	-0.000186733	1558055
3380.6	-0.000203849	1560442
3390.31	-0.000220783	1562492
3400.37	-0.000239593	1564430
3410.37	-0.000259612	1566642
3420.37	-0.000281028	1568594
3430.36	-0.000303922	1571360
3440.36	-0.000328371	1573672
3450.36	-0.000354455	1576220
3460.36	-0.000382268	1578860
3470.37	-0.000411903	1581104
3480.37	-0.000443406	1583428
3490.36	-0.000476867	1586162
3500.35	-0.000512397	1588054
3510.34	-0.000550088	1590304
3520.34	-0.000590036	1592206
3530.34	-0.000632371	1594454
3540.38	-0.000677337	1596770
3550.43	-0.000724954	1598551
3560.48	-0.000775219	1601175
3570.51	-0.000828225	1603784
3580.53	-0.000884019	1605887
3590.56	-0.000942852	1608805
3600.59	-0.00100478	1610806
3610.61	-0.00106992	1613303
3620.64	-0.00113838	1615993
3630.73	-0.00121074	1618254
3640.83	-0.00128676	1620842
3650.93	-0.00136648	1623602
3661.04	-0.00145006	1626174
3670.04	-0.00152784	1628754
3680.18	-0.00161926	1631246
3690.4	-0.00171557	1634200
3700.62	-0.00181633	1637028
3710.85	-0.00192167	1639800
3721.09	-0.00203162	1642292
3730.16	-0.00213305	1644742
3740.36	-0.0022516	1647008
3750.54	-0.00237477	1649292
3760.48	-0.00249983	1651936
3770	-0.00262412	1654776
3780.58	-0.00276758	1657792
3790.15	-0.0029021	1660342
3800.64	-0.00305512	1663636
3810.11	-0.00319814	1665824
3820.66	-0.00336309	1669308
3830.12	-0.00351612	1672234
3840.58	-0.00369093	1675123
3851.03	-0.00387179	1678763
3860.54	-0.00404133	1681422
3870.06	-0.00421641	1683908
3880.98	-0.00442326	1686961
3890	-0.00459934	1689177
3900.15	-0.00480294	1692460
3910.31	-0.00501241	1695352
3920.46	-0.00522773	1698318
3930.61	-0.0054489	1701305
3940.76	-0.00567589	1704467
3950.91	-0.00590867	1707570
3961.07	-0.00614719	1710441
3970.09	-0.00636389	1712798
3980.23	-0.00661267	1715763
3990.36	-0.00686682	1718354
4000.49	-0.00712607	1721056
4010.61	-0.00739045	1723376
4020.74	-0.00765975	1725584
4030.87	-0.00793372	1728079
4040.99	-0.00821205	1730428
4050.02	-0.0084636	1732836
4060.19	-0.00875037	1735483
4070.37	-0.0090407	1738069
4080.59	-0.0093346	1741167
4090.62	-0.00962519	1744120
4100.29	-0.00990627	1746354
4110.01	-0.0101896	1749362
4120.17	-0.0104851	1751737
4130.86	-0.0107949	1755116
4140.35	-0.0110678	1758329
4150.9	-0.0113676	1760719
4160.34	-0.0116316	1763593
4170.82	-0.0119191	1766079
4180.21	-0.0121699	1768340
4190.69	-0.0124418	1770820
4200.13	-0.0126776	1773379
4210.68	-0.0129295	1776422
4220.47	-0.0131511	1778953
4230.06	-0.0133555	1781171
4240.9	-0.0135695	1783738
4250.7	-0.0137463	1785984
4260.2	-0.013901	1788301
4270.97	-0.0140551	1791005
4280.39	-0.0141702	1792770
4290.87	-0.0142751	1795055
4300.36	-0.0143481	1796933
4310.34	-0.0144011	1799373
4320.07	-0.0144285	1802105
4330.69	-0.0144296	1804693
4340.25	-0.0144043	1806864
4350.9	-0.0143458	1809474
4360.24	-0.0142675	1811594
4370.6	-0.0141505	1814343
4380.08	-0.0140153	1817099
4390.66	-0.0138328	1820033
4400.26	-0.0136396	1823226
4410.98	-0.0133914	1826538
4420.3	-0.0131436	1829300
4430.96	-0.012809	1832732
4440.45	-0.0124617	1835758
4450.85	-0.0117671	1838828
4460.18	-0.0110657	1841428
4470.61	-0.0102466	1844443
4480.14	-0.0099404	1847214
4490.57	-0.00939347	1849738
4500.08	-0.0086336	1852162
4510.96	-0.00756806	1854912
4520.56	-0.00652175	1857498
4531.01	-0.00530634	1859899
4541.01	-0.00403143	1862149
4551.1	-0.00254928	1864550
4560.93	-0.000696224	1866672
4570.77	0.00113935	1868914
4580.37	0.00358253	1871824
4590.01	0.00628959	1873674
4600.33	0.0101691	1876502
4610.67	0.0155067	1878913
4620.24	0.0196081	1881497
4630.08	0.023785	1884101
4640.93	0.0289284	1887352
4650.28	0.0338417	1889850
4660.99	0.0397796	1892417
4670.45	0.0454455	1894287
4680.9	0.0497558	1896643
4690.31	0.0573798	1899019
4700.74	0.0673747	1901042
4710.13	0.0773542	1903243
4720.6	0.0889292	1905641
4730	0.099292	1908155
4740.45	0.11096	1910438
4750.89	0.131034	1912364
4760.32	0.147903	1914594
4770.76	0.167174	1916889
4780.19	0.185531	1918976
4790.63	0.206292	1921260
4800.02	0.225696	1922969
4810.59	0.248095	1925682
4821.02	0.270512	1928501
4830.3	0.290881	1930348
4840.63	0.313788	1932804
4850.03	0.334656	1934610
4860.74	0.35796	1937126
4870.34	0.378036	1939681
4880.93	0.398904	1942468
4890.36	0.41607	1944924
4900.67	0.43316	1946752
4910.09	0.447243	1948250
4920.8	0.461683	1949817
4930.41	0.473446	1951843
4940.03	0.484291	1953931
4950.33	0.495002	1956228
4960.63	0.50483	1958927
4970.95	0.513844	1960516
4980.45	0.521453	1962698
4990.83	0.529043	1965387
5000.17	0.535191	1967221
5010.89	0.541352	1969586
5020.71	0.546205	1971622
5030.32	0.549734	1973801
5040.05	0.552699	1976079
5051.02	0.554291	1979318
5060.4	0.555661	1982388
5070.99	0.554691	1984224
5081.01	0.552578	1986295
5090.69	0.549666	1988100
5100.03	0.546014	1990072
5110.41	0.541016	1992099
5120.84	0.535084	1994041
5130.18	0.528982	1996008
5140.74	0.521226	1998204
5150.1	0.513594	2000476
5160.15	0.504669	2002634
5170.39	0.494814	2004638
5180.67	0.484168	2007140
5190.96	0.473084	2009649
5200.46	0.460681	2012251
5210.35	0.445621	2014374
5220.64	0.425415	2017157
5230.93	0.406634	2020243
5240.07	0.388421	2022412
5250.36	0.367671	2024524
5260.65	0.346365	2026989
5270.95	0.32406	2029163
5280.14	0.303628	2031079
5290.34	0.280016	2033262
5300.37	0.23562	2035195
5310.5	0.197785	2037014
5320.97	0.158634	2038806
5330.25	0.127841	2040234
5340.56	0.0961068	2041948
5350.88	0.0651544	2044721
5360.26	0.0397307	2046613
5370.68	0.0124613	2048743
5380.1	-0.00965279	2049995
5390.64	-0.0322883	2052133
5400.23	-0.0507774	2053570
5410.84	-0.0685124	2055598
5420.42	-0.0827046	2057367
5430.98	-0.0961004	2059679
5440.43	-0.106064	2061482
5450.86	-0.116882	2063365
5460.3	-0.123089	2065111
5471.02	-0.130481	2067107
5480.53	-0.136982	2069111
5490.58	-0.14386	2070708
5500.89	-0.151422	2072621
5510.56	-0.158872	2074621
5520.05	-0.16684	2076404
5530.66	-0.176466	2078633
5540.35	-0.185986	2080258
5550.66	-0.196891	2082118
5560.36	-0.207859	2084303
5570.91	-0.220562	2086280
5580.3	-0.232375	2088344
5590.75	-0.246026	2089861
5600.67	-0.259334	2091424
5610.98	-0.273392	2093146
5620.15	-0.285938	2093861
5630.47	-0.299927	2095196
5640.78	-0.313597	2096055
5651.1	-0.326715	2097376
5660.27	-0.3377	2098798
5670.59	-0.349049	2099905
5680.9	-0.359037	2101177
5690.07	-0.366517	2102217
5700.39	-0.373025	2103702
5710.7	-0.375665	2104609
5721.02	-0.378241	2106146
5730.19	-0.378257	2107161
5740.5	-0.377266	2108621
5750.82	-0.37465	2110143
5761.14	-0.370771	2111785
5771.08	-0.365797	2112750
5780.19	-0.360276	2114003
5790.58	-0.3528	2115182
5800.98	-0.344067	2116086
5810.2	-0.335382	2117513
5820.54	-0.32335	2118855
5830.94	-0.308101	2120797
5840.89	-0.288159	2122099
5850.27	-0.269783	2123321
5860.7	-0.247508	2124924
5870.12	-0.2268	2126673
5880.57	-0.203418	2128328
5890.99	-0.179418	2129596
5900.36	-0.157605	2130471
5910.93	-0.132607	2132006
5921.08	-0.0834133	2132918
5930.25	-0.0541304	2133692
5940.82	-0.0220532	2135779
5950.21	-0.000422637	2136693
5960.64	0.0211215	2138018
5970.2	0.0375382	2138925
5980.09	0.0510482	2141021
5990.93	0.0639946	2142499
6000.74	0.0709488	2143867
6010.37	0.0735977	2145386
6020.79	0.0766385	2147921
6030.19	0.0763354	2149829
6040.98	0.0752318	2152243
6050.59	0.0737987	2154380
6060.22	0.0719419	2156425
6070.28	0.0696974	2158795
6080.33	0.0671359	2161582
6090.57	0.0641957	2163760
6100.2	0.0611599	2165940
6110.93	0.0575139	2168374
6120.8	0.0539255	2170802
6131.07	0.0499831	2173470
6140.67	0.0460896	2175752
6150.14	0.0420543	2178204
6160.65	0.0373431	2180770
6170.17	0.0328531	2183055
6180.59	0.0276845	2185901
6190.01	0.0228003	2188271
6201.05	0.0168508	2191080
6211.02	0.0111917	2193607
6220.43	0.00559521	2195693
6230.89	-0.000763409	2197988
6240.4	-0.0065561	2200173
6250.15	-0.0125125	2202351
6260.7	-0.0190555	2204545
6270.08	-0.0248673	2206605
6280.52	-0.0314609	2208454
6290.1	-0.0375232	2210752
6300.58	-0.0440634	2213257
6310.02	-0.0499319	2214763
6320.48	-0.0561997	2217486
6330.92	-0.0620533	2219711
6340.32	-0.0670129	2221457
6350.75	-0.0722004	2223475
6360.14	-0.076609	2224787
6370.59	-0.0811946	2226832
6380.04	-0.0850011	2228234
6390.48	-0.0887749	2229354
6400.93	-0.0920759	2231302
6410.34	-0.0946467	2233355
6420.79	-0.097031	2235752
6430.32	-0.0988692	2237510
6440.22	-0.100177	2239669
6450.94	-0.101341	2241887
6460.38	-0.101794	2244368
6470.86	-0.101386	2247182
6480.51	-0.100824	2250084
6490.99	-0.100345	2253164
6500.41	-0.0995651	2256148
6510.87	-0.0986842	2259391
6520.27	-0.0978438	2261948
6530.31	-0.0968118	2264873
6540.01	-0.0957419	2268029
6550.71	-0.0945317	2271564
6560.24	-0.0933685	2274454
6570.83	-0.0919679	2277313
6580.34	-0.0906427	2280053
6590.8	-0.0891383	2283163
6600.18	-0.0877541	2286667
6610.69	-0.0861766	2289491
6620.07	-0.0847551	2292431
6630.73	-0.0831355	2294989
6640.87	-0.0815992	2298405
6650.74	-0.0801167	2301568
6660.13	-0.0787291	2304199
6670.83	-0.0771846	2307033
6680.96	-0.0757687	2309712
6691.09	-0.0744021	2312882
6700.09	-0.0732302	2315549
6711.04	-0.0718601	2318710
6720.88	-0.0706813	2321809
6730.53	-0.0695743	2324618
6740	-0.0685307	2327272
6750.58	-0.0674122	2329265
6760.08	-0.0664443	2332313
6770.52	-0.0654118	2334431
6780.96	-0.0644029	2336577
6790.39	-0.0635037	2338145
6800.85	-0.0625115	2340203
6810.26	-0.0616159	2341810
6820.81	-0.0606013	2343494
6830.37	-0.0596674	2344874
6840.01	-0.0587045	2346773
6850.63	-0.0576182	2349092
6860.04	-0.0566273	2351294
6870.52	-0.0554899	2353466
6881.01	-0.0543148	2356220
6890.5	-0.0532219	2358663
6900.05	-0.0521019	2360412
6910.61	-0.0508553	2362909
6920.08	-0.0497184	2365595
6930.58	-0.048413	2368092
6940.06	-0.0471815	2370569
6950.6	-0.045749	2373337
6960.09	-0.0444115	2375257
6970.66	-0.0428809	2377826
6980.17	-0.041481	2379604
6990.69	-0.0399139	2381873
7000.17	-0.0384917	2383879
7010.71	-0.0369067	2386531
7020.26	-0.0354717	2388648
7030.97	-0.0338675	2391694
7040.41	-0.0324641	2394046
7050.94	-0.0309153	2396248
7060.46	-0.0295334	2398495
7070.17	-0.0281456	2400627
7080.04	-0.026761	2403129
7090.6	-0.0253135	2405103
7100.02	-0.024053	2407147
7110.54	-0.0226856	2409838
7120.36	-0.0214487	2411871
7130.99	-0.0201573	2414884
7140.5	-0.0190457	2417201
7150.02	-0.0179729	2419430
7160.59	-0.0168294	2422866
7170.13	-0.0158418	2425744
7181.01	-0.0147641	2428395
7190.98	-0.0138217	2431342
7200.96	-0.012921	2433982
7210.14	-0.0121282	2436222
7220.46	-0.0112765	2438647
7230.79	-0.0104669	2441476
7241.12	-0.00969838	2443933
7250.29	-0.00904708	2446894
7260.62	-0.00834805	2450224
7270.94	-0.0076878	2453452
7280.09	-0.00718182	2455356
7290.34	-0.00662941	2458212
7300.53	-0.00611335	2460513
7310.69	-0.00561676	2462722
7320.83	-0.0051465	2464463
7330.97	-0.00471333	2465662
7341.11	-0.00431283	2467536
7350.13	-0.00398216	2468437
7360.27	-0.00363662	2470395
7370.41	-0.00331743	2472596
7380.55	-0.00302468	2473758
7390.69	-0.00275987	2476165
7400.83	-0.00252349	2477450
7410.97	-0.00231408	2479482
7421.11	-0.00212883	2481214
7430.12	-0.00198169	2483070
7440.26	-0.00183245	2486042
7450.4	-0.00169651	2487763
7460.54	-0.00156915	2490375
7470.68	-0.00144487	2492361
7480.83	-0.00131756	2494631
7490.97	-0.00118082	2496107
7501.11	-0.00102828	2497777
7510	-0.000876686	2499698
7520.77	-0.00066515	2501675
7530.43	-0.000444914	2503369
7540.84	-0.00017063	2505366
7550.5	0.000121139	2507056
7560.08	0.000448717	2508128
7570.43	0.000846629	2510270
7580.78	0.00129137	2511767
7590.38	0.00174586	2512936
7600.1	0.00224591	2514510
7611.06	0.00285677	2516460
7620.97	0.00344877	2518678
7630.88	0.00407498	2520938
7640.79	0.00473106	2522599
7650.7	0.00541183	2524765
7660.61	0.00611132	2526099
7670.52	0.00682289	2528166
7680.43	0.00753938	2529405
7690.35	0.00825329	2530765
7700.26	0.00895698	2531890
7710.17	0.00964282	2533061
7720.13	0.0103068	2534243
7730.22	0.0109461	2535161
7740.33	0.0115457	2536401
7750.45	0.0120986	2537544
7760.56	0.0125985	2538991
7770.68	0.0130406	2540442
7780.8	0.0134208	2541328
7790.93	0.0137362	2542539
7801.07	0.0139843	2543566
7810.07	0.0141465	2544294
7820.18	0.0142637	2545707
7830.3	0.0143124	2546545
7840.42	0.0142941	2547751
7850.53	0.0142111	2548303
7860.65	0.0140659	2549711
7870.77	0.013862	2551173
7880.89	0.0136031	2552977
7891	0.0132932	2555005
7900.99	0.012942	2556453
7910.91	0.0125531	2558375
7920.82	0.0121297	2559779
7930.73	0.0116764	2562069
7940.64	0.0111982	2564629
7950.54	0.0107	2566424
7960.44	0.0101854	2569482
7970.35	0.00965804	2572106
7980.25	0.00912068	2574658
7990.15	0.00857538	2577258
8000.06	0.00802351	2580040
8011.06	0.00740343	2582189
8020.97	0.00683924	2584881
8030.87	0.00626872	2587426
8040.78	0.00569094	2589718
8050.68	0.00510454	2592152
8060.58	0.00450788	2593932
8070.49	0.00389904	2596753
8080.39	0.00327591	2598866
8090.3	0.00263629	2600465
8100.2	0.00197787	2601787
8110.1	0.00129837	2603683
8120.01	0.000595568	2605744
8130.59	-0.000183443	2607492
8140.1	-0.000910246	2609195
8151	-0.00177699	2611553
8160.77	-0.00258472	2613383
8170.2	-0.00339446	2615755
8180.59	-0.00432098	2618171
8190.12	-0.00520327	2619654
8200.87	-0.00623816	2621228
8210.74	-0.00722653	2623412
8220.31	-0.00821683	2625459
8230.04	-0.00925714	2627577
8240.71	-0.0104315	2629574
8250.13	-0.0114842	2631492
8260.85	-0.0126939	2633291
8270.72	-0.0138363	2635276
8280.45	-0.0149991	2637207
8290.08	-0.0161836	2639373
8300.73	-0.0173927	2641794
8310.3	-0.0185464	2643665
8320.93	-0.0199194	2645901
8330.53	-0.0212889	2647546
8340.23	-0.0227261	2649258
8350.05	-0.0241881	2650716
8360.12	-0.0248841	2652387
8370.19	-0.026358	2654250
8381.05	-0.028215	2655331
8390	-0.0297205	2657192
8400.73	-0.0314732	2659022
8410.12	-0.0329622	2660577
8420.57	-0.0345734	2661716
8430.37	-0.0360716	2663848
8440.03	-0.0375628	2665024
8450.59	-0.0392237	2665935
8460.42	-0.040798	2667330
8470.03	-0.0423624	2667998
8480.1	-0.0440229	2669414
8490.95	-0.0458268	2670814
8500.58	-0.0474299	2672133
8510.61	-0.0490875	2673259
8520.31	-0.0506725	2674935
8530.81	-0.052361	2677389
8540.25	-0.053849	2678483
8550.8	-0.0554759	2680042
8560.61	-0.0569475	2681123
8570.13	-0.0583342	2682540
8580.67	-0.0598107	2684247
8590.16	-0.0610769	2685629
8600.63	-0.0623905	2687060
8610.76	-0.0635645	2688345
8620.63	-0.064606	2689419
8630.23	-0.0655153	2691280
8640.8	-0.066396	2692788
8650.23	-0.067063	2693285
8660.71	-0.0676532	2694621
8670.25	-0.0680473	2695766
8680.81	-0.0683299	2697280
8690.31	-0.0684427	2698465
8701.01	-0.0684089	2700040
8710.71	-0.0682115	2701590
8720.25	-0.067881	2702799
8731.06	-0.0674112	2703940
8740.59	-0.0668718	2705334
8750.07	-0.0661932	2706858
8760.64	-0.0652735	2708360
8770.42	-0.0642785	2709447
8780.14	-0.0631611	2711135
8790.66	-0.0618083	2712667
8800.13	-0.0604615	2714123
8810.65	-0.0588195	2715861
8820.16	-0.0572079	2717326
8830.98	-0.0552503	2718979
8840.59	-0.0534057	2720169
8850.22	-0.0514382	2721243
8861.02	-0.0490673	2722394
8870.1	-0.0469437	2722851
8880.3	-0.0444361	2724524
8890.51	-0.0418424	2725399
8900.71	-0.0391569	2727171
8910.89	-0.0363634	2728704
8920.93	-0.0334981	2729584
8931.01	-0.0305303	2730664
8940.94	-0.0275425	2732282
8950.63	-0.0245869	2733929
8960.61	-0.0215126	2735152
8970.58	-0.0184193	2736465
8980.18	-0.0154291	2737794
8990.71	-0.0121427	2738500
9000.03	-0.00923049	2740083
9010.43	-0.00599026	2740436
9020.92	-0.00273567	2741288
9030.47	0.000202148	2741989
9040.23	0.00317608	2742404
9050.08	0.00613511	2743044
9060.55	0.00922891	2743608
9070.87	0.0122153	2744323
9080.16	0.0148439	2744365
9090.48	0.0176936	2744235
9100.08	0.0202706	2744961
9110.65	0.0230198	2745523
9120.09	0.0253925	2746358
9130.76	0.0279757	2747263
9140.35	0.0302067	2748607
9150.91	0.0325625	2750835
9160.41	0.0345864	2751692
9170.97	0.0367316	2753318
9180.53	0.0385787	2754837
9190.38	0.0403908	2756254
9201.05	0.0422472	2757945
9210.67	0.0438315	2759563
9220.18	0.0453148	2761336
9230.91	0.0468933	2762596
9240.59	0.0482355	2765030
9250.32	0.0495078	2766473
9260.03	0.0507057	2768694
9270.35	0.051904	2770844
9280.67	0.0530302	2772867
9290.99	0.0540893	2774303
9300.5	0.0550097	2775166
9310.1	0.0558896	2776938
9321.09	0.0568397	2778669
9330.64	0.0576189	2780186
9340.05	0.0583468	2781532
9350.5	0.0591119	2783155
9360.99	0.0598448	2785497
9370.58	0.0604893	2786870
9380.16	0.0611113	2788139
9390.81	0.0617771	2789560
9400.49	0.0623598	2791804
9411.04	0.0629753	2793489
9420.53	0.0636053	2795580
9430.96	0.0641729	2797466
9440.34	0.0646296	2799494
9450.8	0.0651335	2801217
9460.18	0.0655905	2802722
9470.61	0.0661019	2805202
9481.03	0.066611	2807420
9490.48	0.0670645	2808994
9500.03	0.067512	2809590
9510.59	0.067993	2810342
9520.06	0.0684113	2811089
9530.57	0.0688585	2812218
9540.07	0.0692464	2813501
9550.64	0.0696608	2814719
9560.12	0.0700236	2815408
9570.63	0.0704082	2816120
9580.16	0.0707673	2816244
9590.79	0.0711849	2816490
9600.43	0.0714557	2816839
9610.86	0.0718241	2817545
9620.34	0.0717328	2817554
9630.9	0.0717546	2818151
9640.44	0.071841	2818203
9650.22	0.0719806	2817618
9660.14	0.0720983	2817515
9671.05	0.072116	2817657
9680.72	0.0720494	2817613
9690.19	0.0719282	2818059
9700.71	0.071734	2818244
9710.21	0.0715026	2818059
9720.83	0.0711846	2817660
9730.45	0.070851	2818143
9740.01	0.0704839	2818673
9750.8	0.0700209	2818718
9760.65	0.069552	2818935
9770.42	0.0690449	2819210
9780.94	0.0684563	2818666
9790.68	0.0678734	2819199
9800.51	0.0672479	2819470
9810.83	0.0665479	2820070
9820.13	0.0658754	2820930
9830.5	0.065063	2821217
9840.99	0.0641834	2821599
9850.55	0.0633466	2821698
9860.46	0.0624489	2821528
9870.25	0.0615336	2822044
9880.73	0.0605342	2822097
9890.33	0.0595944	2820846
9901.04	0.0584786	2820736
9910.77	0.0573839	2820508
9920.05	0.0562776	2820837
9930.44	0.054998	2819598
9940.01	0.0538004	2819742
9950.89	0.0524153	2819250
9960.17	0.0511848	2819584
9970.01	0.0499179	2820662
9980.02	0.0486439	2821504
9990.02	0.0471102	2823065
10000.8	0.0451099	2824198
10010.5	0.0434781	2825668
10020.1	0.0414218	2827671
10030.4	0.0389403	2829420
10040.7	0.0363922	2831271
10050	0.034188	2832926
10060.3	0.0318329	2834300
10070.7	0.0294962	2836577
10080.1	0.027388	2838128
10090.5	0.025013	2840665
10100.9	0.0225652	2842558
10110.2	0.0203271	2844035
10120.6	0.017786	2845631
10130.2	0.0153812	2846562
10140.1	0.0129269	2848252
10150.6	0.0103064	2849770
10160	0.00795903	2850424
10170.6	0.00535276	2852014
10180.9	0.00280265	2852962
10190.3	0.000518558	2854888
10200.7	-0.00200117	2856007
10210	-0.00423388	2857623
10220.4	-0.00667764	2859468
10230.7	-0.00907024	2861901
10241	-0.0114052	2864554
10250.3	-0.0134599	2866819
10260.7	-0.0156875	2870125
10270.2	-0.0176511	2873361
10280.6	-0.0197522	2876012
10291	-0.0217765	2879343
10300.4	-0.02353	2881553
10310.9	-0.0254017	2883970
10320.3	-0.027005	2886197
10330.7	-0.0286932	2887836
10340.1	-0.0301253	2890201
10350.6	-0.0316256	2892149
10360.2	-0.0329044	2893768
10370.9	-0.0342332	2894904
10380.6	-0.0353134	2895400
10390.4	-0.0363675	2896136
10400.6	-0.0373925	2897584
10410	-0.0382594	2898735
10420.5	-0.039122	2899896
10431	-0.0399504	2901541
10440.5	-0.040497	2903199
10450.9	-0.040937	2904155
10460.3	-0.0413086	2905282
10470.7	-0.041674	2906532
10480.1	-0.0419904	2906583
10490.8	-0.0422777	2907075
10500.7	-0.0424779	2908325
10511	-0.0426626	2908971
10520.3	-0.0428077	2909884
10530.6	-0.0429233	2910481
10540.5	-0.0429736	2910120
10550.4	-0.0429695	2910457
10560.3	-0.0429166	2910413
10570.9	-0.0428109	2911481
10580.2	-0.0426777	2913074
10590.5	-0.0424884	2913609
10600.9	-0.0422577	2914270
10610.2	-0.0420174	2914883
10620.5	-0.041714	2915284
10630	-0.0414048	2916319
10640.5	-0.0410346	2918245
10650.9	-0.0406333	2919108
10660.4	-0.040245	2919112
10671	-0.0397852	2919706
10680	-0.0393786	2920555
10691	-0.0388653	2921141
10700.5	-0.038404	2922200
10710.9	-0.0378916	2923020
10720.3	-0.0374193	2923610
10730.1	-0.0369215	2923911
10741	-0.0363667	2924194
10750.8	-0.035868	2924420
10760.5	-0.0353758	2925429
10770.9	-0.0348604	2925797
10780.2	-0.034406	2925711
10790.9	-0.0338938	2925889
10800.8	-0.0334402	2925741
10810.6	-0.0330114	2926677
10820.9	-0.0325809	2927515
10830.4	-0.0322075	2928079
10840.3	-0.0318454	2928120
10850.9	-0.0314863	2929337
10860.3	-0.0311971	2929456
10870.8	-0.0309093	2929701
10880.2	-0.0306821	2929975
10890.8	-0.0304684	2929642
10900.2	-0.0303133	2929133
10910.8	-0.0301824	2928809
10920.2	-0.0301029	2928879
10930.7	-0.0300573	2929006
10940.6	-0.0300553	2928670
10950.8	-0.0300947	2929304
10961	-0.0301763	2930160
10970	-0.0302841	2931179
10980.9	-0.0304575	2932755
10990.6	-0.0306523	2933927
11000.6	-0.0308956	2935040
11010.1	-0.0311638	2935407
11020.7	-0.0315096	2936244
11030.4	-0.0318669	2936544
11041	-0.0323046	2938246
11050.4	-0.0327319	2938214
11060	-0.0332086	2938439
11070.9	-0.033787	2938440
11080.3	-0.0343267	2939046
11090.9	-0.0349639	2939858
11100.4	-0.0355676	2940145
11110	-0.0362031	2940530
11120.6	-0.036934	2941177
11130.1	-0.0376155	2941797
11140.6	-0.0383862	2942621
11150	-0.0390996	2943311
11160.5	-0.039916	2943236
11170.6	-0.0407176	2944270
11180	-0.0414864	2944753
11190.5	-0.0423473	2945574
11200.9	-0.0432208	2946382
11210.3	-0.0440155	2946878
11220.7	-0.0449066	2947917
11230.2	-0.0457211	2948606
11240.7	-0.046627	2949484
11250.3	-0.0474443	2950014
11261	-0.0483596	2951203
11270.4	-0.0491563	2951747
11280.9	-0.0500357	2952184
11290.9	-0.0508643	2952443
11300.8	-0.051669	2952634
11310.3	-0.0524263	2952859
11320.8	-0.0532517	2952982
11330.3	-0.0539786	2953496
11340.8	-0.0547672	2953741
11350.3	-0.0554635	2953650
11360.3	-0.0561787	2953761
11370.4	-0.0568759	2954657
11380.6	-0.0575525	2955127
11390.3	-0.0581805	2956157
11400.9	-0.0588326	2957740
11410.4	-0.0593952	2958544
11421	-0.0599938	2959086
11430.5	-0.0605091	2960150
11440.3	-0.061017	2961067
11450.5	-0.0615194	2961378
11460.7	-0.0619964	2962015
11471	-0.06245	2962356
11480.1	-0.0628344	2963011
11490.3	-0.0632463	2963460
11500.5	-0.0636373	2963980
11510.8	-0.0640072	2964913
11520.9	-0.0643527	2965630
11531	-0.0646821	2966580
11540.1	-0.0649635	2967008
11550.3	-0.0652635	2968273
11560.5	-0.0655469	2970214
11570.7	-0.0658165	2971616
11580.9	-0.0660754	2973455
11591.1	-0.066326	2974290
11600.1	-0.0665423	2974943
11610.2	-0.066781	2975286
11620.1	-0.0670142	2975588
11630.1	-0.0672458	2975072
11641.1	-0.0675025	2973901
11651	-0.0677333	2972921
11660.9	-0.0679644	2972267
11670.8	-0.068196	2971697
11680.7	-0.0684282	2970535
11690.6	-0.0686611	2969297
11700.5	-0.0688948	2968385
11710.3	-0.069129	2967964
11720.2	-0.0693636	2967674
11730.1	-0.0695981	2967933
11740	-0.069832	2968229
11751	-0.0700912	2968659
11760.9	-0.0703242	2969461
11770.8	-0.0705594	2969552
11780.8	-0.070801	2970289
11790.7	-0.0710471	2970676
11800.6	-0.0712959	2971603
11810.6	-0.071533	2973124
11820.6	-0.0717498	2973969
11830.6	-0.0717185	2974839
11840.7	-0.071785	2975765
11850.7	-0.071845	2977544
11860.8	-0.0719199	2978479
11870.8	-0.0720112	2979613
11880.9	-0.0720543	2979276
11891	-0.0720569	2979475
11901	-0.0720249	2979330
11910	-0.0720441	2979103
11920.1	-0.0719662	2978154
11930.3	-0.0718736	2977893
11940.5	-0.0717645	2977377
11950.6	-0.0716349	2977137
11960.8	-0.0714811	2977180
11970.9	-0.0713008	2976755
11981.1	-0.071092	2976121
11990.1	-0.070882	2976018
12000.2	-0.0706181	2975758
12010.4	-0.0703253	2975668
12020.6	-0.0700044	2974780
12030.7	-0.0696561	2974435
12040.9	-0.0692809	2973754
12051	-0.0688807	2973489
12060.9	-0.0684666	2973130
12070.2	-0.0680508	2972387
12080.8	-0.0675549	2972602
12090.2	-0.0670911	2972547
12100.6	-0.0665529	2973127
12111	-0.0660002	2973201
12121	-0.0654429	2974025
12131.1	-0.0646037	2974232
12140.1	-0.06375	2975392
12150.2	-0.0628589	2976541
12160.3	-0.0620178	2977003
12170.4	-0.0612003	2978705
12180.5	-0.0603807	2979469
12190.6	-0.0595437	2980583
12200.7	-0.0586833	2980741
12210.8	-0.0577986	2980906
12220.9	-0.056892	2981542
12230.7	-0.0559955	2981264
12240.2	-0.0551206	2981858
12251	-0.0541064	2981330
12261.1	-0.0531564	2981520
12270.1	-0.0523118	2981312
12280.2	-0.051364	2980963
12290.3	-0.0504214	2981428
12300.1	-0.0495159	2981580
12310.5	-0.0485573	2981654
12320.9	-0.0476091	2981507
12330.4	-0.0467618	2981484
12340.6	-0.0458639	2980989
12350.7	-0.0449402	2980211
12360.9	-0.0442007	2980033
12370.9	-0.0436072	2979249
12380.3	-0.04278	2979331
12390.7	-0.0417124	2978285
12400.2	-0.0407185	2977183
12410.2	-0.0396651	2976633
12420.4	-0.0386648	2976261
12430.5	-0.0374158	2976494
12440.5	-0.0361706	2976236
12450.5	-0.0349469	2975992
12460.4	-0.0337475	2975988
12470.9	-0.032495	2976245
12480.3	-0.0313681	2976113
12490.8	-0.0301087	2976600
12500.5	-0.0289424	2977112
12511.1	-0.0276692	2977673
12520.6	-0.0265151	2978257
12530.4	-0.0253158	2978691
12540.2	-0.0240992	2979911
12550	-0.0228612	2980917
12560.9	-0.0214599	2982573
12570.7	-0.0201781	2983805
12580.5	-0.0188798	2984783
12590.3	-0.0175727	2986027
12600.1	-0.0162562	2987260
12611	-0.0147748	2988891
12620.8	-0.0134268	2990825
12630.3	-0.012102	2992004
12640.2	-0.0107254	2993059
12651.1	-0.00917608	2992818
12660.9	-0.00776334	2993740
12670.7	-0.0063331	2995112
12680.5	-0.00488572	2995472
12690.3	-0.00342166	2996299
12700.1	-0.00194124	2996690
12711	-0.000277268	2997417
12720.8	0.00123761	2998016
12730.7	0.00276975	2998489
12740.5	0.00432358	2998939
12750.4	0.00590306	2998841
12760.3	0.00750393	2999325
12770.3	0.00912174	2999928
12780.2	0.0107559	3000732
12790.1	0.0124073	3000878
12800.1	0.0140824	3001609
12810.2	0.0157833	3002146
12820.3	0.0175015	3002933
12830.3	0.0192325	3003509
12840.4	0.0209751	3004358
12850.5	0.0227246	3004810
12860.5	0.0244749	3005166
12870.4	0.026228	3005894
12880.4	0.0279885	3006330
12890.4	0.0297553	3007357
12900.4	0.031527	3007924
12910.3	0.0333021	3008610
12920.3	0.0350791	3009029
12930.3	0.0368561	3009726
12940.2	0.0386273	3010504
12950.1	0.0403834	3011373
12961	0.0423164	3012412
12970.8	0.0440407	3013061
12980.5	0.0457568	3013631
12990.3	0.0474631	3014252
13000.1	0.0491579	3014778
13010.9	0.0510257	3015722
13020.7	0.052691	3016841
13030.5	0.05434	3017831
13040.2	0.0559709	3018927
13050	0.0575824	3019525
13060.9	0.0593482	3021386
13070.6	0.0609137	3022431
13080.4	0.0624551	3022797
13090.2	0.0639713	3023854
13101	0.0656247	3024140
13110.8	0.0670834	3024215
13120.6	0.068513	3023924
13130.3	0.0699126	3023775
13140.1	0.0712811	3023191
13150.9	0.0727617	3022539
13160.6	0.0740508	3021948
13170.3	0.0753024	3020927
13181	0.0766532	3020796
13190.6	0.077833	3020457
13200.2	0.0789679	3020777
13210.7	0.0801797	3020533
13220.2	0.0812346	3019684
13230.7	0.0823607	3019141
13240.1	0.0833344	3018864
13250.5	0.0843766	3018750
13261	0.085377	3018593
13270.4	0.0862479	3018238
13281	0.087179	3018544
13290.4	0.0879799	3018448
13301	0.0888296	3018796
13310.6	0.0895702	3018346
13320.2	0.0902779	3018557
13331	0.0910243	3018668
13340.6	0.0916606	3018815
13350.2	0.092264	3018551
13360.7	0.0928839	3018755
13370.1	0.0934071	3019117
13380.6	0.0939532	3019636
13391	0.0944659	3019793
13400.5	0.0948984	3021157
13410.9	0.0953466	3021670
13420.3	0.0957221	3023048
13430.9	0.0961108	3023613
13440.3	0.0964322	3023734
13450.7	0.0967611	3023935
13460.1	0.0970322	3024215
13470.6	0.0973077	3024336
13480.4	0.0975416	3024496
13490.2	0.0977541	3023697
13500	0.0979453	3023498
13510.9	0.0981331	3023075
13520.4	0.0982767	3022813
13530.8	0.0984157	3022790
13540.3	0.0985233	3022764
13550.8	0.0986246	3022544
13560.3	0.098699	3021931
13571	0.0987637	3021783
13580.7	0.0988058	3021044
13590.2	0.0988314	3019911
13600.9	0.0988421	3019355
13610.6	0.0988354	3019080
13620.2	0.0988135	3018952
13630.9	0.0987713	3018643
13640.5	0.0987174	3019037
13651	0.0986411	3018643
13660.5	0.0985561	3018261
13671	0.0984448	3017869
13680.6	0.0983273	3017331
13690.2	0.0981935	3016795
13700.8	0.0980256	3016083
13710.4	0.0978558	3015350
13721	0.0976478	3014896
13730.5	0.0974425	3013248
13740.1	0.0972181	3012966
13750.6	0.0969483	3012443
13760	0.0966866	3012114
13770.5	0.0963719	3011474
13781	0.0960292	3009910
13790.5	0.0956972	3009591
13800.1	0.0953363	3008419
13810.7	0.0949092	3008843
13820.2	0.0944998	3008800
13830.7	0.0940144	3007449
13840.2	0.0935491	3007660
13850.8	0.0929994	3005943
13860.3	0.0924717	3005001
13871	0.0918468	3004279
13880.6	0.0912473	3003226
13890.4	0.0906143	3002133
13900.9	0.0898915	3001816
13910.4	0.0892089	3000925
13921	0.0884053	2999988
13930.8	0.0876374	2999202
13940.3	0.0868505	2998424
13950.8	0.0859511	2997171
13960.5	0.0850871	2996061
13970.3	0.0841811	2995637
13980.2	0.0832412	2995090
13990.8	0.0821874	2995526
14000.2	0.0812129	2995473
14010.8	0.0800966	2994365
14020.2	0.0790613	2994464
14030.7	0.0778721	2994329
14040.2	0.0767684	2994037
14050.8	0.075507	2993463
14060.3	0.0743289	2993156
14070.2	0.0730863	2992727
14080.9	0.071701	2991609
14090.5	0.0704245	2991784
14100.2	0.0691208	2990861
14111	0.0676287	2989289
14120.9	0.0662335	2989027
14130.4	0.0648629	2988158
14141	0.0633146	2986993
14150.9	0.061846	2986191
14160.6	0.06039	2986342
14170	0.0589521	2985875
14180.5	0.0573308	2984554
14190.1	0.0558313	2983790
14200.9	0.0541193	2983317
14210.7	0.0525555	2982180
14220.3	0.0509972	2980756
14230.9	0.0492735	2979836
14240.4	0.0477124	2978703
14251	0.0459581	2977131
14260.5	0.0443677	2976261
14270.2	0.0427363	2975064
14280.3	0.0410456	2973473
14290.9	0.0392311	2972389
14301	0.0375127	2970400
14310.1	0.0359469	2969225
14320.4	0.0341786	2968047
14330.3	0.0324738	2966660
14340.6	0.0306938	2965683
14350.8	0.0289144	2965058
14361	0.0271327	2964280
14370.9	0.02541	2963872
14380.5	0.0237347	2962738
14390	0.0220622	2962159
14400.6	0.0202178	2960946
14411	0.0183811	2959862
14420.7	0.0166814	2959160
14430.7	0.0149332	2957485
14440.8	0.0131518	2956515
14450.6	0.0114334	2954363
14460.7	0.00967214	2952792
14470.8	0.00790617	2951113
14481	0.00612036	2949053
14490.1	0.00453609	2947678
14500.3	0.00275781	2944697
14510.5	0.000984255	2941963
14520.7	-0.000784208	2939350
14531	-0.00254731	2936251
14540.1	-0.00410986	2933659
14550.3	-0.00586243	2930449
14560.5	-0.00760937	2927797
14570.7	-0.00935071	2924419
14580.9	-0.0110865	2921150
14590	-0.0126249	2918429
14600.2	-0.0143486	2915419
14610.4	-0.01606	2912226
14620.5	-0.01776	2909106
14630.7	-0.0194515	2906099
14640.1	-0.0210217	2902890
14650.2	-0.0227017	2899235
14660.3	-0.0243764	2896337
14670.4	-0.0260457	2893237
14680.2	-0.0276592	2890934
14690.9	-0.0294248	2888271
14700.9	-0.0310608	2885376
14711	-0.0327046	2882656
14721.1	-0.0343309	2879436
14730.1	-0.0357786	2876297
14740.6	-0.0374655	2873002
14750.7	-0.039076	2869487
14760.8	-0.0406749	2865702
14770.4	-0.0421877	2861888
14780.4	-0.0437482	2857865
14790.4	-0.0452916	2854158
14800.3	-0.0468142	2849402
14810.1	-0.0483122	2845628
14821	-0.0499441	2840364
14830.8	-0.0513955	2835096
14840.5	-0.0528268	2829694
14850.1	-0.054218	2824113
14860.9	-0.0557598	2817146
14870.8	-0.0571499	2810132
14880.7	-0.0585189	2803284
14890.6	-0.0598658	2797551
14900.4	-0.0611897	2791636
14911	-0.0625766	2786650
14920.4	-0.0637861	2780950
14930.8	-0.0651022	2774363
14940.2	-0.0662607	2768411
14950.8	-0.0675442	2762079
14960.5	-0.068675	2756631
14970	-0.0697695	2750784
14980.6	-0.0709475	2744813
14990.2	-0.07197	2738887
15000.7	-0.0730634	2733556
15010.3	-0.07402	2728657
15021.1	-0.0750546	2722990
15030.9	-0.0759544	2718140
15040.7	-0.0768048	2712681
15050.3	-0.0776061	2707653
15061.1	-0.0784481	2701600
15070.9	-0.0791717	2696721
15080.7	-0.0798442	2691543
15090.5	-0.0804651	2686656
15100.2	-0.0810332	2681857
15110.9	-0.0816036	2676306
15120.5	-0.0820622	2671507
15130.2	-0.0824686	2667124
15140.5	-0.082845	2661494
15150.9	-0.0831621	2656868
15160.5	-0.0833979	2652484
15170.1	-0.0835779	2648072
15180.7	-0.0837102	2643443
15190	-0.0837694	2638707
15200.4	-0.0837712	2634174
15210.8	-0.0837044	2629697
15220.4	-0.0835814	2625659
15231	-0.083376	2621556
15240.4	-0.0831323	2617510
15250.9	-0.0827962	2612438
15260.1	-0.0824373	2608295
15270.4	-0.0819724	2603064
15280.7	-0.0814378	2597767
15291	-0.0808334	2592395
15300.2	-0.0802297	2587475
15310.5	-0.0794927	2582861
15320.8	-0.0786861	2577743
15330.1	-0.0779008	2573239
15340.4	-0.0769628	2568740
15350.7	-0.0759563	2563246
15361	-0.0748821	2558810
15370.2	-0.0738585	2554489
15380.6	-0.0726458	2549657
15390	-0.0714937	2545500
15400.6	-0.0701347	2540722
15410.2	-0.068854	2536440
15420.9	-0.0673607	2531675
15430.5	-0.0659638	2527170
15440.1	-0.0645173	2522734
15450.8	-0.0628531	2517949
15460.4	-0.0613068	2513912
15470	-0.0597169	2509592
15480.5	-0.0579366	2505174
15491	-0.0561308	2499958
15500.6	-0.0544775	2495309
15510.3	-0.052781	2491258
15521	-0.0507799	2485795
15530.6	-0.0487731	2481523
15540.4	-0.0465574	2476709
15550.1	-0.0443072	2472374
15560.7	-0.0418555	2467719
15570.2	-0.0396596	2462275
15580.9	-0.0371917	2456881
15590.7	-0.0349575	2451936
15600.9	-0.0326094	2445686
15611.1	-0.0302107	2439499
15620.9	-0.0278799	2434301
15630.3	-0.0256417	2429577
15640.7	-0.0231774	2423835
15650.2	-0.0209412	2419396
15660.7	-0.0184799	2413105
15670.2	-0.0162948	2407852
15680.7	-0.0138958	2402254
15690.2	-0.0117809	2396931
15700.6	-0.00946639	2391338
15710.3	-0.00735374	2386372
15720.4	-0.00518798	2381273
15730.6	-0.00306978	2376045
15740.9	-0.00101003	2371446
15751.1	0.000973473	2367480
15760.2	0.00266887	2363070
15770.5	0.00449697	2358538
15780.7	0.00622726	2354642
15790.3	0.00777969	2351015
15801	0.00940367	2346803
15810.7	0.0107632	2343119
15820.3	0.0120199	2338654
15830.9	0.013294	2333771
15840.6	0.0143342	2329032
15850.6	0.0152925	2324229
15860.5	0.0161332	2319577
15871	0.0168782	2314215
15880.5	0.0174119	2309823
15890.1	0.0178183	2305201
15900.4	0.0181209	2300665
15910.7	0.0182569	2296098
15920.7	0.0182948	2292158
15930.2	0.0178897	2288439
15940.9	0.0177909	2284041
15950.7	0.017599	2279953
15961	0.0171991	2275574
15970.3	0.0167041	2271035
15980.8	0.0160255	2265596
15990.5	0.0152895	2261545
16000	0.0144901	2257160
16010.5	0.0135206	2252626
16020.4	0.0125026	2248358
16031	0.0113122	2243471
16040.5	0.0101525	2239552
16051.2	0.00874972	2235311
16060.4	0.00745246	2231588
16070.8	0.00594653	2228544
16080	0.00454742	2225346
16090.3	0.00295564	2221441
16100.6	0.00133402	2217268
16111	-0.000339177	2212964
16120.4	-0.00189381	2208566
16130.6	-0.00431361	2204133
16141	-0.00715908	2198969
16151.1	-0.00949108	2194182
16160.4	-0.011508	2189462
16170.8	-0.0137403	2184218
16180.2	-0.0158023	2179578
16190.7	-0.0181457	2174344
16200.7	-0.0203706	2169422
16210.4	-0.0225603	2165197
16220	-0.024746	2160183
16230.8	-0.0271399	2155017
16240.4	-0.0292664	2150301
16250.9	-0.0315424	2145385
16260.2	-0.0334942	2141359
16270.6	-0.0355881	2136038
16281	-0.037616	2130991
16290.6	-0.0394475	2126098
16300.1	-0.0411971	2121343
16311.1	-0.0431653	2116069
16321	-0.0448336	2111354
16330.8	-0.0464097	2106612
16340.3	-0.0478296	2102401
16350.6	-0.0492674	2097781
16360.9	-0.0505859	2093097
16370.2	-0.0516756	2088485
16380.5	-0.052786	2083657
16390.9	-0.0537736	2078923
16400.8	-0.0545952	2074808
16410.6	-0.0553225	2071062
16420.4	-0.0558829	2066682
16430.2	-0.0562938	2062333
16440.1	-0.056594	2058063
16450.2	-0.056853	2053742
16460.8	-0.0566757	2049088
16470.9	-0.0567561	2045023
16480.3	-0.0567297	2041085
16490.8	-0.0564836	2036318
16500.2	-0.0562054	2031824
16510.7	-0.0558268	2026914
16520.9	-0.0553917	2022374
16530	-0.0549425	2018464
16540.5	-0.0543676	2013528
16550.1	-0.0537824	2009521
16560.5	-0.0530968	2004577
16570.9	-0.0523539	1999554
16580.3	-0.0516342	1995660
16590.4	-0.0508128	1990987
16600.8	-0.04992	1986873
16611.3	-0.0489878	1982257
16620.4	-0.0481438	1978471
16630.7	-0.0471579	1974447
16641.1	-0.0461432	1969708
16650.2	-0.0452267	1966091
16660.6	-0.0441577	1961971
16671.1	-0.0430646	1957464
16680.4	-0.0420884	1954165
16690.9	-0.0409626	1950215
16700.2	-0.0399696	1947272
16710.9	-0.0388369	1943887
16720.1	-0.0378498	1941145
16730.7	-0.0367295	1938039
16741.2	-0.0356237	1934603
16750.4	-0.0346713	1931738
16760.7	-0.0336067	1928659
16770	-0.0326706	1925594
16780.5	-0.0316404	1922155
16790	-0.0307136	1918469
16800.1	-0.0297672	1915214
16810.9	-0.0287709	1912386
16820	-0.0279562	1909408
16830.2	-0.0270626	1905859
16840.9	-0.0261629	1902375
16850.1	-0.0254022	1899326
16860.6	-0.0245564	1895714
16870.1	-0.023817	1892090
16880.6	-0.0230236	1888706
16890	-0.0223346	1885104
16900.4	-0.0215907	1881864
16910.9	-0.0208674	1878119
16920.8	-0.0202007	1873988
16930.8	-0.0195403	1870301
16940.9	-0.018895	1866338
16950.4	-0.0183024	1862838
16960.6	-0.0176793	1858982
16970.6	-0.0170826	1855586
16980.2	-0.0165169	1852078
16990.1	-0.0159463	1848198
17000.3	-0.0153679	1844465
17010.5	-0.014798	1840922
17020.7	-0.0142348	1837415
17031	-0.0136765	1833761
17041.2	-0.0131266	1830639
17050.1	-0.0126568	1828272
17060.6	-0.0121004	1824650
17071	-0.0115543	1821860
17080.1	-0.0110854	1818883
17090.2	-0.0105613	1815756
17100.4	-0.0100401	1812465
17110.8	-0.00950889	1808738
17120.7	-0.00900635	1805528
17130.6	-0.00850955	1802446
17140.8	-0.00799751	1798795
17150.1	-0.00753445	1795620
17161.2	-0.00698302	1791458
17171.1	-0.00649101	1788345
17181.1	-0.0060008	1784540
17191	-0.00551807	1780903
17201.1	-0.00502834	1777614
17210.4	-0.00457684	1774662
17220.2	-0.00411096	1771563
17231.1	-0.00359589	1767925
17240	-0.0031781	1764845
17251.2	-0.00266918	1760867
17261.2	-0.00221727	1757389
17270.1	-0.00182948	1754341
17280.1	-0.00139522	1751094
17290.2	-0.000970799	1747842
17300.3	-0.000556295	1744902
17310.4	-0.00015139	1742141
17320.6	0.000243326	1739090
17330.7	0.000627749	1736076
17340.9	0.00100084	1733255
17351.1	0.00136416	1730329
17360.1	0.00167046	1727978
17370.3	0.0020061	1725287
17380.6	0.00232536	1722344
17390.8	0.00262742	1719436
17401.1	0.00291176	1716864
17410.2	0.00314912	1714487
17420.7	0.00340605	1711983
17431.2	0.00364436	1709337
17440.5	0.00383885	1706859
17451.2	0.00404774	1704045
17460.8	0.00421761	1701648
17470.6	0.00437795	1698617
17480.4	0.00452362	1695979
17490.2	0.00465485	1693168
17500	0.00477183	1690424
17511.5	0.00489057	1687412
17521.3	0.00497748	1684611
17531.1	0.00505106	1682202
17540.9	0.00511185	1679729
17550.7	0.00516045	1677282
17560.6	0.00519742	1674825
17570.4	0.00522324	1671883
17580.2	0.00523823	1669343
17590	0.00524265	1666944
17601.5	0.00523479	1664404
17611.3	0.00521731	1662471
17621.1	0.00519045	1660138
17630.9	0.00515487	1657633
17640.7	0.00511139	1655294
17650.6	0.00506089	1653262
17660.4	0.00500427	1651115
17670.3	0.00494228	1648977
17680.1	0.00487608	1647160
17691.6	0.00479472	1645080
17701.5	0.00472246	1643111
17711.4	0.00464872	1641168
17721.3	0.00457428	1639526
17731.1	0.00449989	1637750
17741	0.00442625	1636021
17750.9	0.00435404	1634375
17760.8	0.00428389	1632468
17770.7	0.00421643	1630653
17780.5	0.00415223	1628764
17790.4	0.00409183	1626850
17800.3	0.00403581	1624913
17810.2	0.00398472	1622858
17820.1	0.00393904	1621090
17830	0.00389918	1618903
17841.6	0.00386073	1616328
17851.5	0.00383524	1614376
17861.4	0.00381693	1611873
17871.2	0.00380602	1609742
17881.1	0.00380267	1607516
17890.9	0.00380702	1605303
17900.8	0.00381914	1603382
17910.7	0.00383904	1601301
17920.5	0.00386666	1599196
17931	0.00390414	1597064
17941.4	0.00395002	1594846
17950.1	0.00399449	1593218
17961.1	0.0040587	1590575
17971.6	0.00412725	1588252
17980.2	0.00418972	1586047
17990.2	0.00426737	1583699
18001.1	0.00435944	1581408
18010.5	0.0044443	1578859
18020.8	0.0045419	1576276
18030.5	0.00463972	1573880
18040.4	0.00489463	1571143
18050.3	0.00495818	1568144
18060.9	0.00501936	1565493
18070.2	0.00510039	1563545
18080.1	0.0052001	1561812
18090.7	0.00529699	1559239
18100.3	0.00535594	1557612
18110.8	0.00542298	1555050
18120.3	0.00549329	1553117
18130.8	0.00557236	1550988
18140.3	0.00564133	1549223
18150.7	0.00571971	1546483
18160.1	0.00579313	1544080
18170.6	0.00587556	1540962
18180	0.00594741	1538942
18190.6	0.00602145	1536303
18200.1	0.00608067	1534469
18210.6	0.00613818	1531482
18220.1	0.00618282	1528836
18230.8	0.00622553	1526355
18240.9	0.006259	1523583
18250.8	0.00628543	1521040
18260.5	0.0063047	1518503
18270.1	0.00631734	1516259
18280.7	0.00632339	1513988
18291.1	0.00632087	1512051
18300.3	0.00631168	1510532
18310.9	0.00629308	1508510
18321	0.00626743	1507077
18330.5	0.00623645	1505085
18341	0.0061943	1503519
18350.5	0.00614924	1502121
18361	0.00609099	1499703
18370.4	0.00603105	1498022
18380.9	0.00595563	1495889
18390.3	0.00587933	1494097
18400.3	0.00579102	1492156
18410.9	0.00568829	1490011
18420.5	0.00558759	1488446
18430.1	0.00548018	1486721
18440.4	0.00535792	1484700
18450.5	0.00523211	1483179
18461.2	0.00509231	1481490
18470.7	0.00496554	1480037
18480.2	0.00483267	1478863
18490.8	0.00468149	1477496
18500.5	0.00453946	1476260
18510.3	0.00439313	1474295
18520.1	0.00424381	1472235
18530.8	0.00407781	1470303
18540.8	0.00391954	1468267
18551.4	0.00375027	1466368
18560.7	0.00360115	1464677
18570.7	0.00344118	1462903
18580	0.00329156	1461192
18590.4	0.00312582	1459139
18601	0.00295844	1456913
18610.3	0.0028123	1455102
18621.1	0.0026477	1452639
18630.8	0.00250138	1451219
18640.5	0.0023584	1449058
18650.1	0.00222174	1446987
18660.1	0.00208267	1444966
18670.7	0.00194167	1442692
18681.1	0.00181078	1440794
18691.3	0.00168775	1438866
18700.1	0.00158878	1437004
18710.3	0.0014806	1435294
18721.7	0.00136987	1433154
18730.1	0.00129483	1431966
18741.2	0.00120751	1429978
18750.4	0.00114304	1428383
18760.7	0.00108232	1426538
18770.9	0.00103334	1425016
18781	0.00099643	1423249
18791.2	0.000972192	1421544
18801.4	0.000961116	1420012
18811.6	0.000963989	1418507
18820.2	0.0009778	1417218
18830.5	0.00100851	1415618
18840.5	0.00105359	1414129
18850.5	0.00111444	1412647
18860.8	0.00119383	1411082
18871	0.00128993	1409612
18881.3	0.00139941	1408009
18891.5	0.00151337	1406979
18900.1	0.00161281	1405750
18910.6	0.00174572	1404272
18921.1	0.00190179	1402948
18931.6	0.00208452	1401396
18940.4	0.00226101	1400204
18950.9	0.00250655	1399110
18961.5	0.00279193	1397531
18970.3	0.00306043	1396372
18980.8	0.00341784	1395257
18991.3	0.00381079	1393582
19000.1	0.00416304	1392282
19010.5	0.0046052	1390978
19020.7	0.0050702	1389680
19031.1	0.00556752	1388099
19041.5	0.00609056	1386873
19050.2	0.00654612	1385645
19060.6	0.00711669	1384610
19070.8	0.00769833	1383422
19081	0.00831085	1382045
19091.4	0.00895908	1380735
19100.1	0.00951886	1379505
19110.5	0.0102136	1378533
19120.9	0.0109328	1377620
19131.3	0.011676	1376247
19141.7	0.0124426	1375199
19150.4	0.0130989	1373982
19160.8	0.0139071	1372735
19171.3	0.0147421	1371081
19180.1	0.0154586	1369686
19190.6	0.0163371	1368102
19201	0.0172249	1366477
19211.2	0.0181125	1364891
19221.2	0.0189955	1363394
19231.1	0.0198876	1361690
19241.1	0.0207922	1360411
19251	0.021708	1358997
19260.9	0.0226336	1357786
19270.9	0.0235669	1356342
19280.8	0.0245043	1354768
19290.7	0.0254504	1353218
19300.6	0.0264001	1351979
19310.3	0.0273308	1350692
19320	0.0282617	1349200
19330.1	0.0292234	1347710
19340.3	0.0301965	1345991
19350.5	0.0311653	1344684
19360.5	0.0321086	1343165
19370.3	0.0330229	1341554
19381.6	0.0340653	1339868
19391.2	0.0349354	1338294
19400.9	0.0358108	1336869
19410.8	0.0366803	1335295
19421	0.0375578	1333876
19431.3	0.0384195	1332517
19441.4	0.0392431	1330802
19451.3	0.0400295	1329384
19461.4	0.0407965	1327755
19471.5	0.0415386	1326356
19480	0.0421341	1325037
19490.2	0.0428164	1323563
19500.1	0.0434513	1322854
19510.1	0.0440492	1321508
19520.1	0.0446083	1320208
19530.1	0.0451269	1319041
19540	0.0456034	1317842
19550	0.0460364	1317011
19560	0.0464244	1316002
19571.6	0.0468187	1314338
19580	0.0470622	1313767
19590.2	0.0473137	1312742
19600.3	0.0475102	1311554
19610.3	0.0476568	1310270
19620.3	0.0477533	1308970
19630.4	0.0477997	1307758
19640.7	0.0477943	1306738
19650.9	0.0477359	1305714
19661.2	0.0476246	1304354
19670.6	0.0474764	1303332
19680.1	0.0472815	1302099
19690.4	0.047019	1300594
19700.7	0.0467028	1299363
19711.2	0.0463302	1297803
19720.7	0.0459456	1296715
19730.6	0.0454994	1295462
19740.8	0.0449933	1294311
19751.1	0.0444358	1293110
19761.4	0.0438324	1291799
19771	0.0432257	1291070
19780.3	0.042605	1290011
19790.1	0.0419203	1289048
19800.9	0.0411212	1287618
19810.7	0.0403702	1286353
19820.5	0.0395898	1285212
19830.6	0.0387571	1283930
19840.1	0.0379522	1282644
19850.6	0.0370423	1280973
19860	0.036202	1279515
19870.4	0.0352622	1278304
19881.3	0.0342596	1276835
19890.4	0.0333992	1275807
19901	0.0323968	1274707
19910.7	0.0314668	1273416
19920	0.0305569	1272155
19931.7	0.0294069	1270689
19940.2	0.0285522	1269661
19951.2	0.0274473	1268228
19960.6	0.0264938	1266971
19971.5	0.0253871	1265579
19981.3	0.0244025	1264365
19990.5	0.0234814	1263033
