0	0	2363500
10.0496	0	2380418
20.0158	0	2393266
30.974	0	2403064
40.9362	0	2410034
50.906	0	2415176
60.9171	0	2418596
70.0517	0	2420948
80.2259	0	2423604
90.3953	0	2426568
100.565	0	2429054
110.736	0	2431160
120.918	0	2432820
130.083	0	2434480
140.265	0	2436200
150.448	0	2438210
160.631	0	2440068
170.813	0	2441914
180.996	0	2443826
190.16	0	2445682
200.343	0	2447708
210.525	0	2449962
220.708	0	2452134
230.94	0	2454292
240.132	0	2456356
250.344	0	2458498
260.556	0	2460818
270.769	0	2463018
280.991	0	2465412
290.195	0	2467334
300.393	0	2469504
310.59	0	2472032
320.787	0	2474902
330.989	0	2478028
340.177	0	2480742
350.368	0	2483578
360.546	0	2486522
370.717	0	2489476
380.884	0	2492446
390.034	0	2494950
400.201	0	2497820
410.37	0	2500552
420.56	0	2503364
430.796	0	2506262
440.02	0	2508820
450.27	0	2511706
460.516	0	2514456
470.757	0	2517140
480.998	0	2520012
490.215	0	2522394
500.459	0	2525368
510.702	0	2528260
520.947	0	2531044
530.171	0	2533858
540.421	0	2536158
550.708	0	2539158
561.011	0	2541910
570.283	0	2544544
580.587	0	2547574
590.89	0	2550392
600.163	0	2553262
610.467	0	2556422
620.77	0	2559812
630.043	0	2562692
640.346	0	2565942
650.65	0	2569236
660.953	0	2572568
670.226	0	2575626
680.529	0	2578912
690.832	0	2582332
700.105	0	2585462
710.408	0	2588798
720.711	0	2592056
731.014	0	2595446
740.287	0	2598536
750.59	0	2602002
760.893	0	2605404
770.143	0	2608564
780.414	0	2611968
790.68	0	2615812
800.927	0	2619400
810.143	0	2622720
820.384	0	2626508
830.612	0	2630366
840.827	0	2634030
850.018	0	2637418
860.226	0	2641444
870.429	0	2644990
880.633	0	2649044
890.837	0	2652900
900.02	0	2656336
910.222	0	2660304
920.424	0	2664190
930.626	0	2668282
940.827	0	2672324
950.004	0	2675984
960.201	0	2680094
970.398	0	2684372
980.595	0	2688506
990.792	0	2692450
1000.98	0	2696548
1010.14	0	2700408
1020.32	0	2704752
1030.49	0	2708996
1040.65	0	2713384
1050.82	0	2717738
1060.99	0	2721828
1070.14	0	2725796
1080.3	0	2729550
1090.47	0	2733602
1100.64	0	2737616
1110.8	0	2741796
1120.97	0	2745760
1130.12	0	2749286
1140.29	0	2753194
1150.46	0	2756970
1160.62	0	2761070
1170.79	0	2764766
1180.96	0	2768756
1190.11	0	2772478
1200.28	0	2776234
1210.44	0	2780144
1220.61	0	2783658
1230.78	0	2787240
1240.95	0	2790778
1250.1	0	2793910
1260.27	0	2797082
1270.44	0	2800290
1280.6	0	2803822
1290.77	0	2807086
1300.94	0	2810168
1310.09	0	2813156
1320.26	0	2816326
1330.43	0	2819244
1340.6	0	2822242
1350.77	0	2825558
1360.94	0	2828526
1370.09	0	2831930
1380.26	0	2835368
1390.43	0	2838754
1400.59	0	2841886
1410.76	0	2845360
1420.93	0	2848864
1430.08	0	2852078
1440.25	0	2855524
1450.42	0	2859040
1460.59	0	2862580
1470.76	0	2866434
1480.96	0	2870074
1490.2	0	2873334
1500.52	0	2876656
1510.95	0	2880012
1520.33	0	2882812
1530.79	0	2886068
1540.21	0	2889118
1550.68	0	2892234
1560.13	0	2895120
1570.56	0	2897820
1580.01	0	2900196
1590.57	0	2903208
1600.1	0	2905750
1610.56	0	2908674
1621.03	0	2911148
1630.43	0	2913190
1640.94	0	2915228
1650.33	0	2916788
1660.77	0	2918666
1670.24	0	2920102
1680.75	0	2922124
1690.23	0	2923784
1700.81	0	2925768
1710.32	0	2927406
1720.92	0	2929226
1730.59	0	2931178
1740.28	0	2932832
1750.91	0	2934808
1760.67	0	2936402
1770.44	0	2938238
1780.2	0	2939700
1790.25	0	2941486
1800.25	0	2942946
1810.28	0	2943998
1820.05	0	2945208
1830.96	0	2946826
1840.84	0	2948278
1850.65	0	2949786
1860.84	0	2951568
1870.85	0	2953078
1880.83	0	2954814
1890.92	0	2956644
1900.98	0	2958204
1911.02	0	2959938
1921.09	0	2961838
1930.9	0	2963688
1940.76	0	2965392
1950.52	0	2967026
1960.22	0	2968652
1971.08	0	2970486
1980.95	0	2972624
1990.62	0	2974412
2000.67	0	2976248
2010.45	0	2977734
2020.5	0	2979308
2030.5	0	2980650
2040.5	0	2981978
2050.84	0	2983726
2060	0	2984936
2070.12	0	2986598
2080.41	0	2988434
2090.74	0	2990108
2101.07	0	2991770
2110.24	0	2993092
2120.55	0	2995096
2130.86	0	2996832
2140.02	0	2998186
2150.33	0	3000068
2160.64	0	3001814
2170.95	0	3003794
2180.11	0	3005146
2190.42	0	3006998
2200.72	0	3008462
2211.03	0	3009958
2220.19	0	3011474
2230.5	0	3012800
2240.8	0	3014450
2251.09	0	3015938
2260.23	0	3017398
2270.51	0	3018928
2280.8	0	3020442
2291.08	0	3021838
2300.22	0	3022916
2310.51	0	3024262
2320.79	0	3025602
2331.08	0	3026654
2340.22	0	3027288
2350.49	0	3028522
2360.73	0	3029588
2370.97	0	3031272
2380.07	0	3032036
2390.3	0	3033212
2400.52	0	3034402
2410.75	0	3035690
2420.98	0	3036940
2430.07	0	3037770
2440.29	0	3039052
2450.52	0	3039674
2460.75	0	3040602
2470.97	0	3041186
2480.06	0	3041796
2490.29	0	3042460
2500.51	0	3043068
2510.74	0	3043534
2520.97	0	3043860
2530.06	0	3044308
2540.28	0	3044744
2550.51	0	3045656
2560.73	0	3046298
2570.96	4.54747e-12	3046854
2580.05	1.00044e-11	3047780
2590.27	1.72804e-11	3048544
2600.5	2.45564e-11	3049572
2610.72	3.18323e-11	3050410
2620.95	3.91083e-11	3051228
2630.04	4.63842e-11	3052372
2640.27	5.27507e-11	3053514
2650.5	6.09361e-11	3054608
2660.74	6.73026e-11	3055964
2670.97	7.54881e-11	3057156
2680.07	8.2764e-11	3058354
2690.3	9.09495e-11	3059832
2700.54	9.91349e-11	3061396
2710.77	1.12777e-10	3063292
2721	1.31877e-10	3064730
2730.1	1.58252e-10	3066172
2740.33	2.00089e-10	3067586
2750.56	2.65572e-10	3069618
2760.8	3.62888e-10	3071164
2771.03	5.09317e-10	3072520
2780.13	6.95763e-10	3073742
2790.36	9.94987e-10	3075390
2800.59	1.427e-09	3076860
2810.86	2.04727e-09	3078614
2821.14	2.93221e-09	3079430
2830.28	4.02088e-09	3080550
2840.57	5.71254e-09	3081636
2850.85	8.06995e-09	3083036
2861.12	1.13305e-08	3084150
2870.22	1.52313e-08	3085210
2880.46	2.1123e-08	3086418
2890.69	2.91175e-08	3087832
2900.92	3.98941e-08	3088758
2910.02	5.25115e-08	3089804
2920.25	7.11316e-08	3091310
2930.49	9.57789e-08	3092216
2940.72	1.28205e-07	3093524
2950.96	1.70603e-07	3094338
2960.05	2.18854e-07	3095160
2970.29	2.88057e-07	3096294
2980.52	3.76986e-07	3097200
2990.76	4.90591e-07	3098922
3000.99	6.34872e-07	3100162
3010.09	7.9469e-07	3101448
3020.33	1.01779e-06	3102816
3030.56	1.29648e-06	3104078
3040.8	1.64269e-06	3105594
3051.04	2.07039e-06	3106332
3060.13	2.53209e-06	3107632
3070.37	3.16021e-06	3109138
3080.61	3.92409e-06	3110520
3090.84	4.84812e-06	3111808
3101.08	5.96e-06	3113294
3110.18	7.13122e-06	3114570
3120.41	8.6862e-06	3116240
3130.65	1.05296e-05	3117652
3140.88	1.2704e-05	3119078
3151.12	1.52559e-05	3120380
3160.22	1.78823e-05	3122020
3170.45	2.12895e-05	3123372
3180.69	2.52323e-05	3124840
3190.93	2.97732e-05	3126358
3200.02	3.43651e-05	3127782
3210.26	4.0219e-05	3129452
3220.5	4.68706e-05	3131334
3230.73	5.43945e-05	3133160
3240.97	6.28667e-05	3134950
3250.07	7.12563e-05	3136776
3260.3	8.17313e-05	3138644
3270.54	9.33784e-05	3140782
3280.77	0.000106274	3142940
3291.01	0.000120491	3144788
3300.11	0.000134304	3146748
3310.37	0.000151242	3148758
3320.64	0.000169741	3150880
3330.92	0.000189833	3152732
3340.06	0.000209057	3154174
3350.33	0.000232257	3155844
3360.57	0.00025708	3157182
3370.79	0.000283571	3158614
3381	0.000311779	3159612
3390.08	0.000338315	3160912
3400.29	0.000369814	3162546
3410.5	0.000403048	3163810
3420.71	0.000437999	3165450
3430.93	0.000474645	3166908
3440	0.000508614	3168236
3450.21	0.000548363	3169322
3460.43	0.000589695	3170802
3470.64	0.000632559	3172272
3480.85	0.000676902	3173944
3491.06	0.00072267	3175628
3500.14	0.000764502	3177102
3510.35	0.000812807	3178390
3520.56	0.000862376	3179790
3530.77	0.000913158	3181482
3540.98	0.000965108	3183028
3550.06	0.00101223	3184666
3560.27	0.00106629	3186230
3570.48	0.00112142	3188004
3580.7	0.00117762	3189770
3590.91	0.00123488	3191456
3601.12	0.00129322	3193348
3610.2	0.00134599	3194872
3620.41	0.00140644	3196838
3630.62	0.00146808	3198457
3640.83	0.00153098	3199767
3651.04	0.00159524	3201535
3660.12	0.00165358	3202749
3670.33	0.00172072	3204609
3680.54	0.00178958	3205995
3690.75	0.00186036	3207669
3700.96	0.00193326	3208933
3710.04	0.00200001	3210439
3720.26	0.00207759	3211977
3730.49	0.00215819	3213573
3740.72	0.00224204	3215341
3750.95	0.00232952	3216893
3760.05	0.00241069	3218435
3770.29	0.00250627	3219761
3780.52	0.00260692	3221133
3790.75	0.00271326	3222811
3800.99	0.002826	3224161
3810.08	0.0029322	3225825
3820.29	0.00305894	3227364
3830.44	0.00319388	3229774
3840.59	0.00333873	3231674
3850.75	0.00349471	3233724
3860.9	0.00366318	3235412
3871.05	0.00384564	3237407
3880.07	0.00402091	3239214
3890.23	0.00423447	3241106
3900.38	0.00446733	3242973
3910.53	0.00472167	3244977
3920.68	0.00499993	3247196
3930.84	0.00530475	3249188
3940.99	0.00563902	3250956
3950.01	0.0059634	3252812
3960.16	0.00636207	3254740
3970.32	0.00679999	3256888
3980.47	0.00728112	3258420
3990.62	0.0078097	3260740
4000.77	0.0083903	3262212
4010.92	0.00902782	3264113
4021.07	0.0097275	3265624
4030.1	0.0104061	3266980
4040.25	0.0112388	3268804
4050.4	0.0121508	3270269
4060.55	0.0131489	3272045
4070.71	0.01424	3273213
4080.86	0.0154318	3274859
4091.01	0.0167322	3276159
4100.03	0.0179859	3277593
4110.19	0.0195156	3279035
4120.35	0.0211799	3280283
4130.53	0.0229907	3281973
4140.75	0.0249656	3283085
4150.99	0.0271095	3284943
4160.09	0.0291683	3285683
4170.34	0.031665	3287291
4180.59	0.0343657	3288873
4190.84	0.0372852	3290439
4201.08	0.0404392	3292374
4210.19	0.0434534	3293514
4220.44	0.047098	3295176
4230.69	0.0510297	3296344
4240.94	0.0552699	3297710
4250.05	0.059309	3299091
4260.27	0.0641645	3300652
4270.49	0.069371	3301812
4280.71	0.0749387	3302866
4290.92	0.0808879	3304352
4300.01	0.0864932	3305446
4310.23	0.0968179	3306618
4320.33	0.111332	3307754
4330.39	0.122297	3309454
4340.48	0.137177	3310874
4350.57	0.15682	3312173
4360.66	0.178761	3313573
4370.75	0.202245	3314723
4380.84	0.225803	3316525
4390.93	0.251072	3317780
4401.02	0.279077	3319648
4411.11	0.329266	3321242
4420.08	0.377484	3322556
4430.17	0.428719	3324782
4440.25	0.482628	3326826
4450.34	0.536694	3328570
4460.43	0.613468	3330822
4470.52	0.670052	3332722
4480.6	0.725152	3334899
4490.69	0.776431	3337116
4500.88	0.824146	3339228
4511.06	0.868204	3341478
4520.02	0.904158	3343076
4530.11	0.942556	3345182
4540.19	0.97766	3347300
4550.28	1.00914	3349226
4560.37	1.03667	3351116
4570.46	1.05978	3353126
4580.55	1.07779	3354770
4590.64	1.08895	3356865
4600.73	1.09534	3358265
4610.82	1.09173	3359954
4620.91	1.08485	3361354
4631	1.07479	3362516
4641.1	1.06113	3364074
4650.07	1.04638	3365658
4660.16	1.02703	3367345
4670.25	1.00509	3368799
4680.34	0.980783	3370335
4690.44	0.954469	3371757
4700.53	0.926812	3373349
4710.62	0.895341	3374751
4720.71	0.840434	3375840
4730.8	0.785469	3377134
4740.89	0.733752	3378168
4750.99	0.678514	3379004
4761.1	0.625728	3380054
4770.23	0.575595	3380708
4780.53	0.520388	3381672
4790.82	0.464236	3382574
4801.11	0.408998	3383702
4810.26	0.361889	3384518
4820.56	0.311586	3385758
4830.85	0.264655	3386991
4840	0.224543	3388255
4850.29	0.18139	3389753
4860.45	0.139909	3391173
4870.53	0.0998103	3392153
4880.62	0.0604346	3393645
4890.71	0.0216371	3394957
4900.8	-0.0167882	3395863
4910.88	-0.0550108	3397201
4920.97	-0.0929114	3398077
4931.06	-0.130487	3399189
4940.02	-0.163593	3400487
4950.11	-0.200552	3401554
4960.2	-0.237028	3402442
4970.28	-0.272841	3403506
4980.37	-0.307823	3404538
4990.46	-0.341746	3405764
5000.55	-0.374376	3406840
5010.64	-0.405535	3408376
5020.74	-0.435067	3409756
5030.83	-0.462756	3410834
5040.92	-0.488389	3412246
5051.01	-0.511786	3413716
5061.11	-0.532827	3415062
5070.08	-0.549486	3416274
5080.17	-0.565918	3417688
5090.26	-0.579917	3418965
5100.35	-0.591515	3419887
5110.45	-0.600046	3421312
5120.54	-0.598875	3422136
5130.63	-0.599594	3423100
5140.72	-0.598451	3424404
5150.82	-0.597645	3425320
5160.91	-0.596401	3426396
5171	-0.594557	3427064
5181.09	-0.591998	3428330
5190.06	-0.589214	3429062
5200.16	-0.585526	3430178
5210.42	-0.581151	3431395
5220.73	-0.576062	3432159
5231.05	-0.570288	3433404
5240.22	-0.564608	3434714
5250.53	-0.55747	3435814
5260.85	-0.543696	3437080
5270.01	-0.533327	3438219
5280.33	-0.520918	3439183
5290.64	-0.507548	3440509
5300.96	-0.488277	3441675
5310.13	-0.471464	3442628
5320.45	-0.452244	3443244
5330.79	-0.431916	3444112
5341.14	-0.412548	3444876
5350.33	-0.394906	3445441
5360.68	-0.375837	3446030
5371.02	-0.356988	3446626
5380.22	-0.340457	3447186
5390.56	-0.322073	3447880
5400.9	-0.304121	3448555
5410.1	-0.288633	3449201
5420.44	-0.271647	3449633
5430.79	-0.255094	3450133
5441.13	-0.239087	3450891
5450.33	-0.225428	3451068
5460.67	-0.21074	3451588
5471.02	-0.196747	3451717
5480.21	-0.184915	3452270
5490.55	-0.172382	3452344
5500.9	-0.16074	3452918
5510.09	-0.151111	3453412
5520.44	-0.141022	3454086
5530.78	-0.131714	3454940
5541.09	-0.123217	3455528
5550.26	-0.116329	3456227
5560.57	-0.109133	3456759
5570.89	-0.102517	3457811
5580.06	-0.0975724	3458379
5590.37	-0.0921703	3459578
5600.69	-0.087344	3460733
5611	-0.0827306	3461367
5620.17	-0.0794473	3461773
5630.49	-0.0751564	3462607
5640.81	-0.0718919	3463141
5651.12	-0.0703551	3463029
5660.29	-0.0686778	3463643
5670.61	-0.0667863	3463841
5680.92	-0.0648942	3464125
5690.09	-0.0633244	3464703
5700.41	-0.061701	3464953
5710.73	-0.0602112	3465161
5721.04	-0.0587938	3464825
5730.21	-0.057607	3465203
5740.53	-0.0564083	3464867
5750.84	-0.0553748	3465131
5760.01	-0.0545863	3464799
5770.33	-0.0538492	3465097
5780.64	-0.0532961	3464917
5790.96	-0.0529517	3465245
5800.13	-0.0528278	3465717
5810.45	-0.0528945	3465627
5820.82	-0.0531876	3466395
5830.07	-0.0536493	3466715
5840.47	-0.0544031	3466918
5850.87	-0.0554063	3467366
5860.12	-0.056504	3467884
5870.52	-0.057967	3468142
5880.93	-0.0596698	3468562
5890.17	-0.0613831	3468856
5900.57	-0.0635319	3469850
5910.97	-0.0659096	3469900
5920.22	-0.0682109	3470496
5930.62	-0.0710058	3470458
5941.02	-0.0740113	3470698
5950.27	-0.0768516	3470125
5960.67	-0.0802248	3470293
5971.06	-0.0837642	3470485
5980.29	-0.0870372	3470561
5990.68	-0.0908391	3470737
6001.06	-0.0947397	3470904
6010.3	-0.0982638	3471676
6020.68	-0.102261	3471433
6031.07	-0.106261	3471731
6040.31	-0.109789	3471678
6050.69	-0.113699	3471546
6061.08	-0.117513	3471740
6070.31	-0.120799	3472039
6080.7	-0.124352	3472599
6091.09	-0.127727	3472954
6100.32	-0.130549	3473873
6110.71	-0.133481	3474716
6121.1	-0.136107	3475649
6130.33	-0.138142	3476667
6140.72	-0.140053	3478095
6151.09	-0.141527	3479650
6160.3	-0.142454	3480836
6170.64	-0.14306	3481672
6180.98	-0.143209	3482626
6190.16	-0.14297	3483881
6200.48	-0.142303	3485055
6210.78	-0.141233	3486693
6221.07	-0.139785	3487902
6230.2	-0.138196	3489026
6240.47	-0.136085	3490176
6250.74	-0.133649	3491138
6261.01	-0.130906	3492549
6270.12	-0.128231	3493541
6280.34	-0.124974	3495179
6290.56	-0.121469	3496289
6300.78	-0.117732	3497448
6310.99	-0.113783	3498718
6320.05	-0.110112	3500060
6330.24	-0.105818	3501332
6340.43	-0.101366	3502552
6350.6	-0.0967789	3503404
6360.75	-0.0920759	3504553
6370.91	-0.0872705	3505739
6381.06	-0.0823828	3507081
6390.09	-0.077986	3508221
6400.24	-0.0730006	3509170
6410.4	-0.0679952	3510058
6420.55	-0.0629922	3511190
6430.71	-0.0580142	3512022
6440.86	-0.0530873	3512497
6451	-0.0482331	3513469
6460	-0.0439954	3514349
6470.14	-0.0393302	3515157
6480.27	-0.0347907	3516228
6490.4	-0.0303935	3516803
6500.54	-0.0261533	3517711
6510.67	-0.0220825	3518481
6520.8	-0.0181909	3519137
6530.94	-0.014486	3519637
6541.07	-0.0109725	3520892
6550.08	-0.00801168	3521372
6560.21	-0.0048631	3522628
6570.34	-0.00190488	3523134
6580.47	0.000867965	3524422
6590.61	0.00346238	3525244
6600.74	0.00588812	3526408
6610.93	0.00816419	3527314
6621.11	0.0102889	3528752
6630.15	0.0120582	3529228
6640.31	0.0139248	3530947
6650.46	0.015674	3531654
6660.62	0.0173165	3532584
6670.77	0.0188625	3533822
6680.93	0.0203214	3534492
6691.08	0.0217021	3535522
6700.11	0.0228705	3536158
6710.26	0.0241253	3537452
6720.41	0.0253225	3537978
6730.55	0.0264672	3539304
6740.68	0.0275636	3539702
6750.82	0.0286145	3540756
6760.95	0.02962	3541390
6771.08	0.0305785	3542494
6780.09	0.0313879	3542950
6790.22	0.0322456	3543180
6800.36	0.0330401	3543512
6810.49	0.0337628	3544044
6820.62	0.0344036	3544154
6830.76	0.0349514	3544217
6840.89	0.0353948	3544173
6851.03	0.0357219	3543943
6860.03	0.0359056	3543931
6870.17	0.0359815	3543679
6880.3	0.035909	3543705
6890.44	0.0356786	3543563
6900.57	0.0352822	3543839
6910.71	0.0347132	3543987
6920.84	0.0339669	3544731
6930.98	0.0330403	3545513
6941.11	0.0319326	3546371
6950.12	0.0307966	3547207
6960.25	0.0293513	3547639
6970.39	0.0277337	3548907
6980.52	0.0259511	3549437
6990.66	0.0240124	3550339
7000.79	0.0219286	3550843
7010.94	0.0197098	3552175
7021.13	0.0173626	3552633
7030.2	0.0151853	3553197
7040.41	0.0126492	3553873
7050.63	0.0100415	3553860
7060.85	0.00737988	3555028
7071.07	0.00468168	3555415
7080.21	0.00225534	3556519
7090.55	-0.000491057	3557393
7100.93	-0.00323495	3558064
7110.14	-0.00564698	3558812
7120.49	-0.00831602	3559157
7130.84	-0.0109328	3560079
7140.04	-0.0132079	3560581
7150.39	-0.0157041	3561248
7160.74	-0.0181293	3561728
7171.09	-0.0204817	3561978
7180.29	-0.0225117	3563111
7190.64	-0.0247287	3564088
7200.99	-0.0268779	3565960
7210.19	-0.028735	3566984
7220.54	-0.0307685	3568484
7230.89	-0.0327476	3570036
7240.09	-0.0344643	3571224
7250.43	-0.0363507	3572754
7260.77	-0.0381927	3574274
7271.12	-0.0399911	3576182
7280.31	-0.0415523	3577386
7290.65	-0.0432642	3579090
7301	-0.0449245	3580356
7310.19	-0.0463516	3581759
7320.54	-0.0478948	3583277
7330.88	-0.0493626	3584547
7340.07	-0.0505951	3585498
7350.42	-0.0518897	3586379
7360.76	-0.053075	3587499
7371.1	-0.0541386	3588795
7380.3	-0.0549724	3589297
7390.64	-0.0557726	3590184
7400.94	-0.0564164	3590234
7410.05	-0.05685	3590446
7420.29	-0.0571785	3591126
7430.54	-0.0573321	3591692
7440.77	-0.0573057	3592280
7451	-0.0570961	3592303
7460.1	-0.0567543	3593096
7470.33	-0.0561938	3593447
7480.56	-0.0554473	3594061
7490.79	-0.054516	3594591
7501.02	-0.0534021	3595352
7510.11	-0.0522608	3595460
7520.34	-0.05081	3596128
7530.57	-0.0491862	3596466
7540.8	-0.0473936	3596564
7551.03	-0.0454366	3597127
7560.13	-0.0435628	3597205
7570.36	-0.0413081	3598551
7580.59	-0.0389026	3599258
7590.82	-0.0363515	3600154
7601.04	-0.0336628	3601181
7610.09	-0.0311685	3601707
7620.24	-0.0282492	3602739
7630.37	-0.025215	3603311
7640.49	-0.0220656	3604259
7650.61	-0.0188049	3604969
7660.72	-0.0154387	3605449
7670.84	-0.0119728	3606371
7680.96	-0.00841321	3606875
7691.08	-0.00476587	3607699
7700.07	-0.00145504	3607931
7710.19	0.00234148	3609093
7720.31	0.00620819	3609358
7730.43	0.010139	3609834
7740.54	0.0141278	3610524
7750.66	0.0181684	3610432
7760.78	0.0222546	3610850
7770.89	0.0263796	3610813
7781.01	0.0305369	3610873
7790	0.0342535	3610663
7800.12	0.0384524	3610582
7810.25	0.042666	3610786
7820.4	0.0468903	3611052
7830.53	0.0510959	3610921
7840.65	0.0552783	3611159
7850.76	0.0594304	3610931
7860.88	0.0635406	3611114
7871	0.0675963	3610700
7881.12	0.0715843	3611174
7890.11	0.0750613	3611114
7900.23	0.0788842	3611410
7910.35	0.0825996	3611734
7920.46	0.0861942	3611822
7930.58	0.0896549	3612671
7940.7	0.0929694	3612911
7950.74	0.0961029	3613267
7960.67	0.0990394	3613667
7970.58	0.101802	3614304
7980.49	0.10439	3615042
7990.4	0.106799	3615834
8000.32	0.109026	3616454
8010.22	0.11107	3617117
8020.13	0.112933	3618106
8030.03	0.114616	3618630
8041.03	0.116284	3619630
8050.94	0.117608	3620474
8060.84	0.118772	3621617
8070.75	0.119787	3622873
8080.65	0.120662	3623892
8090.56	0.121406	3625288
8100.46	0.122033	3626508
8110.36	0.122552	3627791
8120.27	0.122975	3629097
8130.17	0.123312	3630324
8140.08	0.123575	3630959
8151.08	0.12379	3632249
8160.98	0.123923	3633107
8170.89	0.124007	3633793
8180.79	0.124048	3634839
8190.75	0.124048	3635835
8200.82	0.124012	3637607
8210.89	0.123939	3638829
8220.99	0.12383	3640133
8231.11	0.123683	3640943
8240.11	0.123518	3641450
8250.23	0.123291	3642423
8260.36	0.123016	3643223
8270.48	0.122685	3644715
8280.61	0.122294	3645267
8290.73	0.121834	3646037
8300.85	0.121298	3646687
8310.98	0.120678	3647283
8321.1	0.119967	3648045
8330.1	0.119253	3648410
8340.22	0.118351	3649036
8350.35	0.117338	3649488
8360.47	0.116209	3650533
8370.59	0.11496	3651246
8380.72	0.113586	3651860
8390.84	0.112086	3652557
8400.96	0.110459	3652427
8411.09	0.108706	3652549
8420.09	0.107042	3652493
8430.21	0.105054	3653069
8440.34	0.102948	3653085
8450.47	0.100728	3653069
8460.64	0.0983959	3653125
8470.84	0.0959585	3653191
8481.04	0.0934308	3653143
8490.12	0.0911167	3653257
8500.34	0.0884469	3652833
8510.58	0.0857175	3652713
8520.84	0.0829407	3652789
8531.11	0.080135	3651988
8540.23	0.077629	3651636
8550.49	0.0748093	3651083
8560.76	0.072003	3650212
8571.02	0.0692243	3649980
8580.14	0.0667888	3649750
8590.41	0.0640997	3649611
8600.67	0.0614766	3649515
8610.93	0.0589311	3649175
8620.05	0.0567433	3649565
8630.29	0.0543784	3649131
8640.52	0.0521182	3649109
8650.76	0.0499689	3648723
8660.99	0.0479356	3648567
8670.09	0.0462285	3648691
8680.32	0.0444227	3648363
8690.55	0.0427384	3648013
8700.79	0.041174	3647938
8711.02	0.0397263	3647948
8720.11	0.0385336	3647934
8730.34	0.037292	3647638
8740.58	0.0361488	3647554
8750.81	0.035095	3647225
8761.04	0.0341201	3646909
8770.13	0.0333106	3646893
8780.36	0.0324528	3646792
8790.59	0.0316391	3647016
8800.8	0.0308561	3647234
8811.01	0.030089	3646779
8820.09	0.0294095	3646955
8830.3	0.028635	3647067
8840.51	0.0278372	3647016
8850.72	0.0270031	3647203
8860.93	0.0261207	3647139
8871.13	0.0251788	3647235
8880.21	0.0242837	3647239
8890.42	0.0232035	3647410
8900.63	0.0220389	3647515
8910.83	0.020784	3647421
8921.04	0.0194347	3647242
8930.11	0.0181541	3647564
8940.32	0.0166215	3647473
8950.51	0.0149935	3647141
8960.7	0.0132711	3646740
8970.87	0.011463	3646638
8980.99	0.00957746	3646335
8991.1	0.00761664	3646385
9000.09	0.0058149	3646333
9010.2	0.00372926	3646010
9020.31	0.00159047	3645481
9030.42	-0.000591585	3644733
9040.52	-0.00280654	3644333
9050.63	-0.00504386	3643615
9060.74	-0.00729295	3643035
9070.85	-0.00954342	3642784
9080.96	-0.0117852	3642279
9091.07	-0.0140089	3642303
9100.05	-0.0159632	3642302
9110.16	-0.0181292	3642093
9120.27	-0.020254	3641633
9130.37	-0.0223315	3641329
9140.48	-0.0243569	3641178
9150.6	-0.0263281	3641214
9160.74	-0.0282438	3641688
9170.89	-0.0301003	3641997
9181.05	-0.0318962	3642469
9190.07	-0.0334407	3642897
9200.2	-0.0351169	3644139
9210.31	-0.0367339	3644875
9220.41	-0.0382967	3646771
9230.52	-0.0398091	3647437
9240.63	-0.0412752	3649337
9250.74	-0.0426994	3650639
9260.85	-0.0440863	3651781
9270.96	-0.0454403	3653239
9281.07	-0.0467658	3654347
9290.05	-0.0479232	3655621
9300.16	-0.0492052	3656467
9310.27	-0.0504686	3657465
9320.38	-0.0517158	3658075
9330.49	-0.0529481	3659121
9340.6	-0.0541661	3660491
9350.71	-0.0553695	3661141
9360.82	-0.0565569	3662315
9370.93	-0.057726	3663613
9381.04	-0.0588736	3664987
9390.03	-0.0598725	3665835
9400.14	-0.060968	3666795
9410.25	-0.0620284	3667614
9420.36	-0.0630477	3668578
9430.47	-0.0640195	3669392
9440.58	-0.0649372	3670120
9450.69	-0.0657941	3670754
9460.8	-0.0665836	3671616
9470.91	-0.0672994	3672612
9481.02	-0.0679357	3673742
9490.01	-0.0684302	3674734
9500.12	-0.0689028	3676216
9510.24	-0.0692835	3677538
9520.43	-0.0695708	3678567
9530.62	-0.069761	3679410
9540.81	-0.0698539	3680575
9551	-0.0698508	3681745
9560.06	-0.0697698	3682252
9570.25	-0.0695944	3683544
9580.44	-0.0693349	3684497
9590.63	-0.0689982	3684809
9600.83	-0.068592	3686557
9611.02	-0.0681254	3686973
9620.08	-0.0676677	3687686
9630.27	-0.067114	3688442
9640.46	-0.0665298	3688507
9650.65	-0.0659262	3688629
9660.84	-0.0653145	3688194
9671.03	-0.0647057	3688682
9680.09	-0.0641757	3688471
9690.28	-0.0636009	3688295
9700.47	-0.063058	3687940
9710.66	-0.062555	3687496
9720.86	-0.062099	3686895
9731.05	-0.0616958	3686339
9740.11	-0.0613851	3685008
9750.3	-0.0610917	3684610
9760.49	-0.0608588	3683796
9770.68	-0.0606861	3683396
9780.87	-0.0605716	3682971
9791.06	-0.0605114	3682068
9800.12	-0.0604996	3682068
9810.31	-0.0605273	3681024
9820.51	-0.060591	3680468
9830.7	-0.0606819	3679933
9840.88	-0.0607903	3678521
9851.05	-0.0609057	3677848
9860.08	-0.0610054	3677286
9870.24	-0.0611042	3676758
9880.4	-0.0611781	3676415
9890.56	-0.061216	3676317
9900.71	-0.061207	3675900
9910.87	-0.0611408	3675400
9921.03	-0.0610078	3675289
9930.06	-0.0608263	3674525
9940.19	-0.0605446	3673512
9950.33	-0.0601739	3672123
9960.47	-0.0597087	3671296
9970.6	-0.0591447	3670018
9980.74	-0.0584792	3669263
9990.87	-0.0577106	3668197
10001	-0.0568388	3667237
10010	-0.0559783	3667089
10020.2	-0.0549162	3666449
10030.3	-0.0537582	3666534
10040.4	-0.0525094	3666468
10050.6	-0.0511757	3666757
10060.7	-0.0497643	3667041
10070.8	-0.0482832	3667260
10081	-0.0467412	3668046
10091.1	-0.0451476	3668487
10100.1	-0.0436958	3668687
10110.3	-0.0420323	3669421
10120.4	-0.0403468	3670002
10130.5	-0.0386499	3670943
10140.7	-0.0369523	3671302
10150.8	-0.0352646	3672136
10161	-0.033596	3672571
10171.1	-0.0319561	3672982
10180.2	-0.0305276	3673315
10190.3	-0.0289664	3673593
10200.5	-0.0274622	3673711
10210.7	-0.0260234	3674337
10220.9	-0.024658	3674613
10231.1	-0.0233729	3675372
10240.1	-0.0223032	3675815
10250.3	-0.0211855	3676167
10260.4	-0.0201632	3677617
10270.6	-0.0192405	3678341
10280.8	-0.0184211	3679396
10290.9	-0.0177078	3680734
10301.1	-0.017103	3681993
10310.1	-0.016658	3683374
10320.3	-0.0162625	3684691
10330.5	-0.0159794	3685838
10340.6	-0.0158089	3687144
10350.8	-0.0157511	3688398
10361	-0.0158056	3689943
10370	-0.0159478	3690670
10380.2	-0.0162125	3691393
10390.4	-0.016587	3692367
10400.5	-0.0170698	3693331
10410.7	-0.0176594	3694445
10420.9	-0.0183561	3695714
10431.1	-0.019158	3696727
10440.2	-0.0199567	3697275
10450.4	-0.0209499	3697379
10460.6	-0.0220412	3697883
10470.8	-0.0232283	3698413
10481	-0.0245086	3699129
10490.1	-0.0257223	3699396
10500.3	-0.0271707	3699471
10510.5	-0.0287036	3699811
10520.7	-0.0303186	3699234
10530.9	-0.032013	3699325
10541	-0.0337833	3699167
10550.1	-0.0354179	3698950
10560.3	-0.0373221	3699188
10570.5	-0.0392915	3699087
10580.7	-0.0413221	3698772
10590.9	-0.0434095	3698594
10601.1	-0.0455491	3697838
10610.1	-0.0474908	3697423
10620.3	-0.0497156	3697052
10630.5	-0.0519781	3696578
10640.7	-0.0542729	3696747
10650.9	-0.0565945	3696652
10661.1	-0.0589382	3696448
10670.2	-0.0610345	3697002
10680.4	-0.0634023	3696602
10690.6	-0.0657753	3696726
10700.8	-0.068148	3696539
10711	-0.0705134	3695927
10720.1	-0.0726047	3695888
10730.3	-0.0749394	3695541
10740.5	-0.0772488	3695210
10750.7	-0.0795266	3694947
10760.9	-0.0817686	3694479
10771.1	-0.0839701	3694202
10780.1	-0.0858888	3694135
10790.3	-0.0880001	3693948
10800.5	-0.0900568	3694376
10810.7	-0.0920547	3694100
10820.9	-0.0939895	3694047
10830	-0.0956532	3693681
10840.2	-0.0974582	3693222
10850.4	-0.0991895	3693127
10860.6	-0.100844	3693449
10870.8	-0.102417	3693354
10881	-0.103908	3693323
10890.1	-0.10516	3692593
10900.3	-0.106486	3692264
10910.5	-0.10772	3692248
10920.7	-0.108861	3692447
10930.9	-0.109906	3692722
10941.1	-0.110853	3692264
10950.1	-0.111611	3692149
10960.3	-0.112366	3691810
10970.5	-0.113017	3691539
10980.7	-0.11356	3691274
10990.9	-0.113995	3690766
11000	-0.114288	3690979
11010.2	-0.114512	3690247
11020.4	-0.11462	3690610
11030.7	-0.114612	3690438
11041	-0.114483	3690844
11050.2	-0.114265	3690922
11060.5	-0.113902	3691346
11070.8	-0.113415	3691877
11080	-0.112875	3692412
11090.3	-0.112149	3692409
11100.6	-0.111294	3692501
11111	-0.110313	3692468
11120.1	-0.109334	3692789
11130.4	-0.108114	3692605
11140.7	-0.10677	3692742
11150.9	-0.105303	3693122
11160	-0.103895	3693288
11170.3	-0.102196	3692896
11180.5	-0.100376	3692875
11190.8	-0.0984371	3692894
11201	-0.0963829	3693319
11210.1	-0.0944622	3693164
11220.3	-0.0922137	3693885
11230.4	-0.0898716	3694372
11240.5	-0.087436	3694502
11250.6	-0.084908	3694961
11260.7	-0.0822895	3695873
11270.8	-0.0795854	3697232
11280.9	-0.0768006	3698272
11291	-0.0739405	3699903
11301.1	-0.0710107	3701635
11310.1	-0.0683524	3702041
11320.2	-0.0653066	3702934
11330.3	-0.0622082	3702766
11340.3	-0.0590633	3703291
11350.4	-0.0558784	3703166
11360.5	-0.0526596	3702510
11370.6	-0.0494135	3702068
11380.7	-0.0461463	3701220
11390.8	-0.0428645	3700950
11400.9	-0.0395741	3700266
11411	-0.0362734	3700232
11420.1	-0.0333286	3699940
11430.3	-0.030011	3699571
11440.5	-0.0267049	3699481
11450.7	-0.0234191	3699452
11460.9	-0.0201586	3699335
11470	-0.0172857	3699315
11480.2	-0.0140863	3698753
11490.4	-0.0109254	3699224
11500.7	-0.0078069	3698712
11510.9	-0.00473411	3697780
11521.1	-0.00170843	3696337
11530.2	0.000943598	3695947
11540.5	0.00387573	3695253
11550.7	0.00675178	3694489
11561	0.00957018	3694286
11570.1	0.012026	3693964
11580.3	0.0147326	3693521
11590.6	0.017379	3692525
11600.8	0.0199651	3691941
11611.1	0.0224912	3691457
11620.2	0.0246864	3691367
11630.4	0.0271004	3690506
11640.7	0.0294562	3689461
11650.9	0.0317552	3688696
11660	0.033751	3687733
11670.2	0.0359371	3687381
11680.4	0.0380614	3686609
11690.5	0.0401269	3686276
11700.5	0.0421323	3685561
11710.6	0.0440866	3684962
11720.6	0.0459954	3684182
11730.6	0.047862	3682959
11740.6	0.0496887	3682304
11750.6	0.0514772	3680999
11760.6	0.0532291	3679851
11770.6	0.054946	3678953
11780.6	0.0566291	3678100
11790.6	0.05828	3677536
11800.7	0.0598998	3676990
11810.7	0.0614895	3676770
11820.7	0.0630502	3675911
11830.7	0.0645825	3675239
11840.7	0.0660871	3674381
11850.7	0.0675646	3673443
11860.7	0.0690153	3672683
11870.7	0.0704393	3671674
11880.7	0.0718394	3670911
11890.8	0.0732164	3669846
11900.9	0.0745672	3667770
11910.9	0.0758905	3666475
11921	0.0771858	3664789
11931.1	0.0784547	3663839
11940	0.07956	3662677
11950.2	0.0807773	3661834
11960.3	0.0819666	3660875
11970.5	0.0831261	3660482
11980.7	0.084253	3659273
11990.8	0.0853429	3658739
12001	0.086396	3657675
12011.1	0.0874119	3656867
12020.2	0.0882828	3656357
12030.3	0.0892254	3655276
12040.5	0.0901277	3654613
12050.6	0.0909887	3654134
12060.8	0.0918077	3654009
12070.9	0.0925839	3653173
12081.1	0.093317	3652365
12090.1	0.0939322	3652190
12100.3	0.0945832	3652063
12110.4	0.0951905	3652158
12120.5	0.0957534	3652100
12130.6	0.0962737	3651994
12140.7	0.096753	3652336
12150.8	0.0971927	3652390
12160.9	0.0975941	3652300
12171.1	0.097959	3651811
12180	0.0982544	3651614
12190.1	0.0985562	3651676
12200.2	0.098828	3651117
12210.4	0.0990726	3651183
12220.5	0.0992929	3651053
12230.6	0.099492	3651087
12240.7	0.0996731	3650911
12250.8	0.0998398	3650386
12260.9	0.0999953	3649971
12271	0.100143	3648979
12281.1	0.100287	3648483
12290.1	0.100415	3647979
12300.2	0.100561	3646911
12310.3	0.100713	3646332
12320.4	0.100875	3645746
12330.5	0.101048	3644814
12340.6	0.101237	3643937
12350.7	0.101444	3642869
12360.8	0.10167	3641308
12370.9	0.101919	3640437
12381.1	0.102191	3638425
12390.1	0.102455	3637700
12400.3	0.102775	3636570
12410.4	0.10312	3635216
12420.6	0.103491	3633860
12430.7	0.103888	3632024
12440.9	0.104309	3630888
12451.1	0.104753	3629016
12460.2	0.105166	3628052
12470.4	0.105648	3626548
12480.7	0.106145	3625461
12490.8	0.106649	3624735
12500.9	0.107156	3623655
12510.9	0.107663	3622950
12520.9	0.108169	3621809
12530.9	0.10867	3621239
12540.8	0.109158	3621223
12550.7	0.109627	3620725
12560.5	0.110074	3620503
12570.4	0.110495	3620672
12580.2	0.110887	3620583
12591.1	0.11128	3620872
12600.9	0.111592	3620895
12610.7	0.111857	3620785
12620.5	0.112071	3621183
12630.3	0.112229	3621423
12640.1	0.112325	3621415
12651.1	0.112356	3621729
12660.9	0.112309	3621520
12670.7	0.112188	3621651
12680.5	0.111988	3621053
12690.3	0.111706	3620626
12700.1	0.111338	3619641
12711	0.110826	3619386
12720.8	0.11027	3618952
12730.7	0.10962	3618653
12740.5	0.108875	3618535
12750.3	0.108033	3617919
12760.1	0.107094	3617444
12771	0.105933	3616989
12780.9	0.104781	3615968
12790.8	0.103522	3615886
12800.7	0.102161	3615003
12810.7	0.100702	3614272
12820.6	0.0991433	3613267
12830.6	0.097481	3612342
12840.6	0.0957121	3611978
12850.7	0.0938416	3610977
12860.7	0.091876	3610333
12870.8	0.0898201	3609717
12880.9	0.0876771	3609149
12891	0.0854502	3608628
12901.1	0.0831411	3607919
12910.1	0.0810167	3607724
12920.1	0.0785688	3607148
12930.2	0.0760681	3607381
12940.1	0.0735142	3606850
12950.1	0.0709012	3606535
12960.1	0.0682334	3606474
12970	0.0655153	3606452
12980	0.0627513	3606472
12991.1	0.059632	3606235
13001.1	0.0567862	3606534
13011	0.0539094	3606328
13021	0.0510122	3606211
13030.9	0.0481155	3606230
13040.7	0.0452172	3605859
13050.4	0.0423213	3605552
13060.2	0.0394174	3605435
13071.1	0.0361865	3605371
13080.8	0.0332794	3605239
13090.6	0.0303772	3605314
13100.4	0.0274839	3605437
13110.1	0.0246035	3606143
13121	0.0214226	3606389
13130.8	0.0185815	3606206
13140.5	0.0157645	3605951
13150.3	0.012975	3605962
13160.1	0.0102162	3605328
13170.9	0.00719077	3605451
13180.7	0.00450686	3605011
13190.5	0.00186278	3605092
13200.2	-0.000738868	3604703
13210	-0.00329562	3604407
13220.9	-0.00607853	3604074
13230.6	-0.0085152	3603855
13240.2	-0.0108911	3603327
13250.9	-0.0134667	3602296
13260.6	-0.0157275	3601486
13270.2	-0.0179329	3601368
13280.9	-0.0203166	3600438
13290.6	-0.0224005	3599943
13300.2	-0.0244248	3599185
13310.9	-0.0266028	3598457
13320.6	-0.0284979	3597666
13330.2	-0.0303303	3597284
13340.9	-0.0322918	3596664
13350.6	-0.0339891	3596178
13360.2	-0.0356213	3595835
13371	-0.0373577	3595741
13380.6	-0.0388503	3595572
13390.2	-0.0402761	3595432
13401	-0.0417812	3595635
13410.6	-0.0430641	3595232
13420.2	-0.044279	3595092
13431	-0.0455486	3594448
13440.6	-0.0466202	3593984
13450.3	-0.047625	3593114
13460.1	-0.0485681	3592008
13471	-0.0495431	3591329
13480.9	-0.0503459	3590684
13490.7	-0.0510771	3589867
13500.6	-0.0517354	3589572
13510.4	-0.0523241	3588543
13520.2	-0.052844	3588339
13530.1	-0.053296	3587629
13541	-0.0537199	3586850
13550.8	-0.0540324	3586260
13560.6	-0.0542811	3585511
13570.5	-0.0544676	3584910
13580.3	-0.0545938	3584068
13590.1	-0.0546619	3583382
13601.1	-0.0546722	3582326
13610.9	-0.0546253	3581274
13620.7	-0.0545283	3580487
13630.5	-0.0543844	3579740
13640.3	-0.0541972	3578994
13650.1	-0.0539698	3578397
13660.9	-0.0536742	3577803
13670.7	-0.0533733	3576612
13680.4	-0.0530434	3575940
13690.2	-0.0526883	3574652
13701	-0.0522706	3573389
13710.7	-0.0518797	3573050
13720.3	-0.0514777	3572251
13731	-0.0510222	3571911
13740.6	-0.0506079	3571453
13750.2	-0.0501936	3571208
13760.9	-0.0497379	3571475
13770.5	-0.049336	3570963
13780.1	-0.0489456	3571361
13790.8	-0.0485295	3570826
13800.4	-0.0481746	3570636
13810.1	-0.0478413	3570243
13820.8	-0.0474998	3569224
13830.4	-0.0472212	3568931
13841.1	-0.0469462	3568306
13850.7	-0.0467321	3567638
13860.3	-0.0465511	3566988
13871	-0.0463905	3566367
13880.6	-0.0462832	3565733
13890.2	-0.0462119	3565217
13900.9	-0.0461748	3565035
13910.6	-0.0461795	3564706
13920.3	-0.0462199	3564188
13930	-0.0462953	3563998
13940.8	-0.0464184	3563400
13950.6	-0.0465633	3562908
13960.3	-0.0467381	3562469
13970.1	-0.0469404	3561640
13981	-0.0471942	3560789
13990.8	-0.0474459	3560136
14000.6	-0.0477163	3559409
14010.4	-0.0480021	3558585
14020.2	-0.0483008	3557585
14030.1	-0.0486082	3556465
14040	-0.0489196	3555492
14051	-0.0492655	3554199
14060.9	-0.0495723	3553020
14070.8	-0.0498709	3551753
14080.8	-0.0501577	3550940
14090.7	-0.0504292	3550110
14100.7	-0.0506819	3549536
14110.8	-0.0509122	3549032
14120.9	-0.0511154	3548040
14130.9	-0.0512875	3546999
14141	-0.0514263	3545681
14151	-0.0515296	3544182
14161.1	-0.051595	3542991
14170	-0.0516201	3541175
14180.1	-0.0516098	3539945
14190.1	-0.0515577	3538515
14200.2	-0.0514631	3537513
14210.2	-0.0513259	3536638
14220.3	-0.0511461	3535556
14230.3	-0.0509242	3535232
14240.4	-0.0506612	3534174
14250.4	-0.0503582	3533252
14260.5	-0.0500168	3532309
14270.5	-0.049639	3531182
14280.6	-0.0492269	3529518
14290.6	-0.0487828	3528789
14300.7	-0.0483092	3527076
14310.8	-0.0478083	3526386
14320.9	-0.0472818	3525114
14331.1	-0.0467301	3524538
14340.2	-0.0462221	3523712
14350.5	-0.0456355	3522558
14360.7	-0.0450377	3522228
14371	-0.044432	3520971
14380.1	-0.0438899	3520554
14390.4	-0.0432788	3519951
14400.7	-0.0426694	3519124
14411	-0.0420648	3518897
14420.1	-0.0415338	3518249
14430.3	-0.0409475	3517955
14440.6	-0.0403745	3516939
14450.8	-0.0398163	3516605
14461	-0.0392746	3516253
14470.1	-0.0388084	3515815
14480.3	-0.0383023	3514641
14490.6	-0.0378169	3513461
14500.8	-0.0373531	3511715
14511	-0.0369115	3510370
14520.1	-0.0365381	3508270
14530.3	-0.0361397	3506932
14540.6	-0.0357641	3504916
14550.8	-0.0354111	3502882
14561	-0.0350803	3500517
14570.1	-0.0348043	3498774
14580.3	-0.0345137	3496778
14590.5	-0.0342431	3494279
14600.8	-0.0339917	3491732
14611	-0.0337585	3489533
14620.1	-0.0335655	3487782
14630.3	-0.0333637	3485449
14640.5	-0.033177	3482749
14650.7	-0.0330041	3480482
14661	-0.0328439	3478518
14670.1	-0.0327111	3476559
14680.4	-0.0325722	3474284
14690.6	-0.032444	3472341
14700.8	-0.0323258	3470112
14711	-0.0322166	3468038
14721.1	-0.0321155	3465891
14730.1	-0.0320317	3464432
14740.2	-0.0319439	3462375
14750.3	-0.0318624	3460139
14760.4	-0.0317869	3458009
14770.5	-0.0317171	3455283
14780.6	-0.0316526	3453400
14790.7	-0.0315933	3450338
14800.8	-0.0315388	3447475
14810.9	-0.0314889	3444088
14821	-0.0314433	3440187
14831.1	-0.0314015	3436301
14840.1	-0.0313673	3432736
14850.2	-0.0313316	3428486
14860.3	-0.0312982	3424485
14870.3	-0.0312664	3419834
14880.3	-0.0312354	3415038
14890.2	-0.031204	3410495
14900.1	-0.0311709	3405836
14910.1	-0.0311346	3401691
14921	-0.0310888	3397235
14930.9	-0.0310405	3392831
14940.8	-0.0309835	3388814
14950.7	-0.0309156	3384647
14960.6	-0.0308345	3380104
14970.4	-0.0307375	3376115
14980.3	-0.0306221	3371883
14990.2	-0.0304852	3368612
15000.1	-0.030324	3364553
15011	-0.0301126	3360672
15020.9	-0.0298896	3356778
15030.8	-0.0296324	3353251
15040.7	-0.0293375	3349559
15050.6	-0.0290007	3346122
15060.5	-0.0286181	3342937
15070.6	-0.0281811	3339244
15080.9	-0.0276789	3336028
15090.1	-0.0271844	3332251
15100.3	-0.026573	3328792
15110.5	-0.0259012	3325243
15120.6	-0.025169	3321697
15130.7	-0.0243764	3318469
15140.7	-0.0235182	3314979
15150.7	-0.0225934	3312007
15160.6	-0.0216008	3308945
15170.5	-0.020539	3305655
15180.4	-0.0194106	3301963
15190.3	-0.0182166	3298867
15200.2	-0.0169533	3295194
15210	-0.0156215	3292002
15221	-0.0140628	3288457
15230.8	-0.012591	3285199
15240.7	-0.0110562	3282188
15250.6	-0.00946108	3278903
15260.4	-0.00780872	3276160
15270.3	-0.00610267	3272867
15280.2	-0.00433271	3269801
15290.2	-0.00249847	3266916
15300.3	-0.000612483	3263717
15310.4	0.00131076	3260404
15320.5	0.00326558	3257333
15330.6	0.00524599	3253949
15340.7	0.00724577	3250277
15350.8	0.00925845	3246485
15360.9	0.0112774	3243122
15370.9	0.0132926	3239797
15381	0.0152985	3235768
15391	0.0172903	3231810
15401.1	0.0192612	3228050
15410	0.0209899	3224602
15420.1	0.0229027	3221402
15430.2	0.0247751	3218081
15440.2	0.0266009	3215214
15450.3	0.0283739	3211579
15460.4	0.0300886	3208412
15470.4	0.0317397	3205134
15480.5	0.0333264	3201921
15490.6	0.0348397	3199035
15500.8	0.0362752	3196288
15510.9	0.0376278	3193420
15521	0.0388942	3189955
15530.1	0.0399516	3187423
15540.5	0.0410655	3184129
15551	0.0420905	3180564
15560.3	0.0429162	3177607
15570.8	0.0437448	3174153
15580.1	0.0443919	3170849
15590.5	0.0450192	3167590
15600.9	0.0455414	3163729
15610.1	0.0459189	3160838
15620.5	0.046248	3157123
15630.8	0.0464786	3153767
15640	0.0466035	3150878
15650.3	0.0466568	3146991
15660.7	0.046621	3143342
15671	0.0464998	3139100
15680.2	0.0463235	3135589
15690.5	0.0460521	3131609
15700.8	0.0457076	3127875
15710	0.045344	3124169
15720.3	0.0448748	3119683
15730.7	0.044347	3115555
15741	0.0437656	3111569
15750.2	0.0432083	3107889
15760.5	0.0425401	3104077
15770.9	0.0418314	3100129
15780.1	0.0411718	3097005
15790.5	0.0404013	3093458
15800.9	0.0396071	3089693
15810.2	0.0388851	3086621
15820.6	0.0380594	3082842
15831	0.0372236	3079290
15840.3	0.0364757	3076401
15850.7	0.0356342	3072676
15861	0.0347958	3069281
15870.2	0.034055	3066325
15880.6	0.033229	3063213
15891	0.0324135	3059545
15900.2	0.0316994	3056278
15910.5	0.0309102	3052607
15920.9	0.0301376	3049451
15930.1	0.029466	3046709
15940.5	0.0287286	3043050
15950.8	0.0280112	3039939
15960.1	0.0273907	3036983
15970.4	0.0267122	3033965
15980.8	0.0260526	3031328
15990.1	0.0254797	3028863
16000.6	0.0248534	3025793
16011.1	0.0242453	3022809
16020.6	0.0237127	3020017
16030.2	0.0231874	3017051
16041	0.0226125	3013696
16050.6	0.0221146	3011216
16060.2	0.0216274	3008325
16071	0.02109	3005205
16080.6	0.0206192	3002294
16090.3	0.0201531	2999799
16100	0.0196889	2996876
16111.2	0.0191598	2993609
16120	0.0187449	2991106
16130.2	0.0182678	2988283
16140.4	0.0177811	2985828
16150.8	0.0172882	2983350
16161.1	0.0167895	2980358
16170.2	0.0163472	2977846
16180.5	0.0158331	2975051
16190.8	0.0153085	2971958
16201.2	0.0147717	2969306
16210.2	0.0142916	2966469
16220.5	0.0137307	2963664
16230.8	0.013154	2960781
16241.1	0.0125603	2957934
16250.1	0.0120263	2955071
16260.4	0.0113984	2951949
16270.7	0.0107512	2948703
16280.9	0.010084	2945418
16291.2	0.00939628	2942196
16300.2	0.00877741	2939258
16310.5	0.00805032	2936085
16320.8	0.00730193	2932860
16331.1	0.00653219	2929946
16340.1	0.00584117	2927587
16350.4	0.00503155	2924393
16360.7	0.00420093	2921600
16371	0.0033496	2918544
16381.3	0.00247794	2915636
16390.3	0.0016989	2913180
16400.6	0.000790331	2910139
16410.9	-0.000137159	2907628
16421.2	-0.00108299	2904577
16430.2	-0.00192564	2902140
16440.5	-0.00290519	2899358
16450.8	-0.00390598	2896570
16461.2	-0.00492757	2893982
16470.3	-0.00583418	2891628
16480.8	-0.00689843	2889181
16490.2	-0.00785458	2886997
16501	-0.00897867	2884164
16510.5	-0.00997525	2881999
16520.1	-0.0109879	2879754
16531.1	-0.0121604	2876837
16540.6	-0.0131968	2874296
16550.2	-0.0142428	2871692
16561.2	-0.0154496	2869021
16570.8	-0.0165152	2866683
16580.3	-0.0175898	2864227
16591.3	-0.0188288	2861684
16600.9	-0.0199223	2859525
16610.5	-0.0210248	2857113
16620	-0.0221362	2855020
16631	-0.0234176	2852403
16640.6	-0.0245489	2850387
16650.2	-0.0256899	2848549
16661.1	-0.027006	2845890
16670.7	-0.0281688	2843735
16680.3	-0.0293423	2841579
16691.2	-0.0306978	2839192
16700.8	-0.0318974	2837193
16710.4	-0.0331097	2835051
16721.3	-0.0345038	2832751
16730.8	-0.0357264	2830775
16740.2	-0.0369519	2828792
16750.9	-0.0383625	2826806
16760.2	-0.0396078	2824850
16770.8	-0.0410475	2822944
16780.1	-0.0423222	2821022
16790.8	-0.0437964	2818818
16800.1	-0.0451016	2816886
16810.7	-0.0466106	2814381
16820	-0.047946	2812931
16830.7	-0.049489	2810614
16841.3	-0.0510439	2808761
16850.6	-0.0524151	2807086
16861.1	-0.0539966	2805011
16870.4	-0.0553922	2803116
16881	-0.0569992	2801085
16890.3	-0.0584145	2799500
16900.8	-0.0600409	2797720
16910.1	-0.06147	2795850
16920.7	-0.0631078	2794060
16931.3	-0.0647479	2791919
16940.5	-0.0661825	2790139
16951.1	-0.0678227	2788195
16960.1	-0.0692065	2786760
16970.8	-0.0708466	2785131
16980	-0.0722408	2783754
16990.8	-0.0738499	2782207
17000	-0.0752248	2780985
17010.9	-0.0768107	2779278
17020.3	-0.0781435	2778046
17031.5	-0.0797068	2776737
17041.2	-0.0810305	2775357
17051	-0.0823218	2774380
17060.9	-0.0835689	2773285
17070.7	-0.0847675	2772141
17080.5	-0.0859134	2771128
17090.3	-0.0870022	2770039
17100.1	-0.0880298	2768837
17111.6	-0.0891457	2767486
17121.4	-0.0900263	2766434
17131.2	-0.0908326	2765284
17141	-0.091561	2763941
17150.8	-0.0922076	2762650
17160.8	-0.0927791	2761438
17171.2	-0.0932755	2760013
17181.6	-0.0936684	2758769
17190.1	-0.0939124	2757479
17200.3	-0.094109	2756190
17210.7	-0.094199	2754943
17221.2	-0.0941752	2753680
17231.6	-0.0940356	2752451
17240.3	-0.0938298	2751358
17250.7	-0.0934746	2750166
17261.1	-0.0930008	2748938
17271.5	-0.0924084	2747647
17280.2	-0.091824	2746717
17290.7	-0.0910126	2745563
17301.1	-0.090088	2744064
17311.1	-0.089091	2742953
17321.1	-0.0879901	2741597
17331.1	-0.0867876	2740436
17341.6	-0.0854295	2739247
17350.3	-0.0842151	2738286
17360.7	-0.0826673	2737121
17371.2	-0.0810223	2735758
17381.6	-0.0792847	2734665
17390.3	-0.0777692	2733567
17400.7	-0.0758742	2732154
17411.1	-0.0739126	2731017
17421.2	-0.071928	2729963
17431.1	-0.0699376	2729076
17440.8	-0.0679242	2728040
17450.4	-0.0658856	2727017
17461.4	-0.0634838	2725883
17470.8	-0.0614029	2724654
17480.1	-0.0593093	2723402
17491.1	-0.0567974	2722352
17500.8	-0.0545665	2721321
17510.6	-0.0522854	2720331
17520.5	-0.0499631	2719188
17530.7	-0.0475794	2718159
17540.9	-0.045174	2716920
17551.1	-0.0427693	2715807
17561.5	-0.0403265	2714895
17570.2	-0.0383025	2714051
17580.3	-0.0359388	2713337
17590.2	-0.0336549	2712616
17600	-0.0314163	2711982
17611.2	-0.0288954	2711058
17620.7	-0.0267777	2710501
17630.2	-0.0246819	2709749
17641.4	-0.0222665	2708965
17650.9	-0.0202613	2708308
17660.3	-0.0183092	2707832
17671.1	-0.0160997	2707143
17680.4	-0.0142522	2706669
17691.2	-0.0121604	2706015
17700.4	-0.0104168	2705439
17711.2	-0.00843037	2704864
17721.2	-0.00664464	2704176
17731.3	-0.0048781	2703819
17741.6	-0.00315372	2703191
17750.2	-0.00175814	2702672
17760.5	-0.00013624	2702069
17770.7	0.00142787	2701396
17781	0.00293417	2700459
17791.3	0.00438285	2699760
17801.6	0.00577424	2699242
17810.1	0.00689037	2698768
17820.4	0.00817826	2698167
17830.7	0.00941082	2697608
17841.2	0.0106117	2697347
17851.2	0.0117118	2696734
17861.6	0.012795	2696108
17870.5	0.0136815	2695585
17880.5	0.0146375	2694995
17890.4	0.0155349	2694557
17900.6	0.0164191	2694151
17911.2	0.0172865	2693596
17921.7	0.0181091	2692979
17930.4	0.0187566	2692535
17941	0.019502	2692045
17951.1	0.0201824	2691434
17961.4	0.0208371	2690671
17970	0.021363	2690039
17980.2	0.0219548	2689359
17991.5	0.0225745	2688563
18001.3	0.0230899	2687853
18011.5	0.0235969	2687219
18020.3	0.024018	2686543
18030.8	0.0245039	2685908
18041.4	0.0249656	2685282
18050.2	0.0253408	2684510
18060.9	0.025774	2683940
18071.6	0.0261899	2683284
18081.4	0.0265601	2682708
18091.1	0.0269095	2682174
18100.7	0.0272472	2681702
18110.4	0.0275738	2681104
18120.6	0.0279101	2680513
18131.3	0.0282464	2679906
18140.1	0.0285138	2679418
18151.6	0.0288491	2678851
18161.4	0.0291254	2678167
18170.1	0.0293587	2677742
18180.5	0.0296242	2676916
18190.9	0.0298747	2676146
18201.3	0.0301091	2675589
18211.7	0.0303263	2674899
18220.3	0.0304929	2674261
18230.4	0.0306696	2673737
18240.3	0.0308235	2673024
18250.3	0.0309556	2672294
18260.1	0.0310639	2671570
18271.4	0.0311572	2670886
18280.9	0.0312093	2670338
18290.4	0.0312348	2669776
18301.3	0.0312297	2669151
18310.6	0.0311946	2668847
18321.4	0.0311164	2668138
18330.6	0.0310163	2667914
18341.4	0.0308586	2667364
18350.7	0.0306849	2666812
18360.4	0.0304673	2666431
18370.3	0.030205	2665914
18380.3	0.0298955	2665482
18391	0.0295173	2665005
18401.7	0.0290858	2664484
18410.6	0.028686	2664146
18421.3	0.0281577	2663700
18430.3	0.0276768	2663394
18441	0.0270517	2663216
18451.6	0.02638	2662846
18460.4	0.025784	2662564
18470.9	0.0250228	2662248
18481.5	0.0242121	2661666
18490.4	0.0234883	2661317
18501.2	0.0225753	2660935
18510.1	0.0217787	2660766
18520.8	0.0207814	2660390
18531.5	0.0197411	2660020
18540.5	0.018843	2659726
18551.2	0.0177299	2659298
18560.1	0.0167746	2659000
18570.9	0.0155972	2658637
18581.6	0.0143888	2658167
18590.5	0.01336	2657801
18601.2	0.0121018	2657403
18610.2	0.0110354	2657053
18620.9	0.00973679	2656773
18631.6	0.00841999	2656523
18640.5	0.00731067	2656341
18651.2	0.00597529	2656285
18661.5	0.00467213	2656063
18670.4	0.00354886	2655763
18681.1	0.00218354	2655499
18691.8	0.000813289	2655317
18700.7	-0.000330983	2655175
18711.4	-0.00170797	2654961
18720.3	-0.00285591	2654817
18731.1	-0.00423222	2654554
18741.8	-0.00560599	2654470
18750.7	-0.00674804	2654425
18761.4	-0.00811438	2654283
18770.4	-0.00924905	2654198
18781.1	-0.0106026	2654041
18791.8	-0.0119501	2653947
18800.7	-0.0130681	2653835
18811.2	-0.0143831	2653611
18821.7	-0.0156877	2653470
18830.5	-0.0167702	2653252
18841	-0.0180638	2653188
18851.5	-0.0193515	2653141
18860.1	-0.0204079	2653025
18870.5	-0.0216709	2652897
18880.9	-0.0229291	2652901
18891.3	-0.0241826	2652663
18901.7	-0.0254392	2652483
18910.4	-0.0264891	2652327
18920.9	-0.0277449	2652094
18931.2	-0.0289684	2652081
18941.5	-0.030187	2651915
18950.2	-0.0312205	2651739
18960.7	-0.0324537	2651437
18971.1	-0.033668	2651273
18981.4	-0.0348625	2651019
18991.6	-0.0360452	2650829
19000.2	-0.0370262	2650726
19010.6	-0.0382081	2650432
19021.1	-0.0393825	2650166
19031.6	-0.0405406	2649944
19040.3	-0.0414916	2649800
19050.8	-0.0426137	2649526
19061.3	-0.0437124	2649342
19070	-0.0446081	2649188
19080.5	-0.0456563	2649000
19091	-0.0466724	2648922
19101.5	-0.0476534	2648852
19110.2	-0.0484414	2648781
19120.6	-0.0493381	2648691
19130.9	-0.0501897	2648516
19141.3	-0.0509976	2648462
19150	-0.0516376	2648434
19160.5	-0.0523552	2648226
19171	-0.0530146	2648126
19181.5	-0.0536123	2647977
19190.2	-0.0540611	2648007
19200.6	-0.054534	2648069
19210.9	-0.0549362	2648053
19221.4	-0.0552691	2648133
19230.1	-0.0554911	2648096
19240.6	-0.0556865	2648089
19251.1	-0.0558025	2648087
19261.4	-0.0558373	2648028
19270	-0.0558049	2648073
19280.3	-0.0556917	2647883
19290.7	-0.0554967	2647741
19301	-0.0552191	2647653
19311.3	-0.0548587	2647564
19321.6	-0.0544155	2647526
19330	-0.053994	2647360
19340.1	-0.0534171	2647292
19350.1	-0.052763	2647113
19360.2	-0.0520326	2647016
19370.4	-0.0512114	2646816
19380.9	-0.0502993	2646644
19391.3	-0.04931	2646354
19401.7	-0.0482466	2646172
19410.2	-0.0473169	2645935
19420.5	-0.046142	2645762
19430.8	-0.0448953	2645640
19441.2	-0.0435725	2645388
19451.5	-0.0421984	2645366
19461.6	-0.0407987	2645365
19470.3	-0.0395526	2645239
19480.7	-0.0380107	2645051
19491	-0.0364384	2645067
19501	-0.0348511	2644959
19511.1	-0.0332341	2644781
19521.1	-0.0315795	2644843
19531.1	-0.0298924	2644971
19541.1	-0.0281712	2644869
19551.1	-0.0264204	2644958
19561.2	-0.0246243	2645006
19571.4	-0.0227851	2645052
19581.7	-0.0209238	2645126
19590.2	-0.0193579	2645282
19600.4	-0.0174631	2645496
19610.7	-0.0155357	2645688
19621.1	-0.0135778	2645844
19631.6	-0.0116098	2645994
19640.2	-0.00996368	2646024
19650.6	-0.00798313	2646292
19661.1	-0.00599894	2646650
19671.5	-0.00401326	2646976
19680.1	-0.00236816	2647176
19690.4	-0.000415968	2647251
19700.8	0.00156125	2647311
19711.1	0.00350822	2647303
19721.3	0.00544979	2647325
19731.7	0.00738542	2647393
19740.2	0.00898994	2647421
19750.6	0.0109036	2647638
19760.9	0.0128029	2647561
19771.2	0.014686	2647644
19781.4	0.0165382	2647804
19791.3	0.018307	2647880
19801.4	0.0201039	2647991
19811.7	0.0218958	2648044
19820.3	0.0233844	2647919
19830.7	0.0251561	2647811
19841.1	0.0268988	2647781
19851.5	0.0286105	2647765
19860.2	0.0300119	2647825
19870.6	0.0316618	2647790
19881	0.0332751	2647844
19891.3	0.034836	2648018
19901.2	0.0362919	2648012
19911.1	0.0377197	2648037
19921.6	0.0391714	2648128
19930.2	0.0403459	2648036
19940.6	0.0417113	2648004
19951	0.043027	2647980
19961.4	0.0442913	2647847
19970.1	0.0453044	2647758
19980.2	0.0464345	2647694
19990	0.047484	2647628
