MODE: ipmo_prog0
PARCOUNT: 38
PROBLEMS: 1
Running on INWEST
Using iPMO

Programs:
 + ../../build/sierpi_intel_ipmo_tsunami_parallel_release  -u 10 -U 10 -T 1000 -n 40 -d 12
 + ../../build/sierpi_intel_ipmo_tsunami_parallel_release  -u 10 -U 10 -T 1000 -n 40 -d 12
 + ../../build/sierpi_intel_ipmo_tsunami_parallel_release  -u 10 -U 10 -T 1000 -n 40 -d 10
 + ../../build/sierpi_intel_ipmo_tsunami_parallel_release  -u 10 -U 10 -T 1000 -n 40 -d 12
 + ../../build/sierpi_intel_ipmo_tsunami_parallel_release  -u 10 -U 10 -T 1000 -n 40 -d 10

Sat Mar 31 16:05:35 CEST 2012
iPMO: Prog0 parallel execution with ipmo (38 times)
Waiting for job 21107
21140: CHANGING RESSOURCES
21135: CHANGING RESSOURCES
21134: CHANGING RESSOURCES
21115: CHANGING RESSOURCES
21114: CHANGING RESSOURCES
21114: CHANGING RESSOURCES
21127: CHANGING RESSOURCES
21107: CHANGING RESSOURCES
21115: CHANGING RESSOURCES
21133: CHANGING RESSOURCES
21140: CHANGING RESSOURCES
21124: CHANGING RESSOURCES
21127: CHANGING RESSOURCES
21141: CHANGING RESSOURCES
21107: CHANGING RESSOURCES
21141: CHANGING RESSOURCES
21125: CHANGING RESSOURCES
21107: CHANGING RESSOURCES
21133: CHANGING RESSOURCES
21124: CHANGING RESSOURCES
21114: CHANGING RESSOURCES
21140: CHANGING RESSOURCES
21127: CHANGING RESSOURCES
21134: CHANGING RESSOURCES
21142: CHANGING RESSOURCES
21115: CHANGING RESSOURCES
21118: CHANGING RESSOURCES
21117: CHANGING RESSOURCES
21134: CHANGING RESSOURCES
21108: CHANGING RESSOURCES
21132: CHANGING RESSOURCES
21135: CHANGING RESSOURCES
21131: CHANGING RESSOURCES
21113: CHANGING RESSOURCES
21122: CHANGING RESSOURCES
21128: CHANGING RESSOURCES
21119: CHANGING RESSOURCES
21111: CHANGING RESSOURCES
21129: CHANGING RESSOURCES
21116: CHANGING RESSOURCES
21139: CHANGING RESSOURCES
21144: CHANGING RESSOURCES
21120: CHANGING RESSOURCES
21109: CHANGING RESSOURCES
21123: CHANGING RESSOURCES
21137: CHANGING RESSOURCES
21136: CHANGING RESSOURCES
21143: CHANGING RESSOURCES
21110: CHANGING RESSOURCES
21126: CHANGING RESSOURCES
21112: CHANGING RESSOURCES
21121: CHANGING RESSOURCES
21130: CHANGING RESSOURCES
21138: CHANGING RESSOURCES

 + Terminating after 1000 timesteps with equal number of triangles -> EXIT
 + Final timestep: 6749

6750 TS (Timesteps)
715.114 ST (SIMULATION_TIME)
0.100037 TSS (Timestep size)
72.8631 SFS (Overall seconds for Simulation)
437983904 TP (Triangles processed)
0.0107945 ASPT (Averaged Seconds per Timestep)
64886.5 TPST (Triangles Processed in Average per Simulation Timestep)
48.6681 PPST (Clusters Processed in Average per Simulation Timestep)
6.01105 MTPS (Million Triangles per Second)
-6.01105 MTPSPT (Million Triangles per Second per Thread)
1.98018 EDMBPT (ElementData Megabyte per Timestep (RW))
183.443 EDMBPS (ElementData Megabyte per Second (RW))
SUM CLIENT SHUTDOWN HINT: 437.984
SUM CLIENT SHUTDOWN HINT DIV TIME: 0
21134: CHANGING RESSOURCES
21135: CHANGING RESSOURCES

 + Terminating after 1000 timesteps with equal number of triangles -> EXIT
 + Final timestep: 6749

6750 TS (Timesteps)
715.114 ST (SIMULATION_TIME)
0.100037 TSS (Timestep size)
74.9676 SFS (Overall seconds for Simulation)
437983904 TP (Triangles processed)
0.0111063 ASPT (Averaged Seconds per Timestep)
64886.5 TPST (Triangles Processed in Average per Simulation Timestep)
48.6681 PPST (Clusters Processed in Average per Simulation Timestep)
5.84231 MTPS (Million Triangles per Second)
-5.84231 MTPSPT (Million Triangles per Second per Thread)
1.98018 EDMBPT (ElementData Megabyte per Timestep (RW))
178.293 EDMBPS (ElementData Megabyte per Second (RW))
SUM CLIENT SHUTDOWN HINT: 875.968
SUM CLIENT SHUTDOWN HINT DIV TIME: 0
21108: CHANGING RESSOURCES
21140: CHANGING RESSOURCES

 + Terminating after 1000 timesteps with equal number of triangles -> EXIT
 + Final timestep: 6749

6750 TS (Timesteps)
715.114 ST (SIMULATION_TIME)
0.100037 TSS (Timestep size)
106.202 SFS (Overall seconds for Simulation)
437983904 TP (Triangles processed)
0.0157337 ASPT (Averaged Seconds per Timestep)
64886.5 TPST (Triangles Processed in Average per Simulation Timestep)
48.6681 PPST (Clusters Processed in Average per Simulation Timestep)
4.12405 MTPS (Million Triangles per Second)
-4.12405 MTPSPT (Million Triangles per Second per Thread)
1.98018 EDMBPT (ElementData Megabyte per Timestep (RW))
125.856 EDMBPS (ElementData Megabyte per Second (RW))
SUM CLIENT SHUTDOWN HINT: 1313.95
SUM CLIENT SHUTDOWN HINT DIV TIME: 0
21129: CHANGING RESSOURCES
21108: CHANGING RESSOURCES
21117: CHANGING RESSOURCES
21127: CHANGING RESSOURCES

 + Terminating after 1000 timesteps with equal number of triangles -> EXIT
 + Final timestep: 6749

6750 TS (Timesteps)
715.114 ST (SIMULATION_TIME)
0.100037 TSS (Timestep size)
111.728 SFS (Overall seconds for Simulation)
437983904 TP (Triangles processed)
0.0165523 ASPT (Averaged Seconds per Timestep)
64886.5 TPST (Triangles Processed in Average per Simulation Timestep)
48.6681 PPST (Clusters Processed in Average per Simulation Timestep)
3.9201 MTPS (Million Triangles per Second)
-3.9201 MTPSPT (Million Triangles per Second per Thread)
1.98018 EDMBPT (ElementData Megabyte per Timestep (RW))
119.632 EDMBPS (ElementData Megabyte per Second (RW))
SUM CLIENT SHUTDOWN HINT: 1751.94
SUM CLIENT SHUTDOWN HINT DIV TIME: 0
21107: CHANGING RESSOURCES
21129: CHANGING RESSOURCES
21109: CHANGING RESSOURCES
21126: CHANGING RESSOURCES

 + Terminating after 1000 timesteps with equal number of triangles -> EXIT
 + Final timestep: 6749

6750 TS (Timesteps)
715.114 ST (SIMULATION_TIME)
0.100037 TSS (Timestep size)
112.879 SFS (Overall seconds for Simulation)
437983904 TP (Triangles processed)
0.0167228 ASPT (Averaged Seconds per Timestep)
64886.5 TPST (Triangles Processed in Average per Simulation Timestep)
48.6681 PPST (Clusters Processed in Average per Simulation Timestep)
3.88013 MTPS (Million Triangles per Second)
-3.88013 MTPSPT (Million Triangles per Second per Thread)
1.98018 EDMBPT (ElementData Megabyte per Timestep (RW))
118.412 EDMBPS (ElementData Megabyte per Second (RW))
SUM CLIENT SHUTDOWN HINT: 2189.92
SUM CLIENT SHUTDOWN HINT DIV TIME: 0
21130: CHANGING RESSOURCES
21126: CHANGING RESSOURCES
21131: CHANGING RESSOURCES
21119: CHANGING RESSOURCES

 + Terminating after 1000 timesteps with equal number of triangles -> EXIT
 + Final timestep: 6749

6750 TS (Timesteps)
715.114 ST (SIMULATION_TIME)
0.100037 TSS (Timestep size)
119.835 SFS (Overall seconds for Simulation)
437983904 TP (Triangles processed)
0.0177533 ASPT (Averaged Seconds per Timestep)
64886.5 TPST (Triangles Processed in Average per Simulation Timestep)
48.6681 PPST (Clusters Processed in Average per Simulation Timestep)
3.6549 MTPS (Million Triangles per Second)
-3.6549 MTPSPT (Million Triangles per Second per Thread)
1.98018 EDMBPT (ElementData Megabyte per Timestep (RW))
111.539 EDMBPS (ElementData Megabyte per Second (RW))
SUM CLIENT SHUTDOWN HINT: 2627.9
SUM CLIENT SHUTDOWN HINT DIV TIME: 0
21130: CHANGING RESSOURCES
21133: CHANGING RESSOURCES
21138: CHANGING RESSOURCES

 + Terminating after 1000 timesteps with equal number of triangles -> EXIT
 + Final timestep: 6749

6750 TS (Timesteps)
715.114 ST (SIMULATION_TIME)
0.100037 TSS (Timestep size)
123.47 SFS (Overall seconds for Simulation)
437983904 TP (Triangles processed)
0.0182919 ASPT (Averaged Seconds per Timestep)
64886.5 TPST (Triangles Processed in Average per Simulation Timestep)
48.6681 PPST (Clusters Processed in Average per Simulation Timestep)
3.54728 MTPS (Million Triangles per Second)
-3.54728 MTPSPT (Million Triangles per Second per Thread)
1.98018 EDMBPT (ElementData Megabyte per Timestep (RW))
108.254 EDMBPS (ElementData Megabyte per Second (RW))
SUM CLIENT SHUTDOWN HINT: 3065.89
SUM CLIENT SHUTDOWN HINT DIV TIME: 0
21142: CHANGING RESSOURCES
Waiting for job 21108
Waiting for job 21109
21138: CHANGING RESSOURCES
21137: CHANGING RESSOURCES
21120: CHANGING RESSOURCES

 + Terminating after 1000 timesteps with equal number of triangles -> EXIT
 + Final timestep: 6749

6750 TS (Timesteps)
715.114 ST (SIMULATION_TIME)
0.100037 TSS (Timestep size)
127.853 SFS (Overall seconds for Simulation)
437983904 TP (Triangles processed)
0.0189411 ASPT (Averaged Seconds per Timestep)
64886.5 TPST (Triangles Processed in Average per Simulation Timestep)
48.6681 PPST (Clusters Processed in Average per Simulation Timestep)
3.42569 MTPS (Million Triangles per Second)
-3.42569 MTPSPT (Million Triangles per Second per Thread)
1.98018 EDMBPT (ElementData Megabyte per Timestep (RW))
104.544 EDMBPS (ElementData Megabyte per Second (RW))
SUM CLIENT SHUTDOWN HINT: 3503.87
SUM CLIENT SHUTDOWN HINT DIV TIME: 0
21142: CHANGING RESSOURCES
21112: CHANGING RESSOURCES
21116: CHANGING RESSOURCES
21132: CHANGING RESSOURCES

 + Terminating after 1000 timesteps with equal number of triangles -> EXIT
 + Final timestep: 6749

6750 TS (Timesteps)
715.114 ST (SIMULATION_TIME)
0.100037 TSS (Timestep size)
128.842 SFS (Overall seconds for Simulation)
437983904 TP (Triangles processed)
0.0190877 ASPT (Averaged Seconds per Timestep)
64886.5 TPST (Triangles Processed in Average per Simulation Timestep)
48.6681 PPST (Clusters Processed in Average per Simulation Timestep)
3.39939 MTPS (Million Triangles per Second)
-3.39939 MTPSPT (Million Triangles per Second per Thread)
1.98018 EDMBPT (ElementData Megabyte per Timestep (RW))
103.741 EDMBPS (ElementData Megabyte per Second (RW))
SUM CLIENT SHUTDOWN HINT: 3941.86
SUM CLIENT SHUTDOWN HINT DIV TIME: 0
21141: CHANGING RESSOURCES
21124: CHANGING RESSOURCES

 + Terminating after 1000 timesteps with equal number of triangles -> EXIT
 + Final timestep: 6749

6750 TS (Timesteps)
715.114 ST (SIMULATION_TIME)
0.100037 TSS (Timestep size)
129.079 SFS (Overall seconds for Simulation)
437983904 TP (Triangles processed)
0.0191228 ASPT (Averaged Seconds per Timestep)
64886.5 TPST (Triangles Processed in Average per Simulation Timestep)
48.6681 PPST (Clusters Processed in Average per Simulation Timestep)
3.39316 MTPS (Million Triangles per Second)
-3.39316 MTPSPT (Million Triangles per Second per Thread)
1.98018 EDMBPT (ElementData Megabyte per Timestep (RW))
103.551 EDMBPS (ElementData Megabyte per Second (RW))
SUM CLIENT SHUTDOWN HINT: 4379.84
SUM CLIENT SHUTDOWN HINT DIV TIME: 0
21136: CHANGING RESSOURCES

 + Terminating after 1000 timesteps with equal number of triangles -> EXIT
 + Final timestep: 6749

6750 TS (Timesteps)
715.114 ST (SIMULATION_TIME)
0.100037 TSS (Timestep size)
130.053 SFS (Overall seconds for Simulation)
437983904 TP (Triangles processed)
0.019267 ASPT (Averaged Seconds per Timestep)
64886.5 TPST (Triangles Processed in Average per Simulation Timestep)
48.6681 PPST (Clusters Processed in Average per Simulation Timestep)
3.36775 MTPS (Million Triangles per Second)
-3.36775 MTPSPT (Million Triangles per Second per Thread)
1.98018 EDMBPT (ElementData Megabyte per Timestep (RW))
102.775 EDMBPS (ElementData Megabyte per Second (RW))
SUM CLIENT SHUTDOWN HINT: 4817.82
SUM CLIENT SHUTDOWN HINT DIV TIME: 0
21113: CHANGING RESSOURCES
21144: CHANGING RESSOURCES

 + Terminating after 1000 timesteps with equal number of triangles -> EXIT
 + Final timestep: 6749

6750 TS (Timesteps)
715.114 ST (SIMULATION_TIME)
0.100037 TSS (Timestep size)
130.135 SFS (Overall seconds for Simulation)
437983904 TP (Triangles processed)
0.0192793 ASPT (Averaged Seconds per Timestep)
64886.5 TPST (Triangles Processed in Average per Simulation Timestep)
48.6681 PPST (Clusters Processed in Average per Simulation Timestep)
3.3656 MTPS (Million Triangles per Second)
-3.3656 MTPSPT (Million Triangles per Second per Thread)
1.98018 EDMBPT (ElementData Megabyte per Timestep (RW))
102.71 EDMBPS (ElementData Megabyte per Second (RW))
SUM CLIENT SHUTDOWN HINT: 5255.81
SUM CLIENT SHUTDOWN HINT DIV TIME: 0
21111: CHANGING RESSOURCES
21122: CHANGING RESSOURCES

 + Terminating after 1000 timesteps with equal number of triangles -> EXIT
 + Final timestep: 6749

6750 TS (Timesteps)
715.114 ST (SIMULATION_TIME)
0.100037 TSS (Timestep size)
130.929 SFS (Overall seconds for Simulation)
437983904 TP (Triangles processed)
0.0193968 ASPT (Averaged Seconds per Timestep)
64886.5 TPST (Triangles Processed in Average per Simulation Timestep)
48.6681 PPST (Clusters Processed in Average per Simulation Timestep)
3.34521 MTPS (Million Triangles per Second)
-3.34521 MTPSPT (Million Triangles per Second per Thread)
1.98018 EDMBPT (ElementData Megabyte per Timestep (RW))
102.088 EDMBPS (ElementData Megabyte per Second (RW))
SUM CLIENT SHUTDOWN HINT: 5693.79
SUM CLIENT SHUTDOWN HINT DIV TIME: 0
21118: CHANGING RESSOURCES
21128: CHANGING RESSOURCES

 + Terminating after 1000 timesteps with equal number of triangles -> EXIT
 + Final timestep: 6749

6750 TS (Timesteps)
715.114 ST (SIMULATION_TIME)
0.100037 TSS (Timestep size)
132.459 SFS (Overall seconds for Simulation)
437983904 TP (Triangles processed)
0.0196235 ASPT (Averaged Seconds per Timestep)
64886.5 TPST (Triangles Processed in Average per Simulation Timestep)
48.6681 PPST (Clusters Processed in Average per Simulation Timestep)
3.30656 MTPS (Million Triangles per Second)
-3.30656 MTPSPT (Million Triangles per Second per Thread)
1.98018 EDMBPT (ElementData Megabyte per Timestep (RW))
100.908 EDMBPS (ElementData Megabyte per Second (RW))
SUM CLIENT SHUTDOWN HINT: 6131.77
SUM CLIENT SHUTDOWN HINT DIV TIME: 0
21143: CHANGING RESSOURCES
21123: CHANGING RESSOURCES
Waiting for job 21110

 + Terminating after 1000 timesteps with equal number of triangles -> EXIT
 + Final timestep: 6749

6750 TS (Timesteps)
715.114 ST (SIMULATION_TIME)
0.100037 TSS (Timestep size)
132.514 SFS (Overall seconds for Simulation)
437983904 TP (Triangles processed)
0.0196317 ASPT (Averaged Seconds per Timestep)
64886.5 TPST (Triangles Processed in Average per Simulation Timestep)
48.6681 PPST (Clusters Processed in Average per Simulation Timestep)
3.30519 MTPS (Million Triangles per Second)
-3.30519 MTPSPT (Million Triangles per Second per Thread)
1.98018 EDMBPT (ElementData Megabyte per Timestep (RW))
100.867 EDMBPS (ElementData Megabyte per Second (RW))
SUM CLIENT SHUTDOWN HINT: 6569.76
SUM CLIENT SHUTDOWN HINT DIV TIME: 0
21121: CHANGING RESSOURCES
21139: CHANGING RESSOURCES

 + Terminating after 1000 timesteps with equal number of triangles -> EXIT
 + Final timestep: 6749

6750 TS (Timesteps)
715.114 ST (SIMULATION_TIME)
0.100037 TSS (Timestep size)
132.859 SFS (Overall seconds for Simulation)
437983904 TP (Triangles processed)
0.0196828 ASPT (Averaged Seconds per Timestep)
64886.5 TPST (Triangles Processed in Average per Simulation Timestep)
48.6681 PPST (Clusters Processed in Average per Simulation Timestep)
3.29662 MTPS (Million Triangles per Second)
-3.29662 MTPSPT (Million Triangles per Second per Thread)
1.98018 EDMBPT (ElementData Megabyte per Timestep (RW))
100.605 EDMBPS (ElementData Megabyte per Second (RW))
SUM CLIENT SHUTDOWN HINT: 7007.74
SUM CLIENT SHUTDOWN HINT DIV TIME: 0
21125: CHANGING RESSOURCES
21110: CHANGING RESSOURCES

 + Terminating after 1000 timesteps with equal number of triangles -> EXIT
 + Final timestep: 6749

6750 TS (Timesteps)
715.114 ST (SIMULATION_TIME)
0.100037 TSS (Timestep size)
132.928 SFS (Overall seconds for Simulation)
437983904 TP (Triangles processed)
0.019693 ASPT (Averaged Seconds per Timestep)
64886.5 TPST (Triangles Processed in Average per Simulation Timestep)
48.6681 PPST (Clusters Processed in Average per Simulation Timestep)
3.2949 MTPS (Million Triangles per Second)
-3.2949 MTPSPT (Million Triangles per Second per Thread)
1.98018 EDMBPT (ElementData Megabyte per Timestep (RW))
100.552 EDMBPS (ElementData Megabyte per Second (RW))
SUM CLIENT SHUTDOWN HINT: 7445.73
SUM CLIENT SHUTDOWN HINT DIV TIME: 0
21129: CHANGING RESSOURCES
21126: CHANGING RESSOURCES

 + Terminating after 1000 timesteps with equal number of triangles -> EXIT
 + Final timestep: 6749

6750 TS (Timesteps)
715.114 ST (SIMULATION_TIME)
0.100037 TSS (Timestep size)
132.988 SFS (Overall seconds for Simulation)
437983904 TP (Triangles processed)
0.0197019 ASPT (Averaged Seconds per Timestep)
64886.5 TPST (Triangles Processed in Average per Simulation Timestep)
48.6681 PPST (Clusters Processed in Average per Simulation Timestep)
3.29341 MTPS (Million Triangles per Second)
-3.29341 MTPSPT (Million Triangles per Second per Thread)
1.98018 EDMBPT (ElementData Megabyte per Timestep (RW))
100.507 EDMBPS (ElementData Megabyte per Second (RW))
SUM CLIENT SHUTDOWN HINT: 7883.71
SUM CLIENT SHUTDOWN HINT DIV TIME: 0
21142: CHANGING RESSOURCES
21138: CHANGING RESSOURCES

 + Terminating after 1000 timesteps with equal number of triangles -> EXIT
 + Final timestep: 6749

6750 TS (Timesteps)
715.114 ST (SIMULATION_TIME)
0.100037 TSS (Timestep size)
134.651 SFS (Overall seconds for Simulation)
437983904 TP (Triangles processed)
0.0199483 ASPT (Averaged Seconds per Timestep)
64886.5 TPST (Triangles Processed in Average per Simulation Timestep)
48.6681 PPST (Clusters Processed in Average per Simulation Timestep)
3.25273 MTPS (Million Triangles per Second)
-3.25273 MTPSPT (Million Triangles per Second per Thread)
1.98018 EDMBPT (ElementData Megabyte per Timestep (RW))
99.2654 EDMBPS (ElementData Megabyte per Second (RW))
S + Terminating after 1000 timesteSUM CLIENT SHUTDOWN HINT DIV TIME: 0
21111: CHANGING RESSOURCES
21122: CHANGING RESSOURCES

 + Terminating after 1000 timesteps with equal number of triangles -> EXIT
 + Final timestep: 6749

6750 TS (Timesteps)
715.114 ST (SIMULATION_TIME)
0.100037 TSS (Timestep size)
134.77 SFS (Overall seconds for Simulation)
437983904 TP (Triangles processed)
0.0199659 ASPT (Averaged Seconds per Timestep)
64886.5 TPST (Triangles Processed in Average per Simulation Timestep)
48.6681 PPST (Clusters Processed in Average per Simulation Timestep)
3.24987 MTPS (Million Triangles per Second)
-3.24987 MTPSPT (Million Triangles per Second per Thread)
1.98018 EDMBPT (ElementData Megabyte per Timestep (RW))
99.1783 EDMBPS (ElementData Megabyte per Second (RW))
SUM CLIENT SHUTDOWN HINT: 9197.66
SUM CLIENT SHUTDOWN HINT DIV TIME: 0
21123: CHANGING RESSOURCES
21110: CHANGING RESSOURCES
21143: CHANGING RESSOURCES

 + Terminating after 1000 timesteps with equal number of triangles -> EXIT
 + Final timestep: 6749

6750 TS (Timesteps)
715.114 ST (SIMULATION_TIME)
0.100037 TSS (Timestep size)
135.049 SFS (Overall seconds for Simulation)
437983904 TP (Triangles processed)
0.0200073 ASPT (Averaged Seconds per Timestep)
64886.5 TPST (Triangles Processed in Average per Simulation Timestep)
48.6681 PPST (Clusters Processed in Average per Simulation Timestep)
3.24315 MTPS (Million Triangles per Second)
-3.24315 MTPSPT (Million Triangles per Second per Thread)
1.98018 EDMBPT (ElementData Megabyte per Timestep (RW))
98.9729 EDMBPS (ElementData Megabyte per Second (RW))
SUM CLIENT SHUTDOWN HINT: 9635.65
SUM CLIENT SHUTDOWN HINT DIV TIME: 0
21110: CHANGING RESSOURCES
21138: CHANGING RESSOURCES
21144: CHANGING RESSOURCES
21121: CHANGING RESSOURCES
21126: CHANGING RESSOURCES

 + Terminating after 1000 timesteps with equal number of triangles -> EXIT
 + Final timestep: 6749

6750 TS (Timesteps)
715.114 ST (SIMULATION_TIME)
0.100037 TSS (Timestep size)
135.368 SFS (Overall seconds for Simulation)
437983904 TP (Triangles processed)
0.0200545 ASPT (Averaged Seconds per Timestep)
64886.5 TPST (Triangles Processed in Average per Simulation Timestep)
48.6681 PPST (Clusters Processed in Average per Simulation Timestep)
3.2355 MTPS (Million Triangles per Second)
-3.2355 MTPSPT (Million Triangles per Second per Thread)
1.98018 EDMBPT (ElementData Megabyte per Timestep (RW))
98.7397 EDMBPS (ElementData Megabyte per Second (RW))
SUM CLIENT SHUTDOWN HINT: 10073.6
SUM CLIENT SHUTDOWN HINT DIV TIME: 0
21132: CHANGING RESSOURCES
21110: CHANGING RESSOURCES
21142: CHANGING RESSOURCES
21125: CHANGING RESSOURCES
21116: CHANGING RESSOURCES

 + Terminating after 1000 timesteps with equal number of triangles -> EXIT
 + Final timestep: 6749

6750 TS (Timesteps)
715.114 ST (SIMULATION_TIME)
0.100037 TSS (Timestep size)
135.388 SFS (Overall seconds for Simulation)
437983904 TP (Triangles processed)
0.0200574 ASPT (Averaged Seconds per Timestep)
64886.5 TPST (Triangles Processed in Average per Simulation Timestep)
48.6681 PPST (Clusters Processed in Average per Simulation Timestep)
3.23504 MTPS (Million Triangles per Second)
-3.23504 MTPSPT (Million Triangles per Second per Thread)
1.98018 EDMBPT (ElementData Megabyte per Timestep (RW))
98.7254 EDMBPS (ElementData Megabyte per Second (RW))
SUM CLIENT SHUTDOWN HINT: 10511.6
SUM CLIENT SHUTDOWN HINT DIV TIME: 0
21111: CHANGING RESSOURCES
21113: CHANGING RESSOURCES
21125: CHANGING RESSOURCES
21144: CHANGING RESSOURCES

 + Terminating after 1000 timesteps with equal number of triangles -> EXIT
 + Final timestep: 6749

6750 TS (Timesteps)
715.114 ST (SIMULATION_TIME)
0.100037 TSS (Timestep size)
135.387 SFS (Overall seconds for Simulation)
437983904 TP (Triangles processed)
0.0200573 ASPT (Averaged Seconds per Timestep)
64886.5 TPST (Triangles Processed in Average per Simulation Timestep)
48.6681 PPST (Clusters Processed in Average per Simulation Timestep)
3.23505 MTPS (Million Triangles per Second)
-3.23505 MTPSPT (Million Triangles per Second per Thread)
1.98018 EDMBPT (ElementData Megabyte per Timestep (RW))
98.726 EDMBPS (ElementData Megabyte per Second (RW))
SUM CLIENT SHUTDOWN HINT: 10949.6
SUM CLIENT SHUTDOWN HINT DIV TIME: 0
21122: CHANGING RESSOURCES
21111: CHANGING RESSOURCES

 + Terminating after 1000 timesteps with equal number of triangles -> EXIT
 + Final timestep: 6749

6750 TS (Timesteps)
715.114 ST (SIMULATION_TIME)
0.100037 TSS (Timestep size)
135.439 SFS (Overall seconds for Simulation)
437983904 TP (Triangles processed)
0.020065 ASPT (Averaged Seconds per Timestep)
64886.5 TPST (Triangles Processed in Average per Simulation Timestep)
48.6681 PPST (Clusters Processed in Average per Simulation Timestep)
3.23382 MTPS (Million Triangles per Second)
-3.23382 MTPSPT (Million Triangles per Second per Thread)
1.98018 EDMBPT (ElementData Megabyte per Timestep (RW))
98.6884 EDMBPS (ElementData Megabyte per Second (RW))
SUM CLIENT SHUTDOWN HINT: 11387.6
SUM CLIENT SHUTDOWN HINT DIV TIME: 0
21116: CHANGING RESSOURCES
21142: CHANGING RESSOURCES
21126: CHANGING RESSOURCES

 + Terminating after 1000 timesteps with equal number of triangles -> EXIT
 + Final timestep: 6749

6750 TS (Timesteps)
715.114 ST (SIMULATION_TIME)
0.100037 TSS (Timestep size)
135.852 SFS (Overall seconds for Simulation)
437983904 TP (Triangles processed)
0.0201263 ASPT (Averaged Seconds per Timestep)
64886.5 TPST (Triangles Processed in Average per Simulation Timestep)
48.6681 PPST (Clusters Processed in Average per Simulation Timestep)
3.22397 MTPS (Million Triangles per Second)
-3.22397 MTPSPT (Million Triangles per Second per Thread)
1.98018 EDMBPT (ElementData Megabyte per Timestep (RW))
98.3878 EDMBPS (ElementData Megabyte per Second (RW))
SUM CLIENT SHUTDOWN HINT: 11825.6
SUM CLIENT SHUTDOWN HINT DIV TIME: 0
21144: CHANGING RESSOURCES
21123: CHANGING RESSOURCES
21126: CHANGING RESSOURCES
21132: CHANGING RESSOURCES

 + Terminating after 1000 timesteps with equal number of triangles -> EXIT
 + Final timestep: 6749

6750 TS (Timesteps)
715.114 ST (SIMULATION_TIME)
0.100037 TSS (Timestep size)
136.793 SFS (Overall seconds for Simulation)
437983904 TP (Triangles processed)
0.0202656 ASPT (Averaged Seconds per Timestep)
64886.5 TPST (Triangles Processed in Average per Simulation Timestep)
48.6681 PPST (Clusters Processed in Average per Simulation Timestep)
3.2018 MTPS (Million Triangles per Second)
-3.2018 MTPSPT (Million Triangles per Second per Thread)
1.98018 EDMBPT (ElementData Megabyte per Timestep (RW))
97.7112 EDMBPS (ElementData Megabyte per Second (RW))
SUM CLIENT SHUTDOWN HINT: 12263.5
SUM CLIENT SHUTDOWN HINT DIV TIME: 0
21125: CHANGING RESSOURCES
21121: CHANGING RESSOURCES
21126: CHANGING RESSOURCES
Waiting for job 21111
Waiting for job 21112
Waiting for job 21113
Waiting for job 21114
Waiting for job 21115
Waiting for job 21116

 + Terminating after 1000 timesteps with equal number of triangles -> EXIT
 + Final timestep: 6749

6750 TS (Timesteps)
715.114 ST (SIMULATION_TIME)
0.100037 TSS (Timestep size)
137.414 SFS (Overall seconds for Simulation)
437983904 TP (Triangles processed)
0.0203576 ASPT (Averaged Seconds per Timestep)
64886.5 TPST (Triangles Processed in Average per Simulation Timestep)
48.6681 PPST (Clusters Processed in Average per Simulation Timestep)
3.18733 MTPS (Million Triangles per Second)
-3.18733 MTPSPT (Million Triangles per Second per Thread)
1.98018 EDMBPT (ElementData Megabyte per Timestep (RW))
97.2696 EDMBPS (ElementData Megabyte per Second (RW))
SUM CLIENT SHUTDOWN HINT: 12701.5
SUM CLIENT SHUTDOWN HINT DIV TIME: 0
21143: CHANGING RESSOURCES
21132: CHANGING RESSOURCES
Waiting for job 21117
Waiting for job 21118
Waiting for job 21119
Waiting for job 21120
Waiting for job 21121

 + Terminating after 1000 timesteps with equal number of triangles -> EXIT
 + Final timestep: 6749

6750 TS (Timesteps)
715.114 ST (SIMULATION_TIME)
0.100037 TSS (Timestep size)
137.555 SFS (Overall seconds for Simulation)
437983904 TP (Triangles processed)
0.0203786 ASPT (Averaged Seconds per Timestep)
64886.5 TPST (Triangles Processed in Average per Simulation Timestep)
48.6681 PPST (Clusters Processed in Average per Simulation Timestep)
3.18406 MTPS (Million Triangles per Second)
-3.18406 MTPSPT (Million Triangles per Second per Thread)
1.98018 EDMBPT (ElementData Megabyte per Timestep (RW))
97.1697 EDMBPS (ElementData Megabyte per Second (RW))
SUM CLIENT SHUTDOWN HINT: 13139.5
SUM CLIENT SHUTDOWN HINT DIV TIME: 0
21125: CHANGING RESSOURCES
21126: CHANGING RESSOURCES

 + Terminating after 1000 timesteps with equal number of triangles -> EXIT
 + Final timestep: 6749

6750 TS (Timesteps)
715.114 ST (SIMULATION_TIME)
0.100037 TSS (Timestep size)
137.581 SFS (Overall seconds for Simulation)
437983904 TP (Triangles processed)
0.0203823 ASPT (Averaged Seconds per Timestep)
64886.5 TPST (Triangles Processed in Average per Simulation Timestep)
48.6681 PPST (Clusters Processed in Average per Simulation Timestep)
3.18347 MTPS (Million Triangles per Second)
-3.18347 MTPSPT (Million Triangles per Second per Thread)
1.98018 EDMBPT (ElementData Megabyte per Timestep (RW))
97.1518 EDMBPS (ElementData Megabyte per Second (RW))
SUM CLIENT SHUTDOWN HINT: 13577.5
SUM CLIENT SHUTDOWN HINT DIV TIME: 0
21121: CHANGING RESSOURCES
21123: CHANGING RESSOURCES

 + Terminating after 1000 timesteps with equal number of triangles -> EXIT
 + Final timestep: 6749

6750 TS (Timesteps)
715.114 ST (SIMULATION_TIME)
0.100037 TSS (Timestep size)
137.851 SFS (Overall seconds for Simulation)
437983904 TP (Triangles processed)
0.0204224 ASPT (Averaged Seconds per Timestep)
64886.5 TPST (Triangles Processed in Average per Simulation Timestep)
48.6681 PPST (Clusters Processed in Average per Simulation Timestep)
3.17722 MTPS (Million Triangles per Second)
-3.17722 MTPSPT (Million Triangles per Second per Thread)
1.98018 EDMBPT (ElementData Megabyte per Timestep (RW))
96.9611 EDMBPS (ElementData Megabyte per Second (RW))
SUM CLIENT SHUTDOWN HINT: 14015.5
SUM CLIENT SHUTDOWN HINT DIV TIME: 0
21125: CHANGING RESSOURCES
21123: CHANGING RESSOURCES
21142: CHANGING RESSOURCES
21126: CHANGING RESSOURCES

 + Terminating after 1000 timesteps with equal number of triangles -> EXIT
 + Final timestep: 6749

6750 TS (Timesteps)
715.114 ST (SIMULATION_TIME)
0.100037 TSS (Timestep size)
138.364 SFS (Overall seconds for Simulation)
437983904 TP (Triangles processed)
0.0204984 ASPT (Averaged Seconds per Timestep)
64886.5 TPST (Triangles Processed in Average per Simulation Timestep)
48.6681 PPST (Clusters Processed in Average per Simulation Timestep)
3.16545 MTPS (Million Triangles per Second)
-3.16545 MTPSPT (Million Triangles per Second per Thread)
1.98018 EDMBPT (ElementData Megabyte per Timestep (RW))
96.6018 EDMBPS (ElementData Megabyte per Second (RW))
SUM CLIENT SHUTDOWN HINT: 14453.5
SUM CLIENT SHUTDOWN HINT DIV TIME: 0
21126: CHANGING RESSOURCES
21123: CHANGING RESSOURCES

 + Terminating after 1000 timesteps with equal number of triangles -> EXIT
 + Final timestep: 6749

6750 TS (Timesteps)
715.114 ST (SIMULATION_TIME)
0.100037 TSS (Timestep size)
138.429 SFS (Overall seconds for Simulation)
437983904 TP (Triangles processed)
0.0205081 ASPT (Averaged Seconds per Timestep)
64886.5 TPST (Triangles Processed in Average per Simulation Timestep)
48.6681 PPST (Clusters Processed in Average per Simulation Timestep)
3.16395 MTPS (Million Triangles per Second)
-3.16395 MTPSPT (Million Triangles per Second per Thread)
1.98018 EDMBPT (ElementData Megabyte per Timestep (RW))
96.5562 EDMBPS (ElementData Megabyte per Second (RW))
SUM CLIENT SHUTDOWN HINT: 14891.5
SUM CLIENT SHUTDOWN HINT DIV TIME: 0
21142: CHANGING RESSOURCES
21123: CHANGING RESSOURCES
21126: CHANGING RESSOURCES

 + Terminating after 1000 timesteps with equal number of triangles -> EXIT
 + Final timestep: 6749

6750 TS (Timesteps)
715.114 ST (SIMULATION_TIME)
0.100037 TSS (Timestep size)
138.463 SFS (Overall seconds for Simulation)
437983904 TP (Triangles processed)
0.0205131 ASPT (Averaged Seconds per Timestep)
64886.5 TPST (Triangles Processed in Average per Simulation Timestep)
48.6681 PPST (Clusters Processed in Average per Simulation Timestep)
3.16318 MTPS (Million Triangles per Second)
-3.16318 MTPSPT (Million Triangles per Second per Thread)
1.98018 EDMBPT (ElementData Megabyte per Timestep (RW))
96.5326 EDMBPS (ElementData Megabyte per Second (RW))
SUM CLIENT SHUTDOWN HIWaiting for job 21123
21126: CHANGING RESSOURCES

 + Terminating after 1000 timesteps with equal number of triangles -> EXIT
 + Final timestep: 6749

6750 TS (Timesteps)
715.114 ST (SIMULATION_TIME)
0.100037 TSS (Timestep size)
138.602 SFS (Overall seconds for Simulation)
437983904 TP (Triangles processed)
0.0205336 ASPT (Averaged Seconds per Timestep)
64886.5 TPST (Triangles Processed in Average per Simulation Timestep)
48.6681 PPST (Clusters Processed in Average per Simulation Timestep)
3.16002 MTPS (Million Triangles per Second)
-3.16002 MTPSPT (Million Triangles per Second per Thread)
1.98018 EDMBPT (ElementData Megabyte per Timestep (RW))
96.4362 EDMBPS (ElementData Megabyte per Second (RW))
SUM CLIENT SHUTDOWN HINT: 15767.4
SUM CLIENT SHUTDOWN HINT DIV TIME: 0
21142: CHANGING RESSOURCES
21126: CHANGING RESSOURCES
Waiting for job 21124
Waiting for job 21125
Waiting for job 21126

 + Terminating after 1000 timesteps with equal number of triangles -> EXIT
 + Final timestep: 6749

6750 TS (Timesteps)
715.114 ST (SIMULATION_TIME)
0.100037 TSS (Timestep size)
139.052 SFS (Overall seconds for Simulation)
437983904 TP (Triangles processed)
0.0206003 ASPT (Averaged Seconds per Timestep)
64886.5 TPST (Triangles Processed in Average per Simulation Timestep)
48.6681 PPST (Clusters Processed in Average per Simulation Timestep)
3.14978 MTPS (Million Triangles per Second)
-3.14978 MTPSPT (Million Triangles per Second per Thread)
1.98018 EDMBPT (ElementData Megabyte per Timestep (RW))
96.1236 EDMBPS (ElementData Megabyte per Second (RW))
SUM CLIENT SHUTDOWN HINT: 16205.4
SUM CLIENT SHUTDOWN HINT DIV TIME: 0
21126: CHANGING RESSOURCES

 + Terminating after 1000 timesteps with equal number of triangles -> EXIT
 + Final timestep: 6749

6750 TS (Timesteps)
715.114 ST (SIMULATION_TIME)
0.100037 TSS (Timestep size)
140.861 SFS (Overall seconds for Simulation)
437983904 TP (Triangles processed)
0.0208683 ASPT (Averaged Seconds per Timestep)
64886.5 TPST (Triangles Processed in Average per Simulation Timestep)
48.6681 PPST (Clusters Processed in Average per Simulation Timestep)
3.10933 MTPS (Million Triangles per Second)
-3.10933 MTPSPT (Million Triangles per Second per Thread)
1.98018 EDMBPT (ElementData Megabyte per Timestep (RW))
94.8893 EDMBPS (ElementData Megabyte per Second (RW))
SUM CLIENT SHUTDOWN HINT: 16643.4
SUM CLIENT SHUTDOWN HINT DIV TIME: 118.356
Waiting for job 21127
Waiting for job 21128
Waiting for job 21129
Waiting for job 21130
Waiting for job 21131
Waiting for job 21132
Waiting for job 21133
Waiting for job 21134
Waiting for job 21135
Waiting for job 21136
Waiting for job 21137
Waiting for job 21138
Waiting for job 21139
Waiting for job 21140
Waiting for job 21141
Waiting for job 21142
Waiting for job 21143
Waiting for job 21144
Sat Mar 31 16:07:56 CEST 2012
Seconds: 141
