Executable + params: ../../build/sierpi_intel_tbb_sacsp_tsunami_parallel_release -o 32768 -k 10 -A 1 -d 20 -a 8 -t 100
Problem size with different number of CPUs using function optimization
THREADS	MTPS	TIMESTEPS	TIMESTEP_SIZE	SECONDS_FOR_SIMULATION	AVERAGE_TRIANGLES	AVERAGE_PARTITIONS
80	75.0955	100	0.000491318		1.9047e+07	1158.4
64	69.0796	100	0.000491318		1.9047e+07	1158.4
60	67.4328	100	0.000491318		1.9047e+07	1158.4
40	60.1587	100	0.000491318		1.9047e+07	1158.4
32	46.7929	100	0.000491318		1.9047e+07	1158.4
30	39.9477	100	0.000491318		1.9047e+07	1158.4
20	27.2175	100	0.000491318		1.9047e+07	1158.4
16	23.9235	100	0.000491318		1.9047e+07	1158.4
10	14.3036	100	0.000491318		1.9047e+07	1158.4
8	13.4729	100	0.000491318		1.9047e+07	1158.4
4	10.0075	100	0.000491318		1.9047e+07	1158.4
2	6.09664	100	0.000491318		1.9047e+07	1158.4
1	3.09317	100	0.000491318		1.9047e+07	1158.4
