Problem size with different number of CPUs using function optimization
THREADS	INITIAL_DEPTH	MTPS	SPEEDUP_PER	TIMESTEPS	TIMESTEP_SIZE	SECONDS_FOR_SIMULATION	AVERAGE_TRIANGLES	AVERAGE_PARTITIONS
1	20	3.57745	1.0000	10	0.00434643	24.5621	8.78696e+06	34273.7
2	21	6.57842	.9194	20	0.00307078	53.4187	1.75705e+07	37921.6
4	22	13.8032	.9645	40	0.00217063	101.83	3.51393e+07	38993.9
8	23	25.4693	.8899	80	0.00153464	220.754	7.02808e+07	39432.9
12	23	35.403	.8246	120	0.00153453	238.297	7.03034e+07	27024.9
