time,surface_elevation
-5.295000000000000000e+03,-1.305427753322874196e-03
-5.235000000000109139e+03,-7.503491142415441573e-04
-5.174999999999890861e+03,-2.062277080767671578e-04
-5.115000000000000000e+03,-1.672980409239244182e-03
-5.055000000000000000e+03,-2.150523762793454807e-03
-4.995000000000109139e+03,-1.638773996091913432e-03
-4.934999999999890861e+03,-2.137647025847400073e-03
-4.875000000000000000e+03,-1.647058467824535910e-03
-4.815000000000000000e+03,-3.166923650496755727e-03
-4.755000000000109139e+03,-1.697157613307354040e-03
-4.694999999999890861e+03,-3.237675131458672695e-03
-4.635000000000000000e+03,-2.788390705973142758e-03
-4.575000000000000000e+03,-3.349218588482472114e-03
-4.514999999999890861e+03,-2.920072779488691594e-03
-4.455000000000000000e+03,-4.500867044043843634e-03
-4.395000000000000000e+03,-3.091514910920523107e-03
-4.335000000000109139e+03,-2.691929697903105989e-03
-4.274999999999890861e+03,-4.302024496610101778e-03
-4.215000000000000000e+03,-3.921712202100025024e-03
-4.155000000000000000e+03,-4.550905511678138282e-03
-4.095000000000109139e+03,-4.189516930637182668e-03
-4.034999999999890861e+03,-3.837458783891634084e-03
-3.975000000000000000e+03,-4.494643229008943308e-03
-3.915000000000000000e+03,-5.160982250345114153e-03
-3.855000000000109139e+03,-4.836387681280029938e-03
-3.794999999999890861e+03,-6.520771206851350144e-03
-3.735000000000000000e+03,-5.214044364947767463e-03
-3.675000000000000000e+03,-5.916118567256489769e-03
-3.615000000000109139e+03,-6.626905093980894890e-03
-3.554999999999890861e+03,-6.346315110931755044e-03
-3.495000000000000000e+03,-6.074259670640458353e-03
-3.435000000000000000e+03,-6.810649719227512833e-03
-3.375000000000109139e+03,-6.555396113071765285e-03
-3.314999999999890861e+03,-7.308409616598510183e-03
-3.255000000000000000e+03,-7.069600914292095695e-03
-3.195000000000000000e+03,-7.838880610506748781e-03
-3.135000000000109139e+03,-6.616159250370401423e-03
-3.074999999999890861e+03,-7.401347313134465367e-03
-3.015000000000000000e+03,-7.194355225692561362e-03
-2.955000000000000000e+03,-7.995093370482209139e-03
-2.895000000000109139e+03,-8.803472088402486406e-03
-2.835000000000000000e+03,-7.619401689225924201e-03
-2.775000000000000000e+03,-8.442792456662573386e-03
-2.715000000000109139e+03,-7.273554654602776282e-03
-2.654999999999890861e+03,-8.111598533105279785e-03
-2.595000000000000000e+03,-8.956834339187480509e-03
-2.535000000000000000e+03,-8.809172315523028374e-03
-2.475000000000109139e+03,-8.668522714287973940e-03
-2.414999999999890861e+03,-8.534795803825545590e-03
-2.355000000000000000e+03,-8.407901868849876337e-03
-2.295000000000000000e+03,-8.287751217721961439e-03
-2.235000000000109139e+03,-8.174254193363594823e-03
-2.174999999999890861e+03,-8.067321179623831995e-03
-2.115000000000000000e+03,-8.966862598754232749e-03
-2.055000000000000000e+03,-7.872788927670626435e-03
-1.995000000000109139e+03,-7.785010696352401283e-03
-1.934999999999890861e+03,-8.703438498741888907e-03
-1.875000000000000000e+03,-8.627982999314554036e-03
-1.815000000000000000e+03,-8.558554927731165662e-03
-1.755000000000109139e+03,-9.495065105511457659e-03
-1.694999999999890861e+03,-8.437424430667306297e-03
-1.635000000000000000e+03,-8.385543889744440094e-03
-1.575000000000000000e+03,-8.339334577613044530e-03
-1.515000000000109139e+03,-9.298707678681239486e-03
-1.454999999999890861e+03,-9.263574493161286227e-03
-1.395000000000000000e+03,-9.233846432834980078e-03
-1.335000000000000000e+03,-9.209435018419753760e-03
-1.275000000000109139e+03,-9.190251907966739964e-03
-1.215000000000000000e+03,-9.176208882308856118e-03
-1.155000000000000000e+03,-9.167217854155751411e-03
-1.095000000000109139e+03,-9.163190879007743206e-03
-1.034999999999890861e+03,-9.164040156065311749e-03
-9.750000000000000000e+02,-8.169678031663352158e-03
-9.150000000000000000e+02,-9.180017009384755511e-03
-8.550000000001091394e+02,-8.194969747819413897e-03
-7.949999999998908606e+02,-8.214449076149321627e-03
-7.350000000000000000e+02,-8.238367990998085588e-03
-6.750000000000000000e+02,-8.266639658359054010e-03
-6.150000000001091394e+02,-8.299177427943504881e-03
-5.549999999998908606e+02,-9.335894828836899251e-03
-4.950000000000000000e+02,-8.376705579394183587e-03
-4.350000000000000000e+02,-8.421523599281499628e-03
-3.750000000001091394e+02,-8.470262987430032808e-03
-3.149999999998908606e+02,-8.522838062162918504e-03
-2.550000000000000000e+02,-7.579163334412442055e-03
-1.950000000000000000e+02,-7.639153540367260575e-03
-1.350000000001091394e+02,-7.702723613874695729e-03
-7.499999999989086064e+01,-7.769788721816439647e-03
-1.500000000000000000e+01,-7.840264247533923481e-03
4.500000000000000000e+01,-4.914065806588041596e-03
1.049999999998908606e+02,-2.299110924195701955e-02
1.650000000001091394e+02,-8.071310637205897365e-03
2.250000000000000000e+02,2.084541368731152033e-02
2.850000000000000000e+02,4.275914716708939523e-02
3.449999999998908606e+02,7.669972987059736624e-03
4.050000000000000000e+02,-1.184220259219728177e-01
4.650000000000000000e+02,3.148323312143475050e-02
5.249999999998908606e+02,-1.261416746729082661e-02
5.850000000001091394e+02,-4.371414553133945446e-02
6.450000000000000000e+02,6.618338081170804799e-02
7.050000000000000000e+02,-2.892150681782368338e-02
7.649999999998908606e+02,-8.402872708393260837e-02
8.250000000001091394e+02,3.486180107574909925e-02
8.850000000000000000e+02,2.475015844174777158e-02
9.450000000000000000e+02,-3.736357449361094041e-02
1.004999999999890861e+03,2.552068247405259172e-02
1.065000000000109139e+03,-3.559699073957744986e-02
1.125000000000000000e+03,-7.671651452437799890e-02
1.185000000000000000e+03,1.162190439572441392e-03
1.244999999999890861e+03,5.303920316328003537e-02
1.305000000000109139e+03,-7.408539764674060280e-02
1.365000000000000000e+03,2.578846640790288802e-02
1.425000000000000000e+03,1.046608734131950769e-01
1.484999999999890861e+03,-9.946809886241680942e-02
1.545000000000109139e+03,-1.859837297070043860e-02
1.605000000000000000e+03,3.927012821623065975e-02
1.665000000000000000e+03,-8.625184946140507236e-04
1.724999999999890861e+03,-5.799623663278907770e-02
1.785000000000109139e+03,2.486904994293581694e-02
1.845000000000000000e+03,-6.326658295347442618e-02
1.905000000000000000e+03,9.559694014842534671e-02
1.964999999999890861e+03,-1.045403056177747203e-01
2.025000000000109139e+03,4.332175453691888833e-02
2.085000000000000000e+03,-1.781680494605097920e-02
2.145000000000000000e+03,-1.995590996921237092e-02
2.205000000000109139e+03,-2.809548678396822652e-02
2.265000000000000000e+03,-2.123546200255077565e-02
2.325000000000000000e+03,1.624237410396744963e-03
2.384999999999890861e+03,3.483684130515030120e-03
2.445000000000109139e+03,-1.165704952290980145e-02
2.505000000000000000e+03,2.021083946601720527e-04
2.565000000000000000e+03,-2.593877052640891634e-02
2.624999999999890861e+03,1.392038492394931382e-02
2.685000000000109139e+03,1.779645595888723619e-03
2.745000000000000000e+03,-2.636091804379248060e-02
2.805000000000000000e+03,1.249876409929129295e-02
2.864999999999890861e+03,-3.864123825860588113e-02
2.925000000000109139e+03,5.219144221882743295e-03
2.985000000000000000e+03,-3.792001951023848960e-02
3.045000000000000000e+03,9.941339115357550327e-03
3.104999999999890861e+03,-2.119671172476955689e-02
3.165000000000109139e+03,-1.433410423578607151e-02
3.225000000000000000e+03,3.852922898113320116e-02
3.285000000000000000e+03,-2.660664506947796326e-02
3.344999999999890861e+03,-2.741659772254934069e-03
3.405000000000109139e+03,-8.875748921127524227e-03
3.465000000000000000e+03,6.991153303715691436e-03
3.525000000000000000e+03,-2.140887691894022282e-03
3.584999999999890861e+03,-3.627180689181841444e-02
3.645000000000109139e+03,8.598460301982413512e-03
3.705000000000000000e+03,-3.453002191326959291e-02
3.765000000000000000e+03,1.334281024992378661e-02
3.825000000000109139e+03,-1.578297982905496610e-02
3.885000000000000000e+03,4.092670810678100679e-03
3.945000000000000000e+03,-1.303017527880001580e-02
4.004999999999890861e+03,2.848544037988176569e-03
4.065000000000109139e+03,-2.627110952107614139e-02
4.125000000000000000e+03,-8.389074663682549726e-03
4.185000000000000000e+03,1.149470949621900218e-02
4.244999999999890861e+03,-8.619696592177206185e-03
4.305000000000109139e+03,4.126776710745616583e-02
4.365000000000000000e+03,3.815716019744286314e-02
4.425000000000000000e+03,8.704854185907606734e-02
4.484999999999890861e+03,2.539419708455170621e-01
4.545000000000109139e+03,3.758375054803764215e-01
4.605000000000000000e+03,5.357352036526208394e-01
4.665000000000000000e+03,7.386351228196872398e-01
4.724999999999890861e+03,7.695373200140238623e-01
4.785000000000109139e+03,7.094418518227030290e-01
4.845000000000000000e+03,5.663487744022859260e-01
4.905000000000000000e+03,3.812581434704043204e-01
4.964999999999890861e+03,2.631700143056150409e-01
5.025000000000109139e+03,2.050844417499320116e-01
5.085000000000000000e+03,1.030014801981451456e-01
5.145000000000000000e+03,-7.078816385728714522e-03
5.204999999999890861e+03,-1.981563944918889320e-01
5.265000000000109139e+03,-2.472312010477253352e-01
5.325000000000000000e+03,-2.033031834262146731e-01
5.385000000000000000e+03,-2.473722894519596593e-01
5.445000000000109139e+03,-3.484384673920430942e-01
5.505000000000000000e+03,-3.625016659580069245e-01
5.565000000000000000e+03,-2.695618343186652055e-01
5.624999999999890861e+03,-2.316189220846354146e-01
5.685000000000109139e+03,-2.986728793221118394e-01
5.745000000000000000e+03,-2.467236565453276853e-01
5.805000000000000000e+03,-1.057712047268069000e-01
5.864999999999890861e+03,-9.181547528260125546e-02
5.925000000000109139e+03,-1.828564200932305539e-01
5.985000000000000000e+03,-1.668939914834481897e-01
6.045000000000000000e+03,-1.492814224275207380e-02
6.104999999999890861e+03,-4.495882560513564385e-02
6.165000000000109139e+03,-1.379859952776314458e-01
6.225000000000000000e+03,-5.400960540737287374e-02
6.285000000000000000e+03,1.397038939012418268e-02
6.344999999999890861e+03,-1.130459659561893204e-01
6.405000000000109139e+03,-8.905862697429256514e-02
6.465000000000000000e+03,6.693245034330175258e-02
6.525000000000000000e+03,3.192730955015576910e-02
6.584999999999890861e+03,-4.907400626507296693e-02
6.645000000000109139e+03,5.892854552530479850e-02
6.705000000000000000e+03,6.793500709136424121e-02
6.765000000000000000e+03,8.945420137933979277e-03
6.824999999999890861e+03,-1.504017409115476767e-02
6.885000000000109139e+03,-1.902173481448699022e-02
6.945000000000000000e+03,-4.799922171696380246e-02
7.005000000000000000e+03,-1.897259494035097305e-02
7.065000000000109139e+03,5.818490899400785565e-05
7.125000000000000000e+03,1.509315675230027409e-02
7.185000000000000000e+03,6.713235905681358417e-02
7.244999999999890861e+03,3.517582982112799073e-02
7.305000000000109139e+03,-5.177639341764006531e-02
7.365000000000000000e+03,-1.572427359496941790e-02
7.425000000000000000e+03,-2.466777410154463723e-02
7.484999999999890861e+03,-7.060685879696393386e-02
7.545000000000109139e+03,-1.541492007163469680e-03
7.605000000000000000e+03,-5.747163852538506035e-02
7.665000000000000000e+03,-6.839726360340137035e-02
7.724999999999890861e+03,-2.631833296345575945e-02
7.785000000000109139e+03,-5.223481279153929790e-02
7.845000000000000000e+03,2.385333026359148789e-02
7.905000000000000000e+03,1.094612908218550729e-02
7.964999999999890861e+03,9.043616080816718750e-03
8.025000000000109139e+03,6.314582321465422865e-02
8.085000000000000000e+03,2.252781969218631275e-03
8.145000000000000000e+03,5.836452336734510027e-02
8.204999999999890861e+03,7.948107796710246475e-02
8.265000000000109139e+03,6.460247585800971137e-02
8.325000000000000000e+03,1.177287466716734343e-01
8.385000000000000000e+03,7.585991956784710055e-02
8.444999999999890861e+03,1.379960232461598935e-01
8.505000000000109139e+03,1.161370859426824609e-01
8.565000000000000000e+03,1.102831354246518458e-01
8.625000000000000000e+03,1.064341990031607565e-01
8.684999999999890861e+03,8.259030351837282069e-02
8.745000000000000000e+03,1.097514753519135411e-01
8.805000000000000000e+03,5.791774042154429480e-02
8.864999999999890861e+03,6.408912418282852741e-02
8.925000000000109139e+03,-2.734348372541717254e-03
8.985000000000000000e+03,2.244734728901676135e-02
9.045000000000000000e+03,3.563423523701203521e-02
9.104999999999890861e+03,-1.173660919448593631e-03
9.165000000000109139e+03,-3.097631803211697843e-02
9.225000000000000000e+03,-6.177371341254911385e-02
9.285000000000000000e+03,-7.356582483316742582e-02
9.344999999999890861e+03,-9.635263051950460067e-02
9.405000000000109139e+03,-8.813410916627617553e-02
9.465000000000000000e+03,-1.159102399169569253e-01
9.525000000000000000e+03,-1.066810023767175153e-01
9.584999999999890861e+03,-1.334463766079352354e-01
9.645000000000109139e+03,-9.820634312654874520e-02
9.705000000000000000e+03,-1.269608829097705893e-01
9.765000000000000000e+03,-1.247099773854642990e-01
9.824999999999890861e+03,-1.284536084358478547e-01
9.885000000000109139e+03,-7.519175840025127400e-02
9.945000000000000000e+03,-4.692441007409797749e-02
1.000500000000000000e+04,-9.651546693930868059e-03
1.006499999999989086e+04,-1.537315196128474781e-02
1.012500000000010914e+04,-3.208921002260467503e-02
1.018500000000000000e+04,-4.679970547476841602e-02
1.024500000000000000e+04,-7.250462336742202751e-02
1.030499999999989086e+04,-4.620394919675163692e-02
1.036500000000000000e+04,-1.889766890690225409e-02
1.042500000000000000e+04,-3.758576889413234312e-02
1.048499999999989086e+04,-4.426823599624185590e-02
1.054500000000010914e+04,-2.694505750059761340e-02
1.060500000000000000e+04,-3.061622113273188006e-02
1.066500000000000000e+04,-8.228171507562365150e-02
1.072499999999989086e+04,-7.894152794415276730e-02
1.078500000000010914e+04,-5.559564879604295129e-02
1.084500000000000000e+04,-4.424406713951611891e-02
1.090500000000000000e+04,-6.788677291660860647e-02
1.096499999999989086e+04,-4.952375650918838801e-02
1.102500000000010914e+04,-6.115500873784185387e-02
1.108500000000000000e+04,-5.378052086780371610e-02
1.114500000000000000e+04,-7.040028459232416935e-02
1.120499999999989086e+04,-6.801429204642772675e-02
1.126500000000010914e+04,-7.162253579281241400e-02
1.132500000000000000e+04,-6.922500884047622094e-02
1.138500000000000000e+04,-8.782170461745408829e-02
1.144499999999989086e+04,-8.641261699631286319e-02
1.150500000000010914e+04,-8.899774027122475673e-02
1.156500000000000000e+04,-8.957706916862662183e-02
1.162500000000000000e+04,-6.715059884481888730e-02
1.168499999999989086e+04,-6.471832488477957668e-02
1.174500000000000000e+04,-4.228024329677282367e-02
1.180500000000000000e+04,-2.083635051440069219e-02
1.186500000000000000e+04,-8.386643398807791527e-03
1.192500000000000000e+04,5.068880767794325948e-03
1.198500000000000000e+04,2.453022428289841628e-02
1.204500000000000000e+04,3.299738902114768280e-02
1.210500000000000000e+04,6.347037643718067557e-02
1.216500000000000000e+04,5.594918757287814515e-02
1.222500000000000000e+04,5.743382304353872314e-02
1.228500000000000000e+04,7.292428305572684621e-02
1.234500000000000000e+04,8.242056740527914371e-02
1.240500000000000000e+04,9.892267546183575178e-02
1.246500000000000000e+04,9.743060619348398177e-02
1.252500000000000000e+04,1.119443581546875066e-01
1.258500000000000000e+04,1.114639294928565505e-01
1.264500000000000000e+04,9.498931794132658979e-02
1.270500000000000000e+04,9.952052083281159867e-02
1.276500000000000000e+04,1.180575350908839027e-01
1.282500000000000000e+04,1.176003572372792405e-01
1.288500000000000000e+04,1.191489833890955197e-01
1.294500000000000000e+04,1.217034092624089681e-01
1.300500000000000000e+04,1.132636301763341180e-01
1.306500000000000000e+04,7.982964104758139001e-02
1.312500000000000000e+04,4.440143639931193320e-02
1.318500000000000000e+04,3.197901035491668154e-02
1.324500000000000000e+04,2.556235664542327868e-02
1.330500000000000000e+04,3.115146861182438442e-02
1.336500000000000000e+04,2.674633920196356485e-02
1.342500000000000000e+04,1.346960969385690987e-03
1.348500000000000000e+04,-2.604667391642578878e-02
1.354500000000000000e+04,-2.543457367119117407e-02
1.360500000000000000e+04,-3.981674689839564962e-02
1.366500000000000000e+04,-5.719320258504012600e-02
1.372500000000000000e+04,-4.756395010281266877e-02
1.378500000000000000e+04,-5.492899920045601903e-02
1.384500000000000000e+04,-6.628836000709270593e-02
1.390500000000000000e+04,-5.764204303159203846e-02
1.396500000000000000e+04,-4.899005915376619669e-02
1.402500000000000000e+04,-4.133241963609179948e-02
1.408500000000000000e+04,-4.566913610324263573e-02
1.414500000000000000e+04,-4.100022056263696868e-02
1.420500000000000000e+04,-4.532568538343184628e-02
1.426500000000000000e+04,-5.364554330662940629e-02
1.432500000000000000e+04,-4.695980743508698652e-02
1.438500000000000000e+04,-6.126849124302680138e-02
1.444500000000000000e+04,-7.257160856261180015e-02
1.450500000000000000e+04,-6.186917358900245745e-02
1.456500000000000000e+04,-4.216120087858143961e-02
1.462500000000000000e+04,-2.944770534122653771e-02
1.468500000000000000e+04,-2.772870225089718588e-02
1.474500000000000000e+04,-1.600420723116258159e-02
1.480500000000000000e+04,1.572576374474010663e-02
1.486500000000000000e+04,5.461194346935371868e-03
1.492500000000000000e+04,-1.479793210273783188e-02
1.498500000000000000e+04,-3.005163262969290372e-02
1.504500000000000000e+04,-5.329992460519861197e-02
1.510500000000000000e+04,-6.954282574406533968e-02
1.516500000000000000e+04,-5.378035410558368312e-02
1.522500000000000000e+04,-3.101252808392018778e-02
1.528500000000000000e+04,-2.923936641946056625e-02
1.534500000000000000e+04,-4.046088818631687900e-02
1.540500000000000000e+04,-3.867711279326613294e-02
1.546500000000000000e+04,-3.488805998040334089e-02
1.552500000000000000e+04,-1.609374982672306942e-02
1.558500000000000000e+04,-4.294202730307006277e-03
1.564500000000000000e+04,1.551056057360256091e-02
1.570500000000000000e+04,3.432051903018873418e-02
1.576500000000000000e+04,4.513565125398599776e-02
1.582500000000000000e+04,5.895593554760125699e-02
1.588500000000000000e+04,5.878134988688543672e-02
1.594500000000000000e+04,4.961187192293436965e-02
1.600500000000000000e+04,4.144747900227230275e-02
1.606500000000000000e+04,3.828814815460646059e-02
1.612500000000000000e+04,5.213385608840326313e-02
1.618500000000000000e+04,6.798457921104272828e-02
1.624500000000000000e+04,5.584029361671127845e-02
1.630500000000000000e+04,5.470097509351035114e-02
1.636500000000000000e+04,3.656659912485338282e-02
1.642500000000000000e+04,1.843714089409331791e-02
1.648500000000000000e+04,9.312575279182055965e-03
1.654500000000000000e+04,9.192876857923693024e-03
1.660500000000000000e+04,-5.921980078710475937e-03
1.666500000000000000e+04,-2.003202154901373433e-02
1.672500000000000000e+04,-3.313727385102538392e-02
1.678500000000000000e+04,-4.223776358139730291e-02
1.684500000000000000e+04,-3.333351762194070034e-02
1.690500000000000000e+04,-2.142456314322771505e-02
1.696500000000000000e+04,-2.751092759990569903e-02
1.702500000000000000e+04,-2.759263873213058105e-02
1.708500000000000000e+04,-2.566972455042559886e-02
1.714500000000000000e+04,-3.974221335738548078e-02
1.720500000000000000e+04,-3.481013372220331803e-02
1.726500000000000000e+04,-3.387351449691777816e-02
1.732500000000000000e+04,-3.993238479597494006e-02
1.738500000000000000e+04,-4.698677401120221475e-02
1.744500000000000000e+04,-5.303671180081437342e-02
1.750500000000000000e+04,-5.408222808637219714e-02
1.756500000000000000e+04,-7.012335305807937402e-02
1.762500000000000000e+04,-6.416011716555658495e-02
1.768500000000000000e+04,-3.719255111263919389e-02
1.774500000000000000e+04,-1.822068587171088438e-02
1.780500000000000000e+04,-2.445526615701965056e-04
1.786500000000000000e+04,1.973581704351090593e-02
1.792500000000000000e+04,2.172039151719218353e-02
1.798500000000000000e+04,3.470913878481951542e-02
1.804500000000000000e+04,5.970202662501833402e-02
1.810500000000000000e+04,6.669902257362991804e-02
1.816500000000000000e+04,7.770009392152132932e-02
1.822500000000000000e+04,9.070520772002055310e-02
1.828500000000000000e+04,1.027143307846927200e-01
1.834500000000000000e+04,1.067274296947289258e-01
1.840500000000000000e+04,1.087444707945905975e-01
1.846500000000000000e+04,8.276542019848420750e-02
1.852500000000000000e+04,7.679024378921894822e-02
1.858500000000000000e+04,6.581890722918615211e-02
1.864500000000000000e+04,5.385137595021660673e-02
1.870500000000000000e+04,6.488761516447993927e-02
1.876500000000000000e+04,6.892758986214175820e-02
1.882500000000000000e+04,3.897126481660961872e-02
1.888500000000000000e+04,2.201860459172166884e-02
1.894500000000000000e+04,5.069573526270687580e-03
1.900500000000000000e+04,-1.187586424202891067e-02
1.906500000000000000e+04,-1.181774478754960001e-02
1.912500000000000000e+04,-1.575610439158481313e-02
1.918500000000000000e+04,-1.269097953900200082e-02
1.924500000000000000e+04,-3.622406914473685902e-03
1.930500000000000000e+04,-5.550423405111359898e-03
1.936500000000000000e+04,-1.847506609465199290e-02
1.942500000000000000e+04,-4.339637225530168507e-02
1.948500000000000000e+04,-4.431437936091242591e-02
1.954500000000000000e+04,-2.522912507447472308e-02
1.960500000000000000e+04,-3.314064723690535175e-02
1.966500000000000000e+04,-4.904898388758738292e-02
1.972500000000000000e+04,-2.795417323704896262e-02
1.978500000000000000e+04,-8.856253686644777190e-03
1.984500000000000000e+04,2.447361903250566684e-04
1.990500000000000000e+04,9.348757641419069842e-03
1.996500000000000000e+04,7.455771745298989117e-03
2.002500000000000000e+04,-8.434260598733089864e-03
2.008500000000000000e+04,-2.332137865323602455e-02
2.014500000000000000e+04,-3.020562184883601731e-02
2.020500000000000000e+04,-2.508702978411747608e-02
2.026500000000000000e+04,-1.296564221047447063e-02
2.032500000000000000e+04,-7.841499052119615953e-03
2.038500000000000000e+04,1.928535962451860541e-02
2.044500000000000000e+04,5.041489358791295672e-02
2.050500000000000000e+04,4.954706246280693449e-02
2.056500000000000000e+04,3.568182571416400606e-02
2.062500000000000000e+04,2.581914266920648515e-02
2.068500000000000000e+04,2.958972505439305678e-03
2.074500000000000000e+04,5.101274260596255772e-03
2.080500000000000000e+04,4.424600682978052646e-02
2.086500000000000000e+04,7.639312897299532779e-02
2.092500000000000000e+04,7.754259931425622199e-02
2.098500000000000000e+04,5.769437634626228828e-02
2.104500000000000000e+04,5.384841842987952987e-02
2.110500000000000000e+04,5.200468379553058185e-02
2.116500000000000000e+04,3.316313056075159693e-02
2.122500000000000000e+04,2.632371670460997848e-02
2.128500000000000000e+04,1.748640009736845968e-02
2.134500000000000000e+04,-3.488615157039021142e-04
2.140500000000000000e+04,-6.182110498230031226e-03
2.146500000000000000e+04,-1.013389332911174279e-03
2.152500000000000000e+04,2.515725939338153694e-02
2.158500000000000000e+04,3.432979298031568760e-02
2.164500000000000000e+04,1.650416862685233355e-02
2.170500000000000000e+04,1.168034342936152825e-02
2.176500000000000000e+04,3.285827437866828404e-02
2.182500000000000000e+04,4.603791837416792987e-02
2.188500000000000000e+04,3.321923221756151179e-02
2.194500000000000000e+04,-3.597827384510310367e-03
2.200500000000000000e+04,-1.041330381031002617e-02
2.206500000000000000e+04,1.077275946772715542e-02
2.212500000000000000e+04,1.696031889878213406e-02
2.218500000000000000e+04,1.014933084479707759e-02
2.224500000000000000e+04,4.339751590123341884e-03
2.230500000000000000e+04,-1.746846266087231925e-02
2.236500000000000000e+04,-3.327535577591334004e-02
2.242500000000000000e+04,-5.508097169786196901e-02
2.248500000000000000e+04,-8.088535443312139250e-02
2.254500000000000000e+04,-5.968854806542367442e-02
2.260500000000000000e+04,-9.490596735304279719e-03
2.266500000000000000e+04,3.070845535148691852e-02
2.272500000000000000e+04,1.990856393058493268e-02
2.278500000000000000e+04,1.109684678340272512e-03
2.284500000000000000e+04,-8.688226779668184463e-03
2.290500000000000000e+04,-2.248521487126708962e-02
2.296500000000000000e+04,-1.428132407545490423e-02
2.302500000000000000e+04,2.092340108356438577e-02
2.308500000000000000e+04,1.312891603629395831e-02
2.314500000000000000e+04,-7.664823822778998874e-03
2.320500000000000000e+04,-9.457863146963063627e-03
2.326500000000000000e+04,-1.025024661885254318e-02
2.332500000000000000e+04,-1.104201896032463992e-02
2.338500000000000000e+04,-1.983322491923900088e-02
2.344500000000000000e+04,-2.623909274916513823e-03
2.350500000000000000e+04,3.258588316657551331e-02
2.356500000000000000e+04,7.679610757713817293e-02
2.362500000000000000e+04,1.080067191078342148e-01
2.368500000000000000e+04,8.221767289160197834e-02
2.374500000000000000e+04,4.442892404495069059e-02
2.380500000000000000e+04,3.464042767336650286e-02
2.386500000000000000e+04,3.085213886606652522e-02
2.392500000000000000e+04,3.106401271634240402e-02
2.398500000000000000e+04,1.327600429885933409e-02
2.404500000000000000e+04,-8.511931307111808565e-03
2.410500000000000000e+04,-3.299839020655781496e-03
2.416500000000000000e+04,-3.087763763687689789e-03
2.422500000000000000e+04,-1.687575044707045890e-02
2.428500000000000000e+04,-2.663843979462399147e-03
2.434500000000000000e+04,-2.452089253893063869e-03
2.440500000000000000e+04,-2.324053115262358915e-02
2.446500000000000000e+04,-2.802921454167517368e-02
2.452500000000000000e+04,-2.818184272655344103e-03
2.458500000000000000e+04,3.139251483662519604e-02
2.464500000000000000e+04,-1.397162024659337476e-03
2.470500000000000000e+04,-5.318725963024917291e-02
2.476500000000000000e+04,-4.697782272614858812e-02
2.482500000000000000e+04,1.231103971804259345e-03
2.488500000000000000e+04,4.143947577813378302e-02
2.494500000000000000e+04,2.764724805365403881e-02
2.500500000000000000e+04,-1.214562381119321799e-02
2.506500000000000000e+04,-9.939184378708887380e-03
2.512500000000000000e+04,1.826652183717669686e-02
2.518500000000000000e+04,1.747145036097208504e-02
2.524500000000000000e+04,-1.232444322340597864e-02
2.530500000000000000e+04,-2.512120328628952848e-02
2.536500000000000000e+04,-4.691887414264783729e-02
2.542500000000000000e+04,-8.071750004182831617e-02
2.548500000000000000e+04,-8.651712517894338816e-02
2.554500000000000000e+04,-7.331779368450952461e-02
2.560500000000000000e+04,-6.311954962529853219e-02
2.566500000000000000e+04,-5.592243699265964096e-02
2.572500000000000000e+04,-4.272649971426289994e-02
2.578500000000000000e+04,-3.053178163736447459e-02
2.584500000000000000e+04,-4.533832653942226898e-02
2.590500000000000000e+04,-5.514617811331845587e-02
2.596500000000000000e+04,-4.795537997233623173e-02
2.602500000000000000e+04,-6.765975645976141095e-03
2.608500000000000000e+04,4.942199142806202872e-02
2.614500000000000000e+04,5.460847789618128445e-02
2.620500000000000000e+04,2.179344049727660604e-02
2.626500000000000000e+04,2.897683607079670765e-02
2.632500000000000000e+04,6.615862155013019219e-02
2.638500000000000000e+04,5.333875396536313929e-02
2.644500000000000000e+04,4.251719045987556456e-02
2.650500000000000000e+04,5.769388827138755005e-02
2.656500000000000000e+04,2.486880475407815538e-02
2.662500000000000000e+04,1.041897367940691765e-03
2.668500000000000000e+04,4.021312369150109589e-02
2.674500000000000000e+04,6.038244141291215783e-02
2.680500000000000000e+04,3.554980834542220691e-02
2.686500000000000000e+04,1.271518241901503643e-02
2.692500000000000000e+04,-6.121478305431082845e-03
2.698500000000000000e+04,9.039784348715329543e-03
2.704500000000000000e+04,1.219892869994509965e-02
2.710500000000000000e+04,-1.264408681163331494e-02
2.716500000000000000e+04,-1.048930360411759466e-02
2.722500000000000000e+04,4.663237036766076926e-03
2.728500000000000000e+04,9.813493967158137821e-03
2.734500000000000000e+04,9.961426190784550272e-03
2.740500000000000000e+04,1.410699284406291554e-02
2.746500000000000000e+04,1.025015322647959692e-02
2.752500000000000000e+04,9.390866775902395602e-03
2.758500000000000000e+04,3.529093087308865506e-03
2.764500000000000000e+04,-1.133520808889443288e-02
2.770500000000000000e+04,-3.220207683898479445e-02
2.776500000000000000e+04,-5.907155309705558466e-02
2.782500000000000000e+04,-7.094367662739387015e-02
2.788500000000000000e+04,-4.781848703260038747e-02
2.794500000000000000e+04,-2.069602374285750557e-02
2.800500000000000000e+04,-4.576326019559928682e-03
2.806500000000000000e+04,1.540567052870756015e-03
2.812500000000000000e+04,-1.234538343760505086e-02
2.818500000000000000e+04,-1.023421622267051134e-02
2.824500000000000000e+04,1.387403015269228490e-02
2.830500000000000000e+04,-1.020682680973550305e-03
2.836500000000000000e+04,-3.918392898413003422e-03
2.842500000000000000e+04,2.918086151021270780e-02
2.848500000000000000e+04,-3.722957252648484427e-03
2.854500000000000000e+04,-5.362988678734836867e-02
2.860500000000000000e+04,-4.053996449965779902e-02
2.866500000000000000e+04,-4.945322759522241540e-02
2.872500000000000000e+04,-9.236971307382191299e-02
2.878500000000000000e+04,-1.002894577368351747e-01
2.884500000000000000e+04,-1.082124981712695444e-01
2.890500000000000000e+04,-1.231388707601581700e-01
2.896500000000000000e+04,-1.000686116722135921e-01
2.902500000000000000e+04,-7.300175685668364167e-02
2.908500000000000000e+04,-9.293834205163875595e-02
2.914500000000000000e+04,-8.787840277182112914e-02
2.920500000000000000e+04,-4.882197430561063811e-02
2.926500000000000000e+04,-2.376909172380692326e-02
2.932500000000000000e+04,5.280210134515073150e-03
2.938500000000000000e+04,5.325896662725426722e-03
2.944500000000000000e+04,-4.632066518752253614e-03
2.950500000000000000e+04,3.240628645471588243e-02
2.956500000000000000e+04,6.544092167587223230e-02
2.962500000000000000e+04,8.547180548612232087e-02
2.968500000000000000e+04,9.249890445880737389e-02
2.974500000000000000e+04,8.052218542616174091e-02
2.980500000000000000e+04,6.854161545925308019e-02
2.986500000000000000e+04,5.855716188398218947e-02
2.992500000000000000e+04,6.456879227607714711e-02
2.998500000000000000e+04,6.257647446727787610e-02
3.004500000000000000e+04,1.958017654760624282e-02
3.010500000000000000e+04,2.257986686436197488e-02
3.016500000000000000e+04,4.257551403406978352e-02
3.022500000000000000e+04,9.567086932293022983e-03
3.028500000000000000e+04,4.554554707283386961e-03
3.034500000000000000e+04,2.853788677202828694e-02
3.040500000000000000e+04,1.151705281336035114e-02
3.046500000000000000e+04,-1.050797720199625473e-02
3.052500000000000000e+04,-1.653723303934384603e-02
3.058500000000000000e+04,-5.707441750928410329e-04
3.064500000000000000e+04,2.339146019221516326e-02
3.070500000000000000e+04,2.434935114706604509e-02
3.076500000000000000e+04,1.830290006637369515e-02
3.082500000000000000e+04,6.252078605939459521e-03
3.088500000000000000e+04,-2.803141270305786747e-03
3.094500000000000000e+04,-6.862787321551877540e-03
3.100500000000000000e+04,-3.926887001398426946e-03
3.106500000000000000e+04,7.004532537393970415e-03
3.112500000000000000e+04,2.931444438218022697e-03
3.118500000000000000e+04,-3.014617785629525315e-02
3.124500000000000000e+04,-5.222836058419488836e-02
3.130500000000000000e+04,-5.531512968809693120e-02
3.136500000000000000e+04,-6.140651079203962581e-02
3.142500000000000000e+04,-3.450252921174978837e-02
3.148500000000000000e+04,-1.360320994626817992e-02
3.154500000000000000e+04,-2.570857767659617821e-02
3.160500000000000000e+04,-2.381865676579764113e-02
3.166500000000000000e+04,-1.293347125556465471e-02
3.172500000000000000e+04,1.894695514238264877e-02
3.178500000000000000e+04,4.582259903509111609e-02
3.184500000000000000e+04,3.769343736439623171e-02
3.190500000000000000e+04,5.255944740110862767e-02
3.196500000000000000e+04,6.142060674665117403e-02
3.202500000000000000e+04,3.027689334339811467e-02
3.208500000000000000e+04,1.512828546583477873e-02
3.214500000000000000e+04,4.974761734956700820e-03
3.220500000000000000e+04,-1.183698896056739613e-03
3.226500000000000000e+04,-3.347117118210007902e-03
3.232500000000000000e+04,2.484486719367851038e-03
3.238500000000000000e+04,1.231109261243545916e-02
3.244500000000000000e+04,-5.867319091521494556e-03
3.250500000000000000e+04,-3.005076768386061303e-02
3.256500000000000000e+04,-3.723927211012778571e-02
3.262500000000000000e+04,-5.143285095255123451e-02
3.268500000000000000e+04,-2.063152243863441981e-02
3.274500000000000000e+04,1.416469556897936855e-02
3.280500000000000000e+04,3.955785568905412219e-03
3.286500000000000000e+04,1.274173042929760413e-02
3.292500000000000000e+04,6.522513381241878960e-03
3.298500000000000000e+04,-1.070188196808885550e-02
3.304500000000000000e+04,-2.931471645752026234e-03
3.310500000000000000e+04,-1.916627130322012817e-02
3.316500000000000000e+04,-1.040629621275002137e-02
3.322500000000000000e+04,1.234843872680357890e-02
3.328500000000000000e+04,-4.902080999272584449e-03
3.334500000000000000e+04,-1.815786952283815481e-02
3.340500000000000000e+04,-1.741894059796322836e-02
3.346500000000000000e+04,4.314692411753640044e-03
3.352500000000000000e+04,1.604301653151196660e-02
3.358500000000000000e+04,7.660191768081858754e-04
3.364500000000000000e+04,9.483688151703972835e-03
3.370500000000000000e+04,2.119601165486528771e-02
3.376500000000000000e+04,4.590297828417533310e-02
3.382500000000000000e+04,4.960457703236897942e-02
3.388500000000000000e+04,4.330079728970304132e-02
3.394500000000000000e+04,4.999162885269470280e-02
3.400500000000000000e+04,1.067706191861361731e-02
3.406500000000000000e+04,-2.642912911142047960e-03
3.412500000000000000e+04,4.031695375488197897e-03
3.418500000000000000e+04,-3.299121805866889190e-03
3.424500000000000000e+04,-1.463537262497993652e-02
3.430500000000000000e+04,-3.097706483822548762e-02
3.436500000000000000e+04,-1.032420579394965898e-02
3.442500000000000000e+04,1.632319758118683239e-02
3.448500000000000000e+04,2.996513877587858588e-02
3.454500000000000000e+04,3.760161169975617668e-02
3.460500000000000000e+04,3.623261068423744291e-02
3.466500000000000000e+04,3.185813048185082152e-02
3.472500000000000000e+04,1.547816626498388359e-02
3.478500000000000000e+04,7.092713643032766413e-03
3.484500000000000000e+04,2.370176864587847376e-02
3.490500000000000000e+04,1.830532773328741314e-02
3.496500000000000000e+04,1.390338779765443178e-02
3.502500000000000000e+04,-2.504053835764352698e-03
3.508500000000000000e+04,-3.916999403372756205e-03
3.514500000000000000e+04,1.566454928342864150e-02
3.520500000000000000e+04,-1.375940913840167923e-02
3.526500000000000000e+04,-2.618887560038274387e-02
3.532500000000000000e+04,-3.362385058335348731e-02
3.538500000000000000e+04,-4.906433413998456672e-02
3.544500000000000000e+04,-6.851032586746441666e-02
3.550500000000000000e+04,-8.096182492408843245e-02
3.556500000000000000e+04,-6.741883001723181223e-02
3.562500000000000000e+04,-7.988133941034902819e-02
3.568500000000000000e+04,-9.334935091737861512e-02
3.574500000000000000e+04,-1.198228619005021756e-01
3.580500000000000000e+04,-1.193018692656551138e-01
3.586500000000000000e+04,-9.778636947157792747e-02
3.592500000000000000e+04,-9.427635851716331672e-02
3.598500000000000000e+04,-6.477183194783719955e-02
3.604500000000000000e+04,-2.827278485165152233e-02
3.610500000000000000e+04,7.220788144877587911e-03
3.616500000000000000e+04,2.070889287278987467e-02
3.622500000000000000e+04,4.419153562776045874e-02
3.628500000000000000e+04,6.266872316427907208e-02
3.634500000000000000e+04,5.514046270309336251e-02
3.640500000000000000e+04,4.560676192886603530e-02
3.646500000000000000e+04,2.406762899590830784e-02
3.652500000000000000e+04,-4.769274792124633677e-04
3.658500000000000000e+04,-2.402689840982930036e-02
3.664500000000000000e+04,-3.958227423390781041e-02
3.670500000000000000e+04,-3.314304492596420459e-02
3.676500000000000000e+04,-2.870919998986209976e-02
3.682500000000000000e+04,-3.128072844629059546e-02
3.688500000000000000e+04,-3.485761884894600371e-02
3.694500000000000000e+04,5.560140720263007097e-03
3.700500000000000000e+04,1.597256266268232139e-02
3.706500000000000000e+04,1.379659851409087423e-03
3.712500000000000000e+04,-8.218554357881657779e-03
3.718500000000000000e+04,4.177933863502403256e-03
3.724500000000000000e+04,2.356913882795197424e-02
3.730500000000000000e+04,1.395507532743067713e-02
3.736500000000000000e+04,3.333575863871374168e-02
3.742500000000000000e+04,5.071120451248134486e-02
3.748500000000000000e+04,4.608142919005331350e-02
3.754500000000000000e+04,3.444644939281715779e-02
3.760500000000000000e+04,3.180628233167226426e-02
3.766500000000000000e+04,5.716094569470442366e-02
3.772500000000000000e+04,4.351045766361494316e-02
3.778500000000000000e+04,2.185483690573164495e-02
3.784500000000000000e+04,1.919410257141862530e-02
3.790500000000000000e+04,3.252827430424076738e-02
3.796500000000000000e+04,5.285737223039177479e-02
3.802500000000000000e+04,5.618141697232204024e-02
3.808500000000000000e+04,5.250042963962187059e-02
3.814500000000000000e+04,3.481443182863586117e-02
3.820500000000000000e+04,1.112344563352962723e-02
3.826500000000000000e+04,-4.572506364638684317e-03
3.832500000000000000e+04,-8.273401092992571648e-03
3.838500000000000000e+04,-2.979214985316502862e-03
3.844500000000000000e+04,3.100760168308624998e-04
3.850500000000000000e+04,1.459449646790744737e-02
3.856500000000000000e+04,7.874071408878080547e-03
3.862500000000000000e+04,-4.851173616771120578e-03
3.868500000000000000e+04,-1.158121257958555361e-02
3.874500000000000000e+04,-2.331601894820778398e-02
3.880500000000000000e+04,-4.805556570318003651e-02
3.886500000000000000e+04,-5.479982532415306196e-02
3.892500000000000000e+04,-3.254876980372500839e-02
3.898500000000000000e+04,-2.330237063506501727e-02
3.904500000000000000e+04,-2.906059881297551328e-02
3.910500000000000000e+04,-5.682342483942193212e-02
3.916500000000000000e+04,-6.459081872162641957e-02
3.922500000000000000e+04,-3.436274997238797368e-02
3.928500000000000000e+04,-2.013918760803790065e-02
3.934500000000000000e+04,-1.092010014599509304e-02
3.940500000000000000e+04,-3.705455614181119017e-03
3.946500000000000000e+04,-1.495221541517821606e-03
3.952500000000000000e+04,-6.289364961958199274e-03
3.958500000000000000e+04,-2.208785241418809164e-02
3.964500000000000000e+04,-1.689064994388900232e-02
3.970500000000000000e+04,-3.697723099321592599e-03
3.976500000000000000e+04,-6.509036940769874491e-03
3.982500000000000000e+04,-3.232455602119443938e-02
3.988500000000000000e+04,-5.314424441348819528e-02
3.994500000000000000e+04,-4.396806569002364995e-02
4.000500000000000000e+04,-4.979598293357412331e-02
4.006500000000000000e+04,-3.662795872787683038e-02
4.012500000000000000e+04,-1.546395517016208032e-02
4.018500000000000000e+04,-9.303933864430291578e-03
4.024500000000000000e+04,-8.147855922288727015e-03
4.030500000000000000e+04,4.318035280448384583e-06
4.036500000000000000e+04,1.015262787586834747e-02
4.042500000000000000e+04,1.529711395869526314e-02
4.048500000000000000e+04,2.743781713252246846e-02
4.054500000000000000e+04,3.957477873245807132e-02
4.060500000000000000e+04,3.670804058310750406e-02
4.066500000000000000e+04,3.483764499105745926e-02
4.072500000000000000e+04,5.796363475838006707e-02
4.078500000000000000e+04,8.108605316192551982e-02
4.084500000000000000e+04,8.020494397260335973e-02
4.090500000000000000e+04,8.132035143626126228e-02
4.096500000000000000e+04,6.843232028950296808e-02
4.102500000000000000e+04,4.254089574260433437e-02
4.108500000000000000e+04,5.564612349189701490e-02
4.114500000000000000e+04,6.174804971124103758e-02
4.120500000000000000e+04,5.584672105487697991e-02
4.126500000000000000e+04,4.594218464899313403e-02
4.132500000000000000e+04,3.303448810493136989e-02
4.138500000000000000e+04,1.612367950201587519e-02
4.144500000000000000e+04,8.209807396269752644e-03
4.150500000000000000e+04,1.529292081249877810e-02
4.156500000000000000e+04,3.037306925125449197e-02
4.162500000000000000e+04,4.745030268350092229e-02
4.168500000000000000e+04,3.552467154804617167e-02
4.174500000000000000e+04,2.459622674450656632e-02
4.180500000000000000e+04,1.166501964326016605e-02
4.186500000000000000e+04,1.073110208199068438e-02
4.192500000000000000e+04,2.779452635058987653e-02
4.198500000000000000e+04,3.085534521505906014e-02
4.204500000000000000e+04,2.291361188599694287e-02
4.210500000000000000e+04,2.896938003868854139e-02
4.216500000000000000e+04,5.002270380464324262e-02
4.222500000000000000e+04,6.607363776402053190e-02
4.228500000000000000e+04,3.912223695533612045e-02
4.234500000000000000e+04,2.816855686705821427e-02
4.240500000000000000e+04,4.621265343030245276e-02
4.246500000000000000e+04,3.925458302910556085e-02
4.252500000000000000e+04,1.129440248860191787e-02
4.258500000000000000e+04,-2.566783092424884671e-02
4.264500000000000000e+04,-2.963205949890834745e-02
4.270500000000000000e+04,-3.459822508557408582e-02
4.276500000000000000e+04,-4.656626910673367092e-02
4.282500000000000000e+04,-4.453613254372612573e-02
4.288500000000000000e+04,-3.750775594289734727e-02
4.294500000000000000e+04,-2.548107943403010722e-02
4.300500000000000000e+04,-7.456042704689025413e-03
4.306500000000000000e+04,-1.043258503341348842e-02
4.312500000000000000e+04,-1.841064525979163591e-02
4.318500000000000000e+04,-1.139016182060004212e-02
4.324500000000000000e+04,-3.337107272182038287e-02
4.330500000000000000e+04,-3.435331556465825997e-02
4.336500000000000000e+04,9.663172467298863921e-03
4.342500000000000000e+04,3.767845459697127808e-02
4.348500000000000000e+04,2.069259445306670386e-02
4.354500000000000000e+04,2.705656069338147063e-03
4.360500000000000000e+04,1.717703881695342716e-03
4.366500000000000000e+04,-2.711972811084706336e-04
4.372500000000000000e+04,-1.226098219103732845e-02
4.378500000000000000e+04,-2.225158523015124956e-02
4.384500000000000000e+04,-1.724294039195228834e-02
4.390500000000000000e+04,-1.623498128265055129e-02
4.396500000000000000e+04,-2.922764112463482888e-02
4.402500000000000000e+04,-3.322085276704456192e-02
4.408500000000000000e+04,-2.921454868010187056e-02
4.414500000000000000e+04,-1.920866095588280587e-02
4.420500000000000000e+04,-5.203121325394022278e-03
4.426500000000000000e+04,3.802138850005576387e-03
4.432500000000000000e+04,-1.519281142554973485e-02
4.438500000000000000e+04,-2.418790279261884280e-02
4.444500000000000000e+04,-9.183065536490175873e-03
4.450500000000000000e+04,-7.178229594501317479e-03
4.456500000000000000e+04,-1.117332454577990575e-02
4.462500000000000000e+04,-1.716827963264222490e-02
4.468500000000000000e+04,-3.816302375616942300e-02
4.474500000000000000e+04,-4.215748548176634358e-02
4.480500000000000000e+04,-2.015159303664404433e-02
4.486500000000000000e+04,-1.514527432846080046e-02
4.492500000000000000e+04,-2.713845692960603628e-02
4.498500000000000000e+04,-3.613106810007593594e-02
4.504500000000000000e+04,-3.812303478480316699e-02
4.510500000000000000e+04,-3.211428361009893706e-02
4.516500000000000000e+04,-2.910474089458148228e-02
4.522500000000000000e+04,-2.209433265852567274e-02
4.528500000000000000e+04,-1.908298462149105035e-02
4.534500000000000000e+04,-2.507062220684019849e-02
4.540500000000000000e+04,-1.805717054776323494e-02
4.546500000000000000e+04,3.957445506785006728e-03
4.552500000000000000e+04,3.973301390033157077e-03
4.558500000000000000e+04,9.904728049150435254e-04
4.564500000000000000e+04,1.000903574004041729e-02
4.570500000000000000e+04,1.602906643438473111e-02
4.576500000000000000e+04,6.050641401088796556e-03
4.582500000000000000e+04,9.073837401956552640e-03
4.588500000000000000e+04,2.909873145563324215e-02
4.594500000000000000e+04,2.312540082402847474e-02
4.600500000000000000e+04,-1.846076987021660898e-03
4.606500000000000000e+04,-1.181562423789728200e-02
4.612500000000000000e+04,-2.783162955893203616e-03
4.618500000000000000e+04,2.513850540708517656e-04
4.624500000000000000e+04,-2.571190178787219338e-02
4.630500000000000000e+04,-2.467294485086313216e-02
4.636500000000000000e+04,-2.631665294757112861e-03
4.642500000000000000e+04,-9.587984071004029829e-03
4.648500000000000000e+04,-2.154182193680753699e-02
4.654500000000000000e+04,-1.449309946292487439e-02
4.660500000000000000e+04,-1.441737023924360983e-03
4.666500000000000000e+04,-2.387654819358431268e-03
4.672500000000000000e+04,-1.533077287149353651e-02
4.678500000000000000e+04,1.072898896109109046e-02
4.684500000000000000e+04,2.879171098538790829e-02
4.690500000000000000e+04,2.485747366335999686e-02
4.696500000000000000e+04,5.926357612224819604e-03
4.702500000000000000e+04,-4.001556419098051265e-03
4.708500000000000000e+04,4.073812468959658872e-03
4.714500000000000000e+04,8.152545296070456970e-03
4.720500000000000000e+04,-1.765276789228664711e-03
4.726500000000000000e+04,-1.767957252104679355e-02
4.732500000000000000e+04,-1.590260521879827138e-03
4.738500000000000000e+04,7.502740686504694168e-03
4.744500000000000000e+04,4.599512682034401223e-03
4.750500000000000000e+04,1.370013713221851503e-02
4.756500000000000000e+04,5.804695791084668599e-03
4.762500000000000000e+04,1.791327048249513609e-02
4.768500000000000000e+04,2.502594310772110475e-02
4.774500000000000000e+04,6.142795621599361766e-03
4.780500000000000000e+04,6.263910037887399085e-03
4.786500000000000000e+04,2.389368418334925082e-03
4.792500000000000000e+04,-4.480747135858109687e-03
4.798500000000000000e+04,7.653645504433370661e-03
4.804500000000000000e+04,-9.207371497723215725e-03
4.810500000000000000e+04,-2.806371597307588672e-02
4.816500000000000000e+04,-3.491530573683121474e-02
4.822500000000000000e+04,-3.176205860199843301e-02
4.828500000000000000e+04,3.961076063205837272e-04
4.834500000000000000e+04,2.455927505616273265e-02
4.840500000000000000e+04,4.172752588783623651e-02
4.846500000000000000e+04,4.790094221243634820e-02
4.852500000000000000e+04,1.707960609837755328e-02
4.858500000000000000e+04,1.926359957178647164e-02
4.864500000000000000e+04,3.745300459922873415e-02
4.870500000000000000e+04,3.264790308639931027e-02
4.876500000000000000e+04,2.384837686349783326e-02
4.882500000000000000e+04,1.505450767945148982e-02
4.888500000000000000e+04,4.266377191925130319e-03
4.894500000000000000e+04,1.484066963712393772e-03
4.900500000000000000e+04,4.707658441475359723e-03
4.906500000000000000e+04,7.937232962831330951e-03
4.912500000000000000e+04,2.417287173466320382e-02
4.918500000000000000e+04,3.541465583020908525e-02
4.924500000000000000e+04,3.166266617427027086e-02
4.930500000000000000e+04,3.091698354091931833e-02
4.936500000000000000e+04,1.517768854228052078e-02
4.942500000000000000e+04,-1.055513838855404174e-02
4.948500000000000000e+04,1.718583001093065832e-03
4.954500000000000000e+04,2.599893277601950103e-02
4.960500000000000000e+04,6.285990790274809115e-03
4.966500000000000000e+04,-4.420163309987401590e-03
4.972500000000000000e+04,5.880549901121412404e-03
4.978500000000000000e+04,-6.811790389292582404e-03
4.984500000000000000e+04,-4.971052285327459686e-04
4.990500000000000000e+04,-2.175315926251641940e-03
4.996500000000000000e+04,-2.584634404956887010e-02
5.002500000000000000e+04,-3.151011143927462399e-02
5.008500000000000000e+04,-2.916654022374132182e-02
5.014500000000000000e+04,-3.281555282683257246e-02
5.020500000000000000e+04,-2.445707197421143064e-02
5.026500000000000000e+04,-3.009102071064262418e-02
5.032500000000000000e+04,-4.971732241301651811e-02
5.038500000000000000e+04,-3.233590079253190197e-02
5.044500000000000000e+04,-2.594667990615562303e-02
5.050500000000000000e+04,-1.254958418303431245e-02
5.056500000000000000e+04,2.085546158286888385e-02
5.062500000000000000e+04,3.726853220814518863e-02
5.068500000000000000e+04,3.168970212027488742e-02
5.074500000000000000e+04,3.011904533559572883e-02
5.080500000000000000e+04,2.555663544899289263e-02
5.086500000000000000e+04,2.000254562335612718e-02
5.092500000000000000e+04,1.945684858674212592e-02
5.098500000000000000e+04,1.091961660131346434e-02
5.104500000000000000e+04,-2.609078528621466830e-03
5.110500000000000000e+04,-1.412916548542852979e-02
5.116500000000000000e+04,-2.864057344322645804e-02
5.122500000000000000e+04,-2.714323207510460634e-02
5.128500000000000000e+04,-1.463707157654425828e-02
5.134500000000000000e+04,7.877977329371788073e-03
5.140500000000000000e+04,1.740198337211040780e-02
5.146500000000000000e+04,2.993501473429205362e-02
5.152500000000000000e+04,3.347713902167015476e-02
5.158500000000000000e+04,1.402842326206155121e-02
5.164500000000000000e+04,2.158893388332217000e-02
5.170500000000000000e+04,2.715873671240842668e-02
5.176500000000000000e+04,1.273789694732840871e-02
5.182500000000000000e+04,2.332647915318375453e-02
5.188500000000000000e+04,3.592454724548588274e-02
5.194500000000000000e+04,2.553216447813611012e-02
5.200500000000000000e+04,1.214939342207799200e-02
5.206500000000000000e+04,2.477629596432961989e-02
5.212500000000000000e+04,3.841293327968742233e-02
5.218500000000000000e+04,3.405936583112634253e-02
5.224500000000000000e+04,2.471565333871694747e-02
5.230500000000000000e+04,5.381854780353023671e-03
5.236500000000000000e+04,-1.941971633641514927e-03
5.242500000000000000e+04,-1.125576846607145853e-02
5.248500000000000000e+04,-2.155947908067901153e-02
5.254500000000000000e+04,-2.485304763831663877e-02
5.260500000000000000e+04,-3.113641913023457164e-02
5.266500000000000000e+04,-2.840953938448365079e-02
5.272500000000000000e+04,-2.667235508488374762e-02
5.278500000000000000e+04,-2.692481377926014829e-02
5.284500000000000000e+04,-1.816686390156974085e-02
5.290500000000000000e+04,-2.039845479066570988e-02
5.296500000000000000e+04,-2.761953669596550753e-02
5.302500000000000000e+04,-3.183006080143968575e-02
5.308500000000000000e+04,-3.402997924058581702e-02
5.314500000000000000e+04,-1.221924510991811985e-02
5.320500000000000000e+04,-1.839781248418148607e-02
5.326500000000000000e+04,-2.356563643934350694e-02
5.332500000000000000e+04,-1.572267306437424850e-02
5.338500000000000000e+04,-1.686887947744253324e-02
5.344500000000000000e+04,-1.300421384530636715e-02
5.350500000000000000e+04,-7.128635400476923678e-03
5.356500000000000000e+04,-7.242104452416242566e-03
5.362500000000000000e+04,-1.134458241449465277e-02
5.368500000000000000e+04,-1.543603181198704988e-02
5.374500000000000000e+04,-8.516416306520113721e-03
5.380500000000000000e+04,4.142992911511100829e-04
5.386500000000000000e+04,3.356148999046126846e-03
5.392500000000000000e+04,-3.690834349981741980e-03
5.398500000000000000e+04,-2.472661912997864420e-02
5.404500000000000000e+04,-2.275117493172729155e-02
5.410500000000000000e+04,-2.276447259737324202e-02
5.416500000000000000e+04,-3.376648422272410244e-02
5.422500000000000000e+04,-2.975718317884457065e-02
5.428500000000000000e+04,-3.473654414119664580e-02
5.434500000000000000e+04,-2.170454309725755593e-02
5.440500000000000000e+04,-1.966115737013751641e-02
5.446500000000000000e+04,-5.606365633866516873e-03
5.452500000000000000e+04,2.345985205920442240e-02
5.458500000000000000e+04,1.753751427077077096e-02
5.464500000000000000e+04,8.626638137684494723e-03
5.470500000000000000e+04,1.272723938200215343e-02
5.476500000000000000e+04,1.383933226134104189e-02
5.482500000000000000e+04,1.962929565706872381e-03
5.488500000000000000e+04,5.098042595818697009e-03
5.494500000000000000e+04,8.244681136602594052e-03
5.500500000000000000e+04,-5.971465598122449592e-04
5.506500000000000000e+04,-5.427433785371249542e-03
5.512500000000000000e+04,-1.324617542013584170e-02
5.518500000000000000e+04,-9.053367928572697565e-03
5.524500000000000000e+04,-1.984900938896316802e-02
5.530500000000000000e+04,-3.563309952824056381e-02
5.536500000000000000e+04,-4.340563971618394135e-02
5.542500000000000000e+04,-2.616663301523658447e-02
5.548500000000000000e+04,-1.891608417645329610e-02
5.554500000000000000e+04,-2.665399968554993393e-02
5.560500000000000000e+04,-1.238038776227767812e-02
5.566500000000000000e+04,-1.095258398891019169e-03
5.572500000000000000e+04,-2.798623377202602569e-03
5.578500000000000000e+04,2.509503714463789947e-03
5.584500000000000000e+04,-4.170892547335824929e-03
5.590500000000000000e+04,-6.839829449745593593e-03
5.596500000000000000e+04,-4.497326145610713866e-03
5.602500000000000000e+04,-1.434036994396592490e-04
5.608500000000000000e+04,6.221914903107972350e-03
5.614500000000000000e+04,-4.401395279273856431e-03
5.620500000000000000e+04,-3.013361148987314664e-03
5.626500000000000000e+04,9.385988389112753794e-03
5.632500000000000000e+04,-7.203377585028647445e-03
5.638500000000000000e+04,-6.781492041227465961e-03
5.644500000000000000e+04,1.865160998750070576e-02
5.650500000000000000e+04,2.309589137985312846e-02
5.656500000000000000e+04,1.855131289175915299e-02
5.662500000000000000e+04,2.401783314326166874e-02
5.668500000000000000e+04,2.349540858449472580e-02
5.674500000000000000e+04,2.698399348173552426e-02
5.680500000000000000e+04,1.948353988063900033e-02
5.686500000000000000e+04,9.939975880115525797e-04
5.692500000000000000e+04,2.251531414185592439e-02
5.698500000000000000e+04,2.304743479817261687e-02
5.704500000000000000e+04,1.759030248013004893e-02
5.710500000000000000e+04,2.814385778128780657e-02
5.716500000000000000e+04,3.470803891832474619e-02
5.722500000000000000e+04,4.228278171285637654e-02
5.728500000000000000e+04,3.586801956953422632e-02
5.734500000000000000e+04,2.746368343559879577e-02
5.740500000000000000e+04,2.706970179133350030e-02
5.746500000000000000e+04,1.668600060929747997e-02
5.752500000000000000e+04,2.312503331268089823e-03
5.758500000000000000e+04,1.594913084772997536e-02
5.764500000000000000e+04,1.559580145931249717e-02
5.770500000000000000e+04,7.252430857079161797e-03
5.776500000000000000e+04,1.491893208913097624e-02
5.782500000000000000e+04,1.595215540874050930e-03
5.788500000000000000e+04,-2.718811104386986699e-03
5.794500000000000000e+04,9.976757113690837286e-03
5.800500000000000000e+04,-1.331817759364639642e-02
5.806500000000000000e+04,-4.160371580292121507e-02
5.812500000000000000e+04,-4.687996090069646016e-02
5.818500000000000000e+04,-4.914701911093288800e-02
5.824500000000000000e+04,-5.140499952722166199e-02
5.830500000000000000e+04,-5.165401414978987304e-02
5.836500000000000000e+04,-3.289417789346771315e-02
5.842500000000000000e+04,-1.712560864416445838e-02
5.848500000000000000e+04,-1.334842727283103159e-02
5.854500000000000000e+04,-1.562757662213698495e-03
5.860500000000000000e+04,6.231273239791335072e-03
5.866500000000000000e+04,2.403353542194963666e-02
5.872500000000000000e+04,4.484389575191016775e-02
5.878500000000000000e+04,5.166221795934688998e-02
5.884500000000000000e+04,4.948836260246025631e-02
5.890500000000000000e+04,3.932218702993850457e-02
5.896500000000000000e+04,2.616354535621212563e-02
5.902500000000000000e+04,3.001228842913405970e-02
5.908500000000000000e+04,3.986826379968988476e-02
5.914500000000000000e+04,3.373131567695963895e-02
5.920500000000000000e+04,2.160128491414070595e-02
5.926500000000000000e+04,7.478008966245397460e-03
5.932500000000000000e+04,1.136132185456517618e-02
5.938500000000000000e+04,-3.748945860934327357e-03
5.944500000000000000e+04,-2.285296711397677427e-02
5.950500000000000000e+04,-7.950918372443993576e-03
5.956500000000000000e+04,-7.042979662401194219e-03
5.962500000000000000e+04,-1.612933461001375690e-02
5.968500000000000000e+04,-2.021017047445639037e-02
5.974500000000000000e+04,-9.285678175729117356e-03
5.980500000000000000e+04,-5.356052334718697239e-03
5.986500000000000000e+04,-7.421491313834849279e-03
5.992500000000000000e+04,-9.482197228862787597e-03
5.998500000000000000e+04,-3.538376016877009533e-03
6.004500000000000000e+04,7.409762553834298160e-03
6.010500000000000000e+04,1.436200483931315830e-02
6.016500000000000000e+04,1.531813328529096907e-02
6.022500000000000000e+04,2.127792638839309802e-02
6.028500000000000000e+04,8.241158664532122202e-03
6.034500000000000000e+04,-8.792399393314553890e-03
6.040500000000000000e+04,-2.482298133963922737e-02
6.046500000000000000e+04,-2.885082483408041298e-02
6.052500000000000000e+04,-2.087617165398114594e-02
6.058500000000000000e+04,-2.189926775190542685e-02
6.064500000000000000e+04,-2.392036327637470094e-02
6.070500000000000000e+04,-2.393971262881677831e-02
