0	0
10.2913	0
20.5824	0
30.8735	0
41.1645	0
51.4554	0
61.7463	0
72.0371	0
82.3279	0
92.6187	0
102.876	0
113.166	0
123.383	0
133.534	0
143.623	0
153.713	-9.09495e-13
163.803	-2.72848e-12
173.892	-4.54747e-12
183.982	-6.36646e-12
194.071	-8.18545e-12
204.16	-1.00044e-11
214.236	-1.27329e-11
224.299	-1.63709e-11
234.361	-2.00089e-11
244.424	-2.36469e-11
254.486	-2.81943e-11
264.549	-3.36513e-11
274.611	-3.91083e-11
284.674	-4.45652e-11
294.736	-5.00222e-11
304.798	-5.54792e-11
314.861	-6.09361e-11
324.923	-6.63931e-11
334.985	-7.18501e-11
340.016	-7.45786e-11
350.036	-8.00355e-11
360.013	-8.36735e-11
374.979	-8.54925e-11
384.965	-8.4583e-11
394.957	-8.00355e-11
404.95	-7.09406e-11
414.769	-5.63887e-11
424.502	-3.45608e-11
434.235	-3.63798e-12
443.968	3.72893e-11
453.7	9.1859e-11
463.433	1.63709e-10
473.166	2.54659e-10
482.809	3.67436e-10
492.413	5.07498e-10
502.018	6.80302e-10
511.611	8.90395e-10
521.193	1.14505e-09
530.775	1.45155e-09
540.335	1.81444e-09
554.675	2.47564e-09
564.234	3.00042e-09
573.794	3.59432e-09
583.353	4.25825e-09
592.913	4.99585e-09
602.472	5.80803e-09
612.032	6.69843e-09
621.591	7.66886e-09
631.151	8.72296e-09
640.71	9.86074e-09
650.269	1.10813e-08
664.608	1.30558e-08
674.168	1.44601e-08
683.716	1.59253e-08
693.253	1.74441e-08
702.79	1.90084e-08
712.327	2.06101e-08
721.864	2.22408e-08
731.402	2.38906e-08
740.939	2.55513e-08
750.476	2.72148e-08
760.013	2.88728e-08
774.318	3.13339e-08
783.855	3.29483e-08
793.392	3.45362e-08
802.929	3.60924e-08
812.466	3.76158e-08
822.003	3.91065e-08
831.54	4.05653e-08
841.077	4.19959e-08
850.614	4.34047e-08
860.15	4.48008e-08
874.455	4.68963e-08
883.992	4.83178e-08
893.529	4.9783e-08
903.066	5.13155e-08
912.602	5.29462e-08
922.139	5.47079e-08
931.676	5.66406e-08
941.212	5.87888e-08
950.749	6.12054e-08
960.285	6.39457e-08
974.59	6.88033e-08
984.127	7.26423e-08
993.663	7.70515e-08
1003.2	8.21155e-08
1012.74	8.79236e-08
1022.27	9.4572e-08
1031.81	1.02163e-07
1041.35	1.10807e-07
1050.88	1.20624e-07
1060.42	1.31738e-07
1074.72	1.51146e-07
1084.26	1.66125e-07
1093.8	1.82922e-07
1103.33	2.0171e-07
1112.87	2.22672e-07
1122.41	2.46006e-07
1131.94	2.71917e-07
1141.48	3.00627e-07
1151.01	3.32372e-07
1160.55	3.674e-07
1170.09	4.05974e-07
1184.39	4.71099e-07
1193.93	5.19794e-07
1203.46	5.73081e-07
1213	6.31298e-07
1222.54	6.948e-07
1232.07	7.63961e-07
1241.61	8.39174e-07
1251.14	9.20855e-07
1260.68	1.00944e-06
1270.22	1.10538e-06
1284.47	1.26358e-06
1293.96	1.37995e-06
1303.44	1.50613e-06
1312.93	1.64259e-06
1322.41	1.78967e-06
1331.9	1.9476e-06
1341.39	2.11659e-06
1350.87	2.29682e-06
1360.36	2.48844e-06
1374.59	2.79759e-06
1384.07	3.01843e-06
1393.56	3.2513e-06
1403.02	3.49578e-06
1412.48	3.75274e-06
1421.91	4.02168e-06
1431.37	4.30456e-06
1440.83	4.60104e-06
1450.27	4.91066e-06
1464.46	5.40405e-06
1473.92	5.7523e-06
1483.38	6.11683e-06
1492.84	6.49844e-06
1502.3	6.89799e-06
1511.76	7.31643e-06
1521.22	7.75476e-06
1530.68	8.21409e-06
1540.05	8.69105e-06
1554.01	9.44421e-06
1563.31	9.97679e-06
1572.61	1.05354e-05
1581.91	1.11214e-05
1591.22	1.17365e-05
1600.52	1.23822e-05
1614.47	1.3412e-05
1623.77	1.41419e-05
1633.07	1.49088e-05
1642.38	1.57146e-05
1651.68	1.65614e-05
1660.98	1.74511e-05
1670.28	1.83855e-05
1684.23	1.98739e-05
1693.54	2.09261e-05
1702.84	2.20276e-05
1712.14	2.31795e-05
1721.44	2.43829e-05
1730.74	2.56389e-05
1740.04	2.69485e-05
1754	2.90158e-05
1763.3	3.04643e-05
1772.6	3.19704e-05
1781.9	3.35355e-05
1791.2	3.51608e-05
1800.51	3.68478e-05
1814.46	3.94976e-05
1823.76	4.13461e-05
1833.06	4.32623e-05
1842.36	4.52483e-05
1851.66	4.73063e-05
1860.97	4.94384e-05
1870.27	5.16473e-05
1884.22	5.51103e-05
1893.52	5.75229e-05
1902.82	6.00221e-05
1912.12	6.26111e-05
1921.43	6.52932e-05
1930.73	6.80719e-05
1940.03	7.09507e-05
1953.98	7.54648e-05
1963.28	7.86106e-05
1972.58	8.18703e-05
1981.89	8.52483e-05
1991.19	8.87489e-05
2000.49	9.2377e-05
2014.44	9.00858e-05
2023.74	8.88876e-05
2033.04	8.79323e-05
2042.34	8.72045e-05
2051.65	8.66907e-05
2060.95	8.63782e-05
2070.25	8.62554e-05
2084.2	8.64044e-05
2093.5	8.67122e-05
2102.8	8.71776e-05
2112.1	8.77935e-05
2121.41	8.8554e-05
2130.71	8.9454e-05
2140.01	9.04889e-05
2153.96	9.22871e-05
2163.26	9.36457e-05
2172.56	9.513e-05
2181.86	9.67388e-05
2191.16	9.84714e-05
2200.46	0.000100328
2214.42	0.000103346
2223.72	0.000105516
2233.02	0.000107813
2242.32	0.000110241
2251.62	0.000112801
2260.92	0.000115498
2270.22	0.000118333
2284.17	0.000122855
2293.48	0.000126056
2302.78	0.00012941
2312.08	0.000132923
2321.38	0.000136599
2330.68	0.000140443
2344.63	0.000146539
2353.93	0.000150831
2363.23	0.000155311
2372.53	0.000159987
2381.84	0.000164868
2391.14	0.000169955
2400.44	0.000175232
2414.39	0.000183474
2423.69	0.000189173
2432.99	0.000195029
2442.29	0.000201037
2451.59	0.000207195
2460.89	0.000213503
2470.2	0.000219961
2484.15	0.000229938
2493.45	0.000236787
2502.75	0.000243801
2512.05	0.000250986
2521.35	0.00025835
2530.65	0.0002659
2544.61	0.000277598
2553.91	0.000285659
2563.21	0.000293944
2572.51	0.000302465
2581.81	0.000311237
2591.11	0.000320272
2600.41	0.000329587
2614.37	0.000344116
2623.67	0.000354194
2632.97	0.000364603
2642.27	0.000375358
2651.57	0.000386474
2660.87	0.000397963
2670.18	0.000409841
2684.13	0.000428418
2693.43	0.000441331
2702.73	0.000454686
2712.03	0.000468497
2721.33	0.000482783
2730.64	0.000497562
2744.59	0.000520694
2753.89	0.000558332
2763.19	0.00059594
2772.5	0.000633366
2781.8	0.000670524
2791.1	0.000707376
2800.42	0.000743991
2814.4	0.000798402
2823.72	0.000834417
2833.04	0.000870315
2842.36	0.00090619
2851.68	0.000942144
2861	0.000978288
2870.32	0.00101474
2884.3	0.00107026
2893.62	0.00110802
2902.94	0.00114652
2912.26	0.00118589
2921.58	0.00122625
2930.9	0.00126771
2940.22	0.00131041
2954.2	0.00137691
2963.52	0.00142265
2972.84	0.00146933
2982.16	0.00151686
2991.48	0.00156522
3000.8	0.0016144
3010.12	0.00166445
3024.1	0.00174137
3033.42	0.00179405
3042.74	0.00184803
3052.06	0.00190349
3061.38	0.00196065
3070.7	0.0020197
3080.02	0.00208086
3094	0.00217697
3103.32	0.00224423
3112.64	0.00231426
3121.96	0.00238725
3131.28	0.00251129
3140.59	0.00267833
3154.57	0.00291402
3163.89	0.00306239
3173.21	0.00320566
3182.53	0.00334582
3191.85	0.00348499
3201.17	0.00362525
3210.49	0.00376861
3224.47	0.00399348
3233.79	0.00415187
3243.11	0.00431544
3252.43	0.00448336
3261.75	0.00465581
3271.07	0.00483374
3280.39	0.00501874
3294.37	0.00531421
3303.69	0.00552655
3313.01	0.00586751
3322.33	0.00631928
3331.65	0.00675593
3340.97	0.0071794
3350.29	0.00760453
3364.27	0.00828012
3373.59	0.00877078
3382.9	0.00927897
3392.22	0.00980726
3401.54	0.0103735
3410.86	0.0113329
3420.18	0.0124783
3434.16	0.0140217
3443.48	0.0152945
3452.8	0.0167165
3462.12	0.0195697
3471.44	0.0223054
3480.76	0.0255277
3490.08	0.0293708
3504.06	0.03533
3513.38	0.038849
3522.7	0.0421218
3532.02	0.045449
3541.34	0.048848
3550.66	0.0522854
3564.64	0.0576327
3573.96	0.0613589
3583.28	0.0651346
3592.6	0.0688898
3601.92	0.0726111
3611.24	0.076329
3620.56	0.0800867
3634.54	0.0858859
3643.86	0.089893
3653.18	0.0939991
3662.5	0.0981675
3671.83	0.102363
3681.15	0.106564
3690.47	0.110768
3704.45	0.117092
3713.77	0.121341
3723.11	0.125646
3732.46	0.130007
3741.8	0.134426
3751.15	0.138896
3760.5	0.143409
3774.51	0.150246
3783.86	0.15485
3793.21	0.159499
3802.55	0.164202
3811.9	0.168964
3821.24	0.173785
3830.59	0.178661
3844.61	0.186059
3853.95	0.191036
3863.3	0.196047
3872.65	0.201098
3881.99	0.206199
3891.34	0.211364
3900.68	0.216606
3910.03	0.221939
3924.05	0.230132
3933.39	0.235739
3942.74	0.241474
3952.09	0.247351
3961.43	0.253384
3970.78	0.259592
3980.13	0.265992
3994.15	0.275991
4003.49	0.282947
4012.84	0.290152
4022.18	0.297623
4031.53	0.305374
4040.88	0.313423
4050.22	0.321788
4064.24	0.334975
4073.59	0.344224
4082.94	0.353865
4092.28	0.363919
4101.63	0.374406
4110.98	0.385345
4120.32	0.396752
4134.35	0.414766
4143.77	0.427499
4153.2	0.44074
4162.62	0.454494
4172.04	0.468757
4181.47	0.483522
4190.89	0.498776
4200.38	0.514602
4214.61	0.53918
4224.09	0.556078
4233.58	0.573355
4243.07	0.590952
4252.57	0.608815
4262.06	0.626883
4271.55	0.645088
4281.04	0.663352
4290.53	0.681589
4300.02	0.699704
4314.26	0.726422
4323.75	0.743765
4333.24	0.76059
4342.74	0.776764
4352.23	0.792151
4361.72	0.806603
4371.21	0.81997
4380.7	0.832098
4390.19	0.842828
4404.43	0.855952
4413.92	0.862489
4423.42	0.86707
4432.91	0.869543
4442.4	0.869756
4451.89	0.867568
4461.38	0.862841
4470.87	0.855451
4480.37	0.845282
4494.6	0.824596
4504.1	0.80706
4513.59	0.786448
4523.08	0.762713
4532.57	0.735825
4542.06	0.705771
4551.56	0.672559
4561.05	0.636214
4570.54	0.596778
4580.03	0.554306
4594.27	0.485063
4603.76	0.435332
4613.25	0.382842
4622.74	0.327654
4632.24	0.269944
4641.73	0.20958
4651.24	0.147073
4660.78	0.0782798
4670.32	0.0138881
4684.62	-0.07082
4694.16	-0.113439
4703.7	-0.140669
4713.23	-0.167806
4722.77	-0.177267
4732.31	-0.198857
4741.84	-0.219475
4751.38	-0.236393
4760.92	-0.25063
4770.46	-0.263113
4784.76	-0.279195
4794.3	-0.289004
4803.83	-0.298078
4813.37	-0.306431
4822.91	-0.296183
4832.45	-0.303169
4841.98	-0.30854
4851.52	-0.317124
4861.06	-0.324235
4870.59	-0.330248
4880.13	-0.335349
4894.43	-0.341783
4903.97	-0.345513
4913.51	-0.348938
4923.05	-0.351808
4932.58	-0.354397
4942.12	-0.356928
4951.66	-0.359279
4961.19	-0.361575
4970.73	-0.363783
4980.27	-0.365877
4994.53	-0.368757
5004.03	-0.370492
5013.52	-0.372028
5023.01	-0.362372
5032.49	-0.363933
5041.98	-0.365385
5051.47	-0.367369
5060.95	-0.369235
5070.44	-0.370855
5084.67	-0.372784
5094.15	-0.373769
5103.64	-0.374549
5113.12	-0.375147
5122.61	-0.375572
5132.1	-0.375838
5141.58	-0.375962
5151.07	-0.375959
5160.55	-0.375845
5170.01	-0.375634
5184.18	-0.375159
5193.61	-0.374751
5203.07	-0.374278
5212.53	-0.373721
5221.99	-0.373102
5231.42	-0.372461
5240.88	-0.371805
5250.35	-0.371127
5264.54	-0.369806
5274	-0.368908
5283.46	-0.367992
5292.92	-0.367058
5302.38	-0.366105
5311.83	-0.365131
5321.28	-0.364136
5330.58	-0.363135
5344.54	-0.361592
5353.84	-0.360536
5363.14	-0.35946
5372.44	-0.358364
5381.75	-0.357244
5391.05	-0.35609
5400.35	-0.35491
5414.3	-0.347763
5423.6	-0.347151
5432.91	-0.346523
5442.21	-0.345879
5451.51	-0.34522
5460.81	-0.344546
5470.11	-0.343857
5484.07	-0.34279
5493.37	-0.342057
5502.67	-0.341308
5511.97	-0.340545
5521.27	-0.339769
5530.58	-0.33898
5544.53	-0.337775
5553.83	-0.336962
5563.13	-0.336144
5572.43	-0.335323
5581.74	-0.3345
5591.04	-0.333676
5600.34	-0.332852
5614.29	-0.331616
5623.59	-0.330789
5632.9	-0.329959
5642.2	-0.329124
5651.5	-0.328281
5660.8	-0.327429
5670.1	-0.326566
5684.06	-0.325245
5693.36	-0.324345
5702.66	-0.323427
5711.96	-0.322488
5721.26	-0.321528
5730.57	-0.320544
5744.52	-0.319018
5753.82	-0.317966
5763.12	-0.316884
5772.42	-0.315863
5781.73	-0.314792
5791.03	-0.313671
5800.33	-0.312504
5814.28	-0.310668
5823.58	-0.309386
5832.89	-0.308059
5842.19	-0.306574
5851.49	-0.305046
5860.79	-0.303477
5870.09	-0.301867
5884.04	-0.299379
5893.35	-0.297674
5902.65	-0.295934
5911.95	-0.294158
5921.25	-0.292349
5930.55	-0.291135
5944.51	-0.289154
5953.81	-0.287745
5963.11	-0.286277
5972.41	-0.284757
5981.71	-0.283189
5991.02	-0.281578
6000.32	-0.279926
6014.27	-0.277375
6023.57	-0.275628
6032.87	-0.273843
6042.18	-0.272023
6051.48	-0.270166
6060.78	-0.268273
6070.08	-0.266343
6084.03	-0.263382
6093.34	-0.261362
6102.64	-0.259306
6111.94	-0.257215
6121.24	-0.255088
6130.54	-0.252926
6144.49	-0.249619
6153.8	-0.247366
6163.1	-0.245081
6172.4	-0.242773
6181.7	-0.240449
6191	-0.238114
6200.31	-0.235772
6214.26	-0.232251
6223.56	-0.2299
6232.86	-0.227547
6242.16	-0.225189
6251.47	-0.222827
6260.77	-0.220458
6270.07	-0.218081
6284.02	-0.214493
6293.32	-0.212084
6302.63	-0.209658
6311.93	-0.207214
6321.23	-0.204751
6330.53	-0.202266
6344.48	-0.196655
6353.79	-0.192406
6363.09	-0.188291
6372.39	-0.184315
6381.69	-0.180463
6390.99	-0.176714
6400.3	-0.173045
6414.25	-0.167632
6423.55	-0.164048
6432.85	-0.160459
6442.15	-0.156845
6451.46	-0.15319
6460.76	-0.149508
6470.06	-0.145827
6484.01	-0.140321
6493.31	-0.136652
6502.62	-0.132968
6511.92	-0.129248
6521.22	-0.12547
6530.52	-0.121617
6544.47	-0.111115
6553.78	-0.10449
6563.08	-0.0981729
6572.38	-0.0920413
6581.68	-0.0859506
6590.98	-0.0797895
6600.29	-0.073481
6614.24	-0.0639133
6623.54	-0.0576306
6632.84	-0.0513445
6642.15	-0.0423211
6651.45	-0.0320802
6660.75	-0.0233139
6670.05	-0.0143506
6684.01	0.000380855
6693.33	0.0162882
6702.65	0.0306314
6711.98	0.0456652
6721.3	0.0618067
6730.62	0.0765931
6744.6	0.0910649
6753.92	0.0965609
6763.24	0.100903
6772.56	0.104385
6781.88	0.106943
6791.2	0.10889
6800.52	0.110693
6814.5	0.113379
6823.82	0.114742
6833.14	0.115507
6842.46	0.115784
6851.78	0.115865
6861.1	0.116048
6870.42	0.116538
6884.4	0.117959
6893.72	0.119196
6903.04	0.120407
6912.36	0.121388
6921.68	0.122021
6931	0.122279
6940.32	0.122195
6954.3	0.121583
6963.62	0.120987
6972.94	0.120351
6982.26	0.119737
6991.58	0.119159
7000.9	0.118596
7010.22	0.118024
7024.2	0.117162
7033.52	0.116651
7042.85	0.116267
7052.17	0.116051
7061.49	0.115994
7070.81	0.116026
7080.13	0.116032
7094.11	0.115724
7103.43	0.115176
7112.75	0.114318
7122.07	0.113184
7131.39	0.111842
7140.71	0.110378
7150.03	0.10887
7164.01	0.10664
7173.33	0.10521
7182.65	0.103832
7191.97	0.102506
7201.29	0.101239
7210.61	0.100049
7224.59	0.0984792
7233.91	0.097629
7243.23	0.0969714
7252.55	0.0965202
7261.87	0.0962706
7271.19	0.0962001
7280.51	0.0962744
7294.49	0.0965769
7303.81	0.0968613
7313.13	0.0971902
7322.45	0.0975582
7331.77	0.0979693
7341.09	0.0984331
7350.41	0.098961
7364.4	0.099894
7373.72	0.100618
7383.04	0.101421
7392.36	0.102298
7401.68	0.103236
7411	0.104218
7420.32	0.105224
7434.3	0.106729
7443.62	0.107697
7452.94	0.10861
7462.27	0.109454
7471.62	0.110213
7480.97	0.110878
7490.31	0.111444
7504.33	0.11211
7513.68	0.112438
7523.02	0.112685
7532.37	0.11286
7541.72	0.112977
7551.06	0.113051
7560.41	0.113097
7574.43	0.113146
7583.78	0.113183
7593.12	0.113233
7602.47	0.1133
7611.81	0.113385
7621.16	0.113481
7630.51	0.113585
7644.53	0.113739
7653.87	0.113834
7663.22	0.113923
7672.57	0.114008
7681.91	0.114096
7691.26	0.114197
7700.6	0.11432
7714.62	0.11457
7723.97	0.114792
7733.32	0.115064
7742.66	0.115384
7752.01	0.115748
7761.36	0.116145
7770.7	0.11656
7780.05	0.116975
7794.07	0.117548
7803.42	0.117863
7812.76	0.118098
7822.11	0.118231
7831.45	0.118245
7840.8	0.118127
7850.15	0.117869
7864.17	0.117214
7873.51	0.116603
7882.86	0.115864
7892.21	0.115009
7901.55	0.114052
7910.9	0.11301
7920.25	0.111899
7934.27	0.110137
7943.61	0.108919
7952.96	0.107681
7962.3	0.106431
7971.65	0.105177
7981	0.103924
7990.34	0.102675
8004.36	0.100817
8013.71	0.099591
8023.06	0.0983775
8032.4	0.0971791
8041.75	0.0959989
8051.1	0.0948408
8060.44	0.0937091
8074.46	0.0920707
8083.81	0.091024
8093.16	0.0900174
8102.5	0.0890528
8111.85	0.0881301
8121.19	0.0872473
8130.54	0.0864003
8144.56	0.0851819
8153.91	0.0843912
8163.25	0.0836049
8172.6	0.0828102
8181.95	0.081994
8191.29	0.0811425
8200.64	0.0802426
8214.66	0.0787754
8224.01	0.0777039
8233.35	0.076548
8242.7	0.0753022
8252.05	0.073963
8261.39	0.0725295
8270.74	0.071003
8280.08	0.0693866
8294.1	0.0668045
8303.45	0.0649871
8312.8	0.063101
8322.14	0.0611535
8331.49	0.0591515
8340.84	0.0571014
8350.18	0.055009
8364.2	0.0518004
8373.55	0.0496193
8382.9	0.0474064
8392.24	0.0451617
8401.59	0.0428837
8410.94	0.0405689
8420.28	0.0382121
8434.3	0.0345796
8443.65	0.0320747
8453	0.0294824
8462.35	0.0267766
8471.69	0.0239221
8481.04	0.0208736
8490.39	0.0175411
8504.41	0.0109468
8513.76	0.00527671
8523.11	-0.00307835
8532.46	-0.0084784
8541.8	-0.0132331
8551.15	-0.0144538
8560.5	-0.0177058
8574.52	-0.0238664
8583.87	-0.0271427
8593.22	-0.0302155
8602.57	-0.0331809
8611.91	-0.0357596
8621.26	-0.0380673
8630.61	-0.0401781
8644.63	-0.0390631
8653.98	-0.040141
8663.33	-0.0424574
8672.68	-0.0443238
8682.02	-0.0458972
8691.37	-0.047291
8700.72	-0.0485885
8710.07	-0.0498377
8724.02	-0.0516628
8733.32	-0.0529173
8742.63	-0.0541739
8751.93	-0.0553747
8761.23	-0.0565241
8770.53	-0.0576237
8784.48	-0.0591811
8793.79	-0.0601599
8803.09	-0.0610928
8812.39	-0.0619819
8821.69	-0.060804
8830.99	-0.0641299
8840.3	-0.0649188
8854.25	-0.0659161
8863.55	-0.0664652
8872.85	-0.0669364
8882.15	-0.067342
8891.46	-0.067694
8900.76	-0.0680049
8910.06	-0.0682857
8924.01	-0.0686698
8933.32	-0.0689118
8942.62	-0.0691493
8951.92	-0.0693867
8961.22	-0.0696273
8970.52	-0.0698733
8984.48	-0.0703666
8993.78	-0.0707246
9003.08	-0.071077
9012.38	-0.0714238
9021.68	-0.0717646
9030.99	-0.0720986
9040.29	-0.0724247
9054.24	-0.0728961
9063.54	-0.0731969
9072.84	-0.0734855
9082.15	-0.0737614
9091.45	-0.0740237
9100.75	-0.0742721
9110.05	-0.0745064
9124	-0.0748308
9133.31	-0.0750291
9142.61	-0.0752052
9151.91	-0.0709181
9161.21	-0.0712297
9170.51	-0.0715014
9184.47	-0.0718896
9193.77	-0.0721348
9203.07	-0.0723668
9212.37	-0.0725798
9221.67	-0.0727742
9230.98	-0.0729493
9240.28	-0.073106
9254.23	-0.0733078
9263.53	-0.073421
9272.83	-0.0735178
9282.14	-0.0735991
9291.44	-0.0736654
9300.74	-0.0737174
9310.04	-0.0737558
9323.99	-0.0737872
9333.3	-0.0737893
9342.6	-0.0737772
9351.9	-0.0737518
9361.2	-0.0737137
9370.5	-0.0736637
9384.46	-0.0735676
9393.76	-0.0734903
9403.06	-0.073403
9412.36	-0.0733063
9421.66	-0.0732005
9430.97	-0.0730863
9440.27	-0.0729644
9454.22	-0.0727685
9463.52	-0.07263
9472.82	-0.0724677
9482.13	-0.0722799
9491.43	-0.0720848
9500.73	-0.0718834
9510.03	-0.0716764
9523.99	-0.0713569
9533.29	-0.0712642
9542.59	-0.0711605
9551.89	-0.0710466
9561.19	-0.0709232
9570.49	-0.0707908
9584.45	-0.0705768
9593.75	-0.0704245
9603.05	-0.0702648
9612.35	-0.0700981
9621.65	-0.0699247
9630.96	-0.0697448
9640.26	-0.0695586
9654.21	-0.0692677
9663.51	-0.0690662
9672.82	-0.0688588
9682.12	-0.0686455
9691.42	-0.0684263
9700.72	-0.0682012
9710.02	-0.0679703
9723.98	-0.067613
9733.28	-0.0673675
9742.58	-0.0671161
9751.88	-0.0668588
9761.18	-0.0665956
9770.49	-0.0663265
9784.44	-0.0659118
9793.74	-0.0656279
9803.04	-0.0653381
9812.34	-0.0650424
9821.65	-0.064741
9830.95	-0.0655726
9840.25	-0.0652684
9854.2	-0.0648079
9863.5	-0.0644981
9872.81	-0.0641857
9882.11	-0.0638709
9891.41	-0.0635534
9900.71	-0.0632332
9910.01	-0.06291
9923.97	-0.0624196
9933.27	-0.0620887
9942.57	-0.0617544
9951.87	-0.061313
9961.17	-0.0608709
9970.48	-0.0604277
9984.43	-0.0597599
9993.73	-0.0593115
10003	-0.0588607
10012.3	-0.0584074
10021.6	-0.0579516
10030.9	-0.0574935
10040.2	-0.0570329
10054.2	-0.0563375
10063.5	-0.055871
10072.8	-0.055402
10082.1	-0.0549306
10091.4	-0.0544576
10100.7	-0.0539851
10110	-0.0535126
10124	-0.0528034
10133.3	-0.0523297
10142.6	-0.0518551
10151.9	-0.0513792
10161.2	-0.0509019
10170.5	-0.050423
10184.4	-0.0497008
10193.8	-0.0492162
10203.1	-0.0487296
10212.4	-0.0482408
10221.7	-0.0477497
10231	-0.0472563
10240.4	-0.0467606
10254.3	-0.0460125
10263.7	-0.0455108
10273	-0.0450067
10282.3	-0.0445002
10291.6	-0.0439915
10300.9	-0.0434804
10310.3	-0.0429671
10324.2	-0.0421932
10333.6	-0.0416749
10342.9	-0.0411548
10352.2	-0.0406332
10361.5	-0.0401101
10370.8	-0.0395858
10380.2	-0.0390604
10394.1	-0.0382705
10403.5	-0.0377429
10412.8	-0.0372146
10422.1	-0.0366858
10431.4	-0.0361567
10440.7	-0.0356272
10450.1	-0.0350975
10464	-0.0343029
10473.4	-0.0337732
10482.7	-0.0332438
10492	-0.0327146
10501.3	-0.0321859
10510.6	-0.0316577
10524.6	-0.0308671
10533.9	-0.0303415
10543.3	-0.0298173
10552.6	-0.0292945
10561.9	-0.0287756
10571.2	-0.0282613
10580.5	-0.0277513
10594.5	-0.0269939
10603.8	-0.0264559
10613.2	-0.0258885
10622.5	-0.0253304
10631.8	-0.0247811
10641.1	-0.0242402
10650.5	-0.023707
10664.4	-0.0229211
10673.8	-0.0224057
10683.1	-0.0218968
10692.4	-0.0213296
10701.7	-0.0207259
10711	-0.0201534
10720.4	-0.0196082
10734.3	-0.0188336
10743.7	-0.0183416
10753	-0.0178661
10762.3	-0.0174047
10771.6	-0.0169554
10780.9	-0.0165165
10790.3	-0.0160864
10804.2	-0.015456
10813.6	-0.0150487
10822.9	-0.0146512
10832.2	-0.0142625
10841.5	-0.0138813
10850.8	-0.0135065
10860.2	-0.0131371
10874.1	-0.0125908
10883.5	-0.0122303
10892.8	-0.0118718
10902.1	-0.0115145
10911.4	-0.0111577
10920.7	-0.0108011
10930.1	-0.0104448
10944	-0.00991008
10953.4	-0.0095532
10962.7	-0.00919563
10972	-0.00883701
10981.3	-0.00847697
10990.6	-0.00811515
11004.6	-0.0075824
11013.9	-0.0072334
11023.3	-0.00688711
11032.6	-0.00654193
11041.9	-0.00619655
11051.2	-0.00585034
11060.5	-0.00550267
11074.5	-0.00497718
11083.9	-0.00462245
11093.2	-0.0041234
11102.6	-0.00359524
11111.9	-0.00304974
11121.3	-0.0024949
11130.6	-0.00193596
11144.6	-0.00109671
11154	-0.000539071
11163.3	1.61269e-05
11172.7	0.000567398
11182	0.00111373
11191.4	0.00165982
11200.7	0.0022083
11210.1	0.00275925
11224.1	0.00358891
11233.4	0.00414311
11242.8	0.00469761
11252.1	0.00525158
11261.5	0.00580231
11270.8	0.00634835
11280.2	0.00769642
11294.2	0.00960838
11303.5	0.0107508
11312.9	0.0117789
11322.2	0.0127165
11331.6	0.0135744
11340.9	0.0143599
11350.2	0.0150802
11364.3	0.0164962
11373.6	0.017242
11383	0.0178776
11392.3	0.0184251
11401.7	0.0190608
11411	0.0203539
11420.4	0.0219206
11434.5	0.0239817
11444	0.0252673
11453.4	0.0265638
11462.8	0.027878
11472.2	0.0291568
11481.7	0.0305128
11491.1	0.031986
11500.5	0.0335269
11510	0.0350686
11524.2	0.0373811
11533.7	0.0389985
11543.2	0.0407107
11552.8	0.042535
11562.3	0.0444464
11571.9	0.0464187
11581.5	0.0484164
11591	0.0503994
11600.6	0.0523287
11610.1	0.0541776
11624.5	0.0567915
11634	0.0584496
11643.6	0.0600628
11653.1	0.0616418
11662.7	0.0631854
11672.3	0.0646833
11681.8	0.0661218
11691.4	0.0674897
11700.9	0.0687798
11710.5	0.0699881
11720.1	0.0711118
11734.4	0.0726336
11744	0.0735385
11753.5	0.0743595
11763.1	0.0751037
11772.6	0.0757797
11782.2	0.0763947
11791.8	0.0769519
11801.3	0.0774494
11810.9	0.0778813
11820.4	0.0782409
11834.8	0.0786361
11844.3	0.0788065
11853.9	0.078912
11863.5	0.0789658
11873	0.0789825
11882.6	0.0789757
11892.1	0.0789566
11901.7	0.078933
11911.2	0.0789098
11920.8	0.0788893
11930.4	0.078872
11944.7	0.07885
11954.3	0.0788356
11963.8	0.0788195
11973.4	0.0788006
11982.9	0.0787787
11992.5	0.0787548
