0	0
23.0473	0
46.0938	0
69.1403	0
92.1867	0
115.233	0
138.28	-9.09495e-13
160.776	-2.72848e-12
183.272	-8.18545e-12
205.768	-1.81899e-11
228.264	-3.81988e-11
250.76	-7.45786e-11
273.255	-1.35515e-10
295.751	-2.32831e-10
318.245	-3.81078e-10
340.74	-5.96629e-10
363.234	-8.95852e-10
384.677	-1.27875e-09
406.12	-1.76897e-09
428.614	-2.40925e-09
451.108	-3.19142e-09
473.601	-4.1191e-09
495.044	-5.13683e-09
516.405	-6.25732e-09
537.767	-7.44876e-09
559.128	-8.64839e-09
580.489	-9.76252e-09
601.85	-1.06511e-08
623.211	-1.11158e-08
644.596	-1.10458e-08
665.981	-1.03546e-08
687.366	-8.94215e-09
708.751	-6.66569e-09
730.014	-3.33512e-09
751.277	1.14233e-09
772.541	6.78847e-09
793.804	1.3607e-08
815.067	2.16178e-08
836.331	3.08819e-08
857.715	4.15866e-08
879.098	5.39103e-08
900.482	6.81985e-08
921.866	8.49514e-08
943.164	1.04783e-07
964.548	1.2877e-07
985.931	1.58069e-07
1007.31	1.9426e-07
1028.7	2.39337e-07
1050.08	2.9574e-07
1071.46	3.66364e-07
1092.85	4.54569e-07
1114.23	5.64203e-07
1135.61	6.99668e-07
1157	8.65984e-07
1178.38	1.06886e-06
1199.76	1.31478e-06
1221.14	1.61105e-06
1242.53	1.96596e-06
1263.91	2.38887e-06
1285.22	2.88869e-06
1306.54	3.48363e-06
1327.85	4.19309e-06
1349.16	5.02799e-06
1370.48	5.99448e-06
1391.79	7.09837e-06
1413.1	8.3463e-06
1434.41	9.74653e-06
1455.73	1.13094e-05
1477.04	1.30482e-05
1498.35	1.4979e-05
1519.67	1.71218e-05
1540.98	1.95006e-05
1562.29	2.21441e-05
1583.6	2.5086e-05
1604.92	2.83651e-05
1626.23	3.20261e-05
1647.54	3.61192e-05
1668.85	4.06995e-05
1690.17	4.58059e-05
1711.48	5.14704e-05
1732.36	5.75971e-05
1753.24	6.43189e-05
1774.12	7.16688e-05
1795	7.96846e-05
1815.88	8.84109e-05
1836.77	9.79002e-05
1857.65	0.000108215
1878.53	0.000119427
1899.41	0.000131623
1920.29	0.000144902
1941.17	0.000159377
1962.05	0.000175169
1982.93	0.0001705
2003.81	0.000168102
2024.69	0.000167621
2045.58	0.000168809
2066.46	0.000171481
2087.34	0.000175499
2108.22	0.000180774
2129.1	0.000187257
2149.98	0.000194931
2170.86	0.000203812
2191.74	0.000213944
2212.62	0.000225396
2233.5	0.000238258
2254.38	0.000252646
2275.26	0.000268695
2296.14	0.000286556
2317.01	0.00030639
2337.89	0.000328383
2358.76	0.000352827
2379.64	0.000379268
2400.51	0.000407488
2421.38	0.00043741
2442.26	0.000469064
2463.14	0.000502542
2484.02	0.000538009
2504.9	0.000575694
2525.78	0.000615875
2546.66	0.000658889
2567.54	0.000705137
2588.42	0.000755097
2609.3	0.00080926
2630.18	0.000868105
2651.06	0.000932093
2671.94	0.00100169
2692.82	0.00107739
2713.7	0.00125767
2734.58	0.00143993
2755.46	0.00161885
2776.34	0.00179411
2797.22	0.00196759
2818.1	0.00214248
2838.98	0.00232266
2859.86	0.00251228
2880.74	0.00271566
2901.62	0.0029373
2922.5	0.00318197
2943.38	0.00344093
2964.26	0.00371322
2985.15	0.00400031
3006.03	0.00430571
3026.91	0.00463555
3047.79	0.00499888
3068.67	0.00590079
3089.55	0.00675974
3110.43	0.00751782
3131.31	0.00823544
3152.2	0.00900883
3173.08	0.00991959
3193.96	0.0110265
3214.9	0.0122836
3235.84	0.0136444
3256.78	0.0168439
3277.71	0.0199311
3298.65	0.0234209
3319.59	0.027361
3340.53	0.0316531
3361.47	0.0362464
3382.41	0.0414731
3403.35	0.0473188
3424.28	0.0534118
3445.22	0.0595654
3466.16	0.0658007
3487.1	0.0721497
3508.04	0.078757
3528.98	0.0857957
3549.91	0.0933436
3570.85	0.101406
3591.79	0.109964
3612.73	0.119014
3633.67	0.128579
3654.61	0.138701
3675.55	0.14941
3696.49	0.1607
3717.42	0.172542
3738.36	0.184902
3759.3	0.197754
3780.24	0.211082
3801.18	0.224883
3822.12	0.239165
3843.06	0.253932
3864	0.269179
3884.94	0.284884
3905.88	0.301008
3926.82	0.317493
3947.76	0.334265
3968.7	0.351235
3989.63	0.368288
4010.57	0.385292
4031.51	0.40209
4052.45	0.418505
4073.39	0.434344
4094.33	0.449403
4115.27	0.463467
4136.21	0.476314
4157.15	0.487724
4178.09	0.497473
4199.26	0.505428
4220.42	0.511249
4241.58	0.51473
4262.74	0.51568
4283.9	0.51392
4305.06	0.509293
4326.23	0.501663
4347.39	0.490915
4368.55	0.476959
4389.71	0.459737
4410.87	0.439227
4432.04	0.415441
4453.2	0.388415
4474.36	0.358242
4495.52	0.325107
4516.68	0.288858
4537.85	0.250006
4559.01	0.208897
4580.17	0.166536
4601.33	0.123685
4622.5	0.0721497
4643.66	0.0250503
4664.82	-0.0112916
4685.98	-0.0479948
4707.15	-0.0922999
4728.31	-0.12317
4749.47	-0.148161
4770.63	-0.163622
4791.8	-0.176676
4812.96	-0.190578
4834.12	-0.204793
4855.29	-0.218905
4876.71	-0.211635
4898.07	-0.220475
4919.43	-0.231409
4940.79	-0.238103
4962.15	-0.246708
4983.45	-0.253563
5004.71	-0.259181
5025.98	-0.263683
5047.24	-0.267412
5068.5	-0.270616
5089.77	-0.27343
5111.03	-0.276422
5132.29	-0.278879
5153.56	-0.280853
5174.82	-0.282428
5196.18	-0.283667
5217.54	-0.28458
5238.9	-0.285178
5260.27	-0.285475
5281.63	-0.279419
5303.01	-0.277538
5324.4	-0.278188
5345.78	-0.278519
5367.17	-0.27849
5388.55	-0.278138
5409.94	-0.277498
5431.32	-0.276601
5452.71	-0.27548
5474.09	-0.274168
5495.48	-0.272692
5516.86	-0.271076
5538.24	-0.269338
5559.63	-0.26749
5581.01	-0.265539
5602.4	-0.263489
5623.71	-0.261348
5645.03	-0.259109
5666.34	-0.256887
5687.65	-0.254541
5708.97	-0.252116
5730.28	-0.249573
5751.59	-0.246888
5772.91	-0.244067
5794.22	-0.241137
5815.53	-0.238135
5836.85	-0.235082
5858.16	-0.23199
5879.47	-0.228864
5900.79	-0.225706
5922.1	-0.222511
5943.41	-0.219275
5964.3	-0.216058
5985.18	-0.212788
6006.06	-0.209456
6026.94	-0.206056
6047.82	-0.211735
6068.7	-0.209592
6089.58	-0.207336
6110.47	-0.204483
6131.35	-0.20159
6152.23	-0.197052
6173.11	-0.192327
6193.99	-0.187569
6214.87	-0.182836
6235.75	-0.178147
6256.64	-0.173492
6277.52	-0.168852
6298.4	-0.1642
6319.28	-0.159513
6340.16	-0.154766
6361.04	-0.14994
6381.92	-0.145015
6402.81	-0.139977
6423.69	-0.134871
6444.57	-0.129777
6465.45	-0.124714
6486.33	-0.119674
6507.21	-0.114624
6528.09	-0.109518
6548.98	-0.104304
6569.86	-0.0931942
6590.74	-0.0834733
6611.62	-0.075257
6632.5	-0.0678762
6653.38	-0.0607047
6674.26	-0.0532558
6695.15	-0.0452754
6716.03	-0.0367057
6736.91	-0.0279425
6757.79	-0.0192853
6778.67	-0.00381547
6799.55	0.00959312
6820.43	0.024
6841.32	0.0379973
6862.2	0.0511968
6883.08	0.0627933
6903.96	0.0741955
6924.84	0.0844529
6945.72	0.0927928
6966.6	0.0993427
6987.49	0.104056
7008.37	0.10736
7029.25	0.109454
7050.13	0.110816
7071.01	0.111913
7091.89	0.112915
7112.77	0.113772
7133.66	0.11443
7154.54	0.114892
7175.42	0.115183
7196.3	0.115353
7217.18	0.115462
7238.06	0.115504
7258.94	0.115354
7279.82	0.114831
7300.71	0.113794
7321.59	0.112175
7342.47	0.109994
7363.34	0.10736
7384.22	0.104428
7405.09	0.101365
7425.97	0.0983111
7446.84	0.0953697
7467.71	0.0926042
7488.59	0.0900448
7509.46	0.0876939
7530.34	0.0855327
7551.22	0.0835286
7572.11	0.0816364
7592.99	0.0797993
7613.87	0.077952
7634.75	0.0760262
7655.63	0.0739554
7676.51	0.0716799
7697.39	0.0691517
7718.28	0.0663382
7739.16	0.0632268
7760.04	0.0598257
7780.92	0.0561625
7801.8	0.0522828
7822.68	0.0482564
7843.56	0.0441406
7864.44	0.0399196
7885.33	0.0356417
7906.21	0.0313316
7927.09	0.0270153
7947.97	0.0227663
7968.85	0.017356
7989.73	0.0129276
8010.61	0.00883996
8031.49	0.00566276
8052.38	0.00228642
8073.26	-0.00241448
8094.14	-0.00564096
8115.02	-0.0085513
8135.9	-0.0103137
8156.78	-0.0122668
8177.66	-0.0142735
8198.55	-0.0162993
8219.43	-0.0158579
8240.31	-0.0171503
8261.19	-0.0182594
8282.07	-0.0193734
8302.95	-0.0205906
8323.83	-0.0216834
8344.71	-0.022781
8365.6	-0.023884
8386.48	-0.0252453
8407.36	-0.0265926
8428.24	-0.028078
8449.12	-0.0301664
8470	-0.0319932
8490.88	-0.033649
8511.76	-0.0351863
8532.65	-0.0366469
8553.53	-0.0376066
8574.41	-0.038355
8595.29	-0.0393029
8616.17	-0.0399974
8637.05	-0.0406208
8657.93	-0.0411774
8678.82	-0.0416377
8699.7	-0.0420183
8720.58	-0.0423328
8741.46	-0.0425934
8762.34	-0.0428103
8783.22	-0.042991
8804.1	-0.0431399
8824.99	-0.0432609
8845.87	-0.0433569
8866.75	-0.0434318
8887.63	-0.0434884
8908.51	-0.0435308
8929.39	-0.0435684
8950.27	-0.0435997
8971.16	-0.0436214
8992.04	-0.0436326
9012.92	-0.0437946
9033.8	-0.0439138
9054.68	-0.0439941
9075.56	-0.0440381
9096.44	-0.0440476
9117.33	-0.0440233
9138.21	-0.0439655
9159.09	-0.0438743
9179.97	-0.0437491
9200.85	-0.0436172
9221.73	-0.0434614
9242.61	-0.0432794
9263.5	-0.0418759
9284.38	-0.0417057
9305.32	-0.0415253
9326.26	-0.0413304
9347.2	-0.0411173
9368.14	-0.0408825
9389.08	-0.040623
9410.02	-0.0403364
9430.96	-0.0400206
9451.9	-0.0396738
9472.84	-0.0392945
9493.78	-0.0388831
9514.72	-0.0384358
9535.66	-0.0379546
9556.6	-0.037441
9577.54	-0.0368964
9598.48	-0.0363218
9619.42	-0.0357182
9640.36	-0.0351027
9661.29	-0.0344727
9682.23	-0.0338263
9703.17	-0.0331624
9724.11	-0.0324804
9745.05	-0.0317799
9765.99	-0.0310601
9786.93	-0.0303228
9807.87	-0.029569
9828.81	-0.0287986
9849.75	-0.0280113
9870.69	-0.027207
9891.63	-0.0263855
9912.57	-0.0255463
9933.51	-0.0242603
9954.45	-0.0230342
9975.39	-0.0218432
9996.33	-0.0206711
10017.3	-0.0195069
10038.2	-0.0183435
10059.2	-0.0171761
10080.1	-0.0160003
10101	-0.0148534
10122	-0.0137253
10142.9	-0.0126051
10163.9	-0.0114826
10184.8	-0.0103498
10205.7	-0.00920055
10226.7	-0.00802964
10247.6	-0.00684309
10268.6	-0.00564116
10289.5	-0.00442099
10310.4	-0.00324809
10331.4	-0.00210142
10352.3	-0.00096127
10373.3	0.000188848
10394.2	0.00200619
10415.1	0.00385033
10436.3	0.00561827
10457.5	0.00733637
10478.6	0.00906592
10499.8	0.0108336
10520.9	0.0126377
10542.1	0.0145456
10563.3	0.0184891
10584.4	0.0226901
10605.6	0.0260026
10626.8	0.028992
10647.9	0.0318454
10670.2	0.0344304
10692.4	0.0366487
10714.7	0.0386218
10736.9	0.0403054
10759.2	0.0417858
10781.4	0.0429775
10803.7	0.0440742
10825.9	0.0450862
10848.2	0.0460347
10870.4	0.0469145
10892.7	0.0477498
10914.9	0.0485137
10937.2	0.0491818
10959.4	0.0497082
10981.7	0.0500819
11003.9	0.0502814
11026.2	0.050294
11048.4	0.0501234
11070.7	0.0497919
11092.9	0.0493347
11115.2	0.0487895
11137.4	0.0481836
11159.7	0.0475323
11181.9	0.0468371
11204.2	0.0460928
11226.4	0.0452921
11248.7	0.044429
11270.9	0.0435008
11293.2	0.0425087
11315.4	0.0414576
11337.7	0.0403557
11359.9	0.0392142
11382.2	0.038044
11404.4	0.0368546
11426.7	0.0356513
11449	0.0344361
11471.2	0.033207
11493.5	0.0319602
11515.7	0.0306911
11538	0.0293964
11560.2	0.0280751
11582.5	0.0267291
11604.7	0.025363
11627	0.0239839
11649.2	0.0226003
11671.5	0.0212215
11693.7	0.0198536
11716	0.0185013
11738.2	0.0171641
11760.5	0.015843
11782.7	0.0144538
11805	0.0130965
11827.2	0.0112246
11849.5	0.00968528
11871.7	0.00814915
11894	0.00771556
11916.2	0.00648312
11938.5	0.005686
11960.7	0.00466129
11983	0.00322875
