0	0
10.8999	0
20.5887	0
30.2774	0
41.177	0
50.8655	0
60.554	0
70.2423	0
81.1416	0
90.8298	0
100.518	0
110.206	0
121.105	0
130.793	0
140.473	0
150.115	0
160.863	0
170.374	0
181.063	0
190.563	0
200.063	0
210.751	0
220.251	0
230.937	0
240.435	0
251.116	0
260.603	0
270.09	0
280.763	3.63798e-12
290.251	1.09139e-11
300.924	1.90994e-11
310.411	2.63753e-11
321.084	3.45608e-11
330.571	4.91127e-11
340.058	6.36646e-11
350.731	8.4583e-11
360.217	1.06411e-10
370.876	1.39153e-10
380.35	1.74623e-10
390.942	2.21007e-10
400.321	2.71029e-10
410.834	3.38332e-10
420.138	4.08363e-10
430.535	5.00222e-10
440.853	6.08452e-10
450.01	7.1941e-10
460.317	8.64929e-10
470.623	1.0341e-09
480.93	1.22873e-09
490.082	1.427e-09
500.368	1.68166e-09
510.608	1.96997e-09
520.788	2.29829e-09
530.966	2.6721e-09
540.012	3.04681e-09
550.181	3.51974e-09
560.338	4.05362e-09
570.489	4.6557e-09
580.635	5.33419e-09
590.776	6.09543e-09
600.918	6.94945e-09
611.06	7.90624e-09
620.075	8.85393e-09
630.216	1.00381e-08
640.358	1.13587e-08
650.499	1.28239e-08
660.641	1.44419e-08
670.783	1.6219e-08
680.924	1.81608e-08
691.066	2.02735e-08
700.079	2.22999e-08
710.205	2.47492e-08
720.318	2.73822e-08
730.43	3.02061e-08
740.542	3.3222e-08
750.654	3.6428e-08
760.767	3.98186e-08
770.879	4.3392e-08
780.991	4.71409e-08
791.103	5.1059e-08
800.092	5.46779e-08
810.204	5.88934e-08
820.316	6.32563e-08
830.428	6.77646e-08
840.54	7.24094e-08
850.652	7.71843e-08
860.764	8.20864e-08
870.876	8.71123e-08
880.988	9.22591e-08
891.1	9.75278e-08
900.089	1.02316e-07
910.201	1.07824e-07
920.312	1.13466e-07
930.424	1.19253e-07
940.536	1.25191e-07
950.648	1.31299e-07
960.76	1.37595e-07
970.872	1.44102e-07
980.983	1.50845e-07
991.095	1.57855e-07
1000.08	1.64338e-07
1010.2	1.71954e-07
1020.31	1.79954e-07
1030.42	1.88391e-07
1040.53	1.97323e-07
1050.64	2.06813e-07
1060.75	2.16931e-07
1070.87	2.27756e-07
1080.98	2.39372e-07
1091.09	2.51875e-07
1100.08	2.63816e-07
1110.19	2.78281e-07
1120.3	2.93951e-07
1130.41	3.10957e-07
1140.52	3.29436e-07
1150.63	3.49522e-07
1160.74	3.71389e-07
1170.84	3.95205e-07
1180.95	4.21145e-07
1191.06	4.494e-07
1200.05	4.76617e-07
1210.16	5.09795e-07
1220.26	5.45894e-07
1230.37	5.85152e-07
1240.48	6.27811e-07
1250.59	6.74136e-07
1260.7	7.24395e-07
1270.81	7.78876e-07
1280.91	8.37883e-07
1291.02	9.01706e-07
1301.12	9.70647e-07
1310.07	1.0364e-06
1320.15	1.11582e-06
1330.21	1.20139e-06
1340.27	1.29346e-06
1350.33	1.39246e-06
1360.37	1.49862e-06
1370.4	1.61257e-06
1380.43	1.73528e-06
1390.46	1.86742e-06
1400.49	2.00934e-06
1410.52	2.16127e-06
1420.55	2.32343e-06
1430.58	2.49596e-06
1440.61	2.67902e-06
1450.64	2.87276e-06
1460.68	3.0773e-06
1470.68	3.29232e-06
1480.68	3.51815e-06
1490.67	3.75513e-06
1500.66	4.00364e-06
1510.64	4.26399e-06
1520.63	4.53652e-06
1530.62	4.82161e-06
1540.61	5.11973e-06
1550.6	5.43139e-06
1560.59	5.75715e-06
1570.55	6.09671e-06
1580.51	6.45159e-06
1590.44	6.82145e-06
1600.28	7.2048e-06
1610.13	7.60558e-06
1621.07	8.0725e-06
1630.91	8.51327e-06
1640.76	8.97463e-06
1650.6	9.45773e-06
1660.45	9.9638e-06
1670.29	1.04941e-05
1680.14	1.105e-05
1691.08	1.16995e-05
1700.92	1.23143e-05
1710.77	1.29593e-05
1720.61	1.36362e-05
1730.46	1.43467e-05
1740.3	1.50926e-05
1750.15	1.58755e-05
1761.09	1.67908e-05
1770.93	1.76568e-05
1780.78	1.8564e-05
1790.62	1.95133e-05
1800.47	2.05059e-05
1810.31	2.15424e-05
1820.16	2.26239e-05
1830	2.37512e-05
1840.94	2.50584e-05
1850.79	2.62852e-05
1860.63	2.75607e-05
1870.48	2.88858e-05
1880.32	3.02616e-05
1890.17	3.16892e-05
1900.01	3.31701e-05
1910.95	3.48795e-05
1920.8	3.64772e-05
1930.64	3.81328e-05
1940.48	3.98479e-05
1950.33	4.16245e-05
1960.17	4.34647e-05
1970.02	4.53706e-05
1980.96	4.75683e-05
1990.8	4.96208e-05
2000.65	5.17468e-05
2010.49	5.39489e-05
2020.34	5.62301e-05
2030.18	5.85933e-05
2040.03	6.10417e-05
2050.97	6.38661e-05
2060.81	6.65053e-05
2070.65	6.92404e-05
2080.5	7.20752e-05
2090.34	7.50136e-05
2100.19	7.60231e-05
2110.03	7.46972e-05
2120.97	7.34988e-05
2130.82	7.26502e-05
2140.66	7.20048e-05
2150.51	7.15502e-05
2160.35	7.12745e-05
2170.19	7.11667e-05
2180.04	7.1217e-05
2190.98	7.1448e-05
2200.82	7.1805e-05
2210.67	7.22963e-05
2220.51	7.29163e-05
2230.36	7.36599e-05
2240.2	7.4523e-05
2250.04	7.55023e-05
2260.98	7.67233e-05
2270.83	7.79397e-05
2280.67	7.92658e-05
2290.52	8.0701e-05
2300.36	8.22449e-05
2310.2	8.38979e-05
2320.05	8.56608e-05
2330.99	8.77499e-05
2340.83	8.97494e-05
2350.68	9.1864e-05
2360.52	9.40963e-05
2370.36	9.64492e-05
2380.21	9.89256e-05
2390.05	0.000101529
2400.99	0.000104576
2410.84	0.000107461
2420.68	0.000110485
2430.52	0.000113653
2440.37	0.000116971
2450.21	0.000120442
2460.06	0.000124073
2470.99	0.000128301
2480.26	0.000132049
2490.11	0.000136184
2501.05	0.000140953
2510.89	0.000145391
2520.73	0.00014996
2530.58	0.000154657
2540.42	0.000159478
2550.27	0.000164422
2560.11	0.000169491
2571.05	0.00017527
2580.89	0.000180608
2590.74	0.000186079
2600.58	0.000191689
2610.43	0.000197443
2620.27	0.000203348
2630.12	0.000209413
2641.05	0.00021635
2650.9	0.000222781
2660.7	0.00022937
2670.5	0.000236157
2680.29	0.000243156
2690.09	0.000250377
2700.98	0.000258678
2710.78	0.000266412
2720.57	0.000274407
2730.37	0.000282677
2740.17	0.000291234
2751.06	0.000301091
2760.85	0.000310292
2770.65	0.000319817
2780.45	0.000329678
2790.25	0.000339889
2800.05	0.000350464
2810.93	0.000362657
2820.73	0.000374045
2830.53	0.000385844
2840.33	0.000398069
2850.13	0.000424449
2861.01	0.000458082
2870.81	0.000488156
2880.61	0.00051799
2890.41	0.000547565
2900.2	0.000576893
2910	0.000606005
2920.89	0.000638159
2930.69	0.000666995
2940.48	0.000695812
2950.28	0.000724697
2960.08	0.00075374
2970.97	0.000786314
2980.76	0.000816015
2990.56	0.000846186
3000.36	0.000876929
3010.16	0.000908347
3021.04	0.000944169
3030.84	0.000977341
3040.64	0.00101149
3050.44	0.00104662
3060.23	0.00108257
3070.03	0.00111924
3080.92	0.00116075
3090.72	0.00119877
3100.51	0.00123746
3110.31	0.00127687
3120.11	0.00131708
3130.99	0.00136282
3140.79	0.0014051
3150.59	0.00144858
3160.39	0.00149344
3170.18	0.00153982
3181.07	0.00159335
3190.87	0.00164348
3200.67	0.00169561
3210.46	0.0017499
3220.26	0.00180651
3230.06	0.00187377
3240.94	0.0020199
3250.74	0.00214441
3260.54	0.00226296
3270.34	0.00237688
3280.13	0.00248778
3291.02	0.00260953
3300.82	0.00271967
3310.61	0.00283201
3320.41	0.00294804
3330.21	0.0030688
3340.01	0.00319357
3350.89	0.00333616
3360.69	0.00346825
3370.49	0.00360472
3380.28	0.00374681
3390.08	0.00389608
3400.97	0.00407223
3410.77	0.00424149
3420.56	0.00452088
3430.36	0.00487222
3440.16	0.00521156
3451.04	0.00558522
3460.84	0.00593039
3470.64	0.00629277
3480.44	0.00666732
3490.23	0.00705237
3500.03	0.00745722
3510.92	0.00804578
3520.71	0.00885478
3530.51	0.00958098
3540.31	0.0103491
3550.1	0.0111783
3560.99	0.0126443
3570.79	0.0142045
3580.59	0.0163079
3590.38	0.0203955
3600.18	0.0274247
3611.07	0.0333822
3620.86	0.0385589
3630.66	0.0436084
3640.46	0.0483879
3650.26	0.0527805
3660.05	0.0568324
3670.94	0.0613459
3680.74	0.0654439
3690.53	0.0694331
3700.33	0.0731924
3710.13	0.0767902
3721.02	0.080725
3730.81	0.0842254
3740.61	0.0876429
3750.41	0.0910082
3760.21	0.0944095
3770	0.0978629
3780.89	0.101669
3790.69	0.105005
3800.49	0.10828
3810.28	0.111551
3820.08	0.11484
3830.97	0.118517
3840.77	0.121871
3850.56	0.125312
3860.36	0.12886
3870.16	0.1325
3881.05	0.136624
3890.92	0.140426
3900.8	0.1443
3910.69	0.148248
3920.57	0.152276
3930.45	0.156389
3940.34	0.16059
3950.22	0.164868
3960.1	0.169199
3971.08	0.174052
3980.97	0.178448
3990.85	0.182872
4000.73	0.187334
4010.62	0.191852
4020.51	0.196449
4030.4	0.201144
4040.29	0.205954
4050.18	0.210888
4060.07	0.215958
4071.06	0.221781
4080.95	0.227227
4090.84	0.232908
4100.73	0.238865
4110.62	0.24514
4120.51	0.251773
4130.4	0.258805
4140.29	0.266279
4150.18	0.274249
4160.08	0.282778
4171.09	0.293
4181	0.302948
4190.94	0.313708
4200.89	0.325352
4210.86	0.33796
4220.83	0.351581
4230.8	0.366284
4240.79	0.382145
4250.78	0.399219
4260.83	0.417629
4270.87	0.437331
4280.91	0.458345
4290.95	0.480667
4301	0.504268
4311.04	0.529097
4321.08	0.555074
4330.01	0.579049
4340.05	0.606906
4350.09	0.635564
4360.14	0.664858
4370.18	0.694599
4380.22	0.72457
4390.26	0.754525
4400.31	0.784192
4410.35	0.813272
4420.39	0.841447
4430.43	0.868379
4440.48	0.893716
4450.52	0.917091
4460.56	0.938125
4470.61	0.956424
4480.65	0.971587
4490.69	0.983203
4500.73	0.990858
4510.78	0.994144
4520.82	0.992663
4530.86	0.986037
4540.9	0.973913
4550.95	0.955974
4560.99	0.931944
4571.03	0.901601
4581.08	0.864784
4590	0.826545
4600.04	0.777305
4610.09	0.721525
4620.13	0.659314
4630.17	0.590808
4640.22	0.516131
4650.26	0.435329
4660.3	0.348316
4670.34	0.254821
4680.39	0.154348
4690.43	0.0469525
4700.47	-0.0494258
4710.52	-0.0875433
4720.56	-0.12684
4730.6	-0.140732
4740.64	-0.167265
4750.69	-0.186574
4760.75	-0.201381
4770.84	-0.214859
4780.93	-0.220322
4791.02	-0.232861
4801.11	-0.242652
4810.09	-0.249888
4820.2	-0.256882
4830.31	-0.262428
4840.42	-0.267841
4850.54	-0.273038
4860.65	-0.277879
4870.76	-0.270755
4880.87	-0.272339
4890.7	-0.27771
4900.81	-0.282373
4910.92	-0.286292
4921.04	-0.289587
4930.02	-0.292097
4940.14	-0.29455
4950.25	-0.296708
4960.36	-0.298651
4970.47	-0.299937
4980.58	-0.301305
4990.7	-0.30253
5000.81	-0.30376
5010.92	-0.304969
5021.03	-0.306133
5030.02	-0.307113
5040.12	-0.308142
5050.23	-0.309068
5060.34	-0.301724
5070.45	-0.302748
5080.56	-0.303696
5090.66	-0.305169
5100.77	-0.306467
5110.88	-0.307593
5120.99	-0.308535
5131.1	-0.309296
5140.08	-0.309839
5150.19	-0.310317
5160.3	-0.310662
5170.41	-0.31089
5180.52	-0.31101
5190.62	-0.311031
5200.73	-0.310962
5210.82	-0.310811
5220.9	-0.310585
5230.97	-0.310289
5241.03	-0.30993
5251.09	-0.309497
5260.01	-0.309057
5270.05	-0.308522
5280.08	-0.307953
5290.11	-0.307345
5300.14	-0.306471
5310.17	-0.30558
5320.2	-0.30467
5330.23	-0.30374
5340.27	-0.302788
5350.3	-0.301812
5360.33	-0.300812
5370.36	-0.299785
5380.39	-0.298733
5390.42	-0.297655
5400.45	-0.296552
5410.46	-0.295428
5420.46	-0.294272
5430.46	-0.293083
5440.45	-0.29187
5450.44	-0.283819
5460.43	-0.283171
5470.41	-0.282516
5480.4	-0.281856
5490.39	-0.281191
5500.38	-0.280525
5510.37	-0.279858
5520.34	-0.279191
5530.29	-0.278526
5540.2	-0.277868
5550.04	-0.27722
5560.98	-0.276508
5570.83	-0.275875
5580.67	-0.275252
5590.52	-0.274638
5600.36	-0.274033
5610.21	-0.273438
5620.05	-0.272853
5630.99	-0.272212
5640.84	-0.271643
5650.68	-0.27108
5660.53	-0.270522
5670.37	-0.269968
5680.22	-0.269416
5690.06	-0.268866
5701	-0.268254
5710.85	-0.267699
5720.69	-0.26714
5730.54	-0.266573
5740.38	-0.265996
5750.23	-0.265407
5760.07	-0.264803
5771.01	-0.264112
5780.86	-0.263469
5790.7	-0.262805
5800.55	-0.26213
5810.39	-0.261527
5820.24	-0.260873
5830.08	-0.260168
5841.02	-0.259328
5850.87	-0.258519
5860.71	-0.257662
5870.56	-0.256686
5880.4	-0.255608
5890.25	-0.254484
5900.09	-0.253315
5911.03	-0.251966
5920.88	-0.250708
5930.72	-0.24941
5940.57	-0.248075
5950.41	-0.246702
5960.26	-0.245295
5970.1	-0.243853
5981.04	-0.242213
5990.89	-0.240704
6000.73	-0.239166
6010.58	-0.237599
6020.42	-0.236005
6030.27	-0.234386
6040.11	-0.233176
6051.05	-0.23198
6060.89	-0.230821
6070.74	-0.229596
6080.58	-0.228313
6090.43	-0.226978
6100.27	-0.225597
6110.12	-0.224175
6121.06	-0.222549
6130.9	-0.221048
6140.75	-0.219514
6150.59	-0.217948
6160.44	-0.216351
6170.28	-0.214724
6180.13	-0.213067
6191.07	-0.211182
6200.91	-0.209448
6210.76	-0.207683
6220.6	-0.205889
6230.45	-0.204069
6240.29	-0.202225
6250.14	-0.20036
6261.08	-0.198272
6270.92	-0.196386
6280.77	-0.194499
6290.61	-0.192614
6300.45	-0.190734
6310.3	-0.188861
6320.14	-0.186995
6331.08	-0.18493
6340.93	-0.183077
6350.77	-0.181228
6360.62	-0.179382
6370.46	-0.177537
6380.31	-0.175691
6390.15	-0.173841
6401.09	-0.17178
6410.94	-0.169919
6420.78	-0.168049
6430.63	-0.16617
6440.47	-0.16428
6450.32	-0.161018
6460.16	-0.157832
6470.01	-0.154738
6480.95	-0.151412
6490.79	-0.148509
6500.64	-0.145678
6510.48	-0.142899
6520.33	-0.140156
6530.17	-0.137431
6540.02	-0.134707
6550.96	-0.131667
6560.8	-0.128922
6570.65	-0.126185
6580.49	-0.123462
6590.34	-0.120749
6600.18	-0.118034
6610.03	-0.115304
6620.97	-0.112231
6630.81	-0.109416
6640.66	-0.105548
6650.5	-0.100598
6660.35	-0.095893
6670.19	-0.0913766
6680.04	-0.0869483
6690.98	-0.0820229
6700.82	-0.0775236
6710.67	-0.0730118
6720.51	-0.0685481
6730.36	-0.0640899
6740.2	-0.0595579
6750.07	-0.0519941
6761.05	-0.0446805
6770.9	-0.0382087
6780.69	-0.0315659
6790.49	-0.0246887
6800.29	-0.0136481
6810.09	-0.00310606
6820.97	0.0144058
6830.77	0.039199
6840.57	0.0563866
6850.37	0.0674327
6860.17	0.075866
6871.05	0.0817668
6880.85	0.0846162
6890.65	0.0849077
6900.45	0.0845733
6910.25	0.0851036
6920.04	0.086293
6930.93	0.0872339
6940.73	0.0871671
6950.53	0.0867288
6960.32	0.0865225
6970.12	0.0867094
6981.01	0.0870229
6990.81	0.0874181
7000.6	0.0883122
7010.4	0.0897025
7020.2	0.0910403
7031.09	0.091874
7040.88	0.0920859
7050.68	0.0921418
7060.48	0.0922097
7070.28	0.0921798
7080.08	0.0919491
7090.96	0.0915837
7100.76	0.091318
7110.56	0.0910754
7120.36	0.0906769
7130.15	0.0900198
7141.04	0.0890835
7150.84	0.088239
7160.64	0.0875276
7170.43	0.0870126
7180.23	0.0867021
7190.03	0.0865212
7200.92	0.086259
7210.71	0.0857462
7220.51	0.0848476
7230.31	0.0835708
7240.11	0.0820077
7250.99	0.0800859
7260.79	0.0783354
7270.59	0.0766921
7280.39	0.0752239
7290.19	0.0739101
7301.07	0.0725229
7310.87	0.0712457
7320.67	0.0699209
7330.47	0.0686063
7340.26	0.0674027
7350.06	0.0664125
7360.95	0.0656477
7370.75	0.0652781
7380.54	0.0651645
7390.34	0.0652191
7400.14	0.0653454
7411.03	0.0654825
7420.82	0.0655706
7430.62	0.0656368
7440.42	0.0657195
7450.22	0.0658646
7460.02	0.0661071
7470.9	0.0665063
7480.7	0.0669734
7490.5	0.0675249
7500.3	0.0681481
7510.09	0.0688414
7520.98	0.069702
7530.78	0.0705645
7540.58	0.0715052
7550.37	0.0725017
7560.17	0.0735162
7571.06	0.0746106
7580.86	0.0755238
7590.65	0.0763467
7600.45	0.0770787
7610.25	0.0777363
7620.05	0.0783445
7630.93	0.078991
7640.73	0.0795621
7650.53	0.0801268
7660.33	0.0806827
7670.13	0.0812308
7681.01	0.0818458
7690.81	0.0824338
7700.61	0.0830913
7710.41	0.0838517
7720.21	0.0847348
7730	0.0857381
7740.89	0.0869627
7750.69	0.0881186
7760.49	0.0892805
7770.28	0.0904174
7780.08	0.0915196
7790.97	0.0927209
7800.77	0.0938163
7810.56	0.094966
7820.36	0.0962051
7830.23	0.0975654
7840.11	0.0990482
7851.09	0.100828
7860.97	0.10253
7870.86	0.104312
7880.74	0.106155
7890.62	0.108046
7900.51	0.109963
7910.39	0.111879
7920.27	0.113756
7930.16	0.115547
7940.04	0.117203
7951.02	0.118829
7960.91	0.120068
7970.79	0.12108
7980.67	0.12187
7990.56	0.122457
8000.44	0.122867
8010.32	0.123129
8020.21	0.123268
8030.09	0.1233
8041.07	0.123226
8050.95	0.123067
8060.84	0.122824
8070.72	0.122499
8080.6	0.12209
8090.49	0.121593
8100.38	0.121
8110.27	0.1203
8120.16	0.119478
8130.05	0.11852
8141.04	0.117283
8150.93	0.116009
8160.82	0.114583
8170.71	0.113015
8180.6	0.11132
8190.49	0.109514
8200.38	0.107618
8210.27	0.105648
8220.16	0.103621
8230.05	0.101548
8241.04	0.0992031
8250.93	0.0970604
8260.82	0.0948865
8270.73	0.0926781
8280.64	0.090427
8290.55	0.0881258
8300.48	0.0857598
8310.43	0.083317
8320.38	0.080794
8330.33	0.0781857
8340.3	0.0754874
8350.27	0.0727077
8360.24	0.0698534
8370.22	0.0669338
8380.19	0.0639611
8390.18	0.0609422
8400.18	0.0578962
8410.19	0.0548328
8420.24	0.0517672
8430.28	0.0487255
8440.32	0.0457256
8450.37	0.042784
8460.41	0.0399143
8470.45	0.037126
8480.5	0.0344238
8490.54	0.0318079
8500.58	0.0292749
8510.62	0.0268193
8520.67	0.0244347
8530.71	0.022116
8540.75	0.0198596
8550.8	0.0176646
8560.84	0.015532
8570.88	0.0134648
8580.92	0.0114664
8590.97	0.00897686
8601.01	0.00710942
8611.05	0.00532702
8621.1	0.00235904
8630.02	-0.000768424
8640.07	-0.00445872
8650.11	-0.00790986
8660.15	-0.00947967
8670.2	-0.0134121
8680.24	-0.016678
8690.28	-0.0194357
8700.32	-0.0218827
8710.35	-0.0241282
8720.39	-0.0262522
8730.42	-0.0244197
8740.45	-0.0261533
8750.48	-0.0283479
8760.51	-0.0307388
8770.54	-0.0328389
8780.57	-0.0347357
8790.6	-0.03649
8800.63	-0.0381429
8810.66	-0.0397213
8820.69	-0.0412417
8830.72	-0.0427066
8840.75	-0.0440961
8850.78	-0.0454363
8860.81	-0.0467267
8870.84	-0.0479656
8880.87	-0.0491503
8890.9	-0.0502784
8900.93	-0.0513488
8910.97	-0.0528073
8921	-0.0536206
8931.02	-0.0543194
8941.03	-0.0549138
8951.02	-0.0554217
8961.01	-0.0558585
8971	-0.0562388
8980.99	-0.0565756
8990.98	-0.05688
9000.97	-0.0571611
9010.95	-0.0574267
9020.94	-0.0576831
9030.93	-0.0579355
9040.92	-0.0581881
9050.91	-0.0585501
9060.85	-0.0589013
9070.81	-0.0591609
9080.75	-0.0594334
9090.6	-0.0597132
9100.44	-0.0600003
9110.29	-0.060292
9120.13	-0.0605859
9131.07	-0.0609121
9140.92	-0.0612035
9150.76	-0.0614911
9160.61	-0.0617734
9170.45	-0.0620495
9180.3	-0.0623184
9190.14	-0.0625793
9201.08	-0.0628594
9210.93	-0.0631008
9220.77	-0.0589235
9230.62	-0.0593613
9240.46	-0.0597843
9250.31	-0.0601911
9260.15	-0.0605823
9271.09	-0.0609978
9280.94	-0.0613514
9290.78	-0.0616863
9300.63	-0.0620033
9310.47	-0.062303
9320.32	-0.062586
9330.16	-0.0628528
9340.01	-0.063104
9350.95	-0.0633652
9360.79	-0.0635847
9370.64	-0.0637896
9380.48	-0.063979
9390.33	-0.0641535
9400.17	-0.0643138
9410.02	-0.0644599
9420.96	-0.0646061
9430.8	-0.0647233
9440.65	-0.0648272
9450.49	-0.0649181
9460.34	-0.0649965
9470.18	-0.0650627
9480.03	-0.0651171
9490.97	-0.0651643
9500.81	-0.0651953
9510.66	-0.0652158
9520.5	-0.0652263
9530.35	-0.0652272
9540.19	-0.0652185
9550.04	-0.0651975
9560.98	-0.0651599
9570.82	-0.0651502
9580.67	-0.0651977
9590.51	-0.0651875
9600.36	-0.0651445
9610.2	-0.0650912
9620.05	-0.0650282
9630.99	-0.0649473
9640.83	-0.0648654
9650.68	-0.0647752
9660.52	-0.0646772
9670.37	-0.0645716
9680.21	-0.0644589
9690.06	-0.0643393
9701	-0.0641986
9710.84	-0.0640652
9720.69	-0.0639255
9730.53	-0.0637797
9740.38	-0.063628
9750.22	-0.0634704
9760.07	-0.063307
9771.01	-0.0631188
9780.85	-0.0629434
9790.7	-0.0627624
9800.54	-0.0625758
9810.39	-0.0623837
9820.23	-0.0621861
9830.08	-0.0619831
9841.02	-0.0617512
9850.86	-0.0615368
9860.71	-0.061317
9870.55	-0.0610921
9880.4	-0.0608619
9890.24	-0.0606267
9900.09	-0.0603866
9911.03	-0.0601143
9920.87	-0.0599414
9930.72	-0.0597125
9940.56	-0.0594817
9950.41	-0.0592489
9960.25	-0.0590137
9970.1	-0.0587763
9981.04	-0.0585094
9990.88	-0.0582666
10000.7	-0.0580212
10010.6	-0.0577731
10020.4	-0.0575222
10030.3	-0.0572681
10040.1	-0.0570095
10051	-0.0567165
10060.9	-0.0564478
10070.7	-0.0561745
10080.6	-0.0558662
10090.4	-0.0554941
10100.3	-0.0551196
10110.1	-0.0547429
10121.1	-0.0543217
10130.9	-0.0539403
10140.7	-0.0535568
10150.6	-0.0531711
10160.4	-0.0527833
10170.3	-0.0523934
10180.1	-0.0520013
10191.1	-0.0515632
10200.9	-0.0511667
10210.8	-0.050768
10220.6	-0.0503672
10230.4	-0.0499662
10240.3	-0.0495651
10250.1	-0.0491638
10261.1	-0.0487171
10270.9	-0.0483142
10280.8	-0.0479101
10290.6	-0.0475048
10300.5	-0.047098
10310.3	-0.0466898
10320.1	-0.0462799
10331	-0.0458244
10340.8	-0.0454127
10350.6	-0.0449992
10360.4	-0.0445837
10370.2	-0.0441662
10380	-0.0437467
10390.9	-0.0432781
10400.7	-0.0428542
10410.5	-0.0424282
10420.3	-0.0420002
10430.1	-0.0415703
10441	-0.0410903
10450.8	-0.0406564
10460.6	-0.0402207
10470.4	-0.0397833
10480.2	-0.0393444
10491.1	-0.0388551
10500.9	-0.0384136
10510.7	-0.0379712
10520.5	-0.0375279
10530.3	-0.037084
10540.1	-0.0366395
10550.9	-0.0361453
10560.7	-0.0357002
10570.5	-0.035255
10580.3	-0.0348097
10590.1	-0.0343645
10601	-0.0338701
10610.8	-0.0334253
10620.6	-0.0329808
10630.4	-0.0325372
10640.2	-0.0320946
10650	-0.0316529
10660.9	-0.0311633
10670.7	-0.0307238
10680.5	-0.0302317
10690.3	-0.029746
10700.1	-0.0292666
10711	-0.0287411
10720.8	-0.0282744
10730.6	-0.0278133
10740.4	-0.0273578
10750.2	-0.0269075
10761.1	-0.0264142
10770.9	-0.0259777
10780.7	-0.0255479
10790.5	-0.0251244
10800.3	-0.0247068
10810.1	-0.0242946
10820.9	-0.0238424
10830.7	-0.0234404
10840.5	-0.0230426
10850.3	-0.0226489
10860.1	-0.0222588
10871	-0.0218294
10880.8	-0.0214409
10890.6	-0.0210255
10900.4	-0.0206304
10910.2	-0.0202525
10920	-0.0198889
10930.9	-0.0194989
10940.7	-0.0191582
10950.5	-0.0188253
10960.3	-0.0184987
10970.1	-0.0181773
10981	-0.0178288
10990.8	-0.017523
11000.6	-0.0172236
11010.4	-0.0169296
11020.2	-0.0166401
11031.1	-0.0163223
11040.8	-0.0160388
11050.6	-0.0157567
11060.4	-0.0154753
11070.2	-0.0151936
11080	-0.0149111
11090.9	-0.0145957
11100.7	-0.0143098
11110.5	-0.0140221
11120.3	-0.0137324
11130.1	-0.0134407
11141	-0.013114
11150.8	-0.0128173
11160.6	-0.0125178
11170.4	-0.0122153
11180.2	-0.0119094
11191.1	-0.0115654
11200.9	-0.0112519
11210.7	-0.0109403
11220.5	-0.0106324
11230.3	-0.0103268
11240.1	-0.010022
11251	-0.00968275
11260.8	-0.00937561
11270.6	-0.00906571
11280.4	-0.00875221
11290.2	-0.00843446
11301	-0.00798514
11310.8	-0.00749943
11320.6	-0.00699359
11330.4	-0.00647621
11340.2	-0.00595292
11350	-0.00542725
11360.9	-0.00484281
11370.7	-0.00431759
11380.5	-0.00379419
11390.3	-0.00327385
11400.1	-0.00275723
11411	-0.00218743
11420.8	-0.00167564
11430.6	-0.00115937
11440.4	-0.000638292
11450.2	-0.000112624
11461.1	0.000474267
11470.9	0.00100307
11480.7	0.0015316
11490.5	0.00233667
11500.3	0.00366165
11510.1	0.00489612
11521	0.00613824
11530.7	0.00713889
11540.5	0.00803529
11550.3	0.00885248
11560.1	0.00961782
11571	0.0104095
11580.8	0.0113133
11590.6	0.0121971
11600.4	0.0129597
11610.2	0.0136457
11620	0.0142978
11630.9	0.015008
11640.7	0.0160717
11650.5	0.0171862
11660.3	0.0196335
11670.1	0.0228578
11681	0.0253225
11690.8	0.0277578
11700.6	0.030386
11710.4	0.0330858
11720.2	0.0358962
11731.1	0.0390092
11740.9	0.0419238
11750.7	0.0449836
11760.5	0.0480497
11770.3	0.0511068
11780.1	0.0541967
11790.9	0.057624
11800.7	0.0606455
11810.5	0.0635705
11820.3	0.0663682
11830.1	0.0689797
11841.1	0.0715607
11851	0.0735178
11860.8	0.0751371
11870.7	0.0764885
11880.6	0.0776428
11890.5	0.0786452
11900.4	0.0795233
11910.3	0.0802995
11920.1	0.0809888
11930	0.0815975
11941	0.0821853
11950.9	0.0826454
11960.8	0.0830572
11970.7	0.0834413
11980.6	0.0838174
11990.4	0.0841978
