0	0
11.4131	0
20.5435	0
31.9565	0
41.0867	0
50.217	0
61.6297	0
70.7597	0
82.1723	0
91.3022	0
100.432	0
111.845	0
120.948	0
132.167	0
141.14	0
150.108	0
161.306	0
170.264	0
181.461	0
190.419	0
201.608	-2.72848e-12
210.557	-6.36646e-12
221.749	-1.09139e-11
230.703	-1.45519e-11
241.9	-1.90994e-11
250.858	-2.27374e-11
262.055	-2.72848e-11
271.013	-3.45608e-11
282.21	-4.36557e-11
291.168	-5.09317e-11
300.125	-5.91172e-11
311.322	-7.27596e-11
320.28	-8.36735e-11
331.476	-1.00954e-10
340.434	-1.15506e-10
351.571	-1.37334e-10
360.409	-1.55524e-10
371.483	-1.81899e-10
380.357	-2.03727e-10
391.436	-2.35559e-10
400.21	-2.61025e-10
411.06	-2.94676e-10
421.863	-3.31056e-10
430.495	-3.6016e-10
441.284	-3.9654e-10
452.073	-4.311e-10
460.705	-4.56566e-10
471.431	-4.82942e-10
482.135	-5.02041e-10
490.703	-5.09317e-10
501.366	-5.06589e-10
512.022	-4.8567e-10
520.548	-4.52019e-10
531.188	-3.84716e-10
541.82	-2.82853e-10
550.33	-1.70076e-10
560.96	1.63709e-11
571.589	2.58296e-10
580.092	4.94765e-10
590.721	8.4674e-10
601.35	1.26511e-09
611.979	1.74714e-09
620.483	2.18461e-09
631.112	2.79397e-09
641.74	3.47791e-09
650.244	4.07726e-09
660.872	4.89126e-09
671.501	5.77165e-09
682.11	6.70843e-09
690.59	7.49424e-09
701.183	8.51105e-09
711.776	9.55697e-09
720.25	1.04083e-08
730.843	1.14806e-08
741.436	1.25492e-08
752.029	1.36033e-08
760.503	1.44273e-08
771.096	1.54259e-08
781.689	1.63791e-08
790.163	1.7103e-08
800.756	1.79525e-08
811.349	1.87347e-08
821.942	1.9445e-08
830.416	1.99598e-08
841.009	2.05364e-08
851.601	2.10412e-08
860.075	2.13968e-08
870.668	2.17879e-08
881.261	2.21316e-08
891.853	2.24454e-08
900.327	2.26892e-08
910.92	2.30038e-08
921.512	2.33613e-08
932.105	2.37978e-08
940.579	2.42335e-08
951.171	2.49283e-08
961.764	2.58442e-08
970.238	2.67801e-08
980.83	2.82644e-08
991.422	3.01743e-08
1002.01	3.25972e-08
1010.49	3.4971e-08
1021.08	3.8568e-08
1031.67	4.29691e-08
1040.15	4.71518e-08
1050.74	5.33146e-08
1061.33	6.06478e-08
1071.92	6.93026e-08
1080.4	7.7288e-08
1090.99	8.87449e-08
1101.58	1.02016e-07
1110.06	1.14074e-07
1120.65	1.31127e-07
1131.24	1.50589e-07
1141.82	1.72703e-07
1150.29	1.92481e-07
1160.88	2.20042e-07
1171.46	2.51031e-07
1182.05	2.85755e-07
1190.52	3.16444e-07
1201.1	3.58733e-07
1211.69	4.05727e-07
1220.16	4.46968e-07
1230.74	5.03417e-07
1241.33	5.65705e-07
1251.92	6.34283e-07
1260.38	6.93991e-07
1270.97	7.751e-07
1281.55	8.63827e-07
1292.11	9.606e-07
1300.55	1.04423e-06
1311.1	1.15711e-06
1321.65	1.28049e-06
1330.09	1.38733e-06
1340.61	1.53105e-06
1351.12	1.68667e-06
1361.64	1.85457e-06
1370.05	1.99787e-06
1380.56	2.18841e-06
1391.07	2.3918e-06
1401.59	2.60824e-06
1412.1	2.83794e-06
1420.51	3.03143e-06
1431.03	3.28572e-06
1441.54	3.55412e-06
1452.03	3.83635e-06
1460.41	4.07247e-06
1470.88	4.38144e-06
1481.35	4.70631e-06
1491.82	5.04779e-06
1500.2	5.33344e-06
1510.67	5.70681e-06
1521.14	6.09919e-06
1531.61	6.5116e-06
1542.09	6.94518e-06
1550.44	7.30691e-06
1560.88	7.78045e-06
1571.35	8.27985e-06
1581.79	8.80428e-06
1590.13	9.24301e-06
1600.56	9.81805e-06
1610.99	1.0424e-05
1621.42	1.10627e-05
1631.85	1.17361e-05
1640.19	1.23013e-05
1650.62	1.30426e-05
1661.05	1.38247e-05
1671.48	1.46499e-05
1681.91	1.55207e-05
1690.25	1.62518e-05
1700.68	1.72104e-05
1711.11	1.82204e-05
1721.54	1.92834e-05
1731.97	2.04009e-05
1740.31	2.1335e-05
1750.74	2.25537e-05
1761.17	2.38303e-05
1771.6	2.51662e-05
1782.03	2.65624e-05
1790.37	2.77236e-05
1800.8	2.92307e-05
1811.21	3.08008e-05
1821.64	3.24384e-05
1832.06	3.41417e-05
1840.4	3.55539e-05
1850.82	3.73827e-05
1861.23	3.92822e-05
1871.64	4.12558e-05
1882.05	4.33062e-05
1890.38	4.50035e-05
1900.79	4.71988e-05
1911.2	4.94786e-05
1921.61	5.1846e-05
1932.02	5.43045e-05
1940.34	5.63391e-05
1950.75	5.89702e-05
1961.16	6.17025e-05
1971.57	6.45401e-05
1981.98	6.74871e-05
1990.31	6.99263e-05
2000.72	7.30814e-05
2011.13	7.63586e-05
2021.54	7.97629e-05
2031.95	8.32996e-05
2040.28	8.51279e-05
2050.69	8.35209e-05
2061.1	8.22137e-05
2071.5	8.11845e-05
2081.91	8.0414e-05
2090.24	7.9972e-05
2100.65	7.96242e-05
2111.06	7.94899e-05
2121.47	7.95559e-05
2131.88	7.98103e-05
2140.21	8.01427e-05
2150.62	8.07115e-05
2161.03	8.14434e-05
2171.44	8.23317e-05
2181.84	8.33708e-05
2190.17	8.43075e-05
2200.58	8.56073e-05
2210.99	8.70476e-05
2221.4	8.86265e-05
2231.81	9.03429e-05
2240.14	9.18149e-05
2250.55	9.37786e-05
2260.96	9.58808e-05
2271.36	9.81231e-05
2281.77	0.000100508
2290.1	0.00010252
2300.51	0.000105168
2310.92	0.000107967
2321.33	0.000110922
2331.74	0.000114037
2340.06	0.000116648
2350.47	0.000120064
2360.88	0.000123654
2371.29	0.000127425
2381.7	0.000131383
2390.03	0.000134687
2400.44	0.000138998
2410.85	0.000143514
2421.26	0.000148245
2431.66	0.000153179
2442.07	0.000158299
2450.4	0.000162521
2460.81	0.000167946
2471.22	0.000173532
2481.6	0.000179257
2491.98	0.000185137
2500.29	0.000189949
2510.67	0.000196104
2521.05	0.000202421
2531.44	0.0002089
2541.82	0.00021555
2550.13	0.000220998
2560.51	0.000227974
2570.89	0.000235143
2581.28	0.000242519
2591.66	0.000250111
2602.04	0.000257935
2610.35	0.00026437
2620.69	0.000272613
2630.99	0.000281093
2641.27	0.000289841
2651.55	0.000298889
2661.83	0.000308253
2670.05	0.000315982
2680.33	0.000325953
2690.61	0.000336282
2700.89	0.000346985
2711.17	0.000358077
2721.45	0.000369573
2731.73	0.000381489
2742.01	0.000393843
2750.23	0.000404051
2760.51	0.000417235
2770.79	0.000430908
2781.07	0.000445089
2791.35	0.000476162
2801.63	0.000511339
2811.91	0.000546313
2820.13	0.000574087
2830.41	0.000608515
2840.69	0.000642621
2850.97	0.000676439
2861.25	0.000710025
2871.53	0.00074346
2881.81	0.00077684
2890.03	0.000803576
2900.31	0.000837135
2910.59	0.000870964
2920.87	0.000905189
2931.15	0.000939942
2941.43	0.000975352
2951.71	0.00101155
2961.99	0.00104866
2970.21	0.0010791
2980.49	0.00111818
2990.77	0.00115844
3001.05	0.00119969
3011.33	0.00124179
3021.6	0.00128464
3031.88	0.00132824
3040.11	0.00136367
3050.39	0.0014087
3060.67	0.00145464
3070.94	0.00150163
3081.22	0.00154982
3091.5	0.00159942
3101.78	0.00165061
3110	0.00169286
3120.28	0.00174745
3130.56	0.00180418
3140.84	0.00186325
3151.12	0.00192484
3161.4	0.00198916
3171.68	0.00209015
3181.96	0.00223716
3190.18	0.00234905
3200.46	0.00248248
3210.74	0.00261029
3221.02	0.00273449
3231.29	0.00285724
3241.57	0.0029807
3251.85	0.00310688
3260.08	0.00321104
3270.35	0.00334645
3280.63	0.00348678
3290.91	0.00363108
3301.19	0.00377951
3311.47	0.003933
3321.75	0.00409314
3332.03	0.00426191
3340.25	0.00440447
3350.53	0.00459359
3360.81	0.0049132
3371.08	0.00530186
3381.36	0.00567569
3391.64	0.0060466
3401.92	0.00642927
3410.14	0.00675195
3420.42	0.00717056
3430.7	0.00760269
3440.98	0.00805983
3451.26	0.0086636
3461.54	0.00958057
3471.82	0.0104
3480.04	0.0111061
3490.32	0.0120642
3500.6	0.0137277
3510.87	0.0155846
3521.15	0.0184967
3531.43	0.0236114
3541.71	0.0290195
3551.99	0.0339706
3560.21	0.0378335
3570.49	0.042714
3580.77	0.0476146
3591.05	0.0522144
3601.33	0.0565834
3611.61	0.0610588
3621.88	0.0657208
3630.11	0.0694587
3640.39	0.0739878
3650.67	0.0783992
3660.94	0.0828307
3671.22	0.087309
3681.5	0.0917962
3691.78	0.0963191
3700	0.0999959
3710.28	0.104641
3720.56	0.109264
3730.84	0.113817
3741.12	0.118319
3751.4	0.122804
3761.68	0.127283
3771.96	0.131755
3780.18	0.135344
3790.46	0.139867
3800.74	0.144441
3811.02	0.14905
3821.3	0.153675
3831.58	0.158315
3841.86	0.162985
3850.08	0.166755
3860.44	0.171555
3870.8	0.176421
3881.16	0.181352
3891.52	0.186338
3901.88	0.191367
3910.16	0.195414
3920.52	0.200504
3930.88	0.205637
3941.24	0.210832
3951.6	0.216111
3961.96	0.221493
3970.25	0.225883
3980.61	0.231485
3990.97	0.23722
4001.33	0.2431
4011.7	0.249144
4022.06	0.255379
4030.35	0.260522
4040.71	0.26717
4051.07	0.274086
4061.44	0.281294
4071.8	0.288819
4080.09	0.295089
4090.45	0.303269
4100.81	0.311875
4111.18	0.320966
4121.55	0.330613
4131.93	0.340886
4140.26	0.34961
4150.68	0.361214
4161.12	0.373654
4171.57	0.386982
4182.01	0.401271
4190.36	0.413443
4200.81	0.429638
4211.31	0.447078
4221.81	0.465732
4230.21	0.481554
4240.71	0.502475
4251.21	0.524672
4261.71	0.548133
4270.11	0.567793
4280.61	0.593445
4291.11	0.620234
4301.61	0.648072
4310.01	0.671022
4320.51	0.700439
4331.01	0.730505
4341.51	0.761016
4352.01	0.791735
4360.41	0.81628
4370.91	0.846679
4381.41	0.876462
4391.91	0.905281
4400.31	0.927391
4410.81	0.953512
4421.31	0.977551
4431.81	0.999068
4440.21	1.01416
4450.71	1.02998
4461.21	1.04198
4471.71	1.0497
4480.11	1.05248
4490.61	1.05136
4501.11	1.04472
4511.61	1.03218
4520.01	1.01766
4530.51	0.993645
4541.01	0.962866
4551.51	0.925133
4562.01	0.88032
4570.41	0.839336
4580.92	0.781701
4591.42	0.717019
4601.92	0.645403
4610.32	0.583203
4620.82	0.499402
4631.32	0.408918
4641.82	0.311731
4650.22	0.229049
4660.72	0.119554
4671.22	0.00695919
4681.72	-0.0872024
4690.12	-0.125891
4700.62	-0.151344
4711.19	-0.18762
4721.79	-0.21539
4730.26	-0.233172
4740.85	-0.252501
4751.45	-0.259294
4762.04	-0.277347
4770.51	-0.288548
4781.11	-0.300064
4791.7	-0.30998
4800.17	-0.316227
4810.77	-0.323747
4821.36	-0.330938
4831.95	-0.33759
4840.43	-0.342431
4851.02	-0.33365
4861.61	-0.33767
4870.08	-0.342955
4880.68	-0.348517
4891.26	-0.3531
4901.85	-0.356916
4910.32	-0.359541
4920.9	-0.362426
4931.49	-0.364991
4942.08	-0.36684
4950.55	-0.368299
4961.13	-0.36996
4971.72	-0.371569
4980.19	-0.372833
4990.77	-0.374357
5001.36	-0.37579
5011.94	-0.37711
5020.41	-0.378076
5031	-0.379064
5041.59	-0.37098
5050.05	-0.37193
5060.64	-0.37359
5071.21	-0.375173
5081.76	-0.37652
5090.2	-0.377432
5100.75	-0.378345
5111.3	-0.379036
5121.85	-0.379533
5130.26	-0.3798
5140.77	-0.379984
5151.29	-0.38002
5161.8	-0.379921
5170.21	-0.379755
5180.73	-0.379449
5191.24	-0.379045
5201.76	-0.378552
5210.17	-0.378099
5220.68	-0.377467
5231.19	-0.37676
5241.71	-0.376
5250.12	-0.375361
5260.63	-0.374525
5271.15	-0.373483
5281.65	-0.372312
5290.03	-0.371363
5300.5	-0.370156
5310.97	-0.368923
5321.44	-0.367663
5331.92	-0.366373
5340.29	-0.365318
5350.77	-0.363972
5361.24	-0.362595
5371.71	-0.361186
5380.09	-0.360038
5390.48	-0.358582
5400.94	-0.357066
5411.4	-0.355513
5421.83	-0.351005
5430.17	-0.345383
5440.6	-0.344513
5451.03	-0.34363
5461.46	-0.342738
5471.88	-0.341837
5480.23	-0.341111
5490.66	-0.340196
5501.09	-0.339275
5511.52	-0.338351
5521.95	-0.337425
5530.29	-0.336687
5540.72	-0.335771
5551.15	-0.334867
5561.58	-0.333977
5572.01	-0.333103
5580.35	-0.332416
5590.78	-0.331574
5601.21	-0.330751
5611.63	-0.329945
5622.05	-0.329156
5630.38	-0.328535
5640.81	-0.327767
5651.23	-0.327005
5661.65	-0.326245
5672.07	-0.325482
5680.41	-0.324867
5690.83	-0.324088
5701.24	-0.323295
5711.65	-0.322482
5722.06	-0.321646
5730.38	-0.320958
5740.79	-0.320069
5751.2	-0.319147
5761.61	-0.318188
5772.02	-0.317187
5780.35	-0.316478
5790.76	-0.315523
5801.17	-0.314494
5811.58	-0.313393
5821.99	-0.312221
5830.32	-0.311234
5840.73	-0.309937
5851.14	-0.308445
5861.55	-0.306856
5871.96	-0.305206
5880.28	-0.303843
5890.69	-0.302088
5901.1	-0.300278
5911.51	-0.299083
5921.92	-0.297935
5930.25	-0.296935
5940.66	-0.295595
5951.07	-0.294167
5961.48	-0.292658
5971.89	-0.291076
5980.22	-0.289759
5990.63	-0.288054
6001.04	-0.286286
6011.45	-0.284456
6021.86	-0.282566
6030.18	-0.281012
6040.59	-0.279017
6051	-0.276966
6061.41	-0.27486
6071.82	-0.272699
6080.15	-0.270932
6090.56	-0.268676
6100.97	-0.26637
6111.38	-0.264013
6121.79	-0.261612
6130.12	-0.259665
6140.53	-0.257207
6150.93	-0.254729
6161.34	-0.252226
6171.75	-0.249698
6180.08	-0.247662
6190.49	-0.245102
6200.9	-0.242528
6211.31	-0.239941
6221.72	-0.237342
6230.05	-0.235254
6240.46	-0.232632
6250.87	-0.229995
6261.28	-0.227342
6271.69	-0.224672
6280.01	-0.222523
6290.42	-0.219821
6300.83	-0.2171
6311.24	-0.214358
6321.65	-0.209968
6332.06	-0.205631
6340.39	-0.202229
6350.8	-0.198072
6361.21	-0.194015
6371.62	-0.19004
6382.03	-0.186125
6390.35	-0.183019
6400.76	-0.179148
6411.17	-0.17527
6421.58	-0.171365
6431.98	-0.167443
6440.28	-0.164315
6450.66	-0.160425
6461.04	-0.156548
6471.42	-0.152668
6481.81	-0.148761
6490.12	-0.145601
6500.5	-0.141586
6510.88	-0.135502
6521.27	-0.128398
6531.65	-0.121693
6542.04	-0.115273
6550.34	-0.110228
6560.73	-0.103911
6571.11	-0.0975074
6581.49	-0.0911235
6591.88	-0.0848176
6600.18	-0.0797609
6610.5	-0.071434
6620.78	-0.0615776
6631.06	-0.0527064
6641.34	-0.0435699
6651.62	-0.0341219
6661.9	-0.0203606
6670.12	-0.00889696
6680.4	0.00945298
6690.68	0.0357264
6700.96	0.0598933
6711.24	0.0770313
6721.52	0.0890553
6731.8	0.0978064
6740.02	0.103048
6750.3	0.106571
6760.58	0.106966
6770.86	0.107259
6781.14	0.108678
6791.42	0.110278
6801.7	0.110814
6811.98	0.110271
6820.2	0.109685
6830.48	0.109393
6840.76	0.109542
6851.04	0.109961
6861.32	0.110869
6871.6	0.112318
6881.88	0.11379
6890.1	0.114577
6900.38	0.114966
6910.66	0.114997
6920.94	0.114984
6931.22	0.114932
6941.5	0.114707
6951.78	0.11433
6960	0.114021
6970.28	0.113685
6980.56	0.113296
6990.84	0.112696
7001.12	0.111869
7011.4	0.110968
7021.68	0.110185
7031.96	0.109643
7040.18	0.109387
7050.46	0.1092
7060.74	0.108968
7071.02	0.108448
7081.3	0.107457
7091.58	0.105937
7101.86	0.10397
7110.08	0.102189
7120.36	0.0998694
7130.64	0.0976096
7140.92	0.0955147
7151.2	0.0935932
7161.48	0.0917775
7171.76	0.0899853
7182.04	0.0881831
7190.26	0.0867614
7200.54	0.0850927
7210.82	0.0836563
7221.1	0.0825484
7231.38	0.0818068
7241.66	0.0813979
7251.93	0.0812292
7260.16	0.0811886
7270.44	0.0811695
7280.72	0.08113
7291	0.0810619
7301.28	0.0809984
7311.55	0.0809905
7321.83	0.0810833
7330.06	0.0812486
7340.34	0.0815756
7350.62	0.082031
7360.9	0.0826036
7371.17	0.0832839
7381.45	0.0840658
7391.73	0.0849424
7402.01	0.0858978
7410.24	0.0866987
7420.52	0.087708
7430.79	0.0886765
7441.07	0.0895537
7451.35	0.0903043
7461.63	0.090916
7471.91	0.091399
7480.14	0.0917098
7490.41	0.0920296
7500.69	0.0922983
7510.97	0.0925352
7521.25	0.0927524
7531.53	0.0929615
7541.81	0.0931815
7550.04	0.0933848
7560.31	0.0937045
7570.59	0.094132
7580.87	0.0946935
7591.15	0.0953943
7601.43	0.0962143
7611.71	0.0971133
7621.99	0.0980426
7630.21	0.0987787
7640.49	0.0996675
7650.77	0.100518
7661.05	0.10135
7671.33	0.102197
7681.61	0.103101
7691.89	0.104098
7700.11	0.104979
7710.39	0.106196
7720.67	0.10754
7730.95	0.109003
7741.23	0.110569
7751.51	0.112216
7761.79	0.113917
7770.01	0.115292
7780.29	0.116993
7790.57	0.118626
7800.85	0.120138
7811.13	0.121477
7821.41	0.122603
7831.69	0.12349
7841.97	0.124132
7850.19	0.124476
7860.47	0.124714
7870.75	0.124769
7881.11	0.124674
7891.47	0.124464
7901.83	0.12417
7910.12	0.123891
7920.48	0.123506
7930.84	0.123092
7941.19	0.122659
7951.55	0.122209
7961.91	0.121739
7970.2	0.121342
7980.56	0.120812
7990.92	0.12023
8001.28	0.119586
8011.64	0.118873
8021.99	0.118089
8030.28	0.117415
8040.64	0.116521
8051	0.115582
8061.36	0.114613
8071.72	0.113625
8080	0.11283
8090.36	0.111834
8100.73	0.110839
8111.09	0.109843
8121.45	0.108839
8131.81	0.107814
8140.1	0.106969
8150.47	0.105864
8160.83	0.104686
8171.19	0.103414
8181.55	0.102027
8191.92	0.100508
8200.21	0.0991889
8210.57	0.0974026
8220.93	0.095461
8231.3	0.0933662
8241.66	0.0911255
8252.02	0.0887511
8260.31	0.0867659
8270.67	0.0841931
8281.04	0.0815386
8291.4	0.0788243
8301.76	0.0760719
8310.05	0.0738565
8320.42	0.0710856
8330.78	0.068327
8341.14	0.0655925
8351.52	0.0628866
8361.91	0.0602153
8370.24	0.0581065
8380.64	0.0555104
8391.06	0.0529551
8401.51	0.050446
8411.95	0.0479913
8420.3	0.04607
8430.75	0.0437267
8441.19	0.0414546
8451.63	0.0392607
8462.08	0.0371516
8470.47	0.0355225
8480.97	0.0335684
8491.47	0.0317103
8501.97	0.029947
8510.37	0.0286017
8520.87	0.0269953
8531.37	0.025462
8541.87	0.0239872
8550.27	0.0228373
8560.77	0.0214185
8571.27	0.019994
8581.77	0.0185262
8590.17	0.0172771
8600.67	0.0153922
8611.17	0.0115836
8621.67	0.00465726
8630.08	1.77351e-05
8640.58	-0.0032407
8651.08	-0.00840181
8661.58	-0.0135538
8672.08	-0.0185636
8680.48	-0.0219663
8690.98	-0.022733
8701.48	-0.0266447
8711.98	-0.0297534
8720.38	-0.0320605
8730.88	-0.034879
8741.38	-0.0375679
8751.88	-0.0400486
8760.28	-0.0419068
8770.78	-0.0440909
8781.28	-0.0457628
8791.78	-0.048637
8800.18	-0.0505665
8810.66	-0.0526735
8821.13	-0.0545169
8831.61	-0.0561616
8842.08	-0.0576554
8850.46	-0.0587677
8860.93	-0.0600512
8871.4	-0.061254
8881.87	-0.0623692
8890.25	-0.0632372
8900.72	-0.0642889
8911.16	-0.065298
8921.61	-0.0662505
8932.05	-0.0649165
8940.43	-0.0671217
8950.89	-0.0678027
8961.33	-0.0684116
8971.75	-0.0689465
8980.09	-0.0693079
8990.52	-0.0696921
9000.95	-0.0700144
9011.38	-0.0702878
9021.81	-0.0705254
9030.15	-0.0706966
9040.58	-0.0708943
9051.01	-0.0710806
9061.44	-0.0713392
9071.87	-0.0716903
9080.21	-0.0719514
9090.64	-0.072259
9101.07	-0.0724538
9111.5	-0.0726529
9121.93	-0.0728557
9130.27	-0.07302
9140.7	-0.0732271
9151.13	-0.073435
9161.56	-0.0736422
9171.99	-0.0738477
9180.33	-0.0740101
9190.76	-0.0742096
9201.19	-0.0744045
9211.62	-0.0745941
9222.05	-0.0734205
9230.4	-0.0737412
9240.83	-0.0741304
9251.25	-0.0744937
9261.67	-0.0748255
9272.08	-0.0755958
9280.42	-0.0758772
9290.85	-0.0762009
9301.27	-0.0764979
9311.69	-0.0767688
9320.02	-0.0769671
9330.43	-0.0771925
9340.84	-0.0773938
9351.25	-0.0775708
9361.66	-0.0777191
9372.07	-0.0778395
9380.4	-0.0779165
9390.81	-0.0779896
9401.22	-0.0780386
9411.63	-0.0780657
9422.04	-0.0780723
9430.36	-0.0780631
9440.77	-0.0780341
9451.18	-0.0779871
9461.59	-0.0779234
9472	-0.0778439
9480.33	-0.0777698
9490.74	-0.0776647
9501.15	-0.0775464
9511.56	-0.0774116
9521.97	-0.0772603
9530.3	-0.0771285
9540.71	-0.0769514
9551.12	-0.0767583
9561.53	-0.0765489
9571.94	-0.0763251
9580.26	-0.0762365
9590.67	-0.0761477
9601.08	-0.0760378
9611.49	-0.0759085
9621.9	-0.0757615
9630.23	-0.0756322
9640.64	-0.0754571
9651.05	-0.0752679
9661.46	-0.0749914
9671.87	-0.0747085
9680.2	-0.0744778
9690.61	-0.0741843
9701.02	-0.0738853
9711.43	-0.0735809
9721.84	-0.0732714
9730.16	-0.0730202
9740.57	-0.0727016
9750.98	-0.0723781
9761.39	-0.0720498
9771.8	-0.0717165
9780.13	-0.0714464
9790.54	-0.0711044
9800.95	-0.0707574
9811.36	-0.0704055
9821.77	-0.0700486
9830.1	-0.0697595
9840.51	-0.0693935
9850.92	-0.0690225
9861.33	-0.0686463
9871.74	-0.068265
9880.06	-0.0679563
9890.47	-0.0675657
9900.88	-0.06717
9911.29	-0.0667695
9921.7	-0.0663643
9930.02	-0.0660373
9940.42	-0.0656244
9950.8	-0.0652081
9961.18	-0.0660232
9971.55	-0.0656378
9981.94	-0.065249
9990.24	-0.0649354
10000.6	-0.0645401
10011	-0.0641412
10021.4	-0.0637383
10031.8	-0.0633302
10040.1	-0.0629994
10050.5	-0.0625807
10060.9	-0.0621564
10071.2	-0.0617266
10081.6	-0.0612915
10092	-0.060851
10100.3	-0.0604949
10110.7	-0.0600451
10121	-0.0595916
10131.3	-0.0591358
10141.6	-0.0586754
10151.9	-0.0582101
10160.1	-0.0578343
10170.4	-0.057307
10180.7	-0.0567003
10191	-0.0560974
10201.2	-0.0554978
10211.5	-0.054901
10221.8	-0.0543065
10230	-0.0538324
10240.3	-0.0532413
10250.6	-0.0526516
10260.9	-0.0520631
10271.1	-0.0514755
10281.4	-0.0508887
10291.7	-0.0503025
10302	-0.0497169
10310.2	-0.0492487
10320.5	-0.0486638
10330.8	-0.0480792
10341	-0.0474949
10351.3	-0.0469109
10361.6	-0.046327
10371.9	-0.0457433
10380.1	-0.0452764
10390.4	-0.044693
10400.7	-0.0441097
10410.9	-0.0435266
10421.2	-0.0429439
10431.5	-0.0423616
10441.8	-0.04178
10450	-0.0413153
10460.3	-0.0407351
10470.6	-0.0401559
10480.8	-0.0395777
10491.1	-0.0390007
10501.4	-0.038425
10511.7	-0.0378506
10522	-0.0372777
10530.2	-0.0368205
10540.5	-0.0362503
10550.7	-0.0356819
10561	-0.0351152
10571.3	-0.0345503
10581.6	-0.0339873
10591.9	-0.0334263
10600.1	-0.0329789
10610.4	-0.0324215
10620.6	-0.0318664
10630.9	-0.0313137
10641.2	-0.0307636
10651.5	-0.0302162
10661.8	-0.0296718
10672	-0.0290878
10680.3	-0.0286061
10690.5	-0.0280158
10700.8	-0.0274379
10711.1	-0.0268717
10721.4	-0.0263163
10731.7	-0.0257711
10741.9	-0.0252355
10750.2	-0.0248135
10760.4	-0.0242935
10770.7	-0.0237814
10781	-0.0232768
10791.3	-0.0227792
10801.6	-0.022247
10811.8	-0.0216793
10820.1	-0.0212474
10830.3	-0.0207317
10840.6	-0.0202392
10850.9	-0.0197665
10861.2	-0.0193107
10871.5	-0.0188692
10881.7	-0.0184397
10892	-0.0180203
10900.2	-0.0176922
10910.5	-0.0172936
10920.8	-0.0169066
10931.1	-0.0165299
10941.4	-0.0161621
10951.6	-0.0158018
10961.9	-0.0154476
10970.1	-0.0151678
10980.4	-0.0148215
10990.7	-0.0144778
11001	-0.0141359
11011.3	-0.0137946
11021.5	-0.0134538
11031.8	-0.013113
11040	-0.0128403
11050.3	-0.0124991
11060.6	-0.0121569
11070.9	-0.0118135
11081.2	-0.0114682
11091.4	-0.0111207
11101.7	-0.0107704
11112	-0.0104175
11120.2	-0.0101383
11130.5	-0.00979388
11140.8	-0.00945241
11151.1	-0.00911245
11161.3	-0.00877261
11171.6	-0.00843156
11181.9	-0.0080881
11190.1	-0.00781091
11200.4	-0.00746067
11210.7	-0.00694127
11221	-0.0063925
11231.2	-0.00582739
11241.5	-0.00525441
11251.8	-0.00467882
11260	-0.00421857
11270.3	-0.00364487
11280.6	-0.00307366
11290.9	-0.00250628
11301.1	-0.00194339
11311.4	-0.00138479
11321.7	-0.000826159
11332	-0.000263274
11340.2	0.000190084
11350.5	0.000760332
11360.8	0.00133414
11371	0.00190956
11381.3	0.00248366
11391.6	0.00305507
11401.9	0.00416174
11410.1	0.00530011
11420.4	0.00662483
11430.7	0.00782006
11440.9	0.00888386
11451.2	0.00983342
11461.5	0.0107044
11471.8	0.0115068
11480	0.0121014
11490.3	0.013118
11500.6	0.0139803
11510.8	0.0147292
11521.1	0.015417
11531.4	0.0160316
11541.7	0.0169001
11552	0.0180396
11560.2	0.0194338
11570.5	0.0222203
11580.7	0.023982
11591	0.025712
11601.3	0.0276325
11611.6	0.0298038
11621.9	0.032035
11630.1	0.0338166
11640.4	0.0361058
11650.6	0.0385222
11660.9	0.0410175
11671.2	0.043593
11681.5	0.0463016
11691.8	0.0491472
11702	0.0520744
11710.3	0.0544504
11720.5	0.0574517
11730.9	0.0604459
11741.2	0.0633177
11751.6	0.0659664
11761.9	0.0683696
11770.2	0.0701385
11780.6	0.0722007
11791	0.0741292
11801.3	0.0759315
11811.7	0.0775991
11822	0.0791263
11830.3	0.080251
11840.7	0.0815487
11851	0.0827412
11861.4	0.0838388
11871.8	0.0848491
11880.1	0.0856003
11890.4	0.0864772
11900.8	0.0872957
11911.1	0.0880648
11921.5	0.0887917
11931.9	0.0894848
11940.2	0.0900208
11950.5	0.090672
11960.9	0.0912991
11971.2	0.0918882
11981.6	0.0924207
11992	0.0928844
