0	0
10.5883	0
20.4706	0
30.3529	0
40.235	0
50.2132	0
60.3352	0
70.2128	0
80.05	0
90.1209	0
100.002	0
110.59	0
120.471	0
130.353	0
140.175	0
150.578	0
160.265	0
170.645	0
180.332	0
190.02	0
200.399	0
210.086	0
220.465	0
230.152	0
240.53	0
250.215	0
260.591	2.72848e-12
270.275	1.54614e-11
280.652	2.91038e-11
290.336	4.18368e-11
300.021	5.45697e-11
310.397	6.82121e-11
320.081	8.0945e-11
330.457	9.45874e-11
340.142	1.0732e-10
350.518	1.2551e-10
360.202	1.50976e-10
370.55	1.78261e-10
380.141	2.03727e-10
390.366	2.31012e-10
400.589	2.67391e-10
410.111	3.0559e-10
420.214	3.46517e-10
430.254	3.97449e-10
440.272	4.52019e-10
450.283	5.16593e-10
460.294	5.87534e-10
470.305	6.69388e-10
480.316	7.64885e-10
490.322	8.75843e-10
500.254	1.00226e-09
510.153	1.14687e-09
520.043	1.31513e-09
530.593	1.5234e-09
540.474	1.7526e-09
550.35	2.01726e-09
560.218	2.32376e-09
570.077	2.68028e-09
580.591	3.12139e-09
590.448	3.60342e-09
600.304	4.15366e-09
610.161	4.77758e-09
620.018	5.4788e-09
630.531	6.31371e-09
640.388	7.1841e-09
650.244	8.13998e-09
660.101	9.18226e-09
670.614	1.03901e-08
680.471	1.16061e-08
690.327	1.28985e-08
700.169	1.42581e-08
710.65	1.57734e-08
720.474	1.72467e-08
730.299	1.87611e-08
740.123	2.03054e-08
750.603	2.19743e-08
760.427	2.35432e-08
770.252	2.51121e-08
780.076	2.66718e-08
790.556	2.8308e-08
800.38	2.98078e-08
810.205	3.12639e-08
820.029	3.2669e-08
830.508	3.41024e-08
840.333	3.53803e-08
850.157	3.65853e-08
860.636	3.77886e-08
870.46	3.88382e-08
880.284	3.98131e-08
890.109	4.07135e-08
900.588	4.15985e-08
910.412	4.23624e-08
920.236	4.30755e-08
930.06	4.37485e-08
940.539	4.44415e-08
950.363	4.509e-08
960.187	4.57621e-08
970.011	4.64861e-08
980.49	4.73528e-08
990.314	4.82942e-08
1000.14	4.94028e-08
1010.62	5.08253e-08
1020.44	5.24396e-08
1030.27	5.43814e-08
1040.09	5.67161e-08
1050.57	5.97111e-08
1060.39	6.30698e-08
1070.22	6.70434e-08
1080.04	7.172e-08
1090.52	7.75854e-08
1100.34	8.40164e-08
1110.17	9.14579e-08
1120.65	1.00647e-07
1130.47	1.10564e-07
1140.29	1.21882e-07
1150.12	1.34745e-07
1160.6	1.50343e-07
1170.42	1.66903e-07
1180.24	1.85515e-07
1190.07	2.06363e-07
1200.55	2.3129e-07
1210.37	2.574e-07
1220.19	2.86385e-07
1230.02	3.18481e-07
1240.5	3.5642e-07
1250.32	3.95729e-07
1260.14	4.38938e-07
1270.62	4.89646e-07
1280.43	5.41761e-07
1290.22	5.98545e-07
1300	6.60414e-07
1310.44	7.32422e-07
1320.21	8.05866e-07
1330.64	8.9104e-07
1340.41	9.77817e-07
1350.18	1.07214e-06
1360.59	1.18136e-06
1370.34	1.29208e-06
1380.09	1.41101e-06
1390.49	1.54701e-06
1400.25	1.68312e-06
1410.65	1.83757e-06
1420.4	1.99108e-06
1430.15	2.15311e-06
1440.55	2.33542e-06
1450.3	2.51535e-06
1460.05	2.70402e-06
1470.41	2.91451e-06
1480.1	3.12111e-06
1490.45	3.35198e-06
1500.14	3.57863e-06
1510.48	3.83172e-06
1520.18	4.08012e-06
1530.52	4.35752e-06
1540.22	4.62986e-06
1550.56	4.93418e-06
1560.26	5.23313e-06
1570.56	5.56612e-06
1580.14	5.89087e-06
1590.33	6.25357e-06
1600.53	6.63486e-06
1610.09	7.01024e-06
1620.29	7.43097e-06
1630.49	7.87397e-06
1640.05	8.31076e-06
1650.25	8.80097e-06
1660.44	9.31777e-06
1670	9.82785e-06
1680.2	1.04008e-05
1690.4	1.10053e-05
1700.6	1.16431e-05
1710.16	1.2273e-05
1720.35	1.29808e-05
1730.55	1.37271e-05
1740.11	1.4463e-05
1750.31	1.52878e-05
1760.5	1.61547e-05
1770.06	1.70065e-05
1780.26	1.79577e-05
1790.46	1.89538e-05
1800.02	1.9929e-05
1810.22	2.10143e-05
1820.41	2.2147e-05
1830.61	2.33281e-05
1840.17	2.448e-05
1850.37	2.57576e-05
1860.57	2.70866e-05
1870.12	2.83803e-05
1880.32	2.98126e-05
1890.52	3.13004e-05
1900.08	3.27469e-05
1910.28	3.43467e-05
1920.47	3.60071e-05
1930.03	3.76204e-05
1940.23	3.94039e-05
1950.43	4.12544e-05
1960.62	4.31741e-05
1970.18	4.50392e-05
1980.38	4.71009e-05
1990.58	4.92399e-05
2000.14	5.1318e-05
2010.33	5.36154e-05
2020.53	5.59993e-05
2030.09	5.83158e-05
2040.29	6.08771e-05
2050.49	6.35353e-05
2060.04	6.61188e-05
2070.24	6.89761e-05
2080.44	6.78908e-05
2090.64	6.64871e-05
2100.19	6.53996e-05
2110.39	6.44666e-05
2120.59	6.37523e-05
2130.15	6.3268e-05
2140.34	6.29361e-05
2150.54	6.27827e-05
2160.1	6.27908e-05
2170.3	6.29521e-05
2180.49	6.32622e-05
2190.05	6.3681e-05
2200.25	6.42579e-05
2210.45	6.49633e-05
2220.01	6.57369e-05
2230.2	6.66779e-05
2240.4	6.7735e-05
2250.22	6.8861e-05
2260.42	7.0139e-05
2270.62	7.15273e-05
2280.18	7.29283e-05
2290.37	7.45288e-05
2300.57	7.62391e-05
2310.13	7.79432e-05
2320.33	7.98696e-05
2330.36	8.18759e-05
2340.55	8.40309e-05
2350.11	8.61592e-05
2360.31	8.85476e-05
2370.51	9.10611e-05
2380.06	9.35346e-05
2390.26	9.63014e-05
2400.46	9.92051e-05
2410.02	0.000102056
2420.21	0.000105237
2430.41	0.00010857
2440.61	0.000112059
2450.17	0.000115476
2460.36	0.000119283
2470.56	0.000123243
2480.12	0.000127084
2490.31	0.00013131
2500.51	0.000135662
2510.07	0.000139851
2520.27	0.000144435
2530.46	0.000149136
2540.02	0.000153651
2550.22	0.000158582
2560.42	0.000163637
2570.61	0.000168819
2580.17	0.000173798
2590.37	0.000179243
2600.57	0.000184833
2610.13	0.000190213
2620.32	0.000196109
2630.52	0.000202176
2640.07	0.000208026
2650.24	0.000214439
2660.4	0.000221049
2670.56	0.000227875
2680.08	0.000234481
2690.24	0.000241761
2700.4	0.000249292
2710.56	0.000257088
2720.08	0.000264648
2730.24	0.00027299
2740.4	0.000281631
2750.56	0.000290583
2760.08	0.000299269
2770.24	0.000308859
2780.4	0.000318796
2790.56	0.000329095
2800.08	0.000339092
2810.24	0.000350133
2820.4	0.00036158
2830.56	0.000385759
2840.08	0.000413709
2850.24	0.000443378
2860.4	0.000472823
2870.55	0.000502009
2880.08	0.000529133
2890.24	0.00055783
2900.39	0.000586326
2910.55	0.000614676
2920.08	0.000641184
2930.23	0.000669462
2940.39	0.000697828
2950.55	0.000726376
2960.07	0.000753393
2970.23	0.000782574
2980.39	0.000812229
2990.55	0.000842459
3000.07	0.000871408
3010.23	0.000903031
3020.39	0.000935514
3030.55	0.000968879
3040.07	0.00100083
3050.23	0.00103553
3060.39	0.00107078
3070.54	0.00110657
3080.07	0.00114064
3090.23	0.00117756
3100.38	0.00121517
3110.54	0.00125356
3120.06	0.00129038
3130.22	0.00133066
3140.38	0.00137215
3150.54	0.00141498
3160.06	0.00145649
3170.22	0.00150235
3180.35	0.00154984
3190.51	0.00159937
3200.03	0.00164766
3210.61	0.00170791
3220.37	0.00182506
3230.53	0.00194005
3240.05	0.00204207
3250.21	0.00214599
3260.37	0.00224644
3270.52	0.00234512
3280.05	0.00243755
3290.2	0.00253755
3300.36	0.00264044
3310.52	0.00274737
3320.04	0.00285089
3330.2	0.00296418
3340.36	0.00308051
3350.52	0.00320055
3360.04	0.00331741
3370.2	0.00344796
3380.35	0.003586
3390.51	0.00373282
3400.03	0.00388928
3410.19	0.00420373
3420.35	0.00450663
3430.51	0.00480264
3440.03	0.00508267
3450.19	0.00539322
3460.35	0.00571745
3470.5	0.00605025
3480.03	0.00637417
3490.18	0.00674249
3500.34	0.0073436
3510.5	0.00800883
3520.02	0.00860778
3530.18	0.00928899
3540.34	0.0100322
3550.49	0.011349
3560.02	0.0126278
3570.18	0.0149467
3580.33	0.0193216
3590.49	0.0287751
3600.01	0.0360635
3610.17	0.0434007
3620.33	0.0495635
3630.49	0.0553618
3640.01	0.0600269
3650.17	0.0647448
3660.33	0.0695963
3670.48	0.0744701
3680.01	0.0789688
3690.16	0.0834752
3700.32	0.0878852
3710.48	0.0922307
3720	0.0962399
3730.16	0.100269
3740.32	0.104132
3750.48	0.108003
3760	0.111645
3770.16	0.1154
3780.32	0.118921
3790.48	0.122337
3800.47	0.125716
3810.63	0.129199
3820.16	0.132473
3830.31	0.136011
3840.47	0.139707
3850.04	0.143388
3860.28	0.147485
3870.52	0.151647
3880.13	0.15559
3890.37	0.159873
3900.62	0.164251
3910.22	0.168424
3920.47	0.172964
3930.07	0.177351
3940.32	0.18219
3950.56	0.18715
3960.16	0.191864
3970.41	0.196954
3980.02	0.201799
3990.27	0.207037
4000.52	0.212321
4010.13	0.217317
4020.38	0.222714
4030.64	0.228187
4040.25	0.233347
4050.5	0.238832
4060.11	0.243948
4070.36	0.249414
4080.61	0.254925
4090.22	0.260153
4100.47	0.26582
4110.08	0.271262
4120.34	0.27726
4130.6	0.283504
4140.22	0.289628
4150.5	0.296529
4160.16	0.303453
4170.48	0.311416
4180.16	0.319513
4190.5	0.328922
4200.19	0.338568
4210.56	0.349884
4220.3	0.361583
4230.05	0.37444
4240.45	0.389586
4250.19	0.405294
4260.59	0.423842
4270.34	0.443073
4280.09	0.464234
4290.49	0.489073
4300.24	0.51459
4310.63	0.54426
4320.38	0.574408
4330.13	0.606817
4340.53	0.64384
4350.28	0.68076
4360.02	0.719667
4370.42	0.763106
4380.17	0.805338
4390.57	0.85157
4400.32	0.89556
4410.07	0.939672
4420.46	0.986264
4430.21	1.02893
4440.61	1.07272
4450.36	1.11154
4460.11	1.14762
4470.51	1.18241
4480.25	1.21092
4490	1.23482
4500.4	1.25452
4510.15	1.26684
4520.55	1.27266
4530.3	1.27045
4540.04	1.26
4550.44	1.23882
4560.19	1.20857
4570.59	1.16411
4580.34	1.11001
4590.09	1.04303
4600.48	0.956599
4610.23	0.861013
4620.63	0.743013
4630.38	0.616441
4640.13	0.472246
4650.53	0.29386
4660.27	0.0948594
4670.02	-0.0650803
4680.42	-0.152537
4690.17	-0.188447
4700.57	-0.221783
4710.35	-0.232967
4720.16	-0.254172
4730.63	-0.269888
4740.44	-0.281747
4750.25	-0.292577
4760.07	-0.30006
4770.55	-0.309995
4780.38	-0.317362
4790.2	-0.323537
4800.03	-0.328468
4810.51	-0.333203
4820.33	-0.337528
4830.15	-0.34159
4840.63	-0.345546
4850.46	-0.337521
4860.28	-0.337467
4870.11	-0.341936
4880.59	-0.345931
4890.41	-0.349044
4900.23	-0.351664
4910.06	-0.35389
4920.54	-0.355941
4930.36	-0.357648
4940.19	-0.358845
4950.01	-0.359887
4960.49	-0.361021
4970.31	-0.362054
4980.14	-0.363076
4990.62	-0.364129
5000.44	-0.365063
5010.27	-0.36593
5020.09	-0.36672
5030.57	-0.367401
5040.39	-0.359365
5050.22	-0.360213
5060.04	-0.361082
5070.52	-0.362533
5080.34	-0.36372
5090.17	-0.364748
5100.65	-0.365643
5110.47	-0.366311
5120.29	-0.366837
5130.12	-0.367239
5140.6	-0.367547
5150.42	-0.367733
5160.24	-0.367829
5170.05	-0.367843
5180.49	-0.367774
5190.28	-0.367638
5200.06	-0.367437
5210.49	-0.367154
5220.26	-0.366829
5230.03	-0.366454
5240.46	-0.365996
5250.22	-0.365523
5260.62	-0.364968
5270.37	-0.364227
5280.12	-0.363312
5290.52	-0.362312
5300.27	-0.361348
5310.03	-0.360356
5320.43	-0.359264
5330.18	-0.358205
5340.58	-0.357037
5350.33	-0.355903
5360.08	-0.35473
5370.46	-0.353439
5380.16	-0.352192
5390.5	-0.35081
5400.2	-0.349456
5410.54	-0.347959
5420.24	-0.341122
5430.58	-0.334818
5440.28	-0.33395
5450.62	-0.333009
5460.32	-0.332114
5470.63	-0.331154
5480.22	-0.330257
5490.42	-0.3293
5500.62	-0.328342
5510.18	-0.327447
5520.37	-0.326501
5530.57	-0.325567
5540.13	-0.324706
5550.33	-0.323807
5560.53	-0.322934
5570.09	-0.322141
5580.28	-0.321326
5590.48	-0.320545
5600.04	-0.319845
5610.24	-0.319132
5620.44	-0.318455
5630.63	-0.31781
5640.19	-0.317234
5650.39	-0.316644
5660.59	-0.316077
5670.15	-0.31556
5680.35	-0.315019
5690.54	-0.314485
5700.1	-0.313985
5710.3	-0.313448
5720.5	-0.312902
5730.06	-0.312378
5740.26	-0.3118
5750.45	-0.311199
5760.01	-0.31061
5770.21	-0.309952
5780.41	-0.309257
5790.61	-0.30871
5800.17	-0.308126
5810.36	-0.307429
5820.56	-0.306657
5830.12	-0.305866
5840.32	-0.304918
5850.52	-0.303757
5860.08	-0.302603
5870.27	-0.301304
5880.47	-0.299939
5890.03	-0.298601
5900.23	-0.297115
5910.43	-0.29557
5920.62	-0.294381
5930.18	-0.293659
5940.38	-0.292763
5950.58	-0.291754
5960.14	-0.290714
5970.33	-0.289513
5980.53	-0.288226
5990.09	-0.286946
6000.29	-0.285507
6010.49	-0.283995
6020.05	-0.282515
6030.24	-0.28087
6040.44	-0.279162
6050	-0.277503
6060.2	-0.275674
6070.39	-0.273787
6080.59	-0.271842
6090.15	-0.269969
6100.35	-0.26792
6110.55	-0.265819
6120.11	-0.263804
6130.3	-0.261614
6140.5	-0.259391
6150.06	-0.257284
6160.26	-0.255013
6170.45	-0.252713
6180.01	-0.250534
6190.21	-0.24819
6200.41	-0.24583
6210.61	-0.243456
6220.17	-0.241219
6230.36	-0.238821
6240.56	-0.236412
6250.12	-0.234143
6260.32	-0.231711
6270.51	-0.229268
6280.07	-0.226967
6290.27	-0.224502
6300.47	-0.222024
6310.03	-0.219689
6320.23	-0.216418
6330.42	-0.212666
6340.62	-0.208933
6350.18	-0.205477
6360.38	-0.201847
6370.58	-0.198276
6380.14	-0.194972
6390.33	-0.191482
6400.53	-0.18801
6410.09	-0.18476
6420.29	-0.181285
6430.48	-0.177805
6440.04	-0.174555
6450.24	-0.17111
6460.44	-0.167683
6470.64	-0.164262
6480.2	-0.161043
6490.39	-0.157578
6500.59	-0.154061
6510.15	-0.150517
6520.35	-0.144097
6530.55	-0.138055
6540.11	-0.132675
6550.3	-0.127111
6560.5	-0.121599
6570.06	-0.116401
6580.26	-0.110879
6590.45	-0.105426
6600.02	-0.100311
6610.21	-0.0944827
6620.41	-0.0854053
6630.61	-0.0774091
6640.17	-0.0699671
6650.37	-0.0618588
6660.56	-0.052554
6670.12	-0.0400333
6680.32	-0.0268536
6690.51	-0.00628286
6700.05	0.0263809
6710.21	0.069081
6720.37	0.0927389
6730.53	0.107509
6740.05	0.113144
6750.21	0.116538
6760.37	0.11395
6770.53	0.111357
6780.05	0.110951
6790.21	0.111929
6800.37	0.112855
6810.53	0.112063
6820.05	0.111348
6830.21	0.11093
6840.37	0.111301
6850.52	0.111018
6860.05	0.11025
6870.21	0.110524
6880.36	0.112225
6890.52	0.114089
6900.05	0.114562
6910.21	0.114212
6920.36	0.114128
6930.52	0.114728
6940.05	0.115295
6950.2	0.115291
6960.36	0.115113
6970.52	0.115454
6980.04	0.116178
6990.2	0.116517
7000.36	0.115846
7010.52	0.114435
7020.04	0.112976
7030.2	0.11151
7040.36	0.110023
7050.52	0.10861
7060.04	0.107596
7070.2	0.106728
7080.36	0.105526
7090.52	0.103606
7100.04	0.101264
7110.2	0.0984951
7120.36	0.0955986
7130.52	0.0926402
7140.04	0.0900679
7150.2	0.0879262
7160.36	0.0864606
7170.51	0.0852246
7180.04	0.0838093
7190.2	0.0819194
7200.35	0.0799118
7210.51	0.0780805
7220.04	0.0766065
7230.19	0.0753073
7240.35	0.0743591
7250.51	0.0737848
7260.03	0.0734395
7270.19	0.0730279
7280.35	0.0724345
7290.51	0.0717128
7300.03	0.0710287
7310.19	0.0703619
7320.35	0.0698074
7330.51	0.0694381
7340.03	0.0693085
7350.19	0.0693706
7360.35	0.0695577
7370.5	0.0698385
7380.03	0.0702291
7390.19	0.070828
7400.34	0.0716002
7410.5	0.0724902
7420.03	0.0733816
7430.18	0.0743224
7440.34	0.0751295
7450.5	0.0756674
7460.02	0.0758815
7470.18	0.0758695
7480.34	0.0757454
7490.5	0.0756272
7500.02	0.0755738
7510.18	0.0755834
7520.34	0.07562
7530.5	0.075599
7540.02	0.0754516
7550.18	0.0751437
7560.34	0.0747754
7570.5	0.0745278
7580.02	0.0745757
7590.18	0.075049
7600.34	0.0759756
7610.5	0.0772385
7620.02	0.0785207
7630.18	0.0797384
7640.34	0.0806148
7650.49	0.0811167
7660.02	0.081354
7670.18	0.0815533
7680.33	0.0819057
7690.49	0.0825761
7700.02	0.0835651
7710.18	0.0849808
7720.33	0.086657
7730.49	0.0884513
7740.02	0.0901582
7750.23	0.0920181
7760.48	0.0939964
7770.08	0.0960559
7780.33	0.0985473
7790.57	0.101346
7800.18	0.104175
7810.42	0.10727
7820.03	0.110096
7830.27	0.112898
7840.52	0.11541
7850.12	0.117512
7860.36	0.119566
7870.61	0.12155
7880.21	0.123465
7890.46	0.125654
7900.06	0.127872
7910.31	0.130386
7920.55	0.132997
7930.16	0.135479
7940.4	0.138121
7950.01	0.140572
7960.25	0.143145
7970.5	0.145667
7980.1	0.147968
7990.34	0.150325
8000.59	0.152531
8010.19	0.154415
8020.44	0.156189
8030.05	0.157613
8040.3	0.158876
8050.55	0.159881
8060.16	0.160589
8070.41	0.161086
8080.02	0.161295
8090.27	0.161223
8100.52	0.160838
8110.13	0.160191
8120.39	0.1592
8130.64	0.157897
8140.25	0.156379
8150.5	0.154407
8160.11	0.152178
8170.36	0.149325
8180.61	0.145918
8190.22	0.142185
8200.48	0.137628
8210.09	0.132861
8220.34	0.127331
8230.59	0.121448
8240.21	0.115706
8250.47	0.109427
8260.09	0.103459
8270.35	0.0970535
8280.61	0.0906516
8290.24	0.0846879
8300.53	0.0784348
8310.19	0.0727353
8320.52	0.0669326
8330.2	0.061829
8340.54	0.0568098
8350.23	0.0525267
8360.61	0.0483873
8370.36	0.0448777
8380.11	0.04168
8390.51	0.0385461
8400.25	0.0358108
8410	0.0332293
8420.4	0.0306154
8430.15	0.0282822
8440.55	0.0259153
8450.3	0.0238139
8460.05	0.021832
8470.44	0.019856
8480.19	0.0181376
8490.59	0.0164496
8500.34	0.014999
8510.09	0.0136635
8520.49	0.0123412
8530.24	0.0108447
8540.63	0.00927535
8550.38	0.00781058
8560.13	0.00731458
8570.53	0.00490996
8580.28	0.00355101
8590.03	0.00358214
8600.43	0.00242215
8610.17	0.000104077
8620.57	-0.00148365
8630.32	-0.00300735
8640.07	-0.00382381
8650.47	-0.00680993
8660.22	-0.00937176
8670.62	-0.0118266
8680.36	-0.0140142
8690.11	-0.0162731
8700.51	-0.0186646
8710.26	-0.0206437
8720.01	-0.0224896
8730.41	-0.0260349
8740.16	-0.0290762
8750.55	-0.0320675
8760.3	-0.0346714
8770.05	-0.0371085
8780.45	-0.0395431
8790.2	-0.0416807
8800.6	-0.043757
8810.34	-0.0454974
8820.09	-0.0471402
8830.49	-0.048789
8840.24	-0.0502413
8850.64	-0.0516954
8860.39	-0.0529735
8870.14	-0.0536758
8880.53	-0.0546139
8890.28	-0.0554287
8900.03	-0.0561874
8910.43	-0.0569415
8920.18	-0.057602
8930.58	-0.0582566
8940.33	-0.0588037
8950.07	-0.0592964
8960.47	-0.0597747
8970.22	-0.0601887
8980.62	-0.0605996
8990.37	-0.0610233
9000.12	-0.0613388
9010.49	-0.0616653
9020.18	-0.061963
9030.53	-0.0622737
9040.22	-0.0625598
9050.57	-0.0628602
9060.26	-0.0631381
9070.61	-0.0634312
9080.3	-0.0637036
9090.65	-0.0639922
9100.34	-0.0642614
9110.61	-0.0645457
9120.18	-0.060344
9130.38	-0.0586318
9140.58	-0.0594384
9150.14	-0.0601712
9160.34	-0.0609288
9170.53	-0.0616621
9180.09	-0.062328
9190.29	-0.0630157
9200.49	-0.0636806
9210.05	-0.0642819
9220.25	-0.0648962
9230.44	-0.0654836
9240	-0.0660109
9250.2	-0.0665495
9260.4	-0.0670644
9270.6	-0.0675566
9280.16	-0.0679982
9290.35	-0.0684491
9300.55	-0.0688801
9310.11	-0.0692674
9320.31	-0.069664
9330.51	-0.0700446
9340.07	-0.0703877
9350.26	-0.0707398
9360.46	-0.0710774
9370.02	-0.0713802
9380.22	-0.0716885
9390.42	-0.0719812
9400.61	-0.0722583
9410.17	-0.0725037
9420.37	-0.0727489
9430.57	-0.0729767
9440.13	-0.0731748
9450.33	-0.07337
9460.52	-0.0735892
9470.08	-0.0738565
9480.28	-0.0741159
9490.48	-0.0743503
9500.04	-0.0745483
9510.24	-0.0746439
9520.43	-0.0747117
9530.63	-0.0747663
9540.19	-0.0748059
9550.39	-0.074836
9560.59	-0.074854
9570.15	-0.0748603
9580.34	-0.0748559
9590.54	-0.0748404
9600.1	-0.0748159
9610.3	-0.0747794
9620.5	-0.0747324
9630.06	-0.0746789
9640.25	-0.074612
9650.45	-0.074535
9660.01	-0.0744538
9670.21	-0.0743577
9680.41	-0.0742517
9690.6	-0.0741361
9700.16	-0.074019
9710.36	-0.0738848
9720.56	-0.073741
9730.12	-0.0735976
9740.32	-0.0734354
9750.51	-0.0732639
9760.07	-0.0730947
9770.27	-0.0729053
9780.47	-0.0727069
9790.03	-0.0725127
9800.23	-0.072297
9810.42	-0.0720725
9820.62	-0.0718395
9830.18	-0.0716136
9840.38	-0.0713649
9850.58	-0.0711085
9860.14	-0.0703907
9870.33	-0.0701457
9880.53	-0.069897
9890.09	-0.0696604
9900.29	-0.0694044
9910.49	-0.0691445
9920.05	-0.0688973
9930.24	-0.06863
9940.44	-0.0683588
9950	-0.0680999
9960.2	-0.0678172
9970.4	-0.067528
9980.59	-0.0672326
9990.15	-0.0669502
10000.4	-0.0666432
10010.5	-0.0663305
10020.1	-0.0660323
10030.3	-0.0657088
10040.5	-0.0653799
10050.1	-0.0650666
10060.3	-0.0647274
10070.5	-0.0643829
10080	-0.0640553
10090.2	-0.0637009
10100.4	-0.0633413
10110.6	-0.0629767
10120.2	-0.0626303
10130.4	-0.0622559
10140.6	-0.0618687
10150.1	-0.0613956
10160.3	-0.0608906
10170.5	-0.0603861
10180.1	-0.0599152
10190.3	-0.059415
10200.5	-0.0589163
10210	-0.05845
10220.2	-0.0579535
10230.4	-0.0574576
10240.6	-0.0569621
10250.2	-0.0564976
10260.4	-0.056002
10270.6	-0.0555062
10280.1	-0.0550409
10290.3	-0.0545439
10300.5	-0.0540463
10310.1	-0.0535789
10320.3	-0.0530793
10330.5	-0.0525787
10340.1	-0.0521082
10350.2	-0.0516052
10360.4	-0.0511014
10370.6	-0.0505971
10380.1	-0.050124
10390.3	-0.0496183
10400.5	-0.0491114
10410.6	-0.0486036
10420.1	-0.0481266
10430.3	-0.0476171
10440.5	-0.0471068
10450.6	-0.0465961
10460.1	-0.046117
10470.3	-0.0456058
10480.5	-0.0450947
10490.6	-0.0445838
10500.1	-0.0441052
10510.3	-0.0435951
10520.5	-0.0430857
10530.6	-0.042577
10540.1	-0.0421008
10550.3	-0.0415939
10560.4	-0.041088
10570.6	-0.0405833
10580.1	-0.0401117
10590.3	-0.0396102
10600.4	-0.0391105
10610.6	-0.0385806
10620.1	-0.0380601
10630.3	-0.037513
10640.4	-0.036974
10650.6	-0.0364427
10660.1	-0.0359514
10670.3	-0.0354343
10680.4	-0.0349242
10690.6	-0.0344208
10700.1	-0.0339547
10710.3	-0.0334635
10720.4	-0.0329783
10730.6	-0.0324988
10740.1	-0.0320553
10750.3	-0.0315895
10760.4	-0.0311308
10770.6	-0.0306788
10780.1	-0.0302606
10790.3	-0.02982
10800.4	-0.0293848
10810.6	-0.0289545
10820.1	-0.0285553
10830.3	-0.0281336
10840.4	-0.0277159
10850.6	-0.0273019
10860.1	-0.0269077
10870.3	-0.0264966
10880.4	-0.0261053
10890.6	-0.0257304
10900.1	-0.0253913
10910.3	-0.0250404
10920.4	-0.0246987
10930.6	-0.0243676
10940.1	-0.0240665
10950.3	-0.0237541
10960.4	-0.0234497
10970.6	-0.0231519
10980.1	-0.0228776
10990.3	-0.0225889
11000.4	-0.0223032
11010.6	-0.0220191
11020.1	-0.0217536
11030.3	-0.0214703
11040.4	-0.021186
11050.6	-0.0209
11060.1	-0.0206296
11070.3	-0.0203385
11080.4	-0.0200444
11090.6	-0.0197472
11100.1	-0.0194656
11110.3	-0.0191617
11120.4	-0.0188537
11130.6	-0.0185413
11140.1	-0.0182442
11150.2	-0.017924
11160.4	-0.0175979
11170.6	-0.0172676
11180.1	-0.0169541
11190.2	-0.0166183
11200.4	-0.0162869
11210.6	-0.015958
11220.1	-0.0156498
11230.2	-0.0153194
11240.4	-0.0149858
11250.6	-0.0146475
11260.1	-0.0143252
11270.2	-0.0139067
11280.4	-0.0133851
11290.6	-0.0128333
11300.1	-0.0122992
11310.2	-0.0117193
11320.4	-0.0111339
11330.5	-0.0105459
11340.1	-0.00999425
11350.2	-0.00940742
11360.4	-0.0088242
11370.5	-0.0082448
11380.1	-0.00770418
11390.2	-0.00712894
11400.4	-0.00655256
11410.5	-0.00596899
11420.1	-0.00541678
11430.2	-0.0048232
11440.4	-0.00422494
11450.5	-0.00362193
11460.1	-0.00236297
11470.2	-0.000826648
11480.4	0.000582208
11490.5	0.00185456
11500.1	0.00292664
11510.2	0.00395323
11520.4	0.00488324
11530.5	0.0057545
11540.1	0.00652533
11550.2	0.00766121
11560.4	0.00870655
11570.5	0.00958946
11580.1	0.0103581
11590.2	0.0111521
11600.4	0.0119829
11610.5	0.0132896
11620.1	0.0145434
11630.2	0.0173566
11640.4	0.022931
11650.5	0.0279453
11660.1	0.0331899
11670.2	0.0389129
11680.4	0.0448088
11690.5	0.0511809
11700.1	0.0571433
11710.2	0.0636817
11720.4	0.0703739
11730.5	0.076853
11740.1	0.0825113
11750.2	0.0882167
11760.4	0.0933604
11770.5	0.0979015
11780.1	0.101539
11790.2	0.104706
11800.4	0.107192
11810.5	0.108936
11820.1	0.109866
11830.2	0.110265
11840.4	0.110307
11850.5	0.11022
11860.1	0.110125
11870.2	0.110026
11880.4	0.110016
11890.1	0.11017
11900.3	0.110471
11910.5	0.110797
11920.1	0.111068
11930.4	0.111366
11940.6	0.111756
11950.2	0.112234
11960.5	0.112848
11970.1	0.113499
11980.3	0.114231
11990.6	0.114926
