0	0
11.9841	0
21.9707	0
31.9572	0
41.9437	0
51.9301	0
61.9164	0
71.9027	0
81.8888	0
91.875	0
101.861	0
111.847	0
121.833	0
131.796	0
141.688	0
151.505	0
161.322	0
171.12	0
180.918	0
190.716	0
200.514	0
210.311	0
220.1	0
231.844	0
241.642	0
251.437	0
261.234	0
271.032	0
280.829	0
290.627	0
300.424	2.72848e-12
310.221	7.27596e-12
320.019	1.18234e-11
331.775	2.27374e-11
341.573	3.45608e-11
351.37	4.91127e-11
361.167	6.82121e-11
370.859	9.1859e-11
380.526	1.20963e-10
390.232	1.57343e-10
401.873	2.11003e-10
411.564	2.64663e-10
421.066	3.27418e-10
430.535	4.01087e-10
441.864	5.0477e-10
451.305	6.06633e-10
460.745	7.23958e-10
470.186	8.58563e-10
481.487	1.04683e-09
490.853	1.22782e-09
500.222	1.43245e-09
511.44	1.7144e-09
520.766	1.9827e-09
530.092	2.28556e-09
541.269	2.7012e-09
550.576	3.09683e-09
561.743	3.63616e-09
571.047	4.14548e-09
580.347	4.71846e-09
591.508	5.4979e-09
600.808	6.23368e-09
610.109	7.05313e-09
621.269	8.15089e-09
630.57	9.16589e-09
641.73	1.05092e-08
651.03	1.17343e-08
660.331	1.30576e-08
671.491	1.47793e-08
680.791	1.63282e-08
690.081	1.79789e-08
701.216	2.00944e-08
710.485	2.19652e-08
721.608	2.43335e-08
730.877	2.64054e-08
740.146	2.8559e-08
751.268	3.12411e-08
760.537	3.35504e-08
771.66	3.6398e-08
780.928	3.88263e-08
790.197	4.12956e-08
801.32	4.43042e-08
810.588	4.68417e-08
821.711	4.9914e-08
830.98	5.24906e-08
840.248	5.50763e-08
851.371	5.81895e-08
860.639	6.07879e-08
871.762	6.39111e-08
881.03	6.65195e-08
890.299	6.91361e-08
901.421	7.22948e-08
910.69	7.49505e-08
921.812	7.81793e-08
931.08	8.09205e-08
940.349	8.37226e-08
951.471	8.71942e-08
960.739	9.02055e-08
970.008	9.33505e-08
981.13	9.73423e-08
990.398	1.00893e-07
1001.52	1.05481e-07
1010.79	1.0963e-07
1020.06	1.14125e-07
1031.18	1.20058e-07
1040.45	1.25517e-07
1051.57	1.32782e-07
1060.84	1.39514e-07
1070.11	1.46944e-07
1081.23	1.569e-07
1090.5	1.66167e-07
1101.62	1.78599e-07
1110.89	1.90177e-07
1120.15	2.02983e-07
1131.28	2.20139e-07
1140.54	2.36071e-07
1151.66	2.57362e-07
1160.92	2.77089e-07
1170.18	2.98786e-07
1181.3	3.27655e-07
1190.56	3.54279e-07
1201.68	3.89582e-07
1210.94	4.22028e-07
1220.2	4.57446e-07
1231.32	5.04176e-07
1240.58	5.46911e-07
1251.69	6.03108e-07
1260.96	6.54331e-07
1270.22	7.09834e-07
1281.34	7.82482e-07
1290.59	8.48366e-07
1301.69	9.3424e-07
1310.92	1.01181e-06
1320.15	1.09528e-06
1331.23	1.20376e-06
1340.46	1.30159e-06
1351.51	1.42883e-06
1360.71	1.54365e-06
1371.75	1.69255e-06
1380.95	1.82611e-06
1390.15	1.96848e-06
1401.19	2.15114e-06
1410.39	2.31335e-06
1421.43	2.52016e-06
1430.63	2.7028e-06
1441.67	2.93454e-06
1450.87	3.13832e-06
1460.06	3.35183e-06
1471.05	3.62052e-06
1480.22	3.85579e-06
1491.21	4.15219e-06
1500.37	4.41132e-06
1511.37	4.73741e-06
1520.53	5.02228e-06
1531.53	5.38061e-06
1540.69	5.6936e-06
1551.69	6.08733e-06
1560.83	6.43042e-06
1571.82	6.86332e-06
1580.96	7.24064e-06
1590.11	7.63551e-06
1601.05	8.13132e-06
1610.18	8.56527e-06
1621.13	9.11241e-06
1630.26	9.59154e-06
1641.21	1.0196e-05
1650.33	1.07257e-05
1661.28	1.13943e-05
1670.41	1.19805e-05
1681.36	1.27209e-05
1690.49	1.33703e-05
1701.44	1.41908e-05
1710.56	1.49106e-05
1721.51	1.58198e-05
1730.64	1.66169e-05
1741.59	1.76224e-05
1750.72	1.85022e-05
1761.67	1.96096e-05
1770.79	2.05763e-05
1781.74	2.17904e-05
1790.87	2.2848e-05
1801.82	2.41733e-05
1810.94	2.53252e-05
1820.06	2.65202e-05
1831	2.80141e-05
1840.12	2.93101e-05
1851.06	3.09272e-05
1860.18	3.23278e-05
1871.12	3.40732e-05
1880.22	3.55829e-05
1891.15	3.74635e-05
1900.26	3.90899e-05
1911.19	4.1115e-05
1920.3	4.28657e-05
1931.23	4.50451e-05
1940.34	4.69289e-05
1951.27	4.92738e-05
1960.38	5.13007e-05
1971.31	5.38238e-05
1980.42	5.60048e-05
1991.35	5.87199e-05
2000.46	6.10672e-05
2011.39	6.39896e-05
2020.49	6.65165e-05
2031.42	6.96631e-05
2040.53	7.23842e-05
2051.46	7.57732e-05
2060.57	7.87045e-05
2071.5	7.79256e-05
2080.61	7.67674e-05
2091.54	7.56467e-05
2100.65	7.49222e-05
2111.58	7.42875e-05
2120.69	7.39422e-05
2131.62	7.37338e-05
2140.72	7.37218e-05
2151.65	7.38898e-05
2160.76	7.4174e-05
2171.69	7.46791e-05
2180.8	7.52307e-05
2191.73	7.60429e-05
2200.84	7.68405e-05
2211.77	7.79381e-05
2220.88	7.89669e-05
2231.81	8.03356e-05
2240.91	8.15864e-05
2250.02	8.29366e-05
2260.95	8.46875e-05
2270.06	8.62554e-05
2280.99	8.82686e-05
2290.1	9.00569e-05
2301.03	9.23378e-05
2310.14	9.43528e-05
2321.07	9.69112e-05
2330.17	9.91628e-05
2341.1	0.000102012
2350.21	0.000104513
2361.14	0.00010767
2370.25	0.000110435
2381.18	0.00011392
2390.29	0.000116966
2401.22	0.0001208
2410.32	0.000124148
2421.25	0.000128355
2430.36	0.000132025
2441.29	0.000136635
2450.4	0.000140648
2461.33	0.000145654
2470.44	0.000149972
2481.37	0.00015532
2490.46	0.000159904
2501.37	0.000165553
2510.45	0.000170382
2521.35	0.000176327
2530.43	0.000181411
2541.34	0.000187666
2550.42	0.000193011
2561.33	0.000199589
2570.41	0.000205214
2581.32	0.000212141
2590.4	0.00021807
2601.3	0.000225383
2610.39	0.000231652
2621.29	0.000239395
2630.37	0.000246037
2641.21	0.000254221
2650.21	0.000261225
2661	0.000269903
2671.79	0.000278898
2680.79	0.000286648
2691.58	0.00029627
2700.58	0.000304568
2711.37	0.000314876
2720.36	0.00032377
2731.16	0.000334823
2740.15	0.000344362
2750.95	0.00035622
2761.74	0.000368544
2770.73	0.000379184
2781.53	0.000392415
2790.52	0.00040384
2801.32	0.000418052
2810.31	0.000437212
2821.1	0.000472761
2830.1	0.000502274
2840.89	0.000537447
2851.68	0.000572303
2860.68	0.0006011
2871.47	0.000635386
2880.47	0.00066377
2891.26	0.00069768
2900.25	0.000725882
2911.05	0.000759757
2920.04	0.000788103
2930.84	0.000822374
2941.63	0.000857061
2950.62	0.000886392
2961.42	0.000922227
2970.41	0.000952722
2981.2	0.000990203
2990.2	0.00102227
3000.99	0.00106189
3011.78	0.00110284
3020.78	0.00113789
3031.57	0.00118087
3040.57	0.00121737
3051.36	0.00126194
3060.35	0.00129974
3071.15	0.00134593
3080.14	0.00138517
3090.93	0.00143329
3101.73	0.00148269
3110.72	0.00152499
3121.51	0.00157731
3130.51	0.00162237
3141.3	0.00167839
3150.29	0.00172686
3161.09	0.00178735
3170.08	0.00183985
3180.87	0.00190554
3191.67	0.00197435
3200.66	0.00210481
3211.45	0.00225357
3220.45	0.00237137
3231.24	0.0025067
3240.23	0.00261593
3251.03	0.00274486
3260.02	0.0028522
3270.81	0.00298296
3281.61	0.00311795
3290.6	0.00323512
3301.39	0.00338128
3310.39	0.00350667
3321.18	0.00366127
3330.17	0.00379406
3340.97	0.00395948
3351.76	0.00413354
3360.75	0.0042869
3371.55	0.0044828
3380.54	0.00469284
3391.33	0.00511244
3400.33	0.00544776
3411.12	0.00584219
3420.11	0.00617553
3430.91	0.00659476
3441.7	0.0070358
3450.69	0.00741373
3461.48	0.00788814
3470.48	0.00831435
3481.27	0.00925779
3490.26	0.00999411
3501.06	0.0108935
3510.05	0.0117127
3520.84	0.0130172
3531.64	0.0150136
3540.63	0.016943
3551.42	0.0217212
3560.42	0.0261764
3571.21	0.0314888
3580.2	0.0355549
3591	0.0405007
3601.79	0.0454794
3610.78	0.0494601
3621.58	0.0539229
3630.57	0.0576202
3641.36	0.062206
3650.36	0.0660713
3661.15	0.0705645
3670.14	0.0741704
3680.94	0.0784526
3691.73	0.0827551
3700.72	0.0863358
3711.52	0.0906303
3720.51	0.0942426
3731.3	0.0986201
3740.3	0.102257
3751.09	0.106559
3760.09	0.110095
3770.88	0.114316
3781.67	0.118536
3790.67	0.122057
3801.46	0.126303
3810.45	0.129878
3821.25	0.134227
3830.24	0.137898
3841.04	0.142343
3850.03	0.146079
3860.82	0.150607
3871.62	0.155201
3880.64	0.159101
3891.52	0.163883
3900.58	0.167933
3911.46	0.172864
3920.52	0.177022
3931.4	0.182057
3940.46	0.18629
3951.34	0.191419
3960.4	0.195748
3971.28	0.201028
3980.34	0.205516
3991.22	0.211026
4000.29	0.215732
4011.17	0.221526
4020.23	0.226489
4031.11	0.232627
4040.18	0.237915
4051.06	0.244502
4060.13	0.250218
4071.01	0.257383
4080.08	0.263633
4090.96	0.271498
4100.03	0.278382
4110.91	0.28708
4121.79	0.296303
4130.86	0.304437
4141.74	0.314796
4150.82	0.323986
4161.74	0.335751
4170.84	0.346219
4181.81	0.359662
4190.95	0.371611
4200.08	0.384277
4211.05	0.400471
4220.19	0.41483
4231.17	0.433164
4240.36	0.449418
4251.39	0.470037
4260.57	0.488144
4271.6	0.510956
4280.79	0.530834
4291.81	0.555669
4301	0.577123
4310.19	0.599196
4321.21	0.626396
4330.4	0.649548
4341.42	0.677754
4350.61	0.701466
4361.64	0.729959
4370.82	0.75355
4380.01	0.776819
4391.04	0.804055
4400.22	0.825946
4411.25	0.85093
4420.44	0.870418
4431.46	0.891853
4440.65	0.907804
4451.68	0.924275
4460.86	0.935475
4470.05	0.944105
4481.08	0.950712
4490.26	0.952802
4501.29	0.950855
4510.48	0.945258
4521.5	0.933463
4530.69	0.919184
4541.72	0.896473
4550.9	0.87275
4560.09	0.844561
4571.12	0.804756
4580.3	0.766578
4591.33	0.71478
4600.52	0.666689
4611.54	0.603191
4620.73	0.545565
4631.76	0.470907
4640.94	0.404189
4650.13	0.333414
4661.16	0.243104
4670.35	0.163159
4681.37	0.061643
4690.56	-0.0170121
4701.59	-0.0902834
4710.77	-0.125599
4721.8	-0.146185
4731	-0.170438
4740.25	-0.190003
4751.37	-0.20971
4760.64	-0.224075
4771.76	-0.231796
4781.03	-0.244419
4790.3	-0.254569
4801.42	-0.264806
4810.69	-0.27195
4821.81	-0.279279
4831.08	-0.285179
4840.35	-0.290773
4851.47	-0.296958
4860.74	-0.288556
4870.01	-0.290734
4881.13	-0.297626
4890.4	-0.302419
4901.52	-0.307215
4910.79	-0.310553
4920.06	-0.313424
4931.18	-0.316397
4940.45	-0.318588
4951.58	-0.32075
4960.84	-0.32218
4970.1	-0.323655
4981.22	-0.325235
4990.48	-0.326548
5001.6	-0.328085
5010.86	-0.32931
5020.12	-0.330467
5031.24	-0.331748
5040.5	-0.332688
5051.62	-0.325082
5060.88	-0.326116
5070.14	-0.327073
5081.26	-0.32889
5090.52	-0.330123
5101.63	-0.331389
5110.9	-0.332249
5120.16	-0.332942
5131.27	-0.333582
5140.52	-0.333969
5151.61	-0.334272
5160.84	-0.334404
5170.08	-0.334436
5181.15	-0.334355
5190.38	-0.334197
5201.43	-0.333912
5210.63	-0.333601
5221.67	-0.333149
5230.87	-0.332712
5240.07	-0.332209
5251.11	-0.331543
5260.31	-0.330954
5271.35	-0.330212
5280.55	-0.32952
5291.59	-0.328469
5300.79	-0.327579
5311.82	-0.326491
5321.02	-0.325566
5330.22	-0.324624
5341.26	-0.323469
5350.45	-0.322487
5361.44	-0.321285
5370.61	-0.320261
5381.6	-0.319007
5390.76	-0.317942
5401.76	-0.316638
5410.92	-0.315519
5420.09	-0.314374
5431.08	-0.312975
5440.24	-0.305487
5451.24	-0.304739
5460.36	-0.304112
5471.32	-0.303348
5480.48	-0.302705
5491.43	-0.30193
5500.55	-0.30128
5511.5	-0.300493
5520.63	-0.299834
5531.58	-0.299042
5540.7	-0.298382
5551.65	-0.297592
5560.78	-0.296936
5571.73	-0.296152
5580.86	-0.295501
5591.81	-0.294725
5600.93	-0.294081
5610.06	-0.29344
5621.01	-0.292679
5630.13	-0.29205
5641.09	-0.291304
5650.21	-0.290689
5661.16	-0.289955
5670.29	-0.289345
5681.24	-0.288614
5690.35	-0.288002
5701.29	-0.287262
5710.41	-0.286638
5721.35	-0.285876
5730.48	-0.285229
5741.42	-0.284434
5750.54	-0.283755
5761.48	-0.282916
5770.59	-0.282195
5781.53	-0.2813
5790.64	-0.280573
5801.57	-0.279726
5810.68	-0.27897
5821.61	-0.278004
5830.72	-0.27715
5841.65	-0.276069
5850.76	-0.27512
5861.69	-0.273854
5870.8	-0.272693
5881.73	-0.271248
5890.83	-0.270001
5901.77	-0.268456
5910.87	-0.267129
5921.8	-0.265491
5930.91	-0.26409
5940.02	-0.262657
5950.95	-0.260898
5960.06	-0.259399
5970.99	-0.257564
5980.1	-0.256006
5991.03	-0.254479
6000.14	-0.253448
6011.07	-0.252115
6020.18	-0.250935
6031.11	-0.249448
6040.21	-0.248156
6051.14	-0.246547
6060.25	-0.245163
6071.18	-0.243453
6080.29	-0.24199
6091.22	-0.24019
6100.33	-0.238655
6111.26	-0.236773
6120.37	-0.235171
6131.3	-0.23321
6140.41	-0.231545
6151.34	-0.22951
6160.45	-0.227784
6171.38	-0.225674
6180.48	-0.223877
6191.41	-0.221679
6200.52	-0.219814
6211.45	-0.217547
6220.56	-0.215641
6231.49	-0.213343
6240.6	-0.211422
6251.53	-0.209117
6260.64	-0.207198
6271.57	-0.204897
6280.68	-0.202984
6291.61	-0.200691
6300.71	-0.198782
6311.64	-0.196493
6320.75	-0.194583
6331.68	-0.192289
6340.79	-0.190371
6351.72	-0.188062
6360.83	-0.186129
6371.76	-0.183797
6380.87	-0.181843
6391.8	-0.179483
6400.91	-0.176664
6410.01	-0.173331
6420.94	-0.169437
6430.05	-0.166291
6440.98	-0.162631
6450.09	-0.159664
6461.02	-0.156179
6470.13	-0.153319
6481.06	-0.149916
6490.17	-0.147086
6501.09	-0.143682
6510.17	-0.14083
6521.07	-0.137404
6530.15	-0.134561
6541.06	-0.131161
6550.14	-0.128334
6561.05	-0.124929
6570.13	-0.122064
6581.04	-0.118575
6590.12	-0.115611
6601.03	-0.10925
6610.11	-0.104226
6621.02	-0.0984883
6630.1	-0.0938435
6641	-0.0883005
6650.09	-0.0836287
6660.99	-0.0779499
6670.07	-0.0732492
6680.98	-0.0676521
6690.03	-0.0629587
6700.84	-0.0545988
6711.64	-0.0462349
6720.63	-0.039642
6731.43	-0.0313983
6740.42	-0.0243429
6751.21	-0.0118636
6760.21	-0.00101016
6771	0.0170859
6781.8	0.0398515
6790.79	0.0563525
6801.58	0.069386
6810.58	0.0773183
6821.37	0.0846188
6830.37	0.0889671
6841.16	0.0912057
6850.15	0.0917226
6860.95	0.0926761
6871.74	0.0942992
6880.74	0.0954381
6891.53	0.0958838
6900.52	0.0956782
6911.32	0.0954561
6920.31	0.0956031
6931.1	0.0960851
6940.1	0.0967056
6950.89	0.0978555
6961.69	0.0993421
6970.68	0.100472
6981.47	0.101321
6990.47	0.101607
7001.26	0.101699
7010.26	0.101711
7021.05	0.101638
7030.04	0.101457
7040.84	0.10113
7051.63	0.100775
7060.62	0.100464
7071.42	0.0999782
7080.41	0.099418
7091.21	0.0985989
7100.2	0.0979071
7110.99	0.0972251
7121.79	0.0968011
7130.78	0.09663
7141.57	0.0965157
7150.57	0.0963423
7161.36	0.0958448
7170.36	0.0950906
7181.15	0.0937609
7190.14	0.0923629
7200.94	0.0904776
7211.73	0.0885312
7220.73	0.0869624
7231.52	0.0851996
7240.51	0.0838215
7251.31	0.0822253
7260.3	0.0809047
7271.09	0.0793242
7280.09	0.0780476
7290.88	0.0766501
7301.68	0.0755004
7310.67	0.0747863
7321.46	0.0742374
7330.46	0.0740067
7341.25	0.0739258
7350.25	0.0739525
7361.04	0.0740247
7370.03	0.0740874
7380.83	0.0741632
7391.62	0.0742664
7400.61	0.0744026
7411.41	0.0746566
7420.4	0.0749575
7431.19	0.0754302
7440.19	0.0759137
7450.98	0.0765947
7461.78	0.0773801
7470.77	0.0781106
7481.56	0.0790709
7490.56	0.0799282
7501.35	0.0809979
7510.35	0.081894
7521.14	0.0829341
7530.13	0.083743
7540.93	0.0846203
7551.72	0.085388
7560.71	0.0859501
7571.51	0.0865484
7580.5	0.0869988
7591.3	0.0874982
7600.29	0.0878902
7611.08	0.0883422
7620.08	0.0887133
7630.87	0.08917
7641.66	0.0896655
7650.66	0.0901303
7661.45	0.0907723
7670.45	0.0913862
7681.24	0.0922125
7690.24	0.0929602
7701.03	0.0938981
7710.02	0.0946881
7720.82	0.0956211
7731.61	0.0965259
7740.6	0.0972624
7751.4	0.0981445
7760.39	0.0988994
7771.19	0.0998572
7780.18	0.100717
7790.97	0.101836
7801.77	0.103054
7810.76	0.104141
7821.56	0.105518
7830.55	0.106712
7841.34	0.108174
7850.34	0.109394
7861.13	0.110823
7870.13	0.111954
7880.92	0.113194
7891.71	0.114263
7900.71	0.114994
7911.5	0.115655
7920.5	0.116018
7931.29	0.116228
7940.28	0.116227
7951.08	0.116037
7960.13	0.115741
7971	0.115247
7980.07	0.114744
7990.95	0.114054
8000.01	0.113422
8010.89	0.112613
8021.76	0.11176
8030.83	0.111018
8041.7	0.110094
8050.77	0.109292
8061.65	0.108284
8070.71	0.1074
8081.59	0.106279
8090.65	0.10529
8101.53	0.104039
8110.59	0.102945
8121.47	0.101579
8130.53	0.100408
8141.41	0.0989765
8150.48	0.0977743
8161.36	0.0963351
8170.42	0.0951478
8181.3	0.0937457
8190.37	0.0925991
8201.25	0.0912483
8210.32	0.0901391
8221.2	0.0888175
8230.27	0.0877131
8241.15	0.0863669
8250.22	0.0852128
8261.1	0.0837697
8270.17	0.0825042
8281.05	0.0808937
8290.11	0.0794649
8300.99	0.0776375
8310.06	0.0760171
8320.94	0.073956
8330.01	0.072145
8340.89	0.0698687
8351.77	0.0674939
8360.84	0.0654526
8371.72	0.0629457
8380.79	0.0608235
8391.68	0.0582539
8400.76	0.0561056
8411.66	0.053537
8420.75	0.0514101
8431.67	0.0488871
8440.79	0.0468118
8451.75	0.0443565
8460.89	0.0423462
8470.03	0.0403691
8480.99	0.038041
8490.13	0.0361381
8501.1	0.0339009
8510.24	0.0320764
8521.2	0.0299375
8530.34	0.0281993
8541.35	0.026162
8550.53	0.0245097
8561.56	0.0225853
8570.75	0.0210282
8581.77	0.0192085
8590.96	0.0177223
8600.15	0.0162471
8611.17	0.0144549
8620.36	0.0128498
8631.39	0.00950209
8640.58	0.00413985
8651.6	-0.000776479
8660.79	-0.00284704
8671.82	-0.00829474
8681	-0.0125864
8690.19	-0.0163804
8701.22	-0.0168928
8710.4	-0.0207675
8721.43	-0.0244366
8730.62	-0.0269773
8741.64	-0.0298102
8750.83	-0.0320057
8760.02	-0.0340662
8771.05	-0.0363832
8780.23	-0.0381919
8791.26	-0.0385356
8800.45	-0.0408004
8811.47	-0.0431341
8820.66	-0.0448558
8831.69	-0.0467223
8840.87	-0.0481531
8850.05	-0.0494943
8861.05	-0.0510081
8870.21	-0.0522113
8881.21	-0.0535578
8890.37	-0.0545606
8901.36	-0.0557173
8910.53	-0.0566382
8921.52	-0.0576883
8930.69	-0.0585165
8941.68	-0.059448
8950.84	-0.0583208
8961.79	-0.0610141
8970.96	-0.0615011
8980.09	-0.0619274
8991.08	-0.0623539
9000.22	-0.0626515
9011.16	-0.0629556
9020.28	-0.0631734
9031.23	-0.0634042
9040.36	-0.0635793
9051.31	-0.0637771
9060.44	-0.063937
9071.39	-0.0641286
9080.51	-0.0643211
9091.46	-0.0646833
9100.59	-0.0649708
9111.54	-0.0652884
9120.67	-0.0654893
9131.62	-0.0657315
9140.74	-0.0659332
9151.69	-0.0661738
9160.82	-0.0663719
9171.77	-0.0666053
9180.9	-0.0667951
9190.02	-0.06698
9200.97	-0.0671944
9210.1	-0.0673663
9221.05	-0.0675639
9230.18	-0.0677209
9241.13	-0.0662051
9250.25	-0.0664967
9261.2	-0.0668364
9270.33	-0.0671091
9281.28	-0.0668556
9290.39	-0.0671525
9301.33	-0.0674865
9310.45	-0.067747
9321.4	-0.0680383
9330.52	-0.0682632
9341.46	-0.068512
9350.57	-0.068702
9361.51	-0.0689092
9370.62	-0.0690643
9381.55	-0.0692252
9390.66	-0.0693387
9401.59	-0.0694516
9410.69	-0.0695266
9421.63	-0.0695949
9430.73	-0.0696348
9441.66	-0.069663
9450.77	-0.0696701
9461.7	-0.0696599
9470.81	-0.0696369
9481.74	-0.0695927
9490.85	-0.0695431
9501.78	-0.0694689
9510.89	-0.0693959
9521.82	-0.0692954
9530.93	-0.0692018
9540.04	-0.0690998
9550.97	-0.0689668
9560.07	-0.0688478
9571	-0.0686933
9580.11	-0.0685538
9591.04	-0.0683751
9600.15	-0.0682424
9611.08	-0.0681867
9620.19	-0.0681253
9631.12	-0.0680351
9640.23	-0.067947
9651.16	-0.0678268
9660.27	-0.0677153
9671.2	-0.0675438
9680.31	-0.0673522
9691.24	-0.067116
9700.35	-0.0669141
9711.28	-0.0666661
9720.38	-0.0664548
9731.31	-0.0661958
9740.42	-0.0659756
9751.35	-0.0657061
9760.46	-0.0654773
9771.39	-0.0651976
9780.5	-0.0649603
9791.43	-0.0646705
9800.54	-0.0644248
9811.47	-0.0641249
9820.58	-0.0638707
9831.51	-0.0635606
9840.62	-0.0632979
9851.55	-0.0629776
9860.66	-0.0627062
9871.59	-0.0623754
9880.69	-0.0620954
9891.62	-0.0617541
9900.73	-0.0614652
9911.66	-0.0611134
9920.77	-0.0608159
9931.7	-0.060454
9940.81	-0.0601483
9951.74	-0.0597769
9960.85	-0.0594635
9971.78	-0.0590829
9980.88	-0.0597985
9991.79	-0.059449
10000.9	-0.0591554
10011.8	-0.0587994
10020.8	-0.0584998
10031.8	-0.0581362
10040.8	-0.0578299
10051.7	-0.0574578
10060.8	-0.0571431
10071.7	-0.0567599
10080.8	-0.056436
10091.7	-0.0560421
10100.8	-0.0557095
10111.7	-0.0553053
10120.8	-0.0549642
10131.7	-0.0545499
10140.8	-0.0542004
10151.7	-0.0537761
10160.8	-0.0534183
10171.6	-0.0529855
10180.6	-0.0526011
10191.4	-0.0520343
10200.4	-0.0515623
10211.2	-0.0509977
10220.2	-0.0505299
10231	-0.0499713
10240	-0.0495077
10250.8	-0.0489533
10261.6	-0.0484006
10270.6	-0.047941
10281.4	-0.0473904
10290.4	-0.0469321
10301.2	-0.0463827
10310.2	-0.0459252
10321	-0.0453763
10331.7	-0.0448276
10340.7	-0.0443704
10351.5	-0.0438216
10360.5	-0.0433641
10371.3	-0.0428149
10380.3	-0.0423571
10391.1	-0.0418073
10400.1	-0.041349
10410.9	-0.0407985
10421.7	-0.0402477
10430.7	-0.0397883
10441.5	-0.0392366
10450.5	-0.0387767
10461.3	-0.0382246
10470.3	-0.0377645
10481.1	-0.0372125
10490.1	-0.0367527
10500.8	-0.0362013
10511.6	-0.0356505
10520.6	-0.035192
10531.4	-0.0346426
10540.4	-0.0341854
10551.2	-0.0336377
10560.2	-0.0331822
10571	-0.0326366
10581.8	-0.0320924
10590.8	-0.0316399
10601.6	-0.0310983
10610.6	-0.0306481
10621.4	-0.0301093
10630.4	-0.0296617
10641.2	-0.0291262
10650.2	-0.0286814
10660.9	-0.0281495
10671.7	-0.0276199
10680.7	-0.0271807
10691.5	-0.0266121
10700.5	-0.0261266
10711.3	-0.0255532
10720.3	-0.0250836
10731.1	-0.0245313
10740.1	-0.0240798
10750.9	-0.0235478
10761.7	-0.023026
10770.7	-0.0225983
10781.5	-0.0220931
10790.5	-0.0216784
10801.3	-0.0211879
10810.3	-0.0207846
10821.1	-0.020307
10830	-0.0199138
10840.8	-0.0194067
10851.6	-0.0188848
10860.6	-0.0184719
10871.4	-0.017999
10880.4	-0.0176211
10891.2	-0.0171839
10900.2	-0.0168312
10911	-0.0164196
10921.8	-0.0160187
10930.8	-0.0156913
10941.6	-0.0153054
10950.6	-0.0149919
10961.4	-0.0146256
10970.4	-0.0143276
10981.2	-0.0139774
10990.1	-0.0136909
11000.9	-0.0133521
11011.7	-0.0130177
11020.7	-0.0127415
11031.5	-0.0124118
11040.5	-0.0121379
11051.3	-0.0118093
11060.3	-0.0115352
11071.1	-0.0112058
11080.1	-0.0109307
11090.9	-0.0105998
11101.7	-0.0102676
11110.7	-0.00998955
11121.5	-0.00965395
11130.5	-0.00937237
11141.3	-0.00903181
11150.3	-0.00874551
11161	-0.00840508
11170	-0.00812542
11180.8	-0.00779234
11191.6	-0.0074603
11200.6	-0.0071835
11211.4	-0.00685014
11220.4	-0.00657057
11231.2	-0.00623205
11240.2	-0.00594686
11251	-0.00555234
11261.8	-0.00503432
11270.8	-0.00458248
11281.6	-0.00402684
11290.6	-0.00355818
11301.4	-0.00299353
11310.4	-0.00252316
11321.1	-0.00196029
11330.1	-0.00149344
11340.9	-0.000937247
11351.7	-0.000385637
11360.7	7.10987e-05
11371.5	0.000621683
11380.5	0.00108361
11391.3	0.00164139
11400.3	0.0021088
11411.1	0.00267224
11420.1	0.00314197
11430.9	0.00370349
11441.7	0.00426169
11450.7	0.00544685
11461.5	0.00679388
11470.5	0.00782145
11481.3	0.00893107
11490.2	0.00975528
11501	0.0106543
11510	0.0113453
11520.8	0.0121119
11531.6	0.0129741
11540.6	0.0137586
11551.4	0.0145565
11560.4	0.0151436
11571.2	0.0157993
11580.2	0.0162997
11591	0.0172837
11601.8	0.0184412
11610.8	0.02077
11621.6	0.0228617
11630.6	0.0242864
11641.4	0.0260738
11650.3	0.0277357
11661.1	0.0299002
11670.1	0.0317219
11680.9	0.0339092
11691.7	0.0361701
11700.7	0.0381133
11711.5	0.0404884
11720.5	0.0425285
11731.3	0.0450817
11740.3	0.047288
11751.2	0.0499839
11760.3	0.0522504
11771.2	0.0549704
11780.2	0.0571813
11791.1	0.0596728
11800.2	0.0615653
11811	0.0636132
11820.1	0.0651653
11831	0.0668885
11840	0.0682302
11850.9	0.069732
11861.8	0.0711097
11870.9	0.0721608
11881.7	0.0733141
11890.8	0.0741956
11901.7	0.0751699
11910.8	0.0759189
11921.6	0.0767493
11930.7	0.0773913
11941.6	0.078111
11950.7	0.0786748
11961.5	0.0793144
11970.6	0.0798208
11981.5	0.0804031
11990.6	0.0808717
