Problem size with different number of CPUs using function optimization
THREADS	MTPS	TIMESTEPS	TIMESTEP_SIZE	SECONDS_FOR_SIMULATION	AVERAGE_TRIANGLES	AVERAGE_PARTITIONS
64	40.3043	100	0.000986073	47.5805	1.9177e+07	1162.24
63	40.3292	100	0.000986073	47.5511	1.9177e+07	1162.24
62	40.4104	100	0.000986073	47.4556	1.9177e+07	1162.24
61	40.6723	100	0.000986073	47.15	1.9177e+07	1162.24
60	40.3972	100	0.000986073	47.4711	1.9177e+07	1162.24
59	40.5589	100	0.000986073	47.2819	1.9177e+07	1162.24
58	40.6308	100	0.000986073	47.1982	1.9177e+07	1162.24
57	40.545	100	0.000986073	47.2981	1.9177e+07	1162.24
56	40.4765	100	0.000986073	47.3781	1.9177e+07	1162.24
55	40.732	100	0.000986073	47.0809	1.9177e+07	1162.24
54	40.6637	100	0.000986073	47.16	1.9177e+07	1162.24
53	40.734	100	0.000986073	47.0786	1.9177e+07	1162.24
52	40.2298	100	0.000986073	47.6687	1.9177e+07	1162.24
51	40.6846	100	0.000986073	47.1357	1.9177e+07	1162.24
50	40.5305	100	0.000986073	47.3149	1.9177e+07	1162.24
49	40.5364	100	0.000986073	47.3081	1.9177e+07	1162.24
48	40.3659	100	0.000986073	47.5079	1.9177e+07	1162.24
47	40.5177	100	0.000986073	47.3299	1.9177e+07	1162.24
46	40.4503	100	0.000986073	47.4088	1.9177e+07	1162.24
45	40.4675	100	0.000986073	47.3886	1.9177e+07	1162.24
44	40.2702	100	0.000986073	47.6208	1.9177e+07	1162.24
43	40.2515	100	0.000986073	47.643	1.9177e+07	1162.24
42	40.1078	100	0.000986073	47.8136	1.9177e+07	1162.24
41	39.9074	100	0.000986073	48.0538	1.9177e+07	1162.24
40	39.7284	100	0.000986073	48.2702	1.9177e+07	1162.24
39	39.6931	100	0.000986073	48.3132	1.9177e+07	1162.24
38	39.654	100	0.000986073	48.3609	1.9177e+07	1162.24
37	39.5189	100	0.000986073	48.5261	1.9177e+07	1162.24
36	39.2158	100	0.000986073	48.9013	1.9177e+07	1162.24
35	39.0808	100	0.000986073	49.0701	1.9177e+07	1162.24
34	39.234	100	0.000986073	48.8785	1.9177e+07	1162.24
33	38.914	100	0.000986073	49.2805	1.9177e+07	1162.24
32	38.6765	100	0.000986073	49.583	1.9177e+07	1162.24
31	38.3715	100	0.000986073	49.9771	1.9177e+07	1162.24
30	37.9972	100	0.000986073	50.4695	1.9177e+07	1162.24
29	37.7322	100	0.000986073	50.824	1.9177e+07	1162.24
28	37.2321	100	0.000986073	51.5066	1.9177e+07	1162.24
27	37.0106	100	0.000986073	51.8148	1.9177e+07	1162.24
26	36.8143	100	0.000986073	52.0912	1.9177e+07	1162.24
25	36.5099	100	0.000986073	52.5255	1.9177e+07	1162.24
24	36.3021	100	0.000986073	52.8261	1.9177e+07	1162.24
23	35.717	100	0.000986073	53.6915	1.9177e+07	1162.24
22	35.3268	100	0.000986073	54.2846	1.9177e+07	1162.24
21	34.6999	100	0.000986073	55.2653	1.9177e+07	1162.24
20	33.9333	100	0.000986073	56.5138	1.9177e+07	1162.24
19	33.0474	100	0.000986073	58.0287	1.9177e+07	1162.24
18	32.2376	100	0.000986073	59.4864	1.9177e+07	1162.24
17	31.2899	100	0.000986073	61.2882	1.9177e+07	1162.24
16	30.2593	100	0.000986073	63.3755	1.9177e+07	1162.24
15	29.2877	100	0.000986073	65.478	1.9177e+07	1162.24
14	28.2776	100	0.000986073	67.8168	1.9177e+07	1162.24
13	27.2468	100	0.000986073	70.3827	1.9177e+07	1162.24
12	26.1041	100	0.000986073	73.4637	1.9177e+07	1162.24
11	24.6366	100	0.000986073	77.8394	1.9177e+07	1162.24
10	23.0603	100	0.000986073	83.1601	1.9177e+07	1162.24
9	21.1575	100	0.000986073	90.6394	1.9177e+07	1162.24
8	19.0842	100	0.000986073	100.486	1.9177e+07	1162.24
7	17.5692	100	0.000986073	109.151	1.9177e+07	1162.24
6	16.0735	100	0.000986073	119.308	1.9177e+07	1162.24
5	14.6564	100	0.000986073	130.844	1.9177e+07	1162.24
4	13.4444	100	0.000986073	142.639	1.9177e+07	1162.24
3	10.3246	100	0.000986073	185.741	1.9177e+07	1162.24
2	7.0116	100	0.000986073	273.504	1.9177e+07	1162.24
1	3.58999	100	0.000986073	534.179	1.9177e+07	1162.24
