%%MatrixMarket matrix array real general
6 4
-.1111111111
-.5555555556e-1
0.
-.5555555556e-1
-.2777777778e-1
0.
-.5555555556e-1
-.2777777778e-1
0.
-.1111111111
-.5555555556e-1
0.
-.5555555556e-1
-.1111111111
0.
-.2777777778e-1
-.5555555556e-1
0.
-.2777777778e-1
-.5555555556e-1
0.
-.5555555556e-1
-.1111111111
0.
