STARTING WORLD SCHEDULER SERVER
CLIENT SETUP: adding client 44294
 + TIMESTAMP: 0.260779
START TIMESTAMP: 0.2608
+++++++++++++++++++++++++++++++++++++++++++++++++++++++++++
+ Client Mapping:
  > Client 44294 (0):	

+ Core Mapping:	0 
+ Optimal point: 
+++++++++++++++++++++++++++++++++++++++++++++++++++++++++++
INVADE: client 44294
 + TIMESTAMP: 0.260856
RESSOURCE DISTRIBUTION CHANGED
++++++++++++++++++++++++++++++++++++++++++++++++
INVADE (44294)
  + pid: 44294
  + min_cores: 1
  + max_cores: 512
  + scalability graph: 
1, 1.39494, 1.5699, 1.6742, 1.74538, 1.79792, 1.83875, 1.87167, 1.89893, 1.922, 1.94184, 1.95915, 1.97442, 1.98802, 2.00024, 2.0113, 2.02136, 2.03058, 2.03906, 2.04689, 2.05415, 2.06092, 2.06724, 2.07316, 2.07872, 2.08396, 2.0889, 2.09358, 2.09801, 2.10222, 2.10622, 2.11003, 2.11367, 2.11715, 2.12048, 2.12367, 2.12672, 2.12966, 2.13248, 2.1352, 
Number of clients: 1

+++++++++++++++++++++++++++++++++++++++++++++++++++++++++++
+ Client Mapping:
  > Client 44294 (1):	0 

+ Core Mapping:	44294 
+ Optimal point: 1 
+++++++++++++++++++++++++++++++++++++++++++++++++++++++++++
CLIENT SHUTDOWN: client 44294
 + TIMESTAMP: 4787.27
+++++++++++++++++++++++++++++++++++++++++++++++++++++++++++
+ Client Mapping:
  > Client 44294 (0):	

+ Core Mapping:	0 
+ Optimal point: 1 
+++++++++++++++++++++++++++++++++++++++++++++++++++++++++++
client (44294) shutdown hint: 20954.2
sum_client_shutdown_hint: 20954.2
sum_client_shutdown_hint_div_time: 0
END TIMESTAMP: 4787.27
OVERALL TIME: 4787.01
 + sum_client_shutdown_hint: 20954.2
 + sum_client_shutdown_hint/time: 4.3773
sum_client_shutdown_hint: 20954.2
sum_client_shutdown_hint_div_time: 4.3773
