MODE: ipmo_prog0
PARCOUNT: 22
PROBLEMS: 1
Running on INWEST
Using iPMO

Programs:
 + ../../build/sierpi_intel_ipmo_tsunami_parallel_release  -u 10 -U 10 -T 1000 -n 4 -d 14
 + ../../build/sierpi_intel_ipmo_tsunami_parallel_release  -u 10 -U 10 -T 1000 -n 4 -d 14
 + ../../build/sierpi_intel_ipmo_tsunami_parallel_release  -u 10 -U 10 -T 1000 -n 4 -d 12
 + ../../build/sierpi_intel_ipmo_tsunami_parallel_release  -u 10 -U 10 -T 1000 -n 4 -d 12
 + ../../build/sierpi_intel_ipmo_tsunami_parallel_release  -u 10 -U 10 -T 1000 -n 4 -d 12
 + ../../build/sierpi_intel_ipmo_tsunami_parallel_release  -u 10 -U 10 -T 1000 -n 4 -d 12
 + ../../build/sierpi_intel_ipmo_tsunami_parallel_release  -u 10 -U 10 -T 1000 -n 4 -d 12
 + ../../build/sierpi_intel_ipmo_tsunami_parallel_release  -u 10 -U 10 -T 1000 -n 4 -d 12
 + ../../build/sierpi_intel_ipmo_tsunami_parallel_release  -u 10 -U 10 -T 1000 -n 4 -d 12
 + ../../build/sierpi_intel_ipmo_tsunami_parallel_release  -u 10 -U 10 -T 1000 -n 4 -d 12

Mon Apr  2 05:24:02 CEST 2012
iPMO: Prog0 parallel execution with ipmo (22 times)
Waiting for job 57190
57211: CHANGING RESSOURCES
57211: CHANGING RESSOURCES
57199: CHANGING RESSOURCES
57196: CHANGING RESSOURCES
57209: CHANGING RESSOURCES
57206: CHANGING RESSOURCES
57204: CHANGING RESSOURCES
57206: CHANGING RESSOURCES
57211: CHANGING RESSOURCES
57195: CHANGING RESSOURCES
57200: CHANGING RESSOURCES
57208: CHANGING RESSOURCES
57192: CHANGING RESSOURCES
57197: CHANGING RESSOURCES
57198: CHANGING RESSOURCES
57210: CHANGING RESSOURCES
57205: CHANGING RESSOURCES
57201: CHANGING RESSOURCES
57203: CHANGING RESSOURCES
57194: CHANGING RESSOURCES
57207: CHANGING RESSOURCES
57202: CHANGING RESSOURCES
57193: CHANGING RESSOURCES
57190: CHANGING RESSOURCES
57191: CHANGING RESSOURCES

 + Terminating after 1000 timesteps with equal number of triangles -> EXIT
 + Final timestep: 59579

59580 TS (Timesteps)
3022.12 ST (SIMULATION_TIME)
0.0500175 TSS (Timestep size)
3332.41 SFS (Overall seconds for Simulation)
20954211547 TP (Triangles processed)
0.0559316 ASPT (Averaged Seconds per Timestep)
351699 TPST (Triangles Processed in Average per Simulation Timestep)
95.0841 PPST (Clusters Processed in Average per Simulation Timestep)
6.28801 MTPS (Million Triangles per Second)
-6.28801 MTPSPT (Million Triangles per Second per Thread)
10.733 EDMBPT (ElementData Megabyte per Timestep (RW))
191.895 EDMBPS (ElementData Megabyte per Second (RW))
SUM CLIENT SHUTDOWN HINT: 20954.2
SUM CLIENT SHUTDOWN HINT DIV TIME: 0
57210: CHANGING RESSOURCES
57193: CHANGING RESSOURCES
57204: CHANGING RESSOURCES

 + Terminating after 1000 timesteps with equal number of triangles -> EXIT
 + Final timestep: 59579

59580 TS (Timesteps)
3022.12 ST (SIMULATION_TIME)
0.0500175 TSS (Timestep size)
3352.77 SFS (Overall seconds for Simulation)
20954211547 TP (Triangles processed)
0.0562734 ASPT (Averaged Seconds per Timestep)
351699 TPST (Triangles Processed in Average per Simulation Timestep)
95.0841 PPST (Clusters Processed in Average per Simulation Timestep)
6.24983 MTPS (Million Triangles per Second)
-6.24983 MTPSPT (Million Triangles per Second per Thread)
10.733 EDMBPT (ElementData Megabyte per Timestep (RW))
190.73 EDMBPS (ElementData Megabyte per Second (RW))
SUM CLIENT SHUTDOWN HINT: 41908.4
SUM CLIENT SHUTDOWN HINT DIV TIME: 0
57208: CHANGING RESSOURCES
57193: CHANGING RESSOURCES

 + Terminating after 1000 timesteps with equal number of triangles -> EXIT
 + Final timestep: 59579

59580 TS (Timesteps)
3022.12 ST (SIMULATION_TIME)
0.0500175 TSS (Timestep size)
3368.36 SFS (Overall seconds for Simulation)
20954211547 TP (Triangles processed)
0.056535 ASPT (Averaged Seconds per Timestep)
351699 TPST (Triangles Processed in Average per Simulation Timestep)
95.0841 PPST (Clusters Processed in Average per Simulation Timestep)
6.2209 MTPS (Million Triangles per Second)
-6.2209 MTPSPT (Million Triangles per Second per Thread)
10.733 EDMBPT (ElementData Megabyte per Timestep (RW))
189.847 EDMBPS (ElementData Megabyte per Second (RW))
SUM CLIENT SHUTDOWN HINT: 62862.6
SUM CLIENT SHUTDOWN HINT DIV TIME: 0
57192: CHANGING RESSOURCES
57205: CHANGING RESSOURCES
Waiting for job 57191

 + Terminating after 1000 timesteps with equal number of triangles -> EXIT
 + Final timestep: 59579

59580 TS (Timesteps)
3022.12 ST (SIMULATION_TIME)
0.0500175 TSS (Timestep size)
3405.09 SFS (Overall seconds for Simulation)
20954211547 TP (Triangles processed)
0.0571515 ASPT (Averaged Seconds per Timestep)
351699 TPST (Triangles Processed in Average per Simulation Timestep)
95.0841 PPST (Clusters Processed in Average per Simulation Timestep)
6.1538 MTPS (Million Triangles per Second)
-6.1538 MTPSPT (Million Triangles per Second per Thread)
10.733 EDMBPT (ElementData Megabyte per Timestep (RW))
187.799 EDMBPS (ElementData Megabyte per Second (RW))
SUM CLIENT SHUTDOWN HINT: 83816.8
SUM CLIENT SHUTDOWN HINT DIV TIME: 0
57208: CHANGING RESSOURCES
57210: CHANGING RESSOURCES

 + Terminating after 1000 timesteps with equal number of triangles -> EXIT
 + Final timestep: 59579

59580 TS (Timesteps)
3022.12 ST (SIMULATION_TIME)
0.0500175 TSS (Timestep size)
3418.24 SFS (Overall seconds for Simulation)
20954211547 TP (Triangles processed)
0.0573723 ASPT (Averaged Seconds per Timestep)
351699 TPST (Triangles Processed in Average per Simulation Timestep)
95.0841 PPST (Clusters Processed in Average per Simulation Timestep)
6.13012 MTPS (Million Triangles per Second)
-6.13012 MTPSPT (Million Triangles per Second per Thread)
10.733 EDMBPT (ElementData Megabyte per Timestep (RW))
187.076 EDMBPS (ElementData Megabyte per Second (RW))
SUM CLIENT SHUTDOWN HINT: 104771
SUM CLIENT SHUTDOWN HINT DIV TIME: 0
57193: CHANGING RESSOURCES
57195: CHANGING RESSOURCES
57191: CHANGING RESSOURCES

 + Terminating after 1000 timesteps with equal number of triangles -> EXIT
 + Final timestep: 59579

59580 TS (Timesteps)
3022.12 ST (SIMULATION_TIME)
0.0500175 TSS (Timestep size)
3450.08 SFS (Overall seconds for Simulation)
20954211547 TP (Triangles processed)
0.0579066 ASPT (Averaged Seconds per Timestep)
351699 TPST (Triangles Processed in Average per Simulation Timestep)
95.0841 PPST (Clusters Processed in Average per Simulation Timestep)
6.07355 MTPS (Million Triangles per Second)
-6.07355 MTPSPT (Million Triangles per Second per Thread)
10.733 EDMBPT (ElementData Megabyte per Timestep (RW))
185.35 EDMBPS (ElementData Megabyte per Second (RW))
SUM CLIENT SHUTDOWN HINT: 125725
SUM CLIENT SHUTDOWN HINT DIV TIME: 0
57198: CHANGING RESSOURCES
57203: CHANGING RESSOURCES
57202: CHANGING RESSOURCES

 + Terminating after 1000 timesteps with equal number of triangles -> EXIT
 + Final timestep: 59579

59580 TS (Timesteps)
3022.12 ST (SIMULATION_TIME)
0.0500175 TSS (Timestep size)
3478.96 SFS (Overall seconds for Simulation)
20954211547 TP (Triangles processed)
0.0583914 ASPT (Averaged Seconds per Timestep)
351699 TPST (Triangles Processed in Average per Simulation Timestep)
95.0841 PPST (Clusters Processed in Average per Simulation Timestep)
6.02313 MTPS (Million Triangles per Second)
-6.02313 MTPSPT (Million Triangles per Second per Thread)
10.733 EDMBPT (ElementData Megabyte per Timestep (RW))
183.811 EDMBPS (ElementData Megabyte per Second (RW))
SUM CLIENT SHUTDOWN HINT: 146679
SUM CLIENT SHUTDOWN HINT DIV TIME: 0
57197: CHANGING RESSOURCES
57201: CHANGING RESSOURCES
57207: CHANGING RESSOURCES

 + Terminating after 1000 timesteps with equal number of triangles -> EXIT
 + Final timestep: 59579

59580 TS (Timesteps)
3022.12 ST (SIMULATION_TIME)
0.0500175 TSS (Timestep size)
3489.76 SFS (Overall seconds for Simulation)
20954211547 TP (Triangles processed)
0.0585727 ASPT (Averaged Seconds per Timestep)
351699 TPST (Triangles Processed in Average per Simulation Timestep)
95.0841 PPST (Clusters Processed in Average per Simulation Timestep)
6.00448 MTPS (Million Triangles per Second)
-6.00448 MTPSPT (Million Triangles per Second per Thread)
10.733 EDMBPT (ElementData Megabyte per Timestep (RW))
183.242 EDMBPS (ElementData Megabyte per Second (RW))
SUM CLIENT SHUTDOWN HINT: 167634
SUM CLIENT SHUTDOWN HINT DIV TIME: 0
57199: CHANGING RESSOURCES
57200: CHANGING RESSOURCES
57196: CHANGING RESSOURCES

 + Terminating after 1000 timesteps with equal number of triangles -> EXIT
 + Final timestep: 59579

59580 TS (Timesteps)
3022.12 ST (SIMULATION_TIME)
0.0500175 TSS (Timestep size)
3493.64 SFS (Overall seconds for Simulation)
20954211547 TP (Triangles processed)
0.0586378 ASPT (Averaged Seconds per Timestep)
351699 TPST (Triangles Processed in Average per Simulation Timestep)
95.0841 PPST (Clusters Processed in Average per Simulation Timestep)
5.99781 MTPS (Million Triangles per Second)
-5.99781 MTPSPT (Million Triangles per Second per Thread)
10.733 EDMBPT (ElementData Megabyte per Timestep (RW))
183.039 EDMBPS (ElementData Megabyte per Second (RW))
SUM CLIENT SHUTDOWN HINT: 188588
SUM CLIENT SHUTDOWN HINT DIV TIME: 0
57204: CHANGING RESSOURCES
57191: CHANGING RESSOURCES
57206: CHANGING RESSOURCES

 + Terminating after 1000 timesteps with equal number of triangles -> EXIT
 + Final timestep: 59579

59580 TS (Timesteps)
3022.12 ST (SIMULATION_TIME)
0.0500175 TSS (Timestep size)
3495.79 SFS (Overall seconds for Simulation)
20954211547 TP (Triangles processed)
0.0586739 ASPT (Averaged Seconds per Timestep)
351699 TPST (Triangles Processed in Average per Simulation Timestep)
95.0841 PPST (Clusters Processed in Average per Simulation Timestep)
5.99413 MTPS (Million Triangles per Second)
-5.99413 MTPSPT (Million Triangles per Second per Thread)
10.733 EDMBPT (ElementData Megabyte per Timestep (RW))
182.926 EDMBPS (ElementData Megabyte per Second (RW))
SUM CLIENT SHUTDOWN HINT: 209542
SUM CLIENT SHUTDOWN HINT DIV TIME: 0
57201: CHANGING RESSOURCES
57207: CHANGING RESSOURCES
57202: CHANGING RESSOURCES

 + Terminating after 1000 timesteps with equal number of triangles -> EXIT
 + Final timestep: 59579

59580 TS (Timesteps)
3022.12 ST (SIMULATION_TIME)
0.0500175 TSS (Timestep size)
3538.8 SFS (Overall seconds for Simulation)
20954211547 TP (Triangles processed)
0.0593958 ASPT (Averaged Seconds per Timestep)
351699 TPST (Triangles Processed in Average per Simulation Timestep)
95.0841 PPST (Clusters Processed in Average per Simulation Timestep)
5.92127 MTPS (Million Triangles per Second)
-5.92127 MTPSPT (Million Triangles per Second per Thread)
10.733 EDMBPT (ElementData Megabyte per Timestep (RW))
180.703 EDMBPS (ElementData Megabyte per Second (RW))
SUM CLIENT SHUTDOWN HINT: 230496
SUM CLIENT SHUTDOWN HINT DIV TIME: 0
57204: CHANGING RESSOURCES
57200: CHANGING RESSOURCES
57196: CHANGING RESSOURCES

 + Terminating after 1000 timesteps with equal number of triangles -> EXIT
 + Final timestep: 59579

59580 TS (Timesteps)
3022.12 ST (SIMULATION_TIME)
0.0500175 TSS (Timestep size)
3545.93 SFS (Overall seconds for Simulation)
20954211547 TP (Triangles processed)
0.0595154 ASPT (Averaged Seconds per Timestep)
351699 TPST (Triangles Processed in Average per Simulation Timestep)
95.0841 PPST (Clusters Processed in Average per Simulation Timestep)
5.90937 MTPS (Million Triangles per Second)
-5.90937 MTPSPT (Million Triangles per Second per Thread)
10.733 EDMBPT (ElementData Megabyte per Timestep (RW))
180.34 EDMBPS (ElementData Megabyte per Second (RW))
SUM CLIENT SHUTDOWN HINT: 251451
SUM CLIENT SHUTDOWN HINT DIV TIME: 0
57208: CHANGING RESSOURCES
57193: CHANGING RESSOURCES
57210: CHANGING RESSOURCES
57206: CHANGING RESSOURCES

 + Terminating after 1000 timesteps with equal number of triangles -> EXIT
 + Final timestep: 59579

59580 TS (Timesteps)
3022.12 ST (SIMULATION_TIME)
0.0500175 TSS (Timestep size)
3550.73 SFS (Overall seconds for Simulation)
20954211547 TP (Triangles processed)
0.059596 ASPT (Averaged Seconds per Timestep)
351699 TPST (Triangles Processed in Average per Simulation Timestep)
95.0841 PPST (Clusters Processed in Average per Simulation Timestep)
5.90138 MTPS (Million Triangles per Second)
-5.90138 MTPSPT (Million Triangles per Second per Thread)
10.733 EDMBPT (ElementData Megabyte per Timestep (RW))
180.096 EDMBPS (ElementData Megabyte per Second (RW))
SUM CLIENT SHUTDOWN HINT: 272405
SUM CLIENT SHUTDOWN HINT DIV TIME: 0
57202: CHANGING RESSOURCES
57210: CHANGING RESSOURCES
57208: CHANGING RESSOURCES
57193: CHANGING RESSOURCES
Waiting for job 57192
Waiting for job 57193

 + Terminating after 1000 timesteps with equal number of triangles -> EXIT
 + Final timestep: 59579

59580 TS (Timesteps)
3022.12 ST (SIMULATION_TIME)
0.0500175 TSS (Timestep size)
3553.89 SFS (Overall seconds for Simulation)
20954211547 TP (Triangles processed)
0.0596491 ASPT (Averaged Seconds per Timestep)
351699 TPST (Triangles Processed in Average per Simulation Timestep)
95.0841 PPST (Clusters Processed in Average per Simulation Timestep)
5.89613 MTPS (Million Triangles per Second)
-5.89613 MTPSPT (Million Triangles per Second per Thread)
10.733 EDMBPT (ElementData Megabyte per Timestep (RW))
179.936 EDMBPS (ElementData Megabyte per Second (RW))
SUM CLIENT SHUTDOWN HINT: 293359
SUM CLIENT SHUTDOWN HINT DIV TIME: 0
57204: CHANGING RESSOURCES
57206: CHANGING RESSOURCES
57200: CHANGING RESSOURCES
57201: CHANGING RESSOURCES
57196: CHANGING RESSOURCES
Waiting for job 57194
Waiting for job 57195
Waiting for job 57196

 + Terminating after 1000 timesteps with equal number of triangles -> EXIT
 + Final timestep: 59579

59580 TS (Timesteps)
3022.12 ST (SIMULATION_TIME)
0.0500175 TSS (Timestep size)
3596.05 SFS (Overall seconds for Simulation)
20954211547 TP (Triangles processed)
0.0603566 ASPT (Averaged Seconds per Timestep)
351699 TPST (Triangles Processed in Average per Simulation Timestep)
95.0841 PPST (Clusters Processed in Average per Simulation Timestep)
5.82701 MTPS (Million Triangles per Second)
-5.82701 MTPSPT (Million Triangles per Second per Thread)
10.733 EDMBPT (ElementData Megabyte per Timestep (RW))
177.826 EDMBPS (ElementData Megabyte per Second (RW))
SUM CLIENT SHUTDOWN HINT: 314313
SUM CLIENT SHUTDOWN HINT DIV TIME: 0
57210: CHANGING RESSOURCES
57208: CHANGING RESSOURCES
57202: CHANGING RESSOURCES
57196: CHANGING RESSOURCES
57200: CHANGING RESSOURCES

 + Terminating after 1000 timesteps with equal number of triangles -> EXIT
 + Final timestep: 59579

59580 TS (Timesteps)
3022.12 ST (SIMULATION_TIME)
0.0500175 TSS (Timestep size)
3598.35 SFS (Overall seconds for Simulation)
20954211547 TP (Triangles processed)
0.0603952 ASPT (Averaged Seconds per Timestep)
351699 TPST (Triangles Processed in Average per Simulation Timestep)
95.0841 PPST (Clusters Processed in Average per Simulation Timestep)
5.82329 MTPS (Million Triangles per Second)
-5.82329 MTPSPT (Million Triangles per Second per Thread)
10.733 EDMBPT (ElementData Megabyte per Timestep (RW))
177.713 EDMBPS (ElementData Megabyte per Second (RW))
SUM CLIENT SHUTDOWN HINT: 335267
SUM CLIENT SHUTDOWN HINT DIV TIME: 0
57200: CHANGING RESSOURCES
57208: CHANGING RESSOURCES
57204: CHANGING RESSOURCES
57210: CHANGING RESSOURCES
57206: CHANGING RESSOURCES

 + Terminating after 1000 timesteps with equal number of triangles -> EXIT
 + Final timestep: 59579

59580 TS (Timesteps)
3022.12 ST (SIMULATION_TIME)
0.0500175 TSS (Timestep size)
3604.98 SFS (Overall seconds for Simulation)
20954211547 TP (Triangles processed)
0.0605065 ASPT (Averaged Seconds per Timestep)
351699 TPST (Triangles Processed in Average per Simulation Timestep)
95.0841 PPST (Clusters Processed in Average per Simulation Timestep)
5.81257 MTPS (Million Triangles per Second)
-5.81257 MTPSPT (Million Triangles per Second per Thread)
10.733 EDMBPT (ElementData Megabyte per Timestep (RW))
177.386 EDMBPS (ElementData Megabyte per Second (RW))
SUM CLIENT SHUTDOWN HINT: 356222
SUM CLIENT SHUTDOWN HINT DIV TIME: 0
57208: CHANGING RESSOURCES
57204: CHANGING RESSOURCES
57206: CHANGING RESSOURCES
57196: CHANGING RESSOURCES

 + Terminating after 1000 timesteps with equal number of triangles -> EXIT
 + Final timestep: 59579

59580 TS (Timesteps)
3022.12 ST (SIMULATION_TIME)
0.0500175 TSS (Timestep size)
3620.34 SFS (Overall seconds for Simulation)
20954211547 TP (Triangles processed)
0.0607643 ASPT (Averaged Seconds per Timestep)
351699 TPST (Triangles Processed in Average per Simulation Timestep)
95.0841 PPST (Clusters Processed in Average per Simulation Timestep)
5.78792 MTPS (Million Triangles per Second)
-5.78792 MTPSPT (Million Triangles per Second per Thread)
10.733 EDMBPT (ElementData Megabyte per Timestep (RW))
176.633 EDMBPS (ElementData Megabyte per Second (RW))
SUM CLIENT SHUTDOWN HINT: 377176
SUM CLIENT SHUTDOWN HINT DIV TIME: 0
57208: CHANGING RESSOURCES
57210: CHANGING RESSOURCES
57206: CHANGING RESSOURCES
57204: CHANGING RESSOURCES
Waiting for job 57197
Waiting for job 57198
Waiting for job 57199
Waiting for job 57200
Waiting for job 57201
Waiting for job 57202
Waiting for job 57203
Waiting for job 57204

 + Terminating after 1000 timesteps with equal number of triangles -> EXIT
 + Final timestep: 59579

59580 TS (Timesteps)
3022.12 ST (SIMULATION_TIME)
0.0500175 TSS (Timestep size)
3828.86 SFS (Overall seconds for Simulation)
20954211547 TP (Triangles processed)
0.0642642 ASPT (Averaged Seconds per Timestep)
351699 TPST (Triangles Processed in Average per Simulation Timestep)
95.0841 PPST (Clusters Processed in Average per Simulation Timestep)
5.4727 MTPS (Million Triangles per Second)
-5.4727 MTPSPT (Million Triangles per Second per Thread)
10.733 EDMBPT (ElementData Megabyte per Timestep (RW))
167.013 EDMBPS (ElementData Megabyte per Second (RW))
SUM CLIENT SHUTDOWN HINT: 398130
SUM CLIENT SHUTDOWN HINT DIV TIME: 0
57208: CHANGING RESSOURCES
57206: CHANGING RESSOURCES
57204: CHANGING RESSOURCES

 + Terminating after 1000 timesteps with equal number of triangles -> EXIT
 + Final timestep: 59579

59580 TS (Timesteps)
3022.12 ST (SIMULATION_TIME)
0.0500175 TSS (Timestep size)
3842.98 SFS (Overall seconds for Simulation)
20954211547 TP (Triangles processed)
0.0645012 ASPT (Averaged Seconds per Timestep)
351699 TPST (Triangles Processed in Average per Simulation Timestep)
95.0841 PPST (Clusters Processed in Average per Simulation Timestep)
5.45259 MTPS (Million Triangles per Second)
-5.45259 MTPSPT (Million Triangles per Second per Thread)
10.733 EDMBPT (ElementData Megabyte per Timestep (RW))
166.4 EDMBPS (ElementData Megabyte per Second (RW))
SUM CLIENT SHUTDOWN HINT: 419084
SUM CLIENT SHUTDOWN HINT DIV TIME: 0
57208: CHANGING RESSOURCES
57204: CHANGING RESSOURCES

 + Terminating after 1000 timesteps with equal number of triangles -> EXIT
 + Final timestep: 59579

59580 TS (Timesteps)
3022.12 ST (SIMULATION_TIME)
0.0500175 TSS (Timestep size)
3890.15 SFS (Overall seconds for Simulation)
20954211547 TP (Triangles processed)
0.0652929 ASPT (Averaged Seconds per Timestep)
351699 TPST (Triangles Processed in Average per Simulation Timestep)
95.0841 PPST (Clusters Processed in Average per Simulation Timestep)
5.38648 MTPS (Million Triangles per Second)
-5.38648 MTPSPT (Million Triangles per Second per Thread)
10.733 EDMBPT (ElementData Megabyte per Timestep (RW))
164.382 EDMBPS (ElementData Megabyte per Second (RW))
SUM CLIENT SHUTDOWN HINT: 440038
SUM CLIENT SHUTDOWN HINT DIV TIME: 0
57208: CHANGING RESSOURCES
Waiting for job 57205
Waiting for job 57206
Waiting for job 57207
Waiting for job 57208

 + Terminating after 1000 timesteps with equal number of triangles -> EXIT
 + Final timestep: 59579

59580 TS (Timesteps)
3022.12 ST (SIMULATION_TIME)
0.0500175 TSS (Timestep size)
3891.25 SFS (Overall seconds for Simulation)
20954211547 TP (Triangles processed)
0.0653114 ASPT (Averaged Seconds per Timestep)
351699 TPST (Triangles Processed in Average per Simulation Timestep)
95.0841 PPST (Clusters Processed in Average per Simulation Timestep)
5.38495 MTPS (Million Triangles per Second)
-5.38495 MTPSPT (Million Triangles per Second per Thread)
10.733 EDMBPT (ElementData Megabyte per Timestep (RW))
164.336 EDMBPS (ElementData Megabyte per Second (RW))
SUM CLIENT SHUTDOWN HINT: 460993
SUM CLIENT SHUTDOWN HINT DIV TIME: 118.476
Waiting for job 57209
Waiting for job 57210
Waiting for job 57211
Mon Apr  2 06:28:54 CEST 2012
Seconds: 3892
