Problem size with different number of CPUs using function optimization
THREADS	MTPS	TIMESTEPS	TIMESTEP_SIZE	SECONDS_FOR_SIMULATION	AVERAGE_TRIANGLES	AVERAGE_PARTITIONS
80	68.3903	100	0.000491318	27.8503	1.90469e+07	1158.74
79	68.3406	100	0.000491318	27.8706	1.90469e+07	1158.74
78	68.2239	100	0.000491318	27.9183	1.90469e+07	1158.74
77	68.2185	100	0.000491318	27.9205	1.90469e+07	1158.74
76	66.536	100	0.000491318	28.6265	1.90469e+07	1158.74
75	68.2311	100	0.000491318	27.9153	1.90469e+07	1158.74
74	68.1693	100	0.000491318	27.9406	1.90469e+07	1158.74
73	65.6647	100	0.000491318	29.0063	1.90469e+07	1158.74
72	68.0897	100	0.000491318	27.9733	1.90469e+07	1158.74
71	65.5194	100	0.000491318	29.0707	1.90469e+07	1158.74
70	67.8766	100	0.000491318	28.0611	1.90469e+07	1158.74
69	66.8804	100	0.000491318	28.4791	1.90469e+07	1158.74
68	66.2433	100	0.000491318	28.753	1.90469e+07	1158.74
67	64.4552	100	0.000491318	29.5506	1.90469e+07	1158.74
66	64.2362	100	0.000491318	29.6514	1.90469e+07	1158.74
65	65.104	100	0.000491318	29.2561	1.90469e+07	1158.74
64	65.3998	100	0.000491318	29.1238	1.90469e+07	1158.74
63	66.6146	100	0.000491318	28.5927	1.90469e+07	1158.74
62	65.4569	100	0.000491318	29.0984	1.90469e+07	1158.74
61	63.97	100	0.000491318	29.7747	1.90469e+07	1158.74
60	64.7449	100	0.000491318	29.4184	1.90469e+07	1158.74
59	66.0969	100	0.000491318	28.8166	1.90469e+07	1158.74
58	65.2096	100	0.000491318	29.2087	1.90469e+07	1158.74
57	64.0518	100	0.000491318	29.7367	1.90469e+07	1158.74
56	65.4227	100	0.000491318	29.1136	1.90469e+07	1158.74
55	64.319	100	0.000491318	29.6132	1.90469e+07	1158.74
54	64.5214	100	0.000491318	29.5203	1.90469e+07	1158.74
53	65.9365	100	0.000491318	28.8867	1.90469e+07	1158.74
52	65.0864	100	0.000491318	29.2641	1.90469e+07	1158.74
51	62.2018	100	0.000491318	30.6211	1.90469e+07	1158.74
50	65.6371	100	0.000491318	29.0185	1.90469e+07	1158.74
49	63.1928	100	0.000491318	30.1409	1.90469e+07	1158.74
48	65.6031	100	0.000491318	29.0336	1.90469e+07	1158.74
47	63.2064	100	0.000491318	30.1345	1.90469e+07	1158.74
46	63.5892	100	0.000491318	29.9531	1.90469e+07	1158.74
45	60.9862	100	0.000491318	31.2315	1.90469e+07	1158.74
44	60.3629	100	0.000491318	31.554	1.90469e+07	1158.74
43	63.7962	100	0.000491318	29.8559	1.90469e+07	1158.74
42	64.5603	100	0.000491318	29.5025	1.90469e+07	1158.74
41	64.1416	100	0.000491318	29.6951	1.90469e+07	1158.74
40	62.717	100	0.000491318	30.3696	1.90469e+07	1158.74
39	60.9715	100	0.000491318	31.239	1.90469e+07	1158.74
38	62.278	100	0.000491318	30.5837	1.90469e+07	1158.74
37	56.8105	100	0.000491318	33.5271	1.90469e+07	1158.74
36	60.5666	100	0.000491318	31.4479	1.90469e+07	1158.74
35	59.8547	100	0.000491318	31.8219	1.90469e+07	1158.74
34	58.9557	100	0.000491318	32.3072	1.90469e+07	1158.74
33	58.2171	100	0.000491318	32.717	1.90469e+07	1158.74
32	52.3406	100	0.000491318	36.3903	1.90469e+07	1158.74
31	57.3313	100	0.000491318	33.2225	1.90469e+07	1158.74
30	55.4461	100	0.000491318	34.3521	1.90469e+07	1158.74
29	54.8432	100	0.000491318	34.7298	1.90469e+07	1158.74
28	52.3425	100	0.000491318	36.389	1.90469e+07	1158.74
27	53.9604	100	0.000491318	35.298	1.90469e+07	1158.74
26	52.4673	100	0.000491318	36.3024	1.90469e+07	1158.74
25	51.5729	100	0.000491318	36.932	1.90469e+07	1158.74
24	48.8956	100	0.000491318	38.9542	1.90469e+07	1158.74
23	47.7731	100	0.000491318	39.8695	1.90469e+07	1158.74
22	46.6862	100	0.000491318	40.7977	1.90469e+07	1158.74
21	46.3484	100	0.000491318	41.0951	1.90469e+07	1158.74
20	45.1934	100	0.000491318	42.1453	1.90469e+07	1158.74
19	43.1946	100	0.000491318	44.0956	1.90469e+07	1158.74
18	39.829	100	0.000491318	47.8218	1.90469e+07	1158.74
17	38.4259	100	0.000491318	49.5679	1.90469e+07	1158.74
16	37.986	100	0.000491318	50.142	1.90469e+07	1158.74
15	35.9212	100	0.000491318	53.0242	1.90469e+07	1158.74
14	32.9812	100	0.000491318	57.7508	1.90469e+07	1158.74
13	32.2158	100	0.000491318	59.1229	1.90469e+07	1158.74
12	28.8188	100	0.000491318	66.0921	1.90469e+07	1158.74
11	27.6516	100	0.000491318	68.8818	1.90469e+07	1158.74
10	25.5041	100	0.000491318	74.6816	1.90469e+07	1158.74
9	23.3468	100	0.000491318	81.5824	1.90469e+07	1158.74
8	20.6705	100	0.000491318	92.1456	1.90469e+07	1158.74
7	18.3331	100	0.000491318	103.894	1.90469e+07	1158.74
6	16.0267	100	0.000491318	118.845	1.90469e+07	1158.74
5	13.2535	100	0.000491318	143.712	1.90469e+07	1158.74
4	10.8419	100	0.000491318	175.679	1.90469e+07	1158.74
3	8.40858	100	0.000491318	226.518	1.90469e+07	1158.74
2	5.96962	100	0.000491318	319.064	1.90469e+07	1158.74
1	3.11429	100	0.000491318	611.597	1.90469e+07	1158.74
