0	0	2363500
10.0496	0	2380418
20.0158	0	2393266
30.974	0	2403064
40.9362	0	2410034
50.906	0	2415176
60.9171	0	2418596
70.0517	0	2420948
80.2259	0	2423604
90.3953	0	2426568
100.565	0	2429054
110.736	0	2431160
120.918	0	2432820
130.083	0	2434480
140.265	0	2436200
150.448	0	2438210
160.631	0	2440068
170.813	0	2441914
180.996	0	2443826
190.16	0	2445682
200.343	0	2447708
210.525	0	2449962
220.708	0	2452134
230.94	0	2454292
240.132	0	2456356
250.344	0	2458498
260.556	0	2460818
270.769	0	2463018
280.991	0	2465412
290.195	0	2467334
300.393	0	2469504
310.59	0	2472032
320.787	0	2474902
330.989	0	2478028
340.177	0	2480742
350.368	0	2483578
360.546	0	2486522
370.717	0	2489476
380.884	0	2492446
390.034	0	2494950
400.201	0	2497820
410.37	0	2500552
420.56	0	2503364
430.796	0	2506262
440.02	0	2508820
450.27	0	2511706
460.516	0	2514456
470.757	0	2517140
480.998	0	2520012
490.215	0	2522394
500.459	0	2525368
510.702	0	2528260
520.947	0	2531044
530.171	0	2533858
540.421	0	2536158
550.708	0	2539158
561.011	0	2541910
570.283	0	2544544
580.587	0	2547574
590.89	0	2550392
600.163	0	2553262
610.467	0	2556422
620.77	0	2559812
630.043	0	2562692
640.346	0	2565942
650.65	0	2569236
660.953	0	2572568
670.226	0	2575626
680.529	0	2578912
690.832	0	2582332
700.105	0	2585462
710.408	0	2588798
720.711	0	2592056
731.014	0	2595446
740.287	0	2598536
750.59	0	2602002
760.893	0	2605404
770.143	0	2608564
780.414	0	2611968
790.68	0	2615812
800.927	0	2619400
810.143	0	2622720
820.384	0	2626508
830.612	0	2630366
840.827	0	2634030
850.018	0	2637418
860.226	0	2641444
870.429	0	2644990
880.633	0	2649044
890.837	0	2652900
900.02	0	2656336
910.222	0	2660304
920.424	0	2664190
930.626	0	2668282
940.827	0	2672324
950.004	0	2675984
960.201	0	2680094
970.398	0	2684372
980.595	0	2688506
990.792	0	2692450
1000.98	0	2696548
1010.14	0	2700408
1020.32	0	2704752
1030.49	0	2708996
1040.65	0	2713384
1050.82	0	2717738
1060.99	0	2721828
1070.14	0	2725796
1080.3	0	2729550
1090.47	0	2733602
1100.64	0	2737616
1110.8	0	2741796
1120.97	0	2745760
1130.12	0	2749286
1140.29	0	2753194
1150.46	0	2756970
1160.62	0	2761070
1170.79	0	2764766
1180.96	0	2768756
1190.11	0	2772478
1200.28	0	2776234
1210.44	0	2780144
1220.61	0	2783658
1230.78	0	2787240
1240.95	0	2790778
1250.1	0	2793910
1260.27	0	2797082
1270.44	0	2800290
1280.6	0	2803822
1290.77	0	2807086
1300.94	0	2810168
1310.09	0	2813156
1320.26	0	2816326
1330.43	0	2819244
1340.6	0	2822242
1350.77	0	2825558
1360.94	0	2828526
1370.09	0	2831930
1380.26	0	2835368
1390.43	0	2838754
1400.59	0	2841886
1410.76	0	2845360
1420.93	0	2848864
1430.08	0	2852078
1440.25	0	2855524
1450.42	0	2859040
1460.59	0	2862580
1470.76	0	2866434
1480.96	0	2870074
1490.2	0	2873334
1500.52	0	2876656
1510.95	0	2880012
1520.33	0	2882812
1530.79	0	2886068
1540.21	0	2889118
1550.68	0	2892234
1560.13	0	2895120
1570.56	0	2897820
1580.01	0	2900196
1590.57	0	2903208
1600.1	0	2905750
1610.56	0	2908674
1621.03	0	2911148
1630.43	0	2913190
1640.94	0	2915228
1650.33	0	2916788
1660.77	0	2918666
1670.24	0	2920102
1680.75	0	2922124
1690.23	0	2923784
1700.81	0	2925768
1710.32	0	2927406
1720.92	0	2929226
1730.59	0	2931178
1740.28	0	2932832
1750.91	0	2934808
1760.67	0	2936402
1770.44	0	2938238
1780.2	0	2939700
1790.25	0	2941486
1800.25	0	2942946
1810.28	0	2943998
1820.05	0	2945208
1830.96	0	2946826
1840.84	0	2948278
1850.65	0	2949786
1860.84	0	2951568
1870.85	0	2953078
1880.83	0	2954814
1890.92	0	2956644
1900.98	0	2958204
1911.02	0	2959938
1921.09	0	2961838
1930.9	0	2963688
1940.76	0	2965392
1950.52	0	2967026
1960.22	0	2968652
1971.08	0	2970486
1980.95	0	2972624
1990.62	0	2974412
2000.67	0	2976248
2010.45	0	2977734
2020.5	0	2979308
2030.5	0	2980650
2040.5	0	2981978
2050.84	0	2983726
2060	0	2984936
2070.12	0	2986598
2080.41	0	2988434
2090.74	0	2990108
2101.07	0	2991770
2110.24	0	2993092
2120.55	0	2995096
2130.86	0	2996832
2140.02	0	2998186
2150.33	0	3000068
2160.64	0	3001814
2170.95	0	3003794
2180.11	0	3005146
2190.42	0	3006998
2200.72	0	3008462
2211.03	0	3009958
2220.19	0	3011474
2230.5	0	3012800
2240.8	0	3014450
2251.09	0	3015938
2260.23	0	3017398
2270.51	0	3018928
2280.8	0	3020442
2291.08	0	3021838
2300.22	0	3022916
2310.51	0	3024262
2320.79	0	3025602
2331.08	0	3026654
2340.22	0	3027288
2350.49	0	3028522
2360.73	0	3029588
2370.97	0	3031272
2380.07	0	3032036
2390.3	0	3033212
2400.52	0	3034402
2410.75	0	3035690
2420.98	0	3036940
2430.07	0	3037770
2440.29	0	3039052
2450.52	0	3039674
2460.75	0	3040602
2470.97	0	3041186
2480.06	0	3041796
2490.29	0	3042460
2500.51	0	3043068
2510.74	0	3043534
2520.97	0	3043860
2530.06	0	3044308
2540.28	0	3044744
2550.51	0	3045656
2560.73	0	3046298
2570.96	0	3046854
2580.05	0	3047780
2590.27	0	3048544
2600.5	0	3049572
2610.72	0	3050410
2620.95	0	3051228
2630.04	0	3052372
2640.27	0	3053514
2650.5	0	3054608
2660.74	0	3055964
2670.97	0	3057156
2680.07	0	3058354
2690.3	0	3059832
2700.54	0	3061396
2710.77	0	3063292
2721	0	3064730
2730.1	0	3066172
2740.33	0	3067586
2750.56	0	3069618
2760.8	0	3071164
2771.03	0	3072520
2780.13	0	3073742
2790.36	0	3075390
2800.59	0	3076860
2810.86	0	3078614
2821.14	0	3079430
2830.28	0	3080550
2840.57	0	3081636
2850.85	0	3083036
2861.12	0	3084150
2870.22	0	3085210
2880.46	0	3086418
2890.69	0	3087832
2900.92	0	3088758
2910.02	0	3089804
2920.25	-5.45697e-12	3091310
2930.49	-1.18234e-11	3092216
2940.72	-1.90994e-11	3093524
2950.96	-2.63753e-11	3094338
2960.05	-3.36513e-11	3095160
2970.29	-4.09273e-11	3096294
2980.52	-4.82032e-11	3097200
2990.76	-5.63887e-11	3098922
3000.99	-6.45741e-11	3100162
3010.09	-7.18501e-11	3101448
3020.33	-7.82165e-11	3102816
3030.56	-8.6402e-11	3104078
3040.8	-9.45874e-11	3105594
3051.04	-1.02773e-10	3106332
3060.13	-1.10049e-10	3107632
3070.37	-1.19144e-10	3109138
3080.61	-1.35515e-10	3110520
3090.84	-1.60981e-10	3111808
3101.08	-1.9827e-10	3113294
3110.18	-2.46473e-10	3114570
3120.41	-3.27418e-10	3116240
3130.65	-4.46562e-10	3117652
3140.88	-6.20275e-10	3119078
3151.12	-8.74024e-10	3120380
3160.22	-1.18871e-09	3122020
3170.45	-1.68438e-09	3123372
3180.69	-2.3856e-09	3124840
3190.93	-3.3715e-09	3126358
3200.02	-4.57203e-09	3127782
3210.26	-6.41376e-09	3129452
3220.5	-8.95488e-09	3131334
3230.73	-1.2441e-08	3133160
3240.97	-1.71958e-08	3134950
3250.07	-2.28247e-08	3136776
3260.3	-3.12302e-08	3138644
3270.54	-4.25016e-08	3140782
3280.77	-5.75301e-08	3142940
3291.01	-7.74589e-08	3144788
3300.11	-1.00467e-07	3146748
3310.37	-1.33995e-07	3148758
3320.64	-1.77881e-07	3150880
3330.92	-2.34937e-07	3152732
3340.06	-2.99525e-07	3154174
3350.33	-3.91703e-07	3155844
3360.57	-5.0923e-07	3157182
3370.79	-6.58407e-07	3158614
3381	-8.47012e-07	3159612
3390.08	-1.05528e-06	3160912
3400.29	-1.34534e-06	3162546
3410.5	-1.70706e-06	3163810
3420.71	-2.156e-06	3165450
3430.93	-2.71053e-06	3166908
3440	-3.30951e-06	3168236
3450.21	-4.12549e-06	3169322
3460.43	-5.12002e-06	3170802
3470.64	-6.32669e-06	3172272
3480.85	-7.78427e-06	3173944
3491.06	-9.5372e-06	3175628
3500.14	-1.13842e-05	3177102
3510.35	-1.38391e-05	3178390
3520.56	-1.67555e-05	3179790
3530.77	-2.02056e-05	3181482
3540.98	-2.42706e-05	3183028
3550.06	-2.84732e-05	3184666
3560.27	-3.39548e-05	3186230
3570.48	-4.03405e-05	3188004
3580.7	-4.77511e-05	3189770
3590.91	-5.63193e-05	3191456
3601.12	-6.61897e-05	3193348
3610.2	-7.61833e-05	3194872
3620.41	-8.89525e-05	3196838
3630.62	-0.000103514	3198457
3640.83	-0.000120062	3199767
3651.04	-0.000138806	3201535
3660.12	-0.000157491	3202749
3670.33	-0.000181003	3204609
3680.54	-0.000207393	3205995
3690.75	-0.000236922	3207669
3700.96	-0.000269869	3208933
3710.04	-0.000302256	3210439
3720.26	-0.000342466	3211977
3730.49	-0.000387044	3213573
3740.72	-0.000436263	3215341
3750.95	-0.000490453	3216893
3760.05	-0.000543077	3218435
3770.29	-0.000607618	3219761
3780.52	-0.000678164	3221133
3790.75	-0.000755092	3222811
3800.99	-0.000838785	3224161
3810.08	-0.000919152	3225825
3820.29	-0.00101642	3227364
3830.44	-0.00112099	3229774
3840.59	-0.00123371	3231674
3850.75	-0.00135498	3233724
3860.9	-0.0014852	3235412
3871.05	-0.00162476	3237407
3880.07	-0.00175697	3239214
3890.23	-0.00191522	3241106
3900.38	-0.00208391	3242973
3910.53	-0.00226342	3244977
3920.68	-0.00245409	3247196
3930.84	-0.00265627	3249188
3940.99	-0.00287029	3250956
3950.01	-0.00307073	3252812
3960.16	-0.00330796	3254740
3970.32	-0.0035579	3256888
3980.47	-0.00382078	3258420
3990.62	-0.00409684	3260740
4000.77	-0.00438628	3262212
4010.92	-0.00468926	3264113
4021.07	-0.00500592	3265624
4030.1	-0.00529895	3266980
4040.25	-0.00564166	3268804
4050.4	-0.0059982	3270269
4060.55	-0.00636853	3272045
4070.71	-0.00675257	3273213
4080.86	-0.00715015	3274859
4091.01	-0.00756107	3276159
4100.03	-0.0079373	3277593
4110.19	-0.00837288	3279035
4120.35	-0.00882088	3280283
4130.53	-0.00928132	3281973
4140.75	-0.00975514	3283085
4150.99	-0.01024	3284943
4160.09	-0.0106797	3285683
4170.34	-0.0111827	3287291
4180.59	-0.0116933	3288873
4190.84	-0.0122102	3290439
4201.08	-0.012732	3292374
4210.19	-0.0131985	3293514
4220.44	-0.0137247	3295176
4230.69	-0.0142502	3296344
4240.94	-0.0147731	3297710
4250.05	-0.015233	3299091
4260.27	-0.0157417	3300652
4270.49	-0.0162392	3301812
4280.71	-0.0167223	3302866
4290.92	-0.0171873	3304352
4300.01	-0.0175823	3305446
4310.23	-0.0180021	3306618
4320.33	-0.0183871	3307754
4330.39	-0.0187362	3309454
4340.48	-0.0190467	3310874
4350.57	-0.0193122	3312173
4360.66	-0.0195268	3313573
4370.75	-0.0196845	3314723
4380.84	-0.0197788	3316525
4390.93	-0.0198029	3317780
4401.02	-0.01975	3319648
4411.11	-0.0196126	3321242
4420.08	-0.0194137	3322556
4430.17	-0.0190964	3324782
4440.25	-0.0186727	3326826
4450.34	-0.0181345	3328570
4460.43	-0.0174737	3330822
4470.52	-0.0166824	3332722
4480.6	-0.0157524	3334899
4490.69	-0.0146757	3337116
4500.88	-0.0134312	3339228
4511.06	-0.0120221	3341478
4520.02	-0.0106376	3343076
4530.11	-0.00891293	3345182
4540.19	-0.00700439	3347300
4550.28	-0.00490527	3349226
4560.37	-0.00260918	3351116
4570.46	-0.000110124	3353126
4580.55	0.00259741	3354770
4590.64	0.00551849	3356865
4600.73	0.00865766	3358265
4610.82	0.0120189	3359954
4620.91	0.0156057	3361354
4631	0.019421	3362516
4641.1	0.0234671	3364074
4650.07	0.0272586	3365658
4660.16	0.0317441	3367345
4670.25	0.0364627	3368799
4680.34	0.0414132	3370335
4690.44	0.0465986	3371757
4700.53	0.0520239	3373349
4710.62	0.0576715	3374751
4720.71	0.0638614	3375840
4730.8	0.0680766	3377134
4740.89	0.0768951	3378168
4750.99	0.0866084	3379004
4761.1	0.0977664	3380054
4770.23	0.108132	3380708
4780.53	0.11985	3381672
4790.82	0.131483	3382574
4801.11	0.150908	3383702
4810.26	0.166157	3384518
4820.56	0.183524	3385758
4830.85	0.201183	3386991
4840	0.216692	3388255
4850.29	0.234382	3389753
4860.45	0.251748	3391173
4870.53	0.268651	3392153
4880.62	0.285375	3393645
4890.71	0.301878	3394957
4900.8	0.318102	3395863
4910.88	0.333885	3397201
4920.97	0.349149	3398077
4931.06	0.363937	3399189
4940.02	0.376671	3400487
4950.11	0.39047	3401554
4960.2	0.403648	3402442
4970.28	0.416186	3403506
4980.37	0.428105	3404538
4990.46	0.439394	3405764
5000.55	0.449994	3406840
5010.64	0.459834	3408376
5020.74	0.468873	3409756
5030.83	0.477072	3410834
5040.92	0.484371	3412246
5051.01	0.490683	3413716
5061.11	0.496025	3415062
5070.08	0.499705	3416274
5080.17	0.503114	3417688
5090.26	0.505183	3418965
5100.35	0.507387	3419887
5110.45	0.507037	3421312
5120.54	0.505585	3422136
5130.63	0.503288	3423100
5140.72	0.500052	3424404
5150.82	0.49598	3425320
5160.91	0.491071	3426396
5171	0.485326	3427064
5181.09	0.478778	3428330
5190.06	0.472303	3429062
5200.16	0.464305	3430178
5210.42	0.455448	3431395
5220.73	0.445846	3432159
5231.05	0.435569	3433404
5240.22	0.425831	3434714
5250.53	0.414496	3435814
5260.85	0.40221	3437080
5270.01	0.385631	3438219
5280.33	0.366392	3439183
5290.64	0.34778	3440509
5300.96	0.327852	3441675
5310.13	0.310278	3442628
5320.45	0.289956	3443244
5330.79	0.268984	3444112
5341.14	0.247601	3444876
5350.33	0.228072	3445441
5360.68	0.205628	3446030
5371.02	0.182699	3446626
5380.22	0.161942	3447186
5390.56	0.138317	3447880
5400.9	0.114552	3448555
5410.1	0.0936915	3449201
5420.44	0.0713012	3449633
5430.79	0.0508698	3450133
5441.13	0.0324836	3450891
5450.33	0.0176563	3451068
5460.67	0.00243684	3451588
5471.02	-0.0116582	3451717
5480.21	-0.0235021	3452270
5490.55	-0.036227	3452344
5500.9	-0.0484761	3452918
5510.09	-0.0591141	3453412
5520.44	-0.0709717	3454086
5530.78	-0.0828503	3454940
5541.09	-0.0949102	3455528
5550.26	-0.105884	3456227
5560.57	-0.118557	3456759
5570.89	-0.131609	3457811
5580.06	-0.143525	3458379
5590.37	-0.157256	3459578
5600.69	-0.171284	3460733
5611	-0.185534	3461367
5620.17	-0.198302	3461773
5630.49	-0.212669	3462607
5640.81	-0.226912	3463141
5651.12	-0.240886	3463029
5660.29	-0.252948	3463643
5670.61	-0.26593	3463841
5680.92	-0.278069	3464125
5690.09	-0.287925	3464703
5700.41	-0.297661	3464953
5710.73	-0.305637	3465161
5721.04	-0.311414	3464825
5730.21	-0.315316	3465203
5740.53	-0.318605	3464867
5750.84	-0.319239	3465131
5760.01	-0.318835	3464799
5770.33	-0.31699	3465097
5780.64	-0.314239	3464917
5790.96	-0.310515	3465245
5800.13	-0.306414	3465717
5810.45	-0.301022	3465627
5820.82	-0.294531	3466395
5830.07	-0.287893	3466715
5840.47	-0.2796	3466918
5850.87	-0.27045	3467366
5860.12	-0.261668	3467884
5870.52	-0.251165	3468142
5880.93	-0.238806	3468562
5890.17	-0.227535	3468856
5900.57	-0.207806	3469850
5910.97	-0.190158	3469900
5920.22	-0.173814	3470496
5930.62	-0.155624	3470458
5941.02	-0.138064	3470698
5950.27	-0.122731	3470125
5960.67	-0.106169	3470293
5971.06	-0.0903833	3470485
5980.29	-0.0770693	3470561
5990.68	-0.063078	3470737
6001.06	-0.0501593	3470904
6010.3	-0.0396401	3471676
6020.68	-0.028934	3471433
6031.07	-0.019444	3471731
6040.31	-0.0120378	3471678
6050.69	-0.00485405	3471546
6061.08	0.000978863	3471740
6070.31	0.00562123	3472039
6080.7	0.00943587	3472599
6091.09	0.0123877	3472954
6100.32	0.0154683	3473873
6110.71	0.0165273	3474716
6121.1	0.0165419	3475649
6130.33	0.0162209	3476667
6140.72	0.0155213	3478095
6151.09	0.0145907	3479650
6160.3	0.0135061	3480836
6170.64	0.0120757	3481672
6180.98	0.0104205	3482626
6190.16	0.0087426	3483881
6200.48	0.00664286	3485055
6210.78	0.00433086	3486693
6221.07	0.0018071	3487902
6230.2	-0.000608869	3489026
6240.47	-0.0035074	3490176
6250.74	-0.00658057	3491138
6261.01	-0.00981696	3492549
6270.12	-0.0128197	3493541
6280.34	-0.0163217	3495179
6290.56	-0.0199443	3496289
6300.78	-0.0236658	3497448
6310.99	-0.027464	3498718
6320.05	-0.0308821	3500060
6330.24	-0.0347519	3501332
6340.43	-0.0386232	3502552
6350.6	-0.0424677	3503404
6360.75	-0.0462603	3504553
6370.91	-0.0499819	3505739
6381.06	-0.0536082	3507081
6390.09	-0.0567327	3508221
6400.24	-0.0601163	3509170
6410.4	-0.0633407	3510058
6420.55	-0.0663874	3511190
6430.71	-0.0692401	3512022
6440.86	-0.0718828	3512497
6451	-0.0743044	3513469
6460	-0.0762646	3514349
6470.14	-0.0782493	3515157
6480.27	-0.0799977	3516228
6490.4	-0.0815099	3516803
6500.54	-0.0827896	3517711
6510.67	-0.0838432	3518481
6520.8	-0.0846801	3519137
6530.94	-0.0853119	3519637
6541.07	-0.0857517	3520892
6550.08	-0.0859932	3521372
6560.21	-0.0861105	3522628
6570.34	-0.0860789	3523134
6580.47	-0.0859136	3524422
6590.61	-0.085629	3525244
6600.74	-0.0852385	3526408
6610.93	-0.0847528	3527314
6621.11	-0.0841857	3528752
6630.15	-0.0836232	3529228
6640.31	-0.0829347	3530947
6650.46	-0.082196	3531654
6660.62	-0.0814161	3532584
6670.77	-0.0806035	3533822
6680.93	-0.0797657	3534492
6691.08	-0.0789093	3535522
6700.11	-0.0781369	3536158
6710.26	-0.0772595	3537452
6720.41	-0.0763772	3537978
6730.55	-0.0754926	3539304
6740.68	-0.0746074	3539702
6750.82	-0.0737215	3540756
6760.95	-0.0728349	3541390
6771.08	-0.0719465	3542494
6780.09	-0.071154	3542950
6790.22	-0.0702569	3543180
6800.36	-0.069351	3543512
6810.49	-0.0684327	3544044
6820.62	-0.0674981	3544154
6830.76	-0.0665427	3544217
6840.89	-0.0655625	3544173
6851.03	-0.0645533	3543943
6860.03	-0.0636287	3543931
6870.17	-0.0625547	3543679
6880.3	-0.0614422	3543705
6890.44	-0.0602892	3543563
6900.57	-0.0590943	3543839
6910.71	-0.0578569	3543987
6920.84	-0.0565771	3544731
6930.98	-0.0552557	3545513
6941.11	-0.0538939	3546371
6950.12	-0.0526512	3547207
6960.25	-0.0512189	3547639
6970.39	-0.049753	3548907
6980.52	-0.0482569	3549437
6990.66	-0.0467342	3550339
7000.79	-0.045189	3550843
7010.94	-0.0436238	3552175
7021.13	-0.0420388	3552633
7030.2	-0.0406207	3553197
7040.41	-0.0390203	3553873
7050.63	-0.0374225	3553860
7060.85	-0.0358327	3555028
7071.07	-0.0342567	3555415
7080.21	-0.0328655	3556519
7090.55	-0.0313167	3557393
7100.93	-0.0297937	3558064
7110.14	-0.0284731	3558812
7120.49	-0.0270306	3559157
7130.84	-0.025635	3560079
7140.04	-0.0244372	3560581
7150.39	-0.0231407	3561248
7160.74	-0.0219009	3561728
7171.09	-0.0207196	3561978
7180.29	-0.0197198	3563111
7190.64	-0.0186519	3564088
7200.99	-0.017644	3565960
7210.19	-0.0167977	3566984
7220.54	-0.0159	3568484
7230.89	-0.0150579	3570036
7240.09	-0.0143542	3571224
7250.43	-0.01361	3572754
7260.77	-0.0129128	3574274
7271.12	-0.012259	3576182
7280.31	-0.0117113	3577386
7290.65	-0.0111297	3579090
7301	-0.0105812	3580356
7310.19	-0.0101189	3581759
7320.54	-0.00962455	3583277
7330.88	-0.00915487	3584547
7340.07	-0.00875619	3585498
7350.42	-0.00832696	3586379
7360.76	-0.00791641	3587499
7371.1	-0.00752287	3588795
7380.3	-0.00718603	3589297
7390.64	-0.00682105	3590184
7400.94	-0.00646993	3590234
7410.05	-0.00616895	3590446
7420.29	-0.00583932	3591126
7430.54	-0.00551737	3591692
7440.77	-0.00520115	3592280
7451	-0.00488833	3592303
7460.1	-0.00461076	3593096
7470.33	-0.00429645	3593447
7480.56	-0.00397703	3594061
7490.79	-0.00364929	3594591
7501.02	-0.00330999	3595352
7510.11	-0.00299607	3595460
7520.34	-0.00262619	3596128
7530.57	-0.00223581	3596466
7540.8	-0.00182231	3596564
7551.03	-0.00138344	3597127
7560.13	-0.000970628	3597205
7570.36	-0.000479545	3598551
7580.59	4.03947e-05	3599258
7590.82	0.000589209	3600154
7601.04	0.00116564	3601181
7610.09	0.00169867	3601707
7620.24	0.00231998	3602739
7630.37	0.00296196	3603311
7640.49	0.00362286	3604259
7650.61	0.00429957	3604969
7660.72	0.00498823	3605449
7670.84	0.00568455	3606371
7680.96	0.00638402	3606875
7691.08	0.00708189	3607699
7700.07	0.00769693	3607931
7710.19	0.0083784	3609093
7720.31	0.00904407	3609358
7730.43	0.00968907	3609834
7740.54	0.0103087	3610524
7750.66	0.0108984	3610432
7760.78	0.011454	3610850
7770.89	0.0119714	3610813
7781.01	0.0124473	3610873
7790	0.0128327	3610663
7800.12	0.0132217	3610582
7810.25	0.0135616	3610786
7820.4	0.0138508	3611052
7830.53	0.0140868	3610921
7840.65	0.0142696	3611159
7850.76	0.0143994	3610931
7860.88	0.0144767	3611114
7871	0.0145026	3610700
7881.12	0.0144786	3611174
7890.11	0.014417	3611114
7900.23	0.0143044	3611410
7910.35	0.0141487	3611734
7920.46	0.0139528	3611822
7930.58	0.0137196	3612671
7940.7	0.0134525	3612911
7950.74	0.0131569	3613267
7960.67	0.0128377	3613667
7970.58	0.0124954	3614304
7980.49	0.0121317	3615042
7990.4	0.0117492	3615834
8000.32	0.0113496	3616454
8010.22	0.0109348	3617117
8020.13	0.010506	3618106
8030.03	0.010064	3618630
8041.03	0.00955783	3619630
8050.94	0.00908881	3620474
8060.84	0.00860668	3621617
8070.75	0.00811079	3622873
8080.65	0.00760014	3623892
8090.56	0.00707352	3625288
8100.46	0.00652946	3626508
8110.36	0.00596634	3627791
8120.27	0.00538241	3629097
8130.17	0.00477582	3630324
8140.08	0.00414469	3630959
8151.08	0.00341236	3632249
8160.98	0.00272326	3633107
8170.89	0.00200386	3633793
8180.79	0.00125244	3634839
8190.75	0.000463082	3635835
8200.82	-0.00037109	3637607
8210.89	-0.0012429	3638829
8220.99	-0.00215646	3640133
8231.11	-0.00311246	3640943
8240.11	-0.00399675	3641450
8250.23	-0.00503099	3642423
8260.36	-0.00610735	3643223
8270.48	-0.00722603	3644715
8280.61	-0.00838697	3645267
8290.73	-0.0095899	3646037
8300.85	-0.0108343	3646687
8310.98	-0.0121194	3647283
8321.1	-0.0134443	3648045
8330.1	-0.0146543	3648410
8340.22	-0.0160508	3649036
8350.35	-0.0174829	3649488
8360.47	-0.018949	3650533
8370.59	-0.020447	3651246
8380.72	-0.0219747	3651860
8390.84	-0.02353	3652557
8400.96	-0.0251103	3652427
8411.09	-0.026713	3652549
8420.09	-0.0281543	3652493
8430.21	-0.0297919	3653069
8440.34	-0.0314442	3653085
8450.47	-0.0331091	3653069
8460.64	-0.0347869	3653125
8470.84	-0.0364742	3653191
8481.04	-0.0381635	3653143
8490.12	-0.0396638	3653257
8500.34	-0.0413472	3652833
8510.58	-0.0430227	3652713
8520.84	-0.0446861	3652789
8531.11	-0.0463301	3651988
8540.23	-0.0477708	3651636
8550.49	-0.0493636	3651083
8560.76	-0.050922	3650212
8571.02	-0.0524404	3649980
8580.14	-0.0537522	3649750
8590.41	-0.0551799	3649611
8600.67	-0.0565512	3649515
8610.93	-0.0578602	3649175
8620.05	-0.058966	3649565
8630.29	-0.0601378	3649131
8640.52	-0.0612301	3649109
8650.76	-0.062237	3648723
8660.99	-0.0631526	3648567
8670.09	-0.0638851	3648691
8680.32	-0.0646123	3648363
8690.55	-0.065232	3648013
8700.79	-0.0657387	3647938
8711.02	-0.0661275	3647948
8720.11	-0.0663704	3647934
8730.34	-0.0665242	3647638
8740.58	-0.0665477	3647554
8750.81	-0.0664374	3647225
8761.04	-0.0661904	3646909
8770.13	-0.065854	3646893
8780.36	-0.0653423	3646792
8790.59	-0.0646889	3647016
8800.8	-0.0638936	3647234
8811.01	-0.0629556	3646779
8820.09	-0.0620025	3646955
8830.3	-0.0607971	3647067
8840.51	-0.0594526	3647016
8850.72	-0.0579713	3647203
8860.93	-0.0563563	3647139
8871.13	-0.0546113	3647235
8880.21	-0.0529546	3647239
8890.42	-0.0509766	3647410
8900.63	-0.0488828	3647515
8910.83	-0.0466793	3647421
8921.04	-0.0443727	3647242
8930.11	-0.0422416	3647564
8940.32	-0.0397603	3647473
8950.51	-0.0372	3647141
8960.7	-0.0345662	3646740
8970.87	-0.0318745	3646638
8980.99	-0.0291371	3646335
8991.1	-0.0263557	3646385
9000.09	-0.0238509	3646333
9010.2	-0.021004	3646010
9020.31	-0.0181346	3645481
9030.42	-0.0152515	3644733
9040.52	-0.0123632	3644333
9050.63	-0.00947808	3643615
9060.74	-0.00660442	3643035
9070.85	-0.00375016	3642784
9080.96	-0.000922981	3642279
9091.07	0.00186979	3642303
9100.05	0.00431775	3642302
9110.16	0.00702694	3642093
9120.27	0.00968288	3641633
9130.37	0.01228	3641329
9140.48	0.0148136	3641178
9150.6	0.0172814	3641214
9160.74	0.0196814	3641688
9170.89	0.0220076	3641997
9181.05	0.0242561	3642469
9190.07	0.0261861	3642897
9200.2	0.0282736	3644139
9210.31	0.0302758	3644875
9220.41	0.0321949	3646771
9230.52	0.0340316	3647437
9240.63	0.0357866	3649337
9250.74	0.0374615	3650639
9260.85	0.0390582	3651781
9270.96	0.0405788	3653239
9281.07	0.0420263	3654347
9290.05	0.043254	3655621
9300.16	0.0445719	3656467
9310.27	0.0458264	3657465
9320.38	0.0470213	3658075
9330.49	0.0481606	3659121
9340.6	0.0492484	3660491
9350.71	0.0502888	3661141
9360.82	0.051286	3662315
9370.93	0.0522441	3663613
9381.04	0.0531669	3664987
9390.03	0.0539608	3665835
9400.14	0.0548274	3666795
9410.25	0.0556694	3667614
9420.36	0.0564897	3668578
9430.47	0.0572913	3669392
9440.58	0.0580767	3670120
9450.69	0.0588481	3670754
9460.8	0.0596074	3671616
9470.91	0.060356	3672612
9481.02	0.061095	3673742
9490.01	0.0617445	3674734
9500.12	0.0624671	3676216
9510.24	0.0631819	3677538
9520.43	0.0638919	3678567
9530.62	0.0645928	3679410
9540.81	0.0652827	3680575
9551	0.0659602	3681745
9560.06	0.0665508	3682252
9570.25	0.0672001	3683544
9580.44	0.0678313	3684497
9590.63	0.068442	3684809
9600.83	0.0690295	3686557
9611.02	0.069591	3686973
9620.08	0.070066	3687686
9630.27	0.0705704	3688442
9640.46	0.0710403	3688507
9650.65	0.0714724	3688629
9660.84	0.071864	3688194
9671.03	0.0722119	3688682
9680.09	0.0724822	3688471
9690.28	0.07274	3688295
9700.47	0.0729463	3687940
9710.66	0.0730985	3687496
9720.86	0.0731945	3686895
9731.05	0.0732323	3686339
9740.11	0.0732154	3685008
9750.3	0.0731382	3684610
9760.49	0.0729982	3683796
9770.68	0.0727942	3683396
9780.87	0.0725253	3682971
9791.06	0.0721909	3682068
9800.12	0.0718382	3682068
9810.31	0.0713789	3681024
9820.51	0.0708534	3680468
9830.7	0.0702617	3679933
9840.88	0.0696049	3678521
9851.05	0.0688833	3677848
9860.08	0.0681886	3677286
9870.24	0.0673468	3676758
9880.4	0.0664416	3676415
9890.56	0.065474	3676317
9900.71	0.0644447	3675900
9910.87	0.0633544	3675400
9921.03	0.0622042	3675289
9930.06	0.0611324	3674525
9940.19	0.059874	3673512
9950.33	0.0585583	3672123
9960.47	0.0571861	3671296
9970.6	0.0557585	3670018
9980.74	0.0542763	3669263
9990.87	0.0527404	3668197
10001	0.0511518	3667237
10010	0.0496963	3667089
10020.2	0.048011	3666449
10030.3	0.0462762	3666534
10040.4	0.0444932	3666468
10050.6	0.0426634	3666757
10060.7	0.0407883	3667041
10070.8	0.0388697	3667260
10081	0.0369094	3668046
10091.1	0.0349094	3668487
10100.1	0.0331002	3668687
10110.3	0.0310318	3669421
10120.4	0.0289308	3670002
10130.5	0.0268002	3670943
10140.7	0.0246431	3671302
10150.8	0.0224628	3672136
10161	0.0202614	3672571
10171.1	0.018042	3672982
10180.2	0.0160534	3673315
10190.3	0.0138083	3673593
10200.5	0.0115591	3673711
10210.7	0.0093105	3674337
10220.9	0.00706787	3674613
10231.1	0.00483643	3675372
10240.1	0.00286642	3675815
10250.3	0.00066819	3676167
10260.4	-0.00150632	3677617
10270.6	-0.00365232	3678341
10280.8	-0.0057651	3679396
10290.9	-0.00784002	3680734
10301.1	-0.00987261	3681993
10310.1	-0.0116403	3683374
10320.3	-0.0135813	3684691
10330.5	-0.015468	3685838
10340.6	-0.0172969	3687144
10350.8	-0.0190644	3688398
10361	-0.0207676	3689943
10370	-0.0222253	3690670
10380.2	-0.0237998	3691393
10390.4	-0.0253029	3692367
10400.5	-0.026733	3693331
10410.7	-0.0280886	3694445
10420.9	-0.0293718	3695714
10431.1	-0.0305805	3696727
10440.2	-0.0315902	3697275
10450.4	-0.0326532	3697379
10460.6	-0.0336394	3697883
10470.8	-0.0345492	3698413
10481	-0.0353834	3699129
10490.1	-0.0360622	3699396
10500.3	-0.0367566	3699471
10510.5	-0.037379	3699811
10520.7	-0.0379315	3699234
10530.9	-0.038416	3699325
10541	-0.0388344	3699167
10550.1	-0.0391524	3698950
10560.3	-0.0394515	3699188
10570.5	-0.0396905	3699087
10580.7	-0.0398717	3698772
10590.9	-0.0399973	3698594
10601.1	-0.0400696	3697838
10610.1	-0.0400909	3697423
10620.3	-0.0400687	3697052
10630.5	-0.0399998	3696578
10640.7	-0.0398865	3696747
10650.9	-0.0397311	3696652
10661.1	-0.0395358	3696448
10670.2	-0.0393307	3697002
10680.4	-0.0390667	3696602
10690.6	-0.0387697	3696726
10700.8	-0.038442	3696539
10711	-0.0380864	3695927
10720.1	-0.0377488	3695888
10730.3	-0.0373475	3695541
10740.5	-0.0369262	3695210
10750.7	-0.0364877	3694947
10760.9	-0.0360349	3694479
10771.1	-0.0355706	3694202
10780.1	-0.0351508	3694135
10790.3	-0.0346734	3693948
10800.5	-0.0341937	3694376
10810.7	-0.033715	3694100
10820.9	-0.0332406	3694047
10830	-0.0328253	3693681
10840.2	-0.0323685	3693222
10850.4	-0.031926	3693127
10860.6	-0.0315011	3693449
10870.8	-0.0310974	3693354
10881	-0.0307181	3693323
10890.1	-0.0304041	3692593
10900.3	-0.0300798	3692264
10910.5	-0.0297891	3692248
10920.7	-0.0295349	3692447
10930.9	-0.0293199	3692722
10941.1	-0.0291466	3692264
10950.1	-0.0290296	3692149
10960.3	-0.0289414	3691810
10970.5	-0.028901	3691539
10980.7	-0.02891	3691274
10990.9	-0.0289698	3690766
11000	-0.0290663	3690979
11010.2	-0.0292246	3690247
11020.4	-0.0294362	3690610
11030.7	-0.0297015	3690438
11041	-0.0300226	3690844
11050.2	-0.0303537	3690922
11060.5	-0.0307764	3691346
11070.8	-0.0312506	3691877
11080	-0.0317144	3692412
11090.3	-0.0322824	3692409
11100.6	-0.0328976	3692501
11111	-0.0335574	3692468
11120.1	-0.0341789	3692789
11130.4	-0.0349156	3692605
11140.7	-0.0356876	3692742
11150.9	-0.0364929	3693122
11160	-0.037235	3693288
11170.3	-0.0380967	3692896
11180.5	-0.0389837	3692875
11190.8	-0.0398927	3692894
11201	-0.0408203	3693319
11210.1	-0.0416576	3693164
11220.3	-0.0426044	3693885
11230.4	-0.0435554	3694372
11240.5	-0.0445092	3694502
11250.6	-0.0454639	3694961
11260.7	-0.0464173	3695873
11270.8	-0.0473664	3697232
11280.9	-0.048308	3698272
11291	-0.0492393	3699903
11301.1	-0.0501572	3701635
11310.1	-0.0509598	3702041
11320.2	-0.0518454	3702934
11330.3	-0.0527101	3702766
11340.3	-0.0535516	3703291
11350.4	-0.0543679	3703166
11360.5	-0.0551567	3702510
11370.6	-0.0559164	3702068
11380.7	-0.0566453	3701220
11390.8	-0.0573419	3700950
11400.9	-0.0580051	3700266
11411	-0.0586354	3700232
11420.1	-0.0591683	3699940
11430.3	-0.0597359	3699571
11440.5	-0.060267	3699481
11450.7	-0.0607612	3699452
11460.9	-0.0612186	3699335
11470	-0.0615946	3699315
11480.2	-0.0619839	3698753
11490.4	-0.0623384	3699224
11500.7	-0.0626592	3698712
11510.9	-0.0629479	3697780
11521.1	-0.0632063	3696337
11530.2	-0.0634122	3695947
11540.5	-0.0636185	3695253
11550.7	-0.0638003	3694489
11561	-0.0639598	3694286
11570.1	-0.0640852	3693964
11580.3	-0.0642102	3693521
11590.6	-0.0643209	3692525
11600.8	-0.0644202	3691941
11611.1	-0.064511	3691457
11620.2	-0.0645871	3691367
11630.4	-0.06467	3690506
11640.7	-0.0647528	3689461
11650.9	-0.0648384	3688696
11660	-0.0649189	3687733
11670.2	-0.0650164	3687381
11680.4	-0.0651231	3686609
11690.5	-0.0652412	3686276
11700.5	-0.065372	3685561
11710.6	-0.0655173	3684962
11720.6	-0.0656784	3684182
11730.6	-0.0658566	3682959
11740.6	-0.0660525	3682304
11750.6	-0.0662666	3680999
11760.6	-0.0664988	3679851
11770.6	-0.066749	3678953
11780.6	-0.0670166	3678100
11790.6	-0.0673008	3677536
11800.7	-0.0676003	3676990
11810.7	-0.0679138	3676770
11820.7	-0.0682394	3675911
11830.7	-0.0685752	3675239
11840.7	-0.0689188	3674381
11850.7	-0.0692678	3673443
11860.7	-0.0696196	3672683
11870.7	-0.0699711	3671674
11880.7	-0.0703201	3670911
11890.8	-0.0706635	3669846
11900.9	-0.0709976	3667770
11910.9	-0.0713186	3666475
11921	-0.0716233	3664789
11931.1	-0.0719088	3663839
11940	-0.0721437	3662677
11950.2	-0.0723838	3661834
11960.3	-0.0725953	3660875
11970.5	-0.0727747	3660482
11980.7	-0.0729189	3659273
11990.8	-0.0730248	3658739
12001	-0.0730903	3657675
12011.1	-0.0731134	3656867
12020.2	-0.0730968	3656357
12030.3	-0.0730349	3655276
12040.5	-0.0729262	3654613
12050.6	-0.0727696	3654134
12060.8	-0.0725645	3654009
12070.9	-0.0723107	3653173
12081.1	-0.0720082	3652365
12090.1	-0.0716986	3652190
12100.3	-0.0713052	3652063
12110.4	-0.0708651	3652158
12120.5	-0.0703809	3652100
12130.6	-0.0698533	3651994
12140.7	-0.0692837	3652336
12150.8	-0.0686738	3652390
12160.9	-0.0680256	3652300
12171.1	-0.0673414	3651811
12180	-0.0667048	3651614
12190.1	-0.0659589	3651676
12200.2	-0.0651839	3651117
12210.4	-0.0643823	3651183
12220.5	-0.0635567	3651053
12230.6	-0.0627096	3651087
12240.7	-0.0618433	3650911
12250.8	-0.0609605	3650386
12260.9	-0.0600633	3649971
12271	-0.0591538	3648979
12281.1	-0.0582343	3648483
12290.1	-0.0574099	3647979
12300.2	-0.0564763	3646911
12310.3	-0.0555374	3646332
12320.4	-0.0545948	3645746
12330.5	-0.0536496	3644814
12340.6	-0.0527028	3643937
12350.7	-0.0517551	3642869
12360.8	-0.0508066	3641308
12370.9	-0.0498569	3640437
12381.1	-0.0489054	3638425
12390.1	-0.0480594	3637700
12400.3	-0.0471077	3636570
12410.4	-0.0461556	3635216
12420.6	-0.0452027	3633860
12430.7	-0.0442476	3632024
12440.9	-0.0432878	3630888
12451.1	-0.0423215	3629016
12460.2	-0.0414577	3628052
12470.4	-0.0404808	3626548
12480.7	-0.0394975	3625461
12490.8	-0.0385139	3624735
12500.9	-0.0375301	3623655
12510.9	-0.0365415	3622950
12520.9	-0.0355421	3621809
12530.9	-0.0345302	3621239
12540.8	-0.0335082	3621223
12550.7	-0.0324795	3620725
12560.5	-0.0314394	3620503
12570.4	-0.0303843	3620672
12580.2	-0.0293111	3620583
12591.1	-0.0280962	3620872
12600.9	-0.0269815	3620895
12610.7	-0.0258455	3620785
12620.5	-0.0246877	3621183
12630.3	-0.023507	3621423
12640.1	-0.022303	3621415
12651.1	-0.0209369	3621729
12660.9	-0.0196815	3621520
12670.7	-0.0184011	3621651
12680.5	-0.0170953	3621053
12690.3	-0.0157638	3620626
12700.1	-0.0144064	3619641
12711	-0.0128679	3619386
12720.8	-0.0114557	3618952
12730.7	-0.0100176	3618653
12740.5	-0.0085538	3618535
12750.3	-0.00706441	3617919
12760.1	-0.00554976	3617444
12771	-0.00383336	3616989
12780.9	-0.00225875	3615968
12790.8	-0.000651607	3615886
12800.7	0.000981393	3615003
12810.7	0.00263753	3614272
12820.6	0.00431654	3613267
12830.6	0.00602443	3612342
12840.6	0.00776351	3611978
12850.7	0.00952926	3610977
12860.7	0.0113162	3610333
12870.8	0.0131212	3609717
12880.9	0.0149431	3609149
12891	0.0167806	3608628
12901.1	0.0186338	3607919
12910.1	0.0202978	3607724
12920.1	0.022172	3607148
12930.2	0.0240443	3607381
12940.1	0.0259172	3606850
12950.1	0.0277968	3606535
12960.1	0.0296814	3606474
12970	0.0315695	3606452
12980	0.0334592	3606472
12991.1	0.0355587	3606235
13001.1	0.0374461	3606534
13011	0.0393291	3606328
13021	0.0412023	3606211
13030.9	0.0430533	3606230
13040.7	0.0448852	3605859
13050.4	0.0466964	3605552
13060.2	0.0484948	3605435
13071.1	0.0504757	3605371
13080.8	0.0522409	3605239
13090.6	0.0539875	3605314
13100.4	0.0557139	3605437
13110.1	0.0574182	3606143
13121	0.059284	3606389
13130.8	0.0609361	3606206
13140.5	0.0625611	3605951
13150.3	0.0641572	3605962
13160.1	0.0657231	3605328
13170.9	0.0674256	3605451
13180.7	0.0689229	3605011
13190.5	0.0703857	3605092
13200.2	0.0718128	3604703
13210	0.0732032	3604407
13220.9	0.0747024	3604074
13230.6	0.0760026	3603855
13240.2	0.0772587	3603327
13250.9	0.0786068	3602296
13260.6	0.0797781	3601486
13270.2	0.0809093	3601368
13280.9	0.082119	3600438
13290.6	0.0831648	3599943
13300.2	0.0841701	3599185
13310.9	0.0852395	3598457
13320.6	0.0861593	3597666
13330.2	0.087039	3597284
13340.9	0.0879699	3596664
13350.6	0.0887663	3596178
13360.2	0.0895241	3595835
13371	0.0903216	3595741
13380.6	0.0910001	3595572
13390.2	0.0916424	3595432
13401	0.0923146	3595635
13410.6	0.0928833	3595232
13420.2	0.0934188	3595092
13431	0.0939761	3594448
13440.6	0.0944456	3593984
13450.3	0.0948861	3593114
13460.1	0.0953011	3592008
13471	0.0957336	3591329
13480.9	0.0960943	3590684
13490.7	0.0964288	3589867
13500.6	0.0967375	3589572
13510.4	0.0970229	3588543
13520.2	0.0972861	3588339
13530.1	0.0975283	3587629
13541	0.097774	3586850
13550.8	0.0979754	3586260
13560.6	0.098159	3585511
13570.5	0.0983257	3584910
13580.3	0.0984766	3584068
13590.1	0.0986122	3583382
13601.1	0.098746	3582326
13610.9	0.0988518	3581274
13620.7	0.0989443	3580487
13630.5	0.0990239	3579740
13640.3	0.0990908	3578994
13650.1	0.0991455	3578397
13660.9	0.0991923	3577803
13670.7	0.0992219	3576612
13680.4	0.0992395	3575940
13690.2	0.0992449	3574652
13701	0.0992364	3573389
13710.7	0.0992154	3573050
13720.3	0.0991816	3572251
13731	0.0991281	3571911
13740.6	0.0990651	3571453
13750.2	0.0989871	3571208
13760.9	0.098882	3571475
13770.5	0.0987697	3570963
13780.1	0.0986397	3571361
13790.8	0.0984733	3570826
13800.4	0.0983024	3570636
13810.1	0.0981105	3570243
13820.8	0.097871	3569224
13830.4	0.0976305	3568931
13841.1	0.097334	3568306
13850.7	0.0970395	3567638
13860.3	0.0967174	3566988
13871	0.0963257	3566367
13880.6	0.0959413	3565733
13890.2	0.0955256	3565217
13900.9	0.0950249	3565035
13910.6	0.0945366	3564706
13920.3	0.0940103	3564188
13930	0.0934474	3563998
13940.8	0.0927781	3563400
13950.6	0.0921334	3562908
13960.3	0.0914486	3562469
13970.1	0.0907241	3561640
13981	0.0898719	3560789
13990.8	0.0890607	3560136
14000.6	0.0882078	3559409
14010.4	0.0873129	3558585
14020.2	0.0863725	3557585
14030.1	0.0853883	3556465
14040	0.0843629	3555492
14051	0.0831766	3554199
14060.9	0.0820671	3553020
14070.8	0.0809183	3551753
14080.8	0.0797298	3550940
14090.7	0.0785004	3550110
14100.7	0.0772302	3549536
14110.8	0.0759169	3549032
14120.9	0.0745692	3548040
14130.9	0.073194	3546999
14141	0.0717901	3545681
14151	0.0703584	3544182
14161.1	0.0689004	3542991
14170	0.0675839	3541175
14180.1	0.0660814	3539945
14190.1	0.0645578	3538515
14200.2	0.063015	3537513
14210.2	0.0614546	3536638
14220.3	0.0598783	3535556
14230.3	0.0582879	3535232
14240.4	0.0566847	3534174
14250.4	0.0550703	3533252
14260.5	0.0534462	3532309
14270.5	0.0518136	3531182
14280.6	0.0501738	3529518
14290.6	0.0485279	3528789
14300.7	0.046876	3527076
14310.8	0.0452173	3526386
14320.9	0.0435488	3525114
14331.1	0.0418634	3524538
14340.2	0.0403557	3523712
14350.5	0.0386544	3522558
14360.7	0.036952	3522228
14371	0.035249	3520971
14380.1	0.033735	3520554
14390.4	0.0320316	3519951
14400.7	0.0303282	3519124
14411	0.0286249	3518897
14420.1	0.027111	3518249
14430.3	0.0254127	3517955
14440.6	0.0237168	3516939
14450.8	0.0220214	3516605
14461	0.0203259	3516253
14470.1	0.0188184	3515815
14480.3	0.017122	3514641
14490.6	0.015425	3513461
14500.8	0.013727	3511715
14511	0.012028	3510370
14520.1	0.0105166	3508270
14530.3	0.00881571	3506932
14540.6	0.00711351	3504916
14550.8	0.00540955	3502882
14561	0.00370372	3500517
14570.1	0.00218578	3498774
14580.3	0.000476167	3496778
14590.5	-0.00123551	3494279
14600.8	-0.00294925	3491732
14611	-0.00466501	3489533
14620.1	-0.00619176	3487782
14630.3	-0.00791106	3485449
14640.5	-0.00963199	3482749
14650.7	-0.0113551	3480482
14661	-0.0130825	3478518
14670.1	-0.0146235	3476559
14680.4	-0.0163584	3474284
14690.6	-0.0180859	3472341
14700.8	-0.0198046	3470112
14711	-0.0215135	3468038
14721.1	-0.023217	3465891
14730.1	-0.0247281	3464432
14740.2	-0.0264241	3462375
14750.3	-0.0281162	3460139
14760.4	-0.0298038	3458009
14770.5	-0.0314859	3455283
14780.6	-0.0331617	3453400
14790.7	-0.03483	3450338
14800.8	-0.03649	3447475
14810.9	-0.0381406	3444088
14821	-0.0397806	3440187
14831.1	-0.041409	3436301
14840.1	-0.0428458	3432736
14850.2	-0.044449	3428486
14860.3	-0.0460352	3424485
14870.3	-0.0475994	3419834
14880.3	-0.0491346	3415038
14890.2	-0.0506451	3410495
14900.1	-0.0521349	3405836
14910.1	-0.0536026	3401691
14921	-0.0552042	3397235
14930.9	-0.0566211	3392831
14940.8	-0.0580143	3388814
14950.7	-0.0593826	3384647
14960.6	-0.060725	3380104
14970.4	-0.0620403	3376115
14980.3	-0.0633275	3371883
14990.2	-0.0645855	3368612
15000.1	-0.0658132	3364553
15011	-0.0671404	3360672
15020.9	-0.0683007	3356778
15030.8	-0.0694274	3353251
15040.7	-0.0705196	3349559
15050.6	-0.071579	3346122
15060.5	-0.0726045	3342937
15070.6	-0.0736057	3339244
15080.9	-0.0745889	3336028
15090.1	-0.0754246	3332251
15100.3	-0.0763185	3328792
15110.5	-0.077163	3325243
15120.6	-0.0779559	3321697
15130.7	-0.0786959	3318469
15140.7	-0.0793867	3314979
15150.7	-0.0800275	3312007
15160.6	-0.0806176	3308945
15170.5	-0.0811566	3305655
15180.4	-0.0816422	3301963
15190.3	-0.0820736	3298867
15200.2	-0.0824514	3295194
15210	-0.0827742	3292002
15221	-0.0830666	3288457
15230.8	-0.0832686	3285199
15240.7	-0.0834112	3282188
15250.6	-0.0834931	3278903
15260.4	-0.0835128	3276160
15270.3	-0.0834691	3272867
15280.2	-0.0833596	3269801
15290.2	-0.0831811	3266916
15300.3	-0.0829318	3263717
15310.4	-0.0826113	3260404
15320.5	-0.0822187	3257333
15330.6	-0.0817532	3253949
15340.7	-0.0812139	3250277
15350.8	-0.0806004	3246485
15360.9	-0.0799123	3243122
15370.9	-0.0791507	3239797
15381	-0.0783152	3235768
15391	-0.0774054	3231810
15401.1	-0.0764214	3228050
15410	-0.0754849	3224602
15420.1	-0.0743624	3221402
15430.2	-0.0731676	3218081
15440.2	-0.0719017	3215214
15450.3	-0.0705657	3211579
15460.4	-0.0691608	3208412
15470.4	-0.0676881	3205134
15480.5	-0.0661447	3201921
15490.6	-0.0645356	3199035
15500.8	-0.0628623	3196288
15510.9	-0.0611281	3193420
15521	-0.0593342	3189955
15530.1	-0.0576804	3187423
15540.5	-0.0557443	3184129
15551	-0.0537346	3180564
15560.3	-0.0519034	3177607
15570.8	-0.0498031	3174153
15580.1	-0.0479037	3170849
15590.5	-0.0457369	3167590
15600.9	-0.0435411	3163729
15610.1	-0.0415681	3160838
15620.5	-0.0393302	3157123
15630.8	-0.037076	3153767
15640	-0.03506	3150878
15650.3	-0.0327809	3146991
15660.7	-0.0304947	3143342
15671	-0.0282066	3139100
15680.2	-0.0261755	3135589
15690.5	-0.0238983	3131609
15700.8	-0.0216347	3127875
15710	-0.0196386	3124169
15720.3	-0.0174162	3119683
15730.7	-0.0152239	3115555
15741	-0.0130676	3111569
15750.2	-0.0111857	3107889
15760.5	-0.00911241	3104077
15770.9	-0.00708607	3100129
15780.1	-0.00533005	3097005
15790.5	-0.00341225	3093458
15800.9	-0.00156515	3089693
15810.2	1.27705e-05	3086621
15820.6	0.00171097	3082842
15831	0.00332251	3079290
15840.3	0.00467809	3076401
15850.7	0.00610927	3072676
15861	0.00743781	3069281
15870.2	0.00853064	3066325
15880.6	0.00965809	3063213
15891	0.010674	3059545
15900.2	0.0114807	3056278
15910.5	0.0122772	3052607
15920.9	0.0129536	3049451
15930.1	0.0134522	3046709
15940.5	0.0138963	3043050
15950.8	0.0142152	3039939
15960.1	0.014393	3036983
15970.4	0.0144737	3033965
15980.8	0.0144278	3031328
15990.1	0.0142797	3028863
16000.6	0.0139924	3025793
16011.1	0.0135781	3022809
16020.6	0.0130975	3020017
16030.2	0.012509	3017051
16041	0.0117276	3013696
16050.6	0.0109297	3011216
16060.2	0.0100375	3008325
16071	0.00892397	3005205
16080.6	0.00783732	3002294
16090.3	0.00666243	2999799
16100	0.00539865	2996876
16111.2	0.00385252	2993609
16120	0.00256886	2991106
16130.2	0.00102557	2988283
16140.4	-0.000611155	2985828
16150.8	-0.0023199	2983350
16161.1	-0.00408625	2980358
16170.2	-0.00567398	2977846
16180.5	-0.00753083	2975051
16190.8	-0.00942643	2971958
16201.2	-0.0113541	2969306
16210.2	-0.0130594	2966469
16220.5	-0.0150206	2963664
16230.8	-0.0169942	2960781
16241.1	-0.0189736	2957934
16250.1	-0.0207051	2955071
16260.4	-0.0226773	2951949
16270.7	-0.0246363	2948703
16280.9	-0.0265754	2945418
16291.2	-0.0284884	2942196
16300.2	-0.0301358	2939258
16310.5	-0.0319828	2936085
16320.8	-0.0337859	2932860
16331.1	-0.0355394	2929946
16340.1	-0.0370284	2927587
16350.4	-0.0386737	2924393
16360.7	-0.0402537	2921600
16371	-0.0417635	2918544
16381.3	-0.0431985	2915636
16390.3	-0.0443894	2913180
16400.6	-0.0456729	2910139
16410.9	-0.0468701	2907628
16421.2	-0.0479778	2904577
16430.2	-0.0488719	2902140
16440.5	-0.0498052	2899358
16450.8	-0.0506454	2896570
16461.2	-0.0513895	2893982
16470.3	-0.0519573	2891628
16480.8	-0.0525173	2889181
16490.2	-0.0529259	2886997
16501	-0.0532967	2884164
16510.5	-0.0535305	2881999
16520.1	-0.0536806	2879754
16531.1	-0.0537496	2876837
16540.6	-0.0537213	2874296
16550.2	-0.0536123	2871692
16561.2	-0.0533916	2869021
16570.8	-0.0531173	2866683
16580.3	-0.05277	2864227
16591.3	-0.0522876	2861684
16600.9	-0.0517944	2859525
16610.5	-0.0512385	2857113
16620	-0.0506234	2855020
16631	-0.0498529	2852403
16640.6	-0.049124	2850387
16650.2	-0.0483483	2848549
16661.1	-0.0474097	2845890
16670.7	-0.0465475	2843735
16680.3	-0.0456515	2841579
16691.2	-0.0445909	2839192
16700.8	-0.043635	2837193
16710.4	-0.0426577	2835051
16721.3	-0.0415258	2832751
16730.8	-0.0405309	2830775
16740.2	-0.0395355	2828792
16750.9	-0.0383968	2826806
16760.2	-0.0374013	2824850
16770.8	-0.0362658	2822944
16780.1	-0.0352769	2821022
16790.8	-0.0341553	2818818
16800.1	-0.0331842	2816886
16810.7	-0.0320889	2814381
16820	-0.0311453	2812931
16830.7	-0.0300861	2810614
16841.3	-0.029053	2808761
16850.6	-0.0281708	2807086
16861.1	-0.0271864	2805011
16870.4	-0.0263468	2803116
16881	-0.0254131	2801085
16890.3	-0.024619	2799500
16900.8	-0.023738	2797720
16910.1	-0.0229903	2795850
16920.7	-0.0221624	2794060
16931.3	-0.0213624	2791919
16940.5	-0.0206847	2790139
16951.1	-0.0199333	2788195
16960.1	-0.019317	2786760
16970.8	-0.0186054	2785131
16980	-0.0180148	2783754
16990.8	-0.0173473	2782207
17000	-0.0167869	2780985
17010.9	-0.0161492	2779278
17020.3	-0.0156183	2778046
17031.5	-0.0149983	2776737
17041.2	-0.0144727	2775357
17051	-0.0139565	2774380
17060.9	-0.0134515	2773285
17070.7	-0.0129565	2772141
17080.5	-0.0124703	2771128
17090.3	-0.0119919	2770039
17100.1	-0.0115202	2768837
17111.6	-0.0109771	2767486
17121.4	-0.0105167	2766434
17131.2	-0.0100601	2765284
17141	-0.00960639	2763941
17150.8	-0.00915495	2762650
17160.8	-0.00869648	2761438
17171.2	-0.00822152	2760013
17181.6	-0.00774826	2758769
17190.1	-0.00735941	2757479
17200.3	-0.00689256	2756190
17210.7	-0.0064158	2754943
17221.2	-0.00593836	2753680
17231.6	-0.00546017	2752451
17240.3	-0.00506117	2751358
17250.7	-0.00458189	2750166
17261.1	-0.00410235	2748938
17271.5	-0.00362294	2747647
17280.2	-0.00322369	2746717
17290.7	-0.00274436	2745563
17301.1	-0.00226881	2744064
17311.1	-0.00181413	2742953
17321.1	-0.00136259	2741597
17331.1	-0.000914995	2740436
17341.6	-0.000453697	2739247
17350.3	-7.31959e-05	2738286
17360.7	0.000376042	2737121
17371.2	0.000816858	2735758
17381.6	0.00124806	2734665
17390.3	0.00159918	2733567
17400.7	0.0020096	2732154
17411.1	0.00240459	2731017
17421.2	0.00277654	2729963
17431.1	0.00312415	2729076
17440.8	0.00345197	2728040
17450.4	0.00376114	2727017
17461.4	0.00409788	2725883
17470.8	0.00436684	2724654
17480.1	0.00461706	2723402
17491.1	0.00489135	2722352
17500.8	0.005112	2721321
17510.6	0.00531587	2720331
17520.5	0.00550125	2719188
17530.7	0.00566861	2718159
17540.9	0.00581417	2716920
17551.1	0.0059364	2715807
17561.5	0.00603678	2714895
17570.2	0.00610174	2714051
17580.3	0.00615659	2713337
17590.2	0.00618793	2712616
17600	0.00619784	2711982
17611.2	0.00618404	2711058
17620.7	0.00615181	2710501
17630.2	0.00610115	2709749
17641.4	0.0060193	2708965
17650.9	0.005932	2708308
17660.3	0.00582997	2707832
17671.1	0.00569398	2707143
17680.4	0.00556344	2706669
17691.2	0.00539701	2706015
17700.4	0.00524315	2705439
17711.2	0.00505113	2704864
17721.2	0.00486353	2704176
17731.3	0.00466413	2703819
17741.6	0.00445657	2703191
17750.2	0.00427957	2702672
17760.5	0.00406424	2702069
17770.7	0.00384748	2701396
17781	0.00363114	2700459
17791.3	0.0034171	2699760
17801.6	0.00320719	2699242
17810.1	0.00303673	2698768
17820.4	0.00283908	2698167
17830.7	0.00265056	2697608
17841.2	0.00246943	2697347
17851.2	0.00230774	2696734
17861.6	0.00215473	2696108
17870.5	0.0020359	2695585
17880.5	0.00191651	2694995
17890.4	0.00181501	2694557
17900.6	0.0017277	2694151
17911.2	0.00165732	2693596
17921.7	0.00160783	2692979
17930.4	0.00158314	2692535
17941	0.00157319	2692045
17951.1	0.00158444	2691434
17961.4	0.00161661	2690671
17970	0.00165984	2690039
17980.2	0.00172957	2689359
17991.5	0.00182967	2688563
18001.3	0.00193641	2687853
18011.5	0.00206438	2687219
18020.3	0.00218944	2686543
18030.8	0.00235653	2685908
18041.4	0.00253935	2685282
18050.2	0.00270594	2684510
18060.9	0.00291908	2683940
18071.6	0.00314511	2683284
18081.4	0.0033642	2682708
18091.1	0.00358611	2682174
18100.7	0.00381435	2681702
18110.4	0.00404746	2681104
18120.6	0.00429978	2680513
18131.3	0.00456376	2679906
18140.1	0.00478161	2679418
18151.6	0.00506419	2678851
18161.4	0.00530432	2678167
18170.1	0.00551209	2677742
18180.5	0.00575388	2676916
18190.9	0.00598746	2676146
18201.3	0.00621122	2675589
18211.7	0.00642363	2674899
18220.3	0.00659094	2674261
18230.4	0.00677398	2673737
18240.3	0.00694031	2673024
18250.3	0.00709166	2672294
18260.1	0.00722653	2671570
18271.4	0.00736084	2670886
18280.9	0.00745759	2670338
18290.4	0.00753777	2669776
18301.3	0.00761008	2669151
18310.6	0.00765458	2668847
18321.4	0.00768642	2668138
18330.6	0.00769691	2667914
18341.4	0.00768986	2667364
18350.7	0.00766723	2666812
18360.4	0.00762799	2666431
18370.3	0.00757191	2665914
18380.3	0.00749899	2665482
18391	0.00740457	2665005
18401.7	0.00729318	2664484
18410.6	0.00718853	2664146
18421.3	0.00704979	2663700
18430.3	0.0069241	2663394
18441	0.00676255	2663216
18451.6	0.00659203	2662846
18460.4	0.00644376	2662564
18470.9	0.00625877	2662248
18481.5	0.00606738	2661666
18490.4	0.00590139	2661317
18501.2	0.00569857	2660935
18510.1	0.00552745	2660766
18520.8	0.00532075	2660390
18531.5	0.00511375	2660020
18540.5	0.00494187	2659726
18551.2	0.00473734	2659298
18560.1	0.00456902	2659000
18570.9	0.00437038	2658637
18581.6	0.0041762	2658167
18590.5	0.00401829	2657801
18601.2	0.00383404	2657403
18610.2	0.0036852	2657053
18620.9	0.00351258	2656773
18631.6	0.00334677	2656523
18640.5	0.00321393	2656341
18651.2	0.00306189	2656285
18661.5	0.00292137	2656063
18670.4	0.00280607	2655763
18681.1	0.00267274	2655499
18691.8	0.00254597	2655317
18700.7	0.0024451	2655175
18711.4	0.0023293	2654961
18720.3	0.00223706	2654817
18731.1	0.00213117	2654554
18741.8	0.00203012	2654470
18750.7	0.00194932	2654425
18761.4	0.00185609	2654283
18770.4	0.00178128	2654198
18781.1	0.00169483	2654041
18791.8	0.00161156	2653947
18800.7	0.00154445	2653835
18811.2	0.00146774	2653611
18821.7	0.00139401	2653470
18830.5	0.0013347	2653252
18841	0.0012662	2653188
18851.5	0.00120087	2653141
18860.1	0.0011497	2653025
18870.5	0.00109184	2652897
18880.9	0.00103838	2652901
18891.3	0.000989997	2652663
18901.7	0.000947258	2652483
18910.4	0.000916692	2652327
18920.9	0.000887269	2652094
18931.2	0.000867235	2652081
18941.5	0.000857037	2651915
18950.2	0.000857057	2651739
18960.7	0.000868911	2651437
18971.1	0.000894809	2651273
18981.4	0.000935893	2651019
18991.6	0.000993768	2650829
19000.2	0.00105629	2650726
19010.6	0.00115113	2650432
19021.1	0.00126902	2650166
19031.6	0.00141133	2649944
19040.3	0.00154988	2649800
19050.8	0.00174168	2649526
19061.3	0.001963	2649342
19070	0.00217126	2649188
19080.5	0.0024512	2649000
19091	0.00276543	2648922
19101.5	0.00311549	2648852
19110.2	0.00343561	2648781
19120.6	0.00384972	2648691
19130.9	0.0043018	2648516
19141.3	0.00479569	2648462
19150	0.00524248	2648434
19160.5	0.00581729	2648226
19171	0.00643487	2648126
19181.5	0.00709563	2647977
19190.2	0.00767943	2648007
19200.6	0.00841357	2648069
19210.9	0.00918702	2648053
19221.4	0.0100074	2648133
19230.1	0.0107278	2648096
19240.6	0.0116307	2648089
19251.1	0.0125745	2648087
19261.4	0.0135475	2648028
19270	0.0143826	2648073
19280.3	0.0154175	2647883
19290.7	0.0164865	2647741
19301	0.0175877	2647653
19311.3	0.0187189	2647564
19321.6	0.0198779	2647526
19330	0.0208394	2647360
19340.1	0.0220119	2647292
19350.1	0.0232035	2647113
19360.2	0.0244114	2647016
19370.4	0.0256556	2646816
19380.9	0.02693	2646644
19391.3	0.0282119	2646354
19401.7	0.0294964	2646172
19410.2	0.0305533	2645935
19420.5	0.0318143	2645762
19430.8	0.0330736	2645640
19441.2	0.0343328	2645388
19451.5	0.0355667	2645366
19461.6	0.0367537	2645365
19470.3	0.0377566	2645239
19480.7	0.0389327	2645051
19491	0.0400631	2645067
19501	0.0411382	2644959
19511.1	0.0421688	2644781
19521.1	0.0431591	2644843
19531.1	0.0441046	2644971
19541.1	0.0450047	2644869
19551.1	0.0458551	2644958
19561.2	0.0466609	2645006
19571.4	0.0474177	2645052
19581.7	0.048114	2645126
19590.2	0.0486462	2645282
19600.4	0.0492254	2645496
19610.7	0.0497424	2645688
19621.1	0.0501932	2645844
19631.6	0.0505712	2645994
19640.2	0.0508296	2646024
19650.6	0.0510707	2646292
19661.1	0.0512359	2646650
19671.5	0.0513248	2646976
19680.1	0.0513403	2647176
19690.4	0.0512904	2647251
19700.8	0.0511642	2647311
19711.1	0.0509655	2647303
19721.3	0.0506937	2647325
19731.7	0.0503494	2647393
19740.2	0.0500085	2647421
19750.6	0.0495361	2647638
19760.9	0.0489964	2647561
19771.2	0.0483915	2647644
19781.4	0.0477286	2647804
19791.3	0.0470325	2647880
19801.4	0.0462625	2647991
19811.7	0.0454312	2648044
19820.3	0.0446922	2647919
19830.7	0.0437552	2647811
19841.1	0.0427721	2647781
19851.5	0.0417464	2647765
19860.2	0.040862	2647825
19870.6	0.0397684	2647790
19881	0.0386431	2647844
19891.3	0.0375005	2648018
19901.2	0.0363856	2648012
19911.1	0.0352444	2648037
19921.6	0.034034	2648128
19930.2	0.0330159	2648036
19940.6	0.0317861	2648004
19951	0.030551	2647980
19961.4	0.0293144	2647847
19970.1	0.0282852	2647758
19980.2	0.027093	2647694
19990	0.0259396	2647628
