0	0
14.5977	0
21.8966	0
36.4944	0
43.7932	0
51.0921	0
65.6898	0
72.9887	0
80.2876	0
94.8853	0
102.184	0
116.782	0
124.081	0
131.38	0
145.977	0
153.276	0
160.575	0
175.173	0
182.472	0
197.069	0
204.368	0
211.667	0
226.265	0
233.564	0
240.863	0
255.46	0
262.759	0
270.058	0
284.656	0
291.955	0
306.553	0
313.851	0
321.15	0
335.748	0
343.047	0
350.346	0
364.944	0
372.242	0
386.84	0
394.139	0
401.438	0
416.036	0
423.334	0
430.633	0
445.231	0
452.53	0
467.128	0
474.427	0
481.725	0
496.323	0
503.622	0
510.921	0
525.519	0
532.818	0
540.116	0
554.714	0
562.013	0
576.611	0
583.91	0
591.208	0
605.806	0
613.105	0
620.404	0
635.002	0
642.301	0
656.898	0
664.197	0
671.496	0
686.094	0
693.393	0
700.692	0
715.289	0
722.588	0
737.186	0
744.485	0
751.784	0
766.381	0
773.68	0
780.979	0
795.577	0
802.876	0
810.175	0
824.772	0
832.071	0
846.669	0
853.968	0
861.267	0
875.864	0
883.163	0
890.462	0
905.06	0
912.359	0
926.956	0
934.255	0
941.554	0
956.152	0
963.451	0
970.75	0
985.347	0
992.646	0
1007.24	0
1014.54	0
1021.84	0
1036.44	0
1043.74	0
1051.04	0
1065.64	0
1072.93	0
1080.23	0
1094.83	0
1102.13	0
1116.73	0
1124.03	0
1131.32	0
1145.92	0
1153.22	0
1160.52	0
1175.12	0
1182.42	0
1197.01	0
1204.31	0
1211.61	0
1226.21	0
1233.51	0
1240.81	0
1255.41	0
1262.7	0
1270	0
1284.6	0
1291.9	0
1306.5	0
1313.8	0
1321.1	0
1335.69	0
1342.99	0
1350.29	0
1364.89	0
1372.19	0
1386.79	0
1394.08	0
1401.38	0
1415.98	0
1423.28	0
1430.58	0
1445.18	0
1452.47	0
1467.07	0
1474.37	0
1481.67	0
1496.27	0
1503.57	0
1510.87	0
1525.46	0
1532.76	0
1540.06	0
1554.66	0
1561.96	0
1576.56	0
1583.85	0
1591.15	0
1605.75	0
1613.05	0
1620.35	0
1634.95	0
1642.25	0
1656.84	0
1664.14	0
1671.44	0
1686.04	0
1693.34	0
1700.64	0
1715.23	0
1722.53	0
1737.13	0
1744.43	0
1751.73	0
1766.33	0
1773.62	0
1780.92	0
1795.52	0
1802.82	0
1810.12	0
1824.72	0
1832.01	0
1846.61	0
1853.91	0
1861.21	0
1875.81	0
1883.11	0
1890.4	0
1905	0
1912.3	0
1926.9	0
1934.2	0
1941.5	0
1956.09	0
1963.39	0
1970.69	0
1985.29	0
1992.59	0
2007.18	0
2014.48	0
2021.78	0
2036.38	0
2043.68	0
2050.98	0
2065.57	0
2072.87	0
2080.17	0
2094.77	0
2102.07	0
2116.67	0
2123.96	0
2131.26	0
2145.86	0
2153.16	0
2160.46	0
2175.05	0
2182.35	0
2196.95	0
2204.25	0
2211.55	0
2226.14	0
2233.44	0
2240.74	0
2255.34	0
2262.64	0
2277.24	0
2284.53	0
2291.83	0
2306.43	0
2313.73	0
2321.03	0
2335.62	0
2342.92	0
2350.22	0
2364.82	0
2372.12	0
2386.71	0
2394.01	0
2401.31	0
2415.91	0
2423.21	0
2430.5	0
2445.1	0
2452.4	0
2467	0
2474.3	0
2481.59	0
2496.19	0
2503.49	0
2510.79	0
2525.38	0
2532.68	0
2547.28	0
2554.58	0
2561.88	0
2576.47	0
2583.77	0
2591.07	9.09495e-13
2605.67	1.81899e-12
2612.97	2.72848e-12
2620.26	3.63798e-12
2634.86	7.27596e-12
2642.16	1.00044e-11
2656.76	2.00089e-11
2664.06	2.81943e-11
2671.35	3.91083e-11
2685.95	7.36691e-11
2693.25	1.00954e-10
2700.55	1.37334e-10
2715.14	2.5193e-10
2722.44	3.38332e-10
2737.04	6.02995e-10
2744.34	8.00355e-10
2751.64	1.05683e-09
2766.23	1.82263e-09
2773.53	2.38015e-09
2780.83	3.09592e-09
2795.43	5.17866e-09
2802.73	6.66114e-09
2810.02	8.53561e-09
2824.62	1.38671e-08
2831.92	1.75814e-08
2846.52	2.79624e-08
2853.82	3.50828e-08
2861.11	4.38667e-08
2875.71	6.78965e-08
2883.01	8.40537e-08
2890.31	1.03717e-07
2904.91	1.56409e-07
2912.2	1.91166e-07
2926.8	2.82919e-07
2934.1	3.42607e-07
2941.4	4.13639e-07
2956	5.97589e-07
2963.29	7.15133e-07
2970.59	8.53333e-07
2985.19	1.20471e-06
2992.49	1.42541e-06
3007.09	1.97914e-06
3014.39	2.32265e-06
3021.68	2.71851e-06
3036.28	3.69493e-06
3043.58	4.29101e-06
3050.88	4.97058e-06
3065.48	6.61963e-06
3072.77	7.61094e-06
3080.07	8.72945e-06
3094.67	1.14016e-05
3101.97	1.29843e-05
3116.57	1.6723e-05
3123.87	1.89139e-05
3131.16	2.13439e-05
3145.76	2.70017e-05
3153.06	3.02717e-05
3160.36	3.38655e-05
3174.96	4.21175e-05
3182.26	4.68242e-05
3196.85	5.75244e-05
3204.15	6.35694e-05
3211.45	7.01124e-05
3226.05	8.47977e-05
3233.35	9.29927e-05
3240.65	0.000101791
3255.25	0.000121297
3262.54	0.000132055
3277.14	0.000155698
3284.44	0.000168627
3291.74	0.000182323
3306.34	0.000212087
3313.64	0.000228189
3320.94	0.000245124
3335.53	0.000281542
3342.83	0.000301044
3350.13	0.000321418
3364.73	0.000364798
3372.03	0.000387808
3386.62	0.000436464
3393.92	0.000462101
3401.22	0.000488604
3415.82	0.000544169
3423.12	0.00057321
3430.42	0.000603075
3445.02	0.000665218
3452.31	0.000697467
3466.91	0.000764244
3474.21	0.000798739
3481.51	0.000833952
3496.11	0.00090647
3503.41	0.000943748
3510.7	0.000981689
3525.3	0.00105952
3532.6	0.0010994
3547.2	0.00118107
3554.5	0.00122286
3561.8	0.0012653
3576.39	0.00135218
3583.69	0.00139665
3590.99	0.00144185
3605.59	0.00153456
3612.89	0.00158217
3620.19	0.00163069
3634.78	0.00173074
3642.08	0.00178244
3656.68	0.00188972
3663.98	0.00194556
3671.28	0.00200306
3685.88	0.0021238
3693.18	0.00218746
3700.47	0.00225365
3715.07	0.00239479
3722.37	0.00247042
3736.97	0.00263387
3744.27	0.00272266
3751.57	0.00281688
3766.16	0.00302427
3773.46	0.00313894
3780.76	0.00326205
3795.36	0.00353759
3802.66	0.00369228
3817.26	0.004042
3824.55	0.00424006
3831.85	0.00445583
3846.45	0.00494827
3853.75	0.00522926
3861.05	0.00553664
3875.65	0.00624146
3882.94	0.0066449
3890.24	0.00708678
3904.84	0.00810063
3912.14	0.00868068
3926.74	0.0100094
3934.04	0.0107679
3941.33	0.0115963
3955.93	0.0134859
3963.23	0.0145595
3970.53	0.0157278
3985.13	0.0183768
3992.43	0.0198726
4007.02	0.0232466
4014.32	0.0251415
4021.62	0.0271868
4036.22	0.0317646
4043.52	0.0343159
4050.82	0.0370548
4065.41	0.0431346
4072.71	0.0464951
4080.01	0.0500824
4094.61	0.0579764
4101.91	0.0623022
4116.51	0.0717576
4123.81	0.0769048
4131.1	0.0823427
4145.7	0.0941206
4153	0.100474
4160.3	0.107146
4174.9	0.121461
4182.2	0.129112
4196.79	0.145413
4204.09	0.154064
4211.39	0.163047
4225.99	0.182001
4233.29	0.191962
4240.59	0.202239
4255.18	0.223706
4262.48	0.234875
4277.08	0.258026
4284.38	0.269978
4291.68	0.28216
4306.28	0.307137
4313.57	0.319891
4320.87	0.332793
4335.47	0.358943
4342.77	0.372139
4350.07	0.385379
4364.67	0.411877
4371.97	0.425075
4386.56	0.45121
4393.86	0.464082
4401.16	0.476781
4415.76	0.501523
4423.06	0.513499
4430.36	0.525166
4444.95	0.547441
4452.25	0.557983
4466.85	0.577715
4474.15	0.586842
4481.45	0.595438
4496.05	0.610919
4503.34	0.617751
4510.64	0.623944
4525.24	0.63432
4532.54	0.638463
4547.14	0.644564
4554.44	0.646492
4561.74	0.647654
4576.33	0.64764
4583.63	0.646449
4590.93	0.644462
4605.53	0.638091
4612.83	0.633709
4620.13	0.628533
4634.72	0.615825
4642.02	0.608309
4656.62	0.591013
4663.92	0.581261
4671.22	0.570795
4685.82	0.547794
4693.11	0.535301
4700.41	0.522176
4715.01	0.494128
4722.31	0.479256
4736.91	0.447955
4744.21	0.431583
4751.5	0.414771
4766.1	0.379944
4773.4	0.361993
4780.7	0.343726
4795.3	0.306374
4802.6	0.287353
4817.19	0.248785
4824.49	0.229303
4831.79	0.20973
4846.39	0.170443
4853.69	0.150791
4860.99	0.131173
4875.59	0.0921595
4882.88	0.072822
4890.18	0.0536344
4904.78	0.0158164
4912.08	-0.00276257
4926.68	-0.0391385
4933.98	-0.0568893
4941.27	-0.0743198
4955.87	-0.108138
4963.17	-0.124489
4970.47	-0.140443
4985.07	-0.171098
4992.37	-0.185769
5006.96	-0.213736
5014.26	-0.227008
5021.56	-0.239793
5036.16	-0.263867
5043.46	-0.275142
5050.76	-0.285902
5065.35	-0.305858
5072.65	-0.315049
5087.25	-0.33185
5094.55	-0.33946
5101.85	-0.346545
5116.45	-0.35915
5123.75	-0.364678
5131.04	-0.369696
5145.64	-0.378226
5152.94	-0.381751
5160.24	-0.384794
5174.84	-0.389468
5182.14	-0.391118
5196.73	-0.393098
5204.03	-0.39345
5211.33	-0.393392
5225.93	-0.392099
5233.23	-0.390888
5240.53	-0.38932
5255.12	-0.385166
5262.42	-0.382608
5277.02	-0.376601
5284.32	-0.373181
5291.62	-0.369503
5306.22	-0.361432
5313.52	-0.357068
5320.81	-0.352505
5335.41	-0.342837
5342.71	-0.337761
5350.01	-0.332542
5364.61	-0.321733
5371.91	-0.316169
5386.5	-0.304789
5393.8	-0.298998
5401.1	-0.293155
5415.7	-0.281365
5423	-0.27544
5430.3	-0.269509
5444.89	-0.257672
5452.19	-0.251786
5466.79	-0.240124
5474.09	-0.234365
5481.39	-0.228666
5495.99	-0.217475
5503.29	-0.211997
5510.58	-0.206607
5525.18	-0.196111
5532.48	-0.191017
5547.08	-0.181159
5554.38	-0.176404
5561.68	-0.171769
5576.27	-0.162876
5583.57	-0.158623
5590.87	-0.154501
5605.47	-0.146662
5612.77	-0.142946
5620.07	-0.139368
5634.66	-0.132628
5641.96	-0.129467
5656.56	-0.123559
5663.86	-0.120812
5671.16	-0.118202
5685.76	-0.113389
5693.06	-0.111182
5700.35	-0.109107
5714.95	-0.105343
5722.25	-0.10365
5736.85	-0.100629
5744.15	-0.0992968
5751.45	-0.0980791
5766.04	-0.0959761
5773.34	-0.0950845
5780.64	-0.0942954
5795.24	-0.0930104
5802.54	-0.0925076
5817.14	-0.0917634
5824.44	-0.0915145
5831.73	-0.0913427
5846.33	-0.0912149
5853.63	-0.0912509
5860.93	-0.0913484
5875.53	-0.0917116
5882.83	-0.0919692
5890.12	-0.0922721
5904.72	-0.0929978
5912.02	-0.0934124
5926.62	-0.0943255
5933.92	-0.094816
5941.22	-0.0953238
5955.81	-0.0963763
5963.11	-0.0969134
5970.41	-0.0974527
5985.01	-0.0985235
5992.31	-0.099048
6006.91	-0.100058
6014.2	-0.100537
6021.5	-0.100995
6036.1	-0.101833
6043.4	-0.102208
6050.7	-0.10255
6065.3	-0.103126
6072.6	-0.103354
6087.19	-0.103681
6094.49	-0.103775
6101.79	-0.103822
6116.39	-0.103763
6123.69	-0.103655
6130.99	-0.103494
6145.58	-0.103004
6152.88	-0.102674
6160.18	-0.102287
6174.78	-0.101338
6182.08	-0.100776
6196.67	-0.0994756
6203.97	-0.098738
6211.27	-0.0979423
6225.87	-0.0961787
6233.17	-0.095212
6240.47	-0.0941899
6255.06	-0.0919831
6262.36	-0.0908006
6276.96	-0.0882836
6284.26	-0.0869519
6291.56	-0.0855734
6306.16	-0.0826827
6313.45	-0.0811739
6320.75	-0.0796252
6335.35	-0.0764159
6342.65	-0.0747591
6357.25	-0.0713517
6364.55	-0.0696053
6371.84	-0.0678332
6386.44	-0.064221
6393.74	-0.0623852
6401.04	-0.0605326
6415.64	-0.0567859
6422.94	-0.0548963
6430.23	-0.0529989
6444.83	-0.0491892
6452.13	-0.0472814
6466.73	-0.0434708
6474.03	-0.0415722
6481.33	-0.0396809
6495.92	-0.0359284
6503.22	-0.0340712
6510.52	-0.0322293
6525.12	-0.028599
6532.42	-0.0268143
6547.02	-0.0233147
6554.31	-0.0216032
6561.61	-0.0199194
6576.21	-0.0166411
6583.51	-0.0150497
6590.81	-0.0134919
6605.41	-0.0104827
6612.7	-0.00903388
6620	-0.0076238
6634.6	-0.0049244
6641.9	-0.00363716
6656.5	-0.00119234
6663.8	-3.64967e-05
6671.09	0.00107392
6685.69	0.00315568
6692.99	0.00412579
6700.29	0.00504797
6714.89	0.00674676
6722.19	0.00752261
6736.78	0.00892579
6744.08	0.00955272
6751.38	0.0101297
6765.98	0.0111338
6773.28	0.0115611
6780.58	0.0119385
6795.17	0.0125452
6802.47	0.0127749
6817.07	0.0130891
6824.37	0.0131746
6831.67	0.013213
6846.26	0.0131511
6853.56	0.0130523
6860.86	0.0129092
6875.46	0.0124938
6882.76	0.0122233
6890.06	0.0119122
6904.66	0.0111729
6911.95	0.0107468
6926.55	0.00978787
6933.85	0.00925757
6941.15	0.00869515
6955.75	0.00747952
6963.05	0.00682918
6970.34	0.00615247
6984.94	0.0047261
6992.24	0.00397958
7006.84	0.00242798
7014.14	0.00162622
7021.44	0.000809386
7036.03	-0.000862607
7043.33	-0.0017143
7050.63	-0.00257412
7065.23	-0.00431106
7072.53	-0.00518464
7087.13	-0.00693307
7094.42	-0.00780436
7101.72	-0.00867133
7116.32	-0.0103852
7123.62	-0.0112286
7130.92	-0.0120606
7145.52	-0.0136837
7152.82	-0.0144714
7160.11	-0.0152409
7174.71	-0.0167189
7182.01	-0.0174242
7196.61	-0.0187595
7203.91	-0.0193865
7211.21	-0.0199845
7225.8	-0.0210876
7233.1	-0.0215901
7240.4	-0.0220581
7255	-0.0228856
7262.3	-0.0232428
7276.9	-0.0238385
7284.19	-0.0240749
7291.49	-0.0242691
7306.09	-0.0245273
7313.39	-0.0245897
7320.69	-0.0246066
7335.29	-0.0245015
7342.59	-0.0243783
7357.18	-0.0239883
7364.48	-0.0237207
7371.78	-0.0234042
7386.38	-0.0226242
7393.68	-0.0221603
7400.98	-0.0216471
7415.57	-0.0204732
7422.87	-0.0198127
7430.17	-0.0191034
7444.77	-0.0175402
7452.07	-0.0166869
7466.67	-0.0148398
7473.97	-0.0138472
7481.26	-0.0128093
7495.86	-0.0106013
7503.16	-0.0094329
7510.46	-0.00822272
7525.06	-0.00568128
7532.36	-0.0043522
7546.95	-0.00158318
7554.25	-0.000145744
7561.55	0.00132522
7576.15	0.0043622
7583.45	0.00592533
7590.75	0.00751625
7605.34	0.0107752
7612.64	0.0124401
7627.24	0.0158325
7634.54	0.0175566
7641.84	0.019297
7656.44	0.0228201
7663.74	0.0245992
7671.03	0.0263876
7685.63	0.0299853
7692.93	0.031791
7700.23	0.0335989
7714.83	0.0372142
7722.13	0.039018
7736.72	0.0426093
7744.02	0.0443933
7751.32	0.0461672
7765.92	0.0496784
7773.22	0.0514124
7780.52	0.0531298
7795.11	0.0565088
7802.41	0.0581674
7817.01	0.0614157
7824.31	0.0630026
7831.61	0.064563
7846.21	0.0675992
7853.51	0.0690727
7860.8	0.0705149
7875.4	0.0733014
7882.7	0.0746438
7897.3	0.0772226
7904.6	0.0784573
7911.9	0.0796547
7926.49	0.0819348
7933.79	0.0830164
7941.09	0.0840583
7955.69	0.0860216
7962.99	0.0869424
7970.29	0.0878221
7984.88	0.0894578
7992.18	0.0902136
8006.78	0.0916007
8014.08	0.092232
8021.38	0.092822
8035.98	0.0938785
8043.28	0.0943454
8050.57	0.0947718
8065.17	0.0955042
8072.47	0.0958109
8087.07	0.0963074
8094.37	0.096498
8101.67	0.0966509
8116.26	0.0968455
8123.56	0.0968883
8130.86	0.0968955
8145.46	0.0968058
8152.76	0.09671
8160.06	0.0965811
8174.65	0.0962267
8181.95	0.0960025
8196.55	0.0954635
8203.85	0.0951501
8211.15	0.0948082
8225.75	0.094042
8233.05	0.093619
8240.34	0.0931703
8254.94	0.0921986
8262.24	0.0916768
8276.84	0.0905648
8284.14	0.0899758
8291.44	0.0893657
8306.03	0.0880844
8313.33	0.0874143
8320.63	0.0867255
8335.23	0.0852938
8342.53	0.0845519
8357.13	0.0830187
8364.42	0.0822284
8371.72	0.0814228
8386.32	0.079768
8393.62	0.0789196
8400.92	0.0780577
8415.52	0.076295
8422.82	0.075395
8430.11	0.0744829
8444.71	0.0726241
8452.01	0.0716779
8466.61	0.0697533
8473.91	0.0687754
8481.21	0.0677874
8495.8	0.0657822
8503.1	0.0647653
8510.4	0.0637391
8525	0.0616596
8532.3	0.0606066
8546.9	0.0584746
8554.19	0.0573958
8561.49	0.0563088
8576.09	0.05411
8583.39	0.0529984
8590.69	0.0518789
8605.29	0.0496161
8612.59	0.0484729
8627.18	0.0461635
8634.48	0.0449973
8641.78	0.0438236
8656.38	0.0414536
8663.68	0.0402576
8670.98	0.0390542
8685.57	0.0366257
8692.87	0.0354009
8700.17	0.034169
8714.77	0.0316847
8722.07	0.0304324
8736.67	0.0279084
8743.97	0.026637
8751.26	0.0253594
8765.86	0.0227868
8773.16	0.021492
8780.46	0.020192
8795.06	0.0175769
8802.36	0.0162624
8816.95	0.0136208
8824.25	0.0122943
8831.55	0.0109645
8846.15	0.00829638
8853.45	0.00695877
8860.75	0.00561935
8875.35	0.00293674
8882.64	0.00159446
8897.24	-0.00108971
8904.54	-0.00243059
8911.84	-0.00376999
8926.44	-0.00644216
8933.74	-0.00777382
8941.03	-0.00910176
8955.63	-0.0117441
8962.93	-0.0130573
8970.23	-0.0143643
8984.83	-0.0169574
8992.13	-0.0182421
9006.72	-0.0207848
9014.02	-0.0220414
9021.32	-0.0232872
9035.92	-0.0257441
9043.22	-0.0269538
9050.52	-0.0281501
9065.12	-0.0304999
9072.41	-0.0316521
9087.01	-0.0339078
9094.31	-0.03501
9101.61	-0.0360943
9116.21	-0.0382069
9123.51	-0.0392339
9130.81	-0.0402407
9145.4	-0.0421912
9152.7	-0.043134
9160	-0.0440544
9174.6	-0.0458263
9181.9	-0.0466769
9196.5	-0.0483053
9203.79	-0.0490824
9211.09	-0.0498343
9225.69	-0.0512612
9232.99	-0.0519357
9240.29	-0.0525839
9254.89	-0.0538007
9262.19	-0.054369
9276.78	-0.0554248
9284.08	-0.0559121
9291.38	-0.0563724
9305.98	-0.0572119
9313.28	-0.0575911
9320.58	-0.0579436
9335.17	-0.0585684
9342.47	-0.0588411
9357.07	-0.0593084
9364.37	-0.0595034
9371.67	-0.0596731
9386.27	-0.0599377
9393.57	-0.0600335
9400.86	-0.0601053
9415.46	-0.0601792
9422.76	-0.0601821
9430.06	-0.060163
9444.66	-0.0600609
9451.96	-0.0599789
9466.55	-0.0597562
9473.85	-0.0596166
9481.15	-0.059459
9495.75	-0.0590925
9503.05	-0.0588848
9510.35	-0.0586618
9524.94	-0.0581723
9532.24	-0.0579073
9546.84	-0.0573401
9554.14	-0.0570393
9561.44	-0.0567281
9576.04	-0.0560769
9583.34	-0.0557385
9590.63	-0.0553923
9605.23	-0.0546797
9612.53	-0.0543146
9627.13	-0.0535703
9634.43	-0.0531924
9641.73	-0.0528115
9656.32	-0.0520434
9663.62	-0.0516573
9670.92	-0.0512707
9685.52	-0.0504982
9692.82	-0.0501135
9700.12	-0.0497303
9714.71	-0.0489711
9722.01	-0.048596
9736.61	-0.047857
9743.91	-0.0474939
9751.21	-0.0471356
9765.81	-0.0464349
9773.11	-0.0460932
9780.4	-0.0457577
9795	-0.0451062
9802.3	-0.0447908
9816.9	-0.0441817
9824.2	-0.0438884
9831.5	-0.0436029
9846.09	-0.0430554
9853.39	-0.0427938
9860.69	-0.0425403
9875.29	-0.0420582
9882.59	-0.0418296
9897.19	-0.0413973
9904.48	-0.0411937
9911.78	-0.0409984
9926.38	-0.0406323
9933.68	-0.0404615
9940.98	-0.0402988
9955.58	-0.0399969
9962.88	-0.0398576
9970.17	-0.0397259
9984.77	-0.0394848
9992.07	-0.039375
10006.7	-0.0391765
10014	-0.0390873
10021.3	-0.0390047
10035.9	-0.0388583
10043.2	-0.0387943
10050.5	-0.038736
10065.1	-0.0386363
10072.4	-0.0385945
10087	-0.038526
10094.3	-0.038499
10101.6	-0.0384766
10116.2	-0.0384448
10123.4	-0.0384351
10130.7	-0.0384293
10145.3	-0.0384289
10152.6	-0.038434
10167.2	-0.038454
10174.5	-0.0384686
10181.8	-0.0384861
10196.4	-0.0385295
10203.7	-0.0385551
10211	-0.0385832
10225.6	-0.0386464
10232.9	-0.0386813
10240.2	-0.0387183
10254.8	-0.0387984
10262.1	-0.0388414
10276.7	-0.0389328
10284	-0.0389812
10291.3	-0.0390312
10305.9	-0.0391363
10313.2	-0.0391913
10320.5	-0.0392479
10335.1	-0.0393657
10342.4	-0.0394269
10357	-0.0395539
10364.3	-0.0396196
10371.6	-0.0396869
10386.2	-0.0398259
10393.5	-0.0398977
10400.8	-0.039971
10415.4	-0.0401221
10422.7	-0.0402
10430	-0.0402793
10444.6	-0.0404426
10451.9	-0.0405265
10466.5	-0.0406988
10473.8	-0.0407872
10481.1	-0.0408771
10495.7	-0.0410613
10503	-0.0411555
10510.3	-0.0412512
10524.9	-0.0414466
10532.2	-0.0415463
10546.8	-0.0417495
10554.1	-0.0418528
10561.4	-0.0419573
10576	-0.0421693
10583.3	-0.0422767
10590.6	-0.0423849
10605.2	-0.0426035
10612.5	-0.0427137
10627.1	-0.0429352
10634.4	-0.0430463
10641.7	-0.0431576
10656.3	-0.0433798
10663.6	-0.0434905
10670.9	-0.0436007
10685.5	-0.0438192
10692.8	-0.0439271
10700.1	-0.0440339
10714.7	-0.0442433
10722	-0.0443456
10736.6	-0.0445445
10743.8	-0.0446406
10751.1	-0.0447342
10765.7	-0.0449131
10773	-0.044998
10780.3	-0.0450795
10794.9	-0.0452314
10802.2	-0.0453013
10816.8	-0.045428
10824.1	-0.0454843
10831.4	-0.0455355
10846	-0.0456216
10853.3	-0.0456561
10860.6	-0.0456844
10875.2	-0.0457219
10882.5	-0.0457304
10897.1	-0.0457259
10904.4	-0.0457123
10911.7	-0.0456909
10926.3	-0.0456232
10933.6	-0.0455765
10940.9	-0.0455209
10955.5	-0.0453819
10962.8	-0.0452981
10970.1	-0.0452044
10984.7	-0.0449864
10992	-0.0448617
11006.6	-0.0445796
11013.9	-0.0444218
11021.2	-0.0442526
11035.8	-0.043879
11043.1	-0.0436744
11050.4	-0.0434575
11065	-0.0429864
11072.3	-0.042732
11086.9	-0.0421843
11094.2	-0.0418909
11101.5	-0.0415842
11116.1	-0.0409306
11123.4	-0.0405835
11130.7	-0.0402227
11145.3	-0.0394598
11152.6	-0.0390575
11167.2	-0.0382112
11174.5	-0.037767
11181.8	-0.0373087
11196.4	-0.0363501
11203.7	-0.0358497
11211	-0.0353353
11225.6	-0.0342645
11232.9	-0.0337083
11240.2	-0.0331382
11254.8	-0.0319568
11262.1	-0.0313457
11276.7	-0.0300831
11284	-0.0294319
11291.3	-0.0287676
11305.9	-0.0274004
11313.2	-0.0266977
11320.5	-0.0259827
11335.1	-0.024516
11342.4	-0.0237649
11357	-0.022228
11364.3	-0.0214428
11371.5	-0.0206466
11386.1	-0.0190229
11393.4	-0.0181957
11400.7	-0.0173589
11415.3	-0.015657
11422.6	-0.0147926
11437.2	-0.0130387
11444.5	-0.0121498
11451.8	-0.0112534
11466.4	-0.00943944
11473.7	-0.00852267
11481	-0.00759985
11495.6	-0.00573762
11502.9	-0.00479897
11510.2	-0.00385583
11524.8	-0.0019577
11532.1	-0.00100351
11546.7	0.000913025
11554	0.00187454
11561.3	0.00283765
11575.9	0.00476698
11583.2	0.00573235
11590.5	0.0066976
11605.1	0.00862606
11612.4	0.00958841
11627	0.0115072
11634.3	0.0124628
11641.6	0.0134152
11656.2	0.0153092
11663.5	0.0162498
11670.8	0.0171856
11685.4	0.0190412
11692.7	0.0199603
11707.3	0.0217787
11714.6	0.0226774
11721.9	0.0235685
11736.5	0.0253267
11743.8	0.026193
11751.1	0.0270503
11765.7	0.0287367
11773	0.0295651
11780.3	0.0303833
11794.9	0.0319877
11802.2	0.0327733
11816.8	0.0343102
11824.1	0.0350609
11831.4	0.0357996
11846	0.0372397
11853.3	0.0379408
11860.6	0.038629
11875.2	0.0399663
11882.5	0.040615
11897.1	0.0418721
11904.4	0.0424802
11911.7	0.0430747
11926.3	0.0442224
11933.6	0.0447755
11940.9	0.0453148
11955.5	0.046352
11962.8	0.0468499
11970.1	0.0473341
11984.7	0.0482617
11992	0.0487052
12006.6	0.0495521
12013.8	0.0499559
12021.1	0.0503466
12035.7	0.0510898
12043	0.0514426
12050.3	0.0517831
12064.9	0.0524283
12072.2	0.0527333
12086.8	0.0533094
12094.1	0.0535811
12101.4	0.0538421
12116	0.0543335
12123.3	0.0545643
12130.6	0.0547857
12145.2	0.0552013
12152.5	0.0553961
12167.1	0.0557611
12174.4	0.055932
12181.7	0.0560955
12196.3	0.0564019
12203.6	0.0565453
12210.9	0.0566826
12225.5	0.0569402
12232.8	0.0570611
12240.1	0.057177
12254.7	0.0573954
12262	0.0574984
12276.6	0.0576932
12283.9	0.0577855
12291.2	0.0578748
12305.8	0.0580452
12313.1	0.0581267
12320.4	0.058206
12335	0.0583587
12342.3	0.0584324
12356.9	0.0585754
12364.2	0.0586449
12371.5	0.0587131
12386.1	0.0588464
12393.4	0.0589116
12400.7	0.0589758
12415.3	0.0591015
12422.6	0.059163
12437.2	0.0592832
12444.5	0.0593418
12451.8	0.0593994
12466.4	0.0595108
12473.7	0.0595646
12481	0.0596169
12495.6	0.0597164
12502.9	0.0597634
12510.2	0.0598082
12524.8	0.0598907
12532.1	0.0599279
12546.7	0.0599933
12554	0.060021
12561.3	0.060045
12575.9	0.0600807
12583.2	0.060092
12590.5	0.0600984
12605.1	0.0600957
12612.4	0.0600859
12627	0.0600479
12634.3	0.0600191
12641.6	0.0599833
12656.1	0.0598895
12663.4	0.0598308
12670.7	0.0597639
12685.3	0.0596039
12692.6	0.0595103
12707.2	0.0592941
12714.5	0.0591709
12721.8	0.0590373
12736.4	0.0587377
12743.7	0.058571
12751	0.0583928
12765.6	0.0580007
12772.9	0.0577862
12780.2	0.0575593
12794.8	0.0570668
12802.1	0.0568009
12816.7	0.0562289
12824	0.0559224
12831.3	0.0556021
12845.9	0.0549195
12853.2	0.054557
12860.5	0.0541802
12875.1	0.0533834
12882.4	0.0529634
12897	0.05208
12904.3	0.0516165
12911.6	0.0511385
12926.2	0.0501394
12933.5	0.0496183
12940.8	0.049083
12955.4	0.04797
12962.7	0.0473926
12977.3	0.0461967
12984.6	0.0455785
12991.9	0.0449471
13006.5	0.0436452
13013.8	0.0429753
13021.1	0.042293
13035.7	0.0408923
13043	0.0401745
13050.3	0.0394454
13064.9	0.0379546
13072.2	0.0371936
13086.8	0.0356417
13094.1	0.0348517
13101.4	0.0340526
13116	0.0324292
13123.3	0.0316056
13130.6	0.0307745
13145.2	0.0290916
13152.5	0.0282405
13167.1	0.0265214
13174.4	0.025654
13181.7	0.0247821
13196.3	0.0230262
13203.6	0.022143
13210.9	0.0212569
13225.5	0.0194777
13232.8	0.0185854
13240.1	0.0176918
13254.7	0.0159026
13262	0.0150078
13276.6	0.0132197
13283.9	0.0123272
13291.1	0.0114364
13305.7	0.00966082
13313	0.00877692
13320.3	0.00789607
13334.9	0.00614498
13342.2	0.00527541
13356.8	0.00354987
13364.1	0.00269454
13371.4	0.00184458
13386	0.000161905
13393.3	-0.000670247
13400.6	-0.00149592
13415.2	-0.00312684
13422.5	-0.00393161
13437.1	-0.00551867
13444.4	-0.00630054
13451.7	-0.0070744
13466.3	-0.00859733
13473.6	-0.00934609
13480.9	-0.0100862
13495.5	-0.0115398
13502.8	-0.0122531
13510.1	-0.0129573
13524.7	-0.0143378
13532	-0.015014
13546.6	-0.016338
13553.9	-0.0169856
13561.2	-0.0176237
13575.8	-0.0188709
13583.1	-0.01948
13590.4	-0.0200795
13605	-0.0212495
13612.3	-0.02182
13626.9	-0.0229323
13634.2	-0.0234742
13641.5	-0.0240065
13656.1	-0.0250429
13663.4	-0.0255471
13670.7	-0.026042
13685.3	-0.0270043
13692.6	-0.0274718
13707.2	-0.02838
13714.5	-0.0288209
13721.8	-0.0292529
13736.4	-0.0300913
13743.7	-0.0304977
13751	-0.0308957
13765.6	-0.031667
13772.9	-0.0320405
13780.2	-0.0324059
13794.8	-0.0331131
13802.1	-0.0334551
13816.7	-0.0341161
13824	-0.0344354
13831.3	-0.0347473
13845.9	-0.0353494
13853.2	-0.0356397
13860.5	-0.035923
13875.1	-0.0364687
13882.4	-0.0367314
13897	-0.0372366
13904.3	-0.0374793
13911.6	-0.0377155
13926.2	-0.0381688
13933.5	-0.0383859
13940.7	-0.0385968
13955.3	-0.0390003
13962.6	-0.0391929
13977.2	-0.0395604
13984.5	-0.0397353
13991.8	-0.0399044
14006.4	-0.0402255
14013.7	-0.0403776
14021	-0.0405241
14035.6	-0.0408006
14042.9	-0.0409307
14050.2	-0.0410554
14064.8	-0.041289
14072.1	-0.041398
14086.7	-0.0416006
14094	-0.0416943
14101.3	-0.041783
14115.9	-0.0419457
14123.2	-0.0420198
14130.5	-0.0420891
14145.1	-0.0422137
14152.4	-0.0422691
14167	-0.0423664
14174.3	-0.0424083
14181.6	-0.042446
14196.2	-0.0425084
14203.5	-0.0425334
14210.8	-0.0425543
14225.4	-0.042584
14232.7	-0.042593
14240	-0.0425982
14254.6	-0.0425972
14261.9	-0.0425913
14276.5	-0.0425688
14283.8	-0.0425524
14291.1	-0.0425326
14305.7	-0.0424832
14313	-0.0424537
14320.3	-0.0424212
14334.9	-0.0423469
14342.2	-0.0423054
14356.8	-0.0422139
14364.1	-0.042164
14371.4	-0.0421114
14386	-0.0419983
14393.3	-0.0419379
14400.6	-0.041875
14415.2	-0.0417419
14422.5	-0.0416718
14437.1	-0.0415245
14444.4	-0.0414474
14451.7	-0.041368
14466.3	-0.0412025
14473.6	-0.0411164
14480.9	-0.041028
14495.5	-0.0408447
14502.8	-0.0407497
14510.1	-0.0406524
14524.7	-0.0404512
14532	-0.0403471
14546.6	-0.040132
14553.9	-0.0400208
14561.2	-0.0399073
14575.8	-0.0396726
14583.1	-0.0395514
14590.3	-0.0394276
14604.9	-0.0391717
14612.2	-0.0390396
14626.8	-0.0387664
14634.1	-0.0386252
14641.4	-0.0384808
14656	-0.0381821
14663.3	-0.0380277
14670.6	-0.0378696
14685.2	-0.0375424
14692.5	-0.0373731
14707.1	-0.0370222
14714.4	-0.0368406
14721.7	-0.0366545
14736.3	-0.0362691
14743.6	-0.0360693
14750.9	-0.0358648
14765.5	-0.0354409
14772.8	-0.0352213
14780.1	-0.0349964
14794.7	-0.0345303
14802	-0.0342889
14816.6	-0.0337889
14823.9	-0.03353
14831.2	-0.0332652
14845.8	-0.032717
14853.1	-0.0324335
14860.4	-0.0321436
14875	-0.0315445
14882.3	-0.0312351
14896.9	-0.0305962
14904.2	-0.0302667
14911.5	-0.0299303
14926.1	-0.0292372
14933.4	-0.0288803
14940.7	-0.0285166
14955.3	-0.0277685
14962.6	-0.0273841
14977.2	-0.0265949
14984.5	-0.0261902
14991.8	-0.0257787
15006.4	-0.0249359
15013.7	-0.0245047
15021	-0.0240671
15035.6	-0.023173
15042.9	-0.0227168
15050.2	-0.0222546
15064.8	-0.0213128
15072.1	-0.0208336
15086.7	-0.0198592
15094	-0.0193643
15101.3	-0.0188647
15115.9	-0.0178518
15123.2	-0.0173389
15130.5	-0.0168221
15145.1	-0.0157774
15152.4	-0.01525
15167	-0.0141866
15174.3	-0.0136511
15181.6	-0.0131133
15196.2	-0.0120323
15203.5	-0.0114896
15210.8	-0.0109459
15225.4	-0.00985635
15232.6	-0.00931118
15247.2	-0.00822156
15254.5	-0.00767771
15261.8	-0.00713492
15276.4	-0.00605372
15283.7	-0.00551594
15291	-0.00498044
15305.6	-0.00391754
15312.9	-0.00339073
15320.2	-0.00286742
15334.8	-0.00183247
15342.1	-0.00132142
15356.7	-0.00031355
15364	0.00018271
15371.3	0.000673496
15385.9	0.00163761
15393.2	0.00211045
15400.5	0.00257681
15415.1	0.0034892
15422.4	0.00393479
15437	0.00480375
15444.3	0.00522673
15451.6	0.0056418
15466.2	0.00644756
15473.5	0.00683795
15480.8	0.00721982
15495.4	0.00795752
15502.7	0.00831312
15510	0.00865976
15524.6	0.00932584
15531.9	0.00964514
15546.5	0.010256
15553.8	0.0105475
15561.1	0.0108297
15575.7	0.011366
15583	0.0116202
15590.3	0.011865
15604.9	0.012327
15612.2	0.0125442
15626.8	0.0129513
15634.1	0.0131413
15641.4	0.0133225
15656	0.0136585
15663.3	0.0138135
15670.6	0.0139601
15685.2	0.0142283
15692.5	0.0143502
15707.1	0.0145703
15714.4	0.0146687
15721.7	0.0147597
15736.3	0.0149198
15743.6	0.0149892
15750.9	0.0150517
15765.5	0.0151569
15772.8	0.0151999
15780.1	0.0152368
15794.7	0.0152927
15802	0.0153121
15816.6	0.0153347
15823.9	0.0153382
15831.2	0.0153368
15845.8	0.0153199
15853.1	0.0153047
15860.4	0.0152852
15874.9	0.015234
15882.2	0.0152026
15896.8	0.0151291
15904.1	0.0150871
15911.4	0.015042
15926	0.0149425
15933.3	0.0148883
15940.6	0.0148315
15955.2	0.0147099
15962.5	0.0146454
15977.1	0.0145093
15984.4	0.014438
15991.7	0.0143645
16006.3	0.0142114
16013.6	0.0141319
16020.9	0.0140504
16035.5	0.0138819
16042.8	0.013795
16050.1	0.0137062
16064.7	0.0135232
16072	0.013429
16086.6	0.0132352
16093.9	0.0131355
16101.2	0.013034
16115.8	0.0128252
16123.1	0.0127179
16130.4	0.0126085
16145	0.0123834
16152.3	0.0122676
16166.9	0.012029
16174.2	0.011906
16181.5	0.0117806
16196.1	0.0115217
16203.4	0.0113882
16210.7	0.0112517
16225.3	0.0109697
16232.6	0.0108239
16247.2	0.0105224
16254.5	0.0103663
16261.8	0.0102067
16276.4	0.00987593
16283.7	0.00970464
16291	0.00952923
16305.6	0.00916563
16312.9	0.00897721
16320.2	0.00878421
16334.8	0.00838404
16342.1	0.00817665
16356.7	0.00774669
16364	0.00752391
16371.3	0.00729579
16385.9	0.00682314
16393.2	0.00657841
16400.5	0.00632796
16415.1	0.00580955
16422.4	0.00554142
16437	0.00498694
16444.3	0.00470046
16451.6	0.00440773
16466.2	0.00380332
16473.5	0.00349155
16480.8	0.00317333
16495.4	0.00251748
16502.6	0.00217979
16517.2	0.00148481
16524.5	0.00112752
16531.8	0.000763697
16546.4	1.65154e-05
16553.7	-0.000366794
16561	-0.000756538
16575.6	-0.00155515
16582.9	-0.00196392
16590.2	-0.0023789
16604.8	-0.00322723
16612.1	-0.00366041
16626.7	-0.0045443
16634	-0.0049948
16641.3	-0.00545084
16655.9	-0.00637905
16663.2	-0.00685093
16670.5	-0.00732779
16685.1	-0.00829584
16692.4	-0.00878667
16707	-0.00978107
16714.3	-0.0102842
16721.6	-0.0107911
16736.2	-0.0118152
16743.5	-0.0123319
16750.8	-0.0128515
16765.4	-0.0138981
16772.7	-0.0144247
16780	-0.0149531
16794.6	-0.0160144
16801.9	-0.0165467
16816.5	-0.0176134
16823.8	-0.0181472
16831.1	-0.0186808
16845.7	-0.0197466
16853	-0.0202782
16860.3	-0.0208085
16874.9	-0.0218638
16882.2	-0.0223883
16896.8	-0.0234293
16904.1	-0.0239452
16911.4	-0.0244576
16926	-0.0254705
16933.3	-0.0259705
16940.6	-0.0264657
16955.2	-0.0274404
16962.5	-0.0279193
16977.1	-0.0288588
16984.4	-0.0293187
16991.7	-0.0297716
17006.3	-0.0306553
17013.6	-0.0310856
17020.9	-0.0315077
17035.5	-0.0323263
17042.8	-0.0327222
17050.1	-0.0331089
17064.7	-0.0338535
17072	-0.0342109
17086.6	-0.0348946
17093.9	-0.0352204
17101.2	-0.0355353
17115.8	-0.0361314
17123.1	-0.0364122
17130.4	-0.0366812
17144.9	-0.0371832
17152.2	-0.0374159
17166.8	-0.0378437
17174.1	-0.0380387
17181.4	-0.0382208
17196	-0.0385461
17203.3	-0.038689
17210.6	-0.0388187
17225.2	-0.0390382
17232.5	-0.0391278
17247.1	-0.0392666
17254.4	-0.0393157
17261.7	-0.0393513
17276.3	-0.0393818
17283.6	-0.0393767
17290.9	-0.0393582
17305.5	-0.0392809
17312.8	-0.0392221
17320.1	-0.0391501
17334.7	-0.0389665
17342	-0.0388552
17356.6	-0.0385937
17363.9	-0.0384439
17371.2	-0.0382816
17385.8	-0.0379197
17393.1	-0.0377205
17400.4	-0.0375094
17415	-0.0370519
17422.3	-0.0368059
17436.9	-0.0362803
17444.2	-0.0360012
17451.5	-0.0357114
17466.1	-0.0351008
17473.4	-0.0347804
17480.7	-0.0344503
17495.3	-0.0337617
17502.6	-0.0334038
17517.2	-0.0326617
17524.5	-0.0322782
17531.8	-0.0318866
17546.4	-0.0310803
17553.7	-0.0306662
17561	-0.0302451
17575.6	-0.029383
17582.9	-0.0289426
17590.2	-0.0284962
17604.8	-0.0275869
17612.1	-0.0271245
17626.7	-0.0261854
17634	-0.0257094
17641.3	-0.0252293
17655.9	-0.0242583
17663.2	-0.0237678
17670.5	-0.0232745
17685.1	-0.02228
17692.4	-0.0217794
17707	-0.020773
17714.3	-0.0202676
17721.6	-0.019761
17736.2	-0.0187457
17743.5	-0.0182374
17750.8	-0.017729
17765.4	-0.0167127
17772.6	-0.0162054
17787.2	-0.0151935
17794.5	-0.0146893
17801.8	-0.0141867
17816.4	-0.0131869
17823.7	-0.0126901
17831	-0.0121957
17845.6	-0.0112149
17852.9	-0.0107289
17860.2	-0.0102461
17874.8	-0.00929081
17882.1	-0.00881874
17896.7	-0.00788664
17904	-0.00742698
17911.3	-0.00697182
17925.9	-0.00607569
17933.2	-0.00563506
17940.5	-0.00519961
17955.1	-0.00434489
17962.4	-0.00392594
17977	-0.00310563
17984.3	-0.00270458
17991.6	-0.00230979
18006.2	-0.00153957
18013.5	-0.00116443
18020.8	-0.000796118
18035.4	-8.05146e-05
18042.7	0.000266511
18050	0.000606181
18064.6	0.00126295
18071.9	0.0015798
18086.5	0.00218984
18093.8	0.00248279
18101.1	0.00276754
18115.7	0.00331201
18123	0.00357152
18130.3	0.00382239
18144.9	0.00429782
18152.2	0.00452218
18166.8	0.0049437
18174.1	0.00514068
18181.4	0.00532834
18196	0.00567537
18203.3	0.00583458
18210.6	0.00598413
18225.2	0.00625395
18232.5	0.00637408
18247.1	0.00658441
18254.4	0.00667447
18261.7	0.00675438
18276.3	0.00688351
18283.6	0.00693261
18290.9	0.00697135
18305.5	0.00701751
18312.8	0.00702485
18320.1	0.00702165
18334.7	0.00698349
18342	0.00694848
18356.6	0.00684649
18363.9	0.00677947
18371.2	0.00670177
18385.8	0.00651427
18393.1	0.00640449
18400.4	0.00628403
18414.9	0.00601113
18422.2	0.00585875
18436.8	0.00552224
18444.1	0.00533821
18451.4	0.0051437
18466	0.00472353
18473.3	0.00449798
18480.6	0.00426221
18495.2	0.00376035
18502.5	0.00349442
18517.1	0.00293305
18524.4	0.00263782
18531.7	0.00233305
18546.3	0.00169537
18553.6	0.00136272
18560.9	0.00102106
18575.5	0.000311292
18582.8	-5.64945e-05
18590.1	-0.000432659
18604.7	-0.0012094
18612	-0.00160961
18626.6	-0.0024327
18633.9	-0.00285517
18641.2	-0.00328464
18655.8	-0.00416363
18663.1	-0.0046127
18670.4	-0.00506781
18685	-0.00599519
18692.3	-0.00646692
18706.9	-0.00742514
18714.2	-0.00791106
18721.5	-0.00840113
18736.1	-0.00939257
18743.4	-0.00989333
18750.7	-0.010397
18765.3	-0.011412
18772.6	-0.0119226
18787.2	-0.0129485
18794.5	-0.0134631
18801.8	-0.0139783
18816.4	-0.0150093
18823.7	-0.0155243
18831	-0.0160386
18845.6	-0.0170635
18852.9	-0.0175734
18860.2	-0.018081
18874.8	-0.0190882
18882.1	-0.0195871
18896.7	-0.0205734
18904	-0.0210601
18911.3	-0.0215421
18925.9	-0.0224903
18933.2	-0.0229558
18940.5	-0.0234151
18955.1	-0.0243135
18962.4	-0.024752
18977	-0.0256056
18984.3	-0.0260201
18991.6	-0.0264259
19006.2	-0.0272103
19013.5	-0.0275881
19020.8	-0.027956
19035.4	-0.0286605
19042.6	-0.0289966
19057.2	-0.0296349
19064.5	-0.0299365
19071.8	-0.0302261
19086.4	-0.0307682
19093.7	-0.0310202
19101	-0.0312591
19115.6	-0.031697
19122.9	-0.0318955
19130.2	-0.0320802
19144.8	-0.032407
19152.1	-0.0325488
19166.7	-0.0327885
19174	-0.0328861
19181.3	-0.0329687
19195.9	-0.0330884
19203.2	-0.0331253
19210.5	-0.0331468
19225.1	-0.0331433
19232.4	-0.0331181
19247	-0.033021
19254.3	-0.032949
19261.6	-0.0328613
19276.2	-0.0326389
19283.5	-0.0325043
19290.8	-0.0323542
19305.4	-0.0320075
19312.7	-0.0318111
19320	-0.0315995
19334.6	-0.0311309
19341.9	-0.0308742
19356.5	-0.0303167
19363.8	-0.0300161
19371.1	-0.0297012
19385.7	-0.0290293
19393	-0.0286727
19400.3	-0.0283025
19414.9	-0.0275225
19422.2	-0.0271131
19436.8	-0.0262566
19444.1	-0.0258102
19451.4	-0.0253519
19466	-0.0244008
19473.3	-0.0239087
19480.6	-0.0234059
19495.2	-0.0223694
19502.5	-0.0218363
19517.1	-0.0207421
19524.4	-0.0201816
19531.7	-0.0196127
19546.3	-0.0184508
19553.6	-0.0178584
19560.9	-0.017259
19575.5	-0.0160402
19582.8	-0.0154216
19590.1	-0.0147973
19604.7	-0.0135329
19612	-0.0128936
19626.6	-0.0116026
19633.9	-0.0109516
19641.2	-0.0102974
19655.8	-0.00898082
19663.1	-0.00831919
19670.4	-0.00765579
19684.9	-0.00632509
19692.2	-0.00565849
19706.8	-0.0043245
19714.1	-0.0036578
19721.4	-0.00299173
19736	-0.00166284
19743.3	-0.00100067
19750.6	-0.000340436
19765.2	0.000972959
19772.5	0.0016255
19787.1	0.0029208
19794.4	0.00356296
19801.7	0.00420108
19816.3	0.00546412
19823.6	0.00608849
19830.9	0.00670775
19845.5	0.00792992
19852.8	0.00853234
19860.1	0.00912867
19874.7	0.0103021
19882	0.0108788
19896.6	0.0120112
19903.9	0.0125664
19911.2	0.013114
19925.8	0.0141859
19933.1	0.0147098
19940.4	0.0152255
19955	0.0162315
19962.3	0.0167215
19976.9	0.017675
19984.2	0.0181382
19991.5	0.0185922
