0	0
53.5566	0
107.113	0
160.67	0
214.226	0
267.783	0
321.339	3.76277e-07
374.896	3.81547e-06
428.453	2.20415e-05
482.009	0.000100662
535.566	0.000381466
589.122	0.00121664
642.679	0.00331037
696.235	0.00786082
749.792	0.0166037
803.349	0.0316645
856.905	0.0551881
910.462	0.088826
964.018	0.133236
1017.57	0.187752
1071.13	0.250325
1124.69	0.317707
1178.24	0.385831
1231.8	0.450244
1285.36	0.506528
1338.91	0.550652
1392.47	0.57925
1446.03	0.589826
1499.58	0.58091
1553.14	0.552157
1606.7	0.504381
1660.25	0.439516
1713.81	0.360493
1767.36	0.271038
1820.92	0.175405
1874.47	0.0780662
1928.03	-0.0166153
1981.58	-0.104691
2035.14	-0.182885
2088.69	-0.248783
2142.25	-0.300926
2195.8	-0.338816
2249.36	-0.362835
2302.91	-0.374094
2356.47	-0.374243
2410.02	-0.365256
2463.57	-0.349229
2517.13	-0.328208
2570.68	-0.304052
2624.24	-0.278346
2677.79	-0.252361
2731.35	-0.227051
2784.9	-0.203079
2838.46	-0.180858
2892.01	-0.160605
2945.57	-0.14239
2999.12	-0.126174
3052.68	-0.111849
3106.23	-0.0992591
3159.79	-0.08822
3213.34	-0.0785287
3266.9	-0.0699735
3320.46	-0.0623422
3374.01	-0.0554291
3427.57	-0.0490433
3481.13	-0.0430156
3534.68	-0.0372054
3588.24	-0.0315048
3641.8	-0.0258402
3695.35	-0.0201717
3748.91	-0.0144897
3802.47	-0.00880917
3856.02	-0.00316319
3909.58	0.00240364
3963.14	0.00784158
4016.69	0.0131008
4070.25	0.0181351
4123.8	0.0229035
4177.36	0.0273718
4230.92	0.0315114
4284.47	0.0352991
4338.03	0.038716
4391.59	0.0417464
4445.14	0.0443772
4498.7	0.0465983
4552.26	0.0484021
4605.81	0.0497842
4659.37	0.050744
4712.92	0.051285
4766.48	0.0514151
4820.04	0.0511463
4873.59	0.0504951
4927.15	0.0494816
4980.71	0.0481287
5034.26	0.0464622
5087.82	0.0445093
5141.38	0.0422986
5194.93	0.0398594
5248.49	0.0372211
5302.05	0.0344133
5355.6	0.0314653
5409.16	0.0284057
5462.72	0.0252626
5516.27	0.0220633
5569.83	0.0188339
5623.39	0.0155994
5676.94	0.0123831
5730.5	0.0092069
5784.06	0.00609084
5837.61	0.00305315
5891.17	0.000110165
5944.73	-0.00272363
5998.28	-0.00543552
6051.84	-0.0080145
6105.39	-0.0104511
6158.95	-0.0127374
6212.51	-0.0148667
6266.06	-0.0168337
6319.62	-0.0186341
6373.18	-0.0202648
6426.73	-0.021724
6480.29	-0.0230108
6533.85	-0.0241255
6587.4	-0.0250694
6640.96	-0.0258452
6694.52	-0.0264563
6748.07	-0.0269076
6801.63	-0.0272047
6855.18	-0.0273545
6908.74	-0.0273644
6962.3	-0.027243
7015.85	-0.0269994
7069.41	-0.0266435
7122.97	-0.0261855
7176.52	-0.0256362
7230.08	-0.0250066
7283.63	-0.0243077
7337.19	-0.0235508
7390.75	-0.0227469
7444.3	-0.0219068
7497.86	-0.0210412
7551.41	-0.02016
7604.97	-0.019273
7658.53	-0.0183892
7712.08	-0.0175169
7765.64	-0.016664
7819.2	-0.0158372
7872.75	-0.015043
7926.31	-0.0142869
7979.86	-0.0135736
8033.42	-0.0129074
8086.98	-0.0122916
8140.53	-0.011729
8194.09	-0.0112221
8247.65	-0.0107725
8301.2	-0.0103815
8354.76	-0.0100499
8408.31	-0.0097782
8461.87	-0.00956639
8515.43	-0.00941421
8568.98	-0.00932109
8622.54	-0.00928615
8676.1	-0.00930826
8729.65	-0.00938603
8783.21	-0.00951782
8836.77	-0.00970176
8890.32	-0.00993578
8943.88	-0.0102176
8997.43	-0.0105446
9050.99	-0.0109143
9104.55	-0.0113237
9158.1	-0.0117699
9211.66	-0.0122495
9265.22	-0.0127595
9318.77	-0.0132963
9372.33	-0.0138566
9425.89	-0.0144367
9479.44	-0.0150331
9533	-0.0156422
9586.56	-0.0162606
9640.11	-0.0168846
9693.67	-0.0175107
9747.23	-0.0181356
9800.78	-0.018756
9854.34	-0.0193686
9907.9	-0.0199703
9961.45	-0.020558
10015	-0.0211289
10068.6	-0.0216802
10122.1	-0.0222092
10175.7	-0.0227132
10229.2	-0.0231899
10282.8	-0.0236368
10336.3	-0.0240516
10389.9	-0.0244321
10443.5	-0.0247763
10497	-0.0250821
10550.6	-0.0253477
10604.1	-0.0255711
10657.7	-0.0257507
10711.2	-0.025885
10764.8	-0.0259725
10818.4	-0.0260119
10871.9	-0.026002
10925.5	-0.0259419
10979	-0.0258309
11032.6	-0.0256682
11086.1	-0.0254537
11139.7	-0.025187
11193.3	-0.0248684
11246.8	-0.0244982
11300.4	-0.024077
11353.9	-0.0236056
11407.5	-0.0230851
11461	-0.022517
11514.6	-0.0219029
11568.1	-0.0212446
11621.7	-0.0205442
11675.3	-0.0198042
11728.8	-0.0190269
11782.4	-0.0182151
11835.9	-0.0173718
11889.5	-0.0164999
11943	-0.0156027
11996.6	-0.0146833
12050.2	-0.0137452
12103.7	-0.0127918
12157.3	-0.0118265
12210.8	-0.0108527
12264.4	-0.00987405
12317.9	-0.00889385
12371.5	-0.00791553
12425.1	-0.00694241
12478.6	-0.00597772
12532.2	-0.00502463
12585.7	-0.00408615
12639.3	-0.00316521
12692.8	-0.00226458
12746.4	-0.00138689
12799.9	-0.000534608
12853.5	0.000289945
12907.1	0.00108463
12960.6	0.00184748
13014.2	0.0025767
13067.7	0.0032707
13121.3	0.00392805
13174.8	0.00454754
13228.4	0.00512813
13282	0.00566898
13335.5	0.00616944
13389.1	0.00662905
13442.6	0.00704756
13496.2	0.00742488
13549.7	0.00776114
13603.3	0.00805662
13656.9	0.00831181
13710.4	0.00852737
13764	0.00870411
13817.5	0.00884302
13871.1	0.00894526
13924.6	0.0090121
13978.2	0.00904498
14031.8	0.00904546
14085.3	0.00901522
14138.9	0.00895604
14192.4	0.0088698
14246	0.00875844
14299.5	0.00862401
14353.1	0.00846856
14406.6	0.00829423
14460.2	0.00810313
14513.8	0.00789741
14567.3	0.0076792
14620.9	0.00745062
14674.4	0.00721372
14728	0.00697052
14781.5	0.00672296
14835.1	0.0064729
14888.7	0.0062221
14942.2	0.00597223
14995.8	0.0057248
15049.3	0.00548123
15102.9	0.00524279
15156.4	0.00501059
15210	0.0047856
15263.6	0.00456865
15317.1	0.00436039
15370.7	0.00416133
15424.2	0.00397182
15477.8	0.00379206
15531.3	0.0036221
15584.9	0.00346185
15638.4	0.0033111
15692	0.00316951
15745.6	0.00303664
15799.1	0.00291195
15852.7	0.00279481
15906.2	0.00268453
15959.8	0.00258038
16013.3	0.00248157
16066.9	0.00238732
16120.5	0.00229683
16174	0.0022093
16227.6	0.00212398
16281.1	0.00204014
16334.7	0.00195713
16388.2	0.00187434
16441.8	0.00179124
16495.4	0.0017074
16548.9	0.00162246
16602.5	0.00153618
16656	0.00144839
16709.6	0.00135904
16763.1	0.00126817
16816.7	0.00117593
16870.2	0.00108253
16923.8	0.000988294
16977.4	0.000893613
17030.9	0.000798942
17084.5	0.000704796
17138	0.000611732
17191.6	0.000520343
17245.1	0.000431242
17298.7	0.000345046
17352.3	0.000262371
17405.8	0.000183814
17459.4	0.000109939
17512.9	4.12737e-05
17566.5	-2.17091e-05
17620	-7.85956e-05
17673.6	-0.000129041
17727.2	-0.000172774
17780.7	-0.000209606
17834.3	-0.00023943
17887.8	-0.000262223
17941.4	-0.000278051
17994.9	-0.000287061
18048.5	-0.000289484
18102	-0.000285627
18155.6	-0.00027587
18209.2	-0.000260659
18262.7	-0.000240498
18316.3	-0.00021594
18369.8	-0.00018758
18423.4	-0.000156044
18476.9	-0.000121981
18530.5	-8.60509e-05
18584.1	-4.89153e-05
18637.6	-1.12296e-05
18691.2	2.63674e-05
18744.7	6.3262e-05
18798.3	9.88732e-05
18851.8	0.00013266
18905.4	0.000164127
18959	0.00019283
19012.5	0.000218382
19066.1	0.000240453
19119.6	0.000258775
19173.2	0.000273141
19226.7	0.000283407
19280.3	0.00028949
19333.8	0.000291366
19387.4	0.00028907
19441	0.000282686
19494.5	0.000272352
19548.1	0.000258248
19601.6	0.000240594
19655.2	0.000219644
19708.7	0.000195682
19762.3	0.000169011
19815.9	0.000139954
19869.4	0.000108844
19923	7.60178e-05
19976.5	4.18133e-05
