0	0
10.3657	0
20.7315	0
31.0972	0
41.4629	0
51.8287	0
62.1944	0
72.5601	0
82.9259	0
93.2916	0
103.657	0
114.023	0
124.389	0
134.755	0
145.12	0
155.486	0
165.852	0
176.217	0
186.583	0
196.949	0
207.315	0
217.68	0
228.046	0
238.412	0
248.778	0
259.143	0
269.509	0
279.875	0
290.241	0
300.606	0
310.972	0
321.338	0
331.703	0
342.069	0
352.435	0
362.801	0
373.166	0
383.532	0
393.898	0
404.264	0
414.629	0
424.995	0
435.361	0
445.727	0
456.092	0
466.458	0
476.824	0
487.189	0
497.555	0
507.921	0
518.287	0
528.652	0
539.018	0
549.384	0
559.75	0
570.115	0
580.481	0
590.847	0
601.213	0
611.578	0
621.944	0
632.31	0
642.676	0
653.041	0
663.407	0
673.773	0
684.138	0
694.504	0
704.87	0
715.236	0
725.601	0
735.967	0
746.333	0
756.699	0
767.064	0
777.43	0
787.796	0
798.162	0
808.527	0
818.893	0
829.259	0
839.624	0
849.99	0
860.356	0
870.722	0
881.087	0
891.453	0
901.819	0
912.185	0
922.55	0
932.916	0
943.282	0
953.648	0
964.013	0
974.379	0
984.745	0
995.11	0
1005.48	0
1015.84	0
1026.21	0
1036.57	0
1046.94	0
1057.3	0
1067.67	0
1078.04	0
1088.4	0
1098.77	0
1109.13	0
1119.5	0
1129.86	0
1140.23	0
1150.6	0
1160.96	0
1171.33	0
1181.69	0
1192.06	0
1202.43	0
1212.79	0
1223.16	0
1233.52	0
1243.89	0
1254.25	0
1264.62	0
1274.99	0
1285.35	0
1295.72	0
1306.08	0
1316.45	0
1326.81	0
1337.18	0
1347.55	0
1357.91	0
1368.28	0
1378.64	0
1389.01	0
1399.37	0
1409.74	0
1420.11	0
1430.47	0
1440.84	0
1451.2	0
1461.57	0
1471.93	0
1482.3	0
1492.67	0
1503.03	0
1513.4	0
1523.76	0
1534.13	-9.09495e-13
1544.49	-9.09495e-13
1554.86	-9.09495e-13
1565.23	-9.09495e-13
1575.59	0
1585.96	0
1596.32	0
1606.69	0
1617.05	0
1627.42	0
1637.79	0
1648.15	0
1658.52	0
1668.88	0
1679.25	0
1689.61	0
1699.98	0
1710.35	0
1720.71	0
1731.08	0
1741.44	0
1751.81	0
1762.17	0
1772.54	0
1782.91	0
1793.27	0
1803.64	0
1814	0
1824.37	0
1834.73	0
1845.1	0
1855.47	0
1865.83	0
1876.2	0
1886.56	0
1896.93	0
1907.3	0
1917.66	0
1928.03	0
1938.39	0
1948.76	0
1959.12	0
1969.49	0
1979.86	0
1990.22	0
2000.59	0
2010.95	0
2021.32	0
2031.68	0
2042.05	0
2052.42	0
2062.78	0
2073.15	0
2083.51	0
2093.88	0
2104.24	0
2114.61	0
2124.98	0
2135.34	0
2145.71	0
2156.07	0
2166.44	0
2176.8	0
2187.17	0
2197.54	0
2207.9	0
2218.27	0
2228.63	0
2239	0
2249.36	0
2259.73	0
2270.1	0
2280.46	0
2290.83	0
2301.19	0
2311.56	0
2321.92	0
2332.29	0
2342.66	0
2353.02	0
2363.39	0
2373.75	0
2384.12	0
2394.48	0
2404.85	9.09495e-13
2415.22	1.81899e-12
2425.58	3.63798e-12
2435.95	5.45697e-12
2446.31	8.18545e-12
2456.68	1.18234e-11
2467.04	1.81899e-11
2477.41	2.72848e-11
2487.78	4.00178e-11
2498.14	5.91172e-11
2508.51	8.54925e-11
2518.87	1.23691e-10
2529.24	1.77351e-10
2539.6	2.5284e-10
2549.97	3.57431e-10
2560.34	5.0386e-10
2570.7	7.03949e-10
2581.07	9.79526e-10
2591.43	1.35515e-09
2601.8	1.86355e-09
2612.16	2.54931e-09
2622.53	3.46699e-09
2632.9	4.69026e-09
2643.26	6.30916e-09
2653.63	8.44284e-09
2663.99	1.12395e-08
2674.36	1.48857e-08
2684.73	1.9616e-08
2695.09	2.57214e-08
2705.46	3.35622e-08
2715.82	4.3583e-08
2726.19	5.63277e-08
2736.55	7.24604e-08
2746.92	9.27848e-08
2757.29	1.18271e-07
2767.65	1.50084e-07
2778.02	1.89616e-07
2788.38	2.38522e-07
2798.75	2.98761e-07
2809.11	3.72635e-07
2819.48	4.62849e-07
2829.85	5.7255e-07
2840.21	7.05396e-07
2850.58	8.65612e-07
2860.94	1.05806e-06
2871.31	1.2883e-06
2881.67	1.56267e-06
2892.04	1.88837e-06
2902.41	2.27353e-06
2912.77	2.72728e-06
2923.14	3.25985e-06
2933.5	3.88265e-06
2943.87	4.60834e-06
2954.23	5.45089e-06
2964.6	6.42569e-06
2974.97	7.5496e-06
2985.33	8.841e-06
2995.7	1.03199e-05
3006.06	1.20078e-05
3016.43	1.3928e-05
3026.79	1.61055e-05
3037.16	1.85669e-05
3047.53	2.13406e-05
3057.89	2.44564e-05
3068.26	2.79461e-05
3078.62	3.18429e-05
3088.99	3.61815e-05
3099.35	4.09981e-05
3109.72	4.63301e-05
3120.09	5.22163e-05
3130.45	5.86965e-05
3140.82	6.58115e-05
3151.18	7.36028e-05
3161.55	8.21127e-05
3171.91	9.13839e-05
3182.28	0.000101459
3192.64	0.000112382
3203.01	0.000124195
3213.38	0.000136942
3223.74	0.000150664
3234.11	0.000165405
3244.47	0.000181204
3254.84	0.000198104
3265.2	0.000216142
3275.57	0.00023536
3285.94	0.000255793
3296.3	0.00027748
3306.67	0.000300456
3317.03	0.000324757
3327.4	0.000350418
3337.76	0.000377473
3348.13	0.000405957
3358.49	0.000435904
3368.86	0.000467351
3379.23	0.000500333
3389.59	0.000534891
3399.96	0.000571067
3410.32	0.000608907
3420.69	0.000648461
3431.05	0.00068979
3441.42	0.000732957
3451.78	0.000778041
3462.15	0.000825128
3472.52	0.000874323
3482.88	0.000925747
3493.25	0.000979541
3503.61	0.00103587
3513.98	0.00109494
3524.34	0.00115696
3534.71	0.00122222
3545.07	0.00129103
3555.44	0.00136376
3565.8	0.00144084
3576.17	0.00152277
3586.54	0.00161013
3596.9	0.00170359
3607.27	0.00180393
3617.63	0.00191205
3628	0.00202897
3638.36	0.00215587
3648.73	0.00229409
3659.09	0.00244514
3669.46	0.00261078
3679.82	0.00279295
3690.19	0.00299386
3700.55	0.003216
3710.92	0.00346216
3721.29	0.00373545
3731.65	0.00403934
3742.02	0.00437768
3752.38	0.00475474
3762.75	0.00517522
3773.11	0.00564429
3783.48	0.00616765
3793.84	0.00675147
3804.21	0.00740253
3814.57	0.00812814
3824.94	0.00893624
3835.3	0.00983535
3845.67	0.0108346
3856.03	0.0119439
3866.4	0.0131737
3876.77	0.014535
3887.13	0.0160395
3897.5	0.0176997
3907.86	0.0195284
3918.23	0.0215392
3928.59	0.0237462
3938.96	0.0261638
3949.32	0.028807
3959.69	0.0316912
3970.05	0.0348319
3980.42	0.0382448
3990.78	0.0419458
4001.15	0.0459506
4011.51	0.0502751
4021.88	0.0549344
4032.24	0.0599436
4042.61	0.065317
4052.98	0.0710682
4063.34	0.07721
4073.71	0.083754
4084.07	0.0907107
4094.44	0.0980889
4104.8	0.105896
4115.17	0.114138
4125.53	0.122818
4135.9	0.131937
4146.26	0.141496
4156.63	0.15149
4166.99	0.161914
4177.36	0.172759
4187.73	0.184014
4198.09	0.195664
4208.46	0.207693
4218.82	0.220079
4229.19	0.2328
4239.55	0.245827
4249.92	0.259132
4260.28	0.272682
4270.65	0.28644
4281.01	0.300367
4291.38	0.314422
4301.75	0.32856
4312.11	0.342734
4322.48	0.356895
4332.84	0.370991
4343.21	0.384969
4353.57	0.398774
4363.94	0.41235
4374.3	0.425638
4384.67	0.438583
4395.04	0.451123
4405.4	0.463203
4415.77	0.474763
4426.13	0.485745
4436.5	0.496095
4446.86	0.505756
4457.23	0.514675
4467.59	0.522802
4477.96	0.530087
4488.33	0.536484
4498.69	0.541951
4509.06	0.546449
4519.42	0.54994
4529.79	0.552393
4540.15	0.55378
4550.52	0.554077
4560.89	0.553264
4571.25	0.551327
4581.62	0.548256
4591.98	0.544045
4602.35	0.538693
4612.72	0.532205
4623.08	0.524589
4633.45	0.51586
4643.81	0.506034
4654.18	0.495135
4664.54	0.48319
4674.91	0.470231
4685.27	0.456293
4695.64	0.441414
4706.01	0.425639
4716.37	0.409012
4726.74	0.391585
4737.1	0.373408
4747.47	0.354536
4757.83	0.335028
4768.2	0.31494
4778.57	0.294336
4788.93	0.273275
4799.3	0.251822
4809.66	0.230039
4820.03	0.207992
4830.39	0.185745
4840.76	0.163361
4851.13	0.140904
4861.49	0.118438
4871.86	0.0960237
4882.22	0.0737222
4892.59	0.0515927
4902.95	0.0296926
4913.32	0.00807746
4923.69	-0.0131994
4934.05	-0.0340867
4944.42	-0.0545361
4954.78	-0.0745014
4965.15	-0.0939392
4975.51	-0.112809
4985.88	-0.131074
4996.25	-0.148699
5006.61	-0.165652
5016.98	-0.181906
5027.34	-0.197435
5037.71	-0.212217
5048.07	-0.226234
5058.44	-0.23947
5068.81	-0.251911
5079.17	-0.26355
5089.54	-0.274378
5099.9	-0.284393
5110.27	-0.293594
5120.63	-0.301982
5131	-0.309563
5141.37	-0.316344
5151.73	-0.322335
5162.1	-0.327547
5172.46	-0.331996
5182.83	-0.335697
5193.19	-0.338668
5203.56	-0.340931
5213.93	-0.342506
5224.29	-0.343417
5234.66	-0.343688
5245.02	-0.343346
5255.39	-0.342418
5265.75	-0.34093
5276.12	-0.338913
5286.48	-0.336395
5296.85	-0.333406
5307.22	-0.329976
5317.58	-0.326136
5327.95	-0.321916
5338.31	-0.317348
5348.68	-0.31246
5359.04	-0.307284
5369.41	-0.301849
5379.78	-0.296185
5390.14	-0.29032
5400.51	-0.284284
5410.87	-0.278102
5421.24	-0.271803
5431.6	-0.265412
5441.97	-0.258954
5452.34	-0.252454
5462.7	-0.245933
5473.07	-0.239415
5483.43	-0.232919
5493.8	-0.226467
5504.16	-0.220076
5514.53	-0.213764
5524.9	-0.207547
5535.26	-0.20144
5545.63	-0.195458
5555.99	-0.189613
5566.36	-0.183916
5576.72	-0.178379
5587.09	-0.17301
5597.46	-0.167817
5607.82	-0.162808
5618.19	-0.157988
5628.55	-0.153363
5638.92	-0.148936
5649.28	-0.14471
5659.65	-0.140687
5670.02	-0.136869
5680.38	-0.133255
5690.75	-0.129844
5701.11	-0.126635
5711.48	-0.123627
5721.84	-0.120815
5732.21	-0.118197
5742.58	-0.115768
5752.94	-0.113523
5763.31	-0.111457
5773.67	-0.109564
5784.04	-0.107838
5794.4	-0.106272
5804.77	-0.104859
5815.14	-0.103592
5825.5	-0.102462
5835.87	-0.101462
5846.23	-0.100584
5856.6	-0.0998192
5866.96	-0.0991594
5877.33	-0.0985959
5887.7	-0.0981202
5898.06	-0.0977236
5908.43	-0.0973975
5918.79	-0.0971334
5929.16	-0.0969226
5939.52	-0.096757
5949.89	-0.0966281
5960.26	-0.0965278
5970.62	-0.0964483
5980.99	-0.0963818
5991.35	-0.0963209
6001.72	-0.0962583
6012.09	-0.0961871
6022.45	-0.0961006
6032.82	-0.0959925
6043.18	-0.0958568
6053.55	-0.0956877
6063.91	-0.09548
6074.28	-0.0952287
6084.65	-0.0949291
6095.01	-0.0945772
6105.38	-0.094169
6115.74	-0.0937011
6126.11	-0.0931705
6136.47	-0.0925745
6146.84	-0.0919109
6157.21	-0.0911778
6167.57	-0.0903736
6177.94	-0.0894974
6188.3	-0.0885484
6198.67	-0.0875263
6209.03	-0.086431
6219.4	-0.0852631
6229.77	-0.0840231
6240.13	-0.0827121
6250.5	-0.0813316
6260.86	-0.0798831
6271.23	-0.0783687
6281.59	-0.0767907
6291.96	-0.0751514
6302.33	-0.0734537
6312.69	-0.0717006
6323.06	-0.0698952
6333.42	-0.068041
6343.79	-0.0661414
6354.15	-0.0642004
6364.52	-0.0622216
6374.89	-0.0602091
6385.25	-0.0581671
6395.62	-0.0560996
6405.98	-0.054011
6416.35	-0.0519056
6426.71	-0.0497877
6437.08	-0.0476617
6447.45	-0.045532
6457.81	-0.0434029
6468.18	-0.0412788
6478.54	-0.0391639
6488.91	-0.0370626
6499.27	-0.034979
6509.64	-0.0329172
6520.01	-0.0308812
6530.37	-0.0288749
6540.74	-0.026902
6551.1	-0.0249662
6561.47	-0.0230711
6571.83	-0.0212199
6582.2	-0.0194159
6592.57	-0.0176622
6602.93	-0.0159615
6613.3	-0.0143167
6623.66	-0.0127302
6634.03	-0.0112044
6644.39	-0.00974135
6654.76	-0.00834304
6665.13	-0.00701121
6675.49	-0.00574739
6685.86	-0.00455292
6696.22	-0.00342891
6706.59	-0.00237629
6716.95	-0.00139577
6727.32	-0.000487854
6737.69	0.000347173
6748.05	0.00110922
6758.42	0.0017984
6768.78	0.00241503
6779.15	0.00295964
6789.52	0.00343295
6799.88	0.00383586
6810.25	0.00416948
6820.61	0.00443509
6830.98	0.00463416
6841.34	0.00476834
6851.71	0.00483944
6862.08	0.00484944
6872.44	0.00480047
6882.81	0.00469483
6893.17	0.00453494
6903.54	0.00432338
6913.9	0.00406284
6924.27	0.00375614
6934.64	0.00340622
6945	0.00301612
6955.37	0.00258897
6965.73	0.002128
6976.1	0.00163652
6986.46	0.00111788
6996.83	0.000575534
7007.2	1.29581e-05
7017.56	-0.000566321
7027.93	-0.00115875
7038.29	-0.00176074
7048.66	-0.0023687
7059.02	-0.00297904
7069.39	-0.00358817
7079.76	-0.00419252
7090.12	-0.00478853
7100.49	-0.00537271
7110.85	-0.00594158
7121.22	-0.00649174
7131.58	-0.00701983
7141.95	-0.00752258
7152.32	-0.00799679
7162.68	-0.00843937
7173.05	-0.00884729
7183.41	-0.00921767
7193.78	-0.00954771
7204.14	-0.00983474
7214.51	-0.0100762
7224.88	-0.0102698
7235.24	-0.0104131
7245.61	-0.0105041
7255.97	-0.0105408
7266.34	-0.0105214
7276.7	-0.0104443
7287.07	-0.010308
7297.44	-0.0101111
7307.8	-0.00985257
7318.17	-0.00953144
7328.53	-0.00914692
7338.9	-0.00869842
7349.26	-0.00818553
7359.63	-0.007608
7370	-0.00696581
7380.36	-0.00625907
7390.73	-0.00548811
7401.09	-0.00465343
7411.46	-0.00375571
7421.82	-0.00279578
7432.19	-0.00177469
7442.56	-0.000693628
7452.92	0.000446048
7463.29	0.00164281
7473.65	0.00289499
7484.02	0.00420074
7494.38	0.0055581
7504.75	0.00696495
7515.12	0.00841905
7525.48	0.00991802
7535.85	0.0114594
7546.21	0.0130405
7556.58	0.0146588
7566.94	0.0163113
7577.31	0.0179953
7587.68	0.0197078
7598.04	0.0214457
7608.41	0.0232061
7618.77	0.0249857
7629.14	0.0267814
7639.5	0.0285901
7649.87	0.0304085
7660.23	0.0322334
7670.6	0.0340616
7680.97	0.0358899
7691.33	0.0377152
7701.7	0.0395342
7712.06	0.0413438
7722.43	0.0431411
7732.79	0.0449229
7743.16	0.0466862
7753.53	0.0484283
7763.89	0.0501463
7774.26	0.0518374
7784.62	0.0534991
7794.99	0.0551287
7805.35	0.0567239
7815.72	0.0582822
7826.09	0.0598016
7836.45	0.0612798
7846.82	0.0627149
7857.18	0.064105
7867.55	0.0654483
7877.91	0.0667433
7888.28	0.0679885
7898.64	0.0691825
7909.01	0.070324
7919.38	0.071412
7929.74	0.0724455
7940.11	0.0734236
7950.47	0.0743457
7960.84	0.0752111
7971.2	0.0760194
7981.57	0.0767702
7991.94	0.0774634
8002.3	0.0780987
8012.67	0.0786762
8023.03	0.0791959
8033.4	0.0796582
8043.76	0.0800631
8054.13	0.0804113
8064.5	0.0807031
8074.86	0.080939
8085.23	0.0811198
8095.59	0.0812461
8105.96	0.0813187
8116.32	0.0813384
8126.69	0.0813061
8137.06	0.0812228
8147.42	0.0810894
8157.79	0.0809069
8168.15	0.0806764
8178.52	0.080399
8188.88	0.0800757
8199.25	0.0797078
8209.62	0.0792962
8219.98	0.0788422
8230.35	0.0783469
8240.71	0.0778114
8251.08	0.0772369
8261.44	0.0766244
8271.81	0.0759752
8282.17	0.0752902
8292.54	0.0745707
8302.91	0.0738175
8313.27	0.0730319
8323.64	0.0722146
8334	0.0713669
8344.37	0.0704895
8354.73	0.0695834
8365.1	0.0686495
8375.47	0.0676887
8385.83	0.0667017
8396.2	0.0656893
8406.56	0.0646523
8416.93	0.0635914
8427.29	0.0625072
8437.66	0.0614004
8448.03	0.0602716
8458.39	0.0591214
8468.76	0.0579502
8479.12	0.0567588
8489.49	0.0555474
8499.85	0.0543166
8510.22	0.0530669
8520.59	0.0517986
8530.95	0.0505121
8541.32	0.0492078
8551.68	0.0478862
8562.05	0.0465475
8572.41	0.0451921
8582.78	0.0438203
8593.15	0.0424325
8603.51	0.041029
8613.88	0.0396101
8624.24	0.0381763
8634.61	0.0367277
8644.97	0.035265
8655.34	0.0337882
8665.71	0.032298
8676.07	0.0307947
8686.44	0.0292787
8696.8	0.0277504
8707.17	0.0262104
8717.53	0.0246592
8727.9	0.0230972
8738.27	0.0215251
8748.63	0.0199434
8759	0.0183528
8769.36	0.016754
8779.73	0.0151476
8790.09	0.0135343
8800.46	0.011915
8810.83	0.0102905
8821.19	0.00866149
8831.56	0.00702898
8841.92	0.00539385
8852.29	0.00375705
8862.65	0.00211957
8873.02	0.000482417
8883.39	-0.00115336
8893.75	-0.00278668
8904.12	-0.00441644
8914.48	-0.0060415
8924.85	-0.00766072
8935.21	-0.00927291
8945.58	-0.0108769
8955.95	-0.0124714
8966.31	-0.0140552
8976.68	-0.0156272
8987.04	-0.017186
8997.41	-0.0187304
9007.77	-0.0202592
9018.14	-0.0217711
9028.51	-0.0232648
9038.87	-0.0247392
9049.24	-0.026193
9059.6	-0.027625
9069.97	-0.0290341
9080.33	-0.0304191
9090.7	-0.0317788
9101.07	-0.0331121
9111.43	-0.0344181
9121.8	-0.0356956
9132.16	-0.0369437
9142.53	-0.0381614
9152.89	-0.0393479
9163.26	-0.0405023
9173.63	-0.0416237
9183.99	-0.0427116
9194.36	-0.0437651
9204.72	-0.0447837
9215.09	-0.0457668
9225.45	-0.0467139
9235.82	-0.0476245
9246.19	-0.0484983
9256.55	-0.049335
9266.92	-0.0501344
9277.28	-0.0508962
9287.65	-0.0516204
9298.01	-0.0523069
9308.38	-0.0529558
9318.75	-0.0535671
9329.11	-0.054141
9339.48	-0.0546778
9349.84	-0.0551777
9360.21	-0.0556411
9370.57	-0.0560684
9380.94	-0.0564601
9391.31	-0.0568166
9401.67	-0.0571387
9412.04	-0.0574269
9422.4	-0.0576819
9432.77	-0.0579044
9443.13	-0.0580952
9453.5	-0.0582552
9463.87	-0.0583852
9474.23	-0.0584861
9484.6	-0.0585587
9494.96	-0.0586042
9505.33	-0.0586234
9515.69	-0.0586173
9526.06	-0.058587
9536.43	-0.0585335
9546.79	-0.0584578
9557.16	-0.0583611
9567.52	-0.0582443
9577.89	-0.0581085
9588.25	-0.0579547
9598.62	-0.0577842
9608.99	-0.0575977
9619.35	-0.0573965
9629.72	-0.0571816
9640.08	-0.0569539
9650.45	-0.0567144
9660.81	-0.0564641
9671.18	-0.056204
9681.55	-0.0559349
9691.91	-0.0556578
9702.28	-0.0553735
9712.64	-0.0550829
9723.01	-0.0547867
9733.37	-0.0544857
9743.74	-0.0541807
9754.11	-0.0538723
9764.47	-0.0535612
9774.84	-0.0532481
9785.2	-0.0529334
9795.57	-0.0526178
9805.93	-0.0523017
9816.3	-0.0519857
9826.67	-0.0516701
9837.03	-0.0513554
9847.4	-0.0510419
9857.76	-0.05073
9868.13	-0.0504199
9878.49	-0.0501119
9888.86	-0.0498062
9899.23	-0.049503
9909.59	-0.0492024
9919.96	-0.0489047
9930.32	-0.0486098
9940.69	-0.0483179
9951.05	-0.048029
9961.42	-0.0477432
9971.79	-0.0474604
9982.15	-0.0471806
9992.52	-0.0469039
10002.9	-0.04663
10013.2	-0.0463591
10023.6	-0.046091
10034	-0.0458255
10044.3	-0.0455627
10054.7	-0.0453024
10065.1	-0.0450444
10075.4	-0.0447887
10085.8	-0.0445351
10096.2	-0.0442835
10106.5	-0.0440337
10116.9	-0.0437856
10127.3	-0.0435392
10137.6	-0.0432942
10148	-0.0430505
10158.4	-0.042808
10168.7	-0.0425666
10179.1	-0.0423262
10189.5	-0.0420866
10199.8	-0.0418478
10210.2	-0.0416097
10220.6	-0.0413722
10230.9	-0.0411351
10241.3	-0.0408985
10251.7	-0.0406623
10262	-0.0404264
10272.4	-0.0401908
10282.8	-0.0399555
10293.1	-0.0397204
10303.5	-0.0394855
10313.9	-0.0392509
10324.2	-0.0390164
10334.6	-0.0387822
10345	-0.0385483
10355.3	-0.0383145
10365.7	-0.0380811
10376	-0.037848
10386.4	-0.0376153
10396.8	-0.037383
10407.1	-0.0371512
10417.5	-0.0369198
10427.9	-0.036689
10438.2	-0.0364588
10448.6	-0.0362293
10459	-0.0360005
10469.3	-0.0357724
10479.7	-0.0355451
10490.1	-0.0353187
10500.4	-0.0350932
10510.8	-0.0348687
10521.2	-0.0346451
10531.5	-0.0344224
10541.9	-0.0342008
10552.3	-0.0339802
10562.6	-0.0337607
10573	-0.0335421
10583.4	-0.0333246
10593.7	-0.033108
10604.1	-0.0328924
10614.5	-0.0326776
10624.8	-0.0324637
10635.2	-0.0322506
10645.6	-0.0320382
10655.9	-0.0318263
10666.3	-0.031615
10676.7	-0.031404
10687	-0.0311933
10697.4	-0.0309827
10707.8	-0.030772
10718.1	-0.0305611
10728.5	-0.0303498
10738.8	-0.0301379
10749.2	-0.0299251
10759.6	-0.0297114
10769.9	-0.0294964
10780.3	-0.0292799
10790.7	-0.0290617
10801	-0.0288414
10811.4	-0.0286189
10821.8	-0.0283938
10832.1	-0.0281658
10842.5	-0.0279347
10852.9	-0.0277001
10863.2	-0.0274617
10873.6	-0.0272192
10884	-0.0269723
10894.3	-0.0267207
10904.7	-0.0264639
10915.1	-0.0262017
10925.4	-0.0259337
10935.8	-0.0256596
10946.2	-0.0253791
10956.5	-0.0250917
10966.9	-0.0247972
10977.3	-0.0244952
10987.6	-0.0241854
10998	-0.0238675
11008.4	-0.0235411
11018.7	-0.0232059
11029.1	-0.0228617
11039.5	-0.022508
11049.8	-0.0221447
11060.2	-0.0217713
11070.6	-0.0213878
11080.9	-0.0209937
11091.3	-0.0205889
11101.7	-0.0201731
11112	-0.0197461
11122.4	-0.0193077
11132.7	-0.0188577
11143.1	-0.0183959
11153.5	-0.0179223
11163.8	-0.0174365
11174.2	-0.0169387
11184.6	-0.0164285
11194.9	-0.015906
11205.3	-0.0153712
11215.7	-0.0148239
11226	-0.0142642
11236.4	-0.013692
11246.8	-0.0131075
11257.1	-0.0125106
11267.5	-0.0119015
11277.9	-0.0112802
11288.2	-0.0106468
11298.6	-0.0100016
11309	-0.00934462
11319.3	-0.00867612
11329.7	-0.00799631
11340.1	-0.00730542
11350.4	-0.0066037
11360.8	-0.00589144
11371.2	-0.00516894
11381.5	-0.00443653
11391.9	-0.00369454
11402.3	-0.00294335
11412.6	-0.00218334
11423	-0.00141491
11433.4	-0.000638482
11443.7	0.000145504
11454.1	0.000936595
11464.5	0.00173432
11474.8	0.00253819
11485.2	0.00334771
11495.5	0.00416237
11505.9	0.00498164
11516.3	0.00580499
11526.6	0.00663187
11537	0.00746174
11547.4	0.00829403
11557.7	0.00912819
11568.1	0.00996363
11578.5	0.0107998
11588.8	0.0116361
11599.2	0.012472
11609.6	0.0133068
11619.9	0.0141401
11630.3	0.0149712
11640.7	0.0157997
11651	0.0166248
11661.4	0.0174461
11671.8	0.018263
11682.1	0.0190751
11692.5	0.0198817
11702.9	0.0206823
11713.2	0.0214765
11723.6	0.0222638
11734	0.0230437
11744.3	0.0238158
11754.7	0.0245795
11765.1	0.0253346
11775.4	0.0260805
11785.8	0.026817
11796.2	0.0275436
11806.5	0.0282601
11816.9	0.0289661
11827.3	0.0296613
11837.6	0.0303455
11848	0.0310183
11858.3	0.0316797
11868.7	0.0323293
11879.1	0.0329671
11889.4	0.0335928
11899.8	0.0342064
11910.2	0.0348076
11920.5	0.0353966
11930.9	0.0359731
11941.3	0.0365372
11951.6	0.0370888
11962	0.037628
11972.4	0.0381548
11982.7	0.0386691
11993.1	0.0391712
12003.5	0.0396611
12013.8	0.0401389
12024.2	0.0406047
12034.6	0.0410586
12044.9	0.0415008
12055.3	0.0419314
12065.7	0.0423507
12076	0.0427588
12086.4	0.0431559
12096.8	0.0435421
12107.1	0.0439178
12117.5	0.044283
12127.9	0.0446381
12138.2	0.0449832
12148.6	0.0453185
12159	0.0456443
12169.3	0.0459607
12179.7	0.0462679
12190.1	0.0465662
12200.4	0.0468557
12210.8	0.0471367
12221.1	0.0474091
12231.5	0.0476733
12241.9	0.0479294
12252.2	0.0481775
12262.6	0.0484176
12273	0.04865
12283.3	0.0488746
12293.7	0.0490915
12304.1	0.0493009
12314.4	0.0495026
12324.8	0.0496967
12335.2	0.0498832
12345.5	0.050062
12355.9	0.050233
12366.3	0.0503962
12376.6	0.0505515
12387	0.0506987
12397.4	0.0508377
12407.7	0.0509683
12418.1	0.0510902
12428.5	0.0512033
12438.8	0.0513074
12449.2	0.051402
12459.6	0.0514871
12469.9	0.0515622
12480.3	0.0516271
12490.7	0.0516814
12501	0.0517248
12511.4	0.0517568
12521.8	0.0517771
12532.1	0.0517853
12542.5	0.0517811
12552.9	0.0517638
12563.2	0.0517333
12573.6	0.0516889
12583.9	0.0516304
12594.3	0.0515571
12604.7	0.0514687
12615	0.0513648
12625.4	0.0512449
12635.8	0.0511085
12646.1	0.0509552
12656.5	0.0507846
12666.9	0.0505963
12677.2	0.0503899
12687.6	0.0501649
12698	0.049921
12708.3	0.0496578
12718.7	0.0493749
12729.1	0.049072
12739.4	0.0487489
12749.8	0.0484051
12760.2	0.0480405
12770.5	0.0476547
12780.9	0.0472476
12791.3	0.046819
12801.6	0.0463687
12812	0.0458965
12822.4	0.0454024
12832.7	0.0448862
12843.1	0.044348
12853.5	0.0437877
12863.8	0.0432053
12874.2	0.0426009
12884.6	0.0419745
12894.9	0.0413264
12905.3	0.0406565
12915.7	0.0399652
12926	0.0392526
12936.4	0.038519
12946.7	0.0377647
12957.1	0.0369899
12967.5	0.0361952
12977.8	0.0353807
12988.2	0.0345471
12998.6	0.0336946
13008.9	0.0328238
13019.3	0.0319352
13029.7	0.0310294
13040	0.0301068
13050.4	0.0291681
13060.8	0.028214
13071.1	0.027245
13081.5	0.0262618
13091.9	0.0252651
13102.2	0.0242556
13112.6	0.023234
13123	0.0222011
13133.3	0.0211577
13143.7	0.0201044
13154.1	0.0190421
13164.4	0.0179716
13174.8	0.0168936
13185.2	0.015809
13195.5	0.0147186
13205.9	0.0136233
13216.3	0.0125238
13226.6	0.0114209
13237	0.0103156
13247.4	0.00920852
13257.7	0.0081006
13268.1	0.00699262
13278.5	0.00588538
13288.8	0.00477969
13299.2	0.00367634
13309.5	0.00257609
13319.9	0.00147973
13330.3	0.00038799
13340.6	-0.000698379
13351	-0.00177866
13361.4	-0.00285214
13371.7	-0.00391813
13382.1	-0.00497597
13392.5	-0.006025
13402.8	-0.0070646
13413.2	-0.00809415
13423.6	-0.00911307
13433.9	-0.0101208
13444.3	-0.0111168
13454.7	-0.0121005
13465	-0.0130714
13475.4	-0.0140291
13485.8	-0.0149732
13496.1	-0.0159031
13506.5	-0.0168185
13516.9	-0.0177191
13527.2	-0.0186044
13537.6	-0.0194742
13548	-0.0203281
13558.3	-0.0211658
13568.7	-0.0219872
13579.1	-0.0227919
13589.4	-0.0235798
13599.8	-0.0243506
13610.2	-0.0251043
13620.5	-0.0258407
13630.9	-0.0265596
13641.3	-0.0272609
13651.6	-0.0279446
13662	-0.0286106
13672.3	-0.0292589
13682.7	-0.0298895
13693.1	-0.0305023
13703.4	-0.0310974
13713.8	-0.0316747
13724.2	-0.0322344
13734.5	-0.0327764
13744.9	-0.033301
13755.3	-0.0338081
13765.6	-0.0342979
13776	-0.0347704
13786.4	-0.0352259
13796.7	-0.0356644
13807.1	-0.036086
13817.5	-0.0364911
13827.8	-0.0368796
13838.2	-0.0372519
13848.6	-0.037608
13858.9	-0.0379482
13869.3	-0.0382727
13879.7	-0.0385817
13890	-0.0388753
13900.4	-0.0391539
13910.8	-0.0394175
13921.1	-0.0396665
13931.5	-0.0399011
13941.9	-0.0401216
13952.2	-0.040328
13962.6	-0.0405208
13973	-0.0407001
13983.3	-0.0408661
13993.7	-0.0410192
14004.1	-0.0411595
14014.4	-0.0412873
14024.8	-0.0414029
14035.1	-0.0415064
14045.5	-0.0415982
14055.9	-0.0416785
14066.2	-0.0417475
14076.6	-0.0418054
14087	-0.0418525
14097.3	-0.0418891
14107.7	-0.0419154
14118.1	-0.0419316
14128.4	-0.0419379
14138.8	-0.0419346
14149.2	-0.0419218
14159.5	-0.0418999
14169.9	-0.041869
14180.3	-0.0418294
14190.6	-0.0417812
14201	-0.0417247
14211.4	-0.04166
14221.7	-0.0415874
14232.1	-0.041507
14242.5	-0.0414191
14252.8	-0.0413238
14263.2	-0.0412213
14273.6	-0.0411117
14283.9	-0.0409952
14294.3	-0.0408721
14304.7	-0.0407423
14315	-0.0406062
14325.4	-0.0404637
14335.8	-0.0403151
14346.1	-0.0401604
14356.5	-0.0399999
14366.9	-0.0398335
14377.2	-0.0396614
14387.6	-0.0394838
14398	-0.0393006
14408.3	-0.0391119
14418.7	-0.0389179
14429	-0.0387186
14439.4	-0.0385141
14449.8	-0.0383044
14460.1	-0.0380895
14470.5	-0.0378696
14480.9	-0.0376446
14491.2	-0.0374145
14501.6	-0.0371794
14512	-0.0369393
14522.3	-0.0366941
14532.7	-0.036444
14543.1	-0.0361888
14553.4	-0.0359286
14563.8	-0.0356634
14574.2	-0.0353931
14584.5	-0.0351176
14594.9	-0.0348371
14605.3	-0.0345514
14615.6	-0.0342605
14626	-0.0339643
14636.4	-0.0336629
14646.7	-0.0333561
14657.1	-0.033044
14667.5	-0.0327265
14677.8	-0.0324035
14688.2	-0.0320749
14698.6	-0.0317409
14708.9	-0.0314012
14719.3	-0.0310559
14729.7	-0.0307049
14740	-0.0303482
14750.4	-0.0299858
14760.8	-0.0296175
14771.1	-0.0292435
14781.5	-0.0288637
14791.8	-0.028478
14802.2	-0.0280865
14812.6	-0.0276892
14822.9	-0.0272861
14833.3	-0.0268772
14843.7	-0.0264625
14854	-0.0260421
14864.4	-0.0256159
14874.8	-0.0251842
14885.1	-0.0247469
14895.5	-0.0243041
14905.9	-0.0238558
14916.2	-0.0234023
14926.6	-0.0229436
14937	-0.0224798
14947.3	-0.0220111
14957.7	-0.0215375
14968.1	-0.0210593
14978.4	-0.0205767
14988.8	-0.0200897
14999.2	-0.0195987
15009.5	-0.0191037
15019.9	-0.0186051
15030.3	-0.018103
15040.6	-0.0175977
15051	-0.0170894
15061.4	-0.0165785
15071.7	-0.016065
15082.1	-0.0155495
15092.5	-0.015032
15102.8	-0.014513
15113.2	-0.0139927
15123.6	-0.0134714
15133.9	-0.0129495
15144.3	-0.0124273
15154.6	-0.0119051
15165	-0.0113833
15175.4	-0.0108622
15185.7	-0.0103421
15196.1	-0.00982343
15206.5	-0.0093065
15216.8	-0.00879167
15227.2	-0.00827929
15237.6	-0.00776971
15247.9	-0.00726329
15258.3	-0.00676037
15268.7	-0.0062613
15279	-0.00576643
15289.4	-0.00527609
15299.8	-0.00479062
15310.1	-0.00431034
15320.5	-0.00383558
15330.9	-0.00336665
15341.2	-0.00290386
15351.6	-0.0024475
15362	-0.00199786
15372.3	-0.00155522
15382.7	-0.00111985
15393.1	-0.000692003
15403.4	-0.000271924
15413.8	0.000140155
15424.2	0.000544013
15434.5	0.000939445
15444.9	0.00132626
15455.3	0.00170427
15465.6	0.00207331
15476	0.00243324
15486.4	0.00278392
15496.7	0.00312522
15507.1	0.00345703
15517.4	0.00377926
15527.8	0.00409183
15538.2	0.00439468
15548.5	0.00468776
15558.9	0.00497102
15569.3	0.00524445
15579.6	0.00550804
15590	0.00576179
15600.4	0.00600572
15610.7	0.00623986
15621.1	0.00646425
15631.5	0.00667894
15641.8	0.00688401
15652.2	0.00707952
15662.6	0.00726556
15672.9	0.00744222
15683.3	0.00760962
15693.7	0.00776785
15704	0.00791705
15714.4	0.00805734
15724.8	0.00818884
15735.1	0.00831171
15745.5	0.00842608
15755.9	0.0085321
15766.2	0.00862991
15776.6	0.00871968
15787	0.00880156
15797.3	0.0088757
15807.7	0.00894225
15818.1	0.00900139
15828.4	0.00905325
15838.8	0.009098
15849.2	0.00913578
15859.5	0.00916674
15869.9	0.00919103
15880.3	0.0092088
15890.6	0.00922016
15901	0.00922526
15911.3	0.00922423
15921.7	0.00921717
15932.1	0.0092042
15942.4	0.00918544
15952.8	0.00916096
15963.2	0.00913088
15973.5	0.00909527
15983.9	0.0090542
15994.3	0.00900774
16004.6	0.00895595
16015	0.00889888
16025.4	0.00883656
16035.7	0.00876904
16046.1	0.00869634
16056.5	0.00861846
16066.8	0.00853542
16077.2	0.00844721
16087.6	0.00835383
16097.9	0.00825525
16108.3	0.00815145
16118.7	0.0080424
16129	0.00792806
16139.4	0.00780838
16149.8	0.0076833
16160.1	0.00755277
16170.5	0.00741672
16180.9	0.00727509
16191.2	0.0071278
16201.6	0.00697477
16212	0.00681592
16222.3	0.00665117
16232.7	0.00648043
16243.1	0.00630362
16253.4	0.00612064
16263.8	0.00593141
16274.1	0.00573585
16284.5	0.00553386
16294.9	0.00532535
16305.2	0.00511026
16315.6	0.00488849
16326	0.00465998
16336.3	0.00442465
16346.7	0.00418244
16357.1	0.00393329
16367.4	0.00367714
16377.8	0.00341395
16388.2	0.00314369
16398.5	0.00286632
16408.9	0.00258182
16419.3	0.00229018
16429.6	0.0019914
16440	0.0016855
16450.4	0.00137249
16460.7	0.00105241
16471.1	0.000725295
16481.5	0.000391214
16491.8	5.02351e-05
16502.2	-0.000297558
16512.6	-0.000652067
16522.9	-0.00101318
16533.3	-0.00138077
16543.7	-0.0017547
16554	-0.0021348
16564.4	-0.00252092
16574.8	-0.00291287
16585.1	-0.00331044
16595.5	-0.00371342
16605.9	-0.00412159
16616.2	-0.00453469
16626.6	-0.00495247
16636.9	-0.00537466
16647.3	-0.00580096
16657.7	-0.00623107
16668	-0.00666468
16678.4	-0.00710146
16688.8	-0.00754106
16699.1	-0.00798313
16709.5	-0.00842729
16719.9	-0.00887318
16730.2	-0.0093204
16740.6	-0.00976854
16751	-0.0102172
16761.3	-0.0106659
16771.7	-0.0111143
16782.1	-0.011562
16792.4	-0.0120083
16802.8	-0.0124531
16813.2	-0.0128956
16823.5	-0.0133356
16833.9	-0.0137724
16844.3	-0.0142057
16854.6	-0.014635
16865	-0.0150598
16875.4	-0.0154795
16885.7	-0.0158938
16896.1	-0.0163021
16906.5	-0.016704
16916.8	-0.017099
16927.2	-0.0174865
16937.6	-0.0178662
16947.9	-0.0182376
16958.3	-0.0186002
16968.7	-0.0189535
16979	-0.0192972
16989.4	-0.0196307
16999.7	-0.0199537
17010.1	-0.0202657
17020.5	-0.0205663
17030.8	-0.0208552
17041.2	-0.0211318
17051.6	-0.021396
17061.9	-0.0216472
17072.3	-0.0218853
17082.7	-0.0221098
17093	-0.0223204
17103.4	-0.0225168
17113.8	-0.0226988
17124.1	-0.0228661
17134.5	-0.0230185
17144.9	-0.0231557
17155.2	-0.0232776
17165.6	-0.0233839
17176	-0.0234745
17186.3	-0.0235492
17196.7	-0.0236079
17207.1	-0.0236506
17217.4	-0.0236771
17227.8	-0.0236873
17238.2	-0.0236813
17248.5	-0.023659
17258.9	-0.0236204
17269.3	-0.0235655
17279.6	-0.0234944
17290	-0.0234071
17300.4	-0.0233038
17310.7	-0.0231844
17321.1	-0.0230493
17331.5	-0.0228984
17341.8	-0.022732
17352.2	-0.0225502
17362.5	-0.0223533
17372.9	-0.0221415
17383.3	-0.021915
17393.6	-0.0216741
17404	-0.0214191
17414.4	-0.0211502
17424.7	-0.0208678
17435.1	-0.0205722
17445.5	-0.0202637
17455.8	-0.0199427
17466.2	-0.0196096
17476.6	-0.0192647
17486.9	-0.0189086
17497.3	-0.0185414
17507.7	-0.0181638
17518	-0.0177761
17528.4	-0.0173788
17538.8	-0.0169723
17549.1	-0.0165572
17559.5	-0.0161338
17569.9	-0.0157026
17580.2	-0.0152642
17590.6	-0.014819
17601	-0.0143676
17611.3	-0.0139104
17621.7	-0.013448
17632.1	-0.0129808
17642.4	-0.0125094
17652.8	-0.0120344
17663.2	-0.0115561
17673.5	-0.0110752
17683.9	-0.0105922
17694.3	-0.0101077
17704.6	-0.00962201
17715	-0.00913581
17725.4	-0.00864959
17735.7	-0.00816387
17746.1	-0.00767916
17756.4	-0.00719599
17766.8	-0.00671486
17777.2	-0.00623628
17787.5	-0.00576075
17797.9	-0.00528878
17808.3	-0.00482085
17818.6	-0.00435746
17829	-0.00389908
17839.4	-0.00344619
17849.7	-0.00299926
17860.1	-0.00255875
17870.5	-0.00212511
17880.8	-0.00169879
17891.2	-0.00128022
17901.6	-0.000869844
17911.9	-0.000468075
17922.3	-7.53248e-05
17932.7	0.000308003
17943	0.000681514
17953.4	0.00104483
17963.8	0.00139756
17974.1	0.00173936
17984.5	0.00206987
17994.9	0.00238874
18005.2	0.00269565
18015.6	0.00299026
18026	0.00327228
18036.3	0.0035414
18046.7	0.00379733
18057.1	0.0040398
18067.4	0.00426854
18077.8	0.0044833
18088.2	0.00468385
18098.5	0.00486994
18108.9	0.00504138
18119.2	0.00519795
18129.6	0.00533946
18140	0.00546575
18150.3	0.00557663
18160.7	0.00567198
18171.1	0.00575164
18181.4	0.00581549
18191.8	0.00586343
18202.2	0.00589536
18212.5	0.0059112
18222.9	0.00591088
18233.3	0.00589435
18243.6	0.00586157
18254	0.00581252
18264.4	0.00574719
18274.7	0.00566558
18285.1	0.00556773
18295.5	0.00545365
18305.8	0.00532342
18316.2	0.00517709
18326.6	0.00501475
18336.9	0.00483649
18347.3	0.00464244
18357.7	0.00443273
18368	0.0042075
18378.4	0.00396691
18388.8	0.00371114
18399.1	0.0034404
18409.5	0.00315488
18419.9	0.00285482
18430.2	0.00254046
18440.6	0.00221206
18451	0.00186989
18461.3	0.00151425
18471.7	0.00114545
18482	0.000763795
18492.4	0.000369639
18502.8	-3.66701e-05
18513.1	-0.000454762
18523.5	-0.000884253
18533.9	-0.00132474
18544.2	-0.00177582
18554.6	-0.00223706
18565	-0.00270802
18575.3	-0.00318823
18585.7	-0.00367724
18596.1	-0.00417457
18606.4	-0.00467971
18616.8	-0.00519216
18627.2	-0.0057114
18637.5	-0.00623691
18647.9	-0.00676814
18658.3	-0.00730455
18668.6	-0.00784557
18679	-0.00839064
18689.4	-0.00893917
18699.7	-0.00949058
18710.1	-0.0100443
18720.5	-0.0105997
18730.8	-0.0111562
18741.2	-0.0117131
18751.6	-0.0122699
18761.9	-0.012826
18772.3	-0.0133807
18782.7	-0.0139334
18793	-0.0144834
18803.4	-0.0150302
18813.8	-0.0155731
18824.1	-0.0161115
18834.5	-0.0166448
18844.8	-0.0171724
18855.2	-0.0176935
18865.6	-0.0182077
18875.9	-0.0187143
18886.3	-0.0192128
18896.7	-0.0197024
18907	-0.0201827
18917.4	-0.0206531
18927.8	-0.0211129
18938.1	-0.0215617
18948.5	-0.0219988
18958.9	-0.0224238
18969.2	-0.0228361
18979.6	-0.0232352
18990	-0.0236206
19000.3	-0.0239918
19010.7	-0.0243485
19021.1	-0.02469
19031.4	-0.025016
19041.8	-0.0253261
19052.2	-0.0256198
19062.5	-0.0258969
19072.9	-0.0261568
19083.3	-0.0263994
19093.6	-0.0266242
19104	-0.026831
19114.4	-0.0270194
19124.7	-0.0271893
19135.1	-0.0273405
19145.5	-0.0274726
19155.8	-0.0275855
19166.2	-0.027679
19176.6	-0.027753
19186.9	-0.0278074
19197.3	-0.0278421
19207.6	-0.027857
19218	-0.027852
19228.4	-0.0278271
19238.7	-0.0277824
19249.1	-0.0277178
19259.5	-0.0276334
19269.8	-0.0275293
19280.2	-0.0274055
19290.6	-0.0272621
19300.9	-0.0270994
19311.3	-0.0269174
19321.7	-0.0267164
19332	-0.0264965
19342.4	-0.0262579
19352.8	-0.026001
19363.1	-0.025726
19373.5	-0.0254331
19383.9	-0.0251227
19394.2	-0.0247951
19404.6	-0.0244506
19415	-0.0240896
19425.3	-0.0237125
19435.7	-0.0233197
19446.1	-0.0229116
19456.4	-0.0224886
19466.8	-0.0220511
19477.2	-0.0215996
19487.5	-0.0211347
19497.9	-0.0206566
19508.3	-0.0201661
19518.6	-0.0196635
19529	-0.0191493
19539.4	-0.0186242
19549.7	-0.0180885
19560.1	-0.017543
19570.5	-0.016988
19580.8	-0.0164242
19591.2	-0.0158521
19601.5	-0.0152723
19611.9	-0.0146853
19622.3	-0.0140917
19632.6	-0.0134921
19643	-0.0128871
19653.4	-0.0122772
19663.7	-0.011663
19674.1	-0.011045
19684.5	-0.0104239
19694.8	-0.00980021
19705.2	-0.00917446
19715.6	-0.00854723
19725.9	-0.00791908
19736.3	-0.00729056
19746.7	-0.00666222
19757	-0.00603458
19767.4	-0.00540818
19777.8	-0.00478355
19788.1	-0.00416119
19798.5	-0.00354161
19808.9	-0.0029253
19819.2	-0.00231277
19829.6	-0.00170447
19840	-0.00110087
19850.3	-0.000502432
19860.7	9.04052e-05
19871.1	0.000677211
19881.4	0.00125757
19891.8	0.00183107
19902.2	0.00239733
19912.5	0.00295596
19922.9	0.00350659
19933.3	0.00404889
19943.6	0.0045825
19954	0.0051071
19964.3	0.00562239
19974.7	0.00612806
19985.1	0.00662384
19995.4	0.00710946
