0	0
10.3422	0
20.6843	0
31.0265	0
41.3687	0
51.7109	0
62.053	0
72.3952	0
82.7374	0
93.0796	0
103.422	0
113.764	0
124.106	0
134.448	0
144.79	0
155.133	0
165.475	0
175.817	0
186.159	0
196.501	0
206.843	0
217.186	0
227.528	0
237.87	0
248.212	0
258.554	0
268.897	0
279.239	0
289.581	0
299.923	0
310.265	0
320.607	0
330.95	0
341.292	0
351.634	0
361.976	0
372.318	0
382.66	0
393.003	0
403.345	0
413.687	0
424.029	0
434.371	0
444.714	0
455.056	0
465.398	0
475.74	0
486.082	0
496.424	0
506.767	0
517.109	0
527.451	0
537.793	0
548.135	0
558.477	0
568.82	0
579.162	0
589.504	0
599.846	0
610.188	0
620.53	0
630.873	0
641.215	0
651.557	0
661.899	0
672.241	0
682.584	0
692.926	0
703.268	0
713.61	0
723.952	0
734.294	0
744.637	0
754.979	0
765.321	0
775.663	0
786.005	0
796.347	0
806.69	0
817.032	0
827.374	0
837.716	0
848.058	0
858.401	0
868.743	0
879.085	0
889.427	0
899.769	0
910.111	0
920.454	0
930.796	0
941.138	0
951.48	0
961.822	0
972.164	0
982.507	0
992.849	0
1003.19	0
1013.53	0
1023.88	0
1034.22	0
1044.56	0
1054.9	0
1065.24	0
1075.59	0
1085.93	0
1096.27	0
1106.61	0
1116.95	0
1127.3	0
1137.64	0
1147.98	0
1158.32	0
1168.67	0
1179.01	0
1189.35	0
1199.69	0
1210.03	0
1220.38	0
1230.72	0
1241.06	0
1251.4	0
1261.75	0
1272.09	0
1282.43	0
1292.77	0
1303.11	0
1313.46	0
1323.8	0
1334.14	0
1344.48	0
1354.82	0
1365.17	0
1375.51	0
1385.85	0
1396.19	0
1406.54	0
1416.88	0
1427.22	0
1437.56	0
1447.9	0
1458.25	0
1468.59	0
1478.93	0
1489.27	0
1499.62	0
1509.96	0
1520.3	0
1530.64	0
1540.98	0
1551.33	0
1561.67	0
1572.01	0
1582.35	0
1592.69	0
1603.04	0
1613.38	0
1623.72	0
1634.06	0
1644.41	0
1654.75	0
1665.09	0
1675.43	0
1685.77	0
1696.12	0
1706.46	0
1716.8	0
1727.14	0
1737.49	0
1747.83	0
1758.17	0
1768.51	0
1778.85	0
1789.2	0
1799.54	0
1809.88	0
1820.22	0
1830.56	0
1840.91	0
1851.25	0
1861.59	0
1871.93	0
1882.28	0
1892.62	0
1902.96	0
1913.3	0
1923.64	0
1933.99	0
1944.33	0
1954.67	0
1965.01	0
1975.36	0
1985.7	0
1996.04	0
2006.38	0
2016.72	0
2027.07	0
2037.41	0
2047.75	0
2058.09	0
2068.43	0
2078.78	0
2089.12	0
2099.46	0
2109.8	0
2120.15	0
2130.49	0
2140.83	0
2151.17	0
2161.51	0
2171.86	0
2182.2	0
2192.54	0
2202.88	0
2213.23	0
2223.57	0
2233.91	0
2244.25	0
2254.59	0
2264.94	0
2275.28	0
2285.62	0
2295.96	0
2306.3	0
2316.65	0
2326.99	0
2337.33	0
2347.67	0
2358.02	0
2368.36	0
2378.7	0
2389.04	0
2399.38	0
2409.73	0
2420.07	0
2430.41	0
2440.75	0
2451.1	0
2461.44	0
2471.78	-9.09495e-13
2482.12	-1.81899e-12
2492.46	-2.72848e-12
2502.81	-3.63798e-12
2513.15	-4.54747e-12
2523.49	-6.36646e-12
2533.83	-8.18545e-12
2544.17	-1.18234e-11
2554.52	-1.63709e-11
2564.86	-2.18279e-11
2575.2	-3.00133e-11
2585.54	-4.18368e-11
2595.89	-5.72982e-11
2606.23	-7.82165e-11
2616.57	-1.06411e-10
2626.91	-1.42791e-10
2637.25	-1.91903e-10
2647.6	-2.56478e-10
2657.94	-3.4197e-10
2668.28	-4.53838e-10
2678.62	-6.00267e-10
2688.97	-7.90351e-10
2699.31	-1.03773e-09
2709.65	-1.35697e-09
2719.99	-1.76715e-09
2730.33	-2.29375e-09
2740.68	-2.96768e-09
2751.02	-3.82624e-09
2761.36	-4.91582e-09
2771.7	-6.2937e-09
2782.04	-8.03175e-09
2792.39	-1.02154e-08
2802.73	-1.29512e-08
2813.07	-1.63673e-08
2823.41	-2.06192e-08
2833.76	-2.58951e-08
2844.1	-3.24208e-08
2854.44	-4.0468e-08
2864.78	-5.03605e-08
2875.12	-6.2485e-08
2885.47	-7.73025e-08
2895.81	-9.53569e-08
2906.15	-1.17293e-07
2916.49	-1.43868e-07
2926.84	-1.75972e-07
2937.18	-2.14648e-07
2947.52	-2.61113e-07
2957.86	-3.16785e-07
2968.2	-3.83308e-07
2978.55	-4.62587e-07
2988.89	-5.5682e-07
2999.23	-6.68538e-07
3009.57	-8.00645e-07
3019.91	-9.5647e-07
3030.26	-1.13981e-06
3040.6	-1.355e-06
3050.94	-1.60694e-06
3061.28	-1.90122e-06
3071.62	-2.24411e-06
3081.97	-2.64273e-06
3092.31	-3.10505e-06
3102.65	-3.64002e-06
3112.99	-4.25765e-06
3123.34	-4.96912e-06
3133.68	-5.78688e-06
3144.02	-6.72476e-06
3154.36	-7.79807e-06
3164.7	-9.02377e-06
3175.05	-1.04205e-05
3185.39	-1.20089e-05
3195.73	-1.38115e-05
3206.07	-1.5853e-05
3216.41	-1.81605e-05
3226.76	-2.07634e-05
3237.1	-2.36938e-05
3247.44	-2.69866e-05
3257.78	-3.06793e-05
3268.12	-3.48129e-05
3278.47	-3.94311e-05
3288.81	-4.45814e-05
3299.15	-5.03145e-05
3309.49	-5.66848e-05
3319.83	-6.37505e-05
3330.18	-7.15735e-05
3340.52	-8.02198e-05
3350.86	-8.97596e-05
3361.2	-0.000100267
3371.54	-0.000111821
3381.89	-0.000124503
3392.23	-0.000138402
3402.57	-0.000153607
3412.91	-0.000170216
3423.25	-0.000188328
3433.6	-0.000208046
3443.94	-0.00022948
3454.28	-0.000252741
3464.62	-0.000277945
3474.96	-0.000305211
3485.31	-0.000334661
3495.65	-0.000366421
3505.99	-0.000400619
3516.33	-0.000437385
3526.67	-0.000476849
3537.01	-0.000519144
3547.36	-0.000564403
3557.7	-0.000612757
3568.04	-0.000664338
3578.38	-0.000719275
3588.72	-0.000777693
3599.07	-0.000839715
3609.41	-0.000905456
3619.75	-0.000975027
3630.09	-0.00104853
3640.43	-0.00112606
3650.77	-0.00120769
3661.12	-0.0012935
3671.46	-0.00138354
3681.8	-0.00147785
3692.14	-0.00157645
3702.48	-0.00167933
3712.83	-0.00178648
3723.17	-0.00189785
3733.51	-0.00201336
3743.85	-0.0021329
3754.19	-0.00225633
3764.53	-0.00238347
3774.88	-0.00251412
3785.22	-0.00264801
3795.56	-0.00278483
3805.9	-0.00292424
3816.24	-0.00306582
3826.58	-0.00320912
3836.93	-0.00335362
3847.27	-0.00349873
3857.61	-0.0036438
3867.95	-0.00378812
3878.29	-0.00393088
3888.64	-0.00407122
3898.98	-0.00420819
3909.32	-0.00434075
3919.66	-0.00446778
3930	-0.00458807
3940.34	-0.00470031
3950.69	-0.00480309
3961.03	-0.00489493
3971.37	-0.00497422
3981.71	-0.00503925
3992.05	-0.00508823
4002.39	-0.00511923
4012.74	-0.00513025
4023.08	-0.00511917
4033.42	-0.00508375
4043.76	-0.00502166
4054.1	-0.00493047
4064.44	-0.00480763
4074.79	-0.00465053
4085.13	-0.00445641
4095.47	-0.00422246
4105.81	-0.00394577
4116.15	-0.00362335
4126.5	-0.00325213
4136.84	-0.00282896
4147.18	-0.00235066
4157.52	-0.00181397
4167.86	-0.00121559
4178.2	-0.000552201
4188.55	0.00017956
4198.89	0.000983055
4209.23	0.00186165
4219.57	0.0028187
4229.91	0.00385753
4240.26	0.00498144
4250.6	0.00619364
4260.94	0.00749731
4271.28	0.00889553
4281.62	0.0103913
4291.96	0.0119874
4302.31	0.0136866
4312.65	0.0154915
4322.99	0.0174045
4333.33	0.0194278
4343.67	0.0215635
4354.02	0.0238132
4364.36	0.0261787
4374.7	0.0286611
4385.04	0.0312615
4395.38	0.0339808
4405.73	0.0368193
4416.07	0.0397772
4426.41	0.0428542
4436.75	0.04605
4447.09	0.0493635
4457.44	0.0527936
4467.78	0.0563385
4478.12	0.0599964
4488.46	0.0637649
4498.81	0.0676411
4509.15	0.0716218
4519.49	0.0757035
4529.83	0.0798822
4540.17	0.0841535
4550.52	0.0885126
4560.86	0.0929542
4571.2	0.0974727
4581.54	0.102062
4591.88	0.106716
4602.23	0.111428
4612.57	0.116191
4622.91	0.120997
4633.25	0.125839
4643.6	0.130708
4653.94	0.135596
4664.28	0.140494
4674.62	0.145394
4684.96	0.150286
4695.31	0.155161
4705.65	0.160009
4715.99	0.164821
4726.33	0.169586
4736.67	0.174296
4747.02	0.178938
4757.36	0.183505
4767.7	0.187985
4778.04	0.192368
4788.39	0.196644
4798.73	0.200803
4809.07	0.204836
4819.41	0.208732
4829.75	0.212483
4840.1	0.216077
4850.44	0.219507
4860.78	0.222764
4871.12	0.225838
4881.46	0.228722
4891.81	0.231407
4902.15	0.233885
4912.49	0.236151
4922.83	0.238195
4933.18	0.240014
4943.52	0.241599
4953.86	0.242947
4964.2	0.244051
4974.54	0.244908
4984.89	0.245514
4995.23	0.245865
5005.57	0.245959
5015.91	0.245793
5026.25	0.245365
5036.6	0.244675
5046.94	0.243723
5057.28	0.242507
5067.62	0.24103
5077.97	0.239292
5088.31	0.237295
5098.65	0.235042
5108.99	0.232535
5119.33	0.229779
5129.68	0.226778
5140.02	0.223536
5150.36	0.220059
5160.7	0.216352
5171.04	0.212422
5181.39	0.208275
5191.73	0.20392
5202.07	0.199363
5212.41	0.194612
5222.76	0.189677
5233.1	0.184566
5243.44	0.179289
5253.78	0.173854
5264.12	0.168272
5274.47	0.162554
5284.81	0.156708
5295.15	0.150747
5305.49	0.144681
5315.83	0.13852
5326.18	0.132276
5336.52	0.125959
5346.86	0.119582
5357.2	0.113155
5367.55	0.106689
5377.89	0.100195
5388.23	0.0936857
5398.57	0.0871706
5408.91	0.080661
5419.26	0.0741676
5429.6	0.067701
5439.94	0.0612714
5450.28	0.054889
5460.62	0.0485635
5470.97	0.0423047
5481.31	0.0361216
5491.65	0.0300234
5501.99	0.0240184
5512.34	0.0181151
5522.68	0.0123212
5533.02	0.00664412
5543.36	0.001091
5553.7	-0.00433157
5564.05	-0.00961741
5574.39	-0.0147608
5584.73	-0.0197563
5595.07	-0.0245993
5605.41	-0.0292852
5615.76	-0.0338102
5626.1	-0.0381708
5636.44	-0.0423641
5646.78	-0.0463875
5657.13	-0.050239
5667.47	-0.053917
5677.81	-0.0574203
5688.15	-0.0607481
5698.49	-0.0639004
5708.84	-0.0668771
5719.18	-0.069679
5729.52	-0.0723069
5739.86	-0.0747622
5750.2	-0.0770466
5760.55	-0.0791623
5770.89	-0.0811117
5781.23	-0.0828975
5791.57	-0.0845229
5801.92	-0.0859911
5812.26	-0.0873059
5822.6	-0.0884711
5832.94	-0.0894909
5843.28	-0.0903695
5853.63	-0.0911116
5863.97	-0.0917218
5874.31	-0.092205
5884.65	-0.0925662
5894.99	-0.0928105
5905.34	-0.0929431
5915.68	-0.0929693
5926.02	-0.0928944
5936.36	-0.0927238
5946.71	-0.0924628
5957.05	-0.092117
5967.39	-0.0916916
5977.73	-0.0911921
5988.07	-0.0906236
5998.42	-0.0899916
6008.76	-0.0893011
6019.1	-0.0885572
6029.44	-0.0877649
6039.79	-0.086929
6050.13	-0.0860544
6060.47	-0.0851456
6070.81	-0.084207
6081.15	-0.0832431
6091.5	-0.0822579
6101.84	-0.0812554
6112.18	-0.0802395
6122.52	-0.0792139
6132.86	-0.0781819
6143.21	-0.0771468
6153.55	-0.0761118
6163.89	-0.0750799
6174.23	-0.0740536
6184.58	-0.0730355
6194.92	-0.0720281
6205.26	-0.0710334
6215.6	-0.0700535
6225.94	-0.0690902
6236.29	-0.0681451
6246.63	-0.0672196
6256.97	-0.0663151
6267.31	-0.0654326
6277.65	-0.0645731
6288	-0.0637375
6298.34	-0.0629263
6308.68	-0.0621401
6319.02	-0.0613793
6329.37	-0.060644
6339.71	-0.0599344
6350.05	-0.0592506
6360.39	-0.0585923
6370.73	-0.0579593
6381.08	-0.0573514
6391.42	-0.056768
6401.76	-0.0562088
6412.1	-0.055673
6422.45	-0.0551601
6432.79	-0.0546693
6443.13	-0.0541999
6453.47	-0.0537509
6463.81	-0.0533215
6474.16	-0.0529108
6484.5	-0.0525178
6494.84	-0.0521416
6505.18	-0.051781
6515.52	-0.051435
6525.87	-0.0511026
6536.21	-0.0507828
6546.55	-0.0504744
6556.89	-0.0501763
6567.24	-0.0498876
6577.58	-0.049607
6587.92	-0.0493337
6598.26	-0.0490665
6608.6	-0.0488043
6618.95	-0.0485463
6629.29	-0.0482914
6639.63	-0.0480386
6649.97	-0.0477871
6660.32	-0.0475358
6670.66	-0.0472841
6681	-0.0470309
6691.34	-0.0467755
6701.68	-0.0465172
6712.03	-0.0462552
6722.37	-0.0459889
6732.71	-0.0457175
6743.05	-0.0454405
6753.4	-0.0451572
6763.74	-0.0448673
6774.08	-0.0445701
6784.42	-0.0442653
6794.76	-0.0439524
6805.11	-0.0436311
6815.45	-0.0433011
6825.79	-0.0429621
6836.13	-0.0426138
6846.47	-0.0422561
6856.82	-0.0418889
6867.16	-0.0415119
6877.5	-0.0411252
6887.84	-0.0407287
6898.19	-0.0403224
6908.53	-0.0399063
6918.87	-0.0394806
6929.21	-0.0390454
6939.55	-0.0386008
6949.9	-0.0381469
6960.24	-0.0376841
6970.58	-0.0372126
6980.92	-0.0367326
6991.27	-0.0362444
7001.61	-0.0357485
7011.95	-0.0352451
7022.29	-0.0347346
7032.63	-0.0342175
7042.98	-0.0336943
7053.32	-0.0331652
7063.66	-0.032631
7074	-0.0320919
7084.35	-0.0315486
7094.69	-0.0310016
7105.03	-0.0304514
7115.37	-0.0298987
7125.71	-0.0293439
7136.06	-0.0287876
7146.4	-0.0282304
7156.74	-0.027673
7167.08	-0.027116
7177.42	-0.0265599
7187.77	-0.0260053
7198.11	-0.0254529
7208.45	-0.0249033
7218.79	-0.0243571
7229.14	-0.0238149
7239.48	-0.0232774
7249.82	-0.022745
7260.16	-0.0222185
7270.5	-0.0216983
7280.85	-0.0211851
7291.19	-0.0206795
7301.53	-0.020182
7311.87	-0.0196931
7322.22	-0.0192133
7332.56	-0.0187433
7342.9	-0.0182834
7353.24	-0.0178342
7363.58	-0.0173962
7373.93	-0.0169697
7384.27	-0.0165551
7394.61	-0.016153
7404.95	-0.0157637
7415.29	-0.0153875
7425.64	-0.0150247
7435.98	-0.0146758
7446.32	-0.0143409
7456.66	-0.0140204
7467.01	-0.0137144
7477.35	-0.0134232
7487.69	-0.013147
7498.03	-0.0128859
7508.37	-0.0126401
7518.72	-0.0124096
7529.06	-0.0121946
7539.4	-0.0119951
7549.74	-0.0118111
7560.08	-0.0116426
7570.43	-0.0114896
7580.77	-0.0113521
7591.11	-0.0112299
7601.45	-0.011123
7611.79	-0.0110311
7622.14	-0.0109543
7632.48	-0.0108922
7642.82	-0.0108446
7653.16	-0.0108114
7663.51	-0.0107922
7673.85	-0.0107868
7684.19	-0.0107949
7694.53	-0.0108161
7704.87	-0.0108502
7715.22	-0.0108966
7725.56	-0.0109551
7735.9	-0.0110253
7746.24	-0.0111067
7756.58	-0.0111988
7766.93	-0.0113013
7777.27	-0.0114136
7787.61	-0.0115353
7797.95	-0.0116659
7808.3	-0.0118048
7818.64	-0.0119516
7828.98	-0.0121056
7839.32	-0.0122665
7849.66	-0.0124335
7860.01	-0.0126062
7870.35	-0.012784
7880.69	-0.0129663
7891.03	-0.0131526
7901.37	-0.0133423
7911.72	-0.0135348
7922.06	-0.0137296
7932.4	-0.013926
7942.74	-0.0141235
7953.08	-0.0143216
7963.43	-0.0145196
7973.77	-0.014717
7984.11	-0.0149133
7994.45	-0.0151078
8004.8	-0.0153001
8015.14	-0.0154896
8025.48	-0.0156758
8035.82	-0.0158582
8046.16	-0.0160363
8056.51	-0.0162095
8066.85	-0.0163774
8077.19	-0.0165395
8087.53	-0.0166954
8097.87	-0.0168447
8108.22	-0.0169868
8118.56	-0.0171214
8128.9	-0.0172481
8139.24	-0.0173665
8149.58	-0.0174762
8159.93	-0.017577
8170.27	-0.0176684
8180.61	-0.0177502
8190.95	-0.017822
8201.3	-0.0178836
8211.64	-0.0179347
8221.98	-0.0179752
8232.32	-0.0180047
8242.66	-0.018023
8253.01	-0.0180301
8263.35	-0.0180257
8273.69	-0.0180096
8284.03	-0.0179819
8294.37	-0.0179422
8304.72	-0.0178907
8315.06	-0.0178271
8325.4	-0.0177515
8335.74	-0.0176638
8346.08	-0.017564
8356.43	-0.0174522
8366.77	-0.0173282
8377.11	-0.0171923
8387.45	-0.0170443
8397.8	-0.0168845
8408.14	-0.0167129
8418.48	-0.0165296
8428.82	-0.0163347
8439.16	-0.0161284
8449.51	-0.0159109
8459.85	-0.0156822
8470.19	-0.0154426
8480.53	-0.0151923
8490.87	-0.0149315
8501.22	-0.0146604
8511.56	-0.0143792
8521.9	-0.0140882
8532.24	-0.0137877
8542.58	-0.0134779
8552.93	-0.0131591
8563.27	-0.0128316
8573.61	-0.0124957
8583.95	-0.0121516
8594.3	-0.0117998
8604.64	-0.0114405
8614.98	-0.011074
8625.32	-0.0107008
8635.66	-0.010321
8646.01	-0.00993521
8656.35	-0.0095436
8666.69	-0.00914659
8677.03	-0.00874453
8687.37	-0.00833779
8697.72	-0.00792673
8708.06	-0.00751172
8718.4	-0.00709313
8728.74	-0.00667134
8739.09	-0.00624672
8749.43	-0.00581963
8759.77	-0.00539046
8770.11	-0.00495957
8780.45	-0.00452735
8790.8	-0.00409415
8801.14	-0.00366034
8811.48	-0.0032263
8821.82	-0.00279238
8832.16	-0.00235895
8842.51	-0.00192636
8852.85	-0.00149495
8863.19	-0.00106509
8873.53	-0.000637115
8883.88	-0.000211358
8894.22	0.000211846
8904.56	0.000632171
8914.9	0.00104929
8925.24	0.0014629
8935.59	0.00187269
8945.93	0.00227836
8956.27	0.00267961
8966.61	0.00307616
8976.95	0.00346773
8987.3	0.00385406
8997.64	0.00423487
9007.98	0.00460993
9018.32	0.00497897
9028.67	0.00534177
9039.01	0.0056981
9049.35	0.00604774
9059.69	0.00639049
9070.03	0.00672614
9080.38	0.00705451
9090.72	0.00737541
9101.06	0.00768867
9111.4	0.00799413
9121.74	0.00829164
9132.09	0.00858107
9142.43	0.00886227
9152.77	0.00913512
9163.11	0.00939951
9173.46	0.00965534
9183.8	0.00990251
9194.14	0.0101409
9204.48	0.0103706
9214.82	0.0105913
9225.17	0.0108031
9235.51	0.0110059
9245.85	0.0111997
9256.19	0.0113844
9266.53	0.0115601
9276.88	0.0117267
9287.22	0.0118842
9297.56	0.0120326
9307.9	0.0121719
9318.25	0.0123022
9328.59	0.0124234
9338.93	0.0125357
9349.27	0.012639
9359.61	0.0127334
9369.96	0.012819
9380.3	0.0128957
9390.64	0.0129637
9400.98	0.0130231
9411.32	0.0130739
9421.67	0.0131163
9432.01	0.0131502
9442.35	0.0131758
9452.69	0.0131932
9463.04	0.0132024
9473.38	0.0132037
9483.72	0.013197
9494.06	0.0131826
9504.4	0.0131604
9514.75	0.0131307
9525.09	0.0130935
9535.43	0.013049
9545.77	0.0129973
9556.11	0.0129385
9566.46	0.0128727
9576.8	0.0128
9587.14	0.0127207
9597.48	0.0126347
9607.83	0.0125422
9618.17	0.0124434
9628.51	0.0123384
9638.85	0.0122272
9649.19	0.0121101
9659.54	0.0119871
9669.88	0.0118583
9680.22	0.0117239
9690.56	0.011584
9700.9	0.0114387
9711.25	0.0112881
9721.59	0.0111324
9731.93	0.0109715
9742.27	0.0108058
9752.62	0.0106351
9762.96	0.0104597
9773.3	0.0102797
9783.64	0.0100951
9793.98	0.00990612
9804.33	0.00971273
9814.67	0.00951507
9825.01	0.00931323
9835.35	0.00910731
9845.7	0.00889737
9856.04	0.00868351
9866.38	0.0084658
9876.72	0.00824432
9887.06	0.00801915
9897.41	0.00779036
9907.75	0.00755803
9918.09	0.00732222
9928.43	0.007083
9938.77	0.00684044
9949.12	0.0065946
9959.46	0.00634555
9969.8	0.00609335
9980.14	0.00583805
9990.49	0.00557973
10000.8	0.00531844
10011.2	0.00505424
10021.5	0.00478719
10031.9	0.00451734
10042.2	0.00424475
10052.5	0.00396947
10062.9	0.00369158
10073.2	0.00341111
10083.6	0.00312813
10093.9	0.0028427
10104.2	0.00255487
10114.6	0.0022647
10124.9	0.00197224
10135.3	0.00167757
10145.6	0.00138073
10156	0.00108178
10166.3	0.000780799
10176.6	0.000477834
10187	0.000172953
10197.3	-0.000133779
10207.7	-0.000442299
10218	-0.000752537
10228.4	-0.00106443
10238.7	-0.0013779
10249	-0.00169289
10259.4	-0.00200931
10269.7	-0.00232711
10280.1	-0.0026462
10290.4	-0.00296651
10300.8	-0.00328796
10311.1	-0.00361047
10321.4	-0.00393398
10331.8	-0.00425838
10342.1	-0.00458362
10352.5	-0.0049096
10362.8	-0.00523625
10373.1	-0.00556347
10383.5	-0.00589119
10393.8	-0.00621932
10404.2	-0.00654777
10414.5	-0.00687647
10424.9	-0.00720533
10435.2	-0.00753425
10445.5	-0.00786316
10455.9	-0.00819196
10466.2	-0.00852058
10476.6	-0.00884893
10486.9	-0.00917692
10497.3	-0.00950447
10507.6	-0.0098315
10517.9	-0.0101579
10528.3	-0.0104836
10538.6	-0.0108086
10549	-0.0111327
10559.3	-0.0114559
10569.6	-0.011778
10580	-0.0120991
10590.3	-0.012419
10600.7	-0.0127377
10611	-0.0130551
10621.4	-0.0133711
10631.7	-0.0136857
10642	-0.0139988
10652.4	-0.0143103
10662.7	-0.0146201
10673.1	-0.0149283
10683.4	-0.0152347
10693.8	-0.0155393
10704.1	-0.0158421
10714.4	-0.0161429
10724.8	-0.0164418
10735.1	-0.0167387
10745.5	-0.0170336
10755.8	-0.0173263
10766.1	-0.0176169
10776.5	-0.0179054
10786.8	-0.0181916
10797.2	-0.0184756
10807.5	-0.0187574
10817.9	-0.0190368
10828.2	-0.0193139
10838.5	-0.0195887
10848.9	-0.0198611
10859.2	-0.0201311
10869.6	-0.0203986
10879.9	-0.0206638
10890.3	-0.0209264
10900.6	-0.0211866
10910.9	-0.0214443
10921.3	-0.0216996
10931.6	-0.0219523
10942	-0.0222024
10952.3	-0.0224501
10962.6	-0.0226952
10973	-0.0229377
10983.3	-0.0231776
10993.7	-0.023415
11004	-0.0236498
11014.4	-0.023882
11024.7	-0.0241115
11035	-0.0243385
11045.4	-0.0245628
11055.7	-0.0247844
11066.1	-0.0250034
11076.4	-0.0252197
11086.8	-0.0254333
11097.1	-0.0256443
11107.4	-0.0258525
11117.8	-0.0260579
11128.1	-0.0262606
11138.5	-0.0264605
11148.8	-0.0266576
11159.2	-0.0268519
11169.5	-0.0270433
11179.8	-0.0272318
11190.2	-0.0274174
11200.5	-0.0276001
11210.9	-0.0277798
11221.2	-0.0279564
11231.5	-0.02813
11241.9	-0.0283004
11252.2	-0.0284678
11262.6	-0.0286319
11272.9	-0.0287928
11283.3	-0.0289503
11293.6	-0.0291046
11303.9	-0.0292554
11314.3	-0.0294027
11324.6	-0.0295466
11335	-0.0296868
11345.3	-0.0298234
11355.7	-0.0299563
11366	-0.0300854
11376.3	-0.0302106
11386.7	-0.0303319
11397	-0.0304492
11407.4	-0.0305624
11417.7	-0.0306714
11428	-0.0307762
11438.4	-0.0308767
11448.7	-0.0309728
11459.1	-0.0310644
11469.4	-0.0311514
11479.8	-0.0312337
11490.1	-0.0313113
11500.4	-0.031384
11510.8	-0.0314518
11521.1	-0.0315146
11531.5	-0.0315723
11541.8	-0.0316247
11552.2	-0.0316719
11562.5	-0.0317137
11572.8	-0.03175
11583.2	-0.0317807
11593.5	-0.0318058
11603.9	-0.0318251
11614.2	-0.0318386
11624.5	-0.0318462
11634.9	-0.0318478
11645.2	-0.0318432
11655.6	-0.0318325
11665.9	-0.0318155
11676.3	-0.0317922
11686.6	-0.0317624
11696.9	-0.0317261
11707.3	-0.0316832
11717.6	-0.0316337
11728	-0.0315774
11738.3	-0.0315143
11748.7	-0.0314444
11759	-0.0313675
11769.3	-0.0312836
11779.7	-0.0311926
11790	-0.0310945
11800.4	-0.0309892
11810.7	-0.0308767
11821	-0.0307569
11831.4	-0.0306298
11841.7	-0.0304954
11852.1	-0.0303535
11862.4	-0.0302041
11872.8	-0.0300473
11883.1	-0.029883
11893.4	-0.0297111
11903.8	-0.0295317
11914.1	-0.0293447
11924.5	-0.0291501
11934.8	-0.0289479
11945.2	-0.0287381
11955.5	-0.0285207
11965.8	-0.0282957
11976.2	-0.028063
11986.5	-0.0278227
11996.9	-0.0275749
12007.2	-0.0273194
12017.6	-0.0270564
12027.9	-0.0267858
12038.2	-0.0265077
12048.6	-0.0262221
12058.9	-0.025929
12069.3	-0.0256285
12079.6	-0.0253206
12089.9	-0.0250054
12100.3	-0.0246829
12110.6	-0.0243531
12121	-0.0240161
12131.3	-0.0236719
12141.7	-0.0233207
12152	-0.0229625
12162.3	-0.0225973
12172.7	-0.0222252
12183	-0.0218463
12193.4	-0.0214607
12203.7	-0.0210684
12214.1	-0.0206695
12224.4	-0.0202642
12234.7	-0.0198524
12245.1	-0.0194343
12255.4	-0.0190101
12265.8	-0.0185797
12276.1	-0.0181432
12286.4	-0.0177009
12296.8	-0.0172528
12307.1	-0.0167989
12317.5	-0.0163395
12327.8	-0.0158746
12338.2	-0.0154043
12348.5	-0.0149288
12358.8	-0.0144481
12369.2	-0.0139625
12379.5	-0.0134719
12389.9	-0.0129767
12400.2	-0.0124768
12410.6	-0.0119724
12420.9	-0.0114637
12431.2	-0.0109508
12441.6	-0.0104338
12451.9	-0.00991282
12462.3	-0.00938808
12472.6	-0.0088597
12482.9	-0.00832781
12493.3	-0.00779256
12503.6	-0.00725411
12514	-0.00671261
12524.3	-0.0061682
12534.7	-0.00562105
12545	-0.0050713
12555.3	-0.00451912
12565.7	-0.00396466
12576	-0.00340809
12586.4	-0.00284956
12596.7	-0.00228924
12607.1	-0.00172729
12617.4	-0.00116387
12627.7	-0.000599161
12638.1	-3.33165e-05
12648.4	0.000533492
12658.8	0.0011011
12669.1	0.00166933
12679.4	0.00223801
12689.8	0.00280698
12700.1	0.00337607
12710.5	0.0039451
12720.8	0.0045139
12731.2	0.0050823
12741.5	0.00565012
12751.8	0.00621719
12762.2	0.00678334
12772.5	0.0073484
12782.9	0.00791218
12793.2	0.00847453
12803.6	0.00903526
12813.9	0.0095942
12824.2	0.0101512
12834.6	0.010706
12844.9	0.0112585
12855.3	0.0118086
12865.6	0.012356
12876	0.0129006
12886.3	0.0134422
12896.6	0.0139806
12907	0.0145157
12917.3	0.0150473
12927.7	0.0155753
12938	0.0160994
12948.3	0.0166195
12958.7	0.0171354
12969	0.0176471
12979.4	0.0181542
12989.7	0.0186567
13000.1	0.0191544
13010.4	0.0196472
13020.7	0.0201348
13031.1	0.0206172
13041.4	0.0210941
13051.8	0.0215655
13062.1	0.0220312
13072.5	0.022491
13082.8	0.0229447
13093.1	0.0233924
13103.5	0.0238337
13113.8	0.0242686
13124.2	0.0246969
13134.5	0.0251185
13144.8	0.0255332
13155.2	0.025941
13165.5	0.0263417
13175.9	0.0267351
13186.2	0.0271212
13196.6	0.0274998
13206.9	0.0278707
13217.2	0.028234
13227.6	0.0285894
13237.9	0.0289369
13248.3	0.0292763
13258.6	0.0296075
13269	0.0299304
13279.3	0.030245
13289.6	0.030551
13300	0.0308485
13310.3	0.0311373
13320.7	0.0314172
13331	0.0316884
13341.3	0.0319505
13351.7	0.0322036
13362	0.0324475
13372.4	0.0326822
13382.7	0.0329076
13393.1	0.0331236
13403.4	0.0333302
13413.7	0.0335272
13424.1	0.0337146
13434.4	0.0338923
13444.8	0.0340603
13455.1	0.0342185
13465.5	0.0343668
13475.8	0.0345052
13486.1	0.0346336
13496.5	0.0347519
13506.8	0.0348602
13517.2	0.0349583
13527.5	0.0350462
13537.8	0.0351239
13548.2	0.0351913
13558.5	0.0352484
13568.9	0.0352952
13579.2	0.0353315
13589.6	0.0353575
13599.9	0.035373
13610.2	0.035378
13620.6	0.0353725
13630.9	0.0353565
13641.3	0.0353299
13651.6	0.0352928
13662	0.0352451
13672.3	0.0351868
13682.6	0.0351179
13693	0.0350384
13703.3	0.0349483
13713.7	0.0348476
13724	0.0347362
13734.4	0.0346143
13744.7	0.0344818
13755	0.0343386
13765.4	0.0341849
13775.7	0.0340207
13786.1	0.0338459
13796.4	0.0336605
13806.7	0.0334647
13817.1	0.0332584
13827.4	0.0330416
13837.8	0.0328144
13848.1	0.0325769
13858.5	0.032329
13868.8	0.0320708
13879.1	0.0318023
13889.5	0.0315237
13899.8	0.0312349
13910.2	0.030936
13920.5	0.030627
13930.9	0.0303081
13941.2	0.0299793
13951.5	0.0296406
13961.9	0.0292921
13972.2	0.028934
13982.6	0.0285662
13992.9	0.0281889
14003.2	0.0278021
14013.6	0.027406
14023.9	0.0270006
14034.3	0.026586
14044.6	0.0261624
14055	0.0257298
14065.3	0.0252883
14075.6	0.0248381
14086	0.0243793
14096.3	0.0239119
14106.7	0.0234362
14117	0.0229523
14127.4	0.0224602
14137.7	0.0219601
14148	0.0214523
14158.4	0.0209367
14168.7	0.0204135
14179.1	0.019883
14189.4	0.0193453
14199.7	0.0188005
14210.1	0.0182488
14220.4	0.0176903
14230.8	0.0171253
14241.1	0.0165539
14251.5	0.0159764
14261.8	0.0153928
14272.1	0.0148034
14282.5	0.0142084
14292.8	0.013608
14303.2	0.0130024
14313.5	0.0123918
14323.9	0.0117763
14334.2	0.0111563
14344.5	0.010532
14354.9	0.00990353
14365.2	0.00927115
14375.6	0.00863511
14385.9	0.00799564
14396.2	0.00735297
14406.6	0.00670734
14416.9	0.00605902
14427.3	0.00540823
14437.6	0.00475524
14448	0.00410031
14458.3	0.00344368
14468.6	0.00278563
14479	0.00212642
14489.3	0.00146631
14499.7	0.000805571
14510	0.00014448
14520.4	-0.000516693
14530.7	-0.00117767
14541	-0.00183817
14551.4	-0.00249792
14561.7	-0.00315664
14572.1	-0.00381404
14582.4	-0.00446984
14592.8	-0.00512375
14603.1	-0.00577549
14613.4	-0.00642478
14623.8	-0.00707133
14634.1	-0.00771484
14644.5	-0.00835504
14654.8	-0.00899164
14665.1	-0.00962436
14675.5	-0.0102529
14685.8	-0.010877
14696.2	-0.0114963
14706.5	-0.0121107
14716.9	-0.0127197
14727.2	-0.0133232
14737.5	-0.0139208
14747.9	-0.0145122
14758.2	-0.0150973
14768.6	-0.0156758
14778.9	-0.0162473
14789.3	-0.0168116
14799.6	-0.0173685
14809.9	-0.0179177
14820.3	-0.0184589
14830.6	-0.018992
14841	-0.0195166
14851.3	-0.0200326
14861.6	-0.0205397
14872	-0.0210377
14882.3	-0.0215264
14892.7	-0.0220055
14903	-0.0224749
14913.4	-0.0229343
14923.7	-0.0233836
14934	-0.0238226
14944.4	-0.0242511
14954.7	-0.0246689
14965.1	-0.0250759
14975.4	-0.0254719
14985.8	-0.0258567
14996.1	-0.0262303
15006.4	-0.0265925
15016.8	-0.0269431
15027.1	-0.0272821
15037.5	-0.0276093
15047.8	-0.0279247
15058.1	-0.0282282
15068.5	-0.0285196
15078.8	-0.028799
15089.2	-0.0290662
15099.5	-0.0293212
15109.9	-0.0295639
15120.2	-0.0297944
15130.5	-0.0300126
15140.9	-0.0302185
15151.2	-0.030412
15161.6	-0.0305933
15171.9	-0.0307622
15182.3	-0.0309189
15192.6	-0.0310633
15202.9	-0.0311955
15213.3	-0.0313156
15223.6	-0.0314236
15234	-0.0315196
15244.3	-0.0316036
15254.6	-0.0316758
15265	-0.0317363
15275.3	-0.0317851
15285.7	-0.0318224
15296	-0.0318483
15306.4	-0.0318629
15316.7	-0.0318663
15327	-0.0318588
15337.4	-0.0318404
15347.7	-0.0318114
15358.1	-0.0317719
15368.4	-0.031722
15378.8	-0.031662
15389.1	-0.0315921
15399.4	-0.0315124
15409.8	-0.0314231
15420.1	-0.0313245
15430.5	-0.0312168
15440.8	-0.0311001
15451.2	-0.0309748
15461.5	-0.030841
15471.8	-0.0306989
15482.2	-0.0305489
15492.5	-0.0303911
15502.9	-0.0302258
15513.2	-0.0300532
15523.5	-0.0298736
15533.9	-0.0296872
15544.2	-0.0294943
15554.6	-0.0292952
15564.9	-0.02909
15575.3	-0.0288791
15585.6	-0.0286626
15595.9	-0.028441
15606.3	-0.0282143
15616.6	-0.0279829
15627	-0.0277471
15637.3	-0.027507
15647.7	-0.027263
15658	-0.0270152
15668.3	-0.026764
15678.7	-0.0265096
15689	-0.0262522
15699.4	-0.0259921
15709.7	-0.0257295
15720	-0.0254646
15730.4	-0.0251978
15740.7	-0.0249291
15751.1	-0.0246589
15761.4	-0.0243873
15771.8	-0.0241146
15782.1	-0.023841
15792.4	-0.0235667
15802.8	-0.0232918
15813.1	-0.0230167
15823.5	-0.0227414
15833.8	-0.0224662
15844.2	-0.0221912
15854.5	-0.0219166
15864.8	-0.0216426
15875.2	-0.0213694
15885.5	-0.021097
15895.9	-0.0208257
15906.2	-0.0205555
15916.5	-0.0202867
15926.9	-0.0200193
15937.2	-0.0197535
15947.6	-0.0194894
15957.9	-0.019227
15968.3	-0.0189665
15978.6	-0.018708
15988.9	-0.0184516
15999.3	-0.0181974
16009.6	-0.0179453
16020	-0.0176956
16030.3	-0.0174482
16040.7	-0.0172033
16051	-0.0169607
16061.3	-0.0167207
16071.7	-0.0164833
16082	-0.0162484
16092.4	-0.0160161
16102.7	-0.0157864
16113	-0.0155594
16123.4	-0.015335
16133.7	-0.0151132
16144.1	-0.014894
16154.4	-0.0146775
16164.8	-0.0144636
16175.1	-0.0142523
16185.4	-0.0140435
16195.8	-0.0138373
16206.1	-0.0136336
16216.5	-0.0134324
16226.8	-0.0132336
16237.2	-0.0130372
16247.5	-0.0128432
16257.8	-0.0126514
16268.2	-0.0124619
16278.5	-0.0122746
16288.9	-0.0120894
16299.2	-0.0119063
16309.6	-0.0117252
16319.9	-0.0115461
16330.2	-0.0113688
16340.6	-0.0111933
16350.9	-0.0110196
16361.3	-0.0108475
16371.6	-0.010677
16381.9	-0.010508
16392.3	-0.0103405
16402.6	-0.0101743
16413	-0.0100094
16423.3	-0.00984581
16433.7	-0.00968331
16444	-0.00952188
16454.3	-0.00936145
16464.7	-0.00920194
16475	-0.00904328
16485.4	-0.0088854
16495.7	-0.00872822
16506.1	-0.00857168
16516.4	-0.00841571
16526.7	-0.00826024
16537.1	-0.00810521
16547.4	-0.00795054
16557.8	-0.00779619
16568.1	-0.00764208
16578.4	-0.00748816
16588.8	-0.00733438
16599.1	-0.00718067
16609.5	-0.007027
16619.8	-0.0068733
16630.2	-0.00671953
16640.5	-0.00656565
16650.8	-0.00641161
16661.2	-0.00625738
16671.5	-0.00610291
16681.9	-0.00594818
16692.2	-0.00579315
16702.6	-0.00563779
16712.9	-0.00548208
16723.2	-0.00532599
16733.6	-0.0051695
16743.9	-0.0050126
16754.3	-0.00485527
16764.6	-0.00469749
16774.9	-0.00453926
16785.3	-0.00438057
16795.6	-0.00422142
16806	-0.0040618
16816.3	-0.00390172
16826.7	-0.00374117
16837	-0.00358017
16847.3	-0.00341873
16857.7	-0.00325685
16868	-0.00309455
16878.4	-0.00293184
16888.7	-0.00276875
16899.1	-0.00260529
16909.4	-0.00244149
16919.7	-0.00227737
16930.1	-0.00211296
16940.4	-0.00194829
16950.8	-0.00178338
16961.1	-0.00161828
16971.4	-0.00145302
16981.8	-0.00128762
16992.1	-0.00112214
17002.5	-0.000956604
17012.8	-0.000791061
17023.2	-0.000625551
17033.5	-0.000460116
17043.8	-0.000294803
17054.2	-0.000129657
17064.5	3.52747e-05
17074.9	0.000199945
17085.2	0.000364304
17095.6	0.000528304
17105.9	0.000691893
17116.2	0.00085502
17126.6	0.00101763
17136.9	0.00117968
17147.3	0.00134112
17157.6	0.00150188
17168	0.00166192
17178.3	0.00182118
17188.6	0.00197961
17199	0.00213716
17209.3	0.00229378
17219.7	0.0024494
17230	0.00260399
17240.3	0.00275748
17250.7	0.00290982
17261	0.00306097
17271.4	0.00321086
17281.7	0.00335945
17292.1	0.00350669
17302.4	0.00365253
17312.7	0.00379692
17323.1	0.00393981
17333.4	0.00408115
17343.8	0.0042209
17354.1	0.00435901
17364.5	0.00449543
17374.8	0.00463012
17385.1	0.00476304
17395.5	0.00489414
17405.8	0.00502339
17416.2	0.00515074
17426.5	0.00527616
17436.8	0.0053996
17447.2	0.00552103
17457.5	0.00564041
17467.9	0.00575771
17478.2	0.0058729
17488.6	0.00598595
17498.9	0.00609681
17509.2	0.00620547
17519.6	0.0063119
17529.9	0.00641607
17540.3	0.00651794
17550.6	0.00661751
17561	0.00671474
17571.3	0.00680962
17581.6	0.00690212
17592	0.00699223
17602.3	0.00707992
17612.7	0.00716519
17623	0.00724801
17633.3	0.00732838
17643.7	0.00740627
17654	0.00748169
17664.4	0.00755461
17674.7	0.00762504
17685.1	0.00769296
17695.4	0.00775836
17705.7	0.00782126
17716.1	0.00788163
17726.4	0.00793948
17736.8	0.00799481
17747.1	0.00804761
17757.5	0.0080979
17767.8	0.00814567
17778.1	0.00819093
17788.5	0.00823368
17798.8	0.00827393
17809.2	0.00831168
17819.5	0.00834695
17829.9	0.00837975
17840.2	0.00841008
17850.5	0.00843796
17860.9	0.0084634
17871.2	0.00848642
17881.6	0.00850703
17891.9	0.00852524
17902.2	0.00854108
17912.6	0.00855456
17922.9	0.0085657
17933.3	0.00857453
17943.6	0.00858105
17954	0.0085853
17964.3	0.0085873
17974.6	0.00858708
17985	0.00858464
17995.3	0.00858003
18005.7	0.00857327
18016	0.00856439
18026.4	0.0085534
18036.7	0.00854035
18047	0.00852526
18057.4	0.00850816
18067.7	0.00848908
18078.1	0.00846806
18088.4	0.00844513
18098.7	0.00842031
18109.1	0.00839365
18119.4	0.00836517
18129.8	0.00833492
18140.1	0.00830292
18150.5	0.00826922
18160.8	0.00823385
18171.1	0.00819684
18181.5	0.00815824
18191.8	0.00811808
18202.2	0.00807641
18212.5	0.00803325
18222.9	0.00798866
18233.2	0.00794266
18243.5	0.00789531
18253.9	0.00784663
18264.2	0.00779668
18274.6	0.00774549
18284.9	0.0076931
18295.2	0.00763956
18305.6	0.00758491
18315.9	0.00752919
18326.3	0.00747244
18336.6	0.00741471
18347	0.00735603
18357.3	0.00729646
18367.6	0.00723603
18378	0.00717479
18388.3	0.00711278
18398.7	0.00705004
18409	0.00698662
18419.4	0.00692256
18429.7	0.0068579
18440	0.00679268
18450.4	0.00672696
18460.7	0.00666076
18471.1	0.00659414
18481.4	0.00652714
18491.7	0.00645979
18502.1	0.00639213
18512.4	0.00632422
18522.8	0.00625609
18533.1	0.00618778
18543.5	0.00611933
18553.8	0.00605079
18564.1	0.00598218
18574.5	0.00591355
18584.8	0.00584494
18595.2	0.00577638
18605.5	0.00570791
18615.9	0.00563957
18626.2	0.00557139
18636.5	0.00550341
18646.9	0.00543566
18657.2	0.00536818
18667.6	0.00530099
18677.9	0.00523413
18688.3	0.00516763
18698.6	0.00510152
18708.9	0.00503583
18719.3	0.00497058
18729.6	0.00490581
18740	0.00484153
18750.3	0.00477778
18760.6	0.00471457
18771	0.00465193
18781.3	0.00458988
18791.7	0.00452845
18802	0.00446764
18812.4	0.00440749
18822.7	0.00434799
18833	0.00428918
18843.4	0.00423106
18853.7	0.00417365
18864.1	0.00411695
18874.4	0.00406099
18884.8	0.00400576
18895.1	0.00395127
18905.4	0.00389754
18915.8	0.00384456
18926.1	0.00379234
18936.5	0.00374089
18946.8	0.00369019
18957.1	0.00364026
18967.5	0.00359108
18977.8	0.00354266
18988.2	0.00349498
18998.5	0.00344806
19008.9	0.00340186
19019.2	0.00335639
19029.5	0.00331164
19039.9	0.00326759
19050.2	0.00322424
19060.6	0.00318155
19070.9	0.00313953
19081.3	0.00309815
19091.6	0.00305739
19101.9	0.00301723
19112.3	0.00297766
19122.6	0.00293865
19133	0.00290017
19143.3	0.0028622
19153.6	0.00282472
19164	0.0027877
19174.3	0.0027511
19184.7	0.00271491
19195	0.00267908
19205.4	0.00264359
19215.7	0.00260841
19226	0.00257349
19236.4	0.00253882
19246.7	0.00250435
19257.1	0.00247004
19267.4	0.00243587
19277.8	0.00240179
19288.1	0.00236776
19298.4	0.00233374
19308.8	0.00229971
19319.1	0.00226561
19329.5	0.0022314
19339.8	0.00219705
19350.1	0.00216251
19360.5	0.00212775
19370.8	0.00209271
19381.2	0.00205737
19391.5	0.00202167
19401.9	0.00198557
19412.2	0.00194903
19422.5	0.00191201
19432.9	0.00187447
19443.2	0.00183636
19453.6	0.00179764
19463.9	0.00175827
19474.3	0.0017182
19484.6	0.00167741
19494.9	0.00163583
19505.3	0.00159344
19515.6	0.00155019
19526	0.00150604
19536.3	0.00146096
19546.7	0.0014149
19557	0.00136783
19567.3	0.00131971
19577.7	0.0012705
19588	0.00122017
19598.4	0.00116868
19608.7	0.00111599
19619	0.00106208
19629.4	0.00100692
19639.7	0.000950462
19650.1	0.000892688
19660.4	0.000833566
19670.8	0.000773069
19681.1	0.00071117
19691.4	0.000647844
19701.8	0.000583067
19712.1	0.000516815
19722.5	0.000449068
19732.8	0.000379805
19743.2	0.000309008
19753.5	0.000236659
19763.8	0.000162743
19774.2	8.72455e-05
19784.5	1.01533e-05
19794.9	-6.85447e-05
19805.2	-0.000148858
19815.5	-0.000230796
19825.9	-0.000314363
19836.2	-0.000399566
19846.6	-0.000486408
19856.9	-0.00057489
19867.3	-0.000665013
19877.6	-0.000756775
19887.9	-0.000850173
19898.3	-0.000945202
19908.6	-0.00104186
19919	-0.00114013
19929.3	-0.00124
19939.7	-0.00134148
19950	-0.00144453
19960.3	-0.00154915
19970.7	-0.00165533
19981	-0.00176304
19991.4	-0.00187226
