0	0
121.145	0
242.29	0
363.435	0
484.58	0
605.725	0
726.869	0
848.013	0
969.156	0
1090.3	0
1211.44	0
1332.58	0
1453.72	0
1574.86	0
1696	2.76304e-09
1817.15	8.45139e-08
1938.29	4.78098e-07
2059.43	1.98332e-06
2180.58	8.54412e-06
2301.72	3.5094e-05
2422.87	0.000123201
2544.01	0.000374282
2665.16	0.000989118
2786.3	0.0022947
2907.44	0.00473029
3028.59	0.00877886
3149.73	0.014848
3270.88	0.0231266
3392.02	0.0334561
3513.16	0.0452563
3634.31	0.0575337
3755.45	0.0689821
3876.6	0.0781606
3997.74	0.0837155
4118.89	0.0846012
4240.03	0.0802576
4361.18	0.0707104
4482.32	0.0565783
4603.47	0.0389899
4724.61	0.0194254
4845.75	-0.000484137
4966.9	-0.0191685
5088.04	-0.0353048
5209.19	-0.047953
5330.33	-0.0566241
5451.48	-0.0612778
5572.62	-0.062259
5693.77	-0.0601915
5814.91	-0.0558512
5936.06	-0.0500419
6057.2	-0.0434926
6178.34	-0.0367879
6299.49	-0.0303362
6420.63	-0.0243724
6541.78	-0.0189872
6662.92	-0.0141707
6784.07	-0.00985994
6905.21	-0.00597946
7026.36	-0.00247011
7147.5	0.00069737
7268.65	0.0035218
7389.79	0.00598069
7510.94	0.00804391
7632.08	0.00968733
7753.23	0.0109026
7874.37	0.0117018
7995.52	0.012116
8116.66	0.0121901
8237.81	0.0119757
8358.95	0.0115235
8480.1	0.0108784
8601.24	0.0100773
8722.39	0.00914884
8843.53	0.0081168
8964.68	0.00700312
9085.82	0.00583133
9206.97	0.00462852
9328.11	0.00342557
9449.26	0.00225574
9570.4	0.0011519
9691.55	0.000143415
9812.69	-0.000746806
9933.84	-0.0015043
10055	-0.00212376
10176.1	-0.00260853
10297.3	-0.00296894
10418.4	-0.00322019
10539.6	-0.00338006
10660.7	-0.00346692
10781.8	-0.00349837
10903	-0.00349051
11024.1	-0.00345777
11145.3	-0.0034131
11266.4	-0.00336832
11387.6	-0.00333427
11508.7	-0.00332082
11629.9	-0.00333661
11751	-0.00338852
11872.2	-0.0034812
11993.3	-0.0036166
12114.4	-0.00379372
12235.6	-0.00400864
12356.7	-0.00425491
12477.9	-0.00452402
12599	-0.00480617
12720.2	-0.00509091
12841.3	-0.00536787
12962.5	-0.00562718
13083.6	-0.0058599
13204.7	-0.00605821
13325.9	-0.0062155
13447	-0.00632646
13568.2	-0.00638712
13689.3	-0.00639488
13810.5	-0.00634864
13931.6	-0.00624881
14052.8	-0.00609743
14173.9	-0.0058981
14295.1	-0.00565585
14416.2	-0.00537701
14537.3	-0.00506884
14658.5	-0.00473921
14779.6	-0.0043962
14900.8	-0.00404774
15021.9	-0.00370128
15143.1	-0.00336351
15264.2	-0.00304024
15385.4	-0.00273626
15506.5	-0.00245538
15627.6	-0.00220038
15748.8	-0.00197315
15869.9	-0.00177474
15991.1	-0.00160541
16112.2	-0.00146477
16233.4	-0.00135178
16354.5	-0.00126487
16475.7	-0.001202
16596.8	-0.00116072
16717.9	-0.00113829
16839.1	-0.00113174
16960.2	-0.00113795
17081.4	-0.00115376
17202.5	-0.00117603
17323.7	-0.00120167
17444.8	-0.00122773
17566	-0.00125142
17687.1	-0.00127009
17808.3	-0.00128131
17929.4	-0.00128284
18050.5	-0.00127265
18171.7	-0.00124897
18292.8	-0.00121027
18414	-0.00115533
18535.1	-0.0010832
18656.3	-0.000993278
18777.4	-0.000885297
18898.6	-0.00075933
19019.7	-0.000615789
19140.8	-0.000455422
19262	-0.00027929
19383.1	-8.87527e-05
19504.3	0.000114561
19625.4	0.00032878
19746.6	0.000551817
19867.7	0.000781409
19988.9	0.00101514
