0	0
13.138	0
26.2759	0
32.8449	0
45.9829	0
52.5519	0
65.6898	0
72.2588	0
85.3968	0
91.9658	0
105.104	0
111.673	0
124.811	0
131.38	0
144.518	0
151.087	0
164.225	0
170.794	0
183.932	0
190.501	0
203.638	0
210.207	0
223.345	0
236.483	0
243.052	0
256.19	0
262.759	0
275.897	0
282.466	0
295.604	0
302.173	0
315.311	0
321.88	0
335.018	0
341.587	0
354.725	0
361.294	0
374.432	0
381.001	0
394.139	0
400.708	0
413.846	0
420.415	0
433.553	0
440.122	0
453.26	0
466.398	0
472.967	0
486.105	0
492.674	0
505.812	0
512.381	0
525.519	0
532.088	0
545.226	0
551.795	0
564.933	0
571.502	0
584.639	0
591.208	0
604.346	0
610.915	0
624.053	0
630.622	0
643.76	0
650.329	0
663.467	0
670.036	0
683.174	0
696.312	0
702.881	0
716.019	9.09495e-13
722.588	9.09495e-13
735.726	3.63798e-12
742.295	6.36646e-12
755.433	2.00089e-11
762.002	3.63798e-11
775.14	1.18234e-10
781.709	2.07365e-10
794.847	6.15728e-10
801.416	1.04046e-09
814.554	2.85672e-09
821.123	4.64479e-09
834.261	1.1848e-08
840.83	1.85992e-08
853.968	4.43488e-08
860.537	6.73999e-08
873.675	1.50996e-07
880.244	2.22699e-07
893.382	4.7091e-07
906.52	9.60355e-07
913.089	1.35367e-06
926.227	2.62293e-06
932.796	3.607e-06
945.934	6.66357e-06
952.503	8.95492e-06
965.641	1.58229e-05
972.209	2.08111e-05
985.347	3.52728e-05
991.916	4.54682e-05
1005.05	7.41209e-05
1011.62	9.3762e-05
1024.76	0.000147377
1031.33	0.000183173
1044.47	0.000278264
1051.04	0.000340197
1064.18	0.000500607
1070.74	0.00060269
1083.88	0.000860953
1090.45	0.00102181
1103.59	0.0014201
1110.16	0.00166334
1123.3	0.00225396
1136.43	0.00300702
1143	0.00345407
1156.14	0.00451035
1162.71	0.00512879
1175.85	0.00657144
1182.42	0.00740677
1195.55	0.00933642
1202.12	0.0104447
1215.26	0.0129879
1221.83	0.0144411
1234.97	0.0177636
1241.54	0.0196576
1254.68	0.0239827
1261.24	0.0264472
1274.38	0.0320767
1280.95	0.0352863
1294.09	0.0426226
1300.66	0.0468069
1313.8	0.0563696
1320.37	0.0618197
1333.5	0.074253
1340.07	0.0813209
1353.21	0.0973845
1366.35	0.116335
1372.92	0.127014
1386.06	0.151026
1392.62	0.164456
1405.76	0.194391
1412.33	0.210982
1425.47	0.247599
1432.04	0.267688
1445.18	0.311546
1451.74	0.335345
1464.88	0.386702
1471.45	0.414248
1484.59	0.472974
1491.16	0.50409
1504.3	0.569598
1510.87	0.60387
1524	0.675085
1530.57	0.711854
1543.71	0.78722
1550.28	0.825595
1563.42	0.903123
1576.56	0.980817
1583.12	1.01938
1596.26	1.09522
1602.83	1.1322
1615.97	1.20354
1622.54	1.2376
1635.68	1.3018
1642.25	1.33165
1655.38	1.3862
1661.95	1.41064
1675.09	1.45328
1681.66	1.47126
1694.8	1.50008
1701.37	1.51075
1714.5	1.52428
1721.07	1.52701
1734.21	1.52422
1740.78	1.51864
1753.92	1.49903
1760.49	1.485
1773.62	1.44856
1780.19	1.4262
1793.33	1.3734
1806.47	1.31019
1813.04	1.27484
1826.18	1.19706
1832.74	1.15482
1845.88	1.0641
1852.45	1.01585
1865.59	0.914172
1872.16	0.860988
1885.3	0.750598
1891.86	0.693667
1905	0.57705
1911.57	0.517655
1924.71	0.397434
1931.28	0.336908
1944.42	0.215767
1950.98	0.15545
1964.12	0.0360478
1970.69	-0.0227536
1983.83	-0.137876
1990.4	-0.193938
2003.54	-0.302452
2010.1	-0.354676
2023.24	-0.454532
2036.38	-0.547648
2042.95	-0.591473
2056.09	-0.673309
2062.65	-0.711206
2075.79	-0.78073
2082.36	-0.812291
2095.5	-0.868898
2102.07	-0.893923
2115.21	-0.937421
2121.77	-0.955918
2134.91	-0.986514
2141.48	-0.998674
2154.62	-1.01692
2161.19	-1.02309
2174.32	-1.02982
2180.89	-1.03049
2194.03	-1.02678
2200.6	-1.02253
2213.74	-1.00959
2220.31	-1.00106
2233.44	-0.980232
2240.01	-0.968091
2253.15	-0.940731
2266.29	-0.909764
2272.86	-0.89311
2285.99	-0.857816
2292.56	-0.839311
2305.7	-0.800915
2312.27	-0.781147
2325.41	-0.740767
2331.97	-0.720265
2345.11	-0.678895
2351.68	-0.658124
2364.82	-0.616633
2371.39	-0.595994
2384.52	-0.555119
2391.09	-0.53495
2404.23	-0.495306
2410.8	-0.475885
2423.94	-0.437969
2430.5	-0.419518
2443.64	-0.383723
2450.21	-0.366414
2463.35	-0.333042
2476.49	-0.30141
2483.05	-0.28627
2496.19	-0.257379
2502.76	-0.243639
2515.9	-0.21759
2522.47	-0.205285
2535.6	-0.182118
2542.17	-0.171256
2555.31	-0.150964
2561.88	-0.141528
2575.01	-0.124059
2581.58	-0.116015
2594.72	-0.101278
2601.29	-0.094572
2614.43	-0.0824476
2620.99	-0.0770127
2634.13	-0.0673534
2640.7	-0.0631101
2653.84	-0.0557471
2660.41	-0.0526066
2673.54	-0.0473545
2680.11	-0.0452208
2693.25	-0.0418821
2706.39	-0.0397052
2712.96	-0.0390235
2726.09	-0.0384156
2732.66	-0.0384659
2745.8	-0.0392173
2752.37	-0.0398953
2765.5	-0.041799
2772.07	-0.0430022
2785.21	-0.0458566
2791.78	-0.0474863
2804.92	-0.0510985
2811.48	-0.0530608
2824.62	-0.0572492
2831.19	-0.0594565
2844.33	-0.0640527
2850.9	-0.0664245
2864.03	-0.0712753
2870.6	-0.0737391
2883.74	-0.0787077
2890.31	-0.0811992
2903.45	-0.0861659
2910.02	-0.0886296
2923.15	-0.0934921
2936.29	-0.0982367
2942.86	-0.100554
2956	-0.105063
2962.56	-0.107246
2975.7	-0.11146
2982.27	-0.113485
2995.41	-0.11736
3001.98	-0.119208
3015.12	-0.122715
3021.68	-0.124374
3034.82	-0.127494
3041.39	-0.128956
3054.53	-0.13168
3061.1	-0.132942
3074.23	-0.135267
3080.8	-0.136331
3093.94	-0.13826
3100.51	-0.139126
3113.65	-0.140666
3120.22	-0.14134
3133.35	-0.142499
3146.49	-0.14341
3153.06	-0.143774
3166.2	-0.144321
3172.77	-0.144505
3185.91	-0.144696
3192.48	-0.144705
3205.61	-0.144551
3212.18	-0.144388
3225.32	-0.143896
3231.89	-0.143566
3245.03	-0.142743
3251.6	-0.14225
3264.73	-0.141103
3271.3	-0.14045
3284.44	-0.138988
3291.01	-0.13818
3304.15	-0.136411
3310.72	-0.135453
3323.86	-0.133389
3330.42	-0.132286
3343.56	-0.129941
3350.13	-0.128702
3363.27	-0.126092
3376.41	-0.123316
3382.98	-0.121869
3396.11	-0.118864
3402.68	-0.117308
3415.82	-0.114097
3422.39	-0.112445
3435.53	-0.109058
3442.1	-0.107326
3455.23	-0.103794
3461.8	-0.101998
3474.94	-0.0983533
3481.51	-0.0965095
3494.65	-0.0927881
3501.22	-0.0909146
3514.35	-0.0871517
3520.92	-0.0852664
3534.06	-0.0814976
3540.63	-0.0796181
3553.77	-0.0758783
3560.34	-0.0740218
3573.48	-0.0703442
3580.04	-0.0685267
3593.18	-0.0649425
3606.32	-0.0614364
3612.89	-0.0597164
3626.03	-0.056349
3632.6	-0.0547043
3645.73	-0.0514982
3652.3	-0.0499391
3665.44	-0.0469131
3672.01	-0.045448
3685.15	-0.0426168
3691.72	-0.0412519
3704.85	-0.038626
3711.42	-0.0373656
3724.56	-0.0349512
3731.13	-0.0337975
3744.27	-0.0315968
3750.84	-0.0305498
3763.97	-0.0285611
3770.54	-0.0276189
3783.68	-0.0258367
3790.25	-0.0249956
3803.39	-0.0234106
3816.53	-0.0219503
3823.09	-0.0212651
3836.23	-0.0199798
3842.8	-0.0193779
3855.94	-0.0182506
3862.51	-0.0177229
3875.65	-0.0167342
3882.21	-0.0162708
3895.35	-0.0153995
3901.92	-0.0149893
3915.06	-0.014213
3921.63	-0.0138444
3934.77	-0.0131397
3941.34	-0.012801
3954.47	-0.012144
3961.04	-0.0118232
3974.18	-0.0111902
3980.75	-0.0108754
3993.89	-0.0102432
4000.46	-0.00992319
4013.59	-0.00926952
4020.16	-0.00893352
4033.3	-0.00823766
4046.44	-0.00750304
4053.01	-0.00711872
4066.15	-0.00631149
4072.71	-0.00588689
4085.85	-0.00499179
4092.42	-0.00451987
4105.56	-0.00352409
4112.13	-0.0029991
4125.27	-0.00189242
4131.83	-0.00130989
4144.97	-8.46989e-05
4151.54	0.000558529
4164.68	0.00190731
4171.25	0.00261316
4184.39	0.00408819
4190.96	0.00485741
4204.09	0.0064591
4210.66	0.00729139
4223.8	0.00901817
4230.37	0.0099123
4243.51	0.0117609
4250.08	0.0127148
4263.21	0.0146804
4276.35	0.0167209
4282.92	0.0177683
4296.06	0.0199155
4302.63	0.0210145
4315.76	0.0232611
4322.33	0.0244079
4335.47	0.0267461
4342.04	0.0279367
4355.18	0.0303584
4361.75	0.0315885
4374.89	0.0340851
4381.45	0.0353505
4394.59	0.0379131
4401.16	0.0392092
4414.3	0.0418287
4420.87	0.043151
4434.01	0.0458179
4440.57	0.0471614
4453.71	0.0498656
4460.28	0.0512252
4473.42	0.0539561
4486.56	0.0566985
4493.13	0.0580723
4506.26	0.0608217
4512.83	0.0621959
4525.97	0.0649393
4532.54	0.066307
4545.68	0.0690301
4552.25	0.0703838
4565.38	0.0730713
4571.95	0.0744031
4585.09	0.0770382
4591.66	0.0783395
4604.8	0.0809045
4611.37	0.0821662
4624.51	0.0846423
4631.07	0.0858547
4644.21	0.0882224
4650.78	0.0893756
4663.92	0.0916147
4670.49	0.0926984
4683.63	0.0947885
4690.19	0.0957926
4703.33	0.0977132
4716.47	0.0995098
4723.04	0.100359
4736.18	0.101953
4742.75	0.102697
4755.88	0.104071
4762.45	0.1047
4775.59	0.105837
4782.16	0.106343
4795.3	0.107228
4801.87	0.107605
4815.01	0.108226
4821.57	0.108468
4834.71	0.108814
4841.28	0.108917
4854.42	0.108981
4860.99	0.108942
4874.13	0.10872
4880.69	0.108537
4893.83	0.108028
4900.4	0.107702
4913.54	0.106907
4920.11	0.106439
4933.25	0.105364
4946.38	0.104105
4952.95	0.103409
4966.09	0.101885
4972.66	0.101059
4985.8	0.0992817
4992.37	0.0983326
5005.5	0.0963175
5012.07	0.0952536
5025.21	0.093018
5031.78	0.0918485
5044.92	0.0894118
5051.49	0.0881469
5064.63	0.0855302
5071.19	0.0841808
5084.33	0.0814065
5090.9	0.0799841
5104.04	0.0770757
5110.61	0.0755923
5123.75	0.072574
5130.31	0.0710418
5143.45	0.0679382
5150.02	0.0663694
5163.16	0.0632051
5176.3	0.0600138
5182.87	0.0584114
5196	0.0551998
5202.57	0.0535931
5215.71	0.0503846
5222.28	0.0487851
5235.42	0.0456021
5241.99	0.0440208
5255.13	0.0408846
5261.69	0.0393318
5274.83	0.0362624
5281.4	0.0347478
5294.54	0.0317637
5301.11	0.0302961
5314.25	0.0274142
5320.81	0.0260016
5333.95	0.0232372
5340.52	0.0218868
5353.66	0.0192532
5360.23	0.0179713
5373.37	0.0154802
5386.5	0.0130897
5393.07	0.0119334
5406.21	0.00970087
5412.78	0.00862542
5425.92	0.00655783
5432.49	0.00556629
5445.62	0.00366897
5452.19	0.0027636
5465.33	0.00104029
5471.9	0.000222613
5485.04	-0.00132435
5491.61	-0.00205353
5504.75	-0.00342316
5511.31	-0.00406364
5524.45	-0.00525614
5531.02	-0.0058083
5544.16	-0.00682491
5550.73	-0.00728961
5563.87	-0.00813252
5570.44	-0.00851107
5583.57	-0.00918325
5590.14	-0.0094773
5603.28	-0.00998241
5616.42	-0.0103785
5622.99	-0.0105362
5636.12	-0.0107725
5642.69	-0.0108516
5655.83	-0.0109332
5662.4	-0.0109363
5675.54	-0.0108685
5682.11	-0.0107983
5695.25	-0.0105869
5701.81	-0.0104464
5714.95	-0.0100974
5721.52	-0.00988961
5734.66	-0.00940937
5741.23	-0.00913763
5754.37	-0.00853281
5760.94	-0.0082005
5774.07	-0.00747808
5780.64	-0.00708877
5793.78	-0.00625608
5800.35	-0.00581354
5813.49	-0.00487827
5820.06	-0.00438644
5833.19	-0.0033567
5846.33	-0.00226866
5852.9	-0.001704
5866.04	-0.000535893
5872.61	6.65358e-05
5885.75	0.00130553
5892.31	0.00194103
5905.45	0.00324131
5912.02	0.00390498
5925.16	0.00525657
5931.73	0.00594334
5944.87	0.00733593
5951.44	0.00804057
5964.57	0.00946356
5971.14	0.0101807
5984.28	0.0116233
5990.85	0.0123475
6003.99	0.0137987
6010.56	0.0145245
6023.69	0.0159735
6030.26	0.0166954
6043.4	0.0181311
6056.54	0.0195519
6063.11	0.0202554
6076.24	0.0216453
6082.81	0.0223306
6095.95	0.0236793
6102.52	0.0243415
6115.66	0.0256392
6122.23	0.0262736
6135.37	0.0275111
6141.93	0.0281132
6155.07	0.0292819
6161.64	0.0298476
6174.78	0.0309396
6181.35	0.0314652
6194.49	0.0324735
6201.05	0.0329555
6214.19	0.0338739
6220.76	0.0343096
6233.9	0.0351328
6240.47	0.0355197
6253.61	0.0362431
6260.17	0.0365792
6273.31	0.0371995
6286.45	0.0377496
6293.02	0.037998
6306.16	0.0384411
6312.73	0.0386358
6325.86	0.038971
6332.43	0.0391116
6345.57	0.0393387
6352.14	0.0394254
6365.28	0.0395451
6371.85	0.0395783
6384.98	0.039592
6391.55	0.0395727
6404.69	0.0394825
6411.26	0.0394118
6424.4	0.0392205
6430.97	0.0391001
6444.1	0.0388108
6450.67	0.0386424
6463.81	0.038259
6470.38	0.0380445
6483.52	0.0375711
6490.09	0.0373127
6503.22	0.0367536
6516.36	0.0361399
6522.93	0.0358133
6536.07	0.0351217
6542.64	0.0347572
6555.77	0.0339922
6562.34	0.0335922
6575.48	0.0327584
6582.05	0.0323251
6595.19	0.031427
6601.76	0.0309627
6614.89	0.0300044
6621.46	0.029511
6634.6	0.0284965
6641.17	0.0279758
6654.31	0.0269087
6660.88	0.0263625
6674.01	0.0252457
6680.58	0.0246755
6693.72	0.0235118
6700.29	0.0229187
6713.43	0.0217104
6726.57	0.0204733
6733.13	0.0198441
6746.27	0.018565
6752.84	0.0179151
6765.98	0.0165948
6772.55	0.0159245
6785.69	0.0145636
6792.25	0.013873
6805.39	0.0124716
6811.96	0.0117607
6825.1	0.0103184
6831.67	0.00958695
6844.81	0.00810325
6851.37	0.0073509
6864.51	0.00582495
6871.08	0.00505124
6884.22	0.00348204
6890.79	0.00268644
6903.93	0.00107291
6910.49	0.000254861
6923.63	-0.00140409
6930.2	-0.00224511
6943.34	-0.00395052
6956.48	-0.00568738
6963.05	-0.00656771
6976.18	-0.00835235
6982.75	-0.00925671
6995.89	-0.0110896
7002.46	-0.0120181
7015.6	-0.0138993
7022.17	-0.0148519
7035.3	-0.0167812
7041.87	-0.0177577
7055.01	-0.0197342
7061.58	-0.0207341
7074.72	-0.0227566
7081.29	-0.023779
7094.43	-0.0258458
7100.99	-0.0268898
7114.13	-0.0289984
7120.7	-0.0300627
7133.84	-0.0322103
7140.41	-0.0332932
7153.55	-0.0354762
7160.11	-0.0365759
7173.25	-0.0387903
7186.39	-0.0410231
7192.96	-0.0421457
7206.1	-0.0444019
7212.67	-0.0455349
7225.8	-0.0478092
7232.37	-0.0489497
7245.51	-0.051236
7252.08	-0.052381
7265.22	-0.0546731
7271.79	-0.0558193
7284.93	-0.0581105
7291.49	-0.0592546
7304.63	-0.0615379
7311.2	-0.0626763
7324.34	-0.0649446
7330.91	-0.0660736
7344.05	-0.0683196
7350.61	-0.0694356
7363.75	-0.0716518
7370.32	-0.0727511
7383.46	-0.0749301
7390.03	-0.076009
7403.17	-0.0781434
7416.3	-0.0802441
7422.87	-0.0812808
7436.01	-0.0833249
7442.58	-0.0843316
7455.72	-0.0863122
7462.29	-0.0872855
7475.43	-0.089196
7481.99	-0.0901326
7495.13	-0.0919668
7501.7	-0.0928637
7514.84	-0.0946156
7521.41	-0.09547
7534.55	-0.0971342
7541.12	-0.0979434
7554.25	-0.0995149
7560.82	-0.100277
7573.96	-0.101751
7580.53	-0.102463
7593.67	-0.103836
7600.24	-0.104497
7613.37	-0.105765
7626.51	-0.106962
7633.08	-0.107534
7646.22	-0.108622
7652.79	-0.109138
7665.93	-0.110115
7672.49	-0.110575
7685.63	-0.11144
7692.2	-0.111844
7705.34	-0.112594
7711.91	-0.112941
7725.05	-0.113578
7731.62	-0.113868
7744.75	-0.114391
7751.32	-0.114624
7764.46	-0.115034
7771.03	-0.11521
7784.17	-0.115507
7790.74	-0.115627
7803.87	-0.115813
7810.44	-0.115878
7823.58	-0.115953
7830.15	-0.115964
7843.29	-0.115931
7856.43	-0.115828
7862.99	-0.11575
7876.13	-0.115543
7882.7	-0.115414
7895.84	-0.115104
7902.41	-0.114925
7915.55	-0.114517
7922.11	-0.114288
7935.25	-0.113784
7941.82	-0.113509
7954.96	-0.112911
7961.53	-0.11259
7974.67	-0.111903
7981.24	-0.111538
7994.37	-0.110764
8000.94	-0.110356
8014.08	-0.109499
8020.65	-0.10905
8033.79	-0.108113
8040.36	-0.107625
8053.49	-0.106612
8060.06	-0.106086
8073.2	-0.105
8086.34	-0.103867
8092.91	-0.103283
8106.05	-0.102082
8112.61	-0.101466
8125.75	-0.100201
8132.32	-0.0995539
8145.46	-0.0982292
8152.03	-0.0975523
8165.17	-0.0961706
8171.74	-0.0954661
8184.87	-0.0940307
8191.44	-0.0933002
8204.58	-0.0918144
8211.15	-0.0910594
8224.29	-0.0895263
8230.86	-0.0887485
8243.99	-0.0871711
8250.56	-0.0863719
8263.7	-0.0847531
8270.27	-0.0839339
8283.41	-0.0822764
8296.55	-0.0805946
8303.11	-0.0797448
8316.25	-0.0780284
8322.82	-0.0771619
8335.96	-0.075413
8342.53	-0.0745308
8355.67	-0.0727515
8362.24	-0.0718546
8375.37	-0.0700465
8381.94	-0.0691356
8395.08	-0.0673005
8401.65	-0.0663763
8414.79	-0.0645153
8421.36	-0.0635786
8434.49	-0.0616929
8441.06	-0.060744
8454.2	-0.0588346
8460.77	-0.0578741
8473.91	-0.0559417
8480.48	-0.0549699
8493.61	-0.0530153
8500.18	-0.0520325
8513.32	-0.0500563
8526.46	-0.048066
8533.03	-0.0470656
8546.17	-0.0450547
8552.74	-0.0440441
8565.87	-0.0420132
8572.44	-0.0409928
8585.58	-0.0389426
8592.15	-0.0379128
8605.29	-0.0358442
8611.86	-0.0348055
8624.99	-0.0327196
8631.56	-0.0316725
8644.7	-0.0295706
8651.27	-0.0285159
8664.41	-0.0263996
8670.98	-0.0253382
8684.12	-0.0232093
8690.68	-0.0221422
8703.82	-0.0200031
8710.39	-0.0189315
8723.53	-0.0167847
8730.1	-0.01571
8743.24	-0.0135586
8756.37	-0.0114058
8762.94	-0.0103295
8776.08	-0.00817784
8782.65	-0.00710298
8795.79	-0.00495632
8802.36	-0.00388499
8815.49	-0.00174755
8822.06	-0.000681945
8835.2	0.00144175
8841.77	0.0024993
8854.91	0.00460447
8861.48	0.00565154
8874.62	0.00773322
8881.18	0.00876727
8894.32	0.0108204
8900.89	0.0118388
8914.03	0.0138581
8920.6	0.0148583
8933.74	0.0168385
8940.31	0.0178179
8953.44	0.0197539
8960.01	0.0207099
8973.15	0.0225965
8986.29	0.0244474
8992.86	0.0253588
9006	0.0271521
9012.56	0.0280335
9025.7	0.0297646
9032.27	0.0306139
9045.41	0.0322784
9051.98	0.0330934
9065.12	0.0346874
9071.69	0.0354661
9084.82	0.0369858
9091.39	0.0377265
9104.53	0.0391686
9111.1	0.0398698
9124.24	0.0412315
9130.81	0.0418917
9143.94	0.0431703
9150.51	0.0437885
9163.65	0.044982
9170.22	0.0455572
9183.36	0.0466639
9196.5	0.0477119
9203.07	0.0482138
9216.2	0.0491731
9222.77	0.0496305
9235.91	0.0505003
9242.48	0.0509128
9255.62	0.051693
9262.19	0.0520606
9275.32	0.0527511
9281.89	0.053074
9295.03	0.0536752
9301.6	0.0539536
9314.74	0.0544661
9321.31	0.0547004
9334.44	0.0551253
9341.01	0.055316
9354.15	0.0556544
9360.72	0.0558022
9373.86	0.0560555
9380.43	0.0561611
9393.57	0.056331
9400.13	0.0563954
9413.27	0.0564836
9426.41	0.0565185
9432.98	0.0565163
9446.12	0.056473
9452.69	0.0564323
9465.82	0.0563131
9472.39	0.0562351
9485.53	0.0560425
9492.1	0.0559284
9505.24	0.0556651
9511.81	0.0555163
9524.95	0.0551849
9531.51	0.0550028
9544.65	0.0546065
9551.22	0.0543926
9564.36	0.0539342
9570.93	0.0536902
9584.07	0.0531732
9590.63	0.0529006
9603.77	0.0523284
9610.34	0.0520292
9623.48	0.0514054
9630.05	0.0510813
9643.19	0.0504097
9656.32	0.0497084
9662.89	0.0493473
9676.03	0.048605
9682.6	0.0482243
9695.74	0.0474453
9702.31	0.0470474
9715.45	0.046236
9722.01	0.0458231
9735.15	0.044984
9741.72	0.0445584
9754.86	0.0436964
9761.43	0.0432605
9774.57	0.0423804
9781.13	0.0419367
9794.27	0.0410434
9800.84	0.0405944
9813.98	0.039693
9820.55	0.0392412
9833.69	0.0383368
9840.26	0.0378848
9853.39	0.0369824
9866.53	0.0360841
9873.1	0.0356373
9886.24	0.0347494
9892.81	0.034309
9905.94	0.0334364
9912.51	0.0330048
9925.65	0.0321522
9932.22	0.0317318
9945.36	0.0309037
9951.93	0.0304966
9965.07	0.0296974
9971.63	0.0293057
9984.77	0.0285393
9991.34	0.028165
10004.5	0.0274352
10011	0.02708
10024.2	0.02639
10030.8	0.0260555
10043.9	0.0254082
10050.5	0.0250958
10063.6	0.0244938
10070.2	0.0242044
10083.3	0.0236497
10096.4	0.0231274
10103	0.0228785
10116.2	0.0224057
10122.7	0.0221818
10135.9	0.0217593
10142.4	0.0215606
10155.6	0.0211885
10162.1	0.021015
10175.3	0.020693
10181.8	0.0205444
10195	0.0202716
10201.5	0.0201473
10214.7	0.0199225
10221.3	0.0198217
10234.4	0.019643
10241	0.0195648
10254.1	0.0194301
10260.7	0.0193732
10273.8	0.0192796
10280.4	0.0192427
10293.5	0.0191874
10300.1	0.0191687
10313.2	0.0191483
10326.4	0.0191491
10332.9	0.0191569
10346.1	0.0191864
10352.6	0.0192076
10365.8	0.0192618
10372.3	0.0192943
10385.5	0.0193689
10392	0.0194106
10405.2	0.0195015
10411.8	0.0195502
10424.9	0.0196529
10431.5	0.0197065
10444.6	0.0198168
10451.2	0.019873
10464.3	0.0199865
10470.9	0.0200434
10484	0.0201559
10490.6	0.0202112
10503.7	0.0203187
10510.3	0.0203705
10523.4	0.020469
10536.6	0.0205594
10543.1	0.0206011
10556.3	0.0206764
10562.8	0.0207096
10576	0.0207665
10582.5	0.0207897
10595.7	0.020825
10602.3	0.0208367
10615.4	0.0208476
10622	0.0208464
10635.1	0.0208303
10641.7	0.0208151
10654.8	0.0207698
10661.4	0.0207394
10674.5	0.0206629
10681.1	0.0206165
10694.2	0.0205072
10700.8	0.020444
10713.9	0.0203003
10720.5	0.0202197
10733.6	0.0200407
10740.2	0.0199422
10753.3	0.019727
10766.5	0.0194873
10773	0.0193582
10786.2	0.0190816
10792.8	0.018934
10805.9	0.0186203
10812.5	0.0184541
10825.6	0.0181034
10832.2	0.0179189
10845.3	0.0175315
10851.9	0.0173288
10865	0.0169054
10871.6	0.0166848
10884.7	0.0162261
10891.3	0.0159881
10904.4	0.0154952
10911	0.0152404
10924.1	0.0147144
10930.7	0.0144434
10943.8	0.0138857
10950.4	0.0135992
10963.5	0.0130114
10970.1	0.0127103
10983.3	0.0120941
10996.4	0.01146
11003	0.0111366
11016.1	0.0104773
11022.7	0.0101418
11035.8	0.0094595
11042.4	0.009113
11055.5	0.00840992
11062.1	0.00805361
11075.2	0.0073321
11081.8	0.00696719
11094.9	0.00622971
11101.5	0.00585743
11114.6	0.00510652
11121.2	0.00472816
11134.3	0.0039664
11140.9	0.00358328
11154	0.0028133
11160.6	0.00242673
11173.8	0.00165116
11180.3	0.00126246
11193.5	0.000483955
11200	9.44361e-05
11213.2	-0.000684417
11226.3	-0.00146208
11232.9	-0.00185013
11246	-0.00262394
11252.6	-0.00300946
11265.7	-0.00377704
11272.3	-0.00415885
11285.4	-0.00491792
11292	-0.00529494
11305.1	-0.00604337
11311.7	-0.00641457
11324.8	-0.00715039
11331.4	-0.00751483
11344.5	-0.00823626
11351.1	-0.00859309
11364.3	-0.00929854
11370.8	-0.00964701
11384	-0.0103351
11390.5	-0.0106746
11403.7	-0.0113441
11410.2	-0.011674
11423.4	-0.012324
11436.5	-0.0129605
11443.1	-0.0132737
11456.2	-0.0138895
11462.8	-0.0141922
11475.9	-0.014787
11482.5	-0.015079
11495.6	-0.0156525
11502.2	-0.0159338
11515.3	-0.0164859
11521.9	-0.0167566
11535	-0.0172873
11541.6	-0.0175474
11554.8	-0.018057
11561.3	-0.0183066
11574.5	-0.0187955
11581	-0.0190348
11594.2	-0.0195034
11600.7	-0.0197326
11613.9	-0.0201812
11620.4	-0.0204006
11633.6	-0.0208298
11640.1	-0.0210396
11653.3	-0.0214499
11666.4	-0.0218477
11673	-0.0220421
11686.1	-0.0224217
11692.7	-0.0226071
11705.8	-0.0229689
11712.4	-0.0231454
11725.5	-0.0234897
11732.1	-0.0236575
11745.3	-0.0239845
11751.8	-0.0241436
11765	-0.0244534
11771.5	-0.024604
11784.7	-0.0248966
11791.2	-0.0250386
11804.4	-0.0253139
11810.9	-0.0254472
11824.1	-0.0257051
11830.6	-0.0258296
11843.8	-0.0260698
11850.4	-0.0261854
11863.5	-0.0264075
11870.1	-0.026514
11883.2	-0.0267177
11896.3	-0.0269088
11902.9	-0.0269996
11916	-0.0271716
11922.6	-0.0272527
11935.8	-0.0274051
11942.3	-0.0274764
11955.5	-0.0276088
11962	-0.0276699
11975.2	-0.027782
11981.7	-0.0278329
11994.9	-0.0279245
12001.4	-0.027965
12014.6	-0.0280359
12021.1	-0.0280661
12034.3	-0.0281162
12040.9	-0.0281361
12054	-0.0281657
12060.6	-0.0281754
12073.7	-0.0281849
12080.3	-0.0281846
12093.4	-0.0281745
12106.5	-0.0281516
12113.1	-0.0281356
12126.3	-0.0280945
12132.8	-0.0280697
12146	-0.0280116
12152.5	-0.0279785
12165.7	-0.0279047
12172.2	-0.0278642
12185.4	-0.0277763
12191.9	-0.0277292
12205.1	-0.027629
12211.6	-0.0275763
12224.8	-0.0274658
12231.4	-0.0274084
12244.5	-0.0272899
12251.1	-0.027229
12264.2	-0.0271047
12270.8	-0.0270415
12283.9	-0.0269139
12290.5	-0.0268498
12303.6	-0.0267214
12310.2	-0.0266575
12323.3	-0.026531
12336.5	-0.0264073
12343	-0.0263468
12356.2	-0.0262294
12362.7	-0.0261727
12375.9	-0.0260642
12382.4	-0.0260127
12395.6	-0.0259156
12402.1	-0.0258704
12415.3	-0.0257873
12421.9	-0.0257496
12435	-0.0256827
12441.6	-0.0256537
12454.7	-0.0256051
12461.3	-0.0255858
12474.4	-0.0255574
12481	-0.0255486
12494.1	-0.0255422
12500.7	-0.0255447
12513.8	-0.0255617
12520.4	-0.0255762
12533.5	-0.0256175
12540.1	-0.0256445
12553.2	-0.0257112
12566.4	-0.0257951
12572.9	-0.0258435
12586.1	-0.0259533
12592.6	-0.0260148
12605.8	-0.0261507
12612.4	-0.026225
12625.5	-0.0263866
12632.1	-0.0264737
12645.2	-0.0266603
12651.8	-0.0267597
12664.9	-0.0269704
12671.5	-0.0270815
12684.6	-0.0273152
12691.2	-0.0274374
12704.3	-0.0276925
12710.9	-0.0278251
12724	-0.0280999
12730.6	-0.0282419
12743.7	-0.0285345
12750.3	-0.0286848
12763.4	-0.0289931
12770	-0.0291508
12783.1	-0.0294725
12796.3	-0.0298018
12802.9	-0.0299691
12816	-0.0303078
12822.6	-0.0304792
12835.7	-0.0308249
12842.3	-0.030999
12855.4	-0.0313492
12862	-0.0315249
12875.1	-0.031877
12881.7	-0.032053
12894.8	-0.0324045
12901.4	-0.0325797
12914.5	-0.0329283
12921.1	-0.0331014
12934.2	-0.0334448
12940.8	-0.0336148
12953.9	-0.0339508
12960.5	-0.0341166
12973.7	-0.0344432
12980.2	-0.0346039
12993.4	-0.0349194
13006.5	-0.0352265
13013.1	-0.0353767
13026.2	-0.03567
13032.8	-0.035813
13045.9	-0.0360912
13052.5	-0.0362264
13065.6	-0.0364885
13072.2	-0.0366154
13085.3	-0.0368606
13091.9	-0.0369788
13105	-0.0372063
13111.6	-0.0373155
13124.7	-0.037525
13131.3	-0.0376252
13144.4	-0.0378163
13151	-0.0379073
13164.2	-0.0380801
13170.7	-0.0381619
13183.9	-0.0383165
13190.4	-0.0383893
13203.6	-0.0385258
13210.1	-0.0385897
13223.3	-0.0387087
13236.4	-0.0388162
13243	-0.0388658
13256.1	-0.0389566
13262.7	-0.0389979
13275.8	-0.0390726
13282.4	-0.0391061
13295.5	-0.0391653
13302.1	-0.0391912
13315.2	-0.0392357
13321.8	-0.0392544
13334.9	-0.0392847
13341.5	-0.0392965
13354.7	-0.0393135
13361.2	-0.0393187
13374.4	-0.0393228
13380.9	-0.0393217
13394.1	-0.0393135
13400.6	-0.0393063
13413.8	-0.0392863
13420.3	-0.0392733
13433.5	-0.0392417
13440	-0.0392231
13453.2	-0.0391803
13466.3	-0.0391301
13472.9	-0.0391023
13486	-0.0390411
13492.6	-0.0390077
13505.7	-0.0389354
13512.3	-0.0388965
13525.4	-0.038813
13532	-0.0387685
13545.2	-0.0386735
13551.7	-0.0386231
13564.9	-0.0385164
13571.4	-0.03846
13584.6	-0.038341
13591.1	-0.0382784
13604.3	-0.0381466
13610.8	-0.0380774
13624	-0.0379323
13630.5	-0.0378563
13643.7	-0.0376971
13650.3	-0.0376139
13663.4	-0.03744
13676.5	-0.0372559
13683.1	-0.0371599
13696.2	-0.0369599
13702.8	-0.0368558
13715.9	-0.0366392
13722.5	-0.0365266
13735.7	-0.0362927
13742.2	-0.0361713
13755.4	-0.0359194
13761.9	-0.0357889
13775.1	-0.0355185
13781.6	-0.0353786
13794.8	-0.0350892
13801.3	-0.0349396
13814.5	-0.0346307
13821	-0.0344714
13834.2	-0.0341427
13840.8	-0.0339734
13853.9	-0.0336247
13860.5	-0.0334453
13873.6	-0.0330765
13880.2	-0.0328871
13893.3	-0.0324982
13906.4	-0.0320959
13913	-0.0318899
13926.2	-0.0314679
13932.7	-0.031252
13945.9	-0.0308105
13952.4	-0.0305851
13965.6	-0.0301247
13972.1	-0.0298899
13985.3	-0.0294113
13991.8	-0.0291675
14005	-0.0286713
14011.5	-0.0284189
14024.7	-0.027906
14031.3	-0.0276456
14044.4	-0.027117
14051	-0.0268489
14064.1	-0.0263057
14070.7	-0.0260306
14083.8	-0.025474
14090.4	-0.0251925
14103.5	-0.0246236
14110.1	-0.0243363
14123.2	-0.0237566
14136.4	-0.0231704
14142.9	-0.022875
14156.1	-0.0222803
14162.6	-0.0219811
14175.8	-0.0213793
14182.3	-0.021077
14195.5	-0.0204697
14202	-0.020165
14215.2	-0.0195537
14221.8	-0.0192474
14234.9	-0.0186336
14241.5	-0.0183264
14254.6	-0.0177118
14261.2	-0.0174045
14274.3	-0.0167904
14280.9	-0.0164838
14294	-0.0158718
14300.6	-0.0155666
14313.7	-0.0149582
14320.3	-0.0146551
14333.4	-0.0140517
14346.6	-0.0134523
14353.1	-0.0131543
14366.3	-0.0125621
14372.8	-0.012268
14386	-0.0116843
14392.6	-0.0113948
14405.7	-0.0108208
14412.3	-0.0105364
14425.4	-0.00997314
14432	-0.0096944
14445.1	-0.00914299
14451.7	-0.00887042
14464.8	-0.00833179
14471.4	-0.00806583
14484.5	-0.00754085
14491.1	-0.00728191
14504.2	-0.00677135
14510.8	-0.0065198
14523.9	-0.00602434
14530.5	-0.00578049
14543.6	-0.00530071
14550.2	-0.00506483
14563.3	-0.00460123
14576.5	-0.00414862
14583.1	-0.0039265
14596.2	-0.00349067
14602.8	-0.00327699
14615.9	-0.00285817
14622.5	-0.00265305
14635.6	-0.00225138
14642.2	-0.00205486
14655.3	-0.0016704
14661.9	-0.00148248
14675	-0.0011152
14681.6	-0.000935843
14694.7	-0.000585636
14701.3	-0.000414766
14714.4	-8.1432e-05
14721	8.10624e-05
14734.1	0.000397789
14740.7	0.000552059
14753.8	0.000852514
14760.4	0.000998744
14773.6	0.00128333
14780.1	0.00142173
14793.3	0.00169089
14806.4	0.00195006
14813	0.00207597
14826.1	0.0023206
14832.7	0.00243938
14845.8	0.00267005
14852.4	0.002782
14865.5	0.00299933
14872.1	0.00310477
14885.2	0.00330941
14891.8	0.00340867
14904.9	0.00360128
14911.5	0.00369471
14924.6	0.00387598
14931.2	0.00396392
14944.3	0.00413455
14950.9	0.00421734
14964.1	0.00437804
14970.6	0.00445604
14983.8	0.00460751
14990.3	0.00468106
15003.5	0.00482398
15010	0.00489343
15023.2	0.0050285
15036.3	0.00515869
15042.9	0.00522204
15056	0.00534546
15062.6	0.00540559
15075.7	0.00552286
15082.3	0.00558006
15095.4	0.00569177
15102	0.00574633
15115.1	0.00585304
15121.7	0.00590524
15134.8	0.00600746
15141.4	0.00605753
15154.6	0.00615575
15161.1	0.00620393
15174.3	0.00629858
15180.8	0.00634508
15194	0.00643655
15200.5	0.00648155
15213.7	0.00657018
15220.2	0.00661384
15233.4	0.00669993
15246.5	0.00678447
15253.1	0.00682619
15266.2	0.00690858
15272.8	0.00694926
15285.9	0.00702966
15292.5	0.00706939
15305.6	0.00714793
15312.2	0.00718675
15325.3	0.0072635
15331.9	0.00730143
15345.1	0.00737643
15351.6	0.0074135
15364.8	0.00748674
15371.3	0.00752291
15384.5	0.00759436
15391	0.00762961
15404.2	0.00769918
15410.7	0.00773348
15423.9	0.00780108
15430.4	0.00783436
15443.6	0.00789985
15450.2	0.00793205
15463.3	0.0079953
15476.4	0.00805697
15483	0.00808719
15496.1	0.00814635
15502.7	0.00817528
15515.8	0.00823177
15522.4	0.00825932
15535.6	0.00831298
15542.1	0.00833907
15555.3	0.00838976
15561.8	0.00841433
15575	0.0084619
15581.5	0.00848488
15594.7	0.00852923
15601.2	0.00855057
15614.4	0.00859161
15620.9	0.00861129
15634.1	0.00864895
15640.7	0.00866694
15653.8	0.00870123
15660.4	0.00871754
15673.5	0.00874847
15680.1	0.00876311
15693.2	0.00879076
15706.3	0.00881628
15712.9	0.00882826
15726.1	0.00885072
15732.6	0.00886121
15745.8	0.0088808
15752.3	0.00888992
15765.5	0.00890688
15772	0.00891476
15785.2	0.0089294
15791.7	0.0089362
15804.9	0.00894886
15811.4	0.00895476
15824.6	0.00896581
15831.2	0.00897102
15844.3	0.0089809
15850.9	0.00898563
15864	0.00899479
15870.6	0.00899929
15883.7	0.00900823
15890.3	0.00901273
15903.4	0.00902196
15916.6	0.00903168
15923.1	0.00903679
15936.3	0.00904768
15942.8	0.00905351
15956	0.00906611
15962.5	0.00907293
15975.7	0.00908778
15982.2	0.00909585
15995.4	0.00911347
16001.9	0.00912306
16015.1	0.00914393
16021.7	0.00915528
16034.8	0.00917989
16041.4	0.00919322
16054.5	0.00922201
16061.1	0.00923752
16074.2	0.00927087
16080.8	0.00928875
16093.9	0.00932701
16100.5	0.00934742
16113.6	0.00939087
16120.2	0.00941394
16133.3	0.00946281
16146.5	0.00951538
16153	0.00954308
16166.2	0.0096013
16172.7	0.00963184
16185.9	0.00969576
16192.4	0.00972915
16205.6	0.00979876
16212.2	0.00983498
16225.3	0.00991019
16231.9	0.00994918
16245	0.0100298
16251.6	0.0100715
16264.7	0.0101574
16271.3	0.0102017
16284.4	0.0102926
16291	0.0103392
16304.1	0.0104348
16310.7	0.0104837
16323.8	0.0105835
16330.4	0.0106345
16343.5	0.0107383
16350.1	0.010791
16363.2	0.0108983
16376.4	0.0110076
16382.9	0.011063
16396.1	0.011175
16402.7	0.0112316
16415.8	0.0113459
16422.4	0.0114035
16435.5	0.0115195
16442.1	0.0115778
16455.2	0.0116951
16461.8	0.011754
16474.9	0.0118722
16481.5	0.0119314
16494.6	0.0120499
16501.2	0.0121092
16514.3	0.0122277
16520.9	0.0122869
16534	0.012405
16540.6	0.012464
16553.7	0.0125813
16560.3	0.0126398
16573.4	0.0127561
16580	0.0128139
16593.2	0.0129289
16606.3	0.0130429
16612.9	0.0130994
16626	0.0132116
16632.6	0.0132672
16645.7	0.0133774
16652.3	0.013432
16665.4	0.0135401
16672	0.0135936
16685.1	0.0136993
16691.7	0.0137516
16704.8	0.0138548
16711.4	0.0139058
16724.5	0.0140063
16731.1	0.0140559
16744.2	0.0141535
16750.8	0.0142015
16763.9	0.014296
16770.5	0.0143424
16783.7	0.0144334
16790.2	0.014478
16803.4	0.0145652
16816.5	0.0146496
16823.1	0.0146907
16836.2	0.0147705
16842.8	0.0148092
16855.9	0.0148838
16862.5	0.0149197
16875.6	0.0149884
16882.2	0.0150211
16895.3	0.015083
16901.9	0.0151121
16915	0.0151662
16921.6	0.0151912
16934.7	0.0152364
16941.3	0.0152565
16954.4	0.0152915
16961	0.0153061
16974.2	0.0153294
16980.7	0.0153378
16993.9	0.0153476
17000.4	0.0153488
17013.6	0.0153434
17020.1	0.0153366
17033.3	0.0153139
17046.4	0.0152786
17053	0.0152558
17066.1	0.0151995
17072.7	0.0151657
17085.8	0.015086
17092.4	0.0150398
17105.5	0.0149341
17112.1	0.0148743
17125.2	0.0147399
17131.8	0.0146651
17144.9	0.0144992
17151.5	0.0144079
17164.7	0.0142077
17171.2	0.0140985
17184.4	0.0138611
17190.9	0.0137325
17204.1	0.013455
17210.6	0.0133056
17223.8	0.012985
17230.3	0.0128134
17243.5	0.012447
17250.1	0.0122518
17263.2	0.0118367
17276.3	0.0113879
17282.9	0.0111504
17296	0.0106488
17302.6	0.0103844
17315.7	0.00982788
17322.3	0.0095355
17335.4	0.00892202
17342	0.00860074
17355.2	0.00792869
17361.7	0.00757778
17374.9	0.00684587
17381.4	0.00646478
17394.6	0.00567212
17401.1	0.0052605
17414.3	0.00440662
17420.8	0.00396436
17434	0.00304926
17440.6	0.00257648
17453.7	0.00160068
17460.3	0.00109778
17473.4	6.2308e-05
17486.5	-0.00101209
17493.1	-0.00156362
17506.2	-0.00269471
17512.8	-0.00327399
17525.9	-0.00445923
17532.5	-0.00506483
17545.7	-0.00630107
17552.2	-0.00693129
17565.4	-0.0082148
17571.9	-0.00886762
17585.1	-0.0101941
17591.6	-0.0108672
17604.8	-0.0122317
17611.3	-0.0129225
17624.5	-0.0143197
17631.1	-0.0150254
17644.2	-0.0164492
17650.8	-0.0171666
17663.9	-0.0186106
17670.5	-0.0193364
17683.6	-0.0207937
17690.2	-0.0215244
17703.3	-0.0229876
17716.4	-0.0244505
17723	-0.0251808
17736.2	-0.0266367
17742.7	-0.0273615
17755.9	-0.0288022
17762.4	-0.0295173
17775.6	-0.0309345
17782.1	-0.0316357
17795.3	-0.0330209
17801.8	-0.033704
17815	-0.0350487
17821.6	-0.0357094
17834.7	-0.0370051
17841.3	-0.0376391
17854.4	-0.0388774
17861	-0.0394807
17874.1	-0.0406534
17880.7	-0.0412218
17893.8	-0.0423209
17900.4	-0.0428506
17913.5	-0.0438683
17920.1	-0.0443555
17933.2	-0.0452847
17946.4	-0.0461511
17952.9	-0.0465598
17966.1	-0.0473266
17972.6	-0.0476839
17985.8	-0.0483452
17992.3	-0.0486485
18005.5	-0.0491991
18012.1	-0.0494458
18025.2	-0.049881
18031.8	-0.0500691
18044.9	-0.0503852
18051.5	-0.0505128
18064.6	-0.0507067
18071.2	-0.0507726
18084.3	-0.0508419
18090.9	-0.0508451
18104	-0.0507883
18110.6	-0.0507283
18123.7	-0.050545
18130.3	-0.0504216
18143.4	-0.0501118
18150	-0.0499255
18163.1	-0.0494903
18176.3	-0.0489726
18182.8	-0.048683
18196	-0.0480435
18202.6	-0.0476938
18215.7	-0.0469356
18222.3	-0.0465276
18235.4	-0.0456549
18242	-0.0451907
18255.1	-0.0442082
18261.7	-0.0436904
18274.8	-0.0426034
18281.4	-0.0420348
18294.5	-0.0408494
18301.1	-0.0402332
18314.2	-0.038956
18320.8	-0.0382957
18333.9	-0.0369338
18340.5	-0.036233
18353.6	-0.0347939
18360.2	-0.0340566
18373.3	-0.0325484
18386.5	-0.0309986
18393.1	-0.0302093
18406.2	-0.0286043
18412.8	-0.0277895
18425.9	-0.0261378
18432.5	-0.0253018
18445.6	-0.0236121
18452.2	-0.0227593
18465.3	-0.0210404
18471.9	-0.0201752
18485	-0.0184358
18491.6	-0.0175625
18504.7	-0.0158112
18511.3	-0.0149341
18524.4	-0.0131794
18531	-0.0123027
18544.1	-0.0105528
18550.7	-0.00968053
18563.8	-0.00794347
18570.4	-0.00707955
18583.6	-0.00536297
18590.1	-0.00451114
18603.3	-0.00282235
18616.4	-0.00115595
18623	-0.000332071
18636.1	0.00129527
18642.7	0.00209805
18655.8	0.00368016
18662.4	0.00445887
18675.5	0.00599005
18682.1	0.00674195
18695.2	0.008217
18701.8	0.00893962
18714.9	0.0103538
18721.5	0.0110449
18734.6	0.0123941
18741.2	0.0130517
18754.3	0.0143321
18760.9	0.0149546
18774.1	0.0161631
18780.6	0.0167489
18793.8	0.0178829
18800.3	0.0184308
18813.5	0.0194881
18820	0.0199973
18833.2	0.0209762
18846.3	0.0219021
18852.9	0.0223452
18866	0.0231911
18872.6	0.0235939
18885.7	0.0243594
18892.3	0.024722
18905.4	0.025407
18912	0.0257294
18925.1	0.0263344
18931.7	0.026617
18944.8	0.0271428
18951.4	0.027386
18964.6	0.0278338
18971.1	0.0280384
18984.3	0.0284097
18990.8	0.0285765
19004	0.0288731
19010.5	0.0290031
19023.7	0.0292271
19030.2	0.0293214
19043.4	0.0294752
19056.5	0.0295835
19063.1	0.029621
19076.2	0.0296635
19082.8	0.0296687
19095.9	0.0296481
19102.5	0.0296226
19115.6	0.0295419
19122.2	0.0294871
19135.3	0.0293493
19141.9	0.0292668
19155.1	0.0290752
19161.6	0.0289664
19174.8	0.0287241
19181.3	0.0285908
19194.5	0.0283009
19201	0.0281447
19214.2	0.0278105
19220.7	0.0276329
19233.9	0.0272575
19240.4	0.0270602
19253.6	0.0266468
19260.2	0.0264312
19273.3	0.025983
19286.4	0.0255132
19293	0.0252706
19306.1	0.0247709
19312.7	0.0245141
19325.8	0.0239874
19332.4	0.0237179
19345.6	0.023167
19352.1	0.0228859
19365.3	0.0223135
19371.8	0.0220224
19385	0.0214311
19391.5	0.0211312
19404.7	0.0205234
19411.2	0.0202159
19424.4	0.019594
19430.9	0.01928
19444.1	0.0186463
19450.7	0.0183268
19463.8	0.0176833
19470.4	0.0173594
19483.5	0.0167081
19490.1	0.0163808
19503.2	0.0157234
19516.3	0.0150628
19522.9	0.0147316
19536.1	0.0140677
19542.6	0.0137352
19555.8	0.0130693
19562.3	0.0127361
19575.5	0.0120695
19582	0.0117362
19595.2	0.0110698
19601.7	0.0107369
19614.9	0.0100718
19621.4	0.00973972
19634.6	0.00907658
19641.2	0.00874562
19654.3	0.00808501
19660.9	0.00775542
19674	0.00709774
19680.6	0.00676968
19693.7	0.00611516
19700.3	0.0057887
19713.4	0.00513738
19726.6	0.00448814
19733.1	0.00416428
19746.3	0.00351795
19752.8	0.00319545
19766	0.00255164
19772.5	0.00223026
19785.7	0.00158839
19792.2	0.00126781
19805.4	0.000627152
19811.9	0.000306973
19825.1	-0.000333349
19831.7	-0.000653605
19844.8	-0.00129461
19851.4	-0.00161548
19864.5	-0.00225831
19871.1	-0.0025804
19884.2	-0.00322629
19890.8	-0.00355025
19903.9	-0.00420055
19910.5	-0.00452705
19923.6	-0.00518315
19930.2	-0.0055129
19943.3	-0.00617622
19956.5	-0.00684514
19963	-0.0071819
19976.2	-0.0078604
19982.7	-0.00820228
19995.9	-0.00889169
