0	0
11.8196	0
23.6393	0
35.4589	0
41.3687	0
53.1883	0
65.008	0
70.9178	0
82.7374	0
94.557	0
100.467	0
112.286	0
124.106	0
130.016	0
141.836	0
153.655	0
165.475	0
171.385	0
183.204	0
195.024	0
200.934	0
212.753	0
224.573	0
230.483	0
242.302	0
254.122	0
260.032	0
271.851	0
283.671	0
295.491	0
301.401	0
313.22	0
325.04	0
330.95	0
342.769	0
354.589	0
360.499	0
372.318	0
384.138	0
390.048	0
401.867	0
413.687	0
425.507	0
431.416	0
443.236	0
455.056	0
460.966	0
472.785	0
484.605	0
490.515	0
502.334	0
514.154	0
520.064	0
531.883	0
543.703	0
555.523	0
561.432	0
573.252	0
585.072	0
590.981	0
602.801	0
614.621	0
620.53	0
632.35	0
644.17	0
650.08	0
661.899	0
673.719	0
685.538	0
691.448	0
703.268	0
715.088	0
720.997	0
732.817	0
744.637	0
750.546	0
762.366	0
774.186	0
780.095	0
791.915	0
803.735	0
815.554	0
821.464	0
833.284	0
845.103	0
851.013	0
862.833	0
874.652	0
880.562	0
892.382	0
904.202	0
910.111	0
921.931	0
933.751	0
945.57	0
951.48	0
963.3	0
975.119	0
981.029	0
992.849	0
1004.67	0
1010.58	0
1022.4	0
1034.22	0
1040.13	0
1051.95	0
1063.77	0
1075.59	0
1081.5	0
1093.32	0
1105.14	0
1111.05	0
1122.86	0
1134.68	0
1140.59	0
1152.41	0
1164.23	0
1170.14	0
1181.96	0
1193.78	0
1205.6	0
1211.51	0
1223.33	0
1235.15	0
1241.06	0
1252.88	0
1264.7	0
1270.61	0
1282.43	0
1294.25	-9.09495e-13
1300.16	-9.09495e-13
1311.98	-2.72848e-12
1323.8	-4.54747e-12
1335.62	-6.36646e-12
1341.53	-8.18545e-12
1353.35	-1.18234e-11
1365.17	-1.72804e-11
1371.08	-2.09184e-11
1382.9	-3.09228e-11
1394.72	-4.54747e-11
1400.63	-5.45697e-11
1412.45	-7.9126e-11
1424.27	-1.14596e-10
1430.18	-1.37334e-10
1441.99	-1.96451e-10
1453.81	-2.80124e-10
1465.63	-3.97449e-10
1471.54	-4.72028e-10
1483.36	-6.63022e-10
1495.18	-9.25866e-10
1501.09	-1.0923e-09
1512.91	-1.51522e-09
1524.73	-2.09093e-09
1530.64	-2.45109e-09
1542.46	-3.35513e-09
1554.28	-4.57021e-09
1560.19	-5.32418e-09
1572.01	-7.19956e-09
1583.83	-9.68794e-09
1595.65	-1.29739e-08
1601.56	-1.49867e-08
1613.38	-1.99288e-08
1625.2	-2.6379e-08
1631.11	-3.0298e-08
1642.93	-3.98359e-08
1654.75	-5.2145e-08
1660.66	-5.95628e-08
1672.48	-7.74635e-08
1684.3	-1.00317e-07
1690.21	-1.13981e-07
1702.03	-1.46689e-07
1713.85	-1.88015e-07
1725.67	-2.40017e-07
1731.58	-2.70783e-07
1743.4	-3.43638e-07
1755.21	-4.34411e-07
1761.12	-4.87727e-07
1772.94	-6.13057e-07
1784.76	-7.67723e-07
1790.67	-8.57938e-07
1802.49	-1.0685e-06
1814.31	-1.32596e-06
1820.22	-1.47512e-06
1832.04	-1.82089e-06
1843.86	-2.23991e-06
1855.68	-2.74594e-06
1861.59	-3.03648e-06
1873.41	-3.70374e-06
1885.23	-4.50273e-06
1891.14	-4.95862e-06
1902.96	-5.99901e-06
1914.78	-7.23453e-06
1920.69	-7.93526e-06
1932.51	-9.52456e-06
1944.33	-1.13969e-05
1950.24	-1.24526e-05
1962.06	-1.48327e-05
1973.88	-1.76149e-05
1985.7	-2.08572e-05
1991.61	-2.26709e-05
2003.43	-2.67269e-05
2015.25	-3.14184e-05
2021.16	-3.40282e-05
2032.98	-3.98322e-05
2044.8	-4.64965e-05
2050.71	-5.01838e-05
2062.53	-5.83392e-05
2074.34	-6.76365e-05
2080.25	-7.27535e-05
2092.07	-8.40105e-05
2103.89	-9.67536e-05
2115.71	-0.000111139
2121.62	-0.000118999
2133.44	-0.000136163
2145.26	-0.000155405
2151.17	-0.000165865
2162.99	-0.000188589
2174.81	-0.00021389
2180.72	-0.000227574
2192.54	-0.000257146
2204.36	-0.000289848
2210.27	-0.000307445
2222.09	-0.000345277
2233.91	-0.000386825
2245.73	-0.000432327
2251.64	-0.000456635
2263.46	-0.000508512
2275.28	-0.000564927
2281.19	-0.000594906
2293.01	-0.000658539
2304.83	-0.000727237
2310.74	-0.000763543
2322.56	-0.000840173
2334.38	-0.000922277
2340.29	-0.000965419
2352.11	-0.00105594
2363.93	-0.00115214
2375.75	-0.00125403
2381.66	-0.0013071
2393.47	-0.00141744
2405.29	-0.00153324
2411.2	-0.00159312
2423.02	-0.0017167
2434.84	-0.00184506
2440.75	-0.0019109
2452.57	-0.0020456
2464.39	-0.00218381
2470.3	-0.00225402
2482.12	-0.00239615
2493.94	-0.0025398
2505.76	-0.00268394
2511.67	-0.00275583
2523.49	-0.00289842
2535.31	-0.00303824
2541.22	-0.00310662
2553.04	-0.00323922
2564.86	-0.00336471
2570.77	-0.00342415
2582.59	-0.00353503
2594.41	-0.00363324
2600.32	-0.0036768
2612.14	-0.00375111
2623.96	-0.00380589
2635.78	-0.00383801
2641.69	-0.00384453
2653.51	-0.00383629
2665.33	-0.00379657
2671.24	-0.00376369
2683.06	-0.00366931
2694.88	-0.00353322
2700.79	-0.00344814
2712.6	-0.00324099
2724.42	-0.00298054
2730.33	-0.00282876
2742.15	-0.0024789
2753.97	-0.0020629
2765.79	-0.0015753
2771.7	-0.00130292
2783.52	-0.000697424
2795.34	-6.13501e-06
2801.25	0.000373516
2813.07	0.00120454
2824.89	0.00213618
2830.8	0.00264161
2842.62	0.00373545
2854.44	0.00494494
2860.35	0.00559492
2872.17	0.00698906
2883.99	0.00851362
2895.81	0.0101743
2901.72	0.0110574
2913.54	0.0129327
2925.36	0.0149575
2931.27	0.0160276
2943.09	0.018286
2954.91	0.0207059
2960.82	0.0219777
2972.64	0.0246473
2984.46	0.0274879
2990.37	0.0289732
3002.18	0.0320757
3014	0.0353558
3025.82	0.038815
3031.73	0.0406122
3043.55	0.0443422
3055.37	0.0482528
3061.28	0.0502757
3073.1	0.0544561
3084.92	0.0588144
3090.83	0.0610596
3102.65	0.0656799
3114.47	0.0704707
3120.38	0.0729286
3132.2	0.0779665
3144.02	0.0831622
3155.84	0.0885094
3161.75	0.0912375
3173.57	0.0967978
3185.39	0.10249
3191.3	0.105382
3203.12	0.111254
3214.94	0.117232
3220.85	0.120258
3232.67	0.126375
3244.48	0.132569
3250.39	0.13569
3262.21	0.141975
3274.03	0.148302
3285.85	0.154657
3291.76	0.157841
3303.58	0.164209
3315.4	0.170566
3321.31	0.173735
3333.13	0.180044
3344.95	0.186299
3350.86	0.189402
3362.68	0.195544
3374.5	0.20159
3380.41	0.204571
3392.23	0.210437
3404.05	0.216161
3415.87	0.221726
3421.78	0.224443
3433.6	0.229736
3445.41	0.234826
3451.32	0.237289
3463.14	0.242042
3474.96	0.24655
3480.87	0.248707
3492.69	0.252818
3504.51	0.256646
3510.42	0.25845
3522.24	0.261826
3534.06	0.264884
3545.88	0.267613
3551.79	0.26885
3563.61	0.271062
3575.43	0.272917
3581.34	0.273708
3593.16	0.275011
3604.98	0.275937
3610.89	0.276256
3622.7	0.276604
3634.52	0.27656
3640.43	0.276391
3652.25	0.275754
3664.07	0.27472
3675.89	0.273287
3681.8	0.272421
3693.62	0.270393
3705.44	0.26797
3711.35	0.266612
3723.17	0.263606
3734.99	0.260216
3740.9	0.25838
3752.72	0.254429
3764.53	0.250115
3770.44	0.247824
3782.26	0.242981
3794.08	0.237799
3805.9	0.232291
3811.81	0.229418
3823.63	0.223444
3835.45	0.217177
3841.36	0.213938
3853.18	0.207259
3865	0.200326
3870.91	0.196769
3882.73	0.189486
3894.55	0.181991
3900.46	0.178169
3912.27	0.17039
3924.09	0.162445
3930	0.158416
3941.82	0.150257
3953.64	0.14198
3965.46	0.133603
3971.37	0.129384
3983.19	0.120895
3995.01	0.112355
4000.92	0.108072
4012.74	0.0994915
4024.56	0.0909083
4030.47	0.0866214
4042.29	0.0780687
4054.1	0.069559
4060.01	0.0653258
4071.83	0.0569139
4083.65	0.0485887
4095.47	0.0403666
4101.38	0.0362992
4113.2	0.0282616
4125.02	0.0203657
4130.93	0.0164754
4142.75	0.00881875
4154.57	0.00133822
4160.48	-0.0023321
4172.3	-0.00952544
4184.12	-0.0165131
4190.03	-0.0199266
4201.85	-0.0265866
4213.66	-0.0330166
4225.48	-0.0392084
4231.39	-0.0422126
4243.21	-0.0480334
4255.03	-0.0535992
4260.94	-0.0562847
4272.76	-0.0614584
4284.58	-0.0663655
4290.49	-0.0687182
4302.31	-0.0732203
4314.13	-0.0774498
4320.04	-0.079462
4331.86	-0.0832812
4343.68	-0.0868268
4355.5	-0.0900999
4361.41	-0.0916348
4373.23	-0.0945026
4385.05	-0.0971034
4390.95	-0.0983047
4402.77	-0.100512
4414.59	-0.102461
4420.5	-0.103341
4432.32	-0.104915
4444.14	-0.106244
4450.05	-0.106819
4461.87	-0.107795
4473.69	-0.108543
4485.51	-0.109071
4491.42	-0.109255
4503.24	-0.109467
4515.06	-0.109479
4520.97	-0.109413
4532.79	-0.109141
4544.61	-0.108689
4550.52	-0.108399
4562.34	-0.107696
4574.16	-0.106838
4580.07	-0.106352
4591.89	-0.105276
4603.71	-0.104067
4615.53	-0.102734
4621.44	-0.102025
4633.26	-0.100524
4645.08	-0.098922
4650.98	-0.0980863
4662.8	-0.0963508
4674.62	-0.0945373
4680.53	-0.093604
4692.35	-0.0916898
4704.17	-0.0897191
4710.08	-0.0887153
4721.9	-0.0866755
4733.72	-0.0845996
4745.54	-0.0824953
4751.45	-0.0814349
4763.27	-0.079302
4775.09	-0.0771588
4781	-0.0760856
4792.82	-0.0739396
4804.64	-0.0717998
4810.55	-0.0707341
4822.37	-0.0686145
4834.19	-0.0665155
4840.1	-0.0654753
4851.92	-0.0634167
4863.74	-0.061391
4875.56	-0.0594027
4881.47	-0.0584238
4893.29	-0.056499
4905.11	-0.0546212
4911.02	-0.0537009
4922.84	-0.0518996
4934.66	-0.0501528
4940.57	-0.0493007
4952.38	-0.0476405
4964.2	-0.0460407
4970.11	-0.045264
4981.93	-0.0437579
4993.75	-0.0423162
5005.57	-0.04094
5011.48	-0.0402767
5023.3	-0.0390002
5035.12	-0.0377908
5041.03	-0.0372114
5052.85	-0.0361033
5064.67	-0.0350625
5070.58	-0.0345674
5082.4	-0.0336272
5094.22	-0.0327534
5100.13	-0.0323412
5111.95	-0.0315655
5123.77	-0.0308542
5135.59	-0.0302059
5141.5	-0.029905
5153.32	-0.029349
5165.14	-0.0288527
5171.05	-0.0286264
5182.87	-0.0282166
5194.69	-0.0278623
5200.6	-0.0277055
5212.42	-0.0274311
5224.24	-0.0272075
5230.15	-0.0271141
5241.96	-0.0269629
5253.78	-0.0268575
5265.6	-0.0267956
5271.51	-0.0267803
5283.33	-0.0267796
5295.15	-0.026817
5301.06	-0.0268493
5312.88	-0.0269396
5324.7	-0.0270623
5330.61	-0.0271352
5342.43	-0.0273024
5354.25	-0.0274965
5360.16	-0.027603
5371.98	-0.0278332
5383.8	-0.0280848
5395.62	-0.0283557
5401.53	-0.0284976
5413.35	-0.0287933
5425.17	-0.0291029
5431.08	-0.0292623
5442.9	-0.0295891
5454.72	-0.0299249
5460.63	-0.0300956
5472.45	-0.0304413
5484.27	-0.0307914
5490.18	-0.0309675
5502	-0.0313208
5513.82	-0.0316742
5525.63	-0.032026
5531.54	-0.0322008
5543.36	-0.0325475
5555.18	-0.0328888
5561.09	-0.0330571
5572.91	-0.0333879
5584.73	-0.0337102
5590.64	-0.0338677
5602.46	-0.0341748
5614.28	-0.0344705
5620.19	-0.0346137
5632.01	-0.0348902
5643.83	-0.0351527
5655.65	-0.0354005
5661.56	-0.0355185
5673.38	-0.0357426
5685.2	-0.03595
5691.11	-0.0360472
5702.93	-0.0362284
5714.75	-0.0363914
5720.66	-0.036466
5732.48	-0.0366009
5744.3	-0.0367166
5750.21	-0.0367671
5762.03	-0.0368534
5773.85	-0.0369197
5785.67	-0.0369658
5791.58	-0.0369813
5803.4	-0.036997
5815.22	-0.0369923
5821.13	-0.0369823
5832.94	-0.036947
5844.76	-0.0368914
5850.67	-0.036856
5862.49	-0.03677
5874.31	-0.0366639
5880.22	-0.0366035
5892.04	-0.0364677
5903.86	-0.0363125
5915.68	-0.0361381
5921.59	-0.0360437
5933.41	-0.035841
5945.23	-0.0356199
5951.14	-0.0355026
5962.96	-0.0352546
5974.78	-0.0349892
5980.69	-0.0348501
5992.51	-0.0345594
6004.33	-0.0342523
6010.24	-0.0340928
6022.06	-0.0337622
6033.88	-0.0334165
6045.7	-0.0330561
6051.61	-0.0328706
6063.43	-0.0324893
6075.25	-0.0320947
6081.16	-0.0318926
6092.98	-0.031479
6104.8	-0.0310534
6110.71	-0.0308363
6122.53	-0.0303937
6134.34	-0.0299405
6140.25	-0.0297101
6152.07	-0.0292419
6163.89	-0.0287644
6175.71	-0.0282781
6181.62	-0.0280318
6193.44	-0.0275333
6205.26	-0.0270272
6211.17	-0.0267716
6222.99	-0.0262552
6234.81	-0.0257326
6240.72	-0.0254691
6252.54	-0.0249379
6264.36	-0.0244017
6270.27	-0.0241318
6282.09	-0.0235888
6293.91	-0.0230418
6305.73	-0.0224912
6311.64	-0.0222147
6323.46	-0.0216596
6335.28	-0.0211019
6341.19	-0.0208222
6353.01	-0.0202614
6364.83	-0.019699
6370.74	-0.0194173
6382.56	-0.0188531
6394.38	-0.0182881
6400.29	-0.0180054
6412.11	-0.0174399
6423.93	-0.0168744
6435.75	-0.0163091
6441.65	-0.0160267
6453.47	-0.0154624
6465.29	-0.0148991
6471.2	-0.0146178
6483.02	-0.0140564
6494.84	-0.0134966
6500.75	-0.0132173
6512.57	-0.0126602
6524.39	-0.0121052
6530.3	-0.0118286
6542.12	-0.0112772
6553.94	-0.0107284
6565.76	-0.0101824
6571.67	-0.00991054
6583.49	-0.00936907
6595.31	-0.00883083
6601.22	-0.00856298
6613.04	-0.00802989
6624.86	-0.00750044
6630.77	-0.00723712
6642.59	-0.00671341
6654.41	-0.0061937
6660.32	-0.00593539
6672.14	-0.00542196
6683.96	-0.0049129
6695.78	-0.00440834
6701.69	-0.00415779
6713.51	-0.00366024
6725.33	-0.00316754
6731.24	-0.00292305
6743.06	-0.00243787
6754.88	-0.00195787
6760.79	-0.00171986
6772.6	-0.00124789
6784.42	-0.000781449
6790.33	-0.000550342
6802.15	-9.24429e-05
6813.97	0.000359588
6825.79	0.00080561
6831.7	0.00102632
6843.52	0.00146307
6855.34	0.00189345
6861.25	0.00210621
6873.07	0.00252677
6884.89	0.0029406
6890.8	0.00314495
6902.62	0.00354841
6914.44	0.00394476
6920.35	0.00414023
6932.17	0.00452564
6943.99	0.00490357
6955.81	0.00527385
6961.72	0.00545607
6973.54	0.0058146
6985.36	0.00616509
6991.27	0.00633727
7003.09	0.00667541
7014.91	0.00700512
7020.82	0.00716677
7032.64	0.00748354
7044.46	0.00779148
7050.37	0.0079421
7062.19	0.00823651
7074.01	0.00852172
7085.83	0.00879755
7091.74	0.00893191
7103.55	0.00919341
7115.37	0.00944518
7121.28	0.00956736
7133.1	0.00980423
7144.92	0.010031
7150.83	0.0101406
7162.65	0.0103519
7174.47	0.0105529
7180.38	0.0106494
7192.2	0.0108344
7204.02	0.0110087
7215.84	0.0111721
7221.75	0.0112496
7233.57	0.0113965
7245.39	0.0115323
7251.3	0.0115959
7263.12	0.0117148
7274.94	0.0118222
7280.85	0.0118717
7292.67	0.0119619
7304.49	0.0120405
7310.4	0.0120755
7322.22	0.0121366
7334.04	0.0121861
7345.86	0.0122237
7351.77	0.012238
7363.59	0.0122579
7375.41	0.0122659
7381.32	0.0122654
7393.14	0.0122554
7404.96	0.0122336
7410.87	0.0122182
7422.68	0.0121784
7434.5	0.0121266
7440.41	0.0120963
7452.23	0.0120266
7464.05	0.011945
7475.87	0.0118516
7481.78	0.0118004
7493.6	0.0116892
7505.42	0.0115662
7511.33	0.0115003
7523.15	0.0113597
7534.97	0.0112074
7540.88	0.011127
7552.7	0.0109574
7564.52	0.0107764
7570.43	0.0106817
7582.25	0.0104837
7594.07	0.0102744
7605.89	0.0100541
7611.8	0.00993976
7623.62	0.00970293
7635.44	0.00945527
7641.35	0.00932742
7653.17	0.00906374
7664.99	0.00878954
7670.9	0.00864855
7682.72	0.00835884
7694.54	0.00805898
7700.44	0.00790529
7712.26	0.00759047
7724.08	0.00726588
7735.9	0.00693168
7741.81	0.00676102
7753.63	0.00641272
7765.45	0.00605524
7771.36	0.00587311
7783.18	0.00550219
7795	0.00512254
7800.91	0.0049295
7812.73	0.00453712
7824.55	0.00413648
7830.46	0.00393313
7842.28	0.00352048
7854.1	0.00310009
7860.01	0.00288705
7871.83	0.00245543
7883.65	0.00201657
7895.47	0.0015707
7901.38	0.0013452
7913.2	0.000889218
7925.02	0.00042677
7930.93	0.000193191
7942.75	-0.000278535
7954.57	-0.000756161
7960.48	-0.000997115
7972.29	-0.00148316
7984.11	-0.00197452
7990.02	-0.00222212
8001.84	-0.00272102
8013.66	-0.00322464
8025.48	-0.00373274
8031.39	-0.0039884
8043.21	-0.00450277
8055.03	-0.005021
8060.94	-0.00528149
8072.76	-0.00580506
8084.58	-0.00633187
8090.49	-0.00659641
8102.31	-0.00712761
8114.13	-0.00766141
8120.04	-0.00792921
8131.86	-0.00846644
8143.68	-0.00900563
8155.5	-0.00954652
8161.41	-0.00981752
8173.23	-0.0103605
8185.05	-0.0109045
8190.96	-0.0111768
8202.78	-0.0117218
8214.6	-0.0122673
8220.51	-0.01254
8232.33	-0.0130856
8244.14	-0.0136308
8250.05	-0.0139032
8261.87	-0.0144475
8273.69	-0.0149909
8285.51	-0.015533
8291.42	-0.0158035
8303.24	-0.0163433
8315.06	-0.0168812
8320.97	-0.0171494
8332.79	-0.017684
8344.61	-0.018216
8350.52	-0.0184809
8362.34	-0.0190086
8374.16	-0.0195331
8380.07	-0.019794
8391.89	-0.0203132
8403.71	-0.0208284
8415.53	-0.0213396
8421.44	-0.0215935
8433.26	-0.022098
8445.08	-0.0225977
8450.99	-0.0228457
8462.81	-0.0233377
8474.63	-0.0238244
8480.54	-0.0240656
8492.36	-0.0245437
8504.18	-0.0250158
8510.08	-0.0252495
8521.9	-0.0257122
8533.72	-0.0261682
8545.54	-0.0266174
8551.45	-0.0268394
8563.27	-0.0272779
8575.09	-0.027709
8581	-0.0279217
8592.82	-0.0283414
8604.64	-0.0287531
8610.55	-0.0289559
8622.37	-0.0293553
8634.19	-0.0297463
8640.1	-0.0299385
8651.92	-0.0303165
8663.74	-0.0306855
8675.56	-0.0310454
8681.47	-0.0312219
8693.29	-0.0315679
8705.11	-0.0319043
8711.02	-0.0320689
8722.84	-0.0323907
8734.66	-0.0327025
8740.57	-0.0328547
8752.39	-0.0331514
8764.21	-0.0334377
8770.12	-0.033577
8781.94	-0.0338477
8793.75	-0.0341078
8805.57	-0.0343571
8811.48	-0.0344777
8823.3	-0.0347107
8835.12	-0.0349327
8841.03	-0.0350395
8852.85	-0.0352448
8864.67	-0.0354388
8870.58	-0.0355316
8882.4	-0.0357087
8894.22	-0.0358743
8900.13	-0.0359528
8911.95	-0.0361011
8923.77	-0.0362379
8935.59	-0.036363
8941.5	-0.0364213
8953.32	-0.0365289
8965.14	-0.0366249
8971.05	-0.0366684
8982.87	-0.0367468
8994.69	-0.0368134
9000.6	-0.0368423
9012.42	-0.0368913
9024.24	-0.0369285
9030.15	-0.0369427
9041.97	-0.0369623
9053.79	-0.0369702
9065.61	-0.0369664
9071.51	-0.0369601
9083.33	-0.0369389
9095.15	-0.036906
9101.06	-0.0368853
9112.88	-0.0368352
9124.7	-0.0367736
9130.61	-0.0367385
9142.43	-0.0366599
9154.25	-0.03657
9160.16	-0.0365208
9171.98	-0.0364142
9183.8	-0.0362965
9195.62	-0.0361678
9201.53	-0.0360993
9213.35	-0.0359544
9225.17	-0.0357988
9231.08	-0.035717
9242.9	-0.0355455
9254.72	-0.0353636
9260.63	-0.0352688
9272.45	-0.0350716
9284.27	-0.0348643
9290.18	-0.0347569
9302	-0.0345348
9313.82	-0.034303
9325.64	-0.0340616
9331.55	-0.0339374
9343.37	-0.0336821
9355.19	-0.0334176
9361.09	-0.0332819
9372.91	-0.0330041
9384.73	-0.0327175
9390.64	-0.032571
9402.46	-0.0322717
9414.28	-0.0319642
9420.19	-0.0318074
9432.01	-0.031488
9443.83	-0.0311607
9455.65	-0.030826
9461.56	-0.0306558
9473.38	-0.0303101
9485.2	-0.0299575
9491.11	-0.0297785
9502.93	-0.0294157
9514.75	-0.0290464
9520.66	-0.0288594
9532.48	-0.0284809
9544.3	-0.0280964
9550.21	-0.027902
9562.03	-0.0275091
9573.85	-0.0271108
9585.67	-0.0267075
9591.58	-0.026504
9603.4	-0.0260935
9615.22	-0.0256784
9621.13	-0.0254693
9632.95	-0.025048
9644.77	-0.0246228
9650.68	-0.0244088
9662.49	-0.0239782
9674.31	-0.0235444
9680.22	-0.0233264
9692.04	-0.0228881
9703.86	-0.0224472
9715.68	-0.0220039
9721.59	-0.0217815
9733.41	-0.0213351
9745.23	-0.020887
9751.14	-0.0206624
9762.96	-0.0202121
9774.78	-0.0197607
9780.69	-0.0195347
9792.51	-0.0190821
9804.33	-0.018629
9810.24	-0.0184024
9822.06	-0.0179491
9833.88	-0.017496
9845.7	-0.0170432
9851.61	-0.0168171
9863.43	-0.0163654
9875.25	-0.0159147
9881.16	-0.0156899
9892.98	-0.0152412
9904.8	-0.0147942
9910.71	-0.0145714
9922.53	-0.0141273
9934.35	-0.0136854
9940.26	-0.0134654
9952.08	-0.0130274
9963.9	-0.0125921
9975.71	-0.0121599
9981.62	-0.0119451
9993.44	-0.0115179
10005.3	-0.0110943
10011.2	-0.010884
10023	-0.0104662
10034.8	-0.0100527
10040.7	-0.00984751
10052.5	-0.00944057
10064.4	-0.0090383
10070.3	-0.00883898
10082.1	-0.00844409
10093.9	-0.00805438
10105.7	-0.00767002
10111.6	-0.0074799
10123.5	-0.00710392
10135.3	-0.00673375
10141.2	-0.0065509
10153	-0.00618977
10164.8	-0.00583488
10170.7	-0.00565982
10182.6	-0.00531457
10194.4	-0.00497595
10200.3	-0.00480917
10212.1	-0.00448077
10223.9	-0.00415934
10235.7	-0.00384503
10241.7	-0.00369059
10253.5	-0.00338719
10265.3	-0.00309122
10271.2	-0.00294605
10283	-0.00266142
10294.8	-0.00238448
10300.8	-0.00224893
10312.6	-0.00198371
10324.4	-0.00172642
10330.3	-0.00160077
10342.1	-0.00135551
10353.9	-0.00111837
10365.8	-0.000889415
10371.7	-0.000778022
10383.5	-0.000561442
10395.3	-0.000353178
10401.2	-0.000252178
10413	-5.64636e-05
10424.9	0.000130842
10430.8	0.000221333
10442.6	0.000395979
10454.4	0.000562164
10460.3	0.000642082
10472.1	0.000795562
10484	0.000940572
10495.8	0.00107712
10501.7	0.00114222
10513.5	0.00126611
10525.3	0.00138157
10531.2	0.00143616
10543.1	0.00153907
10554.9	0.00163365
10560.8	0.00167783
10572.6	0.00176002
10584.4	0.00183401
10590.3	0.00186795
10602.2	0.00192976
10614	0.00198355
10625.8	0.0020294
10631.7	0.00204937
10643.5	0.00208345
10655.3	0.00210982
10661.3	0.00212013
10673.1	0.0021351
10684.9	0.0021426
10690.8	0.00214359
10702.6	0.00214012
10714.4	0.00212948
10720.4	0.00212151
10732.2	0.00210037
10744	0.00207238
10755.8	0.00203771
10761.7	0.0020179
10773.5	0.00197346
10785.4	0.0019227
10791.3	0.00189499
10803.1	0.00183505
10814.9	0.00176919
10820.8	0.00173409
10832.6	0.00165967
10844.5	0.00157977
10850.4	0.00153782
10862.2	0.00145003
10874	0.00135721
10885.8	0.00125955
10891.7	0.00120896
10903.6	0.00110441
10915.4	0.000995493
10921.3	0.000939466
10933.1	0.000824398
10944.9	0.000705482
10950.8	0.000644645
10962.7	0.000520344
10974.5	0.000392714
10980.4	0.000327718
10992.2	0.000195494
11004	6.04765e-05
11015.8	-7.71193e-05
11021.8	-0.000146816
11033.6	-0.00028787
11045.4	-0.000430956
11051.3	-0.000503191
11063.1	-0.000648911
11074.9	-0.00079611
11080.8	-0.000870194
11092.7	-0.0010192
11104.5	-0.00116912
11110.4	-0.00124436
11122.2	-0.00139526
11134	-0.00154653
11145.9	-0.00169795
11151.8	-0.00177365
11163.6	-0.00192488
11175.4	-0.00207572
11181.3	-0.00215092
11193.1	-0.00230075
11205	-0.00244965
11210.9	-0.00252368
11222.7	-0.00267078
11234.5	-0.00281641
11240.4	-0.00288862
11252.2	-0.00303167
11264.1	-0.00317274
11275.9	-0.00331164
11281.8	-0.00338022
11293.6	-0.00351548
11305.4	-0.00364809
11311.3	-0.00371333
11323.2	-0.00384159
11335	-0.00396672
11340.9	-0.00402805
11352.7	-0.00414815
11364.5	-0.00426468
11370.4	-0.00432156
11382.2	-0.00443242
11394.1	-0.0045393
11405.9	-0.00464205
11411.8	-0.00469182
11423.6	-0.00478807
11435.4	-0.0048798
11441.3	-0.00492394
11453.2	-0.00500865
11465	-0.00508851
11470.9	-0.00512658
11482.7	-0.00519894
11494.5	-0.00526613
11500.4	-0.00529777
11512.3	-0.00535703
11524.1	-0.00541086
11535.9	-0.00545918
11541.8	-0.00548124
11553.6	-0.00552112
11565.5	-0.00555525
11571.4	-0.00557015
11583.2	-0.00559555
11595	-0.00561503
11600.9	-0.00562254
11612.7	-0.00563305
11624.6	-0.00563752
11630.5	-0.00563747
11642.3	-0.00563279
11654.1	-0.00562197
11660	-0.00561424
11671.8	-0.00559416
11683.7	-0.00556787
11695.5	-0.00553538
11701.4	-0.0055168
11713.2	-0.00547499
11725	-0.00542697
11730.9	-0.00540064
11742.7	-0.00534333
11754.6	-0.00527985
11760.5	-0.00524581
11772.3	-0.00517314
11784.1	-0.00509438
11790	-0.00505273
11801.8	-0.00496493
11813.7	-0.00487115
11825.5	-0.00477146
11831.4	-0.00471942
11843.2	-0.00461098
11855	-0.0044968
11860.9	-0.00443758
11872.8	-0.00431493
11884.6	-0.00418674
11890.5	-0.00412059
11902.3	-0.00398426
11914.1	-0.00384263
11920	-0.00376985
11931.9	-0.00362045
11943.7	-0.00346601
11955.5	-0.00330665
11961.4	-0.00322516
11973.2	-0.00305863
11985.1	-0.00288749
11991	-0.00280023
12002.8	-0.0026224
12014.6	-0.00244028
12020.5	-0.00234766
12032.3	-0.00215938
12044.1	-0.00196716
12050.1	-0.00186962
12061.9	-0.00167178
12073.7	-0.00147038
12085.5	-0.00126558
12091.4	-0.00116195
12103.2	-0.000952346
12115.1	-0.000739733
12121	-0.000632352
12132.8	-0.000415542
12144.6	-0.000196144
12150.5	-8.55266e-05
12162.3	0.000137437
12174.2	0.000362563
12180.1	0.000475882
12191.9	0.000703924
12203.7	0.000933692
12215.5	0.00116501
12221.4	0.00128119
12233.3	0.0015145
12245.1	0.0017489
12251	0.00186646
12262.8	0.00210218
12274.6	0.00233855
12280.5	0.00245692
12292.4	0.00269392
12304.2	0.00293112
12310.1	0.00304974
12321.9	0.00328689
12333.7	0.00352379
12345.5	0.00376024
12351.5	0.00387825
12363.3	0.00411371
12375.1	0.00434827
12381	0.00446516
12392.8	0.00469806
12404.6	0.00492961
12410.6	0.00504483
12422.4	0.00527405
12434.2	0.00550148
12440.1	0.00561448
12451.9	0.00583892
12463.7	0.00606114
12475.6	0.00628098
12481.5	0.00638995
12493.3	0.00660589
12505.1	0.00681903
12511	0.00692449
12522.8	0.0071331
12534.7	0.0073385
12540.6	0.00743994
12552.4	0.0076402
12564.2	0.00783685
12570.1	0.00793377
12581.9	0.00812471
12593.8	0.00831164
12605.6	0.00849441
12611.5	0.0085842
12623.3	0.00876047
12635.1	0.00893222
12641	0.00901636
12652.9	0.00918107
12664.7	0.00934091
12670.6	0.00941897
12682.4	0.00957126
12694.2	0.00971835
12700.1	0.00978991
12712	0.00992896
12723.8	0.0100625
12735.6	0.0101904
12741.5	0.0102522
12753.3	0.0103715
12765.1	0.0104848
12771.1	0.0105392
12782.9	0.0106434
12794.7	0.0107415
12800.6	0.0107882
12812.4	0.0108767
12824.2	0.0109589
12830.2	0.0109976
12842	0.0110699
12853.8	0.0111356
12865.6	0.0111946
12871.5	0.0112215
12883.3	0.0112703
12895.2	0.0113121
12901.1	0.0113304
12912.9	0.0113617
12924.7	0.011386
12930.6	0.0113954
12942.4	0.0114089
12954.3	0.0114153
12960.2	0.0114157
12972	0.0114112
12983.8	0.0113993
12995.6	0.0113801
13001.5	0.0113677
13013.4	0.0113374
13025.2	0.0112997
13031.1	0.0112781
13042.9	0.0112293
13054.7	0.011173
13060.6	0.0111421
13072.5	0.0110746
13084.3	0.0109998
13090.2	0.0109596
13102	0.0108736
13113.8	0.0107802
13125.6	0.0106794
13131.6	0.0106263
13143.4	0.0105145
13155.2	0.0103954
13161.1	0.0103331
13172.9	0.0102032
13184.7	0.010066
13190.7	0.0099948
13202.5	0.00984701
13214.3	0.00969219
13220.2	0.00961217
13232	0.00944694
13243.8	0.00927487
13255.7	0.00909605
13261.6	0.00900413
13273.4	0.00881534
13285.2	0.00862003
13291.1	0.00851997
13302.9	0.00831508
13314.8	0.00810394
13320.7	0.00799606
13332.5	0.00777578
13344.3	0.00754955
13350.2	0.00743424
13362	0.00719935
13373.9	0.00695886
13385.7	0.0067129
13391.6	0.00658793
13403.4	0.00633407
13415.2	0.00607515
13421.1	0.00594383
13433	0.00567761
13444.8	0.00540672
13450.7	0.00526959
13462.5	0.00499205
13474.3	0.00471029
13480.2	0.00456789
13492.1	0.00428017
13503.9	0.0039887
13515.7	0.00369369
13521.6	0.00354492
13533.4	0.00324496
13545.2	0.00294195
13551.2	0.00278937
13563	0.00248219
13574.8	0.00217249
13580.7	0.00201676
13592.5	0.00170368
13604.3	0.00138862
13610.2	0.00123041
13622.1	0.000912794
13633.9	0.000593748
13645.7	0.0002735
13651.6	0.000112996
13663.4	-0.000208632
13675.3	-0.000530896
13681.2	-0.000692195
13693	-0.00101498
13704.8	-0.00133784
13710.7	-0.00149921
13722.5	-0.00182173
13734.4	-0.00214375
13740.3	-0.00230449
13752.1	-0.00262531
13763.9	-0.00294505
13775.7	-0.0032635
13781.6	-0.00342216
13793.5	-0.00373822
13805.3	-0.00405243
13811.2	-0.00420877
13823	-0.00451977
13834.8	-0.00482837
13840.7	-0.0049817
13852.6	-0.00528629
13864.4	-0.00558795
13870.3	-0.00573762
13882.1	-0.0060345
13893.9	-0.00632794
13905.7	-0.00661775
13911.6	-0.00676124
13923.5	-0.00704524
13935.3	-0.00732514
13941.2	-0.00746349
13953	-0.00773691
13964.8	-0.00800578
13970.7	-0.00813846
13982.6	-0.00840021
13994.4	-0.00865702
14000.3	-0.00878352
14012.1	-0.00903262
14023.9	-0.00927641
14035.8	-0.00951475
14041.7	-0.00963184
14053.5	-0.00986177
14065.3	-0.0100859
14071.2	-0.0101958
14083	-0.0104111
14094.9	-0.0106204
14100.8	-0.0107228
14112.6	-0.0109229
14124.4	-0.0111167
14130.3	-0.0112113
14142.1	-0.0113956
14154	-0.0115735
14165.8	-0.0117449
14171.7	-0.0118282
14183.5	-0.0119898
14195.3	-0.0121448
14201.2	-0.0122199
14213	-0.012365
14224.9	-0.0125035
14230.8	-0.0125702
14242.6	-0.0126988
14254.4	-0.0128206
14260.3	-0.0128791
14272.1	-0.012991
14284	-0.0130964
14295.8	-0.0131952
14301.7	-0.0132421
14313.5	-0.0133312
14325.3	-0.0134137
14331.2	-0.0134526
14343.1	-0.0135257
14354.9	-0.0135924
14360.8	-0.0136235
14372.6	-0.0136809
14384.4	-0.0137323
14390.3	-0.0137558
14402.2	-0.0137983
14414	-0.0138349
14425.8	-0.0138659
14431.7	-0.0138793
14443.5	-0.0139019
14455.4	-0.0139192
14461.3	-0.0139258
14473.1	-0.0139352
14484.9	-0.0139396
14490.8	-0.01394
14502.6	-0.0139371
14514.4	-0.0139296
14520.4	-0.0139241
14532.2	-0.0139099
14544	-0.0138915
14555.8	-0.013869
14561.7	-0.0138563
14573.5	-0.013828
14585.4	-0.0137962
14591.3	-0.013779
14603.1	-0.0137421
14614.9	-0.0137021
14620.8	-0.0136809
14632.6	-0.0136366
14644.5	-0.0135896
14650.4	-0.0135652
14662.2	-0.0135147
14674	-0.013462
14685.8	-0.0134074
14691.7	-0.0133794
14703.6	-0.0133223
14715.4	-0.0132638
14721.3	-0.0132341
14733.1	-0.0131739
14744.9	-0.0131128
14750.8	-0.013082
14762.7	-0.0130199
14774.5	-0.0129575
14780.4	-0.0129262
14792.2	-0.0128636
14804	-0.0128011
14815.9	-0.012739
14821.8	-0.0127081
14833.6	-0.0126468
14845.4	-0.0125863
14851.3	-0.0125564
14863.1	-0.0124975
14874.9	-0.0124398
14880.9	-0.0124115
14892.7	-0.0123561
14904.5	-0.0123024
14910.4	-0.0122763
14922.2	-0.0122255
14934	-0.0121768
14945.9	-0.0121304
14951.8	-0.0121081
14963.6	-0.0120654
14975.4	-0.0120253
14981.3	-0.0120063
14993.1	-0.0119705
15005	-0.0119376
15010.9	-0.0119223
15022.7	-0.0118941
15034.5	-0.0118692
15040.4	-0.011858
15052.2	-0.0118381
15064.1	-0.0118217
15075.9	-0.0118089
15081.8	-0.0118039
15093.6	-0.0117966
15105.4	-0.011793
15111.3	-0.0117926
15123.2	-0.0117948
15135	-0.0118008
15140.9	-0.0118053
15152.7	-0.0118172
15164.5	-0.011833
15170.4	-0.0118424
15182.3	-0.0118642
15194.1	-0.0118899
15205.9	-0.0119196
15211.8	-0.0119359
15223.6	-0.0119715
15235.4	-0.012011
15241.4	-0.0120322
15253.2	-0.0120774
15265	-0.0121264
15270.9	-0.0121523
15282.7	-0.0122069
15294.5	-0.0122651
15300.5	-0.0122955
15312.3	-0.012359
15324.1	-0.0124259
15330	-0.0124605
15341.8	-0.0125323
15353.6	-0.0126072
15365.5	-0.0126852
15371.4	-0.0127252
15383.2	-0.0128074
15395	-0.0128923
15400.9	-0.0129357
15412.7	-0.0130243
15424.6	-0.0131152
15430.5	-0.0131615
15442.3	-0.0132556
15454.1	-0.0133515
15460	-0.0134001
15471.8	-0.0134986
15483.7	-0.0135984
15495.5	-0.0136994
15501.4	-0.0137504
15513.2	-0.0138529
15525	-0.0139561
15530.9	-0.0140079
15542.8	-0.0141118
15554.6	-0.0142159
15560.5	-0.0142679
15572.3	-0.0143719
15584.1	-0.0144754
15590	-0.014527
15601.9	-0.0146295
15613.7	-0.0147311
15625.5	-0.0148315
15631.4	-0.0148812
15643.2	-0.0149793
15655	-0.0150757
15661	-0.0151231
15672.8	-0.0152163
15684.6	-0.0153071
15690.5	-0.0153516
15702.3	-0.0154384
15714.1	-0.0155222
15720.1	-0.0155628
15731.9	-0.0156417
15743.7	-0.0157169
15755.5	-0.0157884
15761.4	-0.0158226
15773.2	-0.0158878
15785.1	-0.0159486
15791	-0.0159773
15802.8	-0.0160311
15814.6	-0.0160799
15820.5	-0.0161024
15832.3	-0.0161434
15844.2	-0.0161788
15850.1	-0.0161944
15861.9	-0.0162213
15873.7	-0.016242
15885.5	-0.0162566
15891.4	-0.0162615
15903.3	-0.0162665
15915.1	-0.0162647
15921	-0.0162613
15932.8	-0.0162492
15944.6	-0.0162301
15950.5	-0.0162178
15962.4	-0.0161877
15974.2	-0.0161502
15980.1	-0.0161286
15991.9	-0.0160796
16003.7	-0.0160228
16015.5	-0.0159582
16021.5	-0.0159229
16033.3	-0.0158462
16045.1	-0.0157613
16051	-0.0157158
16062.8	-0.0156186
16074.6	-0.015513
16080.5	-0.0154571
16092.4	-0.0153389
16104.2	-0.0152122
16110.1	-0.0151457
16121.9	-0.0150062
16133.7	-0.0148582
16145.6	-0.0147016
16151.5	-0.0146201
16163.3	-0.0144506
16175.1	-0.0142726
16181	-0.0141804
16192.8	-0.0139895
16204.7	-0.0137902
16210.6	-0.0136874
16222.4	-0.0134754
16234.2	-0.013255
16240.1	-0.0131417
16251.9	-0.012909
16263.8	-0.012668
16275.6	-0.012419
16281.5	-0.0122915
16293.3	-0.0120306
16305.1	-0.0117618
16311	-0.0116246
16322.9	-0.0113443
16334.7	-0.0110566
16340.6	-0.01091
16352.4	-0.0106114
16364.2	-0.0103056
16370.1	-0.0101502
16382	-0.00983408
16393.8	-0.00951136
16405.6	-0.00918215
16411.5	-0.00901518
16423.3	-0.00867663
16435.1	-0.00833211
16441	-0.00815767
16452.9	-0.00780458
16464.7	-0.00744606
16470.6	-0.00726483
16482.4	-0.00689858
16494.2	-0.00652748
16500.1	-0.00634018
16512	-0.00596225
16523.8	-0.00558007
16535.6	-0.0051939
16541.5	-0.0049994
16553.3	-0.00460773
16565.2	-0.00421271
16571.1	-0.00401404
16582.9	-0.00361452
16594.7	-0.00321232
16600.6	-0.00301031
16612.4	-0.00260463
16624.3	-0.00219697
16630.2	-0.00199249
16642	-0.00158238
16653.8	-0.00117099
16665.6	-0.0007586
16671.5	-0.000552119
16683.4	-0.000138762
16695.2	0.000274888
16701.1	0.000481735
16712.9	0.000895294
16724.7	0.00130844
16730.6	0.00151477
16742.4	0.00192677
16754.3	0.00233766
16760.2	0.0025426
16772	0.0029513
16783.8	0.00335819
16795.6	0.00376302
16801.5	0.00396457
16813.4	0.00436578
16825.2	0.00476426
16831.1	0.00496238
16842.9	0.00535626
16854.7	0.00574676
16860.6	0.00594065
16872.5	0.0063256
16884.3	0.00670655
16890.2	0.00689544
16902	0.00726994
16913.8	0.00763983
16925.7	0.00800491
16931.6	0.00818557
16943.4	0.00854301
16955.2	0.00889507
16961.1	0.00906903
16972.9	0.00941266
16984.8	0.00975041
16990.7	0.00991703
17002.5	0.0102456
17014.3	0.0105679
17020.2	0.0107265
17032	0.0110389
17043.8	0.0113446
17055.7	0.0116433
17061.6	0.01179
17073.4	0.012078
17085.2	0.0123587
17091.1	0.0124963
17102.9	0.0127658
17114.8	0.0130277
17120.7	0.0131557
17132.5	0.0134059
17144.3	0.0136483
17150.2	0.0137664
17162	0.0139967
17173.9	0.0142188
17185.7	0.0144327
17191.6	0.0145366
17203.4	0.014738
17215.2	0.014931
17221.1	0.0150244
17233	0.0152047
17244.8	0.0153765
17250.7	0.0154592
17262.5	0.0156181
17274.3	0.0157684
17280.2	0.0158404
17292.1	0.0159777
17303.9	0.0161064
17315.7	0.0162265
17321.6	0.0162832
17333.4	0.0163903
17345.2	0.0164887
17351.2	0.0165346
17363	0.0166201
17374.8	0.0166969
17380.7	0.0167321
17392.5	0.0167961
17404.3	0.0168516
17410.3	0.0168762
17422.1	0.016919
17433.9	0.0169534
17445.7	0.0169794
17451.6	0.0169894
17463.4	0.0170031
17475.3	0.0170086
17481.2	0.0170083
17493	0.0170017
17504.8	0.0169871
17510.7	0.0169769
17522.5	0.0169505
17534.4	0.0169163
17540.3	0.0168964
17552.1	0.0168508
17563.9	0.0167976
17575.7	0.0167371
17581.6	0.0167041
17593.5	0.0166326
17605.3	0.0165541
17611.2	0.0165121
17623	0.016423
17634.8	0.0163271
17640.7	0.0162766
17652.6	0.0161706
17664.4	0.016058
17670.3	0.0159993
17682.1	0.0158772
17693.9	0.0157488
17705.7	0.0156143
17711.7	0.0155448
17723.5	0.0154015
17735.3	0.0152523
17741.2	0.0151756
17753	0.015018
17764.8	0.014855
17770.8	0.0147715
17782.6	0.0146006
17794.4	0.0144245
17800.3	0.0143347
17812.1	0.0141513
17823.9	0.0139631
17835.8	0.0137703
17841.7	0.0136722
17853.5	0.0134728
17865.3	0.0132691
17871.2	0.0131657
17883	0.0129558
17894.9	0.012742
17900.8	0.0126337
17912.6	0.0124143
17924.4	0.0121913
17930.3	0.0120785
17942.1	0.0118504
17954	0.011619
17965.8	0.0113845
17971.7	0.0112661
17983.5	0.0110272
17995.3	0.0107856
18001.2	0.0106637
18013.1	0.0104181
18024.9	0.0101701
18030.8	0.0100451
18042.6	0.00979364
18054.4	0.00954
18060.3	0.00941242
18072.2	0.00915581
18084	0.00889738
18095.8	0.00863723
18101.7	0.00850656
18113.5	0.00824409
18125.3	0.00798022
18131.3	0.00784779
18143.1	0.00758203
18154.9	0.00731515
18160.8	0.00718133
18172.6	0.006913
18184.4	0.00664383
18190.4	0.00650897
18202.2	0.00623877
18214	0.00596801
18225.8	0.00569679
18231.7	0.00556105
18243.5	0.00528936
18255.4	0.00501748
18261.3	0.0048815
18273.1	0.00460952
18284.9	0.00433761
18290.8	0.0042017
18302.6	0.00393007
18314.5	0.00365874
18320.4	0.00352322
18332.2	0.00325252
18344	0.00298237
18355.8	0.00271285
18361.7	0.00257835
18373.6	0.00230995
18385.4	0.0020424
18391.3	0.00190897
18403.1	0.00164287
18414.9	0.00137784
18420.8	0.00124575
18432.7	0.000982479
18444.5	0.000720485
18450.4	0.000589992
18462.2	0.000330064
18474	7.16121e-05
18485.8	-0.000185286
18491.8	-0.000313129
18503.6	-0.000567554
18515.4	-0.000820237
18521.3	-0.000945903
18533.1	-0.00119584
18544.9	-0.00144385
18550.9	-0.00156711
18562.7	-0.0018121
18574.5	-0.002055
18580.4	-0.00217564
18592.2	-0.00241527
18604	-0.00265264
18615.9	-0.00288767
18621.8	-0.0030043
18633.6	-0.00323573
18645.4	-0.00346467
18651.3	-0.00357819
18663.1	-0.0038033
18675	-0.00402578
18680.9	-0.00413601
18692.7	-0.00435443
18704.5	-0.00457007
18710.4	-0.00467683
18722.2	-0.00488821
18734.1	-0.00509669
18745.9	-0.0053022
18751.8	-0.00540383
18763.6	-0.00560481
18775.4	-0.0058027
18781.3	-0.00590048
18793.2	-0.00609366
18805	-0.00628364
18810.9	-0.00637741
18822.7	-0.00656251
18834.5	-0.0067443
18840.4	-0.00683394
18852.3	-0.00701069
18864.1	-0.00718403
18875.9	-0.00735393
18881.8	-0.00743758
18893.6	-0.00760224
18905.4	-0.00776337
18911.4	-0.00784259
18923.2	-0.00799836
18935	-0.00815051
18940.9	-0.00822523
18952.7	-0.0083719
18964.5	-0.0085149
18970.4	-0.00858501
18982.3	-0.00872243
18994.1	-0.00885611
19005.9	-0.00898602
19011.8	-0.00904956
19023.6	-0.00917378
19035.5	-0.00929419
19041.4	-0.00935296
19053.2	-0.00946762
19065	-0.00957843
19070.9	-0.00963238
19082.7	-0.00973739
19094.6	-0.00983852
19100.5	-0.00988762
19112.3	-0.00998292
19124.1	-0.0100743
19130	-0.0101185
19141.8	-0.0102041
19153.7	-0.0102857
19165.5	-0.0103635
19171.4	-0.0104009
19183.2	-0.0104728
19195	-0.0105407
19200.9	-0.0105733
19212.8	-0.0106354
19224.6	-0.0106937
19230.5	-0.0107214
19242.3	-0.0107739
19254.1	-0.0108225
19260	-0.0108454
19271.8	-0.0108882
19283.7	-0.0109273
19295.5	-0.0109626
19301.4	-0.0109788
19313.2	-0.0110084
19325	-0.0110343
19330.9	-0.0110458
19342.8	-0.0110662
19354.6	-0.0110828
19360.5	-0.0110898
19372.3	-0.0111009
19384.1	-0.0111085
19390	-0.011111
19401.9	-0.0111132
19413.7	-0.0111119
19425.5	-0.0111072
19431.4	-0.0111035
19443.2	-0.0110936
19455.1	-0.0110802
19461	-0.0110723
19472.8	-0.011054
19484.6	-0.0110324
19490.5	-0.0110204
19502.3	-0.0109939
19514.2	-0.0109643
19520.1	-0.0109483
19531.9	-0.010914
19543.7	-0.0108766
19555.5	-0.0108362
19561.4	-0.0108149
19573.2	-0.0107701
19585.1	-0.0107225
19591	-0.0106976
19602.8	-0.0106457
19614.6	-0.010591
19620.5	-0.0105627
19632.3	-0.010504
19644.2	-0.0104428
19650.1	-0.0104112
19661.9	-0.0103461
19673.7	-0.0102786
19685.5	-0.0102087
19691.4	-0.0101728
19703.3	-0.0100994
19715.1	-0.0100237
19721	-0.00998499
19732.8	-0.00990602
19744.6	-0.00982495
19750.5	-0.00978364
19762.4	-0.00969951
19774.2	-0.00961344
19780.1	-0.00956968
19791.9	-0.00948079
19803.7	-0.00939009
19815.6	-0.00929766
19821.5	-0.00925081
19833.3	-0.00915588
19845.1	-0.00905937
19851	-0.00901053
19862.8	-0.00891176
19874.6	-0.00881156
19880.6	-0.00876094
19892.4	-0.0086587
19904.2	-0.00855518
19910.1	-0.00850297
19921.9	-0.00839765
19933.7	-0.0082912
19945.6	-0.00818369
19951.5	-0.00812955
19963.3	-0.00802054
19975.1	-0.00791062
19981	-0.00785533
19992.8	-0.00774414
