0	0
14.7745	0
22.1618	0
36.9363	0
44.3236	0
51.7109	0
66.4854	0
73.8727	0
81.2599	0
96.0345	0
103.422	0
110.809	0
125.584	0
132.971	0
140.358	0
155.133	0
162.52	0
177.294	0
184.682	0
192.069	0
206.843	0
214.231	0
221.618	0
236.393	0
243.78	0
251.167	0
265.942	0
273.329	0
280.716	0
295.491	0
302.878	0
310.265	0
325.04	0
332.427	0
347.202	0
354.589	0
361.976	0
376.751	0
384.138	0
391.525	0
406.3	0
413.687	0
421.074	0
435.849	0
443.236	0
450.623	0
465.398	0
472.785	0
480.172	0
494.947	0
502.334	0
517.109	0
524.496	0
531.883	0
546.658	0
554.045	0
561.432	0
576.207	0
583.594	0
590.981	0
605.756	0
613.143	0
620.53	0
635.305	0
642.692	0
650.08	0
664.854	0
672.241	0
687.016	0
694.403	0
701.79	0
716.565	0
723.952	0
731.34	0
746.114	0
753.501	0
760.889	0
775.663	0
783.05	0
790.438	0
805.212	0
812.599	0
827.374	0
834.761	0
842.149	0
856.923	0
864.31	0
871.698	0
886.472	0
893.859	0
901.247	0
916.021	0
923.408	0
930.796	0
945.57	0
952.958	0
960.345	0
975.119	0
982.507	0
997.281	0
1004.67	0
1012.06	0
1026.83	0
1034.22	0
1041.6	0
1056.38	0
1063.77	0
1071.15	0
1085.93	0
1093.32	0
1100.7	0
1115.48	0
1122.86	0
1130.25	0
1145.03	0
1152.41	0
1167.19	0
1174.58	0
1181.96	0
1196.74	0
1204.12	0
1211.51	0
1226.29	0
1233.67	0
1241.06	0
1255.84	0
1263.22	0
1270.61	0
1285.38	0
1292.77	0
1300.16	0
1314.93	0
1322.32	0
1337.1	0
1344.48	0
1351.87	0
1366.64	0
1374.03	0
1381.42	0
1396.19	0
1403.58	0
1410.97	0
1425.74	0
1433.13	0
1440.52	0
1455.29	0
1462.68	0
1470.07	0
1484.84	0
1492.23	0
1507	0
1514.39	0
1521.78	0
1536.55	0
1543.94	0
1551.33	0
1566.1	0
1573.49	0
1580.88	0
1595.65	0
1603.04	0
1610.42	0
1625.2	0
1632.59	0
1647.36	0
1654.75	0
1662.14	0
1676.91	0
1684.3	0
1691.68	0
1706.46	0
1713.85	0
1721.23	0
1736.01	0
1743.4	0
1750.78	0
1765.56	0
1772.94	0
1780.33	0
1795.11	0
1802.49	0
1817.27	0
1824.66	0
1832.04	0
1846.82	0
1854.2	0
1861.59	0
1876.37	0
1883.75	0
1891.14	0
1905.92	0
1913.3	0
1920.69	0
1935.46	0
1942.85	0
1950.24	0
1965.01	0
1972.4	0
1987.18	0
1994.56	0
2001.95	0
2016.72	0
2024.11	0
2031.5	0
2046.27	0
2053.66	0
2061.05	0
2075.82	0
2083.21	0
2090.6	0
2105.37	0
2112.76	0
2120.15	0
2134.92	0
2142.31	0
2157.08	0
2164.47	0
2171.86	0
2186.63	0
2194.02	0
2201.41	0
2216.18	0
2223.57	0
2230.95	0
2245.73	0
2253.12	0
2260.5	0
2275.28	0
2282.67	0
2290.05	0
2304.83	0
2312.21	0
2326.99	0
2334.38	0
2341.76	0
2356.54	0
2363.93	0
2371.31	0
2386.09	-9.09495e-13
2393.47	-1.81899e-12
2400.86	-2.72848e-12
2415.64	-4.54747e-12
2423.02	-5.45697e-12
2430.41	-6.36646e-12
2445.19	-9.09495e-12
2452.57	-1.09139e-11
2467.35	-1.72804e-11
2474.73	-2.09184e-11
2482.12	-2.63753e-11
2496.9	-4.00178e-11
2504.28	-4.91127e-11
2511.67	-6.00267e-11
2526.45	-9.004e-11
2533.83	-1.10049e-10
2541.22	-1.33696e-10
2555.99	-1.9736e-10
2563.38	-2.38288e-10
2570.77	-2.8831e-10
2585.54	-4.19277e-10
2592.93	-5.0477e-10
2600.32	-6.06633e-10
2615.09	-8.71296e-10
2622.48	-1.04228e-09
2637.25	-1.48339e-09
2644.64	-1.76533e-09
2652.03	-2.0982e-09
2666.8	-2.9504e-09
2674.19	-3.49155e-09
2681.58	-4.12547e-09
2696.35	-5.73345e-09
2703.74	-6.74481e-09
2711.13	-7.92261e-09
2725.9	-1.08867e-08
2733.29	-1.27347e-08
2740.68	-1.48757e-08
2755.45	-2.02162e-08
2762.84	-2.35195e-08
2770.23	-2.73267e-08
2785	-3.67427e-08
2792.39	-4.25216e-08
2807.16	-5.67297e-08
2814.55	-6.54009e-08
2821.94	-7.53025e-08
2836.71	-9.9456e-08
2844.1	-1.14087e-07
2851.49	-1.30711e-07
2866.26	-1.70957e-07
2873.65	-1.95161e-07
2881.03	-2.22529e-07
2895.81	-2.883e-07
2903.2	-3.27581e-07
2910.58	-3.71787e-07
2925.36	-4.77274e-07
2932.74	-5.3985e-07
2940.13	-6.09952e-07
2954.91	-7.76085e-07
2962.29	-8.73992e-07
2977.07	-1.10486e-06
2984.46	-1.24026e-06
2991.84	-1.3908e-06
3006.62	-1.74346e-06
3014	-1.94901e-06
3021.39	-2.17659e-06
3036.17	-2.70636e-06
3043.55	-3.01329e-06
3050.94	-3.35173e-06
3065.72	-4.13477e-06
3073.1	-4.58579e-06
3080.49	-5.08114e-06
3095.26	-6.22047e-06
3102.65	-6.87298e-06
3110.04	-7.5869e-06
3124.81	-9.21952e-06
3132.2	-1.01494e-05
3146.97	-1.22669e-05
3154.36	-1.34681e-05
3161.75	-1.47739e-05
3176.52	-1.77315e-05
3183.91	-1.94003e-05
3191.3	-2.12082e-05
3206.07	-2.52812e-05
3213.46	-2.75677e-05
3220.85	-3.00363e-05
3235.62	-3.5569e-05
3243.01	-3.86596e-05
3250.4	-4.19851e-05
3265.17	-4.94012e-05
3272.56	-5.35238e-05
3287.33	-6.26835e-05
3294.72	-6.77572e-05
3302.11	-7.31858e-05
3316.88	-8.51893e-05
3324.27	-9.18072e-05
3331.65	-9.88659e-05
3346.43	-0.0001144
3353.82	-0.000122926
3361.2	-0.000131991
3375.98	-0.000151849
3383.36	-0.000162699
3390.75	-0.0001742
3405.52	-0.00019928
3412.91	-0.000212921
3420.3	-0.000227339
3435.07	-0.000258636
3442.46	-0.000275583
3457.23	-0.000312247
3464.62	-0.000332034
3472.01	-0.000352838
3486.78	-0.000397645
3494.17	-0.000421719
3501.56	-0.000446956
3516.33	-0.00050106
3523.72	-0.000529999
3531.11	-0.000560242
3545.88	-0.000624781
3553.27	-0.000659142
3560.65	-0.000694941
3575.43	-0.000770969
3582.81	-0.000811255
3590.2	-0.00085309
3604.98	-0.000941498
3612.36	-0.00098811
3627.14	-0.00108623
3634.52	-0.00113776
3641.91	-0.00119094
3656.68	-0.00130228
3664.07	-0.00136042
3671.46	-0.00142019
3686.23	-0.00154457
3693.62	-0.00160913
3701.01	-0.00167521
3715.78	-0.00181179
3723.17	-0.00188218
3730.55	-0.00195389
3745.33	-0.00210097
3752.72	-0.00217615
3760.1	-0.00225231
3774.88	-0.00240708
3782.26	-0.00248543
3797.04	-0.00264336
3804.42	-0.00272261
3811.81	-0.0028018
3826.59	-0.00295923
3833.97	-0.00303703
3841.36	-0.00311391
3856.13	-0.00326385
3863.52	-0.00333636
3870.91	-0.00340682
3885.68	-0.00354029
3893.07	-0.00360261
3900.46	-0.00366148
3915.23	-0.0037673
3922.62	-0.00381339
3930	-0.00385433
3944.78	-0.00391888
3952.16	-0.00394147
3966.94	-0.00396461
3974.32	-0.00396402
3981.71	-0.00395453
3996.49	-0.00390637
4003.87	-0.00386639
4011.26	-0.00381492
4026.03	-0.00367465
4033.42	-0.00358438
4040.81	-0.0034797
4055.58	-0.00322391
4062.97	-0.00307119
4070.36	-0.00290081
4085.13	-0.00250368
4092.52	-0.00227517
4107.29	-0.0017538
4114.68	-0.0014591
4122.06	-0.00114049
4136.84	-0.000427762
4144.23	-3.1731e-05
4151.61	0.000392027
4166.39	0.0013266
4173.77	0.00183936
4181.16	0.00238373
4195.93	0.00357119
4203.32	0.0042162
4210.71	0.00489668
4225.48	0.0063678
4232.87	0.00716029
4240.26	0.00799195
4255.03	0.00977629
4262.42	0.0107307
4277.19	0.012768
4284.58	0.0138525
4291.97	0.0149819
4306.74	0.017378
4314.13	0.0186461
4321.51	0.0199616
4336.29	0.0227371
4343.68	0.024198
4351.06	0.0257084
4365.84	0.0288784
4373.22	0.0305386
4380.61	0.0322493
4395.39	0.0358223
4402.77	0.0376848
4410.16	0.0395977
4424.93	0.0435747
4432.32	0.0456381
4447.1	0.0499134
4454.48	0.0521243
4461.87	0.0543832
4476.64	0.0590426
4484.03	0.0614416
4491.42	0.0638856
4506.19	0.0689047
4513.58	0.0714776
4520.97	0.0740912
4535.74	0.0794352
4543.13	0.0821628
4550.52	0.0849255
4565.29	0.0905494
4572.68	0.0934073
4580.07	0.0962933
4594.84	0.102142
4602.23	0.105101
4617	0.111077
4624.39	0.114089
4631.78	0.117115
4646.55	0.123196
4653.94	0.126248
4661.33	0.129302
4676.1	0.135411
4683.49	0.13846
4690.87	0.141502
4705.65	0.147553
4713.04	0.150556
4720.42	0.153541
4735.2	0.159443
4742.59	0.162354
4757.36	0.168084
4764.75	0.170896
4772.13	0.173669
4786.91	0.179086
4794.3	0.181724
4801.68	0.184312
4816.46	0.189322
4823.85	0.19174
4831.23	0.194096
4846.01	0.19861
4853.39	0.200763
4860.78	0.202843
4875.56	0.206774
4882.94	0.208621
4890.33	0.210384
4905.1	0.213654
4912.49	0.215156
4927.27	0.217884
4934.65	0.219105
4942.04	0.22023
4956.82	0.222181
4964.2	0.223004
4971.59	0.223724
4986.36	0.224849
4993.75	0.225251
5001.14	0.225545
5015.91	0.225807
5023.3	0.225773
5030.69	0.225628
5045.46	0.225005
5052.85	0.224526
5060.24	0.223935
5075.01	0.222419
5082.4	0.221494
5097.17	0.219313
5104.56	0.218058
5111.95	0.216694
5126.72	0.213644
5134.11	0.21196
5141.5	0.210172
5156.27	0.206287
5163.66	0.204194
5171.05	0.202002
5185.82	0.19733
5193.21	0.194854
5200.59	0.192287
5215.37	0.18689
5222.76	0.184064
5230.14	0.181156
5244.92	0.175106
5252.31	0.171968
5267.08	0.165482
5274.47	0.162138
5281.85	0.158732
5296.63	0.151742
5304.02	0.148164
5311.4	0.144536
5326.18	0.137139
5333.56	0.133376
5340.95	0.129575
5355.73	0.121869
5363.11	0.117972
5370.5	0.114049
5385.28	0.106138
5392.66	0.102157
5400.05	0.0981637
5414.82	0.0901506
5422.21	0.0861375
5436.99	0.0781135
5444.37	0.0741089
5451.76	0.0701132
5466.54	0.0621604
5473.92	0.0582091
5481.31	0.0542782
5496.08	0.0464892
5503.47	0.0426363
5510.86	0.0388146
5525.63	0.031275
5533.02	0.0275619
5540.41	0.0238897
5555.18	0.016677
5562.57	0.0131406
5577.34	0.00621797
5584.73	0.00283543
5592.12	-0.00049222
5606.89	-0.00697632
5614.28	-0.0101297
5621.67	-0.0132221
5636.44	-0.0192187
5643.83	-0.0221205
5651.22	-0.0249567
5665.99	-0.0304281
5673.38	-0.0330618
5680.77	-0.0356265
5695.54	-0.0405466
5702.93	-0.0429011
5710.31	-0.0451848
5725.09	-0.0495386
5732.48	-0.0516085
5747.25	-0.0555343
5754.64	-0.0573904
5762.03	-0.0591756
5776.8	-0.0625344
5784.19	-0.0641089
5791.57	-0.0656141
5806.35	-0.0684189
5813.74	-0.0697198
5821.12	-0.0709542
5835.9	-0.0732262
5843.29	-0.0742657
5850.67	-0.0752421
5865.45	-0.0770099
5872.83	-0.0778035
5880.22	-0.0785383
5895	-0.0798365
5902.38	-0.0804023
5917.16	-0.0813738
5924.54	-0.0817821
5931.93	-0.0821406
5946.71	-0.0827135
5954.09	-0.0829307
5961.48	-0.0831037
5976.26	-0.0833225
5983.64	-0.0833712
5991.03	-0.0833813
6005.8	-0.0832917
6013.19	-0.0831948
6020.58	-0.083065
6035.35	-0.0827127
6042.74	-0.0824929
6050.13	-0.0822459
6064.9	-0.0816757
6072.29	-0.0813552
6087.06	-0.08065
6094.45	-0.0802678
6101.84	-0.0798676
6116.61	-0.0790181
6124	-0.0785712
6131.39	-0.0781109
6146.16	-0.0771551
6153.55	-0.0766617
6160.94	-0.0761593
6175.71	-0.0751317
6183.1	-0.0746083
6190.49	-0.0740798
6205.26	-0.0730108
6212.65	-0.072472
6220.04	-0.0719313
6234.81	-0.0708473
6242.2	-0.0703053
6256.97	-0.0692248
6264.36	-0.0686874
6271.75	-0.0681526
6286.52	-0.067093
6293.91	-0.0665691
6301.3	-0.0660497
6316.07	-0.065026
6323.46	-0.0645223
6330.84	-0.0640245
6345.62	-0.0630476
6353.01	-0.0625689
6360.39	-0.0620971
6375.17	-0.0611744
6382.56	-0.0607239
6397.33	-0.0598448
6404.72	-0.0594164
6412.1	-0.0589955
6426.88	-0.0581761
6434.27	-0.0577776
6441.65	-0.0573864
6456.43	-0.0566261
6463.81	-0.0562567
6471.2	-0.0558944
6485.98	-0.0551903
6493.36	-0.0548483
6500.75	-0.0545129
6515.53	-0.0538606
6522.91	-0.0535436
6530.3	-0.0532322
6545.07	-0.052626
6552.46	-0.0523307
6567.24	-0.0517545
6574.62	-0.0514732
6582.01	-0.0511961
6596.79	-0.0506536
6604.17	-0.0503877
6611.56	-0.050125
6626.33	-0.0496085
6633.72	-0.0493542
6641.11	-0.0491021
6655.88	-0.0486039
6663.27	-0.0483572
6670.66	-0.0481119
6685.43	-0.0476245
6692.82	-0.0473818
6700.21	-0.0471397
6714.98	-0.0466558
6722.37	-0.0464137
6737.14	-0.0459283
6744.53	-0.0456845
6751.92	-0.0454399
6766.69	-0.0449471
6774.08	-0.0446987
6781.47	-0.0444487
6796.24	-0.0439435
6803.63	-0.043688
6811.02	-0.0434304
6825.79	-0.0429085
6833.18	-0.042644
6840.57	-0.042377
6855.34	-0.0418351
6862.73	-0.0415601
6870.12	-0.0412823
6884.89	-0.0407182
6892.28	-0.0404318
6907.05	-0.0398501
6914.44	-0.0395548
6921.83	-0.0392565
6936.6	-0.038651
6943.99	-0.0383438
6951.38	-0.0380337
6966.15	-0.0374048
6973.54	-0.0370861
6980.92	-0.0367647
6995.7	-0.0361138
7003.09	-0.0357844
7010.47	-0.0354526
7025.25	-0.0347817
7032.64	-0.034443
7040.02	-0.034102
7054.8	-0.0334142
7062.18	-0.0330676
7076.96	-0.0323694
7084.35	-0.032018
7091.73	-0.0316654
7106.51	-0.0309569
7113.9	-0.0306012
7121.28	-0.0302449
7136.06	-0.0295305
7143.44	-0.0291728
7150.83	-0.028815
7165.61	-0.0280997
7172.99	-0.0277426
7180.38	-0.0273859
7195.16	-0.0266748
7202.54	-0.0263208
7217.32	-0.0256164
7224.7	-0.0252664
7232.09	-0.0249181
7246.87	-0.0242274
7254.25	-0.0238852
7261.64	-0.0235454
7276.42	-0.0228736
7283.8	-0.0225418
7291.19	-0.0222132
7305.96	-0.0215655
7313.35	-0.0212469
7320.74	-0.0209318
7335.51	-0.0203134
7342.9	-0.0200102
7350.29	-0.0197112
7365.06	-0.0191266
7372.45	-0.0188412
7387.22	-0.0182848
7394.61	-0.018014
7402	-0.0177484
7416.77	-0.017233
7424.16	-0.0169834
7431.55	-0.0167393
7446.32	-0.0162683
7453.71	-0.0160415
7461.1	-0.0158206
7475.87	-0.0153967
7483.26	-0.0151939
7490.65	-0.0149973
7505.42	-0.0146229
7512.81	-0.0144451
7520.19	-0.0142737
7534.97	-0.0139501
7542.36	-0.0137979
7557.13	-0.0135131
7564.52	-0.0133803
7571.91	-0.0132541
7586.68	-0.0130211
7594.07	-0.0129142
7601.45	-0.0128138
7616.23	-0.0126323
7623.62	-0.012551
7631	-0.012476
7645.78	-0.0123448
7653.16	-0.0122884
7660.55	-0.0122381
7675.33	-0.0121555
7682.71	-0.0121231
7690.1	-0.0120964
7704.88	-0.01206
7712.26	-0.0120501
7727.04	-0.0120465
7734.42	-0.0120525
7741.81	-0.0120637
7756.59	-0.0121008
7763.97	-0.0121264
7771.36	-0.0121567
7786.13	-0.0122306
7793.52	-0.012274
7800.91	-0.0123214
7815.68	-0.0124278
7823.07	-0.0124865
7830.46	-0.0125487
7845.23	-0.012683
7852.62	-0.0127547
7860.01	-0.0128293
7874.78	-0.0129865
7882.17	-0.0130688
7896.94	-0.0132397
7904.33	-0.0133281
7911.72	-0.0134183
7926.49	-0.013603
7933.88	-0.0136973
7941.27	-0.0137926
7956.04	-0.0139858
7963.43	-0.0140833
7970.82	-0.0141811
7985.59	-0.0143773
7992.98	-0.0144754
8000.36	-0.0145731
8015.14	-0.014767
8022.53	-0.0148629
8037.3	-0.0150518
8044.69	-0.0151445
8052.07	-0.0152358
8066.85	-0.0154135
8074.24	-0.0154997
8081.62	-0.0155839
8096.4	-0.0157457
8103.79	-0.0158231
8111.17	-0.015898
8125.95	-0.0160395
8133.33	-0.0161059
8140.72	-0.0161693
8155.5	-0.0162864
8162.88	-0.0163399
8170.27	-0.0163898
8185.04	-0.0164788
8192.43	-0.0165176
8207.21	-0.0165834
8214.59	-0.0166101
8221.98	-0.0166327
8236.76	-0.0166649
8244.14	-0.0166744
8251.53	-0.0166795
8266.3	-0.0166758
8273.69	-0.0166669
8281.08	-0.0166534
8295.85	-0.0166118
8303.24	-0.0165838
8310.63	-0.0165508
8325.4	-0.01647
8332.79	-0.0164221
8340.18	-0.0163692
8354.95	-0.0162482
8362.34	-0.0161802
8377.11	-0.0160288
8384.5	-0.0159454
8391.89	-0.015857
8406.66	-0.0156651
8414.05	-0.0155615
8421.44	-0.015453
8436.21	-0.0152209
8443.6	-0.0150974
8450.98	-0.014969
8465.76	-0.0146977
8473.15	-0.0145549
8480.53	-0.0144073
8495.31	-0.014098
8502.7	-0.0139365
8510.08	-0.0137705
8524.86	-0.0134251
8532.24	-0.0132459
8547.02	-0.0128747
8554.41	-0.0126829
8561.79	-0.0124871
8576.57	-0.0120836
8583.95	-0.0118762
8591.34	-0.011665
8606.12	-0.011232
8613.5	-0.0110102
8620.89	-0.0107851
8635.67	-0.0103254
8643.05	-0.0100909
8650.44	-0.00985339
8665.21	-0.00937004
8672.6	-0.00912436
8687.38	-0.00862551
8694.76	-0.00837256
8702.15	-0.0081174
8716.93	-0.00760089
8724.31	-0.00733976
8731.7	-0.00707687
8746.47	-0.00654625
8753.86	-0.00627875
8761.25	-0.00600992
8776.02	-0.0054688
8783.41	-0.00519672
8790.8	-0.00492379
8805.57	-0.0043758
8812.96	-0.00410097
8820.35	-0.00382574
8835.12	-0.00327452
8842.51	-0.00299875
8857.28	-0.00244746
8864.67	-0.00217216
8872.06	-0.00189723
8886.83	-0.00134893
8894.22	-0.00107578
8901.61	-0.000803428
8916.38	-0.000261551
8923.77	7.76732e-06
8931.15	0.000275871
8945.93	0.000808033
8953.32	0.0010719
8960.7	0.00133415
8975.48	0.00185347
8982.87	0.00211034
8990.25	0.00236524
9005.03	0.00286875
9012.41	0.00311719
9027.19	0.00360704
9034.58	0.00384828
9041.96	0.00408697
9056.74	0.00455635
9064.13	0.0047869
9071.51	0.00501461
9086.29	0.00546118
9093.67	0.00567991
9101.06	0.00589553
9115.84	0.00631718
9123.22	0.00652309
9130.61	0.00672565
9145.38	0.00712052
9152.77	0.00731273
9160.16	0.00750139
9174.93	0.00786788
9182.32	0.00804563
9197.1	0.00838995
9204.48	0.00855644
9211.87	0.00871911
9226.64	0.00903287
9234.03	0.0091839
9241.42	0.009331
9256.19	0.00961331
9263.58	0.00974847
9270.97	0.00987963
9285.74	0.0101298
9293.13	0.0102489
9300.52	0.0103638
9315.29	0.0105815
9322.68	0.0106842
9330.07	0.0107828
9344.84	0.0109678
9352.23	0.0110542
9367	0.0112146
9374.39	0.0112887
9381.78	0.0113587
9396.55	0.0114866
9403.94	0.0115445
9411.33	0.0115984
9426.1	0.011694
9433.49	0.0117359
9440.87	0.0117738
9455.65	0.0118378
9463.04	0.0118639
9470.42	0.0118861
9485.2	0.0119191
9492.59	0.0119298
9507.36	0.01194
9514.75	0.0119394
9522.13	0.0119352
9536.91	0.0119157
9544.3	0.0119005
9551.68	0.0118818
9566.46	0.0118336
9573.85	0.0118042
9581.23	0.0117714
9596.01	0.0116956
9603.39	0.0116526
9610.78	0.0116063
9625.56	0.0115038
9632.94	0.0114478
9640.33	0.0113885
9655.11	0.0112605
9662.49	0.0111919
9677.27	0.0110455
9684.65	0.0109678
9692.04	0.0108872
9706.82	0.0107172
9714.2	0.010628
9721.59	0.0105359
9736.37	0.0103435
9743.75	0.0102433
9751.14	0.0101404
9765.91	0.00992666
9773.3	0.00981594
9780.69	0.0097027
9795.46	0.00946876
9802.85	0.00934813
9810.24	0.0092251
9825.01	0.00897198
9832.4	0.00884195
9847.17	0.00857513
9854.56	0.0084384
9861.95	0.00829949
9876.72	0.00801527
9884.11	0.00787002
9891.5	0.00772272
9906.27	0.00742207
9913.66	0.00726879
9921.05	0.00711357
9935.82	0.00679744
9943.21	0.00663659
9950.6	0.00647391
9965.37	0.0061432
9972.76	0.00597522
9980.14	0.00580553
9994.92	0.00546112
10002.3	0.00528645
10017.1	0.00493232
10024.5	0.00475292
10031.9	0.00457198
10046.6	0.00420564
10054	0.00402028
10061.4	0.00383349
10076.2	0.00345576
10083.6	0.00326485
10091	0.00307263
10105.7	0.00268431
10113.1	0.00248826
10120.5	0.002291
10135.3	0.00189291
10142.7	0.00169213
10150.1	0.00149023
10164.8	0.00108318
10172.2	0.000878071
10187	0.000464824
10194.4	0.000256736
10201.8	4.77045e-05
10216.5	-0.000373083
10223.9	-0.000584789
10231.3	-0.000797333
10246.1	-0.00122484
10253.5	-0.00143975
10260.9	-0.00165539
10275.6	-0.00208878
10283	-0.00230647
10290.4	-0.0025248
10305.2	-0.00296323
10312.6	-0.00318328
10327.3	-0.00362493
10334.7	-0.00384648
10342.1	-0.00406847
10356.9	-0.00451366
10364.3	-0.00473682
10371.7	-0.0049603
10386.4	-0.00540818
10393.8	-0.00563251
10401.2	-0.00585706
10416	-0.00630674
10423.4	-0.00653182
10430.8	-0.00675701
10445.5	-0.00720763
10452.9	-0.00743301
10460.3	-0.0076584
10475.1	-0.00810911
10482.5	-0.00833437
10497.3	-0.00878458
10504.6	-0.00900947
10512	-0.00923419
10526.8	-0.009683
10534.2	-0.00990705
10541.6	-0.0101308
10556.4	-0.0105774
10563.7	-0.0108002
10571.1	-0.0110226
10585.9	-0.0114662
10593.3	-0.0116873
10600.7	-0.011908
10615.4	-0.0123478
10622.8	-0.0125669
10630.2	-0.0127855
10645	-0.0132208
10652.4	-0.0134375
10667.2	-0.013869
10674.5	-0.0140838
10681.9	-0.0142978
10696.7	-0.0147236
10704.1	-0.0149354
10711.5	-0.0151464
10726.3	-0.0155659
10733.6	-0.0157744
10741	-0.015982
10755.8	-0.0163947
10763.2	-0.0165997
10770.6	-0.0168037
10785.4	-0.017209
10792.7	-0.0174102
10800.1	-0.0176104
10814.9	-0.0180077
10822.3	-0.0182049
10837.1	-0.0185961
10844.5	-0.01879
10851.8	-0.0189829
10866.6	-0.0193655
10874	-0.019555
10881.4	-0.0197435
10896.2	-0.020117
10903.6	-0.020302
10910.9	-0.0204858
10925.7	-0.0208499
10933.1	-0.0210301
10940.5	-0.0212091
10955.3	-0.0215635
10962.7	-0.0217388
10970	-0.0219128
10984.8	-0.0222571
10992.2	-0.0224273
11007	-0.0227638
11014.4	-0.0229301
11021.7	-0.023095
11036.5	-0.0234209
11043.9	-0.0235818
11051.3	-0.0237414
11066.1	-0.0240564
11073.5	-0.0242117
11080.8	-0.0243657
11095.6	-0.0246694
11103	-0.0248191
11110.4	-0.0249673
11125.2	-0.0252594
11132.6	-0.0254032
11147.3	-0.0256863
11154.7	-0.0258256
11162.1	-0.0259633
11176.9	-0.0262341
11184.3	-0.0263672
11191.7	-0.0264987
11206.4	-0.0267568
11213.8	-0.0268834
11221.2	-0.0270083
11236	-0.0272532
11243.4	-0.0273731
11250.8	-0.0274913
11265.5	-0.0277225
11272.9	-0.0278355
11280.3	-0.0279467
11295.1	-0.0281636
11302.5	-0.0282693
11317.2	-0.0284752
11324.6	-0.0285753
11332	-0.0286735
11346.8	-0.028864
11354.2	-0.0289563
11361.6	-0.0290466
11376.3	-0.0292212
11383.7	-0.0293053
11391.1	-0.0293874
11405.9	-0.0295452
11413.3	-0.0296209
11420.7	-0.0296944
11435.4	-0.0298348
11442.8	-0.0299016
11450.2	-0.0299662
11465	-0.0300883
11472.4	-0.0301458
11487.1	-0.0302538
11494.5	-0.0303041
11501.9	-0.030352
11516.7	-0.0304403
11524.1	-0.0304806
11531.5	-0.0305185
11546.2	-0.0305863
11553.6	-0.0306162
11561	-0.0306435
11575.8	-0.0306901
11583.2	-0.0307092
11590.6	-0.0307256
11605.3	-0.03075
11612.7	-0.030758
11620.1	-0.030763
11634.9	-0.0307645
11642.3	-0.0307608
11657.1	-0.0307445
11664.4	-0.0307319
11671.8	-0.0307162
11686.6	-0.0306756
11694	-0.0306507
11701.4	-0.0306226
11716.2	-0.030557
11723.5	-0.0305195
11730.9	-0.0304787
11745.7	-0.0303873
11753.1	-0.0303368
11760.5	-0.0302829
11775.2	-0.0301653
11782.6	-0.0301015
11790	-0.0300343
11804.8	-0.0298897
11812.2	-0.0298123
11827	-0.0296473
11834.3	-0.0295596
11841.7	-0.0294684
11856.5	-0.0292757
11863.9	-0.0291741
11871.3	-0.029069
11886.1	-0.0288482
11893.4	-0.0287325
11900.8	-0.0286132
11915.6	-0.0283641
11923	-0.0282342
11930.4	-0.0281007
11945.2	-0.0278231
11952.5	-0.027679
11967.3	-0.0273799
11974.7	-0.0272251
11982.1	-0.0270666
11996.9	-0.026739
12004.3	-0.0265699
12011.6	-0.0263972
12026.4	-0.0260411
12033.8	-0.0258578
12041.2	-0.0256709
12056	-0.0252866
12063.4	-0.0250892
12070.7	-0.0248883
12085.5	-0.024476
12092.9	-0.0242647
12100.3	-0.0240499
12115.1	-0.0236101
12122.5	-0.0233851
12137.2	-0.022925
12144.6	-0.0226899
12152	-0.0224515
12166.8	-0.0219648
12174.2	-0.0217165
12181.5	-0.0214651
12196.3	-0.0209524
12203.7	-0.0206914
12211.1	-0.0204272
12225.9	-0.0198895
12233.3	-0.019616
12240.6	-0.0193395
12255.4	-0.0187776
12262.8	-0.0184922
12270.2	-0.0182039
12285	-0.0176187
12292.4	-0.0173218
12307.1	-0.0167199
12314.5	-0.0164148
12321.9	-0.0161071
12336.7	-0.0154838
12344.1	-0.0151683
12351.5	-0.0148503
12366.2	-0.0142069
12373.6	-0.0138816
12381	-0.0135539
12395.8	-0.0128917
12403.2	-0.0125572
12410.6	-0.0122205
12425.3	-0.0115408
12432.7	-0.0111978
12440.1	-0.0108529
12454.9	-0.0101571
12462.3	-0.00980642
12477	-0.00909962
12484.4	-0.00874361
12491.8	-0.00838594
12506.6	-0.00766577
12514	-0.00730338
12521.4	-0.00693952
12536.1	-0.00620759
12543.5	-0.00583962
12550.9	-0.0054704
12565.7	-0.00472836
12573.1	-0.00435565
12580.5	-0.0039819
12595.2	-0.00323145
12602.6	-0.00285487
12610	-0.00247746
12624.8	-0.00172035
12632.2	-0.00134077
12646.9	-0.000579826
12654.3	-0.000198581
12661.7	0.000183106
12676.5	0.000947576
12683.9	0.00133025
12691.3	0.00171313
12706	0.0024793
12713.4	0.00286247
12720.8	0.00324563
12735.6	0.00401166
12743	0.00439441
12750.4	0.00477691
12765.1	0.00554093
12772.5	0.00592233
12787.3	0.00668362
12794.7	0.00706339
12802.1	0.0074425
12816.9	0.0081985
12824.2	0.00857528
12831.6	0.00895116
12846.4	0.00970001
12853.8	0.0100729
12861.2	0.0104446
12876	0.0111844
12883.3	0.0115524
12890.7	0.011919
12905.5	0.012648
12912.9	0.0130102
12920.3	0.0133708
12935	0.0140871
12942.4	0.0144426
12957.2	0.0151482
12964.6	0.0154981
12972	0.015846
12986.8	0.0165357
12994.1	0.0168774
13001.5	0.0172168
13016.3	0.0178889
13023.7	0.0182214
13031.1	0.0185516
13045.9	0.0192043
13053.2	0.0195269
13060.6	0.0198468
13075.4	0.0204786
13082.8	0.0207904
13090.2	0.0210993
13105	0.0217085
13112.3	0.0220087
13127.1	0.0225999
13134.5	0.0228908
13141.9	0.0231786
13156.7	0.0237444
13164.1	0.0240224
13171.4	0.024297
13186.2	0.0248361
13193.6	0.0251004
13201	0.0253612
13215.8	0.025872
13223.2	0.026122
13230.5	0.0263682
13245.3	0.0268495
13252.7	0.0270844
13260.1	0.0273154
13274.9	0.0277658
13282.3	0.0279851
13297	0.0284115
13304.4	0.0286186
13311.8	0.0288216
13326.6	0.0292151
13334	0.0294055
13341.3	0.0295917
13356.1	0.0299512
13363.5	0.0301244
13370.9	0.0302932
13385.7	0.0306176
13393.1	0.0307731
13400.4	0.0309241
13415.2	0.0312125
13422.6	0.0313499
13437.4	0.0316107
13444.8	0.0317342
13452.2	0.0318529
13466.9	0.0320763
13474.3	0.0321809
13481.7	0.0322807
13496.5	0.0324659
13503.9	0.0325513
13511.3	0.0326318
13526	0.0327782
13533.4	0.032844
13540.8	0.032905
13555.6	0.033012
13563	0.033058
13570.4	0.0330991
13585.1	0.0331662
13592.5	0.0331923
13607.3	0.0332293
13614.7	0.0332402
13622.1	0.0332461
13636.8	0.0332426
13644.2	0.0332332
13651.6	0.0332187
13666.4	0.0331745
13673.8	0.0331447
13681.2	0.0331098
13695.9	0.0330247
13703.3	0.0329745
13710.7	0.0329192
13725.5	0.0327931
13732.9	0.0327224
13740.3	0.0326466
13755	0.0324797
13762.4	0.0323886
13777.2	0.032191
13784.6	0.0320846
13792	0.0319732
13806.7	0.031735
13814.1	0.0316084
13821.5	0.0314767
13836.3	0.0311983
13843.7	0.0310515
13851.1	0.0308998
13865.8	0.0305815
13873.2	0.0304149
13880.6	0.0302434
13895.4	0.0298857
13902.8	0.0296995
13910.2	0.0295085
13924.9	0.0291121
13932.3	0.0289067
13947.1	0.0284816
13954.5	0.028262
13961.9	0.0280377
13976.7	0.0275753
13984	0.0273371
13991.4	0.0270944
14006.2	0.0265955
14013.6	0.0263393
14021	0.0260787
14035.8	0.0255443
14043.1	0.0252706
14050.5	0.0249926
14065.3	0.0244239
14072.7	0.0241333
14080.1	0.0238386
14094.9	0.0232369
14102.2	0.0229301
14117	0.0223046
14124.4	0.021986
14131.8	0.0216636
14146.6	0.0210077
14153.9	0.0206742
14161.3	0.020337
14176.1	0.0196522
14183.5	0.0193046
14190.9	0.0189536
14205.7	0.0182416
14213	0.0178808
14220.4	0.0175168
14235.2	0.0167795
14242.6	0.0164064
14257.4	0.0156515
14264.8	0.0152698
14272.1	0.0148854
14286.9	0.0141088
14294.3	0.0137166
14301.7	0.013322
14316.5	0.0125258
14323.9	0.0121243
14331.2	0.0117206
14346	0.010907
14353.4	0.0104973
14360.8	0.0100857
14375.6	0.00925718
14383	0.00884043
14390.3	0.00842213
14405.1	0.00758116
14412.5	0.00715865
14427.3	0.00631001
14434.7	0.00588404
14442.1	0.00545707
14456.8	0.00460049
14464.2	0.00417105
14471.6	0.00374095
14486.4	0.00287913
14493.8	0.00244758
14501.1	0.00201571
14515.9	0.0011514
14523.3	0.00071912
14530.7	0.000286881
14545.5	-0.000577132
14552.9	-0.00100873
14560.2	-0.00143993
14575	-0.00230081
14582.4	-0.0027303
14597.2	-0.00358695
14604.6	-0.00401393
14612	-0.00443989
14626.7	-0.0052884
14634.1	-0.00571077
14641.5	-0.00613177
14656.3	-0.00696929
14663.7	-0.00738564
14671.1	-0.00780025
14685.8	-0.00862395
14693.2	-0.00903285
14700.6	-0.00943968
14715.4	-0.0102468
14722.8	-0.0106468
14730.2	-0.0110445
14744.9	-0.0118322
14752.3	-0.0122221
14767.1	-0.0129936
14774.5	-0.013375
14781.9	-0.0137534
14796.6	-0.0145009
14804	-0.0148698
14811.4	-0.0152354
14826.2	-0.0159565
14833.6	-0.0163118
14841	-0.0166634
14855.7	-0.0173557
14863.1	-0.0176961
14870.5	-0.0180326
14885.3	-0.0186938
14892.7	-0.0190184
14900.1	-0.0193387
14914.8	-0.0199668
14922.2	-0.0202744
14937	-0.0208764
14944.4	-0.0211707
14951.8	-0.0214604
14966.5	-0.0220261
14973.9	-0.0223019
14981.3	-0.022573
14996.1	-0.0231008
15003.5	-0.0233574
15010.9	-0.0236091
15025.6	-0.0240976
15033	-0.0243344
15040.4	-0.0245661
15055.2	-0.0250142
15062.6	-0.0252306
15077.4	-0.0256479
15084.7	-0.0258487
15092.1	-0.0260443
15106.9	-0.0264197
15114.3	-0.0265995
15121.7	-0.026774
15136.5	-0.027107
15143.8	-0.0272656
15151.2	-0.0274188
15166	-0.0277092
15173.4	-0.0278465
15180.8	-0.0279784
15195.6	-0.0282262
15202.9	-0.0283421
15210.3	-0.0284527
15225.1	-0.0286581
15232.5	-0.0287529
15247.3	-0.0289268
15254.7	-0.0290059
15262	-0.0290798
15276.8	-0.0292121
15284.2	-0.0292706
15291.6	-0.0293241
15306.4	-0.0294158
15313.7	-0.0294541
15321.1	-0.0294875
15335.9	-0.0295396
15343.3	-0.0295584
15350.7	-0.0295724
15365.5	-0.0295861
15372.8	-0.029586
15380.2	-0.0295812
15395	-0.0295581
15402.4	-0.0295398
15417.2	-0.02949
15424.6	-0.0294586
15431.9	-0.0294229
15446.7	-0.0293391
15454.1	-0.0292911
15461.5	-0.029239
15476.3	-0.0291231
15483.7	-0.0290593
15491	-0.0289918
15505.8	-0.0288457
15513.2	-0.0287673
15520.6	-0.0286853
15535.4	-0.0285111
15542.8	-0.0284191
15550.1	-0.0283237
15564.9	-0.0281237
15572.3	-0.028019
15587.1	-0.027801
15594.5	-0.0276877
15601.9	-0.0275716
15616.6	-0.0273316
15624	-0.0272077
15631.4	-0.0270813
15646.2	-0.0268215
15653.6	-0.0266882
15661	-0.0265527
15675.7	-0.0262754
15683.1	-0.0261338
15690.5	-0.0259902
15705.3	-0.0256977
15712.7	-0.0255488
15720	-0.0253984
15734.8	-0.0250928
15742.2	-0.0249378
15757	-0.0246239
15764.4	-0.0244651
15771.8	-0.0243051
15786.5	-0.0239818
15793.9	-0.0238186
15801.3	-0.0236546
15816.1	-0.023324
15823.5	-0.0231575
15830.9	-0.0229904
15845.6	-0.0226543
15853	-0.0224854
15860.4	-0.0223161
15875.2	-0.0219764
15882.6	-0.021806
15897.3	-0.0214646
15904.7	-0.0212936
15912.1	-0.0211225
15926.9	-0.0207802
15934.3	-0.020609
15941.7	-0.0204379
15956.4	-0.0200961
15963.8	-0.0199255
15971.2	-0.0197551
15986	-0.019415
15993.4	-0.0192455
16000.8	-0.0190763
16015.5	-0.0187392
16022.9	-0.0185713
16030.3	-0.0184038
16045.1	-0.0180706
16052.5	-0.0179047
16067.3	-0.0175749
16074.6	-0.0174109
16082	-0.0172475
16096.8	-0.0169228
16104.2	-0.0167615
16111.6	-0.0166009
16126.3	-0.0162819
16133.7	-0.0161235
16141.1	-0.0159659
16155.9	-0.0156531
16163.3	-0.0154979
16170.7	-0.0153434
16185.4	-0.015037
16192.8	-0.014885
16200.2	-0.0147338
16215	-0.014434
16222.4	-0.0142853
16237.2	-0.0139904
16244.5	-0.0138442
16251.9	-0.0136988
16266.7	-0.0134106
16274.1	-0.0132676
16281.5	-0.0131255
16296.3	-0.0128437
16303.6	-0.0127039
16311	-0.012565
16325.8	-0.0122894
16333.2	-0.0121527
16340.6	-0.0120168
16355.4	-0.0117472
16362.7	-0.0116134
16370.1	-0.0114804
16384.9	-0.0112164
16392.3	-0.0110854
16407.1	-0.0108253
16414.5	-0.0106962
16421.8	-0.0105677
16436.6	-0.0103125
16444	-0.0101858
16451.4	-0.0100596
16466.2	-0.00980886
16473.5	-0.00968427
16480.9	-0.00956017
16495.7	-0.0093134
16503.1	-0.0091907
16510.5	-0.00906844
16525.3	-0.00882518
16532.6	-0.00870415
16540	-0.00858349
16554.8	-0.00834327
16562.2	-0.00822367
16577	-0.00798543
16584.4	-0.00786676
16591.7	-0.00774838
16606.5	-0.0075124
16613.9	-0.00739479
16621.3	-0.00727741
16636.1	-0.00704329
16643.5	-0.00692654
16650.8	-0.00680997
16665.6	-0.00657735
16673	-0.00646128
16680.4	-0.00634535
16695.2	-0.0061139
16702.6	-0.00599836
16717.3	-0.00576759
16724.7	-0.00565236
16732.1	-0.00553721
16746.9	-0.00530716
16754.3	-0.00519224
16761.7	-0.00507739
16776.4	-0.00484786
16783.8	-0.00473317
16791.2	-0.00461853
16806	-0.00438939
16813.4	-0.00427488
16820.8	-0.00416041
16835.5	-0.00393158
16842.9	-0.00381722
16850.3	-0.00370289
16865.1	-0.00347435
16872.5	-0.00336014
16887.2	-0.00313183
16894.6	-0.00301775
16902	-0.00290371
16916.8	-0.00267579
16924.2	-0.00256191
16931.6	-0.0024481
16946.3	-0.00222069
16953.7	-0.0021071
16961.1	-0.0019936
16975.9	-0.00176687
16983.3	-0.00165367
16990.7	-0.00154058
17005.4	-0.00131476
17012.8	-0.00120206
17020.2	-0.0010895
17035	-0.000864866
17042.4	-0.000752805
17057.1	-0.000529248
17064.5	-0.000417772
17071.9	-0.000306513
17086.7	-8.46871e-05
17094.1	2.58571e-05
17101.5	0.00013614
17116.2	0.000355875
17123.6	0.000465302
17131	0.00057442
17145.8	0.000791677
17153.2	0.000899791
17160.6	0.00100754
17175.3	0.00122192
17182.7	0.00132851
17190.1	0.00143469
17204.9	0.00164576
17212.3	0.00175062
17227.1	0.00195892
17234.4	0.00206234
17241.8	0.00216524
17256.6	0.00236948
17264	0.00247078
17271.4	0.00257151
17286.1	0.00277124
17293.5	0.0028702
17300.9	0.00296854
17315.7	0.00316332
17323.1	0.00325973
17330.5	0.00335547
17345.2	0.00354487
17352.6	0.00363851
17360	0.00373142
17374.8	0.00391502
17382.2	0.00400569
17397	0.00418468
17404.3	0.00427297
17411.7	0.00436046
17426.5	0.00453295
17433.9	0.00461793
17441.3	0.00470205
17456.1	0.00486767
17463.4	0.00494915
17470.8	0.00502973
17485.6	0.00518813
17493	0.00526593
17500.4	0.0053428
17515.2	0.00549366
17522.5	0.00556763
17537.3	0.00571264
17544.7	0.00578365
17552.1	0.00585366
17566.9	0.00599063
17574.3	0.00605758
17581.6	0.00612349
17596.4	0.00625217
17603.8	0.00631494
17611.2	0.00637664
17626	0.00649684
17633.4	0.00655532
17640.7	0.00661272
17655.5	0.00672425
17662.9	0.00677838
17670.3	0.0068314
17685.1	0.00693412
17692.4	0.00698382
17707.2	0.00707986
17714.6	0.00712621
17722	0.00717143
17736.8	0.0072585
17744.2	0.00730035
17751.5	0.00734107
17766.3	0.00741912
17773.7	0.00745646
17781.1	0.00749266
17795.9	0.00756169
17803.3	0.00759451
17810.6	0.00762621
17825.4	0.00768622
17832.8	0.00771455
17840.2	0.00774176
17855	0.00779283
17862.4	0.00781669
17877.1	0.0078611
17884.5	0.00788165
17891.9	0.00790111
17906.7	0.00793675
17914.1	0.00795294
17921.5	0.00796805
17936.2	0.00799505
17943.6	0.00800696
17951	0.00801781
17965.8	0.00803636
17973.2	0.00804407
17980.6	0.00805075
17995.3	0.00806105
18002.7	0.00806468
18010.1	0.0080673
18024.9	0.00806957
18032.3	0.00806923
18047	0.00806565
18054.4	0.00806243
18061.8	0.00805825
18076.6	0.00804711
18084	0.00804016
18091.4	0.00803229
18106.1	0.00801389
18113.5	0.00800336
18120.9	0.00799196
18135.7	0.0079666
18143.1	0.00795266
18150.5	0.00793789
18165.2	0.00790592
18172.6	0.00788874
18180	0.00787078
18194.8	0.00783255
18202.2	0.0078123
18216.9	0.00776962
18224.3	0.00774721
18231.7	0.00772409
18246.5	0.0076758
18253.9	0.00765066
18261.3	0.00762486
18276	0.00757136
18283.4	0.00754368
18290.8	0.0075154
18305.6	0.00745709
18313	0.00742708
18320.4	0.00739652
18335.1	0.00733381
18342.5	0.00730167
18357.3	0.00723592
18364.7	0.00720233
18372.1	0.00716828
18386.9	0.00709885
18394.2	0.00706349
18401.6	0.00702773
18416.4	0.00695503
18423.8	0.00691812
18431.2	0.00688086
18445.9	0.00680531
18453.3	0.00676705
18460.7	0.00672849
18475.5	0.0066505
18482.9	0.0066111
18490.3	0.00657144
18505	0.00649141
18512.4	0.00645107
18527.2	0.00636977
18534.6	0.00632884
18542	0.00628775
18556.8	0.0062051
18564.1	0.00616357
18571.5	0.00612191
18586.3	0.00603828
18593.7	0.00599633
18601.1	0.0059543
18615.9	0.00587004
18623.2	0.00582784
18630.6	0.00578561
18645.4	0.00570107
18652.8	0.00565879
18660.2	0.00561651
18675	0.005532
18682.3	0.0054898
18697.1	0.00540552
18704.5	0.00536346
18711.9	0.00532147
18726.7	0.00523773
18734.1	0.00519599
18741.4	0.00515435
18756.2	0.00507139
18763.6	0.00503009
18771	0.00498892
18785.8	0.00490698
18793.2	0.00486623
18800.5	0.00482562
18815.3	0.00474489
18822.7	0.00470478
18830.1	0.00466483
18844.9	0.00458547
18852.2	0.00454607
18867	0.00446783
18874.4	0.004429
18881.8	0.00439037
18896.6	0.00431371
18904	0.00427569
18911.3	0.00423788
18926.1	0.00416287
18933.5	0.00412569
18940.9	0.00408872
18955.7	0.00401541
18963.1	0.00397907
18970.4	0.00394295
18985.2	0.00387134
18992.6	0.00383586
19007.4	0.00376551
19014.8	0.00373064
19022.2	0.00369598
19036.9	0.00362725
19044.3	0.00359318
19051.7	0.00355931
19066.5	0.00349212
19073.9	0.0034588
19081.3	0.00342565
19096	0.00335988
19103.4	0.00332724
19110.8	0.00329476
19125.6	0.00323025
19133	0.00319821
19140.4	0.00316631
19155.1	0.00310288
19162.5	0.00307134
19177.3	0.00300859
19184.7	0.00297735
19192.1	0.00294621
19206.8	0.00288415
19214.2	0.00285322
19221.6	0.00282234
19236.4	0.00276072
19243.8	0.00272996
19251.2	0.00269922
19265.9	0.00263776
19273.3	0.00260703
19280.7	0.00257628
19295.5	0.00251469
19302.9	0.00248383
19310.3	0.00245292
19325	0.00239089
19332.4	0.00235975
19347.2	0.00229717
19354.6	0.00226571
19362	0.00223413
19376.7	0.00217053
19384.1	0.0021385
19391.5	0.0021063
19406.3	0.00204135
19413.7	0.00200857
19421.1	0.00197559
19435.8	0.00190893
19443.2	0.00187524
19450.6	0.0018413
19465.4	0.0017726
19472.8	0.00173783
19480.2	0.00170276
19494.9	0.00163168
19502.3	0.00159565
19517.1	0.00152257
19524.5	0.00148549
19531.9	0.00144804
19546.7	0.001372
19554	0.00133339
19561.4	0.00129436
19576.2	0.00121505
19583.6	0.00117475
19591	0.001134
19605.8	0.00105113
19613.1	0.00100899
19620.5	0.000966372
19635.3	0.000879664
19642.7	0.000835559
19650.1	0.000790943
19664.8	0.000700148
19672.2	0.000653956
19687	0.000559947
19694.4	0.000512118
19701.8	0.000463731
19716.6	0.000365261
19723.9	0.000315167
19731.3	0.000264494
19746.1	0.000161391
19753.5	0.000108953
19760.9	5.59176e-05
19775.7	-5.19572e-05
19783	-0.000106803
19790.4	-0.000162259
19805.2	-0.000275009
19812.6	-0.000332308
19827.4	-0.00044876
19834.8	-0.000507916
19842.1	-0.000567692
19856.9	-0.00068911
19864.3	-0.000750751
19871.7	-0.000813013
19886.5	-0.000939394
19893.9	-0.00100351
19901.2	-0.00106824
19916	-0.00119955
19923.4	-0.00126611
19930.8	-0.00133328
19945.6	-0.00146942
19953	-0.00153838
19960.3	-0.00160793
19975.1	-0.00174878
19982.5	-0.00182007
19997.3	-0.00196435
