0	0
17.7294	0
26.5942	0
35.4589	0
44.3236	0
53.1883	0
62.053	0
70.9178	0
88.6472	0
97.5119	0
106.377	0
115.241	0
124.106	0
132.971	0
141.836	0
150.7	0
168.43	0
177.294	0
186.159	0
195.024	0
203.889	0
212.753	0
221.618	0
230.483	0
248.212	0
257.077	0
265.942	0
274.806	0
283.671	0
292.536	0
301.401	0
310.265	0
327.995	0
336.859	0
345.724	0
354.589	0
363.454	9.09495e-13
372.318	1.81899e-12
381.183	2.72848e-12
390.048	5.45697e-12
407.777	1.81899e-11
416.642	3.36513e-11
425.507	6.18456e-11
434.371	1.10049e-10
443.236	1.92813e-10
452.101	3.31056e-10
460.966	5.60249e-10
478.695	1.53341e-09
487.56	2.48292e-09
496.424	3.9654e-09
505.289	6.25187e-09
514.154	9.7325e-09
523.019	1.49685e-08
531.883	2.27537e-08
540.748	3.42025e-08
558.477	7.4846e-08
567.342	1.09048e-07
576.207	1.57351e-07
585.072	2.24946e-07
593.936	3.18703e-07
602.801	4.47642e-07
611.666	6.2351e-07
620.53	8.6149e-07
638.26	1.60704e-06
647.125	2.17083e-06
655.989	2.91189e-06
664.854	3.87954e-06
673.719	5.13497e-06
682.584	6.75376e-06
691.448	8.82867e-06
700.313	1.14729e-05
718.042	1.90486e-05
726.907	2.43463e-05
735.772	3.09567e-05
744.637	3.91654e-05
753.501	4.93113e-05
762.366	6.17952e-05
771.231	7.70887e-05
780.095	9.57453e-05
797.825	0.000145841
806.69	0.000178906
815.554	0.000218618
824.419	0.00026614
833.284	0.000322809
842.149	0.000390155
851.013	0.000469925
868.743	0.000674947
877.607	0.000804998
886.472	0.000957126
895.337	0.00113456
904.202	0.0013409
913.066	0.00158018
921.931	0.0018569
930.796	0.00217603
948.525	0.0029641
957.39	0.00344579
966.255	0.00399547
975.119	0.00462111
983.984	0.00533142
992.849	0.00613582
1001.71	0.00704452
1010.58	0.00806852
1028.31	0.0105104
1037.17	0.0119545
1046.04	0.013566
1054.9	0.0153602
1063.77	0.017353
1072.63	0.0195612
1081.5	0.0220023
1090.36	0.0246947
1108.09	0.0309092
1116.95	0.034471
1125.82	0.038363
1134.68	0.0426062
1143.55	0.0472216
1152.41	0.0522303
1161.28	0.0576537
1170.14	0.0635126
1187.87	0.0766192
1196.74	0.0839064
1205.6	0.0917082
1214.47	0.100042
1223.33	0.108924
1232.2	0.118369
1241.06	0.12839
1258.79	0.150203
1267.66	0.162012
1276.52	0.174428
1285.38	0.187454
1294.25	0.201089
1303.11	0.215328
1311.98	0.230165
1320.84	0.245588
1338.57	0.278135
1347.44	0.295221
1356.3	0.312816
1365.17	0.330892
1374.03	0.349417
1382.9	0.368355
1391.76	0.387667
1400.63	0.407308
1418.36	0.447392
1427.22	0.467731
1436.08	0.488194
1444.95	0.508722
1453.81	0.529252
1462.68	0.549721
1471.54	0.570062
1480.41	0.590207
1498.14	0.629627
1507	0.64876
1515.87	0.667412
1524.73	0.685509
1533.6	0.702981
1542.46	0.719754
1551.33	0.735759
1560.19	0.750925
1577.92	0.778473
1586.79	0.790726
1595.65	0.801882
1604.51	0.811886
1613.38	0.820682
1622.24	0.828221
1631.11	0.834456
1648.84	0.842852
1657.7	0.844943
1666.57	0.84559
1675.43	0.84477
1684.3	0.842467
1693.16	0.838668
1702.03	0.833366
1710.89	0.826559
1728.62	0.808456
1737.49	0.797184
1746.35	0.784456
1755.21	0.770297
1764.08	0.75474
1772.94	0.737818
1781.81	0.719573
1790.67	0.700048
1808.4	0.657362
1817.27	0.634311
1826.13	0.610201
1835	0.585096
1843.86	0.559062
1852.73	0.53217
1861.59	0.50449
1870.46	0.476096
1888.19	0.417473
1897.05	0.387397
1905.92	0.356917
1914.78	0.32611
1923.64	0.295056
1932.51	0.263833
1941.37	0.232519
1950.24	0.201191
1967.97	0.138794
1976.83	0.107872
1985.7	0.0772279
1994.56	0.0469312
2003.43	0.0170471
2012.29	-0.0123613
2021.16	-0.0412337
2030.02	-0.0695128
2047.75	-0.124078
2056.62	-0.150266
2065.48	-0.175665
2074.34	-0.200233
2083.21	-0.223935
2092.07	-0.246736
2100.94	-0.268608
2118.67	-0.309463
2127.53	-0.328405
2136.4	-0.346336
2145.26	-0.363243
2154.13	-0.379119
2162.99	-0.393958
2171.86	-0.40776
2180.72	-0.420526
2198.45	-0.44297
2207.32	-0.452666
2216.18	-0.461361
2225.05	-0.469071
2233.91	-0.475813
2242.77	-0.481608
2251.64	-0.486476
2260.5	-0.490443
2278.23	-0.495775
2287.1	-0.497195
2295.96	-0.497826
2304.83	-0.497696
2313.69	-0.496838
2322.56	-0.495285
2331.42	-0.49307
2340.29	-0.490227
2358.02	-0.482794
2366.88	-0.478272
2375.75	-0.47326
2384.61	-0.467792
2393.47	-0.461902
2402.34	-0.455623
2411.2	-0.44899
2420.07	-0.442034
2437.8	-0.427285
2446.66	-0.419554
2455.53	-0.411624
2464.39	-0.403527
2473.26	-0.395288
2482.12	-0.386936
2490.99	-0.378496
2508.72	-0.361453
2517.58	-0.352897
2526.45	-0.344346
2535.31	-0.335822
2544.17	-0.327343
2553.04	-0.318929
2561.9	-0.310595
2570.77	-0.302359
2588.5	-0.286236
2597.36	-0.278375
2606.23	-0.270663
2615.09	-0.263112
2623.96	-0.25573
2632.82	-0.248526
2641.69	-0.241507
2650.55	-0.234679
2668.28	-0.22162
2677.15	-0.215397
2686.01	-0.209383
2694.88	-0.203579
2703.74	-0.197987
2712.6	-0.192608
2721.47	-0.187442
2730.33	-0.182488
2748.06	-0.173213
2756.93	-0.168887
2765.79	-0.164766
2774.66	-0.160846
2783.52	-0.157124
2792.39	-0.153596
2801.25	-0.150258
2810.12	-0.147104
2827.85	-0.141333
2836.71	-0.138705
2845.58	-0.136241
2854.44	-0.133935
2863.3	-0.131782
2872.17	-0.129777
2881.03	-0.127911
2898.76	-0.124579
2907.63	-0.1231
2916.49	-0.121738
2925.36	-0.120485
2934.22	-0.119337
2943.09	-0.118287
2951.95	-0.11733
2960.82	-0.116459
2978.55	-0.114953
2987.41	-0.114307
2996.27	-0.113725
3005.14	-0.113201
3014	-0.112732
3022.87	-0.11231
3031.73	-0.111932
3040.6	-0.111593
3058.33	-0.111014
3067.19	-0.110765
3076.06	-0.110537
3084.92	-0.110328
3093.79	-0.110132
3102.65	-0.109947
3111.52	-0.109769
3120.38	-0.109594
3138.11	-0.109246
3146.97	-0.109066
3155.84	-0.108879
3164.7	-0.108682
3173.57	-0.108473
3182.43	-0.108251
3191.3	-0.108013
3200.16	-0.107757
3217.89	-0.107188
3226.76	-0.106871
3235.62	-0.10653
3244.48	-0.106166
3253.35	-0.105777
3262.21	-0.105362
3271.08	-0.10492
3288.81	-0.103954
3297.67	-0.103429
3306.54	-0.102876
3315.4	-0.102294
3324.27	-0.101684
3333.13	-0.101045
3342	-0.100377
3350.86	-0.099681
3368.59	-0.0982036
3377.45	-0.097423
3386.32	-0.096615
3395.18	-0.09578
3404.05	-0.0949185
3412.91	-0.0940309
3421.78	-0.0931178
3430.64	-0.0921797
3448.37	-0.0902314
3457.23	-0.0892224
3466.1	-0.088191
3474.96	-0.0871381
3483.83	-0.0860643
3492.69	-0.0849703
3501.56	-0.0838569
3510.42	-0.0827248
3528.15	-0.0804076
3537.01	-0.0792241
3545.88	-0.0780248
3554.74	-0.0768107
3563.61	-0.0755824
3572.47	-0.0743407
3581.34	-0.0730862
3590.2	-0.0718198
3607.93	-0.0692537
3616.79	-0.0679553
3625.66	-0.0666477
3634.52	-0.0653315
3643.39	-0.0640072
3652.25	-0.0626754
3661.12	-0.0613369
3678.85	-0.0586414
3687.71	-0.0572856
3696.57	-0.055925
3705.44	-0.0545602
3714.3	-0.0531917
3723.17	-0.0518198
3732.03	-0.050445
3740.9	-0.0490677
3758.62	-0.0463071
3767.49	-0.0449246
3776.35	-0.0435409
3785.22	-0.0421565
3794.08	-0.0407715
3802.95	-0.0393864
3811.81	-0.0380013
3820.68	-0.0366165
3838.4	-0.0338487
3847.27	-0.0324661
3856.13	-0.0310846
3865	-0.0297045
3873.86	-0.0283257
3882.73	-0.0269486
3891.59	-0.0255733
3900.45	-0.0241999
3918.18	-0.0214593
3927.05	-0.0200923
3935.91	-0.0187277
3944.78	-0.0173657
3953.64	-0.0160062
3962.51	-0.0146494
3971.37	-0.0132954
3980.23	-0.0119443
3997.96	-0.00925112
4006.83	-0.00790925
4015.69	-0.00657064
4024.56	-0.00523541
4033.42	-0.00390364
4042.28	-0.00257543
4051.15	-0.0012509
4060.01	6.98464e-05
4077.74	0.00269954
4086.61	0.00400825
4095.47	0.0053127
4104.34	0.00661276
4113.2	0.00790828
4122.06	0.00919912
4130.93	0.0104851
4148.66	0.013042
4157.52	0.0143126
4166.39	0.0155777
4175.25	0.016837
4184.12	0.0180905
4192.98	0.0193379
4201.84	0.020579
4210.71	0.0218137
4228.44	0.0242625
4237.3	0.0254762
4246.17	0.0266826
4255.03	0.0278812
4263.9	0.0290719
4272.76	0.0302544
4281.62	0.0314284
4290.49	0.0325937
4308.22	0.0348969
4317.08	0.0360342
4325.95	0.0371616
4334.81	0.0382788
4343.68	0.0393854
4352.54	0.0404812
4361.41	0.0415659
4370.27	0.042639
4388	0.0447496
4396.86	0.0457863
4405.73	0.0468103
4414.59	0.0478211
4423.46	0.0488184
4432.32	0.0498019
4441.19	0.0507712
4450.05	0.0517261
4467.78	0.0535909
4476.65	0.0545002
4485.51	0.0553936
4494.38	0.0562708
4503.24	0.0571315
4512.1	0.0579753
4520.97	0.0588019
4538.7	0.0604022
4547.56	0.0611753
4556.43	0.0619298
4565.29	0.0626656
4574.16	0.0633823
4583.02	0.0640795
4591.89	0.0647571
4600.75	0.0654146
4618.48	0.0666688
4627.35	0.0672648
4636.21	0.0678398
4645.07	0.0683935
4653.94	0.0689256
4662.8	0.0694361
4671.67	0.0699246
4680.53	0.0703909
4698.26	0.0712563
4707.13	0.0716551
4715.99	0.072031
4724.86	0.0723839
4733.72	0.0727137
4742.59	0.0730203
4751.45	0.0733035
4760.32	0.0735633
4778.05	0.0740123
4786.91	0.0742014
4795.77	0.0743669
4804.64	0.0745087
4813.5	0.0746268
4822.37	0.0747213
4831.23	0.0747922
4840.1	0.0748395
4857.83	0.0748637
4866.69	0.0748408
4875.56	0.0747946
4884.42	0.0747254
4893.29	0.0746331
4902.15	0.0745181
4911.02	0.0743805
4928.75	0.074038
4937.61	0.0738337
4946.47	0.0736076
4955.34	0.0733599
4964.2	0.073091
4973.07	0.0728011
4981.93	0.0724905
4990.8	0.0721596
5008.53	0.0714379
5017.39	0.0710478
5026.26	0.0706387
5035.12	0.0702109
5043.99	0.069765
5052.85	0.0693012
5061.72	0.06882
5070.58	0.0683217
5088.31	0.067276
5097.17	0.0667294
5106.04	0.0661676
5114.9	0.065591
5123.77	0.0650002
5132.63	0.0643957
5141.5	0.0637778
5150.36	0.0631471
5168.09	0.0618496
5176.96	0.0611836
5185.82	0.060507
5194.69	0.0598202
5203.55	0.0591237
5212.42	0.058418
5221.28	0.0577038
5230.14	0.0569814
5247.87	0.0555147
5256.74	0.0547714
5265.6	0.0540221
5274.47	0.0532674
5283.33	0.0525079
5292.2	0.0517439
5301.06	0.0509762
5318.79	0.0494313
5327.66	0.0486552
5336.52	0.0478773
5345.39	0.0470982
5354.25	0.0463182
5363.12	0.0455379
5371.98	0.0447578
5380.84	0.0439784
5398.57	0.0424233
5407.44	0.0416485
5416.3	0.0408761
5425.17	0.0401066
5434.03	0.0393404
5442.9	0.0385778
5451.76	0.0378193
5460.63	0.0370652
5478.36	0.0355717
5487.22	0.0348331
5496.09	0.0341002
5504.95	0.0333735
5513.82	0.0326532
5522.68	0.0319396
5531.54	0.031233
5540.41	0.0305337
5558.14	0.0291577
5567	0.0284815
5575.87	0.0278135
5584.73	0.0271538
5593.6	0.0265025
5602.46	0.02586
5611.33	0.0252262
5620.19	0.0246013
5637.92	0.0233788
5646.79	0.0227813
5655.65	0.0221931
5664.52	0.0216143
5673.38	0.0210448
5682.24	0.0204847
5691.11	0.019934
5708.84	0.0188609
5717.7	0.0183384
5726.57	0.0178252
5735.43	0.0173213
5744.3	0.0168265
5753.16	0.0163409
5762.03	0.0158643
5770.89	0.0153965
5788.62	0.0144873
5797.49	0.0140455
5806.35	0.0136121
5815.21	0.0131869
5824.08	0.0127697
5832.94	0.0123604
5841.81	0.0119586
5850.67	0.0115644
5868.4	0.0107974
5877.27	0.0104241
5886.13	0.0100575
5895	0.00969717
5903.86	0.00934291
5912.73	0.00899449
5921.59	0.00865163
5930.46	0.00831407
5948.19	0.0076538
5957.05	0.00733054
5965.92	0.0070115
5974.78	0.00669639
5983.64	0.00638493
5992.51	0.00607683
6001.37	0.00577181
6010.24	0.00546958
6027.97	0.00487235
6036.83	0.00457676
6045.7	0.00428282
6054.56	0.00399023
6063.43	0.00369871
6072.29	0.00340797
6081.16	0.00311775
6090.02	0.00282775
6107.75	0.00224735
6116.62	0.0019564
6125.48	0.00166462
6134.34	0.00137173
6143.21	0.00107748
6152.07	0.00078163
6160.94	0.00048393
6178.67	-0.000117954
6187.53	-0.000422594
6196.4	-0.000729992
6205.26	-0.00104036
6214.13	-0.0013539
6222.99	-0.00167081
6231.86	-0.00199129
6240.72	-0.0023155
6258.45	-0.00297585
6267.32	-0.00331231
6276.18	-0.00365316
6285.04	-0.00399854
6293.91	-0.00434859
6302.77	-0.00470343
6311.64	-0.00506318
6320.5	-0.00542794
6338.23	-0.00617291
6347.1	-0.00655328
6355.96	-0.00693901
6364.83	-0.00733017
6373.69	-0.00772681
6382.56	-0.00812898
6391.42	-0.00853671
6400.29	-0.00895003
6418.02	-0.00979354
6426.88	-0.0102237
6435.74	-0.0106596
6444.61	-0.011101
6453.47	-0.0115481
6462.34	-0.0120007
6471.2	-0.0124588
6480.07	-0.0129225
6497.8	-0.013866
6506.66	-0.0143458
6515.53	-0.0148308
6524.39	-0.015321
6533.26	-0.0158162
6542.12	-0.0163165
6550.99	-0.0168216
6568.72	-0.017846
6577.58	-0.0183651
6586.45	-0.0188886
6595.31	-0.0194164
6604.17	-0.0199484
6613.04	-0.0204844
6621.9	-0.0210243
6630.77	-0.0215679
6648.5	-0.0226656
6657.36	-0.0232195
6666.23	-0.0237764
6675.09	-0.0243362
6683.96	-0.0248988
6692.82	-0.025464
6701.69	-0.0260315
6710.55	-0.0266013
6728.28	-0.0277467
6737.15	-0.028322
6746.01	-0.0288987
6754.88	-0.0294766
6763.74	-0.0300557
6772.6	-0.0306356
6781.47	-0.0312161
6790.33	-0.0317972
6808.06	-0.0329598
6816.93	-0.033541
6825.79	-0.0341218
6834.66	-0.0347021
6843.52	-0.0352816
6852.39	-0.0358602
6861.25	-0.0364375
6870.12	-0.0370135
6887.85	-0.0381605
6896.71	-0.0387311
6905.58	-0.0392995
6914.44	-0.0398655
6923.31	-0.0404289
6932.17	-0.0409894
6941.03	-0.0415469
6958.76	-0.0426521
6967.63	-0.0431993
6976.49	-0.0437427
6985.36	-0.0442821
6994.22	-0.0448172
7003.09	-0.045348
7011.95	-0.0458741
7020.82	-0.0463955
7038.55	-0.047423
7047.41	-0.0479289
7056.28	-0.0484292
7065.14	-0.0489237
7074.01	-0.0494124
7082.87	-0.049895
7091.74	-0.0503713
7100.6	-0.0508412
7118.33	-0.0517611
7127.19	-0.0522107
7136.06	-0.0526532
7144.92	-0.0530885
7153.79	-0.0535163
7162.65	-0.0539366
7171.52	-0.0543492
7180.38	-0.0547539
7198.11	-0.0555391
7206.98	-0.0559193
7215.84	-0.0562911
7224.71	-0.0566544
7233.57	-0.0570089
7242.44	-0.0573546
7251.3	-0.0576914
7260.16	-0.058019
7277.89	-0.0586467
7286.76	-0.0589465
7295.62	-0.0592367
7304.49	-0.0595173
7313.35	-0.0597882
7322.22	-0.0600492
7331.08	-0.0603004
7348.81	-0.0607725
7357.68	-0.0609933
7366.54	-0.0612039
7375.41	-0.0614041
7384.27	-0.0615939
7393.14	-0.0617732
7402	-0.061942
7410.86	-0.0621002
7428.59	-0.0623845
7437.46	-0.0625106
7446.32	-0.0626259
7455.19	-0.0627303
7464.05	-0.0628238
7472.92	-0.0629064
7481.78	-0.0629781
7490.65	-0.0630388
7508.38	-0.0631272
7517.24	-0.0631549
7526.11	-0.0631716
7534.97	-0.0631772
7543.84	-0.0631718
7552.7	-0.0631554
7561.56	-0.0631279
7570.43	-0.0630895
7588.16	-0.0629796
7597.02	-0.0629083
7605.89	-0.062826
7614.75	-0.0627328
7623.62	-0.0626287
7632.48	-0.0625139
7641.35	-0.0623882
7650.21	-0.0622518
7667.94	-0.0619471
7676.81	-0.0617789
7685.67	-0.0616001
7694.53	-0.0614109
7703.4	-0.0612113
7712.26	-0.0610014
7721.13	-0.0607813
7738.86	-0.0603107
7747.72	-0.0600604
7756.59	-0.0598002
7765.45	-0.0595301
7774.32	-0.0592504
7783.18	-0.058961
7792.05	-0.0586621
7800.91	-0.0583538
7818.64	-0.0577094
7827.5	-0.0573735
7836.37	-0.0570287
7845.23	-0.0566749
7854.1	-0.0563124
7862.96	-0.0559414
7871.83	-0.0555618
7880.69	-0.0551738
7898.42	-0.0543732
7907.29	-0.0539609
7916.15	-0.0535407
7925.02	-0.0531128
7933.88	-0.0526774
7942.75	-0.0522344
7951.61	-0.0517842
7960.47	-0.0513268
7978.2	-0.0503911
7987.07	-0.0499131
7995.93	-0.0494285
8004.8	-0.0489374
8013.66	-0.0484401
8022.53	-0.0479366
8031.39	-0.0474272
8040.26	-0.0469119
8057.99	-0.0458643
8066.85	-0.0453324
8075.72	-0.0447953
8084.58	-0.0442531
8093.45	-0.0437059
8102.31	-0.043154
8111.17	-0.0425975
8120.04	-0.0420365
8137.77	-0.0409019
8146.63	-0.0403284
8155.5	-0.0397512
8164.36	-0.0391703
8173.23	-0.0385858
8182.09	-0.037998
8190.96	-0.037407
8208.69	-0.0362159
8217.55	-0.0356162
8226.42	-0.0350139
8235.28	-0.0344091
8244.14	-0.033802
8253.01	-0.0331928
8261.87	-0.0325816
8270.74	-0.0319686
8288.47	-0.0307376
8297.33	-0.03012
8306.2	-0.0295011
8315.06	-0.0288812
8323.93	-0.0282603
8332.79	-0.0276386
8341.66	-0.0270162
8350.52	-0.0263934
8368.25	-0.0251468
8377.11	-0.0245233
8385.98	-0.0238999
8394.84	-0.0232766
8403.71	-0.0226538
8412.57	-0.0220314
8421.44	-0.0214097
8430.3	-0.0207887
8448.03	-0.0195496
8456.9	-0.0189317
8465.76	-0.0183151
8474.63	-0.0177
8483.49	-0.0170865
8492.36	-0.0164746
8501.22	-0.0158646
8510.08	-0.0152565
8527.81	-0.0140468
8536.68	-0.0134454
8545.54	-0.0128464
8554.41	-0.01225
8563.27	-0.0116564
8572.14	-0.0110655
8581	-0.0104776
8598.73	-0.0093112
8607.6	-0.00873288
8616.46	-0.00815798
8625.33	-0.00758662
8634.19	-0.00701891
8643.05	-0.00645495
8651.92	-0.00589487
8660.78	-0.00533877
8678.51	-0.00423894
8687.38	-0.00369542
8696.24	-0.00315632
8705.11	-0.00262172
8713.97	-0.00209173
8722.84	-0.00156646
8731.7	-0.001046
8740.57	-0.000530441
8758.3	0.000485563
8767.16	0.000985824
8776.02	0.0014808
8784.89	0.00197041
8793.75	0.00245455
8802.62	0.00293315
8811.48	0.00340612
8820.35	0.00387337
8838.08	0.0047904
8846.94	0.00524003
8855.81	0.00568363
8864.67	0.00612112
8873.54	0.00655244
8882.4	0.00697751
8891.27	0.00739627
8900.13	0.00780865
8917.86	0.00861402
8926.72	0.00900688
8935.59	0.00939313
8944.45	0.00977269
8953.32	0.0101455
8962.18	0.0105116
8971.05	0.0108708
8988.78	0.0115686
8997.64	0.011907
9006.51	0.0122385
9015.37	0.0125629
9024.24	0.0128803
9033.1	0.0131905
9041.97	0.0134936
9050.83	0.0137896
9068.56	0.0143599
9077.42	0.0146343
9086.29	0.0149014
9095.15	0.0151612
9104.02	0.0154138
9112.88	0.0156592
9121.75	0.0158972
9130.61	0.016128
9148.34	0.0165677
9157.21	0.0167767
9166.07	0.0169784
9174.94	0.0171729
9183.8	0.0173601
9192.67	0.0175401
9201.53	0.0177129
9210.39	0.0178786
9228.12	0.0181885
9236.99	0.0183328
9245.85	0.01847
9254.72	0.0186003
9263.58	0.0187235
9272.45	0.0188398
9281.31	0.0189493
9290.18	0.0190519
9307.91	0.0192368
9316.77	0.0193192
9325.64	0.0193949
9334.5	0.0194641
9343.37	0.0195268
9352.23	0.0195831
9361.09	0.019633
9378.82	0.019714
9387.69	0.0197452
9396.55	0.0197704
9405.42	0.0197895
9414.28	0.0198028
9423.15	0.0198102
9432.01	0.0198119
9440.88	0.0198079
9458.61	0.0197833
9467.47	0.0197629
9476.34	0.0197371
9485.2	0.0197062
9494.07	0.0196702
9502.93	0.0196292
9511.79	0.0195833
9520.66	0.0195326
9538.39	0.0194171
9547.25	0.0193526
9556.12	0.0192837
9564.98	0.0192106
9573.85	0.0191332
9582.71	0.0190518
9591.58	0.0189664
9600.44	0.0188772
9618.17	0.0186877
9627.04	0.0185876
9635.9	0.0184841
9644.77	0.0183773
9653.63	0.0182673
9662.49	0.0181542
9671.36	0.0180382
9680.22	0.0179193
9697.95	0.0176734
9706.82	0.0175465
9715.68	0.0174173
9724.55	0.0172857
9733.41	0.017152
9742.28	0.0170161
9751.14	0.0168782
9760.01	0.0167385
9777.74	0.0164537
9786.6	0.0163088
9795.47	0.0161625
9804.33	0.0160148
9813.19	0.0158658
9822.06	0.0157156
9830.92	0.0155642
9848.65	0.0152586
9857.52	0.0151045
9866.38	0.0149496
9875.25	0.014794
9884.11	0.0146379
9892.98	0.0144812
9901.84	0.0143241
9910.71	0.0141667
9928.44	0.013851
9937.3	0.013693
9946.17	0.0135348
9955.03	0.0133767
9963.89	0.0132185
9972.76	0.0130606
9981.62	0.0129027
9990.49	0.0127451
10008.2	0.0124308
10017.1	0.0122742
10025.9	0.012118
10034.8	0.0119623
10043.7	0.011807
10052.5	0.0116523
10061.4	0.0114982
10070.3	0.0113447
10088	0.0110396
10096.9	0.0108881
10105.7	0.0107373
10114.6	0.0105872
10123.5	0.0104379
10132.3	0.0102894
10141.2	0.0101416
10150.1	0.0099946
10167.8	0.00970302
10176.6	0.00955843
10185.5	0.00941465
10194.4	0.00927168
10203.2	0.0091295
10212.1	0.00898812
10221	0.00884752
10238.7	0.00856865
10247.6	0.00843035
10256.4	0.00829278
10265.3	0.00815593
10274.2	0.00801977
10283	0.00788429
10291.9	0.00774947
10300.8	0.00761528
10318.5	0.00734867
10327.3	0.00721619
10336.2	0.00708424
10345.1	0.00695276
10353.9	0.00682174
10362.8	0.00669113
10371.7	0.00656091
10380.5	0.00643102
10398.3	0.00617214
10407.1	0.00604306
10416	0.00591417
10424.9	0.00578543
10433.7	0.00565679
10442.6	0.00552822
10451.5	0.00539968
10460.3	0.00527111
10478	0.00501375
10486.9	0.00488487
10495.8	0.00475579
10504.6	0.00462648
10513.5	0.00449688
10522.4	0.00436697
10531.2	0.00423668
10540.1	0.00410599
10557.8	0.00384319
10566.7	0.00371101
10575.6	0.00357825
10584.4	0.00344486
10593.3	0.00331082
10602.2	0.00317607
10611	0.00304058
10628.7	0.00276723
10637.6	0.00262929
10646.5	0.00249047
10655.3	0.00235072
10664.2	0.00221001
10673.1	0.00206831
10681.9	0.00192558
10690.8	0.00178181
10708.5	0.00149098
10717.4	0.00134388
10726.3	0.00119561
10735.1	0.00104615
10744	0.000895491
10752.9	0.000743597
10761.7	0.000590452
10770.6	0.000436038
10788.3	0.000123337
10797.2	-3.49788e-05
10806	-0.000194622
10814.9	-0.000355604
10823.8	-0.000517934
10832.6	-0.000681618
10841.5	-0.000846663
10850.4	-0.00101307
10868.1	-0.00135
10877	-0.00152052
10885.8	-0.0016924
10894.7	-0.00186565
10903.6	-0.00204025
10912.4	-0.0022162
10921.3	-0.0023935
10930.1	-0.00257212
10947.9	-0.00293332
10956.7	-0.00311586
10965.6	-0.00329968
10974.5	-0.00348475
10983.3	-0.00367106
10992.2	-0.00385859
11001.1	-0.00404731
11018.8	-0.00442822
11027.7	-0.00462037
11036.5	-0.0048136
11045.4	-0.00500789
11054.3	-0.00520321
11063.1	-0.00539952
11072	-0.00559679
11080.8	-0.00579499
11098.6	-0.00619401
11107.4	-0.00639476
11116.3	-0.00659629
11125.2	-0.00679854
11134	-0.00700149
11142.9	-0.00720509
11151.8	-0.00740929
11160.6	-0.00761405
11178.4	-0.00802506
11187.2	-0.00823123
11196.1	-0.00843776
11205	-0.00864462
11213.8	-0.00885176
11222.7	-0.00905912
11231.5	-0.00926665
11240.4	-0.00947431
11258.1	-0.00988979
11267	-0.0100975
11275.9	-0.0103051
11284.7	-0.0105126
11293.6	-0.0107199
11302.5	-0.010927
11311.3	-0.0111337
11320.2	-0.0113402
11337.9	-0.0117517
11346.8	-0.0119567
11355.7	-0.0121611
11364.5	-0.012365
11373.4	-0.0125681
11382.2	-0.0127705
11391.1	-0.0129722
11408.8	-0.0133729
11417.7	-0.0135718
11426.6	-0.0137698
11435.4	-0.0139667
11444.3	-0.0141626
11453.2	-0.0143572
11462	-0.0145507
11470.9	-0.0147429
11488.6	-0.0151234
11497.5	-0.0153116
11506.4	-0.0154984
11515.2	-0.0156836
11524.1	-0.0158673
11532.9	-0.0160495
11541.8	-0.01623
11550.7	-0.0164089
11568.4	-0.0167614
11577.3	-0.016935
11586.1	-0.0171068
11595	-0.0172768
11603.9	-0.0174448
11612.7	-0.0176109
11621.6	-0.017775
11630.5	-0.0179371
11648.2	-0.0182552
11657.1	-0.018411
11665.9	-0.0185648
11674.8	-0.0187164
11683.7	-0.0188658
11692.5	-0.019013
11701.4	-0.019158
11710.2	-0.0193007
11728	-0.0195793
11736.8	-0.0197151
11745.7	-0.0198486
11754.6	-0.0199797
11763.4	-0.0201085
11772.3	-0.0202349
11781.2	-0.0203589
11790	-0.0204805
11807.8	-0.0207164
11816.6	-0.0208307
11825.5	-0.0209425
11834.4	-0.021052
11843.2	-0.021159
11852.1	-0.0212635
11860.9	-0.0213656
11878.7	-0.0215624
11887.5	-0.0216572
11896.4	-0.0217495
11905.3	-0.0218394
11914.1	-0.0219268
11923	-0.0220119
11931.9	-0.0220945
11940.7	-0.0221747
11958.5	-0.022328
11967.3	-0.0224011
11976.2	-0.0224719
11985.1	-0.0225403
11993.9	-0.0226065
12002.8	-0.0226703
12011.6	-0.0227318
12020.5	-0.0227911
12038.2	-0.022903
12047.1	-0.0229557
12056	-0.0230062
12064.8	-0.0230545
12073.7	-0.0231008
12082.6	-0.0231449
12091.4	-0.023187
12100.3	-0.023227
12118	-0.0233011
12126.9	-0.0233352
12135.8	-0.0233674
12144.6	-0.0233977
12153.5	-0.0234261
12162.3	-0.0234527
12171.2	-0.0234776
12180.1	-0.0235006
12197.8	-0.0235416
12206.7	-0.0235595
12215.5	-0.0235759
12224.4	-0.0235906
12233.3	-0.0236038
12242.1	-0.0236155
12251	-0.0236257
12268.7	-0.0236417
12277.6	-0.0236476
12286.5	-0.0236522
12295.3	-0.0236554
12304.2	-0.0236574
12313	-0.0236581
12321.9	-0.0236576
12330.8	-0.0236559
12348.5	-0.0236492
12357.4	-0.0236442
12366.2	-0.0236382
12375.1	-0.0236311
12384	-0.0236231
12392.8	-0.0236142
12401.7	-0.0236043
12410.6	-0.0235935
12428.3	-0.0235695
12437.2	-0.0235563
12446	-0.0235424
12454.9	-0.0235277
12463.7	-0.0235123
12472.6	-0.0234962
12481.5	-0.0234795
12490.3	-0.0234622
12508.1	-0.0234258
12516.9	-0.0234068
12525.8	-0.0233872
12534.7	-0.0233672
12543.5	-0.0233467
12552.4	-0.0233257
12561.3	-0.0233043
12570.1	-0.0232825
12587.9	-0.0232377
12596.7	-0.0232148
12605.6	-0.0231915
12614.4	-0.0231679
12623.3	-0.023144
12632.2	-0.0231198
12641	-0.0230953
12658.8	-0.0230455
12667.6	-0.0230202
12676.5	-0.0229947
12685.4	-0.022969
12694.2	-0.022943
12703.1	-0.0229168
12712	-0.0228904
12720.8	-0.0228638
12738.6	-0.02281
12747.4	-0.0227828
12756.3	-0.0227554
12765.1	-0.0227279
12774	-0.0227001
12782.9	-0.0226721
12791.7	-0.0226439
12800.6	-0.0226155
12818.3	-0.0225582
12827.2	-0.0225292
12836.1	-0.0225
12844.9	-0.0224705
12853.8	-0.0224408
12862.7	-0.0224109
12871.5	-0.0223807
12880.4	-0.0223503
12898.1	-0.0222886
12907	-0.0222573
12915.8	-0.0222257
12924.7	-0.0221938
12933.6	-0.0221616
12942.4	-0.022129
12951.3	-0.0220961
12960.2	-0.0220628
12977.9	-0.0219949
12986.8	-0.0219604
12995.6	-0.0219254
13004.5	-0.0218899
13013.4	-0.021854
13022.2	-0.0218176
13031.1	-0.0217807
13048.8	-0.0217052
13057.7	-0.0216666
13066.5	-0.0216274
13075.4	-0.0215876
13084.3	-0.0215472
13093.1	-0.0215061
13102	-0.0214644
13110.9	-0.0214219
13128.6	-0.0213349
13137.5	-0.0212902
13146.3	-0.0212448
13155.2	-0.0211986
13164.1	-0.0211515
13172.9	-0.0211036
13181.8	-0.0210549
13190.7	-0.0210053
13208.4	-0.0209032
13217.2	-0.0208508
13226.1	-0.0207974
13235	-0.0207431
13243.8	-0.0206877
13252.7	-0.0206313
13261.6	-0.0205739
13270.4	-0.0205154
13288.2	-0.0203951
13297	-0.0203332
13305.9	-0.0202703
13314.8	-0.0202062
13323.6	-0.0201409
13332.5	-0.0200744
13341.4	-0.0200067
13350.2	-0.0199378
13367.9	-0.0197962
13376.8	-0.0197235
13385.7	-0.0196496
13394.5	-0.0195743
13403.4	-0.0194978
13412.3	-0.0194199
13421.1	-0.0193406
13438.9	-0.0191782
13447.7	-0.0190949
13456.6	-0.0190102
13465.5	-0.0189241
13474.3	-0.0188367
13483.2	-0.0187479
13492.1	-0.0186576
13500.9	-0.018566
13518.6	-0.0183784
13527.5	-0.0182824
13536.4	-0.0181851
13545.2	-0.0180863
13554.1	-0.0179861
13563	-0.0178844
13571.8	-0.0177813
13580.7	-0.0176768
13598.4	-0.0174634
13607.3	-0.0173545
13616.2	-0.0172443
13625	-0.0171326
13633.9	-0.0170194
13642.8	-0.0169049
13651.6	-0.016789
13660.5	-0.0166716
13678.2	-0.0164327
13687.1	-0.0163112
13695.9	-0.0161883
13704.8	-0.0160641
13713.7	-0.0159385
13722.5	-0.0158116
13731.4	-0.0156834
13740.3	-0.0155538
13758	-0.0152909
13766.9	-0.0151575
13775.7	-0.0150228
13784.6	-0.014887
13793.5	-0.0147499
13802.3	-0.0146116
13811.2	-0.0144721
13820	-0.0143315
13837.8	-0.0140469
13846.6	-0.0139029
13855.5	-0.0137578
13864.4	-0.0136117
13873.2	-0.0134646
13882.1	-0.0133164
13891	-0.0131673
13908.7	-0.0128662
13917.6	-0.0127142
13926.4	-0.0125614
13935.3	-0.0124077
13944.2	-0.0122532
13953	-0.0120979
13961.9	-0.0119418
13970.7	-0.011785
13988.5	-0.0114692
13997.3	-0.0113103
14006.2	-0.0111508
14015.1	-0.0109906
14023.9	-0.0108299
14032.8	-0.0106687
14041.7	-0.0105069
14050.5	-0.0103447
14068.3	-0.0100189
14077.1	-0.00985541
14086	-0.00969157
14094.9	-0.00952741
14103.7	-0.00936296
14112.6	-0.00919825
14121.4	-0.00903332
14130.3	-0.0088682
14148	-0.0085375
14156.9	-0.008372
14165.8	-0.00820643
14174.6	-0.00804083
14183.5	-0.00787524
14192.4	-0.00770968
14201.2	-0.00754419
14210.1	-0.0073788
14227.8	-0.00704846
14236.7	-0.00688357
14245.6	-0.0067189
14254.4	-0.0065545
14263.3	-0.00639039
14272.1	-0.0062266
14281	-0.00606317
14298.7	-0.00573751
14307.6	-0.00557533
14316.5	-0.00541363
14325.3	-0.00525244
14334.2	-0.00509178
14343.1	-0.0049317
14351.9	-0.00477221
14360.8	-0.00461334
14378.5	-0.0042976
14387.4	-0.00414078
14396.3	-0.0039847
14405.1	-0.00382938
14414	-0.00367484
14422.8	-0.00352113
14431.7	-0.00336825
14440.6	-0.00321624
14458.3	-0.00291492
14467.2	-0.00276566
14476	-0.00261735
14484.9	-0.00247003
14493.8	-0.00232372
14502.6	-0.00217844
14511.5	-0.0020342
14520.4	-0.00189103
14538.1	-0.00160799
14547	-0.00146815
14555.8	-0.00132946
14564.7	-0.00119194
14573.5	-0.00105559
14582.4	-0.000920442
14591.3	-0.000786509
14600.1	-0.000653806
14617.9	-0.000392148
14626.7	-0.000263221
14635.6	-0.00013558
14644.5	-9.23796e-06
14653.3	0.000115794
14662.2	0.000239505
14671.1	0.000361883
14688.8	0.000602603
14697.7	0.000720927
14706.5	0.000837881
14715.4	0.000953459
14724.2	0.00106765
14733.1	0.00118046
14742	0.00129186
14750.8	0.00140187
14768.6	0.00161766
14777.4	0.00172344
14786.3	0.0018278
14795.2	0.00193074
14804	0.00203226
14812.9	0.00213236
14821.8	0.00223104
14830.6	0.00232829
14848.4	0.00251854
14857.2	0.00261153
14866.1	0.00270311
14874.9	0.00279327
14883.8	0.00288202
14892.7	0.00296936
14901.5	0.00305531
14910.4	0.00313985
14928.1	0.00330476
14937	0.00338515
14945.9	0.00346416
14954.7	0.0035418
14963.6	0.00361808
14972.5	0.00369302
14981.3	0.00376661
14990.2	0.00383887
15007.9	0.00397943
15016.8	0.00404774
15025.6	0.00411477
15034.5	0.00418052
15043.4	0.00424499
15052.2	0.00430821
15061.1	0.00437018
15078.8	0.00449044
15087.7	0.00454875
15096.6	0.00460587
15105.4	0.00466181
15114.3	0.00471659
15123.2	0.00477022
15132	0.00482271
15140.9	0.00487408
15158.6	0.00497353
15167.5	0.00502163
15176.3	0.00506868
15185.2	0.00511469
15194.1	0.00515967
15202.9	0.00520365
15211.8	0.00524663
15220.7	0.00528865
15238.4	0.00536983
15247.3	0.00540903
15256.1	0.00544733
15265	0.00548474
15273.9	0.00552129
15282.7	0.00555699
15291.6	0.00559186
15300.5	0.00562592
15318.2	0.00569168
15327	0.00572341
15335.9	0.00575441
15344.8	0.00578469
15353.6	0.00581428
15362.5	0.00584318
15371.4	0.00587142
15380.2	0.00589901
15398	0.00595235
15406.8	0.00597813
15415.7	0.00600334
15424.6	0.006028
15433.4	0.00605213
15442.3	0.00607574
15451.2	0.00609886
15460	0.00612151
15477.7	0.00616544
15486.6	0.00618677
15495.5	0.00620769
15504.3	0.00622822
15513.2	0.00624838
15522.1	0.00626819
15530.9	0.00628767
15548.7	0.00632568
15557.5	0.00634425
15566.4	0.00636255
15575.3	0.0063806
15584.1	0.00639841
15593	0.006416
15601.9	0.00643338
15610.7	0.00645057
15628.4	0.00648444
15637.3	0.00650115
15646.2	0.00651772
15655	0.00653417
15663.9	0.00655051
15672.8	0.00656675
15681.6	0.00658292
15690.5	0.00659901
15708.2	0.00663104
15717.1	0.00664699
15726	0.00666292
15734.8	0.00667883
15743.7	0.00669473
15752.6	0.00671064
15761.4	0.00672656
15770.3	0.0067425
15788	0.00677448
15796.9	0.00679053
15805.7	0.00680663
15814.6	0.00682278
15823.5	0.006839
15832.3	0.00685529
15841.2	0.00687164
15850.1	0.00688807
15867.8	0.00692117
15876.7	0.00693785
15885.5	0.00695461
15894.4	0.00697146
15903.3	0.0069884
15912.1	0.00700543
15921	0.00702255
15938.7	0.00705705
15947.6	0.00707442
15956.4	0.00709188
15965.3	0.00710942
15974.2	0.00712703
15983	0.00714471
15991.9	0.00716246
16000.8	0.00718026
16018.5	0.00721603
16027.4	0.00723398
16036.2	0.00725196
16045.1	0.00726996
16054	0.00728797
16062.8	0.00730599
16071.7	0.007324
16080.5	0.007342
16098.3	0.00737788
16107.1	0.00739574
16116	0.00741354
16124.9	0.00743125
16133.7	0.00744886
16142.6	0.00746636
16151.5	0.00748373
16160.3	0.00750095
16178.1	0.00753489
16186.9	0.00755156
16195.8	0.00756802
16204.7	0.00758424
16213.5	0.00760019
16222.4	0.00761587
16231.2	0.00763125
16240.1	0.0076463
16257.8	0.00767535
16266.7	0.0076893
16275.6	0.00770283
16284.4	0.00771592
16293.3	0.00772854
16302.2	0.00774067
16311	0.00775229
16328.8	0.00777386
16337.6	0.00778377
16346.5	0.00779305
16355.4	0.00780168
16364.2	0.00780962
16373.1	0.00781686
16382	0.00782336
16390.8	0.00782909
16408.5	0.00783812
16417.4	0.00784137
16426.3	0.00784372
16435.1	0.00784516
16444	0.00784565
16452.9	0.00784516
16461.7	0.00784365
16470.6	0.0078411
16488.3	0.00783274
16497.2	0.00782687
16506.1	0.00781984
16514.9	0.00781159
16523.8	0.00780212
16532.7	0.00779138
16541.5	0.00777934
16550.4	0.00776598
16568.1	0.00773514
16577	0.00771761
16585.8	0.00769862
16594.7	0.00767815
16603.6	0.00765617
16612.4	0.00763264
16621.3	0.00760754
16630.2	0.00758084
16647.9	0.00752251
16656.8	0.00749082
16665.6	0.00745742
16674.5	0.00742228
16683.4	0.00738536
16692.2	0.00734665
16701.1	0.00730612
16718.8	0.00721948
16727.7	0.00717333
16736.5	0.00712527
16745.4	0.00707526
16754.3	0.00702328
16763.1	0.00696933
16772	0.00691337
16780.9	0.00685539
16798.6	0.00673328
16807.5	0.00666913
16816.3	0.00660288
16825.2	0.00653453
16834.1	0.00646406
16842.9	0.00639146
16851.8	0.00631672
16860.6	0.00623982
16878.4	0.00607953
16887.2	0.00599612
16896.1	0.00591053
16905	0.00582276
16913.8	0.00573279
16922.7	0.00564062
16931.6	0.00554627
16940.4	0.00544972
16958.2	0.00525004
16967	0.00514692
16975.9	0.00504163
16984.8	0.00493416
16993.6	0.00482453
17002.5	0.00471274
17011.3	0.00459881
17020.2	0.00448275
17037.9	0.0042443
17046.8	0.00412194
17055.7	0.00399752
17064.5	0.00387105
17073.4	0.00374256
17082.3	0.00361206
17091.1	0.00347959
17108.9	0.00320882
17117.7	0.00307058
17126.6	0.00293048
17135.5	0.00278854
17144.3	0.0026448
17153.2	0.00249929
17162	0.00235206
17170.9	0.00220313
17188.6	0.00190036
17197.5	0.00174659
17206.4	0.0015913
17215.2	0.00143452
17224.1	0.00127631
17233	0.0011167
17241.8	0.000955759
17250.7	0.000793521
17268.4	0.000465376
17277.3	0.000299575
17286.2	0.000132695
17295	-3.52089e-05
17303.9	-0.000204078
17312.7	-0.000373855
17321.6	-0.000544479
17330.5	-0.000715891
17348.2	-0.00106083
17357.1	-0.00123422
17365.9	-0.00140815
17374.8	-0.00158255
17383.7	-0.00175735
17392.5	-0.00193248
17401.4	-0.00210788
17410.3	-0.00228348
17428	-0.00263498
17436.9	-0.00281074
17445.7	-0.00298641
17454.6	-0.00316193
17463.4	-0.00333721
17472.3	-0.00351219
17481.2	-0.00368678
17490	-0.00386092
17507.8	-0.00420755
17516.6	-0.00437988
17525.5	-0.00455146
17534.4	-0.00472221
17543.2	-0.00489205
17552.1	-0.00506091
17561	-0.00522871
17578.7	-0.00556085
17587.6	-0.00572503
17596.4	-0.00588785
17605.3	-0.00604924
17614.1	-0.00620912
17623	-0.00636741
17631.9	-0.00652405
17640.7	-0.00667896
17658.5	-0.00698329
17667.3	-0.00713257
17676.2	-0.00727983
17685.1	-0.007425
17693.9	-0.00756801
17702.8	-0.00770879
17711.7	-0.00784728
17720.5	-0.0079834
17738.3	-0.00824827
17747.1	-0.0083769
17756	-0.00850291
17764.8	-0.00862623
17773.7	-0.0087468
17782.6	-0.00886456
17791.4	-0.00897945
17800.3	-0.00909142
17818	-0.00930637
17826.9	-0.00940924
17835.8	-0.00950897
17844.6	-0.00960551
17853.5	-0.00969881
17862.4	-0.00978883
17871.2	-0.00987551
17880.1	-0.00995882
17897.8	-0.0101151
17906.7	-0.0101881
17915.5	-0.0102575
17924.4	-0.0103233
17933.3	-0.0103855
17942.1	-0.0104441
17951	-0.010499
17968.7	-0.0105977
17977.6	-0.0106415
17986.5	-0.0106815
17995.3	-0.0107177
18004.2	-0.0107501
18013.1	-0.0107786
18021.9	-0.0108034
18030.8	-0.0108242
18048.5	-0.0108544
18057.4	-0.0108637
18066.2	-0.010869
18075.1	-0.0108705
18084	-0.0108681
18092.8	-0.0108619
18101.7	-0.0108517
18110.6	-0.0108377
18128.3	-0.010798
18137.2	-0.0107724
18146	-0.010743
18154.9	-0.0107097
18163.8	-0.0106727
18172.6	-0.0106318
18181.5	-0.0105872
18190.4	-0.0105388
18208.1	-0.010431
18216.9	-0.0103716
18225.8	-0.0103086
18234.7	-0.0102419
18243.5	-0.0101717
18252.4	-0.010098
18261.3	-0.0100208
18270.1	-0.00994011
18287.9	-0.00976859
18296.7	-0.00967782
18305.6	-0.00958377
18314.5	-0.0094865
18323.3	-0.00938604
18332.2	-0.00928246
18341.1	-0.00917579
18358.8	-0.00895344
18367.6	-0.00883787
18376.5	-0.00871943
18385.4	-0.0085982
18394.2	-0.00847423
18403.1	-0.00834758
18412	-0.00821831
18420.8	-0.00808649
18438.6	-0.00781545
18447.4	-0.00767636
18456.3	-0.00753497
18465.2	-0.00739137
18474	-0.00724561
18482.9	-0.00709777
18491.8	-0.00694791
18500.6	-0.00679611
18518.3	-0.00648697
18527.2	-0.00632977
18536.1	-0.00617093
18544.9	-0.0060105
18553.8	-0.00584857
18562.7	-0.00568521
18571.5	-0.00552049
18580.4	-0.00535449
18598.1	-0.00501896
18607	-0.00484958
18615.9	-0.00467923
18624.7	-0.00450797
18633.6	-0.00433588
18642.5	-0.00416305
18651.3	-0.00398955
18660.2	-0.00381545
18677.9	-0.00346575
18686.8	-0.00329031
18695.6	-0.00311458
18704.5	-0.00293862
18713.4	-0.00276251
18722.2	-0.00258633
18731.1	-0.00241015
18748.8	-0.00205807
18757.7	-0.00188232
18766.6	-0.00170686
18775.4	-0.00153175
18784.3	-0.00135707
18793.2	-0.00118288
18802	-0.00100926
18810.9	-0.000836267
18828.6	-0.000492442
18837.5	-0.000321738
18846.3	-0.000151927
18855.2	1.69292e-05
18864.1	0.000184769
18872.9	0.000351531
18881.8	0.000517155
18890.7	0.000681582
18908.4	0.00100662
18917.3	0.00116711
18926.1	0.00132618
18935	0.00148378
18943.9	0.00163985
18952.7	0.00179435
18961.6	0.00194721
18970.4	0.0020984
18988.2	0.00239556
18997	0.00254144
19005.9	0.00268547
19014.8	0.00282759
19023.6	0.00296777
19032.5	0.00310598
19041.4	0.00324216
19050.2	0.00337629
19068	0.00363824
19076.8	0.003766
19085.7	0.00389156
19094.6	0.00401491
19103.4	0.00413601
19112.3	0.00425483
19121.1	0.00437135
19130	0.00448555
19147.7	0.00470687
19156.6	0.00481396
19165.5	0.00491863
19174.3	0.00502087
19183.2	0.00512067
19192.1	0.00521801
19200.9	0.00531288
19218.7	0.00549514
19227.5	0.00558252
19236.4	0.00566738
19245.3	0.00574971
19254.1	0.00582952
19263	0.0059068
19271.8	0.00598154
19280.7	0.00605374
19298.4	0.00619051
19307.3	0.0062551
19316.2	0.00631714
19325	0.00637666
19333.9	0.00643365
19342.8	0.00648812
19351.6	0.00654008
19360.5	0.00658953
19378.2	0.00668096
19387.1	0.00672296
19396	0.00676251
19404.8	0.0067996
19413.7	0.00683427
19422.5	0.00686652
19431.4	0.00689637
19440.3	0.00692384
19458	0.00697171
19466.9	0.00699215
19475.7	0.00701029
19484.6	0.00702615
19493.5	0.00703976
19502.3	0.00705113
19511.2	0.00706029
19520.1	0.00706727
19537.8	0.00707478
19546.7	0.00707536
19555.5	0.00707387
19564.4	0.00707034
19573.2	0.00706478
19582.1	0.00705724
19591	0.00704774
19608.7	0.00702298
19617.6	0.0070078
19626.4	0.00699078
19635.3	0.00697196
19644.2	0.00695138
19653	0.00692907
19661.9	0.00690506
19670.8	0.00687939
19688.5	0.0068232
19697.4	0.00679275
19706.2	0.00676079
19715.1	0.00672733
19723.9	0.00669243
19732.8	0.00665612
19741.7	0.00661844
19750.5	0.00657941
19768.3	0.0064975
19777.1	0.00645469
19786	0.00641069
19794.9	0.00636554
19803.7	0.00631928
19812.6	0.00627194
19821.5	0.00622356
19830.3	0.00617419
19848.1	0.0060726
19856.9	0.00602046
19865.8	0.00596747
19874.6	0.00591367
19883.5	0.00585909
19892.4	0.00580379
19901.2	0.00574779
19910.1	0.00569112
19927.8	0.00557597
19936.7	0.00551755
19945.6	0.00545862
19954.4	0.00539921
19963.3	0.00533937
19972.2	0.00527912
19981	0.0052185
19998.8	0.00509631
