0	0
37.4816	0
74.9633	0
112.445	0
149.927	0
187.408	0
224.89	0
262.372	0
299.853	0
337.335	0
374.816	0
412.298	0
449.78	1.15142e-09
487.261	3.21552e-08
524.743	2.99937e-07
562.225	1.7058e-06
599.706	7.22462e-06
637.188	2.50289e-05
674.67	7.49119e-05
712.151	0.00020047
749.633	0.000490401
787.115	0.00111189
824.596	0.00235658
862.078	0.00469484
899.559	0.00882749
937.041	0.0157182
974.523	0.0265866
1012	0.0428462
1049.49	0.0659782
1086.97	0.0973482
1124.45	0.137985
1161.93	0.188355
1199.41	0.248166
1236.89	0.316237
1274.38	0.390466
1311.86	0.467891
1349.34	0.544867
1386.82	0.617323
1424.3	0.681071
1461.78	0.732147
1499.27	0.76713
1536.75	0.783413
1574.23	0.779407
1611.71	0.754642
1649.19	0.709779
1686.67	0.646532
1724.16	0.567509
1761.64	0.475999
1799.12	0.375726
1836.6	0.270594
1874.08	0.164445
1911.56	0.0608542
1949.05	-0.0370409
1986.53	-0.126654
2024.01	-0.206018
2061.49	-0.273801
2098.97	-0.329287
2136.45	-0.372322
2173.94	-0.403243
2211.42	-0.422785
2248.9	-0.431995
2286.38	-0.432135
2323.86	-0.424602
2361.34	-0.410848
2398.82	-0.392316
2436.31	-0.370381
2473.79	-0.34631
2511.27	-0.321228
2548.75	-0.296096
2586.23	-0.271697
2623.71	-0.248635
2661.19	-0.227339
2698.68	-0.208077
2736.16	-0.19097
2773.64	-0.176018
2811.12	-0.16312
2848.6	-0.152102
2886.08	-0.142742
2923.56	-0.134786
2961.04	-0.127974
2998.52	-0.122053
3036	-0.116785
3073.49	-0.111961
3110.97	-0.107401
3148.45	-0.102958
3185.93	-0.0985169
3223.41	-0.0939917
3260.89	-0.089325
3298.37	-0.0844827
3335.85	-0.0794513
3373.33	-0.0742339
3410.81	-0.0688476
3448.29	-0.0633195
3485.77	-0.0576845
3523.25	-0.0519819
3560.73	-0.0462535
3598.21	-0.0405409
3635.69	-0.034884
3673.17	-0.0293188
3710.65	-0.0238768
3748.13	-0.0185837
3785.61	-0.0134594
3823.09	-0.00851777
3860.57	-0.00376721
3898.06	0.000788919
3935.54	0.00515127
3973.02	0.00932365
4010.5	0.013312
4047.98	0.0171235
4085.46	0.0207658
4122.94	0.0242462
4160.42	0.0275711
4197.91	0.0307457
4235.39	0.0337736
4272.87	0.0366569
4310.35	0.0393957
4347.83	0.0419886
4385.31	0.0444325
4422.8	0.0467229
4460.28	0.0488539
4497.76	0.0508188
4535.24	0.0526101
4572.72	0.0542198
4610.2	0.05564
4647.69	0.0568628
4685.17	0.057881
4722.65	0.0586881
4760.13	0.0592787
4797.61	0.0596486
4835.09	0.0597951
4872.57	0.0597168
4910.06	0.059414
4947.54	0.0588885
4985.02	0.0581434
5022.5	0.0571834
5059.98	0.0560144
5097.46	0.0546433
5134.95	0.0530784
5172.43	0.0513284
5209.91	0.0494033
5247.39	0.0473132
5284.87	0.0450692
5322.35	0.0426825
5359.84	0.0401646
5397.32	0.0375274
5434.8	0.0347828
5472.28	0.0319427
5509.76	0.0290192
5547.24	0.0260241
5584.72	0.0229692
5622.21	0.0198663
5659.69	0.0167267
5697.17	0.0135616
5734.65	0.0103821
5772.13	0.00719897
5809.61	0.00402261
5847.1	0.000863193
5884.58	-0.00226941
5922.06	-0.00536566
5959.54	-0.00841638
5997.02	-0.0114127
6034.5	-0.0143462
6071.99	-0.0172087
6109.47	-0.0199926
6146.95	-0.0226905
6184.43	-0.0252956
6221.91	-0.0278013
6259.39	-0.0302017
6296.87	-0.032491
6334.36	-0.0346641
6371.84	-0.0367162
6409.32	-0.038643
6446.8	-0.0404404
6484.28	-0.0421052
6521.76	-0.0436341
6559.25	-0.0450247
6596.73	-0.0462748
6634.21	-0.0473826
6671.69	-0.0483469
6709.17	-0.0491669
6746.65	-0.0498424
6784.13	-0.0503734
6821.62	-0.0507605
6859.1	-0.0510048
6896.58	-0.051108
6934.06	-0.051072
6971.54	-0.0508994
7009.02	-0.0505933
7046.51	-0.050157
7083.99	-0.0495946
7121.47	-0.0489104
7158.95	-0.0481093
7196.43	-0.0471966
7233.91	-0.046178
7271.4	-0.0450594
7308.88	-0.0438472
7346.36	-0.0425482
7383.84	-0.0411692
7421.32	-0.0397174
7458.8	-0.0382001
7496.29	-0.0366248
7533.77	-0.0349991
7571.25	-0.0333305
7608.73	-0.0316267
7646.21	-0.0298952
7683.69	-0.0281435
7721.18	-0.0263789
7758.66	-0.0246084
7796.14	-0.0228391
7833.62	-0.0210776
7871.1	-0.0193303
7908.58	-0.0176033
7946.06	-0.0159022
7983.55	-0.0142327
8021.03	-0.0125995
8058.51	-0.0110076
8095.99	-0.00946102
8133.47	-0.00796384
8170.95	-0.00651956
8208.43	-0.00513132
8245.92	-0.00380192
8283.4	-0.00253379
8320.88	-0.001329
8358.36	-0.000189291
8395.84	0.000883929
8433.32	0.00188956
8470.8	0.0028268
8508.29	0.00369513
8545.77	0.0044943
8583.25	0.00522432
8620.73	0.00588542
8658.21	0.00647807
8695.69	0.00700296
8733.18	0.00746096
8770.66	0.00785313
8808.14	0.00818072
8845.62	0.00844513
8883.1	0.00864791
8920.58	0.00879077
8958.06	0.00887552
8995.55	0.00890411
9033.03	0.00887859
9070.51	0.00880111
9107.99	0.00867388
9145.47	0.00849922
9182.95	0.00827947
9220.43	0.00801703
9257.92	0.00771433
9295.4	0.00737381
9332.88	0.00699791
9370.36	0.00658906
9407.84	0.00614966
9445.32	0.00568207
9482.81	0.00518857
9520.29	0.00467139
9557.77	0.00413268
9595.25	0.00357447
9632.73	0.00299871
9670.21	0.00240722
9707.69	0.0018017
9745.18	0.00118371
9782.66	0.000554702
9820.14	-8.40196e-05
9857.62	-0.000731283
9895.1	-0.00138604
9932.58	-0.00204738
9970.07	-0.00271449
10007.5	-0.00338669
10045	-0.00406338
10082.5	-0.00474404
10120	-0.00542824
10157.5	-0.0061156
10195	-0.00680577
10232.4	-0.00749842
10269.9	-0.00819323
10307.4	-0.00888988
10344.9	-0.00958798
10382.4	-0.0102871
10419.8	-0.0109869
10457.3	-0.0116866
10494.8	-0.0123856
10532.3	-0.0130833
10569.8	-0.0137787
10607.3	-0.0144708
10644.7	-0.0151585
10682.2	-0.0158406
10719.7	-0.0165157
10757.2	-0.0171822
10794.7	-0.0178386
10832.1	-0.0184831
10869.6	-0.0191139
10907.1	-0.019729
10944.6	-0.0203266
10982.1	-0.0209044
11019.6	-0.0214604
11057	-0.0219926
11094.5	-0.0224988
11132	-0.022977
11169.5	-0.0234251
11207	-0.0238412
11244.4	-0.0242234
11281.9	-0.02457
11319.4	-0.0248794
11356.9	-0.0251501
11394.4	-0.0253809
11431.8	-0.0255706
11469.3	-0.0257183
11506.8	-0.0258234
11544.3	-0.0258854
11581.8	-0.0259041
11619.3	-0.0258793
11656.7	-0.0258114
11694.2	-0.0257008
11731.7	-0.0255482
11769.2	-0.0253544
11806.7	-0.0251206
11844.1	-0.024848
11881.6	-0.0245381
11919.1	-0.0241926
11956.6	-0.0238133
11994.1	-0.0234021
12031.6	-0.0229612
12069	-0.0224927
12106.5	-0.0219988
12144	-0.0214819
12181.5	-0.0209444
12219	-0.0203886
12256.4	-0.0198171
12293.9	-0.0192321
12331.4	-0.018636
12368.9	-0.0180313
12406.4	-0.0174202
12443.9	-0.0168048
12481.3	-0.0161874
12518.8	-0.01557
12556.3	-0.0149544
12593.8	-0.0143426
12631.3	-0.0137363
12668.7	-0.0131371
12706.2	-0.0125464
12743.7	-0.0119655
12781.2	-0.0113959
12818.7	-0.0108385
12856.2	-0.0102943
12893.6	-0.00976422
12931.1	-0.00924902
12968.6	-0.00874933
13006.1	-0.0082657
13043.6	-0.00779856
13081	-0.00734828
13118.5	-0.0069151
13156	-0.00649921
13193.5	-0.00610073
13231	-0.00571968
13268.4	-0.00535606
13305.9	-0.00500977
13343.4	-0.0046807
13380.9	-0.00436868
13418.4	-0.0040735
13455.9	-0.0037949
13493.3	-0.00353263
13530.8	-0.00328637
13568.3	-0.0030558
13605.8	-0.00284058
13643.3	-0.00264034
13680.7	-0.00245469
13718.2	-0.00228323
13755.7	-0.00212554
13793.2	-0.0019812
13830.7	-0.00184975
13868.2	-0.00173072
13905.6	-0.00162365
13943.1	-0.00152802
13980.6	-0.00144333
14018.1	-0.00136904
14055.6	-0.00130459
14093	-0.00124942
14130.5	-0.00120293
14168	-0.00116451
14205.5	-0.00113352
14243	-0.00110931
14280.5	-0.0010912
14317.9	-0.00107849
14355.4	-0.00107048
14392.9	-0.00106644
14430.4	-0.00106561
14467.9	-0.00106724
14505.3	-0.00107055
14542.8	-0.00107477
14580.3	-0.00107912
14617.8	-0.00108281
14655.3	-0.00108505
14692.8	-0.00108508
14730.2	-0.00108212
14767.7	-0.00107543
14805.2	-0.00106428
14842.7	-0.00104795
14880.2	-0.00102578
14917.6	-0.00099711
14955.1	-0.000961347
14992.6	-0.000917927
15030.1	-0.000866336
15067.6	-0.000806116
15105	-0.000736861
15142.5	-0.000658228
15180	-0.00056994
15217.5	-0.000471784
15255	-0.000363619
15292.5	-0.000245379
15329.9	-0.00011707
15367.4	2.12255e-05
15404.9	0.000169345
15442.4	0.000327051
15479.9	0.000494025
15517.3	0.000669876
15554.8	0.000854133
15592.3	0.00104625
15629.8	0.00124563
15667.3	0.00145156
15704.8	0.00166333
15742.2	0.0018801
15779.7	0.00210104
15817.2	0.00232521
15854.7	0.00255168
15892.2	0.00277945
15929.6	0.0030075
15967.1	0.00323479
16004.6	0.00346026
16042.1	0.00368284
16079.6	0.00390147
16117.1	0.00411511
16154.5	0.0043227
16192	0.00452325
16229.5	0.00471577
16267	0.00489934
16304.5	0.00507307
16341.9	0.00523615
16379.4	0.00538781
16416.9	0.00552736
16454.4	0.00565422
16491.9	0.00576785
16529.4	0.00586782
16566.8	0.0059538
16604.3	0.00602555
16641.8	0.00608291
16679.3	0.00612587
16716.8	0.00615446
16754.2	0.00616887
16791.7	0.00616935
16829.2	0.00615626
16866.7	0.00613007
16904.2	0.00609132
16941.6	0.00604065
16979.1	0.00597877
17016.6	0.00590648
17054.1	0.00582462
17091.6	0.00573411
17129.1	0.00563593
17166.5	0.00553107
17204	0.00542058
17241.5	0.00530551
17279	0.00518694
17316.5	0.00506594
17353.9	0.00494358
17391.4	0.00482091
17428.9	0.00469896
17466.4	0.00457871
17503.9	0.00446109
17541.4	0.00434701
17578.8	0.00423728
17616.3	0.00413266
17653.8	0.00403384
17691.3	0.00394143
17728.8	0.00385593
17766.2	0.0037778
17803.7	0.00370737
17841.2	0.00364489
17878.7	0.00359053
17916.2	0.00354435
17953.7	0.00350632
17991.1	0.00347635
18028.6	0.00345423
18066.1	0.00343969
18103.6	0.00343237
18141.1	0.00343185
18178.5	0.00343764
18216	0.00344919
18253.5	0.00346591
18291	0.00348715
18328.5	0.00351224
18366	0.00354046
18403.4	0.0035711
18440.9	0.00360341
18478.4	0.00363665
18515.9	0.00367009
18553.4	0.00370299
18590.8	0.00373466
18628.3	0.00376441
18665.8	0.00379158
18703.3	0.00381558
18740.8	0.00383582
18778.2	0.0038518
18815.7	0.00386304
18853.2	0.00386913
18890.7	0.00386973
18928.2	0.00386453
18965.7	0.0038533
19003.1	0.00383589
19040.6	0.00381219
19078.1	0.00378215
19115.6	0.0037458
19153.1	0.00370323
19190.5	0.00365455
19228	0.00359998
19265.5	0.00353976
19303	0.00347418
19340.5	0.00340357
19378	0.00332833
19415.4	0.00324885
19452.9	0.0031656
19490.4	0.00307903
19527.9	0.00298965
19565.4	0.00289797
19602.8	0.00280451
19640.3	0.00270979
19677.8	0.00261436
19715.3	0.00251874
19752.8	0.00242346
19790.3	0.00232904
19827.7	0.00223597
19865.2	0.00214474
19902.7	0.0020558
19940.2	0.0019696
19977.7	0.00188654
