CPUS: 0 1 2 3 4 5 6 7 8 9 10 11

Threads	ProblemDepth	MTPS	SPEEDUP_PER
1	8	3.15604	1.0000
4	8	11.8259	.9367
6	8	16.8669	.8907
8	8	20.1589	.7984
12	8	25.6454	.6771

Threads	ProblemDepth	MTPS	SPEEDUP_PER
1	10	3.06464	1.0000
4	10	11.5635	.9433
6	10	16.9641	.9226
8	10	21.1843	.8640
12	10	29.4225	.8000

Threads	ProblemDepth	MTPS	SPEEDUP_PER
1	12	2.96947	1.0000
4	12	11.2359	.9459
6	12	16.4577	.9237
8	12	20.7302	.8726
12	12	28.6091	.8028

Threads	ProblemDepth	MTPS	SPEEDUP_PER
1	14	2.92409	1.0000
4	14	10.9906	.9396
6	14	15.981	.9109
8	14	20.0931	.8589
12	14	27.1802	.7746

Threads	ProblemDepth	MTPS	SPEEDUP_PER
1	16	2.87632	1.0000
4	16	10.7812	.9370
6	16	15.6377	.9061
8	16	19.7492	.8582
12	16	26.4582	.7665
