0	0
10.2675	0
20.535	0
30.8024	0
40.3733	0
50.6405	0
60.9255	0
71.1926	0
80.1763	0
90.4432	0
100.71	0
110.968	0
121.088	0
131.16	0
141.224	0
150.03	0
160.095	5.45697e-12
170.159	1.27329e-11
180.223	2.00089e-11
190.287	2.72848e-11
200.351	3.45608e-11
210.414	4.72937e-11
220.478	6.18456e-11
230.542	7.63976e-11
240.606	9.82254e-11
250.67	1.20053e-10
260.733	1.48248e-10
270.797	1.78261e-10
280.861	2.14641e-10
290.924	2.56478e-10
300.988	3.03771e-10
311.051	3.58341e-10
321.115	4.20187e-10
331.178	4.90218e-10
341.222	5.70253e-10
351.214	6.60293e-10
361.165	7.61247e-10
371.086	8.75843e-10
380.996	1.0059e-09
390.849	1.15233e-09
400.62	1.31695e-09
410.346	1.50249e-09
420.064	1.71349e-09
430.999	1.98543e-09
440.719	2.26009e-09
450.439	2.57296e-09
460.154	2.92766e-09
471.044	3.3815e-09
480.649	3.84262e-09
490.245	4.36285e-09
501.039	5.02314e-09
510.632	5.68434e-09
520.213	6.41558e-09
530.984	7.32871e-09
540.551	8.22365e-09
550.113	9.19954e-09
560.87	1.03992e-08
570.432	1.15597e-08
581.189	1.29785e-08
590.75	1.43446e-08
600.312	1.58107e-08
611.069	1.75824e-08
620.63	1.9264e-08
630.192	2.10448e-08
640.949	2.31603e-08
650.51	2.51357e-08
660.072	2.71939e-08
670.826	2.96004e-08
680.367	3.18087e-08
691.087	3.43653e-08
700.613	3.66963e-08
710.14	3.90764e-08
720.857	4.1804e-08
730.383	4.4266e-08
741.1	4.707e-08
750.626	4.95884e-08
760.152	5.21268e-08
770.869	5.50008e-08
780.395	5.7571e-08
791.112	6.04787e-08
800.638	6.30789e-08
810.164	6.56973e-08
820.88	6.86696e-08
830.406	7.13444e-08
841.123	7.44012e-08
850.649	7.7177e-08
860.174	8.00201e-08
870.891	8.33252e-08
880.417	8.63838e-08
891.133	8.99945e-08
900.659	9.33906e-08
910.185	9.69994e-08
920.901	1.0136e-07
930.427	1.05559e-07
941.143	1.10709e-07
950.669	1.1573e-07
960.194	1.21229e-07
970.911	1.28071e-07
980.436	1.34814e-07
991.152	1.43242e-07
1000.68	1.51571e-07
1010.2	1.60779e-07
1020.92	1.72298e-07
1030.45	1.8368e-07
1041.16	1.97903e-07
1050.69	2.1193e-07
1060.21	2.27383e-07
1070.93	2.46632e-07
1080.45	2.65553e-07
1091.17	2.89067e-07
1100.7	3.12124e-07
1110.22	3.37383e-07
1120.94	3.6866e-07
1130.46	3.99215e-07
1141.18	4.36954e-07
1150.7	4.7373e-07
1160.23	5.1379e-07
1170.95	5.63087e-07
1180.47	6.10954e-07
1191.19	6.69716e-07
1200.71	7.26635e-07
1210.24	7.88288e-07
1220.95	8.63708e-07
1230.48	9.36513e-07
1240	1.01512e-06
1250.72	1.11097e-06
1260.24	1.20309e-06
1270.92	1.31494e-06
1280.41	1.42251e-06
1291.08	1.55378e-06
1300.56	1.67982e-06
1310.04	1.8149e-06
1320.71	1.97788e-06
1330.18	2.13257e-06
1340.83	2.31756e-06
1350.3	2.49228e-06
1360.96	2.70025e-06
1370.44	2.89533e-06
1381.1	3.12646e-06
1390.57	3.34247e-06
1400.04	3.56856e-06
1410.69	3.83537e-06
1420.16	4.08389e-06
1430.82	4.37684e-06
1440.28	4.6492e-06
1450.88	4.96854e-06
1460.28	5.26515e-06
1470.86	5.61445e-06
1480.26	5.93955e-06
1490.84	6.32264e-06
1500.24	6.67947e-06
1510.82	7.10034e-06
1520.23	7.49274e-06
1530.81	7.95606e-06
1540.21	8.3885e-06
1550.75	8.89757e-06
1560.05	9.36964e-06
1570.49	9.927e-06
1580.94	1.05148e-05
1590.23	1.10643e-05
1600.68	1.17148e-05
1611.12	1.24013e-05
1620.41	1.30437e-05
1630.86	1.38044e-05
1640.15	1.45164e-05
1650.59	1.53597e-05
1661.04	1.625e-05
1670.33	1.70824e-05
1680.78	1.80667e-05
1690.06	1.89852e-05
1700.51	2.00687e-05
1710.96	2.12066e-05
1720.25	2.22647e-05
1730.69	2.35085e-05
1741.14	2.48099e-05
1750.43	2.6016e-05
1760.88	2.74294e-05
1770.16	2.8737e-05
1780.61	3.02668e-05
1791.06	3.18601e-05
1800.34	3.3331e-05
1810.79	3.50486e-05
1820.08	3.66326e-05
1830.53	3.84807e-05
1840.97	4.04008e-05
1850.26	4.21696e-05
1860.71	4.42317e-05
1871.16	4.63725e-05
1880.44	4.83438e-05
1890.89	5.06411e-05
1900.18	5.27562e-05
1910.62	5.52207e-05
1921.07	5.77786e-05
1930.36	6.01335e-05
1940.81	6.28774e-05
1950.09	6.54035e-05
1960.54	6.8347e-05
1970.99	7.14021e-05
1980.27	7.42149e-05
1990.72	7.74926e-05
2000.01	8.05105e-05
2010.46	8.40277e-05
2020.9	8.27901e-05
2030.19	8.14075e-05
2040.64	8.01344e-05
2051.08	7.91398e-05
2060.37	7.84736e-05
2070.82	7.7953e-05
2080.1	7.7681e-05
2090.55	7.75759e-05
2101	7.76707e-05
2110.28	7.7913e-05
2120.73	7.83538e-05
2130.02	7.88879e-05
2140.46	7.96414e-05
2150.91	8.05499e-05
2160.2	8.14828e-05
2170.65	8.26689e-05
2181.09	8.39957e-05
2190.38	8.52909e-05
2200.83	8.68761e-05
2210.11	8.83981e-05
2220.56	9.02366e-05
2231.01	9.22088e-05
2240.29	9.40746e-05
2250.74	9.63017e-05
2260.02	9.83966e-05
2270.47	0.000100885
2280.92	0.000103515
2290.2	0.000105975
2300.65	0.000108884
2311.1	0.000111944
2320.38	0.000114796
2330.83	0.000118157
2340.12	0.000121284
2350.56	0.000124964
2361.01	0.000128819
2370.3	0.0001324
2380.74	0.000136605
2390.03	0.000140506
2400.48	0.000145084
2410.92	0.000149847
2420.21	0.000154225
2430.66	0.000159301
2441.1	0.000164527
2450.39	0.000169294
2460.84	0.000174791
2470.12	0.000179795
2480.57	0.000185558
2491.02	0.000191462
2500.3	0.000196833
2510.75	0.000203016
2520.04	0.000208644
2530.48	0.000215128
2540.93	0.000221784
2550.22	0.00022785
2560.66	0.000234855
2571.11	0.00024206
2580.4	0.000248642
2590.84	0.000256261
2600.13	0.000263233
2610.57	0.00027131
2620.98	0.000279628
2630.26	0.000287278
2640.71	0.000296167
2651.16	0.000305364
2660.44	0.000313809
2670.89	0.000323626
2680.17	0.000332644
2690.62	0.000343129
2701.07	0.000353989
2710.35	0.000363967
2720.8	0.000375572
2730.08	0.000386238
2740.53	0.000398644
2750.97	0.000411499
2760.26	0.000423317
2770.71	0.000448542
2781.15	0.000483022
2790.44	0.000513514
2800.88	0.000547547
2810.17	0.000577521
2820.61	0.000610919
2831.06	0.000643994
2840.35	0.000673161
2850.79	0.000705774
2860.08	0.00073465
2870.52	0.000767094
2880.97	0.000799596
2890.25	0.000828627
2900.7	0.000861549
2911.15	0.000894866
2920.43	0.000924908
2930.88	0.000959295
2940.16	0.000990476
2950.61	0.00102635
2961.05	0.00106318
2970.34	0.00109678
2980.78	0.00113543
2990.07	0.0011704
3000.52	0.00121034
3010.96	0.00125088
3020.25	0.00128743
3030.69	0.00132916
3041.14	0.00137162
3050.42	0.00141007
3060.87	0.00145424
3070.15	0.00149445
3080.6	0.00154091
3091.04	0.00158883
3100.33	0.00163281
3110.77	0.00168398
3120.06	0.00173109
3130.51	0.00178608
3140.95	0.00184333
3150.24	0.00189627
3160.68	0.00203236
3171.13	0.00216045
3180.41	0.0022681
3190.86	0.00238354
3200.14	0.00248252
3210.59	0.0025916
3221.03	0.00270017
3230.32	0.00279775
3240.76	0.00291032
3250.05	0.00301403
3260.49	0.00313509
3270.94	0.0032597
3280.22	0.00337322
3290.67	0.0035045
3301.11	0.00364058
3310.4	0.00376678
3320.84	0.00391615
3330.13	0.0040567
3340.57	0.00422477
3351.02	0.00456161
3360.3	0.00485036
3370.75	0.0051658
3380.03	0.00544646
3390.48	0.00577324
3400.92	0.0061185
3410.21	0.00643506
3420.65	0.00680249
3431.1	0.00719237
3440.38	0.00765927
3450.83	0.00840911
3460.11	0.00901339
3470.56	0.0097373
3481	0.0105195
3490.29	0.0116857
3500.73	0.0131336
3510.01	0.0150124
3520.46	0.0190215
3530.91	0.0266304
3540.19	0.032513
3550.64	0.0391286
3561.08	0.0448873
3570.37	0.0496992
3580.81	0.0546074
3590.1	0.0585702
3600.54	0.0634253
3610.99	0.0684797
3620.27	0.0731391
3630.72	0.0782967
3640	0.082901
3650.45	0.0882506
3660.89	0.0937337
3670.18	0.0985762
3680.62	0.10395
3691.07	0.109398
3700.35	0.114318
3710.8	0.119766
3720.08	0.124399
3730.53	0.129426
3740.98	0.134367
3750.26	0.138715
3760.71	0.14352
3771.15	0.148236
3780.44	0.152441
3790.89	0.157273
3800.17	0.161644
3810.63	0.166579
3821.11	0.171497
3830.42	0.175876
3840.9	0.18084
3850.21	0.18528
3860.69	0.190305
3871.16	0.195394
3880.47	0.19999
3890.95	0.205221
3900.26	0.209894
3910.74	0.215173
3920.05	0.219904
3930.53	0.225291
3941.02	0.230764
3950.34	0.235719
3960.82	0.241433
3970.14	0.246656
3980.63	0.252681
3991.11	0.25883
4000.43	0.264385
4010.92	0.270744
4020.24	0.276505
4030.72	0.283105
4040.04	0.289068
4050.53	0.295883
4061.01	0.302811
4070.33	0.309067
4080.83	0.316225
4090.15	0.322718
4100.65	0.330219
4111.16	0.337999
4120.53	0.345236
4131.09	0.353787
4140.48	0.361822
4151.06	0.371438
4160.46	0.380575
4171.08	0.391657
4180.54	0.402335
4190	0.413892
4200.65	0.428088
4210.12	0.441909
4220.76	0.458973
4230.23	0.475625
4240.88	0.496181
4250.34	0.516194
4260.99	0.540806
4270.45	0.564665
4281.1	0.593868
4290.57	0.622023
4300.03	0.652312
4310.68	0.688969
4320.15	0.723824
4330.79	0.765494
4340.26	0.804568
4350.91	0.850559
4360.37	0.892971
4371.02	0.942011
4380.48	0.986393
4391.13	1.03669
4400.6	1.08121
4410.06	1.12502
4420.71	1.17276
4430.18	1.21317
4440.82	1.25551
4450.29	1.28966
4460.94	1.3233
4470.4	1.34819
4481.05	1.36966
4490.52	1.38217
4501.16	1.38787
4510.63	1.38468
4520.1	1.37288
4530.74	1.34832
4540.21	1.31558
4550.86	1.26547
4560.32	1.20835
4570.97	1.12916
4580.44	1.04497
4591.08	0.934247
4600.55	0.821161
4610.02	0.693558
4620.66	0.530867
4630.13	0.366266
4640.78	0.152644
4650.24	-0.0529243
4660.89	-0.149696
4670.39	-0.211565
4681.1	-0.258071
4690.62	-0.271928
4700.14	-0.299961
4710.86	-0.321905
4720.38	-0.337524
4731.1	-0.353194
4740.62	-0.360979
4750.15	-0.373326
4760.87	-0.384138
4770.39	-0.392042
4781.11	-0.39934
4790.64	-0.404903
4800.16	-0.410351
4810.88	-0.416121
4820.4	-0.420813
4831.12	-0.411795
4840.65	-0.411785
4850.17	-0.417372
4860.89	-0.422605
4870.42	-0.426448
4881.13	-0.430023
4890.66	-0.432677
4900.18	-0.434957
4910.9	-0.437205
4920.43	-0.438748
4931.14	-0.440075
4940.67	-0.441314
4950.19	-0.44247
4960.91	-0.443756
4970.44	-0.44486
4981.15	-0.446031
4990.67	-0.446989
5000.16	-0.447855
5010.84	-0.44866
5020.32	-0.439763
5030.99	-0.440799
5040.47	-0.44203
5051.13	-0.44359
5060.61	-0.444796
5070.09	-0.445832
5080.75	-0.446768
5090.22	-0.447399
5100.86	-0.447913
5110.34	-0.448219
5121	-0.448408
5130.47	-0.448454
5141.13	-0.448382
5150.61	-0.448218
5160.08	-0.447969
5170.73	-0.447597
5180.2	-0.44719
5190.85	-0.446651
5200.32	-0.446105
5210.93	-0.44547
5220.33	-0.444849
5230.91	-0.444088
5240.31	-0.443363
5250.89	-0.442437
5260.29	-0.441258
5270.87	-0.439906
5280.28	-0.438677
5290.86	-0.43726
5300.25	-0.435969
5310.73	-0.434489
5320.01	-0.43314
5330.46	-0.431577
5340.91	-0.429964
5350.2	-0.428488
5360.65	-0.42678
5371.09	-0.425017
5380.38	-0.423384
5390.83	-0.421481
5400.12	-0.419741
5410.56	-0.405655
5421.01	-0.404458
5430.3	-0.403378
5440.75	-0.40215
5450.03	-0.401055
5460.48	-0.399824
5470.93	-0.398598
5480.22	-0.397516
5490.66	-0.396311
5501.11	-0.395127
5510.4	-0.394095
5520.85	-0.39296
5530.13	-0.391977
5540.58	-0.390903
5551.03	-0.389862
5560.32	-0.388967
5570.77	-0.387993
5580.05	-0.387157
5590.5	-0.386248
5600.95	-0.385372
5610.24	-0.384617
5620.68	-0.383791
5631.13	-0.382985
5640.42	-0.382279
5650.87	-0.381491
5660.15	-0.38079
5670.6	-0.379998
5681.05	-0.379193
5690.34	-0.378463
5700.78	-0.377621
5710.07	-0.376848
5720.52	-0.375947
5730.97	-0.375008
5740.25	-0.374138
5750.7	-0.373115
5761.15	-0.372099
5770.44	-0.371307
5780.88	-0.370321
5790.17	-0.369362
5800.62	-0.368342
5811.07	-0.368373
5820.35	-0.368245
5830.8	-0.367641
5840.09	-0.366848
5850.54	-0.36583
5860.98	-0.364687
5870.27	-0.363572
5880.72	-0.362212
5890	-0.360912
5900.45	-0.35935
5910.9	-0.357687
5920.19	-0.356124
5930.63	-0.354274
5941.08	-0.352328
5950.37	-0.350519
5960.82	-0.348396
5970.1	-0.346432
5980.55	-0.344138
5991	-0.341757
6000.29	-0.339568
6010.73	-0.337029
6020.02	-0.334714
6030.47	-0.332055
6040.92	-0.329345
6050.2	-0.3269
6060.65	-0.324111
6071.1	-0.321286
6080.38	-0.318745
6090.83	-0.315854
6100.12	-0.313256
6110.57	-0.3103
6121.01	-0.307309
6130.3	-0.304618
6140.75	-0.301551
6150.04	-0.298778
6160.48	-0.295608
6170.93	-0.292388
6180.22	-0.289487
6190.67	-0.286181
6201.11	-0.28267
6210.4	-0.278328
6220.85	-0.273413
6230.13	-0.269066
6240.58	-0.264231
6251.03	-0.259463
6260.32	-0.255273
6270.76	-0.250601
6280.05	-0.246469
6290.5	-0.241823
6300.95	-0.23716
6310.23	-0.232988
6320.68	-0.228283
6331.13	-0.223591
6340.42	-0.219439
6350.86	-0.214778
6360.15	-0.210627
6370.6	-0.205924
6381.05	-0.201157
6390.33	-0.196848
6400.78	-0.190048
6410.07	-0.182266
6420.51	-0.174047
6430.96	-0.166232
6440.25	-0.159457
6450.7	-0.151869
6461.14	-0.144265
6470.43	-0.137595
6480.87	-0.130166
6490.12	-0.123534
6500.56	-0.112935
6511.01	-0.101564
6520.29	-0.0921388
6530.74	-0.0812815
6540.02	-0.0714062
6550.47	-0.0550143
6560.91	-0.0376975
6570.2	-0.0165145
6580.65	0.0210651
6591.09	0.0705681
6600.38	0.0969089
6610.82	0.119913
6620.11	0.129604
6630.56	0.135674
6641	0.134388
6650.29	0.129914
6660.73	0.128361
6670.02	0.128237
6680.46	0.128926
6690.91	0.127718
6700.2	0.126044
6710.64	0.125175
6721.09	0.125391
6730.37	0.125371
6740.82	0.124639
6750.1	0.124926
6760.55	0.127207
6771	0.13024
6780.28	0.131802
6790.73	0.132292
6800.01	0.132721
6810.46	0.133807
6820.91	0.134989
6830.19	0.135389
6840.64	0.135305
6851.08	0.135636
6860.37	0.13653
6870.81	0.137443
6880.1	0.137454
6890.55	0.136513
6900.99	0.135147
6910.28	0.133939
6920.72	0.132604
6930.01	0.131474
6940.45	0.130481
6950.9	0.129739
6960.18	0.128866
6970.63	0.127151
6981.08	0.124581
6990.36	0.121786
7000.81	0.118304
7010.09	0.115057
7020.54	0.111537
7030.98	0.108608
7040.27	0.106674
7050.72	0.104969
7060	0.103436
7070.45	0.101428
7080.89	0.0992783
7090.18	0.0975181
7100.62	0.09588
7111.07	0.0946393
7120.36	0.093891
7130.8	0.0934563
7140.09	0.0933287
7150.53	0.0932246
7160.98	0.0929279
7170.26	0.0924562
7180.71	0.0917893
7191.15	0.0911092
7200.44	0.0905687
7210.89	0.0900909
7220.17	0.0898191
7230.62	0.0896933
7241.06	0.0897297
7250.35	0.0898834
7260.79	0.0902199
7270.08	0.0907025
7280.52	0.0914647
7290.97	0.0924193
7300.26	0.0933635
7310.7	0.0944246
7321.15	0.0953288
7330.43	0.0958628
7340.88	0.096067
7350.16	0.0959132
7360.61	0.095483
7371.06	0.094943
7380.34	0.0944788
7390.79	0.0940322
7400.07	0.0936947
7410.52	0.0933163
7420.96	0.0928448
7430.25	0.0922999
7440.69	0.091586
7451.14	0.0909222
7460.43	0.0905583
7470.87	0.0905896
7480.16	0.0910852
7490.6	0.0921162
7501.05	0.0934444
7510.33	0.0946352
7520.78	0.0957368
7530.07	0.0963839
7540.51	0.0967464
7550.96	0.09687
7560.24	0.0969637
7570.69	0.0972555
7581.13	0.0978925
7590.42	0.0987848
7600.87	0.100094
7610.15	0.101425
7620.6	0.102989
7631.04	0.104557
7640.33	0.105968
7650.78	0.107645
7660.06	0.109282
7670.51	0.111323
7680.99	0.113544
7690.3	0.115578
7700.78	0.117787
7710.09	0.119559
7720.57	0.121227
7731.04	0.122512
7740.36	0.123365
7750.83	0.124097
7760.14	0.124657
7770.62	0.12531
7781.1	0.126084
7790.41	0.126913
7800.89	0.128016
7810.2	0.129138
7820.67	0.130549
7831.15	0.132113
7840.46	0.133635
7850.94	0.135498
7860.25	0.13728
7870.73	0.139403
7880.04	0.141361
7890.52	0.143601
7900.99	0.14584
7910.31	0.147814
7920.78	0.15002
7930.1	0.15198
7940.59	0.154195
7951.07	0.156415
7960.39	0.158374
7970.88	0.160526
7980.2	0.162356
7990.68	0.164289
8000	0.16587
8010.49	0.167475
8020.97	0.16887
8030.29	0.169903
8040.78	0.170779
8050.1	0.171242
8060.58	0.171323
8071.07	0.170857
8080.39	0.169931
8090.88	0.168286
8100.2	0.166293
8110.68	0.163485
8120	0.160528
8130.49	0.15673
8140.97	0.152481
8150.29	0.148355
8160.78	0.143348
8170.1	0.1386
8180.59	0.132965
8191.07	0.127076
8200.39	0.121693
8210.88	0.115546
8220.2	0.110067
8230.68	0.10395
8240	0.0985966
8250.49	0.0927022
8260.98	0.0869649
8270.31	0.0820119
8280.8	0.0766259
8290.17	0.0720095
8300.72	0.0670467
8310.12	0.062868
8320.7	0.0584614
8330.14	0.0548129
8340.79	0.0510237
8350.25	0.0479486
8360.9	0.0448132
8370.37	0.0423054
8381.02	0.0397835
8390.48	0.0377901
8401.13	0.035797
8410.59	0.0342116
8420.06	0.0327604
8430.71	0.0312335
8440.17	0.0299237
8450.82	0.0284599
8460.29	0.0271448
8470.94	0.0256423
8480.4	0.0242926
8491.05	0.0227732
8500.52	0.0214327
8511.16	0.0199407
8520.63	0.0186232
8530.1	0.0172771
8540.74	0.015501
8550.21	0.0133144
8560.86	0.00971522
8570.32	0.00687649
8580.97	0.00576273
8590.44	0.00149857
8601.09	6.11466e-06
8610.55	-0.00371507
8620.02	-0.00807566
8630.66	-0.0126785
8640.11	-0.016329
8650.76	-0.0160379
8660.23	-0.0198609
8670.87	-0.0237393
8680.34	-0.0270758
8690.99	-0.0307537
8700.45	-0.0339062
8711.1	-0.037289
8720.57	-0.0401641
8730.03	-0.0455085
8740.68	-0.0490517
8750.15	-0.0517414
8760.8	-0.0543875
8770.26	-0.0564667
8780.91	-0.0585702
8790.37	-0.0602483
8801.02	-0.0620281
8810.49	-0.0635767
8821.13	-0.0652985
8830.6	-0.0667546
8840.06	-0.0681469
8850.71	-0.0696249
8860.18	-0.0708469
8870.8	-0.0700319
8880.22	-0.0709762
8890.8	-0.0719458
8900.2	-0.0727218
8910.78	-0.0735068
8920.18	-0.0741262
8930.76	-0.0747092
8940.17	-0.0751393
8950.75	-0.0755385
8960.15	-0.0758319
8970.72	-0.0761074
8980.08	-0.0764667
8990.54	-0.0767931
9000.99	-0.0769572
9010.27	-0.0771083
9020.72	-0.077287
9030.01	-0.0774553
9040.46	-0.0776561
9050.91	-0.0778695
9060.19	-0.0780697
9070.64	-0.0783066
9081.09	-0.0785552
9090.38	-0.0787853
9100.82	-0.0790539
9110.11	-0.0793005
9120.56	-0.0766646
9131.01	-0.0770833
9140.29	-0.0778488
9150.74	-0.0786782
9160.03	-0.0793798
9170.48	-0.0801306
9180.92	-0.0808419
9190.21	-0.0814422
9200.66	-0.0820828
9211.11	-0.082688
9220.39	-0.0831973
9230.84	-0.0837391
9240.13	-0.0841943
9250.58	-0.0846777
9261.03	-0.0851304
9270.31	-0.0855026
9280.76	-0.0858893
9290.05	-0.0862067
9300.5	-0.0865366
9310.94	-0.0868411
9320.23	-0.0870925
9330.68	-0.0873558
9341.13	-0.0875999
9350.41	-0.0878022
9360.86	-0.088014
9370.15	-0.0881891
9380.6	-0.088372
9391.04	-0.0885393
9400.33	-0.0886745
9410.78	-0.0888119
9420.07	-0.0889216
9430.51	-0.0890312
9440.96	-0.0891268
9450.25	-0.0892003
9460.7	-0.0893427
9471.14	-0.0895494
9480.43	-0.0897086
9490.88	-0.0898617
9500.17	-0.0899761
9510.61	-0.0900818
9521.06	-0.0900472
9530.35	-0.0900068
9540.8	-0.0899505
9550.08	-0.089891
9560.53	-0.0898133
9570.98	-0.0897243
9580.27	-0.0896356
9590.72	-0.089525
9600	-0.0894171
9610.45	-0.0892848
9620.9	-0.0891409
9630.18	-0.0890029
9640.63	-0.0888356
9651.08	-0.0886552
9660.37	-0.0884835
9670.82	-0.0882772
9680.1	-0.088082
9690.55	-0.087849
9701	-0.0876017
9710.29	-0.0873699
9720.73	-0.0870957
9730.02	-0.0868401
9740.47	-0.0865394
9750.92	-0.0862249
9760.2	-0.0859339
9770.65	-0.085594
9781.1	-0.0852411
9790.39	-0.0849167
9800.83	-0.0845401
9810.12	-0.0841951
9820.57	-0.0837963
9831.02	-0.0833866
9840.3	-0.0830136
9850.75	-0.0825796
9860.04	-0.0822476
9870.49	-0.0818683
9880.93	-0.081483
9890.22	-0.0811354
9900.67	-0.0807387
9911.12	-0.0803358
9920.4	-0.0799727
9930.85	-0.0795587
9940.14	-0.0791858
9950.59	-0.0787583
9961.03	-0.0783222
9970.32	-0.0779276
9980.77	-0.0774762
9990.06	-0.0770686
10000.5	-0.0766032
10011	-0.0761306
10020.2	-0.0757049
10030.7	-0.0752197
10041.1	-0.074728
10050.4	-0.0742858
10060.9	-0.0737824
10070.2	-0.07333
10080.6	-0.0727689
10091.1	-0.0721136
10100.3	-0.0715335
10110.8	-0.0708834
10120.1	-0.0703074
10130.5	-0.0696608
10141	-0.0690154
10150.3	-0.0684424
10160.7	-0.0677982
10171.2	-0.0671543
10180.4	-0.0665821
10190.9	-0.0659384
10200.2	-0.0653661
10210.6	-0.0647222
10221	-0.0640804
10230.3	-0.0635078
10240.8	-0.0628634
10250	-0.0622904
10260.5	-0.0616457
10270.9	-0.0610005
10280.2	-0.0604268
10290.7	-0.059781
10301.1	-0.0591349
10310.4	-0.0585602
10320.8	-0.0579134
10330.1	-0.0573382
10340.6	-0.0566907
10351	-0.056043
10360.3	-0.0554673
10370.8	-0.0548198
10380	-0.0542446
10390.5	-0.0535979
10400.9	-0.052952
10410.2	-0.0523785
10420.7	-0.0517343
10431.1	-0.0510912
10440.4	-0.0505206
10450.8	-0.0498801
10460.1	-0.0493119
10470.6	-0.0486743
10481	-0.0480384
10490.3	-0.0474747
10500.8	-0.0468423
10510	-0.0462819
10520.5	-0.0456534
10530.9	-0.0450272
10540.2	-0.0444727
10550.7	-0.0438513
10561.1	-0.0432328
10570.4	-0.0426858
10580.8	-0.0420739
10590.1	-0.0415143
10600.6	-0.0408308
10611	-0.0401592
10620.3	-0.0395716
10630.7	-0.0389208
10640	-0.0383525
10650.5	-0.0377253
10660.9	-0.0371102
10670.2	-0.036573
10680.7	-0.0359788
10691.1	-0.0353944
10700.4	-0.0348829
10710.8	-0.0343156
10720.1	-0.0338182
10730.6	-0.0332659
10741	-0.0327207
10750.3	-0.0322418
10760.7	-0.0317089
10770	-0.0311899
10780.5	-0.0306003
10790.9	-0.0300413
10800.2	-0.0295665
10810.7	-0.0290534
10821.1	-0.0285596
10830.4	-0.0281342
10840.8	-0.0276699
10850.1	-0.0272712
10860.6	-0.0268372
10871	-0.0264171
10880.3	-0.026054
10890.7	-0.0256555
10900	-0.0253088
10910.5	-0.0249255
10920.9	-0.0245481
10930.2	-0.0242162
10940.6	-0.0238457
10951.1	-0.0234772
10960.4	-0.0231502
10970.8	-0.0227822
10980.1	-0.0224545
10990.6	-0.022085
11001	-0.0217142
11010.3	-0.021383
11020.7	-0.0210083
11030	-0.0206728
11040.5	-0.0202922
11050.9	-0.0199077
11060.2	-0.0195622
11070.6	-0.0191694
11081.1	-0.0187724
11090.4	-0.0184206
11100.8	-0.0180312
11110.1	-0.0176885
11120.6	-0.0173044
11131	-0.0169196
11140.3	-0.0165754
11150.7	-0.0161841
11160	-0.0158316
11170.5	-0.0153329
11180.9	-0.0147205
11190.2	-0.0141509
11200.6	-0.0134938
11211.1	-0.0128276
11220.4	-0.0122321
11230.8	-0.0115613
11240.1	-0.0109653
11250.5	-0.010297
11261	-0.00963359
11270.3	-0.00904821
11280.7	-0.00839344
11290	-0.00781244
11300.5	-0.00715152
11310.9	-0.00648171
11320.2	-0.00588043
11330.6	-0.00520026
11341.1	-0.00451742
11350.4	-0.00390853
11360.8	-0.00271223
11370.1	-0.00112986
11380.5	0.000520885
11391	0.00201041
11400.3	0.00319923
11410.7	0.0043939
11420	0.00535667
11430.5	0.0063705
11440.9	0.00731153
11450.2	0.00841889
11460.6	0.00957964
11471.1	0.0105592
11480.4	0.0113407
11490.8	0.0121819
11500.1	0.0128643
11510.5	0.0141984
11521	0.0155623
11530.3	0.0181251
11540.7	0.0227443
11550	0.0261539
11560.4	0.030544
11570.9	0.0354079
11580.2	0.0398797
11590.6	0.0456145
11601.1	0.0515968
11610.4	0.057327
11620.8	0.0642693
11630.1	0.0705944
11640.5	0.0776644
11651	0.0848624
11660.3	0.0911695
11670.7	0.0979321
11681.2	0.104219
11690.4	0.109333
11700.9	0.11448
11710.2	0.118354
11720.6	0.121765
11731.1	0.12427
11740.4	0.125932
11750.8	0.127372
11760.1	0.12838
11770.5	0.129276
11781	0.130005
11790.3	0.130585
11800.8	0.131185
11810.1	0.131663
11820.6	0.132148
11831.1	0.132613
11840.4	0.133053
11850.8	0.133618
11860.2	0.134203
11870.6	0.134941
11881.1	0.135713
11890.4	0.136375
11900.9	0.13707
11910.2	0.137647
11920.7	0.138244
11930	0.138709
11940.5	0.139137
11951	0.139464
11960.3	0.139675
11970.8	0.139823
11980.1	0.139876
11990.6	0.139875
