0	0
11.3415	0
22.6829	0
34.0241	0
45.3653	0
51.0358	0
62.3768	0
73.7176	0
85.0584	0
90.7288	0
102.069	0
113.362	0
124.703	0
130.27	0
141.508	0
152.849	0
164.19	0
175.314	0
180.877	0
192.002	0
203.126	0
214.251	-1.81899e-12
225.375	-3.63798e-12
230.938	-4.54747e-12
242.062	-4.54747e-12
253.187	-4.54747e-12
264.311	-4.54747e-12
275.435	-4.54747e-12
280.998	-3.63798e-12
292.122	-1.81899e-12
303.246	2.72848e-12
314.329	9.09495e-12
325.413	1.90994e-11
330.954	2.63753e-11
342.038	4.45652e-11
353.121	7.00311e-11
364.204	1.03682e-10
375.233	1.48248e-10
380.72	1.74623e-10
391.655	2.38288e-10
402.63	3.19233e-10
413.604	4.19277e-10
424.579	5.42059e-10
430.026	6.12999e-10
440.854	7.74889e-10
451.683	9.68612e-10
462.511	1.19962e-09
473.284	1.47156e-09
484.002	1.78807e-09
494.719	2.15823e-09
505.276	2.58115e-09
510.56	2.81671e-09
521.127	3.34057e-09
531.694	3.94084e-09
542.252	4.6266e-09
552.809	5.40967e-09
563.347	6.29825e-09
573.885	7.30506e-09
584.424	8.44375e-09
594.962	9.72977e-09
600.231	1.04328e-08
610.769	1.19717e-08
621.307	1.37015e-08
631.846	1.56415e-08
642.384	1.78079e-08
652.922	2.02135e-08
663.46	2.28692e-08
673.983	2.57796e-08
684.507	2.89583e-08
695.03	3.24162e-08
700.292	3.42525e-08
710.815	3.8146e-08
721.338	4.23352e-08
731.875	4.68281e-08
742.413	5.16166e-08
752.95	5.66943e-08
763.487	6.20557e-08
774.024	6.76937e-08
784.561	7.35999e-08
795.099	7.97654e-08
800.367	8.29432e-08
810.904	8.94834e-08
821.426	9.62527e-08
831.947	1.03258e-07
842.468	1.10493e-07
852.989	1.17956e-07
863.511	1.25648e-07
874.032	1.3357e-07
884.553	1.4173e-07
895.074	1.50135e-07
900.335	1.54433e-07
910.856	1.63232e-07
921.377	1.72317e-07
931.898	1.81713e-07
942.419	1.91449e-07
952.94	2.01559e-07
963.462	2.1209e-07
973.983	2.23087e-07
984.504	2.34611e-07
995.025	2.46726e-07
1000.29	2.53029e-07
1010.81	2.66175e-07
1021.33	2.80121e-07
1031.85	2.94966e-07
1042.37	3.10822e-07
1052.89	3.27813e-07
1063.41	3.46073e-07
1073.93	3.65751e-07
1084.45	3.87012e-07
1094.97	4.10029e-07
1100.23	4.22257e-07
1110.75	4.48274e-07
1121.27	4.7654e-07
1131.78	5.07299e-07
1142.3	5.40797e-07
1152.81	5.77298e-07
1163.33	6.17081e-07
1173.84	6.60447e-07
1184.36	7.07711e-07
1194.87	7.5921e-07
1200.13	7.86658e-07
1210.64	8.45188e-07
1221.16	9.08884e-07
1231.67	9.78161e-07
1242.19	1.05345e-06
1252.7	1.13521e-06
1263.22	1.22394e-06
1273.73	1.32013e-06
1284.25	1.42433e-06
1294.73	1.53675e-06
1305.17	1.65789e-06
1310.4	1.72205e-06
1320.84	1.85796e-06
1331.29	2.00455e-06
1341.74	2.16254e-06
1352.18	2.33337e-06
1362.63	2.51821e-06
1373.08	2.7178e-06
1383.53	2.93268e-06
1393.97	3.16332e-06
1404.37	3.40886e-06
1414.71	3.6694e-06
1425.06	3.9464e-06
1430.23	4.09117e-06
1440.57	4.39347e-06
1450.92	4.71305e-06
1461.31	5.052e-06
1471.76	5.41104e-06
1482.21	5.78908e-06
1492.65	6.1867e-06
1503.1	6.60461e-06
1513.55	7.04355e-06
1523.93	7.50172e-06
1534.32	7.98252e-06
1544.7	8.48703e-06
1555.09	9.01642e-06
1560.28	9.29085e-06
1570.67	9.86006e-06
1580.98	1.04535e-05
1591.3	1.10765e-05
1601.61	1.17308e-05
1611.93	1.24183e-05
1622.24	1.31409e-05
1632.56	1.39008e-05
1642.87	1.47003e-05
1653.18	1.55416e-05
1663.5	1.64274e-05
1673.81	1.73602e-05
1684.13	1.8343e-05
1694.44	1.93787e-05
1704.76	2.04703e-05
1715.07	2.16208e-05
1720.23	2.2219e-05
1730.54	2.34626e-05
1740.86	2.4771e-05
1751.17	2.61461e-05
1761.48	2.75897e-05
1771.8	2.91036e-05
1782.11	3.06894e-05
1792.43	3.23488e-05
1802.74	3.40837e-05
1813.05	3.58957e-05
1823.37	3.7787e-05
1833.68	3.97595e-05
1844	4.18154e-05
1854.31	4.39572e-05
1864.62	4.61875e-05
1874.94	4.8509e-05
1880.1	4.97049e-05
1890.41	5.21691e-05
1900.72	5.47326e-05
1911.04	5.73992e-05
1921.35	6.0173e-05
1931.67	6.30582e-05
1941.98	6.60596e-05
1952.29	6.9182e-05
1962.61	7.24307e-05
1972.92	7.5811e-05
1983.24	7.93288e-05
1993.55	8.29901e-05
2003.86	8.68013e-05
2014.18	9.0769e-05
2024.49	9.49001e-05
2034.8	9.9202e-05
2045.12	0.000103683
2050.27	0.000105992
2060.59	0.000104259
2070.9	0.000102874
2081.22	0.000101809
2091.53	0.000101044
2101.84	0.000100558
2112.16	0.000100333
2122.47	0.000100354
2132.78	0.000100606
2143.1	0.000101077
2153.41	0.000101756
2163.73	0.000102635
2174.04	0.000103705
2184.35	0.000104961
2194.67	0.000106397
2204.98	0.000108011
2210.14	0.000108884
2220.45	0.00011076
2230.76	0.00011281
2241.08	0.000115033
2251.39	0.000117431
2261.7	0.000120006
2272.02	0.000122761
2282.33	0.000125699
2292.64	0.000128826
2302.96	0.000132145
2313.27	0.000135664
2323.58	0.000139388
2333.9	0.000143325
2344.21	0.000147481
2354.53	0.000151866
2364.84	0.000156487
2375.15	0.000161353
2380.31	0.000163881
2390.62	0.000169132
2400.94	0.000174654
2411.22	0.000180442
2421.49	0.000186506
2431.76	0.000192874
2442.02	0.000199528
2452.29	0.000206446
2462.55	0.000213612
2472.84	0.00022103
2483.14	0.000228687
2493.46	0.000236579
2503.77	0.000244697
2514.08	0.000253042
2524.4	0.000261618
2534.68	0.00027041
2545	0.000279469
2550.15	0.000284094
2560.47	0.000293543
2570.78	0.000303267
2581.09	0.000313282
2591.41	0.000323603
2601.72	0.00033425
2612.03	0.000345242
2622.35	0.000356602
2632.66	0.000368353
2642.98	0.000380521
2653.29	0.000393131
2663.6	0.000406208
2673.92	0.000419779
2684.23	0.000433868
2694.54	0.000448499
2704.86	0.000463699
2710.02	0.000471519
2720.33	0.000487617
2730.64	0.000504345
2740.96	0.000521731
2751.27	0.000539801
2761.58	0.000558576
2771.88	0.000578087
2782.19	0.000598373
2792.48	0.000633071
2802.77	0.000681626
2813.06	0.000729985
2823.35	0.000777988
2833.64	0.000825572
2843.94	0.000872771
2854.24	0.000919589
2864.54	0.000966198
2874.84	0.00101268
2885.13	0.0010591
2890.26	0.00108233
2900.53	0.00112904
2910.8	0.00117624
2921.06	0.00122412
2931.33	0.0012729
2941.6	0.00132278
2951.86	0.00137399
2962.13	0.00142672
2972.4	0.00148117
2982.66	0.00153757
2992.93	0.00159606
3003.2	0.00165643
3013.46	0.00171837
3023.73	0.00178172
3034	0.00184641
3044.27	0.00191246
3054.53	0.00197994
3064.8	0.00204901
3075.07	0.00211987
3080.2	0.00215605
3090.47	0.00223009
3100.73	0.00230666
3111	0.00238611
3121.27	0.00246881
3131.53	0.00255511
3141.8	0.00264533
3152.07	0.00273979
3162.33	0.00283881
3172.6	0.00300701
3182.87	0.00323322
3193.13	0.00344848
3203.4	0.00365366
3213.67	0.00385116
3223.93	0.00404411
3234.2	0.00423594
3244.47	0.00443007
3254.73	0.00462982
3265	0.0048383
3270.13	0.00494675
3280.4	0.00517012
3290.66	0.00540042
3300.93	0.0056375
3311.2	0.00588279
3321.46	0.00613902
3331.73	0.00640997
3342	0.0066995
3352.26	0.00717133
3362.53	0.00779989
3372.8	0.00840642
3383.06	0.00899705
3393.33	0.00959921
3403.6	0.0102407
3413.86	0.0109361
3424.13	0.0116599
3434.39	0.0124216
3444.66	0.0132575
3454.93	0.0150678
3460.06	0.0158372
3470.33	0.0173052
3480.59	0.0190391
3490.86	0.0221643
3501.12	0.0256031
3511.39	0.028984
3521.66	0.0324823
3531.92	0.0359454
3542.19	0.0393087
3552.46	0.042586
3562.72	0.0457818
3572.99	0.0489044
3583.25	0.0520232
3593.52	0.0552052
3603.79	0.0584723
3614.05	0.0618137
3624.32	0.0652107
3634.59	0.0686488
3644.85	0.072126
3655.12	0.0756571
3660.25	0.0774495
3670.52	0.0810983
3680.78	0.0848356
3691.05	0.0886543
3701.31	0.0925391
3711.58	0.0964721
3721.85	0.100439
3732.11	0.104435
3742.38	0.108465
3752.65	0.112544
3762.91	0.116686
3773.18	0.120907
3783.44	0.125217
3793.71	0.129622
3803.98	0.134126
3814.24	0.138737
3824.51	0.143459
3834.77	0.148298
3845.04	0.153261
3850.17	0.155789
3860.44	0.160942
3870.71	0.166222
3880.97	0.171632
3891.24	0.177173
3901.51	0.182854
3911.77	0.188684
3922.04	0.194677
3932.3	0.200849
3942.57	0.207215
3952.84	0.213793
3963.1	0.220598
3973.37	0.227646
3983.64	0.234952
3993.9	0.24253
4004.17	0.250394
4014.44	0.258554
4024.7	0.267022
4034.97	0.275805
4040.1	0.280317
4050.37	0.289585
4060.64	0.299182
4070.9	0.309111
4081.17	0.319374
4091.44	0.32997
4101.7	0.340898
4111.97	0.352154
4122.24	0.363732
4132.5	0.375621
4142.77	0.387807
4153.04	0.40027
4163.3	0.412987
4173.61	0.425985
4183.97	0.439233
4194.33	0.452635
4204.68	0.466147
4215.04	0.479717
4220.22	0.486508
4230.57	0.500063
4240.95	0.513554
4251.32	0.526892
4261.69	0.540008
4272.17	0.552959
4282.65	0.56553
4293.13	0.577639
4303.61	0.5892
4314.09	0.600124
4324.57	0.610322
4335.05	0.6197
4340.29	0.624052
4350.77	0.632022
4361.25	0.638936
4371.73	0.644696
4382.21	0.649211
4392.69	0.652386
4403.17	0.654134
4413.65	0.65437
4424.13	0.653015
4434.61	0.649994
4445.09	0.645242
4450.33	0.642198
4460.81	0.63474
4471.29	0.62542
4481.77	0.6142
4492.25	0.601052
4502.73	0.58596
4513.21	0.568915
4523.69	0.549922
4534.17	0.528995
4544.65	0.506158
4555.13	0.481446
4560.37	0.4684
4570.85	0.440962
4581.33	0.411774
4591.81	0.3809
4602.29	0.348407
4612.77	0.314365
4623.25	0.278846
4633.73	0.241944
4644.21	0.203712
4654.69	0.16433
4665.17	0.123391
4670.41	0.102556
4680.89	0.061734
4691.37	0.0156521
4701.85	-0.0218462
4712.33	-0.0545382
4722.81	-0.0812748
4733.29	-0.0830179
4743.77	-0.102032
4754.26	-0.12023
4764.74	-0.136606
4775.22	-0.151958
4780.46	-0.158583
4790.94	-0.170444
4801.42	-0.180857
4811.9	-0.190372
4822.38	-0.199318
4832.86	-0.190598
4843.34	-0.198078
4853.84	-0.206873
4864.36	-0.215356
4874.88	-0.222456
4880.14	-0.225591
4890.66	-0.231256
4901.19	-0.236296
4911.71	-0.24086
4922.23	-0.245057
4932.75	-0.248673
4943.27	-0.252065
4953.79	-0.255058
4964.31	-0.257996
4974.83	-0.260831
4980.09	-0.2622
4990.62	-0.264829
5001.14	-0.267301
5011.65	-0.269607
5022.17	-0.271744
5032.68	-0.262094
5043.2	-0.264106
5053.71	-0.265913
5064.23	-0.268264
5074.74	-0.270606
5080	-0.27166
5090.51	-0.273503
5101.03	-0.275037
5111.54	-0.276309
5122.06	-0.277355
5132.57	-0.2782
5143.09	-0.278865
5153.6	-0.279372
5164.12	-0.279743
5174.63	-0.279996
5185.15	-0.28015
5190.4	-0.280193
5200.85	-0.280222
5211.3	-0.280183
5221.74	-0.279972
5232.19	-0.279745
5242.64	-0.279521
5253.09	-0.279293
5263.53	-0.278987
5273.98	-0.278606
5284.43	-0.278211
5294.87	-0.277799
5300.1	-0.277586
5310.54	-0.277147
5320.99	-0.276688
5331.44	-0.276207
5341.88	-0.275703
5352.28	-0.275179
5362.62	-0.274636
5372.97	-0.27407
5383.31	-0.273484
5393.66	-0.272868
5404	-0.272226
5414.34	-0.267355
5424.79	-0.267138
5430.01	-0.267019
5440.46	-0.266763
5450.91	-0.266483
5461.35	-0.266178
5471.8	-0.265849
5482.25	-0.265494
5492.63	-0.265109
5503.02	-0.264696
5513.41	-0.264256
5523.79	-0.263789
5534.14	-0.2633
5544.46	-0.262789
5554.77	-0.262255
5565.09	-0.2617
5570.24	-0.261415
5580.56	-0.260829
5590.87	-0.260222
5601.19	-0.259595
5611.5	-0.258948
5621.81	-0.25828
5632.13	-0.257591
5642.44	-0.256879
5652.76	-0.256143
5663.07	-0.255382
5673.39	-0.254595
5683.7	-0.253782
5694.01	-0.252942
5704.33	-0.252075
5714.64	-0.251184
5724.96	-0.250271
5730.11	-0.249806
5740.43	-0.248861
5750.74	-0.247896
5761.06	-0.246912
5771.37	-0.245907
5781.68	-0.244921
5792	-0.243906
5802.31	-0.242864
5812.63	-0.241797
5822.94	-0.240707
5833.26	-0.239593
5843.57	-0.238454
5853.88	-0.237212
5864.2	-0.235944
5874.51	-0.234652
5884.83	-0.233337
5895.14	-0.231998
5900.3	-0.231321
5910.61	-0.229948
5920.93	-0.228554
5931.24	-0.227137
5941.56	-0.2257
5951.87	-0.224241
5962.18	-0.222761
5972.5	-0.22126
5982.81	-0.21974
5993.13	-0.218199
6003.44	-0.21664
6013.75	-0.215062
6024.07	-0.213465
6034.38	-0.211852
6044.7	-0.210221
6055.01	-0.208574
6060.17	-0.207745
6070.48	-0.206074
6080.8	-0.204584
6091.11	-0.203239
6101.43	-0.201843
6111.74	-0.200408
6122.05	-0.198943
6132.37	-0.197453
6142.68	-0.195942
6153	-0.194412
6163.31	-0.192859
6173.63	-0.191282
6183.94	-0.189683
6194.25	-0.188063
6204.57	-0.186425
6214.88	-0.184767
6220.04	-0.183931
6230.35	-0.182246
6240.67	-0.180542
6250.98	-0.178818
6261.3	-0.177075
6271.61	-0.175313
6281.92	-0.173531
6292.24	-0.171728
6302.55	-0.169906
6312.87	-0.168062
6323.18	-0.166201
6333.5	-0.16433
6343.81	-0.162455
6354.12	-0.16058
6364.44	-0.158708
6374.75	-0.15684
6385.07	-0.154974
6390.22	-0.154042
6400.54	-0.152178
6410.85	-0.150313
6421.17	-0.148443
6431.48	-0.146565
6441.8	-0.144675
6452.11	-0.14277
6462.42	-0.140845
6472.74	-0.1389
6483	-0.136939
6493.27	-0.134953
6503.53	-0.130994
6513.8	-0.127251
6524.07	-0.123721
6534.33	-0.12038
6544.6	-0.117192
6554.86	-0.11412
6565.13	-0.111125
6570.27	-0.109643
6580.59	-0.106688
6590.9	-0.103732
6601.21	-0.10075
6611.53	-0.0977247
6621.84	-0.0946435
6632.16	-0.0915322
6642.47	-0.0884147
6652.79	-0.0852953
6663.1	-0.0821654
6673.41	-0.0790072
6683.73	-0.0757994
6694.04	-0.0725225
6704.36	-0.0678032
6714.66	-0.0619148
6724.97	-0.0562453
6730.13	-0.0535097
6740.44	-0.0481596
6750.74	-0.0428501
6761.06	-0.0374497
6771.37	-0.0319201
6781.69	-0.0263608
6792	-0.0208764
6802.32	-0.015404
6812.63	-0.00763799
6822.94	0.00109838
6833.26	0.00857879
6843.57	0.0162168
6853.89	0.0270058
6864.2	0.0380426
6874.52	0.0485683
6884.83	0.0580045
6895.14	0.0657995
6900.3	0.0690748
6910.62	0.0745366
6920.93	0.0787543
6931.24	0.0818552
6941.56	0.0841043
6951.87	0.0858164
6962.19	0.0871681
6972.5	0.0882234
6982.82	0.0890257
6993.13	0.0896376
7003.43	0.0901377
7013.74	0.0906203
7024.04	0.0911855
7034.33	0.0918983
7044.62	0.0927515
7054.91	0.0936731
7060.06	0.0941288
7070.35	0.0949712
7080.64	0.0956599
7090.93	0.0961438
7101.22	0.0964
7111.52	0.0964347
7121.82	0.0962791
7132.12	0.0959797
7142.41	0.0955886
7152.67	0.0951547
7162.94	0.0947226
7173.21	0.0943356
7183.47	0.0940346
7193.74	0.0938517
7204.01	0.093802
7214.27	0.093876
7224.54	0.0940381
7234.81	0.094233
7245.07	0.0943962
7250.21	0.0944464
7260.48	0.0944525
7270.74	0.0943059
7281.01	0.0939943
7291.28	0.0935263
7301.54	0.0929258
7311.81	0.0922246
7322.08	0.0914565
7332.34	0.0906539
7342.61	0.0898466
7352.88	0.0890626
7363.14	0.0883286
7373.41	0.0876698
7383.68	0.0871082
7393.94	0.0866601
7404.21	0.0863339
7414.48	0.0861295
7424.74	0.0860385
7435.01	0.0860468
7440.14	0.0860831
7450.41	0.0862096
7460.68	0.086396
7470.94	0.0866317
7481.21	0.0869103
7491.48	0.0872294
7501.74	0.0875891
7512.01	0.0879904
7522.28	0.0884336
7532.54	0.0889172
7542.81	0.089437
7553.08	0.0899854
7563.34	0.090552
7573.61	0.0911235
7583.88	0.091685
7594.15	0.0922203
7604.41	0.0927139
7614.68	0.0931513
7624.95	0.0935207
7630.08	0.0936769
7640.35	0.0939282
7650.61	0.094095
7660.88	0.0941764
7671.15	0.0941747
7681.41	0.0940941
7691.68	0.0939409
7701.95	0.0937223
7712.21	0.093446
7722.48	0.0931195
7732.75	0.0927493
7743.01	0.0923412
7753.28	0.0918993
7763.55	0.0914268
7773.81	0.0909262
7784.08	0.0903995
7794.35	0.0898488
7804.61	0.0892768
7814.88	0.0886873
7820.01	0.0883874
7830.28	0.0877807
7840.55	0.0871694
7850.81	0.0865594
7861.08	0.0859562
7871.35	0.085364
7881.62	0.0847852
7891.88	0.08422
7902.15	0.0836664
7912.42	0.0831192
7922.68	0.0825713
7932.95	0.0820133
7943.22	0.0814346
7953.48	0.0808239
7963.75	0.08017
7974.02	0.0794625
7984.28	0.0786929
7994.55	0.0778546
8004.82	0.0769435
8015.08	0.0759579
8020.22	0.0754374
8030.48	0.0743426
8040.75	0.0731797
8051.02	0.0719543
8061.28	0.0706731
8071.55	0.0693434
8081.82	0.0679726
8092.09	0.0665679
8102.35	0.0651358
8112.62	0.0636822
8122.89	0.0622122
8133.15	0.06073
8143.42	0.0592396
8153.69	0.0577443
8163.95	0.0562473
8174.22	0.0547517
8184.49	0.0532606
8194.75	0.0517771
8205.02	0.0503043
8210.15	0.0495727
8220.42	0.048121
8230.69	0.0466859
8240.95	0.0452684
8251.22	0.0438684
8261.49	0.0424839
8271.76	0.0411112
8282.02	0.0397444
8292.29	0.0383753
8302.56	0.0369934
8312.82	0.0355855
8323.09	0.034136
8333.36	0.0326257
8343.62	0.0310305
8353.89	0.0293168
8364.16	0.0274362
8374.42	0.0253215
8384.69	0.0229097
8394.96	0.0200682
8400.09	0.0184305
8410.36	0.0149436
8420.62	0.0101417
8430.89	0.00622922
8441.16	0.00297017
8451.42	0.00208748
8461.69	-0.000940423
8471.96	-0.00385067
8482.23	-0.00690982
8492.49	-0.00977085
8502.76	-0.0123388
8513.03	-0.0122374
8523.29	-0.0142696
8533.56	-0.0159905
8543.83	-0.0185481
8554.09	-0.0207522
8564.36	-0.0227124
8574.63	-0.0245123
8584.89	-0.0262578
8590.03	-0.0270696
8600.29	-0.0286259
8610.56	-0.0300984
8620.83	-0.0316366
8631.09	-0.0330205
8641.36	-0.03425
8651.63	-0.0352768
8661.9	-0.0361837
8672.16	-0.0345191
8682.43	-0.0353321
8692.7	-0.0361284
8702.96	-0.0363423
8713.23	-0.0373247
8723.5	-0.0383337
8733.76	-0.0392743
8744.03	-0.0401521
8754.3	-0.0409771
8764.56	-0.0417563
8774.83	-0.0424951
8785.1	-0.0431982
8790.23	-0.043538
8800.5	-0.0441973
8810.76	-0.0448329
8821.03	-0.045448
8831.3	-0.0460448
8841.57	-0.0465289
8851.83	-0.0470149
8862.1	-0.0475069
8872.37	-0.0479995
8882.63	-0.0486113
8892.9	-0.0491858
8903.17	-0.0497268
8913.43	-0.0502371
8923.7	-0.050719
8933.97	-0.0511744
8944.23	-0.0516048
8954.5	-0.0520115
8964.77	-0.0523956
8975.03	-0.0527582
8980.17	-0.0529317
8990.43	-0.053262
9000.7	-0.0535678
9010.97	-0.0499861
9021.24	-0.0476962
9031.5	-0.0479662
9041.77	-0.0482215
9052.04	-0.0484627
9062.3	-0.0486904
9072.57	-0.0489052
9082.84	-0.0491076
9093.1	-0.0492968
9103.37	-0.049469
9113.64	-0.049626
9123.9	-0.0497692
9134.17	-0.0499002
9144.44	-0.0500204
9154.7	-0.0501309
9164.97	-0.0502329
9170.1	-0.0502809
9180.37	-0.0503719
9190.64	-0.0504566
9200.91	-0.0505359
9211.17	-0.0506104
9221.44	-0.0506806
9231.71	-0.0507471
9241.97	-0.0508106
9252.24	-0.0508706
9262.51	-0.0509269
9272.77	-0.0509854
9283.04	-0.0510439
9293.31	-0.0510953
9303.57	-0.0511393
9313.84	-0.0511759
9324.11	-0.0512047
9334.37	-0.0512256
9344.64	-0.0512386
9354.91	-0.0512436
9360.04	-0.0512421
9370.31	-0.0512304
9380.58	-0.0512077
9390.84	-0.0511747
9401.11	-0.0511317
9411.38	-0.0510794
9421.64	-0.0510182
9431.91	-0.0510233
9442.18	-0.0510155
9452.44	-0.0509955
9462.71	-0.0509638
9472.98	-0.0509211
9483.24	-0.0508677
9493.51	-0.0508042
9503.78	-0.050731
9514.04	-0.0506485
9524.31	-0.050557
9534.58	-0.050457
9544.85	-0.0503487
9555.11	-0.0502324
9560.25	-0.0501713
9570.51	-0.0500436
9580.78	-0.0499085
9591.05	-0.0497664
9601.31	-0.0496174
9611.58	-0.0494621
9621.85	-0.0493006
9632.11	-0.0491333
9642.38	-0.0489604
9652.65	-0.0487823
9662.91	-0.0480634
9673.18	-0.0479135
9683.45	-0.0477605
9693.71	-0.0476042
9703.98	-0.0474445
9714.25	-0.0472812
9724.52	-0.0471142
9734.78	-0.0469435
9745.05	-0.0467688
9750.18	-0.04668
9760.45	-0.0464992
9770.71	-0.0463143
9780.98	-0.046125
9791.25	-0.0459313
9801.51	-0.0457331
9811.78	-0.0455302
9822.04	-0.0453227
9832.31	-0.0451103
9842.58	-0.044893
9852.84	-0.0446708
9863.11	-0.0444436
9873.38	-0.0442114
9883.65	-0.043974
9893.91	-0.0437308
9904.18	-0.0434816
9914.45	-0.0432263
9924.71	-0.0429652
9934.98	-0.0426982
9940.11	-0.0425625
9950.38	-0.0422868
9960.65	-0.0420055
9970.91	-0.0416385
9981.18	-0.0412711
9991.45	-0.0409029
10001.7	-0.0405338
10012	-0.0401634
10022.2	-0.0397915
10032.5	-0.039418
10042.8	-0.0390427
10053	-0.0386654
10063.3	-0.0382861
10073.6	-0.0379045
10083.8	-0.0375208
10094.1	-0.0371347
10104.4	-0.0367462
10114.7	-0.0363554
10124.9	-0.0359622
10130.1	-0.0357647
10140.3	-0.0353679
10150.6	-0.0349687
10160.9	-0.0345671
10171.1	-0.0341631
10181.4	-0.0337568
10191.7	-0.033348
10201.9	-0.0329369
10212.2	-0.0325244
10222.5	-0.0321126
10232.7	-0.0317012
10243	-0.0312899
10253.3	-0.0308785
10263.5	-0.0304665
10273.8	-0.0300539
10284.1	-0.0296404
10294.3	-0.0292259
10304.6	-0.0288101
10314.9	-0.028393
10325.1	-0.0279752
10330.3	-0.0277661
10340.5	-0.0273473
10350.8	-0.0269277
10361.1	-0.0265072
10371.3	-0.0260856
10381.6	-0.0256628
10391.9	-0.0252389
10402.1	-0.0248138
10412.4	-0.0243876
10422.7	-0.0239604
10432.9	-0.0235322
10443.2	-0.0231032
10453.5	-0.0226735
10463.7	-0.0222432
10474	-0.0218122
10484.3	-0.0213807
10494.5	-0.0209488
10504.8	-0.0204787
10515.1	-0.0199749
10520.2	-0.0197259
10530.5	-0.0192342
10540.7	-0.0187506
10551	-0.0182744
10561.3	-0.0178053
10571.5	-0.0173426
10581.8	-0.0168861
10592.1	-0.0164352
10602.3	-0.0159895
10612.6	-0.0155488
10622.9	-0.0151126
10633.1	-0.0146809
10643.4	-0.0142534
10653.7	-0.0138298
10663.9	-0.01341
10674.2	-0.0129937
10684.5	-0.0125804
10694.7	-0.0121699
10705	-0.011762
10710.1	-0.0115589
10720.4	-0.0111543
10730.7	-0.0107518
10740.9	-0.0103511
10751.2	-0.00991693
10761.5	-0.0095055
10771.7	-0.00911302
10782	-0.00873623
10792.3	-0.00837228
10802.5	-0.00801874
10812.8	-0.0076735
10823.1	-0.00733474
10833.3	-0.0070009
10843.6	-0.00667064
10853.9	-0.00634282
10864.1	-0.00601648
10874.4	-0.00569068
10884.7	-0.00536906
10894.9	-0.00505229
10900.1	-0.00489542
10910.3	-0.0045841
10920.6	-0.00427519
10930.9	-0.00396778
10941.1	-0.003661
10951.4	-0.00335403
10961.7	-0.00304612
10971.9	-0.00273674
10982.2	-0.00242587
10992.5	-0.00211335
11002.7	-0.00179896
11013	-0.00148242
11023.3	-0.00116597
11033.5	-0.000855744
11043.8	-0.000549455
11054.1	-0.000245124
11064.3	5.89049e-05
11074.6	0.000364014
11084.9	0.000671364
11090	0.000826191
11100.3	0.00113868
11110.5	0.00145522
11120.8	0.00177583
11131.1	0.00210056
11141.3	0.00247165
11151.6	0.00291524
11161.9	0.00338548
11172.1	0.00387179
11182.4	0.00436711
11192.7	0.00486689
11202.9	0.00536832
11213.2	0.00586898
11223.5	0.00636744
11233.7	0.00686755
11244	0.00736946
11254.3	0.00787307
11264.5	0.00837801
11274.8	0.00888296
11285.1	0.00938637
11290.2	0.00963713
11300.5	0.0101363
11310.7	0.0106315
11321	0.0114662
11331.3	0.0126267
11341.5	0.0137064
11351.8	0.0146877
11362.1	0.0155706
11372.3	0.0163625
11382.6	0.0170767
11392.9	0.0179953
11403.2	0.0187127
11413.6	0.0193493
11423.9	0.019882
11434.3	0.0204132
11444.7	0.0212525
11455.4	0.0222307
11460.9	0.0227426
11472.1	0.0237572
11483.2	0.0247586
11494.4	0.0257854
11505.6	0.0268143
11511.2	0.0273303
11522.4	0.0283674
11533.6	0.0294089
11544.8	0.0304577
11550.4	0.0309909
11561.6	0.0320889
11572.8	0.033241
11584	0.0344534
11595.2	0.0357201
11600.8	0.0363688
11612	0.0376817
11623.2	0.0389935
11634.4	0.040285
11645.6	0.04155
11651.2	0.042174
11662.4	0.0434113
11673.6	0.0446433
11684.8	0.0458778
11690.4	0.0464968
11701.6	0.0477365
11712.8	0.0489729
11724	0.0501969
11735.2	0.0513994
11740.8	0.0519902
11752	0.0531476
11763.2	0.0542698
11774.4	0.0553544
11780	0.0558818
11791.2	0.056905
11802.4	0.0578816
11813.6	0.0588047
11824.8	0.0596665
11830.4	0.0600719
11841.6	0.0608278
11852.8	0.0615072
11864	0.0621088
11875.2	0.0626344
11880.8	0.06287
11892	0.0632903
11903.2	0.0636481
11914.4	0.0639503
11920	0.0640824
11931.2	0.0643126
11942.4	0.064501
11953.6	0.064651
11964.8	0.0647648
11970.4	0.0648084
11981.6	0.0648695
11992.8	0.0648956
