0	0	361780
39.4643	0	418436
75.8358	0	446708
112.421	0	464684
148.008	0	479754
183.487	0	493154
221.47	0	505426
258.095	0	517326
295.608	0	529848
331.304	0	541892
367	0	554762
400.841	0	568910
435.607	0	583482
469.547	0	596928
503.254	0	610362
536.443	0	623984
567.836	0	637372
600.181	0	651568
630.666	0	665526
661.17	0	679854
690.762	0	693970
721.25	0	708146
752.634	0	723622
781.327	0	737820
810.02	0	752602
839.609	-2.54659e-11	768488
868.3	-5.45697e-11	783936
895.309	-8.18545e-11	798030
923.638	-1.30967e-10	814204
951.897	-1.99179e-10	830102
979.243	-2.96495e-10	845868
1004.93	-4.28372e-10	860698
1031.56	-6.15728e-10	876380
1059.11	-8.88576e-10	893016
1085.73	-1.25146e-09	910164
1111.37	-1.72258e-09	926880
1136.56	-2.34013e-09	943682
1160.77	-3.11593e-09	960088
1184.09	-4.07545e-09	975694
1206.51	-5.24415e-09	990989
1228.03	-6.64204e-09	1006287
1249.55	-8.36553e-09	1021163
1271.07	-1.04819e-08	1035767
1293.49	-1.31877e-08	1050455
1316.1	-1.65264e-08	1064747
1339.9	-2.08393e-08	1079425
1362.78	-2.59051e-08	1093613
1385.43	-3.19724e-08	1107299
1408.75	-3.95148e-08	1121833
1429.38	-4.74611e-08	1134837
1450.01	-5.67979e-08	1147797
1470.63	-6.77237e-08	1160729
1492.16	-8.10714e-08	1173671
1512.78	-9.59926e-08	1186171
1533.41	-1.13288e-07	1198589
1553.14	-1.32341e-07	1208859
1573.76	-1.55218e-07	1218391
1593.49	-1.80274e-07	1227813
1613.22	-2.08806e-07	1237207
1633.85	-2.42784e-07	1247103
1653.58	-2.79709e-07	1257329
1674.2	-3.23467e-07	1267411
1693.93	-3.70791e-07	1276927
1714.56	-4.26616e-07	1287369
1735.18	-4.89632e-07	1297027
1755.81	-5.6062e-07	1306951
1774.64	-6.33119e-07	1315563
1794.38	-7.1778e-07	1324879
1813.42	-8.08606e-07	1334427
1832.85	-9.11542e-07	1343837
1852.3	-1.02581e-06	1353299
1871.51	-1.15088e-06	1361573
1890.62	-1.28831e-06	1369651
1910.61	-1.44716e-06	1377351
1930.33	-1.6205e-06	1384955
1950.94	-1.82093e-06	1392367
1970.66	-2.03266e-06	1400136
1989.49	-2.25465e-06	1407558
2008.34	-2.49805e-06	1413932
2027.24	-2.76496e-06	1420060
2046.45	-3.0617e-06	1427360
2065.9	-3.3903e-06	1435534
2086.44	-3.77086e-06	1444532
2106.14	-4.17075e-06	1452958
2125.86	-4.60813e-06	1461264
2145.59	-5.0858e-06	1468258
2165.21	-5.60352e-06	1475266
2183.79	-6.13652e-06	1481948
2203.3	-6.74388e-06	1489650
2222.78	-7.40233e-06	1496170
2241.35	-8.08223e-06	1501662
2260.83	-8.85336e-06	1508278
2279.37	-9.64599e-06	1512844
2297.04	-1.0457e-05	1517176
2315.64	-1.13737e-05	1522106
2334.24	-1.23577e-05	1528112
2352.93	-1.3419e-05	1532992
2371.66	-1.45584e-05	1538814
2390.37	-1.57762e-05	1543643
2409.26	-1.70904e-05	1549228
2427.98	-1.84784e-05	1554616
2446.64	-1.9952e-05	1559974
2465.47	-2.15315e-05	1565512
2485.18	-2.32905e-05	1572646
2503.89	-2.50634e-05	1579218
2522.49	-2.6931e-05	1585578
2541.04	-2.89052e-05	1592560
2559.64	-3.10014e-05	1598947
2577.47	-3.31268e-05	1606181
2595.13	-3.53484e-05	1613430
2612.79	-3.76928e-05	1619378
2631.39	-4.02962e-05	1626424
2648.09	-4.27593e-05	1632868
2666.71	-4.56502e-05	1639620
2684.37	-4.85424e-05	1647169
2702.03	-5.15839e-05	1653267
2719.75	-5.47963e-05	1660330
2737.42	-5.81615e-05	1665790
2756.06	-6.18969e-05	1671557
2773.77	-6.56303e-05	1677447
2791.45	-6.95427e-05	1683619
2809.16	-7.36638e-05	1689089
2826.74	-7.79609e-05	1695501
2844.14	-8.24346e-05	1702124
2861.45	-8.7147e-05	1706994
2878.73	-9.21538e-05	1713690
2895.98	-9.7477e-05	1719523
2913.23	-0.000103143	1726609
2930.49	-0.000109169	1733334
2947.74	-0.000115569	1740874
2964.99	-0.000122358	1747740
2982.25	-0.000129553	1754939
2999.66	-0.000141842	1761483
3016.26	-0.000156615	1768839
3032.85	-0.000172006	1776137
3050.37	-0.000188955	1784235
3067.89	-0.000206651	1791583
3084.54	-0.00022417	1798804
3101.29	-0.000242533	1805670
3119.23	-0.00026303	1813170
3136.26	-0.000283353	1820347
3153.29	-0.000320468	1826865
3171.27	-0.000361909	1834524
3188.35	-0.000402567	1841559
3205.49	-0.000444628	1848215
3222.69	-0.000488154	1854718
3239.93	-0.000514491	1861757
3257.2	-0.000529848	1868173
3273.47	-0.000548922	1873577
3290.71	-0.000574106	1879131
3306.97	-0.000602514	1884632
3323.34	-0.00063557	1890113
3339.78	-0.000673149	1896113
3357.2	-0.000717373	1902316
3374.61	-0.000762693	1908323
3391.06	-0.000806852	1914090
3407.51	-0.000853807	1920306
3424.92	-0.000907653	1926319
3441.39	-0.000963264	1932145
3457.65	-0.00101997	1937487
3473.71	-0.00107837	1943011
3489.73	-0.00114052	1948657
3506.68	-0.00121135	1955230
3523.52	-0.00128842	1961742
3539.43	-0.00136854	1968107
3556.27	-0.00149118	1974898
3572.18	-0.0016387	1980873
3589.04	-0.00179345	1988157
3605.02	-0.00194425	1994453
3621.13	-0.00209739	2001207
3637.28	-0.00222784	2008629
3653.43	-0.00237935	2015689
3668.63	-0.00254701	2021400
3683.86	-0.00273934	2027784
3700.01	-0.00294783	2034977
3716.89	-0.00312614	2042386
3732.85	-0.00336639	2049485
3748.8	-0.00364394	2057140
3764.67	-0.0039098	2064996
3780.44	-0.00418895	2072841
3796.2	-0.00451036	2080959
3811	-0.0048506	2088642
3826.71	-0.00524477	2096169
3842.43	-0.00566436	2104008
3857.22	-0.00607768	2110850
3872.95	-0.00653372	2117430
3887.57	-0.00696944	2123093
3903	-0.00743608	2129038
3918.42	-0.00791429	2134834
3932.86	-0.0083748	2140512
3948.17	-0.00887561	2146252
3962.58	-0.00935735	2151721
3976.97	-0.00984708	2156951
3992.2	-0.0103721	2162756
4006.52	-0.0108701	2167920
4021.75	-0.0113996	2173087
4036.07	-0.0118936	2178045
4051.3	-0.0124084	2183242
4065.64	-0.0128786	2188084
4080.97	-0.0133589	2193551
4095.44	-0.0137857	2197851
4110.82	-0.0142044	2202930
4125.29	-0.0145595	2208172
4139.77	-0.0148706	2212495
4155.22	-0.0151476	2217338
4169.78	-0.0153508	2221942
4184.33	-0.0154927	2227319
4198.88	-0.0155686	2232155
4213.44	-0.0155744	2237963
4228	-0.0155067	2243201
4242.56	-0.0153632	2248586
4257.12	-0.0151455	2254351
4271.74	-0.0148537	2260510
4286.33	-0.0144875	2266826
4300.91	-0.014034	2272444
4315.49	-0.0134745	2278295
4330.08	-0.0123587	2284432
4344.63	-0.0112042	2290305
4359.12	-0.0106756	2296554
4373.55	-0.00959807	2303338
4387.97	-0.00813261	2309522
4401.48	-0.00658246	2315469
4415.89	-0.00472626	2321022
4430.29	-0.00223957	2326384
4443.79	0.000439423	2332540
4457.29	0.00410844	2337568
4470.8	0.0093796	2342857
4484.3	0.0158675	2347770
4498.71	0.022088	2353760
4512.25	0.0286705	2358682
4525.75	0.0360553	2363774
4540.11	0.0440856	2368373
4553.57	0.0517576	2372615
4567.03	0.0639322	2376802
4581.38	0.0786015	2381187
4594.84	0.0924458	2385613
4608.3	0.106671	2390134
4621.76	0.121881	2394712
4635.24	0.139862	2398752
4648.72	0.164549	2403680
4662.2	0.188305	2407698
4676.58	0.215515	2413147
4689.16	0.239801	2417210
4702.68	0.267186	2421403
4716.24	0.295906	2425647
4729.79	0.326398	2430142
4743.32	0.374573	2434293
4755.95	0.420698	2437318
4769.49	0.47087	2441125
4783.02	0.517816	2445411
4796.56	0.56209	2450423
4810.09	0.602118	2455493
4823.63	0.63602	2461386
4836.27	0.661443	2466804
4849.81	0.681055	2472224
4863.36	0.694239	2477131
4876.13	0.699088	2481131
4889.84	0.698802	2486251
4902.64	0.696008	2490512
4916.35	0.691466	2494896
4929.17	0.685549	2499385
4942.91	0.677965	2504440
4955.75	0.67013	2508869
4969.5	0.661196	2513829
4982.34	0.652539	2517816
4996.09	0.643099	2522732
5008.92	0.634267	2527198
5022.68	0.624756	2532267
5035.51	0.615823	2536806
5049.27	0.606183	2542243
5062.13	0.597046	2546616
5074.99	0.587716	2550638
5088.94	0.577299	2555375
5101.98	0.567202	2559329
5115.95	0.555897	2563839
5129.04	0.544742	2568499
5143.21	0.531941	2572682
5156.48	0.519134	2577562
5169.78	0.505361	2581684
5183.93	0.489492	2586627
5197.12	0.473376	2590876
5210.28	0.455816	2595296
5224.21	0.435376	2599694
5237.22	0.414355	2603443
5250.32	0.391106	2606754
5263.47	0.365526	2609884
5277.56	0.335486	2612681
5290.87	0.304198	2616210
5304.21	0.23688	2619148
5317.79	0.173529	2622920
5330.3	0.11798	2626194
5343.59	0.0574756	2629730
5357.87	-0.00534888	2633146
5371.21	-0.0642553	2636275
5384.26	-0.119309	2639099
5397.95	-0.175304	2642244
5412.02	-0.230049	2646062
5425.2	-0.278801	2649313
5438.46	-0.325727	2652774
5451.59	-0.370294	2655956
5465	-0.414472	2659899
5479.33	-0.460782	2664251
5492.75	-0.504107	2669268
5505.89	-0.546883	2673845
5519.21	-0.591038	2677481
5533.54	-0.639521	2681161
5547.87	-0.689021	2684677
5561.9	-0.738237	2688632
5575.79	-0.787255	2692282
5589.57	-0.835437	2695422
5602.7	-0.88011	2698586
5616.65	-0.92525	2702116
5630.16	-0.965597	2705546
5642.58	-0.998709	2709071
5655.84	-1.02852	2712445
5669.19	-1.05108	2716568
5682.45	-1.06534	2721125
5696.67	-1.06672	2726097
5709.17	-1.06265	2730095
5722.43	-1.05422	2734306
5735.64	-1.04117	2737838
5749.39	-1.02226	2741664
5761.7	-0.996445	2745085
5774.89	-0.953472	2747421
5788.1	-0.867576	2751541
5800.44	-0.764915	2754501
5813.56	-0.65406	2758558
5825.76	-0.546717	2761422
5838.9	-0.432327	2764139
5852.15	-0.317255	2767212
5864.43	-0.213449	2770881
5876.83	-0.112535	2774366
5890.04	-0.0109709	2778969
5902.23	0.07608	2782308
5915.36	0.161209	2785892
5927.47	0.230266	2788414
5940.49	0.293922	2791832
5952.7	0.343069	2795169
5965.78	0.384123	2798654
5978.13	0.410894	2802429
5990.52	0.425887	2806730
6003.93	0.430355	2811775
6016.32	0.428891	2816543
6029.9	0.422259	2821543
6043.08	0.412685	2826893
6056.01	0.400654	2832977
6069.05	0.386791	2838372
6082.45	0.369182	2843648
6094.84	0.34821	2849130
6107.36	0.326504	2854154
6119.88	0.30568	2859843
6132.23	0.284596	2866125
6144.6	0.263874	2872097
6157.3	0.242098	2878854
6169.7	0.220738	2885504
6182.04	0.199617	2893253
6194.36	0.178313	2900255
6206.68	0.156945	2907538
6219.06	0.135265	2914313
6231.62	0.113089	2920921
6243.95	0.0913208	2926383
6256.26	0.0694734	2932831
6268.68	0.0473894	2938480
6280.03	0.027249	2943584
6292.32	0.0055699	2948664
6304.75	-0.0159639	2954803
6317.36	-0.0371289	2959518
6329.81	-0.0569654	2963064
6341.12	-0.0737538	2966437
6353.56	-0.0905325	2969777
6365.97	-0.105215	2973851
6377.3	-0.11657	2977517
6389.53	-0.126351	2981912
6401.73	-0.13322	2987535
6413.03	-0.137326	2993382
6425.13	-0.139417	2999826
6436.4	-0.138641	3006240
6448.6	-0.13603	3012168
6460.92	-0.132623	3018757
6472.5	-0.128469	3024293
6483.81	-0.123628	3030549
6495.92	-0.117699	3036506
6507.08	-0.111705	3040457
6518.26	-0.105331	3045832
6530.35	-0.0981531	3051679
6541.64	-0.0913373	3056780
6553	-0.0845093	3061597
6565.12	-0.0773961	3067400
6576.57	-0.0709596	3072333
6588.14	-0.064851	3077495
6599.98	-0.0591049	3083925
6611.59	-0.0540197	3089399
6624	-0.0492286	3095097
6635.94	-0.0452748	3100627
6647.84	-0.0419845	3105800
6659.68	-0.039338	3111185
6671.36	-0.0373075	3117025
6683.16	-0.0358022	3121745
6695.31	-0.0347741	3127569
6707.47	-0.0342175	3132063
6719.62	-0.0340654	3137482
6731.77	-0.0342459	3142600
6743.92	-0.0346836	3148028
6756.08	-0.035299	3153518
6768.23	-0.0360096	3158545
6780.38	-0.0367339	3163392
6792.54	-0.0373979	3168951
6804.69	-0.0379372	3174297
6816.83	-0.038296	3180060
6828.93	-0.0384273	3185735
6840.46	-0.0383071	3192302
6851.83	-0.0379305	3197902
6862.39	-0.0373395	3202936
6873.94	-0.0364178	3209522
6885.35	-0.0352219	3215649
6896.77	-0.0337491	3221414
6908.17	-0.0320234	3226706
6918.58	-0.0302398	3232148
6929.94	-0.0280853	3238046
6941.32	-0.0257266	3243294
6951.75	-0.0234062	3249304
6963.12	-0.0207341	3255135
6973.54	-0.01818	3260936
6984.91	-0.0153079	3267518
6996.33	-0.0123712	3273499
7006.78	-0.00966819	3279278
7018.26	-0.00671829	3285598
7028.95	-0.0040165	3290566
7040.48	-0.00118873	3296131
7050.93	0.0012682	3300996
7062.32	0.00380878	3306128
7073.03	0.00604242	3311258
7084.6	0.00826461	3316626
7095.13	0.0100985	3321486
7106.69	0.0118928	3327927
7117.34	0.0133309	3333357
7128.96	0.0146558	3339542
7139.6	0.0156427	3345220
7150.27	0.016412	3351210
7161.96	0.0170004	3357476
7172.61	0.017188	3363202
7183.3	0.0172815	3368639
7193.84	0.0167106	3373103
7205.27	0.0165016	3378394
7215.89	0.01639	3383347
7226.56	0.0161662	3388102
7237.23	0.0157886	3392611
7248.84	0.0153196	3397806
7259.42	0.0148709	3402281
7269.97	0.0144155	3406318
7280.31	0.013968	3410273
7290.62	0.0135255	3413591
7301.95	0.0130466	3418495
7312.16	0.0126242	3423328
7322.37	0.0122173	3427795
7332.57	0.0118314	3432191
7342.79	0.0114706	3437005
7353.03	0.011135	3441018
7363.24	0.0108252	3444750
7373.57	0.0105358	3448136
7383.8	0.0102743	3452024
7394.04	0.0100407	3455991
7404.3	0.00983794	3460274
7414.59	0.00966825	3464068
7424.9	0.00953512	3468037
7435.09	0.00944411	3472027
7445.3	0.00940102	3476158
7455.52	0.00941641	3480476
7465.84	0.00950403	3483803
7476.21	0.00967845	3487578
7486.47	0.00994835	3492447
7496.67	0.0103222	3496188
7506.96	0.0108112	3500881
7517.41	0.0114252	3504456
7527.96	0.0121698	3508975
7538.39	0.0130346	3512486
7547.68	0.0139146	3515588
7557.95	0.0150005	3520123
7568.44	0.0162196	3523919
7578.68	0.0175237	3527988
7589.14	0.018967	3531322
7600.03	0.0205428	3535093
7609.82	0.0219746	3538552
7620.58	0.0236093	3542623
7631.31	0.0253102	3546085
7642.05	0.0270365	3549685
7652.93	0.0287439	3553415
7662.84	0.0302173	3556208
7673.74	0.0317113	3559412
7684.66	0.0330438	3562040
7695.72	0.0341962	3565631
7706.76	0.0351173	3569131
7716.8	0.0357318	3572977
7727.84	0.0361403	3577142
7738.88	0.0362519	3580763
7748.92	0.036087	3584098
7759.96	0.0356068	3588215
7771	0.0348091	3592271
7782.04	0.0336913	3596873
7792.07	0.0324	3600396
7803.11	0.0306879	3604827
7813.15	0.0288838	3608824
7823.97	0.0267063	3612534
7834.87	0.0242925	3617025
7844.77	0.0219221	3620199
7855.66	0.0191463	3624920
7866.56	0.0162328	3628774
7876.46	0.0135038	3632942
7887.25	0.0104845	3637793
7896.63	0.00785045	3641945
7906.95	0.00497232	3646707
7916.38	0.00238303	3650524
7926.7	-0.000386099	3654969
7936.1	-0.00283309	3659161
7946.52	-0.00544617	3664585
7955.96	-0.00771043	3669245
7966.7	-0.0101643	3673819
7976.23	-0.0122291	3677725
7986.79	-0.0143908	3682279
7996.49	-0.0162677	3686189
8007.28	-0.0182364	3691221
8016.89	-0.0198968	3695798
8027.33	-0.0216104	3700655
8036.9	-0.023111	3704429
8047.26	-0.0246738	3709031
8056.67	-0.0260507	3713203
8066.1	-0.0273976	3716549
8076.72	-0.0288922	3721109
8086.31	-0.0302308	3724859
8095.72	-0.0315422	3728471
8105.56	-0.0329195	3731129
8116.37	-0.0344505	3735419
8126.07	-0.0358463	3739001
8135.82	-0.0372755	3743021
8145.65	-0.0387475	3747842
8156.46	-0.0404073	3751697
8166.37	-0.041968	3755027
8176.49	-0.0436055	3759816
8186.45	-0.0452606	3763874
8196.39	-0.0469544	3767951
8207.06	-0.0488146	3772289
8216.55	-0.050502	3776099
8226.12	-0.052225	3779213
8235.97	-0.0540157	3782272
8245.53	-0.0557662	3785781
8255.02	-0.0575132	3789230
8265.4	-0.0594404	3793277
8274.79	-0.0612036	3798006
8284.22	-0.062998	3801832
8293.64	-0.0648177	3806264
8303.07	-0.0666644	3811046
8312.57	-0.0685423	3815142
8322.08	-0.0704275	3819246
8331.61	-0.0723142	3824137
8341.19	-0.074203	3828799
8350.57	-0.0760457	3832842
8360.89	-0.0780647	3837331
8370.27	-0.0798877	3841041
8379.7	-0.0817012	3844463
8389.25	-0.0835133	3848244
8398.76	-0.0852901	3851735
8408.24	-0.0870374	3854654
8417.73	-0.0887585	3857250
8427.4	-0.0904842	3860255
8437.04	-0.092169	3864122
8446.55	-0.0937912	3867148
8456.24	-0.0953961	3870770
8465.96	-0.0969467	3874052
8475.66	-0.0984261	3877222
8485.3	-0.0998183	3880430
8494.86	-0.101109	3883438
8504.44	-0.102305	3885937
8514.07	-0.103393	3888554
8523.87	-0.104372	3891882
8533.55	-0.105202	3894595
8543.21	-0.105882	3897549
8552.81	-0.106402	3900482
8562.33	-0.106753	3904072
8570.94	-0.106925	3906370
8580.52	-0.106947	3909729
8590.01	-0.10679	3912374
8599.52	-0.106449	3915667
8609.2	-0.105912	3918555
8618.78	-0.105191	3921642
8628.49	-0.104269	3925108
8637.07	-0.103295	3927782
8646.65	-0.102033	3931653
8656.07	-0.100614	3934350
8665.49	-0.0990239	3937445
8674.94	-0.097259	3940188
8683.45	-0.0955239	3943219
8692.89	-0.0934486	3946462
8702.41	-0.0912228	3949581
8711.9	-0.0887791	3952240
8721.49	-0.0835503	3955021
8730.18	-0.079784	3957507
8739.87	-0.076236	3961441
8749.58	-0.0724616	3963703
8759.22	-0.0684199	3966121
8767.93	-0.0644195	3967643
8777.73	-0.05964	3970104
8787.6	-0.0546819	3972824
8797.25	-0.0497511	3975815
8805.9	-0.0452491	3978523
8815.42	-0.0401501	3980965
8825	-0.0348495	3983787
8834.65	-0.0293426	3986285
8843.22	-0.0243505	3988725
8852.56	-0.01883	3990942
8861.84	-0.0132609	3993448
8870.19	-0.00813531	3995331
8879.47	-0.00190053	3997386
8888.75	0.00207487	4000464
8897.21	0.00873814	4002640
8906.97	0.017363	4005371
8915.35	0.0249175	4007514
8924.82	0.0331799	4009952
8934.37	0.0410707	4012479
8942.9	0.0478116	4015178
8952.22	0.0550055	4017934
8961.49	0.0621763	4020435
8969.92	0.0686152	4022729
8979.22	0.0753989	4024633
8988.49	0.0817742	4026522
8996.84	0.0872556	4028773
9006.12	0.0931588	4030628
9014.47	0.0983071	4032661
9023.76	0.103753	4034681
9032.12	0.108329	4036978
9041.41	0.11304	4040601
9050.74	0.117417	4043565
9059.13	0.121064	4046361
9068.49	0.124801	4049133
9076.98	0.127898	4051876
9086.47	0.131055	4054726
9094.94	0.133492	4058390
9104.36	0.135734	4062558
9112.85	0.13797	4066025
9122.25	0.139273	4070421
9130.6	0.140139	4074620
9139.99	0.140533	4078808
9148.5	0.140807	4083044
9157.96	0.140916	4087024
9166.47	0.140824	4090980
9175.92	0.140528	4096020
9184.43	0.140096	4100767
9192.93	0.139513	4104121
9202.25	0.1387	4109518
9210.65	0.137821	4112825
9220	0.136692	4117085
9228.45	0.135549	4120187
9236.97	0.13429	4123398
9246.44	0.132774	4127856
9254.94	0.131323	4131381
9263.41	0.129799	4134805
9272.74	0.128039	4138890
9281.11	0.126401	4141946
9289.49	0.124713	4144892
9298.87	0.12278	4147909
9307.32	0.121013	4150110
9316.72	0.119033	4152634
9325.09	0.117274	4156518
9333.45	0.115533	4158807
9341.84	0.113811	4162075
9351.17	0.111915	4164785
9359.58	0.110232	4168036
9368.01	0.108578	4170432
9377.39	0.106788	4174239
9385.86	0.105228	4175951
9394.44	0.103711	4178491
9403.92	0.102107	4180990
9412.43	0.10074	4183879
9420.93	0.0994389	4186334
9429.39	0.0982086	4188759
9438.77	0.0969185	4191253
9447.22	0.0958201	4192408
9455.64	0.0947831	4193830
9463.99	0.0938087	4195336
9473.28	0.0927826	4196515
9481.87	0.0918826	4197166
9490.41	0.0910315	4198545
9498.94	0.0902203	4200513
9508.34	0.0893656	4202720
9516.69	0.0886353	4203585
9525.04	0.0879397	4205118
9533.39	0.0872673	4206317
9542.69	0.0865996	4207955
9551.18	0.0860355	4209287
9559.53	0.0854962	4210669
9568.05	0.0849446	4211855
9576.53	0.0843869	4214180
9585.88	0.0837578	4216186
9594.22	0.083183	4217448
9602.57	0.0825944	4218759
9610.93	0.0819892	4219581
9620.22	0.0812948	4220180
9628.63	0.0806435	4221009
9637.04	0.0799687	4222871
9645.64	0.0792504	4223158
9654.2	0.0785059	4223868
9663.66	0.0776462	4224480
9672.03	0.0768537	4225038
9680.4	0.0760338	4225178
9688.76	0.0751893	4226263
9697.12	0.0743203	4225784
9705.47	0.0734267	4226038
9714.76	0.0724043	4226291
9723.16	0.0714536	4226774
9731.62	0.07047	4227552
9740.05	0.0694644	4228735
9748.5	0.068433	4229080
9757.92	0.0672559	4229655
9766.3	0.066186	4230083
9774.77	0.0650859	4230453
9783.19	0.0639729	4230455
9791.57	0.0628446	4230107
9799.94	0.0616834	4229840
9809.35	0.0603441	4228784
9817.92	0.0591054	4228304
9826.41	0.0577659	4227897
9834.83	0.0562843	4227092
9843.28	0.054662	4226871
9851.67	0.0529638	4226599
9860.99	0.051016	4226784
9869.37	0.0492177	4226946
9877.76	0.0473734	4227201
9886.32	0.0454464	4226529
9894.82	0.0434946	4227466
9904.22	0.0412879	4227977
9912.64	0.0392503	4229531
9921.09	0.0371194	4230421
9929.5	0.0344959	4232758
9937.86	0.0302147	4233414
9946.22	0.0272046	4235612
9955.53	0.0240343	4236207
9963.91	0.0210552	4237362
9972.45	0.0179607	4239035
9980.97	0.0148028	4240557
9989.38	0.0115811	4243082
9997.72	0.00833542	4244791
10007	0.0047388	4247750
10015.3	0.00152675	4249482
10023.7	-0.00168515	4251168
10032.2	-0.00492465	4251858
10040.7	-0.0081612	4253995
10049.1	-0.0113824	4256660
10057.5	-0.0146002	4258209
10066.9	-0.0181594	4260553
10075.3	-0.0213305	4261964
10083.8	-0.0244851	4263613
10092.3	-0.0275988	4265166
10100.7	-0.0306623	4267379
10109	-0.0336804	4268466
10117.3	-0.0366555	4269721
10125.7	-0.0395903	4271055
10135.2	-0.0428271	4272230
10143.7	-0.0456688	4274138
10152.1	-0.0484144	4275877
10160.4	-0.05107	4277553
10168.8	-0.0536474	4279704
10177.3	-0.0561623	4281082
10185.7	-0.0585913	4283777
10194.2	-0.0609305	4286937
10202.7	-0.0631627	4289336
10211.2	-0.0652863	4292910
10219.6	-0.0672819	4296032
10228	-0.0691657	4299747
10236.4	-0.0709325	4303309
10244.9	-0.072606	4307389
10253.3	-0.074261	4311071
10261.7	-0.0757122	4314539
10270.1	-0.0770034	4317635
10278.5	-0.0782454	4320524
10286.9	-0.0792416	4323609
10295.3	-0.0802848	4326507
10303.7	-0.0808664	4329018
10312.2	-0.0816147	4330965
10320.7	-0.0823401	4333044
10329.2	-0.0829233	4334956
10337.7	-0.08332	4337197
10346.2	-0.0836627	4340038
10354.7	-0.0839724	4341732
10363.2	-0.0842264	4342987
10371.6	-0.084398	4345695
10380.1	-0.0845131	4347321
10388.6	-0.0845914	4350005
10397	-0.0846288	4353093
10405.4	-0.0846184	4355051
10413	-0.084566	4357335
10421.5	-0.0844562	4359769
10430	-0.0842924	4361999
10438.5	-0.084075	4364440
10447	-0.083803	4366660
10455.5	-0.083477	4368140
10464	-0.0831	4371148
10472.3	-0.0826804	4373557
10479.8	-0.0822691	4375490
10488.1	-0.0817639	4378207
10496.5	-0.0812123	4381203
10504.9	-0.0806066	4383396
10513.4	-0.0799476	4386038
10521.9	-0.0792446	4388910
10530.2	-0.0785047	4392579
10537.7	-0.0778064	4396018
10546	-0.0769702	4399174
10554.4	-0.076079	4402699
10562.8	-0.0752364	4405395
10571.1	-0.0743726	4408294
10579.6	-0.0733738	4411682
10587	-0.0724113	4415131
10595.5	-0.071267	4418410
10603.9	-0.0701164	4423041
10612.2	-0.0689601	4426314
10619.6	-0.0679278	4429696
10628	-0.0667599	4433700
10636.3	-0.0655827	4436444
10644.7	-0.0643934	4439409
10652.1	-0.063311	4442041
10660.5	-0.0620543	4445048
10668.9	-0.060787	4446986
10677.3	-0.0595297	4451141
10684.9	-0.058407	4453242
10693.5	-0.057153	4455521
10701.9	-0.0559196	4458820
10709.5	-0.0548049	4461316
10718	-0.0535423	4464278
10726.5	-0.0522857	4467272
10735	-0.0510189	4469882
10742.5	-0.0499186	4472840
10751	-0.0486691	4475031
10759.7	-0.0474119	4478092
10767.4	-0.0463091	4481771
10775.9	-0.0450993	4485641
10784.5	-0.0439159	4488587
10792.1	-0.0428882	4491535
10800.6	-0.0417733	4494579
10809	-0.040696	4497776
10816.6	-0.039772	4500323
10825	-0.0387723	4503261
10833.5	-0.0378183	4506181
10841.1	-0.0370108	4509030
10849.5	-0.0361625	4512544
10856.9	-0.035461	4515207
10865.3	-0.0347248	4518534
10873.6	-0.0340453	4521317
10881	-0.0334898	4523732
10889.5	-0.0329141	4527176
10897.1	-0.032456	4529015
10905.5	-0.0320092	4530805
10913.1	-0.0316732	4532903
10921.5	-0.0313675	4534498
10929.9	-0.0311366	4537278
10937.5	-0.0309948	4539810
10946	-0.030909	4542353
10953.4	-0.0308976	4545775
10961.8	-0.0309573	4548923
10969.3	-0.031075	4552228
10977.7	-0.0312802	4554647
10985.1	-0.0315268	4557304
10993.5	-0.0318758	4559004
11000.9	-0.0322492	4561041
11009.4	-0.0327426	4563550
11016.9	-0.0332437	4564459
11025.3	-0.0338751	4566231
11032.8	-0.0344955	4567675
11041.3	-0.0352575	4568519
11048.8	-0.0359879	4568538
11057.3	-0.0368688	4568679
11064.9	-0.037708	4569745
11073.4	-0.0387022	4570429
11080.9	-0.0396298	4571922
11089.3	-0.0407236	4572991
11096.9	-0.0417417	4573452
11105.3	-0.0429331	4573845
11112.9	-0.0440246	4574435
11121.3	-0.0452842	4574303
11128.9	-0.0463861	4575209
11137.4	-0.0475844	4576740
11145	-0.0487492	4577651
11152.7	-0.0500309	4579123
11161.1	-0.0516943	4580260
11168.6	-0.0535326	4580892
11177	-0.055375	4581740
11184.6	-0.0568744	4582550
11193.1	-0.0584762	4584366
11200.6	-0.0598382	4584900
11209.1	-0.0613209	4586519
11216.6	-0.0626144	4588315
11225.1	-0.0640594	4590034
11232.6	-0.0653238	4591356
11241.1	-0.066722	4592808
11248.6	-0.0679358	4594150
11257.1	-0.0692696	4594887
11264.7	-0.0704243	4595468
11273.2	-0.07169	4594585
11280.7	-0.0727733	4594970
11289.3	-0.0739585	4594752
11296.8	-0.0749726	4594612
11305.4	-0.0760669	4594487
11312.9	-0.0769919	4594291
11321.3	-0.077971	4594053
11328.7	-0.0787861	4594197
11336.9	-0.0796418	4594904
11344.2	-0.0803507	4596300
11351.5	-0.0810104	4598024
11359.7	-0.0816976	4599575
11366.9	-0.0822576	4601103
11375.1	-0.0828275	4602978
11382.4	-0.083295	4605268
11390.6	-0.0837781	4606500
11397.8	-0.0841653	4609017
11405.1	-0.0845126	4611119
11413.3	-0.0848544	4612861
11420.6	-0.0851104	4614253
11428.7	-0.0853382	4615608
11436	-0.085485	4617002
11443.3	-0.0855834	4617784
11451.5	-0.0856467	4619287
11458.7	-0.0856696	4620640
11466.9	-0.0856579	4621285
11474.2	-0.0856133	4622764
11482.4	-0.0855257	4624679
11489.6	-0.0854177	4626550
11496.9	-0.0852845	4630055
11505.1	-0.0851063	4632392
11512.3	-0.084923	4634468
11519.6	-0.0847165	4636836
11527.8	-0.0844582	4638540
11535.1	-0.0842075	4640840
11543.3	-0.0839041	4643015
11550.5	-0.0836173	4645996
11557.8	-0.0833158	4648300
11566	-0.0829616	4650584
11573.2	-0.0826359	4652994
11580.5	-0.0823023	4655315
11588.7	-0.0819206	4658048
11596	-0.0815776	4660059
11603.2	-0.0812332	4662476
11611.4	-0.0808456	4664048
11618.7	-0.0805012	4665471
11626.1	-0.0801568	4666925
11634.5	-0.0797708	4669107
11641.9	-0.0794322	4669834
11649.3	-0.079099	4671145
11657.7	-0.0787317	4671479
11665.1	-0.0784124	4672099
11672.6	-0.0781003	4672245
11680.1	-0.0777947	4673806
11688.6	-0.0774554	4674465
11696.2	-0.0771642	4675954
11703.7	-0.0768839	4677949
11711.3	-0.0766121	4678581
11719.7	-0.0763162	4680315
11727.3	-0.0760607	4682008
11734.9	-0.0758099	4683245
11743.5	-0.0755341	4685327
11751.2	-0.0752941	4686887
11758.8	-0.0750582	4689158
11766.5	-0.0748239	4691642
11775.1	-0.0745612	4694389
11782.8	-0.0743265	4696118
11790.5	-0.0740889	4698640
11798.1	-0.0738464	4700905
11806.7	-0.073566	4703147
11814.4	-0.0733077	4705337
11822	-0.0730382	4707462
11830.6	-0.0727184	4709592
11838.3	-0.072418	4711793
11845.9	-0.072101	4713531
11853.6	-0.071762	4715394
11862.1	-0.0713584	4715961
11869.7	-0.0709751	4716821
11877.3	-0.0705664	4717188
11884.9	-0.0701306	4717679
11892.5	-0.0696636	4717826
11901.2	-0.0690986	4718694
11908.8	-0.0685621	4719275
11916.5	-0.0679919	4720064
11924.1	-0.067395	4720907
11932.5	-0.066687	4721024
11940.1	-0.0660206	4722010
11947.6	-0.0653186	4722972
11955.2	-0.064573	4723962
11963.6	-0.0637007	4725352
11971.1	-0.062887	4726846
11978.6	-0.0620376	4727756
11986.1	-0.0611523	4728773
11993.6	-0.0602313	4729608
12002.1	-0.0591527	4730561
12009.6	-0.0581563	4731367
12017.1	-0.0571239	4732484
12024.6	-0.056065	4733072
12033	-0.054835	4733128
12040.4	-0.0537077	4733483
12048	-0.0525399	4734603
12055.6	-0.0513295	4735535
12063.1	-0.0501047	4736220
12071.6	-0.0486914	4737567
12079.1	-0.0474081	4738129
12086.5	-0.0461057	4739151
12094.1	-0.0447604	4740032
12101.7	-0.0434011	4741797
12110.2	-0.0418478	4743603
12117.8	-0.0404336	4745113
12125.3	-0.0390113	4746961
12132.9	-0.0375855	4748696
12140.5	-0.0361317	4750503
12148	-0.0346868	4752185
12156.5	-0.0330633	4753523
12164	-0.0316157	4754855
12171.6	-0.0301675	4755665
12179.1	-0.0287236	4757038
12186.6	-0.0272881	4757780
12194.1	-0.0258607	4758523
12201.6	-0.0244435	4759402
12210.1	-0.0228562	4759521
12217.7	-0.0214514	4760237
12225.4	-0.020059	4760603
12233	-0.0186813	4760061
12240.7	-0.0173179	4759433
12248.3	-0.0159892	4759167
12255.8	-0.0146945	4759183
12264.2	-0.013266	4759674
12271.8	-0.0120202	4759911
12279.3	-0.0107944	4759840
12286.9	-0.00958528	4759930
12294.5	-0.00838347	4760119
12302.1	-0.00722258	4760146
12309.7	-0.00607888	4760490
12317.3	-0.00495525	4760829
12325.8	-0.00371371	4762235
12333.4	-0.0026327	4762323
12341	-0.00157281	4763119
12348.5	-0.000535047	4763858
12356.1	0.000488338	4764538
12363.7	0.0015043	4765893
12371.2	0.00250638	4767598
12378.8	0.00349575	4768155
12386.5	0.00447581	4769022
12395.1	0.00557098	4769575
12402.8	0.00653166	4769905
12410.4	0.007478	4770550
12418	0.0084143	4771423
12425.6	0.00934097	4771592
12433.2	0.0102594	4771826
12440.7	0.0111726	4772337
12448.2	0.0120847	4773360
12455.8	0.0129972	4775324
12463.4	0.0139241	4776570
12471.1	0.0148583	4778003
12479.7	0.0159149	4779908
12487.4	0.0168606	4781678
12495	0.0178137	4783037
12502.7	0.0187754	4784977
12510.3	0.0197298	4787188
12517.9	0.0207094	4788858
12525.6	0.0217037	4790946
12533.3	0.022711	4793205
12540.9	0.0237323	4794909
12548.6	0.0247684	4796724
12556.3	0.0258199	4798856
12563.9	0.0268876	4800959
12571.6	0.0279719	4803346
12580.2	0.0292121	4806098
12587.9	0.0303329	4808457
12595.6	0.0314713	4810206
12603.3	0.0326271	4812682
12610.9	0.0338004	4814791
12618.6	0.0349911	4817164
12626.3	0.0361988	4819451
12634	0.0374233	4822181
12641.6	0.0386642	4824235
12649.3	0.0399206	4827169
12656.7	0.0411562	4829483
12664.4	0.0424381	4830699
12672.1	0.0437405	4832018
12679.7	0.0450588	4833107
12687.4	0.0463866	4834793
12694.9	0.0477108	4834665
12702.4	0.0490522	4835134
12710	0.0504211	4835877
12718.6	0.0520016	4836506
12726.3	0.0534228	4836917
12733.9	0.0548594	4837849
12740.4	0.0560891	4838144
12747.9	0.0575088	4838716
12756.2	0.0591253	4838505
12763.7	0.060593	4838312
12771.4	0.0621136	4837806
12779.1	0.0636522	4837976
12786.7	0.0652072	4837833
12794.4	0.0667758	4838232
12801	0.0681353	4838938
12808.4	0.0696754	4839244
12815.9	0.0712358	4840193
12823.5	0.0728303	4840647
12831.2	0.0744418	4841255
12838.8	0.0760542	4841583
12846.5	0.0776658	4841978
12854.2	0.0792754	4843133
12861.6	0.0808337	4844706
12869.1	0.0823882	4845981
12876.6	0.0839556	4847019
12884.3	0.0855475	4848549
12891.8	0.0871035	4850141
12899.3	0.0886527	4851820
12907	0.0902252	4853396
12914.7	0.0917901	4855052
12922.3	0.0933462	4856385
12930	0.094888	4858891
12937.5	0.0963917	4860333
12945	0.0978815	4861376
12952.6	0.0993559	4862576
12960.2	0.10083	4864241
12967.8	0.102288	4865875
12974.5	0.103539	4866786
12982	0.104933	4867849
12989.6	0.106298	4868285
12997.1	0.107634	4869305
13004.6	0.108943	4869742
13012.1	0.110232	4870580
13019.7	0.111489	4871075
13027.2	0.112721	4872164
13034.8	0.11392	4872453
13042.3	0.11509	4873423
13049.9	0.116223	4873960
13057.4	0.117325	4874670
13065	0.118399	4875740
13072.6	0.119435	4875554
13080.1	0.120428	4876493
13087.7	0.121382	4875891
13095.2	0.122296	4876374
13102.7	0.123167	4877158
13110.3	0.123997	4877568
13117.8	0.124789	4877976
13125.5	0.12555	4878002
13133.1	0.126261	4878773
13140.7	0.126931	4879413
13148.3	0.127546	4880558
13155.9	0.128115	4881840
13163.4	0.128637	4883826
13170.1	0.129054	4886005
13177.6	0.129483	4887943
13185.2	0.129867	4890662
13192.9	0.130202	4892937
13200.5	0.130489	4894946
13208	0.130726	4897563
13215.5	0.130917	4899442
13223.1	0.131062	4901612
13230.7	0.131163	4903467
13238.3	0.131219	4905699
13244.9	0.131233	4907550
13252.5	0.131209	4909619
13260.1	0.131144	4911865
13267.7	0.13104	4914044
13275.3	0.130897	4916087
13283	0.130715	4918172
13290.6	0.130497	4919913
13298.3	0.130244	4921380
13305.8	0.12996	4923760
13312.5	0.129684	4925360
13320.2	0.129336	4927001
13327.8	0.128957	4928887
13335.5	0.12855	4930880
13343.1	0.128119	4932397
13350.7	0.127663	4935608
13358.3	0.127181	4937947
13365.9	0.126676	4939342
13372.6	0.126215	4940777
13380.2	0.125671	4943232
13387.9	0.125105	4945913
13395.5	0.124525	4947443
13403.1	0.123931	4949926
13410.7	0.123328	4951805
13418.3	0.122718	4952609
13424.9	0.122177	4954353
13432.4	0.121554	4956571
13439.9	0.120925	4957864
13447.4	0.120291	4958606
13455	0.119652	4959876
13461.6	0.119092	4960936
13469.2	0.118457	4962016
13476.8	0.11782	4963455
13484.4	0.117178	4964596
13492	0.116527	4965322
13499.6	0.115864	4965912
13507.2	0.115184	4967626
13513.8	0.114578	4967576
13521.4	0.113868	4967782
13529	0.113142	4969191
13536.5	0.112403	4968514
13544.1	0.111641	4968278
13551.6	0.110871	4967360
13558.3	0.110193	4967027
13565.8	0.109438	4966186
13573.2	0.108694	4965548
13580.6	0.107959	4964755
13587.1	0.107324	4964132
13594.5	0.106605	4963319
13602	0.105886	4963232
13609.6	0.105166	4963635
13617.2	0.104454	4963411
13623.8	0.103837	4964040
13631.3	0.103151	4964483
13638.7	0.102476	4964799
13646.1	0.101812	4965357
13653.6	0.101156	4965911
13661	0.10051	4966211
13667.5	0.0999525	4966128
13675	0.0993214	4967003
13682.4	0.0986968	4967169
13690	0.0980711	4967342
13697.6	0.0974481	4968319
13704.2	0.0969063	4968297
13711.8	0.0962915	4968784
13719.4	0.0956793	4968895
13726.9	0.0950774	4969658
13734.4	0.0944766	4971277
13740.9	0.0939514	4971477
13748.3	0.0933487	4972072
13755.7	0.0927423	4971956
13763.2	0.0921309	4972416
13770.6	0.0915132	4972596
13777.1	0.0909667	4972143
13784.5	0.090334	4972659
13792	0.0896901	4972780
13799.5	0.0890348	4974085
13806	0.0884521	4974969
13813.5	0.0877759	4975800
13820.9	0.0870912	4976154
13828.3	0.0863996	4976786
13835.6	0.085697	4977528
13842	0.0850751	4978062
13849.3	0.0843523	4978859
13856.5	0.0836177	4979425
13863.8	0.0828681	4980020
13870.1	0.082202	4980964
13877.3	0.0814269	4982049
13884.5	0.0806353	4983367
13891.8	0.0798264	4983994
13899	0.0790012	4984984
13905.2	0.0782687	4985468
13912.4	0.0774163	4986708
13919.5	0.0765448	4987026
13926.6	0.0756535	4987570
13933.8	0.074742	4987685
13940	0.0739273	4988871
13947.2	0.0729764	4990152
13954.3	0.0720036	4990377
13961.4	0.0710087	4990709
13967.7	0.0701195	4991818
13974.8	0.0690817	4992142
13982	0.0680203	4993137
13989.1	0.066935	4993472
13996.2	0.0658255	4994746
14002.5	0.0648343	4995805
14009.6	0.0636781	4996135
14016.8	0.0624966	4996606
14023	0.0614417	4997427
14030.2	0.0602117	4997958
14037.3	0.0589554	4998476
14044.4	0.0576725	4998701
14051.6	0.0563627	4998957
14057.8	0.0551943	4999330
14065	0.0538333	5000140
14072.1	0.0524447	5000598
14078.4	0.0512068	5000516
14085.5	0.0497659	5000586
14092.6	0.0482958	5000458
14099.8	0.0467979	5000060
14106.9	0.0452724	5000574
14113.2	0.0439152	5001405
14120.3	0.0423388	5001569
14127.6	0.0407099	5002748
14134.9	0.0390452	5004122
14142.2	0.0373525	5005825
14148.7	0.0358286	5006889
14156.2	0.0340489	5008232
14163.7	0.0322349	5010444
14171.3	0.0303836	5012458
14178.9	0.0284932	5014025
14185.6	0.0268166	5015798
14193.3	0.0248806	5017014
14200.8	0.02296	5017111
14208.3	0.021035	5017257
14214.8	0.0193521	5016842
14222.3	0.0174248	5015790
14229.8	0.0154898	5014639
14237.2	0.0135525	5014305
14244.9	0.011557	5012547
14251.5	0.0098228	5011647
14259	0.00784416	5010335
14266.4	0.00586733	5008588
14273.9	0.00385912	5006285
14280.6	0.0020628	5004077
14288.2	2.77336e-05	5003316
14295.6	-0.00198296	5001425
14302.2	-0.00374079	5000236
14309.6	-0.00575535	4999821
14317.1	-0.00776216	4999003
14324.5	-0.00976521	4998778
14332	-0.0117634	4997618
14338.5	-0.0135121	4996423
14346.1	-0.0155204	4995286
14353.6	-0.0175359	4994400
14361.3	-0.0195601	4994001
14368.9	-0.0215757	4992624
14375.6	-0.0233316	4992937
14383.3	-0.0253286	4992370
14390.9	-0.0273147	4991556
14398.6	-0.0292892	4990756
14405.3	-0.0310068	4989502
14412.9	-0.0329577	4988183
14420.5	-0.0348631	4986202
14427.9	-0.0367358	4984737
14434.4	-0.0383633	4983999
14441.9	-0.0402134	4982333
14449.3	-0.042051	4980234
14456.8	-0.0438739	4976877
14463.3	-0.0454567	4973977
14470.8	-0.0472528	4971518
14478.3	-0.0490348	4968596
14485.7	-0.0507957	4965867
14493.2	-0.052542	4963146
14499.7	-0.0540583	4961222
14507.2	-0.0557781	4958267
14514.6	-0.05749	4955931
14522	-0.0591669	4954383
14529.4	-0.0608432	4952515
14537.1	-0.0625504	4951071
14543.7	-0.0640303	4949845
14551.3	-0.0657134	4947719
14558.9	-0.0673727	4945068
14566.5	-0.0690321	4943241
14574	-0.0706667	4940493
14581.6	-0.0722921	4936958
14589.1	-0.0739101	4935201
14595.7	-0.0753121	4933218
14603.2	-0.0769067	4930223
14610.7	-0.0784877	4927944
14618.1	-0.0800499	4924397
14625.5	-0.0816036	4921553
14633	-0.0831483	4919319
14640.4	-0.0846848	4917174
14647	-0.0860319	4915305
14654.5	-0.0875625	4913353
14662	-0.0890822	4912341
14669.5	-0.0905904	4910533
14677	-0.0920882	4909168
14684.5	-0.0935754	4906994
14692.1	-0.0950517	4903589
14699.6	-0.0965121	4900188
14707.2	-0.0979635	4896693
14714.8	-0.0993873	4892275
14722.4	-0.100805	4888338
14729.9	-0.102186	4883343
14737.5	-0.103543	4879417
14744.1	-0.104711	4875260
14751.6	-0.106022	4870343
14759.2	-0.107306	4865564
14766.7	-0.108566	4860326
14774.2	-0.109789	4856054
14781.7	-0.110982	4851848
14789.2	-0.112145	4846794
14796.7	-0.113276	4841618
14804.3	-0.114377	4836922
14811.8	-0.115451	4832375
14819.4	-0.116491	4827903
14826.9	-0.117484	4822407
14834.5	-0.11845	4818053
14842.1	-0.119372	4812981
14849.7	-0.120263	4807552
14857.3	-0.121119	4802109
14865	-0.121933	4796605
14872.6	-0.122705	4790518
14880.3	-0.123434	4784619
14887.9	-0.124119	4779383
14895.6	-0.124761	4773981
14903.2	-0.125357	4769438
14910.9	-0.125906	4764544
14918.4	-0.126405	4759838
14926	-0.126858	4755452
14934.4	-0.127313	4751193
14942	-0.127669	4747012
14949.6	-0.127982	4743679
14957.3	-0.128247	4738919
14964.9	-0.128463	4734987
14972.3	-0.128629	4731225
14979.7	-0.128749	4727779
14987.3	-0.128825	4724334
14994.8	-0.128854	4721443
15002.3	-0.128837	4718847
15009.8	-0.128775	4714793
15018.2	-0.128654	4710799
15025.7	-0.128501	4707118
15033.1	-0.128306	4703306
15040.7	-0.128066	4699988
15048.3	-0.127783	4695345
15055.9	-0.12746	4690240
15063.4	-0.127103	4685568
15070.8	-0.126707	4681527
15079.2	-0.126214	4675577
15086.6	-0.125734	4671125
15094.1	-0.125214	4665686
15101.5	-0.124658	4659733
15109.7	-0.123987	4653639
15117.1	-0.123348	4648473
15124.4	-0.12267	4642779
15131.7	-0.12195	4636544
15139.1	-0.121188	4630907
15147.3	-0.120277	4625151
15154.6	-0.119421	4620182
15162	-0.11852	4615202
15170.2	-0.117452	4609347
15177.5	-0.116453	4604203
15184.9	-0.115408	4600073
15192.2	-0.114317	4594941
15200.4	-0.113033	4589381
15207.8	-0.111841	4583414
15215.1	-0.110603	4578299
15223.4	-0.109153	4572031
15230.7	-0.107814	4566287
15238	-0.106428	4560296
15246.3	-0.104811	4555145
15253.6	-0.103323	4549586
15261.8	-0.101591	4542663
15269.2	-0.0999996	4537024
15277.4	-0.0981513	4530120
15284.7	-0.0964563	4524698
15293	-0.0944907	4517595
15300.3	-0.0926913	4511586
15308.5	-0.0906083	4506215
15315.9	-0.0887051	4500173
15324.1	-0.0865064	4494422
15331.5	-0.0845015	4489834
15338.8	-0.0824501	4484556
15347	-0.080088	4478751
15355.3	-0.07767	4472876
15362.6	-0.0754753	4467263
15370.8	-0.0729569	4461624
15378.2	-0.070674	4456425
15386.5	-0.0680528	4450724
15393.8	-0.0656803	4445111
15402.1	-0.0629664	4439231
15409.5	-0.0605178	4433379
15417.9	-0.0577133	4427493
15426.4	-0.0548507	4421504
15433.9	-0.0522543	4415302
15442.4	-0.0492827	4408923
15450.9	-0.0470906	4403067
15458.4	-0.0447935	4397744
15466.9	-0.0413054	4392029
15475.3	-0.0376399	4386389
15482.9	-0.0344509	4381819
15491.4	-0.0309567	4375999
15499.9	-0.027232	4370893
15507.5	-0.0234149	4366100
15516	-0.0191914	4360249
15524.4	-0.0152724	4353895
15532.9	-0.0115556	4347062
15540.6	-0.00827844	4341994
15549.1	-0.00466712	4335941
15557.6	-0.00103564	4329762
15566	0.00259715	4324172
15573.5	0.00582981	4318964
15582	0.00947606	4313835
15590.4	0.013116	4308196
15598.9	0.0167166	4301986
15607.4	0.0202503	4295924
15615	0.0233547	4290739
15623.6	0.0268257	4283745
15632.1	0.0302143	4277959
15640.6	0.0335434	4272213
15649.2	0.0368543	4266296
15657.8	0.0400786	4260900
15666.4	0.043182	4255311
15674.8	0.0461357	4250334
15683.3	0.0489781	4245440
15691.7	0.0517063	4240972
15700.1	0.0543162	4234276
15708.6	0.0568011	4229203
15717.1	0.0591568	4223897
15725.6	0.0613768	4218463
15734.1	0.0634478	4213200
15741.8	0.0651571	4208443
15751.3	0.0670955	4201607
15759.9	0.0686487	4195959
15768.4	0.0699918	4190140
15776.7	0.0711344	4184825
15785.1	0.0720845	4179500
15793.4	0.0728435	4173520
15801.9	0.073427	4167489
15810.3	0.0737985	4161324
15818.7	0.0739527	4154482
15827.2	0.0740139	4148361
15835.7	0.0739155	4140447
15844.1	0.0736497	4134099
15853.6	0.0732651	4127173
15862.1	0.0725228	4120889
15870.5	0.0715301	4114466
15879	0.0703389	4108312
15887.5	0.0689225	4102031
15896.1	0.0673226	4095610
15905.6	0.0653802	4088454
15914.1	0.0634632	4081730
15922.6	0.0613723	4074644
15931	0.0591427	4067844
15940.3	0.0564737	4060798
15948.8	0.0538913	4053547
15957.3	0.0511558	4046839
15966.7	0.0480186	4039508
15975.1	0.045075	4033135
15983.6	0.041977	4026413
15993.1	0.0383755	4018855
16001.7	0.0365326	4012738
16010.1	0.0333767	4005891
16019.5	0.0293255	3998670
16027.9	0.0257145	3993070
16037.1	0.0216262	3986154
16045.4	0.0177721	3980050
16054.8	0.0130306	3973331
16063.3	0.00877695	3967277
16072.6	0.00414534	3960237
16081	-6.23741e-06	3953117
16090.3	-0.0046498	3945223
16099.6	-0.00938389	3938340
16107.9	-0.0137727	3931765
16117.2	-0.0187797	3924270
16125.6	-0.023347	3916963
16134.9	-0.0284218	3908683
16143.2	-0.0329591	3902357
16152.5	-0.0379737	3894601
16161.8	-0.0429874	3887103
16170.2	-0.0475135	3880642
16179.5	-0.0525472	3873363
16188.8	-0.0575515	3865854
16197.2	-0.0619947	3859664
16206.5	-0.0668339	3853710
16215.8	-0.0715559	3847478
16224.1	-0.0757011	3841547
16233.5	-0.0802155	3834702
16242.9	-0.0846041	3827316
16252.3	-0.0888389	3820684
16261.7	-0.0928572	3813884
16270	-0.0962368	3807061
16279.2	-0.0997821	3799803
16288.6	-0.103168	3791752
16298	-0.106299	3783784
16307.3	-0.109159	3776613
16316.6	-0.111766	3769264
16326	-0.114121	3760898
16335.4	-0.116195	3753633
16344.8	-0.117977	3746366
16354.4	-0.119495	3738841
16363.9	-0.120715	3731718
16373.5	-0.121683	3725027
16382.7	-0.122654	3718349
16392	-0.122646	3712908
16401.3	-0.122401	3707210
16410.7	-0.12196	3700849
16420	-0.121247	3694749
16429.3	-0.1203	3687674
16438.8	-0.119169	3681666
16448.2	-0.117847	3675345
16457.6	-0.116317	3668786
16468	-0.114401	3661935
16477.4	-0.112448	3655078
16486.9	-0.110313	3648945
16496.3	-0.108022	3643100
16505.4	-0.105632	3637641
16514.7	-0.103086	3632048
16525	-0.10009	3625120
16534.4	-0.0972365	3618925
16543.8	-0.0942688	3612378
16554.1	-0.0908939	3606533
16563.5	-0.087741	3601901
16572.9	-0.0845296	3595836
16582.3	-0.0812847	3590083
16592.5	-0.0777242	3583956
16601.8	-0.0744821	3578065
16611.1	-0.0712473	3572278
16621.3	-0.0677034	3566581
16630.7	-0.0644851	3561684
16641.1	-0.0609927	3556021
16650.4	-0.0578738	3549793
16659.8	-0.0548181	3543665
16670.2	-0.051542	3538295
16679.6	-0.0486511	3533557
16689.9	-0.0455754	3527713
16699.3	-0.0428784	3522593
16709.6	-0.0400229	3516486
16719	-0.0375434	3510615
16729.4	-0.0349421	3504201
16738.8	-0.032696	3498981
16749.2	-0.0303301	3492867
16759.7	-0.0281059	3487654
16769.2	-0.026212	3481065
16779.5	-0.0243052	3475434
16788.8	-0.0226946	3470201
16799	-0.0210435	3463766
16809.3	-0.0195088	3456946
16818.7	-0.0181938	3449568
16829	-0.0168484	3441710
16839.5	-0.0155866	3433379
16850	-0.0144092	3425485
16859.5	-0.013414	3418730
16869.9	-0.0123863	3411148
16880.4	-0.0114199	3403327
16890.9	-0.0105186	3395568
16901.5	-0.00968897	3387411
16912	-0.00887722	3379469
16921.5	-0.00815892	3372086
16932.1	-0.00730162	3363558
16942.6	-0.00683648	3356299
16953.1	-0.00627203	3348393
16963.6	-0.00566417	3340829
16974	-0.00507324	3333015
16984.4	-0.0045082	3325949
16995.6	-0.00390748	3317829
17005.9	-0.00335881	3310697
17016.3	-0.00280114	3303147
17026.7	-0.00223089	3296651
17037.2	-0.00163714	3289045
17047.7	-0.00103026	3281583
17059.1	-0.000363921	3273857
17069.6	0.000257023	3266068
17080.1	0.00088276	3257973
17090.6	0.00151343	3250423
17102.1	0.00220924	3242008
17112.6	0.00285664	3233989
17123.1	0.00351498	3226452
17134.6	0.0042464	3218595
17145.1	0.00492836	3211581
17156.6	0.00568301	3203495
17167.1	0.00638238	3196196
17178.6	0.00715099	3189148
17189.1	0.00785841	3181907
17200.6	0.00863062	3174185
17211.1	0.00933655	3167115
17222.6	0.0101018	3159975
17234	0.010859	3153858
17244.5	0.0115405	3148778
17255.8	0.0122649	3142693
17267.2	0.0129721	3136632
17278.6	0.0136612	3130038
17289.1	0.0142756	3124548
17300.5	0.0149171	3118438
17312	0.0155225	3112012
17323.2	0.0160774	3105573
17334.4	0.0165917	3100308
17344.8	0.0170313	3094682
17356.3	0.0174722	3088781
17367.8	0.0178672	3081727
17379.2	0.018216	3073710
17390.7	0.0185186	3066716
17402.2	0.0187748	3059393
17413.5	0.0189821	3052374
17424.7	0.0191415	3045096
17435.9	0.0192578	3038683
17447.4	0.0193314	3032657
17458.9	0.0193602	3026534
17470.3	0.0193456	3019987
17481.8	0.0192885	3013840
17493.3	0.0191899	3007601
17504.7	0.0190503	3002342
17516.2	0.01887	2996944
17528.6	0.018629	2991083
17540.1	0.0183649	2985617
17551.6	0.0180618	2979779
17563	0.0177215	2974375
17574.5	0.0173464	2969771
17586.9	0.0169046	2963744
17598.4	0.0164681	2959175
17609.9	0.0160085	2953745
17621.4	0.0155302	2949172
17633.8	0.0149962	2944052
17645.2	0.0144935	2939748
17657.7	0.0139435	2934703
17669.1	0.0134355	2930302
17680.6	0.0129312	2926153
17693	0.0123936	2921254
17704.5	0.0119094	2916269
17716.9	0.0114025	2910654
17728.4	0.0109546	2906012
17740.7	0.0104994	2900872
17752	0.0101105	2895673
17764.2	0.00972228	2890644
17775.5	0.00939701	2886031
17787.7	0.00908571	2880056
17799.1	0.00883623	2874674
17811.5	0.00861399	2868044
17822.8	0.00845564	2862980
17835.1	0.00833608	2856812
17846.5	0.00827469	2850456
17858.9	0.00826197	2843318
17871.2	0.00830546	2836531
17883.4	0.00840253	2829658
17895.6	0.00855186	2822818
17906.9	0.00873464	2816720
17919.1	0.00897759	2810159
17931.3	0.00926546	2803588
17943.7	0.00959835	2796077
17956.1	0.00997084	2788955
17968.5	0.0103749	2782569
17980.8	0.0108046	2776594
17993.1	0.0112566	2770626
18005.4	0.0117339	2764581
18017.7	0.012226	2758546
18030.1	0.0127169	2753222
18042.5	0.01319	2747919
18054.8	0.0136439	2743435
18067.1	0.0140754	2739706
18079.3	0.0144823	2734408
18092.4	0.0148924	2729023
18104.7	0.0152432	2723902
18116.9	0.0155589	2719148
18129.3	0.0158372	2714212
18141.7	0.0160697	2708549
18154	0.0162513	2703780
18166.1	0.0163807	2699076
18179	0.0164636	2694182
18191.1	0.0164864	2688696
18203.1	0.0164553	2683555
18216.1	0.0163605	2677629
18228.2	0.0162144	2673253
18241.4	0.015991	2667205
18253.7	0.0157249	2661540
18266.8	0.0153778	2656124
18279	0.0149977	2651918
18292.1	0.0145314	2647233
18304.5	0.014037	2643149
18317.9	0.0134504	2638464
18330.9	0.0128266	2634542
18343	0.0122033	2630545
18356.3	0.0114792	2625771
18368.5	0.0107855	2621723
18381.6	0.0100022	2617479
18394.7	0.0091995	2612441
18406.9	0.00842535	2607106
18420.2	0.0075687	2601737
18433.3	0.00671111	2596156
18445.4	0.0059068	2591284
18458.8	0.00502217	2585617
18472.1	0.00414664	2580158
18484.4	0.00334235	2575111
18497.7	0.00248353	2569519
18511	0.00164092	2564134
18524.4	0.000820526	2559066
18537.7	2.61107e-05	2553628
18551.1	-0.000739047	2547557
18564.5	-0.00147213	2542240
18577.8	-0.00217076	2536971
18591.2	-0.00283287	2531636
18604.5	-0.00345643	2526134
18616.9	-0.00399924	2521029
18630.3	-0.0045432	2515512
18643.6	-0.00504374	2509774
18657	-0.00549989	2504073
18670.3	-0.00591109	2497961
18684.6	-0.00630164	2491873
18698	-0.00661975	2486304
18711.3	-0.00689371	2480594
18724.7	-0.00712444	2475003
18738	-0.007313	2470314
18752.3	-0.00746952	2465332
18765.7	-0.00757414	2460729
18780	-0.00764248	2456521
18793.4	-0.00766548	2452893
18806.7	-0.00764843	2449157
18821	-0.00758422	2445230
18834.4	-0.00747928	2441728
18848.7	-0.00731566	2437470
18862	-0.00711202	2434565
18875.4	-0.00685587	2431674
18889.7	-0.00651923	2428008
18903	-0.00614315	2424501
18917.3	-0.00566965	2420874
18930.7	-0.0051579	2417385
18945	-0.00453046	2413634
18958.4	-0.00386713	2410292
18972.7	-0.00306907	2406893
18986	-0.00223923	2403114
19000.3	-0.00125555	2399727
19014.6	-0.000170766	2396803
19028	0.000935601	2393960
19042.3	0.00222413	2391596
19055.6	0.00352491	2388885
19069.9	0.0050252	2385813
19084.3	0.00663635	2382671
19098.6	0.00835794	2379530
19111.9	0.0100631	2376491
19126.2	0.011993	2372432
19140.5	0.0140261	2368532
19153.9	0.0160134	2364952
19168.2	0.0182342	2361009
19182.5	0.0205449	2356550
19196.8	0.0229398	2351989
19210.1	0.0252445	2348061
19225.3	0.0279383	2342700
19238.6	0.0303507	2338615
19252.9	0.0329958	2334199
19267.1	0.0356798	2329892
19281.4	0.0383882	2325606
19295.7	0.0411129	2320426
19310	0.0438332	2316097
19324.3	0.0465332	2311383
19338.6	0.0491966	2307031
19352.9	0.0517956	2303248
19367.1	0.0543228	2298725
19382.3	0.0569279	2294203
19396.5	0.0592706	2289988
19410.7	0.061503	2286234
19424.9	0.0636119	2282485
19440.1	0.0657099	2278179
19454.3	0.0675202	2274572
19468.5	0.0691647	2271185
19482.7	0.0706289	2267629
19496.9	0.0718986	2263667
19512.1	0.0730234	2259007
19526.3	0.0738496	2255478
19540.5	0.0744438	2252204
19555.7	0.0748123	2248544
19569.9	0.0749021	2244608
19585	0.0747206	2240401
19599.2	0.074287	2236318
19613.4	0.0735971	2231999
19627.6	0.0726532	2228600
19642.7	0.0713712	2224438
19656.8	0.0699063	2221024
19671.8	0.0680593	2217332
19686	0.0660512	2213344
19701.2	0.0636186	2209228
19716.3	0.0609021	2205704
19730.5	0.0581074	2202266
19745.7	0.05489	2198048
19759.9	0.0516678	2193850
19775.1	0.0480518	2189858
19789.3	0.0445282	2185397
19804.4	0.0406649	2181318
19818.7	0.0369771	2177381
19833.8	0.033005	2172857
19849	0.0290228	2168894
19863.2	0.0253055	2165239
19878.4	0.0213848	2161118
19893.5	0.0175385	2157958
19908.7	0.0137947	2154386
19922.9	0.0103999	2150713
19938.1	0.00691945	2146915
19953.2	0.00364072	2143035
19968.4	0.00162199	2139544
19983.4	-0.00113513	2136531
19998.2	-0.00416246	2133463
