STARTING WORLD SCHEDULER SERVER
CLIENT SETUP: adding client 41396
 + TIMESTAMP: 0.208171
START TIMESTAMP: 0.208202
+++++++++++++++++++++++++++++++++++++++++++++++++++++++++++
+ Client Mapping:
  > Client 41396 (0):	

+ Core Mapping:	0 0 0 0 0 0 0 0 0 0 0 0 0 0 0 0 0 0 0 0 0 0 0 0 0 0 0 0 0 0 0 0 0 0 0 0 0 0 0 0 
+ Optimal point: 
+++++++++++++++++++++++++++++++++++++++++++++++++++++++++++
INVADE: client 41396
 + TIMESTAMP: 0.21227
RESSOURCE DISTRIBUTION CHANGED
++++++++++++++++++++++++++++++++++++++++++++++++
INVADE (41396)
  + pid: 41396
  + min_cores: 1
  + max_cores: 512
  + scalability graph: 
1, 1.36329, 1.52423, 1.62017, 1.68565, 1.73398, 1.77154, 1.80182, 1.8269, 1.84812, 1.86637, 1.88229, 1.89634, 1.90885, 1.92009, 1.93026, 1.93952, 1.94799, 1.95579, 1.963, 1.96968, 1.9759, 1.98172, 1.98716, 1.99228, 1.9971, 2.00164, 2.00594, 2.01002, 2.01389, 2.01757, 2.02108, 2.02443, 2.02763, 2.03069, 2.03362, 2.03644, 2.03914, 2.04173, 2.04423, 
Number of clients: 1

+++++++++++++++++++++++++++++++++++++++++++++++++++++++++++
+ Client Mapping:
  > Client 41396 (40):	0 1 2 3 4 5 6 7 8 9 10 11 12 13 14 15 16 17 18 19 20 21 22 23 24 25 26 27 28 29 30 31 32 33 34 35 36 37 38 39 

+ Core Mapping:	41396 41396 41396 41396 41396 41396 41396 41396 41396 41396 41396 41396 41396 41396 41396 41396 41396 41396 41396 41396 41396 41396 41396 41396 41396 41396 41396 41396 41396 41396 41396 41396 41396 41396 41396 41396 41396 41396 41396 41396 
+ Optimal point: 40 
+++++++++++++++++++++++++++++++++++++++++++++++++++++++++++
CLIENT SETUP: adding client 41394
 + TIMESTAMP: 0.232157
+++++++++++++++++++++++++++++++++++++++++++++++++++++++++++
+ Client Mapping:
  > Client 41396 (40):	0 1 2 3 4 5 6 7 8 9 10 11 12 13 14 15 16 17 18 19 20 21 22 23 24 25 26 27 28 29 30 31 32 33 34 35 36 37 38 39 
  > Client 41394 (0):	

+ Core Mapping:	41396 41396 41396 41396 41396 41396 41396 41396 41396 41396 41396 41396 41396 41396 41396 41396 41396 41396 41396 41396 41396 41396 41396 41396 41396 41396 41396 41396 41396 41396 41396 41396 41396 41396 41396 41396 41396 41396 41396 41396 
+ Optimal point: 40 
+++++++++++++++++++++++++++++++++++++++++++++++++++++++++++
CLIENT SETUP: adding client 41395
 + TIMESTAMP: 0.232245
+++++++++++++++++++++++++++++++++++++++++++++++++++++++++++
+ Client Mapping:
  > Client 41396 (40):	0 1 2 3 4 5 6 7 8 9 10 11 12 13 14 15 16 17 18 19 20 21 22 23 24 25 26 27 28 29 30 31 32 33 34 35 36 37 38 39 
  > Client 41394 (0):	
  > Client 41395 (0):	

+ Core Mapping:	41396 41396 41396 41396 41396 41396 41396 41396 41396 41396 41396 41396 41396 41396 41396 41396 41396 41396 41396 41396 41396 41396 41396 41396 41396 41396 41396 41396 41396 41396 41396 41396 41396 41396 41396 41396 41396 41396 41396 41396 
+ Optimal point: 40 
+++++++++++++++++++++++++++++++++++++++++++++++++++++++++++
INVADE: client 41395
 + TIMESTAMP: 0.232326
INVADE: client 41394
 + TIMESTAMP: 0.24824
CLIENT SETUP: adding client 41393
 + TIMESTAMP: 0.260246
+++++++++++++++++++++++++++++++++++++++++++++++++++++++++++
+ Client Mapping:
  > Client 41396 (40):	0 1 2 3 4 5 6 7 8 9 10 11 12 13 14 15 16 17 18 19 20 21 22 23 24 25 26 27 28 29 30 31 32 33 34 35 36 37 38 39 
  > Client 41394 (0):	
  > Client 41395 (0):	
  > Client 41393 (0):	

+ Core Mapping:	41396 41396 41396 41396 41396 41396 41396 41396 41396 41396 41396 41396 41396 41396 41396 41396 41396 41396 41396 41396 41396 41396 41396 41396 41396 41396 41396 41396 41396 41396 41396 41396 41396 41396 41396 41396 41396 41396 41396 41396 
+ Optimal point: 14 13 13 
+++++++++++++++++++++++++++++++++++++++++++++++++++++++++++
INVADE: client 41393
 + TIMESTAMP: 0.260343
++++++++++++++++++++++++++++++++++++++++++++++++
 + TIMESTAMP: 0.301146
REINVADE (41396)
  + pid: 41396
  + min_cores: 1
  + max_cores: 512
  + scalability graph: 
1, 1.36329, 1.52423, 1.62017, 1.68565, 1.73398, 1.77154, 1.80182, 1.8269, 1.84812, 1.86637, 1.88229, 1.89634, 1.90885, 1.92009, 1.93026, 1.93952, 1.94799, 1.95579, 1.963, 1.96968, 1.9759, 1.98172, 1.98716, 1.99228, 1.9971, 2.00164, 2.00594, 2.01002, 2.01389, 2.01757, 2.02108, 2.02443, 2.02763, 2.03069, 2.03362, 2.03644, 2.03914, 2.04173, 2.04423, 
Number of clients: 4

+++++++++++++++++++++++++++++++++++++++++++++++++++++++++++
+ Client Mapping:
  > Client 41396 (10):	30 31 32 33 34 35 36 37 38 39 
  > Client 41394 (0):	
  > Client 41395 (0):	
  > Client 41393 (0):	

+ Core Mapping:	0 0 0 0 0 0 0 0 0 0 0 0 0 0 0 0 0 0 0 0 0 0 0 0 0 0 0 0 0 0 41396 41396 41396 41396 41396 41396 41396 41396 41396 41396 
+ Optimal point: 10 10 10 10 
+++++++++++++++++++++++++++++++++++++++++++++++++++++++++++
++++++++++++++++++++++++++++++++++++++++++++++++
 + TIMESTAMP: 0.316142
REINVADE (41395)
  + pid: 41395
  + min_cores: 1
  + max_cores: 512
  + scalability graph: 
1, 1.36329, 1.52423, 1.62017, 1.68565, 1.73398, 1.77154, 1.80182, 1.8269, 1.84812, 1.86637, 1.88229, 1.89634, 1.90885, 1.92009, 1.93026, 1.93952, 1.94799, 1.95579, 1.963, 1.96968, 1.9759, 1.98172, 1.98716, 1.99228, 1.9971, 2.00164, 2.00594, 2.01002, 2.01389, 2.01757, 2.02108, 2.02443, 2.02763, 2.03069, 2.03362, 2.03644, 2.03914, 2.04173, 2.04423, 
Number of clients: 4

+++++++++++++++++++++++++++++++++++++++++++++++++++++++++++
+ Client Mapping:
  > Client 41396 (10):	30 31 32 33 34 35 36 37 38 39 
  > Client 41394 (0):	
  > Client 41395 (10):	0 1 2 3 4 5 6 7 8 9 
  > Client 41393 (0):	

+ Core Mapping:	41395 41395 41395 41395 41395 41395 41395 41395 41395 41395 0 0 0 0 0 0 0 0 0 0 0 0 0 0 0 0 0 0 0 0 41396 41396 41396 41396 41396 41396 41396 41396 41396 41396 
+ Optimal point: 10 10 10 10 
+++++++++++++++++++++++++++++++++++++++++++++++++++++++++++
++++++++++++++++++++++++++++++++++++++++++++++++
 + TIMESTAMP: 0.316617
REINVADE (41394)
  + pid: 41394
  + min_cores: 1
  + max_cores: 512
  + scalability graph: 
1, 1.36329, 1.52423, 1.62017, 1.68565, 1.73398, 1.77154, 1.80182, 1.8269, 1.84812, 1.86637, 1.88229, 1.89634, 1.90885, 1.92009, 1.93026, 1.93952, 1.94799, 1.95579, 1.963, 1.96968, 1.9759, 1.98172, 1.98716, 1.99228, 1.9971, 2.00164, 2.00594, 2.01002, 2.01389, 2.01757, 2.02108, 2.02443, 2.02763, 2.03069, 2.03362, 2.03644, 2.03914, 2.04173, 2.04423, 
Number of clients: 4

+++++++++++++++++++++++++++++++++++++++++++++++++++++++++++
+ Client Mapping:
  > Client 41396 (10):	30 31 32 33 34 35 36 37 38 39 
  > Client 41394 (10):	10 11 12 13 14 15 16 17 18 19 
  > Client 41395 (10):	0 1 2 3 4 5 6 7 8 9 
  > Client 41393 (0):	

+ Core Mapping:	41395 41395 41395 41395 41395 41395 41395 41395 41395 41395 41394 41394 41394 41394 41394 41394 41394 41394 41394 41394 0 0 0 0 0 0 0 0 0 0 41396 41396 41396 41396 41396 41396 41396 41396 41396 41396 
+ Optimal point: 10 10 10 10 
+++++++++++++++++++++++++++++++++++++++++++++++++++++++++++
++++++++++++++++++++++++++++++++++++++++++++++++
 + TIMESTAMP: 0.342337
REINVADE (41393)
  + pid: 41393
  + min_cores: 1
  + max_cores: 512
  + scalability graph: 
1, 1.36329, 1.52423, 1.62017, 1.68565, 1.73398, 1.77154, 1.80182, 1.8269, 1.84812, 1.86637, 1.88229, 1.89634, 1.90885, 1.92009, 1.93026, 1.93952, 1.94799, 1.95579, 1.963, 1.96968, 1.9759, 1.98172, 1.98716, 1.99228, 1.9971, 2.00164, 2.00594, 2.01002, 2.01389, 2.01757, 2.02108, 2.02443, 2.02763, 2.03069, 2.03362, 2.03644, 2.03914, 2.04173, 2.04423, 
Number of clients: 4

+++++++++++++++++++++++++++++++++++++++++++++++++++++++++++
+ Client Mapping:
  > Client 41396 (10):	30 31 32 33 34 35 36 37 38 39 
  > Client 41394 (10):	10 11 12 13 14 15 16 17 18 19 
  > Client 41395 (10):	0 1 2 3 4 5 6 7 8 9 
  > Client 41393 (10):	20 21 22 23 24 25 26 27 28 29 

+ Core Mapping:	41395 41395 41395 41395 41395 41395 41395 41395 41395 41395 41394 41394 41394 41394 41394 41394 41394 41394 41394 41394 41393 41393 41393 41393 41393 41393 41393 41393 41393 41393 41396 41396 41396 41396 41396 41396 41396 41396 41396 41396 
+ Optimal point: 10 10 10 10 
+++++++++++++++++++++++++++++++++++++++++++++++++++++++++++
CLIENT SHUTDOWN: client 41396
 + TIMESTAMP: 22.3121
+++++++++++++++++++++++++++++++++++++++++++++++++++++++++++
+ Client Mapping:
  > Client 41396 (0):	
  > Client 41394 (10):	10 11 12 13 14 15 16 17 18 19 
  > Client 41395 (10):	0 1 2 3 4 5 6 7 8 9 
  > Client 41393 (10):	20 21 22 23 24 25 26 27 28 29 

+ Core Mapping:	41395 41395 41395 41395 41395 41395 41395 41395 41395 41395 41394 41394 41394 41394 41394 41394 41394 41394 41394 41394 41393 41393 41393 41393 41393 41393 41393 41393 41393 41393 0 0 0 0 0 0 0 0 0 0 
+ Optimal point: 10 10 10 10 
+++++++++++++++++++++++++++++++++++++++++++++++++++++++++++
client (41396) shutdown hint: 437.984
sum_client_shutdown_hint: 437.984
++++++++++++++++++++++++++++++++++++++++++++++++
 + TIMESTAMP: 22.3123
REINVADE (41393)
  + pid: 41393
  + min_cores: 1
  + max_cores: 512
  + scalability graph: 
1, 1.36329, 1.52423, 1.62017, 1.68565, 1.73398, 1.77154, 1.80182, 1.8269, 1.84812, 1.86637, 1.88229, 1.89634, 1.90885, 1.92009, 1.93026, 1.93952, 1.94799, 1.95579, 1.963, 1.96968, 1.9759, 1.98172, 1.98716, 1.99228, 1.9971, 2.00164, 2.00594, 2.01002, 2.01389, 2.01757, 2.02108, 2.02443, 2.02763, 2.03069, 2.03362, 2.03644, 2.03914, 2.04173, 2.04423, 
Number of clients: 3

+++++++++++++++++++++++++++++++++++++++++++++++++++++++++++
+ Client Mapping:
  > Client 41394 (10):	10 11 12 13 14 15 16 17 18 19 
  > Client 41395 (10):	0 1 2 3 4 5 6 7 8 9 
  > Client 41393 (13):	20 21 22 23 24 25 26 27 28 29 30 31 32 

+ Core Mapping:	41395 41395 41395 41395 41395 41395 41395 41395 41395 41395 41394 41394 41394 41394 41394 41394 41394 41394 41394 41394 41393 41393 41393 41393 41393 41393 41393 41393 41393 41393 41393 41393 41393 0 0 0 0 0 0 0 
+ Optimal point: 14 13 13 
+++++++++++++++++++++++++++++++++++++++++++++++++++++++++++
++++++++++++++++++++++++++++++++++++++++++++++++
 + TIMESTAMP: 22.3125
REINVADE (41394)
  + pid: 41394
  + min_cores: 1
  + max_cores: 512
  + scalability graph: 
1, 1.36329, 1.52423, 1.62017, 1.68565, 1.73398, 1.77154, 1.80182, 1.8269, 1.84812, 1.86637, 1.88229, 1.89634, 1.90885, 1.92009, 1.93026, 1.93952, 1.94799, 1.95579, 1.963, 1.96968, 1.9759, 1.98172, 1.98716, 1.99228, 1.9971, 2.00164, 2.00594, 2.01002, 2.01389, 2.01757, 2.02108, 2.02443, 2.02763, 2.03069, 2.03362, 2.03644, 2.03914, 2.04173, 2.04423, 
Number of clients: 3

+++++++++++++++++++++++++++++++++++++++++++++++++++++++++++
+ Client Mapping:
  > Client 41394 (14):	10 11 12 13 14 15 16 17 18 19 33 34 35 36 
  > Client 41395 (10):	0 1 2 3 4 5 6 7 8 9 
  > Client 41393 (13):	20 21 22 23 24 25 26 27 28 29 30 31 32 

+ Core Mapping:	41395 41395 41395 41395 41395 41395 41395 41395 41395 41395 41394 41394 41394 41394 41394 41394 41394 41394 41394 41394 41393 41393 41393 41393 41393 41393 41393 41393 41393 41393 41393 41393 41393 41394 41394 41394 41394 0 0 0 
+ Optimal point: 14 13 13 
+++++++++++++++++++++++++++++++++++++++++++++++++++++++++++
++++++++++++++++++++++++++++++++++++++++++++++++
 + TIMESTAMP: 22.3126
REINVADE (41395)
  + pid: 41395
  + min_cores: 1
  + max_cores: 512
  + scalability graph: 
1, 1.36329, 1.52423, 1.62017, 1.68565, 1.73398, 1.77154, 1.80182, 1.8269, 1.84812, 1.86637, 1.88229, 1.89634, 1.90885, 1.92009, 1.93026, 1.93952, 1.94799, 1.95579, 1.963, 1.96968, 1.9759, 1.98172, 1.98716, 1.99228, 1.9971, 2.00164, 2.00594, 2.01002, 2.01389, 2.01757, 2.02108, 2.02443, 2.02763, 2.03069, 2.03362, 2.03644, 2.03914, 2.04173, 2.04423, 
Number of clients: 3

+++++++++++++++++++++++++++++++++++++++++++++++++++++++++++
+ Client Mapping:
  > Client 41394 (14):	10 11 12 13 14 15 16 17 18 19 33 34 35 36 
  > Client 41395 (13):	0 1 2 3 4 5 6 7 8 9 37 38 39 
  > Client 41393 (13):	20 21 22 23 24 25 26 27 28 29 30 31 32 

+ Core Mapping:	41395 41395 41395 41395 41395 41395 41395 41395 41395 41395 41394 41394 41394 41394 41394 41394 41394 41394 41394 41394 41393 41393 41393 41393 41393 41393 41393 41393 41393 41393 41393 41393 41393 41394 41394 41394 41394 41395 41395 41395 
+ Optimal point: 14 13 13 
+++++++++++++++++++++++++++++++++++++++++++++++++++++++++++
CLIENT SHUTDOWN: client 41395
 + TIMESTAMP: 23.0449
+++++++++++++++++++++++++++++++++++++++++++++++++++++++++++
+ Client Mapping:
  > Client 41394 (14):	10 11 12 13 14 15 16 17 18 19 33 34 35 36 
  > Client 41395 (0):	
  > Client 41393 (13):	20 21 22 23 24 25 26 27 28 29 30 31 32 

+ Core Mapping:	0 0 0 0 0 0 0 0 0 0 41394 41394 41394 41394 41394 41394 41394 41394 41394 41394 41393 41393 41393 41393 41393 41393 41393 41393 41393 41393 41393 41393 41393 41394 41394 41394 41394 0 0 0 
+ Optimal point: 14 13 13 
+++++++++++++++++++++++++++++++++++++++++++++++++++++++++++
client (41395) shutdown hint: 437.984
sum_client_shutdown_hint: 875.968
++++++++++++++++++++++++++++++++++++++++++++++++
 + TIMESTAMP: 23.045
REINVADE (41393)
  + pid: 41393
  + min_cores: 1
  + max_cores: 512
  + scalability graph: 
1, 1.36329, 1.52423, 1.62017, 1.68565, 1.73398, 1.77154, 1.80182, 1.8269, 1.84812, 1.86637, 1.88229, 1.89634, 1.90885, 1.92009, 1.93026, 1.93952, 1.94799, 1.95579, 1.963, 1.96968, 1.9759, 1.98172, 1.98716, 1.99228, 1.9971, 2.00164, 2.00594, 2.01002, 2.01389, 2.01757, 2.02108, 2.02443, 2.02763, 2.03069, 2.03362, 2.03644, 2.03914, 2.04173, 2.04423, 
Number of clients: 2

+++++++++++++++++++++++++++++++++++++++++++++++++++++++++++
+ Client Mapping:
  > Client 41394 (14):	10 11 12 13 14 15 16 17 18 19 33 34 35 36 
  > Client 41393 (20):	20 21 22 23 24 25 26 27 28 29 30 31 32 0 1 2 3 4 5 6 

+ Core Mapping:	41393 41393 41393 41393 41393 41393 41393 0 0 0 41394 41394 41394 41394 41394 41394 41394 41394 41394 41394 41393 41393 41393 41393 41393 41393 41393 41393 41393 41393 41393 41393 41393 41394 41394 41394 41394 0 0 0 
+ Optimal point: 20 20 
+++++++++++++++++++++++++++++++++++++++++++++++++++++++++++
++++++++++++++++++++++++++++++++++++++++++++++++
 + TIMESTAMP: 23.0459
REINVADE (41394)
  + pid: 41394
  + min_cores: 1
  + max_cores: 512
  + scalability graph: 
1, 1.36329, 1.52423, 1.62017, 1.68565, 1.73398, 1.77154, 1.80182, 1.8269, 1.84812, 1.86637, 1.88229, 1.89634, 1.90885, 1.92009, 1.93026, 1.93952, 1.94799, 1.95579, 1.963, 1.96968, 1.9759, 1.98172, 1.98716, 1.99228, 1.9971, 2.00164, 2.00594, 2.01002, 2.01389, 2.01757, 2.02108, 2.02443, 2.02763, 2.03069, 2.03362, 2.03644, 2.03914, 2.04173, 2.04423, 
Number of clients: 2

+++++++++++++++++++++++++++++++++++++++++++++++++++++++++++
+ Client Mapping:
  > Client 41394 (20):	10 11 12 13 14 15 16 17 18 19 33 34 35 36 7 8 9 37 38 39 
  > Client 41393 (20):	20 21 22 23 24 25 26 27 28 29 30 31 32 0 1 2 3 4 5 6 

+ Core Mapping:	41393 41393 41393 41393 41393 41393 41393 41394 41394 41394 41394 41394 41394 41394 41394 41394 41394 41394 41394 41394 41393 41393 41393 41393 41393 41393 41393 41393 41393 41393 41393 41393 41393 41394 41394 41394 41394 41394 41394 41394 
+ Optimal point: 20 20 
+++++++++++++++++++++++++++++++++++++++++++++++++++++++++++
CLIENT SHUTDOWN: client 41393
 + TIMESTAMP: 23.6062
+++++++++++++++++++++++++++++++++++++++++++++++++++++++++++
+ Client Mapping:
  > Client 41394 (20):	10 11 12 13 14 15 16 17 18 19 33 34 35 36 7 8 9 37 38 39 
  > Client 41393 (0):	

+ Core Mapping:	0 0 0 0 0 0 0 41394 41394 41394 41394 41394 41394 41394 41394 41394 41394 41394 41394 41394 0 0 0 0 0 0 0 0 0 0 0 0 0 41394 41394 41394 41394 41394 41394 41394 
+ Optimal point: 20 20 
+++++++++++++++++++++++++++++++++++++++++++++++++++++++++++
client (41393) shutdown hint: 437.984
sum_client_shutdown_hint: 1313.95
++++++++++++++++++++++++++++++++++++++++++++++++
 + TIMESTAMP: 23.6071
REINVADE (41394)
  + pid: 41394
  + min_cores: 1
  + max_cores: 512
  + scalability graph: 
1, 1.36329, 1.52423, 1.62017, 1.68565, 1.73398, 1.77154, 1.80182, 1.8269, 1.84812, 1.86637, 1.88229, 1.89634, 1.90885, 1.92009, 1.93026, 1.93952, 1.94799, 1.95579, 1.963, 1.96968, 1.9759, 1.98172, 1.98716, 1.99228, 1.9971, 2.00164, 2.00594, 2.01002, 2.01389, 2.01757, 2.02108, 2.02443, 2.02763, 2.03069, 2.03362, 2.03644, 2.03914, 2.04173, 2.04423, 
Number of clients: 1

+++++++++++++++++++++++++++++++++++++++++++++++++++++++++++
+ Client Mapping:
  > Client 41394 (40):	10 11 12 13 14 15 16 17 18 19 33 34 35 36 7 8 9 37 38 39 0 1 2 3 4 5 6 20 21 22 23 24 25 26 27 28 29 30 31 32 

+ Core Mapping:	41394 41394 41394 41394 41394 41394 41394 41394 41394 41394 41394 41394 41394 41394 41394 41394 41394 41394 41394 41394 41394 41394 41394 41394 41394 41394 41394 41394 41394 41394 41394 41394 41394 41394 41394 41394 41394 41394 41394 41394 
+ Optimal point: 40 
+++++++++++++++++++++++++++++++++++++++++++++++++++++++++++
CLIENT SHUTDOWN: client 41394
 + TIMESTAMP: 24.7124
+++++++++++++++++++++++++++++++++++++++++++++++++++++++++++
+ Client Mapping:
  > Client 41394 (0):	

+ Core Mapping:	0 0 0 0 0 0 0 0 0 0 0 0 0 0 0 0 0 0 0 0 0 0 0 0 0 0 0 0 0 0 0 0 0 0 0 0 0 0 0 0 
+ Optimal point: 40 
+++++++++++++++++++++++++++++++++++++++++++++++++++++++++++
client (41394) shutdown hint: 437.984
sum_client_shutdown_hint: 1751.94
END TIMESTAMP: 24.7124
OVERALL TIME: 24.5042
 + sum_client_shutdown_hint: 1751.94
 + sum_client_shutdown_hint/time: 71.4953
sum_client_shutdown_hint: 1751.94
