STARTING WORLD SCHEDULER SERVER
CLIENT SETUP: adding client 42166
 + TIMESTAMP: 0.280586
START TIMESTAMP: 0.280622
+++++++++++++++++++++++++++++++++++++++++++++++++++++++++++
+ Client Mapping:
  > Client 42166 (0):	

+ Core Mapping:	0 0 0 0 0 0 0 0 0 0 0 0 0 0 0 0 0 0 0 0 0 0 0 0 0 0 0 0 0 0 0 0 0 0 0 0 0 0 0 0 
+ Optimal point: 
+++++++++++++++++++++++++++++++++++++++++++++++++++++++++++
CLIENT SETUP: adding client 42164
 + TIMESTAMP: 0.280678
+++++++++++++++++++++++++++++++++++++++++++++++++++++++++++
+ Client Mapping:
  > Client 42166 (0):	
  > Client 42164 (0):	

+ Core Mapping:	0 0 0 0 0 0 0 0 0 0 0 0 0 0 0 0 0 0 0 0 0 0 0 0 0 0 0 0 0 0 0 0 0 0 0 0 0 0 0 0 
+ Optimal point: 
+++++++++++++++++++++++++++++++++++++++++++++++++++++++++++
INVADE: client 42166
 + TIMESTAMP: 0.284613
RESSOURCE DISTRIBUTION CHANGED
++++++++++++++++++++++++++++++++++++++++++++++++
INVADE (42166)
  + pid: 42166
  + min_cores: 1
  + max_cores: 512
  + scalability graph: 
1, 1.36329, 1.52423, 1.62017, 1.68565, 1.73398, 1.77154, 1.80182, 1.8269, 1.84812, 1.86637, 1.88229, 1.89634, 1.90885, 1.92009, 1.93026, 1.93952, 1.94799, 1.95579, 1.963, 1.96968, 1.9759, 1.98172, 1.98716, 1.99228, 1.9971, 2.00164, 2.00594, 2.01002, 2.01389, 2.01757, 2.02108, 2.02443, 2.02763, 2.03069, 2.03362, 2.03644, 2.03914, 2.04173, 2.04423, 
Number of clients: 2

+++++++++++++++++++++++++++++++++++++++++++++++++++++++++++
+ Client Mapping:
  > Client 42166 (1):	0 
  > Client 42164 (0):	

+ Core Mapping:	42166 0 0 0 0 0 0 0 0 0 0 0 0 0 0 0 0 0 0 0 0 0 0 0 0 0 0 0 0 0 0 0 0 0 0 0 0 0 0 0 
+ Optimal point: 1 39 
+++++++++++++++++++++++++++++++++++++++++++++++++++++++++++
CLIENT SETUP: adding client 42165
 + TIMESTAMP: 0.284747
+++++++++++++++++++++++++++++++++++++++++++++++++++++++++++
+ Client Mapping:
  > Client 42166 (1):	0 
  > Client 42164 (0):	
  > Client 42165 (0):	

+ Core Mapping:	42166 0 0 0 0 0 0 0 0 0 0 0 0 0 0 0 0 0 0 0 0 0 0 0 0 0 0 0 0 0 0 0 0 0 0 0 0 0 0 0 
+ Optimal point: 1 39 
+++++++++++++++++++++++++++++++++++++++++++++++++++++++++++
INVADE: client 42164
 + TIMESTAMP: 0.284806
RESSOURCE DISTRIBUTION CHANGED
++++++++++++++++++++++++++++++++++++++++++++++++
INVADE (42164)
  + pid: 42164
  + min_cores: 1
  + max_cores: 512
  + scalability graph: 
1, 1.36329, 1.52423, 1.62017, 1.68565, 1.73398, 1.77154, 1.80182, 1.8269, 1.84812, 1.86637, 1.88229, 1.89634, 1.90885, 1.92009, 1.93026, 1.93952, 1.94799, 1.95579, 1.963, 1.96968, 1.9759, 1.98172, 1.98716, 1.99228, 1.9971, 2.00164, 2.00594, 2.01002, 2.01389, 2.01757, 2.02108, 2.02443, 2.02763, 2.03069, 2.03362, 2.03644, 2.03914, 2.04173, 2.04423, 
Number of clients: 3

+++++++++++++++++++++++++++++++++++++++++++++++++++++++++++
+ Client Mapping:
  > Client 42166 (1):	0 
  > Client 42164 (1):	1 
  > Client 42165 (0):	

+ Core Mapping:	42166 42164 0 0 0 0 0 0 0 0 0 0 0 0 0 0 0 0 0 0 0 0 0 0 0 0 0 0 0 0 0 0 0 0 0 0 0 0 0 0 
+ Optimal point: 1 1 38 
+++++++++++++++++++++++++++++++++++++++++++++++++++++++++++
INVADE: client 42165
 + TIMESTAMP: 0.288106
RESSOURCE DISTRIBUTION CHANGED
++++++++++++++++++++++++++++++++++++++++++++++++
INVADE (42165)
  + pid: 42165
  + min_cores: 1
  + max_cores: 512
  + scalability graph: 
1, 1.36329, 1.52423, 1.62017, 1.68565, 1.73398, 1.77154, 1.80182, 1.8269, 1.84812, 1.86637, 1.88229, 1.89634, 1.90885, 1.92009, 1.93026, 1.93952, 1.94799, 1.95579, 1.963, 1.96968, 1.9759, 1.98172, 1.98716, 1.99228, 1.9971, 2.00164, 2.00594, 2.01002, 2.01389, 2.01757, 2.02108, 2.02443, 2.02763, 2.03069, 2.03362, 2.03644, 2.03914, 2.04173, 2.04423, 
Number of clients: 3

+++++++++++++++++++++++++++++++++++++++++++++++++++++++++++
+ Client Mapping:
  > Client 42166 (1):	0 
  > Client 42164 (1):	1 
  > Client 42165 (13):	2 3 4 5 6 7 8 9 10 11 12 13 14 

+ Core Mapping:	42166 42164 42165 42165 42165 42165 42165 42165 42165 42165 42165 42165 42165 42165 42165 0 0 0 0 0 0 0 0 0 0 0 0 0 0 0 0 0 0 0 0 0 0 0 0 0 
+ Optimal point: 14 13 13 
+++++++++++++++++++++++++++++++++++++++++++++++++++++++++++
CLIENT SETUP: adding client 42167
 + TIMESTAMP: 0.288716
+++++++++++++++++++++++++++++++++++++++++++++++++++++++++++
+ Client Mapping:
  > Client 42166 (1):	0 
  > Client 42164 (1):	1 
  > Client 42165 (13):	2 3 4 5 6 7 8 9 10 11 12 13 14 
  > Client 42167 (0):	

+ Core Mapping:	42166 42164 42165 42165 42165 42165 42165 42165 42165 42165 42165 42165 42165 42165 42165 0 0 0 0 0 0 0 0 0 0 0 0 0 0 0 0 0 0 0 0 0 0 0 0 0 
+ Optimal point: 14 13 13 
+++++++++++++++++++++++++++++++++++++++++++++++++++++++++++
CLIENT SETUP: adding client 42163
 + TIMESTAMP: 0.288987
+++++++++++++++++++++++++++++++++++++++++++++++++++++++++++
+ Client Mapping:
  > Client 42166 (1):	0 
  > Client 42164 (1):	1 
  > Client 42165 (13):	2 3 4 5 6 7 8 9 10 11 12 13 14 
  > Client 42167 (0):	
  > Client 42163 (0):	

+ Core Mapping:	42166 42164 42165 42165 42165 42165 42165 42165 42165 42165 42165 42165 42165 42165 42165 0 0 0 0 0 0 0 0 0 0 0 0 0 0 0 0 0 0 0 0 0 0 0 0 0 
+ Optimal point: 14 13 13 
+++++++++++++++++++++++++++++++++++++++++++++++++++++++++++
INVADE: client 42167
 + TIMESTAMP: 0.289149
RESSOURCE DISTRIBUTION CHANGED
++++++++++++++++++++++++++++++++++++++++++++++++
INVADE (42167)
  + pid: 42167
  + min_cores: 1
  + max_cores: 512
  + scalability graph: 
1, 1.36329, 1.52423, 1.62017, 1.68565, 1.73398, 1.77154, 1.80182, 1.8269, 1.84812, 1.86637, 1.88229, 1.89634, 1.90885, 1.92009, 1.93026, 1.93952, 1.94799, 1.95579, 1.963, 1.96968, 1.9759, 1.98172, 1.98716, 1.99228, 1.9971, 2.00164, 2.00594, 2.01002, 2.01389, 2.01757, 2.02108, 2.02443, 2.02763, 2.03069, 2.03362, 2.03644, 2.03914, 2.04173, 2.04423, 
Number of clients: 5

+++++++++++++++++++++++++++++++++++++++++++++++++++++++++++
+ Client Mapping:
  > Client 42166 (1):	0 
  > Client 42164 (1):	1 
  > Client 42165 (13):	2 3 4 5 6 7 8 9 10 11 12 13 14 
  > Client 42167 (1):	15 
  > Client 42163 (0):	

+ Core Mapping:	42166 42164 42165 42165 42165 42165 42165 42165 42165 42165 42165 42165 42165 42165 42165 42167 0 0 0 0 0 0 0 0 0 0 0 0 0 0 0 0 0 0 0 0 0 0 0 0 
+ Optimal point: 1 1 1 1 36 
+++++++++++++++++++++++++++++++++++++++++++++++++++++++++++
INVADE: client 42163
 + TIMESTAMP: 0.289297
RESSOURCE DISTRIBUTION CHANGED
++++++++++++++++++++++++++++++++++++++++++++++++
INVADE (42163)
  + pid: 42163
  + min_cores: 1
  + max_cores: 512
  + scalability graph: 
1, 1.36329, 1.52423, 1.62017, 1.68565, 1.73398, 1.77154, 1.80182, 1.8269, 1.84812, 1.86637, 1.88229, 1.89634, 1.90885, 1.92009, 1.93026, 1.93952, 1.94799, 1.95579, 1.963, 1.96968, 1.9759, 1.98172, 1.98716, 1.99228, 1.9971, 2.00164, 2.00594, 2.01002, 2.01389, 2.01757, 2.02108, 2.02443, 2.02763, 2.03069, 2.03362, 2.03644, 2.03914, 2.04173, 2.04423, 
Number of clients: 5

+++++++++++++++++++++++++++++++++++++++++++++++++++++++++++
+ Client Mapping:
  > Client 42166 (1):	0 
  > Client 42164 (1):	1 
  > Client 42165 (13):	2 3 4 5 6 7 8 9 10 11 12 13 14 
  > Client 42167 (1):	15 
  > Client 42163 (8):	16 17 18 19 20 21 22 23 

+ Core Mapping:	42166 42164 42165 42165 42165 42165 42165 42165 42165 42165 42165 42165 42165 42165 42165 42167 42163 42163 42163 42163 42163 42163 42163 42163 0 0 0 0 0 0 0 0 0 0 0 0 0 0 0 0 
+ Optimal point: 8 8 8 8 8 
+++++++++++++++++++++++++++++++++++++++++++++++++++++++++++
CLIENT SETUP: adding client 42162
 + TIMESTAMP: 0.289456
+++++++++++++++++++++++++++++++++++++++++++++++++++++++++++
+ Client Mapping:
  > Client 42166 (1):	0 
  > Client 42164 (1):	1 
  > Client 42165 (13):	2 3 4 5 6 7 8 9 10 11 12 13 14 
  > Client 42167 (1):	15 
  > Client 42163 (8):	16 17 18 19 20 21 22 23 
  > Client 42162 (0):	

+ Core Mapping:	42166 42164 42165 42165 42165 42165 42165 42165 42165 42165 42165 42165 42165 42165 42165 42167 42163 42163 42163 42163 42163 42163 42163 42163 0 0 0 0 0 0 0 0 0 0 0 0 0 0 0 0 
+ Optimal point: 8 8 8 8 8 
+++++++++++++++++++++++++++++++++++++++++++++++++++++++++++
++++++++++++++++++++++++++++++++++++++++++++++++
 + TIMESTAMP: 0.289517
REINVADE (42164)
  + pid: 42164
  + min_cores: 1
  + max_cores: 512
  + scalability graph: 
1, 1.36329, 1.52423, 1.62017, 1.68565, 1.73398, 1.77154, 1.80182, 1.8269, 1.84812, 1.86637, 1.88229, 1.89634, 1.90885, 1.92009, 1.93026, 1.93952, 1.94799, 1.95579, 1.963, 1.96968, 1.9759, 1.98172, 1.98716, 1.99228, 1.9971, 2.00164, 2.00594, 2.01002, 2.01389, 2.01757, 2.02108, 2.02443, 2.02763, 2.03069, 2.03362, 2.03644, 2.03914, 2.04173, 2.04423, 
Number of clients: 6

+++++++++++++++++++++++++++++++++++++++++++++++++++++++++++
+ Client Mapping:
  > Client 42166 (1):	0 
  > Client 42164 (8):	1 24 25 26 27 28 29 30 
  > Client 42165 (13):	2 3 4 5 6 7 8 9 10 11 12 13 14 
  > Client 42167 (1):	15 
  > Client 42163 (8):	16 17 18 19 20 21 22 23 
  > Client 42162 (0):	

+ Core Mapping:	42166 42164 42165 42165 42165 42165 42165 42165 42165 42165 42165 42165 42165 42165 42165 42167 42163 42163 42163 42163 42163 42163 42163 42163 42164 42164 42164 42164 42164 42164 42164 0 0 0 0 0 0 0 0 0 
+ Optimal point: 8 8 8 8 8 
+++++++++++++++++++++++++++++++++++++++++++++++++++++++++++
++++++++++++++++++++++++++++++++++++++++++++++++
 + TIMESTAMP: 0.289648
REINVADE (42166)
  + pid: 42166
  + min_cores: 1
  + max_cores: 512
  + scalability graph: 
1, 1.36329, 1.52423, 1.62017, 1.68565, 1.73398, 1.77154, 1.80182, 1.8269, 1.84812, 1.86637, 1.88229, 1.89634, 1.90885, 1.92009, 1.93026, 1.93952, 1.94799, 1.95579, 1.963, 1.96968, 1.9759, 1.98172, 1.98716, 1.99228, 1.9971, 2.00164, 2.00594, 2.01002, 2.01389, 2.01757, 2.02108, 2.02443, 2.02763, 2.03069, 2.03362, 2.03644, 2.03914, 2.04173, 2.04423, 
Number of clients: 6

+++++++++++++++++++++++++++++++++++++++++++++++++++++++++++
+ Client Mapping:
  > Client 42166 (8):	0 31 32 33 34 35 36 37 
  > Client 42164 (8):	1 24 25 26 27 28 29 30 
  > Client 42165 (13):	2 3 4 5 6 7 8 9 10 11 12 13 14 
  > Client 42167 (1):	15 
  > Client 42163 (8):	16 17 18 19 20 21 22 23 
  > Client 42162 (0):	

+ Core Mapping:	42166 42164 42165 42165 42165 42165 42165 42165 42165 42165 42165 42165 42165 42165 42165 42167 42163 42163 42163 42163 42163 42163 42163 42163 42164 42164 42164 42164 42164 42164 42164 42166 42166 42166 42166 42166 42166 42166 0 0 
+ Optimal point: 8 8 8 8 8 
+++++++++++++++++++++++++++++++++++++++++++++++++++++++++++
INVADE: client 42162
 + TIMESTAMP: 0.290375
RESSOURCE DISTRIBUTION CHANGED
++++++++++++++++++++++++++++++++++++++++++++++++
INVADE (42162)
  + pid: 42162
  + min_cores: 1
  + max_cores: 512
  + scalability graph: 
1, 1.36329, 1.52423, 1.62017, 1.68565, 1.73398, 1.77154, 1.80182, 1.8269, 1.84812, 1.86637, 1.88229, 1.89634, 1.90885, 1.92009, 1.93026, 1.93952, 1.94799, 1.95579, 1.963, 1.96968, 1.9759, 1.98172, 1.98716, 1.99228, 1.9971, 2.00164, 2.00594, 2.01002, 2.01389, 2.01757, 2.02108, 2.02443, 2.02763, 2.03069, 2.03362, 2.03644, 2.03914, 2.04173, 2.04423, 
Number of clients: 6

+++++++++++++++++++++++++++++++++++++++++++++++++++++++++++
+ Client Mapping:
  > Client 42166 (8):	0 31 32 33 34 35 36 37 
  > Client 42164 (8):	1 24 25 26 27 28 29 30 
  > Client 42165 (13):	2 3 4 5 6 7 8 9 10 11 12 13 14 
  > Client 42167 (1):	15 
  > Client 42163 (8):	16 17 18 19 20 21 22 23 
  > Client 42162 (2):	38 39 

+ Core Mapping:	42166 42164 42165 42165 42165 42165 42165 42165 42165 42165 42165 42165 42165 42165 42165 42167 42163 42163 42163 42163 42163 42163 42163 42163 42164 42164 42164 42164 42164 42164 42164 42166 42166 42166 42166 42166 42166 42166 42162 42162 
+ Optimal point: 7 7 7 7 6 6 
+++++++++++++++++++++++++++++++++++++++++++++++++++++++++++
++++++++++++++++++++++++++++++++++++++++++++++++
 + TIMESTAMP: 0.291449
REINVADE (42165)
  + pid: 42165
  + min_cores: 1
  + max_cores: 512
  + scalability graph: 
1, 1.36329, 1.52423, 1.62017, 1.68565, 1.73398, 1.77154, 1.80182, 1.8269, 1.84812, 1.86637, 1.88229, 1.89634, 1.90885, 1.92009, 1.93026, 1.93952, 1.94799, 1.95579, 1.963, 1.96968, 1.9759, 1.98172, 1.98716, 1.99228, 1.9971, 2.00164, 2.00594, 2.01002, 2.01389, 2.01757, 2.02108, 2.02443, 2.02763, 2.03069, 2.03362, 2.03644, 2.03914, 2.04173, 2.04423, 
Number of clients: 6

+++++++++++++++++++++++++++++++++++++++++++++++++++++++++++
+ Client Mapping:
  > Client 42166 (8):	0 31 32 33 34 35 36 37 
  > Client 42164 (8):	1 24 25 26 27 28 29 30 
  > Client 42165 (7):	8 9 10 11 12 13 14 
  > Client 42167 (1):	15 
  > Client 42163 (8):	16 17 18 19 20 21 22 23 
  > Client 42162 (2):	38 39 

+ Core Mapping:	42166 42164 0 0 0 0 0 0 42165 42165 42165 42165 42165 42165 42165 42167 42163 42163 42163 42163 42163 42163 42163 42163 42164 42164 42164 42164 42164 42164 42164 42166 42166 42166 42166 42166 42166 42166 42162 42162 
+ Optimal point: 7 7 7 7 6 6 
+++++++++++++++++++++++++++++++++++++++++++++++++++++++++++
++++++++++++++++++++++++++++++++++++++++++++++++
 + TIMESTAMP: 0.291609
REINVADE (42163)
  + pid: 42163
  + min_cores: 1
  + max_cores: 512
  + scalability graph: 
1, 1.36329, 1.52423, 1.62017, 1.68565, 1.73398, 1.77154, 1.80182, 1.8269, 1.84812, 1.86637, 1.88229, 1.89634, 1.90885, 1.92009, 1.93026, 1.93952, 1.94799, 1.95579, 1.963, 1.96968, 1.9759, 1.98172, 1.98716, 1.99228, 1.9971, 2.00164, 2.00594, 2.01002, 2.01389, 2.01757, 2.02108, 2.02443, 2.02763, 2.03069, 2.03362, 2.03644, 2.03914, 2.04173, 2.04423, 
Number of clients: 6

+++++++++++++++++++++++++++++++++++++++++++++++++++++++++++
+ Client Mapping:
  > Client 42166 (8):	0 31 32 33 34 35 36 37 
  > Client 42164 (8):	1 24 25 26 27 28 29 30 
  > Client 42165 (7):	8 9 10 11 12 13 14 
  > Client 42167 (1):	15 
  > Client 42163 (6):	18 19 20 21 22 23 
  > Client 42162 (2):	38 39 

+ Core Mapping:	42166 42164 0 0 0 0 0 0 42165 42165 42165 42165 42165 42165 42165 42167 0 0 42163 42163 42163 42163 42163 42163 42164 42164 42164 42164 42164 42164 42164 42166 42166 42166 42166 42166 42166 42166 42162 42162 
+ Optimal point: 7 7 7 7 6 6 
+++++++++++++++++++++++++++++++++++++++++++++++++++++++++++
++++++++++++++++++++++++++++++++++++++++++++++++
 + TIMESTAMP: 0.291742
REINVADE (42162)
  + pid: 42162
  + min_cores: 1
  + max_cores: 512
  + scalability graph: 
1, 1.36329, 1.52423, 1.62017, 1.68565, 1.73398, 1.77154, 1.80182, 1.8269, 1.84812, 1.86637, 1.88229, 1.89634, 1.90885, 1.92009, 1.93026, 1.93952, 1.94799, 1.95579, 1.963, 1.96968, 1.9759, 1.98172, 1.98716, 1.99228, 1.9971, 2.00164, 2.00594, 2.01002, 2.01389, 2.01757, 2.02108, 2.02443, 2.02763, 2.03069, 2.03362, 2.03644, 2.03914, 2.04173, 2.04423, 
Number of clients: 6

+++++++++++++++++++++++++++++++++++++++++++++++++++++++++++
+ Client Mapping:
  > Client 42166 (8):	0 31 32 33 34 35 36 37 
  > Client 42164 (8):	1 24 25 26 27 28 29 30 
  > Client 42165 (7):	8 9 10 11 12 13 14 
  > Client 42167 (1):	15 
  > Client 42163 (6):	18 19 20 21 22 23 
  > Client 42162 (6):	38 39 2 3 4 5 

+ Core Mapping:	42166 42164 42162 42162 42162 42162 0 0 42165 42165 42165 42165 42165 42165 42165 42167 0 0 42163 42163 42163 42163 42163 42163 42164 42164 42164 42164 42164 42164 42164 42166 42166 42166 42166 42166 42166 42166 42162 42162 
+ Optimal point: 7 7 7 7 6 6 
+++++++++++++++++++++++++++++++++++++++++++++++++++++++++++
++++++++++++++++++++++++++++++++++++++++++++++++
 + TIMESTAMP: 0.292556
REINVADE (42164)
  + pid: 42164
  + min_cores: 1
  + max_cores: 512
  + scalability graph: 
1, 1.36329, 1.52423, 1.62017, 1.68565, 1.73398, 1.77154, 1.80182, 1.8269, 1.84812, 1.86637, 1.88229, 1.89634, 1.90885, 1.92009, 1.93026, 1.93952, 1.94799, 1.95579, 1.963, 1.96968, 1.9759, 1.98172, 1.98716, 1.99228, 1.9971, 2.00164, 2.00594, 2.01002, 2.01389, 2.01757, 2.02108, 2.02443, 2.02763, 2.03069, 2.03362, 2.03644, 2.03914, 2.04173, 2.04423, 
Number of clients: 6

+++++++++++++++++++++++++++++++++++++++++++++++++++++++++++
+ Client Mapping:
  > Client 42166 (8):	0 31 32 33 34 35 36 37 
  > Client 42164 (7):	24 25 26 27 28 29 30 
  > Client 42165 (7):	8 9 10 11 12 13 14 
  > Client 42167 (1):	15 
  > Client 42163 (6):	18 19 20 21 22 23 
  > Client 42162 (6):	38 39 2 3 4 5 

+ Core Mapping:	42166 0 42162 42162 42162 42162 0 0 42165 42165 42165 42165 42165 42165 42165 42167 0 0 42163 42163 42163 42163 42163 42163 42164 42164 42164 42164 42164 42164 42164 42166 42166 42166 42166 42166 42166 42166 42162 42162 
+ Optimal point: 7 7 7 7 6 6 
+++++++++++++++++++++++++++++++++++++++++++++++++++++++++++
++++++++++++++++++++++++++++++++++++++++++++++++
 + TIMESTAMP: 0.293477
REINVADE (42166)
  + pid: 42166
  + min_cores: 1
  + max_cores: 512
  + scalability graph: 
1, 1.36329, 1.52423, 1.62017, 1.68565, 1.73398, 1.77154, 1.80182, 1.8269, 1.84812, 1.86637, 1.88229, 1.89634, 1.90885, 1.92009, 1.93026, 1.93952, 1.94799, 1.95579, 1.963, 1.96968, 1.9759, 1.98172, 1.98716, 1.99228, 1.9971, 2.00164, 2.00594, 2.01002, 2.01389, 2.01757, 2.02108, 2.02443, 2.02763, 2.03069, 2.03362, 2.03644, 2.03914, 2.04173, 2.04423, 
Number of clients: 6

+++++++++++++++++++++++++++++++++++++++++++++++++++++++++++
+ Client Mapping:
  > Client 42166 (7):	31 32 33 34 35 36 37 
  > Client 42164 (7):	24 25 26 27 28 29 30 
  > Client 42165 (7):	8 9 10 11 12 13 14 
  > Client 42167 (1):	15 
  > Client 42163 (6):	18 19 20 21 22 23 
  > Client 42162 (6):	38 39 2 3 4 5 

+ Core Mapping:	0 0 42162 42162 42162 42162 0 0 42165 42165 42165 42165 42165 42165 42165 42167 0 0 42163 42163 42163 42163 42163 42163 42164 42164 42164 42164 42164 42164 42164 42166 42166 42166 42166 42166 42166 42166 42162 42162 
+ Optimal point: 7 7 7 7 6 6 
+++++++++++++++++++++++++++++++++++++++++++++++++++++++++++
++++++++++++++++++++++++++++++++++++++++++++++++
 + TIMESTAMP: 0.299232
REINVADE (42167)
  + pid: 42167
  + min_cores: 1
  + max_cores: 512
  + scalability graph: 
1, 1.36329, 1.52423, 1.62017, 1.68565, 1.73398, 1.77154, 1.80182, 1.8269, 1.84812, 1.86637, 1.88229, 1.89634, 1.90885, 1.92009, 1.93026, 1.93952, 1.94799, 1.95579, 1.963, 1.96968, 1.9759, 1.98172, 1.98716, 1.99228, 1.9971, 2.00164, 2.00594, 2.01002, 2.01389, 2.01757, 2.02108, 2.02443, 2.02763, 2.03069, 2.03362, 2.03644, 2.03914, 2.04173, 2.04423, 
Number of clients: 6

+++++++++++++++++++++++++++++++++++++++++++++++++++++++++++
+ Client Mapping:
  > Client 42166 (7):	31 32 33 34 35 36 37 
  > Client 42164 (7):	24 25 26 27 28 29 30 
  > Client 42165 (7):	8 9 10 11 12 13 14 
  > Client 42167 (7):	15 0 1 6 7 16 17 
  > Client 42163 (6):	18 19 20 21 22 23 
  > Client 42162 (6):	38 39 2 3 4 5 

+ Core Mapping:	42167 42167 42162 42162 42162 42162 42167 42167 42165 42165 42165 42165 42165 42165 42165 42167 42167 42167 42163 42163 42163 42163 42163 42163 42164 42164 42164 42164 42164 42164 42164 42166 42166 42166 42166 42166 42166 42166 42162 42162 
+ Optimal point: 7 7 7 7 6 6 
+++++++++++++++++++++++++++++++++++++++++++++++++++++++++++
CLIENT SHUTDOWN: client 42164
 + TIMESTAMP: 25.8327
+++++++++++++++++++++++++++++++++++++++++++++++++++++++++++
+ Client Mapping:
  > Client 42166 (7):	31 32 33 34 35 36 37 
  > Client 42164 (0):	
  > Client 42165 (7):	8 9 10 11 12 13 14 
  > Client 42167 (7):	15 0 1 6 7 16 17 
  > Client 42163 (6):	18 19 20 21 22 23 
  > Client 42162 (6):	38 39 2 3 4 5 

+ Core Mapping:	42167 42167 42162 42162 42162 42162 42167 42167 42165 42165 42165 42165 42165 42165 42165 42167 42167 42167 42163 42163 42163 42163 42163 42163 0 0 0 0 0 0 0 42166 42166 42166 42166 42166 42166 42166 42162 42162 
+ Optimal point: 7 7 7 7 6 6 
+++++++++++++++++++++++++++++++++++++++++++++++++++++++++++
client (42164) shutdown hint: 437.984
sum_client_shutdown_hint: 437.984
++++++++++++++++++++++++++++++++++++++++++++++++
 + TIMESTAMP: 25.8328
REINVADE (42162)
  + pid: 42162
  + min_cores: 1
  + max_cores: 512
  + scalability graph: 
1, 1.36329, 1.52423, 1.62017, 1.68565, 1.73398, 1.77154, 1.80182, 1.8269, 1.84812, 1.86637, 1.88229, 1.89634, 1.90885, 1.92009, 1.93026, 1.93952, 1.94799, 1.95579, 1.963, 1.96968, 1.9759, 1.98172, 1.98716, 1.99228, 1.9971, 2.00164, 2.00594, 2.01002, 2.01389, 2.01757, 2.02108, 2.02443, 2.02763, 2.03069, 2.03362, 2.03644, 2.03914, 2.04173, 2.04423, 
Number of clients: 5

+++++++++++++++++++++++++++++++++++++++++++++++++++++++++++
+ Client Mapping:
  > Client 42166 (7):	31 32 33 34 35 36 37 
  > Client 42165 (7):	8 9 10 11 12 13 14 
  > Client 42167 (7):	15 0 1 6 7 16 17 
  > Client 42163 (6):	18 19 20 21 22 23 
  > Client 42162 (8):	38 39 2 3 4 5 24 25 

+ Core Mapping:	42167 42167 42162 42162 42162 42162 42167 42167 42165 42165 42165 42165 42165 42165 42165 42167 42167 42167 42163 42163 42163 42163 42163 42163 42162 42162 0 0 0 0 0 42166 42166 42166 42166 42166 42166 42166 42162 42162 
+ Optimal point: 8 8 8 8 8 
+++++++++++++++++++++++++++++++++++++++++++++++++++++++++++
++++++++++++++++++++++++++++++++++++++++++++++++
 + TIMESTAMP: 25.833
REINVADE (42166)
  + pid: 42166
  + min_cores: 1
  + max_cores: 512
  + scalability graph: 
1, 1.36329, 1.52423, 1.62017, 1.68565, 1.73398, 1.77154, 1.80182, 1.8269, 1.84812, 1.86637, 1.88229, 1.89634, 1.90885, 1.92009, 1.93026, 1.93952, 1.94799, 1.95579, 1.963, 1.96968, 1.9759, 1.98172, 1.98716, 1.99228, 1.9971, 2.00164, 2.00594, 2.01002, 2.01389, 2.01757, 2.02108, 2.02443, 2.02763, 2.03069, 2.03362, 2.03644, 2.03914, 2.04173, 2.04423, 
Number of clients: 5

+++++++++++++++++++++++++++++++++++++++++++++++++++++++++++
+ Client Mapping:
  > Client 42166 (8):	31 32 33 34 35 36 37 26 
  > Client 42165 (7):	8 9 10 11 12 13 14 
  > Client 42167 (7):	15 0 1 6 7 16 17 
  > Client 42163 (6):	18 19 20 21 22 23 
  > Client 42162 (8):	38 39 2 3 4 5 24 25 

+ Core Mapping:	42167 42167 42162 42162 42162 42162 42167 42167 42165 42165 42165 42165 42165 42165 42165 42167 42167 42167 42163 42163 42163 42163 42163 42163 42162 42162 42166 0 0 0 0 42166 42166 42166 42166 42166 42166 42166 42162 42162 
+ Optimal point: 8 8 8 8 8 
+++++++++++++++++++++++++++++++++++++++++++++++++++++++++++
++++++++++++++++++++++++++++++++++++++++++++++++
 + TIMESTAMP: 25.8333
REINVADE (42167)
  + pid: 42167
  + min_cores: 1
  + max_cores: 512
  + scalability graph: 
1, 1.36329, 1.52423, 1.62017, 1.68565, 1.73398, 1.77154, 1.80182, 1.8269, 1.84812, 1.86637, 1.88229, 1.89634, 1.90885, 1.92009, 1.93026, 1.93952, 1.94799, 1.95579, 1.963, 1.96968, 1.9759, 1.98172, 1.98716, 1.99228, 1.9971, 2.00164, 2.00594, 2.01002, 2.01389, 2.01757, 2.02108, 2.02443, 2.02763, 2.03069, 2.03362, 2.03644, 2.03914, 2.04173, 2.04423, 
Number of clients: 5

+++++++++++++++++++++++++++++++++++++++++++++++++++++++++++
+ Client Mapping:
  > Client 42166 (8):	31 32 33 34 35 36 37 26 
  > Client 42165 (7):	8 9 10 11 12 13 14 
  > Client 42167 (8):	15 0 1 6 7 16 17 27 
  > Client 42163 (6):	18 19 20 21 22 23 
  > Client 42162 (8):	38 39 2 3 4 5 24 25 

+ Core Mapping:	42167 42167 42162 42162 42162 42162 42167 42167 42165 42165 42165 42165 42165 42165 42165 42167 42167 42167 42163 42163 42163 42163 42163 42163 42162 42162 42166 42167 0 0 0 42166 42166 42166 42166 42166 42166 42166 42162 42162 
+ Optimal point: 8 8 8 8 8 
+++++++++++++++++++++++++++++++++++++++++++++++++++++++++++
++++++++++++++++++++++++++++++++++++++++++++++++
 + TIMESTAMP: 25.8334
REINVADE (42165)
  + pid: 42165
  + min_cores: 1
  + max_cores: 512
  + scalability graph: 
1, 1.36329, 1.52423, 1.62017, 1.68565, 1.73398, 1.77154, 1.80182, 1.8269, 1.84812, 1.86637, 1.88229, 1.89634, 1.90885, 1.92009, 1.93026, 1.93952, 1.94799, 1.95579, 1.963, 1.96968, 1.9759, 1.98172, 1.98716, 1.99228, 1.9971, 2.00164, 2.00594, 2.01002, 2.01389, 2.01757, 2.02108, 2.02443, 2.02763, 2.03069, 2.03362, 2.03644, 2.03914, 2.04173, 2.04423, 
Number of clients: 5

+++++++++++++++++++++++++++++++++++++++++++++++++++++++++++
+ Client Mapping:
  > Client 42166 (8):	31 32 33 34 35 36 37 26 
  > Client 42165 (8):	8 9 10 11 12 13 14 28 
  > Client 42167 (8):	15 0 1 6 7 16 17 27 
  > Client 42163 (6):	18 19 20 21 22 23 
  > Client 42162 (8):	38 39 2 3 4 5 24 25 

+ Core Mapping:	42167 42167 42162 42162 42162 42162 42167 42167 42165 42165 42165 42165 42165 42165 42165 42167 42167 42167 42163 42163 42163 42163 42163 42163 42162 42162 42166 42167 42165 0 0 42166 42166 42166 42166 42166 42166 42166 42162 42162 
+ Optimal point: 8 8 8 8 8 
+++++++++++++++++++++++++++++++++++++++++++++++++++++++++++
++++++++++++++++++++++++++++++++++++++++++++++++
 + TIMESTAMP: 25.8347
REINVADE (42163)
  + pid: 42163
  + min_cores: 1
  + max_cores: 512
  + scalability graph: 
1, 1.36329, 1.52423, 1.62017, 1.68565, 1.73398, 1.77154, 1.80182, 1.8269, 1.84812, 1.86637, 1.88229, 1.89634, 1.90885, 1.92009, 1.93026, 1.93952, 1.94799, 1.95579, 1.963, 1.96968, 1.9759, 1.98172, 1.98716, 1.99228, 1.9971, 2.00164, 2.00594, 2.01002, 2.01389, 2.01757, 2.02108, 2.02443, 2.02763, 2.03069, 2.03362, 2.03644, 2.03914, 2.04173, 2.04423, 
Number of clients: 5

+++++++++++++++++++++++++++++++++++++++++++++++++++++++++++
+ Client Mapping:
  > Client 42166 (8):	31 32 33 34 35 36 37 26 
  > Client 42165 (8):	8 9 10 11 12 13 14 28 
  > Client 42167 (8):	15 0 1 6 7 16 17 27 
  > Client 42163 (8):	18 19 20 21 22 23 29 30 
  > Client 42162 (8):	38 39 2 3 4 5 24 25 

+ Core Mapping:	42167 42167 42162 42162 42162 42162 42167 42167 42165 42165 42165 42165 42165 42165 42165 42167 42167 42167 42163 42163 42163 42163 42163 42163 42162 42162 42166 42167 42165 42163 42163 42166 42166 42166 42166 42166 42166 42166 42162 42162 
+ Optimal point: 8 8 8 8 8 
+++++++++++++++++++++++++++++++++++++++++++++++++++++++++++
CLIENT SHUTDOWN: client 42167
 + TIMESTAMP: 25.8496
+++++++++++++++++++++++++++++++++++++++++++++++++++++++++++
+ Client Mapping:
  > Client 42166 (8):	31 32 33 34 35 36 37 26 
  > Client 42165 (8):	8 9 10 11 12 13 14 28 
  > Client 42167 (0):	
  > Client 42163 (8):	18 19 20 21 22 23 29 30 
  > Client 42162 (8):	38 39 2 3 4 5 24 25 

+ Core Mapping:	0 0 42162 42162 42162 42162 0 0 42165 42165 42165 42165 42165 42165 42165 0 0 0 42163 42163 42163 42163 42163 42163 42162 42162 42166 0 42165 42163 42163 42166 42166 42166 42166 42166 42166 42166 42162 42162 
+ Optimal point: 8 8 8 8 8 
+++++++++++++++++++++++++++++++++++++++++++++++++++++++++++
client (42167) shutdown hint: 437.984
sum_client_shutdown_hint: 875.968
++++++++++++++++++++++++++++++++++++++++++++++++
 + TIMESTAMP: 25.8498
REINVADE (42165)
  + pid: 42165
  + min_cores: 1
  + max_cores: 512
  + scalability graph: 
1, 1.36329, 1.52423, 1.62017, 1.68565, 1.73398, 1.77154, 1.80182, 1.8269, 1.84812, 1.86637, 1.88229, 1.89634, 1.90885, 1.92009, 1.93026, 1.93952, 1.94799, 1.95579, 1.963, 1.96968, 1.9759, 1.98172, 1.98716, 1.99228, 1.9971, 2.00164, 2.00594, 2.01002, 2.01389, 2.01757, 2.02108, 2.02443, 2.02763, 2.03069, 2.03362, 2.03644, 2.03914, 2.04173, 2.04423, 
Number of clients: 4

+++++++++++++++++++++++++++++++++++++++++++++++++++++++++++
+ Client Mapping:
  > Client 42166 (8):	31 32 33 34 35 36 37 26 
  > Client 42165 (10):	8 9 10 11 12 13 14 28 0 1 
  > Client 42163 (8):	18 19 20 21 22 23 29 30 
  > Client 42162 (8):	38 39 2 3 4 5 24 25 

+ Core Mapping:	42165 42165 42162 42162 42162 42162 0 0 42165 42165 42165 42165 42165 42165 42165 0 0 0 42163 42163 42163 42163 42163 42163 42162 42162 42166 0 42165 42163 42163 42166 42166 42166 42166 42166 42166 42166 42162 42162 
+ Optimal point: 10 10 10 10 
+++++++++++++++++++++++++++++++++++++++++++++++++++++++++++
++++++++++++++++++++++++++++++++++++++++++++++++
 + TIMESTAMP: 25.8504
REINVADE (42166)
  + pid: 42166
  + min_cores: 1
  + max_cores: 512
  + scalability graph: 
1, 1.36329, 1.52423, 1.62017, 1.68565, 1.73398, 1.77154, 1.80182, 1.8269, 1.84812, 1.86637, 1.88229, 1.89634, 1.90885, 1.92009, 1.93026, 1.93952, 1.94799, 1.95579, 1.963, 1.96968, 1.9759, 1.98172, 1.98716, 1.99228, 1.9971, 2.00164, 2.00594, 2.01002, 2.01389, 2.01757, 2.02108, 2.02443, 2.02763, 2.03069, 2.03362, 2.03644, 2.03914, 2.04173, 2.04423, 
Number of clients: 4

+++++++++++++++++++++++++++++++++++++++++++++++++++++++++++
+ Client Mapping:
  > Client 42166 (10):	31 32 33 34 35 36 37 26 6 7 
  > Client 42165 (10):	8 9 10 11 12 13 14 28 0 1 
  > Client 42163 (8):	18 19 20 21 22 23 29 30 
  > Client 42162 (8):	38 39 2 3 4 5 24 25 

+ Core Mapping:	42165 42165 42162 42162 42162 42162 42166 42166 42165 42165 42165 42165 42165 42165 42165 0 0 0 42163 42163 42163 42163 42163 42163 42162 42162 42166 0 42165 42163 42163 42166 42166 42166 42166 42166 42166 42166 42162 42162 
+ Optimal point: 10 10 10 10 
+++++++++++++++++++++++++++++++++++++++++++++++++++++++++++
++++++++++++++++++++++++++++++++++++++++++++++++
 + TIMESTAMP: 25.8535
REINVADE (42163)
  + pid: 42163
  + min_cores: 1
  + max_cores: 512
  + scalability graph: 
1, 1.36329, 1.52423, 1.62017, 1.68565, 1.73398, 1.77154, 1.80182, 1.8269, 1.84812, 1.86637, 1.88229, 1.89634, 1.90885, 1.92009, 1.93026, 1.93952, 1.94799, 1.95579, 1.963, 1.96968, 1.9759, 1.98172, 1.98716, 1.99228, 1.9971, 2.00164, 2.00594, 2.01002, 2.01389, 2.01757, 2.02108, 2.02443, 2.02763, 2.03069, 2.03362, 2.03644, 2.03914, 2.04173, 2.04423, 
Number of clients: 4

+++++++++++++++++++++++++++++++++++++++++++++++++++++++++++
+ Client Mapping:
  > Client 42166 (10):	31 32 33 34 35 36 37 26 6 7 
  > Client 42165 (10):	8 9 10 11 12 13 14 28 0 1 
  > Client 42163 (10):	18 19 20 21 22 23 29 30 15 16 
  > Client 42162 (8):	38 39 2 3 4 5 24 25 

+ Core Mapping:	42165 42165 42162 42162 42162 42162 42166 42166 42165 42165 42165 42165 42165 42165 42165 42163 42163 0 42163 42163 42163 42163 42163 42163 42162 42162 42166 0 42165 42163 42163 42166 42166 42166 42166 42166 42166 42166 42162 42162 
+ Optimal point: 10 10 10 10 
+++++++++++++++++++++++++++++++++++++++++++++++++++++++++++
++++++++++++++++++++++++++++++++++++++++++++++++
 + TIMESTAMP: 25.8541
REINVADE (42162)
  + pid: 42162
  + min_cores: 1
  + max_cores: 512
  + scalability graph: 
1, 1.36329, 1.52423, 1.62017, 1.68565, 1.73398, 1.77154, 1.80182, 1.8269, 1.84812, 1.86637, 1.88229, 1.89634, 1.90885, 1.92009, 1.93026, 1.93952, 1.94799, 1.95579, 1.963, 1.96968, 1.9759, 1.98172, 1.98716, 1.99228, 1.9971, 2.00164, 2.00594, 2.01002, 2.01389, 2.01757, 2.02108, 2.02443, 2.02763, 2.03069, 2.03362, 2.03644, 2.03914, 2.04173, 2.04423, 
Number of clients: 4

+++++++++++++++++++++++++++++++++++++++++++++++++++++++++++
+ Client Mapping:
  > Client 42166 (10):	31 32 33 34 35 36 37 26 6 7 
  > Client 42165 (10):	8 9 10 11 12 13 14 28 0 1 
  > Client 42163 (10):	18 19 20 21 22 23 29 30 15 16 
  > Client 42162 (10):	38 39 2 3 4 5 24 25 17 27 

+ Core Mapping:	42165 42165 42162 42162 42162 42162 42166 42166 42165 42165 42165 42165 42165 42165 42165 42163 42163 42162 42163 42163 42163 42163 42163 42163 42162 42162 42166 42162 42165 42163 42163 42166 42166 42166 42166 42166 42166 42166 42162 42162 
+ Optimal point: 10 10 10 10 
+++++++++++++++++++++++++++++++++++++++++++++++++++++++++++
CLIENT SHUTDOWN: client 42165
 + TIMESTAMP: 25.914
+++++++++++++++++++++++++++++++++++++++++++++++++++++++++++
+ Client Mapping:
  > Client 42166 (10):	31 32 33 34 35 36 37 26 6 7 
  > Client 42165 (0):	
  > Client 42163 (10):	18 19 20 21 22 23 29 30 15 16 
  > Client 42162 (10):	38 39 2 3 4 5 24 25 17 27 

+ Core Mapping:	0 0 42162 42162 42162 42162 42166 42166 0 0 0 0 0 0 0 42163 42163 42162 42163 42163 42163 42163 42163 42163 42162 42162 42166 42162 0 42163 42163 42166 42166 42166 42166 42166 42166 42166 42162 42162 
+ Optimal point: 10 10 10 10 
+++++++++++++++++++++++++++++++++++++++++++++++++++++++++++
client (42165) shutdown hint: 437.984
sum_client_shutdown_hint: 1313.95
++++++++++++++++++++++++++++++++++++++++++++++++
 + TIMESTAMP: 25.9142
REINVADE (42163)
  + pid: 42163
  + min_cores: 1
  + max_cores: 512
  + scalability graph: 
1, 1.36329, 1.52423, 1.62017, 1.68565, 1.73398, 1.77154, 1.80182, 1.8269, 1.84812, 1.86637, 1.88229, 1.89634, 1.90885, 1.92009, 1.93026, 1.93952, 1.94799, 1.95579, 1.963, 1.96968, 1.9759, 1.98172, 1.98716, 1.99228, 1.9971, 2.00164, 2.00594, 2.01002, 2.01389, 2.01757, 2.02108, 2.02443, 2.02763, 2.03069, 2.03362, 2.03644, 2.03914, 2.04173, 2.04423, 
Number of clients: 3

+++++++++++++++++++++++++++++++++++++++++++++++++++++++++++
+ Client Mapping:
  > Client 42166 (10):	31 32 33 34 35 36 37 26 6 7 
  > Client 42163 (13):	18 19 20 21 22 23 29 30 15 16 0 1 8 
  > Client 42162 (10):	38 39 2 3 4 5 24 25 17 27 

+ Core Mapping:	42163 42163 42162 42162 42162 42162 42166 42166 42163 0 0 0 0 0 0 42163 42163 42162 42163 42163 42163 42163 42163 42163 42162 42162 42166 42162 0 42163 42163 42166 42166 42166 42166 42166 42166 42166 42162 42162 
+ Optimal point: 14 13 13 
+++++++++++++++++++++++++++++++++++++++++++++++++++++++++++
++++++++++++++++++++++++++++++++++++++++++++++++
 + TIMESTAMP: 25.9144
REINVADE (42166)
  + pid: 42166
  + min_cores: 1
  + max_cores: 512
  + scalability graph: 
1, 1.36329, 1.52423, 1.62017, 1.68565, 1.73398, 1.77154, 1.80182, 1.8269, 1.84812, 1.86637, 1.88229, 1.89634, 1.90885, 1.92009, 1.93026, 1.93952, 1.94799, 1.95579, 1.963, 1.96968, 1.9759, 1.98172, 1.98716, 1.99228, 1.9971, 2.00164, 2.00594, 2.01002, 2.01389, 2.01757, 2.02108, 2.02443, 2.02763, 2.03069, 2.03362, 2.03644, 2.03914, 2.04173, 2.04423, 
Number of clients: 3

+++++++++++++++++++++++++++++++++++++++++++++++++++++++++++
+ Client Mapping:
  > Client 42166 (14):	31 32 33 34 35 36 37 26 6 7 9 10 11 12 
  > Client 42163 (13):	18 19 20 21 22 23 29 30 15 16 0 1 8 
  > Client 42162 (10):	38 39 2 3 4 5 24 25 17 27 

+ Core Mapping:	42163 42163 42162 42162 42162 42162 42166 42166 42163 42166 42166 42166 42166 0 0 42163 42163 42162 42163 42163 42163 42163 42163 42163 42162 42162 42166 42162 0 42163 42163 42166 42166 42166 42166 42166 42166 42166 42162 42162 
+ Optimal point: 14 13 13 
+++++++++++++++++++++++++++++++++++++++++++++++++++++++++++
++++++++++++++++++++++++++++++++++++++++++++++++
 + TIMESTAMP: 25.9174
REINVADE (42162)
  + pid: 42162
  + min_cores: 1
  + max_cores: 512
  + scalability graph: 
1, 1.36329, 1.52423, 1.62017, 1.68565, 1.73398, 1.77154, 1.80182, 1.8269, 1.84812, 1.86637, 1.88229, 1.89634, 1.90885, 1.92009, 1.93026, 1.93952, 1.94799, 1.95579, 1.963, 1.96968, 1.9759, 1.98172, 1.98716, 1.99228, 1.9971, 2.00164, 2.00594, 2.01002, 2.01389, 2.01757, 2.02108, 2.02443, 2.02763, 2.03069, 2.03362, 2.03644, 2.03914, 2.04173, 2.04423, 
Number of clients: 3

+++++++++++++++++++++++++++++++++++++++++++++++++++++++++++
+ Client Mapping:
  > Client 42166 (14):	31 32 33 34 35 36 37 26 6 7 9 10 11 12 
  > Client 42163 (13):	18 19 20 21 22 23 29 30 15 16 0 1 8 
  > Client 42162 (13):	38 39 2 3 4 5 24 25 17 27 13 14 28 

+ Core Mapping:	42163 42163 42162 42162 42162 42162 42166 42166 42163 42166 42166 42166 42166 42162 42162 42163 42163 42162 42163 42163 42163 42163 42163 42163 42162 42162 42166 42162 42162 42163 42163 42166 42166 42166 42166 42166 42166 42166 42162 42162 
+ Optimal point: 14 13 13 
+++++++++++++++++++++++++++++++++++++++++++++++++++++++++++
CLIENT SHUTDOWN: client 42166
 + TIMESTAMP: 26.0944
+++++++++++++++++++++++++++++++++++++++++++++++++++++++++++
+ Client Mapping:
  > Client 42166 (0):	
  > Client 42163 (13):	18 19 20 21 22 23 29 30 15 16 0 1 8 
  > Client 42162 (13):	38 39 2 3 4 5 24 25 17 27 13 14 28 

+ Core Mapping:	42163 42163 42162 42162 42162 42162 0 0 42163 0 0 0 0 42162 42162 42163 42163 42162 42163 42163 42163 42163 42163 42163 42162 42162 0 42162 42162 42163 42163 0 0 0 0 0 0 0 42162 42162 
+ Optimal point: 14 13 13 
+++++++++++++++++++++++++++++++++++++++++++++++++++++++++++
client (42166) shutdown hint: 437.984
sum_client_shutdown_hint: 1751.94
++++++++++++++++++++++++++++++++++++++++++++++++
 + TIMESTAMP: 26.0961
REINVADE (42163)
  + pid: 42163
  + min_cores: 1
  + max_cores: 512
  + scalability graph: 
1, 1.36329, 1.52423, 1.62017, 1.68565, 1.73398, 1.77154, 1.80182, 1.8269, 1.84812, 1.86637, 1.88229, 1.89634, 1.90885, 1.92009, 1.93026, 1.93952, 1.94799, 1.95579, 1.963, 1.96968, 1.9759, 1.98172, 1.98716, 1.99228, 1.9971, 2.00164, 2.00594, 2.01002, 2.01389, 2.01757, 2.02108, 2.02443, 2.02763, 2.03069, 2.03362, 2.03644, 2.03914, 2.04173, 2.04423, 
Number of clients: 2

+++++++++++++++++++++++++++++++++++++++++++++++++++++++++++
+ Client Mapping:
  > Client 42163 (20):	18 19 20 21 22 23 29 30 15 16 0 1 8 6 7 9 10 11 12 26 
  > Client 42162 (13):	38 39 2 3 4 5 24 25 17 27 13 14 28 

+ Core Mapping:	42163 42163 42162 42162 42162 42162 42163 42163 42163 42163 42163 42163 42163 42162 42162 42163 42163 42162 42163 42163 42163 42163 42163 42163 42162 42162 42163 42162 42162 42163 42163 0 0 0 0 0 0 0 42162 42162 
+ Optimal point: 20 20 
+++++++++++++++++++++++++++++++++++++++++++++++++++++++++++
++++++++++++++++++++++++++++++++++++++++++++++++
 + TIMESTAMP: 26.0973
REINVADE (42162)
  + pid: 42162
  + min_cores: 1
  + max_cores: 512
  + scalability graph: 
1, 1.36329, 1.52423, 1.62017, 1.68565, 1.73398, 1.77154, 1.80182, 1.8269, 1.84812, 1.86637, 1.88229, 1.89634, 1.90885, 1.92009, 1.93026, 1.93952, 1.94799, 1.95579, 1.963, 1.96968, 1.9759, 1.98172, 1.98716, 1.99228, 1.9971, 2.00164, 2.00594, 2.01002, 2.01389, 2.01757, 2.02108, 2.02443, 2.02763, 2.03069, 2.03362, 2.03644, 2.03914, 2.04173, 2.04423, 
Number of clients: 2

+++++++++++++++++++++++++++++++++++++++++++++++++++++++++++
+ Client Mapping:
  > Client 42163 (20):	18 19 20 21 22 23 29 30 15 16 0 1 8 6 7 9 10 11 12 26 
  > Client 42162 (20):	38 39 2 3 4 5 24 25 17 27 13 14 28 31 32 33 34 35 36 37 

+ Core Mapping:	42163 42163 42162 42162 42162 42162 42163 42163 42163 42163 42163 42163 42163 42162 42162 42163 42163 42162 42163 42163 42163 42163 42163 42163 42162 42162 42163 42162 42162 42163 42163 42162 42162 42162 42162 42162 42162 42162 42162 42162 
+ Optimal point: 20 20 
+++++++++++++++++++++++++++++++++++++++++++++++++++++++++++
CLIENT SHUTDOWN: client 42163
 + TIMESTAMP: 29.8715
+++++++++++++++++++++++++++++++++++++++++++++++++++++++++++
+ Client Mapping:
  > Client 42163 (0):	
  > Client 42162 (20):	38 39 2 3 4 5 24 25 17 27 13 14 28 31 32 33 34 35 36 37 

+ Core Mapping:	0 0 42162 42162 42162 42162 0 0 0 0 0 0 0 42162 42162 0 0 42162 0 0 0 0 0 0 42162 42162 0 42162 42162 0 0 42162 42162 42162 42162 42162 42162 42162 42162 42162 
+ Optimal point: 20 20 
+++++++++++++++++++++++++++++++++++++++++++++++++++++++++++
client (42163) shutdown hint: 437.984
sum_client_shutdown_hint: 2189.92
++++++++++++++++++++++++++++++++++++++++++++++++
 + TIMESTAMP: 29.8726
REINVADE (42162)
  + pid: 42162
  + min_cores: 1
  + max_cores: 512
  + scalability graph: 
1, 1.36329, 1.52423, 1.62017, 1.68565, 1.73398, 1.77154, 1.80182, 1.8269, 1.84812, 1.86637, 1.88229, 1.89634, 1.90885, 1.92009, 1.93026, 1.93952, 1.94799, 1.95579, 1.963, 1.96968, 1.9759, 1.98172, 1.98716, 1.99228, 1.9971, 2.00164, 2.00594, 2.01002, 2.01389, 2.01757, 2.02108, 2.02443, 2.02763, 2.03069, 2.03362, 2.03644, 2.03914, 2.04173, 2.04423, 
Number of clients: 1

+++++++++++++++++++++++++++++++++++++++++++++++++++++++++++
+ Client Mapping:
  > Client 42162 (40):	38 39 2 3 4 5 24 25 17 27 13 14 28 31 32 33 34 35 36 37 0 1 6 7 8 9 10 11 12 15 16 18 19 20 21 22 23 26 29 30 

+ Core Mapping:	42162 42162 42162 42162 42162 42162 42162 42162 42162 42162 42162 42162 42162 42162 42162 42162 42162 42162 42162 42162 42162 42162 42162 42162 42162 42162 42162 42162 42162 42162 42162 42162 42162 42162 42162 42162 42162 42162 42162 42162 
+ Optimal point: 40 
+++++++++++++++++++++++++++++++++++++++++++++++++++++++++++
CLIENT SHUTDOWN: client 42162
 + TIMESTAMP: 29.9475
+++++++++++++++++++++++++++++++++++++++++++++++++++++++++++
+ Client Mapping:
  > Client 42162 (0):	

+ Core Mapping:	0 0 0 0 0 0 0 0 0 0 0 0 0 0 0 0 0 0 0 0 0 0 0 0 0 0 0 0 0 0 0 0 0 0 0 0 0 0 0 0 
+ Optimal point: 40 
+++++++++++++++++++++++++++++++++++++++++++++++++++++++++++
client (42162) shutdown hint: 437.984
sum_client_shutdown_hint: 2627.9
END TIMESTAMP: 29.9476
OVERALL TIME: 29.667
 + sum_client_shutdown_hint: 2627.9
 + sum_client_shutdown_hint/time: 88.5801
sum_client_shutdown_hint: 2627.9
