time,surface_elevation,reference_data,number_of_local_cells,number_of_global_cells
0,9.14364e-05,-2,524288,524288
1.0002,0.000108986,-2,524288,524288
2.00042,0.000131325,-2,524288,524288
3.00064,0.000159838,-2,524288,524288
4.00017,0.000196301,-2,524288,524288
5.00041,0.000243133,-2,524288,524288
6.00066,0.00030344,-2,524288,524288
7.00021,0.000381304,-2,524288,524288
8.00046,0.00048235,-2,524288,524288
9.00001,0.000613781,-2,524288,524288
10.0003,0.000785614,-2,524288,524288
11.0005,0.00101094,-2,524288,524288
12.0001,0.00129275,-2,524288,524288
13.0005,0.00163061,-2,524288,524288
14.0001,0.00227024,-2,524288,524288
15.0006,0.00290845,-2,524288,524288
16.0003,0.00347343,-2,524288,524288
17.0002,0.00422072,-2,524288,524288
18.0003,0.00516701,-2,524288,524288
19.0006,0.00633575,-2,524288,524288
20.0004,0.00774772,-2,524288,524288
21.0003,0.00941695,-2,524288,524288
22.0002,0.0113387,-2,524288,524288
23.0004,0.0134787,-2,524288,524288
24.0002,0.0157589,-2,524288,524288
25.0005,0.0180536,-2,524288,524288
26.0003,0.0201906,-2,524288,524288
27.0003,0.0219808,-2,524288,524288
28.0001,0.0232545,-2,524288,524288
29.0001,0.0239038,-2,524288,524288
30.0002,0.023902,-2,524288,524288
31.0001,0.0233012,-2,524288,524288
32.0004,0.0222086,-2,524288,524288
33.0005,0.0207588,-2,524288,524288
34,0.01909,-2,524288,524288
35.0002,0.0173231,-2,524288,524288
36.0004,0.0155606,-2,524288,524288
37.0006,0.013879,-2,524288,524288
38.0001,0.0123325,-2,524288,524288
39.0003,0.0109483,-2,524288,524288
40.0005,0.00974094,-2,524288,524288
41,0.00871201,-2,524288,524288
42.0002,0.00816546,-2,524288,524288
43.0004,0.00816555,-2,524288,524288
44.0007,0.00816563,-2,524288,524288
45.0001,0.00816571,-2,524288,524288
46.0003,0.0081658,-2,524288,524288
47.0006,0.00816588,-2,524288,524288
48,0.00816596,-2,524288,524288
49.0002,0.00816605,-2,524288,524288
50.0005,0.00816613,-2,524288,524288
51.0007,0.00816622,-2,524288,524288
52.0001,0.00816631,-2,524288,524288
53.0004,0.00816639,-2,524288,524288
54.0006,0.00816648,-2,524288,524288
55.0001,0.00816656,-2,524288,524288
56.0003,0.00816665,-2,524288,524288
57.0005,0.00816673,-2,524288,524288
58.0007,0.00816682,-2,524288,524288
59.0002,0.00816691,-2,524288,524288
60.0004,0.00816699,-2,524288,524288
61.0006,0.00816708,-2,524288,524288
62.0001,0.00816716,-2,524288,524288
63.0003,0.00816725,-2,524288,524288
64.0005,0.00816734,-2,524288,524288
65.0007,0.00816742,-2,524288,524288
66.0002,0.00816751,-2,524288,524288
67.0004,0.00816759,-2,524288,524288
68.0006,0.00816768,-2,524288,524288
69.0001,0.00816777,-2,524288,524288
70.0003,0.00816785,-2,524288,524288
71.0005,0.00816794,-2,524288,524288
72.0007,0.00816803,-2,524288,524288
73.0002,0.00816811,-2,524288,524288
74.0004,0.0081682,-2,524288,524288
75.0006,0.00816829,-2,524288,524288
76.0001,0.00816837,-2,524288,524288
77.0003,0.00816846,-2,524288,524288
78.0005,0.00816855,-2,524288,524288
79.0007,0.00816863,-2,524288,524288
80.0002,0.00816872,-2,524288,524288
81.0004,0.00816881,-2,524288,524288
82.0006,0.00816889,-2,524288,524288
83.0001,0.00816898,-2,524288,524288
84.0003,0.00816907,-2,524288,524288
85.0005,0.00816915,-2,524288,524288
86.0007,0.00816924,-2,524288,524288
87.0002,0.00816933,-2,524288,524288
88.0004,0.00816941,-2,524288,524288
89.0006,0.0081695,-2,524288,524288
90.0001,0.00816959,-2,524288,524288
91.0003,0.00816967,-2,524288,524288
92.0005,0.00816976,-2,524288,524288
93.0007,0.00816985,-2,524288,524288
94.0002,0.00816993,-2,524288,524288
95.0004,0.00817002,-2,524288,524288
96.0006,0.00817011,-2,524288,524288
97.0001,0.0081702,-2,524288,524288
98.0003,0.00817028,-2,524288,524288
99.0005,0.00817037,-2,524288,524288
100.001,0.00817046,-2,524288,524288
101,0.00817054,-2,524288,524288
102,0.00817063,-2,524288,524288
103.001,0.00817072,-2,524288,524288
104,0.00817081,-2,524288,524288
105,0.00817089,-2,524288,524288
106,0.00817098,-2,524288,524288
107.001,0.00817107,-2,524288,524288
108,0.00817115,-2,524288,524288
109,0.00817124,-2,524288,524288
110.001,0.00817133,-2,524288,524288
111,0.00817141,-2,524288,524288
112,0.0081715,-2,524288,524288
113,0.00817159,-2,524288,524288
114.001,0.00817168,-2,524288,524288
115,0.00817176,-2,524288,524288
116,0.00817185,-2,524288,524288
117.001,0.00817194,-2,524288,524288
118,0.00817203,-2,524288,524288
119,0.00817211,-2,524288,524288
