time,surface_elevation,reference_data,number_of_local_cells,number_of_global_cells
0,9.12088e-05,-2,131072,131072
1.0002,0.000108725,-2,131072,131072
2.00042,0.000131025,-2,131072,131072
3.00065,0.000159492,-2,131072,131072
4.00089,0.000195931,-2,131072,131072
5.00114,0.000242711,-2,131072,131072
6.0014,0.000302961,-2,131072,131072
7.00166,0.000380829,-2,131072,131072
8.00193,0.000481836,-2,131072,131072
9.00219,0.000613349,-2,131072,131072
10.0025,0.000785217,-2,131072,131072
11.0028,0.00101052,-2,131072,131072
12.0003,0.00129107,-2,131072,131072
13.0006,0.00162966,-2,131072,131072
14.001,0.00209254,-2,131072,131072
15.0015,0.00267931,-2,131072,131072
16.002,0.00335096,-2,131072,131072
17.0027,0.00412471,-2,131072,131072
18.0006,0.00509172,-2,131072,131072
19.0016,0.00628133,-2,131072,131072
20.0008,0.00770683,-2,131072,131072
21.0015,0.00938721,-2,131072,131072
22.0014,0.0113146,-2,131072,131072
23.0009,0.0134546,-2,131072,131072
24,0.0157306,-2,131072,131072
25.0017,0.0180234,-2,131072,131072
26,0.020151,-2,131072,131072
27.0006,0.0219381,-2,131072,131072
28.0003,0.0232121,-2,131072,131072
29.0017,0.0238682,-2,131072,131072
30.0018,0.0238777,-2,131072,131072
31.0002,0.0232936,-2,131072,131072
32.0026,0.022216,-2,131072,131072
33.0023,0.0207835,-2,131072,131072
34.002,0.0191292,-2,131072,131072
35.0015,0.0173755,-2,131072,131072
36.0009,0.0156232,-2,131072,131072
37.0001,0.0139486,-2,131072,131072
38.0021,0.0123997,-2,131072,131072
39.0011,0.0110169,-2,131072,131072
40.0028,0.00980622,-2,131072,131072
41.0016,0.00877568,-2,131072,131072
42.0002,0.0079132,-2,131072,131072
43.0017,0.00720434,-2,131072,131072
44.0001,0.00663813,-2,131072,131072
45.0013,0.00619132,-2,131072,131072
46.0024,0.00584989,-2,131072,131072
47.0006,0.00560009,-2,131072,131072
48.0014,0.00545671,-2,131072,131072
49.0022,0.00543535,-2,131072,131072
50,0.00545054,-2,131072,131072
51.0006,0.00549137,-2,131072,131072
52.001,0.0055744,-2,131072,131072
53.0013,0.005709,-2,131072,131072
54.0015,0.0058567,-2,131072,131072
55.0016,0.00595496,-2,131072,131072
56.0015,0.00599035,-2,131072,131072
57.0013,0.00606341,-2,131072,131072
58.001,0.00621412,-2,131072,131072
59.0004,0.0064257,-2,131072,131072
60.0026,0.0067049,-2,131072,131072
61.0018,0.00700728,-2,131072,131072
62.0008,0.00730535,-2,131072,131072
63.0024,0.00763396,-2,131072,131072
64.001,0.00797802,-2,131072,131072
65.0024,0.00833923,-2,131072,131072
66.002,0.00871457,-2,131072,131072
67.0013,0.00909884,-2,131072,131072
68.0019,0.00948966,-2,131072,131072
69.0001,0.00987585,-2,131072,131072
70.0001,0.0102475,-2,131072,131072
71.0026,0.0105964,-2,131072,131072
72.0019,0.0109138,-2,131072,131072
73.0007,0.0111939,-2,131072,131072
74.0019,0.0114318,-2,131072,131072
75.0026,0.0116222,-2,131072,131072
76,0.0117609,-2,131072,131072
77.0026,0.0118474,-2,131072,131072
78.0018,0.0118801,-2,131072,131072
79.0004,0.0118619,-2,131072,131072
80.0014,0.0118007,-2,131072,131072
81.0017,0.0117167,-2,131072,131072
82.0016,0.0116507,-2,131072,131072
83.0009,0.0113272,-2,131072,131072
84.0026,0.00945178,-2,131072,131072
85.001,0.00630355,-2,131072,131072
86.0019,0.0042975,-2,131072,131072
87.0025,0.00482865,-2,131072,131072
88.0001,7.32271e-05,-2,131072,131072
89.0002,-0.00486228,-2,131072,131072
90.0003,-0.00845155,-2,131072,131072
91.0004,-0.0106994,-2,131072,131072
92.0004,-0.011147,-2,131072,131072
93.0004,-0.00974486,-2,131072,131072
94.0004,-0.00990867,-2,131072,131072
95.0005,-0.0101495,-2,131072,131072
96.0005,-0.00975457,-2,131072,131072
97.0005,-0.00901992,-2,131072,131072
98.0006,-0.00823932,-2,131072,131072
99.0006,-0.00748207,-2,131072,131072
100.001,-0.00675826,-2,131072,131072
101.001,-0.0060652,-2,131072,131072
102.001,-0.00538939,-2,131072,131072
103.001,-0.00475948,-2,131072,131072
104.001,-0.00420862,-2,131072,131072
105.001,-0.00371392,-2,131072,131072
106.001,-0.00324687,-2,131072,131072
107.001,-0.00281704,-2,131072,131072
108.001,-0.00243655,-2,131072,131072
109.001,-0.00209807,-2,131072,131072
110.001,-0.0017867,-2,131072,131072
111.001,-0.00151003,-2,131072,131072
112.001,-0.00128415,-2,131072,131072
113.001,-0.00110565,-2,131072,131072
114.002,-0.000959663,-2,131072,131072
115.002,-0.000829842,-2,131072,131072
116.002,-0.000708686,-2,131072,131072
117.002,-0.00059656,-2,131072,131072
118.002,-0.000500037,-2,131072,131072
119.003,-0.000416372,-2,131072,131072
