time,surface_elevation,reference_data,number_of_local_cells,number_of_global_cells
0,9.04671e-06,-2,1048576,1048576
1.0002,9.04727e-06,-2,1048576,1048576
2.00006,9.04767e-06,-2,1048576,1048576
3.00029,9.04806e-06,-2,1048576,1048576
4.00017,9.04845e-06,-2,1048576,1048576
5.00006,9.04884e-06,-2,1048576,1048576
6.0003,9.04923e-06,-2,1048576,1048576
7.0002,9.04963e-06,-2,1048576,1048576
8.0001,9.05002e-06,-2,1048576,1048576
9.00034,9.05041e-06,-2,1048576,1048576
10.0003,9.05081e-06,-2,1048576,1048576
11.0002,9.0512e-06,-2,1048576,1048576
12.0001,9.05159e-06,-2,1048576,1048576
13.0001,9.05199e-06,-2,1048576,1048576
14.0001,9.05238e-06,-2,1048576,1048576
15.0002,9.05277e-06,-2,1048576,1048576
16.0003,9.05316e-06,-2,1048576,1048576
17.0002,9.05354e-06,-2,1048576,1048576
18.0002,9.05389e-06,-2,1048576,1048576
19.0001,9.05422e-06,-2,1048576,1048576
20.0003,9.05448e-06,-2,1048576,1048576
21.0002,9.05465e-06,-2,1048576,1048576
22.0001,9.05468e-06,-2,1048576,1048576
23.0003,9.05452e-06,-2,1048576,1048576
24.0001,9.05409e-06,-2,1048576,1048576
25,9.05331e-06,-2,1048576,1048576
26.0003,9.05207e-06,-2,1048576,1048576
27,9.05025e-06,-2,1048576,1048576
28.0002,9.04773e-06,-2,1048576,1048576
29,9.04437e-06,-2,1048576,1048576
30.0001,9.04e-06,-2,1048576,1048576
31.0001,9.03447e-06,-2,1048576,1048576
32.0003,9.02759e-06,-2,1048576,1048576
33.0001,9.01921e-06,-2,1048576,1048576
34.0001,0.0018186,-2,1048576,1048576
35.0002,0.0028642,-2,1048576,1048576
36.0003,0.00379327,-2,1048576,1048576
37,0.0050003,-2,1048576,1048576
38.0001,0.0065751,-2,1048576,1048576
39.0002,0.0086459,-2,1048576,1048576
40.0003,0.0115754,-2,1048576,1048576
41.0001,0.0151215,-2,1048576,1048576
42.0002,0.0196673,-2,1048576,1048576
43.0003,0.0249298,-2,1048576,1048576
44.0004,0.0306459,-2,1048576,1048576
45.0001,0.0361739,-2,1048576,1048576
46.0002,0.0408844,-2,1048576,1048576
47.0003,0.0443837,-2,1048576,1048576
48,0.0466637,-2,1048576,1048576
49.0002,0.0478677,-2,1048576,1048576
50.0003,0.0481908,-2,1048576,1048576
51,0.0478208,-2,1048576,1048576
52.0001,0.046912,-2,1048576,1048576
53.0002,0.0455848,-2,1048576,1048576
54.0003,0.0440798,-2,1048576,1048576
55.0001,0.0440797,-2,1048576,1048576
56.0002,0.0440797,-2,1048576,1048576
57.0003,0.0440796,-2,1048576,1048576
58.0001,0.0440796,-2,1048576,1048576
59.0002,0.0440795,-2,1048576,1048576
60.0003,0.0440794,-2,1048576,1048576
61,0.0440794,-2,1048576,1048576
62.0002,0.0440793,-2,1048576,1048576
63.0003,0.0440792,-2,1048576,1048576
64,0.0440792,-2,1048576,1048576
65.0001,0.0440791,-2,1048576,1048576
66.0003,0.044079,-2,1048576,1048576
67,0.044079,-2,1048576,1048576
68.0001,0.0440789,-2,1048576,1048576
69.0003,0.0440788,-2,1048576,1048576
70,0.0440788,-2,1048576,1048576
71.0002,0.0440787,-2,1048576,1048576
72.0003,0.0440786,-2,1048576,1048576
73,0.0440785,-2,1048576,1048576
74.0002,0.0440785,-2,1048576,1048576
75.0003,0.0440784,-2,1048576,1048576
76.0001,0.0440783,-2,1048576,1048576
77.0002,0.0440783,-2,1048576,1048576
78.0003,0.0440782,-2,1048576,1048576
79.0001,0.0440781,-2,1048576,1048576
80.0002,0.0440781,-2,1048576,1048576
81.0003,0.044078,-2,1048576,1048576
82.0001,0.0440779,-2,1048576,1048576
83.0002,0.0440778,-2,1048576,1048576
84.0004,0.0440778,-2,1048576,1048576
85.0001,0.0440777,-2,1048576,1048576
86.0003,0.0440776,-2,1048576,1048576
87,0.0440776,-2,1048576,1048576
88.0002,0.0440775,-2,1048576,1048576
89.0003,0.0440774,-2,1048576,1048576
90.0001,0.0440774,-2,1048576,1048576
91.0002,0.0440773,-2,1048576,1048576
92.0003,0.0440772,-2,1048576,1048576
93.0001,0.0440771,-2,1048576,1048576
94.0002,0.0440771,-2,1048576,1048576
95,0.044077,-2,1048576,1048576
96.0002,0.0440769,-2,1048576,1048576
97.0003,0.0440769,-2,1048576,1048576
98.0001,0.0440768,-2,1048576,1048576
99.0002,0.0440767,-2,1048576,1048576
100,0.0440766,-2,1048576,1048576
101,0.0440766,-2,1048576,1048576
102,0.0440765,-2,1048576,1048576
103,0.0440764,-2,1048576,1048576
104,0.0440764,-2,1048576,1048576
105,0.0440763,-2,1048576,1048576
106,0.0440762,-2,1048576,1048576
107,0.0440761,-2,1048576,1048576
108,0.0440761,-2,1048576,1048576
109,0.044076,-2,1048576,1048576
110,0.0440759,-2,1048576,1048576
111,0.0440758,-2,1048576,1048576
112,0.0440758,-2,1048576,1048576
113,0.0440757,-2,1048576,1048576
114,0.0440756,-2,1048576,1048576
115,0.0440756,-2,1048576,1048576
116,0.0440755,-2,1048576,1048576
117,0.0440754,-2,1048576,1048576
118,0.0440753,-2,1048576,1048576
119,0.0440753,-2,1048576,1048576
