time,surface_elevation,reference_data,number_of_local_cells,number_of_global_cells
0,9.08823e-06,-2,65536,65536
1.00021,9.09686e-06,-2,65536,65536
2.00042,9.08718e-06,-2,65536,65536
3.00066,8.91061e-06,-2,65536,65536
4.00091,8.34501e-06,-2,65536,65536
5.00117,7.36583e-06,-2,65536,65536
6.00144,6.08747e-06,-2,65536,65536
7.00172,4.63282e-06,-2,65536,65536
8.00201,3.08975e-06,-2,65536,65536
9.0023,1.51213e-06,-2,65536,65536
10.0026,-6.96692e-08,-2,65536,65536
11.0029,-1.63951e-06,-2,65536,65536
12.0033,-3.1895e-06,-2,65536,65536
13.0037,-4.7163e-06,-2,65536,65536
14.0041,-6.219e-06,-2,65536,65536
15.0046,-7.69789e-06,-2,65536,65536
16.0052,-9.15374e-06,-2,65536,65536
17.0002,-1.05795e-05,-2,65536,65536
18.0011,-1.19921e-05,-2,65536,65536
19.0021,-1.33849e-05,-2,65536,65536
20.0042,-1.47594e-05,-2,65536,65536
21.0021,-1.61099e-05,-2,65536,65536
22.0021,-1.74452e-05,-2,65536,65536
23.0045,-1.87663e-05,-2,65536,65536
24.0037,-2.00665e-05,-2,65536,65536
25.0054,-2.13535e-05,-2,65536,65536
26.0038,-2.2611e-05,-2,65536,65536
27.0044,-2.13954e-05,-2,65536,65536
28.0012,3.53435e-05,-2,65536,65536
29.0056,0.00042349,-2,65536,65536
30.0056,0.000843843,-2,65536,65536
31.0012,0.00119214,-2,65536,65536
32.0035,0.00147384,-2,65536,65536
33.0004,0.00192121,-2,65536,65536
34.0029,0.00266749,-2,65536,65536
35.0053,0.00361298,-2,65536,65536
36.0017,0.00439123,-2,65536,65536
37.0038,0.00563306,-2,65536,65536
38.0057,0.00727435,-2,65536,65536
39.0017,0.00941409,-2,65536,65536
40.0034,0.0123502,-2,65536,65536
41.0049,0.0159274,-2,65536,65536
42.0006,0.0203129,-2,65536,65536
43.0019,0.0254543,-2,65536,65536
44.0032,0.0308968,-2,65536,65536
45.0043,0.0361218,-2,65536,65536
46.0054,0.0405368,-2,65536,65536
47.0006,0.0438389,-2,65536,65536
48.0014,0.0460258,-2,65536,65536
49.0022,0.0471962,-2,65536,65536
50.0028,0.0475245,-2,65536,65536
51.0033,0.0471819,-2,65536,65536
52.0038,0.0463131,-2,65536,65536
53.0041,0.0450306,-2,65536,65536
54.0042,0.0434215,-2,65536,65536
55.0043,0.0415449,-2,65536,65536
56.0042,0.0394495,-2,65536,65536
57.004,0.0371642,-2,65536,65536
58.0036,0.0347038,-2,65536,65536
59.0031,0.0320728,-2,65536,65536
60.0025,0.0292608,-2,65536,65536
61.0016,0.0262443,-2,65536,65536
62.0005,0.0229856,-2,65536,65536
63.005,0.0187852,-2,65536,65536
64.0036,0.00868683,-2,65536,65536
65.0042,0.00700858,-2,65536,65536
66.0025,-0.00971736,-2,65536,65536
67.0011,-0.012586,-2,65536,65536
68.0019,-0.0125923,-2,65536,65536
69.0056,-0.0125912,-2,65536,65536
70.0027,-0.0125912,-2,65536,65536
71.0051,-0.0125912,-2,65536,65536
72.0015,-0.0125912,-2,65536,65536
73.0033,-0.0125912,-2,65536,65536
74.0045,-0.0125912,-2,65536,65536
75.0053,-0.0125912,-2,65536,65536
76.0056,-0.0125912,-2,65536,65536
77.0053,-0.0125912,-2,65536,65536
78.0045,-0.0125912,-2,65536,65536
79.0032,-0.0125912,-2,65536,65536
80.0013,-0.0125912,-2,65536,65536
81.0046,-0.0125912,-2,65536,65536
82.0016,-0.0125896,-2,65536,65536
83.0039,-0.0125746,-2,65536,65536
84.0056,-0.0122304,-2,65536,65536
85.0013,-0.0112302,-2,65536,65536
86.0023,-0.0103513,-2,65536,65536
87.003,-0.00946977,-2,65536,65536
88.0034,-0.00862855,-2,65536,65536
89.0037,-0.0078211,-2,65536,65536
90.0039,-0.00710544,-2,65536,65536
91.004,-0.0064684,-2,65536,65536
92.0042,-0.0058779,-2,65536,65536
93.0043,-0.00532369,-2,65536,65536
94.0045,-0.00482106,-2,65536,65536
95.0046,-0.00439053,-2,65536,65536
96.0047,-0.00401429,-2,65536,65536
97.0049,-0.00368516,-2,65536,65536
98.005,-0.00340188,-2,65536,65536
99.0052,-0.00314975,-2,65536,65536
100.005,-0.00290201,-2,65536,65536
101.005,-0.00264416,-2,65536,65536
102.006,-0.00237748,-2,65536,65536
103,-0.00211483,-2,65536,65536
104,-0.00187326,-2,65536,65536
105,-0.00164934,-2,65536,65536
106,-0.00142397,-2,65536,65536
107.001,-0.0011957,-2,65536,65536
108.001,-0.0009779,-2,65536,65536
109.001,-0.000786558,-2,65536,65536
110.001,-0.000605892,-2,65536,65536
111.001,-0.000409615,-2,65536,65536
112.002,-0.000194004,-2,65536,65536
113.002,3.22241e-05,-2,65536,65536
114.002,0.000255499,-2,65536,65536
115.003,0.000462172,-2,65536,65536
116.003,0.000650147,-2,65536,65536
117.003,0.000840609,-2,65536,65536
118.004,0.00105006,-2,65536,65536
119.004,0.00127606,-2,65536,65536
