time,surface_elevation,reference_data,number_of_local_cells,number_of_global_cells
0,8.90844e-06,-2,8192,8192
1.01145,8.94531e-06,-2,8192,8192
2.00045,8.98034e-06,-2,8192,8192
3.01196,9.01872e-06,-2,8192,8192
4.00103,9.05693e-06,-2,8192,8192
5.0126,9.09589e-06,-2,8192,8192
6.00172,9.13353e-06,-2,8192,8192
7.01335,9.1714e-06,-2,8192,8192
8.00252,9.2078e-06,-2,8192,8192
9.01419,9.24439e-06,-2,8192,8192
10.0034,9.27958e-06,-2,8192,8192
11.0152,9.31504e-06,-2,8192,8192
12.0045,9.34924e-06,-2,8192,8192
13.0163,9.3838e-06,-2,8192,8192
14.0057,9.41726e-06,-2,8192,8192
15.0177,9.4512e-06,-2,8192,8192
16.0073,9.48418e-06,-2,8192,8192
17.0195,9.51777e-06,-2,8192,8192
18.0093,9.55054e-06,-2,8192,8192
19.022,9.58405e-06,-2,8192,8192
20.013,9.61692e-06,-2,8192,8192
21.0056,9.65073e-06,-2,8192,8192
22.0002,9.69749e-06,-2,8192,8192
23.0197,9.88849e-06,-2,8192,8192
24.019,1.1083e-05,-2,8192,8192
25.0208,1.77571e-05,-2,8192,8192
26.0021,4.05109e-05,-2,8192,8192
27.0083,0.000113102,-2,8192,8192
28.0165,0.00033757,-2,8192,8192
29.0035,0.000602784,-2,8192,8192
30.015,0.000945588,-2,8192,8192
31.0047,0.00129281,-2,8192,8192
32.0185,0.00165963,-2,8192,8192
33.0097,0.00217464,-2,8192,8192
34.0007,0.00287799,-2,8192,8192
35.0146,0.00364676,-2,8192,8192
36.0053,0.00458742,-2,8192,8192
37.0189,0.00597181,-2,8192,8192
38.0093,0.00770906,-2,8192,8192
39.0226,0.00996744,-2,8192,8192
40.0128,0.0127468,-2,8192,8192
41.0028,0.0162065,-2,8192,8192
42.0157,0.0204665,-2,8192,8192
43.0055,0.0252157,-2,8192,8192
44.0182,0.0303377,-2,8192,8192
45.0079,0.0351165,-2,8192,8192
46.0204,0.0393253,-2,8192,8192
47.0098,0.0425655,-2,8192,8192
48.0221,0.0449852,-2,8192,8192
49.0113,0.0465195,-2,8192,8192
50.0004,0.0472103,-2,8192,8192
51.0124,0.0471719,-2,8192,8192
52.0013,0.046635,-2,8192,8192
53.0131,0.0456446,-2,8192,8192
54.0018,0.0442552,-2,8192,8192
55.0133,0.042534,-2,8192,8192
56.0017,0.0406328,-2,8192,8192
57.013,0.0384296,-2,8192,8192
58.0011,0.0360509,-2,8192,8192
59.0121,0.0334448,-2,8192,8192
60.0229,0.0306436,-2,8192,8192
61.0106,0.0276602,-2,8192,8192
62.021,0.0243055,-2,8192,8192
63.0083,0.019324,-2,8192,8192
64.0184,0.0125087,-2,8192,8192
65.0228,0.0130146,-2,8192,8192
66.0075,-0.00885309,-2,8192,8192
67.0196,-0.00885309,-2,8192,8192
68.0076,-0.00885309,-2,8192,8192
69.0118,-0.00885309,-2,8192,8192
70.0203,-0.00885309,-2,8192,8192
71.0054,-0.00885309,-2,8192,8192
72.0132,-0.00885309,-2,8192,8192
73.0205,-0.00885309,-2,8192,8192
74.0044,-0.00885309,-2,8192,8192
75.0108,-0.00885309,-2,8192,8192
76.0167,-0.00885309,-2,8192,8192
77.0221,-0.00885309,-2,8192,8192
78.0041,-0.00885309,-2,8192,8192
79.0084,-0.00885309,-2,8192,8192
80.0121,-0.00885309,-2,8192,8192
81.0154,-0.00885309,-2,8192,8192
82.0182,-0.00885309,-2,8192,8192
83.0204,-0.00885309,-2,8192,8192
84.0223,-0.00885309,-2,8192,8192
85.001,-0.00885309,-2,8192,8192
86.0022,-0.00859452,-2,8192,8192
87.0031,-0.00828002,-2,8192,8192
88.0038,-0.0079387,-2,8192,8192
89.0044,-0.0074817,-2,8192,8192
90.0049,-0.00696543,-2,8192,8192
91.0054,-0.00641939,-2,8192,8192
92.0059,-0.0057895,-2,8192,8192
93.0064,-0.00516705,-2,8192,8192
94.0069,-0.00461532,-2,8192,8192
95.0074,-0.00420746,-2,8192,8192
96.0079,-0.0038605,-2,8192,8192
97.0084,-0.0035179,-2,8192,8192
98.0089,-0.00317881,-2,8192,8192
99.0094,-0.00285205,-2,8192,8192
100.01,-0.00254212,-2,8192,8192
101.01,-0.00225094,-2,8192,8192
102.011,-0.00198102,-2,8192,8192
103.011,-0.00173085,-2,8192,8192
104.012,-0.00151337,-2,8192,8192
105.013,-0.00132703,-2,8192,8192
106.013,-0.00114109,-2,8192,8192
107.014,-0.000903857,-2,8192,8192
108.014,-0.000686737,-2,8192,8192
109.015,-0.000489173,-2,8192,8192
110.015,-0.000295152,-2,8192,8192
111.016,-9.5424e-05,-2,8192,8192
112.017,0.000109262,-2,8192,8192
113.017,0.000317603,-2,8192,8192
114.018,0.000528552,-2,8192,8192
115.019,0.000741329,-2,8192,8192
116.02,0.000955319,-2,8192,8192
117.02,0.00116997,-2,8192,8192
118.021,0.00138471,-2,8192,8192
119.022,0.00159885,-2,8192,8192
