time,surface_elevation,reference_data,number_of_local_cells,number_of_global_cells
0,8.67425e-06,-2,2048,2048
1.03394,8.77904e-06,-2,2048,2048
2.02297,8.85719e-06,-2,2048,2048
3.01205,8.93106e-06,-2,2048,2048
4.00118,9.00198e-06,-2,2048,2048
5.03533,9.07365e-06,-2,2048,2048
6.02457,9.14029e-06,-2,2048,2048
7.01385,9.20547e-06,-2,2048,2048
8.00318,9.2696e-06,-2,2048,2048
9.03752,9.33595e-06,-2,2048,2048
10.0269,9.39922e-06,-2,2048,2048
11.0164,9.46277e-06,-2,2048,2048
12.006,9.52713e-06,-2,2048,2048
13.0406,9.59593e-06,-2,2048,2048
14.0303,9.66393e-06,-2,2048,2048
15.02,9.73494e-06,-2,2048,2048
16.0099,9.81006e-06,-2,2048,2048
17.045,9.89469e-06,-2,2048,2048
18.0352,9.98464e-06,-2,2048,2048
19.0257,1.00935e-05,-2,2048,2048
20.0171,1.0268e-05,-2,2048,2048
21.0099,1.06774e-05,-2,2048,2048
22.0046,1.19128e-05,-2,2048,2048
23.0015,1.59064e-05,-2,2048,2048
24.0007,2.52192e-05,-2,2048,2048
25.0023,4.35505e-05,-2,2048,2048
26.0062,9.16448e-05,-2,2048,2048
27.0122,0.000208074,-2,2048,2048
28.0202,0.000378865,-2,2048,2048
29.03,0.000595818,-2,2048,2048
30.0412,0.000892678,-2,2048,2048
31.0077,0.00126114,-2,2048,2048
32.0214,0.00174528,-2,2048,2048
33.0356,0.00235494,-2,2048,2048
34.0036,0.00308861,-2,2048,2048
35.0176,0.00400425,-2,2048,2048
36.0314,0.00493348,-2,2048,2048
37.045,0.00641155,-2,2048,2048
38.0124,0.00812045,-2,2048,2048
39.0257,0.0104323,-2,2048,2048
40.0389,0.013309,-2,2048,2048
41.0059,0.0166278,-2,2048,2048
42.0188,0.0208169,-2,2048,2048
43.0316,0.0254156,-2,2048,2048
44.0443,0.030118,-2,2048,2048
45.0109,0.0343201,-2,2048,2048
46.0235,0.0382131,-2,2048,2048
47.0359,0.0413743,-2,2048,2048
48.0022,0.0436732,-2,2048,2048
49.0144,0.045389,-2,2048,2048
50.0265,0.0464692,-2,2048,2048
51.0385,0.0469729,-2,2048,2048
52.0044,0.0468933,-2,2048,2048
53.0162,0.0462086,-2,2048,2048
54.0278,0.0450051,-2,2048,2048
55.0393,0.04344,-2,2048,2048
56.0048,0.0417217,-2,2048,2048
57.016,0.0396977,-2,2048,2048
58.0271,0.0374296,-2,2048,2048
59.0381,0.0349153,-2,2048,2048
60.0029,0.0322774,-2,2048,2048
61.0136,0.0292427,-2,2048,2048
62.024,0.025483,-2,2048,2048
63.0342,0.019411,-2,2048,2048
64.0443,0.015929,-2,2048,2048
65.0082,0.000217981,-2,2048,2048
66.0042,-0.0032557,-2,2048,2048
67.0134,-0.0032557,-2,2048,2048
68.0301,-0.0032557,-2,2048,2048
69.0387,-0.0032557,-2,2048,2048
70.0012,-0.0032557,-2,2048,2048
71.0091,-0.0032557,-2,2048,2048
72.0166,-0.0032557,-2,2048,2048
73.0237,-0.0032557,-2,2048,2048
74.0304,-0.0032557,-2,2048,2048
75.0365,-0.0032557,-2,2048,2048
76.0421,-0.0032557,-2,2048,2048
77.0016,-0.0032557,-2,2048,2048
78.0062,-0.0032557,-2,2048,2048
79.0103,-0.0032557,-2,2048,2048
80.0139,-0.0032557,-2,2048,2048
81.0171,-0.0032557,-2,2048,2048
82.0198,-0.0032557,-2,2048,2048
83.0221,-0.0032557,-2,2048,2048
84.0241,-0.0032557,-2,2048,2048
85.0257,-0.0032557,-2,2048,2048
86.0271,-0.0032557,-2,2048,2048
87.0282,-0.0032557,-2,2048,2048
88.0293,-0.0032557,-2,2048,2048
89.0302,-0.0032557,-2,2048,2048
90.0312,-0.0032557,-2,2048,2048
91.0322,-0.0032557,-2,2048,2048
92.0331,-0.0032557,-2,2048,2048
93.0341,-0.0032557,-2,2048,2048
94.035,-0.0032557,-2,2048,2048
95.036,-0.00324738,-2,2048,2048
96.037,-0.00314188,-2,2048,2048
97.0379,-0.00296874,-2,2048,2048
98.0389,-0.00273869,-2,2048,2048
99.0398,-0.00269333,-2,2048,2048
100.041,-0.00258422,-2,2048,2048
101.042,-0.00244881,-2,2048,2048
102.043,-0.00229529,-2,2048,2048
103.044,-0.00212429,-2,2048,2048
104.045,-0.0019372,-2,2048,2048
105,-0.00174656,-2,2048,2048
106.001,-0.0015376,-2,2048,2048
107.002,-0.00132203,-2,2048,2048
108.003,-0.00110201,-2,2048,2048
109.004,-0.000879053,-2,2048,2048
110.005,-0.00065428,-2,2048,2048
111.007,-0.000428501,-2,2048,2048
112.008,-0.00020231,-2,2048,2048
113.009,2.38497e-05,-2,2048,2048
114.01,0.000249623,-2,2048,2048
115.011,0.000474699,-2,2048,2048
116.012,0.000698764,-2,2048,2048
117.014,0.00092143,-2,2048,2048
118.015,0.00114219,-2,2048,2048
119.016,0.00136038,-2,2048,2048
