%%MatrixMarket matrix array complex general
4 3
0.471404521 0
-0.816496581 0
-0.333333333 0
0.577350269 0
0.471404521 0
-0.816496581 0
-0.333333333 0
-0.577350269 0
0.471404521 0
-0.816496581 0
0.666666667 0
0 0
