%%MatrixMarket matrix array complex general
4 4
0.35355339 0
-0.353553391 0
-0.5 0
-0.5 0
0.35355339 0
-0.353553391 0
-0.5 0
0.5 0
0.35355339 0
0.353553391 0
-0.5 0
-0.5 0
0.35355339 0
0.353553391 0
-0.5 0
0.5 0
