Executable + params: ../../build/sierpi_intel_tbb_scan_sacsp_tsunami_parallel_release -o 32768 -A 1 -d 20 -a 8 -t 100
Problem size with different number of CPUs using function optimization
THREADS	MTPS	TIMESTEPS	TIMESTEP_SIZE	SECONDS_FOR_SIMULATION	AVERAGE_TRIANGLES	AVERAGE_PARTITIONS
40	65.1686	100	0.000491318		1.9047e+07	963.71
32	53.2483	100	0.000491318		1.9047e+07	773.72
30	40.2595	100	0.000491318		1.9047e+07	756.66
20	26.1566	100	0.000491318		1.9047e+07	533.26
16	22.809	100	0.000491318		1.9047e+07	433.08
10	13.6757	100	0.000491318		1.9047e+07	289.05
8	13.359	100	0.000491318		1.9047e+07	236.11
4	8.92207	100	0.000491318		1.9047e+07	133.26
2	4.69172	100	0.000491318		1.9047e+07	75.89
1	2.44028	100	0.000491318		1.9047e+07	48
