0	0
11.4521	0
22.904	0
34.3559	0
45.8077	0
57.2594	0
68.7112	0
79.9596	0
91.3185	0
102.678	-9.09495e-13
113.926	-1.81899e-12
125.378	-2.72848e-12
136.831	-4.54747e-12
148.079	-7.27596e-12
159.532	-1.18234e-11
170.947	-1.81899e-11
182.361	-2.63753e-11
193.776	-3.81988e-11
205.191	-5.36602e-11
216.605	-7.45786e-11
228.02	-1.00954e-10
239.435	-1.34605e-10
250.849	-1.77351e-10
262.264	-2.31012e-10
273.678	-2.96495e-10
285.092	-3.76531e-10
296.346	-4.72937e-10
307.542	-5.87534e-10
318.737	-7.23958e-10
329.933	-8.84938e-10
341.129	-1.07411e-09
352.324	-1.29512e-09
363.52	-1.5516e-09
374.526	-1.84173e-09
385.531	-2.1746e-09
396.537	-2.55386e-09
407.542	-2.98314e-09
418.548	-3.4679e-09
429.554	-4.01178e-09
440.579	-4.62023e-09
451.604	-5.2969e-09
462.629	-6.04541e-09
473.654	-6.86941e-09
484.672	-7.77163e-09
495.325	-8.72205e-09
505.979	-9.74978e-09
516.633	-1.08548e-08
527.287	-1.20363e-08
537.941	-1.32923e-08
548.595	-1.46247e-08
559.258	-1.6038e-08
569.92	-1.75378e-08
580.582	-1.91312e-08
591.244	-2.08247e-08
601.907	-2.26264e-08
612.569	-2.45418e-08
623.229	-2.65773e-08
633.889	-2.87364e-08
644.549	-3.10292e-08
655.209	-3.34676e-08
665.839	-3.60615e-08
676.469	-3.88354e-08
687.099	-4.18086e-08
697.729	-4.50036e-08
708.359	-4.84424e-08
718.989	-5.21477e-08
729.619	-5.61431e-08
740.249	-6.04514e-08
750.879	-6.50953e-08
761.509	-7.00966e-08
772.139	-7.54762e-08
782.769	-8.12524e-08
793.398	-8.74434e-08
804.028	-9.40636e-08
814.658	-1.01126e-07
825.287	-1.08639e-07
835.917	-1.16609e-07
846.545	-1.25036e-07
857.173	-1.33916e-07
867.801	-1.43241e-07
878.429	-1.52996e-07
889.057	-1.63159e-07
899.686	-1.73701e-07
910.316	-1.84582e-07
920.945	-1.95754e-07
931.575	-2.07158e-07
942.204	-2.18724e-07
952.833	-2.3037e-07
963.463	-2.42001e-07
974.092	-2.53511e-07
984.721	-2.64778e-07
995.35	-2.75671e-07
1005.98	-2.86045e-07
1016.61	-2.9574e-07
1027.24	-3.04587e-07
1037.87	-3.124e-07
1048.5	-3.18979e-07
1059.13	-3.24108e-07
1069.75	-3.27555e-07
1080.38	-3.29063e-07
1091.01	-3.28359e-07
1101.64	-3.25147e-07
1112.27	-3.19106e-07
1122.9	-3.09892e-07
1133.53	-2.97135e-07
1144.16	-2.80435e-07
1154.79	-2.59365e-07
1165.42	-2.33468e-07
1176.04	-2.02254e-07
1186.67	-1.652e-07
1197.3	-1.21747e-07
1207.93	-7.13007e-08
1218.56	-1.32277e-08
1229.19	5.31463e-08
1239.82	1.28537e-07
1250.45	2.13707e-07
1261.08	3.09462e-07
1271.7	4.16661e-07
1282.33	5.37131e-07
1292.92	6.71595e-07
1303.5	8.21428e-07
1314.08	9.87266e-07
1324.67	1.16961e-06
1335.25	1.36886e-06
1345.84	1.58539e-06
1356.42	1.81955e-06
1367	2.07168e-06
1377.59	2.34218e-06
1388.17	2.63148e-06
1398.75	2.9401e-06
1409.2	3.26445e-06
1419.65	3.60887e-06
1430.1	3.97415e-06
1440.55	4.36116e-06
1451	4.77091e-06
1461.45	5.20453e-06
1471.9	5.66329e-06
1482.35	6.14859e-06
1492.79	6.66201e-06
1503.24	7.20525e-06
1513.69	7.78017e-06
1524.14	8.38882e-06
1534.59	9.03339e-06
1545.04	9.71625e-06
1555.49	1.04399e-05
1565.94	1.12071e-05
1576.39	1.20208e-05
1586.83	1.28839e-05
1597.28	1.37997e-05
1607.73	1.47716e-05
1618.18	1.58032e-05
1628.63	1.68982e-05
1639.08	1.80606e-05
1649.53	1.92935e-05
1659.98	2.05998e-05
1670.42	2.19819e-05
1680.87	2.34423e-05
1691.32	2.49829e-05
1701.77	2.66059e-05
1712.22	2.83134e-05
1722.67	3.01075e-05
1733.12	3.19903e-05
1743.56	3.39628e-05
1754.01	3.60301e-05
1764.45	3.81936e-05
1774.9	4.04561e-05
1785.35	4.28206e-05
1795.79	4.52886e-05
1806.24	4.78672e-05
1816.69	5.05586e-05
1827.14	5.33669e-05
1837.58	5.62967e-05
1848.03	5.93529e-05
1858.48	6.25408e-05
1868.93	6.5866e-05
1879.38	6.93346e-05
1889.83	7.29528e-05
1900.27	7.67274e-05
1910.72	8.06653e-05
1921.17	8.4774e-05
1931.62	8.9061e-05
1942.07	9.35346e-05
1952.52	9.8203e-05
1962.96	0.000103075
1973.41	0.00010105
1983.86	9.94305e-05
1994.31	9.81835e-05
2004.76	9.72809e-05
2015.2	9.66984e-05
2025.65	9.64153e-05
2036.1	9.64127e-05
2046.55	9.66732e-05
2057	9.71818e-05
2067.44	9.79255e-05
2077.89	9.8893e-05
2088.34	0.000100075
2098.79	0.000101463
2109.24	0.000103052
2119.68	0.000104836
2130.13	0.000106812
2140.58	0.000108978
2151.03	0.000111334
2161.48	0.000113878
2171.92	0.000116614
2182.37	0.000119542
2192.82	0.000122668
2203.27	0.000125994
2213.71	0.000129527
2224.16	0.000133272
2234.61	0.000137237
2245.06	0.00014143
2255.51	0.000145858
2265.95	0.00015053
2276.4	0.000155457
2286.85	0.000160649
2297.3	0.000166116
2307.75	0.000171869
2318.19	0.000177921
2328.64	0.000184283
2339.09	0.000190969
2349.54	0.000197991
2359.99	0.000205381
2370.44	0.000213102
2380.88	0.000221126
2391.32	0.000229426
2401.69	0.000237939
2412.06	0.000246711
2422.43	0.000255735
2432.8	0.000265012
2443.17	0.000274543
2453.54	0.000284335
2463.91	0.000294394
2474.28	0.000304731
2484.65	0.00031536
2495.02	0.000326294
2505.39	0.00033755
2515.76	0.000349148
2526.13	0.000361108
2536.5	0.000373453
2546.87	0.000386209
2557.24	0.000399404
2567.61	0.000413066
2577.97	0.000427226
2588.34	0.000441914
2598.71	0.000457161
2609.08	0.000472997
2619.45	0.000489451
2629.82	0.000506552
2640.19	0.00052433
2650.56	0.000542815
2660.93	0.000562037
2671.3	0.000582028
2681.67	0.000602821
2692.04	0.00062445
2702.41	0.000646955
2712.78	0.000700816
2723.15	0.000754861
2733.52	0.000808711
2743.89	0.000862152
2754.26	0.000915107
2764.63	0.000967578
2774.99	0.00101963
2785.36	0.00107139
2795.73	0.00112301
2806.1	0.00117468
2816.47	0.00122661
2826.84	0.00127904
2837.21	0.00133219
2847.58	0.00138632
2857.95	0.00144168
2868.32	0.00149852
2878.69	0.00155711
2889.06	0.0016177
2899.43	0.00168054
2909.79	0.00174587
2920.16	0.00181396
2930.53	0.00188422
2940.9	0.00195632
2951.27	0.00203008
2961.64	0.00210543
2972.01	0.00218241
2982.38	0.00226114
2992.75	0.00234181
3003.12	0.00242471
3013.48	0.00251019
3023.85	0.00259866
3034.22	0.00269061
3044.59	0.00278652
3054.96	0.00288684
3065.33	0.002992
3075.7	0.00310241
3086.07	0.00336141
3096.44	0.00360949
3106.8	0.00384418
3117.17	0.00406669
3127.54	0.0042801
3137.91	0.00448853
3148.28	0.0046965
3158.65	0.00490844
3169.02	0.00512853
3179.39	0.00536067
3189.76	0.00560859
3200.12	0.00587595
3210.49	0.00615522
3220.86	0.00644465
3231.23	0.0067447
3241.6	0.00705765
3251.97	0.0073879
3262.34	0.00774192
3272.71	0.00851256
3283.07	0.00927722
3293.44	0.00998519
3303.81	0.0106731
3314.18	0.0113996
3324.55	0.0122129
3334.92	0.0131445
3345.29	0.014214
3355.66	0.0153034
3366.03	0.0176628
3376.4	0.01959
3386.76	0.0215476
3397.13	0.0237865
3407.5	0.0263139
3417.87	0.0290738
3428.24	0.0321579
3438.61	0.0356192
3448.98	0.0391706
3459.35	0.0426215
3469.72	0.0459392
3480.09	0.0491098
3490.46	0.0522491
3500.82	0.0554611
3511.19	0.0587966
3521.56	0.062254
3531.93	0.0658127
3542.3	0.06946
3552.67	0.0731945
3563.04	0.0770295
3573.41	0.0809884
3583.78	0.0850868
3594.15	0.08932
3604.52	0.0936664
3614.89	0.0980976
3625.26	0.10259
3635.63	0.10713
3646	0.111719
3656.37	0.116365
3666.74	0.121079
3677.11	0.125876
3687.48	0.130764
3697.85	0.135755
3708.22	0.140858
3718.59	0.146084
3728.96	0.151443
3739.35	0.156951
3749.75	0.162596
3760.14	0.168372
3770.54	0.174276
3780.93	0.180301
3791.33	0.186445
3801.72	0.192709
3812.12	0.199099
3822.51	0.205623
3832.91	0.21229
3843.3	0.219115
3853.7	0.226111
3864.09	0.233295
3874.49	0.240685
3884.89	0.248298
3895.28	0.256152
3905.68	0.264263
3916.07	0.272646
3926.47	0.281313
3936.86	0.290275
3947.26	0.299541
3957.65	0.30912
3968.05	0.319019
3978.45	0.329245
3988.84	0.339806
3999.24	0.350705
4009.63	0.36195
4020.03	0.373543
4030.42	0.385489
4040.82	0.397786
4051.22	0.410433
4061.61	0.423424
4072.01	0.43675
4082.4	0.450395
4092.99	0.464603
4103.58	0.479099
4114.17	0.493854
4124.76	0.508835
4135.35	0.524
4145.94	0.539307
4156.53	0.554711
4167.12	0.570152
4177.72	0.585574
4188.31	0.600913
4198.9	0.616102
4209.5	0.63107
4220.09	0.645741
4230.68	0.660033
4241.28	0.673863
4251.87	0.68714
4262.46	0.699771
4273.09	0.711701
4283.72	0.722782
4294.35	0.732912
4304.98	0.741986
4315.61	0.749897
4326.24	0.75654
4336.87	0.761811
4347.5	0.765606
4358.13	0.767826
4368.76	0.768375
4379.38	0.76716
4390.01	0.764096
4400.64	0.759101
4411.27	0.752101
4421.9	0.743031
4432.52	0.731831
4443.15	0.718452
4453.78	0.70285
4464.41	0.684998
4475.04	0.664877
4485.67	0.642475
4496.3	0.617798
4506.93	0.590857
4517.56	0.561677
4528.19	0.530292
4538.82	0.496753
4549.45	0.461119
4560.08	0.423439
4570.71	0.383784
4581.34	0.342336
4591.97	0.298939
4602.6	0.253533
4613.23	0.206557
4623.86	0.159273
4634.49	0.11202
4645.12	0.0541145
4655.75	0.00344166
4666.38	-0.0376748
4677.01	-0.0876083
4687.64	-0.122937
4698.27	-0.152989
4708.89	-0.178508
4719.52	-0.191924
4730.15	-0.207929
4740.78	-0.224726
4751.41	-0.24217
4762.04	-0.235014
4772.67	-0.246634
4783.3	-0.259583
4793.93	-0.268885
4804.56	-0.281787
4815.19	-0.292709
4825.82	-0.302495
4836.45	-0.311081
4847.08	-0.318709
4857.71	-0.325657
4868.34	-0.331537
4878.97	-0.337822
4889.6	-0.343315
4900.23	-0.348429
4910.81	-0.35318
4921.4	-0.357622
4931.98	-0.361756
4942.56	-0.365577
4953.15	-0.36909
4963.73	-0.372316
4974.32	-0.359072
4984.9	-0.362173
4995.48	-0.365554
5006.07	-0.3687
5016.65	-0.372281
5027.23	-0.375341
5037.82	-0.377842
5048.4	-0.379873
5058.99	-0.381508
5069.57	-0.382809
5080.02	-0.383821
5090.47	-0.384586
5100.92	-0.385149
5111.37	-0.385545
5121.81	-0.385803
5132.26	-0.385945
5142.71	-0.385989
5153.16	-0.385949
5163.61	-0.385838
5174.06	-0.385576
5184.51	-0.385343
5194.96	-0.385108
5205.41	-0.38485
5215.86	-0.384386
5226.3	-0.383887
5236.75	-0.383349
5247.2	-0.38277
5257.65	-0.382149
5268.1	-0.381482
5278.55	-0.38077
5289	-0.380011
5299.45	-0.379206
5309.9	-0.378357
5320.34	-0.377463
5330.79	-0.376528
5341.24	-0.375557
5351.69	-0.374531
5362.14	-0.371217
5372.58	-0.366792
5383.03	-0.366344
5393.48	-0.365853
5403.93	-0.36532
5414.37	-0.364746
5424.82	-0.36413
5435.27	-0.363461
5445.72	-0.362744
5456.16	-0.361979
5466.61	-0.361169
5477.05	-0.360318
5487.5	-0.359425
5497.95	-0.358494
5508.4	-0.357525
5518.85	-0.356522
5529.3	-0.355486
5539.75	-0.354418
5550.2	-0.353319
5560.65	-0.352195
5571.09	-0.351051
5581.54	-0.34989
5591.99	-0.348714
5602.44	-0.347523
5612.89	-0.346317
5623.34	-0.345097
5633.79	-0.343863
5644.24	-0.342613
5654.69	-0.341346
5665.13	-0.340061
5675.58	-0.338756
5686.03	-0.337428
5696.48	-0.336078
5706.93	-0.3347
5717.38	-0.333295
5727.83	-0.331859
5738.28	-0.330471
5748.73	-0.329034
5759.17	-0.327553
5769.62	-0.326028
5780.07	-0.324456
5790.52	-0.322837
5800.97	-0.32108
5811.42	-0.319271
5821.87	-0.317412
5832.32	-0.315504
5842.77	-0.313547
5853.21	-0.311544
5863.66	-0.309494
5874.11	-0.3074
5884.56	-0.305262
5895.01	-0.303082
5905.46	-0.300861
5915.91	-0.2986
5926.36	-0.2963
5936.81	-0.294597
5947.25	-0.292786
5957.7	-0.290889
5968.15	-0.288924
5978.6	-0.286903
5989.05	-0.284835
5999.5	-0.282723
6009.95	-0.280572
6020.4	-0.278384
6030.85	-0.276158
6041.29	-0.273894
6051.74	-0.271591
6062.19	-0.269247
6072.64	-0.266862
6083.09	-0.264434
6093.54	-0.261961
6103.99	-0.259443
6114.44	-0.256877
6124.89	-0.25425
6135.32	-0.251566
6145.77	-0.248822
6156.21	-0.246027
6166.58	-0.243198
6176.95	-0.240319
6187.32	-0.237409
6197.69	-0.23448
6208.06	-0.231542
6218.43	-0.2286
6228.8	-0.225658
6239.17	-0.222718
6249.54	-0.219777
6259.91	-0.216835
6270.28	-0.213888
6280.65	-0.210932
6291.02	-0.20796
6301.39	-0.204968
6311.75	-0.201951
6322.12	-0.198901
6332.49	-0.195817
6342.86	-0.192693
6353.23	-0.186735
6363.6	-0.181009
6373.97	-0.175568
6384.34	-0.170405
6394.71	-0.165482
6405.08	-0.160745
6415.45	-0.156135
6425.82	-0.151596
6436.19	-0.147074
6446.56	-0.142527
6456.93	-0.137919
6467.3	-0.133219
6477.67	-0.128401
6488.04	-0.123553
6498.41	-0.118703
6508.78	-0.113853
6519.15	-0.108986
6529.52	-0.104071
6539.89	-0.0990653
6550.26	-0.0939289
6560.63	-0.0842011
6571	-0.0749193
6581.37	-0.0663601
6591.73	-0.0580688
6602.1	-0.04976
6612.47	-0.0412196
6622.84	-0.0323509
6633.21	-0.0231593
6643.58	-0.0140185
6653.95	-0.00524862
6664.32	0.0100927
6674.69	0.0226346
6685.06	0.0337337
6695.43	0.0450486
6705.8	0.0565055
6716.17	0.0676146
6726.54	0.0794895
6736.91	0.0914349
6747.28	0.101268
6757.65	0.108532
6768.02	0.113616
6778.39	0.116718
6788.76	0.118755
6799.13	0.120397
6809.5	0.121931
6819.87	0.123369
6830.24	0.12464
6840.61	0.125741
6850.97	0.126725
6861.34	0.127718
6871.71	0.128815
6882.08	0.130064
6892.45	0.131454
6902.82	0.132894
6913.19	0.134253
6923.56	0.135415
6933.93	0.136284
6944.3	0.136807
6954.67	0.136969
6965.04	0.136799
6975.41	0.136365
6985.78	0.135755
6996.15	0.135067
7006.52	0.13439
7016.89	0.133801
7027.26	0.133362
7037.63	0.133109
7048	0.133039
7058.37	0.133107
7068.74	0.133238
7079.11	0.133334
7089.48	0.1333
7099.85	0.13306
7110.22	0.132565
7120.58	0.131799
7130.95	0.130775
7141.32	0.129526
7151.69	0.1281
7162.06	0.126554
7172.43	0.124946
7182.8	0.123335
7193.17	0.121775
7203.54	0.120315
7213.91	0.118996
7224.28	0.117848
7234.65	0.116889
7245.02	0.116126
7255.39	0.115558
7265.76	0.115173
7276.13	0.114955
7286.5	0.114885
7296.87	0.114943
7307.24	0.115108
7317.61	0.115365
7327.98	0.115701
7338.35	0.116105
7348.72	0.116573
7359.09	0.117101
7369.46	0.117687
7379.83	0.118326
7390.2	0.119014
7400.59	0.119745
7410.99	0.120503
7421.38	0.121275
7431.78	0.122041
7442.18	0.12278
7452.57	0.123473
7462.97	0.124098
7473.36	0.124636
7483.76	0.125073
7494.15	0.125398
7504.55	0.125605
7514.95	0.125692
7525.34	0.125667
7535.74	0.125536
7546.13	0.125313
7556.53	0.125013
7566.92	0.124651
7577.32	0.124241
7587.72	0.123799
7598.11	0.123337
7608.51	0.122866
7618.9	0.122394
7629.3	0.121929
7639.69	0.121478
7650.09	0.121046
7660.48	0.120639
7670.88	0.120262
7681.28	0.119921
7691.67	0.119619
7702.07	0.119361
7712.46	0.119147
7722.86	0.118978
7733.26	0.11885
7743.65	0.118757
7754.05	0.118688
7764.44	0.118632
7774.84	0.118573
7785.23	0.118495
7795.63	0.118378
7806.03	0.118205
7816.42	0.117958
7826.82	0.117621
7837.21	0.11718
7847.61	0.116625
7858	0.115949
7868.4	0.115147
7878.8	0.11422
7889.19	0.113169
7899.59	0.112001
7909.98	0.110721
7920.38	0.109339
7930.77	0.107866
7941.17	0.10631
7951.57	0.104683
7961.96	0.102994
7972.36	0.101254
7982.75	0.0994701
7993.15	0.0976517
8003.54	0.0958061
8013.94	0.0939401
8024.34	0.0920602
8034.73	0.0901719
8045.13	0.0882804
8055.52	0.0863898
8065.92	0.0845035
8076.31	0.0826235
8086.71	0.0807504
8097.11	0.0788829
8107.5	0.0770181
8117.9	0.0751507
8128.29	0.0732735
8138.69	0.0713771
8149.08	0.0694501
8159.48	0.0674794
8169.88	0.0654505
8180.27	0.0633482
8190.67	0.0611564
8201.06	0.058859
8211.46	0.0564401
8221.86	0.0538845
8232.25	0.0511771
8242.65	0.0483039
8253.04	0.045247
8263.44	0.0419809
8273.83	0.038494
8284.23	0.0347745
8294.63	0.0307412
8305.02	0.0263916
8315.42	0.0218133
8325.81	0.017049
8336.21	0.0110764
8346.6	0.00497764
8357	0.000222966
8367.4	-0.00573612
8377.79	-0.00977572
8388.19	-0.0135635
8398.58	-0.0170616
8408.98	-0.0180558
8419.37	-0.0208029
8429.77	-0.0224545
8440.17	-0.0247869
8450.56	-0.0275471
8460.96	-0.0297529
8471.35	-0.0317158
8481.75	-0.0334932
8492.15	-0.0351638
8502.54	-0.0369871
8512.94	-0.0387299
8523.33	-0.0405371
8533.73	-0.04208
8544.12	-0.0434377
8554.52	-0.0446581
8564.92	-0.0457712
8575.31	-0.0467988
8585.71	-0.0449719
8596.1	-0.0458301
8606.5	-0.0466182
8616.89	-0.0466031
8627.29	-0.0476302
8637.69	-0.0487028
8648.08	-0.0496642
8658.48	-0.0505361
8668.87	-0.0513368
8679.27	-0.0520745
8689.67	-0.0527567
8700.06	-0.0533944
8710.46	-0.0539993
8720.85	-0.05458
8731.25	-0.0551422
8741.64	-0.0556903
8752.04	-0.0562272
8762.44	-0.0567545
8772.83	-0.0572734
8783.23	-0.0576725
8793.62	-0.0581019
8804.02	-0.0587347
8814.41	-0.0593348
8824.81	-0.0599059
8835.21	-0.0604507
8845.6	-0.0609709
8856	-0.0614674
8866.39	-0.0619414
8876.79	-0.0623936
8887.18	-0.062825
8897.58	-0.0632364
8907.98	-0.0636287
8918.37	-0.0640027
8928.77	-0.064359
8939.16	-0.0647002
8949.56	-0.0610052
8959.96	-0.0583184
8970.35	-0.0587569
8980.75	-0.059117
8991.14	-0.0594606
9001.54	-0.0597884
9011.93	-0.0600985
9022.33	-0.060383
9032.73	-0.0606441
9043.12	-0.0608836
9053.52	-0.0611033
9063.91	-0.0613048
9074.31	-0.0614897
9084.7	-0.0616594
9095.1	-0.0618154
9105.5	-0.0619594
9115.89	-0.0620926
9126.29	-0.0622162
9136.68	-0.0623312
9147.08	-0.0624377
9157.48	-0.0625353
9167.87	-0.062624
9178.27	-0.0627035
9188.66	-0.0627742
9199.06	-0.0628363
9209.45	-0.0628897
9219.85	-0.0629345
9230.25	-0.0629706
9240.64	-0.0629978
9251.04	-0.0630171
9261.43	-0.063039
9271.83	-0.0630478
9282.22	-0.0630439
9292.62	-0.0630277
9303.02	-0.0629997
9313.41	-0.0629548
9323.81	-0.0628944
9334.2	-0.0628198
9344.6	-0.0627322
9355	-0.0626325
9365.37	-0.0626375
9375.73	-0.0626241
9386.1	-0.0625934
9396.47	-0.0625467
9406.84	-0.0624848
9417.21	-0.0624088
9427.58	-0.0623194
9437.95	-0.0622173
9448.32	-0.0621032
9458.69	-0.0619778
9469.06	-0.0618415
9479.43	-0.061695
9489.8	-0.0615385
9500.17	-0.0613726
9510.54	-0.0611976
9520.91	-0.0610138
9531.28	-0.0608214
9541.65	-0.0606209
9552.02	-0.0604123
9562.39	-0.060196
9572.76	-0.0599721
9583.13	-0.0597409
9593.5	-0.0595024
9603.87	-0.0592568
9614.24	-0.0590044
9624.61	-0.0592063
9634.98	-0.0589629
9645.35	-0.0587188
9655.72	-0.0584738
9666.09	-0.0582274
9676.46	-0.0579795
9686.83	-0.0577296
9697.2	-0.0574775
9707.57	-0.0572229
9717.94	-0.0569619
9728.31	-0.0566947
9738.68	-0.0564213
9749.05	-0.0561419
9759.42	-0.0558566
9769.79	-0.0555654
9780.16	-0.0552683
9790.52	-0.0549654
9800.89	-0.0546566
9811.26	-0.0543419
9821.63	-0.053928
9832	-0.0535121
9842.37	-0.0530939
9852.74	-0.0526733
9863.11	-0.0522501
9873.48	-0.0518241
9883.85	-0.0513951
9894.22	-0.0509631
9904.59	-0.0505279
9914.96	-0.0500894
9925.33	-0.0496475
9935.7	-0.0492023
9946.07	-0.0487536
9956.44	-0.0483013
9966.81	-0.0478454
9977.18	-0.047386
9987.55	-0.0469229
9997.92	-0.0464561
10008.3	-0.0459855
10018.7	-0.0455111
10029	-0.0450328
10039.4	-0.0445506
10049.8	-0.0440644
10060.1	-0.0435744
10070.5	-0.0430805
10080.9	-0.0425828
10091.2	-0.0420813
10101.6	-0.0415761
10112	-0.0410673
10122.4	-0.040555
10132.7	-0.0400391
10143.1	-0.0395198
10153.5	-0.0389971
10163.8	-0.0384711
10174.2	-0.0379461
10184.6	-0.0374216
10194.9	-0.0368971
10205.3	-0.0363723
10215.7	-0.035847
10226.1	-0.0353208
10236.4	-0.0347935
10246.8	-0.0342649
10257.2	-0.033735
10267.5	-0.0332035
10277.9	-0.0326703
10288.3	-0.0321355
10298.6	-0.0315989
10309	-0.0310607
10319.4	-0.030521
10329.8	-0.02998
10340.1	-0.0294378
10350.5	-0.0288945
10360.9	-0.0283503
10371.2	-0.0278052
10381.6	-0.0272594
10392	-0.026713
10402.3	-0.0261661
10412.7	-0.0256188
10423.1	-0.0250713
10433.4	-0.0245276
10443.8	-0.0239876
10454.2	-0.0234507
10464.6	-0.0229168
10474.9	-0.0222846
10485.3	-0.0216635
10495.7	-0.0210527
10506	-0.0204517
10516.4	-0.0198598
10526.8	-0.0192765
10537.1	-0.0187014
10547.5	-0.0181338
10557.9	-0.0175734
10568.3	-0.0170197
10578.6	-0.0164725
10589	-0.0159312
10599.4	-0.0153955
10609.7	-0.0148651
10620.1	-0.0143398
10630.5	-0.0138192
10640.8	-0.0133032
10651.2	-0.0127916
10661.6	-0.0121714
10672	-0.0115887
10682.3	-0.0110381
10692.7	-0.0105149
10703.1	-0.0100151
10713.4	-0.00953501
10723.8	-0.00907164
10734.2	-0.00862228
10744.5	-0.00818462
10754.9	-0.00775664
10765.3	-0.0073366
10775.6	-0.00692299
10786	-0.0065145
10796.4	-0.00611004
10806.8	-0.00570866
10817.1	-0.00530931
10827.5	-0.00491904
10837.9	-0.00453655
10848.2	-0.00416051
10858.6	-0.00378962
10869	-0.00342264
10879.3	-0.00305839
10889.7	-0.00269579
10900.1	-0.00233451
10910.5	-0.00197413
10920.8	-0.0016142
10931.2	-0.0012659
10941.6	-0.000926015
10951.9	-0.000592018
10962.3	-0.000261441
10972.7	6.77967e-05
10983	0.00039745
10993.4	0.000729005
11003.8	0.00106362
11014.2	0.00140224
11024.5	0.00174644
11034.9	0.00209599
11045.3	0.00245114
11055.7	0.002812
11066.1	0.00327961
11076.5	0.00379345
11086.9	0.00433435
11097.3	0.00488969
11107.7	0.0054513
11118.1	0.00601363
11128.5	0.00657772
11138.9	0.00714173
11149.3	0.0077047
11159.7	0.00826586
11170.3	0.00883501
11180.9	0.00940115
11191.5	0.00996318
11202.1	0.0105204
11212.6	0.0110717
11223.2	0.0116155
11233.8	0.01297
11244.4	0.0143273
11255	0.0155641
11265.6	0.0166665
11276.2	0.0176304
11286.8	0.0184936
11297.4	0.0197276
11308	0.0204028
11318.6	0.0212822
11329.2	0.0221208
11339.8	0.022987
11350.3	0.023852
11360.9	0.0247497
11371.5	0.0255032
11382.1	0.0263326
11393	0.0271775
11403.9	0.0281509
11414.8	0.0291701
11425.7	0.030216
11436.6	0.0312738
11447.5	0.0323598
11458.4	0.0334883
11469.3	0.0346555
11480.2	0.0358335
11491.1	0.0370338
11502	0.0382473
11513	0.0394719
11523.9	0.0406939
11534.8	0.0419048
11545.7	0.0431004
11556.6	0.0442816
11567.5	0.0454481
11578.4	0.0466008
11589.3	0.0477387
11600.2	0.0488553
11611.1	0.0499441
11622	0.051001
11632.9	0.0520255
11643.8	0.053019
11654.7	0.0539837
11665.6	0.0549227
11676.5	0.055839
11687.4	0.0567352
11698.3	0.0576111
11709.2	0.0584638
11720.1	0.0592874
11731	0.0600738
11741.9	0.0608143
11752.8	0.0615006
11763.7	0.0621262
11774.6	0.0626866
11785.5	0.0631803
11796.4	0.0636078
11807.3	0.0639732
11818.3	0.0642804
11829.2	0.0645357
11840.1	0.0647462
11851.1	0.0649189
11862	0.0650598
11872.9	0.0651736
11883.8	0.0652637
11894.8	0.0653315
11905.7	0.0653776
11916.6	0.0654017
11927.6	0.0654036
11938.5	0.0653831
11949.4	0.065341
11960.4	0.0652788
11971.3	0.0651987
11982.2	0.0651031
11993.1	0.0649944
