0	0
12.9614	0
25.9227	0
32.4032	0
45.3642	0
51.8447	0
64.8055	0
71.2859	0
84.2464	0
90.7267	0
103.633	0
110.113	0
122.956	0
135.799	0
142.28	0
155.117	0
161.474	-9.09495e-13
174.188	-2.72848e-12
180.545	-3.63798e-12
193.259	-5.45697e-12
205.972	-7.27596e-12
212.329	-8.18545e-12
225.043	-1.00044e-11
231.4	-1.09139e-11
244.113	-1.27329e-11
250.47	-1.36424e-11
263.184	-1.45519e-11
275.897	-1.36424e-11
282.254	-1.27329e-11
294.944	-8.18545e-12
301.277	-4.54747e-12
313.944	7.27596e-12
320.277	1.54614e-11
332.944	3.72893e-11
345.61	6.91216e-11
351.944	8.91305e-11
364.548	1.40062e-10
370.774	1.70985e-10
383.316	2.47383e-10
395.859	3.45608e-10
402.13	4.04725e-10
414.672	5.44787e-10
420.898	6.26642e-10
433.273	8.16726e-10
445.648	1.04956e-09
451.836	1.18416e-09
464.148	1.49339e-09
470.272	1.66892e-09
482.521	2.07183e-09
494.586	2.54295e-09
500.625	2.81034e-09
512.701	3.41697e-09
524.778	4.12911e-09
530.805	4.52928e-09
542.87	5.4315e-09
554.914	6.48288e-09
560.936	7.07132e-09
572.98	8.39009e-09
585.023	9.91986e-09
591.045	1.07721e-08
603.089	1.26656e-08
615.133	1.48284e-08
621.154	1.60153e-08
633.198	1.86092e-08
645.242	2.15095e-08
651.263	2.30793e-08
663.29	2.64608e-08
675.317	3.0187e-08
681.33	3.21843e-08
693.356	3.64525e-08
705.383	4.10882e-08
711.396	4.35439e-08
723.439	4.87353e-08
735.482	5.42841e-08
741.503	5.71899e-08
753.545	6.3259e-08
765.588	6.96618e-08
771.609	7.29842e-08
783.651	7.98673e-08
795.694	8.70596e-08
801.715	9.07703e-08
813.739	9.84046e-08
825.764	1.06337e-07
831.776	1.10416e-07
843.8	1.18803e-07
855.824	1.27502e-07
861.837	1.31973e-07
873.861	1.41172e-07
885.885	1.50735e-07
891.897	1.55664e-07
903.921	1.6584e-07
915.945	1.76483e-07
921.957	1.81997e-07
933.982	1.93455e-07
946.006	2.0555e-07
952.018	2.11865e-07
964.042	2.25094e-07
970.054	2.32037e-07
982.078	2.4666e-07
994.102	2.62386e-07
1000.11	2.70712e-07
1012.14	2.88403e-07
1024.16	3.07636e-07
1030.17	3.17896e-07
1042.2	3.39843e-07
1054.22	3.63898e-07
1060.23	3.76798e-07
1072.26	4.04523e-07
1084.28	4.3507e-07
1090.29	4.51503e-07
1102.31	4.86903e-07
1114.33	5.25994e-07
1120.34	5.47051e-07
1132.35	5.92458e-07
1144.37	6.4263e-07
1150.38	6.69653e-07
1162.4	7.27891e-07
1174.41	7.92167e-07
1180.42	8.26747e-07
1192.44	9.01164e-07
1204.46	9.83121e-07
1210.46	1.02714e-06
1222.48	1.12167e-06
1234.5	1.22551e-06
1240.51	1.28116e-06
1252.52	1.40043e-06
1264.54	1.53105e-06
1270.55	1.6009e-06
1282.52	1.74978e-06
1294.46	1.91177e-06
1300.43	1.99817e-06
1312.37	2.18247e-06
1324.31	2.38335e-06
1330.28	2.49079e-06
1342.22	2.72054e-06
1354.16	2.97095e-06
1360.13	3.10415e-06
1372.07	3.38695e-06
1384.01	3.69204e-06
1395.89	4.01827e-06
1401.8	4.18914e-06
1413.62	4.54817e-06
1425.44	4.93069e-06
1431.35	5.13093e-06
1443.18	5.54972e-06
1455.12	5.99802e-06
1461.09	6.232e-06
1473.02	6.72022e-06
1484.96	7.23635e-06
1490.93	7.50526e-06
1502.87	8.06566e-06
1514.74	8.65396e-06
1520.68	8.96026e-06
1532.55	9.59833e-06
1544.42	1.0272e-05
1550.35	1.0623e-05
1562.22	1.13544e-05
1574.01	1.21221e-05
1585.8	1.29335e-05
1591.69	1.33566e-05
1603.48	1.42395e-05
1615.27	1.51741e-05
1621.16	1.56618e-05
1632.95	1.66807e-05
1644.74	1.77606e-05
1650.63	1.83248e-05
1662.42	1.95041e-05
1674.21	2.07553e-05
1680.1	2.14094e-05
1691.89	2.27772e-05
1703.68	2.42283e-05
1715.46	2.57661e-05
1721.36	2.65685e-05
1733.14	2.8242e-05
1744.93	3.00095e-05
1750.83	3.09293e-05
1762.61	3.28426e-05
1774.4	3.48562e-05
1780.29	3.59015e-05
1792.08	3.80706e-05
1803.87	4.0347e-05
1815.66	4.27336e-05
1821.55	4.39693e-05
1833.34	4.65276e-05
1845.13	4.92051e-05
1851.02	5.05899e-05
1862.81	5.34541e-05
1874.59	5.64486e-05
1880.49	5.79964e-05
1892.28	6.11966e-05
1904.06	6.45412e-05
1915.85	6.80369e-05
1921.74	6.98435e-05
1933.53	7.3579e-05
1945.32	7.7484e-05
1951.21	7.95026e-05
1963	8.36773e-05
1974.79	8.8043e-05
1980.68	9.03003e-05
1992.47	9.49702e-05
2004.25	9.98555e-05
2010.15	0.000102382
2021.94	0.000107611
2033.72	0.000109206
2045.51	0.00010735
2051.4	0.000106594
2063.19	0.0001054
2074.98	0.000104605
2080.87	0.000104347
2092.66	0.000104095
2104.44	0.000104172
2110.34	0.000104328
2122.13	0.00010486
2133.91	0.000105674
2145.7	0.000106755
2151.59	0.000107392
2163.38	0.000108854
2175.17	0.000110557
2181.06	0.000111498
2192.85	0.000113556
2204.63	0.000115846
2210.53	0.000117077
2222.31	0.000119714
2234.1	0.000122583
2245.89	0.000125687
2251.78	0.000127329
2263.57	0.000130796
2275.35	0.000134512
2281.25	0.000136466
2293.03	0.000140571
2304.82	0.000144947
2310.71	0.000147239
2322.5	0.00015204
2334.29	0.00015714
2340.18	0.000159805
2351.97	0.000165375
2363.75	0.000171275
2375.54	0.000177519
2381.43	0.000180776
2393.22	0.000187566
2404.95	0.000194712
2410.82	0.000198431
2422.55	0.000206139
2434.28	0.000214182
2440.15	0.000218321
2451.88	0.000226825
2463.63	0.000235631
2475.41	0.000244759
2481.31	0.000249431
2493.09	0.000258994
2504.88	0.000268854
2510.77	0.000273898
2522.53	0.000284198
2534.32	0.000294851
2540.21	0.000300307
2552	0.000311488
2563.78	0.000323049
2575.57	0.000335014
2581.46	0.000341157
2593.25	0.000353784
2605.04	0.000366892
2610.93	0.000373639
2622.72	0.000387538
2634.51	0.000402013
2640.4	0.000409477
2652.19	0.000424885
2663.97	0.000440963
2675.76	0.000457746
2681.65	0.000466414
2693.44	0.000484326
2705.23	0.000503036
2711.12	0.000512702
2722.91	0.000532681
2734.7	0.000553557
2740.59	0.000564346
2752.37	0.000586629
2764.14	0.000609923
2770.03	0.000637637
2781.79	0.000693035
2793.55	0.000748153
2805.32	0.000802772
2811.2	0.00082987
2822.96	0.000883651
2834.73	0.000936991
2840.6	0.000963487
2852.38	0.00101645
2864.15	0.00106943
2870.02	0.0010959
2881.75	0.00114918
2893.49	0.00120316
2905.22	0.00125814
2911.09	0.0012861
2922.82	0.00134316
2934.56	0.00140199
2940.42	0.00143217
2952.16	0.00149425
2963.89	0.00155885
2975.62	0.00162618
2981.49	0.00166072
2993.22	0.00173126
3004.96	0.00180358
3010.82	0.00184038
3022.56	0.00191527
3034.29	0.00199197
3040.16	0.00203107
3051.89	0.00211095
3063.62	0.00219338
3075.36	0.00227883
3081.22	0.00232284
3092.96	0.00241379
3104.69	0.00250904
3110.56	0.00255844
3122.29	0.00266106
3134.02	0.00276921
3145.76	0.00288338
3151.62	0.0030159
3163.36	0.003271
3175.09	0.00351167
3180.96	0.00362709
3192.69	0.0038505
3204.42	0.00406807
3210.29	0.0041763
3222.02	0.00439493
3233.76	0.00462066
3245.49	0.00485815
3251.36	0.00498269
3263.09	0.00524039
3274.82	0.0055073
3280.69	0.00564421
3292.42	0.00592647
3304.15	0.00622374
3310.02	0.00637987
3321.75	0.00671099
3333.49	0.00725696
3345.22	0.00797726
3351.09	0.00832134
3362.82	0.00899618
3374.55	0.00969255
3380.42	0.0100624
3392.15	0.0108547
3403.89	0.0116842
3415.62	0.0125752
3421.48	0.0130649
3433.22	0.0151406
3444.95	0.0168208
3450.82	0.0177206
3462.55	0.0199539
3474.28	0.0240745
3480.15	0.0261763
3491.88	0.0304846
3503.61	0.0349126
3515.35	0.0391476
3521.21	0.0411838
3532.95	0.0451474
3544.68	0.048984
3550.55	0.0508663
3562.28	0.0546475
3574.01	0.058544
3585.74	0.0625746
3591.61	0.0646296
3603.34	0.0687959
3615.07	0.0730164
3620.94	0.0751448
3632.67	0.0794533
3644.41	0.0838657
3650.27	0.0861206
3662.01	0.0907288
3673.74	0.0954506
3685.47	0.100254
3691.34	0.102675
3703.07	0.107543
3714.8	0.112441
3720.67	0.114905
3732.4	0.119878
3744.13	0.124932
3750	0.127496
3761.73	0.132707
3773.47	0.138034
3785.2	0.143479
3791.06	0.146249
3802.8	0.151889
3814.53	0.157672
3820.4	0.160621
3832.13	0.166634
3843.86	0.172804
3855.59	0.179126
3861.46	0.182344
3873.19	0.188897
3884.93	0.195614
3890.79	0.19904
3902.53	0.206042
3914.26	0.213267
3920.13	0.216972
3931.86	0.224585
3943.59	0.232492
3955.32	0.240719
3961.19	0.244961
3972.92	0.253718
3984.66	0.262861
3990.52	0.267585
4002.26	0.277354
4013.99	0.287566
4025.72	0.29824
4031.59	0.303755
4043.32	0.315149
4055.06	0.32704
4060.92	0.333175
4072.66	0.345831
4084.39	0.359009
4090.26	0.365796
4101.99	0.379764
4113.72	0.394254
4125.46	0.409255
4131.32	0.416942
4143.06	0.432668
4154.89	0.448977
4160.81	0.457287
4172.65	0.474183
4184.48	0.491397
4190.4	0.5001
4202.23	0.51765
4214.09	0.535349
4220.02	0.544212
4231.87	0.561903
4243.85	0.579631
4255.83	0.597092
4261.81	0.60568
4273.79	0.622487
4285.77	0.638676
4291.76	0.646491
4303.73	0.661463
4315.71	0.675418
4321.7	0.681961
4333.68	0.694067
4345.65	0.70472
4351.64	0.709446
4363.62	0.717582
4375.59	0.723817
4381.58	0.726167
4393.56	0.729228
4405.54	0.729966
4411.53	0.729416
4423.5	0.726389
4435.48	0.720684
4441.47	0.716789
4453.44	0.706853
4465.42	0.693979
4471.41	0.686419
4483.39	0.669016
4495.36	0.648541
4501.35	0.637146
4513.33	0.612044
4525.31	0.583877
4531.3	0.568657
4543.27	0.535983
4555.25	0.500394
4561.24	0.481535
4573.22	0.441752
4585.19	0.399311
4591.18	0.377132
4603.16	0.330932
4615.14	0.282395
4621.13	0.257289
4633.1	0.205452
4645.08	0.151479
4651.07	0.123567
4663.05	0.0684837
4675.03	0.00759623
4681.01	-0.0160585
4692.99	-0.0615787
4704.97	-0.0980188
4710.96	-0.0900053
4722.94	-0.113145
4734.91	-0.138917
4740.9	-0.149922
4752.88	-0.170555
4764.86	-0.188913
4770.85	-0.19679
4782.82	-0.210575
4794.8	-0.222772
4800.79	-0.22853
4812.77	-0.220871
4824.77	-0.22991
4830.78	-0.234886
4842.81	-0.246988
4854.83	-0.256583
4860.84	-0.260755
4872.87	-0.268098
4884.89	-0.274473
4890.9	-0.277388
4902.93	-0.282798
4914.95	-0.287374
4920.96	-0.289508
4932.99	-0.293569
4945	-0.29729
4951.01	-0.299099
4963.03	-0.30258
4975.05	-0.305852
4981.05	-0.307402
4993.07	-0.310323
5005.09	-0.313002
5011.1	-0.301563
5023.11	-0.304158
5035.13	-0.30655
5041.14	-0.308035
5053.16	-0.310807
5065.17	-0.313481
5071.18	-0.314632
5083.2	-0.316588
5095.21	-0.318147
5101.22	-0.318799
5113.24	-0.319881
5125.22	-0.320687
5131.19	-0.320998
5143.13	-0.321461
5155.07	-0.321741
5161.04	-0.321821
5172.97	-0.321881
5184.91	-0.321823
5190.88	-0.321756
5202.82	-0.321486
5214.76	-0.321106
5220.73	-0.320906
5232.67	-0.320511
5244.61	-0.320102
5250.58	-0.319804
5262.52	-0.319193
5274.46	-0.318559
5280.43	-0.318233
5292.31	-0.317562
5304.13	-0.316866
5310.04	-0.316506
5321.86	-0.315761
5333.68	-0.314983
5345.51	-0.314171
5351.42	-0.313753
5363.3	-0.312888
5375.24	-0.311982
5381.21	-0.311511
5393.15	-0.31054
5405.09	-0.304881
5411.05	-0.304691
5422.96	-0.304286
5434.83	-0.303846
5440.76	-0.303614
5452.63	-0.303124
5464.5	-0.302599
5470.4	-0.302324
5482.19	-0.301741
5493.97	-0.301118
5505.76	-0.300459
5511.66	-0.300116
5523.44	-0.299405
5535.23	-0.298662
5541.12	-0.298279
5552.91	-0.29749
5564.7	-0.296671
5570.59	-0.296251
5582.38	-0.295389
5594.17	-0.294499
5600.06	-0.294044
5611.85	-0.29311
5623.64	-0.292146
5635.43	-0.291154
5641.32	-0.290649
5653.11	-0.289619
5664.9	-0.288564
5670.79	-0.288028
5682.58	-0.286939
5694.36	-0.285826
5700.26	-0.28526
5712.05	-0.284109
5723.83	-0.282932
5735.62	-0.281728
5741.52	-0.281115
5753.3	-0.279865
5765.09	-0.278617
5770.98	-0.277992
5782.77	-0.276706
5794.56	-0.275374
5800.45	-0.274691
5812.24	-0.273292
5824.03	-0.271845
5835.82	-0.270299
5841.71	-0.269481
5853.5	-0.26781
5865.29	-0.266093
5871.18	-0.265217
5882.97	-0.263432
5894.75	-0.261604
5900.65	-0.260674
5912.44	-0.258782
5924.22	-0.256851
5930.12	-0.25587
5941.91	-0.25388
5953.69	-0.251852
5965.48	-0.249789
5971.37	-0.248744
5983.16	-0.246629
5994.95	-0.244481
6000.84	-0.243695
6012.63	-0.242042
6024.42	-0.240301
6030.31	-0.239404
6042.1	-0.237564
6053.89	-0.235674
6065.68	-0.23374
6071.57	-0.232758
6083.36	-0.230765
6095.14	-0.228736
6101.04	-0.227708
6112.83	-0.225625
6124.61	-0.223506
6130.51	-0.222432
6142.3	-0.220252
6154.08	-0.218019
6165.87	-0.215737
6171.76	-0.214578
6183.55	-0.212225
6195.34	-0.209828
6201.23	-0.208614
6213.02	-0.206153
6224.81	-0.203652
6230.7	-0.202387
6242.49	-0.19983
6254.28	-0.197251
6260.17	-0.195957
6271.96	-0.193368
6283.75	-0.190781
6295.53	-0.188198
6301.43	-0.186908
6313.22	-0.184332
6325	-0.181757
6330.9	-0.180469
6342.69	-0.177888
6354.47	-0.175297
6360.37	-0.173995
6372.15	-0.171375
6383.91	-0.168736
6395.65	-0.166073
6401.51	-0.164728
6413.24	-0.162012
6424.98	-0.156816
6430.84	-0.15432
6442.57	-0.149542
6454.31	-0.145029
6460.17	-0.142858
6471.93	-0.13864
6483.72	-0.13454
6495.51	-0.13051
6501.4	-0.128503
6513.19	-0.124479
6524.98	-0.120408
6530.87	-0.118344
6542.66	-0.114158
6554.45	-0.109948
6560.32	-0.107849
6572.11	-0.103638
6583.9	-0.0994063
6595.69	-0.0951197
6601.57	-0.0929486
6613.35	-0.0885064
6625.14	-0.0803545
6631.04	-0.0764103
6642.82	-0.0688046
6654.61	-0.0615619
6660.5	-0.0579931
6672.29	-0.0507996
6684.08	-0.0433957
6695.87	-0.035892
6701.76	-0.0321965
6713.55	-0.0248677
6725.34	-0.0144489
6731.23	-0.00828998
6743.02	0.00197631
6754.81	0.0122347
6760.7	0.0178434
6772.49	0.0334094
6784.28	0.0488056
6790.17	0.0563403
6801.96	0.0696544
6813.75	0.0798732
6825.53	0.0874169
6831.43	0.0903839
6843.22	0.0949737
6855	0.0980949
6860.9	0.0992452
6872.68	0.10101
6884.46	0.102266
6890.35	0.102746
6902.13	0.103472
6913.89	0.103989
6925.66	0.10442
6931.54	0.104651
6943.3	0.105242
6955.06	0.106073
6960.94	0.106564
6972.7	0.107599
6984.46	0.108556
6990.34	0.10896
7002.11	0.109551
7013.89	0.109798
7025.65	0.109684
7031.54	0.109503
7043.27	0.108945
7055.01	0.108207
7060.87	0.107799
7072.61	0.106957
7084.34	0.10614
7090.21	0.105764
7101.94	0.105125
7113.67	0.104689
7125.41	0.104485
7131.27	0.104464
7143.01	0.104534
7154.74	0.10466
7160.61	0.104702
7172.34	0.104665
7184.07	0.104394
7195.81	0.103847
7201.67	0.103472
7213.41	0.102548
7225.14	0.101449
7231.01	0.100855
7242.74	0.0996204
7254.48	0.0983672
7260.34	0.0977487
7272.08	0.0965561
7283.81	0.0954607
7295.54	0.0945087
7301.41	0.0940998
7313.14	0.0934362
7324.88	0.0929907
7330.74	0.0928493
7342.48	0.0927167
7354.21	0.0927575
7360.08	0.0928316
7371.81	0.0930654
7383.54	0.0933911
7395.28	0.0937926
7401.14	0.0940198
7412.88	0.0945274
7424.61	0.0951093
7430.48	0.0954292
7442.21	0.0961273
7453.94	0.0968998
7465.68	0.097737
7471.54	0.0981749
7483.28	0.0990759
7495.01	0.0999887
7500.88	0.10044
7512.61	0.101315
7524.34	0.102127
7530.21	0.1025
7541.94	0.103168
7553.68	0.103717
7565.41	0.104136
7571.28	0.104296
7583.01	0.10452
7594.74	0.104621
7600.61	0.104628
7612.34	0.104568
7624.08	0.10442
7635.81	0.104199
7641.68	0.104065
7653.41	0.103761
7665.15	0.103415
7671.01	0.103228
7682.75	0.10283
7694.48	0.102401
7700.35	0.102176
7712.08	0.101703
7723.81	0.101204
7735.55	0.100683
7741.41	0.100417
7753.15	0.0998793
7764.88	0.0993438
7770.75	0.0990803
7782.48	0.0985681
7794.21	0.0980818
7800.08	0.0978498
7811.81	0.0974075
7823.55	0.0969895
7835.28	0.0965844
7841.15	0.0963816
7852.88	0.0959626
7864.61	0.0955065
7870.48	0.0952568
7882.22	0.0946991
7893.95	0.0940453
7905.68	0.0932767
7911.55	0.0928448
7923.28	0.0918805
7935.02	0.090779
7940.88	0.0901772
7952.62	0.0888749
7964.35	0.0874494
7970.22	0.0866943
7981.95	0.0851086
7993.68	0.0834352
8005.42	0.0816897
8011.28	0.0807946
8023.02	0.0789682
8034.75	0.0771039
8040.62	0.0761608
8052.35	0.0742586
8064.08	0.0723418
8075.82	0.0704179
8081.68	0.0694555
8093.42	0.067534
8105.15	0.0656231
8111.02	0.064674
8122.75	0.0627931
8134.49	0.0609416
8140.35	0.060029
8152.09	0.0582338
8163.82	0.056482
8175.55	0.0547755
8181.42	0.053939
8193.15	0.0522969
8204.89	0.0506902
8210.75	0.0498968
8222.49	0.0483219
8234.22	0.0467488
8240.09	0.045957
8251.82	0.0443497
8263.55	0.0426912
8275.29	0.0409569
8281.15	0.0400532
8292.89	0.0381556
8304.62	0.0361133
8310.49	0.0350273
8322.22	0.0326981
8333.96	0.0301034
8345.69	0.027155
8351.56	0.0255142
8363.29	0.021871
8375.02	0.0176483
8380.89	0.0152451
8392.62	0.00857497
8404.36	0.00378728
8410.22	0.00165536
8421.96	0.00039793
8433.69	-0.00339492
8445.42	-0.0072905
8451.29	-0.00921392
8463.02	-0.0129664
8474.76	-0.0158501
8480.63	-0.0149741
8492.36	-0.0173216
8504.09	-0.0193448
8515.83	-0.0223728
8521.69	-0.0236698
8533.43	-0.0259488
8545.16	-0.027942
8551.03	-0.0288572
8562.76	-0.0306118
8574.49	-0.0322039
8580.36	-0.032968
8592.09	-0.0345183
8603.83	-0.0359837
8615.56	-0.0372983
8621.43	-0.0379122
8633.16	-0.0389109
8644.89	-0.0369794
8650.76	-0.0374165
8662.49	-0.0382681
8674.23	-0.0386893
8680.1	-0.0392491
8691.83	-0.0404961
8703.56	-0.0416484
8715.3	-0.0427151
8721.16	-0.0432211
8732.9	-0.0441864
8744.63	-0.0450935
8750.5	-0.0455265
8762.23	-0.0463549
8773.96	-0.0471391
8785.7	-0.0478861
8791.56	-0.0482474
8803.3	-0.0489483
8815.03	-0.0495457
8820.9	-0.0498055
8832.63	-0.0503422
8844.36	-0.0508934
8850.23	-0.0511717
8861.97	-0.0518641
8873.7	-0.0525184
8885.43	-0.0531389
8891.3	-0.0534375
8903.03	-0.054013
8914.77	-0.0545609
8920.63	-0.0548249
8932.37	-0.0553338
8944.1	-0.0558179
8955.83	-0.0562781
8961.7	-0.0564994
8973.43	-0.0569163
8985.17	-0.0573034
8991.03	-0.0574872
9002.77	-0.0505125
9014.5	-0.0509267
9020.37	-0.0511104
9032.1	-0.0514636
9043.84	-0.0517987
9055.57	-0.0521166
9061.44	-0.0522694
9073.17	-0.0525633
9084.9	-0.0528359
9090.77	-0.0529641
9102.5	-0.0532059
9114.24	-0.0534303
9120.1	-0.0535366
9131.84	-0.0537388
9143.57	-0.0539282
9155.3	-0.0541066
9161.17	-0.0541919
9172.9	-0.0543559
9184.64	-0.0545118
9190.5	-0.054587
9202.24	-0.0547321
9213.97	-0.0548703
9225.71	-0.0550026
9231.57	-0.0550664
9243.31	-0.0551887
9255.04	-0.05532
9260.91	-0.0553807
9272.64	-0.0554922
9284.37	-0.0555904
9290.24	-0.0556345
9301.97	-0.0557123
9313.71	-0.0557766
9325.44	-0.0558272
9331.31	-0.055846
9343.04	-0.0558695
9354.77	-0.0558754
9360.64	-0.0558722
9372.38	-0.0558541
9384.11	-0.0558212
9395.84	-0.0557744
9401.71	-0.0557462
9413.44	-0.0557744
9425.18	-0.0557844
9431.04	-0.0557828
9442.78	-0.0557674
9454.51	-0.0557361
9460.38	-0.0557148
9472.11	-0.0556613
9483.84	-0.055594
9495.58	-0.0555136
9501.44	-0.0554686
9513.18	-0.0553696
9524.91	-0.0552589
9530.78	-0.0551994
9542.51	-0.0550721
9554.25	-0.0549344
9560.11	-0.0548618
9571.84	-0.0547093
9583.58	-0.0545477
9595.31	-0.0543774
9601.17	-0.054289
9612.91	-0.0541063
9624.64	-0.0539157
9630.51	-0.0538176
9642.24	-0.0531317
9653.97	-0.052942
9665.71	-0.0527486
9671.57	-0.0526504
9683.31	-0.0524506
9695.04	-0.0522462
9700.91	-0.0521422
9712.64	-0.0519302
9724.38	-0.0517129
9730.24	-0.0516021
9741.98	-0.051376
9753.71	-0.0511439
9765.44	-0.0509055
9771.31	-0.0507838
9783.04	-0.0505355
9794.78	-0.0502804
9800.64	-0.0501502
9812.38	-0.0498844
9824.11	-0.0496114
9835.84	-0.0493311
9841.71	-0.0491881
9853.44	-0.0488965
9865.18	-0.0485973
9871.04	-0.0484444
9882.78	-0.0481317
9894.51	-0.0478101
9900.38	-0.0476459
9912.11	-0.0473109
9923.85	-0.0469671
9935.58	-0.0466148
9941.45	-0.0464355
9953.18	-0.0460705
9964.91	-0.0456971
9970.78	-0.0454601
9982.51	-0.0449846
9994.25	-0.0445069
10000.1	-0.0442671
10011.8	-0.0437855
10023.6	-0.0433009
10035.3	-0.0428132
10041.2	-0.0425681
10052.9	-0.0420753
10064.6	-0.041579
10070.5	-0.0413295
10082.2	-0.0408278
10094	-0.0403223
10105.7	-0.0398133
10111.6	-0.0395574
10123.3	-0.0390428
10135	-0.0385246
10140.9	-0.0382641
10152.7	-0.0377405
10164.4	-0.0372144
10170.3	-0.0369518
10182	-0.036427
10193.7	-0.0359023
10205.5	-0.0353771
10211.3	-0.0351142
10223.1	-0.0345876
10234.8	-0.0340595
10240.7	-0.0337949
10252.4	-0.0332642
10264.1	-0.0327315
10275.9	-0.0321966
10281.7	-0.0319282
10293.5	-0.0313897
10305.2	-0.0308486
10311.1	-0.030577
10322.8	-0.030032
10334.5	-0.0294844
10340.4	-0.0292096
10352.1	-0.0286582
10363.9	-0.0281046
10375.6	-0.0275492
10381.5	-0.0272709
10393.2	-0.0267131
10404.9	-0.0261541
10410.8	-0.0258742
10422.5	-0.0253138
10434.3	-0.0247526
10440.1	-0.0244718
10451.9	-0.0239099
10463.6	-0.0233478
10475.3	-0.0227855
10481.2	-0.0225044
10492.9	-0.0218474
10504.7	-0.021203
10510.5	-0.0208857
10522.3	-0.0202603
10534	-0.0196465
10545.7	-0.0190434
10551.6	-0.0187457
10563.3	-0.0181574
10575.1	-0.0175783
10580.9	-0.017292
10592.7	-0.0167256
10604.4	-0.0161673
10610.3	-0.0158909
10622	-0.0153437
10633.7	-0.0148033
10645.5	-0.0142692
10651.3	-0.0140044
10663.1	-0.0134789
10674.8	-0.0129584
10680.7	-0.0126999
10692.4	-0.0121537
10704.1	-0.0116038
10715.9	-0.0110853
10721.7	-0.0108359
10733.5	-0.0103536
10745.2	-0.00988982
10751.1	-0.00966358
10762.8	-0.00922038
10774.5	-0.00878709
10780.4	-0.00857338
10792.1	-0.00815044
10803.9	-0.00773193
10815.6	-0.00731614
10821.5	-0.00711084
10833.2	-0.00670666
10844.9	-0.00630971
10850.8	-0.00611343
10862.5	-0.00572424
10874.3	-0.00533821
10880.1	-0.00514591
10891.9	-0.0047619
10903.6	-0.00437768
10915.3	-0.00399241
10921.2	-0.00379928
10932.9	-0.00341189
10944.7	-0.00302261
10950.5	-0.00282711
10962.3	-0.00243404
10974	-0.00204787
10985.7	-0.00166853
10991.6	-0.00148032
11003.3	-0.001105
11015.1	-0.000729073
11020.9	-0.000540222
11032.7	-0.000159616
11044.4	0.000225561
11050.3	0.000419995
11062	0.00081284
11073.7	0.00126897
11085.5	0.0018227
11091.3	0.00211278
11103.1	0.00270871
11114.8	0.00331625
11120.7	0.00362199
11132.4	0.00423451
11144.1	0.00484632
11150	0.00515075
11161.7	0.0057611
11173.5	0.00637303
11185.2	0.00698628
11191.1	0.00729328
11202.8	0.00790752
11214.5	0.00852003
11220.4	0.00882508
11232.1	0.00943201
11243.9	0.0100335
11255.6	0.0110542
11261.5	0.0117735
11273.2	0.0131355
11284.9	0.014351
11290.8	0.0149055
11302.5	0.0159165
11314.3	0.016814
11320.1	0.0174312
11331.9	0.0183592
11343.6	0.0191795
11355.3	0.0198421
11361.2	0.0201679
11372.9	0.0208891
11384.7	0.0219896
11390.5	0.0225577
11402.3	0.0236978
11414.2	0.0248129
11420.1	0.0253717
11431.9	0.0265061
11443.7	0.027647
11455.6	0.0288029
11461.5	0.0293845
11473.4	0.0305484
11485.2	0.031733
11491.1	0.0323432
11503.1	0.0336261
11515.2	0.0350026
11521.2	0.0357226
11533.3	0.0372172
11545.3	0.0387611
11551.3	0.0395408
11563.5	0.0411078
11575.6	0.0426579
11581.7	0.0434298
11593.9	0.0449685
11600	0.0457397
11612.2	0.0472946
11624.4	0.0488725
11630.5	0.0496699
11642.7	0.0512764
11654.9	0.0528878
11661	0.0536907
11673.2	0.0552827
11685.4	0.0568479
11691.5	0.0576181
11703.7	0.0591302
11715.8	0.0606003
11721.9	0.0613177
11734.1	0.0627109
11740.2	0.0633839
11752.4	0.0646742
11764.6	0.0658786
11770.7	0.0664448
11782.9	0.0674998
11795.1	0.0684482
11801.2	0.0688823
11813.4	0.0696728
11825.6	0.0703651
11831.7	0.0706771
11843.9	0.0712381
11856.1	0.0717226
11862.2	0.0719386
11874.4	0.0723223
11880.4	0.0724911
11892.6	0.0727845
11904.8	0.0730201
11910.9	0.0731163
11923.1	0.073265
11935.3	0.0733555
11941.4	0.073379
11953.6	0.0733835
11965.8	0.0733335
11971.9	0.0732892
11984.1	0.0731639
11990.2	0.0730839
