0	0
10.6962	0
20.6793	0
30.6622	0
40.6451	0
50.6279	0
60.6107	0
70.5934	0
80.576	0
90.2557	0
100.531	0
110.202	0
120.65	0
130.632	0
140.446	0
150.429	0
160.411	0
170.38	0
180.23	0
190.026	0
200.509	0
210.294	0
220.078	0
230.562	0
240.346	0
250.131	0
260.614	0
270.398	0
280.182	1.81899e-12
290.665	1.54614e-11
300.45	2.81943e-11
310.234	4.09273e-11
320.018	5.36602e-11
330.501	7.54881e-11
340.285	1.00954e-10
350.069	1.30967e-10
360.552	1.71894e-10
370.336	2.21007e-10
380.12	2.80124e-10
390.602	3.56522e-10
400.356	4.42924e-10
410.067	5.47516e-10
420.399	6.79393e-10
430.048	8.2764e-10
440.349	1.015e-09
450.577	1.23418e-09
460.047	1.47156e-09
470.171	1.76624e-09
480.295	2.10912e-09
490.42	2.50475e-09
500.545	2.96131e-09
510.668	3.48427e-09
520.091	4.03907e-09
530.119	4.71027e-09
540.116	5.46788e-09
550.111	6.32372e-09
560.104	7.29142e-09
570.086	8.37736e-09
580.062	9.59608e-09
590.029	1.09576e-08
600.654	1.25838e-08
610.614	1.42873e-08
620.574	1.61835e-08
630.534	1.82863e-08
640.494	2.06164e-08
650.454	2.31921e-08
660.414	2.60325e-08
670.374	2.91548e-08
680.334	3.25754e-08
690.294	3.63061e-08
700.254	4.03625e-08
710.213	4.47581e-08
720.171	4.95074e-08
730.109	5.46142e-08
740.034	6.00949e-08
750.619	6.63813e-08
760.542	7.27014e-08
770.465	7.94535e-08
780.388	8.66521e-08
790.311	9.43091e-08
800.234	1.02431e-07
810.158	1.11024e-07
820.081	1.20091e-07
830.004	1.29637e-07
840.588	1.40348e-07
850.511	1.50887e-07
860.434	1.61909e-07
870.357	1.73417e-07
880.28	1.85413e-07
890.203	1.97901e-07
900.125	2.10885e-07
910.048	2.24374e-07
920.633	2.39326e-07
930.555	2.53881e-07
940.478	2.6897e-07
950.401	2.84607e-07
960.324	3.00811e-07
970.246	3.176e-07
980.169	3.35e-07
990.092	3.53038e-07
1000.01	3.71746e-07
1010.6	3.92477e-07
1020.52	4.12684e-07
1030.44	4.33681e-07
1040.37	4.5552e-07
1050.29	4.78254e-07
1060.21	5.01946e-07
1070.13	5.26662e-07
1080.06	5.52474e-07
1090.64	5.81306e-07
1100.56	6.09649e-07
1110.49	6.39364e-07
1120.41	6.7055e-07
1130.33	7.03321e-07
1140.25	7.37801e-07
1150.18	7.74119e-07
1160.1	8.12413e-07
1170.02	8.52828e-07
1180.61	8.98454e-07
1190.53	9.43763e-07
1200.45	9.91703e-07
1210.37	1.04245e-06
1220.3	1.09621e-06
1230.22	1.15318e-06
1240.14	1.21357e-06
1250.06	1.2776e-06
1260.65	1.35017e-06
1270.57	1.42248e-06
1280.49	1.49918e-06
1290.41	1.58054e-06
1300.34	1.66683e-06
1310.25	1.75822e-06
1320.13	1.8549e-06
1330.02	1.95735e-06
1340.56	2.07339e-06
1350.43	2.18874e-06
1360.31	2.31091e-06
1370.18	2.44027e-06
1380.05	2.57709e-06
1390.56	2.73172e-06
1400.44	2.8856e-06
1410.31	3.04896e-06
1420.18	3.22229e-06
1430.05	3.40589e-06
1440.57	3.61333e-06
1450.43	3.81869e-06
1460.3	4.03495e-06
1470.16	4.26211e-06
1480.03	4.50035e-06
1490.53	4.76629e-06
1500.34	5.02609e-06
1510.13	5.29693e-06
1520.58	5.59847e-06
1530.38	5.89325e-06
1540.17	6.19999e-06
1550.62	6.54068e-06
1560.42	6.87311e-06
1570.21	7.21854e-06
1580.01	7.57741e-06
1590.45	7.97544e-06
1600.2	8.36186e-06
1610.52	8.78741e-06
1620.2	9.20216e-06
1630.52	9.66241e-06
1640.19	1.01114e-05
1650.51	1.061e-05
1660.18	1.10969e-05
1670.5	1.16379e-05
1680.18	1.21666e-05
1690.5	1.27546e-05
1700.17	1.33298e-05
1710.49	1.397e-05
1720.16	1.45967e-05
1730.48	1.52949e-05
1740.16	1.59787e-05
1750.48	1.6741e-05
1760.15	1.74881e-05
1770.47	1.83213e-05
1780.14	1.91382e-05
1790.46	2.00491e-05
1800.13	2.09414e-05
1810.45	2.19354e-05
1820.13	2.29077e-05
1830.45	2.3989e-05
1840.12	2.50447e-05
1850.44	2.62167e-05
1860.11	2.73591e-05
1870.43	2.86251e-05
1880.11	2.98573e-05
1890.42	3.12209e-05
1900.1	3.25462e-05
1910.42	3.4011e-05
1920.09	3.54333e-05
1930.41	3.70039e-05
1940.08	3.85277e-05
1950.4	4.02092e-05
1960.08	4.18397e-05
1970.39	4.36383e-05
1980.07	4.53819e-05
1990.39	4.73049e-05
2000.06	4.91689e-05
2010.38	5.12247e-05
2020.05	5.32176e-05
2030.37	5.54156e-05
2040.04	5.75467e-05
2050.36	5.98975e-05
2060.04	6.21771e-05
2070.35	6.46924e-05
2080.03	6.71318e-05
2090.35	6.98241e-05
2100.02	7.2436e-05
2110.34	7.53192e-05
2120.01	7.8117e-05
2130.33	8.00217e-05
2140	7.8665e-05
2150.32	7.74667e-05
2160.64	7.65073e-05
2170.31	7.58104e-05
2180.63	7.52693e-05
2190.31	7.49402e-05
2200.62	7.47672e-05
2210.3	7.47622e-05
2220.62	7.49149e-05
2230.29	7.51984e-05
2240.61	7.56428e-05
2250.28	7.61867e-05
2260.6	7.68969e-05
2270.27	7.76801e-05
2280.59	7.86367e-05
2290.26	7.96441e-05
2300.58	8.08341e-05
2310.26	8.20561e-05
2320.57	8.34718e-05
2330.25	8.49035e-05
2340.57	8.6542e-05
2350.24	8.81828e-05
2360.56	9.00457e-05
2370.23	9.18991e-05
2380.55	9.39917e-05
2390.22	9.60641e-05
2400.54	9.83952e-05
2410.21	0.000100696
2420.53	0.000103277
2430.2	0.000105819
2440.52	0.000108663
2450.2	0.00011146
2460.51	0.000114584
2470.19	0.000117651
2480.51	0.000121074
2490.18	0.000124429
2500.5	0.00012817
2510.17	0.000131835
2520.49	0.000135907
2530.16	0.000139865
2540.48	0.000144225
2550.15	0.000148437
2560.47	0.000153057
2570.14	0.000157503
2580.46	0.000162368
2590.14	0.000167042
2600.45	0.000172151
2610.13	0.000177059
2620.45	0.000182422
2630.12	0.000187576
2640.44	0.000193212
2650.11	0.000198633
2660.43	0.000204568
2670.1	0.00021028
2680.38	0.000216526
2690.05	0.000222568
2700.37	0.000229206
2710.04	0.00023562
2720.36	0.000242677
2730.03	0.000249506
2740.35	0.000257031
2750.02	0.000264323
2760.34	0.000272366
2770.01	0.000280166
2780.32	0.000288776
2790.64	0.000297697
2800.31	0.000306354
2810.63	0.000315916
2820.3	0.000325197
2830.62	0.000335451
2840.29	0.000345407
2850.61	0.000356408
2860.28	0.000367093
2870.6	0.000378903
2880.27	0.00040012
2890.59	0.000429713
2900.26	0.000457287
2910.58	0.000486452
2920.25	0.000513538
2930.57	0.000542164
2940.24	0.000568778
2950.56	0.000596974
2960.23	0.000623284
2970.55	0.000651289
2980.22	0.000677566
2990.53	0.000705706
3000.21	0.000732281
3010.52	0.000760934
3020.2	0.000788175
3030.51	0.00081774
3040.18	0.000846027
3050.5	0.000876908
3060.17	0.000906616
3070.49	0.000939211
3080.16	0.000970653
3090.48	0.00100503
3100.15	0.00103793
3110.47	0.00107367
3120.14	0.00110775
3130.46	0.00114472
3140.13	0.00118001
3150.45	0.00121839
3160.12	0.00125516
3170.43	0.00129534
3180.11	0.00133404
3190.42	0.00137659
3200.09	0.0014178
3210.41	0.00146333
3220.08	0.00150764
3230.4	0.00155676
3240.07	0.0016047
3250.39	0.00165801
3260.06	0.00171003
3270.38	0.00181124
3280.05	0.00192638
3290.36	0.00204294
3300.04	0.0021473
3310.35	0.00225491
3320.02	0.00235385
3330.34	0.00245904
3340.01	0.00255886
3350.33	0.00266818
3360	0.00277455
3370.32	0.0028922
3380.63	0.00301331
3390.31	0.00312991
3400.62	0.00325813
3410.29	0.00338291
3420.61	0.00352231
3430.28	0.00366034
3440.6	0.0038168
3450.27	0.00397342
3460.59	0.00429976
3470.26	0.00461508
3480.57	0.00494311
3490.25	0.00525202
3500.56	0.00559313
3510.23	0.00592577
3520.55	0.00628914
3530.22	0.00664238
3540.54	0.00704421
3550.21	0.00769207
3560.53	0.00840689
3570.2	0.00905824
3580.52	0.00980415
3590.19	0.0105713
3600.5	0.0120461
3610.17	0.0134771
3620.49	0.0162242
3630.16	0.0213104
3640.48	0.0278561
3650.15	0.0335236
3660.47	0.0397382
3670.14	0.0448703
3680.46	0.0500405
3690.13	0.054166
3700.44	0.058255
3710.12	0.0620617
3720.43	0.066012
3730.1	0.069488
3740.42	0.0728623
3750.09	0.0758661
3760.41	0.0790103
3770.08	0.0818741
3780.4	0.0847852
3790.07	0.0874619
3800.39	0.0903822
3810.06	0.0931714
3820.38	0.0960931
3830.05	0.0987484
3840.37	0.101565
3850.04	0.10426
3860.35	0.107209
3870.03	0.110031
3880.34	0.113134
3890.02	0.116187
3900.33	0.119617
3910.01	0.122959
3920.33	0.126615
3930.03	0.130116
3940.38	0.133931
3950.08	0.137583
3960.43	0.141548
3970.13	0.145329
3980.48	0.149431
3990.18	0.153327
4000.52	0.157506
4010.22	0.161422
4020.57	0.165589
4030.27	0.169493
4040.62	0.17367
4050.33	0.177621
4060.04	0.181632
4070.39	0.186006
4080.1	0.190215
4090.46	0.194838
4100.16	0.199315
4110.52	0.204283
4120.23	0.209171
4130.58	0.214686
4140.29	0.22019
4150	0.226066
4160.36	0.232797
4170.07	0.239593
4180.42	0.247419
4190.14	0.255363
4200.5	0.264571
4210.22	0.273978
4220.59	0.284942
4230.36	0.296228
4240.13	0.308547
4250.56	0.322917
4260.36	0.33763
4270.16	0.353594
4280.63	0.372116
4290.48	0.390967
4300.34	0.411263
4310.2	0.433017
4320.06	0.456233
4330.58	0.482577
4340.44	0.508694
4350.3	0.536092
4360.16	0.564648
4370.02	0.594211
4380.53	0.626662
4390.39	0.657737
4400.25	0.689219
4410.11	0.720865
4420.63	0.754495
4430.49	0.785594
4440.35	0.815948
4450.21	0.845217
4460.07	0.873046
4470.58	0.900734
4480.44	0.924426
4490.3	0.945541
4500.16	0.963692
4510.02	0.978486
4520.54	0.990106
4530.4	0.996661
4540.26	0.998587
4550.12	0.995463
4560.63	0.986102
4570.49	0.971255
4580.35	0.950159
4590.21	0.922485
4600.07	0.887955
4610.59	0.843331
4620.45	0.794055
4630.31	0.737537
4640.17	0.673823
4650.03	0.603008
4660.54	0.51974
4670.4	0.434388
4680.26	0.341697
4690.12	0.241011
4700.64	0.123512
4710.5	0.00554105
4720.36	-0.0731383
4730.22	-0.107965
4740.08	-0.136947
4750.6	-0.149185
4760.46	-0.169374
4770.32	-0.183825
4780.18	-0.194949
4790.04	-0.205212
4800.57	-0.211197
4810.49	-0.220496
4820.4	-0.227874
4830.32	-0.234041
4840.24	-0.239127
4850.16	-0.243436
4860.08	-0.247674
4870	-0.251724
4880.59	-0.255728
4890.51	-0.249287
4900.43	-0.250439
4910.36	-0.254766
4920.28	-0.258423
4930.2	-0.261494
4940.12	-0.26409
4950.05	-0.266308
4960.63	-0.268354
4970.56	-0.270052
4980.48	-0.271385
4990.4	-0.272436
5000.32	-0.273505
5010.25	-0.274501
5020.17	-0.275499
5030.09	-0.276477
5040.02	-0.277418
5050.6	-0.278364
5060.52	-0.279185
5070.45	-0.279895
5080.37	-0.27318
5090.29	-0.274026
5100.21	-0.274923
5110.14	-0.276196
5120.06	-0.277317
5130.64	-0.278353
5140.57	-0.279159
5150.49	-0.27982
5160.41	-0.280353
5170.34	-0.280771
5180.26	-0.281085
5190.18	-0.281305
5200.1	-0.281436
5210.03	-0.281486
5220.61	-0.281457
5230.53	-0.281358
5240.46	-0.281193
5250.38	-0.280968
5260.3	-0.280686
5270.23	-0.280321
5280.15	-0.279906
5290.05	-0.279454
5300.6	-0.278934
5310.48	-0.278296
5320.36	-0.277514
5330.23	-0.276716
5340.11	-0.275897
5350.64	-0.275001
5360.49	-0.274138
5370.36	-0.27325
5380.23	-0.272336
5390.1	-0.271396
5400.63	-0.270364
5410.5	-0.269371
5420.37	-0.268353
5430.24	-0.267309
5440.1	-0.266232
5450.62	-0.265051
5460.49	-0.263922
5470.35	-0.256258
5480.22	-0.25565
5490.08	-0.255038
5500.56	-0.254384
5510.36	-0.253771
5520.16	-0.25316
5530.6	-0.25251
5540.4	-0.251904
5550.19	-0.251303
5560.64	-0.250672
5570.44	-0.250091
5580.23	-0.249521
5590.03	-0.248964
5600.48	-0.248385
5610.23	-0.24786
5620.56	-0.247318
5630.23	-0.246826
5640.55	-0.246315
5650.23	-0.24585
5660.55	-0.245367
5670.22	-0.244925
5680.54	-0.244461
5690.21	-0.24403
5700.53	-0.243573
5710.21	-0.243142
5720.53	-0.242676
5730.2	-0.242232
5740.52	-0.241746
5750.19	-0.24128
5760.51	-0.240768
5770.19	-0.240275
5780.5	-0.239733
5790.18	-0.239208
5800.5	-0.238629
5810.17	-0.238067
5820.49	-0.237468
5830.16	-0.236968
5840.48	-0.236384
5850.16	-0.23579
5860.48	-0.235109
5870.15	-0.234426
5880.47	-0.233629
5890.14	-0.232748
5900.46	-0.231763
5910.14	-0.230798
5920.46	-0.229727
5930.13	-0.228684
5940.45	-0.227534
5950.12	-0.22642
5960.44	-0.225196
5970.11	-0.224016
5980.43	-0.222724
5990.11	-0.221482
6000.43	-0.220127
6010.1	-0.218828
6020.42	-0.217415
6030.09	-0.216065
6040.41	-0.214598
6050.09	-0.213201
6060.4	-0.211687
6070.08	-0.210247
6080.4	-0.208691
6090.07	-0.207215
6100.39	-0.205622
6110.06	-0.204114
6120.38	-0.202828
6130.06	-0.201806
6140.38	-0.200644
6150.05	-0.199498
6160.37	-0.198225
6170.04	-0.196991
6180.36	-0.195636
6190.03	-0.194334
6200.35	-0.192913
6210.03	-0.191545
6220.35	-0.190053
6230.02	-0.188627
6240.34	-0.18708
6250.01	-0.185609
6260.33	-0.184018
6270.01	-0.182511
6280.32	-0.180886
6290.64	-0.179246
6300.32	-0.177696
6310.64	-0.176031
6320.31	-0.174459
6330.63	-0.172773
6340.3	-0.171189
6350.62	-0.169501
6360.29	-0.167924
6370.61	-0.16625
6380.29	-0.16469
6390.61	-0.163036
6400.28	-0.161495
6410.6	-0.15986
6420.27	-0.158335
6430.59	-0.156714
6440.27	-0.1552
6450.58	-0.153586
6460.26	-0.152074
6470.58	-0.15046
6480.25	-0.148943
6490.57	-0.147319
6500.24	-0.145791
6510.56	-0.144153
6520.24	-0.142524
6530.56	-0.139561
6540.23	-0.13687
6550.55	-0.134099
6560.22	-0.131593
6570.54	-0.129008
6580.21	-0.126651
6590.53	-0.124192
6600.21	-0.12192
6610.53	-0.119517
6620.2	-0.117267
6630.52	-0.114861
6640.19	-0.112602
6650.51	-0.110202
6660.19	-0.107963
6670.51	-0.105585
6680.18	-0.103353
6690.5	-0.100957
6700.17	-0.0986837
6710.49	-0.0962172
6720.17	-0.0933835
6730.48	-0.0890731
6740.16	-0.0852305
6750.48	-0.0812937
6760.15	-0.0776722
6770.48	-0.0737985
6780.19	-0.0701061
6790.54	-0.0661419
6800.25	-0.0624586
6810.6	-0.0585375
6820.3	-0.0548034
6830.01	-0.0490387
6840.33	-0.0431566
6850.59	-0.0375279
6860.22	-0.0321136
6870.48	-0.0261879
6880.14	-0.0178079
6890.46	-0.00864735
6900.13	0.00231782
6910.45	0.0204772
6920.12	0.0402784
6930.44	0.0526467
6940.11	0.0616819
6950.42	0.0669215
6960.1	0.0697731
6970.41	0.0700731
6980.09	0.0688312
6990.4	0.068657
7000.08	0.0692984
7010.39	0.0702346
7020.07	0.0704204
7030.38	0.0700435
7040.05	0.0698225
7050.37	0.0700661
7060.04	0.0704909
7070.36	0.0708178
7080.03	0.0713419
7090.35	0.0724883
7100.02	0.0737895
7110.34	0.0747211
7120.01	0.0749917
7130.33	0.0750403
7140	0.0752142
7150.32	0.0754997
7160.64	0.0756085
7170.31	0.0754961
7180.62	0.0753575
7190.3	0.075323
7200.61	0.0752276
7210.29	0.0748702
7220.6	0.0741895
7230.27	0.0734612
7240.59	0.0728013
7250.26	0.0723657
7260.58	0.0720852
7270.25	0.0719534
7280.57	0.0718342
7290.24	0.0715538
7300.56	0.0708914
7310.23	0.0698938
7320.55	0.0685316
7330.22	0.0671135
7340.54	0.0655834
7350.21	0.0642398
7360.53	0.0629972
7370.2	0.0620228
7380.52	0.0610861
7390.19	0.0601661
7400.51	0.0590574
7410.18	0.0579404
7420.49	0.0568
7430.17	0.0559067
7440.48	0.0552337
7450.16	0.0548947
7460.47	0.0548155
7470.14	0.0549274
7480.46	0.0551288
7490.13	0.055303
7500.45	0.0554294
7510.12	0.055508
7520.44	0.0556039
7530.11	0.0557608
7540.43	0.0560435
7550.1	0.0564302
7560.42	0.0569571
7570.09	0.0575282
7580.41	0.0581907
7590.08	0.0588534
7600.4	0.0596166
7610.07	0.0604047
7620.39	0.0613398
7630.06	0.0623048
7640.38	0.0634043
7650.05	0.0644604
7660.36	0.0655649
7670.04	0.0665484
7680.35	0.0675374
7690.03	0.0684303
7700.34	0.0693862
7710.02	0.070321
7720.33	0.0713827
7730.01	0.0724411
7740.32	0.0736228
7750.64	0.0748394
7760.31	0.0760053
7770.63	0.0772938
7780.3	0.0785832
7790.62	0.0800997
7800.29	0.0816947
7810.61	0.0835966
7820.28	0.0855459
7830.6	0.0877442
7840.27	0.0898487
7850.59	0.0920751
7860.29	0.0941166
7870.64	0.0962432
7880.34	0.0982235
7890.04	0.10024
7900.39	0.102482
7910.09	0.1047
7920.43	0.107189
7930.13	0.109616
7940.48	0.11226
7950.18	0.114746
7960.53	0.117369
7970.23	0.119776
7980.58	0.12227
7990.28	0.124517
8000.62	0.126781
8010.32	0.128729
8020.02	0.130452
8030.37	0.131978
8040.07	0.133067
8050.42	0.133835
8060.12	0.134184
8070.47	0.134185
8080.17	0.133876
8090.51	0.133263
8100.21	0.132461
8110.56	0.131393
8120.26	0.130206
8130.61	0.128746
8140.31	0.127195
8150.02	0.125466
8160.38	0.123428
8170.09	0.12134
8180.44	0.118925
8190.15	0.116486
8200.51	0.113699
8210.22	0.110911
8220.57	0.107752
8230.28	0.104628
8240.64	0.101142
8250.35	0.0977602
8260.06	0.0943025
8270.41	0.0905741
8280.12	0.0870817
8290.48	0.0834012
8300.19	0.080026
8310.55	0.0765372
8320.27	0.0733977
8330.04	0.0703934
8340.46	0.0673661
8350.24	0.0647025
8360.03	0.0622062
8370.48	0.0597152
8380.28	0.0575221
8390.07	0.0554404
8400.53	0.0533091
8410.35	0.0513657
8420.2	0.0494511
8430.06	0.0475525
8440.58	0.0455344
8450.44	0.0436415
8460.3	0.0417417
8470.16	0.0398297
8480.02	0.0378999
8490.54	0.0358169
8500.4	0.0338392
8510.26	0.03184
8520.12	0.0298269
8530.63	0.0276783
8540.49	0.0256785
8550.35	0.0237086
8560.21	0.0217813
8570.07	0.0199052
8580.59	0.0179639
8590.45	0.0161983
8600.31	0.0144797
8610.17	0.0128015
8620.03	0.0111579
8630.55	0.00926284
8640.41	0.0077137
8650.27	0.00621534
8660.13	0.00452203
8670.64	0.00292971
8680.5	0.00142392
8690.36	-0.000885114
8700.22	-0.0031333
8710.08	-0.00520474
8720.6	-0.00730496
8730.46	-0.00910129
8740.32	-0.0108118
8750.18	-0.0097166
8760.04	-0.0112541
8770.56	-0.0129698
8780.42	-0.0147388
8790.28	-0.0173971
8800.14	-0.0197469
8810.65	-0.021979
8820.51	-0.0238965
8830.37	-0.0256434
8840.23	-0.0273003
8850.09	-0.028912
8860.61	-0.0305742
8870.47	-0.0320879
8880.33	-0.0335627
8890.19	-0.035
8900.05	-0.0363996
8910.56	-0.0378495
8920.41	-0.0391651
8930.27	-0.0404463
8940.12	-0.0416953
8950.62	-0.0425551
8960.48	-0.0436616
8970.34	-0.0446393
8980.2	-0.0455048
8990.06	-0.0462738
9000.58	-0.047003
9010.44	-0.0476142
9020.3	-0.0481663
9030.16	-0.0486696
9040.02	-0.0491337
9050.53	-0.0495952
9060.39	-0.0500475
9070.25	-0.0504825
9080.11	-0.0508747
9090.63	-0.0511759
9100.49	-0.0514823
9110.35	-0.0518081
9120.21	-0.0521497
9130.06	-0.0525038
9140.58	-0.0528922
9150.44	-0.0532633
9160.3	-0.0536389
9170.16	-0.0540168
9180.02	-0.0543949
9190.54	-0.0547969
9200.38	-0.0551709
9210.19	-0.0555414
9220.64	-0.0502467
9230.44	-0.0508377
9240.23	-0.0514079
9250.03	-0.0519552
9260.48	-0.0525153
9270.27	-0.0530196
9280.07	-0.0535048
9290.52	-0.0540009
9300.31	-0.0544417
9310.09	-0.0548595
9320.47	-0.05528
9330.16	-0.0556527
9340.47	-0.0560298
9350.15	-0.0563661
9360.47	-0.0567073
9370.14	-0.0570116
9380.46	-0.0573204
9390.13	-0.0575956
9400.45	-0.0578746
9410.13	-0.058123
9420.44	-0.0583744
9430.12	-0.0585978
9440.44	-0.0588237
9450.11	-0.0590237
9460.43	-0.0592234
9470.1	-0.0593978
9480.42	-0.0595704
9490.1	-0.0597192
9500.42	-0.0598637
9510.09	-0.059986
9520.41	-0.0601023
9530.08	-0.0601988
9540.4	-0.0602874
9550.08	-0.0603477
9560.4	-0.0603465
9570.07	-0.0603333
9580.39	-0.0603073
9590.06	-0.0602725
9600.38	-0.0602788
9610.06	-0.060303
9620.38	-0.0603163
9630.05	-0.0603176
9640.37	-0.0603078
9650.04	-0.0602888
9660.36	-0.0602586
9670.04	-0.0602214
9680.35	-0.0601729
9690.03	-0.0601194
9700.35	-0.0600543
9710.02	-0.0599861
9720.34	-0.0599059
9730.01	-0.059824
9740.33	-0.0597299
9750.01	-0.0596355
9760.33	-0.0595285
9770	-0.0594225
9780.32	-0.0593035
9790.64	-0.0591785
9800.31	-0.0590562
9810.63	-0.0589202
9820.3	-0.0587878
9830.62	-0.0586413
9840.3	-0.0584991
9850.62	-0.0583425
9860.29	-0.0581911
9870.61	-0.0580248
9880.28	-0.0578644
9890.6	-0.0576887
9900.28	-0.0567547
9910.6	-0.0565965
9920.27	-0.0564471
9930.59	-0.0562863
9940.26	-0.056134
9950.58	-0.05597
9960.26	-0.0558144
9970.57	-0.0556465
9980.25	-0.0554872
9990.57	-0.0553151
10000.2	-0.0551518
10010.6	-0.0549753
10020.2	-0.0548078
10030.6	-0.0546267
10040.2	-0.0544546
10050.5	-0.0542684
10060.2	-0.0540912
10070.5	-0.0538993
10080.2	-0.0537165
10090.5	-0.0535174
10100.2	-0.0533502
10110.5	-0.0530504
10120.2	-0.0527664
10130.5	-0.0524605
10140.2	-0.0521595
10150.5	-0.0518339
10160.2	-0.0515286
10170.5	-0.0512027
10180.2	-0.0508967
10190.5	-0.0505697
10200.2	-0.0502622
10210.5	-0.0499332
10220.2	-0.0496235
10230.5	-0.0492918
10240.2	-0.0489794
10250.5	-0.0486444
10260.1	-0.0483287
10270.5	-0.04799
10280.1	-0.0476704
10290.5	-0.0473275
10300.1	-0.0470039
10310.5	-0.0466568
10320.1	-0.0463314
10330.4	-0.0459841
10340.1	-0.0456578
10350.4	-0.0453088
10360.1	-0.0449804
10370.4	-0.0446285
10380.1	-0.0442969
10390.4	-0.0439411
10400.1	-0.0436056
10410.4	-0.0432454
10420.1	-0.0429055
10430.4	-0.0425404
10440.1	-0.0421959
10450.4	-0.0418258
10460.1	-0.0414766
10470.4	-0.0411015
10480.1	-0.0407475
10490.4	-0.0403676
10500.1	-0.0400091
10510.4	-0.0396245
10520.1	-0.0392618
10530.4	-0.0388728
10540.1	-0.0385062
10550.4	-0.0381133
10560	-0.0377432
10570.4	-0.0373467
10580	-0.0369735
10590.3	-0.0365753
10600.6	-0.0361753
10610.3	-0.0357988
10620.6	-0.0353966
10630.3	-0.0350191
10640.6	-0.0346161
10650.3	-0.0342382
10660.6	-0.0338349
10670.3	-0.0334568
10680.6	-0.0330536
10690.2	-0.0326758
10700.6	-0.0322493
10710.2	-0.0318309
10720.6	-0.0313896
10730.2	-0.0309804
10740.5	-0.0305489
10750.2	-0.0301487
10760.5	-0.0297266
10770.2	-0.029335
10780.5	-0.0289218
10790.2	-0.0285385
10800.5	-0.0281338
10810.2	-0.0277582
10820.5	-0.0273616
10830.2	-0.0269934
10840.5	-0.0266043
10850.2	-0.0262429
10860.5	-0.0258609
10870.2	-0.025506
10880.5	-0.0251306
10890.1	-0.0247821
10900.5	-0.0244153
10910.1	-0.0240759
10920.4	-0.0237182
10930.1	-0.0233865
10940.4	-0.0230363
10950.1	-0.0227109
10960.4	-0.0223668
10970.1	-0.0220465
10980.4	-0.0217072
10990.1	-0.0213877
11000.4	-0.0210497
11010.1	-0.0207472
11020.4	-0.0204369
11030.1	-0.0201555
11040.4	-0.0198633
11050.1	-0.0195965
11060.4	-0.0193204
11070	-0.0190685
11080.4	-0.0188063
11090	-0.0185655
11100.4	-0.0183129
11110	-0.018079
11120.3	-0.0178315
11130	-0.0176005
11140.3	-0.0173544
11150	-0.017123
11160.3	-0.0168748
11170.6	-0.0166245
11180.3	-0.0163873
11190.6	-0.016131
11200.3	-0.0158873
11210.6	-0.0156238
11220.3	-0.0153734
11230.6	-0.0151025
11240.3	-0.0148447
11250.6	-0.0145655
11260.3	-0.0142996
11270.6	-0.0140116
11280.3	-0.0137376
11290.6	-0.0134416
11300.2	-0.0131606
11310.6	-0.0128571
11320.2	-0.0125688
11330.6	-0.0122588
11340.2	-0.0119714
11350.5	-0.0116667
11360.2	-0.0113809
11370.5	-0.0110741
11380.2	-0.0107835
11390.5	-0.0104692
11400.2	-0.0100969
11410.5	-0.00960687
11420.2	-0.00912869
11430.5	-0.00860762
11440.2	-0.00811403
11450.5	-0.00758554
11460.2	-0.00709025
11470.5	-0.00656343
11480.2	-0.00607157
11490.5	-0.00555023
11500.1	-0.00506448
11510.5	-0.00454851
11520.1	-0.0040656
11530.4	-0.00355049
11540.1	-0.00306815
11550.4	-0.00254911
11560.1	-0.00205684
11570.4	-0.0015251
11580.1	-0.00102011
11590.4	0.000143633
11600.1	0.00136721
11610.4	0.0025693
11620.1	0.00359572
11630.4	0.00458822
11640.1	0.00543244
11650.4	0.00625699
11660.1	0.00698292
11670.4	0.00772774
11680	0.00872723
11690.4	0.00971239
11700	0.0105118
11710.4	0.0113198
11720	0.0120658
11730.3	0.0130327
11740	0.0142728
11750.3	0.0158189
11760	0.0189943
11770.3	0.0237654
11780.6	0.0278739
11790.3	0.0323336
11800.6	0.0370605
11810.3	0.0416722
11820.6	0.0466634
11830.3	0.0512154
11840.6	0.0562599
11850.3	0.0610493
11860.6	0.0659824
11870.3	0.0703194
11880.6	0.074632
11890.3	0.0783942
11900.6	0.0821223
11910.2	0.0852677
11920.6	0.0881852
11930.2	0.0904962
11940.6	0.0924812
11950.2	0.0938794
11960.6	0.0949363
11970.3	0.0956343
11980.6	0.096188
11990.3	0.0965869
