0	0
22.919	0
45.8371	0
68.7552	0
91.6734	0
114.592	0
137.51	0
160.428	0
183.347	0
206.265	0
229.184	-9.09495e-13
252.104	-3.63798e-12
275.023	-1.00044e-11
297.942	-2.27374e-11
320.862	-4.82032e-11
342.089	-9.09495e-11
363.317	-1.59162e-10
384.544	-2.60115e-10
405.771	-4.01087e-10
426.999	-5.86624e-10
448.226	-8.15817e-10
469.453	-1.07866e-09
490.681	-1.34878e-09
511.908	-1.57979e-09
533.135	-1.69621e-09
554.282	-1.58798e-09
575.428	-1.10504e-09
596.574	-4.45652e-11
617.721	1.85537e-09
638.867	4.92946e-09
660.013	9.59972e-09
681.159	1.639e-08
702.305	2.5947e-08
723.451	3.90637e-08
744.597	5.67097e-08
765.647	7.99591e-08
786.696	1.09885e-07
807.746	1.47477e-07
828.795	1.93789e-07
849.845	2.50005e-07
870.894	3.17073e-07
891.944	3.95844e-07
912.993	4.87178e-07
934.042	5.92024e-07
955.091	7.11486e-07
976.14	8.46889e-07
997.19	9.99832e-07
1018.24	1.17225e-06
1039.29	1.36649e-06
1060.34	1.58537e-06
1081.39	1.83228e-06
1102.43	2.11127e-06
1123.48	2.42719e-06
1144.53	2.78577e-06
1165.58	3.19373e-06
1186.63	3.65876e-06
1207.68	4.18957e-06
1228.73	4.79595e-06
1249.77	5.48877e-06
1270.82	6.28005e-06
1291.87	7.18307e-06
1312.92	8.21247e-06
1333.97	9.38439e-06
1355.01	1.07166e-05
1376.06	1.22288e-05
1397.11	1.39426e-05
1418.16	1.58933e-05
1439.21	1.81254e-05
1460.25	2.06675e-05
1481.3	2.35415e-05
1502.35	2.67655e-05
1523.4	3.03564e-05
1544.45	3.43321e-05
1565.49	3.8713e-05
1586.54	4.35229e-05
1607.59	4.8791e-05
1628.64	5.45523e-05
1649.68	6.08486e-05
1670.73	6.77297e-05
1691.78	7.52542e-05
1712.83	8.34899e-05
1733.88	9.25144e-05
1754.92	0.000102416
1775.97	0.000113289
1797.02	0.000125204
1818.07	0.000138216
1839.12	0.000152379
1860.16	0.000167746
1881.21	0.000184381
1902.26	0.000202351
1923.31	0.00022174
1944.36	0.000242641
1965.41	0.000265169
1986.46	0.000289456
2007.5	0.000315661
2028.55	0.000343964
2049.6	0.000374568
2070.65	0.000407697
2091.7	0.000400958
2112.75	0.000398222
2133.8	0.000398883
2154.85	0.000402494
2175.9	0.000408739
2196.95	0.000417409
2218	0.000428389
2239.05	0.000441639
2260.1	0.000457181
2281.15	0.000475092
2302.2	0.000495493
2322.86	0.00051812
2343.53	0.000543489
2364.19	0.000571815
2384.85	0.000603343
2405.52	0.000638338
2426.18	0.000677091
2446.85	0.000719911
2467.51	0.000767312
2488.18	0.000818498
2508.84	0.000873064
2529.5	0.000930851
2550.17	0.000991869
2570.83	0.00105624
2591.5	0.00112421
2612.16	0.00119611
2632.82	0.00127241
2653.49	0.00135368
2674.15	0.00144063
2694.82	0.00153401
2715.48	0.00163457
2736.15	0.00174305
2756.81	0.00186021
2777.47	0.00198687
2798.14	0.00227892
2818.8	0.00257218
2839.46	0.00285885
2860.13	0.00313868
2880.79	0.00341471
2901.46	0.00369202
2922.12	0.00397679
2942.78	0.00427565
2963.45	0.00459545
2984.11	0.00494319
3004.77	0.0053173
3025.44	0.00571087
3046.1	0.00612586
3066.76	0.00656635
3087.43	0.00703896
3108.09	0.00755368
3128.76	0.00812405
3149.42	0.00952381
3170.08	0.0108851
3190.75	0.0121065
3211.41	0.0132749
3232.07	0.014535
3252.74	0.0159991
3273.4	0.0177343
3294.06	0.0197705
3314.73	0.0221076
3335.39	0.0277302
3356.05	0.0324834
3376.72	0.0370612
3397.38	0.0417586
3418.04	0.0466608
3438.71	0.0517769
3459.37	0.0571035
3480.03	0.0626427
3500.7	0.0684036
3521.36	0.0743989
3542.03	0.0806407
3562.69	0.0871388
3583.35	0.0938735
3604.02	0.100828
3624.68	0.108
3645.34	0.115398
3666.01	0.123037
3686.67	0.130923
3707.34	0.139056
3728	0.14742
3748.67	0.155993
3769.33	0.164743
3789.99	0.173634
3810.66	0.182626
3831.32	0.191675
3851.99	0.200735
3872.65	0.209758
3893.32	0.218694
3913.98	0.22749
3934.64	0.236093
3955.31	0.244449
3975.97	0.252501
3996.64	0.260189
4017.34	0.267462
4038.04	0.274239
4058.74	0.280451
4079.45	0.286027
4100.15	0.290894
4120.85	0.294982
4141.56	0.298223
4162.26	0.30055
4182.96	0.301905
4203.66	0.302233
4224.37	0.301487
4245.07	0.299629
4265.77	0.296627
4286.47	0.292462
4307.18	0.287118
4327.88	0.280593
4348.58	0.27289
4369.66	0.263858
4390.74	0.253633
4411.81	0.242244
4432.89	0.229735
4453.97	0.216148
4475.05	0.201527
4496.12	0.185935
4517.2	0.169466
4538.28	0.152253
4559.35	0.134121
4580.43	0.115247
4601.51	0.0959369
4622.59	0.0766118
4643.66	0.0576715
4664.74	0.0393941
4685.82	0.014242
4706.9	-0.0034443
4727.97	-0.0201676
4749.05	-0.0352878
4770.13	-0.0488712
4791.21	-0.0609046
4812.28	-0.0715208
4833.36	-0.0608221
4854.44	-0.0676015
4875.52	-0.0743218
4896.6	-0.0804557
4917.67	-0.0887896
4938.75	-0.0954472
4959.83	-0.101103
4980.91	-0.10613
5001.98	-0.110947
5023.06	-0.115592
5044.14	-0.119659
5065.22	-0.123732
5086.3	-0.127265
5107.52	-0.13035
5128.75	-0.133058
5149.98	-0.135475
5171.2	-0.13765
5192.43	-0.139611
5213.66	-0.14138
5234.89	-0.135298
5256.03	-0.136802
5277.18	-0.138519
5298.33	-0.140095
5319.47	-0.141323
5340.62	-0.142181
5361.76	-0.14272
5382.91	-0.142996
5403.96	-0.143058
5425.01	-0.142954
5446.06	-0.142719
5467.11	-0.14238
5488.16	-0.141954
5509.21	-0.141456
5530.26	-0.140895
5551.31	-0.140278
5572.36	-0.139611
5593.4	-0.138897
5614.45	-0.138141
5635.5	-0.137349
5656.55	-0.136579
5677.6	-0.135813
5698.65	-0.13502
5719.7	-0.134188
5740.75	-0.133318
5761.8	-0.13241
5782.85	-0.131463
5803.9	-0.130477
5824.95	-0.129453
5846	-0.128389
5867.05	-0.127286
5888.1	-0.126184
5909.15	-0.125081
5930.2	-0.123976
5951.25	-0.122866
5972.3	-0.121747
5993.34	-0.120618
6014.39	-0.122507
6035.44	-0.121961
6056.49	-0.121145
6077.54	-0.1203
6098.59	-0.119425
6119.64	-0.118515
6140.69	-0.117569
6161.74	-0.116584
6182.79	-0.115551
6203.84	-0.114471
6224.89	-0.113343
6245.94	-0.112168
6266.99	-0.110946
6288.04	-0.109676
6309.09	-0.108358
6330.14	-0.106993
6351.19	-0.105578
6372.24	-0.104126
6393.28	-0.102643
6414.33	-0.101137
6435.38	-0.09961
6456.43	-0.098065
6477.48	-0.0965025
6498.53	-0.0949221
6519.58	-0.0933229
6540.63	-0.0917033
6561.68	-0.0900615
6582.73	-0.0883953
6603.78	-0.0867028
6624.83	-0.0849823
6645.88	-0.0832328
6666.93	-0.0814536
6687.98	-0.0796448
6709.03	-0.0778066
6730.08	-0.0742348
6751.13	-0.0707532
6772.17	-0.0674133
6793.22	-0.0642224
6814.27	-0.0611631
6835.32	-0.0582109
6856.37	-0.055339
6877.42	-0.0525227
6898.47	-0.0497399
6919.52	-0.0469729
6940.57	-0.0442076
6961.62	-0.041434
6982.67	-0.0386454
7003.72	-0.0358383
7024.77	-0.0330106
7045.82	-0.030215
7066.87	-0.0274716
7087.92	-0.0247835
7108.97	-0.0221443
7130.02	-0.0195401
7151.07	-0.0169539
7172.11	-0.0143699
7193.16	-0.00905605
7214.21	-0.00463454
7235.26	-0.000749011
7256.31	0.00266767
7277.36	0.00582785
7298.41	0.00888535
7319.46	0.0119399
7340.51	0.0150214
7361.56	0.0181125
7382.61	0.0208
7403.66	0.0251394
7424.71	0.0286772
7445.76	0.0320868
7466.81	0.0352687
7487.86	0.0381622
7508.91	0.0407053
7529.96	0.0428528
7551.01	0.0445774
7572.06	0.0458762
7592.72	0.0467498
7613.38	0.047257
7634.05	0.0474291
7654.71	0.0472937
7675.38	0.0468866
7696.04	0.0462428
7716.71	0.0454072
7737.37	0.0444155
7758.03	0.0433012
7778.7	0.042097
7799.36	0.0408338
7820.03	0.0395379
7840.69	0.0382297
7861.36	0.0369228
7882.02	0.0356249
7902.68	0.034339
7923.35	0.0330645
7944.01	0.0317988
7964.68	0.0305374
7985.34	0.029275
8006.01	0.0280064
8026.67	0.0267279
8047.33	0.0254372
8068	0.0241342
8088.66	0.0228194
8109.33	0.0214935
8129.99	0.0201555
8150.66	0.0188014
8171.32	0.0174248
8191.98	0.015965
8212.65	0.014389
8233.31	0.0127249
8253.98	0.00993612
8274.64	0.00795439
8295.31	0.00622325
8315.97	0.00469881
8336.63	0.00330096
8357.3	0.00442106
8377.96	0.00339517
8398.63	0.00232587
8419.29	0.00182782
8439.96	0.000512365
8460.62	-0.000906434
8481.28	-0.00217682
8501.95	-0.00333846
8522.61	-0.00445644
8543.28	-0.00557271
8563.94	-0.00681125
8584.61	-0.00785115
8605.27	-0.00874819
8625.93	-0.00954093
8646.6	-0.0102514
8667.26	-0.0108921
8687.93	-0.01147
8708.59	-0.0119896
8729.26	-0.0124534
8749.92	-0.0104251
8770.59	-0.0107881
8791.25	-0.00910297
8811.91	-0.00938164
8832.58	-0.00959865
8853.24	-0.00975435
8873.91	-0.00985936
8894.57	-0.00992577
8915.24	-0.00993301
8935.9	-0.00990337
8956.56	-0.0098548
8977.23	-0.00979981
8997.89	-0.00974706
9018.56	-0.00985512
9039.22	-0.00994908
9059.89	-0.0100388
9080.55	-0.0101332
9101.21	-0.0102288
9121.88	-0.0103232
9142.54	-0.0104152
9163.21	-0.0105041
9183.87	-0.0106709
9204.54	-0.0108135
9225.2	-0.0109364
9245.86	-0.0110429
9266.53	-0.0111353
9287.19	-0.0112151
9307.86	-0.0112835
9328.52	-0.0113411
9349.19	-0.0113875
9369.85	-0.0114225
9390.51	-0.0114457
9411.18	-0.0102941
9431.84	-0.0110622
9452.51	-0.0109803
9473.17	-0.0108944
9493.84	-0.0108044
9514.5	-0.0107102
9535.17	-0.0106116
9555.83	-0.0105088
9576.49	-0.0104018
9597.16	-0.0102906
9617.82	-0.0101752
9638.49	-0.0100559
9659.15	-0.00993264
9679.82	-0.00980558
9700.48	-0.0096748
9721.14	-0.00953827
9741.81	-0.00939648
9762.47	-0.0092499
9783.14	-0.00909893
9803.8	-0.00894394
9824.47	-0.00878525
9845.13	-0.00862312
9865.8	-0.00845781
9886.46	-0.00829174
9907.12	-0.00812476
9927.79	-0.00795673
9948.45	-0.00778755
9969.12	-0.00761711
9989.78	-0.00744545
10010.4	-0.00727257
10031.1	-0.00709848
10051.8	-0.00692318
10072.4	-0.00674667
10093.1	-0.00656864
10113.8	-0.00638871
10134.5	-0.00620708
10155.3	-0.00602394
10176	-0.00583943
10196.7	-0.00565369
10217.4	-0.00541941
10238.1	-0.00518905
10258.8	-0.00496231
10279.5	-0.0047389
10300.2	-0.00451858
10320.9	-0.00430112
10341.6	-0.00408632
10362.3	-0.00387401
10383	-0.00366402
10403.7	-0.00345621
10424.4	-0.00325047
10445.1	-0.00304669
10465.8	-0.00284479
10486.5	-0.00264472
10507.2	-0.00244642
10527.9	-0.00224988
10548.6	-0.00205508
10569.7	-0.00185854
10590.8	-0.00166385
10611.8	-0.00147105
10632.9	-0.00128021
10654	-0.00109141
10675.1	-0.000904717
10696.1	-0.000720247
10717.2	-0.000538094
10738.3	-0.000358366
10759.4	-0.000181178
10780.5	-6.65591e-06
10801.5	0.000165064
10822.6	0.000333838
10843.7	0.00049951
10864.8	0.000661921
10885.8	0.000820904
10906.9	0.00097951
10928.6	0.00114022
10950.3	0.00129756
10972	0.00145079
10993.7	0.00159925
11015.4	0.00174233
11037	0.00187952
11058.7	0.00201037
11080.4	0.00213449
11102.7	0.0022548
11125.5	0.00236974
11148.3	0.00247615
11171.1	0.00257378
11193.9	0.00266245
11216.7	0.00274206
11239.5	0.00281252
11262.3	0.00287383
11285.1	0.00292601
11308	0.00296913
11330.8	0.00300327
11353.6	0.00302858
11376.4	0.00304521
11399.2	0.00305333
11422	0.00305315
11445.3	0.00304468
11468.7	0.00302797
11492	0.00300328
11515.4	0.00297088
11538.8	0.00293105
11562.1	0.00288409
11585.5	0.00283028
11609	0.00276963
11632.4	0.00270267
11655.9	0.00262969
11679.4	0.00255098
11702.8	0.00246684
11726.3	0.00237755
11749.8	0.0022834
11772	0.00218967
11794.3	0.00209206
11816.6	0.0019908
11838.9	0.00188612
11861.2	0.00177823
11883.4	0.00166736
11905.7	0.00155372
11928	0.00143751
11950.3	0.00131894
11972.6	0.0011982
11994.8	0.00107547
