Problem size with different number of CPUs using function optimization
Depth: 16
Timesteps: 500
THREADS	DEPTH	MTPS	CACHE_MISSES	SPEEDUP_PER	TIMESTEPS	TIMESTEP_SIZE	SECONDS_FOR_SIMULATION	AVERAGE_TRIANGLES	AVERAGE_PARTITIONS
218,813,553
1	16	4.23073	       218,813,553		500	0.0173488	67.9999	575378	324.958
263,681,095
2	16	8.14591	       263,681,095		500	0.0173488	35.317	575378	324.958
285,921,078
3	16	11.8841	       285,921,078		500	0.0173488	24.2078	575378	324.958
313,949,588
4	16	15.4108	       313,949,588		500	0.0173488	18.668	575378	324.958
357,388,423
5	16	18.5587	       357,388,423		500	0.0173488	15.5016	575378	324.958
392,681,044
6	16	21.3664	       392,681,044		500	0.0173488	13.4646	575378	324.958
398,313,182
7	16	24.3566	       398,313,182		500	0.0173488	11.8116	575378	324.958
408,529,143
8	16	27.1511	       408,529,143		500	0.0173488	10.5958	575378	324.958
424,145,552
9	16	29.7483	       424,145,552		500	0.0173488	9.67079	575378	324.958
453,850,414
10	16	32.2578	       453,850,414		500	0.0173488	8.91845	575378	324.958
461,632,461
11	16	34.4584	       461,632,461		500	0.0173488	8.34889	575378	324.958
485,857,213
12	16	36.3641	       485,857,213		500	0.0173488	7.91134	575378	324.958
