0	0
10.0257	0
20.9861	0
30.9481	0
40.91	0
50.87	0
60.7888	0
70.619	0
80.4281	0
90.2373	0
100.046	0
110.836	0
120.646	0
130.455	0
140.264	0
150.073	0
160.863	0
170.672	0
180.481	0
190.29	0
200.099	0
210.889	0
220.698	0
230.507	0
240.317	0
250.126	0
260.916	0
270.725	0
280.534	0
290.343	0
300.152	0
310.942	0
320.751	0
330.56	0
340.369	0
350.178	0
360.968	0
370.777	0
380.586	0
390.395	0
400.204	0
410.013	0
420.803	0
430.612	0
440.421	0
450.23	0
460.039	0
470.829	0
480.638	0
490.447	0
500.256	0
510.065	0
520.855	0
530.663	0
540.472	0
550.281	0
560.09	0
570.88	0
580.688	0
590.497	0
600.306	0
610.114	0
620.904	0
630.713	0
640.521	5.45697e-12
650.33	1.45519e-11
660.138	2.54659e-11
670.928	4.91127e-11
680.737	8.8221e-11
690.545	1.60981e-10
700.354	2.89219e-10
710.162	5.19321e-10
720.952	9.7134e-10
730.76	1.69257e-09
740.569	2.90765e-09
750.378	4.92491e-09
760.186	8.22547e-09
770.976	1.42318e-08
780.785	2.30993e-08
790.593	3.70101e-08
800.402	5.85542e-08
810.211	9.15052e-08
820.019	1.41295e-07
830.809	2.24814e-07
840.618	3.38851e-07
850.426	5.05128e-07
860.235	7.44945e-07
870.044	1.08717e-06
880.833	1.62847e-06
890.642	2.32695e-06
900.45	3.29308e-06
910.259	4.61674e-06
920.067	6.41346e-06
930.857	9.11289e-06
940.665	1.24279e-05
950.474	1.68065e-05
960.282	2.25421e-05
970.091	2.99946e-05
980.88	4.07007e-05
990.688	5.32932e-05
1000.5	6.92724e-05
1010.31	8.94041e-05
1020.11	0.000114591
1030.9	0.000149404
1040.71	0.000188856
1050.52	0.000237226
1060.33	0.000296169
1070.14	0.00036757
1080.92	0.000463061
1090.73	0.000567911
1100.54	0.000692755
1110.35	0.000840634
1120.16	0.00101491
1130.95	0.00124155
1140.75	0.00148376
1150.56	0.00176504
1160.37	0.00209023
1170.18	0.00246454
1180.97	0.00293972
1190.78	0.003436
1200.58	0.00399967
1210.39	0.00463669
1220.2	0.00535512
1230.01	0.00616431
1240.8	0.00717605
1250.6	0.00819352
1260.41	0.00927814
1270.22	0.0106241
1280.03	0.0121373
1290.82	0.0137119
1300.62	0.015946
1310.43	0.0188411
1320.24	0.0204287
1330.05	0.0236844
1340.84	0.0282629
1350.64	0.0326522
1360.45	0.0373458
1370.26	0.0423239
1380.07	0.0473613
1390.86	0.0529147
1400.66	0.0580183
1410.47	0.0632167
1420.28	0.0685231
1430.09	0.0739525
1440.88	0.0799449
1450.68	0.0856966
1460.49	0.092534
1470.3	0.104211
1480.11	0.114168
1490.9	0.125401
1500.7	0.136587
1510.51	0.152447
1520.32	0.178047
1530.13	0.214929
1540.92	0.26135
1550.72	0.336618
1560.53	0.433432
1570.34	0.546167
1580.15	0.671766
1590.94	0.825352
1600.74	0.977432
1610.55	1.13745
1620.36	1.30108
1630.17	1.46159
1640.96	1.62904
1650.76	1.76875
1660.57	1.89238
1670.38	1.9985
1680.19	2.08658
1690.98	2.16193
1700.79	2.21145
1710.59	2.24438
1720.4	2.26179
1730.21	2.26494
1740.02	2.25556
1750.81	2.23241
1760.62	2.20098
1770.42	2.16096
1780.23	2.11327
1790.04	2.05841
1800.83	1.99041
1810.64	1.92212
1820.45	1.84789
1830.26	1.76816
1840.07	1.68376
1850.86	1.58643
1860.66	1.49447
1870.47	1.39948
1880.28	1.30098
1890.09	1.19762
1900.88	1.0761
1910.69	0.95632
1920.5	0.825777
1930.31	0.683379
1940.12	0.529135
1950.91	0.34714
1960.72	0.172867
1970.52	-0.00664768
1980.33	-0.187922
1990.14	-0.367461
2000.93	-0.559003
2010.74	-0.724556
2020.55	-0.879463
2030.36	-1.02184
2040.17	-1.15031
2050.96	-1.27475
2060.77	-1.3726
2070.58	-1.4567
2080.39	-1.52842
2090.2	-1.58944
2100.01	-1.64135
2110.8	-1.68922
2120.61	-1.72459
2130.42	-1.75147
2140.23	-1.76834
2150.04	-1.77324
2160.83	-1.76256
2170.64	-1.7368
2180.45	-1.69541
2190.26	-1.63928
2200.07	-1.57046
2210.86	-1.48371
2220.67	-1.39868
2230.48	-1.31153
2240.29	-1.22546
2250.09	-1.14298
2260.89	-1.05828
2270.69	-0.987512
2280.5	-0.922654
2290.31	-0.86318
2300.12	-0.808347
2310.91	-0.752513
2320.72	-0.705198
2330.53	-0.660783
2340.34	-0.619076
2350.15	-0.579949
2360.94	-0.53967
2370.75	-0.505196
2380.56	-0.472235
2390.37	-0.440151
2400.18	-0.408279
2410.97	-0.37278
2420.78	-0.3397
2430.59	-0.305726
2440.4	-0.271014
2450.21	-0.23596
2460.02	-0.201135
2470.81	-0.163874
2480.62	-0.131648
2490.43	-0.101544
2500.24	-0.0739295
2510.05	-0.0489846
2520.84	-0.0246324
2530.65	-0.00516328
2540.46	0.011968
2550.27	0.0269765
2560.08	0.0400579
2570.87	0.0524084
2580.68	0.0619048
2590.49	0.0698284
2600.3	0.0762259
2610.11	0.0811312
2620.9	0.0848472
2630.71	0.0867553
2640.52	0.08734
2650.33	0.0866944
2660.14	0.0849204
2670.93	0.0817843
2680.74	0.0779537
2690.55	0.0732725
2700.36	0.0678139
2710.16	0.0616478
2720.96	0.0541296
2730.76	0.0466993
2740.57	0.0387706
2750.38	0.0304117
2760.19	0.0216941
2770	0.0126944
2780.79	0.00256512
2790.6	-0.00676592
2800.41	-0.0161412
2810.22	-0.0255065
2820.03	-0.0348261
2830.82	-0.0450025
2840.63	-0.0541782
2850.44	-0.0632827
2860.25	-0.0723191
2870.06	-0.0812886
2880.85	-0.0910699
2890.66	-0.0998627
2900.47	-0.108522
2910.28	-0.116991
2920.09	-0.125203
2930.88	-0.13385
2940.69	-0.141281
2950.5	-0.148234
2960.31	-0.154646
2970.12	-0.160464
2980.91	-0.166122
2990.72	-0.170554
3000.53	-0.174287
3010.34	-0.177314
3020.15	-0.179644
3030.94	-0.181433
3040.75	-0.182396
3050.56	-0.182782
3060.37	-0.182658
3070.18	-0.182104
3080.97	-0.181102
3090.77	-0.179934
3100.58	-0.178613
3110.39	-0.177223
3120.2	-0.175841
3130.01	-0.174536
3140.8	-0.173252
3150.61	-0.172268
3160.42	-0.171482
3170.23	-0.170899
3180.04	-0.170508
3190.83	-0.170272
3200.64	-0.170198
3210.45	-0.170222
3220.26	-0.170303
3230.07	-0.170403
3240.86	-0.17049
3250.67	-0.170512
3260.48	-0.17045
3270.29	-0.170284
3280.1	-0.169995
3290.89	-0.169522
3300.69	-0.168935
3310.5	-0.168187
3320.31	-0.167263
3330.12	-0.166146
3340.91	-0.164671
3350.72	-0.163081
3360.53	-0.161224
3370.34	-0.159066
3380.15	-0.15657
3390.94	-0.153387
3400.75	-0.150055
3410.56	-0.146274
3420.37	-0.142024
3430.18	-0.137303
3440.97	-0.131584
3450.78	-0.125949
3460.59	-0.119961
3470.4	-0.113696
3480.21	-0.10724
3490.01	-0.100685
3500.81	-0.0934625
3510.61	-0.0869713
3520.42	-0.0806186
3530.23	-0.0744551
3540.04	-0.068516
3550.83	-0.0622643
3560.64	-0.0568398
3570.45	-0.0516504
3580.26	-0.046674
3590.07	-0.0418819
3600.86	-0.0367861
3610.67	-0.0322804
3620.48	-0.0278686
3630.29	-0.0235297
3640.1	-0.0192481
3650.89	-0.0145913
3660.7	-0.0103977
3670.51	-0.00623641
3680.31	-0.00210428
3690.12	0.00199916
3700.91	0.00647515
3710.72	0.010499
3720.53	0.0144615
3730.34	0.018337
3740.15	0.0220924
3750.94	0.026038
3760.75	0.0294094
3770.56	0.0325291
3780.37	0.0353528
3790.18	0.0378394
3800.97	0.0401425
3810.78	0.0418125
3820.59	0.0430578
3830.4	0.0438671
3840.2	0.0442373
3850.01	0.0441736
3860.8	0.0436178
3870.61	0.0426921
3880.42	0.0413924
3890.23	0.0397489
3900.04	0.037796
3910.83	0.0353351
3920.64	0.032857
3930.45	0.0301921
3940.26	0.0273819
3950.07	0.0244666
3960.86	0.0211822
3970.67	0.0181602
3980.47	0.0151291
3990.28	0.0121062
4000.09	0.00910169
4010.88	0.00582319
4020.69	0.00286733
4030.5	-6.63468e-05
4040.31	-0.00297861
4050.12	-0.00586801
4060.91	-0.009014
4070.72	-0.0118347
4080.53	-0.0146045
4090.34	-0.0173069
4100.15	-0.0199232
4110.94	-0.0226784
4120.74	-0.0250502
4130.55	-0.0272766
4140.36	-0.0293416
4150.17	-0.0312325
4160.96	-0.0331017
4170.77	-0.0346063
4180.58	-0.0359281
4190.39	-0.037075
4200.2	-0.0380589
4210.01	-0.0388951
4220.8	-0.0396646
4230.61	-0.0402469
4240.42	-0.0407358
4250.22	-0.0411484
4260.03	-0.0415003
4270.82	-0.0418339
4280.63	-0.0421013
4290.44	-0.0423439
4300.25	-0.0425675
4310.06	-0.0427742
4320.85	-0.0429792
4330.66	-0.043137
4340.47	-0.0432548
4350.28	-0.0433153
4360.09	-0.0432971
4370.88	-0.0431571
4380.69	-0.0428918
4390.5	-0.0424667
4400.3	-0.0418544
4410.11	-0.0410288
4420.9	-0.0398461
4430.71	-0.0384994
4440.52	-0.0368775
4450.33	-0.0349695
4460.14	-0.0327696
4470.93	-0.0300118
4480.74	-0.0272023
4490.55	-0.0241133
4500.36	-0.0207564
4510.17	-0.017145
4520.96	-0.0128947
4530.76	-0.0087923
4540.57	-0.00447358
4550.38	5.42364e-05
4560.19	0.004788
4570	0.0097292
4580.79	0.015412
4590.6	0.0208161
4600.41	0.0264638
4610.22	0.0323755
4620.03	0.0385735
4630.82	0.0457478
4640.63	0.0526137
4650.44	0.059819
4660.24	0.0673653
4670.05	0.0752425
4680.84	0.0842604
4690.65	0.092737
4700.46	0.101424
4710.27	0.110254
4720.08	0.119154
4730.87	0.128925
4740.68	0.137699
4750.49	0.146286
4760.3	0.154608
4770.1	0.162595
4780.89	0.170927
4790.7	0.178038
4800.51	0.184673
4810.32	0.190812
4820.13	0.196444
4830.92	0.202053
4840.73	0.206627
4850.54	0.210712
4860.35	0.214323
4870.16	0.217476
4880.94	0.220434
4890.75	0.222673
4900.56	0.224495
4910.37	0.225906
4920.18	0.226907
4930.97	0.227531
4940.78	0.227653
4950.59	0.227336
4960.4	0.22656
4970.2	0.225302
4980.01	0.223538
4990.8	0.220983
5000.61	0.218077
5010.42	0.214595
5020.23	0.210524
5030.04	0.205857
5040.83	0.200036
5050.63	0.194131
5060.44	0.187661
5070.25	0.180658
5080.06	0.173156
5090.85	0.164383
5100.66	0.155987
5110.47	0.147244
5120.27	0.138205
5130.08	0.12892
5140.87	0.118479
5150.68	0.108823
5160.49	0.0990464
5170.3	0.0891774
5180.11	0.0792387
5190.9	0.068248
5200.7	0.0582206
5210.51	0.0481745
5220.32	0.038125
5230.13	0.0280898
5240.92	0.017092
5250.73	0.0071577
5260.54	-0.00268695
5270.35	-0.0124103
5280.15	-0.0219777
5290.94	-0.0322777
5300.75	-0.0413957
5310.56	-0.0502387
5320.37	-0.0587667
5330.18	-0.0669393
5340.97	-0.0754706
5350.78	-0.0827659
5360.58	-0.0895817
5370.39	-0.0958789
5380.2	-0.10162
5390.01	-0.106767
5400.8	-0.111704
5410.61	-0.115499
5420.42	-0.118605
5430.23	-0.121
5440.03	-0.122665
5450.82	-0.123638
5460.63	-0.123734
5470.44	-0.123078
5480.25	-0.121672
5490.06	-0.119527
5500.85	-0.116331
5510.66	-0.112688
5520.47	-0.10837
5530.27	-0.103411
5540.08	-0.0978501
5550.87	-0.0910907
5560.68	-0.0844168
5570.49	-0.0772965
5580.3	-0.0697894
5590.11	-0.0619589
5600.9	-0.0530499
5610.71	-0.0447546
5620.51	-0.0363418
5630.32	-0.027877
5640.13	-0.0194239
5650.92	-0.0102115
5660.73	-0.00197646
5670.54	0.00607092
5680.35	0.0138823
5690.16	0.0214137
5700.95	0.0293277
5710.75	0.0361469
5720.56	0.0425765
5730.37	0.0485887
5740.18	0.0541597
5750.97	0.0597534
5760.78	0.0643337
5770.59	0.0684185
5780.4	0.0719963
5790.21	0.0750588
5800.01	0.0776012
5810.8	0.0797955
5820.61	0.0812456
5830.42	0.082184
5840.23	0.0826222
5850.04	0.0825765
5860.83	0.0819924
5870.64	0.0810044
5880.45	0.079613
5890.26	0.0778534
5900.07	0.0757646
5910.85	0.0731374
5920.66	0.070498
5930.47	0.0676671
5940.28	0.0646909
5950.09	0.0616146
5960.88	0.0581662
5970.69	0.0550152
5980.5	0.051885
5990.31	0.0488057
6000.12	0.0458021
6010.91	0.042609
6020.72	0.0398229
6030.52	0.0371585
6040.33	0.034622
6050.14	0.0322165
6060.93	0.0297223
6070.74	0.0275913
6080.55	0.0255869
6090.36	0.0237049
6100.17	0.0219405
6110.96	0.020129
6120.77	0.0185942
6130.58	0.017161
6140.39	0.0158252
6150.2	0.0145838
6160	0.0134355
6170.79	0.0122802
6180.6	0.0113306
6190.41	0.0104818
6200.22	0.00974033
6210.03	0.00911486
6220.82	0.00857281
6230.63	0.00822476
6240.44	0.00802635
6250.25	0.00798873
6260.06	0.00812199
6270.85	0.00847598
6280.66	0.00899292
6290.47	0.00969916
6300.28	0.010595
6310.09	0.0116777
6320.88	0.0130777
6330.69	0.0145314
6340.49	0.0161466
6350.3	0.0179109
6360.11	0.0198111
6370.9	0.0220418
6380.71	0.0241824
6390.52	0.0264168
6400.33	0.0287325
6410.14	0.0311182
6420.93	0.0338113
6430.74	0.0363123
6440.55	0.0388552
6450.36	0.0414327
6460.17	0.0440378
6470.96	0.0469275
6480.77	0.0495691
6490.58	0.0522175
6500.39	0.0548657
6510.2	0.0575064
6520.01	0.0601319
6530.8	0.0629934
6540.6	0.0655618
6550.41	0.0680906
6560.22	0.0705716
6570.03	0.0729965
6580.82	0.0755889
6590.63	0.0778681
6600.44	0.0800645
6610.25	0.082169
6620.06	0.0841727
6630.85	0.0862497
6640.66	0.0880125
6650.47	0.0896468
6660.28	0.0911444
6670.09	0.0924968
6680.88	0.0938077
6690.69	0.0948305
6700.5	0.0956847
6710.31	0.096363
6720.12	0.096858
6730.91	0.0971816
6740.72	0.0972664
6750.53	0.0971432
6760.33	0.0968036
6770.14	0.096239
6780.93	0.0953481
6790.74	0.0942843
6800.55	0.0929715
6810.36	0.0914035
6820.17	0.0895758
6830.96	0.0872622
6840.77	0.0848826
6850.58	0.0822414
6860.39	0.0793424
6870.2	0.0761916
6880.01	0.0727972
6890.8	0.0687936
6900.61	0.064921
6910.42	0.0608388
6920.23	0.0565591
6930.03	0.0520937
6940.82	0.0469804
6950.63	0.0421594
6960.44	0.0371828
6970.25	0.0320573
6980.06	0.0267888
6990.85	0.0208341
7000.66	0.0152807
7010.47	0.00959906
7020.28	0.00379508
7030.09	-0.00212358
7040.88	-0.00875444
7050.69	-0.0148776
7060.5	-0.0210742
7070.3	-0.0273239
7080.11	-0.0336027
7090.9	-0.0405106
7100.71	-0.0467588
7110.52	-0.0529432
7120.33	-0.05903
7130.14	-0.064985
7140.93	-0.0713432
7150.74	-0.0769143
7160.55	-0.0822562
7170.36	-0.0873439
7180.16	-0.0921565
7190.95	-0.097114
7200.76	-0.101304
7210.57	-0.105189
7220.38	-0.108768
7230.19	-0.11205
7240.98	-0.115328
7250.79	-0.118024
7260.6	-0.120468
7270.41	-0.122679
7280.22	-0.124678
7290.02	-0.126486
7300.81	-0.128276
7310.62	-0.129741
7320.43	-0.131068
7330.24	-0.132266
7340.05	-0.133344
7350.84	-0.134396
7360.65	-0.135233
7370.46	-0.135956
7380.27	-0.136561
7390.08	-0.137047
7400.87	-0.137436
7410.67	-0.137655
7420.48	-0.137741
7430.29	-0.137693
7440.1	-0.137511
7450.89	-0.137156
7460.7	-0.136698
7470.51	-0.136116
7480.32	-0.135418
7490.13	-0.134613
7500.92	-0.133616
7510.73	-0.132621
7520.54	-0.131557
7530.34	-0.130436
7540.15	-0.129272
7550.94	-0.127962
7560.75	-0.126759
7570.56	-0.12556
7580.37	-0.124379
7590.18	-0.123231
7600.97	-0.122022
7610.78	-0.120983
7620.59	-0.120014
7630.4	-0.119124
7640.21	-0.11832
7650.01	-0.117608
7660.8	-0.116934
7670.61	-0.116424
7680.42	-0.116011
7690.23	-0.115693
7700.04	-0.115468
7710.83	-0.115323
7720.64	-0.115278
7730.45	-0.115311
7740.26	-0.115417
7750.07	-0.115591
7760.86	-0.115853
7770.67	-0.116151
7780.48	-0.116503
7790.28	-0.116904
7800.09	-0.117351
7810.88	-0.117892
7820.69	-0.118425
7830.5	-0.118996
7840.31	-0.119601
7850.12	-0.120237
7860.91	-0.12097
7870.72	-0.121664
7880.53	-0.122381
7890.34	-0.12312
7900.15	-0.123878
7910.94	-0.124735
7920.75	-0.125532
7930.55	-0.126347
7940.36	-0.12718
7950.17	-0.128034
7960.96	-0.128997
7970.77	-0.129896
7980.58	-0.130821
7990.39	-0.131772
8000.2	-0.13275
8010.01	-0.133758
8020.8	-0.134898
8030.61	-0.135964
8040.42	-0.137055
8050.23	-0.138166
8060.04	-0.139293
8070.83	-0.140541
8080.63	-0.141675
8090.44	-0.142796
8100.25	-0.143894
8110.06	-0.144954
8120.85	-0.146059
8130.66	-0.146992
8140.47	-0.14784
8150.28	-0.148588
8160.09	-0.149219
8170.88	-0.149761
8180.69	-0.1501
8190.5	-0.150279
8200.31	-0.150286
8210.11	-0.150112
8220.9	-0.149703
8230.71	-0.149129
8240.52	-0.148361
8250.33	-0.147401
8260.14	-0.146252
8270.93	-0.144783
8280.74	-0.14327
8290.55	-0.141605
8300.36	-0.139803
8310.17	-0.137883
8320.96	-0.135658
8330.77	-0.133554
8340.58	-0.131396
8350.38	-0.129201
8360.19	-0.126988
8370	-0.124775
8380.79	-0.122355
8390.6	-0.120181
8400.41	-0.11804
8410.22	-0.115938
8420.03	-0.113879
8430.82	-0.111662
8440.63	-0.109692
8450.44	-0.107762
8460.25	-0.105869
8470.05	-0.10401
8480.84	-0.102004
8490.65	-0.100212
8500.46	-0.0984497
8510.27	-0.0967171
8520.08	-0.0950146
8530.87	-0.093177
8540.68	-0.0915388
8550.49	-0.0899306
8560.3	-0.08835
8570.11	-0.0867927
8580.9	-0.0850979
8590.7	-0.0835627
8600.51	-0.0820191
8610.32	-0.0804504
8620.13	-0.0788371
8630.92	-0.0769847
8640.73	-0.0752041
8650.54	-0.0733057
8660.35	-0.0712645
8670.16	-0.0690563
8680.95	-0.0664076
8690.76	-0.0637789
8700.57	-0.0609234
8710.37	-0.0578297
8720.18	-0.0544909
8730.97	-0.0505334
8740.78	-0.0466807
8750.59	-0.0425943
8760.4	-0.0382878
8770.21	-0.0337791
8780.02	-0.0290897
8790.81	-0.0237517
8800.62	-0.0187647
8810.43	-0.0136785
8820.23	-0.00852171
8830.04	-0.00332283
8840.83	0.00241157
8850.64	0.00761023
