THREADS	MTPS	TIMESTEPS	TIMESTEP_SIZE	SECONDS_FOR_SIMULATION	AVERAGE_TRIANGLES	AVERAGE_PARTITIONS
80	68.3607	100	0.000491318	27.8624	1.90469e+07	1158.74
79	67.8283	100	0.000491318	28.0811	1.90469e+07	1158.74
78	66.7178	100	0.000491318	28.5485	1.90469e+07	1158.74
77	66.2577	100	0.000491318	28.7467	1.90469e+07	1158.74
76	67.7664	100	0.000491318	28.1067	1.90469e+07	1158.74
75	58.1706	100	0.000491318	32.7432	1.90469e+07	1158.74
74	50.499	100	0.000491318	37.7174	1.90469e+07	1158.74
73	47.9626	100	0.000491318	39.712	1.90469e+07	1158.74
72	46.7872	100	0.000491318	40.7097	1.90469e+07	1158.74
71	44.3926	100	0.000491318	42.9056	1.90469e+07	1158.74
70	43.4779	100	0.000491318	43.8083	1.90469e+07	1158.74
69	44.3116	100	0.000491318	42.9841	1.90469e+07	1158.74
68	43.0945	100	0.000491318	44.198	1.90469e+07	1158.74
67	41.7395	100	0.000491318	45.6328	1.90469e+07	1158.74
66	41.0653	100	0.000491318	46.382	1.90469e+07	1158.74
65	41.1352	100	0.000491318	46.3032	1.90469e+07	1158.74
64	41.2355	100	0.000491318	46.1906	1.90469e+07	1158.74
63	40.9374	100	0.000491318	46.5269	1.90469e+07	1158.74
62	40.1797	100	0.000491318	47.4043	1.90469e+07	1158.74
61	41.1982	100	0.000491318	46.2323	1.90469e+07	1158.74
60	37.8747	100	0.000491318	50.2892	1.90469e+07	1158.74
59	39.1205	100	0.000491318	48.6878	1.90469e+07	1158.74
58	38.808	100	0.000491318	49.0799	1.90469e+07	1158.74
57	38.9235	100	0.000491318	48.9343	1.90469e+07	1158.74
56	38.0758	100	0.000491318	50.0237	1.90469e+07	1158.74
55	37.6483	100	0.000491318	50.5917	1.90469e+07	1158.74
54	36.244	100	0.000491318	52.5518	1.90469e+07	1158.74
53	34.9433	100	0.000491318	54.5081	1.90469e+07	1158.74
52	35.2506	100	0.000491318	54.0328	1.90469e+07	1158.74
51	34.1248	100	0.000491318	55.8155	1.90469e+07	1158.74
50	35.5443	100	0.000491318	53.5864	1.90469e+07	1158.74
49	33.2611	100	0.000491318	57.2648	1.90469e+07	1158.74
48	33.5114	100	0.000491318	56.8371	1.90469e+07	1158.74
47	31.4095	100	0.000491318	60.6406	1.90469e+07	1158.74
46	30.3362	100	0.000491318	62.7861	1.90469e+07	1158.74
45	30.1078	100	0.000491318	63.2624	1.90469e+07	1158.74
44	29.2007	100	0.000491318	65.2276	1.90469e+07	1158.74
43	26.7899	100	0.000491318	71.0974	1.90469e+07	1158.74
42	26.9654	100	0.000491318	70.6345	1.90469e+07	1158.74
41	25.4988	100	0.000491318	74.6972	1.90469e+07	1158.74
40	24.825	100	0.000491318	76.7247	1.90469e+07	1158.74
39	23.416	100	0.000491318	81.3415	1.90469e+07	1158.74
38	23.5391	100	0.000491318	80.9162	1.90469e+07	1158.74
37	24.5996	100	0.000491318	77.4279	1.90469e+07	1158.74
36	24.6338	100	0.000491318	77.3203	1.90469e+07	1158.74
35	24.5407	100	0.000491318	77.6136	1.90469e+07	1158.74
34	24.6579	100	0.000491318	77.2445	1.90469e+07	1158.74
33	24.5281	100	0.000491318	77.6535	1.90469e+07	1158.74
32	24.526	100	0.000491318	77.6602	1.90469e+07	1158.74
31	24.5878	100	0.000491318	77.465	1.90469e+07	1158.74
30	24.4532	100	0.000491318	77.8914	1.90469e+07	1158.74
29	24.8481	100	0.000491318	76.6533	1.90469e+07	1158.74
28	24.8939	100	0.000491318	76.5124	1.90469e+07	1158.74
27	24.36	100	0.000491318	78.1894	1.90469e+07	1158.74
26	24.1959	100	0.000491318	78.7194	1.90469e+07	1158.74
25	24.6054	100	0.000491318	77.4093	1.90469e+07	1158.74
24	23.7919	100	0.000491318	80.0563	1.90469e+07	1158.74
23	24.4508	100	0.000491318	77.899	1.90469e+07	1158.74
22	24.185	100	0.000491318	78.7552	1.90469e+07	1158.74
21	23.8964	100	0.000491318	79.7062	1.90469e+07	1158.74
20	23.7256	100	0.000491318	80.28	1.90469e+07	1158.74
19	23.3673	100	0.000491318	81.5111	1.90469e+07	1158.74
18	23.6082	100	0.000491318	80.6793	1.90469e+07	1158.74
17	22.8889	100	0.000491318	83.2146	1.90469e+07	1158.74
16	22.9766	100	0.000491318	82.8969	1.90469e+07	1158.74
15	23.6593	100	0.000491318	80.5051	1.90469e+07	1158.74
14	21.9973	100	0.000491318	86.5877	1.90469e+07	1158.74
13	21.3804	100	0.000491318	89.0861	1.90469e+07	1158.74
12	20.7982	100	0.000491318	91.5794	1.90469e+07	1158.74
11	19.9713	100	0.000491318	95.3715	1.90469e+07	1158.74
10	19.6853	100	0.000491318	96.757	1.90469e+07	1158.74
9	19.0607	100	0.000491318	99.9274	1.90469e+07	1158.74
8	17.3558	100	0.000491318	109.744	1.90469e+07	1158.74
7	16.5983	100	0.000491318	114.752	1.90469e+07	1158.74
6	14.4788	100	0.000491318	131.55	1.90469e+07	1158.74
5	12.6373	100	0.000491318	150.72	1.90469e+07	1158.74
4	10.2061	100	0.000491318	186.622	1.90469e+07	1158.74
3	7.70368	100	0.000491318	247.244	1.90469e+07	1158.74
2	5.24947	100	0.000491318	362.835	1.90469e+07	1158.74
1	2.66363	100	0.000491318	715.074	1.90469e+07	1158.74
