0	0
10.0927	0
20.1853	0
30.2778	0
40.3702	0
50.4626	0
60.5548	0
70.647	0
80.7391	0
90.8311	0
100.923	0
110.006	0
120.098	0
130.189	0
140.281	0
150.373	0
160.455	0
170.489	0
180.436	0
190.342	0
200.239	0
210.135	0
220.031	0
230.917	0
240.813	0
250.708	0
260.601	0
270.493	0
280.375	0
290.258	0
300.14	0
310.023	0
320.894	0
330.776	0
340.658	4.54747e-12
350.541	1.36424e-11
360.423	2.27374e-11
370.305	3.18323e-11
380.187	4.36557e-11
390.058	6.18456e-11
400.894	8.18545e-11
410.697	1.09139e-10
420.446	1.39153e-10
430.181	1.75532e-10
440.8	2.25555e-10
450.407	2.80124e-10
460.897	3.50155e-10
470.438	4.26553e-10
480.936	5.23869e-10
490.479	6.28461e-10
500.022	7.48514e-10
510.509	9.01309e-10
520.007	1.06138e-09
530.412	1.26238e-09
540.778	1.49248e-09
550.203	1.73077e-09
560.565	2.02726e-09
570.916	2.36469e-09
580.318	2.70938e-09
590.653	3.13685e-09
600.044	3.5734e-09
610.374	4.11001e-09
620.703	4.71391e-09
630.094	5.32782e-09
640.423	6.07997e-09
650.753	6.92398e-09
660.143	7.778e-09
670.472	8.82119e-09
680.802	9.98261e-09
690.192	1.11449e-08
700.521	1.25428e-08
710.849	1.40717e-08
720.235	1.5576e-08
730.535	1.73559e-08
740.834	1.92749e-08
750.198	2.1143e-08
760.497	2.33385e-08
770.797	2.56832e-08
780.16	2.79415e-08
790.459	3.05636e-08
800.759	3.33239e-08
810.122	3.5946e-08
820.421	3.89473e-08
830.721	4.20587e-08
840.084	4.49809e-08
850.383	4.8286e-08
860.682	5.16757e-08
870.045	5.48216e-08
880.345	5.83441e-08
890.644	6.19229e-08
900.007	6.52199e-08
910.306	6.88879e-08
920.605	7.25931e-08
930.904	7.63303e-08
940.267	7.97545e-08
950.566	8.35498e-08
960.866	8.7377e-08
970.228	9.08867e-08
980.528	9.47884e-08
990.827	9.87429e-08
1000.19	1.02395e-07
1010.49	1.06489e-07
1020.79	1.10683e-07
1030.15	1.14605e-07
1040.45	1.19067e-07
1050.75	1.23716e-07
1060.11	1.28138e-07
1070.41	1.3326e-07
1080.71	1.38702e-07
1090.07	1.43978e-07
1100.37	1.50202e-07
1110.67	1.56941e-07
1120.03	1.63585e-07
1130.33	1.71545e-07
1140.63	1.80286e-07
1150.93	1.8992e-07
1160.29	1.99543e-07
1170.58	2.11205e-07
1180.88	2.24128e-07
1190.24	2.37093e-07
1200.53	2.52838e-07
1210.83	2.70295e-07
1220.19	2.87801e-07
1230.48	3.09031e-07
1240.78	3.32517e-07
1250.14	3.56003e-07
1260.43	3.84387e-07
1270.73	4.15672e-07
1280.09	4.46833e-07
1290.38	4.84346e-07
1300.68	5.25507e-07
1310.03	5.66291e-07
1320.3	6.15117e-07
1330.56	6.68362e-07
1340.82	7.26406e-07
1350.13	7.83585e-07
1360.38	8.51714e-07
1370.61	9.25541e-07
1380.83	1.00553e-06
1390.12	1.08395e-06
1400.33	1.17705e-06
1410.55	1.2782e-06
1420.76	1.38778e-06
1430.05	1.49493e-06
1440.27	1.62127e-06
1450.48	1.75661e-06
1460.7	1.90111e-06
1470.92	2.05487e-06
1480.19	2.20259e-06
1490.37	2.37379e-06
1500.55	2.55447e-06
1510.72	2.74491e-06
1520.89	2.94535e-06
1530.14	3.13647e-06
1540.32	3.35677e-06
1550.49	3.58796e-06
1560.66	3.83045e-06
1570.84	4.08471e-06
1580.08	4.3262e-06
1590.24	4.60424e-06
1600.37	4.89466e-06
1610.42	5.19661e-06
1620.45	5.51248e-06
1630.48	5.84371e-06
1640.5	6.19117e-06
1650.53	6.55581e-06
1660.56	6.93865e-06
1670.59	7.3408e-06
1680.61	7.7634e-06
1690.64	8.2077e-06
1700.67	8.67498e-06
1710.7	9.16662e-06
1720.72	9.68405e-06
1730.75	1.02288e-05
1740.78	1.08024e-05
1750.81	1.14066e-05
1760.83	1.2043e-05
1770.86	1.27134e-05
1780.89	1.34194e-05
1790	1.40934e-05
1800.03	1.48713e-05
1810.06	1.56884e-05
1820.09	1.65459e-05
1830.11	1.74446e-05
1840.14	1.83855e-05
1850.17	1.93695e-05
1860.2	2.03974e-05
1870.22	2.14701e-05
1880.25	2.25887e-05
1890.28	2.37542e-05
1900.3	2.49675e-05
1910.33	2.62299e-05
1920.36	2.75425e-05
1930.39	2.89069e-05
1940.41	3.03244e-05
1950.44	3.17966e-05
1960.47	3.33252e-05
1970.49	3.49123e-05
1980.52	3.65597e-05
1990.55	3.82698e-05
2000.58	4.00448e-05
2010.6	4.18871e-05
2020.63	4.37995e-05
2030.66	4.57847e-05
2040.68	4.78456e-05
2050.71	4.99851e-05
2060.74	5.22066e-05
2070.77	5.45134e-05
2080.79	5.69089e-05
2090.82	5.93967e-05
2100.85	6.19808e-05
2110.87	6.46652e-05
2120.9	6.74542e-05
2130.02	6.65768e-05
2140.04	6.54033e-05
2150.07	6.44506e-05
2160.1	6.37037e-05
2170.12	6.31494e-05
2180.15	6.27758e-05
2190.18	6.25717e-05
2200.2	6.25269e-05
2210.23	6.26321e-05
2220.26	6.28793e-05
2230.29	6.32614e-05
2240.31	6.37721e-05
2250.34	6.4406e-05
2260.37	6.51586e-05
2270.39	6.60262e-05
2280.42	6.70058e-05
2290.45	6.8095e-05
2300.47	6.92921e-05
2310.5	7.05961e-05
2320.53	7.20065e-05
2330.55	7.35234e-05
2340.58	7.51475e-05
2350.61	7.68798e-05
2360.63	7.8722e-05
2370.66	8.06761e-05
2380.69	8.27446e-05
2390.71	8.49303e-05
2400.74	8.72363e-05
2410.77	8.96663e-05
2420.49	9.21447e-05
2430.52	9.48302e-05
2440.54	9.76517e-05
2450.57	0.000100614
2460.6	0.000103722
2470.62	0.000106981
2480.65	0.000110396
2490.68	0.000113974
2500.7	0.00011772
2510.73	0.000121637
2520.76	0.00012571
2530.78	0.000129929
2540.81	0.000134286
2550.84	0.000138775
2560.86	0.000143393
2570.89	0.000148137
2580	0.000152559
2590.03	0.000157544
2600.06	0.00016266
2610.09	0.000167908
2620.11	0.000173295
2630.14	0.000178826
2640.17	0.000184507
2650.19	0.000190346
2660.22	0.000196351
2670.23	0.000202523
2680.21	0.000208861
2690.19	0.000215395
2700.17	0.000222138
2710.15	0.000229102
2720.13	0.000236301
2730.11	0.000243748
2740.09	0.000251456
2750.06	0.000259439
2760.04	0.00026771
2770.02	0.000276281
2780	0.000285166
2790.89	0.000295232
2800.87	0.000304815
2810.85	0.000314753
2820.83	0.00032506
2830.81	0.000335751
2840.79	0.000346841
2850.77	0.000358348
2860.75	0.000370288
2870.72	0.00038587
2880.7	0.000416015
2890.68	0.000446052
2900.66	0.00047589
2910.64	0.000505488
2920.62	0.00053484
2930.6	0.000563968
2940.58	0.000592913
2950.56	0.000621735
2960.54	0.000650504
2970.52	0.000679305
2980.5	0.000708229
2990.48	0.000737374
3000.46	0.000766843
3010.44	0.000796743
3020.41	0.000827181
3030.39	0.000858266
3040.37	0.000890103
3050.35	0.000922801
3060.33	0.000956463
3070.31	0.000991178
3080.29	0.00102691
3090.27	0.00106349
3100.25	0.00110084
3110.23	0.00113888
3120.21	0.00117762
3130.19	0.00121708
3140.16	0.00125733
3150.14	0.00129846
3160.12	0.0013406
3170.1	0.00138388
3180.08	0.00142846
3190.06	0.00147453
3200.04	0.00152226
3210.02	0.0015718
3220.9	0.00162812
3230.88	0.00168198
3240.86	0.00173817
3250.84	0.00179684
3260.82	0.00187843
3270.8	0.00201256
3280.78	0.00213993
3290.76	0.00226136
3300.73	0.0023783
3310.71	0.00249247
3320.69	0.0026057
3330.67	0.00271979
3340.65	0.00283644
3350.63	0.00295721
3360.61	0.00308286
3370.59	0.0032125
3380.57	0.00334568
3390.54	0.00348274
3400.52	0.00362459
3410.5	0.00377262
3420.48	0.00392849
3430.46	0.0040938
3440.44	0.00426987
3450.42	0.00457617
3460.4	0.00494075
3470.37	0.00529377
3480.35	0.00564498
3490.33	0.0060057
3500.31	0.00638323
3510.29	0.00677171
3520.27	0.00717169
3530.25	0.00759415
3540.23	0.0082129
3550.21	0.00901931
3560.18	0.00975855
3570.16	0.0105482
3580.14	0.0114012
3590.12	0.0128315
3600.1	0.0144217
3610.08	0.0167323
3620.06	0.0215538
3630.04	0.0276643
3640.01	0.0326892
3650.9	0.0380051
3660.88	0.0426721
3670.86	0.0470545
3680.84	0.0510101
3690.82	0.0546823
3700.79	0.0583591
3710.77	0.0620343
3720.75	0.0655638
3730.73	0.0688615
3740.71	0.0720088
3750.69	0.0750996
3760.67	0.0781408
3770.65	0.0811044
3780.63	0.0840412
3790.61	0.0870343
3800.59	0.0900825
3810.56	0.0931113
3820.54	0.0960791
3830.52	0.0990177
3840.5	0.101977
3850.48	0.104973
3860.46	0.108011
3870.44	0.111114
3880.42	0.114318
3890.4	0.117636
3900.38	0.121048
3910.36	0.124527
3920.39	0.128082
3930.45	0.131715
3940.52	0.135416
3950.58	0.139189
3960.65	0.14304
3970.72	0.146966
3980.78	0.150955
3990.85	0.154988
4000.91	0.159051
4010.07	0.162769
4020.13	0.166894
4030.2	0.171073
4040.27	0.175333
4050.34	0.179706
4060.41	0.184219
4070.49	0.188898
4080.56	0.193763
4090.63	0.198844
4100.7	0.204175
4110.78	0.209803
4120.85	0.215778
4130.01	0.221555
4140.08	0.228337
4150.15	0.235614
4160.23	0.243435
4170.3	0.251851
4180.38	0.260918
4190.46	0.270709
4200.55	0.281294
4210.65	0.292746
4220.76	0.30515
4230.89	0.318582
4240.12	0.331737
4250.28	0.347273
4260.43	0.363965
4270.6	0.381858
4280.78	0.400986
4290.07	0.419515
4300.3	0.441074
4310.53	0.463831
4320.76	0.487731
4330.06	0.510386
4340.29	0.536228
4350.52	0.562911
4360.74	0.590284
4370.04	0.615625
4380.27	0.643825
4390.5	0.672165
4400.73	0.700413
4410.03	0.725804
4420.26	0.753161
4430.48	0.779635
4440.71	0.804916
4450.01	0.826589
4460.24	0.848677
4470.47	0.868598
4480.7	0.886
4490.93	0.900529
4500.22	0.910939
4510.45	0.918982
4520.68	0.923105
4530.91	0.922961
4540.21	0.918848
4550.44	0.909657
4560.67	0.895308
4570.9	0.875562
4580.19	0.852768
4590.42	0.822238
4600.65	0.785915
4610.88	0.743786
4620.18	0.700493
4630.41	0.647484
4640.64	0.588989
4650.87	0.525192
4660.16	0.462737
4670.39	0.389229
4680.62	0.310685
4690.85	0.226956
4700.15	0.146081
4710.38	0.0517261
4720.61	-0.0359358
4730.84	-0.071663
4740.14	-0.105604
4750.36	-0.118591
4760.59	-0.143629
4770.82	-0.161448
4780.12	-0.173881
4790.35	-0.186298
4800.59	-0.191307
4810.87	-0.203048
4820.21	-0.211453
4830.49	-0.21912
4840.77	-0.225658
4850.11	-0.230362
4860.41	-0.235394
4870.71	-0.240237
4880.07	-0.244361
4890.37	-0.238109
4900.67	-0.239828
4910.03	-0.244546
4920.33	-0.248948
4930.63	-0.252635
4940.93	-0.255729
4950.29	-0.258136
4960.59	-0.260435
4970.89	-0.262461
4980.26	-0.264128
4990.56	-0.265358
5000.86	-0.266667
5010.22	-0.267717
5020.52	-0.268882
5030.82	-0.270031
5040.18	-0.271042
5050.48	-0.2721
5060.45	-0.273056
5070.53	-0.273917
5080.83	-0.267197
5090.19	-0.268085
5100.49	-0.268995
5110.79	-0.270435
5120.15	-0.271565
5130.44	-0.272651
5140.74	-0.273561
5150.1	-0.274239
5160.39	-0.274843
5170.69	-0.27531
5180.05	-0.275627
5190.34	-0.275868
5200.64	-0.276005
5210.94	-0.276047
5220.3	-0.276009
5230.59	-0.27589
5240.89	-0.275696
5250.25	-0.275461
5260.54	-0.27514
5270.84	-0.274737
5280.2	-0.274307
5290.49	-0.273795
5300.77	-0.273251
5310.1	-0.272705
5320.36	-0.271884
5330.6	-0.271049
5340.84	-0.270198
5350.14	-0.269409
5360.36	-0.268523
5370.57	-0.267615
5380.79	-0.266686
5390.08	-0.265821
5400.29	-0.264848
5410.51	-0.263853
5420.73	-0.262837
5430.01	-0.261897
5440.23	-0.260836
5450.45	-0.259748
5460.66	-0.258641
5470.88	-0.251791
5480.16	-0.251277
5490.36	-0.250709
5500.54	-0.250138
5510.72	-0.249567
5520.89	-0.248996
5530.14	-0.248477
5540.31	-0.247907
5550.49	-0.247341
5560.66	-0.246779
5570.83	-0.246225
5580.08	-0.245728
5590.26	-0.24519
5600.42	-0.244662
5610.56	-0.244145
5620.64	-0.243641
5630.67	-0.243149
5640.7	-0.242666
5650.73	-0.242191
5660.75	-0.241723
5670.78	-0.24126
5680.81	-0.2408
5690.84	-0.24034
5700.86	-0.239876
5710.89	-0.239406
5720.01	-0.23897
5730.03	-0.23848
5740.06	-0.237975
5750.09	-0.237452
5760.12	-0.236911
5770.14	-0.236352
5780.17	-0.235772
5790.2	-0.235173
5800.23	-0.234554
5810.25	-0.233912
5820.28	-0.233258
5830.31	-0.232665
5840.34	-0.232027
5850.36	-0.231344
5860.39	-0.230618
5870.42	-0.22985
5880.45	-0.229041
5890.47	-0.228113
5900.5	-0.227115
5910.53	-0.22608
5920.56	-0.225008
5930.58	-0.223901
5940.61	-0.22276
5950.64	-0.221588
5960.67	-0.220385
5970.69	-0.219152
5980.72	-0.21789
5990.75	-0.216601
6000.78	-0.215285
6010.8	-0.213944
6020.83	-0.212578
6030.86	-0.211189
6040.88	-0.209777
6050	-0.208475
6060.03	-0.207024
6070.06	-0.205553
6080.08	-0.204065
6090.11	-0.20256
6100.14	-0.20104
6110.16	-0.199506
6120.19	-0.197958
6130.22	-0.196399
6140.25	-0.195291
6150.27	-0.194163
6160.3	-0.192978
6170.33	-0.191745
6180.36	-0.190473
6190.38	-0.189167
6200.41	-0.18783
6210.44	-0.186458
6220.46	-0.185055
6230.49	-0.183626
6240.52	-0.182175
6250.55	-0.180704
6260.57	-0.179215
6270.6	-0.17771
6280.63	-0.176192
6290.66	-0.17466
6300.68	-0.173117
6310.71	-0.171563
6320.74	-0.169999
6330.77	-0.168425
6340.79	-0.166842
6350.82	-0.165252
6360.85	-0.163657
6370.87	-0.162064
6380.9	-0.160476
6390.02	-0.15904
6400.04	-0.157468
6410.07	-0.155906
6420.1	-0.154353
6430.13	-0.152809
6440.15	-0.151272
6450.18	-0.149741
6460.21	-0.148213
6470.24	-0.146687
6480.26	-0.14516
6490.29	-0.143629
6500.32	-0.142093
6510.35	-0.140551
6520.37	-0.139
6530.4	-0.137438
6540.43	-0.135866
6550.46	-0.133043
6560.48	-0.130203
6570.51	-0.127479
6580.54	-0.124866
6590.56	-0.12235
6600.59	-0.119913
6610.62	-0.117536
6620.65	-0.115197
6630.67	-0.112879
6640.7	-0.110565
6650.73	-0.108243
6660.76	-0.105911
6670.78	-0.103582
6680.81	-0.101263
6690.84	-0.0989514
6700.87	-0.0966377
6710.89	-0.0943091
6720.01	-0.0921676
6730.04	-0.0897729
6740.06	-0.086987
6750.09	-0.0827688
6760.12	-0.0787441
6770.15	-0.0748826
6780.18	-0.0711005
6790.2	-0.067319
6800.25	-0.0634752
6810.32	-0.0595679
6820.4	-0.0556853
6830.47	-0.0518275
6840.53	-0.047936
6850.57	-0.0424924
6860.55	-0.0365841
6870.53	-0.0310725
6880.51	-0.025407
6890.48	-0.0196163
6900.46	-0.0117709
6910.44	-0.00284392
6920.42	0.00698993
6930.4	0.0234512
6940.38	0.0422535
6950.36	0.0530295
6960.34	0.0606447
6970.32	0.0659817
6980.3	0.0692516
6990.28	0.0705278
7000.26	0.0703196
7010.24	0.0703602
7020.22	0.0711481
7030.2	0.0721002
7040.18	0.0724218
7050.16	0.0721284
7060.13	0.0717698
7070.11	0.0717315
7080.09	0.0719403
7090.07	0.0722151
7100.05	0.0727306
7110.03	0.0736808
7120.01	0.0748267
7130.9	0.0757511
7140.88	0.076103
7150.86	0.0761771
7160.84	0.0762027
7170.81	0.076196
7180.79	0.0760593
7190.77	0.0757974
7200.75	0.0755192
7210.73	0.0752685
7220.71	0.0749563
7230.69	0.0744787
7240.67	0.0738473
7250.65	0.0731814
7260.63	0.0726109
7270.61	0.0722134
7280.59	0.0720075
7290.57	0.0719472
7300.55	0.0719092
7310.53	0.0717269
7320.5	0.0712683
7330.48	0.0704942
7340.46	0.0694528
7350.44	0.0682388
7360.42	0.0669608
7370.4	0.0657219
7380.38	0.0645932
7390.36	0.0635857
7400.34	0.0626508
7410.32	0.0617213
7420.3	0.0607628
7430.28	0.0598005
7440.26	0.0589069
7450.24	0.0581709
7460.22	0.0576649
7470.19	0.0574223
7480.17	0.0574274
7490.15	0.0576228
7500.13	0.0579315
7510.11	0.0582843
7520.09	0.0586397
7530.07	0.0589904
7540.05	0.0593559
7550.03	0.0597688
7560.01	0.0602586
7570.9	0.0608975
7580.87	0.0615768
7590.85	0.0623335
7600.83	0.0631575
7610.81	0.0640468
7620.79	0.065007
7630.77	0.0660452
7640.75	0.0671618
7650.73	0.0683442
7660.71	0.0695665
7670.69	0.0707952
7680.67	0.0719982
7690.65	0.0731538
7700.63	0.074255
7710.61	0.0753094
7720.59	0.0763328
7730.57	0.077342
7740.54	0.0783482
7750.52	0.0793543
7760.5	0.0803577
7770.48	0.0813565
7780.46	0.0823556
7790.44	0.0833702
7800.42	0.0844235
7810.4	0.0855397
7820.38	0.0867356
7830.36	0.0880128
7840.34	0.0893556
7850.32	0.0907351
7860.3	0.0921171
7870.28	0.093473
7880.26	0.0947878
7890.32	0.0960748
7900.39	0.0973398
7910.46	0.0986089
7920.52	0.0999077
7930.59	0.101254
7940.65	0.102654
7950.72	0.1041
7960.79	0.105581
7970.85	0.107076
7980	0.108432
7990.07	0.109903
8000.14	0.11133
8010.2	0.112686
8020.27	0.113939
8030.34	0.115048
8040.4	0.115976
8050.47	0.116685
8060.54	0.117151
8070.6	0.117361
8080.67	0.117319
8090.73	0.11704
8100.8	0.116547
8110.87	0.115868
8120.02	0.11511
8130.08	0.114141
8140.15	0.113047
8150.22	0.11184
8160.29	0.110529
8170.36	0.10912
8180.44	0.107619
8190.51	0.106026
8200.58	0.10434
8210.66	0.102558
8220.73	0.100674
8230.8	0.0986846
8240.88	0.096587
8250.03	0.0945893
8260.11	0.0923005
8270.18	0.0899308
8280.25	0.0875008
8290.33	0.085034
8300.4	0.0825551
8310.48	0.0800857
8320.58	0.0776455
8330.68	0.0752548
8340.81	0.0729197
8350.03	0.0708579
8360.19	0.0686583
8370.34	0.066532
8380.5	0.0644717
8390.65	0.0624659
8400.81	0.0604985
8410.04	0.0587295
8420.21	0.0567866
8430.39	0.0548313
8440.61	0.052845
8450.84	0.0508208
8460.14	0.0489442
8470.36	0.0468362
8480.59	0.0446819
8490.82	0.0424837
8500.12	0.0404517
8510.35	0.0381867
8520.58	0.0359006
8530.81	0.0336058
8540.11	0.0315236
8550.34	0.0292505
8560.57	0.0270082
8570.79	0.0248076
8580.09	0.0228497
8590.32	0.0207474
8600.55	0.0187002
8610.78	0.0167067
8620.08	0.014938
8630.31	0.0130351
8640.54	0.011168
8650.77	0.00919433
8660.06	0.00641973
8670.29	0.00387471
8680.52	0.000181126
8690.75	-0.003392
8700.05	-0.00519718
8710.28	-0.00916527
8720.51	-0.0125671
8730.74	-0.0155996
8740.04	-0.0181499
8750.27	-0.0207586
8760.49	-0.0231517
8770.72	-0.0215935
8780.02	-0.023216
8790.24	-0.0249444
8800.47	-0.0273577
8810.69	-0.0296081
8820.9	-0.0315326
8830.19	-0.0330887
8840.41	-0.0346542
8850.62	-0.0361139
8860.84	-0.0374185
8870.13	-0.0385596
8880.34	-0.0397961
8890.56	-0.0410117
8900.78	-0.0422032
8910.06	-0.0432622
8920.28	-0.044397
8930.5	-0.0454962
8940.71	-0.0465562
8950.93	-0.0475784
8960.22	-0.0479985
8970.43	-0.0489665
8980.65	-0.0498062
8990.86	-0.0505345
9000.15	-0.0511128
9010.37	-0.0516696
9020.58	-0.0521565
9030.8	-0.0525853
9040.08	-0.0529331
9050.28	-0.0532776
9060.46	-0.0535907
9070.63	-0.0538802
9080.8	-0.0541528
9090.05	-0.0544601
9100.23	-0.0547861
9110.4	-0.0550909
9120.57	-0.055282
9130.75	-0.0554961
9140.92	-0.055729
9150.17	-0.0559536
9160.32	-0.0562109
9170.45	-0.0564757
9180.59	-0.0567455
9190.73	-0.0570176
9200.79	-0.0572873
9210.81	-0.0575542
9220.84	-0.0578172
9230.87	-0.0580751
9240.9	-0.0583265
9250.01	-0.0585488
9260.04	-0.0543721
9270.07	-0.0547631
9280.1	-0.0551433
9290.12	-0.0555129
9300.15	-0.0558695
9310.18	-0.0562077
9320.21	-0.0565254
9330.23	-0.0568237
9340.26	-0.0571039
9350.29	-0.0573671
9360.32	-0.0576142
9370.34	-0.0578461
9380.37	-0.0580634
9390.4	-0.0582666
9400.43	-0.0584564
9410.45	-0.0586332
9420.48	-0.0587975
9430.51	-0.0589483
9440.54	-0.0590858
9450.56	-0.0592104
9460.59	-0.0593225
9470.62	-0.0594217
9480.65	-0.0595082
9490.67	-0.059582
9500.7	-0.0596432
9510.73	-0.0596921
9520.76	-0.059729
9530.78	-0.0597542
9540.81	-0.059768
9550.84	-0.0597709
9560.87	-0.0597634
9570.89	-0.0597457
9580.01	-0.0597207
9590.04	-0.059681
9600.06	-0.0596295
9610.09	-0.0595629
9620.12	-0.0594444
9630.15	-0.0593717
9640.17	-0.0593322
9650.2	-0.0592815
9660.23	-0.0592204
9670.26	-0.0591495
9680.28	-0.0590694
9690.31	-0.0589807
9700.34	-0.0588839
9710.37	-0.0587794
9720.39	-0.0586677
9730.42	-0.058549
9740.45	-0.0584237
9750.48	-0.0582922
9760.5	-0.0581547
9770.53	-0.0580114
9780.56	-0.0578625
9790.59	-0.0577082
9800.61	-0.0575486
9810.64	-0.0573839
9820.67	-0.0572142
9830.7	-0.0570396
9840.72	-0.0568601
9850.75	-0.0566759
9860.78	-0.056487
9870.81	-0.0562935
9880.83	-0.0560955
9890.86	-0.055893
9900.89	-0.0556861
9910	-0.0554942
9920.03	-0.055279
9930.06	-0.0550598
9940.09	-0.0548366
9950.11	-0.0544744
9960.14	-0.0542745
9970.17	-0.0540731
9980.2	-0.0538702
9990.22	-0.0536655
10000.3	-0.0534591
10010.3	-0.0532507
10020.3	-0.0530404
10030.3	-0.0528281
10040.4	-0.0526136
10050.4	-0.052397
10060.4	-0.0521781
10070.4	-0.0519568
10080.5	-0.051733
10090.5	-0.0515058
10100.5	-0.0512742
10110.6	-0.0510382
10120.6	-0.0507596
10130.6	-0.0504328
10140.6	-0.0501043
10150.7	-0.0497741
10160.7	-0.0494423
10170.7	-0.0491088
10180.7	-0.0487735
10190.8	-0.0484364
10200.8	-0.0480975
10210.8	-0.0477567
10220.9	-0.047414
10230.9	-0.0470693
10240.9	-0.0467226
10250	-0.0464056
10260.1	-0.0460549
10270.1	-0.0457021
10280.1	-0.0453472
10290.1	-0.04499
10300.2	-0.0446306
10310.2	-0.0442699
10320.2	-0.0439091
10330.2	-0.0435481
10340.3	-0.0431865
10350.3	-0.0428241
10360.3	-0.0424605
10370.4	-0.0420957
10380.4	-0.0417293
10390.4	-0.0413613
10400.4	-0.0409914
10410.5	-0.0406196
10420.5	-0.0402457
10430.5	-0.0398697
10440.5	-0.0394915
10450.6	-0.0391112
10460.6	-0.0387286
10470.6	-0.0383438
10480.7	-0.0379568
10490.7	-0.0375677
10500.7	-0.0371765
10510.7	-0.0367832
10520.8	-0.0363879
10530.8	-0.0359907
10540.8	-0.0355918
10550.8	-0.0351911
10560.9	-0.0347888
10570.9	-0.0343852
10580	-0.0340172
10590	-0.0336115
10600.1	-0.0332049
10610.1	-0.0327978
10620.1	-0.0323919
10630.1	-0.0319856
10640	-0.031579
10650	-0.0311729
10660.9	-0.0307316
10670.9	-0.0303287
10680.9	-0.0299271
10690.8	-0.0295269
10700.8	-0.0291281
10710.8	-0.0287306
10720.8	-0.0283008
10730.8	-0.0278683
10740.7	-0.0274407
10750.7	-0.0270178
10760.7	-0.0265996
10770.7	-0.026186
10780.7	-0.0257769
10790.6	-0.0253721
10800.6	-0.0249716
10810.6	-0.0245753
10820.6	-0.0241829
10830.6	-0.0237944
10840.5	-0.0234097
10850.5	-0.0230295
10860.5	-0.0226549
10870.5	-0.0222856
10880.5	-0.0219209
10890.4	-0.0215606
10900.4	-0.0212041
10910.4	-0.0208512
10920.4	-0.0205015
10930.3	-0.0201548
10940.3	-0.0198106
10950.3	-0.0194689
10960.3	-0.0191295
10970.3	-0.0187696
10980.2	-0.0184267
10990.2	-0.0180978
11000.2	-0.0177804
11010.2	-0.0174723
11020.2	-0.0171716
11030.1	-0.0168767
11040.1	-0.0165863
11050.1	-0.0163
11060.1	-0.01602
11070.1	-0.0157458
11080	-0.0154767
11090	-0.0152117
11100.9	-0.0149262
11110.9	-0.0146667
11120.9	-0.0144085
11130.8	-0.0141508
11140.8	-0.0138927
11150.8	-0.0136337
11160.8	-0.0133732
11170.8	-0.0131107
11180.7	-0.0128458
11190.7	-0.0125783
11200.7	-0.0123084
11210.7	-0.0120359
11220.7	-0.0117608
11230.6	-0.0114829
11240.6	-0.011202
11250.6	-0.0109178
11260.6	-0.0106301
11270.6	-0.0103387
11280.5	-0.0100433
11290.5	-0.00974405
11300.5	-0.00944669
11310.5	-0.00915315
11320.5	-0.00886168
11330.4	-0.00857074
11340.4	-0.00827898
11350.4	-0.00798521
11360.4	-0.00768842
11370.4	-0.00738782
11380.3	-0.00708279
11390.3	-0.0066552
11400.3	-0.0061784
11410.3	-0.0056868
11420.2	-0.00518754
11430.2	-0.00468511
11440.2	-0.00418214
11450.2	-0.00367999
11460.2	-0.00317918
11470.1	-0.00268047
11480.1	-0.00218537
11490.1	-0.00169437
11500.1	-0.00120692
11510.1	-0.000722128
11520	-0.000235173
11530	0.000257346
11540	0.00075459
11550.9	0.00130014
11560.9	0.00180207
11570.8	0.00230534
11580.8	0.00315681
11590.8	0.0043847
11600.8	0.00552305
11610.8	0.0065587
11620.7	0.00749268
11630.7	0.00833168
11640.7	0.00909778
11650.7	0.00982124
11660.7	0.0105029
11670.6	0.0113751
11680.6	0.0122464
11690.6	0.0129998
11700.6	0.0136872
11710.6	0.0143439
11720.5	0.0150298
11730.5	0.0161093
11740.5	0.0172489
11750.5	0.0198119
11760.5	0.0230339
11770.4	0.0253185
11780.4	0.0277999
11790.1	0.030342
11800.1	0.0330197
11810.1	0.0357662
11820.1	0.0384548
11830	0.041232
11840	0.0441399
11850	0.0470438
11860.9	0.0501611
11870.9	0.0529925
11880.9	0.0557887
11890.8	0.0585215
11900.9	0.0611694
11910	0.0634561
11920.1	0.065782
11930.2	0.0678315
11940.2	0.0695528
11950.3	0.0709637
11960.4	0.072133
11970.4	0.0731307
11980.5	0.0740011
11990.6	0.0747734
