0	0
16.2108	0
24.3161	0
32.4214	0
40.5266	0
56.7371	0
64.8423	0
72.9477	0
81.053	0
97.2641	0
105.37	0
113.475	0
121.581	0
137.793	0
145.747	0
153.7	0
161.654	0
177.562	0
185.515	0
193.469	0
201.423	0
217.33	1.81899e-12
225.284	2.72848e-12
233.316	3.63798e-12
241.348	4.54747e-12
257.411	7.27596e-12
265.443	9.09495e-12
273.4	1.09139e-11
281.432	1.36424e-11
297.495	2.00089e-11
305.526	2.45564e-11
313.558	3.00133e-11
321.59	3.63798e-11
337.653	5.36602e-11
345.684	6.45741e-11
353.641	7.82165e-11
361.605	9.45874e-11
377.532	1.36424e-10
385.113	1.6189e-10
393.077	1.93722e-10
401.04	2.31012e-10
416.967	3.26509e-10
424.931	3.86535e-10
432.894	4.57476e-10
440.677	5.37511e-10
456.241	7.376e-10
463.822	8.58563e-10
471.604	1.00044e-09
487.168	1.34969e-09
494.72	1.55524e-09
502.502	1.79534e-09
510.284	2.06728e-09
525.848	2.72121e-09
533.63	3.11047e-09
541.412	3.54703e-09
556.479	4.54475e-09
564.013	5.12773e-09
571.546	5.77347e-09
586.613	7.27505e-09
594.146	8.14271e-09
601.68	9.09677e-09
616.746	1.12905e-08
624.28	1.25456e-08
631.813	1.39171e-08
646.88	1.70439e-08
654.413	1.88184e-08
661.947	2.07474e-08
677.013	2.51157e-08
684.546	2.75795e-08
692.08	3.02471e-08
707.131	3.62452e-08
714.664	3.96067e-08
722.197	4.32228e-08
737.264	5.126e-08
744.797	5.5702e-08
752.33	6.04396e-08
767.397	7.08405e-08
774.93	7.65258e-08
782.463	8.25494e-08
797.529	9.56607e-08
805.047	1.02761e-07
812.565	1.10248e-07
820.098	1.18149e-07
835.164	1.35178e-07
842.697	1.4432e-07
850.23	1.53889e-07
865.296	1.74326e-07
872.829	1.85203e-07
880.345	1.96499e-07
895.375	2.20444e-07
902.89	2.33104e-07
910.405	2.46232e-07
925.435	2.7392e-07
932.95	2.88498e-07
940.465	3.03581e-07
955.495	3.35309e-07
963.01	3.51984e-07
970.525	3.69221e-07
985.555	4.05466e-07
993.07	4.24518e-07
1000.59	4.44223e-07
1015.62	4.85712e-07
1023.13	5.07563e-07
1030.65	5.30199e-07
1045.68	5.78001e-07
1053.19	6.0326e-07
1060.71	6.29492e-07
1075.73	6.85115e-07
1083.25	7.14634e-07
1090.76	7.45385e-07
1105.79	8.10899e-07
1113.31	8.45835e-07
1120.82	8.82346e-07
1135.85	9.60509e-07
1143.37	1.00238e-06
1150.88	1.04627e-06
1165.91	1.14059e-06
1173.43	1.1913e-06
1180.94	1.24457e-06
1195.97	1.35939e-06
1203.49	1.42126e-06
1211	1.48634e-06
1226.03	1.62684e-06
1233.55	1.70265e-06
1241.06	1.78243e-06
1256.09	1.95477e-06
1263.61	2.04777e-06
1271.12	2.14566e-06
1286.15	2.35705e-06
1293.66	2.47109e-06
1301.18	2.59106e-06
1316.21	2.84997e-06
1323.72	2.98953e-06
1331.24	3.13625e-06
1346.27	3.45258e-06
1353.78	3.6229e-06
1361.3	3.80183e-06
1376.33	4.18714e-06
1383.84	4.39435e-06
1391.35	4.61187e-06
1406.38	5.08034e-06
1413.9	5.33322e-06
1421.41	5.5994e-06
1436.44	6.17387e-06
1443.96	6.4831e-06
1451.47	6.80752e-06
1466.5	7.50341e-06
1474.02	7.87554e-06
1481.53	8.26421e-06
1496.56	9.09246e-06
1504.07	9.53267e-06
1511.59	9.9907e-06
1526.62	1.09616e-05
1534.13	1.14753e-05
1541.65	1.20083e-05
1556.67	1.31341e-05
1564.19	1.37279e-05
1571.7	1.4343e-05
1586.73	1.56395e-05
1594.25	1.63223e-05
1601.76	1.7029e-05
1616.79	1.85174e-05
1624.3	1.93008e-05
1631.82	2.01116e-05
1646.85	2.18193e-05
1654.36	2.27185e-05
1661.88	2.36494e-05
1676.91	2.56115e-05
1684.42	2.66454e-05
1691.93	2.77164e-05
1706.83	2.99558e-05
1714.21	3.1126e-05
1721.6	3.23382e-05
1736.36	3.48958e-05
1743.75	3.62447e-05
1751.13	3.7643e-05
1765.89	4.05948e-05
1773.28	4.21517e-05
1780.66	4.37645e-05
1795.42	4.71632e-05
1802.81	4.89516e-05
1810.19	5.08008e-05
1825.01	5.47021e-05
1832.43	5.67494e-05
1847.25	6.1043e-05
1854.66	6.32918e-05
1862.07	6.56103e-05
1876.9	7.04615e-05
1884.31	7.29972e-05
1891.72	7.56082e-05
1906.55	8.10629e-05
1913.96	8.39102e-05
1921.37	8.68398e-05
1936.19	9.29543e-05
1943.61	9.61437e-05
1951.02	9.94242e-05
1965.84	0.000106269
1973.25	0.000109839
1980.67	0.000113511
1995.49	0.000121174
2002.9	0.000125172
2010.31	0.000129285
2025.14	0.000137873
2032.55	0.000142355
2047.37	0.000151716
2054.78	0.000156603
2062.2	0.000161634
2077.02	0.000172147
2084.43	0.000177638
2091.84	0.000183293
2106.67	0.000180601
2114.08	0.000179631
2121.49	0.000178894
2136.32	0.000178075
2143.73	0.000177973
2151.14	0.000178066
2165.96	0.000178804
2173.37	0.000179437
2180.79	0.000180237
2195.61	0.000182322
2203.02	0.000183599
2210.43	0.000185028
2225.26	0.000188332
2232.67	0.000190205
2240.08	0.000192222
2254.9	0.000196689
2262.32	0.000199139
2277.14	0.000204477
2284.55	0.000207367
2291.96	0.000210406
2306.75	0.000216928
2314.17	0.000220429
2321.58	0.000224089
2336.4	0.000231904
2343.81	0.000236065
2351.22	0.000240401
2366.05	0.000249614
2373.46	0.000254501
2380.87	0.000259581
2395.69	0.000270343
2403.11	0.000276035
2410.49	0.000281918
2425.28	0.000294374
2432.69	0.000300962
2440.1	0.00030779
2454.92	0.000322194
2462.34	0.000329783
2477.16	0.000345781
2484.57	0.000354157
2491.98	0.000362766
2506.68	0.000380491
2514.03	0.000389666
2521.37	0.000399043
2536.07	0.000418393
2543.42	0.000428366
2550.77	0.000438537
2565.46	0.000459486
2572.81	0.00047027
2580.16	0.000481267
2594.85	0.000503922
2602.2	0.000515592
2616.9	0.000539659
2624.25	0.000552074
2631.59	0.000564755
2646.29	0.000590965
2653.64	0.000604517
2660.99	0.000618385
2675.68	0.000647126
2683.03	0.000662029
2690.38	0.000677309
2705.07	0.000709061
2712.42	0.000725565
2727.12	0.000759908
2734.46	0.000777778
2741.81	0.000796134
2756.51	0.000834363
2763.86	0.000854268
2771.2	0.000874721
2785.9	0.000917332
2793.25	0.000939523
2800.59	0.000962329
2815.29	0.00100986
2822.64	0.00103462
2837.33	0.00114517
2844.68	0.00120025
2852.03	0.00125502
2866.72	0.00136335
2874.06	0.00141692
2881.41	0.00147012
2896.09	0.00157563
2903.44	0.00162808
2910.78	0.00168044
2925.47	0.00178529
2932.81	0.00183801
2940.16	0.00189107
2954.85	0.00199872
2962.19	0.00205357
2976.88	0.00216591
2984.22	0.00222367
2991.57	0.00228267
3006.26	0.00240484
3013.6	0.00246827
3020.94	0.00253343
3035.63	0.00266923
3042.98	0.00273955
3050.32	0.00281124
3065.01	0.00295833
3072.35	0.00303365
3087.04	0.00318785
3094.38	0.00326684
3101.73	0.00334722
3116.42	0.00351259
3123.76	0.00359791
3131.1	0.00368522
3145.79	0.00386668
3153.14	0.00396129
3160.48	0.00405877
3175.17	0.00426323
3182.51	0.00437059
3197.2	0.00473411
3204.54	0.00497987
3211.89	0.00521753
3226.57	0.00566917
3233.92	0.00588514
3241.26	0.00609655
3255.95	0.00651292
3263.29	0.00672169
3270.64	0.00693336
3285.33	0.00737272
3292.67	0.00760388
3300.01	0.007845
3314.7	0.00835306
3322.05	0.00861719
3336.73	0.00916602
3344.08	0.0094525
3351.42	0.00974905
3366.11	0.0103811
3373.45	0.0107218
3380.8	0.0110813
3395.48	0.0126498
3402.83	0.0134048
3410.17	0.0141344
3424.86	0.0155963
3432.2	0.0163677
3446.89	0.0180551
3454.23	0.0189823
3461.58	0.019967
3476.27	0.0233082
3483.61	0.0253233
3490.95	0.0271823
3505.64	0.0307135
3512.98	0.0324493
3520.33	0.0341807
3535.02	0.0376428
3542.36	0.039378
3557.05	0.0428725
3564.39	0.04464
3571.73	0.0464272
3586.42	0.0500765
3593.77	0.0519424
3601.11	0.0538367
3615.8	0.057715
3623.14	0.0597041
3630.48	0.0617316
3645.17	0.0659197
3652.52	0.0680885
3667.2	0.0725908
3674.55	0.0749278
3681.89	0.0773232
3696.58	0.0822896
3703.92	0.0848603
3711.27	0.0874889
3725.95	0.0929187
3733.3	0.0957197
3740.64	0.0985782
3755.33	0.10447
3762.67	0.107504
3770.02	0.1106
3784.7	0.116978
3792.05	0.120264
3806.73	0.127035
3814.08	0.130522
3821.42	0.134078
3836.11	0.141395
3843.45	0.145155
3850.8	0.148984
3865.48	0.156841
3872.83	0.160866
3880.17	0.164955
3894.86	0.173318
3902.2	0.17759
3916.89	0.186304
3924.23	0.190746
3931.58	0.195241
3946.26	0.204389
3953.61	0.209039
3960.95	0.213737
3975.64	0.223275
3982.98	0.22811
3990.33	0.232987
4005.02	0.242854
4012.36	0.247838
4027.05	0.257893
4034.39	0.262956
4041.73	0.268036
4056.42	0.278231
4063.77	0.283336
4071.11	0.288439
4085.8	0.298615
4093.14	0.303677
4100.49	0.308712
4115.17	0.318679
4122.52	0.323597
4137.21	0.333264
4144.55	0.338
4151.89	0.34266
4166.58	0.351721
4173.93	0.356106
4181.27	0.360383
4195.96	0.368581
4203.3	0.372485
4210.65	0.376247
4225.33	0.383314
4232.68	0.386601
4240.02	0.389713
4254.71	0.395379
4262.05	0.397916
4276.74	0.402361
4284.09	0.404254
4291.43	0.405916
4306.12	0.408524
4313.46	0.409456
4320.96	0.410146
4335.96	0.410699
4343.46	0.410551
4350.96	0.410111
4365.96	0.408339
4373.46	0.406998
4380.96	0.405348
4395.96	0.401107
4403.46	0.39851
4410.96	0.395593
4425.96	0.38879
4433.46	0.384901
4440.96	0.380687
4455.96	0.371284
4463.46	0.366096
4470.96	0.360586
4485.95	0.348604
4493.45	0.342139
4500.95	0.335361
4515.95	0.320883
4523.45	0.313192
4530.95	0.305206
4545.95	0.288372
4553.45	0.279536
4560.95	0.270428
4575.95	0.251429
4583.45	0.241552
4590.95	0.231435
4605.95	0.210508
4613.45	0.199712
4620.95	0.188708
4635.95	0.16613
4643.45	0.154599
4650.95	0.142866
4665.95	0.118776
4673.45	0.1065
4680.95	0.0941722
4695.95	0.0697273
4703.45	0.0577715
4710.95	0.0460776
4725.95	0.0161427
4733.45	0.00393411
4740.95	-0.00717696
4755.95	-0.0268944
4763.45	-0.0358273
4770.95	-0.0442303
4785.95	-0.0595742
4793.45	-0.0665636
4800.95	-0.0543496
4815.95	-0.0644384
4823.45	-0.0692203
4830.95	-0.0759576
4845.95	-0.087424
4853.45	-0.0925952
4860.95	-0.0974739
4875.95	-0.106575
4883.45	-0.110868
4890.95	-0.115019
4905.95	-0.122507
4913.45	-0.125978
4920.95	-0.129043
4935.95	-0.134708
4943.45	-0.13734
4950.98	-0.139871
4966.05	-0.144647
4973.58	-0.146913
4981.11	-0.149109
4996.18	-0.153314
5003.71	-0.142101
5011.23	-0.144169
5026.26	-0.148075
5033.77	-0.149773
5041.29	-0.151662
5056.32	-0.156313
5063.83	-0.158305
5071.35	-0.160098
5086.38	-0.163184
5093.89	-0.164519
5101.41	-0.165739
5116.44	-0.167916
5123.95	-0.16889
5131.47	-0.1698
5146.5	-0.171453
5154.01	-0.172207
5161.53	-0.172919
5176.56	-0.174232
5184.07	-0.17484
5191.59	-0.175419
5206.62	-0.176316
5214.13	-0.176779
5221.65	-0.177249
5236.68	-0.178129
5244.2	-0.178528
5251.71	-0.178914
5266.74	-0.179643
5274.26	-0.179986
5281.77	-0.180314
5296.8	-0.18092
5304.32	-0.181199
5311.83	-0.18146
5326.86	-0.18193
5334.38	-0.182139
5341.89	-0.18233
5356.92	-0.182659
5364.44	-0.182799
5371.95	-0.182923
5386.98	-0.178022
5394.5	-0.178302
5402.01	-0.17846
5417.04	-0.178719
5424.56	-0.178821
5432.07	-0.178906
5447.1	-0.179024
5454.62	-0.179058
5462.13	-0.179071
5477.16	-0.179034
5484.68	-0.178986
5492.19	-0.17892
5507.22	-0.178738
5514.74	-0.178623
5522.25	-0.178492
5537.28	-0.17819
5544.8	-0.178018
5552.31	-0.177835
5567.34	-0.177431
5574.86	-0.177212
5582.37	-0.176988
5597.4	-0.176522
5604.92	-0.176281
5612.43	-0.176033
5627.46	-0.175517
5634.98	-0.175249
5642.49	-0.174974
5650.01	-0.174692
5665.04	-0.174106
5672.55	-0.173803
5680.07	-0.173492
5695.1	-0.172849
5702.61	-0.172516
5710.13	-0.172176
5725.16	-0.171472
5732.67	-0.171108
5740.19	-0.170737
5755.22	-0.16997
5762.73	-0.169569
5770.25	-0.169161
5785.28	-0.168323
5792.79	-0.167896
5800.31	-0.167463
5815.34	-0.166578
5822.85	-0.166125
5830.37	-0.165641
5845.4	-0.164644
5852.91	-0.164132
5860.43	-0.163612
5875.46	-0.162546
5882.97	-0.162
5890.49	-0.161447
5905.52	-0.160316
5913.03	-0.159739
5920.55	-0.159154
5935.45	-0.157973
5942.83	-0.157376
5950.21	-0.156773
5964.98	-0.155547
5972.36	-0.154923
5987.13	-0.153656
5994.51	-0.153013
6001.89	-0.152364
6016.66	-0.151044
6024.04	-0.150376
6031.42	-0.149704
6046.19	-0.148348
6053.57	-0.147666
6060.95	-0.146983
6075.72	-0.145611
6083.1	-0.144924
6090.48	-0.144236
6105.31	-0.142853
6112.72	-0.142161
6120.13	-0.141469
6134.96	-0.144509
6142.37	-0.144115
6157.19	-0.143311
6164.6	-0.142798
6172.02	-0.142283
6186.84	-0.141251
6194.25	-0.140733
6201.66	-0.140214
6216.49	-0.13917
6223.9	-0.138644
6231.31	-0.138117
6246.14	-0.137053
6253.55	-0.136517
6260.96	-0.135978
6275.78	-0.134889
6283.2	-0.134338
6290.61	-0.133784
6305.43	-0.132663
6312.84	-0.132096
6320.26	-0.131524
6335.08	-0.130367
6342.49	-0.129782
6357.32	-0.128596
6364.73	-0.127996
6372.14	-0.127391
6386.97	-0.126164
6394.38	-0.125051
6401.79	-0.123935
6416.61	-0.121704
6424.03	-0.120595
6431.44	-0.119491
6446.26	-0.117304
6453.67	-0.116223
6461.09	-0.115149
6475.91	-0.113025
6483.32	-0.111974
6490.73	-0.110929
6505.56	-0.108856
6512.97	-0.107826
6520.38	-0.1068
6535.21	-0.104756
6542.62	-0.103736
6550.03	-0.102717
6564.85	-0.100676
6572.27	-0.0996541
6587.09	-0.0976023
6594.5	-0.0965715
6601.91	-0.0955368
6616.74	-0.0934534
6624.15	-0.0924038
6631.56	-0.0913486
6646.39	-0.0892193
6653.8	-0.0881475
6661.21	-0.0870739
6676.03	-0.0849266
6683.45	-0.0838548
6690.86	-0.0827846
6705.68	-0.0806501
6713.09	-0.0795852
6720.51	-0.0785214
6735.33	-0.0763943
6742.74	-0.0753293
6750.12	-0.0742668
6764.95	-0.0721224
6772.36	-0.0710432
6787.18	-0.0688665
6794.6	-0.0677676
6802.01	-0.0666609
6816.83	-0.0644217
6824.24	-0.0632883
6831.66	-0.060969
6846.48	-0.0566713
6853.89	-0.054682
6861.3	-0.0527877
6876.13	-0.0492352
6883.54	-0.0475504
6890.95	-0.0459091
6905.78	-0.0427092
6913.19	-0.0411295
6920.6	-0.0395515
6935.42	-0.036372
6942.84	-0.0347591
6950.25	-0.0331248
6965.07	-0.0298096
6972.48	-0.02814
6987.31	-0.0247992
6994.72	-0.0231271
7002.13	-0.0214499
7016.96	-0.0180618
7024.37	-0.0163407
7031.78	-0.0145954
7046.61	-0.00976913
7054.02	-0.00683482
7061.43	-0.00394609
7076.25	0.00159924
7083.67	0.00426665
7091.08	0.00690964
7105.9	0.0122202
7113.31	0.0149039
7120.73	0.0175995
7135.55	0.0250332
7142.93	0.0291575
7150.34	0.0329888
7165.17	0.0397705
7172.58	0.0427811
7187.4	0.0481128
7194.81	0.0504473
7202.23	0.0525704
7217.05	0.0562279
7224.46	0.0577908
7231.88	0.059198
7246.7	0.0616119
7254.11	0.0626473
7261.52	0.0635799
7276.35	0.0651653
7283.76	0.065837
7291.17	0.0664448
7306	0.0675247
7313.41	0.0680233
7320.82	0.0685085
7335.64	0.0694652
7343.06	0.0699425
7350.47	0.070419
7365.29	0.0713585
7372.7	0.071813
7380.1	0.0722518
7394.91	0.0730648
7402.31	0.0734315
7417.04	0.0740697
7424.39	0.0743408
7431.73	0.074581
7446.43	0.0749765
7453.78	0.0751371
7461.12	0.0752767
7475.82	0.0755037
7483.17	0.0755952
7490.52	0.0756734
7505.21	0.07579
7512.56	0.0758265
7527.26	0.0758476
7534.6	0.0758279
7541.95	0.0757852
7556.64	0.0756223
7563.99	0.0754986
7571.33	0.0753452
7586.02	0.0749467
7593.36	0.0747018
7600.71	0.0744276
7615.4	0.0737977
7622.74	0.0734465
7630.08	0.0730749
7644.77	0.0722834
7652.12	0.0718704
7666.81	0.0710276
7674.15	0.0706045
7681.49	0.0701843
7696.18	0.0693635
7703.53	0.0689673
7710.87	0.0685828
7725.56	0.0678539
7732.9	0.067511
7740.25	0.067183
7754.93	0.0665712
7762.28	0.0662869
7776.97	0.0657584
7784.31	0.0655126
7791.65	0.0652778
7806.34	0.0648367
7813.69	0.0646279
7821.03	0.0644252
7835.72	0.0640323
7843.06	0.0638392
7850.41	0.0636462
7865.09	0.0632541
7872.44	0.0630519
7887.13	0.0626271
7894.47	0.0624015
7901.82	0.0621652
7916.5	0.0616554
7923.85	0.0613796
7931.19	0.0610886
7945.88	0.0604578
7953.22	0.060117
7960.57	0.0597587
7975.26	0.0589895
7982.6	0.0585787
7997.29	0.0577061
8004.63	0.0572452
8011.98	0.0567688
8026.66	0.055772
8034.01	0.0552534
8041.35	0.0547223
8056.04	0.0536267
8063.38	0.053064
8070.73	0.0524926
8085.42	0.0513274
8092.76	0.0507353
8100.1	0.050138
8114.79	0.0489304
8122.14	0.0483215
8136.83	0.0470956
8144.17	0.0464793
8151.51	0.0458611
8166.2	0.0446189
8173.55	0.0439946
8180.89	0.0433676
8195.58	0.042104
8202.92	0.0414659
8210.27	0.0408225
8224.95	0.0395157
8232.3	0.0388499
8246.99	0.0374868
8254.33	0.0367866
8261.67	0.0360718
8276.36	0.034591
8283.71	0.0338211
8291.05	0.0330289
8305.74	0.0313691
8313.08	0.0304972
8320.43	0.0295942
8335.12	0.0276858
8342.46	0.0266766
8357.15	0.0245436
8364.49	0.0234021
8371.84	0.0221918
8386.52	0.0195733
8393.87	0.0181909
8401.21	0.0167818
8415.9	0.013941
8423.24	0.0117433
8430.59	0.0100252
8445.28	0.00690654
8452.62	0.00548377
8467.31	0.00287427
8474.65	0.00167615
8482	0.000542453
8496.68	0.000959604
8504.03	0.000512181
8511.37	-0.000274535
8526.06	-0.0023031
8533.41	-0.00317606
8540.75	-0.00399336
8555.44	-0.00553554
8562.78	-0.00628659
8570.13	-0.00703595
8584.81	-0.0085431
8592.16	-0.00931975
8606.85	-0.0108538
8614.19	-0.0115837
8621.53	-0.0122804
8636.22	-0.0136057
8643.57	-0.0142453
8650.91	-0.0148745
8665.6	-0.0132894
8672.94	-0.0138712
8680.29	-0.0144501
8694.98	-0.0149369
8702.32	-0.0156474
8717.01	-0.0169835
8724.35	-0.0176145
8731.7	-0.0182081
8746.38	-0.0193073
8753.73	-0.0198233
8761.07	-0.020322
8775.76	-0.0212776
8783.1	-0.0217381
8790.45	-0.022189
8805.14	-0.0231249
8812.48	-0.0235733
8827.17	-0.0244368
8834.51	-0.024859
8841.86	-0.025276
8856.54	-0.0260932
8863.89	-0.0264927
8871.23	-0.0269768
8885.92	-0.027875
8893.27	-0.0282937
8900.61	-0.0286947
8915.3	-0.0294496
8922.64	-0.0298059
8937.33	-0.0304808
8944.67	-0.030801
8952.02	-0.0311109
8966.71	-0.0316858
8974.05	-0.031954
8981.39	-0.0322112
8996.08	-0.0315289
9003.43	-0.0311947
9010.77	-0.0313605
9025.46	-0.0316503
9032.8	-0.0317835
9040.15	-0.0319091
9054.83	-0.0321381
9062.18	-0.0322419
9076.87	-0.032429
9084.21	-0.0325127
9091.56	-0.032587
9106.24	-0.03271
9113.59	-0.0327596
9120.93	-0.0328022
9135.62	-0.0328678
9142.96	-0.0328917
9150.31	-0.0329105
9165	-0.0329337
9172.34	-0.032939
9187.03	-0.0329387
9194.37	-0.0329336
9201.72	-0.0329258
9216.4	-0.0329029
9223.75	-0.0328883
9231.09	-0.0328719
9245.78	-0.0328349
9253.12	-0.0328155
9260.47	-0.0327954
9275.16	-0.0327527
9282.5	-0.03273
9297.19	-0.032682
9304.53	-0.032666
9311.88	-0.032649
9326.57	-0.032612
9333.91	-0.0325918
9341.25	-0.0325705
9355.94	-0.0325237
9363.29	-0.0324981
9370.63	-0.0324708
9385.32	-0.0324116
9392.66	-0.0323794
9400.01	-0.0323457
9414.69	-0.0322731
9422.04	-0.0322343
9436.73	-0.0321515
9444.07	-0.0321075
9451.42	-0.0321005
9466.1	-0.0320736
9473.45	-0.0320539
9480.79	-0.0320303
9495.48	-0.0319718
9502.82	-0.0319372
9510.17	-0.031899
9524.86	-0.0318124
9532.2	-0.0317642
9546.89	-0.0316584
9554.23	-0.0316008
9561.58	-0.0315403
9576.26	-0.0314103
9583.61	-0.0313411
9590.95	-0.031269
9605.64	-0.0311165
9612.98	-0.0310362
9620.33	-0.0309534
9635.02	-0.03078
9642.36	-0.0306897
9657.05	-0.0305003
9664.39	-0.029458
9671.74	-0.0285837
9686.43	-0.028357
9693.77	-0.0282425
9701.11	-0.028127
9715.8	-0.0278935
9723.15	-0.0277753
9730.49	-0.0276561
9745.18	-0.0274148
9752.52	-0.0272926
9767.21	-0.0270451
9774.55	-0.0269197
9781.9	-0.0267932
9796.59	-0.026537
9803.93	-0.0264072
9811.28	-0.0262763
9825.96	-0.0260111
9833.31	-0.0258767
9840.65	-0.0257413
9855.34	-0.0254669
9862.68	-0.0253279
9870.03	-0.0251879
9884.72	-0.0249043
9892.06	-0.0247608
9906.75	-0.0244698
9914.09	-0.0243223
9921.44	-0.0241736
9936.12	-0.0238725
9943.47	-0.02372
9950.81	-0.0235664
9965.5	-0.0232557
9972.85	-0.0230987
9980.19	-0.0229405
9994.88	-0.0226208
10002.2	-0.0224593
10016.9	-0.0221332
10024.3	-0.0219686
10031.6	-0.021803
10046.3	-0.0214687
10053.6	-0.0213001
10061	-0.0211306
10075.7	-0.0207886
10083	-0.0206163
10090.4	-0.020443
10105	-0.0200939
10112.4	-0.019918
10127.1	-0.0195638
10134.4	-0.0193855
10141.8	-0.0192064
10156.4	-0.0188459
10163.8	-0.0186646
10171.1	-0.0185589
10185.8	-0.0183409
10193.2	-0.0182286
10200.5	-0.018114
10215.2	-0.0178784
10222.5	-0.0177574
10237.2	-0.017509
10244.6	-0.0173818
10251.9	-0.0172524
10266.6	-0.0169877
10274	-0.0168524
10281.3	-0.0167151
10296	-0.0164348
10303.3	-0.0162918
10310.7	-0.016147
10325.4	-0.015852
10332.7	-0.0157019
10340	-0.0155506
10354.7	-0.0152445
10362.1	-0.0150896
10376.8	-0.0147762
10384.1	-0.0146177
10391.5	-0.014458
10406.1	-0.0141348
10413.5	-0.0139714
10420.8	-0.0138068
10435.5	-0.0134739
10442.9	-0.0133057
10450.2	-0.0131363
10464.9	-0.012794
10472.2	-0.0126212
10486.9	-0.0122721
10494.3	-0.0120531
10501.6	-0.0118351
10516.3	-0.0114019
10523.7	-0.0111866
10531	-0.0109721
10545.7	-0.0105454
10553	-0.010333
10560.4	-0.0101214
10575.1	-0.0096997
10582.4	-0.00948969
10597.1	-0.00907111
10604.4	-0.00886251
10611.8	-0.00865433
10626.5	-0.00823919
10633.8	-0.0080322
10641.2	-0.00782558
10655.8	-0.00741342
10663.2	-0.00720786
10670.5	-0.00700254
10685.2	-0.00659293
10692.6	-0.00638863
10707.3	-0.00598109
10714.6	-0.00577785
10722	-0.00557497
10737.1	-0.00515952
10744.8	-0.00494702
10752.5	-0.00473495
10760.3	-0.00452332
10775.8	-0.00409993
10783.5	-0.00388832
10791.2	-0.00367693
10806.7	-0.00325955
10814.5	-0.00305346
10822.2	-0.00284904
10837.7	-0.00244502
10845.4	-0.00224534
10853.2	-0.00204717
10860.9	-0.00185047
10876.4	-0.00146133
10884.1	-0.00126883
10891.9	-0.00107767
10907.3	-0.000699275
10915.1	-0.000511986
10922.8	-0.000325939
10930.6	-0.000141113
10946	0.000224954
10953.8	0.000406231
10961.5	0.00058636
10977	0.000943234
10984.7	0.00111996
10992.5	0.00129422
11000.2	0.00146619
11015.7	0.00180393
11023.4	0.00196999
11031.2	0.00213435
11046.7	0.00245845
11054.4	0.00261838
11062.1	0.00277701
11077.6	0.00309064
11085.4	0.00324577
11093.1	0.00339985
11100.8	0.0035529
11116.3	0.00388729
11124.1	0.00404511
11131.8	0.00419762
11147.3	0.00448901
11155	0.0046289
11162.8	0.00476551
11170.5	0.00489922
11186	0.0051593
11193.7	0.00528625
11201.5	0.00541147
11216.9	0.00565759
11224.7	0.00577884
11232.4	0.00589908
11240.2	0.00601844
11255.6	0.00625495
11263.4	0.00637227
11271.1	0.00648907
11286.6	0.00672132
11294.3	0.00683685
11302.1	0.00695204
11317.6	0.00718146
11325.3	0.00729573
11333	0.0074097
11340.8	0.00752339
11356.3	0.0077499
11364	0.00786271
11371.7	0.00797523
11387.2	0.00819711
11395	0.00830397
11402.7	0.00840856
11410.4	0.00851118
11425.9	0.00870825
11433.7	0.00880057
11441.4	0.00888981
11456.9	0.00906152
11464.6	0.00914503
11472.4	0.00922756
11480.1	0.00930946
11495.6	0.00947263
11503.3	0.00955441
11511.1	0.00963663
11526.5	0.00980303
11534.3	0.00988752
11542	0.00997302
11557.5	0.0101474
11565.2	0.0102364
11573	0.0103267
11580.7	0.0104181
11596.2	0.0106044
11603.9	0.0106991
11611.7	0.0107947
11627.2	0.0109883
11634.9	0.0110861
11642.6	0.0111845
11650.4	0.0112834
11665.9	0.0114826
11673.6	0.0115827
11681.3	0.011683
11696.8	0.0118843
11704.6	0.011985
11712.3	0.0120859
11720	0.0121868
11735.5	0.01248
11743.3	0.0126444
11751	0.0128154
11766.5	0.0131682
11774.2	0.0133486
11782	0.0135301
11797.4	0.0138926
11805.2	0.0140722
11812.9	0.0142498
11820.7	0.014425
11836.1	0.0147666
11843.9	0.0149325
11851.6	0.0150947
11867.1	0.0154077
11874.8	0.0155581
11882.6	0.0157044
11890.3	0.0158463
11905.8	0.0161169
11913.5	0.0162453
11921.3	0.0163691
11936.8	0.0166024
11944.5	0.0167117
11952.2	0.016816
11967.7	0.0170093
11975.5	0.0170981
11983.2	0.0171815
11990.9	0.0172595
