0	0
10.1663	0
20.3326	0
30.4988	0
40.665	0
50.8311	0
60.9972	0
71.1631	0
81.329	0
91.4947	0
101.66	0
111.826	0
121.992	0
130.124	0
140.29	0
150.455	0
160.621	0
170.787	0
180.953	0
191.119	0
201.285	0
211.443	0
221.5	0
231.475	0
241.439	0
251.403	0
261.367	0
271.331	0
281.294	0
291.258	0
301.222	0
311.186	0
321.149	0
331.113	0
341.077	0
351.04	0
361.004	0
370.967	0
380.931	0
390.894	0
400.858	0
410.821	0
420.785	0
430.748	0
440.711	0
450.671	0
460.494	0
470.309	0
480.118	0
491.857	0
501.554	0
511.177	0
520.79	0
530.402	0
540.014	0
551.549	0
561.157	0
570.719	0
580.244	0
591.645	0
601.147	0
610.645	0
620.131	0
631.505	0
640.971	0
650.434	0
661.791	0
671.254	0
680.718	0
690.181	0
701.537	0
711.001	0
720.464	0
731.82	0
741.284	0
750.747	0
760.21	0
771.565	0
781.009	0
790.447	0
801.772	0
811.209	0
820.646	0
830.084	0
841.408	0
850.846	0
860.283	0
871.608	0
881.045	0
890.482	0
901.807	0
911.244	0
920.681	0
930.119	0
941.443	0
950.88	0
960.318	0
971.642	0
981.079	0
990.517	0
1001.84	0
1011.28	0
1020.72	0
1030.15	0
1041.48	0
1050.91	0
1060.35	0
1071.68	0
1081.11	0
1090.55	0
1101.88	0
1111.31	0
1120.75	0
1130.19	0
1141.51	0
1150.95	0
1160.39	0
1171.71	0
1181.15	0
1190.58	0
1200.02	0
1211.35	0
1220.78	0
1230.22	0
1241.54	0
1250.97	0
1260.41	0
1271.73	0
1281.16	0
1290.59	0
1300.03	0
1311.35	0
1320.78	0
1330.22	0
1341.54	0
1350.97	0
1360.39	0
1371.68	0
1381.07	0
1390.46	0
1401.73	0
1411.12	0
1420.5	0
1431.76	0
1441.13	0
1450.49	0
1461.72	0
1471.08	0
1480.43	0
1491.66	0
1501.01	0
1510.36	0
1521.58	0
1530.94	0
1540.29	0
1551.49	0
1560.79	0
1570.1	0
1581.27	0
1590.58	0
1601.75	0
1610.93	0
1620.19	0
1631.36	0
1640.67	0
1651.84	0
1661.08	0
1670.28	0
1681.32	0
1690.51	0
1701.55	0
1710.75	0
1721.79	0
1730.98	0
1740.18	0
1751.22	0
1760.42	0
1771.45	0
1780.65	0
1791.69	0
1800.89	0
1810.08	0
1821.12	0
1830.32	0
1841.36	0
1850.56	0
1861.59	0
1870.79	0
1881.83	0
1891.03	0
1900.22	0
1911.26	0
1920.46	0
1931.49	0
1940.69	0
1951.73	0
1960.93	0
1970.13	0
1981.16	0
1990.36	0
2001.4	0
2010.6	0
2021.63	0
2030.83	0
2040.03	0
2051.06	0
2060.26	0
2071.3	0
2080.5	0
2091.53	0
2100.73	0
2111.77	0
2120.97	0
2130.16	0
2141.2	0
2150.4	0
2161.44	0
2170.63	0
2181.67	0
2190.87	0
2200.07	0
2211.1	0
2220.3	0
2231.34	0
2240.53	-3.63798e-12
2251.57	-8.18545e-12
2260.77	-1.18234e-11
2271.81	-1.72804e-11
2281	-2.18279e-11
2290.2	-2.54659e-11
2301.24	-3.09228e-11
2310.44	-3.54703e-11
2321.47	-4.09273e-11
2330.67	-4.82032e-11
2341.71	-5.91172e-11
2350.9	-6.91216e-11
2360.1	-8.2764e-11
2371.14	-1.02773e-10
2380.34	-1.23691e-10
2391.37	-1.55524e-10
2400.57	-1.89175e-10
2411.61	-2.39197e-10
2420.8	-2.92857e-10
2430	-3.57431e-10
2441.04	-4.54747e-10
2450.24	-5.54792e-10
2461.27	-7.04858e-10
2470.47	-8.60382e-10
2481.51	-1.08957e-09
2490.7	-1.32604e-09
2501.74	-1.67347e-09
2510.94	-2.02817e-09
2520.13	-2.45473e-09
2531.17	-3.07864e-09
2540.37	-3.71165e-09
2551.41	-4.63569e-09
2560.6	-5.56884e-09
2571.64	-6.9258e-09
2580.84	-8.29095e-09
2590.03	-9.90713e-09
2601.07	-1.22409e-08
2610.27	-1.45737e-08
2621.3	-1.79298e-08
2630.5	-2.12694e-08
2641.54	-2.60507e-08
2650.74	-3.07928e-08
2661.77	-3.75567e-08
2670.97	-4.42378e-08
2680.17	-5.2024e-08
2691.2	-6.30671e-08
2700.4	-7.39128e-08
2711.44	-8.92369e-08
2720.63	-1.04232e-07
2731.67	-1.25339e-07
2740.87	-1.45918e-07
2750.07	-1.69622e-07
2761.1	-2.0281e-07
2770.3	-2.34997e-07
2781.29	-2.79718e-07
2790.44	-3.22833e-07
2801.41	-3.82724e-07
2810.56	-4.40362e-07
2821.53	-5.20151e-07
2830.68	-5.96683e-07
2841.65	-7.02274e-07
2850.8	-8.03223e-07
2861.78	-9.42044e-07
2870.92	-1.07433e-06
2880.07	-1.2236e-06
2891.04	-1.42791e-06
2900.19	-1.62172e-06
2911.16	-1.88616e-06
2920.31	-2.13622e-06
2931.28	-2.47637e-06
2940.43	-2.79706e-06
2951.4	-3.23195e-06
2960.55	-3.64074e-06
2971.52	-4.19345e-06
2980.67	-4.71147e-06
2991.64	-5.40983e-06
3000.79	-6.06246e-06
3011.76	-6.93978e-06
3020.91	-7.75734e-06
3030.05	-8.66139e-06
3041.03	-9.87171e-06
3050.17	-1.09951e-05
3061.15	-1.24948e-05
3070.29	-1.38831e-05
3081.27	-1.57315e-05
3090.41	-1.74379e-05
3101.39	-1.9704e-05
3110.53	-2.17904e-05
3121.51	-2.4554e-05
3130.65	-2.70919e-05
3141.63	-3.04447e-05
3150.77	-3.35161e-05
3161.75	-3.75635e-05
3170.89	-4.12618e-05
3180.04	-4.52794e-05
3191.01	-5.05546e-05
3200.16	-5.53578e-05
3211.13	-6.16491e-05
3220.28	-6.73638e-05
3231.25	-7.48313e-05
3240.4	-8.15982e-05
3251.37	-9.04198e-05
3260.52	-9.83953e-05
3271.49	-0.000108768
3280.64	-0.000118125
3291.61	-0.000130266
3300.76	-0.000141193
3311.73	-0.00015534
3320.88	-0.000168044
3330.02	-0.000181628
3341	-0.000199159
3350.14	-0.00021485
3361.12	-0.000235056
3370.26	-0.000253103
3381.24	-0.000276292
3390.38	-0.000296959
3401.35	-0.000323458
3410.5	-0.000347024
3421.47	-0.000377176
3430.62	-0.000403936
3441.59	-0.000438101
3450.74	-0.000468358
3461.71	-0.000506909
3470.86	-0.000540981
3480	-0.000576891
3490.98	-0.000622507
3500.12	-0.000662701
3511.1	-0.000713653
3520.24	-0.000758457
3531.22	-0.000815136
3540.36	-0.000864875
3551.34	-0.000927666
3560.48	-0.000982657
3571.46	-0.00105194
3580.6	-0.00111248
3591.57	-0.00118861
3600.72	-0.001255
3611.69	-0.0013383
3620.84	-0.00141081
3631.81	-0.00150159
3640.96	-0.00158043
3650.1	-0.00166223
3661.08	-0.00176434
3670.22	-0.00185275
3681.2	-0.00196288
3690.34	-0.00205804
3701.32	-0.0021763
3710.46	-0.00227827
3721.43	-0.00240473
3730.58	-0.00251352
3741.55	-0.00264813
3750.7	-0.00276367
3761.67	-0.0029063
3770.82	-0.00302844
3781.79	-0.00317887
3790.94	-0.00330737
3800.08	-0.00343866
3811.06	-0.00359977
3820.2	-0.00373689
3831.18	-0.00390473
3840.32	-0.00404719
3851.3	-0.00422109
3860.44	-0.00436829
3871.42	-0.00454745
3880.56	-0.00469865
3891.53	-0.00488212
3900.68	-0.00503648
3911.65	-0.00522315
3920.8	-0.00537966
3931.77	-0.00556828
3940.92	-0.00572584
3950.06	-0.00588347
3961.04	-0.00607233
3970.18	-0.00622913
3981.16	-0.00641616
3990.3	-0.0065707
4001.28	-0.00675409
4010.42	-0.00690479
4021.4	-0.00708257
4030.54	-0.00722774
4041.52	-0.00739781
4050.66	-0.00753563
4061.64	-0.00769575
4070.78	-0.00782431
4081.76	-0.00797212
4090.9	-0.00808941
4100.05	-0.00820088
4111.02	-0.00832636
4120.17	-0.00842349
4131.14	-0.00853047
4140.29	-0.00861109
4151.26	-0.00869692
4160.41	-0.00875882
4171.38	-0.00882087
4180.54	-0.00886189
4191.61	-0.0088977
4200.83	-0.00891552
4210.05	-0.00892192
4221.11	-0.0089139
4230.33	-0.00889361
4241.39	-0.0088523
4250.61	-0.00880325
4261.67	-0.00872625
4270.89	-0.00864651
4280.11	-0.00855222
4291.18	-0.00841939
4300.4	-0.00829189
4311.48	-0.00811811
4320.71	-0.00795577
4331.78	-0.00773957
4341.02	-0.00754134
4350.25	-0.0073265
4361.32	-0.00704656
4370.56	-0.00679472
4381.63	-0.00647014
4390.87	-0.00618098
4400.1	-0.00587489
4411.18	-0.0054853
4420.41	-0.00514221
4431.48	-0.00470871
4440.71	-0.00432948
4451.8	-0.00385305
4461.04	-0.00343857
4470.28	-0.00300876
4481.4	-0.00247157
4490.69	-0.00200714
4501.85	-0.00143121
4511.15	-0.000936439
4520.45	-0.000429104
4531.64	0.000196358
4540.99	0.000731757
4550.36	0.00127778
4561.6	0.00194411
4570.97	0.0025079
4580.34	0.00307685
4591.58	0.00377151
4600.95	0.00437602
4610.32	0.00500652
4621.56	0.00596313
4630.93	0.00731517
4640.3	0.00800842
4651.54	0.00881558
4660.91	0.0096773
4670.28	0.0106792
4681.52	0.0119161
4690.89	0.0146134
4700.26	0.0168027
4711.5	0.0208922
4720.87	0.0302911
4730.24	0.0417376
4741.48	0.0567618
4750.85	0.0700732
4760.22	0.0841876
4771.46	0.102193
4780.83	0.118108
4790.2	0.134558
4801.44	0.154749
4810.81	0.172072
4820.17	0.189554
4831.42	0.210414
4840.79	0.227587
4850.15	0.244604
4861.4	0.264838
4870.77	0.281351
4880.13	0.297388
4891.38	0.316044
4900.75	0.331208
4910.11	0.346016
4921.36	0.363138
4930.73	0.376742
4940.09	0.389746
4951.34	0.404635
4960.71	0.416455
4970.07	0.427699
4981.32	0.440374
4990.69	0.450236
5000.05	0.459443
5011.3	0.469574
5020.67	0.477201
5030.04	0.484053
5041.28	0.491227
5050.65	0.496309
5060.02	0.500544
5071.26	0.504459
5080.63	0.506698
5090.01	0.507952
5101.3	0.508061
5110.71	0.506917
5120.15	0.504605
5131.47	0.500264
5140.91	0.495328
5150.34	0.489179
5161.67	0.480164
5171.11	0.471253
5180.54	0.461029
5191.87	0.446975
5201.31	0.433742
5210.74	0.419114
5220.18	0.403097
5231.5	0.38206
5240.94	0.363019
5250.38	0.342593
5261.7	0.316201
5271.14	0.29256
5280.58	0.26732
5290.02	0.240367
5301.34	0.205614
5310.78	0.17456
5320.21	0.141601
5331.54	0.0997386
5340.98	0.0632928
5350.41	0.0261107
5361.74	-0.0200859
5371.17	-0.0303597
5380.61	-0.0360448
5390.05	-0.0448956
5401.37	-0.0517232
5410.81	-0.0571374
5420.25	-0.0600879
5431.57	-0.0630358
5441.01	-0.065205
5450.45	-0.0671982
5461.77	-0.0657836
5471.21	-0.0674263
5480.65	-0.0689424
5490.08	-0.0703757
5501.41	-0.0719843
5510.84	-0.073411
5520.28	-0.0748596
5531.61	-0.0762577
5541.04	-0.0771812
5550.48	-0.0779207
5561.8	-0.0786102
5571.23	-0.0790519
5580.67	-0.0793935
5590.1	-0.0796581
5601.42	-0.0799045
5610.85	-0.0800699
5620.29	-0.0802122
5631.61	-0.080369
5641.04	-0.0805001
5650.48	-0.0806392
5661.8	-0.0808209
5671.23	-0.0809845
5680.66	-0.0811565
5690.07	-0.081334
5701.34	-0.0815502
5710.74	-0.0817309
5720.13	-0.0819114
5731.39	-0.0821282
5740.78	-0.0823108
5750.16	-0.0824981
5761.41	-0.082733
5770.78	-0.0829411
5780.13	-0.0831642
5791.36	-0.083456
5800.72	-0.0837221
5810.08	-0.0840105
5821.3	-0.0843868
5830.65	-0.0847252
5840.01	-0.0850849
5851.23	-0.0855416
5860.58	-0.0859402
5871.81	-0.0864357
5881.13	-0.086858
5890.44	-0.087286
5901.61	-0.0878041
5910.92	-0.0882364
5920.22	-0.0886664
5931.39	-0.0891763
5940.7	-0.0895939
5950.01	-0.0900029
5961.18	-0.0904798
5970.49	-0.0908639
5981.66	-0.0913064
5990.93	-0.0916564
6000.14	-0.0919871
6011.17	-0.0923588
6020.37	-0.0926463
6031.41	-0.0929623
6040.61	-0.0931997
6051.64	-0.0934517
6060.84	-0.093633
6070.04	-0.0937872
6081.08	-0.0939357
6090.28	-0.0940286
6101.31	-0.0941027
6110.51	-0.0941337
6121.55	-0.0941345
6130.75	-0.0941055
6141.78	-0.0940363
6150.98	-0.093951
6160.18	-0.0938415
6171.22	-0.0936797
6180.41	-0.0935206
6191.45	-0.093302
6200.65	-0.0930978
6211.69	-0.0928277
6220.88	-0.0925826
6230.08	-0.09232
6241.12	-0.0919828
6250.32	-0.0916841
6261.35	-0.0913052
6270.55	-0.0909731
6281.59	-0.0905555
6290.79	-0.0901921
6301.82	-0.0897383
6311.02	-0.0893457
6320.22	-0.0889403
6331.26	-0.0884375
6340.45	-0.088005
6351.49	-0.0874703
6360.69	-0.0870118
6371.73	-0.0864461
6380.92	-0.085962
6390.12	-0.0854664
6401.16	-0.0848566
6410.36	-0.0843358
6421.39	-0.0836958
6430.59	-0.08315
6441.63	-0.0824801
6450.83	-0.0819095
6460.02	-0.0813279
6471.06	-0.0806155
6480.26	-0.0800101
6491.3	-0.07927
6500.49	-0.0786422
6511.53	-0.0778761
6520.73	-0.0772275
6531.77	-0.0764377
6540.96	-0.0757704
6550.16	-0.0750953
6561.2	-0.0742757
6570.4	-0.0735853
6581.43	-0.0727485
6590.63	-0.072045
6601.67	-0.071194
6610.87	-0.0704796
6620.06	-0.069761
6631.1	-0.0688937
6640.3	-0.0681673
6651.34	-0.0672918
6660.53	-0.0665595
6671.57	-0.0656778
6680.77	-0.0649412
6691.81	-0.0640555
6701	-0.0633163
6710.2	-0.0625763
6721.24	-0.0616879
6730.44	-0.0609475
6741.47	-0.0600594
6750.67	-0.0593198
6761.71	-0.0584336
6770.91	-0.0576962
6780.1	-0.0569603
6791.14	-0.0560794
6800.34	-0.0553474
6811.38	-0.0544718
6820.57	-0.0537446
6831.61	-0.0528752
6840.81	-0.0521536
6850.01	-0.0514347
6861.04	-0.0505756
6870.24	-0.0498628
6881.28	-0.0490109
6890.48	-0.0483039
6901.51	-0.0474588
6910.71	-0.046757
6921.75	-0.0459176
6930.95	-0.0452201
6940.14	-0.044524
6951.18	-0.04369
6960.38	-0.0429958
6971.42	-0.0421629
6980.61	-0.0414685
6991.65	-0.0406341
7000.85	-0.0399373
7010.05	-0.0392387
7021.08	-0.0383973
7030.28	-0.037693
7041.32	-0.0368436
7050.52	-0.0361318
7061.55	-0.0352723
7070.75	-0.0345514
7081.79	-0.0336803
7090.99	-0.0329494
7100.19	-0.0322138
7111.22	-0.031325
7120.42	-0.0305796
7131.46	-0.0296796
7140.66	-0.0289254
7151.69	-0.0280162
7160.89	-0.0272555
7170.09	-0.0264929
7181.13	-0.0255761
7190.32	-0.0248118
7201.31	-0.0238998
7210.45	-0.0231423
7221.43	-0.0222369
7230.57	-0.0214867
7241.55	-0.0205931
7250.69	-0.0198553
7261.67	-0.0189799
7270.81	-0.01826
7281.79	-0.0174093
7290.93	-0.0167127
7300.08	-0.0160284
7311.05	-0.0152249
7320.2	-0.0145713
7331.17	-0.0138075
7340.32	-0.0131892
7351.29	-0.0124702
7360.44	-0.0118911
7371.41	-0.0112214
7380.56	-0.0106849
7391.53	-0.010068
7400.68	-0.00957665
7411.65	-0.00901503
7420.8	-0.00857062
7431.77	-0.00806597
7440.92	-0.00766939
7450.07	-0.00729462
7461.04	-0.00687354
7470.19	-0.00654626
7481.16	-0.00618138
7490.31	-0.00589998
7501.28	-0.00558862
7510.43	-0.00535022
7521.4	-0.00508816
7530.55	-0.00488863
7541.52	-0.00467018
7550.67	-0.00450419
7561.64	-0.00432228
7570.79	-0.00418339
7581.76	-0.00402964
7590.91	-0.00391042
7600.05	-0.00379757
7611.03	-0.0036684
7620.17	-0.0035643
7631.15	-0.00344172
7640.29	-0.00334009
7651.27	-0.00321699
7660.41	-0.00311218
7671.39	-0.00298229
7680.53	-0.00286972
7691.51	-0.00272837
7700.65	-0.00260453
7711.63	-0.0024477
7720.77	-0.00230952
7731.75	-0.00213408
7740.89	-0.00197968
7750.04	-0.00181929
7761.01	-0.00162186
7770.16	-0.00145369
7781.13	-0.00124565
7790.28	-0.00106472
7801.25	-0.000835842
7810.4	-0.000634307
7821.37	-0.000379424
7830.52	-0.000156253
7841.49	0.000124253
7850.64	0.000366276
7861.61	0.000663546
7870.76	0.000917399
7881.73	0.00123278
7890.88	0.00150552
7900.02	0.00177435
7911	0.0021156
7920.14	0.00242929
7931.12	0.00283376
7940.26	0.00320281
7951.24	0.00369456
7960.38	0.00414836
7971.36	0.00472858
7980.5	0.00523232
7991.48	0.00586918
8000.62	0.00701337
8011.6	0.00847318
8020.74	0.00924007
8031.72	0.0100824
8040.86	0.0107418
8050.01	0.0112627
8060.98	0.0116864
8070.13	0.0118734
8081.1	0.0118664
8090.25	0.0116458
8101.22	0.0111482
8110.37	0.0105083
8121.34	0.00943799
8130.49	0.00825409
8141.46	0.00640922
8150.61	0.00460663
8161.58	0.00213668
8170.73	0.000255184
8181.7	-0.00181323
8190.85	-0.00349602
8201.82	-0.0054997
8210.97	-0.0070623
8220.12	-0.00857183
8231.09	-0.0104859
8240.24	-0.0121125
8251.21	-0.0139762
8260.36	-0.0154406
8271.33	-0.0171887
8280.48	-0.018729
8291.45	-0.0204371
8300.6	-0.021742
8311.57	-0.0231813
8320.72	-0.0242885
8331.69	-0.0255159
8340.84	-0.0264609
8351.81	-0.0275127
8360.96	-0.0283302
8370.1	-0.029099
8381.08	-0.0299609
8390.22	-0.0306297
8401.2	-0.0313731
8410.34	-0.0319425
8421.32	-0.0325642
8430.46	-0.0330302
8441.44	-0.0335272
8450.58	-0.0338903
8461.56	-0.0342664
8470.7	-0.0345311
8481.68	-0.0347917
8490.82	-0.0349624
8501.8	-0.0351129
8510.94	-0.0351941
8520.09	-0.0352365
8531.06	-0.0352378
8540.21	-0.0351993
8551.24	-0.0351069
8560.46	-0.0349928
8571.53	-0.0348132
8580.75	-0.0346291
8591.81	-0.0343683
8601.03	-0.0341185
8610.25	-0.0338398
8621.31	-0.033468
8630.53	-0.0331276
8641.6	-0.0326834
8650.82	-0.032284
8660.03	-0.0318586
8671.1	-0.0313148
8680.32	-0.0308346
8691.38	-0.0302269
8700.6	-0.029695
8711.66	-0.0290272
8720.88	-0.028447
8730.1	-0.0278459
8741.17	-0.0270981
8750.39	-0.0264536
8761.45	-0.0256557
8770.67	-0.0249712
8781.73	-0.0241271
8790.96	-0.0234051
8800.19	-0.0226669
8811.27	-0.021761
8820.5	-0.02099
8831.58	-0.0200463
8840.81	-0.0192451
8850.04	-0.0184309
8861.12	-0.0174375
8870.35	-0.0165966
8881.43	-0.0155723
8890.66	-0.0147066
8901.74	-0.0136539
8910.97	-0.0127655
8920.2	-0.0118675
8931.28	-0.0107777
8940.51	-0.0098599
8951.59	-0.0087476
8960.82	-0.00781211
8970.05	-0.00686933
8981.13	-0.00572909
8990.36	-0.00477213
9001.44	-0.00361658
9010.67	-0.00264846
9021.75	-0.0014817
9030.98	-0.000506273
9040.21	0.00047088
9051.29	0.00164402
9060.52	0.0026202
9071.61	0.00378973
9080.92	0.0047653
9090.28	0.00573907
9101.52	0.0068943
9110.89	0.00784209
9120.26	0.00877229
9131.5	0.00985275
9140.87	0.0107216
9150.24	0.0115646
9161.48	0.0125461
9170.85	0.0133468
9180.22	0.0147268
9191.46	0.01594
9200.83	0.0167079
9210.2	0.0168019
9221.44	0.017149
9230.81	0.0173771
9240.18	0.0178002
9251.42	0.018525
9260.79	0.0194254
9270.16	0.0202525
9281.4	0.0218499
9290.77	0.0232521
9300.14	0.0246036
9311.38	0.0262571
9320.75	0.0275976
9330.12	0.0288204
9341.36	0.0302457
9350.73	0.0314031
9360.1	0.0324745
9371.34	0.0337311
9380.71	0.0348394
9390.08	0.0359916
9401.32	0.0374239
9410.69	0.0386709
9420.06	0.0399463
9431.3	0.0414523
9440.67	0.0426314
9450.04	0.0436983
9461.28	0.0447879
9470.65	0.0455227
9480.02	0.0461025
9491.27	0.046598
9500.63	0.0468429
9510	0.0469349
9521.25	0.0468614
9530.61	0.0466844
9541.86	0.0463907
9551.23	0.0461082
9560.6	0.0457944
9571.84	0.0453562
9581.21	0.0449239
9590.58	0.0444337
9601.85	0.0437968
9611.24	0.0432573
9620.63	0.0427317
9630.01	0.0422278
9641.26	0.0416478
9650.63	0.0411763
9661.87	0.0406154
9671.22	0.0401471
9680.58	0.0396742
9691.81	0.0390923
9701.16	0.0385858
9710.52	0.0380529
9721.74	0.0373782
9731.09	0.0367941
9740.44	0.0362009
9751.67	0.0354914
9761	0.0349128
9770.31	0.0343524
9781.48	0.0337055
9790.79	0.0331884
9800.1	0.0326891
9811.27	0.0321041
9820.57	0.0316161
9831.75	0.0310116
9841.05	0.0304813
9850.36	0.0299241
9861.53	0.0292269
9870.84	0.0286327
9880.09	0.0280392
9891.14	0.0273331
9900.33	0.0267471
9911.37	0.0260436
9920.57	0.025455
9931.61	0.0247461
9940.8	0.0241546
9950	0.0235637
9961.04	0.0228548
9970.24	0.0222625
9981.27	0.0215472
9990.47	0.0209467
10001.5	0.0202222
10010.7	0.0196181
10021.7	0.0188965
10030.9	0.0183002
10040.1	0.017709
10051.2	0.0170043
10060.4	0.0164175
10071.4	0.0157072
10080.6	0.015104
10091.6	0.0143598
10100.8	0.0137198
10110	0.0130618
10121.1	0.0122509
10130.3	0.011553
10141.3	0.0105932
10150.5	0.00924116
10161.6	0.00782724
10170.7	0.00730681
10181.8	0.00632538
10191	0.00500554
10200.2	0.00447018
10211.2	0.00393223
10220.4	0.0035238
10231.5	0.00324339
10240.7	0.00275788
10251.7	0.00216294
10260.9	0.00165046
10270.1	0.00110606
10281.1	0.00041622
10290.3	-0.000186182
10301.4	-0.000891813
10310.6	-0.00146014
10321.6	-0.00212453
10330.8	-0.00266928
10341.8	-0.00332021
10351	-0.00386652
10360.2	-0.00441908
10371.3	-0.00509155
10380.5	-0.00565998
10391.5	-0.0063508
10400.7	-0.00693227
10411.7	-0.00763468
10420.9	-0.00822199
10430.1	-0.00880945
10441.2	-0.00951272
10450.4	-0.0100962
10461.4	-0.0107921
10470.6	-0.0113681
10481.6	-0.0120544
10490.8	-0.0126222
10500	-0.0131864
10511.1	-0.0138589
10520.3	-0.0144157
10531.3	-0.0150795
10540.5	-0.0156289
10551.5	-0.0162835
10560.7	-0.0168247
10571.8	-0.0174685
10581	-0.0179999
10590.2	-0.0185263
10601.2	-0.0191509
10610.4	-0.0196652
10621.4	-0.0202745
10630.6	-0.0207755
10641.7	-0.0213684
10650.9	-0.0218556
10660.1	-0.0223365
10671.1	-0.0229052
10680.3	-0.0233722
10691.3	-0.0239243
10700.5	-0.0243776
10711.6	-0.0249133
10720.8	-0.025353
10731.8	-0.0258725
10741	-0.0262987
10750.2	-0.0267189
10761.2	-0.0272152
10770.4	-0.0276222
10781.5	-0.0281029
10790.7	-0.0284972
10801.7	-0.0289628
10810.9	-0.0293447
10820.1	-0.0297212
10831.1	-0.030166
10840.3	-0.030531
10851.4	-0.0309623
10860.6	-0.0313163
10871.6	-0.0317349
10880.8	-0.0320786
10890	-0.0324178
10901.1	-0.0328191
10910.2	-0.0331488
10921.3	-0.0335391
10930.5	-0.03386
10941.5	-0.0342399
10950.7	-0.0345525
10961.8	-0.0349229
10971	-0.0352279
10980.2	-0.0355296
10991.2	-0.0358877
11000.4	-0.0361829
11011.4	-0.0365336
11020.6	-0.0368231
11031.7	-0.0371674
11040.9	-0.037452
11050.1	-0.0377346
11061.1	-0.0380714
11070.3	-0.0383504
11081.3	-0.0386833
11090.5	-0.0389593
11101.6	-0.0392892
11110.8	-0.0395631
11121.8	-0.0398908
11131	-0.0401632
11140.2	-0.0404351
11151.2	-0.0407609
11160.4	-0.0410321
11171.4	-0.041356
11180.6	-0.0416252
11191.5	-0.0419482
11200.7	-0.0422173
11211.7	-0.0425402
11220.8	-0.0428091
11231.8	-0.0431318
11240.9	-0.0434005
11250.1	-0.0436691
11261	-0.043991
11270.2	-0.0442589
11281.2	-0.0445797
11290.3	-0.0448463
11301.3	-0.0451653
11310.4	-0.04543
11321.4	-0.0457462
11330.6	-0.0460082
11341.5	-0.0463206
11350.7	-0.0465789
11361.7	-0.0468862
11370.8	-0.0471398
11381.8	-0.0474408
11390.9	-0.0476886
11400.1	-0.0479333
11411	-0.0482226
11420.2	-0.0484597
11431.2	-0.0487391
11440.3	-0.0489675
11451.3	-0.0492356
11460.4	-0.0494539
11471.4	-0.0497094
11480.5	-0.0499165
11491.5	-0.0501578
11500.7	-0.0503525
11511.6	-0.0505783
11520.8	-0.0507596
11531.8	-0.0509686
11540.9	-0.0511354
11550	-0.0512952
11561	-0.0514776
11570.2	-0.0516215
11581.1	-0.0517842
11590.3	-0.0519112
11601.3	-0.0520531
11610.4	-0.0521624
11621.4	-0.0522825
11630.5	-0.0523733
11641.5	-0.0524708
11650.6	-0.0525423
11661.6	-0.0526162
11670.8	-0.0526678
11681.7	-0.0527174
11690.9	-0.0527484
11700	-0.0527699
11711	-0.052783
11720.2	-0.0527831
11731.1	-0.0527703
11740.3	-0.0527486
11751.3	-0.0527094
11760.4	-0.0526655
11771.4	-0.0525995
11780.5	-0.0525332
11791.5	-0.05244
11800.6	-0.0523509
11811.6	-0.0522304
11820.8	-0.0521184
11831.7	-0.0519703
11840.9	-0.0518355
11850	-0.0516901
11861	-0.051502
11870.1	-0.0513337
11881.1	-0.0511181
11890.3	-0.050927
11901.2	-0.0506841
11910.4	-0.0504703
11921.4	-0.0502004
11930.5	-0.0499642
11941.5	-0.0496675
11950.6	-0.0494092
11961.6	-0.0490862
11970.7	-0.0488061
11981.7	-0.0484571
11990.9	-0.0481555
12000	-0.0478444
12011	-0.0474585
12020.1	-0.0471265
12031.1	-0.0467158
12040.2	-0.0463633
12051.2	-0.0459283
12060.4	-0.0455559
12071.3	-0.0450971
12080.5	-0.0447051
12091.5	-0.0442231
12100.6	-0.0438118
12111.6	-0.0433071
12120.7	-0.0428771
12131.7	-0.0423501
12140.8	-0.0419018
12151.8	-0.041353
12161	-0.0408868
12170.1	-0.0404125
12181.1	-0.0398329
12190.2	-0.0393413
12201.2	-0.0387411
12210.4	-0.0382325
12221.3	-0.0376122
12230.5	-0.037087
12241.5	-0.036447
12250.6	-0.0359056
12261.6	-0.0352463
12270.7	-0.0346891
12281.7	-0.034011
12290.8	-0.0334383
12301.8	-0.0327419
12311	-0.032154
12320.1	-0.0315594
12331.1	-0.0308371
12340.2	-0.0302279
12351.2	-0.0294883
12360.3	-0.0288649
12371.3	-0.0281084
12380.5	-0.0274712
12391.4	-0.0266983
12400.6	-0.0260475
12411.6	-0.0252586
12420.7	-0.0245946
12431.7	-0.0237901
12440.8	-0.0231133
12451.8	-0.0222935
12460.9	-0.0216041
12470.1	-0.0209091
12481.1	-0.0200677
12490.2	-0.0193606
12501.2	-0.0185048
12510.3	-0.0177857
12521.3	-0.0169158
12530.5	-0.0161851
12541.4	-0.0153013
12550.6	-0.0145591
12561.6	-0.0136569
12570.8	-0.0128973
12580	-0.0121325
12591.1	-0.0112081
12600.3	-0.0104323
12611.4	-0.00949462
12620.6	-0.0087078
12631.7	-0.00775717
12640.9	-0.00695935
12650.1	-0.00615602
12661.2	-0.00518579
12670.4	-0.00437217
12681.5	-0.00338981
12690.7	-0.00256627
12701.8	-0.0015723
12711.1	-0.000739626
12720.3	9.77869e-05
12731.4	0.00110966
12740.7	0.00196019
12751.8	0.00298722
12761.2	0.00385096
12770.6	0.0047195
12781.8	0.00576517
12791.2	0.00663887
12800.5	0.00751406
12811.8	0.00856528
12821.2	0.00944102
12830.5	0.0103152
12841.8	0.0113596
12851.1	0.0122238
12860.5	0.0130792
12871.7	0.0140845
12881.1	0.0148907
12890.5	0.0156681
12901.7	0.0165673
12911.1	0.0174061
12920.5	0.0182383
12931.7	0.0191036
12941.1	0.0197371
12950.4	0.0202286
12961.7	0.0211809
12971.1	0.0220862
12980.4	0.0229954
12991.7	0.0239919
13001	0.0248121
13010.4	0.0256695
13021.6	0.0267821
13031	0.0277727
13040.4	0.0287493
13051.6	0.0298448
13061	0.0307201
13070.4	0.031567
13081.6	0.0325416
13091	0.0333475
13100.3	0.0341795
13111.6	0.0352182
13121	0.036102
13130.3	0.0369926
13141.6	0.0380702
13150.9	0.0389822
13160.3	0.0399113
13171.5	0.0410414
13180.9	0.041984
13190.3	0.0429208
13201.5	0.0440391
13210.9	0.044974
13220.3	0.0459223
13231.5	0.0470935
13240.9	0.0481097
13250.2	0.0491733
13261.5	0.0505273
13270.9	0.0517307
13280.2	0.0530052
13291.5	0.054615
13300.8	0.0559988
13310.2	0.0573909
13321.4	0.0590333
13330.8	0.0603524
13340.2	0.0616113
13351.4	0.0630344
13360.8	0.0641479
13370.2	0.0652003
13381.4	0.0663899
13390.8	0.0673257
13400.1	0.0682141
13411.4	0.0692195
13420.8	0.0700077
13430.1	0.0707518
13441.4	0.0715884
13450.7	0.0722403
13460.1	0.072852
13471.4	0.0735335
13480.7	0.0740583
13490.1	0.0745458
13501.3	0.0750867
13510.7	0.0755071
13520.1	0.0759062
13531.3	0.076363
13540.7	0.076726
13550	0.0770696
13561.3	0.0774479
13570.7	0.0777269
13580	0.0779678
13591.3	0.0782048
13600.6	0.0783619
13610	0.078488
13621.3	0.0786077
13630.6	0.0786879
13641.9	0.078766
13651.2	0.0788171
13660.6	0.0788536
13671.8	0.0788736
13681.2	0.0788658
13690.6	0.0788321
13701.8	0.0787538
13711.2	0.0786558
13720.6	0.0785288
13731.8	0.0783408
13741.2	0.0781575
13750.5	0.0779535
13761.8	0.0776851
13771.2	0.0774443
13780.5	0.077189
13791.8	0.0768633
13801.1	0.0765742
13810.5	0.0762668
13821.7	0.0758702
13831.1	0.0755136
13840.5	0.0751312
13851.7	0.0746371
13861.1	0.0741964
13870.5	0.0737312
13881.7	0.0731447
13891.1	0.0726368
13900.4	0.0721156
13911.7	0.0714775
13921.1	0.0709381
13930.4	0.0703928
13941.7	0.0697297
13951	0.0691677
13960.4	0.0685939
13971.7	0.067885
13981	0.0672738
13990.4	0.0666412
14001.6	0.0658523
14011	0.0651699
14020.4	0.0644656
14031.6	0.0635937
14041	0.0628468
14050.3	0.0620829
14061.6	0.0611454
14071	0.0603475
14080.3	0.0595348
14091.6	0.0585399
14100.9	0.0576947
14110.3	0.0568351
14121.6	0.0557856
14130.9	0.0548967
14140.3	0.0539956
14151.5	0.0528989
14160.9	0.0519725
14170.3	0.0510347
14181.5	0.0498943
14190.9	0.048931
14200.3	0.0479558
14211.5	0.0467701
14220.9	0.0457698
14230.2	0.0447597
14241.5	0.0435368
14250.8	0.042511
14260.2	0.0414799
14271.5	0.0402351
14281	0.0391972
14290.5	0.0381597
14301.8	0.0369173
14311.4	0.0358829
14320.9	0.0348431
14330.6	0.033797
14340.4	0.0327457
14350.1	0.0316914
14361.9	0.0304202
14371.7	0.0293581
14381.5	0.0282921
14391.3	0.0272214
14401.1	0.0261451
14410.9	0.0250624
14420.8	0.0239728
14430.6	0.0228763
14440.4	0.0217731
14450.2	0.0206639
14461.9	0.0193265
14471.8	0.0182085
14481.6	0.0170891
14491.4	0.0159698
14501.2	0.0148517
14511	0.013735
14520.8	0.0126191
14530.6	0.0115024
14540.4	0.0103797
14550.3	0.00930102
14560.2	0.00791982
14570.1	0.00680758
14581.9	0.00532322
14591.8	0.00402696
14601.7	0.00270449
14611.6	0.00136406
14621.5	5.79327e-06
14631.4	-0.00137308
14641.3	-0.0027755
14651.2	-0.00420342
14661.1	-0.00565743
14671	-0.00713682
14680.9	-0.00863972
14690.8	-0.0101633
14700.6	-0.0117038
14710.5	-0.013257
14720.4	-0.014818
14730.3	-0.0163814
14740.2	-0.0179418
14750.1	-0.0194937
14760	-0.0210314
14771.9	-0.0228507
14781.8	-0.0243394
14791.7	-0.0257985
14801.5	-0.0272245
14811.4	-0.0286139
14821.3	-0.0299645
14831.2	-0.0312742
14841.1	-0.0325419
14851	-0.0337668
14860.9	-0.0349487
14870.8	-0.0360878
14880.7	-0.0371848
14890.6	-0.0382406
14900.5	-0.0392563
14910.4	-0.0402317
14920.2	-0.0411697
14930.1	-0.0420718
14942	-0.0431087
14951.8	-0.0439365
14961.7	-0.0447326
14971.6	-0.0454982
14981.5	-0.0462345
14991.3	-0.0469423
15001.2	-0.0476226
15011.1	-0.0482762
15021	-0.0489037
15030.8	-0.0495055
15040.7	-0.0500823
15050.6	-0.0506347
15060.4	-0.0511615
15070.2	-0.0516624
15081.9	-0.052233
15091.7	-0.0526831
15101.4	-0.0531105
15111.2	-0.0535158
15120.9	-0.0538996
15130.7	-0.0542615
15140.4	-0.054602
15150.1	-0.0549209
15161.7	-0.0552745
15171.3	-0.0555469
15181	-0.0557989
15190.7	-0.0560308
15200.3	-0.0562426
15211.9	-0.0564703
15221.5	-0.0566385
15231.2	-0.0567872
15240.8	-0.0569166
15250.4	-0.0570269
15260.1	-0.0571183
15271.7	-0.0572031
15281.3	-0.0572532
15290.9	-0.057285
15300.6	-0.0572986
15310.2	-0.0572941
15321.8	-0.0572653
15331.4	-0.0572218
15341.1	-0.0571611
15350.7	-0.0570832
15360.3	-0.0569884
15371.9	-0.0568527
15381.6	-0.0567215
15391.2	-0.0565743
15400.8	-0.0564113
15410.5	-0.0562328
15420.1	-0.056039
15431.7	-0.0557867
15441.3	-0.0555605
15451	-0.05532
15460.6	-0.0550657
15470.3	-0.0547979
15481.8	-0.0544593
15491.5	-0.0541631
15501.1	-0.0538547
15510.7	-0.0535345
15520.4	-0.0532028
15530	-0.0528602
15541.6	-0.0524352
15551.2	-0.05207
15560.9	-0.0516954
15570.5	-0.0513117
15580.2	-0.0509195
15591.7	-0.0504384
15601.4	-0.0500292
15611	-0.0496131
15620.6	-0.0491906
15630.3	-0.0487622
15641.9	-0.0482411
15651.5	-0.0478016
15661.1	-0.0473578
15670.8	-0.0469103
15680.4	-0.0464596
15690.1	-0.0460062
15701.6	-0.0454592
15711.3	-0.0450017
15720.9	-0.044543
15730.6	-0.0440838
15740.2	-0.0436244
15751.8	-0.0430737
15761.4	-0.0426159
15771	-0.0421594
15780.7	-0.0417049
15790.3	-0.0412526
15801.9	-0.0407137
15811.5	-0.0402682
15821.2	-0.0398265
15830.8	-0.0393889
15840.5	-0.0389559
15850.1	-0.0385279
15861.7	-0.0380212
15871.4	-0.0376033
15881.1	-0.0371881
15890.9	-0.0367791
15900.7	-0.0363771
15910.5	-0.0359826
15920.3	-0.0355957
15930.1	-0.0352169
15941.8	-0.0347733
15951.6	-0.0344132
15961.4	-0.0340618
15971.2	-0.0337196
15981	-0.0333867
15990.7	-0.0330632
16000.5	-0.0327494
16010.3	-0.0324454
16020.1	-0.0321514
16031.8	-0.0318123
16041.6	-0.0315412
16051.3	-0.0312803
16061	-0.0310299
16070.7	-0.0307899
16080.4	-0.0305605
16090.1	-0.0303413
16101.7	-0.0300913
16111.3	-0.0298938
16120.9	-0.0297059
16130.5	-0.029527
16140.1	-0.0293571
16151.6	-0.0291646
16161.2	-0.0290135
16170.9	-0.0288705
16180.5	-0.0287354
16190.1	-0.0286078
16201.6	-0.0284643
16211.2	-0.0283522
16220.8	-0.0282466
16230.4	-0.0281472
16240	-0.0280535
16251.6	-0.0279481
16261.2	-0.0278657
16270.8	-0.0277878
16280.3	-0.0277141
16291.8	-0.0276309
16301.3	-0.0275652
16310.8	-0.0275021
16320.3	-0.0274413
16331.7	-0.0273708
16341.1	-0.0273136
16350.6	-0.0272573
16360.1	-0.0272017
16371.4	-0.0271351
16380.9	-0.0270793
16390.4	-0.0270228
16401.7	-0.0269536
16411.2	-0.0268943
16420.6	-0.0268332
16430.1	-0.0267699
16441.5	-0.0266907
16450.9	-0.0266215
16460.4	-0.0265492
16471.7	-0.0264579
16481.2	-0.0263779
16490.6	-0.0262939
16500.1	-0.0262058
16511.4	-0.0260941
16520.8	-0.025996
16530.3	-0.025893
16541.6	-0.0257627
16551	-0.0256484
16560.5	-0.0255288
16571.8	-0.025378
16581.2	-0.0252461
16590.7	-0.0251085
16600.1	-0.0249652
16611.4	-0.0247854
16620.9	-0.0246291
16630.3	-0.0244669
16641.6	-0.0242643
16651.1	-0.0240889
16660.5	-0.0239076
16671.8	-0.0236821
16681.3	-0.0234876
16690.7	-0.0232873
16700.2	-0.0230812
16711.5	-0.0228262
16720.9	-0.0226075
16730.4	-0.0223832
16741.7	-0.0221068
16751.1	-0.0218705
16760.6	-0.0216289
16771.9	-0.0213323
16781.3	-0.0210796
16790.8	-0.0208219
16800.2	-0.0205596
16811.5	-0.0202387
16820.9	-0.0199664
16830.4	-0.0196898
16841.7	-0.0193524
16851.1	-0.019067
16860.6	-0.0187777
16870	-0.0184849
16881.3	-0.0181289
16890.8	-0.0178286
16900.2	-0.0175253
16911.5	-0.0171574
16921	-0.0168479
16930.4	-0.0165358
16941.7	-0.0161582
16951.2	-0.0158412
16960.6	-0.0155222
16970	-0.0152013
16981.4	-0.0148141
16990.8	-0.0144897
17000.2	-0.0141641
17011.6	-0.0137718
17021	-0.0134438
17030.4	-0.013115
17041.7	-0.0127195
17051.2	-0.0123895
17060.6	-0.0120591
17070.1	-0.0117285
17081.4	-0.0113317
17090.8	-0.0110012
17100.2	-0.010671
17111.5	-0.0102757
17121	-0.00994714
17130.4	-0.00961948
17141.6	-0.00922788
17151	-0.00890254
17160.4	-0.00857829
17171.7	-0.00819086
17181.1	-0.00786963
17190.5	-0.00754976
17201.7	-0.0071682
17211.1	-0.00685226
17220.4	-0.00653817
17231.7	-0.00616358
17241	-0.00585343
17250.4	-0.00554527
17261.6	-0.00517823
17271	-0.00487463
17280.3	-0.00457315
17291.5	-0.00421425
17300.9	-0.00391763
17310.2	-0.0036233
17321.5	-0.0032732
17330.8	-0.00298412
17340.1	-0.00269875
17351.3	-0.00235959
17360.6	-0.00207966
17371.8	-0.00174704
17381.1	-0.00147264
17390.4	-0.00120078
17401.6	-0.000877947
17410.9	-0.000611751
17420.2	-0.000348138
17431.4	-3.5221e-05
17440.7	0.000222695
17451.8	0.000528778
17461.1	0.000781009
17470.5	0.00103067
17481.5	0.00132493
17490.7	0.0015661
17501.8	0.00185225
17511	0.00208802
17520.2	0.00232135
17531.2	0.00259819
17540.4	0.00282627
17551.5	0.00309687
17560.6	0.00331982
17571.7	0.00358433
17580.9	0.00380227
17590.1	0.00401798
17601.1	0.00427392
17610.3	0.00448483
17621.4	0.00473509
17630.6	0.00494132
17641.6	0.00518605
17650.8	0.00538773
17661.8	0.00562708
17671	0.00582433
17680.2	0.00601959
17691.3	0.0062513
17700.5	0.00644225
17711.5	0.00666883
17720.7	0.00685551
17731.7	0.00707699
17740.9	0.00725943
17750.1	0.00743994
17761.2	0.007654
17770.4	0.00783025
17781.4	0.00803916
17790.6	0.00821109
17801.6	0.00841478
17810.8	0.00858232
17820	0.00874784
17831.1	0.00894377
17840.3	0.00910477
17851.3	0.00929522
17860.5	0.00945162
17871.5	0.0096365
17880.7	0.00978821
17891.8	0.00996741
17901	0.0101144
17910.2	0.0102591
17921.2	0.0104299
17930.4	0.0105699
17941.4	0.0107349
17950.6	0.0108699
17961.7	0.011029
17970.9	0.0111592
17980.1	0.0112871
17991.1	0.0114377
18000.3	0.0115607
18011.3	0.0117054
18020.5	0.0118235
18031.6	0.0119623
18040.8	0.0120754
18051.8	0.0122082
18061	0.0123163
18070.2	0.0124222
18081.2	0.0125461
18090.4	0.0126468
18101.5	0.0127644
18110.7	0.0128598
18121.7	0.012971
18130.9	0.0130609
18140.1	0.0131482
18151.1	0.0132494
18160.3	0.0133308
18171.4	0.0134246
18180.6	0.0134997
18191.6	0.0135857
18200.8	0.0136539
18210	0.0137189
18221.1	0.0137924
18230.3	0.0138498
18241.3	0.013914
18250.5	0.0139635
18261.5	0.0140178
18270.7	0.0140589
18281.8	0.0141032
18291	0.0141358
18300.2	0.0141647
18311.2	0.0141944
18320.4	0.0142152
18331.4	0.0142356
18340.6	0.0142491
18351.7	0.0142613
18360.9	0.0142685
18370.1	0.0142732
18381.1	0.0142759
18390.3	0.014276
18401.3	0.0142738
18410.5	0.0142701
18421.6	0.0142638
18430.8	0.0142569
18441.8	0.0142469
18451	0.0142369
18460.2	0.0142253
18471.2	0.0142093
18480.4	0.0141938
18491.5	0.0141727
18500.7	0.0141526
18511.7	0.0141253
18520.9	0.0140997
18530.1	0.0140714
18541.1	0.0140336
18550.3	0.0139989
18561.4	0.0139532
18570.6	0.0139118
18581.6	0.0138581
18590.8	0.01381
18600	0.0137589
18611	0.0136938
18620.2	0.0136365
18631.3	0.0135642
18640.5	0.0135013
18651.5	0.0134226
18660.7	0.0133547
18671.7	0.0132705
18680.9	0.0131984
18690.1	0.0131245
18701.2	0.013034
18710.4	0.0129571
18721.4	0.0128634
18730.6	0.0127842
18741.7	0.0126883
18750.8	0.0126077
18760	0.0125267
18771.1	0.0124292
18780.3	0.0123479
18791.3	0.0122505
18800.5	0.0121697
18811.6	0.0120733
18820.8	0.0119936
18831.8	0.011899
18841	0.0118212
18850.2	0.0117443
18861.2	0.0116536
18870.4	0.0115794
18881.5	0.0114921
18890.7	0.0114209
18901.7	0.0113374
18910.9	0.0112695
18920.1	0.0112033
18931.1	0.0111259
18940.3	0.0110633
18951.4	0.0109904
18960.6	0.0109316
18971.6	0.0108633
18980.8	0.0108083
18991.8	0.0107447
19001	0.0106937
19010.2	0.0106444
19021.3	0.0105877
19030.5	0.0105424
19041.5	0.0104904
19050.7	0.0104491
19061.7	0.010402
19070.8	0.0103647
19081.8	0.0103221
19090.9	0.0102885
19100.1	0.0102564
19111	0.0102201
19120.2	0.0101916
19131.2	0.0101594
19140.3	0.0101342
19151.3	0.0101059
19160.4	0.0100839
19171.4	0.0100593
19180.6	0.0100404
19191.5	0.0100195
19200.7	0.0100034
19211.6	0.00998579
19220.8	0.00997237
19231.8	0.00995772
19240.9	0.00994664
19250.1	0.0099365
19261	0.00992547
19270.2	0.00991715
19281.2	0.00990808
19290.3	0.0099012
19301.3	0.00989364
19310.4	0.00988783
19321.4	0.00988132
19330.5	0.00987619
19341.5	0.00987026
19350.7	0.00986541
19361.6	0.00985953
19370.8	0.00985448
19381.8	0.00984806
19390.9	0.00984227
19400	0.00983595
19411	0.00982746
19420.2	0.00981946
19431.1	0.0098085
19440.3	0.00979804
19451.3	0.00978363
19460.4	0.00976984
19471.4	0.00975088
19480.5	0.00973284
19491.5	0.00970819
19500.6	0.00968493
19511.6	0.00965344
19520.8	0.00962399
19531.7	0.00958451
19540.9	0.00954796
19550	0.00950789
19561	0.00945493
19570.2	0.00940655
19581.1	0.00934318
19590.3	0.0092858
19601.2	0.00921128
19610.4	0.00914433
19621.4	0.00905806
19630.5	0.00898113
19641.5	0.0088827
19650.6	0.00879553
19661.6	0.0086847
19670.8	0.00858716
19681.7	0.00846389
19690.9	0.00835601
19700	0.00824346
19711	0.00810231
19720.1	0.00797968
19731.1	0.0078266
19740.3	0.00769419
19751.2	0.00752959
19760.4	0.00738778
19771.4	0.00721217
19780.5	0.00706141
19791.5	0.00687534
19800.6	0.00671611
19811.6	0.00652017
19820.7	0.00635295
19831.7	0.00614773
19840.9	0.00597303
19850	0.00579507
19861	0.00557736
19870.1	0.00539258
19881.1	0.00516693
19890.2	0.00497573
19901.2	0.00474261
19910.4	0.00454536
19921.3	0.00430517
19930.5	0.00410218
19941.5	0.00385526
19950.6	0.00364677
19961.6	0.0033934
19970.7	0.00317963
19981.7	0.00292
19990.9	0.00270108
