0	0
17.7294	0
35.4589	0
53.1883	0
70.9178	0
88.6472	0
106.377	0
124.106	0
141.836	0
159.565	0
177.294	0
195.024	0
212.753	0
230.483	0
248.212	0
265.942	0
283.671	0
301.401	0
319.13	0
336.859	0
354.589	0
372.318	1.81899e-12
390.048	7.27596e-12
407.777	2.72848e-11
425.507	9.64064e-11
443.236	3.12866e-10
460.966	9.41327e-10
478.695	2.64572e-09
496.424	6.9922e-09
514.154	1.74596e-08
531.883	4.13856e-08
549.613	9.35052e-08
567.342	2.02101e-07
585.072	4.19243e-07
602.801	8.37193e-07
620.53	1.61372e-06
638.26	3.01e-06
655.989	5.44556e-06
673.719	9.57611e-06
691.448	1.64009e-05
709.178	2.74081e-05
726.907	4.47675e-05
744.637	7.15826e-05
762.366	0.000112214
780.095	0.000172686
797.825	0.000261202
815.554	0.000388766
833.284	0.000569938
851.013	0.000823737
868.743	0.00117468
886.472	0.00165398
904.202	0.00230087
921.931	0.00316401
939.66	0.00430302
957.39	0.00578995
975.119	0.00771068
992.849	0.0101662
1010.58	0.0132735
1028.31	0.017166
1046.04	0.0219938
1063.77	0.0279226
1081.5	0.035132
1099.23	0.0438138
1116.95	0.0541674
1134.68	0.0663963
1152.41	0.080702
1170.14	0.0972779
1187.87	0.116302
1205.6	0.137928
1223.33	0.162281
1241.06	0.189442
1258.79	0.219448
1276.52	0.252279
1294.25	0.287854
1311.98	0.326024
1329.71	0.366568
1347.44	0.409195
1365.17	0.453538
1382.9	0.499161
1400.63	0.54556
1418.36	0.592172
1436.08	0.638384
1453.81	0.68354
1471.54	0.726957
1489.27	0.767937
1507	0.805782
1524.73	0.839808
1542.46	0.869361
1560.19	0.893832
1577.92	0.91267
1595.65	0.925398
1613.38	0.931617
1631.11	0.931027
1648.84	0.923422
1666.57	0.908704
1684.3	0.886882
1702.03	0.858074
1719.76	0.822502
1737.49	0.78049
1755.21	0.732457
1772.94	0.678909
1790.67	0.620427
1808.4	0.557658
1826.13	0.4913
1843.86	0.422089
1861.59	0.350789
1879.32	0.278174
1897.05	0.205015
1914.74	0.132245
1932.32	0.0608507
1949.77	-0.00844118
1967.08	-0.0749849
1984.22	-0.138216
2001.2	-0.197756
2017.99	-0.253194
2034.59	-0.304281
2050.99	-0.350886
2067.2	-0.392969
2083.24	-0.430556
2099.14	-0.463729
2114.91	-0.492602
2130.61	-0.517308
2146.25	-0.537986
2161.88	-0.554774
2177.52	-0.567809
2193.19	-0.577227
2208.76	-0.583122
2224.18	-0.585739
2239.4	-0.585367
2254.55	-0.582275
2269.64	-0.576705
2284.53	-0.568973
2299.23	-0.55937
2314.01	-0.547938
2328.97	-0.534767
2344.09	-0.520045
2359.35	-0.503953
2374.73	-0.486688
2390.23	-0.468464
2405.82	-0.449496
2421.49	-0.429989
2437.22	-0.410137
2453.02	-0.390123
2468.88	-0.370117
2484.79	-0.350276
2500.77	-0.330745
2516.78	-0.311665
2532.83	-0.293151
2548.92	-0.2753
2565.09	-0.258153
2581.33	-0.2418
2597.63	-0.226312
2613.97	-0.211745
2630.35	-0.198135
2646.76	-0.185504
2663.2	-0.173862
2679.66	-0.163208
2696.14	-0.153531
2712.64	-0.144805
2729.16	-0.137003
2745.69	-0.130086
2762.24	-0.124014
2778.8	-0.118742
2795.37	-0.114218
2811.95	-0.110392
2828.53	-0.10721
2845.08	-0.104619
2861.61	-0.102563
2878.11	-0.100983
2894.57	-0.0998247
2910.99	-0.0990342
2927.37	-0.0985591
2943.71	-0.0983505
2960.02	-0.0983624
2976.29	-0.0985519
2992.52	-0.0988792
3008.7	-0.0993074
3024.83	-0.0998031
3040.91	-0.100336
3056.94	-0.100878
3072.89	-0.101406
3088.78	-0.101898
3104.61	-0.102337
3120.38	-0.102706
3136.12	-0.102994
3151.82	-0.103188
3167.48	-0.103281
3183.13	-0.103264
3198.77	-0.103132
3214.4	-0.102879
3230.04	-0.102503
3245.69	-0.102001
3261.38	-0.10137
3277.1	-0.10061
3292.87	-0.0997214
3308.67	-0.0987052
3324.53	-0.097562
3340.43	-0.0962961
3356.36	-0.094911
3372.3	-0.0934132
3388.24	-0.0918077
3404.2	-0.0900998
3420.17	-0.0882952
3436.15	-0.0863999
3452.14	-0.0844197
3468.14	-0.0823608
3484.15	-0.0802294
3500.16	-0.0780315
3516.19	-0.0757732
3532.22	-0.0734601
3548.26	-0.0710978
3564.31	-0.0686917
3580.37	-0.0662469
3596.43	-0.0637683
3612.51	-0.0612606
3628.59	-0.0587284
3644.67	-0.0561756
3660.77	-0.0536062
3676.86	-0.0510234
3692.97	-0.0484305
3709.08	-0.0458303
3725.19	-0.0432254
3741.31	-0.040618
3757.43	-0.0380101
3773.56	-0.0354036
3789.69	-0.0328011
3805.8	-0.0302044
3821.92	-0.0276142
3838.04	-0.0250287
3854.18	-0.022449
3870.32	-0.0198757
3886.46	-0.0173091
3902.61	-0.0147492
3918.77	-0.0121955
3934.93	-0.00964754
3951.09	-0.00710407
3967.26	-0.00456351
3983.42	-0.00202363
3999.59	0.000518498
4015.77	0.00306673
4031.95	0.00562601
4048.12	0.00820254
4064.3	0.0108042
4080.49	0.0134411
4096.67	0.0161254
4112.85	0.0188726
4129.04	0.0217016
4145.22	0.0246355
4161.41	0.0277023
4177.59	0.0309358
4193.78	0.0343766
4209.96	0.038073
4226.14	0.0420821
4242.32	0.0464711
4258.49	0.0513183
4274.66	0.0567147
4290.82	0.0627651
4306.98	0.0695897
4323.12	0.0773253
4339.26	0.086127
4355.39	0.096169
4371.52	0.107645
4387.63	0.120772
4403.74	0.135782
4419.84	0.152933
4435.93	0.1725
4452.01	0.194782
4468.08	0.220097
4484.14	0.248784
4500.2	0.281195
4516.26	0.317695
4532.31	0.358656
4548.36	0.404451
4564.4	0.455455
4580.45	0.512029
4596.49	0.574521
4612.53	0.643254
4628.57	0.718519
4644.61	0.800564
4660.65	0.889587
4676.69	0.985723
4692.73	1.08904
4708.77	1.19952
4724.8	1.31706
4740.84	1.44146
4756.88	1.57242
4772.91	1.70951
4788.95	1.8522
4804.99	1.99983
4821.03	2.15163
4837.07	2.30669
4853.12	2.46399
4869.16	2.62237
4885.21	2.7806
4901.26	2.93731
4917.32	3.09107
4933.37	3.24036
4949.43	3.3836
4965.49	3.51918
4981.55	3.64544
4997.61	3.76075
5013.67	3.8635
5029.73	3.95211
5045.79	4.0251
5061.85	4.08106
5077.91	4.11871
5093.97	4.13691
5110.03	4.13465
5126.09	4.11111
5142.17	4.06559
5158.28	3.99755
5174.41	3.9067
5190.55	3.79297
5206.71	3.65657
5222.88	3.49794
5239.06	3.31776
5255.25	3.11697
5271.44	2.8967
5287.64	2.65832
5303.84	2.40341
5320.05	2.13372
5336.26	1.85116
5352.48	1.55777
5368.69	1.25571
5384.91	0.947257
5401.13	0.634723
5417.36	0.320479
5433.59	0.0069092
5449.82	-0.303619
5466.05	-0.608781
5482.28	-0.906316
5498.51	-1.19405
5514.75	-1.46993
5530.98	-1.73204
5547.22	-1.97862
5563.45	-2.20809
5579.69	-2.41905
5595.92	-2.61031
5612.14	-2.78077
5628.35	-2.92968
5644.54	-3.05659
5660.73	-3.16124
5676.9	-3.24358
5693.06	-3.3038
5709.22	-3.3422
5725.37	-3.35933
5741.51	-3.35593
5757.64	-3.33288
5773.77	-3.29125
5789.9	-3.23222
5806.01	-3.15708
5822.13	-3.06726
5838.23	-2.96423
5854.33	-2.84957
5870.43	-2.72488
5886.51	-2.59178
5902.6	-2.45192
5918.68	-2.30692
5934.75	-2.15838
5950.83	-2.00789
5966.89	-1.85691
5982.96	-1.70688
5999.02	-1.55915
6015.08	-1.41499
6031.14	-1.27554
6047.19	-1.14186
6063.25	-1.01488
6079.3	-0.895403
6095.36	-0.78413
6111.41	-0.681629
6127.47	-0.588353
6143.53	-0.50463
6159.59	-0.430674
6175.65	-0.36658
6191.71	-0.31234
6207.77	-0.267837
6223.84	-0.232864
6239.9	-0.20712
6255.97	-0.190228
6272.04	-0.181737
6288.12	-0.181133
6304.2	-0.18785
6320.27	-0.201275
6336.37	-0.220782
6352.49	-0.245717
6368.63	-0.275395
6384.78	-0.309117
6400.95	-0.346175
6417.12	-0.385867
6433.31	-0.427501
6449.51	-0.470406
6465.72	-0.513937
6481.94	-0.557476
6498.17	-0.600448
6514.4	-0.642313
6530.64	-0.682581
6546.88	-0.720807
6563.13	-0.756595
6579.39	-0.789601
6595.65	-0.819536
6611.91	-0.846161
6628.17	-0.869276
6644.42	-0.888752
6660.66	-0.904513
6676.89	-0.916525
6693.12	-0.924802
6709.34	-0.929397
6725.55	-0.930401
6741.75	-0.92794
6757.95	-0.922169
6774.14	-0.913271
6790.32	-0.90145
6806.5	-0.886931
6822.67	-0.869954
6838.83	-0.85077
6854.99	-0.829639
6871.14	-0.806825
6887.29	-0.782597
6903.44	-0.757219
6919.58	-0.730955
6935.71	-0.704061
6951.84	-0.676783
6967.97	-0.649362
6984.09	-0.622022
7000.21	-0.594974
7016.33	-0.568418
7032.45	-0.542534
7048.56	-0.517492
7064.67	-0.493439
7080.77	-0.47051
7096.87	-0.448818
7112.97	-0.428462
7129.06	-0.409521
7145.15	-0.39206
7161.24	-0.376128
7177.33	-0.361758
7193.42	-0.34897
7209.5	-0.33777
7225.58	-0.328151
7241.66	-0.320094
7257.74	-0.313572
7273.82	-0.308543
7289.9	-0.304962
7305.98	-0.302773
7322.06	-0.301913
7338.14	-0.302315
7354.22	-0.303907
7370.3	-0.306612
7386.39	-0.31035
7402.47	-0.31504
7418.56	-0.320596
7434.64	-0.326936
7450.73	-0.333973
7466.82	-0.341625
7482.91	-0.349806
7499.01	-0.358436
7515.1	-0.367432
7531.2	-0.376718
7547.3	-0.386216
7563.4	-0.395855
7579.5	-0.405565
7595.61	-0.415278
7611.71	-0.424934
7627.82	-0.434471
7643.92	-0.443836
7660.03	-0.452975
7676.14	-0.461842
7692.25	-0.47039
7708.36	-0.478579
7724.46	-0.486373
7740.56	-0.493738
7756.66	-0.500646
7772.76	-0.507071
7788.86	-0.512989
7804.95	-0.518381
7821.05	-0.523228
7837.15	-0.527518
7853.24	-0.531237
7869.33	-0.534374
7885.4	-0.53692
7901.44	-0.538872
7917.47	-0.540229
7933.5	-0.540991
7949.55	-0.541157
7965.6	-0.540725
7981.66	-0.539696
7997.73	-0.538073
8013.79	-0.535859
8029.86	-0.53306
8045.92	-0.529683
8061.98	-0.525735
8078.03	-0.521225
8094.09	-0.516159
8110.15	-0.510548
8126.21	-0.504403
8142.27	-0.497735
8158.33	-0.490558
8174.39	-0.482888
8190.45	-0.474739
8206.51	-0.46613
8222.57	-0.45708
8238.62	-0.447608
8254.68	-0.437737
8270.74	-0.427492
8286.79	-0.4169
8302.85	-0.405981
8318.91	-0.394767
8334.97	-0.383289
8351.04	-0.371579
8367.11	-0.359668
8383.18	-0.347592
8399.27	-0.335391
8415.36	-0.323103
8431.45	-0.31077
8447.54	-0.298435
8463.64	-0.286142
8479.74	-0.273934
8495.85	-0.261857
8511.96	-0.249956
8528.07	-0.238277
8544.19	-0.226866
8560.3	-0.215768
8576.43	-0.205028
8592.55	-0.194692
8608.67	-0.184801
8624.8	-0.175395
8640.94	-0.166514
8657.08	-0.158196
8673.23	-0.150476
8689.39	-0.143388
8705.56	-0.136964
8721.73	-0.131232
8737.91	-0.126219
8754.09	-0.121944
8770.27	-0.118428
8786.45	-0.115682
8802.63	-0.113718
8818.81	-0.112542
8834.98	-0.112156
8851.16	-0.112558
8867.33	-0.113743
8883.5	-0.115701
8899.67	-0.118418
8915.83	-0.121878
8931.98	-0.12606
8948.14	-0.130939
8964.28	-0.136487
8980.42	-0.142675
8996.55	-0.149468
9012.68	-0.156829
9028.8	-0.16472
9044.89	-0.173088
9060.95	-0.18189
9077	-0.191084
9093.03	-0.200625
9109.04	-0.210468
9125.05	-0.220565
9141.04	-0.230868
9157.02	-0.241329
9173	-0.2519
9188.97	-0.262534
9204.93	-0.273183
9220.89	-0.283802
9236.85	-0.294344
9252.8	-0.304766
9268.76	-0.315023
9284.71	-0.325069
9300.65	-0.334865
9316.59	-0.344375
9332.52	-0.353566
9348.46	-0.362406
9364.43	-0.370883
9380.43	-0.378963
9396.45	-0.386618
9412.49	-0.393824
9428.55	-0.40056
9444.62	-0.40681
9460.67	-0.412552
9476.72	-0.417782
9492.75	-0.422499
9508.79	-0.426704
9524.88	-0.430415
9540.99	-0.433626
9557.09	-0.43634
9573.2	-0.438575
9589.33	-0.440347
9605.48	-0.441672
9621.62	-0.442572
9637.75	-0.443069
9653.88	-0.443191
9670	-0.442966
9686.11	-0.442424
9702.21	-0.441597
9718.31	-0.440517
9734.4	-0.439217
9750.49	-0.437729
9766.56	-0.436089
9782.63	-0.43433
9798.68	-0.432486
9814.71	-0.430589
9830.74	-0.428671
9846.75	-0.426763
9862.75	-0.424895
9878.73	-0.423094
9894.69	-0.421386
9910.63	-0.419796
9926.56	-0.418345
9942.47	-0.417054
9958.36	-0.415938
9974.24	-0.415015
9990.09	-0.414294
10005.9	-0.413786
10021.7	-0.413497
10037.5	-0.413432
10053.4	-0.413591
10069.2	-0.413976
10085	-0.414581
10100.8	-0.415403
10116.7	-0.416433
10132.5	-0.41766
10148.4	-0.41907
10164.3	-0.420649
10180.2	-0.422377
10196.1	-0.424236
10212	-0.426205
10228	-0.428258
10244	-0.430378
10260	-0.432535
10276.1	-0.434701
10292.3	-0.436847
10308.4	-0.438944
10324.6	-0.44096
10340.8	-0.442866
10357.1	-0.444632
10373.3	-0.44623
10389.6	-0.447634
10405.8	-0.448817
10422.1	-0.449756
10438.4	-0.450429
10454.6	-0.450818
10470.8	-0.450906
10487.1	-0.450681
10503.3	-0.450133
10519.5	-0.449255
10535.6	-0.448043
10551.8	-0.446496
10568	-0.444617
10584.1	-0.442411
10600.2	-0.439889
10616.4	-0.437063
10632.5	-0.433948
10648.6	-0.430565
10664.7	-0.426935
10680.7	-0.423084
10696.8	-0.419038
10712.9	-0.414829
10729	-0.410491
10745.1	-0.40606
10761.2	-0.401582
10777.2	-0.397102
10793.3	-0.392664
10809.3	-0.388317
10825.4	-0.384109
10841.4	-0.380088
10857.4	-0.376304
10873.4	-0.37281
10889.4	-0.369655
10905.3	-0.36689
10921.3	-0.364564
10937.3	-0.362727
10953.2	-0.361425
10969.2	-0.360702
10985.2	-0.3606
11001.2	-0.361162
11017.3	-0.362425
11033.3	-0.364419
11049.3	-0.367172
11065.4	-0.370706
11081.5	-0.375036
11097.6	-0.38017
11113.7	-0.386112
11129.8	-0.392855
11145.9	-0.400387
11162	-0.408687
11178.1	-0.417723
11194.3	-0.427463
11210.4	-0.437865
11226.5	-0.448878
11242.7	-0.460444
11258.8	-0.472498
11274.9	-0.484974
11291.1	-0.497798
11307.2	-0.510887
11323.4	-0.524165
11339.5	-0.537546
11355.7	-0.550938
11371.8	-0.564256
11388	-0.577412
11404.1	-0.590309
11420.3	-0.602865
11436.4	-0.614988
11452.6	-0.626597
11468.7	-0.637611
11484.9	-0.647949
11501	-0.657542
11517.2	-0.666323
11533.3	-0.674229
11549.5	-0.681207
11565.6	-0.68721
11581.8	-0.692199
11597.9	-0.696142
11614	-0.699016
11630.1	-0.700805
11646.3	-0.701504
11662.4	-0.701115
11678.5	-0.699649
11694.6	-0.697125
11710.7	-0.69357
11726.7	-0.68902
11742.8	-0.683517
11758.9	-0.67711
11774.9	-0.669858
11791	-0.661823
11807.1	-0.653077
11823.1	-0.643695
11839.2	-0.633757
11855.2	-0.623349
11871.3	-0.612558
11887.3	-0.601474
11903.3	-0.590191
11919.4	-0.578803
11935.4	-0.567404
11951.5	-0.556086
11967.5	-0.54494
11983.5	-0.534053
11999.6	-0.523508
12015.7	-0.513387
12031.7	-0.503769
12047.8	-0.49472
12063.9	-0.486303
12079.9	-0.47857
12096	-0.471564
12112.1	-0.465318
12128.2	-0.459859
12144.2	-0.455203
12160.3	-0.451351
12176.4	-0.448298
12192.5	-0.446024
12208.5	-0.444504
12224.6	-0.443698
12240.7	-0.443564
12256.8	-0.444046
12256.8	-0.444051
12256.9	-0.444055
12257	-0.444058
12257.1	-0.444062
12257.2	-0.444066
12257.2	-0.44407
12257.3	-0.444074
12257.4	-0.444077
12257.5	-0.444081
12257.6	-0.444085
12257.6	-0.444089
12257.7	-0.444093
12257.8	-0.444097
12257.9	-0.444101
12257.9	-0.444105
12258	-0.444109
12258.1	-0.444112
12258.2	-0.444116
12258.3	-0.44412
12258.3	-0.444124
12258.4	-0.444128
12258.5	-0.444132
12258.6	-0.444136
12258.7	-0.44414
12258.7	-0.444144
12258.8	-0.444148
12258.9	-0.444153
12259	-0.444157
12259	-0.444161
12259.1	-0.444165
12259.2	-0.444169
12259.3	-0.444173
12259.4	-0.444177
12259.4	-0.444182
12259.5	-0.444186
12259.6	-0.44419
12259.7	-0.444194
12259.8	-0.444198
12259.8	-0.444203
12259.9	-0.444207
12260	-0.444211
12260.1	-0.444216
12260.2	-0.44422
12260.2	-0.444224
12260.3	-0.444229
12260.4	-0.444233
12260.5	-0.444237
12260.5	-0.444242
12260.6	-0.444246
12260.7	-0.444251
12260.8	-0.444255
12260.9	-0.444259
12261	-0.444265
12261.1	-0.44427
12261.8	-0.444311
12262.6	-0.444358
12263.5	-0.444412
12264.5	-0.444477
12265.8	-0.44456
12267.4	-0.44467
12269.6	-0.444828
12272.7	-0.445063
12276.5	-0.445386
12276.7	-0.445396
12276.8	-0.44541
12281.4	-0.445825
12285.9	-0.446277
12290.5	-0.446765
12290.7	-0.446793
12290.9	-0.44681
12291	-0.446825
12291.1	-0.446839
12291.3	-0.446854
12291.4	-0.446869
12291.5	-0.446884
12291.6	-0.446886
12291.6	-0.446888
12291.6	-0.44689
12291.6	-0.446891
12291.6	-0.446893
12291.6	-0.446894
12291.6	-0.446896
12291.6	-0.446898
12291.7	-0.446899
12291.7	-0.446901
12291.7	-0.446902
12291.7	-0.446904
12291.7	-0.446905
12291.7	-0.446907
12291.7	-0.446909
12291.8	-0.44691
12291.8	-0.446912
12291.8	-0.446914
12291.8	-0.446916
12291.8	-0.446917
12291.8	-0.446919
12291.9	-0.446921
12291.9	-0.446923
12291.9	-0.446925
12291.9	-0.446927
12291.9	-0.446928
12291.9	-0.44693
12292	-0.446932
12292	-0.446934
12292	-0.446936
12292	-0.446938
12292	-0.44694
12292	-0.446942
12292.1	-0.446944
12292.1	-0.446946
12292.1	-0.446948
12292.1	-0.44695
12292.1	-0.446952
12292.1	-0.446954
12292.2	-0.446956
12292.2	-0.446958
12292.2	-0.44696
12292.2	-0.446963
12292.2	-0.446965
12292.3	-0.446968
12292.3	-0.446975
12292.4	-0.446979
12292.4	-0.446982
12292.4	-0.446985
12292.5	-0.446994
12292.6	-0.447
12292.6	-0.447004
12292.7	-0.447012
12292.7	-0.447021
12292.8	-0.447026
12292.9	-0.447035
12292.9	-0.447042
12293	-0.447053
12293.1	-0.447062
12293.2	-0.447072
12293.3	-0.447083
12293.4	-0.447094
12293.5	-0.447107
12293.6	-0.44712
12293.7	-0.447133
12293.8	-0.447148
12294	-0.447164
12294.1	-0.44718
12294.3	-0.447198
12294.4	-0.447216
12294.6	-0.447235
12294.8	-0.447255
12294.9	-0.447276
12295.1	-0.447299
12295.3	-0.447322
12295.5	-0.447346
12295.6	-0.44735
12295.6	-0.447357
12295.7	-0.447363
12295.7	-0.447369
12295.8	-0.447375
12295.8	-0.447381
12295.9	-0.447387
12295.9	-0.447394
12296	-0.4474
12296	-0.447407
12296.1	-0.447414
12296.2	-0.447422
12296.2	-0.447429
12296.3	-0.447436
12296.3	-0.447437
12296.3	-0.447438
12296.3	-0.447438
12296.3	-0.447439
12296.3	-0.447439
12296.3	-0.44744
12296.3	-0.44744
12296.3	-0.447441
12296.3	-0.447441
12296.6	-0.447469
12296.8	-0.447497
12297	-0.447525
12297	-0.447526
12297	-0.447526
12297	-0.447527
12297	-0.447527
12297	-0.447528
12297.1	-0.447528
12297.1	-0.447529
12297.1	-0.447529
12297.1	-0.447529
12297.1	-0.44753
12297.1	-0.44753
12297.1	-0.447531
12297.1	-0.447531
12297.1	-0.447532
12297.1	-0.447532
12297.1	-0.447532
12297.1	-0.447533
12297.1	-0.447533
12297.1	-0.447534
12297.1	-0.447534
12297.1	-0.447535
12297.1	-0.447535
12297.1	-0.447536
12297.1	-0.447536
12297.1	-0.447536
12297.1	-0.447537
12297.1	-0.447537
12297.1	-0.447538
12297.1	-0.447538
12297.1	-0.447539
12297.2	-0.44754
12297.2	-0.447544
12297.2	-0.447547
12297.3	-0.447552
12297.3	-0.447558
12297.3	-0.447563
12297.4	-0.447569
12297.4	-0.447574
12297.5	-0.44758
12297.5	-0.447585
12297.6	-0.447591
12297.6	-0.447596
12297.7	-0.447602
12297.7	-0.447607
12297.7	-0.447613
12297.8	-0.447616
12297.8	-0.447616
12297.8	-0.447617
12297.8	-0.447617
12297.8	-0.447618
12297.8	-0.447618
12297.8	-0.447618
12297.8	-0.447619
12297.8	-0.447619
12297.8	-0.44762
12297.8	-0.44762
12297.8	-0.447621
12297.8	-0.447621
12297.8	-0.447622
12297.8	-0.447622
12297.8	-0.447623
12297.8	-0.447623
12297.8	-0.447623
12297.8	-0.447624
12297.9	-0.447634
12298	-0.447649
12298.2	-0.447665
12298.3	-0.447681
12298.4	-0.447698
12298.6	-0.447715
12298.7	-0.447733
12298.9	-0.447751
12299	-0.447769
12299.2	-0.447787
12299.3	-0.447806
12299.5	-0.447825
12299.6	-0.447843
12299.8	-0.447862
12299.9	-0.447881
12300.1	-0.4479
12300.2	-0.44792
12300.4	-0.447939
12300.5	-0.447959
12300.7	-0.447979
12300.9	-0.447999
12301	-0.44802
12301.2	-0.448042
12301.4	-0.448063
12301.4	-0.448063
12301.4	-0.448063
12301.4	-0.448063
12301.4	-0.448063
12301.4	-0.448063
12301.4	-0.448063
12301.4	-0.448063
12301.4	-0.448063
12301.4	-0.448063
12301.4	-0.448063
12301.4	-0.448063
12301.4	-0.448063
12301.4	-0.448063
12301.4	-0.448063
12301.4	-0.448063
12301.4	-0.448063
12301.4	-0.448063
12301.4	-0.448063
12301.4	-0.448063
12301.4	-0.448063
12301.4	-0.448064
12301.4	-0.448064
12301.4	-0.448064
12301.4	-0.448064
12301.4	-0.448064
12301.4	-0.448064
12301.4	-0.448064
12301.4	-0.448064
12301.4	-0.448064
12301.4	-0.448064
12301.4	-0.448064
12301.4	-0.448064
12301.4	-0.448064
12301.4	-0.448064
12301.4	-0.448064
12301.4	-0.448064
12301.4	-0.448064
12301.4	-0.448064
12301.4	-0.448064
12301.4	-0.448064
12301.4	-0.448064
12301.4	-0.448064
12301.4	-0.448064
12301.4	-0.448064
12301.4	-0.448064
12301.4	-0.448064
12301.4	-0.448064
12301.4	-0.448064
12301.4	-0.448064
12301.4	-0.448064
12301.4	-0.448064
12301.4	-0.448064
12301.4	-0.448065
12301.4	-0.448065
12301.4	-0.448065
12301.4	-0.448065
12301.4	-0.448065
12301.4	-0.448065
12301.4	-0.448065
12301.4	-0.448065
12301.4	-0.448065
12301.4	-0.448065
12301.4	-0.448065
12301.4	-0.448065
12301.4	-0.448065
12301.4	-0.448066
12301.4	-0.448066
12301.4	-0.448066
12301.4	-0.448066
12301.4	-0.448066
12301.4	-0.448066
12301.4	-0.448066
12301.4	-0.448067
12301.6	-0.448089
12301.7	-0.448111
12301.8	-0.448113
12301.8	-0.448115
12301.8	-0.448116
12301.8	-0.448117
12301.8	-0.448117
12301.8	-0.448117
12301.8	-0.448117
12301.8	-0.448117
12301.8	-0.448118
12301.8	-0.448118
12301.8	-0.448119
12301.8	-0.448119
12301.8	-0.44812
12301.8	-0.44812
12301.8	-0.448121
12301.8	-0.448122
12301.8	-0.448123
12302	-0.448138
12302.1	-0.448156
12302.2	-0.448174
12302.4	-0.448192
12302.5	-0.448211
12302.7	-0.44823
12302.8	-0.44825
12302.9	-0.44826
12303.1	-0.448284
12303.3	-0.448308
12303.5	-0.448335
12303.7	-0.448362
12303.9	-0.448392
12304.2	-0.448425
12304.4	-0.448459
12304.7	-0.448495
12305	-0.448531
12305.3	-0.448567
12305.5	-0.448604
12305.8	-0.448643
12306.1	-0.448683
12306.1	-0.448683
12306.1	-0.448683
12306.1	-0.448683
12306.1	-0.448683
12306.1	-0.448683
12306.1	-0.448683
12306.1	-0.448683
12306.1	-0.448683
12306.1	-0.448683
12306.1	-0.448683
12306.1	-0.448683
12306.1	-0.448683
12306.1	-0.448683
12306.1	-0.448683
12306.1	-0.448683
12306.1	-0.448683
12306.1	-0.448683
12306.1	-0.448683
12306.1	-0.448683
12306.1	-0.448683
12306.1	-0.448683
12306.1	-0.448683
12306.1	-0.448683
12306.1	-0.448683
12306.1	-0.448683
12306.1	-0.448683
12306.1	-0.448683
12306.1	-0.448683
12306.1	-0.448683
12306.1	-0.448683
12306.1	-0.448683
12306.1	-0.448683
12306.1	-0.448683
12306.1	-0.448683
12306.1	-0.448683
12306.1	-0.448683
12306.1	-0.448683
12306.1	-0.448683
12306.1	-0.448683
12306.1	-0.448683
12306.1	-0.448683
12306.1	-0.448683
12306.1	-0.448683
12306.1	-0.448683
12306.1	-0.448683
12306.1	-0.448683
12306.1	-0.448683
12306.1	-0.448683
12306.1	-0.448683
12306.1	-0.448683
12306.1	-0.448683
12306.1	-0.448683
12306.1	-0.448683
12306.1	-0.448683
12306.1	-0.448683
12306.1	-0.448683
12306.1	-0.448683
12306.1	-0.448683
12306.1	-0.448683
12306.1	-0.448683
12306.1	-0.448683
12306.1	-0.448683
12306.1	-0.448683
12306.1	-0.448683
12306.1	-0.448683
12306.1	-0.448683
12306.1	-0.448683
12306.1	-0.448683
12306.1	-0.448683
12306.1	-0.448683
12306.1	-0.448683
12306.1	-0.448683
12306.1	-0.448683
12306.1	-0.448683
12306.1	-0.448683
12306.1	-0.448683
12306.1	-0.448683
12306.1	-0.448683
12306.1	-0.448683
12306.1	-0.448683
12306.1	-0.448683
12306.1	-0.448683
12306.1	-0.448683
12306.1	-0.448683
12306.1	-0.448683
12306.1	-0.448683
12306.1	-0.448683
12306.1	-0.448683
12306.1	-0.448683
12306.1	-0.448683
12306.1	-0.448683
12306.1	-0.448683
12306.1	-0.448683
12306.1	-0.448683
12306.1	-0.448683
12306.1	-0.448683
12306.1	-0.448683
12306.1	-0.448683
12306.1	-0.448683
12306.1	-0.448683
12306.1	-0.448683
12310	-0.44921
12320	-0.450654
12330.1	-0.452211
12340	-0.453842
12350	-0.455548
12360.1	-0.457316
12370.1	-0.459105
12380.1	-0.460908
12390.2	-0.46273
12400.1	-0.464494
12410.3	-0.466276
12420.1	-0.467941
12430.3	-0.469604
12440.4	-0.47116
12450.4	-0.472624
12460.1	-0.473958
12470	-0.475205
12480.1	-0.47635
12490.1	-0.477374
12500	-0.478264
12510.4	-0.479057
12520.6	-0.479693
12530.4	-0.48018
12540.5	-0.480554
12550.3	-0.480791
12560.5	-0.480912
12570.3	-0.479215
12580.6	-0.41155
12590.4	0.292239
12600.5	4.40985
12610.8	19.936
12620.2	56.273
12630.8	136.955
12640.5	256.494
12650.3	417.134
12660.3	603.75
12670.4	794.63
12680.6	970.024
12690	1103.85
12700.5	1220.22
12710.6	1301.08
12720.9	1357.37
12730.6	1390.6
12740.5	1407.84
12750.8	1410.49
12760.6	1400.1
12771.3	1380.33
12780.9	1385.32
12790.4	1541.67
12801.2	2321.07
12810.7	3857.62
12820.1	5955.89
12831	8258.86
12840.9	9610.42
12851.1	10171.4
12860.3	10232
12871.4	10091.7
12881.1	9887.89
12890.8	9600.35
12900.6	9225.49
12910.5	8811
12920.4	8387.11
12930.6	7945.17
12941.1	7473.3
12950.1	7046.76
12961.3	6462.29
12970.9	5888.3
12980.7	5235.01
12990.9	4542.57
13001.3	3865.48
13011.9	3217.5
13020.5	2691.67
13031.3	1980.27
13042.1	1312.15
13050.9	840.174
13062	334.009
13071	-0.631324
13080	-275.856
13091.6	-554.559
13101	-738.639
13110.6	-897.423
13120.3	-1037.74
13130.2	-1165.18
13140.3	-1284.32
13150.6	-1398.85
13160.9	-1511.66
13171.4	-1625.31
13182	-1742.41
13190.1	-1834.15
13200.4	-1957.06
13211.6	-2096.22
13220.2	-2208.15
13231.9	-2368.11
13241.1	-2495.25
13250.4	-2626.11
13262.9	-2801.73
13272.5	-2934.23
13282.2	-3067.64
13292	-3201.34
13302	-3334.01
13312.1	-3465.1
13322.2	-3593.22
13332.5	-3715.45
13342.9	-3830.71
13353.4	-3939.41
13360.3	-4008.89
13370.6	-4103.98
13380.9	-4184.56
13391.2	-4249.73
13401.5	-4297.47
13411.8	-4331.89
13422.2	-4358.26
13432.6	-4378.81
13443.1	-4394.66
13450.2	-4403.01
13460.9	-4412.68
13471.7	-4419.39
13482.6	-4423.25
13493.6	-4423.08
13500.9	-4421.46
13512.1	-4416.25
13523.3	-4410.53
13530.8	-4406.84
13542.2	-4401.76
13553.8	-4395.42
13561.5	-4390.54
13573.3	-4383.65
13581.2	-4379.25
13593.2	-4372.85
13601.4	-4368.65
13613.7	-4362.33
13622	-4358.08
13630.4	-4353.76
13643.1	-4347.11
13651.7	-4342.54
13664.2	-4335.72
13672.9	-4330.81
13681.8	-4325.74
13690.7	-4320.51
13704.2	-4312.33
13713.3	-4306.67
13721.3	-4301.56
13730.5	-4295.58
13743.6	-4286.75
13753.9	-4279.63
13762.5	-4273.52
13771.9	-4266.77
13781.4	-4259.86
13793.7	-4250.72
13802	-4244.46
13810.9	-4237.75
13820.2	-4230.63
13834.7	-4219.43
13844.5	-4211.76
13854.3	-4203.96
13864.2	-4195.99
13874.1	-4187.77
13884.1	-4179.35
13894.1	-4170.84
13904.2	-4162.33
13914.3	-4153.93
13924.5	-4145.75
13934.7	-4137.88
13945	-4130.48
13950.2	-4127
13960.6	-4120.53
13971	-4114.71
13981.5	-4109.29
13992.1	-4101.44
14002.7	-4089.66
14013.4	-4081.34
14024.2	-4074.91
14034.9	-4069.72
14040.3	-4067.48
14051.2	-4063.49
14062.1	-4059.99
14073	-4056.81
14084	-4053.84
14095	-4050.98
14100.5	-4049.58
14111.6	-4046.8
14122.7	-4044.02
14133.8	-4041.21
14145	-4038.35
14150.6	-4036.91
14160.5	-4034.31
14171.8	-4031.31
14181.7	-4028.63
14193.1	-4025.47
14204.6	-4022.21
14210.1	-4020.61
14225.7	-4015.97
14231.5	-4014.19
14241.4	-4011.07
14251.8	-4007.73
14262.8	-4004.08
14273.5	-4000.38
14284	-3996.66
14294.4	-3992.86
14304.6	-3989.04
14315.2	-3984.92
14320.5	-3982.84
14331.3	-3978.49
14342.8	-3973.73
14350.6	-3970.45
14362.3	-3965.41
14371.1	-3961.56
14380.7	-3957.33
14394.6	-3951.06
14401	-3948.19
14414.1	-3942.14
14422.6	-3938.23
14431.2	-3934.24
14443.6	-3928.38
14451.9	-3924.44
14460	-3920.5
14472	-3914.5
14480.2	-3910.16
14495.1	-3901.43
14501.9	-3896.77
14510	-3890.42
14520	-3880.48
14530.1	-3866.83
14540.2	-3847.37
14550.2	-3818.87
14560.1	-3778.29
14570.4	-3716.33
14580.2	-3633.2
14590.2	-3519.28
14600.4	-3372.27
14610	-3204.9
14620	-3007.91
14630	-2797.06
14640.1	-2582.48
14650.2	-2374.83
14660.2	-2183.71
14670.1	-2015.17
14680.4	-1863.74
14690.1	-1744.13
14700.2	-1642.33
14710.4	-1560.5
14720.4	-1498.95
14730.7	-1451.48
14740.2	-1419.54
14750.5	-1395.95
14760.7	-1382.07
14770.7	-1375.25
14781.1	-1373.76
14791	-1376.57
14800.1	-1382.08
14810.9	-1391.62
14820.8	-1402.44
14831.1	-1415.31
14840.1	-1427.76
14850	-1442.36
14860	-1458.21
14870	-1474.83
14880	-1492
14890.1	-1509.61
14900.1	-1527.43
14910.1	-1545.5
14920.1	-1563.56
14930.1	-1581.88
14940	-1600.2
14950	-1618.53
14960	-1636.85
14970.1	-1655.15
14980	-1673.15
14990	-1691.08
15000	-1708.79
15010.1	-1726.31
15020	-1743.53
15030.2	-1760.91
15040.1	-1777.46
15050.1	-1794.08
15060.1	-1810.36
15070.4	-1826.74
15080	-1841.94
15090.4	-1858.04
15100.2	-1872.87
15110.2	-1887.77
15120.2	-1902.24
15130.1	-1916.36
15140.3	-1930.4
15150	-1943.53
15160.5	-1957.12
15170.2	-1969.38
15180.3	-1981.68
15190.3	-1993.35
15200.1	-2004.4
15210.7	-2015.77
15220.9	-2026.28
15230.7	-2035.8
15241	-2045.29
15250.6	-2053.62
15260.6	-2061.79
15271	-2069.72
15280.5	-2076.41
15290.3	-2082.82
15300.5	-2088.88
15311.1	-2094.55
15320.5	-2099.07
15330.3	-2103.24
15340.6	-2107.05
15351.3	-2110.43
15360.6	-2112.85
15370	-2114.9
15381.7	-2116.85
15391.7	-2118.04
15401.9	-2118.86
15410.3	-2119.25
15420.7	-2119.43
15431.7	-2119.3
15442.1	-2118.92
15451.3	-2118.43
15460	-2117.85
15470.1	-2117.08
15480.3	-2116.25
15490.5	-2115.38
15500	-2114.58
15510.7	-2113.74
15520.8	-2113.01
15531.3	-2112.35
15541.7	-2111.83
15551.6	-2111.47
15560.5	-2111.28
15570.4	-2111.23
15581.2	-2111.38
15590.8	-2111.69
15601.5	-2112.26
15610.6	-2112.91
15623	-2114.08
15631.9	-2115.1
15642.5	-2116.52
15652.5	-2118.03
15662.7	-2119.73
15673.2	-2121.64
15680.4	-2123.03
15691.3	-2125.27
15702.6	-2127.72
15710.2	-2129.46
15722	-2132.24
15730	-2134.23
15742.4	-2137.58
15750.8	-2140.05
15762.3	-2143.61
15771.2	-2146.44
15780.2	-2149.35
15794	-2153.69
15803.5	-2156.45
15812.2	-2158.76
15824.9	-2161.62
15832.1	-2162.92
15841.7	-2164.26
15852	-2165.15
15862.5	-2165.51
15873.3	-2165.4
15880.6	-2165.11
15890.1	-2164.56
15900.7	-2163.83
15910.7	-2163.1
15920.7	-2162.42
15931.5	-2161.91
15941.2	-2161.8
15954.1	-2162.08
15965	-2162.64
15973	-2163.21
15980.7	-2163.87
15990.9	-2164.89
16003.5	-2166.36
16015.9	-2167.99
16021.9	-2168.86
16033.9	-2170.74
16045.5	-2172.74
16051.3	-2173.82
16062.7	-2176.08
16074	-2178.47
16085.9	-2181.15
16091.7	-2182.54
16101.5	-2184.98
16112.8	-2187.94
16123.8	-2191.01
16134.6	-2194.18
16142.5	-2196.55
16155.9	-2200.81
16161.6	-2202.66
16171.3	-2205.92
16185.1	-2210.68
16193.2	-2213.55
16200.3	-2216.1
16212.9	-2220.67
16220.3	-2223.43
16234.8	-2228.9
16241.9	-2231.65
16254.3	-2236.57
16260.5	-2239.13
16270.1	-2243.16
16286.3	-2250.29
16292.7	-2253.2
16305.2	-2259.05
16311.3	-2261.98
16325.8	-2269.11
16332.9	-2272.66
16340	-2276.28
16354.7	-2283.87
16361.5	-2287.47
16376.2	-2295.27
16382.9	-2298.83
16395.8	-2305.86
16402.2	-2309.32
16414.9	-2316.29
16421.4	-2319.92
16430.9	-2325.18
16445.3	-2333.28
16450.1	-2336
16460.9	-2342.1
16470.5	-2347.6
16480.7	-2353.44
16493.4	-2360.79
16502.7	-2366.18
16513.5	-2372.5
16527.3	-2380.52
16533.5	-2384.18
16544.5	-2390.63
16550.1	-2393.92
16564.2	-2402.32
16572.6	-2407.27
16580.9	-2412.25
16591.5	-2418.66
16600.9	-2424.35
16610.2	-2430.01
16623	-2437.87
16630.8	-2442.7
16640	-2448.42
16650.1	-2454.74
16660.1	-2461.08
16670.1	-2467.51
16680.1	-2474
16690	-2480.49
16700.4	-2487.33
16710.2	-2493.88
16720.6	-2500.96
16730	-2507.41
16740.7	-2514.86
16750.1	-2521.42
16760.1	-2528.55
16770.4	-2535.92
16780.8	-2543.44
16790.1	-2550.29
16800.7	-2558.1
16810.6	-2565.48
16820.8	-2573.17
16830.2	-2580.33
16841	-2588.58
16850.1	-2595.55
16860.8	-2603.86
16870.8	-2611.63
16881.2	-2619.76
16890.7	-2627.23
16900.7	-2635.14
16911.4	-2643.57
16921	-2651.24
16931.2	-2659.36
16940.1	-2666.5
16951.4	-2675.58
16961.4	-2683.59
16971.9	-2692.04
16980.6	-2699.11
16992.1	-2708.35
17001.8	-2716.19
17012.2	-2724.67
17020.4	-2731.31
17031.8	-2740.5
17040.6	-2747.64
17052.7	-2757.5
17062.2	-2765.16
17071.1	-2772.38
17081.1	-2780.48
17091.4	-2788.77
17100.9	-2796.48
17111.8	-2805.23
17121.6	-2813.19
17133.8	-2822.96
17142.1	-2829.62
17150.3	-2836.18
17163.4	-2846.61
17172.4	-2853.72
17181.5	-2860.98
17190	-2867.69
17200.3	-2875.72
17210	-2883.33
17220.2	-2891.27
17230.1	-2898.87
17240.3	-2906.7
17250.4	-2914.45
17261.1	-2922.61
17270.6	-2929.76
17280.5	-2937.2
17290	-2944.24
17300.2	-2951.72
17310.1	-2958.92
17320.2	-2966.27
17330.8	-2973.81
17340.8	-2980.95
17351.1	-2988.19
17360.1	-2994.48
17370	-3001.4
17380.8	-3008.82
17390.7	-3015.59
17402.1	-3023.36
17410.8	-3029.17
17421.6	-3036.38
17430.5	-3042.34
17440.3	-3048.75
17450.4	-3055.4
17460.2	-3061.76
17470.6	-3068.43
17480.1	-3074.5
17490.3	-3081.04
17500.2	-3087.3
17511.1	-3094.13
17521.2	-3100.43
17532	-3107.07
17540.6	-3112.38
17551.3	-3118.9
17560.1	-3124.27
17570.3	-3130.46
17581.9	-3137.47
17593.8	-3144.54
17601	-3148.82
17613.2	-3156.09
17620.5	-3160.4
17634.9	-3168.84
17641.9	-3172.92
17653.8	-3179.83
17660.7	-3183.8
17673.8	-3191.34
17680.6	-3195.25
17693.9	-3202.84
17704	-3208.54
17713.9	-3214.15
17724.1	-3219.87
17730.5	-3223.44
17740.6	-3229.04
17753.1	-3236.02
17761.8	-3240.88
17772.8	-3247
17782.7	-3252.51
17790.2	-3256.69
17800.4	-3262.49
17810.1	-3268.03
17820.1	-3273.76
17830.2	-3279.71
17840.4	-3285.69
17850	-3291.39
17860	-3297.4
17870	-3303.47
17880.2	-3309.65
17890.2	-3315.75
17900.3	-3321.86
17910.1	-3327.74
17920.1	-3333.72
17930.1	-3339.65
17940.3	-3345.65
17950	-3351.34
17960.3	-3357.3
17970.6	-3363.28
17980.4	-3368.89
17990	-3374.41
18000	-3380.11
18010.1	-3385.85
18020.1	-3391.47
18030.2	-3397.16
18040.9	-3403.12
18051	-3408.71
18061.4	-3414.42
18070.3	-3419.31
18081	-3425.14
18090.3	-3430.16
18100.4	-3435.59
18111.1	-3441.33
18120.2	-3446.16
18132.3	-3452.53
18142.4	-3457.84
18150.2	-3461.91
18161	-3467.49
18172	-3473.15
18180.6	-3477.53
18192.6	-3483.66
18202.1	-3488.5
18212.3	-3493.6
18222.9	-3498.96
18230.3	-3502.61
18241.5	-3508.19
18253	-3513.85
18260.7	-3517.66
18272.5	-3523.42
18280.4	-3527.28
18290.2	-3532.04
18300	-3536.67
18310	-5500.36
18320	-5430.15
18330	-5294.57
18340	-nan
18350	-nan
18360.1	-nan
18370.1	-nan
18380.1	-nan
18390.2	-nan
18400.1	-nan
18410	-nan
18420.3	-nan
18430.3	-nan
18440.1	-nan
18450.5	-nan
18460.2	-nan
18470.2	-nan
18480.4	-nan
18490	-nan
18500.2	-nan
18510.3	-nan
18520.2	-nan
18530.7	-nan
18540.8	-nan
18550.6	-nan
18560.8	-nan
18570.6	-nan
18580.7	-nan
18590.3	-nan
18600.2	-nan
18610.5	-nan
18620	-nan
18631.1	-nan
18640	-nan
18650.5	-nan
18660.1	-nan
18671.3	-nan
18681.4	-nan
18690.3	-nan
18701	-nan
18710.4	-nan
18720	-nan
18731.6	-nan
18740	-nan
18750.4	-nan
18761.1	-nan
18770.2	-nan
18781.4	-nan
18790.9	-nan
18800.6	-nan
18810.6	-nan
18820.8	-nan
18831.2	-nan
18841.8	-nan
18850.5	-nan
18861.6	-nan
18870.6	-nan
18882.2	-nan
18891.6	-nan
18901.2	-nan
18910.9	-nan
18920.8	-nan
18930.9	-nan
18941.2	-nan
18951.7	-nan
18962.3	-nan
18970.4	-nan
18981.4	-nan
18991.2	-nan
19002.5	-nan
19011.2	-nan
19022.9	-nan
19031.8	-nan
19040.9	-nan
19050	-nan
19062.5	-nan
19072	-nan
19081.6	-nan
19091.3	-nan
19101	-nan
19111	-nan
19121.2	-nan
19131	-nan
19141.4	-nan
19152	-nan
19162.4	-nan
19173	-nan
19180.4	-nan
19191.5	-nan
19202.8	-nan
19210.4	-nan
19222	-nan
19233.7	-nan
19241.6	-nan
19253.7	-nan
19261.8	-nan
19274.1	-nan
19282.4	-nan
19290.8	-nan
19303.5	-nan
19312.1	-nan
19321.3	-nan
19330	-nan
19343.3	-nan
19352.2	-nan
19361.3	-nan
19370.4	-nan
19384.2	-nan
19393.5	-nan
19402.9	-nan
19412.4	-nan
19423.6	-nan
19433.3	-nan
19443.1	-nan
19453	-nan
19463	-nan
19473	-nan
19483.2	-nan
19492.3	-nan
19502.7	-nan
19513.2	-nan
19523.8	-nan
19534.5	-nan
19540.4	-nan
19551.1	-nan
19561.3	-nan
19572.1	-nan
19580	-nan
19590	-nan
19600	-nan
19610.2	-nan
19620.4	-nan
19630	-nan
19640.4	-nan
19650.3	-nan
19660.5	-nan
19670.4	-nan
19681.4	-nan
19690.3	-nan
19700.6	-nan
19710.1	-nan
19721.7	-nan
19730.6	-nan
19740.4	-nan
19750.9	-nan
19762.3	-nan
19770.4	-nan
19780	-nan
19790.1	-nan
19800	-nan
19810.5	-nan
19820.4	-nan
19830.5	-nan
19840.2	-nan
19850.7	-nan
19860.1	-nan
19870.1	-nan
19880	-nan
19890	-nan
19900	-nan
19910	-nan
19920	-nan
19930.1	-nan
19940.1	-nan
19950.3	-nan
19960	-nan
19970.1	-nan
19980	-nan
19990.4	-nan
