0	0
17.7294	0
35.4589	0
53.1883	0
70.9178	0
88.6472	0
106.377	0
124.106	0
141.836	0
159.565	0
177.294	0
195.024	0
212.753	0
230.483	0
248.212	0
265.942	0
283.671	0
301.401	0
319.13	0
336.859	0
354.589	0
372.318	0
390.048	0
407.777	0
425.507	0
443.236	0
460.966	0
478.695	0
496.424	0
514.154	0
531.883	0
549.613	0
567.342	0
585.072	0
602.801	0
620.53	0
638.26	0
655.989	0
673.719	0
691.448	0
709.178	0
726.907	0
744.637	0
762.366	0
780.095	0
797.825	0
815.554	0
833.284	0
851.013	0
868.743	0
886.472	0
904.202	0
921.931	0
939.66	0
957.39	0
975.119	0
992.849	0
1010.58	0
1028.31	0
1046.04	0
1063.77	0
1081.5	0
1099.23	0
1116.95	0
1134.68	0
1152.41	0
1170.14	0
1187.87	0
1205.6	0
1223.33	0
1241.06	0
1258.79	0
1276.52	0
1294.25	0
1311.98	-9.09495e-13
1329.71	-3.63798e-12
1347.44	-8.18545e-12
1365.17	-1.63709e-11
1382.9	-3.18323e-11
1400.63	-5.91172e-11
1418.36	-1.09139e-10
1436.08	-1.96451e-10
1453.81	-3.49246e-10
1471.54	-6.10271e-10
1489.27	-1.05047e-09
1507	-1.78261e-09
1524.73	-2.98132e-09
1542.46	-4.91582e-09
1560.19	-7.99537e-09
1577.92	-1.28348e-08
1595.65	-2.03418e-08
1613.38	-3.18432e-08
1631.11	-4.925e-08
1648.84	-7.52871e-08
1666.57	-1.13788e-07
1684.3	-1.7009e-07
1702.03	-2.51533e-07
1719.76	-3.68111e-07
1737.49	-5.3327e-07
1755.21	-7.64926e-07
1772.94	-1.0867e-06
1790.67	-1.5294e-06
1808.4	-2.13286e-06
1826.13	-2.94804e-06
1843.86	-4.03951e-06
1861.59	-5.48835e-06
1879.32	-7.3954e-06
1897.05	-9.88493e-06
1914.74	-1.31001e-05
1932.32	-1.72004e-05
1949.77	-2.23756e-05
1967.08	-2.88407e-05
1984.22	-3.68338e-05
2001.2	-4.66304e-05
2017.99	-5.85119e-05
2034.59	-7.27868e-05
2050.99	-8.97931e-05
2067.2	-0.0001099
2083.24	-0.000133514
2099.14	-0.000161085
2114.91	-0.000193116
2130.61	-0.000230172
2146.25	-0.00027288
2161.88	-0.000321938
2177.52	-0.000378104
2193.19	-0.000442195
2208.76	-0.000514258
2224.18	-0.000594563
2239.4	-0.000683222
2254.55	-0.00078133
2269.64	-0.000889263
2284.53	-0.00100635
2299.23	-0.00113252
2314.01	-0.00127034
2328.97	-0.00142108
2344.09	-0.00158484
2359.35	-0.00176166
2374.73	-0.00195126
2390.23	-0.0021529
2405.82	-0.00236547
2421.49	-0.00258747
2437.22	-0.00281696
2453.02	-0.0030515
2468.88	-0.00328802
2484.79	-0.00352284
2500.77	-0.00375148
2516.78	-0.00396854
2532.83	-0.00416793
2548.92	-0.00434264
2565.09	-0.004485
2581.33	-0.00458558
2597.63	-0.00463388
2613.97	-0.00461836
2630.35	-0.00452642
2646.76	-0.00434435
2663.2	-0.00405741
2679.66	-0.00364993
2696.14	-0.00310528
2712.64	-0.00240584
2729.16	-0.00153325
2745.69	-0.000468505
2762.24	0.000807918
2778.8	0.00231583
2795.37	0.00407511
2811.95	0.0061055
2828.53	0.00842546
2845.08	0.0110497
2861.61	0.0139943
2878.11	0.0172752
2894.57	0.0209011
2910.99	0.0248837
2927.37	0.0292328
2943.71	0.0339562
2960.02	0.0390584
2976.29	0.0445409
2992.52	0.050402
3008.7	0.0566357
3024.83	0.0632344
3040.91	0.0701847
3056.94	0.0774743
3072.89	0.0850723
3088.78	0.0929695
3104.61	0.101143
3120.38	0.109562
3136.12	0.118215
3151.82	0.12707
3167.48	0.1361
3183.13	0.145274
3198.77	0.154562
3214.4	0.163928
3230.04	0.173338
3245.69	0.182751
3261.38	0.192141
3277.1	0.20146
3292.87	0.210659
3308.67	0.219684
3324.53	0.228496
3340.43	0.237027
3356.36	0.245227
3372.3	0.253029
3388.24	0.260383
3404.2	0.267239
3420.17	0.273551
3436.15	0.279272
3452.14	0.284359
3468.14	0.288772
3484.15	0.292474
3500.16	0.295431
3516.19	0.297613
3532.22	0.298997
3548.26	0.29956
3564.31	0.299287
3580.37	0.298166
3596.43	0.296191
3612.51	0.29336
3628.59	0.289676
3644.67	0.28515
3660.77	0.279795
3676.86	0.273629
3692.97	0.266676
3709.08	0.258965
3725.19	0.250528
3741.31	0.241402
3757.43	0.231628
3773.56	0.221251
3789.69	0.210323
3805.8	0.198897
3821.92	0.187026
3838.04	0.174754
3854.18	0.162138
3870.32	0.149238
3886.46	0.136114
3902.61	0.122826
3918.77	0.109433
3934.93	0.0959953
3951.09	0.0825718
3967.26	0.06922
3983.42	0.0559959
3999.59	0.0429537
4015.77	0.0301455
4031.95	0.0176206
4048.12	0.00542659
4064.3	-0.00639269
4080.49	-0.0177965
4096.67	-0.0287472
4112.85	-0.0392113
4129.04	-0.0491586
4145.22	-0.058563
4161.41	-0.0674019
4177.59	-0.0756567
4193.78	-0.0833126
4209.96	-0.0903589
4226.14	-0.0967881
4242.32	-0.102597
4258.49	-0.107785
4274.66	-0.112357
4290.82	-0.116319
4306.98	-0.119681
4323.12	-0.122458
4339.26	-0.124665
4355.39	-0.126321
4371.52	-0.127447
4387.63	-0.128064
4403.74	-0.128199
4419.84	-0.127876
4435.93	-0.127123
4452.01	-0.125969
4468.08	-0.124441
4484.14	-0.12257
4500.2	-0.120385
4516.26	-0.117915
4532.31	-0.11519
4548.36	-0.112239
4564.4	-0.109092
4580.45	-0.105777
4596.49	-0.102322
4612.53	-0.0987535
4628.57	-0.0950979
4644.61	-0.0913804
4660.65	-0.0876249
4676.69	-0.0838543
4692.73	-0.0800902
4708.77	-0.0763528
4724.8	-0.0726609
4740.84	-0.0690321
4756.88	-0.0654822
4772.91	-0.0620261
4788.95	-0.0586767
4804.99	-0.0554459
4821.03	-0.052344
4837.07	-0.0493801
4853.12	-0.0465618
4869.16	-0.0438955
4885.21	-0.0413863
4901.26	-0.039038
4917.32	-0.0368534
4933.37	-0.0348342
4949.43	-0.0329809
4965.49	-0.0312931
4981.55	-0.0297697
4997.61	-0.0284086
5013.67	-0.0272066
5029.73	-0.0261602
5045.79	-0.0252648
5061.85	-0.0245156
5077.91	-0.0239069
5093.97	-0.0234329
5110.03	-0.0230871
5126.09	-0.0228629
5142.17	-0.0227533
5158.28	-0.0227515
5174.41	-0.0228506
5190.55	-0.0230434
5206.71	-0.0233224
5222.88	-0.0236802
5239.06	-0.0241092
5255.25	-0.0246017
5271.44	-0.0251503
5287.64	-0.0257477
5303.84	-0.0263865
5320.05	-0.0270597
5336.26	-0.0277603
5352.48	-0.0284818
5368.69	-0.0292178
5384.91	-0.0299622
5401.13	-0.0307091
5417.36	-0.031453
5433.59	-0.0321886
5449.82	-0.0329112
5466.05	-0.0336159
5482.28	-0.0342986
5498.51	-0.0349552
5514.75	-0.0355822
5530.98	-0.0361761
5547.22	-0.0367341
5563.45	-0.0372534
5579.69	-0.0377318
5595.92	-0.038167
5612.14	-0.0385572
5628.35	-0.0389007
5644.54	-0.0391967
5660.73	-0.0394442
5676.9	-0.0396428
5693.06	-0.0397919
5709.22	-0.0398914
5725.37	-0.0399412
5741.51	-0.0399416
5757.64	-0.0398927
5773.77	-0.039795
5789.9	-0.0396491
5806.01	-0.0394555
5822.13	-0.0392149
5838.23	-0.038928
5854.33	-0.0385955
5870.43	-0.038218
5886.51	-0.0377963
5902.6	-0.0373307
5918.68	-0.0368217
5934.75	-0.0362694
5950.83	-0.0356737
5966.89	-0.0350344
5982.96	-0.0343508
5999.02	-0.0336217
6015.08	-0.0328456
6031.14	-0.0320205
6047.19	-0.0311435
6063.25	-0.0302114
6079.3	-0.0292198
6095.36	-0.0281636
6111.41	-0.0270367
6127.47	-0.0258318
6143.53	-0.0245405
6159.59	-0.0231529
6175.65	-0.0216577
6191.71	-0.020042
6207.77	-0.0182909
6223.84	-0.0163878
6239.9	-0.0143139
6255.97	-0.0120481
6272.04	-0.00956714
6288.12	-0.00684498
6304.2	-0.00385304
6320.27	-0.000559909
6336.37	0.00307234
6352.49	0.00708294
6368.63	0.0115134
6384.78	0.0164082
6400.95	0.021815
6417.12	0.0277853
6433.31	0.0343737
6449.51	0.0416383
6465.72	0.0496402
6481.94	0.0584435
6498.17	0.0681149
6514.4	0.0787238
6530.64	0.0903416
6546.88	0.103041
6563.13	0.116896
6579.39	0.131982
6595.65	0.148372
6611.91	0.16614
6628.17	0.185346
6644.42	0.206055
6660.66	0.228333
6676.89	0.252238
6693.12	0.277824
6709.34	0.305138
6725.55	0.33422
6741.75	0.365101
6757.95	0.397804
6774.14	0.43234
6790.32	0.468711
6806.5	0.506903
6822.67	0.54689
6838.83	0.588633
6854.99	0.632074
6871.14	0.677143
6887.29	0.72375
6903.44	0.77179
6919.58	0.821137
6935.71	0.871654
6951.84	0.92318
6967.97	0.975536
6984.09	1.02853
7000.21	1.08195
7016.33	1.13556
7032.45	1.18913
7048.56	1.2424
7064.67	1.29508
7080.77	1.34689
7096.87	1.39755
7112.97	1.44675
7129.06	1.49419
7145.15	1.53954
7161.24	1.58251
7177.33	1.62278
7193.42	1.66004
7209.5	1.69398
7225.58	1.7243
7241.66	1.75072
7257.74	1.77298
7273.82	1.7908
7289.9	1.80396
7305.98	1.81224
7322.06	1.81543
7338.14	1.81338
7354.22	1.80593
7370.3	1.79296
7386.39	1.77441
7402.47	1.75021
7418.56	1.72034
7434.64	1.68481
7450.73	1.64369
7466.82	1.59703
7482.91	1.54497
7499.01	1.48766
7515.1	1.42528
7531.2	1.35804
7547.3	1.28621
7563.4	1.21006
7579.5	1.1299
7595.61	1.04607
7611.71	0.958919
7627.82	0.868835
7643.92	0.776214
7660.03	0.681476
7676.14	0.585052
7692.25	0.487391
7708.36	0.388947
7724.46	0.290172
7740.56	0.191511
7756.66	0.0934077
7772.76	-0.00370181
7788.86	-0.0993889
7804.95	-0.193235
7821.05	-0.284837
7837.15	-0.373807
7853.24	-0.459777
7869.33	-0.542367
7885.4	-0.621198
7901.44	-0.695994
7917.47	-0.766516
7933.5	-0.832679
7949.55	-0.894267
7965.6	-0.951092
7981.66	-1.003
7997.73	-1.04988
8013.79	-1.09165
8029.86	-1.12824
8045.92	-1.15965
8061.98	-1.1859
8078.03	-1.20706
8094.09	-1.22319
8110.15	-1.23442
8126.21	-1.24088
8142.27	-1.24271
8158.33	-1.24011
8174.39	-1.23326
8190.45	-1.2224
8206.51	-1.20775
8222.57	-1.18957
8238.62	-1.16811
8254.68	-1.14365
8270.74	-1.11647
8286.79	-1.08685
8302.85	-1.05505
8318.91	-1.02138
8334.97	-0.986115
8351.04	-0.949519
8367.11	-0.911868
8383.18	-0.873425
8399.27	-0.834449
8415.36	-0.795189
8431.45	-0.755883
8447.54	-0.716758
8463.64	-0.678024
8479.74	-0.639876
8495.85	-0.602494
8511.96	-0.566044
8528.07	-0.530672
8544.19	-0.496513
8560.3	-0.463681
8576.43	-0.432278
8592.55	-0.402387
8608.67	-0.374078
8624.8	-0.347392
8640.94	-0.322373
8657.08	-0.29904
8673.23	-0.277403
8689.39	-0.257464
8705.56	-0.23921
8721.73	-0.222622
8737.91	-0.207666
8754.09	-0.1943
8770.27	-0.182475
8786.45	-0.172133
8802.63	-0.163211
8818.81	-0.15564
8834.98	-0.149349
8851.16	-0.144262
8867.33	-0.140303
8883.5	-0.137393
8899.67	-0.135455
8915.83	-0.134411
8931.98	-0.134185
8948.14	-0.134702
8964.28	-0.13589
8980.42	-0.137682
8996.55	-0.140011
9012.68	-0.142816
9028.8	-0.14604
9044.89	-0.149623
9060.95	-0.153517
9077	-0.15768
9093.03	-0.162072
9109.04	-0.166659
9125.05	-0.17141
9141.04	-0.176301
9157.02	-0.18131
9173	-0.186419
9188.97	-0.191614
9204.93	-0.196886
9220.89	-0.202228
9236.85	-0.207637
9252.8	-0.213109
9268.76	-0.218648
9284.71	-0.224252
9300.65	-0.229926
9316.59	-0.235677
9332.52	-0.241514
9348.46	-0.247446
9364.43	-0.253494
9380.43	-0.259665
9396.45	-0.265967
9412.49	-0.272409
9428.55	-0.278998
9444.62	-0.285744
9460.67	-0.29264
9476.72	-0.299696
9492.75	-0.306917
9508.79	-0.31431
9524.88	-0.321909
9540.99	-0.329699
9557.09	-0.337659
9573.2	-0.345806
9589.33	-0.354142
9605.48	-0.362655
9621.62	-0.371332
9637.75	-0.380162
9653.88	-0.389138
9670	-0.398246
9686.11	-0.407476
9702.21	-0.416812
9718.31	-0.42624
9734.4	-0.435744
9750.49	-0.445306
9766.56	-0.454906
9782.63	-0.464524
9798.68	-0.474138
9814.71	-0.483727
9830.74	-0.493272
9846.75	-0.502749
9862.75	-0.512136
9878.73	-0.521411
9894.69	-0.530552
9910.63	-0.539535
9926.56	-0.54834
9942.47	-0.556945
9958.36	-0.565329
9974.24	-0.573471
9990.09	-0.581351
10005.9	-0.588952
10021.7	-0.596256
10037.5	-0.603248
10053.4	-0.609913
10069.2	-0.616238
10085	-0.622209
10100.8	-0.62781
10116.7	-0.633027
10132.5	-0.637845
10148.4	-0.642252
10164.3	-0.646235
10180.2	-0.649783
10196.1	-0.652889
10212	-0.655543
10228	-0.657737
10244	-0.659468
10260	-0.660728
10276.1	-0.66151
10292.3	-0.661809
10308.4	-0.661623
10324.6	-0.660953
10340.8	-0.6598
10357.1	-0.658169
10373.3	-0.656065
10389.6	-0.653496
10405.8	-0.65047
10422.1	-0.647
10438.4	-0.643102
10454.6	-0.638792
10470.8	-0.634086
10487.1	-0.629001
10503.3	-0.623555
10519.5	-0.61777
10535.6	-0.611666
10551.8	-0.605266
10568	-0.598592
10584.1	-0.591668
10600.2	-0.584518
10616.4	-0.577167
10632.5	-0.569641
10648.6	-0.561965
10664.7	-0.554166
10680.7	-0.546271
10696.8	-0.538301
10712.9	-0.530282
10729	-0.522241
10745.1	-0.514204
10761.2	-0.506207
10777.2	-0.49828
10793.3	-0.490449
10809.3	-0.482742
10825.4	-0.475183
10841.4	-0.467797
10857.4	-0.460608
10873.4	-0.453637
10889.4	-0.446909
10905.3	-0.440443
10921.3	-0.43426
10937.3	-0.42838
10953.2	-0.42282
10969.2	-0.417593
10985.2	-0.412714
11001.2	-0.408199
11017.3	-0.404062
11033.3	-0.400317
11049.3	-0.396976
11065.4	-0.394048
11081.5	-0.391541
11097.6	-0.389462
11113.7	-0.387814
11129.8	-0.386601
11145.9	-0.385823
11162	-0.385478
11178.1	-0.385565
11194.3	-0.386076
11210.4	-0.387007
11226.5	-0.388348
11242.7	-0.390089
11258.8	-0.392218
11274.9	-0.394722
11291.1	-0.397585
11307.2	-0.40079
11323.4	-0.404322
11339.5	-0.40816
11355.7	-0.412285
11371.8	-0.416676
11388	-0.421312
11404.1	-0.426168
11420.3	-0.431223
11436.4	-0.436451
11452.6	-0.44183
11468.7	-0.447334
11484.9	-0.452936
11501	-0.458615
11517.2	-0.464343
11533.3	-0.470095
11549.5	-0.475848
11565.6	-0.481576
11581.8	-0.487256
11597.9	-0.492865
11614	-0.498381
11630.1	-0.503781
11646.3	-0.509046
11662.4	-0.514155
11678.5	-0.519091
11694.6	-0.523836
11710.7	-0.528376
11726.7	-0.532696
11742.8	-0.536781
11758.9	-0.540621
11774.9	-0.544206
11791	-0.547525
11807.1	-0.550571
11823.1	-0.553337
11839.2	-0.555819
11855.2	-0.558011
11871.3	-0.559912
11887.3	-0.561521
11903.3	-0.562837
11919.4	-0.563861
11935.4	-0.564597
11951.5	-0.565047
11967.5	-0.565215
11983.5	-0.565108
11999.6	-0.56473
12015.7	-0.564089
12031.7	-0.563193
12047.8	-0.56205
12063.9	-0.56067
12079.9	-0.559062
12096	-0.557237
12112.1	-0.555204
12128.2	-0.552975
12144.2	-0.550562
12160.3	-0.547977
12176.4	-0.54523
12192.5	-0.542332
12208.5	-0.539297
12224.6	-0.536132
12240.7	-0.53285
12256.8	-0.52946
12256.8	-0.52944
12256.9	-0.529423
12257	-0.529406
12257.1	-0.529389
12257.2	-0.529372
12257.2	-0.529356
12257.3	-0.529339
12257.4	-0.529322
12257.5	-0.529305
12257.6	-0.529288
12257.6	-0.529271
12257.7	-0.529255
12257.8	-0.529238
12257.9	-0.529221
12257.9	-0.529204
12258	-0.529187
12258.1	-0.52917
12258.2	-0.529154
12258.3	-0.529137
12258.3	-0.52912
12258.4	-0.529103
12258.5	-0.529087
12258.6	-0.52907
12258.7	-0.529053
12258.7	-0.529036
12258.8	-0.529019
12258.9	-0.529002
12259	-0.528985
12259	-0.528968
12259.1	-0.528952
12259.2	-0.528935
12259.3	-0.528918
12259.4	-0.528901
12259.4	-0.528884
12259.5	-0.528867
12259.6	-0.52885
12259.7	-0.528833
12259.8	-0.528816
12259.8	-0.528799
12259.9	-0.528782
12260	-0.528765
12260.1	-0.528748
12260.2	-0.528731
12260.2	-0.528714
12260.3	-0.528697
12260.4	-0.52868
12260.5	-0.528663
12260.5	-0.528645
12260.6	-0.528628
12260.7	-0.528611
12260.8	-0.528594
12260.9	-0.528577
12261	-0.528557
12261.1	-0.528536
12261.8	-0.528381
12262.6	-0.52821
12263.5	-0.528018
12264.5	-0.527791
12265.8	-0.527515
12267.4	-0.527162
12269.6	-0.52668
12272.7	-0.526009
12276.5	-0.525156
12276.7	-0.52513
12276.8	-0.525093
12281.4	-0.524088
12285.9	-0.523075
12290.5	-0.522049
12290.7	-0.521993
12290.9	-0.521958
12291	-0.521928
12291.1	-0.5219
12291.3	-0.52187
12291.4	-0.521839
12291.5	-0.52181
12291.6	-0.521805
12291.6	-0.521801
12291.6	-0.521798
12291.6	-0.521795
12291.6	-0.521792
12291.6	-0.521789
12291.6	-0.521786
12291.6	-0.521783
12291.7	-0.521779
12291.7	-0.521776
12291.7	-0.521773
12291.7	-0.52177
12291.7	-0.521767
12291.7	-0.521763
12291.7	-0.52176
12291.8	-0.521757
12291.8	-0.521753
12291.8	-0.52175
12291.8	-0.521746
12291.8	-0.521743
12291.8	-0.521739
12291.9	-0.521736
12291.9	-0.521732
12291.9	-0.521728
12291.9	-0.521725
12291.9	-0.521721
12291.9	-0.521717
12292	-0.521713
12292	-0.521709
12292	-0.521706
12292	-0.521702
12292	-0.521698
12292	-0.521694
12292.1	-0.52169
12292.1	-0.521686
12292.1	-0.521682
12292.1	-0.521678
12292.1	-0.521674
12292.1	-0.52167
12292.2	-0.521665
12292.2	-0.521661
12292.2	-0.521657
12292.2	-0.521652
12292.2	-0.521647
12292.3	-0.521642
12292.3	-0.521627
12292.4	-0.52162
12292.4	-0.521614
12292.4	-0.521607
12292.5	-0.52159
12292.6	-0.521578
12292.6	-0.52157
12292.7	-0.521554
12292.7	-0.521537
12292.8	-0.521527
12292.9	-0.521508
12292.9	-0.521495
12293	-0.521473
12293.1	-0.521455
12293.2	-0.521436
12293.3	-0.521415
12293.4	-0.521392
12293.5	-0.521368
12293.6	-0.521343
12293.7	-0.521316
12293.8	-0.521287
12294	-0.521257
12294.1	-0.521225
12294.3	-0.521191
12294.4	-0.521155
12294.6	-0.521118
12294.8	-0.521079
12294.9	-0.521038
12295.1	-0.520996
12295.3	-0.520952
12295.5	-0.520906
12295.6	-0.520897
12295.6	-0.520884
12295.7	-0.520872
12295.7	-0.520861
12295.8	-0.520849
12295.8	-0.520838
12295.9	-0.520827
12295.9	-0.520814
12296	-0.520801
12296	-0.520789
12296.1	-0.520774
12296.2	-0.52076
12296.2	-0.520746
12296.3	-0.520732
12296.3	-0.520731
12296.3	-0.52073
12296.3	-0.520729
12296.3	-0.520728
12296.3	-0.520727
12296.3	-0.520726
12296.3	-0.520725
12296.3	-0.520724
12296.3	-0.520723
12296.6	-0.52067
12296.8	-0.520617
12297	-0.520564
12297	-0.520564
12297	-0.520563
12297	-0.520562
12297	-0.520561
12297	-0.52056
12297.1	-0.520559
12297.1	-0.520559
12297.1	-0.520558
12297.1	-0.520557
12297.1	-0.520556
12297.1	-0.520555
12297.1	-0.520554
12297.1	-0.520554
12297.1	-0.520553
12297.1	-0.520552
12297.1	-0.520551
12297.1	-0.52055
12297.1	-0.52055
12297.1	-0.520549
12297.1	-0.520548
12297.1	-0.520547
12297.1	-0.520546
12297.1	-0.520545
12297.1	-0.520545
12297.1	-0.520544
12297.1	-0.520543
12297.1	-0.520542
12297.1	-0.520541
12297.1	-0.52054
12297.1	-0.520538
12297.2	-0.520536
12297.2	-0.52053
12297.2	-0.520524
12297.3	-0.520514
12297.3	-0.520503
12297.3	-0.520493
12297.4	-0.520483
12297.4	-0.520473
12297.5	-0.520462
12297.5	-0.520452
12297.6	-0.520442
12297.6	-0.520431
12297.7	-0.520421
12297.7	-0.520411
12297.7	-0.520401
12297.8	-0.520395
12297.8	-0.520394
12297.8	-0.520393
12297.8	-0.520393
12297.8	-0.520392
12297.8	-0.520391
12297.8	-0.52039
12297.8	-0.520389
12297.8	-0.520388
12297.8	-0.520388
12297.8	-0.520387
12297.8	-0.520386
12297.8	-0.520385
12297.8	-0.520384
12297.8	-0.520383
12297.8	-0.520382
12297.8	-0.520382
12297.8	-0.520381
12297.8	-0.52038
12297.9	-0.520362
12298	-0.520333
12298.2	-0.520304
12298.3	-0.520274
12298.4	-0.520242
12298.6	-0.52021
12298.7	-0.520177
12298.9	-0.520144
12299	-0.520111
12299.2	-0.520077
12299.3	-0.520043
12299.5	-0.520009
12299.6	-0.519975
12299.8	-0.51994
12299.9	-0.519906
12300.1	-0.51987
12300.2	-0.519835
12300.4	-0.519799
12300.5	-0.519764
12300.7	-0.519727
12300.9	-0.519691
12301	-0.519653
12301.2	-0.519614
12301.4	-0.519576
12301.4	-0.519576
12301.4	-0.519576
12301.4	-0.519576
12301.4	-0.519576
12301.4	-0.519576
12301.4	-0.519576
12301.4	-0.519576
12301.4	-0.519575
12301.4	-0.519575
12301.4	-0.519575
12301.4	-0.519575
12301.4	-0.519575
12301.4	-0.519575
12301.4	-0.519575
12301.4	-0.519575
12301.4	-0.519575
12301.4	-0.519575
12301.4	-0.519575
12301.4	-0.519575
12301.4	-0.519575
12301.4	-0.519575
12301.4	-0.519575
12301.4	-0.519575
12301.4	-0.519575
12301.4	-0.519575
12301.4	-0.519575
12301.4	-0.519575
12301.4	-0.519575
12301.4	-0.519575
12301.4	-0.519575
12301.4	-0.519575
12301.4	-0.519575
12301.4	-0.519575
12301.4	-0.519575
12301.4	-0.519575
12301.4	-0.519575
12301.4	-0.519575
12301.4	-0.519574
12301.4	-0.519574
12301.4	-0.519574
12301.4	-0.519574
12301.4	-0.519574
12301.4	-0.519574
12301.4	-0.519574
12301.4	-0.519574
12301.4	-0.519574
12301.4	-0.519574
12301.4	-0.519574
12301.4	-0.519574
12301.4	-0.519574
12301.4	-0.519573
12301.4	-0.519573
12301.4	-0.519573
12301.4	-0.519573
12301.4	-0.519573
12301.4	-0.519573
12301.4	-0.519573
12301.4	-0.519573
12301.4	-0.519573
12301.4	-0.519573
12301.4	-0.519572
12301.4	-0.519572
12301.4	-0.519572
12301.4	-0.519572
12301.4	-0.519571
12301.4	-0.519571
12301.4	-0.519571
12301.4	-0.519571
12301.4	-0.519571
12301.4	-0.51957
12301.4	-0.51957
12301.4	-0.51957
12301.4	-0.519569
12301.6	-0.51953
12301.7	-0.51949
12301.8	-0.519485
12301.8	-0.519482
12301.8	-0.519481
12301.8	-0.51948
12301.8	-0.51948
12301.8	-0.519479
12301.8	-0.519479
12301.8	-0.519478
12301.8	-0.519477
12301.8	-0.519477
12301.8	-0.519476
12301.8	-0.519475
12301.8	-0.519474
12301.8	-0.519473
12301.8	-0.519472
12301.8	-0.519471
12301.8	-0.519469
12302	-0.519441
12302.1	-0.519409
12302.2	-0.519377
12302.4	-0.519345
12302.5	-0.519312
12302.7	-0.519278
12302.8	-0.519241
12302.9	-0.519224
12303.1	-0.519183
12303.3	-0.519139
12303.5	-0.519091
12303.7	-0.519044
12303.9	-0.518991
12304.2	-0.518934
12304.4	-0.518874
12304.7	-0.518812
12305	-0.518749
12305.3	-0.518686
12305.5	-0.518622
12305.8	-0.518555
12306.1	-0.518486
12306.1	-0.518486
12306.1	-0.518486
12306.1	-0.518486
12306.1	-0.518486
12306.1	-0.518486
12306.1	-0.518486
12306.1	-0.518486
12306.1	-0.518486
12306.1	-0.518486
12306.1	-0.518486
12306.1	-0.518486
12306.1	-0.518486
12306.1	-0.518486
12306.1	-0.518486
12306.1	-0.518486
12306.1	-0.518486
12306.1	-0.518486
12306.1	-0.518486
12306.1	-0.518486
12306.1	-0.518486
12306.1	-0.518486
12306.1	-0.518486
12306.1	-0.518486
12306.1	-0.518486
12306.1	-0.518486
12306.1	-0.518486
12306.1	-0.518486
12306.1	-0.518486
12306.1	-0.518486
12306.1	-0.518486
12306.1	-0.518486
12306.1	-0.518486
12306.1	-0.518486
12306.1	-0.518486
12306.1	-0.518486
12306.1	-0.518486
12306.1	-0.518486
12306.1	-0.518486
12306.1	-0.518486
12306.1	-0.518486
12306.1	-0.518486
12306.1	-0.518486
12306.1	-0.518486
12306.1	-0.518486
12306.1	-0.518486
12306.1	-0.518486
12306.1	-0.518486
12306.1	-0.518486
12306.1	-0.518486
12306.1	-0.518486
12306.1	-0.518486
12306.1	-0.518486
12306.1	-0.518486
12306.1	-0.518486
12306.1	-0.518486
12306.1	-0.518486
12306.1	-0.518486
12306.1	-0.518486
12306.1	-0.518486
12306.1	-0.518486
12306.1	-0.518486
12306.1	-0.518486
12306.1	-0.518486
12306.1	-0.518486
12306.1	-0.518486
12306.1	-0.518486
12306.1	-0.518486
12306.1	-0.518486
12306.1	-0.518486
12306.1	-0.518486
12306.1	-0.518486
12306.1	-0.518486
12306.1	-0.518486
12306.1	-0.518486
12306.1	-0.518486
12306.1	-0.518486
12306.1	-0.518486
12306.1	-0.518486
12306.1	-0.518486
12306.1	-0.518486
12306.1	-0.518486
12306.1	-0.518486
12306.1	-0.518486
12306.1	-0.518486
12306.1	-0.518486
12306.1	-0.518486
12306.1	-0.518486
12306.1	-0.518486
12306.1	-0.518486
12306.1	-0.518486
12306.1	-0.518486
12306.1	-0.518486
12306.1	-0.518486
12306.1	-0.518486
12306.1	-0.518486
12306.1	-0.518486
12306.1	-0.518486
12306.1	-0.518486
12306.1	-0.518486
12306.1	-0.518486
12306.1	-0.518486
12310	-0.517592
12320	-0.515271
12330.1	-0.512913
12340	-0.510554
12350	-0.508164
12360.1	-0.50574
12370.1	-0.503312
12380.1	-0.500869
12390.2	-0.49838
12400.1	-0.49593
12410.3	-0.493393
12420.1	-0.49094
12430.3	-0.48838
12440.4	-0.485856
12450.4	-0.483326
12460.1	-0.480847
12470	-0.478323
12480.1	-0.475765
12490.1	-0.473195
12500	-0.470638
12510.4	-0.467957
12520.6	-0.465337
12530.4	-0.462797
12540.5	-0.460158
12550.3	-0.457607
12560.5	-0.454945
12570.3	-0.452375
12580.6	-0.449667
12590.4	-0.447058
12600.5	-0.444382
12610.8	-0.441657
12620.2	-0.439137
12630.8	-0.436314
12640.5	-0.433702
12650.3	-0.431045
12660.3	-0.428341
12670.4	-0.42559
12680.6	-0.422785
12690	-0.420209
12700.5	-0.417311
12710.6	-0.41451
12720.9	-0.411631
12730.6	-0.408896
12740.5	-0.406113
12750.8	-0.403192
12760.6	-0.400387
12771.3	-0.397328
12780.9	-0.394573
12790.4	-0.391815
12801.2	-0.388656
12810.7	-0.385891
12820.1	-0.383124
12831	-0.379898
12840.9	-0.376974
12851.1	-0.373928
12860.3	-0.371191
12871.4	-0.367834
12881.1	-0.364914
12890.8	-0.361983
12900.6	-0.359028
12910.5	-0.356039
12920.4	-0.353018
12930.6	-0.349927
12941.1	-0.346731
12950.1	-0.343986
12961.3	-0.340592
12970.9	-0.337675
12980.7	-0.334679
12990.9	-0.331607
13001.3	-0.328469
13011.9	-0.325284
13020.5	-0.322725
13031.3	-0.31953
13042.1	-0.316328
13050.9	-0.313756
13062	-0.310539
13071	-0.30797
13080	-0.305396
13091.6	-0.302159
13101	-0.29955
13110.6	-0.29693
13120.3	-0.294302
13130.2	-0.291671
13140.3	-0.289047
13150.6	-0.286437
13160.9	-0.283852
13171.4	-0.281298
13182	-0.278776
13190.1	-0.276906
13200.4	-0.27456
13211.6	-0.272114
13220.2	-0.270291
13231.9	-0.267876
13241.1	-0.266075
13250.4	-0.264302
13262.9	-0.262008
13272.5	-0.260345
13282.2	-0.258736
13292	-0.257183
13302	-0.25569
13312.1	-0.254262
13322.2	-0.252907
13332.5	-0.251628
13342.9	-0.250426
13353.4	-0.249312
13360.3	-0.248625
13370.6	-0.247675
13380.9	-0.246816
13391.2	-0.246044
13401.5	-0.245352
13411.8	-0.244735
13422.2	-0.244184
13432.6	-0.243685
13443.1	-0.24322
13450.2	-0.242915
13460.9	-0.242433
13471.7	-0.241862
13482.6	-0.241106
13493.6	-0.240014
13500.9	-0.238992
13512.1	-0.236776
13523.3	-0.233316
13530.8	-0.229984
13542.2	-0.222714
13553.8	-0.211432
13561.5	-0.200675
13573.3	-0.17749
13581.2	-0.155539
13593.2	-0.108541
13601.4	-0.0642966
13613.7	0.0299168
13622	0.11802
13630.4	0.233548
13643.1	0.477019
13651.7	0.703055
13664.2	1.15644
13672.9	1.59283
13681.8	2.16853
13690.7	2.93751
13704.2	4.66015
13713.3	6.46157
13721.3	8.85252
13730.5	13.3122
13743.6	27.1426
13753.9	53.4956
13762.5	100.764
13771.9	207.758
13781.4	430.184
13793.7	1025.61
13802	1679.34
13810.9	2561.97
13820.2	3583.4
13834.7	5049.09
13844.5	5830.86
13854.3	6428.29
13864.2	6858.71
13874.1	7150.6
13884.1	7333.19
13894.1	7431.96
13904.2	7467.74
13914.3	7456.94
13924.5	7412.27
13934.7	7343.38
13945	7257.51
13950.2	7209.93
13960.6	7108.04
13971	6999.71
13981.5	6887.15
13992.1	6771.85
14002.7	6654.82
14013.4	6536.82
14024.2	6418.48
14034.9	6300.13
14040.3	6241.03
14051.2	6123.06
14062.1	6005.52
14073	5888.52
14084	5772.3
14095	5656.94
14100.5	5599.59
14111.6	5485.58
14122.7	5372.5
14133.8	5260.38
14145	5149.23
14150.6	5094.02
14160.5	4997.11
14171.8	4888.24
14181.7	4794.27
14193.1	4687.17
14204.6	4581.02
14210.1	4530.51
14225.7	4389.67
14231.5	4338.02
14241.4	4250.11
14251.8	4159.8
14262.8	4065.48
14273.5	3974.44
14284	3886.66
14294.4	3800.97
14304.6	3718.31
14315.2	3633.09
14320.5	3591.22
14331.3	3506.42
14342.8	3417.33
14350.6	3357.94
14362.3	3269.53
14371.1	3204.08
14380.7	3134.01
14394.6	3033.3
14401	2988.34
14414.1	2895.6
14422.6	2837
14431.2	2778.48
14443.6	2694.25
14451.9	2639.27
14460	2585.74
14472	2507.9
14480.2	2455.13
14495.1	2361.33
14501.9	2318.72
14510	2268.97
14520	2207.98
14530.1	2147.26
14540.2	2087.42
14550.2	2028.32
14560.1	1971.55
14570.4	1912.53
14580.2	1856.92
14590.2	1800.8
14600.4	1744.81
14610	1692.33
14620	1638.35
14630	1584.95
14640.1	1531.9
14650.2	1479.3
14660.2	1427.58
14670.1	1376.99
14680.4	1324.88
14690.1	1276.49
14700.2	1226.88
14710.4	1176.77
14720.4	1128.3
14730.7	1079.01
14740.2	1033.78
14750.5	985.088
14760.7	937.716
14770.7	891.597
14781.1	843.79
14791	799.124
14800.1	758.329
14810.9	709.882
14820.8	666.218
14831.1	621.419
14840.1	582.104
14850	539.499
14860	496.763
14870	454.361
14880	412.272
14890.1	370.386
14900.1	328.942
14910.1	287.747
14920.1	247.304
14930.1	206.911
14940	167.005
14950	127.421
14960	88.0425
14970.1	48.8069
14980	10.2006
14990	-28.3031
15000	-66.4378
15010.1	-104.263
15020	-141.604
15030.2	-179.472
15040.1	-215.737
15050.1	-252.382
15060.1	-288.489
15070.4	-325.076
15080	-359.275
15090.4	-395.793
15100.2	-429.71
15110.2	-464.134
15120.2	-497.953
15130.1	-531.395
15140.3	-565.157
15150	-597.269
15160.5	-631.147
15170.2	-662.374
15180.3	-694.384
15190.3	-725.482
15200.1	-755.71
15210.7	-787.689
15220.9	-818.242
15230.7	-846.876
15241	-876.504
15250.6	-903.596
15260.6	-931.328
15271	-959.637
15280.5	-984.824
15290.3	-1010.34
15300.5	-1036.1
15311.1	-1062.03
15320.5	-1084.39
15330.3	-1106.97
15340.6	-1129.83
15351.3	-1152.81
15360.6	-1171.79
15370	-1190.44
15381.7	-1212.18
15391.7	-1229.67
15401.9	-1246.48
15410.3	-1259.35
15420.7	-1274.09
15431.7	-1288.2
15442.1	-1300.01
15451.3	-1309.22
15460	-1316.83
15470.1	-1324.21
15480.3	-1329.98
15490.5	-1334.14
15500	-1336.47
15510.7	-1337.27
15520.8	-1336.26
15531.3	-1333.38
15541.7	-1328.7
15551.6	-1322.66
15560.5	-1315.97
15570.4	-1307.17
15581.2	-1296.05
15590.8	-1284.96
15601.5	-1271.3
15610.6	-1258.81
15623	-1240.74
15631.9	-1227.17
15642.5	-1210.48
15652.5	-1194.59
15662.7	-1178.22
15673.2	-1161.58
15680.4	-1150.42
15691.3	-1133.74
15702.6	-1117.29
15710.2	-1106.57
15722	-1090.98
15730	-1081.01
15742.4	-1066.84
15750.8	-1058.01
15762.3	-1047.11
15771.2	-1039.67
15780.2	-1032.92
15794	-1024.19
15803.5	-1019.37
15812.2	-1015.74
15824.9	-1011.81
15832.1	-1010.3
15841.7	-1009.03
15852	-1008.65
15862.5	-1009.23
15873.3	-1010.81
15880.6	-1012.43
15890.1	-1015.17
15900.7	-1019.03
15910.7	-1023.46
15920.7	-1028.51
15931.5	-1034.76
15941.2	-1040.96
15954.1	-1050.03
15965	-1058.43
15973	-1064.97
15980.7	-1071.6
15990.9	-1080.73
16003.5	-1092.68
16015.9	-1104.99
16021.9	-1111.21
16033.9	-1123.94
16045.5	-1136.59
16051.3	-1143.12
16062.7	-1156.27
16074	-1169.55
16085.9	-1183.79
16091.7	-1190.91
16101.5	-1203.02
16112.8	-1217.14
16123.8	-1231.19
16134.6	-1245.14
16142.5	-1255.26
16155.9	-1272.84
16161.6	-1280.31
16171.3	-1293.19
16185.1	-1311.46
16193.2	-1322.28
16200.3	-1331.79
16212.9	-1348.62
16220.3	-1358.61
16234.8	-1378.01
16241.9	-1387.49
16254.3	-1404.03
16260.5	-1412.35
16270.1	-1425.1
16286.3	-1446.61
16292.7	-1455.02
16305.2	-1471.39
16311.3	-1479.35
16325.8	-1498.17
16332.9	-1507.28
16340	-1516.4
16354.7	-1535.06
16361.5	-1543.7
16376.2	-1562.05
16382.9	-1570.26
16395.8	-1586.17
16402.2	-1593.89
16414.9	-1609.18
16421.4	-1617
16430.9	-1628.19
16445.3	-1645.05
16450.1	-1650.62
16460.9	-1662.95
16470.5	-1673.86
16480.7	-1685.25
16493.4	-1699.32
16502.7	-1709.46
16513.5	-1721.16
16527.3	-1735.72
16533.5	-1742.27
16544.5	-1753.62
16550.1	-1759.34
16564.2	-1773.68
16572.6	-1781.99
16580.9	-1790.21
16591.5	-1800.59
16600.9	-1809.66
16610.2	-1818.49
16623	-1830.5
16630.8	-1837.74
16640	-1846.16
16650.1	-1855.27
16660.1	-1864.23
16670.1	-1873.12
16680.1	-1881.89
16690	-1890.48
16700.4	-1899.34
16710.2	-1907.63
16720.6	-1916.4
16730	-1924.22
16740.7	-1933.07
16750.1	-1940.7
16760.1	-1948.85
16770.4	-1957.12
16780.8	-1965.4
16790.1	-1972.83
16800.7	-1981.18
16810.6	-1988.94
16820.8	-1996.92
16830.2	-2004.27
16841	-2012.65
16850.1	-2019.65
16860.8	-2027.93
16870.8	-2035.61
16881.2	-2043.58
16890.7	-2050.86
16900.7	-2058.53
16911.4	-2066.66
16921	-2074.03
16931.2	-2081.81
16940.1	-2088.64
16951.4	-2097.29
16961.4	-2104.92
16971.9	-2112.95
16980.6	-2119.66
16992.1	-2128.44
17001.8	-2135.88
17012.2	-2143.93
17020.4	-2150.24
17031.8	-2158.97
17040.6	-2165.78
17052.7	-2175.19
17062.2	-2182.51
17071.1	-2189.43
17081.1	-2197.18
17091.4	-2205.15
17100.9	-2212.57
17111.8	-2221.01
17121.6	-2228.71
17133.8	-2238.19
17142.1	-2244.67
17150.3	-2251.08
17163.4	-2261.29
17172.4	-2268.3
17181.5	-2275.47
17190	-2282.12
17200.3	-2290.12
17210	-2297.75
17220.2	-2305.75
17230.1	-2313.46
17240.3	-2321.42
17250.4	-2329.34
17261.1	-2337.72
17270.6	-2345.13
17280.5	-2352.91
17290	-2360.35
17300.2	-2368.32
17310.1	-2376.05
17320.2	-2384.03
17330.8	-2392.29
17340.8	-2400.17
17351.1	-2408.24
17360.1	-2415.31
17370	-2423.16
17380.8	-2431.65
17390.7	-2439.47
17402.1	-2448.54
17410.8	-2455.39
17421.6	-2463.97
17430.5	-2471.14
17440.3	-2478.91
17450.4	-2487.07
17460.2	-2494.94
17470.6	-2503.28
17480.1	-2510.96
17490.3	-2519.31
17500.2	-2527.4
17511.1	-2536.3
17521.2	-2544.63
17532	-2553.49
17540.6	-2560.63
17551.3	-2569.51
17560.1	-2576.89
17570.3	-2585.47
17581.9	-2595.28
17593.8	-2605.3
17601	-2611.42
17613.2	-2621.9
17620.5	-2628.17
17634.9	-2640.56
17641.9	-2646.62
17653.8	-2656.93
17660.7	-2662.92
17673.8	-2674.36
17680.6	-2680.34
17693.9	-2692.06
17704	-2700.91
17713.9	-2709.72
17724.1	-2718.75
17730.5	-2724.41
17740.6	-2733.33
17753.1	-2744.46
17761.8	-2752.23
17772.8	-2762.03
17782.7	-2770.87
17790.2	-2777.58
17800.4	-2786.76
17810.1	-2795.43
17820.1	-2804.28
17830.2	-2813.37
17840.4	-2822.43
17850	-2830.97
17860	-2839.88
17870	-2848.77
17880.2	-2857.73
17890.2	-2866.57
17900.3	-2875.44
17910.1	-2884.03
17920.1	-2892.79
17930.1	-2901.5
17940.3	-2910.35
17950	-2918.75
17960.3	-2927.56
17970.6	-2936.4
17980.4	-2944.71
17990	-2952.86
18000	-2961.28
18010.1	-2969.73
18020.1	-2978.01
18030.2	-2986.39
18040.9	-2995.13
18051	-3003.33
18061.4	-3011.69
18070.3	-3018.83
18081	-3027.34
18090.3	-3034.64
18100.4	-3042.52
18111.1	-3050.82
18120.2	-3057.79
18132.3	-3066.94
18142.4	-3074.52
18150.2	-3080.29
18161	-3088.16
18172	-3096.04
18180.6	-3102.07
18192.6	-3110.33
18202.1	-3116.69
18212.3	-3123.2
18222.9	-3129.79
18230.3	-3134.1
18241.5	-3140.35
18253	-3146.23
18260.7	-3149.87
18272.5	-3154.84
18280.4	-3157.77
18290.2	-3160.9
18300	-3163.48
18310	-3165.5
18320	-3166.91
18330	-3167.72
18340	-3167.97
18350	-3167.68
18360.1	-3166.93
18370.1	-3165.81
18380.1	-3164.39
18390.2	-3162.79
18400.1	-3161.15
18410	-3159.55
18420.3	-3158.09
18430.3	-3156.97
18440.1	-3156.27
18450.5	-3156.07
18460.2	-3156.48
18470.2	-3157.59
18480.4	-3159.51
18490	-3162.09
18500.2	-3165.7
18510.3	-3170.16
18520.2	-3175.42
18530.7	-3181.9
18540.8	-3189.11
18550.6	-3196.86
18560.8	-3205.82
18570.6	-3215.09
18580.7	-3225.5
18590.3	-3235.91
18600.2	-3247.35
18610.5	-3259.84
18620	-3271.86
18631.1	-3286.41
18640	-3298.39
18650.5	-3313.01
18660.1	-3326.5
18671.3	-3342.71
18681.4	-3357.58
18690.3	-3370.81
18701	-3386.81
18710.4	-3400.99
18720	-3415.59
18731.6	-3433.12
18740	-3445.96
18750.4	-3461.71
18761.1	-3477.79
18770.2	-3491.45
18781.4	-3508.11
18790.9	-3522.2
18800.6	-3536.45
18810.6	-3550.86
18820.8	-3565.39
18831.2	-3580.02
18841.8	-3594.71
18850.5	-3606.48
18861.6	-3621.19
18870.6	-3632.92
18882.2	-3647.49
18891.6	-3659.04
18901.2	-3670.46
18910.9	-3681.71
18920.8	-3692.73
18930.9	-3703.49
18941.2	-3713.94
18951.7	-3724
18962.3	-3733.62
18970.4	-3740.5
18981.4	-3749.16
18991.2	-3756.21
19002.5	-3763.59
19011.2	-3768.61
19022.9	-3774.53
19031.8	-3778.36
19040.9	-3781.62
19050	-3784.29
19062.5	-3786.9
19072	-3788.11
19081.6	-3788.68
19091.3	-3788.61
19101	-3787.93
19111	-3786.63
19121.2	-3784.76
19131	-3782.49
19141.4	-3779.64
19152	-3776.4
19162.4	-3772.95
19173	-3769.24
19180.4	-3766.63
19191.5	-3762.69
19202.8	-3758.77
19210.4	-3756.22
19222	-3752.58
19233.7	-3749.24
19241.6	-3747.22
19253.7	-3744.57
19261.8	-3743.09
19274.1	-3741.35
19282.4	-3740.53
19290.8	-3740
19303.5	-3739.76
19312.1	-3739.98
19321.3	-3740.56
19330	-3741.42
19343.3	-3743.29
19352.2	-3744.92
19361.3	-3746.85
19370.4	-3749.06
19384.2	-3752.9
19393.5	-3755.79
19402.9	-3758.93
19412.4	-3762.3
19423.6	-3766.52
19433.3	-3770.36
19443.1	-3774.38
19453	-3778.58
19463	-3782.94
19473	-3787.44
19483.2	-3792.06
19492.3	-3796.28
19502.7	-3801.1
19513.2	-3806
19523.8	-3810.97
19534.5	-3816
19540.4	-3818.8
19551.1	-3823.77
19561.3	-3828.5
19572.1	-3833.42
19580	-3837.02
19590	-3841.49
19600	-3845.89
19610.2	-3850.27
19620.4	-3854.59
19630	-3858.58
19640.4	-3862.76
19650.3	-3866.62
19660.5	-3870.51
19670.4	-3874.14
19681.4	-3878.01
19690.3	-3881.06
19700.6	-3884.43
19710.1	-3887.39
19721.7	-3890.87
19730.6	-3893.39
19740.4	-3896.04
19750.9	-3898.74
19762.3	-3901.48
19770.4	-3903.33
19780	-3905.38
19790.1	-3907.39
19800	-3909.23
19810.5	-3911
19820.4	-3912.54
19830.5	-3913.97
19840.2	-3915.19
19850.7	-3916.39
19860.1	-3917.34
19870.1	-3918.23
19880	-3919
19890	-3919.65
19900	-3920.16
19910	-3920.55
19920	-3920.82
19930.1	-3920.96
19940.1	-3920.96
19950.3	-3920.78
19960	-3920.42
19970.1	-3919.82
19980	-3918.96
19990.4	-3917.74
