0	0
17.7294	0
26.5942	0
35.4589	0
44.3236	0
53.1883	0
62.053	0
70.9178	0
88.6472	0
97.5119	0
106.377	0
115.241	0
124.106	0
132.971	0
141.836	0
150.7	0
168.43	0
177.294	0
186.159	0
195.024	0
203.889	0
212.753	0
221.618	0
230.483	0
248.212	0
257.077	0
265.942	0
274.806	0
283.671	0
292.536	0
301.401	0
310.265	0
327.995	0
336.859	0
345.724	0
354.589	0
363.454	0
372.318	0
381.183	0
390.048	0
407.777	0
416.642	0
425.507	0
434.371	0
443.236	0
452.101	0
460.966	0
478.695	0
487.56	0
496.424	0
505.289	0
514.154	0
523.019	0
531.883	0
540.748	0
558.477	0
567.342	0
576.207	0
585.072	0
593.936	0
602.801	0
611.666	0
620.53	0
638.26	0
647.125	0
655.989	0
664.854	0
673.719	0
682.584	0
691.448	0
700.313	0
718.042	0
726.907	0
735.772	0
744.637	0
753.501	0
762.366	0
771.231	0
780.095	0
797.825	0
806.69	0
815.554	0
824.419	0
833.284	0
842.149	0
851.013	0
868.743	0
877.607	0
886.472	0
895.337	0
904.202	0
913.066	0
921.931	0
930.796	0
948.525	0
957.39	0
966.255	0
975.119	0
983.984	0
992.849	0
1001.71	0
1010.58	0
1028.31	0
1037.17	0
1046.04	0
1054.9	0
1063.77	0
1072.63	0
1081.5	0
1090.36	0
1108.09	0
1116.95	0
1125.82	0
1134.68	0
1143.55	0
1152.41	0
1161.28	0
1170.14	0
1187.87	0
1196.74	0
1205.6	0
1214.47	0
1223.33	0
1232.2	0
1241.06	0
1258.79	0
1267.66	0
1276.52	0
1285.38	-9.09495e-13
1294.25	-1.81899e-12
1303.11	-2.72848e-12
1311.98	-3.63798e-12
1320.84	-4.54747e-12
1338.57	-8.18545e-12
1347.44	-1.09139e-11
1356.3	-1.45519e-11
1365.17	-1.90994e-11
1374.03	-2.54659e-11
1382.9	-3.45608e-11
1391.76	-4.63842e-11
1400.63	-6.18456e-11
1418.36	-1.10049e-10
1427.22	-1.45519e-10
1436.08	-1.91903e-10
1444.95	-2.51021e-10
1453.81	-3.28328e-10
1462.68	-4.27463e-10
1471.54	-5.55701e-10
1480.41	-7.1941e-10
1498.14	-1.19417e-09
1507	-1.53068e-09
1515.87	-1.95723e-09
1524.73	-2.49383e-09
1533.6	-3.16868e-09
1542.46	-4.01451e-09
1551.33	-5.07134e-09
1560.19	-6.38738e-09
1577.92	-1.00472e-08
1586.79	-1.25483e-08
1595.65	-1.56278e-08
1604.51	-1.94113e-08
1613.38	-2.40461e-08
1622.24	-2.97077e-08
1631.11	-3.66072e-08
1648.84	-5.51554e-08
1657.7	-6.74454e-08
1666.57	-8.22683e-08
1675.43	-1.00103e-07
1684.3	-1.21508e-07
1693.16	-1.47135e-07
1702.03	-1.77745e-07
1710.89	-2.14221e-07
1728.62	-3.09015e-07
1737.49	-3.69878e-07
1746.35	-4.41739e-07
1755.21	-5.26395e-07
1764.08	-6.25904e-07
1772.94	-7.42619e-07
1781.81	-8.79217e-07
1790.67	-1.03874e-06
1808.4	-1.44086e-06
1817.27	-1.69177e-06
1826.13	-1.98237e-06
1835	-2.31824e-06
1843.86	-2.70568e-06
1852.73	-3.15169e-06
1861.59	-3.66414e-06
1870.46	-4.25176e-06
1888.19	-5.69252e-06
1897.05	-6.56841e-06
1905.92	-7.56519e-06
1914.78	-8.69742e-06
1923.64	-9.98115e-06
1932.51	-1.1434e-05
1941.37	-1.30753e-05
1950.24	-1.49261e-05
1967.97	-1.93507e-05
1976.83	-2.19768e-05
1985.7	-2.49175e-05
1994.56	-2.82047e-05
2003.43	-3.18732e-05
2012.29	-3.59601e-05
2021.16	-4.05055e-05
2030.02	-4.55525e-05
2047.75	-5.73384e-05
2056.62	-6.4179e-05
2065.48	-7.17245e-05
2074.34	-8.00344e-05
2083.21	-8.91711e-05
2092.07	-9.92008e-05
2100.94	-0.000110193
2118.67	-0.000135364
2127.53	-0.000149699
2136.4	-0.000165311
2145.26	-0.000182287
2154.13	-0.000200718
2162.99	-0.000220696
2171.86	-0.000242318
2180.72	-0.000265683
2198.45	-0.000318046
2207.32	-0.000347251
2216.18	-0.000378613
2225.05	-0.000412236
2233.91	-0.000448228
2242.77	-0.000486694
2251.64	-0.000527736
2260.5	-0.000571458
2278.23	-0.000667331
2287.1	-0.000719668
2295.96	-0.000775051
2304.83	-0.000833559
2313.69	-0.000895261
2322.56	-0.000960215
2331.42	-0.00102847
2340.29	-0.00110006
2358.02	-0.00125332
2366.88	-0.00133499
2375.75	-0.00141998
2384.61	-0.00150824
2393.47	-0.00159969
2402.34	-0.00169425
2411.2	-0.00179177
2420.07	-0.00189211
2437.8	-0.00210046
2446.66	-0.00220799
2455.53	-0.00231737
2464.39	-0.00242828
2473.26	-0.00254034
2482.12	-0.00265312
2490.99	-0.00276614
2508.72	-0.00299082
2517.58	-0.00310126
2526.45	-0.00320955
2535.31	-0.00331494
2544.17	-0.00341662
2553.04	-0.00351374
2561.9	-0.00360534
2570.77	-0.00369044
2588.5	-0.00383678
2597.36	-0.00389566
2606.23	-0.00394333
2615.09	-0.00397844
2623.96	-0.00399954
2632.82	-0.00400514
2641.69	-0.00399365
2650.55	-0.00396342
2668.28	-0.0038397
2677.15	-0.00374254
2686.01	-0.00361926
2694.88	-0.00346783
2703.74	-0.00328618
2712.6	-0.00307213
2721.47	-0.00282347
2730.33	-0.00253792
2748.06	-0.00184671
2756.93	-0.00143622
2765.79	-0.000979168
2774.66	-0.000473032
2783.52	8.47528e-05
2792.39	0.000696775
2801.25	0.00136565
2810.12	0.00209399
2827.85	0.00373966
2836.71	0.00466224
2845.58	0.00565481
2854.44	0.00671997
2863.3	0.00786028
2872.17	0.00907825
2881.03	0.0103763
2898.76	0.0132225
2907.63	0.0147752
2916.49	0.0164172
2925.36	0.0181505
2934.22	0.0199773
2943.09	0.0218992
2951.95	0.023918
2960.82	0.0260353
2978.55	0.0305708
2987.41	0.0329914
2996.27	0.0355152
3005.14	0.0381429
3014	0.040875
3022.87	0.0437118
3031.73	0.0466534
3040.6	0.0496998
3058.33	0.0561049
3067.19	0.0594623
3076.06	0.0629215
3084.92	0.0664812
3093.79	0.0701398
3102.65	0.0738953
3111.52	0.0777458
3120.38	0.0816886
3138.11	0.0898407
3146.97	0.0940437
3155.84	0.0983267
3164.7	0.102686
3173.57	0.107118
3182.43	0.111617
3191.3	0.11618
3200.16	0.120801
3217.89	0.130198
3226.76	0.134963
3235.62	0.139764
3244.48	0.144596
3253.35	0.149453
3262.21	0.154327
3271.08	0.159212
3288.81	0.168989
3297.67	0.173866
3306.54	0.178727
3315.4	0.183563
3324.27	0.188366
3333.13	0.193131
3342	0.197848
3350.86	0.20251
3368.59	0.211638
3377.45	0.216088
3386.32	0.220453
3395.18	0.224723
3404.05	0.228891
3412.91	0.23295
3421.78	0.236893
3430.64	0.240711
3448.37	0.247944
3457.23	0.251345
3466.1	0.254594
3474.96	0.257683
3483.83	0.260606
3492.69	0.263356
3501.56	0.265929
3510.42	0.268317
3528.15	0.27252
3537.01	0.274325
3545.88	0.275926
3554.74	0.277318
3563.61	0.278497
3572.47	0.279461
3581.34	0.280206
3590.2	0.280729
3607.93	0.281099
3616.79	0.280942
3625.66	0.280556
3634.52	0.279939
3643.39	0.279091
3652.25	0.278012
3661.12	0.276701
3678.85	0.27339
3687.71	0.271392
3696.57	0.269168
3705.44	0.26672
3714.3	0.264051
3723.17	0.261163
3732.03	0.258061
3740.9	0.254747
3758.62	0.247503
3767.49	0.243581
3776.35	0.239467
3785.22	0.235165
3794.08	0.230681
3802.95	0.226022
3811.81	0.221193
3820.68	0.216202
3838.4	0.205756
3847.27	0.200317
3856.13	0.194744
3865	0.189043
3873.86	0.183224
3882.73	0.177293
3891.59	0.171259
3900.45	0.16513
3918.18	0.15262
3927.05	0.146256
3935.91	0.139831
3944.78	0.133353
3953.64	0.126831
3962.51	0.120272
3971.37	0.113686
3980.23	0.107082
3997.96	0.0938491
4006.83	0.0872378
4015.69	0.0806407
4024.56	0.0740658
4033.42	0.067521
4042.28	0.0610141
4051.15	0.0545528
4060.01	0.0481443
4077.74	0.035515
4086.61	0.029308
4095.47	0.0231818
4104.34	0.0171426
4113.2	0.0111968
4122.06	0.00535013
4130.93	-0.000391584
4148.66	-0.0115389
4157.52	-0.0169344
4166.39	-0.0222049
4175.25	-0.0273461
4184.12	-0.0323538
4192.98	-0.0372245
4201.84	-0.0419544
4210.71	-0.0465406
4228.44	-0.05527
4237.3	-0.0594084
4246.17	-0.063393
4255.03	-0.0672222
4263.9	-0.0708944
4272.76	-0.0744085
4281.62	-0.0777636
4290.49	-0.0809591
4308.22	-0.0868699
4317.08	-0.0895852
4325.95	-0.0921411
4334.81	-0.0945381
4343.68	-0.0967771
4352.54	-0.0988593
4361.41	-0.100786
4370.27	-0.102559
4388	-0.10565
4396.86	-0.106973
4405.73	-0.10815
4414.59	-0.109185
4423.46	-0.110079
4432.32	-0.110835
4441.19	-0.111457
4450.05	-0.111948
4467.78	-0.11255
4476.65	-0.112667
4485.51	-0.112667
4494.38	-0.112553
4503.24	-0.11233
4512.1	-0.112
4520.97	-0.111568
4538.7	-0.110414
4547.56	-0.1097
4556.43	-0.1089
4565.29	-0.108018
4574.16	-0.107058
4583.02	-0.106025
4591.89	-0.104922
4600.75	-0.103754
4618.48	-0.101238
4627.35	-0.0998987
4636.21	-0.0985099
4645.07	-0.0970759
4653.94	-0.0956006
4662.8	-0.0940878
4671.67	-0.0925414
4680.53	-0.090965
4698.26	-0.0877368
4707.13	-0.0860921
4715.99	-0.0844316
4724.86	-0.0827586
4733.72	-0.0810762
4742.59	-0.0793877
4751.45	-0.0776961
4760.32	-0.0760043
4778.05	-0.0726313
4786.91	-0.0709556
4795.77	-0.0692904
4804.64	-0.0676382
4813.5	-0.0660013
4822.37	-0.0643819
4831.23	-0.0627821
4840.1	-0.0612038
4857.83	-0.0581195
4866.69	-0.0566169
4875.56	-0.0551428
4884.42	-0.0536986
4893.29	-0.0522857
4902.15	-0.0509053
4911.02	-0.0495587
4928.75	-0.0469704
4937.61	-0.0457307
4946.47	-0.0445282
4955.34	-0.0433637
4964.2	-0.0422377
4973.07	-0.0411508
4981.93	-0.0401032
4990.8	-0.0390954
5008.53	-0.0371999
5017.39	-0.0363123
5026.26	-0.035465
5035.12	-0.0346578
5043.99	-0.0338907
5052.85	-0.0331633
5061.72	-0.0324755
5070.58	-0.0318269
5088.31	-0.0306459
5097.17	-0.0301126
5106.04	-0.0296166
5114.9	-0.0291574
5123.77	-0.0287345
5132.63	-0.028347
5141.5	-0.0279944
5150.36	-0.0276758
5168.09	-0.0271379
5176.96	-0.0269168
5185.82	-0.0267265
5194.69	-0.0265662
5203.55	-0.0264348
5212.42	-0.0263316
5221.28	-0.0262555
5230.14	-0.0262056
5247.87	-0.0261805
5256.74	-0.0262034
5265.6	-0.0262485
5274.47	-0.0263149
5283.33	-0.0264015
5292.2	-0.0265074
5301.06	-0.0266315
5318.79	-0.0269306
5327.66	-0.0271035
5336.52	-0.0272907
5345.39	-0.0274911
5354.25	-0.0277039
5363.12	-0.0279281
5371.98	-0.0281627
5380.84	-0.0284067
5398.57	-0.0289195
5407.44	-0.0291865
5416.3	-0.0294594
5425.17	-0.0297372
5434.03	-0.0300193
5442.9	-0.0303046
5451.76	-0.0305925
5460.63	-0.0308822
5478.36	-0.0314637
5487.22	-0.0317541
5496.09	-0.0320433
5504.95	-0.0323306
5513.82	-0.0326153
5522.68	-0.0328969
5531.54	-0.0331748
5540.41	-0.0334482
5558.14	-0.0339797
5567	-0.0342367
5575.87	-0.0344872
5584.73	-0.0347307
5593.6	-0.0349667
5602.46	-0.0351949
5611.33	-0.0354148
5620.19	-0.035626
5637.92	-0.0360209
5646.79	-0.036204
5655.65	-0.0363771
5664.52	-0.0365399
5673.38	-0.0366922
5682.24	-0.0368338
5691.11	-0.0369643
5708.84	-0.0371918
5717.7	-0.0372884
5726.57	-0.0373733
5735.43	-0.0374465
5744.3	-0.0375079
5753.16	-0.0375574
5762.03	-0.0375948
5770.89	-0.0376203
5788.62	-0.037635
5797.49	-0.0376242
5806.35	-0.0376015
5815.21	-0.0375666
5824.08	-0.0375199
5832.94	-0.0374612
5841.81	-0.0373907
5850.67	-0.0373084
5868.4	-0.037109
5877.27	-0.0369921
5886.13	-0.0368639
5895	-0.0367245
5903.86	-0.0365741
5912.73	-0.0364129
5921.59	-0.036241
5930.46	-0.0360586
5948.19	-0.035663
5957.05	-0.0354502
5965.92	-0.0352276
5974.78	-0.0349955
5983.64	-0.0347541
5992.51	-0.0345035
6001.37	-0.0342441
6010.24	-0.033976
6027.97	-0.0334148
6036.83	-0.0331221
6045.7	-0.0328216
6054.56	-0.0325137
6063.43	-0.0321984
6072.29	-0.0318762
6081.16	-0.0315471
6090.02	-0.0312115
6107.75	-0.0305216
6116.62	-0.0301677
6125.48	-0.0298083
6134.34	-0.0294434
6143.21	-0.0290735
6152.07	-0.0286986
6160.94	-0.028319
6178.67	-0.0275468
6187.53	-0.0271545
6196.4	-0.0267585
6205.26	-0.0263589
6214.13	-0.0259559
6222.99	-0.0255498
6231.86	-0.0251407
6240.72	-0.0247289
6258.45	-0.0238977
6267.32	-0.0234788
6276.18	-0.0230579
6285.04	-0.0226352
6293.91	-0.0222108
6302.77	-0.0217851
6311.64	-0.021358
6320.5	-0.0209298
6338.23	-0.0200706
6347.1	-0.01964
6355.96	-0.0192088
6364.83	-0.0187773
6373.69	-0.0183455
6382.56	-0.0179137
6391.42	-0.0174819
6400.29	-0.0170502
6418.02	-0.0161879
6426.88	-0.0157574
6435.74	-0.0153276
6444.61	-0.0148985
6453.47	-0.0144703
6462.34	-0.0140429
6471.2	-0.0136167
6480.07	-0.0131915
6497.8	-0.0123449
6506.66	-0.0119237
6515.53	-0.011504
6524.39	-0.0110858
6533.26	-0.0106692
6542.12	-0.0102543
6550.99	-0.00984126
6568.72	-0.00902074
6577.58	-0.00861343
6586.45	-0.00820817
6595.31	-0.00780504
6604.17	-0.00740408
6613.04	-0.00700538
6621.9	-0.00660897
6630.77	-0.00621493
6648.5	-0.00543417
6657.36	-0.00504757
6666.23	-0.00466357
6675.09	-0.00428221
6683.96	-0.00390355
6692.82	-0.00352766
6701.69	-0.00315458
6710.55	-0.00278437
6728.28	-0.00205278
6737.15	-0.00169151
6746.01	-0.00133333
6754.88	-0.000978301
6763.74	-0.000626468
6772.6	-0.000277892
6781.47	6.73692e-05
6790.33	0.00040926
6808.06	0.0010827
6816.93	0.00141413
6825.79	0.00174196
6834.66	0.00206613
6843.52	0.00238657
6852.39	0.00270322
6861.25	0.00301604
6870.12	0.00332494
6887.85	0.00393078
6896.71	0.00422759
6905.58	0.00452024
6914.44	0.00480866
6923.31	0.0050928
6932.17	0.00537258
6941.03	0.00564794
6958.76	0.00618513
6967.63	0.00644683
6976.49	0.00670385
6985.36	0.00695612
6994.22	0.00720356
7003.09	0.00744612
7011.95	0.00768373
7020.82	0.00791632
7038.55	0.00836618
7047.41	0.00858332
7056.28	0.00879517
7065.14	0.00900168
7074.01	0.00920278
7082.87	0.00939841
7091.74	0.00958849
7100.6	0.00977298
7118.33	0.0101249
7127.19	0.0102922
7136.06	0.0104537
7144.92	0.0106093
7153.79	0.010759
7162.65	0.0109026
7171.52	0.0110402
7180.38	0.0111717
7198.11	0.0114161
7206.98	0.011529
7215.84	0.0116355
7224.71	0.0117357
7233.57	0.0118295
7242.44	0.0119169
7251.3	0.0119979
7260.16	0.0120723
7277.89	0.0122016
7286.76	0.0122563
7295.62	0.0123045
7304.49	0.0123459
7313.35	0.0123808
7322.22	0.0124089
7331.08	0.0124303
7348.81	0.0124529
7357.68	0.0124541
7366.54	0.0124486
7375.41	0.0124362
7384.27	0.0124171
7393.14	0.0123912
7402	0.0123586
7410.86	0.0123191
7428.59	0.01222
7437.46	0.0121602
7446.32	0.0120938
7455.19	0.0120206
7464.05	0.0119407
7472.92	0.0118541
7481.78	0.0117608
7490.65	0.0116609
7508.38	0.0114412
7517.24	0.0113215
7526.11	0.0111953
7534.97	0.0110626
7543.84	0.0109234
7552.7	0.0107777
7561.56	0.0106257
7570.43	0.0104674
7588.16	0.0101318
7597.02	0.00995473
7605.89	0.00977147
7614.75	0.00958211
7623.62	0.0093867
7632.48	0.00918531
7641.35	0.00897797
7650.21	0.00876477
7667.94	0.00832098
7676.81	0.00809052
7685.67	0.00785444
7694.53	0.0076128
7703.4	0.00736568
7712.26	0.00711314
7721.13	0.00685526
7738.86	0.00632376
7747.72	0.00605029
7756.59	0.00577177
7765.45	0.00548829
7774.32	0.00519992
7783.18	0.00490675
7792.05	0.00460885
7800.91	0.00430632
7818.64	0.00368765
7827.5	0.0033717
7836.37	0.00305145
7845.23	0.00272699
7854.1	0.00239841
7862.96	0.0020658
7871.83	0.00172925
7880.69	0.00138886
7898.42	0.0006969
7907.29	0.000345525
7916.15	-9.3196e-06
7925.02	-0.000367537
7933.88	-0.000729031
7942.75	-0.0010937
7951.61	-0.00146145
7960.47	-0.00183219
7978.2	-0.00258219
7987.07	-0.00296126
7995.93	-0.0033429
8004.8	-0.00372701
8013.66	-0.0041135
8022.53	-0.00450225
8031.39	-0.00489315
8040.26	-0.00528612
8057.99	-0.00607778
8066.85	-0.00647627
8075.72	-0.00687639
8084.58	-0.00727803
8093.45	-0.00768107
8102.31	-0.00808542
8111.17	-0.00849097
8120.04	-0.00889759
8137.77	-0.00971366
8146.63	-0.0101229
8155.5	-0.0105327
8164.36	-0.0109431
8173.23	-0.0113539
8182.09	-0.011765
8190.96	-0.0121763
8208.69	-0.012999
8217.55	-0.0134102
8226.42	-0.0138211
8235.28	-0.0142317
8244.14	-0.0146418
8253.01	-0.0150512
8261.87	-0.01546
8270.74	-0.0158679
8288.47	-0.0166809
8297.33	-0.0170856
8306.2	-0.0174891
8315.06	-0.0178912
8323.93	-0.0182918
8332.79	-0.0186908
8341.66	-0.019088
8350.52	-0.0194834
8368.25	-0.0202682
8377.11	-0.0206575
8385.98	-0.0210444
8394.84	-0.0214289
8403.71	-0.0218109
8412.57	-0.0221903
8421.44	-0.022567
8430.3	-0.0229409
8448.03	-0.0236796
8456.9	-0.0240444
8465.76	-0.0244059
8474.63	-0.024764
8483.49	-0.0251187
8492.36	-0.0254698
8501.22	-0.0258172
8510.08	-0.0261609
8527.81	-0.0268366
8536.68	-0.0271685
8545.54	-0.0274962
8554.41	-0.0278196
8563.27	-0.0281388
8572.14	-0.0284535
8581	-0.0287637
8598.73	-0.0293702
8607.6	-0.0296664
8616.46	-0.0299577
8625.33	-0.030244
8634.19	-0.0305254
8643.05	-0.0308016
8651.92	-0.0310727
8660.78	-0.0313385
8678.51	-0.0318541
8687.38	-0.0321038
8696.24	-0.0323479
8705.11	-0.0325864
8713.97	-0.0328193
8722.84	-0.0330464
8731.7	-0.0332678
8740.57	-0.0334832
8758.3	-0.0338965
8767.16	-0.0340941
8776.02	-0.0342856
8784.89	-0.0344711
8793.75	-0.0346503
8802.62	-0.0348234
8811.48	-0.0349902
8820.35	-0.0351508
8838.08	-0.0354528
8846.94	-0.0355942
8855.81	-0.0357292
8864.67	-0.0358578
8873.54	-0.0359798
8882.4	-0.0360954
8891.27	-0.0362044
8900.13	-0.0363068
8917.86	-0.0364919
8926.72	-0.0365745
8935.59	-0.0366505
8944.45	-0.0367199
8953.32	-0.0367826
8962.18	-0.0368387
8971.05	-0.0368881
8988.78	-0.036967
8997.64	-0.0369964
9006.51	-0.0370192
9015.37	-0.0370353
9024.24	-0.0370448
9033.1	-0.0370477
9041.97	-0.0370439
9050.83	-0.0370335
9068.56	-0.0369931
9077.42	-0.036963
9086.29	-0.0369265
9095.15	-0.0368834
9104.02	-0.0368339
9112.88	-0.0367779
9121.75	-0.0367155
9130.61	-0.0366467
9148.34	-0.0364902
9157.21	-0.0364025
9166.07	-0.0363086
9174.94	-0.0362085
9183.8	-0.0361022
9192.67	-0.0359899
9201.53	-0.0358715
9210.39	-0.0357471
9228.12	-0.0354806
9236.99	-0.0353385
9245.85	-0.0351907
9254.72	-0.0350371
9263.58	-0.0348779
9272.45	-0.0347131
9281.31	-0.0345427
9290.18	-0.0343669
9307.91	-0.0339991
9316.77	-0.0338072
9325.64	-0.0336102
9334.5	-0.033408
9343.37	-0.0332008
9352.23	-0.0329886
9361.09	-0.0327715
9378.82	-0.0323229
9387.69	-0.0320915
9396.55	-0.0318556
9405.42	-0.0316152
9414.28	-0.0313704
9423.15	-0.0311212
9432.01	-0.0308678
9440.88	-0.0306103
9458.61	-0.0300831
9467.47	-0.0298136
9476.34	-0.0295403
9485.2	-0.0292634
9494.07	-0.0289828
9502.93	-0.0286988
9511.79	-0.0284113
9520.66	-0.0281205
9538.39	-0.0275294
9547.25	-0.0272292
9556.12	-0.0269261
9564.98	-0.0266203
9573.85	-0.0263117
9582.71	-0.0260005
9591.58	-0.0256867
9600.44	-0.0253706
9618.17	-0.0247315
9627.04	-0.0244088
9635.9	-0.0240841
9644.77	-0.0237575
9653.63	-0.0234292
9662.49	-0.0230991
9671.36	-0.0227675
9680.22	-0.0224345
9697.95	-0.0217644
9706.82	-0.0214277
9715.68	-0.0210899
9724.55	-0.0207512
9733.41	-0.0204117
9742.28	-0.0200714
9751.14	-0.0197306
9760.01	-0.0193894
9777.74	-0.0187058
9786.6	-0.0183637
9795.47	-0.0180216
9804.33	-0.0176795
9813.19	-0.0173376
9822.06	-0.016996
9830.92	-0.0166547
9848.65	-0.0159737
9857.52	-0.0156342
9866.38	-0.0152955
9875.25	-0.0149577
9884.11	-0.0146209
9892.98	-0.0142853
9901.84	-0.0139508
9910.71	-0.0136176
9928.44	-0.0129556
9937.3	-0.012627
9946.17	-0.0123001
9955.03	-0.011975
9963.89	-0.0116517
9972.76	-0.0113305
9981.62	-0.0110114
9990.49	-0.0106945
10008.2	-0.0100675
10017.1	-0.00975766
10025.9	-0.00945036
10034.8	-0.0091457
10043.7	-0.00884376
10052.5	-0.00854462
10061.4	-0.00824837
10070.3	-0.00795508
10088	-0.00737774
10096.9	-0.00709384
10105.7	-0.00681323
10114.6	-0.00653597
10123.5	-0.00626213
10132.3	-0.00599181
10141.2	-0.00572505
10150.1	-0.00546193
10167.8	-0.00494687
10176.6	-0.00469506
10185.5	-0.00444715
10194.4	-0.00420319
10203.2	-0.00396324
10212.1	-0.00372736
10221	-0.0034956
10238.7	-0.00304466
10247.6	-0.00282557
10256.4	-0.0026108
10265.3	-0.00240039
10274.2	-0.00219439
10283	-0.00199283
10291.9	-0.00179576
10300.8	-0.00160321
10318.5	-0.0012318
10327.3	-0.00105301
10336.2	-0.00087886
10345.1	-0.000709383
10353.9	-0.000544602
10362.8	-0.000384537
10371.7	-0.000229209
10380.5	-7.86358e-05
10398.3	0.000208188
10407.1	0.000344414
10416	0.000475837
10424.9	0.000602449
10433.7	0.000724246
10442.6	0.000841225
10451.5	0.000953386
10460.3	0.00106073
10478	0.00126098
10486.9	0.00135391
10495.8	0.00144204
10504.6	0.0015254
10513.5	0.001604
10522.4	0.00167785
10531.2	0.00174697
10540.1	0.00181138
10557.8	0.00192618
10566.7	0.00197662
10575.6	0.00202245
10584.4	0.00206371
10593.3	0.00210043
10602.2	0.00213265
10611	0.00216039
10628.7	0.00220263
10637.6	0.00221721
10646.5	0.00222748
10655.3	0.00223349
10664.2	0.0022353
10673.1	0.00223295
10681.9	0.00222649
10690.8	0.00221597
10708.5	0.00218301
10717.4	0.00216067
10726.3	0.0021345
10735.1	0.00210458
10744	0.00207096
10752.9	0.0020337
10761.7	0.00199287
10770.6	0.00194855
10788.3	0.00184969
10797.2	0.00179529
10806	0.00173768
10814.9	0.00167693
10823.8	0.00161311
10832.6	0.00154632
10841.5	0.00147661
10850.4	0.00140408
10868.1	0.00125087
10877	0.00117035
10885.8	0.00108734
10894.7	0.00100191
10903.6	0.000914157
10912.4	0.000824167
10921.3	0.000732026
10930.1	0.000637822
10947.9	0.000443586
10956.7	0.000343733
10965.6	0.00024218
10974.5	0.000139016
10983.3	3.43353e-05
10992.2	-7.17702e-05
11001.1	-0.000179207
11018.8	-0.0003977
11027.7	-0.000508569
11036.5	-0.000620393
11045.4	-0.000733077
11054.3	-0.000846528
11063.1	-0.000960649
11072	-0.00107535
11080.8	-0.00119053
11098.6	-0.00142195
11107.4	-0.001538
11116.3	-0.00165416
11125.2	-0.00177033
11134	-0.00188641
11142.9	-0.00200231
11151.8	-0.00211794
11160.6	-0.00223321
11178.4	-0.00246228
11187.2	-0.00257591
11196.1	-0.0026888
11205	-0.00280088
11213.8	-0.00291205
11222.7	-0.00302222
11231.5	-0.00313132
11240.4	-0.00323924
11258.1	-0.00345123
11267	-0.00355514
11275.9	-0.00365754
11284.7	-0.00375835
11293.6	-0.0038575
11302.5	-0.0039549
11311.3	-0.00405048
11320.2	-0.00414416
11337.9	-0.00432552
11346.8	-0.00441306
11355.7	-0.0044984
11364.5	-0.00458149
11373.4	-0.00466224
11382.2	-0.0047406
11391.1	-0.0048165
11408.8	-0.00496067
11417.7	-0.00502882
11426.6	-0.00509426
11435.4	-0.00515694
11444.3	-0.00521682
11453.2	-0.00527382
11462	-0.0053279
11470.9	-0.00537902
11488.6	-0.00547217
11497.5	-0.00551411
11506.4	-0.00555291
11515.2	-0.00558852
11524.1	-0.00562091
11532.9	-0.00565004
11541.8	-0.00567588
11550.7	-0.0056984
11568.4	-0.00573335
11577.3	-0.00574572
11586.1	-0.00575467
11595	-0.00576017
11603.9	-0.0057622
11612.7	-0.00576074
11621.6	-0.00575577
11630.5	-0.0057473
11648.2	-0.00571975
11657.1	-0.00570067
11665.9	-0.00567804
11674.8	-0.00565186
11683.7	-0.00562213
11692.5	-0.00558885
11701.4	-0.00555203
11710.2	-0.00551166
11728	-0.00542035
11736.8	-0.00536941
11745.7	-0.00531498
11754.6	-0.00525707
11763.4	-0.0051957
11772.3	-0.00513087
11781.2	-0.00506263
11790	-0.00499098
11807.8	-0.00483759
11816.6	-0.00475589
11825.5	-0.00467091
11834.4	-0.00458267
11843.2	-0.00449121
11852.1	-0.00439656
11860.9	-0.00429876
11878.7	-0.00409387
11887.5	-0.00398686
11896.4	-0.00387687
11905.3	-0.00376394
11914.1	-0.00364812
11923	-0.00352945
11931.9	-0.003408
11940.7	-0.0032838
11958.5	-0.00302739
11967.3	-0.00289529
11976.2	-0.00276067
11985.1	-0.00262358
11993.9	-0.00248409
12002.8	-0.00234225
12011.6	-0.00219812
12020.5	-0.00205178
12038.2	-0.00175267
12047.1	-0.00160005
12056	-0.00144546
12064.8	-0.00128897
12073.7	-0.00113066
12082.6	-0.000970585
12091.4	-0.000808824
12100.3	-0.000645445
12118	-0.000314115
12126.9	-0.000146308
12135.8	2.28298e-05
12144.6	0.000193225
12153.5	0.000364803
12162.3	0.00053749
12171.2	0.000711211
12180.1	0.000885891
12197.8	0.00123782
12206.7	0.00141492
12215.5	0.00159268
12224.4	0.00177101
12233.3	0.00194985
12242.1	0.0021291
12251	0.00230871
12268.7	0.00266864
12277.6	0.00284882
12286.5	0.00302903
12295.3	0.00320921
12304.2	0.00338926
12313	0.00356912
12321.9	0.00374871
12330.8	0.00392794
12348.5	0.00428506
12357.4	0.00446278
12366.2	0.00463985
12375.1	0.00481619
12384	0.00499172
12392.8	0.00516637
12401.7	0.00534006
12410.6	0.00551271
12428.3	0.00585463
12437.2	0.00602374
12446	0.00619153
12454.9	0.00635791
12463.7	0.00652283
12472.6	0.0066862
12481.5	0.00684796
12490.3	0.00700803
12508.1	0.00732285
12516.9	0.00747745
12525.8	0.00763009
12534.7	0.00778071
12543.5	0.00792923
12552.4	0.0080756
12561.3	0.00821973
12570.1	0.00836158
12587.9	0.00863816
12596.7	0.00877276
12605.6	0.00890482
12614.4	0.00903428
12623.3	0.00916109
12632.2	0.00928517
12641	0.00940647
12658.8	0.00964053
12667.6	0.00975316
12676.5	0.0098628
12685.4	0.00996938
12694.2	0.0100729
12703.1	0.0101732
12712	0.0102703
12720.8	0.0103641
12738.6	0.0105419
12747.4	0.0106256
12756.3	0.010706
12765.1	0.0107828
12774	0.0108562
12782.9	0.0109259
12791.7	0.010992
12800.6	0.0110545
12818.3	0.0111683
12827.2	0.0112196
12836.1	0.0112671
12844.9	0.0113107
12853.8	0.0113505
12862.7	0.0113863
12871.5	0.0114183
12880.4	0.0114463
12898.1	0.0114902
12907	0.0115062
12915.8	0.0115181
12924.7	0.0115259
12933.6	0.0115296
12942.4	0.0115292
12951.3	0.0115246
12960.2	0.0115159
12977.9	0.011486
12986.8	0.0114648
12995.6	0.0114394
13004.5	0.0114098
13013.4	0.0113759
13022.2	0.0113378
13031.1	0.0112956
13048.8	0.0111983
13057.7	0.0111434
13066.5	0.0110842
13075.4	0.0110208
13084.3	0.0109533
13093.1	0.0108815
13102	0.0108055
13110.9	0.0107254
13128.6	0.0105526
13137.5	0.0104601
13146.3	0.0103634
13155.2	0.0102626
13164.1	0.0101578
13172.9	0.010049
13181.8	0.00993608
13190.7	0.00981922
13208.4	0.00957368
13217.2	0.00944505
13226.1	0.00931257
13235	0.00917628
13243.8	0.00903621
13252.7	0.00889241
13261.6	0.00874491
13270.4	0.00859376
13288.2	0.00828071
13297	0.0081189
13305.9	0.00795364
13314.8	0.00778498
13323.6	0.00761297
13332.5	0.00743768
13341.4	0.00725916
13350.2	0.00707747
13367.9	0.00670484
13376.8	0.00651402
13385.7	0.00632029
13394.5	0.00612372
13403.4	0.00592438
13412.3	0.00572233
13421.1	0.00551766
13438.9	0.00510072
13447.7	0.00488862
13456.6	0.00467418
13465.5	0.00445751
13474.3	0.00423868
13483.2	0.00401776
13492.1	0.00379485
13500.9	0.00357003
13518.6	0.00311501
13527.5	0.00288498
13536.4	0.00265338
13545.2	0.00242032
13554.1	0.00218588
13563	0.00195015
13571.8	0.00171323
13580.7	0.0014752
13598.4	0.000996222
13607.3	0.000755458
13616.2	0.000513972
13625	0.00027186
13633.9	2.92195e-05
13642.8	-0.000213854
13651.6	-0.000457261
13660.5	-0.000700906
13678.2	-0.00118852
13687.1	-0.00143229
13695.9	-0.0016759
13704.8	-0.00191927
13713.7	-0.00216228
13722.5	-0.00240485
13731.4	-0.00264688
13740.3	-0.00288826
13758	-0.00336872
13766.9	-0.0036076
13775.7	-0.00384546
13784.6	-0.0040822
13793.5	-0.00431773
13802.3	-0.00455196
13811.2	-0.00478479
13820	-0.00501613
13837.8	-0.00547399
13846.6	-0.00570034
13855.5	-0.00592484
13864.4	-0.00614742
13873.2	-0.00636798
13882.1	-0.00658646
13891	-0.00680275
13908.7	-0.0072285
13917.6	-0.00743779
13926.4	-0.0076446
13935.3	-0.00784885
13944.2	-0.00805047
13953	-0.00824938
13961.9	-0.00844552
13970.7	-0.00863883
13988.5	-0.00901667
13997.3	-0.00920108
14006.2	-0.00938241
14015.1	-0.00956059
14023.9	-0.00973559
14032.8	-0.00990733
14041.7	-0.0100758
14050.5	-0.0102409
14068.3	-0.0105609
14077.1	-0.0107157
14086	-0.010867
14094.9	-0.0110147
14103.7	-0.0111589
14112.6	-0.0112995
14121.4	-0.0114364
14130.3	-0.0115697
14148	-0.0118251
14156.9	-0.0119472
14165.8	-0.0120656
14174.6	-0.0121802
14183.5	-0.0122911
14192.4	-0.0123981
14201.2	-0.0125014
14210.1	-0.0126009
14227.8	-0.0127886
14236.7	-0.0128768
14245.6	-0.0129612
14254.4	-0.0130418
14263.3	-0.0131187
14272.1	-0.0131919
14281	-0.0132614
14298.7	-0.0133892
14307.6	-0.0134477
14316.5	-0.0135025
14325.3	-0.0135537
14334.2	-0.0136014
14343.1	-0.0136456
14351.9	-0.0136863
14360.8	-0.0137235
14378.5	-0.0137879
14387.4	-0.013815
14396.3	-0.013839
14405.1	-0.0138597
14414	-0.0138772
14422.8	-0.0138917
14431.7	-0.0139031
14440.6	-0.0139115
14458.3	-0.0139197
14467.2	-0.0139195
14476	-0.0139166
14484.9	-0.013911
14493.8	-0.0139029
14502.6	-0.0138922
14511.5	-0.0138791
14520.4	-0.0138636
14538.1	-0.0138257
14547	-0.0138036
14555.8	-0.0137793
14564.7	-0.0137531
14573.5	-0.0137249
14582.4	-0.013695
14591.3	-0.0136633
14600.1	-0.0136299
14617.9	-0.0135586
14626.7	-0.0135208
14635.6	-0.0134816
14644.5	-0.0134413
14653.3	-0.0133998
14662.2	-0.0133573
14671.1	-0.0133138
14688.8	-0.0132243
14697.7	-0.0131784
14706.5	-0.013132
14715.4	-0.013085
14724.2	-0.0130376
14733.1	-0.0129899
14742	-0.0129419
14750.8	-0.0128938
14768.6	-0.0127973
14777.4	-0.0127492
14786.3	-0.0127013
14795.2	-0.0126536
14804	-0.0126063
14812.9	-0.0125594
14821.8	-0.012513
14830.6	-0.0124673
14848.4	-0.0123778
14857.2	-0.0123343
14866.1	-0.0122917
14874.9	-0.01225
14883.8	-0.0122095
14892.7	-0.01217
14901.5	-0.0121317
14910.4	-0.0120947
14928.1	-0.0120248
14937	-0.0119919
14945.9	-0.0119606
14954.7	-0.0119309
14963.6	-0.0119028
14972.5	-0.0118764
14981.3	-0.0118517
14990.2	-0.0118289
15007.9	-0.0117887
15016.8	-0.0117714
15025.6	-0.0117562
15034.5	-0.0117429
15043.4	-0.0117317
15052.2	-0.0117226
15061.1	-0.0117156
15078.8	-0.0117081
15087.7	-0.0117076
15096.6	-0.0117093
15105.4	-0.0117132
15114.3	-0.0117194
15123.2	-0.0117279
15132	-0.0117386
15140.9	-0.0117516
15158.6	-0.0117845
15167.5	-0.0118044
15176.3	-0.0118266
15185.2	-0.011851
15194.1	-0.0118778
15202.9	-0.0119067
15211.8	-0.011938
15220.7	-0.0119714
15238.4	-0.012045
15247.3	-0.012085
15256.1	-0.0121271
15265	-0.0121714
15273.9	-0.0122177
15282.7	-0.0122661
15291.6	-0.0123164
15300.5	-0.0123688
15318.2	-0.0124791
15327	-0.012537
15335.9	-0.0125967
15344.8	-0.0126581
15353.6	-0.0127211
15362.5	-0.0127857
15371.4	-0.0128519
15380.2	-0.0129195
15398	-0.013059
15406.8	-0.0131306
15415.7	-0.0132034
15424.6	-0.0132774
15433.4	-0.0133524
15442.3	-0.0134284
15451.2	-0.0135052
15460	-0.0135829
15477.7	-0.0137403
15486.6	-0.0138198
15495.5	-0.0138998
15504.3	-0.0139802
15513.2	-0.0140609
15522.1	-0.0141417
15530.9	-0.0142226
15548.7	-0.0143844
15557.5	-0.014465
15566.4	-0.0145453
15575.3	-0.0146252
15584.1	-0.0147046
15593	-0.0147835
15601.9	-0.0148616
15610.7	-0.0149389
15628.4	-0.0150907
15637.3	-0.015165
15646.2	-0.015238
15655	-0.0153098
15663.9	-0.0153801
15672.8	-0.0154489
15681.6	-0.015516
15690.5	-0.0155815
15708.2	-0.0157067
15717.1	-0.0157663
15726	-0.0158238
15734.8	-0.015879
15743.7	-0.0159318
15752.6	-0.0159823
15761.4	-0.0160301
15770.3	-0.0160754
15788	-0.0161575
15796.9	-0.0161943
15805.7	-0.016228
15814.6	-0.0162586
15823.5	-0.016286
15832.3	-0.0163101
15841.2	-0.0163309
15850.1	-0.0163482
15867.8	-0.016372
15876.7	-0.0163784
15885.5	-0.016381
15894.4	-0.0163798
15903.3	-0.0163747
15912.1	-0.0163655
15921	-0.0163523
15938.7	-0.0163133
15947.6	-0.0162875
15956.4	-0.0162574
15965.3	-0.0162229
15974.2	-0.0161839
15983	-0.0161405
15991.9	-0.0160925
16000.8	-0.01604
16018.5	-0.0159211
16027.4	-0.0158546
16036.2	-0.0157834
16045.1	-0.0157074
16054	-0.0156266
16062.8	-0.0155411
16071.7	-0.0154507
16080.5	-0.0153554
16098.3	-0.0151503
16107.1	-0.0150404
16116	-0.0149256
16124.9	-0.0148059
16133.7	-0.0146813
16142.6	-0.0145518
16151.5	-0.0144174
16160.3	-0.0142781
16178.1	-0.013985
16186.9	-0.0138312
16195.8	-0.0136725
16204.7	-0.0135091
16213.5	-0.0133409
16222.4	-0.013168
16231.2	-0.0129904
16240.1	-0.0128081
16257.8	-0.0124298
16266.7	-0.0122338
16275.6	-0.0120333
16284.4	-0.0118284
16293.3	-0.0116192
16302.2	-0.0114056
16311	-0.0111878
16328.8	-0.0107397
16337.6	-0.0105095
16346.5	-0.0102753
16355.4	-0.0100372
16364.2	-0.00979534
16373.1	-0.00954969
16382	-0.00930038
16390.8	-0.00904747
16408.5	-0.00853126
16417.4	-0.00826812
16426.3	-0.00800176
16435.1	-0.00773227
16444	-0.00745974
16452.9	-0.00718427
16461.7	-0.00690596
16470.6	-0.00662492
16488.3	-0.00605504
16497.2	-0.00576642
16506.1	-0.00547549
16514.9	-0.00518235
16523.8	-0.00488712
16532.7	-0.00458992
16541.5	-0.00429085
16550.4	-0.00399003
16568.1	-0.00338359
16577	-0.00307822
16585.8	-0.00277155
16594.7	-0.00246373
16603.6	-0.00215485
16612.4	-0.00184505
16621.3	-0.00153445
16630.2	-0.00122315
16647.9	-0.000598993
16656.8	-0.000286368
16665.6	2.64599e-05
16674.5	0.000339369
16683.4	0.000652238
16692.2	0.000964946
16701.1	0.00127737
16718.8	0.00190091
16727.7	0.00221177
16736.5	0.00252188
16745.4	0.00283111
16754.3	0.00313934
16763.1	0.00344647
16772	0.00375237
16780.9	0.00405693
16798.6	0.00466157
16807.5	0.00496143
16816.3	0.0052595
16825.2	0.00555567
16834.1	0.00584983
16842.9	0.00614189
16851.8	0.00643172
16860.6	0.00671923
16878.4	0.00728689
16887.2	0.00756684
16896.1	0.00784406
16905	0.00811847
16913.8	0.00838997
16922.7	0.00865847
16931.6	0.00892388
16940.4	0.00918611
16958.2	0.00970069
16967	0.00995287
16975.9	0.0102015
16984.8	0.0104466
16993.6	0.010688
17002.5	0.0109257
17011.3	0.0111596
17020.2	0.0113896
17037.9	0.0118376
17046.8	0.0120555
17055.7	0.0122693
17064.5	0.012479
17073.4	0.0126843
17082.3	0.0128854
17091.1	0.013082
17108.9	0.0134622
17117.7	0.0136455
17126.6	0.0138243
17135.5	0.0139985
17144.3	0.0141681
17153.2	0.014333
17162	0.0144932
17170.9	0.0146488
17188.6	0.0149455
17197.5	0.0150867
17206.4	0.0152231
17215.2	0.0153547
17224.1	0.0154814
17233	0.0156032
17241.8	0.0157201
17250.7	0.0158321
17268.4	0.0160415
17277.3	0.0161388
17286.2	0.0162312
17295	0.0163187
17303.9	0.0164012
17312.7	0.0164789
17321.6	0.0165516
17330.5	0.0166195
17348.2	0.0167405
17357.1	0.0167937
17365.9	0.0168421
17374.8	0.0168856
17383.7	0.0169243
17392.5	0.0169583
17401.4	0.0169874
17410.3	0.0170118
17428	0.0170465
17436.9	0.0170569
17445.7	0.0170625
17454.6	0.0170636
17463.4	0.0170602
17472.3	0.0170521
17481.2	0.0170396
17490	0.0170226
17507.8	0.0169754
17516.6	0.0169453
17525.5	0.0169108
17534.4	0.0168721
17543.2	0.0168292
17552.1	0.0167821
17561	0.0167309
17578.7	0.0166162
17587.6	0.0165529
17596.4	0.0164857
17605.3	0.0164145
17614.1	0.0163395
17623	0.0162608
17631.9	0.0161783
17640.7	0.0160921
17658.5	0.015909
17667.3	0.0158121
17676.2	0.0157118
17685.1	0.0156081
17693.9	0.015501
17702.8	0.0153906
17711.7	0.015277
17720.5	0.0151602
17738.3	0.0149174
17747.1	0.0147914
17756	0.0146625
17764.8	0.0145308
17773.7	0.0143961
17782.6	0.0142588
17791.4	0.0141187
17800.3	0.0139759
17818	0.0136827
17826.9	0.0135324
17835.8	0.0133796
17844.6	0.0132245
17853.5	0.0130671
17862.4	0.0129074
17871.2	0.0127456
17880.1	0.0125816
17897.8	0.0122476
17906.7	0.0120776
17915.5	0.0119057
17924.4	0.011732
17933.3	0.0115565
17942.1	0.0113793
17951	0.0112004
17968.7	0.0108379
17977.6	0.0106543
17986.5	0.0104694
17995.3	0.010283
18004.2	0.0100953
18013.1	0.00990631
18021.9	0.0097161
18030.8	0.00952472
18048.5	0.00913866
18057.4	0.00894408
18066.2	0.00874854
18075.1	0.00855208
18084	0.00835477
18092.8	0.00815664
18101.7	0.00795776
18110.6	0.00775816
18128.3	0.00735702
18137.2	0.00715558
18146	0.00695362
18154.9	0.0067512
18163.8	0.00654834
18172.6	0.00634511
18181.5	0.00614155
18190.4	0.00593771
18208.1	0.00552933
18216.9	0.00532489
18225.8	0.00512035
18234.7	0.00491573
18243.5	0.0047111
18252.4	0.00450648
18261.3	0.00430193
18270.1	0.00409747
18287.9	0.00368904
18296.7	0.00348513
18305.6	0.00328149
18314.5	0.00307816
18323.3	0.00287516
18332.2	0.00267254
18341.1	0.00247034
18358.8	0.00206735
18367.6	0.00186662
18376.5	0.00166646
18385.4	0.0014669
18394.2	0.00126798
18403.1	0.00106973
18412	0.000872181
18420.8	0.000675374
18438.6	0.000284114
18447.4	8.97277e-05
18456.3	-0.000103786
18465.2	-0.000296395
18474	-0.000488067
18482.9	-0.00067877
18491.8	-0.000868474
18500.6	-0.00105715
18518.3	-0.00143128
18527.2	-0.00161669
18536.1	-0.00180094
18544.9	-0.00198401
18553.8	-0.00216588
18562.7	-0.00234651
18571.5	-0.00252588
18580.4	-0.00270395
18598.1	-0.00305613
18607	-0.00323017
18615.9	-0.00340282
18624.7	-0.00357404
18633.6	-0.00374382
18642.5	-0.00391212
18651.3	-0.00407892
18660.2	-0.00424421
18677.9	-0.00457011
18686.8	-0.00473069
18695.6	-0.00488965
18704.5	-0.00504697
18713.4	-0.00520263
18722.2	-0.00535662
18731.1	-0.0055089
18748.8	-0.00580827
18757.7	-0.00595532
18766.6	-0.00610058
18775.4	-0.00624404
18784.3	-0.00638568
18793.2	-0.00652548
18802	-0.00666343
18810.9	-0.00679949
18828.6	-0.00706593
18837.5	-0.00719626
18846.3	-0.00732466
18855.2	-0.00745109
18864.1	-0.00757555
18872.9	-0.00769802
18881.8	-0.00781849
18890.7	-0.00793695
18908.4	-0.00816775
18917.3	-0.00828008
18926.1	-0.00839034
18935	-0.00849851
18943.9	-0.0086046
18952.7	-0.00870859
18961.6	-0.00881047
18970.4	-0.00891023
18988.2	-0.00910335
18997	-0.00919669
19005.9	-0.00928788
19014.8	-0.00937691
19023.6	-0.00946377
19032.5	-0.00954845
19041.4	-0.00963096
19050.2	-0.00971128
19068	-0.00986535
19076.8	-0.00993909
19085.7	-0.0100106
19094.6	-0.01008
19103.4	-0.0101471
19112.3	-0.010212
19121.1	-0.0102747
19130	-0.0103353
19147.7	-0.0104497
19156.6	-0.0105035
19165.5	-0.0105552
19174.3	-0.0106047
19183.2	-0.010652
19192.1	-0.0106971
19200.9	-0.01074
19218.7	-0.0108192
19227.5	-0.0108556
19236.4	-0.0108898
19245.3	-0.0109218
19254.1	-0.0109516
19263	-0.0109793
19271.8	-0.0110049
19280.7	-0.0110283
19298.4	-0.0110689
19307.3	-0.0110859
19316.2	-0.0111009
19325	-0.0111139
19333.9	-0.0111247
19342.8	-0.0111335
19351.6	-0.0111403
19360.5	-0.011145
19378.2	-0.0111484
19387.1	-0.0111471
19396	-0.0111438
19404.8	-0.0111386
19413.7	-0.0111314
19422.5	-0.0111223
19431.4	-0.0111113
19440.3	-0.0110984
19458	-0.011067
19466.9	-0.0110485
19475.7	-0.0110283
19484.6	-0.0110062
19493.5	-0.0109823
19502.3	-0.0109567
19511.2	-0.0109293
19520.1	-0.0109003
19537.8	-0.010837
19546.7	-0.0108029
19555.5	-0.0107672
19564.4	-0.0107298
19573.2	-0.0106909
19582.1	-0.0106504
19591	-0.0106084
19608.7	-0.0105198
19617.6	-0.0104733
19626.4	-0.0104253
19635.3	-0.0103759
19644.2	-0.0103251
19653	-0.010273
19661.9	-0.0102195
19670.8	-0.0101647
19688.5	-0.0100512
19697.4	-0.00999256
19706.2	-0.00993272
19715.1	-0.00987168
19723.9	-0.00980947
19732.8	-0.00974612
19741.7	-0.00968166
19750.5	-0.00961611
19768.3	-0.00948184
19777.1	-0.00941318
19786	-0.00934353
19794.9	-0.00927293
19803.7	-0.0092014
19812.6	-0.00912896
19821.5	-0.00905564
19830.3	-0.00898147
19848.1	-0.00883068
19856.9	-0.00875411
19865.8	-0.00867679
19874.6	-0.00859875
19883.5	-0.00852001
19892.4	-0.00844061
19901.2	-0.00836056
19910.1	-0.00827988
19927.8	-0.00811679
19936.7	-0.00803441
19945.6	-0.00795152
19954.4	-0.00786813
19963.3	-0.00778427
19972.2	-0.00769997
19981	-0.00761525
19998.8	-0.00744464
