40	
79.3216   : [ [0;36m5 [0;36m5 [0;36m5 [0;36m5 [0;36m5 [0;36m5 [0;36m5 [0;36m5 [0;36m5 [0;36m5 [0;0m | [0;36m5 [0;36m5 [0;36m5 [0;36m5 [0;36m5 [0;36m5 [0;36m5 [0;36m5 [0;36m5 [0;36m5 [0;0m | [0;36m5 [0;36m5 [0;36m5 [0;36m5 [0;36m5 [0;36m5 [0;36m5 [0;36m5 [0;36m5 [0;36m5 [0;0m | [0;36m5 [0;36m5 [0;36m5 [0;36m5 [0;36m5 [0;36m5 [0;36m5 [0;36m5 [0;36m5 [0;36m5 [0;0m]	client_invade_async (5)
40	
79.3302   : [ [0;36m5 [0;36m5 [0;36m5 [0;36m5 [0;36m5 [0;36m5 [0;36m5 [0;36m5 [0;36m5 [0;36m5 [0;0m | [0;36m5 [0;36m5 [0;36m5 [0;36m5 [0;36m5 [0;36m5 [0;36m5 [0;36m5 [0;36m5 [0;36m5 [0;0m | [0;36m5 [0;36m5 [0;36m5 [0;36m5 [0;36m5 [0;36m5 [0;36m5 [0;36m5 [0;36m5 [0;36m5 [0;0m | [0;36m5 [0;36m5 [0;36m5 [0;36m5 [0;36m5 [0;36m5 [0;36m5 [0;36m5 [0;36m5 [0;36m5 [0;0m]	client_invade_async (5)
40	
79.3303   : [ [0;36m5 [0;36m5 [0;36m5 [0;36m5 [0;36m5 [0;36m5 [0;36m5 [0;36m5 [0;36m5 [0;36m5 [0;0m | [0;36m5 [0;36m5 [0;36m5 [0;36m5 [0;36m5 [0;36m5 [0;36m5 [0;36m5 [0;36m5 [0;36m5 [0;0m | [0;36m5 [0;36m5 [0;36m5 [0;36m5 [0;36m5 [0;36m5 [0;36m5 [0;36m5 [0;36m5 [0;36m5 [0;0m | [0;36m5 [0;36m5 [0;36m5 [0;36m5 [0;36m5 [0;36m5 [0;36m5 [0;36m5 [0;36m5 [0;36m5 [0;0m]	client_invade_async (5)
40	
79.338    : [ [0;36m5 [0;36m5 [0;36m5 [0;36m5 [0;36m5 [0;36m5 [0;36m5 [0;36m5 [0;36m5 [0;36m5 [0;0m | [0;36m5 [0;36m5 [0;36m5 [0;36m5 [0;36m5 [0;36m5 [0;36m5 [0;36m5 [0;36m5 [0;36m5 [0;0m | [0;36m5 [0;36m5 [0;36m5 [0;36m5 [0;36m5 [0;36m5 [0;36m5 [0;36m5 [0;36m5 [0;36m5 [0;0m | [0;36m5 [0;36m5 [0;36m5 [0;36m5 [0;36m5 [0;36m5 [0;36m5 [0;36m5 [0;36m5 [0;36m5 [0;0m]	client_invade_async (5)

Seconds: 88
