STARTING WORLD SCHEDULER SERVER
CLIENT SETUP: adding client 50455
 + TIMESTAMP: 0.308615
START TIMESTAMP: 0.308682
+++++++++++++++++++++++++++++++++++++++++++++++++++++++++++
+ Client Mapping:
  > Client 50455 (0):	

+ Core Mapping:	0 0 0 0 0 0 0 0 0 0 0 0 0 0 0 0 0 0 0 0 0 0 0 0 0 0 0 0 0 0 0 0 0 0 0 0 0 0 0 0 
+ Optimal point: 
+++++++++++++++++++++++++++++++++++++++++++++++++++++++++++
INVADE: client 50455
 + TIMESTAMP: 0.308795
RESSOURCE DISTRIBUTION CHANGED
++++++++++++++++++++++++++++++++++++++++++++++++
INVADE (50455)
  + pid: 50455
  + min_cores: 1
  + max_cores: 512
  + scalability graph: 
1, 1.36329, 1.52423, 1.62017, 1.68565, 1.73398, 1.77154, 1.80182, 1.8269, 1.84812, 1.86637, 1.88229, 1.89634, 1.90885, 1.92009, 1.93026, 1.93952, 1.94799, 1.95579, 1.963, 1.96968, 1.9759, 1.98172, 1.98716, 1.99228, 1.9971, 2.00164, 2.00594, 2.01002, 2.01389, 2.01757, 2.02108, 2.02443, 2.02763, 2.03069, 2.03362, 2.03644, 2.03914, 2.04173, 2.04423, 
Number of clients: 1

+++++++++++++++++++++++++++++++++++++++++++++++++++++++++++
+ Client Mapping:
  > Client 50455 (40):	0 1 2 3 4 5 6 7 8 9 10 11 12 13 14 15 16 17 18 19 20 21 22 23 24 25 26 27 28 29 30 31 32 33 34 35 36 37 38 39 

+ Core Mapping:	50455 50455 50455 50455 50455 50455 50455 50455 50455 50455 50455 50455 50455 50455 50455 50455 50455 50455 50455 50455 50455 50455 50455 50455 50455 50455 50455 50455 50455 50455 50455 50455 50455 50455 50455 50455 50455 50455 50455 50455 
+ Optimal point: 40 
+++++++++++++++++++++++++++++++++++++++++++++++++++++++++++
CLIENT SETUP: adding client 50456
 + TIMESTAMP: 0.332647
+++++++++++++++++++++++++++++++++++++++++++++++++++++++++++
+ Client Mapping:
  > Client 50455 (40):	0 1 2 3 4 5 6 7 8 9 10 11 12 13 14 15 16 17 18 19 20 21 22 23 24 25 26 27 28 29 30 31 32 33 34 35 36 37 38 39 
  > Client 50456 (0):	

+ Core Mapping:	50455 50455 50455 50455 50455 50455 50455 50455 50455 50455 50455 50455 50455 50455 50455 50455 50455 50455 50455 50455 50455 50455 50455 50455 50455 50455 50455 50455 50455 50455 50455 50455 50455 50455 50455 50455 50455 50455 50455 50455 
+ Optimal point: 40 
+++++++++++++++++++++++++++++++++++++++++++++++++++++++++++
INVADE: client 50456
 + TIMESTAMP: 0.333565
CLIENT SETUP: adding client 50458
 + TIMESTAMP: 0.33792
+++++++++++++++++++++++++++++++++++++++++++++++++++++++++++
+ Client Mapping:
  > Client 50455 (40):	0 1 2 3 4 5 6 7 8 9 10 11 12 13 14 15 16 17 18 19 20 21 22 23 24 25 26 27 28 29 30 31 32 33 34 35 36 37 38 39 
  > Client 50456 (0):	
  > Client 50458 (0):	

+ Core Mapping:	50455 50455 50455 50455 50455 50455 50455 50455 50455 50455 50455 50455 50455 50455 50455 50455 50455 50455 50455 50455 50455 50455 50455 50455 50455 50455 50455 50455 50455 50455 50455 50455 50455 50455 50455 50455 50455 50455 50455 50455 
+ Optimal point: 20 20 
+++++++++++++++++++++++++++++++++++++++++++++++++++++++++++
INVADE: client 50458
 + TIMESTAMP: 0.338243
CLIENT SETUP: adding client 50460
 + TIMESTAMP: 0.339746
+++++++++++++++++++++++++++++++++++++++++++++++++++++++++++
+ Client Mapping:
  > Client 50455 (40):	0 1 2 3 4 5 6 7 8 9 10 11 12 13 14 15 16 17 18 19 20 21 22 23 24 25 26 27 28 29 30 31 32 33 34 35 36 37 38 39 
  > Client 50456 (0):	
  > Client 50458 (0):	
  > Client 50460 (0):	

+ Core Mapping:	50455 50455 50455 50455 50455 50455 50455 50455 50455 50455 50455 50455 50455 50455 50455 50455 50455 50455 50455 50455 50455 50455 50455 50455 50455 50455 50455 50455 50455 50455 50455 50455 50455 50455 50455 50455 50455 50455 50455 50455 
+ Optimal point: 14 13 13 
+++++++++++++++++++++++++++++++++++++++++++++++++++++++++++
INVADE: client 50460
 + TIMESTAMP: 0.33991
CLIENT SETUP: adding client 50453
 + TIMESTAMP: 0.345705
+++++++++++++++++++++++++++++++++++++++++++++++++++++++++++
+ Client Mapping:
  > Client 50455 (40):	0 1 2 3 4 5 6 7 8 9 10 11 12 13 14 15 16 17 18 19 20 21 22 23 24 25 26 27 28 29 30 31 32 33 34 35 36 37 38 39 
  > Client 50456 (0):	
  > Client 50458 (0):	
  > Client 50460 (0):	
  > Client 50453 (0):	

+ Core Mapping:	50455 50455 50455 50455 50455 50455 50455 50455 50455 50455 50455 50455 50455 50455 50455 50455 50455 50455 50455 50455 50455 50455 50455 50455 50455 50455 50455 50455 50455 50455 50455 50455 50455 50455 50455 50455 50455 50455 50455 50455 
+ Optimal point: 10 10 10 10 
+++++++++++++++++++++++++++++++++++++++++++++++++++++++++++
INVADE: client 50453
 + TIMESTAMP: 0.345825
CLIENT SETUP: adding client 50463
 + TIMESTAMP: 0.345948
+++++++++++++++++++++++++++++++++++++++++++++++++++++++++++
+ Client Mapping:
  > Client 50455 (40):	0 1 2 3 4 5 6 7 8 9 10 11 12 13 14 15 16 17 18 19 20 21 22 23 24 25 26 27 28 29 30 31 32 33 34 35 36 37 38 39 
  > Client 50456 (0):	
  > Client 50458 (0):	
  > Client 50460 (0):	
  > Client 50453 (0):	
  > Client 50463 (0):	

+ Core Mapping:	50455 50455 50455 50455 50455 50455 50455 50455 50455 50455 50455 50455 50455 50455 50455 50455 50455 50455 50455 50455 50455 50455 50455 50455 50455 50455 50455 50455 50455 50455 50455 50455 50455 50455 50455 50455 50455 50455 50455 50455 
+ Optimal point: 8 8 8 8 8 
+++++++++++++++++++++++++++++++++++++++++++++++++++++++++++
INVADE: client 50463
 + TIMESTAMP: 0.346057
CLIENT SETUP: adding client 50452
 + TIMESTAMP: 0.362103
+++++++++++++++++++++++++++++++++++++++++++++++++++++++++++
+ Client Mapping:
  > Client 50455 (40):	0 1 2 3 4 5 6 7 8 9 10 11 12 13 14 15 16 17 18 19 20 21 22 23 24 25 26 27 28 29 30 31 32 33 34 35 36 37 38 39 
  > Client 50456 (0):	
  > Client 50458 (0):	
  > Client 50460 (0):	
  > Client 50453 (0):	
  > Client 50463 (0):	
  > Client 50452 (0):	

+ Core Mapping:	50455 50455 50455 50455 50455 50455 50455 50455 50455 50455 50455 50455 50455 50455 50455 50455 50455 50455 50455 50455 50455 50455 50455 50455 50455 50455 50455 50455 50455 50455 50455 50455 50455 50455 50455 50455 50455 50455 50455 50455 
+ Optimal point: 7 7 7 7 6 6 
+++++++++++++++++++++++++++++++++++++++++++++++++++++++++++
INVADE: client 50452
 + TIMESTAMP: 0.362212
CLIENT SETUP: adding client 50462
 + TIMESTAMP: 0.369101
+++++++++++++++++++++++++++++++++++++++++++++++++++++++++++
+ Client Mapping:
  > Client 50455 (40):	0 1 2 3 4 5 6 7 8 9 10 11 12 13 14 15 16 17 18 19 20 21 22 23 24 25 26 27 28 29 30 31 32 33 34 35 36 37 38 39 
  > Client 50456 (0):	
  > Client 50458 (0):	
  > Client 50460 (0):	
  > Client 50453 (0):	
  > Client 50463 (0):	
  > Client 50452 (0):	
  > Client 50462 (0):	

+ Core Mapping:	50455 50455 50455 50455 50455 50455 50455 50455 50455 50455 50455 50455 50455 50455 50455 50455 50455 50455 50455 50455 50455 50455 50455 50455 50455 50455 50455 50455 50455 50455 50455 50455 50455 50455 50455 50455 50455 50455 50455 50455 
+ Optimal point: 6 6 6 6 6 5 5 
+++++++++++++++++++++++++++++++++++++++++++++++++++++++++++
INVADE: client 50462
 + TIMESTAMP: 0.369195
++++++++++++++++++++++++++++++++++++++++++++++++
 + TIMESTAMP: 0.386144
REINVADE (50455)
  + pid: 50455
  + min_cores: 1
  + max_cores: 512
  + scalability graph: 
1, 1.36329, 1.52423, 1.62017, 1.68565, 1.73398, 1.77154, 1.80182, 1.8269, 1.84812, 1.86637, 1.88229, 1.89634, 1.90885, 1.92009, 1.93026, 1.93952, 1.94799, 1.95579, 1.963, 1.96968, 1.9759, 1.98172, 1.98716, 1.99228, 1.9971, 2.00164, 2.00594, 2.01002, 2.01389, 2.01757, 2.02108, 2.02443, 2.02763, 2.03069, 2.03362, 2.03644, 2.03914, 2.04173, 2.04423, 
Number of clients: 8

+++++++++++++++++++++++++++++++++++++++++++++++++++++++++++
+ Client Mapping:
  > Client 50455 (5):	35 36 37 38 39 
  > Client 50456 (0):	
  > Client 50458 (0):	
  > Client 50460 (0):	
  > Client 50453 (0):	
  > Client 50463 (0):	
  > Client 50452 (0):	
  > Client 50462 (0):	

+ Core Mapping:	0 0 0 0 0 0 0 0 0 0 0 0 0 0 0 0 0 0 0 0 0 0 0 0 0 0 0 0 0 0 0 0 0 0 0 50455 50455 50455 50455 50455 
+ Optimal point: 5 5 5 5 5 5 5 5 
+++++++++++++++++++++++++++++++++++++++++++++++++++++++++++
CLIENT SETUP: adding client 50457
 + TIMESTAMP: 0.390814
+++++++++++++++++++++++++++++++++++++++++++++++++++++++++++
+ Client Mapping:
  > Client 50455 (5):	35 36 37 38 39 
  > Client 50456 (0):	
  > Client 50458 (0):	
  > Client 50460 (0):	
  > Client 50453 (0):	
  > Client 50463 (0):	
  > Client 50452 (0):	
  > Client 50462 (0):	
  > Client 50457 (0):	

+ Core Mapping:	0 0 0 0 0 0 0 0 0 0 0 0 0 0 0 0 0 0 0 0 0 0 0 0 0 0 0 0 0 0 0 0 0 0 0 50455 50455 50455 50455 50455 
+ Optimal point: 5 5 5 5 5 5 5 5 
+++++++++++++++++++++++++++++++++++++++++++++++++++++++++++
INVADE: client 50457
 + TIMESTAMP: 0.390924
RESSOURCE DISTRIBUTION CHANGED
++++++++++++++++++++++++++++++++++++++++++++++++
INVADE (50457)
  + pid: 50457
  + min_cores: 1
  + max_cores: 512
  + scalability graph: 
1, 1.36329, 1.52423, 1.62017, 1.68565, 1.73398, 1.77154, 1.80182, 1.8269, 1.84812, 1.86637, 1.88229, 1.89634, 1.90885, 1.92009, 1.93026, 1.93952, 1.94799, 1.95579, 1.963, 1.96968, 1.9759, 1.98172, 1.98716, 1.99228, 1.9971, 2.00164, 2.00594, 2.01002, 2.01389, 2.01757, 2.02108, 2.02443, 2.02763, 2.03069, 2.03362, 2.03644, 2.03914, 2.04173, 2.04423, 
Number of clients: 9

+++++++++++++++++++++++++++++++++++++++++++++++++++++++++++
+ Client Mapping:
  > Client 50455 (5):	35 36 37 38 39 
  > Client 50456 (0):	
  > Client 50458 (0):	
  > Client 50460 (0):	
  > Client 50453 (0):	
  > Client 50463 (0):	
  > Client 50452 (0):	
  > Client 50462 (0):	
  > Client 50457 (4):	0 1 2 3 

+ Core Mapping:	50457 50457 50457 50457 0 0 0 0 0 0 0 0 0 0 0 0 0 0 0 0 0 0 0 0 0 0 0 0 0 0 0 0 0 0 0 50455 50455 50455 50455 50455 
+ Optimal point: 5 5 5 5 4 4 4 4 4 
+++++++++++++++++++++++++++++++++++++++++++++++++++++++++++
CLIENT SETUP: adding client 50461
 + TIMESTAMP: 0.415997
+++++++++++++++++++++++++++++++++++++++++++++++++++++++++++
+ Client Mapping:
  > Client 50455 (5):	35 36 37 38 39 
  > Client 50456 (0):	
  > Client 50458 (0):	
  > Client 50460 (0):	
  > Client 50453 (0):	
  > Client 50463 (0):	
  > Client 50452 (0):	
  > Client 50462 (0):	
  > Client 50457 (4):	0 1 2 3 
  > Client 50461 (0):	

+ Core Mapping:	50457 50457 50457 50457 0 0 0 0 0 0 0 0 0 0 0 0 0 0 0 0 0 0 0 0 0 0 0 0 0 0 0 0 0 0 0 50455 50455 50455 50455 50455 
+ Optimal point: 5 5 5 5 4 4 4 4 4 
+++++++++++++++++++++++++++++++++++++++++++++++++++++++++++
CLIENT SETUP: adding client 50459
 + TIMESTAMP: 0.416079
+++++++++++++++++++++++++++++++++++++++++++++++++++++++++++
+ Client Mapping:
  > Client 50455 (5):	35 36 37 38 39 
  > Client 50456 (0):	
  > Client 50458 (0):	
  > Client 50460 (0):	
  > Client 50453 (0):	
  > Client 50463 (0):	
  > Client 50452 (0):	
  > Client 50462 (0):	
  > Client 50457 (4):	0 1 2 3 
  > Client 50461 (0):	
  > Client 50459 (0):	

+ Core Mapping:	50457 50457 50457 50457 0 0 0 0 0 0 0 0 0 0 0 0 0 0 0 0 0 0 0 0 0 0 0 0 0 0 0 0 0 0 0 50455 50455 50455 50455 50455 
+ Optimal point: 5 5 5 5 4 4 4 4 4 
+++++++++++++++++++++++++++++++++++++++++++++++++++++++++++
CLIENT SETUP: adding client 50454
 + TIMESTAMP: 0.416154
+++++++++++++++++++++++++++++++++++++++++++++++++++++++++++
+ Client Mapping:
  > Client 50455 (5):	35 36 37 38 39 
  > Client 50456 (0):	
  > Client 50458 (0):	
  > Client 50460 (0):	
  > Client 50453 (0):	
  > Client 50463 (0):	
  > Client 50452 (0):	
  > Client 50462 (0):	
  > Client 50457 (4):	0 1 2 3 
  > Client 50461 (0):	
  > Client 50459 (0):	
  > Client 50454 (0):	

+ Core Mapping:	50457 50457 50457 50457 0 0 0 0 0 0 0 0 0 0 0 0 0 0 0 0 0 0 0 0 0 0 0 0 0 0 0 0 0 0 0 50455 50455 50455 50455 50455 
+ Optimal point: 5 5 5 5 4 4 4 4 4 
+++++++++++++++++++++++++++++++++++++++++++++++++++++++++++
INVADE: client 50454
 + TIMESTAMP: 0.41633
RESSOURCE DISTRIBUTION CHANGED
++++++++++++++++++++++++++++++++++++++++++++++++
INVADE (50454)
  + pid: 50454
  + min_cores: 1
  + max_cores: 512
  + scalability graph: 
1, 1.36329, 1.52423, 1.62017, 1.68565, 1.73398, 1.77154, 1.80182, 1.8269, 1.84812, 1.86637, 1.88229, 1.89634, 1.90885, 1.92009, 1.93026, 1.93952, 1.94799, 1.95579, 1.963, 1.96968, 1.9759, 1.98172, 1.98716, 1.99228, 1.9971, 2.00164, 2.00594, 2.01002, 2.01389, 2.01757, 2.02108, 2.02443, 2.02763, 2.03069, 2.03362, 2.03644, 2.03914, 2.04173, 2.04423, 
Number of clients: 12

+++++++++++++++++++++++++++++++++++++++++++++++++++++++++++
+ Client Mapping:
  > Client 50455 (5):	35 36 37 38 39 
  > Client 50456 (0):	
  > Client 50458 (0):	
  > Client 50460 (0):	
  > Client 50453 (0):	
  > Client 50463 (0):	
  > Client 50452 (0):	
  > Client 50462 (0):	
  > Client 50457 (4):	0 1 2 3 
  > Client 50461 (0):	
  > Client 50459 (0):	
  > Client 50454 (1):	4 

+ Core Mapping:	50457 50457 50457 50457 50454 0 0 0 0 0 0 0 0 0 0 0 0 0 0 0 0 0 0 0 0 0 0 0 0 0 0 0 0 0 0 50455 50455 50455 50455 50455 
+ Optimal point: 1 1 1 1 1 1 1 1 1 29 1 1 
+++++++++++++++++++++++++++++++++++++++++++++++++++++++++++
INVADE: client 50459
 + TIMESTAMP: 0.416525
RESSOURCE DISTRIBUTION CHANGED
++++++++++++++++++++++++++++++++++++++++++++++++
INVADE (50459)
  + pid: 50459
  + min_cores: 1
  + max_cores: 512
  + scalability graph: 
1, 1.36329, 1.52423, 1.62017, 1.68565, 1.73398, 1.77154, 1.80182, 1.8269, 1.84812, 1.86637, 1.88229, 1.89634, 1.90885, 1.92009, 1.93026, 1.93952, 1.94799, 1.95579, 1.963, 1.96968, 1.9759, 1.98172, 1.98716, 1.99228, 1.9971, 2.00164, 2.00594, 2.01002, 2.01389, 2.01757, 2.02108, 2.02443, 2.02763, 2.03069, 2.03362, 2.03644, 2.03914, 2.04173, 2.04423, 
Number of clients: 12

+++++++++++++++++++++++++++++++++++++++++++++++++++++++++++
+ Client Mapping:
  > Client 50455 (5):	35 36 37 38 39 
  > Client 50456 (0):	
  > Client 50458 (0):	
  > Client 50460 (0):	
  > Client 50453 (0):	
  > Client 50463 (0):	
  > Client 50452 (0):	
  > Client 50462 (0):	
  > Client 50457 (4):	0 1 2 3 
  > Client 50461 (0):	
  > Client 50459 (1):	5 
  > Client 50454 (1):	4 

+ Core Mapping:	50457 50457 50457 50457 50454 50459 0 0 0 0 0 0 0 0 0 0 0 0 0 0 0 0 0 0 0 0 0 0 0 0 0 0 0 0 0 50455 50455 50455 50455 50455 
+ Optimal point: 1 1 1 1 1 1 1 1 1 29 1 1 
+++++++++++++++++++++++++++++++++++++++++++++++++++++++++++
INVADE: client 50461
 + TIMESTAMP: 0.422097
RESSOURCE DISTRIBUTION CHANGED
++++++++++++++++++++++++++++++++++++++++++++++++
INVADE (50461)
  + pid: 50461
  + min_cores: 1
  + max_cores: 512
  + scalability graph: 
1, 1.36329, 1.52423, 1.62017, 1.68565, 1.73398, 1.77154, 1.80182, 1.8269, 1.84812, 1.86637, 1.88229, 1.89634, 1.90885, 1.92009, 1.93026, 1.93952, 1.94799, 1.95579, 1.963, 1.96968, 1.9759, 1.98172, 1.98716, 1.99228, 1.9971, 2.00164, 2.00594, 2.01002, 2.01389, 2.01757, 2.02108, 2.02443, 2.02763, 2.03069, 2.03362, 2.03644, 2.03914, 2.04173, 2.04423, 
Number of clients: 12

+++++++++++++++++++++++++++++++++++++++++++++++++++++++++++
+ Client Mapping:
  > Client 50455 (5):	35 36 37 38 39 
  > Client 50456 (0):	
  > Client 50458 (0):	
  > Client 50460 (0):	
  > Client 50453 (0):	
  > Client 50463 (0):	
  > Client 50452 (0):	
  > Client 50462 (0):	
  > Client 50457 (4):	0 1 2 3 
  > Client 50461 (3):	6 7 8 
  > Client 50459 (1):	5 
  > Client 50454 (1):	4 

+ Core Mapping:	50457 50457 50457 50457 50454 50459 50461 50461 50461 0 0 0 0 0 0 0 0 0 0 0 0 0 0 0 0 0 0 0 0 0 0 0 0 0 0 50455 50455 50455 50455 50455 
+ Optimal point: 4 3 3 3 4 3 3 3 3 3 4 4 
+++++++++++++++++++++++++++++++++++++++++++++++++++++++++++
++++++++++++++++++++++++++++++++++++++++++++++++
 + TIMESTAMP: 0.447954
REINVADE (50460)
  + pid: 50460
  + min_cores: 1
  + max_cores: 512
  + scalability graph: 
1, 1.36329, 1.52423, 1.62017, 1.68565, 1.73398, 1.77154, 1.80182, 1.8269, 1.84812, 1.86637, 1.88229, 1.89634, 1.90885, 1.92009, 1.93026, 1.93952, 1.94799, 1.95579, 1.963, 1.96968, 1.9759, 1.98172, 1.98716, 1.99228, 1.9971, 2.00164, 2.00594, 2.01002, 2.01389, 2.01757, 2.02108, 2.02443, 2.02763, 2.03069, 2.03362, 2.03644, 2.03914, 2.04173, 2.04423, 
Number of clients: 12

+++++++++++++++++++++++++++++++++++++++++++++++++++++++++++
+ Client Mapping:
  > Client 50455 (5):	35 36 37 38 39 
  > Client 50456 (0):	
  > Client 50458 (0):	
  > Client 50460 (3):	9 10 11 
  > Client 50453 (0):	
  > Client 50463 (0):	
  > Client 50452 (0):	
  > Client 50462 (0):	
  > Client 50457 (4):	0 1 2 3 
  > Client 50461 (3):	6 7 8 
  > Client 50459 (1):	5 
  > Client 50454 (1):	4 

+ Core Mapping:	50457 50457 50457 50457 50454 50459 50461 50461 50461 50460 50460 50460 0 0 0 0 0 0 0 0 0 0 0 0 0 0 0 0 0 0 0 0 0 0 0 50455 50455 50455 50455 50455 
+ Optimal point: 4 3 3 3 4 3 3 3 3 3 4 4 
+++++++++++++++++++++++++++++++++++++++++++++++++++++++++++
++++++++++++++++++++++++++++++++++++++++++++++++
 + TIMESTAMP: 0.477879
REINVADE (50456)
  + pid: 50456
  + min_cores: 1
  + max_cores: 512
  + scalability graph: 
1, 1.36329, 1.52423, 1.62017, 1.68565, 1.73398, 1.77154, 1.80182, 1.8269, 1.84812, 1.86637, 1.88229, 1.89634, 1.90885, 1.92009, 1.93026, 1.93952, 1.94799, 1.95579, 1.963, 1.96968, 1.9759, 1.98172, 1.98716, 1.99228, 1.9971, 2.00164, 2.00594, 2.01002, 2.01389, 2.01757, 2.02108, 2.02443, 2.02763, 2.03069, 2.03362, 2.03644, 2.03914, 2.04173, 2.04423, 
Number of clients: 12

+++++++++++++++++++++++++++++++++++++++++++++++++++++++++++
+ Client Mapping:
  > Client 50455 (5):	35 36 37 38 39 
  > Client 50456 (3):	12 13 14 
  > Client 50458 (0):	
  > Client 50460 (3):	9 10 11 
  > Client 50453 (0):	
  > Client 50463 (0):	
  > Client 50452 (0):	
  > Client 50462 (0):	
  > Client 50457 (4):	0 1 2 3 
  > Client 50461 (3):	6 7 8 
  > Client 50459 (1):	5 
  > Client 50454 (1):	4 

+ Core Mapping:	50457 50457 50457 50457 50454 50459 50461 50461 50461 50460 50460 50460 50456 50456 50456 0 0 0 0 0 0 0 0 0 0 0 0 0 0 0 0 0 0 0 0 50455 50455 50455 50455 50455 
+ Optimal point: 4 3 3 3 4 3 3 3 3 3 4 4 
+++++++++++++++++++++++++++++++++++++++++++++++++++++++++++
++++++++++++++++++++++++++++++++++++++++++++++++
 + TIMESTAMP: 0.490282
REINVADE (50455)
  + pid: 50455
  + min_cores: 1
  + max_cores: 512
  + scalability graph: 
1, 1.36329, 1.52423, 1.62017, 1.68565, 1.73398, 1.77154, 1.80182, 1.8269, 1.84812, 1.86637, 1.88229, 1.89634, 1.90885, 1.92009, 1.93026, 1.93952, 1.94799, 1.95579, 1.963, 1.96968, 1.9759, 1.98172, 1.98716, 1.99228, 1.9971, 2.00164, 2.00594, 2.01002, 2.01389, 2.01757, 2.02108, 2.02443, 2.02763, 2.03069, 2.03362, 2.03644, 2.03914, 2.04173, 2.04423, 
Number of clients: 12

+++++++++++++++++++++++++++++++++++++++++++++++++++++++++++
+ Client Mapping:
  > Client 50455 (4):	36 37 38 39 
  > Client 50456 (3):	12 13 14 
  > Client 50458 (0):	
  > Client 50460 (3):	9 10 11 
  > Client 50453 (0):	
  > Client 50463 (0):	
  > Client 50452 (0):	
  > Client 50462 (0):	
  > Client 50457 (4):	0 1 2 3 
  > Client 50461 (3):	6 7 8 
  > Client 50459 (1):	5 
  > Client 50454 (1):	4 

+ Core Mapping:	50457 50457 50457 50457 50454 50459 50461 50461 50461 50460 50460 50460 50456 50456 50456 0 0 0 0 0 0 0 0 0 0 0 0 0 0 0 0 0 0 0 0 0 50455 50455 50455 50455 
+ Optimal point: 4 3 3 3 4 3 3 3 3 3 4 4 
+++++++++++++++++++++++++++++++++++++++++++++++++++++++++++
++++++++++++++++++++++++++++++++++++++++++++++++
 + TIMESTAMP: 0.495935
REINVADE (50459)
  + pid: 50459
  + min_cores: 1
  + max_cores: 512
  + scalability graph: 
1, 1.36329, 1.52423, 1.62017, 1.68565, 1.73398, 1.77154, 1.80182, 1.8269, 1.84812, 1.86637, 1.88229, 1.89634, 1.90885, 1.92009, 1.93026, 1.93952, 1.94799, 1.95579, 1.963, 1.96968, 1.9759, 1.98172, 1.98716, 1.99228, 1.9971, 2.00164, 2.00594, 2.01002, 2.01389, 2.01757, 2.02108, 2.02443, 2.02763, 2.03069, 2.03362, 2.03644, 2.03914, 2.04173, 2.04423, 
Number of clients: 12

+++++++++++++++++++++++++++++++++++++++++++++++++++++++++++
+ Client Mapping:
  > Client 50455 (4):	36 37 38 39 
  > Client 50456 (3):	12 13 14 
  > Client 50458 (0):	
  > Client 50460 (3):	9 10 11 
  > Client 50453 (0):	
  > Client 50463 (0):	
  > Client 50452 (0):	
  > Client 50462 (0):	
  > Client 50457 (4):	0 1 2 3 
  > Client 50461 (3):	6 7 8 
  > Client 50459 (4):	5 15 16 17 
  > Client 50454 (1):	4 

+ Core Mapping:	50457 50457 50457 50457 50454 50459 50461 50461 50461 50460 50460 50460 50456 50456 50456 50459 50459 50459 0 0 0 0 0 0 0 0 0 0 0 0 0 0 0 0 0 0 50455 50455 50455 50455 
+ Optimal point: 4 3 3 3 4 3 3 3 3 3 4 4 
+++++++++++++++++++++++++++++++++++++++++++++++++++++++++++
++++++++++++++++++++++++++++++++++++++++++++++++
 + TIMESTAMP: 0.502133
REINVADE (50454)
  + pid: 50454
  + min_cores: 1
  + max_cores: 512
  + scalability graph: 
1, 1.36329, 1.52423, 1.62017, 1.68565, 1.73398, 1.77154, 1.80182, 1.8269, 1.84812, 1.86637, 1.88229, 1.89634, 1.90885, 1.92009, 1.93026, 1.93952, 1.94799, 1.95579, 1.963, 1.96968, 1.9759, 1.98172, 1.98716, 1.99228, 1.9971, 2.00164, 2.00594, 2.01002, 2.01389, 2.01757, 2.02108, 2.02443, 2.02763, 2.03069, 2.03362, 2.03644, 2.03914, 2.04173, 2.04423, 
Number of clients: 12

+++++++++++++++++++++++++++++++++++++++++++++++++++++++++++
+ Client Mapping:
  > Client 50455 (4):	36 37 38 39 
  > Client 50456 (3):	12 13 14 
  > Client 50458 (0):	
  > Client 50460 (3):	9 10 11 
  > Client 50453 (0):	
  > Client 50463 (0):	
  > Client 50452 (0):	
  > Client 50462 (0):	
  > Client 50457 (4):	0 1 2 3 
  > Client 50461 (3):	6 7 8 
  > Client 50459 (4):	5 15 16 17 
  > Client 50454 (4):	4 18 19 20 

+ Core Mapping:	50457 50457 50457 50457 50454 50459 50461 50461 50461 50460 50460 50460 50456 50456 50456 50459 50459 50459 50454 50454 50454 0 0 0 0 0 0 0 0 0 0 0 0 0 0 0 50455 50455 50455 50455 
+ Optimal point: 4 3 3 3 4 3 3 3 3 3 4 4 
+++++++++++++++++++++++++++++++++++++++++++++++++++++++++++
++++++++++++++++++++++++++++++++++++++++++++++++
 + TIMESTAMP: 0.508581
REINVADE (50457)
  + pid: 50457
  + min_cores: 1
  + max_cores: 512
  + scalability graph: 
1, 1.36329, 1.52423, 1.62017, 1.68565, 1.73398, 1.77154, 1.80182, 1.8269, 1.84812, 1.86637, 1.88229, 1.89634, 1.90885, 1.92009, 1.93026, 1.93952, 1.94799, 1.95579, 1.963, 1.96968, 1.9759, 1.98172, 1.98716, 1.99228, 1.9971, 2.00164, 2.00594, 2.01002, 2.01389, 2.01757, 2.02108, 2.02443, 2.02763, 2.03069, 2.03362, 2.03644, 2.03914, 2.04173, 2.04423, 
Number of clients: 12

+++++++++++++++++++++++++++++++++++++++++++++++++++++++++++
+ Client Mapping:
  > Client 50455 (4):	36 37 38 39 
  > Client 50456 (3):	12 13 14 
  > Client 50458 (0):	
  > Client 50460 (3):	9 10 11 
  > Client 50453 (0):	
  > Client 50463 (0):	
  > Client 50452 (0):	
  > Client 50462 (0):	
  > Client 50457 (3):	1 2 3 
  > Client 50461 (3):	6 7 8 
  > Client 50459 (4):	5 15 16 17 
  > Client 50454 (4):	4 18 19 20 

+ Core Mapping:	0 50457 50457 50457 50454 50459 50461 50461 50461 50460 50460 50460 50456 50456 50456 50459 50459 50459 50454 50454 50454 0 0 0 0 0 0 0 0 0 0 0 0 0 0 0 50455 50455 50455 50455 
+ Optimal point: 4 3 3 3 4 3 3 3 3 3 4 4 
+++++++++++++++++++++++++++++++++++++++++++++++++++++++++++
++++++++++++++++++++++++++++++++++++++++++++++++
 + TIMESTAMP: 0.551004
REINVADE (50453)
  + pid: 50453
  + min_cores: 1
  + max_cores: 512
  + scalability graph: 
1, 1.36329, 1.52423, 1.62017, 1.68565, 1.73398, 1.77154, 1.80182, 1.8269, 1.84812, 1.86637, 1.88229, 1.89634, 1.90885, 1.92009, 1.93026, 1.93952, 1.94799, 1.95579, 1.963, 1.96968, 1.9759, 1.98172, 1.98716, 1.99228, 1.9971, 2.00164, 2.00594, 2.01002, 2.01389, 2.01757, 2.02108, 2.02443, 2.02763, 2.03069, 2.03362, 2.03644, 2.03914, 2.04173, 2.04423, 
Number of clients: 12

+++++++++++++++++++++++++++++++++++++++++++++++++++++++++++
+ Client Mapping:
  > Client 50455 (4):	36 37 38 39 
  > Client 50456 (3):	12 13 14 
  > Client 50458 (0):	
  > Client 50460 (3):	9 10 11 
  > Client 50453 (4):	0 21 22 23 
  > Client 50463 (0):	
  > Client 50452 (0):	
  > Client 50462 (0):	
  > Client 50457 (3):	1 2 3 
  > Client 50461 (3):	6 7 8 
  > Client 50459 (4):	5 15 16 17 
  > Client 50454 (4):	4 18 19 20 

+ Core Mapping:	50453 50457 50457 50457 50454 50459 50461 50461 50461 50460 50460 50460 50456 50456 50456 50459 50459 50459 50454 50454 50454 50453 50453 50453 0 0 0 0 0 0 0 0 0 0 0 0 50455 50455 50455 50455 
+ Optimal point: 4 3 3 3 4 3 3 3 3 3 4 4 
+++++++++++++++++++++++++++++++++++++++++++++++++++++++++++
++++++++++++++++++++++++++++++++++++++++++++++++
 + TIMESTAMP: 0.602291
REINVADE (50462)
  + pid: 50462
  + min_cores: 1
  + max_cores: 512
  + scalability graph: 
1, 1.36329, 1.52423, 1.62017, 1.68565, 1.73398, 1.77154, 1.80182, 1.8269, 1.84812, 1.86637, 1.88229, 1.89634, 1.90885, 1.92009, 1.93026, 1.93952, 1.94799, 1.95579, 1.963, 1.96968, 1.9759, 1.98172, 1.98716, 1.99228, 1.9971, 2.00164, 2.00594, 2.01002, 2.01389, 2.01757, 2.02108, 2.02443, 2.02763, 2.03069, 2.03362, 2.03644, 2.03914, 2.04173, 2.04423, 
Number of clients: 12

+++++++++++++++++++++++++++++++++++++++++++++++++++++++++++
+ Client Mapping:
  > Client 50455 (4):	36 37 38 39 
  > Client 50456 (3):	12 13 14 
  > Client 50458 (0):	
  > Client 50460 (3):	9 10 11 
  > Client 50453 (4):	0 21 22 23 
  > Client 50463 (0):	
  > Client 50452 (0):	
  > Client 50462 (3):	24 25 26 
  > Client 50457 (3):	1 2 3 
  > Client 50461 (3):	6 7 8 
  > Client 50459 (4):	5 15 16 17 
  > Client 50454 (4):	4 18 19 20 

+ Core Mapping:	50453 50457 50457 50457 50454 50459 50461 50461 50461 50460 50460 50460 50456 50456 50456 50459 50459 50459 50454 50454 50454 50453 50453 50453 50462 50462 50462 0 0 0 0 0 0 0 0 0 50455 50455 50455 50455 
+ Optimal point: 4 3 3 3 4 3 3 3 3 3 4 4 
+++++++++++++++++++++++++++++++++++++++++++++++++++++++++++
++++++++++++++++++++++++++++++++++++++++++++++++
 + TIMESTAMP: 0.608912
REINVADE (50463)
  + pid: 50463
  + min_cores: 1
  + max_cores: 512
  + scalability graph: 
1, 1.36329, 1.52423, 1.62017, 1.68565, 1.73398, 1.77154, 1.80182, 1.8269, 1.84812, 1.86637, 1.88229, 1.89634, 1.90885, 1.92009, 1.93026, 1.93952, 1.94799, 1.95579, 1.963, 1.96968, 1.9759, 1.98172, 1.98716, 1.99228, 1.9971, 2.00164, 2.00594, 2.01002, 2.01389, 2.01757, 2.02108, 2.02443, 2.02763, 2.03069, 2.03362, 2.03644, 2.03914, 2.04173, 2.04423, 
Number of clients: 12

+++++++++++++++++++++++++++++++++++++++++++++++++++++++++++
+ Client Mapping:
  > Client 50455 (4):	36 37 38 39 
  > Client 50456 (3):	12 13 14 
  > Client 50458 (0):	
  > Client 50460 (3):	9 10 11 
  > Client 50453 (4):	0 21 22 23 
  > Client 50463 (3):	27 28 29 
  > Client 50452 (0):	
  > Client 50462 (3):	24 25 26 
  > Client 50457 (3):	1 2 3 
  > Client 50461 (3):	6 7 8 
  > Client 50459 (4):	5 15 16 17 
  > Client 50454 (4):	4 18 19 20 

+ Core Mapping:	50453 50457 50457 50457 50454 50459 50461 50461 50461 50460 50460 50460 50456 50456 50456 50459 50459 50459 50454 50454 50454 50453 50453 50453 50462 50462 50462 50463 50463 50463 0 0 0 0 0 0 50455 50455 50455 50455 
+ Optimal point: 4 3 3 3 4 3 3 3 3 3 4 4 
+++++++++++++++++++++++++++++++++++++++++++++++++++++++++++
++++++++++++++++++++++++++++++++++++++++++++++++
 + TIMESTAMP: 0.612858
REINVADE (50452)
  + pid: 50452
  + min_cores: 1
  + max_cores: 512
  + scalability graph: 
1, 1.36329, 1.52423, 1.62017, 1.68565, 1.73398, 1.77154, 1.80182, 1.8269, 1.84812, 1.86637, 1.88229, 1.89634, 1.90885, 1.92009, 1.93026, 1.93952, 1.94799, 1.95579, 1.963, 1.96968, 1.9759, 1.98172, 1.98716, 1.99228, 1.9971, 2.00164, 2.00594, 2.01002, 2.01389, 2.01757, 2.02108, 2.02443, 2.02763, 2.03069, 2.03362, 2.03644, 2.03914, 2.04173, 2.04423, 
Number of clients: 12

+++++++++++++++++++++++++++++++++++++++++++++++++++++++++++
+ Client Mapping:
  > Client 50455 (4):	36 37 38 39 
  > Client 50456 (3):	12 13 14 
  > Client 50458 (0):	
  > Client 50460 (3):	9 10 11 
  > Client 50453 (4):	0 21 22 23 
  > Client 50463 (3):	27 28 29 
  > Client 50452 (3):	30 31 32 
  > Client 50462 (3):	24 25 26 
  > Client 50457 (3):	1 2 3 
  > Client 50461 (3):	6 7 8 
  > Client 50459 (4):	5 15 16 17 
  > Client 50454 (4):	4 18 19 20 

+ Core Mapping:	50453 50457 50457 50457 50454 50459 50461 50461 50461 50460 50460 50460 50456 50456 50456 50459 50459 50459 50454 50454 50454 50453 50453 50453 50462 50462 50462 50463 50463 50463 50452 50452 50452 0 0 0 50455 50455 50455 50455 
+ Optimal point: 4 3 3 3 4 3 3 3 3 3 4 4 
+++++++++++++++++++++++++++++++++++++++++++++++++++++++++++
++++++++++++++++++++++++++++++++++++++++++++++++
 + TIMESTAMP: 0.614607
REINVADE (50458)
  + pid: 50458
  + min_cores: 1
  + max_cores: 512
  + scalability graph: 
1, 1.36329, 1.52423, 1.62017, 1.68565, 1.73398, 1.77154, 1.80182, 1.8269, 1.84812, 1.86637, 1.88229, 1.89634, 1.90885, 1.92009, 1.93026, 1.93952, 1.94799, 1.95579, 1.963, 1.96968, 1.9759, 1.98172, 1.98716, 1.99228, 1.9971, 2.00164, 2.00594, 2.01002, 2.01389, 2.01757, 2.02108, 2.02443, 2.02763, 2.03069, 2.03362, 2.03644, 2.03914, 2.04173, 2.04423, 
Number of clients: 12

+++++++++++++++++++++++++++++++++++++++++++++++++++++++++++
+ Client Mapping:
  > Client 50455 (4):	36 37 38 39 
  > Client 50456 (3):	12 13 14 
  > Client 50458 (3):	33 34 35 
  > Client 50460 (3):	9 10 11 
  > Client 50453 (4):	0 21 22 23 
  > Client 50463 (3):	27 28 29 
  > Client 50452 (3):	30 31 32 
  > Client 50462 (3):	24 25 26 
  > Client 50457 (3):	1 2 3 
  > Client 50461 (3):	6 7 8 
  > Client 50459 (4):	5 15 16 17 
  > Client 50454 (4):	4 18 19 20 

+ Core Mapping:	50453 50457 50457 50457 50454 50459 50461 50461 50461 50460 50460 50460 50456 50456 50456 50459 50459 50459 50454 50454 50454 50453 50453 50453 50462 50462 50462 50463 50463 50463 50452 50452 50452 50458 50458 50458 50455 50455 50455 50455 
+ Optimal point: 4 3 3 3 4 3 3 3 3 3 4 4 
+++++++++++++++++++++++++++++++++++++++++++++++++++++++++++
CLIENT SHUTDOWN: client 50459
 + TIMESTAMP: 39.1908
+++++++++++++++++++++++++++++++++++++++++++++++++++++++++++
+ Client Mapping:
  > Client 50455 (4):	36 37 38 39 
  > Client 50456 (3):	12 13 14 
  > Client 50458 (3):	33 34 35 
  > Client 50460 (3):	9 10 11 
  > Client 50453 (4):	0 21 22 23 
  > Client 50463 (3):	27 28 29 
  > Client 50452 (3):	30 31 32 
  > Client 50462 (3):	24 25 26 
  > Client 50457 (3):	1 2 3 
  > Client 50461 (3):	6 7 8 
  > Client 50459 (0):	
  > Client 50454 (4):	4 18 19 20 

+ Core Mapping:	50453 50457 50457 50457 50454 0 50461 50461 50461 50460 50460 50460 50456 50456 50456 0 0 0 50454 50454 50454 50453 50453 50453 50462 50462 50462 50463 50463 50463 50452 50452 50452 50458 50458 50458 50455 50455 50455 50455 
+ Optimal point: 4 3 3 3 4 3 3 3 3 3 4 4 
+++++++++++++++++++++++++++++++++++++++++++++++++++++++++++
client (50459) shutdown hint: 437.984
sum_client_shutdown_hint: 437.984
sum_client_shutdown_hint_div_time: 0
++++++++++++++++++++++++++++++++++++++++++++++++
 + TIMESTAMP: 39.192
REINVADE (50458)
  + pid: 50458
  + min_cores: 1
  + max_cores: 512
  + scalability graph: 
1, 1.36329, 1.52423, 1.62017, 1.68565, 1.73398, 1.77154, 1.80182, 1.8269, 1.84812, 1.86637, 1.88229, 1.89634, 1.90885, 1.92009, 1.93026, 1.93952, 1.94799, 1.95579, 1.963, 1.96968, 1.9759, 1.98172, 1.98716, 1.99228, 1.9971, 2.00164, 2.00594, 2.01002, 2.01389, 2.01757, 2.02108, 2.02443, 2.02763, 2.03069, 2.03362, 2.03644, 2.03914, 2.04173, 2.04423, 
Number of clients: 11

+++++++++++++++++++++++++++++++++++++++++++++++++++++++++++
+ Client Mapping:
  > Client 50455 (4):	36 37 38 39 
  > Client 50456 (3):	12 13 14 
  > Client 50458 (4):	33 34 35 5 
  > Client 50460 (3):	9 10 11 
  > Client 50453 (4):	0 21 22 23 
  > Client 50463 (3):	27 28 29 
  > Client 50452 (3):	30 31 32 
  > Client 50462 (3):	24 25 26 
  > Client 50457 (3):	1 2 3 
  > Client 50461 (3):	6 7 8 
  > Client 50454 (4):	4 18 19 20 

+ Core Mapping:	50453 50457 50457 50457 50454 50458 50461 50461 50461 50460 50460 50460 50456 50456 50456 0 0 0 50454 50454 50454 50453 50453 50453 50462 50462 50462 50463 50463 50463 50452 50452 50452 50458 50458 50458 50455 50455 50455 50455 
+ Optimal point: 4 4 4 4 4 4 3 3 3 3 4 
+++++++++++++++++++++++++++++++++++++++++++++++++++++++++++
++++++++++++++++++++++++++++++++++++++++++++++++
 + TIMESTAMP: 39.1942
REINVADE (50460)
  + pid: 50460
  + min_cores: 1
  + max_cores: 512
  + scalability graph: 
1, 1.36329, 1.52423, 1.62017, 1.68565, 1.73398, 1.77154, 1.80182, 1.8269, 1.84812, 1.86637, 1.88229, 1.89634, 1.90885, 1.92009, 1.93026, 1.93952, 1.94799, 1.95579, 1.963, 1.96968, 1.9759, 1.98172, 1.98716, 1.99228, 1.9971, 2.00164, 2.00594, 2.01002, 2.01389, 2.01757, 2.02108, 2.02443, 2.02763, 2.03069, 2.03362, 2.03644, 2.03914, 2.04173, 2.04423, 
Number of clients: 11

+++++++++++++++++++++++++++++++++++++++++++++++++++++++++++
+ Client Mapping:
  > Client 50455 (4):	36 37 38 39 
  > Client 50456 (3):	12 13 14 
  > Client 50458 (4):	33 34 35 5 
  > Client 50460 (4):	9 10 11 15 
  > Client 50453 (4):	0 21 22 23 
  > Client 50463 (3):	27 28 29 
  > Client 50452 (3):	30 31 32 
  > Client 50462 (3):	24 25 26 
  > Client 50457 (3):	1 2 3 
  > Client 50461 (3):	6 7 8 
  > Client 50454 (4):	4 18 19 20 

+ Core Mapping:	50453 50457 50457 50457 50454 50458 50461 50461 50461 50460 50460 50460 50456 50456 50456 50460 0 0 50454 50454 50454 50453 50453 50453 50462 50462 50462 50463 50463 50463 50452 50452 50452 50458 50458 50458 50455 50455 50455 50455 
+ Optimal point: 4 4 4 4 4 4 3 3 3 3 4 
+++++++++++++++++++++++++++++++++++++++++++++++++++++++++++
++++++++++++++++++++++++++++++++++++++++++++++++
 + TIMESTAMP: 39.1949
REINVADE (50463)
  + pid: 50463
  + min_cores: 1
  + max_cores: 512
  + scalability graph: 
1, 1.36329, 1.52423, 1.62017, 1.68565, 1.73398, 1.77154, 1.80182, 1.8269, 1.84812, 1.86637, 1.88229, 1.89634, 1.90885, 1.92009, 1.93026, 1.93952, 1.94799, 1.95579, 1.963, 1.96968, 1.9759, 1.98172, 1.98716, 1.99228, 1.9971, 2.00164, 2.00594, 2.01002, 2.01389, 2.01757, 2.02108, 2.02443, 2.02763, 2.03069, 2.03362, 2.03644, 2.03914, 2.04173, 2.04423, 
Number of clients: 11

+++++++++++++++++++++++++++++++++++++++++++++++++++++++++++
+ Client Mapping:
  > Client 50455 (4):	36 37 38 39 
  > Client 50456 (3):	12 13 14 
  > Client 50458 (4):	33 34 35 5 
  > Client 50460 (4):	9 10 11 15 
  > Client 50453 (4):	0 21 22 23 
  > Client 50463 (4):	27 28 29 16 
  > Client 50452 (3):	30 31 32 
  > Client 50462 (3):	24 25 26 
  > Client 50457 (3):	1 2 3 
  > Client 50461 (3):	6 7 8 
  > Client 50454 (4):	4 18 19 20 

+ Core Mapping:	50453 50457 50457 50457 50454 50458 50461 50461 50461 50460 50460 50460 50456 50456 50456 50460 50463 0 50454 50454 50454 50453 50453 50453 50462 50462 50462 50463 50463 50463 50452 50452 50452 50458 50458 50458 50455 50455 50455 50455 
+ Optimal point: 4 4 4 4 4 4 3 3 3 3 4 
+++++++++++++++++++++++++++++++++++++++++++++++++++++++++++
++++++++++++++++++++++++++++++++++++++++++++++++
 + TIMESTAMP: 39.1975
REINVADE (50456)
  + pid: 50456
  + min_cores: 1
  + max_cores: 512
  + scalability graph: 
1, 1.36329, 1.52423, 1.62017, 1.68565, 1.73398, 1.77154, 1.80182, 1.8269, 1.84812, 1.86637, 1.88229, 1.89634, 1.90885, 1.92009, 1.93026, 1.93952, 1.94799, 1.95579, 1.963, 1.96968, 1.9759, 1.98172, 1.98716, 1.99228, 1.9971, 2.00164, 2.00594, 2.01002, 2.01389, 2.01757, 2.02108, 2.02443, 2.02763, 2.03069, 2.03362, 2.03644, 2.03914, 2.04173, 2.04423, 
Number of clients: 11

+++++++++++++++++++++++++++++++++++++++++++++++++++++++++++
+ Client Mapping:
  > Client 50455 (4):	36 37 38 39 
  > Client 50456 (4):	12 13 14 17 
  > Client 50458 (4):	33 34 35 5 
  > Client 50460 (4):	9 10 11 15 
  > Client 50453 (4):	0 21 22 23 
  > Client 50463 (4):	27 28 29 16 
  > Client 50452 (3):	30 31 32 
  > Client 50462 (3):	24 25 26 
  > Client 50457 (3):	1 2 3 
  > Client 50461 (3):	6 7 8 
  > Client 50454 (4):	4 18 19 20 

+ Core Mapping:	50453 50457 50457 50457 50454 50458 50461 50461 50461 50460 50460 50460 50456 50456 50456 50460 50463 50456 50454 50454 50454 50453 50453 50453 50462 50462 50462 50463 50463 50463 50452 50452 50452 50458 50458 50458 50455 50455 50455 50455 
+ Optimal point: 4 4 4 4 4 4 3 3 3 3 4 
+++++++++++++++++++++++++++++++++++++++++++++++++++++++++++
CLIENT SHUTDOWN: client 50454
 + TIMESTAMP: 40.6592
+++++++++++++++++++++++++++++++++++++++++++++++++++++++++++
+ Client Mapping:
  > Client 50455 (4):	36 37 38 39 
  > Client 50456 (4):	12 13 14 17 
  > Client 50458 (4):	33 34 35 5 
  > Client 50460 (4):	9 10 11 15 
  > Client 50453 (4):	0 21 22 23 
  > Client 50463 (4):	27 28 29 16 
  > Client 50452 (3):	30 31 32 
  > Client 50462 (3):	24 25 26 
  > Client 50457 (3):	1 2 3 
  > Client 50461 (3):	6 7 8 
  > Client 50454 (0):	

+ Core Mapping:	50453 50457 50457 50457 0 50458 50461 50461 50461 50460 50460 50460 50456 50456 50456 50460 50463 50456 0 0 0 50453 50453 50453 50462 50462 50462 50463 50463 50463 50452 50452 50452 50458 50458 50458 50455 50455 50455 50455 
+ Optimal point: 4 4 4 4 4 4 3 3 3 3 4 
+++++++++++++++++++++++++++++++++++++++++++++++++++++++++++
client (50454) shutdown hint: 437.984
sum_client_shutdown_hint: 875.968
sum_client_shutdown_hint_div_time: 0
++++++++++++++++++++++++++++++++++++++++++++++++
 + TIMESTAMP: 40.6601
REINVADE (50462)
  + pid: 50462
  + min_cores: 1
  + max_cores: 512
  + scalability graph: 
1, 1.36329, 1.52423, 1.62017, 1.68565, 1.73398, 1.77154, 1.80182, 1.8269, 1.84812, 1.86637, 1.88229, 1.89634, 1.90885, 1.92009, 1.93026, 1.93952, 1.94799, 1.95579, 1.963, 1.96968, 1.9759, 1.98172, 1.98716, 1.99228, 1.9971, 2.00164, 2.00594, 2.01002, 2.01389, 2.01757, 2.02108, 2.02443, 2.02763, 2.03069, 2.03362, 2.03644, 2.03914, 2.04173, 2.04423, 
Number of clients: 10

+++++++++++++++++++++++++++++++++++++++++++++++++++++++++++
+ Client Mapping:
  > Client 50455 (4):	36 37 38 39 
  > Client 50456 (4):	12 13 14 17 
  > Client 50458 (4):	33 34 35 5 
  > Client 50460 (4):	9 10 11 15 
  > Client 50453 (4):	0 21 22 23 
  > Client 50463 (4):	27 28 29 16 
  > Client 50452 (3):	30 31 32 
  > Client 50462 (4):	24 25 26 4 
  > Client 50457 (3):	1 2 3 
  > Client 50461 (3):	6 7 8 

+ Core Mapping:	50453 50457 50457 50457 50462 50458 50461 50461 50461 50460 50460 50460 50456 50456 50456 50460 50463 50456 0 0 0 50453 50453 50453 50462 50462 50462 50463 50463 50463 50452 50452 50452 50458 50458 50458 50455 50455 50455 50455 
+ Optimal point: 4 4 4 4 4 4 4 4 4 4 
+++++++++++++++++++++++++++++++++++++++++++++++++++++++++++
++++++++++++++++++++++++++++++++++++++++++++++++
 + TIMESTAMP: 40.6628
REINVADE (50452)
  + pid: 50452
  + min_cores: 1
  + max_cores: 512
  + scalability graph: 
1, 1.36329, 1.52423, 1.62017, 1.68565, 1.73398, 1.77154, 1.80182, 1.8269, 1.84812, 1.86637, 1.88229, 1.89634, 1.90885, 1.92009, 1.93026, 1.93952, 1.94799, 1.95579, 1.963, 1.96968, 1.9759, 1.98172, 1.98716, 1.99228, 1.9971, 2.00164, 2.00594, 2.01002, 2.01389, 2.01757, 2.02108, 2.02443, 2.02763, 2.03069, 2.03362, 2.03644, 2.03914, 2.04173, 2.04423, 
Number of clients: 10

+++++++++++++++++++++++++++++++++++++++++++++++++++++++++++
+ Client Mapping:
  > Client 50455 (4):	36 37 38 39 
  > Client 50456 (4):	12 13 14 17 
  > Client 50458 (4):	33 34 35 5 
  > Client 50460 (4):	9 10 11 15 
  > Client 50453 (4):	0 21 22 23 
  > Client 50463 (4):	27 28 29 16 
  > Client 50452 (4):	30 31 32 18 
  > Client 50462 (4):	24 25 26 4 
  > Client 50457 (3):	1 2 3 
  > Client 50461 (3):	6 7 8 

+ Core Mapping:	50453 50457 50457 50457 50462 50458 50461 50461 50461 50460 50460 50460 50456 50456 50456 50460 50463 50456 50452 0 0 50453 50453 50453 50462 50462 50462 50463 50463 50463 50452 50452 50452 50458 50458 50458 50455 50455 50455 50455 
+ Optimal point: 4 4 4 4 4 4 4 4 4 4 
+++++++++++++++++++++++++++++++++++++++++++++++++++++++++++
++++++++++++++++++++++++++++++++++++++++++++++++
 + TIMESTAMP: 40.6634
REINVADE (50461)
  + pid: 50461
  + min_cores: 1
  + max_cores: 512
  + scalability graph: 
1, 1.36329, 1.52423, 1.62017, 1.68565, 1.73398, 1.77154, 1.80182, 1.8269, 1.84812, 1.86637, 1.88229, 1.89634, 1.90885, 1.92009, 1.93026, 1.93952, 1.94799, 1.95579, 1.963, 1.96968, 1.9759, 1.98172, 1.98716, 1.99228, 1.9971, 2.00164, 2.00594, 2.01002, 2.01389, 2.01757, 2.02108, 2.02443, 2.02763, 2.03069, 2.03362, 2.03644, 2.03914, 2.04173, 2.04423, 
Number of clients: 10

+++++++++++++++++++++++++++++++++++++++++++++++++++++++++++
+ Client Mapping:
  > Client 50455 (4):	36 37 38 39 
  > Client 50456 (4):	12 13 14 17 
  > Client 50458 (4):	33 34 35 5 
  > Client 50460 (4):	9 10 11 15 
  > Client 50453 (4):	0 21 22 23 
  > Client 50463 (4):	27 28 29 16 
  > Client 50452 (4):	30 31 32 18 
  > Client 50462 (4):	24 25 26 4 
  > Client 50457 (3):	1 2 3 
  > Client 50461 (4):	6 7 8 19 

+ Core Mapping:	50453 50457 50457 50457 50462 50458 50461 50461 50461 50460 50460 50460 50456 50456 50456 50460 50463 50456 50452 50461 0 50453 50453 50453 50462 50462 50462 50463 50463 50463 50452 50452 50452 50458 50458 50458 50455 50455 50455 50455 
+ Optimal point: 4 4 4 4 4 4 4 4 4 4 
+++++++++++++++++++++++++++++++++++++++++++++++++++++++++++
++++++++++++++++++++++++++++++++++++++++++++++++
 + TIMESTAMP: 40.6667
REINVADE (50457)
  + pid: 50457
  + min_cores: 1
  + max_cores: 512
  + scalability graph: 
1, 1.36329, 1.52423, 1.62017, 1.68565, 1.73398, 1.77154, 1.80182, 1.8269, 1.84812, 1.86637, 1.88229, 1.89634, 1.90885, 1.92009, 1.93026, 1.93952, 1.94799, 1.95579, 1.963, 1.96968, 1.9759, 1.98172, 1.98716, 1.99228, 1.9971, 2.00164, 2.00594, 2.01002, 2.01389, 2.01757, 2.02108, 2.02443, 2.02763, 2.03069, 2.03362, 2.03644, 2.03914, 2.04173, 2.04423, 
Number of clients: 10

+++++++++++++++++++++++++++++++++++++++++++++++++++++++++++
+ Client Mapping:
  > Client 50455 (4):	36 37 38 39 
  > Client 50456 (4):	12 13 14 17 
  > Client 50458 (4):	33 34 35 5 
  > Client 50460 (4):	9 10 11 15 
  > Client 50453 (4):	0 21 22 23 
  > Client 50463 (4):	27 28 29 16 
  > Client 50452 (4):	30 31 32 18 
  > Client 50462 (4):	24 25 26 4 
  > Client 50457 (4):	1 2 3 20 
  > Client 50461 (4):	6 7 8 19 

+ Core Mapping:	50453 50457 50457 50457 50462 50458 50461 50461 50461 50460 50460 50460 50456 50456 50456 50460 50463 50456 50452 50461 50457 50453 50453 50453 50462 50462 50462 50463 50463 50463 50452 50452 50452 50458 50458 50458 50455 50455 50455 50455 
+ Optimal point: 4 4 4 4 4 4 4 4 4 4 
+++++++++++++++++++++++++++++++++++++++++++++++++++++++++++
CLIENT SHUTDOWN: client 50455
 + TIMESTAMP: 40.795
+++++++++++++++++++++++++++++++++++++++++++++++++++++++++++
+ Client Mapping:
  > Client 50455 (0):	
  > Client 50456 (4):	12 13 14 17 
  > Client 50458 (4):	33 34 35 5 
  > Client 50460 (4):	9 10 11 15 
  > Client 50453 (4):	0 21 22 23 
  > Client 50463 (4):	27 28 29 16 
  > Client 50452 (4):	30 31 32 18 
  > Client 50462 (4):	24 25 26 4 
  > Client 50457 (4):	1 2 3 20 
  > Client 50461 (4):	6 7 8 19 

+ Core Mapping:	50453 50457 50457 50457 50462 50458 50461 50461 50461 50460 50460 50460 50456 50456 50456 50460 50463 50456 50452 50461 50457 50453 50453 50453 50462 50462 50462 50463 50463 50463 50452 50452 50452 50458 50458 50458 0 0 0 0 
+ Optimal point: 4 4 4 4 4 4 4 4 4 4 
+++++++++++++++++++++++++++++++++++++++++++++++++++++++++++
client (50455) shutdown hint: 437.984
sum_client_shutdown_hint: 1313.95
sum_client_shutdown_hint_div_time: 0
++++++++++++++++++++++++++++++++++++++++++++++++
 + TIMESTAMP: 40.7961
REINVADE (50453)
  + pid: 50453
  + min_cores: 1
  + max_cores: 512
  + scalability graph: 
1, 1.36329, 1.52423, 1.62017, 1.68565, 1.73398, 1.77154, 1.80182, 1.8269, 1.84812, 1.86637, 1.88229, 1.89634, 1.90885, 1.92009, 1.93026, 1.93952, 1.94799, 1.95579, 1.963, 1.96968, 1.9759, 1.98172, 1.98716, 1.99228, 1.9971, 2.00164, 2.00594, 2.01002, 2.01389, 2.01757, 2.02108, 2.02443, 2.02763, 2.03069, 2.03362, 2.03644, 2.03914, 2.04173, 2.04423, 
Number of clients: 9

+++++++++++++++++++++++++++++++++++++++++++++++++++++++++++
+ Client Mapping:
  > Client 50456 (4):	12 13 14 17 
  > Client 50458 (4):	33 34 35 5 
  > Client 50460 (4):	9 10 11 15 
  > Client 50453 (5):	0 21 22 23 36 
  > Client 50463 (4):	27 28 29 16 
  > Client 50452 (4):	30 31 32 18 
  > Client 50462 (4):	24 25 26 4 
  > Client 50457 (4):	1 2 3 20 
  > Client 50461 (4):	6 7 8 19 

+ Core Mapping:	50453 50457 50457 50457 50462 50458 50461 50461 50461 50460 50460 50460 50456 50456 50456 50460 50463 50456 50452 50461 50457 50453 50453 50453 50462 50462 50462 50463 50463 50463 50452 50452 50452 50458 50458 50458 50453 0 0 0 
+ Optimal point: 5 5 5 5 4 4 4 4 4 
+++++++++++++++++++++++++++++++++++++++++++++++++++++++++++
++++++++++++++++++++++++++++++++++++++++++++++++
 + TIMESTAMP: 40.8011
REINVADE (50460)
  + pid: 50460
  + min_cores: 1
  + max_cores: 512
  + scalability graph: 
1, 1.36329, 1.52423, 1.62017, 1.68565, 1.73398, 1.77154, 1.80182, 1.8269, 1.84812, 1.86637, 1.88229, 1.89634, 1.90885, 1.92009, 1.93026, 1.93952, 1.94799, 1.95579, 1.963, 1.96968, 1.9759, 1.98172, 1.98716, 1.99228, 1.9971, 2.00164, 2.00594, 2.01002, 2.01389, 2.01757, 2.02108, 2.02443, 2.02763, 2.03069, 2.03362, 2.03644, 2.03914, 2.04173, 2.04423, 
Number of clients: 9

+++++++++++++++++++++++++++++++++++++++++++++++++++++++++++
+ Client Mapping:
  > Client 50456 (4):	12 13 14 17 
  > Client 50458 (4):	33 34 35 5 
  > Client 50460 (5):	9 10 11 15 37 
  > Client 50453 (5):	0 21 22 23 36 
  > Client 50463 (4):	27 28 29 16 
  > Client 50452 (4):	30 31 32 18 
  > Client 50462 (4):	24 25 26 4 
  > Client 50457 (4):	1 2 3 20 
  > Client 50461 (4):	6 7 8 19 

+ Core Mapping:	50453 50457 50457 50457 50462 50458 50461 50461 50461 50460 50460 50460 50456 50456 50456 50460 50463 50456 50452 50461 50457 50453 50453 50453 50462 50462 50462 50463 50463 50463 50452 50452 50452 50458 50458 50458 50453 50460 0 0 
+ Optimal point: 5 5 5 5 4 4 4 4 4 
+++++++++++++++++++++++++++++++++++++++++++++++++++++++++++
++++++++++++++++++++++++++++++++++++++++++++++++
 + TIMESTAMP: 40.8014
REINVADE (50458)
  + pid: 50458
  + min_cores: 1
  + max_cores: 512
  + scalability graph: 
1, 1.36329, 1.52423, 1.62017, 1.68565, 1.73398, 1.77154, 1.80182, 1.8269, 1.84812, 1.86637, 1.88229, 1.89634, 1.90885, 1.92009, 1.93026, 1.93952, 1.94799, 1.95579, 1.963, 1.96968, 1.9759, 1.98172, 1.98716, 1.99228, 1.9971, 2.00164, 2.00594, 2.01002, 2.01389, 2.01757, 2.02108, 2.02443, 2.02763, 2.03069, 2.03362, 2.03644, 2.03914, 2.04173, 2.04423, 
Number of clients: 9

+++++++++++++++++++++++++++++++++++++++++++++++++++++++++++
+ Client Mapping:
  > Client 50456 (4):	12 13 14 17 
  > Client 50458 (5):	33 34 35 5 38 
  > Client 50460 (5):	9 10 11 15 37 
  > Client 50453 (5):	0 21 22 23 36 
  > Client 50463 (4):	27 28 29 16 
  > Client 50452 (4):	30 31 32 18 
  > Client 50462 (4):	24 25 26 4 
  > Client 50457 (4):	1 2 3 20 
  > Client 50461 (4):	6 7 8 19 

+ Core Mapping:	50453 50457 50457 50457 50462 50458 50461 50461 50461 50460 50460 50460 50456 50456 50456 50460 50463 50456 50452 50461 50457 50453 50453 50453 50462 50462 50462 50463 50463 50463 50452 50452 50452 50458 50458 50458 50453 50460 50458 0 
+ Optimal point: 5 5 5 5 4 4 4 4 4 
+++++++++++++++++++++++++++++++++++++++++++++++++++++++++++
++++++++++++++++++++++++++++++++++++++++++++++++
 + TIMESTAMP: 40.8028
REINVADE (50456)
  + pid: 50456
  + min_cores: 1
  + max_cores: 512
  + scalability graph: 
1, 1.36329, 1.52423, 1.62017, 1.68565, 1.73398, 1.77154, 1.80182, 1.8269, 1.84812, 1.86637, 1.88229, 1.89634, 1.90885, 1.92009, 1.93026, 1.93952, 1.94799, 1.95579, 1.963, 1.96968, 1.9759, 1.98172, 1.98716, 1.99228, 1.9971, 2.00164, 2.00594, 2.01002, 2.01389, 2.01757, 2.02108, 2.02443, 2.02763, 2.03069, 2.03362, 2.03644, 2.03914, 2.04173, 2.04423, 
Number of clients: 9

+++++++++++++++++++++++++++++++++++++++++++++++++++++++++++
+ Client Mapping:
  > Client 50456 (5):	12 13 14 17 39 
  > Client 50458 (5):	33 34 35 5 38 
  > Client 50460 (5):	9 10 11 15 37 
  > Client 50453 (5):	0 21 22 23 36 
  > Client 50463 (4):	27 28 29 16 
  > Client 50452 (4):	30 31 32 18 
  > Client 50462 (4):	24 25 26 4 
  > Client 50457 (4):	1 2 3 20 
  > Client 50461 (4):	6 7 8 19 

+ Core Mapping:	50453 50457 50457 50457 50462 50458 50461 50461 50461 50460 50460 50460 50456 50456 50456 50460 50463 50456 50452 50461 50457 50453 50453 50453 50462 50462 50462 50463 50463 50463 50452 50452 50452 50458 50458 50458 50453 50460 50458 50456 
+ Optimal point: 5 5 5 5 4 4 4 4 4 
+++++++++++++++++++++++++++++++++++++++++++++++++++++++++++
CLIENT SHUTDOWN: client 50453
 + TIMESTAMP: 41.2895
+++++++++++++++++++++++++++++++++++++++++++++++++++++++++++
+ Client Mapping:
  > Client 50456 (5):	12 13 14 17 39 
  > Client 50458 (5):	33 34 35 5 38 
  > Client 50460 (5):	9 10 11 15 37 
  > Client 50453 (0):	
  > Client 50463 (4):	27 28 29 16 
  > Client 50452 (4):	30 31 32 18 
  > Client 50462 (4):	24 25 26 4 
  > Client 50457 (4):	1 2 3 20 
  > Client 50461 (4):	6 7 8 19 

+ Core Mapping:	0 50457 50457 50457 50462 50458 50461 50461 50461 50460 50460 50460 50456 50456 50456 50460 50463 50456 50452 50461 50457 0 0 0 50462 50462 50462 50463 50463 50463 50452 50452 50452 50458 50458 50458 0 50460 50458 50456 
+ Optimal point: 5 5 5 5 4 4 4 4 4 
+++++++++++++++++++++++++++++++++++++++++++++++++++++++++++
client (50453) shutdown hint: 437.984
sum_client_shutdown_hint: 1751.94
sum_client_shutdown_hint_div_time: 0
++++++++++++++++++++++++++++++++++++++++++++++++
 + TIMESTAMP: 41.2945
REINVADE (50457)
  + pid: 50457
  + min_cores: 1
  + max_cores: 512
  + scalability graph: 
1, 1.36329, 1.52423, 1.62017, 1.68565, 1.73398, 1.77154, 1.80182, 1.8269, 1.84812, 1.86637, 1.88229, 1.89634, 1.90885, 1.92009, 1.93026, 1.93952, 1.94799, 1.95579, 1.963, 1.96968, 1.9759, 1.98172, 1.98716, 1.99228, 1.9971, 2.00164, 2.00594, 2.01002, 2.01389, 2.01757, 2.02108, 2.02443, 2.02763, 2.03069, 2.03362, 2.03644, 2.03914, 2.04173, 2.04423, 
Number of clients: 8

+++++++++++++++++++++++++++++++++++++++++++++++++++++++++++
+ Client Mapping:
  > Client 50456 (5):	12 13 14 17 39 
  > Client 50458 (5):	33 34 35 5 38 
  > Client 50460 (5):	9 10 11 15 37 
  > Client 50463 (4):	27 28 29 16 
  > Client 50452 (4):	30 31 32 18 
  > Client 50462 (4):	24 25 26 4 
  > Client 50457 (5):	1 2 3 20 0 
  > Client 50461 (4):	6 7 8 19 

+ Core Mapping:	50457 50457 50457 50457 50462 50458 50461 50461 50461 50460 50460 50460 50456 50456 50456 50460 50463 50456 50452 50461 50457 0 0 0 50462 50462 50462 50463 50463 50463 50452 50452 50452 50458 50458 50458 0 50460 50458 50456 
+ Optimal point: 5 5 5 5 5 5 5 5 
+++++++++++++++++++++++++++++++++++++++++++++++++++++++++++
++++++++++++++++++++++++++++++++++++++++++++++++
 + TIMESTAMP: 41.2947
REINVADE (50452)
  + pid: 50452
  + min_cores: 1
  + max_cores: 512
  + scalability graph: 
1, 1.36329, 1.52423, 1.62017, 1.68565, 1.73398, 1.77154, 1.80182, 1.8269, 1.84812, 1.86637, 1.88229, 1.89634, 1.90885, 1.92009, 1.93026, 1.93952, 1.94799, 1.95579, 1.963, 1.96968, 1.9759, 1.98172, 1.98716, 1.99228, 1.9971, 2.00164, 2.00594, 2.01002, 2.01389, 2.01757, 2.02108, 2.02443, 2.02763, 2.03069, 2.03362, 2.03644, 2.03914, 2.04173, 2.04423, 
Number of clients: 8

+++++++++++++++++++++++++++++++++++++++++++++++++++++++++++
+ Client Mapping:
  > Client 50456 (5):	12 13 14 17 39 
  > Client 50458 (5):	33 34 35 5 38 
  > Client 50460 (5):	9 10 11 15 37 
  > Client 50463 (4):	27 28 29 16 
  > Client 50452 (5):	30 31 32 18 21 
  > Client 50462 (4):	24 25 26 4 
  > Client 50457 (5):	1 2 3 20 0 
  > Client 50461 (4):	6 7 8 19 

+ Core Mapping:	50457 50457 50457 50457 50462 50458 50461 50461 50461 50460 50460 50460 50456 50456 50456 50460 50463 50456 50452 50461 50457 50452 0 0 50462 50462 50462 50463 50463 50463 50452 50452 50452 50458 50458 50458 0 50460 50458 50456 
+ Optimal point: 5 5 5 5 5 5 5 5 
+++++++++++++++++++++++++++++++++++++++++++++++++++++++++++
++++++++++++++++++++++++++++++++++++++++++++++++
 + TIMESTAMP: 41.2951
REINVADE (50463)
  + pid: 50463
  + min_cores: 1
  + max_cores: 512
  + scalability graph: 
1, 1.36329, 1.52423, 1.62017, 1.68565, 1.73398, 1.77154, 1.80182, 1.8269, 1.84812, 1.86637, 1.88229, 1.89634, 1.90885, 1.92009, 1.93026, 1.93952, 1.94799, 1.95579, 1.963, 1.96968, 1.9759, 1.98172, 1.98716, 1.99228, 1.9971, 2.00164, 2.00594, 2.01002, 2.01389, 2.01757, 2.02108, 2.02443, 2.02763, 2.03069, 2.03362, 2.03644, 2.03914, 2.04173, 2.04423, 
Number of clients: 8

+++++++++++++++++++++++++++++++++++++++++++++++++++++++++++
+ Client Mapping:
  > Client 50456 (5):	12 13 14 17 39 
  > Client 50458 (5):	33 34 35 5 38 
  > Client 50460 (5):	9 10 11 15 37 
  > Client 50463 (5):	27 28 29 16 22 
  > Client 50452 (5):	30 31 32 18 21 
  > Client 50462 (4):	24 25 26 4 
  > Client 50457 (5):	1 2 3 20 0 
  > Client 50461 (4):	6 7 8 19 

+ Core Mapping:	50457 50457 50457 50457 50462 50458 50461 50461 50461 50460 50460 50460 50456 50456 50456 50460 50463 50456 50452 50461 50457 50452 50463 0 50462 50462 50462 50463 50463 50463 50452 50452 50452 50458 50458 50458 0 50460 50458 50456 
+ Optimal point: 5 5 5 5 5 5 5 5 
+++++++++++++++++++++++++++++++++++++++++++++++++++++++++++
++++++++++++++++++++++++++++++++++++++++++++++++
 + TIMESTAMP: 41.2955
REINVADE (50462)
  + pid: 50462
  + min_cores: 1
  + max_cores: 512
  + scalability graph: 
1, 1.36329, 1.52423, 1.62017, 1.68565, 1.73398, 1.77154, 1.80182, 1.8269, 1.84812, 1.86637, 1.88229, 1.89634, 1.90885, 1.92009, 1.93026, 1.93952, 1.94799, 1.95579, 1.963, 1.96968, 1.9759, 1.98172, 1.98716, 1.99228, 1.9971, 2.00164, 2.00594, 2.01002, 2.01389, 2.01757, 2.02108, 2.02443, 2.02763, 2.03069, 2.03362, 2.03644, 2.03914, 2.04173, 2.04423, 
Number of clients: 8

+++++++++++++++++++++++++++++++++++++++++++++++++++++++++++
+ Client Mapping:
  > Client 50456 (5):	12 13 14 17 39 
  > Client 50458 (5):	33 34 35 5 38 
  > Client 50460 (5):	9 10 11 15 37 
  > Client 50463 (5):	27 28 29 16 22 
  > Client 50452 (5):	30 31 32 18 21 
  > Client 50462 (5):	24 25 26 4 23 
  > Client 50457 (5):	1 2 3 20 0 
  > Client 50461 (4):	6 7 8 19 

+ Core Mapping:	50457 50457 50457 50457 50462 50458 50461 50461 50461 50460 50460 50460 50456 50456 50456 50460 50463 50456 50452 50461 50457 50452 50463 50462 50462 50462 50462 50463 50463 50463 50452 50452 50452 50458 50458 50458 0 50460 50458 50456 
+ Optimal point: 5 5 5 5 5 5 5 5 
+++++++++++++++++++++++++++++++++++++++++++++++++++++++++++
++++++++++++++++++++++++++++++++++++++++++++++++
 + TIMESTAMP: 41.297
REINVADE (50461)
  + pid: 50461
  + min_cores: 1
  + max_cores: 512
  + scalability graph: 
1, 1.36329, 1.52423, 1.62017, 1.68565, 1.73398, 1.77154, 1.80182, 1.8269, 1.84812, 1.86637, 1.88229, 1.89634, 1.90885, 1.92009, 1.93026, 1.93952, 1.94799, 1.95579, 1.963, 1.96968, 1.9759, 1.98172, 1.98716, 1.99228, 1.9971, 2.00164, 2.00594, 2.01002, 2.01389, 2.01757, 2.02108, 2.02443, 2.02763, 2.03069, 2.03362, 2.03644, 2.03914, 2.04173, 2.04423, 
Number of clients: 8

+++++++++++++++++++++++++++++++++++++++++++++++++++++++++++
+ Client Mapping:
  > Client 50456 (5):	12 13 14 17 39 
  > Client 50458 (5):	33 34 35 5 38 
  > Client 50460 (5):	9 10 11 15 37 
  > Client 50463 (5):	27 28 29 16 22 
  > Client 50452 (5):	30 31 32 18 21 
  > Client 50462 (5):	24 25 26 4 23 
  > Client 50457 (5):	1 2 3 20 0 
  > Client 50461 (5):	6 7 8 19 36 

+ Core Mapping:	50457 50457 50457 50457 50462 50458 50461 50461 50461 50460 50460 50460 50456 50456 50456 50460 50463 50456 50452 50461 50457 50452 50463 50462 50462 50462 50462 50463 50463 50463 50452 50452 50452 50458 50458 50458 50461 50460 50458 50456 
+ Optimal point: 5 5 5 5 5 5 5 5 
+++++++++++++++++++++++++++++++++++++++++++++++++++++++++++
CLIENT SHUTDOWN: client 50460
 + TIMESTAMP: 46.6921
+++++++++++++++++++++++++++++++++++++++++++++++++++++++++++
+ Client Mapping:
  > Client 50456 (5):	12 13 14 17 39 
  > Client 50458 (5):	33 34 35 5 38 
  > Client 50460 (0):	
  > Client 50463 (5):	27 28 29 16 22 
  > Client 50452 (5):	30 31 32 18 21 
  > Client 50462 (5):	24 25 26 4 23 
  > Client 50457 (5):	1 2 3 20 0 
  > Client 50461 (5):	6 7 8 19 36 

+ Core Mapping:	50457 50457 50457 50457 50462 50458 50461 50461 50461 0 0 0 50456 50456 50456 0 50463 50456 50452 50461 50457 50452 50463 50462 50462 50462 50462 50463 50463 50463 50452 50452 50452 50458 50458 50458 50461 0 50458 50456 
+ Optimal point: 5 5 5 5 5 5 5 5 
+++++++++++++++++++++++++++++++++++++++++++++++++++++++++++
client (50460) shutdown hint: 437.984
sum_client_shutdown_hint: 2189.92
sum_client_shutdown_hint_div_time: 0
++++++++++++++++++++++++++++++++++++++++++++++++
 + TIMESTAMP: 46.6923
REINVADE (50456)
  + pid: 50456
  + min_cores: 1
  + max_cores: 512
  + scalability graph: 
1, 1.36329, 1.52423, 1.62017, 1.68565, 1.73398, 1.77154, 1.80182, 1.8269, 1.84812, 1.86637, 1.88229, 1.89634, 1.90885, 1.92009, 1.93026, 1.93952, 1.94799, 1.95579, 1.963, 1.96968, 1.9759, 1.98172, 1.98716, 1.99228, 1.9971, 2.00164, 2.00594, 2.01002, 2.01389, 2.01757, 2.02108, 2.02443, 2.02763, 2.03069, 2.03362, 2.03644, 2.03914, 2.04173, 2.04423, 
Number of clients: 7

+++++++++++++++++++++++++++++++++++++++++++++++++++++++++++
+ Client Mapping:
  > Client 50456 (6):	12 13 14 17 39 9 
  > Client 50458 (5):	33 34 35 5 38 
  > Client 50463 (5):	27 28 29 16 22 
  > Client 50452 (5):	30 31 32 18 21 
  > Client 50462 (5):	24 25 26 4 23 
  > Client 50457 (5):	1 2 3 20 0 
  > Client 50461 (5):	6 7 8 19 36 

+ Core Mapping:	50457 50457 50457 50457 50462 50458 50461 50461 50461 50456 0 0 50456 50456 50456 0 50463 50456 50452 50461 50457 50452 50463 50462 50462 50462 50462 50463 50463 50463 50452 50452 50452 50458 50458 50458 50461 0 50458 50456 
+ Optimal point: 6 6 6 6 6 5 5 
+++++++++++++++++++++++++++++++++++++++++++++++++++++++++++
++++++++++++++++++++++++++++++++++++++++++++++++
 + TIMESTAMP: 46.6925
REINVADE (50462)
  + pid: 50462
  + min_cores: 1
  + max_cores: 512
  + scalability graph: 
1, 1.36329, 1.52423, 1.62017, 1.68565, 1.73398, 1.77154, 1.80182, 1.8269, 1.84812, 1.86637, 1.88229, 1.89634, 1.90885, 1.92009, 1.93026, 1.93952, 1.94799, 1.95579, 1.963, 1.96968, 1.9759, 1.98172, 1.98716, 1.99228, 1.9971, 2.00164, 2.00594, 2.01002, 2.01389, 2.01757, 2.02108, 2.02443, 2.02763, 2.03069, 2.03362, 2.03644, 2.03914, 2.04173, 2.04423, 
Number of clients: 7

+++++++++++++++++++++++++++++++++++++++++++++++++++++++++++
+ Client Mapping:
  > Client 50456 (6):	12 13 14 17 39 9 
  > Client 50458 (5):	33 34 35 5 38 
  > Client 50463 (5):	27 28 29 16 22 
  > Client 50452 (5):	30 31 32 18 21 
  > Client 50462 (6):	24 25 26 4 23 10 
  > Client 50457 (5):	1 2 3 20 0 
  > Client 50461 (5):	6 7 8 19 36 

+ Core Mapping:	50457 50457 50457 50457 50462 50458 50461 50461 50461 50456 50462 0 50456 50456 50456 0 50463 50456 50452 50461 50457 50452 50463 50462 50462 50462 50462 50463 50463 50463 50452 50452 50452 50458 50458 50458 50461 0 50458 50456 
+ Optimal point: 6 6 6 6 6 5 5 
+++++++++++++++++++++++++++++++++++++++++++++++++++++++++++
++++++++++++++++++++++++++++++++++++++++++++++++
 + TIMESTAMP: 46.6928
REINVADE (50463)
  + pid: 50463
  + min_cores: 1
  + max_cores: 512
  + scalability graph: 
1, 1.36329, 1.52423, 1.62017, 1.68565, 1.73398, 1.77154, 1.80182, 1.8269, 1.84812, 1.86637, 1.88229, 1.89634, 1.90885, 1.92009, 1.93026, 1.93952, 1.94799, 1.95579, 1.963, 1.96968, 1.9759, 1.98172, 1.98716, 1.99228, 1.9971, 2.00164, 2.00594, 2.01002, 2.01389, 2.01757, 2.02108, 2.02443, 2.02763, 2.03069, 2.03362, 2.03644, 2.03914, 2.04173, 2.04423, 
Number of clients: 7

+++++++++++++++++++++++++++++++++++++++++++++++++++++++++++
+ Client Mapping:
  > Client 50456 (6):	12 13 14 17 39 9 
  > Client 50458 (5):	33 34 35 5 38 
  > Client 50463 (6):	27 28 29 16 22 11 
  > Client 50452 (5):	30 31 32 18 21 
  > Client 50462 (6):	24 25 26 4 23 10 
  > Client 50457 (5):	1 2 3 20 0 
  > Client 50461 (5):	6 7 8 19 36 

+ Core Mapping:	50457 50457 50457 50457 50462 50458 50461 50461 50461 50456 50462 50463 50456 50456 50456 0 50463 50456 50452 50461 50457 50452 50463 50462 50462 50462 50462 50463 50463 50463 50452 50452 50452 50458 50458 50458 50461 0 50458 50456 
+ Optimal point: 6 6 6 6 6 5 5 
+++++++++++++++++++++++++++++++++++++++++++++++++++++++++++
++++++++++++++++++++++++++++++++++++++++++++++++
 + TIMESTAMP: 46.6929
REINVADE (50458)
  + pid: 50458
  + min_cores: 1
  + max_cores: 512
  + scalability graph: 
1, 1.36329, 1.52423, 1.62017, 1.68565, 1.73398, 1.77154, 1.80182, 1.8269, 1.84812, 1.86637, 1.88229, 1.89634, 1.90885, 1.92009, 1.93026, 1.93952, 1.94799, 1.95579, 1.963, 1.96968, 1.9759, 1.98172, 1.98716, 1.99228, 1.9971, 2.00164, 2.00594, 2.01002, 2.01389, 2.01757, 2.02108, 2.02443, 2.02763, 2.03069, 2.03362, 2.03644, 2.03914, 2.04173, 2.04423, 
Number of clients: 7

+++++++++++++++++++++++++++++++++++++++++++++++++++++++++++
+ Client Mapping:
  > Client 50456 (6):	12 13 14 17 39 9 
  > Client 50458 (6):	33 34 35 5 38 15 
  > Client 50463 (6):	27 28 29 16 22 11 
  > Client 50452 (5):	30 31 32 18 21 
  > Client 50462 (6):	24 25 26 4 23 10 
  > Client 50457 (5):	1 2 3 20 0 
  > Client 50461 (5):	6 7 8 19 36 

+ Core Mapping:	50457 50457 50457 50457 50462 50458 50461 50461 50461 50456 50462 50463 50456 50456 50456 50458 50463 50456 50452 50461 50457 50452 50463 50462 50462 50462 50462 50463 50463 50463 50452 50452 50452 50458 50458 50458 50461 0 50458 50456 
+ Optimal point: 6 6 6 6 6 5 5 
+++++++++++++++++++++++++++++++++++++++++++++++++++++++++++
++++++++++++++++++++++++++++++++++++++++++++++++
 + TIMESTAMP: 46.6933
REINVADE (50452)
  + pid: 50452
  + min_cores: 1
  + max_cores: 512
  + scalability graph: 
1, 1.36329, 1.52423, 1.62017, 1.68565, 1.73398, 1.77154, 1.80182, 1.8269, 1.84812, 1.86637, 1.88229, 1.89634, 1.90885, 1.92009, 1.93026, 1.93952, 1.94799, 1.95579, 1.963, 1.96968, 1.9759, 1.98172, 1.98716, 1.99228, 1.9971, 2.00164, 2.00594, 2.01002, 2.01389, 2.01757, 2.02108, 2.02443, 2.02763, 2.03069, 2.03362, 2.03644, 2.03914, 2.04173, 2.04423, 
Number of clients: 7

+++++++++++++++++++++++++++++++++++++++++++++++++++++++++++
+ Client Mapping:
  > Client 50456 (6):	12 13 14 17 39 9 
  > Client 50458 (6):	33 34 35 5 38 15 
  > Client 50463 (6):	27 28 29 16 22 11 
  > Client 50452 (6):	30 31 32 18 21 37 
  > Client 50462 (6):	24 25 26 4 23 10 
  > Client 50457 (5):	1 2 3 20 0 
  > Client 50461 (5):	6 7 8 19 36 

+ Core Mapping:	50457 50457 50457 50457 50462 50458 50461 50461 50461 50456 50462 50463 50456 50456 50456 50458 50463 50456 50452 50461 50457 50452 50463 50462 50462 50462 50462 50463 50463 50463 50452 50452 50452 50458 50458 50458 50461 50452 50458 50456 
+ Optimal point: 6 6 6 6 6 5 5 
+++++++++++++++++++++++++++++++++++++++++++++++++++++++++++
CLIENT SHUTDOWN: client 50456
 + TIMESTAMP: 47.1635
+++++++++++++++++++++++++++++++++++++++++++++++++++++++++++
+ Client Mapping:
  > Client 50456 (0):	
  > Client 50458 (6):	33 34 35 5 38 15 
  > Client 50463 (6):	27 28 29 16 22 11 
  > Client 50452 (6):	30 31 32 18 21 37 
  > Client 50462 (6):	24 25 26 4 23 10 
  > Client 50457 (5):	1 2 3 20 0 
  > Client 50461 (5):	6 7 8 19 36 

+ Core Mapping:	50457 50457 50457 50457 50462 50458 50461 50461 50461 0 50462 50463 0 0 0 50458 50463 0 50452 50461 50457 50452 50463 50462 50462 50462 50462 50463 50463 50463 50452 50452 50452 50458 50458 50458 50461 50452 50458 0 
+ Optimal point: 6 6 6 6 6 5 5 
+++++++++++++++++++++++++++++++++++++++++++++++++++++++++++
client (50456) shutdown hint: 437.984
sum_client_shutdown_hint: 2627.9
sum_client_shutdown_hint_div_time: 0
++++++++++++++++++++++++++++++++++++++++++++++++
 + TIMESTAMP: 47.1637
REINVADE (50462)
  + pid: 50462
  + min_cores: 1
  + max_cores: 512
  + scalability graph: 
1, 1.36329, 1.52423, 1.62017, 1.68565, 1.73398, 1.77154, 1.80182, 1.8269, 1.84812, 1.86637, 1.88229, 1.89634, 1.90885, 1.92009, 1.93026, 1.93952, 1.94799, 1.95579, 1.963, 1.96968, 1.9759, 1.98172, 1.98716, 1.99228, 1.9971, 2.00164, 2.00594, 2.01002, 2.01389, 2.01757, 2.02108, 2.02443, 2.02763, 2.03069, 2.03362, 2.03644, 2.03914, 2.04173, 2.04423, 
Number of clients: 6

+++++++++++++++++++++++++++++++++++++++++++++++++++++++++++
+ Client Mapping:
  > Client 50458 (6):	33 34 35 5 38 15 
  > Client 50463 (6):	27 28 29 16 22 11 
  > Client 50452 (6):	30 31 32 18 21 37 
  > Client 50462 (7):	24 25 26 4 23 10 9 
  > Client 50457 (5):	1 2 3 20 0 
  > Client 50461 (5):	6 7 8 19 36 

+ Core Mapping:	50457 50457 50457 50457 50462 50458 50461 50461 50461 50462 50462 50463 0 0 0 50458 50463 0 50452 50461 50457 50452 50463 50462 50462 50462 50462 50463 50463 50463 50452 50452 50452 50458 50458 50458 50461 50452 50458 0 
+ Optimal point: 7 7 7 7 6 6 
+++++++++++++++++++++++++++++++++++++++++++++++++++++++++++
++++++++++++++++++++++++++++++++++++++++++++++++
 + TIMESTAMP: 47.1638
REINVADE (50452)
  + pid: 50452
  + min_cores: 1
  + max_cores: 512
  + scalability graph: 
1, 1.36329, 1.52423, 1.62017, 1.68565, 1.73398, 1.77154, 1.80182, 1.8269, 1.84812, 1.86637, 1.88229, 1.89634, 1.90885, 1.92009, 1.93026, 1.93952, 1.94799, 1.95579, 1.963, 1.96968, 1.9759, 1.98172, 1.98716, 1.99228, 1.9971, 2.00164, 2.00594, 2.01002, 2.01389, 2.01757, 2.02108, 2.02443, 2.02763, 2.03069, 2.03362, 2.03644, 2.03914, 2.04173, 2.04423, 
Number of clients: 6

+++++++++++++++++++++++++++++++++++++++++++++++++++++++++++
+ Client Mapping:
  > Client 50458 (6):	33 34 35 5 38 15 
  > Client 50463 (6):	27 28 29 16 22 11 
  > Client 50452 (7):	30 31 32 18 21 37 12 
  > Client 50462 (7):	24 25 26 4 23 10 9 
  > Client 50457 (5):	1 2 3 20 0 
  > Client 50461 (5):	6 7 8 19 36 

+ Core Mapping:	50457 50457 50457 50457 50462 50458 50461 50461 50461 50462 50462 50463 50452 0 0 50458 50463 0 50452 50461 50457 50452 50463 50462 50462 50462 50462 50463 50463 50463 50452 50452 50452 50458 50458 50458 50461 50452 50458 0 
+ Optimal point: 7 7 7 7 6 6 
+++++++++++++++++++++++++++++++++++++++++++++++++++++++++++
++++++++++++++++++++++++++++++++++++++++++++++++
 + TIMESTAMP: 47.164
REINVADE (50457)
  + pid: 50457
  + min_cores: 1
  + max_cores: 512
  + scalability graph: 
1, 1.36329, 1.52423, 1.62017, 1.68565, 1.73398, 1.77154, 1.80182, 1.8269, 1.84812, 1.86637, 1.88229, 1.89634, 1.90885, 1.92009, 1.93026, 1.93952, 1.94799, 1.95579, 1.963, 1.96968, 1.9759, 1.98172, 1.98716, 1.99228, 1.9971, 2.00164, 2.00594, 2.01002, 2.01389, 2.01757, 2.02108, 2.02443, 2.02763, 2.03069, 2.03362, 2.03644, 2.03914, 2.04173, 2.04423, 
Number of clients: 6

+++++++++++++++++++++++++++++++++++++++++++++++++++++++++++
+ Client Mapping:
  > Client 50458 (6):	33 34 35 5 38 15 
  > Client 50463 (6):	27 28 29 16 22 11 
  > Client 50452 (7):	30 31 32 18 21 37 12 
  > Client 50462 (7):	24 25 26 4 23 10 9 
  > Client 50457 (6):	1 2 3 20 0 13 
  > Client 50461 (5):	6 7 8 19 36 

+ Core Mapping:	50457 50457 50457 50457 50462 50458 50461 50461 50461 50462 50462 50463 50452 50457 0 50458 50463 0 50452 50461 50457 50452 50463 50462 50462 50462 50462 50463 50463 50463 50452 50452 50452 50458 50458 50458 50461 50452 50458 0 
+ Optimal point: 7 7 7 7 6 6 
+++++++++++++++++++++++++++++++++++++++++++++++++++++++++++
++++++++++++++++++++++++++++++++++++++++++++++++
 + TIMESTAMP: 47.1642
REINVADE (50461)
  + pid: 50461
  + min_cores: 1
  + max_cores: 512
  + scalability graph: 
1, 1.36329, 1.52423, 1.62017, 1.68565, 1.73398, 1.77154, 1.80182, 1.8269, 1.84812, 1.86637, 1.88229, 1.89634, 1.90885, 1.92009, 1.93026, 1.93952, 1.94799, 1.95579, 1.963, 1.96968, 1.9759, 1.98172, 1.98716, 1.99228, 1.9971, 2.00164, 2.00594, 2.01002, 2.01389, 2.01757, 2.02108, 2.02443, 2.02763, 2.03069, 2.03362, 2.03644, 2.03914, 2.04173, 2.04423, 
Number of clients: 6

+++++++++++++++++++++++++++++++++++++++++++++++++++++++++++
+ Client Mapping:
  > Client 50458 (6):	33 34 35 5 38 15 
  > Client 50463 (6):	27 28 29 16 22 11 
  > Client 50452 (7):	30 31 32 18 21 37 12 
  > Client 50462 (7):	24 25 26 4 23 10 9 
  > Client 50457 (6):	1 2 3 20 0 13 
  > Client 50461 (6):	6 7 8 19 36 14 

+ Core Mapping:	50457 50457 50457 50457 50462 50458 50461 50461 50461 50462 50462 50463 50452 50457 50461 50458 50463 0 50452 50461 50457 50452 50463 50462 50462 50462 50462 50463 50463 50463 50452 50452 50452 50458 50458 50458 50461 50452 50458 0 
+ Optimal point: 7 7 7 7 6 6 
+++++++++++++++++++++++++++++++++++++++++++++++++++++++++++
++++++++++++++++++++++++++++++++++++++++++++++++
 + TIMESTAMP: 47.1643
REINVADE (50458)
  + pid: 50458
  + min_cores: 1
  + max_cores: 512
  + scalability graph: 
1, 1.36329, 1.52423, 1.62017, 1.68565, 1.73398, 1.77154, 1.80182, 1.8269, 1.84812, 1.86637, 1.88229, 1.89634, 1.90885, 1.92009, 1.93026, 1.93952, 1.94799, 1.95579, 1.963, 1.96968, 1.9759, 1.98172, 1.98716, 1.99228, 1.9971, 2.00164, 2.00594, 2.01002, 2.01389, 2.01757, 2.02108, 2.02443, 2.02763, 2.03069, 2.03362, 2.03644, 2.03914, 2.04173, 2.04423, 
Number of clients: 6

+++++++++++++++++++++++++++++++++++++++++++++++++++++++++++
+ Client Mapping:
  > Client 50458 (7):	33 34 35 5 38 15 17 
  > Client 50463 (6):	27 28 29 16 22 11 
  > Client 50452 (7):	30 31 32 18 21 37 12 
  > Client 50462 (7):	24 25 26 4 23 10 9 
  > Client 50457 (6):	1 2 3 20 0 13 
  > Client 50461 (6):	6 7 8 19 36 14 

+ Core Mapping:	50457 50457 50457 50457 50462 50458 50461 50461 50461 50462 50462 50463 50452 50457 50461 50458 50463 50458 50452 50461 50457 50452 50463 50462 50462 50462 50462 50463 50463 50463 50452 50452 50452 50458 50458 50458 50461 50452 50458 0 
+ Optimal point: 7 7 7 7 6 6 
+++++++++++++++++++++++++++++++++++++++++++++++++++++++++++
++++++++++++++++++++++++++++++++++++++++++++++++
 + TIMESTAMP: 47.1644
REINVADE (50463)
  + pid: 50463
  + min_cores: 1
  + max_cores: 512
  + scalability graph: 
1, 1.36329, 1.52423, 1.62017, 1.68565, 1.73398, 1.77154, 1.80182, 1.8269, 1.84812, 1.86637, 1.88229, 1.89634, 1.90885, 1.92009, 1.93026, 1.93952, 1.94799, 1.95579, 1.963, 1.96968, 1.9759, 1.98172, 1.98716, 1.99228, 1.9971, 2.00164, 2.00594, 2.01002, 2.01389, 2.01757, 2.02108, 2.02443, 2.02763, 2.03069, 2.03362, 2.03644, 2.03914, 2.04173, 2.04423, 
Number of clients: 6

+++++++++++++++++++++++++++++++++++++++++++++++++++++++++++
+ Client Mapping:
  > Client 50458 (7):	33 34 35 5 38 15 17 
  > Client 50463 (7):	27 28 29 16 22 11 39 
  > Client 50452 (7):	30 31 32 18 21 37 12 
  > Client 50462 (7):	24 25 26 4 23 10 9 
  > Client 50457 (6):	1 2 3 20 0 13 
  > Client 50461 (6):	6 7 8 19 36 14 

+ Core Mapping:	50457 50457 50457 50457 50462 50458 50461 50461 50461 50462 50462 50463 50452 50457 50461 50458 50463 50458 50452 50461 50457 50452 50463 50462 50462 50462 50462 50463 50463 50463 50452 50452 50452 50458 50458 50458 50461 50452 50458 50463 
+ Optimal point: 7 7 7 7 6 6 
+++++++++++++++++++++++++++++++++++++++++++++++++++++++++++
CLIENT SHUTDOWN: client 50458
 + TIMESTAMP: 47.1836
+++++++++++++++++++++++++++++++++++++++++++++++++++++++++++
+ Client Mapping:
  > Client 50458 (0):	
  > Client 50463 (7):	27 28 29 16 22 11 39 
  > Client 50452 (7):	30 31 32 18 21 37 12 
  > Client 50462 (7):	24 25 26 4 23 10 9 
  > Client 50457 (6):	1 2 3 20 0 13 
  > Client 50461 (6):	6 7 8 19 36 14 

+ Core Mapping:	50457 50457 50457 50457 50462 0 50461 50461 50461 50462 50462 50463 50452 50457 50461 0 50463 0 50452 50461 50457 50452 50463 50462 50462 50462 50462 50463 50463 50463 50452 50452 50452 0 0 0 50461 50452 0 50463 
+ Optimal point: 7 7 7 7 6 6 
+++++++++++++++++++++++++++++++++++++++++++++++++++++++++++
client (50458) shutdown hint: 437.984
sum_client_shutdown_hint: 3065.89
sum_client_shutdown_hint_div_time: 0
++++++++++++++++++++++++++++++++++++++++++++++++
 + TIMESTAMP: 47.1837
REINVADE (50457)
  + pid: 50457
  + min_cores: 1
  + max_cores: 512
  + scalability graph: 
1, 1.36329, 1.52423, 1.62017, 1.68565, 1.73398, 1.77154, 1.80182, 1.8269, 1.84812, 1.86637, 1.88229, 1.89634, 1.90885, 1.92009, 1.93026, 1.93952, 1.94799, 1.95579, 1.963, 1.96968, 1.9759, 1.98172, 1.98716, 1.99228, 1.9971, 2.00164, 2.00594, 2.01002, 2.01389, 2.01757, 2.02108, 2.02443, 2.02763, 2.03069, 2.03362, 2.03644, 2.03914, 2.04173, 2.04423, 
Number of clients: 5

+++++++++++++++++++++++++++++++++++++++++++++++++++++++++++
+ Client Mapping:
  > Client 50463 (7):	27 28 29 16 22 11 39 
  > Client 50452 (7):	30 31 32 18 21 37 12 
  > Client 50462 (7):	24 25 26 4 23 10 9 
  > Client 50457 (8):	1 2 3 20 0 13 5 15 
  > Client 50461 (6):	6 7 8 19 36 14 

+ Core Mapping:	50457 50457 50457 50457 50462 50457 50461 50461 50461 50462 50462 50463 50452 50457 50461 50457 50463 0 50452 50461 50457 50452 50463 50462 50462 50462 50462 50463 50463 50463 50452 50452 50452 0 0 0 50461 50452 0 50463 
+ Optimal point: 8 8 8 8 8 
+++++++++++++++++++++++++++++++++++++++++++++++++++++++++++
++++++++++++++++++++++++++++++++++++++++++++++++
 + TIMESTAMP: 47.1839
REINVADE (50463)
  + pid: 50463
  + min_cores: 1
  + max_cores: 512
  + scalability graph: 
1, 1.36329, 1.52423, 1.62017, 1.68565, 1.73398, 1.77154, 1.80182, 1.8269, 1.84812, 1.86637, 1.88229, 1.89634, 1.90885, 1.92009, 1.93026, 1.93952, 1.94799, 1.95579, 1.963, 1.96968, 1.9759, 1.98172, 1.98716, 1.99228, 1.9971, 2.00164, 2.00594, 2.01002, 2.01389, 2.01757, 2.02108, 2.02443, 2.02763, 2.03069, 2.03362, 2.03644, 2.03914, 2.04173, 2.04423, 
Number of clients: 5

+++++++++++++++++++++++++++++++++++++++++++++++++++++++++++
+ Client Mapping:
  > Client 50463 (8):	27 28 29 16 22 11 39 17 
  > Client 50452 (7):	30 31 32 18 21 37 12 
  > Client 50462 (7):	24 25 26 4 23 10 9 
  > Client 50457 (8):	1 2 3 20 0 13 5 15 
  > Client 50461 (6):	6 7 8 19 36 14 

+ Core Mapping:	50457 50457 50457 50457 50462 50457 50461 50461 50461 50462 50462 50463 50452 50457 50461 50457 50463 50463 50452 50461 50457 50452 50463 50462 50462 50462 50462 50463 50463 50463 50452 50452 50452 0 0 0 50461 50452 0 50463 
+ Optimal point: 8 8 8 8 8 
+++++++++++++++++++++++++++++++++++++++++++++++++++++++++++
++++++++++++++++++++++++++++++++++++++++++++++++
 + TIMESTAMP: 47.1844
REINVADE (50461)
  + pid: 50461
  + min_cores: 1
  + max_cores: 512
  + scalability graph: 
1, 1.36329, 1.52423, 1.62017, 1.68565, 1.73398, 1.77154, 1.80182, 1.8269, 1.84812, 1.86637, 1.88229, 1.89634, 1.90885, 1.92009, 1.93026, 1.93952, 1.94799, 1.95579, 1.963, 1.96968, 1.9759, 1.98172, 1.98716, 1.99228, 1.9971, 2.00164, 2.00594, 2.01002, 2.01389, 2.01757, 2.02108, 2.02443, 2.02763, 2.03069, 2.03362, 2.03644, 2.03914, 2.04173, 2.04423, 
Number of clients: 5

+++++++++++++++++++++++++++++++++++++++++++++++++++++++++++
+ Client Mapping:
  > Client 50463 (8):	27 28 29 16 22 11 39 17 
  > Client 50452 (7):	30 31 32 18 21 37 12 
  > Client 50462 (7):	24 25 26 4 23 10 9 
  > Client 50457 (8):	1 2 3 20 0 13 5 15 
  > Client 50461 (8):	6 7 8 19 36 14 33 34 

+ Core Mapping:	50457 50457 50457 50457 50462 50457 50461 50461 50461 50462 50462 50463 50452 50457 50461 50457 50463 50463 50452 50461 50457 50452 50463 50462 50462 50462 50462 50463 50463 50463 50452 50452 50452 50461 50461 0 50461 50452 0 50463 
+ Optimal point: 8 8 8 8 8 
+++++++++++++++++++++++++++++++++++++++++++++++++++++++++++
++++++++++++++++++++++++++++++++++++++++++++++++
 + TIMESTAMP: 47.1846
REINVADE (50462)
  + pid: 50462
  + min_cores: 1
  + max_cores: 512
  + scalability graph: 
1, 1.36329, 1.52423, 1.62017, 1.68565, 1.73398, 1.77154, 1.80182, 1.8269, 1.84812, 1.86637, 1.88229, 1.89634, 1.90885, 1.92009, 1.93026, 1.93952, 1.94799, 1.95579, 1.963, 1.96968, 1.9759, 1.98172, 1.98716, 1.99228, 1.9971, 2.00164, 2.00594, 2.01002, 2.01389, 2.01757, 2.02108, 2.02443, 2.02763, 2.03069, 2.03362, 2.03644, 2.03914, 2.04173, 2.04423, 
Number of clients: 5

+++++++++++++++++++++++++++++++++++++++++++++++++++++++++++
+ Client Mapping:
  > Client 50463 (8):	27 28 29 16 22 11 39 17 
  > Client 50452 (7):	30 31 32 18 21 37 12 
  > Client 50462 (8):	24 25 26 4 23 10 9 35 
  > Client 50457 (8):	1 2 3 20 0 13 5 15 
  > Client 50461 (8):	6 7 8 19 36 14 33 34 

+ Core Mapping:	50457 50457 50457 50457 50462 50457 50461 50461 50461 50462 50462 50463 50452 50457 50461 50457 50463 50463 50452 50461 50457 50452 50463 50462 50462 50462 50462 50463 50463 50463 50452 50452 50452 50461 50461 50462 50461 50452 0 50463 
+ Optimal point: 8 8 8 8 8 
+++++++++++++++++++++++++++++++++++++++++++++++++++++++++++
++++++++++++++++++++++++++++++++++++++++++++++++
 + TIMESTAMP: 47.1847
REINVADE (50452)
  + pid: 50452
  + min_cores: 1
  + max_cores: 512
  + scalability graph: 
1, 1.36329, 1.52423, 1.62017, 1.68565, 1.73398, 1.77154, 1.80182, 1.8269, 1.84812, 1.86637, 1.88229, 1.89634, 1.90885, 1.92009, 1.93026, 1.93952, 1.94799, 1.95579, 1.963, 1.96968, 1.9759, 1.98172, 1.98716, 1.99228, 1.9971, 2.00164, 2.00594, 2.01002, 2.01389, 2.01757, 2.02108, 2.02443, 2.02763, 2.03069, 2.03362, 2.03644, 2.03914, 2.04173, 2.04423, 
Number of clients: 5

+++++++++++++++++++++++++++++++++++++++++++++++++++++++++++
+ Client Mapping:
  > Client 50463 (8):	27 28 29 16 22 11 39 17 
  > Client 50452 (8):	30 31 32 18 21 37 12 38 
  > Client 50462 (8):	24 25 26 4 23 10 9 35 
  > Client 50457 (8):	1 2 3 20 0 13 5 15 
  > Client 50461 (8):	6 7 8 19 36 14 33 34 

+ Core Mapping:	50457 50457 50457 50457 50462 50457 50461 50461 50461 50462 50462 50463 50452 50457 50461 50457 50463 50463 50452 50461 50457 50452 50463 50462 50462 50462 50462 50463 50463 50463 50452 50452 50452 50461 50461 50462 50461 50452 50452 50463 
+ Optimal point: 8 8 8 8 8 
+++++++++++++++++++++++++++++++++++++++++++++++++++++++++++
CLIENT SHUTDOWN: client 50457
 + TIMESTAMP: 47.4201
+++++++++++++++++++++++++++++++++++++++++++++++++++++++++++
+ Client Mapping:
  > Client 50463 (8):	27 28 29 16 22 11 39 17 
  > Client 50452 (8):	30 31 32 18 21 37 12 38 
  > Client 50462 (8):	24 25 26 4 23 10 9 35 
  > Client 50457 (0):	
  > Client 50461 (8):	6 7 8 19 36 14 33 34 

+ Core Mapping:	0 0 0 0 50462 0 50461 50461 50461 50462 50462 50463 50452 0 50461 0 50463 50463 50452 50461 0 50452 50463 50462 50462 50462 50462 50463 50463 50463 50452 50452 50452 50461 50461 50462 50461 50452 50452 50463 
+ Optimal point: 8 8 8 8 8 
+++++++++++++++++++++++++++++++++++++++++++++++++++++++++++
client (50457) shutdown hint: 437.984
sum_client_shutdown_hint: 3503.87
sum_client_shutdown_hint_div_time: 0
++++++++++++++++++++++++++++++++++++++++++++++++
 + TIMESTAMP: 47.4202
REINVADE (50462)
  + pid: 50462
  + min_cores: 1
  + max_cores: 512
  + scalability graph: 
1, 1.36329, 1.52423, 1.62017, 1.68565, 1.73398, 1.77154, 1.80182, 1.8269, 1.84812, 1.86637, 1.88229, 1.89634, 1.90885, 1.92009, 1.93026, 1.93952, 1.94799, 1.95579, 1.963, 1.96968, 1.9759, 1.98172, 1.98716, 1.99228, 1.9971, 2.00164, 2.00594, 2.01002, 2.01389, 2.01757, 2.02108, 2.02443, 2.02763, 2.03069, 2.03362, 2.03644, 2.03914, 2.04173, 2.04423, 
Number of clients: 4

+++++++++++++++++++++++++++++++++++++++++++++++++++++++++++
+ Client Mapping:
  > Client 50463 (8):	27 28 29 16 22 11 39 17 
  > Client 50452 (8):	30 31 32 18 21 37 12 38 
  > Client 50462 (10):	24 25 26 4 23 10 9 35 0 1 
  > Client 50461 (8):	6 7 8 19 36 14 33 34 

+ Core Mapping:	50462 50462 0 0 50462 0 50461 50461 50461 50462 50462 50463 50452 0 50461 0 50463 50463 50452 50461 0 50452 50463 50462 50462 50462 50462 50463 50463 50463 50452 50452 50452 50461 50461 50462 50461 50452 50452 50463 
+ Optimal point: 10 10 10 10 
+++++++++++++++++++++++++++++++++++++++++++++++++++++++++++
++++++++++++++++++++++++++++++++++++++++++++++++
 + TIMESTAMP: 47.4203
REINVADE (50452)
  + pid: 50452
  + min_cores: 1
  + max_cores: 512
  + scalability graph: 
1, 1.36329, 1.52423, 1.62017, 1.68565, 1.73398, 1.77154, 1.80182, 1.8269, 1.84812, 1.86637, 1.88229, 1.89634, 1.90885, 1.92009, 1.93026, 1.93952, 1.94799, 1.95579, 1.963, 1.96968, 1.9759, 1.98172, 1.98716, 1.99228, 1.9971, 2.00164, 2.00594, 2.01002, 2.01389, 2.01757, 2.02108, 2.02443, 2.02763, 2.03069, 2.03362, 2.03644, 2.03914, 2.04173, 2.04423, 
Number of clients: 4

+++++++++++++++++++++++++++++++++++++++++++++++++++++++++++
+ Client Mapping:
  > Client 50463 (8):	27 28 29 16 22 11 39 17 
  > Client 50452 (10):	30 31 32 18 21 37 12 38 2 3 
  > Client 50462 (10):	24 25 26 4 23 10 9 35 0 1 
  > Client 50461 (8):	6 7 8 19 36 14 33 34 

+ Core Mapping:	50462 50462 50452 50452 50462 0 50461 50461 50461 50462 50462 50463 50452 0 50461 0 50463 50463 50452 50461 0 50452 50463 50462 50462 50462 50462 50463 50463 50463 50452 50452 50452 50461 50461 50462 50461 50452 50452 50463 
+ Optimal point: 10 10 10 10 
+++++++++++++++++++++++++++++++++++++++++++++++++++++++++++
++++++++++++++++++++++++++++++++++++++++++++++++
 + TIMESTAMP: 47.4204
REINVADE (50461)
  + pid: 50461
  + min_cores: 1
  + max_cores: 512
  + scalability graph: 
1, 1.36329, 1.52423, 1.62017, 1.68565, 1.73398, 1.77154, 1.80182, 1.8269, 1.84812, 1.86637, 1.88229, 1.89634, 1.90885, 1.92009, 1.93026, 1.93952, 1.94799, 1.95579, 1.963, 1.96968, 1.9759, 1.98172, 1.98716, 1.99228, 1.9971, 2.00164, 2.00594, 2.01002, 2.01389, 2.01757, 2.02108, 2.02443, 2.02763, 2.03069, 2.03362, 2.03644, 2.03914, 2.04173, 2.04423, 
Number of clients: 4

+++++++++++++++++++++++++++++++++++++++++++++++++++++++++++
+ Client Mapping:
  > Client 50463 (8):	27 28 29 16 22 11 39 17 
  > Client 50452 (10):	30 31 32 18 21 37 12 38 2 3 
  > Client 50462 (10):	24 25 26 4 23 10 9 35 0 1 
  > Client 50461 (10):	6 7 8 19 36 14 33 34 5 13 

+ Core Mapping:	50462 50462 50452 50452 50462 50461 50461 50461 50461 50462 50462 50463 50452 50461 50461 0 50463 50463 50452 50461 0 50452 50463 50462 50462 50462 50462 50463 50463 50463 50452 50452 50452 50461 50461 50462 50461 50452 50452 50463 
+ Optimal point: 10 10 10 10 
+++++++++++++++++++++++++++++++++++++++++++++++++++++++++++
++++++++++++++++++++++++++++++++++++++++++++++++
 + TIMESTAMP: 47.4206
REINVADE (50463)
  + pid: 50463
  + min_cores: 1
  + max_cores: 512
  + scalability graph: 
1, 1.36329, 1.52423, 1.62017, 1.68565, 1.73398, 1.77154, 1.80182, 1.8269, 1.84812, 1.86637, 1.88229, 1.89634, 1.90885, 1.92009, 1.93026, 1.93952, 1.94799, 1.95579, 1.963, 1.96968, 1.9759, 1.98172, 1.98716, 1.99228, 1.9971, 2.00164, 2.00594, 2.01002, 2.01389, 2.01757, 2.02108, 2.02443, 2.02763, 2.03069, 2.03362, 2.03644, 2.03914, 2.04173, 2.04423, 
Number of clients: 4

+++++++++++++++++++++++++++++++++++++++++++++++++++++++++++
+ Client Mapping:
  > Client 50463 (10):	27 28 29 16 22 11 39 17 15 20 
  > Client 50452 (10):	30 31 32 18 21 37 12 38 2 3 
  > Client 50462 (10):	24 25 26 4 23 10 9 35 0 1 
  > Client 50461 (10):	6 7 8 19 36 14 33 34 5 13 

+ Core Mapping:	50462 50462 50452 50452 50462 50461 50461 50461 50461 50462 50462 50463 50452 50461 50461 50463 50463 50463 50452 50461 50463 50452 50463 50462 50462 50462 50462 50463 50463 50463 50452 50452 50452 50461 50461 50462 50461 50452 50452 50463 
+ Optimal point: 10 10 10 10 
+++++++++++++++++++++++++++++++++++++++++++++++++++++++++++
CLIENT SHUTDOWN: client 50452
 + TIMESTAMP: 47.6446
+++++++++++++++++++++++++++++++++++++++++++++++++++++++++++
+ Client Mapping:
  > Client 50463 (10):	27 28 29 16 22 11 39 17 15 20 
  > Client 50452 (0):	
  > Client 50462 (10):	24 25 26 4 23 10 9 35 0 1 
  > Client 50461 (10):	6 7 8 19 36 14 33 34 5 13 

+ Core Mapping:	50462 50462 0 0 50462 50461 50461 50461 50461 50462 50462 50463 0 50461 50461 50463 50463 50463 0 50461 50463 0 50463 50462 50462 50462 50462 50463 50463 50463 0 0 0 50461 50461 50462 50461 0 0 50463 
+ Optimal point: 10 10 10 10 
+++++++++++++++++++++++++++++++++++++++++++++++++++++++++++
client (50452) shutdown hint: 437.984
sum_client_shutdown_hint: 3941.86
sum_client_shutdown_hint_div_time: 0
++++++++++++++++++++++++++++++++++++++++++++++++
 + TIMESTAMP: 47.6448
REINVADE (50461)
  + pid: 50461
  + min_cores: 1
  + max_cores: 512
  + scalability graph: 
1, 1.36329, 1.52423, 1.62017, 1.68565, 1.73398, 1.77154, 1.80182, 1.8269, 1.84812, 1.86637, 1.88229, 1.89634, 1.90885, 1.92009, 1.93026, 1.93952, 1.94799, 1.95579, 1.963, 1.96968, 1.9759, 1.98172, 1.98716, 1.99228, 1.9971, 2.00164, 2.00594, 2.01002, 2.01389, 2.01757, 2.02108, 2.02443, 2.02763, 2.03069, 2.03362, 2.03644, 2.03914, 2.04173, 2.04423, 
Number of clients: 3

+++++++++++++++++++++++++++++++++++++++++++++++++++++++++++
+ Client Mapping:
  > Client 50463 (10):	27 28 29 16 22 11 39 17 15 20 
  > Client 50462 (10):	24 25 26 4 23 10 9 35 0 1 
  > Client 50461 (13):	6 7 8 19 36 14 33 34 5 13 2 3 12 

+ Core Mapping:	50462 50462 50461 50461 50462 50461 50461 50461 50461 50462 50462 50463 50461 50461 50461 50463 50463 50463 0 50461 50463 0 50463 50462 50462 50462 50462 50463 50463 50463 0 0 0 50461 50461 50462 50461 0 0 50463 
+ Optimal point: 14 13 13 
+++++++++++++++++++++++++++++++++++++++++++++++++++++++++++
++++++++++++++++++++++++++++++++++++++++++++++++
 + TIMESTAMP: 47.6453
REINVADE (50463)
  + pid: 50463
  + min_cores: 1
  + max_cores: 512
  + scalability graph: 
1, 1.36329, 1.52423, 1.62017, 1.68565, 1.73398, 1.77154, 1.80182, 1.8269, 1.84812, 1.86637, 1.88229, 1.89634, 1.90885, 1.92009, 1.93026, 1.93952, 1.94799, 1.95579, 1.963, 1.96968, 1.9759, 1.98172, 1.98716, 1.99228, 1.9971, 2.00164, 2.00594, 2.01002, 2.01389, 2.01757, 2.02108, 2.02443, 2.02763, 2.03069, 2.03362, 2.03644, 2.03914, 2.04173, 2.04423, 
Number of clients: 3

+++++++++++++++++++++++++++++++++++++++++++++++++++++++++++
+ Client Mapping:
  > Client 50463 (14):	27 28 29 16 22 11 39 17 15 20 18 21 30 31 
  > Client 50462 (10):	24 25 26 4 23 10 9 35 0 1 
  > Client 50461 (13):	6 7 8 19 36 14 33 34 5 13 2 3 12 

+ Core Mapping:	50462 50462 50461 50461 50462 50461 50461 50461 50461 50462 50462 50463 50461 50461 50461 50463 50463 50463 50463 50461 50463 50463 50463 50462 50462 50462 50462 50463 50463 50463 50463 50463 0 50461 50461 50462 50461 0 0 50463 
+ Optimal point: 14 13 13 
+++++++++++++++++++++++++++++++++++++++++++++++++++++++++++
++++++++++++++++++++++++++++++++++++++++++++++++
 + TIMESTAMP: 47.6457
REINVADE (50462)
  + pid: 50462
  + min_cores: 1
  + max_cores: 512
  + scalability graph: 
1, 1.36329, 1.52423, 1.62017, 1.68565, 1.73398, 1.77154, 1.80182, 1.8269, 1.84812, 1.86637, 1.88229, 1.89634, 1.90885, 1.92009, 1.93026, 1.93952, 1.94799, 1.95579, 1.963, 1.96968, 1.9759, 1.98172, 1.98716, 1.99228, 1.9971, 2.00164, 2.00594, 2.01002, 2.01389, 2.01757, 2.02108, 2.02443, 2.02763, 2.03069, 2.03362, 2.03644, 2.03914, 2.04173, 2.04423, 
Number of clients: 3

+++++++++++++++++++++++++++++++++++++++++++++++++++++++++++
+ Client Mapping:
  > Client 50463 (14):	27 28 29 16 22 11 39 17 15 20 18 21 30 31 
  > Client 50462 (13):	24 25 26 4 23 10 9 35 0 1 32 37 38 
  > Client 50461 (13):	6 7 8 19 36 14 33 34 5 13 2 3 12 

+ Core Mapping:	50462 50462 50461 50461 50462 50461 50461 50461 50461 50462 50462 50463 50461 50461 50461 50463 50463 50463 50463 50461 50463 50463 50463 50462 50462 50462 50462 50463 50463 50463 50463 50463 50462 50461 50461 50462 50461 50462 50462 50463 
+ Optimal point: 14 13 13 
+++++++++++++++++++++++++++++++++++++++++++++++++++++++++++
CLIENT SHUTDOWN: client 50462
 + TIMESTAMP: 47.7602
+++++++++++++++++++++++++++++++++++++++++++++++++++++++++++
+ Client Mapping:
  > Client 50463 (14):	27 28 29 16 22 11 39 17 15 20 18 21 30 31 
  > Client 50462 (0):	
  > Client 50461 (13):	6 7 8 19 36 14 33 34 5 13 2 3 12 

+ Core Mapping:	0 0 50461 50461 0 50461 50461 50461 50461 0 0 50463 50461 50461 50461 50463 50463 50463 50463 50461 50463 50463 50463 0 0 0 0 50463 50463 50463 50463 50463 0 50461 50461 0 50461 0 0 50463 
+ Optimal point: 14 13 13 
+++++++++++++++++++++++++++++++++++++++++++++++++++++++++++
client (50462) shutdown hint: 437.984
sum_client_shutdown_hint: 4379.84
sum_client_shutdown_hint_div_time: 0
++++++++++++++++++++++++++++++++++++++++++++++++
 + TIMESTAMP: 47.7604
REINVADE (50461)
  + pid: 50461
  + min_cores: 1
  + max_cores: 512
  + scalability graph: 
1, 1.36329, 1.52423, 1.62017, 1.68565, 1.73398, 1.77154, 1.80182, 1.8269, 1.84812, 1.86637, 1.88229, 1.89634, 1.90885, 1.92009, 1.93026, 1.93952, 1.94799, 1.95579, 1.963, 1.96968, 1.9759, 1.98172, 1.98716, 1.99228, 1.9971, 2.00164, 2.00594, 2.01002, 2.01389, 2.01757, 2.02108, 2.02443, 2.02763, 2.03069, 2.03362, 2.03644, 2.03914, 2.04173, 2.04423, 
Number of clients: 2

+++++++++++++++++++++++++++++++++++++++++++++++++++++++++++
+ Client Mapping:
  > Client 50463 (14):	27 28 29 16 22 11 39 17 15 20 18 21 30 31 
  > Client 50461 (20):	6 7 8 19 36 14 33 34 5 13 2 3 12 0 1 4 9 10 23 24 

+ Core Mapping:	50461 50461 50461 50461 50461 50461 50461 50461 50461 50461 50461 50463 50461 50461 50461 50463 50463 50463 50463 50461 50463 50463 50463 50461 50461 0 0 50463 50463 50463 50463 50463 0 50461 50461 0 50461 0 0 50463 
+ Optimal point: 20 20 
+++++++++++++++++++++++++++++++++++++++++++++++++++++++++++
++++++++++++++++++++++++++++++++++++++++++++++++
 + TIMESTAMP: 47.7608
REINVADE (50463)
  + pid: 50463
  + min_cores: 1
  + max_cores: 512
  + scalability graph: 
1, 1.36329, 1.52423, 1.62017, 1.68565, 1.73398, 1.77154, 1.80182, 1.8269, 1.84812, 1.86637, 1.88229, 1.89634, 1.90885, 1.92009, 1.93026, 1.93952, 1.94799, 1.95579, 1.963, 1.96968, 1.9759, 1.98172, 1.98716, 1.99228, 1.9971, 2.00164, 2.00594, 2.01002, 2.01389, 2.01757, 2.02108, 2.02443, 2.02763, 2.03069, 2.03362, 2.03644, 2.03914, 2.04173, 2.04423, 
Number of clients: 2

+++++++++++++++++++++++++++++++++++++++++++++++++++++++++++
+ Client Mapping:
  > Client 50463 (20):	27 28 29 16 22 11 39 17 15 20 18 21 30 31 25 26 32 35 37 38 
  > Client 50461 (20):	6 7 8 19 36 14 33 34 5 13 2 3 12 0 1 4 9 10 23 24 

+ Core Mapping:	50461 50461 50461 50461 50461 50461 50461 50461 50461 50461 50461 50463 50461 50461 50461 50463 50463 50463 50463 50461 50463 50463 50463 50461 50461 50463 50463 50463 50463 50463 50463 50463 50463 50461 50461 50463 50461 50463 50463 50463 
+ Optimal point: 20 20 
+++++++++++++++++++++++++++++++++++++++++++++++++++++++++++
CLIENT SHUTDOWN: client 50461
 + TIMESTAMP: 47.7631
+++++++++++++++++++++++++++++++++++++++++++++++++++++++++++
+ Client Mapping:
  > Client 50463 (20):	27 28 29 16 22 11 39 17 15 20 18 21 30 31 25 26 32 35 37 38 
  > Client 50461 (0):	

+ Core Mapping:	0 0 0 0 0 0 0 0 0 0 0 50463 0 0 0 50463 50463 50463 50463 0 50463 50463 50463 0 0 50463 50463 50463 50463 50463 50463 50463 50463 0 0 50463 0 50463 50463 50463 
+ Optimal point: 20 20 
+++++++++++++++++++++++++++++++++++++++++++++++++++++++++++
client (50461) shutdown hint: 437.984
sum_client_shutdown_hint: 4817.82
sum_client_shutdown_hint_div_time: 0
++++++++++++++++++++++++++++++++++++++++++++++++
 + TIMESTAMP: 47.7636
REINVADE (50463)
  + pid: 50463
  + min_cores: 1
  + max_cores: 512
  + scalability graph: 
1, 1.36329, 1.52423, 1.62017, 1.68565, 1.73398, 1.77154, 1.80182, 1.8269, 1.84812, 1.86637, 1.88229, 1.89634, 1.90885, 1.92009, 1.93026, 1.93952, 1.94799, 1.95579, 1.963, 1.96968, 1.9759, 1.98172, 1.98716, 1.99228, 1.9971, 2.00164, 2.00594, 2.01002, 2.01389, 2.01757, 2.02108, 2.02443, 2.02763, 2.03069, 2.03362, 2.03644, 2.03914, 2.04173, 2.04423, 
Number of clients: 1

+++++++++++++++++++++++++++++++++++++++++++++++++++++++++++
+ Client Mapping:
  > Client 50463 (40):	27 28 29 16 22 11 39 17 15 20 18 21 30 31 25 26 32 35 37 38 0 1 2 3 4 5 6 7 8 9 10 12 13 14 19 23 24 33 34 36 

+ Core Mapping:	50463 50463 50463 50463 50463 50463 50463 50463 50463 50463 50463 50463 50463 50463 50463 50463 50463 50463 50463 50463 50463 50463 50463 50463 50463 50463 50463 50463 50463 50463 50463 50463 50463 50463 50463 50463 50463 50463 50463 50463 
+ Optimal point: 40 
+++++++++++++++++++++++++++++++++++++++++++++++++++++++++++
CLIENT SHUTDOWN: client 50463
 + TIMESTAMP: 48.3648
+++++++++++++++++++++++++++++++++++++++++++++++++++++++++++
+ Client Mapping:
  > Client 50463 (0):	

+ Core Mapping:	0 0 0 0 0 0 0 0 0 0 0 0 0 0 0 0 0 0 0 0 0 0 0 0 0 0 0 0 0 0 0 0 0 0 0 0 0 0 0 0 
+ Optimal point: 40 
+++++++++++++++++++++++++++++++++++++++++++++++++++++++++++
client (50463) shutdown hint: 437.984
sum_client_shutdown_hint: 5255.81
sum_client_shutdown_hint_div_time: 0
END TIMESTAMP: 48.3648
OVERALL TIME: 48.0561
 + sum_client_shutdown_hint: 5255.81
 + sum_client_shutdown_hint/time: 109.368
sum_client_shutdown_hint: 5255.81
sum_client_shutdown_hint_div_time: 109.368
