MODE: ipmo_prog0
PARCOUNT: 27
PROBLEMS: 1
Running on INWEST
Using iPMO

Programs:
 + ../../build/sierpi_intel_ipmo_tsunami_parallel_release  -u 10 -U 10 -T 1000 -n 40 -d 12
 + ../../build/sierpi_intel_ipmo_tsunami_parallel_release  -u 10 -U 10 -T 1000 -n 40 -d 12
 + ../../build/sierpi_intel_ipmo_tsunami_parallel_release  -u 10 -U 10 -T 1000 -n 40 -d 10
 + ../../build/sierpi_intel_ipmo_tsunami_parallel_release  -u 10 -U 10 -T 1000 -n 40 -d 12
 + ../../build/sierpi_intel_ipmo_tsunami_parallel_release  -u 10 -U 10 -T 1000 -n 40 -d 10

Sat Mar 31 15:44:16 CEST 2012
iPMO: Prog0 parallel execution with ipmo (27 times)
Waiting for job 73869
73871: CHANGING RESSOURCES
73871: CHANGING RESSOURCES
73882: CHANGING RESSOURCES
73890: CHANGING RESSOURCES
73886: CHANGING RESSOURCES
73891: CHANGING RESSOURCES
73876: CHANGING RESSOURCES
73876: CHANGING RESSOURCES
73874: CHANGING RESSOURCES
73873: CHANGING RESSOURCES
73887: CHANGING RESSOURCES
73890: CHANGING RESSOURCES
73872: CHANGING RESSOURCES
73889: CHANGING RESSOURCES
73882: CHANGING RESSOURCES
73895: CHANGING RESSOURCES
73878: CHANGING RESSOURCES
73869: CHANGING RESSOURCES
73880: CHANGING RESSOURCES
73875: CHANGING RESSOURCES
73892: CHANGING RESSOURCES
73870: CHANGING RESSOURCES
73885: CHANGING RESSOURCES
73879: CHANGING RESSOURCES
73893: CHANGING RESSOURCES
73884: CHANGING RESSOURCES
73877: CHANGING RESSOURCES
73881: CHANGING RESSOURCES
73894: CHANGING RESSOURCES

 + Terminating after 1000 timesteps with equal number of triangles -> EXIT
 + Final timestep: 6749

6750 TS (Timesteps)
715.114 ST (SIMULATION_TIME)
0.100037 TSS (Timestep size)
70.1207 SFS (Overall seconds for Simulation)
437983904 TP (Triangles processed)
0.0103883 ASPT (Averaged Seconds per Timestep)
64886.5 TPST (Triangles Processed in Average per Simulation Timestep)
48.6681 PPST (Partitions Processed in Average per Simulation Timestep)
6.24614 MTPS (Million Triangles per Second)
-6.24614 MTPSPT (Million Triangles per Second per Thread)
1.98018 EDMBPT (ElementData Megabyte per Timestep (RW))
190.617 EDMBPS (ElementData Megabyte per Second (RW))
SUM CLIENT SHUTDOWN HINT: 437.984
SUM CLIENT SHUTDOWN HINT DIV TIME: 0
73875: CHANGING RESSOURCES
73884: CHANGING RESSOURCES

 + Terminating after 1000 timesteps with equal number of triangles -> EXIT
 + Final timestep: 6749

6750 TS (Timesteps)
715.114 ST (SIMULATION_TIME)
0.100037 TSS (Timestep size)
70.2584 SFS (Overall seconds for Simulation)
437983904 TP (Triangles processed)
0.0104087 ASPT (Averaged Seconds per Timestep)
64886.5 TPST (Triangles Processed in Average per Simulation Timestep)
48.6681 PPST (Partitions Processed in Average per Simulation Timestep)
6.2339 MTPS (Million Triangles per Second)
-6.2339 MTPSPT (Million Triangles per Second per Thread)
1.98018 EDMBPT (ElementData Megabyte per Timestep (RW))
190.244 EDMBPS (ElementData Megabyte per Second (RW))
SUM CLIENT SHUTDOWN HINT: 875.968
SUM CLIENT SHUTDOWN HINT DIV TIME: 0
73881: CHANGING RESSOURCES
73893: CHANGING RESSOURCES

 + Terminating after 1000 timesteps with equal number of triangles -> EXIT
 + Final timestep: 6749

6750 TS (Timesteps)
715.114 ST (SIMULATION_TIME)
0.100037 TSS (Timestep size)
70.6882 SFS (Overall seconds for Simulation)
437983904 TP (Triangles processed)
0.0104723 ASPT (Averaged Seconds per Timestep)
64886.5 TPST (Triangles Processed in Average per Simulation Timestep)
48.6681 PPST (Partitions Processed in Average per Simulation Timestep)
6.19599 MTPS (Million Triangles per Second)
-6.19599 MTPSPT (Million Triangles per Second per Thread)
1.98018 EDMBPT (ElementData Megabyte per Timestep (RW))
189.087 EDMBPS (ElementData Megabyte per Second (RW))
SUM CLIENT SHUTDOWN HINT: 1313.95
SUM CLIENT SHUTDOWN HINT DIV TIME: 0
73890: CHANGING RESSOURCES
73882: CHANGING RESSOURCES

 + Terminating after 1000 timesteps with equal number of triangles -> EXIT
 + Final timestep: 6749

6750 TS (Timesteps)
715.114 ST (SIMULATION_TIME)
0.100037 TSS (Timestep size)
70.7625 SFS (Overall seconds for Simulation)
437983904 TP (Triangles processed)S0.0104833 ASPT (Averaged Seconds per Timestep)
64886.5 TPST (Triangles Processed in Average per Simulation Timestep)
48.6681 PPST (Partitions Processed in Average per Simulation Timestep)
6.18949 MTPS (Million Triangles per Second)
-6.18949 MTPSPT (Million Triangles per Second per Thread)
1.98018 EDMBPT (ElementData Megabyte per Timestep (RW))
188.888 EDMBPS (ElementData Megabyte per Second (RW))
SUM CLIENT SHUTDOWN HINT: 2189.92
SUM CLIENT SHUTDOWN HINT DIV TIME: 0
73874: CHANGING RESSOURCES
73891: CHANGING RESSOURCES
73876: CHANGING RESSOURCES
73886: CHANGING RESSOURCES

 + Terminating after 1000 timesteps with equal number of triangles -> EXIT
 + Final timestep: 6749

6750 TS (Timesteps)
715.114 ST (SIMULATION_TIME)
0.100037 TSS (Timestep size)
70.8232 SFS (Overall seconds for Simulation)
437983904 TP (Triangles processed)
0.0104923 ASPT (Averaged Seconds per Timestep)
64886.5 TPST (Triangles Processed in Average per Simulation Timestep)
48.6681 PPST (Partitions Processed in Average per Simulation Timestep)
6.18419 MTPS (Million Triangles per Second)
-6.18419 MTPSPT (Million Triangles per Second per Thread)
1.98018 EDMBPT (ElementData Megabyte per Timestep (RW))
188.726 EDMBPS (ElementData Megabyte per Second (RW))
SUM CLIENT SHUTDOWN HINT: 2627.9
SUM CLIENT SHUTDOWN HINT DIV TIME: 0
73883: CHANGING RESSOURCES
73888: CHANGING RESSOURCES
Waiting for job 73870

 + Terminating after 1000 timesteps with equal number of triangles -> EXIT
 + Final timestep: 6749

6750 TS (Timesteps)
715.114 ST (SIMULATION_TIME)
0.100037 TSS (Timestep size)
70.8913 SFS (Overall seconds for Simulation)
437983904 TP (Triangles processed)
0.0105024 ASPT (Averaged Seconds per Timestep)
64886.5 TPST (Triangles Processed in Average per Simulation Timestep)
48.6681 PPST (Partitions Processed in Average per Simulation Timestep)
6.17824 MTPS (Million Triangles per Second)
-6.17824 MTPSPT (Million Triangles per Second per Thread)
1.98018 EDMBPT (ElementData Megabyte per Timestep (RW))
188.545 EDMBPS (ElementData Megabyte per Second (RW))
SUM CLIENT SHUTDOWN HINT: 3065.89
SUM CLIENT SHUTDOWN HINT DIV TIME: 0
73887: CHANGING RESSOURCES
73873: CHANGING RESSOURCES

 + Terminating after 1000 timesteps with equal number of triangles -> EXIT
 + Final timestep: 6749

6750 TS (Timesteps)
715.114 ST (SIMULATION_TIME)
0.100037 TSS (Timestep size)
71.0855 SFS (Overall seconds for Simulation)
437983904 TP (Triangles processed)
0.0105312 ASPT (Averaged Seconds per Timestep)
64886.5 TPST (Triangles Processed in Average per Simulation Timestep)
48.6681 PPST (Partitions Processed in Average per Simulation Timestep)
6.16137 MTPS (Million Triangles per Second)
-6.16137 MTPSPT (Million Triangles per Second per Thread)
1.98018 EDMBPT (ElementData Megabyte per Timestep (RW))
188.03 EDMBPS (ElementData Megabyte per Second (RW))
SUM CLIENT SHUTDOWN HINT: 3503.87
SUM CLIENT SHUTDOWN HINT DIV TIME: 0
73881: CHANGING RESSOURCES
73884: CHANGING RESSOURCES

 + Terminating after 1000 timesteps with equal number of triangles -> EXIT
 + Final timestep: 6749

6750 TS (Timesteps)
715.114 ST (SIMULATION_TIME)
0.100037 TSS (Timestep size)
71.1004 SFS (Overall seconds for Simulation)
437983904 TP (Triangles processed)
0.0105334 ASPT (Averaged Seconds per Timestep)
64886.5 TPST (Triangles Processed in Average per Simulation Timestep)
48.6681 PPST (Partitions Processed in Average per Simulation Timestep)
6.16008 MTPS (Million Triangles per Second)
-6.16008 MTPSPT (Million Triangles per Second per Thread)
1.98018 EDMBPT (ElementData Megabyte per Timestep (RW))
187.991 EDMBPS (ElementData Megabyte per Second (RW))
SUM CLIENT SHUTDOWN HINT: 3941.86
SUM CLIENT SHUTDOWN HINT DIV TIME: 0
73884: CHANGING RESSOURCES
73882: CHANGING RESSOURCES
73890: CHANGING RESSOURCES
73893: CHANGING RESSOURCES
Waiting for job 73871

 + Terminating after 1000 timesteps with equal number of triangles -> EXIT
 + Final timestep: 6749

6750 TS (Timesteps)
715.114 ST (SIMULATION_TIME)
0.100037 TSS (Timestep size)
71.3282 SFS (Overall seconds for Simulation)
437983904 TP (Triangles processed)
0.0105671 ASPT (Averaged Seconds per Timestep)
64886.5 TPST (Triangles Processed in Average per Simulation Timestep)
48.6681 PPST (Partitions Processed in Average per Simulation Timestep)
6.14041 MTPS (Million Triangles per Second)
-6.14041 MTPSPT (Million Triangles per Second per Thread)
1.98018 EDMBPT (ElementData Megabyte per Timestep (RW))
187.39 EDMBPS (ElementData Megabyte per Second (RW))
SUM CLIENT SHUTDOWN HINT: 4379.84
SUM CLIENT SHUTDOWN HINT DIV TIME: 0
73891: CHANGING RESSOURCES
73881: CHANGING RESSOURCES
73874: CHANGING RESSOURCES
73876: CHANGING RESSOURCES

 + Terminating after 1000 timesteps with equal number of triangles -> EXIT
 + Final timestep: 6749

6750 TS (Timesteps)
715.114 ST (SIMULATION_TIME)
Waiting for job 73872
 size)
71.4458 SFS (Overall seconds for Simulation)
437983904 TP (Triangles processed)
0.0105846 ASPT (Averaged Seconds per Timestep)
64886.5 TPST (Triangles Processed in Average per Simulation Timestep)
48.6681 PPST (Partitions Processed in Average per Simulation Timestep)
6.13029 MTPS (Million Triangles per Second)
-6.13029 MTPSPT (Million Triangles per Second per Thread)
1.98018 EDMBPT (ElementData Megabyte per Timestep (RW))
187.082 EDMBPS (ElementData Megabyte per Second (RW))
SUM CLIENT SHUTDOWN HINT: 4817.82
SUM CLIENT SHUTDOWN HINT DIV TIME: 0
73886: CHANGING RESSOURCES
73874: CHANGING RESSOURCES
73893: CHANGING RESSOURCES
73888: CHANGING RESSOURCES
73883: CHANGING RESSOURCES

 + Terminating after 1000 timesteps with equal number of triangles -> EXIT
 + Final timestep: 6749

6750 TS (Timesteps)
715.114 ST (SIMULATION_TIME)
0.100037 TSS (Timestep size)
71.5227 SFS (Overall seconds for Simulation)
437983904 TP (Triangles processed)
0.010596 ASPT (Averaged Seconds per Timestep)
64886.5 TPST (Triangles Processed in Average per Simulation Timestep)
48.6681 PPST (Partitions Processed in Average per Simulation Timestep)
6.1237 MTPS (Million Triangles per Second)
-6.1237 MTPSPT (Million Triangles per Second per Thread)
1.98018 EDMBPT (ElementData Megabyte per Timestep (RW))
186.881 EDMBPS (ElementData Megabyte per Second (RW))
SUM CLIENT SHUTDOWN HINT: 5255.81
SUM CLIENT SHUTDOWN HINT DIV TIME: 0
73882: CHANGING RESSOURCES
73883: CHANGING RESSOURCES
73872: CHANGING RESSOURCES
73887: CHANGING RESSOURCES
73874: CHANGING RESSOURCES
73875: CHANGING RESSOURCES

 + Terminating after 1000 timesteps with equal number of triangles -> EXIT
 + Final timestep: 6749

6750 TS (Timesteps)
715.114 ST (SIMULATION_TIME)
0.100037 TSS (Timestep size)
72.3817 SFS (Overall seconds for Simulation)
437983904 TP (Triangles processed)
0.0107232 ASPT (Averaged Seconds per Timestep)
64886.5 TPST (Triangles Processed in Average per Simulation Timestep)
48.6681 PPST (Partitions Processed in Average per Simulation Timestep)
6.05103 MTPS (Million Triangles per Second)
-6.05103 MTPSPT (Million Triangles per Second per Thread)
1.98018 EDMBPT (ElementData Megabyte per Timestep (RW))
184.663 EDMBPS (ElementData Megabyte per Second (RW))
SUM CLIENT SHUTDOWN HINT: 5693.79
SUM CLIENT SHUTDOWN HINT DIV TIME: 0
73893: CHANGING RESSOURCES
73890: CHANGING RESSOURCES
73881: CHANGING RESSOURCES
73884: CHANGING RESSOURCES
73883: CHANGING RESSOURCES
Waiting for job 73873

 + Terminating after 1000 timesteps with equal number of triangles -> EXIT
 + Final timestep: 6749

6750 TS (Timesteps)
715.114 ST (SIMULATION_TIME)
0.100037 TSS (Timestep size)
93.5046 SFS (Overall seconds for Simulation)
437983904 TP (Triangles processed)
0.0138525 ASPT (Averaged Seconds per Timestep)
64886.5 TPST (Triangles Processed in Average per Simulation Timestep)
48.6681 PPST (Partitions Processed in Average per Simulation Timestep)
4.68409 MTPS (Million Triangles per Second)
-4.68409 MTPSPT (Million Triangles per Second per Thread)
1.98018 EDMBPT (ElementData Megabyte per Timestep (RW))
142.947 EDMBPS (ElementData Megabyte per Second (RW))
SUM CLIENT SHUTDOWN HINT: 6131.77
SUM CLIENT SHUTDOWN HINT DIV TIME: 0
73882: CHANGING RESSOURCES
73890: CHANGING RESSOURCES

 + Terminating after 1000 timesteps with equal number of triangles -> EXIT
 + Final timestep: 6749

6750 TS (Timesteps)
715.114 ST (SIMULATION_TIME)
0.100037 TSS (Timestep size)
94.7017 SFS (Overall seconds for Simulation)
437983904 TP (Triangles processed)
0.0140299 ASPT (Averaged Seconds per Timestep)
64886.5 TPST (Triangles Processed in Average per Simulation Timestep)
48.6681 PPST (Partitions Processed in Average per Simulation Timestep)
4.62488 MTPS (Million Triangles per Second)
-4.62488 MTPSPT (Million Triangles per Second per Thread)
1.98018 EDMBPT (ElementData Megabyte per Timestep (RW))
141.14 EDMBPS (ElementData Megabyte per Second (RW))
SUM CLIENT SHUTDOWN HINT: 6569.76
SUM CLIENT SHUTDOWN HINT DIV TIME: 0
73873: CHANGING RESSOURCES
73875: CHANGING RESSOURCES
73888: CHANGING RESSOURCES
73882: CHANGING RESSOURCES
73890: CHANGING RESSOURCES

 + Terminating after 1000 timesteps with equal number of triangles -> EXIT
 + Final timestep: 6749

6750 TS (Timesteps)
715.114 ST (SIMULATION_TIME)
0.100037 TSS (Timestep size)
94.8206 SFS (Overall seconds for Simulation)
437983904 TP (Triangles processed)
0.0140475 ASPT (Averaged Seconds per Timestep)
64886.5 TPST (Triangles Processed in Average per Simulation Timestep)
48.6681 PPST (Partitions Processed in Average per Simulation Timestep)
4.61908 MTPS (Million Triangles per Second)
-4.61908 MTPSPT (Million Triangles per Second per Thread)
1.98018 EDMBPT (ElementData Megabyte per Timestep (RW))
140.963 EDMBPS (ElementData Megabyte per Second (RW))
SUM CLIENT SHUTDOWN HINT: 7007.74
SUM CLIENT SHUTDOWN HINT DIV TIME: 0
73888: CHANGING RESSOURCES
73884: CHANGING RESSOURCES
73882: CHANGING RESSOURCES

 + Terminating after 1000 timesteps with equal number of triangles -> EXIT
 + Final timestep: 6749

6750 TS (Timesteps)
715.114 ST (SIMULATION_TIME)
0.100037 TSS (Timestep size)
95.0307 SFS (Overall seconds for Simulation)
437983904 TP (Triangles processed)
0.0140786 ASPT (Averaged Seconds per Timestep)
64886.5 TPST (Triangles Processed in Average per Simulation Timestep)
48.6681 PPST (Partitions Processed in Average per Simulation Timestep)
4.60887 MTPS (Million Triangles per Second)
-4.60887 MTPSPT (Million Triangles per Second per Thread)
1.98018 EDMBPT (ElementData Megabyte per Timestep (RW))
140.651 EDMBPS (ElementData Megabyte per Second (RW))
SUM CLIENT SHUTDOWN HINT: 7445.73
SUM CLIENT SHUTDOWN HINT DIV TIME: 0
73886: CHANGING RESSOURCES
73888: CHANGING RESSOURCES

 + Terminating after 1000 timesteps with equal number of triangles -> EXIT
 + Final timestep: 6749

6750 TS (Timesteps)
715.114 ST (SIMULATION_TIME)
0.100037 TSS (Timestep size)
95.0403 SFS (Overall seconds for Simulation)
437983904 TP (Triangles processed)
0.01408 ASPT (Averaged Seconds per Timestep)
64886.5 TPST (Triangles Processed in Average per Simulation Timestep)
48.6681 PPST (Partitions Processed in Average per Simulation Timestep)
4.6084 MTPS (Million Triangles per Second)
-4.6084 MTPSPT (Million Triangles per Second per Thread)
1.98018 EDMBPT (ElementData Megabyte per Timestep (RW))
140.637 EDMBPS (ElementData Megabyte per Second (RW))
SUM CLIENT SHUTDOWN HINT: 7883.71
SUM CLIENT SHUTDOWN HINT DIV TIME: 0
73884: CHANGING RESSOURCES
73882: CHANGING RESSOURCES
73881: CHANGING RESSOURCES
73890: CHANGING RESSOURCES

 + Terminating after 1000 timesteps with equal number of triangles -> EXIT
 + Final timestep: 6749

6750 TS (Timesteps)
715.114 ST (SIMULATION_TIME)
0.100037 TSS (Timestep size)
95.0995 SFS (Overall seconds for Simulation)
437983904 TP (Triangles processed)
0.0140888 ASPT (Averaged Seconds per Timestep)
64886.5 TPST (Triangles Processed in Average per Simulation Timestep)
48.6681 PPST (Partitions Processed in Average per Simulation Timestep)
4.60553 MTPS (Million Triangles per Second)
-4.60553 MTPSPT (Million Triangles per Second per Thread)
1.98018 EDMBPT (ElementData Megabyte per Timestep (RW))
140.55 EDMBPS (ElementData Megabyte per Second (RW))
SUM CLIENT SHUTDOWN HINT: 8321.69
SUM CLIENT SHUTDOWN HINT DIV TIME: 0
73888: CHANGING RESSOURCES
73886: CHANGING RESSOURCES

 + Terminating after 1000 timesteps with equal number of triangles -> EXIT
 + Final timestep: 6749

6750 TS (Timesteps)
715.114 ST (SIMULATION_TIME)
0.100037 TSS (Timestep size)
95.163 SFS (Overall seconds for Simulation)
437983904 TP (Triangles processed)
0.0140982 ASPT (Averaged Seconds per Timestep)
64886.5 TPST (Triangles Processed in Average per Simulation Timestep)
48.6681 PPST (Partitions Processed in Average per Simulation Timestep)
4.60246 MTPS (Million Triangles per Second)
-4.60246 MTPSPT (Million Triangles per Second per Thread)
1.98018 EDMBPT (ElementData Megabyte per Timestep (RW))
140.456 EDMBPS (ElementData Megabyte per Second (RW))
SUM CLIENT SHUTDOWN HINT: 8759.68
SUM CLIENT SHUTDOWN HINT DIV TIME: 0
73886: CHANGING RESSOURCES
73884: CHANGING RESSOURCES
73874: CHANGING RESSOURCES
73882: CHANGING RESSOURCES
73890: CHANGING RESSOURCES

 + Terminating after 1000 timesteps with equal number of triangles -> EXIT
 + Final timestep: 6749

6750 TS (Timesteps)
715.114 ST (SIMULATION_TIME)
0.100037 TSS (Timestep size)
95.2553 SFS (Overall seconds for Simulation)
437983904 TP (Triangles processed)
0.0141119 ASPT (Averaged Seconds per Timestep)
64886.5 TPST (Triangles Processed in Average per Simulation Timestep)
48.6681 PPST (Partitions Processed in Average per Simulation Timestep)
4.598 MTPS (Million Triangles per Second)
-4.598 MTPSPT (Million Triangles per Second per Thread)
1.98018 EDMBPT (ElementData Megabyte per Timestep (RW))
140.32 EDMBPS (ElementData Megabyte per Second (RW))
SUM CLIENT SHUTDOWN HINT: 9197.66
SUM CLIENT SHUTDOWN HINT DIV TIME: 0
73884: CHANGING RESSOURCES
73890: CHANGING RESSOURCES
Waiting for job 73874

 + Terminating after 1000 timesteps with equal number of triangles -> EXIT
 + Final timestep: 6749

6750 TS (Timesteps)
715.114 ST (SIMULATION_TIME)
0.100037 TSS (Timestep size)
95.8599 SFS (Overall seconds for Simulation)
437983904 TP (Triangles processed)
0.0142015 ASPT (Averaged Seconds per Timestep)
64886.5 TPST (Triangles Processed in Average per Simulation Timestep)
48.6681 PPST (Partitions Processed in Average per Simulation Timestep)
4.569 MTPS (Million Triangles per Second)
-4.569 MTPSPT (Million Triangles per Second per Thread)
1.98018 EDMBPT (ElementData Megabyte per Timestep (RW))
139.435 EDMBPS (ElementData Megabyte per Second (RW))
SUM CLIENT SHUTDOWN HINT: 9635.65
SUM CLIENT SHUTDOWN HINT DIV TIME: 0
73882: CHANGING RESSOURCES
73888: CHANGING RESSOURCES
73874: CHANGING RESSOURCES
73890: CHANGING RESSOURCES

 + Terminating after 1000 timesteps with equal number of triangles -> EXIT
 + Final timestep: 6749

6750 TS (Timesteps)
715.114 ST (SIMULATION_TIME)
0.100037 TSS (Timestep size)
95.9435 SFS (Overall seconds for Simulation)
437983904 TP (Triangles processed)
0.0142139 ASPT (Averaged Seconds per Timestep)
64886.5 TPST (Triangles Processed in Average per Simulation Timestep)
48.6681 PPST (Partitions Processed in Average per Simulation Timestep)
4.56502 MTPS (Million Triangles per Second)
-4.56502 MTPSPT (Million Triangles per Second per Thread)
1.98018 EDMBPT (ElementData Megabyte per Timestep (RW))
139.313 EDMBPS (ElementData Megabyte per Second (RW))
SUM CLIENT SHUTDOWN HINT: 10073.6
SUM CLIENT SHUTDOWN HINT DIV TIME: 0
73874: CHANGING RESSOURCES
73888: CHANGING RESSOURCES
73890: CHANGING RESSOURCES

 + Terminating after 1000 timesteps with equal number of triangles -> EXIT
 + Final timestep: 6749

6750 TS (Timesteps)
715.114 ST (SIMULATION_TIME)
0.100037 TSS (Timestep size)
95.9478 SFS (Overall seconds for Simulation)
437983904 TP (Triangles processed)
0.0142145 ASPT (Averaged Seconds per Timestep)
64886.5 TPST (Triangles Processed in Average per Simulation Timestep)
48.6681 PPST (Partitions Processed in Average per Simulation Timestep)
4.56481 MTPS (Million Triangles per Second)
-4.56481 MTPSPT (Million Triangles per Second per Thread)
1.98018 EDMBPT (ElementData Megabyte per Timestep (RW))
139.307 EDMBPS (ElementData Megabyte per Second (RW))
SUM CLIENT SHUTDOWN HINT: 10511.6
SUM CLIENT SHUTDOWN HINT DIV TIME: 0
73882: CHANGING RESSOURCES
73890: CHANGING RESSOURCES

 + Terminating after 1000 timesteps with equal number of triangles -> EXIT
 + Final timestep: 6749

6750 TS (Timesteps)
715.114 ST (SIMULATION_TIME)
0.100037 TSS (Timestep size)
96.026 SFS (Overall seconds for Simulation)
437983904 TP (Triangles processed)
0.0142261 ASPT (Averaged Seconds per Timestep)
64886.5 TPST (Triangles Processed in Average per Simulation Timestep)
48.6681 PPST (Partitions Processed in Average per Simulation Timestep)
4.5611 MTPS (Million Triangles per Second)
-4.5611 MTPSPT (Million Triangles per Second per Thread)
1.98018 EDMBPT (ElementData Megabyte per Timestep (RW))
139.194 EDMBPS (ElementData Megabyte per Second (RW))
SUM CLIENT SHUTDOWN HINT: 10949.6
SUM CLIENT SHUTDOWN HINT DIV TIME: 0
73882: CHANGING RESSOURCES
73890: CHANGING RESSOURCES
Waiting for job 73875
Waiting for job 73876
Waiting for job 73877
Waiting for job 73878
Waiting for job 73879
Waiting for job 73880
Waiting for job 73881
Waiting for job 73882

 + Terminating after 1000 timesteps with equal number of triangles -> EXIT
 + Final timestep: 6749

6750 TS (Timesteps)
715.114 ST (SIMULATION_TIME)
0.100037 TSS (Timestep size)
98.7553 SFS (Overall seconds for Simulation)
437983904 TP (Triangles processed)
0.0146304 ASPT (Averaged Seconds per Timestep)
64886.5 TPST (Triangles Processed in Average per Simulation Timestep)
48.6681 PPST (Partitions Processed in Average per Simulation Timestep)
4.43504 MTPS (Million Triangles per Second)
-4.43504 MTPSPT (Million Triangles per Second per Thread)
1.98018 EDMBPT (ElementData Megabyte per Timestep (RW))
135.347 EDMBPS (ElementData Megabyte per Second (RW))
SUM CLIENT SHUTDOWN HINT: 11387.6
SUM CLIENT SHUTDOWN HINT DIV TIME: 0
73890: CHANGING RESSOURCES
Waiting for job 73883
Waiting for job 73884
Waiting for job 73885
Waiting for job 73886
Waiting for job 73887
Waiting for job 73888
Waiting for job 73889
Waiting for job 73890

 + Terminating after 1000 timesteps with equal number of triangles -> EXIT
 + Final timestep: 6749

6750 TS (Timesteps)
715.114 ST (SIMULATION_TIME)
0.100037 TSS (Timestep size)
99.0441 SFS (Overall seconds for Simulation)
437983904 TP (Triangles processed)
0.0146732 ASPT (Averaged Seconds per Timestep)
64886.5 TPST (Triangles Processed in Average per Simulation Timestep)
48.6681 PPST (Partitions Processed in Average per Simulation Timestep)
4.42211 MTPS (Million Triangles per Second)
-4.42211 MTPSPT (Million Triangles per Second per Thread)
1.98018 EDMBPT (ElementData Megabyte per Timestep (RW))
134.952 EDMBPS (ElementData Megabyte per Second (RW))
SUM CLIENT SHUTDOWN HINT: 11825.6
SUM CLIENT SHUTDOWN HINT DIV TIME: 119.687
Waiting for job 73891
Waiting for job 73892
Waiting for job 73893
Waiting for job 73894
Waiting for job 73895
Sat Mar 31 15:45:55 CEST 2012
Seconds: 99
