THREADS	MTPS	TIMESTEPS	TIMESTEP_SIZE	SECONDS_FOR_SIMULATION	AVERAGE_TRIANGLES	AVERAGE_PARTITIONS
80	20.5613	100	0.000491318	92.635	1.90469e+07	1158.74
79	18.8347	100	0.000491318	101.127	1.90469e+07	1158.74
78	15.2058	100	0.000491318	125.261	1.90469e+07	1158.74
77	14.9223	100	0.000491318	127.641	1.90469e+07	1158.74
76	14.4717	100	0.000491318	131.615	1.90469e+07	1158.74
75	14.3765	100	0.000491318	132.487	1.90469e+07	1158.74
74	13.5238	100	0.000491318	140.84	1.90469e+07	1158.74
73	13.5071	100	0.000491318	141.014	1.90469e+07	1158.74
72	13.8207	100	0.000491318	137.815	1.90469e+07	1158.74
71	14.1247	100	0.000491318	134.849	1.90469e+07	1158.74
70	13.8254	100	0.000491318	137.767	1.90469e+07	1158.74
69	14.0183	100	0.000491318	135.872	1.90469e+07	1158.74
68	13.9906	100	0.000491318	136.141	1.90469e+07	1158.74
67	13.6823	100	0.000491318	139.209	1.90469e+07	1158.74
66	13.6679	100	0.000491318	139.355	1.90469e+07	1158.74
65	13.5543	100	0.000491318	140.523	1.90469e+07	1158.74
64	14.0435	100	0.000491318	135.628	1.90469e+07	1158.74
63	14.2064	100	0.000491318	134.073	1.90469e+07	1158.74
62	14.1489	100	0.000491318	134.618	1.90469e+07	1158.74
61	14.1549	100	0.000491318	134.561	1.90469e+07	1158.74
60	14.2482	100	0.000491318	133.679	1.90469e+07	1158.74
59	14.2426	100	0.000491318	133.732	1.90469e+07	1158.74
58	14.3166	100	0.000491318	133.041	1.90469e+07	1158.74
57	14.1712	100	0.000491318	134.406	1.90469e+07	1158.74
56	14.0429	100	0.000491318	135.634	1.90469e+07	1158.74
55	14.0784	100	0.000491318	135.292	1.90469e+07	1158.74
54	14.1619	100	0.000491318	134.494	1.90469e+07	1158.74
53	14.0271	100	0.000491318	135.787	1.90469e+07	1158.74
52	14.0798	100	0.000491318	135.279	1.90469e+07	1158.74
51	13.7538	100	0.000491318	138.485	1.90469e+07	1158.74
50	13.7754	100	0.000491318	138.268	1.90469e+07	1158.74
49	13.9287	100	0.000491318	136.746	1.90469e+07	1158.74
48	14.3494	100	0.000491318	132.737	1.90469e+07	1158.74
47	14.5033	100	0.000491318	131.328	1.90469e+07	1158.74
46	14.4468	100	0.000491318	131.841	1.90469e+07	1158.74
45	14.4369	100	0.000491318	131.932	1.90469e+07	1158.74
44	14.4671	100	0.000491318	131.656	1.90469e+07	1158.74
43	14.4386	100	0.000491318	131.916	1.90469e+07	1158.74
42	13.7315	100	0.000491318	138.709	1.90469e+07	1158.74
41	13.7917	100	0.000491318	138.105	1.90469e+07	1158.74
40	14.4865	100	0.000491318	131.48	1.90469e+07	1158.74
39	14.5555	100	0.000491318	130.857	1.90469e+07	1158.74
38	14.6161	100	0.000491318	130.314	1.90469e+07	1158.74
37	14.5869	100	0.000491318	130.575	1.90469e+07	1158.74
36	14.7797	100	0.000491318	128.872	1.90469e+07	1158.74
35	14.1547	100	0.000491318	134.563	1.90469e+07	1158.74
34	14.0859	100	0.000491318	135.22	1.90469e+07	1158.74
33	14.4115	100	0.000491318	132.165	1.90469e+07	1158.74
32	15.0745	100	0.000491318	126.352	1.90469e+07	1158.74
31	15.0653	100	0.000491318	126.429	1.90469e+07	1158.74
30	14.736	100	0.000491318	129.255	1.90469e+07	1158.74
29	14.2755	100	0.000491318	133.424	1.90469e+07	1158.74
28	14.2237	100	0.000491318	133.909	1.90469e+07	1158.74
27	14.3478	100	0.000491318	132.752	1.90469e+07	1158.74
26	14.3569	100	0.000491318	132.667	1.90469e+07	1158.74
25	14.2874	100	0.000491318	133.312	1.90469e+07	1158.74
24	14.3584	100	0.000491318	132.654	1.90469e+07	1158.74
23	14.2624	100	0.000491318	133.546	1.90469e+07	1158.74
22	14.3654	100	0.000491318	132.588	1.90469e+07	1158.74
21	14.2958	100	0.000491318	133.234	1.90469e+07	1158.74
20	14.1926	100	0.000491318	134.203	1.90469e+07	1158.74
19	14.0739	100	0.000491318	135.335	1.90469e+07	1158.74
18	13.8182	100	0.000491318	137.839	1.90469e+07	1158.74
17	13.8832	100	0.000491318	137.194	1.90469e+07	1158.74
16	14.2799	100	0.000491318	133.383	1.90469e+07	1158.74
15	13.9621	100	0.000491318	136.418	1.90469e+07	1158.74
14	13.7419	100	0.000491318	138.604	1.90469e+07	1158.74
13	13.8021	100	0.000491318	138	1.90469e+07	1158.74
12	13.9079	100	0.000491318	136.95	1.90469e+07	1158.74
11	13.61	100	0.000491318	139.948	1.90469e+07	1158.74
10	13.344	100	0.000491318	142.737	1.90469e+07	1158.74
9	12.9164	100	0.000491318	147.463	1.90469e+07	1158.74
8	12.3712	100	0.000491318	153.961	1.90469e+07	1158.74
7	11.7491	100	0.000491318	162.114	1.90469e+07	1158.74
6	10.8716	100	0.000491318	175.198	1.90469e+07	1158.74
5	9.84865	100	0.000491318	193.396	1.90469e+07	1158.74
4	8.64888	100	0.000491318	220.224	1.90469e+07	1158.74
3	7.14342	100	0.000491318	266.636	1.90469e+07	1158.74
2	5.06463	100	0.000491318	376.077	1.90469e+07	1158.74
1	2.66515	100	0.000491318	714.665	1.90469e+07	1158.74
