Problem size with different number of CPUs using function optimization
THREADS	INITIAL_DEPTH	MTPS	TIMESTEPS	TIMESTEP_SIZE	SECONDS_FOR_SIMULATION	AVERAGE_TRIANGLES	AVERAGE_PARTITIONS
80	42.4107	100	0.000986073	45.2173	1.9177e+07	1162.24
79	37.7272	100	0.000986073	50.8307	1.9177e+07	1162.24
78	29.2146	100	0.000986073	65.6418	1.9177e+07	1162.24
77	26.5966	100	0.000986073	72.1031	1.9177e+07	1162.24
76	25.7107	100	0.000986073	74.5875	1.9177e+07	1162.24
75	25.7034	100	0.000986073	74.6089	1.9177e+07	1162.24
74	25.7955	100	0.000986073	74.3424	1.9177e+07	1162.24
73	25.8899	100	0.000986073	74.0714	1.9177e+07	1162.24
72	25.7327	100	0.000986073	74.5237	1.9177e+07	1162.24
71	25.7823	100	0.000986073	74.3804	1.9177e+07	1162.24
70	25.8028	100	0.000986073	74.3215	1.9177e+07	1162.24
69	25.7162	100	0.000986073	74.5717	1.9177e+07	1162.24
68	25.8114	100	0.000986073	74.2966	1.9177e+07	1162.24
67	25.92	100	0.000986073	73.9853	1.9177e+07	1162.24
66	25.3873	100	0.000986073	75.5377	1.9177e+07	1162.24
65	25.8892	100	0.000986073	74.0733	1.9177e+07	1162.24
64	25.7397	100	0.000986073	74.5036	1.9177e+07	1162.24
63	25.9319	100	0.000986073	73.9513	1.9177e+07	1162.24
62	25.2354	100	0.000986073	75.9923	1.9177e+07	1162.24
61	25.4626	100	0.000986073	75.3144	1.9177e+07	1162.24
60	25.7174	100	0.000986073	74.5682	1.9177e+07	1162.24
59	25.9797	100	0.000986073	73.8154	1.9177e+07	1162.24
58	25.7833	100	0.000986073	74.3777	1.9177e+07	1162.24
57	25.4137	100	0.000986073	75.4593	1.9177e+07	1162.24
56	25.8396	100	0.000986073	74.2156	1.9177e+07	1162.24
55	25.959	100	0.000986073	73.874	1.9177e+07	1162.24
54	25.5339	100	0.000986073	75.1042	1.9177e+07	1162.24
53	25.2168	100	0.000986073	76.0485	1.9177e+07	1162.24
52	26.0097	100	0.000986073	73.7301	1.9177e+07	1162.24
51	25.7238	100	0.000986073	74.5495	1.9177e+07	1162.24
50	26.2648	100	0.000986073	73.0141	1.9177e+07	1162.24
49	26.1356	100	0.000986073	73.375	1.9177e+07	1162.24
48	26.9969	100	0.000986073	71.0341	1.9177e+07	1162.24
47	26.6039	100	0.000986073	72.0835	1.9177e+07	1162.24
46	26.348	100	0.000986073	72.7835	1.9177e+07	1162.24
45	26.3103	100	0.000986073	72.8879	1.9177e+07	1162.24
44	25.7036	100	0.000986073	74.6081	1.9177e+07	1162.24
43	25.581	100	0.000986073	74.9659	1.9177e+07	1162.24
42	25.6191	100	0.000986073	74.8542	1.9177e+07	1162.24
41	25.4954	100	0.000986073	75.2174	1.9177e+07	1162.24
40	24.5854	100	0.000986073	78.0016	1.9177e+07	1162.24
39	25.0295	100	0.000986073	76.6176	1.9177e+07	1162.24
38	25.1467	100	0.000986073	76.2606	1.9177e+07	1162.24
37	25.9566	100	0.000986073	73.8809	1.9177e+07	1162.24
36	27.0015	100	0.000986073	71.022	1.9177e+07	1162.24
35	26.1948	100	0.000986073	73.2091	1.9177e+07	1162.24
34	25.7904	100	0.000986073	74.3572	1.9177e+07	1162.24
33	26.3652	100	0.000986073	72.7361	1.9177e+07	1162.24
32	27.4197	100	0.000986073	69.9388	1.9177e+07	1162.24
31	27.7899	100	0.000986073	69.0071	1.9177e+07	1162.24
30	26.6168	100	0.000986073	72.0483	1.9177e+07	1162.24
29	26.744	100	0.000986073	71.7058	1.9177e+07	1162.24
28	27.8886	100	0.000986073	68.7628	1.9177e+07	1162.24
27	27.3273	100	0.000986073	70.1752	1.9177e+07	1162.24
26	27.0124	100	0.000986073	70.9933	1.9177e+07	1162.24
25	26.2679	100	0.000986073	73.0056	1.9177e+07	1162.24
24	26.1921	100	0.000986073	73.2167	1.9177e+07	1162.24
23	26.6877	100	0.000986073	71.857	1.9177e+07	1162.24
22	25.9386	100	0.000986073	73.9323	1.9177e+07	1162.24
21	25.1718	100	0.000986073	76.1844	1.9177e+07	1162.24
20	26.3129	100	0.000986073	72.8807	1.9177e+07	1162.24
19	25.8982	100	0.000986073	74.0477	1.9177e+07	1162.24
18	25.4972	100	0.000986073	75.2121	1.9177e+07	1162.24
17	25.5097	100	0.000986073	75.1754	1.9177e+07	1162.24
16	25.9853	100	0.000986073	73.7993	1.9177e+07	1162.24
15	25.6072	100	0.000986073	74.889	1.9177e+07	1162.24
14	25.7076	100	0.000986073	74.5965	1.9177e+07	1162.24
13	25.5943	100	0.000986073	74.9269	1.9177e+07	1162.24
12	26.1515	100	0.000986073	73.3304	1.9177e+07	1162.24
11	25.632	100	0.000986073	74.8167	1.9177e+07	1162.24
10	24.935	100	0.000986073	76.908	1.9177e+07	1162.24
9	23.2342	100	0.000986073	82.5376	1.9177e+07	1162.24
8	21.5473	100	0.000986073	88.9996	1.9177e+07	1162.24
7	19.2873	100	0.000986073	99.4279	1.9177e+07	1162.24
6	16.7733	100	0.000986073	114.33	1.9177e+07	1162.24
5	14.2124	100	0.000986073	134.931	1.9177e+07	1162.24
4	11.5358	100	0.000986073	166.239	1.9177e+07	1162.24
3	8.81535	100	0.000986073	217.541	1.9177e+07	1162.24
2	5.88844	100	0.000986073	325.672	1.9177e+07	1162.24
1	3.04353	100	0.000986073	630.092	1.9177e+07	1162.24
