Timestep	RLE_info_counter	boundary_non_rle_encoded_edges_and_vertices	memory_saving_factor
0:	34593	1900	7812	4.11158
1:	34922	1916	7878	4.11169
2:	35253	1925	7915	4.11169
3:	35559	1951	8005	4.10302
4:	35762	1962	8056	4.10601
5:	35821	1962	8058	4.10703
6:	36113	2004	8194	4.08882
7:	36280	2004	8214	4.0988
8:	36577	2004	8252	4.11776
9:	36665	2004	8262	4.12275
10:	36816	2035	8353	4.10467
11:	36950	2035	8363	4.10958
12:	37182	2049	8421	4.10981
13:	37372	2049	8449	4.12347
14:	37530	2049	8467	4.13226
15:	37665	2049	8487	4.14202
16:	37841	2049	8513	4.15471
17:	38014	2059	8557	4.1559
18:	38207	2059	8575	4.16464
19:	38340	2059	8593	4.17339
20:	38496	2059	8617	4.18504
21:	38637	2059	8629	4.19087
22:	38792	2095	8711	4.158
23:	38950	2121	8779	4.13909
24:	39154	2135	8827	4.13443
25:	39281	2161	8881	4.10967
26:	39418	2187	8939	4.08733
27:	39599	2215	9009	4.06727
28:	39742	2229	9051	4.06057
29:	39912	2245	9111	4.05835
30:	40058	2259	9161	4.05533
31:	40228	2259	9189	4.06773
