Timestep	RLE_info_counter	boundary_non_rle_encoded_edges_and_vertices	memory_saving_factor
0:	34593	279	2193	7.86022
1:	34755	279	2201	7.88889
2:	35052	279	2207	7.91039
3:	35339	279	2219	7.95341
4:	35451	279	2223	7.96774
5:	35608	279	2227	7.98208
6:	35801	279	2239	8.02509
7:	36078	279	2247	8.05376
8:	36258	279	2249	8.06093
9:	36460	279	2263	8.11111
10:	36631	279	2267	8.12545
11:	36809	279	2283	8.1828
12:	36969	279	2287	8.19713
13:	37165	279	2293	8.21864
14:	37362	279	2307	8.26882
15:	37546	279	2315	8.29749
16:	37725	279	2331	8.35484
17:	37924	279	2343	8.39785
18:	38100	279	2347	8.41219
19:	38268	279	2353	8.43369
20:	38442	279	2359	8.4552
21:	38626	289	2405	8.3218
22:	38830	289	2421	8.37716
23:	38976	289	2429	8.40484
24:	39210	289	2441	8.44637
25:	39345	297	2495	8.40067
26:	39533	297	2501	8.42088
27:	39700	297	2507	8.44108
28:	39918	297	2511	8.45455
29:	40117	297	2523	8.49495
30:	40281	297	2531	8.52189
31:	40462	297	2535	8.53535
32:	40603	297	2539	8.54882
33:	40777	297	2543	8.56229
34:	40919	297	2547	8.57576
35:	41121	297	2557	8.60943
36:	41362	297	2569	8.64983
37:	41580	297	2579	8.6835
38:	41710	297	2587	8.71044
39:	41879	297	2589	8.71717
40:	42028	297	2593	8.73064
41:	42222	297	2601	8.75758
42:	42395	297	2603	8.76431
43:	42607	297	2607	8.77778
44:	42793	297	2615	8.80471
45:	42937	297	2623	8.83165
46:	43132	305	2679	8.78361
47:	43291	305	2685	8.80328
48:	43459	305	2693	8.82951
49:	43658	305	2705	8.86885
50:	43867	305	2711	8.88852
51:	44001	305	2719	8.91475
52:	44165	305	2723	8.92787
53:	44320	305	2733	8.96066
54:	44511	305	2739	8.98033
55:	44649	305	2741	8.98689
56:	44933	305	2751	9.01967
57:	45066	305	2753	9.02623
58:	45254	319	2779	8.7116
59:	45399	333	2817	8.45946
60:	45571	333	2821	8.47147
61:	45730	333	2827	8.48949
62:	45917	333	2835	8.51351
63:	46167	333	2849	8.55556
64:	46334	333	2855	8.57357
65:	46478	333	2859	8.58559
66:	46708	333	2865	8.6036
67:	46849	345	2919	8.46087
68:	47056	345	2929	8.48986
69:	47194	345	2933	8.50145
70:	47422	359	3015	8.39833
71:	47592	359	3017	8.4039
72:	47751	359	3017	8.4039
73:	47931	359	3031	8.4429
74:	48083	359	3037	8.45961
75:	48254	359	3039	8.46518
76:	48453	359	3045	8.48189
77:	48669	359	3067	8.54318
78:	48865	369	3115	8.44173
79:	49016	369	3119	8.45257
80:	49182	369	3125	8.46883
81:	49339	369	3135	8.49593
82:	49475	369	3143	8.51762
83:	49655	369	3149	8.53388
84:	49858	369	3173	8.59892
85:	50049	369	3193	8.65312
86:	50223	369	3201	8.6748
87:	50403	369	3217	8.71816
88:	50586	369	3229	8.75068
89:	50732	369	3241	8.7832
90:	50869	369	3249	8.80488
91:	51103	369	3263	8.84282
92:	51286	369	3273	8.86992
93:	51480	369	3283	8.89702
94:	51677	369	3295	8.92954
95:	51805	369	3301	8.9458
96:	52025	369	3307	8.96206
97:	52188	369	3317	8.98916
98:	52400	369	3329	9.02168
99:	52545	369	3333	9.03252
100:	52717	369	3337	9.04336
101:	52968	369	3349	9.07588
102:	53092	369	3357	9.09756
103:	53288	369	3365	9.11924
104:	53472	369	3379	9.15718
105:	53666	369	3385	9.17344
106:	53873	385	3467	9.00519
107:	54057	385	3479	9.03636
108:	54230	385	3483	9.04675
109:	54400	385	3493	9.07273
110:	54580	385	3501	9.09351
111:	54778	385	3503	9.0987
112:	54930	385	3511	9.11948
113:	55155	385	3517	9.13506
114:	55309	385	3521	9.14545
115:	55501	385	3531	9.17143
116:	55715	385	3539	9.19221
117:	55858	385	3545	9.20779
118:	56036	385	3555	9.23377
119:	56239	385	3557	9.23896
120:	56439	385	3563	9.25455
121:	56641	385	3573	9.28052
122:	56804	385	3579	9.2961
123:	56956	385	3585	9.31169
124:	57170	385	3589	9.32208
125:	57358	385	3595	9.33766
126:	57549	385	3601	9.35325
127:	57742	385	3607	9.36883
128:	57891	395	3655	9.25316
129:	58109	395	3665	9.27848
130:	58310	395	3673	9.29873
131:	58488	395	3683	9.32405
132:	58649	395	3687	9.33418
133:	58803	395	3691	9.3443
134:	59043	395	3699	9.36456
135:	59241	395	3703	9.37468
136:	59425	395	3709	9.38987
137:	59634	403	3737	9.27295
138:	59780	417	3779	9.06235
139:	60030	417	3791	9.09113
140:	60163	417	3799	9.11031
141:	60345	417	3803	9.1199
142:	60502	417	3813	9.14388
143:	60678	417	3819	9.15827
144:	60905	417	3827	9.17746
145:	61061	417	3829	9.18225
146:	61262	417	3833	9.19185
147:	61487	417	3843	9.21583
148:	61692	417	3853	9.23981
149:	61872	417	3865	9.26859
150:	62040	417	3873	9.28777
151:	62256	431	3933	9.12529
152:	62372	431	3935	9.12993
153:	62593	431	3943	9.14849
154:	62766	431	3949	9.16241
155:	62988	431	3957	9.18097
156:	63196	431	3965	9.19954
157:	63390	431	3971	9.21346
158:	63561	431	3983	9.2413
159:	63699	431	3991	9.25986
160:	63895	431	3999	9.27842
161:	64091	431	4007	9.29698
162:	64257	431	4009	9.30162
163:	64471	431	4021	9.32947
164:	64659	431	4023	9.33411
165:	64893	431	4037	9.36659
166:	65057	431	4041	9.37587
167:	65227	431	4051	9.39907
168:	65413	431	4055	9.40835
169:	65596	431	4059	9.41763
170:	65814	431	4063	9.42691
171:	66012	431	4071	9.44548
172:	66165	431	4079	9.46404
173:	66309	431	4087	9.4826
174:	66470	431	4089	9.48724
175:	66686	441	4149	9.40816
176:	66876	441	4161	9.43537
177:	67096	441	4183	9.48526
178:	67274	441	4193	9.50794
179:	67467	441	4207	9.53968
180:	67660	441	4211	9.54875
181:	67868	441	4225	9.5805
182:	68004	441	4227	9.58503
183:	68188	441	4241	9.61678
184:	68338	441	4249	9.63492
185:	68643	441	4275	9.69388
186:	68787	441	4283	9.71202
187:	68989	441	4293	9.73469
188:	69151	441	4303	9.75737
189:	69319	441	4309	9.77098
190:	69509	441	4315	9.78458
191:	69742	453	4377	9.66225
192:	69942	453	4393	9.69757
193:	70134	453	4405	9.72406
194:	70290	453	4411	9.73731
195:	70482	453	4415	9.74614
196:	70681	453	4425	9.76821
197:	70904	453	4433	9.78587
198:	71043	453	4439	9.79912
199:	71239	453	4451	9.82561
200:	71354	479	4533	9.46347
201:	71536	493	4571	9.27181
202:	71711	493	4577	9.28398
203:	71885	493	4587	9.30426
204:	72063	523	4735	9.05354
205:	72239	523	4745	9.07266
206:	72527	523	4757	9.0956
207:	72783	523	4777	9.13384
208:	72990	523	4791	9.16061
209:	73171	523	4801	9.17973
210:	73315	523	4807	9.1912
211:	73521	523	4813	9.20268
212:	73701	523	4815	9.2065
213:	73872	523	4833	9.24092
214:	74089	523	4847	9.26769
215:	74269	523	4851	9.27533
216:	74498	523	4863	9.29828
217:	74668	523	4871	9.31358
218:	74819	523	4885	9.34034
219:	74974	523	4895	9.35946
220:	75124	523	4899	9.36711
221:	75338	523	4903	9.37476
222:	75582	523	4911	9.39006
223:	75782	523	4925	9.41683
224:	75914	523	4927	9.42065
225:	76099	523	4933	9.43212
226:	76331	523	4947	9.45889
227:	76489	523	4955	9.47419
228:	76673	523	4961	9.48566
229:	76861	523	4967	9.49713
230:	77035	523	4971	9.50478
231:	77250	523	4975	9.51243
232:	77427	523	4979	9.52008
233:	77571	523	4983	9.52772
234:	77751	523	4995	9.55067
235:	77965	523	5003	9.56597
236:	78166	523	5005	9.56979
237:	78383	523	5013	9.58509
238:	78549	523	5017	9.59273
239:	78731	523	5027	9.61185
240:	78889	523	5029	9.61568
241:	79033	523	5033	9.62333
242:	79237	523	5041	9.63862
243:	79464	535	5059	9.45607
244:	79646	547	5077	9.28154
245:	79816	565	5177	9.16283
246:	79989	565	5185	9.17699
247:	80199	565	5193	9.19115
248:	80375	565	5197	9.19823
249:	80542	565	5205	9.21239
250:	80748	565	5205	9.21239
251:	80934	579	5229	9.03109
252:	81158	593	5255	8.86172
253:	81351	607	5299	8.72982
254:	81537	607	5303	8.73641
255:	81696	607	5317	8.75947
256:	81874	607	5319	8.76277
257:	82084	607	5327	8.77595
258:	82262	607	5327	8.77595
259:	82452	607	5333	8.78583
260:	82619	607	5335	8.78913
261:	82811	621	5395	8.6876
262:	83007	621	5407	8.70692
263:	83165	621	5413	8.71659
264:	83351	621	5415	8.71981
265:	83589	635	5443	8.57165
266:	83750	651	5473	8.40707
267:	83957	665	5543	8.33534
268:	84198	665	5555	8.35338
269:	84394	665	5565	8.36842
270:	84580	665	5575	8.38346
271:	84748	665	5585	8.3985
272:	84946	665	5591	8.40752
273:	85156	665	5597	8.41654
274:	85356	665	5609	8.43459
275:	85494	665	5615	8.44361
276:	85688	665	5623	8.45564
277:	85850	665	5627	8.46165
278:	86076	665	5633	8.47068
279:	86309	665	5641	8.48271
280:	86493	665	5647	8.49173
281:	86665	665	5653	8.50075
282:	86863	665	5661	8.51278
283:	87049	665	5669	8.52481
284:	87289	665	5681	8.54286
285:	87476	665	5685	8.54887
286:	87666	665	5691	8.55789
287:	87846	665	5697	8.56692
288:	88114	665	5713	8.59098
289:	88290	665	5719	8.6
290:	88446	665	5721	8.60301
291:	88667	665	5731	8.61805
292:	88838	665	5741	8.63308
293:	89038	665	5751	8.64812
294:	89292	665	5763	8.66617
295:	89485	665	5765	8.66917
296:	89641	665	5775	8.68421
297:	89795	665	5783	8.69624
298:	90066	681	5861	8.60646
299:	90286	681	5869	8.61821
300:	90494	681	5879	8.63289
301:	90690	681	5883	8.63877
302:	90860	681	5891	8.65051
303:	91006	681	5897	8.65932
304:	91229	694	5926	8.5389
305:	91411	702	5976	8.51282
306:	91614	702	5988	8.52991
307:	91802	702	5992	8.53561
308:	92040	702	6014	8.56695
309:	92276	702	6032	8.59259
310:	92468	702	6038	8.60114
311:	92682	702	6058	8.62963
312:	92812	702	6066	8.64103
313:	92981	702	6074	8.65242
314:	93240	702	6086	8.66952
315:	93434	702	6114	8.7094
316:	93610	702	6126	8.7265
317:	93830	702	6144	8.75214
318:	93976	702	6156	8.76923
319:	94182	702	6166	8.78348
320:	94366	702	6188	8.81481
321:	94506	702	6196	8.82621
322:	94766	702	6220	8.8604
323:	94959	702	6232	8.87749
324:	95181	718	6306	8.78273
325:	95352	718	6318	8.79944
326:	95508	718	6324	8.8078
327:	95689	718	6334	8.82173
328:	95847	718	6340	8.83008
329:	96056	718	6362	8.86072
330:	96322	718	6376	8.88022
331:	96512	718	6396	8.90808
332:	96656	718	6404	8.91922
333:	96827	718	6422	8.94429
334:	96995	718	6428	8.95265
335:	97179	718	6436	8.96379
336:	97368	718	6446	8.97772
337:	97586	718	6452	8.98607
338:	97773	718	6460	8.99721
339:	97946	718	6482	9.02786
340:	98129	718	6502	9.05571
341:	98305	718	6520	9.08078
342:	98460	718	6534	9.10028
343:	98653	718	6548	9.11978
344:	98844	718	6562	9.13928
345:	99069	718	6578	9.16156
346:	99280	718	6588	9.17549
347:	99398	718	6596	9.18663
348:	99573	718	6602	9.19499
349:	99793	718	6626	9.22841
350:	100008	718	6638	9.24513
351:	100218	718	6646	9.25627
352:	100435	718	6662	9.27855
353:	100619	718	6672	9.29248
354:	100799	718	6680	9.30362
355:	100996	718	6684	9.30919
356:	101204	718	6702	9.33426
357:	101327	718	6706	9.33983
358:	101528	718	6724	9.3649
359:	101695	718	6730	9.37326
360:	101948	718	6736	9.38162
361:	102086	718	6742	9.38997
362:	102323	718	6746	9.39554
363:	102510	718	6762	9.41783
364:	102646	727	6787	9.33563
365:	102818	737	6805	9.23338
366:	103079	748	6830	9.13102
367:	103249	756	6872	9.08995
368:	103495	756	6884	9.10582
369:	103620	756	6892	9.1164
370:	103825	756	6900	9.12698
371:	104065	756	6916	9.14815
372:	104243	756	6928	9.16402
373:	104416	756	6930	9.16667
374:	104620	756	6936	9.1746
375:	104804	756	6942	9.18254
376:	105037	756	6954	9.19841
377:	105226	756	6960	9.20635
378:	105408	756	6974	9.22487
379:	105570	756	6980	9.2328
380:	105820	770	7048	9.15325
381:	106062	770	7058	9.16623
382:	106271	770	7060	9.16883
383:	106409	770	7066	9.17662
384:	106618	770	7078	9.19221
385:	106826	770	7084	9.2
386:	107028	770	7088	9.20519
387:	107187	770	7098	9.21818
388:	107394	760	7042	9.26579
389:	107533	760	7048	9.27368
390:	107762	760	7058	9.28684
391:	107967	760	7062	9.29211
392:	108164	760	7070	9.30263
393:	108316	760	7072	9.30526
394:	108548	774	7122	9.20155
395:	108745	784	7162	9.1352
396:	108932	784	7164	9.13776
397:	109080	784	7166	9.14031
398:	109232	784	7178	9.15561
399:	109418	784	7184	9.16327
400:	109645	784	7192	9.17347
401:	109879	800	7264	9.08
402:	110087	800	7266	9.0825
403:	110290	800	7272	9.09
404:	110415	800	7280	9.1
405:	110533	800	7282	9.1025
406:	110722	800	7288	9.11
407:	110911	800	7296	9.12
408:	111129	800	7308	9.135
409:	111306	800	7320	9.15
410:	111570	800	7326	9.1575
411:	111738	800	7342	9.1775
412:	111936	800	7346	9.1825
413:	112098	800	7350	9.1875
414:	112291	800	7354	9.1925
415:	112468	800	7362	9.2025
416:	112687	800	7364	9.205
417:	112889	800	7368	9.21
418:	113032	800	7376	9.22
419:	113158	800	7380	9.225
420:	113337	800	7382	9.2275
421:	113581	800	7392	9.24
422:	113764	800	7408	9.26
423:	114005	800	7416	9.27
424:	114232	800	7420	9.275
425:	114350	800	7422	9.2775
426:	114550	814	7462	9.16708
427:	114753	824	7510	9.11408
428:	114856	824	7504	9.1068
429:	114989	824	7512	9.1165
430:	115250	824	7530	9.13835
431:	115498	824	7544	9.15534
432:	115692	824	7550	9.16262
433:	115873	824	7566	9.18204
434:	116003	824	7572	9.18932
435:	116173	832	7620	9.15865
436:	116366	832	7638	9.18029
437:	116582	832	7658	9.20433
438:	116808	848	7750	9.13915
439:	116984	848	7760	9.15094
440:	117219	848	7774	9.16745
441:	117403	848	7780	9.17453
442:	117634	848	7788	9.18396
443:	117815	848	7790	9.18632
444:	118016	848	7790	9.18632
445:	118183	848	7794	9.19104
446:	118394	848	7810	9.20991
447:	118561	848	7818	9.21934
448:	118672	848	7818	9.21934
449:	118842	848	7822	9.22406
450:	119037	848	7824	9.22642
451:	119235	848	7822	9.22406
452:	119553	848	7818	9.21934
453:	119696	848	7806	9.20519
454:	119821	848	7796	9.1934
455:	119983	864	7862	9.09954
456:	120129	864	7862	9.09954
457:	120295	864	7862	9.09954
458:	120424	864	7866	9.10417
459:	120648	864	7878	9.11806
460:	120844	864	7880	9.12037
461:	120984	864	7884	9.125
462:	121174	864	7888	9.12963
463:	121315	864	7894	9.13657
464:	121483	864	7904	9.14815
465:	121654	864	7916	9.16204
466:	121852	864	7930	9.17824
467:	122063	864	7948	9.19907
468:	122297	864	7974	9.22917
469:	122408	864	7984	9.24074
470:	122548	864	7996	9.25463
471:	122699	864	8000	9.25926
472:	122980	864	8010	9.27083
473:	123138	864	8014	9.27546
474:	123342	864	8014	9.27546
475:	123451	874	8060	9.22197
476:	123614	874	8072	9.2357
477:	123807	874	8072	9.2357
478:	124012	874	8076	9.24027
479:	124157	874	8084	9.24943
480:	124300	874	8088	9.254
481:	124456	874	8096	9.26316
482:	124676	890	8180	9.19101
483:	124840	890	8188	9.2
484:	124998	890	8188	9.2
485:	125194	890	8204	9.21798
486:	125346	890	8202	9.21573
487:	125526	890	8210	9.22472
488:	125686	890	8216	9.23146
489:	125846	890	8228	9.24494
490:	126020	890	8238	9.25618
491:	126158	890	8236	9.25393
492:	126371	890	8238	9.25618
493:	126490	890	8242	9.26067
494:	126653	890	8246	9.26517
495:	126818	890	8250	9.26966
496:	127038	890	8266	9.28764
497:	127227	890	8276	9.29888
498:	127331	890	8278	9.30112
499:	127540	890	8292	9.31685
500:	127743	902	8354	9.26164
501:	127883	902	8356	9.26386
502:	128046	914	8382	9.17068
503:	128240	926	8448	9.12311
504:	128420	926	8456	9.13175
505:	128537	926	8460	9.13607
506:	128668	936	8510	9.09188
507:	128854	936	8524	9.10684
508:	129015	936	8536	9.11966
509:	129119	936	8528	9.11111
510:	129308	936	8532	9.11538
511:	129479	946	8592	9.08245
512:	129718	960	8620	8.97917
513:	129857	974	8680	8.9117
514:	130116	974	8694	8.92608
515:	130198	974	8694	8.92608
516:	130364	974	8708	8.94045
517:	130533	964	8686	9.01037
518:	130724	964	8702	9.02697
519:	130865	978	8764	8.96115
520:	131023	978	8774	8.97137
521:	131151	978	8778	8.97546
522:	131269	978	8778	8.97546
523:	131524	978	8784	8.9816
524:	131728	978	8802	9
525:	131829	978	8810	9.00818
526:	131974	978	8808	9.00613
527:	132111	978	8818	9.01636
528:	132271	978	8826	9.02454
529:	132384	978	8826	9.02454
530:	132582	978	8846	9.04499
531:	132777	978	8852	9.05112
532:	132929	978	8860	9.0593
533:	133114	978	8858	9.05726
534:	133294	978	8870	9.06953
535:	133412	978	8884	9.08384
536:	133588	978	8888	9.08793
537:	133677	978	8894	9.09407
538:	133950	978	8908	9.10838
539:	134134	970	8888	9.16289
540:	134292	970	8906	9.18144
541:	134445	970	8912	9.18763
542:	134602	970	8928	9.20412
543:	134795	970	8932	9.20825
544:	134954	970	8946	9.22268
545:	135168	970	8970	9.24742
546:	135357	970	8984	9.26186
547:	135504	970	8990	9.26804
548:	135710	970	9004	9.28247
549:	135866	970	9020	9.29897
550:	136005	970	9028	9.30722
551:	136205	970	9038	9.31753
552:	136430	970	9050	9.3299
553:	136676	970	9066	9.34639
554:	136924	970	9080	9.36082
555:	137152	984	9146	9.29472
556:	137285	984	9152	9.30081
557:	137428	1000	9246	9.246
558:	137664	1000	9262	9.262
559:	137892	1000	9270	9.27
560:	138059	1000	9280	9.28
561:	138276	1012	9340	9.22925
562:	138449	1012	9352	9.24111
563:	138673	1012	9360	9.24901
564:	138943	994	9340	9.39638
565:	139094	994	9344	9.4004
566:	139303	994	9356	9.41247
567:	139474	994	9352	9.40845
568:	139707	994	9362	9.41851
569:	139938	994	9376	9.4326
570:	140116	994	9392	9.44869
571:	140356	994	9408	9.46479
572:	140521	994	9406	9.46278
573:	140688	994	9412	9.46881
574:	141013	994	9440	9.49698
575:	141225	994	9444	9.50101
576:	141372	1002	9470	9.4511
577:	141544	1016	9520	9.37008
578:	141789	1016	9524	9.37402
579:	142004	1016	9526	9.37598
580:	142212	1016	9538	9.3878
581:	142548	1016	9552	9.40157
582:	142716	1016	9564	9.41339
583:	142867	1016	9568	9.41732
584:	143125	1016	9578	9.42717
585:	143309	1016	9584	9.43307
586:	143453	1030	9638	9.35728
587:	143731	1030	9644	9.36311
588:	143992	1044	9692	9.28352
589:	144177	1044	9694	9.28544
590:	144409	1044	9708	9.29885
591:	144595	1044	9714	9.3046
592:	144802	1044	9726	9.31609
593:	145020	1044	9738	9.32759
594:	145275	1044	9762	9.35057
595:	145563	1044	9760	9.34866
596:	145819	1044	9788	9.37548
597:	146012	1044	9794	9.38123
598:	146287	1044	9806	9.39272
599:	146451	1044	9826	9.41188
600:	146666	1044	9828	9.41379
601:	146909	1044	9836	9.42146
602:	147125	1044	9848	9.43295
603:	147357	1044	9862	9.44636
604:	147633	1044	9874	9.45785
605:	147859	1044	9896	9.47893
606:	148072	1044	9910	9.49234
607:	148282	1052	9954	9.46198
608:	148491	1060	10008	9.44151
609:	148704	1060	10016	9.44906
610:	149086	1064	10058	9.45301
611:	149269	1064	10074	9.46805
612:	149445	1064	10090	9.48308
613:	149668	1064	10084	9.47744
614:	149892	1064	10104	9.49624
615:	150154	1064	10112	9.50376
616:	150393	1064	10120	9.51128
617:	150697	1080	10190	9.43519
618:	150906	1080	10210	9.4537
619:	151134	1092	10270	9.40476
620:	151308	1092	10268	9.40293
621:	151500	1108	10346	9.33755
622:	151743	1108	10350	9.34116
623:	151967	1108	10358	9.34838
624:	152284	1108	10374	9.36282
625:	152545	1092	10338	9.46703
626:	152801	1092	10352	9.47985
627:	152976	1106	10408	9.41049
628:	153157	1106	10416	9.41772
629:	153410	1090	10396	9.53761
630:	153630	1090	10404	9.54495
631:	153908	1090	10418	9.5578
632:	154165	1090	10428	9.56697
633:	154407	1090	10438	9.57615
634:	154573	1090	10444	9.58165
635:	154878	1106	10516	9.50814
636:	155121	1106	10538	9.52803
637:	155279	1106	10538	9.52803
638:	155560	1106	10544	9.53345
639:	155892	1120	10636	9.49643
640:	156170	1136	10710	9.42782
641:	156398	1136	10716	9.4331
642:	156646	1136	10728	9.44366
643:	156798	1136	10738	9.45246
644:	157029	1136	10756	9.46831
645:	157333	1136	10770	9.48063
646:	157588	1136	10782	9.4912
647:	157868	1122	10766	9.59537
648:	158061	1122	10768	9.59715
649:	158260	1122	10766	9.59537
650:	158455	1122	10764	9.59358
651:	158721	1132	10816	9.55477
652:	158977	1132	10816	9.55477
653:	159230	1132	10826	9.5636
654:	159437	1132	10832	9.5689
655:	159786	1132	10854	9.58834
656:	160043	1132	10866	9.59894
657:	160267	1110	10838	9.76396
658:	160526	1110	10840	9.76577
659:	160727	1110	10844	9.76937
660:	160931	1110	10846	9.77117
661:	161272	1110	10856	9.78018
662:	161494	1110	10862	9.78559
663:	161702	1110	10838	9.76396
664:	161895	1110	10844	9.76937
665:	162133	1110	10850	9.77477
666:	162409	1110	10854	9.77838
667:	162654	1110	10858	9.78198
668:	162909	1110	10868	9.79099
669:	163112	1110	10876	9.7982
670:	163458	1110	10880	9.8018
671:	163778	1110	10900	9.81982
672:	164011	1110	10902	9.82162
673:	164203	1110	10910	9.82883
674:	164488	1110	10916	9.83423
675:	164726	1110	10912	9.83063
676:	164975	1110	10910	9.82883
677:	165228	1110	10916	9.83423
678:	165521	1110	10922	9.83964
679:	165716	1110	10926	9.84324
680:	165933	1110	10942	9.85766
681:	166304	1110	10948	9.86306
682:	166521	1110	10952	9.86667
683:	166661	1110	10970	9.88288
684:	166889	1110	10984	9.8955
685:	167153	1110	10994	9.9045
686:	167462	1110	10998	9.90811
687:	167740	1110	11016	9.92432
688:	167976	1110	11032	9.93874
689:	168268	1110	11046	9.95135
690:	168532	1110	11076	9.97838
691:	168794	1110	11088	9.98919
692:	168966	1110	11094	9.99459
693:	169153	1110	11092	9.99279
694:	169428	1126	11174	9.92362
695:	169620	1126	11180	9.92895
696:	169904	1126	11182	9.93073
697:	170183	1140	11234	9.85439
698:	170493	1154	11274	9.7695
699:	170763	1168	11304	9.67808
700:	170934	1182	11340	9.59391
701:	171173	1182	11354	9.60575
702:	171400	1182	11356	9.60745
703:	171642	1192	11386	9.55201
704:	171887	1202	11434	9.51248
705:	172101	1202	11442	9.51913
706:	172344	1202	11450	9.52579
707:	172576	1202	11458	9.53245
708:	172784	1202	11456	9.53078
709:	173036	1202	11466	9.5391
710:	173313	1202	11480	9.55075
711:	173560	1202	11482	9.55241
712:	173804	1202	11492	9.56073
713:	173990	1200	11496	9.58
714:	174123	1200	11500	9.58333
715:	174306	1200	11506	9.58833
716:	174590	1214	11546	9.51071
717:	174889	1238	11638	9.40065
718:	175007	1238	11638	9.40065
719:	175409	1238	11650	9.41034
720:	175577	1238	11652	9.41195
721:	175734	1238	11654	9.41357
722:	175981	1238	11658	9.4168
723:	176171	1238	11670	9.42649
724:	176357	1238	11678	9.43296
725:	176580	1238	11700	9.45073
726:	176855	1238	11712	9.46042
727:	177099	1238	11714	9.46204
728:	177318	1238	11722	9.4685
729:	177518	1238	11730	9.47496
730:	177736	1238	11740	9.48304
731:	177929	1254	11810	9.41786
732:	178167	1254	11822	9.42743
733:	178335	1268	11880	9.36909
