Timestep	RLE_info_counter	boundary_non_rle_encoded_edges_and_vertices	memory_saving_factor
0:	34593	3744	11448	3.05769
1:	34755	3744	11470	3.06357
2:	35052	3791	11591	3.0575
3:	35339	3791	11637	3.06964
4:	35451	3791	11653	3.07386
5:	35608	3807	11693	3.07145
6:	35801	3829	11761	3.07156
7:	36078	3857	11855	3.07363
8:	36258	3895	11933	3.06367
9:	36460	3963	12075	3.04693
10:	36631	4001	12163	3.03999
11:	36809	4017	12221	3.04232
12:	36969	4031	12261	3.04168
13:	37165	4059	12331	3.03794
14:	37362	4095	12423	3.0337
15:	37546	4125	12507	3.032
16:	37725	4125	12549	3.04218
17:	37924	4139	12605	3.04542
18:	38100	4155	12659	3.04669
19:	38268	4169	12697	3.04557
20:	38442	4191	12765	3.04581
21:	38626	4215	12833	3.0446
22:	38830	4215	12871	3.05362
23:	38976	4273	12979	3.03744
24:	39210	4301	13067	3.03813
25:	39345	4311	13093	3.03711
26:	39533	4335	13163	3.03645
27:	39700	4351	13221	3.03861
28:	39918	4351	13267	3.04918
29:	40117	4365	13321	3.05178
30:	40281	4375	13371	3.05623
31:	40462	4391	13423	3.05693
32:	40603	4391	13449	3.06286
33:	40777	4407	13509	3.06535
34:	40919	4407	13529	3.06989
35:	41121	4421	13579	3.07148
36:	41362	4437	13655	3.07753
37:	41580	4481	13743	3.06695
38:	41710	4509	13809	3.06254
39:	41879	4523	13855	3.06323
40:	42028	4533	13889	3.06398
41:	42222	4533	13925	3.07192
42:	42395	4589	14047	3.06102
43:	42607	4605	14103	3.06254
44:	42793	4605	14131	3.06862
45:	42937	4621	14189	3.07055
46:	43132	4621	14231	3.07964
47:	43291	4661	14309	3.06994
48:	43459	4675	14347	3.06888
49:	43658	4685	14405	3.07471
50:	43867	4685	14443	3.08282
51:	44001	4698	14480	3.08216
52:	44165	4736	14560	3.07432
53:	44320	4758	14626	3.07398
54:	44511	4782	14688	3.07152
55:	44649	4796	14724	3.07006
56:	44933	4854	14860	3.06139
57:	45066	4892	14928	3.05151
58:	45254	4953	15043	3.03715
59:	45399	4983	15103	3.03091
60:	45571	5007	15155	3.02676
61:	45730	5037	15237	3.02501
62:	45917	5037	15269	3.03137
63:	46167	5047	15343	3.04002
64:	46334	5063	15401	3.04187
65:	46478	5077	15439	3.04097
66:	46708	5115	15535	3.03715
67:	46849	5139	15601	3.0358
68:	47056	5153	15661	3.0392
69:	47194	5167	15699	3.03832
70:	47422	5191	15777	3.0393
71:	47592	5215	15839	3.0372
72:	47751	5229	15881	3.0371
73:	47931	5241	15935	3.04045
74:	48083	5241	15963	3.04579
75:	48254	5257	16019	3.04718
76:	48453	5257	16043	3.05174
77:	48669	5257	16079	3.05859
78:	48865	5271	16137	3.06147
79:	49016	5271	16161	3.06602
80:	49182	5271	16177	3.06906
81:	49339	5323	16291	3.06049
82:	49475	5323	16311	3.06425
83:	49655	5339	16367	3.06556
84:	49858	5371	16451	3.06293
85:	50049	5395	16537	3.06525
86:	50223	5433	16629	3.06074
87:	50403	5461	16705	3.05896
88:	50586	5461	16743	3.06592
89:	50732	5475	16781	3.06502
90:	50869	5507	16851	3.05992
91:	51103	5551	16967	3.05657
92:	51286	5565	17017	3.05786
93:	51480	5593	17101	3.05757
94:	51677	5593	17135	3.06365
95:	51805	5621	17195	3.05906
96:	52025	5661	17287	3.0537
97:	52188	5661	17323	3.06006
98:	52400	5675	17385	3.06344
99:	52545	5689	17417	3.06152
100:	52717	5721	17501	3.05908
101:	52968	5749	17585	3.05879
102:	53092	5749	17607	3.06262
103:	53288	5749	17649	3.06993
104:	53472	5763	17699	3.07114
105:	53666	5785	17763	3.07053
106:	53873	5810	17826	3.06816
107:	54057	5844	17898	3.06263
108:	54230	5892	18008	3.05635
109:	54400	5906	18048	3.05588
110:	54580	5936	18120	3.05256
111:	54778	5962	18182	3.04965
112:	54930	5976	18224	3.04953
113:	55155	5976	18262	3.05589
114:	55309	6020	18338	3.04618
115:	55501	6052	18422	3.04395
116:	55715	6082	18518	3.04472
117:	55858	6092	18552	3.04531
118:	56036	6092	18576	3.04924
119:	56239	6124	18668	3.04833
120:	56439	6150	18746	3.04813
121:	56641	6186	18836	3.04494
122:	56804	6212	18904	3.04314
123:	56956	6240	18972	3.04038
124:	57170	6266	19034	3.03766
125:	57358	6304	19114	3.03204
126:	57549	6332	19182	3.02937
127:	57742	6342	19240	3.03374
128:	57891	6358	19290	3.03397
129:	58109	6386	19362	3.03194
130:	58310	6402	19412	3.03218
131:	58488	6432	19476	3.02799
132:	58649	6462	19536	3.02321
133:	58803	6492	19594	3.01818
134:	59043	6544	19712	3.01222
135:	59241	6598	19844	3.00758
136:	59425	6598	19870	3.01152
137:	59634	6611	19939	3.01603
138:	59780	6649	20013	3.00993
139:	60030	6675	20101	3.01139
140:	60163	6675	20127	3.01528
141:	60345	6699	20209	3.01672
142:	60502	6713	20259	3.01788
143:	60678	6729	20307	3.01783
144:	60905	6745	20365	3.01927
145:	61061	6803	20491	3.01205
146:	61262	6825	20565	3.01319
147:	61487	6841	20635	3.01637
148:	61692	6881	20743	3.01453
149:	61872	6881	20775	3.01918
150:	62040	6897	20829	3.02001
151:	62256	6897	20865	3.02523
152:	62372	6911	20903	3.0246
153:	62593	6921	20965	3.02919
154:	62766	6921	20987	3.03237
155:	62988	6935	21031	3.03259
156:	63196	6965	21107	3.03044
157:	63390	6993	21177	3.02831
158:	63561	7007	21245	3.03197
159:	63699	7007	21263	3.03454
160:	63895	7021	21317	3.03618
161:	64091	7031	21371	3.03954
162:	64257	7031	21383	3.04125
163:	64471	7043	21433	3.04316
164:	64659	7059	21487	3.04392
165:	64893	7091	21589	3.04456
166:	65057	7091	21611	3.04767
167:	65227	7121	21687	3.0455
168:	65413	7143	21753	3.04536
169:	65596	7203	21873	3.03665
170:	65814	7203	21905	3.04109
171:	66012	7235	21989	3.03925
172:	66165	7257	22061	3.03996
173:	66309	7257	22087	3.04354
174:	66470	7271	22131	3.04374
175:	66686	7271	22175	3.04979
176:	66876	7281	22225	3.05247
177:	67096	7281	22269	3.05851
178:	67274	7321	22369	3.05546
179:	67467	7351	22439	3.05251
180:	67660	7377	22497	3.04961
181:	67868	7401	22571	3.04972
182:	68004	7401	22593	3.0527
183:	68188	7401	22627	3.05729
184:	68338	7417	22677	3.05744
185:	68643	7439	22773	3.0613
186:	68787	7491	22873	3.0534
187:	68989	7531	22959	3.0486
188:	69151	7559	23023	3.04577
189:	69319	7597	23105	3.04133
190:	69509	7611	23155	3.04231
191:	69742	7657	23259	3.03761
192:	69942	7671	23329	3.04119
193:	70134	7695	23397	3.04055
194:	70290	7695	23427	3.04444
195:	70482	7709	23485	3.04644
196:	70681	7719	23535	3.04897
197:	70904	7719	23577	3.05441
198:	71043	7735	23639	3.05611
199:	71239	7749	23695	3.05781
200:	71354	7763	23739	3.05797
201:	71536	7777	23791	3.05915
202:	71711	7807	23869	3.05738
203:	71885	7835	23947	3.05641
204:	72063	7885	24043	3.04921
205:	72239	7899	24093	3.05013
206:	72527	7959	24243	3.04599
207:	72783	7959	24295	3.05252
208:	72990	7959	24329	3.05679
209:	73171	7987	24397	3.05459
210:	73315	8001	24439	3.05449
211:	73521	8001	24471	3.05849
212:	73701	8001	24495	3.06149
213:	73872	8031	24589	3.06176
214:	74089	8041	24639	3.06417
215:	74269	8071	24709	3.06145
216:	74498	8107	24817	3.06118
217:	74668	8133	24885	3.05976
218:	74819	8171	24971	3.05605
219:	74974	8217	25061	3.0499
220:	75124	8231	25101	3.04957
221:	75338	8291	25237	3.0439
222:	75582	8331	25333	3.04081
223:	75782	8387	25453	3.03482
224:	75914	8403	25491	3.03356
225:	76099	8432	25556	3.03083
226:	76331	8458	25644	3.03192
227:	76489	8513	25739	3.02349
228:	76673	8539	25809	3.02249
229:	76861	8562	25882	3.02289
230:	77035	8570	25928	3.02544
231:	77250	8586	25988	3.02679
232:	77427	8586	26014	3.02982
233:	77571	8586	26036	3.03238
234:	77751	8586	26074	3.0368
235:	77965	8635	26165	3.03011
236:	78166	8683	26253	3.02349
237:	78383	8736	26372	3.01877
238:	78549	8774	26460	3.01573
239:	78731	8815	26547	3.01157
240:	78889	8837	26609	3.01109
241:	79033	8850	26652	3.01153
242:	79237	8858	26698	3.014
243:	79464	8858	26734	3.01806
244:	79646	8874	26788	3.01871
245:	79816	8916	26860	3.01256
246:	79989	8958	26972	3.01094
247:	80199	9012	27088	3.00577
248:	80375	9040	27162	3.00465
249:	80542	9046	27192	3.00597
250:	80748	9056	27254	3.0095
251:	80934	9070	27310	3.01103
252:	81158	9102	27416	3.01209
253:	81351	9102	27434	3.01406
254:	81537	9118	27492	3.01513
255:	81696	9132	27550	3.01686
256:	81874	9146	27604	3.01815
257:	82084	9146	27650	3.02318
258:	82262	9176	27720	3.02092
259:	82452	9190	27790	3.02394
260:	82619	9218	27860	3.02235
261:	82811	9242	27934	3.02251
262:	83007	9270	28010	3.02157
263:	83165	9300	28084	3.01978
264:	83351	9340	28176	3.0167
265:	83589	9340	28208	3.02013
266:	83750	9340	28238	3.02334
267:	83957	9340	28280	3.02784
268:	84198	9366	28370	3.02904
269:	84394	9376	28416	3.03072
270:	84580	9422	28534	3.02844
271:	84748	9446	28590	3.02668
272:	84946	9462	28644	3.02727
273:	85156	9462	28672	3.03023
274:	85356	9508	28780	3.02692
275:	85494	9522	28822	3.02689
276:	85688	9538	28870	3.02684
277:	85850	9576	28954	3.0236
278:	86076	9590	28998	3.02377
279:	86309	9624	29086	3.02224
280:	86493	9686	29210	3.01569
281:	86665	9702	29278	3.01773
282:	86863	9744	29382	3.01539
283:	87049	9760	29442	3.0166
284:	87289	9762	29490	3.0209
285:	87476	9762	29522	3.02418
286:	87666	9778	29576	3.02475
287:	87846	9786	29614	3.02616
288:	88114	9768	29636	3.03399
289:	88290	9768	29668	3.03726
290:	88446	9778	29712	3.03866
291:	88667	9808	29788	3.03711
292:	88838	9808	29808	3.03915
293:	89038	9824	29860	3.0395
294:	89292	9862	29960	3.03792
295:	89485	9886	30036	3.03824
296:	89641	9906	30094	3.03796
297:	89795	9936	30164	3.03583
298:	90066	10006	30320	3.03018
299:	90286	10046	30424	3.02847
300:	90494	10058	30498	3.03221
301:	90690	10072	30552	3.03336
302:	90860	10100	30626	3.03228
303:	91006	10100	30646	3.03426
304:	91229	10114	30694	3.0348
305:	91411	10130	30756	3.03613
306:	91614	10154	30838	3.03703
307:	91802	10176	30900	3.03656
308:	92040	10190	30972	3.03945
309:	92276	10206	31042	3.04154
310:	92468	10206	31080	3.04527
311:	92682	10222	31144	3.04676
312:	92812	10236	31202	3.04826
313:	92981	10250	31246	3.04839
314:	93240	10262	31302	3.05028
315:	93434	10304	31402	3.04755
316:	93610	10340	31488	3.04526
317:	93830	10364	31576	3.0467
318:	93976	10362	31608	3.05038
319:	94182	10376	31660	3.05127
320:	94366	10372	31698	3.05611
321:	94506	10386	31736	3.05565
322:	94766	10400	31806	3.05827
323:	94959	10440	31896	3.05517
324:	95181	10454	31954	3.05663
325:	95352	10496	32056	3.05412
326:	95508	10496	32074	3.05583
327:	95689	10508	32124	3.0571
328:	95847	10537	32189	3.05485
329:	96056	10589	32309	3.05119
330:	96322	10637	32437	3.04945
331:	96512	10683	32551	3.04699
332:	96656	10683	32577	3.04942
333:	96827	10697	32625	3.04992
334:	96995	10729	32709	3.04865
335:	97179	10743	32761	3.04952
336:	97368	10783	32861	3.04748
337:	97586	10783	32887	3.04989
338:	97773	10781	32911	3.05269
339:	97946	10807	32987	3.05237
340:	98129	10821	33043	3.0536
341:	98305	10807	33041	3.05737
342:	98460	10821	33097	3.05859
343:	98653	10829	33143	3.06058
344:	98844	10873	33239	3.05702
345:	99069	10913	33313	3.0526
346:	99280	10953	33389	3.04839
347:	99398	10963	33427	3.04907
348:	99573	11025	33563	3.04426
349:	99793	11071	33675	3.04173
350:	100008	11111	33783	3.0405
351:	100218	11133	33839	3.03952
352:	100435	11157	33901	3.03854
353:	100619	11209	33997	3.03301
354:	100799	11243	34073	3.0306
355:	100996	11271	34133	3.02839
356:	101204	11283	34173	3.02872
357:	101327	11337	34285	3.02417
358:	101528	11405	34413	3.01736
359:	101695	11435	34469	3.01434
360:	101948	11475	34569	3.01255
361:	102086	11511	34645	3.00973
362:	102323	11561	34753	3.00605
363:	102510	11543	34775	3.01265
364:	102646	11553	34813	3.01333
365:	102818	11567	34857	3.01349
366:	103079	11583	34919	3.01468
367:	103249	11613	34985	3.01257
368:	103495	11629	35049	3.01393
369:	103620	11643	35095	3.01426
370:	103825	11657	35159	3.01613
371:	104065	11683	35261	3.01815
372:	104243	11689	35311	3.02087
373:	104416	11719	35393	3.02014
374:	104620	11729	35441	3.02166
375:	104804	11739	35485	3.02283
376:	105037	11745	35535	3.02554
377:	105226	11747	35585	3.02928
378:	105408	11761	35641	3.03044
379:	105570	11803	35715	3.02593
380:	105820	11855	35837	3.02294
381:	106062	11899	35933	3.01983
382:	106271	11929	36001	3.01794
383:	106409	11959	36061	3.01539
384:	106618	12027	36203	3.01014
385:	106826	12039	36255	3.01146
386:	107028	12099	36379	3.00678
387:	107187	12117	36443	3.00759
388:	107394	12161	36543	3.00493
389:	107533	12188	36608	3.00361
390:	107762	12188	36646	3.00673
391:	107967	12172	36660	3.01183
392:	108164	12188	36728	3.01346
393:	108316	12196	36766	3.01459
394:	108548	12240	36856	3.01111
395:	108745	12254	36896	3.01094
396:	108932	12282	36978	3.01075
397:	109080	12302	37008	3.00829
398:	109232	12316	37058	3.00893
399:	109418	12326	37094	3.00941
400:	109645	12356	37176	3.00874
401:	109879	12370	37222	3.00905
402:	110087	12402	37298	3.00742
403:	110290	12444	37382	3.00402
404:	110415	12458	37432	3.00466
405:	110533	12458	37448	3.00594
406:	110722	12498	37536	3.00336
407:	110911	12484	37538	3.00689
408:	111129	12532	37644	3.00383
409:	111306	12546	37694	3.00446
410:	111570	12590	37824	3.00429
411:	111738	12644	37946	3.00111
412:	111936	12636	37984	3.00601
413:	112098	12690	38092	3.00173
414:	112291	12720	38156	2.99969
415:	112468	12732	38212	3.00126
416:	112687	12740	38254	3.00267
417:	112889	12754	38300	3.00298
418:	113032	12764	38352	3.0047
419:	113158	12798	38430	3.00281
420:	113337	12830	38516	3.00203
421:	113581	12844	38584	3.00405
422:	113764	12844	38628	3.00747
423:	114005	12858	38692	3.00918
424:	114232	12856	38706	3.01073
425:	114350	12872	38744	3.00994
426:	114550	12900	38838	3.0107
427:	114753	12932	38928	3.01021
428:	114856	12942	38962	3.01051
429:	114989	12942	38984	3.01221
430:	115250	12943	39037	3.01607
431:	115498	12977	39137	3.01587
432:	115692	13038	39266	3.01166
433:	115873	13044	39322	3.01457
434:	116003	13036	39326	3.01672
435:	116173	13044	39354	3.01702
436:	116366	13090	39478	3.01589
437:	116582	13130	39590	3.01523
438:	116808	13170	39678	3.01276
439:	116984	13210	39772	3.01075
440:	117219	13194	39804	3.01683
441:	117403	13210	39860	3.01741
442:	117634	13210	39896	3.02014
443:	117815	13184	39882	3.02503
444:	118016	13226	39986	3.02329
445:	118183	13262	40082	3.02232
446:	118394	13308	40206	3.02119
447:	118561	13324	40272	3.02252
448:	118672	13338	40308	3.02204
449:	118842	13386	40412	3.01898
450:	119037	13390	40440	3.02016
451:	119235	13352	40410	3.02651
452:	119553	13382	40496	3.02615
453:	119696	13376	40498	3.02766
454:	119821	13394	40536	3.02643
455:	119983	13426	40616	3.02518
456:	120129	13410	40610	3.02834
457:	120295	13408	40628	3.03013
458:	120424	13436	40698	3.02903
459:	120648	13436	40744	3.03245
460:	120844	13480	40832	3.02908
461:	120984	13542	40950	3.02393
462:	121174	13602	41062	3.01882
463:	121315	13616	41116	3.01968
464:	121483	13634	41178	3.02024
465:	121654	13668	41268	3.01932
466:	121852	13680	41322	3.02061
467:	122063	13708	41402	3.02028
468:	122297	13770	41546	3.01714
469:	122408	13802	41638	3.01681
470:	122548	13816	41694	3.01781
471:	122699	13816	41722	3.01983
472:	122980	13818	41776	3.0233
473:	123138	13872	41866	3.01802
474:	123342	13944	41970	3.0099
475:	123451	13958	41988	3.00817
476:	123614	14004	42106	3.00671
477:	123807	14014	42156	3.00813
478:	124012	14001	42159	3.01114
479:	124157	14011	42191	3.01128
480:	124300	14031	42239	3.01041
481:	124456	14113	42385	3.00326
482:	124676	14143	42447	3.00127
483:	124840	14145	42493	3.0041
484:	124998	14159	42549	3.00509
485:	125194	14217	42677	3.00183
486:	125346	14219	42699	3.00295
487:	125526	14239	42763	3.00323
488:	125686	14223	42783	3.00802
489:	125846	14237	42839	3.00899
490:	126020	14245	42899	3.01151
491:	126158	14253	42941	3.01277
492:	126371	14285	43021	3.01162
493:	126490	14331	43109	3.00809
494:	126653	14387	43209	3.00334
495:	126818	14403	43261	3.00361
496:	127038	14433	43337	3.00263
497:	127227	14443	43411	3.00568
498:	127331	14453	43449	3.00623
499:	127540	14469	43521	3.00788
500:	127743	14485	43597	3.0098
501:	127883	14485	43623	3.0116
502:	128046	14517	43699	3.01019
503:	128240	14533	43737	3.0095
504:	128420	14561	43817	3.0092
505:	128537	14545	43797	3.01114
506:	128668	14567	43843	3.00975
507:	128854	14573	43895	3.01208
508:	129015	14603	43953	3.00986
509:	129119	14647	43995	3.00369
510:	129308	14677	44067	3.00245
511:	129479	14677	44117	3.00586
512:	129718	14715	44213	3.00462
513:	129857	14741	44269	3.00312
514:	130116	14759	44351	3.00501
515:	130198	14737	44341	3.00882
516:	130364	14763	44409	3.00813
517:	130533	14749	44399	3.01031
518:	130724	14769	44481	3.01178
519:	130865	14755	44485	3.01491
520:	131023	14803	44599	3.01284
521:	131151	14825	44661	3.01255
522:	131269	14823	44687	3.01471
523:	131524	14853	44789	3.01549
524:	131728	14859	44847	3.01817
525:	131829	14881	44911	3.01801
526:	131974	14851	44885	3.02236
527:	132111	14850	44928	3.02545
528:	132271	14850	44964	3.02788
529:	132384	14832	44950	3.03061
530:	132582	14890	45082	3.02767
531:	132777	14916	45164	3.02789
532:	132929	14932	45202	3.02719
533:	133114	14933	45229	3.0288
534:	133294	14947	45283	3.02957
535:	133412	14929	45281	3.03309
536:	133588	14953	45347	3.03264
537:	133677	14969	45399	3.03287
538:	133950	14967	45451	3.03675
539:	134134	14956	45470	3.04025
540:	134292	14982	45540	3.03965
541:	134445	15006	45600	3.03878
542:	134602	15006	45638	3.04132
543:	134795	15086	45786	3.035
544:	134954	15094	45834	3.03657
545:	135168	15118	45916	3.03717
546:	135357	15152	45988	3.03511
547:	135504	15152	46010	3.03656
548:	135710	15168	46092	3.03877
549:	135866	15226	46236	3.03665
550:	136005	15254	46294	3.03488
551:	136205	15282	46368	3.03416
552:	136430	15320	46470	3.03329
553:	136676	15356	46580	3.03334
554:	136924	15365	46663	3.03697
555:	137152	15391	46749	3.03742
556:	137285	15443	46819	3.03173
557:	137428	15427	46809	3.03423
558:	137664	15454	46906	3.0352
559:	137892	15494	47012	3.03421
560:	138059	15522	47054	3.03144
561:	138276	15546	47112	3.03049
562:	138449	15568	47148	3.02852
563:	138673	15598	47216	3.02705
564:	138943	15642	47320	3.02519
565:	139094	15642	47340	3.02647
566:	139303	15642	47370	3.02839
567:	139474	15706	47466	3.02216
568:	139707	15748	47574	3.02096
569:	139938	15762	47640	3.02246
570:	140116	15798	47714	3.02026
571:	140356	15818	47772	3.0201
572:	140521	15876	47876	3.01562
573:	140688	15914	47956	3.01345
574:	141013	15940	48062	3.01518
575:	141225	16003	48209	3.0125
576:	141372	16022	48286	3.01373
577:	141544	16012	48314	3.01736
578:	141789	16026	48380	3.01884
579:	142004	16002	48366	3.0225
580:	142212	16018	48432	3.0236
581:	142548	16054	48540	3.02355
582:	142716	16118	48668	3.01948
583:	142867	16144	48748	3.01957
584:	143125	16140	48798	3.02342
585:	143309	16212	48948	3.01925
586:	143453	16252	49036	3.01723
587:	143731	16324	49186	3.01311
588:	143992	16352	49270	3.01309
589:	144177	16376	49314	3.01136
590:	144409	16440	49464	3.00876
591:	144595	16454	49508	3.00887
592:	144802	16462	49542	3.00948
593:	145020	16506	49648	3.00788
594:	145275	16574	49790	3.0041
595:	145563	16626	49908	3.0018
596:	145819	16666	50034	3.00216
597:	146012	16684	50086	3.00204
598:	146287	16724	50208	3.00215
599:	146451	16756	50292	3.00143
600:	146666	16786	50356	2.99988
601:	146909	16794	50398	3.00095
602:	147125	16826	50484	3.00036
603:	147357	16868	50606	3.00012
604:	147633	16868	50640	3.00213
605:	147859	16878	50730	3.00569
606:	148072	16908	50806	3.00485
607:	148282	16954	50924	3.00366
608:	148491	16994	51040	3.00341
609:	148704	17002	51068	3.00365
610:	149086	17052	51184	3.00164
611:	149269	17082	51280	3.00199
612:	149445	17062	51288	3.00598
613:	149668	17072	51294	3.00457
614:	149892	17102	51390	3.00491
615:	150154	17096	51404	3.00679
616:	150393	17122	51494	3.00748
617:	150697	17148	51558	3.00665
618:	150906	17152	51614	3.00921
619:	151134	17148	51646	3.01178
620:	151308	17192	51732	3.00907
621:	151500	17230	51838	3.00859
622:	151743	17232	51862	3.00963
623:	151967	17292	51986	3.00636
624:	152284	17306	52048	3.00751
625:	152545	17348	52132	3.00507
626:	152801	17366	52226	3.00737
627:	152976	17420	52354	3.0054
628:	153157	17416	52384	3.00781
629:	153410	17474	52556	3.00767
630:	153630	17470	52578	3.00962
631:	153908	17510	52690	3.00914
632:	154165	17510	52752	3.01268
633:	154407	17511	52801	3.0153
634:	154573	17539	52887	3.01539
635:	154878	17561	52971	3.0164
636:	155121	17591	53067	3.01671
637:	155279	17608	53134	3.01761
638:	155560	17622	53206	3.01929
639:	155892	17658	53316	3.01937
640:	156170	17692	53398	3.0182
641:	156398	17716	53476	3.01851
642:	156646	17768	53618	3.01767
643:	156798	17815	53727	3.01583
644:	157029	17833	53791	3.01637
645:	157333	17862	53890	3.01702
646:	157588	17848	53902	3.02006
647:	157868	17857	53963	3.02195
648:	158061	17869	53999	3.02194
649:	158260	17866	54018	3.02351
650:	158455	17884	54068	3.02326
651:	158721	17902	54128	3.02357
652:	158977	17890	54158	3.02728
653:	159230	17890	54206	3.02996
654:	159437	17914	54276	3.02981
655:	159786	18065	54581	3.02137
656:	160043	18111	54699	3.02021
657:	160267	18145	54813	3.02083
658:	160526	18175	54883	3.0197
659:	160727	18203	54957	3.01912
660:	160931	18219	55009	3.01932
661:	161272	18285	55161	3.01674
662:	161494	18271	55199	3.02113
663:	161702	18273	55217	3.02178
664:	161895	18319	55327	3.0202
665:	162133	18317	55381	3.02348
666:	162409	18343	55449	3.0229
667:	162654	18339	55457	3.02399
668:	162909	18373	55541	3.02297
669:	163112	18399	55621	3.02304
670:	163458	18435	55727	3.02289
671:	163778	18449	55801	3.02461
672:	164011	18439	55825	3.02755
673:	164203	18471	55903	3.02653
674:	164488	18513	56003	3.02506
675:	164726	18605	56193	3.02032
676:	164975	18647	56281	3.01823
677:	165228	18659	56351	3.02004
678:	165521	18693	56441	3.01937
679:	165716	18723	56509	3.01816
680:	165933	18767	56623	3.01716
681:	166304	18771	56691	3.02014
682:	166521	18813	56793	3.01882
683:	166661	18803	56817	3.0217
684:	166889	18855	56951	3.02047
685:	167153	18900	57086	3.02042
686:	167462	18908	57130	3.02147
687:	167740	18954	57252	3.02058
688:	167976	18954	57292	3.02269
689:	168268	18996	57424	3.02295
690:	168532	19020	57520	3.02419
691:	168794	19054	57614	3.02372
692:	168966	19056	57644	3.02498
693:	169153	19106	57750	3.02261
694:	169428	19136	57852	3.0232
695:	169620	19148	57902	3.02392
696:	169904	19193	58007	3.0223
697:	170183	19233	58101	3.0209
698:	170493	19277	58223	3.02034
699:	170763	19297	58305	3.02145
700:	170934	19307	58341	3.02175
701:	171173	19333	58413	3.02141
702:	171400	19371	58509	3.02044
703:	171642	19393	58603	3.02186
704:	171887	19431	58693	3.02059
705:	172101	19465	58775	3.01952
706:	172344	19519	58905	3.01783
707:	172576	19581	59029	3.01461
708:	172784	19635	59125	3.0112
709:	173036	19647	59175	3.01191
710:	173313	19673	59277	3.01311
711:	173560	19707	59359	3.01208
712:	173804	19767	59507	3.01042
713:	173990	19809	59607	3.00909
714:	174123	19853	59703	3.00725
715:	174306	19835	59691	3.00938
716:	174590	19863	59755	3.00836
717:	174889	19907	59861	3.00703
718:	175007	19945	59931	3.00481
719:	175409	20003	60077	3.0034
720:	175577	20085	60227	2.99861
721:	175734	20181	60389	2.99237
722:	175981	20247	60529	2.98953
723:	176171	20245	60537	2.99022
724:	176357	20255	60575	2.99062
725:	176580	20267	60643	2.9922
726:	176855	20295	60711	2.99143
727:	177099	20307	60747	2.99143
728:	177318	20305	60761	2.99242
729:	177518	20343	60845	2.99096
730:	177736	20415	60959	2.98599
731:	177929	20441	61019	2.98513
732:	178167	20537	61199	2.97994
733:	178335	20581	61279	2.97745
