Timestep	RLE_info_counter	boundary_non_rle_encoded_edges_and_vertices	memory_saving_factor
0:	34593	15186	29114	1.91716
1:	34755	15228	29200	1.91752
2:	35052	15384	29484	1.91654
3:	35339	15468	29696	1.91983
4:	35451	15538	29822	1.91929
5:	35608	15583	29911	1.91946
6:	35801	15611	30005	1.92204
7:	36078	15659	30163	1.92624
8:	36258	15767	30357	1.92535
9:	36460	15855	30527	1.92539
10:	36631	15917	30655	1.92593
11:	36809	15977	30781	1.92658
12:	36969	16031	30891	1.92695
13:	37165	16139	31089	1.92633
14:	37362	16253	31281	1.92463
15:	37546	16343	31451	1.92443
16:	37725	16431	31619	1.92435
17:	37924	16529	31801	1.92395
18:	38100	16571	31901	1.92511
19:	38268	16625	32019	1.92595
20:	38442	16733	32207	1.92476
21:	38626	16761	32293	1.92668
22:	38830	16847	32457	1.92657
23:	38976	16915	32589	1.92663
24:	39210	16952	32702	1.92909
25:	39345	17006	32800	1.92873
26:	39533	17060	32930	1.93025
27:	39700	17205	33155	1.92706
28:	39918	17293	33341	1.92801
29:	40117	17381	33503	1.92756
30:	40281	17489	33693	1.92653
31:	40462	17569	33845	1.9264
32:	40603	17609	33933	1.92703
33:	40777	17689	34087	1.92702
34:	40919	17799	34251	1.92432
35:	41121	17915	34457	1.92336
36:	41362	17996	34642	1.92498
37:	41580	18136	34876	1.92303
38:	41710	18188	34980	1.92325
39:	41879	18218	35060	1.92447
40:	42028	18316	35220	1.92291
41:	42222	18420	35414	1.92258
42:	42395	18538	35602	1.92049
43:	42607	18614	35752	1.9207
44:	42793	18678	35880	1.92098
45:	42937	18766	36026	1.91975
46:	43132	18832	36182	1.9213
47:	43291	18921	36341	1.92067
48:	43459	18977	36451	1.9208
49:	43658	19051	36617	1.92205
50:	43867	19143	36799	1.92232
51:	44001	19187	36879	1.92208
52:	44165	19291	37053	1.92074
53:	44320	19411	37253	1.91917
54:	44511	19465	37385	1.92063
55:	44649	19475	37445	1.92272
56:	44933	19561	37645	1.92449
57:	45066	19614	37754	1.92485
58:	45254	19664	37872	1.92596
59:	45399	19718	37978	1.92606
60:	45571	19800	38134	1.92596
61:	45730	19830	38214	1.92708
62:	45917	19854	38306	1.92938
63:	46167	20008	38562	1.92733
64:	46334	20106	38744	1.92699
65:	46478	20166	38844	1.92621
66:	46708	20290	39060	1.92509
67:	46849	20432	39286	1.92277
68:	47056	20518	39464	1.92338
69:	47194	20566	39566	1.92385
70:	47422	20690	39794	1.92334
71:	47592	20732	39890	1.92408
72:	47751	20772	39984	1.9249
73:	47931	20840	40120	1.92514
74:	48083	20922	40258	1.92419
75:	48254	20974	40390	1.92572
76:	48453	21044	40542	1.92653
77:	48669	21146	40728	1.92604
78:	48865	21208	40870	1.9271
79:	49016	21246	40944	1.92714
80:	49182	21346	41110	1.92589
81:	49339	21436	41276	1.92555
82:	49475	21488	41382	1.92582
83:	49655	21540	41500	1.92665
84:	49858	21620	41656	1.92673
85:	50049	21697	41819	1.92741
86:	50223	21781	41973	1.92705
87:	50403	21881	42155	1.92656
88:	50586	21976	42346	1.92692
89:	50732	22068	42492	1.9255
90:	50869	22136	42622	1.92546
91:	51103	22240	42820	1.92536
92:	51286	22325	42975	1.92497
93:	51480	22403	43133	1.92532
94:	51677	22507	43329	1.92513
95:	51805	22579	43457	1.92466
96:	52025	22667	43613	1.92407
97:	52188	22721	43741	1.92514
98:	52400	22799	43897	1.92539
99:	52545	22871	44011	1.92431
100:	52717	23009	44223	1.92199
101:	52968	23145	44471	1.92141
102:	53092	23171	44551	1.92271
103:	53288	23293	44755	1.92139
104:	53472	23409	44937	1.91965
105:	53666	23477	45079	1.92013
106:	53873	23603	45293	1.91895
107:	54057	23727	45503	1.91777
108:	54230	23825	45685	1.91752
109:	54400	23915	45849	1.91716
110:	54580	23993	45991	1.91685
111:	54778	24061	46131	1.91725
112:	54930	24133	46253	1.91659
113:	55155	24191	46403	1.91819
114:	55309	24285	46555	1.91703
115:	55501	24409	46783	1.91663
116:	55715	24461	46921	1.9182
117:	55858	24531	47045	1.91778
118:	56036	24601	47185	1.91801
119:	56239	24661	47319	1.91878
120:	56439	24733	47463	1.91902
121:	56641	24845	47667	1.91858
122:	56804	24939	47833	1.918
123:	56956	25013	47965	1.9176
124:	57170	25095	48139	1.91827
125:	57358	25157	48273	1.91887
126:	57549	25238	48432	1.91901
127:	57742	25332	48616	1.91915
128:	57891	25358	48688	1.92003
129:	58109	25468	48892	1.91974
130:	58310	25532	49032	1.92041
131:	58488	25601	49173	1.92075
132:	58649	25653	49291	1.92145
133:	58803	25745	49441	1.92041
134:	59043	25843	49643	1.92095
135:	59241	25903	49781	1.92182
136:	59425	25985	49929	1.92145
137:	59634	26027	50049	1.92296
138:	59780	26107	50183	1.9222
139:	60030	26231	50411	1.92181
140:	60163	26319	50557	1.92093
141:	60345	26371	50685	1.922
142:	60502	26451	50841	1.92208
143:	60678	26521	50989	1.92259
144:	60905	26595	51131	1.92258
145:	61061	26677	51287	1.92252
146:	61262	26757	51447	1.92275
147:	61487	26845	51627	1.92315
148:	61692	26927	51797	1.92361
149:	61872	26971	51913	1.92477
150:	62040	27015	52013	1.92534
151:	62256	27105	52181	1.92514
152:	62372	27121	52247	1.92644
153:	62593	27237	52455	1.92587
154:	62766	27330	52628	1.92565
155:	62988	27428	52810	1.9254
156:	63196	27562	53024	1.92381
157:	63390	27712	53262	1.92198
158:	63561	27776	53410	1.92288
159:	63699	27818	53500	1.92322
160:	63895	27930	53692	1.92238
161:	64091	28026	53866	1.922
162:	64257	28122	54022	1.92099
163:	64471	28224	54200	1.92035
164:	64659	28368	54426	1.91857
165:	64893	28436	54590	1.91975
166:	65057	28524	54742	1.91916
167:	65227	28608	54914	1.91953
168:	65413	28624	54992	1.92119
169:	65596	28666	55112	1.92256
170:	65814	28742	55254	1.92241
171:	66012	28770	55358	1.92416
172:	66165	28824	55484	1.92492
173:	66309	28898	55628	1.92498
174:	66470	28987	55781	1.92435
175:	66686	29053	55937	1.92534
176:	66876	29151	56107	1.9247
177:	67096	29225	56271	1.92544
178:	67274	29325	56457	1.92522
179:	67467	29397	56599	1.92533
180:	67660	29511	56789	1.92433
181:	67868	29633	56999	1.9235
182:	68004	29669	57097	1.92447
183:	68188	29743	57245	1.92465
184:	68338	29785	57337	1.92503
185:	68643	29909	57589	1.92547
186:	68787	29985	57723	1.92506
187:	68989	30053	57849	1.9249
188:	69151	30167	58049	1.92425
189:	69319	30207	58153	1.92515
190:	69509	30297	58313	1.92471
191:	69742	30401	58501	1.92431
192:	69942	30499	58689	1.92429
193:	70134	30587	58845	1.92386
194:	70290	30687	59011	1.923
195:	70482	30833	59247	1.92155
196:	70681	30957	59463	1.92083
197:	70904	31033	59635	1.92166
198:	71043	31147	59813	1.92035
199:	71239	31283	60049	1.91954
200:	71354	31347	60175	1.91964
201:	71536	31442	60334	1.9189
202:	71711	31538	60500	1.91832
203:	71885	31650	60690	1.91754
204:	72063	31717	60811	1.9173
205:	72239	31803	60973	1.91721
206:	72527	31903	61199	1.91828
207:	72783	31975	61369	1.91928
208:	72990	32104	61586	1.91833
209:	73171	32192	61756	1.91836
210:	73315	32222	61828	1.91881
211:	73521	32385	62085	1.91709
212:	73701	32435	62199	1.91765
213:	73872	32491	62321	1.9181
214:	74089	32615	62531	1.91725
215:	74269	32751	62749	1.91594
216:	74498	32895	63019	1.91576
217:	74668	32967	63153	1.91564
218:	74819	33036	63278	1.91543
219:	74974	33114	63424	1.91532
220:	75124	33229	63607	1.9142
221:	75338	33319	63785	1.91437
222:	75582	33477	64061	1.91358
223:	75782	33559	64229	1.91391
224:	75914	33632	64362	1.91371
225:	76099	33718	64516	1.9134
226:	76331	33764	64648	1.9147
227:	76489	33850	64798	1.91427
228:	76673	33898	64920	1.91516
229:	76861	33956	65052	1.91577
230:	77035	34046	65218	1.91558
231:	77250	34130	65390	1.91591
232:	77427	34214	65536	1.91547
233:	77571	34284	65664	1.9153
234:	77751	34362	65822	1.91555
235:	77965	34462	66006	1.91533
236:	78166	34540	66166	1.91563
237:	78383	34660	66398	1.9157
238:	78549	34772	66596	1.91522
239:	78731	34870	66764	1.91465
240:	78889	34934	66898	1.91498
241:	79033	35032	67068	1.91448
242:	79237	35064	67162	1.91541
243:	79464	35156	67346	1.91563
244:	79646	35282	67540	1.91429
245:	79816	35374	67700	1.91384
246:	79989	35464	67876	1.91394
247:	80199	35506	68004	1.91528
248:	80375	35536	68096	1.91625
249:	80542	35588	68204	1.91649
250:	80748	35692	68402	1.91645
251:	80934	35772	68562	1.91664
252:	81158	35878	68764	1.91661
253:	81351	35934	68890	1.91713
254:	81537	36006	69026	1.91707
255:	81696	36096	69198	1.91705
256:	81874	36174	69348	1.91707
257:	82084	36240	69516	1.91821
258:	82262	36300	69636	1.91835
259:	82452	36420	69848	1.91785
260:	82619	36472	69958	1.91813
261:	82811	36522	70078	1.91879
262:	83007	36592	70220	1.919
263:	83165	36694	70384	1.91813
264:	83351	36842	70624	1.91694
265:	83589	36966	70846	1.91652
266:	83750	37068	71014	1.91578
267:	83957	37223	71259	1.91438
268:	84198	37295	71433	1.91535
269:	84394	37397	71615	1.91499
270:	84580	37455	71749	1.91561
271:	84748	37523	71877	1.91555
272:	84946	37617	72049	1.91533
273:	85156	37707	72209	1.915
274:	85356	37807	72393	1.9148
275:	85494	37911	72543	1.91351
276:	85688	37981	72695	1.91398
277:	85850	38061	72853	1.91411
278:	86076	38213	73097	1.91288
279:	86309	38293	73283	1.91374
280:	86493	38363	73421	1.91385
281:	86665	38509	73665	1.91293
282:	86863	38565	73793	1.91347
283:	87049	38649	73949	1.91335
284:	87289	38709	74101	1.91431
285:	87476	38781	74245	1.91447
286:	87666	38889	74435	1.91404
287:	87846	38907	74513	1.91516
288:	88114	38993	74711	1.91601
289:	88290	39099	74909	1.91588
290:	88446	39185	75063	1.91561
291:	88667	39267	75239	1.91609
292:	88838	39293	75317	1.9168
293:	89038	39381	75493	1.91699
294:	89292	39529	75745	1.91619
295:	89485	39651	75949	1.91544
296:	89641	39725	76095	1.91554
297:	89795	39797	76227	1.9154
298:	90066	39846	76380	1.91688
299:	90286	39936	76548	1.91677
300:	90494	39966	76652	1.91793
301:	90690	40036	76796	1.91817
302:	90860	40080	76900	1.91866
303:	91006	40194	77070	1.91745
304:	91229	40322	77290	1.91682
305:	91411	40444	77506	1.91638
306:	91614	40496	77642	1.91728
307:	91802	40586	77808	1.91711
308:	92040	40684	78000	1.91722
309:	92276	40834	78258	1.91649
310:	92468	40872	78368	1.9174
311:	92682	41000	78584	1.91668
312:	92812	40993	78623	1.91796
313:	92981	41045	78741	1.91841
314:	93240	41127	78923	1.91901
315:	93434	41225	79105	1.91886
316:	93610	41295	79251	1.91914
317:	93830	41356	79398	1.91987
318:	93976	41444	79552	1.91951
319:	94182	41580	79778	1.91866
320:	94366	41706	80014	1.91852
321:	94506	41760	80122	1.91863
322:	94766	41936	80404	1.9173
323:	94959	42056	80604	1.91659
324:	95181	42178	80818	1.91612
325:	95352	42278	81002	1.91594
326:	95508	42374	81160	1.91533
327:	95689	42460	81314	1.91507
328:	95847	42576	81496	1.91413
329:	96056	42612	81604	1.91505
330:	96322	42712	81798	1.91511
331:	96512	42842	82000	1.91401
332:	96656	42956	82170	1.91289
333:	96827	43100	82398	1.91179
334:	96995	43240	82622	1.91078
335:	97179	43356	82822	1.91028
336:	97368	43434	82982	1.91053
337:	97586	43550	83188	1.91017
338:	97773	43564	83266	1.91135
339:	97946	43648	83420	1.9112
340:	98129	43756	83608	1.91078
341:	98305	43830	83766	1.91116
342:	98460	43896	83902	1.91138
343:	98653	43972	84058	1.91163
344:	98844	44060	84228	1.91167
345:	99069	44220	84500	1.9109
346:	99280	44314	84684	1.911
347:	99398	44356	84780	1.91135
348:	99573	44422	84914	1.91153
349:	99793	44552	85142	1.91107
350:	100008	44626	85300	1.91144
351:	100218	44714	85468	1.91144
352:	100435	44764	85594	1.91212
353:	100619	44834	85714	1.91181
354:	100799	44918	85880	1.91193
355:	100996	45020	86044	1.91124
356:	101204	45112	86218	1.9112
357:	101327	45170	86334	1.91131
358:	101528	45306	86554	1.91043
359:	101695	45412	86734	1.90994
360:	101948	45550	86988	1.90973
361:	102086	45650	87142	1.90892
362:	102323	45818	87414	1.90785
363:	102510	45938	87624	1.90744
364:	102646	46007	87759	1.90751
365:	102818	46045	87857	1.90807
366:	103079	46143	88051	1.90822
367:	103249	46195	88167	1.90858
368:	103495	46244	88296	1.90935
369:	103620	46328	88436	1.90891
370:	103825	46390	88566	1.90916
371:	104065	46458	88740	1.91011
372:	104243	46496	88848	1.91087
373:	104416	46574	89002	1.91098
374:	104620	46648	89136	1.91082
375:	104804	46756	89322	1.91039
376:	105037	46864	89538	1.91059
377:	105226	46952	89716	1.9108
378:	105408	47072	89906	1.90997
379:	105570	47112	90002	1.91038
380:	105820	47180	90180	1.9114
381:	106062	47324	90410	1.91045
382:	106271	47384	90570	1.9114
383:	106409	47486	90726	1.91058
384:	106618	47509	90823	1.9117
385:	106826	47541	90929	1.91264
386:	107028	47625	91103	1.91292
387:	107187	47739	91303	1.91255
388:	107394	47871	91519	1.91178
389:	107533	48012	91726	1.91048
390:	107762	48184	91992	1.90918
391:	107967	48286	92186	1.90917
392:	108164	48412	92396	1.90854
393:	108316	48442	92470	1.90888
394:	108548	48592	92724	1.90822
395:	108745	48628	92814	1.90865
396:	108932	48650	92908	1.90972
397:	109080	48706	93002	1.90946
398:	109232	48776	93148	1.90971
399:	109418	48796	93232	1.91065
400:	109645	48936	93480	1.91025
401:	109879	49074	93716	1.90969
402:	110087	49213	93947	1.90899
403:	110290	49309	94129	1.90896
404:	110415	49363	94247	1.90926
405:	110533	49443	94383	1.90893
406:	110722	49499	94505	1.90923
407:	110911	49579	94649	1.90905
408:	111129	49597	94741	1.91022
409:	111306	49703	94925	1.90984
410:	111570	49819	95165	1.91021
411:	111738	49865	95295	1.91106
412:	111936	49972	95500	1.91107
413:	112098	50072	95688	1.91101
414:	112291	50166	95850	1.91066
415:	112468	50178	95920	1.91159
416:	112687	50274	96110	1.91172
417:	112889	50321	96223	1.91218
418:	113032	50397	96369	1.9122
419:	113158	50442	96460	1.9123
420:	113337	50486	96574	1.91289
421:	113581	50550	96730	1.91355
422:	113764	50648	96902	1.91324
423:	114005	50794	97170	1.91302
424:	114232	50802	97232	1.91394
425:	114350	50854	97314	1.9136
426:	114550	50910	97438	1.91393
427:	114753	51031	97647	1.91348
428:	114856	51105	97765	1.91302
429:	114989	51116	97802	1.91333
430:	115250	51242	98032	1.91312
431:	115498	51348	98244	1.9133
432:	115692	51460	98454	1.91321
433:	115873	51584	98678	1.91296
434:	116003	51641	98783	1.91288
435:	116173	51737	98949	1.91254
436:	116366	51771	99069	1.9136
437:	116582	51937	99351	1.91291
438:	116808	52017	99507	1.91297
439:	116984	52149	99737	1.91254
440:	117219	52215	99891	1.91307
441:	117403	52411	100193	1.91168
442:	117634	52563	100453	1.9111
443:	117815	52625	100581	1.91128
444:	118016	52723	100759	1.9111
445:	118183	52835	100939	1.91046
446:	118394	53079	101305	1.90857
447:	118561	53271	101569	1.90665
448:	118672	53383	101727	1.90561
449:	118842	53547	101981	1.90451
450:	119037	53657	102159	1.90393
451:	119235	53765	102341	1.90349
452:	119553	53803	102499	1.90508
453:	119696	53871	102601	1.90457
454:	119821	53967	102741	1.90377
455:	119983	53981	102813	1.90461
456:	120129	54045	102925	1.90443
457:	120295	54159	103109	1.90382
458:	120424	54261	103287	1.90352
459:	120648	54383	103511	1.90337
460:	120844	54547	103765	1.9023
461:	120984	54641	103941	1.90225
462:	121174	54638	104004	1.90351
463:	121315	54644	104082	1.90473
464:	121483	54630	104126	1.90602
465:	121654	54672	104242	1.90668
466:	121852	54744	104412	1.90728
467:	122063	54812	104576	1.9079
468:	122297	54900	104784	1.90863
469:	122408	55002	104948	1.90808
470:	122548	55078	105098	1.90817
471:	122699	55062	105126	1.90923
472:	122980	55213	105403	1.90903
473:	123138	55339	105617	1.90855
474:	123342	55387	105715	1.90866
475:	123451	55419	105781	1.90875
476:	123614	55455	105881	1.90931
477:	123807	55537	106013	1.90887
478:	124012	55653	106205	1.90834
479:	124157	55661	106265	1.90915
480:	124300	55715	106357	1.90895
481:	124456	55725	106407	1.9095
482:	124676	55845	106605	1.90894
483:	124840	55951	106795	1.90872
484:	124998	56009	106909	1.90878
485:	125194	56085	107053	1.90876
486:	125346	56189	107233	1.90843
487:	125526	56233	107333	1.90872
488:	125686	56325	107499	1.90855
489:	125846	56387	107649	1.90911
490:	126020	56521	107869	1.90848
491:	126158	56599	108033	1.90874
492:	126371	56651	108169	1.90939
493:	126490	56701	108279	1.90965
494:	126653	56783	108433	1.9096
495:	126818	56889	108613	1.90921
496:	127038	56943	108763	1.91003
497:	127227	56987	108883	1.91066
498:	127331	57071	109015	1.91016
499:	127540	57138	109176	1.91074
500:	127743	57234	109358	1.91072
501:	127883	57334	109530	1.91038
502:	128046	57386	109616	1.91015
503:	128240	57625	109965	1.90829
504:	128420	57721	110167	1.90861
505:	128537	57761	110239	1.90854
506:	128668	57845	110347	1.90763
507:	128854	57913	110493	1.90791
508:	129015	58047	110679	1.90671
509:	129119	58135	110801	1.90593
510:	129308	58201	110931	1.906
511:	129479	58308	111126	1.90584
512:	129718	58363	111245	1.90609
513:	129857	58425	111363	1.90608
514:	130116	58515	111553	1.9064
515:	130198	58571	111651	1.90625
516:	130364	58659	111821	1.90629
517:	130533	58741	111973	1.90622
518:	130724	58781	112101	1.9071
519:	130865	58857	112233	1.90688
520:	131023	58993	112469	1.90648
521:	131151	59045	112575	1.9066
522:	131269	59087	112671	1.90687
523:	131524	59208	112910	1.90701
524:	131728	59385	113199	1.90619
525:	131829	59443	113313	1.90625
526:	131974	59538	113494	1.90624
527:	132111	59644	113668	1.90577
528:	132271	59674	113768	1.90649
529:	132384	59700	113832	1.90673
530:	132582	59826	114056	1.90646
531:	132777	59904	114194	1.90628
532:	132929	59946	114294	1.90662
533:	133114	60062	114466	1.9058
534:	133294	60109	114583	1.90625
535:	133412	60113	114613	1.90663
536:	133588	60115	114663	1.90739
537:	133677	60212	114808	1.90673
538:	133950	60342	115058	1.90676
539:	134134	60431	115213	1.90652
540:	134292	60491	115327	1.90652
541:	134445	60594	115474	1.9057
542:	134602	60672	115628	1.90579
543:	134795	60711	115747	1.90652
544:	134954	60811	115919	1.90622
545:	135168	60885	116095	1.90679
546:	135357	60925	116193	1.90715
547:	135504	61057	116427	1.90686
548:	135710	61153	116627	1.90713
549:	135866	61255	116839	1.90742
550:	136005	61289	116937	1.90796
551:	136205	61385	117123	1.90801
552:	136430	61509	117341	1.9077
553:	136676	61569	117499	1.90841
554:	136924	61645	117703	1.90937
555:	137152	61795	117965	1.90897
556:	137285	61915	118113	1.90766
557:	137428	61951	118193	1.90785
558:	137664	62036	118374	1.90815
559:	137892	62122	118542	1.90821
560:	138059	62286	118752	1.90656
561:	138276	62372	118938	1.90691
562:	138449	62506	119148	1.90619
563:	138673	62641	119353	1.90535
564:	138943	62765	119567	1.90499
565:	139094	62891	119783	1.90461
566:	139303	63001	119979	1.9044
567:	139474	63026	120044	1.90467
568:	139707	63164	120286	1.90434
569:	139938	63227	120427	1.90468
570:	140116	63373	120667	1.90408
571:	140356	63521	120913	1.90351
572:	140521	63671	121133	1.90248
573:	140688	63791	121329	1.90198
574:	141013	63929	121607	1.90222
575:	141225	63949	121707	1.90319
576:	141372	64003	121837	1.90361
577:	141544	64089	121997	1.90356
578:	141789	64185	122209	1.90401
579:	142004	64285	122399	1.90401
580:	142212	64370	122578	1.90427
581:	142548	64572	122934	1.90383
582:	142716	64652	123086	1.90382
583:	142867	64752	123254	1.90348
584:	143125	64828	123442	1.90415
585:	143309	64926	123622	1.90404
586:	143453	64931	123681	1.90481
587:	143731	64990	123816	1.90515
588:	143992	65106	124038	1.90517
589:	144177	65159	124147	1.90529
590:	144409	65253	124337	1.90546
591:	144595	65309	124465	1.90579
592:	144802	65387	124615	1.90581
593:	145020	65520	124858	1.90565
594:	145275	65636	125078	1.90563
595:	145563	65716	125250	1.90593
596:	145819	65818	125460	1.90617
597:	146012	65814	125496	1.90683
598:	146287	66022	125846	1.90612
599:	146451	66072	125966	1.9065
600:	146666	66186	126168	1.90626
601:	146909	66286	126350	1.90613
602:	147125	66377	126551	1.90655
603:	147357	66479	126747	1.90657
604:	147633	66683	127077	1.90569
605:	147859	66771	127297	1.90647
606:	148072	66859	127465	1.90647
607:	148282	66977	127699	1.90661
608:	148491	67055	127879	1.90708
609:	148704	67177	128081	1.90662
610:	149086	67385	128437	1.90602
611:	149269	67507	128635	1.90551
612:	149445	67507	128691	1.90634
613:	149668	67633	128893	1.90577
614:	149892	67677	129027	1.90651
615:	150154	67829	129271	1.90584
616:	150393	67961	129519	1.90578
617:	150697	68109	129759	1.90517
618:	150906	68266	130034	1.90481
619:	151134	68448	130306	1.90372
620:	151308	68594	130532	1.90297
621:	151500	68716	130740	1.90261
622:	151743	68804	130910	1.90265
623:	151967	68932	131130	1.90231
624:	152284	69057	131369	1.90233
625:	152545	69111	131501	1.90275
626:	152801	69209	131707	1.90303
627:	152976	69325	131897	1.90259
628:	153157	69472	132136	1.902
629:	153410	69611	132411	1.90216
630:	153630	69711	132589	1.90198
631:	153908	69873	132885	1.90181
632:	154165	69902	133020	1.90295
633:	154407	70048	133292	1.90287
634:	154573	70167	133515	1.90282
635:	154878	70272	133742	1.9032
636:	155121	70333	133875	1.90345
637:	155279	70400	133990	1.90327
638:	155560	70496	134194	1.90357
639:	155892	70590	134410	1.90409
640:	156170	70678	134610	1.90455
641:	156398	70730	134752	1.90516
642:	156646	70880	135018	1.90488
643:	156798	70870	135078	1.906
644:	157029	70964	135246	1.90584
645:	157333	71116	135524	1.90568
646:	157588	71278	135800	1.90522
647:	157868	71362	136004	1.90583
648:	158061	71488	136210	1.90535
649:	158260	71544	136354	1.90588
650:	158455	71562	136418	1.90629
651:	158721	71686	136640	1.90609
652:	158977	71764	136780	1.90597
653:	159230	71858	136992	1.90643
654:	159437	71984	137198	1.90595
655:	159786	72142	137526	1.90632
656:	160043	72220	137726	1.90703
657:	160267	72246	137844	1.90798
658:	160526	72322	138016	1.90835
659:	160727	72380	138168	1.90893
660:	160931	72568	138458	1.90798
661:	161272	72664	138660	1.90824
662:	161494	72820	138948	1.9081
663:	161702	72914	139136	1.90822
664:	161895	72948	139250	1.90889
665:	162133	73005	139399	1.90944
666:	162409	73191	139707	1.9088
667:	162654	73373	139987	1.90788
668:	162909	73383	140089	1.90901
669:	163112	73504	140314	1.90893
670:	163458	73637	140591	1.90924
671:	163778	73739	140793	1.90934
672:	164011	73925	141079	1.90841
673:	164203	74019	141243	1.9082
674:	164488	74168	141512	1.90799
675:	164726	74200	141630	1.90876
676:	164975	74332	141850	1.90833
677:	165228	74464	142080	1.90804
678:	165521	74648	142376	1.9073
679:	165716	74723	142533	1.90748
680:	165933	74787	142687	1.90791
681:	166304	74983	143033	1.90754
682:	166521	75071	143195	1.90746
683:	166661	75193	143413	1.90727
684:	166889	75383	143719	1.90652
685:	167153	75423	143871	1.90752
686:	167462	75589	144147	1.90698
687:	167740	75765	144459	1.90667
688:	167976	75865	144647	1.90664
689:	168268	76039	144967	1.90648
690:	168532	76180	145218	1.90625
691:	168794	76312	145452	1.90602
692:	168966	76383	145599	1.90617
693:	169153	76453	145731	1.90615
694:	169428	76607	145991	1.90571
695:	169620	76784	146254	1.90475
696:	169904	76912	146464	1.90431
697:	170183	77072	146738	1.90391
698:	170493	77256	147062	1.90357
699:	170763	77326	147218	1.90386
700:	170934	77428	147380	1.90345
701:	171173	77584	147620	1.90271
702:	171400	77660	147798	1.90314
703:	171642	77824	148088	1.90286
704:	171887	77964	148318	1.90239
705:	172101	78105	148565	1.90212
706:	172344	78193	148737	1.90218
707:	172576	78257	148895	1.90264
708:	172784	78345	149037	1.90232
709:	173036	78415	149189	1.90256
710:	173313	78501	149417	1.90338
711:	173560	78601	149617	1.9035
712:	173804	78738	149868	1.90338
713:	173990	78808	150024	1.90366
714:	174123	78886	150160	1.90351
715:	174306	78977	150343	1.90363
716:	174590	79059	150511	1.90378
717:	174889	79077	150629	1.90484
718:	175007	79151	150759	1.9047
719:	175409	79347	151145	1.90486
720:	175577	79381	151247	1.90533
721:	175734	79407	151345	1.90594
722:	175981	79403	151407	1.90682
723:	176171	79455	151527	1.90708
724:	176357	79543	151705	1.90721
725:	176580	79611	151873	1.90769
726:	176855	79683	152037	1.90802
727:	177099	79850	152300	1.90733
728:	177318	80037	152603	1.90666
729:	177518	80077	152741	1.90743
730:	177736	80267	153019	1.90637
731:	177929	80351	153177	1.90635
732:	178167	80477	153385	1.90595
733:	178335	80531	153485	1.90591
