
Simulation on single triangle.

Serial: simply the serial version
Parallel1: parallel version without any splits
Parallel2: parallel version with any splits and joins
Parallel3: parallel version with any splits and joins running on 2 threads
Parallel4: parallel version with any splits and joins running on 10 threads
Parallel5: parallel version with any splits and joins running on 20 threads
Parallel6: parallel version with any splits and joins running on 40 threads

INITIAL_DEPTH	MTPS_SERIAL	MTPS_PARALLEL1	MTPS_PARALLEL2	MTPS_PARALLEL3	MTPS_PARALLEL4	MTPS_PARALLEL5	MTPS_PARALLEL5	TIMESTEPS	AVERAGE_TRIANGLES_SERIAL	AVERAGE_TRIANGLES_PARALLEL1	AVERAGE_TRIANGLES_PARALLEL2	AVERAGE_TRIANGLES_PARALLEL3	AVERAGE_PARTITIONS_PARALLEL2
10	2.77593	2.74299	2.72417	2.58028	1.13306	0.342591	0.119586	65536	15898.5	15898.5	15898.5	15898.5	23.81
11	2.74939	2.77399	2.74151	2.62557	1.69797	0.606689	0.218784	32768	29936.6	29936.7	29936.7	29936.7	34.12
12	2.83366	2.8501	2.86715	2.81137	2.00803	0.853993	0.318597	16384	57268.8	57268.8	57268.8	57268.8	39.7
13	2.75768	2.75029	2.81742	2.74058	2.19015	1.39276	0.53678	8192	111053	111053	111053	111053	63.38
14	2.76626	2.76396	2.77251	2.71511	2.15318	1.33246	0.637348	4096	217089	217089	217089	217089	72.97
15	2.76196	2.8171	2.70468	2.58452	1.78901	1.45497	0.953606	2048	427351	427351	427351	427351	132.9
16	2.90637	2.91077	2.88313	2.74092	1.6557	1.25251	0.915186	1024	844892	844892	844892	844892	159.02
17	2.82113	2.82414	2.94336	2.80437	1.63331	1.25452	0.873459	512	1.67638e+06	1.67638e+06	1.67638e+06	1.67638e+06	289.33
18	2.85726	2.90811	3.0732	2.92934	1.61375	1.23417	0.801678	256	3.33337e+06	3.33337e+06	3.33337e+06	3.33337e+06	377.43
19	2.55718	2.9058	3.02114	2.93872	1.57853	1.19462	0.795736	128	6.64005e+06	6.64005e+06	6.64005e+06	6.64005e+06	729.69
20	2.53401	2.9496	3.08524	2.95824	1.59297	1.18496	0.780506	64	1.32415e+07	1.32415e+07	1.32415e+07	1.32415e+07	1086.9
