CPUS: 0 1 2 3 4 5 6 7 8 9 10 11

THREADS	INITIAL_DEPTH	MTPS	SPEEDUP_PER	TIMESTEPS	TIMESTEP_SIZE	AVERAGE_TRIANGLES	AVERAGE_PARTITIONS
1	8	3.14879	1.0000	5898	1.52588	24280.3	51.7597
4	8	11.5103	.9138	5898	1.52588	24293.6	51.7859
6	8	16.3086	.8632	5898	1.52588	24293.6	51.7859
8	8	19.3096	.7665	5898	1.52588	24293.6	51.7859
12	8	24.4764	.6477	5898	1.52588	24293.6	51.7859

THREADS	INITIAL_DEPTH	MTPS	SPEEDUP_PER	TIMESTEPS	TIMESTEP_SIZE	AVERAGE_TRIANGLES	AVERAGE_PARTITIONS
1	10	3.0911	1.0000	11796	0.762939	111743	222.826
4	10	11.543	.9335	11796	0.762939	111746	222.856
6	10	16.7368	.9024	11796	0.762939	111746	222.856
8	10	21.2997	.8613	11796	0.762939	111746	222.856
12	10	29.847	.8046	11796	0.762939	111746	222.856

THREADS	INITIAL_DEPTH	MTPS	SPEEDUP_PER	TIMESTEPS	TIMESTEP_SIZE	AVERAGE_TRIANGLES	AVERAGE_PARTITIONS
1	12	2.94209	1.0000	47185	0.190735	421284	847.982
4	12	10.8353	.9207	47185	0.190735	421523	848.384
6	12	15.9619	.9042	47185	0.190735	421523	848.384
8	12	20.585	.8745	47185	0.190735	421523	848.384
12	12	28.8434	.8169	47185	0.190735	421523	848.384

Threads	ProblemDepth	MTPS	SPEEDUP_PER	TIMESTEPS
1	14	2.92409	1.0000	5898
4	14	10.9906	.9396	5898
6	14	15.981	.9109	5898
8	14	20.0931	.8589	5898
12	14	27.1802	.7746	5898

Threads	ProblemDepth	MTPS	SPEEDUP_PER	TIMESTEPS
1	16	2.87632	1.0000	5898
4	16	10.7812	.9370	5898
6	16	15.6377	.9061	5898
8	16	19.7492	.8582	5898
12	16	26.4582	.7665	5898
