STARTING WORLD SCHEDULER SERVER
CLIENT SETUP: adding client 38665
 + TIMESTAMP: 0.313141
START TIMESTAMP: 0.313187
+++++++++++++++++++++++++++++++++++++++++++++++++++++++++++
+ Client Mapping:
  > Client 38665 (0):	

+ Core Mapping:	0 0 0 0 0 0 0 0 0 0 0 0 0 0 0 0 0 0 0 0 0 0 0 0 0 0 0 0 0 0 0 0 0 0 0 0 0 0 0 0 
+ Optimal point: 
+++++++++++++++++++++++++++++++++++++++++++++++++++++++++++
INVADE: client 38665
 + TIMESTAMP: 0.337128
RESSOURCE DISTRIBUTION CHANGED
++++++++++++++++++++++++++++++++++++++++++++++++
INVADE (38665)
  + pid: 38665
  + min_cores: 1
  + max_cores: 512
  + scalability graph: 
1, 1.39494, 1.5699, 1.6742, 1.74538, 1.79792, 1.83875, 1.87167, 1.89893, 1.922, 1.94184, 1.95915, 1.97442, 1.98802, 2.00024, 2.0113, 2.02136, 2.03058, 2.03906, 2.04689, 2.05415, 2.06092, 2.06724, 2.07316, 2.07872, 2.08396, 2.0889, 2.09358, 2.09801, 2.10222, 2.10622, 2.11003, 2.11367, 2.11715, 2.12048, 2.12367, 2.12672, 2.12966, 2.13248, 2.1352, 
Number of clients: 1

+++++++++++++++++++++++++++++++++++++++++++++++++++++++++++
+ Client Mapping:
  > Client 38665 (40):	0 1 2 3 4 5 6 7 8 9 10 11 12 13 14 15 16 17 18 19 20 21 22 23 24 25 26 27 28 29 30 31 32 33 34 35 36 37 38 39 

+ Core Mapping:	38665 38665 38665 38665 38665 38665 38665 38665 38665 38665 38665 38665 38665 38665 38665 38665 38665 38665 38665 38665 38665 38665 38665 38665 38665 38665 38665 38665 38665 38665 38665 38665 38665 38665 38665 38665 38665 38665 38665 38665 
+ Optimal point: 40 
+++++++++++++++++++++++++++++++++++++++++++++++++++++++++++
CLIENT SETUP: adding client 38664
 + TIMESTAMP: 0.361071
+++++++++++++++++++++++++++++++++++++++++++++++++++++++++++
+ Client Mapping:
  > Client 38665 (40):	0 1 2 3 4 5 6 7 8 9 10 11 12 13 14 15 16 17 18 19 20 21 22 23 24 25 26 27 28 29 30 31 32 33 34 35 36 37 38 39 
  > Client 38664 (0):	

+ Core Mapping:	38665 38665 38665 38665 38665 38665 38665 38665 38665 38665 38665 38665 38665 38665 38665 38665 38665 38665 38665 38665 38665 38665 38665 38665 38665 38665 38665 38665 38665 38665 38665 38665 38665 38665 38665 38665 38665 38665 38665 38665 
+ Optimal point: 40 
+++++++++++++++++++++++++++++++++++++++++++++++++++++++++++
INVADE: client 38664
 + TIMESTAMP: 0.361178
CLIENT SETUP: adding client 38666
 + TIMESTAMP: 0.385107
+++++++++++++++++++++++++++++++++++++++++++++++++++++++++++
+ Client Mapping:
  > Client 38665 (40):	0 1 2 3 4 5 6 7 8 9 10 11 12 13 14 15 16 17 18 19 20 21 22 23 24 25 26 27 28 29 30 31 32 33 34 35 36 37 38 39 
  > Client 38664 (0):	
  > Client 38666 (0):	

+ Core Mapping:	38665 38665 38665 38665 38665 38665 38665 38665 38665 38665 38665 38665 38665 38665 38665 38665 38665 38665 38665 38665 38665 38665 38665 38665 38665 38665 38665 38665 38665 38665 38665 38665 38665 38665 38665 38665 38665 38665 38665 38665 
+ Optimal point: 20 20 
+++++++++++++++++++++++++++++++++++++++++++++++++++++++++++
INVADE: client 38666
 + TIMESTAMP: 0.385211
++++++++++++++++++++++++++++++++++++++++++++++++
 + TIMESTAMP: 0.409291
REINVADE (38665)
  + pid: 38665
  + min_cores: 1
  + max_cores: 512
  + scalability graph: 
1, 1.39494, 1.5699, 1.6742, 1.74538, 1.79792, 1.83875, 1.87167, 1.89893, 1.922, 1.94184, 1.95915, 1.97442, 1.98802, 2.00024, 2.0113, 2.02136, 2.03058, 2.03906, 2.04689, 2.05415, 2.06092, 2.06724, 2.07316, 2.07872, 2.08396, 2.0889, 2.09358, 2.09801, 2.10222, 2.10622, 2.11003, 2.11367, 2.11715, 2.12048, 2.12367, 2.12672, 2.12966, 2.13248, 2.1352, 
Number of clients: 3

+++++++++++++++++++++++++++++++++++++++++++++++++++++++++++
+ Client Mapping:
  > Client 38665 (14):	26 27 28 29 30 31 32 33 34 35 36 37 38 39 
  > Client 38664 (0):	
  > Client 38666 (0):	

+ Core Mapping:	0 0 0 0 0 0 0 0 0 0 0 0 0 0 0 0 0 0 0 0 0 0 0 0 0 0 38665 38665 38665 38665 38665 38665 38665 38665 38665 38665 38665 38665 38665 38665 
+ Optimal point: 14 13 13 
+++++++++++++++++++++++++++++++++++++++++++++++++++++++++++
CLIENT SETUP: adding client 38662
 + TIMESTAMP: 0.522066
+++++++++++++++++++++++++++++++++++++++++++++++++++++++++++
+ Client Mapping:
  > Client 38665 (14):	26 27 28 29 30 31 32 33 34 35 36 37 38 39 
  > Client 38664 (0):	
  > Client 38666 (0):	
  > Client 38662 (0):	

+ Core Mapping:	0 0 0 0 0 0 0 0 0 0 0 0 0 0 0 0 0 0 0 0 0 0 0 0 0 0 38665 38665 38665 38665 38665 38665 38665 38665 38665 38665 38665 38665 38665 38665 
+ Optimal point: 14 13 13 
+++++++++++++++++++++++++++++++++++++++++++++++++++++++++++
INVADE: client 38662
 + TIMESTAMP: 0.522578
RESSOURCE DISTRIBUTION CHANGED
++++++++++++++++++++++++++++++++++++++++++++++++
INVADE (38662)
  + pid: 38662
  + min_cores: 1
  + max_cores: 512
  + scalability graph: 
1, 1.39494, 1.5699, 1.6742, 1.74538, 1.79792, 1.83875, 1.87167, 1.89893, 1.922, 1.94184, 1.95915, 1.97442, 1.98802, 2.00024, 2.0113, 2.02136, 2.03058, 2.03906, 2.04689, 2.05415, 2.06092, 2.06724, 2.07316, 2.07872, 2.08396, 2.0889, 2.09358, 2.09801, 2.10222, 2.10622, 2.11003, 2.11367, 2.11715, 2.12048, 2.12367, 2.12672, 2.12966, 2.13248, 2.1352, 
Number of clients: 4

+++++++++++++++++++++++++++++++++++++++++++++++++++++++++++
+ Client Mapping:
  > Client 38665 (14):	26 27 28 29 30 31 32 33 34 35 36 37 38 39 
  > Client 38664 (0):	
  > Client 38666 (0):	
  > Client 38662 (10):	0 1 2 3 4 5 6 7 8 9 

+ Core Mapping:	38662 38662 38662 38662 38662 38662 38662 38662 38662 38662 0 0 0 0 0 0 0 0 0 0 0 0 0 0 0 0 38665 38665 38665 38665 38665 38665 38665 38665 38665 38665 38665 38665 38665 38665 
+ Optimal point: 10 10 10 10 
+++++++++++++++++++++++++++++++++++++++++++++++++++++++++++
CLIENT SETUP: adding client 38663
 + TIMESTAMP: 0.634033
+++++++++++++++++++++++++++++++++++++++++++++++++++++++++++
+ Client Mapping:
  > Client 38665 (14):	26 27 28 29 30 31 32 33 34 35 36 37 38 39 
  > Client 38664 (0):	
  > Client 38666 (0):	
  > Client 38662 (10):	0 1 2 3 4 5 6 7 8 9 
  > Client 38663 (0):	

+ Core Mapping:	38662 38662 38662 38662 38662 38662 38662 38662 38662 38662 0 0 0 0 0 0 0 0 0 0 0 0 0 0 0 0 38665 38665 38665 38665 38665 38665 38665 38665 38665 38665 38665 38665 38665 38665 
+ Optimal point: 10 10 10 10 
+++++++++++++++++++++++++++++++++++++++++++++++++++++++++++
INVADE: client 38663
 + TIMESTAMP: 0.634315
RESSOURCE DISTRIBUTION CHANGED
++++++++++++++++++++++++++++++++++++++++++++++++
INVADE (38663)
  + pid: 38663
  + min_cores: 1
  + max_cores: 512
  + scalability graph: 
1, 1.39494, 1.5699, 1.6742, 1.74538, 1.79792, 1.83875, 1.87167, 1.89893, 1.922, 1.94184, 1.95915, 1.97442, 1.98802, 2.00024, 2.0113, 2.02136, 2.03058, 2.03906, 2.04689, 2.05415, 2.06092, 2.06724, 2.07316, 2.07872, 2.08396, 2.0889, 2.09358, 2.09801, 2.10222, 2.10622, 2.11003, 2.11367, 2.11715, 2.12048, 2.12367, 2.12672, 2.12966, 2.13248, 2.1352, 
Number of clients: 5

+++++++++++++++++++++++++++++++++++++++++++++++++++++++++++
+ Client Mapping:
  > Client 38665 (14):	26 27 28 29 30 31 32 33 34 35 36 37 38 39 
  > Client 38664 (0):	
  > Client 38666 (0):	
  > Client 38662 (10):	0 1 2 3 4 5 6 7 8 9 
  > Client 38663 (8):	10 11 12 13 14 15 16 17 

+ Core Mapping:	38662 38662 38662 38662 38662 38662 38662 38662 38662 38662 38663 38663 38663 38663 38663 38663 38663 38663 0 0 0 0 0 0 0 0 38665 38665 38665 38665 38665 38665 38665 38665 38665 38665 38665 38665 38665 38665 
+ Optimal point: 8 8 8 8 8 
+++++++++++++++++++++++++++++++++++++++++++++++++++++++++++
++++++++++++++++++++++++++++++++++++++++++++++++
 + TIMESTAMP: 0.63775
REINVADE (38665)
  + pid: 38665
  + min_cores: 1
  + max_cores: 512
  + scalability graph: 
1, 1.39494, 1.5699, 1.6742, 1.74538, 1.79792, 1.83875, 1.87167, 1.89893, 1.922, 1.94184, 1.95915, 1.97442, 1.98802, 2.00024, 2.0113, 2.02136, 2.03058, 2.03906, 2.04689, 2.05415, 2.06092, 2.06724, 2.07316, 2.07872, 2.08396, 2.0889, 2.09358, 2.09801, 2.10222, 2.10622, 2.11003, 2.11367, 2.11715, 2.12048, 2.12367, 2.12672, 2.12966, 2.13248, 2.1352, 
Number of clients: 5

+++++++++++++++++++++++++++++++++++++++++++++++++++++++++++
+ Client Mapping:
  > Client 38665 (8):	32 33 34 35 36 37 38 39 
  > Client 38664 (0):	
  > Client 38666 (0):	
  > Client 38662 (10):	0 1 2 3 4 5 6 7 8 9 
  > Client 38663 (8):	10 11 12 13 14 15 16 17 

+ Core Mapping:	38662 38662 38662 38662 38662 38662 38662 38662 38662 38662 38663 38663 38663 38663 38663 38663 38663 38663 0 0 0 0 0 0 0 0 0 0 0 0 0 0 38665 38665 38665 38665 38665 38665 38665 38665 
+ Optimal point: 8 8 8 8 8 
+++++++++++++++++++++++++++++++++++++++++++++++++++++++++++
++++++++++++++++++++++++++++++++++++++++++++++++
 + TIMESTAMP: 0.666456
REINVADE (38662)
  + pid: 38662
  + min_cores: 1
  + max_cores: 512
  + scalability graph: 
1, 1.39494, 1.5699, 1.6742, 1.74538, 1.79792, 1.83875, 1.87167, 1.89893, 1.922, 1.94184, 1.95915, 1.97442, 1.98802, 2.00024, 2.0113, 2.02136, 2.03058, 2.03906, 2.04689, 2.05415, 2.06092, 2.06724, 2.07316, 2.07872, 2.08396, 2.0889, 2.09358, 2.09801, 2.10222, 2.10622, 2.11003, 2.11367, 2.11715, 2.12048, 2.12367, 2.12672, 2.12966, 2.13248, 2.1352, 
Number of clients: 5

+++++++++++++++++++++++++++++++++++++++++++++++++++++++++++
+ Client Mapping:
  > Client 38665 (8):	32 33 34 35 36 37 38 39 
  > Client 38664 (0):	
  > Client 38666 (0):	
  > Client 38662 (8):	2 3 4 5 6 7 8 9 
  > Client 38663 (8):	10 11 12 13 14 15 16 17 

+ Core Mapping:	0 0 38662 38662 38662 38662 38662 38662 38662 38662 38663 38663 38663 38663 38663 38663 38663 38663 0 0 0 0 0 0 0 0 0 0 0 0 0 0 38665 38665 38665 38665 38665 38665 38665 38665 
+ Optimal point: 8 8 8 8 8 
+++++++++++++++++++++++++++++++++++++++++++++++++++++++++++
++++++++++++++++++++++++++++++++++++++++++++++++
 + TIMESTAMP: 0.69633
REINVADE (38666)
  + pid: 38666
  + min_cores: 1
  + max_cores: 512
  + scalability graph: 
1, 1.39494, 1.5699, 1.6742, 1.74538, 1.79792, 1.83875, 1.87167, 1.89893, 1.922, 1.94184, 1.95915, 1.97442, 1.98802, 2.00024, 2.0113, 2.02136, 2.03058, 2.03906, 2.04689, 2.05415, 2.06092, 2.06724, 2.07316, 2.07872, 2.08396, 2.0889, 2.09358, 2.09801, 2.10222, 2.10622, 2.11003, 2.11367, 2.11715, 2.12048, 2.12367, 2.12672, 2.12966, 2.13248, 2.1352, 
Number of clients: 5

+++++++++++++++++++++++++++++++++++++++++++++++++++++++++++
+ Client Mapping:
  > Client 38665 (8):	32 33 34 35 36 37 38 39 
  > Client 38664 (0):	
  > Client 38666 (8):	0 1 18 19 20 21 22 23 
  > Client 38662 (8):	2 3 4 5 6 7 8 9 
  > Client 38663 (8):	10 11 12 13 14 15 16 17 

+ Core Mapping:	38666 38666 38662 38662 38662 38662 38662 38662 38662 38662 38663 38663 38663 38663 38663 38663 38663 38663 38666 38666 38666 38666 38666 38666 0 0 0 0 0 0 0 0 38665 38665 38665 38665 38665 38665 38665 38665 
+ Optimal point: 8 8 8 8 8 
+++++++++++++++++++++++++++++++++++++++++++++++++++++++++++
++++++++++++++++++++++++++++++++++++++++++++++++
 + TIMESTAMP: 0.697502
REINVADE (38664)
  + pid: 38664
  + min_cores: 1
  + max_cores: 512
  + scalability graph: 
1, 1.39494, 1.5699, 1.6742, 1.74538, 1.79792, 1.83875, 1.87167, 1.89893, 1.922, 1.94184, 1.95915, 1.97442, 1.98802, 2.00024, 2.0113, 2.02136, 2.03058, 2.03906, 2.04689, 2.05415, 2.06092, 2.06724, 2.07316, 2.07872, 2.08396, 2.0889, 2.09358, 2.09801, 2.10222, 2.10622, 2.11003, 2.11367, 2.11715, 2.12048, 2.12367, 2.12672, 2.12966, 2.13248, 2.1352, 
Number of clients: 5

+++++++++++++++++++++++++++++++++++++++++++++++++++++++++++
+ Client Mapping:
  > Client 38665 (8):	32 33 34 35 36 37 38 39 
  > Client 38664 (8):	24 25 26 27 28 29 30 31 
  > Client 38666 (8):	0 1 18 19 20 21 22 23 
  > Client 38662 (8):	2 3 4 5 6 7 8 9 
  > Client 38663 (8):	10 11 12 13 14 15 16 17 

+ Core Mapping:	38666 38666 38662 38662 38662 38662 38662 38662 38662 38662 38663 38663 38663 38663 38663 38663 38663 38663 38666 38666 38666 38666 38666 38666 38664 38664 38664 38664 38664 38664 38664 38664 38665 38665 38665 38665 38665 38665 38665 38665 
+ Optimal point: 8 8 8 8 8 
+++++++++++++++++++++++++++++++++++++++++++++++++++++++++++
CLIENT SHUTDOWN: client 38666
 + TIMESTAMP: 912.993
+++++++++++++++++++++++++++++++++++++++++++++++++++++++++++
+ Client Mapping:
  > Client 38665 (8):	32 33 34 35 36 37 38 39 
  > Client 38664 (8):	24 25 26 27 28 29 30 31 
  > Client 38666 (0):	
  > Client 38662 (8):	2 3 4 5 6 7 8 9 
  > Client 38663 (8):	10 11 12 13 14 15 16 17 

+ Core Mapping:	0 0 38662 38662 38662 38662 38662 38662 38662 38662 38663 38663 38663 38663 38663 38663 38663 38663 0 0 0 0 0 0 38664 38664 38664 38664 38664 38664 38664 38664 38665 38665 38665 38665 38665 38665 38665 38665 
+ Optimal point: 8 8 8 8 8 
+++++++++++++++++++++++++++++++++++++++++++++++++++++++++++
client (38666) shutdown hint: 20954.2
sum_client_shutdown_hint: 20954.2
sum_client_shutdown_hint_div_time: 0
++++++++++++++++++++++++++++++++++++++++++++++++
 + TIMESTAMP: 913.003
REINVADE (38665)
  + pid: 38665
  + min_cores: 1
  + max_cores: 512
  + scalability graph: 
1, 1.39494, 1.5699, 1.6742, 1.74538, 1.79792, 1.83875, 1.87167, 1.89893, 1.922, 1.94184, 1.95915, 1.97442, 1.98802, 2.00024, 2.0113, 2.02136, 2.03058, 2.03906, 2.04689, 2.05415, 2.06092, 2.06724, 2.07316, 2.07872, 2.08396, 2.0889, 2.09358, 2.09801, 2.10222, 2.10622, 2.11003, 2.11367, 2.11715, 2.12048, 2.12367, 2.12672, 2.12966, 2.13248, 2.1352, 
Number of clients: 4

+++++++++++++++++++++++++++++++++++++++++++++++++++++++++++
+ Client Mapping:
  > Client 38665 (10):	32 33 34 35 36 37 38 39 0 1 
  > Client 38664 (8):	24 25 26 27 28 29 30 31 
  > Client 38662 (8):	2 3 4 5 6 7 8 9 
  > Client 38663 (8):	10 11 12 13 14 15 16 17 

+ Core Mapping:	38665 38665 38662 38662 38662 38662 38662 38662 38662 38662 38663 38663 38663 38663 38663 38663 38663 38663 0 0 0 0 0 0 38664 38664 38664 38664 38664 38664 38664 38664 38665 38665 38665 38665 38665 38665 38665 38665 
+ Optimal point: 10 10 10 10 
+++++++++++++++++++++++++++++++++++++++++++++++++++++++++++
++++++++++++++++++++++++++++++++++++++++++++++++
 + TIMESTAMP: 913.004
REINVADE (38664)
  + pid: 38664
  + min_cores: 1
  + max_cores: 512
  + scalability graph: 
1, 1.39494, 1.5699, 1.6742, 1.74538, 1.79792, 1.83875, 1.87167, 1.89893, 1.922, 1.94184, 1.95915, 1.97442, 1.98802, 2.00024, 2.0113, 2.02136, 2.03058, 2.03906, 2.04689, 2.05415, 2.06092, 2.06724, 2.07316, 2.07872, 2.08396, 2.0889, 2.09358, 2.09801, 2.10222, 2.10622, 2.11003, 2.11367, 2.11715, 2.12048, 2.12367, 2.12672, 2.12966, 2.13248, 2.1352, 
Number of clients: 4

+++++++++++++++++++++++++++++++++++++++++++++++++++++++++++
+ Client Mapping:
  > Client 38665 (10):	32 33 34 35 36 37 38 39 0 1 
  > Client 38664 (10):	24 25 26 27 28 29 30 31 18 19 
  > Client 38662 (8):	2 3 4 5 6 7 8 9 
  > Client 38663 (8):	10 11 12 13 14 15 16 17 

+ Core Mapping:	38665 38665 38662 38662 38662 38662 38662 38662 38662 38662 38663 38663 38663 38663 38663 38663 38663 38663 38664 38664 0 0 0 0 38664 38664 38664 38664 38664 38664 38664 38664 38665 38665 38665 38665 38665 38665 38665 38665 
+ Optimal point: 10 10 10 10 
+++++++++++++++++++++++++++++++++++++++++++++++++++++++++++
++++++++++++++++++++++++++++++++++++++++++++++++
 + TIMESTAMP: 913.011
REINVADE (38663)
  + pid: 38663
  + min_cores: 1
  + max_cores: 512
  + scalability graph: 
1, 1.39494, 1.5699, 1.6742, 1.74538, 1.79792, 1.83875, 1.87167, 1.89893, 1.922, 1.94184, 1.95915, 1.97442, 1.98802, 2.00024, 2.0113, 2.02136, 2.03058, 2.03906, 2.04689, 2.05415, 2.06092, 2.06724, 2.07316, 2.07872, 2.08396, 2.0889, 2.09358, 2.09801, 2.10222, 2.10622, 2.11003, 2.11367, 2.11715, 2.12048, 2.12367, 2.12672, 2.12966, 2.13248, 2.1352, 
Number of clients: 4

+++++++++++++++++++++++++++++++++++++++++++++++++++++++++++
+ Client Mapping:
  > Client 38665 (10):	32 33 34 35 36 37 38 39 0 1 
  > Client 38664 (10):	24 25 26 27 28 29 30 31 18 19 
  > Client 38662 (8):	2 3 4 5 6 7 8 9 
  > Client 38663 (10):	10 11 12 13 14 15 16 17 20 21 

+ Core Mapping:	38665 38665 38662 38662 38662 38662 38662 38662 38662 38662 38663 38663 38663 38663 38663 38663 38663 38663 38664 38664 38663 38663 0 0 38664 38664 38664 38664 38664 38664 38664 38664 38665 38665 38665 38665 38665 38665 38665 38665 
+ Optimal point: 10 10 10 10 
+++++++++++++++++++++++++++++++++++++++++++++++++++++++++++
++++++++++++++++++++++++++++++++++++++++++++++++
 + TIMESTAMP: 913.017
REINVADE (38662)
  + pid: 38662
  + min_cores: 1
  + max_cores: 512
  + scalability graph: 
1, 1.39494, 1.5699, 1.6742, 1.74538, 1.79792, 1.83875, 1.87167, 1.89893, 1.922, 1.94184, 1.95915, 1.97442, 1.98802, 2.00024, 2.0113, 2.02136, 2.03058, 2.03906, 2.04689, 2.05415, 2.06092, 2.06724, 2.07316, 2.07872, 2.08396, 2.0889, 2.09358, 2.09801, 2.10222, 2.10622, 2.11003, 2.11367, 2.11715, 2.12048, 2.12367, 2.12672, 2.12966, 2.13248, 2.1352, 
Number of clients: 4

+++++++++++++++++++++++++++++++++++++++++++++++++++++++++++
+ Client Mapping:
  > Client 38665 (10):	32 33 34 35 36 37 38 39 0 1 
  > Client 38664 (10):	24 25 26 27 28 29 30 31 18 19 
  > Client 38662 (10):	2 3 4 5 6 7 8 9 22 23 
  > Client 38663 (10):	10 11 12 13 14 15 16 17 20 21 

+ Core Mapping:	38665 38665 38662 38662 38662 38662 38662 38662 38662 38662 38663 38663 38663 38663 38663 38663 38663 38663 38664 38664 38663 38663 38662 38662 38664 38664 38664 38664 38664 38664 38664 38664 38665 38665 38665 38665 38665 38665 38665 38665 
+ Optimal point: 10 10 10 10 
+++++++++++++++++++++++++++++++++++++++++++++++++++++++++++
CLIENT SHUTDOWN: client 38665
 + TIMESTAMP: 913.724
+++++++++++++++++++++++++++++++++++++++++++++++++++++++++++
+ Client Mapping:
  > Client 38665 (0):	
  > Client 38664 (10):	24 25 26 27 28 29 30 31 18 19 
  > Client 38662 (10):	2 3 4 5 6 7 8 9 22 23 
  > Client 38663 (10):	10 11 12 13 14 15 16 17 20 21 

+ Core Mapping:	0 0 38662 38662 38662 38662 38662 38662 38662 38662 38663 38663 38663 38663 38663 38663 38663 38663 38664 38664 38663 38663 38662 38662 38664 38664 38664 38664 38664 38664 38664 38664 0 0 0 0 0 0 0 0 
+ Optimal point: 10 10 10 10 
+++++++++++++++++++++++++++++++++++++++++++++++++++++++++++
client (38665) shutdown hint: 20954.2
sum_client_shutdown_hint: 41908.4
sum_client_shutdown_hint_div_time: 0
++++++++++++++++++++++++++++++++++++++++++++++++
 + TIMESTAMP: 913.724
REINVADE (38663)
  + pid: 38663
  + min_cores: 1
  + max_cores: 512
  + scalability graph: 
1, 1.39494, 1.5699, 1.6742, 1.74538, 1.79792, 1.83875, 1.87167, 1.89893, 1.922, 1.94184, 1.95915, 1.97442, 1.98802, 2.00024, 2.0113, 2.02136, 2.03058, 2.03906, 2.04689, 2.05415, 2.06092, 2.06724, 2.07316, 2.07872, 2.08396, 2.0889, 2.09358, 2.09801, 2.10222, 2.10622, 2.11003, 2.11367, 2.11715, 2.12048, 2.12367, 2.12672, 2.12966, 2.13248, 2.1352, 
Number of clients: 3

+++++++++++++++++++++++++++++++++++++++++++++++++++++++++++
+ Client Mapping:
  > Client 38664 (10):	24 25 26 27 28 29 30 31 18 19 
  > Client 38662 (10):	2 3 4 5 6 7 8 9 22 23 
  > Client 38663 (13):	10 11 12 13 14 15 16 17 20 21 0 1 32 

+ Core Mapping:	38663 38663 38662 38662 38662 38662 38662 38662 38662 38662 38663 38663 38663 38663 38663 38663 38663 38663 38664 38664 38663 38663 38662 38662 38664 38664 38664 38664 38664 38664 38664 38664 38663 0 0 0 0 0 0 0 
+ Optimal point: 14 13 13 
+++++++++++++++++++++++++++++++++++++++++++++++++++++++++++
++++++++++++++++++++++++++++++++++++++++++++++++
 + TIMESTAMP: 913.733
REINVADE (38662)
  + pid: 38662
  + min_cores: 1
  + max_cores: 512
  + scalability graph: 
1, 1.39494, 1.5699, 1.6742, 1.74538, 1.79792, 1.83875, 1.87167, 1.89893, 1.922, 1.94184, 1.95915, 1.97442, 1.98802, 2.00024, 2.0113, 2.02136, 2.03058, 2.03906, 2.04689, 2.05415, 2.06092, 2.06724, 2.07316, 2.07872, 2.08396, 2.0889, 2.09358, 2.09801, 2.10222, 2.10622, 2.11003, 2.11367, 2.11715, 2.12048, 2.12367, 2.12672, 2.12966, 2.13248, 2.1352, 
Number of clients: 3

+++++++++++++++++++++++++++++++++++++++++++++++++++++++++++
+ Client Mapping:
  > Client 38664 (10):	24 25 26 27 28 29 30 31 18 19 
  > Client 38662 (13):	2 3 4 5 6 7 8 9 22 23 33 34 35 
  > Client 38663 (13):	10 11 12 13 14 15 16 17 20 21 0 1 32 

+ Core Mapping:	38663 38663 38662 38662 38662 38662 38662 38662 38662 38662 38663 38663 38663 38663 38663 38663 38663 38663 38664 38664 38663 38663 38662 38662 38664 38664 38664 38664 38664 38664 38664 38664 38663 38662 38662 38662 0 0 0 0 
+ Optimal point: 14 13 13 
+++++++++++++++++++++++++++++++++++++++++++++++++++++++++++
++++++++++++++++++++++++++++++++++++++++++++++++
 + TIMESTAMP: 913.737
REINVADE (38664)
  + pid: 38664
  + min_cores: 1
  + max_cores: 512
  + scalability graph: 
1, 1.39494, 1.5699, 1.6742, 1.74538, 1.79792, 1.83875, 1.87167, 1.89893, 1.922, 1.94184, 1.95915, 1.97442, 1.98802, 2.00024, 2.0113, 2.02136, 2.03058, 2.03906, 2.04689, 2.05415, 2.06092, 2.06724, 2.07316, 2.07872, 2.08396, 2.0889, 2.09358, 2.09801, 2.10222, 2.10622, 2.11003, 2.11367, 2.11715, 2.12048, 2.12367, 2.12672, 2.12966, 2.13248, 2.1352, 
Number of clients: 3

+++++++++++++++++++++++++++++++++++++++++++++++++++++++++++
+ Client Mapping:
  > Client 38664 (14):	24 25 26 27 28 29 30 31 18 19 36 37 38 39 
  > Client 38662 (13):	2 3 4 5 6 7 8 9 22 23 33 34 35 
  > Client 38663 (13):	10 11 12 13 14 15 16 17 20 21 0 1 32 

+ Core Mapping:	38663 38663 38662 38662 38662 38662 38662 38662 38662 38662 38663 38663 38663 38663 38663 38663 38663 38663 38664 38664 38663 38663 38662 38662 38664 38664 38664 38664 38664 38664 38664 38664 38663 38662 38662 38662 38664 38664 38664 38664 
+ Optimal point: 14 13 13 
+++++++++++++++++++++++++++++++++++++++++++++++++++++++++++
CLIENT SHUTDOWN: client 38664
 + TIMESTAMP: 918.091
+++++++++++++++++++++++++++++++++++++++++++++++++++++++++++
+ Client Mapping:
  > Client 38664 (0):	
  > Client 38662 (13):	2 3 4 5 6 7 8 9 22 23 33 34 35 
  > Client 38663 (13):	10 11 12 13 14 15 16 17 20 21 0 1 32 

+ Core Mapping:	38663 38663 38662 38662 38662 38662 38662 38662 38662 38662 38663 38663 38663 38663 38663 38663 38663 38663 0 0 38663 38663 38662 38662 0 0 0 0 0 0 0 0 38663 38662 38662 38662 0 0 0 0 
+ Optimal point: 14 13 13 
+++++++++++++++++++++++++++++++++++++++++++++++++++++++++++
client (38664) shutdown hint: 20954.2
sum_client_shutdown_hint: 62862.6
sum_client_shutdown_hint_div_time: 0
++++++++++++++++++++++++++++++++++++++++++++++++
 + TIMESTAMP: 918.091
REINVADE (38662)
  + pid: 38662
  + min_cores: 1
  + max_cores: 512
  + scalability graph: 
1, 1.39494, 1.5699, 1.6742, 1.74538, 1.79792, 1.83875, 1.87167, 1.89893, 1.922, 1.94184, 1.95915, 1.97442, 1.98802, 2.00024, 2.0113, 2.02136, 2.03058, 2.03906, 2.04689, 2.05415, 2.06092, 2.06724, 2.07316, 2.07872, 2.08396, 2.0889, 2.09358, 2.09801, 2.10222, 2.10622, 2.11003, 2.11367, 2.11715, 2.12048, 2.12367, 2.12672, 2.12966, 2.13248, 2.1352, 
Number of clients: 2

+++++++++++++++++++++++++++++++++++++++++++++++++++++++++++
+ Client Mapping:
  > Client 38662 (20):	2 3 4 5 6 7 8 9 22 23 33 34 35 18 19 24 25 26 27 28 
  > Client 38663 (13):	10 11 12 13 14 15 16 17 20 21 0 1 32 

+ Core Mapping:	38663 38663 38662 38662 38662 38662 38662 38662 38662 38662 38663 38663 38663 38663 38663 38663 38663 38663 38662 38662 38663 38663 38662 38662 38662 38662 38662 38662 38662 0 0 0 38663 38662 38662 38662 0 0 0 0 
+ Optimal point: 20 20 
+++++++++++++++++++++++++++++++++++++++++++++++++++++++++++
++++++++++++++++++++++++++++++++++++++++++++++++
 + TIMESTAMP: 918.108
REINVADE (38663)
  + pid: 38663
  + min_cores: 1
  + max_cores: 512
  + scalability graph: 
1, 1.39494, 1.5699, 1.6742, 1.74538, 1.79792, 1.83875, 1.87167, 1.89893, 1.922, 1.94184, 1.95915, 1.97442, 1.98802, 2.00024, 2.0113, 2.02136, 2.03058, 2.03906, 2.04689, 2.05415, 2.06092, 2.06724, 2.07316, 2.07872, 2.08396, 2.0889, 2.09358, 2.09801, 2.10222, 2.10622, 2.11003, 2.11367, 2.11715, 2.12048, 2.12367, 2.12672, 2.12966, 2.13248, 2.1352, 
Number of clients: 2

+++++++++++++++++++++++++++++++++++++++++++++++++++++++++++
+ Client Mapping:
  > Client 38662 (20):	2 3 4 5 6 7 8 9 22 23 33 34 35 18 19 24 25 26 27 28 
  > Client 38663 (20):	10 11 12 13 14 15 16 17 20 21 0 1 32 29 30 31 36 37 38 39 

+ Core Mapping:	38663 38663 38662 38662 38662 38662 38662 38662 38662 38662 38663 38663 38663 38663 38663 38663 38663 38663 38662 38662 38663 38663 38662 38662 38662 38662 38662 38662 38662 38663 38663 38663 38663 38662 38662 38662 38663 38663 38663 38663 
+ Optimal point: 20 20 
+++++++++++++++++++++++++++++++++++++++++++++++++++++++++++
CLIENT SHUTDOWN: client 38662
 + TIMESTAMP: 923.665
+++++++++++++++++++++++++++++++++++++++++++++++++++++++++++
+ Client Mapping:
  > Client 38662 (0):	
  > Client 38663 (20):	10 11 12 13 14 15 16 17 20 21 0 1 32 29 30 31 36 37 38 39 

+ Core Mapping:	38663 38663 0 0 0 0 0 0 0 0 38663 38663 38663 38663 38663 38663 38663 38663 0 0 38663 38663 0 0 0 0 0 0 0 38663 38663 38663 38663 0 0 0 38663 38663 38663 38663 
+ Optimal point: 20 20 
+++++++++++++++++++++++++++++++++++++++++++++++++++++++++++
client (38662) shutdown hint: 20954.2
sum_client_shutdown_hint: 83816.8
sum_client_shutdown_hint_div_time: 0
++++++++++++++++++++++++++++++++++++++++++++++++
 + TIMESTAMP: 923.675
REINVADE (38663)
  + pid: 38663
  + min_cores: 1
  + max_cores: 512
  + scalability graph: 
1, 1.39494, 1.5699, 1.6742, 1.74538, 1.79792, 1.83875, 1.87167, 1.89893, 1.922, 1.94184, 1.95915, 1.97442, 1.98802, 2.00024, 2.0113, 2.02136, 2.03058, 2.03906, 2.04689, 2.05415, 2.06092, 2.06724, 2.07316, 2.07872, 2.08396, 2.0889, 2.09358, 2.09801, 2.10222, 2.10622, 2.11003, 2.11367, 2.11715, 2.12048, 2.12367, 2.12672, 2.12966, 2.13248, 2.1352, 
Number of clients: 1

+++++++++++++++++++++++++++++++++++++++++++++++++++++++++++
+ Client Mapping:
  > Client 38663 (40):	10 11 12 13 14 15 16 17 20 21 0 1 32 29 30 31 36 37 38 39 2 3 4 5 6 7 8 9 18 19 22 23 24 25 26 27 28 33 34 35 

+ Core Mapping:	38663 38663 38663 38663 38663 38663 38663 38663 38663 38663 38663 38663 38663 38663 38663 38663 38663 38663 38663 38663 38663 38663 38663 38663 38663 38663 38663 38663 38663 38663 38663 38663 38663 38663 38663 38663 38663 38663 38663 38663 
+ Optimal point: 40 
+++++++++++++++++++++++++++++++++++++++++++++++++++++++++++
CLIENT SHUTDOWN: client 38663
 + TIMESTAMP: 926.357
+++++++++++++++++++++++++++++++++++++++++++++++++++++++++++
+ Client Mapping:
  > Client 38663 (0):	

+ Core Mapping:	0 0 0 0 0 0 0 0 0 0 0 0 0 0 0 0 0 0 0 0 0 0 0 0 0 0 0 0 0 0 0 0 0 0 0 0 0 0 0 0 
+ Optimal point: 40 
+++++++++++++++++++++++++++++++++++++++++++++++++++++++++++
client (38663) shutdown hint: 20954.2
sum_client_shutdown_hint: 104771
sum_client_shutdown_hint_div_time: 0
END TIMESTAMP: 926.357
OVERALL TIME: 926.044
 + sum_client_shutdown_hint: 104771
 + sum_client_shutdown_hint/time: 113.138
sum_client_shutdown_hint: 104771
sum_client_shutdown_hint_div_time: 113.138
