STARTING WORLD SCHEDULER SERVER
CLIENT SETUP: adding client 38052
 + TIMESTAMP: 0.290896
START TIMESTAMP: 0.290939
+++++++++++++++++++++++++++++++++++++++++++++++++++++++++++
+ Client Mapping:
  > Client 38052 (0):	

+ Core Mapping:	0 0 0 0 0 0 0 0 0 0 0 0 0 0 0 0 0 0 0 0 0 0 0 0 0 0 0 0 0 0 0 0 0 0 0 0 0 0 0 0 
+ Optimal point: 
+++++++++++++++++++++++++++++++++++++++++++++++++++++++++++
INVADE: client 38052
 + TIMESTAMP: 0.291103
RESSOURCE DISTRIBUTION CHANGED
++++++++++++++++++++++++++++++++++++++++++++++++
INVADE (38052)
  + pid: 38052
  + min_cores: 1
  + max_cores: 512
  + scalability graph: 
1, 1.39494, 1.5699, 1.6742, 1.74538, 1.79792, 1.83875, 1.87167, 1.89893, 1.922, 1.94184, 1.95915, 1.97442, 1.98802, 2.00024, 2.0113, 2.02136, 2.03058, 2.03906, 2.04689, 2.05415, 2.06092, 2.06724, 2.07316, 2.07872, 2.08396, 2.0889, 2.09358, 2.09801, 2.10222, 2.10622, 2.11003, 2.11367, 2.11715, 2.12048, 2.12367, 2.12672, 2.12966, 2.13248, 2.1352, 
Number of clients: 1

+++++++++++++++++++++++++++++++++++++++++++++++++++++++++++
+ Client Mapping:
  > Client 38052 (40):	0 1 2 3 4 5 6 7 8 9 10 11 12 13 14 15 16 17 18 19 20 21 22 23 24 25 26 27 28 29 30 31 32 33 34 35 36 37 38 39 

+ Core Mapping:	38052 38052 38052 38052 38052 38052 38052 38052 38052 38052 38052 38052 38052 38052 38052 38052 38052 38052 38052 38052 38052 38052 38052 38052 38052 38052 38052 38052 38052 38052 38052 38052 38052 38052 38052 38052 38052 38052 38052 38052 
+ Optimal point: 40 
+++++++++++++++++++++++++++++++++++++++++++++++++++++++++++
CLIENT SETUP: adding client 38053
 + TIMESTAMP: 0.322774
+++++++++++++++++++++++++++++++++++++++++++++++++++++++++++
+ Client Mapping:
  > Client 38052 (40):	0 1 2 3 4 5 6 7 8 9 10 11 12 13 14 15 16 17 18 19 20 21 22 23 24 25 26 27 28 29 30 31 32 33 34 35 36 37 38 39 
  > Client 38053 (0):	

+ Core Mapping:	38052 38052 38052 38052 38052 38052 38052 38052 38052 38052 38052 38052 38052 38052 38052 38052 38052 38052 38052 38052 38052 38052 38052 38052 38052 38052 38052 38052 38052 38052 38052 38052 38052 38052 38052 38052 38052 38052 38052 38052 
+ Optimal point: 40 
+++++++++++++++++++++++++++++++++++++++++++++++++++++++++++
INVADE: client 38053
 + TIMESTAMP: 0.338868
CLIENT SETUP: adding client 38051
 + TIMESTAMP: 0.350788
+++++++++++++++++++++++++++++++++++++++++++++++++++++++++++
+ Client Mapping:
  > Client 38052 (40):	0 1 2 3 4 5 6 7 8 9 10 11 12 13 14 15 16 17 18 19 20 21 22 23 24 25 26 27 28 29 30 31 32 33 34 35 36 37 38 39 
  > Client 38053 (0):	
  > Client 38051 (0):	

+ Core Mapping:	38052 38052 38052 38052 38052 38052 38052 38052 38052 38052 38052 38052 38052 38052 38052 38052 38052 38052 38052 38052 38052 38052 38052 38052 38052 38052 38052 38052 38052 38052 38052 38052 38052 38052 38052 38052 38052 38052 38052 38052 
+ Optimal point: 20 20 
+++++++++++++++++++++++++++++++++++++++++++++++++++++++++++
INVADE: client 38051
 + TIMESTAMP: 0.350886
++++++++++++++++++++++++++++++++++++++++++++++++
 + TIMESTAMP: 0.362856
REINVADE (38052)
  + pid: 38052
  + min_cores: 1
  + max_cores: 512
  + scalability graph: 
1, 1.39494, 1.5699, 1.6742, 1.74538, 1.79792, 1.83875, 1.87167, 1.89893, 1.922, 1.94184, 1.95915, 1.97442, 1.98802, 2.00024, 2.0113, 2.02136, 2.03058, 2.03906, 2.04689, 2.05415, 2.06092, 2.06724, 2.07316, 2.07872, 2.08396, 2.0889, 2.09358, 2.09801, 2.10222, 2.10622, 2.11003, 2.11367, 2.11715, 2.12048, 2.12367, 2.12672, 2.12966, 2.13248, 2.1352, 
Number of clients: 3

+++++++++++++++++++++++++++++++++++++++++++++++++++++++++++
+ Client Mapping:
  > Client 38052 (14):	26 27 28 29 30 31 32 33 34 35 36 37 38 39 
  > Client 38053 (0):	
  > Client 38051 (0):	

+ Core Mapping:	0 0 0 0 0 0 0 0 0 0 0 0 0 0 0 0 0 0 0 0 0 0 0 0 0 0 38052 38052 38052 38052 38052 38052 38052 38052 38052 38052 38052 38052 38052 38052 
+ Optimal point: 14 13 13 
+++++++++++++++++++++++++++++++++++++++++++++++++++++++++++
++++++++++++++++++++++++++++++++++++++++++++++++
 + TIMESTAMP: 0.471917
REINVADE (38051)
  + pid: 38051
  + min_cores: 1
  + max_cores: 512
  + scalability graph: 
1, 1.39494, 1.5699, 1.6742, 1.74538, 1.79792, 1.83875, 1.87167, 1.89893, 1.922, 1.94184, 1.95915, 1.97442, 1.98802, 2.00024, 2.0113, 2.02136, 2.03058, 2.03906, 2.04689, 2.05415, 2.06092, 2.06724, 2.07316, 2.07872, 2.08396, 2.0889, 2.09358, 2.09801, 2.10222, 2.10622, 2.11003, 2.11367, 2.11715, 2.12048, 2.12367, 2.12672, 2.12966, 2.13248, 2.1352, 
Number of clients: 3

+++++++++++++++++++++++++++++++++++++++++++++++++++++++++++
+ Client Mapping:
  > Client 38052 (14):	26 27 28 29 30 31 32 33 34 35 36 37 38 39 
  > Client 38053 (0):	
  > Client 38051 (13):	0 1 2 3 4 5 6 7 8 9 10 11 12 

+ Core Mapping:	38051 38051 38051 38051 38051 38051 38051 38051 38051 38051 38051 38051 38051 0 0 0 0 0 0 0 0 0 0 0 0 0 38052 38052 38052 38052 38052 38052 38052 38052 38052 38052 38052 38052 38052 38052 
+ Optimal point: 14 13 13 
+++++++++++++++++++++++++++++++++++++++++++++++++++++++++++
++++++++++++++++++++++++++++++++++++++++++++++++
 + TIMESTAMP: 0.638088
REINVADE (38053)
  + pid: 38053
  + min_cores: 1
  + max_cores: 512
  + scalability graph: 
1, 1.39494, 1.5699, 1.6742, 1.74538, 1.79792, 1.83875, 1.87167, 1.89893, 1.922, 1.94184, 1.95915, 1.97442, 1.98802, 2.00024, 2.0113, 2.02136, 2.03058, 2.03906, 2.04689, 2.05415, 2.06092, 2.06724, 2.07316, 2.07872, 2.08396, 2.0889, 2.09358, 2.09801, 2.10222, 2.10622, 2.11003, 2.11367, 2.11715, 2.12048, 2.12367, 2.12672, 2.12966, 2.13248, 2.1352, 
Number of clients: 3

+++++++++++++++++++++++++++++++++++++++++++++++++++++++++++
+ Client Mapping:
  > Client 38052 (14):	26 27 28 29 30 31 32 33 34 35 36 37 38 39 
  > Client 38053 (13):	13 14 15 16 17 18 19 20 21 22 23 24 25 
  > Client 38051 (13):	0 1 2 3 4 5 6 7 8 9 10 11 12 

+ Core Mapping:	38051 38051 38051 38051 38051 38051 38051 38051 38051 38051 38051 38051 38051 38053 38053 38053 38053 38053 38053 38053 38053 38053 38053 38053 38053 38053 38052 38052 38052 38052 38052 38052 38052 38052 38052 38052 38052 38052 38052 38052 
+ Optimal point: 14 13 13 
+++++++++++++++++++++++++++++++++++++++++++++++++++++++++++
CLIENT SHUTDOWN: client 38052
 + TIMESTAMP: 582.606
+++++++++++++++++++++++++++++++++++++++++++++++++++++++++++
+ Client Mapping:
  > Client 38052 (0):	
  > Client 38053 (13):	13 14 15 16 17 18 19 20 21 22 23 24 25 
  > Client 38051 (13):	0 1 2 3 4 5 6 7 8 9 10 11 12 

+ Core Mapping:	38051 38051 38051 38051 38051 38051 38051 38051 38051 38051 38051 38051 38051 38053 38053 38053 38053 38053 38053 38053 38053 38053 38053 38053 38053 38053 0 0 0 0 0 0 0 0 0 0 0 0 0 0 
+ Optimal point: 14 13 13 
+++++++++++++++++++++++++++++++++++++++++++++++++++++++++++
client (38052) shutdown hint: 20954.2
sum_client_shutdown_hint: 20954.2
sum_client_shutdown_hint_div_time: 0
++++++++++++++++++++++++++++++++++++++++++++++++
 + TIMESTAMP: 582.612
REINVADE (38053)
  + pid: 38053
  + min_cores: 1
  + max_cores: 512
  + scalability graph: 
1, 1.39494, 1.5699, 1.6742, 1.74538, 1.79792, 1.83875, 1.87167, 1.89893, 1.922, 1.94184, 1.95915, 1.97442, 1.98802, 2.00024, 2.0113, 2.02136, 2.03058, 2.03906, 2.04689, 2.05415, 2.06092, 2.06724, 2.07316, 2.07872, 2.08396, 2.0889, 2.09358, 2.09801, 2.10222, 2.10622, 2.11003, 2.11367, 2.11715, 2.12048, 2.12367, 2.12672, 2.12966, 2.13248, 2.1352, 
Number of clients: 2

+++++++++++++++++++++++++++++++++++++++++++++++++++++++++++
+ Client Mapping:
  > Client 38053 (20):	13 14 15 16 17 18 19 20 21 22 23 24 25 26 27 28 29 30 31 32 
  > Client 38051 (13):	0 1 2 3 4 5 6 7 8 9 10 11 12 

+ Core Mapping:	38051 38051 38051 38051 38051 38051 38051 38051 38051 38051 38051 38051 38051 38053 38053 38053 38053 38053 38053 38053 38053 38053 38053 38053 38053 38053 38053 38053 38053 38053 38053 38053 38053 0 0 0 0 0 0 0 
+ Optimal point: 20 20 
+++++++++++++++++++++++++++++++++++++++++++++++++++++++++++
++++++++++++++++++++++++++++++++++++++++++++++++
 + TIMESTAMP: 582.622
REINVADE (38051)
  + pid: 38051
  + min_cores: 1
  + max_cores: 512
  + scalability graph: 
1, 1.39494, 1.5699, 1.6742, 1.74538, 1.79792, 1.83875, 1.87167, 1.89893, 1.922, 1.94184, 1.95915, 1.97442, 1.98802, 2.00024, 2.0113, 2.02136, 2.03058, 2.03906, 2.04689, 2.05415, 2.06092, 2.06724, 2.07316, 2.07872, 2.08396, 2.0889, 2.09358, 2.09801, 2.10222, 2.10622, 2.11003, 2.11367, 2.11715, 2.12048, 2.12367, 2.12672, 2.12966, 2.13248, 2.1352, 
Number of clients: 2

+++++++++++++++++++++++++++++++++++++++++++++++++++++++++++
+ Client Mapping:
  > Client 38053 (20):	13 14 15 16 17 18 19 20 21 22 23 24 25 26 27 28 29 30 31 32 
  > Client 38051 (20):	0 1 2 3 4 5 6 7 8 9 10 11 12 33 34 35 36 37 38 39 

+ Core Mapping:	38051 38051 38051 38051 38051 38051 38051 38051 38051 38051 38051 38051 38051 38053 38053 38053 38053 38053 38053 38053 38053 38053 38053 38053 38053 38053 38053 38053 38053 38053 38053 38053 38053 38051 38051 38051 38051 38051 38051 38051 
+ Optimal point: 20 20 
+++++++++++++++++++++++++++++++++++++++++++++++++++++++++++
CLIENT SHUTDOWN: client 38053
 + TIMESTAMP: 600.009
+++++++++++++++++++++++++++++++++++++++++++++++++++++++++++
+ Client Mapping:
  > Client 38053 (0):	
  > Client 38051 (20):	0 1 2 3 4 5 6 7 8 9 10 11 12 33 34 35 36 37 38 39 

+ Core Mapping:	38051 38051 38051 38051 38051 38051 38051 38051 38051 38051 38051 38051 38051 0 0 0 0 0 0 0 0 0 0 0 0 0 0 0 0 0 0 0 0 38051 38051 38051 38051 38051 38051 38051 
+ Optimal point: 20 20 
+++++++++++++++++++++++++++++++++++++++++++++++++++++++++++
client (38053) shutdown hint: 20954.2
sum_client_shutdown_hint: 41908.4
sum_client_shutdown_hint_div_time: 0
++++++++++++++++++++++++++++++++++++++++++++++++
 + TIMESTAMP: 600.015
REINVADE (38051)
  + pid: 38051
  + min_cores: 1
  + max_cores: 512
  + scalability graph: 
1, 1.39494, 1.5699, 1.6742, 1.74538, 1.79792, 1.83875, 1.87167, 1.89893, 1.922, 1.94184, 1.95915, 1.97442, 1.98802, 2.00024, 2.0113, 2.02136, 2.03058, 2.03906, 2.04689, 2.05415, 2.06092, 2.06724, 2.07316, 2.07872, 2.08396, 2.0889, 2.09358, 2.09801, 2.10222, 2.10622, 2.11003, 2.11367, 2.11715, 2.12048, 2.12367, 2.12672, 2.12966, 2.13248, 2.1352, 
Number of clients: 1

+++++++++++++++++++++++++++++++++++++++++++++++++++++++++++
+ Client Mapping:
  > Client 38051 (40):	0 1 2 3 4 5 6 7 8 9 10 11 12 33 34 35 36 37 38 39 13 14 15 16 17 18 19 20 21 22 23 24 25 26 27 28 29 30 31 32 

+ Core Mapping:	38051 38051 38051 38051 38051 38051 38051 38051 38051 38051 38051 38051 38051 38051 38051 38051 38051 38051 38051 38051 38051 38051 38051 38051 38051 38051 38051 38051 38051 38051 38051 38051 38051 38051 38051 38051 38051 38051 38051 38051 
+ Optimal point: 40 
+++++++++++++++++++++++++++++++++++++++++++++++++++++++++++
CLIENT SHUTDOWN: client 38051
 + TIMESTAMP: 601.029
+++++++++++++++++++++++++++++++++++++++++++++++++++++++++++
+ Client Mapping:
  > Client 38051 (0):	

+ Core Mapping:	0 0 0 0 0 0 0 0 0 0 0 0 0 0 0 0 0 0 0 0 0 0 0 0 0 0 0 0 0 0 0 0 0 0 0 0 0 0 0 0 
+ Optimal point: 40 
+++++++++++++++++++++++++++++++++++++++++++++++++++++++++++
client (38051) shutdown hint: 20954.2
sum_client_shutdown_hint: 62862.6
sum_client_shutdown_hint_div_time: 0
END TIMESTAMP: 601.029
OVERALL TIME: 600.738
 + sum_client_shutdown_hint: 62862.6
 + sum_client_shutdown_hint/time: 104.642
sum_client_shutdown_hint: 62862.6
sum_client_shutdown_hint_div_time: 104.642
