NetCDF not compiled in!!!
NetCDF not compiled in!!!
NetCDF not compiled in!!!
NetCDF not compiled in!!!
NetCDF not compiled in!!!
NetCDF not compiled in!!!
NetCDF not compiled in!!!
NetCDF not compiled in!!!
NetCDF not compiled in!!!
NetCDF not compiled in!!!NetCDF not compiled in!!!

NetCDF not compiled in!!!
NetCDF not compiled in!!!NetCDF not compiled in!!!

NetCDF not compiled in!!!
NetCDF not compiled in!!!
NetCDF not compiled in!!!
NetCDF not compiled in!!!
NetCDF not compiled in!!!NetCDF not compiled in!!!

NetCDF not compiled in!!!
NetCDF not compiled in!!!
NetCDF not compiled in!!!
NetCDF not compiled in!!!
NetCDF not compiled in!!!
NetCDF not compiled in!!!
NetCDF not compiled in!!!
NetCDF not compiled in!!!
NetCDF not compiled in!!!
NetCDF not compiled in!!!NetCDF not compiled in!!!

NetCDF not compiled in!!!
NetCDF not compiled in!!!NetCDF not compiled in!!!

NetCDF not compiled in!!!
NetCDF not compiled in!!!NetCDF not compiled in!!!

NetCDF not compiled in!!!NetCDF not compiled in!!!

NetCDF not compiled in!!!
NetCDF not compiled in!!!NetCDF not compiled in!!!

NetCDF not compiled in!!!
NetCDF not compiled in!!!
NetCDF not compiled in!!!
NetCDF not compiled in!!!
NetCDF not compiled in!!!
NetCDF not compiled in!!!
NetCDF not compiled in!!!
NetCDF not compiled in!!!
NetCDF not compiled in!!!
NetCDF not compiled in!!!
NetCDF not compiled in!!!
NetCDF not compiled in!!!
NetCDF not compiled in!!!NetCDF not compiled in!!!NetCDF not compiled in!!!
NetCDF not compiled in!!!
NetCDF not compiled in!!!


NetCDF not compiled in!!!
NetCDF not compiled in!!!
NetCDF not compiled in!!!NetCDF not compiled in!!!

NetCDF not compiled in!!!NetCDF not compiled in!!!
NetCDF not compiled in!!!
NetCDF not compiled in!!!

NetCDF not compiled in!!!
NetCDF not compiled in!!!NetCDF not compiled in!!!NetCDF not compiled in!!!


NetCDF not compiled in!!!
NetCDF not compiled in!!!
NetCDF not compiled in!!!
NetCDF not compiled in!!!
NetCDF not compiled in!!!NetCDF not compiled in!!!

NetCDF not compiled in!!!
NetCDF not compiled in!!!
NetCDF not compiled in!!!NetCDF not compiled in!!!

NetCDF not compiled in!!!
NetCDF not compiled in!!!
NetCDF not compiled in!!!
NetCDF not compiled in!!!
NetCDF not compiled in!!!
NetCDF not compiled in!!!
NetCDF not compiled in!!!NetCDF not compiled in!!!

NetCDF not compiled in!!!
NetCDF not compiled in!!!
NetCDF not compiled in!!!
NetCDF not compiled in!!!
NetCDF not compiled in!!!
NetCDF not compiled in!!!NetCDF not compiled in!!!

NetCDF not compiled in!!!
NetCDF not compiled in!!!NetCDF not compiled in!!!
NetCDF not compiled in!!!

NetCDF not compiled in!!!NetCDF not compiled in!!!NetCDF not compiled in!!!

NetCDF not compiled in!!!
NetCDF not compiled in!!!
NetCDF not compiled in!!!NetCDF not compiled in!!!


NetCDF not compiled in!!!
NetCDF not compiled in!!!
NetCDF not compiled in!!!
NetCDF not compiled in!!!
NetCDF not compiled in!!!NetCDF not compiled in!!!

NetCDF not compiled in!!!
NetCDF not compiled in!!!
NetCDF not compiled in!!!
NetCDF not compiled in!!!
NetCDF not compiled in!!!
NetCDF not compiled in!!!
NetCDF not compiled in!!!
NetCDF not compiled in!!!
NetCDF not compiled in!!!
NetCDF not compiled in!!!NetCDF not compiled in!!!

NetCDF not compiled in!!!
NetCDF not compiled in!!!
NetCDF not compiled in!!!
NetCDF not compiled in!!!
0.0883883
0.0883883
0.0883883
0.0883883
0.0883883
0.0883883
0.0883883
0.0883883
0.0883883
0.0883883
0.0883883
0.0883883
0.0883883
0.0883883
0.0883883
0.0883883
0.0883883
0.0883883
0.0883883
0.0883883
0.0883883
0.0883883
0.0883883
0.0883883
0.0883883
0.0883883
0.0883883
0.0883883
0.0883883
0.0883883
0.0883883
0.0883883
0.0883883
0.0883883
0.0883883
0.0883883
0.0883883
0.0883883
0.0883883
0.0883883
0.0883883
0.0883883
0.0883883
0.0883883
0.0883883
0.0883883
0.0883883
0.0883883
0.0883883
0.0883883
0.0883883
0.0883883
0.0883883
0.0883883
0.0883883
0.0883883
0.0883883
0.0883883
0.0883883
0.0883883
0.0883883
0.0883883
0.0883883
0.0883883
0.0883883
0.0883883
0.0883883
0.0883883
0.0883883
0.0883883
0.0883883
0.0883883
0.0883883
0.0883883
0.0883883
0.0883883
0.0883883
0.0883883
0.0883883
0.0883883
0.0883883
0.0883883
0.0883883
0.0883883
0.0883883
0.0883883
0.0883883
0.0883883
0.0883883
0.0883883
0.0883883
0.0883883
0.0883883
0.0883883
0.0883883
0.0883883
0.0883883
0.0883883
0.0883883
0.0883883
0.0883883
0.0883883
0.0883883
0.0883883
0.0883883
0.0883883
0.0883883
0.0883883
0.0883883
0.0883883
0.0883883
0.0883883
0.0883883
0.0883883
0.0883883
0.0883883
0.0883883
0.0883883
0.0883883
0.0883883
0.0883883
0.0883883
0.0883883
0.0883883
0.0883883
0.0883883
0.0883883
0.0883883

++++++++++ MPI RANK 0 ++++++++++
10 TS (Timesteps)
0.220155 ST (SIMULATION_TIME)
0.0218639 TSS (Timestep size)
0.247906 RT (REAL_TIME)
655360 CP (Cells processed)
0.0247906 ASPT (Averaged Seconds per Timestep)
65536 CPST (Cells Processed in Average per Simulation Timestep)
2 ACPST (Averaged number of clusters per Simulation Timestep)
2.64358 MCPS (Million Cells per Second) (local)
2.64358 MCPSPT (Million Clusters per Second per Thread)
6.5 EDMBPT (CellData Megabyte per Timestep (RW))
262.196 EDMBPS (CellData Megabyte per Second (RW))
378 Flops per cell update (Matrix Multiplication)
0.999274 GFLOPS

++++++++++ MPI RANK 1 ++++++++++
SEND TO RANK 0
length: 572
SEND TO RANK 0
SEND TO RANK 0
length: SEND TO RANK 0
length: 573
SEND TO RANK 0
length: 573
SEND TO RANK 0
length: 572
SEND TO RANK 0
length: 573
SEND TO RANK 0
length: 573
SEND TO RANK 0
length: 572
SEND TO RANK 0
length: 573
SEND TO RANK 0
length: 572
SEND TO RANK 0
length: 573
SEND TO RANK 0
length: 573
SEND TO RANK 0
length: 572
SEND TO RANK 0
length: 573
SEND TO RANK 0
length: 573
SEND TO RANK 0
length: 572
SEND TO RANK 0
length: 573
SEND TO RANK 0
length: 572
SEND TO RANK 0
length: 573
SEND TO RANK 0
length: 573
SEND TO RANK 0
length: 572
SEND TO RANK 0
length: 573
SEND TO RANK 0
length: 573
SEND TO RANK 0
length: 572
SEND TO RANK 0
length: 573
SEND TO RANK 0
length: 572
SEND TO RANK 0
length: 573
SEND TO RANK 0
length: 573
SEND TO RANK 0
length: 573
SEND TO RANK 0
length: 573
SEND TO RANK 0
length: 573
SEND TO RANK 0
length: 573
SEND TO RANK 0
length: 573
SEND TO RANK 0
length: 572
SEND TO RANK 0
length: 573
SEND TO RANK 0
length: 573
SEND TO RANK 0
length: 572
SEND TO RANK 0
length: 573
SEND TO RANK 0
length: 573
SEND TO RANK 0
length: 572
SEND TO RANK 0
length: 573
SEND TO RANK 0
length: 572
SEND TO RANK 0
length: 573
SEND TO RANK 0
length: 572
SEND TO RANK 0
length: 572
SEND TO RANK 0
length: 573
SEND TO RANK 0
length: 572
SEND TO RANK 0
length: 572
SEND TO RANK 0
length: 572
SEND TO RANK 0
length: 572
SEND TO RANK 0
length: 572
SEND TO RANK 0
length: 573
SEND TO RANK 0
length: 573
SEND TO RANK 0
length: 573
SEND TO RANK 0
length: 572
SEND TO RANK 0
length: 572
SEND TO RANK 0
length: 572
SEND TO RANK 0
length: 573
SEND TO RANK 0
length: 572
SEND TO RANK 0
length: 572
10 TS (Timesteps)
0.220155 ST (SIMULATION_TIME)
0.0218639 TSS (Timestep size)
0.247907 RT (REAL_TIME)
655360 CP (Cells processed)
0.0247907 ASPT (Averaged Seconds per Timestep)
65536 CPST (Cells Processed in Average per Simulation Timestep)
2 ACPST (Averaged number of clusters per Simulation Timestep)
2.64357 MCPS (Million Cells per Second) (local)
2.64357 MCPSPT (Million Clusters per Second per Thread)
6.5 EDMBPT (CellData Megabyte per Timestep (RW))
262.195 EDMBPS (CellData Megabyte per Second (RW))
378 Flops per cell update (Matrix Multiplication)
0.99927 GFLOPS


++++++++++ MPI RANK 2 ++++++++++
SEND TO RANK 0
length: 573
SEND TO RANK 0
length: 572
10 TS (Timesteps)
0.220155 ST (SIMULATION_TIME)
0.0218639 TSS (Timestep size)
0.247907 RT (REAL_TIME)
655360 CP (Cells processed)
0.0247907 ASPT (Averaged Seconds per Timestep)
65536 CPST (Cells Processed in Average per Simulation Timestep)
2 ACPST (Averaged number of clusters per Simulation Timestep)
2.64357 MCPS (Million Cells per Second) (local)
2.64357 MCPSPT (Million Clusters per Second per Thread)
6.5 EDMBPT (CellData Megabyte per Timestep (RW))
262.195 EDMBPS (CellData Megabyte per Second (RW))
378 Flops per cell update (Matrix Multiplication)
0.99927 GFLOPS


++++++++++ MPI RANK 3 ++++++++++
10 TS (Timesteps)
0.220155 ST (SIMULATION_TIME)
0.0218639 TSS (Timestep size)
0.247907 RT (REAL_TIME)
655360 CP (Cells processed)
0.0247907 ASPT (Averaged Seconds per Timestep)
65536 CPST (Cells Processed in Average per Simulation Timestep)
2 ACPST (Averaged number of clusters per Simulation Timestep)
2.64357 MCPS (Million Cells per Second) (local)
2.64357 MCPSPT (Million Clusters per Second per Thread)
6.5 EDMBPT (CellData Megabyte per Timestep (RW))
262.195 EDMBPS (CellData Megabyte per Second (RW))
378 Flops per cell update (Matrix Multiplication)
0.99927 GFLOPS


++++++++++ MPI RANK 4 ++++++++++
10 TS (Timesteps)
0.220155 ST (SIMULATION_TIME)
0.0218639 TSS (Timestep size)
0.247907 RT (REAL_TIME)
655360 CP (Cells processed)
0.0247907 ASPT (Averaged Seconds per Timestep)
65536 CPST (Cells Processed in Average per Simulation Timestep)
2 ACPST (Averaged number of clusters per Simulation Timestep)
2.64357 MCPS (Million Cells per Second) (local)
2.64357 MCPSPT (Million Clusters per Second per Thread)
6.5 EDMBPT (CellData Megabyte per Timestep (RW))
262.195 EDMBPS (CellData Megabyte per Second (RW))
378 Flops per cell update (Matrix Multiplication)
0.99927 GFLOPS


++++++++++ MPI RANK 5 ++++++++++
10 TS (Timesteps)
0.220155 ST (SIMULATION_TIME)
0.0218639 TSS (Timestep size)
0.247908 RT (REAL_TIME)
655360 CP (Cells processed)
0.0247908 ASPT (Averaged Seconds per Timestep)
65536 CPST (Cells Processed in Average per Simulation Timestep)
2 ACPST (Averaged number of clusters per Simulation Timestep)
2.64356 MCPS (Million Cells per Second) (local)
2.64356 MCPSPT (Million Clusters per Second per Thread)
6.5 EDMBPT (CellData Megabyte per Timestep (RW))
262.194 EDMBPS (CellData Megabyte per Second (RW))
378 Flops per cell update (Matrix Multiplication)
0.999266 GFLOPS


++++++++++ MPI RANK 6 ++++++++++
SEND TO RANK 0
length: 573
10 TS (Timesteps)
0.220155 ST (SIMULATION_TIME)
0.0218639 TSS (Timestep size)
0.247907 RT (REAL_TIME)
655360 CP (Cells processed)
0.0247907 ASPT (Averaged Seconds per Timestep)
65536 CPST (Cells Processed in Average per Simulation Timestep)
2 ACPST (Averaged number of clusters per Simulation Timestep)
2.64357 MCPS (Million Cells per Second) (local)
2.64357 MCPSPT (Million Clusters per Second per Thread)
6.5 EDMBPT (CellData Megabyte per Timestep (RW))
262.195 EDMBPS (CellData Megabyte per Second (RW))
378 Flops per cell update (Matrix Multiplication)
0.99927 GFLOPS


++++++++++ MPI RANK 7 ++++++++++
10 TS (Timesteps)
0.220155 ST (SIMULATION_TIME)
0.0218639 TSS (Timestep size)
0.247907 RT (REAL_TIME)
655360 CP (Cells processed)
0.0247907 ASPT (Averaged Seconds per Timestep)
65536 CPST (Cells Processed in Average per Simulation Timestep)
2 ACPST (Averaged number of clusters per Simulation Timestep)
2.64357 MCPS (Million Cells per Second) (local)
2.64357 MCPSPT (Million Clusters per Second per Thread)
6.5 EDMBPT (CellData Megabyte per Timestep (RW))
262.195 EDMBPS (CellData Megabyte per Second (RW))
378 Flops per cell update (Matrix Multiplication)
0.99927 GFLOPS


++++++++++ MPI RANK 8 ++++++++++
10 TS (Timesteps)
0.220155 ST (SIMULATION_TIME)
0.0218639 TSS (Timestep size)
0.247907 RT (REAL_TIME)
655360 CP (Cells processed)
0.0247907 ASPT (Averaged Seconds per Timestep)
65536 CPST (Cells Processed in Average per Simulation Timestep)
2 ACPST (Averaged number of clusters per Simulation Timestep)
2.64357 MCPS (Million Cells per Second) (local)
2.64357 MCPSPT (Million Clusters per Second per Thread)
6.5 EDMBPT (CellData Megabyte per Timestep (RW))
262.195 EDMBPS (CellData Megabyte per Second (RW))
378 Flops per cell update (Matrix Multiplication)
0.99927 GFLOPS


++++++++++ MPI RANK 9 ++++++++++
10 TS (Timesteps)
0.220155 ST (SIMULATION_TIME)
0.0218639 TSS (Timestep size)
0.247908 RT (REAL_TIME)
655360 CP (Cells processed)
0.0247908 ASPT (Averaged Seconds per Timestep)
65536 CPST (Cells Processed in Average per Simulation Timestep)
2 ACPST (Averaged number of clusters per Simulation Timestep)
2.64356 MCPS (Million Cells per Second) (local)
2.64356 MCPSPT (Million Clusters per Second per Thread)
6.5 EDMBPT (CellData Megabyte per Timestep (RW))
262.194 EDMBPS (CellData Megabyte per Second (RW))
378 Flops per cell update (Matrix Multiplication)
0.999266 GFLOPS

SEND TO RANK 0
length: 573
SEND TO RANK 0
length: 573

++++++++++ MPI RANK 10 ++++++++++
10 TS (Timesteps)
0.220155 ST (SIMULATION_TIME)
0.0218639 TSS (Timestep size)
0.247907 RT (REAL_TIME)
655360 CP (Cells processed)
0.0247907 ASPT (Averaged Seconds per Timestep)
65536 CPST (Cells Processed in Average per Simulation Timestep)
2 ACPST (Averaged number of clusters per Simulation Timestep)
2.64357 MCPS (Million Cells per Second) (local)
2.64357 MCPSPT (Million Clusters per Second per Thread)
6.5 EDMBPT (CellData Megabyte per Timestep (RW))
262.195 EDMBPS (CellData Megabyte per Second (RW))
378 Flops per cell update (Matrix Multiplication)
0.99927 GFLOPS


++++++++++ MPI RANK 11 ++++++++++
10 TS (Timesteps)
0.220155 ST (SIMULATION_TIME)
0.0218639 TSS (Timestep size)
0.247907 RT (REAL_TIME)
655360 CP (Cells processed)
0.0247907 ASPT (Averaged Seconds per Timestep)
65536 CPST (Cells Processed in Average per Simulation Timestep)
2 ACPST (Averaged number of clusters per Simulation Timestep)
2.64357 MCPS (Million Cells per Second) (local)
2.64357 MCPSPT (Million Clusters per Second per Thread)
6.5 EDMBPT (CellData Megabyte per Timestep (RW))
262.195 EDMBPS (CellData Megabyte per Second (RW))
378 Flops per cell update (Matrix Multiplication)
0.99927 GFLOPS


++++++++++ MPI RANK 12 ++++++++++
10 TS (Timesteps)
0.220155 ST (SIMULATION_TIME)
0.0218639 TSS (Timestep size)
0.247908 RT (REAL_TIME)
655360 CP (Cells processed)
0.0247908 ASPT (Averaged Seconds per Timestep)
65536 CPST (Cells Processed in Average per Simulation Timestep)
2 ACPST (Averaged number of clusters per Simulation Timestep)
2.64356 MCPS (Million Cells per Second) (local)
2.64356 MCPSPT (Million Clusters per Second per Thread)
6.5 EDMBPT (CellData Megabyte per Timestep (RW))
262.194 EDMBPS (CellData Megabyte per Second (RW))
378 Flops per cell update (Matrix Multiplication)
0.999266 GFLOPS
SEND TO RANK 0
length: 573
SEND TO RANK 0
length: 572


++++++++++ MPI RANK 13 ++++++++++
10 TS (Timesteps)
0.220155 ST (SIMULATION_TIME)
0.0218639 TSS (Timestep size)
0.247908 RT (REAL_TIME)
655360 CP (Cells processed)
0.0247908 ASPT (Averaged Seconds per Timestep)
65536 CPST (Cells Processed in Average per Simulation Timestep)
2 ACPST (Averaged number of clusters per Simulation Timestep)
2.64356 MCPS (Million Cells per Second) (local)
2.64356 MCPSPT (Million Clusters per Second per Thread)
6.5 EDMBPT (CellData Megabyte per Timestep (RW))
262.194 EDMBPS (CellData Megabyte per Second (RW))
378 Flops per cell update (Matrix Multiplication)
0.999266 GFLOPS


++++++++++ MPI RANK 14 ++++++++++
10 TS (Timesteps)
0.220155 ST (SIMULATION_TIME)
0.0218639 TSS (Timestep size)
0.247907 RT (REAL_TIME)
655360 CP (Cells processed)
0.0247907 ASPT (Averaged Seconds per Timestep)
65536 CPST (Cells Processed in Average per Simulation Timestep)
2 ACPST (Averaged number of clusters per Simulation Timestep)
2.64357 MCPS (Million Cells per Second) (local)
2.64357 MCPSPT (Million Clusters per Second per Thread)
6.5 EDMBPT (CellData Megabyte per Timestep (RW))
262.195 EDMBPS (CellData Megabyte per Second (RW))
378 Flops per cell update (Matrix Multiplication)
0.99927 GFLOPS


++++++++++ MPI RANK 15 ++++++++++
10 TS (Timesteps)
0.220155 ST (SIMULATION_TIME)
0.0218639 TSS (Timestep size)
0.247908 RT (REAL_TIME)
655360 CP (Cells processed)
0.0247908 ASPT (Averaged Seconds per Timestep)
65536 CPST (Cells Processed in Average per Simulation Timestep)
2 ACPST (Averaged number of clusters per Simulation Timestep)
2.64356 MCPS (Million Cells per Second) (local)
2.64356 MCPSPT (Million Clusters per Second per Thread)
6.5 EDMBPT (CellData Megabyte per Timestep (RW))
262.194 EDMBPS (CellData Megabyte per Second (RW))
378 Flops per cell update (Matrix Multiplication)
0.999266 GFLOPS


SEND TO RANK 0
length: 573
SEND TO RANK 0
length: 573
SEND TO RANK 0
length: 573
SEND TO RANK 0
length: 573
++++++++++ MPI RANK 16 ++++++++++
10 TS (Timesteps)
0.220155 ST (SIMULATION_TIME)
0.0218639 TSS (Timestep size)
0.247908 RT (REAL_TIME)
655360 CP (Cells processed)
0.0247908 ASPT (Averaged Seconds per Timestep)
65536 CPST (Cells Processed in Average per Simulation Timestep)
2 ACPST (Averaged number of clusters per Simulation Timestep)
2.64356 MCPS (Million Cells per Second) (local)
2.64356 MCPSPT (Million Clusters per Second per Thread)
6.5 EDMBPT (CellData Megabyte per Timestep (RW))
262.194 EDMBPS (CellData Megabyte per Second (RW))
378 Flops per cell update (Matrix Multiplication)
0.999266 GFLOPS


++++++++++ MPI RANK 17 ++++++++++
SEND TO RANK 0
length: 573
SEND TO RANK 0
length: 573
SEND TO RANK 0
length: 572
SEND TO RANK 0
length: 573
SEND TO RANK 0
length: 573
SEND TO RANK 0
length: 573
SEND TO RANK 0
length: 573
SEND TO RANK 0
length: 573
SEND TO RANK 0
length: 573
SEND TO RANK 0
length: 573
SEND TO RANK 0
length: 573
SEND TO RANK 0
length: 572
SEND TO RANK 0
length: 573
SEND TO RANK 0
length: 573
SEND TO RANK 0
length: 573
SEND TO RANK 0
length: 573
SEND TO RANK 0
length: 573
SEND TO RANK 0
length: 573
SEND TO RANK 0
length: 573
SEND TO RANK 0
length: 573
SEND TO RANK 0
length: 571
SEND TO RANK 0
length: 573
SEND TO RANK 0
length: 573
SEND TO RANK 0
length: 572
SEND TO RANK 0
length: 573
SEND TO RANK 0
length: 573
572
SEND TO RANK 0
length: 573
SEND TO RANK 0
length: 573
SEND TO RANK 0
length: 573
SEND TO RANK 0
length: 573
SEND TO RANK 0
length: 573
SEND TO RANK 0
length: 573
SEND TO RANK 0
length: 573
SEND TO RANK 0
length: 573
SEND TO RANK 0
length: 572
SEND TO RANK 0
length: 573
SEND TO RANK 0
length: 573
SEND TO RANK 0
length: 573
SEND TO RANK 0
length: 573
SEND TO RANK 0
length: 571
SEND TO RANK 0
length: 573
SEND TO RANK 0
length: 573
SEND TO RANK 0
length: 573
SEND TO RANK 0
length: 573
SEND TO RANK 0
length: 573
SEND TO RANK 0
length: 573
SEND TO RANK 0
length: 573
SEND TO RANK 0
length: 571
SEND TO RANK 0
length: 573
SEND TO RANK 0
length: 573
SEND TO RANK 0
length: 573
SEND TO RANK 0
length: 571
SEND TO RANK 0
length: 573
SEND TO RANK 0
length: 573
SEND TO RANK 0
length: 571
length: 573
10 TS (Timesteps)
0.220155 ST (SIMULATION_TIME)
0.0218639 TSS (Timestep size)
0.247908 RT (REAL_TIME)
655360 CP (Cells processed)
0.0247908 ASPT (Averaged Seconds per Timestep)
65536 CPST (Cells Processed in Average per Simulation Timestep)
2 ACPST (Averaged number of clusters per Simulation Timestep)
2.64356 MCPS (Million Cells per Second) (local)
2.64356 MCPSPT (Million Clusters per Second per Thread)
6.5 EDMBPT (CellData Megabyte per Timestep (RW))
262.194 EDMBPS (CellData Megabyte per Second (RW))
378 Flops per cell update (Matrix Multiplication)
0.999266 GFLOPS


++++++++++ MPI RANK 18 ++++++++++
10 TS (Timesteps)
0.220155 ST (SIMULATION_TIME)
0.0218639 TSS (Timestep size)
0.247908 RT (REAL_TIME)
655360 CP (Cells processed)
0.0247908 ASPT (Averaged Seconds per Timestep)
65536 CPST (Cells Processed in Average per Simulation Timestep)
2 ACPST (Averaged number of clusters per Simulation Timestep)
2.64356 MCPS (Million Cells per Second) (local)
2.64356 MCPSPT (Million Clusters per Second per Thread)
6.5 EDMBPT (CellData Megabyte per Timestep (RW))
262.194 EDMBPS (CellData Megabyte per Second (RW))
378 Flops per cell update (Matrix Multiplication)
0.999266 GFLOPS


++++++++++ MPI RANK 19 ++++++++++
10 TS (Timesteps)
0.220155 ST (SIMULATION_TIME)
0.0218639 TSS (Timestep size)
0.247909 RT (REAL_TIME)
655360 CP (Cells processed)
0.0247909 ASPT (Averaged Seconds per Timestep)
65536 CPST (Cells Processed in Average per Simulation Timestep)
2 ACPST (Averaged number of clusters per Simulation Timestep)
2.64355 MCPS (Million Cells per Second) (local)
2.64355 MCPSPT (Million Clusters per Second per Thread)
6.5 EDMBPT (CellData Megabyte per Timestep (RW))
262.193 EDMBPS (CellData Megabyte per Second (RW))
378 Flops per cell update (Matrix Multiplication)
0.999262 GFLOPS


++++++++++ MPI RANK 20 ++++++++++
10 TS (Timesteps)
0.220155 ST (SIMULATION_TIME)
0.0218639 TSS (Timestep size)
0.247908 RT (REAL_TIME)
655360 CP (Cells processed)
0.0247908 ASPT (Averaged Seconds per Timestep)
65536 CPST (Cells Processed in Average per Simulation Timestep)
2 ACPST (Averaged number of clusters per Simulation Timestep)
2.64356 MCPS (Million Cells per Second) (local)
2.64356 MCPSPT (Million Clusters per Second per Thread)
6.5 EDMBPT (CellData Megabyte per Timestep (RW))
262.194 EDMBPS (CellData Megabyte per Second (RW))
378 Flops per cell update (Matrix Multiplication)
0.999266 GFLOPS


++++++++++ MPI RANK 21 ++++++++++
10 TS (Timesteps)
0.220155 ST (SIMULATION_TIME)
0.0218639 TSS (Timestep size)
0.247908 RT (REAL_TIME)
655360 CP (Cells processed)
0.0247908 ASPT (Averaged Seconds per Timestep)
65536 CPST (Cells Processed in Average per Simulation Timestep)
2 ACPST (Averaged number of clusters per Simulation Timestep)
2.64356 MCPS (Million Cells per Second) (local)
2.64356 MCPSPT (Million Clusters per Second per Thread)
6.5 EDMBPT (CellData Megabyte per Timestep (RW))
262.194 EDMBPS (CellData Megabyte per Second (RW))
378 Flops per cell update (Matrix Multiplication)
0.999266 GFLOPS


++++++++++ MPI RANK 22 ++++++++++
10 TS (Timesteps)
0.220155 ST (SIMULATION_TIME)
0.0218639 TSS (Timestep size)
0.247908 RT (REAL_TIME)
655360 CP (Cells processed)
0.0247908 ASPT (Averaged Seconds per Timestep)
65536 CPST (Cells Processed in Average per Simulation Timestep)
2 ACPST (Averaged number of clusters per Simulation Timestep)
2.64356 MCPS (Million Cells per Second) (local)
2.64356 MCPSPT (Million Clusters per Second per Thread)
6.5 EDMBPT (CellData Megabyte per Timestep (RW))
262.194 EDMBPS (CellData Megabyte per Second (RW))
378 Flops per cell update (Matrix Multiplication)
0.999266 GFLOPS


++++++++++ MPI RANK 23 ++++++++++
10 TS (Timesteps)
0.220155 ST (SIMULATION_TIME)
0.0218639 TSS (Timestep size)
0.247909 RT (REAL_TIME)
655360 CP (Cells processed)
0.0247909 ASPT (Averaged Seconds per Timestep)
65536 CPST (Cells Processed in Average per Simulation Timestep)
2 ACPST (Averaged number of clusters per Simulation Timestep)
2.64355 MCPS (Million Cells per Second) (local)
2.64355 MCPSPT (Million Clusters per Second per Thread)
6.5 EDMBPT (CellData Megabyte per Timestep (RW))
262.193 EDMBPS (CellData Megabyte per Second (RW))
378 Flops per cell update (Matrix Multiplication)
0.999262 GFLOPS


++++++++++ MPI RANK 24 ++++++++++
10 TS (Timesteps)
0.220155 ST (SIMULATION_TIME)
0.0218639 TSS (Timestep size)
0.247908 RT (REAL_TIME)
655360 CP (Cells processed)
0.0247908 ASPT (Averaged Seconds per Timestep)
65536 CPST (Cells Processed in Average per Simulation Timestep)
2 ACPST (Averaged number of clusters per Simulation Timestep)
2.64356 MCPS (Million Cells per Second) (local)
2.64356 MCPSPT (Million Clusters per Second per Thread)
6.5 EDMBPT (CellData Megabyte per Timestep (RW))
262.194 EDMBPS (CellData Megabyte per Second (RW))
378 Flops per cell update (Matrix Multiplication)
0.999266 GFLOPS


++++++++++ MPI RANK 25 ++++++++++
10 TS (Timesteps)
0.220155 ST (SIMULATION_TIME)
0.0218639 TSS (Timestep size)
0.247908 RT (REAL_TIME)
655360 CP (Cells processed)
0.0247908 ASPT (Averaged Seconds per Timestep)
65536 CPST (Cells Processed in Average per Simulation Timestep)
2 ACPST (Averaged number of clusters per Simulation Timestep)
2.64356 MCPS (Million Cells per Second) (local)
2.64356 MCPSPT (Million Clusters per Second per Thread)
6.5 EDMBPT (CellData Megabyte per Timestep (RW))
262.194 EDMBPS (CellData Megabyte per Second (RW))
378 Flops per cell update (Matrix Multiplication)
0.999266 GFLOPS


++++++++++ MPI RANK 26 ++++++++++
10 TS (Timesteps)
0.220155 ST (SIMULATION_TIME)
0.0218639 TSS (Timestep size)
0.247908 RT (REAL_TIME)
655360 CP (Cells processed)
0.0247908 ASPT (Averaged Seconds per Timestep)
65536 CPST (Cells Processed in Average per Simulation Timestep)
2 ACPST (Averaged number of clusters per Simulation Timestep)
2.64356 MCPS (Million Cells per Second) (local)
2.64356 MCPSPT (Million Clusters per Second per Thread)
6.5 EDMBPT (CellData Megabyte per Timestep (RW))
262.194 EDMBPS (CellData Megabyte per Second (RW))
378 Flops per cell update (Matrix Multiplication)
0.999266 GFLOPS


++++++++++ MPI RANK 27 ++++++++++
10 TS (Timesteps)
0.220155 ST (SIMULATION_TIME)
0.0218639 TSS (Timestep size)
0.247909 RT (REAL_TIME)
655360 CP (Cells processed)
0.0247909 ASPT (Averaged Seconds per Timestep)
65536 CPST (Cells Processed in Average per Simulation Timestep)
2 ACPST (Averaged number of clusters per Simulation Timestep)
2.64355 MCPS (Million Cells per Second) (local)
2.64355 MCPSPT (Million Clusters per Second per Thread)
6.5 EDMBPT (CellData Megabyte per Timestep (RW))
262.193 EDMBPS (CellData Megabyte per Second (RW))
378 Flops per cell update (Matrix Multiplication)
0.999262 GFLOPS


++++++++++ MPI RANK 28 ++++++++++
10 TS (Timesteps)
0.220155 ST (SIMULATION_TIME)
0.0218639 TSS (Timestep size)
0.247908 RT (REAL_TIME)
655360 CP (Cells processed)
0.0247908 ASPT (Averaged Seconds per Timestep)
65536 CPST (Cells Processed in Average per Simulation Timestep)
2 ACPST (Averaged number of clusters per Simulation Timestep)
2.64356 MCPS (Million Cells per Second) (local)
2.64356 MCPSPT (Million Clusters per Second per Thread)
6.5 EDMBPT (CellData Megabyte per Timestep (RW))
262.194 EDMBPS (CellData Megabyte per Second (RW))
378 Flops per cell update (Matrix Multiplication)
0.999266 GFLOPS


++++++++++ MPI RANK 29 ++++++++++
10 TS (Timesteps)
0.220155 ST (SIMULATION_TIME)
0.0218639 TSS (Timestep size)
0.247908 RT (REAL_TIME)
655360 CP (Cells processed)
0.0247908 ASPT (Averaged Seconds per Timestep)
65536 CPST (Cells Processed in Average per Simulation Timestep)
2 ACPST (Averaged number of clusters per Simulation Timestep)
2.64356 MCPS (Million Cells per Second) (local)
2.64356 MCPSPT (Million Clusters per Second per Thread)
6.5 EDMBPT (CellData Megabyte per Timestep (RW))
262.194 EDMBPS (CellData Megabyte per Second (RW))
378 Flops per cell update (Matrix Multiplication)
0.999266 GFLOPS


++++++++++ MPI RANK 30 ++++++++++
10 TS (Timesteps)
0.220155 ST (SIMULATION_TIME)
0.0218639 TSS (Timestep size)
0.247908 RT (REAL_TIME)
655360 CP (Cells processed)
0.0247908 ASPT (Averaged Seconds per Timestep)
65536 CPST (Cells Processed in Average per Simulation Timestep)
2 ACPST (Averaged number of clusters per Simulation Timestep)
2.64356 MCPS (Million Cells per Second) (local)
2.64356 MCPSPT (Million Clusters per Second per Thread)
6.5 EDMBPT (CellData Megabyte per Timestep (RW))
262.194 EDMBPS (CellData Megabyte per Second (RW))
378 Flops per cell update (Matrix Multiplication)
0.999266 GFLOPS


++++++++++ MPI RANK 31 ++++++++++
10 TS (Timesteps)
0.220155 ST (SIMULATION_TIME)
0.0218639 TSS (Timestep size)
0.247909 RT (REAL_TIME)
655360 CP (Cells processed)
0.0247909 ASPT (Averaged Seconds per Timestep)
65536 CPST (Cells Processed in Average per Simulation Timestep)
2 ACPST (Averaged number of clusters per Simulation Timestep)
2.64355 MCPS (Million Cells per Second) (local)
2.64355 MCPSPT (Million Clusters per Second per Thread)
6.5 EDMBPT (CellData Megabyte per Timestep (RW))
262.193 EDMBPS (CellData Megabyte per Second (RW))
378 Flops per cell update (Matrix Multiplication)
0.999262 GFLOPS


++++++++++ MPI RANK 32 ++++++++++
10 TS (Timesteps)
0.220155 ST (SIMULATION_TIME)
0.0218639 TSS (Timestep size)
0.247907 RT (REAL_TIME)
655360 CP (Cells processed)
0.0247907 ASPT (Averaged Seconds per Timestep)
65536 CPST (Cells Processed in Average per Simulation Timestep)
2 ACPST (Averaged number of clusters per Simulation Timestep)
2.64357 MCPS (Million Cells per Second) (local)
2.64357 MCPSPT (Million Clusters per Second per Thread)
6.5 EDMBPT (CellData Megabyte per Timestep (RW))
262.195 EDMBPS (CellData Megabyte per Second (RW))
378 Flops per cell update (Matrix Multiplication)
0.99927 GFLOPS


++++++++++ MPI RANK 33 ++++++++++
10 TS (Timesteps)
0.220155 ST (SIMULATION_TIME)
0.0218639 TSS (Timestep size)
0.247907 RT (REAL_TIME)
655360 CP (Cells processed)
0.0247907 ASPT (Averaged Seconds per Timestep)
65536 CPST (Cells Processed in Average per Simulation Timestep)
2 ACPST (Averaged number of clusters per Simulation Timestep)
2.64357 MCPS (Million Cells per Second) (local)
2.64357 MCPSPT (Million Clusters per Second per Thread)
6.5 EDMBPT (CellData Megabyte per Timestep (RW))
262.195 EDMBPS (CellData Megabyte per Second (RW))
378 Flops per cell update (Matrix Multiplication)
0.99927 GFLOPS


++++++++++ MPI RANK 34 ++++++++++
10 TS (Timesteps)
0.220155 ST (SIMULATION_TIME)
0.0218639 TSS (Timestep size)
0.247907 RT (REAL_TIME)
655360 CP (Cells processed)
0.0247907 ASPT (Averaged Seconds per Timestep)
65536 CPST (Cells Processed in Average per Simulation Timestep)
2 ACPST (Averaged number of clusters per Simulation Timestep)
2.64357 MCPS (Million Cells per Second) (local)
2.64357 MCPSPT (Million Clusters per Second per Thread)
6.5 EDMBPT (CellData Megabyte per Timestep (RW))
262.195 EDMBPS (CellData Megabyte per Second (RW))
378 Flops per cell update (Matrix Multiplication)
0.99927 GFLOPS


++++++++++ MPI RANK 35 ++++++++++
10 TS (Timesteps)
0.220155 ST (SIMULATION_TIME)
0.0218639 TSS (Timestep size)
0.247907 RT (REAL_TIME)
655360 CP (Cells processed)
0.0247907 ASPT (Averaged Seconds per Timestep)
65536 CPST (Cells Processed in Average per Simulation Timestep)
2 ACPST (Averaged number of clusters per Simulation Timestep)
2.64357 MCPS (Million Cells per Second) (local)
2.64357 MCPSPT (Million Clusters per Second per Thread)
6.5 EDMBPT (CellData Megabyte per Timestep (RW))
262.195 EDMBPS (CellData Megabyte per Second (RW))
378 Flops per cell update (Matrix Multiplication)
0.99927 GFLOPS


++++++++++ MPI RANK 36 ++++++++++
10 TS (Timesteps)
0.220155 ST (SIMULATION_TIME)
0.0218639 TSS (Timestep size)
0.247907 RT (REAL_TIME)
655360 CP (Cells processed)
0.0247907 ASPT (Averaged Seconds per Timestep)
65536 CPST (Cells Processed in Average per Simulation Timestep)
2 ACPST (Averaged number of clusters per Simulation Timestep)
2.64357 MCPS (Million Cells per Second) (local)
2.64357 MCPSPT (Million Clusters per Second per Thread)
6.5 EDMBPT (CellData Megabyte per Timestep (RW))
262.195 EDMBPS (CellData Megabyte per Second (RW))
378 Flops per cell update (Matrix Multiplication)
0.99927 GFLOPS


++++++++++ MPI RANK 37 ++++++++++
10 TS (Timesteps)
0.220155 ST (SIMULATION_TIME)
0.0218639 TSS (Timestep size)
0.247907 RT (REAL_TIME)
655360 CP (Cells processed)
0.0247907 ASPT (Averaged Seconds per Timestep)
65536 CPST (Cells Processed in Average per Simulation Timestep)
2 ACPST (Averaged number of clusters per Simulation Timestep)
2.64357 MCPS (Million Cells per Second) (local)
2.64357 MCPSPT (Million Clusters per Second per Thread)
6.5 EDMBPT (CellData Megabyte per Timestep (RW))
262.195 EDMBPS (CellData Megabyte per Second (RW))
378 Flops per cell update (Matrix Multiplication)
0.99927 GFLOPS


++++++++++ MPI RANK 38 ++++++++++
10 TS (Timesteps)
0.220155 ST (SIMULATION_TIME)
0.0218639 TSS (Timestep size)
0.247907 RT (REAL_TIME)
655360 CP (Cells processed)
0.0247907 ASPT (Averaged Seconds per Timestep)
65536 CPST (Cells Processed in Average per Simulation Timestep)
2 ACPST (Averaged number of clusters per Simulation Timestep)
2.64357 MCPS (Million Cells per Second) (local)
2.64357 MCPSPT (Million Clusters per Second per Thread)
6.5 EDMBPT (CellData Megabyte per Timestep (RW))
262.195 EDMBPS (CellData Megabyte per Second (RW))
378 Flops per cell update (Matrix Multiplication)
0.99927 GFLOPS


++++++++++ MPI RANK 39 ++++++++++
10 TS (Timesteps)
0.220155 ST (SIMULATION_TIME)
0.0218639 TSS (Timestep size)
0.247908 RT (REAL_TIME)
655360 CP (Cells processed)
0.0247908 ASPT (Averaged Seconds per Timestep)
65536 CPST (Cells Processed in Average per Simulation Timestep)
2 ACPST (Averaged number of clusters per Simulation Timestep)
2.64356 MCPS (Million Cells per Second) (local)
2.64356 MCPSPT (Million Clusters per Second per Thread)
6.5 EDMBPT (CellData Megabyte per Timestep (RW))
262.194 EDMBPS (CellData Megabyte per Second (RW))
378 Flops per cell update (Matrix Multiplication)
0.999266 GFLOPS


++++++++++ MPI RANK 40 ++++++++++
10 TS (Timesteps)
0.220155 ST (SIMULATION_TIME)
0.0218639 TSS (Timestep size)
0.247908 RT (REAL_TIME)
655360 CP (Cells processed)
0.0247908 ASPT (Averaged Seconds per Timestep)
65536 CPST (Cells Processed in Average per Simulation Timestep)
2 ACPST (Averaged number of clusters per Simulation Timestep)
2.64356 MCPS (Million Cells per Second) (local)
2.64356 MCPSPT (Million Clusters per Second per Thread)
6.5 EDMBPT (CellData Megabyte per Timestep (RW))
262.194 EDMBPS (CellData Megabyte per Second (RW))
378 Flops per cell update (Matrix Multiplication)
0.999266 GFLOPS


++++++++++ MPI RANK 41 ++++++++++
10 TS (Timesteps)
0.220155 ST (SIMULATION_TIME)
0.0218639 TSS (Timestep size)
0.247909 RT (REAL_TIME)
655360 CP (Cells processed)
0.0247909 ASPT (Averaged Seconds per Timestep)
65536 CPST (Cells Processed in Average per Simulation Timestep)
2 ACPST (Averaged number of clusters per Simulation Timestep)
2.64355 MCPS (Million Cells per Second) (local)
2.64355 MCPSPT (Million Clusters per Second per Thread)
6.5 EDMBPT (CellData Megabyte per Timestep (RW))
262.193 EDMBPS (CellData Megabyte per Second (RW))
378 Flops per cell update (Matrix Multiplication)
0.999262 GFLOPS


++++++++++ MPI RANK 42 ++++++++++
10 TS (Timesteps)
0.220155 ST (SIMULATION_TIME)
0.0218639 TSS (Timestep size)
0.247908 RT (REAL_TIME)
655360 CP (Cells processed)
0.0247908 ASPT (Averaged Seconds per Timestep)
65536 CPST (Cells Processed in Average per Simulation Timestep)
2 ACPST (Averaged number of clusters per Simulation Timestep)
2.64356 MCPS (Million Cells per Second) (local)
2.64356 MCPSPT (Million Clusters per Second per Thread)
6.5 EDMBPT (CellData Megabyte per Timestep (RW))
262.194 EDMBPS (CellData Megabyte per Second (RW))
378 Flops per cell update (Matrix Multiplication)
0.999266 GFLOPS


++++++++++ MPI RANK 43 ++++++++++
10 TS (Timesteps)
0.220155 ST (SIMULATION_TIME)
0.0218639 TSS (Timestep size)
0.247908 RT (REAL_TIME)
655360 CP (Cells processed)
0.0247908 ASPT (Averaged Seconds per Timestep)
65536 CPST (Cells Processed in Average per Simulation Timestep)
2 ACPST (Averaged number of clusters per Simulation Timestep)
2.64356 MCPS (Million Cells per Second) (local)
2.64356 MCPSPT (Million Clusters per Second per Thread)
6.5 EDMBPT (CellData Megabyte per Timestep (RW))
262.194 EDMBPS (CellData Megabyte per Second (RW))
378 Flops per cell update (Matrix Multiplication)
0.999266 GFLOPS


++++++++++ MPI RANK 44 ++++++++++
10 TS (Timesteps)
0.220155 ST (SIMULATION_TIME)
0.0218639 TSS (Timestep size)
0.247908 RT (REAL_TIME)
655360 CP (Cells processed)
0.0247908 ASPT (Averaged Seconds per Timestep)
65536 CPST (Cells Processed in Average per Simulation Timestep)
2 ACPST (Averaged number of clusters per Simulation Timestep)
2.64356 MCPS (Million Cells per Second) (local)
2.64356 MCPSPT (Million Clusters per Second per Thread)
6.5 EDMBPT (CellData Megabyte per Timestep (RW))
262.194 EDMBPS (CellData Megabyte per Second (RW))
378 Flops per cell update (Matrix Multiplication)
0.999266 GFLOPS


++++++++++ MPI RANK 45 ++++++++++
10 TS (Timesteps)
0.220155 ST (SIMULATION_TIME)
0.0218639 TSS (Timestep size)
0.247909 RT (REAL_TIME)
655360 CP (Cells processed)
0.0247909 ASPT (Averaged Seconds per Timestep)
65536 CPST (Cells Processed in Average per Simulation Timestep)
2 ACPST (Averaged number of clusters per Simulation Timestep)
2.64355 MCPS (Million Cells per Second) (local)
2.64355 MCPSPT (Million Clusters per Second per Thread)
6.5 EDMBPT (CellData Megabyte per Timestep (RW))
262.193 EDMBPS (CellData Megabyte per Second (RW))
378 Flops per cell update (Matrix Multiplication)
0.999262 GFLOPS


++++++++++ MPI RANK 46 ++++++++++
10 TS (Timesteps)
0.220155 ST (SIMULATION_TIME)
0.0218639 TSS (Timestep size)
0.247908 RT (REAL_TIME)
655360 CP (Cells processed)
0.0247908 ASPT (Averaged Seconds per Timestep)
65536 CPST (Cells Processed in Average per Simulation Timestep)
2 ACPST (Averaged number of clusters per Simulation Timestep)
2.64356 MCPS (Million Cells per Second) (local)
2.64356 MCPSPT (Million Clusters per Second per Thread)
6.5 EDMBPT (CellData Megabyte per Timestep (RW))
262.194 EDMBPS (CellData Megabyte per Second (RW))
378 Flops per cell update (Matrix Multiplication)
0.999266 GFLOPS


++++++++++ MPI RANK 47 ++++++++++
10 TS (Timesteps)
0.220155 ST (SIMULATION_TIME)
0.0218639 TSS (Timestep size)
0.24791 RT (REAL_TIME)
655360 CP (Cells processed)
0.024791 ASPT (Averaged Seconds per Timestep)
65536 CPST (Cells Processed in Average per Simulation Timestep)
2 ACPST (Averaged number of clusters per Simulation Timestep)
2.64354 MCPS (Million Cells per Second) (local)
2.64354 MCPSPT (Million Clusters per Second per Thread)
6.5 EDMBPT (CellData Megabyte per Timestep (RW))
262.192 EDMBPS (CellData Megabyte per Second (RW))
378 Flops per cell update (Matrix Multiplication)
0.999258 GFLOPS


++++++++++ MPI RANK 48 ++++++++++
10 TS (Timesteps)
0.220155 ST (SIMULATION_TIME)
0.0218639 TSS (Timestep size)
0.247908 RT (REAL_TIME)
655360 CP (Cells processed)
0.0247908 ASPT (Averaged Seconds per Timestep)
65536 CPST (Cells Processed in Average per Simulation Timestep)
2 ACPST (Averaged number of clusters per Simulation Timestep)
2.64356 MCPS (Million Cells per Second) (local)
2.64356 MCPSPT (Million Clusters per Second per Thread)
6.5 EDMBPT (CellData Megabyte per Timestep (RW))
262.194 EDMBPS (CellData Megabyte per Second (RW))
378 Flops per cell update (Matrix Multiplication)
0.999266 GFLOPS


++++++++++ MPI RANK 49 ++++++++++
10 TS (Timesteps)
0.220155 ST (SIMULATION_TIME)
0.0218639 TSS (Timestep size)
0.247908 RT (REAL_TIME)
655360 CP (Cells processed)
0.0247908 ASPT (Averaged Seconds per Timestep)
65536 CPST (Cells Processed in Average per Simulation Timestep)
2 ACPST (Averaged number of clusters per Simulation Timestep)
2.64356 MCPS (Million Cells per Second) (local)
2.64356 MCPSPT (Million Clusters per Second per Thread)
6.5 EDMBPT (CellData Megabyte per Timestep (RW))
262.194 EDMBPS (CellData Megabyte per Second (RW))
378 Flops per cell update (Matrix Multiplication)
0.999266 GFLOPS


++++++++++ MPI RANK 50 ++++++++++
10 TS (Timesteps)
0.220155 ST (SIMULATION_TIME)
0.0218639 TSS (Timestep size)
0.247908 RT (REAL_TIME)
655360 CP (Cells processed)
0.0247908 ASPT (Averaged Seconds per Timestep)
65536 CPST (Cells Processed in Average per Simulation Timestep)
2 ACPST (Averaged number of clusters per Simulation Timestep)
2.64356 MCPS (Million Cells per Second) (local)
2.64356 MCPSPT (Million Clusters per Second per Thread)
6.5 EDMBPT (CellData Megabyte per Timestep (RW))
262.194 EDMBPS (CellData Megabyte per Second (RW))
378 Flops per cell update (Matrix Multiplication)
0.999266 GFLOPS


++++++++++ MPI RANK 51 ++++++++++
10 TS (Timesteps)
0.220155 ST (SIMULATION_TIME)
0.0218639 TSS (Timestep size)
0.247908 RT (REAL_TIME)
655360 CP (Cells processed)
0.0247908 ASPT (Averaged Seconds per Timestep)
65536 CPST (Cells Processed in Average per Simulation Timestep)
2 ACPST (Averaged number of clusters per Simulation Timestep)
2.64356 MCPS (Million Cells per Second) (local)
2.64356 MCPSPT (Million Clusters per Second per Thread)
6.5 EDMBPT (CellData Megabyte per Timestep (RW))
262.194 EDMBPS (CellData Megabyte per Second (RW))
378 Flops per cell update (Matrix Multiplication)
0.999266 GFLOPS


++++++++++ MPI RANK 52 ++++++++++
10 TS (Timesteps)
0.220155 ST (SIMULATION_TIME)
0.0218639 TSS (Timestep size)
0.247908 RT (REAL_TIME)
655360 CP (Cells processed)
0.0247908 ASPT (Averaged Seconds per Timestep)
65536 CPST (Cells Processed in Average per Simulation Timestep)
2 ACPST (Averaged number of clusters per Simulation Timestep)
2.64356 MCPS (Million Cells per Second) (local)
2.64356 MCPSPT (Million Clusters per Second per Thread)
6.5 EDMBPT (CellData Megabyte per Timestep (RW))
262.194 EDMBPS (CellData Megabyte per Second (RW))
378 Flops per cell update (Matrix Multiplication)
0.999266 GFLOPS


++++++++++ MPI RANK 53 ++++++++++
10 TS (Timesteps)
0.220155 ST (SIMULATION_TIME)
0.0218639 TSS (Timestep size)
0.247909 RT (REAL_TIME)
655360 CP (Cells processed)
0.0247909 ASPT (Averaged Seconds per Timestep)
65536 CPST (Cells Processed in Average per Simulation Timestep)
2 ACPST (Averaged number of clusters per Simulation Timestep)
2.64355 MCPS (Million Cells per Second) (local)
2.64355 MCPSPT (Million Clusters per Second per Thread)
6.5 EDMBPT (CellData Megabyte per Timestep (RW))
262.193 EDMBPS (CellData Megabyte per Second (RW))
378 Flops per cell update (Matrix Multiplication)
0.999262 GFLOPS


++++++++++ MPI RANK 54 ++++++++++
10 TS (Timesteps)
0.220155 ST (SIMULATION_TIME)
0.0218639 TSS (Timestep size)
0.247908 RT (REAL_TIME)
655360 CP (Cells processed)
0.0247908 ASPT (Averaged Seconds per Timestep)
65536 CPST (Cells Processed in Average per Simulation Timestep)
2 ACPST (Averaged number of clusters per Simulation Timestep)
2.64356 MCPS (Million Cells per Second) (local)
2.64356 MCPSPT (Million Clusters per Second per Thread)
6.5 EDMBPT (CellData Megabyte per Timestep (RW))
262.194 EDMBPS (CellData Megabyte per Second (RW))
378 Flops per cell update (Matrix Multiplication)
0.999266 GFLOPS


++++++++++ MPI RANK 55 ++++++++++
10 TS (Timesteps)
0.220155 ST (SIMULATION_TIME)
0.0218639 TSS (Timestep size)
0.247909 RT (REAL_TIME)
655360 CP (Cells processed)
0.0247909 ASPT (Averaged Seconds per Timestep)
65536 CPST (Cells Processed in Average per Simulation Timestep)
2 ACPST (Averaged number of clusters per Simulation Timestep)
2.64355 MCPS (Million Cells per Second) (local)
2.64355 MCPSPT (Million Clusters per Second per Thread)
6.5 EDMBPT (CellData Megabyte per Timestep (RW))
262.193 EDMBPS (CellData Megabyte per Second (RW))
378 Flops per cell update (Matrix Multiplication)
0.999262 GFLOPS


++++++++++ MPI RANK 56 ++++++++++
10 TS (Timesteps)
0.220155 ST (SIMULATION_TIME)
0.0218639 TSS (Timestep size)
0.247909 RT (REAL_TIME)
655360 CP (Cells processed)
0.0247909 ASPT (Averaged Seconds per Timestep)
65536 CPST (Cells Processed in Average per Simulation Timestep)
2 ACPST (Averaged number of clusters per Simulation Timestep)
2.64355 MCPS (Million Cells per Second) (local)
2.64355 MCPSPT (Million Clusters per Second per Thread)
6.5 EDMBPT (CellData Megabyte per Timestep (RW))
262.193 EDMBPS (CellData Megabyte per Second (RW))
378 Flops per cell update (Matrix Multiplication)
0.999262 GFLOPS


++++++++++ MPI RANK 57 ++++++++++
10 TS (Timesteps)
0.220155 ST (SIMULATION_TIME)
0.0218639 TSS (Timestep size)
0.247909 RT (REAL_TIME)
655360 CP (Cells processed)
0.0247909 ASPT (Averaged Seconds per Timestep)
65536 CPST (Cells Processed in Average per Simulation Timestep)
2 ACPST (Averaged number of clusters per Simulation Timestep)
2.64355 MCPS (Million Cells per Second) (local)
2.64355 MCPSPT (Million Clusters per Second per Thread)
6.5 EDMBPT (CellData Megabyte per Timestep (RW))
262.193 EDMBPS (CellData Megabyte per Second (RW))
378 Flops per cell update (Matrix Multiplication)
0.999262 GFLOPS


++++++++++ MPI RANK 58 ++++++++++
10 TS (Timesteps)
0.220155 ST (SIMULATION_TIME)
0.0218639 TSS (Timestep size)
0.247909 RT (REAL_TIME)
655360 CP (Cells processed)
0.0247909 ASPT (Averaged Seconds per Timestep)
65536 CPST (Cells Processed in Average per Simulation Timestep)
2 ACPST (Averaged number of clusters per Simulation Timestep)
2.64355 MCPS (Million Cells per Second) (local)
2.64355 MCPSPT (Million Clusters per Second per Thread)
6.5 EDMBPT (CellData Megabyte per Timestep (RW))
262.193 EDMBPS (CellData Megabyte per Second (RW))
378 Flops per cell update (Matrix Multiplication)
0.999262 GFLOPS


++++++++++ MPI RANK 59 ++++++++++
10 TS (Timesteps)
0.220155 ST (SIMULATION_TIME)
0.0218639 TSS (Timestep size)
0.247909 RT (REAL_TIME)
655360 CP (Cells processed)
0.0247909 ASPT (Averaged Seconds per Timestep)
65536 CPST (Cells Processed in Average per Simulation Timestep)
2 ACPST (Averaged number of clusters per Simulation Timestep)
2.64355 MCPS (Million Cells per Second) (local)
2.64355 MCPSPT (Million Clusters per Second per Thread)
6.5 EDMBPT (CellData Megabyte per Timestep (RW))
262.193 EDMBPS (CellData Megabyte per Second (RW))
378 Flops per cell update (Matrix Multiplication)
0.999262 GFLOPS


++++++++++ MPI RANK 60 ++++++++++
10 TS (Timesteps)
0.220155 ST (SIMULATION_TIME)
0.0218639 TSS (Timestep size)
0.247908 RT (REAL_TIME)
655360 CP (Cells processed)
0.0247908 ASPT (Averaged Seconds per Timestep)
65536 CPST (Cells Processed in Average per Simulation Timestep)
2 ACPST (Averaged number of clusters per Simulation Timestep)
2.64356 MCPS (Million Cells per Second) (local)
2.64356 MCPSPT (Million Clusters per Second per Thread)
6.5 EDMBPT (CellData Megabyte per Timestep (RW))
262.194 EDMBPS (CellData Megabyte per Second (RW))
378 Flops per cell update (Matrix Multiplication)
0.999266 GFLOPS


++++++++++ MPI RANK 61 ++++++++++
10 TS (Timesteps)
0.220155 ST (SIMULATION_TIME)
0.0218639 TSS (Timestep size)
0.247909 RT (REAL_TIME)
655360 CP (Cells processed)
0.0247909 ASPT (Averaged Seconds per Timestep)
65536 CPST (Cells Processed in Average per Simulation Timestep)
2 ACPST (Averaged number of clusters per Simulation Timestep)
2.64355 MCPS (Million Cells per Second) (local)
2.64355 MCPSPT (Million Clusters per Second per Thread)
6.5 EDMBPT (CellData Megabyte per Timestep (RW))
262.193 EDMBPS (CellData Megabyte per Second (RW))
378 Flops per cell update (Matrix Multiplication)
0.999262 GFLOPS


++++++++++ MPI RANK 62 ++++++++++
10 TS (Timesteps)
0.220155 ST (SIMULATION_TIME)
0.0218639 TSS (Timestep size)
0.24791 RT (REAL_TIME)
655360 CP (Cells processed)
0.024791 ASPT (Averaged Seconds per Timestep)
65536 CPST (Cells Processed in Average per Simulation Timestep)
2 ACPST (Averaged number of clusters per Simulation Timestep)
2.64354 MCPS (Million Cells per Second) (local)
2.64354 MCPSPT (Million Clusters per Second per Thread)
6.5 EDMBPT (CellData Megabyte per Timestep (RW))
262.192 EDMBPS (CellData Megabyte per Second (RW))
378 Flops per cell update (Matrix Multiplication)
0.999258 GFLOPS


++++++++++ MPI RANK 63 ++++++++++
10 TS (Timesteps)
0.220155 ST (SIMULATION_TIME)
0.0218639 TSS (Timestep size)
0.247911 RT (REAL_TIME)
655360 CP (Cells processed)
0.0247911 ASPT (Averaged Seconds per Timestep)
65536 CPST (Cells Processed in Average per Simulation Timestep)
2 ACPST (Averaged number of clusters per Simulation Timestep)
2.64353 MCPS (Million Cells per Second) (local)
2.64353 MCPSPT (Million Clusters per Second per Thread)
6.5 EDMBPT (CellData Megabyte per Timestep (RW))
262.191 EDMBPS (CellData Megabyte per Second (RW))
378 Flops per cell update (Matrix Multiplication)
0.999254 GFLOPS


++++++++++ MPI RANK 64 ++++++++++
10 TS (Timesteps)
0.220155 ST (SIMULATION_TIME)
0.0218639 TSS (Timestep size)
0.247907 RT (REAL_TIME)
655360 CP (Cells processed)
0.0247907 ASPT (Averaged Seconds per Timestep)
65536 CPST (Cells Processed in Average per Simulation Timestep)
2 ACPST (Averaged number of clusters per Simulation Timestep)
2.64357 MCPS (Million Cells per Second) (local)
2.64357 MCPSPT (Million Clusters per Second per Thread)
6.5 EDMBPT (CellData Megabyte per Timestep (RW))
262.195 EDMBPS (CellData Megabyte per Second (RW))
378 Flops per cell update (Matrix Multiplication)
0.99927 GFLOPS


++++++++++ MPI RANK 65 ++++++++++
10 TS (Timesteps)
0.220155 ST (SIMULATION_TIME)
0.0218639 TSS (Timestep size)
0.247907 RT (REAL_TIME)
655360 CP (Cells processed)
0.0247907 ASPT (Averaged Seconds per Timestep)
65536 CPST (Cells Processed in Average per Simulation Timestep)
2 ACPST (Averaged number of clusters per Simulation Timestep)
2.64357 MCPS (Million Cells per Second) (local)
2.64357 MCPSPT (Million Clusters per Second per Thread)
6.5 EDMBPT (CellData Megabyte per Timestep (RW))
262.195 EDMBPS (CellData Megabyte per Second (RW))
378 Flops per cell update (Matrix Multiplication)
0.99927 GFLOPS


++++++++++ MPI RANK 66 ++++++++++
10 TS (Timesteps)
0.220155 ST (SIMULATION_TIME)
0.0218639 TSS (Timestep size)
0.247907 RT (REAL_TIME)
655360 CP (Cells processed)
0.0247907 ASPT (Averaged Seconds per Timestep)
65536 CPST (Cells Processed in Average per Simulation Timestep)
2 ACPST (Averaged number of clusters per Simulation Timestep)
2.64357 MCPS (Million Cells per Second) (local)
2.64357 MCPSPT (Million Clusters per Second per Thread)
6.5 EDMBPT (CellData Megabyte per Timestep (RW))
262.195 EDMBPS (CellData Megabyte per Second (RW))
378 Flops per cell update (Matrix Multiplication)
0.99927 GFLOPS


++++++++++ MPI RANK 67 ++++++++++
10 TS (Timesteps)
0.220155 ST (SIMULATION_TIME)
0.0218639 TSS (Timestep size)
0.247908 RT (REAL_TIME)
655360 CP (Cells processed)
0.0247908 ASPT (Averaged Seconds per Timestep)
65536 CPST (Cells Processed in Average per Simulation Timestep)
2 ACPST (Averaged number of clusters per Simulation Timestep)
2.64356 MCPS (Million Cells per Second) (local)
2.64356 MCPSPT (Million Clusters per Second per Thread)
6.5 EDMBPT (CellData Megabyte per Timestep (RW))
262.194 EDMBPS (CellData Megabyte per Second (RW))
378 Flops per cell update (Matrix Multiplication)
0.999266 GFLOPS


++++++++++ MPI RANK 68 ++++++++++
10 TS (Timesteps)
0.220155 ST (SIMULATION_TIME)
0.0218639 TSS (Timestep size)
0.247907 RT (REAL_TIME)
655360 CP (Cells processed)
0.0247907 ASPT (Averaged Seconds per Timestep)
65536 CPST (Cells Processed in Average per Simulation Timestep)
2 ACPST (Averaged number of clusters per Simulation Timestep)
2.64357 MCPS (Million Cells per Second) (local)
2.64357 MCPSPT (Million Clusters per Second per Thread)
6.5 EDMBPT (CellData Megabyte per Timestep (RW))
262.195 EDMBPS (CellData Megabyte per Second (RW))
378 Flops per cell update (Matrix Multiplication)
0.99927 GFLOPS


++++++++++ MPI RANK 69 ++++++++++
10 TS (Timesteps)
0.220155 ST (SIMULATION_TIME)
0.0218639 TSS (Timestep size)
0.247908 RT (REAL_TIME)
655360 CP (Cells processed)
0.0247908 ASPT (Averaged Seconds per Timestep)
65536 CPST (Cells Processed in Average per Simulation Timestep)
2 ACPST (Averaged number of clusters per Simulation Timestep)
2.64356 MCPS (Million Cells per Second) (local)
2.64356 MCPSPT (Million Clusters per Second per Thread)
6.5 EDMBPT (CellData Megabyte per Timestep (RW))
262.194 EDMBPS (CellData Megabyte per Second (RW))
378 Flops per cell update (Matrix Multiplication)
0.999266 GFLOPS


++++++++++ MPI RANK 70 ++++++++++
10 TS (Timesteps)
0.220155 ST (SIMULATION_TIME)
0.0218639 TSS (Timestep size)
0.247907 RT (REAL_TIME)
655360 CP (Cells processed)
0.0247907 ASPT (Averaged Seconds per Timestep)
65536 CPST (Cells Processed in Average per Simulation Timestep)
2 ACPST (Averaged number of clusters per Simulation Timestep)
2.64357 MCPS (Million Cells per Second) (local)
2.64357 MCPSPT (Million Clusters per Second per Thread)
6.5 EDMBPT (CellData Megabyte per Timestep (RW))
262.195 EDMBPS (CellData Megabyte per Second (RW))
378 Flops per cell update (Matrix Multiplication)
0.99927 GFLOPS


++++++++++ MPI RANK 71 ++++++++++
10 TS (Timesteps)
0.220155 ST (SIMULATION_TIME)
0.0218639 TSS (Timestep size)
0.247908 RT (REAL_TIME)
655360 CP (Cells processed)
0.0247908 ASPT (Averaged Seconds per Timestep)
65536 CPST (Cells Processed in Average per Simulation Timestep)
2 ACPST (Averaged number of clusters per Simulation Timestep)
2.64356 MCPS (Million Cells per Second) (local)
2.64356 MCPSPT (Million Clusters per Second per Thread)
6.5 EDMBPT (CellData Megabyte per Timestep (RW))
262.194 EDMBPS (CellData Megabyte per Second (RW))
378 Flops per cell update (Matrix Multiplication)
0.999266 GFLOPS


++++++++++ MPI RANK 72 ++++++++++
10 TS (Timesteps)
0.220155 ST (SIMULATION_TIME)
0.0218639 TSS (Timestep size)
0.247907 RT (REAL_TIME)
655360 CP (Cells processed)
0.0247907 ASPT (Averaged Seconds per Timestep)
65536 CPST (Cells Processed in Average per Simulation Timestep)
2 ACPST (Averaged number of clusters per Simulation Timestep)
2.64357 MCPS (Million Cells per Second) (local)
2.64357 MCPSPT (Million Clusters per Second per Thread)
6.5 EDMBPT (CellData Megabyte per Timestep (RW))
262.195 EDMBPS (CellData Megabyte per Second (RW))
378 Flops per cell update (Matrix Multiplication)
0.99927 GFLOPS


++++++++++ MPI RANK 73 ++++++++++
10 TS (Timesteps)
0.220155 ST (SIMULATION_TIME)
0.0218639 TSS (Timestep size)
0.247908 RT (REAL_TIME)
655360 CP (Cells processed)
0.0247908 ASPT (Averaged Seconds per Timestep)
65536 CPST (Cells Processed in Average per Simulation Timestep)
2 ACPST (Averaged number of clusters per Simulation Timestep)
2.64356 MCPS (Million Cells per Second) (local)
2.64356 MCPSPT (Million Clusters per Second per Thread)
6.5 EDMBPT (CellData Megabyte per Timestep (RW))
262.194 EDMBPS (CellData Megabyte per Second (RW))
378 Flops per cell update (Matrix Multiplication)
0.999266 GFLOPS


++++++++++ MPI RANK 74 ++++++++++
10 TS (Timesteps)
0.220155 ST (SIMULATION_TIME)
0.0218639 TSS (Timestep size)
0.247907 RT (REAL_TIME)
655360 CP (Cells processed)
0.0247907 ASPT (Averaged Seconds per Timestep)
65536 CPST (Cells Processed in Average per Simulation Timestep)
2 ACPST (Averaged number of clusters per Simulation Timestep)
2.64357 MCPS (Million Cells per Second) (local)
2.64357 MCPSPT (Million Clusters per Second per Thread)
6.5 EDMBPT (CellData Megabyte per Timestep (RW))
262.195 EDMBPS (CellData Megabyte per Second (RW))
378 Flops per cell update (Matrix Multiplication)
0.99927 GFLOPS


++++++++++ MPI RANK 75 ++++++++++
10 TS (Timesteps)
0.220155 ST (SIMULATION_TIME)
0.0218639 TSS (Timestep size)
0.247909 RT (REAL_TIME)
655360 CP (Cells processed)
0.0247909 ASPT (Averaged Seconds per Timestep)
65536 CPST (Cells Processed in Average per Simulation Timestep)
2 ACPST (Averaged number of clusters per Simulation Timestep)
2.64355 MCPS (Million Cells per Second) (local)
2.64355 MCPSPT (Million Clusters per Second per Thread)
6.5 EDMBPT (CellData Megabyte per Timestep (RW))
262.193 EDMBPS (CellData Megabyte per Second (RW))
378 Flops per cell update (Matrix Multiplication)
0.999262 GFLOPS


++++++++++ MPI RANK 76 ++++++++++
10 TS (Timesteps)
0.220155 ST (SIMULATION_TIME)
0.0218639 TSS (Timestep size)
0.247907 RT (REAL_TIME)
655360 CP (Cells processed)
0.0247907 ASPT (Averaged Seconds per Timestep)
65536 CPST (Cells Processed in Average per Simulation Timestep)
2 ACPST (Averaged number of clusters per Simulation Timestep)
2.64357 MCPS (Million Cells per Second) (local)
2.64357 MCPSPT (Million Clusters per Second per Thread)
6.5 EDMBPT (CellData Megabyte per Timestep (RW))
262.195 EDMBPS (CellData Megabyte per Second (RW))
378 Flops per cell update (Matrix Multiplication)
0.99927 GFLOPS


++++++++++ MPI RANK 77 ++++++++++
10 TS (Timesteps)
0.220155 ST (SIMULATION_TIME)
0.0218639 TSS (Timestep size)
0.247909 RT (REAL_TIME)
655360 CP (Cells processed)
0.0247909 ASPT (Averaged Seconds per Timestep)
65536 CPST (Cells Processed in Average per Simulation Timestep)
2 ACPST (Averaged number of clusters per Simulation Timestep)
2.64355 MCPS (Million Cells per Second) (local)
2.64355 MCPSPT (Million Clusters per Second per Thread)
6.5 EDMBPT (CellData Megabyte per Timestep (RW))
262.193 EDMBPS (CellData Megabyte per Second (RW))
378 Flops per cell update (Matrix Multiplication)
0.999262 GFLOPS


++++++++++ MPI RANK 78 ++++++++++
10 TS (Timesteps)
0.220155 ST (SIMULATION_TIME)
0.0218639 TSS (Timestep size)
0.247908 RT (REAL_TIME)
655360 CP (Cells processed)
0.0247908 ASPT (Averaged Seconds per Timestep)
65536 CPST (Cells Processed in Average per Simulation Timestep)
2 ACPST (Averaged number of clusters per Simulation Timestep)
2.64356 MCPS (Million Cells per Second) (local)
2.64356 MCPSPT (Million Clusters per Second per Thread)
6.5 EDMBPT (CellData Megabyte per Timestep (RW))
262.194 EDMBPS (CellData Megabyte per Second (RW))
378 Flops per cell update (Matrix Multiplication)
0.999266 GFLOPS


++++++++++ MPI RANK 79 ++++++++++
10 TS (Timesteps)
0.220155 ST (SIMULATION_TIME)
0.0218639 TSS (Timestep size)
0.247908 RT (REAL_TIME)
655360 CP (Cells processed)
0.0247908 ASPT (Averaged Seconds per Timestep)
65536 CPST (Cells Processed in Average per Simulation Timestep)
2 ACPST (Averaged number of clusters per Simulation Timestep)
2.64356 MCPS (Million Cells per Second) (local)
2.64356 MCPSPT (Million Clusters per Second per Thread)
6.5 EDMBPT (CellData Megabyte per Timestep (RW))
262.194 EDMBPS (CellData Megabyte per Second (RW))
378 Flops per cell update (Matrix Multiplication)
0.999266 GFLOPS


++++++++++ MPI RANK 80 ++++++++++
10 TS (Timesteps)
0.220155 ST (SIMULATION_TIME)
0.0218639 TSS (Timestep size)
0.247908 RT (REAL_TIME)
655360 CP (Cells processed)
0.0247908 ASPT (Averaged Seconds per Timestep)
65536 CPST (Cells Processed in Average per Simulation Timestep)
2 ACPST (Averaged number of clusters per Simulation Timestep)
2.64356 MCPS (Million Cells per Second) (local)
2.64356 MCPSPT (Million Clusters per Second per Thread)
6.5 EDMBPT (CellData Megabyte per Timestep (RW))
262.194 EDMBPS (CellData Megabyte per Second (RW))
378 Flops per cell update (Matrix Multiplication)
0.999266 GFLOPS


++++++++++ MPI RANK 81 ++++++++++
10 TS (Timesteps)
0.220155 ST (SIMULATION_TIME)
0.0218639 TSS (Timestep size)
0.247908 RT (REAL_TIME)
655360 CP (Cells processed)
0.0247908 ASPT (Averaged Seconds per Timestep)
65536 CPST (Cells Processed in Average per Simulation Timestep)
2 ACPST (Averaged number of clusters per Simulation Timestep)
2.64356 MCPS (Million Cells per Second) (local)
2.64356 MCPSPT (Million Clusters per Second per Thread)
6.5 EDMBPT (CellData Megabyte per Timestep (RW))
262.194 EDMBPS (CellData Megabyte per Second (RW))
378 Flops per cell update (Matrix Multiplication)
0.999266 GFLOPS


++++++++++ MPI RANK 82 ++++++++++
10 TS (Timesteps)
0.220155 ST (SIMULATION_TIME)
0.0218639 TSS (Timestep size)
0.247908 RT (REAL_TIME)
655360 CP (Cells processed)
0.0247908 ASPT (Averaged Seconds per Timestep)
65536 CPST (Cells Processed in Average per Simulation Timestep)
2 ACPST (Averaged number of clusters per Simulation Timestep)
2.64356 MCPS (Million Cells per Second) (local)
2.64356 MCPSPT (Million Clusters per Second per Thread)
6.5 EDMBPT (CellData Megabyte per Timestep (RW))
262.194 EDMBPS (CellData Megabyte per Second (RW))
378 Flops per cell update (Matrix Multiplication)
0.999266 GFLOPS


++++++++++ MPI RANK 83 ++++++++++
10 TS (Timesteps)
0.220155 ST (SIMULATION_TIME)
0.0218639 TSS (Timestep size)
0.247908 RT (REAL_TIME)
655360 CP (Cells processed)
0.0247908 ASPT (Averaged Seconds per Timestep)
65536 CPST (Cells Processed in Average per Simulation Timestep)
2 ACPST (Averaged number of clusters per Simulation Timestep)
2.64356 MCPS (Million Cells per Second) (local)
2.64356 MCPSPT (Million Clusters per Second per Thread)
6.5 EDMBPT (CellData Megabyte per Timestep (RW))
262.194 EDMBPS (CellData Megabyte per Second (RW))
378 Flops per cell update (Matrix Multiplication)
0.999266 GFLOPS


++++++++++ MPI RANK 84 ++++++++++
10 TS (Timesteps)
0.220155 ST (SIMULATION_TIME)
0.0218639 TSS (Timestep size)
0.247908 RT (REAL_TIME)
655360 CP (Cells processed)
0.0247908 ASPT (Averaged Seconds per Timestep)
65536 CPST (Cells Processed in Average per Simulation Timestep)
2 ACPST (Averaged number of clusters per Simulation Timestep)
2.64356 MCPS (Million Cells per Second) (local)
2.64356 MCPSPT (Million Clusters per Second per Thread)
6.5 EDMBPT (CellData Megabyte per Timestep (RW))
262.194 EDMBPS (CellData Megabyte per Second (RW))
378 Flops per cell update (Matrix Multiplication)
0.999266 GFLOPS


++++++++++ MPI RANK 85 ++++++++++
10 TS (Timesteps)
0.220155 ST (SIMULATION_TIME)
0.0218639 TSS (Timestep size)
0.247908 RT (REAL_TIME)
655360 CP (Cells processed)
0.0247908 ASPT (Averaged Seconds per Timestep)
65536 CPST (Cells Processed in Average per Simulation Timestep)
2 ACPST (Averaged number of clusters per Simulation Timestep)
2.64356 MCPS (Million Cells per Second) (local)
2.64356 MCPSPT (Million Clusters per Second per Thread)
6.5 EDMBPT (CellData Megabyte per Timestep (RW))
262.194 EDMBPS (CellData Megabyte per Second (RW))
378 Flops per cell update (Matrix Multiplication)
0.999266 GFLOPS


++++++++++ MPI RANK 86 ++++++++++
10 TS (Timesteps)
0.220155 ST (SIMULATION_TIME)
0.0218639 TSS (Timestep size)
0.247908 RT (REAL_TIME)
655360 CP (Cells processed)
0.0247908 ASPT (Averaged Seconds per Timestep)
65536 CPST (Cells Processed in Average per Simulation Timestep)
2 ACPST (Averaged number of clusters per Simulation Timestep)
2.64356 MCPS (Million Cells per Second) (local)
2.64356 MCPSPT (Million Clusters per Second per Thread)
6.5 EDMBPT (CellData Megabyte per Timestep (RW))
262.194 EDMBPS (CellData Megabyte per Second (RW))
378 Flops per cell update (Matrix Multiplication)
0.999266 GFLOPS


++++++++++ MPI RANK 87 ++++++++++
10 TS (Timesteps)
0.220155 ST (SIMULATION_TIME)
0.0218639 TSS (Timestep size)
0.247908 RT (REAL_TIME)
655360 CP (Cells processed)
0.0247908 ASPT (Averaged Seconds per Timestep)
65536 CPST (Cells Processed in Average per Simulation Timestep)
2 ACPST (Averaged number of clusters per Simulation Timestep)
2.64356 MCPS (Million Cells per Second) (local)
2.64356 MCPSPT (Million Clusters per Second per Thread)
6.5 EDMBPT (CellData Megabyte per Timestep (RW))
262.194 EDMBPS (CellData Megabyte per Second (RW))
378 Flops per cell update (Matrix Multiplication)
0.999266 GFLOPS


++++++++++ MPI RANK 88 ++++++++++
10 TS (Timesteps)
0.220155 ST (SIMULATION_TIME)
0.0218639 TSS (Timestep size)
0.247909 RT (REAL_TIME)
655360 CP (Cells processed)
0.0247909 ASPT (Averaged Seconds per Timestep)
65536 CPST (Cells Processed in Average per Simulation Timestep)
2 ACPST (Averaged number of clusters per Simulation Timestep)
2.64355 MCPS (Million Cells per Second) (local)
2.64355 MCPSPT (Million Clusters per Second per Thread)
6.5 EDMBPT (CellData Megabyte per Timestep (RW))
262.193 EDMBPS (CellData Megabyte per Second (RW))
378 Flops per cell update (Matrix Multiplication)
0.999262 GFLOPS


++++++++++ MPI RANK 89 ++++++++++
10 TS (Timesteps)
0.220155 ST (SIMULATION_TIME)
0.0218639 TSS (Timestep size)
0.247909 RT (REAL_TIME)
655360 CP (Cells processed)
0.0247909 ASPT (Averaged Seconds per Timestep)
65536 CPST (Cells Processed in Average per Simulation Timestep)
2 ACPST (Averaged number of clusters per Simulation Timestep)
2.64355 MCPS (Million Cells per Second) (local)
2.64355 MCPSPT (Million Clusters per Second per Thread)
6.5 EDMBPT (CellData Megabyte per Timestep (RW))
262.193 EDMBPS (CellData Megabyte per Second (RW))
378 Flops per cell update (Matrix Multiplication)
0.999262 GFLOPS


++++++++++ MPI RANK 90 ++++++++++
10 TS (Timesteps)
0.220155 ST (SIMULATION_TIME)
0.0218639 TSS (Timestep size)
0.247909 RT (REAL_TIME)
655360 CP (Cells processed)
0.0247909 ASPT (Averaged Seconds per Timestep)
65536 CPST (Cells Processed in Average per Simulation Timestep)
2 ACPST (Averaged number of clusters per Simulation Timestep)
2.64355 MCPS (Million Cells per Second) (local)
2.64355 MCPSPT (Million Clusters per Second per Thread)
6.5 EDMBPT (CellData Megabyte per Timestep (RW))
262.193 EDMBPS (CellData Megabyte per Second (RW))
378 Flops per cell update (Matrix Multiplication)
0.999262 GFLOPS


++++++++++ MPI RANK 91 ++++++++++
10 TS (Timesteps)
0.220155 ST (SIMULATION_TIME)
0.0218639 TSS (Timestep size)
0.247909 RT (REAL_TIME)
655360 CP (Cells processed)
0.0247909 ASPT (Averaged Seconds per Timestep)
65536 CPST (Cells Processed in Average per Simulation Timestep)
2 ACPST (Averaged number of clusters per Simulation Timestep)
2.64355 MCPS (Million Cells per Second) (local)
2.64355 MCPSPT (Million Clusters per Second per Thread)
6.5 EDMBPT (CellData Megabyte per Timestep (RW))
262.193 EDMBPS (CellData Megabyte per Second (RW))
378 Flops per cell update (Matrix Multiplication)
0.999262 GFLOPS


++++++++++ MPI RANK 92 ++++++++++
10 TS (Timesteps)
0.220155 ST (SIMULATION_TIME)
0.0218639 TSS (Timestep size)
0.247909 RT (REAL_TIME)
655360 CP (Cells processed)
0.0247909 ASPT (Averaged Seconds per Timestep)
65536 CPST (Cells Processed in Average per Simulation Timestep)
2 ACPST (Averaged number of clusters per Simulation Timestep)
2.64355 MCPS (Million Cells per Second) (local)
2.64355 MCPSPT (Million Clusters per Second per Thread)
6.5 EDMBPT (CellData Megabyte per Timestep (RW))
262.193 EDMBPS (CellData Megabyte per Second (RW))
378 Flops per cell update (Matrix Multiplication)
0.999262 GFLOPS


++++++++++ MPI RANK 93 ++++++++++
10 TS (Timesteps)
0.220155 ST (SIMULATION_TIME)
0.0218639 TSS (Timestep size)
0.247909 RT (REAL_TIME)
655360 CP (Cells processed)
0.0247909 ASPT (Averaged Seconds per Timestep)
65536 CPST (Cells Processed in Average per Simulation Timestep)
2 ACPST (Averaged number of clusters per Simulation Timestep)
2.64355 MCPS (Million Cells per Second) (local)
2.64355 MCPSPT (Million Clusters per Second per Thread)
6.5 EDMBPT (CellData Megabyte per Timestep (RW))
262.193 EDMBPS (CellData Megabyte per Second (RW))
378 Flops per cell update (Matrix Multiplication)
0.999262 GFLOPS


++++++++++ MPI RANK 94 ++++++++++
10 TS (Timesteps)
0.220155 ST (SIMULATION_TIME)
0.0218639 TSS (Timestep size)
0.247909 RT (REAL_TIME)
655360 CP (Cells processed)
0.0247909 ASPT (Averaged Seconds per Timestep)
65536 CPST (Cells Processed in Average per Simulation Timestep)
2 ACPST (Averaged number of clusters per Simulation Timestep)
2.64355 MCPS (Million Cells per Second) (local)
2.64355 MCPSPT (Million Clusters per Second per Thread)
6.5 EDMBPT (CellData Megabyte per Timestep (RW))
262.193 EDMBPS (CellData Megabyte per Second (RW))
378 Flops per cell update (Matrix Multiplication)
0.999262 GFLOPS


++++++++++ MPI RANK 95 ++++++++++
10 TS (Timesteps)
0.220155 ST (SIMULATION_TIME)
0.0218639 TSS (Timestep size)
0.24791 RT (REAL_TIME)
655360 CP (Cells processed)
0.024791 ASPT (Averaged Seconds per Timestep)
65536 CPST (Cells Processed in Average per Simulation Timestep)
2 ACPST (Averaged number of clusters per Simulation Timestep)
2.64354 MCPS (Million Cells per Second) (local)
2.64354 MCPSPT (Million Clusters per Second per Thread)
6.5 EDMBPT (CellData Megabyte per Timestep (RW))
262.192 EDMBPS (CellData Megabyte per Second (RW))
378 Flops per cell update (Matrix Multiplication)
0.999258 GFLOPS


++++++++++ MPI RANK 96 ++++++++++
10 TS (Timesteps)
0.220155 ST (SIMULATION_TIME)
0.0218639 TSS (Timestep size)
0.247906 RT (REAL_TIME)
655360 CP (Cells processed)
0.0247906 ASPT (Averaged Seconds per Timestep)
65536 CPST (Cells Processed in Average per Simulation Timestep)
2 ACPST (Averaged number of clusters per Simulation Timestep)
2.64358 MCPS (Million Cells per Second) (local)
2.64358 MCPSPT (Million Clusters per Second per Thread)
6.5 EDMBPT (CellData Megabyte per Timestep (RW))
262.196 EDMBPS (CellData Megabyte per Second (RW))
378 Flops per cell update (Matrix Multiplication)
0.999274 GFLOPS


++++++++++ MPI RANK 97 ++++++++++
10 TS (Timesteps)
0.220155 ST (SIMULATION_TIME)
0.0218639 TSS (Timestep size)
0.247906 RT (REAL_TIME)
655360 CP (Cells processed)
0.0247906 ASPT (Averaged Seconds per Timestep)
65536 CPST (Cells Processed in Average per Simulation Timestep)
2 ACPST (Averaged number of clusters per Simulation Timestep)
2.64358 MCPS (Million Cells per Second) (local)
2.64358 MCPSPT (Million Clusters per Second per Thread)
6.5 EDMBPT (CellData Megabyte per Timestep (RW))
262.196 EDMBPS (CellData Megabyte per Second (RW))
378 Flops per cell update (Matrix Multiplication)
0.999274 GFLOPS


++++++++++ MPI RANK 98 ++++++++++
10 TS (Timesteps)
0.220155 ST (SIMULATION_TIME)
0.0218639 TSS (Timestep size)
0.247906 RT (REAL_TIME)
655360 CP (Cells processed)
0.0247906 ASPT (Averaged Seconds per Timestep)
65536 CPST (Cells Processed in Average per Simulation Timestep)
2 ACPST (Averaged number of clusters per Simulation Timestep)
2.64358 MCPS (Million Cells per Second) (local)
2.64358 MCPSPT (Million Clusters per Second per Thread)
6.5 EDMBPT (CellData Megabyte per Timestep (RW))
262.196 EDMBPS (CellData Megabyte per Second (RW))
378 Flops per cell update (Matrix Multiplication)
0.999274 GFLOPS


++++++++++ MPI RANK 99 ++++++++++
10 TS (Timesteps)
0.220155 ST (SIMULATION_TIME)
0.0218639 TSS (Timestep size)
0.247906 RT (REAL_TIME)
655360 CP (Cells processed)
0.0247906 ASPT (Averaged Seconds per Timestep)
65536 CPST (Cells Processed in Average per Simulation Timestep)
2 ACPST (Averaged number of clusters per Simulation Timestep)
2.64358 MCPS (Million Cells per Second) (local)
2.64358 MCPSPT (Million Clusters per Second per Thread)
6.5 EDMBPT (CellData Megabyte per Timestep (RW))
262.196 EDMBPS (CellData Megabyte per Second (RW))
378 Flops per cell update (Matrix Multiplication)
0.999274 GFLOPS


++++++++++ MPI RANK 100 ++++++++++
10 TS (Timesteps)
0.220155 ST (SIMULATION_TIME)
0.0218639 TSS (Timestep size)
0.247906 RT (REAL_TIME)
655360 CP (Cells processed)
0.0247906 ASPT (Averaged Seconds per Timestep)
65536 CPST (Cells Processed in Average per Simulation Timestep)
2 ACPST (Averaged number of clusters per Simulation Timestep)
2.64358 MCPS (Million Cells per Second) (local)
2.64358 MCPSPT (Million Clusters per Second per Thread)
6.5 EDMBPT (CellData Megabyte per Timestep (RW))
262.196 EDMBPS (CellData Megabyte per Second (RW))
378 Flops per cell update (Matrix Multiplication)
0.999274 GFLOPS


++++++++++ MPI RANK 101 ++++++++++
10 TS (Timesteps)
0.220155 ST (SIMULATION_TIME)
0.0218639 TSS (Timestep size)
0.247906 RT (REAL_TIME)
655360 CP (Cells processed)
0.0247906 ASPT (Averaged Seconds per Timestep)
65536 CPST (Cells Processed in Average per Simulation Timestep)
2 ACPST (Averaged number of clusters per Simulation Timestep)
2.64358 MCPS (Million Cells per Second) (local)
2.64358 MCPSPT (Million Clusters per Second per Thread)
6.5 EDMBPT (CellData Megabyte per Timestep (RW))
262.196 EDMBPS (CellData Megabyte per Second (RW))
378 Flops per cell update (Matrix Multiplication)
0.999274 GFLOPS


++++++++++ MPI RANK 102 ++++++++++
10 TS (Timesteps)
0.220155 ST (SIMULATION_TIME)
0.0218639 TSS (Timestep size)
0.247906 RT (REAL_TIME)
655360 CP (Cells processed)
0.0247906 ASPT (Averaged Seconds per Timestep)
65536 CPST (Cells Processed in Average per Simulation Timestep)
2 ACPST (Averaged number of clusters per Simulation Timestep)
2.64358 MCPS (Million Cells per Second) (local)
2.64358 MCPSPT (Million Clusters per Second per Thread)
6.5 EDMBPT (CellData Megabyte per Timestep (RW))
262.196 EDMBPS (CellData Megabyte per Second (RW))
378 Flops per cell update (Matrix Multiplication)
0.999274 GFLOPS


++++++++++ MPI RANK 103 ++++++++++
10 TS (Timesteps)
0.220155 ST (SIMULATION_TIME)
0.0218639 TSS (Timestep size)
0.247907 RT (REAL_TIME)
655360 CP (Cells processed)
0.0247907 ASPT (Averaged Seconds per Timestep)
65536 CPST (Cells Processed in Average per Simulation Timestep)
2 ACPST (Averaged number of clusters per Simulation Timestep)
2.64357 MCPS (Million Cells per Second) (local)
2.64357 MCPSPT (Million Clusters per Second per Thread)
6.5 EDMBPT (CellData Megabyte per Timestep (RW))
262.195 EDMBPS (CellData Megabyte per Second (RW))
378 Flops per cell update (Matrix Multiplication)
0.99927 GFLOPS


++++++++++ MPI RANK 104 ++++++++++
10 TS (Timesteps)
0.220155 ST (SIMULATION_TIME)
0.0218639 TSS (Timestep size)
0.247907 RT (REAL_TIME)
655360 CP (Cells processed)
0.0247907 ASPT (Averaged Seconds per Timestep)
65536 CPST (Cells Processed in Average per Simulation Timestep)
2 ACPST (Averaged number of clusters per Simulation Timestep)
2.64357 MCPS (Million Cells per Second) (local)
2.64357 MCPSPT (Million Clusters per Second per Thread)
6.5 EDMBPT (CellData Megabyte per Timestep (RW))
262.195 EDMBPS (CellData Megabyte per Second (RW))
378 Flops per cell update (Matrix Multiplication)
0.99927 GFLOPS


++++++++++ MPI RANK 105 ++++++++++
10 TS (Timesteps)
0.220155 ST (SIMULATION_TIME)
0.0218639 TSS (Timestep size)
0.247907 RT (REAL_TIME)
655360 CP (Cells processed)
0.0247907 ASPT (Averaged Seconds per Timestep)
65536 CPST (Cells Processed in Average per Simulation Timestep)
2 ACPST (Averaged number of clusters per Simulation Timestep)
2.64357 MCPS (Million Cells per Second) (local)
2.64357 MCPSPT (Million Clusters per Second per Thread)
6.5 EDMBPT (CellData Megabyte per Timestep (RW))
262.195 EDMBPS (CellData Megabyte per Second (RW))
378 Flops per cell update (Matrix Multiplication)
0.99927 GFLOPS


++++++++++ MPI RANK 106 ++++++++++
10 TS (Timesteps)
0.220155 ST (SIMULATION_TIME)
0.0218639 TSS (Timestep size)
0.247907 RT (REAL_TIME)
655360 CP (Cells processed)
0.0247907 ASPT (Averaged Seconds per Timestep)
65536 CPST (Cells Processed in Average per Simulation Timestep)
2 ACPST (Averaged number of clusters per Simulation Timestep)
2.64357 MCPS (Million Cells per Second) (local)
2.64357 MCPSPT (Million Clusters per Second per Thread)
6.5 EDMBPT (CellData Megabyte per Timestep (RW))
262.195 EDMBPS (CellData Megabyte per Second (RW))
378 Flops per cell update (Matrix Multiplication)
0.99927 GFLOPS


++++++++++ MPI RANK 107 ++++++++++
10 TS (Timesteps)
0.220155 ST (SIMULATION_TIME)
0.0218639 TSS (Timestep size)
0.247909 RT (REAL_TIME)
655360 CP (Cells processed)
0.0247909 ASPT (Averaged Seconds per Timestep)
65536 CPST (Cells Processed in Average per Simulation Timestep)
2 ACPST (Averaged number of clusters per Simulation Timestep)
2.64355 MCPS (Million Cells per Second) (local)
2.64355 MCPSPT (Million Clusters per Second per Thread)
6.5 EDMBPT (CellData Megabyte per Timestep (RW))
262.193 EDMBPS (CellData Megabyte per Second (RW))
378 Flops per cell update (Matrix Multiplication)
0.999262 GFLOPS


++++++++++ MPI RANK 108 ++++++++++
10 TS (Timesteps)
0.220155 ST (SIMULATION_TIME)
0.0218639 TSS (Timestep size)
0.247907 RT (REAL_TIME)
655360 CP (Cells processed)
0.0247907 ASPT (Averaged Seconds per Timestep)
65536 CPST (Cells Processed in Average per Simulation Timestep)
2 ACPST (Averaged number of clusters per Simulation Timestep)
2.64357 MCPS (Million Cells per Second) (local)
2.64357 MCPSPT (Million Clusters per Second per Thread)
6.5 EDMBPT (CellData Megabyte per Timestep (RW))
262.195 EDMBPS (CellData Megabyte per Second (RW))
378 Flops per cell update (Matrix Multiplication)
0.99927 GFLOPS


++++++++++ MPI RANK 109 ++++++++++
10 TS (Timesteps)
0.220155 ST (SIMULATION_TIME)
0.0218639 TSS (Timestep size)
0.247907 RT (REAL_TIME)
655360 CP (Cells processed)
0.0247907 ASPT (Averaged Seconds per Timestep)
65536 CPST (Cells Processed in Average per Simulation Timestep)
2 ACPST (Averaged number of clusters per Simulation Timestep)
2.64357 MCPS (Million Cells per Second) (local)
2.64357 MCPSPT (Million Clusters per Second per Thread)
6.5 EDMBPT (CellData Megabyte per Timestep (RW))
262.195 EDMBPS (CellData Megabyte per Second (RW))
378 Flops per cell update (Matrix Multiplication)
0.99927 GFLOPS


++++++++++ MPI RANK 110 ++++++++++
10 TS (Timesteps)
0.220155 ST (SIMULATION_TIME)
0.0218639 TSS (Timestep size)
0.247907 RT (REAL_TIME)
655360 CP (Cells processed)
0.0247907 ASPT (Averaged Seconds per Timestep)
65536 CPST (Cells Processed in Average per Simulation Timestep)
2 ACPST (Averaged number of clusters per Simulation Timestep)
2.64357 MCPS (Million Cells per Second) (local)
2.64357 MCPSPT (Million Clusters per Second per Thread)
6.5 EDMBPT (CellData Megabyte per Timestep (RW))
262.195 EDMBPS (CellData Megabyte per Second (RW))
378 Flops per cell update (Matrix Multiplication)
0.99927 GFLOPS


++++++++++ MPI RANK 111 ++++++++++
10 TS (Timesteps)
0.220155 ST (SIMULATION_TIME)
0.0218639 TSS (Timestep size)
0.247906 RT (REAL_TIME)
655360 CP (Cells processed)
0.0247906 ASPT (Averaged Seconds per Timestep)
65536 CPST (Cells Processed in Average per Simulation Timestep)
2 ACPST (Averaged number of clusters per Simulation Timestep)
2.64358 MCPS (Million Cells per Second) (local)
2.64358 MCPSPT (Million Clusters per Second per Thread)
6.5 EDMBPT (CellData Megabyte per Timestep (RW))
262.196 EDMBPS (CellData Megabyte per Second (RW))
378 Flops per cell update (Matrix Multiplication)
0.999274 GFLOPS


++++++++++ MPI RANK 112 ++++++++++
10 TS (Timesteps)
0.220155 ST (SIMULATION_TIME)
0.0218639 TSS (Timestep size)
0.247908 RT (REAL_TIME)
655360 CP (Cells processed)
0.0247908 ASPT (Averaged Seconds per Timestep)
65536 CPST (Cells Processed in Average per Simulation Timestep)
2 ACPST (Averaged number of clusters per Simulation Timestep)
2.64356 MCPS (Million Cells per Second) (local)
2.64356 MCPSPT (Million Clusters per Second per Thread)
6.5 EDMBPT (CellData Megabyte per Timestep (RW))
262.194 EDMBPS (CellData Megabyte per Second (RW))
378 Flops per cell update (Matrix Multiplication)
0.999266 GFLOPS


++++++++++ MPI RANK 113 ++++++++++
10 TS (Timesteps)
0.220155 ST (SIMULATION_TIME)
0.0218639 TSS (Timestep size)
0.247908 RT (REAL_TIME)
655360 CP (Cells processed)
0.0247908 ASPT (Averaged Seconds per Timestep)
65536 CPST (Cells Processed in Average per Simulation Timestep)
2 ACPST (Averaged number of clusters per Simulation Timestep)
2.64356 MCPS (Million Cells per Second) (local)
2.64356 MCPSPT (Million Clusters per Second per Thread)
6.5 EDMBPT (CellData Megabyte per Timestep (RW))
262.194 EDMBPS (CellData Megabyte per Second (RW))
378 Flops per cell update (Matrix Multiplication)
0.999266 GFLOPS


++++++++++ MPI RANK 114 ++++++++++
10 TS (Timesteps)
0.220155 ST (SIMULATION_TIME)
0.0218639 TSS (Timestep size)
0.247908 RT (REAL_TIME)
655360 CP (Cells processed)
0.0247908 ASPT (Averaged Seconds per Timestep)
65536 CPST (Cells Processed in Average per Simulation Timestep)
2 ACPST (Averaged number of clusters per Simulation Timestep)
2.64356 MCPS (Million Cells per Second) (local)
2.64356 MCPSPT (Million Clusters per Second per Thread)
6.5 EDMBPT (CellData Megabyte per Timestep (RW))
262.194 EDMBPS (CellData Megabyte per Second (RW))
378 Flops per cell update (Matrix Multiplication)
0.999266 GFLOPS


++++++++++ MPI RANK 115 ++++++++++
10 TS (Timesteps)
0.220155 ST (SIMULATION_TIME)
0.0218639 TSS (Timestep size)
0.247908 RT (REAL_TIME)
655360 CP (Cells processed)
0.0247908 ASPT (Averaged Seconds per Timestep)
65536 CPST (Cells Processed in Average per Simulation Timestep)
2 ACPST (Averaged number of clusters per Simulation Timestep)
2.64356 MCPS (Million Cells per Second) (local)
2.64356 MCPSPT (Million Clusters per Second per Thread)
6.5 EDMBPT (CellData Megabyte per Timestep (RW))
262.194 EDMBPS (CellData Megabyte per Second (RW))
378 Flops per cell update (Matrix Multiplication)
0.999266 GFLOPS


++++++++++ MPI RANK 116 ++++++++++
10 TS (Timesteps)
0.220155 ST (SIMULATION_TIME)
0.0218639 TSS (Timestep size)
0.247908 RT (REAL_TIME)
655360 CP (Cells processed)
0.0247908 ASPT (Averaged Seconds per Timestep)
65536 CPST (Cells Processed in Average per Simulation Timestep)
2 ACPST (Averaged number of clusters per Simulation Timestep)
2.64356 MCPS (Million Cells per Second) (local)
2.64356 MCPSPT (Million Clusters per Second per Thread)
6.5 EDMBPT (CellData Megabyte per Timestep (RW))
262.194 EDMBPS (CellData Megabyte per Second (RW))
378 Flops per cell update (Matrix Multiplication)
0.999266 GFLOPS


++++++++++ MPI RANK 117 ++++++++++
10 TS (Timesteps)
0.220155 ST (SIMULATION_TIME)
0.0218639 TSS (Timestep size)
0.247908 RT (REAL_TIME)
655360 CP (Cells processed)
0.0247908 ASPT (Averaged Seconds per Timestep)
65536 CPST (Cells Processed in Average per Simulation Timestep)
2 ACPST (Averaged number of clusters per Simulation Timestep)
2.64356 MCPS (Million Cells per Second) (local)
2.64356 MCPSPT (Million Clusters per Second per Thread)
6.5 EDMBPT (CellData Megabyte per Timestep (RW))
262.194 EDMBPS (CellData Megabyte per Second (RW))
378 Flops per cell update (Matrix Multiplication)
0.999266 GFLOPS


++++++++++ MPI RANK 118 ++++++++++
10 TS (Timesteps)
0.220155 ST (SIMULATION_TIME)
0.0218639 TSS (Timestep size)
0.247908 RT (REAL_TIME)
655360 CP (Cells processed)
0.0247908 ASPT (Averaged Seconds per Timestep)
65536 CPST (Cells Processed in Average per Simulation Timestep)
2 ACPST (Averaged number of clusters per Simulation Timestep)
2.64356 MCPS (Million Cells per Second) (local)
2.64356 MCPSPT (Million Clusters per Second per Thread)
6.5 EDMBPT (CellData Megabyte per Timestep (RW))
262.194 EDMBPS (CellData Megabyte per Second (RW))
378 Flops per cell update (Matrix Multiplication)
0.999266 GFLOPS


++++++++++ MPI RANK 119 ++++++++++
10 TS (Timesteps)
0.220155 ST (SIMULATION_TIME)
0.0218639 TSS (Timestep size)
0.247909 RT (REAL_TIME)
655360 CP (Cells processed)
0.0247909 ASPT (Averaged Seconds per Timestep)
65536 CPST (Cells Processed in Average per Simulation Timestep)
2 ACPST (Averaged number of clusters per Simulation Timestep)
2.64355 MCPS (Million Cells per Second) (local)
2.64355 MCPSPT (Million Clusters per Second per Thread)
6.5 EDMBPT (CellData Megabyte per Timestep (RW))
262.193 EDMBPS (CellData Megabyte per Second (RW))
378 Flops per cell update (Matrix Multiplication)
0.999262 GFLOPS


++++++++++ MPI RANK 120 ++++++++++
10 TS (Timesteps)
0.220155 ST (SIMULATION_TIME)
0.0218639 TSS (Timestep size)
0.247908 RT (REAL_TIME)
655360 CP (Cells processed)
0.0247908 ASPT (Averaged Seconds per Timestep)
65536 CPST (Cells Processed in Average per Simulation Timestep)
2 ACPST (Averaged number of clusters per Simulation Timestep)
2.64356 MCPS (Million Cells per Second) (local)
2.64356 MCPSPT (Million Clusters per Second per Thread)
6.5 EDMBPT (CellData Megabyte per Timestep (RW))
262.194 EDMBPS (CellData Megabyte per Second (RW))
378 Flops per cell update (Matrix Multiplication)
0.999266 GFLOPS


++++++++++ MPI RANK 121 ++++++++++
10 TS (Timesteps)
0.220155 ST (SIMULATION_TIME)
0.0218639 TSS (Timestep size)
0.247909 RT (REAL_TIME)
655360 CP (Cells processed)
0.0247909 ASPT (Averaged Seconds per Timestep)
65536 CPST (Cells Processed in Average per Simulation Timestep)
2 ACPST (Averaged number of clusters per Simulation Timestep)
2.64355 MCPS (Million Cells per Second) (local)
2.64355 MCPSPT (Million Clusters per Second per Thread)
6.5 EDMBPT (CellData Megabyte per Timestep (RW))
262.193 EDMBPS (CellData Megabyte per Second (RW))
378 Flops per cell update (Matrix Multiplication)
0.999262 GFLOPS


++++++++++ MPI RANK 122 ++++++++++
10 TS (Timesteps)
0.220155 ST (SIMULATION_TIME)
0.0218639 TSS (Timestep size)
0.247908 RT (REAL_TIME)
655360 CP (Cells processed)
0.0247908 ASPT (Averaged Seconds per Timestep)
65536 CPST (Cells Processed in Average per Simulation Timestep)
2 ACPST (Averaged number of clusters per Simulation Timestep)
2.64356 MCPS (Million Cells per Second) (local)
2.64356 MCPSPT (Million Clusters per Second per Thread)
6.5 EDMBPT (CellData Megabyte per Timestep (RW))
262.194 EDMBPS (CellData Megabyte per Second (RW))
378 Flops per cell update (Matrix Multiplication)
0.999266 GFLOPS


++++++++++ MPI RANK 123 ++++++++++
10 TS (Timesteps)
0.220155 ST (SIMULATION_TIME)
0.0218639 TSS (Timestep size)
0.247909 RT (REAL_TIME)
655360 CP (Cells processed)
0.0247909 ASPT (Averaged Seconds per Timestep)
65536 CPST (Cells Processed in Average per Simulation Timestep)
2 ACPST (Averaged number of clusters per Simulation Timestep)
2.64355 MCPS (Million Cells per Second) (local)
2.64355 MCPSPT (Million Clusters per Second per Thread)
6.5 EDMBPT (CellData Megabyte per Timestep (RW))
262.193 EDMBPS (CellData Megabyte per Second (RW))
378 Flops per cell update (Matrix Multiplication)
0.999262 GFLOPS


++++++++++ MPI RANK 124 ++++++++++
10 TS (Timesteps)
0.220155 ST (SIMULATION_TIME)
0.0218639 TSS (Timestep size)
0.247907 RT (REAL_TIME)
655360 CP (Cells processed)
0.0247907 ASPT (Averaged Seconds per Timestep)
65536 CPST (Cells Processed in Average per Simulation Timestep)
2 ACPST (Averaged number of clusters per Simulation Timestep)
2.64357 MCPS (Million Cells per Second) (local)
2.64357 MCPSPT (Million Clusters per Second per Thread)
6.5 EDMBPT (CellData Megabyte per Timestep (RW))
262.195 EDMBPS (CellData Megabyte per Second (RW))
378 Flops per cell update (Matrix Multiplication)
0.99927 GFLOPS


++++++++++ MPI RANK 125 ++++++++++
10 TS (Timesteps)
0.220155 ST (SIMULATION_TIME)
0.0218639 TSS (Timestep size)
0.24791 RT (REAL_TIME)
655360 CP (Cells processed)
0.024791 ASPT (Averaged Seconds per Timestep)
65536 CPST (Cells Processed in Average per Simulation Timestep)
2 ACPST (Averaged number of clusters per Simulation Timestep)
2.64354 MCPS (Million Cells per Second) (local)
2.64354 MCPSPT (Million Clusters per Second per Thread)
6.5 EDMBPT (CellData Megabyte per Timestep (RW))
262.192 EDMBPS (CellData Megabyte per Second (RW))
378 Flops per cell update (Matrix Multiplication)
0.999258 GFLOPS


++++++++++ MPI RANK 126 ++++++++++
10 TS (Timesteps)
0.220155 ST (SIMULATION_TIME)
0.0218639 TSS (Timestep size)
0.247908 RT (REAL_TIME)
655360 CP (Cells processed)
0.0247908 ASPT (Averaged Seconds per Timestep)
65536 CPST (Cells Processed in Average per Simulation Timestep)
2 ACPST (Averaged number of clusters per Simulation Timestep)
2.64356 MCPS (Million Cells per Second) (local)
2.64356 MCPSPT (Million Clusters per Second per Thread)
6.5 EDMBPT (CellData Megabyte per Timestep (RW))
262.194 EDMBPS (CellData Megabyte per Second (RW))
378 Flops per cell update (Matrix Multiplication)
0.999266 GFLOPS


++++++++++ MPI RANK 127 ++++++++++
10 TS (Timesteps)
0.220155 ST (SIMULATION_TIME)
0.0218639 TSS (Timestep size)
0.24791 RT (REAL_TIME)
655360 CP (Cells processed)
0.024791 ASPT (Averaged Seconds per Timestep)
65536 CPST (Cells Processed in Average per Simulation Timestep)
2 ACPST (Averaged number of clusters per Simulation Timestep)
2.64354 MCPS (Million Cells per Second) (local)
2.64354 MCPSPT (Million Clusters per Second per Thread)
6.5 EDMBPT (CellData Megabyte per Timestep (RW))
262.192 EDMBPS (CellData Megabyte per Second (RW))
378 Flops per cell update (Matrix Multiplication)
0.999258 GFLOPS


++++++++++ SUMMARY ++++++++++
338.376 GMCPS (Global Million Cells per Second) (global)
338.376 MCPSPT (Million Clusters per Second per Thread) (global)
EXIT STATUS: OK
EXIT STATUS: OK
EXIT STATUS: OK
EXIT STATUS: OK
EXIT STATUS: OK
EXIT STATUS: OK
EXIT STATUS: OK
EXIT STATUS: OK
EXIT STATUS: OK
EXIT STATUS: OK
EXIT STATUS: OK
EXIT STATUS: OK
EXIT STATUS: OK
EXIT STATUS: OK
EXIT STATUS: OK
EXIT STATUS: OK
EXIT STATUS: OKEXIT STATUS: OK
EXIT STATUS: OK

EXIT STATUS: OK
EXIT STATUS: OK
EXIT STATUS: OK
EXIT STATUS: OK
EXIT STATUS: OK
EXIT STATUS: OK
EXIT STATUS: OK
EXIT STATUS: OK
EXIT STATUS: OK
EXIT STATUS: OK
EXIT STATUS: OK
EXIT STATUS: OK
EXIT STATUS: OK
EXIT STATUS: OK
EXIT STATUS: OK
EXIT STATUS: OK
EXIT STATUS: OK
EXIT STATUS: OK
EXIT STATUS: OK
EXIT STATUS: OK
EXIT STATUS: OK
EXIT STATUS: OK
EXIT STATUS: OK
EXIT STATUS: OK
EXIT STATUS: OK
EXIT STATUS: OK
EXIT STATUS: OK
EXIT STATUS: OK
EXIT STATUS: OK
EXIT STATUS: OK
EXIT STATUS: OK
EXIT STATUS: OK
EXIT STATUS: OK
EXIT STATUS: OK
EXIT STATUS: OKEXIT STATUS: OK

EXIT STATUS: OK
EXIT STATUS: OK
EXIT STATUS: OK
EXIT STATUS: OK
EXIT STATUS: OK
EXIT STATUS: OK
EXIT STATUS: OK
EXIT STATUS: OK
EXIT STATUS: EXIT STATUS: OK
OK
EXIT STATUS: OK
EXIT STATUS: OK
EXIT STATUS: OK
EXIT STATUS: OK
EXIT STATUS: OKEXIT STATUS: OK

EXIT STATUS: EXIT STATUS: OKOK

EXIT STATUS: OK
EXIT STATUS: OK
EXIT STATUS: OKEXIT STATUS: OK

EXIT STATUS: EXIT STATUS: OK
OK
EXIT STATUS: OK
EXIT STATUS: OK
EXIT STATUS: OK
EXIT STATUS: OK
EXIT STATUS: OK
EXIT STATUS: OK
EXIT STATUS: OKEXIT STATUS: OK

EXIT STATUS: OKEXIT STATUS: OK

EXIT STATUS: OK
EXIT STATUS: OK
EXIT STATUS: OK
EXIT STATUS: OK
EXIT STATUS: OK
EXIT STATUS: OK
EXIT STATUS: OK
EXIT STATUS: OK
EXIT STATUS: OK
EXIT STATUS: OKEXIT STATUS: OK

EXIT STATUS: OK
EXIT STATUS: OK
EXIT STATUS: OK
EXIT STATUS: OK
EXIT STATUS: OK
EXIT STATUS: OK
EXIT STATUS: OK
EXIT STATUS: OKEXIT STATUS: OK
EXIT STATUS: OK

EXIT STATUS: OK
EXIT STATUS: OK
EXIT STATUS: OK
EXIT STATUS: OK
EXIT STATUS: OK
EXIT STATUS: OK
EXIT STATUS: OK
EXIT STATUS: OK
EXIT STATUS: EXIT STATUS: OK
OK
EXIT STATUS: OK
EXIT STATUS: OK
EXIT STATUS: OK
EXIT STATUS: OK
EXIT STATUS: OK
EXIT STATUS: OK
EXIT STATUS: OK
EXIT STATUS: OK
