0	0
20.8604	0
41.7207	0
62.5811	0
83.4414	0
104.302	0
125.162	0
146.023	0
166.883	0
187.743	0
208.604	0
229.464	0
250.324	0
271.185	0
292.045	0
312.905	0
333.766	0
354.626	0
375.486	0
396.347	0
417.207	0
438.068	0
458.928	0
479.788	0
500.649	0
521.509	0
542.369	0
563.23	0
584.09	0
604.95	0
625.811	0
646.671	0
667.531	0
688.392	0
709.252	0
730.113	0
750.973	0
771.833	0
792.694	0
813.554	0
834.414	0
855.275	0
876.135	0
896.995	0
917.856	0
938.716	0
959.576	0
980.437	0
1001.3	0
1022.16	0
1043.02	0
1063.88	0
1084.74	0
1105.6	0
1126.46	0
1147.32	0
1168.18	0
1189.04	0
1209.9	0
1230.76	0
1251.62	0
1272.48	0
1293.34	0
1314.2	0
1335.06	0
1355.92	0
1376.78	0
1397.64	0
1418.5	0
1439.36	0
1460.23	0
1481.09	0
1501.95	0
1522.81	0
1543.67	0
1564.53	0
1585.39	0
1606.25	0
1627.11	0
1647.97	0
1668.83	0
1689.69	0
1710.55	0
1731.41	0
1752.27	0
1773.13	0
1793.99	0
1814.85	0
1835.71	0
1856.57	0
1877.43	0
1898.29	0
1919.15	0
1940.01	0
1960.87	0
1981.73	0
2002.59	0
2023.45	0
2044.31	0
2065.18	0
2086.04	9.09495e-13
2106.9	2.72848e-12
2127.76	6.36646e-12
2148.62	1.36424e-11
2169.48	2.81943e-11
2190.34	5.45697e-11
2211.2	1.05501e-10
2232.06	1.96451e-10
2252.92	3.6016e-10
2273.78	6.45741e-10
2294.64	1.13414e-09
2315.5	1.95359e-09
2336.36	3.30783e-09
2357.22	5.50153e-09
2378.08	9.00036e-09
2398.94	1.44901e-08
2419.8	2.29702e-08
2440.66	3.58741e-08
2461.52	5.52245e-08
2482.38	8.384e-08
2503.24	1.25588e-07
2524.1	1.85698e-07
2544.96	2.71159e-07
2565.82	3.9118e-07
2586.68	5.57744e-07
2607.54	7.86252e-07
2628.4	1.09626e-06
2649.26	1.51231e-06
2670.13	2.06486e-06
2690.99	2.79126e-06
2711.85	3.73684e-06
2732.71	4.95601e-06
2753.57	6.51344e-06
2774.43	8.48519e-06
2795.29	1.09599e-05
2816.15	1.40397e-05
2837.01	1.78415e-05
2857.87	2.24979e-05
2878.73	2.8158e-05
2899.59	3.4988e-05
2920.45	4.31728e-05
2941.31	5.29158e-05
2962.17	6.44411e-05
2983.03	7.79939e-05
3003.89	9.38431e-05
3024.75	0.000112284
3045.61	0.000133643
3066.47	0.000158281
3087.33	0.000186606
3108.19	0.000219079
3129.05	0.000256235
3149.91	0.000298699
3170.77	0.000347211
3191.63	0.000402664
3212.49	0.000466142
3233.35	0.000538976
3254.21	0.000622801
3275.07	0.000719639
3295.93	0.000831988
3316.79	0.000962925
3337.64	0.00111624
3358.5	0.00129655
3379.36	0.00150949
3400.22	0.00176187
3421.08	0.00206185
3441.94	0.00241915
3462.8	0.00284528
3483.66	0.00335372
3504.52	0.00396012
3525.38	0.00468255
3546.24	0.00554163
3567.1	0.00656072
3587.96	0.00776601
3608.82	0.00918659
3629.68	0.0108545
3650.54	0.0128044
3671.4	0.015074
3692.26	0.0177032
3713.12	0.0207338
3733.98	0.0242095
3754.84	0.0281749
3775.7	0.0326747
3796.56	0.0377532
3817.42	0.0434534
3838.28	0.0498153
3859.14	0.0568758
3880	0.0646665
3900.86	0.0732131
3921.72	0.082534
3942.58	0.0926389
3963.44	0.103528
3984.3	0.115189
4005.16	0.1276
4026.02	0.140726
4046.88	0.154516
4067.74	0.168907
4088.6	0.183822
4109.46	0.19917
4130.32	0.214844
4151.18	0.230727
4172.04	0.246687
4192.9	0.262583
4213.76	0.278263
4234.62	0.293568
4255.48	0.308333
4276.34	0.322391
4297.2	0.335571
4318.06	0.347706
4338.92	0.358632
4359.78	0.368192
4380.64	0.376238
4401.5	0.382634
4422.36	0.387258
4443.22	0.390004
4464.08	0.390785
4484.94	0.389532
4505.81	0.386199
4526.67	0.380761
4547.53	0.373218
4568.39	0.363591
4589.25	0.351923
4610.11	0.338283
4630.97	0.322757
4651.83	0.305456
4672.69	0.286508
4693.55	0.266057
4714.41	0.244263
4735.27	0.221299
4756.13	0.197349
4776.99	0.172603
4797.85	0.147259
4818.71	0.121516
4839.57	0.0955732
4860.43	0.0696274
4881.29	0.0438711
4902.15	0.0184895
4923.01	-0.00634125
4943.87	-0.0304562
4964.73	-0.0537028
4985.59	-0.0759429
5006.45	-0.0970531
5027.31	-0.116926
5048.17	-0.135472
5069.03	-0.152618
5089.89	-0.168306
5110.75	-0.182498
5131.61	-0.195171
5152.47	-0.206319
5173.33	-0.215949
5194.19	-0.224084
5215.06	-0.230761
5235.92	-0.236028
5256.78	-0.239942
5277.64	-0.242571
5298.5	-0.243992
5319.36	-0.244286
5340.22	-0.24354
5361.08	-0.241845
5381.94	-0.239295
5402.8	-0.235983
5423.66	-0.232002
5444.52	-0.227447
5465.38	-0.222406
5486.24	-0.216967
5507.1	-0.211213
5527.96	-0.205221
5548.82	-0.199065
5569.68	-0.192811
5590.54	-0.186521
5611.4	-0.18025
5632.26	-0.174045
5653.12	-0.167948
5673.98	-0.161994
5694.84	-0.156214
5715.7	-0.15063
5736.56	-0.14526
5757.42	-0.140115
5778.28	-0.135203
5799.14	-0.130527
5820	-0.126085
5840.87	-0.121872
5861.73	-0.117879
5882.59	-0.114097
5903.45	-0.110511
5924.31	-0.107108
5945.17	-0.10387
5966.03	-0.100782
5986.89	-0.0978266
6007.75	-0.0949857
6028.61	-0.0922428
6049.47	-0.0895813
6070.33	-0.0869859
6091.19	-0.084442
6112.05	-0.0819365
6132.91	-0.0794576
6153.77	-0.0769951
6174.63	-0.0745403
6195.49	-0.0720863
6216.35	-0.0696279
6237.21	-0.0671613
6258.07	-0.0646845
6278.93	-0.0621969
6299.79	-0.0596995
6320.65	-0.0571945
6341.51	-0.0546852
6362.37	-0.0521761
6383.23	-0.0496725
6404.09	-0.0471804
6424.95	-0.0447066
6445.82	-0.042258
6466.68	-0.039842
6487.54	-0.0374657
6508.4	-0.0351366
6529.26	-0.0328616
6550.12	-0.0306473
6570.98	-0.0285001
6591.84	-0.0264253
6612.7	-0.024428
6633.56	-0.022512
6654.42	-0.0206807
6675.28	-0.0189362
6696.14	-0.0172798
6717	-0.0157119
6737.86	-0.0142316
6758.72	-0.0128373
6779.58	-0.0115263
6800.44	-0.010295
6821.3	-0.00913876
6842.16	-0.00805235
6863.02	-0.00702961
6883.88	-0.00606375
6904.74	-0.00514738
6925.6	-0.00427263
6946.46	-0.00343122
6967.32	-0.00261461
6988.18	-0.00181406
7009.04	-0.00102079
7029.9	-0.000226048
7050.76	0.000578751
7071.62	0.00140194
7092.49	0.00225147
7113.35	0.00313486
7134.21	0.00405907
7155.07	0.00503042
7175.93	0.00605452
7196.79	0.00713624
7217.65	0.0082796
7238.51	0.00948776
7259.37	0.010763
7280.23	0.0121066
7301.09	0.0135189
7321.95	0.0149996
7342.81	0.0165469
7363.67	0.0181586
7384.53	0.0198314
7405.39	0.0215611
7426.25	0.0233428
7447.11	0.0251708
7467.97	0.0270388
7488.83	0.0289398
7509.69	0.0308662
7530.55	0.0328099
7551.41	0.0347627
7572.27	0.0367157
7593.13	0.03866
7613.99	0.0405864
7634.85	0.0424857
7655.71	0.0443487
7676.57	0.0461664
7697.43	0.0479296
7718.29	0.0496298
7739.15	0.0512583
7760.01	0.0528072
7780.87	0.0542686
7801.73	0.0556354
7822.59	0.0569007
7843.46	0.0580583
7864.32	0.0591026
7885.18	0.0600284
7906.04	0.0608312
7926.9	0.0615072
7947.76	0.0620531
7968.62	0.0624663
7989.48	0.0627447
8010.34	0.062887
8031.2	0.0628923
8052.06	0.0627604
8072.92	0.0624918
8093.78	0.0620872
8114.64	0.0615481
8135.5	0.0608764
8156.36	0.0600744
8177.22	0.059145
8198.08	0.0580913
8218.94	0.056917
8239.8	0.0556259
8260.66	0.0542224
8281.52	0.0527109
8302.38	0.0510962
8323.24	0.0493835
8344.1	0.0475778
8364.96	0.0456847
8385.82	0.0437097
8406.68	0.0416585
8427.54	0.039537
8448.4	0.037351
8469.26	0.0351067
8490.12	0.0328099
8510.98	0.0304669
8531.84	0.0280838
8552.7	0.0256666
8573.57	0.0232215
8594.43	0.0207545
8615.29	0.0182718
8636.15	0.0157792
8657.01	0.0132828
8677.87	0.0107883
8698.73	0.00830146
8719.59	0.00582791
8740.45	0.00337314
8761.31	0.000942477
8782.17	-0.0014589
8803.03	-0.00382599
8823.89	-0.00615398
8844.75	-0.00843826
8865.61	-0.0106745
8886.47	-0.0128584
8907.33	-0.0149863
8928.19	-0.0170543
8949.05	-0.0190592
8969.91	-0.0209979
8990.77	-0.0228676
9011.63	-0.0246658
9032.49	-0.0263903
9053.35	-0.0280393
9074.21	-0.0296112
9095.07	-0.0311048
9115.93	-0.0325193
9136.79	-0.0338539
9157.65	-0.0351086
9178.51	-0.0362833
9199.37	-0.0373784
9220.24	-0.0383946
9241.1	-0.0393328
9261.96	-0.0401942
9282.82	-0.0409803
9303.68	-0.0416928
9324.54	-0.0423336
9345.4	-0.042905
9366.26	-0.0434091
9387.12	-0.0438486
9407.98	-0.044226
9428.84	-0.0445441
9449.7	-0.0448058
9470.56	-0.0450139
9491.42	-0.0451716
9512.28	-0.0452816
9533.14	-0.0453472
9554	-0.0453713
9574.86	-0.0453568
9595.72	-0.0453066
9616.58	-0.0452237
9637.44	-0.0451107
9658.3	-0.0449702
9679.16	-0.0448049
9700.02	-0.0446171
9720.88	-0.044409
9741.74	-0.0441827
9762.6	-0.0439402
9783.46	-0.0436833
9804.32	-0.0434134
9825.18	-0.0431321
9846.05	-0.0428406
9866.91	-0.0425399
9887.77	-0.0422311
9908.63	-0.0419148
9929.49	-0.0415916
9950.35	-0.041262
9971.21	-0.0409263
9992.07	-0.0405845
10012.9	-0.0402368
10033.8	-0.039883
10054.6	-0.039523
10075.5	-0.0391564
10096.4	-0.0387829
10117.2	-0.0384019
10138.1	-0.0380131
10159	-0.0376158
10179.8	-0.0372093
10200.7	-0.0367931
10221.5	-0.0363665
10242.4	-0.0359287
10263.3	-0.0354792
10284.1	-0.0350171
10305	-0.0345419
10325.8	-0.0340529
10346.7	-0.0335495
10367.6	-0.0330311
10388.4	-0.0324971
10409.3	-0.0319469
10430.1	-0.0313803
10451	-0.0307966
10471.9	-0.0301956
10492.7	-0.0295769
10513.6	-0.0289402
10534.4	-0.0282854
10555.3	-0.0276123
10576.2	-0.0269208
10597	-0.0262109
10617.9	-0.0254825
10638.7	-0.0247357
10659.6	-0.0239707
10680.5	-0.0231877
10701.3	-0.0223868
10722.2	-0.0215684
10743	-0.0207328
10763.9	-0.0198804
10784.8	-0.0190116
10805.6	-0.018127
10826.5	-0.017227
10847.3	-0.0163123
10868.2	-0.0153834
10889.1	-0.0144411
10909.9	-0.0134862
10930.8	-0.0125192
10951.6	-0.0115412
10972.5	-0.0105529
10993.4	-0.00955516
11014.2	-0.008549
11035.1	-0.00753536
11055.9	-0.00651526
11076.8	-0.00548973
11097.7	-0.00445986
11118.5	-0.00342675
11139.4	-0.00239153
11160.2	-0.00135538
11181.1	-0.000319481
11202	0.000714957
11222.8	0.0017467
11243.7	0.00277452
11264.5	0.00379715
11285.4	0.00481332
11306.3	0.00582178
11327.1	0.00682126
11348	0.00781048
11368.8	0.0087882
11389.7	0.00975317
11410.6	0.0107042
11431.4	0.01164
11452.3	0.0125594
11473.2	0.0134613
11494	0.0143446
11514.9	0.0152081
11535.7	0.0160508
11556.6	0.0168718
11577.5	0.01767
11598.3	0.0184446
11619.2	0.0191946
11640	0.0199193
11660.9	0.0206179
11681.8	0.0212898
11702.6	0.0219342
11723.5	0.0225507
11744.3	0.0231386
11765.2	0.0236975
11786.1	0.024227
11806.9	0.0247268
11827.8	0.0251965
11848.6	0.025636
11869.5	0.0260449
11890.4	0.0264231
11911.2	0.0267706
11932.1	0.0270872
11952.9	0.027373
11973.8	0.0276279
11994.7	0.0278519
12015.5	0.0280452
12036.4	0.0282079
12057.2	0.02834
12078.1	0.0284416
12099	0.028513
12119.8	0.0285543
12140.7	0.0285656
12161.5	0.0285471
12182.4	0.028499
12203.3	0.0284215
12224.1	0.0283148
12245	0.028179
12265.8	0.0280144
12286.7	0.0278211
12307.6	0.0275992
12328.4	0.0273491
12349.3	0.0270708
12370.1	0.0267645
12391	0.0264305
12411.9	0.0260689
12432.7	0.0256799
12453.6	0.0252637
12474.4	0.0248207
12495.3	0.0243509
12516.2	0.0238546
12537	0.0233323
12557.9	0.022784
12578.7	0.0222103
12599.6	0.0216115
12620.5	0.0209879
12641.3	0.0203401
12662.2	0.0196686
12683	0.0189738
12703.9	0.0182564
12724.8	0.0175171
12745.6	0.0167565
12766.5	0.0159754
12787.4	0.0151747
12808.2	0.0143551
12829.1	0.0135177
12849.9	0.0126634
12870.8	0.0117933
12891.7	0.0109086
12912.5	0.0100103
12933.4	0.00909973
12954.2	0.00817815
12975.1	0.00724688
12996	0.00630729
13016.8	0.00536081
13037.7	0.00440888
13058.5	0.00345299
13079.4	0.00249465
13100.3	0.0015354
13121.1	0.000576792
13142	-0.000379609
13162.8	-0.00133223
13183.7	-0.00227951
13204.6	-0.00321988
13225.4	-0.00415179
13246.3	-0.0050737
13267.1	-0.00598412
13288	-0.00688157
13308.9	-0.00776461
13329.7	-0.00863185
13350.6	-0.00948194
13371.4	-0.0103136
13392.3	-0.0111255
13413.2	-0.0119167
13434	-0.0126858
13454.9	-0.013432
13475.7	-0.0141542
13496.6	-0.0148515
13517.5	-0.0155232
13538.3	-0.0161685
13559.2	-0.0167868
13580	-0.0173775
13600.9	-0.0179401
13621.8	-0.0184742
13642.6	-0.0189796
13663.5	-0.0194559
13684.3	-0.0199031
13705.2	-0.020321
13726.1	-0.0207097
13746.9	-0.0210693
13767.8	-0.0213998
13788.6	-0.0217016
13809.5	-0.0219749
13830.4	-0.02222
13851.2	-0.0224374
13872.1	-0.0226275
13893	-0.0227908
13913.8	-0.0229279
13934.7	-0.0230394
13955.5	-0.0231259
13976.4	-0.0231881
13997.3	-0.0232267
14018.1	-0.0232424
14039	-0.0232359
14059.8	-0.0232081
14080.7	-0.0231596
14101.6	-0.0230912
14122.4	-0.0230038
14143.3	-0.0228981
14164.1	-0.0227749
14185	-0.022635
14205.9	-0.0224791
14226.7	-0.0223081
14247.6	-0.0221226
14268.4	-0.0219233
14289.3	-0.0217112
14310.2	-0.0214867
14331	-0.0212506
14351.9	-0.0210036
14372.7	-0.0207464
14393.6	-0.0204794
14414.5	-0.0202035
14435.3	-0.0199191
14456.2	-0.0196268
14477	-0.0193272
14497.9	-0.0190207
14518.8	-0.018708
14539.6	-0.0183895
14560.5	-0.0180657
14581.3	-0.0177371
14602.2	-0.0174041
14623.1	-0.0170671
14643.9	-0.0167267
14664.8	-0.0163831
14685.6	-0.0160369
14706.5	-0.0156884
14727.4	-0.0153381
14748.2	-0.0149863
14769.1	-0.0146335
14789.9	-0.0142799
14810.8	-0.0139261
14831.7	-0.0135724
14852.5	-0.0132192
14873.4	-0.0128669
14894.2	-0.0125158
14915.1	-0.0121664
14936	-0.0118191
14956.8	-0.0114742
14977.7	-0.0111322
14998.5	-0.0107934
15019.4	-0.0104582
15040.3	-0.0101271
15061.1	-0.00980045
15082	-0.0094786
15102.9	-0.00916197
15123.7	-0.00885095
15144.6	-0.00854595
15165.4	-0.00824733
15186.3	-0.00795548
15207.2	-0.00767078
15228	-0.00739358
15248.9	-0.00712426
15269.7	-0.00686316
15290.6	-0.00661063
15311.5	-0.006367
15332.3	-0.00613258
15353.2	-0.00590768
15374	-0.00569261
15394.9	-0.00548765
15415.8	-0.00529306
15436.6	-0.0051091
15457.5	-0.00493601
15478.3	-0.00477401
15499.2	-0.00462332
15520.1	-0.00448413
15540.9	-0.00435662
15561.8	-0.00424095
15582.6	-0.00413727
15603.5	-0.0040457
15624.4	-0.00396636
15645.2	-0.00389935
15666.1	-0.00384474
15686.9	-0.00380261
15707.8	-0.003773
15728.7	-0.00375593
15749.5	-0.00375143
15770.4	-0.0037595
15791.2	-0.00378011
15812.1	-0.00381323
15833	-0.00385881
15853.8	-0.00391677
15874.7	-0.00398703
15895.5	-0.00406949
15916.4	-0.004164
15937.3	-0.00427045
15958.1	-0.00438864
15979	-0.00451842
15999.8	-0.00465955
16020.7	-0.00481183
16041.6	-0.004975
16062.4	-0.00514877
16083.3	-0.00533287
16104.1	-0.00552696
16125	-0.00573069
16145.9	-0.00594368
16166.7	-0.00616555
16187.6	-0.00639585
16208.4	-0.00663412
16229.3	-0.00687988
16250.2	-0.00713261
16271	-0.00739177
16291.9	-0.00765677
16312.8	-0.00792702
16333.6	-0.00820187
16354.5	-0.00848067
16375.3	-0.00876272
16396.2	-0.00904731
16417.1	-0.00933368
16437.9	-0.00962107
16458.8	-0.00990869
16479.6	-0.0101957
16500.5	-0.0104813
16521.4	-0.0107646
16542.2	-0.0110448
16563.1	-0.0113209
16583.9	-0.0115921
16604.8	-0.0118574
16625.7	-0.012116
16646.5	-0.012367
16667.4	-0.0126094
16688.2	-0.0128424
16709.1	-0.0130651
16730	-0.0132765
16750.8	-0.0134759
16771.7	-0.0136624
16792.5	-0.0138352
16813.4	-0.0139936
16834.3	-0.0141367
16855.1	-0.0142639
16876	-0.0143745
16896.8	-0.0144678
16917.7	-0.0145435
16938.6	-0.0146008
16959.4	-0.0146394
16980.3	-0.0146588
17001.1	-0.0146587
17022	-0.0146389
17042.9	-0.014599
17063.7	-0.0145391
17084.6	-0.014459
17105.4	-0.0143588
17126.3	-0.0142384
17147.2	-0.0140982
17168	-0.0139382
17188.9	-0.0137589
17209.7	-0.0135605
17230.6	-0.0133436
17251.5	-0.0131087
17272.3	-0.0128564
17293.2	-0.0125874
17314	-0.0123024
17334.9	-0.0120023
17355.8	-0.0116878
17376.6	-0.01136
17397.5	-0.0110199
17418.3	-0.0106685
17439.2	-0.0103069
17460.1	-0.00993627
17480.9	-0.00955779
17501.8	-0.0091727
17522.7	-0.00878226
17543.5	-0.00838776
17564.4	-0.00799051
17585.2	-0.00759185
17606.1	-0.00719312
17627	-0.00679567
17647.8	-0.00640085
17668.7	-0.00601
17689.5	-0.00562447
17710.4	-0.00524558
17731.3	-0.00487463
17752.1	-0.00451288
17773	-0.00416159
17793.8	-0.00382195
17814.7	-0.00349514
17835.6	-0.00318227
17856.4	-0.00288441
17877.3	-0.00260256
17898.1	-0.00233767
17919	-0.00209063
17939.9	-0.00186225
17960.7	-0.00165328
17981.6	-0.00146439
18002.4	-0.00129616
18023.3	-0.00114911
18044.2	-0.00102367
18065	-0.000920179
18085.9	-0.000838892
18106.7	-0.000779978
18127.6	-0.000743518
18148.5	-0.000729503
18169.3	-0.000737834
18190.2	-0.000768324
18211	-0.000820697
18231.9	-0.000894589
18252.8	-0.00098955
18273.6	-0.00110504
18294.5	-0.00124046
18315.3	-0.00139509
18336.2	-0.00156816
18357.1	-0.00175883
18377.9	-0.00196617
18398.8	-0.00218919
18419.6	-0.00242683
18440.5	-0.00267799
18461.4	-0.0029415
18482.2	-0.00321613
18503.1	-0.00350062
18523.9	-0.00379365
18544.8	-0.0040939
18565.7	-0.00439997
18586.5	-0.00471048
18607.4	-0.00502399
18628.2	-0.00533908
18649.1	-0.00565431
18670	-0.00596822
18690.8	-0.00627937
18711.7	-0.00658632
18732.6	-0.00688766
18753.4	-0.00718198
18774.3	-0.0074679
18795.1	-0.00774406
18816	-0.00800916
18836.9	-0.00826192
18857.7	-0.00850111
18878.6	-0.00872555
18899.4	-0.0089341
18920.3	-0.00912569
18941.2	-0.00929932
18962	-0.00945404
18982.9	-0.00958896
19003.7	-0.00970329
19024.6	-0.00979628
19045.5	-0.00986728
19066.3	-0.0099157
19087.2	-0.00994105
19108	-0.00994289
19128.9	-0.00992089
19149.8	-0.00987478
19170.6	-0.0098044
19191.5	-0.00970963
19212.3	-0.00959048
19233.2	-0.00944699
19254.1	-0.00927933
19274.9	-0.0090877
19295.8	-0.00887241
19316.6	-0.00863384
19337.5	-0.00837243
19358.4	-0.00808869
19379.2	-0.00778321
19400.1	-0.00745663
19420.9	-0.00710965
19441.8	-0.00674304
19462.7	-0.00635762
19483.5	-0.00595424
19504.4	-0.00553383
19525.2	-0.00509732
19546.1	-0.00464572
19567	-0.00418003
19587.8	-0.00370133
19608.7	-0.00321067
19629.5	-0.00270915
19650.4	-0.0021979
19671.3	-0.00167803
19692.1	-0.00115067
19713	-0.000616959
19733.8	-7.80308e-05
19754.7	0.000464987
19775.6	0.00101097
19796.4	0.00155882
19817.3	0.00210744
19838.1	0.00265575
19859	0.00320271
19879.9	0.0037473
19900.7	0.00428851
19921.6	0.0048254
19942.5	0.00535702
19963.3	0.0058825
19984.2	0.00640097
