0	0
175.501	0
351.002	0
526.503	0
702.004	0
877.505	0
1053.01	0
1228.51	0
1404.01	0
1579.51	0
1755.01	0
1930.51	7.6953e-06
2106.01	0.000293325
2281.51	0.00144301
2457.01	0.00433444
2632.5	0.0102382
2808	0.020406
2983.49	0.0355062
3158.99	0.0551499
3334.48	0.0779326
3509.98	0.10179
3685.48	0.124476
3860.97	0.143923
4036.47	0.158493
4211.97	0.167116
4387.46	0.169358
4562.96	0.165379
4738.46	0.155825
4913.96	0.141669
5089.46	0.124044
5264.96	0.104128
5440.47	0.0830581
5615.97	0.0618841
5791.47	0.041537
5966.97	0.0227969
6142.47	0.00626135
6317.97	-0.00768254
6493.48	-0.0188704
6668.98	-0.0273522
6844.48	-0.0333601
7019.98	-0.0372568
7195.48	-0.0394735
7370.98	-0.040448
7546.48	-0.0405742
7721.98	-0.0401691
7897.48	-0.0394628
8072.98	-0.0386068
8248.49	-0.0376948
8423.99	-0.0367884
8599.49	-0.035938
8774.99	-0.0351959
8950.49	-0.0346181
9125.99	-0.0342574
9301.49	-0.0341524
9476.99	-0.0343161
9652.49	-0.0347295
9827.99	-0.0353421
10003.5	-0.0360791
10179	-0.0368543
10354.5	-0.0375837
10530	-0.0381989
10705.5	-0.0386554
10881	-0.0389349
11056.5	-0.0390422
11232	-0.0389982
11407.5	-0.0388302
11583	-0.0385634
11758.5	-0.038214
11934	-0.0377867
12109.5	-0.0372745
12285	-0.0366626
12460.5	-0.0359325
12636	-0.0350674
12811.5	-0.0340552
12987	-0.0328906
13162.5	-0.0315753
13338	-0.0301162
13513.5	-0.0285236
13689	-0.0268088
13864.5	-0.0249825
14040	-0.0230548
14215.5	-0.0210346
14391	-0.018932
14566.5	-0.0167588
14742	-0.01453
14917.5	-0.0122647
15093	-0.00998592
15268.5	-0.00771961
15444	-0.00549359
15619.5	-0.0033358
15795	-0.00127272
15970.5	0.000671867
16146	0.00247785
16321.5	0.00412917
16497	0.00561388
16672.5	0.00692393
16848	0.00805486
17023.5	0.00900546
17199	0.00977753
17374.5	0.0103757
17550	0.0108072
17725.5	0.011082
17901	0.0112121
18076.5	0.0112116
18252	0.0110957
18427.5	0.0108807
18603	0.0105826
18778.5	0.0102171
18954	0.00979867
19129.5	0.00934019
19305	0.00885283
19480.5	0.00834586
19656	0.0078268
19831.5	0.00730152
