STARTING WORLD SCHEDULER SERVER
CLIENT SETUP: adding client 40883
 + TIMESTAMP: 0.396102
START TIMESTAMP: 0.396141
+++++++++++++++++++++++++++++++++++++++++++++++++++++++++++
+ Client Mapping:
  > Client 40883 (0):	

+ Core Mapping:	0 0 0 0 0 0 0 0 0 0 0 0 0 0 0 0 0 0 0 0 0 0 0 0 0 0 0 0 0 0 0 0 0 0 0 0 0 0 0 0 
+ Optimal point: 
+++++++++++++++++++++++++++++++++++++++++++++++++++++++++++
INVADE: client 40883
 + TIMESTAMP: 0.396337
RESSOURCE DISTRIBUTION CHANGED
++++++++++++++++++++++++++++++++++++++++++++++++
INVADE (40883)
  + pid: 40883
  + min_cores: 1
  + max_cores: 512
  + scalability graph: 
1, 1.39494, 1.5699, 1.6742, 1.74538, 1.79792, 1.83875, 1.87167, 1.89893, 1.922, 1.94184, 1.95915, 1.97442, 1.98802, 2.00024, 2.0113, 2.02136, 2.03058, 2.03906, 2.04689, 2.05415, 2.06092, 2.06724, 2.07316, 2.07872, 2.08396, 2.0889, 2.09358, 2.09801, 2.10222, 2.10622, 2.11003, 2.11367, 2.11715, 2.12048, 2.12367, 2.12672, 2.12966, 2.13248, 2.1352, 
Number of clients: 1

+++++++++++++++++++++++++++++++++++++++++++++++++++++++++++
+ Client Mapping:
  > Client 40883 (40):	0 1 2 3 4 5 6 7 8 9 10 11 12 13 14 15 16 17 18 19 20 21 22 23 24 25 26 27 28 29 30 31 32 33 34 35 36 37 38 39 

+ Core Mapping:	40883 40883 40883 40883 40883 40883 40883 40883 40883 40883 40883 40883 40883 40883 40883 40883 40883 40883 40883 40883 40883 40883 40883 40883 40883 40883 40883 40883 40883 40883 40883 40883 40883 40883 40883 40883 40883 40883 40883 40883 
+ Optimal point: 40 
+++++++++++++++++++++++++++++++++++++++++++++++++++++++++++
CLIENT SETUP: adding client 40885
 + TIMESTAMP: 0.397877
+++++++++++++++++++++++++++++++++++++++++++++++++++++++++++
+ Client Mapping:
  > Client 40883 (40):	0 1 2 3 4 5 6 7 8 9 10 11 12 13 14 15 16 17 18 19 20 21 22 23 24 25 26 27 28 29 30 31 32 33 34 35 36 37 38 39 
  > Client 40885 (0):	

+ Core Mapping:	40883 40883 40883 40883 40883 40883 40883 40883 40883 40883 40883 40883 40883 40883 40883 40883 40883 40883 40883 40883 40883 40883 40883 40883 40883 40883 40883 40883 40883 40883 40883 40883 40883 40883 40883 40883 40883 40883 40883 40883 
+ Optimal point: 40 
+++++++++++++++++++++++++++++++++++++++++++++++++++++++++++
CLIENT SETUP: adding client 40884
 + TIMESTAMP: 0.398022
+++++++++++++++++++++++++++++++++++++++++++++++++++++++++++
+ Client Mapping:
  > Client 40883 (40):	0 1 2 3 4 5 6 7 8 9 10 11 12 13 14 15 16 17 18 19 20 21 22 23 24 25 26 27 28 29 30 31 32 33 34 35 36 37 38 39 
  > Client 40885 (0):	
  > Client 40884 (0):	

+ Core Mapping:	40883 40883 40883 40883 40883 40883 40883 40883 40883 40883 40883 40883 40883 40883 40883 40883 40883 40883 40883 40883 40883 40883 40883 40883 40883 40883 40883 40883 40883 40883 40883 40883 40883 40883 40883 40883 40883 40883 40883 40883 
+ Optimal point: 40 
+++++++++++++++++++++++++++++++++++++++++++++++++++++++++++
INVADE: client 40885
 + TIMESTAMP: 0.398152
CLIENT SETUP: adding client 40889
 + TIMESTAMP: 0.398176
+++++++++++++++++++++++++++++++++++++++++++++++++++++++++++
+ Client Mapping:
  > Client 40883 (40):	0 1 2 3 4 5 6 7 8 9 10 11 12 13 14 15 16 17 18 19 20 21 22 23 24 25 26 27 28 29 30 31 32 33 34 35 36 37 38 39 
  > Client 40885 (0):	
  > Client 40884 (0):	
  > Client 40889 (0):	

+ Core Mapping:	40883 40883 40883 40883 40883 40883 40883 40883 40883 40883 40883 40883 40883 40883 40883 40883 40883 40883 40883 40883 40883 40883 40883 40883 40883 40883 40883 40883 40883 40883 40883 40883 40883 40883 40883 40883 40883 40883 40883 40883 
+ Optimal point: 1 1 38 
+++++++++++++++++++++++++++++++++++++++++++++++++++++++++++
INVADE: client 40884
 + TIMESTAMP: 0.398241
INVADE: client 40889
 + TIMESTAMP: 0.39837
CLIENT SETUP: adding client 40887
 + TIMESTAMP: 0.423475
+++++++++++++++++++++++++++++++++++++++++++++++++++++++++++
+ Client Mapping:
  > Client 40883 (40):	0 1 2 3 4 5 6 7 8 9 10 11 12 13 14 15 16 17 18 19 20 21 22 23 24 25 26 27 28 29 30 31 32 33 34 35 36 37 38 39 
  > Client 40885 (0):	
  > Client 40884 (0):	
  > Client 40889 (0):	
  > Client 40887 (0):	

+ Core Mapping:	40883 40883 40883 40883 40883 40883 40883 40883 40883 40883 40883 40883 40883 40883 40883 40883 40883 40883 40883 40883 40883 40883 40883 40883 40883 40883 40883 40883 40883 40883 40883 40883 40883 40883 40883 40883 40883 40883 40883 40883 
+ Optimal point: 10 10 10 10 
+++++++++++++++++++++++++++++++++++++++++++++++++++++++++++
INVADE: client 40887
 + TIMESTAMP: 0.423628
CLIENT SETUP: adding client 40890
 + TIMESTAMP: 0.448995
+++++++++++++++++++++++++++++++++++++++++++++++++++++++++++
+ Client Mapping:
  > Client 40883 (40):	0 1 2 3 4 5 6 7 8 9 10 11 12 13 14 15 16 17 18 19 20 21 22 23 24 25 26 27 28 29 30 31 32 33 34 35 36 37 38 39 
  > Client 40885 (0):	
  > Client 40884 (0):	
  > Client 40889 (0):	
  > Client 40887 (0):	
  > Client 40890 (0):	

+ Core Mapping:	40883 40883 40883 40883 40883 40883 40883 40883 40883 40883 40883 40883 40883 40883 40883 40883 40883 40883 40883 40883 40883 40883 40883 40883 40883 40883 40883 40883 40883 40883 40883 40883 40883 40883 40883 40883 40883 40883 40883 40883 
+ Optimal point: 8 8 8 8 8 
+++++++++++++++++++++++++++++++++++++++++++++++++++++++++++
INVADE: client 40890
 + TIMESTAMP: 0.4491
CLIENT SETUP: adding client 40886
 + TIMESTAMP: 0.449667
+++++++++++++++++++++++++++++++++++++++++++++++++++++++++++
+ Client Mapping:
  > Client 40883 (40):	0 1 2 3 4 5 6 7 8 9 10 11 12 13 14 15 16 17 18 19 20 21 22 23 24 25 26 27 28 29 30 31 32 33 34 35 36 37 38 39 
  > Client 40885 (0):	
  > Client 40884 (0):	
  > Client 40889 (0):	
  > Client 40887 (0):	
  > Client 40890 (0):	
  > Client 40886 (0):	

+ Core Mapping:	40883 40883 40883 40883 40883 40883 40883 40883 40883 40883 40883 40883 40883 40883 40883 40883 40883 40883 40883 40883 40883 40883 40883 40883 40883 40883 40883 40883 40883 40883 40883 40883 40883 40883 40883 40883 40883 40883 40883 40883 
+ Optimal point: 7 7 7 6 6 7 
+++++++++++++++++++++++++++++++++++++++++++++++++++++++++++
INVADE: client 40886
 + TIMESTAMP: 0.449796
++++++++++++++++++++++++++++++++++++++++++++++++
 + TIMESTAMP: 0.488172
REINVADE (40883)
  + pid: 40883
  + min_cores: 1
  + max_cores: 512
  + scalability graph: 
1, 1.39494, 1.5699, 1.6742, 1.74538, 1.79792, 1.83875, 1.87167, 1.89893, 1.922, 1.94184, 1.95915, 1.97442, 1.98802, 2.00024, 2.0113, 2.02136, 2.03058, 2.03906, 2.04689, 2.05415, 2.06092, 2.06724, 2.07316, 2.07872, 2.08396, 2.0889, 2.09358, 2.09801, 2.10222, 2.10622, 2.11003, 2.11367, 2.11715, 2.12048, 2.12367, 2.12672, 2.12966, 2.13248, 2.1352, 
Number of clients: 7

+++++++++++++++++++++++++++++++++++++++++++++++++++++++++++
+ Client Mapping:
  > Client 40883 (6):	34 35 36 37 38 39 
  > Client 40885 (0):	
  > Client 40884 (0):	
  > Client 40889 (0):	
  > Client 40887 (0):	
  > Client 40890 (0):	
  > Client 40886 (0):	

+ Core Mapping:	0 0 0 0 0 0 0 0 0 0 0 0 0 0 0 0 0 0 0 0 0 0 0 0 0 0 0 0 0 0 0 0 0 0 40883 40883 40883 40883 40883 40883 
+ Optimal point: 6 6 6 6 6 5 5 
+++++++++++++++++++++++++++++++++++++++++++++++++++++++++++
CLIENT SETUP: adding client 40888
 + TIMESTAMP: 0.506848
+++++++++++++++++++++++++++++++++++++++++++++++++++++++++++
+ Client Mapping:
  > Client 40883 (6):	34 35 36 37 38 39 
  > Client 40885 (0):	
  > Client 40884 (0):	
  > Client 40889 (0):	
  > Client 40887 (0):	
  > Client 40890 (0):	
  > Client 40886 (0):	
  > Client 40888 (0):	

+ Core Mapping:	0 0 0 0 0 0 0 0 0 0 0 0 0 0 0 0 0 0 0 0 0 0 0 0 0 0 0 0 0 0 0 0 0 0 40883 40883 40883 40883 40883 40883 
+ Optimal point: 6 6 6 6 6 5 5 
+++++++++++++++++++++++++++++++++++++++++++++++++++++++++++
INVADE: client 40888
 + TIMESTAMP: 0.50697
RESSOURCE DISTRIBUTION CHANGED
++++++++++++++++++++++++++++++++++++++++++++++++
INVADE (40888)
  + pid: 40888
  + min_cores: 1
  + max_cores: 512
  + scalability graph: 
1, 1.39494, 1.5699, 1.6742, 1.74538, 1.79792, 1.83875, 1.87167, 1.89893, 1.922, 1.94184, 1.95915, 1.97442, 1.98802, 2.00024, 2.0113, 2.02136, 2.03058, 2.03906, 2.04689, 2.05415, 2.06092, 2.06724, 2.07316, 2.07872, 2.08396, 2.0889, 2.09358, 2.09801, 2.10222, 2.10622, 2.11003, 2.11367, 2.11715, 2.12048, 2.12367, 2.12672, 2.12966, 2.13248, 2.1352, 
Number of clients: 8

+++++++++++++++++++++++++++++++++++++++++++++++++++++++++++
+ Client Mapping:
  > Client 40883 (6):	34 35 36 37 38 39 
  > Client 40885 (0):	
  > Client 40884 (0):	
  > Client 40889 (0):	
  > Client 40887 (0):	
  > Client 40890 (0):	
  > Client 40886 (0):	
  > Client 40888 (5):	0 1 2 3 4 

+ Core Mapping:	40888 40888 40888 40888 40888 0 0 0 0 0 0 0 0 0 0 0 0 0 0 0 0 0 0 0 0 0 0 0 0 0 0 0 0 0 40883 40883 40883 40883 40883 40883 
+ Optimal point: 5 5 5 5 5 5 5 5 
+++++++++++++++++++++++++++++++++++++++++++++++++++++++++++
CLIENT SETUP: adding client 40882
 + TIMESTAMP: 0.513977
+++++++++++++++++++++++++++++++++++++++++++++++++++++++++++
+ Client Mapping:
  > Client 40883 (6):	34 35 36 37 38 39 
  > Client 40885 (0):	
  > Client 40884 (0):	
  > Client 40889 (0):	
  > Client 40887 (0):	
  > Client 40890 (0):	
  > Client 40886 (0):	
  > Client 40888 (5):	0 1 2 3 4 
  > Client 40882 (0):	

+ Core Mapping:	40888 40888 40888 40888 40888 0 0 0 0 0 0 0 0 0 0 0 0 0 0 0 0 0 0 0 0 0 0 0 0 0 0 0 0 0 40883 40883 40883 40883 40883 40883 
+ Optimal point: 5 5 5 5 5 5 5 5 
+++++++++++++++++++++++++++++++++++++++++++++++++++++++++++
INVADE: client 40882
 + TIMESTAMP: 0.514087
RESSOURCE DISTRIBUTION CHANGED
++++++++++++++++++++++++++++++++++++++++++++++++
INVADE (40882)
  + pid: 40882
  + min_cores: 1
  + max_cores: 512
  + scalability graph: 
1, 1.39494, 1.5699, 1.6742, 1.74538, 1.79792, 1.83875, 1.87167, 1.89893, 1.922, 1.94184, 1.95915, 1.97442, 1.98802, 2.00024, 2.0113, 2.02136, 2.03058, 2.03906, 2.04689, 2.05415, 2.06092, 2.06724, 2.07316, 2.07872, 2.08396, 2.0889, 2.09358, 2.09801, 2.10222, 2.10622, 2.11003, 2.11367, 2.11715, 2.12048, 2.12367, 2.12672, 2.12966, 2.13248, 2.1352, 
Number of clients: 9

+++++++++++++++++++++++++++++++++++++++++++++++++++++++++++
+ Client Mapping:
  > Client 40883 (6):	34 35 36 37 38 39 
  > Client 40885 (0):	
  > Client 40884 (0):	
  > Client 40889 (0):	
  > Client 40887 (0):	
  > Client 40890 (0):	
  > Client 40886 (0):	
  > Client 40888 (5):	0 1 2 3 4 
  > Client 40882 (4):	5 6 7 8 

+ Core Mapping:	40888 40888 40888 40888 40888 40882 40882 40882 40882 0 0 0 0 0 0 0 0 0 0 0 0 0 0 0 0 0 0 0 0 0 0 0 0 0 40883 40883 40883 40883 40883 40883 
+ Optimal point: 5 5 5 5 4 4 4 4 4 
+++++++++++++++++++++++++++++++++++++++++++++++++++++++++++
++++++++++++++++++++++++++++++++++++++++++++++++
 + TIMESTAMP: 0.559014
REINVADE (40888)
  + pid: 40888
  + min_cores: 1
  + max_cores: 512
  + scalability graph: 
1, 1.39494, 1.5699, 1.6742, 1.74538, 1.79792, 1.83875, 1.87167, 1.89893, 1.922, 1.94184, 1.95915, 1.97442, 1.98802, 2.00024, 2.0113, 2.02136, 2.03058, 2.03906, 2.04689, 2.05415, 2.06092, 2.06724, 2.07316, 2.07872, 2.08396, 2.0889, 2.09358, 2.09801, 2.10222, 2.10622, 2.11003, 2.11367, 2.11715, 2.12048, 2.12367, 2.12672, 2.12966, 2.13248, 2.1352, 
Number of clients: 9

+++++++++++++++++++++++++++++++++++++++++++++++++++++++++++
+ Client Mapping:
  > Client 40883 (6):	34 35 36 37 38 39 
  > Client 40885 (0):	
  > Client 40884 (0):	
  > Client 40889 (0):	
  > Client 40887 (0):	
  > Client 40890 (0):	
  > Client 40886 (0):	
  > Client 40888 (4):	1 2 3 4 
  > Client 40882 (4):	5 6 7 8 

+ Core Mapping:	0 40888 40888 40888 40888 40882 40882 40882 40882 0 0 0 0 0 0 0 0 0 0 0 0 0 0 0 0 0 0 0 0 0 0 0 0 0 40883 40883 40883 40883 40883 40883 
+ Optimal point: 5 5 5 5 4 4 4 4 4 
+++++++++++++++++++++++++++++++++++++++++++++++++++++++++++
++++++++++++++++++++++++++++++++++++++++++++++++
 + TIMESTAMP: 0.896015
REINVADE (40883)
  + pid: 40883
  + min_cores: 1
  + max_cores: 512
  + scalability graph: 
1, 1.39494, 1.5699, 1.6742, 1.74538, 1.79792, 1.83875, 1.87167, 1.89893, 1.922, 1.94184, 1.95915, 1.97442, 1.98802, 2.00024, 2.0113, 2.02136, 2.03058, 2.03906, 2.04689, 2.05415, 2.06092, 2.06724, 2.07316, 2.07872, 2.08396, 2.0889, 2.09358, 2.09801, 2.10222, 2.10622, 2.11003, 2.11367, 2.11715, 2.12048, 2.12367, 2.12672, 2.12966, 2.13248, 2.1352, 
Number of clients: 9

+++++++++++++++++++++++++++++++++++++++++++++++++++++++++++
+ Client Mapping:
  > Client 40883 (5):	35 36 37 38 39 
  > Client 40885 (0):	
  > Client 40884 (0):	
  > Client 40889 (0):	
  > Client 40887 (0):	
  > Client 40890 (0):	
  > Client 40886 (0):	
  > Client 40888 (4):	1 2 3 4 
  > Client 40882 (4):	5 6 7 8 

+ Core Mapping:	0 40888 40888 40888 40888 40882 40882 40882 40882 0 0 0 0 0 0 0 0 0 0 0 0 0 0 0 0 0 0 0 0 0 0 0 0 0 0 40883 40883 40883 40883 40883 
+ Optimal point: 5 5 5 5 4 4 4 4 4 
+++++++++++++++++++++++++++++++++++++++++++++++++++++++++++
++++++++++++++++++++++++++++++++++++++++++++++++
 + TIMESTAMP: 1.18741
REINVADE (40885)
  + pid: 40885
  + min_cores: 1
  + max_cores: 512
  + scalability graph: 
1, 1.39494, 1.5699, 1.6742, 1.74538, 1.79792, 1.83875, 1.87167, 1.89893, 1.922, 1.94184, 1.95915, 1.97442, 1.98802, 2.00024, 2.0113, 2.02136, 2.03058, 2.03906, 2.04689, 2.05415, 2.06092, 2.06724, 2.07316, 2.07872, 2.08396, 2.0889, 2.09358, 2.09801, 2.10222, 2.10622, 2.11003, 2.11367, 2.11715, 2.12048, 2.12367, 2.12672, 2.12966, 2.13248, 2.1352, 
Number of clients: 9

+++++++++++++++++++++++++++++++++++++++++++++++++++++++++++
+ Client Mapping:
  > Client 40883 (5):	35 36 37 38 39 
  > Client 40885 (5):	0 9 10 11 12 
  > Client 40884 (0):	
  > Client 40889 (0):	
  > Client 40887 (0):	
  > Client 40890 (0):	
  > Client 40886 (0):	
  > Client 40888 (4):	1 2 3 4 
  > Client 40882 (4):	5 6 7 8 

+ Core Mapping:	40885 40888 40888 40888 40888 40882 40882 40882 40882 40885 40885 40885 40885 0 0 0 0 0 0 0 0 0 0 0 0 0 0 0 0 0 0 0 0 0 0 40883 40883 40883 40883 40883 
+ Optimal point: 5 5 5 5 4 4 4 4 4 
+++++++++++++++++++++++++++++++++++++++++++++++++++++++++++
++++++++++++++++++++++++++++++++++++++++++++++++
 + TIMESTAMP: 1.31872
REINVADE (40887)
  + pid: 40887
  + min_cores: 1
  + max_cores: 512
  + scalability graph: 
1, 1.39494, 1.5699, 1.6742, 1.74538, 1.79792, 1.83875, 1.87167, 1.89893, 1.922, 1.94184, 1.95915, 1.97442, 1.98802, 2.00024, 2.0113, 2.02136, 2.03058, 2.03906, 2.04689, 2.05415, 2.06092, 2.06724, 2.07316, 2.07872, 2.08396, 2.0889, 2.09358, 2.09801, 2.10222, 2.10622, 2.11003, 2.11367, 2.11715, 2.12048, 2.12367, 2.12672, 2.12966, 2.13248, 2.1352, 
Number of clients: 9

+++++++++++++++++++++++++++++++++++++++++++++++++++++++++++
+ Client Mapping:
  > Client 40883 (5):	35 36 37 38 39 
  > Client 40885 (5):	0 9 10 11 12 
  > Client 40884 (0):	
  > Client 40889 (0):	
  > Client 40887 (4):	13 14 15 16 
  > Client 40890 (0):	
  > Client 40886 (0):	
  > Client 40888 (4):	1 2 3 4 
  > Client 40882 (4):	5 6 7 8 

+ Core Mapping:	40885 40888 40888 40888 40888 40882 40882 40882 40882 40885 40885 40885 40885 40887 40887 40887 40887 0 0 0 0 0 0 0 0 0 0 0 0 0 0 0 0 0 0 40883 40883 40883 40883 40883 
+ Optimal point: 5 5 5 5 4 4 4 4 4 
+++++++++++++++++++++++++++++++++++++++++++++++++++++++++++
++++++++++++++++++++++++++++++++++++++++++++++++
 + TIMESTAMP: 1.47622
REINVADE (40884)
  + pid: 40884
  + min_cores: 1
  + max_cores: 512
  + scalability graph: 
1, 1.39494, 1.5699, 1.6742, 1.74538, 1.79792, 1.83875, 1.87167, 1.89893, 1.922, 1.94184, 1.95915, 1.97442, 1.98802, 2.00024, 2.0113, 2.02136, 2.03058, 2.03906, 2.04689, 2.05415, 2.06092, 2.06724, 2.07316, 2.07872, 2.08396, 2.0889, 2.09358, 2.09801, 2.10222, 2.10622, 2.11003, 2.11367, 2.11715, 2.12048, 2.12367, 2.12672, 2.12966, 2.13248, 2.1352, 
Number of clients: 9

+++++++++++++++++++++++++++++++++++++++++++++++++++++++++++
+ Client Mapping:
  > Client 40883 (5):	35 36 37 38 39 
  > Client 40885 (5):	0 9 10 11 12 
  > Client 40884 (5):	17 18 19 20 21 
  > Client 40889 (0):	
  > Client 40887 (4):	13 14 15 16 
  > Client 40890 (0):	
  > Client 40886 (0):	
  > Client 40888 (4):	1 2 3 4 
  > Client 40882 (4):	5 6 7 8 

+ Core Mapping:	40885 40888 40888 40888 40888 40882 40882 40882 40882 40885 40885 40885 40885 40887 40887 40887 40887 40884 40884 40884 40884 40884 0 0 0 0 0 0 0 0 0 0 0 0 0 40883 40883 40883 40883 40883 
+ Optimal point: 5 5 5 5 4 4 4 4 4 
+++++++++++++++++++++++++++++++++++++++++++++++++++++++++++
++++++++++++++++++++++++++++++++++++++++++++++++
 + TIMESTAMP: 1.47665
REINVADE (40886)
  + pid: 40886
  + min_cores: 1
  + max_cores: 512
  + scalability graph: 
1, 1.39494, 1.5699, 1.6742, 1.74538, 1.79792, 1.83875, 1.87167, 1.89893, 1.922, 1.94184, 1.95915, 1.97442, 1.98802, 2.00024, 2.0113, 2.02136, 2.03058, 2.03906, 2.04689, 2.05415, 2.06092, 2.06724, 2.07316, 2.07872, 2.08396, 2.0889, 2.09358, 2.09801, 2.10222, 2.10622, 2.11003, 2.11367, 2.11715, 2.12048, 2.12367, 2.12672, 2.12966, 2.13248, 2.1352, 
Number of clients: 9

+++++++++++++++++++++++++++++++++++++++++++++++++++++++++++
+ Client Mapping:
  > Client 40883 (5):	35 36 37 38 39 
  > Client 40885 (5):	0 9 10 11 12 
  > Client 40884 (5):	17 18 19 20 21 
  > Client 40889 (0):	
  > Client 40887 (4):	13 14 15 16 
  > Client 40890 (0):	
  > Client 40886 (4):	22 23 24 25 
  > Client 40888 (4):	1 2 3 4 
  > Client 40882 (4):	5 6 7 8 

+ Core Mapping:	40885 40888 40888 40888 40888 40882 40882 40882 40882 40885 40885 40885 40885 40887 40887 40887 40887 40884 40884 40884 40884 40884 40886 40886 40886 40886 0 0 0 0 0 0 0 0 0 40883 40883 40883 40883 40883 
+ Optimal point: 5 5 5 5 4 4 4 4 4 
+++++++++++++++++++++++++++++++++++++++++++++++++++++++++++
++++++++++++++++++++++++++++++++++++++++++++++++
 + TIMESTAMP: 1.4787
REINVADE (40890)
  + pid: 40890
  + min_cores: 1
  + max_cores: 512
  + scalability graph: 
1, 1.39494, 1.5699, 1.6742, 1.74538, 1.79792, 1.83875, 1.87167, 1.89893, 1.922, 1.94184, 1.95915, 1.97442, 1.98802, 2.00024, 2.0113, 2.02136, 2.03058, 2.03906, 2.04689, 2.05415, 2.06092, 2.06724, 2.07316, 2.07872, 2.08396, 2.0889, 2.09358, 2.09801, 2.10222, 2.10622, 2.11003, 2.11367, 2.11715, 2.12048, 2.12367, 2.12672, 2.12966, 2.13248, 2.1352, 
Number of clients: 9

+++++++++++++++++++++++++++++++++++++++++++++++++++++++++++
+ Client Mapping:
  > Client 40883 (5):	35 36 37 38 39 
  > Client 40885 (5):	0 9 10 11 12 
  > Client 40884 (5):	17 18 19 20 21 
  > Client 40889 (0):	
  > Client 40887 (4):	13 14 15 16 
  > Client 40890 (4):	26 27 28 29 
  > Client 40886 (4):	22 23 24 25 
  > Client 40888 (4):	1 2 3 4 
  > Client 40882 (4):	5 6 7 8 

+ Core Mapping:	40885 40888 40888 40888 40888 40882 40882 40882 40882 40885 40885 40885 40885 40887 40887 40887 40887 40884 40884 40884 40884 40884 40886 40886 40886 40886 40890 40890 40890 40890 0 0 0 0 0 40883 40883 40883 40883 40883 
+ Optimal point: 5 5 5 5 4 4 4 4 4 
+++++++++++++++++++++++++++++++++++++++++++++++++++++++++++
++++++++++++++++++++++++++++++++++++++++++++++++
 + TIMESTAMP: 1.48803
REINVADE (40889)
  + pid: 40889
  + min_cores: 1
  + max_cores: 512
  + scalability graph: 
1, 1.39494, 1.5699, 1.6742, 1.74538, 1.79792, 1.83875, 1.87167, 1.89893, 1.922, 1.94184, 1.95915, 1.97442, 1.98802, 2.00024, 2.0113, 2.02136, 2.03058, 2.03906, 2.04689, 2.05415, 2.06092, 2.06724, 2.07316, 2.07872, 2.08396, 2.0889, 2.09358, 2.09801, 2.10222, 2.10622, 2.11003, 2.11367, 2.11715, 2.12048, 2.12367, 2.12672, 2.12966, 2.13248, 2.1352, 
Number of clients: 9

+++++++++++++++++++++++++++++++++++++++++++++++++++++++++++
+ Client Mapping:
  > Client 40883 (5):	35 36 37 38 39 
  > Client 40885 (5):	0 9 10 11 12 
  > Client 40884 (5):	17 18 19 20 21 
  > Client 40889 (5):	30 31 32 33 34 
  > Client 40887 (4):	13 14 15 16 
  > Client 40890 (4):	26 27 28 29 
  > Client 40886 (4):	22 23 24 25 
  > Client 40888 (4):	1 2 3 4 
  > Client 40882 (4):	5 6 7 8 

+ Core Mapping:	40885 40888 40888 40888 40888 40882 40882 40882 40882 40885 40885 40885 40885 40887 40887 40887 40887 40884 40884 40884 40884 40884 40886 40886 40886 40886 40890 40890 40890 40890 40889 40889 40889 40889 40889 40883 40883 40883 40883 40883 
+ Optimal point: 5 5 5 5 4 4 4 4 4 
+++++++++++++++++++++++++++++++++++++++++++++++++++++++++++
CLIENT SHUTDOWN: client 40883
 + TIMESTAMP: 1399.47
+++++++++++++++++++++++++++++++++++++++++++++++++++++++++++
+ Client Mapping:
  > Client 40883 (0):	
  > Client 40885 (5):	0 9 10 11 12 
  > Client 40884 (5):	17 18 19 20 21 
  > Client 40889 (5):	30 31 32 33 34 
  > Client 40887 (4):	13 14 15 16 
  > Client 40890 (4):	26 27 28 29 
  > Client 40886 (4):	22 23 24 25 
  > Client 40888 (4):	1 2 3 4 
  > Client 40882 (4):	5 6 7 8 

+ Core Mapping:	40885 40888 40888 40888 40888 40882 40882 40882 40882 40885 40885 40885 40885 40887 40887 40887 40887 40884 40884 40884 40884 40884 40886 40886 40886 40886 40890 40890 40890 40890 40889 40889 40889 40889 40889 0 0 0 0 0 
+ Optimal point: 5 5 5 5 4 4 4 4 4 
+++++++++++++++++++++++++++++++++++++++++++++++++++++++++++
client (40883) shutdown hint: 20954.2
sum_client_shutdown_hint: 20954.2
sum_client_shutdown_hint_div_time: 0
++++++++++++++++++++++++++++++++++++++++++++++++
 + TIMESTAMP: 1399.47
REINVADE (40887)
  + pid: 40887
  + min_cores: 1
  + max_cores: 512
  + scalability graph: 
1, 1.39494, 1.5699, 1.6742, 1.74538, 1.79792, 1.83875, 1.87167, 1.89893, 1.922, 1.94184, 1.95915, 1.97442, 1.98802, 2.00024, 2.0113, 2.02136, 2.03058, 2.03906, 2.04689, 2.05415, 2.06092, 2.06724, 2.07316, 2.07872, 2.08396, 2.0889, 2.09358, 2.09801, 2.10222, 2.10622, 2.11003, 2.11367, 2.11715, 2.12048, 2.12367, 2.12672, 2.12966, 2.13248, 2.1352, 
Number of clients: 8

+++++++++++++++++++++++++++++++++++++++++++++++++++++++++++
+ Client Mapping:
  > Client 40885 (5):	0 9 10 11 12 
  > Client 40884 (5):	17 18 19 20 21 
  > Client 40889 (5):	30 31 32 33 34 
  > Client 40887 (5):	13 14 15 16 35 
  > Client 40890 (4):	26 27 28 29 
  > Client 40886 (4):	22 23 24 25 
  > Client 40888 (4):	1 2 3 4 
  > Client 40882 (4):	5 6 7 8 

+ Core Mapping:	40885 40888 40888 40888 40888 40882 40882 40882 40882 40885 40885 40885 40885 40887 40887 40887 40887 40884 40884 40884 40884 40884 40886 40886 40886 40886 40890 40890 40890 40890 40889 40889 40889 40889 40889 40887 0 0 0 0 
+ Optimal point: 5 5 5 5 5 5 5 5 
+++++++++++++++++++++++++++++++++++++++++++++++++++++++++++
++++++++++++++++++++++++++++++++++++++++++++++++
 + TIMESTAMP: 1399.48
REINVADE (40890)
  + pid: 40890
  + min_cores: 1
  + max_cores: 512
  + scalability graph: 
1, 1.39494, 1.5699, 1.6742, 1.74538, 1.79792, 1.83875, 1.87167, 1.89893, 1.922, 1.94184, 1.95915, 1.97442, 1.98802, 2.00024, 2.0113, 2.02136, 2.03058, 2.03906, 2.04689, 2.05415, 2.06092, 2.06724, 2.07316, 2.07872, 2.08396, 2.0889, 2.09358, 2.09801, 2.10222, 2.10622, 2.11003, 2.11367, 2.11715, 2.12048, 2.12367, 2.12672, 2.12966, 2.13248, 2.1352, 
Number of clients: 8

+++++++++++++++++++++++++++++++++++++++++++++++++++++++++++
+ Client Mapping:
  > Client 40885 (5):	0 9 10 11 12 
  > Client 40884 (5):	17 18 19 20 21 
  > Client 40889 (5):	30 31 32 33 34 
  > Client 40887 (5):	13 14 15 16 35 
  > Client 40890 (5):	26 27 28 29 36 
  > Client 40886 (4):	22 23 24 25 
  > Client 40888 (4):	1 2 3 4 
  > Client 40882 (4):	5 6 7 8 

+ Core Mapping:	40885 40888 40888 40888 40888 40882 40882 40882 40882 40885 40885 40885 40885 40887 40887 40887 40887 40884 40884 40884 40884 40884 40886 40886 40886 40886 40890 40890 40890 40890 40889 40889 40889 40889 40889 40887 40890 0 0 0 
+ Optimal point: 5 5 5 5 5 5 5 5 
+++++++++++++++++++++++++++++++++++++++++++++++++++++++++++
++++++++++++++++++++++++++++++++++++++++++++++++
 + TIMESTAMP: 1399.48
REINVADE (40886)
  + pid: 40886
  + min_cores: 1
  + max_cores: 512
  + scalability graph: 
1, 1.39494, 1.5699, 1.6742, 1.74538, 1.79792, 1.83875, 1.87167, 1.89893, 1.922, 1.94184, 1.95915, 1.97442, 1.98802, 2.00024, 2.0113, 2.02136, 2.03058, 2.03906, 2.04689, 2.05415, 2.06092, 2.06724, 2.07316, 2.07872, 2.08396, 2.0889, 2.09358, 2.09801, 2.10222, 2.10622, 2.11003, 2.11367, 2.11715, 2.12048, 2.12367, 2.12672, 2.12966, 2.13248, 2.1352, 
Number of clients: 8

+++++++++++++++++++++++++++++++++++++++++++++++++++++++++++
+ Client Mapping:
  > Client 40885 (5):	0 9 10 11 12 
  > Client 40884 (5):	17 18 19 20 21 
  > Client 40889 (5):	30 31 32 33 34 
  > Client 40887 (5):	13 14 15 16 35 
  > Client 40890 (5):	26 27 28 29 36 
  > Client 40886 (5):	22 23 24 25 37 
  > Client 40888 (4):	1 2 3 4 
  > Client 40882 (4):	5 6 7 8 

+ Core Mapping:	40885 40888 40888 40888 40888 40882 40882 40882 40882 40885 40885 40885 40885 40887 40887 40887 40887 40884 40884 40884 40884 40884 40886 40886 40886 40886 40890 40890 40890 40890 40889 40889 40889 40889 40889 40887 40890 40886 0 0 
+ Optimal point: 5 5 5 5 5 5 5 5 
+++++++++++++++++++++++++++++++++++++++++++++++++++++++++++
++++++++++++++++++++++++++++++++++++++++++++++++
 + TIMESTAMP: 1399.49
REINVADE (40888)
  + pid: 40888
  + min_cores: 1
  + max_cores: 512
  + scalability graph: 
1, 1.39494, 1.5699, 1.6742, 1.74538, 1.79792, 1.83875, 1.87167, 1.89893, 1.922, 1.94184, 1.95915, 1.97442, 1.98802, 2.00024, 2.0113, 2.02136, 2.03058, 2.03906, 2.04689, 2.05415, 2.06092, 2.06724, 2.07316, 2.07872, 2.08396, 2.0889, 2.09358, 2.09801, 2.10222, 2.10622, 2.11003, 2.11367, 2.11715, 2.12048, 2.12367, 2.12672, 2.12966, 2.13248, 2.1352, 
Number of clients: 8

+++++++++++++++++++++++++++++++++++++++++++++++++++++++++++
+ Client Mapping:
  > Client 40885 (5):	0 9 10 11 12 
  > Client 40884 (5):	17 18 19 20 21 
  > Client 40889 (5):	30 31 32 33 34 
  > Client 40887 (5):	13 14 15 16 35 
  > Client 40890 (5):	26 27 28 29 36 
  > Client 40886 (5):	22 23 24 25 37 
  > Client 40888 (5):	1 2 3 4 38 
  > Client 40882 (4):	5 6 7 8 

+ Core Mapping:	40885 40888 40888 40888 40888 40882 40882 40882 40882 40885 40885 40885 40885 40887 40887 40887 40887 40884 40884 40884 40884 40884 40886 40886 40886 40886 40890 40890 40890 40890 40889 40889 40889 40889 40889 40887 40890 40886 40888 0 
+ Optimal point: 5 5 5 5 5 5 5 5 
+++++++++++++++++++++++++++++++++++++++++++++++++++++++++++
++++++++++++++++++++++++++++++++++++++++++++++++
 + TIMESTAMP: 1399.49
REINVADE (40882)
  + pid: 40882
  + min_cores: 1
  + max_cores: 512
  + scalability graph: 
1, 1.39494, 1.5699, 1.6742, 1.74538, 1.79792, 1.83875, 1.87167, 1.89893, 1.922, 1.94184, 1.95915, 1.97442, 1.98802, 2.00024, 2.0113, 2.02136, 2.03058, 2.03906, 2.04689, 2.05415, 2.06092, 2.06724, 2.07316, 2.07872, 2.08396, 2.0889, 2.09358, 2.09801, 2.10222, 2.10622, 2.11003, 2.11367, 2.11715, 2.12048, 2.12367, 2.12672, 2.12966, 2.13248, 2.1352, 
Number of clients: 8

+++++++++++++++++++++++++++++++++++++++++++++++++++++++++++
+ Client Mapping:
  > Client 40885 (5):	0 9 10 11 12 
  > Client 40884 (5):	17 18 19 20 21 
  > Client 40889 (5):	30 31 32 33 34 
  > Client 40887 (5):	13 14 15 16 35 
  > Client 40890 (5):	26 27 28 29 36 
  > Client 40886 (5):	22 23 24 25 37 
  > Client 40888 (5):	1 2 3 4 38 
  > Client 40882 (5):	5 6 7 8 39 

+ Core Mapping:	40885 40888 40888 40888 40888 40882 40882 40882 40882 40885 40885 40885 40885 40887 40887 40887 40887 40884 40884 40884 40884 40884 40886 40886 40886 40886 40890 40890 40890 40890 40889 40889 40889 40889 40889 40887 40890 40886 40888 40882 
+ Optimal point: 5 5 5 5 5 5 5 5 
+++++++++++++++++++++++++++++++++++++++++++++++++++++++++++
CLIENT SHUTDOWN: client 40884
 + TIMESTAMP: 1439.88
+++++++++++++++++++++++++++++++++++++++++++++++++++++++++++
+ Client Mapping:
  > Client 40885 (5):	0 9 10 11 12 
  > Client 40884 (0):	
  > Client 40889 (5):	30 31 32 33 34 
  > Client 40887 (5):	13 14 15 16 35 
  > Client 40890 (5):	26 27 28 29 36 
  > Client 40886 (5):	22 23 24 25 37 
  > Client 40888 (5):	1 2 3 4 38 
  > Client 40882 (5):	5 6 7 8 39 

+ Core Mapping:	40885 40888 40888 40888 40888 40882 40882 40882 40882 40885 40885 40885 40885 40887 40887 40887 40887 0 0 0 0 0 40886 40886 40886 40886 40890 40890 40890 40890 40889 40889 40889 40889 40889 40887 40890 40886 40888 40882 
+ Optimal point: 5 5 5 5 5 5 5 5 
+++++++++++++++++++++++++++++++++++++++++++++++++++++++++++
client (40884) shutdown hint: 20954.2
sum_client_shutdown_hint: 41908.4
sum_client_shutdown_hint_div_time: 0
++++++++++++++++++++++++++++++++++++++++++++++++
 + TIMESTAMP: 1439.88
REINVADE (40890)
  + pid: 40890
  + min_cores: 1
  + max_cores: 512
  + scalability graph: 
1, 1.39494, 1.5699, 1.6742, 1.74538, 1.79792, 1.83875, 1.87167, 1.89893, 1.922, 1.94184, 1.95915, 1.97442, 1.98802, 2.00024, 2.0113, 2.02136, 2.03058, 2.03906, 2.04689, 2.05415, 2.06092, 2.06724, 2.07316, 2.07872, 2.08396, 2.0889, 2.09358, 2.09801, 2.10222, 2.10622, 2.11003, 2.11367, 2.11715, 2.12048, 2.12367, 2.12672, 2.12966, 2.13248, 2.1352, 
Number of clients: 7

+++++++++++++++++++++++++++++++++++++++++++++++++++++++++++
+ Client Mapping:
  > Client 40885 (5):	0 9 10 11 12 
  > Client 40889 (5):	30 31 32 33 34 
  > Client 40887 (5):	13 14 15 16 35 
  > Client 40890 (6):	26 27 28 29 36 17 
  > Client 40886 (5):	22 23 24 25 37 
  > Client 40888 (5):	1 2 3 4 38 
  > Client 40882 (5):	5 6 7 8 39 

+ Core Mapping:	40885 40888 40888 40888 40888 40882 40882 40882 40882 40885 40885 40885 40885 40887 40887 40887 40887 40890 0 0 0 0 40886 40886 40886 40886 40890 40890 40890 40890 40889 40889 40889 40889 40889 40887 40890 40886 40888 40882 
+ Optimal point: 6 6 6 6 6 5 5 
+++++++++++++++++++++++++++++++++++++++++++++++++++++++++++
++++++++++++++++++++++++++++++++++++++++++++++++
 + TIMESTAMP: 1439.88
REINVADE (40887)
  + pid: 40887
  + min_cores: 1
  + max_cores: 512
  + scalability graph: 
1, 1.39494, 1.5699, 1.6742, 1.74538, 1.79792, 1.83875, 1.87167, 1.89893, 1.922, 1.94184, 1.95915, 1.97442, 1.98802, 2.00024, 2.0113, 2.02136, 2.03058, 2.03906, 2.04689, 2.05415, 2.06092, 2.06724, 2.07316, 2.07872, 2.08396, 2.0889, 2.09358, 2.09801, 2.10222, 2.10622, 2.11003, 2.11367, 2.11715, 2.12048, 2.12367, 2.12672, 2.12966, 2.13248, 2.1352, 
Number of clients: 7

+++++++++++++++++++++++++++++++++++++++++++++++++++++++++++
+ Client Mapping:
  > Client 40885 (5):	0 9 10 11 12 
  > Client 40889 (5):	30 31 32 33 34 
  > Client 40887 (6):	13 14 15 16 35 18 
  > Client 40890 (6):	26 27 28 29 36 17 
  > Client 40886 (5):	22 23 24 25 37 
  > Client 40888 (5):	1 2 3 4 38 
  > Client 40882 (5):	5 6 7 8 39 

+ Core Mapping:	40885 40888 40888 40888 40888 40882 40882 40882 40882 40885 40885 40885 40885 40887 40887 40887 40887 40890 40887 0 0 0 40886 40886 40886 40886 40890 40890 40890 40890 40889 40889 40889 40889 40889 40887 40890 40886 40888 40882 
+ Optimal point: 6 6 6 6 6 5 5 
+++++++++++++++++++++++++++++++++++++++++++++++++++++++++++
++++++++++++++++++++++++++++++++++++++++++++++++
 + TIMESTAMP: 1439.88
REINVADE (40889)
  + pid: 40889
  + min_cores: 1
  + max_cores: 512
  + scalability graph: 
1, 1.39494, 1.5699, 1.6742, 1.74538, 1.79792, 1.83875, 1.87167, 1.89893, 1.922, 1.94184, 1.95915, 1.97442, 1.98802, 2.00024, 2.0113, 2.02136, 2.03058, 2.03906, 2.04689, 2.05415, 2.06092, 2.06724, 2.07316, 2.07872, 2.08396, 2.0889, 2.09358, 2.09801, 2.10222, 2.10622, 2.11003, 2.11367, 2.11715, 2.12048, 2.12367, 2.12672, 2.12966, 2.13248, 2.1352, 
Number of clients: 7

+++++++++++++++++++++++++++++++++++++++++++++++++++++++++++
+ Client Mapping:
  > Client 40885 (5):	0 9 10 11 12 
  > Client 40889 (6):	30 31 32 33 34 19 
  > Client 40887 (6):	13 14 15 16 35 18 
  > Client 40890 (6):	26 27 28 29 36 17 
  > Client 40886 (5):	22 23 24 25 37 
  > Client 40888 (5):	1 2 3 4 38 
  > Client 40882 (5):	5 6 7 8 39 

+ Core Mapping:	40885 40888 40888 40888 40888 40882 40882 40882 40882 40885 40885 40885 40885 40887 40887 40887 40887 40890 40887 40889 0 0 40886 40886 40886 40886 40890 40890 40890 40890 40889 40889 40889 40889 40889 40887 40890 40886 40888 40882 
+ Optimal point: 6 6 6 6 6 5 5 
+++++++++++++++++++++++++++++++++++++++++++++++++++++++++++
++++++++++++++++++++++++++++++++++++++++++++++++
 + TIMESTAMP: 1439.89
REINVADE (40886)
  + pid: 40886
  + min_cores: 1
  + max_cores: 512
  + scalability graph: 
1, 1.39494, 1.5699, 1.6742, 1.74538, 1.79792, 1.83875, 1.87167, 1.89893, 1.922, 1.94184, 1.95915, 1.97442, 1.98802, 2.00024, 2.0113, 2.02136, 2.03058, 2.03906, 2.04689, 2.05415, 2.06092, 2.06724, 2.07316, 2.07872, 2.08396, 2.0889, 2.09358, 2.09801, 2.10222, 2.10622, 2.11003, 2.11367, 2.11715, 2.12048, 2.12367, 2.12672, 2.12966, 2.13248, 2.1352, 
Number of clients: 7

+++++++++++++++++++++++++++++++++++++++++++++++++++++++++++
+ Client Mapping:
  > Client 40885 (5):	0 9 10 11 12 
  > Client 40889 (6):	30 31 32 33 34 19 
  > Client 40887 (6):	13 14 15 16 35 18 
  > Client 40890 (6):	26 27 28 29 36 17 
  > Client 40886 (6):	22 23 24 25 37 20 
  > Client 40888 (5):	1 2 3 4 38 
  > Client 40882 (5):	5 6 7 8 39 

+ Core Mapping:	40885 40888 40888 40888 40888 40882 40882 40882 40882 40885 40885 40885 40885 40887 40887 40887 40887 40890 40887 40889 40886 0 40886 40886 40886 40886 40890 40890 40890 40890 40889 40889 40889 40889 40889 40887 40890 40886 40888 40882 
+ Optimal point: 6 6 6 6 6 5 5 
+++++++++++++++++++++++++++++++++++++++++++++++++++++++++++
++++++++++++++++++++++++++++++++++++++++++++++++
 + TIMESTAMP: 1439.89
REINVADE (40885)
  + pid: 40885
  + min_cores: 1
  + max_cores: 512
  + scalability graph: 
1, 1.39494, 1.5699, 1.6742, 1.74538, 1.79792, 1.83875, 1.87167, 1.89893, 1.922, 1.94184, 1.95915, 1.97442, 1.98802, 2.00024, 2.0113, 2.02136, 2.03058, 2.03906, 2.04689, 2.05415, 2.06092, 2.06724, 2.07316, 2.07872, 2.08396, 2.0889, 2.09358, 2.09801, 2.10222, 2.10622, 2.11003, 2.11367, 2.11715, 2.12048, 2.12367, 2.12672, 2.12966, 2.13248, 2.1352, 
Number of clients: 7

+++++++++++++++++++++++++++++++++++++++++++++++++++++++++++
+ Client Mapping:
  > Client 40885 (6):	0 9 10 11 12 21 
  > Client 40889 (6):	30 31 32 33 34 19 
  > Client 40887 (6):	13 14 15 16 35 18 
  > Client 40890 (6):	26 27 28 29 36 17 
  > Client 40886 (6):	22 23 24 25 37 20 
  > Client 40888 (5):	1 2 3 4 38 
  > Client 40882 (5):	5 6 7 8 39 

+ Core Mapping:	40885 40888 40888 40888 40888 40882 40882 40882 40882 40885 40885 40885 40885 40887 40887 40887 40887 40890 40887 40889 40886 40885 40886 40886 40886 40886 40890 40890 40890 40890 40889 40889 40889 40889 40889 40887 40890 40886 40888 40882 
+ Optimal point: 6 6 6 6 6 5 5 
+++++++++++++++++++++++++++++++++++++++++++++++++++++++++++
CLIENT SHUTDOWN: client 40889
 + TIMESTAMP: 1465.87
+++++++++++++++++++++++++++++++++++++++++++++++++++++++++++
+ Client Mapping:
  > Client 40885 (6):	0 9 10 11 12 21 
  > Client 40889 (0):	
  > Client 40887 (6):	13 14 15 16 35 18 
  > Client 40890 (6):	26 27 28 29 36 17 
  > Client 40886 (6):	22 23 24 25 37 20 
  > Client 40888 (5):	1 2 3 4 38 
  > Client 40882 (5):	5 6 7 8 39 

+ Core Mapping:	40885 40888 40888 40888 40888 40882 40882 40882 40882 40885 40885 40885 40885 40887 40887 40887 40887 40890 40887 0 40886 40885 40886 40886 40886 40886 40890 40890 40890 40890 0 0 0 0 0 40887 40890 40886 40888 40882 
+ Optimal point: 6 6 6 6 6 5 5 
+++++++++++++++++++++++++++++++++++++++++++++++++++++++++++
client (40889) shutdown hint: 20954.2
sum_client_shutdown_hint: 62862.6
sum_client_shutdown_hint_div_time: 0
++++++++++++++++++++++++++++++++++++++++++++++++
 + TIMESTAMP: 1465.87
REINVADE (40882)
  + pid: 40882
  + min_cores: 1
  + max_cores: 512
  + scalability graph: 
1, 1.39494, 1.5699, 1.6742, 1.74538, 1.79792, 1.83875, 1.87167, 1.89893, 1.922, 1.94184, 1.95915, 1.97442, 1.98802, 2.00024, 2.0113, 2.02136, 2.03058, 2.03906, 2.04689, 2.05415, 2.06092, 2.06724, 2.07316, 2.07872, 2.08396, 2.0889, 2.09358, 2.09801, 2.10222, 2.10622, 2.11003, 2.11367, 2.11715, 2.12048, 2.12367, 2.12672, 2.12966, 2.13248, 2.1352, 
Number of clients: 6

+++++++++++++++++++++++++++++++++++++++++++++++++++++++++++
+ Client Mapping:
  > Client 40885 (6):	0 9 10 11 12 21 
  > Client 40887 (6):	13 14 15 16 35 18 
  > Client 40890 (6):	26 27 28 29 36 17 
  > Client 40886 (6):	22 23 24 25 37 20 
  > Client 40888 (5):	1 2 3 4 38 
  > Client 40882 (7):	5 6 7 8 39 19 30 

+ Core Mapping:	40885 40888 40888 40888 40888 40882 40882 40882 40882 40885 40885 40885 40885 40887 40887 40887 40887 40890 40887 40882 40886 40885 40886 40886 40886 40886 40890 40890 40890 40890 40882 0 0 0 0 40887 40890 40886 40888 40882 
+ Optimal point: 7 7 7 6 6 7 
+++++++++++++++++++++++++++++++++++++++++++++++++++++++++++
++++++++++++++++++++++++++++++++++++++++++++++++
 + TIMESTAMP: 1465.89
REINVADE (40887)
  + pid: 40887
  + min_cores: 1
  + max_cores: 512
  + scalability graph: 
1, 1.39494, 1.5699, 1.6742, 1.74538, 1.79792, 1.83875, 1.87167, 1.89893, 1.922, 1.94184, 1.95915, 1.97442, 1.98802, 2.00024, 2.0113, 2.02136, 2.03058, 2.03906, 2.04689, 2.05415, 2.06092, 2.06724, 2.07316, 2.07872, 2.08396, 2.0889, 2.09358, 2.09801, 2.10222, 2.10622, 2.11003, 2.11367, 2.11715, 2.12048, 2.12367, 2.12672, 2.12966, 2.13248, 2.1352, 
Number of clients: 6

+++++++++++++++++++++++++++++++++++++++++++++++++++++++++++
+ Client Mapping:
  > Client 40885 (6):	0 9 10 11 12 21 
  > Client 40887 (7):	13 14 15 16 35 18 31 
  > Client 40890 (6):	26 27 28 29 36 17 
  > Client 40886 (6):	22 23 24 25 37 20 
  > Client 40888 (5):	1 2 3 4 38 
  > Client 40882 (7):	5 6 7 8 39 19 30 

+ Core Mapping:	40885 40888 40888 40888 40888 40882 40882 40882 40882 40885 40885 40885 40885 40887 40887 40887 40887 40890 40887 40882 40886 40885 40886 40886 40886 40886 40890 40890 40890 40890 40882 40887 0 0 0 40887 40890 40886 40888 40882 
+ Optimal point: 7 7 7 6 6 7 
+++++++++++++++++++++++++++++++++++++++++++++++++++++++++++
++++++++++++++++++++++++++++++++++++++++++++++++
 + TIMESTAMP: 1465.89
REINVADE (40890)
  + pid: 40890
  + min_cores: 1
  + max_cores: 512
  + scalability graph: 
1, 1.39494, 1.5699, 1.6742, 1.74538, 1.79792, 1.83875, 1.87167, 1.89893, 1.922, 1.94184, 1.95915, 1.97442, 1.98802, 2.00024, 2.0113, 2.02136, 2.03058, 2.03906, 2.04689, 2.05415, 2.06092, 2.06724, 2.07316, 2.07872, 2.08396, 2.0889, 2.09358, 2.09801, 2.10222, 2.10622, 2.11003, 2.11367, 2.11715, 2.12048, 2.12367, 2.12672, 2.12966, 2.13248, 2.1352, 
Number of clients: 6

+++++++++++++++++++++++++++++++++++++++++++++++++++++++++++
+ Client Mapping:
  > Client 40885 (6):	0 9 10 11 12 21 
  > Client 40887 (7):	13 14 15 16 35 18 31 
  > Client 40890 (7):	26 27 28 29 36 17 32 
  > Client 40886 (6):	22 23 24 25 37 20 
  > Client 40888 (5):	1 2 3 4 38 
  > Client 40882 (7):	5 6 7 8 39 19 30 

+ Core Mapping:	40885 40888 40888 40888 40888 40882 40882 40882 40882 40885 40885 40885 40885 40887 40887 40887 40887 40890 40887 40882 40886 40885 40886 40886 40886 40886 40890 40890 40890 40890 40882 40887 40890 0 0 40887 40890 40886 40888 40882 
+ Optimal point: 7 7 7 6 6 7 
+++++++++++++++++++++++++++++++++++++++++++++++++++++++++++
++++++++++++++++++++++++++++++++++++++++++++++++
 + TIMESTAMP: 1465.9
REINVADE (40888)
  + pid: 40888
  + min_cores: 1
  + max_cores: 512
  + scalability graph: 
1, 1.39494, 1.5699, 1.6742, 1.74538, 1.79792, 1.83875, 1.87167, 1.89893, 1.922, 1.94184, 1.95915, 1.97442, 1.98802, 2.00024, 2.0113, 2.02136, 2.03058, 2.03906, 2.04689, 2.05415, 2.06092, 2.06724, 2.07316, 2.07872, 2.08396, 2.0889, 2.09358, 2.09801, 2.10222, 2.10622, 2.11003, 2.11367, 2.11715, 2.12048, 2.12367, 2.12672, 2.12966, 2.13248, 2.1352, 
Number of clients: 6

+++++++++++++++++++++++++++++++++++++++++++++++++++++++++++
+ Client Mapping:
  > Client 40885 (6):	0 9 10 11 12 21 
  > Client 40887 (7):	13 14 15 16 35 18 31 
  > Client 40890 (7):	26 27 28 29 36 17 32 
  > Client 40886 (6):	22 23 24 25 37 20 
  > Client 40888 (6):	1 2 3 4 38 33 
  > Client 40882 (7):	5 6 7 8 39 19 30 

+ Core Mapping:	40885 40888 40888 40888 40888 40882 40882 40882 40882 40885 40885 40885 40885 40887 40887 40887 40887 40890 40887 40882 40886 40885 40886 40886 40886 40886 40890 40890 40890 40890 40882 40887 40890 40888 0 40887 40890 40886 40888 40882 
+ Optimal point: 7 7 7 6 6 7 
+++++++++++++++++++++++++++++++++++++++++++++++++++++++++++
++++++++++++++++++++++++++++++++++++++++++++++++
 + TIMESTAMP: 1465.91
REINVADE (40885)
  + pid: 40885
  + min_cores: 1
  + max_cores: 512
  + scalability graph: 
1, 1.39494, 1.5699, 1.6742, 1.74538, 1.79792, 1.83875, 1.87167, 1.89893, 1.922, 1.94184, 1.95915, 1.97442, 1.98802, 2.00024, 2.0113, 2.02136, 2.03058, 2.03906, 2.04689, 2.05415, 2.06092, 2.06724, 2.07316, 2.07872, 2.08396, 2.0889, 2.09358, 2.09801, 2.10222, 2.10622, 2.11003, 2.11367, 2.11715, 2.12048, 2.12367, 2.12672, 2.12966, 2.13248, 2.1352, 
Number of clients: 6

+++++++++++++++++++++++++++++++++++++++++++++++++++++++++++
+ Client Mapping:
  > Client 40885 (7):	0 9 10 11 12 21 34 
  > Client 40887 (7):	13 14 15 16 35 18 31 
  > Client 40890 (7):	26 27 28 29 36 17 32 
  > Client 40886 (6):	22 23 24 25 37 20 
  > Client 40888 (6):	1 2 3 4 38 33 
  > Client 40882 (7):	5 6 7 8 39 19 30 

+ Core Mapping:	40885 40888 40888 40888 40888 40882 40882 40882 40882 40885 40885 40885 40885 40887 40887 40887 40887 40890 40887 40882 40886 40885 40886 40886 40886 40886 40890 40890 40890 40890 40882 40887 40890 40888 40885 40887 40890 40886 40888 40882 
+ Optimal point: 7 7 7 6 6 7 
+++++++++++++++++++++++++++++++++++++++++++++++++++++++++++
CLIENT SHUTDOWN: client 40885
 + TIMESTAMP: 1488.26
+++++++++++++++++++++++++++++++++++++++++++++++++++++++++++
+ Client Mapping:
  > Client 40885 (0):	
  > Client 40887 (7):	13 14 15 16 35 18 31 
  > Client 40890 (7):	26 27 28 29 36 17 32 
  > Client 40886 (6):	22 23 24 25 37 20 
  > Client 40888 (6):	1 2 3 4 38 33 
  > Client 40882 (7):	5 6 7 8 39 19 30 

+ Core Mapping:	0 40888 40888 40888 40888 40882 40882 40882 40882 0 0 0 0 40887 40887 40887 40887 40890 40887 40882 40886 0 40886 40886 40886 40886 40890 40890 40890 40890 40882 40887 40890 40888 0 40887 40890 40886 40888 40882 
+ Optimal point: 7 7 7 6 6 7 
+++++++++++++++++++++++++++++++++++++++++++++++++++++++++++
client (40885) shutdown hint: 20954.2
sum_client_shutdown_hint: 83816.8
sum_client_shutdown_hint_div_time: 0
++++++++++++++++++++++++++++++++++++++++++++++++
 + TIMESTAMP: 1488.27
REINVADE (40882)
  + pid: 40882
  + min_cores: 1
  + max_cores: 512
  + scalability graph: 
1, 1.39494, 1.5699, 1.6742, 1.74538, 1.79792, 1.83875, 1.87167, 1.89893, 1.922, 1.94184, 1.95915, 1.97442, 1.98802, 2.00024, 2.0113, 2.02136, 2.03058, 2.03906, 2.04689, 2.05415, 2.06092, 2.06724, 2.07316, 2.07872, 2.08396, 2.0889, 2.09358, 2.09801, 2.10222, 2.10622, 2.11003, 2.11367, 2.11715, 2.12048, 2.12367, 2.12672, 2.12966, 2.13248, 2.1352, 
Number of clients: 5

+++++++++++++++++++++++++++++++++++++++++++++++++++++++++++
+ Client Mapping:
  > Client 40887 (7):	13 14 15 16 35 18 31 
  > Client 40890 (7):	26 27 28 29 36 17 32 
  > Client 40886 (6):	22 23 24 25 37 20 
  > Client 40888 (6):	1 2 3 4 38 33 
  > Client 40882 (8):	5 6 7 8 39 19 30 0 

+ Core Mapping:	40882 40888 40888 40888 40888 40882 40882 40882 40882 0 0 0 0 40887 40887 40887 40887 40890 40887 40882 40886 0 40886 40886 40886 40886 40890 40890 40890 40890 40882 40887 40890 40888 0 40887 40890 40886 40888 40882 
+ Optimal point: 8 8 8 8 8 
+++++++++++++++++++++++++++++++++++++++++++++++++++++++++++
++++++++++++++++++++++++++++++++++++++++++++++++
 + TIMESTAMP: 1488.27
REINVADE (40890)
  + pid: 40890
  + min_cores: 1
  + max_cores: 512
  + scalability graph: 
1, 1.39494, 1.5699, 1.6742, 1.74538, 1.79792, 1.83875, 1.87167, 1.89893, 1.922, 1.94184, 1.95915, 1.97442, 1.98802, 2.00024, 2.0113, 2.02136, 2.03058, 2.03906, 2.04689, 2.05415, 2.06092, 2.06724, 2.07316, 2.07872, 2.08396, 2.0889, 2.09358, 2.09801, 2.10222, 2.10622, 2.11003, 2.11367, 2.11715, 2.12048, 2.12367, 2.12672, 2.12966, 2.13248, 2.1352, 
Number of clients: 5

+++++++++++++++++++++++++++++++++++++++++++++++++++++++++++
+ Client Mapping:
  > Client 40887 (7):	13 14 15 16 35 18 31 
  > Client 40890 (8):	26 27 28 29 36 17 32 9 
  > Client 40886 (6):	22 23 24 25 37 20 
  > Client 40888 (6):	1 2 3 4 38 33 
  > Client 40882 (8):	5 6 7 8 39 19 30 0 

+ Core Mapping:	40882 40888 40888 40888 40888 40882 40882 40882 40882 40890 0 0 0 40887 40887 40887 40887 40890 40887 40882 40886 0 40886 40886 40886 40886 40890 40890 40890 40890 40882 40887 40890 40888 0 40887 40890 40886 40888 40882 
+ Optimal point: 8 8 8 8 8 
+++++++++++++++++++++++++++++++++++++++++++++++++++++++++++
++++++++++++++++++++++++++++++++++++++++++++++++
 + TIMESTAMP: 1488.29
REINVADE (40887)
  + pid: 40887
  + min_cores: 1
  + max_cores: 512
  + scalability graph: 
1, 1.39494, 1.5699, 1.6742, 1.74538, 1.79792, 1.83875, 1.87167, 1.89893, 1.922, 1.94184, 1.95915, 1.97442, 1.98802, 2.00024, 2.0113, 2.02136, 2.03058, 2.03906, 2.04689, 2.05415, 2.06092, 2.06724, 2.07316, 2.07872, 2.08396, 2.0889, 2.09358, 2.09801, 2.10222, 2.10622, 2.11003, 2.11367, 2.11715, 2.12048, 2.12367, 2.12672, 2.12966, 2.13248, 2.1352, 
Number of clients: 5

+++++++++++++++++++++++++++++++++++++++++++++++++++++++++++
+ Client Mapping:
  > Client 40887 (8):	13 14 15 16 35 18 31 10 
  > Client 40890 (8):	26 27 28 29 36 17 32 9 
  > Client 40886 (6):	22 23 24 25 37 20 
  > Client 40888 (6):	1 2 3 4 38 33 
  > Client 40882 (8):	5 6 7 8 39 19 30 0 

+ Core Mapping:	40882 40888 40888 40888 40888 40882 40882 40882 40882 40890 40887 0 0 40887 40887 40887 40887 40890 40887 40882 40886 0 40886 40886 40886 40886 40890 40890 40890 40890 40882 40887 40890 40888 0 40887 40890 40886 40888 40882 
+ Optimal point: 8 8 8 8 8 
+++++++++++++++++++++++++++++++++++++++++++++++++++++++++++
++++++++++++++++++++++++++++++++++++++++++++++++
 + TIMESTAMP: 1488.29
REINVADE (40888)
  + pid: 40888
  + min_cores: 1
  + max_cores: 512
  + scalability graph: 
1, 1.39494, 1.5699, 1.6742, 1.74538, 1.79792, 1.83875, 1.87167, 1.89893, 1.922, 1.94184, 1.95915, 1.97442, 1.98802, 2.00024, 2.0113, 2.02136, 2.03058, 2.03906, 2.04689, 2.05415, 2.06092, 2.06724, 2.07316, 2.07872, 2.08396, 2.0889, 2.09358, 2.09801, 2.10222, 2.10622, 2.11003, 2.11367, 2.11715, 2.12048, 2.12367, 2.12672, 2.12966, 2.13248, 2.1352, 
Number of clients: 5

+++++++++++++++++++++++++++++++++++++++++++++++++++++++++++
+ Client Mapping:
  > Client 40887 (8):	13 14 15 16 35 18 31 10 
  > Client 40890 (8):	26 27 28 29 36 17 32 9 
  > Client 40886 (6):	22 23 24 25 37 20 
  > Client 40888 (8):	1 2 3 4 38 33 11 12 
  > Client 40882 (8):	5 6 7 8 39 19 30 0 

+ Core Mapping:	40882 40888 40888 40888 40888 40882 40882 40882 40882 40890 40887 40888 40888 40887 40887 40887 40887 40890 40887 40882 40886 0 40886 40886 40886 40886 40890 40890 40890 40890 40882 40887 40890 40888 0 40887 40890 40886 40888 40882 
+ Optimal point: 8 8 8 8 8 
+++++++++++++++++++++++++++++++++++++++++++++++++++++++++++
++++++++++++++++++++++++++++++++++++++++++++++++
 + TIMESTAMP: 1488.3
REINVADE (40886)
  + pid: 40886
  + min_cores: 1
  + max_cores: 512
  + scalability graph: 
1, 1.39494, 1.5699, 1.6742, 1.74538, 1.79792, 1.83875, 1.87167, 1.89893, 1.922, 1.94184, 1.95915, 1.97442, 1.98802, 2.00024, 2.0113, 2.02136, 2.03058, 2.03906, 2.04689, 2.05415, 2.06092, 2.06724, 2.07316, 2.07872, 2.08396, 2.0889, 2.09358, 2.09801, 2.10222, 2.10622, 2.11003, 2.11367, 2.11715, 2.12048, 2.12367, 2.12672, 2.12966, 2.13248, 2.1352, 
Number of clients: 5

+++++++++++++++++++++++++++++++++++++++++++++++++++++++++++
+ Client Mapping:
  > Client 40887 (8):	13 14 15 16 35 18 31 10 
  > Client 40890 (8):	26 27 28 29 36 17 32 9 
  > Client 40886 (8):	22 23 24 25 37 20 21 34 
  > Client 40888 (8):	1 2 3 4 38 33 11 12 
  > Client 40882 (8):	5 6 7 8 39 19 30 0 

+ Core Mapping:	40882 40888 40888 40888 40888 40882 40882 40882 40882 40890 40887 40888 40888 40887 40887 40887 40887 40890 40887 40882 40886 40886 40886 40886 40886 40886 40890 40890 40890 40890 40882 40887 40890 40888 40886 40887 40890 40886 40888 40882 
+ Optimal point: 8 8 8 8 8 
+++++++++++++++++++++++++++++++++++++++++++++++++++++++++++
CLIENT SHUTDOWN: client 40887
 + TIMESTAMP: 1607.7
+++++++++++++++++++++++++++++++++++++++++++++++++++++++++++
+ Client Mapping:
  > Client 40887 (0):	
  > Client 40890 (8):	26 27 28 29 36 17 32 9 
  > Client 40886 (8):	22 23 24 25 37 20 21 34 
  > Client 40888 (8):	1 2 3 4 38 33 11 12 
  > Client 40882 (8):	5 6 7 8 39 19 30 0 

+ Core Mapping:	40882 40888 40888 40888 40888 40882 40882 40882 40882 40890 0 40888 40888 0 0 0 0 40890 0 40882 40886 40886 40886 40886 40886 40886 40890 40890 40890 40890 40882 0 40890 40888 40886 0 40890 40886 40888 40882 
+ Optimal point: 8 8 8 8 8 
+++++++++++++++++++++++++++++++++++++++++++++++++++++++++++
client (40887) shutdown hint: 20954.2
sum_client_shutdown_hint: 104771
sum_client_shutdown_hint_div_time: 0
++++++++++++++++++++++++++++++++++++++++++++++++
 + TIMESTAMP: 1607.71
REINVADE (40886)
  + pid: 40886
  + min_cores: 1
  + max_cores: 512
  + scalability graph: 
1, 1.39494, 1.5699, 1.6742, 1.74538, 1.79792, 1.83875, 1.87167, 1.89893, 1.922, 1.94184, 1.95915, 1.97442, 1.98802, 2.00024, 2.0113, 2.02136, 2.03058, 2.03906, 2.04689, 2.05415, 2.06092, 2.06724, 2.07316, 2.07872, 2.08396, 2.0889, 2.09358, 2.09801, 2.10222, 2.10622, 2.11003, 2.11367, 2.11715, 2.12048, 2.12367, 2.12672, 2.12966, 2.13248, 2.1352, 
Number of clients: 4

+++++++++++++++++++++++++++++++++++++++++++++++++++++++++++
+ Client Mapping:
  > Client 40890 (8):	26 27 28 29 36 17 32 9 
  > Client 40886 (10):	22 23 24 25 37 20 21 34 10 13 
  > Client 40888 (8):	1 2 3 4 38 33 11 12 
  > Client 40882 (8):	5 6 7 8 39 19 30 0 

+ Core Mapping:	40882 40888 40888 40888 40888 40882 40882 40882 40882 40890 40886 40888 40888 40886 0 0 0 40890 0 40882 40886 40886 40886 40886 40886 40886 40890 40890 40890 40890 40882 0 40890 40888 40886 0 40890 40886 40888 40882 
+ Optimal point: 10 10 10 10 
+++++++++++++++++++++++++++++++++++++++++++++++++++++++++++
++++++++++++++++++++++++++++++++++++++++++++++++
 + TIMESTAMP: 1607.72
REINVADE (40888)
  + pid: 40888
  + min_cores: 1
  + max_cores: 512
  + scalability graph: 
1, 1.39494, 1.5699, 1.6742, 1.74538, 1.79792, 1.83875, 1.87167, 1.89893, 1.922, 1.94184, 1.95915, 1.97442, 1.98802, 2.00024, 2.0113, 2.02136, 2.03058, 2.03906, 2.04689, 2.05415, 2.06092, 2.06724, 2.07316, 2.07872, 2.08396, 2.0889, 2.09358, 2.09801, 2.10222, 2.10622, 2.11003, 2.11367, 2.11715, 2.12048, 2.12367, 2.12672, 2.12966, 2.13248, 2.1352, 
Number of clients: 4

+++++++++++++++++++++++++++++++++++++++++++++++++++++++++++
+ Client Mapping:
  > Client 40890 (8):	26 27 28 29 36 17 32 9 
  > Client 40886 (10):	22 23 24 25 37 20 21 34 10 13 
  > Client 40888 (10):	1 2 3 4 38 33 11 12 14 15 
  > Client 40882 (8):	5 6 7 8 39 19 30 0 

+ Core Mapping:	40882 40888 40888 40888 40888 40882 40882 40882 40882 40890 40886 40888 40888 40886 40888 40888 0 40890 0 40882 40886 40886 40886 40886 40886 40886 40890 40890 40890 40890 40882 0 40890 40888 40886 0 40890 40886 40888 40882 
+ Optimal point: 10 10 10 10 
+++++++++++++++++++++++++++++++++++++++++++++++++++++++++++
++++++++++++++++++++++++++++++++++++++++++++++++
 + TIMESTAMP: 1607.72
REINVADE (40890)
  + pid: 40890
  + min_cores: 1
  + max_cores: 512
  + scalability graph: 
1, 1.39494, 1.5699, 1.6742, 1.74538, 1.79792, 1.83875, 1.87167, 1.89893, 1.922, 1.94184, 1.95915, 1.97442, 1.98802, 2.00024, 2.0113, 2.02136, 2.03058, 2.03906, 2.04689, 2.05415, 2.06092, 2.06724, 2.07316, 2.07872, 2.08396, 2.0889, 2.09358, 2.09801, 2.10222, 2.10622, 2.11003, 2.11367, 2.11715, 2.12048, 2.12367, 2.12672, 2.12966, 2.13248, 2.1352, 
Number of clients: 4

+++++++++++++++++++++++++++++++++++++++++++++++++++++++++++
+ Client Mapping:
  > Client 40890 (10):	26 27 28 29 36 17 32 9 16 18 
  > Client 40886 (10):	22 23 24 25 37 20 21 34 10 13 
  > Client 40888 (10):	1 2 3 4 38 33 11 12 14 15 
  > Client 40882 (8):	5 6 7 8 39 19 30 0 

+ Core Mapping:	40882 40888 40888 40888 40888 40882 40882 40882 40882 40890 40886 40888 40888 40886 40888 40888 40890 40890 40890 40882 40886 40886 40886 40886 40886 40886 40890 40890 40890 40890 40882 0 40890 40888 40886 0 40890 40886 40888 40882 
+ Optimal point: 10 10 10 10 
+++++++++++++++++++++++++++++++++++++++++++++++++++++++++++
++++++++++++++++++++++++++++++++++++++++++++++++
 + TIMESTAMP: 1607.72
REINVADE (40882)
  + pid: 40882
  + min_cores: 1
  + max_cores: 512
  + scalability graph: 
1, 1.39494, 1.5699, 1.6742, 1.74538, 1.79792, 1.83875, 1.87167, 1.89893, 1.922, 1.94184, 1.95915, 1.97442, 1.98802, 2.00024, 2.0113, 2.02136, 2.03058, 2.03906, 2.04689, 2.05415, 2.06092, 2.06724, 2.07316, 2.07872, 2.08396, 2.0889, 2.09358, 2.09801, 2.10222, 2.10622, 2.11003, 2.11367, 2.11715, 2.12048, 2.12367, 2.12672, 2.12966, 2.13248, 2.1352, 
Number of clients: 4

+++++++++++++++++++++++++++++++++++++++++++++++++++++++++++
+ Client Mapping:
  > Client 40890 (10):	26 27 28 29 36 17 32 9 16 18 
  > Client 40886 (10):	22 23 24 25 37 20 21 34 10 13 
  > Client 40888 (10):	1 2 3 4 38 33 11 12 14 15 
  > Client 40882 (10):	5 6 7 8 39 19 30 0 31 35 

+ Core Mapping:	40882 40888 40888 40888 40888 40882 40882 40882 40882 40890 40886 40888 40888 40886 40888 40888 40890 40890 40890 40882 40886 40886 40886 40886 40886 40886 40890 40890 40890 40890 40882 40882 40890 40888 40886 40882 40890 40886 40888 40882 
+ Optimal point: 10 10 10 10 
+++++++++++++++++++++++++++++++++++++++++++++++++++++++++++
CLIENT SHUTDOWN: client 40886
 + TIMESTAMP: 1608.56
+++++++++++++++++++++++++++++++++++++++++++++++++++++++++++
+ Client Mapping:
  > Client 40890 (10):	26 27 28 29 36 17 32 9 16 18 
  > Client 40886 (0):	
  > Client 40888 (10):	1 2 3 4 38 33 11 12 14 15 
  > Client 40882 (10):	5 6 7 8 39 19 30 0 31 35 

+ Core Mapping:	40882 40888 40888 40888 40888 40882 40882 40882 40882 40890 0 40888 40888 0 40888 40888 40890 40890 40890 40882 0 0 0 0 0 0 40890 40890 40890 40890 40882 40882 40890 40888 0 40882 40890 0 40888 40882 
+ Optimal point: 10 10 10 10 
+++++++++++++++++++++++++++++++++++++++++++++++++++++++++++
client (40886) shutdown hint: 20954.2
sum_client_shutdown_hint: 125725
sum_client_shutdown_hint_div_time: 0
++++++++++++++++++++++++++++++++++++++++++++++++
 + TIMESTAMP: 1608.57
REINVADE (40882)
  + pid: 40882
  + min_cores: 1
  + max_cores: 512
  + scalability graph: 
1, 1.39494, 1.5699, 1.6742, 1.74538, 1.79792, 1.83875, 1.87167, 1.89893, 1.922, 1.94184, 1.95915, 1.97442, 1.98802, 2.00024, 2.0113, 2.02136, 2.03058, 2.03906, 2.04689, 2.05415, 2.06092, 2.06724, 2.07316, 2.07872, 2.08396, 2.0889, 2.09358, 2.09801, 2.10222, 2.10622, 2.11003, 2.11367, 2.11715, 2.12048, 2.12367, 2.12672, 2.12966, 2.13248, 2.1352, 
Number of clients: 3

+++++++++++++++++++++++++++++++++++++++++++++++++++++++++++
+ Client Mapping:
  > Client 40890 (10):	26 27 28 29 36 17 32 9 16 18 
  > Client 40888 (10):	1 2 3 4 38 33 11 12 14 15 
  > Client 40882 (13):	5 6 7 8 39 19 30 0 31 35 10 13 20 

+ Core Mapping:	40882 40888 40888 40888 40888 40882 40882 40882 40882 40890 40882 40888 40888 40882 40888 40888 40890 40890 40890 40882 40882 0 0 0 0 0 40890 40890 40890 40890 40882 40882 40890 40888 0 40882 40890 0 40888 40882 
+ Optimal point: 14 13 13 
+++++++++++++++++++++++++++++++++++++++++++++++++++++++++++
++++++++++++++++++++++++++++++++++++++++++++++++
 + TIMESTAMP: 1608.57
REINVADE (40888)
  + pid: 40888
  + min_cores: 1
  + max_cores: 512
  + scalability graph: 
1, 1.39494, 1.5699, 1.6742, 1.74538, 1.79792, 1.83875, 1.87167, 1.89893, 1.922, 1.94184, 1.95915, 1.97442, 1.98802, 2.00024, 2.0113, 2.02136, 2.03058, 2.03906, 2.04689, 2.05415, 2.06092, 2.06724, 2.07316, 2.07872, 2.08396, 2.0889, 2.09358, 2.09801, 2.10222, 2.10622, 2.11003, 2.11367, 2.11715, 2.12048, 2.12367, 2.12672, 2.12966, 2.13248, 2.1352, 
Number of clients: 3

+++++++++++++++++++++++++++++++++++++++++++++++++++++++++++
+ Client Mapping:
  > Client 40890 (10):	26 27 28 29 36 17 32 9 16 18 
  > Client 40888 (13):	1 2 3 4 38 33 11 12 14 15 21 22 23 
  > Client 40882 (13):	5 6 7 8 39 19 30 0 31 35 10 13 20 

+ Core Mapping:	40882 40888 40888 40888 40888 40882 40882 40882 40882 40890 40882 40888 40888 40882 40888 40888 40890 40890 40890 40882 40882 40888 40888 40888 0 0 40890 40890 40890 40890 40882 40882 40890 40888 0 40882 40890 0 40888 40882 
+ Optimal point: 14 13 13 
+++++++++++++++++++++++++++++++++++++++++++++++++++++++++++
++++++++++++++++++++++++++++++++++++++++++++++++
 + TIMESTAMP: 1608.57
REINVADE (40890)
  + pid: 40890
  + min_cores: 1
  + max_cores: 512
  + scalability graph: 
1, 1.39494, 1.5699, 1.6742, 1.74538, 1.79792, 1.83875, 1.87167, 1.89893, 1.922, 1.94184, 1.95915, 1.97442, 1.98802, 2.00024, 2.0113, 2.02136, 2.03058, 2.03906, 2.04689, 2.05415, 2.06092, 2.06724, 2.07316, 2.07872, 2.08396, 2.0889, 2.09358, 2.09801, 2.10222, 2.10622, 2.11003, 2.11367, 2.11715, 2.12048, 2.12367, 2.12672, 2.12966, 2.13248, 2.1352, 
Number of clients: 3

+++++++++++++++++++++++++++++++++++++++++++++++++++++++++++
+ Client Mapping:
  > Client 40890 (14):	26 27 28 29 36 17 32 9 16 18 24 25 34 37 
  > Client 40888 (13):	1 2 3 4 38 33 11 12 14 15 21 22 23 
  > Client 40882 (13):	5 6 7 8 39 19 30 0 31 35 10 13 20 

+ Core Mapping:	40882 40888 40888 40888 40888 40882 40882 40882 40882 40890 40882 40888 40888 40882 40888 40888 40890 40890 40890 40882 40882 40888 40888 40888 40890 40890 40890 40890 40890 40890 40882 40882 40890 40888 40890 40882 40890 40890 40888 40882 
+ Optimal point: 14 13 13 
+++++++++++++++++++++++++++++++++++++++++++++++++++++++++++
CLIENT SHUTDOWN: client 40890
 + TIMESTAMP: 1610.54
+++++++++++++++++++++++++++++++++++++++++++++++++++++++++++
+ Client Mapping:
  > Client 40890 (0):	
  > Client 40888 (13):	1 2 3 4 38 33 11 12 14 15 21 22 23 
  > Client 40882 (13):	5 6 7 8 39 19 30 0 31 35 10 13 20 

+ Core Mapping:	40882 40888 40888 40888 40888 40882 40882 40882 40882 0 40882 40888 40888 40882 40888 40888 0 0 0 40882 40882 40888 40888 40888 0 0 0 0 0 0 40882 40882 0 40888 0 40882 0 0 40888 40882 
+ Optimal point: 14 13 13 
+++++++++++++++++++++++++++++++++++++++++++++++++++++++++++
client (40890) shutdown hint: 20954.2
sum_client_shutdown_hint: 146679
sum_client_shutdown_hint_div_time: 0
++++++++++++++++++++++++++++++++++++++++++++++++
 + TIMESTAMP: 1610.54
REINVADE (40882)
  + pid: 40882
  + min_cores: 1
  + max_cores: 512
  + scalability graph: 
1, 1.39494, 1.5699, 1.6742, 1.74538, 1.79792, 1.83875, 1.87167, 1.89893, 1.922, 1.94184, 1.95915, 1.97442, 1.98802, 2.00024, 2.0113, 2.02136, 2.03058, 2.03906, 2.04689, 2.05415, 2.06092, 2.06724, 2.07316, 2.07872, 2.08396, 2.0889, 2.09358, 2.09801, 2.10222, 2.10622, 2.11003, 2.11367, 2.11715, 2.12048, 2.12367, 2.12672, 2.12966, 2.13248, 2.1352, 
Number of clients: 2

+++++++++++++++++++++++++++++++++++++++++++++++++++++++++++
+ Client Mapping:
  > Client 40888 (13):	1 2 3 4 38 33 11 12 14 15 21 22 23 
  > Client 40882 (20):	5 6 7 8 39 19 30 0 31 35 10 13 20 9 16 17 18 24 25 26 

+ Core Mapping:	40882 40888 40888 40888 40888 40882 40882 40882 40882 40882 40882 40888 40888 40882 40888 40888 40882 40882 40882 40882 40882 40888 40888 40888 40882 40882 40882 0 0 0 40882 40882 0 40888 0 40882 0 0 40888 40882 
+ Optimal point: 20 20 
+++++++++++++++++++++++++++++++++++++++++++++++++++++++++++
++++++++++++++++++++++++++++++++++++++++++++++++
 + TIMESTAMP: 1610.55
REINVADE (40888)
  + pid: 40888
  + min_cores: 1
  + max_cores: 512
  + scalability graph: 
1, 1.39494, 1.5699, 1.6742, 1.74538, 1.79792, 1.83875, 1.87167, 1.89893, 1.922, 1.94184, 1.95915, 1.97442, 1.98802, 2.00024, 2.0113, 2.02136, 2.03058, 2.03906, 2.04689, 2.05415, 2.06092, 2.06724, 2.07316, 2.07872, 2.08396, 2.0889, 2.09358, 2.09801, 2.10222, 2.10622, 2.11003, 2.11367, 2.11715, 2.12048, 2.12367, 2.12672, 2.12966, 2.13248, 2.1352, 
Number of clients: 2

+++++++++++++++++++++++++++++++++++++++++++++++++++++++++++
+ Client Mapping:
  > Client 40888 (20):	1 2 3 4 38 33 11 12 14 15 21 22 23 27 28 29 32 34 36 37 
  > Client 40882 (20):	5 6 7 8 39 19 30 0 31 35 10 13 20 9 16 17 18 24 25 26 

+ Core Mapping:	40882 40888 40888 40888 40888 40882 40882 40882 40882 40882 40882 40888 40888 40882 40888 40888 40882 40882 40882 40882 40882 40888 40888 40888 40882 40882 40882 40888 40888 40888 40882 40882 40888 40888 40888 40882 40888 40888 40888 40882 
+ Optimal point: 20 20 
+++++++++++++++++++++++++++++++++++++++++++++++++++++++++++
CLIENT SHUTDOWN: client 40888
 + TIMESTAMP: 1614.68
+++++++++++++++++++++++++++++++++++++++++++++++++++++++++++
+ Client Mapping:
  > Client 40888 (0):	
  > Client 40882 (20):	5 6 7 8 39 19 30 0 31 35 10 13 20 9 16 17 18 24 25 26 

+ Core Mapping:	40882 0 0 0 0 40882 40882 40882 40882 40882 40882 0 0 40882 0 0 40882 40882 40882 40882 40882 0 0 0 40882 40882 40882 0 0 0 40882 40882 0 0 0 40882 0 0 0 40882 
+ Optimal point: 20 20 
+++++++++++++++++++++++++++++++++++++++++++++++++++++++++++
client (40888) shutdown hint: 20954.2
sum_client_shutdown_hint: 167634
sum_client_shutdown_hint_div_time: 0
++++++++++++++++++++++++++++++++++++++++++++++++
 + TIMESTAMP: 1614.69
REINVADE (40882)
  + pid: 40882
  + min_cores: 1
  + max_cores: 512
  + scalability graph: 
1, 1.39494, 1.5699, 1.6742, 1.74538, 1.79792, 1.83875, 1.87167, 1.89893, 1.922, 1.94184, 1.95915, 1.97442, 1.98802, 2.00024, 2.0113, 2.02136, 2.03058, 2.03906, 2.04689, 2.05415, 2.06092, 2.06724, 2.07316, 2.07872, 2.08396, 2.0889, 2.09358, 2.09801, 2.10222, 2.10622, 2.11003, 2.11367, 2.11715, 2.12048, 2.12367, 2.12672, 2.12966, 2.13248, 2.1352, 
Number of clients: 1

+++++++++++++++++++++++++++++++++++++++++++++++++++++++++++
+ Client Mapping:
  > Client 40882 (40):	5 6 7 8 39 19 30 0 31 35 10 13 20 9 16 17 18 24 25 26 1 2 3 4 11 12 14 15 21 22 23 27 28 29 32 33 34 36 37 38 

+ Core Mapping:	40882 40882 40882 40882 40882 40882 40882 40882 40882 40882 40882 40882 40882 40882 40882 40882 40882 40882 40882 40882 40882 40882 40882 40882 40882 40882 40882 40882 40882 40882 40882 40882 40882 40882 40882 40882 40882 40882 40882 40882 
+ Optimal point: 40 
+++++++++++++++++++++++++++++++++++++++++++++++++++++++++++
CLIENT SHUTDOWN: client 40882
 + TIMESTAMP: 1620.95
+++++++++++++++++++++++++++++++++++++++++++++++++++++++++++
+ Client Mapping:
  > Client 40882 (0):	

+ Core Mapping:	0 0 0 0 0 0 0 0 0 0 0 0 0 0 0 0 0 0 0 0 0 0 0 0 0 0 0 0 0 0 0 0 0 0 0 0 0 0 0 0 
+ Optimal point: 40 
+++++++++++++++++++++++++++++++++++++++++++++++++++++++++++
client (40882) shutdown hint: 20954.2
sum_client_shutdown_hint: 188588
sum_client_shutdown_hint_div_time: 0
END TIMESTAMP: 1620.95
OVERALL TIME: 1620.55
 + sum_client_shutdown_hint: 188588
 + sum_client_shutdown_hint/time: 116.373
sum_client_shutdown_hint: 188588
sum_client_shutdown_hint_div_time: 116.373
