MODE: ipmo_prog0
PARCOUNT: 40
PROBLEMS: 1
Running on INWEST
Using iPMO

Programs:
 + ../../build/sierpi_intel_ipmo_tsunami_parallel_release  -u 10 -U 10 -T 1000 -n 4 -d 14
 + ../../build/sierpi_intel_ipmo_tsunami_parallel_release  -u 10 -U 10 -T 1000 -n 4 -d 14
 + ../../build/sierpi_intel_ipmo_tsunami_parallel_release  -u 10 -U 10 -T 1000 -n 4 -d 12
 + ../../build/sierpi_intel_ipmo_tsunami_parallel_release  -u 10 -U 10 -T 1000 -n 4 -d 12
 + ../../build/sierpi_intel_ipmo_tsunami_parallel_release  -u 10 -U 10 -T 1000 -n 4 -d 12
 + ../../build/sierpi_intel_ipmo_tsunami_parallel_release  -u 10 -U 10 -T 1000 -n 4 -d 12
 + ../../build/sierpi_intel_ipmo_tsunami_parallel_release  -u 10 -U 10 -T 1000 -n 4 -d 12
 + ../../build/sierpi_intel_ipmo_tsunami_parallel_release  -u 10 -U 10 -T 1000 -n 4 -d 12
 + ../../build/sierpi_intel_ipmo_tsunami_parallel_release  -u 10 -U 10 -T 1000 -n 4 -d 12
 + ../../build/sierpi_intel_ipmo_tsunami_parallel_release  -u 10 -U 10 -T 1000 -n 4 -d 12

Tue Apr  3 20:29:34 CEST 2012
iPMO: Prog0 parallel execution with ipmo (40 times)
Waiting for job 40999
41001: CHANGING RESSOURCES
41001: CHANGING RESSOURCES
41017: CHANGING RESSOURCES
41023: CHANGING RESSOURCES
41019: CHANGING RESSOURCES
41011: CHANGING RESSOURCES
41019: CHANGING RESSOURCES
41028: CHANGING RESSOURCES
40999: CHANGING RESSOURCES
41000: CHANGING RESSOURCES
41038: CHANGING RESSOURCES
41017: CHANGING RESSOURCES
41023: CHANGING RESSOURCES
41021: CHANGING RESSOURCES
41025: CHANGING RESSOURCES
41005: CHANGING RESSOURCES
41020: CHANGING RESSOURCES
41006: CHANGING RESSOURCES
41010: CHANGING RESSOURCES
41014: CHANGING RESSOURCES
41027: CHANGING RESSOURCES
41031: CHANGING RESSOURCES
41024: CHANGING RESSOURCES
41033: CHANGING RESSOURCES
41034: CHANGING RESSOURCES
41036: CHANGING RESSOURCES
41001: CHANGING RESSOURCES
41037: CHANGING RESSOURCES
41013: CHANGING RESSOURCES
41008: CHANGING RESSOURCES
41035: CHANGING RESSOURCES
41009: CHANGING RESSOURCES
41028: CHANGING RESSOURCES
41004: CHANGING RESSOURCES
41022: CHANGING RESSOURCES
41011: CHANGING RESSOURCES
41026: CHANGING RESSOURCES
41019: CHANGING RESSOURCES
41001: CHANGING RESSOURCES
41021: CHANGING RESSOURCES
41032: CHANGING RESSOURCES
40999: CHANGING RESSOURCES
41025: CHANGING RESSOURCES
41018: CHANGING RESSOURCES
41002: CHANGING RESSOURCES
41015: CHANGING RESSOURCES
41030: CHANGING RESSOURCES
41029: CHANGING RESSOURCES
41012: CHANGING RESSOURCES
41007: CHANGING RESSOURCES
41016: CHANGING RESSOURCES
41003: CHANGING RESSOURCES

 + Terminating after 1000 timesteps with equal number of triangles -> EXIT
 + Final timestep: 59579

59580 TS (Timesteps)
3022.12 ST (SIMULATION_TIME)
0.0500175 TSS (Timestep size)
5778.07 SFS (Overall seconds for Simulation)
20954211547 TP (Triangles processed)
0.09698 ASPT (Averaged Seconds per Timestep)
351699 TPST (Triangles Processed in Average per Simulation Timestep)
95.0841 PPST (Clusters Processed in Average per Simulation Timestep)
3.62651 MTPS (Million Triangles per Second)
-3.62651 MTPSPT (Million Triangles per Second per Thread)
10.733 EDMBPT (ElementData Megabyte per Timestep (RW))
110.672 EDMBPS (ElementData Megabyte per Second (RW))
SUM CLIENT SHUTDOWN HINT: 20954.2
SUM CLIENT SHUTDOWN HINT DIV TIME: 0
41001: CHANGING RESSOURCES

 + Terminating after 1000 timesteps with equal number of triangles -> EXIT
 + Final timestep: 59579

59580 TS (Timesteps)
3022.12 ST (SIMULATION_TIME)
0.0500175 TSS (Timestep size)
5783.53 SFS (Overall seconds for Simulation)
20954211547 TP (Triangles processed)
0.0970717 ASPT (Averaged Seconds per Timestep)
351699 TPST (Triangles Processed in Average per Simulation Timestep)
95.0841 PPST (Clusters Processed in Average per Simulation Timestep)
3.62308 MTPS (Million Triangles per Second)
-3.62308 MTPSPT (Million Triangles per Second per Thread)
10.733 EDMBPT (ElementData Megabyte per Timestep (RW))
110.568 EDMBPS (ElementData Megabyte per Second (RW))
SUM CLIENT SHUTDOWN HINT: 41908.4
SUM CLIENT SHUTDOWN HINT DIV TIME: 0
41018: CHANGING RESSOURCES

 + Terminating after 1000 timesteps with equal number of triangles -> EXIT
 + Final timestep: 59579

59580 TS (Timesteps)
3022.12 ST (SIMULATION_TIME)
0.0500175 TSS (Timestep size)
5839.51 SFS (Overall seconds for Simulation)
20954211547 TP (Triangles processed)
0.0980113 ASPT (Averaged Seconds per Timestep)
351699 TPST (Triangles Processed in Average per Simulation Timestep)
95.0841 PPST (Clusters Processed in Average per Simulation Timestep)
3.58835 MTPS (Million Triangles per Second)
-3.58835 MTPSPT (Million Triangles per Second per Thread)
10.733 EDMBPT (ElementData Megabyte per Timestep (RW))
109.508 EDMBPS (ElementData Megabyte per Second (RW))
SUM CLIENT SHUTDOWN HINT: 62862.6
SUM CLIENT SHUTDOWN HINT DIV TIME: 0
41002: CHANGING RESSOURCES

 + Terminating after 1000 timesteps with equal number of triangles -> EXIT
 + Final timestep: 59579

59580 TS (Timesteps)
3022.12 ST (SIMULATION_TIME)
0.0500175 TSS (Timestep size)
5842.31 SFS (Overall seconds for Simulation)
20954211547 TP (Triangles processed)
0.0980583 ASPT (Averaged Seconds per Timestep)
351699 TPST (Triangles Processed in Average per Simulation Timestep)
95.0841 PPST (Clusters Processed in Average per Simulation Timestep)
3.58663 MTPS (Million Triangles per Second)
-3.58663 MTPSPT (Million Triangles per Second per Thread)
10.733 EDMBPT (ElementData Megabyte per Timestep (RW))
109.455 EDMBPS (ElementData Megabyte per Second (RW))
SUM CLIENT SHUTDOWN HINT: 83816.8
SUM CLIENT SHUTDOWN HINT DIV TIME: 0
41007: CHANGING RESSOURCES

 + Terminating after 1000 timesteps with equal number of triangles -> EXIT
 + Final timestep: 59579

59580 TS (Timesteps)
3022.12 ST (SIMULATION_TIME)
0.0500175 TSS (Timestep size)
5846.61 SFS (Overall seconds for Simulation)
20954211547 TP (Triangles processed)
0.0981305 ASPT (Averaged Seconds per Timestep)
351699 TPST (Triangles Processed in Average per Simulation Timestep)
95.0841 PPST (Clusters Processed in Average per Simulation Timestep)
3.58399 MTPS (Million Triangles per Second)
-3.58399 MTPSPT (Million Triangles per Second per Thread)
10.733 EDMBPT (ElementData Megabyte per Timestep (RW))
109.375 EDMBPS (ElementData Megabyte per Second (RW))
SUM CLIENT SHUTDOWN HINT: 104771
SUM CLIENT SHUTDOWN HINT DIV TIME: 0
41015: CHANGING RESSOURCES

 + Terminating after 1000 timesteps with equal number of triangles -> EXIT
 + Final timestep: 59579

59580 TS (Timesteps)
3022.12 ST (SIMULATION_TIME)
0.0500175 TSS (Timestep size)
5850.33 SFS (Overall seconds for Simulation)
20954211547 TP (Triangles processed)
0.0981929 ASPT (Averaged Seconds per Timestep)
351699 TPST (Triangles Processed in Average per Simulation Timestep)
95.0841 PPST (Clusters Processed in Average per Simulation Timestep)
3.58171 MTPS (Million Triangles per Second)
-3.58171 MTPSPT (Million Triangles per Second per Thread)
10.733 EDMBPT (ElementData Megabyte per Timestep (RW))
109.305 EDMBPS (ElementData Megabyte per Second (RW))
SUM CLIENT SHUTDOWN HINT: 125725
SUM CLIENT SHUTDOWN HINT DIV TIME: 0

 + Terminating after 1000 timesteps with equal number of triangles -> EXIT
 + Final timestep: 59579

59580 TS (Timesteps)
3022.12 ST (SIMULATION_TIME)
0.0500175 TSS (Timestep size)
5850.5 SFS (Overall seconds for Simulation)
20954211547 TP (Triangles processed)
0.0981957 ASPT (Averaged Seconds per Timestep)
351699 TPST (Triangles Processed in Average per Simulation Timestep)
95.0841 PPST (Clusters Processed in Average per Simulation Timestep)
3.58161 MTPS (Million Triangles per Second)
-3.58161 MTPSPT (Million Triangles per Second per Thread)
10.733 EDMBPT (ElementData Megabyte per Timestep (RW))
109.302 EDMBPS (ElementData Megabyte per Second (RW))
SUM CLIENT SHUTDOWN HINT: 146679
SUM CLIENT SHUTDOWN HINT DIV TIME: 0
41030: CHANGING RESSOURCES
41003: CHANGING RESSOURCES

 + Terminating after 1000 timesteps with equal number of triangles -> EXIT
 + Final timestep: 59579

59580 TS (Timesteps)
3022.12 ST (SIMULATION_TIME)
0.0500175 TSS (Timestep size)
5857.71 SFS (Overall seconds for Simulation)
20954211547 TP (Triangles processed)
0.0983167 ASPT (Averaged Seconds per Timestep)
351699 TPST (Triangles Processed in Average per Simulation Timestep)
95.0841 PPST (Clusters Processed in Average per Simulation Timestep)
3.5772 MTPS (Million Triangles per Second)
-3.5772 MTPSPT (Million Triangles per Second per Thread)
10.733 EDMBPT (ElementData Megabyte per Timestep (RW))
109.168 EDMBPS (ElementData Megabyte per Second (RW))
SUM CLIENT SHUTDOWN HINT: 167634
SUM CLIENT SHUTDOWN HINT DIV TIME: 0
41017: CHANGING RESSOURCES

 + Terminating after 1000 timesteps with equal number of triangles -> EXIT
 + Final timestep: 59579

59580 TS (Timesteps)
3022.12 ST (SIMULATION_TIME)
0.0500175 TSS (Timestep size)
6109.03 SFS (Overall seconds for Simulation)
20954211547 TP (Triangles processed)
0.102535 ASPT (Averaged Seconds per Timestep)
351699 TPST (Triangles Processed in Average per Simulation Timestep)
95.0841 PPST (Clusters Processed in Average per Simulation Timestep)
3.43004 MTPS (Million Triangles per Second)
-3.43004 MTPSPT (Million Triangles per Second per Thread)
10.733 EDMBPT (ElementData Megabyte per Timestep (RW))
104.676 EDMBPS (ElementData Megabyte per Second (RW))
SUM CLIENT SHUTDOWN HINT: 188588
SUM CLIENT SHUTDOWN HINT DIV TIME: 0
40999: CHANGING RESSOURCES
41028: CHANGING RESSOURCES

 + Terminating after 1000 timesteps with equal number of triangles -> EXIT
 + Final timestep: 59579

59580 TS (Timesteps)
3022.12 ST (SIMULATION_TIME)
0.0500175 TSS (Timestep size)
6124.47 SFS (Overall seconds for Simulation)
20954211547 TP (Triangles processed)
0.102794 ASPT (Averaged Seconds per Timestep)
351699 TPST (Triangles Processed in Average per Simulation Timestep)
95.0841 PPST (Clusters Processed in Average per Simulation Timestep)
3.42139 MTPS (Million Triangles per Second)
-3.42139 MTPSPT (Million Triangles per Second per Thread)
10.733 EDMBPT (ElementData Megabyte per Timestep (RW))
104.413 EDMBPS (ElementData Megabyte per Second (RW))
SUM CLIENT SHUTDOWN HINT: 209542
SUM CLIENT SHUTDOWN HINT DIV TIME: 0
41038: CHANGING RESSOURCES
41032: CHANGING RESSOURCES

 + Terminating after 1000 timesteps with equal number of triangles -> EXIT
 + Final timestep: 59579

59580 TS (Timesteps)
3022.12 ST (SIMULATION_TIME)
0.0500175 TSS (Timestep size)
6125.72 SFS (Overall seconds for Simulation)
20954211547 TP (Triangles processed)
0.102815 ASPT (Averaged Seconds per Timestep)
351699 TPST (Triangles Processed in Average per Simulation Timestep)
95.0841 PPST (Clusters Processed in Average per Simulation Timestep)
3.42069 MTPS (Million Triangles per Second)
-3.42069 MTPSPT (Million Triangles per Second per Thread)
10.733 EDMBPT (ElementData Megabyte per Timestep (RW))
104.391 EDMBPS (ElementData Megabyte per Second (RW))
SUM CLIENT SHUTDOWN HINT: 230496
SUM CLIENT SHUTDOWN HINT DIV TIME: 0
41021: CHANGING RESSOURCES
41005: CHANGING RESSOURCES

 + Terminating after 1000 timesteps with equal number of triangles -> EXIT
 + Final timestep: 59579

59580 TS (Timesteps)
3022.12 ST (SIMULATION_TIME)
0.0500175 TSS (Timestep size)
6373.29 SFS (Overall seconds for Simulation)
20954211547 TP (Triangles processed)
0.10697 ASPT (Averaged Seconds per Timestep)
351699 TPST (Triangles Processed in Average per Simulation Timestep)
95.0841 PPST (Clusters Processed in Average per Simulation Timestep)
3.28782 MTPS (Million Triangles per Second)
-3.28782 MTPSPT (Million Triangles per Second per Thread)
10.733 EDMBPT (ElementData Megabyte per Timestep (RW))
100.336 EDMBPS (ElementData Megabyte per Second (RW))
SUM CLIENT SHUTDOWN HINT: 251451
SUM CLIENT SHUTDOWN HINT DIV TIME: 0
41028: CHANGING RESSOURCES
41006: CHANGING RESSOURCES
41020: CHANGING RESSOURCES

 + Terminating after 1000 timesteps with equal number of triangles -> EXIT
 + Final timestep: 59579

59580 TS (Timesteps)
3022.12 ST (SIMULATION_TIME)
0.0500175 TSS (Timestep size)
6378.04 SFS (Overall seconds for Simulation)
20954211547 TP (Triangles processed)
0.10705 ASPT (Averaged Seconds per Timestep)
351699 TPST (Triangles Processed in Average per Simulation Timestep)
95.0841 PPST (Clusters Processed in Average per Simulation Timestep)
3.28537 MTPS (Million Triangles per Second)
-3.28537 MTPSPT (Million Triangles per Second per Thread)
10.733 EDMBPT (ElementData Megabyte per Timestep (RW))
100.262 EDMBPS (ElementData Megabyte per Second (RW))
SUM CLIENT SHUTDOWN HINT: 272405
SUM CLIENT SHUTDOWN HINT DIV TIME: 0
41027: CHANGING RESSOURCES
41017: CHANGING RESSOURCES
41010: CHANGING RESSOURCES

 + Terminating after 1000 timesteps with equal number of triangles -> EXIT
 + Final timestep: 59579

59580 TS (Timesteps)
3022.12 ST (SIMULATION_TIME)
0.0500175 TSS (Timestep size)
6387.36 SFS (Overall seconds for Simulation)
20954211547 TP (Triangles processed)
0.107206 ASPT (Averaged Seconds per Timestep)
351699 TPST (Triangles Processed in Average per Simulation Timestep)
95.0841 PPST (Clusters Processed in Average per Simulation Timestep)
3.28057 MTPS (Million Triangles per Second)
-3.28057 MTPSPT (Million Triangles per Second per Thread)
10.733 EDMBPT (ElementData Megabyte per Timestep (RW))
100.115 EDMBPS (ElementData Megabyte per Second (RW))
SUM CLIENT SHUTDOWN HINT: 293359
SUM CLIENT SHUTDOWN HINT DIV TIME: 0
41014: CHANGING RESSOURCES

 + Terminating after 1000 timesteps with equal number of triangles -> EXIT
 + Final timestep: 59579

59580 TS (Timesteps)
3022.12 ST (SIMULATION_TIME)
0.0500175 TSS (Timestep size)
6390.54 SFS (Overall seconds for Simulation)
20954211547 TP (Triangles processed)
0.10726 ASPT (Averaged Seconds per Timestep)
351699 TPST (Triangles Processed in Average per Simulation Timestep)
95.0841 PPST (Clusters Processed in Average per Simulation Timestep)
3.27894 MTPS (Million Triangles per Second)
-3.27894 MTPSPT (Million Triangles per Second per Thread)
10.733 EDMBPT (ElementData Megabyte per Timestep (RW))
100.065 EDMBPS (ElementData Megabyte per Second (RW))
SUM CLIENT SHUTDOWN HINT: 314313
SUM CLIENT SHUTDOWN HINT DIV TIME: 0
41031: CHANGING RESSOURCES

 + Terminating after 1000 timesteps with equal number of triangles -> EXIT
 + Final timestep: 59579

59580 TS (Timesteps)
3022.12 ST (SIMULATION_TIME)
0.0500175 TSS (Timestep size)
6396.89 SFS (Overall seconds for Simulation)
20954211547 TP (Triangles processed)
0.107366 ASPT (Averaged Seconds per Timestep)
351699 TPST (Triangles Processed in Average per Simulation Timestep)
95.0841 PPST (Clusters Processed in Average per Simulation Timestep)
3.27569 MTPS (Million Triangles per Second)
-3.27569 MTPSPT (Million Triangles per Second per Thread)
10.733 EDMBPT (ElementData Megabyte per Timestep (RW))
99.9661 EDMBPS (ElementData Megabyte per Second (RW))
SUM CLIENT SHUTDOWN HINT: 335267
SUM CLIENT SHUTDOWN HINT DIV TIME: 0
41033: CHANGING RESSOURCES

 + Terminating after 1000 timesteps with equal number of triangles -> EXIT
 + Final timestep: 59579

59580 TS (Timesteps)
3022.12 ST (SIMULATION_TIME)
0.0500175 TSS (Timestep size)
6400.68 SFS (Overall seconds for Simulation)
20954211547 TP (Triangles processed)
0.10743 ASPT (Averaged Seconds per Timestep)
351699 TPST (Triangles Processed in Average per Simulation Timestep)
95.0841 PPST (Clusters Processed in Average per Simulation Timestep)
3.27375 MTPS (Million Triangles per Second)
-3.27375 MTPSPT (Million Triangles per Second per Thread)
10.733 EDMBPT (ElementData Megabyte per Timestep (RW))
99.9068 EDMBPS (ElementData Megabyte per Second (RW))
SUM CLIENT SHUTDOWN HINT: 356222
SUM CLIENT SHUTDOWN HINT DIV TIME: 0
41036: CHANGING RESSOURCES
41013: CHANGING RESSOURCES

 + Terminating after 1000 timesteps with equal number of triangles -> EXIT
 + Final timestep: 59579

59580 TS (Timesteps)
3022.12 ST (SIMULATION_TIME)
0.0500175 TSS (Timestep size)
6401.66 SFS (Overall seconds for Simulation)
20954211547 TP (Triangles processed)
0.107446 ASPT (Averaged Seconds per Timestep)
351699 TPST (Triangles Processed in Average per Simulation Timestep)
95.0841 PPST (Clusters Processed in Average per Simulation Timestep)
3.27325 MTPS (Million Triangles per Second)
-3.27325 MTPSPT (Million Triangles per Second per Thread)
10.733 EDMBPT (ElementData Megabyte per Timestep (RW))
99.8915 EDMBPS (ElementData Megabyte per Second (RW))
SUM CLIENT SHUTDOWN HINT: 377176
SUM CLIENT SHUTDOWN HINT DIV TIME: 0
41035: CHANGING RESSOURCES
41037: CHANGING RESSOURCES

 + Terminating after 1000 timesteps with equal number of triangles -> EXIT
 + Final timestep: 59579

59580 TS (Timesteps)
3022.12 ST (SIMULATION_TIME)
0.0500175 TSS (Timestep size)
6409.09 SFS (Overall seconds for Simulation)
20954211547 TP (Triangles processed)
0.107571 ASPT (Averaged Seconds per Timestep)
351699 TPST (Triangles Processed in Average per Simulation Timestep)
95.0841 PPST (Clusters Processed in Average per Simulation Timestep)
3.26945 MTPS (Million Triangles per Second)
-3.26945 MTPSPT (Million Triangles per Second per Thread)
10.733 EDMBPT (ElementData Megabyte per Timestep (RW))
99.7757 EDMBPS (ElementData Megabyte per Second (RW))
SUM CLIENT SHUTDOWN HINT: 398130
SUM CLIENT SHUTDOWN HINT DIV TIME: 0
41022: CHANGING RESSOURCES
41026: CHANGING RESSOURCES

 + Terminating after 1000 timesteps with equal number of triangles -> EXIT
 + Final timestep: 59579

59580 TS (Timesteps)
3022.12 ST (SIMULATION_TIME)
0.0500175 TSS (Timestep size)
6412.78 SFS (Overall seconds for Simulation)
20954211547 TP (Triangles processed)
0.107633 ASPT (Averaged Seconds per Timestep)
351699 TPST (Triangles Processed in Average per Simulation Timestep)
95.0841 PPST (Clusters Processed in Average per Simulation Timestep)
3.26757 MTPS (Million Triangles per Second)
-3.26757 MTPSPT (Million Triangles per Second per Thread)
10.733 EDMBPT (ElementData Megabyte per Timestep (RW))
99.7183 EDMBPS (ElementData Megabyte per Second (RW))
SUM CLIENT SHUTDOWN HINT: 419084
SUM CLIENT SHUTDOWN HINT DIV TIME: 0
41028: CHANGING RESSOURCES
41017: CHANGING RESSOURCES

 + Terminating after 1000 timesteps with equal number of triangles -> EXIT
 + Final timestep: 59579

59580 TS (Timesteps)
3022.12 ST (SIMULATION_TIME)
0.0500175 TSS (Timestep size)
6730.23 SFS (Overall seconds for Simulation)
20954211547 TP (Triangles processed)
0.112961 ASPT (Averaged Seconds per Timestep)
351699 TPST (Triangles Processed in Average per Simulation Timestep)
95.0841 PPST (Clusters Processed in Average per Simulation Timestep)
3.11345 MTPS (Million Triangles per Second)
-3.11345 MTPSPT (Million Triangles per Second per Thread)
10.733 EDMBPT (ElementData Megabyte per Timestep (RW))
95.0149 EDMBPS (ElementData Megabyte per Second (RW))
SUM CLIENT SHUTDOWN HINT: 440038
SUM CLIENT SHUTDOWN HINT DIV TIME: 0
41015: CHANGING RESSOURCES
41018: CHANGING RESSOURCES

 + Terminating after 1000 timesteps with equal number of triangles -> EXIT
 + Final timestep: 59579

59580 TS (Timesteps)
3022.12 ST (SIMULATION_TIME)
0.0500175 TSS (Timestep size)
6743.81 SFS (Overall seconds for Simulation)
20954211547 TP (Triangles processed)
0.113189 ASPT (Averaged Seconds per Timestep)
351699 TPST (Triangles Processed in Average per Simulation Timestep)
95.0841 PPST (Clusters Processed in Average per Simulation Timestep)
3.10718 MTPS (Million Triangles per Second)
-3.10718 MTPSPT (Million Triangles per Second per Thread)
10.733 EDMBPT (ElementData Megabyte per Timestep (RW))
94.8236 EDMBPS (ElementData Megabyte per Second (RW))
SUM CLIENT SHUTDOWN HINT: 460993
SUM CLIENT SHUTDOWN HINT DIV TIME: 0

 + Terminating after 1000 timesteps with equal number of triangles -> EXIT
 + Final timestep: 59579

59580 TS (Timesteps)
3022.12 ST (SIMULATION_TIME)
0.0500175 TSS (Timestep size)
6743.83 SFS (Overall seconds for Simulation)
20954211547 TP (Triangles processed)
0.113189 ASPT (Averaged Seconds per Timestep)
351699 TPST (Triangles Processed in Average per Simulation Timestep)
95.0841 PPST (Clusters Processed in Average per Simulation Timestep)
3.10717 MTPS (Million Triangles per Second)
-3.10717 MTPSPT (Million Triangles per Second per Thread)
10.733 EDMBPT (ElementData Megabyte per Timestep (RW))
94.8233 EDMBPS (ElementData Megabyte per Second (RW))
SUM CLIENT SHUTDOWN HINT: 481947
SUM CLIENT SHUTDOWN HINT DIV TIME: 0
41028: CHANGING RESSOURCES
41038: CHANGING RESSOURCES
40999: CHANGING RESSOURCES
41017: CHANGING RESSOURCES
41032: CHANGING RESSOURCES

 + Terminating after 1000 timesteps with equal number of triangles -> EXIT
 + Final timestep: 59579

59580 TS (Timesteps)
3022.12 ST (SIMULATION_TIME)
0.0500175 TSS (Timestep size)
6764.17 SFS (Overall seconds for Simulation)
20954211547 TP (Triangles processed)
0.113531 ASPT (Averaged Seconds per Timestep)
351699 TPST (Triangles Processed in Average per Simulation Timestep)
95.0841 PPST (Clusters Processed in Average per Simulation Timestep)
3.09782 MTPS (Million Triangles per Second)
-3.09782 MTPSPT (Million Triangles per Second per Thread)
10.733 EDMBPT (ElementData Megabyte per Timestep (RW))
94.5381 EDMBPS (ElementData Megabyte per Second (RW))
SUM CLIENT SHUTDOWN HINT: 502901
SUM CLIENT SHUTDOWN HINT DIV TIME: 0
41005: CHANGING RESSOURCES
41021: CHANGING RESSOURCES
41006: CHANGING RESSOURCES

 + Terminating after 1000 timesteps with equal number of triangles -> EXIT
 + Final timestep: 59579

59580 TS (Timesteps)
3022.12 ST (SIMULATION_TIME)
0.0500175 TSS (Timestep size)
6777.04 SFS (Overall seconds for Simulation)
20954211547 TP (Triangles processed)
0.113747 ASPT (Averaged Seconds per Timestep)
351699 TPST (Triangles Processed in Average per Simulation Timestep)
95.0841 PPST (Clusters Processed in Average per Simulation Timestep)
3.09194 MTPS (Million Triangles per Second)
-3.09194 MTPSPT (Million Triangles per Second per Thread)
10.733 EDMBPT (ElementData Megabyte per Timestep (RW))
94.3585 EDMBPS (ElementData Megabyte per Second (RW))
SUM CLIENT SHUTDOWN HINT: 523855
SUM CLIENT SHUTDOWN HINT DIV TIME: 0
41031: CHANGING RESSOURCES
41027: CHANGING RESSOURCES
41033: CHANGING RESSOURCES

 + Terminating after 1000 timesteps with equal number of triangles -> EXIT
 + Final timestep: 59579

59580 TS (Timesteps)
3022.12 ST (SIMULATION_TIME)
0.0500175 TSS (Timestep size)
6806.54 SFS (Overall seconds for Simulation)
20954211547 TP (Triangles processed)
0.114242 ASPT (Averaged Seconds per Timestep)
351699 TPST (Triangles Processed in Average per Simulation Timestep)
95.0841 PPST (Clusters Processed in Average per Simulation Timestep)
3.07854 MTPS (Million Triangles per Second)
-3.07854 MTPSPT (Million Triangles per Second per Thread)
10.733 EDMBPT (ElementData Megabyte per Timestep (RW))
93.9497 EDMBPS (ElementData Megabyte per Second (RW))
SUM CLIENT SHUTDOWN HINT: 544810
SUM CLIENT SHUTDOWN HINT DIV TIME: 0
41036: CHANGING RESSOURCES
41013: CHANGING RESSOURCES
41035: CHANGING RESSOURCES

 + Terminating after 1000 timesteps with equal number of triangles -> EXIT
 + Final timestep: 59579

59580 TS (Timesteps)
3022.12 ST (SIMULATION_TIME)
0.0500175 TSS (Timestep size)
6840.07 SFS (Overall seconds for Simulation)
20954211547 TP (Triangles processed)
0.114805 ASPT (Averaged Seconds per Timestep)
351699 TPST (Triangles Processed in Average per Simulation Timestep)
95.0841 PPST (Clusters Processed in Average per Simulation Timestep)
3.06345 MTPS (Million Triangles per Second)
-3.06345 MTPSPT (Million Triangles per Second per Thread)
10.733 EDMBPT (ElementData Megabyte per Timestep (RW))
93.489 EDMBPS (ElementData Megabyte per Second (RW))
SUM CLIENT SHUTDOWN HINT: 565764
SUM CLIENT SHUTDOWN HINT DIV TIME: 0
41005: CHANGING RESSOURCES
41026: CHANGING RESSOURCES
Waiting for job 41000
Waiting for job 41001
Waiting for job 41002
Waiting for job 41003
Waiting for job 41004
Waiting for job 41005
41022: CHANGING RESSOURCES

 + Terminating after 1000 timesteps with equal number of triangles -> EXIT
 + Final timestep: 59579

59580 TS (Timesteps)
3022.12 ST (SIMULATION_TIME)
0.0500175 TSS (Timestep size)
6933.11 SFS (Overall seconds for Simulation)
20954211547 TP (Triangles processed)
0.116366 ASPT (Averaged Seconds per Timestep)
351699 TPST (Triangles Processed in Average per Simulation Timestep)
95.0841 PPST (Clusters Processed in Average per Simulation Timestep)
3.02234 MTPS (Million Triangles per Second)
-3.02234 MTPSPT (Million Triangles per Second per Thread)
10.733 EDMBPT (ElementData Megabyte per Timestep (RW))
92.2344 EDMBPS (ElementData Megabyte per Second (RW))
SUM CLIENT SHUTDOWN HINT: 586718
SUM CLIENT SHUTDOWN HINT DIV TIME: 0
41031: CHANGING RESSOURCES
41006: CHANGING RESSOURCES
41033: CHANGING RESSOURCES
41005: CHANGING RESSOURCES
41027: CHANGING RESSOURCES

 + Terminating after 1000 timesteps with equal number of triangles -> EXIT
 + Final timestep: 59579

59580 TS (Timesteps)
3022.12 ST (SIMULATION_TIME)
0.0500175 TSS (Timestep size)
6992.48 SFS (Overall seconds for Simulation)
20954211547 TP (Triangles processed)
0.117363 ASPT (Averaged Seconds per Timestep)
351699 TPST (Triangles Processed in Average per Simulation Timestep)
95.0841 PPST (Clusters Processed in Average per Simulation Timestep)
2.99668 MTPS (Million Triangles per Second)
-2.99668 MTPSPT (Million Triangles per Second per Thread)
10.733 EDMBPT (ElementData Megabyte per Timestep (RW))
91.4513 EDMBPS (ElementData Megabyte per Second (RW))
SUM CLIENT SHUTDOWN HINT: 607672
SUM CLIENT SHUTDOWN HINT DIV TIME: 0
41035: CHANGING RESSOURCES
41006: CHANGING RESSOURCES
41036: CHANGING RESSOURCES
41026: CHANGING RESSOURCES
41013: CHANGING RESSOURCES

 + Terminating after 1000 timesteps with equal number of triangles -> EXIT
 + Final timestep: 59579

59580 TS (Timesteps)
3022.12 ST (SIMULATION_TIME)
0.0500175 TSS (Timestep size)
6999.59 SFS (Overall seconds for Simulation)
20954211547 TP (Triangles processed)
0.117482 ASPT (Averaged Seconds per Timestep)
351699 TPST (Triangles Processed in Average per Simulation Timestep)
95.0841 PPST (Clusters Processed in Average per Simulation Timestep)
2.99364 MTPS (Million Triangles per Second)
-2.99364 MTPSPT (Million Triangles per Second per Thread)
10.733 EDMBPT (ElementData Megabyte per Timestep (RW))
91.3585 EDMBPS (ElementData Megabyte per Second (RW))
SUM CLIENT SHUTDOWN HINT: 628626
SUM CLIENT SHUTDOWN HINT DIV TIME: 0
41006: CHANGING RESSOURCES
41022: CHANGING RESSOURCES
41032: CHANGING RESSOURCES
41005: CHANGING RESSOURCES

 + Terminating after 1000 timesteps with equal number of triangles -> EXIT
 + Final timestep: 59579

59580 TS (Timesteps)
3022.12 ST (SIMULATION_TIME)
0.0500175 TSS (Timestep size)
7024.88 SFS (Overall seconds for Simulation)
20954211547 TP (Triangles processed)
0.117907 ASPT (Averaged Seconds per Timestep)
351699 TPST (Triangles Processed in Average per Simulation Timestep)
95.0841 PPST (Clusters Processed in Average per Simulation Timestep)
2.98286 MTPS (Million Triangles per Second)
-2.98286 MTPSPT (Million Triangles per Second per Thread)
10.733 EDMBPT (ElementData Megabyte per Timestep (RW))
91.0296 EDMBPS (ElementData Megabyte per Second (RW))
SUM CLIENT SHUTDOWN HINT: 649581
SUM CLIENT SHUTDOWN HINT DIV TIME: 0
41032: CHANGING RESSOURCES
41005: CHANGING RESSOURCES
41027: CHANGING RESSOURCES
41033: CHANGING RESSOURCES

 + Terminating after 1000 timesteps with equal number of triangles -> EXIT
 + Final timestep: 59579

59580 TS (Timesteps)
3022.12 ST (SIMULATION_TIME)
0.0500175 TSS (Timestep size)
7053.21 SFS (Overall seconds for Simulation)
20954211547 TP (Triangles processed)
0.118382 ASPT (Averaged Seconds per Timestep)
351699 TPST (Triangles Processed in Average per Simulation Timestep)
95.0841 PPST (Clusters Processed in Average per Simulation Timestep)
2.97088 MTPS (Million Triangles per Second)
-2.97088 MTPSPT (Million Triangles per Second per Thread)
10.733 EDMBPT (ElementData Megabyte per Timestep (RW))
90.6639 EDMBPS (ElementData Megabyte per Second (RW))
SUM CLIENT SHUTDOWN HINT: 670535
SUM CLIENT SHUTDOWN HINT DIV TIME: 0
41036: CHANGING RESSOURCES
41026: CHANGING RESSOURCES
41035: CHANGING RESSOURCES
41013: CHANGING RESSOURCES
41022: CHANGING RESSOURCES

 + Terminating after 1000 timesteps with equal number of triangles -> EXIT
 + Final timestep: 59579

59580 TS (Timesteps)
3022.12 ST (SIMULATION_TIME)
0.0500175 TSS (Timestep size)
7099.02 SFS (Overall seconds for Simulation)
20954211547 TP (Triangles processed)
0.119151 ASPT (Averaged Seconds per Timestep)
351699 TPST (Triangles Processed in Average per Simulation Timestep)
95.0841 PPST (Clusters Processed in Average per Simulation Timestep)
2.9517 MTPS (Million Triangles per Second)
-2.9517 MTPSPT (Million Triangles per Second per Thread)
10.733 EDMBPT (ElementData Megabyte per Timestep (RW))
90.0789 EDMBPS (ElementData Megabyte per Second (RW))
SUM CLIENT SHUTDOWN HINT: 691489
SUM CLIENT SHUTDOWN HINT DIV TIME: 0
41036: CHANGING RESSOURCES
41013: CHANGING RESSOURCES
41033: CHANGING RESSOURCES
41005: CHANGING RESSOURCES
41027: CHANGING RESSOURCES

 + Terminating after 1000 timesteps with equal number of triangles -> EXIT
 + Final timestep: 59579

59580 TS (Timesteps)
3022.12 ST (SIMULATION_TIME)
0.0500175 TSS (Timestep size)
7111.36 SFS (Overall seconds for Simulation)
20954211547 TP (Triangles processed)
0.119358 ASPT (Averaged Seconds per Timestep)
351699 TPST (Triangles Processed in Average per Simulation Timestep)
95.0841 PPST (Clusters Processed in Average per Simulation Timestep)
2.94658 MTPS (Million Triangles per Second)
-2.94658 MTPSPT (Million Triangles per Second per Thread)
10.733 EDMBPT (ElementData Megabyte per Timestep (RW))
89.9225 EDMBPS (ElementData Megabyte per Second (RW))
SUM CLIENT SHUTDOWN HINT: 712443
SUM CLIENT SHUTDOWN HINT DIV TIME: 0
41005: CHANGING RESSOURCES
41022: CHANGING RESSOURCES
41033: CHANGING RESSOURCES
41026: CHANGING RESSOURCES
41027: CHANGING RESSOURCES

 + Terminating after 1000 timesteps with equal number of triangles -> EXIT
 + Final timestep: 59579

59580 TS (Timesteps)
3022.12 ST (SIMULATION_TIME)
0.0500175 TSS (Timestep size)
7146.57 SFS (Overall seconds for Simulation)
20954211547 TP (Triangles processed)
0.119949 ASPT (Averaged Seconds per Timestep)
351699 TPST (Triangles Processed in Average per Simulation Timestep)
95.0841 PPST (Clusters Processed in Average per Simulation Timestep)
2.93206 MTPS (Million Triangles per Second)
-2.93206 MTPSPT (Million Triangles per Second per Thread)
10.733 EDMBPT (ElementData Megabyte per Timestep (RW))
89.4795 EDMBPS (ElementData Megabyte per Second (RW))
SUM CLIENT SHUTDOWN HINT: 733397
SUM CLIENT SHUTDOWN HINT DIV TIME: 0
41033: CHANGING RESSOURCES
41027: CHANGING RESSOURCES
41013: CHANGING RESSOURCES
41026: CHANGING RESSOURCES
41022: CHANGING RESSOURCES
Waiting for job 41006
Waiting for job 41007
Waiting for job 41008
Waiting for job 41009
Waiting for job 41010
Waiting for job 41011
Waiting for job 41012
Waiting for job 41013

 + Terminating after 1000 timesteps with equal number of triangles -> EXIT
 + Final timestep: 59579

59580 TS (Timesteps)
3022.12 ST (SIMULATION_TIME)
0.0500175 TSS (Timestep size)
7179.66 SFS (Overall seconds for Simulation)
20954211547 TP (Triangles processed)
0.120504 ASPT (Averaged Seconds per Timestep)
351699 TPST (Triangles Processed in Average per Simulation Timestep)
95.0841 PPST (Clusters Processed in Average per Simulation Timestep)
2.91855 MTPS (Million Triangles per Second)
-2.91855 MTPSPT (Million Triangles per Second per Thread)
10.733 EDMBPT (ElementData Megabyte per Timestep (RW))
89.0672 EDMBPS (ElementData Megabyte per Second (RW))
SUM CLIENT SHUTDOWN HINT: 754352
SUM CLIENT SHUTDOWN HINT DIV TIME: 0
41033: CHANGING RESSOURCES
41013: CHANGING RESSOURCES
41022: CHANGING RESSOURCES
41026: CHANGING RESSOURCES

 + Terminating after 1000 timesteps with equal number of triangles -> EXIT
 + Final timestep: 59579

59580 TS (Timesteps)
3022.12 ST (SIMULATION_TIME)
0.0500175 TSS (Timestep size)
7183.76 SFS (Overall seconds for Simulation)
20954211547 TP (Triangles processed)
0.120573 ASPT (Averaged Seconds per Timestep)
351699 TPST (Triangles Processed in Average per Simulation Timestep)
95.0841 PPST (Clusters Processed in Average per Simulation Timestep)
2.91689 MTPS (Million Triangles per Second)
-2.91689 MTPSPT (Million Triangles per Second per Thread)
10.733 EDMBPT (ElementData Megabyte per Timestep (RW))
89.0163 EDMBPS (ElementData Megabyte per Second (RW))
SUM CLIENT SHUTDOWN HINT: 775306
SUM CLIENT SHUTDOWN HINT DIV TIME: 0
41033: CHANGING RESSOURCES
41026: CHANGING RESSOURCES
41022: CHANGING RESSOURCES
Waiting for job 41014
Waiting for job 41015
Waiting for job 41016
Waiting for job 41017
Waiting for job 41018
Waiting for job 41019
Waiting for job 41020
Waiting for job 41021
Waiting for job 41022

 + Terminating after 1000 timesteps with equal number of triangles -> EXIT
 + Final timestep: 59579

59580 TS (Timesteps)
3022.12 ST (SIMULATION_TIME)
0.0500175 TSS (Timestep size)
7189.28 SFS (Overall seconds for Simulation)
20954211547 TP (Triangles processed)
0.120666 ASPT (Averaged Seconds per Timestep)
351699 TPST (Triangles Processed in Average per Simulation Timestep)
95.0841 PPST (Clusters Processed in Average per Simulation Timestep)
2.91465 MTPS (Million Triangles per Second)
-2.91465 MTPSPT (Million Triangles per Second per Thread)
10.733 EDMBPT (ElementData Megabyte per Timestep (RW))
88.9479 EDMBPS (ElementData Megabyte per Second (RW))
SUM CLIENT SHUTDOWN HINT: 796260
SUM CLIENT SHUTDOWN HINT DIV TIME: 0
41033: CHANGING RESSOURCES
41022: CHANGING RESSOURCES

 + Terminating after 1000 timesteps with equal number of triangles -> EXIT
 + Final timestep: 59579

59580 TS (Timesteps)
3022.12 ST (SIMULATION_TIME)
0.0500175 TSS (Timestep size)
7190.17 SFS (Overall seconds for Simulation)
20954211547 TP (Triangles processed)
0.120681 ASPT (Averaged Seconds per Timestep)
351699 TPST (Triangles Processed in Average per Simulation Timestep)
95.0841 PPST (Clusters Processed in Average per Simulation Timestep)
2.91429 MTPS (Million Triangles per Second)
-2.91429 MTPSPT (Million Triangles per Second per Thread)
10.733 EDMBPT (ElementData Megabyte per Timestep (RW))
88.9369 EDMBPS (ElementData Megabyte per Second (RW))
SUM CLIENT SHUTDOWN HINT: 817214
SUM CLIENT SHUTDOWN HINT DIV TIME: 0
41022: CHANGING RESSOURCES

 + Terminating after 1000 timesteps with equal number of triangles -> EXIT
 + Final timestep: 59579

59580 TS (Timesteps)
3022.12 ST (SIMULATION_TIME)
0.0500175 TSS (Timestep size)
7195.04 SFS (Overall seconds for Simulation)
20954211547 TP (Triangles processed)
0.120763 ASPT (Averaged Seconds per Timestep)
351699 TPST (Triangles Processed in Average per Simulation Timestep)
95.0841 PPST (Clusters Processed in Average per Simulation Timestep)
2.91231 MTPS (Million Triangles per Second)
-2.91231 MTPSPT (Million Triangles per Second per Thread)
10.733 EDMBPT (ElementData Megabyte per Timestep (RW))
88.8767 EDMBPS (ElementData Megabyte per Second (RW))
SUM CLIENT SHUTDOWN HINT: 838168
SUM CLIENT SHUTDOWN HINT DIV TIME: 116.493
Waiting for job 41023
Waiting for job 41024
Waiting for job 41025
Waiting for job 41026
Waiting for job 41027
Waiting for job 41028
Waiting for job 41029
Waiting for job 41030
Waiting for job 41031
Waiting for job 41032
Waiting for job 41033
Waiting for job 41034
Waiting for job 41035
Waiting for job 41036
Waiting for job 41037
Waiting for job 41038
Tue Apr  3 22:29:30 CEST 2012
Seconds: 7196
