MODE: ipmo_prog0
PARCOUNT: 2
PROBLEMS: 1
Running on INWEST
Using iPMO

Programs:
 + ../../build/sierpi_intel_ipmo_tsunami_parallel_release  -u 10 -U 10 -T 1000 -n 4 -d 14
 + ../../build/sierpi_intel_ipmo_tsunami_parallel_release  -u 10 -U 10 -T 1000 -n 4 -d 14
 + ../../build/sierpi_intel_ipmo_tsunami_parallel_release  -u 10 -U 10 -T 1000 -n 4 -d 12
 + ../../build/sierpi_intel_ipmo_tsunami_parallel_release  -u 10 -U 10 -T 1000 -n 4 -d 12
 + ../../build/sierpi_intel_ipmo_tsunami_parallel_release  -u 10 -U 10 -T 1000 -n 4 -d 12
 + ../../build/sierpi_intel_ipmo_tsunami_parallel_release  -u 10 -U 10 -T 1000 -n 4 -d 12
 + ../../build/sierpi_intel_ipmo_tsunami_parallel_release  -u 10 -U 10 -T 1000 -n 4 -d 12
 + ../../build/sierpi_intel_ipmo_tsunami_parallel_release  -u 10 -U 10 -T 1000 -n 4 -d 12
 + ../../build/sierpi_intel_ipmo_tsunami_parallel_release  -u 10 -U 10 -T 1000 -n 4 -d 12
 + ../../build/sierpi_intel_ipmo_tsunami_parallel_release  -u 10 -U 10 -T 1000 -n 4 -d 12

Sun Apr  1 17:45:14 CEST 2012
iPMO: Prog0 parallel execution with ipmo (2 times)
Waiting for job 37867
37867: CHANGING RESSOURCES
37867: CHANGING RESSOURCES
37868: CHANGING RESSOURCES

 + Terminating after 1000 timesteps with equal number of triangles -> EXIT
 + Final timestep: 59579

59580 TS (Timesteps)
3022.12 ST (SIMULATION_TIME)
0.0500175 TSS (Timestep size)
504.089 SFS (Overall seconds for Simulation)
20954211547 TP (Triangles processed)
0.0084607 ASPT (Averaged Seconds per Timestep)
351699 TPST (Triangles Processed in Average per Simulation Timestep)
95.0841 PPST (Clusters Processed in Average per Simulation Timestep)
41.5685 MTPS (Million Triangles per Second)
-41.5685 MTPSPT (Million Triangles per Second per Thread)
10.733 EDMBPT (ElementData Megabyte per Timestep (RW))
1268.57 EDMBPS (ElementData Megabyte per Second (RW))
SUM CLIENT SHUTDOWN HINT: 20954.2
SUM CLIENT SHUTDOWN HINT DIV TIME: 0
37867: CHANGING RESSOURCES

 + Terminating after 1000 timesteps with equal number of triangles -> EXIT
 + Final timestep: 59579

59580 TS (Timesteps)
3022.12 ST (SIMULATION_TIME)
0.0500175 TSS (Timestep size)
505.977 SFS (Overall seconds for Simulation)
20954211547 TP (Triangles processed)
0.0084924 ASPT (Averaged Seconds per Timestep)
351699 TPST (Triangles Processed in Average per Simulation Timestep)
95.0841 PPST (Clusters Processed in Average per Simulation Timestep)
41.4134 MTPS (Million Triangles per Second)
-41.4134 MTPSPT (Million Triangles per Second per Thread)
10.733 EDMBPT (ElementData Megabyte per Timestep (RW))
1263.84 EDMBPS (ElementData Megabyte per Second (RW))
SUM CLIENT SHUTDOWN HINT: 41908.4
SUM CLIENT SHUTDOWN HINT DIV TIME: 82.8389
Waiting for job 37868
Sun Apr  1 17:53:40 CEST 2012
Seconds: 506
