MODE: ipmo_prog0
PARCOUNT: 38
PROBLEMS: 1
Running on INWEST
Using iPMO

Programs:
 + ../../build/sierpi_intel_ipmo_tsunami_parallel_release  -u 10 -U 10 -T 1000 -n 4 -d 14
 + ../../build/sierpi_intel_ipmo_tsunami_parallel_release  -u 10 -U 10 -T 1000 -n 4 -d 14
 + ../../build/sierpi_intel_ipmo_tsunami_parallel_release  -u 10 -U 10 -T 1000 -n 4 -d 12
 + ../../build/sierpi_intel_ipmo_tsunami_parallel_release  -u 10 -U 10 -T 1000 -n 4 -d 12
 + ../../build/sierpi_intel_ipmo_tsunami_parallel_release  -u 10 -U 10 -T 1000 -n 4 -d 12
 + ../../build/sierpi_intel_ipmo_tsunami_parallel_release  -u 10 -U 10 -T 1000 -n 4 -d 12
 + ../../build/sierpi_intel_ipmo_tsunami_parallel_release  -u 10 -U 10 -T 1000 -n 4 -d 12
 + ../../build/sierpi_intel_ipmo_tsunami_parallel_release  -u 10 -U 10 -T 1000 -n 4 -d 12
 + ../../build/sierpi_intel_ipmo_tsunami_parallel_release  -u 10 -U 10 -T 1000 -n 4 -d 12
 + ../../build/sierpi_intel_ipmo_tsunami_parallel_release  -u 10 -U 10 -T 1000 -n 4 -d 12

Tue Apr  3 16:47:03 CEST 2012
iPMO: Prog0 parallel execution with ipmo (38 times)
Waiting for job 34418
34424: CHANGING RESSOURCES
34424: CHANGING RESSOURCES
34431: CHANGING RESSOURCES
34433: CHANGING RESSOURCES
34448: CHANGING RESSOURCES
34430: CHANGING RESSOURCES
34446: CHANGING RESSOURCES
34435: CHANGING RESSOURCES
34449: CHANGING RESSOURCES
34453: CHANGING RESSOURCES
34422: CHANGING RESSOURCES
34445: CHANGING RESSOURCES
34418: CHANGING RESSOURCES
34437: CHANGING RESSOURCES
34419: CHANGING RESSOURCES
34439: CHANGING RESSOURCES
34421: CHANGING RESSOURCES
34423: CHANGING RESSOURCES
34428: CHANGING RESSOURCES
34443: CHANGING RESSOURCES
34451: CHANGING RESSOURCES
34442: CHANGING RESSOURCES
34432: CHANGING RESSOURCES
34447: CHANGING RESSOURCES
34440: CHANGING RESSOURCES
34436: CHANGING RESSOURCES
34454: CHANGING RESSOURCES
34450: CHANGING RESSOURCES
34429: CHANGING RESSOURCES
34425: CHANGING RESSOURCES
34420: CHANGING RESSOURCES
34438: CHANGING RESSOURCES
34434: CHANGING RESSOURCES
34444: CHANGING RESSOURCES
34426: CHANGING RESSOURCES
34455: CHANGING RESSOURCES
34427: CHANGING RESSOURCES
34441: CHANGING RESSOURCES
34452: CHANGING RESSOURCES

 + Terminating after 1000 timesteps with equal number of triangles -> EXIT
 + Final timestep: 59579

59580 TS (Timesteps)
3022.12 ST (SIMULATION_TIME)
0.0500175 TSS (Timestep size)
3377.58 SFS (Overall seconds for Simulation)
20954211547 TP (Triangles processed)
0.0566898 ASPT (Averaged Seconds per Timestep)
351699 TPST (Triangles Processed in Average per Simulation Timestep)
95.0841 PPST (Clusters Processed in Average per Simulation Timestep)
6.20392 MTPS (Million Triangles per Second)
-6.20392 MTPSPT (Million Triangles per Second per Thread)
10.733 EDMBPT (ElementData Megabyte per Timestep (RW))
189.329 EDMBPS (ElementData Megabyte per Second (RW))
SUM CLIENT SHUTDOWN HINT: 20954.2
SUM CLIENT SHUTDOWN HINT DIV TIME: 0
34429: CHANGING RESSOURCES
34419: CHANGING RESSOURCES

 + Terminating after 1000 timesteps with equal number of triangles -> EXIT
 + Final timestep: 59579

59580 TS (Timesteps)
3022.12 ST (SIMULATION_TIME)
0.0500175 TSS (Timestep size)
3442.85 SFS (Overall seconds for Simulation)
20954211547 TP (Triangles processed)
0.0577853 ASPT (Averaged Seconds per Timestep)
351699 TPST (Triangles Processed in Average per Simulation Timestep)
95.0841 PPST (Clusters Processed in Average per Simulation Timestep)
6.0863 MTPS (Million Triangles per Second)
-6.0863 MTPSPT (Million Triangles per Second per Thread)
10.733 EDMBPT (ElementData Megabyte per Timestep (RW))
185.739 EDMBPS (ElementData Megabyte per Second (RW))
SUM CLIENT SHUTDOWN HINT: 41908.4
SUM CLIENT SHUTDOWN HINT DIV TIME: 0
34432: CHANGING RESSOURCES
34453: CHANGING RESSOURCES

 + Terminating after 1000 timesteps with equal number of triangles -> EXIT
 + Final timestep: 59579

59580 TS (Timesteps)
3022.12 ST (SIMULATION_TIME)
0.0500175 TSS (Timestep size)
4666.95 SFS (Overall seconds for Simulation)
20954211547 TP (Triangles processed)
0.0783308 ASPT (Averaged Seconds per Timestep)
351699 TPST (Triangles Processed in Average per Simulation Timestep)
95.0841 PPST (Clusters Processed in Average per Simulation Timestep)
4.48992 MTPS (Million Triangles per Second)
-4.48992 MTPSPT (Million Triangles per Second per Thread)
10.733 EDMBPT (ElementData Megabyte per Timestep (RW))
137.021 EDMBPS (ElementData Megabyte per Second (RW))
SUM CLIENT SHUTDOWN HINT: 62862.6
SUM CLIENT SHUTDOWN HINT DIV TIME: 0
34425: CHANGING RESSOURCES
34445: CHANGING RESSOURCES

 + Terminating after 1000 timesteps with equal number of triangles -> EXIT
 + Final timestep: 59579

59580 TS (Timesteps)
3022.12 ST (SIMULATION_TIME)
0.0500175 TSS (Timestep size)
4714.57 SFS (Overall seconds for Simulation)
20954211547 TP (Triangles processed)
0.0791301 ASPT (Averaged Seconds per Timestep)
351699 TPST (Triangles Processed in Average per Simulation Timestep)
95.0841 PPST (Clusters Processed in Average per Simulation Timestep)
4.44457 MTPS (Million Triangles per Second)
-4.44457 MTPSPT (Million Triangles per Second per Thread)
10.733 EDMBPT (ElementData Megabyte per Timestep (RW))
135.637 EDMBPS (ElementData Megabyte per Second (RW))
SUM CLIENT SHUTDOWN HINT: 83816.8
SUM CLIENT SHUTDOWN HINT DIV TIME: 0
34418: CHANGING RESSOURCES
34425: CHANGING RESSOURCES
34422: CHANGING RESSOURCES
34433: CHANGING RESSOURCES

 + Terminating after 1000 timesteps with equal number of triangles -> EXIT
 + Final timestep: 59579

59580 TS (Timesteps)
3022.12 ST (SIMULATION_TIME)
0.0500175 TSS (Timestep size)
4869.28 SFS (Overall seconds for Simulation)
20954211547 TP (Triangles processed)
0.0817267 ASPT (Averaged Seconds per Timestep)
351699 TPST (Triangles Processed in Average per Simulation Timestep)
95.0841 PPST (Clusters Processed in Average per Simulation Timestep)
4.30335 MTPS (Million Triangles per Second)
-4.30335 MTPSPT (Million Triangles per Second per Thread)
10.733 EDMBPT (ElementData Megabyte per Timestep (RW))
131.328 EDMBPS (ElementData Megabyte per Second (RW))
SUM CLIENT SHUTDOWN HINT: 104771
SUM CLIENT SHUTDOWN HINT DIV TIME: 0
34420: CHANGING RESSOURCES
34425: CHANGING RESSOURCES

 + Terminating after 1000 timesteps with equal number of triangles -> EXIT
 + Final timestep: 59579

59580 TS (Timesteps)
3022.12 ST (SIMULATION_TIME)
0.0500175 TSS (Timestep size)
5430.67 SFS (Overall seconds for Simulation)
20954211547 TP (Triangles processed)
0.0911492 ASPT (Averaged Seconds per Timestep)
351699 TPST (Triangles Processed in Average per Simulation Timestep)
95.0841 PPST (Clusters Processed in Average per Simulation Timestep)
3.85849 MTPS (Million Triangles per Second)
-3.85849 MTPSPT (Million Triangles per Second per Thread)
10.733 EDMBPT (ElementData Megabyte per Timestep (RW))
117.752 EDMBPS (ElementData Megabyte per Second (RW))
SUM CLIENT SHUTDOWN HINT: 125725
SUM CLIENT SHUTDOWN HINT DIV TIME: 0
34442: CHANGING RESSOURCES
34446: CHANGING RESSOURCES

 + Terminating after 1000 timesteps with equal number of triangles -> EXIT
 + Final timestep: 59579

59580 TS (Timesteps)
3022.12 ST (SIMULATION_TIME)
0.0500175 TSS (Timestep size)
5502.33 SFS (Overall seconds for Simulation)
20954211547 TP (Triangles processed)
0.0923519 ASPT (Averaged Seconds per Timestep)
351699 TPST (Triangles Processed in Average per Simulation Timestep)
95.0841 PPST (Clusters Processed in Average per Simulation Timestep)
3.80824 MTPS (Million Triangles per Second)
-3.80824 MTPSPT (Million Triangles per Second per Thread)
10.733 EDMBPT (ElementData Megabyte per Timestep (RW))
116.218 EDMBPS (ElementData Megabyte per Second (RW))
SUM CLIENT SHUTDOWN HINT: 146679
SUM CLIENT SHUTDOWN HINT DIV TIME: 0
34441: CHANGING RESSOURCES
34436: CHANGING RESSOURCES

 + Terminating after 1000 timesteps with equal number of triangles -> EXIT
 + Final timestep: 59579

59580 TS (Timesteps)
3022.12 ST (SIMULATION_TIME)
0.0500175 TSS (Timestep size)
5590.13 SFS (Overall seconds for Simulation)
20954211547 TP (Triangles processed)
0.0938257 ASPT (Averaged Seconds per Timestep)
351699 TPST (Triangles Processed in Average per Simulation Timestep)
95.0841 PPST (Clusters Processed in Average per Simulation Timestep)
3.74843 MTPS (Million Triangles per Second)
-3.74843 MTPSPT (Million Triangles per Second per Thread)
10.733 EDMBPT (ElementData Megabyte per Timestep (RW))
114.393 EDMBPS (ElementData Megabyte per Second (RW))
SUM CLIENT SHUTDOWN HINT: 167634
SUM CLIENT SHUTDOWN HINT DIV TIME: 0
34434: CHANGING RESSOURCES
34440: CHANGING RESSOURCES

 + Terminating after 1000 timesteps with equal number of triangles -> EXIT
 + Final timestep: 59579

59580 TS (Timesteps)
3022.12 ST (SIMULATION_TIME)
0.0500175 TSS (Timestep size)
5591.23 SFS (Overall seconds for Simulation)
20954211547 TP (Triangles processed)
0.093844 ASPT (Averaged Seconds per Timestep)
351699 TPST (Triangles Processed in Average per Simulation Timestep)
95.0841 PPST (Clusters Processed in Average per Simulation Timestep)
3.7477 MTPS (Million Triangles per Second)
-3.7477 MTPSPT (Million Triangles per Second per Thread)
10.733 EDMBPT (ElementData Megabyte per Timestep (RW))
114.371 EDMBPS (ElementData Megabyte per Second (RW))
SUM CLIENT SHUTDOWN HINT: 188588
SUM CLIENT SHUTDOWN HINT DIV TIME: 0
34430: CHANGING RESSOURCES
34421: CHANGING RESSOURCES

 + Terminating after 1000 timesteps with equal number of triangles -> EXIT
 + Final timestep: 59579

59580 TS (Timesteps)
3022.12 ST (SIMULATION_TIME)
0.0500175 TSS (Timestep size)
5716.41 SFS (Overall seconds for Simulation)
20954211547 TP (Triangles processed)
0.0959451 ASPT (Averaged Seconds per Timestep)
351699 TPST (Triangles Processed in Average per Simulation Timestep)
95.0841 PPST (Clusters Processed in Average per Simulation Timestep)
3.66562 MTPS (Million Triangles per Second)
-3.66562 MTPSPT (Million Triangles per Second per Thread)
10.733 EDMBPT (ElementData Megabyte per Timestep (RW))
111.866 EDMBPS (ElementData Megabyte per Second (RW))
SUM CLIENT SHUTDOWN HINT: 209542
SUM CLIENT SHUTDOWN HINT DIV TIME: 0
34441: CHANGING RESSOURCES
34437: CHANGING RESSOURCES
34427: CHANGING RESSOURCES
34439: CHANGING RESSOURCES

 + Terminating after 1000 timesteps with equal number of triangles -> EXIT
 + Final timestep: 59579

59580 TS (Timesteps)
3022.12 ST (SIMULATION_TIME)
0.0500175 TSS (Timestep size)
5830.73 SFS (Overall seconds for Simulation)
20954211547 TP (Triangles processed)
0.097864 ASPT (Averaged Seconds per Timestep)
351699 TPST (Triangles Processed in Average per Simulation Timestep)
95.0841 PPST (Clusters Processed in Average per Simulation Timestep)
3.59375 MTPS (Million Triangles per Second)
-3.59375 MTPSPT (Million Triangles per Second per Thread)
10.733 EDMBPT (ElementData Megabyte per Timestep (RW))
109.673 EDMBPS (ElementData Megabyte per Second (RW))
SUM CLIENT SHUTDOWN HINT: 230496
SUM CLIENT SHUTDOWN HINT DIV TIME: 0
34449: CHANGING RESSOURCES
34446: CHANGING RESSOURCES
34431: CHANGING RESSOURCES

 + Terminating after 1000 timesteps with equal number of triangles -> EXIT
 + Final timestep: 59579

59580 TS (Timesteps)
3022.12 ST (SIMULATION_TIME)
0.0500175 TSS (Timestep size)
5845.03 SFS (Overall seconds for Simulation)
20954211547 TP (Triangles processed)
0.0981038 ASPT (Averaged Seconds per Timestep)
351699 TPST (Triangles Processed in Average per Simulation Timestep)
95.0841 PPST (Clusters Processed in Average per Simulation Timestep)
3.58497 MTPS (Million Triangles per Second)
-3.58497 MTPSPT (Million Triangles per Second per Thread)
10.733 EDMBPT (ElementData Megabyte per Timestep (RW))
109.404 EDMBPS (ElementData Megabyte per Second (RW))
SUM CLIENT SHUTDOWN HINT: 251451
SUM CLIENT SHUTDOWN HINT DIV TIME: 0
34423: CHANGING RESSOURCES

 + Terminating after 1000 timesteps with equal number of triangles -> EXIT
 + Final timestep: 59579

59580 TS (Timesteps)
3022.12 ST (SIMULATION_TIME)
0.0500175 TSS (Timestep size)
5855.64 SFS (Overall seconds for Simulation)
20954211547 TP (Triangles processed)
0.098282 ASPT (Averaged Seconds per Timestep)
351699 TPST (Triangles Processed in Average per Simulation Timestep)
95.0841 PPST (Clusters Processed in Average per Simulation Timestep)
3.57846 MTPS (Million Triangles per Second)
-3.57846 MTPSPT (Million Triangles per Second per Thread)
10.733 EDMBPT (ElementData Megabyte per Timestep (RW))
109.206 EDMBPS (ElementData Megabyte per Second (RW))
SUM CLIENT SHUTDOWN HINT: 272405
SUM CLIENT SHUTDOWN HINT DIV TIME: 0
34447: CHANGING RESSOURCES

 + Terminating after 1000 timesteps with equal number of triangles -> EXIT
 + Final timestep: 59579

59580 TS (Timesteps)
3022.12 ST (SIMULATION_TIME)
0.0500175 TSS (Timestep size)
5865.04 SFS (Overall seconds for Simulation)
20954211547 TP (Triangles processed)
0.0984398 ASPT (Averaged Seconds per Timestep)
351699 TPST (Triangles Processed in Average per Simulation Timestep)
95.0841 PPST (Clusters Processed in Average per Simulation Timestep)
3.57273 MTPS (Million Triangles per Second)
-3.57273 MTPSPT (Million Triangles per Second per Thread)
10.733 EDMBPT (ElementData Megabyte per Timestep (RW))
109.031 EDMBPS (ElementData Megabyte per Second (RW))
SUM CLIENT SHUTDOWN HINT: 293359
SUM CLIENT SHUTDOWN HINT DIV TIME: 0
34426: CHANGING RESSOURCES

 + Terminating after 1000 timesteps with equal number of triangles -> EXIT
 + Final timestep: 59579

59580 TS (Timesteps)
3022.12 ST (SIMULATION_TIME)
0.0500175 TSS (Timestep size)
6003.51 SFS (Overall seconds for Simulation)
20954211547 TP (Triangles processed)
0.100764 ASPT (Averaged Seconds per Timestep)
351699 TPST (Triangles Processed in Average per Simulation Timestep)
95.0841 PPST (Clusters Processed in Average per Simulation Timestep)
3.49033 MTPS (Million Triangles per Second)
-3.49033 MTPSPT (Million Triangles per Second per Thread)
10.733 EDMBPT (ElementData Megabyte per Timestep (RW))
106.516 EDMBPS (ElementData Megabyte per Second (RW))
SUM CLIENT SHUTDOWN HINT: 314313
SUM CLIENT SHUTDOWN HINT DIV TIME: 0
34450: CHANGING RESSOURCES
34443: CHANGING RESSOURCES

 + Terminating after 1000 timesteps with equal number of triangles -> EXIT
 + Final timestep: 59579

59580 TS (Timesteps)
3022.12 ST (SIMULATION_TIME)
0.0500175 TSS (Timestep size)
6011.69 SFS (Overall seconds for Simulation)
20954211547 TP (Triangles processed)
0.100901 ASPT (Averaged Seconds per Timestep)
351699 TPST (Triangles Processed in Average per Simulation Timestep)
95.0841 PPST (Clusters Processed in Average per Simulation Timestep)
3.48558 MTPS (Million Triangles per Second)
-3.48558 MTPSPT (Million Triangles per Second per Thread)
10.733 EDMBPT (ElementData Megabyte per Timestep (RW))
106.371 EDMBPS (ElementData Megabyte per Second (RW))
SUM CLIENT SHUTDOWN HINT: 335267
SUM CLIENT SHUTDOWN HINT DIV TIME: 0
34448: CHANGING RESSOURCES
34438: CHANGING RESSOURCES

 + Terminating after 1000 timesteps with equal number of triangles -> EXIT
 + Final timestep: 59579

59580 TS (Timesteps)
3022.12 ST (SIMULATION_TIME)
0.0500175 TSS (Timestep size)
6019.18 SFS (Overall seconds for Simulation)
20954211547 TP (Triangles processed)
0.101027 ASPT (Averaged Seconds per Timestep)
351699 TPST (Triangles Processed in Average per Simulation Timestep)
95.0841 PPST (Clusters Processed in Average per Simulation Timestep)
3.48124 MTPS (Million Triangles per Second)
-3.48124 MTPSPT (Million Triangles per Second per Thread)
10.733 EDMBPT (ElementData Megabyte per Timestep (RW))
106.239 EDMBPS (ElementData Megabyte per Second (RW))
SUM CLIENT SHUTDOWN HINT: 356222
SUM CLIENT SHUTDOWN HINT DIV TIME: 0
34444: CHANGING RESSOURCES
34436: CHANGING RESSOURCES
34446: CHANGING RESSOURCES

 + Terminating after 1000 timesteps with equal number of triangles -> EXIT
 + Final timestep: 59579

59580 TS (Timesteps)
3022.12 ST (SIMULATION_TIME)
0.0500175 TSS (Timestep size)
6020.97 SFS (Overall seconds for Simulation)
20954211547 TP (Triangles processed)
0.101057 ASPT (Averaged Seconds per Timestep)
351699 TPST (Triangles Processed in Average per Simulation Timestep)
95.0841 PPST (Clusters Processed in Average per Simulation Timestep)
3.48021 MTPS (Million Triangles per Second)
-3.48021 MTPSPT (Million Triangles per Second per Thread)
10.733 EDMBPT (ElementData Megabyte per Timestep (RW))
106.208 EDMBPS (ElementData Megabyte per Second (RW))
SUM CLIENT SHUTDOWN HINT: 377176
SUM CLIENT SHUTDOWN HINT DIV TIME: 0
34436: CHANGING RESSOURCES
34441: CHANGING RESSOURCES

 + Terminating after 1000 timesteps with equal number of triangles -> EXIT
 + Final timestep: 59579

59580 TS (Timesteps)
3022.12 ST (SIMULATION_TIME)
0.0500175 TSS (Timestep size)
6059.33 SFS (Overall seconds for Simulation)
20954211547 TP (Triangles processed)
0.101701 ASPT (Averaged Seconds per Timestep)
351699 TPST (Triangles Processed in Average per Simulation Timestep)
95.0841 PPST (Clusters Processed in Average per Simulation Timestep)
3.45817 MTPS (Million Triangles per Second)
-3.45817 MTPSPT (Million Triangles per Second per Thread)
10.733 EDMBPT (ElementData Megabyte per Timestep (RW))
105.535 EDMBPS (ElementData Megabyte per Second (RW))
SUM CLIENT SHUTDOWN HINT: 398130
SUM CLIENT SHUTDOWN HINT DIV TIME: 0
34422: CHANGING RESSOURCES
34418: CHANGING RESSOURCES

 + Terminating after 1000 timesteps with equal number of triangles -> EXIT
 + Final timestep: 59579

59580 TS (Timesteps)
3022.12 ST (SIMULATION_TIME)
0.0500175 TSS (Timestep size)
6061.43 SFS (Overall seconds for Simulation)
20954211547 TP (Triangles processed)
0.101736 ASPT (Averaged Seconds per Timestep)
351699 TPST (Triangles Processed in Average per Simulation Timestep)
95.0841 PPST (Clusters Processed in Average per Simulation Timestep)
3.45698 MTPS (Million Triangles per Second)
-3.45698 MTPSPT (Million Triangles per Second per Thread)
10.733 EDMBPT (ElementData Megabyte per Timestep (RW))
105.499 EDMBPS (ElementData Megabyte per Second (RW))
SUM CLIENT SHUTDOWN HINT: 419084
SUM CLIENT SHUTDOWN HINT DIV TIME: 0
34442: CHANGING RESSOURCES
34446: CHANGING RESSOURCES

 + Terminating after 1000 timesteps with equal number of triangles -> EXIT
 + Final timestep: 59579

59580 TS (Timesteps)
3022.12 ST (SIMULATION_TIME)
0.0500175 TSS (Timestep size)
6074.94 SFS (Overall seconds for Simulation)
20954211547 TP (Triangles processed)
0.101963 ASPT (Averaged Seconds per Timestep)
351699 TPST (Triangles Processed in Average per Simulation Timestep)
95.0841 PPST (Clusters Processed in Average per Simulation Timestep)
3.44929 MTPS (Million Triangles per Second)
-3.44929 MTPSPT (Million Triangles per Second per Thread)
10.733 EDMBPT (ElementData Megabyte per Timestep (RW))
105.264 EDMBPS (ElementData Megabyte per Second (RW))
SUM CLIENT SHUTDOWN HINT: 440038
SUM CLIENT SHUTDOWN HINT DIV TIME: 0
34441: CHANGING RESSOURCES
34436: CHANGING RESSOURCES

 + Terminating after 1000 timesteps with equal number of triangles -> EXIT
 + Final timestep: 59579

59580 TS (Timesteps)
3022.12 ST (SIMULATION_TIME)
0.0500175 TSS (Timestep size)
6091.06 SFS (Overall seconds for Simulation)
20954211547 TP (Triangles processed)
0.102233 ASPT (Averaged Seconds per Timestep)
351699 TPST (Triangles Processed in Average per Simulation Timestep)
95.0841 PPST (Clusters Processed in Average per Simulation Timestep)
3.44016 MTPS (Million Triangles per Second)
-3.44016 MTPSPT (Million Triangles per Second per Thread)
10.733 EDMBPT (ElementData Megabyte per Timestep (RW))
104.985 EDMBPS (ElementData Megabyte per Second (RW))
SUM CLIENT SHUTDOWN HINT: 460993
SUM CLIENT SHUTDOWN HINT DIV TIME: 0
34431: CHANGING RESSOURCES
34449: CHANGING RESSOURCES
34421: CHANGING RESSOURCES

 + Terminating after 1000 timesteps with equal number of triangles -> EXIT
 + Final timestep: 59579

59580 TS (Timesteps)
3022.12 ST (SIMULATION_TIME)
0.0500175 TSS (Timestep size)
6103.34 SFS (Overall seconds for Simulation)
20954211547 TP (Triangles processed)
0.102439 ASPT (Averaged Seconds per Timestep)
351699 TPST (Triangles Processed in Average per Simulation Timestep)
95.0841 PPST (Clusters Processed in Average per Simulation Timestep)
3.43324 MTPS (Million Triangles per Second)
-3.43324 MTPSPT (Million Triangles per Second per Thread)
10.733 EDMBPT (ElementData Megabyte per Timestep (RW))
104.774 EDMBPS (ElementData Megabyte per Second (RW))
SUM CLIENT SHUTDOWN HINT: 481947
SUM CLIENT SHUTDOWN HINT DIV TIME: 0
34447: CHANGING RESSOURCES
34450: CHANGING RESSOURCES

 + Terminating after 1000 timesteps with equal number of triangles -> EXIT
 + Final timestep: 59579

59580 TS (Timesteps)
3022.12 ST (SIMULATION_TIME)
0.0500175 TSS (Timestep size)
6181.22 SFS (Overall seconds for Simulation)
20954211547 TP (Triangles processed)
0.103747 ASPT (Averaged Seconds per Timestep)
351699 TPST (Triangles Processed in Average per Simulation Timestep)
95.0841 PPST (Clusters Processed in Average per Simulation Timestep)
3.38998 MTPS (Million Triangles per Second)
-3.38998 MTPSPT (Million Triangles per Second per Thread)
10.733 EDMBPT (ElementData Megabyte per Timestep (RW))
103.454 EDMBPS (ElementData Megabyte per Second (RW))
SUM CLIENT SHUTDOWN HINT: 502901
SUM CLIENT SHUTDOWN HINT DIV TIME: 0
34448: CHANGING RESSOURCES
34443: CHANGING RESSOURCES
34438: CHANGING RESSOURCES
Waiting for job 34419
Waiting for job 34420
Waiting for job 34421

 + Terminating after 1000 timesteps with equal number of triangles -> EXIT
 + Final timestep: 59579

59580 TS (Timesteps)
3022.12 ST (SIMULATION_TIME)
0.0500175 TSS (Timestep size)
6428.83 SFS (Overall seconds for Simulation)
20954211547 TP (Triangles processed)
0.107903 ASPT (Averaged Seconds per Timestep)
351699 TPST (Triangles Processed in Average per Simulation Timestep)
95.0841 PPST (Clusters Processed in Average per Simulation Timestep)
3.25941 MTPS (Million Triangles per Second)
-3.25941 MTPSPT (Million Triangles per Second per Thread)
10.733 EDMBPT (ElementData Megabyte per Timestep (RW))
99.4693 EDMBPS (ElementData Megabyte per Second (RW))
SUM CLIENT SHUTDOWN HINT: 523855
SUM CLIENT SHUTDOWN HINT DIV TIME: 0
34421: CHANGING RESSOURCES
34444: CHANGING RESSOURCES
34455: CHANGING RESSOURCES

 + Terminating after 1000 timesteps with equal number of triangles -> EXIT
 + Final timestep: 59579

59580 TS (Timesteps)
3022.12 ST (SIMULATION_TIME)
0.0500175 TSS (Timestep size)
6483.57 SFS (Overall seconds for Simulation)
20954211547 TP (Triangles processed)
0.108821 ASPT (Averaged Seconds per Timestep)
351699 TPST (Triangles Processed in Average per Simulation Timestep)
95.0841 PPST (Clusters Processed in Average per Simulation Timestep)
3.2319 MTPS (Million Triangles per Second)
-3.2319 MTPSPT (Million Triangles per Second per Thread)
10.733 EDMBPT (ElementData Megabyte per Timestep (RW))
98.6296 EDMBPS (ElementData Megabyte per Second (RW))
SUM CLIENT SHUTDOWN HINT: 544810
SUM CLIENT SHUTDOWN HINT DIV TIME: 0
34449: CHANGING RESSOURCES
34450: CHANGING RESSOURCES
34421: CHANGING RESSOURCES
34447: CHANGING RESSOURCES
34431: CHANGING RESSOURCES

 + Terminating after 1000 timesteps with equal number of triangles -> EXIT
 + Final timestep: 59579

59580 TS (Timesteps)
3022.12 ST (SIMULATION_TIME)
0.0500175 TSS (Timestep size)
6497.92 SFS (Overall seconds for Simulation)
20954211547 TP (Triangles processed)
0.109062 ASPT (Averaged Seconds per Timestep)
351699 TPST (Triangles Processed in Average per Simulation Timestep)
95.0841 PPST (Clusters Processed in Average per Simulation Timestep)
3.22476 MTPS (Million Triangles per Second)
-3.22476 MTPSPT (Million Triangles per Second per Thread)
10.733 EDMBPT (ElementData Megabyte per Timestep (RW))
98.4117 EDMBPS (ElementData Megabyte per Second (RW))
SUM CLIENT SHUTDOWN HINT: 565764
SUM CLIENT SHUTDOWN HINT DIV TIME: 0
34438: CHANGING RESSOURCES
34443: CHANGING RESSOURCES
34455: CHANGING RESSOURCES
34448: CHANGING RESSOURCES

 + Terminating after 1000 timesteps with equal number of triangles -> EXIT
 + Final timestep: 59579

59580 TS (Timesteps)
3022.12 ST (SIMULATION_TIME)
0.0500175 TSS (Timestep size)
6498.79 SFS (Overall seconds for Simulation)
20954211547 TP (Triangles processed)
0.109077 ASPT (Averaged Seconds per Timestep)
351699 TPST (Triangles Processed in Average per Simulation Timestep)
95.0841 PPST (Clusters Processed in Average per Simulation Timestep)
3.22433 MTPS (Million Triangles per Second)
-3.22433 MTPSPT (Million Triangles per Second per Thread)
10.733 EDMBPT (ElementData Megabyte per Timestep (RW))
98.3986 EDMBPS (ElementData Megabyte per Second (RW))
SUM CLIENT SHUTDOWN HINT: 586718
SUM CLIENT SHUTDOWN HINT DIV TIME: 0
34421: CHANGING RESSOURCES
34446: CHANGING RESSOURCES
34444: CHANGING RESSOURCES

 + Terminating after 1000 timesteps with equal number of triangles -> EXIT
 + Final timestep: 59579

59580 TS (Timesteps)
3022.12 ST (SIMULATION_TIME)
0.0500175 TSS (Timestep size)
6503.36 SFS (Overall seconds for Simulation)
20954211547 TP (Triangles processed)
0.109153 ASPT (Averaged Seconds per Timestep)
351699 TPST (Triangles Processed in Average per Simulation Timestep)
95.0841 PPST (Clusters Processed in Average per Simulation Timestep)
3.22206 MTPS (Million Triangles per Second)
-3.22206 MTPSPT (Million Triangles per Second per Thread)
10.733 EDMBPT (ElementData Megabyte per Timestep (RW))
98.3294 EDMBPS (ElementData Megabyte per Second (RW))
SUM CLIENT SHUTDOWN HINT: 607672
SUM CLIENT SHUTDOWN HINT DIV TIME: 0
34446: CHANGING RESSOURCES
34449: CHANGING RESSOURCES
34421: CHANGING RESSOURCES
34431: CHANGING RESSOURCES

 + Terminating after 1000 timesteps with equal number of triangles -> EXIT
 + Final timestep: 59579

59580 TS (Timesteps)
3022.12 ST (SIMULATION_TIME)
0.0500175 TSS (Timestep size)
6508.4 SFS (Overall seconds for Simulation)
20954211547 TP (Triangles processed)
0.109238 ASPT (Averaged Seconds per Timestep)
351699 TPST (Triangles Processed in Average per Simulation Timestep)
95.0841 PPST (Clusters Processed in Average per Simulation Timestep)
3.21957 MTPS (Million Triangles per Second)
-3.21957 MTPSPT (Million Triangles per Second per Thread)
10.733 EDMBPT (ElementData Megabyte per Timestep (RW))
98.2534 EDMBPS (ElementData Megabyte per Second (RW))
SUM CLIENT SHUTDOWN HINT: 628626
SUM CLIENT SHUTDOWN HINT DIV TIME: 0
34448: CHANGING RESSOURCES
34444: CHANGING RESSOURCES
34450: CHANGING RESSOURCES
34455: CHANGING RESSOURCES
34438: CHANGING RESSOURCES
Waiting for job 34422
Waiting for job 34423
Waiting for job 34424
Waiting for job 34425
Waiting for job 34426
Waiting for job 34427
Waiting for job 34428
Waiting for job 34429
Waiting for job 34430
Waiting for job 34431

 + Terminating after 1000 timesteps with equal number of triangles -> EXIT
 + Final timestep: 59579

59580 TS (Timesteps)
3022.12 ST (SIMULATION_TIME)
0.0500175 TSS (Timestep size)
6510.26 SFS (Overall seconds for Simulation)
20954211547 TP (Triangles processed)
0.109269 ASPT (Averaged Seconds per Timestep)
351699 TPST (Triangles Processed in Average per Simulation Timestep)
95.0841 PPST (Clusters Processed in Average per Simulation Timestep)
3.21865 MTPS (Million Triangles per Second)
-3.21865 MTPSPT (Million Triangles per Second per Thread)
10.733 EDMBPT (ElementData Megabyte per Timestep (RW))
98.2253 EDMBPS (ElementData Megabyte per Second (RW))
SUM CLIENT SHUTDOWN HINT: 649581
SUM CLIENT SHUTDOWN HINT DIV TIME: 0
34448: CHANGING RESSOURCES
34450: CHANGING RESSOURCES
34446: CHANGING RESSOURCES
34431: CHANGING RESSOURCES

 + Terminating after 1000 timesteps with equal number of triangles -> EXIT
 + Final timestep: 59579

59580 TS (Timesteps)
3022.12 ST (SIMULATION_TIME)
0.0500175 TSS (Timestep size)
6545.57 SFS (Overall seconds for Simulation)
20954211547 TP (Triangles processed)
0.109862 ASPT (Averaged Seconds per Timestep)
351699 TPST (Triangles Processed in Average per Simulation Timestep)
95.0841 PPST (Clusters Processed in Average per Simulation Timestep)
3.20128 MTPS (Million Triangles per Second)
-3.20128 MTPSPT (Million Triangles per Second per Thread)
10.733 EDMBPT (ElementData Megabyte per Timestep (RW))
97.6953 EDMBPS (ElementData Megabyte per Second (RW))
SUM CLIENT SHUTDOWN HINT: 670535
SUM CLIENT SHUTDOWN HINT DIV TIME: 0
34450: CHANGING RESSOURCES
34446: CHANGING RESSOURCES
34431: CHANGING RESSOURCES

 + Terminating after 1000 timesteps with equal number of triangles -> EXIT
 + Final timestep: 59579

59580 TS (Timesteps)
3022.12 ST (SIMULATION_TIME)
0.0500175 TSS (Timestep size)
6552.77 SFS (Overall seconds for Simulation)
20954211547 TP (Triangles processed)
0.109983 ASPT (Averaged Seconds per Timestep)
351699 TPST (Triangles Processed in Average per Simulation Timestep)
95.0841 PPST (Clusters Processed in Average per Simulation Timestep)
3.19777 MTPS (Million Triangles per Second)
-3.19777 MTPSPT (Million Triangles per Second per Thread)
10.733 EDMBPT (ElementData Megabyte per Timestep (RW))
97.5881 EDMBPS (ElementData Megabyte per Second (RW))
SUM CLIENT SHUTDOWN HINT: 691489
SUM CLIENT SHUTDOWN HINT DIV TIME: 0
34455: CHANGING RESSOURCES
34431: CHANGING RESSOURCES
34438: CHANGING RESSOURCES
34448: CHANGING RESSOURCES
34450: CHANGING RESSOURCES

 + Terminating after 1000 timesteps with equal number of triangles -> EXIT
 + Final timestep: 59579

59580 TS (Timesteps)
3022.12 ST (SIMULATION_TIME)
0.0500175 TSS (Timestep size)
6559.47 SFS (Overall seconds for Simulation)
20954211547 TP (Triangles processed)
0.110095 ASPT (Averaged Seconds per Timestep)
351699 TPST (Triangles Processed in Average per Simulation Timestep)
95.0841 PPST (Clusters Processed in Average per Simulation Timestep)
3.1945 MTPS (Million Triangles per Second)
-3.1945 MTPSPT (Million Triangles per Second per Thread)
10.733 EDMBPT (ElementData Megabyte per Timestep (RW))
97.4883 EDMBPS (ElementData Megabyte per Second (RW))
SUM CLIENT SHUTDOWN HINT: 712443
SUM CLIENT SHUTDOWN HINT DIV TIME: 0
34455: CHANGING RESSOURCES
34438: CHANGING RESSOURCES
34431: CHANGING RESSOURCES
34450: CHANGING RESSOURCES

 + Terminating after 1000 timesteps with equal number of triangles -> EXIT
 + Final timestep: 59579

59580 TS (Timesteps)
3022.12 ST (SIMULATION_TIME)
0.0500175 TSS (Timestep size)
6562.88 SFS (Overall seconds for Simulation)
20954211547 TP (Triangles processed)
0.110152 ASPT (Averaged Seconds per Timestep)
351699 TPST (Triangles Processed in Average per Simulation Timestep)
95.0841 PPST (Clusters Processed in Average per Simulation Timestep)
3.19284 MTPS (Million Triangles per Second)
-3.19284 MTPSPT (Million Triangles per Second per Thread)
10.733 EDMBPT (ElementData Megabyte per Timestep (RW))
97.4376 EDMBPS (ElementData Megabyte per Second (RW))
SUM CLIENT SHUTDOWN HINT: 733397
SUM CLIENT SHUTDOWN HINT DIV TIME: 0
34431: CHANGING RESSOURCES
34450: CHANGING RESSOURCES
34455: CHANGING RESSOURCES

 + Terminating after 1000 timesteps with equal number of triangles -> EXIT
 + Final timestep: 59579

59580 TS (Timesteps)
3022.12 ST (SIMULATION_TIME)
0.0500175 TSS (Timestep size)
6580.87 SFS (Overall seconds for Simulation)
20954211547 TP (Triangles processed)
0.110454 ASPT (Averaged Seconds per Timestep)
351699 TPST (Triangles Processed in Average per Simulation Timestep)
95.0841 PPST (Clusters Processed in Average per Simulation Timestep)
3.18411 MTPS (Million Triangles per Second)
-3.18411 MTPSPT (Million Triangles per Second per Thread)
10.733 EDMBPT (ElementData Megabyte per Timestep (RW))
97.1714 EDMBPS (ElementData Megabyte per Second (RW))
SUM CLIENT SHUTDOWN HINT: 754352
SUM CLIENT SHUTDOWN HINT DIV TIME: 0
34450: CHANGING RESSOURCES
34455: CHANGING RESSOURCES
Waiting for job 34432
Waiting for job 34433
Waiting for job 34434
Waiting for job 34435
Waiting for job 34436
Waiting for job 34437
Waiting for job 34438
Waiting for job 34439
Waiting for job 34440
Waiting for job 34441
Waiting for job 34442
Waiting for job 34443
Waiting for job 34444
Waiting for job 34445
Waiting for job 34446
Waiting for job 34447
Waiting for job 34448
Waiting for job 34449
Waiting for job 34450

 + Terminating after 1000 timesteps with equal number of triangles -> EXIT
 + Final timestep: 59579

59580 TS (Timesteps)
3022.12 ST (SIMULATION_TIME)
0.0500175 TSS (Timestep size)
6583.39 SFS (Overall seconds for Simulation)
20954211547 TP (Triangles processed)
0.110497 ASPT (Averaged Seconds per Timestep)
351699 TPST (Triangles Processed in Average per Simulation Timestep)
95.0841 PPST (Clusters Processed in Average per Simulation Timestep)
3.18289 MTPS (Million Triangles per Second)
-3.18289 MTPSPT (Million Triangles per Second per Thread)
10.733 EDMBPT (ElementData Megabyte per Timestep (RW))
97.1342 EDMBPS (ElementData Megabyte per Second (RW))
SUM CLIENT SHUTDOWN HINT: 775306
SUM CLIENT SHUTDOWN HINT DIV TIME: 0
34455: CHANGING RESSOURCES
Waiting for job 34451
Waiting for job 34452
Waiting for job 34453
Waiting for job 34454
Waiting for job 34455

 + Terminating after 1000 timesteps with equal number of triangles -> EXIT
 + Final timestep: 59579

59580 TS (Timesteps)
3022.12 ST (SIMULATION_TIME)
0.0500175 TSS (Timestep size)
6590.49 SFS (Overall seconds for Simulation)
20954211547 TP (Triangles processed)
0.110616 ASPT (Averaged Seconds per Timestep)
351699 TPST (Triangles Processed in Average per Simulation Timestep)
95.0841 PPST (Clusters Processed in Average per Simulation Timestep)
3.17946 MTPS (Million Triangles per Second)
-3.17946 MTPSPT (Million Triangles per Second per Thread)
10.733 EDMBPT (ElementData Megabyte per Timestep (RW))
97.0294 EDMBPS (ElementData Megabyte per Second (RW))
SUM CLIENT SHUTDOWN HINT: 796260
SUM CLIENT SHUTDOWN HINT DIV TIME: 120.816
Tue Apr  3 18:36:54 CEST 2012
Seconds: 6591
