MODE: ipmo_prog0
PARCOUNT: 9
PROBLEMS: 1
Running on INWEST
Using iPMO

Programs:
 + ../../build/sierpi_intel_ipmo_tsunami_parallel_release  -u 10 -U 10 -T 1000 -n 4 -d 14
 + ../../build/sierpi_intel_ipmo_tsunami_parallel_release  -u 10 -U 10 -T 1000 -n 4 -d 14
 + ../../build/sierpi_intel_ipmo_tsunami_parallel_release  -u 10 -U 10 -T 1000 -n 4 -d 12
 + ../../build/sierpi_intel_ipmo_tsunami_parallel_release  -u 10 -U 10 -T 1000 -n 4 -d 12
 + ../../build/sierpi_intel_ipmo_tsunami_parallel_release  -u 10 -U 10 -T 1000 -n 4 -d 12
 + ../../build/sierpi_intel_ipmo_tsunami_parallel_release  -u 10 -U 10 -T 1000 -n 4 -d 12
 + ../../build/sierpi_intel_ipmo_tsunami_parallel_release  -u 10 -U 10 -T 1000 -n 4 -d 12
 + ../../build/sierpi_intel_ipmo_tsunami_parallel_release  -u 10 -U 10 -T 1000 -n 4 -d 12
 + ../../build/sierpi_intel_ipmo_tsunami_parallel_release  -u 10 -U 10 -T 1000 -n 4 -d 12
 + ../../build/sierpi_intel_ipmo_tsunami_parallel_release  -u 10 -U 10 -T 1000 -n 4 -d 12

Sun Apr  1 19:35:42 CEST 2012
iPMO: Prog0 parallel execution with ipmo (9 times)
Waiting for job 40882
40883: CHANGING RESSOURCES
40883: CHANGING RESSOURCES
40888: CHANGING RESSOURCES
40882: CHANGING RESSOURCES
40888: CHANGING RESSOURCES
40883: CHANGING RESSOURCES
40885: CHANGING RESSOURCES
40887: CHANGING RESSOURCES
40886: CHANGING RESSOURCES
40884: CHANGING RESSOURCES
40890: CHANGING RESSOURCES
40889: CHANGING RESSOURCES

 + Terminating after 1000 timesteps with equal number of triangles -> EXIT
 + Final timestep: 59579

59580 TS (Timesteps)
3022.12 ST (SIMULATION_TIME)
0.0500175 TSS (Timestep size)
1399.29 SFS (Overall seconds for Simulation)
20954211547 TP (Triangles processed)
0.0234859 ASPT (Averaged Seconds per Timestep)
351699 TPST (Triangles Processed in Average per Simulation Timestep)
95.0841 PPST (Clusters Processed in Average per Simulation Timestep)
14.9749 MTPS (Million Triangles per Second)
-14.9749 MTPSPT (Million Triangles per Second per Thread)
10.733 EDMBPT (ElementData Megabyte per Timestep (RW))
456.998 EDMBPS (ElementData Megabyte per Second (RW))
SUM CLIENT SHUTDOWN HINT: 20954.2
SUM CLIENT SHUTDOWN HINT DIV TIME: 0
40887: CHANGING RESSOURCES
40890: CHANGING RESSOURCES
40886: CHANGING RESSOURCES
40888: CHANGING RESSOURCES
40882: CHANGING RESSOURCES

 + Terminating after 1000 timesteps with equal number of triangles -> EXIT
 + Final timestep: 59579

59580 TS (Timesteps)
3022.12 ST (SIMULATION_TIME)
0.0500175 TSS (Timestep size)
1439.7 SFS (Overall seconds for Simulation)
20954211547 TP (Triangles processed)
0.0241641 ASPT (Averaged Seconds per Timestep)
351699 TPST (Triangles Processed in Average per Simulation Timestep)
95.0841 PPST (Clusters Processed in Average per Simulation Timestep)
14.5546 MTPS (Million Triangles per Second)
-14.5546 MTPSPT (Million Triangles per Second per Thread)
10.733 EDMBPT (ElementData Megabyte per Timestep (RW))
444.172 EDMBPS (ElementData Megabyte per Second (RW))
SUM CLIENT SHUTDOWN HINT: 41908.4
SUM CLIENT SHUTDOWN HINT DIV TIME: 0
40890: CHANGING RESSOURCES
40887: CHANGING RESSOURCES
40889: CHANGING RESSOURCES
40886: CHANGING RESSOURCES
40885: CHANGING RESSOURCES

 + Terminating after 1000 timesteps with equal number of triangles -> EXIT
 + Final timestep: 59579

59580 TS (Timesteps)
3022.12 ST (SIMULATION_TIME)
0.0500175 TSS (Timestep size)
1465.69 SFS (Overall seconds for Simulation)
20954211547 TP (Triangles processed)
0.0246003 ASPT (Averaged Seconds per Timestep)
351699 TPST (Triangles Processed in Average per Simulation Timestep)
95.0841 PPST (Clusters Processed in Average per Simulation Timestep)
14.2965 MTPS (Million Triangles per Second)
-14.2965 MTPSPT (Million Triangles per Second per Thread)
10.733 EDMBPT (ElementData Megabyte per Timestep (RW))
436.295 EDMBPS (ElementData Megabyte per Second (RW))
SUM CLIENT SHUTDOWN HINT: 62862.6
SUM CLIENT SHUTDOWN HINT DIV TIME: 0
40882: CHANGING RESSOURCES
40887: CHANGING RESSOURCES
40890: CHANGING RESSOURCES
40888: CHANGING RESSOURCES
40885: CHANGING RESSOURCES

 + Terminating after 1000 timesteps with equal number of triangles -> EXIT
 + Final timestep: 59579

59580 TS (Timesteps)
3022.12 ST (SIMULATION_TIME)
0.0500175 TSS (Timestep size)
1488.08 SFS (Overall seconds for Simulation)
20954211547 TP (Triangles processed)
0.0249762 ASPT (Averaged Seconds per Timestep)
351699 TPST (Triangles Processed in Average per Simulation Timestep)
95.0841 PPST (Clusters Processed in Average per Simulation Timestep)
14.0814 MTPS (Million Triangles per Second)
-14.0814 MTPSPT (Million Triangles per Second per Thread)
10.733 EDMBPT (ElementData Megabyte per Timestep (RW))
429.729 EDMBPS (ElementData Megabyte per Second (RW))
SUM CLIENT SHUTDOWN HINT: 83816.8
SUM CLIENT SHUTDOWN HINT DIV TIME: 0
40890: CHANGING RESSOURCES
40887: CHANGING RESSOURCES
40888: CHANGING RESSOURCES
40886: CHANGING RESSOURCES

 + Terminating after 1000 timesteps with equal number of triangles -> EXIT
 + Final timestep: 59579

59580 TS (Timesteps)
3022.12 ST (SIMULATION_TIME)
0.0500175 TSS (Timestep size)
1607.51 SFS (Overall seconds for Simulation)
20954211547 TP (Triangles processed)
0.0269808 ASPT (Averaged Seconds per Timestep)
351699 TPST (Triangles Processed in Average per Simulation Timestep)
95.0841 PPST (Clusters Processed in Average per Simulation Timestep)
13.0352 MTPS (Million Triangles per Second)
-13.0352 MTPSPT (Million Triangles per Second per Thread)
10.733 EDMBPT (ElementData Megabyte per Timestep (RW))
397.802 EDMBPS (ElementData Megabyte per Second (RW))
SUM CLIENT SHUTDOWN HINT: 104771
SUM CLIENT SHUTDOWN HINT DIV TIME: 0
40886: CHANGING RESSOURCES
40888: CHANGING RESSOURCES
40890: CHANGING RESSOURCES
40882: CHANGING RESSOURCES

 + Terminating after 1000 timesteps with equal number of triangles -> EXIT
 + Final timestep: 59579

59580 TS (Timesteps)
3022.12 ST (SIMULATION_TIME)
0.0500175 TSS (Timestep size)
1608.38 SFS (Overall seconds for Simulation)
20954211547 TP (Triangles processed)
0.0269952 ASPT (Averaged Seconds per Timestep)
351699 TPST (Triangles Processed in Average per Simulation Timestep)
95.0841 PPST (Clusters Processed in Average per Simulation Timestep)
13.0282 MTPS (Million Triangles per Second)
-13.0282 MTPSPT (Million Triangles per Second per Thread)
10.733 EDMBPT (ElementData Megabyte per Timestep (RW))
397.588 EDMBPS (ElementData Megabyte per Second (RW))
SUM CLIENT SHUTDOWN HINT: 125725
SUM CLIENT SHUTDOWN HINT DIV TIME: 0
40882: CHANGING RESSOURCES
40888: CHANGING RESSOURCES
40890: CHANGING RESSOURCES

 + Terminating after 1000 timesteps with equal number of triangles -> EXIT
 + Final timestep: 59579

59580 TS (Timesteps)
3022.12 ST (SIMULATION_TIME)
0.0500175 TSS (Timestep size)
1610.36 SFS (Overall seconds for Simulation)
20954211547 TP (Triangles processed)
0.0270285 ASPT (Averaged Seconds per Timestep)
351699 TPST (Triangles Processed in Average per Simulation Timestep)
95.0841 PPST (Clusters Processed in Average per Simulation Timestep)
13.0122 MTPS (Million Triangles per Second)
-13.0122 MTPSPT (Million Triangles per Second per Thread)
10.733 EDMBPT (ElementData Megabyte per Timestep (RW))
397.1 EDMBPS (ElementData Megabyte per Second (RW))
SUM CLIENT SHUTDOWN HINT: 146679
SUM CLIENT SHUTDOWN HINT DIV TIME: 0
40882: CHANGING RESSOURCES
40888: CHANGING RESSOURCES

 + Terminating after 1000 timesteps with equal number of triangles -> EXIT
 + Final timestep: 59579

59580 TS (Timesteps)
3022.12 ST (SIMULATION_TIME)
0.0500175 TSS (Timestep size)
1614.5 SFS (Overall seconds for Simulation)
20954211547 TP (Triangles processed)
0.027098 ASPT (Averaged Seconds per Timestep)
351699 TPST (Triangles Processed in Average per Simulation Timestep)
95.0841 PPST (Clusters Processed in Average per Simulation Timestep)
12.9788 MTPS (Million Triangles per Second)
-12.9788 MTPSPT (Million Triangles per Second per Thread)
10.733 EDMBPT (ElementData Megabyte per Timestep (RW))
396.08 EDMBPS (ElementData Megabyte per Second (RW))
SUM CLIENT SHUTDOWN HINT: 167634
SUM CLIENT SHUTDOWN HINT DIV TIME: 0
40882: CHANGING RESSOURCES

 + Terminating after 1000 timesteps with equal number of triangles -> EXIT
 + Final timestep: 59579

59580 TS (Timesteps)
3022.12 ST (SIMULATION_TIME)
0.0500175 TSS (Timestep size)
1620.76 SFS (Overall seconds for Simulation)
20954211547 TP (Triangles processed)
0.0272032 ASPT (Averaged Seconds per Timestep)
351699 TPST (Triangles Processed in Average per Simulation Timestep)
95.0841 PPST (Clusters Processed in Average per Simulation Timestep)
12.9286 MTPS (Million Triangles per Second)
-12.9286 MTPSPT (Million Triangles per Second per Thread)
10.733 EDMBPT (ElementData Megabyte per Timestep (RW))
394.55 EDMBPS (ElementData Megabyte per Second (RW))
SUM CLIENT SHUTDOWN HINT: 188588
SUM CLIENT SHUTDOWN HINT DIV TIME: 116.373
Waiting for job 40883
Waiting for job 40884
Waiting for job 40885
Waiting for job 40886
Waiting for job 40887
Waiting for job 40888
Waiting for job 40889
Waiting for job 40890
Sun Apr  1 20:02:43 CEST 2012
Seconds: 1621
