CPUS:  1 2 3 4 5 6 7 8 9 10 11 12
Problem size with different number of CPUs using function optimization

THREADS	INITIAL_DEPTH	MTPS	SPEEDUP_PER	TIMESTEPS	TIMESTEP_SIZE	AVERAGE_TRIANGLES	AVERAGE_PARTITIONS
1	12	4.30535	1.0000	12753	0.278857	66293.4	65.0031
2	12	8.45342	.9817	12753	0.278857	66293.4	65.0031
3	12	11.7774	.9118	12753	0.278857	66293.4	65.0031
4	12	14.7411	.8559	12753	0.278857	66293.4	65.0031
5	12	17.8677	.8300	12753	0.278857	66293.4	65.0031
6	12	20.7901	.8048	12753	0.278857	66293.4	65.0031
7	12	23.6069	.7833	12753	0.278857	66293.4	65.0031
8	12	26.1792	.7600	12753	0.278857	66293.4	65.0031
9	12	28.6096	.7383	12753	0.278857	66293.4	65.0031
10	12	30.8251	.7159	12753	0.278857	66293.4	65.0031
11	12	32.9996	.6967	12753	0.278857	66293.4	65.0031
12	12	34.559	.6689	12753	0.278857	66293.4	65.0031

THREADS	INITIAL_DEPTH	MTPS	SPEEDUP_PER	TIMESTEPS	TIMESTEP_SIZE	AVERAGE_TRIANGLES	AVERAGE_PARTITIONS
1	13	4.00472	1.0000	17919	0.197186	122848	86.3661
2	13	8.28556	1.0344	17919	0.197186	122848	86.3661
3	13	11.5805	.9639	17919	0.197186	122848	86.3661
4	13	14.8776	.9287	17919	0.197186	122848	86.3661
5	13	18.1375	.9058	17919	0.197186	122848	86.3661
6	13	21.2109	.8827	17919	0.197186	122848	86.3661
7	13	24.1673	.8621	17919	0.197186	122848	86.3661
8	13	26.8736	.8388	17919	0.197186	122848	86.3661
9	13	29.3402	.8140	17919	0.197186	122848	86.3661
10	13	31.8497	.7953	17919	0.197186	122848	86.3661
11	13	34.2188	.7767	17919	0.197186	122848	86.3661
12	13	35.9606	.7482	17919	0.197186	122848	86.3661

THREADS	INITIAL_DEPTH	MTPS	SPEEDUP_PER	TIMESTEPS	TIMESTEP_SIZE	AVERAGE_TRIANGLES	AVERAGE_PARTITIONS
1	14	3.99723	1.0000	25312	0.139428	238091	123.466
2	14	8.30594	1.0389	25312	0.139428	238091	123.466
3	14	11.6029	.9675	25312	0.139428	238091	123.466
4	14	15.3534	.9602	25312	0.139428	238091	123.466
5	14	18.4831	.9247	25312	0.139428	238091	123.466
6	14	21.8217	.9098	25312	0.139428	238091	123.466
7	14	24.5857	.8786	25312	0.139428	238091	123.466
8	14	27.3176	.8542	25312	0.139428	238091	123.466
9	14	29.5615	.8217	25312	0.139428	238091	123.466
10	14	31.9171	.7984	25312	0.139428	238091	123.466
11	14	34.2814	.7796	25312	0.139428	238091	123.466
12	14	36.92	.7696	25312	0.139428	238091	123.466

THREADS	INITIAL_DEPTH	MTPS	SPEEDUP_PER	TIMESTEPS	TIMESTEP_SIZE	AVERAGE_TRIANGLES	AVERAGE_PARTITIONS
1	15	4.14767	1.0000	35594	0.0985922	454542	155.909
2	15	7.99037	.9632	35594	0.0985922	454542	155.909
3	15	11.7591	.9450	35594	0.0985922	454542	155.909
4	15	15.182	.9150	35594	0.0985922	454542	155.909
5	15	18.5828	.8960	35594	0.0985922	454542	155.909
6	15	21.4385	.8614	35594	0.0985922	454542	155.909
7	15	24.0906	.8297	35594	0.0985922	454542	155.909
8	15	26.5437	.7999	35594	0.0985922	454542	155.909
9	15	28.6533	.7675	35594	0.0985922	454542	155.909
10	15	30.6535	.7390	35594	0.0985922	454542	155.909
11	15	34.0898	.7471	35594	0.0985922	454542	155.909
12	15	33.6666	.6764	35594	0.0985922	454542	155.909

THREADS	INITIAL_DEPTH	MTPS	SPEEDUP_PER	TIMESTEPS	TIMESTEP_SIZE	AVERAGE_TRIANGLES	AVERAGE_PARTITIONS
1	16	4.28478	1.0000	50210	0.069714	844746	238.851
2	16	8.20169	.9570	50210	0.069714	844746	238.851
3	16	12.1134	.9423	50210	0.069714	844746	238.851
4	16	15.6662	.9140	50210	0.069714	844746	238.851
5	16	19.1238	.8926	50210	0.069714	844746	238.851
6	16	22.0011	.8557	50210	0.069714	844746	238.851
7	16	24.625	.8210	50210	0.069714	844746	238.851
8	16	26.973	.7868	50210	0.069714	844746	238.851
9	16	29.0464	.7532	50210	0.069714	844746	238.851
10	16	31.0665	.7250	50210	0.069714	844746	238.851
11	16	32.4561	.6886	50210	0.069714	844746	238.851
12	16	33.8733	.6587	50210	0.069714	844746	238.851

THREADS	INITIAL_DEPTH	MTPS	SPEEDUP_PER	TIMESTEPS	TIMESTEP_SIZE	AVERAGE_TRIANGLES	AVERAGE_PARTITIONS
