0	0
11.0308	0
22.0616	0
33.0924	0
40.4463	0
51.4771	0
62.5079	0
73.5387	0
80.8926	0
91.9234	0
102.954	0
110.308	0
121.339	0
132.37	0
143.401	0
150.754	0
161.785	0
172.816	0
180.17	0
191.201	0
202.231	0
213.262	0
220.616	0
231.647	0
242.678	0
250.032	0
261.062	0
272.093	0
283.124	0
290.478	0
301.509	0
312.54	0
323.57	0
330.924	0
341.955	0
352.986	0
360.34	0
371.371	0
382.401	0
393.432	0
400.786	0
411.817	0
422.848	0
430.202	0
441.232	0
452.263	0
463.294	0
470.648	0
481.679	0
492.709	0
500.063	0
511.094	0
522.125	0
533.156	0
540.51	0
551.54	0
562.571	0
573.602	0
580.956	0
591.987	0
603.018	0
610.371	0
621.402	0
632.433	0
643.464	0
650.818	0
661.849	0
672.879	0
680.233	0
691.264	0
702.295	0
713.326	0
720.68	0
731.71	0
742.741	0
750.095	0
761.126	0
772.157	0
783.187	0
790.541	0
801.572	0
812.603	0
823.634	0
830.988	0
842.018	0
853.049	0
860.403	0
871.434	0
882.465	0
893.496	0
900.849	0
911.88	0
922.911	0
930.265	0
941.296	0
952.327	0
963.357	0
970.711	0
981.742	0
992.773	0
1000.13	0
1011.16	0
1022.19	0
1033.22	0
1040.57	0
1051.6	0
1062.63	0
1073.67	0
1081.02	0
1092.05	0
1103.08	0
1110.43	0
1121.47	0
1132.5	0
1143.53	0
1150.88	0
1161.91	0
1172.94	0
1180.3	0
1191.33	0
1202.36	0
1213.39	0
1220.74	0
1231.77	0
1242.8	0
1250.16	0
1261.19	0
1272.22	0
1283.25	0
1290.6	0
1301.64	0
1312.67	0
1320.02	0
1331.05	0
1342.08	0
1353.11	0
1360.47	0
1371.5	0
1382.53	0
1393.56	0
1400.91	0
1411.94	0
1422.97	0
1430.33	0
1441.36	0
1452.39	0
1463.42	0
1470.77	0
1481.81	0
1492.84	0
1500.19	0
1511.22	0
1522.25	0
1533.28	0
1540.64	0
1551.67	0
1562.7	0
1570.05	0
1581.08	0
1592.11	0
1603.14	0
1610.5	0
1621.53	0
1632.56	0
1643.59	0
1650.94	0
1661.98	0
1673.01	0
1680.36	0
1691.39	0
1702.42	0
1713.45	0
1720.81	0
1731.84	0
1742.87	0
1750.22	0
1761.25	0
1772.28	0
1783.31	0
1790.67	0
1801.7	0
1812.73	0
1820.08	0
1831.11	0
1842.15	0
1853.18	0
1860.53	0
1871.56	0
1882.59	0
1893.62	0
1900.98	0
1912.01	0
1923.04	0
1930.39	0
1941.42	0
1952.45	0
1963.48	0
1970.84	0
1981.87	0
1992.9	0
2000.25	0
2011.28	0
2022.31	0
2033.35	0
2040.7	0
2051.73	0
2062.76	0
2070.12	0
2081.15	0
2092.18	0
2103.21	0
2110.56	0
2121.59	0
2132.62	0
2143.65	0
2151.01	0
2162.04	0
2173.07	0
2180.42	0
2191.45	0
2202.48	0
2213.52	0
2220.87	0
2231.9	0
2242.93	0
2250.28	0
2261.32	0
2272.35	0
2283.38	0
2290.73	0
2301.76	0
2312.79	0
2320.15	0
2331.18	0
2342.21	0
2353.24	0
2360.59	0
2371.62	0
2382.65	0
2390.01	0
2401.04	0
2412.07	0
2423.1	0
2430.45	0
2441.49	0
2452.52	0
2463.55	0
2470.9	0
2481.93	0
2492.96	0
2500.32	0
2511.35	0
2522.38	0
2533.41	0
2540.76	0
2551.79	0
2562.82	0
2570.18	0
2581.21	0
2592.24	0
2603.27	0
2610.62	0
2621.66	0
2632.69	0
2640.04	0
2651.07	0
2662.1	0
2673.13	0
2680.49	0
2691.52	0
2702.55	0
2713.58	0
2720.93	0
2731.96	0
2742.99	0
2750.35	0
2761.38	0
2772.41	0
2783.44	0
2790.79	0
2801.83	0
2812.86	0
2820.21	0
2831.24	0
2842.27	0
2853.3	0
2860.66	0
2871.69	0
2882.72	0
2890.07	0
2901.1	0
2912.13	0
2923.16	0
2930.52	0
2941.55	0
2952.58	0
2963.61	0
2970.96	0
2981.99	0
2993.02	0
3000.38	0
3011.41	0
3022.44	0
3033.47	0
3040.82	0
3051.86	0
3062.89	0
3070.24	0
3081.27	0
3092.3	0
3103.33	0
3110.69	0
3121.72	0
3132.75	0
3140.1	0
3151.13	0
3162.16	0
3173.19	0
3180.55	0
3191.58	-9.09495e-13
3202.61	-2.72848e-12
3213.64	-6.36646e-12
3220.99	-1.00044e-11
3232.02	-1.81899e-11
3243.05	-3.18323e-11
3250.41	-4.72937e-11
3261.44	-8.36735e-11
3272.47	-1.48248e-10
3283.5	-2.57387e-10
3290.85	-3.69255e-10
3301.88	-6.28461e-10
3312.91	-1.05592e-09
3320.27	-1.48248e-09
3331.3	-2.43654e-09
3342.33	-3.95903e-09
3353.36	-6.35555e-09
3360.71	-8.65566e-09
3371.74	-1.36242e-08
3382.77	-2.11967e-08
3390.13	-2.82807e-08
3401.16	-4.31783e-08
3412.19	-6.5198e-08
3423.22	-9.73841e-08
3430.57	-1.26496e-07
3441.6	-1.85632e-07
3452.63	-2.69603e-07
3463.66	-3.87594e-07
3471.02	-4.90979e-07
3482.05	-6.94266e-07
3493.08	-9.72261e-07
3500.43	-1.21057e-06
3511.46	-1.66883e-06
3522.49	-2.27952e-06
3533.52	-3.08575e-06
3540.88	-3.75754e-06
3551.91	-5.01275e-06
3562.94	-6.63054e-06
3570.29	-7.9527e-06
3581.32	-1.03753e-05
3592.35	-1.34277e-05
3603.38	-1.72424e-05
3610.73	-2.02836e-05
3621.77	-2.57187e-05
3632.8	-3.23718e-05
3640.15	-3.7588e-05
3651.18	-4.67562e-05
3662.21	-5.77647e-05
3673.24	-7.08927e-05
3680.59	-8.09715e-05
3691.62	-9.83213e-05
3702.65	-0.000118659
3710.01	-0.000134059
3721.04	-0.000160211
3732.07	-0.000190392
3743.1	-0.000225031
3750.45	-0.000250823
3761.48	-0.000293906
3772.51	-0.000342694
3783.54	-0.000397685
3790.9	-0.000438047
3801.93	-0.000504529
3812.96	-0.00057862
3820.31	-0.000632513
3831.34	-0.000720515
3842.37	-0.00081762
3853.4	-0.000924407
3860.76	-0.00100127
3871.79	-0.0011255
3882.82	-0.001261
3890.17	-0.00135789
3901.2	-0.0015135
3912.23	-0.001682
3923.26	-0.00186397
3930.61	-0.00199307
3941.64	-0.00219883
3952.68	-0.00241964
3960.03	-0.00257548
3971.06	-0.00282261
3982.09	-0.00308624
3993.12	-0.00336685
4000.47	-0.00356359
4011.5	-0.0038735
4022.53	-0.00420152
4033.57	-0.00454795
4040.92	-0.00478927
4051.95	-0.00516697
4062.98	-0.00556365
4070.33	-0.00583869
4081.36	-0.00626714
4092.39	-0.00671458
4103.43	-0.00718087
4110.78	-0.00750208
4121.81	-0.00799915
4132.84	-0.00851413
4140.19	-0.00886712
4151.22	-0.00941062
4162.26	-0.00997021
4173.29	-0.0105449
4180.64	-0.0109359
4191.67	-0.0115332
4202.7	-0.0121421
4210.05	-0.0125537
4221.09	-0.013178
4232.12	-0.0138087
4243.15	-0.0144433
4250.5	-0.0148672
4261.53	-0.0155017
4272.56	-0.0161315
4283.59	-0.0167525
4290.95	-0.0171594
4301.98	-0.0177553
4313.01	-0.0183288
4320.36	-0.0186957
4331.39	-0.0192176
4342.42	-0.0196987
4353.45	-0.0201306
4360.81	-0.0203866
4371.84	-0.0207153
4382.87	-0.0209679
4390.22	-0.0210881
4401.25	-0.0211865
4412.29	-0.0211744
4423.32	-0.0210366
4430.67	-0.0208671
4441.7	-0.0204834
4452.73	-0.0199283
4460.09	-0.0194534
4471.12	-0.018569
4482.15	-0.0174591
4493.18	-0.0161016
4500.53	-0.0150477
4511.56	-0.0132261
4522.59	-0.0110942
4533.62	-0.00862761
4540.98	-0.00678529
4552.01	-0.00370693
4563.04	-0.000229591
4570.39	0.00232171
4581.42	0.00651464
4592.45	0.0111652
4603.48	0.0162925
4610.84	0.0199841
4621.87	0.0259423
4632.9	0.0324165
4640.25	0.0370241
4651.28	0.0443771
4662.31	0.052263
4673.35	0.0606811
4680.7	0.0665867
4691.73	0.0758793
4702.76	0.0856821
4710.11	0.092493
4721.14	0.103108
4732.18	0.114181
4743.21	0.125685
4750.56	0.133578
4761.59	0.145728
4772.62	0.158217
4783.65	0.171005
4791.01	0.179675
4802.04	0.192863
4813.07	0.20623
4820.42	0.215215
4831.45	0.228766
4842.48	0.24236
4853.51	0.255943
4860.87	0.264965
4871.9	0.278408
4882.93	0.291694
4890.28	0.300436
4901.31	0.313335
4912.34	0.325929
4923.37	0.33816
4930.73	0.346087
4941.76	0.357594
4952.79	0.368594
4960.14	0.375619
4971.17	0.385655
4982.21	0.395044
4993.24	0.403738
5000.59	0.409122
5011.62	0.416549
5022.65	0.423155
5030.01	0.427084
5041.04	0.432233
5052.07	0.436459
5063.1	0.439728
5070.45	0.441362
5081.48	0.442975
5092.51	0.443566
5103.54	0.443118
5110.9	0.442237
5121.93	0.440037
5132.96	0.436783
5140.31	0.43403
5151.34	0.429033
5162.37	0.423009
5173.41	0.415978
5180.76	0.410744
5191.79	0.402098
5202.82	0.392531
5210.17	0.38566
5221.21	0.374651
5232.24	0.362841
5243.27	0.350282
5250.62	0.341522
5261.65	0.327844
5272.68	0.313572
5280.04	0.303758
5291.07	0.288635
5302.1	0.273083
5313.13	0.257164
5320.48	0.246377
5331.51	0.229978
5342.54	0.213367
5353.57	0.196598
5360.93	0.185356
5371.96	0.168434
5382.99	0.151482
5390.34	0.140184
5401.37	0.123271
5412.4	0.106428
5423.44	0.0896883
5430.79	0.0785997
5441.82	0.062093
5452.85	0.0457593
5460.2	0.0349772
5471.24	0.0189802
5482.27	0.00321246
5493.3	-0.0123063
5500.65	-0.022504
5511.68	-0.0375633
5522.71	-0.052319
5530.07	-0.0619763
5541.1	-0.0761746
5552.13	-0.0900043
5563.16	-0.103437
5570.51	-0.112157
5581.54	-0.124858
5592.57	-0.137075
5603.6	-0.148771
5610.96	-0.15626
5621.99	-0.167
5633.02	-0.177113
5640.37	-0.183486
5651.4	-0.192461
5662.43	-0.200699
5673.47	-0.208162
5680.82	-0.212688
5691.85	-0.218778
5702.88	-0.224003
5710.23	-0.226991
5721.27	-0.230716
5732.3	-0.233517
5743.33	-0.235382
5750.68	-0.236103
5761.71	-0.236403
5772.74	-0.235771
5780.1	-0.234839
5791.13	-0.232693
5802.16	-0.229672
5813.19	-0.225812
5820.54	-0.222793
5831.57	-0.217632
5842.6	-0.211757
5853.63	-0.205229
5860.99	-0.200544
5872.02	-0.193066
5883.05	-0.185112
5890.4	-0.179579
5901.43	-0.170989
5912.46	-0.162118
5923.5	-0.153041
5930.85	-0.146911
5941.88	-0.137653
5952.91	-0.128384
5960.26	-0.122231
5971.3	-0.113093
5982.33	-0.10412
5993.36	-0.0953698
6000.71	-0.0896877
6011.74	-0.0814286
6022.77	-0.0735271
6030.13	-0.0684785
6041.16	-0.061261
6052.19	-0.0544981
6063.22	-0.0482161
6070.57	-0.0443059
6081.6	-0.0388699
6092.63	-0.0339597
6103.66	-0.0295832
6111.02	-0.0269637
6122.05	-0.0234813
6133.08	-0.0205313
6140.43	-0.0188566
6151.46	-0.0167746
6162.5	-0.0151961
6173.53	-0.0141042
6180.88	-0.013637
6191.91	-0.0133111
6202.94	-0.0134137
6210.3	-0.0137076
6221.33	-0.0144662
6232.36	-0.0155806
6243.39	-0.0170205
6250.74	-0.018146
6261.77	-0.0200589
6272.8	-0.0222125
6280.16	-0.0237658
6291.19	-0.0262476
6302.22	-0.0288826
6313.25	-0.0316381
6320.6	-0.0335262
6331.63	-0.0364122
6342.66	-0.0393356
6350.02	-0.0412911
6361.05	-0.0442133
6372.08	-0.0470991
6383.11	-0.0499241
6390.46	-0.0517625
6401.5	-0.0544374
6412.53	-0.0569968
6423.56	-0.0594246
6430.91	-0.0609631
6441.94	-0.0631425
6452.97	-0.0651596
6460.33	-0.0664107
6471.36	-0.0681435
6482.39	-0.0697014
6493.42	-0.0710839
6500.77	-0.071909
6511.8	-0.0730043
6522.83	-0.0739332
6530.19	-0.0744633
6541.22	-0.0751305
6552.25	-0.0756519
6563.28	-0.0760374
6570.63	-0.076224
6581.66	-0.0764066
6592.7	-0.0764822
6600.05	-0.0764787
6611.08	-0.0764011
6622.11	-0.0762461
6633.14	-0.0760242
6640.5	-0.0758439
6651.53	-0.0755318
6662.56	-0.075177
6673.59	-0.0747869
6680.94	-0.0745104
6691.97	-0.0740751
6703	-0.073619
6710.36	-0.0733052
6721.39	-0.0728215
6732.42	-0.0723238
6743.45	-0.0718127
6750.8	-0.0714644
6761.83	-0.0709298
6772.86	-0.0703793
6780.22	-0.0700023
6791.25	-0.0694198
6802.28	-0.0688141
6813.31	-0.0681818
6820.66	-0.0677436
6831.7	-0.0670588
6842.73	-0.0663373
6850.08	-0.0658343
6861.11	-0.0650439
6872.14	-0.0642077
6883.17	-0.0633227
6890.53	-0.0627043
6901.56	-0.0617327
6912.59	-0.0607067
6923.62	-0.0596251
6930.97	-0.0588729
6942	-0.0576979
6953.03	-0.0564673
6960.39	-0.0556166
6971.42	-0.0542961
6982.45	-0.0529244
6993.48	-0.051504
7000.83	-0.0505317
7011.86	-0.0490378
7022.9	-0.0475049
7030.25	-0.0464636
7041.28	-0.0448757
7052.31	-0.0432615
7063.34	-0.0416259
7070.7	-0.0405264
7081.73	-0.0388673
7092.76	-0.0372015
7100.11	-0.0360899
7111.14	-0.0344249
7122.17	-0.0327677
7133.2	-0.0311232
7140.56	-0.0300365
7151.59	-0.0284243
7162.62	-0.0268374
7173.65	-0.02528
7181	-0.02426
7192.03	-0.0227597
7203.06	-0.0212978
7210.42	-0.0203457
7221.45	-0.0189532
7232.48	-0.0176046
7243.51	-0.0163014
7250.86	-0.0154582
7261.89	-0.0142321
7272.93	-0.0130524
7280.28	-0.0122915
7291.31	-0.0111881
7302.34	-0.0101291
7313.37	-0.00911317
7320.73	-0.008459
7331.76	-0.00751098
7342.79	-0.00660092
7350.14	-0.00601418
7361.17	-0.00516219
7372.2	-0.0043417
7383.23	-0.00355014
7390.59	-0.00303722
7401.62	-0.00228811
7412.65	-0.00156108
7420	-0.00108747
7431.03	-0.000391984
7442.06	0.000287492
7453.09	0.000952882
7460.45	0.00138949
7471.48	0.00203502
7482.51	0.00267034
7493.54	0.00329638
7500.89	0.00370889
7511.92	0.00432064
7522.95	0.00492397
7530.31	0.0053214
7541.34	0.00590995
7552.37	0.00648864
7563.4	0.00705637
7570.75	0.00742807
7581.79	0.00797427
7592.82	0.0085052
7600.17	0.00884967
7611.2	0.00935053
7622.23	0.00983029
7633.26	0.0102865
7640.62	0.0105763
7651.65	0.0109876
7662.68	0.0113685
7670.03	0.0116043
7681.06	0.0119288
7692.09	0.0122162
7703.12	0.012464
7710.48	0.0126061
7721.51	0.0127832
7732.54	0.0129152
7743.57	0.0130005
7750.92	0.0130307
7761.95	0.0130349
7772.98	0.0129891
7780.34	0.0129304
7791.37	0.0127996
7802.4	0.0126173
7813.43	0.0123835
7820.78	0.0121992
7831.81	0.0118803
7842.84	0.0115111
7850.2	0.0112376
7861.23	0.0107869
7872.26	0.0102888
7883.29	0.00974491
7890.64	0.00935762
7901.67	0.00874096
7912.71	0.00808307
7920.06	0.00762252
7931.09	0.00690024
7942.12	0.00614204
7953.15	0.00535002
7960.51	0.00480425
7971.54	0.00396053
7982.57	0.00308857
7993.6	0.00219046
8000.95	0.00157818
8011.98	0.000640933
8023.01	-0.000317193
8030.37	-0.000966615
8041.4	-0.0019554
8052.43	-0.00296021
8063.46	-0.00397933
8070.81	-0.00466589
8081.84	-0.00570525
8092.87	-0.00675469
8100.23	-0.00745916
8111.26	-0.00852207
8122.29	-0.00959115
8133.32	-0.010665
8140.67	-0.0113829
8151.7	-0.0124617
8162.74	-0.0135416
8170.09	-0.0142615
8181.12	-0.0153404
8192.15	-0.0164169
8203.18	-0.0174896
8210.54	-0.0182021
8221.57	-0.0192657
8232.6	-0.0203221
8243.63	-0.0213699
8250.98	-0.022063
8262.01	-0.0230936
8273.04	-0.0241123
8280.4	-0.024784
8291.43	-0.0257798
8302.46	-0.0267603
8313.49	-0.0277244
8320.84	-0.0283573
8331.87	-0.0292914
8342.9	-0.0302061
8350.26	-0.0308047
8361.29	-0.0316849
8372.32	-0.0325431
8383.35	-0.0333786
8390.7	-0.0339226
8401.74	-0.0347183
8412.77	-0.0354891
8420.12	-0.0359888
8431.15	-0.0367166
8442.18	-0.0374176
8453.21	-0.0380912
8460.57	-0.0385247
8471.6	-0.0391509
8482.63	-0.0397479
8493.66	-0.0403147
8501.01	-0.0406754
8512.04	-0.04119
8523.07	-0.0416722
8530.43	-0.0419751
8541.46	-0.0424008
8552.49	-0.042791
8563.52	-0.0431444
8570.87	-0.043359
8581.9	-0.0436481
8592.94	-0.0438965
8600.29	-0.0440386
8611.32	-0.0442155
8622.35	-0.044347
8633.38	-0.0444312
8640.74	-0.0444602
8651.77	-0.0444614
8662.8	-0.04441
8670.15	-0.0443455
8681.18	-0.0442018
8692.21	-0.0440001
8703.24	-0.0437383
8710.6	-0.0435295
8721.63	-0.0431632
8732.66	-0.0427318
8740.01	-0.0424071
8751.04	-0.0418635
8762.07	-0.0412505
8773.11	-0.0405669
8780.46	-0.0400714
8791.49	-0.039268
8802.52	-0.0383917
8813.55	-0.0374421
8820.91	-0.0367682
8831.94	-0.0356962
8842.97	-0.0345511
8850.32	-0.0337473
8861.35	-0.0324818
8872.38	-0.0311455
8883.41	-0.0297396
8890.77	-0.0287646
8901.8	-0.0272469
8912.83	-0.0256647
8920.18	-0.0245754
8931.21	-0.0228915
8942.24	-0.0211503
8953.27	-0.0193549
8960.63	-0.0181295
8971.66	-0.0162513
8982.69	-0.0143282
8990.04	-0.0130232
9001.07	-0.011034
9012.11	-0.00901057
9023.14	-0.00695711
9030.49	-0.00557359
9041.52	-0.00347974
9052.55	-0.00136756
9063.58	0.000758453
9070.94	0.00218126
9081.97	0.00432031
9093	0.00646118
9100.35	0.00788721
9111.38	0.0100212
9122.41	0.0121451
9133.44	0.0142547
9140.8	0.0156511
9151.83	0.0177275
9162.86	0.0197786
9170.21	0.02113
9181.24	0.0231302
9192.27	0.0250951
9203.31	0.0270209
9210.66	0.0282816
9221.69	0.0301352
9232.72	0.0319414
9240.07	0.0331178
9251.11	0.0348386
9262.14	0.0365047
9273.17	0.0381138
9280.52	0.0391538
9291.55	0.0406631
9302.58	0.04211
9313.61	0.043493
9320.97	0.0443786
9332	0.0456517
9343.03	0.0468573
9350.38	0.0476231
9361.41	0.0487142
9372.44	0.0497357
9383.47	0.0506871
9390.83	0.0512823
9401.86	0.0521163
9412.89	0.0528797
9420.24	0.0533494
9431.27	0.0539955
9442.31	0.0545716
9453.34	0.0550782
9460.69	0.0553777
9471.72	0.0557699
9482.75	0.0560946
9490.11	0.0562739
9501.14	0.0564881
9512.17	0.0566375
9523.2	0.0567233
9530.55	0.0567458
9541.58	0.0567287
9552.61	0.0566517
9563.64	0.0565166
9571	0.056395
9582.03	0.0561667
9593.06	0.0558849
9600.41	0.0556683
9611.44	0.0553016
9622.48	0.0548868
9633.51	0.0544259
9640.86	0.0540941
9651.89	0.0535614
9662.92	0.0529886
9670.28	0.0525856
9681.31	0.0519514
9692.34	0.0512835
9703.37	0.0505844
9710.72	0.0501023
9721.75	0.0493569
9732.78	0.0485871
9740.14	0.0480616
9751.17	0.0472567
9762.2	0.0464341
9773.23	0.0455962
9780.58	0.0450304
9791.61	0.0441726
9802.64	0.0433059
9813.68	0.0424325
9821.03	0.0418477
9832.06	0.040968
9843.09	0.0400873
9850.44	0.0395004
9861.48	0.0386217
9872.51	0.0377466
9883.54	0.0368763
9890.89	0.0362996
9901.92	0.0354403
9912.95	0.0345891
9920.31	0.0340265
9931.34	0.0331904
9942.37	0.0323642
9953.4	0.0315482
9960.75	0.0310099
9971.78	0.0302113
9982.81	0.0294231
9990.17	0.0289033
10001.2	0.0281317
10012.2	0.0273696
10023.3	0.0266163
10030.6	0.0261186
10041.6	0.0253783
10052.7	0.0246446
10060	0.0241586
10071.1	0.0234336
10082.1	0.0227125
10093.1	0.021994
10100.5	0.0215158
10111.5	0.0207991
10122.5	0.0200817
10133.6	0.0193626
10140.9	0.0188816
10152	0.0181568
10163	0.0174271
10170.3	0.0169374
10181.4	0.0161971
10192.4	0.015449
10203.4	0.0146923
10210.8	0.0141825
10221.8	0.0134093
10232.8	0.0126253
10240.2	0.0120962
10251.2	0.0112927
10262.3	0.0104767
10273.3	0.00964792
10280.6	0.00908808
10291.7	0.00823719
10302.7	0.00737279
10310.1	0.00678898
10321.1	0.00590194
10332.1	0.00500138
10343.2	0.00408747
10350.5	0.0034709
10361.5	0.00253535
10372.6	0.00158732
10383.6	0.000627313
10391	-1.90682e-05
10402	-0.000997722
10413	-0.00198663
10420.4	-0.00265121
10431.4	-0.00365538
10442.4	-0.00466749
10453.5	-0.00568651
10460.8	-0.00636915
10471.8	-0.00739722
10482.9	-0.00842911
10490.2	-0.00911852
10501.3	-0.0101539
10512.3	-0.0111895
10523.3	-0.0122238
10530.7	-0.0129119
10541.7	-0.0139408
10552.7	-0.0149643
10560.1	-0.0156428
10571.1	-0.0166537
10582.2	-0.0176548
10593.2	-0.0186444
10600.5	-0.0192969
10611.6	-0.0202636
10622.6	-0.0212144
10633.6	-0.0221476
10641	-0.0227591
10652	-0.0236595
10663	-0.0245381
10670.4	-0.0251112
10681.4	-0.0259506
10692.5	-0.0267647
10703.5	-0.0275525
10710.8	-0.0280625
10721.9	-0.0288041
10732.9	-0.0295169
10740.3	-0.0299758
10751.3	-0.0306393
10762.3	-0.0312727
10773.4	-0.0318758
10780.7	-0.0322611
10791.7	-0.0328138
10802.8	-0.0333367
10810.1	-0.0336689
10821.2	-0.0341432
10832.2	-0.0345892
10843.2	-0.0350081
10850.6	-0.0352727
10861.6	-0.0356488
10872.6	-0.036001
10883.7	-0.036331
10891	-0.0365394
10902	-0.0368359
10913.1	-0.037115
10920.4	-0.0372922
10931.5	-0.0375464
10942.5	-0.0377884
10953.5	-0.0380205
10960.9	-0.0381708
10971.9	-0.0383911
10982.9	-0.0386074
10990.3	-0.0387503
11001.3	-0.0389646
11012.4	-0.0391805
11023.4	-0.0394002
11030.7	-0.0395498
11041.8	-0.0397802
11052.8	-0.0400195
11060.2	-0.0401848
11071.2	-0.0404428
11082.2	-0.0407141
11093.2	-0.0410001
11100.6	-0.0411995
11111.6	-0.0415126
11122.7	-0.0418433
11130	-0.042074
11141	-0.0424358
11152.1	-0.042817
11163.1	-0.0432179
11170.5	-0.0434962
11181.5	-0.0439303
11192.5	-0.0443841
11203.6	-0.0448574
11210.9	-0.0451836
11221.9	-0.0456884
11233	-0.0462111
11240.3	-0.0465692
11251.4	-0.04712
11262.4	-0.0476863
11273.4	-0.0482669
11280.8	-0.0486613
11291.8	-0.049263
11302.8	-0.0498755
11310.2	-0.0502891
11321.2	-0.0509165
11332.2	-0.0515507
11343.3	-0.0521903
11350.6	-0.0526189
11361.7	-0.0532639
11372.7	-0.0539102
11380	-0.0543411
11391.1	-0.0549862
11402.1	-0.0556286
11413.1	-0.0562669
11420.5	-0.0566895
11431.5	-0.0573182
11442.6	-0.0579395
11453.6	-0.0585523
11460.9	-0.0589556
11472	-0.0595521
11483	-0.0601375
11490.4	-0.0605213
11501.4	-0.0610868
11512.4	-0.0616394
11523.4	-0.0621788
11530.8	-0.0625308
11541.8	-0.0630471
11552.9	-0.0635491
11560.2	-0.0638758
11571.2	-0.0643536
11582.3	-0.0648167
11593.3	-0.065265
11600.7	-0.0655557
11611.7	-0.0659793
11622.7	-0.066388
11630.1	-0.0666523
11641.1	-0.0670362
11652.1	-0.0674053
11663.2	-0.0677593
11670.5	-0.067987
11681.6	-0.0683158
11692.6	-0.0686293
11703.6	-0.0689271
11711	-0.0691169
11722	-0.0693879
11733	-0.0696423
11740.4	-0.0698023
11751.4	-0.0700276
11762.4	-0.0702346
11773.5	-0.0704224
11780.8	-0.0705366
11791.9	-0.0706907
11802.9	-0.0708232
11810.2	-0.070899
11821.3	-0.0709931
11832.3	-0.0710626
11843.3	-0.0711064
11850.7	-0.0711207
11861.7	-0.0711188
11872.8	-0.0710878
11880.1	-0.0710503
11891.1	-0.070968
11902.2	-0.0708534
11913.2	-0.0707051
11920.6	-0.0705871
11931.6	-0.0703805
11942.6	-0.0701376
11953.6	-0.0698575
11961	-0.0696497
11972	-0.069306
11983.1	-0.0689234
11990.4	-0.0686465
12001.4	-0.0681982
12012.5	-0.0677103
12023.5	-0.0671829
12030.9	-0.0668095
12041.9	-0.0662167
12052.9	-0.0655854
12060.3	-0.0651434
12071.3	-0.0644493
12082.3	-0.0637188
12093.4	-0.0629531
12100.7	-0.0624236
12111.8	-0.0616019
12122.8	-0.0607486
12130.1	-0.060163
12141.2	-0.0592608
12152.2	-0.0583315
12163.2	-0.0573771
12170.6	-0.0567278
12181.6	-0.0557358
12192.6	-0.054724
12203.7	-0.0536944
12211	-0.052999
12222.1	-0.0519442
12233.1	-0.050877
12240.4	-0.0501595
12251.5	-0.0490758
12262.5	-0.0479847
12273.5	-0.0468878
12280.9	-0.0461543
12291.9	-0.0450515
12302.9	-0.0439471
12310.3	-0.0432105
12321.3	-0.0421061
12332.4	-0.0410031
12343.4	-0.0399023
12350.7	-0.0391701
12361.8	-0.0380745
12372.8	-0.0369827
12380.2	-0.036257
12391.2	-0.0351718
12402.2	-0.0340906
12413.3	-0.0330131
12420.6	-0.0322967
12431.6	-0.0312247
12442.7	-0.0301551
12450	-0.0294431
12461.1	-0.028376
12472.1	-0.0273092
12483.1	-0.0262417
12490.5	-0.0255291
12501.5	-0.0244578
12512.5	-0.0233827
12523.6	-0.0223025
12530.9	-0.0215788
12541.9	-0.0204871
12553	-0.0193867
12560.3	-0.0186477
12571.4	-0.01753
12582.4	-0.0164001
12593.4	-0.0152569
12600.8	-0.0144867
12611.8	-0.0133186
12622.8	-0.012134
12630.2	-0.0113347
12641.2	-0.0101206
12652.3	-0.00888771
12663.3	-0.00763527
12670.6	-0.00678915
12681.7	-0.00550285
12692.7	-0.00419568
12700.1	-0.0033125
12711.1	-0.00197002
12722.1	-0.000606269
12733.2	0.000778658
12740.5	0.00171359
12751.5	0.00313321
12762.6	0.00457306
12773.6	0.00603253
12781	0.00701606
12792	0.00850653
12803	0.0100144
12810.4	0.0110287
12821.4	0.012563
12832.4	0.0141116
12843.5	0.015673
12850.8	0.0167203
12861.8	0.0182997
12872.9	0.0198879
12880.2	0.0209506
12891.3	0.0225494
12902.3	0.0241521
12913.3	0.0257568
12920.7	0.0268268
12931.7	0.0284305
12942.7	0.030031
12950.1	0.0310952
12961.1	0.0326858
12972.2	0.0342676
12983.2	0.0358386
12990.5	0.0368789
13001.6	0.0384273
13012.6	0.0399593
13023.6	0.0414731
13031	0.0424712
13042	0.04395
13053	0.0454054
13060.4	0.0463618
13071.4	0.047774
13082.5	0.0491579
13093.5	0.050512
13100.8	0.0513973
13111.9	0.0526981
13122.9	0.0539649
13130.3	0.05479
13141.3	0.0559974
13152.3	0.0571676
13163.4	0.0582995
13170.7	0.0590324
13181.7	0.0600985
13192.8	0.0611241
13200.1	0.061785
13211.2	0.0627417
13222.2	0.0636565
13233.2	0.064529
13240.6	0.0650871
13251.6	0.0658889
13262.6	0.0666482
13273.7	0.0673652
13281	0.0678198
13292	0.0684668
13303.1	0.0690724
13310.4	0.0694534
13321.5	0.0699912
13332.5	0.0704893
13343.5	0.0709484
13350.9	0.0712333
13361.9	0.0716296
13372.9	0.0719894
13380.3	0.0722097
13391.3	0.0725114
13402.4	0.0727798
13413.4	0.0730162
13420.7	0.0731566
13431.8	0.0733425
13442.8	0.0734999
13450.2	0.0735896
13461.2	0.0737026
13472.2	0.0737908
13483.2	0.0738556
13490.6	0.0738865
13501.6	0.0739154
13512.7	0.0739246
13520	0.0739204
13531	0.0738996
13542.1	0.0738625
13553.1	0.0738103
13560.5	0.0737677
13571.5	0.0736928
13582.5	0.0736058
13593.6	0.0735075
13600.9	0.0734362
13611.9	0.0733211
13623	0.0731969
13630.3	0.0731093
13641.4	0.0729714
13652.4	0.0728259
13663.4	0.0726732
13670.8	0.0725676
13681.8	0.0724037
13692.8	0.0722332
13700.2	0.0721159
13711.2	0.0719347
13722.2	0.071747
13733.3	0.0715525
13740.6	0.0714191
13751.7	0.0712131
13762.7	0.0709996
13770	0.070853
13781.1	0.0706263
13792.1	0.0703911
13803.1	0.0701469
13810.5	0.0699788
13821.5	0.0697182
13832.6	0.0694472
13843.6	0.0691651
13850.9	0.0689706
13862	0.0686688
13873	0.0683543
13880.4	0.0681375
13891.4	0.067801
13902.4	0.0674505
13913.4	0.0670857
13920.8	0.0668344
13931.8	0.0664448
13942.9	0.0660399
13950.2	0.0657614
13961.2	0.0653306
13972.3	0.0648839
13983.3	0.0644214
13990.7	0.0641042
14001.7	0.0636152
14012.7	0.0631103
14020.1	0.062765
14031.1	0.0622342
14042.1	0.0616881
14053.2	0.061127
14060.5	0.0607447
14071.6	0.0601594
14082.6	0.05956
14093.6	0.0589471
14101	0.0585311
14112	0.0578966
14123	0.0572497
14130.4	0.0568119
14141.4	0.0561456
14152.4	0.0554682
14163.5	0.0547802
14170.8	0.0543159
14181.9	0.0536113
14192.9	0.0528972
14200.2	0.052416
14211.3	0.0516867
14222.3	0.0509488
14233.3	0.0502023
14240.7	0.0497
14251.7	0.0489396
14262.8	0.0481709
14270.1	0.0476538
14281.1	0.0468711
14292.2	0.0460797
14303.2	0.0452795
14310.6	0.044741
14321.6	0.0439253
14332.6	0.0430997
14343.6	0.0422637
14351	0.0417004
14362	0.0408458
14373.1	0.0399792
14380.4	0.0393944
14391.4	0.0385062
14402.5	0.0376038
14413.5	0.0366866
14420.9	0.0360665
14431.9	0.0351226
14442.9	0.0341615
14450.3	0.0335107
14461.3	0.032519
14472.3	0.0315076
14483.4	0.0304759
14490.7	0.0297762
14501.8	0.0287084
14512.8	0.027618
14520.1	0.0268781
14531.2	0.0257483
14542.2	0.0245939
14553.2	0.0234143
14560.6	0.0226136
14571.6	0.0213909
14582.6	0.0201416
14590	0.0192939
14601	0.0179998
14612.1	0.0166785
14623.1	0.0153298
14630.4	0.0144155
14641.5	0.0130212
14652.5	0.0115998
14663.5	0.0101513
14670.9	0.00917082
14681.9	0.00767814
14693	0.00615955
14700.3	0.00513305
14711.3	0.0035726
14722.4	0.001988
14733.4	0.00038007
14740.8	-0.000704387
14751.8	-0.00234909
14762.8	-0.00401445
14770.2	-0.0051356
14781.2	-0.00683278
14792.2	-0.00854733
14803.3	-0.0102779
14810.6	-0.0114397
14821.6	-0.0131936
14832.7	-0.0149595
14840	-0.0161425
14851.1	-0.0179244
14862.1	-0.0197137
14873.1	-0.0215085
14880.5	-0.0227071
14891.5	-0.0245068
14902.5	-0.0263066
14913.6	-0.0281046
14920.9	-0.0293012
14932	-0.0310913
14943	-0.0328737
14950.3	-0.0340566
14961.4	-0.035821
14972.4	-0.0375715
14983.4	-0.0393057
14990.8	-0.0404515
15001.8	-0.0421528
15012.8	-0.0438311
15020.2	-0.0449358
15031.2	-0.0465698
15042.3	-0.0481737
15053.3	-0.0497448
15060.6	-0.0507727
15071.7	-0.0522832
15082.7	-0.0537536
15090.1	-0.0547103
15101.1	-0.0561078
15112.1	-0.057458
15123.2	-0.058758
15130.5	-0.0595954
15141.5	-0.0608058
15152.6	-0.0619588
15163.6	-0.0630517
15171	-0.0637457
15182	-0.0647329
15193	-0.0656532
15200.4	-0.0662284
15211.4	-0.067032
15222.4	-0.0677626
15233.5	-0.068418
15240.8	-0.0688121
15251.8	-0.0693377
15262.9	-0.069783
15270.2	-0.0700344
15281.3	-0.0703423
15292.3	-0.0705659
15303.3	-0.0707041
15310.7	-0.0707482
15321.7	-0.0707418
15332.7	-0.0706478
15340.1	-0.0705362
15351.1	-0.0702954
15362.2	-0.0699664
15373.2	-0.0695494
15380.5	-0.0692227
15391.6	-0.0686603
15402.6	-0.0680117
15413.6	-0.0672782
15421	-0.0667426
15432	-0.0658707
15443	-0.0649181
15450.4	-0.0642393
15461.4	-0.0631572
15472.5	-0.0620006
15483.5	-0.0607725
15490.8	-0.0599154
15501.9	-0.0585747
15512.9	-0.0571711
15520.3	-0.0562021
15531.3	-0.0547018
15542.3	-0.0531486
15553.4	-0.0515469
15560.7	-0.0504542
15571.7	-0.0487814
15582.8	-0.047072
15590.1	-0.0459145
15601.2	-0.044155
15612.2	-0.042372
15623.2	-0.0405706
15630.6	-0.0393621
15641.6	-0.0375416
15652.6	-0.0357166
15663.7	-0.0338925
15671	-0.0326794
15682	-0.0308684
15693.1	-0.0290723
15700.4	-0.0278857
15711.5	-0.026126
15722.5	-0.024395
15733.5	-0.0226978
15740.9	-0.0215875
15751.9	-0.0199573
15762.9	-0.0183737
15770.3	-0.0173461
15781.3	-0.0158501
15792.4	-0.0144123
15803.4	-0.0130368
15810.7	-0.0121564
15821.8	-0.0108931
15832.8	-0.00970179
15840.2	-0.00894916
15851.2	-0.00788476
15862.2	-0.00690022
15873.2	-0.00599802
15880.6	-0.00544338
15891.6	-0.00468309
15902.7	-0.00401026
15910	-0.00361099
15921	-0.00308682
15932.1	-0.00265307
15943.1	-0.00231026
15950.5	-0.00213237
15961.5	-0.00194144
15972.5	-0.0018413
15983.6	-0.00183131
15990.9	-0.00187426
16001.9	-0.0020122
16013	-0.00223702
16020.3	-0.0024343
16031.4	-0.00279981
16042.4	-0.00324679
16053.4	-0.00377267
16060.8	-0.0041657
16071.8	-0.00481666
16082.8	-0.0055384
16090.2	-0.00605717
16101.2	-0.00688898
16112.2	-0.00778174
16123.3	-0.00873138
16130.6	-0.00939398
16141.7	-0.0104289
16152.7	-0.011509
16160	-0.0122519
16171.1	-0.0133969
16182.1	-0.0145744
16193.1	-0.0157796
16200.5	-0.0165959
16211.5	-0.0178361
16222.6	-0.0190905
16233.6	-0.0203543
16240.9	-0.0211995
16252	-0.0224676
16263	-0.0237318
16270.4	-0.02457
16281.4	-0.025817
16292.4	-0.0270473
16303.4	-0.0282566
16310.8	-0.0290488
16321.8	-0.0302133
16332.9	-0.0313453
16340.2	-0.0320801
16351.3	-0.0331498
16362.3	-0.0341773
16373.3	-0.0351594
16380.7	-0.0357874
16391.7	-0.0366873
16402.7	-0.0375344
16410.1	-0.0380687
16421.1	-0.038823
16432.1	-0.0395191
16443.2	-0.0401556
16450.5	-0.0405462
16461.6	-0.0410809
16472.6	-0.0415535
16483.6	-0.0419636
16491	-0.0422023
16502	-0.0425083
16513	-0.0427523
16520.4	-0.0428807
16531.4	-0.0430229
16542.5	-0.0431053
16553.5	-0.0431294
16560.8	-0.0431138
16571.9	-0.0430441
16582.9	-0.0429208
16590.3	-0.0428097
16601.3	-0.0426016
16612.3	-0.0423456
16623.3	-0.0420444
16630.7	-0.0418197
16641.7	-0.0414489
16652.8	-0.04104
16660.1	-0.0407477
16671.1	-0.0402816
16682.2	-0.0397851
16693.2	-0.0392611
16700.6	-0.0388978
16711.6	-0.0383343
16722.6	-0.0377509
16733.7	-0.0371505
16741	-0.036742
16752	-0.036119
16763.1	-0.0354861
16770.4	-0.0350597
16781.5	-0.0344155
16792.5	-0.0337674
16803.5	-0.0331178
16810.9	-0.0326848
16821.9	-0.0320369
16832.9	-0.0313922
16840.3	-0.0309651
16851.3	-0.0303294
16862.3	-0.0297008
16873.4	-0.0290805
16880.7	-0.028672
16891.8	-0.0280676
16902.8	-0.0274736
16910.1	-0.0270837
16921.2	-0.0265084
16932.2	-0.0259447
16943.2	-0.0253928
16950.6	-0.0250315
16961.6	-0.0244993
16972.7	-0.0239788
16980	-0.0236381
16991	-0.0231364
17002.1	-0.0226454
17013.1	-0.0221647
17020.5	-0.0218497
17031.5	-0.0213849
17042.5	-0.0209288
17053.5	-0.0204807
17060.9	-0.0201861
17071.9	-0.0197499
17083	-0.0193198
17090.3	-0.0190362
17101.3	-0.0186148
17112.4	-0.0181978
17123.4	-0.0177844
17130.8	-0.0175105
17141.8	-0.0171019
17152.8	-0.0166953
17160.2	-0.0164253
17171.2	-0.0160212
17182.2	-0.0156181
17193.3	-0.0152155
17200.6	-0.0149474
17211.7	-0.0145453
17222.7	-0.0141433
17230	-0.0138753
17241.1	-0.0134732
17252.1	-0.0130712
17263.1	-0.0126692
17270.5	-0.0124014
17281.5	-0.012
17292.5	-0.0115992
17303.6	-0.0111995
17310.9	-0.0109338
17322	-0.0105366
17333	-0.0101415
17340.3	-0.00987948
17351.4	-0.00948894
17362.4	-0.00910185
17373.4	-0.00871874
17380.8	-0.00846582
17391.8	-0.0080906
17402.9	-0.00772085
17410.2	-0.00747768
17421.2	-0.0071183
17432.3	-0.00676585
17443.3	-0.00642083
17450.7	-0.0061952
17461.7	-0.00586362
17472.7	-0.00554067
17480.1	-0.00533035
17491.1	-0.00502257
17502.1	-0.00472428
17513.2	-0.0044357
17520.5	-0.0042488
17531.5	-0.00397673
17542.6	-0.00371467
17553.6	-0.00346259
17561	-0.00330004
17572	-0.00306437
17583	-0.00283829
17590.4	-0.00269278
17601.4	-0.00248205
17612.4	-0.00228004
17623.5	-0.00208627
17630.8	-0.00196143
17641.9	-0.00178023
17652.9	-0.00160576
17660.2	-0.00149285
17671.3	-0.00132806
17682.3	-0.00116808
17693.3	-0.00101212
17700.7	-0.000909965
17711.7	-0.000758821
17722.7	-0.000609401
17730.1	-0.000510302
17741.1	-0.00036175
17752.2	-0.000212501
17763.2	-6.16379e-05
17770.5	4.02827e-05
17781.6	0.000195846
17792.6	0.000355409
17803.6	0.000519826
17811	0.00063254
17822	0.00080685
17833.1	0.00098811
17840.4	0.00111316
17851.4	0.00130753
17862.5	0.00151058
17873.5	0.00172286
17880.9	0.00186973
17891.9	0.00209837
17902.9	0.00233731
17910.3	0.00250245
17921.3	0.00275908
17932.3	0.00302651
17943.4	0.00330476
17950.7	0.00349626
17961.7	0.00379239
17972.8	0.00409901
17980.1	0.00430912
17991.2	0.00463253
18002.2	0.00496548
18013.2	0.00530745
18020.6	0.00554016
18031.6	0.00589582
18042.6	0.00625877
18053.7	0.00662825
18061	0.00687778
18072.1	0.00725623
18083.1	0.00763885
18090.4	0.00789578
18101.5	0.00828318
18112.5	0.00867209
18123.5	0.00906144
18130.9	0.00932073
18141.9	0.00970845
18152.9	0.0100937
18160.3	0.0103487
18171.3	0.0107275
18182.4	0.011101
18193.4	0.0114681
18200.7	0.0117088
18211.8	0.012063
18222.8	0.0124082
18230.2	0.0126328
18241.2	0.0129609
18252.2	0.0132777
18263.3	0.0135823
18270.6	0.0137782
18281.6	0.0140609
18292.7	0.0143297
18300	0.0145009
18311.1	0.0147453
18322.1	0.0149745
18333.1	0.0151881
18340.5	0.0153217
18351.5	0.0155088
18362.5	0.0156797
18373.6	0.0158344
18380.9	0.0159285
18391.9	0.0160561
18403	0.0161676
18410.3	0.0162331
18421.4	0.0163181
18432.4	0.0163875
18443.4	0.0164417
18450.8	0.0164694
18461.8	0.0164989
18472.8	0.0165141
18480.2	0.0165166
18491.2	0.0165091
18502.3	0.0164886
18513.3	0.0164556
18520.6	0.016427
18531.7	0.0163744
18542.7	0.0163108
18550.1	0.0162625
18561.1	0.0161818
18572.1	0.0160915
18583.1	0.0159922
18590.5	0.0159213
18601.5	0.0158082
18612.6	0.0156875
18623.6	0.0155597
18630.9	0.0154708
18642	0.0153322
18653	0.0151879
18660.4	0.0150886
18671.4	0.0149355
18682.4	0.0147776
18693.5	0.0146155
18700.8	0.0145053
18711.8	0.0143369
18722.9	0.0141652
18730.2	0.0140491
18741.3	0.0138728
18752.3	0.0136941
18763.3	0.0135135
18770.7	0.0133922
18781.7	0.0132092
18792.7	0.0130252
18800.1	0.0129022
18811.1	0.0127175
18822.1	0.0125328
18833.2	0.0123488
18840.5	0.0122266
18851.6	0.0120446
18862.6	0.0118643
18873.6	0.0116865
18881	0.0115696
18892	0.0113971
18903	0.0112286
18910.4	0.0111188
18921.4	0.0109584
18932.5	0.0108038
18943.5	0.0106558
18950.8	0.0105611
18961.9	0.0104257
18972.9	0.0102989
18980.3	0.0102196
18991.3	0.0101091
19002.3	0.0100094
19013.3	0.00992146
19020.7	0.00986975
19031.7	0.00980323
19042.8	0.0097507
19050.1	0.00972387
19061.1	0.00969652
19072.2	0.00968536
19083.2	0.00969116
19090.6	0.00970482
19101.6	0.00974052
19112.6	0.00979505
19123.7	0.00986904
19131	0.00992944
19142	0.010037
19153.1	0.0101654
19160.4	0.0102627
19171.5	0.0104265
19182.5	0.0106118
19193.5	0.0108189
19200.9	0.010969
19211.9	0.0112123
19222.9	0.0114772
19230.3	0.0116657
19241.3	0.0119661
19252.3	0.0122873
19263.4	0.0126288
19270.7	0.0128674
19281.8	0.0132413
19292.8	0.0136337
19300.1	0.0139051
19311.2	0.0143261
19322.2	0.014763
19333.2	0.0152146
19340.6	0.0155231
19351.6	0.0159963
19362.7	0.0164806
19370	0.0168089
19381	0.0173083
19392.1	0.0178147
19403.1	0.0183264
19410.5	0.0186696
19421.5	0.0191862
19432.5	0.0197033
19443.5	0.0202191
19450.9	0.0205612
19461.9	0.0210705
19473	0.0215732
19480.3	0.0219039
19491.3	0.0223915
19502.4	0.0228676
19513.4	0.0233301
19520.8	0.0236299
19531.8	0.0240656
19542.8	0.0244828
19550.2	0.0247497
19561.2	0.0251321
19572.2	0.0254914
19583.3	0.0258259
19590.6	0.0260345
19601.7	0.0263244
19612.7	0.0265858
19620	0.0267436
19631.1	0.0269546
19642.1	0.0271338
19653.1	0.0272803
19660.5	0.0273594
19671.5	0.0274496
19682.5	0.0275051
19693.6	0.0275253
19700.9	0.0275191
19712	0.0274798
19723	0.0274047
19730.3	0.0273346
19741.4	0.0271995
19752.4	0.0270287
19763.4	0.0268225
19770.8	0.0266656
19781.8	0.0264015
19792.9	0.0261036
19800.2	0.0258865
19811.2	0.0255338
19822.3	0.0251497
19833.3	0.0247351
19840.7	0.0244423
19851.7	0.0239795
19862.7	0.0234897
19870.1	0.0231487
19881.1	0.0226167
19892.1	0.0220615
19903.2	0.0214846
19910.5	0.0210887
19921.5	0.0204791
19932.6	0.0198522
19943.6	0.0192096
19951	0.0187734
19962	0.0181083
19973	0.0174321
19980.4	0.0169759
19991.4	0.0162846
