0	0
14.7745	0
29.5491	0
44.3236	0
59.0981	0
73.8727	0
88.6472	0
103.422	0
118.196	0
132.971	0
147.745	0
162.52	0
177.294	0
192.069	0
206.843	0
221.618	0
236.393	0
251.167	0
265.942	0
280.716	0
295.491	0
310.265	0
325.04	0
339.814	0
354.589	0
369.363	0
384.138	0
398.912	0
413.687	0
428.462	0
443.236	0
458.011	0
472.785	0
487.56	0
502.334	0
517.109	0
531.883	0
546.658	0
561.432	0
576.207	0
590.981	0
605.756	0
620.53	0
635.305	0
650.08	0
664.854	0
679.629	0
694.403	0
709.178	0
723.952	0
738.727	0
753.501	0
768.276	0
783.05	0
797.825	0
812.599	0
827.374	0
842.149	0
856.923	0
871.698	0
886.472	0
901.247	0
916.021	0
930.796	0
945.57	0
960.345	0
975.119	0
989.894	0
1004.67	0
1019.44	0
1034.22	0
1048.99	0
1063.77	0
1078.54	0
1093.32	0
1108.09	0
1122.86	0
1137.64	0
1152.41	0
1167.19	0
1181.96	0
1196.74	0
1211.51	0
1226.29	0
1241.06	0
1255.84	0
1270.61	0
1285.38	-9.09495e-13
1300.16	-1.81899e-12
1314.93	-2.72848e-12
1329.71	-4.54747e-12
1344.48	-8.18545e-12
1359.26	-1.45519e-11
1374.03	-2.54659e-11
1388.81	-4.27463e-11
1403.58	-7.09406e-11
1418.36	-1.16415e-10
1433.13	-1.88265e-10
1447.9	-3.01952e-10
1462.68	-4.78394e-10
1477.45	-7.49424e-10
1492.23	-1.16233e-09
1507	-1.78534e-09
1521.78	-2.71757e-09
1536.55	-4.09818e-09
1551.33	-6.12545e-09
1566.1	-9.07494e-09
1580.88	-1.33296e-08
1595.65	-1.9415e-08
1610.42	-2.80479e-08
1625.2	-4.01969e-08
1639.97	-5.71599e-08
1654.75	-8.06631e-08
1669.52	-1.12985e-07
1684.3	-1.57106e-07
1699.07	-2.16903e-07
1713.85	-2.97375e-07
1728.62	-4.04925e-07
1743.4	-5.47697e-07
1758.17	-7.35971e-07
1772.94	-9.82644e-07
1787.72	-1.30377e-06
1802.49	-1.71924e-06
1817.27	-2.25347e-06
1832.04	-2.9363e-06
1846.82	-3.80392e-06
1861.59	-4.9e-06
1876.37	-6.27684e-06
1891.14	-7.99672e-06
1905.92	-1.01333e-05
1920.69	-1.27734e-05
1935.46	-1.60183e-05
1950.24	-1.99858e-05
1965.01	-2.4812e-05
1979.79	-3.0653e-05
1994.56	-3.7687e-05
2009.34	-4.61162e-05
2024.11	-5.61683e-05
2038.89	-6.80984e-05
2053.66	-8.21904e-05
2068.43	-9.87583e-05
2083.21	-0.000118147
2097.98	-0.000140732
2112.76	-0.00016692
2127.53	-0.00019715
2142.31	-0.000231888
2157.08	-0.000271626
2171.86	-0.00031688
2186.63	-0.000368185
2201.41	-0.00042609
2216.18	-0.000491147
2230.95	-0.000563907
2245.73	-0.00064491
2260.5	-0.00073467
2275.28	-0.000833663
2290.05	-0.000942312
2304.83	-0.00106097
2319.6	-0.0011899
2334.38	-0.00132925
2349.15	-0.00147904
2363.93	-0.00163913
2378.7	-0.00180919
2393.47	-0.00198867
2408.25	-0.00217679
2423.02	-0.00237247
2437.8	-0.00257435
2452.57	-0.0027807
2467.35	-0.00298942
2482.12	-0.003198
2496.9	-0.00340349
2511.67	-0.00360246
2526.45	-0.00379095
2541.22	-0.00396449
2555.99	-0.00411802
2570.77	-0.00424591
2585.54	-0.00434188
2600.32	-0.00439908
2615.09	-0.00440996
2629.87	-0.00436639
2644.64	-0.00425954
2659.42	-0.00408001
2674.19	-0.00381773
2688.97	-0.00346208
2703.74	-0.00300188
2718.51	-0.00242542
2733.29	-0.00172055
2748.06	-0.000874717
2762.84	0.000124944
2777.61	0.00129155
2792.39	0.00263837
2807.16	0.0041787
2821.94	0.0059258
2836.71	0.00789274
2851.49	0.0100923
2866.26	0.0125367
2881.03	0.0152379
2895.81	0.0182067
2910.58	0.0214534
2925.36	0.0249872
2940.13	0.0288159
2954.91	0.0329465
2969.68	0.037384
2984.46	0.0421321
2999.23	0.0471929
3014	0.0525664
3028.78	0.0582508
3043.55	0.0642423
3058.33	0.0705347
3073.1	0.0771198
3087.88	0.0839871
3102.65	0.0911239
3117.43	0.0985148
3132.2	0.106143
3146.97	0.113987
3161.75	0.122026
3176.52	0.130236
3191.3	0.13859
3206.07	0.147059
3220.85	0.155613
3235.62	0.16422
3250.39	0.172845
3265.17	0.181455
3279.94	0.190011
3294.72	0.198476
3309.49	0.206813
3324.27	0.214981
3339.04	0.222942
3353.81	0.230656
3368.59	0.238084
3383.36	0.245187
3398.14	0.251927
3412.91	0.258267
3427.68	0.264171
3442.46	0.269604
3457.23	0.274533
3472.01	0.278928
3486.78	0.282761
3501.56	0.286004
3516.33	0.288635
3531.1	0.290632
3545.88	0.291978
3560.65	0.292657
3575.43	0.292658
3590.2	0.291972
3604.97	0.290594
3619.75	0.288523
3634.52	0.285759
3649.3	0.282309
3664.07	0.27818
3678.84	0.273385
3693.62	0.267937
3708.39	0.261856
3723.17	0.255162
3737.94	0.247881
3752.71	0.240037
3767.49	0.231662
3782.26	0.222787
3797.04	0.213446
3811.81	0.203675
3826.58	0.193512
3841.36	0.182996
3856.13	0.172168
3870.91	0.161071
3885.68	0.149745
3900.45	0.138235
3915.23	0.126584
3930	0.114834
3944.78	0.10303
3959.55	0.091214
3974.32	0.0794282
3989.1	0.0677137
4003.87	0.0561106
4018.65	0.0446578
4033.42	0.0333926
4048.19	0.0223507
4062.97	0.0115658
4077.74	0.00106989
4092.52	-0.00910728
4107.29	-0.0189381
4122.06	-0.0283973
4136.84	-0.037462
4151.61	-0.0461117
4166.39	-0.0543283
4181.16	-0.0620963
4195.93	-0.0694028
4210.71	-0.0762372
4225.48	-0.0825915
4240.26	-0.08846
4255.03	-0.0938397
4269.8	-0.0987296
4284.58	-0.103131
4299.35	-0.107048
4314.13	-0.110486
4328.9	-0.113452
4343.68	-0.115956
4358.45	-0.118009
4373.22	-0.119624
4388	-0.120815
4402.77	-0.121598
4417.55	-0.121989
4432.32	-0.122007
4447.1	-0.12167
4461.87	-0.120998
4476.65	-0.120011
4491.42	-0.11873
4506.19	-0.117176
4520.97	-0.11537
4535.74	-0.113334
4550.52	-0.111089
4565.29	-0.108657
4580.07	-0.106059
4594.84	-0.103317
4609.62	-0.100449
4624.39	-0.0974776
4639.16	-0.0944208
4653.94	-0.091298
4668.71	-0.0881272
4683.49	-0.0849258
4698.26	-0.0817105
4713.04	-0.0784969
4727.81	-0.0752999
4742.59	-0.0721334
4757.36	-0.0690105
4772.14	-0.0659433
4786.91	-0.0629428
4801.68	-0.0600192
4816.46	-0.0571818
4831.23	-0.0544387
4846.01	-0.0517973
4860.78	-0.049264
4875.56	-0.0468442
4890.33	-0.0445427
4905.11	-0.0423631
4919.88	-0.0403086
4934.65	-0.0383811
4949.43	-0.0365823
4964.2	-0.0349128
4978.98	-0.0333726
4993.75	-0.0319612
5008.53	-0.0306775
5023.3	-0.0295197
5038.08	-0.0284855
5052.85	-0.0275724
5067.62	-0.0267771
5082.4	-0.0260962
5097.17	-0.0255257
5111.95	-0.0250616
5126.72	-0.0246994
5141.5	-0.0244344
5156.27	-0.0242617
5171.05	-0.0241763
5185.82	-0.0241731
5200.6	-0.0242468
5215.37	-0.024392
5230.14	-0.0246033
5244.92	-0.0248754
5259.69	-0.025203
5274.47	-0.0255805
5289.24	-0.0260028
5304.02	-0.0264646
5318.79	-0.0269609
5333.57	-0.0274865
5348.34	-0.0280366
5363.11	-0.0286065
5377.89	-0.0291915
5392.66	-0.0297872
5407.44	-0.0303894
5422.21	-0.030994
5436.99	-0.031597
5451.76	-0.0321949
5466.54	-0.032784
5481.31	-0.0333611
5496.09	-0.0339231
5510.86	-0.0344671
5525.63	-0.0349904
5540.41	-0.0354905
5555.18	-0.0359652
5569.96	-0.0364124
5584.73	-0.0368302
5599.51	-0.0372169
5614.28	-0.0375711
5629.06	-0.0378914
5643.83	-0.0381768
5658.6	-0.0384263
5673.38	-0.0386392
5688.15	-0.0388148
5702.93	-0.0389528
5717.7	-0.0390529
5732.48	-0.0391148
5747.25	-0.0391388
5762.03	-0.0391247
5776.8	-0.0390731
5791.58	-0.0389841
5806.35	-0.0388583
5821.12	-0.0386964
5835.9	-0.0384989
5850.67	-0.0382667
5865.45	-0.0380006
5880.22	-0.0377015
5895	-0.0373705
5909.77	-0.0370085
5924.55	-0.0366167
5939.32	-0.0361962
5954.09	-0.0357482
5968.87	-0.0352738
5983.64	-0.0347744
5998.42	-0.0342511
6013.19	-0.0337052
6027.97	-0.0331379
6042.74	-0.0325507
6057.52	-0.0319446
6072.29	-0.0313209
6087.07	-0.030681
6101.84	-0.0300259
6116.61	-0.029357
6131.39	-0.0286754
6146.16	-0.0279822
6160.94	-0.0272786
6175.71	-0.0265656
6190.49	-0.0258444
6205.26	-0.0251159
6220.04	-0.0243812
6234.81	-0.0236412
6249.59	-0.0228967
6264.36	-0.0221487
6279.13	-0.021398
6293.91	-0.0206454
6308.68	-0.0198917
6323.46	-0.0191375
6338.23	-0.0183835
6353.01	-0.0176305
6367.78	-0.0168789
6382.56	-0.0161293
6397.33	-0.0153823
6412.11	-0.0146383
6426.88	-0.013898
6441.65	-0.0131616
6456.43	-0.0124295
6471.2	-0.0117023
6485.98	-0.0109802
6500.75	-0.0102636
6515.53	-0.00955286
6530.3	-0.0088482
6545.08	-0.00814995
6559.85	-0.00745838
6574.63	-0.00677376
6589.4	-0.00609634
6604.17	-0.00542637
6618.95	-0.00476409
6633.72	-0.00410974
6648.5	-0.00346354
6663.27	-0.00282573
6678.05	-0.00219654
6692.82	-0.0015762
6707.6	-0.00096493
6722.37	-0.00036298
6737.15	0.000229416
6751.92	0.000812015
6766.69	0.00138457
6781.47	0.00194682
6796.24	0.00249852
6811.02	0.0030394
6825.79	0.00356918
6840.57	0.00408758
6855.34	0.00459434
6870.12	0.00508915
6884.89	0.00557173
6899.67	0.00604177
6914.44	0.00649898
6929.21	0.00694305
6943.99	0.00737368
6958.76	0.00779054
6973.54	0.00819334
6988.31	0.00858176
7003.09	0.00895549
7017.86	0.00931423
7032.64	0.00965767
7047.41	0.00998551
7062.19	0.0102975
7076.96	0.0105932
7091.73	0.0108725
7106.51	0.0111351
7121.28	0.0113807
7136.06	0.011609
7150.83	0.0118199
7165.61	0.012013
7180.38	0.0121882
7195.16	0.0123452
7209.93	0.012484
7224.71	0.0126042
7239.48	0.0127058
7254.25	0.0127886
7269.03	0.0128525
7283.8	0.0128974
7298.58	0.0129232
7313.35	0.0129298
7328.13	0.0129173
7342.9	0.0128855
7357.68	0.0128345
7372.45	0.0127642
7387.23	0.0126748
7402	0.0125661
7416.77	0.0124384
7431.55	0.0122917
7446.32	0.0121261
7461.1	0.0119417
7475.87	0.0117387
7490.65	0.0115172
7505.42	0.0112774
7520.2	0.0110195
7534.97	0.0107437
7549.74	0.0104502
7564.52	0.0101393
7579.29	0.00981111
7594.07	0.00946604
7608.84	0.00910433
7623.62	0.00872627
7638.39	0.00833216
7653.17	0.00792232
7667.94	0.00749708
7682.71	0.00705679
7697.49	0.00660178
7712.26	0.00613244
7727.04	0.00564912
7741.81	0.0051522
7756.59	0.00464209
7771.36	0.00411916
7786.14	0.00358383
7800.91	0.00303652
7815.68	0.00247764
7830.46	0.00190761
7845.23	0.00132689
7860.01	0.000735892
7874.78	0.000135081
7889.56	-0.000475095
7904.33	-0.00109418
7919.11	-0.0017217
7933.88	-0.0023572
7948.65	-0.00300019
7963.43	-0.0036502
7978.2	-0.00430674
7992.98	-0.00496933
8007.75	-0.00563747
8022.53	-0.00631067
8037.3	-0.00698841
8052.08	-0.0076702
8066.85	-0.00835553
8081.62	-0.00904388
8096.4	-0.00973475
8111.17	-0.0104276
8125.95	-0.0111219
8140.72	-0.0118172
8155.5	-0.0125129
8170.27	-0.0132085
8185.05	-0.0139034
8199.82	-0.0145972
8214.59	-0.0152893
8229.37	-0.0159791
8244.14	-0.0166662
8258.92	-0.01735
8273.69	-0.01803
8288.47	-0.0187056
8303.24	-0.0193763
8318.02	-0.0200416
8332.79	-0.020701
8347.56	-0.021354
8362.34	-0.022
8377.11	-0.0226385
8391.89	-0.023269
8406.66	-0.023891
8421.44	-0.0245041
8436.21	-0.0251077
8450.99	-0.0257013
8465.76	-0.0262845
8480.53	-0.0268568
8495.31	-0.0274178
8510.08	-0.027967
8524.86	-0.0285039
8539.63	-0.0290282
8554.41	-0.0295393
8569.18	-0.030037
8583.96	-0.0305208
8598.73	-0.0309904
8613.51	-0.0314453
8628.28	-0.0318852
8643.05	-0.0323098
8657.83	-0.0327187
8672.6	-0.0331117
8687.38	-0.0334883
8702.15	-0.0338485
8716.93	-0.0341918
8731.7	-0.034518
8746.48	-0.0348269
8761.25	-0.0351183
8776.02	-0.0353919
8790.8	-0.0356476
8805.57	-0.0358853
8820.35	-0.0361047
8835.12	-0.0363057
8849.9	-0.0364881
8864.67	-0.036652
8879.45	-0.0367972
8894.22	-0.0369237
8908.99	-0.0370313
8923.77	-0.0371201
8938.54	-0.03719
8953.32	-0.0372411
8968.09	-0.0372734
8982.87	-0.0372868
8997.64	-0.0372815
9012.42	-0.0372575
9027.19	-0.0372149
9041.96	-0.0371538
9056.74	-0.0370743
9071.51	-0.0369766
9086.29	-0.0368607
9101.06	-0.0367269
9115.84	-0.0365754
9130.61	-0.0364063
9145.39	-0.0362198
9160.16	-0.0360162
9174.94	-0.0357957
9189.71	-0.0355585
9204.48	-0.0353049
9219.26	-0.0350353
9234.03	-0.0347498
9248.81	-0.0344488
9263.58	-0.0341326
9278.36	-0.0338015
9293.13	-0.0334559
9307.91	-0.0330961
9322.68	-0.0327225
9337.45	-0.0323354
9352.23	-0.0319353
9367	-0.0315225
9381.78	-0.0310974
9396.55	-0.0306605
9411.33	-0.0302121
9426.1	-0.0297528
9440.88	-0.0292828
9455.65	-0.0288027
9470.43	-0.028313
9485.2	-0.027814
9499.97	-0.0273063
9514.75	-0.0267903
9529.52	-0.0262665
9544.3	-0.0257354
9559.07	-0.0251975
9573.85	-0.0246533
9588.62	-0.0241032
9603.4	-0.0235478
9618.17	-0.0229875
9632.94	-0.022423
9647.72	-0.0218546
9662.49	-0.021283
9677.27	-0.0207085
9692.04	-0.0201318
9706.82	-0.0195533
9721.59	-0.0189736
9736.37	-0.0183931
9751.14	-0.0178124
9765.92	-0.017232
9780.69	-0.0166524
9795.46	-0.0160741
9810.24	-0.0154975
9825.01	-0.0149233
9839.79	-0.0143519
9854.56	-0.0137837
9869.34	-0.0132193
9884.11	-0.0126591
9898.89	-0.0121037
9913.66	-0.0115534
9928.44	-0.0110087
9943.21	-0.0104702
9957.98	-0.00993808
9972.76	-0.00941296
9987.53	-0.0088952
10002.3	-0.00838523
10017.1	-0.00788344
10031.9	-0.00739021
10046.6	-0.00690595
10061.4	-0.006431
10076.2	-0.00596573
10091	-0.00551047
10105.7	-0.00506557
10120.5	-0.00463133
10135.3	-0.00420807
10150.1	-0.00379607
10164.8	-0.0033956
10179.6	-0.00300693
10194.4	-0.0026303
10209.2	-0.00226595
10223.9	-0.00191408
10238.7	-0.00157491
10253.5	-0.0012486
10268.2	-0.000935339
10283	-0.000635264
10297.8	-0.000348514
10312.6	-7.52078e-05
10327.3	0.000184554
10342.1	0.000430688
10356.9	0.000663125
10371.7	0.000881816
10386.4	0.00108673
10401.2	0.00127784
10416	0.00145516
10430.8	0.0016187
10445.5	0.00176849
10460.3	0.0019046
10475.1	0.00202708
10489.9	0.00213602
10504.6	0.00223152
10519.4	0.00231371
10534.2	0.00238271
10549	0.00243867
10563.7	0.00248177
10578.5	0.00251218
10593.3	0.00253009
10608.1	0.00253574
10622.8	0.00252933
10637.6	0.00251111
10652.4	0.00248133
10667.2	0.00244027
10681.9	0.00238821
10696.7	0.00232544
10711.5	0.00225228
10726.3	0.00216903
10741	0.00207605
10755.8	0.00197365
10770.6	0.00186222
10785.4	0.0017421
10800.1	0.00161367
10814.9	0.00147732
10829.7	0.00133343
10844.5	0.00118242
10859.2	0.00102469
10874	0.00086066
10888.8	0.000690745
10903.6	0.00051538
10918.3	0.000334997
10933.1	0.000150036
10947.9	-3.90593e-05
10962.7	-0.000231842
10977.4	-0.000427861
10992.2	-0.000626665
11007	-0.000827799
11021.8	-0.00103081
11036.5	-0.00123524
11051.3	-0.00144063
11066.1	-0.00164654
11080.8	-0.0018525
11095.6	-0.00205807
11110.4	-0.0022628
11125.2	-0.00246624
11139.9	-0.00266796
11154.7	-0.00286751
11169.5	-0.00306448
11184.3	-0.00325844
11199	-0.00344897
11213.8	-0.00363566
11228.6	-0.0038181
11243.4	-0.00399592
11258.1	-0.00416872
11272.9	-0.00433614
11287.7	-0.0044978
11302.5	-0.00465335
11317.2	-0.00480246
11332	-0.0049448
11346.8	-0.00508004
11361.6	-0.00520789
11376.3	-0.00532806
11391.1	-0.00544026
11405.9	-0.00554423
11420.7	-0.00563974
11435.4	-0.00572653
11450.2	-0.0058044
11465	-0.00587314
11479.8	-0.00593257
11494.5	-0.00598251
11509.3	-0.00602282
11524.1	-0.00605334
11538.9	-0.00607396
11553.6	-0.00608457
11568.4	-0.00608509
11583.2	-0.00607543
11598	-0.00605556
11612.7	-0.00602542
11627.5	-0.005985
11642.3	-0.00593428
11657.1	-0.00587329
11671.8	-0.00580205
11686.6	-0.0057206
11701.4	-0.005629
11716.2	-0.00552733
11730.9	-0.00541568
11745.7	-0.00529415
11760.5	-0.00516288
11775.3	-0.00502199
11790	-0.00487164
11804.8	-0.00471198
11819.6	-0.00454321
11834.3	-0.00436551
11849.1	-0.00417908
11863.9	-0.00398415
11878.7	-0.00378095
11893.4	-0.00356971
11908.2	-0.00335069
11923	-0.00312414
11937.8	-0.00289035
11952.5	-0.00264959
11967.3	-0.00240216
11982.1	-0.00214836
11996.9	-0.00188849
12011.6	-0.00162288
12026.4	-0.00135183
12041.2	-0.00107569
12056	-0.000794784
12070.7	-0.000509458
12085.5	-0.000220057
12100.3	7.30695e-05
12115.1	0.000369567
12129.8	0.000669078
12144.6	0.000971241
12159.4	0.00127569
12174.2	0.00158207
12188.9	0.00189
12203.7	0.00219912
12218.5	0.00250906
12233.3	0.00281946
12248	0.00312993
12262.8	0.00344011
12277.6	0.00374964
12292.4	0.00405815
12307.1	0.00436527
12321.9	0.00467063
12336.7	0.00497389
12351.5	0.00527467
12366.2	0.00557264
12381	0.00586742
12395.8	0.00615867
12410.6	0.00644606
12425.3	0.00672923
12440.1	0.00700785
12454.9	0.00728159
12469.7	0.00755012
12484.4	0.00781312
12499.2	0.00807026
12514	0.00832125
12528.8	0.00856577
12543.5	0.00880352
12558.3	0.00903421
12573.1	0.00925754
12587.9	0.00947325
12602.6	0.00968105
12617.4	0.00988067
12632.2	0.0100719
12646.9	0.0102544
12661.7	0.0104279
12676.5	0.0105923
12691.3	0.0107473
12706	0.0108927
12720.8	0.0110282
12735.6	0.0111537
12750.4	0.0112689
12765.1	0.0113737
12779.9	0.0114679
12794.7	0.0115513
12809.5	0.0116238
12824.2	0.0116852
12839	0.0117354
12853.8	0.0117742
12868.6	0.0118016
12883.3	0.0118174
12898.1	0.0118215
12912.9	0.0118138
12927.7	0.0117944
12942.4	0.011763
12957.2	0.0117197
12972	0.0116644
12986.8	0.0115972
13001.5	0.0115179
13016.3	0.0114266
13031.1	0.0113233
13045.9	0.0112081
13060.6	0.0110809
13075.4	0.0109419
13090.2	0.010791
13105	0.0106285
13119.7	0.0104543
13134.5	0.0102687
13149.3	0.0100717
13164.1	0.00986339
13178.8	0.00964405
13193.6	0.00941379
13208.4	0.00917281
13223.2	0.0089213
13237.9	0.00865948
13252.7	0.00838757
13267.5	0.00810582
13282.3	0.00781448
13297	0.00751381
13311.8	0.00720411
13326.6	0.00688567
13341.4	0.0065588
13356.1	0.00622381
13370.9	0.00588106
13385.7	0.00553087
13400.4	0.00517361
13415.2	0.00480966
13430	0.00443938
13444.8	0.00406318
13459.5	0.00368144
13474.3	0.0032946
13489.1	0.00290305
13503.9	0.00250723
13518.6	0.00210757
13533.4	0.00170451
13548.2	0.00129851
13563	0.000890009
13577.7	0.000479468
13592.5	6.73485e-05
13607.3	-0.000345886
13622.1	-0.000759769
13636.8	-0.00117383
13651.6	-0.00158761
13666.4	-0.00200062
13681.2	-0.00241242
13695.9	-0.00282252
13710.7	-0.00323048
13725.5	-0.00363582
13740.3	-0.00403809
13755	-0.00443685
13769.8	-0.00483165
13784.6	-0.00522205
13799.4	-0.00560763
13814.1	-0.00598797
13828.9	-0.00636265
13843.7	-0.00673128
13858.5	-0.00709347
13873.2	-0.00744885
13888	-0.00779704
13902.8	-0.0081377
13917.6	-0.00847049
13932.3	-0.00879509
13947.1	-0.0091112
13961.9	-0.00941853
13976.7	-0.00971679
13991.4	-0.0100057
14006.2	-0.0102852
14021	-0.0105548
14035.8	-0.0108145
14050.5	-0.011064
14065.3	-0.0113032
14080.1	-0.0115319
14094.9	-0.0117501
14109.6	-0.0119576
14124.4	-0.0121543
14139.2	-0.0123402
14154	-0.0125153
14168.7	-0.0126794
14183.5	-0.0128327
14198.3	-0.0129752
14213	-0.0131068
14227.8	-0.0132277
14242.6	-0.013338
14257.4	-0.0134376
14272.1	-0.0135269
14286.9	-0.0136059
14301.7	-0.0136748
14316.5	-0.0137337
14331.2	-0.013783
14346	-0.0138227
14360.8	-0.0138531
14375.6	-0.0138746
14390.3	-0.0138873
14405.1	-0.0138916
14419.9	-0.0138877
14434.7	-0.0138759
14449.4	-0.0138567
14464.2	-0.0138304
14479	-0.0137972
14493.8	-0.0137576
14508.5	-0.013712
14523.3	-0.0136607
14538.1	-0.0136041
14552.9	-0.0135426
14567.6	-0.0134767
14582.4	-0.0134068
14597.2	-0.0133333
14612	-0.0132566
14626.7	-0.0131771
14641.5	-0.0130953
14656.3	-0.0130116
14671.1	-0.0129264
14685.8	-0.0128402
14700.6	-0.0127534
14715.4	-0.0126664
14730.2	-0.0125796
14744.9	-0.0124935
14759.7	-0.0124085
14774.5	-0.012325
14789.3	-0.0122433
14804	-0.0121638
14818.8	-0.012087
14833.6	-0.0120132
14848.4	-0.0119427
14863.1	-0.0118759
14877.9	-0.0118131
14892.7	-0.0117546
14907.5	-0.0117008
14922.2	-0.0116518
14937	-0.011608
14951.8	-0.0115697
14966.5	-0.0115369
14981.3	-0.0115101
14996.1	-0.0114892
15010.9	-0.0114746
15025.6	-0.0114664
15040.4	-0.0114646
15055.2	-0.0114695
15070	-0.0114811
15084.7	-0.0114994
15099.5	-0.0115246
15114.3	-0.0115566
15129.1	-0.0115954
15143.8	-0.0116411
15158.6	-0.0116935
15173.4	-0.0117527
15188.2	-0.0118184
15202.9	-0.0118907
15217.7	-0.0119693
15232.5	-0.0120542
15247.3	-0.0121451
15262	-0.0122418
15276.8	-0.0123442
15291.6	-0.0124519
15306.4	-0.0125648
15321.1	-0.0126825
15335.9	-0.0128047
15350.7	-0.0129311
15365.5	-0.0130615
15380.2	-0.0131953
15395	-0.0133323
15409.8	-0.0134721
15424.6	-0.0136143
15439.3	-0.0137584
15454.1	-0.013904
15468.9	-0.0140507
15483.7	-0.0141981
15498.4	-0.0143456
15513.2	-0.0144929
15528	-0.0146393
15542.8	-0.0147845
15557.5	-0.0149279
15572.3	-0.015069
15587.1	-0.0152074
15601.9	-0.0153426
15616.6	-0.0154739
15631.4	-0.015601
15646.2	-0.0157233
15661	-0.0158403
15675.7	-0.0159516
15690.5	-0.0160566
15705.3	-0.0161548
15720.1	-0.0162457
15734.8	-0.0163289
15749.6	-0.016404
15764.4	-0.0164704
15779.1	-0.0165277
15793.9	-0.0165755
15808.7	-0.0166133
15823.5	-0.0166408
15838.2	-0.0166576
15853	-0.0166633
15867.8	-0.0166576
15882.6	-0.01664
15897.3	-0.0166104
15912.1	-0.0165683
15926.9	-0.0165136
15941.7	-0.0164459
15956.4	-0.0163651
15971.2	-0.0162709
15986	-0.0161631
16000.8	-0.0160416
16015.5	-0.0159063
16030.3	-0.0157569
16045.1	-0.0155935
16059.9	-0.015416
16074.6	-0.0152243
16089.4	-0.0150184
16104.2	-0.0147983
16119	-0.0145641
16133.7	-0.0143158
16148.5	-0.0140536
16163.3	-0.0137774
16178.1	-0.0134875
16192.8	-0.0131841
16207.6	-0.0128673
16222.4	-0.0125373
16237.2	-0.0121944
16251.9	-0.0118389
16266.7	-0.0114709
16281.5	-0.0110909
16296.3	-0.0106991
16311	-0.010296
16325.8	-0.00988178
16340.6	-0.00945696
16355.4	-0.00902191
16370.1	-0.00857706
16384.9	-0.00812285
16399.7	-0.00765974
16414.5	-0.00718822
16429.2	-0.00670876
16444	-0.00622187
16458.8	-0.00572807
16473.6	-0.00522789
16488.3	-0.00472186
16503.1	-0.00421053
16517.9	-0.00369446
16532.6	-0.0031742
16547.4	-0.00265034
16562.2	-0.00212344
16577	-0.00159407
16591.7	-0.00106283
16606.5	-0.000530291
16621.3	2.96075e-06
16636.1	0.000536342
16650.8	0.00106927
16665.6	0.00160117
16680.4	0.00213146
16695.2	0.00265957
16709.9	0.00318494
16724.7	0.003707
16739.5	0.0042252
16754.3	0.00473901
16769	0.00524787
16783.8	0.00575127
16798.6	0.0062487
16813.4	0.00673965
16828.1	0.00722362
16842.9	0.00770015
16857.7	0.00816876
16872.5	0.00862901
16887.2	0.00908046
16902	0.00952268
16916.8	0.00995529
16931.6	0.0103779
16946.3	0.0107901
16961.1	0.0111916
16975.9	0.011582
16990.7	0.011961
17005.4	0.0123283
17020.2	0.0126836
17035	0.0130267
17049.8	0.0133573
17064.5	0.0136752
17079.3	0.0139802
17094.1	0.0142721
17108.9	0.0145506
17123.6	0.0148158
17138.4	0.0150674
17153.2	0.0153052
17168	0.0155293
17182.7	0.0157396
17197.5	0.0159359
17212.3	0.0161182
17227.1	0.0162866
17241.8	0.0164409
17256.6	0.0165813
17271.4	0.0167076
17286.2	0.01682
17300.9	0.0169186
17315.7	0.0170033
17330.5	0.0170742
17345.2	0.0171316
17360	0.0171753
17374.8	0.0172057
17389.6	0.0172228
17404.3	0.0172268
17419.1	0.0172178
17433.9	0.017196
17448.7	0.0171616
17463.4	0.0171148
17478.2	0.0170557
17493	0.0169846
17507.8	0.0169018
17522.5	0.0168073
17537.3	0.0167015
17552.1	0.0165845
17566.9	0.0164567
17581.6	0.0163183
17596.4	0.0161696
17611.2	0.0160107
17626	0.0158419
17640.7	0.0156636
17655.5	0.015476
17670.3	0.0152794
17685.1	0.015074
17699.8	0.0148601
17714.6	0.0146381
17729.4	0.0144081
17744.2	0.0141704
17758.9	0.0139254
17773.7	0.0136733
17788.5	0.0134144
17803.3	0.013149
17818	0.0128774
17832.8	0.0125997
17847.6	0.0123164
17862.4	0.0120277
17877.1	0.0117338
17891.9	0.011435
17906.7	0.0111316
17921.5	0.0108239
17936.2	0.0105121
17951	0.0101964
17965.8	0.00987722
17980.6	0.00955467
17995.3	0.00922905
18010.1	0.0089006
18024.9	0.00856957
18039.7	0.00823619
18054.4	0.0079007
18069.2	0.00756332
18084	0.00722429
18098.8	0.00688383
18113.5	0.00654215
18128.3	0.00619949
18143.1	0.00585603
18157.8	0.00551201
18172.6	0.00516762
18187.4	0.00482306
18202.2	0.00447853
18216.9	0.00413423
18231.7	0.00379035
18246.5	0.00344707
18261.3	0.00310457
18276	0.00276305
18290.8	0.00242266
18305.6	0.0020836
18320.4	0.00174603
18335.1	0.00141011
18349.9	0.00107601
18364.7	0.000743898
18379.5	0.000413921
18394.2	8.62385e-05
18409	-0.000238998
18423.8	-0.000561639
18438.6	-0.000881539
18453.3	-0.00119855
18468.1	-0.00151255
18482.9	-0.00182337
18497.7	-0.0021309
18512.4	-0.002435
18527.2	-0.00273554
18542	-0.0030324
18556.8	-0.00332544
18571.5	-0.00361456
18586.3	-0.00389962
18601.1	-0.00418051
18615.9	-0.00445713
18630.6	-0.00472936
18645.4	-0.00499708
18660.2	-0.00526021
18675	-0.00551863
18689.7	-0.00577225
18704.5	-0.00602096
18719.3	-0.00626469
18734.1	-0.00650332
18748.8	-0.00673679
18763.6	-0.00696499
18778.4	-0.00718786
18793.2	-0.00740532
18807.9	-0.00761728
18822.7	-0.00782368
18837.5	-0.00802444
18852.3	-0.00821951
18867	-0.00840883
18881.8	-0.00859232
18896.6	-0.00876995
18911.3	-0.00894166
18926.1	-0.00910739
18940.9	-0.00926712
18955.7	-0.0094208
18970.4	-0.00956839
18985.2	-0.00970986
19000	-0.00984519
19014.8	-0.00997435
19029.5	-0.0100973
19044.3	-0.0102141
19059.1	-0.0103246
19073.9	-0.010429
19088.6	-0.0105271
19103.4	-0.010619
19118.2	-0.0107046
19133	-0.0107841
19147.7	-0.0108574
19162.5	-0.0109245
19177.3	-0.0109854
19192.1	-0.0110402
19206.8	-0.011089
19221.6	-0.0111316
19236.4	-0.0111683
19251.2	-0.011199
19265.9	-0.0112237
19280.7	-0.0112426
19295.5	-0.0112556
19310.3	-0.0112629
19325	-0.0112646
19339.8	-0.0112605
19354.6	-0.011251
19369.4	-0.0112359
19384.1	-0.0112155
19398.9	-0.0111897
19413.7	-0.0111587
19428.5	-0.0111225
19443.2	-0.0110813
19458	-0.0110351
19472.8	-0.0109841
19487.6	-0.0109283
19502.3	-0.0108679
19517.1	-0.0108029
19531.9	-0.0107334
19546.7	-0.0106597
19561.4	-0.0105817
19576.2	-0.0104996
19591	-0.0104135
19605.8	-0.0103235
19620.5	-0.0102298
19635.3	-0.0101324
19650.1	-0.0100315
19664.9	-0.00992727
19679.6	-0.00981974
19694.4	-0.00970907
19709.2	-0.00959537
19723.9	-0.00947879
19738.7	-0.00935943
19753.5	-0.00923743
19768.3	-0.00911292
19783	-0.00898601
19797.8	-0.00885684
19812.6	-0.00872552
19827.4	-0.00859218
19842.1	-0.00845695
19856.9	-0.00831994
19871.7	-0.00818128
19886.5	-0.00804109
19901.2	-0.00789949
19916	-0.00775658
19930.8	-0.0076125
19945.6	-0.00746735
19960.3	-0.00732125
19975.1	-0.0071743
19989.9	-0.00702662
