0	0
29.6453	0
59.2907	0
88.936	0
118.581	0
148.227	0
177.872	0
207.517	0
237.163	0
266.808	0
296.453	0
326.099	0
355.744	0
385.389	0
415.035	0
444.68	0
474.325	0
503.971	0
533.616	0
563.261	0
592.907	0
622.552	0
652.197	0
681.843	0
711.488	0
741.133	0
770.779	0
800.424	0
830.069	0
859.715	0
889.36	0
919.005	0
948.651	0
978.296	0
1007.94	0
1037.59	0
1067.23	0
1096.88	0
1126.52	0
1156.17	0
1185.81	0
1215.46	0
1245.1	0
1274.75	0
1304.39	0
1334.04	0
1363.69	0
1393.33	0
1422.98	0
1452.62	0
1482.27	0
1511.91	0
1541.56	0
1571.2	0
1600.85	0
1630.49	0
1660.14	0
1689.78	0
1719.43	0
1749.07	0
1778.72	0
1808.37	0
1838.01	0
1867.66	0
1897.3	0
1926.95	0
1956.59	0
1986.24	1.81899e-12
2015.88	5.45697e-12
2045.53	1.72804e-11
2075.17	4.72937e-11
2104.82	1.22782e-10
2134.46	3.01952e-10
2164.11	7.08496e-10
2193.75	1.59071e-09
2223.4	3.42789e-09
2253.05	7.11225e-09
2282.69	1.42354e-08
2312.34	2.75459e-08
2341.98	5.16247e-08
2371.63	9.38671e-08
2401.27	1.65846e-07
2430.92	2.85147e-07
2460.56	4.77731e-07
2490.21	7.80895e-07
2519.85	1.24681e-06
2549.5	1.94658e-06
2579.14	2.97477e-06
2608.79	4.45403e-06
2638.43	6.53981e-06
2668.08	9.42452e-06
2697.73	1.33411e-05
2727.37	1.85654e-05
2757.02	2.54175e-05
2786.66	3.4262e-05
2816.31	4.55068e-05
2845.95	5.96031e-05
2875.6	7.70459e-05
2905.24	9.83796e-05
2934.89	0.00012421
2964.53	0.000155231
2994.18	0.000192266
3023.82	0.000236336
3053.47	0.00028877
3083.11	0.000351352
3112.76	0.000426533
3142.4	0.000517717
3172.05	0.000629628
3201.69	0.000768782
3231.34	0.000944058
3260.98	0.00116739
3290.63	0.00145456
3320.27	0.00182611
3349.92	0.00230829
3379.56	0.00293406
3409.2	0.0037441
3438.85	0.00478766
3468.49	0.00612329
3498.14	0.00781926
3527.78	0.00995361
3557.43	0.0126137
3587.07	0.0158951
3616.72	0.0199001
3646.36	0.0247349
3676	0.0305066
3705.65	0.0373194
3735.29	0.0452697
3764.94	0.0544411
3794.58	0.064899
3824.23	0.0766849
3853.87	0.089811
3883.52	0.104255
3913.16	0.119957
3942.8	0.136814
3972.45	0.154681
4002.09	0.173367
4031.74	0.192639
4061.38	0.212227
4091.03	0.231823
4120.67	0.251092
4150.32	0.269677
4179.96	0.287213
4209.61	0.303331
4239.25	0.31767
4268.9	0.329891
4298.54	0.339682
4328.19	0.346771
4357.83	0.350932
4387.48	0.351993
4417.12	0.349841
4446.77	0.344425
4476.41	0.335756
4506.06	0.323911
4535.7	0.309025
4565.35	0.291291
4594.99	0.270951
4624.64	0.248294
4654.28	0.223643
4683.93	0.197352
4713.57	0.16979
4743.22	0.141339
4772.86	0.112381
4802.51	0.0832926
4832.15	0.0544344
4861.8	0.0261458
4891.45	-0.00126096
4921.09	-0.0275057
4950.74	-0.0523442
4980.38	-0.0755703
5010.03	-0.0970178
5039.67	-0.11656
5069.32	-0.134111
5098.96	-0.149622
5128.61	-0.163079
5158.25	-0.174501
5187.9	-0.183939
5217.54	-0.191466
5247.19	-0.197179
5276.83	-0.201193
5306.48	-0.203635
5336.12	-0.204644
5365.77	-0.204361
5395.41	-0.202935
5425.06	-0.20051
5454.7	-0.197229
5484.35	-0.193229
5513.99	-0.188639
5543.64	-0.183578
5573.28	-0.178156
5602.93	-0.172471
5632.57	-0.166611
5662.22	-0.16065
5691.86	-0.154652
5721.51	-0.148669
5751.15	-0.142744
5780.8	-0.13691
5810.45	-0.131188
5840.09	-0.125596
5869.74	-0.120144
5899.38	-0.114833
5929.03	-0.109663
5958.67	-0.104631
5988.32	-0.0997272
6017.96	-0.0949442
6047.61	-0.0902716
6077.25	-0.0856993
6106.9	-0.0812176
6136.54	-0.0768173
6166.19	-0.0724909
6195.83	-0.0682319
6225.48	-0.0640357
6255.12	-0.0598995
6284.77	-0.055822
6314.41	-0.0518036
6344.06	-0.0478463
6373.7	-0.0439533
6403.35	-0.0401288
6432.99	-0.036378
6462.64	-0.0327064
6492.29	-0.0291198
6521.93	-0.0256242
6551.58	-0.0222251
6581.22	-0.0189275
6610.87	-0.0157358
6640.51	-0.0126535
6670.16	-0.00968303
6699.8	-0.00682581
6729.45	-0.00408207
6759.09	-0.00145094
6788.74	0.00106955
6818.38	0.00348243
6848.03	0.0057916
6877.67	0.00800179
6907.32	0.0101183
6936.97	0.0121471
6966.61	0.0140941
6996.26	0.0159654
7025.9	0.0177673
7055.55	0.0195054
7085.19	0.0211851
7114.84	0.0228111
7144.48	0.0243874
7174.13	0.025917
7203.77	0.0274021
7233.42	0.0288439
7263.06	0.0302425
7292.71	0.031597
7322.35	0.0329053
7352	0.0341645
7381.64	0.0353707
7411.29	0.0365193
7440.94	0.0376047
7470.58	0.0386209
7500.23	0.0395614
7529.87	0.0404193
7559.52	0.0411874
7589.16	0.0418587
7618.81	0.0424261
7648.45	0.0428826
7678.1	0.0432217
7707.74	0.0434374
7737.39	0.0435241
7767.03	0.043477
7796.68	0.0432919
7826.32	0.0429655
7855.97	0.0424953
7885.61	0.0418796
7915.26	0.0411179
7944.91	0.0402102
7974.55	0.0391579
8004.2	0.0379628
8033.84	0.0366279
8063.49	0.035157
8093.13	0.0335546
8122.78	0.0318261
8152.42	0.0299774
8182.07	0.0280153
8211.71	0.0259469
8241.36	0.0237801
8271	0.021523
8300.65	0.0191844
8330.29	0.0167731
8359.94	0.0142984
8389.58	0.0117698
8419.23	0.00919687
8448.88	0.00658936
8478.52	0.00395703
8508.17	0.00130963
8537.81	-0.00134311
8567.46	-0.00399159
8597.1	-0.00662634
8626.75	-0.00923809
8656.39	-0.0118178
8686.04	-0.0143567
8715.68	-0.0168462
8745.33	-0.0192784
8774.97	-0.0216454
8804.62	-0.02394
8834.26	-0.0261551
8863.91	-0.0282844
8893.55	-0.030322
8923.2	-0.0322624
8952.85	-0.0341008
8982.49	-0.0358328
9012.14	-0.0374547
9041.78	-0.0389632
9071.43	-0.0403558
9101.07	-0.0416304
9130.72	-0.0427856
9160.36	-0.0438205
9190.01	-0.0447348
9219.65	-0.0455288
9249.3	-0.0462032
9278.94	-0.0467593
9308.59	-0.0471989
9338.23	-0.0475242
9367.88	-0.0477379
9397.52	-0.0478429
9427.17	-0.0478427
9456.81	-0.0477409
9486.46	-0.0475415
9516.11	-0.0472485
9545.75	-0.0468665
9575.4	-0.0463998
9605.04	-0.045853
9634.69	-0.0452308
9664.33	-0.0445378
9693.98	-0.0437786
9723.62	-0.0429577
9753.27	-0.0420796
9782.91	-0.0411487
9812.56	-0.0401692
9842.2	-0.039145
9871.85	-0.0380801
9901.49	-0.0369781
9931.14	-0.0358424
9960.78	-0.0346763
9990.43	-0.0334827
10020.1	-0.0322645
10049.7	-0.0310241
10079.4	-0.029764
10109	-0.0284864
10138.7	-0.0271931
10168.3	-0.025886
10197.9	-0.0245666
10227.6	-0.0232366
10257.2	-0.0218971
10286.9	-0.0205495
10316.5	-0.0191948
10346.2	-0.0178343
10375.8	-0.0164687
10405.5	-0.0150992
10435.1	-0.0137267
10464.8	-0.012352
10494.4	-0.0109762
10524	-0.00960008
10553.7	-0.00822476
10583.3	-0.00685122
10613	-0.00548054
10642.6	-0.00411385
10672.3	-0.00275234
10701.9	-0.00139729
10731.6	-5.00357e-05
10761.2	0.00128802
10790.9	0.00261537
10820.5	0.00393048
10850.1	0.00523169
10879.8	0.00651732
10909.4	0.00778559
10939.1	0.00903468
10968.7	0.0102627
10998.4	0.0114678
11028	0.0126479
11057.7	0.0138011
11087.3	0.0149254
11117	0.0160188
11146.6	0.0170792
11176.2	0.0181046
11205.9	0.0190931
11235.5	0.0200428
11265.2	0.0209517
11294.8	0.0218179
11324.5	0.0226398
11354.1	0.0234156
11383.8	0.0241436
11413.4	0.0248223
11443	0.0254504
11472.7	0.0260264
11502.3	0.0265492
11532	0.0270177
11561.6	0.0274309
11591.3	0.027788
11620.9	0.0280882
11650.6	0.0283311
11680.2	0.0285161
11709.9	0.0286429
11739.5	0.0287115
11769.1	0.0287217
11798.8	0.0286737
11828.4	0.0285676
11858.1	0.0284039
11887.7	0.0281829
11917.4	0.0279053
11947	0.0275717
11976.7	0.027183
12006.3	0.02674
12036	0.0262437
12065.6	0.0256952
12095.2	0.0250957
12124.9	0.0244464
12154.5	0.0237487
12184.2	0.0230039
12213.8	0.0222136
12243.5	0.0213793
12273.1	0.0205026
12302.8	0.0195853
12332.4	0.018629
12362.1	0.0176356
12391.7	0.016607
12421.3	0.0155451
12451	0.014452
12480.6	0.0133297
12510.3	0.0121803
12539.9	0.0110062
12569.6	0.00980944
12599.2	0.00859246
12628.9	0.00735762
12658.5	0.00610736
12688.2	0.00484417
12717.8	0.0035706
12747.4	0.00228922
12777.1	0.00100266
12806.7	-0.000286412
12836.4	-0.00157531
12866	-0.00286132
12895.7	-0.00414173
12925.3	-0.0054138
12955	-0.00667482
12984.6	-0.00792207
13014.3	-0.00915287
13043.9	-0.0103646
13073.5	-0.0115546
13103.2	-0.0127203
13132.8	-0.0138593
13162.5	-0.0149691
13192.1	-0.0160475
13221.8	-0.0170923
13251.4	-0.0181012
13281.1	-0.0190724
13310.7	-0.0200039
13340.4	-0.020894
13370	-0.0217412
13399.6	-0.022544
13429.3	-0.023301
13458.9	-0.0240113
13488.6	-0.0246737
13518.2	-0.0252875
13547.9	-0.0258521
13577.5	-0.0263669
13607.2	-0.0268316
13636.8	-0.0272461
13666.4	-0.0276104
13696.1	-0.0279247
13725.7	-0.0281892
13755.4	-0.0284044
13785	-0.0285709
13814.7	-0.0286895
13844.3	-0.0287609
13874	-0.0287863
13903.6	-0.0287666
13933.3	-0.0287031
13962.9	-0.028597
13992.5	-0.0284498
14022.2	-0.0282629
14051.8	-0.0280379
14081.5	-0.0277762
14111.1	-0.0274797
14140.8	-0.0271499
14170.4	-0.0267887
14200.1	-0.0263977
14229.7	-0.0259789
14259.4	-0.025534
14289	-0.0250649
14318.6	-0.0245733
14348.3	-0.0240612
14377.9	-0.0235305
14407.6	-0.0229828
14437.2	-0.0224202
14466.9	-0.0218443
14496.5	-0.0212571
14526.2	-0.0206602
14555.8	-0.0200555
14585.5	-0.0194447
14615.1	-0.0188295
14644.7	-0.0182116
14674.4	-0.0175927
14704	-0.0169742
14733.7	-0.016358
14763.3	-0.0157454
14793	-0.0151381
14822.6	-0.0145374
14852.3	-0.0139449
14881.9	-0.0133619
14911.6	-0.0127897
14941.2	-0.0122297
14970.8	-0.0116832
15000.5	-0.0111512
15030.1	-0.0106351
15059.8	-0.010136
15089.4	-0.00965476
15119.1	-0.00919255
15148.7	-0.00875028
15178.4	-0.00832884
15208	-0.00792907
15237.7	-0.00755174
15267.3	-0.00719755
15296.9	-0.00686716
15326.6	-0.00656113
15356.2	-0.00627998
15385.9	-0.00602414
15415.5	-0.00579398
15445.2	-0.00558978
15474.8	-0.00541175
15504.5	-0.00526003
15534.1	-0.00513466
15563.7	-0.00503562
15593.4	-0.0049628
15623	-0.00491599
15652.7	-0.00489491
15682.3	-0.00489918
15712	-0.00492836
15741.6	-0.00498188
15771.3	-0.00505912
15800.9	-0.00515934
15830.6	-0.00528174
15860.2	-0.00542541
15889.8	-0.00558938
15919.5	-0.00577255
15949.1	-0.0059738
15978.8	-0.00619187
16008.4	-0.00642546
16038.1	-0.00667319
16067.7	-0.0069336
16097.4	-0.00720517
16127	-0.00748634
16156.7	-0.00777546
16186.3	-0.00807085
16215.9	-0.00837081
16245.6	-0.00867356
16275.2	-0.00897734
16304.9	-0.00928033
16334.5	-0.00958074
16364.2	-0.00987674
16393.8	-0.0101665
16423.5	-0.0104483
16453.1	-0.0107204
16482.8	-0.010981
16512.4	-0.0112284
16542	-0.0114611
16571.7	-0.0116774
16601.3	-0.0118759
16631	-0.0120552
16660.6	-0.012214
16690.3	-0.0123511
16719.9	-0.0124654
16749.6	-0.0125559
16779.2	-0.0126218
16808.9	-0.0126623
16838.5	-0.0126769
16868.1	-0.0126652
16897.8	-0.0126268
16927.4	-0.0125615
16957.1	-0.0124695
16986.7	-0.0123508
17016.4	-0.0122057
17046	-0.0120347
17075.7	-0.0118384
17105.3	-0.0116175
17135	-0.011373
17164.6	-0.0111057
17194.2	-0.010817
17223.9	-0.010508
17253.5	-0.0101801
17283.2	-0.00983483
17312.8	-0.00947374
17342.5	-0.0090985
17372.1	-0.00871083
17401.8	-0.00831255
17431.4	-0.0079055
17461	-0.00749155
17490.7	-0.00707263
17520.3	-0.00665063
17550	-0.00622749
17579.6	-0.0058051
17609.3	-0.00538534
17638.9	-0.00497003
17668.6	-0.00456095
17698.2	-0.00415982
17727.9	-0.00376827
17757.5	-0.00338786
17787.1	-0.00302002
17816.8	-0.0026661
17846.4	-0.00232733
17876.1	-0.0020048
17905.7	-0.00169948
17935.4	-0.0014122
17965	-0.00114364
17994.7	-0.000894349
18024.3	-0.000664712
18054	-0.000454965
18083.6	-0.000265195
18113.2	-9.53329e-05
18142.9	5.4838e-05
18172.5	0.000185684
18202.2	0.000297714
18231.8	0.000391578
18261.5	0.00046806
18291.1	0.000528069
18320.8	0.000572638
18350.4	0.000602906
18380.1	0.000620118
18409.7	0.000625611
18439.3	0.000620803
18469	0.000607183
18498.6	0.000586301
18528.3	0.000559754
18557.9	0.000529176
18587.6	0.000496222
18617.2	0.000462562
18646.9	0.000429863
18676.5	0.000399779
18706.2	0.000373942
18735.8	0.000353944
18765.4	0.00034133
18795.1	0.000337589
18824.7	0.000344138
18854.4	0.000362317
18884	0.000393377
18913.7	0.000438475
18943.3	0.000498664
18973	0.000574886
19002.6	0.000667969
19032.3	0.000778617
19061.9	0.000907413
19091.5	0.00105481
19121.2	0.00122113
19150.8	0.00140658
19180.5	0.0016112
19210.1	0.00183493
19239.8	0.00207759
19269.4	0.00233884
19299.1	0.00261824
19328.7	0.00291523
19358.3	0.00322913
19388	0.00355916
19417.6	0.00390444
19447.3	0.00426399
19476.9	0.00463675
19506.6	0.00502157
19536.2	0.00541725
19565.9	0.00582249
19595.5	0.00623599
19625.2	0.00665637
19654.8	0.00708222
19684.4	0.00751211
19714.1	0.00794459
19743.7	0.00837821
19773.4	0.00881152
19803	0.00924307
19832.7	0.00967143
19862.3	0.0100952
19892	0.010513
19921.6	0.0109235
19951.3	0.0113255
19980.9	0.0117177
