0	0
13.1317	0
22.9804	0
32.8292	0
42.6779	0
52.5267	0
62.3754	0
72.2242	0
82.0729	0
91.9217	0
101.77	0
111.619	0
121.468	0
131.317	0
141.165	0
151.014	0
160.863	0
170.712	0
180.56	0
190.409	0
200.258	0
210.107	0
223.238	0
233.087	0
242.936	0
252.785	0
262.633	0
272.482	0
282.331	0
292.18	0
302.028	0
311.877	0
321.726	0
331.575	0
341.423	0
351.272	0
361.121	0
370.97	0
380.818	0
390.667	0
400.516	0
410.365	0
420.213	0
430.062	0
443.194	0
453.043	0
462.891	0
472.74	0
482.589	0
492.438	0
502.286	0
512.135	0
521.984	0
531.833	0
541.681	0
551.53	0
561.379	0
571.228	0
581.076	0
590.925	0
600.774	0
610.623	0
620.471	0
630.32	0
640.169	0
650.018	0
663.149	0
672.998	0
682.847	0
692.696	0
702.544	0
712.393	0
722.242	0
732.091	0
741.939	0
751.788	0
761.637	0
771.486	0
781.334	0
791.183	0
801.032	0
810.881	0
820.729	0
830.578	0
840.427	0
850.276	0
860.124	0
873.256	0
883.105	0
892.954	0
902.802	0
912.651	0
922.5	0
932.349	0
942.197	0
952.046	0
961.895	0
971.744	0
981.592	0
991.441	0
1001.29	0
1011.14	0
1020.99	0
1030.84	0
1040.68	0
1050.53	0
1060.38	0
1070.23	0
1080.08	0
1093.21	0
1103.06	0
1112.91	0
1122.76	0
1132.61	0
1142.46	0
1152.3	0
1162.15	0
1172	0
1181.85	0
1191.7	0
1201.55	0
1211.4	0
1221.25	0
1231.09	0
1240.94	0
1250.79	0
1260.64	0
1270.49	0
1280.34	0
1290.19	0
1300.04	0
1313.17	0
1323.02	0
1332.86	0
1342.71	0
1352.56	0
1362.41	0
1372.26	0
1382.11	0
1391.96	0
1401.81	0
1411.65	0
1421.5	0
1431.35	0
1441.2	0
1451.05	0
1460.9	0
1470.75	0
1480.6	0
1490.44	0
1500.29	0
1510.14	0
1523.27	0
1533.12	0
1542.97	0
1552.82	0
1562.67	0
1572.52	0
1582.37	0
1592.21	0
1602.06	0
1611.91	0
1621.76	0
1631.61	0
1641.46	0
1651.31	0
1661.16	0
1671	0
1680.85	0
1690.7	0
1700.55	0
1710.4	0
1720.25	0
1730.1	0
1743.23	0
1753.08	0
1762.93	0
1772.78	0
1782.62	0
1792.47	0
1802.32	0
1812.17	0
1822.02	0
1831.87	0
1841.72	0
1851.57	0
1861.41	0
1871.26	0
1881.11	0
1890.96	0
1900.81	0
1910.66	0
1920.51	0
1930.36	0
1940.2	0
1950.05	0
1963.18	0
1973.03	0
1982.88	0
1992.73	0
2002.58	0
2012.43	0
2022.28	0
2032.13	0
2041.97	0
2051.82	0
2061.67	0
2071.52	0
2081.37	0
2091.22	0
2101.07	0
2110.92	0
2120.76	0
2130.61	0
2140.46	0
2150.31	0
2160.16	0
2170.01	0
2183.14	0
2192.99	0
2202.84	0
2212.69	0
2222.54	0
2232.38	0
2242.23	0
2252.08	0
2261.93	0
2271.78	0
2281.63	0
2291.48	0
2301.33	0
2311.17	0
2321.02	0
2330.87	0
2340.72	0
2350.57	0
2360.42	0
2370.27	0
2380.12	0
2393.25	0
2403.1	0
2412.94	0
2422.79	0
2432.64	0
2442.49	0
2452.34	0
2462.19	0
2472.04	0
2481.89	0
2491.73	0
2501.58	0
2511.43	0
2521.28	0
2531.13	0
2540.98	0
2550.83	0
2560.68	0
2570.52	0
2580.37	0
2590.22	0
2600.07	0
2613.2	0
2623.05	0
2632.9	0
2642.75	0
2652.6	0
2662.45	0
2672.29	0
2682.14	0
2691.99	0
2701.84	0
2711.69	0
2721.54	0
2731.39	0
2741.24	0
2751.08	0
2760.93	0
2770.78	0
2780.63	0
2790.48	0
2800.33	9.09495e-13
2810.18	1.81899e-12
2820.03	3.63798e-12
2833.16	1.00044e-11
2843.01	1.72804e-11
2852.85	2.91038e-11
2862.7	5.00222e-11
2872.55	8.36735e-11
2882.4	1.39153e-10
2892.25	2.28283e-10
2902.1	3.70164e-10
2911.95	5.939e-10
2921.8	9.40418e-10
2931.64	1.47611e-09
2941.49	2.29284e-09
2951.34	3.52702e-09
2961.19	5.37239e-09
2971.04	8.10269e-09
2980.89	1.21072e-08
2990.74	1.79225e-08
3000.58	2.62871e-08
3010.43	3.82088e-08
3020.28	5.50417e-08
3030.13	7.85958e-08
3043.26	1.24689e-07
3053.11	1.74515e-07
3062.96	2.4221e-07
3072.81	3.33401e-07
3082.66	4.55206e-07
3092.5	6.16552e-07
3102.35	8.28523e-07
3112.2	1.10476e-06
3122.05	1.46187e-06
3131.9	1.91992e-06
3141.75	2.50289e-06
3151.6	3.23919e-06
3161.44	4.16217e-06
3171.29	5.31057e-06
3181.14	6.72906e-06
3190.99	8.46856e-06
3200.84	1.05866e-05
3210.69	1.31476e-05
3220.54	1.6223e-05
3230.38	1.98911e-05
3240.23	2.42371e-05
3250.08	2.93525e-05
3263.21	3.75391e-05
3273.06	4.48373e-05
3282.91	5.32478e-05
3292.76	6.28809e-05
3302.61	7.38481e-05
3312.46	8.62601e-05
3322.3	0.000100226
3332.15	0.000115849
3342	0.00013323
3351.85	0.000152457
3361.7	0.000173613
3371.55	0.000196765
3381.39	0.00022197
3391.24	0.000249267
3401.09	0.000278682
3410.94	0.000310221
3420.79	0.000343873
3430.64	0.00037961
3440.48	0.000417385
3450.33	0.000457134
3460.18	0.000498776
3470.03	0.000542216
3483.16	0.000602742
3493.01	0.000649936
3502.86	0.000698528
3512.71	0.000748384
3522.55	0.000799369
3532.4	0.000851349
3542.25	0.000904199
3552.1	0.000957798
3561.95	0.00101204
3571.79	0.00106684
3581.64	0.00112211
3591.49	0.00117781
3601.34	0.00123391
3611.19	0.00129039
3621.04	0.00134727
3630.88	0.00140459
3640.73	0.00146242
3650.58	0.00152085
3660.43	0.00157997
3670.28	0.00163992
3680.13	0.00170085
3693.26	0.00178388
3703.1	0.00184773
3712.95	0.00191314
3722.8	0.00198029
3732.65	0.0020494
3742.5	0.00212067
3752.35	0.00219431
3762.19	0.00227056
3772.04	0.00234964
3781.89	0.0024318
3791.74	0.00251734
3801.59	0.00260655
3811.43	0.00269981
3821.28	0.00279752
3831.13	0.00290019
3840.98	0.00300843
3850.83	0.00312295
3860.68	0.00324465
3870.52	0.0033746
3880.37	0.0035141
3890.22	0.00366473
3900.07	0.0038284
3913.2	0.0040709
3923.05	0.00427464
3932.9	0.00450088
3942.74	0.0047537
3952.59	0.00503786
3962.44	0.00535898
3972.29	0.00572357
3982.14	0.00613923
3991.99	0.00661469
4001.83	0.00716003
4011.68	0.00778675
4021.53	0.00850797
4031.38	0.00933855
4041.23	0.0102953
4051.08	0.0113969
4060.93	0.0126644
4070.77	0.0141212
4080.62	0.0157928
4090.47	0.0177075
4100.32	0.019896
4110.17	0.0223916
4120.02	0.0252302
4133.15	0.0296148
4143	0.0334062
4152.84	0.0376767
4162.69	0.0424712
4172.54	0.0478364
4182.39	0.0538195
4192.24	0.0604682
4202.09	0.0678304
4211.94	0.0759528
4221.78	0.0848808
4231.63	0.0946573
4241.48	0.105322
4251.33	0.116912
4261.18	0.129457
4271.03	0.142982
4280.88	0.157508
4290.73	0.173043
4300.57	0.189593
4310.42	0.20715
4320.27	0.225698
4330.12	0.245212
4343.25	0.272666
4353.1	0.294268
4362.95	0.316669
4372.8	0.339792
4382.65	0.363553
4392.5	0.387854
4402.35	0.412587
4412.19	0.437635
4422.04	0.462872
4431.89	0.488163
4441.74	0.513367
4451.59	0.538336
4461.44	0.562919
4471.29	0.58696
4481.13	0.610304
4490.98	0.632795
4500.83	0.654278
4510.68	0.674601
4520.53	0.693619
4530.38	0.711191
4540.23	0.727185
4550.08	0.741477
4563.21	0.757694
4573.06	0.767598
4582.9	0.77547
4592.75	0.781241
4602.6	0.784852
4612.45	0.786262
4622.3	0.785443
4632.15	0.782382
4642	0.77708
4651.85	0.769554
4661.69	0.759833
4671.54	0.74796
4681.39	0.733991
4691.24	0.717992
4701.09	0.700042
4710.94	0.680228
4720.79	0.658646
4730.63	0.635399
4740.48	0.610596
4750.33	0.584353
4760.18	0.556788
4770.03	0.528023
4783.16	0.488017
4793.01	0.456935
4802.86	0.425068
4812.71	0.392538
4822.56	0.35947
4832.4	0.325981
4842.25	0.29219
4852.1	0.258209
4861.95	0.22415
4871.8	0.190117
4881.65	0.156213
4891.5	0.122536
4901.35	0.08918
4911.19	0.056233
4921.04	0.0237799
4930.89	-0.00809913
4940.74	-0.0393283
4950.59	-0.0698364
4960.44	-0.0995562
4970.29	-0.128425
4980.14	-0.156385
4993.27	-0.192156
5003.12	-0.217789
5012.96	-0.242347
5022.81	-0.265791
5032.66	-0.288082
5042.51	-0.30919
5052.36	-0.329086
5062.21	-0.347746
5072.06	-0.365149
5081.91	-0.381282
5091.75	-0.396131
5101.6	-0.409691
5111.45	-0.421958
5121.3	-0.432934
5131.15	-0.442625
5141	-0.45104
5150.85	-0.458193
5160.7	-0.464103
5170.54	-0.468791
5180.39	-0.472284
5190.24	-0.47461
5200.09	-0.475803
5213.22	-0.475695
5223.07	-0.47439
5232.92	-0.472086
5242.77	-0.468827
5252.62	-0.464662
5262.47	-0.459641
5272.31	-0.453815
5282.16	-0.447239
5292.01	-0.439967
5301.86	-0.432055
5311.71	-0.423557
5321.56	-0.414532
5331.41	-0.405034
5341.26	-0.395121
5351.1	-0.384846
5360.95	-0.374265
5370.8	-0.363432
5380.65	-0.352397
5390.5	-0.341212
5400.35	-0.329926
5410.2	-0.318585
5420.05	-0.307233
5433.18	-0.292154
5443.03	-0.280938
5452.87	-0.269844
5462.72	-0.258905
5472.57	-0.248153
5482.42	-0.237616
5492.27	-0.22732
5502.12	-0.217289
5511.97	-0.207544
5521.82	-0.198103
5531.66	-0.188981
5541.51	-0.180193
5551.36	-0.171749
5561.21	-0.163658
5571.06	-0.155927
5580.91	-0.148561
5590.76	-0.141564
5600.61	-0.134937
5610.45	-0.128679
5620.3	-0.122791
5630.15	-0.117269
5640	-0.112109
5653.13	-0.105786
5662.98	-0.101453
5672.83	-0.097465
5682.68	-0.0938142
5692.53	-0.0904933
5702.38	-0.0874945
5712.22	-0.0848095
5722.07	-0.0824297
5731.92	-0.0803465
5741.77	-0.0785509
5751.62	-0.0770338
5761.47	-0.0757858
5771.32	-0.0747977
5781.17	-0.0740598
5791.01	-0.0735625
5800.86	-0.073296
5810.71	-0.0732504
5820.56	-0.0734157
5830.41	-0.0737815
5840.26	-0.0743374
5850.11	-0.0750727
5863.24	-0.0763134
5873.09	-0.0774247
5882.94	-0.0786782
5892.78	-0.0800622
5902.63	-0.0815647
5912.48	-0.0831734
5922.33	-0.0848758
5932.18	-0.0866592
5942.03	-0.0885106
5951.88	-0.0904168
5961.73	-0.0923644
5971.57	-0.0943399
5981.42	-0.0963299
5991.27	-0.0983206
6001.12	-0.100298
6010.97	-0.10225
6020.82	-0.104162
6030.67	-0.10602
6040.52	-0.107813
6050.36	-0.109528
6060.21	-0.111151
6070.06	-0.112672
6083.19	-0.114522
6093.04	-0.115761
6102.89	-0.116863
6112.74	-0.117819
6122.59	-0.118619
6132.44	-0.119258
6142.29	-0.119728
6152.13	-0.120024
6161.98	-0.120141
6171.83	-0.120076
6181.68	-0.119825
6191.53	-0.119387
6201.38	-0.118761
6211.23	-0.117947
6221.08	-0.116947
6230.92	-0.115762
6240.77	-0.114396
6250.62	-0.112851
6260.47	-0.111134
6270.32	-0.109249
6280.17	-0.107202
6290.02	-0.105001
6303.15	-0.101838
6313	-0.0993053
6322.85	-0.096645
6332.7	-0.0938659
6342.54	-0.0909774
6352.39	-0.0879893
6362.24	-0.0849113
6372.09	-0.0817535
6381.94	-0.078526
6391.79	-0.0752389
6401.64	-0.0719021
6411.49	-0.0685257
6421.33	-0.0651194
6431.18	-0.0616928
6441.03	-0.0582552
6450.88	-0.0548156
6460.73	-0.0513827
6470.58	-0.0479648
6480.43	-0.0445697
6490.28	-0.0412051
6500.12	-0.037878
6513.26	-0.0335116
6523.1	-0.0302971
6532.95	-0.0271404
6542.8	-0.0240468
6552.65	-0.0210209
6562.5	-0.0180671
6572.35	-0.0151893
6582.2	-0.012391
6592.05	-0.00967535
6601.89	-0.00704522
6611.74	-0.00450312
6621.59	-0.0020513
6631.44	0.000308239
6641.29	0.00257372
6651.14	0.00474356
6660.99	0.00681634
6670.84	0.0087908
6680.68	0.0106658
6690.53	0.0124402
6700.38	0.0141132
6710.23	0.0156837
6720.08	0.0171509
6733.21	0.0189452
6743.06	0.0201685
6752.91	0.0212859
6762.76	0.0222968
6772.61	0.0232006
6782.45	0.0239967
6792.3	0.0246846
6802.15	0.025264
6812	0.0257344
6821.85	0.0260957
6831.7	0.0263478
6841.55	0.0264909
6851.4	0.0265251
6861.24	0.0264511
6871.09	0.0262693
6880.94	0.0259809
6890.79	0.025587
6900.64	0.0250889
6910.49	0.0244885
6920.34	0.0237877
6930.19	0.0229889
6940.03	0.0220946
6953.17	0.0207588
6963.02	0.0196536
6972.86	0.0184638
6982.71	0.0171933
6992.56	0.0158461
7002.41	0.0144267
7012.26	0.0129397
7022.11	0.0113899
7031.96	0.00978253
7041.8	0.00812264
7051.65	0.00641566
7061.5	0.00466709
7071.35	0.00288255
7081.2	0.00106772
7091.05	-0.000771645
7100.9	-0.00262976
7110.75	-0.00450083
7120.59	-0.00637907
7130.44	-0.00825871
7140.29	-0.010134
7150.14	-0.0119994
7163.27	-0.0144614
7173.12	-0.016282
7182.97	-0.0180743
7192.82	-0.0198332
7202.67	-0.0215536
7212.52	-0.0232303
7222.36	-0.0248586
7232.21	-0.0264338
7242.06	-0.0279511
7251.91	-0.0294063
7261.76	-0.0307949
7271.61	-0.0321128
7281.46	-0.033356
7291.31	-0.0345206
7301.15	-0.0356028
7311	-0.0365991
7320.85	-0.0375061
7330.7	-0.0383204
7340.55	-0.0390391
7350.4	-0.0396591
7360.25	-0.0401776
7370.09	-0.0405921
7383.23	-0.0409788
7393.07	-0.0411415
7402.92	-0.0411927
7412.77	-0.0411309
7422.62	-0.0409543
7432.47	-0.0406618
7442.32	-0.040252
7452.17	-0.0397243
7462.01	-0.0390779
7471.86	-0.0383125
7481.71	-0.037428
7491.56	-0.0364245
7501.41	-0.0353025
7511.26	-0.0340627
7521.11	-0.032706
7530.95	-0.0312339
7540.8	-0.0296478
7550.65	-0.0279496
7560.5	-0.0261416
7570.35	-0.0242263
7580.2	-0.0222063
7590.05	-0.020085
7603.18	-0.0171045
7613.03	-0.0147601
7622.88	-0.0123267
7632.72	-0.00980871
7642.57	-0.00721071
7652.42	-0.00453762
7662.27	-0.00179462
7672.12	0.0010129
7681.97	0.00387931
7691.82	0.00679876
7701.66	0.00976521
7711.51	0.0127725
7721.36	0.0158141
7731.21	0.0188837
7741.06	0.0219746
7750.91	0.0250802
7760.76	0.0281936
7770.6	0.0313081
7780.45	0.0344169
7790.3	0.0375132
7800.15	0.0405904
7813.28	0.0446521
7823.13	0.0476591
7832.98	0.0506255
7842.83	0.0535451
7852.68	0.0564121
7862.52	0.0592209
7872.37	0.0619662
7882.22	0.0646429
7892.07	0.0672464
7901.92	0.0697722
7911.77	0.0722165
7921.62	0.0745757
7931.46	0.0768465
7941.31	0.0790262
7951.16	0.0811125
7961.01	0.0831035
7970.86	0.0849976
7980.71	0.0867938
7990.56	0.0884914
8000.4	0.0900903
8010.25	0.0915905
8020.1	0.0929925
8033.23	0.0947108
8043.08	0.0958879
8052.93	0.0969709
8062.78	0.097962
8072.63	0.098863
8082.48	0.0996765
8092.33	0.100405
8102.17	0.101051
8112.02	0.101617
8121.87	0.102107
8131.72	0.102523
8141.57	0.102867
8151.42	0.103144
8161.27	0.103356
8171.11	0.103506
8180.96	0.103596
8190.81	0.103629
8200.66	0.103609
8210.51	0.103536
8220.36	0.103414
8230.21	0.103245
8240.05	0.10303
8253.19	0.102677
8263.04	0.102364
8272.88	0.102011
8282.73	0.10162
8292.58	0.101192
8302.43	0.100728
8312.28	0.10023
8322.13	0.0996974
8331.98	0.0991319
8341.82	0.0985343
8351.67	0.0979052
8361.52	0.0972453
8371.37	0.0965554
8381.22	0.0958361
8391.07	0.095088
8400.92	0.0943118
8410.77	0.0935081
8420.61	0.0926776
8430.46	0.0918211
8440.31	0.0909393
8450.16	0.0900328
8460.01	0.0891025
8473.14	0.0878264
8482.99	0.0868436
8492.84	0.0858397
8502.69	0.0848154
8512.54	0.0837715
8522.38	0.0827089
8532.23	0.0816282
8542.08	0.0805303
8551.93	0.0794156
8561.78	0.0782848
8571.63	0.0771384
8581.48	0.0759767
8591.33	0.0748002
8601.17	0.0736089
8611.02	0.072403
8620.87	0.0711824
8630.72	0.0699469
8640.57	0.0686963
8650.42	0.06743
8660.27	0.0661475
8670.12	0.0648482
8683.25	0.0630881
8693.1	0.0617459
8702.94	0.0603837
8712.79	0.0590003
8722.64	0.0575944
8732.49	0.0561648
8742.34	0.0547099
8752.19	0.0532285
8762.04	0.0517191
8771.89	0.0501804
8781.73	0.048611
8791.58	0.0470095
8801.43	0.0453748
8811.28	0.0437056
8821.13	0.0420009
8830.98	0.0402598
8840.83	0.0384816
8850.68	0.0366657
8860.52	0.0348115
8870.37	0.0329191
8880.22	0.0309882
8890.07	0.0290193
8903.2	0.0263355
8913.05	0.0242797
8922.9	0.0221883
8932.75	0.0200624
8942.6	0.0179036
8952.45	0.0157136
8962.29	0.0134945
8972.14	0.0112483
8981.99	0.0089776
8991.84	0.0066849
9001.69	0.00437304
9011.54	0.00204501
9021.39	-0.000296075
9031.24	-0.00264693
9041.08	-0.00500418
9050.93	-0.00736432
9060.78	-0.0097238
9070.63	-0.012079
9080.48	-0.0144263
9090.33	-0.0167619
9100.18	-0.0190823
9110.03	-0.0213838
9123.16	-0.0244168
9133.01	-0.0266602
9142.85	-0.0288731
9152.7	-0.0310519
9162.55	-0.0331935
9172.4	-0.0352948
9182.25	-0.0373527
9192.1	-0.0393646
9201.95	-0.0413276
9211.8	-0.0432392
9221.64	-0.0450971
9231.49	-0.046899
9241.34	-0.0486428
9251.19	-0.0503267
9261.04	-0.0519488
9270.89	-0.0535077
9280.74	-0.0550018
9290.59	-0.05643
9300.43	-0.0577911
9310.28	-0.0590841
9320.13	-0.0603083
9333.26	-0.0618323
9343.11	-0.0628935
9352.96	-0.0638842
9362.81	-0.0648042
9372.66	-0.0656534
9382.51	-0.066432
9392.36	-0.0671402
9402.2	-0.0677784
9412.05	-0.068347
9421.9	-0.0688468
9431.75	-0.0692785
9441.6	-0.069643
9451.45	-0.0699415
9461.3	-0.0701751
9471.15	-0.0703453
9480.99	-0.0704534
9490.84	-0.0705013
9500.69	-0.0704905
9510.54	-0.0704231
9520.39	-0.0703012
9530.24	-0.0701268
9540.09	-0.0699023
9553.22	-0.0695293
9563.07	-0.0691976
9572.92	-0.0688242
9582.76	-0.0684119
9592.61	-0.0679636
9602.46	-0.0674822
9612.31	-0.0669704
9622.16	-0.0664314
9632.01	-0.0658681
9641.86	-0.0652835
9651.71	-0.0646804
9661.55	-0.0640619
9671.4	-0.0634309
9681.25	-0.06279
9691.1	-0.0621421
9700.95	-0.0614898
9710.8	-0.0608356
9720.65	-0.0601819
9730.5	-0.0595309
9740.34	-0.0588848
9750.19	-0.0582454
9760.04	-0.0576146
9773.17	-0.0567895
9783.02	-0.0561844
9792.87	-0.0555926
9802.72	-0.0550148
9812.57	-0.054452
9822.42	-0.0539047
9832.27	-0.0533734
9842.11	-0.0528584
9851.96	-0.0523597
9861.81	-0.0518774
9871.66	-0.0514112
9881.51	-0.0509608
9891.36	-0.0505258
9901.21	-0.0501057
9911.06	-0.0496998
9920.9	-0.0493074
9930.75	-0.0489278
9940.6	-0.0485601
9950.45	-0.0482036
9960.3	-0.0478573
9970.15	-0.0475204
9983.28	-0.0470844
9993.13	-0.0467662
10003	-0.0464546
10012.8	-0.0461489
10022.7	-0.0458485
10032.5	-0.0455526
10042.4	-0.0452608
10052.2	-0.0449725
10062.1	-0.0446874
10071.9	-0.0444052
10081.8	-0.0441255
10091.6	-0.0438482
10101.5	-0.0435734
10111.3	-0.0433008
10121.2	-0.0430307
10131	-0.0427633
10140.9	-0.0424987
10150.7	-0.0422372
10160.6	-0.0419793
10170.4	-0.0417253
10180.3	-0.0414757
10190.1	-0.0412312
10203.2	-0.0409138
10213.1	-0.0406832
10222.9	-0.0404596
10232.8	-0.0402438
10242.6	-0.0400364
10252.5	-0.0398382
10262.3	-0.0396499
10272.2	-0.0394723
10282	-0.0393062
10291.9	-0.0391522
10301.7	-0.0390111
10311.6	-0.0388838
10321.4	-0.0387709
10331.3	-0.0386731
10341.1	-0.0385913
10351	-0.038526
10360.8	-0.0384779
10370.7	-0.0384478
10380.5	-0.0384362
10390.4	-0.0384439
10400.2	-0.0384712
10410.1	-0.0385188
10423.2	-0.0386148
10433	-0.0387118
10442.9	-0.0388306
10452.7	-0.0389716
10462.6	-0.0391353
10472.4	-0.0393218
10482.3	-0.0395314
10492.1	-0.0397643
10502	-0.0400206
10511.8	-0.0403004
10521.7	-0.0406037
10531.5	-0.0409303
10541.4	-0.0412803
10551.2	-0.0416533
10561.1	-0.0420492
10570.9	-0.0424675
10580.8	-0.0429078
10590.6	-0.0433697
10600.5	-0.0438526
10610.3	-0.0443559
10620.2	-0.0448788
10630	-0.0454206
10643.1	-0.0461709
10653	-0.0467534
10662.8	-0.0473516
10672.7	-0.0479646
10682.5	-0.0485913
10692.4	-0.0492304
10702.2	-0.0498808
10712.1	-0.0505412
10721.9	-0.0512103
10731.8	-0.0518868
10741.6	-0.0525692
10751.5	-0.0532563
10761.3	-0.0539466
10771.2	-0.0546386
10781	-0.0553309
10790.9	-0.056022
10800.7	-0.0567105
10810.6	-0.0573948
10820.4	-0.0580736
10830.3	-0.0587453
10840.1	-0.0594086
10853.3	-0.0602771
10863.1	-0.0609147
10872.9	-0.0615391
10882.8	-0.0621486
10892.6	-0.062742
10902.5	-0.0633179
10912.3	-0.0638748
10922.2	-0.0644115
10932	-0.0649265
10941.9	-0.0654186
10951.7	-0.0658865
10961.6	-0.0663289
10971.4	-0.0667444
10981.3	-0.067132
10991.1	-0.0674903
11001	-0.0678181
11010.8	-0.0681143
11020.7	-0.0683776
11030.5	-0.068607
11040.4	-0.0688014
11050.2	-0.0689595
11060.1	-0.0690804
11073.2	-0.0691819
11083.1	-0.0692118
11092.9	-0.0692012
11102.8	-0.0691489
11112.6	-0.0690542
11122.4	-0.0689161
11132.3	-0.0687339
11142.1	-0.0685067
11152	-0.0682338
11161.8	-0.0679145
11171.7	-0.0675482
11181.5	-0.0671343
11191.4	-0.0666723
11201.2	-0.0661616
11211.1	-0.0656019
11220.9	-0.0649929
11230.8	-0.0643343
11240.6	-0.0636258
11250.5	-0.0628674
11260.3	-0.0620589
11270.2	-0.0612004
11280	-0.060292
11293.2	-0.0590033
11303	-0.0579791
11312.9	-0.0569057
11322.7	-0.0557836
11332.6	-0.0546132
11342.4	-0.0533951
11352.3	-0.05213
11362.1	-0.0508184
11372	-0.0494612
11381.8	-0.0480591
11391.6	-0.0466132
11401.5	-0.0451242
11411.3	-0.0435933
11421.2	-0.0420216
11431	-0.04041
11440.9	-0.0387599
11450.7	-0.0370725
11460.6	-0.0353489
11470.4	-0.0335906
11480.3	-0.031799
11490.1	-0.0299753
11503.3	-0.0274965
11513.1	-0.0256039
11523	-0.0236842
11532.8	-0.0217391
11542.7	-0.01977
11552.5	-0.0177785
11562.4	-0.0157663
11572.2	-0.0137351
11582.1	-0.0116864
11591.9	-0.00962194
11601.8	-0.00754344
11611.6	-0.00545257
11621.5	-0.00335106
11631.3	-0.00124064
11641.1	0.000876952
11651	0.00299997
11660.8	0.00512665
11670.7	0.00725522
11680.5	0.00938391
11690.4	0.0115109
11700.2	0.0136345
11710.1	0.0157529
11723.2	0.018566
11733.1	0.0206652
11742.9	0.022753
11752.8	0.0248279
11762.6	0.0268878
11772.5	0.0289312
11782.3	0.0309561
11792.2	0.0329608
11802	0.0349435
11811.9	0.0369025
11821.7	0.038836
11831.6	0.0407422
11841.4	0.0426195
11851.3	0.0444663
11861.1	0.0462808
11870.9	0.0480614
11880.8	0.0498065
11890.6	0.0515147
11900.5	0.0531845
11910.3	0.0548144
11920.2	0.056403
11930	0.0579491
11943.2	0.0599423
11953	0.0613844
11962.9	0.0627803
11972.7	0.0641289
11982.6	0.0654293
11992.4	0.0666808
12002.3	0.0678829
12012.1	0.0690348
12022	0.0701363
12031.8	0.0711871
12041.7	0.0721869
12051.5	0.0731357
12061.4	0.0740337
12071.2	0.074881
12081.1	0.075678
12090.9	0.0764253
12100.8	0.0771234
12110.6	0.0777732
12120.4	0.0783755
12130.3	0.0789314
12140.1	0.0794421
12153.3	0.0800549
12163.1	0.0804652
12173	0.0808351
12182.8	0.0811663
12192.7	0.0814603
12202.5	0.0817193
12212.4	0.081945
12222.2	0.0821396
12232.1	0.082305
12241.9	0.0824435
12251.8	0.0825571
12261.6	0.082648
12271.5	0.0827185
12281.3	0.0827708
12291.2	0.082807
12301	0.0828293
12310.9	0.0828398
12320.7	0.0828407
12330.6	0.0828339
12340.4	0.0828213
12350.3	0.0828049
12360.1	0.0827863
12373.2	0.082761
12383.1	0.0827436
12392.9	0.0827291
12402.8	0.0827187
12412.6	0.0827134
12422.5	0.0827142
12432.3	0.0827219
12442.2	0.0827369
12452	0.0827599
12461.9	0.0827909
12471.7	0.0828301
12481.6	0.0828775
12491.4	0.0829328
12501.3	0.0829955
12511.1	0.0830652
12521	0.0831411
12530.8	0.0832222
12540.7	0.0833076
12550.5	0.0833962
12560.4	0.0834865
12570.2	0.0835772
12580.1	0.0836668
12593.2	0.0837815
12603	0.0838618
12612.9	0.083935
12622.7	0.0839994
12632.6	0.0840529
12642.4	0.0840934
12652.3	0.084119
12662.1	0.0841276
12672	0.084117
12681.8	0.0840851
12691.7	0.08403
12701.5	0.0839495
12711.4	0.0838416
12721.2	0.0837043
12731.1	0.0835357
12740.9	0.083334
12750.8	0.0830972
12760.6	0.0828238
12770.5	0.0825121
12780.3	0.0821606
12790.2	0.0817677
12800	0.0813323
12813.1	0.0806834
12823	0.080144
12832.8	0.0795584
12842.7	0.0789259
12852.5	0.0782456
12862.4	0.077517
12872.2	0.0767398
12882.1	0.0759136
12891.9	0.0750382
12901.8	0.0741136
12911.6	0.0731399
12921.5	0.0721172
12931.3	0.071046
12941.2	0.0699267
12951	0.0687599
12960.9	0.0675462
12970.7	0.0662865
12980.6	0.0649817
12990.4	0.0636328
13000.3	0.0622409
13010.1	0.0608073
13023.2	0.0588332
13033.1	0.0573075
13042.9	0.0557448
13052.8	0.0541466
13062.6	0.0525146
13072.5	0.0508506
13082.3	0.0491563
13092.2	0.0474336
13102	0.0456844
13111.9	0.0439106
13121.7	0.0421142
13131.6	0.0402972
13141.4	0.0384616
13151.3	0.0366097
13161.1	0.0347434
13171	0.0328648
13180.8	0.0309762
13190.7	0.0290797
13200.5	0.0271773
13210.4	0.0252713
13220.2	0.0233638
13230.1	0.0214569
13243.2	0.0189191
13253.1	0.0170219
13262.9	0.0151324
13272.7	0.0132526
13282.6	0.0113845
13292.4	0.00953012
13302.3	0.00769137
13312.1	0.00587016
13322	0.00406835
13331.8	0.00228775
13341.7	0.000530105
13351.5	-0.00120291
13361.4	-0.00290966
13371.2	-0.0045886
13381.1	-0.00623825
13390.9	-0.0078572
13400.8	-0.00944413
13410.6	-0.0109978
13420.5	-0.0125171
13430.3	-0.0140008
13440.2	-0.0154482
13450	-0.0168582
13463.2	-0.0186789
13473	-0.019999
13482.9	-0.0212797
13492.7	-0.0225205
13502.6	-0.023721
13512.4	-0.0248812
13522.3	-0.0260008
13532.1	-0.0270799
13541.9	-0.0281187
13551.8	-0.0291173
13561.6	-0.0300761
13571.5	-0.0309955
13581.3	-0.0318761
13591.2	-0.0327185
13601	-0.0335235
13610.9	-0.0342917
13620.7	-0.0350243
13630.6	-0.0357221
13640.4	-0.0363861
13650.3	-0.0370176
13660.1	-0.0376177
13673.3	-0.0383711
13683.1	-0.0389028
13693	-0.0394074
13702.8	-0.0398862
13712.7	-0.0403406
13722.5	-0.040772
13732.4	-0.0411817
13742.2	-0.0415713
13752.1	-0.0419419
13761.9	-0.042295
13771.8	-0.0426318
13781.6	-0.0429537
13791.4	-0.0432618
13801.3	-0.0435574
13811.1	-0.0438415
13821	-0.0441152
13830.8	-0.0443794
13840.7	-0.044635
13850.5	-0.044883
13860.4	-0.0451239
13870.2	-0.0453585
13880.1	-0.0455874
13893.2	-0.0458842
13903.1	-0.0461013
13912.9	-0.0463137
13922.8	-0.0465218
13932.6	-0.0467256
13942.5	-0.0469251
13952.3	-0.0471202
13962.2	-0.0473109
13972	-0.0474968
13981.9	-0.0476778
13991.7	-0.0478534
14001.6	-0.0480232
14011.4	-0.0481869
14021.3	-0.0483439
14031.1	-0.0484937
14041	-0.0486357
14050.8	-0.0487695
14060.6	-0.0488943
14070.5	-0.0490097
14080.3	-0.049115
14090.2	-0.0492097
14100	-0.0492932
14113.2	-0.0493862
14123	-0.0494416
14132.9	-0.0494841
14142.7	-0.0495135
14152.6	-0.0495291
14162.4	-0.0495309
14172.3	-0.0495185
14182.1	-0.0494916
14192	-0.0494503
14201.8	-0.0493943
14211.7	-0.0493236
14221.5	-0.0492384
14231.4	-0.0491386
14241.2	-0.0490246
14251.1	-0.0488964
14260.9	-0.0487545
14270.8	-0.0485991
14280.6	-0.0484307
14290.5	-0.0482498
14300.3	-0.0480567
14310.1	-0.0478522
14323.3	-0.0475627
14333.1	-0.0473337
14343	-0.0470954
14352.8	-0.0468485
14362.7	-0.0465936
14372.5	-0.0463316
14382.4	-0.0460632
14392.2	-0.0457891
14402.1	-0.0455102
14411.9	-0.0452271
14421.8	-0.0449408
14431.6	-0.0446518
14441.5	-0.044361
14451.3	-0.0440691
14461.2	-0.0437767
14471	-0.0434846
14480.9	-0.0431934
14490.7	-0.0429037
14500.6	-0.0426161
14510.4	-0.0423311
14520.3	-0.0420491
14530.1	-0.0417708
14543.2	-0.0414059
14553.1	-0.0411374
14562.9	-0.0408737
14572.8	-0.0406149
14582.6	-0.0403615
14592.5	-0.0401134
14602.3	-0.0398709
14612.2	-0.0396339
14622	-0.0394025
14631.9	-0.0391767
14641.7	-0.0389564
14651.6	-0.0387414
14661.4	-0.0385315
14671.3	-0.0383266
14681.1	-0.0381263
14691	-0.0379304
14700.8	-0.0377383
14710.7	-0.0375497
14720.5	-0.0373641
14730.4	-0.037181
14740.2	-0.0369998
14750.1	-0.0368198
14763.2	-0.0365807
14773	-0.0364011
14782.9	-0.0362203
14792.7	-0.0360375
14802.6	-0.035852
14812.4	-0.0356628
14822.3	-0.0354689
14832.1	-0.0352694
14842	-0.0350633
14851.8	-0.0348495
14861.7	-0.034627
14871.5	-0.0343947
14881.4	-0.0341516
14891.2	-0.0338963
14901.1	-0.033628
14910.9	-0.0333452
14920.8	-0.0330471
14930.6	-0.0327322
14940.5	-0.0323997
14950.3	-0.0320482
14960.2	-0.0316767
14970	-0.0312842
14983.1	-0.0307262
14993	-0.0302804
15002.8	-0.0298101
15012.7	-0.0293146
15022.5	-0.0287928
15032.4	-0.0282441
15042.2	-0.0276678
15052.1	-0.0270633
15061.9	-0.02643
15071.8	-0.0257675
15081.6	-0.0250755
15091.5	-0.0243537
15101.3	-0.0236021
15111.2	-0.0228207
15121	-0.0220096
15130.9	-0.0211691
15140.7	-0.0202995
15150.6	-0.0194014
15160.4	-0.0184753
15170.3	-0.0175222
15180.1	-0.0165429
15193.3	-0.0151982
15203.1	-0.014162
15213	-0.0131036
15222.8	-0.0120245
15232.6	-0.0109262
15242.5	-0.00981052
15252.3	-0.00867921
15262.2	-0.00753419
15272	-0.00637749
15281.9	-0.00521122
15291.7	-0.00403755
15301.6	-0.00285874
15311.4	-0.0016771
15321.3	-0.000495004
15331.1	0.000685157
15341	0.00186095
15350.8	0.00302991
15360.7	0.00418961
15370.5	0.00533758
15380.4	0.00647141
15390.2	0.00758868
15400.1	0.00868704
15413.2	0.0101181
15423.1	0.0111635
15432.9	0.0121825
15442.8	0.0131732
15452.6	0.0141335
15462.5	0.0150616
15472.3	0.0159557
15482.2	0.0168144
15492	0.017636
15501.8	0.0184193
15511.7	0.019163
15521.5	0.0198661
15531.4	0.0205277
15541.2	0.021147
15551.1	0.0217235
15560.9	0.0222568
15570.8	0.0227465
15580.6	0.0231925
15590.5	0.0235949
15600.3	0.0239539
15610.2	0.0242699
15620	0.0245433
15633.2	0.0248427
15643	0.0250194
15652.9	0.0251563
15662.7	0.0252543
15672.6	0.0253146
15682.4	0.0253386
15692.3	0.0253276
15702.1	0.0252832
15712	0.0252068
15721.8	0.0251001
15731.7	0.0249648
15741.5	0.0248028
15751.4	0.0246156
15761.2	0.0244053
15771	0.0241735
15780.9	0.0239223
15790.7	0.0236534
15800.6	0.0233687
15810.4	0.0230701
15820.3	0.0227594
15830.1	0.0224383
15843.3	0.0219972
15853.1	0.0216587
15863	0.0213155
15872.8	0.0209693
15882.7	0.0206213
15892.5	0.0202731
15902.4	0.0199261
15912.2	0.0195814
15922.1	0.0192402
15931.9	0.0189037
15941.8	0.0185727
15951.6	0.0182482
15961.5	0.0179309
15971.3	0.0176216
15981.2	0.0173208
15991	0.017029
16000.9	0.0167467
16010.7	0.016474
16020.5	0.0162113
16030.4	0.0159585
16040.2	0.0157158
16050.1	0.015483
16063.2	0.0151879
16073.1	0.0149776
16082.9	0.0147764
16092.8	0.014584
16102.6	0.0143997
16112.5	0.0142232
16122.3	0.0140537
16132.2	0.0138907
16142	0.0137334
16151.9	0.0135811
16161.7	0.013433
16171.6	0.0132883
16181.4	0.0131461
16191.3	0.0130057
16201.1	0.012866
16211	0.0127262
16220.8	0.0125855
16230.7	0.0124428
16240.5	0.0122972
16250.4	0.012148
16260.2	0.011994
16270.1	0.0118346
16283.2	0.0116118
16293	0.0114359
16302.9	0.0112517
16312.7	0.0110582
16322.6	0.0108546
16332.4	0.0106403
16342.3	0.0104144
16352.1	0.0101762
16362	0.00992507
16371.8	0.0096603
16381.7	0.00938127
16391.5	0.0090874
16401.4	0.00877809
16411.2	0.00845282
16421.1	0.00811106
16430.9	0.00775234
16440.8	0.00737619
16450.6	0.00698219
16460.5	0.00656993
16470.3	0.00613903
16480.2	0.00568914
16490	0.00521994
16503.1	0.00456375
16513	0.00404831
16522.8	0.0035126
16532.7	0.0029564
16542.5	0.00237949
16552.4	0.00178167
16562.2	0.00116276
16572.1	0.000522601
16581.9	-0.000138936
16591.8	-0.000821973
16601.6	-0.00152661
16611.5	-0.00225291
16621.3	-0.00300094
16631.2	-0.00377071
16641	-0.00456225
16650.9	-0.0053755
16660.7	-0.00621044
16670.6	-0.00706696
16680.4	-0.00794496
16690.3	-0.00884427
16700.1	-0.00976471
16713.2	-0.0110244
16723.1	-0.0119932
16732.9	-0.0129821
16742.8	-0.0139908
16752.6	-0.0150189
16762.5	-0.0160658
16772.3	-0.017131
16782.2	-0.018214
16792	-0.0193139
16801.9	-0.0204301
16811.7	-0.0215618
16821.6	-0.0227081
16831.4	-0.0238681
16841.3	-0.0250407
16851.1	-0.0262249
16861	-0.0274195
16870.8	-0.0286232
16880.7	-0.0298349
16890.5	-0.0310531
16900.4	-0.0322764
16910.2	-0.0335032
16920.1	-0.0347321
16933.2	-0.036371
16943	-0.0375981
16952.9	-0.0388217
16962.7	-0.0400398
16972.6	-0.0412506
16982.4	-0.0424522
16992.3	-0.0436427
17002.1	-0.0448201
17012	-0.0459825
17021.8	-0.0471277
17031.7	-0.0482539
17041.5	-0.049359
17051.4	-0.0504409
17061.2	-0.0514978
17071.1	-0.0525275
17080.9	-0.0535282
17090.8	-0.0544978
17100.6	-0.0554346
17110.5	-0.0563366
17120.3	-0.0572021
17130.2	-0.0580293
17140	-0.0588166
17153.2	-0.0598015
17163	-0.0604896
17172.9	-0.0611327
17182.7	-0.0617297
17192.5	-0.0622792
17202.4	-0.0627802
17212.2	-0.0632316
17222.1	-0.0636327
17231.9	-0.0639826
17241.8	-0.0642807
17251.6	-0.0645263
17261.5	-0.0647192
17271.3	-0.064859
17281.2	-0.0649455
17291	-0.0649787
17300.9	-0.0649586
17310.7	-0.0648854
17320.6	-0.0647594
17330.4	-0.0645811
17340.3	-0.064351
17350.1	-0.0640696
17363.3	-0.0636161
17373.1	-0.0632184
17383	-0.0627724
17392.8	-0.0622791
17402.7	-0.0617397
17412.5	-0.0611554
17422.4	-0.0605277
17432.2	-0.0598578
17442.1	-0.0591472
17451.9	-0.0583974
17461.7	-0.05761
17471.6	-0.0567866
17481.4	-0.0559288
17491.3	-0.0550383
17501.1	-0.0541169
17511	-0.0531662
17520.8	-0.052188
17530.7	-0.0511841
17540.5	-0.0501562
17550.4	-0.049106
17560.2	-0.0480354
17570.1	-0.046946
17583.2	-0.0454673
17593.1	-0.0443408
17602.9	-0.0432012
17612.8	-0.04205
17622.6	-0.040889
17632.5	-0.0397196
17642.3	-0.0385433
17652.2	-0.0373615
17662	-0.0361758
17671.9	-0.0349874
17681.7	-0.0337976
17691.6	-0.0326077
17701.4	-0.0314189
17711.3	-0.0302323
17721.1	-0.0290489
17730.9	-0.0278698
17740.8	-0.0266959
17750.6	-0.0255281
17760.5	-0.0243673
17770.3	-0.0232142
17780.2	-0.0220696
17790	-0.020934
17803.2	-0.0194351
17813	-0.0183231
17822.9	-0.017222
17832.7	-0.0161322
17842.6	-0.0150543
17852.4	-0.0139884
17862.3	-0.0129349
17872.1	-0.0118941
17882	-0.0108663
17891.8	-0.00985153
17901.7	-0.00885009
17911.5	-0.00786208
17921.4	-0.00688765
17931.2	-0.00592687
17941.1	-0.00497986
17950.9	-0.00404667
17960.8	-0.00312736
17970.6	-0.002222
17980.4	-0.00133063
17990.3	-0.000453297
18000.1	0.000409947
18013.3	0.00153893
18023.1	0.00236908
18033	0.00318494
18042.8	0.00398641
18052.7	0.0047734
18062.5	0.0055458
18072.4	0.00630347
18082.2	0.00704626
18092.1	0.00777399
18101.9	0.00848647
18111.8	0.00918347
18121.6	0.00986477
18131.5	0.0105301
18141.3	0.0111791
18151.2	0.0118116
18161	0.0124272
18170.9	0.0130254
18180.7	0.013606
18190.6	0.0141686
18200.4	0.0147126
18210.3	0.0152377
18220.1	0.0157434
18233.2	0.0163866
18243.1	0.0168451
18252.9	0.0172826
18262.8	0.0176985
18272.6	0.0180923
18282.5	0.0184634
18292.3	0.0188114
18302.2	0.0191356
18312	0.0194356
18321.9	0.0197109
18331.7	0.0199608
18341.6	0.0201848
18351.4	0.0203826
18361.3	0.0205534
18371.1	0.020697
18381	0.0208128
18390.8	0.0209003
18400.7	0.0209591
18410.5	0.0209888
18420.4	0.0209891
18430.2	0.0209595
18440.1	0.0208998
18453.2	0.0207726
18463	0.0206412
18472.9	0.0204787
18482.7	0.0202848
18492.6	0.0200594
18502.4	0.0198022
18512.3	0.0195132
18522.1	0.0191923
18532	0.0188393
18541.8	0.0184541
18551.7	0.0180369
18561.5	0.0175876
18571.4	0.0171062
18581.2	0.0165929
18591.1	0.0160476
18600.9	0.0154706
18610.8	0.014862
18620.6	0.014222
18630.5	0.0135508
18640.3	0.0128487
18650.2	0.012116
18660	0.0113531
18673.1	0.0102893
18683	0.00945711
18692.8	0.00859601
18702.7	0.00770647
18712.5	0.00678901
18722.4	0.00584421
18732.2	0.00487269
18742.1	0.00387512
18751.9	0.00285219
18761.8	0.00180467
18771.6	0.000733383
18781.5	-0.000360817
18791.3	-0.00147701
18801.2	-0.00261421
18811	-0.00377139
18820.9	-0.00494744
18830.7	-0.00614122
18840.6	-0.0073515
18850.4	-0.00857699
18860.3	-0.00981635
18870.1	-0.0110682
18883.3	-0.0127541
18893.1	-0.0140291
18902.9	-0.0153114
18912.8	-0.0165992
18922.6	-0.0178909
18932.5	-0.0191846
18942.3	-0.0204784
18952.2	-0.0217705
18962	-0.0230587
18971.9	-0.0243412
18981.7	-0.0256157
18991.6	-0.0268803
19001.4	-0.0281327
19011.3	-0.0293708
19021.1	-0.0305923
19031	-0.031795
19040.8	-0.0329766
19050.7	-0.034135
19060.5	-0.0352679
19070.4	-0.0363729
19080.2	-0.0374479
19090.1	-0.0384907
19103.2	-0.0398271
19113.1	-0.0407861
19122.9	-0.0417058
19132.8	-0.042584
19142.6	-0.0434187
19152.4	-0.0442082
19162.3	-0.0449504
19172.1	-0.0456436
19182	-0.0462862
19191.8	-0.0468765
19201.7	-0.0474132
19211.5	-0.0478947
19221.4	-0.0483199
19231.2	-0.0486876
19241.1	-0.0489967
19250.9	-0.0492463
19260.8	-0.0494357
19270.6	-0.0495642
19280.5	-0.0496312
19290.3	-0.0496364
19300.2	-0.0495795
19310	-0.0494604
19323.2	-0.0492049
19333	-0.0489409
19342.9	-0.0486153
19352.7	-0.0482286
19362.6	-0.0477812
19372.4	-0.0472739
19382.3	-0.0467076
19392.1	-0.0460833
19402	-0.0454019
19411.8	-0.0446647
19421.6	-0.0438729
19431.5	-0.043028
19441.3	-0.0421315
19451.2	-0.0411849
19461	-0.0401899
19470.9	-0.0391482
19480.7	-0.0380617
19490.6	-0.0369323
19500.4	-0.0357618
19510.3	-0.0345523
19520.1	-0.0333059
19533.3	-0.03159
19543.1	-0.0302654
19553	-0.028911
19562.8	-0.0275288
19572.7	-0.0261211
19582.5	-0.02469
19592.4	-0.0232378
19602.2	-0.0217667
19612.1	-0.0202788
19621.9	-0.0187763
19631.8	-0.0172614
19641.6	-0.0157362
19651.5	-0.0142029
19661.3	-0.0126634
19671.1	-0.0111199
19681	-0.00957437
19690.8	-0.00802872
19700.7	-0.00648489
19710.5	-0.00494477
19720.4	-0.00341016
19730.2	-0.00188283
19740.1	-0.000364497
19753.2	0.0016431
19763.1	0.0031341
19772.9	0.00461081
19782.8	0.00607178
19792.6	0.0075156
19802.5	0.00894096
19812.3	0.0103466
19822.2	0.0117313
19832	0.0130938
19841.9	0.0144333
19851.7	0.0157486
19861.6	0.0170387
19871.4	0.0183029
19881.3	0.0195403
19891.1	0.0207502
19901	0.0219318
19910.8	0.0230845
19920.6	0.0242079
19930.5	0.0253013
19940.3	0.0263644
19950.2	0.0273968
19960	0.0283981
19973.2	0.0296844
19983	0.0306123
19992.9	0.0315085
