0	0	2363500
10.0496	0	2380418
20.0158	0	2393266
30.974	0	2403064
40.9362	0	2410034
50.906	0	2415176
60.9171	0	2418596
70.0517	0	2420948
80.2259	0	2423604
90.3953	0	2426568
100.565	0	2429054
110.736	0	2431160
120.918	0	2432820
130.083	0	2434480
140.265	0	2436200
150.448	0	2438210
160.631	0	2440068
170.813	0	2441914
180.996	0	2443826
190.16	0	2445682
200.343	0	2447708
210.525	0	2449962
220.708	0	2452134
230.94	0	2454292
240.132	0	2456356
250.344	0	2458498
260.556	0	2460818
270.769	0	2463018
280.991	0	2465412
290.195	0	2467334
300.393	0	2469504
310.59	0	2472032
320.787	0	2474902
330.989	0	2478028
340.177	0	2480742
350.368	0	2483578
360.546	0	2486522
370.717	0	2489476
380.884	0	2492446
390.034	0	2494950
400.201	0	2497820
410.37	0	2500552
420.56	0	2503364
430.796	0	2506262
440.02	0	2508820
450.27	0	2511706
460.516	0	2514456
470.757	0	2517140
480.998	0	2520012
490.215	0	2522394
500.459	0	2525368
510.702	0	2528260
520.947	0	2531044
530.171	0	2533858
540.421	0	2536158
550.708	0	2539158
561.011	0	2541910
570.283	0	2544544
580.587	0	2547574
590.89	0	2550392
600.163	0	2553262
610.467	0	2556422
620.77	0	2559812
630.043	0	2562692
640.346	0	2565942
650.65	0	2569236
660.953	0	2572568
670.226	0	2575626
680.529	0	2578912
690.832	0	2582332
700.105	0	2585462
710.408	0	2588798
720.711	0	2592056
731.014	0	2595446
740.287	0	2598536
750.59	0	2602002
760.893	0	2605404
770.143	0	2608564
780.414	0	2611968
790.68	0	2615812
800.927	0	2619400
810.143	0	2622720
820.384	3.63798e-12	2626508
830.612	1.27329e-11	2630366
840.827	2.27374e-11	2634030
850.018	4.27463e-11	2637418
860.226	9.09495e-11	2641444
870.429	2.00998e-10	2644990
880.633	4.43833e-10	2649044
890.837	9.64064e-10	2652900
900.02	1.90721e-09	2656336
910.222	3.98177e-09	2660304
920.424	8.12815e-09	2664190
930.626	1.62299e-08	2668282
940.827	3.17068e-08	2672324
950.004	5.68734e-08	2675984
960.201	1.06731e-07	2680094
970.398	1.96272e-07	2684372
980.595	3.53853e-07	2688506
990.792	6.25737e-07	2692450
1000.98	1.08526e-06	2696548
1010.14	1.75305e-06	2700408
1020.32	2.93592e-06	2704752
1030.49	4.82926e-06	2708996
1040.65	7.80875e-06	2713384
1050.82	1.24179e-05	2717738
1060.99	1.94291e-05	2721828
1070.14	2.86761e-05	2725796
1080.3	4.35481e-05	2729550
1090.47	6.51387e-05	2733602
1100.64	9.60039e-05	2737616
1110.8	0.000139468	2741796
1120.97	0.000199781	2745760
1130.12	0.000272855	2749286
1140.29	0.000380914	2753194
1150.46	0.000524873	2756970
1160.62	0.000714102	2761070
1170.79	0.000959601	2764766
1180.96	0.00127406	2768756
1190.11	0.00162788	2772478
1200.28	0.00211431	2776234
1210.44	0.00271575	2780144
1220.61	0.00345077	2783658
1230.78	0.00433893	2787240
1240.95	0.00540027	2790778
1250.1	0.00652016	2793910
1260.27	0.0079654	2797082
1270.44	0.00963993	2800290
1280.6	0.0115603	2803822
1290.77	0.0137407	2807086
1300.94	0.016192	2810168
1310.09	0.0186358	2813156
1320.26	0.0216178	2816326
1330.43	0.0248791	2819244
1340.6	0.0284132	2822242
1350.77	0.032209	2825558
1360.94	0.0362513	2828526
1370.09	0.0400851	2831930
1380.26	0.0445439	2835368
1390.43	0.0491924	2838754
1400.59	0.0540112	2841886
1410.76	0.0589845	2845360
1420.93	0.0641046	2848864
1430.08	0.0688344	2852078
1440.25	0.0742593	2855524
1450.42	0.0798771	2859040
1460.59	0.0856475	2862580
1470.76	0.0927422	2866434
1480.96	0.104729	2870074
1490.2	0.114656	2873334
1500.52	0.125631	2876656
1510.95	0.137658	2880012
1520.33	0.151295	2882812
1530.79	0.185248	2886068
1540.21	0.220939	2889118
1550.68	0.267874	2892234
1560.13	0.346093	2895120
1570.56	0.450632	2897820
1580.01	0.558159	2900196
1590.57	0.690613	2903208
1600.1	0.819915	2905750
1610.56	0.9723	2908674
1621.03	1.13023	2911148
1630.43	1.27259	2913190
1640.94	1.42669	2915228
1650.33	1.55619	2916788
1660.77	1.68798	2918666
1670.24	1.79358	2920102
1680.75	1.89468	2922124
1690.23	1.97107	2923784
1700.81	2.03925	2925768
1710.32	2.08583	2927406
1720.92	2.12253	2929226
1730.59	2.14259	2931178
1740.28	2.15066	2932832
1750.91	2.14715	2934808
1760.67	2.13371	2936402
1770.44	2.11131	2938238
1780.2	2.08093	2939700
1790.25	2.04201	2941486
1800.25	1.99587	2942946
1810.28	1.9425	2943998
1820.05	1.88394	2945208
1830.96	1.81136	2946826
1840.84	1.73969	2948278
1850.65	1.66374	2949786
1860.84	1.58064	2951568
1870.85	1.495	2953078
1880.83	1.40558	2954814
1890.92	1.31003	2956644
1900.98	1.20801	2958204
1911.02	1.09749	2959938
1921.09	0.975998	2961838
1930.9	0.846471	2963688
1940.76	0.704742	2965392
1950.52	0.553906	2967026
1960.22	0.39544	2968652
1971.08	0.210866	2970486
1980.95	0.0397208	2972624
1990.62	-0.127965	2974412
2000.67	-0.299518	2976248
2010.45	-0.461087	2977734
2020.5	-0.618988	2979308
2030.5	-0.766194	2980650
2040.5	-0.901777	2981978
2050.84	-1.02864	2983726
2060	-1.12922	2984936
2070.12	-1.22779	2986598
2080.41	-1.31563	2988434
2090.74	-1.39282	2990108
2101.07	-1.46061	2991770
2110.24	-1.51395	2993092
2120.55	-1.56649	2995096
2130.86	-1.61044	2996832
2140.02	-1.64104	2998186
2150.33	-1.6641	3000068
2160.64	-1.66389	3001814
2170.95	-1.65304	3003794
2180.11	-1.63342	3005146
2190.42	-1.60056	3006998
2200.72	-1.55831	3008462
2211.03	-1.50914	3009958
2220.19	-1.46107	3011474
2230.5	-1.36375	3012800
2240.8	-1.27905	3014450
2251.09	-1.20295	3015938
2260.23	-1.13858	3017398
2270.51	-1.06917	3018928
2280.8	-1.00482	3020442
2291.08	-0.944655	3021838
2300.22	-0.894467	3022916
2310.51	-0.841549	3024262
2320.79	-0.791819	3025602
2331.08	-0.74438	3026654
2340.22	-0.703996	3027288
2350.49	-0.661177	3028522
2360.73	-0.620648	3029588
2370.97	-0.58187	3031272
2380.07	-0.5491	3032036
2390.3	-0.513801	3033212
2400.52	-0.478934	3034402
2410.75	-0.444055	3035690
2420.98	-0.40895	3036940
2430.07	-0.376984	3037770
2440.29	-0.340068	3039052
2450.52	-0.302685	3039674
2460.75	-0.265322	3040602
2470.97	-0.228484	3041186
2480.06	-0.196746	3041796
2490.29	-0.16275	3042460
2500.51	-0.131065	3043068
2510.74	-0.102218	3043534
2520.97	-0.076452	3043860
2530.06	-0.0559872	3044308
2540.28	-0.0353549	3044744
2550.51	-0.0168194	3045656
2560.73	8.06034e-05	3046298
2570.96	0.0157151	3046854
2580.05	0.0288389	3047780
2590.27	0.0391881	3048544
2600.5	0.0472313	3049572
2610.72	0.0536005	3050410
2620.95	0.0564489	3051228
2630.04	0.0583169	3052372
2640.27	0.0594477	3053514
2650.5	0.060737	3054608
2660.74	0.0612819	3055964
2670.97	0.0603944	3057156
2680.07	0.0589593	3058354
2690.3	0.0564904	3059832
2700.54	0.0535211	3061396
2710.77	0.0498594	3063292
2721	0.0454327	3064730
2730.1	0.0408879	3066172
2740.33	0.0351524	3067586
2750.56	0.0288244	3069618
2760.8	0.0219876	3071164
2771.03	0.0147301	3072520
2780.13	0.00798405	3073742
2790.36	0.000115879	3075390
2800.59	-0.00799385	3076860
2810.86	-0.0163028	3078614
2821.14	-0.0247511	3079430
2830.28	-0.0323341	3080550
2840.57	-0.040913	3081636
2850.85	-0.0495095	3083036
2861.12	-0.0580785	3084150
2870.22	-0.0656381	3085210
2880.46	-0.0740689	3086418
2890.69	-0.082392	3087832
2900.92	-0.0905628	3088758
2910.02	-0.0976517	3089804
2920.25	-0.105372	3091310
2930.49	-0.112762	3092216
2940.72	-0.119766	3093524
2950.96	-0.126344	3094338
2960.05	-0.131809	3095160
2970.29	-0.137518	3096294
2980.52	-0.142729	3097200
2990.76	-0.147412	3098922
3000.99	-0.151566	3100162
3010.09	-0.154822	3101448
3020.33	-0.158011	3102816
3030.56	-0.160736	3104078
3040.8	-0.16303	3105594
3051.04	-0.164859	3106332
3060.13	-0.166035	3107632
3070.37	-0.166844	3109138
3080.61	-0.167212	3110520
3090.84	-0.167305	3111808
3101.08	-0.16727	3113294
3110.18	-0.167206	3114570
3120.41	-0.167151	3116240
3130.65	-0.167146	3117652
3140.88	-0.16719	3119078
3151.12	-0.167306	3120380
3160.22	-0.167514	3122020
3170.45	-0.167811	3123372
3180.69	-0.168167	3124840
3190.93	-0.168558	3126358
3200.02	-0.168899	3127782
3210.26	-0.169274	3129452
3220.5	-0.169621	3131334
3230.73	-0.16981	3133160
3240.97	-0.169812	3134950
3250.07	-0.169671	3136776
3260.3	-0.169353	3138644
3270.54	-0.168859	3140782
3280.77	-0.168181	3142940
3291.01	-0.167314	3144788
3300.11	-0.166384	3146748
3310.37	-0.165156	3148758
3320.64	-0.163732	3150880
3330.92	-0.162109	3152732
3340.06	-0.160498	3154174
3350.33	-0.158487	3155844
3360.57	-0.156266	3157182
3370.79	-0.153822	3158614
3381	-0.151139	3159612
3390.08	-0.14854	3160912
3400.29	-0.145364	3162546
3410.5	-0.14191	3163810
3420.71	-0.138172	3165450
3430.93	-0.134153	3166908
3440	-0.130351	3168236
3450.21	-0.125831	3169322
3460.43	-0.121079	3170802
3470.64	-0.116124	3172272
3480.85	-0.111001	3173944
3491.06	-0.105749	3175628
3500.14	-0.101003	3177102
3510.35	-0.095611	3178390
3520.56	-0.0901977	3179790
3530.77	-0.0847945	3181482
3540.98	-0.0794289	3183028
3550.06	-0.0747101	3184666
3560.27	-0.0694765	3186230
3570.48	-0.0643379	3188004
3580.7	-0.0593067	3189770
3590.91	-0.0543916	3191456
3601.12	-0.0495975	3193348
3610.2	-0.0454388	3194872
3620.41	-0.0408745	3196838
3630.62	-0.036428	3198457
3640.83	-0.032095	3199767
3651.04	-0.0278713	3201535
3660.12	-0.0242057	3202749
3670.33	-0.0201799	3204609
3680.54	-0.0162574	3205995
3690.75	-0.0124403	3207669
3700.96	-0.00873301	3208933
3710.04	-0.00553531	3210439
3720.26	-0.00205546	3211977
3730.49	0.00129326	3213573
3740.72	0.00449158	3215341
3750.95	0.00752332	3216893
3760.05	0.0100649	3218435
3770.29	0.0127362	3219761
3780.52	0.0151922	3221133
3790.75	0.017417	3222811
3800.99	0.0193961	3224161
3810.08	0.0209389	3225825
3820.29	0.0224197	3227364
3830.44	0.0236235	3229774
3840.59	0.0245552	3231674
3850.75	0.0252148	3233724
3860.9	0.0256055	3235412
3871.05	0.0257336	3237407
3880.07	0.0256343	3239214
3890.23	0.0252933	3241106
3900.38	0.0247222	3242973
3910.53	0.0239358	3244977
3920.68	0.0229498	3247196
3930.84	0.0217805	3249188
3940.99	0.0204445	3250956
3950.01	0.0191307	3252812
3960.16	0.0175259	3254740
3970.32	0.0158027	3256888
3980.47	0.0139772	3258420
3990.62	0.0120647	3260740
4000.77	0.0100798	3262212
4010.92	0.00803612	3264113
4021.07	0.00594687	3265624
4030.1	0.00406152	3266980
4040.25	0.00191958	3268804
4050.4	-0.000233455	3270269
4060.55	-0.00238648	3272045
4070.71	-0.00452874	3273213
4080.86	-0.00664983	3274859
4091.01	-0.00873976	3276159
4100.03	-0.0105636	3277593
4110.19	-0.0125706	3279035
4120.35	-0.0145212	3280283
4130.53	-0.0164098	3281973
4140.75	-0.0182353	3283085
4150.99	-0.0199846	3284943
4160.09	-0.0214724	3285683
4170.34	-0.0230645	3287291
4180.59	-0.0245671	3288873
4190.84	-0.0259781	3290439
4201.08	-0.0272959	3292374
4210.19	-0.0283881	3293514
4220.44	-0.0295274	3295176
4230.69	-0.0305713	3296344
4240.94	-0.03152	3297710
4250.05	-0.0322821	3299091
4260.27	-0.0330467	3300652
4270.49	-0.033714	3301812
4280.71	-0.0342832	3302866
4290.92	-0.0347529	3304352
4300.01	-0.0350852	3305446
4310.23	-0.0353609	3306618
4320.33	-0.0355286	3307754
4330.39	-0.0355887	3309454
4340.48	-0.0355383	3310874
4350.57	-0.0353726	3312173
4360.66	-0.0350871	3313573
4370.75	-0.0346769	3314723
4380.84	-0.0341367	3316525
4390.93	-0.0334608	3317780
4401.02	-0.0326436	3319648
4411.11	-0.031679	3321242
4420.08	-0.0306932	3322556
4430.17	-0.0294342	3324782
4440.25	-0.0280107	3326826
4450.34	-0.0264167	3328570
4460.43	-0.0246463	3330822
4470.52	-0.0226936	3332722
4480.6	-0.0205522	3334899
4490.69	-0.0182159	3337116
4500.88	-0.0156515	3339228
4511.06	-0.0128763	3341478
4520.02	-0.0102493	3343076
4530.11	-0.00708136	3345182
4540.19	-0.00367888	3347300
4550.28	-3.04926e-05	3349226
4560.37	0.00387631	3351116
4570.46	0.00805453	3353126
4580.55	0.0125164	3354770
4590.64	0.0172721	3356865
4600.73	0.0223277	3358265
4610.82	0.027684	3359954
4620.91	0.0333352	3361354
4631	0.0392682	3362516
4641.1	0.045463	3364074
4650.07	0.0511693	3365658
4660.16	0.0577915	3367345
4670.25	0.0646062	3368799
4680.34	0.071594	3370335
4690.44	0.0787459	3371757
4700.53	0.0860449	3373349
4710.62	0.0934343	3374751
4720.71	0.100844	3375840
4730.8	0.108214	3377134
4740.89	0.115494	3378168
4750.99	0.122642	3379004
4761.1	0.129636	3380054
4770.23	0.135791	3380708
4780.53	0.14252	3381672
4790.82	0.149012	3382574
4801.11	0.155249	3383702
4810.26	0.160564	3384518
4820.56	0.166264	3385758
4830.85	0.171646	3386991
4840	0.176142	3388255
4850.29	0.180856	3389753
4860.45	0.185127	3391173
4870.53	0.188983	3392153
4880.62	0.192435	3393645
4890.71	0.195465	3394957
4900.8	0.198051	3395863
4910.88	0.200172	3397201
4920.97	0.201814	3398077
4931.06	0.202971	3399189
4940.02	0.203594	3400487
4950.11	0.203846	3401554
4960.2	0.203625	3402442
4970.28	0.202929	3403506
4980.37	0.201742	3404538
4990.46	0.200056	3405764
5000.55	0.197887	3406840
5010.64	0.19526	3408376
5020.74	0.1922	3409756
5030.83	0.188726	3410834
5040.92	0.184856	3412246
5051.01	0.180602	3413716
5061.11	0.175979	3415062
5070.08	0.171573	3416274
5080.17	0.166296	3417688
5090.26	0.160697	3418965
5100.35	0.154789	3419887
5110.45	0.148582	3421312
5120.54	0.142084	3422136
5130.63	0.135309	3423100
5140.72	0.128293	3424404
5150.82	0.121057	3425320
5160.91	0.113625	3426396
5171	0.103584	3427064
5181.09	0.0929238	3428330
5190.06	0.0836685	3429062
5200.16	0.074322	3430178
5210.42	0.0650359	3431395
5220.73	0.055492	3432159
5231.05	0.045983	3433404
5240.22	0.0377634	3434714
5250.53	0.0286695	3435814
5260.85	0.0195156	3437080
5270.01	0.0114176	3438219
5280.33	0.00255519	3439183
5290.64	-0.00606816	3440509
5300.96	-0.0145415	3441675
5310.13	-0.0218872	3442628
5320.45	-0.0298464	3443244
5330.79	-0.0374761	3444112
5341.14	-0.0447728	3444876
5350.33	-0.0509408	3445441
5360.68	-0.0574562	3446030
5371.02	-0.0634859	3446626
5380.22	-0.0684229	3447186
5390.56	-0.0734704	3447880
5400.9	-0.0779428	3448555
5410.1	-0.0814455	3449201
5420.44	-0.0848654	3449633
5430.79	-0.0875184	3450133
5441.13	-0.0893701	3450891
5450.33	-0.0910414	3451068
5460.67	-0.0917049	3451588
5471.02	-0.0921454	3451717
5480.21	-0.0918993	3452270
5490.55	-0.0912983	3452344
5500.9	-0.0902041	3452918
5510.09	-0.0888224	3453412
5520.44	-0.0868703	3454086
5530.78	-0.0844603	3454940
5541.09	-0.0816139	3455528
5550.26	-0.0787417	3456227
5560.57	-0.0751367	3456759
5570.89	-0.0711516	3457811
5580.06	-0.0673065	3458379
5590.37	-0.0626578	3459578
5600.69	-0.0576847	3460733
5611	-0.0524017	3461367
5620.17	-0.0474566	3461773
5630.49	-0.0416291	3462607
5640.81	-0.0355033	3463141
5651.12	-0.0290821	3463029
5660.29	-0.0233932	3463643
5670.61	-0.016336	3463841
5680.92	-0.00905148	3464125
5690.09	-0.00257989	3464703
5700.41	0.00458714	3464953
5710.73	0.011413	3465161
5721.04	0.0178331	3464825
5730.21	0.023219	3465203
5740.53	0.0289317	3464867
5750.84	0.0342725	3465131
5760.01	0.0386977	3464799
5770.33	0.0433007	3465097
5780.64	0.0474927	3464917
5790.96	0.0512598	3465245
5800.13	0.0542386	3465717
5810.45	0.0571543	3465627
5820.82	0.059607	3466395
5830.07	0.0613228	3466715
5840.47	0.0630015	3466918
5850.87	0.0644417	3467366
5860.12	0.0652956	3467884
5870.52	0.0658049	3468142
5880.93	0.0659099	3468562
5890.17	0.0657105	3468856
5900.57	0.0652062	3469850
5910.97	0.0644531	3469900
5920.22	0.0636023	3470496
5930.62	0.0624581	3470458
5941.02	0.0611289	3470698
5950.27	0.0598038	3470125
5960.67	0.0581669	3470293
5971.06	0.0563962	3470485
5980.29	0.0547229	3470561
5990.68	0.0527453	3470737
6001.06	0.0506845	3470904
6010.3	0.0487983	3471676
6020.68	0.0466329	3471433
6031.07	0.0444406	3471731
6040.31	0.0424848	3471678
6050.69	0.0402928	3471546
6061.08	0.0381251	3471740
6070.31	0.0362308	3472039
6080.7	0.0341481	3472599
6091.09	0.0321284	3472954
6100.32	0.0303945	3473873
6110.71	0.0285223	3474716
6121.1	0.0267421	3475649
6130.33	0.0252444	3476667
6140.72	0.0236625	3478095
6151.09	0.0222004	3479650
6160.3	0.0210077	3480836
6170.64	0.0197917	3481672
6180.98	0.0187141	3482626
6190.16	0.0178769	3483881
6200.48	0.0170744	3485055
6210.78	0.0164215	3486693
6221.07	0.0159188	3487902
6230.2	0.0155963	3489026
6240.47	0.0153706	3490176
6250.74	0.0152869	3491138
6261.01	0.0153405	3492549
6270.12	0.015499	3493541
6280.34	0.0157965	3495179
6290.56	0.0162152	3496289
6300.78	0.0167503	3497448
6310.99	0.0173973	3498718
6320.05	0.0180625	3500060
6330.24	0.018909	3501332
6340.43	0.0198566	3502552
6350.6	0.0209016	3503404
6360.75	0.0220411	3504553
6370.91	0.0232737	3505739
6381.06	0.024597	3507081
6390.09	0.025847	3508221
6400.24	0.0273333	3509170
6410.4	0.0289014	3510058
6420.55	0.0305475	3511190
6430.71	0.0322678	3512022
6440.86	0.0340566	3512497
6451	0.0359095	3513469
6460	0.0376066	3514349
6470.14	0.0395691	3515157
6480.27	0.0415833	3516228
6490.4	0.0436444	3516803
6500.54	0.0457475	3517711
6510.67	0.0478874	3518481
6520.8	0.050059	3519137
6530.94	0.0522567	3519637
6541.07	0.0544748	3520892
6550.08	0.0564585	3521372
6560.21	0.0586973	3522628
6570.34	0.0609364	3523134
6580.47	0.0631673	3524422
6590.61	0.0653807	3525244
6600.74	0.0675672	3526408
6610.93	0.0697247	3527314
6621.11	0.0718295	3528752
6630.15	0.0736441	3529228
6640.31	0.0756094	3530947
6650.46	0.0774838	3531654
6660.62	0.079253	3532584
6670.77	0.0809028	3533822
6680.93	0.0824189	3534492
6691.08	0.0837879	3535522
6700.11	0.0848707	3536158
6710.26	0.0859266	3537452
6720.41	0.0867992	3537978
6730.55	0.0874783	3539304
6740.68	0.0879547	3539702
6750.82	0.0882204	3540756
6760.95	0.0882679	3541390
6771.08	0.0880909	3542494
6780.09	0.0877405	3542950
6790.22	0.0871254	3543180
6800.36	0.0862732	3543512
6810.49	0.0851818	3544044
6820.62	0.0838503	3544154
6830.76	0.0822791	3544217
6840.89	0.0804701	3544173
6851.03	0.0784261	3543943
6860.03	0.0764157	3543931
6870.17	0.0739412	3543679
6880.3	0.0712482	3543705
6890.44	0.0683447	3543563
6900.57	0.0652396	3543839
6910.71	0.0619421	3543987
6920.84	0.0584612	3544731
6930.98	0.0548052	3545513
6941.11	0.0509812	3546371
6950.12	0.0474459	3547207
6960.25	0.0433204	3547639
6970.39	0.0390424	3548907
6980.52	0.0346162	3549437
6990.66	0.0300445	3550339
7000.79	0.0253277	3550843
7010.94	0.020457	3552175
7021.13	0.0154117	3552633
7030.2	0.0107867	3553197
7040.41	0.00542738	3553873
7050.63	-8.08777e-05	3553860
7060.85	-0.00571918	3555028
7071.07	-0.0114594	3555415
7080.21	-0.0166431	3556519
7090.55	-0.0225335	3557393
7100.93	-0.0284394	3558064
7110.14	-0.0336463	3558812
7120.49	-0.0394236	3559157
7130.84	-0.0451035	3560079
7140.04	-0.0500534	3560581
7150.39	-0.0554959	3561248
7160.74	-0.0607925	3561728
7171.09	-0.0659335	3561978
7180.29	-0.0703657	3563111
7190.64	-0.0751893	3564088
7200.99	-0.0798323	3565960
7210.19	-0.0838008	3566984
7220.54	-0.0880802	3568484
7230.89	-0.0921577	3570036
7240.09	-0.0956085	3571224
7250.43	-0.0992924	3572754
7260.77	-0.102765	3574274
7271.12	-0.106025	3576182
7280.31	-0.108742	3577386
7290.65	-0.111595	3579090
7301	-0.114231	3580356
7310.19	-0.116393	3581759
7320.54	-0.118623	3583277
7330.88	-0.120641	3584547
7340.07	-0.122258	3585498
7350.42	-0.123886	3586379
7360.76	-0.125316	3587499
7371.1	-0.126556	3588795
7380.3	-0.127506	3589297
7390.64	-0.128407	3590184
7400.94	-0.129137	3590234
7410.05	-0.129647	3590446
7420.29	-0.130074	3591126
7430.54	-0.130353	3591692
7440.77	-0.130496	3592280
7451	-0.130512	3592303
7460.1	-0.130431	3593096
7470.33	-0.130243	3593447
7480.56	-0.129967	3594061
7490.79	-0.129615	3594591
7501.02	-0.1292	3595352
7510.11	-0.128786	3595460
7520.34	-0.128279	3596128
7530.57	-0.127735	3596466
7540.8	-0.127164	3596564
7551.03	-0.126571	3597127
7560.13	-0.126033	3597205
7570.36	-0.125421	3598551
7580.59	-0.124809	3599258
7590.82	-0.124204	3600154
7601.04	-0.123612	3601181
7610.09	-0.123103	3601707
7620.24	-0.122554	3602739
7630.37	-0.122033	3603311
7640.49	-0.121542	3604259
7650.61	-0.121086	3604969
7660.72	-0.120667	3605449
7670.84	-0.120287	3606371
7680.96	-0.11995	3606875
7691.08	-0.119658	3607699
7700.07	-0.119439	3607931
7710.19	-0.119239	3609093
7720.31	-0.119091	3609358
7730.43	-0.118996	3609834
7740.54	-0.118954	3610524
7750.66	-0.118966	3610432
7760.78	-0.119031	3610850
7770.89	-0.11915	3610813
7781.01	-0.11932	3610873
7790	-0.119513	3610663
7800.12	-0.119777	3610582
7810.25	-0.120089	3610786
7820.4	-0.120447	3611052
7830.53	-0.120847	3610921
7840.65	-0.121289	3611159
7850.76	-0.12177	3610931
7860.88	-0.122288	3611114
7871	-0.12284	3610700
7881.12	-0.123425	3611174
7890.11	-0.123971	3611114
7900.23	-0.12461	3611410
7910.35	-0.125275	3611734
7920.46	-0.125963	3611822
7930.58	-0.126671	3612671
7940.7	-0.127395	3612911
7950.74	-0.128128	3613267
7960.67	-0.128863	3613667
7970.58	-0.129604	3614304
7980.49	-0.130348	3615042
7990.4	-0.131093	3615834
8000.32	-0.131835	3616454
8010.22	-0.132569	3617117
8020.13	-0.133291	3618106
8030.03	-0.133999	3618630
8041.03	-0.134763	3619630
8050.94	-0.135426	3620474
8060.84	-0.13606	3621617
8070.75	-0.136662	3622873
8080.65	-0.137228	3623892
8090.56	-0.137754	3625288
8100.46	-0.138234	3626508
8110.36	-0.138666	3627791
8120.27	-0.139045	3629097
8130.17	-0.139368	3630324
8140.08	-0.139631	3630959
8151.08	-0.139849	3632249
8160.98	-0.139975	3633107
8170.89	-0.140032	3633793
8180.79	-0.140018	3634839
8190.75	-0.139929	3635835
8200.82	-0.139763	3637607
8210.89	-0.139517	3638829
8220.99	-0.139191	3640133
8231.11	-0.138783	3640943
8240.11	-0.138353	3641450
8250.23	-0.137792	3642423
8260.36	-0.137152	3643223
8270.48	-0.136433	3644715
8280.61	-0.135638	3645267
8290.73	-0.134767	3646037
8300.85	-0.133824	3646687
8310.98	-0.13281	3647283
8321.1	-0.131728	3648045
8330.1	-0.130712	3648410
8340.22	-0.129511	3649036
8350.35	-0.12825	3649488
8360.47	-0.126932	3650533
8370.59	-0.125561	3651246
8380.72	-0.12414	3651860
8390.84	-0.12267	3652557
8400.96	-0.121154	3652427
8411.09	-0.119595	3652549
8420.09	-0.118174	3652493
8430.21	-0.116538	3653069
8440.34	-0.114862	3653085
8450.47	-0.113147	3653069
8460.64	-0.111389	3653125
8470.84	-0.109588	3653191
8481.04	-0.107747	3653143
8490.12	-0.106077	3653257
8500.34	-0.104158	3652833
8510.58	-0.102193	3652713
8520.84	-0.100181	3652789
8531.11	-0.0981222	3651988
8540.23	-0.0962511	3651636
8550.49	-0.0940974	3651083
8560.76	-0.0918892	3650212
8571.02	-0.0896233	3649980
8580.14	-0.0875579	3649750
8590.41	-0.0851735	3649611
8600.67	-0.0827216	3649515
8610.93	-0.0801987	3649175
8620.05	-0.0778953	3649565
8630.29	-0.0752371	3649131
8640.52	-0.0725005	3649109
8650.76	-0.0696827	3648723
8660.99	-0.0667818	3648567
8670.09	-0.0641324	3648691
8680.32	-0.0610718	3648363
8690.55	-0.0579257	3648013
8700.79	-0.0546944	3647938
8711.02	-0.0513788	3647948
8720.11	-0.0483621	3647934
8730.34	-0.0448923	3647638
8740.58	-0.0413449	3647554
8750.81	-0.0377235	3647225
8761.04	-0.0340324	3646909
8770.13	-0.0306971	3646893
8780.36	-0.0268889	3646792
8790.59	-0.02303	3647016
8800.8	-0.0191287	3647234
8811.01	-0.0151881	3646779
8820.09	-0.0116582	3646955
8830.3	-0.0076642	3647067
8840.51	-0.00365404	3647016
8850.72	0.000364513	3647203
8860.93	0.00438306	3647139
8871.13	0.00839318	3647235
8880.21	0.0119439	3647239
8890.42	0.0159153	3647410
8900.63	0.0198545	3647515
8910.83	0.0237537	3647421
8921.04	0.0276052	3647242
8930.11	0.0309827	3647564
8940.32	0.0347242	3647473
8950.51	0.0383949	3647141
8960.7	0.041993	3646740
8970.87	0.0455038	3646638
8980.99	0.0489196	3646335
8991.1	0.0522458	3646385
9000.09	0.0551276	3646333
9010.2	0.0582833	3646010
9020.31	0.0613451	3645481
9030.42	0.0643109	3644733
9040.52	0.0671792	3644333
9050.63	0.0699487	3643615
9060.74	0.0726188	3643035
9070.85	0.0751892	3642784
9080.96	0.0776599	3642279
9091.07	0.0800313	3642303
9100.05	0.0820562	3642302
9110.16	0.0842418	3642093
9120.27	0.0863306	3641633
9130.37	0.0883237	3641329
9140.48	0.0902229	3641178
9150.6	0.0920313	3641214
9160.74	0.0937516	3641688
9170.89	0.0953834	3641997
9181.05	0.0969277	3642469
9190.07	0.098227	3642897
9200.2	0.0996044	3644139
9210.31	0.100897	3644875
9220.41	0.102109	3646771
9230.52	0.103241	3647437
9240.63	0.104295	3649337
9250.74	0.105273	3650639
9260.85	0.106176	3651781
9270.96	0.107006	3653239
9281.07	0.107764	3654347
9290.05	0.108378	3655621
9300.16	0.109003	3656467
9310.27	0.10956	3657465
9320.38	0.110049	3658075
9330.49	0.110472	3659121
9340.6	0.11083	3660491
9350.71	0.111123	3661141
9360.82	0.111352	3662315
9370.93	0.111519	3663613
9381.04	0.111623	3664987
9390.03	0.111664	3665835
9400.14	0.111652	3666795
9410.25	0.11158	3667614
9420.36	0.111448	3668578
9430.47	0.111256	3669392
9440.58	0.111005	3670120
9450.69	0.110695	3670754
9460.8	0.110326	3671616
9470.91	0.109898	3672612
9481.02	0.109412	3673742
9490.01	0.108931	3674734
9500.12	0.108335	3676216
9510.24	0.107679	3677538
9520.43	0.10696	3678567
9530.62	0.106182	3679410
9540.81	0.105343	3680575
9551	0.104445	3681745
9560.06	0.103596	3682252
9570.25	0.102584	3683544
9580.44	0.101511	3684497
9590.63	0.100377	3684809
9600.83	0.0991828	3686557
9611.02	0.0979271	3686973
9620.08	0.0967594	3687686
9630.27	0.0953877	3688442
9640.46	0.0939546	3688507
9650.65	0.0924603	3688629
9660.84	0.090905	3688194
9671.03	0.089289	3688682
9680.09	0.0878021	3688471
9690.28	0.0860731	3688295
9700.47	0.0842854	3687940
9710.66	0.0824403	3687496
9720.86	0.0805391	3686895
9731.05	0.0785835	3686339
9740.11	0.076801	3685008
9750.3	0.074748	3684610
9760.49	0.0726468	3683796
9770.68	0.0705001	3683396
9780.87	0.0683109	3682971
9791.06	0.0660824	3682068
9800.12	0.0640713	3682068
9810.31	0.0617783	3681024
9820.51	0.0594569	3680468
9830.7	0.0571114	3679933
9840.88	0.054749	3678521
9851.05	0.0523733	3677848
9860.08	0.0502561	3677286
9870.24	0.047869	3676758
9880.4	0.0454813	3676415
9890.56	0.0430978	3676317
9900.71	0.0407239	3675900
9910.87	0.0383646	3675400
9921.03	0.0360251	3675289
9930.06	0.0339668	3674525
9940.19	0.031683	3673512
9950.33	0.0294331	3672123
9960.47	0.0272216	3671296
9970.6	0.0250531	3670018
9980.74	0.0229317	3669263
9990.87	0.0208617	3668197
10001	0.0188468	3667237
10010	0.017105	3667089
10020.2	0.0152039	3666449
10030.3	0.0133677	3666534
10040.4	0.0115992	3666468
10050.6	0.00990105	3666757
10060.7	0.00827562	3667041
10070.8	0.006725	3667260
10081	0.00525103	3668046
10091.1	0.00385534	3668487
10100.1	0.00268157	3668687
10110.3	0.00143737	3669421
10120.4	0.000274918	3670002
10130.5	-0.000804964	3670943
10140.7	-0.00180163	3671302
10150.8	-0.00271458	3672136
10161	-0.00354403	3672571
10171.1	-0.0042898	3672982
10180.2	-0.00488335	3673315
10190.3	-0.00547096	3673593
10200.5	-0.0059739	3673711
10210.7	-0.00639251	3674337
10220.9	-0.0067272	3674613
10231.1	-0.00697873	3675372
10240.1	-0.00713327	3675815
10250.3	-0.0072306	3676167
10260.4	-0.00724806	3677617
10270.6	-0.00718708	3678341
10280.8	-0.00704927	3679396
10290.9	-0.0068365	3680734
10301.1	-0.00655088	3681993
10310.1	-0.00623773	3683374
10320.3	-0.00582114	3684691
10330.5	-0.00533924	3685838
10340.6	-0.00479516	3687144
10350.8	-0.0041923	3688398
10361	-0.00353431	3689943
10370	-0.00290631	3690670
10380.2	-0.00215507	3691393
10390.4	-0.00136063	3692367
10400.5	-0.000527526	3693331
10410.7	0.000339545	3694445
10420.9	0.00123801	3695714
10431.1	0.00216237	3696727
10440.2	0.00300045	3697275
10450.4	0.00395719	3697379
10460.6	0.00492383	3697883
10470.8	0.00589547	3698413
10481	0.00686715	3699129
10490.1	0.00772693	3699396
10500.3	0.008686	3699471
10510.5	0.0096322	3699811
10520.7	0.0105622	3699234
10530.9	0.0114728	3699325
10541	0.012361	3699167
10550.1	0.0131296	3698950
10560.3	0.0139688	3699188
10570.5	0.0147794	3699087
10580.7	0.0155602	3698772
10590.9	0.0163106	3698594
10601.1	0.0170301	3697838
10610.1	0.017644	3697423
10620.3	0.0183064	3697052
10630.5	0.0189398	3696578
10640.7	0.0195455	3696747
10650.9	0.0201255	3696652
10661.1	0.0206819	3696448
10670.2	0.0211584	3697002
10680.4	0.0216763	3696602
10690.6	0.0221778	3696726
10700.8	0.0226655	3696539
10711	0.0231421	3695927
10720.1	0.0235584	3695888
10730.3	0.0240209	3695541
10740.5	0.0244795	3695210
10750.7	0.0249361	3694947
10760.9	0.0253931	3694479
10771.1	0.0258523	3694202
10780.1	0.0262633	3694135
10790.3	0.0267298	3693948
10800.5	0.0272014	3694376
10810.7	0.0276782	3694100
10820.9	0.02816	3694047
10830	0.028592	3693681
10840.2	0.0290812	3693222
10850.4	0.0295725	3693127
10860.6	0.0300641	3693449
10870.8	0.0305537	3693354
10881	0.0310388	3693323
10890.1	0.031464	3692593
10900.3	0.0319327	3692264
10910.5	0.0323882	3692248
10920.7	0.0328268	3692447
10930.9	0.033245	3692722
10941.1	0.0336391	3692264
10950.1	0.0339661	3692149
10960.3	0.0343044	3691810
10970.5	0.0346079	3691539
10980.7	0.034873	3691274
10990.9	0.0350962	3690766
11000	0.0352568	3690979
11010.2	0.0353922	3690247
11020.4	0.0354768	3690610
11030.7	0.0355078	3690438
11041	0.0354824	3690844
11050.2	0.0354101	3690922
11060.5	0.0352713	3691346
11070.8	0.0350704	3691877
11080	0.0348389	3692412
11090.3	0.0345181	3692409
11100.6	0.0341328	3692501
11111	0.0336835	3692468
11120.1	0.0332307	3692789
11130.4	0.0326617	3692605
11140.7	0.0320317	3692742
11150.9	0.0313412	3693122
11160	0.0306771	3693288
11170.3	0.0298747	3692896
11180.5	0.0290154	3692875
11190.8	0.0281012	3692894
11201	0.0271342	3693319
11210.1	0.0262322	3693164
11220.3	0.0251794	3693885
11230.4	0.0240865	3694372
11240.5	0.0229545	3694502
11250.6	0.0217845	3694961
11260.7	0.0205782	3695873
11270.8	0.0193384	3697232
11280.9	0.018068	3698272
11291	0.01677	3699903
11301.1	0.0154472	3701635
11310.1	0.014253	3702041
11320.2	0.0128917	3702934
11330.3	0.0115142	3702766
11340.3	0.0101235	3703291
11350.4	0.00872258	3703166
11360.5	0.00731418	3702510
11370.6	0.00590113	3702068
11380.7	0.00448616	3701220
11390.8	0.0030719	3700950
11400.9	0.00166088	3700266
11411	0.000252166	3700232
11420.1	-0.000999092	3699940
11430.3	-0.00240265	3699571
11440.5	-0.0037951	3699481
11450.7	-0.00517306	3699452
11460.9	-0.00653465	3699335
11470	-0.0077298	3699315
11480.2	-0.00905588	3698753
11490.4	-0.010361	3699224
11500.7	-0.011644	3698712
11510.9	-0.0129038	3697780
11521.1	-0.0141402	3696337
11530.2	-0.0152207	3695947
11540.5	-0.0164119	3695253
11550.7	-0.017577	3694489
11561	-0.0187158	3694286
11570.1	-0.0197057	3693964
11580.3	-0.0207941	3693521
11590.6	-0.0218561	3692525
11600.8	-0.0228917	3691941
11611.1	-0.0239013	3691457
11620.2	-0.024777	3691367
11630.4	-0.0257384	3690506
11640.7	-0.0266748	3689461
11650.9	-0.0275869	3688696
11660	-0.0283772	3687733
11670.2	-0.029241	3687381
11680.4	-0.0300783	3686609
11690.5	-0.0308901	3686276
11700.5	-0.0316755	3685561
11710.6	-0.0324378	3684962
11720.6	-0.0331788	3684182
11730.6	-0.0338991	3682959
11740.6	-0.034599	3682304
11750.6	-0.0352785	3680999
11760.6	-0.0359373	3679851
11770.6	-0.0365753	3678953
11780.6	-0.0371918	3678100
11790.6	-0.0377865	3677536
11800.7	-0.0383585	3676990
11810.7	-0.038907	3676770
11820.7	-0.039431	3675911
11830.7	-0.0399296	3675239
11840.7	-0.0404014	3674381
11850.7	-0.0408451	3673443
11860.7	-0.0412593	3672683
11870.7	-0.0416425	3671674
11880.7	-0.0419937	3670911
11890.8	-0.0423112	3669846
11900.9	-0.0425924	3667770
11910.9	-0.0428354	3666475
11921	-0.0430382	3664789
11931.1	-0.0431992	3663839
11940	-0.0433056	3662677
11950.2	-0.0433821	3661834
11960.3	-0.0434108	3660875
11970.5	-0.0433894	3660482
11980.7	-0.0433161	3659273
11990.8	-0.0431894	3658739
12001	-0.0430081	3657675
12011.1	-0.0427706	3656867
12020.2	-0.0425114	3656357
12030.3	-0.0421649	3655276
12040.5	-0.0417593	3654613
12050.6	-0.0412942	3654134
12060.8	-0.0407691	3654009
12070.9	-0.0401838	3653173
12081.1	-0.0395386	3652365
12090.1	-0.038915	3652190
12100.3	-0.0381577	3652063
12110.4	-0.0373427	3652158
12120.5	-0.0364734	3652100
12130.6	-0.0355501	3651994
12140.7	-0.0345737	3652336
12150.8	-0.0335459	3652390
12160.9	-0.0324689	3652300
12171.1	-0.0313451	3651811
12180	-0.0303092	3651614
12190.1	-0.0291046	3651676
12200.2	-0.0278616	3651117
12210.4	-0.0265833	3651183
12220.5	-0.0252733	3651053
12230.6	-0.0239349	3651087
12240.7	-0.0225719	3650911
12250.8	-0.0211879	3650386
12260.9	-0.0197868	3649971
12271	-0.0183725	3648979
12281.1	-0.0169487	3648483
12290.1	-0.0156784	3647979
12300.2	-0.0142473	3646911
12310.3	-0.012818	3646332
12320.4	-0.011394	3645746
12330.5	-0.0099792	3644814
12340.6	-0.00857705	3643937
12350.7	-0.00719111	3642869
12360.8	-0.005824	3641308
12370.9	-0.00447815	3640437
12381.1	-0.00315578	3638425
12390.1	-0.00200437	3637700
12400.3	-0.000739592	3636570
12410.4	0.000489969	3635216
12420.6	0.00168145	3633860
12430.7	0.00283282	3632024
12440.9	0.00394315	3630888
12451.1	0.00501031	3629016
12460.2	0.00591857	3628052
12470.4	0.00689099	3626548
12480.7	0.00780829	3625461
12490.8	0.00866189	3624735
12500.9	0.00944948	3623655
12510.9	0.0101727	3622950
12520.9	0.0108332	3621809
12530.9	0.011429	3621239
12540.8	0.0119558	3621223
12550.7	0.0124104	3620725
12560.5	0.0127933	3620503
12570.4	0.0131041	3620672
12580.2	0.0133414	3620583
12591.1	0.0135164	3620872
12600.9	0.013592	3620895
12610.7	0.0135881	3620785
12620.5	0.0135028	3621183
12630.3	0.0133346	3621423
12640.1	0.013082	3621415
12651.1	0.0127011	3621729
12660.9	0.0122667	3621520
12670.7	0.0117449	3621651
12680.5	0.0111352	3621053
12690.3	0.0104373	3620626
12700.1	0.00965118	3619641
12711	0.00867479	3619386
12720.8	0.00770412	3618952
12730.7	0.00664743	3618653
12740.5	0.00550604	3618535
12750.3	0.00428167	3617919
12760.1	0.00297631	3617444
12771	0.0014299	3616989
12780.9	-4.59495e-05	3615968
12790.8	-0.00160333	3615886
12800.7	-0.0032334	3615003
12810.7	-0.00493042	3614272
12820.6	-0.00669082	3613267
12830.6	-0.00851758	3612342
12840.6	-0.01041	3611978
12850.7	-0.0123595	3610977
12860.7	-0.0143562	3610333
12870.8	-0.0163924	3609717
12880.9	-0.0184624	3609149
12891	-0.0205603	3608628
12901.1	-0.0226818	3607919
12910.1	-0.0245878	3607724
12920.1	-0.0267319	3607148
12930.2	-0.0288669	3607381
12940.1	-0.0309916	3606850
12950.1	-0.0331089	3606535
12960.1	-0.0352132	3606474
12970	-0.0372991	3606452
12980	-0.039361	3606472
12991.1	-0.0416176	3606235
13001.1	-0.0436122	3606534
13011	-0.0455671	3606328
13021	-0.0474743	3606211
13030.9	-0.0493195	3606230
13040.7	-0.0511049	3605859
13050.4	-0.0528281	3605552
13060.2	-0.0544957	3605435
13071.1	-0.0562801	3605371
13080.8	-0.0578221	3605239
13090.6	-0.0593016	3605314
13100.4	-0.0607171	3605437
13110.1	-0.0620675	3606143
13121	-0.0634907	3606389
13130.8	-0.0647017	3606206
13140.5	-0.0658463	3605951
13150.3	-0.066925	3605962
13160.1	-0.0679384	3605328
13170.9	-0.068989	3605451
13180.7	-0.069868	3605011
13190.5	-0.0706856	3605092
13200.2	-0.0714436	3604703
13210	-0.0721441	3604407
13220.9	-0.0728571	3604074
13230.6	-0.0734397	3603855
13240.2	-0.073971	3603327
13250.9	-0.0745069	3602296
13260.6	-0.0749439	3601486
13270.2	-0.0753412	3601368
13280.9	-0.0757395	3600438
13290.6	-0.0760626	3599943
13300.2	-0.0763554	3599185
13310.9	-0.0766489	3598457
13320.6	-0.076888	3597666
13330.2	-0.0771063	3597284
13340.9	-0.0773284	3596664
13350.6	-0.0775131	3596178
13360.2	-0.0776864	3595835
13371	-0.077869	3595741
13380.6	-0.0780273	3595572
13390.2	-0.0781826	3595432
13401	-0.0783547	3595635
13410.6	-0.0785117	3595232
13420.2	-0.0786729	3595092
13431	-0.0788595	3594448
13440.6	-0.0790364	3593984
13450.3	-0.0792238	3593114
13460.1	-0.0794246	3592008
13471	-0.0796658	3591329
13480.9	-0.0798989	3590684
13490.7	-0.0801478	3589867
13500.6	-0.0804126	3589572
13510.4	-0.0806948	3588543
13520.2	-0.0809947	3588339
13530.1	-0.0813127	3587629
13541	-0.0816871	3586850
13550.8	-0.0820428	3586260
13560.6	-0.082416	3585511
13570.5	-0.0828058	3584910
13580.3	-0.0832116	3584068
13590.1	-0.0836322	3583382
13601.1	-0.0841153	3582326
13610.9	-0.0845628	3581274
13620.7	-0.0850203	3580487
13630.5	-0.085485	3579740
13640.3	-0.0859543	3578994
13650.1	-0.0864272	3578397
13660.9	-0.0869543	3577803
13670.7	-0.0874274	3576612
13680.4	-0.0878966	3575940
13690.2	-0.088359	3574652
13701	-0.0888595	3573389
13710.7	-0.0892937	3573050
13720.3	-0.089711	3572251
13731	-0.0901523	3571911
13740.6	-0.0905268	3571453
13750.2	-0.0908769	3571208
13760.9	-0.0912338	3571475
13770.5	-0.0915232	3570963
13780.1	-0.0917795	3571361
13790.8	-0.0920225	3570826
13800.4	-0.0922008	3570636
13810.1	-0.0923387	3570243
13820.8	-0.0924418	3569224
13830.4	-0.0924873	3568931
13841.1	-0.0924833	3568306
13850.7	-0.0924289	3567638
13860.3	-0.0923249	3566988
13871	-0.0921498	3566367
13880.6	-0.0919376	3565733
13890.2	-0.091673	3565217
13900.9	-0.0913163	3565035
13910.6	-0.090937	3564706
13920.3	-0.0905012	3564188
13930	-0.0900104	3563998
13940.8	-0.0894009	3563400
13950.6	-0.0887928	3562908
13960.3	-0.0881295	3562469
13970.1	-0.087412	3561640
13981	-0.0865521	3560789
13990.8	-0.085721	3560136
14000.6	-0.0848366	3559409
14010.4	-0.0838995	3558585
14020.2	-0.0829067	3557585
14030.1	-0.0818602	3556465
14040	-0.0807633	3555492
14051	-0.0794874	3554199
14060.9	-0.0782882	3553020
14070.8	-0.0770411	3551753
14080.8	-0.0757456	3550940
14090.7	-0.0744001	3550110
14100.7	-0.0730041	3549536
14110.8	-0.0715547	3549032
14120.9	-0.0700609	3548040
14130.9	-0.0685295	3546999
14141	-0.0669589	3545681
14151	-0.065349	3544182
14161.1	-0.0637011	3542991
14170	-0.0622054	3541175
14180.1	-0.0604895	3539945
14190.1	-0.0587395	3538515
14200.2	-0.056957	3537513
14210.2	-0.0551437	3536638
14220.3	-0.0533011	3535556
14230.3	-0.0514309	3535232
14240.4	-0.0495351	3534174
14250.4	-0.0476153	3533252
14260.5	-0.0456736	3532309
14270.5	-0.0437119	3531182
14280.6	-0.0417323	3529518
14290.6	-0.039737	3528789
14300.7	-0.0377268	3527076
14310.8	-0.0357018	3526386
14320.9	-0.0336596	3525114
14331.1	-0.0315928	3524538
14340.2	-0.0297416	3523712
14350.5	-0.0276517	3522558
14360.7	-0.0255613	3522228
14371	-0.0234726	3520971
14380.1	-0.0216195	3520554
14390.4	-0.0195406	3519951
14400.7	-0.0174702	3519124
14411	-0.0154105	3518897
14420.1	-0.0135905	3518249
14430.3	-0.0115626	3517955
14440.6	-0.00955434	3516939
14450.8	-0.00756572	3516605
14461	-0.00559799	3516253
14470.1	-0.00386806	3515815
14480.3	-0.00194521	3514641
14490.6	-4.89296e-05	3513461
14500.8	0.00181888	3511715
14511	0.00365631	3510370
14520.1	0.00526257	3508270
14530.3	0.0070368	3506932
14540.6	0.00877495	3504916
14550.8	0.0104755	3502882
14561	0.0121366	3500517
14570.1	0.0135786	3498774
14580.3	0.0151601	3496778
14590.5	0.0166969	3494279
14600.8	0.018187	3491732
14611	0.0196288	3489533
14620.1	0.0208682	3487782
14630.3	0.0222137	3485449
14640.5	0.0235057	3482749
14650.7	0.0247431	3480482
14661	0.025926	3478518
14670.1	0.0269316	3476559
14680.4	0.0280067	3474284
14690.6	0.0290164	3472341
14700.8	0.0299597	3470112
14711	0.0308365	3468038
14721.1	0.0316492	3465891
14730.1	0.0323185	3464432
14740.2	0.0330116	3462375
14750.3	0.0336415	3460139
14760.4	0.0342084	3458009
14770.5	0.0347123	3455283
14780.6	0.0351537	3453400
14790.7	0.0355331	3450338
14800.8	0.0358513	3447475
14810.9	0.0361093	3444088
14821	0.0363081	3440187
14831.1	0.0364493	3436301
14840.1	0.0365274	3432736
14850.2	0.0365636	3428486
14860.3	0.0365467	3424485
14870.3	0.036479	3419834
14880.3	0.0363635	3415038
14890.2	0.0362026	3410495
14900.1	0.0359982	3405836
14910.1	0.0357524	3401691
14921	0.0354339	3397235
14930.9	0.0351082	3392831
14940.8	0.0347473	3388814
14950.7	0.0343535	3384647
14960.6	0.0339285	3380104
14970.4	0.0334743	3376115
14980.3	0.0329929	3371883
14990.2	0.0324861	3368612
15000.1	0.0319556	3364553
15011	0.0313406	3360672
15020.9	0.0307658	3356778
15030.8	0.0301726	3353251
15040.7	0.0295625	3349559
15050.6	0.0289353	3346122
15060.5	0.028292	3342937
15070.6	0.0276266	3339244
15080.9	0.0269332	3336028
15090.1	0.026309	3332251
15100.3	0.0256013	3328792
15110.5	0.0248888	3325243
15120.6	0.0241745	3321697
15130.7	0.0234608	3318469
15140.7	0.0227447	3314979
15150.7	0.0220272	3312007
15160.6	0.0213091	3308945
15170.5	0.0205906	3305655
15180.4	0.0198742	3301963
15190.3	0.0191612	3298867
15200.2	0.0184496	3295194
15210	0.0177402	3292002
15221	0.0169556	3288457
15230.8	0.0162538	3285199
15240.7	0.015557	3282188
15250.6	0.0148662	3278903
15260.4	0.0141822	3276160
15270.3	0.013506	3272867
15280.2	0.0128334	3269801
15290.2	0.0121643	3266916
15300.3	0.0115032	3263717
15310.4	0.0108546	3260404
15320.5	0.0102196	3257333
15330.6	0.0095995	3253949
15340.7	0.00899542	3250277
15350.8	0.00840858	3246485
15360.9	0.00784018	3243122
15370.9	0.00729231	3239797
15381	0.00676568	3235768
15391	0.00626092	3231810
15401.1	0.00577912	3228050
15410	0.00537101	3224602
15420.1	0.00493545	3221402
15430.2	0.00452575	3218081
15440.2	0.00414276	3215214
15450.3	0.00378723	3211579
15460.4	0.00345974	3208412
15470.4	0.00316076	3205134
15480.5	0.00289	3201921
15490.6	0.00264853	3199035
15500.8	0.00243653	3196288
15510.9	0.00225423	3193420
15521	0.00210144	3189955
15530.1	0.00198956	3187423
15540.5	0.00189042	3184129
15551	0.00182031	3180564
15560.3	0.00178274	3177607
15570.8	0.0017676	3174153
15580.1	0.00177732	3170849
15590.5	0.00181302	3167590
15600.9	0.00187352	3163729
15610.1	0.00194686	3160838
15620.5	0.00204982	3157123
15630.8	0.00217284	3153767
15640	0.00229781	3150878
15650.3	0.00245453	3146991
15660.7	0.00262671	3143342
15671	0.00281263	3139100
15680.2	0.00298803	3135589
15690.5	0.0031952	3131609
15700.8	0.00341115	3127875
15710	0.00360913	3124169
15720.3	0.00383714	3119683
15730.7	0.00406923	3115555
15741	0.00430389	3111569
15750.2	0.00451348	3107889
15760.5	0.00474926	3104077
15770.9	0.00498445	3100129
15780.1	0.005192	3097005
15790.5	0.00542269	3093458
15800.9	0.00564908	3089693
15810.2	0.00584608	3086621
15820.6	0.00606237	3082842
15831	0.00627255	3079290
15840.3	0.00645401	3076401
15850.7	0.00665154	3072676
15861	0.00684221	3069281
15870.2	0.00700627	3066325
15880.6	0.00718513	3063213
15891	0.00735839	3059545
15900.2	0.0075082	3056278
15910.5	0.00767271	3052607
15920.9	0.00783382	3049451
15930.1	0.007975	3046709
15940.5	0.00813258	3043050
15950.8	0.00829004	3039939
15960.1	0.00843096	3036983
15970.4	0.00859188	3033965
15980.8	0.00875716	3031328
15990.1	0.00890964	3028863
16000.6	0.00908808	3025793
16011.1	0.00927548	3022809
16020.6	0.00945323	3020017
16030.2	0.00964301	3017051
16041	0.00986958	3013696
16050.6	0.0100839	3011216
16060.2	0.0103115	3008325
16071	0.0105849	3005205
16080.6	0.0108453	3002294
16090.3	0.0111232	2999799
16100	0.0114203	2996876
16111.2	0.0117843	2993609
16120	0.0120884	2991106
16130.2	0.0124578	2988283
16140.4	0.0128553	2985828
16150.8	0.0132778	2983350
16161.1	0.0137238	2980358
16170.2	0.0141334	2977846
16180.5	0.0146237	2975051
16190.8	0.0151377	2971958
16201.2	0.0156753	2969306
16210.2	0.0161643	2966469
16220.5	0.016743	2963664
16230.8	0.0173442	2960781
16241.1	0.0179675	2957934
16250.1	0.0185305	2955071
16260.4	0.0191936	2951949
16270.7	0.019877	2948703
16280.9	0.0205799	2945418
16291.2	0.0213016	2942196
16300.2	0.0219476	2939258
16310.5	0.0227018	2936085
16320.8	0.0234721	2932860
16331.1	0.0242572	2929946
16340.1	0.0249556	2927587
16350.4	0.0257657	2924393
16360.7	0.0265873	2921600
16371	0.0274193	2918544
16381.3	0.0282601	2915636
16390.3	0.0290021	2913180
16400.6	0.0298559	2910139
16410.9	0.0307145	2907628
16421.2	0.0315763	2904577
16430.2	0.0323322	2902140
16440.5	0.0331966	2899358
16450.8	0.0340636	2896570
16461.2	0.0349314	2893982
16470.3	0.0356867	2891628
16480.8	0.0365552	2889181
16490.2	0.0373184	2886997
16501	0.0381944	2884164
16510.5	0.0389515	2881999
16520.1	0.0397015	2879754
16531.1	0.0405449	2876837
16540.6	0.0412677	2874296
16550.2	0.0419751	2871692
16561.2	0.042763	2869021
16570.8	0.0434334	2866683
16580.3	0.0440847	2864227
16591.3	0.0448045	2861684
16600.9	0.0454118	2859525
16610.5	0.0459973	2857113
16620	0.0465602	2855020
16631	0.0471749	2852403
16640.6	0.0476874	2850387
16650.2	0.0481755	2848549
16661.1	0.0487031	2845890
16670.7	0.0491381	2843735
16680.3	0.0495481	2841579
16691.2	0.049986	2839192
16700.8	0.0503426	2837193
16710.4	0.0506744	2835051
16721.3	0.0510216	2832751
16730.8	0.0512971	2830775
16740.2	0.0515472	2828792
16750.9	0.0518043	2826806
16760.2	0.0520054	2824850
16770.8	0.0522093	2822944
16780.1	0.0523659	2821022
16790.8	0.0525206	2818818
16800.1	0.0526357	2816886
16810.7	0.052745	2814381
16820	0.0528221	2812931
16830.7	0.05289	2810614
16841.3	0.0529376	2808761
16850.6	0.0529637	2807086
16861.1	0.052977	2805011
16870.4	0.0529753	2803116
16881	0.0529592	2801085
16890.3	0.0529339	2799500
16900.8	0.0528933	2797720
16910.1	0.0528486	2795850
16920.7	0.0527882	2794060
16931.3	0.0527191	2791919
16940.5	0.0526527	2790139
16951.1	0.0525708	2788195
16960.1	0.0524975	2786760
16970.8	0.0524065	2785131
16980	0.052326	2783754
16990.8	0.0522305	2782207
17000	0.0521469	2780985
17010.9	0.0520488	2779278
17020.3	0.0519653	2778046
17031.5	0.0518665	2776737
17041.2	0.0517821	2775357
17051	0.0516994	2774380
17060.9	0.0516191	2773285
17070.7	0.0515413	2772141
17080.5	0.0514661	2771128
17090.3	0.0513935	2770039
17100.1	0.0513234	2768837
17111.6	0.0512444	2767486
17121.4	0.0511787	2766434
17131.2	0.0511143	2765284
17141	0.0510506	2763941
17150.8	0.0509869	2762650
17160.8	0.0509211	2761438
17171.2	0.0508508	2760013
17181.6	0.0507774	2758769
17190.1	0.0507137	2757479
17200.3	0.0506319	2756190
17210.7	0.0505411	2754943
17221.2	0.050441	2753680
17231.6	0.0503297	2752451
17240.3	0.050227	2751358
17250.7	0.0500901	2750166
17261.1	0.0499361	2748938
17271.5	0.0497627	2747647
17280.2	0.0496017	2746717
17290.7	0.0493859	2745563
17301.1	0.0491446	2744064
17311.1	0.0488853	2742953
17321.1	0.0485968	2741597
17331.1	0.0482765	2740436
17341.6	0.0479065	2739247
17350.3	0.0475667	2738286
17360.7	0.0471201	2737121
17371.2	0.0466275	2735758
17381.6	0.0460857	2734665
17390.3	0.0455943	2733567
17400.7	0.0449538	2732154
17411.1	0.0442591	2731017
17421.2	0.0435218	2729963
17431.1	0.0427459	2729076
17440.8	0.0419223	2728040
17450.4	0.0410472	2727017
17461.4	0.0399602	2725883
17470.8	0.0389672	2724654
17480.1	0.0379178	2723402
17491.1	0.0365889	2722352
17500.8	0.0353416	2721321
17510.6	0.0339972	2720331
17520.5	0.032553	2719188
17530.7	0.0309871	2718159
17540.9	0.0293159	2716920
17551.1	0.0275481	2715807
17561.5	0.025647	2714895
17570.2	0.0239863	2714051
17580.3	0.0219425	2713337
17590.2	0.019854	2712616
17600	0.0176917	2711982
17611.2	0.0151104	2711058
17620.7	0.012814	2710501
17630.2	0.0104184	2709749
17641.4	0.00749463	2708965
17650.9	0.00492535	2708308
17660.3	0.00229129	2707832
17671.1	-0.000859677	2707143
17680.4	-0.0036427	2706669
17691.2	-0.0069697	2706015
17700.4	-0.00989609	2705439
17711.2	-0.0134133	2704864
17721.2	-0.0167535	2704176
17731.3	-0.0202382	2703819
17741.6	-0.0238267	2703191
17750.2	-0.0268765	2702672
17760.5	-0.0305973	2702069
17770.7	-0.0343787	2701396
17781	-0.0382145	2700459
17791.3	-0.0420976	2699760
17801.6	-0.0460208	2699242
17810.1	-0.0493153	2698768
17820.4	-0.053292	2698167
17830.7	-0.0572863	2697608
17841.2	-0.0613681	2697347
17851.2	-0.0652848	2696734
17861.6	-0.0693174	2696108
17870.5	-0.0727559	2695585
17880.5	-0.0766114	2694995
17890.4	-0.080377	2694557
17900.6	-0.0842299	2694151
17911.2	-0.0881531	2693596
17921.7	-0.0920079	2692979
17930.4	-0.0951342	2692535
17941	-0.0988324	2692045
17951.1	-0.102297	2691434
17961.4	-0.105705	2690671
17970	-0.10849	2690039
17980.2	-0.111664	2689359
17991.5	-0.115019	2688563
18001.3	-0.11782	2687853
18011.5	-0.120567	2687219
18020.3	-0.12283	2686543
18030.8	-0.125401	2685908
18041.4	-0.127784	2685282
18050.2	-0.12966	2684510
18060.9	-0.131738	2683940
18071.6	-0.133621	2683284
18081.4	-0.135185	2682708
18091.1	-0.136544	2682174
18100.7	-0.137735	2681702
18110.4	-0.138755	2681104
18120.6	-0.139653	2680513
18131.3	-0.140377	2679906
18140.1	-0.140813	2679418
18151.6	-0.141161	2678851
18161.4	-0.141264	2678167
18170.1	-0.141204	2677742
18180.5	-0.14095	2676916
18190.9	-0.140497	2676146
18201.3	-0.13985	2675589
18211.7	-0.139011	2674899
18220.3	-0.138168	2674261
18230.4	-0.137021	2673737
18240.3	-0.135725	2673024
18250.3	-0.13427	2672294
18260.1	-0.13267	2671570
18271.4	-0.130661	2670886
18280.9	-0.128813	2670338
18290.4	-0.126849	2669776
18301.3	-0.124436	2669151
18310.6	-0.12226	2668847
18321.4	-0.119605	2668138
18330.6	-0.117229	2667914
18341.4	-0.114338	2667364
18350.7	-0.111733	2666812
18360.4	-0.108946	2666431
18370.3	-0.106018	2665914
18380.3	-0.102963	2665482
18391	-0.0996283	2665005
18401.7	-0.0962014	2664484
18410.6	-0.0932932	2664146
18421.3	-0.0897477	2663700
18430.3	-0.0867526	2663394
18441	-0.0831218	2663216
18451.6	-0.0794872	2662846
18460.4	-0.0764515	2662564
18470.9	-0.0727884	2662248
18481.5	-0.0691097	2661666
18490.4	-0.0659887	2661317
18501.2	-0.0622407	2660935
18510.1	-0.0591195	2660766
18520.8	-0.055382	2660390
18531.5	-0.0516587	2660020
18540.5	-0.0485708	2659726
18551.2	-0.0448874	2659298
18560.1	-0.0418398	2659000
18570.9	-0.0382127	2658637
18581.6	-0.0346223	2658167
18590.5	-0.0316611	2657801
18601.2	-0.0281479	2657403
18610.2	-0.0252556	2657053
18620.9	-0.0218303	2656773
18631.6	-0.018457	2656523
18640.5	-0.0156875	2656341
18651.2	-0.0124353	2656285
18661.5	-0.00934225	2656063
18670.4	-0.00673615	2655763
18681.1	-0.0036394	2655499
18691.8	-0.000606134	2655317
18700.7	0.00187199	2655175
18711.4	0.00479023	2654961
18720.3	0.0071712	2654817
18731.1	0.00996516	2654554
18741.8	0.0126891	2654470
18750.7	0.0149048	2654425
18761.4	0.0174977	2654283
18770.4	0.019603	2654198
18781.1	0.0220573	2654041
18791.8	0.024438	2653947
18800.7	0.0263655	2653835
18811.2	0.0285761	2653611
18821.7	0.030708	2653470
18830.5	0.0324299	2653252
18841	0.0344308	2653188
18851.5	0.0363606	2653141
18860.1	0.0378969	2653025
18870.5	0.0396779	2652897
18880.9	0.0413917	2652901
18891.3	0.0430394	2652663
18901.7	0.0446315	2652483
18910.4	0.0459169	2652327
18920.9	0.0474013	2652094
18931.2	0.0487936	2652081
18941.5	0.0501292	2651915
18950.2	0.0512234	2651739
18960.7	0.052485	2651437
18971.1	0.0536827	2651273
18981.4	0.0548207	2651019
18991.6	0.055911	2650829
19000.2	0.0567902	2650726
19010.6	0.057822	2650432
19021.1	0.0588207	2650166
19031.6	0.0597835	2649944
19040.3	0.0605603	2649800
19050.8	0.0614645	2649526
19061.3	0.0623407	2649342
19070	0.0630513	2649188
19080.5	0.0638828	2649000
19091	0.0646934	2648922
19101.5	0.0654854	2648852
19110.2	0.0661327	2648781
19120.6	0.0668867	2648691
19130.9	0.0676269	2648516
19141.3	0.0683591	2648462
19150	0.068967	2648434
19160.5	0.0696881	2648226
19171	0.0704013	2648126
19181.5	0.0711074	2647977
19190.2	0.071691	2648007
19200.6	0.0723803	2648069
19210.9	0.0730616	2648053
19221.4	0.073742	2648133
19230.1	0.0743092	2648096
19240.6	0.0749855	2648089
19251.1	0.0756572	2648087
19261.4	0.076317	2648028
19270	0.0768603	2648073
19280.3	0.0775074	2647883
19290.7	0.078149	2647741
19301	0.0787846	2647653
19311.3	0.0794135	2647564
19321.6	0.0800351	2647526
19330	0.0805348	2647360
19340.1	0.0811262	2647292
19350.1	0.0817085	2647113
19360.2	0.0822807	2647016
19370.4	0.0828524	2646816
19380.9	0.0834204	2646644
19391.3	0.0839745	2646354
19401.7	0.0845131	2646172
19410.2	0.084944	2645935
19420.5	0.0854439	2645762
19430.8	0.0859277	2645640
19441.2	0.0863962	2645388
19451.5	0.0868399	2645366
19461.6	0.0872522	2645365
19470.3	0.0875889	2645239
19480.7	0.0879696	2645051
19491	0.0883199	2645067
19501	0.088638	2644959
19511.1	0.0889276	2644781
19521.1	0.0891904	2644843
19531.1	0.0894252	2644971
19541.1	0.089632	2644869
19551.1	0.08981	2644958
19561.2	0.0899599	2645006
19571.4	0.0900804	2645052
19581.7	0.0901694	2645126
19590.2	0.0902194	2645282
19600.4	0.0902502	2645496
19610.7	0.0902489	2645688
19621.1	0.0902145	2645844
19631.6	0.090147	2645994
19640.2	0.0900656	2646024
19650.6	0.0899379	2646292
19661.1	0.0897775	2646650
19671.5	0.0895849	2646976
19680.1	0.0894011	2647176
19690.4	0.0891545	2647251
19700.8	0.0888732	2647311
19711.1	0.0885652	2647303
19721.3	0.0882271	2647325
19731.7	0.0878591	2647393
19740.2	0.0875302	2647421
19750.6	0.0871094	2647638
19760.9	0.0866605	2647561
19771.2	0.0861838	2647644
19781.4	0.0856834	2647804
19791.3	0.0851754	2647880
19801.4	0.0846282	2647991
19811.7	0.08405	2648044
19820.3	0.0835439	2647919
19830.7	0.0829095	2647811
19841.1	0.0822497	2647781
19851.5	0.0815648	2647765
19860.2	0.0809751	2647825
19870.6	0.080245	2647790
19881	0.0794907	2647844
19891.3	0.0787192	2648018
19901.2	0.0779592	2648012
19911.1	0.0771721	2648037
19921.6	0.076325	2648128
19930.2	0.0756011	2648036
19940.6	0.0747107	2648004
19951	0.0737966	2647980
19961.4	0.0728588	2647847
19970.1	0.072059	2647758
19980.2	0.0711083	2647694
19990	0.0701611	2647628
