0	0	345164
10.9729	0	367956
20.9351	0	382288
30.897	0	395486
40.859	-1.81899e-12	407876
50.798	-1.09139e-11	417982
60.6335	-2.00089e-11	425780
70.4425	-3.54703e-11	432102
80.2486	-5.63887e-11	438134
90.9572	-8.91305e-11	443848
100.598	-1.28239e-10	448154
110.21	-1.74623e-10	452106
120.783	-2.3465e-10	456328
130.4	-2.82853e-10	459668
140.05	-3.10138e-10	463170
150.695	-2.8831e-10	466648
160.279	-1.81899e-10	469786
170.746	9.1859e-11	473046
180.283	5.56611e-10	475860
190.919	1.437e-09	479164
200.769	2.73121e-09	481778
210.726	4.68572e-09	484688
220.776	7.54608e-09	487668
230.942	1.16406e-08	490562
240.092	1.66747e-08	493330
250.274	2.42026e-08	496656
260.463	3.42816e-08	499734
270.651	4.74711e-08	502658
280.84	6.43395e-08	505650
290.012	8.31442e-08	508526
300.209	1.08834e-07	511440
310.406	1.40692e-07	514562
320.603	1.80141e-07	517516
330.795	2.28783e-07	520760
340.972	2.88334e-07	524288
350.069	3.52473e-07	527516
360.062	4.36727e-07	531528
370.055	5.37667e-07	535404
380.047	6.57884e-07	539514
390.04	8.0026e-07	543612
400.033	9.67946e-07	547446
410.033	1.16437e-06	551494
420.036	1.39281e-06	555376
430.04	1.65662e-06	559520
440.137	1.96237e-06	563716
450.233	2.31189e-06	567836
460.329	2.70981e-06	572362
470.426	3.16146e-06	576158
480.522	3.67316e-06	580226
490.61	4.25181e-06	584590
500.633	4.90294e-06	588256
510.607	5.63647e-06	592496
520.571	6.46623e-06	596550
530.535	7.40752e-06	600822
540.499	8.47704e-06	604858
550.463	9.59782e-06	608576
560.427	1.06655e-05	612976
570.396	1.17255e-05	616786
580.374	1.28234e-05	620920
590.359	1.40032e-05	625290
600.323	1.53038e-05	629490
610.285	1.67678e-05	634088
620.247	1.84319e-05	638160
630.209	2.03295e-05	642626
640.171	2.24918e-05	646814
650.138	2.49387e-05	651018
660.129	2.76551e-05	655988
670.158	3.0623e-05	660226
680.187	3.38203e-05	664572
690.209	3.72503e-05	668806
700.22	4.09379e-05	673300
710.182	4.49097e-05	677370
720.107	4.92219e-05	682044
730.015	5.39562e-05	686702
740.914	5.96909e-05	691638
750.823	6.48981e-05	696566
760.758	7.02778e-05	701270
770.79	7.61499e-05	706304
780.865	8.27043e-05	711086
790.916	9.00577e-05	716426
800.966	9.88446e-05	721500
810.014	0.00010898	725990
820.074	0.000122758	731592
830.133	0.000139437	736798
840.308	0.000159348	742462
850.508	0.000182404	747660
860.719	0.000208598	753132
870.93	0.000237846	758244
880.12	0.000266726	762442
890.331	0.000301695	767944
900.543	0.000317212	772994
910.754	0.000329412	778634
920.965	0.00034521	784472
930.156	0.000363292	789188
940.367	0.000385569	795040
950.569	0.00040911	800292
960.758	0.00043545	806166
970.947	0.000466194	811886
980.117	0.000498461	817306
990.306	0.000539508	823508
1000.5	0.0005864	829196
1010.68	0.000639928	835230
1020.87	0.000696753	841060
1030.04	0.000752274	846494
1040.23	0.000821662	852206
1050.42	0.000902165	857910
1060.61	0.000956137	863752
1070.8	0.00104263	869460
1080.99	0.00116727	875664
1090.16	0.00130681	881132
1100.35	0.00157123	887214
1110.54	0.00194848	893226
1120.73	0.00235225	899396
1130.91	0.00296913	905302
1140.08	0.00367953	910466
1150.26	0.00443232	915980
1160.43	0.00516955	921770
1170.6	0.00593596	927824
1180.77	0.00609856	934400
1190.94	0.00660778	940360
1200.09	0.00734331	945726
1210.25	0.00833297	951704
1220.42	0.00964977	957672
1230.59	0.0106156	963782
1240.75	0.0127263	969890
1250.92	0.0152795	975668
1260.07	0.0178999	980992
1270.24	0.0199294	986208
1280.44	0.0235074	991728
1290.67	0.0281628	997162
1300.91	0.0336299	1002758
1310.13	0.0419377	1008014
1320.37	0.0539333	1013764
1330.6	0.064986	1019532
1340.82	0.0761246	1025746
1350	0.0877558	1031152
1360.15	0.104641	1037038
1370.22	0.120124	1043192
1380.22	0.134472	1049122
1390.18	0.148823	1054542
1400.14	0.161877	1060088
1410.11	0.174429	1066382
1420.07	0.187343	1072274
1430.04	0.200526	1078460
1441	0.216489	1085246
1450.96	0.233328	1091024
1460.92	0.252548	1096766
1470.89	0.27576	1101920
1480.85	0.307665	1107454
1490.81	0.349688	1112702
1500.78	0.420226	1118556
1510.74	0.518164	1124436
1520.7	0.633845	1130044
1530.66	0.765986	1135264
1540.62	0.922599	1139678
1550.59	1.10741	1143514
1560.55	1.32206	1147830
1570.51	1.56784	1152240
1580.47	1.84042	1156422
1590.44	2.13354	1160388
1600.39	2.43803	1165276
1610.33	2.74162	1169558
1620.21	3.03023	1173536
1630.09	3.29351	1178006
1640.95	3.54155	1182652
1650.82	3.72076	1186828
1660.7	3.85159	1191362
1670.57	3.93326	1195792
1680.44	3.96757	1199826
1690.32	3.95837	1204258
1700.19	3.91059	1208640
1710.06	3.82931	1212882
1720.92	3.70708	1217374
1730.8	3.57126	1221558
1740.67	3.41619	1225860
1750.55	3.24541	1230200
1760.42	3.06192	1234196
1770.29	2.86794	1238072
1780.17	2.66481	1242110
1790.04	2.45314	1246088
1800.9	2.21077	1250373
1810.78	1.98211	1254731
1820.65	1.74638	1258837
1830.52	1.50512	1263299
1840.4	1.26037	1267407
1850.27	1.01435	1271515
1860.15	0.768825	1275365
1870.02	0.524415	1279325
1880.88	0.255685	1283827
1890.76	0.00878054	1287641
1900.63	-0.244226	1291619
1910.5	-0.506947	1295455
1920.38	-0.782039	1299257
1930.25	-1.07029	1303385
1940.13	-1.37014	1307123
1950	-1.67761	1311193
1960.93	-2.01985	1315463
1970.9	-2.32557	1319731
1980.86	-2.61771	1323573
1990.83	-2.88939	1326447
2000.8	-3.13496	1330505
2010.82	-3.35056	1333961
2021.01	-3.53463	1337543
2030.22	-3.66887	1340857
2040.46	-3.78189	1343871
2050.74	-3.858	1347437
2060.04	-3.89641	1350657
2070.21	-3.90843	1353987
2080.54	-3.89253	1357841
2090.9	-3.85224	1361545
2100.29	-3.7975	1365129
2110.73	-3.71793	1369023
2120.12	-3.62942	1371891
2130.54	-3.51056	1375403
2140.97	-3.36676	1379035
2150.33	-3.21337	1382013
2160.69	-3.01488	1385089
2171	-2.78692	1388687
2180.29	-2.55775	1391773
2190.62	-2.28211	1394647
2200.93	-1.99359	1397799
2210.2	-1.73069	1400358
2220.5	-1.44475	1403471
2230.81	-1.17475	1406217
2240.08	-0.951899	1408569
2250.39	-0.731304	1411229
2260.7	-0.541129	1413935
2271	-0.380845	1417063
2280.29	-0.259778	1419807
2290.62	-0.147592	1422017
2300.92	-0.0551602	1424739
2310.21	0.0146195	1426483
2320.54	0.0800091	1429075
2330.89	0.134731	1431635
2340.22	0.176166	1434223
2350.53	0.214217	1436655
2360.84	0.245329	1439291
2370.18	0.268836	1441533
2380.5	0.291381	1444236
2390.83	0.311857	1446702
2400.16	0.326192	1448394
2410.54	0.345837	1450840
2421.01	0.368717	1452638
2430.38	0.391168	1454932
2440.7	0.417466	1458106
2451.01	0.44439	1461297
2460.29	0.468322	1463691
2470.61	0.4934	1466289
2480.96	0.515885	1469127
2490.23	0.533119	1472001
2500.54	0.548467	1475301
2510.84	0.559138	1478435
2520.13	0.565165	1480863
2530.54	0.565352	1483691
2540.85	0.562552	1487345
2550.13	0.556953	1490373
2560.46	0.547531	1494113
2570.8	0.534821	1498213
2580.09	0.520841	1501465
2590.41	0.502744	1505561
2600.72	0.482102	1509182
2611.02	0.459167	1513054
2620.29	0.436813	1515834
2630.62	0.410323	1519391
2640.95	0.38244	1523357
2650.25	0.356356	1526575
2660.61	0.326438	1530037
2670.93	0.295952	1533937
2680.22	0.268094	1536761
2690.55	0.236872	1540199
2700.88	0.205597	1543689
2710.17	0.177625	1546639
2720.52	0.146881	1549780
2730.89	0.116711	1553054
2740.21	0.0903345	1556054
2750.56	0.0619928	1558836
2760.97	0.0346534	1562052
2770.29	0.0112526	1565046
2780.63	-0.0133891	1567824
2790.98	-0.0366455	1570104
2800.3	-0.0563255	1572866
2810.64	-0.0768499	1575384
2821.01	-0.0960787	1578538
2830.3	-0.112253	1581936
2840.62	-0.129153	1585264
2850.97	-0.145069	1588661
2860.29	-0.158594	1590905
2870.66	-0.17278	1594279
2880.97	-0.186035	1598117
2890.26	-0.197262	1601235
2900.58	-0.208925	1605415
2910.89	-0.219683	1609029
2920.16	-0.22858	1612505
2930.48	-0.23754	1616671
2940.82	-0.245437	1621002
2950.11	-0.251637	1625522
2960.41	-0.257777	1629429
2970.72	-0.261666	1633737
2981.02	-0.263048	1637121
2990.32	-0.262514	1640875
3000.65	-0.259311	1644777
3010.97	-0.255717	1649477
3020.25	-0.251163	1652580
3030.59	-0.245899	1656366
3040.96	-0.240092	1660178
3050.29	-0.234687	1664392
3060.6	-0.228385	1668758
3070.9	-0.222501	1672252
3080.2	-0.217574	1675500
3090.73	-0.212187	1679426
3100.22	-0.207623	1683396
3110.76	-0.203054	1687844
3120.25	-0.199382	1691191
3130.8	-0.195774	1695059
3140.36	-0.192953	1698679
3151.05	-0.190315	1702433
3160.7	-0.188355	1706231
3170.38	-0.186728	1709735
3180.06	-0.185367	1713251
3190.77	-0.184073	1717204
3200.36	-0.18302	1721140
3211.02	-0.181874	1724746
3220.61	-0.180788	1728351
3230.19	-0.179589	1731423
3240.82	-0.178063	1735303
3250.39	-0.176479	1738489
3261.01	-0.174462	1741994
3270.57	-0.172408	1745034
3280.12	-0.170132	1747843
3290.7	-0.167257	1751073
3300.21	-0.164496	1754046
3310.8	-0.161208	1757081
3320.37	-0.15803	1760237
3331.01	-0.154222	1763534
3340.58	-0.150517	1766114
3350.16	-0.146485	1769320
3360.82	-0.141539	1772734
3370.43	-0.13661	1775562
3380.06	-0.131183	1778796
3390.57	-0.124641	1782118
3400.23	-0.118034	1785640
3410.96	-0.110005	1789296
3420.61	-0.102208	1792449
3430.13	-0.0940223	1795728
3440.65	-0.0844752	1799120
3450.06	-0.0755598	1801939
3460.42	-0.0654448	1805231
3470.76	-0.0551741	1808264
3480.05	-0.0459017	1811155
3490.37	-0.0356824	1814471
3500.69	-0.0256773	1817991
3511.01	-0.0160036	1821794
3520.3	-0.00766512	1825116
3530.62	0.00111332	1828775
3540.94	0.0093234	1832430
3550.23	0.0162084	1835488
3560.55	0.0233022	1838874
3570.88	0.0298192	1842618
3580.17	0.0352011	1845928
3590.54	0.0406871	1849848
3600.98	0.0457006	1853490
3610.41	0.0498416	1856948
3620.9	0.0540626	1860483
3630.34	0.0575566	1863547
3640.82	0.0611638	1866853
3650.21	0.0642926	1870077
3660.6	0.0675784	1873457
3670.98	0.0705093	1876713
3680.33	0.072816	1879987
3690.7	0.0750809	1883709
3700.03	0.0769158	1887095
3710.39	0.0787326	1890456
3720.76	0.0802581	1894027
3730.04	0.0813141	1897369
3740.3	0.0820803	1901187
3750.52	0.0818303	1904637
3760.71	0.0818975	1908928
3770.8	0.0815496	1912386
3780.85	0.0804065	1916452
3790.89	0.0787091	1919981
3800.93	0.076864	1923997
3810.97	0.0745407	1927961
3820.01	0.072	1931325
3830.07	0.0687381	1935405
3840.16	0.0650207	1939150
3850.25	0.0608138	1943240
3860.36	0.0563138	1947201
3870.42	0.0515497	1951288
3880.4	0.0464232	1955117
3890.38	0.0408866	1959017
3900.35	0.0352262	1962703
3910.3	0.0295232	1966235
3920.23	0.0237685	1969637
3930.06	0.018047	1973129
3940.87	0.011782	1976348
3950.7	0.00615068	1979497
3960.52	0.00061292	1982666
3970.35	-0.00480126	1985882
3980.19	-0.0100649	1989220
3990.04	-0.0151644	1992213
4000.89	-0.0205405	1995269
4010.69	-0.025167	1998603
4020.43	-0.0295302	2001836
4030.16	-0.0336472	2005077
4040.87	-0.0378897	2008519
4050.6	-0.0414875	2011501
4060.34	-0.0448446	2014652
4070.07	-0.0479664	2017962
4080.82	-0.0511376	2020872
4090.6	-0.0537623	2024214
4100.35	-0.0561125	2027268
4110.09	-0.0581911	2030440
4120.81	-0.0601688	2033833
4130.56	-0.0617014	2036471
4140.3	-0.0629936	2039959
4150.05	-0.0640386	2043145
4160.83	-0.0648817	2046962
4170.67	-0.0653713	2050622
4180.52	-0.0655208	2054366
4190.39	-0.0653493	2058272
4200.28	-0.0648974	2062487
4210.37	-0.0641811	2066325
4220.48	-0.0632438	2070443
4230.59	-0.0621265	2074667
4240.7	-0.0608531	2078576
4250.81	-0.0594392	2082657
4260.89	-0.0579081	2086244
4270.95	-0.0562812	2090687
4280.01	-0.0547495	2094196
4290.07	-0.0529855	2098168
4300.13	-0.0511573	2102532
4310.19	-0.0492513	2106687
4320.22	-0.0472493	2110559
4330.19	-0.0451265	2114021
4340.16	-0.0428312	2117976
4350.13	-0.0403365	2122496
4360.1	-0.0376398	2126597
4370.07	-0.0347554	2130444
4380.04	-0.0316965	2134639
4390.01	-0.0284619	2138287
4400.98	-0.024664	2142379
4410.95	-0.0209995	2145900
4420.92	-0.0170253	2149489
4430.89	-0.0114755	2152678
4440.86	-0.00534066	2156438
4450.84	0.000665682	2159533
4460.81	0.00642986	2162998
4470.78	0.0133362	2166804
4480.79	0.0199981	2169922
4490.81	0.026649	2173443
4500.8	0.0336429	2177109
4510.72	0.0408872	2180558
4520.61	0.0483604	2184350
4530.47	0.0561523	2187539
4540.31	0.0642463	2191293
4550.15	0.0726698	2194237
4560.98	0.082355	2197341
4570.82	0.0915356	2200302
4580.66	0.101038	2203046
4590.5	0.110828	2205786
4600.34	0.120877	2208205
4610.18	0.131162	2210334
4620.04	0.141662	2212811
4630.9	0.153403	2215777
4640.78	0.164163	2218286
4650.66	0.174948	2221686
4660.56	0.185712	2224064
4670.45	0.196382	2226497
4680.36	0.206926	2229251
4690.35	0.217334	2232103
4700.34	0.227482	2235053
4710.33	0.237294	2237401
4720.26	0.246671	2239743
4730.19	0.255585	2242267
4740.12	0.263963	2244471
4750.06	0.27173	2247538
4760.98	0.279486	2250788
4770.91	0.285749	2253318
4780.85	0.291196	2255665
4790.78	0.295779	2257850
4800.71	0.299467	2260498
4810.64	0.302251	2263804
4820.61	0.304141	2266585
4830.6	0.305167	2269154
4840.59	0.304188	2272263
4850.58	0.303524	2274629
4860.56	0.302026	2277595
4870.55	0.299634	2279847
4880.54	0.296448	2281749
4890.53	0.292471	2284850
4900.52	0.287701	2287371
4910.51	0.282172	2289592
4920.5	0.275906	2292177
4930.51	0.268892	2294746
4940.55	0.261119	2297594
4950.59	0.25262	2300797
4960.63	0.243421	2304168
4970.67	0.23355	2307384
4980.7	0.223041	2310689
4990.74	0.211936	2314134
5000.81	0.200243	2317266
5010.94	0.187962	2320188
5020.06	0.176516	2323255
5030.19	0.163413	2326613
5040.33	0.149948	2330233
5050.47	0.136131	2333116
5060.63	0.121936	2336655
5070.79	0.107352	2339529
5080	0.0938159	2342196
5090.28	0.0783865	2345595
5100.65	0.0604935	2348226
5111.03	0.0391213	2351878
5120.39	0.0215635	2354962
5130.8	0.00321849	2358532
5140.2	-0.0135083	2361737
5150.71	-0.0302546	2365104
5160.2	-0.0449653	2368448
5170.74	-0.0616164	2371835
5180.25	-0.0758559	2374702
5190.87	-0.0910631	2378262
5200.46	-0.104701	2381226
5210.1	-0.117881	2384662
5220.65	-0.131432	2388107
5230.07	-0.143056	2390469
5240.44	-0.155199	2393029
5250.86	-0.166491	2395761
5260.26	-0.175964	2398149
5270.56	-0.185517	2400302
5280.87	-0.194055	2403202
5290.14	-0.200902	2405534
5300.47	-0.207664	2408051
5310.84	-0.213449	2410531
5320.21	-0.217046	2412361
5330.59	-0.218839	2414430
5340.1	-0.218673	2416547
5350.75	-0.218122	2419071
5360.37	-0.217606	2421153
5370.89	-0.216357	2423357
5380.36	-0.21445	2425542
5390.9	-0.21172	2428028
5400.57	-0.208543	2430787
5410.05	-0.204822	2432658
5420.84	-0.199922	2435347
5430.97	-0.194684	2437567
5440.33	-0.1895	2439984
5450.69	-0.182491	2442815
5460.25	-0.171954	2445184
5470.95	-0.159626	2448211
5480.37	-0.149623	2450914
5490.8	-0.138383	2454398
5500.18	-0.127483	2457785
5510.61	-0.114833	2460193
5520.24	-0.102851	2462194
5530.23	-0.0899433	2464451
5540.06	-0.0756706	2466670
5550.52	-0.0554184	2468548
5560.97	-0.0362064	2470620
5570.37	-0.0198738	2471930
5580.05	-0.00309968	2473696
5590.4	0.013571	2475248
5600.01	0.0283621	2476653
5610.13	0.0441206	2478591
5620.9	0.0603035	2481094
5631.02	0.0745425	2483463
5641.11	0.0882261	2485349
5650.13	0.0998616	2487325
5660.27	0.111935	2489335
5670.35	0.123033	2491640
5680.36	0.133183	2493837
5690.9	0.142662	2497055
5700.39	0.150127	2499589
5710.36	0.156983	2501878
5720.5	0.162862	2504633
5730.68	0.167642	2507555
5740.28	0.169578	2510477
5750.77	0.170005	2512715
5760.22	0.170672	2515095
5770.74	0.169999	2517590
5780.12	0.168752	2520278
5790.54	0.166766	2523753
5800.99	0.16422	2526111
5810.41	0.161638	2528047
5820.89	0.158511	2529879
5830.32	0.155214	2531945
5840.7	0.153431	2535405
5850.08	0.150034	2537755
5860.52	0.144902	2540715
5870.97	0.139617	2543658
5880.36	0.134216	2546791
5890.79	0.127271	2549714
5900.18	0.118067	2553306
5910.61	0.109505	2556685
5920.97	0.101917	2560441
5930.29	0.0955927	2563468
5940.75	0.0880183	2566511
5950.18	0.0808685	2568982
5960.72	0.0729613	2572059
5970.14	0.0659372	2575019
5980.62	0.0581763	2578351
5990.05	0.0513354	2581334
6000.59	0.0439667	2584463
6010.11	0.0375273	2587913
6020.7	0.0305586	2591627
6030.19	0.0245537	2595630
6040.72	0.0182065	2599411
6050.22	0.0127913	2602412
6061.07	0.0069867	2606128
6070.58	0.00227573	2609553
6081	-0.00248067	2613089
6090.55	-0.00648041	2616849
6100.12	-0.0101427	2620765
6110.56	-0.0137118	2625188
6121.01	-0.0167991	2629339
6130.49	-0.0191688	2633888
6140.2	-0.0211944	2637850
6150.08	-0.0222308	2641794
6160.72	-0.0234356	2646051
6170.29	-0.0240239	2650634
6180.91	-0.0241606	2655695
6190.38	-0.0238315	2660265
6200.96	-0.0229915	2665111
6210.42	-0.0218513	2670455
6220.8	-0.0202225	2674419
6230.52	-0.018347	2678153
6240.23	-0.0161555	2682020
6250.81	-0.0134273	2686232
6260.38	-0.0106586	2690069
6270.95	-0.00727561	2693955
6280.44	-0.00397214	2697539
6290.94	-3.06781e-05	2701714
6300.38	0.00377838	2705286
6310.92	0.00834813	2708252
6320.38	0.012752	2710717
6330.84	0.0179659	2713648
6340.25	0.0229491	2716314
6350.72	0.0287821	2718897
6360.1	0.03419	2722363
6370.53	0.0403127	2724670
6380.98	0.0464617	2728191
6390.39	0.0519397	2730887
6401.02	0.0580012	2734871
6410.53	0.0632819	2738790
6420.26	0.0685512	2743020
6430.78	0.0740826	2747865
6440.23	0.0788692	2752663
6450.82	0.0839734	2758114
6460.3	0.088282	2763332
6470.75	0.0927163	2767674
6480.14	0.0964068	2771758
6490.56	0.10015	2775425
6500.91	0.103496	2779701
6510.32	0.106205	2783330
6520.94	0.108886	2787978
6530.52	0.110962	2792225
6540.95	0.112849	2797038
6550.28	0.114215	2800708
6560.6	0.115371	2804502
6571.05	0.116161	2809443
6580.51	0.116548	2812848
6590.96	0.116608	2817310
6600.3	0.116205	2820799
6610.73	0.114797	2824899
6620.26	0.114062	2829079
6630.84	0.112758	2833511
6640.37	0.111437	2837649
6651.01	0.109637	2842433
6660.69	0.107596	2846566
6670.14	0.10538	2850248
6680.62	0.102633	2854696
6690.04	0.0998785	2858407
6700.46	0.0965341	2862477
6710.89	0.0929062	2866586
6720.32	0.0894044	2870393
6730.84	0.0852601	2874704
6740.25	0.0813478	2877389
6750.76	0.0767584	2881566
6760.31	0.0724047	2885455
6770.97	0.0673483	2889521
6780.48	0.0626645	2892905
6790.95	0.0573137	2896643
6800.33	0.0523506	2900087
6810.75	0.0466396	2903313
6820.15	0.041298	2906897
6830.71	0.0351131	2910788
6840.13	0.0295168	2914381
6850.63	0.0232289	2918708
6860.1	0.0174873	2922828
6870.57	0.0089606	2927951
6881.04	0.00111053	2932704
6890.47	-0.00507921	2937298
6900.94	-0.0118634	2942881
6910.4	-0.0180093	2946877
6920.9	-0.0255835	2951475
6930.38	-0.0320388	2955407
6941.04	-0.0392449	2959597
6950.52	-0.0457612	2963905
6961.02	-0.0532365	2968606
6970.5	-0.060258	2973006
6980.03	-0.0673837	2976179
6990.62	-0.0752348	2980318
7000.23	-0.0823127	2985262
7010.71	-0.0900486	2990370
7020.14	-0.0970612	2995087
7030.64	-0.104814	3000854
7040.11	-0.111619	3004681
7050.64	-0.118905	3008978
7060.17	-0.125256	3013243
7070.77	-0.132035	3017624
7080.37	-0.137927	3021420
7091.03	-0.144159	3025424
7100.78	-0.149535	3029886
7110.41	-0.154517	3034208
7120.42	-0.15934	3038285
7130.43	-0.163798	3042651
7140.41	-0.167882	3046968
7150.11	-0.171503	3050720
7160.64	-0.17505	3055128
7170.12	-0.177884	3058616
7180.71	-0.181288	3062708
7190.47	-0.183445	3066581
7200.21	-0.185169	3070819
7211.07	-0.186631	3075765
7220.78	-0.187604	3079729
7230.43	-0.188204	3083742
7240.09	-0.188437	3087778
7250.59	-0.188452	3091886
7261.01	-0.188171	3095935
7270.8	-0.187178	3099433
7280.38	-0.186096	3103174
7290.69	-0.18465	3106698
7300.08	-0.183208	3110241
7310.61	-0.181318	3114857
7320.09	-0.179364	3118370
7330.62	-0.176993	3122492
7340.98	-0.174502	3127441
7350.25	-0.172169	3131033
7360.55	-0.169471	3135522
7370.86	-0.166654	3139487
7380.14	-0.164033	3142846
7390.45	-0.161053	3146133
7400.86	-0.158004	3148950
7410.35	-0.155203	3152290
7420.7	-0.152133	3155388
7431.01	-0.149075	3159105
7440.28	-0.146334	3162218
7450.72	-0.143275	3165607
7460.03	-0.140585	3169436
7470.36	-0.137654	3173084
7480.69	-0.134792	3177400
7491.01	-0.132013	3181311
7500.42	-0.129558	3184322
7510.31	-0.127062	3188198
7520.95	-0.124481	3192416
7530.3	-0.122321	3196808
7540.61	-0.120083	3201259
7550.92	-0.117999	3204811
7560.66	-0.116033	3208872
7570.52	-0.114029	3212644
7580.22	-0.11288	3215431
7591.01	-0.111623	3218989
7600.79	-0.110615	3221594
7610.45	-0.109209	3224503
7620.08	-0.107986	3227633
7630.77	-0.10681	3230576
7640.38	-0.105819	3234002
7650.71	-0.104884	3236893
7660.05	-0.104144	3239534
7670.86	-0.103449	3242736
7680.62	-0.102982	3244591
7690.57	-0.102637	3247624
7700.65	-0.102412	3250286
7710.76	-0.102312	3252861
7720.87	-0.10234	3255650
7730.98	-0.102494	3257857
7741.1	-0.102771	3260326
7750.09	-0.103117	3262318
7760.2	-0.103616	3264854
7770.33	-0.104224	3268228
7780.45	-0.104933	3270893
7790.56	-0.105736	3273907
7800.68	-0.106628	3276624
7810.79	-0.107604	3279737
7820.91	-0.10866	3282257
7831.02	-0.109794	3285779
7841.04	-0.110991	3288699
7850.97	-0.112244	3291954
7860.88	-0.113558	3295644
7870.78	-0.114928	3298973
7880.68	-0.116348	3302252
7890.58	-0.117811	3306011
7900.49	-0.119308	3309416
7910.39	-0.120832	3313532
7920.29	-0.122375	3317461
7930.2	-0.123931	3321848
7940.1	-0.12549	3325959
7950.01	-0.127048	3329865
7961.01	-0.128767	3334491
7970.91	-0.130296	3338073
7980.82	-0.1318	3341534
7990.72	-0.133268	3344902
8000.52	-0.134679	3349406
8010.4	-0.13605	3353484
8021.06	-0.137461	3356868
8030.68	-0.138668	3360457
8040.27	-0.139795	3363519
8051.03	-0.140964	3367316
8060.7	-0.141918	3370343
8070.19	-0.142759	3373512
8080.64	-0.143558	3377235
8090.03	-0.144155	3379892
8100.44	-0.144699	3383452
8110.89	-0.145134	3387279
8120.44	-0.145375	3390216
8130.95	-0.145979	3395187
8140.22	-0.145798	3398610
8150.52	-0.145423	3402961
8160.82	-0.14485	3407271
8170.13	-0.144228	3411099
8180.65	-0.143472	3415041
8190.26	-0.142721	3418365
8200.76	-0.141807	3422043
8210.23	-0.140873	3424803
8220.76	-0.139698	3427841
8230.29	-0.138515	3431017
8240.88	-0.137094	3434428
8250.39	-0.135735	3437152
8260.06	-0.134292	3440851
8270.57	-0.132661	3444804
8280.03	-0.131135	3448678
8290.63	-0.129351	3452981
8300.22	-0.127688	3456942
8310.67	-0.125809	3461814
8320.16	-0.124017	3465895
8330.79	-0.121923	3470277
8340.31	-0.119998	3474818
8350.84	-0.117835	3478710
8360.22	-0.115886	3482357
8370.64	-0.113696	3485389
8380.03	-0.111699	3487664
8390.45	-0.10945	3489972
8400.87	-0.107167	3492417
8410.49	-0.105037	3494578
8420.99	-0.10269	3497224
8430.46	-0.100599	3499395
8440.99	-0.098323	3501715
8450.41	-0.0980627	3504238
8460.87	-0.0961025	3506574
8470.28	-0.093026	3509296
8480.74	-0.0897408	3511362
8490.21	-0.086579	3513110
8500.84	-0.0825465	3515215
8510.44	-0.0792081	3517409
8520.87	-0.0758227	3519908
8530.51	-0.0727183	3522066
8540.51	-0.0693967	3524152
8550.5	-0.0658848	3526796
8560	-0.0624132	3529452
8570.48	-0.0585215	3531207
8580.99	-0.0545775	3533200
8590.77	-0.0508375	3534937
8600.31	-0.0470615	3536645
8610.81	-0.0427187	3538812
8620.25	-0.038645	3541122
8630.75	-0.0339654	3544077
8640.21	-0.0296384	3546934
8650.75	-0.0247049	3549781
8660.26	-0.0201485	3552711
8670.87	-0.0149202	3553977
8680.39	-0.0100952	3556457
8690.86	-0.00464476	3558085
8700.28	0.000368369	3560013
8710.79	0.00605113	3562577
8720.25	0.01123	3564259
8730.77	0.0170367	3566336
8740.25	0.0223005	3567946
8750.81	0.0281853	3570829
8760.34	0.0335099	3573555
8770.95	0.0394428	3575686
8780.45	0.0447428	3578134
8790.92	0.0505596	3580783
8800.45	0.05581	3582254
8810.11	0.0610842	3583630
8820.79	0.0668408	3584946
8830.34	0.0719107	3586678
8840.7	0.0773131	3588267
8850.01	0.0820661	3590056
8860.54	0.0873209	3591523
8870.03	0.0919341	3592983
8880.53	0.0968952	3594177
8890.88	0.101631	3595752
8900.17	0.105748	3598158
8910.48	0.110161	3599615
8920.83	0.114422	3601913
8930.34	0.118184	3604406
8940.9	0.122188	3606275
8950.2	0.125555	3609224
8960.5	0.129114	3610709
8970.82	0.132496	3611985
8980.2	0.13541	3613155
8990.7	0.138491	3614594
9000.14	0.1411	3615616
9010.61	0.143812	3617724
9020.98	0.146317	3620264
9030.27	0.148406	3621253
9040.59	0.15056	3623403
9050.93	0.152561	3624910
9060.43	0.154277	3627515
9070.89	0.155968	3630812
9080.27	0.157305	3633208
9090.62	0.15867	3636612
9100.01	0.159703	3639554
9110.42	0.160732	3642235
9120.73	0.161644	3644716
9131.03	0.162373	3648880
9140.4	0.162878	3651905
9150.92	0.163287	3656454
9160.38	0.16354	3659706
9170.83	0.163698	3664113
9180.18	0.163732	3667932
9190.57	0.163663	3672696
9200.96	0.163489	3677631
9210.31	0.163203	3681127
9220.71	0.162695	3685624
9230.01	0.162074	3688540
9240.35	0.161236	3691453
9250.7	0.160282	3694662
9260.14	0.159337	3697489
9270.59	0.158214	3701858
9281.02	0.157015	3705828
9290.4	0.155864	3709061
9300.86	0.154494	3711912
9310.23	0.153189	3714188
9320.67	0.151649	3718225
9331.03	0.150035	3720277
9340.44	0.148497	3723096
9350.84	0.146723	3725814
9360.23	0.145059	3728084
9370.74	0.143129	3731988
9380.13	0.141348	3734785
9390.54	0.139315	3736956
9400.88	0.137234	3740233
9410.17	0.135319	3742945
9420.54	0.133127	3745726
9430.88	0.130889	3749418
9440.16	0.12884	3752293
9450.5	0.12651	3756232
9460.83	0.124137	3759244
9470.18	0.121953	3761850
9480.58	0.119482	3763259
9490.96	0.116975	3765540
9500.28	0.114687	3767771
9510.7	0.112093	3769228
9520.1	0.109715	3771248
9530.4	0.107072	3773888
9540.81	0.104363	3777094
9550.1	0.101913	3778705
9560.43	0.0991527	3780173
9570.85	0.0963331	3782196
9580.22	0.0937653	3784134
9590.57	0.0908983	3785076
9600.93	0.087998	3785839
9610.38	0.0853246	3785597
9620.85	0.0823355	3786431
9630.28	0.0796204	3787214
9640.74	0.0765854	3787301
9650.17	0.0738279	3787842
9660.6	0.0707564	3788502
9671.03	0.0676669	3789902
9680.47	0.0648526	3791067
9691.03	0.0616885	3790346
9700.55	0.0588239	3790437
9710.88	0.0557041	3790384
9720.17	0.0528877	3791307
9730.53	0.049742	3792188
9740.94	0.0465777	3792597
9750.33	0.0437193	3793486
9760.84	0.0405281	3793118
9770.32	0.0376531	3793709
9780.77	0.0344963	3794049
9790.13	0.0316805	3794496
9800.46	0.0285967	3795471
9810.78	0.0255426	3796264
9820.07	0.0228212	3796154
9830.4	0.0198312	3796666
9840.75	0.0168761	3796153
9850.13	0.0142385	3795106
9860.59	0.0113504	3793676
9870.98	0.00854185	3793487
9880.33	0.00607432	3792866
9890.65	0.00341741	3793090
9900.95	0.0008416	3793287
9910.23	-0.00140682	3794470
9920.55	-0.00382687	3794749
9931.01	-0.00618684	3795754
9940.4	-0.00822331	3796929
9950.91	-0.010399	3798114
9960.34	-0.0122566	3799406
9970.78	-0.0142022	3802008
9980.08	-0.0158324	3803954
9990.41	-0.0175266	3807362
10000.7	-0.0190952	3810200
10010.1	-0.0203989	3812621
10020.4	-0.0217258	3814682
10030.9	-0.0229309	3817170
10040.3	-0.0239065	3819620
10050.7	-0.0248612	3822488
10060	-0.0256039	3824737
10070.4	-0.0263143	3827688
10080.9	-0.0269007	3829520
10090.2	-0.0273236	3831730
10100.6	-0.0276763	3833959
10110.9	-0.0279136	3836328
10120.1	-0.0280308	3837454
10130.4	-0.0280557	3838425
10140.8	-0.0279714	3839935
10150	-0.0278025	3842239
10160.4	-0.0275048	3845056
10170.7	-0.0270676	3846675
10180.1	-0.0265972	3848395
10190.5	-0.0260613	3850223
10201	-0.0253357	3852998
10210.4	-0.0245807	3856205
10220.8	-0.0236734	3860827
10230.2	-0.0227901	3864467
10240.7	-0.0217185	3869242
10250.1	-0.0206714	3872189
10260.7	-0.0194063	3875707
10270.1	-0.0181784	3878986
10280.6	-0.0167039	3881769
10290.1	-0.0152766	3884352
10300.6	-0.0135884	3886468
10310.1	-0.011971	3888071
10320.6	-0.0100674	3889784
10330.1	-0.00827498	3891510
10340.6	-0.00620027	3893965
10350.1	-0.00426739	3896183
10360.6	-0.00205092	3898369
10370.1	-7.09021e-06	3901098
10380.7	0.00230233	3904599
10390.1	0.00439229	3907283
10400.6	0.00673053	3911378
10411	0.00906887	3913917
10420.4	0.0111693	3916486
10430.9	0.0134953	3919915
10440.4	0.0155726	3922192
10450.9	0.0178336	3924851
10460.4	0.0198171	3927200
10470.8	0.0219331	3931198
10480.2	0.023763	3933529
10490.5	0.0257212	3936240
10500.8	0.0275918	3939652
10510.1	0.0292005	3942218
10520.5	0.0309008	3946336
10530.9	0.0325181	3948630
10540.3	0.0339008	3952107
10550.7	0.0353337	3955889
10560.1	0.0365404	3959573
10570.4	0.0377788	3963785
10580.7	0.0389168	3966989
10590	0.0398614	3969979
10600.3	0.040826	3973124
10610.7	0.0417134	3976081
10620.1	0.0424412	3978172
10630.6	0.0431804	3981179
10640.1	0.0437906	3983286
10650.4	0.0444026	3986222
10660.7	0.0449632	3989920
10670	0.0454243	3991715
10680.3	0.0458815	3994628
10690.8	0.0462783	3998387
10700.1	0.0465726	4001056
10710.4	0.0468449	4004203
10720.7	0.0470731	4007773
10731	0.0472706	4011087
10740.3	0.0474304	4013500
10750.7	0.0475922	4017129
10761	0.0477394	4019999
10770.5	0.0478603	4022396
10781	0.0479784	4025065
10790.4	0.0480661	4028568
10801	0.0481405	4031350
10810.5	0.0481843	4033592
10820.9	0.048205	4036689
10830.2	0.0481979	4038543
10840.7	0.0481593	4041815
10851	0.0480867	4044096
10860.3	0.0479894	4045452
10870.7	0.0478406	4047124
10880.2	0.0476627	4049179
10890.8	0.0474103	4051262
10900.2	0.0471288	4054094
10910.6	0.0467474	4056482
10920.9	0.046287	4059604
10930.2	0.0457967	4062013
10940.5	0.0451597	4065142
10951	0.0444144	4068085
10960.4	0.0436501	4070311
10970.8	0.0426951	4072256
10980.3	0.0417296	4074880
10990.8	0.0405456	4078463
11000.2	0.0393687	4081135
11010.8	0.0379454	4084092
11020.2	0.0365736	4086543
11030.5	0.0349556	4089405
11040.9	0.0332295	4091965
11050.2	0.0315867	4092155
11060.5	0.0296643	4094159
11070.9	0.0276321	4096175
11080.3	0.0257045	4098210
11090.8	0.0234889	4099963
11100.1	0.0214419	4101815
11110.5	0.0190998	4102706
11120.9	0.0166938	4104552
11130.3	0.0144727	4105988
11140.7	0.0119579	4107816
11150.2	0.00965247	4108257
11160.7	0.00705774	4109936
11170.1	0.00471599	4110626
11180.5	0.00211117	4112230
11190.9	-0.000492175	4113868
11200.3	-0.0028366	4115723
11211	-0.00546879	4117946
11220.4	-0.00779011	4119416
11230.8	-0.0103326	4120471
11240.4	-0.0126264	4121586
11250.1	-0.0149124	4121689
11260.7	-0.0173838	4122906
11270.2	-0.0195357	4123162
11280.7	-0.0218745	4124259
11290.1	-0.0239233	4124641
11300.6	-0.0261396	4123494
11310.1	-0.0280873	4122997
11320.6	-0.0301863	4123583
11330.1	-0.0320105	4124262
11340.5	-0.0339439	4125331
11350.7	-0.0357876	4126137
11360.9	-0.0375476	4127792
11371	-0.0392274	4128967
11380.1	-0.0406792	4130231
11390.2	-0.0422255	4131417
11400.3	-0.0437	4132415
11410.4	-0.0451008	4133646
11420.5	-0.0464262	4135052
11430.6	-0.0476745	4136419
11440.7	-0.048844	4137677
11450.8	-0.0499335	4139117
11460.9	-0.0509424	4141063
11471	-0.0518713	4143320
11480.1	-0.0526399	4145362
11490.2	-0.0534209	4148709
11500.3	-0.0541273	4151964
11510.4	-0.0547615	4155275
11520.5	-0.0553261	4158038
11530.5	-0.0558238	4161815
11540.6	-0.0562574	4164947
11550.7	-0.0566299	4168154
11560.8	-0.0569443	4170912
11570.9	-0.0572036	4173751
11580	-0.0573925	4176521
11590.1	-0.0575557	4179713
11600.3	-0.057673	4182523
11610.5	-0.0577473	4184400
11620.9	-0.057781	4186058
11630.4	-0.0577778	4187097
11640.9	-0.0577391	4188376
11650.4	-0.057675	4189339
11661	-0.0575738	4189937
11670.5	-0.0574577	4190153
11681	-0.057303	4191350
11690.5	-0.0575598	4191841
11700	-0.0573018	4193640
11710.5	-0.0569992	4195879
11720.2	-0.0567088	4198080
11731	-0.0562605	4200025
11740.7	-0.0561982	4201516
11750.4	-0.0558033	4204590
11760.1	-0.0553825	4207308
11770.8	-0.0549181	4210731
11780.5	-0.0545218	4214289
11790.2	-0.0541335	4217239
11801	-0.0536856	4220441
11810.7	-0.0532507	4223606
11820.3	-0.0527851	4226167
11830.9	-0.0522366	4228670
11840.5	-0.0517135	4231372
11850.1	-0.0511687	4233271
11860.8	-0.0505319	4234819
11870.5	-0.0499364	4234942
11880.2	-0.0493333	4236994
11890.7	-0.048645	4238346
11900.2	-0.0479828	4238856
11910.8	-0.0471865	4240100
11920.5	-0.0464235	4241092
11930.2	-0.045614	4241952
11941	-0.044658	4243353
11950.5	-0.0437644	4244359
11961	-0.0427469	4245825
11970.4	-0.0417938	4246403
11980.9	-0.0406974	4248259
11990.3	-0.0396774	4249466
12000.6	-0.0385095	4249952
12011	-0.0372753	4250614
12020.3	-0.0362529	4249899
12030.6	-0.0350197	4250351
12040.1	-0.0336955	4250935
12050.5	-0.0320657	4251754
12061	-0.0307309	4252819
12070.4	-0.0292291	4253269
12081	-0.0270091	4254357
12090.5	-0.0250189	4256263
12101	-0.0229515	4259457
12110.4	-0.0211408	4262141
12120.9	-0.0190843	4263164
12130.4	-0.0171727	4264682
12140.9	-0.0150148	4266141
12150.4	-0.0130426	4268619
12160.8	-0.0108368	4270505
12170.2	-0.00883703	4271198
12180.7	-0.00659947	4272801
12190.1	-0.0046019	4274192
12200.5	-0.00240768	4274806
12211	-0.000235111	4275046
12220.4	0.0017117	4275344
12230.9	0.00384704	4276254
12240.4	0.00573419	4275364
12250.9	0.00778793	4274159
12260.4	0.00959244	4274041
12270.1	0.0113813	4273587
12280.6	0.0132609	4273189
12290.1	0.0148833	4272951
12300.7	0.0165975	4272513
12310.2	0.0180591	4273074
12320.9	0.0195989	4272251
12330.5	0.0209061	4271984
12340.2	0.0221223	4271835
12351	0.0233612	4271237
12360.6	0.0243797	4271115
12370.3	0.0253031	4270653
12381	0.0262166	4271540
12390.7	0.0269305	4272016
12400.3	0.0275278	4273223
12410.8	0.0280643	4273776
12420.3	0.0284352	4274902
12430.8	0.0287229	4275747
12440.2	0.0288722	4276850
12450.8	0.0289202	4278804
12460.3	0.0288609	4281395
12470.9	0.0286872	4283473
12480.4	0.0284379	4285225
12491	0.0280616	4286580
12500.4	0.0276371	4287734
12511	0.0270688	4288925
12520.5	0.02647	4290570
12531	0.0257058	4292811
12540.5	0.0249269	4293973
12550	0.0240597	4295936
12560.6	0.0229901	4297727
12570.1	0.0219295	4300494
12580.6	0.0206398	4302753
12590.1	0.0193766	4304353
12600.7	0.0178571	4306555
12610.2	0.0163831	4307899
12620.7	0.0146234	4310702
12630.2	0.0129259	4311870
12640.8	0.0109094	4313788
12650.3	0.00897113	4315045
12660.8	0.00667868	4316575
12670.3	0.00448656	4318597
12680.8	0.00190579	4319756
12690.3	-0.000540841	4320850
12700.9	-0.00339023	4321400
12710.4	-0.00606436	4321755
12720.9	-0.00914585	4322177
12730.4	-0.0120069	4323302
12741	-0.0152692	4323494
12750.4	-0.0182445	4324781
12760.7	-0.0215527	4324980
12771	-0.0249041	4325400
12780.3	-0.0279469	4325816
12790.6	-0.0313464	4325835
12801	-0.0347794	4326115
12810.4	-0.0378888	4326552
12820.9	-0.0413516	4327392
12830.4	-0.0444541	4328380
12840.9	-0.0478782	4329634
12850.4	-0.0509259	4331240
12860.9	-0.0542587	4332989
12870.4	-0.0572178	4334696
12880.9	-0.0604069	4337454
12890.2	-0.0632069	4339576
12900.6	-0.0662447	4342238
12910	-0.0689292	4345101
12920.6	-0.0718419	4347409
12930.1	-0.0743741	4349567
12940.6	-0.0770808	4351247
12950.1	-0.0794144	4352531
12960.7	-0.081887	4354831
12970.2	-0.0839989	4356286
12980.7	-0.0862084	4358256
12990.2	-0.0880781	4359245
13000.6	-0.090002	4360556
13010.1	-0.0916143	4361271
13020.6	-0.0932758	4362359
13030.1	-0.0946406	4363179
13040.6	-0.096012	4364976
13050.1	-0.0971185	4366680
13060.7	-0.0982076	4367581
13070.2	-0.0990615	4368230
13080.6	-0.0998645	4368060
13090.1	-0.100471	4367945
13100.7	-0.101014	4367706
13110.2	-0.101391	4367595
13120.7	-0.101698	4367528
13130.2	-0.101888	4367875
13140.8	-0.102018	4368778
13150.2	-0.102038	4369840
13160.6	-0.101925	4371061
13170.1	-0.101712	4371650
13180.6	-0.101365	4373867
13190	-0.100974	4375523
13200.6	-0.100477	4377596
13210.1	-0.099996	4379113
13220.6	-0.099439	4381914
13230.1	-0.098924	4384452
13240.5	-0.0983465	4386776
13250.9	-0.0977643	4389173
13260.3	-0.097235	4390690
13270.8	-0.0968109	4391256
13280.3	-0.0963208	4392647
13290.8	-0.0956787	4394179
13300.3	-0.0951066	4395057
13310.8	-0.094529	4397568
13320.2	-0.0940705	4400365
13330.7	-0.0936183	4401949
13340	-0.0932981	4403562
13350.5	-0.0930188	4405799
13360	-0.0927556	4407170
13370.6	-0.0924556	4408208
13380	-0.0921824	4408794
13390.6	-0.0919737	4410470
13400.2	-0.0918921	4410908
13410.8	-0.0918933	4411992
13420.2	-0.0919507	4413349
13430.7	-0.0920621	4413878
13440.1	-0.0922015	4414204
13450.6	-0.0924016	4414762
13461	-0.0926512	4415486
13470.3	-0.0929171	4415844
13480.6	-0.093259	4415790
13490.9	-0.0936478	4416617
13500.2	-0.0940347	4417345
13510.5	-0.0945013	4417865
13520.9	-0.0950072	4418430
13530.4	-0.0954925	4419082
13540.7	-0.0960456	4418326
13550.1	-0.0965628	4418415
13560.5	-0.0971484	4417824
13571	-0.0977385	4417235
13580.4	-0.0982707	4415903
13590.9	-0.0988599	4415982
13600.3	-0.0993826	4416369
13610.8	-0.0999476	4417579
13620.2	-0.100433	4418018
13630.5	-0.100939	4418096
13640.9	-0.101415	4419227
13650.3	-0.101808	4420188
13660.7	-0.1022	4421455
13670.1	-0.102509	4422910
13680.4	-0.102796	4424806
13690.9	-0.103023	4425070
13700.3	-0.103168	4425914
13710.6	-0.103258	4425696
13720.9	-0.103276	4425371
13730.2	-0.103227	4425663
13740.5	-0.1031	4425422
13750.8	-0.102893	4424727
13760.3	-0.102633	4424359
13770.8	-0.102261	4424199
13780.3	-0.101855	4424193
13790.6	-0.101326	4425276
13801	-0.100712	4426543
13810.3	-0.100086	4427083
13820.7	-0.0993047	4427768
13830.1	-0.0985274	4428301
13840.5	-0.0975812	4429776
13851	-0.0965475	4431044
13860.3	-0.095549	4432533
13870.6	-0.0943606	4434080
13881	-0.0930692	4435977
13890.4	-0.0918207	4437949
13900.8	-0.090342	4440325
13910.2	-0.0889338	4441794
13920.6	-0.0872916	4443515
13931	-0.0855826	4445621
13940.3	-0.0840114	4447795
13950.6	-0.0822297	4448544
13960.9	-0.0804094	4449767
13970.3	-0.0787215	4450541
13980.7	-0.0767609	4451893
13990.1	-0.0749051	4454002
14000.5	-0.0727348	4456043
14010.9	-0.0704866	4457312
14020.3	-0.0684263	4458351
14030.8	-0.0660603	4459303
14040.1	-0.0639194	4460444
14050.4	-0.0615745	4460370
14060.7	-0.0592445	4459617
14071	-0.0569043	4459449
14080.2	-0.0547379	4459577
14090.7	-0.0522404	4459246
14100.1	-0.0499604	4459339
14110.5	-0.0474382	4458283
14120.8	-0.0448983	4459033
14130.1	-0.0426124	4459986
14140.5	-0.0400558	4461174
14150.8	-0.0374887	4461898
14160.1	-0.0351743	4462148
14170.6	-0.0325539	4464079
14180.1	-0.030189	4465181
14190.4	-0.0276045	4466440
14200.7	-0.0250166	4466534
14210	-0.0226778	4466558
14220.5	-0.0200431	4466060
14230	-0.0176593	4465732
14240.4	-0.0150505	4466203
14250.8	-0.0124584	4463767
14260.2	-0.0101451	4463468
14270.5	-0.00759625	4462822
14281	-0.00506328	4461783
14290.4	-0.00277628	4460392
14301	-0.000261146	4458217
14310.5	0.00197967	4457952
14321	0.00444438	4457916
14330.5	0.00663979	4457374
14340	0.00881328	4456965
14350.4	0.0111566	4457030
14360.7	0.0134652	4456797
14370	0.0155157	4456038
14380.3	0.0177607	4455843
14390.7	0.0199687	4454819
14401	0.0221331	4453553
14410.5	0.0240667	4452181
14420.8	0.0261419	4450386
14430.2	0.0279665	4448026
14440.8	0.0299606	4445515
14450.3	0.0316977	4443538
14460.7	0.0335423	4440800
14470.2	0.0351555	4438243
14480.8	0.0368737	4434732
14490.3	0.0383504	4431595
14500.8	0.0399106	4429384
14510.3	0.0412391	4426890
14520.8	0.0426282	4423965
14530.3	0.0438006	4421138
14540.9	0.0450135	4417471
14550.4	0.0460231	4413944
14560.7	0.0470361	4411728
14570	0.0478639	4408148
14580.4	0.0486949	4404685
14590.8	0.0494359	4401186
14600.2	0.0500207	4398498
14610.6	0.0505631	4394928
14620	0.0509657	4391581
14630.5	0.0513397	4387305
14640.9	0.0516382	4384189
14650.3	0.0518023	4381575
14660.7	0.051863	4379443
14670.2	0.0519359	4376729
14680.7	0.0519584	4374347
14690.2	0.0518843	4371744
14700.7	0.0516949	4367817
14710.1	0.0514409	4364599
14720.7	0.0510776	4358895
14730.2	0.0506813	4354551
14740.7	0.0501651	4349502
14750.1	0.0496374	4344930
14760.6	0.0489815	4339657
14771	0.0482562	4334009
14780.4	0.0475503	4329232
14790.8	0.0467047	4323421
14800.3	0.0458872	4318017
14810.8	0.0449223	4311254
14820.2	0.0440094	4305995
14830.6	0.0429477	4298904
14840.1	0.0419479	4292855
14850.6	0.0407941	4285392
14860	0.0397286	4278329
14870.5	0.0385121	4270930
14881	0.0372555	4264113
14890.5	0.0361021	4258204
14901	0.0347947	4251237
14910.4	0.0336046	4245193
14920.9	0.0322684	4237921
14930.4	0.0310469	4232991
14940.8	0.029692	4228621
14950.2	0.0284693	4224413
14960.6	0.027104	4218266
14971	0.0257351	4211977
14980.4	0.0245045	4206402
14990.8	0.0231418	4200256
15000.2	0.0219221	4194941
15010.6	0.0205762	4187720
15021	0.0192505	4181659
15030.4	0.0180672	4174869
15040.9	0.0167649	4167527
15050.3	0.0156074	4162044
15060.7	0.0143602	4154747
15070	0.0132598	4148978
15080.4	0.0120636	4142609
15091	0.0108797	4136110
15100.3	0.00986247	4130322
15110.6	0.00876718	4123675
15120.9	0.0077078	4117141
15130.1	0.00679084	4111124
15140.3	0.0058084	4104744
15150.4	0.00486396	4097970
15160.6	0.00395562	4092107
15170.8	0.0030836	4085193
15181	0.00224817	4078048
15190.1	0.00152735	4072242
15200.3	0.000759103	4065450
15210.5	-6.06245e-06	4058667
15220.7	-0.000689835	4051617
15230.9	-0.00127397	4044462
15240	-0.00182861	4037433
15250.2	-0.00224052	4029717
15260.4	-0.00268638	4022209
15270.5	-0.00296769	4014613
15280.7	-0.00323058	4006944
15290.9	-0.00348414	3999950
15300.1	-0.0036766	3993472
15310.2	-0.00383	3985586
15320.4	-0.0039407	3977882
15330.6	-0.00402098	3970980
15340.8	-0.00407326	3962959
15351	-0.00409492	3955513
15360.1	-0.00408652	3949199
15370.3	-0.00404513	3941520
15380.5	-0.00396857	3934413
15390.7	-0.00385515	3926761
15400.9	-0.00370349	3919844
15410.2	-0.00353492	3913834
15420.5	-0.00331301	3906702
15430.9	-0.00305727	3899254
15440.3	-0.00279943	3893184
15450.9	-0.00248753	3886447
15460.3	-0.00218963	3879214
15470.8	-0.00184065	3871561
15480.3	-0.0015101	3865024
15490.8	-0.00112242	3858561
15500.3	-0.000755127	3852127
15510.7	-0.000332491	3844552
15520	6.13841e-05	3837958
15530.3	0.000513406	3832153
15540.5	0.000979237	3825431
15550.6	0.0014575	3818737
15560.8	0.00194664	3811564
15571	0.00244421	3805017
15580.1	0.00289726	3798786
15590.3	0.00340444	3791787
15600.5	0.00391366	3784310
15610.7	0.00442312	3777582
15620.9	0.00493123	3770277
15630	0.00538628	3763444
15640.2	0.00588832	3756319
15650.4	0.00638569	3749212
15660.6	0.00687759	3743255
15670.7	0.00736335	3736720
15680.9	0.00784239	3730053
15690.1	0.00826738	3724364
15700.3	0.00873239	3718255
15710.4	0.00918946	3712397
15720.6	0.00963832	3706387
15730.8	0.0100787	3701351
15741	0.0105106	3694549
15750.1	0.0108919	3688292
15760.3	0.0113074	3681813
15770.6	0.0117205	3674947
15780.1	0.0120929	3668658
15790.7	0.0124986	3660633
15800.2	0.012857	3654562
15810.7	0.0132482	3647020
15820.2	0.0135944	3640505
15830.8	0.0139732	3633457
15840.2	0.0143069	3627213
15850.5	0.0146686	3620849
15860.9	0.0150291	3613249
15870.4	0.015355	3607007
15880.9	0.0157152	3600017
15890.3	0.0160355	3593702
15900.7	0.0163887	3586439
15910.1	0.0167067	3579343
15920.4	0.0170611	3571216
15930.9	0.0174212	3562972
15940.3	0.0177465	3555293
15950.7	0.0181117	3547480
15960.1	0.0184442	3540285
15970.5	0.0188184	3532495
15980.9	0.0191958	3525245
15990.4	0.0195483	3517658
16000.9	0.0199476	3509684
16010.4	0.0203144	3503224
16020.9	0.0207297	3496195
16030.4	0.0211113	3489871
16040.8	0.0215421	3483745
16050.2	0.0219395	3478022
16060.6	0.022395	3471320
16070.1	0.0228186	3464687
16080.7	0.0233019	3456901
16090.2	0.0237487	3449986
16100.7	0.0242587	3442584
16110.2	0.0247305	3435441
16120.8	0.0252693	3427873
16130.3	0.0257674	3420246
16140.8	0.0263321	3412930
16150	0.0268461	3405845
16160.3	0.0274325	3398096
16170.9	0.0280484	3390553
16180.4	0.0286187	3384840
16190.9	0.0292664	3377985
16200.2	0.0298542	3372602
16210.5	0.0305218	3366159
16220.8	0.0312055	3359673
16230.1	0.0318341	3354136
16240.4	0.0325466	3347717
16250.7	0.0332727	3340706
16260	0.033937	3333885
16270.3	0.0346858	3327090
16280.6	0.035445	3319264
16290	0.036145	3312459
16300.6	0.0369383	3304616
16310	0.0376528	3298025
16320.6	0.038456	3290194
16330	0.0391801	3283777
16340.4	0.039977	3276508
16350.8	0.0407737	3270612
16360.2	0.0414919	3264122
16370.8	0.0422934	3257843
16380.3	0.0430117	3251828
16390.8	0.0438032	3244713
16400.3	0.0445078	3238544
16410.8	0.0452806	3232191
16420.3	0.0459659	3225537
16430.9	0.046714	3217985
16440.4	0.0473737	3211936
16450.9	0.04809	3204916
16460.4	0.0487169	3198066
16470.9	0.0493911	3190498
16480.4	0.0499808	3183302
16490.9	0.0506148	3175913
16500.4	0.0511636	3169391
16511	0.051748	3162584
16520.5	0.0522501	3155775
16531	0.0527769	3149325
16540.3	0.0532204	3143204
16550.6	0.0536847	3136418
16561	0.0541185	3129985
16570.3	0.0544826	3124343
16580.7	0.0548589	3118715
16590.1	0.0551746	3113248
16600.6	0.0554926	3108174
16610	0.0557514	3103330
16620.5	0.0560071	3097757
16630.9	0.0562303	3091760
16640.3	0.0564043	3086300
16650.8	0.0565674	3080221
16660.2	0.0566878	3074064
16670.7	0.0567921	3068507
16680.2	0.0568594	3063797
16690.7	0.0569048	3059519
16700.1	0.05692	3054433
16710.7	0.0569088	3049076
16720.1	0.0568742	3044660
16730.6	0.0568093	3038818
16740	0.0567283	3033177
16750.5	0.0566143	3027417
16760.9	0.0564762	3021315
16770.3	0.0563317	3015527
16780.8	0.0561494	3009202
16790.3	0.0559681	3003865
16800.9	0.0557489	2998669
16810.4	0.0555374	2993092
16820.9	0.0552889	2986996
16830.3	0.0550576	2981224
16840.8	0.0547922	2974687
16850.3	0.0545473	2969534
16860.8	0.0542786	2963305
16870.3	0.0540429	2956378
16880.9	0.0537587	2949994
16890.3	0.0534999	2943829
16900.9	0.0532294	2937141
16910.2	0.0534501	2930681
16920.5	0.054011	2923343
16930.9	0.0539649	2916257
16940.4	0.0537073	2909297
16950.9	0.053349	2902799
16960.4	0.0530241	2896634
16970.9	0.0526858	2888930
16980.3	0.0524209	2882223
16990.9	0.052113	2874965
17000.3	0.0518337	2868967
17010.8	0.0515312	2861792
17020.3	0.0512656	2855616
17030.9	0.0509766	2848929
17040.3	0.0507298	2842789
17050.9	0.0504814	2836631
17060.3	0.0502542	2831283
17070.6	0.0499848	2824624
17080.9	0.0496988	2818899
17090.3	0.049432	2812933
17100.9	0.0491301	2807440
17110.4	0.0488597	2801375
17120.9	0.0485611	2795470
17130.4	0.0482932	2790754
17141	0.0479944	2784547
17150.5	0.0477223	2778924
17161	0.047414	2773113
17170.5	0.0471288	2767987
17180	0.0468343	2763133
17190.6	0.0464935	2756478
17200.1	0.0461722	2750948
17210.6	0.0457963	2744340
17220.1	0.0454384	2738561
17230.7	0.0450159	2732410
17240.1	0.0446134	2727347
17250.5	0.0441401	2722426
17260.9	0.0436324	2717081
17270.3	0.0431429	2712447
17280.8	0.0425528	2706803
17290.3	0.0419842	2702528
17300.9	0.0413083	2697285
17310.4	0.0406581	2692980
17320.9	0.039887	2687552
17330.4	0.039147	2682985
17341	0.0382715	2677931
17350.5	0.0374334	2672937
17361	0.0364441	2666919
17370.5	0.0354992	2661711
17381.1	0.0343861	2655394
17390.6	0.0333252	2650112
17400	0.0322062	2645044
17410.6	0.0308925	2639282
17420.1	0.0296448	2634772
17430.6	0.0281837	2629490
17440.1	0.0267998	2624788
17450.7	0.0251838	2619689
17460.2	0.0236577	2615364
17470.7	0.0218811	2610357
17480.2	0.0202085	2606386
17490.8	0.0182679	2601297
17500.3	0.0164471	2596443
17510.8	0.014342	2591642
17520.3	0.0123742	2587364
17530.8	0.0101243	2583273
17540.3	0.00801679	2579205
17550.9	0.00559894	2574452
17560.4	0.00335112	2569961
17570.9	0.000817041	2565240
17580.4	-0.0015445	2560787
17591	-0.00420761	2555505
17600.5	-0.00686218	2550729
17611	-0.0103979	2545681
17620.5	-0.0138228	2541910
17631.1	-0.0176498	2537766
17640.6	-0.021236	2533943
17650	-0.0248699	2530096
17660.6	-0.028966	2525703
17670.1	-0.0326843	2521666
17680.6	-0.0370669	2517002
17690.1	-0.0427248	2513364
17700.7	-0.0492716	2509279
17710.2	-0.054655	2506393
17720.5	-0.0603084	2501793
17730.8	-0.0662477	2497366
17740.1	-0.0718636	2493388
17750.6	-0.0781458	2488774
17760.1	-0.0837311	2484758
17770.6	-0.0900229	2480225
17780.1	-0.0958321	2475499
17790.7	-0.102404	2470422
17800.2	-0.108365	2465807
17810.7	-0.115005	2461112
17820.2	-0.120992	2455700
17830.8	-0.127661	2450223
17840.3	-0.133685	2445944
17850.8	-0.140371	2441439
17860.3	-0.146329	2437133
17870.9	-0.152805	2432778
17880.3	-0.158436	2428295
17890.7	-0.164439	2423966
17900.1	-0.169604	2419733
17910.5	-0.175031	2414480
17921	-0.180099	2409540
17930.4	-0.184294	2404833
17940.9	-0.188523	2399400
17950.4	-0.191916	2394756
17960.9	-0.195205	2389862
17970.3	-0.197738	2386616
17980.8	-0.200037	2382011
17990.2	-0.201713	2377341
18000.7	-0.202821	2372034
18010.1	-0.203598	2368265
18020.7	-0.204062	2363879
18030.2	-0.204129	2360366
18040.7	-0.203842	2355831
18050.2	-0.203298	2352543
18060.7	-0.202428	2349261
18070.1	-0.201264	2345922
18080.7	-0.199591	2341860
18090.1	-0.197819	2338907
18100.6	-0.195575	2335131
18111	-0.193011	2331475
18120.3	-0.190454	2328341
18130.6	-0.187407	2324890
18140.9	-0.184062	2321914
18150.2	-0.180696	2318208
18160.7	-0.176455	2315243
18170.1	-0.172325	2312218
18180.6	-0.167543	2308167
18190	-0.163122	2304568
18200.6	-0.157761	2300118
18210.1	-0.152557	2297295
18220.5	-0.146577	2294263
18231	-0.140547	2289752
18240.5	-0.135074	2286666
18251	-0.128792	2282794
18260.5	-0.122894	2279952
18270	-0.116734	2276990
18280.6	-0.109633	2273509
18290.1	-0.103115	2270792
18300.6	-0.0956248	2267530
18310.1	-0.0888978	2263916
18320.7	-0.0804921	2260623
18330.1	-0.0733132	2257334
18340.7	-0.0640676	2253818
18350.1	-0.0563074	2250780
18360.4	-0.0488423	2246894
18370.7	-0.0412341	2243353
18381	-0.0333469	2239519
18390.3	-0.0267603	2236191
18400.7	-0.0199512	2232729
18410.2	-0.0140055	2229466
18420.8	-0.00747582	2225697
18430.2	-0.00172127	2222495
18440.7	0.0044472	2218194
18450.2	0.00983493	2214753
18460.7	0.0155391	2210460
18470.2	0.0204378	2207112
18480.7	0.0256272	2202972
18490.2	0.0300601	2200107
18500.6	0.034727	2196064
18510.1	0.0387821	2192535
18520.6	0.0431795	2188951
18530	0.0471664	2185212
18540.6	0.0509866	2180546
18550.1	0.0542943	2176605
18560.6	0.0576288	2172221
18570.1	0.0605548	2168652
18580.7	0.0636727	2164860
18590.2	0.0662616	2161824
18600.7	0.0689116	2158321
18610.2	0.0710899	2155092
18620.8	0.073286	2151475
18630.3	0.0750985	2148193
18640.8	0.0769613	2144542
18650.3	0.0785139	2141360
18660.9	0.0801219	2138181
18670.4	0.0814852	2135345
18680.9	0.0829243	2131742
18690.4	0.0841576	2127714
18701	0.0854616	2124303
18710.5	0.0865777	2120987
18721	0.0877583	2117521
18730.5	0.0887713	2114132
18740	0.0897396	2111462
18750.6	0.0907644	2107864
18760.1	0.0916404	2104973
18770.6	0.0925612	2101925
18780.1	0.0933406	2099078
18790.7	0.0941488	2096186
18800.2	0.0948208	2093352
18810.7	0.0955018	2090834
18820.2	0.096052	2088394
18830.8	0.0965903	2085839
18840.3	0.0970075	2083984
18850.8	0.097396	2081860
18860.3	0.0976794	2079837
18870.9	0.0979234	2077443
18880.3	0.0980826	2075288
18890.9	0.0981972	2072850
18900.4	0.0982486	2070331
18910.9	0.0982534	2068127
18920.4	0.0982148	2065469
18931	0.0981285	2062839
18940.5	0.0980152	2060833
18951	0.0978531	2058164
18960.5	0.0976773	2055885
18970	0.0974758	2053946
18980.6	0.0972242	2050959
18990.1	0.0969754	2049153
19000.6	0.0966767	2047296
19010.1	0.0963902	2045324
19020.7	0.0960551	2042946
19030.2	0.095741	2040957
19040.7	0.0953812	2038953
19050.2	0.0950504	2037003
19060.8	0.0946786	2034775
19070.3	0.0943429	2032849
19080.8	0.0939724	2030422
19090.3	0.0936442	2028539
19100.9	0.0932888	2026166
19110.4	0.0929803	2023556
19120.9	0.0926532	2021249
19130.4	0.0923758	2018814
19141	0.0920891	2016089
19150.5	0.0918528	2014096
19161	0.0916163	2011146
19170.5	0.0914282	2008573
19180	0.0912641	2006280
19190.6	0.0911099	2003548
19200.1	0.0909962	2000963
19210.6	0.0908967	1997887
19220.1	0.0908306	1995300
19230.7	0.0907825	1992415
19240.2	0.0907616	1990129
19250.7	0.0907629	1987259
19260.2	0.0907857	1984648
19270.8	0.090835	1981679
19280.3	0.0909002	1978935
19290.8	0.0909947	1975899
19300.3	0.0910956	1973379
19310.9	0.0912927	1970390
19320.4	0.0911277	1967278
19330.9	0.091287	1964154
19340.4	0.0914649	1961394
19351	0.0916435	1958459
19360.5	0.0918132	1955684
19371	0.0920278	1952564
19380.5	0.0922259	1949843
19391.1	0.0924306	1946677
19400.6	0.0925919	1944051
19410	0.0927318	1941274
19420.6	0.0929454	1938097
19430.1	0.0933315	1935952
19440.6	0.0933677	1932746
19450.1	0.0934003	1930585
19460.7	0.0932962	1928348
19470.2	0.0931831	1926380
19480.7	0.0930315	1923740
19490.2	0.092866	1921875
19500.8	0.092662	1919277
19510.3	0.0924928	1916792
19520.8	0.0922333	1914336
19530.3	0.0919361	1912198
19540.9	0.0915679	1909719
19550.4	0.0912215	1907892
19560.9	0.0908239	1905216
19570.3	0.0904424	1903016
19580.7	0.0899731	1900148
19590.1	0.0895015	1897325
19600.7	0.0889181	1893909
19610.2	0.0883488	1891233
19620.7	0.0876763	1888350
19630.1	0.0870347	1886859
19640.6	0.0862818	1884709
19651	0.0854869	1882306
19660.5	0.0847348	1879697
19670.9	0.08386	1877148
19680.3	0.083037	1874859
19690.8	0.0820761	1872791
19700.3	0.081174	1869886
19710.9	0.0801325	1867334
19720.4	0.0791593	1865221
19730.9	0.0780371	1862398
19740.4	0.0769946	1860247
19750.8	0.0757992	1857696
19760.3	0.0746866	1855578
19770.7	0.07341	1853246
19780.2	0.0722225	1850640
19790.7	0.0708577	1847840
19800.2	0.0695931	1845206
19810.8	0.0681499	1842399
19820.3	0.0668174	1840028
19830.8	0.0653002	1837855
19840.3	0.0639026	1835709
19850.9	0.0623146	1833562
19860.4	0.0608546	1831237
19870.9	0.0591992	1828491
19880.4	0.0576803	1826231
19891	0.0559616	1824143
19900.4	0.0543882	1822127
19911	0.0526129	1820289
19920.5	0.0509934	1818434
19931	0.0491719	1816811
19940.5	0.047514	1814406
19951	0.0456522	1812074
19960.5	0.0439625	1809435
19970	0.0422626	1806652
19980.6	0.0403647	1804500
19990.1	0.0386511	1801916
