0	0	817500
10.0245	0	837982
20.9846	0	853536
30.9465	0	865270
40.9087	0	873468
50.8677	0	879908
60.7702	0	885212
70.5898	0	889566
80.3988	0	893024
90.2307	0	896706
100.18	0	900140
110.265	0	902550
120.43	0	905398
130.596	0	907756
140.762	0	909962
150.928	0	912006
160.078	0	914022
170.244	0	916560
180.41	0	918800
190.576	0	921338
200.742	0	923626
210.908	0	926360
220.058	0	928688
230.224	0	931226
240.39	0	934280
250.568	0	937082
260.771	0	939818
270.973	0	942662
280.155	0	944958
290.353	0	947656
300.55	0	950286
310.747	0	952958
320.945	0	956048
330.124	0	958668
340.318	0	961818
350.496	0	964848
360.669	0	968060
370.836	0	971236
381.003	0	974248
390.153	0	976854
400.319	0	979726
410.491	0	982550
420.683	0	985508
430.886	0	988286
440.069	0	991170
450.271	0	993906
460.473	0	996726
470.675	0	999560
480.876	0	1002174
490.058	0	1004858
500.261	0	1007734
510.464	0	1010584
520.668	0	1013638
530.871	0	1016544
540.053	0	1019426
550.281	0	1022716
560.563	0	1025984
570.867	0	1029354
580.14	0	1032256
590.443	0	1035604
600.747	0	1039310
610.02	0	1042282
620.323	0	1045802
630.626	9.09495e-13	1049388
640.929	7.27596e-12	1052716
650.202	1.54614e-11	1055792
660.505	2.81943e-11	1059424
670.808	5.09317e-11	1063088
680.081	9.004e-11	1066582
690.384	1.68257e-10	1070380
700.687	3.13776e-10	1074116
710.99	5.7662e-10	1077606
720.263	9.88621e-10	1080980
730.566	1.76897e-09	1084776
740.869	3.11593e-09	1088416
750.108	5.10954e-09	1091974
760.355	8.71387e-09	1095808
770.595	1.46383e-08	1099910
780.835	2.42353e-08	1103844
790.036	3.76685e-08	1107530
800.251	6.06724e-08	1111356
810.466	9.6431e-08	1115302
820.678	1.51272e-07	1119524
830.886	2.34306e-07	1123620
840.069	3.4371e-07	1127366
850.273	5.20213e-07	1131262
860.476	7.78293e-07	1135404
870.68	1.15136e-06	1139456
880.882	1.68459e-06	1143636
890.064	2.35117e-06	1147306
900.266	3.3719e-06	1151452
910.468	4.78697e-06	1155560
920.665	6.72817e-06	1159690
930.862	9.36648e-06	1164064
940.039	1.25149e-05	1168008
950.236	1.71206e-05	1172454
960.433	2.32154e-05	1176940
970.63	3.12109e-05	1181198
980.81	4.15918e-05	1185410
990.988	5.49774e-05	1189756
1000.14	7.01876e-05	1193780
1010.31	9.13963e-05	1198234
1020.48	0.000118138	1202970
1030.64	0.000151615	1207482
1040.81	0.000193233	1211916
1050.98	0.000244624	1216574
1060.13	0.000300785	1220800
1070.29	0.000376165	1225030
1080.46	0.000467566	1229710
1090.63	0.000577743	1234582
1100.79	0.0007098	1239082
1110.96	0.000867218	1243606
1120.11	0.00103377	1247316
1130.28	0.0012504	1251612
1140.45	0.00150479	1255680
1150.61	0.0018021	1260332
1160.78	0.00214792	1264778
1170.95	0.00254829	1269140
1180.1	0.00296068	1273274
1190.27	0.00348334	1277660
1200.44	0.00408029	1281814
1210.6	0.00475926	1286094
1220.77	0.00552987	1290390
1230.94	0.0064033	1294294
1240.09	0.00729377	1297934
1250.26	0.00833202	1301712
1260.43	0.00954776	1305642
1270.6	0.0110347	1309754
1280.77	0.0127607	1313478
1290.93	0.0142594	1317436
1300.09	0.0167066	1321168
1310.25	0.0195425	1325460
1320.42	0.0214949	1329316
1330.59	0.0257199	1333786
1340.76	0.0303877	1337826
1350.93	0.0354433	1342340
1360.08	0.0403456	1346422
1370.25	0.0460229	1350614
1380.42	0.0517907	1355118
1390.59	0.057603	1359284
1400.76	0.0634724	1363538
1410.93	0.0693924	1367724
1420.08	0.0748107	1371650
1430.25	0.0805258	1376030
1440.42	0.0870323	1380498
1450.58	0.0939787	1384950
1460.76	0.104305	1389482
1470.98	0.113967	1394076
1480.23	0.122613	1398166
1490.57	0.133156	1402826
1500.98	0.144976	1406940
1510.36	0.16018	1410678
1520.79	0.187918	1414852
1530.17	0.22454	1418460
1540.59	0.271031	1422346
1551.01	0.365198	1426298
1560.38	0.465814	1429450
1570.81	0.592436	1432828
1580.21	0.723968	1436106
1590.67	0.88466	1439348
1600.08	1.04207	1442258
1610.48	1.22542	1444992
1620.91	1.41189	1447540
1630.29	1.57498	1450290
1640.7	1.74519	1452178
1650.08	1.88464	1454226
1660.47	2.01882	1456594
1670.84	2.12954	1458776
1680.2	2.20968	1460840
1690.57	2.27612	1463224
1700.02	2.31709	1465400
1710.4	2.34294	1467982
1720.92	2.35013	1470192
1730.35	2.34187	1472526
1740.85	2.31882	1474658
1750.32	2.28713	1476896
1760.77	2.24149	1479520
1770.22	2.19214	1481584
1780.69	2.12986	1484036
1790.12	2.06733	1486166
1800.71	1.99041	1488686
1810.31	1.91501	1490858
1821.02	1.82453	1493652
1830.74	1.73714	1496214
1840.41	1.64607	1498302
1850.03	1.55235	1501218
1860.65	1.44585	1503866
1870.34	1.34629	1506102
1880.97	1.23394	1509024
1890.48	1.12872	1511350
1900.06	1.01624	1513484
1910.61	0.881934	1516084
1920.06	0.750136	1518162
1930.51	0.590188	1520286
1940.04	0.431552	1522346
1950.6	0.243016	1524732
1960.01	0.0663635	1526836
1970.56	-0.137306	1528800
1980.05	-0.32164	1530828
1990.64	-0.523741	1532864
2000.2	-0.699535	1534620
2010.74	-0.882451	1536556
2020.08	-1.03223	1538230
2030.61	-1.18531	1540408
2040.04	-1.30679	1542566
2050.46	-1.42321	1544816
2060.93	-1.52168	1547612
2070.25	-1.59469	1549940
2080.72	-1.66231	1552596
2090.2	-1.71262	1554842
2100.82	-1.75892	1557346
2110.42	-1.7931	1559744
2121.01	-1.82267	1562320
2130.61	-1.84122	1565222
2140.27	-1.85059	1567652
2150.66	-1.84147	1570864
2160.11	-1.8228	1573060
2170.54	-1.78805	1575132
2180.97	-1.74056	1578484
2190.36	-1.67314	1580348
2200.83	-1.58351	1583318
2210.22	-1.49574	1585810
2220.65	-1.39094	1588588
2230.04	-1.29569	1590854
2240.46	-1.19194	1593190
2250.84	-1.09551	1595874
2260.2	-1.01609	1598154
2270.63	-0.936135	1601116
2280.08	-0.871218	1603354
2290.44	-0.807377	1605926
2300.91	-0.749093	1608032
2310.34	-0.700871	1610058
2320.9	-0.650751	1612538
2330.23	-0.609448	1614504
2340.59	-0.56662	1616842
2350.99	-0.526684	1618492
2360.43	-0.492907	1620478
2371.01	-0.457477	1622788
2380.35	-0.427812	1624546
2390.74	-0.395685	1626486
2400.32	-0.366059	1628556
2410.86	-0.33264	1630702
2420.27	-0.301559	1632492
2430.66	-0.26574	1634500
2440.17	-0.231972	1636042
2450.97	-0.193226	1637090
2460.55	-0.159289	1638428
2470.54	-0.124924	1639982
2480.24	-0.0932199	1641510
2490.82	-0.0611807	1643388
2500.37	-0.0350876	1644568
2510.12	-0.0115165	1645884
2520.1	0.00955058	1647536
2530.88	0.0293018	1648828
2540.27	0.0446339	1650552
2550.78	0.0605564	1652350
2560.4	0.0693548	1654102
2570.15	0.0757523	1656044
2580.99	0.0824048	1658118
2590.78	0.0888912	1659888
2600.35	0.0907655	1661792
2610.77	0.0910573	1664076
2620.04	0.0907967	1665734
2630.48	0.0909745	1667352
2640.94	0.0899174	1669388
2650.34	0.0881452	1671644
2660.81	0.0850312	1673882
2670.28	0.081677	1675824
2680.75	0.0770462	1678148
2690.15	0.0721205	1680124
2700.59	0.0659027	1682536
2710.99	0.0589999	1684708
2720.39	0.0522158	1686554
2730.95	0.0440302	1688962
2740.35	0.03628	1691186
2750.93	0.0271145	1693280
2760.36	0.0186086	1694774
2770.78	0.00891921	1696592
2780.33	-0.000148105	1698552
2790.05	-0.00951404	1700082
2800.69	-0.0198505	1701722
2810.48	-0.0293872	1703048
2820.96	-0.0395665	1704742
2830.39	-0.0486759	1706672
2840.89	-0.0587161	1708002
2850.4	-0.0676757	1709178
2860.09	-0.0766573	1710610
2870.2	-0.086639	1711998
2880.01	-0.0965504	1713798
2890.55	-0.106192	1715176
2900.04	-0.114136	1716236
2910.05	-0.12202	1717578
2920.29	-0.129759	1719224
2930.52	-0.136956	1720718
2940.75	-0.143606	1721618
2950.99	-0.149693	1723110
2960.74	-0.154943	1724876
2970.08	-0.159457	1726336
2980.74	-0.163983	1727896
2990.7	-0.167611	1729266
3000.26	-0.170562	1730750
3010.73	-0.173212	1732986
3020.11	-0.175087	1734868
3030.55	-0.176547	1736254
3040.11	-0.177131	1737533
3050.07	-0.17695	1739277
3060.62	-0.176146	1741465
3070.93	-0.175029	1742985
3080.25	-0.173978	1744325
3090.78	-0.17291	1746141
3100.13	-0.171963	1747471
3110.82	-0.170879	1749601
3120.78	-0.170729	1751097
3130.81	-0.170395	1752739
3141.05	-0.170067	1754670
3150.15	-0.169993	1756530
3160.38	-0.170083	1758550
3170.62	-0.170284	1760350
3180.86	-0.170567	1762590
3191.08	-0.17092	1765382
3200.15	-0.171251	1767210
3210.31	-0.171553	1770058
3220.46	-0.171702	1772302
3230.62	-0.171661	1774734
3240.77	-0.171421	1777335
3250.93	-0.170972	1780077
3261.08	-0.170305	1783203
3270.11	-0.169524	1785163
3280.26	-0.168436	1788213
3290.43	-0.167132	1790779
3300.61	-0.16562	1793691
3310.83	-0.1639	1796425
3321.06	-0.161983	1798975
3330.14	-0.160116	1800761
3340.35	-0.157829	1802945
3350.51	-0.155345	1805347
3360.55	-0.152672	1807083
3370.76	-0.149714	1809319
3380.98	-0.146497	1811399
3390.05	-0.143411	1813439
3400.26	-0.139675	1815405
3410.48	-0.135661	1817097
3420.69	-0.13138	1818977
3430.9	-0.126849	1821097
3441.11	-0.122081	1823393
3450.19	-0.117646	1825178
3460.4	-0.112437	1827178
3470.61	-0.107001	1829048
3480.82	-0.101358	1831068
3491.03	-0.0955547	1833646
3500.11	-0.0903111	1835458
3510.32	-0.0844268	1837554
3520.53	-0.07861	1839696
3530.75	-0.0726439	1842214
3540.96	-0.0668462	1844498
3550.03	-0.0618649	1846464
3560.25	-0.0564288	1848708
3570.46	-0.0511192	1850850
3580.67	-0.0459342	1853044
3590.88	-0.0409203	1855190
3601.09	-0.0360976	1857506
3610.17	-0.0319641	1858912
3620.38	-0.0274747	1860926
3630.59	-0.0231435	1862984
3640.8	-0.0189546	1865096
3651.02	-0.014893	1867278
3660.09	-0.0113835	1869184
3670.3	-0.00754701	1871526
3680.52	-0.0038289	1873864
3690.73	-0.00022951	1876022
3700.94	0.0032474	1878420
3710.04	0.00623289	1880336
3720.27	0.0094494	1882836
3730.5	0.0124949	1885234
3740.74	0.0153491	1887387
3750.97	0.017995	1889937
3760.07	0.0201596	1892139
3770.3	0.022369	1894473
3780.53	0.0243123	1896569
3790.57	0.0259405	1899603
3800.09	0.0272307	1901979
3811.04	0.0283815	1904717
3820.63	0.0290877	1907635
3830.06	0.0299786	1909859
3840.56	0.0298777	1912525
3850.41	0.0295571	1915321
3860.31	0.0289279	1918266
3870.99	0.0280246	1921068
3880.95	0.0269765	1923462
3891.1	0.0257264	1926084
3900.13	0.0245145	1928391
3910.28	0.0230322	1930997
3920.43	0.0214045	1933501
3930.58	0.0196275	1935939
3940.74	0.017713	1938481
3950.89	0.0156921	1940937
3961.04	0.0135969	1943189
3970.06	0.0116867	1945315
3980.22	0.00948948	1947951
3990.37	0.0072451	1950299
4000.52	0.0049625	1952115
4010.67	0.00265845	1954276
4020.82	0.000352328	1956574
4030.97	-0.00194515	1958547
4041.13	-0.00423032	1960045
4050.15	-0.00624444	1961929
4060.3	-0.00848585	1964137
4070.45	-0.0106965	1966135
4080.61	-0.0128642	1968260
4090.77	-0.0149753	1970668
4100.96	-0.0170219	1973060
4110.04	-0.0187838	1974636
4120.27	-0.0206931	1976970
4130.19	-0.022469	1979328
4140.79	-0.0242784	1981626
4150.39	-0.0258286	1984056
4160.18	-0.0273162	1986015
4170.1	-0.0287241	1988427
4180.64	-0.0301071	1991316
4190.06	-0.0312474	1993040
4200.53	-0.0324095	1995123
4210.99	-0.0334588	1997123
4220.43	-0.0343044	1999894
4231.04	-0.0351352	2001605
4240.67	-0.035774	2003535
4250.53	-0.0363098	2005914
4260.31	-0.0367223	2007208
4270.12	-0.037018	2009479
4280.86	-0.0372097	2011907
4290.62	-0.0372688	2013913
4300.76	-0.0372199	2015810
4310.84	-0.0370648	2018039
4320.59	-0.0368173	2019989
4330.08	-0.0364872	2021909
4340.64	-0.0360174	2023865
4350.28	-0.0354942	2026483
4360.95	-0.0348074	2028721
4370.73	-0.0340759	2030277
4380.73	-0.033224	2032281
4390.44	-0.0322927	2034351
4400.92	-0.0311665	2036895
4410.52	-0.0300199	2039069
4420.53	-0.0287001	2041839
4430.35	-0.0272723	2044816
4440.85	-0.0255865	2047457
4450.31	-0.0239186	2050477
4460.74	-0.0219129	2053333
4470.06	-0.0199763	2056097
4480.62	-0.017684	2058871
4490.22	-0.015789	2061628
4501.03	-0.014549	2064454
4511	-0.0110397	2067210
4521.08	-0.00686656	2069682
4530.05	-0.0033906	2072112
4540.84	0.00183463	2074844
4550.46	0.00689208	2077426
4560.07	0.0118077	2080228
4570.73	0.0173021	2082524
4580.61	0.0226291	2084716
4590.68	0.0283675	2086984
4600.66	0.0344259	2089166
4610.27	0.0406111	2091470
4620.02	0.0471945	2093044
4631.09	0.0549359	2095586
4640.01	0.0612931	2097310
4650.07	0.0685445	2099586
4661.09	0.076571	2102123
4670.96	0.0838354	2104227
4680.36	0.0907955	2106311
4690.86	0.0985588	2108637
4700.28	0.105498	2110165
4710.91	0.11326	2111954
4720.9	0.120481	2113942
4730.34	0.127226	2115882
4740.78	0.134585	2118032
4750.2	0.141098	2119536
4760.72	0.148194	2121488
4770.93	0.154863	2122832
4780.47	0.160875	2125130
4790.95	0.167222	2127404
4800.4	0.172676	2128906
4810.84	0.178392	2131370
4820.33	0.183271	2133291
4830.05	0.187921	2135225
4840.77	0.192629	2137793
4850.46	0.196476	2139413
4860.37	0.199997	2141729
4870.02	0.202995	2143389
4880.7	0.205789	2145572
4890.74	0.207899	2147732
4900.36	0.209446	2149620
4910.84	0.210605	2151789
4920.29	0.211184	2153079
4931	0.211335	2154979
4940.79	0.21099	2156423
4950.62	0.210135	2157547
4960.21	0.208675	2159424
4970.85	0.206769	2161284
4980.54	0.20459	2162602
4990.54	0.201824	2164298
5000.59	0.198553	2166185
5010.28	0.194979	2168620
5020.92	0.190614	2170385
5030.51	0.186296	2172027
5040.1	0.181603	2173751
5050.17	0.176294	2175575
5060.86	0.170244	2177584
5070.57	0.164396	2179636
5080.3	0.15819	2181687
5090.39	0.151381	2183713
5100.49	0.144182	2185214
5110.41	0.13676	2186874
5120.15	0.129183	2188291
5130.25	0.120168	2189889
5140.19	0.109464	2191745
5150.9	0.0992264	2193388
5160.97	0.0895231	2195354
5171.08	0.07979	2197058
5180.19	0.0709963	2198719
5190.47	0.0611377	2200877
5200.76	0.0513414	2202760
5211.05	0.0414871	2205293
5220.2	0.0326967	2206602
5230.48	0.022843	2208822
5240.77	0.0131661	2211134
5251.06	0.00369134	2213070
5260.21	-0.00461246	2214674
5270.49	-0.0137813	2216509
5280.78	-0.0226844	2218575
5291.07	-0.0312975	2220433
5300.25	-0.038715	2221918
5310.59	-0.0467283	2223111
5320.94	-0.0543254	2223802
5330.13	-0.0607011	2225443
5340.2	-0.0672423	2227093
5350.76	-0.0735572	2228040
5360.2	-0.0786874	2228900
5370.69	-0.0837948	2230333
5380.24	-0.0879019	2231574
5390.93	-0.0919228	2233435
5400.41	-0.095066	2235148
5410.96	-0.0981126	2236753
5420.56	-0.0995494	2237627
5430.43	-0.100283	2239052
5440.55	-0.100741	2240471
5450.3	-0.100715	2241338
5460.49	-0.100197	2242923
5470.68	-0.0992987	2244107
5480.27	-0.0980039	2245455
5490.32	-0.0962061	2246724
5500.66	-0.0938759	2248148
5510.98	-0.0910483	2249593
5520.15	-0.0881459	2251267
5530.46	-0.0844309	2252671
5540.78	-0.0803717	2254738
5551.09	-0.0759959	2256505
5560.26	-0.0718361	2258148
5570.58	-0.0668378	2259751
5580.89	-0.0614748	2261538
5590.06	-0.056377	2262662
5600.38	-0.0503994	2263967
5610.7	-0.0439687	2265087
5621.01	-0.0367081	2266510
5630.18	-0.0262737	2267432
5640.5	-0.0169527	2268840
5650.81	-0.00908336	2269403
5661.13	-0.00135456	2270721
5670.3	0.00553898	2270636
5680.62	0.0129634	2271675
5690.93	0.0200646	2272515
5700.1	0.0261516	2273075
5710.42	0.0326912	2273645
5720.73	0.0388639	2273980
5731.05	0.0446397	2275116
5740.22	0.0494018	2275322
5750.53	0.0543034	2275933
5760.85	0.0586954	2276733
5770.02	0.0621549	2277581
5780.33	0.0655751	2278742
5790.65	0.0681645	2279544
5801.03	0.0704091	2280469
5810.28	0.0719946	2281361
5820.68	0.0732579	2282316
5831.08	0.0740018	2283504
5840.33	0.0750903	2284200
5850.73	0.0748074	2285631
5861.13	0.0740345	2286428
5870.37	0.0732827	2287984
5880.78	0.0721035	2289469
5890.84	0.0708168	2290920
5900.24	0.0694476	2292564
5910.74	0.067686	2293985
5920.33	0.0658758	2295330
5931.14	0.0636447	2296007
5940.92	0.0614929	2297809
5950.42	0.0593095	2298678
5961.03	0.0567844	2300028
5971.07	0.0543191	2301332
5980.11	0.0520411	2302182
5990.64	0.0493333	2303627
6000.78	0.0466819	2304632
6011.01	0.043986	2306272
6020.85	0.0413939	2307167
6030.02	0.0389985	2308089
6040.96	0.0361875	2309477
6050.04	0.0339037	2310912
6060.35	0.0313804	2312361
6070.7	0.0289404	2314059
6080.43	0.0267388	2316245
6090.2	0.0246333	2317903
6100.55	0.0225287	2320351
6110.9	0.0205661	2322410
6120.1	0.018951	2325117
6130.44	0.017291	2327356
6140.79	0.0158078	2330019
6151.14	0.0145112	2332679
6160.33	0.0135215	2335064
6170.66	0.0125958	2337432
6180.98	0.0118713	2339496
6190.14	0.0113958	2341611
6200.43	0.0110476	2343965
6210.7	0.0108908	2346613
6220.97	0.010917	2348614
6230.1	0.0110862	2350978
6240.37	0.0114307	2353060
6250.62	0.0119269	2355261
6260.84	0.0125618	2357838
6271.06	0.0133252	2360395
6280.14	0.0141027	2362282
6290.36	0.0150795	2363729
6300.56	0.0161553	2365816
6310.75	0.0173215	2367436
6320.93	0.0185723	2369296
6331.1	0.0199017	2371082
6340.13	0.0211461	2372580
6350.28	0.0226156	2374682
6360.44	0.0241569	2376896
6370.6	0.0257682	2378889
6380.75	0.0274483	2380277
6390.76	0.0291713	2381958
6400.21	0.0308585	2383279
6410.66	0.0327922	2385323
6420.06	0.0345935	2386443
6430.6	0.0366846	2387624
6440.38	0.0386921	2389228
6450.51	0.0408427	2390969
6460.5	0.0430309	2393278
6471	0.0454049	2394963
6480.7	0.0476534	2396692
6490.5	0.0499752	2397937
6500.23	0.0523117	2399484
6510.35	0.054762	2401203
6520.48	0.0572142	2403167
6530.6	0.0596571	2405500
6540.73	0.0620828	2407737
6550.86	0.0644841	2410261
6560.38	0.0667129	2412860
6570.35	0.0690031	2414964
6581.07	0.0714045	2418107
6590.82	0.0735211	2419604
6600.73	0.0755906	2422343
6610.89	0.0776132	2424248
6620.98	0.0795131	2427043
6630.58	0.0812098	2428811
6640.66	0.0828624	2431212
6650.8	0.084383	2433148
6660.94	0.0857499	2435444
6671.08	0.0869519	2437560
6680.1	0.0878731	2439495
6690.24	0.088734	2441889
6700.38	0.089399	2443474
6710.51	0.0898585	2445679
6720.64	0.0901039	2447423
6730.77	0.0901271	2449569
6740.89	0.0899181	2451253
6751.02	0.0894599	2453253
6760.02	0.0888385	2454979
6770.15	0.0879179	2456265
6780.27	0.0867818	2457592
6790.87	0.0853414	2458665
6800.34	0.0838191	2459590
6810.88	0.0818686	2460701
6820.37	0.0798946	2461746
6830.83	0.077485	2462686
6840.61	0.0750197	2462926
6850.16	0.0724308	2463562
6860.66	0.0693904	2464923
6870.06	0.0665583	2465868
6880.62	0.0632838	2467394
6890.15	0.0601532	2468809
6900.68	0.0584749	2470854
6910.18	0.0551324	2472386
6920.83	0.050442	2474293
6930.42	0.0465156	2475847
6940.22	0.042022	2477437
6950.32	0.0370227	2479592
6960.92	0.0318941	2481426
6970.45	0.0273917	2483565
6980.2	0.0226983	2485381
6990.83	0.0173128	2487708
7000.33	0.0121953	2488902
7010.9	0.00624121	2491119
7020.51	0.000704182	2492863
7030.13	-0.00487867	2494561
7040.9	-0.0111626	2496519
7050.89	-0.0170463	2497522
7060.87	-0.0229976	2499271
7070.77	-0.0289505	2500248
7080.34	-0.0346935	2501799
7090.15	-0.0405062	2502743
7101.04	-0.0468139	2504163
7110.64	-0.0522368	2505382
7120.25	-0.0575375	2505910
7130.06	-0.062828	2506847
7140.31	-0.0681996	2507859
7150.66	-0.0734508	2508499
7160.87	-0.0784419	2510387
7170.91	-0.0831577	2511844
7180.96	-0.08768	2513377
7191.05	-0.0920294	2514901
7200.65	-0.0959789	2516873
7210.56	-0.0998539	2518599
7220.9	-0.103677	2520438
7230.85	-0.107133	2521888
7240.49	-0.110271	2523690
7250.4	-0.113282	2525499
7260.74	-0.116199	2527132
7271.08	-0.11888	2529331
7280.28	-0.12106	2530408
7290.62	-0.123283	2532795
7300.96	-0.125261	2534563
7310.16	-0.126816	2536249
7320.5	-0.12833	2538379
7330.83	-0.129411	2539408
7341.13	-0.130609	2541671
7350.24	-0.131521	2542793
7360.45	-0.132219	2544369
7370.62	-0.132756	2545289
7380.76	-0.133111	2546330
7390.9	-0.133255	2547910
7401.04	-0.133215	2548389
7410.05	-0.133055	2550047
7420.19	-0.132766	2551529
7430.33	-0.132371	2552492
7440.48	-0.131862	2554165
7450.62	-0.131231	2555132
7460.76	-0.13049	2557396
7470.9	-0.129709	2558539
7481.04	-0.128952	2560144
7490.05	-0.128276	2560869
7500.19	-0.127515	2561729
7510.33	-0.126772	2562576
7520.47	-0.125624	2563846
7530.61	-0.124936	2565359
7540.75	-0.124271	2566275
7550.89	-0.123538	2567896
7561.03	-0.122802	2569054
7570.05	-0.122118	2570784
7580.19	-0.121343	2571857
7590.28	-0.120701	2573516
7600.23	-0.120121	2574692
7610.17	-0.119578	2575897
7620.12	-0.119055	2577148
7630.06	-0.118576	2578753
7640.01	-0.11815	2580071
7651.06	-0.117722	2581761
7661	-0.117372	2582717
7670.95	-0.117063	2584337
7680.89	-0.116796	2585639
7690.84	-0.116573	2586611
7700.78	-0.116398	2587656
7710.73	-0.116275	2588359
7720.73	-0.116207	2589017
7730.79	-0.116196	2589413
7740.87	-0.116244	2589741
7750.97	-0.116352	2589828
7761.09	-0.11652	2590105
7770.08	-0.116721	2590380
7780.19	-0.117002	2590650
7790.31	-0.117341	2590792
7800.44	-0.117733	2590715
7810.6	-0.118178	2591525
7820.72	-0.11867	2592080
7830.83	-0.119205	2592238
7840.95	-0.119783	2592450
7851.07	-0.1204	2593030
7860.06	-0.120978	2593534
7870.18	-0.12166	2593618
7880.29	-0.122372	2594676
7890.41	-0.123111	2595048
7900.53	-0.123876	2595866
7910.65	-0.124661	2596755
7920.77	-0.125465	2598020
7930.87	-0.126282	2598797
7940.78	-0.127095	2600009
7950.69	-0.127915	2601743
7960.6	-0.128738	2603297
7970.51	-0.129561	2605285
7980.41	-0.13038	2606449
7990.32	-0.131189	2608157
8000.22	-0.131987	2609553
8010.13	-0.132767	2611380
8020.03	-0.133526	2613335
8031.03	-0.134338	2614834
8040.94	-0.135036	2616798
8050.84	-0.135699	2619120
8060.75	-0.136321	2621127
8070.65	-0.136898	2623524
8080.56	-0.137425	2625442
8090.46	-0.137899	2627801
8100.36	-0.138313	2629826
8110.27	-0.138666	2631505
8120.17	-0.138952	2632903
8130.07	-0.139168	2634177
8141.08	-0.139325	2635948
8150.98	-0.139391	2637442
8160.89	-0.139383	2639491
8170.79	-0.139303	2641372
8180.79	-0.139149	2643143
8190.82	-0.138923	2644726
8200.81	-0.138625	2646785
8210.7	-0.138261	2648561
8220.74	-0.137823	2650129
8230.53	-0.137329	2652168
8240.26	-0.136776	2653644
8251.07	-0.136091	2655464
8260.86	-0.135408	2656449
8270.6	-0.134672	2658302
8280.43	-0.133875	2659638
8290.4	-0.133012	2661125
8300.25	-0.132107	2662255
8310.03	-0.13116	2663052
8320.07	-0.130138	2664479
8330.19	-0.12906	2666271
8341.02	-0.127852	2667974
8350.01	-0.126808	2669078
8360.13	-0.12559	2670163
8370.25	-0.124324	2671639
8380.37	-0.123014	2672543
8390.49	-0.121659	2673612
8400.61	-0.120257	2675014
8410.73	-0.118802	2676456
8420.85	-0.117293	2677950
8430.97	-0.115724	2679432
8441.1	-0.11408	2680407
8450.13	-0.112535	2681477
8460.34	-0.110705	2682628
8470.55	-0.108805	2683457
8480.77	-0.106842	2684291
8491	-0.104817	2684830
8500.1	-0.102971	2685796
8510.37	-0.100836	2686127
8520.63	-0.0986229	2687131
8530.71	-0.0963592	2688077
8540.53	-0.0940821	2688471
8550.79	-0.0916426	2689413
8560.79	-0.0892205	2690034
8570.27	-0.0868857	2690634
8580.77	-0.0842428	2691363
8590.78	-0.0816561	2691818
8600.87	-0.0789727	2692654
8610.71	-0.0762859	2693223
8620.73	-0.0734903	2694201
8630.96	-0.0706002	2694824
8640.06	-0.0680035	2695577
8650.97	-0.0649212	2697013
8660.07	-0.0622645	2697722
8670.3	-0.0589138	2698685
8680.5	-0.0576392	2699923
8690.63	-0.0536795	2700462
8700.86	-0.0492571	2701117
8710.51	-0.0455597	2702303
8720.74	-0.0412478	2703139
8730.52	-0.036895	2704136
8740.23	-0.0327684	2704642
8750.37	-0.0287271	2706211
8760.36	-0.0248911	2706795
8770.95	-0.0208654	2707513
8780.47	-0.017162	2708154
8790.15	-0.0132703	2708670
8800.91	-0.00884741	2709484
8810.61	-0.00487875	2709813
8820.48	-0.000925243	2710895
8830.47	0.0029923	2711136
8840.66	0.0069599	2712088
8850.82	0.0109387	2713312
8860.92	0.0149253	2713322
8871.13	0.018956	2714447
8880.2	0.0224974	2714546
8890.41	0.0264044	2714870
8900.62	0.030228	2715552
8910.82	0.033987	2715382
8921.03	0.0376988	2716567
8930.09	0.0409566	2716371
8940.28	0.0445641	2716628
8950.46	0.0480882	2716664
8960.59	0.0515069	2716776
8970.7	0.0548307	2717074
8980.81	0.0580709	2716728
8990.92	0.0612326	2716863
9001.03	0.0643137	2716947
9010.01	0.0669797	2716444
9020.12	0.0698908	2716626
9030.07	0.0726614	2715991
9041.03	0.0756081	2715934
9050.86	0.0781581	2715315
9060.56	0.0805959	2714614
9070.52	0.0830143	2714497
9080.5	0.0853523	2713486
9090.38	0.0875792	2713333
9101.03	0.0898806	2712909
9110.62	0.0918647	2712550
9120.36	0.0938002	2711353
9130.15	0.0956663	2710528
9140.28	0.0975095	2710286
9150.31	0.0992523	2710667
9160.12	0.100952	2710605
9170.06	0.102556	2711271
9180.13	0.103972	2712161
9190.24	0.105301	2712267
9200.3	0.106648	2713940
9211.05	0.107965	2714951
9221.03	0.109064	2716034
9230.82	0.110042	2717444
9240.71	0.110947	2718231
9250.34	0.111768	2719898
9260.37	0.112561	2720692
9270.21	0.11327	2721984
9280.08	0.113901	2723169
9290.99	0.114501	2724038
9300.82	0.114958	2725439
9310.9	0.115353	2726074
9321.01	0.115675	2727369
9331.12	0.115922	2728064
9340.03	0.116077	2729063
9350.06	0.116185	2730409
9360.11	0.116213	2731323
9370.11	0.116142	2732494
9380.22	0.115962	2733667
9390.33	0.115692	2734938
9400.44	0.115353	2736065
9410.54	0.114951	2737036
9420.59	0.114486	2738057
9430.7	0.113949	2739149
9440.67	0.113353	2741438
9450.3	0.112717	2743607
9460.01	0.112018	2745246
9470.76	0.111181	2747409
9480.67	0.11035	2749055
9490.84	0.109443	2750893
9500.98	0.108481	2752287
9510.62	0.107513	2753773
9520.36	0.106483	2755858
9530.08	0.105398	2757507
9540.88	0.104129	2759207
9550.44	0.102948	2759865
9560.16	0.101692	2761392
9570.95	0.100232	2763248
9580.73	0.098849	2764332
9590.79	0.0973719	2765611
9600.66	0.0958678	2767149
9610.39	0.0943346	2768263
9621.03	0.0926028	2768710
9630.98	0.0909336	2769332
9640.83	0.0892335	2770033
9650.81	0.0874668	2769768
9660.83	0.0856457	2769773
9670.93	0.0837671	2769952
9681.04	0.081841	2770374
9691.02	0.0799006	2770784
9700.98	0.0779245	2770114
9710.99	0.0759012	2770250
9721.12	0.0738173	2770087
9730.13	0.0719369	2769845
9740.27	0.0697924	2769411
9750.42	0.0676165	2769319
9760.59	0.0654113	2770189
9770.65	0.0632069	2770380
9780.7	0.0609859	2770229
9790.82	0.0587322	2770278
9800.98	0.0564591	2770159
9811.12	0.0541813	2769885
9820.1	0.0521613	2769447
9830.2	0.0498857	2768622
9840.31	0.0476111	2769052
9850.42	0.0453428	2768650
9860.53	0.0430847	2769122
9870.64	0.0408409	2769292
9880.75	0.0386153	2769235
9890.86	0.0364118	2769148
9900.59	0.034316	2769011
9910.6	0.0321879	2768326
9920.57	0.0301029	2767592
9930.67	0.0280277	2766175
9940.78	0.0259913	2765585
9950.89	0.0239997	2764593
9961.02	0.0220529	2763817
9970.03	0.0203656	2763612
9980.17	0.0185191	2763567
9990.3	0.0167278	2763949
10000.4	0.0149892	2763965
10010.6	0.0132999	2764932
10020.7	0.0116632	2766258
10030.9	0.0100936	2767463
10040.8	0.00863186	2769193
10051	0.0072508	2770241
10061.1	0.00597059	2771819
10070.1	0.0045653	2772936
10080.3	0.00358342	2774017
10090.4	0.00256221	2775723
10100.5	0.00139257	2777190
10110.7	0.000397545	2778917
10120.8	-0.00033481	2780568
10131	-0.00102537	2782896
10141.1	-0.00169583	2784592
10150.1	-0.00223095	2785043
10160.3	-0.00275533	2786420
10170.5	-0.00321164	2787184
10180.7	-0.00360355	2787829
10190.9	-0.00392857	2788420
10201	-0.00418938	2788842
10210.1	-0.00445348	2790080
10220.1	-0.00454434	2791072
10230.2	-0.00467677	2793035
10240.3	-0.00469354	2793778
10250.1	-0.00461189	2795402
10260.2	-0.00446875	2796872
10270.4	-0.00426739	2798294
10280.6	-0.00401645	2800260
10290.7	-0.00372296	2802796
10300.9	-0.00338978	2804530
10310.9	-0.00301787	2807013
10320.8	-0.0026128	2808914
10330.8	-0.00215993	2810353
10340.8	-0.00166423	2812582
10350.7	-0.00112995	2813573
10360.8	-0.000546083	2815625
10371	8.11618e-05	2817511
10381.1	0.000745011	2818847
10390.2	0.00136339	2820422
10400.3	0.00208843	2821185
10410.5	0.002843	2821726
10420.7	0.00362398	2822768
10430.9	0.0044279	2823507
10440	0.00516099	2824245
10450.2	0.00600046	2825045
10460.4	0.0068486	2826192
10470.6	0.00769956	2827324
10480.8	0.00854944	2827660
10491	0.00939466	2828490
10500.1	0.0101398	2828692
10510.2	0.0109625	2828949
10521.1	0.0118404	2828853
10530.2	0.0125569	2828195
10540.4	0.0133501	2828578
10550.6	0.0141289	2827775
10560.7	0.0148849	2827724
10570.8	0.0156277	2827522
10581	0.0163543	2827498
10590.1	0.0169837	2827076
10600.3	0.0176729	2826667
10610.5	0.0183426	2826244
10620.6	0.0189932	2826500
10630.8	0.0196258	2826595
10641	0.0202416	2826608
10651.1	0.0208323	2827480
10661.1	0.021408	2827083
10670.2	0.0219166	2827758
10680.4	0.0224761	2827392
10690.6	0.0230227	2827675
10700.8	0.023557	2827207
10711	0.0240796	2826808
10720	0.0245347	2827525
10730.2	0.0250366	2827509
10740.4	0.0255283	2827848
10750.6	0.0260102	2828279
10760.8	0.0264828	2828441
10771	0.026946	2828469
10780.1	0.02735	2827891
10790.3	0.0277957	2827666
10800.5	0.0282318	2827083
10810.7	0.0286575	2826711
10820.9	0.0290722	2826213
10831.1	0.0294747	2826734
10840.2	0.0298214	2826575
10850.4	0.0301979	2826582
10860.6	0.0305591	2826951
10870.8	0.0309038	2826648
10881	0.0312304	2826818
10890	0.0315037	2826454
10900.2	0.0317894	2826893
10910.4	0.0320494	2826918
10920.6	0.0322813	2826443
10930.8	0.0324836	2825931
10941	0.0326555	2826064
10950.1	0.0327824	2826236
10960.3	0.0328953	2826757
10970.5	0.0329752	2827452
10980.7	0.0330193	2827631
10990.9	0.0330233	2827987
11000	0.0329891	2828982
11010.2	0.0329046	2829572
11020.5	0.0327693	2829841
11030.7	0.0325831	2829984
11041	0.0323463	2830473
11050.1	0.0320937	2830576
11060.3	0.0317623	2830937
11070.6	0.0313805	2830730
11080.8	0.0309476	2830195
11091.1	0.0304631	2830815
11100.2	0.0299889	2831148
11110.4	0.0294064	2831550
11120.7	0.0287726	2831870
11130.9	0.0280881	2832515
11140	0.0274378	2833133
11150.3	0.0266604	2833307
11160.5	0.0258355	2833691
11170.8	0.0249647	2833766
11181	0.0240496	2833566
11190	0.0232061	2833626
11200.2	0.0222234	2834204
11210.9	0.021141	2834127
11221	0.0200871	2834397
11230.9	0.0190251	2834803
11240.7	0.0179372	2835300
11250.8	0.016793	2836236
11260.9	0.0156231	2837699
11270.9	0.0144425	2838279
11280.7	0.0132608	2838703
11290.8	0.0120293	2838855
11300.9	0.0107818	2838482
11311	0.0095207	2837850
11321.1	0.00824835	2837526
11330.1	0.00710972	2837308
11340.2	0.0058221	2837100
11350.3	0.00452945	2836155
11360.4	0.00323379	2835929
11370.4	0.00193707	2835330
11380.5	0.000641107	2835164
11390.7	-0.000654331	2835067
11400.8	-0.00195089	2834839
11411	-0.00324788	2835176
11420.1	-0.00439565	2835296
11430.3	-0.00567817	2835802
11440.5	-0.00695	2835992
11450.7	-0.00820969	2836773
11461	-0.00945582	2837369
11470	-0.010551	2837541
11480.3	-0.011768	2837771
11490.5	-0.0129677	2837884
11500.7	-0.0141498	2837693
11510.9	-0.0153141	2837917
11520.1	-0.0163341	2837795
11530.3	-0.0174618	2838783
11540.5	-0.0185688	2838911
11550.8	-0.0196548	2839334
11561	-0.0207196	2839502
11570.2	-0.0216483	2839326
11580.4	-0.0226728	2838914
11590.6	-0.023675	2838917
11600.8	-0.0246522	2839088
11611	-0.0256075	2838427
11620.1	-0.0264387	2838099
11630.3	-0.0273535	2837568
11640.5	-0.0282448	2837184
11650.6	-0.0291101	2836618
11660.7	-0.0299484	2835817
11670.7	-0.0307623	2835156
11680.7	-0.0315525	2835259
11690.7	-0.0323195	2834814
11700.7	-0.0330634	2833955
11710.7	-0.0337836	2832958
11720.7	-0.0344795	2832348
11730.8	-0.0351504	2831598
11740.8	-0.0357958	2830211
11750.8	-0.0364151	2829004
11760.8	-0.0370075	2828773
11770.8	-0.0375725	2829221
11780.8	-0.0381092	2829028
11790.8	-0.0386171	2829511
11800.8	-0.0390953	2829209
11810.8	-0.0395431	2829247
11820.8	-0.0399594	2829276
11830.8	-0.0403524	2829013
11840.9	-0.0407227	2829191
11850.9	-0.0410545	2828579
11860.9	-0.0413452	2828741
11870.9	-0.0415536	2827828
11881	-0.0416942	2827287
11891.1	-0.0418418	2826748
11901.1	-0.0419816	2825709
11910.1	-0.0420747	2825603
11920.2	-0.0421298	2824590
11930.3	-0.0421285	2824474
11940.4	-0.0420719	2824279
11950.6	-0.0419623	2824185
11960.7	-0.0418029	2823310
11970.9	-0.0415957	2822644
11981	-0.0413417	2822416
11990.1	-0.0410769	2821964
12000.2	-0.0407344	2820936
12010.4	-0.0403441	2820712
12020.5	-0.0399048	2819925
12030.7	-0.0394156	2819296
12040.8	-0.0388758	2818340
12051	-0.0382852	2817989
12060	-0.0377174	2817481
12070.2	-0.0370308	2816460
12080.3	-0.0362945	2815539
12090.4	-0.0355111	2815085
12100.5	-0.0346805	2814373
12110.6	-0.0338033	2814043
12120.7	-0.0328804	2814271
12130.9	-0.0319135	2813861
12141	-0.0309041	2813988
12151.1	-0.0298542	2813342
12160	-0.0288886	2813435
12170.1	-0.0277681	2813750
12180.3	-0.0266138	2813507
12190.4	-0.0254283	2813674
12200.5	-0.0242147	2813369
12210.6	-0.0229758	2814341
12220.7	-0.021715	2813586
12230.8	-0.0204355	2813937
12240.9	-0.0191405	2814362
12251	-0.0178336	2813493
12261.1	-0.0165183	2814283
12270.1	-0.015345	2814376
12280.2	-0.0140236	2814872
12290.3	-0.0127043	2813844
12300.4	-0.0113908	2813943
12310.5	-0.010087	2813076
12320.6	-0.00879663	2812810
12330.7	-0.00752357	2811789
12340.8	-0.00627109	2811117
12350.9	-0.00504254	2810367
12361.1	-0.00384057	2809212
12370.1	-0.0027985	2808731
12380.2	-0.00166063	2808007
12390.4	-0.000562806	2807058
12400.5	0.000491413	2805849
12410.7	0.00149914	2804784
12420.9	0.00245905	2803387
12431.1	0.00336822	2801723
12440.2	0.00413042	2800780
12450.4	0.00493178	2799688
12460.5	0.00566612	2798432
12470.6	0.00633377	2797266
12480.6	0.00693757	2796037
12490.6	0.0074784	2795147
12500.6	0.00795429	2794806
12510.5	0.00836228	2794274
12520.4	0.00870052	2794548
12530.2	0.00897093	2794610
12540	0.00917358	2795037
12550.9	0.00931915	2795790
12560.7	0.00937819	2796201
12570.5	0.00936878	2796513
12580.4	0.00929065	2797197
12590.2	0.00914343	2798116
12601.1	0.00889815	2798512
12610.9	0.00860313	2799393
12620.7	0.00823699	2800557
12630.5	0.00779902	2801294
12640.3	0.00728861	2802142
12650.1	0.00670526	2803276
12661.1	0.00597109	2803899
12670.9	0.00523269	2804029
12680.7	0.00442076	2804119
12690.5	0.00353565	2805120
12700.3	0.00257812	2806405
12710.1	0.00154952	2806857
12721	0.000325886	2807962
12730.8	-0.000844773	2807949
12740.7	-0.00207716	2808080
12750.5	-0.00336648	2808736
12760.3	-0.00470868	2808615
12770.2	-0.00610514	2809003
12780.2	-0.00754452	2808913
12790.1	-0.00901793	2808557
12800	-0.0105106	2808362
12811.1	-0.012194	2807982
12821.1	-0.013741	2807732
12830	-0.0151705	2807078
12840.1	-0.0168509	2806997
12850.2	-0.0186115	2806794
12860.3	-0.0204466	2806391
12870.4	-0.0223401	2805862
12880.4	-0.0242702	2805224
12890.5	-0.0262073	2805940
12900.5	-0.0281318	2805764
12910.4	-0.0300445	2805437
12920.4	-0.0319434	2805798
12930.4	-0.0338261	2805802
12940.4	-0.0356911	2806029
12950.3	-0.0375369	2805982
12960.3	-0.0393615	2806372
12970.3	-0.0411629	2807172
12980.2	-0.0429358	2807135
12990.1	-0.0446649	2807518
13001	-0.0465414	2807715
13010.8	-0.0481904	2807332
13020.5	-0.0498069	2807193
13030.3	-0.051389	2806855
13040.1	-0.0529351	2806526
13050.9	-0.0546084	2806160
13060.7	-0.0560724	2805453
13070.5	-0.0574947	2804651
13080.2	-0.0588739	2804184
13090	-0.0602085	2803369
13100.9	-0.0616377	2803024
13110.6	-0.0628749	2802292
13120.4	-0.0640648	2802153
13130.2	-0.0652071	2801778
13141	-0.0664204	2801347
13150.8	-0.0674622	2800515
13160.6	-0.0684568	2799854
13170.3	-0.0694047	2798715
13180.1	-0.0703068	2797761
13190.9	-0.0712539	2797512
13200.6	-0.0720549	2797103
13210.3	-0.0728118	2796402
13221	-0.073605	2795298
13230.6	-0.0742774	2794686
13240.3	-0.0749121	2793912
13251	-0.0755751	2793094
13260.6	-0.076135	2792776
13270.3	-0.0766621	2791776
13281	-0.0772136	2790958
13290.6	-0.0776815	2790207
13300.3	-0.0781233	2789730
13311	-0.0785841	2788396
13320.6	-0.0789733	2788067
13330.3	-0.0793401	2787135
13341	-0.0797247	2786111
13350.6	-0.0800528	2786052
13360.3	-0.0803659	2785615
13371	-0.0806979	2785908
13380.6	-0.0809836	2785701
13390.3	-0.0812578	2786253
13401	-0.0815504	2786410
13410.6	-0.0818052	2786624
13420.3	-0.0820531	2786443
13431.1	-0.0823224	2786496
13440.8	-0.0825638	2786819
13450.7	-0.0828083	2786525
13460.5	-0.0830556	2786531
13470.4	-0.0833063	2786772
13480.2	-0.0835612	2787593
13490	-0.0838202	2788029
13500.9	-0.0841128	2787676
13510.8	-0.0843807	2786784
13520.6	-0.0846529	2786484
13530.4	-0.0849298	2786119
13540.3	-0.0852113	2785753
13550.1	-0.0854972	2785463
13561	-0.0858195	2785172
13570.8	-0.0861129	2784866
13580.7	-0.0864085	2783596
13590.5	-0.0867048	2783844
13600.3	-0.0870005	2783138
13610	-0.0872938	2782434
13620.9	-0.0876161	2781652
13630.7	-0.0879014	2781771
13640.4	-0.0881806	2781481
13650.2	-0.0884519	2780321
13661	-0.0887421	2779588
13670.7	-0.0889899	2778787
13680.4	-0.0892231	2778162
13690	-0.089441	2777598
13700.7	-0.0896636	2776721
13710.3	-0.0898444	2776628
13721	-0.0900215	2775288
13730.6	-0.0901574	2775093
13740.2	-0.0902692	2774488
13750.9	-0.0903632	2773652
13760.5	-0.0904186	2773124
13770.2	-0.0904447	2772030
13780.8	-0.0904374	2771458
13790.5	-0.0903965	2770769
13800.1	-0.0903216	2769337
13810.8	-0.0901968	2768397
13820.4	-0.0900456	2767797
13830	-0.0898562	2767210
13840.7	-0.0895996	2766360
13850.3	-0.089326	2765690
13861	-0.0889732	2765202
13870.6	-0.0886109	2764932
13880.2	-0.0882052	2764386
13891	-0.0877005	2763233
13900.7	-0.0871957	2762811
13910.4	-0.0866447	2762118
13920.1	-0.0860472	2761792
13931	-0.0853264	2761806
13940.7	-0.0846267	2761159
13950.5	-0.0838797	2760109
13960.3	-0.0830852	2759472
13970.1	-0.0822427	2758929
13980.9	-0.0812498	2758406
13990.8	-0.0803061	2757490
14000.6	-0.0793153	2757620
14010.5	-0.0782733	2756210
14020.4	-0.0771857	2756023
14030.3	-0.0760539	2755889
14040.2	-0.0748777	2755590
14050.1	-0.073656	2755960
14060	-0.0723876	2754933
14071.1	-0.0709215	2754505
14081.1	-0.0695483	2754512
14091.1	-0.0681238	2753615
14100	-0.0668157	2753237
14110.1	-0.0653013	2752733
14120.1	-0.0637426	2751939
14130.2	-0.0621467	2750759
14140.2	-0.0605124	2749958
14150.3	-0.0588426	2748759
14160.3	-0.0579981	2747760
14170.4	-0.0569135	2746945
14180.4	-0.0550368	2746513
14190.5	-0.0530199	2745459
14200.5	-0.051247	2745360
14210.6	-0.0493598	2745169
14220.6	-0.0473044	2744838
14230.7	-0.0452654	2744448
14240.7	-0.0433012	2742965
14250.8	-0.041391	2742461
14260.8	-0.0394761	2741038
14270.9	-0.0375177	2739738
14280.9	-0.0355183	2737890
14291	-0.0334935	2736642
14300	-0.0316869	2736159
14310.2	-0.0296376	2734998
14320.5	-0.0275815	2734251
14330.7	-0.0255252	2732986
14341	-0.0234789	2731786
14350.1	-0.0216702	2731300
14360.4	-0.0196465	2729714
14370.7	-0.0176325	2728861
14381	-0.015628	2727734
14390.1	-0.0138594	2726541
14400.3	-0.0118876	2725174
14410.5	-0.0099357	2724258
14420.8	-0.00800625	2723781
14431	-0.00610183	2723139
14440.1	-0.00443152	2721733
14450.3	-0.00257884	2720883
14460.5	-0.000754933	2719758
14470.8	0.00103953	2718371
14481	0.00280295	2716695
14490.1	0.00434364	2714488
14500.3	0.00604546	2712440
14510.5	0.00771189	2710003
14520.7	0.00934071	2707508
14531	0.0109298	2705015
14540	0.0123076	2702624
14550.3	0.0138168	2699756
14560.5	0.0152811	2696711
14570.7	0.0166987	2693744
14580.9	0.0180674	2691496
14590	0.0192413	2688895
14600.2	0.0205118	2686273
14610.5	0.0217273	2682906
14620.7	0.0228857	2680538
14630.9	0.0239854	2677324
14640	0.0249137	2674427
14650.2	0.0258971	2671063
14660.4	0.0268143	2667786
14670.5	0.0276671	2664486
14680.6	0.0284576	2661072
14690.7	0.0291976	2657647
14700.8	0.0298247	2655057
14710.9	0.0302812	2651781
14721	0.03088	2649791
14731.1	0.0314376	2646542
14740.1	0.0318809	2643805
14750.2	0.0322454	2641279
14760.3	0.0325874	2637838
14770.4	0.032911	2635227
14780.5	0.0331775	2631692
14790.6	0.0333778	2627686
14800.7	0.0335141	2624069
14810.8	0.0335933	2619689
14820.9	0.0336254	2615576
14830.9	0.0336189	2610974
14840.9	0.0335771	2606152
14850.8	0.0334986	2601507
14860.7	0.0333811	2595878
14870.6	0.0332253	2590811
14880.5	0.0330332	2585125
14890.4	0.0328073	2579868
14900.2	0.0325491	2574603
14910.1	0.0322586	2568885
14921.1	0.0318978	2563125
14931	0.0315393	2557935
14940.9	0.0311502	2552604
14950.7	0.0307323	2547529
14960.6	0.0302878	2542333
14970.5	0.0298188	2537759
14980.4	0.0293274	2532767
14990.2	0.0288156	2528070
15000.1	0.0282853	2522882
15010	0.0277381	2518211
15021	0.0271117	2513678
15030.9	0.0265321	2508704
15040.8	0.0259369	2504618
15050.8	0.0253249	2500319
15061	0.0246927	2495824
15071.1	0.0240541	2491835
15081.1	0.0234116	2487192
15091.1	0.0227645	2483221
15101.1	0.0221135	2479456
15111	0.0214587	2475429
15120.9	0.020803	2471601
15130.7	0.0201486	2467543
15140.5	0.0194963	2463330
15150.3	0.0188481	2458924
15161	0.0181331	2454735
15170.7	0.0174938	2450202
15180.3	0.0168592	2446128
15191	0.0161594	2442101
15200.7	0.0155351	2438246
15210.3	0.014917	2434606
15221	0.0142384	2430582
15230.6	0.013636	2427866
15240.3	0.013042	2424435
15251	0.0123926	2420398
15260.6	0.011819	2417148
15270.2	0.0112566	2413462
15280.9	0.0106463	2409682
15290.5	0.0101105	2406149
15300.2	0.00958672	2401928
15311	0.00900013	2397710
15320.8	0.00850193	2393577
15330.7	0.00800309	2389086
15340.7	0.00729109	2385031
15350.7	0.00691637	2380513
15360.7	0.00653856	2375964
15370.7	0.00619375	2371336
15380.7	0.00585833	2366887
15390.7	0.00552789	2362227
15400.7	0.00521226	2358304
15410.6	0.0049137	2354138
15420.5	0.00463241	2350028
15430.5	0.00436899	2345557
15440.4	0.00412351	2340868
15450.3	0.0038982	2336539
15460.2	0.00369547	2332326
15470.2	0.00351555	2327790
15480.1	0.00335655	2323448
15490	0.00321612	2319396
15501.1	0.00307969	2314610
15511.1	0.00297454	2310133
15521.1	0.00288649	2305386
15531.1	0.0028158	2300678
15540.1	0.00276812	2296857
15550.3	0.0027323	2292119
15560.6	0.00271542	2287309
15570.9	0.00271817	2282492
15580.1	0.00273695	2278570
15590.5	0.00277603	2273536
15600.8	0.00283366	2269200
15611.1	0.00290931	2264103
15620.3	0.00299116	2259453
15630.6	0.00309909	2254865
15641	0.00322313	2249719
15650.2	0.00334637	2244861
15660.5	0.00349901	2239601
15670.8	0.0036658	2234538
15681.1	0.00384605	2229570
15690.3	0.00401702	2224792
15700.7	0.0042208	2219624
15711	0.00443601	2214522
15720.2	0.00463634	2209987
15730.5	0.00487122	2205666
15740.8	0.00511561	2201096
15750	0.00534048	2197214
15760.4	0.00560232	2192857
15770.8	0.00587235	2188103
15780.1	0.00611836	2184477
15790.5	0.00640137	2180332
15800.9	0.00669014	2175691
15810.1	0.00695069	2171245
15820.4	0.00724829	2166942
15830.8	0.00755081	2162695
15841.1	0.00785798	2158493
15850.3	0.00813473	2154467
15860.7	0.00845009	2149836
15871	0.00876956	2145265
15880.2	0.00905692	2141299
15890.5	0.00938401	2136422
15900.9	0.00971516	2131807
15910.1	0.010013	2127977
15920.4	0.0103521	2123656
15930.8	0.0106957	2119690
15941.1	0.011044	2115616
15950.3	0.0113578	2112397
15960.7	0.0117173	2108784
15971.1	0.0120851	2105246
15980.4	0.0124181	2101470
15991	0.0128007	2097608
16000.4	0.0131505	2093484
16011.2	0.0135577	2089418
16020.8	0.0139274	2085384
16030.4	0.0143045	2081494
16040	0.0146894	2077980
16050.8	0.0151324	2073746
16060.4	0.0155366	2069777
16070.1	0.0159514	2065693
16081.1	0.016434	2061386
16091	0.0168815	2057830
16101	0.0173442	2053785
16111.1	0.0178182	2050316
16121.1	0.0183039	2046929
16131.1	0.0188014	2043135
16141.1	0.019311	2039354
16151.2	0.0198334	2035345
16161.3	0.0203711	2031303
16170.2	0.0208565	2027687
16180.4	0.0214255	2023778
16190.6	0.0220073	2020096
16200.8	0.0226018	2015986
16211.1	0.0232088	2011855
16220	0.0237499	2008142
16230.3	0.0243795	2003918
16240.5	0.0250208	1999810
16250.8	0.0256762	1995350
16261	0.0263435	1991396
16270.1	0.0269359	1987562
16280.3	0.0276219	1983406
16290.6	0.028317	1979260
16300.9	0.0290205	1974519
16311.2	0.0297315	1970220
16320.2	0.0303591	1966528
16330.5	0.0310819	1962431
16340.8	0.0318097	1958338
16351.1	0.0325415	1954569
16360.1	0.0331843	1951084
16370.4	0.0339207	1947214
16380.7	0.0346581	1943437
16391	0.0353953	1939415
16401.3	0.0361311	1936045
16410.3	0.036773	1932720
16420.5	0.0375035	1929235
16430.8	0.0382298	1925626
16441.2	0.0389514	1922010
16450.2	0.0395773	1919008
16460.7	0.0402953	1915299
16471.2	0.041009	1911920
16480.7	0.041642	1908884
16490.3	0.0422711	1904933
16501.2	0.042978	1901014
16510.8	0.0435843	1897550
16520.4	0.0441785	1893585
16531.3	0.0448417	1889780
16540.9	0.0454074	1885930
16550.5	0.0459588	1882269
16560.1	0.0464954	1878305
16571	0.0470896	1874403
16580.6	0.0475924	1871196
16590.2	0.0480788	1867371
16601.1	0.048614	1863629
16610.7	0.0490639	1860024
16620.3	0.0494961	1856957
16631.3	0.0499683	1853541
16640.8	0.0503622	1850255
16650.4	0.0507378	1846995
16660	0.0510952	1843251
16671	0.051481	1839571
16680.5	0.0517966	1836182
16691.2	0.0521319	1832696
16700.6	0.0524046	1829446
16711.3	0.0526938	1825786
16720.6	0.0529282	1822520
16731.2	0.0531752	1819490
16740.5	0.0533734	1816727
16751.2	0.0535794	1813537
16760.4	0.0537418	1810728
16771	0.0539077	1807584
16780.3	0.0540359	1805254
16790.8	0.0541638	1802292
16800	0.0542595	1799478
16810.5	0.0543508	1796497
16820.9	0.0544238	1793307
16830	0.0544731	1790952
16840.4	0.0545135	1788220
16850.7	0.0545374	1785548
16861.1	0.0545453	1782794
16870.1	0.0545395	1780177
16880.4	0.0545187	1777462
16890.8	0.0544831	1774284
16901.1	0.0544332	1771185
16910.2	0.0543783	1768484
16920.5	0.0543028	1765198
16930.9	0.0542143	1762007
16941.2	0.0541133	1758517
16950.2	0.0540149	1755594
16960.6	0.0538913	1752254
16970.9	0.0537563	1748928
16981.3	0.0536101	1745374
16990.3	0.0534732	1742494
17000.7	0.0533065	1739420
17011.2	0.053128	1735951
17020.3	0.052963	1733269
17030.8	0.0527649	1730152
17041.2	0.0525565	1727140
17050.4	0.0523658	1724762
17060.9	0.0521383	1722156
17070	0.0519308	1719590
17080.5	0.0516835	1717160
17091	0.0514245	1714094
17100.3	0.0511877	1711510
17110.9	0.0509061	1708449
17120.1	0.0506501	1705757
17130.7	0.0503456	1702986
17140	0.0500685	1700719
17150.7	0.0497386	1697611
17161.3	0.0493944	1694922
17170.6	0.0490807	1692307
17180	0.0487537	1689605
17191	0.0483553	1686340
17201.2	0.0479674	1683256
17211.4	0.0475626	1680612
17220	0.0472076	1678116
17230	0.0467771	1675756
17240.1	0.0463275	1673137
17250.1	0.0458578	1670652
17260.1	0.0453667	1667821
17270.2	0.044853	1664985
17280.2	0.0443156	1662674
17290.2	0.0437532	1660139
17300.3	0.0431645	1657184
17310.3	0.042548	1654885
17320.3	0.0419026	1652413
17330.4	0.0412267	1649930
17340.5	0.0405143	1647628
17350.7	0.0397558	1645262
17361.2	0.0389477	1643042
17371.6	0.0381007	1640859
17380.3	0.0373639	1638982
17390.8	0.0364413	1636681
17401.2	0.0354754	1634719
17411.1	0.0345149	1632835
17421.2	0.0335006	1630727
17431.5	0.0324116	1628831
17440.2	0.0314582	1626888
17450.7	0.0302685	1624969
17461.1	0.0290297	1623191
17471.4	0.0277519	1621148
17480	0.0266449	1619135
17490.4	0.0252606	1616744
17500.8	0.0238224	1614286
17511.3	0.0223273	1611757
17521.7	0.0207768	1609590
17530.4	0.0194418	1607642
17540.8	0.0177882	1605680
17551.2	0.0160777	1603340
17561.6	0.0143097	1601199
17570.3	0.0128005	1599626
17580.5	0.0109602	1597740
17590.9	0.00903475	1595631
17601.3	0.00704658	1593901
17611.6	0.00501163	1591651
17620.3	0.00325539	1590156
17630.7	0.00109223	1588111
17641.1	-0.00113167	1586209
17651.5	-0.00341536	1584875
17660.2	-0.00536384	1583107
17670.5	-0.00772457	1581239
17680.6	-0.0100946	1579746
17690.6	-0.0125122	1578227
17700.8	-0.015004	1576465
17711.1	-0.017596	1575081
17721.3	-0.0202206	1573877
17731.4	-0.0228146	1572322
17741.7	-0.0255527	1570874
17750.4	-0.0277866	1569334
17760.9	-0.0309072	1567575
17771.4	-0.0345176	1565829
17780.1	-0.0377566	1564696
17790.1	-0.041336	1563011
17800.5	-0.0452004	1561176
17811	-0.0490565	1559588
17821.4	-0.0529229	1557879
17831.3	-0.0566489	1556379
17841.1	-0.0604599	1554474
17850.9	-0.064339	1552762
17861	-0.0683368	1551149
17871.5	-0.0725305	1549506
17880.3	-0.0759939	1548201
17890.8	-0.0800454	1546703
17901.2	-0.084032	1545304
17910	-0.0873426	1544102
17921.4	-0.0916004	1542521
17931.2	-0.0951904	1541108
17941.2	-0.0988164	1539542
17951.2	-0.102341	1538044
17961.2	-0.105731	1536660
17971.2	-0.108966	1535081
17981.2	-0.112038	1533370
17991.2	-0.114945	1531330
18001.2	-0.11769	1529638
18011.5	-0.120333	1527804
18021.3	-0.122673	1526141
18031.3	-0.124908	1524531
18041.7	-0.127004	1522741
18050.1	-0.128551	1521283
18060.7	-0.130274	1519006
18071.2	-0.131763	1517083
18081	-0.132955	1515480
18091.1	-0.133992	1513418
18101.4	-0.13485	1511569
18110	-0.135412	1509857
18120.4	-0.135903	1508415
18130.7	-0.136198	1506686
18141	-0.136428	1505203
18151.3	-0.136315	1503825
18160.2	-0.136059	1502469
18170.8	-0.135586	1500852
18181.5	-0.134927	1499133
18190.4	-0.134237	1497580
18201.1	-0.133272	1495986
18211.7	-0.132178	1493940
18220.2	-0.131189	1492308
18230.2	-0.129901	1490738
18241.6	-0.128242	1488620
18251.2	-0.126698	1487142
18260.7	-0.125048	1485473
18270.1	-0.123305	1483865
18280.9	-0.121154	1482299
18290.2	-0.1192	1480935
18301.2	-0.116758	1479058
18310.9	-0.114502	1477668
18320.6	-0.112134	1476351
18330.4	-0.109627	1475063
18340.2	-0.107026	1473867
18350.1	-0.104338	1472260
18361.5	-0.101098	1470679
18371.3	-0.0982352	1469121
18381.5	-0.0952091	1467494
18390.1	-0.0925643	1466525
18400.4	-0.0893804	1465160
18410.4	-0.0862165	1463939
18420.3	-0.0830049	1462708
18430	-0.0797985	1461921
18441.1	-0.0760593	1460456
18450.7	-0.0728085	1459291
18460.2	-0.0695097	1458136
18470.2	-0.0659805	1456866
18480.4	-0.0623713	1455729
18490.7	-0.0586827	1454615
18501	-0.054983	1453316
18511.4	-0.0512856	1451947
18521.7	-0.0476037	1450451
18530.3	-0.0445557	1449284
18540.6	-0.0409317	1447806
18550.9	-0.0373532	1446008
18561.3	-0.0338282	1444391
18571.6	-0.0303633	1442682
18580.2	-0.0275295	1441183
18590.5	-0.0241933	1439823
18601.1	-0.0208424	1438190
18611.6	-0.0175658	1436633
18620.5	-0.0148919	1434981
18631	-0.011751	1433078
18641.6	-0.00869446	1431311
18650.2	-0.0062472	1429808
18660.6	-0.00335521	1428136
18670.9	-0.000568194	1426361
18681	0.00208572	1424988
18691.2	0.00470339	1423660
18701.2	0.00721562	1422339
18711.4	0.00971222	1420802
18720	0.0117729	1419884
18730.4	0.0141979	1419239
18741	0.0166035	1417926
18751.6	0.0189481	1416510
18760.4	0.0208546	1415699
18771	0.0230854	1414398
18781.5	0.0252539	1413153
18790.2	0.026988	1412483
18800.6	0.029008	1411198
18811.1	0.0309913	1410174
18821.6	0.0329396	1408972
18830.5	0.0345246	1408111
18841	0.0363834	1406933
18851.6	0.0381978	1405439
18860.4	0.0396774	1404262
18871	0.041415	1402903
18881.6	0.0431118	1401517
18890.4	0.0444946	1400247
18901	0.0461161	1398869
18911.5	0.0476961	1397779
18920.3	0.0489751	1396853
18930.8	0.0504702	1395393
18941.3	0.0519239	1394030
18950.1	0.0531039	1393042
18960.6	0.0544827	1391512
18971.1	0.0558105	1390309
18981.3	0.0570739	1388995
18991.5	0.0583009	1387738
19000.1	0.0593057	1386733
19010.4	0.0604789	1385481
19020.7	0.0616107	1384244
19030.9	0.06271	1383213
19041.2	0.0637781	1382131
19051.1	0.0647791	1381028
19060.8	0.0657415	1380076
19071.1	0.066726	1379246
19081.3	0.0676841	1378642
19091.6	0.068617	1377770
19100.2	0.0693834	1376974
19110.6	0.0702872	1376185
19121.1	0.0711676	1375255
19131.5	0.0720254	1374301
19140.1	0.0727214	1373402
19150.4	0.0735272	1372415
19160.6	0.0743039	1371483
19170.6	0.0750504	1370483
19180.6	0.075778	1369365
19190.7	0.0764941	1368105
19200.9	0.0771981	1367031
19211.1	0.0778823	1365981
19221.4	0.0785464	1364429
19231.6	0.0791903	1363394
19240.1	0.0797111	1362318
19250.3	0.0803168	1361038
19260.6	0.0809011	1360081
19270.6	0.0814561	1358988
19280.7	0.0819866	1358046
19290.8	0.0824971	1357046
19300.8	0.0829843	1355913
19310.9	0.0834488	1354663
19320.9	0.0838899	1353429
19331	0.0843093	1352488
19341.2	0.0847056	1351351
19351.4	0.0850765	1350141
19361.6	0.0854213	1349022
19370	0.0856876	1348093
19380.2	0.0859815	1346998
19390.4	0.0862453	1346163
19400.4	0.0864781	1345226
19410.4	0.086683	1344319
19420.4	0.0868601	1343312
19430.6	0.0870119	1341996
19440.8	0.087136	1340945
19450.9	0.087233	1339814
19461.1	0.0873035	1338697
19471.3	0.0873479	1337766
19481.3	0.0873671	1336959
19491.4	0.0873615	1336198
19501.6	0.0873308	1335114
19510.1	0.0872858	1334302
19520.3	0.087208	1333301
19530.4	0.087105	1332365
19540.4	0.0869765	1331313
19550.3	0.0868233	1330379
19560.3	0.0866398	1329710
19570.5	0.0863808	1328848
19580.7	0.0861391	1328359
19590.9	0.0858957	1327534
19601.1	0.0856152	1326941
19611.3	0.0852929	1326485
19621.4	0.0849374	1325940
19631.5	0.0845542	1325505
19640	0.0842155	1324877
19650.2	0.0837878	1324405
19660.4	0.083336	1323651
19670.5	0.0828622	1322784
19680.5	0.0823695	1322037
19690.5	0.0818519	1321339
19700.7	0.0813027	1320710
19710.8	0.0807267	1319839
19721	0.0801234	1319127
19731.2	0.0794951	1318328
19741.4	0.0788423	1317715
19751.5	0.0781651	1316793
19760	0.0775819	1316207
19770.2	0.0768632	1315605
19780.2	0.0761273	1314795
19790.2	0.0753669	1314005
19800.2	0.0745823	1313234
19810.4	0.0737608	1312262
19820.6	0.0729148	1311349
19830.7	0.0720481	1310473
19840.8	0.071167	1309688
19850.7	0.0702692	1308770
19860.7	0.0693427	1307948
19870.9	0.0683772	1307043
19881.1	0.0673902	1306308
19891.1	0.0663932	1305397
19901.3	0.0653524	1304722
19911.2	0.0643151	1303866
19921.4	0.0632308	1303058
19931.7	0.0621078	1302362
19940.3	0.0611545	1301614
19950.6	0.0599904	1300970
19960.9	0.0588051	1300387
19970.5	0.057684	1299790
19980.6	0.0564846	1299171
19990.9	0.0552429	1298656
