time,surface_elevation,reference_data,number_of_local_cells,number_of_global_cells
0,8.82968e-06,-2,1024,1024
1.01719,6.53922e-06,-2,1024,1024
2.03441,5.29034e-06,-2,1024,1024
3.05168,4.56401e-06,-2,1024,1024
4.069,4.10918e-06,-2,1024,1024
5.08636,3.80774e-06,-2,1024,1024
6.10378,3.60128e-06,-2,1024,1024
7.12123,3.46002e-06,-2,1024,1024
8.01154,3.37765e-06,-2,1024,1024
9.02908,3.32363e-06,-2,1024,1024
10.0467,3.30933e-06,-2,1024,1024
11.0643,3.33465e-06,-2,1024,1024
12.082,3.40253e-06,-2,1024,1024
13.0997,3.52845e-06,-2,1024,1024
14.1176,3.78476e-06,-2,1024,1024
15.0082,4.29975e-06,-2,1024,1024
16.0263,5.61498e-06,-2,1024,1024
17.0444,8.98207e-06,-2,1024,1024
18.0628,1.60692e-05,-2,1024,1024
19.0816,2.66296e-05,-2,1024,1024
20.1016,4.76926e-05,-2,1024,1024
21.1234,7.59587e-05,-2,1024,1024
22.0192,0.000101658,-2,1024,1024
23.0452,0.000132752,-2,1024,1024
24.0737,0.00016883,-2,1024,1024
25.1047,0.000213337,-2,1024,1024
26.0089,0.000261782,-2,1024,1024
27.0443,0.000332032,-2,1024,1024
28.0818,0.000668891,-2,1024,1024
29.121,0.00103116,-2,1024,1024
30.0316,0.00133801,-2,1024,1024
31.0734,0.00170913,-2,1024,1024
32.1164,0.00215551,-2,1024,1024
33.0292,0.00264399,-2,1024,1024
34.0723,0.00335651,-2,1024,1024
35.1151,0.0042776,-2,1024,1024
36.0274,0.00530535,-2,1024,1024
37.07,0.0068082,-2,1024,1024
38.1123,0.00875923,-2,1024,1024
39.0243,0.0109277,-2,1024,1024
40.0663,0.0140391,-2,1024,1024
41.1083,0.0176295,-2,1024,1024
42.0199,0.0211422,-2,1024,1024
43.0616,0.0253737,-2,1024,1024
44.1032,0.0295803,-2,1024,1024
45.0145,0.0333223,-2,1024,1024
46.0558,0.0373057,-2,1024,1024
47.0971,0.0404936,-2,1024,1024
48.0081,0.0425501,-2,1024,1024
49.0492,0.0441474,-2,1024,1024
50.0901,0.0450787,-2,1024,1024
51.0008,0.0454111,-2,1024,1024
52.0416,0.0453003,-2,1024,1024
53.0822,0.0446846,-2,1024,1024
54.1226,0.0435133,-2,1024,1024
55.0329,0.0420468,-2,1024,1024
56.0731,0.0399341,-2,1024,1024
57.1132,0.0375109,-2,1024,1024
58.0231,0.0351951,-2,1024,1024
59.0628,0.0323616,-2,1024,1024
60.1024,0.0293105,-2,1024,1024
61.0119,0.0263986,-2,1024,1024
62.0511,0.0223012,-2,1024,1024
63.0901,0.0167039,-2,1024,1024
64.1288,0.0117397,-2,1024,1024
65.0374,0.00415038,-2,1024,1024
66.0756,-0.00676739,-2,1024,1024
67.1135,-0.00676739,-2,1024,1024
68.0214,-0.00676739,-2,1024,1024
69.0587,-0.00676739,-2,1024,1024
70.0955,-0.00676739,-2,1024,1024
71.0024,-0.00676739,-2,1024,1024
72.0385,-0.00676739,-2,1024,1024
73.074,-0.00676739,-2,1024,1024
74.109,-0.00676739,-2,1024,1024
75.0143,-0.00676739,-2,1024,1024
76.0483,-0.00676739,-2,1024,1024
77.0818,-0.00676739,-2,1024,1024
78.1147,-0.00676739,-2,1024,1024
79.0181,-0.00676739,-2,1024,1024
80.0501,-0.00676739,-2,1024,1024
81.0817,-0.00676739,-2,1024,1024
82.1128,-0.00676739,-2,1024,1024
83.0147,-0.00676739,-2,1024,1024
84.0452,-0.00676739,-2,1024,1024
85.0753,-0.00676739,-2,1024,1024
86.1052,-0.00676739,-2,1024,1024
87.0062,-0.00676739,-2,1024,1024
88.0358,-0.00676739,-2,1024,1024
89.0654,-0.00656539,-2,1024,1024
90.095,-0.00645284,-2,1024,1024
91.1246,-0.00624097,-2,1024,1024
92.0255,-0.00594719,-2,1024,1024
93.0551,-0.00553286,-2,1024,1024
94.0847,-0.00507708,-2,1024,1024
95.1143,-0.00464555,-2,1024,1024
96.0152,-0.00429172,-2,1024,1024
97.0448,-0.0038665,-2,1024,1024
98.0744,-0.0034393,-2,1024,1024
99.1041,-0.00302327,-2,1024,1024
100.005,-0.00267563,-2,1024,1024
101.035,-0.00230188,-2,1024,1024
102.064,-0.00195542,-2,1024,1024
103.094,-0.00163618,-2,1024,1024
104.124,-0.0013425,-2,1024,1024
105.025,-0.00110419,-2,1024,1024
106.054,-0.000849642,-2,1024,1024
107.084,-0.000610186,-2,1024,1024
108.114,-0.000382069,-2,1024,1024
109.015,-0.000189204,-2,1024,1024
110.045,-3.0597e-05,-2,1024,1024
111.075,0.000194443,-2,1024,1024
112.105,0.000423421,-2,1024,1024
113.006,0.000635762,-2,1024,1024
114.036,0.000831531,-2,1024,1024
115.067,0.00102975,-2,1024,1024
116.097,0.00120036,-2,1024,1024
117.127,0.00136103,-2,1024,1024
118.028,0.00150094,-2,1024,1024
119.059,0.00166398,-2,1024,1024
