time,surface_elevation,reference_data,number_of_local_cells,number_of_global_cells
0,9.04797e-06,-2,524288,524288
1.00028,9.04931e-06,-2,524288,524288
2.00057,9.04986e-06,-2,524288,524288
3.00087,9.05041e-06,-2,524288,524288
4.00019,9.05097e-06,-2,524288,524288
5.00051,9.05152e-06,-2,524288,524288
6.00083,9.05208e-06,-2,524288,524288
7.00017,9.05263e-06,-2,524288,524288
8.00049,9.05319e-06,-2,524288,524288
9.00082,9.05375e-06,-2,524288,524288
10.0002,9.0543e-06,-2,524288,524288
11.0005,9.05485e-06,-2,524288,524288
12.0009,9.05539e-06,-2,524288,524288
13.0003,9.05589e-06,-2,524288,524288
14.0007,9.0563e-06,-2,524288,524288
15.0002,9.05655e-06,-2,524288,524288
16.0008,9.05651e-06,-2,524288,524288
17.0005,9.056e-06,-2,524288,524288
18.0003,9.05479e-06,-2,524288,524288
19.0004,9.05259e-06,-2,524288,524288
20.0005,9.04905e-06,-2,524288,524288
21.0001,9.04377e-06,-2,524288,524288
22.0007,9.0363e-06,-2,524288,524288
23.0008,9.02618e-06,-2,524288,524288
24.0003,9.0129e-06,-2,524288,524288
25.0003,8.99595e-06,-2,524288,524288
26.0007,8.97479e-06,-2,524288,524288
27.0003,8.94896e-06,-2,524288,524288
28,8.91794e-06,-2,524288,524288
29.0004,8.88123e-06,-2,524288,524288
30.0003,8.83842e-06,-2,524288,524288
31.0003,0.000575366,-2,524288,524288
32.0004,0.00129948,-2,524288,524288
33.0009,0.00173856,-2,524288,524288
34.0002,0.0023287,-2,524288,524288
35.0005,0.00309706,-2,524288,524288
36.0006,0.00406715,-2,524288,524288
37.0007,0.00542195,-2,524288,524288
38.0007,0.00730993,-2,524288,524288
39.0006,0.00956707,-2,524288,524288
40.0004,0.0126025,-2,524288,524288
41.0001,0.0163983,-2,524288,524288
42.0007,0.0209349,-2,524288,524288
43.0002,0.0260076,-2,524288,524288
44.0005,0.0312962,-2,524288,524288
45.0007,0.036464,-2,524288,524288
46.0008,0.0408216,-2,524288,524288
47.0008,0.0443094,-2,524288,524288
48.0006,0.0468843,-2,524288,524288
49.0003,0.0482003,-2,524288,524288
50.0009,0.0485919,-2,524288,524288
51.0003,0.0482335,-2,524288,524288
52.0007,0.0473979,-2,524288,524288
53.0009,0.0461041,-2,524288,524288
54.0009,0.0444222,-2,524288,524288
55.0009,0.0424045,-2,524288,524288
56.0007,0.0401313,-2,524288,524288
57.0004,0.0376455,-2,524288,524288
58.0009,0.0353691,-2,524288,524288
59.0003,0.0338575,-2,524288,524288
60.0005,0.0316315,-2,524288,524288
61.0006,0.0289614,-2,524288,524288
62.0005,0.0260691,-2,524288,524288
63.0003,0.0230605,-2,524288,524288
64.0006,0.01726,-2,524288,524288
65.0009,-0.0119866,-2,524288,524288
66.0009,-0.0119866,-2,524288,524288
67.0007,-0.0115683,-2,524288,524288
68,0.00047409,-2,524288,524288
69.0006,0.00223727,-2,524288,524288
70.0009,0.00901699,-2,524288,524288
71.001,-0.0116727,-2,524288,524288
72.0007,-0.0116727,-2,524288,524288
73.0001,-0.011672,-2,524288,524288
74.0009,-0.00725256,-2,524288,524288
75.0002,-0.0116332,-2,524288,524288
76.0009,-0.0072457,-2,524288,524288
77,-0.0116581,-2,524288,524288
78.0002,-0.0116507,-2,524288,524288
79.0006,-0.0116598,-2,524288,524288
80.0001,-0.0100228,-2,524288,524288
81.0006,-0.0116767,-2,524288,524288
82.0001,-0.0116798,-2,524288,524288
83.0009,-0.0116352,-2,524288,524288
84.0004,-0.0116472,-2,524288,524288
85.0005,-0.0116468,-2,524288,524288
86.0004,-0.0116466,-2,524288,524288
87.0001,-0.0114881,-2,524288,524288
88.0008,-0.00953669,-2,524288,524288
89.0005,-0.00793279,-2,524288,524288
90.0003,-0.00719293,-2,524288,524288
91.001,-0.00656765,-2,524288,524288
92.0007,-0.00602654,-2,524288,524288
93.0004,-0.00563183,-2,524288,524288
94.0001,-0.00528429,-2,524288,524288
95.0008,-0.0049777,-2,524288,524288
96.0005,-0.00468113,-2,524288,524288
97.0003,-0.00429022,-2,524288,524288
98.001,-0.00390883,-2,524288,524288
99.0007,-0.00354075,-2,524288,524288
100,-0.00318111,-2,524288,524288
101,-0.00287012,-2,524288,524288
102.001,-0.00259924,-2,524288,524288
103.001,-0.00234973,-2,524288,524288
104,-0.00213469,-2,524288,524288
105.001,-0.00194831,-2,524288,524288
106.001,-0.00176463,-2,524288,524288
107,-0.00157676,-2,524288,524288
108,-0.00138911,-2,524288,524288
109.001,-0.00120418,-2,524288,524288
110,-0.00102238,-2,524288,524288
111,-0.000834913,-2,524288,524288
112.001,-0.000636094,-2,524288,524288
113.001,-0.00043445,-2,524288,524288
114.001,-0.000226328,-2,524288,524288
115.001,-1.24386e-05,-2,524288,524288
116.001,0.000210849,-2,524288,524288
117,0.000450547,-2,524288,524288
118,0.000714017,-2,524288,524288
119,0.000987719,-2,524288,524288
