time,surface_elevation,reference_data,number_of_local_cells,number_of_global_cells
0,9.19187e-05,-2,512,512
1.0789,0.000112358,-2,512,512
2.15785,0.000138636,-2,512,512
3.05702,0.000166631,-2,512,512
4.1361,0.000209793,-2,512,512
5.03538,0.000256061,-2,512,512
6.11459,0.000327874,-2,512,512
7.01398,0.000405388,-2,512,512
8.09331,0.000526558,-2,512,512
9.1727,0.000688237,-2,512,512
10.0722,0.000861891,-2,512,512
11.1518,0.00112537,-2,512,512
12.0514,0.00139863,-2,512,512
13.1311,0.00180599,-2,512,512
14.0309,0.00222732,-2,512,512
15.1108,0.00285394,-2,512,512
16.0108,0.00349722,-2,512,512
17.091,0.0044439,-2,512,512
18.1714,0.00560951,-2,512,512
19.0725,0.00676774,-2,512,512
20.155,0.0083971,-2,512,512
21.0585,0.00995263,-2,512,512
22.1446,0.0120287,-2,512,512
23.0518,0.0138838,-2,512,512
24.1429,0.0161568,-2,512,512
25.0543,0.017981,-2,512,512
26.1504,0.0199267,-2,512,512
27.0658,0.0212244,-2,512,512
28.1663,0.0222728,-2,512,512
29.085,0.0226705,-2,512,512
30.0049,0.022631,-2,512,512
31.1101,0.0220533,-2,512,512
32.0318,0.0212003,-2,512,512
33.1384,0.0198435,-2,512,512
34.0603,0.0185285,-2,512,512
35.1664,0.0168397,-2,512,512
36.0881,0.0154139,-2,512,512
37.0096,0.0140257,-2,512,512
38.1152,0.0124616,-2,512,512
39.0364,0.0112725,-2,512,512
40.1417,0.0100021,-2,512,512
41.0627,0.0090857,-2,512,512
42.1678,0.00815232,-2,512,512
43.0885,0.00750497,-2,512,512
44.0092,0.00696764,-2,512,512
45.1139,0.00645531,-2,512,512
46.0344,0.00612624,-2,512,512
47.1389,0.00583485,-2,512,512
48.0592,0.00566762,-2,512,512
49.1634,0.005546,-2,512,512
50.0835,0.00550303,-2,512,512
51.0036,0.00550693,-2,512,512
52.1075,0.00556652,-2,512,512
53.0273,0.00565623,-2,512,512
54.1309,0.00580426,-2,512,512
55.0504,0.00595546,-2,512,512
56.1538,0.00616337,-2,512,512
57.0731,0.00635436,-2,512,512
58.1761,0.00660113,-2,512,512
59.0951,0.00681949,-2,512,512
60.0139,0.00704812,-2,512,512
61.1163,0.00733463,-2,512,512
62.0348,0.00758263,-2,512,512
63.1367,0.00789093,-2,512,512
64.0547,0.0081573,-2,512,512
65.1561,0.00848958,-2,512,512
66.0462,0.008769,-2,512,512
67.1468,0.00912703,-2,512,512
68.0637,0.00943254,-2,512,512
69.1636,0.00979888,-2,512,512
70.0799,0.0100935,-2,512,512
71.179,0.0104182,-2,512,512
72.0946,0.010652,-2,512,512
73.0099,0.0108424,-2,512,512
74.1078,0.011004,-2,512,512
75.0223,0.0110773,-2,512,512
76.1193,0.0110864,-2,512,512
77.033,0.0110241,-2,512,512
78.1291,0.0108559,-2,512,512
79.042,0.0106201,-2,512,512
80.137,0.0101766,-2,512,512
81.0491,0.009622,-2,512,512
82.1431,0.00867715,-2,512,512
83.0543,0.00764535,-2,512,512
84.1475,0.00615813,-2,512,512
85.0581,0.00478075,-2,512,512
86.1506,0.00305903,-2,512,512
87.0609,0.00162441,-2,512,512
88.1532,-5.66732e-05,-2,512,512
89.0634,-0.00140856,-2,512,512
90.1557,-0.00295407,-2,512,512
91.066,-0.00415674,-2,512,512
92.1582,-0.00545731,-2,512,512
93.0685,-0.0063795,-2,512,512
94.1608,-0.00726435,-2,512,512
95.071,-0.00780194,-2,512,512
96.1634,-0.00820863,-2,512,512
97.0736,-0.0083564,-2,512,512
98.166,-0.00832913,-2,512,512
99.0763,-0.00815927,-2,512,512
100.169,-0.00781345,-2,512,512
101.079,-0.00743377,-2,512,512
102.171,-0.00690049,-2,512,512
103.082,-0.00641317,-2,512,512
104.174,-0.00580083,-2,512,512
105.084,-0.00528339,-2,512,512
106.177,-0.00467073,-2,512,512
107.087,-0.00417775,-2,512,512
108.18,-0.0036176,-2,512,512
109.09,-0.00318259,-2,512,512
110.001,-0.00277954,-2,512,512
111.093,-0.00233976,-2,512,512
112.004,-0.00200977,-2,512,512
113.096,-0.001656,-2,512,512
114.007,-0.00139438,-2,512,512
115.099,-0.00111725,-2,512,512
116.01,-0.000914408,-2,512,512
117.103,-0.000701747,-2,512,512
118.013,-0.000546316,-2,512,512
119.106,-0.000383166,-2,512,512
