time,surface_elevation,reference_data,number_of_local_cells,number_of_global_cells
0,8.82968e-06,-2,4096,4096
1.01718,6.00923e-06,-2,4096,4096
2.03438,4.81517e-06,-2,4096,4096
3.0516,4.14933e-06,-2,4096,4096
4.00528,3.74147e-06,-2,4096,4096
5.02257,3.43262e-06,-2,4096,4096
6.03988,3.20337e-06,-2,4096,4096
7.05721,3.02597e-06,-2,4096,4096
8.01098,2.89242e-06,-2,4096,4096
9.02835,2.77547e-06,-2,4096,4096
10.0458,2.67852e-06,-2,4096,4096
11.0632,2.5972e-06,-2,4096,4096
12.0171,2.53244e-06,-2,4096,4096
13.0346,2.47354e-06,-2,4096,4096
14.0522,2.4236e-06,-2,4096,4096
15.0062,2.38416e-06,-2,4096,4096
16.024,2.35236e-06,-2,4096,4096
17.0418,2.3558e-06,-2,4096,4096
18.0599,2.52901e-06,-2,4096,4096
19.0145,3.30064e-06,-2,4096,4096
20.0337,6.14417e-06,-2,4096,4096
21.0545,1.42579e-05,-2,4096,4096
22.0135,2.9169e-05,-2,4096,4096
23.0386,6.77017e-05,-2,4096,4096
24.0021,0.000129345,-2,4096,4096
25.0323,0.000190226,-2,4096,4096
26.0004,0.000238628,-2,4096,4096
27.0352,0.000297168,-2,4096,4096
28.0073,0.000513083,-2,4096,4096
29.046,0.000896671,-2,4096,4096
30.0213,0.00118556,-2,4096,4096
31.0629,0.00151082,-2,4096,4096
32.0405,0.00187976,-2,4096,4096
33.0185,0.00235569,-2,4096,4096
34.0614,0.00301831,-2,4096,4096
35.0391,0.00382528,-2,4096,4096
36.0166,0.00480224,-2,4096,4096
37.059,0.00612472,-2,4096,4096
38.0362,0.00778197,-2,4096,4096
39.0133,0.00986342,-2,4096,4096
40.0553,0.0126631,-2,4096,4096
41.0321,0.0159384,-2,4096,4096
42.0088,0.0198462,-2,4096,4096
43.0505,0.0245669,-2,4096,4096
44.027,0.0292883,-2,4096,4096
45.0033,0.0339444,-2,4096,4096
46.0447,0.0383364,-2,4096,4096
47.0209,0.0416677,-2,4096,4096
48.062,0.0443417,-2,4096,4096
49.038,0.0460654,-2,4096,4096
50.0139,0.046972,-2,4096,4096
51.0547,0.0470693,-2,4096,4096
52.0303,0.0465522,-2,4096,4096
53.0058,0.0456176,-2,4096,4096
54.0463,0.0441835,-2,4096,4096
55.0216,0.0424768,-2,4096,4096
56.0618,0.0403759,-2,4096,4096
57.0368,0.0381965,-2,4096,4096
58.0117,0.0357982,-2,4096,4096
59.0514,0.0329994,-2,4096,4096
60.026,0.0301686,-2,4096,4096
61.0004,0.0271247,-2,4096,4096
62.0396,0.0234824,-2,4096,4096
63.0136,0.0154315,-2,4096,4096
64.0524,0.00952042,-2,4096,4096
65.0259,0.00347303,-2,4096,4096
66.0641,-0.00665733,-2,4096,4096
67.0372,-0.00665733,-2,4096,4096
68.0031,-0.00665733,-2,4096,4096
69.0404,-0.00665733,-2,4096,4096
70.0125,-0.00665733,-2,4096,4096
71.0491,-0.00665733,-2,4096,4096
72.0205,-0.00665733,-2,4096,4096
73.0562,-0.00665733,-2,4096,4096
74.0267,-0.00665733,-2,4096,4096
75.0615,-0.00665733,-2,4096,4096
76.0311,-0.00665733,-2,4096,4096
77.0002,-0.00665733,-2,4096,4096
78.0334,-0.00665733,-2,4096,4096
79.0016,-0.00665733,-2,4096,4096
80.0337,-0.00665733,-2,4096,4096
81.0009,-0.00665733,-2,4096,4096
82.0321,-0.00665733,-2,4096,4096
83.0629,-0.00665733,-2,4096,4096
84.0288,-0.00665733,-2,4096,4096
85.0588,-0.00665733,-2,4096,4096
86.0242,-0.00665733,-2,4096,4096
87.0536,-0.00665733,-2,4096,4096
88.0186,-0.00665733,-2,4096,4096
89.0477,-0.00647141,-2,4096,4096
90.0125,-0.00644879,-2,4096,4096
91.0416,-0.00623805,-2,4096,4096
92.0063,-0.00584818,-2,4096,4096
93.0354,-0.00532061,-2,4096,4096
94.0002,-0.00479712,-2,4096,4096
95.0293,-0.00425807,-2,4096,4096
96.0584,-0.00376267,-2,4096,4096
97.0231,-0.00334369,-2,4096,4096
98.0522,-0.00294597,-2,4096,4096
99.017,-0.00261726,-2,4096,4096
100.046,-0.00229453,-2,4096,4096
101.011,-0.00201618,-2,4096,4096
102.04,-0.00174435,-2,4096,4096
103.005,-0.00150963,-2,4096,4096
104.034,-0.00127516,-2,4096,4096
105.063,-0.0010523,-2,4096,4096
106.028,-0.000850412,-2,4096,4096
107.057,-0.000640089,-2,4096,4096
108.022,-0.00044582,-2,4096,4096
109.051,-0.00024027,-2,4096,4096
110.016,-5.33717e-05,-2,4096,4096
111.046,0.000103603,-2,4096,4096
112.011,0.000329979,-2,4096,4096
113.04,0.000568524,-2,4096,4096
114.005,0.000748668,-2,4096,4096
115.035,0.000978012,-2,4096,4096
116,0.00114603,-2,4096,4096
117.03,0.00131839,-2,4096,4096
118.059,0.00149538,-2,4096,4096
119.025,0.00166841,-2,4096,4096
