time,surface_elevation,reference_data,number_of_local_cells,number_of_global_cells
0,9.04295e-06,-2,262144,262144
1.0002,9.04586e-06,-2,262144,262144
2.00042,9.04743e-06,-2,262144,262144
3.00064,9.04901e-06,-2,262144,262144
4.00088,9.05057e-06,-2,262144,262144
5.00112,9.05176e-06,-2,262144,262144
6.00136,9.05072e-06,-2,262144,262144
7.00161,9.04247e-06,-2,262144,262144
8.00187,9.01842e-06,-2,262144,262144
9.00212,8.96752e-06,-2,262144,262144
10.0024,8.87818e-06,-2,262144,262144
11.0027,8.73991e-06,-2,262144,262144
12.0002,8.54491e-06,-2,262144,262144
13.0005,8.28595e-06,-2,262144,262144
14.0008,7.9595e-06,-2,262144,262144
15.0013,7.56346e-06,-2,262144,262144
16.0018,7.09734e-06,-2,262144,262144
17.0024,6.56214e-06,-2,262144,262144
18.0003,5.96199e-06,-2,262144,262144
19.0013,5.29683e-06,-2,262144,262144
20.0004,4.57402e-06,-2,262144,262144
21.0011,3.79579e-06,-2,262144,262144
22.001,2.96901e-06,-2,262144,262144
23.0004,2.09896e-06,-2,262144,262144
24.0024,1.18863e-06,-2,262144,262144
25.0012,2.48847e-07,-2,262144,262144
26.0025,-7.20175e-07,-2,262144,262144
27.0002,-1.70771e-06,-2,262144,262144
28.0029,-2.71747e-06,-2,262144,262144
29.0014,0.000351422,-2,262144,262144
30.0015,0.00079801,-2,262144,262144
31.0029,0.00104377,-2,262144,262144
32.0023,0.00137288,-2,262144,262144
33.0021,0.001823,-2,262144,262144
34.0016,0.00247503,-2,262144,262144
35.0011,0.0033444,-2,262144,262144
36.0004,0.00453854,-2,262144,262144
37.0025,0.00574083,-2,262144,262144
38.0016,0.00704116,-2,262144,262144
39.0006,0.00903643,-2,262144,262144
40.0023,0.0118274,-2,262144,262144
41.0011,0.0152845,-2,262144,262144
42.0026,0.0196298,-2,262144,262144
43.0011,0.0248389,-2,262144,262144
44.0025,0.0305348,-2,262144,262144
45.0008,0.0360457,-2,262144,262144
46.0019,0.0407491,-2,262144,262144
47,0.0442539,-2,262144,262144
48.0009,0.0465465,-2,262144,262144
49.0017,0.0477616,-2,262144,262144
50.0024,0.0480978,-2,262144,262144
51.0001,0.0477431,-2,262144,262144
52.0006,0.0468477,-2,262144,262144
53.0009,0.0455312,-2,262144,262144
54.0011,0.0438851,-2,262144,262144
55.0012,0.0419728,-2,262144,262144
56.0011,0.0398401,-2,262144,262144
57.0009,0.0375158,-2,262144,262144
58.0006,0.0350132,-2,262144,262144
59.0001,0.0323343,-2,262144,262144
60.0023,0.0294571,-2,262144,262144
61.0015,0.0263668,-2,262144,262144
62.0005,0.0230039,-2,262144,262144
63.0022,0.0171985,-2,262144,262144
64.0009,0.00534787,-2,262144,262144
65.0018,0.00229235,-2,262144,262144
66.0007,-0.000603108,-2,262144,262144
67.0028,-0.00539787,-2,262144,262144
68.0012,-0.00214916,-2,262144,262144
69.0003,-0.0107753,-2,262144,262144
70.0027,-0.0115311,-2,262144,262144
71.0021,-0.0115332,-2,262144,262144
72.0012,-0.0100844,-2,262144,262144
73.0001,-0.0115018,-2,262144,262144
74.0013,-0.00877424,-2,262144,262144
75.002,-0.011545,-2,262144,262144
76.0023,-0.0115597,-2,262144,262144
77.002,-0.0115597,-2,262144,262144
78.0012,-0.0115597,-2,262144,262144
79.0027,-0.0115597,-2,262144,262144
80.0008,-0.0115597,-2,262144,262144
81.0011,-0.0115597,-2,262144,262144
82.001,-0.0115597,-2,262144,262144
83.0003,-0.0115413,-2,262144,262144
84.002,-0.0115539,-2,262144,262144
85.0004,-0.0115165,-2,262144,262144
86.0013,-0.0105874,-2,262144,262144
87.0019,-0.00970948,-2,262144,262144
88.0022,-0.00866133,-2,262144,262144
89.0024,-0.00770374,-2,262144,262144
90.0024,-0.00704296,-2,262144,262144
91.0024,-0.00647685,-2,262144,262144
92.0024,-0.00595546,-2,262144,262144
93.0024,-0.00547933,-2,262144,262144
94.0024,-0.0050767,-2,262144,262144
95.0024,-0.00470161,-2,262144,262144
96.0024,-0.00430246,-2,262144,262144
97.0024,-0.00390152,-2,262144,262144
98.0024,-0.00352942,-2,262144,262144
99.0024,-0.00316569,-2,262144,262144
100.002,-0.00283672,-2,262144,262144
101.002,-0.00255564,-2,262144,262144
102.002,-0.00231422,-2,262144,262144
103.002,-0.00210974,-2,262144,262144
104.002,-0.00191125,-2,262144,262144
105.002,-0.00172333,-2,262144,262144
106.002,-0.00155601,-2,262144,262144
107.002,-0.00139147,-2,262144,262144
108.002,-0.0012335,-2,262144,262144
109.002,-0.00109377,-2,262144,262144
110.002,-0.000912071,-2,262144,262144
111.002,-0.000653408,-2,262144,262144
112.002,-0.000377396,-2,262144,262144
113.003,-0.000127845,-2,262144,262144
114.003,0.000140835,-2,262144,262144
115.003,0.000430966,-2,262144,262144
116,0.000675969,-2,262144,262144
117,0.000857514,-2,262144,262144
118.001,0.00101169,-2,262144,262144
119.001,0.00111129,-2,262144,262144
