time,surface_elevation,reference_data,number_of_local_cells,number_of_global_cells
0,9.14554e-05,-2,2097152,2097152
1.0002,0.000109004,-2,2097152,2097152
2.00006,0.000131331,-2,2097152,2097152
3.00029,0.000159836,-2,2097152,2097152
4.00017,0.000196302,-2,2097152,2097152
5.00006,0.000243102,-2,2097152,2097152
6.0003,0.000303381,-2,2097152,2097152
7.00019,0.000381238,-2,2097152,2097152
8.00009,0.000482195,-2,2097152,2097152
9.00033,0.000613647,-2,2097152,2097152
10.0002,0.000785321,-2,2097152,2097152
11.0002,0.0010104,-2,2097152,2097152
12.0001,0.00129232,-2,2097152,2097152
13.0001,0.00162987,-2,2097152,2097152
14.0001,0.00273735,-2,2097152,2097152
15.0001,0.00397365,-2,2097152,2097152
16.0003,0.0042445,-2,2097152,2097152
17.0002,0.00475868,-2,2097152,2097152
18.0002,0.00554323,-2,2097152,2097152
19.0001,0.00659572,-2,2097152,2097152
20.0002,0.00792297,-2,2097152,2097152
21.0002,0.00952918,-2,2097152,2097152
22.0001,0.0114038,-2,2097152,2097152
23.0002,0.0135088,-2,2097152,2097152
24.0001,0.0157631,-2,2097152,2097152
25.0003,0.0180393,-2,2097152,2097152
26.0003,0.0201633,-2,2097152,2097152
27.0001,0.0219429,-2,2097152,2097152
28.0002,0.0232086,-2,2097152,2097152
29.0001,0.0238497,-2,2097152,2097152
30,0.0238395,-2,2097152,2097152
31.0001,0.02323,-2,2097152,2097152
32.0001,0.022129,-2,2097152,2097152
33.0002,0.0206712,-2,2097152,2097152
34.0002,0.018994,-2,2097152,2097152
35.0003,0.0172208,-2,2097152,2097152
36.0003,0.0154529,-2,2097152,2097152
37,0.0137676,-2,2097152,2097152
38.0001,0.0122223,-2,2097152,2097152
39.0001,0.0108403,-2,2097152,2097152
40.0002,0.00963406,-2,2097152,2097152
41.0002,0.00860458,-2,2097152,2097152
42.0003,0.00798027,-2,2097152,2097152
43,0.00798028,-2,2097152,2097152
44.0001,0.0079803,-2,2097152,2097152
45.0002,0.00798031,-2,2097152,2097152
46.0002,0.00798033,-2,2097152,2097152
47.0003,0.00798035,-2,2097152,2097152
48,0.00798036,-2,2097152,2097152
49.0001,0.00798038,-2,2097152,2097152
50.0002,0.0079804,-2,2097152,2097152
51.0003,0.00798042,-2,2097152,2097152
52,0.00798044,-2,2097152,2097152
53.0001,0.00798046,-2,2097152,2097152
54.0002,0.00798048,-2,2097152,2097152
55.0003,0.0079805,-2,2097152,2097152
56,0.00798052,-2,2097152,2097152
57.0001,0.00798053,-2,2097152,2097152
58.0002,0.00798055,-2,2097152,2097152
59.0003,0.00798057,-2,2097152,2097152
60.0001,0.00798059,-2,2097152,2097152
61.0002,0.00798061,-2,2097152,2097152
62.0003,0.00798064,-2,2097152,2097152
63,0.00798066,-2,2097152,2097152
64.0001,0.00798068,-2,2097152,2097152
65.0002,0.0079807,-2,2097152,2097152
66.0003,0.00798072,-2,2097152,2097152
67.0001,0.00798074,-2,2097152,2097152
68.0002,0.00798076,-2,2097152,2097152
69.0003,0.00798078,-2,2097152,2097152
70.0001,0.0079808,-2,2097152,2097152
71.0002,0.00798082,-2,2097152,2097152
72.0003,0.00798084,-2,2097152,2097152
73.0001,0.00798086,-2,2097152,2097152
74.0002,0.00798088,-2,2097152,2097152
75.0003,0.0079809,-2,2097152,2097152
76.0001,0.00798092,-2,2097152,2097152
77.0002,0.00798094,-2,2097152,2097152
78.0003,0.00798096,-2,2097152,2097152
79.0001,0.00798098,-2,2097152,2097152
80.0002,0.00798101,-2,2097152,2097152
81.0004,0.00798103,-2,2097152,2097152
82.0001,0.00798105,-2,2097152,2097152
83.0003,0.00798107,-2,2097152,2097152
84,0.00798109,-2,2097152,2097152
85.0002,0.00798111,-2,2097152,2097152
86.0003,0.00798113,-2,2097152,2097152
87.0001,0.00798115,-2,2097152,2097152
88.0002,0.00798117,-2,2097152,2097152
89.0003,0.00798119,-2,2097152,2097152
90.0001,0.00798121,-2,2097152,2097152
91.0003,0.00798124,-2,2097152,2097152
92,0.00798126,-2,2097152,2097152
93.0002,0.00798128,-2,2097152,2097152
94.0003,0.0079813,-2,2097152,2097152
95.0001,0.00798132,-2,2097152,2097152
96.0003,0.00798134,-2,2097152,2097152
97,0.00798136,-2,2097152,2097152
98.0002,0.00798138,-2,2097152,2097152
99.0003,0.0079814,-2,2097152,2097152
100,0.00798142,-2,2097152,2097152
101,0.00798145,-2,2097152,2097152
102,0.00798147,-2,2097152,2097152
103,0.00798149,-2,2097152,2097152
104,0.00798151,-2,2097152,2097152
105,0.00798153,-2,2097152,2097152
106,0.00798155,-2,2097152,2097152
107,0.00798157,-2,2097152,2097152
108,0.00798159,-2,2097152,2097152
109,0.00798161,-2,2097152,2097152
110,0.00798163,-2,2097152,2097152
111,0.00798166,-2,2097152,2097152
112,0.00798168,-2,2097152,2097152
113,0.0079817,-2,2097152,2097152
114,0.00798172,-2,2097152,2097152
115,0.00798174,-2,2097152,2097152
116,0.00798176,-2,2097152,2097152
117,0.00798178,-2,2097152,2097152
118,0.0079818,-2,2097152,2097152
119,0.00798182,-2,2097152,2097152
