time,surface_elevation,reference_data,number_of_local_cells,number_of_global_cells
0,9.14364e-05,-2,524288,524288
1.0002,0.000108985,-2,524288,524288
2.00041,0.000131321,-2,524288,524288
3.00064,0.00015983,-2,524288,524288
4.00087,0.000196316,-2,524288,524288
5.00111,0.000243147,-2,524288,524288
6.00136,0.00030345,-2,524288,524288
7.0002,0.000381247,-2,524288,524288
8.00045,0.000482264,-2,524288,524288
9.0007,0.000613758,-2,524288,524288
10.001,0.000785563,-2,524288,524288
11.0012,0.00101084,-2,524288,524288
12.0001,0.00129246,-2,524288,524288
13.0004,0.00163021,-2,524288,524288
14.0008,0.00217964,-2,524288,524288
15.0012,0.00290334,-2,524288,524288
16.0003,0.00346864,-2,524288,524288
17.0009,0.00421703,-2,524288,524288
18.0002,0.00516307,-2,524288,524288
19.0012,0.00633298,-2,524288,524288
20.0003,0.0077443,-2,524288,524288
21.001,0.00941505,-2,524288,524288
22.0009,0.0113373,-2,524288,524288
23.0003,0.0134767,-2,524288,524288
24.0009,0.0157596,-2,524288,524288
25.0011,0.0180559,-2,524288,524288
26.0009,0.0201945,-2,524288,524288
27.0002,0.0219852,-2,524288,524288
28.0014,0.0232619,-2,524288,524288
29,0.0239105,-2,524288,524288
30.0001,0.0239086,-2,524288,524288
31,0.023307,-2,524288,524288
32.001,0.0222122,-2,524288,524288
33.0009,0.0207611,-2,524288,524288
34.0007,0.0190902,-2,524288,524288
35.0004,0.0173229,-2,524288,524288
36,0.0155604,-2,524288,524288
37.001,0.0138765,-2,524288,524288
38.0005,0.0123295,-2,524288,524288
39.0013,0.0109444,-2,524288,524288
40.0005,0.00973825,-2,524288,524288
41.001,0.00870837,-2,524288,524288
42,0.00816418,-2,524288,524288
43.0003,0.00769679,-2,524288,524288
44.0005,0.00654667,-2,524288,524288
45.0005,0.00605278,-2,524288,524288
46.0005,0.00604497,-2,524288,524288
47.0003,0.00604853,-2,524288,524288
48.0014,0.00604945,-2,524288,524288
49.0009,0.00605134,-2,524288,524288
50.0004,0.00605637,-2,524288,524288
51.0011,0.00606664,-2,524288,524288
52.0003,0.00608454,-2,524288,524288
53.0008,0.00611263,-2,524288,524288
54.0012,0.00615341,-2,524288,524288
55,0.00620948,-2,524288,524288
56.0001,0.0062865,-2,524288,524288
57.0001,0.00670314,-2,524288,524288
58.0014,0.00689932,-2,524288,524288
59.0011,0.0070688,-2,524288,524288
60.0006,0.0073599,-2,524288,524288
61.0014,0.00767849,-2,524288,524288
62.0006,0.00782381,-2,524288,524288
63.0011,0.00813728,-2,524288,524288
64.0014,0.00848928,-2,524288,524288
65,0.00879398,-2,524288,524288
66.0004,0.00914594,-2,524288,524288
67.0002,0.00951328,-2,524288,524288
68.0014,0.00988715,-2,524288,524288
69.0003,0.0102587,-2,524288,524288
70.0003,0.0106195,-2,524288,524288
71.0012,0.0109589,-2,524288,524288
72.0001,0.0112688,-2,524288,524288
73.0014,0.0115433,-2,524288,524288
74.001,0.011776,-2,524288,524288
75,0.0119617,-2,524288,524288
76.0014,0.0120953,-2,524288,524288
77.0008,0.0121633,-2,524288,524288
78.0012,0.0121618,-2,524288,524288
79.0009,0.0120893,-2,524288,524288
80.0001,0.0119635,-2,524288,524288
81.0002,0.0118097,-2,524288,524288
82.0011,0.0116689,-2,524288,524288
83.0001,0.0115905,-2,524288,524288
84.0001,0.00911787,-2,524288,524288
85.001,0.0057083,-2,524288,524288
86.0001,0.00252784,-2,524288,524288
87.0004,-0.00127151,-2,524288,524288
88.0004,-0.00362603,-2,524288,524288
89.0002,0.000743896,-2,524288,524288
90.0014,-0.00381319,-2,524288,524288
91.0012,-0.00735999,-2,524288,524288
92.0009,-0.00952093,-2,524288,524288
93.0007,-0.0103004,-2,524288,524288
94.0004,-0.00826947,-2,524288,524288
95.0002,-0.00911007,-2,524288,524288
96.0014,-0.00639908,-2,524288,524288
97.0011,-0.00728928,-2,524288,524288
98.0009,-0.00652981,-2,524288,524288
99.0006,-0.00515617,-2,524288,524288
100,-0.00493918,-2,524288,524288
101,-0.00575001,-2,524288,524288
102.001,-0.00564247,-2,524288,524288
103.001,-0.0051315,-2,524288,524288
104.001,-0.00446998,-2,524288,524288
105.001,-0.00375239,-2,524288,524288
106,-0.00368483,-2,524288,524288
107,-0.00294902,-2,524288,524288
108.001,-0.00275809,-2,524288,524288
109.001,-0.0025374,-2,524288,524288
110.001,-0.00227084,-2,524288,524288
111,-0.00199585,-2,524288,524288
112,-0.00173824,-2,524288,524288
113.001,-0.00151029,-2,524288,524288
114.001,-0.00134071,-2,524288,524288
115.001,-0.00121173,-2,524288,524288
116.001,-0.00110772,-2,524288,524288
117.001,-0.0010068,-2,524288,524288
118.001,-0.000909134,-2,524288,524288
119,-0.000805499,-2,524288,524288
