time,surface_elevation,reference_data,number_of_local_cells,number_of_global_cells
0,9.04797e-06,-2,262144,262144
1.00128,9.04943e-06,-2,262144,262144
2.00057,9.05053e-06,-2,262144,262144
3.00187,9.05164e-06,-2,262144,262144
4.00119,9.05275e-06,-2,262144,262144
5.00052,9.05387e-06,-2,262144,262144
6.00184,9.05495e-06,-2,262144,262144
7.00117,9.05582e-06,-2,262144,262144
8.0005,9.0559e-06,-2,262144,262144
9.00183,9.05387e-06,-2,262144,262144
10.0012,9.04757e-06,-2,262144,262144
11.0005,9.03392e-06,-2,262144,262144
12.0019,9.00918e-06,-2,262144,262144
13.0013,8.9694e-06,-2,262144,262144
14.0008,8.91046e-06,-2,262144,262144
15.0003,8.82854e-06,-2,262144,262144
16.0018,8.71998e-06,-2,262144,262144
17.0015,8.58232e-06,-2,262144,262144
18.0013,8.41314e-06,-2,262144,262144
19.0015,8.21079e-06,-2,262144,262144
20.0005,7.97462e-06,-2,262144,262144
21.001,7.70355e-06,-2,262144,262144
22.0017,7.39796e-06,-2,262144,262144
23.0007,7.05893e-06,-2,262144,262144
24.0002,6.68658e-06,-2,262144,262144
25.0003,6.28196e-06,-2,262144,262144
26.0007,5.84639e-06,-2,262144,262144
27.0013,5.38139e-06,-2,262144,262144
28.002,4.88862e-06,-2,262144,262144
29.0003,0.000606217,-2,262144,262144
30.0001,0.000805874,-2,262144,262144
31.0011,0.00105186,-2,262144,262144
32.0012,0.00137996,-2,262144,262144
33.0018,0.00182764,-2,262144,262144
34.0002,0.00244791,-2,262144,262144
35.0005,0.00344055,-2,262144,262144
36.0008,0.0046546,-2,262144,262144
37.0009,0.00599067,-2,262144,262144
38.0009,0.00731849,-2,262144,262144
39.0008,0.00933534,-2,262144,262144
40.0005,0.0121188,-2,262144,262144
41.0001,0.0154725,-2,262144,262144
42.0016,0.0191152,-2,262144,262144
43.0009,0.0241651,-2,262144,262144
44,0.0297741,-2,262144,262144
45.0011,0.035361,-2,262144,262144
46,0.0402453,-2,262144,262144
47.0008,0.0441757,-2,262144,262144
48.0015,0.0469125,-2,262144,262144
49.002,0.0477824,-2,262144,262144
50.0004,0.0479937,-2,262144,262144
51.0006,0.0478192,-2,262144,262144
52.0008,0.0472219,-2,262144,262144
53.0008,0.0458169,-2,262144,262144
54.0006,0.0440188,-2,262144,262144
55.0003,0.0419545,-2,262144,262144
56.0019,0.0396662,-2,262144,262144
57.0013,0.0371821,-2,262144,262144
58.0006,0.0344885,-2,262144,262144
59.0017,0.0315724,-2,262144,262144
60.0007,0.0284225,-2,262144,262144
61.0014,0.0249739,-2,262144,262144
62,0.0211583,-2,262144,262144
63.0004,0.0150814,-2,262144,262144
64.0006,0.00812135,-2,262144,262144
65.0002,0.00357482,-2,262144,262144
66.002,-0.0116282,-2,262144,262144
67.0016,-0.0115233,-2,262144,262144
68.0006,-0.0114486,-2,262144,262144
69.0015,-0.0114196,-2,262144,262144
70,0.00622163,-2,262144,262144
71.0001,-0.0116662,-2,262144,262144
72.0018,0.00706038,-2,262144,262144
73.0012,-0.0116639,-2,262144,262144
74.0003,-0.0116639,-2,262144,262144
75.0008,-0.0116639,-2,262144,262144
76.0008,-0.0116639,-2,262144,262144
77.0003,-0.0116639,-2,262144,262144
78.0011,-0.0116639,-2,262144,262144
79.0014,-0.0116639,-2,262144,262144
80.0009,-0.011623,-2,262144,262144
81.0017,-0.0116523,-2,262144,262144
82.0018,-0.0116619,-2,262144,262144
83.0015,-0.0116309,-2,262144,262144
84.0008,-0.010633,-2,262144,262144
85.0016,-0.00963814,-2,262144,262144
86.0002,-0.00917583,-2,262144,262144
87.0004,-0.00866282,-2,262144,262144
88.0005,-0.00810541,-2,262144,262144
89.0005,-0.00745569,-2,262144,262144
90.0004,-0.00688092,-2,262144,262144
91.0003,-0.00655208,-2,262144,262144
92.0002,-0.00622487,-2,262144,262144
93.0002,-0.00578506,-2,262144,262144
94.0001,-0.00541581,-2,262144,262144
95.002,-0.00518011,-2,262144,262144
96.0019,-0.00488147,-2,262144,262144
97.0018,-0.0045406,-2,262144,262144
98.0018,-0.00421059,-2,262144,262144
99.0017,-0.00388545,-2,262144,262144
100.002,-0.0035748,-2,262144,262144
101.002,-0.00326647,-2,262144,262144
102.001,-0.00297071,-2,262144,262144
103.001,-0.00270955,-2,262144,262144
104.001,-0.0024799,-2,262144,262144
105.001,-0.00226846,-2,262144,262144
106.001,-0.00206017,-2,262144,262144
107.001,-0.00183489,-2,262144,262144
108.001,-0.00158603,-2,262144,262144
109.001,-0.0012725,-2,262144,262144
110.001,-0.000857936,-2,262144,262144
111.001,-0.000510359,-2,262144,262144
112.001,-0.000334404,-2,262144,262144
113.001,-0.000185667,-2,262144,262144
114.001,6.17793e-05,-2,262144,262144
115.001,0.000295951,-2,262144,262144
116.001,0.000542067,-2,262144,262144
117.001,0.000774099,-2,262144,262144
118.001,0.000869682,-2,262144,262144
119.001,0.00117123,-2,262144,262144
