time,surface_elevation,reference_data,number_of_local_cells,number_of_global_cells
0,8.82968e-06,-2,512,512
1.0789,9.14991e-06,-2,512,512
2.15785,9.34774e-06,-2,512,512
3.05702,9.50094e-06,-2,512,512
4.1361,9.676e-06,-2,512,512
5.03538,9.81937e-06,-2,512,512
6.11459,9.99481e-06,-2,512,512
7.01398,1.01493e-05,-2,512,512
8.09331,1.03523e-05,-2,512,512
9.1727,1.05838e-05,-2,512,512
10.0722,1.08079e-05,-2,512,512
11.1518,1.11405e-05,-2,512,512
12.0514,1.15117e-05,-2,512,512
13.1311,1.2142e-05,-2,512,512
14.0309,1.29318e-05,-2,512,512
15.1108,1.4817e-05,-2,512,512
16.0108,1.78807e-05,-2,512,512
17.091,2.40515e-05,-2,512,512
18.1714,3.37105e-05,-2,512,512
19.0725,4.55752e-05,-2,512,512
20.155,7.33667e-05,-2,512,512
21.0585,0.000111852,-2,512,512
22.1446,0.00017226,-2,512,512
23.0518,0.000239406,-2,512,512
24.1429,0.000347898,-2,512,512
25.0543,0.000460651,-2,512,512
26.1504,0.000627631,-2,512,512
27.0658,0.000800644,-2,512,512
28.1663,0.00106294,-2,512,512
29.085,0.00134183,-2,512,512
30.0049,0.00169258,-2,512,512
31.1101,0.00223653,-2,512,512
32.0318,0.0028216,-2,512,512
33.1384,0.00372843,-2,512,512
34.0603,0.00470091,-2,512,512
35.1664,0.00620086,-2,512,512
36.0881,0.00729914,-2,512,512
37.0096,0.00848526,-2,512,512
38.1152,0.0106545,-2,512,512
39.0364,0.0126026,-2,512,512
40.1417,0.0152726,-2,512,512
41.0627,0.0183577,-2,512,512
42.1678,0.0226839,-2,512,512
43.0885,0.0261623,-2,512,512
44.0092,0.0296087,-2,512,512
45.1139,0.0336462,-2,512,512
46.0344,0.0367783,-2,512,512
47.1389,0.0400087,-2,512,512
48.0592,0.0420915,-2,512,512
49.1634,0.0437995,-2,512,512
50.0835,0.0446633,-2,512,512
51.0036,0.0450876,-2,512,512
52.1075,0.0449615,-2,512,512
53.0273,0.044312,-2,512,512
54.1309,0.0429687,-2,512,512
55.0504,0.0414934,-2,512,512
56.1538,0.0393861,-2,512,512
57.0731,0.037404,-2,512,512
58.1761,0.0347687,-2,512,512
59.0951,0.0323437,-2,512,512
60.0139,0.0296648,-2,512,512
61.1163,0.02596,-2,512,512
62.0348,0.0222151,-2,512,512
63.1367,0.0139844,-2,512,512
64.0547,0.00741374,-2,512,512
65.1561,-0.00387454,-2,512,512
66.0462,-0.00749716,-2,512,512
67.1468,-0.00749716,-2,512,512
68.0637,-0.00749716,-2,512,512
69.1636,-0.00749716,-2,512,512
70.0799,-0.00749716,-2,512,512
71.179,-0.00749716,-2,512,512
72.0946,-0.00749716,-2,512,512
73.0099,-0.00749716,-2,512,512
74.1078,-0.00749716,-2,512,512
75.0223,-0.00749716,-2,512,512
76.1193,-0.00749716,-2,512,512
77.033,-0.00749716,-2,512,512
78.1291,-0.00749716,-2,512,512
79.042,-0.00749716,-2,512,512
80.137,-0.00749716,-2,512,512
81.0491,-0.00749716,-2,512,512
82.1431,-0.00749716,-2,512,512
83.0543,-0.00749716,-2,512,512
84.1475,-0.00749716,-2,512,512
85.0581,-0.00749716,-2,512,512
86.1506,-0.00749716,-2,512,512
87.0609,-0.00749716,-2,512,512
88.1532,-0.00728319,-2,512,512
89.0634,-0.00667016,-2,512,512
90.1557,-0.00621247,-2,512,512
91.066,-0.00586984,-2,512,512
92.1582,-0.00538471,-2,512,512
93.0685,-0.00495487,-2,512,512
94.1608,-0.00449833,-2,512,512
95.071,-0.00412839,-2,512,512
96.1634,-0.00366287,-2,512,512
97.0736,-0.00328067,-2,512,512
98.166,-0.00284494,-2,512,512
99.0763,-0.00250823,-2,512,512
100.169,-0.00214019,-2,512,512
101.079,-0.0018634,-2,512,512
102.171,-0.00156301,-2,512,512
103.082,-0.0013342,-2,512,512
104.174,-0.0010791,-2,512,512
105.084,-0.000878499,-2,512,512
106.177,-0.000647952,-2,512,512
107.087,-0.000461842,-2,512,512
108.18,-0.000243404,-2,512,512
109.09,-6.40958e-05,-2,512,512
110.001,0.000113661,-2,512,512
111.093,0.000325803,-2,512,512
112.004,0.000502131,-2,512,512
113.096,0.000713582,-2,512,512
114.007,0.000889792,-2,512,512
115.099,0.00110112,-2,512,512
116.01,0.00127682,-2,512,512
117.103,0.00148654,-2,512,512
118.013,0.00165966,-2,512,512
119.106,0.00186429,-2,512,512
