time,surface_elevation,reference_data,number_of_local_cells,number_of_global_cells
0,9.04671e-06,-2,1048576,1048576
1.0002,9.04744e-06,-2,1048576,1048576
2.00041,9.04784e-06,-2,1048576,1048576
3.00064,9.04823e-06,-2,1048576,1048576
4.00017,9.04862e-06,-2,1048576,1048576
5.00041,9.04901e-06,-2,1048576,1048576
6.00065,9.0494e-06,-2,1048576,1048576
7.0002,9.0498e-06,-2,1048576,1048576
8.00044,9.05019e-06,-2,1048576,1048576
9.00069,9.05058e-06,-2,1048576,1048576
10.0002,9.05098e-06,-2,1048576,1048576
11.0005,9.05137e-06,-2,1048576,1048576
12.0001,9.05176e-06,-2,1048576,1048576
13.0004,9.05216e-06,-2,1048576,1048576
14.0001,9.05255e-06,-2,1048576,1048576
15.0005,9.05294e-06,-2,1048576,1048576
16.0003,9.05333e-06,-2,1048576,1048576
17.0002,9.05371e-06,-2,1048576,1048576
18.0002,9.05406e-06,-2,1048576,1048576
19.0005,9.05438e-06,-2,1048576,1048576
20.0003,9.05465e-06,-2,1048576,1048576
21.0002,9.05482e-06,-2,1048576,1048576
22.0001,9.05485e-06,-2,1048576,1048576
23.0003,9.05468e-06,-2,1048576,1048576
24.0001,9.05425e-06,-2,1048576,1048576
25.0003,9.05346e-06,-2,1048576,1048576
26.0002,9.05221e-06,-2,1048576,1048576
27.0003,9.05038e-06,-2,1048576,1048576
28.0002,9.04785e-06,-2,1048576,1048576
29.0003,9.04446e-06,-2,1048576,1048576
30.0004,9.04007e-06,-2,1048576,1048576
31.0004,9.03452e-06,-2,1048576,1048576
32.0005,9.02761e-06,-2,1048576,1048576
33,9.0192e-06,-2,1048576,1048576
34.0002,0.00209806,-2,1048576,1048576
35.0002,0.00286257,-2,1048576,1048576
36.0001,0.00379133,-2,1048576,1048576
37,0.00499821,-2,1048576,1048576
38.0005,0.0065779,-2,1048576,1048576
39.0003,0.00868982,-2,1048576,1048576
40.0007,0.0115894,-2,1048576,1048576
41.0003,0.0151742,-2,1048576,1048576
42.0007,0.0196546,-2,1048576,1048576
43.0003,0.0249321,-2,1048576,1048576
44.0005,0.0306667,-2,1048576,1048576
45.0006,0.0362126,-2,1048576,1048576
46.0006,0.0409191,-2,1048576,1048576
47.0005,0.0444227,-2,1048576,1048576
48.0003,0.0466955,-2,1048576,1048576
49.0006,0.0478914,-2,1048576,1048576
50.0002,0.0482089,-2,1048576,1048576
51.0003,0.0478341,-2,1048576,1048576
52.0003,0.0469218,-2,1048576,1048576
53.0002,0.0455917,-2,1048576,1048576
54.0007,0.0440883,-2,1048576,1048576
55.0003,0.0440882,-2,1048576,1048576
56.0006,0.0440881,-2,1048576,1048576
57,0.0440881,-2,1048576,1048576
58,0.044088,-2,1048576,1048576
59.0006,0.0440879,-2,1048576,1048576
60.0003,0.0428115,-2,1048576,1048576
61.0006,0.0384545,-2,1048576,1048576
62.0001,0.0345239,-2,1048576,1048576
63.0001,0.0306931,-2,1048576,1048576
64,0.0267234,-2,1048576,1048576
65.0004,0.0224879,-2,1048576,1048576
66.0007,0.0179619,-2,1048576,1048576
67.0001,0.0121644,-2,1048576,1048576
68.0007,0.00771075,-2,1048576,1048576
69.0004,0.00434376,-2,1048576,1048576
70.0006,0.00152786,-2,1048576,1048576
71.0006,-0.000312834,-2,1048576,1048576
72.0005,0.00947282,-2,1048576,1048576
73.0006,0.00131966,-2,1048576,1048576
74.0006,-0.0116032,-2,1048576,1048576
75.0002,-0.0115965,-2,1048576,1048576
76.0003,-0.0115585,-2,1048576,1048576
77.0007,-0.00126881,-2,1048576,1048576
78.0006,-0.0115919,-2,1048576,1048576
79.0001,-0.0116068,-2,1048576,1048576
80.0006,-0.0116163,-2,1048576,1048576
81.0006,-0.0116082,-2,1048576,1048576
82.0002,-0.0115505,-2,1048576,1048576
83,-0.0115662,-2,1048576,1048576
84.0002,-0.0115946,-2,1048576,1048576
85.0006,-0.0116158,-2,1048576,1048576
86.0006,-0.0116297,-2,1048576,1048576
87.0003,-0.0116111,-2,1048576,1048576
88.0003,-0.011617,-2,1048576,1048576
89.0007,-0.0116134,-2,1048576,1048576
90.0001,-0.0116096,-2,1048576,1048576
91.0007,-0.0116095,-2,1048576,1048576
92.0004,-0.0116094,-2,1048576,1048576
93.0003,-0.0116094,-2,1048576,1048576
94.0002,-0.0116094,-2,1048576,1048576
95.0006,-0.0115768,-2,1048576,1048576
96,-0.00756891,-2,1048576,1048576
97,-0.00666401,-2,1048576,1048576
98.0001,-0.00588765,-2,1048576,1048576
99.0005,-0.00532019,-2,1048576,1048576
100,-0.00471968,-2,1048576,1048576
101,-0.00413278,-2,1048576,1048576
102,-0.00364336,-2,1048576,1048576
103,-0.00327194,-2,1048576,1048576
104,-0.00287498,-2,1048576,1048576
105,-0.00244696,-2,1048576,1048576
106,-0.00231285,-2,1048576,1048576
107,-0.00203232,-2,1048576,1048576
108,-0.00190197,-2,1048576,1048576
109,-0.00175382,-2,1048576,1048576
110,-0.00163827,-2,1048576,1048576
111,-0.00150122,-2,1048576,1048576
112,-0.00134506,-2,1048576,1048576
113,-0.00115579,-2,1048576,1048576
114,-0.000964857,-2,1048576,1048576
115,-0.000820311,-2,1048576,1048576
116,-0.000651539,-2,1048576,1048576
117,-0.000413641,-2,1048576,1048576
118,-6.21749e-05,-2,1048576,1048576
119,0.000493685,-2,1048576,1048576
