4.700000000000000000e+01,-3.605775369578623213e-03
1.070000000000000000e+02,-3.697088247008650796e-03
1.670000000000000000e+02,-3.775427524942642776e-03
2.270000000000000000e+02,-3.841203705633233767e-03
2.870000000000000000e+02,-2.894828439366392558e-03
3.469999999999999432e+02,-3.936714480914815795e-03
4.070000000000000000e+02,-4.967275660419545602e-03
4.670000000000000000e+02,-4.986926846413552994e-03
5.270000000000000000e+02,-5.996083907575666672e-03
5.870000000000000000e+02,-6.995163673309434671e-03
6.470000000000000000e+02,-3.984583899182325695e-03
6.470000000000000000e+02,-5.984583899135031970e-03
7.070000000000000000e+02,-5.964763235624559456e-03
7.670000000000000000e+02,-5.936121179274778115e-03
8.270000000000000000e+02,-6.899078043716144748e-03
8.870000000000000000e+02,-5.854054925748641836e-03
9.470000000000000000e+02,-5.801473659630573820e-03
1.007000000000000000e+03,-5.741756781389995012e-03
1.067000000000000000e+03,-7.675327500237472123e-03
1.127000000000000000e+03,-5.602609652214596281e-03
1.187000000000000000e+03,-6.524027663544984534e-03
1.247000000000000000e+03,-5.440006517801521113e-03
1.307000000000000000e+03,-4.350971716576168546e-03
1.366999999999999773e+03,-3.257349243540375028e-03
1.426999999999999773e+03,-3.159565520945761818e-03
1.487000000000000000e+03,-3.058047380363859702e-03
1.547000000000000000e+03,-1.953222018983069574e-03
1.547000000000000000e+03,-4.953222019139502663e-03
1.607000000000000000e+03,-3.845516969249729300e-03
1.667000000000000000e+03,-3.735360048722213833e-03
1.727000000000000000e+03,-2.623179337206238415e-03
1.787000000000000000e+03,-4.509403132942679804e-03
1.847000000000000000e+03,-4.394459909235592932e-03
1.907000000000000000e+03,-4.278778290881746216e-03
1.967000000000000000e+03,-4.162786999586387537e-03
2.027000000000000000e+03,-5.046914829108573031e-03
2.087000000000000000e+03,-3.931590608772239648e-03
2.147000000000000000e+03,-3.817243154571769992e-03
2.207000000000000000e+03,-3.704301240759377833e-03
2.267000000000000000e+03,-5.593193560798681574e-03
2.327000000000000000e+03,-2.484348689449689118e-03
2.327000000000000000e+03,1.151565131067400216e-02
2.387000000000000000e+03,-6.237819504440267337e-02
2.387000000000000000e+03,-2.378195044002495706e-03
2.387000000000000000e+03,-3.637819504410799709e-02
2.387000000000000000e+03,2.162180495588472695e-02
2.387000000000000000e+03,-3.781950440497894306e-04
2.447000000000000000e+03,-7.327516085115348687e-02
2.447000000000000000e+03,-1.927516085106617538e-02
2.447000000000000000e+03,-1.127516085125535028e-02
2.447000000000000000e+03,-3.275160850989777828e-03
2.447000000000000000e+03,-1.427516085095703602e-02
2.507000000000000000e+03,-1.175674101432377938e-03
2.507000000000000000e+03,-1.117567410165065667e-02
2.507000000000000000e+03,-3.175674101385084214e-03
2.507000000000000000e+03,-1.175674101432377938e-03
2.507000000000000000e+03,1.182432589848758653e-02
2.567000000000000000e+03,-3.408016252706147498e-02
2.567000000000000000e+03,8.919837473058578325e-03
2.567000000000000000e+03,-5.080162527065112954e-03
2.567000000000000000e+03,-8.016252695597358979e-05
2.627000000000000000e+03,-6.698905354414819158e-02
2.687000000000000455e+03,-1.902774231893999968e-03
2.747000000000000455e+03,-4.821751292183762416e-03
2.807000000000000455e+03,-3.574641100840381114e-02
2.867000000000000455e+03,-8.677179208461893722e-03
2.927000000000000455e+03,-5.614481233806145610e-03
2.987000000000000455e+03,-2.558741897701111156e-03
3.047000000000000455e+03,-4.510385445883002831e-03
3.107000000000000455e+03,-3.469835528449038975e-03
3.167000000000000455e+03,-4.437515156951121753e-03
3.227000000000000455e+03,-2.413846667877805885e-03
3.287000000000000455e+03,-4.399251685754279606e-03
3.347000000000000455e+03,-1.394151093336404301e-03
3.406999999999999545e+03,-3.398964986445207614e-03
3.466999999999999545e+03,-4.414112643189582741e-03
3.526999999999999545e+03,-3.440012483679311117e-03
3.586999999999999545e+03,-2.477082041878020391e-03
3.646999999999999545e+03,-3.525737916334037436e-03
3.706999999999999545e+03,-1.586395751473901328e-03
3.766999999999999545e+03,-3.365947018392034806e-02
3.826999999999999545e+03,-1.745374820529832505e-03
3.886999999999999545e+03,1.554778036734205671e-04
3.946999999999999545e+03,4.267625536158448085e-05
4.006999999999999545e+03,-8.418974766755127348e-05
4.066999999999999545e+03,-1.225529322255169973e-03
4.127000000000000000e+03,6.182496326800901443e-04
4.187000000000000000e+03,1.446740458959538955e-03
4.247000000000000000e+03,2.259537786358123412e-03
4.307000000000000000e+03,-9.094376244365776074e-02
4.367000000000000000e+03,-2.816356293806165922e-02
4.427000000000000000e+03,6.599734977498883381e-03
4.487000000000000000e+03,2.345731403693207540e-03
4.547000000000000000e+03,5.074027888440468814e-03
4.607000000000000000e+03,5.784227466392621864e-03
4.667000000000000000e+03,6.475934698300989112e-03
4.727000000000000000e+03,-5.685124430237920024e-02
4.787000000000000000e+03,6.802298161346698180e-03
4.847000000000000000e+03,6.436171418499725405e-03
4.907000000000000000e+03,1.004998643975341110e-02
4.967000000000000000e+03,7.643355897016590461e-03
5.027000000000000000e+03,1.021589417632640107e-02
5.087000000000000000e+03,9.767217416083440185e-03
5.147000000000000000e+03,1.029694354474486317e-02
5.207000000000000000e+03,-2.119530769050470553e-02
5.267000000000000000e+03,-2.170991469438376953e-02
5.327000000000000000e+03,1.075274601544151665e-02
5.387000000000000000e+03,8.192299830625415780e-03
5.447000000000000000e+03,1.060837409659143304e-02
5.507000000000000000e+03,1.000059813168263645e-02
5.567000000000000000e+03,1.036860326576061198e-02
5.627000000000000000e+03,7.712022867508494528e-03
5.687000000000000000e+03,-2.096950761870175484e-02
5.747000000000000000e+03,9.323649351699714316e-03
5.807000000000000000e+03,-2.140886654433415970e-02
5.867000000000000000e+03,7.832586532003915636e-03
5.927000000000000000e+03,1.004765261768625351e-02
5.987000000000000000e+03,1.023597797166075907e-02
6.047000000000000000e+03,1.139721110257596592e-02
6.107000000000000000e+03,1.053100280569196912e-02
6.167000000000000909e+03,1.163700618872098858e-02
6.227000000000000909e+03,1.171487669853377156e-02
6.287000000000000909e+03,1.176427215204967069e-02
6.347000000000000909e+03,1.378485277018626221e-02
6.407000000000000909e+03,1.277628119532892015e-02
6.467000000000000909e+03,1.373822252435275004e-02
6.527000000000000909e+03,1.367034434770175721e-02
6.587000000000000909e+03,1.357231676047376823e-02
6.647000000000000909e+03,1.244381239757785806e-02
6.707000000000000909e+03,-1.671549354205126292e-02
6.767000000000000909e+03,1.209407674195972504e-02
6.827000000000000909e+03,1.187220366227847990e-02
6.887000000000000909e+03,1.361857028496160638e-02
6.947000000000000909e+03,1.433286234669139958e-02
7.007000000000000909e+03,1.301476828621161985e-02
7.067000000000000909e+03,1.266397926474382984e-02
7.127000000000000909e+03,1.328018920003160019e-02
7.187000000000000909e+03,1.386309478630209924e-02
7.247000000000000909e+03,1.441239551377293537e-02
7.307000000000000909e+03,1.392779370689822827e-02
7.367000000000000909e+03,1.440899454019017867e-02
7.427000000000000909e+03,1.485570606519104331e-02
7.487000000000000909e+03,1.226763923159523983e-02
7.547000000000000909e+03,1.464450791854687850e-02
7.607000000000000909e+03,1.398602894869327429e-02
7.667000000000000909e+03,1.329192212097041192e-02
7.727000000000000909e+03,1.256191022457642248e-02
7.787000000000000909e+03,1.379571907455101609e-02
7.847000000000000909e+03,1.299307751696687774e-02
7.907000000000000909e+03,1.515371746791061014e-02
7.967000000000000909e+03,1.427737392577910214e-02
8.027000000000000909e+03,1.436378499965940136e-02
8.087000000000000909e+03,1.541269192330219084e-02
8.147000000000000909e+03,1.242383908038391382e-02
8.207000000000000000e+03,1.239697403161699185e-02
8.267000000000000000e+03,1.433184752113447757e-02
8.327000000000000000e+03,1.422821351252423483e-02
8.387000000000000000e+03,1.308582919909895281e-02
8.447000000000000000e+03,1.290445502991133253e-02
8.507000000000000000e+03,1.468385472117006429e-02
8.567000000000000000e+03,-4.757620471627888037e-02
8.627000000000000000e+03,-1.487595296111976495e-02
8.687000000000000000e+03,1.478438363892564666e-02
8.747000000000000000e+03,1.440458208116979222e-02
8.807000000000000000e+03,1.598442273780165124e-02
8.867000000000000000e+03,1.552368935290360241e-02
8.927000000000000000e+03,1.502216908420450636e-02
8.987000000000000000e+03,-1.552034749920494505e-02
9.047000000000000000e+03,1.589593361450170050e-02
9.107000000000000000e+03,1.527080988716988941e-02
9.167000000000000000e+03,1.560408225532228244e-02
9.227000000000000000e+03,1.489555513308005175e-02
9.287000000000000000e+03,1.414503644809883554e-02
9.347000000000000000e+03,1.535233763524956885e-02
9.407000000000000000e+03,1.551727367041166872e-02
9.467000000000000000e+03,1.563966307458031224e-02
9.527000000000000000e+03,-1.428067206597916083e-02
9.587000000000000000e+03,1.575609390965837520e-02
9.647000000000000000e+03,1.474979025988432113e-02
9.707000000000000000e+03,1.570024983902840177e-02
9.767000000000000000e+03,1.560730912888175226e-02
9.827000000000000000e+03,1.647080824432123336e-02
9.887000000000000000e+03,1.429059093925388879e-02
9.947000000000000000e+03,1.506650463079495239e-02
1.000700000000000000e+04,1.579840040494673303e-02
1.006700000000000000e+04,1.448613303273305064e-02
1.012700000000000000e+04,1.512956097258211230e-02
1.018700000000000000e+04,1.572854639653087361e-02
1.024700000000000000e+04,1.528295519256062107e-02
1.030700000000000000e+04,1.379265697050868766e-02
1.036700000000000000e+04,1.425752508339428459e-02
1.042700000000000000e+04,1.367743663467990700e-02
1.048700000000000000e+04,1.405227247869333951e-02
1.054700000000000000e+04,-1.661808275275689084e-02
1.060700000000000000e+04,1.366625934178955504e-02
1.066700000000000000e+04,1.490519095250419923e-02
1.072700000000000000e+04,1.409860806825236068e-02
1.078700000000000000e+04,1.424641047697150498e-02
1.084700000000000000e+04,1.334850177681801142e-02
1.090700000000000000e+04,1.240478939007516601e-02
1.096700000000000000e+04,1.241518456208723364e-02
1.102700000000000000e+04,1.237960237267543562e-02
1.108700000000000000e+04,1.229796174402508768e-02
1.114700000000000000e+04,1.317018544341408415e-02
1.120700000000000000e+04,1.299620009012869559e-02
1.126700000000000000e+04,1.277593616532612941e-02
1.132700000000000000e+04,1.050932801399540040e-02
1.138700000000000000e+04,1.219631384856256773e-02
1.144700000000000000e+04,1.283683576184557751e-02
1.150700000000000000e+04,1.043083972263048054e-02
1.156700000000000000e+04,-5.202172441840957617e-02
1.162700000000000000e+04,1.047909708177030552e-02
1.168700000000000000e+04,8.933261853599105962e-03
1.174700000000000000e+04,9.340731425254489295e-03
1.180700000000000000e+04,8.701471220319945132e-03
1.186700000000000000e+04,9.015450567403604509e-03
1.192700000000000000e+04,8.282642694211972412e-03
1.198700000000000000e+04,7.503024734432983678e-03
1.204700000000000000e+04,8.676577730511780828e-03
1.210700000000000000e+04,7.803286630860384321e-03
1.216700000000000000e+04,6.883140299578371923e-03
1.222700000000000000e+04,6.916131503203359898e-03
1.228700000000000000e+04,6.902256925968686119e-03
1.234700000000000000e+04,5.841517160206421977e-03
1.240700000000000000e+04,5.733916713325015735e-03
1.246700000000000000e+04,-2.542053600109284162e-02
1.252700000000000000e+04,3.737817134560827981e-02
1.258700000000000000e+04,6.130054989171185298e-03
1.264700000000000000e+04,6.835135076016740641e-03
1.270700000000000000e+04,6.493435654192580841e-03
1.276700000000000000e+04,5.104984683384827804e-03
1.282700000000000000e+04,5.669814018801844213e-03
1.288700000000000000e+04,5.187959422528365394e-03
1.294700000000000000e+04,5.659460548486094922e-03
1.300700000000000000e+04,5.084360948330868268e-03
1.306700000000000000e+04,3.462708063580066664e-03
1.312700000000000000e+04,2.794553219246154185e-03
1.318700000000000000e+04,3.079951627114496659e-03
1.324700000000000000e+04,2.318962380286393454e-03
1.330700000000000000e+04,1.511648438281554263e-03
1.336700000000000000e+04,1.658076633702876279e-03
1.342700000000000000e+04,-9.124168233802265604e-02
1.348700000000000000e+04,1.812446082112728618e-03
1.354700000000000000e+04,-1.794597028492717072e-04
1.360700000000000000e+04,-1.217317440023180097e-03
1.366700000000000000e+04,-3.010410346178105101e-04
1.372700000000000000e+04,5.694594387932738755e-04
1.378700000000000000e+04,-6.057222690287744626e-04
1.384700000000000000e+04,-8.264885877906635869e-04
1.390700000000000000e+04,-9.273813338950276375e-05
1.396700000000000000e+04,-4.043657227157382295e-04
1.402700000000000000e+04,-7.612623780914873350e-04
1.408700000000000182e+04,-1.633153292459610384e-04
1.414700000000000000e+04,-1.610408034594001947e-03
1.420700000000000182e+04,-1.102420182178320829e-03
1.426700000000000000e+04,-6.392277009581448510e-04
1.432700000000000182e+04,-1.220702769387571607e-03
1.438700000000000000e+04,-1.846713827035273425e-03
1.444700000000000182e+04,-3.517125584039604291e-03
1.450700000000000000e+04,-2.231799034234427381e-03
1.456700000000000182e+04,-3.990591459114511963e-03
1.462700000000000000e+04,-3.793356445839890512e-03
1.468700000000000182e+04,-4.639943895654141670e-03
1.474700000000000000e+04,-6.530200037559552584e-03
1.480700000000000182e+04,-4.463967436549864942e-03
1.486700000000000000e+04,-4.441085008693335112e-03
1.492700000000000182e+04,-4.461388031813839916e-03
1.498700000000000000e+04,-3.524708162785827881e-03
1.504700000000000182e+04,-2.630873443649761612e-03
1.510700000000000000e+04,-3.779708319598285016e-03
1.516700000000000182e+04,-4.971033648871525656e-03
1.522700000000000000e+04,-5.204666725603601662e-03
1.528700000000000182e+04,-5.480421281390590593e-03
1.534700000000000000e+04,-6.798107508075190708e-03
1.540700000000000182e+04,-7.157532068958971649e-03
1.546700000000000000e+04,-6.558498118010902544e-03
1.552700000000000182e+04,-9.000805306186521193e-03
1.558700000000000000e+04,-8.484249809953325894e-03
1.564700000000000182e+04,-1.000862433465954382e-02
1.570700000000000000e+04,-1.057371813340068911e-02
1.576700000000000182e+04,-1.017931703245267272e-02
1.582700000000000000e+04,-1.182520343536452856e-02
1.588700000000000182e+04,-1.151115634729649173e-02
1.684700000000000000e+04,-1.474220803174830507e-02
1.774700000000000000e+04,-1.729114262616349151e-02
1.864700000000000000e+04,-1.687390116239839699e-02
1.954700000000000000e+04,-1.834353305912372889e-02
2.044700000000000000e+04,-2.043546914455873775e-02
2.134699999999999636e+04,-2.378886975293426076e-02
2.224700000000000000e+04,-2.296946848946390674e-02
2.314700000000000000e+04,-2.249352042599639390e-02
2.404700000000000000e+04,-2.785245308632511296e-02
2.494699999999999636e+04,-2.753781447336223209e-02
2.584700000000000000e+04,-2.906611456683094730e-02
2.674700000000000000e+04,-3.100316487325471826e-02
2.764700000000000000e+04,-3.098753435051548877e-02
2.854700000000000000e+04,-3.075275931860232959e-02
2.944700000000000000e+04,-2.614796899661087082e-02
3.034700000000000000e+04,-2.515661696770621347e-02
3.124700000000000364e+04,-2.491304142176886671e-02
3.214700000000000000e+04,-1.571661311209027190e-02
3.304700000000000000e+04,-1.204326885090267751e-02
3.394700000000000000e+04,-7.554269623142317869e-03
3.484700000000000000e+04,-7.102065330855111824e-03
3.574700000000000000e+04,-3.733192238996707601e-03
3.664700000000000000e+04,-4.688173693466524128e-03
3.754700000000000000e+04,-2.398439132775820326e-03
3.844700000000000000e+04,-3.480320160633709747e-03
3.934700000000000000e+04,-2.726224890011508251e-03
4.024700000000000000e+04,-9.313246664532925934e-05
4.114700000000000000e+04,2.311411981736455346e-03
4.114700000000000000e+04,-6.885880179652303923e-04
4.120700000000000000e+04,-1.912789537072967505e-03
4.126700000000000000e+04,-1.103870888073288370e-03
4.132700000000000000e+04,-2.262222037643368822e-03
4.138700000000000000e+04,-3.338823519652578398e-02
4.144700000000000000e+04,-1.482304793171351776e-03
4.150700000000000000e+04,-5.448274514492368326e-04
4.156700000000000000e+04,-3.257620196291100001e-02
4.162700000000000000e+04,-2.576829256213386543e-03
4.168700000000000000e+04,-3.547112378328165505e-03
4.174700000000000000e+04,-1.487456463564740261e-03
4.180700000000000000e+04,-1.398268708271643845e-03
4.186700000000000000e+04,-3.279958341863675741e-03
4.192700000000000000e+04,-4.132936600399261806e-03
4.198700000000000000e+04,-2.957616704861720791e-03
4.204700000000000000e+04,-7.544138234152342193e-04
4.204700000000000000e+04,-3.754413823571667308e-03
4.210700000000000000e+04,-2.523745055896142730e-03
4.216700000000000000e+04,-3.266029396854719380e-03
4.222700000000000000e+04,-2.981687714509462239e-03
4.228700000000000000e+04,-2.671142717645125231e-03
4.234700000000000000e+04,-2.334818931558402255e-03
4.240700000000000000e+04,-1.973142669612570899e-03
4.246700000000000000e+04,-1.586542003678914625e-03
4.252700000000000000e+04,-2.175446735691366484e-03
4.258700000000000000e+04,-2.740288372933719074e-03
4.264700000000000000e+04,-1.281500092318310635e-03
4.270700000000000728e+04,-1.799516722712724004e-03
4.276700000000000000e+04,-1.294774701818823814e-03
4.282700000000000000e+04,-1.767712064520310378e-03
4.288699999999999272e+04,-2.218768398051906843e-03
4.294700000000000000e+04,3.351615176597988466e-03
4.294700000000000000e+04,-6.483848237621714361e-04
4.300700000000000000e+04,-1.057003960795555031e-03
4.306700000000000000e+04,-1.445069903184048599e-03
4.312700000000000000e+04,-8.130281889862089884e-04
4.318700000000000728e+04,-1.161325764314824482e-03
4.324700000000000000e+04,-1.490410961650923127e-03
4.330700000000000000e+04,-8.007334686226386111e-04
4.336699999999999272e+04,-9.274429794459138066e-05
4.342700000000000000e+04,-3.668957529043836985e-04
4.348700000000000000e+04,-6.236414055820205249e-04
4.354700000000000000e+04,-8.634360633550386410e-04
4.360700000000000000e+04,-8.673573302075965330e-05
4.366700000000000728e+04,-2.939976011475664563e-04
4.372700000000000000e+04,-4.856799973822489846e-04
4.378700000000000000e+04,-1.662242366819555173e-03
4.384699999999999272e+04,2.175854765027906979e-03
4.384699999999999272e+04,-8.241452351285261102e-04
4.390700000000000000e+04,-9.718501828501757700e-04
4.396700000000000000e+04,-1.058198154169076588e-04
4.402700000000000000e+04,-2.265177272420260124e-04
4.408700000000000000e+04,-1.334408478669502074e-03
4.414700000000000728e+04,-1.429957557775196619e-03
4.420700000000000000e+04,-5.136313534421788063e-04
4.426700000000000000e+04,-5.858971221641695593e-04
4.432699999999999272e+04,3.527770359141868539e-04
4.438700000000000000e+04,3.019222176590119489e-04
4.444700000000000000e+04,-7.389312577288364992e-04
4.450700000000000000e+04,-7.702538168814498931e-04
4.456700000000000000e+04,-7.925166019049356692e-04
4.462700000000000728e+04,1.938085638357733842e-04
4.468700000000000000e+04,1.882492047116102185e-04
4.474700000000000000e+04,2.190332224017765839e-03
4.474700000000000000e+04,-8.096677756839198992e-04
4.480699999999999272e+04,-1.800416065634635743e-03
4.486700000000000000e+04,-7.844699061934079509e-04
4.492700000000000000e+04,-1.762304071235121228e-03
4.498700000000000000e+04,-1.734393826154700946e-03
4.504700000000000000e+04,-1.701214901459024986e-03
4.510700000000000728e+04,-2.663243457845965168e-03
4.516700000000000000e+04,-6.462095606048023910e-02
4.522700000000000000e+04,-3.574829640911048045e-03
4.528699999999999272e+04,-3.525341468048281968e-03
4.534700000000000000e+04,-2.472969122209178749e-03
4.540700000000000000e+04,-2.418190450953261461e-03
4.546700000000000000e+04,-3.361483548815158429e-03
4.552700000000000000e+04,-2.303326719356846297e-03
4.558700000000000728e+04,-2.244198449261602946e-03
4.564700000000000000e+04,-4.184577368505415507e-03
4.570700000000000000e+04,-4.124942224279948277e-03
4.576699999999999272e+04,-3.065771852106990991e-03
4.582700000000000000e+04,-4.007545134754764149e-03
4.588700000000000000e+04,-5.950740979187685298e-03
4.594700000000000000e+04,-5.895838281048781937e-03
4.600700000000000000e+04,-5.843315891524980543e-03
4.606700000000000728e+04,-6.793652590658894042e-03
4.612700000000000000e+04,-6.747327048742590705e-03
4.618700000000000000e+04,-7.704817800458840793e-03
4.624699999999999272e+04,-9.666603212281188462e-03
4.630700000000000000e+04,-1.163316144811687991e-02
4.636700000000000000e+04,-1.160497043701980147e-02
4.642700000000000000e+04,-1.458250784708070569e-02
4.648700000000000000e+04,-1.456625104628983536e-02
4.654700000000000728e+04,-1.555667707907559816e-02
4.660700000000000000e+04,-1.555426262711989693e-02
4.666700000000000000e+04,-1.555948397935935645e-02
4.672699999999999272e+04,-1.257281700691237347e-02
4.672699999999999272e+04,-1.257281700691237347e-02
4.672699999999999272e+04,-1.257281700691237347e-02
4.672699999999999272e+04,-1.257281700691237347e-02
4.678700000000000000e+04,-3.759473712352701114e-02
4.678700000000000000e+04,-1.285947371238762571e-01
4.678700000000000000e+04,-6.594737123577942839e-03
4.678700000000000000e+04,-6.594737123577942839e-03
4.678700000000000000e+04,-8.594737123530649114e-03
4.684700000000000000e+04,-6.257192558223323431e-04
4.684700000000000000e+04,-6.257192558223323431e-04
4.684700000000000000e+04,-6.257192558223323431e-04
4.684700000000000000e+04,-6.257192558223323431e-04
4.684700000000000000e+04,3.742807439266471192e-04
4.690700000000000000e+04,9.333762184724037070e-03
4.690700000000000000e+04,8.333762184520310257e-03
4.690700000000000000e+04,9.333762184724037070e-03
4.690700000000000000e+04,9.333762184724037070e-03
4.690700000000000000e+04,1.033376218447301653e-02
4.696700000000000000e+04,-8.716766665202158038e-03
4.696700000000000000e+04,1.928323333504522452e-02
4.696700000000000000e+04,2.128323333499793080e-02
4.696700000000000000e+04,2.228323333474691026e-02
4.702700000000000728e+04,6.222220915333309676e-03
4.702700000000000728e+04,3.222222091562798596e-02
4.702700000000000728e+04,3.322222091537696542e-02
4.702700000000000728e+04,3.622222091553339851e-02
4.702700000000000728e+04,3.822222091548610479e-02
4.708700000000000000e+04,-7.849747745240165386e-03
4.708700000000000000e+04,4.915025225500357919e-02
4.708700000000000000e+04,5.115025225495628547e-02
4.708700000000000000e+04,5.315025225490899174e-02
4.708700000000000000e+04,5.515025225486169802e-02
4.714700000000000000e+04,7.006685532996925758e-02
4.714700000000000000e+04,6.506685532986011822e-02
4.714700000000000000e+04,6.706685532981282449e-02
4.714700000000000000e+04,6.806685533001655131e-02
4.714700000000000000e+04,7.106685532971823704e-02
4.720699999999999272e+04,5.397155878426929121e-02
4.720699999999999272e+04,8.097155878431294695e-02
4.720699999999999272e+04,8.297155878426565323e-02
4.726700000000000000e+04,3.286389197501193848e-02
4.732700000000000000e+04,1.007433849940753134e-01
4.738700000000000000e+04,9.760956869513393031e-02
4.744700000000000000e+04,8.846197474213113310e-02
4.750700000000000728e+04,4.130013562053136411e-02
4.756700000000000000e+04,5.312358468518141308e-02
4.762700000000000000e+04,3.593185617546623689e-02
4.768699999999999272e+04,1.972448525930303731e-02
4.774700000000000000e+04,1.150100805898546241e-02
4.780700000000000000e+04,1.026096167834111839e-02
4.786700000000000000e+04,1.500388424256016151e-02
4.792700000000000000e+04,2.672931491952112992e-02
4.798700000000000728e+04,9.436793955501343589e-03
4.804700000000000000e+04,5.112586270342944772e-02
4.810700000000000000e+04,5.879606365897416254e-02
4.816699999999999272e+04,6.144694048043675139e-02
4.822700000000000000e+04,5.807803803145361599e-02
4.828700000000000000e+04,5.268890239995016600e-02
4.834700000000000000e+04,4.627908093607402407e-02
4.840700000000000000e+04,7.848122278119262774e-03
4.846700000000000728e+04,3.039557638612677692e-02
4.852700000000000000e+04,2.192099456942742108e-02
4.858700000000000000e+04,1.342392951619331143e-02
4.864699999999999272e+04,6.903935321133758407e-03
4.870700000000000000e+04,1.360567524898215197e-03
4.876700000000000000e+04,-2.206616870353172999e-03
4.882700000000000000e+04,-1.798059359771286836e-03
4.888700000000000000e+04,-2.741419991298243986e-02
4.894700000000000728e+04,6.944523055153695168e-03
4.900700000000000000e+04,1.027767272171331570e-02
4.906700000000000000e+04,1.358481387160281884e-02
4.912699999999999272e+04,1.486551293828597409e-02
4.918700000000000000e+04,1.911933802784915315e-02
4.924700000000000000e+04,2.234585894620977342e-02
4.930700000000000000e+04,2.654464723082128330e-02
4.936700000000000000e+04,2.771527617778701824e-02
4.942700000000000728e+04,2.885732087042924832e-02
4.948700000000000000e+04,2.897035820751625579e-02
4.954700000000000000e+04,2.405396693256989238e-02
4.960699999999999272e+04,1.410772766030277126e-02
4.966700000000000000e+04,3.131222903903108090e-03
4.972700000000000000e+04,-7.875962892285315320e-03
4.978700000000000000e+04,-1.291424333066970576e-02
4.984700000000000000e+04,-1.098403002970371745e-02
4.990700000000000728e+04,-3.085732601903146133e-03
4.996700000000000000e+04,2.780241387426940491e-03
5.002700000000000000e+04,6.613486429159820545e-03
5.008699999999999272e+04,1.341359911066319910e-02
5.014700000000000000e+04,2.218017813811457017e-02
5.020700000000000000e+04,3.891282436097753816e-02
5.026700000000000000e+04,5.261114080258266767e-02
5.032700000000000000e+04,5.227473268951143837e-02
5.038700000000000728e+04,7.903207464096340118e-03
5.044700000000000000e+04,1.749617482846588246e-02
5.050700000000000000e+04,5.324675885276519693e-05
5.056699999999999272e+04,-7.425962461638846435e-03
5.062700000000000000e+04,-9.941836226062150672e-03
5.068700000000000000e+04,-1.149475556940160459e-02
5.074700000000000000e+04,-1.508509914447131450e-02
5.080700000000000000e+04,-1.271324320259736851e-02
5.086700000000000728e+04,-3.337956156155996723e-02
5.092700000000000000e+04,-1.908442558351453044e-02
5.098700000000000000e+04,1.317179585021222010e-02
5.104699999999999272e+04,2.388736362718191231e-03
5.110700000000000000e+04,-1.243396789186590468e-02
5.116700000000000000e+04,-1.829667820675240364e-02
5.122700000000000000e+04,-1.119975329675071407e-02
5.128700000000000000e+04,-3.143549271044321358e-03
5.134700000000000728e+04,-3.512841961537560564e-02
5.140700000000000000e+04,-4.815471516485558823e-02
5.146700000000000000e+04,-3.022278408434431185e-02
5.152699999999999272e+04,-3.233297183533068164e-02
5.158700000000000000e+04,-2.548562116498942487e-02
5.164700000000000000e+04,-2.168107207444336382e-02
5.170700000000000000e+04,-2.391966180402960163e-02
5.176700000000000000e+04,-1.720172479872417171e-02
5.182700000000000728e+04,4.724073014585883357e-04
5.188700000000000000e+04,2.210240569093002705e-02
5.194700000000000000e+04,3.368794442076250562e-02
5.200699999999999272e+04,2.422870041800706531e-02
5.206700000000000000e+04,9.724353504680038895e-03
5.212700000000000000e+04,2.174586427372560138e-03
5.218700000000000000e+04,2.579084871740633389e-03
5.224700000000000000e+04,8.937537486417568289e-03
5.230700000000000728e+04,1.624963590165862115e-02
5.236700000000000000e+04,-1.648492524554967531e-02
5.242700000000000000e+04,1.273355170360446209e-02
5.248699999999999272e+04,5.904767454012471717e-03
5.254700000000000000e+04,-5.971574225441145245e-03
5.260700000000000000e+04,-1.789576647934154607e-02
5.266700000000000000e+04,-2.886809935080236755e-02
5.272700000000000000e+04,-2.988885975719313137e-02
5.278700000000000728e+04,-2.495833147258963436e-02
5.284700000000000000e+04,-1.807679510784510057e-02
5.290700000000000000e+04,-1.224452809401554987e-02
5.296699999999999272e+04,-6.461804664013470756e-03
5.302700000000000000e+04,-2.728895829477551160e-03
5.308700000000000000e+04,2.953930635158030782e-03
5.314700000000000000e+04,5.586410205069114454e-03
5.320700000000000000e+04,4.168281634520099033e-03
5.326700000000000728e+04,-6.300713037035166053e-03
5.332700000000000000e+04,-4.882082846233970486e-02
5.338700000000000000e+04,-2.639231596731406171e-02
5.344699999999999272e+04,-2.301542353870900115e-02
5.350700000000000000e+04,-1.969039580080789165e-02
5.356700000000000000e+04,-2.541747401164684561e-02
5.362700000000000000e+04,-4.019689602910148096e-02
5.368700000000000000e+04,-5.002889630941353971e-02
5.374700000000000728e+04,-4.491370588448262424e-02
5.380700000000000000e+04,-3.285155234789272072e-02
5.386700000000000000e+04,-2.684265983907607733e-02
5.392699999999999272e+04,-3.188724902884132462e-02
5.398700000000000000e+04,-3.298553710283158580e-02
5.404700000000000000e+04,-2.513773775126537657e-02
5.410700000000000000e+04,-2.034406114808007260e-02
5.416700000000000000e+04,-5.360471394033083925e-02
5.422700000000000728e+04,3.080100762417714577e-03
5.428700000000000000e+04,-2.928981658897100715e-02
5.434700000000000000e+04,-3.471466197879635729e-02
5.440699999999999272e+04,-4.419462780833782745e-02
5.446700000000000000e+04,-4.772990288438450079e-02
5.452700000000000000e+04,-4.332067240511605632e-02
5.458700000000000000e+04,-4.396711795106966747e-02
5.464700000000000000e+04,-4.766941746811426128e-02
5.470700000000000728e+04,-4.442774525796266971e-02
5.476700000000000000e+04,-3.424227196774154436e-02
5.482700000000000000e+04,-3.311316457211432862e-02
5.488699999999999272e+04,-4.304058636989793740e-02
5.494700000000000000e+04,-4.002469697024935158e-02
5.500700000000000000e+04,-2.206565227879764279e-02
5.506700000000000000e+04,-4.163604491168371169e-03
5.512700000000000000e+04,-3.331870207694009878e-02
5.518700000000000728e+04,-1.353108977946249070e-02
5.524700000000000000e+04,-1.980090859478877974e-02
5.530700000000000000e+04,-1.812829577011143556e-02
5.536699999999999272e+04,-2.051338478804609622e-02
5.542700000000000000e+04,-2.195630536334647331e-02
5.548700000000000000e+04,-1.745718343272528728e-02
5.554700000000000000e+04,-1.601614114088079077e-02
5.560700000000000000e+04,-2.063329684051495860e-02
5.566700000000000728e+04,-2.230876507837820100e-02
5.572700000000000000e+04,-1.704265659009251976e-02
5.578700000000000000e+04,-1.183507828818619600e-02
5.584699999999999272e+04,-1.868613326269041863e-02
5.590700000000000000e+04,-1.859592076652916148e-02
5.596700000000000000e+04,-6.564536211499216734e-03
5.602700000000000000e+04,4.407928835917118704e-03
5.608700000000000000e+04,-2.678613336684065871e-03
5.614700000000000728e+04,-1.482424657888259389e-02
5.620700000000000000e+04,-1.070290508773723559e-01
5.626700000000000000e+04,-4.293102346309751738e-03
5.632699999999999272e+04,-1.616473222838976653e-03
5.638700000000000000e+04,-1.599923186677187914e-02
5.644700000000000000e+04,-3.044144274417703855e-02
5.650700000000000000e+04,-3.094316643546335399e-02
5.656700000000000000e+04,-2.750445962738012895e-02
5.662700000000000728e+04,-3.112537510287438636e-02
5.668700000000000000e+04,-3.480596174404126941e-02
5.674700000000000000e+04,-2.954626453038144973e-02
5.680699999999999272e+04,-2.534632452670848579e-02
5.686700000000000000e+04,-2.320617888972265064e-02
5.692700000000000000e+04,-1.912586085654766066e-02
5.698700000000000000e+04,-1.010539975231949938e-02
5.704700000000000000e+04,-3.214482097837390029e-02
5.710700000000000728e+04,-2.244146020075277193e-03
5.716700000000000000e+04,-1.040339243081689347e-02
5.722700000000000000e+04,-1.462257384991971776e-02
5.728699999999999272e+04,-1.590169998507917626e-02
5.734700000000000000e+04,-1.424077661977207754e-02
5.740700000000000000e+04,-1.463980560902200523e-02
5.746700000000000000e+04,-1.709878488463800750e-02
5.752700000000000000e+04,-1.861770844834609306e-02
5.758700000000000728e+04,-2.019656637367006624e-02
5.764700000000000000e+04,-1.683534481435344787e-02
5.770700000000000000e+04,-2.534025992190436227e-03
5.776699999999999272e+04,1.270741179450851632e-02
5.782700000000000000e+04,1.288899416840649792e-02
5.788700000000000000e+04,7.010750671270216117e-03
5.794700000000000000e+04,1.207271476960158907e-02
5.800700000000000000e+04,-1.492507615148497280e-02
5.806700000000000728e+04,-2.198258079852166702e-02
5.812700000000000000e+04,6.900246037730539683e-03
5.818700000000000000e+04,1.072345348120506969e-02
5.824700000000000000e+04,1.048709455608332064e-02
5.830700000000000000e+04,8.191226188500877470e-03
5.836700000000000000e+04,1.583590920972710592e-02
5.842700000000000000e+04,1.942120834155502962e-02
5.848700000000000000e+04,1.694719220131446491e-02
5.854700000000000728e+04,1.641393328827689402e-02
5.860700000000000000e+04,1.382150798553993809e-02
5.866700000000000000e+04,8.169996555352554424e-03
5.872700000000000000e+04,7.459483127604471520e-03
5.878700000000000000e+04,1.069005570207082201e-02
5.884700000000000000e+04,2.861806135115330108e-03
5.890700000000000000e+04,-1.102516985974943964e-02
5.896700000000000000e+04,-2.297077272442038520e-02
5.902700000000000728e+04,-2.997489905646943953e-02
5.908700000000000000e+04,-2.403744161983922822e-02
5.914700000000000000e+04,-1.015828935442186776e-02
5.920700000000000000e+04,-3.033732737503669341e-02
5.926700000000000000e+04,9.425563013337523444e-03
5.932700000000000000e+04,1.613050430842122296e-02
5.938700000000000000e+04,1.177762280258320970e-02
5.944700000000000000e+04,2.367048583437281195e-03
5.950700000000000728e+04,8.989155085146194324e-04
5.956700000000000000e+04,-3.062663878745297552e-02
5.962700000000000000e+04,-5.209472915339574683e-03
5.968700000000000000e+04,-1.849441727699741023e-03
5.974700000000000000e+04,-1.546396341836953070e-03
5.980700000000000000e+04,-1.530018414132428006e-02
5.986700000000000000e+04,-2.411064878333490924e-02
5.992700000000000000e+04,-1.997763022336584982e-02
5.998699999999999272e+04,-1.390096470959178987e-02
6.004700000000000000e+04,-1.588048480243742233e-02
6.010700000000000000e+04,-2.291601938713938580e-02
6.016700000000000000e+04,-2.400739368113136152e-02
6.022700000000000000e+04,-1.715442924523813417e-02
6.028700000000000000e+04,-4.356944000846851850e-03
6.034700000000000000e+04,6.385247766047541518e-03
6.040700000000000000e+04,7.072335381508310093e-03
6.046699999999999272e+04,-2.954882215817633551e-04
6.052700000000000000e+04,-3.718026514434313867e-03
6.058700000000000000e+04,1.380492060388860409e-02
6.064700000000000000e+04,3.027355680524124182e-02
6.070700000000000000e+04,2.468808931143939844e-02
6.076700000000000000e+04,1.404872887997044018e-02
6.082700000000000000e+04,1.635568979463641881e-02
6.088700000000000000e+04,2.360918984550153255e-02
6.094699999999999272e+04,1.980945031755254604e-02
6.100700000000000000e+04,9.956695976143237203e-03
6.106700000000000000e+04,7.051155048884538701e-03
6.112700000000000000e+04,1.009305921252234839e-02
6.118700000000000000e+04,1.308264357476218720e-02
6.124700000000000728e+04,1.702014666489048977e-02
6.130700000000000000e+04,1.990581040809047408e-02
6.136700000000000000e+04,2.473988011570327217e-02
6.142699999999999272e+04,2.452260446443688124e-02
6.148700000000000000e+04,3.025423548615435720e-02
6.154700000000000000e+04,3.793502854341568309e-02
6.160700000000000000e+04,3.256524231301227701e-02
6.166700000000000000e+04,1.714513877595891245e-02
6.172700000000000728e+04,1.767498318713478511e-02
6.178700000000000000e+04,2.915504406973923324e-02
6.184700000000000000e+04,2.658559319024789147e-02
6.190699999999999272e+04,1.196690553888402064e-02
6.196700000000000000e+04,1.299259316056122771e-03
6.202700000000000000e+04,5.582935908478248166e-03
6.208700000000000000e+04,8.818219873774069129e-03
6.214700000000000000e+04,2.005398918754508486e-03
6.220700000000000728e+04,-4.855236122239148244e-03
6.226700000000000000e+04,1.236608697581687011e-03
6.232700000000000000e+04,3.281230420270730974e-03
6.238699999999999272e+04,7.278929147560120327e-03
6.244700000000000000e+04,1.623000803783725132e-02
6.250700000000000000e+04,2.013477327955115470e-02
6.256700000000000000e+04,1.199353406263981014e-02
6.262700000000000000e+04,1.280660256725241197e-02
6.268700000000000728e+04,1.557429394142673118e-02
6.274700000000000000e+04,1.029692627389522386e-02
6.274700000000000000e+04,1.029692627389522386e-02
6.280700000000000000e+04,-2.102517942557824426e-02
6.280700000000000000e+04,-2.102517942557824426e-02
6.286699999999999272e+04,1.760830075772901182e-02
6.286699999999999272e+04,1.760830075772901182e-02
6.292700000000000000e+04,1.519769361266298802e-02
6.292700000000000000e+04,1.519769361266298802e-02
6.298700000000000000e+04,-2.625667121719743591e-02
6.298700000000000000e+04,-2.625667121719743591e-02
6.304700000000000000e+04,7.245538748065882828e-03
6.304700000000000000e+04,7.245538748065882828e-03
6.310700000000000000e+04,1.470465879674520693e-02
6.310700000000000000e+04,1.470465879674520693e-02
6.316700000000000728e+04,1.121027004046482034e-03
6.316700000000000728e+04,1.121027004046482034e-03
6.322700000000000000e+04,-7.505015789774915902e-03
6.322700000000000000e+04,-7.505015789774915902e-03
6.328700000000000000e+04,-2.173126003526704153e-03
6.328700000000000000e+04,-2.173126003526704153e-03
6.334699999999999272e+04,-8.829573412185709458e-04
6.334699999999999272e+04,-8.829573412185709458e-04
6.340700000000000000e+04,-6.341608095681294799e-04
6.340700000000000000e+04,-6.341608095681294799e-04
6.346700000000000000e+04,-8.426384751601290191e-03
6.346700000000000000e+04,-8.426384751601290191e-03
6.352700000000000000e+04,-1.325927485686406726e-02
6.352700000000000000e+04,-1.325927485686406726e-02
6.358700000000000000e+04,-1.013247420405605226e-02
6.358700000000000000e+04,-1.013247420405605226e-02
6.364700000000000728e+04,-9.045623267411428969e-03
6.364700000000000728e+04,-9.045623267411428969e-03
6.370700000000000000e+04,-4.998359953333419980e-03
6.370700000000000000e+04,-4.998359953333419980e-03
6.376700000000000000e+04,4.009680379567726050e-03
6.376700000000000000e+04,4.009680379567726050e-03
6.382699999999999272e+04,-3.021135105882422067e-03
6.382699999999999272e+04,-3.021135105882422067e-03
6.388700000000000000e+04,-8.090436750990193104e-03
6.388700000000000000e+04,-8.090436750990193104e-03
6.394700000000000000e+04,-1.019785242624493549e-02
6.394700000000000000e+04,-1.019785242624493549e-02
6.400700000000000000e+04,-2.334300755546792061e-02
6.400700000000000000e+04,-2.334300755546792061e-02
6.406700000000000000e+04,-2.652552514337003231e-02
6.406700000000000000e+04,-2.652552514337003231e-02
6.412700000000000728e+04,-1.474502580140324426e-02
6.412700000000000728e+04,-1.474502580140324426e-02
6.418700000000000000e+04,-6.001127776016801363e-03
6.418700000000000000e+04,-6.001127776016801363e-03
6.424700000000000000e+04,7.706553032676310977e-03
6.424700000000000000e+04,7.706553032676310977e-03
6.430699999999999272e+04,1.437840303287885035e-02
6.430699999999999272e+04,1.437840303287885035e-02
6.436700000000000000e+04,1.101481092609901680e-02
6.436700000000000000e+04,1.101481092609901680e-02
6.442700000000000000e+04,1.161616767058148980e-02
6.442700000000000000e+04,1.161616767058148980e-02
6.448700000000000000e+04,1.718286646337219281e-02
6.448700000000000000e+04,1.718286646337219281e-02
6.454700000000000000e+04,2.071530270359289716e-02
6.454700000000000000e+04,2.071530270359289716e-02
6.460700000000000728e+04,2.021387397371654515e-02
6.460700000000000728e+04,2.021387397371654515e-02
6.466700000000000000e+04,9.678980004537152126e-03
6.466700000000000000e+04,9.678980004537152126e-03
6.472700000000000000e+04,1.011102265465524397e-02
6.472700000000000000e+04,1.011102265465524397e-02
6.478699999999999272e+04,7.510405877383163897e-03
6.478699999999999272e+04,7.510405877383163897e-03
6.484700000000000000e+04,-4.122464303236483829e-03
6.484700000000000000e+04,-4.122464303236483829e-03
6.490700000000000000e+04,-8.787179823684709845e-03
6.490700000000000000e+04,-8.787179823684709845e-03
6.496700000000000000e+04,-1.548333060964068864e-02
6.496700000000000000e+04,-1.548333060964068864e-02
6.502700000000000000e+04,-2.021050460007245420e-02
6.502700000000000000e+04,-2.021050460007245420e-02
6.508700000000000728e+04,-2.096828777985138004e-02
6.508700000000000728e+04,-2.096828777985138004e-02
6.514700000000000000e+04,-2.475626420664411853e-02
6.514700000000000000e+04,-2.475626420664411853e-02
6.520700000000000000e+04,-1.757401604118058458e-02
6.520700000000000000e+04,-1.757401604118058458e-02
6.526699999999999272e+04,-1.342112357497171615e-02
6.526699999999999272e+04,-1.342112357497171615e-02
6.532700000000000000e+04,-1.129716525883850409e-02
6.532700000000000000e+04,-1.129716525883850409e-02
6.538700000000000000e+04,-1.201717731873941375e-03
6.538700000000000000e+04,-1.201717731873941375e-03
6.544700000000000000e+04,3.865644143388635712e-03
6.544700000000000000e+04,3.865644143388635712e-03
6.550700000000000000e+04,1.390534726397163467e-02
6.550700000000000000e+04,1.390534726397163467e-02
6.556700000000000000e+04,2.691782023885025410e-02
6.556700000000000000e+04,2.691782023885025410e-02
6.562700000000000000e+04,2.290349337727093371e-02
6.562700000000000000e+04,2.290349337727093371e-02
6.568700000000000000e+04,1.386279864709649701e-02
6.568700000000000000e+04,1.386279864709649701e-02
6.574700000000000000e+04,1.579616965045715915e-02
6.574700000000000000e+04,1.579616965045715915e-02
6.580700000000000000e+04,1.170404158892779378e-02
6.580700000000000000e+04,1.170404158892779378e-02
6.586700000000000000e+04,3.586851239560928661e-03
6.586700000000000000e+04,3.586851239560928661e-03
6.592700000000000000e+04,1.445036918994446751e-03
6.592700000000000000e+04,1.445036918994446751e-03
6.598700000000000000e+04,2.279038452343229437e-03
6.598700000000000000e+04,2.279038452343229437e-03
6.604700000000000000e+04,4.089297149675985565e-03
6.604700000000000000e+04,4.089297149675985565e-03
6.610700000000000000e+04,7.876255769588169642e-03
6.610700000000000000e+04,7.876255769588169642e-03
6.616700000000000000e+04,7.640358484877651790e-03
6.616700000000000000e+04,7.640358484877651790e-03
6.622700000000000000e+04,4.382050862659525592e-03
6.622700000000000000e+04,4.382050862659525592e-03
6.628700000000000000e+04,-3.898220179507916328e-03
6.628700000000000000e+04,-3.898220179507916328e-03
6.634700000000000000e+04,-4.200006393148214556e-03
6.634700000000000000e+04,-4.200006393148214556e-03
6.640700000000000000e+04,-8.352285823912097840e-02
6.640700000000000000e+04,-8.352285823912097840e-02
6.646700000000000000e+04,1.613367508707597153e-02
6.646700000000000000e+04,1.613367508707597153e-02
6.652700000000000000e+04,1.377004561845751596e-02
6.652700000000000000e+04,1.377004561845751596e-02
6.658700000000000000e+04,9.386706590703397524e-03
6.658700000000000000e+04,9.386706590703397524e-03
6.664700000000000000e+04,8.984112404505140148e-03
6.664700000000000000e+04,8.984112404505140148e-03
6.670700000000000000e+04,-3.437281400238134665e-03
6.670700000000000000e+04,-3.437281400238134665e-03
6.676700000000000000e+04,-7.387701818106506835e-02
6.676700000000000000e+04,-7.387701818106506835e-02
6.682700000000000000e+04,-1.233464022152475081e-02
6.682700000000000000e+04,-1.233464022152475081e-02
6.688700000000000000e+04,-8.809688766632461920e-03
6.688700000000000000e+04,-8.809688766632461920e-03
6.694700000000000000e+04,-4.301704049794352613e-03
6.694700000000000000e+04,-4.301704049794352613e-03
6.700700000000000000e+04,-8.810225332126719877e-03
6.700700000000000000e+04,-8.810225332126719877e-03
6.706700000000000000e+04,-1.833479092874767957e-02
6.706700000000000000e+04,-1.833479092874767957e-02
6.712700000000000000e+04,-1.587493824308694457e-02
6.712700000000000000e+04,-1.587493824308694457e-02
6.718700000000000000e+04,-7.430203799685841659e-03
6.718700000000000000e+04,-7.430203799685841659e-03
6.724700000000000000e+04,-9.000123276564409025e-03
6.724700000000000000e+04,-9.000123276564409025e-03
6.730700000000000000e+04,1.415768461811239831e-03
6.730700000000000000e+04,1.415768461811239831e-03
6.736700000000000000e+04,4.817937332063593203e-03
6.736700000000000000e+04,4.817937332063593203e-03
6.742700000000000000e+04,-6.793149998884473462e-03
6.742700000000000000e+04,-6.793149998884473462e-03
6.748700000000000000e+04,-1.241702614788664505e-02
6.748700000000000000e+04,-1.241702614788664505e-02
6.754700000000000000e+04,-1.005322305263689486e-02
6.754700000000000000e+04,-1.005322305263689486e-02
6.760700000000000000e+04,-7.012719975136860739e-04
6.760700000000000000e+04,-7.012719975136860739e-04
6.766700000000000000e+04,1.063929635256499751e-02
6.766700000000000000e+04,1.063929635256499751e-02
6.772700000000000000e+04,7.968951910697796848e-03
6.772700000000000000e+04,7.968951910697796848e-03
6.778700000000000000e+04,1.028816514599384391e-02
6.778700000000000000e+04,1.028816514599384391e-02
6.784700000000000000e+04,1.759740704528667266e-02
6.784700000000000000e+04,1.759740704528667266e-02
6.790700000000000000e+04,1.489714907665984356e-02
6.790700000000000000e+04,1.489714907665984356e-02
6.796700000000000000e+04,7.187863165199814830e-03
6.796700000000000000e+04,7.187863165199814830e-03
6.802700000000000000e+04,4.700216500168608036e-04
6.802700000000000000e+04,4.700216500168608036e-04
6.808700000000000000e+04,9.744097257225803332e-03
6.808700000000000000e+04,9.744097257225803332e-03
6.814700000000000000e+04,2.501056306527971174e-02
6.814700000000000000e+04,2.501056306527971174e-02
6.820700000000000000e+04,2.626989246891753282e-02
6.820700000000000000e+04,2.626989246891753282e-02
6.826700000000000000e+04,2.452255915022760746e-02
6.826700000000000000e+04,2.452255915022760746e-02
6.832700000000000000e+04,1.776903704057986033e-02
6.832700000000000000e+04,1.776903704057986033e-02
6.838700000000000000e+04,1.700980029363563517e-02
6.838700000000000000e+04,1.700980029363563517e-02
6.844700000000000000e+04,2.224532324134997907e-02
6.844700000000000000e+04,2.224532324134997907e-02
6.850700000000000000e+04,2.747608037179816165e-02
6.850700000000000000e+04,2.747608037179816165e-02
6.856700000000000000e+04,3.070254628937618691e-02
6.856700000000000000e+04,3.070254628937618691e-02
6.862700000000000000e+04,2.792519568220086512e-02
6.862700000000000000e+04,2.792519568220086512e-02
6.868700000000000000e+04,2.014450328715611249e-02
6.868700000000000000e+04,2.014450328715611249e-02
6.874700000000000000e+04,1.936094386110198684e-02
6.874700000000000000e+04,1.936094386110198684e-02
6.880700000000000000e+04,1.457499214120616671e-02
6.880700000000000000e+04,1.457499214120616671e-02
6.886700000000000000e+04,1.478712281641492154e-02
6.886700000000000000e+04,1.478712281641492154e-02
6.892700000000000000e+04,1.899781049314697157e-02
6.892700000000000000e+04,1.899781049314697157e-02
6.898700000000000000e+04,1.320752965193605633e-02
6.898700000000000000e+04,1.320752965193605633e-02
6.904700000000000000e+04,1.741675463335923268e-02
6.904700000000000000e+04,1.741675463335923268e-02
6.910700000000000000e+04,2.862595958413294284e-02
6.910700000000000000e+04,2.862595958413294284e-02
6.916700000000000000e+04,2.083561843664938351e-02
6.916700000000000000e+04,2.083561843664938351e-02
6.922700000000000000e+04,1.704620486907515442e-02
6.922700000000000000e+04,1.704620486907515442e-02
6.928700000000000000e+04,1.925819227562897140e-02
6.928700000000000000e+04,1.925819227562897140e-02
6.934700000000000000e+04,2.447205373027827591e-02
6.934700000000000000e+04,2.447205373027827591e-02
6.940700000000000000e+04,2.468826195263318368e-02
6.940700000000000000e+04,2.468826195263318368e-02
6.946700000000000000e+04,1.790728927608142840e-02
6.946700000000000000e+04,1.790728927608142840e-02
6.952700000000000000e+04,1.612960761303838808e-02
6.952700000000000000e+04,1.612960761303838808e-02
6.958700000000000000e+04,9.355688425330299651e-03
6.958700000000000000e+04,9.355688425330299651e-03
6.964700000000000000e+04,2.586002684438426513e-03
6.964700000000000000e+04,2.586002684438426513e-03
6.970700000000000000e+04,6.821020838287950028e-03
6.970700000000000000e+04,6.821020838287950028e-03
6.976700000000000000e+04,9.061212785582029028e-03
6.976700000000000000e+04,9.061212785582029028e-03
6.982700000000000000e+04,1.230704783392866375e-02
6.982700000000000000e+04,1.230704783392866375e-02
6.988700000000000000e+04,1.355899466943810694e-02
6.988700000000000000e+04,1.355899466943810694e-02
6.994700000000000000e+04,6.817521323682740331e-03
7.000700000000000000e+04,-2.491690485976505443e-02
7.006700000000000000e+04,6.356182741910743061e-03
7.012700000000000000e+04,1.063724999403348193e-02
7.018700000000000000e+04,1.392676197428954765e-02
7.024700000000000000e+04,1.322518294045949006e-02
7.030700000000000000e+04,1.653297629627559218e-02
7.036700000000000000e+04,1.985060455217535491e-02
7.042700000000000000e+04,1.917852930500885122e-02
7.048700000000000000e+04,2.351721119111971348e-02
7.054700000000000000e+04,1.686710986496109399e-02
7.060700000000000000e+04,1.622868395725163282e-02
7.066700000000000000e+04,2.560239104832362500e-02
7.072700000000000000e+04,2.698868763218342792e-02
7.078700000000000000e+04,1.938802908398429281e-02
7.084700000000000000e+04,4.800869628525106236e-03
7.090700000000000000e+04,7.227662307741411496e-03
7.096700000000000000e+04,1.366885894412916969e-02
7.102700000000000000e+04,9.124910117407125654e-03
7.108700000000000000e+04,9.596265118034352781e-03
7.114700000000000000e+04,2.083371931348665385e-03
7.120700000000000000e+04,-2.413322807569784345e-03
7.126700000000000000e+04,-2.893373840834101429e-03
7.132700000000000000e+04,6.436626813410839532e-04
7.138700000000000000e+04,1.519822916588964290e-02
7.144700000000000000e+04,3.770766546040249523e-03
7.150700000000000000e+04,-8.638285749384522205e-03
7.156700000000000000e+04,2.971510168208624236e-03
7.162700000000000000e+04,4.600590623340394814e-03
7.168700000000000000e+04,-8.750609663366049062e-03
7.174700000000000000e+04,-2.108165760000701994e-02
7.180700000000000000e+04,-1.639212175996362930e-02
7.186700000000000000e+04,-2.168157241021617665e-02
7.192700000000000000e+04,-2.694958153915649746e-02
7.198700000000000000e+04,-2.719572290106953005e-02
7.204700000000000000e+04,-2.841957202326739207e-02
7.210700000000000000e+04,-2.062070626243439619e-02
7.216700000000000000e+04,-1.879870481889156508e-02
7.222700000000000000e+04,-2.395314877139753662e-02
7.228700000000000000e+04,-2.508362110938833212e-02
7.234700000000000000e+04,-1.418970675831587869e-02
7.240700000000000000e+04,-1.527099262148112757e-02
7.246700000000000000e+04,-1.732706759048596723e-02
7.252700000000000000e+04,-1.435752259521905216e-02
7.258700000000000000e+04,-1.336195062049228000e-02
7.264700000000000000e+04,-5.339946740605228115e-03
7.270700000000000000e+04,-1.291108149871433852e-03
7.276700000000000000e+04,1.784965813385497313e-03
7.282700000000000000e+04,8.888673630281118676e-03
7.288700000000000000e+04,1.020411578338098479e-03
7.294700000000000000e+04,-6.819426298534381203e-03
7.300700000000000000e+04,-4.630448222087579779e-03
7.306700000000000000e+04,-4.122647073927510064e-04
7.312700000000000000e+04,8.355114177902578376e-04
7.318700000000000000e+04,2.113264969466399634e-03
7.324700000000000000e+04,-7.578621612537972396e-03
7.330700000000000000e+04,-1.123976828921513516e-02
7.336700000000000000e+04,-4.869797458468383411e-03
7.342700000000000000e+04,-1.046833397276714095e-02
7.348700000000000000e+04,-1.603500517694556038e-02
7.354700000000000000e+04,-1.456944092842604732e-02
7.360700000000000000e+04,-4.607127362942264881e-02
7.366700000000000000e+04,-1.254013824564026436e-02
7.372700000000000000e+04,-6.975672344651684398e-03
7.378700000000000000e+04,-3.237751611140993191e-02
7.384700000000000000e+04,8.254687615590228233e-03
7.390700000000000000e+04,8.921293329876789358e-03
7.396700000000000000e+04,-8.377347184705286054e-03
7.402700000000000000e+04,-1.964088486420223489e-02
7.408700000000000000e+04,-2.186897340016003000e-02
7.414700000000000000e+04,-1.506126926187789650e-02
7.420700000000000000e+04,-4.217431722281617112e-03
7.426700000000000000e+04,1.662877118178585079e-03
7.432700000000000000e+04,6.579992302249593195e-03
7.438700000000000000e+04,5.534246003662701696e-03
7.444700000000000000e+04,-2.474032520240143640e-03
7.450700000000000000e+04,-9.444516927487711655e-03
7.456700000000000000e+04,-2.037688382961277966e-02
7.462700000000000000e+04,-2.627081281980281346e-02
7.468700000000000000e+04,-2.012598648207131191e-02
7.474700000000000000e+04,-1.694209042489092099e-02
7.480700000000000000e+04,-9.718813300878537120e-03
7.486700000000000000e+04,-2.455846837165154284e-03
7.492700000000000000e+04,2.847114152245922014e-03
7.498700000000000000e+04,-6.809628256178257288e-03
7.504700000000000000e+04,-7.425775132105627563e-03
7.510700000000000000e+04,-2.001030698011163622e-03
7.516700000000000000e+04,-5.351023555704159662e-04
7.522700000000000000e+04,-2.027700712915248005e-03
7.528700000000000000e+04,6.521460399653733475e-03
7.534700000000000000e+04,3.112663907359092264e-03
7.540700000000000000e+04,5.746189468027296243e-03
7.546700000000000000e+04,1.342231345233813045e-02
7.552700000000000000e+04,5.141308925431076204e-03
7.558700000000000000e+04,6.903445620537240757e-03
7.564700000000000000e+04,1.570898992440561415e-02
7.570700000000000000e+04,9.558204857057717163e-03
7.576700000000000000e+04,4.451350048839231022e-03
7.582700000000000000e+04,3.388681724118214333e-03
7.588700000000000000e+04,-1.629547321044810815e-03
7.594700000000000000e+04,1.396912265136052156e-03
7.600700000000000000e+04,3.468306371814833255e-03
7.606700000000000000e+04,5.584877401361154625e-03
7.612700000000000000e+04,9.746864258431742201e-03
7.618700000000000000e+04,1.295450233192241285e-02
7.624700000000000000e+04,5.208023467275779694e-03
7.630700000000000000e+04,-4.492344040045281872e-03
7.636700000000000000e+04,6.853624537143332418e-03
7.642700000000000000e+04,1.024615033202280756e-02
7.648700000000000000e+04,1.168545087739403243e-02
7.654700000000000000e+04,9.171740082820178941e-03
7.660700000000000000e+04,-2.294771777997084428e-03
7.666700000000000000e+04,1.028612191521460772e-02
7.672700000000000000e+04,1.191462411270549637e-02
7.678700000000000000e+04,2.590934082491003210e-03
7.684700000000000000e+04,-7.684752607019618154e-03
7.690700000000000000e+04,-1.291224410488212015e-02
7.696700000000000000e+04,-8.091352285646280507e-03
7.702700000000000000e+04,-3.221892764486256056e-03
7.708700000000000000e+04,3.696315080560452770e-03
7.714700000000000000e+04,-2.336551895041338867e-03
7.720700000000000000e+04,-2.732032061976497062e-02
7.726700000000000000e+04,-5.254821824564714916e-03
7.732700000000000000e+04,-1.913989004560789908e-02
7.738700000000000000e+04,-4.097536364224652061e-02
7.744700000000000000e+04,-9.761084811998443911e-03
7.750700000000000000e+04,-1.249689959968236508e-02
7.756700000000000000e+04,-4.318265790698205819e-02
7.762700000000000000e+04,-1.681821350666723447e-02
7.768700000000000000e+04,-2.740342405877527199e-02
7.774700000000000000e+04,-3.193815110626019305e-02
7.780700000000000000e+04,-3.442226010747617693e-02
7.786700000000000000e+04,-3.685562042528545135e-02
7.792700000000000000e+04,-4.223810535040684044e-02
7.798700000000000000e+04,-3.456959211189314374e-02
7.804700000000000000e+04,-1.784996187507204013e-02
7.810700000000000000e+04,-1.407909976114751771e-02
7.816700000000000000e+04,-1.325689485656766919e-02
7.822700000000000000e+04,-8.383240209695941303e-03
7.828700000000000000e+04,-4.580328559313784353e-04
7.834700000000000000e+04,-6.481173810698237503e-03
7.840700000000000000e+04,-3.452568090779095655e-03
7.846700000000000000e+04,2.627875289817893645e-03
7.852700000000000000e+04,7.760243305710901041e-03
7.858700000000000000e+04,1.994461891717946855e-02
7.864700000000000000e+04,2.718108106091676746e-02
7.870700000000000000e+04,1.246970464399055345e-02
7.876700000000000000e+04,2.181056054087093798e-02
7.882700000000000000e+04,2.720371558280021418e-02
7.888700000000000000e+04,2.164923255622852594e-02
7.894700000000000000e+04,2.414717019655654440e-02
7.900700000000000000e+04,1.569758318282765686e-02
7.906700000000000000e+04,1.130052213829912944e-02
7.912700000000000000e+04,1.495603361172470613e-02
7.918700000000000000e+04,1.966416009281601873e-02
7.924700000000000000e+04,1.642493999815997086e-02
7.930700000000000000e+04,1.023840766538341995e-02
7.936700000000000000e+04,3.104593354692042340e-03
7.942700000000000000e+04,2.023523250954895047e-03
7.948700000000000000e+04,4.995219449938304024e-03
7.954700000000000000e+04,3.019699964170285966e-03
7.960700000000000000e+04,2.096978721510822652e-03
7.966700000000000000e+04,-4.772934440552489832e-03
7.972700000000000000e+04,4.099662273802096024e-04
7.978700000000000000e+04,1.645682383696112083e-03
7.984700000000000000e+04,-2.065788403342594393e-03
7.990700000000000000e+04,-1.724452654343622271e-03
7.996700000000000000e+04,-4.330320983171986882e-03
8.002700000000000000e+04,-5.883408092813624535e-03
8.008700000000000000e+04,1.616267225472256541e-03
8.014700000000000000e+04,-1.831317909363860963e-03
8.020700000000000000e+04,3.773809537960914895e-03
8.026700000000000000e+04,1.143161851314289379e-02
8.032700000000000000e+04,1.714207388204158633e-02
8.038700000000000000e+04,1.590513642713631270e-02
8.044700000000000000e+04,1.272076285613366053e-02
8.050700000000000000e+04,1.258890579947546939e-02
8.056700000000000000e+04,7.509513814511592500e-03
8.062700000000000000e+04,-5.174686061764077749e-04
8.068700000000000000e+04,-4.492101038067630725e-03
8.074700000000000000e+04,-4.414447114413633244e-03
8.080700000000000000e+04,7.154254726629005745e-04
8.086700000000000000e+04,5.897444983474997571e-03
8.092700000000000000e+04,-5.868464368177228607e-03
8.098700000000000000e+04,-3.582382411877915729e-03
8.104700000000000000e+04,4.755606992603134131e-03
8.110700000000000000e+04,1.514541595497576054e-02
8.116700000000000000e+04,-1.241304743825821788e-02
8.122700000000000000e+04,1.008012088459508959e-02
8.128700000000000000e+04,7.624820987075509038e-03
8.134700000000000000e+04,1.322094893248504377e-02
8.140700000000000000e+04,1.186839678894102690e-02
8.146700000000000000e+04,1.956705263864932931e-02
8.152700000000000000e+04,1.631680058926576748e-02
8.158700000000000000e+04,1.511752077522032778e-02
8.164700000000000000e+04,1.496908937542684725e-02
8.170700000000000000e+04,-1.128621382576966425e-03
8.176700000000000000e+04,-4.175743216364935506e-03
8.182700000000000000e+04,4.827588228636159329e-03
8.188700000000000000e+04,1.588123338342484203e-02
8.194700000000000000e+04,8.985048771592119010e-03
8.200700000000000000e+04,6.138887010820326395e-03
8.206700000000000000e+04,7.342596834860160016e-03
8.212700000000000000e+04,6.596023097245051758e-03
8.218700000000000000e+04,-1.009932170745742042e-04
8.224700000000000000e+04,-1.274861497267920640e-02
8.230700000000000000e+04,-1.634700888098450378e-02
8.236700000000000000e+04,-1.489634547897367156e-02
8.242700000000000000e+04,-8.396799124511744594e-03
8.248700000000000000e+04,-7.848547976209374610e-03
8.254700000000000000e+04,-1.725177398066080059e-02
8.260700000000000000e+04,-1.660666286898049293e-02
8.266700000000000000e+04,-1.891340412657882553e-02
8.272700000000000000e+04,-1.417219099221256329e-02
8.278700000000000000e+04,-2.383220431056543021e-03
8.284700000000000000e+04,1.453306862913450459e-03
8.290700000000000000e+04,-6.628134997299639508e-04
8.296700000000000000e+04,-3.731789598077739356e-03
8.302700000000000000e+04,-1.275383318261447130e-02
8.308700000000000000e+04,-6.729159664246253669e-03
8.314700000000000000e+04,-2.657988084592943778e-03
8.320700000000000000e+04,-3.540541117672546534e-03
8.326700000000000000e+04,1.622954966023826273e-03
8.332700000000000000e+04,-1.677296991147159133e-04
8.338700000000000000e+04,3.087171451170434011e-03
8.344700000000000000e+04,-3.612578567754098913e-03
8.350700000000000000e+04,-1.267220279260072857e-03
8.356700000000000000e+04,-2.876997721159568755e-03
8.362700000000000000e+04,-6.442158428853872465e-03
8.368700000000000000e+04,-4.962953422364080325e-03
8.374700000000000000e+04,-5.439637168819899671e-03
8.380700000000000000e+04,-7.872467587276332779e-03
8.386700000000000000e+04,-1.426170601052945131e-02
8.392700000000000000e+04,-1.560761717564673745e-02
8.398700000000000000e+04,-5.910469193167955382e-03
8.404700000000000000e+04,-1.117053353800656623e-02
8.410700000000000000e+04,-8.388085021579172462e-03
8.416700000000000000e+04,-9.563401771629287396e-03
8.422700000000000000e+04,-5.696765208540455205e-03
8.428700000000000000e+04,-7.884600313445844222e-04
8.434700000000000000e+04,5.161225810297764838e-03
8.440700000000000000e+04,-5.847998856552294455e-03
8.446700000000000000e+04,-6.816428423462639330e-03
8.452700000000000000e+04,-2.744360450833482901e-03
8.458700000000000000e+04,-3.363209567351077567e-02
8.464700000000000000e+04,-3.479937954580236692e-03
8.470700000000000000e+04,1.711805722607095959e-03
8.476700000000000000e+04,-5.505717471214666148e-02
8.482700000000000000e+04,8.212807607378636021e-03
8.488700000000000000e+04,4.521436499089759309e-03
8.494700000000000000e+04,1.186839276897444506e-02
8.500700000000000000e+04,1.725335422770513105e-02
8.506700000000000000e+04,1.567599572445033118e-02
8.512700000000001455e+04,1.413598915723923710e-02
8.518700000000000000e+04,1.263300351729412796e-02
8.524700000000000000e+04,1.667049018578836694e-04
8.530700000000001455e+04,7.367565390268282499e-04
8.536700000000000000e+04,4.342818828263261821e-03
8.542700000000000000e+04,-3.015450649400008842e-03
8.548699999999998545e+04,-4.338397094215906691e-03
8.554700000000000000e+04,-3.626368467394058825e-03
8.560700000000000000e+04,-9.879715454189863522e-03
8.566699999999998545e+04,-1.009879144930891925e-02
8.572700000000000000e+04,-1.128395251998881577e-02
8.578700000000000000e+04,-8.435557379470992601e-03
8.584700000000000000e+04,-4.553967360607202863e-03
8.590700000000000000e+04,-3.639546389422321226e-03
8.596700000000000000e+04,-6.926609507900138851e-04
8.602700000000000000e+04,2.286319937411462888e-03
8.608700000000001455e+04,6.297024750438140472e-03
8.614700000000000000e+04,1.339079488388961181e-03
8.620700000000000000e+04,7.412107710479176603e-03
8.626700000000001455e+04,9.515730555449408712e-03
8.632700000000000000e+04,1.264956677687223419e-02
8.638700000000000000e+04,3.813232775883079739e-03
