PARAMS: -t 100 -n 40 -A 1 -d 14
SPLITTING_SIZE	MTPS	AVERAGE_TRIANGLES	AVERAGE_PARTITIONS
64	18.8677	314298	9768.76
128	28.1295	314298	4887.12
256	35.4697	314298	2437.94
512	40.4178	314298	1217.96
1024	46.53	314298	613.18
2048	42.215	314298	313.94
4096	37.9449	314298	165.4
8192	32.1084	314298	91.58
16384	20.3854	314298	46
32768	15.5138	314298	25
65536	9.20331	314298	13
131072	7.67859	314298	6
262144	3.12788	314298	2
524288	3.12069	314298	2
1048576	3.11124	314298	2
PARAMS: -t 100 -n 40 -A 1 -d 16
SPLITTING_SIZE	MTPS	AVERAGE_TRIANGLES	AVERAGE_PARTITIONS
64	21.1079	1.21872e+06	37967.1
128	31.032	1.21872e+06	18988.7
256	39.86	1.21872e+06	9485
512	48.0678	1.21872e+06	4731.62
1024	52.6115	1.21872e+06	2358.88
2048	54.8641	1.21872e+06	1180.99
4096	55.4489	1.21872e+06	593.86
8192	52.1207	1.21872e+06	300.59
16384	47.1561	1.21872e+06	160.48
32768	43.131	1.21872e+06	88.48
65536	36.958	1.21872e+06	46
131072	22.2062	1.21872e+06	25
262144	11.605	1.21872e+06	13
524288	8.30201	1.21872e+06	6
1048576	3.48559	1.21872e+06	2
PARAMS: -t 100 -n 40 -A 1 -d 18
SPLITTING_SIZE	MTPS	AVERAGE_TRIANGLES	AVERAGE_PARTITIONS
64	20.0017	4.79929e+06	149743
128	30.2495	4.79929e+06	74868.5
256	40.4904	4.79929e+06	37435.2
512	49.8425	4.79929e+06	18721.9
1024	54.8662	4.79929e+06	9339.72
2048	58.8793	4.79929e+06	4667.69
4096	60.8307	4.79929e+06	2318.89
8192	60.7687	4.79929e+06	1162.81
16384	59.5084	4.79929e+06	586
32768	56.7744	4.79929e+06	296.06
65536	51.6809	4.79929e+06	159.54
131072	49.9508	4.79929e+06	88
262144	43.2352	4.79929e+06	46
524288	16.793	4.79929e+06	25
1048576	11.1345	4.79929e+06	13
PARAMS: -t 100 -n 40 -A 1 -d 20
SPLITTING_SIZE	MTPS	AVERAGE_TRIANGLES	AVERAGE_PARTITIONS
64	18.9582	1.90469e+07	594750
128	28.8803	1.90469e+07	297341
256	39.6541	1.90469e+07	148653
512	49.2903	1.90469e+07	74326.4
1024	56.6729	1.90469e+07	37171
2048	60.9499	1.90469e+07	18574.6
4096	64.4136	1.90469e+07	9277.21
8192	64.892	1.90469e+07	4635.1
16384	65.5305	1.90469e+07	2304.06
32768	64.9678	1.90469e+07	1158.74
65536	63.5176	1.90469e+07	586
131072	61.4204	1.90469e+07	296
262144	55.2238	1.90469e+07	158.58
524288	49.8434	1.90469e+07	88
1048576	40.764	1.90469e+07	46
