Problem size with different number of CPUs using function optimization
THREADS	INITIAL_DEPTH	MTPS	TIMESTEPS	TIMESTEP_SIZE	SECONDS_FOR_SIMULATION	AVERAGE_TRIANGLES	AVERAGE_PARTITIONS
80	101.482	100	0.000986073	18.8969	1.9177e+07	1162.24
79	101.06	100	0.000986073	18.9759	1.9177e+07	1162.24
78	100.693	100	0.000986073	19.0451	1.9177e+07	1162.24
77	99.6221	100	0.000986073	19.2497	1.9177e+07	1162.24
76	100.574	100	0.000986073	19.0676	1.9177e+07	1162.24
75	96.7767	100	0.000986073	19.8157	1.9177e+07	1162.24
74	98.646	100	0.000986073	19.4402	1.9177e+07	1162.24
73	94.0094	100	0.000986073	20.399	1.9177e+07	1162.24
72	84.5484	100	0.000986073	22.6817	1.9177e+07	1162.24
71	78.2062	100	0.000986073	24.5211	1.9177e+07	1162.24
70	78.4524	100	0.000986073	24.4441	1.9177e+07	1162.24
69	74.3538	100	0.000986073	25.7915	1.9177e+07	1162.24
68	72.4046	100	0.000986073	26.4859	1.9177e+07	1162.24
67	75.5422	100	0.000986073	25.3858	1.9177e+07	1162.24
66	71.7122	100	0.000986073	26.7416	1.9177e+07	1162.24
65	71.862	100	0.000986073	26.6859	1.9177e+07	1162.24
64	68.9965	100	0.000986073	27.7942	1.9177e+07	1162.24
63	70.2526	100	0.000986073	27.2972	1.9177e+07	1162.24
62	66.8648	100	0.000986073	28.6802	1.9177e+07	1162.24
61	67.42	100	0.000986073	28.4441	1.9177e+07	1162.24
60	68.8675	100	0.000986073	27.8462	1.9177e+07	1162.24
59	70.5419	100	0.000986073	27.1852	1.9177e+07	1162.24
58	63.0954	100	0.000986073	30.3937	1.9177e+07	1162.24
57	67.6827	100	0.000986073	28.3337	1.9177e+07	1162.24
56	66.4157	100	0.000986073	28.8742	1.9177e+07	1162.24
55	65.318	100	0.000986073	29.3594	1.9177e+07	1162.24
54	63.5255	100	0.000986073	30.1879	1.9177e+07	1162.24
53	60.2091	100	0.000986073	31.8507	1.9177e+07	1162.24
52	61.9135	100	0.000986073	30.9738	1.9177e+07	1162.24
51	57.9865	100	0.000986073	33.0715	1.9177e+07	1162.24
50	57.669	100	0.000986073	33.2535	1.9177e+07	1162.24
49	56.3123	100	0.000986073	34.0547	1.9177e+07	1162.24
48	54.683	100	0.000986073	35.0694	1.9177e+07	1162.24
47	53.6333	100	0.000986073	35.7558	1.9177e+07	1162.24
46	52.414	100	0.000986073	36.5876	1.9177e+07	1162.24
45	50.2704	100	0.000986073	38.1477	1.9177e+07	1162.24
44	49.2265	100	0.000986073	38.9567	1.9177e+07	1162.24
43	45.1696	100	0.000986073	42.4555	1.9177e+07	1162.24
42	44.8002	100	0.000986073	42.8056	1.9177e+07	1162.24
41	44.2151	100	0.000986073	43.372	1.9177e+07	1162.24
40	41.2312	100	0.000986073	46.5108	1.9177e+07	1162.24
39	42.1994	100	0.000986073	45.4438	1.9177e+07	1162.24
38	42.0569	100	0.000986073	45.5977	1.9177e+07	1162.24
37	41.7832	100	0.000986073	45.8964	1.9177e+07	1162.24
36	41.3043	100	0.000986073	46.4286	1.9177e+07	1162.24
35	40.6847	100	0.000986073	47.1357	1.9177e+07	1162.24
34	40.1729	100	0.000986073	47.7362	1.9177e+07	1162.24
33	40.9731	100	0.000986073	46.8039	1.9177e+07	1162.24
32	40.2585	100	0.000986073	47.6347	1.9177e+07	1162.24
31	42.119	100	0.000986073	45.5305	1.9177e+07	1162.24
30	40.5283	100	0.000986073	47.3176	1.9177e+07	1162.24
29	40.064	100	0.000986073	47.866	1.9177e+07	1162.24
28	40.8016	100	0.000986073	47.0006	1.9177e+07	1162.24
27	39.4562	100	0.000986073	48.6032	1.9177e+07	1162.24
26	40.5001	100	0.000986073	47.3505	1.9177e+07	1162.24
25	39.3156	100	0.000986073	48.7771	1.9177e+07	1162.24
24	39.4663	100	0.000986073	48.5908	1.9177e+07	1162.24
23	38.798	100	0.000986073	49.4277	1.9177e+07	1162.24
22	39.9258	100	0.000986073	48.0316	1.9177e+07	1162.24
21	37.8282	100	0.000986073	50.695	1.9177e+07	1162.24
20	38.5734	100	0.000986073	49.7156	1.9177e+07	1162.24
19	38.2983	100	0.000986073	50.0727	1.9177e+07	1162.24
18	37.9846	100	0.000986073	50.4863	1.9177e+07	1162.24
17	35.874	100	0.000986073	53.4566	1.9177e+07	1162.24
16	36.1663	100	0.000986073	53.0245	1.9177e+07	1162.24
15	33.2524	100	0.000986073	57.671	1.9177e+07	1162.24
14	34.3081	100	0.000986073	55.8963	1.9177e+07	1162.24
13	30.9357	100	0.000986073	61.9899	1.9177e+07	1162.24
12	30.169	100	0.000986073	63.5652	1.9177e+07	1162.24
11	28.1279	100	0.000986073	68.1778	1.9177e+07	1162.24
10	27.7839	100	0.000986073	69.022	1.9177e+07	1162.24
9	25.825	100	0.000986073	74.2576	1.9177e+07	1162.24
8	23.1147	100	0.000986073	82.9645	1.9177e+07	1162.24
7	20.6549	100	0.000986073	92.8447	1.9177e+07	1162.24
6	17.8672	100	0.000986073	107.331	1.9177e+07	1162.24
5	14.9478	100	0.000986073	128.293	1.9177e+07	1162.24
4	11.9638	100	0.000986073	160.292	1.9177e+07	1162.24
3	8.98226	100	0.000986073	213.499	1.9177e+07	1162.24
2	5.97865	100	0.000986073	320.758	1.9177e+07	1162.24
1	3.04428	100	0.000986073	629.936	1.9177e+07	1162.24
