0	0
10.0257	0
20.9861	0
30.9481	0
40.91	0
50.87	0
60.7888	0
70.619	0
80.4281	0
90.2373	0
100.046	0
110.836	0
120.646	0
130.455	0
140.264	0
150.073	0
160.863	0
170.672	0
180.481	0
190.29	0
200.099	0
210.889	0
220.698	0
230.507	0
240.317	0
250.126	0
260.916	0
270.725	0
280.534	0
290.343	0
300.152	0
310.942	0
320.751	0
330.56	0
340.369	0
350.178	0
360.968	0
370.777	0
380.586	0
390.395	0
400.204	0
410.013	0
420.803	0
430.612	0
440.421	0
450.23	0
460.039	0
470.829	0
480.638	0
490.447	0
500.256	0
510.065	0
520.855	0
530.663	0
540.472	0
550.281	0
560.09	0
570.88	0
580.688	0
590.497	0
600.306	0
610.114	0
620.904	0
630.713	0
640.521	0
650.33	0
660.138	0
670.928	0
680.737	0
690.545	0
700.354	0
710.162	0
720.952	0
730.76	0
740.569	0
750.378	0
760.186	0
770.976	0
780.785	0
790.593	0
800.402	0
810.211	0
820.019	0
830.809	0
840.618	0
850.426	0
860.235	0
870.044	0
880.833	0
890.642	0
900.45	0
910.259	0
920.067	0
930.857	0
940.665	0
950.474	0
960.282	0
970.091	0
980.88	0
990.688	0
1000.5	0
1010.31	0
1020.11	0
1030.9	0
1040.71	0
1050.52	0
1060.33	0
1070.14	0
1080.92	0
1090.73	0
1100.54	0
1110.35	0
1120.16	0
1130.95	0
1140.75	0
1150.56	0
1160.37	0
1170.18	0
1180.97	0
1190.78	0
1200.58	0
1210.39	0
1220.2	0
1230.01	0
1240.8	0
1250.6	0
1260.41	0
1270.22	0
1280.03	0
1290.82	0
1300.62	0
1310.43	0
1320.24	0
1330.05	0
1340.84	0
1350.64	0
1360.45	0
1370.26	0
1380.07	0
1390.86	0
1400.66	0
1410.47	0
1420.28	0
1430.09	0
1440.88	0
1450.68	0
1460.49	0
1470.3	0
1480.11	0
1490.9	0
1500.7	0
1510.51	0
1520.32	0
1530.13	0
1540.92	0
1550.72	0
1560.53	0
1570.34	0
1580.15	0
1590.94	0
1600.74	0
1610.55	0
1620.36	0
1630.17	0
1640.96	0
1650.76	0
1660.57	0
1670.38	0
1680.19	0
1690.98	0
1700.79	0
1710.59	0
1720.4	0
1730.21	0
1740.02	0
1750.81	0
1760.62	0
1770.42	0
1780.23	0
1790.04	0
1800.83	0
1810.64	0
1820.45	0
1830.26	0
1840.07	0
1850.86	0
1860.66	0
1870.47	0
1880.28	0
1890.09	0
1900.88	0
1910.69	0
1920.5	0
1930.31	0
1940.12	0
1950.91	0
1960.72	0
1970.52	0
1980.33	0
1990.14	0
2000.93	0
2010.74	0
2020.55	0
2030.36	0
2040.17	0
2050.96	0
2060.77	0
2070.58	0
2080.39	0
2090.2	0
2100.01	0
2110.8	0
2120.61	0
2130.42	0
2140.23	0
2150.04	0
2160.83	0
2170.64	0
2180.45	0
2190.26	0
2200.07	0
2210.86	0
2220.67	0
2230.48	0
2240.29	0
2250.09	0
2260.89	0
2270.69	0
2280.5	0
2290.31	0
2300.12	0
2310.91	0
2320.72	0
2330.53	0
2340.34	0
2350.15	0
2360.94	0
2370.75	0
2380.56	0
2390.37	0
2400.18	0
2410.97	0
2420.78	0
2430.59	0
2440.4	0
2450.21	0
2460.02	0
2470.81	0
2480.62	0
2490.43	0
2500.24	0
2510.05	0
2520.84	0
2530.65	0
2540.46	0
2550.27	0
2560.08	0
2570.87	0
2580.68	0
2590.49	0
2600.3	0
2610.11	-2.72848e-12
2620.9	-1.00044e-11
2630.71	-1.72804e-11
2640.52	-2.54659e-11
2650.33	-3.36513e-11
2660.14	-4.27463e-11
2670.93	-5.18412e-11
2680.74	-6.09361e-11
2690.55	-7.00311e-11
2700.36	-7.9126e-11
2710.16	-8.8221e-11
2720.96	-9.73159e-11
2730.76	-1.06411e-10
2740.57	-1.15506e-10
2750.38	-1.24601e-10
2760.19	-1.40972e-10
2770	-1.59162e-10
2780.79	-1.86446e-10
2790.6	-2.18279e-10
2800.41	-2.61025e-10
2810.22	-3.19233e-10
2820.03	-3.94721e-10
2830.82	-5.06589e-10
2840.63	-6.41194e-10
2850.44	-8.15817e-10
2860.25	-1.04137e-09
2870.06	-1.33423e-09
2880.85	-1.75532e-09
2890.66	-2.251e-09
2900.47	-2.88492e-09
2910.28	-3.69164e-09
2920.09	-4.71482e-09
2930.88	-6.15819e-09
2940.69	-7.83075e-09
2950.5	-9.93259e-09
2960.31	-1.25674e-08
2970.12	-1.58579e-08
2980.91	-2.042e-08
2990.72	-2.56241e-08
3000.53	-3.20661e-08
3010.34	-4.00187e-08
3020.15	-4.98112e-08
3030.94	-6.31726e-08
3040.75	-7.81847e-08
3050.56	-9.65083e-08
3060.37	-1.18811e-07
3070.18	-1.45882e-07
3080.97	-1.82285e-07
3090.77	-2.226e-07
3100.58	-2.71136e-07
3110.39	-3.29414e-07
3120.2	-3.99209e-07
3130.01	-4.82586e-07
3140.8	-5.92846e-07
3150.61	-7.12962e-07
3160.42	-8.55335e-07
3170.23	-1.02367e-06
3180.04	-1.22222e-06
3190.83	-1.48133e-06
3200.64	-1.75995e-06
3210.45	-2.08613e-06
3220.26	-2.46711e-06
3230.07	-2.91106e-06
3240.86	-3.48316e-06
3250.67	-4.09072e-06
3260.48	-4.79369e-06
3270.29	-5.60526e-06
3280.1	-6.54013e-06
3290.89	-7.73049e-06
3300.69	-8.97976e-06
3310.5	-1.04092e-05
3320.31	-1.20413e-05
3330.12	-1.39009e-05
3340.91	-1.62419e-05
3350.72	-1.86713e-05
3360.53	-2.14218e-05
3370.34	-2.45296e-05
3380.15	-2.8034e-05
3390.94	-3.23983e-05
3400.75	-3.68796e-05
3410.56	-4.19026e-05
3420.37	-4.7522e-05
3430.18	-5.37969e-05
3440.97	-6.15321e-05
3450.78	-6.93955e-05
3460.59	-7.81264e-05
3470.4	-8.7803e-05
3480.21	-9.85089e-05
3490.01	-0.000110333
3500.81	-0.000124743
3510.61	-0.000139228
3520.42	-0.000155142
3530.23	-0.000172596
3540.04	-0.000191708
3550.83	-0.000214793
3560.64	-0.000237795
3570.45	-0.000262858
3580.26	-0.000290122
3590.07	-0.000319737
3600.86	-0.00035521
3610.67	-0.000390266
3620.48	-0.000428167
3630.29	-0.000469082
3640.1	-0.00051319
3650.89	-0.00056561
3660.7	-0.000617015
3670.51	-0.000672189
3680.31	-0.000731326
3690.12	-0.000794625
3700.91	-0.000869303
3710.72	-0.000942006
3720.53	-0.00101951
3730.34	-0.00110202
3740.15	-0.00118975
3750.94	-0.00129254
3760.75	-0.00139192
3770.56	-0.00149719
3780.37	-0.00160855
3790.18	-0.0017262
3800.97	-0.00186315
3810.78	-0.00199471
3820.59	-0.00213319
3830.4	-0.0022788
3840.2	-0.00243171
3850.01	-0.00259211
3860.8	-0.0027774
3870.61	-0.00295405
3880.42	-0.00313868
3890.23	-0.00333142
3900.04	-0.00353238
3910.83	-0.00376305
3920.64	-0.00398158
3930.45	-0.0042086
3940.26	-0.00444412
3950.07	-0.00468816
3960.86	-0.00496645
3970.67	-0.00522831
3980.47	-0.00549856
3990.28	-0.00577708
4000.09	-0.00606372
4010.88	-0.00638816
4020.69	-0.00669115
4030.5	-0.00700153
4040.31	-0.00731893
4050.12	-0.00764298
4060.91	-0.00800657
4070.72	-0.00834303
4080.53	-0.00868454
4090.34	-0.00903046
4100.15	-0.00938006
4110.94	-0.00976792
4120.74	-0.0101226
4130.55	-0.0104782
4140.36	-0.0108338
4150.17	-0.0111882
4160.96	-0.0115752
4170.77	-0.0119231
4180.58	-0.0122657
4190.39	-0.0126016
4200.2	-0.0129292
4210.01	-0.0132469
4220.8	-0.0135828
4230.61	-0.0138738
4240.42	-0.0141491
4250.22	-0.0144068
4260.03	-0.0146448
4270.82	-0.0148812
4280.63	-0.0150706
4290.44	-0.0152335
4300.25	-0.0153675
4310.06	-0.0154703
4320.85	-0.0155444
4330.66	-0.0155739
4340.47	-0.0155647
4350.28	-0.0155145
4360.09	-0.0154208
4370.88	-0.015265
4380.69	-0.0150727
4390.5	-0.0148299
4400.3	-0.0145346
4410.11	-0.0141846
4420.9	-0.0137342
4430.71	-0.0132633
4440.52	-0.0127321
4450.33	-0.0121392
4460.14	-0.011483
4470.93	-0.0106868
4480.74	-0.00989428
4490.55	-0.0090355
4500.36	-0.00810986
4510.17	-0.00711686
4520.96	-0.00594705
4530.76	-0.00481422
4540.57	-0.00360979
4550.38	-0.00231674
4560.19	-0.00100827
4570	0.000362774
4580.79	0.00209656
4590.6	0.00406779
4600.41	0.00593545
4610.22	0.00853847
4620.03	0.0127926
4630.82	0.018019
4640.63	0.0223146
4650.44	0.026657
4660.24	0.0313659
4670.05	0.0364003
4680.84	0.0422036
4690.65	0.0477404
4700.46	0.0519048
4710.27	0.0586825
4720.08	0.0677052
4730.87	0.0787636
4740.68	0.0894578
4750.49	0.100164
4760.3	0.111054
4770.1	0.121964
4780.89	0.142133
4790.7	0.158565
4800.51	0.175192
4810.32	0.19232
4820.13	0.2094
4830.92	0.22835
4840.73	0.245449
4850.54	0.262339
4860.35	0.279184
4870.16	0.295869
4880.94	0.313892
4890.75	0.329859
4900.56	0.345399
4910.37	0.360529
4920.18	0.375186
4930.97	0.390658
4940.78	0.404102
4950.59	0.416983
4960.4	0.429328
4970.2	0.441119
4980.01	0.452311
4990.8	0.463899
5000.61	0.47376
5010.42	0.482955
5020.23	0.491439
5030.04	0.499162
5040.83	0.506724
5050.63	0.512708
5060.44	0.517795
5070.25	0.521922
5080.06	0.525025
5090.85	0.527182
5100.66	0.527946
5110.47	0.527517
5120.27	0.525848
5130.08	0.5229
5140.87	0.518146
5150.68	0.512434
5160.49	0.505389
5170.3	0.497009
5180.11	0.487305
5190.9	0.475132
5200.7	0.462745
5210.51	0.449159
5220.32	0.434443
5230.13	0.418681
5240.92	0.400245
5250.73	0.382592
5260.54	0.364185
5270.35	0.345111
5280.15	0.325451
5290.94	0.303233
5300.75	0.282566
5310.56	0.261511
5320.37	0.240123
5330.18	0.218465
5340.97	0.194423
5350.78	0.172485
5360.58	0.150625
5370.39	0.129051
5380.2	0.108035
5390.01	0.0878888
5400.8	0.0670588
5410.61	0.0494762
5420.42	0.0331831
5430.23	0.0180954
5440.03	0.00406515
5450.82	-0.0103426
5460.63	-0.0226696
5470.44	-0.0344049
5480.25	-0.0456822
5490.06	-0.0566342
5500.85	-0.0684687
5510.66	-0.0791794
5520.47	-0.0899674
5530.27	-0.100936
5540.08	-0.112171
5550.87	-0.124919
5560.68	-0.136916
5570.49	-0.149335
5580.3	-0.162192
5590.11	-0.175476
5600.9	-0.190535
5610.71	-0.20456
5620.51	-0.218817
5630.32	-0.2332
5640.13	-0.247579
5650.92	-0.26321
5660.73	-0.277072
5670.54	-0.290419
5680.35	-0.303066
5690.16	-0.314826
5700.95	-0.326514
5710.75	-0.335805
5720.56	-0.343641
5730.37	-0.349859
5740.18	-0.354315
5750.97	-0.357041
5760.78	-0.357442
5770.59	-0.355804
5780.4	-0.352101
5790.21	-0.346339
5800.01	-0.338563
5810.8	-0.327772
5820.61	-0.316047
5830.42	-0.302639
5840.23	-0.287711
5850.04	-0.271447
5860.83	-0.252254
5870.64	-0.233852
5880.45	-0.214771
5890.26	-0.195236
5900.07	-0.175476
5910.85	-0.153748
5920.66	-0.134242
5930.47	-0.115189
5940.28	-0.0967873
5950.09	-0.079221
5960.88	-0.061057
5970.69	-0.0457486
5980.5	-0.0317024
5990.31	-0.0189994
6000.12	-0.00769003
6010.91	0.0031186
6020.72	0.0114753
6030.52	0.0184764
6040.33	0.0241912
6050.14	0.0287102
6060.93	0.0324283
6070.74	0.034797
6080.55	0.036329
6090.36	0.0371454
6100.17	0.0373617
6110.96	0.0370325
6120.77	0.0363176
6130.58	0.0352855
6140.39	0.0339947
6150.2	0.0324862
6160	0.030784
6170.79	0.0286971
6180.6	0.0265988
6190.41	0.0242918
6200.22	0.0217519
6210.03	0.0189507
6220.82	0.0155328
6230.63	0.0120901
6240.44	0.00830502
6250.25	0.00416281
6260.06	-0.000341816
6270.85	-0.00570873
6280.66	-0.0109433
6290.47	-0.0164864
6300.28	-0.0222977
6310.09	-0.0283273
6320.88	-0.035142
6330.69	-0.0414315
6340.49	-0.047738
6350.3	-0.0539877
6360.11	-0.0601058
6370.9	-0.0665955
6380.71	-0.0721999
6390.52	-0.0774548
6400.33	-0.0823005
6410.14	-0.0866854
6420.93	-0.0909257
6430.74	-0.0942155
6440.55	-0.0969452
6450.36	-0.0991046
6460.17	-0.100695
6470.96	-0.101802
6480.77	-0.102248
6490.58	-0.102196
6500.39	-0.101684
6510.2	-0.100762
6520.01	-0.099483
6530.8	-0.0977317
6540.6	-0.0958914
6550.41	-0.0938769
6560.22	-0.0917474
6570.03	-0.0895593
6580.82	-0.0871477
6590.63	-0.0850024
6600.44	-0.0829451
6610.25	-0.0810108
6620.06	-0.0792279
6630.85	-0.0774669
6640.66	-0.0760636
6650.47	-0.074856
6660.28	-0.0738455
6670.09	-0.0730277
6680.88	-0.0723398
6690.69	-0.0718925
6700.5	-0.071598
6710.31	-0.0714377
6720.12	-0.0713919
6730.91	-0.0714492
6740.72	-0.0715772
6750.53	-0.0717567
6760.33	-0.0719683
6770.14	-0.0721934
6780.93	-0.0724354
6790.74	-0.0726318
6800.55	-0.072789
6810.36	-0.0728916
6820.17	-0.0729245
6830.96	-0.0728636
6840.77	-0.0727053
6850.58	-0.0724361
6860.39	-0.0720441
6870.2	-0.0715186
6880.01	-0.0708499
6890.8	-0.0699386
6900.61	-0.0689425
6910.42	-0.0677807
6920.23	-0.0664492
6930.03	-0.0649457
6940.82	-0.063093
6950.63	-0.0612299
6960.44	-0.0592011
6970.25	-0.0570132
6980.06	-0.0546752
6990.85	-0.0519434
7000.66	-0.049329
7010.47	-0.0466057
7020.28	-0.0437905
7030.09	-0.0409022
7040.88	-0.0376646
7050.69	-0.0346893
7060.5	-0.0317063
7070.3	-0.0287383
7080.11	-0.0258084
7090.9	-0.0226566
7100.71	-0.0198805
7110.52	-0.0172116
7120.33	-0.0146705
7130.14	-0.0122762
7140.93	-0.00983315
7150.74	-0.00780228
7160.55	-0.00596639
7170.36	-0.00433666
7180.16	-0.00292195
7190.95	-0.00162161
7200.76	-0.000676032
7210.57	4.32966e-05
7220.38	0.000538216
7230.19	0.000813274
7240.98	0.000870594
7250.79	0.000710526
7260.6	0.000361211
7270.41	-0.000162658
7280.22	-0.000844422
7290.02	-0.00166573
7300.81	-0.00270676
7310.62	-0.00375563
7320.43	-0.0048798
7330.24	-0.00605729
7340.05	-0.00726605
7350.84	-0.00860574
7360.65	-0.00980971
7370.46	-0.0109793
7380.27	-0.0120952
7390.08	-0.0131394
7400.87	-0.0141859
7410.67	-0.0150285
7420.48	-0.0157547
7430.29	-0.016354
7440.1	-0.016818
7450.89	-0.0171649
7460.7	-0.0173271
7470.51	-0.0173411
7480.32	-0.0172068
7490.13	-0.0169255
7500.92	-0.0164499
7510.73	-0.0158713
7520.54	-0.0151591
7530.34	-0.01432
7540.15	-0.0133619
7550.94	-0.0121806
7560.75	-0.0110011
7570.56	-0.00973145
7580.37	-0.00838245
7590.18	-0.00696545
7600.97	-0.00534237
7610.78	-0.00382169
7620.59	-0.00227111
7630.4	-0.0007035
7640.21	0.000868169
7650.01	0.00243101
7660.8	0.00412483
7670.61	0.00562836
7680.42	0.00708518
7690.23	0.00848425
7700.04	0.00981532
7710.83	0.0111898
7720.64	0.0123489
7730.45	0.0134145
7740.26	0.0143806
7750.07	0.0152427
7760.86	0.0160668
7770.67	0.0167011
7780.48	0.0172255
7790.28	0.0176408
7800.09	0.0179494
7810.88	0.0181701
7820.69	0.018268
7830.5	0.0182745
7840.31	0.0181971
7850.12	0.0180439
7860.91	0.0177987
7870.72	0.0175166
7880.53	0.0171883
7890.34	0.0168238
7900.15	0.0164329
7910.94	0.0159834
7920.75	0.0155665
7930.55	0.0151495
7940.36	0.0147391
7950.17	0.0143407
7960.96	0.0139212
7970.77	0.0135599
7980.58	0.0132193
7990.39	0.0128996
8000.2	0.0125999
8010.01	0.0123182
8020.8	0.0120256
8030.61	0.0117712
8040.42	0.0115234
8050.23	0.0112773
8060.04	0.0110279
8070.83	0.0107434
8080.63	0.01047
8090.44	0.0101773
8100.25	0.00986044
8110.06	0.00951508
8120.85	0.0090974
8130.66	0.00867943
8140.47	0.00822179
8150.28	0.0077218
8160.09	0.00717725
8170.88	0.00652468
8180.69	0.00588129
8190.5	0.00518919
8200.31	0.00444784
8210.11	0.00365706
8220.9	0.00273031
8230.71	0.00183662
8240.52	0.000894991
8250.33	-9.34985e-05
8260.14	-0.00112754
8270.93	-0.00231576
8280.74	-0.00344027
8290.55	-0.00460513
8300.36	-0.00580847
8310.17	-0.00704849
8320.96	-0.00845287
8330.77	-0.00976472
8340.58	-0.0111089
8350.38	-0.0124847
8360.19	-0.0138919
8370	-0.0153307
8380.79	-0.0169512
8390.6	-0.0184601
8400.41	-0.020005
8410.22	-0.0215883
8420.03	-0.0232127
8430.82	-0.0250504
8440.63	-0.0267707
8450.44	-0.0285414
8460.25	-0.0303651
8470.05	-0.0322443
8480.84	-0.034378
8490.65	-0.0363793
8500.46	-0.0384399
8510.27	-0.0405591
8520.08	-0.0427352
8530.87	-0.0451911
8540.68	-0.0474755
8550.49	-0.0498034
8560.3	-0.0521675
8570.11	-0.0545589
8580.9	-0.0572087
8590.7	-0.0596225
8600.51	-0.0620272
8610.32	-0.0644086
8620.13	-0.0667513
8630.92	-0.0692639
8640.73	-0.0714713
8650.54	-0.0735878
8660.35	-0.0755957
8670.16	-0.0774779
8680.95	-0.0793829
8690.76	-0.0809465
8700.57	-0.0823342
8710.37	-0.0835316
8720.18	-0.0845255
8730.97	-0.0853699
8740.78	-0.0859001
8750.59	-0.0861954
8760.4	-0.0862488
8770.21	-0.0860548
8780.02	-0.0856098
8790.81	-0.0848278
8800.62	-0.0838504
8810.43	-0.0826202
8820.23	-0.0811397
8830.04	-0.0794127
8840.83	-0.0772344
8850.64	-0.0750078
