0	0
12.9699	0
25.9396	0
32.4244	0
45.3939	0
51.8787	0
64.8481	0
71.3328	0
84.3023	0
90.787	0
103.757	0
110.241	0
123.211	0
136.181	0
142.666	0
155.636	0
162.121	0
174.847	0
181.21	0
193.936	0
200.299	0
213.025	0
225.751	1.81899e-12
232.114	2.72848e-12
244.84	4.54747e-12
251.203	5.45697e-12
263.991	9.09495e-12
270.417	1.09139e-11
283.267	1.63709e-11
296.118	2.45564e-11
302.543	3.00133e-11
315.335	4.36557e-11
321.76	5.18412e-11
334.61	7.18501e-11
341.036	8.4583e-11
353.886	1.15506e-10
360.311	1.34605e-10
373.162	1.80989e-10
385.899	2.41016e-10
392.269	2.77396e-10
405.011	3.64707e-10
411.076	4.1382e-10
423.818	5.37511e-10
430.189	6.1118e-10
442.93	7.84894e-10
455.672	1.00226e-09
462.043	1.12959e-09
474.494	1.42154e-09
480.72	1.59162e-09
493.01	1.98088e-09
505.462	2.45836e-09
511.687	2.73394e-09
523.955	3.35785e-09
530.18	3.71983e-09
542.632	4.54747e-09
555.083	5.53155e-09
561.308	6.08998e-09
573.561	7.33326e-09
585.614	8.76571e-09
591.641	9.56788e-09
603.695	1.13641e-08
615.748	1.34414e-08
621.775	1.45965e-08
633.828	1.71631e-08
645.882	2.01053e-08
651.908	2.17306e-08
663.962	2.53194e-08
676.015	2.94003e-08
682.042	3.16431e-08
694.095	3.65681e-08
700.122	3.92665e-08
712.175	4.51764e-08
724.228	5.18321e-08
730.243	5.54564e-08
742.296	6.33754e-08
754.349	7.22257e-08
760.376	7.70206e-08
772.429	8.73879e-08
784.482	9.88457e-08
790.509	1.05002e-07
802.562	1.1821e-07
814.615	1.32667e-07
820.641	1.40386e-07
832.682	1.56834e-07
844.723	1.74716e-07
850.749	1.84229e-07
862.802	2.04428e-07
874.855	2.26239e-07
880.882	2.37766e-07
892.935	2.62094e-07
904.973	2.88125e-07
910.985	3.01789e-07
923.01	3.30466e-07
935.034	3.60984e-07
941.046	3.76949e-07
953.07	4.10327e-07
965.094	4.45683e-07
971.106	4.64125e-07
983.13	5.02582e-07
995.154	5.4321e-07
1001.17	5.64368e-07
1013.19	6.08438e-07
1025.21	6.54951e-07
1031.23	6.79165e-07
1043.25	7.29606e-07
1055.27	7.8287e-07
1061.29	8.1062e-07
1073.31	8.68486e-07
1085.33	9.297e-07
1091.35	9.61642e-07
1103.37	1.02837e-06
1115.39	1.09916e-06
1121.41	1.13618e-06
1133.43	1.21371e-06
1145.45	1.29623e-06
1151.47	1.3395e-06
1163.49	1.43036e-06
1175.51	1.5274e-06
1181.52	1.57841e-06
1193.55	1.68577e-06
1205.57	1.80077e-06
1211.58	1.86134e-06
1223.61	1.98906e-06
1235.63	2.12616e-06
1241.64	2.19848e-06
1253.67	2.35114e-06
1265.69	2.51524e-06
1271.7	2.60186e-06
1283.73	2.78484e-06
1295.75	2.98164e-06
1301.76	3.08556e-06
1313.79	3.30511e-06
1325.81	3.54127e-06
1331.82	3.66596e-06
1343.84	3.92937e-06
1355.87	4.21261e-06
1361.88	4.36211e-06
1373.9	4.67782e-06
1385.93	5.01711e-06
1391.94	5.19612e-06
1403.96	5.57395e-06
1415.99	5.97972e-06
1422	6.19368e-06
1434.02	6.64551e-06
1440.03	6.88451e-06
1452.06	7.39056e-06
1464.08	7.936e-06
1470.09	8.22416e-06
1482.11	8.83247e-06
1494.14	9.48481e-06
1500.15	9.82797e-06
1512.17	1.05492e-05
1524.2	1.13181e-05
1530.21	1.17209e-05
1542.23	1.2564e-05
1554.25	1.34586e-05
1560.27	1.39256e-05
1572.29	1.49004e-05
1584.31	1.5931e-05
1590.32	1.64678e-05
1602.35	1.75862e-05
1614.37	1.87661e-05
1620.38	1.938e-05
1632.41	2.06575e-05
1644.43	2.2004e-05
1650.44	2.27043e-05
1662.46	2.41612e-05
1674.49	2.56967e-05
1680.5	2.64954e-05
1692.52	2.81575e-05
1704.54	2.99104e-05
1710.56	3.08226e-05
1722.58	3.27222e-05
1734.5	3.47095e-05
1740.4	3.57349e-05
1752.22	3.78703e-05
1764.03	4.01244e-05
1775.84	4.25046e-05
1781.75	4.37445e-05
1793.56	4.63289e-05
1805.37	4.90593e-05
1811.28	5.04815e-05
1823.09	5.34434e-05
1834.9	5.65667e-05
1840.81	5.81906e-05
1852.67	6.15793e-05
1864.53	6.51434e-05
1870.46	6.69927e-05
1882.32	7.08291e-05
1894.18	7.48534e-05
1900.1	7.69377e-05
1911.96	8.12542e-05
1923.82	8.5773e-05
1935.68	9.05004e-05
1941.61	9.29445e-05
1953.47	9.79983e-05
1965.33	0.00010328
1971.26	0.000106008
1983.12	0.000111648
1994.98	0.000117538
2000.91	0.000120581
2012.77	0.000126869
2024.63	0.000133437
2030.56	0.00013683
2042.41	0.000143844
2054.27	0.000151173
2060.2	0.00015496
2072.06	0.000162791
2083.92	0.000170977
2095.78	0.000179537
2101.71	0.000183962
2113.57	0.000193117
2125.43	0.000202693
2131.36	0.000207646
2143.22	0.000205415
2155.08	0.000203852
2161.01	0.000203305
2172.86	0.000202648
2184.72	0.000202543
2190.65	0.000202686
2202.51	0.000203343
2214.37	0.000204473
2220.3	0.000205207
2232.16	0.000207003
2244.02	0.000209222
2255.88	0.000211851
2261.81	0.000213317
2273.66	0.000216546
2285.52	0.000220171
2291.45	0.000222131
2303.31	0.000226348
2315.17	0.000230963
2321.1	0.000233421
2332.93	0.000238633
2344.79	0.000244272
2350.72	0.000247252
2362.58	0.000253538
2374.44	0.000260273
2380.37	0.000263814
2392.23	0.000271252
2404.09	0.000279182
2410.02	0.000283337
2421.87	0.000292042
2433.73	0.000301291
2445.57	0.000311084
2451.47	0.000316189
2463.33	0.000326896
2475.19	0.000338231
2481.12	0.000344143
2492.98	0.000356473
2504.83	0.000369501
2510.76	0.000376295
2522.57	0.000390351
2534.33	0.000404995
2540.21	0.000412545
2551.96	0.000428077
2563.72	0.000444168
2575.48	0.000460803
2581.36	0.000469323
2593.11	0.000486767
2604.87	0.000504756
2610.75	0.000513959
2622.5	0.000532791
2634.26	0.000552212
2640.14	0.00056215
2651.9	0.000582504
2663.65	0.000603522
2675.41	0.000625244
2681.29	0.000636384
2693.04	0.000659251
2704.8	0.000682947
2710.68	0.000695124
2722.44	0.000720175
2734.19	0.000746207
2740.07	0.000759611
2751.83	0.000787234
2763.58	0.000815997
2775.34	0.000845961
2781.22	0.000861413
2792.97	0.000893295
2804.73	0.000926533
2810.61	0.000943681
2822.37	0.000979074
2834.12	0.00101599
2840	0.00103504
2851.76	0.00107437
2863.51	0.00111542
2875.27	0.00120686
2881.15	0.00125238
2892.9	0.00134275
2904.65	0.00143201
2910.52	0.00147622
2922.27	0.00156385
2934.02	0.0016506
2945.77	0.00173678
2951.65	0.00177977
2963.4	0.00186582
2975.15	0.00195233
2981.03	0.00199591
2992.78	0.00208405
3004.53	0.00217389
3010.4	0.00221963
3022.15	0.00231304
3033.9	0.00240947
3045.65	0.00250946
3051.53	0.00256094
3063.28	0.00266719
3075.03	0.00277785
3080.9	0.00283469
3092.66	0.00295096
3104.41	0.00307038
3110.28	0.00313121
3122.03	0.00325516
3133.78	0.00338232
3145.53	0.00351304
3151.41	0.00357989
3163.16	0.00371695
3174.91	0.00385911
3180.78	0.00393236
3192.53	0.00408374
3204.28	0.00424234
3210.16	0.0043246
3221.91	0.00449551
3233.66	0.00467561
3245.41	0.00508215
3251.29	0.00527812
3263.04	0.00565449
3274.79	0.0060126
3280.66	0.00618651
3292.41	0.00652837
3304.16	0.00686862
3310.04	0.00704054
3321.79	0.00739262
3333.54	0.00776156
3345.29	0.00815316
3351.16	0.00835627
3362.91	0.00877416
3374.66	0.00920789
3380.54	0.00943168
3392.29	0.00989679
3404.04	0.0103922
3415.79	0.0109277
3421.66	0.0115083
3433.41	0.0126475
3445.16	0.0137329
3451.04	0.0142694
3462.79	0.0153713
3474.54	0.0165574
3480.41	0.0171936
3492.16	0.0185632
3503.91	0.0200649
3515.66	0.0232008
3521.54	0.0245897
3533.29	0.0272186
3545.04	0.0297816
3550.92	0.0310621
3562.67	0.0336336
3574.42	0.0362214
3580.29	0.037522
3592.04	0.0401408
3603.79	0.0427929
3615.54	0.0454923
3621.42	0.0468629
3633.17	0.0496494
3644.92	0.0525
3650.79	0.0539516
3662.54	0.056915
3674.29	0.059971
3680.17	0.0615384
3691.92	0.0647603
3703.67	0.0681065
3715.42	0.0715828
3721.29	0.0733706
3733.04	0.0770459
3744.79	0.0808536
3750.67	0.0828067
3762.42	0.0868111
3774.17	0.0909458
3780.04	0.093062
3791.79	0.097393
3803.54	0.101857
3815.29	0.106457
3821.17	0.108809
3832.92	0.113618
3844.67	0.11857
3850.54	0.1211
3862.29	0.126268
3874.04	0.131578
3885.79	0.137028
3891.67	0.139805
3903.42	0.145459
3915.17	0.151241
3921.04	0.154179
3932.79	0.160145
3944.54	0.166225
3950.42	0.169306
3962.17	0.175546
3973.92	0.181885
3985.67	0.188317
3991.54	0.191566
4003.29	0.198125
4015.04	0.20476
4020.92	0.208103
4032.67	0.214836
4044.42	0.221621
4050.29	0.225031
4062.04	0.231874
4073.79	0.238738
4085.54	0.245609
4091.42	0.249041
4103.17	0.255889
4114.92	0.262699
4120.79	0.266084
4132.54	0.2728
4144.29	0.279427
4150.17	0.2827
4161.92	0.289151
4173.67	0.295455
4185.42	0.301588
4191.3	0.304583
4203.05	0.310413
4214.8	0.316008
4220.67	0.318709
4232.42	0.323901
4244.17	0.328792
4250.05	0.331116
4261.8	0.335505
4273.55	0.339526
4285.3	0.343152
4291.17	0.34481
4302.92	0.3478
4314.68	0.350335
4320.55	0.351425
4332.3	0.353236
4344.05	0.354538
4355.8	0.355311
4361.68	0.355495
4373.55	0.355441
4385.55	0.354797
4391.55	0.354247
4403.55	0.352683
4415.55	0.350492
4421.55	0.349157
4433.55	0.346005
4445.55	0.342203
4451.55	0.340057
4463.55	0.335272
4475.55	0.329829
4481.55	0.32686
4493.55	0.320432
4505.55	0.31335
4511.55	0.309566
4523.55	0.301518
4535.55	0.292836
4541.55	0.288261
4553.55	0.278653
4565.54	0.268444
4571.54	0.26312
4583.54	0.252044
4595.54	0.240413
4601.54	0.234396
4613.54	0.221973
4625.54	0.209052
4631.54	0.202414
4643.54	0.188799
4655.54	0.174753
4661.54	0.167577
4673.54	0.152941
4685.54	0.137973
4691.54	0.13036
4703.54	0.114822
4715.54	0.0989111
4721.54	0.090874
4733.54	0.0748035
4745.54	0.0589589
4751.54	0.0511925
4763.54	0.0360787
4775.54	0.0166037
4781.54	0.00836955
4793.54	-0.00645738
4805.54	-0.0195402
4811.54	-0.0255471
4823.54	-0.0366229
4835.54	-0.0465756
4841.54	-0.0511715
4853.54	-0.0443941
4865.54	-0.0504479
4871.54	-0.0535876
4883.54	-0.0620855
4895.54	-0.0694133
4901.54	-0.0727723
4913.54	-0.0790558
4925.54	-0.0849108
4931.54	-0.0877151
4943.54	-0.0931165
4955.54	-0.0980045
4961.54	-0.100287
4973.54	-0.104317
4985.54	-0.108037
4991.54	-0.109798
5003.57	-0.113157
5015.62	-0.116329
5021.65	-0.11785
5033.7	-0.120781
5045.74	-0.123574
5051.77	-0.113677
5063.82	-0.116376
5075.87	-0.118509
5081.9	-0.119846
5093.95	-0.123226
5106.01	-0.12615
5112.03	-0.127443
5124.09	-0.129746
5130.11	-0.130773
5142.14	-0.132619
5154.16	-0.134241
5160.17	-0.134986
5172.2	-0.136363
5184.22	-0.137607
5190.23	-0.138187
5202.26	-0.139271
5214.28	-0.140266
5220.29	-0.140735
5232.32	-0.141621
5244.34	-0.142291
5250.35	-0.142625
5262.38	-0.143313
5274.4	-0.144008
5280.41	-0.144321
5292.44	-0.144927
5304.46	-0.145504
5310.48	-0.145781
5322.5	-0.146311
5334.52	-0.146809
5340.54	-0.147045
5352.56	-0.14749
5364.58	-0.147899
5370.6	-0.14809
5382.62	-0.148445
5394.64	-0.148762
5400.66	-0.148907
5412.68	-0.149171
5424.7	-0.145833
5430.72	-0.14506
5442.74	-0.145442
5454.76	-0.145737
5460.78	-0.145867
5472.8	-0.146096
5484.82	-0.146284
5490.84	-0.146363
5502.86	-0.146488
5514.88	-0.146563
5520.9	-0.146583
5532.92	-0.14659
5544.94	-0.146557
5550.96	-0.146526
5562.98	-0.146438
5575	-0.146315
5581.02	-0.146242
5593.04	-0.146074
5605.06	-0.145878
5611.08	-0.145771
5623.1	-0.145536
5635.12	-0.145276
5641.14	-0.145137
5653.16	-0.144841
5665.18	-0.144521
5671.2	-0.144352
5683.22	-0.143997
5695.25	-0.143618
5701.26	-0.14342
5713.28	-0.143008
5725.31	-0.142574
5731.32	-0.142349
5743.34	-0.141883
5755.37	-0.141405
5761.38	-0.141163
5773.4	-0.140673
5785.43	-0.140173
5791.44	-0.139919
5803.46	-0.1394
5815.49	-0.138865
5821.5	-0.138595
5833.52	-0.138052
5845.55	-0.137504
5851.56	-0.137228
5863.58	-0.136671
5875.61	-0.136073
5881.62	-0.13577
5893.64	-0.135153
5905.67	-0.134524
5911.68	-0.134205
5923.7	-0.133559
5935.73	-0.1329
5941.74	-0.132566
5953.76	-0.13189
5965.79	-0.131203
5971.8	-0.130855
5983.82	-0.130152
5995.85	-0.129437
6001.86	-0.129076
6013.88	-0.128344
6025.91	-0.127603
6031.92	-0.127228
6043.94	-0.12647
6055.97	-0.125701
6061.98	-0.125313
6073.9	-0.124535
6085.71	-0.123754
6091.62	-0.12336
6103.43	-0.122564
6115.24	-0.121759
6121.15	-0.121352
6132.96	-0.120533
6144.77	-0.119703
6150.68	-0.119285
6162.49	-0.118442
6174.3	-0.120554
6180.21	-0.120321
6192.02	-0.119842
6203.83	-0.11935
6215.65	-0.118719
6221.55	-0.118402
6233.37	-0.117767
6245.2	-0.117128
6251.13	-0.116807
6262.99	-0.116163
6274.85	-0.115517
6280.78	-0.115193
6292.64	-0.114544
6304.5	-0.113892
6310.43	-0.113564
6322.29	-0.112907
6334.15	-0.112246
6340.08	-0.111914
6351.93	-0.111245
6363.79	-0.110572
6375.65	-0.109893
6381.58	-0.109551
6393.44	-0.108863
6405.3	-0.108168
6411.23	-0.107818
6423.09	-0.107112
6434.95	-0.106398
6440.88	-0.106038
6452.74	-0.105311
6464.6	-0.104574
6470.53	-0.104203
6482.39	-0.103452
6494.25	-0.102691
6500.18	-0.102306
6512.03	-0.101529
6523.89	-0.100741
6535.75	-0.0999416
6541.68	-0.0995377
6553.54	-0.0987211
6565.4	-0.0975301
6571.33	-0.096753
6583.19	-0.0952075
6595.05	-0.0936793
6600.98	-0.092923
6612.84	-0.0914274
6624.7	-0.0899554
6630.63	-0.0892281
6642.49	-0.0877902
6654.35	-0.086373
6660.28	-0.0856715
6672.14	-0.0842807
6683.99	-0.0829042
6695.85	-0.0815388
6701.78	-0.0808595
6713.64	-0.0795056
6725.5	-0.0781558
6731.43	-0.0774817
6743.29	-0.0761331
6755.15	-0.0747823
6761.08	-0.0741054
6772.94	-0.0727474
6784.8	-0.0713821
6790.73	-0.0706962
6802.59	-0.0693171
6814.45	-0.0679271
6820.38	-0.0672277
6832.24	-0.0658236
6844.09	-0.0644177
6850.02	-0.0637154
6861.88	-0.0623132
6873.74	-0.0609152
6885.6	-0.0595215
6891.53	-0.0588258
6903.39	-0.0574359
6915.25	-0.0560459
6921.18	-0.05535
6933.04	-0.0539546
6944.9	-0.0525517
6950.83	-0.0518465
6962.69	-0.0504274
6974.55	-0.0489945
6980.48	-0.0482724
6992.34	-0.0468156
7004.2	-0.0446004
7010.12	-0.0431786
7021.98	-0.0404899
7033.84	-0.0380007
7045.7	-0.0356819
7051.63	-0.0345743
7063.49	-0.0324364
7075.35	-0.0303687
7081.28	-0.02935
7093.14	-0.0273235
7105	-0.0252909
7110.93	-0.0242658
7122.79	-0.0221884
7134.65	-0.020077
7140.58	-0.0190143
7152.44	-0.0168867
7164.3	-0.0147582
7170.23	-0.0136917
7182.08	-0.0115461
7193.94	-0.00937115
7205.8	-0.00715081
7211.73	-0.00605445
7223.59	-0.0022749
7235.45	0.00134399
7241.38	0.00308719
7253.24	0.00647821
7265.1	0.00982676
7271.03	0.0115085
7282.89	0.014904
7294.75	0.0183313
7300.68	0.0200463
7312.54	0.0257738
7324.4	0.0306855
7330.33	0.03292
7342.19	0.0370182
7354.04	0.0406621
7365.9	0.0438722
7371.83	0.04532
7383.69	0.0479186
7395.55	0.0501538
7401.48	0.0511495
7413.34	0.0529276
7425.2	0.0544578
7431.13	0.0551392
7442.99	0.0563501
7454.85	0.0573837
7460.78	0.0578457
7472.64	0.058686
7484.5	0.0594478
7490.43	0.0598096
7502.29	0.0605093
7514.15	0.0611867
7520.08	0.061518
7531.93	0.0621624
7543.77	0.0627749
7555.62	0.0633441
7561.54	0.0636087
7573.39	0.0640917
7585.23	0.0645074
7591.15	0.0646891
7603	0.0650006
7614.85	0.0652475
7620.77	0.0653489
7632.61	0.0655132
7644.46	0.0656325
7650.38	0.0656773
7662.23	0.0657392
7674.07	0.0657649
7685.91	0.0657523
7691.83	0.0657303
7703.68	0.0656513
7715.52	0.0655205
7721.45	0.0654338
7733.29	0.0652143
7745.14	0.0649304
7751.06	0.0647636
7762.91	0.0643801
7774.75	0.0639319
7780.67	0.0636849
7792.52	0.0631487
7804.36	0.0625632
7810.29	0.0622549
7822.13	0.0616136
7833.98	0.0609481
7845.82	0.0602691
7851.75	0.0599276
7863.59	0.0592462
7875.43	0.0585736
7881.35	0.0582423
7893.1	0.0575981
7904.85	0.0569745
7910.73	0.056671
7922.48	0.0560816
7934.23	0.0555155
7940.1	0.055241
7951.85	0.0547081
7963.61	0.0541947
7975.36	0.053698
7981.23	0.053455
7992.98	0.052977
8004.73	0.0525063
8010.61	0.0522724
8022.36	0.0518046
8034.11	0.0513326
8045.86	0.0508518
8051.73	0.0506065
8063.48	0.0501035
8075.24	0.0495802
8081.11	0.0493096
8092.86	0.0487485
8104.61	0.048158
8110.49	0.047851
8122.24	0.0472121
8133.99	0.0465389
8145.74	0.0458306
8151.61	0.0454633
8163.36	0.0447023
8175.11	0.043907
8180.99	0.0434968
8192.74	0.0426524
8204.49	0.0417773
8210.37	0.0413288
8222.12	0.0404111
8233.87	0.0394677
8245.62	0.0385005
8251.49	0.0380086
8263.24	0.0370091
8274.99	0.0359901
8280.87	0.0354735
8292.62	0.034427
8304.37	0.0333626
8310.25	0.0328236
8322	0.0317312
8333.75	0.0306177
8345.5	0.0294797
8351.37	0.0289003
8363.12	0.027717
8374.87	0.0264956
8380.75	0.0258683
8392.5	0.0245753
8404.25	0.0232256
8410.13	0.0225278
8421.88	0.0210608
8433.63	0.0194733
8445.38	0.0177711
8451.25	0.0168877
8463	0.0150825
8474.75	0.0127122
8480.63	0.0114736
8492.38	0.00926872
8504.13	0.00732681
8510	0.00642355
8521.76	0.00472162
8533.51	0.00313865
8545.26	0.0016608
8551.13	0.000958305
8562.88	0.00181078
8574.63	0.000474288
8580.51	-0.000244294
8592.26	-0.0015528
8604.01	-0.00275528
8615.76	-0.00390518
8621.63	-0.00447051
8633.39	-0.00559082
8645.14	-0.00669899
8651.01	-0.00725462
8662.76	-0.00832642
8674.51	-0.0092988
8680.39	-0.00975647
8692.14	-0.0106283
8703.89	-0.0114559
8715.64	-0.0122512
8721.51	-0.0126395
8733.26	-0.0109265
8745.02	-0.0115991
8750.89	-0.0117564
8762.64	-0.0125886
8774.39	-0.0134385
8780.27	-0.0138398
8792.02	-0.0145777
8803.77	-0.0152474
8815.52	-0.0158676
8821.39	-0.0161642
8833.14	-0.0167386
8844.89	-0.0172949
8850.77	-0.0175691
8862.52	-0.0181259
8874.27	-0.0186881
8880.15	-0.0189661
8891.9	-0.0195168
8903.65	-0.0200703
8915.4	-0.020626
8921.27	-0.0209036
8933.02	-0.0214566
8944.77	-0.0221017
8950.65	-0.0224102
8962.4	-0.0230026
8974.15	-0.023566
8980.03	-0.0238379
8991.78	-0.0243639
9003.53	-0.0248657
9015.28	-0.0253404
9021.15	-0.0255688
9032.9	-0.0260098
9044.65	-0.0264316
9050.53	-0.0266357
9062.28	-0.0258628
9074.03	-0.0261733
9085.78	-0.0264661
9091.66	-0.0266054
9103.41	-0.02687
9115.16	-0.0271163
9121.03	-0.0272329
9132.78	-0.0274531
9144.53	-0.0276548
9150.41	-0.0277471
9162.16	-0.0279157
9173.91	-0.0280647
9185.66	-0.0281957
9191.54	-0.0282549
9203.29	-0.0283617
9215.04	-0.0284541
9220.91	-0.0284953
9232.66	-0.0285685
9244.41	-0.0286301
9250.29	-0.0286569
9262.04	-0.0287029
9273.79	-0.0287397
9285.54	-0.0287679
9291.42	-0.0287794
9303.17	-0.028798
9314.92	-0.0288105
9320.79	-0.0288144
9332.54	-0.0288179
9344.29	-0.0288155
9350.17	-0.0288122
9361.92	-0.0288016
9373.67	-0.0287867
9385.42	-0.0287676
9391.29	-0.0287565
9403.05	-0.0287311
9414.8	-0.0287014
9420.67	-0.0286849
9432.42	-0.0286487
9444.17	-0.0286082
9450.05	-0.0285863
9461.8	-0.0285395
9473.55	-0.0284885
9485.3	-0.0284335
9491.17	-0.0284044
9502.92	-0.0283641
9514.68	-0.0283373
9520.55	-0.0283209
9532.3	-0.0282821
9544.05	-0.028236
9555.8	-0.0281829
9561.68	-0.0281539
9573.43	-0.0280909
9585.18	-0.0280217
9591.05	-0.0279849
9602.8	-0.0279067
9614.56	-0.0278228
9620.43	-0.0277788
9632.18	-0.0276866
9643.93	-0.0275889
9655.68	-0.027486
9661.56	-0.0274325
9673.31	-0.0273217
9685.06	-0.0272057
9690.93	-0.0271458
9702.68	-0.0270223
9714.43	-0.0268939
9720.31	-0.0256853
9732.06	-0.0250921
9743.81	-0.0249343
9755.56	-0.0247746
9761.44	-0.024694
9773.19	-0.0245313
9784.94	-0.0243664
9790.81	-0.0242831
9802.56	-0.0241149
9814.31	-0.0239444
9820.19	-0.0238582
9831.94	-0.023684
9843.69	-0.0235074
9855.44	-0.0233282
9861.32	-0.0232377
9873.07	-0.0230546
9884.82	-0.022869
9890.69	-0.0227751
9902.44	-0.0225855
9914.19	-0.0223932
9920.07	-0.0222961
9931.82	-0.0220998
9943.57	-0.0219007
9955.32	-0.0216983
9961.2	-0.0215959
9972.95	-0.0213887
9984.7	-0.0211786
9990.57	-0.0210724
10002.3	-0.0208579
10014.1	-0.0206406
10025.8	-0.0204206
10031.7	-0.0203096
10043.4	-0.0200858
10055.2	-0.0198594
10061.1	-0.0197453
10072.8	-0.0195153
10084.6	-0.0192831
10090.5	-0.0191661
10102.2	-0.0189306
10114	-0.0186929
10125.7	-0.0184533
10131.6	-0.0183327
10143.3	-0.0180902
10155.1	-0.0178458
10161	-0.017723
10172.7	-0.017476
10184.5	-0.0172274
10190.3	-0.0171026
10202.1	-0.0168516
10213.8	-0.0165993
10225.6	-0.0163455
10231.5	-0.0162181
10243.2	-0.0159623
10255	-0.0157052
10260.8	-0.0155762
10272.6	-0.0153174
10284.3	-0.0150573
10290.2	-0.0149268
10302	-0.0146649
10313.7	-0.0144018
10325.5	-0.0141376
10331.3	-0.0140051
10343.1	-0.0137393
10354.8	-0.0134725
10360.7	-0.0133388
10372.5	-0.0130706
10384.2	-0.0128016
10390.1	-0.0126668
10401.8	-0.0123966
10413.6	-0.0121263
10425.3	-0.0118561
10431.2	-0.011721
10443	-0.0114508
10454.7	-0.0111806
10460.6	-0.0110456
10472.3	-0.0107756
10484.1	-0.0105056
10495.8	-0.0102357
10501.7	-0.0101009
10513.5	-0.00983122
10525.2	-0.00956174
10531.1	-0.00942708
10542.8	-0.00915794
10554.6	-0.00887365
10560.5	-0.00872437
10572.2	-0.00842736
10584	-0.00813239
10595.7	-0.00783943
10601.6	-0.00769369
10613.4	-0.00740367
10625.1	-0.00711559
10631	-0.00697226
10642.7	-0.00668704
10654.5	-0.00640372
10660.4	-0.00626277
10672.4	-0.00597634
10684.4	-0.00569189
10690.4	-0.0055504
10702.4	-0.00526892
10714.4	-0.00498925
10720.4	-0.00484992
10732.5	-0.00456982
10744.6	-0.00429127
10750.6	-0.00415261
10763	-0.00387055
10775.6	-0.00358439
10782	-0.00344208
10794.6	-0.00315905
10800.9	-0.00301836
10813.5	-0.00273869
10826.2	-0.00246138
10832.7	-0.00231924
10845.7	-0.00203694
10852.3	-0.00189682
10865.3	-0.00161868
10871.8	-0.00148069
10884.9	-0.00120689
10891.4	-0.00107112
10904.4	-0.000801864
10910.9	-0.000668402
10924	-0.00040386
10930.5	-0.000272798
10943.7	-1.00073e-05
10950.4	0.000121662
10963.7	0.000382334
10970.4	0.000511317
10983.8	0.000766733
10990.5	0.000893335
11003.8	0.00114421
11010.5	0.00126844
11023.8	0.00151436
11030.5	0.00163602
11043.9	0.00187663
11050.6	0.00199554
11063.9	0.00223049
11070.6	0.00234649
11083.9	0.00257547
11090.6	0.00268842
11104	0.00291114
11110.7	0.0030209
11124	0.00323712
11130.7	0.00334356
11144.1	0.00355304
11150.7	0.00365606
11164.1	0.00385861
11170.8	0.00395811
11184.1	0.00415354
11190.8	0.00424944
11204.2	0.00443759
11210.8	0.00452982
11224.2	0.00471056
11230.9	0.00479905
11244.2	0.00497223
11250.9	0.0050569
11264.3	0.00522237
11270.9	0.00530316
11284.3	0.00546081
11291	0.00553767
11304.3	0.0056874
11311	0.00576028
11324.4	0.00590204
11331	0.00597092
11344.4	0.00610465
11351.1	0.00616951
11364.4	0.00629519
11371.1	0.00635602
11384.5	0.00647364
11391.1	0.00653036
11404.6	0.00664045
11411.3	0.00669347
11424.7	0.00679545
11431.4	0.00684462
11444.9	0.0069389
11451.6	0.00698402
11465.1	0.0070702
11471.9	0.00711128
11485.3	0.00718944
11492.1	0.00722652
11505.6	0.00729673
11512.3	0.00732987
11525.8	0.00739225
11532.5	0.0074215
11546	0.00747615
11552.7	0.00750157
11566.2	0.00754861
11572.9	0.00757025
11586.4	0.00760982
11593.2	0.00762775
11606.6	0.00765995
11613.4	0.00767423
11620.1	0.00768731
11633.6	0.0077099
11640.3	0.00771942
11653.8	0.00773495
11660.5	0.00774097
11674	0.00774958
11680.8	0.00775218
11694.2	0.00775401
11701	0.00775326
11714.4	0.00774845
11721.2	0.00774442
11734.7	0.00773312
11741.4	0.00772587
11754.9	0.00770823
11761.6	0.00769784
11775.1	0.007674
11781.8	0.00766056
11795.3	0.00763066
11802	0.00761423
11815.5	0.00757845
11822.3	0.00755911
11835.7	0.00751758
11842.5	0.0074954
11856	0.00744828
11862.7	0.00742335
11876.2	0.00737079
11882.9	0.00734318
11896.4	0.00728534
11903.1	0.00725512
11916.6	0.00719215
11923.3	0.00715941
11930.1	0.00712584
11943.6	0.00705626
11950.3	0.00702027
11963.8	0.00694592
11970.5	0.00690758
11984	0.0068286
11990.7	0.00678799
