0	0
11.3033	0
22.6065	0
31.0838	0
42.3869	0
50.8641	0
62.1669	0
70.6439	0
81.9465	0
90.4234	0
101.726	0
110.203	0
121.505	0
132.737	0
141.094	0
152.192	0
160.521	0
171.63	0
182.735	0
191.063	0
202.167	0
210.496	0
221.564	0
232.632	0
240.933	0
252.006	0
260.312	0
271.387	0
282.461	1.81899e-12
290.767	4.54747e-12
301.841	9.09495e-12
310.147	1.45519e-11
321.221	2.45564e-11
332.296	4.00178e-11
340.601	5.45697e-11
351.65	8.00355e-11
362.725	1.12777e-10
370.961	1.42791e-10
381.898	1.91903e-10
390.1	2.35559e-10
401.036	3.065e-10
411.946	3.91992e-10
422.652	4.93856e-10
430.681	5.82986e-10
441.386	7.2032e-10
452.117	8.83119e-10
460.18	1.02227e-09
470.922	1.23691e-09
481.55	1.48248e-09
492.114	1.76442e-09
500.037	2.0018e-09
510.589	2.36014e-09
521.129	2.7685e-09
531.669	3.23416e-09
542.191	3.76258e-09
550.077	4.20459e-09
560.592	4.86125e-09
571.116	5.60522e-09
581.648	6.44468e-09
592.181	7.39146e-09
600.08	8.17909e-09
610.612	9.34142e-09
621.144	1.06402e-08
631.677	1.20808e-08
642.209	1.36679e-08
650.108	1.49566e-08
660.64	1.68084e-08
671.172	1.88147e-08
681.704	2.09811e-08
692.202	2.32985e-08
700.07	2.51403e-08
710.56	2.77323e-08
721.063	3.04772e-08
731.562	3.33621e-08
742.06	3.63762e-08
752.557	3.95075e-08
760.431	4.19268e-08
770.929	4.52337e-08
781.426	4.86225e-08
791.924	5.20804e-08
802.422	5.5592e-08
810.295	5.8254e-08
820.793	6.18329e-08
831.291	6.54327e-08
841.788	6.90461e-08
852.286	7.26641e-08
860.159	7.53762e-08
870.657	7.89887e-08
881.154	8.25939e-08
891.652	8.61928e-08
902.149	8.97871e-08
910.022	9.24847e-08
920.52	9.60927e-08
931.017	9.97279e-08
941.515	1.03407e-07
952.012	1.07153e-07
962.51	1.10996e-07
970.383	1.13962e-07
980.88	1.18061e-07
991.377	1.2237e-07
1001.87	1.26941e-07
1012.37	1.31838e-07
1020.24	1.35766e-07
1030.74	1.41404e-07
1041.24	1.47576e-07
1051.74	1.54378e-07
1062.23	1.61911e-07
1070.11	1.68106e-07
1080.6	1.77197e-07
1091.1	1.87355e-07
1101.6	1.98726e-07
1112.1	2.11468e-07
1122.59	2.25748e-07
1130.47	2.37577e-07
1140.96	2.54997e-07
1151.46	2.74489e-07
1161.96	2.96275e-07
1172.45	3.20591e-07
1180.33	3.40637e-07
1190.82	3.6999e-07
1201.32	4.02598e-07
1211.82	4.38757e-07
1222.31	4.78779e-07
1230.19	5.11532e-07
1240.68	5.59125e-07
1251.18	6.11538e-07
1261.68	6.69157e-07
1272.17	7.32374e-07
1280.03	7.83617e-07
1290.46	8.57242e-07
1300.9	9.37629e-07
1311.33	1.02529e-06
1321.8	1.12098e-06
1332.26	1.22501e-06
1340.11	1.30886e-06
1350.58	1.42941e-06
1361.04	1.56078e-06
1371.49	1.70324e-06
1381.93	1.85709e-06
1392.37	2.02278e-06
1400.18	2.15467e-06
1410.58	2.34099e-06
1420.99	2.53959e-06
1431.4	2.7507e-06
1441.83	2.97497e-06
1452.24	3.21171e-06
1460.06	3.39829e-06
1470.49	3.65889e-06
1480.92	3.93336e-06
1491.35	4.22213e-06
1501.78	4.52574e-06
1512.21	4.84462e-06
1520.03	5.09441e-06
1530.46	5.44211e-06
1540.88	5.80692e-06
1551.11	6.18311e-06
1561.34	6.57801e-06
1571.64	6.99542e-06
1582	7.43693e-06
1592.33	7.89967e-06
1600.07	8.26193e-06
1610.39	8.76707e-06
1620.71	9.29883e-06
1631.03	9.85887e-06
1641.35	1.04489e-05
1651.67	1.10709e-05
1661.99	1.17267e-05
1672.31	1.24185e-05
1680.05	1.29622e-05
1690.37	1.37221e-05
1700.69	1.45241e-05
1711.01	1.53706e-05
1721.33	1.6264e-05
1731.65	1.72063e-05
1741.97	1.81993e-05
1752.29	1.92444e-05
1760.03	2.00633e-05
1770.35	2.1203e-05
1780.67	2.23987e-05
1790.99	2.36514e-05
1801.31	2.49624e-05
1811.62	2.63316e-05
1821.93	2.7761e-05
1832.23	2.92526e-05
1842.54	3.08092e-05
1850.28	3.20196e-05
1860.59	3.36919e-05
1870.9	3.54328e-05
1881.21	3.72443e-05
1891.53	3.91286e-05
1901.84	4.10881e-05
1912.15	4.31253e-05
1922.47	4.52431e-05
1930.2	4.68862e-05
1940.51	4.91523e-05
1950.83	5.15079e-05
1961.14	5.39563e-05
1971.45	5.65015e-05
1981.76	5.91473e-05
1992.08	6.1898e-05
2002.39	6.47579e-05
2010.12	6.69772e-05
2020.44	7.00394e-05
2030.75	7.32238e-05
2041.06	7.65359e-05
2051.37	7.9981e-05
2061.69	8.35649e-05
2072	8.19173e-05
2082.31	8.05694e-05
2090.05	7.97417e-05
2100.36	7.88668e-05
2110.67	7.82372e-05
2120.98	7.78369e-05
2131.3	7.76509e-05
2141.61	7.7666e-05
2151.92	7.78705e-05
2162.23	7.82539e-05
2172.55	7.88075e-05
2180.28	7.93296e-05
2190.59	8.0163e-05
2200.91	8.11483e-05
2211.22	8.22807e-05
2221.53	8.35568e-05
2231.84	8.4974e-05
2242.15	8.65304e-05
2252.47	8.82251e-05
2260.2	8.95868e-05
2270.51	9.15238e-05
2280.83	9.36006e-05
2291.14	9.58189e-05
2301.45	9.81814e-05
2311.76	0.000100691
2322.07	0.000103351
2332.39	0.000106166
2340.12	0.000108382
2350.43	0.000111479
2360.75	0.000114745
2371.06	0.000118185
2381.37	0.000121804
2391.68	0.000125611
2401.99	0.00012961
2412.31	0.00013381
2420.04	0.000137096
2430.35	0.000141665
2440.64	0.000146447
2450.95	0.000151458
2461.26	0.000156669
2471.57	0.000162061
2481.82	0.000167603
2492.07	0.000173312
2502.33	0.000179189
2510.03	0.00018371
2520.3	0.000189882
2530.58	0.000196219
2540.85	0.000202725
2551.12	0.000209406
2561.4	0.000216268
2571.67	0.000223319
2581.94	0.000230569
2592.22	0.000238028
2602.49	0.000245709
2610.2	0.000251622
2620.47	0.000259723
2630.74	0.000268085
2641.02	0.000276724
2651.29	0.000285657
2661.56	0.000294904
2671.84	0.000304481
2682.11	0.000314407
2692.38	0.0003247
2700.09	0.00033267
2710.36	0.000343645
2720.63	0.000355034
2730.91	0.000366855
2741.18	0.000379125
2751.45	0.000391854
2761.69	0.000405042
2771.94	0.000418734
2782.18	0.000432952
2792.43	0.000447718
2800.11	0.000459167
2810.36	0.00049101
2820.6	0.000528289
2830.85	0.000565398
2841.09	0.000602234
2851.34	0.000638759
2861.58	0.000674978
2871.83	0.00071093
2882.07	0.000746685
2892.32	0.000782334
2900	0.000809067
2910.25	0.000844803
2920.49	0.000880763
2930.74	0.000917086
2940.98	0.000953915
2951.23	0.000991397
2961.47	0.00102968
2971.72	0.00106891
2981.96	0.00110924
2992.21	0.0011508
3002.45	0.00119373
3010.13	0.00122688
3020.38	0.00127215
3030.62	0.00131849
3040.87	0.00136577
3051.11	0.00141396
3061.36	0.00146308
3071.6	0.00151318
3081.85	0.0015644
3092.09	0.00161686
3102.34	0.00167077
3110.02	0.00171227
3120.27	0.00176924
3130.51	0.00182829
3140.76	0.00188965
3151	0.00195355
3161.25	0.0020202
3171.49	0.00208983
3181.74	0.00216268
3191.98	0.00228593
3202.23	0.002451
3212.47	0.00260783
3220.15	0.00272055
3230.4	0.00286573
3240.64	0.00300711
3250.89	0.00314711
3261.13	0.00328816
3271.38	0.00343257
3281.62	0.00358245
3291.87	0.00373927
3302.11	0.0039017
3312.36	0.00406886
3320.04	0.0041975
3330.28	0.00437428
3340.53	0.00455875
3350.77	0.00475326
3361.02	0.00496023
3371.26	0.00518161
3381.51	0.00564124
3391.75	0.00608423
3401.99	0.00651402
3412.24	0.00694591
3422.48	0.00739658
3430.17	0.00775404
3440.41	0.00824743
3450.66	0.00875876
3460.9	0.00930363
3471.14	0.0101908
3481.39	0.0112122
3491.63	0.0121795
3501.88	0.0132801
3512.12	0.014509
3522.37	0.0168974
3530.05	0.018668
3540.29	0.0231591
3550.54	0.0281065
3560.78	0.0328073
3571.03	0.0371988
3581.27	0.0412833
3591.52	0.0452625
3601.76	0.0491981
3612	0.0530857
3622.25	0.0569972
3632.49	0.0610057
3640.18	0.0640513
3650.42	0.06808
3660.66	0.0720165
3670.91	0.075891
3681.15	0.0797696
3691.4	0.0836896
3701.64	0.0876679
3711.89	0.0917157
3722.13	0.0958208
3732.38	0.0999419
3740.06	0.103018
3750.3	0.107088
3760.55	0.111137
3770.79	0.11519
3781.04	0.119267
3791.28	0.123388
3801.53	0.127567
3811.77	0.131807
3822.02	0.136098
3832.26	0.140429
3842.51	0.144799
3850.19	0.148109
3860.43	0.152579
3870.68	0.157129
3880.92	0.161767
3891.17	0.166494
3901.41	0.171302
3911.66	0.176178
3921.9	0.181118
3932.15	0.186123
3942.39	0.191206
3950.08	0.19508
3960.32	0.200349
3970.57	0.205756
3980.81	0.211323
3991.06	0.217068
4001.33	0.223028
4011.6	0.22921
4021.88	0.235641
4032.15	0.242354
4042.42	0.249383
4050.13	0.254883
4060.4	0.26255
4070.67	0.270625
4080.95	0.27914
4091.22	0.288126
4101.49	0.297619
4111.77	0.307656
4122.04	0.318277
4132.31	0.329523
4140.02	0.338399
4150.31	0.350846
4160.59	0.364033
4170.88	0.377982
4181.21	0.39277
4191.56	0.408427
4201.92	0.424916
4212.28	0.442242
4220.05	0.455781
4230.51	0.474719
4240.97	0.494466
4251.43	0.514977
4261.89	0.536185
4272.36	0.558032
4280.21	0.574777
4290.68	0.597496
4301.15	0.620558
4311.63	0.643831
4322.1	0.667168
4332.57	0.690403
4340.42	0.707654
4350.9	0.730265
4361.37	0.752239
4371.84	0.773351
4382.31	0.793369
4390.16	0.807517
4400.64	0.825021
4411.11	0.840732
4421.58	0.854382
4432.05	0.865701
4442.52	0.874419
4450.38	0.879091
4460.85	0.882625
4471.32	0.882852
4481.79	0.879543
4492.27	0.872487
4500.12	0.864623
4510.59	0.850578
4521.06	0.832344
4531.53	0.809818
4542.01	0.782933
4552.48	0.751663
4560.33	0.725338
4570.8	0.686442
4581.28	0.643283
4591.75	0.595968
4602.22	0.544632
4610.07	0.503577
4620.55	0.445556
4631.02	0.383913
4641.49	0.318772
4651.96	0.250216
4662.43	0.178293
4670.29	0.121833
4680.76	0.0465068
4691.23	-0.0291225
4701.71	-0.0795466
4712.18	-0.094887
4720.03	-0.119741
4730.5	-0.149032
4740.98	-0.171723
4751.45	-0.190701
4761.92	-0.198047
4772.4	-0.215358
4780.25	-0.225668
4790.73	-0.237471
4801.2	-0.247546
4811.67	-0.256146
4822.17	-0.264238
4830.04	-0.27001
4840.54	-0.2772
4851.03	-0.269387
4861.53	-0.273203
4872.03	-0.280627
4882.53	-0.287336
4890.4	-0.29162
4900.9	-0.296494
4911.4	-0.300618
4921.89	-0.304174
4932.39	-0.307313
4940.26	-0.309464
4950.76	-0.311673
4961.26	-0.313821
4971.76	-0.315686
4982.26	-0.317552
4990.13	-0.318927
5000.63	-0.320701
5011.12	-0.32238
5021.62	-0.323942
5032.12	-0.325375
5042.62	-0.326565
5050.49	-0.318224
5060.99	-0.31957
5071.48	-0.321299
5081.98	-0.323037
5092.48	-0.324531
5100.35	-0.325492
5110.85	-0.326548
5121.34	-0.327378
5131.8	-0.328012
5142.23	-0.328467
5150.06	-0.3287
5160.5	-0.328882
5170.96	-0.328928
5181.43	-0.328854
5191.89	-0.328671
5202.36	-0.328394
5210.21	-0.328129
5220.67	-0.327709
5231.14	-0.32722
5241.6	-0.326619
5252.04	-0.325983
5262.48	-0.32532
5270.31	-0.324805
5280.75	-0.323942
5291.16	-0.323015
5301.57	-0.322075
5311.97	-0.321119
5322.37	-0.320145
5330.2	-0.3194
5340.63	-0.318388
5351.04	-0.317356
5361.47	-0.316301
5371.9	-0.315223
5382.33	-0.314125
5390.15	-0.313288
5400.58	-0.312153
5411.01	-0.310983
5421.43	-0.30979
5431.86	-0.302843
5442.29	-0.302248
5450	-0.301799
5460.23	-0.301195
5470.55	-0.300574
5480.92	-0.299941
5491.25	-0.2993
5501.56	-0.298648
5511.88	-0.297985
5522.2	-0.297313
5532.52	-0.296633
5540.26	-0.296119
5550.58	-0.29543
5560.9	-0.294735
5571.22	-0.294036
5581.54	-0.293332
5591.86	-0.292624
5602.18	-0.291912
5612.5	-0.291194
5620.24	-0.290652
5630.56	-0.289925
5640.88	-0.289193
5651.2	-0.288458
5661.52	-0.287716
5671.84	-0.286968
5682.16	-0.286212
5692.47	-0.285447
5700.2	-0.284866
5710.5	-0.284079
5720.81	-0.283277
5731.11	-0.282457
5741.42	-0.281618
5751.74	-0.280757
5762.05	-0.279872
5772.36	-0.278961
5780.1	-0.27826
5790.41	-0.277371
5800.72	-0.276457
5811.03	-0.275491
5821.35	-0.274476
5831.66	-0.273413
5841.97	-0.2723
5852.28	-0.271139
5860.02	-0.270146
5870.33	-0.268781
5880.64	-0.267371
5890.96	-0.265917
5901.27	-0.264421
5911.58	-0.262885
5921.9	-0.26131
5932.21	-0.259697
5942.52	-0.258048
5950.26	-0.256789
5960.57	-0.25508
5970.88	-0.25334
5981.19	-0.251568
5991.51	-0.249767
6001.82	-0.247937
6012.13	-0.246557
6022.45	-0.245252
6030.18	-0.24422
6040.49	-0.242784
6050.81	-0.24129
6061.12	-0.239743
6071.43	-0.238151
6081.74	-0.236517
6092.06	-0.234845
6102.37	-0.233137
6110.1	-0.231832
6120.42	-0.230064
6130.73	-0.228263
6141.04	-0.226429
6151.35	-0.224564
6161.67	-0.222668
6171.98	-0.220732
6182.29	-0.218756
6190.03	-0.217249
6200.34	-0.21521
6210.65	-0.213137
6220.96	-0.211034
6231.28	-0.208904
6241.59	-0.206757
6251.9	-0.204599
6262.22	-0.20244
6272.53	-0.200281
6280.26	-0.198665
6290.57	-0.196515
6300.89	-0.194371
6311.2	-0.192233
6321.51	-0.190098
6331.83	-0.187966
6342.14	-0.185832
6352.45	-0.183695
6360.19	-0.182088
6370.5	-0.179937
6380.81	-0.177775
6391.12	-0.175599
6401.44	-0.173407
6411.75	-0.171197
6422.06	-0.168518
6432.36	-0.164561
6440.1	-0.161681
6450.41	-0.157973
6460.69	-0.154418
6470.95	-0.150996
6481.2	-0.147668
6491.47	-0.144401
6501.74	-0.141171
6512.01	-0.137953
6522.29	-0.134725
6532.56	-0.131469
6540.26	-0.129011
6550.54	-0.125734
6560.81	-0.122467
6571.08	-0.119208
6581.36	-0.115942
6591.63	-0.11265
6601.9	-0.10931
6612.18	-0.105903
6622.45	-0.100387
6630.16	-0.0959058
6640.43	-0.0902044
6650.7	-0.0847311
6660.98	-0.0793467
6671.25	-0.0739342
6681.52	-0.068418
6691.8	-0.0628503
6702.07	-0.057348
6712.34	-0.0518671
6720.05	-0.0476961
6730.32	-0.0383347
6740.59	-0.0303568
6750.87	-0.0225415
6761.14	-0.0143306
6771.41	-0.00433869
6781.69	0.00842643
6791.96	0.0219412
6802.23	0.0439119
6812.51	0.0592437
6820.21	0.0682879
6830.48	0.0774938
6840.76	0.0835096
6851.01	0.087515
6861.25	0.0899963
6871.5	0.0914561
6881.74	0.0927133
6891.99	0.0942216
6902.23	0.0956134
6912.48	0.0964162
6920.16	0.0965725
6930.41	0.0964512
6940.65	0.096356
6950.9	0.0965286
6961.14	0.0970409
6971.39	0.097913
6981.63	0.0990376
6991.88	0.100133
7002.12	0.100902
7012.37	0.101224
7020.05	0.101212
7030.3	0.100966
7040.54	0.100551
7050.79	0.100031
7061.03	0.0994604
7071.28	0.0988733
7081.52	0.0982592
7091.77	0.0975716
7102.01	0.0967875
7112.26	0.0959532
7122.5	0.0951755
7130.19	0.0946989
7140.43	0.0942636
7150.68	0.094051
7160.92	0.0939705
7171.17	0.093868
7181.41	0.0935807
7191.66	0.0929936
7201.9	0.0920715
7212.15	0.0908567
7222.39	0.0894419
7230.08	0.0883143
7240.32	0.0867968
7250.57	0.0853165
7260.81	0.0838924
7271.06	0.0825148
7281.3	0.0811716
7291.55	0.0798716
7301.79	0.0786537
7312.04	0.0775789
7322.28	0.0767104
7332.53	0.0760926
7340.21	0.0758022
7350.45	0.0756303
7360.7	0.0756635
7370.94	0.0758465
7381.19	0.0761279
7391.43	0.076472
7401.68	0.076863
7411.92	0.0773019
7422.17	0.0777985
7432.41	0.078365
7440.1	0.0788417
7450.34	0.079552
7460.59	0.0803517
7470.83	0.0812438
7481.08	0.0822296
7491.32	0.0833059
7501.57	0.0844624
7511.81	0.0856795
7522.06	0.0869297
7532.3	0.0881809
7542.55	0.089402
7550.23	0.0902824
7560.48	0.0913951
7570.72	0.0924297
7580.97	0.0933855
7591.21	0.0942667
7601.46	0.0950805
7611.7	0.0958347
7621.95	0.0965375
7632.19	0.0971992
7642.44	0.0978325
7650.12	0.0982982
7660.37	0.0989203
7670.61	0.0995582
7680.86	0.100224
7691.1	0.100922
7701.35	0.101649
7711.59	0.102396
7721.84	0.10315
7732.08	0.103896
7742.33	0.104625
7750.01	0.105159
7760.26	0.105855
7770.5	0.10654
7780.75	0.107226
7790.99	0.107926
7801.24	0.108649
7811.48	0.109405
7821.73	0.110195
7831.97	0.111017
7842.22	0.111864
7852.46	0.112719
7860.15	0.113355
7870.39	0.114173
7880.64	0.114931
7890.88	0.115598
7901.13	0.11614
7911.37	0.11653
7921.62	0.116744
7931.86	0.116766
7942.11	0.116588
7952.35	0.11621
7960.03	0.115799
7970.28	0.115093
7980.53	0.114221
7990.77	0.113201
8001.02	0.112056
8011.26	0.110805
8021.51	0.109468
8031.75	0.108061
8042	0.106598
8052.24	0.105089
8062.49	0.103539
8070.17	0.102352
8080.42	0.100737
8090.66	0.0990856
8100.91	0.0973968
8111.15	0.0956728
8121.4	0.0939173
8131.64	0.0921368
8141.89	0.0903404
8152.13	0.088539
8162.38	0.0867448
8170.06	0.0854112
8180.31	0.0836582
8190.55	0.0819425
8200.8	0.0802707
8211.04	0.0786463
8221.29	0.0770686
8231.53	0.0755334
8241.78	0.074033
8252.02	0.0725564
8262.27	0.0710896
8272.55	0.0696161
8280.25	0.0684995
8290.53	0.0669835
8300.8	0.0654241
8311.07	0.0638096
8321.35	0.062131
8331.62	0.0603825
8341.89	0.0585615
8352.16	0.0566693
8362.44	0.0547103
8370.14	0.0532017
8380.42	0.0511454
8390.69	0.0490486
8400.96	0.0469239
8411.24	0.0447844
8421.51	0.0426428
8431.78	0.040511
8442.06	0.0383993
8452.33	0.0363164
8460.03	0.0347776
8470.31	0.0327613
8480.58	0.0307894
8490.86	0.0288641
8501.14	0.0269878
8511.42	0.0251618
8521.7	0.0233864
8531.98	0.0216606
8542.26	0.0199815
8552.55	0.0183463
8560.27	0.017145
8570.56	0.0155683
8580.84	0.0140039
8591.13	0.0124213
8601.42	0.0105879
8611.71	0.0066059
8622	0.00569847
8632.29	0.00114786
8640	-0.00218696
8650.29	-0.00630521
8660.58	-0.00723773
8670.87	-0.0117317
8681.15	-0.0156817
8691.44	-0.0190564
8701.73	-0.0221127
8712.02	-0.0249709
8722.31	-0.0276176
8730.02	-0.0295083
8740.31	-0.0277015
8750.6	-0.0300918
8760.89	-0.0330192
8771.17	-0.035539
8781.46	-0.0377736
8791.75	-0.0398141
8802.04	-0.0417219
8812.33	-0.0435358
8820.04	-0.0448488
8830.33	-0.0465877
8840.62	-0.0481921
8850.91	-0.0496981
8861.19	-0.0511402
8871.48	-0.0525182
8881.77	-0.0538315
8892.06	-0.0550797
8902.35	-0.0562599
8910.06	-0.0571021
8920.35	-0.0574476
8930.64	-0.0583866
8940.93	-0.0591918
8951.21	-0.0598855
8961.5	-0.0604887
8971.79	-0.0610198
8982.08	-0.0614953
8992.37	-0.0619289
9000.08	-0.0622332
9010.37	-0.0626185
9020.66	-0.0629874
9031	-0.0633848
9041.36	-0.0638744
9051.72	-0.0643466
9062.08	-0.0647532
9072.51	-0.0651124
9080.33	-0.0653849
9090.76	-0.0657502
9101.19	-0.0661149
9111.62	-0.0664764
9122.05	-0.0668317
9132.48	-0.067179
9140.29	-0.0674327
9150.61	-0.0677573
9160.84	-0.0680666
9171.07	-0.068362
9181.39	-0.0686451
9191.76	-0.0689137
9202.12	-0.0665995
9212.44	-0.0648821
9220.18	-0.0651685
9230.5	-0.065539
9240.82	-0.0658957
9251.14	-0.0662362
9261.46	-0.0665528
9271.78	-0.0668418
9282.1	-0.0671023
9292.42	-0.0673359
9300.16	-0.0674943
9310.48	-0.0676841
9320.8	-0.0678506
9331.12	-0.0679948
9341.44	-0.0681179
9351.76	-0.0682197
9362.08	-0.0683006
9372.4	-0.0683619
9380.14	-0.0683957
9390.46	-0.0684257
9400.78	-0.0684391
9411.1	-0.068434
9421.42	-0.0684102
9431.74	-0.0683684
9442.06	-0.0683092
9452.38	-0.0682335
9460.12	-0.0681662
9470.44	-0.0680634
9480.76	-0.0679469
9491.08	-0.0678179
9501.4	-0.0676771
9511.72	-0.0675245
9522.04	-0.0673577
9532.35	-0.0671782
9540.08	-0.0670359
9550.38	-0.0668369
9560.69	-0.0666164
9571	-0.0664122
9581.31	-0.0662561
9591.63	-0.0660881
9601.94	-0.0659094
9612.25	-0.0657207
9622.56	-0.0655228
9630.3	-0.0653688
9640.61	-0.0651566
9650.93	-0.064937
9661.24	-0.0647107
9671.55	-0.0644781
9681.86	-0.0642398
9692.18	-0.0639963
9702.49	-0.0637479
9710.22	-0.0635585
9720.54	-0.0633021
9730.85	-0.0630414
9741.16	-0.0627766
9751.47	-0.0625077
9761.79	-0.0622349
9772.1	-0.061958
9782.41	-0.0616772
9790.15	-0.0614639
9800.46	-0.061176
9810.77	-0.0608841
9821.09	-0.060588
9831.4	-0.0602877
9841.71	-0.0599832
9852.02	-0.0596745
9862.34	-0.0601262
9870.07	-0.0599147
9880.38	-0.0596306
9890.7	-0.0593438
9901.01	-0.0590541
9911.32	-0.0587613
9921.64	-0.0584653
9931.95	-0.0581657
9942.26	-0.0578625
9952.57	-0.0575556
9960.31	-0.0573229
9970.62	-0.0570093
9980.93	-0.0566918
9991.25	-0.0563703
10001.6	-0.0560448
10011.9	-0.055715
10022.2	-0.0553809
10032.5	-0.055042
10040.2	-0.0547838
10050.5	-0.0544341
10060.9	-0.0540783
10071.2	-0.0537164
10081.5	-0.0532913
10091.8	-0.0528059
10102.1	-0.0523187
10112.4	-0.0518297
10120.2	-0.0514617
10130.5	-0.0509695
10140.8	-0.0504755
10151.1	-0.0499799
10161.4	-0.0494824
10171.7	-0.0489839
10182	-0.048483
10192.3	-0.0479818
10202.6	-0.0474805
10210.2	-0.0471035
10220.5	-0.0465993
10230.8	-0.0460924
10241	-0.0455838
10251.3	-0.0450736
10261.6	-0.0445617
10271.9	-0.0440483
10282.1	-0.0435334
10292.4	-0.043017
10300.1	-0.0426287
10310.4	-0.0421104
10320.7	-0.0415939
10330.9	-0.0410788
10341.2	-0.040565
10351.5	-0.0400519
10361.8	-0.0395394
10372	-0.0390272
10382.3	-0.038515
10390	-0.0381308
10400.3	-0.0376184
10410.6	-0.0371058
10420.8	-0.0365927
10431.1	-0.0360793
10441.4	-0.0355654
10451.7	-0.035051
10461.9	-0.0345362
10472.2	-0.034021
10482.5	-0.0335054
10490.2	-0.0331185
10500.4	-0.0326025
10510.7	-0.0320862
10521	-0.0315698
10531.3	-0.0310535
10541.5	-0.0305373
10551.8	-0.0300213
10562.1	-0.0295059
10572.4	-0.0289913
10580.1	-0.0286064
10590.3	-0.0280947
10600.6	-0.0275848
10610.9	-0.0270768
10621.2	-0.0265708
10631.4	-0.026067
10641.7	-0.0255653
10652	-0.0249931
10662.3	-0.0244301
10672.5	-0.0238757
10680.2	-0.0234655
10690.5	-0.0229256
10700.8	-0.0223937
10711.1	-0.0218694
10721.3	-0.0213525
10731.6	-0.020843
10741.9	-0.0203415
10752.1	-0.0198477
10762.3	-0.0193608
10770	-0.0190002
10780.3	-0.0185251
10790.5	-0.0180565
10800.8	-0.0175943
10811	-0.0171383
10821.3	-0.0166882
10831.5	-0.0162441
10841.7	-0.0158058
10852	-0.0153752
10862.2	-0.0149521
10872.5	-0.0145359
10880.2	-0.0142279
10890.4	-0.0138224
10900.7	-0.0133888
10910.9	-0.0129659
10921.1	-0.0125637
10931.4	-0.0121789
10941.6	-0.0118089
10951.9	-0.011451
10962.1	-0.0111032
10972.4	-0.0107637
10980.1	-0.0105136
10990.3	-0.0101853
11000.5	-0.00986547
11010.8	-0.00955429
11021	-0.00925073
11031.3	-0.00895369
11041.5	-0.00866206
11051.8	-0.00837472
11062	-0.00809061
11072.3	-0.00780875
11082.5	-0.00752823
11090.2	-0.00731822
11100.4	-0.00703824
11110.7	-0.00675792
11120.9	-0.00647709
11131.2	-0.00619557
11141.4	-0.00591309
11151.7	-0.00562933
11161.9	-0.00534393
11172.2	-0.00505652
11182.4	-0.00476675
11190.1	-0.00454771
11200.3	-0.00425316
11210.6	-0.0039614
11220.8	-0.00367389
11231.1	-0.00338874
11241.3	-0.0031046
11251.6	-0.00282028
11261.8	-0.00253468
11272	-0.00224684
11282.3	-0.00195598
11292.5	-0.00152052
11300.2	-0.00117714
11310.5	-0.000706451
11320.7	-0.000228474
11331	0.000251514
11341.2	0.000730374
11351.4	0.00120646
11361.7	0.00167913
11371.9	0.00214819
11382.2	0.00261276
11392.4	0.00307277
11400.1	0.00341512
11410.4	0.00386889
11420.6	0.00432534
11430.8	0.00478526
11441.1	0.00524843
11451.3	0.0057145
11461.6	0.00618208
11471.8	0.00664859
11482.1	0.00711261
11492.3	0.00775279
11502.6	0.0089064
11510.2	0.00972051
11520.5	0.0107157
11530.7	0.0116034
11541	0.0123888
11551.2	0.0131003
11561.5	0.0137585
11571.7	0.0143694
11582	0.0151905
11592.2	0.0159006
11602.4	0.0165157
11610.1	0.0169419
11620.4	0.0174524
11630.6	0.0180421
11640.9	0.0190515
11651.1	0.0201555
11661.4	0.0221862
11671.6	0.0234604
11681.8	0.0246107
11692.1	0.0257896
11702.3	0.0270047
11710	0.0279572
11720.3	0.0292535
11730.5	0.0305688
11740.8	0.0319238
11751	0.0333426
11761.2	0.0348481
11771.5	0.0364472
11781.7	0.0381407
11792	0.0399377
11802.2	0.0418421
11812.5	0.0438406
11820.2	0.0453726
11830.5	0.0474175
11840.8	0.049425
11851	0.0513744
11861.3	0.0532689
11871.6	0.0551236
11881.8	0.0569518
11892.1	0.0587574
11902.4	0.0605332
11910.1	0.0618362
11920.4	0.063519
11930.6	0.0651213
11940.9	0.0666288
11951.2	0.0680359
11961.5	0.069344
11971.8	0.0705566
11982.1	0.0716759
11992.4	0.072704
