0	0
10.8994	0
21.7987	0
32.6979	0
43.597	0
50.863	0
61.7619	0
72.6607	0
83.5594	0
90.8251	0
101.724	0
112.577	0
123.322	0
130.456	0
141.161	0
151.874	0
162.581	-9.09495e-13
173.289	-3.63798e-12
180.428	-5.45697e-12
191.136	-8.18545e-12
201.809	-1.09139e-11
212.482	-1.36424e-11
223.155	-1.72804e-11
230.274	-2.09184e-11
240.953	-2.63753e-11
251.632	-3.18323e-11
262.311	-3.91083e-11
272.99	-4.72937e-11
280.109	-5.27507e-11
290.788	-6.18456e-11
301.467	-7.27596e-11
312.145	-8.36735e-11
322.824	-9.73159e-11
333.471	-1.10958e-10
340.59	-1.20053e-10
351.224	-1.33696e-10
361.77	-1.50067e-10
372.316	-1.65528e-10
382.862	-1.7917e-10
393.373	-1.91903e-10
400.255	-1.99179e-10
410.578	-2.06455e-10
420.901	-2.09184e-10
431.253	-2.06455e-10
441.609	-1.93722e-10
451.975	-1.69166e-10
462.266	-1.30967e-10
472.453	-7.27596e-11
482.64	6.36646e-12
492.819	1.13687e-10
502.983	2.54659e-10
513.146	4.36557e-10
523.294	6.6666e-10
530.054	8.49468e-10
540.193	1.17416e-09
550.333	1.5616e-09
560.489	2.01453e-09
570.645	2.53476e-09
580.801	3.12593e-09
590.957	3.78895e-09
601.114	4.52746e-09
611.27	5.34328e-09
621.426	6.24095e-09
631.582	7.22048e-09
641.738	8.28095e-09
651.894	9.41691e-09
662.049	1.06229e-08
672.189	1.18907e-08
682.304	1.32104e-08
692.42	1.45747e-08
702.544	1.59771e-08
712.669	1.74059e-08
722.792	1.88511e-08
732.915	2.03045e-08
743.038	2.1756e-08
753.161	2.31985e-08
763.284	2.46237e-08
770.033	2.55604e-08
780.156	2.69429e-08
790.278	2.82935e-08
800.401	2.96095e-08
810.524	3.08901e-08
820.647	3.2137e-08
830.769	3.33548e-08
840.892	3.45508e-08
851.015	3.57359e-08
861.137	3.69228e-08
871.26	3.81297e-08
881.383	3.93775e-08
891.505	4.06944e-08
901.628	4.21114e-08
911.75	4.36676e-08
921.873	4.54074e-08
931.995	4.73801e-08
942.117	4.96448e-08
952.24	5.2265e-08
962.362	5.53136e-08
972.485	5.88716e-08
982.607	6.30243e-08
992.729	6.78656e-08
1002.85	7.34981e-08
1012.97	8.00292e-08
1023.1	8.75771e-08
1033.22	9.62664e-08
1043.34	1.06233e-07
1050.09	1.13658e-07
1060.21	1.26081e-07
1070.33	1.40191e-07
1080.46	1.56166e-07
1090.58	1.74195e-07
1100.7	1.94477e-07
1110.82	2.1723e-07
1120.94	2.4268e-07
1131.07	2.71074e-07
1141.19	3.02672e-07
1151.31	3.37749e-07
1161.43	3.76601e-07
1171.55	4.19537e-07
1181.68	4.66888e-07
1191.8	5.19003e-07
1201.92	5.7625e-07
1212.04	6.3902e-07
1222.16	7.07723e-07
1232.29	7.82793e-07
1242.41	8.64688e-07
1252.53	9.53891e-07
1262.65	1.05087e-06
1272.73	1.15579e-06
1282.79	1.26933e-06
1292.85	1.39252e-06
1302.93	1.52674e-06
1313.02	1.67265e-06
1323.11	1.83048e-06
1333.2	2.00055e-06
1343.29	2.18313e-06
1350.02	2.31191e-06
1360.09	2.51544e-06
1370.16	2.73179e-06
1380.22	2.96135e-06
1390.25	3.20364e-06
1400.29	3.45954e-06
1410.3	3.72882e-06
1420.36	4.01355e-06
1430.42	4.31304e-06
1440.45	4.62687e-06
1450.51	4.9573e-06
1460.56	5.30412e-06
1470.62	5.66802e-06
1480.68	6.04979e-06
1490.74	6.45028e-06
1500.79	6.87019e-06
1510.84	7.31108e-06
1520.9	7.77382e-06
1530.87	8.25514e-06
1540.73	8.75532e-06
1550.6	9.28033e-06
1560.55	9.8365e-06
1570.55	1.04235e-05
1580.5	1.10379e-05
1590.45	1.1684e-05
1600.4	1.23638e-05
1610.35	1.3079e-05
1620.3	1.38318e-05
1630.25	1.46242e-05
1640.2	1.54584e-05
1650.15	1.63368e-05
1660.11	1.72618e-05
1670.06	1.82356e-05
1680.01	1.92601e-05
1693.28	2.07079e-05
1703.23	2.18571e-05
1713.18	2.30619e-05
1723.13	2.43238e-05
1733.08	2.56437e-05
1743.03	2.70231e-05
1752.99	2.8463e-05
1762.94	2.99646e-05
1772.89	3.15294e-05
1782.84	3.31586e-05
1792.79	3.48528e-05
1802.72	3.66125e-05
1812.66	3.84412e-05
1822.6	4.03412e-05
1832.54	4.23149e-05
1842.49	4.43636e-05
1852.43	4.64894e-05
1862.37	4.86948e-05
1872.32	5.09825e-05
1882.26	5.33554e-05
1892.21	5.58164e-05
1902.15	5.83687e-05
1912.1	6.10159e-05
1922.04	6.37613e-05
1931.99	6.66088e-05
1941.93	6.95623e-05
1951.87	7.26258e-05
1961.82	7.58036e-05
1971.76	7.91002e-05
1981.71	8.25201e-05
1991.65	8.60682e-05
2001.6	8.97496e-05
2011.54	9.35696e-05
2021.48	9.18732e-05
2031.43	9.04788e-05
2041.37	8.93647e-05
2051.32	8.85118e-05
2061.26	8.79032e-05
2071.21	8.75232e-05
2081.15	8.73574e-05
2091.09	8.7393e-05
2101.04	8.76186e-05
2110.98	8.80241e-05
2120.93	8.86006e-05
2130.87	8.93407e-05
2140.81	9.02377e-05
2150.76	9.12862e-05
2160.7	9.24818e-05
2170.65	9.3821e-05
2180.59	9.5301e-05
2190.53	9.692e-05
2200.48	9.8677e-05
2210.42	0.000100571
2220.37	0.000102604
2230.31	0.000104775
2240.25	0.000107087
2250.2	0.000109541
2260.14	0.000112141
2270.09	0.000114889
2280.03	0.000117789
2293.29	0.000121899
2303.23	0.00012517
2313.18	0.000128609
2323.12	0.000132219
2333.06	0.000136008
2343.01	0.00013998
2352.95	0.000144142
2362.9	0.0001485
2372.84	0.000153061
2382.78	0.000157832
2392.73	0.000162823
2402.67	0.00016803
2412.61	0.000173435
2422.53	0.000179007
2432.47	0.000184769
2442.41	0.000190698
2452.34	0.000196778
2462.23	0.000202991
2472.12	0.00020936
2482	0.000215887
2491.91	0.000222589
2501.81	0.000229457
2511.72	0.000236497
2521.63	0.000243715
2531.53	0.000251121
2541.44	0.000258722
2551.35	0.00026653
2561.25	0.000274557
2571.16	0.000282813
2581.07	0.000291314
2590.97	0.000300073
2600.88	0.000309107
2610.78	0.000318431
2620.69	0.000328062
2630.6	0.000338016
2640.5	0.000348309
2650.41	0.000358957
2660.32	0.000369976
2670.22	0.00038138
2680.13	0.000393186
2690.03	0.000405409
2703.24	0.000422383
2713.15	0.000435642
2723.06	0.000449373
2732.96	0.000463594
2742.84	0.000478285
2752.72	0.000493502
2762.6	0.000516633
2772.48	0.00055468
2782.36	0.000592577
2792.24	0.000630201
2802.12	0.000667491
2812	0.000704434
2821.88	0.00074105
2831.75	0.00077739
2841.63	0.000813527
2851.51	0.000849551
2861.39	0.00088557
2871.27	0.000921697
2881.15	0.000958059
2891.03	0.000994784
2900.91	0.00103201
2910.79	0.00106986
2920.67	0.00110848
2930.55	0.001148
2940.43	0.00118854
2950.3	0.00123025
2960.18	0.00127324
2970.06	0.0013175
2983.23	0.00137811
2993.11	0.0014246
3002.99	0.00147188
3012.87	0.00151997
3022.75	0.0015689
3032.63	0.00161876
3042.51	0.00166967
3052.39	0.00172178
3062.27	0.00177526
3072.15	0.00183034
3082.02	0.00188722
3091.9	0.00194613
3101.78	0.00200725
3111.66	0.0020708
3121.54	0.00213696
3131.42	0.00220593
3141.3	0.00227793
3151.18	0.00244247
3161.06	0.00259853
3170.93	0.00274653
3180.81	0.00288789
3190.69	0.00302457
3200.57	0.00315877
3210.45	0.0032927
3220.33	0.00342853
3230.21	0.00356827
3240.09	0.00371376
3253.26	0.00391728
3263.14	0.00407526
3273.01	0.00423754
3282.89	0.00440485
3292.77	0.00457863
3302.65	0.0047609
3312.53	0.00495392
3322.41	0.00515972
3332.29	0.00552162
3342.16	0.00594547
3352.04	0.00635251
3361.92	0.00675352
3371.8	0.00716411
3381.68	0.00759886
3391.56	0.00806002
3401.44	0.00853667
3411.31	0.00903523
3421.19	0.00957485
3431.07	0.0106608
3440.95	0.0115733
3450.83	0.012524
3460.71	0.0136313
3470.58	0.0153038
3480.46	0.0174406
3490.34	0.020165
3500.22	0.0258831
3510.1	0.0310199
3523.27	0.0373218
3533.15	0.0417311
3543.03	0.0458709
3552.9	0.0500573
3562.78	0.054216
3572.66	0.0583218
3582.54	0.0625025
3592.42	0.0668567
3602.3	0.0712815
3612.17	0.0756398
3622.05	0.0799021
3631.93	0.0841631
3641.81	0.0885032
3651.69	0.0929314
3661.57	0.0974447
3671.45	0.102057
3681.32	0.106754
3691.2	0.111476
3701.08	0.116165
3710.96	0.12081
3720.84	0.12544
3730.72	0.130083
3740.6	0.134751
3750.47	0.139455
3760.35	0.144205
3770.23	0.149003
3780.11	0.153829
3793.28	0.160276
3803.16	0.165122
3813.04	0.169996
3822.92	0.174916
3832.8	0.179896
3842.68	0.18494
3852.56	0.19004
3862.43	0.195183
3872.31	0.200352
3882.19	0.20554
3892.07	0.210748
3901.95	0.21599
3911.83	0.221284
3921.71	0.226651
3931.59	0.232108
3941.47	0.237669
3951.35	0.243344
3961.25	0.249157
3971.16	0.255107
3981.07	0.261211
3990.97	0.267495
4000.88	0.273984
4010.78	0.280702
4020.69	0.287673
4030.6	0.294918
4040.5	0.302457
4050.41	0.310313
4060.31	0.318514
4070.22	0.327094
4080.13	0.336092
4090.03	0.34555
4103.25	0.358963
4113.17	0.369685
4123.09	0.381022
4133.01	0.393014
4142.97	0.405767
4152.96	0.419302
4162.95	0.433633
4172.94	0.448798
4182.96	0.46488
4193.04	0.481962
4203.13	0.49998
4213.22	0.518923
4223.31	0.538785
4230.04	0.552542
4240.14	0.573913
4250.23	0.596132
4260.33	0.619149
4270.43	0.642898
4280.53	0.667295
4290.63	0.692236
4300.72	0.717599
4310.82	0.74324
4320.92	0.768996
4331.02	0.794686
4341.11	0.820107
4351.21	0.845037
4361.31	0.869236
4371.41	0.892442
4381.5	0.914376
4391.6	0.934743
4401.7	0.953235
4411.8	0.969531
4421.9	0.983309
4431.99	0.994241
4442.09	1.002
4452.19	1.00627
4462.29	1.00673
4472.38	1.00308
4482.48	0.995048
4492.58	0.982372
4502.68	0.964822
4512.78	0.942203
4522.87	0.914357
4532.97	0.881169
4543.07	0.84257
4553.17	0.798537
4563.27	0.749092
4573.36	0.694296
4580.1	0.654835
4590.19	0.591323
4600.29	0.522716
4610.39	0.449096
4620.49	0.370521
4630.59	0.28698
4640.68	0.198258
4650.78	0.10389
4660.88	0.0031399
4670.98	-0.0709121
4681.08	-0.0936456
4691.18	-0.134338
4701.27	-0.171224
4711.37	-0.20307
4721.47	-0.226556
4731.57	-0.233704
4741.67	-0.255589
4751.77	-0.273687
4761.87	-0.288235
4771.99	-0.300857
4782.11	-0.31138
4792.23	-0.320852
4802.36	-0.329873
4812.48	-0.33822
4822.6	-0.34585
4832.72	-0.336081
4842.85	-0.33986
4852.97	-0.348286
4863.09	-0.355246
4873.22	-0.361062
4883.34	-0.365923
4890.09	-0.36874
4900.21	-0.372481
4910.33	-0.375787
4920.45	-0.378786
4930.58	-0.380941
4940.7	-0.383241
4950.82	-0.385259
4960.94	-0.387259
4971.07	-0.389202
4981.19	-0.391058
4991.31	-0.392799
5001.43	-0.394406
5011.55	-0.39587
5021.62	-0.397063
5031.68	-0.388169
5041.74	-0.389539
5051.82	-0.391568
5061.91	-0.393318
5072	-0.394816
5082.09	-0.396061
5092.19	-0.39704
5102.28	-0.397789
5112.37	-0.398336
5122.46	-0.3987
5132.55	-0.398889
5142.63	-0.398921
5152.7	-0.398815
5162.76	-0.398586
5172.82	-0.398247
5182.87	-0.397813
5192.9	-0.397294
5202.94	-0.396698
5212.96	-0.396026
5223.02	-0.395283
5233.07	-0.394499
5243.1	-0.393688
5253.16	-0.392839
5263.22	-0.391789
5273.28	-0.390638
5283.33	-0.389469
5290.04	-0.388678
5300.1	-0.387472
5310.15	-0.386242
5320.21	-0.384986
5330.26	-0.383703
5340.17	-0.382409
5350.04	-0.381095
5363.32	-0.379284
5373.3	-0.377893
5383.25	-0.376474
5393.2	-0.37501
5403.15	-0.373513
5413.11	-0.36484
5423.06	-0.364026
5433.01	-0.363198
5442.96	-0.362355
5452.91	-0.361498
5462.86	-0.360629
5472.81	-0.359748
5482.77	-0.358852
5492.72	-0.357945
5502.67	-0.357027
5512.62	-0.356102
5522.57	-0.355174
5532.52	-0.354247
5542.47	-0.353325
5552.43	-0.35241
5562.38	-0.351503
5572.31	-0.350606
5582.25	-0.349719
5592.18	-0.348842
5602.12	-0.347974
5612.06	-0.347113
5622.01	-0.346258
5631.95	-0.345406
5641.9	-0.344553
5651.84	-0.343695
5661.78	-0.342829
5671.73	-0.341952
5681.67	-0.341059
5691.62	-0.340148
5701.56	-0.339215
5711.51	-0.338258
5721.45	-0.337272
5731.4	-0.336255
5741.34	-0.335204
5751.28	-0.334116
5761.23	-0.33299
5771.17	-0.331911
5781.12	-0.330814
5791.06	-0.329649
5801.01	-0.328419
5810.95	-0.327126
5820.9	-0.325771
5830.84	-0.324354
5840.78	-0.322777
5850.73	-0.321091
5860.67	-0.31935
5870.62	-0.317556
5880.56	-0.31571
5890.51	-0.313816
5900.45	-0.312652
5910.4	-0.311374
5920.34	-0.309998
5930.28	-0.308537
5940.23	-0.307
5950.17	-0.305393
5960.12	-0.303724
5970.06	-0.301994
5980.01	-0.300207
5993.27	-0.297739
6003.21	-0.295826
6013.15	-0.293859
6023.1	-0.29184
6033.04	-0.28977
6042.99	-0.287648
6052.93	-0.285476
6062.88	-0.283253
6072.82	-0.280981
6082.76	-0.278659
6092.71	-0.27629
6102.65	-0.273873
6112.6	-0.271413
6122.54	-0.268918
6132.49	-0.266397
6142.43	-0.263858
6152.37	-0.261295
6162.32	-0.25871
6172.26	-0.256106
6182.21	-0.253488
6192.15	-0.250857
6202.1	-0.248213
6212.04	-0.245558
6221.98	-0.24289
6231.93	-0.240207
6241.87	-0.237507
6251.82	-0.23479
6261.76	-0.232054
6271.71	-0.229297
6281.65	-0.226518
6291.6	-0.223717
6301.52	-0.220896
6311.45	-0.216237
6321.4	-0.211655
6331.34	-0.207192
6341.23	-0.202879
6351.12	-0.198679
6361.01	-0.194567
6370.92	-0.190514
6380.82	-0.1865
6390.73	-0.182498
6400.64	-0.178486
6410.54	-0.174442
6420.45	-0.170359
6430.36	-0.16627
6440.26	-0.162194
6450.17	-0.158131
6460.07	-0.154068
6473.28	-0.148612
6483.19	-0.144459
6493.1	-0.140228
6503	-0.133544
6512.91	-0.126001
6522.81	-0.118872
6532.72	-0.112042
6542.63	-0.105336
6552.53	-0.0986082
6562.44	-0.0917666
6572.35	-0.0849183
6582.25	-0.078161
6592.16	-0.0714118
6602.07	-0.0627035
6611.97	-0.0517276
6621.88	-0.042168
6631.78	-0.0324066
6641.69	-0.0222493
6651.6	-0.00881334
6661.5	0.00724358
6671.41	0.0254461
6681.32	0.0554136
6691.22	0.0760998
6701.12	0.0910792
6711	0.101615
6720.88	0.108125
6730.76	0.112475
6740.64	0.114957
6750.52	0.116111
6760.4	0.117098
6770.27	0.118822
6780.15	0.12059
6790.03	0.121481
6803.2	0.121082
6813.08	0.120402
6822.96	0.120077
6832.84	0.120208
6842.72	0.120771
6852.6	0.121838
6862.48	0.123293
6872.36	0.124699
6882.24	0.125602
6892.12	0.125868
6902	0.125681
6911.88	0.12527
6921.75	0.124733
6931.63	0.1241
6941.51	0.123431
6951.39	0.122781
6961.27	0.122116
6971.15	0.121326
6981.03	0.120344
6990.91	0.119235
7000.79	0.118165
7010.67	0.117307
7020.55	0.116761
7030.42	0.116515
7040.3	0.116442
7050.18	0.116325
7060.06	0.115933
7073.23	0.114715
7083.11	0.11325
7092.99	0.111407
7102.87	0.109336
7112.75	0.107194
7122.63	0.105108
7132.51	0.103146
7142.39	0.101301
7152.27	0.0995227
7162.15	0.0977577
7172.03	0.0959989
7181.9	0.0942967
7191.78	0.0927425
7201.66	0.0914346
7211.54	0.0904445
7221.42	0.0897938
7231.3	0.0894483
7241.18	0.089333
7251.06	0.0893588
7260.94	0.0894503
7270.82	0.0895634
7280.69	0.0896885
7290.57	0.0898428
7300.45	0.0900557
7310.33	0.090355
7320.21	0.0907576
7330.09	0.0912689
7343.26	0.0921179
7353.14	0.0928792
7363.02	0.0937489
7372.9	0.0947257
7382.78	0.0957991
7392.66	0.096944
7402.54	0.0981216
7412.42	0.0992848
7422.29	0.100387
7432.17	0.101393
7442.05	0.10228
7451.93	0.103045
7461.81	0.103698
7471.69	0.104256
7481.57	0.104737
7491.45	0.105157
7501.33	0.105528
7511.21	0.105863
7521.09	0.106177
7530.96	0.106493
7540.84	0.106839
7550.72	0.107244
7560.6	0.107732
7570.48	0.108314
7580.36	0.108989
7590.24	0.109739
7600.12	0.11054
7613.29	0.111636
7623.17	0.112452
7633.05	0.113253
7642.93	0.114043
7652.81	0.114836
7662.69	0.115653
7672.57	0.116514
7682.44	0.11744
7692.32	0.118443
7702.2	0.119533
7712.08	0.12071
7721.96	0.121971
7731.84	0.123304
7741.72	0.12469
7751.6	0.126101
7761.48	0.127498
7771.36	0.12884
7781.24	0.130079
7791.12	0.131172
7800.99	0.132079
7810.87	0.132772
7820.75	0.133237
7830.63	0.133467
7840.51	0.13347
7850.39	0.13326
7860.27	0.132856
7870.15	0.132284
7880.03	0.131569
7893.2	0.130435
7903.08	0.129481
7912.96	0.128461
7922.84	0.127394
7932.72	0.126289
7942.6	0.125155
7952.48	0.123991
7962.36	0.122796
7972.23	0.121564
7982.11	0.12029
7991.99	0.118969
8001.87	0.1176
8011.75	0.116187
8021.63	0.114734
8031.51	0.113252
8041.39	0.111751
8051.27	0.110242
8061.15	0.108738
8071.03	0.107247
8080.91	0.105775
8090.79	0.104325
8100.67	0.102895
8110.54	0.101479
8120.42	0.100069
8130.3	0.0986521
8140.18	0.0972129
8150.06	0.0957357
8163.23	0.0936786
8173.14	0.0920459
8183.05	0.0903247
8192.95	0.0885043
8202.86	0.0865773
8212.77	0.0845397
8222.67	0.0823911
8232.58	0.0801352
8242.48	0.077779
8252.39	0.0753329
8262.3	0.0728102
8272.2	0.0702259
8282.11	0.0675961
8292.02	0.064937
8301.92	0.0622638
8311.83	0.0595908
8321.74	0.0569302
8331.64	0.0542925
8341.55	0.0516864
8351.45	0.0491196
8361.36	0.0465985
8371.27	0.0441292
8381.17	0.0417175
8391.08	0.0393691
8400.99	0.0370897
8410.89	0.0348851
8420.8	0.0327607
8430.71	0.0307219
8440.62	0.0287719
8450.53	0.0269159
8460.44	0.0251561
8470.36	0.0234935
8480.27	0.0219265
8490.19	0.0204514
8500.11	0.0190629
8510.03	0.0177521
8523.26	0.016103
8533.18	0.0149173
8543.1	0.0137479
8553.02	0.0122705
8562.94	0.00828866
8572.86	0.00569511
8582.78	0.00584724
8592.71	0.00122838
8602.63	-0.00305634
8612.55	-0.00772128
8622.47	-0.0117891
8632.39	-0.0120972
8642.31	-0.0168407
8652.23	-0.0205249
8662.15	-0.0238009
8672.07	-0.0270568
8681.99	-0.0301469
8691.91	-0.0330129
8701.83	-0.0357114
8711.75	-0.038273
8721.67	-0.0380385
8731.59	-0.0413968
8741.51	-0.0442986
8751.43	-0.0468653
8761.36	-0.049185
8771.28	-0.0513257
8781.2	-0.0533294
8791.12	-0.0552215
8801.04	-0.0570304
8810.96	-0.058707
8820.88	-0.060207
8830.8	-0.0616487
8840.72	-0.0630293
8850.64	-0.0643474
8860.58	-0.0655996
8870.57	-0.0667822
8880.56	-0.0665864
8890.55	-0.0675691
8900.56	-0.0684624
8910.61	-0.0692432
8920.67	-0.0699251
8930.73	-0.0705281
8940.79	-0.0710652
8950.84	-0.0715517
8960.9	-0.0720013
8970.96	-0.0724247
8981.01	-0.0728298
8991.07	-0.073223
9001.12	-0.073752
9011.18	-0.0743199
9021.22	-0.0748557
9031.08	-0.0752969
9040.95	-0.0756952
9050.86	-0.0760848
9060.85	-0.0764671
9070.83	-0.0768378
9080.78	-0.0771961
9090.73	-0.0775424
9100.68	-0.0778766
9110.63	-0.0781983
9120.59	-0.0785072
9130.54	-0.0788029
9140.49	-0.0790852
9150.44	-0.0793541
9160.39	-0.0771646
9170.34	-0.0776336
9180.29	-0.0780858
9190.25	-0.0773379
9200.2	-0.0777536
9210.15	-0.0781284
9220.1	-0.078477
9230.05	-0.0787998
9240	-0.0790923
9253.27	-0.0794338
9263.22	-0.0796554
9273.18	-0.0798488
9283.13	-0.0800154
9293.08	-0.0801565
9303.03	-0.080273
9312.98	-0.0803652
9322.93	-0.0804345
9332.88	-0.0804825
9342.84	-0.080511
9352.79	-0.080521
9362.74	-0.0805129
9372.69	-0.0804873
9382.64	-0.080445
9392.59	-0.0803865
9402.53	-0.0803129
9412.47	-0.0802246
9422.41	-0.0801226
9432.35	-0.0800074
9442.29	-0.0798799
9452.24	-0.0797408
9462.18	-0.0795909
9472.12	-0.0794299
9482.07	-0.0792556
9492.01	-0.0790694
9501.96	-0.0788721
9511.9	-0.0786612
9521.85	-0.078582
9531.79	-0.0784445
9541.74	-0.0782725
9551.68	-0.0780864
9561.63	-0.0778875
9571.57	-0.0776766
9581.51	-0.0774547
9591.46	-0.0772226
9601.4	-0.076981
9611.35	-0.0767308
9621.29	-0.0764725
9631.24	-0.0762068
9641.18	-0.0759339
9651.13	-0.0756544
9661.07	-0.0753686
9671.01	-0.0750766
9680.96	-0.0747786
9690.9	-0.0744749
9700.85	-0.0741654
9710.79	-0.0738503
9720.74	-0.0735295
9730.68	-0.0732031
9740.63	-0.0728711
9750.57	-0.0725334
9760.52	-0.0721901
9770.46	-0.071841
9780.4	-0.0714861
9790.35	-0.0711255
9800.29	-0.0707591
9810.24	-0.0703869
9820.18	-0.0700088
9830.13	-0.0696251
9840.07	-0.0692359
9850.02	-0.0688414
9863.27	-0.0695386
9873.22	-0.0691731
9883.16	-0.0688039
9893.11	-0.068431
9903.05	-0.068054
9913	-0.0676728
9922.94	-0.0672874
9932.89	-0.0668977
9942.83	-0.0665036
9952.77	-0.0661052
9962.72	-0.0657023
9972.66	-0.0652949
9982.61	-0.0648826
9992.55	-0.0644637
10002.5	-0.064038
10012.4	-0.0636057
10022.4	-0.0631676
10032.3	-0.0627223
10042.2	-0.0622722
10052.1	-0.0616872
10062	-0.061101
10071.9	-0.0605135
10081.8	-0.0599235
10091.7	-0.0593323
10101.6	-0.0587399
10111.5	-0.0581463
10121.4	-0.0575515
10131.3	-0.0569555
10141.2	-0.0563582
10151.1	-0.0557598
10161	-0.0551601
10170.9	-0.0545591
10180.9	-0.053957
10190.8	-0.0533536
10200.7	-0.0527494
10210.6	-0.0521473
10220.5	-0.0515474
10230.4	-0.0509491
10240.3	-0.050352
10250.2	-0.0497559
10260.1	-0.0491605
10270	-0.0485655
10283.2	-0.0477723
10293.1	-0.0471773
10303	-0.046582
10312.9	-0.0459862
10322.8	-0.04539
10332.8	-0.0447931
10342.7	-0.0441957
10352.6	-0.0435975
10362.5	-0.0429988
10372.4	-0.0423994
10382.3	-0.0417993
10392.2	-0.0411988
10402.1	-0.0405978
10412	-0.0399963
10421.9	-0.0393945
10431.8	-0.0387926
10441.7	-0.0381907
10451.6	-0.0375892
10461.5	-0.0369881
10471.4	-0.0363878
10481.3	-0.0357884
10491.3	-0.0351901
10501.2	-0.034593
10511.1	-0.0339973
10521	-0.0334032
10530.9	-0.0328108
10540.8	-0.0322202
10550.7	-0.0316331
10560.5	-0.031048
10570.4	-0.0304653
10580.3	-0.0298854
10590.2	-0.0293084
10600.1	-0.0287343
10613.2	-0.0279156
10623.1	-0.0272683
10633	-0.0266314
10642.9	-0.0260049
10652.8	-0.0253884
10662.6	-0.0247816
10672.5	-0.0241843
10682.4	-0.0235962
10692.3	-0.023017
10702.1	-0.0224465
10712	-0.0218865
10721.9	-0.0213376
10731.8	-0.020799
10741.7	-0.02027
10751.5	-0.0197501
10761.4	-0.0192388
10771.3	-0.0187354
10781.2	-0.018203
10791.1	-0.0176231
10800.9	-0.0170742
10810.8	-0.0165521
10820.7	-0.0160533
10830.6	-0.0155745
10840.5	-0.015113
10850.3	-0.0146664
10860.2	-0.0142325
10870.1	-0.0138096
10883.3	-0.01326
10893.1	-0.0128602
10903	-0.0124723
10912.9	-0.0120951
10922.8	-0.0117273
10932.7	-0.0113677
10942.5	-0.011015
10952.4	-0.0106681
10962.3	-0.0103257
10972.2	-0.00998684
10982.1	-0.00965053
10991.9	-0.00931605
11001.8	-0.00898321
11011.7	-0.00865164
11021.6	-0.00832094
11031.5	-0.00799066
11041.3	-0.00766033
11051.2	-0.00732944
11061.1	-0.00699754
11071	-0.00666416
11080.9	-0.00633241
11090.7	-0.00600749
11100.6	-0.00568688
11110.5	-0.00536856
11120.4	-0.00505133
11130.2	-0.00473409
11140.1	-0.00441585
11150	-0.00409568
11163.2	-0.00356444
11173.1	-0.00306581
11182.9	-0.00254966
11192.8	-0.00202498
11202.7	-0.00149763
11212.6	-0.000971192
11222.5	-0.000447666
11232.3	7.20879e-05
11242.2	0.000587339
11252.1	0.00109714
11262	0.00160164
11271.8	0.00210306
11281.7	0.00260781
11291.6	0.0031156
11301.5	0.00362558
11311.4	0.00413695
11321.2	0.00464915
11331.1	0.00516125
11341	0.00567055
11350.9	0.00617552
11360.8	0.00694235
11370.6	0.00822059
11380.5	0.00941564
11390.4	0.0104972
11400.3	0.0114575
11410.2	0.0123217
11420	0.0131079
11433.2	0.0140474
11443.1	0.0148264
11453	0.0156418
11462.8	0.0163181
11472.7	0.0168974
11482.6	0.0173809
11492.5	0.0178867
11502.4	0.0189501
11512.2	0.0200018
11522.1	0.0219348
11532	0.0231045
11541.9	0.0241468
11551.8	0.025209
11561.6	0.0263117
11571.5	0.0274737
11581.4	0.0286863
11591.3	0.0298969
11601.2	0.0310944
11611	0.0322871
11620.9	0.0335309
11630.8	0.0348832
11640.7	0.0363525
11650.6	0.0379294
11660.4	0.0396149
11670.3	0.0414146
11680.2	0.0433181
11690.1	0.0452847
11703.2	0.0479131
11713.1	0.049846
11723	0.0517477
11732.9	0.0536407
11742.8	0.0555433
11752.6	0.0574556
11762.5	0.0593657
11772.4	0.0612519
11782.3	0.0630963
11792.3	0.0648875
11802.2	0.0666159
11812.1	0.0682713
11822	0.0698437
11831.9	0.0713256
11841.8	0.0727133
11851.7	0.074006
11861.6	0.0752048
11871.5	0.0763119
11881.4	0.0773312
11891.3	0.0782669
11901.2	0.0791213
11911.1	0.0798928
11921.1	0.0805737
11931	0.0811559
11940.9	0.0816348
11950.8	0.0820148
11960.8	0.0823111
11970.8	0.0825407
11980.8	0.0827254
11990.8	0.0828846
