Timestep	RLE_info_counter	boundary_non_rle_encoded_edges_and_vertices	memory_saving_factor
0:	34593	57	793	13.9123
1:	34922	57	797	13.9825
2:	35253	57	801	14.0526
3:	35559	57	807	14.1579
4:	35762	57	811	14.2281
5:	35821	57	811	14.2281
6:	36113	57	815	14.2982
7:	36280	57	817	14.3333
8:	36577	57	827	14.5088
9:	36665	57	827	14.5088
10:	36816	57	833	14.614
11:	36950	57	833	14.614
12:	37182	57	837	14.6842
13:	37372	57	849	14.8947
14:	37530	57	853	14.9649
15:	37665	57	861	15.1053
16:	37841	65	879	13.5231
17:	38014	76	904	11.8947
18:	38207	86	920	10.6977
19:	38340	97	935	9.63918
20:	38496	107	955	8.92523
21:	38637	118	978	8.28814
22:	38792	126	1052	8.34921
23:	38950	126	1058	8.39683
24:	39154	126	1066	8.46032
25:	39281	126	1070	8.49206
26:	39418	126	1070	8.49206
27:	39599	126	1078	8.55556
28:	39742	126	1078	8.55556
29:	39912	126	1080	8.57143
30:	40058	126	1088	8.63492
31:	40228	126	1096	8.69841
