Timestep	RLE_info_counter	boundary_non_rle_encoded_edges_and_vertices	memory_saving_factor
0:	34593	3744	11448	3.05769
1:	34922	3775	11551	3.05987
2:	35253	3791	11617	3.06436
3:	35559	3807	11691	3.07092
4:	35762	3829	11757	3.07051
5:	35821	3829	11763	3.07208
6:	36113	3869	11875	3.06927
7:	36280	3921	11977	3.05458
8:	36577	3987	12129	3.04214
9:	36665	4017	12187	3.03386
10:	36816	4031	12241	3.03672
11:	36950	4031	12255	3.04019
12:	37182	4045	12317	3.04499
13:	37372	4073	12385	3.04076
14:	37530	4125	12505	3.03152
15:	37665	4125	12529	3.03733
16:	37841	4125	12567	3.04655
17:	38014	4155	12643	3.04284
18:	38207	4169	12689	3.04366
19:	38340	4169	12709	3.04845
20:	38496	4191	12771	3.04724
21:	38637	4215	12831	3.04413
22:	38792	4215	12865	3.05219
23:	38950	4259	12953	3.04132
24:	39154	4301	13051	3.03441
25:	39281	4311	13087	3.03572
26:	39418	4325	13123	3.03422
27:	39599	4335	13179	3.04014
28:	39742	4351	13229	3.04045
29:	39912	4351	13259	3.04735
30:	40058	4351	13287	3.05378
31:	40228	4375	13359	3.05349
