Timestep	RLE_info_counter	boundary_non_rle_encoded_edges_and_vertices	memory_saving_factor
0:	34593	15186	29114	1.91716
1:	34922	15302	29342	1.91753
2:	35253	15424	29608	1.91961
3:	35559	15553	29863	1.92008
4:	35762	15611	29993	1.92127
5:	35821	15611	30011	1.92243
6:	36113	15711	30233	1.92432
7:	36280	15781	30381	1.92516
8:	36577	15901	30615	1.92535
9:	36665	15931	30681	1.92587
10:	36816	15961	30757	1.92701
11:	36950	16031	30881	1.92633
12:	37182	16155	31115	1.92603
13:	37372	16253	31281	1.92463
14:	37530	16343	31445	1.92407
15:	37665	16399	31555	1.9242
16:	37841	16487	31727	1.92436
17:	38014	16557	31855	1.92396
18:	38207	16615	31983	1.92495
19:	38340	16679	32101	1.92464
20:	38496	16756	32250	1.92468
21:	38637	16778	32318	1.92621
22:	38792	16842	32444	1.92637
23:	38950	16906	32568	1.92642
24:	39154	16936	32664	1.92867
25:	39281	16990	32764	1.92843
26:	39418	17020	32836	1.92926
27:	39599	17106	33012	1.92985
28:	39742	17191	33151	1.92839
29:	39912	17293	33335	1.92766
30:	40058	17357	33459	1.92769
31:	40228	17439	33615	1.92758
