Timestep	RLE_info_counter	boundary_non_rle_encoded_edges_and_vertices	memory_saving_factor
0:	34593	981	4993	5.0897
1:	34755	981	5007	5.10398
2:	35052	981	5017	5.11417
3:	35339	981	5041	5.13863
4:	35451	981	5049	5.14679
5:	35608	981	5059	5.15698
6:	35801	981	5081	5.17941
7:	36078	995	5133	5.15879
8:	36258	995	5139	5.16482
9:	36460	995	5159	5.18492
10:	36631	995	5171	5.19698
11:	36809	995	5193	5.2191
12:	36969	995	5203	5.22915
13:	37165	995	5217	5.24322
14:	37362	995	5235	5.26131
15:	37546	1025	5317	5.18732
16:	37725	1025	5341	5.21073
17:	37924	1025	5363	5.2322
18:	38100	1025	5373	5.24195
19:	38268	1025	5387	5.25561
20:	38442	1025	5407	5.27512
21:	38626	1025	5413	5.28098
22:	38830	1041	5471	5.25552
23:	38976	1041	5487	5.27089
24:	39210	1041	5503	5.28626
25:	39345	1057	5555	5.25544
26:	39533	1073	5607	5.22554
27:	39700	1073	5615	5.23299
28:	39918	1082	5642	5.21442
29:	40117	1104	5704	5.16667
30:	40281	1118	5742	5.13596
31:	40462	1118	5752	5.1449
32:	40603	1132	5792	5.11661
33:	40777	1132	5802	5.12544
34:	40919	1146	5836	5.0925
35:	41121	1160	5884	5.07241
36:	41362	1160	5908	5.0931
37:	41580	1160	5924	5.1069
38:	41710	1170	5958	5.09231
39:	41879	1170	5976	5.10769
40:	42028	1170	5984	5.11453
41:	42222	1170	6002	5.12991
42:	42395	1170	6012	5.13846
43:	42607	1170	6030	5.15385
44:	42793	1186	6080	5.12648
45:	42937	1186	6100	5.14334
46:	43132	1186	6128	5.16695
47:	43291	1186	6140	5.17707
48:	43459	1196	6180	5.16722
49:	43658	1196	6204	5.18729
50:	43867	1196	6222	5.20234
51:	44001	1208	6260	5.18212
52:	44165	1208	6268	5.18874
53:	44320	1208	6290	5.20695
54:	44511	1208	6306	5.2202
55:	44649	1208	6310	5.22351
56:	44933	1224	6380	5.21242
57:	45066	1224	6388	5.21895
58:	45254	1224	6396	5.22549
59:	45399	1224	6404	5.23203
60:	45571	1224	6414	5.2402
61:	45730	1224	6430	5.25327
62:	45917	1238	6464	5.22132
63:	46167	1238	6498	5.24879
64:	46334	1252	6534	5.21885
65:	46478	1262	6574	5.20919
66:	46708	1275	6625	5.19608
67:	46849	1291	6681	5.17506
68:	47056	1291	6705	5.19365
69:	47194	1299	6733	5.18322
70:	47422	1299	6761	5.20477
71:	47592	1299	6771	5.21247
72:	47751	1299	6775	5.21555
73:	47931	1299	6795	5.23095
74:	48083	1299	6809	5.24172
75:	48254	1299	6827	5.25558
76:	48453	1309	6861	5.24141
77:	48669	1309	6889	5.2628
78:	48865	1309	6913	5.28113
79:	49016	1309	6921	5.28724
80:	49182	1309	6929	5.29335
81:	49339	1309	6949	5.30863
82:	49475	1309	6959	5.31627
83:	49655	1309	6973	5.32697
84:	49858	1309	7001	5.34836
85:	50049	1309	7027	5.36822
86:	50223	1309	7041	5.37892
87:	50403	1325	7109	5.36528
88:	50586	1325	7131	5.38189
89:	50732	1325	7145	5.39245
90:	50869	1325	7159	5.40302
91:	51103	1325	7183	5.42113
92:	51286	1325	7199	5.43321
93:	51480	1335	7225	5.41199
94:	51677	1357	7287	5.36993
95:	51805	1369	7331	5.355
96:	52025	1383	7381	5.33695
97:	52188	1383	7399	5.34996
98:	52400	1399	7455	5.32881
99:	52545	1413	7481	5.29441
100:	52717	1427	7521	5.2705
101:	52968	1455	7591	5.21718
102:	53092	1471	7625	5.18355
103:	53288	1485	7691	5.17912
104:	53472	1485	7713	5.19394
105:	53666	1485	7727	5.20337
106:	53873	1485	7743	5.21414
107:	54057	1485	7757	5.22357
108:	54230	1485	7773	5.23434
109:	54400	1485	7789	5.24512
110:	54580	1497	7833	5.23246
111:	54778	1497	7847	5.24182
112:	54930	1497	7861	5.25117
113:	55155	1511	7915	5.23825
114:	55309	1511	7925	5.24487
115:	55501	1511	7945	5.25811
116:	55715	1511	7961	5.2687
117:	55858	1511	7971	5.27531
118:	56036	1511	7983	5.28326
119:	56239	1527	8029	5.25802
120:	56439	1527	8045	5.2685
121:	56641	1527	8065	5.2816
122:	56804	1527	8081	5.29208
123:	56956	1527	8093	5.29993
124:	57170	1527	8109	5.31041
125:	57358	1527	8121	5.31827
126:	57549	1551	8207	5.29142
127:	57742	1551	8225	5.30303
128:	57891	1551	8235	5.30948
129:	58109	1565	8293	5.29904
130:	58310	1565	8305	5.30671
131:	58488	1565	8321	5.31693
132:	58649	1565	8329	5.32204
133:	58803	1565	8333	5.3246
134:	59043	1565	8351	5.3361
135:	59241	1577	8397	5.32467
136:	59425	1587	8415	5.30246
137:	59634	1601	8455	5.28107
138:	59780	1615	8473	5.24644
139:	60030	1629	8521	5.23082
140:	60163	1629	8533	5.23818
141:	60345	1629	8547	5.24678
142:	60502	1629	8559	5.25414
143:	60678	1659	8657	5.2182
144:	60905	1659	8675	5.22905
145:	61061	1675	8727	5.21015
146:	61262	1685	8765	5.20178
147:	61487	1685	8783	5.21246
148:	61692	1685	8801	5.22315
149:	61872	1685	8817	5.23264
150:	62040	1701	8869	5.21399
151:	62256	1701	8881	5.22105
152:	62372	1701	8889	5.22575
153:	62593	1701	8907	5.23633
154:	62766	1701	8919	5.24339
155:	62988	1701	8931	5.25044
156:	63196	1715	8969	5.22974
157:	63390	1715	8979	5.23557
158:	63561	1715	8997	5.24606
159:	63699	1729	9043	5.23019
160:	63895	1741	9093	5.22286
161:	64091	1741	9109	5.23205
162:	64257	1753	9127	5.2065
163:	64471	1765	9157	5.1881
164:	64659	1777	9185	5.16882
165:	64893	1789	9229	5.15875
166:	65057	1799	9267	5.1512
167:	65227	1815	9321	5.13554
168:	65413	1815	9339	5.14545
169:	65596	1829	9369	5.12247
170:	65814	1839	9405	5.11419
171:	66012	1839	9421	5.12289
172:	66165	1839	9443	5.13486
173:	66309	1839	9459	5.14356
174:	66470	1853	9485	5.11873
175:	66686	1869	9531	5.09952
176:	66876	1901	9601	5.0505
177:	67096	1917	9655	5.03652
178:	67274	1931	9719	5.03314
179:	67467	1931	9737	5.04247
180:	67660	1931	9745	5.04661
181:	67868	1931	9767	5.058
182:	68004	1931	9781	5.06525
183:	68188	1931	9807	5.07872
184:	68338	1931	9817	5.08389
185:	68643	1931	9861	5.10668
186:	68787	1931	9871	5.11186
187:	68989	1931	9889	5.12118
188:	69151	1945	9929	5.10488
189:	69319	1959	9975	5.09188
190:	69509	1959	9995	5.10209
191:	69742	1959	10007	5.10822
192:	69942	1959	10039	5.12455
193:	70134	1959	10061	5.13578
194:	70290	1959	10077	5.14395
195:	70482	1959	10091	5.1511
196:	70681	1973	10141	5.13989
197:	70904	1973	10169	5.15408
198:	71043	1983	10215	5.15129
199:	71239	1999	10281	5.14307
200:	71354	1999	10295	5.15008
201:	71536	1999	10309	5.15708
202:	71711	2007	10351	5.15745
203:	71885	2007	10371	5.16741
204:	72063	2021	10405	5.14844
205:	72239	2035	10443	5.1317
206:	72527	2049	10499	5.12396
207:	72783	2063	10545	5.11149
208:	72990	2077	10601	5.104
209:	73171	2077	10617	5.1117
210:	73315	2077	10631	5.11844
211:	73521	2077	10651	5.12807
212:	73701	2077	10663	5.13385
213:	73872	2093	10729	5.12613
214:	74089	2093	10751	5.13665
215:	74269	2093	10763	5.14238
216:	74498	2093	10791	5.15576
217:	74668	2107	10837	5.14333
218:	74819	2107	10855	5.15187
219:	74974	2117	10899	5.14832
220:	75124	2117	10909	5.15305
221:	75338	2117	10927	5.16155
222:	75582	2117	10949	5.17194
223:	75782	2117	10965	5.1795
224:	75914	2117	10975	5.18422
225:	76099	2117	10993	5.19273
226:	76331	2117	11023	5.2069
227:	76489	2131	11053	5.18677
228:	76673	2157	11129	5.15948
229:	76861	2157	11135	5.16226
230:	77035	2157	11157	5.17246
231:	77250	2171	11201	5.15937
232:	77427	2171	11213	5.1649
233:	77571	2171	11225	5.17043
234:	77751	2171	11247	5.18056
235:	77965	2171	11257	5.18517
236:	78166	2171	11279	5.1953
237:	78383	2201	11375	5.16811
238:	78549	2201	11391	5.17537
239:	78731	2201	11411	5.18446
240:	78889	2201	11419	5.1881
241:	79033	2201	11429	5.19264
242:	79237	2201	11445	5.19991
243:	79464	2201	11461	5.20718
244:	79646	2217	11507	5.19035
245:	79816	2217	11511	5.19215
246:	79989	2217	11529	5.20027
247:	80199	2217	11549	5.20929
248:	80375	2230	11582	5.19372
249:	80542	2242	11614	5.1802
250:	80748	2255	11645	5.16408
251:	80934	2263	11683	5.16262
252:	81158	2263	11703	5.17145
253:	81351	2279	11761	5.1606
254:	81537	2279	11773	5.16586
255:	81696	2279	11789	5.17288
256:	81874	2295	11833	5.15599
257:	82084	2319	11899	5.13109
258:	82262	2333	11941	5.1183
259:	82452	2333	11965	5.12859
260:	82619	2333	11975	5.13288
261:	82811	2333	11989	5.13888
262:	83007	2333	12011	5.14831
263:	83165	2333	12027	5.15517
264:	83351	2345	12063	5.14414
265:	83589	2345	12081	5.15181
266:	83750	2345	12093	5.15693
267:	83957	2345	12125	5.17058
268:	84198	2375	12209	5.14063
269:	84394	2389	12257	5.1306
270:	84580	2389	12279	5.13981
271:	84748	2389	12293	5.14567
272:	84946	2389	12303	5.14985
273:	85156	2389	12319	5.15655
274:	85356	2389	12339	5.16492
275:	85494	2389	12347	5.16827
276:	85688	2398	12374	5.16013
277:	85850	2408	12394	5.14701
278:	86076	2419	12417	5.13311
279:	86309	2439	12479	5.11644
280:	86493	2490	12578	5.05141
281:	86665	2508	12644	5.04147
282:	86863	2508	12658	5.04705
283:	87049	2538	12756	5.026
284:	87289	2538	12778	5.03467
285:	87476	2538	12790	5.0394
286:	87666	2538	12806	5.04571
287:	87846	2538	12820	5.05122
288:	88114	2538	12846	5.06147
289:	88290	2538	12862	5.06777
290:	88446	2538	12870	5.07092
291:	88667	2538	12888	5.07801
292:	88838	2538	12904	5.08432
293:	89038	2552	12954	5.07602
294:	89292	2552	12984	5.08777
295:	89485	2552	12996	5.09248
296:	89641	2552	13008	5.09718
297:	89795	2562	13040	5.08977
298:	90066	2578	13118	5.08844
299:	90286	2578	13134	5.09465
300:	90494	2578	13154	5.1024
301:	90690	2578	13168	5.10784
302:	90860	2578	13186	5.11482
303:	91006	2578	13194	5.11792
304:	91229	2578	13212	5.1249
305:	91411	2578	13234	5.13344
306:	91614	2578	13260	5.14352
307:	91802	2592	13292	5.12809
308:	92040	2606	13356	5.1251
309:	92276	2606	13382	5.13507
310:	92468	2616	13430	5.13379
311:	92682	2616	13458	5.1445
312:	92812	2616	13480	5.15291
313:	92981	2616	13494	5.15826
314:	93240	2632	13554	5.1497
315:	93434	2632	13584	5.16109
316:	93610	2640	13634	5.16439
317:	93830	2640	13668	5.17727
318:	93976	2640	13686	5.18409
319:	94182	2640	13700	5.18939
320:	94366	2640	13734	5.20227
321:	94506	2652	13776	5.19457
322:	94766	2652	13812	5.20814
323:	94959	2652	13836	5.21719
324:	95181	2652	13856	5.22474
325:	95352	2652	13878	5.23303
326:	95508	2652	13888	5.2368
327:	95689	2652	13898	5.24057
328:	95847	2682	13974	5.21029
329:	96056	2682	14002	5.22073
330:	96322	2696	14048	5.21068
331:	96512	2696	14076	5.22107
332:	96656	2696	14088	5.22552
333:	96827	2696	14112	5.23442
334:	96995	2712	14166	5.22345
335:	97179	2712	14182	5.22935
336:	97368	2712	14196	5.23451
337:	97586	2712	14210	5.23968
338:	97773	2724	14256	5.23348
339:	97946	2724	14282	5.24302
340:	98129	2724	14306	5.25184
341:	98305	2724	14330	5.26065
342:	98460	2724	14348	5.26725
343:	98653	2724	14366	5.27386
344:	98844	2728	14382	5.27199
345:	99069	2728	14408	5.28152
346:	99280	2728	14422	5.28666
347:	99398	2728	14434	5.29106
348:	99573	2744	14480	5.27697
349:	99793	2758	14536	5.27049
350:	100008	2758	14552	5.27629
351:	100218	2758	14568	5.28209
352:	100435	2774	14628	5.27325
353:	100619	2774	14640	5.27758
354:	100799	2774	14654	5.28262
355:	100996	2774	14662	5.28551
356:	101204	2788	14696	5.27116
357:	101327	2816	14754	5.23935
358:	101528	2816	14778	5.24787
359:	101695	2816	14786	5.25071
360:	101948	2830	14828	5.23958
361:	102086	2830	14830	5.24028
362:	102323	2840	14858	5.23169
363:	102510	2822	14842	5.25939
364:	102646	2852	14936	5.23703
365:	102818	2852	14952	5.24264
366:	103079	2852	14970	5.24895
367:	103249	2860	15006	5.24685
368:	103495	2860	15022	5.25245
369:	103620	2860	15026	5.25385
370:	103825	2868	15052	5.24826
371:	104065	2882	15108	5.24219
372:	104243	2882	15128	5.24913
373:	104416	2882	15138	5.2526
374:	104620	2882	15150	5.25677
375:	104804	2896	15174	5.23964
376:	105037	2926	15238	5.20779
377:	105226	2954	15316	5.18483
378:	105408	2964	15358	5.18151
379:	105570	2996	15454	5.15821
380:	105820	2996	15478	5.16622
381:	106062	2996	15498	5.1729
382:	106271	2996	15504	5.1749
383:	106409	2996	15510	5.1769
384:	106618	2996	15530	5.18358
385:	106826	3006	15574	5.18097
386:	107028	3006	15588	5.18563
387:	107187	3006	15602	5.19029
388:	107394	3022	15650	5.17869
389:	107533	3004	15620	5.19973
390:	107762	3004	15626	5.20173
391:	107967	3014	15674	5.2004
392:	108164	3014	15694	5.20703
393:	108316	3014	15694	5.20703
394:	108548	3024	15718	5.19775
395:	108745	3046	15778	5.17991
396:	108932	3062	15828	5.16917
397:	109080	3076	15860	5.15605
398:	109232	3090	15906	5.14757
399:	109418	3100	15944	5.14323
400:	109645	3100	15962	5.14903
401:	109879	3100	15982	5.15548
402:	110087	3114	16008	5.14066
403:	110290	3128	16054	5.13235
404:	110415	3128	16072	5.13811
405:	110533	3128	16072	5.13811
406:	110722	3144	16124	5.1285
407:	110911	3144	16132	5.13104
408:	111129	3144	16158	5.13931
409:	111306	3144	16172	5.14377
410:	111570	3168	16236	5.125
411:	111738	3184	16276	5.11181
412:	111936	3198	16330	5.10632
413:	112098	3190	16318	5.11536
414:	112291	3190	16330	5.11912
415:	112468	3190	16338	5.12163
416:	112687	3190	16352	5.12602
417:	112889	3206	16406	5.11728
418:	113032	3218	16442	5.10938
419:	113158	3234	16490	5.09895
420:	113337	3246	16508	5.08564
421:	113581	3258	16548	5.07919
422:	113764	3284	16644	5.06821
423:	114005	3284	16666	5.07491
424:	114232	3298	16698	5.06307
425:	114350	3314	16726	5.04707
426:	114550	3330	16774	5.03724
427:	114753	3344	16842	5.03648
428:	114856	3370	16922	5.02136
429:	114989	3360	16910	5.03274
430:	115250	3372	16986	5.03737
431:	115498	3372	17030	5.05042
432:	115692	3372	17054	5.05753
433:	115873	3372	17088	5.06762
434:	116003	3372	17106	5.07295
435:	116173	3372	17106	5.07295
436:	116366	3372	17134	5.08126
437:	116582	3372	17160	5.08897
438:	116808	3372	17192	5.09846
439:	116984	3372	17210	5.1038
440:	117219	3400	17288	5.08471
441:	117403	3410	17336	5.08387
442:	117634	3410	17352	5.08856
443:	117815	3410	17368	5.09326
444:	118016	3388	17346	5.11983
445:	118183	3388	17352	5.12161
446:	118394	3402	17396	5.11346
447:	118561	3416	17436	5.10422
448:	118672	3416	17438	5.1048
449:	118842	3430	17482	5.09679
450:	119037	3438	17510	5.09308
451:	119235	3452	17548	5.08343
452:	119553	3452	17552	5.08459
453:	119696	3452	17558	5.08633
454:	119821	3452	17556	5.08575
455:	119983	3452	17564	5.08806
456:	120129	3452	17570	5.0898
457:	120295	3452	17570	5.0898
458:	120424	3452	17578	5.09212
459:	120648	3465	17629	5.08773
460:	120844	3473	17663	5.0858
461:	120984	3487	17705	5.07743
462:	121174	3513	17779	5.06092
463:	121315	3513	17795	5.06547
464:	121483	3513	17819	5.0723
465:	121654	3513	17835	5.07686
466:	121852	3527	17891	5.07258
467:	122063	3527	17917	5.07995
468:	122297	3527	17961	5.09243
469:	122408	3527	17977	5.09697
470:	122548	3527	18003	5.10434
471:	122699	3557	18069	5.07984
472:	122980	3555	18089	5.08833
473:	123138	3569	18139	5.08238
474:	123342	3569	18143	5.0835
475:	123451	3569	18151	5.08574
476:	123614	3569	18175	5.09246
477:	123807	3585	18233	5.08591
478:	124012	3585	18247	5.08982
479:	124157	3585	18263	5.09428
480:	124300	3585	18269	5.09596
481:	124456	3585	18287	5.10098
482:	124676	3601	18337	5.0922
483:	124840	3583	18337	5.11778
484:	124998	3583	18347	5.12057
485:	125194	3583	18373	5.12783
486:	125346	3583	18373	5.12783
487:	125526	3583	18393	5.13341
488:	125686	3585	18411	5.13556
489:	125846	3599	18451	5.1267
490:	126020	3615	18511	5.12061
491:	126158	3615	18515	5.12172
492:	126371	3615	18533	5.12669
493:	126490	3593	18499	5.14862
494:	126653	3625	18591	5.12855
495:	126818	3639	18631	5.11981
496:	127038	3639	18655	5.12641
497:	127227	3639	18673	5.13135
498:	127331	3639	18687	5.1352
499:	127540	3639	18715	5.1429
500:	127743	3639	18737	5.14894
501:	127883	3639	18745	5.15114
502:	128046	3639	18763	5.15609
503:	128240	3639	18781	5.16103
504:	128420	3639	18813	5.16983
505:	128537	3639	18819	5.17148
506:	128668	3655	18883	5.16635
507:	128854	3679	18967	5.15548
508:	129015	3679	18989	5.16146
509:	129119	3679	18987	5.16091
510:	129308	3699	19057	5.15193
511:	129479	3699	19085	5.1595
512:	129718	3699	19111	5.16653
513:	129857	3717	19165	5.15604
514:	130116	3729	19209	5.15125
515:	130198	3741	19225	5.139
516:	130364	3751	19275	5.13863
517:	130533	3751	19303	5.14609
518:	130724	3751	19323	5.15143
519:	130865	3733	19287	5.16662
520:	131023	3733	19305	5.17144
521:	131151	3733	19315	5.17412
522:	131269	3743	19343	5.16778
523:	131524	3735	19349	5.18046
524:	131728	3745	19399	5.17997
525:	131829	3745	19413	5.18371
526:	131974	3767	19463	5.16671
527:	132111	3799	19539	5.1432
528:	132271	3813	19573	5.13323
529:	132384	3813	19575	5.13375
530:	132582	3813	19595	5.139
531:	132777	3823	19635	5.13602
532:	132929	3823	19649	5.13968
533:	133114	3813	19635	5.14949
534:	133294	3829	19695	5.14364
535:	133412	3829	19711	5.14782
536:	133588	3821	19699	5.15546
537:	133677	3821	19709	5.15807
538:	133950	3831	19765	5.15923
539:	134134	3831	19779	5.16288
540:	134292	3843	19827	5.15925
541:	134445	3843	19833	5.16081
542:	134602	3857	19887	5.15608
543:	134795	3867	19925	5.15257
544:	134954	3867	19941	5.15671
545:	135168	3867	19983	5.16757
546:	135357	3867	19997	5.17119
547:	135504	3867	20007	5.17378
548:	135710	3867	20059	5.18723
549:	135866	3861	20075	5.19943
550:	136005	3871	20105	5.19375
551:	136205	3871	20137	5.20201
552:	136430	3871	20163	5.20873
553:	136676	3864	20180	5.22257
554:	136924	3890	20274	5.21183
555:	137152	3904	20326	5.20645
556:	137285	3918	20344	5.19245
557:	137428	3918	20346	5.19296
558:	137664	3932	20396	5.18718
559:	137892	3946	20446	5.18145
560:	138059	3946	20448	5.18196
561:	138276	3962	20500	5.17415
562:	138449	3962	20498	5.17365
563:	138673	3974	20538	5.16809
564:	138943	3974	20550	5.17111
565:	139094	3974	20562	5.17413
566:	139303	3956	20534	5.1906
567:	139474	3956	20524	5.18807
568:	139707	3956	20542	5.19262
569:	139938	3956	20564	5.19818
570:	140116	3956	20576	5.20121
571:	140356	3948	20564	5.20871
572:	140521	3948	20562	5.20821
573:	140688	3948	20570	5.21023
574:	141013	3962	20640	5.20949
575:	141225	3978	20690	5.20111
576:	141372	3978	20720	5.20865
577:	141544	3994	20776	5.2018
578:	141789	4008	20826	5.19611
579:	142004	4032	20884	5.17956
580:	142212	4046	20922	5.17103
581:	142548	4092	21072	5.14956
582:	142716	4092	21088	5.15347
583:	142867	4104	21132	5.14912
584:	143125	4130	21222	5.1385
585:	143309	4144	21270	5.13272
586:	143453	4138	21280	5.14258
587:	143731	4166	21368	5.12914
588:	143992	4166	21398	5.13634
589:	144177	4165	21417	5.14214
590:	144409	4189	21485	5.12891
591:	144595	4217	21555	5.11145
592:	144802	4201	21559	5.13187
593:	145020	4201	21593	5.13997
594:	145275	4201	21631	5.14901
595:	145563	4215	21673	5.14187
596:	145819	4201	21695	5.16425
597:	146012	4199	21719	5.17242
598:	146287	4197	21755	5.18346
599:	146451	4215	21833	5.17983
600:	146666	4215	21837	5.18078
601:	146909	4199	21821	5.19671
602:	147125	4185	21819	5.21362
603:	147357	4185	21847	5.22031
604:	147633	4185	21865	5.22461
605:	147859	4185	21903	5.23369
606:	148072	4199	21959	5.22958
607:	148282	4215	22017	5.22349
608:	148491	4215	22047	5.2306
609:	148704	4215	22051	5.23155
610:	149086	4215	22075	5.23725
611:	149269	4215	22103	5.24389
612:	149445	4215	22129	5.25006
613:	149668	4215	22117	5.24721
614:	149892	4215	22143	5.25338
615:	150154	4215	22163	5.25813
616:	150393	4229	22207	5.25112
617:	150697	4243	22261	5.24652
618:	150906	4243	22287	5.25265
619:	151134	4243	22301	5.25595
620:	151308	4243	22307	5.25737
621:	151500	4258	22378	5.25552
622:	151743	4268	22398	5.24789
623:	151967	4296	22466	5.22952
624:	152284	4308	22504	5.22377
625:	152545	4318	22544	5.22094
626:	152801	4360	22660	5.19725
627:	152976	4370	22710	5.1968
628:	153157	4370	22714	5.19771
629:	153410	4404	22836	5.18529
630:	153630	4420	22862	5.1724
631:	153908	4436	22900	5.16231
632:	154165	4434	22930	5.1714
633:	154407	4434	22946	5.17501
634:	154573	4434	22960	5.17817
635:	154878	4434	22984	5.18358
636:	155121	4464	23078	5.1698
637:	155279	4462	23090	5.17481
638:	155560	4462	23108	5.17884
639:	155892	4462	23146	5.18736
640:	156170	4488	23226	5.17513
641:	156398	4502	23272	5.16926
642:	156646	4518	23334	5.16467
643:	156798	4518	23356	5.16954
644:	157029	4518	23378	5.17441
645:	157333	4532	23434	5.17079
646:	157588	4532	23450	5.17432
647:	157868	4516	23442	5.19088
648:	158061	4516	23446	5.19176
649:	158260	4532	23484	5.18182
650:	158455	4532	23500	5.18535
651:	158721	4572	23594	5.16054
652:	158977	4572	23598	5.16142
653:	159230	4572	23628	5.16798
654:	159437	4588	23684	5.16216
655:	159786	4602	23754	5.16167
656:	160043	4602	23788	5.16906
657:	160267	4572	23786	5.20254
658:	160526	4554	23772	5.22003
659:	160727	4568	23804	5.21103
660:	160931	4578	23844	5.20839
661:	161272	4550	23814	5.23385
662:	161494	4534	23812	5.25187
663:	161702	4534	23796	5.24835
664:	161895	4548	23854	5.24494
665:	162133	4548	23878	5.25022
666:	162409	4548	23896	5.25418
667:	162654	4548	23918	5.25901
668:	162909	4548	23936	5.26297
669:	163112	4548	23960	5.26825
670:	163458	4548	23976	5.27177
671:	163778	4548	24010	5.27924
672:	164011	4548	24024	5.28232
673:	164203	4548	24036	5.28496
674:	164488	4560	24074	5.27939
675:	164726	4583	24119	5.26271
676:	164975	4609	24155	5.24083
677:	165228	4651	24257	5.21544
678:	165521	4677	24313	5.19842
679:	165716	4720	24418	5.17331
680:	165933	4728	24458	5.17301
681:	166304	4742	24502	5.16702
682:	166521	4722	24474	5.18297
683:	166661	4752	24548	5.16582
684:	166889	4752	24574	5.1713
685:	167153	4774	24664	5.16632
686:	167462	4788	24702	5.15915
687:	167740	4798	24756	5.15965
688:	167976	4798	24782	5.16507
689:	168268	4806	24842	5.16896
690:	168532	4820	24908	5.16763
691:	168794	4852	25006	5.15375
692:	168966	4852	25026	5.15787
693:	169153	4852	25032	5.15911
694:	169428	4880	25134	5.15041
695:	169620	4888	25150	5.14525
696:	169904	4918	25238	5.13176
697:	170183	4932	25292	5.12814
698:	170493	4948	25360	5.1253
699:	170763	4958	25404	5.12384
700:	170934	4958	25422	5.12747
701:	171173	4950	25432	5.13778
702:	171400	4934	25402	5.14836
703:	171642	4930	25448	5.16187
704:	171887	4930	25464	5.16511
705:	172101	4962	25536	5.14631
706:	172344	4962	25556	5.15034
707:	172576	4982	25614	5.14131
708:	172784	4981	25627	5.14495
709:	173036	4971	25645	5.15892
710:	173313	4985	25705	5.15647
711:	173560	4985	25727	5.16088
712:	173804	5031	25845	5.13715
713:	173990	5045	25895	5.1328
714:	174123	5033	25885	5.14306
715:	174306	5033	25895	5.14504
716:	174590	5033	25919	5.14981
717:	174889	5033	25945	5.15498
718:	175007	5049	25993	5.14815
719:	175409	5049	26027	5.15488
720:	175577	5049	26037	5.15686
721:	175734	5063	26083	5.15169
722:	175981	5083	26137	5.14204
723:	176171	5073	26137	5.15218
724:	176357	5073	26153	5.15533
725:	176580	5057	26139	5.16887
726:	176855	5071	26189	5.16446
727:	177099	5087	26253	5.1608
728:	177318	5087	26279	5.16591
729:	177518	5087	26289	5.16788
730:	177736	5087	26309	5.17181
731:	177929	5103	26363	5.16618
732:	178167	5111	26425	5.17022
733:	178335	5121	26457	5.16637
