Timestep	RLE_info_counter	boundary_non_rle_encoded_edges_and_vertices	memory_saving_factor
0:	34593	7754	18992	2.44932
1:	34755	7754	19022	2.45319
2:	35052	7780	19120	2.45758
3:	35339	7808	19232	2.46311
4:	35451	7862	19342	2.46019
5:	35608	7886	19408	2.46107
6:	35801	7912	19500	2.46461
7:	36078	7954	19642	2.46945
8:	36258	7984	19740	2.47244
9:	36460	8034	19866	2.47274
10:	36631	8077	19969	2.47233
11:	36809	8107	20055	2.47379
12:	36969	8145	20139	2.47256
13:	37165	8153	20205	2.47823
14:	37362	8177	20283	2.48049
15:	37546	8235	20405	2.47784
16:	37725	8275	20515	2.47915
17:	37924	8303	20597	2.48067
18:	38100	8319	20659	2.48335
19:	38268	8361	20761	2.48308
20:	38442	8429	20897	2.47918
21:	38626	8469	20997	2.47928
22:	38830	8485	21069	2.48309
23:	38976	8515	21151	2.48397
24:	39210	8543	21241	2.48636
25:	39345	8575	21309	2.48501
26:	39533	8635	21443	2.48327
27:	39700	8679	21541	2.48197
28:	39918	8695	21621	2.4866
29:	40117	8733	21713	2.48632
30:	40281	8747	21777	2.48965
31:	40462	8793	21875	2.48777
32:	40603	8807	21931	2.49018
33:	40777	8877	22071	2.48631
34:	40919	8907	22141	2.4858
35:	41121	8931	22229	2.48897
36:	41362	9025	22433	2.48565
37:	41580	9045	22515	2.48922
38:	41710	9087	22603	2.4874
39:	41879	9129	22691	2.4856
40:	42028	9155	22751	2.48509
41:	42222	9181	22837	2.48742
42:	42395	9207	22905	2.48778
43:	42607	9303	23093	2.48232
44:	42793	9347	23193	2.48133
45:	42937	9387	23281	2.48013
46:	43132	9416	23374	2.48237
47:	43291	9472	23474	2.47825
48:	43459	9540	23600	2.47379
49:	43658	9604	23758	2.47376
50:	43867	9620	23830	2.47713
51:	44001	9658	23904	2.47505
52:	44165	9717	24023	2.47227
53:	44320	9749	24111	2.47318
54:	44511	9829	24271	2.46933
55:	44649	9857	24347	2.47002
56:	44933	9871	24441	2.47604
57:	45066	9885	24493	2.47779
58:	45254	9961	24649	2.47455
59:	45399	9975	24697	2.47589
60:	45571	10041	24821	2.47196
61:	45730	10041	24861	2.47595
62:	45917	10100	24992	2.47446
63:	46167	10128	25098	2.47808
64:	46334	10148	25174	2.48069
65:	46478	10178	25244	2.48025
66:	46708	10218	25358	2.4817
67:	46849	10232	25422	2.48456
68:	47056	10246	25490	2.4878
69:	47194	10260	25538	2.48908
70:	47422	10340	25700	2.48549
71:	47592	10386	25798	2.48392
72:	47751	10426	25886	2.48283
73:	47931	10496	26024	2.47942
74:	48083	10526	26094	2.479
75:	48254	10568	26198	2.47899
76:	48453	10632	26340	2.47743
77:	48669	10674	26446	2.47761
78:	48865	10720	26554	2.47705
79:	49016	10734	26606	2.47867
80:	49182	10762	26668	2.47798
81:	49339	10776	26732	2.4807
82:	49475	10808	26810	2.48057
83:	49655	10828	26888	2.48319
84:	49858	10868	27000	2.48436
85:	50049	10898	27104	2.48706
86:	50223	10914	27178	2.4902
87:	50403	10970	27298	2.48842
88:	50586	11000	27392	2.49018
89:	50732	11066	27516	2.48654
90:	50869	11090	27580	2.48693
91:	51103	11136	27704	2.48779
92:	51286	11162	27780	2.4888
93:	51480	11213	27907	2.48881
94:	51677	11263	28027	2.48841
95:	51805	11289	28099	2.48906
96:	52025	11327	28195	2.48919
97:	52188	11342	28264	2.49198
98:	52400	11393	28385	2.49144
99:	52545	11449	28479	2.48747
100:	52717	11507	28595	2.48501
101:	52968	11581	28759	2.48329
102:	53092	11621	28845	2.48214
103:	53288	11667	28955	2.48179
104:	53472	11721	29067	2.47991
105:	53666	11757	29159	2.48014
106:	53873	11831	29311	2.47747
107:	54057	11861	29389	2.47778
108:	54230	11877	29461	2.48051
109:	54400	11919	29553	2.47949
110:	54580	11969	29659	2.47798
111:	54778	12009	29753	2.47756
112:	54930	12063	29853	2.47476
113:	55155	12139	30023	2.47327
114:	55309	12183	30109	2.47139
115:	55501	12239	30243	2.47104
116:	55715	12319	30409	2.46846
117:	55858	12349	30477	2.46797
118:	56036	12377	30549	2.46821
119:	56239	12451	30691	2.46494
120:	56439	12543	30853	2.45978
121:	56641	12583	30961	2.46054
122:	56804	12625	31061	2.46028
123:	56956	12649	31129	2.46099
124:	57170	12715	31287	2.46064
125:	57358	12743	31365	2.46135
126:	57549	12743	31413	2.46512
127:	57742	12801	31551	2.46473
128:	57891	12853	31655	2.46285
129:	58109	12901	31777	2.46314
130:	58310	12933	31859	2.46339
131:	58488	12990	31970	2.46112
132:	58649	13060	32112	2.45881
133:	58803	13092	32188	2.4586
134:	59043	13128	32320	2.46191
135:	59241	13142	32390	2.46462
136:	59425	13169	32461	2.46496
137:	59634	13195	32561	2.46768
138:	59780	13243	32661	2.46628
139:	60030	13259	32753	2.47025
140:	60163	13269	32799	2.47185
141:	60345	13315	32921	2.47247
142:	60502	13329	32983	2.47453
143:	60678	13357	33065	2.47548
144:	60905	13425	33207	2.47352
145:	61061	13485	33325	2.47126
146:	61262	13525	33435	2.47209
147:	61487	13593	33577	2.47017
148:	61692	13603	33649	2.47365
149:	61872	13619	33709	2.47515
150:	62040	13641	33779	2.47628
151:	62256	13727	33951	2.4733
152:	62372	13737	34003	2.47529
153:	62593	13737	34061	2.47951
154:	62766	13767	34145	2.48021
155:	62988	13821	34257	2.47862
156:	63196	13853	34343	2.4791
157:	63390	13921	34487	2.47734
158:	63561	13937	34561	2.4798
159:	63699	13975	34645	2.47907
160:	63895	14021	34765	2.4795
161:	64091	14063	34871	2.47963
162:	64257	14091	34937	2.47938
163:	64471	14131	35021	2.47831
164:	64659	14178	35134	2.47806
165:	64893	14228	35270	2.47891
166:	65057	14228	35306	2.48145
167:	65227	14268	35402	2.48122
168:	65413	14342	35554	2.47901
169:	65596	14392	35670	2.47846
170:	65814	14440	35792	2.47867
171:	66012	14454	35866	2.48139
172:	66165	14482	35954	2.48267
173:	66309	14506	36030	2.4838
174:	66470	14534	36100	2.48383
175:	66686	14614	36272	2.482
176:	66876	14686	36412	2.47937
177:	67096	14728	36520	2.47963
178:	67274	14768	36630	2.48036
179:	67467	14782	36684	2.48167
180:	67660	14837	36801	2.48035
181:	67868	14897	36933	2.47922
182:	68004	14923	37007	2.47986
183:	68188	14971	37125	2.47979
184:	68338	15015	37217	2.47865
185:	68643	15059	37363	2.48111
186:	68787	15073	37409	2.48185
187:	68989	15139	37541	2.47975
188:	69151	15169	37619	2.47999
189:	69319	15215	37723	2.47933
190:	69509	15259	37827	2.479
191:	69742	15273	37893	2.48104
192:	69942	15297	37985	2.48317
193:	70134	15355	38107	2.48173
194:	70290	15425	38237	2.4789
195:	70482	15455	38323	2.47965
196:	70681	15511	38445	2.47856
197:	70904	15541	38547	2.48034
198:	71043	15551	38601	2.48222
199:	71239	15641	38773	2.47893
200:	71354	15689	38881	2.47823
201:	71536	15727	38971	2.47797
202:	71711	15751	39051	2.47927
203:	71885	15775	39117	2.47968
204:	72063	15833	39215	2.47679
205:	72239	15901	39347	2.4745
206:	72527	15965	39511	2.47485
207:	72783	16053	39697	2.47287
208:	72990	16099	39801	2.47227
209:	73171	16173	39951	2.47023
210:	73315	16189	39997	2.47063
211:	73521	16237	40109	2.47022
212:	73701	16295	40229	2.46879
213:	73872	16355	40357	2.46756
214:	74089	16429	40519	2.46631
215:	74269	16467	40615	2.46645
216:	74498	16510	40750	2.4682
217:	74668	16546	40842	2.46839
218:	74819	16590	40954	2.4686
219:	74974	16603	41017	2.47046
220:	75124	16629	41087	2.4708
221:	75338	16668	41180	2.4706
222:	75582	16736	41322	2.46905
223:	75782	16824	41486	2.46588
224:	75914	16857	41563	2.46562
225:	76099	16867	41617	2.46736
226:	76331	16973	41811	2.46338
227:	76489	17037	41933	2.46129
228:	76673	17062	42010	2.4622
229:	76861	17144	42188	2.4608
230:	77035	17201	42321	2.46038
231:	77250	17257	42447	2.4597
232:	77427	17325	42583	2.45789
233:	77571	17339	42631	2.45868
234:	77751	17397	42761	2.45795
235:	77965	17438	42868	2.45831
236:	78166	17498	42988	2.45674
237:	78383	17558	43126	2.4562
238:	78549	17600	43222	2.4558
239:	78731	17640	43320	2.45578
240:	78889	17668	43390	2.45585
241:	79033	17710	43484	2.45534
242:	79237	17742	43572	2.45587
243:	79464	17788	43692	2.45626
244:	79646	17834	43800	2.45598
245:	79816	17850	43856	2.45692
246:	79989	17872	43932	2.45815
247:	80199	17916	44058	2.45914
248:	80375	17964	44172	2.45892
249:	80542	18028	44286	2.45651
250:	80748	18078	44410	2.45658
251:	80934	18132	44528	2.45577
252:	81158	18166	44638	2.45723
253:	81351	18196	44712	2.45724
254:	81537	18228	44802	2.45787
255:	81696	18284	44928	2.45723
256:	81874	18324	45032	2.45754
257:	82084	18324	45104	2.46147
258:	82262	18350	45184	2.46234
259:	82452	18362	45268	2.46531
260:	82619	18392	45350	2.46575
261:	82811	18408	45418	2.4673
262:	83007	18464	45536	2.4662
263:	83165	18524	45656	2.46469
264:	83351	18592	45790	2.46289
265:	83589	18602	45860	2.46533
266:	83750	18626	45934	2.46612
267:	83957	18672	46044	2.46594
268:	84198	18724	46174	2.46603
269:	84394	18806	46328	2.46347
270:	84580	18850	46434	2.46334
271:	84748	18890	46532	2.46331
272:	84946	18982	46704	2.46044
273:	85156	19018	46792	2.46041
274:	85356	19072	46914	2.45984
275:	85494	19147	47055	2.45757
276:	85688	19191	47179	2.45839
277:	85850	19233	47275	2.45801
278:	86076	19247	47343	2.45976
279:	86309	19275	47439	2.46117
280:	86493	19305	47509	2.46097
281:	86665	19365	47635	2.45985
282:	86863	19407	47743	2.46009
283:	87049	19433	47817	2.46061
284:	87289	19529	48001	2.45793
285:	87476	19565	48099	2.45842
286:	87666	19623	48217	2.45717
287:	87846	19665	48315	2.4569
288:	88114	19817	48621	2.4535
289:	88290	19827	48687	2.45559
290:	88446	19837	48751	2.45758
291:	88667	19877	48863	2.45827
292:	88838	19917	48955	2.45795
293:	89038	19947	49047	2.45887
294:	89292	19947	49113	2.46217
295:	89485	19985	49209	2.4623
296:	89641	19997	49267	2.46372
297:	89795	20055	49373	2.46188
298:	90066	20079	49481	2.46432
299:	90286	20075	49527	2.4671
300:	90494	20145	49693	2.46677
301:	90690	20161	49765	2.46838
302:	90860	20233	49893	2.46592
303:	91006	20289	49989	2.46385
304:	91229	20323	50089	2.46465
305:	91411	20337	50163	2.46659
306:	91614	20363	50261	2.46825
307:	91802	20375	50319	2.46964
308:	92040	20403	50415	2.47096
309:	92276	20447	50539	2.47171
310:	92468	20471	50619	2.47272
311:	92682	20573	50815	2.46998
312:	92812	20603	50889	2.46998
313:	92981	20676	51034	2.46827
314:	93240	20748	51192	2.46732
315:	93434	20756	51258	2.46955
316:	93610	20784	51344	2.47036
317:	93830	20838	51478	2.47039
318:	93976	20890	51592	2.4697
319:	94182	20922	51682	2.47022
320:	94366	20967	51811	2.47107
321:	94506	20981	51859	2.47171
322:	94766	21049	52015	2.47114
323:	94959	21073	52089	2.47184
324:	95181	21131	52229	2.47168
325:	95352	21176	52336	2.47148
326:	95508	21206	52408	2.47138
327:	95689	21264	52520	2.4699
328:	95847	21330	52648	2.46826
329:	96056	21384	52780	2.4682
330:	96322	21448	52924	2.46755
331:	96512	21482	53008	2.46755
332:	96656	21514	53088	2.4676
333:	96827	21514	53130	2.46955
334:	96995	21526	53190	2.47097
335:	97179	21544	53268	2.47252
336:	97368	21572	53364	2.47376
337:	97586	21604	53460	2.47454
338:	97773	21672	53580	2.47231
339:	97946	21762	53742	2.46953
340:	98129	21806	53846	2.46932
341:	98305	21858	53972	2.46921
342:	98460	21954	54154	2.4667
343:	98653	22002	54278	2.46696
344:	98844	22082	54436	2.46518
345:	99069	22170	54604	2.46297
346:	99280	22246	54750	2.46112
347:	99398	22298	54864	2.46049
348:	99573	22354	54966	2.45889
349:	99793	22404	55086	2.45876
350:	100008	22456	55214	2.45876
351:	100218	22544	55382	2.45662
352:	100435	22620	55540	2.45535
353:	100619	22710	55696	2.45249
354:	100799	22750	55794	2.45248
355:	100996	22796	55896	2.45201
356:	101204	22822	55974	2.45263
357:	101327	22860	56064	2.45249
358:	101528	22916	56182	2.45165
359:	101695	22976	56310	2.45082
360:	101948	23002	56412	2.45248
361:	102086	23028	56478	2.45258
362:	102323	23068	56584	2.45292
363:	102510	23154	56742	2.45063
364:	102646	23166	56788	2.45135
365:	102818	23178	56846	2.45258
366:	103079	23248	57000	2.45182
367:	103249	23276	57074	2.45205
368:	103495	23332	57206	2.45183
369:	103620	23392	57306	2.44981
370:	103825	23484	57476	2.44745
371:	104065	23535	57609	2.4478
372:	104243	23543	57671	2.4496
373:	104416	23585	57775	2.44965
374:	104620	23591	57823	2.45106
375:	104804	23605	57883	2.45215
376:	105037	23689	58057	2.4508
377:	105226	23763	58221	2.45007
378:	105408	23799	58325	2.45073
379:	105570	23855	58433	2.44951
380:	105820	23893	58565	2.45114
381:	106062	23886	58606	2.45357
382:	106271	23940	58748	2.45397
383:	106409	23940	58780	2.4553
384:	106618	23994	58926	2.45586
385:	106826	24018	59016	2.45716
386:	107028	24032	59090	2.4588
387:	107187	24086	59214	2.45844
388:	107394	24130	59332	2.45885
389:	107533	24144	59378	2.45933
390:	107762	24172	59466	2.46012
391:	107967	24244	59618	2.45908
392:	108164	24272	59700	2.45962
393:	108316	24316	59792	2.45896
394:	108548	24332	59858	2.46005
395:	108745	24370	59938	2.4595
396:	108932	24396	60014	2.45999
397:	109080	24492	60162	2.45639
398:	109232	24548	60272	2.45527
399:	109418	24628	60416	2.45314
400:	109645	24688	60558	2.45293
401:	109879	24779	60741	2.45131
402:	110087	24849	60879	2.44996
403:	110290	24893	60969	2.44924
404:	110415	24921	61049	2.4497
405:	110533	24991	61171	2.44772
406:	110722	25009	61253	2.44924
407:	110911	24993	61277	2.45177
408:	111129	25051	61411	2.45144
409:	111306	25095	61509	2.45105
410:	111570	25113	61617	2.45359
411:	111738	25225	61837	2.45142
412:	111936	25259	61949	2.45255
413:	112098	25267	62025	2.45478
414:	112291	25285	62081	2.45525
415:	112468	25343	62197	2.45421
416:	112687	25403	62329	2.45361
417:	112889	25409	62387	2.45531
418:	113032	25409	62435	2.4572
419:	113158	25427	62493	2.45774
420:	113337	25468	62596	2.45783
421:	113581	25479	62685	2.46026
422:	113764	25515	62791	2.46094
423:	114005	25550	62892	2.46153
424:	114232	25610	63012	2.46045
425:	114350	25648	63058	2.45859
426:	114550	25704	63174	2.45775
427:	114753	25740	63266	2.45789
428:	114856	25779	63345	2.45723
429:	114989	25809	63407	2.45678
430:	115250	25879	63581	2.45686
431:	115498	25951	63729	2.45574
432:	115692	26047	63915	2.45383
433:	115873	26061	63991	2.45543
434:	116003	26101	64067	2.45458
435:	116173	26157	64167	2.45315
436:	116366	26245	64347	2.45178
437:	116582	26293	64489	2.45271
438:	116808	26371	64653	2.45167
439:	116984	26408	64758	2.45221
440:	117219	26468	64910	2.4524
441:	117403	26526	65032	2.45163
442:	117634	26593	65189	2.45136
443:	117815	26567	65207	2.45444
444:	118016	26547	65241	2.45757
445:	118183	26579	65341	2.45837
446:	118394	26641	65487	2.45813
447:	118561	26667	65549	2.45806
448:	118672	26699	65617	2.45766
449:	118842	26718	65688	2.45857
450:	119037	26788	65818	2.457
451:	119235	26868	65966	2.45519
452:	119553	26952	66140	2.45399
453:	119696	27014	66222	2.4514
454:	119821	27138	66394	2.44653
455:	119983	27150	66442	2.44722
456:	120129	27206	66532	2.44549
457:	120295	27342	66756	2.44152
458:	120424	27304	66776	2.44565
459:	120648	27290	66836	2.4491
460:	120844	27330	66938	2.44925
461:	120984	27382	67060	2.44905
462:	121174	27470	67216	2.44689
463:	121315	27464	67248	2.44859
464:	121483	27490	67346	2.44984
465:	121654	27496	67410	2.45163
466:	121852	27598	67618	2.45011
467:	122063	27682	67794	2.44903
468:	122297	27726	67918	2.44961
469:	122408	27730	67954	2.45056
470:	122548	27794	68112	2.4506
471:	122699	27858	68236	2.44942
472:	122980	27864	68328	2.4522
473:	123138	27910	68430	2.45181
474:	123342	27924	68478	2.4523
475:	123451	27994	68576	2.44967
476:	123614	28070	68714	2.44795
477:	123807	28050	68718	2.44984
478:	124012	28054	68754	2.45077
479:	124157	28058	68798	2.45199
480:	124300	28099	68875	2.45115
481:	124456	28139	68953	2.45044
482:	124676	28237	69115	2.44768
483:	124840	28279	69217	2.44765
484:	124998	28333	69321	2.44665
485:	125194	28325	69359	2.44868
486:	125346	28330	69394	2.44949
487:	125526	28352	69474	2.45041
488:	125686	28398	69586	2.45038
489:	125846	28446	69708	2.45054
490:	126020	28462	69794	2.45218
491:	126158	28476	69860	2.45329
492:	126371	28502	69966	2.45478
493:	126490	28484	69980	2.45682
494:	126653	28538	70100	2.45637
495:	126818	28600	70220	2.45524
496:	127038	28632	70320	2.45599
497:	127227	28680	70454	2.45656
498:	127331	28726	70544	2.45575
499:	127540	28714	70590	2.45838
500:	127743	28772	70730	2.45829
501:	127883	28808	70822	2.45841
502:	128046	28880	70946	2.45658
503:	128240	28926	71058	2.45654
504:	128420	28926	71110	2.45834
505:	128537	28942	71138	2.45795
506:	128668	29030	71280	2.45539
507:	128854	29128	71458	2.45324
508:	129015	29248	71632	2.44912
509:	129119	29296	71694	2.44723
510:	129308	29342	71776	2.44619
511:	129479	29372	71864	2.44668
512:	129718	29384	71934	2.44807
513:	129857	29407	72019	2.44904
514:	130116	29501	72215	2.44788
515:	130198	29485	72227	2.44962
516:	130364	29545	72351	2.44884
517:	130533	29613	72475	2.4474
518:	130724	29627	72555	2.44895
519:	130865	29625	72601	2.45067
520:	131023	29663	72713	2.4513
521:	131151	29721	72841	2.45083
522:	131269	29655	72807	2.45513
523:	131524	29664	72898	2.45746
524:	131728	29680	72984	2.45903
525:	131829	29745	73117	2.45813
526:	131974	29743	73165	2.45991
527:	132111	29755	73235	2.46127
528:	132271	29791	73325	2.46131
529:	132384	29808	73348	2.46068
530:	132582	29871	73467	2.45948
531:	132777	29901	73525	2.45895
532:	132929	29975	73637	2.45661
533:	133114	30091	73845	2.45406
534:	133294	30139	73953	2.45373
535:	133412	30185	74021	2.45224
536:	133588	30227	74113	2.45188
537:	133677	30202	74106	2.45368
538:	133950	30223	74191	2.45479
539:	134134	30270	74296	2.45444
540:	134292	30351	74455	2.45313
541:	134445	30383	74517	2.45259
542:	134602	30435	74625	2.45195
543:	134795	30463	74729	2.45311
544:	134954	30451	74771	2.45545
545:	135168	30501	74909	2.45595
546:	135357	30563	75023	2.4547
547:	135504	30559	75071	2.45659
548:	135710	30575	75173	2.45864
549:	135866	30623	75291	2.45864
550:	136005	30705	75443	2.45703
551:	136205	30738	75544	2.45767
552:	136430	30806	75704	2.45744
553:	136676	30876	75866	2.45712
554:	136924	30926	76032	2.45851
555:	137152	30975	76161	2.45879
556:	137285	31005	76189	2.45731
557:	137428	31096	76356	2.45549
558:	137664	31158	76516	2.45574
559:	137892	31162	76564	2.45697
560:	138059	31249	76689	2.45413
561:	138276	31317	76843	2.45372
562:	138449	31359	76945	2.45368
563:	138673	31375	77011	2.45453
564:	138943	31419	77113	2.45434
565:	139094	31479	77237	2.4536
566:	139303	31479	77283	2.45507
567:	139474	31569	77419	2.45237
568:	139707	31637	77567	2.45178
569:	139938	31689	77689	2.45161
570:	140116	31741	77811	2.45144
571:	140356	31819	77959	2.45008
572:	140521	31917	78111	2.44732
573:	140688	31969	78213	2.44653
574:	141013	32035	78401	2.44735
575:	141225	32129	78607	2.44661
576:	141372	32155	78691	2.44724
577:	141544	32199	78797	2.44719
578:	141789	32277	78981	2.44697
579:	142004	32335	79105	2.44642
580:	142212	32375	79205	2.44649
581:	142548	32367	79297	2.44993
582:	142716	32407	79383	2.44956
583:	142867	32479	79521	2.44838
584:	143125	32523	79661	2.44937
585:	143309	32593	79821	2.44902
586:	143453	32642	79940	2.44899
587:	143731	32714	80082	2.44794
588:	143992	32759	80215	2.44864
589:	144177	32757	80235	2.4494
590:	144409	32779	80319	2.45032
591:	144595	32821	80411	2.44999
592:	144802	32841	80475	2.45044
593:	145020	32929	80661	2.44954
594:	145275	32983	80781	2.44917
595:	145563	33035	80921	2.44955
596:	145819	33099	81083	2.44971
597:	146012	33169	81227	2.44888
598:	146287	33255	81423	2.44844
599:	146451	33311	81545	2.44799
600:	146666	33313	81595	2.44934
601:	146909	33357	81707	2.44947
602:	147125	33407	81833	2.44958
603:	147357	33411	81903	2.45138
604:	147633	33427	81989	2.45278
605:	147859	33469	82135	2.45406
606:	148072	33559	82307	2.45261
607:	148282	33607	82439	2.45303
608:	148491	33635	82559	2.45456
609:	148704	33733	82721	2.45223
610:	149086	33835	82931	2.45104
611:	149269	33917	83089	2.44977
612:	149445	33943	83155	2.44984
613:	149668	34001	83253	2.44855
614:	149892	34109	83461	2.44689
615:	150154	34163	83583	2.44659
616:	150393	34233	83761	2.44679
617:	150697	34332	83950	2.44524
618:	150906	34374	84078	2.44598
619:	151134	34474	84260	2.44416
620:	151308	34539	84379	2.44301
621:	151500	34539	84431	2.44451
622:	151743	34579	84537	2.44475
623:	151967	34655	84691	2.44383
624:	152284	34668	84774	2.44531
625:	152545	34709	84873	2.44527
626:	152801	34777	85037	2.44521
627:	152976	34823	85151	2.44525
628:	153157	34851	85245	2.44598
629:	153410	34921	85441	2.44669
630:	153630	34887	85437	2.44896
631:	153908	34894	85526	2.45102
632:	154165	34970	85708	2.4509
633:	154407	35073	85921	2.44978
634:	154573	35101	86025	2.45078
635:	154878	35185	86243	2.45113
636:	155121	35228	86352	2.45123
637:	155279	35320	86508	2.44926
638:	155560	35393	86667	2.4487
639:	155892	35435	86793	2.44936
640:	156170	35468	86896	2.44998
641:	156398	35554	87076	2.44912
642:	156646	35582	87186	2.45028
643:	156798	35544	87192	2.45307
644:	157029	35588	87314	2.45347
645:	157333	35688	87512	2.45214
646:	157588	35748	87656	2.45205
647:	157868	35824	87834	2.45182
648:	158061	35914	87996	2.45019
649:	158260	35990	88142	2.44907
650:	158455	35924	88100	2.4524
651:	158721	35952	88178	2.45266
652:	158977	36008	88298	2.45218
653:	159230	36020	88384	2.45375
654:	159437	36034	88458	2.45485
655:	159786	36108	88666	2.45558
656:	160043	36138	88792	2.45703
657:	160267	36168	88916	2.45842
658:	160526	36238	89046	2.45725
659:	160727	36326	89228	2.45631
660:	160931	36327	89279	2.45765
661:	161272	36383	89431	2.45804
662:	161494	36479	89643	2.45739
663:	161702	36535	89769	2.45707
664:	161895	36587	89897	2.45707
665:	162133	36699	90117	2.45557
666:	162409	36739	90231	2.456
667:	162654	36755	90295	2.45667
668:	162909	36781	90401	2.45782
669:	163112	36805	90493	2.45871
670:	163458	36851	90639	2.45961
671:	163778	36919	90817	2.4599
672:	164011	37015	91011	2.45876
673:	164203	37099	91183	2.45783
674:	164488	37100	91264	2.45995
675:	164726	37194	91468	2.45921
676:	164975	37266	91610	2.45827
677:	165228	37262	91672	2.4602
678:	165521	37314	91786	2.45983
679:	165716	37361	91891	2.45954
680:	165933	37435	92055	2.45906
681:	166304	37523	92267	2.45895
682:	166521	37587	92377	2.45768
683:	166661	37656	92534	2.45735
684:	166889	37686	92630	2.45794
685:	167153	37756	92788	2.45757
686:	167462	37772	92874	2.45881
687:	167740	37900	93126	2.45715
688:	167976	37962	93268	2.45688
689:	168268	38086	93524	2.4556
690:	168532	38208	93742	2.45347
691:	168794	38331	93943	2.45084
692:	168966	38329	93989	2.45216
693:	169153	38339	94035	2.45272
694:	169428	38419	94205	2.45204
695:	169620	38465	94309	2.45181
696:	169904	38571	94511	2.45031
697:	170183	38653	94703	2.45008
698:	170493	38686	94820	2.45102
699:	170763	38684	94896	2.45311
700:	170934	38798	95074	2.45049
701:	171173	38850	95200	2.45045
702:	171400	38865	95269	2.45128
703:	171642	38931	95427	2.45118
704:	171887	38969	95507	2.45085
705:	172101	39097	95729	2.4485
706:	172344	39181	95905	2.44774
707:	172576	39236	96036	2.44765
708:	172784	39288	96130	2.4468
709:	173036	39402	96336	2.44495
710:	173313	39452	96506	2.44616
711:	173560	39556	96704	2.44474
712:	173804	39610	96828	2.44453
713:	173990	39672	96964	2.44414
714:	174123	39710	97066	2.44437
715:	174306	39734	97162	2.44531
716:	174590	39786	97284	2.44518
717:	174889	39870	97460	2.44444
718:	175007	39916	97548	2.44383
719:	175409	40024	97804	2.44363
720:	175577	40062	97912	2.44401
721:	175734	40070	97976	2.44512
722:	175981	40148	98140	2.44446
723:	176171	40205	98245	2.4436
724:	176357	40267	98371	2.44297
725:	176580	40339	98547	2.44297
726:	176855	40405	98691	2.44254
727:	177099	40487	98847	2.44145
728:	177318	40527	98939	2.44131
729:	177518	40615	99123	2.44055
730:	177736	40659	99245	2.44091
731:	177929	40641	99279	2.44283
732:	178167	40649	99339	2.44382
733:	178335	40635	99345	2.44481
