Timestep	RLE_info_counter	boundary_non_rle_encoded_edges_and_vertices	memory_saving_factor
0:	34593	179	1563	8.73184
1:	34755	179	1571	8.77654
2:	35052	179	1577	8.81006
3:	35339	179	1585	8.85475
4:	35451	179	1587	8.86592
5:	35608	179	1591	8.88827
6:	35801	179	1599	8.93296
7:	36078	179	1607	8.97765
8:	36258	179	1609	8.98883
9:	36460	179	1623	9.06704
10:	36631	179	1625	9.07821
11:	36809	179	1639	9.15642
12:	36969	179	1641	9.1676
13:	37165	179	1645	9.18994
14:	37362	179	1659	9.26816
15:	37546	179	1665	9.30168
16:	37725	179	1677	9.36872
17:	37924	179	1689	9.43575
18:	38100	179	1693	9.4581
19:	38268	179	1699	9.49162
20:	38442	179	1705	9.52514
21:	38626	179	1705	9.52514
22:	38830	179	1717	9.59218
23:	38976	179	1721	9.61453
24:	39210	179	1733	9.68156
25:	39345	179	1735	9.69274
26:	39533	179	1741	9.72626
27:	39700	179	1745	9.7486
28:	39918	179	1747	9.75978
29:	40117	179	1757	9.81564
30:	40281	179	1763	9.84916
31:	40462	179	1767	9.87151
32:	40603	179	1769	9.88268
33:	40777	179	1773	9.90503
34:	40919	179	1777	9.92737
35:	41121	179	1781	9.94972
36:	41362	179	1787	9.98324
37:	41580	179	1797	10.0391
38:	41710	179	1805	10.0838
39:	41879	179	1807	10.095
40:	42028	195	1919	9.84103
41:	42222	195	1925	9.87179
42:	42395	195	1927	9.88205
43:	42607	195	1929	9.89231
44:	42793	195	1935	9.92308
45:	42937	195	1943	9.9641
46:	43132	195	1947	9.98462
47:	43291	195	1949	9.99487
48:	43459	195	1953	10.0154
49:	43658	195	1961	10.0564
50:	43867	195	1965	10.0769
51:	44001	195	1967	10.0872
52:	44165	195	1969	10.0974
53:	44320	195	1975	10.1282
54:	44511	195	1979	10.1487
55:	44649	195	1981	10.159
56:	44933	195	1991	10.2103
57:	45066	195	1993	10.2205
58:	45254	195	1995	10.2308
59:	45399	195	1995	10.2308
60:	45571	195	1997	10.241
61:	45730	195	2003	10.2718
62:	45917	195	2007	10.2923
63:	46167	195	2017	10.3436
64:	46334	195	2021	10.3641
65:	46478	195	2025	10.3846
66:	46708	195	2031	10.4154
67:	46849	195	2033	10.4256
68:	47056	195	2039	10.4564
69:	47194	195	2043	10.4769
70:	47422	195	2055	10.5385
71:	47592	195	2057	10.5487
72:	47751	195	2057	10.5487
73:	47931	195	2063	10.5795
74:	48083	195	2067	10.6
75:	48254	195	2069	10.6103
76:	48453	195	2073	10.6308
77:	48669	195	2091	10.7231
78:	48865	195	2099	10.7641
79:	49016	195	2101	10.7744
80:	49182	195	2105	10.7949
81:	49339	195	2111	10.8256
82:	49475	195	2115	10.8462
83:	49655	195	2115	10.8462
84:	49858	195	2137	10.959
85:	50049	209	2183	10.445
86:	50223	223	2241	10.0493
87:	50403	223	2255	10.1121
88:	50586	223	2263	10.148
89:	50732	223	2273	10.1928
90:	50869	223	2279	10.2197
91:	51103	223	2293	10.2825
92:	51286	223	2303	10.3274
93:	51480	223	2309	10.3543
94:	51677	223	2319	10.3991
95:	51805	223	2325	10.426
96:	52025	223	2329	10.4439
97:	52188	223	2339	10.4888
98:	52400	223	2347	10.5247
99:	52545	223	2349	10.5336
100:	52717	223	2353	10.5516
101:	52968	223	2363	10.5964
102:	53092	223	2371	10.6323
103:	53288	223	2379	10.6682
104:	53472	223	2389	10.713
105:	53666	223	2393	10.7309
106:	53873	223	2395	10.7399
107:	54057	223	2403	10.7758
108:	54230	223	2407	10.7937
109:	54400	223	2413	10.8206
110:	54580	223	2421	10.8565
111:	54778	223	2423	10.8655
112:	54930	223	2431	10.9013
113:	55155	223	2437	10.9283
114:	55309	237	2537	10.7046
115:	55501	237	2545	10.7384
116:	55715	237	2551	10.7637
117:	55858	237	2557	10.789
118:	56036	237	2565	10.8228
119:	56239	237	2567	10.8312
120:	56439	237	2573	10.8565
121:	56641	237	2579	10.8819
122:	56804	237	2585	10.9072
123:	56956	237	2591	10.9325
124:	57170	237	2595	10.9494
125:	57358	237	2601	10.9747
126:	57549	237	2607	11
127:	57742	237	2611	11.0169
128:	57891	237	2615	11.0338
129:	58109	237	2623	11.0675
130:	58310	237	2627	11.0844
131:	58488	237	2637	11.1266
132:	58649	237	2639	11.135
133:	58803	237	2643	11.1519
134:	59043	237	2649	11.1772
135:	59241	237	2653	11.1941
136:	59425	237	2659	11.2194
137:	59634	237	2673	11.2785
138:	59780	237	2673	11.2785
139:	60030	237	2681	11.3122
140:	60163	237	2685	11.3291
141:	60345	237	2685	11.3291
142:	60502	237	2693	11.3629
143:	60678	237	2697	11.3797
144:	60905	237	2703	11.4051
145:	61061	237	2705	11.4135
146:	61262	237	2709	11.4304
147:	61487	237	2715	11.4557
148:	61692	237	2723	11.4895
149:	61872	237	2733	11.5316
150:	62040	237	2739	11.557
151:	62256	237	2743	11.5738
152:	62372	237	2745	11.5823
153:	62593	253	2855	11.2846
154:	62766	253	2861	11.3083
155:	62988	253	2867	11.332
156:	63196	253	2873	11.3557
157:	63390	253	2877	11.3715
158:	63561	253	2883	11.3953
159:	63699	253	2889	11.419
160:	63895	253	2895	11.4427
161:	64091	253	2901	11.4664
162:	64257	253	2903	11.4743
163:	64471	253	2913	11.5138
164:	64659	253	2915	11.5217
165:	64893	253	2923	11.5534
166:	65057	253	2927	11.5692
167:	65227	253	2935	11.6008
168:	65413	253	2937	11.6087
169:	65596	253	2941	11.6245
170:	65814	253	2945	11.6403
171:	66012	253	2951	11.664
172:	66165	253	2955	11.6798
173:	66309	253	2963	11.7115
174:	66470	253	2965	11.7194
175:	66686	253	2973	11.751
176:	66876	253	2979	11.7747
177:	67096	253	2993	11.83
178:	67274	253	2995	11.8379
179:	67467	253	3005	11.8775
180:	67660	261	3023	11.5824
181:	67868	271	3097	11.428
182:	68004	271	3099	11.4354
183:	68188	271	3113	11.4871
184:	68338	271	3121	11.5166
185:	68643	271	3145	11.6052
186:	68787	271	3151	11.6273
187:	68989	271	3161	11.6642
188:	69151	271	3171	11.7011
189:	69319	271	3177	11.7232
190:	69509	271	3183	11.7454
191:	69742	271	3191	11.7749
192:	69942	271	3205	11.8266
193:	70134	271	3217	11.8708
194:	70290	271	3221	11.8856
195:	70482	271	3223	11.893
196:	70681	271	3231	11.9225
197:	70904	271	3237	11.9446
198:	71043	271	3241	11.9594
199:	71239	271	3253	12.0037
200:	71354	271	3257	12.0185
201:	71536	271	3261	12.0332
202:	71711	271	3265	12.048
203:	71885	271	3271	12.0701
204:	72063	271	3277	12.0923
205:	72239	271	3283	12.1144
206:	72527	271	3291	12.1439
207:	72783	271	3303	12.1882
208:	72990	271	3315	12.2325
209:	73171	271	3321	12.2546
210:	73315	271	3323	12.262
211:	73521	271	3329	12.2841
212:	73701	271	3331	12.2915
213:	73872	271	3341	12.3284
214:	74089	271	3351	12.3653
215:	74269	271	3355	12.3801
216:	74498	271	3363	12.4096
217:	74668	271	3367	12.4244
218:	74819	271	3379	12.4686
219:	74974	271	3385	12.4908
220:	75124	271	3387	12.4982
221:	75338	271	3391	12.5129
222:	75582	271	3395	12.5277
223:	75782	271	3409	12.5793
224:	75914	271	3411	12.5867
225:	76099	271	3411	12.5867
226:	76331	271	3421	12.6236
227:	76489	271	3429	12.6531
228:	76673	271	3433	12.6679
229:	76861	271	3439	12.69
230:	77035	271	3443	12.7048
231:	77250	271	3445	12.7122
232:	77427	271	3447	12.7196
233:	77571	271	3449	12.7269
234:	77751	271	3459	12.7638
235:	77965	271	3465	12.786
236:	78166	271	3467	12.7934
237:	78383	271	3473	12.8155
238:	78549	271	3477	12.8303
239:	78731	271	3483	12.8524
240:	78889	271	3485	12.8598
241:	79033	271	3489	12.8745
242:	79237	271	3497	12.9041
243:	79464	271	3497	12.9041
244:	79646	271	3497	12.9041
245:	79816	271	3499	12.9114
246:	79989	271	3505	12.9336
247:	80199	271	3509	12.9483
248:	80375	271	3513	12.9631
249:	80542	271	3519	12.9852
250:	80748	271	3517	12.9779
251:	80934	271	3519	12.9852
252:	81158	271	3523	13
253:	81351	287	3633	12.6585
254:	81537	287	3635	12.6655
255:	81696	287	3649	12.7143
256:	81874	287	3651	12.7213
257:	82084	287	3657	12.7422
258:	82262	287	3655	12.7352
259:	82452	297	3675	12.3737
260:	82619	307	3741	12.1857
261:	82811	307	3743	12.1922
262:	83007	307	3753	12.2248
263:	83165	307	3759	12.2443
264:	83351	307	3757	12.2378
265:	83589	307	3763	12.2573
266:	83750	307	3765	12.2638
267:	83957	307	3781	12.316
268:	84198	307	3785	12.329
269:	84394	307	3791	12.3485
270:	84580	307	3797	12.3681
271:	84748	307	3801	12.3811
272:	84946	307	3807	12.4007
273:	85156	307	3809	12.4072
274:	85356	307	3815	12.4267
275:	85494	307	3819	12.4397
276:	85688	307	3825	12.4593
277:	85850	307	3829	12.4723
278:	86076	307	3835	12.4919
279:	86309	307	3839	12.5049
280:	86493	307	3843	12.5179
281:	86665	307	3849	12.5375
282:	86863	307	3851	12.544
283:	87049	307	3855	12.557
284:	87289	315	3935	12.4921
285:	87476	315	3939	12.5048
286:	87666	315	3943	12.5175
287:	87846	315	3947	12.5302
288:	88114	315	3959	12.5683
289:	88290	315	3963	12.581
290:	88446	315	3965	12.5873
291:	88667	315	3973	12.6127
292:	88838	315	3981	12.6381
293:	89038	315	3987	12.6571
294:	89292	315	3991	12.6698
295:	89485	315	3991	12.6698
296:	89641	315	3999	12.6952
297:	89795	315	4005	12.7143
298:	90066	329	4035	12.2644
299:	90286	343	4061	11.8397
300:	90494	353	4127	11.6912
301:	90690	353	4131	11.7025
302:	90860	353	4137	11.7195
303:	91006	353	4139	11.7252
304:	91229	353	4143	11.7365
305:	91411	353	4153	11.7649
306:	91614	353	4163	11.7932
307:	91802	353	4167	11.8045
308:	92040	353	4177	11.8329
309:	92276	353	4187	11.8612
310:	92468	353	4191	11.8725
311:	92682	353	4203	11.9065
312:	92812	353	4207	11.9178
313:	92981	365	4231	11.5918
314:	93240	377	4301	11.4085
315:	93434	377	4327	11.4775
316:	93610	377	4339	11.5093
317:	93830	377	4355	11.5517
318:	93976	377	4361	11.5676
319:	94182	377	4369	11.5889
320:	94366	377	4389	11.6419
321:	94506	377	4395	11.6578
322:	94766	377	4411	11.7003
323:	94959	377	4421	11.7268
324:	95181	377	4431	11.7533
325:	95352	377	4435	11.7639
326:	95508	377	4437	11.7692
327:	95689	377	4447	11.7958
328:	95847	377	4449	11.8011
329:	96056	377	4463	11.8382
330:	96322	377	4471	11.8594
331:	96512	377	4485	11.8966
332:	96656	377	4491	11.9125
333:	96827	377	4501	11.939
334:	96995	377	4505	11.9496
335:	97179	377	4509	11.9602
336:	97368	377	4513	11.9708
337:	97586	377	4517	11.9814
338:	97773	377	4523	11.9973
339:	97946	377	4541	12.0451
340:	98129	391	4577	11.7059
341:	98305	405	4675	11.5432
342:	98460	405	4687	11.5728
343:	98653	405	4699	11.6025
344:	98844	405	4713	11.637
345:	99069	405	4725	11.6667
346:	99280	405	4735	11.6914
347:	99398	405	4743	11.7111
348:	99573	405	4749	11.7259
349:	99793	405	4771	11.7802
350:	100008	405	4779	11.8
351:	100218	405	4789	11.8247
352:	100435	405	4799	11.8494
353:	100619	405	4811	11.879
354:	100799	405	4821	11.9037
355:	100996	405	4825	11.9136
356:	101204	405	4843	11.958
357:	101327	405	4849	11.9728
358:	101528	405	4865	12.0123
359:	101695	405	4869	12.0222
360:	101948	405	4875	12.037
361:	102086	418	4972	11.8947
362:	102323	418	4974	11.8995
363:	102510	418	4990	11.9378
364:	102646	418	5004	11.9713
365:	102818	418	5008	11.9809
366:	103079	418	5016	12
367:	103249	418	5018	12.0048
368:	103495	418	5026	12.0239
369:	103620	418	5034	12.0431
370:	103825	418	5044	12.067
371:	104065	418	5058	12.1005
372:	104243	418	5068	12.1244
373:	104416	418	5070	12.1292
374:	104620	418	5076	12.1435
375:	104804	418	5082	12.1579
376:	105037	418	5094	12.1866
377:	105226	418	5100	12.201
378:	105408	418	5114	12.2344
379:	105570	418	5118	12.244
380:	105820	418	5128	12.2679
381:	106062	418	5134	12.2823
382:	106271	418	5136	12.2871
383:	106409	418	5142	12.3014
384:	106618	418	5154	12.3301
385:	106826	418	5162	12.3493
386:	107028	418	5166	12.3589
387:	107187	418	5172	12.3732
388:	107394	418	5170	12.3684
389:	107533	418	5176	12.3828
390:	107762	418	5186	12.4067
391:	107967	418	5190	12.4163
392:	108164	418	5198	12.4354
393:	108316	418	5196	12.4306
394:	108548	418	5202	12.445
395:	108745	418	5204	12.4498
396:	108932	418	5206	12.4545
397:	109080	418	5210	12.4641
398:	109232	418	5220	12.488
399:	109418	418	5226	12.5024
400:	109645	418	5234	12.5215
401:	109879	418	5236	12.5263
402:	110087	418	5236	12.5263
403:	110290	418	5242	12.5407
404:	110415	418	5250	12.5598
405:	110533	418	5248	12.555
406:	110722	418	5250	12.5598
407:	110911	418	5254	12.5694
408:	111129	418	5264	12.5933
409:	111306	418	5270	12.6077
410:	111570	418	5270	12.6077
411:	111738	418	5280	12.6316
412:	111936	418	5286	12.6459
413:	112098	418	5288	12.6507
414:	112291	418	5288	12.6507
415:	112468	418	5286	12.6459
416:	112687	418	5288	12.6507
417:	112889	418	5292	12.6603
418:	113032	418	5296	12.6699
419:	113158	418	5300	12.6794
420:	113337	418	5302	12.6842
421:	113581	418	5306	12.6938
422:	113764	418	5312	12.7081
423:	114005	418	5314	12.7129
424:	114232	418	5312	12.7081
425:	114350	418	5308	12.6986
426:	114550	418	5322	12.7321
427:	114753	418	5328	12.7464
428:	114856	418	5324	12.7368
429:	114989	418	5324	12.7368
430:	115250	418	5322	12.7321
431:	115498	418	5328	12.7464
432:	115692	418	5326	12.7416
433:	115873	418	5334	12.7608
434:	116003	418	5336	12.7656
435:	116173	418	5330	12.7512
436:	116366	418	5340	12.7751
437:	116582	418	5350	12.799
438:	116808	418	5352	12.8038
439:	116984	418	5356	12.8134
440:	117219	418	5360	12.823
441:	117403	427	5369	12.5738
442:	117634	437	5399	12.3547
443:	117815	448	5510	12.2991
444:	118016	448	5508	12.2946
445:	118183	448	5508	12.2946
446:	118394	448	5514	12.308
447:	118561	448	5520	12.3214
448:	118672	462	5610	12.1429
449:	118842	462	5608	12.1385
450:	119037	462	5604	12.1299
451:	119235	462	5598	12.1169
452:	119553	462	5596	12.1126
453:	119696	462	5580	12.0779
454:	119821	462	5564	12.0433
455:	119983	462	5558	12.0303
456:	120129	462	5558	12.0303
457:	120295	462	5558	12.0303
458:	120424	462	5560	12.0346
459:	120648	462	5566	12.0476
460:	120844	462	5568	12.0519
461:	120984	462	5566	12.0476
462:	121174	462	5564	12.0433
463:	121315	462	5564	12.0433
464:	121483	462	5572	12.0606
465:	121654	462	5582	12.0823
466:	121852	462	5592	12.1039
467:	122063	462	5610	12.1429
468:	122297	462	5632	12.1905
469:	122408	462	5638	12.2035
470:	122548	462	5648	12.2251
471:	122699	462	5656	12.2424
472:	122980	462	5664	12.2597
473:	123138	462	5664	12.2597
474:	123342	462	5662	12.2554
475:	123451	462	5666	12.2641
476:	123614	462	5674	12.2814
477:	123807	462	5676	12.2857
478:	124012	462	5680	12.2944
479:	124157	462	5684	12.303
480:	124300	462	5688	12.3117
481:	124456	462	5694	12.3247
482:	124676	476	5788	12.1597
483:	124840	476	5790	12.1639
484:	124998	476	5790	12.1639
485:	125194	476	5804	12.1933
486:	125346	476	5802	12.1891
487:	125526	492	5920	12.0325
488:	125686	492	5926	12.0447
489:	125846	492	5930	12.0528
490:	126020	492	5940	12.0732
491:	126158	492	5942	12.0772
492:	126371	492	5942	12.0772
493:	126490	492	5944	12.0813
494:	126653	492	5948	12.0894
495:	126818	492	5950	12.0935
496:	127038	492	5964	12.122
497:	127227	492	5980	12.1545
498:	127331	492	5984	12.1626
499:	127540	492	5994	12.1829
500:	127743	492	6006	12.2073
501:	127883	492	6008	12.2114
502:	128046	492	6010	12.2154
503:	128240	492	6010	12.2154
504:	128420	492	6014	12.2236
505:	128537	492	6014	12.2236
506:	128668	508	6108	12.0236
507:	128854	508	6120	12.0472
508:	129015	508	6124	12.0551
509:	129119	508	6116	12.0394
510:	129308	508	6116	12.0394
511:	129479	508	6124	12.0551
512:	129718	508	6130	12.0669
513:	129857	508	6134	12.0748
514:	130116	508	6142	12.0906
515:	130198	508	6142	12.0906
516:	130364	508	6146	12.0984
517:	130533	508	6154	12.1142
518:	130724	508	6166	12.1378
519:	130865	508	6168	12.1417
520:	131023	508	6180	12.1654
521:	131151	508	6180	12.1654
522:	131269	508	6178	12.1614
523:	131524	508	6180	12.1654
524:	131728	508	6196	12.1969
525:	131829	508	6200	12.2047
526:	131974	508	6202	12.2087
527:	132111	508	6214	12.2323
528:	132271	524	6320	12.0611
529:	132384	524	6318	12.0573
530:	132582	524	6334	12.0878
531:	132777	524	6336	12.0916
532:	132929	524	6342	12.1031
533:	133114	524	6340	12.0992
534:	133294	524	6346	12.1107
535:	133412	524	6358	12.1336
536:	133588	524	6362	12.1412
537:	133677	524	6364	12.145
538:	133950	509	6295	12.3674
539:	134134	509	6301	12.3792
540:	134292	509	6315	12.4067
541:	134445	509	6323	12.4224
542:	134602	509	6335	12.446
543:	134795	509	6341	12.4578
544:	134954	509	6353	12.4813
545:	135168	509	6375	12.5246
546:	135357	509	6391	12.556
547:	135504	509	6395	12.5639
548:	135710	509	6405	12.5835
549:	135866	509	6417	12.6071
550:	136005	509	6423	12.6189
551:	136205	509	6433	12.6385
552:	136430	509	6449	12.6699
553:	136676	509	6461	12.6935
554:	136924	509	6471	12.7132
555:	137152	509	6479	12.7289
556:	137285	509	6485	12.7407
557:	137428	509	6493	12.7564
558:	137664	509	6505	12.78
559:	137892	509	6509	12.7878
560:	138059	509	6517	12.8035
561:	138276	509	6525	12.8193
562:	138449	509	6533	12.835
563:	138673	509	6539	12.8468
564:	138943	509	6549	12.8664
565:	139094	509	6553	12.8743
566:	139303	509	6559	12.8861
567:	139474	509	6555	12.8782
568:	139707	509	6565	12.8978
569:	139938	509	6571	12.9096
570:	140116	519	6655	12.8227
571:	140356	519	6669	12.8497
572:	140521	519	6669	12.8497
573:	140688	519	6673	12.8574
574:	141013	519	6693	12.896
575:	141225	519	6693	12.896
576:	141372	519	6699	12.9075
577:	141544	519	6707	12.9229
578:	141789	519	6713	12.9345
579:	142004	519	6715	12.9383
580:	142212	519	6725	12.9576
581:	142548	519	6733	12.973
582:	142716	519	6739	12.9846
583:	142867	519	6741	12.9884
584:	143125	531	6825	12.8531
585:	143309	531	6833	12.8682
586:	143453	531	6835	12.8719
587:	143731	531	6837	12.8757
588:	143992	531	6843	12.887
589:	144177	531	6847	12.8945
590:	144409	531	6859	12.9171
591:	144595	531	6867	12.9322
592:	144802	531	6875	12.9473
593:	145020	531	6881	12.9586
594:	145275	531	6901	12.9962
595:	145563	531	6899	12.9925
596:	145819	531	6923	13.0377
597:	146012	531	6925	13.0414
598:	146287	539	6959	12.9109
599:	146451	553	7033	12.7179
600:	146666	553	7035	12.7215
601:	146909	553	7047	12.7432
602:	147125	553	7057	12.7613
603:	147357	553	7067	12.7794
604:	147633	535	7017	13.1159
605:	147859	535	7037	13.1533
606:	148072	535	7053	13.1832
607:	148282	535	7061	13.1981
608:	148491	535	7067	13.2093
609:	148704	535	7075	13.2243
610:	149086	535	7079	13.2318
611:	149269	535	7087	13.2467
612:	149445	535	7103	13.2766
613:	149668	535	7101	13.2729
614:	149892	551	7231	13.1234
615:	150154	551	7241	13.1416
616:	150393	551	7249	13.1561
617:	150697	565	7323	12.9611
618:	150906	565	7339	12.9894
619:	151134	565	7353	13.0142
620:	151308	565	7355	13.0177
621:	151500	565	7369	13.0425
622:	151743	565	7373	13.0496
623:	151967	565	7373	13.0496
624:	152284	565	7385	13.0708
625:	152545	575	7447	12.9513
626:	152801	575	7457	12.9687
627:	152976	575	7473	12.9965
628:	153157	590	7588	12.861
629:	153410	590	7606	12.8915
630:	153630	590	7612	12.9017
631:	153908	590	7620	12.9153
632:	154165	590	7628	12.9288
633:	154407	590	7636	12.9424
634:	154573	590	7638	12.9458
635:	154878	590	7652	12.9695
636:	155121	590	7672	13.0034
637:	155279	590	7674	13.0068
638:	155560	590	7676	13.0102
639:	155892	590	7700	13.0508
640:	156170	590	7708	13.0644
641:	156398	590	7712	13.0712
642:	156646	590	7722	13.0881
643:	156798	590	7730	13.1017
644:	157029	590	7742	13.122
645:	157333	590	7748	13.1322
646:	157588	590	7760	13.1525
647:	157868	590	7770	13.1695
648:	158061	590	7768	13.1661
649:	158260	590	7762	13.1559
650:	158455	590	7758	13.1492
651:	158721	590	7758	13.1492
652:	158977	590	7758	13.1492
653:	159230	590	7764	13.1593
654:	159437	590	7766	13.1627
655:	159786	606	7858	12.967
656:	160043	606	7868	12.9835
657:	160267	606	7888	13.0165
658:	160526	606	7890	13.0198
659:	160727	606	7890	13.0198
660:	160931	606	7890	13.0198
661:	161272	606	7900	13.0363
662:	161494	606	7906	13.0462
663:	161702	606	7878	13
664:	161895	606	7876	12.9967
665:	162133	606	7882	13.0066
666:	162409	606	7884	13.0099
667:	162654	606	7886	13.0132
668:	162909	606	7892	13.0231
669:	163112	606	7898	13.033
670:	163458	606	7900	13.0363
671:	163778	606	7916	13.0627
672:	164011	606	7920	13.0693
673:	164203	616	7986	12.9643
674:	164488	616	7988	12.9675
675:	164726	616	7988	12.9675
676:	164975	616	7988	12.9675
677:	165228	616	7990	12.9708
678:	165521	616	7996	12.9805
679:	165716	616	8000	12.987
680:	165933	616	8016	13.013
681:	166304	616	8020	13.0195
682:	166521	616	8024	13.026
683:	166661	616	8040	13.0519
684:	166889	616	8052	13.0714
685:	167153	616	8060	13.0844
686:	167462	616	8068	13.0974
687:	167740	616	8086	13.1266
688:	167976	616	8104	13.1558
689:	168268	616	8120	13.1818
690:	168532	616	8148	13.2273
691:	168794	616	8160	13.2468
692:	168966	616	8168	13.2597
693:	169153	616	8172	13.2662
694:	169428	616	8190	13.2955
695:	169620	616	8196	13.3052
696:	169904	616	8198	13.3084
697:	170183	616	8214	13.3344
698:	170493	616	8232	13.3636
699:	170763	616	8238	13.3734
700:	170934	616	8240	13.3766
701:	171173	616	8256	13.4026
702:	171400	616	8258	13.4058
703:	171642	616	8270	13.4253
704:	171887	616	8272	13.4286
705:	172101	616	8280	13.4416
706:	172344	616	8288	13.4545
707:	172576	616	8298	13.4708
708:	172784	616	8296	13.4675
709:	173036	616	8304	13.4805
710:	173313	616	8320	13.5065
711:	173560	616	8322	13.5097
712:	173804	616	8328	13.5195
713:	173990	616	8332	13.526
714:	174123	616	8338	13.5357
715:	174306	616	8344	13.5455
716:	174590	616	8354	13.5617
717:	174889	616	8360	13.5714
718:	175007	616	8358	13.5682
719:	175409	616	8364	13.5779
720:	175577	630	8418	13.3619
721:	175734	644	8442	13.1087
722:	175981	658	8474	12.8784
723:	176171	672	8528	12.6905
724:	176357	672	8534	12.6994
725:	176580	672	8548	12.7202
726:	176855	672	8552	12.7262
727:	177099	672	8552	12.7262
728:	177318	672	8558	12.7351
729:	177518	672	8566	12.747
730:	177736	672	8576	12.7619
731:	177929	672	8574	12.7589
732:	178167	672	8584	12.7738
733:	178335	672	8582	12.7708
