0	0
12.201	0
20.335	0
32.5359	0
40.6698	0
52.8706	0
61.0045	0
73.2051	0
81.3387	0
93.5391	0
101.673	0
113.873	0
122.006	0
130.14	0
142.34	0
150.474	0
162.674	0
170.808	0
183.008	0
191.142	0
203.308	0
211.356	0
223.316	0
231.287	0
243.244	0
251.215	0
263.172	0
271.144	0
283.101	0
291.072	0
303.028	0
310.999	0
322.956	0
330.927	0
342.884	0
350.855	0
362.811	0
370.782	0
382.739	0
390.71	0
402.666	0
410.637	0
422.594	0
430.531	0
442.427	0
450.276	0
462.038	0
473.849	9.09495e-13
481.694	2.72848e-12
493.242	5.45697e-12
500.934	8.18545e-12
512.472	1.72804e-11
520.165	2.72848e-11
531.704	5.45697e-11
543.243	1.04592e-10
550.893	1.60071e-10
562.311	2.93767e-10
573.729	5.25688e-10
581.331	7.66704e-10
592.731	1.32513e-09
600.33	1.88811e-09
611.702	3.15958e-09
623.068	5.1914e-09
630.645	7.16045e-09
642.004	1.14414e-08
653.363	1.79989e-08
660.936	2.41453e-08
672.295	3.70701e-08
683.654	5.61413e-08
691.227	7.35008e-08
702.585	1.08958e-07
710.158	1.40707e-07
721.517	2.04502e-07
732.876	2.9393e-07
740.449	3.72137e-07
751.807	5.25647e-07
763.163	7.35191e-07
770.722	9.1439e-07
782.048	1.25851e-06
793.378	1.71751e-06
800.931	2.10353e-06
812.26	2.83258e-06
823.589	3.78575e-06
831.142	4.57504e-06
842.471	6.0432e-06
850.024	7.24849e-06
861.353	9.4715e-06
872.683	1.23011e-05
880.236	1.45954e-05
891.565	1.87754e-05
902.894	2.40221e-05
910.447	2.82291e-05
921.776	3.58094e-05
933.105	4.52031e-05
940.658	5.26582e-05
951.987	6.59527e-05
963.316	8.22302e-05
970.869	9.50228e-05
982.198	0.000117612
993.528	0.00014495
1001.08	0.000166233
1012.41	0.000203456
1023.74	0.000248005
1031.29	0.000282376
1042.62	0.000341952
1050.17	0.000387665
1061.5	0.000466447
1072.83	0.000559107
1080.38	0.000629573
1091.71	0.000749899
1103.04	0.000889827
1110.6	0.000995241
1121.93	0.00117366
1133.25	0.00137922
1140.81	0.00153271
1152.14	0.00178885
1163.47	0.00207846
1171.02	0.0022927
1182.35	0.00264952
1193.68	0.00305077
1201.23	0.00334425
1212.56	0.00382651
1220.11	0.00418388
1231.43	0.00478508
1242.75	0.0055031
1250.29	0.00640168
1261.62	0.00830278
1272.94	0.00953575
1280.48	0.00995537
1291.8	0.0113277
1303.12	0.0134297
1310.67	0.015088
1321.99	0.0171925
1333.31	0.0196657
1340.85	0.0235974
1352.17	0.030463
1363.49	0.0388391
1371.03	0.0449107
1382.31	0.0541228
1393.56	0.0634937
1401.07	0.0702698
1412.34	0.0818428
1423.6	0.0958671
1431.09	0.106781
1442.33	0.125897
1453.57	0.148674
1461.06	0.166095
1472.3	0.196187
1483.54	0.231928
1491.03	0.259306
1502.27	0.306089
1513.51	0.359991
1521	0.399967
1532.23	0.466005
1543.45	0.539185
1550.9	0.591661
1562.08	0.675873
1573.26	0.76597
1580.72	0.828777
1591.9	0.926162
1603.08	1.02607
1610.54	1.09331
1621.72	1.19389
1632.9	1.29258
1640.36	1.3565
1651.49	1.44794
1662.53	1.53257
1673.59	1.61003
1680.96	1.65701
1692.02	1.71972
1703.08	1.77232
1710.45	1.80141
1721.51	1.83571
1732.57	1.85845
1743.63	1.86939
1751	1.87005
1762.06	1.86099
1773.12	1.8398
1780.49	1.81891
1791.55	1.7774
1802.61	1.7236
1813.66	1.65736
1821.04	1.6062
1832.1	1.51876
1843.15	1.4182
1850.53	1.3437
1861.59	1.22056
1872.65	1.08352
1880.02	0.984398
1891.08	0.82417
1902.14	0.650404
1913.19	0.463856
1920.57	0.334684
1931.63	0.130817
1942.68	-0.133962
1950.06	-0.212316
1961.12	-0.315655
1972.17	-0.448714
1983.23	-0.488863
1990.61	-0.511996
2001.66	-0.541477
2012.72	-0.533527
2020.1	-0.552018
2031.15	-0.578221
2042.21	-0.602882
2053.27	-0.626139
2060.64	-0.641139
2071.7	-0.662521
2082.76	-0.687439
2090.13	-0.700529
2101.19	-0.716383
2112.25	-0.728588
2123.31	-0.737926
2130.68	-0.742919
2141.74	-0.749006
2152.8	-0.753831
2160.17	-0.75649
2171.23	-0.759617
2182.29	-0.761598
2193.35	-0.762256
2200.72	-0.76187
2211.78	-0.759952
2222.84	-0.756371
2230.21	-0.753072
2241.27	-0.746825
2252.33	-0.739131
2263.39	-0.730113
2270.76	-0.723421
2281.82	-0.712434
2292.88	-0.700387
2300.25	-0.691806
2311.31	-0.67817
2322.36	-0.663693
2333.42	-0.64846
2340.8	-0.637929
2351.85	-0.621634
2362.91	-0.604818
2370.29	-0.593358
2381.34	-0.575855
2392.4	-0.55804
2403.46	-0.539985
2410.83	-0.527851
2421.89	-0.509556
2432.95	-0.491212
2440.32	-0.478993
2451.38	-0.460731
2462.44	-0.442616
2473.5	-0.424717
2480.87	-0.412936
2491.93	-0.39554
2502.99	-0.378523
2510.36	-0.367414
2521.42	-0.35114
2532.48	-0.335368
2543.53	-0.320133
2550.91	-0.310289
2561.96	-0.296012
2573.02	-0.282337
2580.4	-0.273562
2591.45	-0.260918
2602.51	-0.248902
2613.57	-0.237511
2620.94	-0.230263
2632	-0.219901
2643.06	-0.210141
2650.43	-0.203961
2661.49	-0.195167
2672.55	-0.186925
2683.61	-0.179215
2690.98	-0.174359
2700.03	-0.1687
2711.09	-0.16221
2722.15	-0.156172
2733.21	-0.150562
2740.58	-0.14705
2751.64	-0.142111
2762.69	-0.137544
2770.07	-0.134699
2781.1	-0.130727
2792.13	-0.127082
2803.16	-0.123751
2810.52	-0.121696
2821.55	-0.118854
2832.58	-0.116287
2843.61	-0.113984
2850.96	-0.112588
2861.99	-0.110695
2873.02	-0.109032
2880.38	-0.108045
2891.41	-0.106738
2902.44	-0.10563
2913.47	-0.104708
2920.82	-0.10419
2931.85	-0.103551
2942.88	-0.103066
2950.24	-0.102822
2961.27	-0.102567
2972.3	-0.102435
2983.33	-0.102412
2990.68	-0.102453
3001.72	-0.102588
3012.75	-0.102802
3020.1	-0.102983
3031.13	-0.103302
3042.16	-0.10367
3053.19	-0.104075
3060.55	-0.10436
3071.58	-0.104802
3082.61	-0.105253
3093.64	-0.105702
3100.99	-0.105996
3112.02	-0.106422
3123.05	-0.106821
3130.41	-0.107069
3141.44	-0.107406
3152.47	-0.107696
3163.5	-0.107931
3170.85	-0.108055
3181.88	-0.108186
3192.91	-0.108247
3200.27	-0.108247
3211.3	-0.108181
3222.33	-0.108035
3233.36	-0.107805
3240.71	-0.107603
3251.74	-0.107228
3262.77	-0.106765
3270.13	-0.106406
3281.16	-0.105794
3292.19	-0.105093
3303.22	-0.104303
3310.57	-0.103729
3321.6	-0.102798
3332.63	-0.101784
3343.66	-0.10069
3351.02	-0.0999193
3362.05	-0.0987019
3373.08	-0.0974155
3380.43	-0.0965217
3391.46	-0.0951304
3402.49	-0.0936826
3413.52	-0.0921835
3420.88	-0.0911583
3431.91	-0.0895854
3442.94	-0.0879754
3450.29	-0.0868841
3461.32	-0.0852239
3472.35	-0.0835405
3483.38	-0.0818388
3490.74	-0.0806965
3501.77	-0.0789748
3512.8	-0.077247
3520.15	-0.0760938
3531.18	-0.0743647
3542.21	-0.0726397
3553.24	-0.070922
3560.6	-0.0697824
3571.63	-0.0680833
3582.66	-0.0663986
3590.01	-0.0652846
3601.04	-0.0636287
3612.07	-0.0619923
3623.1	-0.0603768
3630.46	-0.059312
3641.49	-0.0577339
3652.52	-0.0561793
3663.55	-0.0546489
3670.9	-0.0536422
3681.93	-0.0521529
3692.96	-0.0506885
3700.31	-0.0497261
3711.34	-0.0483033
3722.37	-0.0469051
3733.4	-0.0455315
3740.76	-0.044629
3751.79	-0.0432951
3762.82	-0.0419844
3770.17	-0.0411231
3781.2	-0.0398494
3792.23	-0.0385969
3803.26	-0.0373649
3810.62	-0.0365543
3821.65	-0.0353541
3832.68	-0.0341715
3840.03	-0.0333925
3851.06	-0.032237
3862.09	-0.0310962
3873.12	-0.0299688
3880.48	-0.0292241
3891.51	-0.0281164
3902.54	-0.0270187
3913.57	-0.0259299
3920.92	-0.0252082
3931.95	-0.0241311
3942.98	-0.0230595
3950.34	-0.0223475
3961.37	-0.0212822
3972.4	-0.0202193
3983.43	-0.0191577
3990.78	-0.0184502
4001.81	-0.0173886
4012.84	-0.016326
4020.2	-0.0156166
4031.23	-0.0145507
4042.26	-0.013482
4053.29	-0.0124103
4060.64	-0.0116939
4071.67	-0.0106164
4082.7	-0.0095353
4090.06	-0.00881265
4101.09	-0.00772595
4112.12	-0.00663629
4123.15	-0.00554419
4130.5	-0.00481513
4141.53	-0.00372073
4152.56	-0.00262639
4163.59	-0.00153355
4170.95	-0.000806704
4181.98	0.000279386
4193.01	0.00135817
4200.39	0.00207406
4211.45	0.00313696
4222.52	0.00418319
4233.58	0.00520833
4240.96	0.00587771
4252.03	0.00685734
4263.09	0.00780436
4270.47	0.00841621
4281.54	0.00930175
4292.6	0.0101315
4303.67	0.0109117
4311.05	0.0114062
4322.13	0.0121088
4333.21	0.0128276
4340.59	0.013322
4351.67	0.0139864
4362.75	0.0146699
4370.13	0.0151867
4381.21	0.0157545
4392.29	0.0161975
4403.37	0.0171059
4410.75	0.0172274
4421.83	0.0180855
4432.91	0.0198747
4440.3	0.0204157
4451.37	0.0226654
4462.46	0.0257353
4473.55	0.0288866
4480.94	0.0312051
4492.09	0.0347026
4503.25	0.0378426
4510.69	0.0399643
4521.85	0.0434539
4533.02	0.0473474
4540.48	0.0501072
4551.71	0.0543391
4562.94	0.0585765
4570.42	0.0613951
4581.65	0.0655818
4592.88	0.0696542
4600.37	0.0722878
4611.6	0.0761637
4622.83	0.0800455
4630.31	0.082664
4641.54	0.0866137
4652.77	0.0905261
4660.26	0.0930866
4671.49	0.0968399
4682.72	0.100481
4690.2	0.102838
4701.43	0.106247
4712.66	0.109482
4720.15	0.111532
4731.38	0.114437
4742.61	0.117132
4750.09	0.118813
4761.32	0.121167
4772.55	0.12333
4780.04	0.124666
4791.27	0.126507
4802.5	0.12814
4813.73	0.129551
4821.21	0.130365
4832.44	0.131389
4843.67	0.132167
4851.16	0.132545
4862.39	0.132892
4873.62	0.132968
4881.1	0.132867
4892.33	0.13249
4903.56	0.131847
4911.05	0.131276
4922.28	0.130217
4933.51	0.128921
4941	0.12793
4952.22	0.126256
4963.45	0.124357
4970.94	0.122966
4982.17	0.120689
4993.4	0.118184
5000.89	0.116388
5012.12	0.113508
5023.35	0.110417
5030.83	0.108244
5042.06	0.104831
5053.29	0.101249
5060.78	0.0987769
5072.01	0.0949545
5083.26	0.0910021
5090.77	0.088304
5102.08	0.084161
5113.41	0.079928
5120.96	0.0770691
5132.29	0.0727406
5143.62	0.0683839
5151.17	0.0654759
5162.5	0.0611277
5170.05	0.0582493
5181.38	0.053981
5192.71	0.0497925
5200.26	0.0470544
5211.59	0.0430403
5222.92	0.0391459
5230.47	0.0366171
5241.8	0.0329198
5253.13	0.0293244
5260.69	0.0269745
5272.02	0.0235054
5283.34	0.0200871
5290.9	0.0178201
5302.23	0.0143524
5313.56	0.0105259
5321.11	0.00827469
5332.44	0.00448177
5343.77	0.00326352
5351.32	0.00229675
5362.65	0.000951916
5370.2	0.000531307
5381.53	6.27717e-05
5392.86	-0.000305793
5400.41	-0.000539284
5411.74	-0.00102721
5423.07	-0.00130217
5430.62	-0.00146306
5441.95	-0.00166301
5453.28	-0.00181853
5460.84	-0.0018992
5472.16	-0.00197096
5483.49	-0.00198117
5491.05	-0.00195255
5502.38	-0.00185244
5513.71	-0.00168369
5521.26	-0.00153441
5532.58	-0.0012578
5540.13	-0.00104027
5551.45	-0.000667845
5562.77	-0.000244357
5570.32	6.41454e-05
5581.64	0.000563275
5592.96	0.0011031
5600.51	0.00148428
5611.83	0.00208661
5623.15	0.00272456
5630.7	0.00316926
5642.02	0.00386489
5653.34	0.00459401
5660.87	0.00509712
5672.19	0.00587885
5683.51	0.00668933
5691.06	0.00724424
5702.33	0.00809235
5713.59	0.00895934
5721.1	0.00954678
5732.36	0.0104385
5743.62	0.0113366
5751.12	0.0119381
5762.36	0.0128379
5773.6	0.0137053
5781.09	0.0142669
5792.33	0.0150952
5803.57	0.016275
5811.06	0.0170005
5822.3	0.0176476
5833.54	0.0183629
5841.03	0.0187989
5852.27	0.0194783
5863.5	0.0201792
5870.97	0.020907
5882.15	0.0220864
5893.33	0.0232189
5900.78	0.0239628
5911.96	0.0247417
5923.15	0.025249
5930.6	0.0256405
5941.79	0.0264004
5952.97	0.0272406
5960.42	0.0277636
5971.61	0.0284487
5982.79	0.0290293
5990.19	0.0293556
6001.24	0.0297305
6012.3	0.0299762
6023.36	0.0301559
6030.73	0.0302731
6041.79	0.0304589
6052.85	0.0306361
6060.22	0.0307336
6071.28	0.0308299
6082.34	0.0308418
6093.39	0.0307364
6100.77	0.0305868
6111.83	0.0302371
6122.88	0.0297503
6130.26	0.0293642
6141.32	0.0287199
6152.38	0.0280328
6163.43	0.0273425
6170.81	0.0268978
6181.87	0.0262715
6192.92	0.0257031
6200.3	0.0253562
6211.36	0.0248789
6222.41	0.0244478
6233.47	0.0240625
6240.85	0.0238347
6251.9	0.0235454
6262.96	0.0233264
6270.34	0.0232206
6281.39	0.0231201
6292.45	0.0230872
6303.51	0.0231195
6310.89	0.0231746
6321.94	0.0232974
6333	0.0234488
6340.38	0.0235542
6351.43	0.0237088
6362.49	0.0238581
6373.55	0.0240104
6380.92	0.0241192
6391.98	0.0243001
6403.04	0.0245057
6410.41	0.0246563
6421.47	0.0248988
6432.53	0.025156
6443.59	0.0254211
6450.96	0.0255985
6462.02	0.0258592
6473.08	0.0261053
6480.45	0.0262572
6491.51	0.026463
6502.57	0.0266411
6513.63	0.0267939
6521	0.0268838
6532.06	0.027004
6543.12	0.027109
6550.49	0.0271703
6561.55	0.0272466
6572.61	0.0272991
6583.67	0.0273207
6591.04	0.0273142
6602.1	0.0272675
6613.16	0.027169
6620.53	0.0270707
6631.59	0.0268693
6642.65	0.0265994
6650.02	0.0263808
6661.08	0.0259964
6672.14	0.0255472
6683.2	0.0250356
6690.57	0.0246602
6701.63	0.0240449
6712.69	0.0233639
6720.06	0.0228713
6731.12	0.0220715
6742.18	0.0211973
6753.24	0.0202479
6760.61	0.0195717
6771.67	0.0184877
6782.73	0.0173098
6790.1	0.0164642
6801.16	0.015079
6812.22	0.0134762
6823.28	0.0113373
6830.65	0.00950161
6841.71	0.00529997
6852.77	0.00163682
6860.14	-0.00161522
6871.2	-0.00345154
6882.26	-0.00481298
6893.32	-0.006503
6900.69	-0.00734215
6911.75	-0.00880356
6922.81	-0.0103908
6930.18	-0.0114926
6941.24	-0.0132804
6952.3	-0.015086
6963.36	-0.0169069
6970.73	-0.0181166
6981.79	-0.019906
6992.85	-0.0216601
7000.22	-0.0228198
7011.28	-0.0245634
7022.34	-0.0263149
7033.39	-0.0280733
7040.77	-0.0292486
7051.83	-0.0310155
7062.89	-0.0327875
7070.26	-0.0339721
7081.32	-0.0357544
7092.38	-0.0375436
7103.43	-0.0393389
7110.81	-0.0405385
7121.87	-0.0423403
7132.92	-0.0441424
7140.3	-0.0453423
7151.36	-0.0471382
7162.42	-0.0489271
7173.47	-0.0507074
7180.84	-0.0518882
7191.9	-0.0536516
7202.96	-0.0554039
7210.33	-0.0565655
7221.37	-0.0582949
7232.41	-0.0600097
7243.44	-0.06171
7250.79	-0.0628352
7261.82	-0.0645093
7272.85	-0.0661661
7280.21	-0.0672603
7291.24	-0.0688854
7302.27	-0.0704899
7313.3	-0.0720728
7320.65	-0.0731154
7331.68	-0.07466
7342.71	-0.0761803
7350.07	-0.07718
7361.1	-0.0786582
7372.13	-0.0801102
7383.16	-0.0815352
7390.51	-0.0824699
7401.54	-0.0838483
7412.58	-0.0851979
7423.61	-0.0865178
7430.96	-0.087381
7441.99	-0.0886501
7453.02	-0.0898877
7460.38	-0.0906949
7471.41	-0.0918785
7482.44	-0.0930289
7493.47	-0.0941454
7500.82	-0.0948707
7511.85	-0.0959294
7522.88	-0.0969526
7530.24	-0.0976148
7541.27	-0.0985777
7552.3	-0.0995038
7563.33	-0.100393
7570.68	-0.100964
7581.71	-0.101789
7592.74	-0.102576
7600.1	-0.103079
7611.13	-0.103801
7622.16	-0.104483
7633.19	-0.105125
7640.54	-0.105531
7651.57	-0.106106
7662.6	-0.106641
7673.64	-0.107135
7680.99	-0.107441
7692.02	-0.107867
7703.05	-0.108251
7710.4	-0.108484
7721.43	-0.1088
7732.47	-0.109073
7743.5	-0.109305
7750.85	-0.109437
7761.88	-0.1096
7772.91	-0.109721
7780.27	-0.109779
7791.3	-0.109831
7802.33	-0.109841
7813.36	-0.10981
7820.71	-0.109766
7831.74	-0.109667
7842.77	-0.109525
7850.13	-0.109409
7861.16	-0.109199
7872.19	-0.108949
7883.22	-0.108658
7890.57	-0.108442
7901.6	-0.108084
7912.63	-0.107687
7923.66	-0.10725
7931.02	-0.106937
7942.05	-0.106435
7953.08	-0.105894
7960.43	-0.105512
7971.46	-0.104909
7982.49	-0.104268
7993.53	-0.10359
8000.88	-0.103118
8011.91	-0.102381
8022.94	-0.101609
8030.29	-0.101076
8041.33	-0.100247
8052.36	-0.0993858
8063.39	-0.0984924
8070.74	-0.0978794
8081.77	-0.0969346
8092.8	-0.0959601
8100.16	-0.0952944
8111.19	-0.0942726
8122.22	-0.0932236
8133.25	-0.0921484
8140.6	-0.0914176
8151.63	-0.090301
8162.66	-0.0891609
8170.02	-0.0883882
8181.05	-0.087211
8192.08	-0.086013
8203.11	-0.084795
8210.46	-0.0839723
8221.49	-0.0827232
8232.53	-0.0814565
8243.56	-0.0801732
8250.91	-0.0793089
8261.94	-0.0779998
8272.97	-0.0766763
8280.33	-0.0757863
8291.36	-0.0744403
8302.39	-0.0730818
8313.42	-0.0717114
8320.77	-0.0707915
8331.8	-0.0694024
8342.83	-0.0680029
8350.19	-0.0670643
8361.22	-0.0656483
8372.25	-0.0642229
8383.28	-0.0627883
8390.63	-0.061827
8401.66	-0.0603779
8412.69	-0.0589203
8420.05	-0.0579439
8431.08	-0.0564725
8442.11	-0.0549929
8453.14	-0.0535053
8460.49	-0.052509
8471.53	-0.0510079
8482.56	-0.0494988
8493.59	-0.0479817
8500.94	-0.0469658
8511.97	-0.0454353
8523	-0.0438967
8530.36	-0.0428664
8541.42	-0.0413095
8552.49	-0.0397444
8563.55	-0.0381713
8570.93	-0.0371181
8582	-0.0355318
8593.06	-0.0339378
8600.44	-0.0328709
8611.51	-0.0312644
8622.57	-0.0296507
8633.64	-0.0280303
8641.01	-0.0269465
8652.08	-0.0253158
8663.15	-0.0236795
8670.52	-0.022586
8681.59	-0.0209421
8692.66	-0.0192948
8700.03	-0.0181952
8711.1	-0.0165445
8722.16	-0.0148935
8733.23	-0.0132439
8740.61	-0.0121458
8751.67	-0.0105028
8762.74	-0.00886689
8770.12	-0.00778167
8781.18	-0.00616437
8792.25	-0.00456312
8803.31	-0.00298208
8810.69	-0.00194133
8821.76	-0.00040346
8832.82	0.00110157
8840.2	0.00208388
8851.27	0.00352254
8862.33	0.00491752
8873.4	0.00626607
8880.77	0.00713018
8891.84	0.00837385
8902.92	0.00956626
8910.3	0.0103392
8921.37	0.0114669
8932.44	0.0130444
8943.52	0.0145442
8950.91	0.0154295
8961.99	0.0162046
8973.07	0.0166312
8980.45	0.0172636
8991.53	0.018025
9002.61	0.0191967
9013.69	0.0203364
9021.07	0.0215034
9032.15	0.0239548
9043.23	0.0270728
9050.62	0.0292355
9061.7	0.0323975
9072.79	0.0352787
9080.21	0.0370523
9091.38	0.0396396
9102.6	0.0421282
9110.09	0.0437146
9121.32	0.045958
9132.55	0.0480178
9140.03	0.0493091
9151.26	0.0511534
9162.49	0.052905
9173.72	0.0545644
9181.21	0.0556069
9192.44	0.0570502
9203.67	0.058346
9211.15	0.0591465
9222.38	0.0602844
9233.61	0.0613454
9241.1	0.0619888
9252.33	0.0628281
9263.56	0.063519
9271.05	0.0639153
9282.28	0.0644449
9293.51	0.0649185
9300.99	0.0652082
9312.22	0.0656095
9323.45	0.0659816
9330.94	0.0662198
9342.17	0.066568
9353.4	0.0669067
9360.88	0.0671256
9372.11	0.067439
9383.34	0.0677257
9390.83	0.0678955
9402.06	0.0681044
9413.29	0.0682394
9420.78	0.0682788
9432.01	0.0682542
9443.23	0.0681334
9450.72	0.0680081
9461.95	0.0677726
9473.18	0.0675047
9480.67	0.0673202
9491.9	0.0670478
9503.13	0.0667881
9510.61	0.0666211
9521.84	0.0663703
9533.07	0.0661003
9540.56	0.0658987
9551.79	0.0655521
9563.02	0.0651492
9570.5	0.0648535
9581.75	0.0643823
9593.02	0.0638974
9600.55	0.063575
9611.87	0.0631005
9623.19	0.062637
9630.72	0.0623298
9641.99	0.0618604
9653.24	0.0613653
9660.76	0.0610137
9672.02	0.060449
9683.26	0.0598389
9690.75	0.0594081
9701.99	0.0587319
9713.23	0.0580286
9720.72	0.0575494
9731.96	0.0568208
9743.2	0.0560846
9750.69	0.0555909
9761.93	0.0548472
9773.17	0.0541018
9780.65	0.0536061
9791.87	0.0528685
9803.04	0.0521447
9810.49	0.0516701
9821.68	0.0509713
9832.86	0.0502858
9840.31	0.0498326
9851.5	0.0491502
9862.68	0.0484532
9870.14	0.0479744
9881.32	0.0472283
9892.5	0.0464456
9903.68	0.0456282
9911.14	0.0450677
9922.22	0.0442186
9933.27	0.0433641
9940.65	0.042795
9951.71	0.0419494
9962.76	0.0411187
9970.14	0.0405747
9981.2	0.0397736
9992.25	0.0389899
10003.3	0.0382225
10010.7	0.0377196
10021.7	0.0369786
10032.8	0.036254
10040.2	0.03578
10051.2	0.0350823
10062.3	0.0343986
10073.4	0.0337253
10080.7	0.03328
10091.8	0.0326143
10102.8	0.0319482
10110.2	0.0315032
10121.3	0.0308348
10132.3	0.0301683
10143.4	0.0295086
10150.8	0.0290755
10161.8	0.0284403
10172.9	0.0278266
10180.3	0.0274311
10191.3	0.0268595
10202.4	0.0263145
10213.4	0.0257957
10220.8	0.0254639
10231.9	0.0249867
10242.9	0.0245332
10250.3	0.0242433
10261.4	0.0238257
10272.4	0.0234265
10283.5	0.0230425
10290.8	0.0227934
10301.9	0.0224277
10313	0.0220695
10320.3	0.0218343
10331.4	0.0214867
10342.5	0.0211464
10353.5	0.0208153
10360.9	0.0206007
10371.9	0.0202896
10383	0.0199932
10390.4	0.0198044
10401.4	0.0195345
10412.5	0.0192805
10423.6	0.0190416
10430.9	0.0188898
10442	0.0186717
10453	0.0184619
10460.4	0.0183246
10471.5	0.0181178
10482.5	0.0179041
10493.6	0.0176762
10501	0.0175135
10512	0.0172505
10523.1	0.0169643
10530.5	0.0167617
10541.5	0.016444
10552.6	0.0161158
10563.6	0.015785
10571	0.0155671
10582.1	0.01525
10593.1	0.014949
10600.5	0.0147583
10611.6	0.0144858
10622.6	0.0142259
10633.7	0.0139731
10641	0.0138057
10652.1	0.0135513
10663.2	0.0132877
10670.5	0.0131043
10681.6	0.012816
10692.6	0.0125131
10700	0.0123052
10711.1	0.0119885
10722.1	0.0116685
10733.2	0.0113429
10740.6	0.011119
10751.6	0.0107602
10762.7	0.0103347
10770.1	0.00982959
10781.1	0.00928216
10792.2	0.00877894
10803.2	0.00839609
10810.6	0.00826904
10821.7	0.00794386
10832.7	0.0075364
10840.1	0.00725172
10851.2	0.00726897
10862.2	0.00691284
10873.3	0.00653254
10880.7	0.00626653
10891.7	0.00580082
10902.8	0.00528434
10910.1	0.00496445
10921.2	0.0044958
10932.3	0.00402599
10943.3	0.00354628
10950.7	0.00321999
10961.7	0.00272268
10972.8	0.00221378
10980.2	0.0018665
10991.2	0.00133183
11002.3	0.000778787
11013.4	0.000205597
11020.7	-0.000187855
11031.8	-0.000794071
11042.8	-0.00141748
11050.2	-0.0018413
11061.3	-0.00248728
11072.3	-0.00314322
11083.4	-0.00380669
11090.8	-0.00425219
11101.8	-0.00492416
11112.9	-0.00559988
11120.3	-0.00605234
11131.3	-0.00673419
11142.4	-0.00742038
11153.4	-0.00811159
11160.8	-0.00857547
11171.9	-0.00927617
11182.9	-0.00998272
11190.3	-0.0104568
11201.4	-0.0111721
11212.4	-0.0118915
11223.5	-0.0126133
11230.8	-0.0130957
11241.9	-0.0138194
11253	-0.0145423
11260.3	-0.0150231
11271.4	-0.0157408
11282.4	-0.0164542
11293.4	-0.017163
11300.8	-0.0176329
11311.8	-0.0183333
11322.9	-0.0190283
11330.2	-0.0194883
11341.2	-0.0201734
11352.3	-0.0208521
11363.3	-0.0215239
11370.7	-0.0219677
11381.7	-0.0226268
11392.7	-0.0232774
11400.1	-0.023706
11411.1	-0.0243407
11422.1	-0.024965
11433.2	-0.025578
11440.5	-0.0259802
11451.5	-0.0265733
11462.6	-0.0271538
11473.6	-0.0277213
11481	-0.0280923
11492	-0.0286376
11503	-0.0291693
11510.4	-0.0295161
11521.4	-0.030025
11532.4	-0.0305199
11543.5	-0.031001
11550.8	-0.0313138
11561.9	-0.0317714
11572.9	-0.0322147
11580.2	-0.0325023
11591.3	-0.0329216
11602.3	-0.0333264
11613.3	-0.0337166
11620.7	-0.0339685
11631.7	-0.0343341
11642.7	-0.034685
11650.1	-0.0349108
11661.1	-0.0352373
11672.2	-0.0355492
11683.2	-0.0358467
11690.5	-0.0360371
11701.6	-0.036311
11712.6	-0.036571
11723.6	-0.0368172
11731	-0.0369738
11742	-0.0371976
11753.1	-0.0374083
11760.4	-0.0375415
11771.4	-0.0377305
11782.5	-0.037907
11793.5	-0.0380709
11800.9	-0.0381734
11811.9	-0.0383169
11822.9	-0.0384485
11830.3	-0.0385297
11841.3	-0.0386419
11852.3	-0.0387426
11863.4	-0.0388321
11870.7	-0.0388857
11881.7	-0.0389571
11892.8	-0.0390179
11900.1	-0.0390527
11911.2	-0.0390965
11922.2	-0.0391303
11933.2	-0.0391545
11940.6	-0.0391653
11951.6	-0.0391739
11962.6	-0.0391734
11973.7	-0.0391641
11981	-0.0391532
11992.1	-0.0391297
12003.1	-0.0390982
12010.4	-0.0390727
12021.5	-0.0390281
12032.5	-0.0389759
12043.5	-0.0389166
12050.9	-0.0388731
12061.9	-0.0388021
12072.9	-0.0387247
12080.3	-0.0386695
12091.3	-0.0385817
12102.4	-0.0384881
12113.4	-0.038389
12120.7	-0.03832
12131.8	-0.0382123
12142.8	-0.0381
12150.2	-0.0380226
12161.2	-0.0379031
12172.2	-0.0377797
12183.3	-0.0376528
12190.6	-0.0375664
12201.6	-0.0374343
12212.7	-0.0372996
12220	-0.0372085
12231.1	-0.0370701
12242.1	-0.0369299
12253.1	-0.0367884
12260.5	-0.0366934
12271.5	-0.0365502
12282.5	-0.0364064
12293.6	-0.0362624
12300.9	-0.0361664
12311.9	-0.0360227
12323	-0.0358796
12330.3	-0.0357847
12341.4	-0.0356432
12352.4	-0.0355031
12363.4	-0.0353646
12370.8	-0.0352732
12381.8	-0.035138
12392.8	-0.0350051
12400.2	-0.0349179
12411.2	-0.0347893
12422.3	-0.0346636
12433.3	-0.034541
12440.6	-0.0344611
12451.7	-0.0343441
12462.7	-0.0342306
12470.1	-0.034157
12481.1	-0.0340497
12492.1	-0.0339463
12503.1	-0.033847
12510.5	-0.0337831
12521.5	-0.0336906
12532.6	-0.0336024
12543.6	-0.0335185
12550.9	-0.033465
12562	-0.0333883
12573	-0.0333159
12580.4	-0.03327
12591.5	-0.0332048
12602.5	-0.0331441
12613.6	-0.0330877
12621	-0.0330525
12632	-0.0330033
12643.1	-0.0329583
12650.5	-0.0329307
12661.6	-0.0328927
12672.7	-0.0328589
12680.1	-0.0328385
12691.1	-0.0328113
12702.2	-0.032788
12713.3	-0.0327684
12720.8	-0.0327574
12731.9	-0.0327438
12743.2	-0.0327339
12750.6	-0.0327292
12761.9	-0.032725
12773.1	-0.0327241
12780.6	-0.0327253
12791.8	-0.0327297
12803.1	-0.0327372
12810.5	-0.0327437
12821.8	-0.0327559
12833	-0.0327708
12840.5	-0.0327821
12851.7	-0.0328012
12862.9	-0.0328227
12870.4	-0.0328383
12881.7	-0.0328635
12892.9	-0.0328908
12900.4	-0.03291
12911.6	-0.0329405
12922.8	-0.0329728
12930.3	-0.0329952
12941.6	-0.0330302
12952.8	-0.0330667
12960.3	-0.0330919
12971.5	-0.0331306
12982.7	-0.0331707
12990.2	-0.033198
13001.4	-0.0332398
13012.7	-0.0332827
13020.2	-0.0333117
13031.4	-0.033356
13042.6	-0.033401
13050.1	-0.0334314
13061.3	-0.0334774
13072.6	-0.0335239
13080.1	-0.0335552
13091.3	-0.0336024
13102.5	-0.0336498
13113.7	-0.0336974
13121.2	-0.0337291
13132.5	-0.0337768
13143.7	-0.0338243
13151.2	-0.0338559
13162.4	-0.0339031
13173.6	-0.0339499
13181.1	-0.0339808
13192.3	-0.0340268
13203.6	-0.034072
13211.1	-0.0341017
13222.3	-0.0341456
13233.5	-0.0341884
13241	-0.0342163
13252.2	-0.0342571
13263.5	-0.0342965
13271	-0.0343219
13282.2	-0.0343586
13293.4	-0.0343936
13300.9	-0.0344157
13312.1	-0.0344472
13323.4	-0.0344765
13330.8	-0.0344946
13342.1	-0.0345196
13353.3	-0.0345418
13360.8	-0.034555
13372	-0.0345722
13383.3	-0.034586
13390.7	-0.0345933
13402	-0.0346012
13413.2	-0.0346052
13420.7	-0.0346056
13431.9	-0.0346027
13443.1	-0.0345953
13450.6	-0.0345878
13461.9	-0.0345726
13473.1	-0.0345523
13480.6	-0.0345359
13491.8	-0.0345068
13503	-0.034472
13510.5	-0.0344457
13521.8	-0.0344011
13533	-0.0343505
13540.5	-0.0343132
13551.7	-0.0342519
13562.9	-0.0341838
13570.4	-0.0341347
13581.6	-0.0340552
13592.9	-0.0339686
13600.4	-0.0339068
13611.6	-0.033808
13622.8	-0.0337016
13630.3	-0.0336264
13641.5	-0.0335072
13652.8	-0.0333802
13660.3	-0.0332911
13671.5	-0.0331507
13682.7	-0.0330023
13690.2	-0.0328988
13701.4	-0.0327367
13712.7	-0.0325664
13720.1	-0.0324482
13731.4	-0.0322641
13742.6	-0.0320717
13750.1	-0.0319388
13761.3	-0.0317326
13772.5	-0.0315181
13780	-0.0313706
13791.3	-0.0311425
13802.5	-0.0309062
13813.7	-0.030662
13821.2	-0.0304948
13832.4	-0.0302374
13843.7	-0.0299723
13851.2	-0.0297914
13862.4	-0.0295137
13873.6	-0.0292287
13881.1	-0.0290347
13892.3	-0.0287378
13903.6	-0.028434
13911	-0.0282278
13922.3	-0.027913
13933.5	-0.0275918
13941	-0.0273743
13952.2	-0.0270431
13963.5	-0.0267062
13970.9	-0.0264785
13982.2	-0.0261326
13993.4	-0.0257816
14000.9	-0.025545
14012.1	-0.0251861
14023.3	-0.0248229
14030.8	-0.0245785
14042.1	-0.0242086
14053.3	-0.0238351
14060.8	-0.0235842
14072	-0.0232053
14083.2	-0.0228234
14090.7	-0.0225673
14102	-0.0221811
14113.2	-0.0217927
14120.7	-0.0215327
14131.9	-0.0211413
14143.1	-0.0207483
14150.6	-0.0204855
14161.8	-0.0200905
14173.1	-0.0196946
14180.6	-0.0194303
14191.8	-0.0190334
14203	-0.0186361
14210.5	-0.0183712
14221.7	-0.0179739
14233	-0.0175768
14240.5	-0.0173122
14251.7	-0.0169158
14262.9	-0.0165198
14270.4	-0.0162559
14281.7	-0.0158603
14293	-0.0154648
14300.5	-0.0152005
14311.9	-0.0148051
14323.2	-0.014411
14330.9	-0.0141454
14342.5	-0.0137449
14350.2	-0.0134789
14361.9	-0.0130792
14373.6	-0.0126775
14381.5	-0.0124107
14393.3	-0.0120122
14401.1	-0.0117476
14412.9	-0.0113526
14420.7	-0.0110903
14432.5	-0.0106988
14440.3	-0.0104391
14452.1	-0.0100513
14463.9	-0.0096659
14471.7	-0.00941027
14483.5	-0.00902885
14491.3	-0.00877594
14503.1	-0.0083987
14511	-0.00814844
14522.8	-0.00777478
14530.7	-0.00752604
14542.5	-0.00715466
14550.4	-0.00690858
14562.3	-0.00654194
14570.2	-0.00629921
14582.1	-0.00593774
14590	-0.00569855
14601.9	-0.00534255
14613.8	-0.00499
14621.7	-0.00475694
14633.6	-0.0044104
14641.5	-0.00418148
14653.4	-0.00384135
14661.3	-0.00361683
14673.1	-0.00328352
14681.1	-0.00306369
14692.9	-0.00273763
14700.9	-0.00252279
14712.7	-0.00220445
14720.6	-0.00199492
14732.5	-0.00168478
14740.4	-0.00148088
14752.3	-0.00117946
14760.2	-0.000981539
14772.1	-0.000689351
14780	-0.000497771
14791.9	-0.000215373
14803.8	6.08755e-05
14811.7	0.000241519
14823.6	0.000507037
14831.5	0.000680323
14843.4	0.000934492
14851.3	0.0011
14863.1	0.00134219
14871.1	0.00149949
14882.9	0.00172906
14890.8	0.00187776
14902.7	0.00209413
14910.6	0.00223386
14922.5	0.00243654
14930.4	0.00256702
14942.3	0.00275572
14950.2	0.00287693
14962.1	0.00305154
14970	0.00316324
14981.9	0.00332406
14993.7	0.00347708
15001.6	0.00357497
15013.5	0.00371604
15021.4	0.00380653
15033.3	0.0039375
15041.2	0.00402204
15053	0.00414543
15060.9	0.00422588
15072.8	0.00434471
15080.7	0.00442326
15092.6	0.00454101
15100.5	0.00462004
15112.3	0.00474037
15120.2	0.00482233
15132.1	0.0049488
15143.9	0.00508051
15151.9	0.00517172
15163.7	0.00531421
15171.6	0.00541324
15183.5	0.0055681
15191.4	0.00567558
15203.2	0.0058429
15211.1	0.00595847
15223	0.00613719
15230.9	0.00625951
15242.8	0.00644689
15250.6	0.00657233
15262.3	0.00676239
15270.1	0.00688974
15281.8	0.0070806
15293.5	0.00726986
15301.3	0.00739418
15313	0.00757736
15320.8	0.00769674
15332.5	0.00787092
15340.3	0.00798338
15352	0.008146
15363.7	0.00830085
15371.5	0.00839957
15383.2	0.00854068
15390.9	0.00863009
15402.6	0.00875725
15410.4	0.00883746
15422.1	0.00895116
15433.8	0.00905726
15441.6	0.00912401
15453.3	0.00921856
15461.1	0.00927811
15472.8	0.0093627
15480.5	0.00941619
15492.2	0.00949254
15500	0.00954113
15511.7	0.00961101
15523.4	0.00967779
15531.2	0.00972088
15542.9	0.00978377
15550.7	0.00982476
15562.4	0.00988516
15570.2	0.00992491
15581.8	0.00998406
15593.5	0.010043
15601.3	0.0100822
15613	0.0101414
15620.8	0.0101812
15632.5	0.0102415
15640.3	0.0102821
15652	0.0103441
15663.7	0.0104072
15671.4	0.0104501
15683.1	0.0105156
15690.9	0.0105602
15702.6	0.0106283
15710.4	0.0106747
15722.1	0.0107458
15733.8	0.0108187
15741.6	0.0108683
15753.3	0.0109442
15761.1	0.0109959
15772.7	0.011075
15780.5	0.0111287
15792.2	0.011211
15800	0.0112668
15811.7	0.0113521
15823.4	0.0114393
15831.2	0.0114983
15842.9	0.0115884
15850.7	0.0116495
15862.3	0.0117424
15870.1	0.0118053
15881.8	0.011901
15893.5	0.0119982
15901.3	0.0120639
15913	0.0121638
15920.8	0.0122312
15932.5	0.0123334
15940.3	0.0124018
15951.9	0.0125056
15963.6	0.0126106
15971.4	0.0126812
15982.9	0.0127872
15990.7	0.0128585
16002.2	0.012966
16013.8	0.0130745
16021.5	0.0131473
16033.1	0.013257
16040.8	0.0133303
16052.3	0.0134409
16060	0.0135148
16071.6	0.0136261
16083.1	0.0137376
16090.8	0.0138121
16102.3	0.0139237
16110	0.013998
16121.6	0.014109
16133.1	0.0142194
16140.8	0.0142922
16152.3	0.0144004
16163.8	0.0145071
16171.4	0.0145774
16182.9	0.0146812
16190.6	0.0147492
16202.1	0.0148494
16213.6	0.0149474
16221.2	0.0150113
16232.7	0.0151052
16240.4	0.0151665
16251.9	0.0152563
16263.4	0.0153437
16271	0.0154005
16282.5	0.0154836
16290.2	0.0155375
16301.7	0.015616
16313.2	0.0156915
16320.8	0.0157399
16332.3	0.0158094
16343.8	0.0158747
16351.5	0.0159157
16363	0.0159735
16370.6	0.0160093
16382.1	0.016059
16393.6	0.0161032
16401.3	0.016129
16412.8	0.0161606
16420.4	0.0161773
16431.9	0.0161989
16443.3	0.0162218
16450.9	0.0162411
16462.3	0.0162818
16473.7	0.016338
16481.3	0.0163793
16492.7	0.0164514
16500.3	0.0165109
16511.7	0.0166216
16523	0.0167506
16530.6	0.0168411
16542	0.0169846
16553.3	0.0171411
16560.9	0.0168653
16572.2	0.0166859
16583.6	0.0166882
16591.2	0.0167588
16602.5	0.0169192
16610.1	0.0170413
16621.5	0.0172039
16632.8	0.0173298
16640.4	0.0174192
16651.7	0.0175718
16663	0.0177239
16670.6	0.0178154
16681.9	0.0179388
16693.2	0.0180517
16700.8	0.0181227
16712.1	0.0181924
16723.5	0.0182749
16731	0.0185055
16742.3	0.0190479
16753.7	0.0192281
16761.2	0.0192615
16772.5	0.019289
16780.1	0.0193094
16791.4	0.0193495
16802.8	0.0194009
16810.3	0.019431
16821.6	0.0194863
16833	0.0195587
16840.5	0.0196169
16851.9	0.0197476
16863.2	0.01994
16870.7	0.0199902
16882.1	0.0199915
16893.4	0.0200038
16900.9	0.0203928
16912.3	0.0204248
16923.6	0.0204222
16931.2	0.0204449
16942.5	0.0205037
16950	0.0205471
16961.4	0.020612
16972.7	0.0206701
16980.3	0.0206994
16991.6	0.0207613
17002.9	0.0207979
17010.5	0.0208054
17021.8	0.0207873
17033.1	0.020755
17040.7	0.0207345
17052	0.0207085
17063.3	0.0206832
17070.9	0.0206634
17082.2	0.0206285
17093.5	0.0205879
17101.1	0.0205571
17112.4	0.0205029
17123.7	0.0204356
17131.3	0.0203822
17142.6	0.0202888
17150.2	0.0202176
17161.5	0.0200975
17172.8	0.0199613
17180.3	0.0198615
17191.7	0.0196979
17203	0.0195166
17210.5	0.0193854
17221.9	0.0191714
17233.2	0.0189348
17240.7	0.0187634
17252	0.0184843
17263.3	0.0181774
17270.9	0.017956
17282.2	0.0175983
17293.5	0.017209
17301	0.0169327
17312.3	0.0164911
17323.6	0.0160164
17331.1	0.0156815
17342.3	0.0151522
17353.6	0.0145914
17361.1	0.0142005
17372.3	0.0135888
17383.6	0.0129469
17391	0.0125024
17402.3	0.0118112
17413.5	0.0110908
17421	0.0105945
17432.3	0.0096719
17443.5	0.00893618
17451	0.00865986
17462.2	0.00691388
17473.5	0.00597925
17481	0.00532582
17492.2	0.00425145
17503.4	0.00321382
17510.9	0.00254068
17522	0.00154433
17533.2	0.000554591
17540.7	-0.000105997
17551.9	-0.00110016
17563	-0.00209922
17570.5	-0.00276755
17581.7	-0.00377184
17592.9	-0.00477571
17600.3	-0.00544318
17611.5	-0.00643944
17622.7	-0.00742709
17630.1	-0.00807935
17641.3	-0.00904656
17652.5	-0.00999822
17663.7	-0.0109321
17671.1	-0.011544
17682.3	-0.0124442
17693.5	-0.013322
17701	-0.0138942
17712.1	-0.014732
17723.3	-0.0155445
17730.8	-0.0160717
17742	-0.0168404
17753.1	-0.017582
17760.6	-0.0180612
17771.8	-0.018757
17783	-0.0194251
17790.4	-0.019855
17801.6	-0.020474
17812.6	-0.0210603
17823.6	-0.0216197
17831	-0.0219776
17842	-0.0224923
17853.1	-0.0229805
17860.4	-0.0232914
17871.5	-0.0237359
17882.5	-0.0241546
17893.5	-0.0245477
17900.9	-0.0247957
17911.9	-0.0251467
17923	-0.0254728
17930.3	-0.0256769
17941.4	-0.0259624
17952.5	-0.0262235
17963.5	-0.0264602
17970.9	-0.0266046
17981.9	-0.0268011
17993	-0.0269737
18000.4	-0.0270754
18011.4	-0.0272082
18022.5	-0.0273173
18033.6	-0.0274028
18040.9	-0.0274466
18052	-0.0274928
18063	-0.0275155
18070.4	-0.0275176
18081.5	-0.0275013
18092.5	-0.0274617
18103.6	-0.0273989
18111	-0.0273442
18122	-0.0272429
18133.1	-0.0271187
18140.5	-0.0270231
18151.5	-0.0268609
18162.6	-0.0266762
18173.6	-0.0264691
18181	-0.0263186
18192.1	-0.0260747
18203.1	-0.0258091
18210.5	-0.02562
18221.6	-0.0253189
18232.6	-0.0249968
18243.7	-0.0246543
18251	-0.0244148
18262.1	-0.0240392
18273.2	-0.0236444
18280.5	-0.0233707
18291.6	-0.0229448
18302.7	-0.0225011
18310	-0.0221956
18321.1	-0.0217233
18332.1	-0.0212345
18343.2	-0.0207298
18350.6	-0.0203848
18361.6	-0.0198549
18372.7	-0.0193104
18380.1	-0.0189396
18391.1	-0.0183721
18402.2	-0.0177914
18413.2	-0.0171981
18420.6	-0.0167958
18431.7	-0.0161825
18442.7	-0.0155578
18450.1	-0.0151353
18461.2	-0.0144928
18472.2	-0.0138403
18483.3	-0.0131783
18490.7	-0.0127319
18501.7	-0.0120553
18512.8	-0.0113705
18520.1	-0.0109098
18531.2	-0.0102128
18542.3	-0.00950922
18553.3	-0.00879956
18560.7	-0.00832338
18571.8	-0.00760487
18582.8	-0.00688177
18590.2	-0.00639742
18601.2	-0.00566787
18612.3	-0.00493512
18623.4	-0.00419968
18630.7	-0.00370813
18641.8	-0.00296924
18652.8	-0.00222889
18660.2	-0.00173472
18671.3	-0.000992841
18682.3	-0.000250555
18693.4	0.000491787
18700.8	0.000986551
18711.8	0.00172827
18722.9	0.00246923
18730.3	0.00296266
18741.3	0.00370178
18752.4	0.0044395
18763.4	0.00517559
18770.8	0.00566532
18781.9	0.00639827
18792.9	0.0071291
18800.3	0.00761504
18811.4	0.00834192
18822.4	0.00906618
18833.5	0.00978764
18840.9	0.010267
18851.9	0.0109833
18863	0.0116962
18870.3	0.0121694
18881.4	0.0128761
18892.5	0.0135785
18903.5	0.0142765
18910.9	0.0147391
18921.9	0.0154287
18933	0.0161126
18940.4	0.0165652
18951.4	0.0172387
18962.5	0.0179052
18973.6	0.018562
18980.9	0.019009
18992	0.0195692
19003	0.019998
19010.4	0.0202755
19021.5	0.0206959
19032.5	0.0212797
19043.6	0.0219933
19051	0.0224627
19062	0.0230762
19073.1	0.0236332
19080.5	0.0240058
19091.5	0.0245726
19102.6	0.0251338
19113.6	0.0256735
19121	0.026019
19132	0.0265195
19143.1	0.0270029
19150.4	0.027316
19161.5	0.0277669
19172.5	0.0281906
19183.5	0.0285896
19190.9	0.0288471
19201.9	0.0292289
19212.9	0.0296108
19220.3	0.0298656
19231.3	0.0302424
19242.4	0.0306001
19253.4	0.0309217
19260.7	0.0311099
19271.8	0.031353
19282.8	0.0315588
19290.2	0.0316831
19301.2	0.0318602
19312.2	0.032033
19323.2	0.0322034
19330.6	0.0323141
19341.6	0.0324706
19352.7	0.0326082
19360	0.0326864
19371	0.032783
19382.1	0.0328593
19393.1	0.0329226
19400.5	0.0329605
19411.5	0.0330124
19422.5	0.0330561
19433.6	0.0330865
19440.9	0.0330967
19451.9	0.0330944
19463	0.0330713
19470.3	0.0330462
19481.4	0.0329982
19492.4	0.0329432
19503.4	0.0328845
19510.8	0.0328435
19521.8	0.032778
19532.8	0.0327051
19540.2	0.0326516
19551.2	0.0325633
19562.2	0.0324666
19573.3	0.0323635
19580.6	0.0322923
19591.7	0.0321829
19602.7	0.0320698
19610	0.031991
19621.1	0.0318647
19632.1	0.0317246
19643.1	0.0315669
19650.5	0.0314511
19661.5	0.0312615
19672.6	0.0310537
19683.6	0.0308297
19690.9	0.0306724
19702	0.0304259
19713	0.0301682
19720.4	0.0299906
19731.4	0.0297163
19742.4	0.029433
19753.4	0.0291412
19760.8	0.0289423
19771.8	0.0286375
19782.9	0.0283248
19790.2	0.028112
19801.2	0.0277857
19812.3	0.0274508
19823.3	0.027107
19830.7	0.0268728
19841.7	0.0265142
19852.7	0.0261472
19860.1	0.025898
19871.1	0.0255183
19882.1	0.0251318
19893.2	0.0247395
19900.5	0.0244749
19911.6	0.0240736
19922.6	0.0236668
19933.6	0.0232544
19941	0.0229761
19952	0.0225534
19963	0.0221243
19970.4	0.0218349
19981.4	0.0213961
19992.4	0.0209525
