0	0
11.7662	0
20.5908	0
32.357	0
41.1817	0
50.0063	0
61.7725	0
70.5972	0
82.3634	0
91.188	0
100.013	0
111.779	0
120.604	0
132.37	0
141.194	0
150.019	0
161.785	0
170.61	0
182.376	0
191.201	0
200.025	0
211.792	0
220.616	0
232.382	0
241.207	0
250.032	0
261.798	0
270.623	0
282.389	0
291.213	0
300.038	0
311.804	0
320.629	0
332.395	0
341.22	0
350.044	0
361.811	0
370.635	0
382.401	0
391.226	0
400.051	0
411.817	0
420.642	0
432.408	0
441.232	0
450.057	0
461.823	0
470.648	0
482.414	0
491.239	0
500.063	0
511.83	0
520.654	0
532.42	0
541.245	0
550.07	0
561.836	0
570.661	0
582.427	0
591.251	0
600.076	0
611.842	0
620.667	0
632.433	0
641.258	0
650.082	0
661.849	0
670.673	0
682.439	0
691.264	0
700.089	0
711.855	0
720.68	0
732.446	0
741.27	0
750.095	0
761.861	0
770.686	0
782.452	0
791.277	0
800.101	0
811.868	0
820.692	0
832.458	0
841.283	0
850.108	0
861.874	0
870.699	0
882.465	1.81899e-12
891.289	5.45697e-12
900.114	1.54614e-11
911.88	5.27507e-11
920.705	1.27329e-10
932.471	3.92902e-10
941.296	8.84938e-10
950.12	1.93995e-09
961.887	5.30599e-09
970.711	1.0964e-08
982.477	2.77969e-08
991.302	5.4356e-08
1000.13	1.03919e-07
1011.89	2.38309e-07
1020.72	4.33185e-07
1032.48	9.306e-07
1041.31	1.61307e-06
1050.13	2.74196e-06
1061.9	5.40049e-06
1070.72	8.78706e-06
1082.49	1.63531e-05
1091.31	2.55309e-05
1100.14	3.91875e-05
1111.91	6.76202e-05
1120.73	9.99102e-05
1132.5	0.000164093
1141.32	0.000233879
1150.15	0.000328446
1161.91	0.000505095
1170.74	0.000686229
1182.5	0.00101108
1191.33	0.00133157
1200.15	0.0017315
1211.92	0.00241092
1220.74	0.00304778
1232.51	0.00409279
1241.33	0.00504085
1250.16	0.00614393
1261.92	0.00787618
1270.75	0.00938538
1282.52	0.0116962
1291.34	0.0136654
1300.16	0.0158476
1311.93	0.0191081
1320.76	0.0218354
1332.52	0.0258856
1341.35	0.0292696
1350.17	0.0329925
1361.94	0.0385715
1370.76	0.0433029
1382.53	0.0505022
1391.35	0.0567068
1400.18	0.0637423
1411.94	0.0746747
1420.77	0.0842597
1432.53	0.0992541
1441.36	0.112435
1450.18	0.127525
1461.95	0.151018
1470.77	0.171474
1482.54	0.202966
1491.37	0.230025
1500.19	0.260244
1511.96	0.305718
1520.78	0.343854
1532.55	0.400185
1541.37	0.446537
1550.2	0.496327
1561.96	0.567814
1570.79	0.624975
1582.55	0.705369
1591.38	0.768332
1600.2	0.833114
1611.97	0.921496
1620.79	0.988614
1632.56	1.07816
1641.38	1.14462
1650.21	1.20982
1661.98	1.29381
1670.8	1.35386
1682.57	1.429
1691.39	1.48101
1700.22	1.5288
1711.98	1.58527
1720.81	1.62172
1732.57	1.66191
1741.4	1.68543
1750.22	1.70308
1761.99	1.71726
1770.81	1.72075
1782.58	1.71583
1791.4	1.70495
1800.23	1.68793
1811.99	1.65582
1820.82	1.62479
1832.59	1.57435
1841.41	1.52991
1850.23	1.47998
1862	1.40519
1870.83	1.34319
1882.59	1.2531
1891.42	1.18028
1900.24	1.10329
1912.01	0.994668
1920.83	0.90917
1932.6	0.790487
1941.42	0.698473
1950.25	0.604354
1962.01	0.476353
1970.84	0.37907
1982.6	0.248558
1991.43	0.150702
2000.25	0.0534174
2012.02	-0.0745604
2020.84	-0.168618
2032.61	-0.290573
2041.44	-0.378867
2050.26	-0.463974
2062.03	-0.571819
2070.85	-0.648018
2082.62	-0.742777
2091.44	-0.808366
2100.27	-0.869007
2112.03	-0.941864
2120.86	-0.990343
2132.62	-1.04662
2141.45	-1.08252
2150.27	-1.11304
2162.04	-1.14547
2170.86	-1.16375
2182.63	-1.18034
2191.45	-1.18719
2200.28	-1.18948
2212.04	-1.18588
2220.87	-1.17852
2232.64	-1.16304
2241.46	-1.14755
2250.28	-1.12907
2262.05	-1.10029
2270.88	-1.07598
2282.64	-1.04046
2291.47	-1.01186
2300.29	-0.981868
2312.06	-0.940122
2320.88	-0.907793
2332.65	-0.863719
2341.47	-0.830181
2350.3	-0.796415
2362.06	-0.751302
2370.89	-0.717569
2382.65	-0.67295
2391.48	-0.639885
2400.3	-0.607262
2412.07	-0.564583
2420.89	-0.533276
2432.66	-0.492576
2441.49	-0.462899
2450.31	-0.433999
2462.08	-0.396739
2470.9	-0.369794
2482.67	-0.335256
2491.49	-0.310429
2500.32	-0.286549
2512.08	-0.256217
2520.91	-0.23462
2532.67	-0.207387
2541.5	-0.188146
2550.32	-0.169929
2562.09	-0.147237
2570.91	-0.131418
2582.68	-0.111919
2591.5	-0.0984813
2600.33	-0.0860502
2612.1	-0.071019
2620.92	-0.0608825
2632.69	-0.0488471
2641.51	-0.0409022
2650.34	-0.0338575
2662.1	-0.0258187
2670.93	-0.0207683
2682.69	-0.0152814
2691.52	-0.0120599
2700.34	-0.00956743
2712.11	-0.00731901
2720.93	-0.00639334
2732.7	-0.0061055
2741.52	-0.00655273
2750.35	-0.00752815
2762.11	-0.00958791
2770.94	-0.0116555
2782.71	-0.0150419
2791.53	-0.0180083
2800.35	-0.021302
2812.12	-0.0261447
2820.95	-0.0300722
2832.71	-0.0356421
2841.54	-0.0400292
2850.36	-0.0445629
2862.13	-0.0507861
2870.95	-0.0555515
2882.72	-0.0619865
2891.54	-0.0668413
2900.37	-0.0716949
2912.13	-0.0781265
2920.96	-0.0828942
2932.72	-0.0891409
2941.55	-0.0937215
2950.37	-0.0981955
2962.14	-0.103972
2970.96	-0.108147
2982.73	-0.113485
2991.55	-0.117307
3000.38	-0.120965
3012.14	-0.125579
3020.97	-0.128837
3032.74	-0.132907
3041.56	-0.135754
3050.38	-0.138424
3062.15	-0.141713
3070.97	-0.14398
3082.74	-0.14674
3091.57	-0.14862
3100.39	-0.150342
3112.16	-0.152399
3120.98	-0.15377
3132.75	-0.155378
3141.57	-0.156426
3150.4	-0.157343
3162.16	-0.15837
3170.99	-0.159
3182.75	-0.159658
3191.58	-0.160019
3200.4	-0.160271
3212.17	-0.160437
3220.99	-0.160438
3232.76	-0.160274
3241.58	-0.160028
3250.41	-0.159676
3262.17	-0.159041
3271	-0.158438
3282.76	-0.157464
3291.59	-0.156603
3300.41	-0.155629
3312.18	-0.154149
3321	-0.152903
3332.77	-0.151055
3341.59	-0.149528
3350.42	-0.147878
3362.18	-0.145489
3371.01	-0.143554
3382.77	-0.140784
3391.6	-0.138566
3400.42	-0.13623
3412.19	-0.132935
3421.01	-0.130333
3432.78	-0.126698
3441.6	-0.123852
3450.43	-0.12091
3462.19	-0.11685
3471.02	-0.113708
3482.78	-0.109406
3491.61	-0.106103
3500.43	-0.102744
3512.2	-0.0981921
3521.02	-0.0947342
3532.79	-0.0900814
3541.61	-0.0865712
3550.44	-0.083053
3562.2	-0.0783643
3571.03	-0.0748603
3582.79	-0.0702206
3591.62	-0.0667753
3600.44	-0.0633678
3612.21	-0.0588961
3621.03	-0.0556049
3632.8	-0.0513121
3641.62	-0.0481721
3650.44	-0.0451064
3662.21	-0.0411434
3671.03	-0.0382707
3682.8	-0.0345814
3691.62	-0.031925
3700.45	-0.0293673
3712.21	-0.0261158
3721.04	-0.0237996
3732.8	-0.0208788
3741.63	-0.0188163
3750.45	-0.0168652
3762.22	-0.014439
3771.04	-0.0127519
3782.81	-0.0106798
3791.63	-0.00925893
3800.46	-0.00795193
3812.22	-0.00638533
3821.05	-0.00534123
3832.81	-0.00412112
3841.64	-0.00333294
3850.46	-0.00265135
3862.23	-0.0019044
3871.05	-0.00146215
3882.82	-0.00102416
3891.64	-0.000805132
3900.47	-0.000675935
3912.23	-0.000636635
3921.06	-0.000701437
3932.82	-0.000905012
3941.65	-0.0011394
3950.47	-0.00143829
3962.24	-0.00192812
3971.06	-0.00235698
3982.83	-0.0030002
3991.65	-0.00352879
4000.47	-0.00409051
4012.24	-0.00488091
4021.06	-0.00549718
4032.83	-0.00633901
4041.65	-0.00697797
4050.48	-0.0076171
4062.24	-0.0084599
4071.07	-0.00907796
4082.84	-0.00987345
4091.66	-0.0104422
4100.48	-0.0109819
4112.25	-0.0116488
4121.07	-0.0121041
4132.84	-0.0126442
4141.66	-0.0129949
4150.49	-0.0132955
4162.26	-0.0136139
4171.08	-0.0137879
4182.85	-0.0139299
4191.67	-0.0139669
4200.5	-0.0139428
4212.26	-0.013814
4221.09	-0.013644
4232.85	-0.0133185
4241.68	-0.0129999
4250.5	-0.0126175
4262.27	-0.0120082
4271.09	-0.0114769
4282.86	-0.0106699
4291.68	-0.00999086
4300.51	-0.00924895
4312.27	-0.00816223
4321.1	-0.00727429
4332.86	-0.00599333
4341.69	-0.00495982
4350.51	-0.00386381
4362.28	-0.00230486
4371.1	-0.00106202
4382.87	0.000694102
4391.7	0.00208615
4400.52	0.00354314
4412.29	0.00558804
4421.11	0.00719939
4432.88	0.00945291
4441.7	0.0112229
4450.53	0.013062
4462.29	0.0156232
4471.12	0.0176264
4482.88	0.0204081
4491.71	0.0225778
4500.53	0.0248189
4512.3	0.0279178
4521.12	0.0303244
4532.89	0.0336413
4541.71	0.0362085
4550.54	0.038842
4562.3	0.0424529
4571.13	0.0452323
4582.89	0.0490276
4591.72	0.0519365
4600.54	0.0548943
4612.31	0.0589064
4621.13	0.0619602
4632.9	0.066081
4641.72	0.0692007
4650.55	0.0723379
4662.32	0.0765365
4671.14	0.0796876
4682.91	0.0838776
4691.73	0.0870011
4700.55	0.0900994
4712.32	0.0941767
4721.15	0.0971834
4732.91	0.101108
4741.74	0.103977
4750.56	0.106772
4762.33	0.110371
4771.15	0.112964
4782.92	0.116263
4791.74	0.11861
4800.57	0.12084
4812.33	0.123618
4821.16	0.125547
4832.92	0.127903
4841.75	0.1295
4850.57	0.130947
4862.34	0.132635
4871.16	0.133715
4882.93	0.134902
4891.75	0.135599
4900.58	0.136129
4912.34	0.136572
4921.17	0.136707
4932.94	0.136622
4941.76	0.136362
4950.58	0.135933
4962.35	0.135103
4971.18	0.134289
4982.94	0.132953
4991.77	0.131767
5000.59	0.130428
5012.36	0.128409
5021.18	0.126726
5030.01	0.124903
5041.77	0.122264
5050.6	0.120134
5062.36	0.117104
5071.19	0.114696
5080.01	0.112179
5091.78	0.108665
5100.6	0.105917
5112.37	0.102118
5121.19	0.099176
5130.02	0.0961613
5141.78	0.0920411
5150.61	0.0888845
5162.37	0.0846008
5171.2	0.0813409
5180.02	0.0780487
5191.79	0.073621
5200.61	0.0702809
5212.38	0.0658154
5221.21	0.0624662
5230.03	0.0591247
5241.8	0.0546931
5250.62	0.0513961
5262.39	0.0470479
5271.21	0.043831
5280.04	0.0406589
5291.8	0.0365095
5300.63	0.0334648
5312.39	0.0295055
5321.22	0.0266179
5330.04	0.0238059
5341.81	0.0201821
5350.63	0.0175637
5362.4	0.0142124
5371.22	0.0118084
5380.05	0.00950144
5391.81	0.00658121
5400.64	0.0045107
5412.41	0.00191298
5421.23	8.86903e-05
5430.05	-0.00162823
5441.82	-0.00374954
5450.64	-0.00521439
5462.41	-0.0069999
5471.24	-0.00821421
5480.06	-0.00932271
5491.83	-0.0106386
5500.65	-0.0115062
5512.42	-0.0125078
5521.24	-0.0131459
5530.07	-0.0136899
5541.83	-0.0142738
5550.66	-0.0146098
5562.42	-0.0149282
5571.25	-0.0150742
5580.07	-0.0151447
5591.84	-0.0151274
5600.66	-0.0150359
5612.43	-0.0148161
5621.25	-0.0145828
5630.08	-0.0142949
5641.84	-0.0138324
5650.67	-0.013431
5662.44	-0.0128298
5671.26	-0.0123335
5680.08	-0.0118018
5691.85	-0.0110429
5700.67	-0.0104398
5712.44	-0.00959543
5721.27	-0.008935
5730.09	-0.00825372
5741.86	-0.00731635
5750.68	-0.00659387
5762.45	-0.00560765
5771.27	-0.00485259
5780.1	-0.00408569
5791.86	-0.00304655
5800.69	-0.00225589
5812.45	-0.00118807
5821.28	-0.000377801
5830.1	0.000439943
5841.87	0.00154115
5850.69	0.00237474
5862.46	0.00349585
5871.28	0.00434359
5880.11	0.00519697
5891.87	0.00634316
5900.7	0.00720874
5912.47	0.00837025
5921.29	0.00924654
5930.11	0.0101268
5941.88	0.0113062
5950.71	0.0121942
5962.47	0.0133821
5971.3	0.0142751
5980.12	0.0151691
5991.89	0.0163614
6000.71	0.0172549
6012.48	0.0184437
6021.3	0.0193321
6030.13	0.0202167
6041.89	0.0213887
6050.72	0.0222608
6062.48	0.0234121
6071.31	0.0242658
6080.13	0.0251099
6091.9	0.0262184
6100.72	0.0270359
6112.49	0.0281053
6121.31	0.0288907
6130.14	0.0296607
6141.9	0.0306621
6150.73	0.0313929
6162.5	0.032339
6171.32	0.0330265
6180.14	0.0336942
6191.91	0.0345529
6200.74	0.0351726
6212.5	0.0359654
6221.33	0.0365346
6230.15	0.0370817
6241.92	0.0377764
6250.74	0.0382711
6262.51	0.0388954
6271.33	0.0393371
6280.16	0.0397562
6291.92	0.0402797
6300.75	0.0406461
6312.51	0.0410998
6321.34	0.0414142
6330.16	0.0417067
6341.93	0.0420629
6350.75	0.042305
6362.52	0.042595
6371.35	0.0427882
6380.17	0.0429608
6391.94	0.0431596
6400.76	0.0432855
6412.53	0.0434229
6421.35	0.0435035
6430.18	0.0435652
6441.94	0.0436186
6450.77	0.0436373
6462.53	0.0436344
6471.36	0.0436116
6480.18	0.0435714
6491.95	0.0434914
6500.77	0.0434117
6512.54	0.0432798
6521.36	0.0431619
6530.19	0.043028
6541.95	0.0428248
6550.78	0.0426541
6562.55	0.0424025
6571.37	0.042196
6580.19	0.0419743
6591.96	0.0416552
6600.78	0.0413983
6612.55	0.0410325
6621.38	0.0407406
6630.2	0.0404336
6641.97	0.0400006
6650.79	0.039658
6662.56	0.039177
6671.38	0.0387978
6680.21	0.0384025
6691.97	0.0378499
6700.8	0.0374157
6712.56	0.0368097
6721.39	0.0363343
6730.21	0.0358404
6741.98	0.035152
6750.8	0.0346126
6762.57	0.0338611
6771.39	0.0332725
6780.22	0.0326615
6791.98	0.0318107
6800.81	0.0311444
6812.58	0.0302167
6821.4	0.0294904
6830.22	0.0287368
6841.99	0.027688
6850.82	0.0268671
6862.58	0.0257253
6871.41	0.0248322
6880.23	0.0239066
6892	0.0226203
6900.82	0.0216154
6912.59	0.0202203
6921.41	0.0191315
6930.24	0.0180057
6942	0.0164456
6950.83	0.0152306
6962.59	0.0135496
6971.42	0.0122426
6980.24	0.0108955
6992.01	0.0090366
7000.83	0.00759514
7012.6	0.00561
7021.42	0.00407381
7030.25	0.00249722
7042.02	0.000332668
7050.84	-0.00133709
7062.61	-0.00362433
7071.43	-0.00538466
7080.26	-0.00718272
7092.02	-0.00963743
7100.85	-0.0115203
7112.61	-0.0140845
7121.44	-0.0160467
7130.26	-0.0180408
7142.03	-0.0207473
7150.85	-0.022811
7162.62	-0.025605
7171.44	-0.0277303
7180.27	-0.0298794
7192.03	-0.0327788
7200.86	-0.0349766
7212.62	-0.0379345
7221.45	-0.0401712
7230.27	-0.0424214
7242.04	-0.0454394
7250.86	-0.0477134
7262.63	-0.0507559
7271.46	-0.0530429
7280.28	-0.055332
7292.05	-0.0583837
7300.87	-0.0606696
7312.64	-0.0637094
7321.46	-0.0659806
7330.29	-0.0682421
7342.05	-0.0712385
7350.88	-0.0734692
7362.64	-0.0764171
7371.47	-0.0786058
7380.29	-0.0807733
7392.06	-0.0836268
7400.88	-0.0857372
7412.65	-0.0885078
7421.47	-0.0905512
7430.3	-0.0925628
7442.06	-0.0951931
7450.89	-0.0971246
7462.65	-0.0996424
7471.48	-0.101486
7480.3	-0.103289
7492.07	-0.105628
7500.89	-0.107333
7512.66	-0.109537
7521.48	-0.111138
7530.31	-0.112692
7542.08	-0.114692
7550.9	-0.116135
7562.67	-0.117985
7571.49	-0.119315
7580.31	-0.120595
7592.08	-0.122224
7600.91	-0.123388
7612.67	-0.124862
7621.5	-0.125908
7630.32	-0.126905
7642.09	-0.128155
7650.91	-0.129035
7662.68	-0.130131
7671.5	-0.130896
7680.33	-0.131613
7692.09	-0.132494
7700.92	-0.133099
7712.68	-0.133833
7721.51	-0.13433
7730.33	-0.134782
7742.1	-0.135316
7750.92	-0.135665
7762.69	-0.136065
7771.51	-0.136316
7780.34	-0.136526
7792.1	-0.136745
7800.93	-0.136863
7812.69	-0.136963
7821.52	-0.136994
7830.34	-0.13699
7842.11	-0.13693
7850.93	-0.136845
7862.7	-0.136681
7871.53	-0.136521
7880.35	-0.13633
7892.12	-0.136028
7900.94	-0.135767
7912.71	-0.135375
7921.53	-0.135049
7930.36	-0.134695
7942.12	-0.134184
7950.95	-0.133771
7962.71	-0.133181
7971.54	-0.132711
7980.36	-0.132218
7992.13	-0.131524
8000.95	-0.130977
8012.72	-0.130214
8021.54	-0.129617
8030.37	-0.128999
8042.13	-0.128143
8050.96	-0.127477
8062.72	-0.126559
8071.55	-0.125847
8080.37	-0.125116
8092.14	-0.124112
8100.96	-0.123337
8112.73	-0.122275
8121.55	-0.121457
8130.38	-0.120622
8142.15	-0.119481
8150.97	-0.118604
8162.74	-0.11741
8171.56	-0.116494
8180.39	-0.115562
8192.15	-0.114294
8200.98	-0.113325
8212.74	-0.112008
8221.57	-0.111003
8230.39	-0.109983
8242.16	-0.108601
8250.98	-0.107548
8262.75	-0.106123
8271.57	-0.105039
8280.4	-0.103942
8292.16	-0.10246
8300.99	-0.101335
8312.75	-0.0998157
8321.58	-0.0986634
8330.4	-0.0975001
8342.17	-0.0959325
8350.99	-0.0947447
8362.76	-0.0931451
8371.59	-0.0919339
8380.41	-0.0907129
8392.18	-0.0890698
8401	-0.0878263
8412.77	-0.0861533
8421.59	-0.0848871
8430.42	-0.0836112
8442.18	-0.0818942
8451.01	-0.0805945
8462.77	-0.0788449
8471.6	-0.0775199
8480.42	-0.0761833
8492.19	-0.0743825
8501.01	-0.0730172
8512.78	-0.0711761
8521.6	-0.0697791
8530.43	-0.0683674
8542.19	-0.0664612
8551.02	-0.0650127
8562.79	-0.0630549
8571.61	-0.0615658
8580.43	-0.0600581
8592.2	-0.0580176
8601.03	-0.0564637
8612.79	-0.0543593
8621.62	-0.0527556
8630.44	-0.0511297
8642.21	-0.0489261
8651.03	-0.0472461
8662.8	-0.0449689
8671.62	-0.0432327
8680.45	-0.041472
8692.21	-0.0390859
8701.04	-0.0372676
8712.8	-0.0348048
8721.63	-0.0329291
8730.45	-0.0310293
8742.22	-0.0284595
8751.04	-0.0265051
8762.81	-0.0238645
8771.64	-0.021859
8780.46	-0.0198329
8792.23	-0.0171012
8801.05	-0.0150312
8812.82	-0.0122451
8821.64	-0.0101376
8830.47	-0.00801631
8842.23	-0.00516909
8851.06	-0.00302156
8862.82	-0.000145135
8871.65	0.00201975
8880.47	0.00418916
8892.24	0.0070856
8901.06	0.00925846
8912.83	0.0121527
8921.65	0.0143188
8930.48	0.0164787
8942.24	0.0193458
8951.07	0.021484
8962.84	0.0243151
8971.66	0.0264212
8980.48	0.0285104
8992.25	0.0312667
9001.08	0.0333095
9012.84	0.0359975
9021.67	0.0379845
9030.49	0.0399449
9042.26	0.0425146
9051.08	0.0444069
9062.85	0.0468806
9071.67	0.0486971
9080.5	0.050479
9092.26	0.052799
9101.09	0.0544957
9112.85	0.0566982
9121.68	0.0583041
9130.5	0.0598696
9142.27	0.0618927
9151.09	0.0633609
9162.86	0.065252
9171.68	0.0666195
9180.51	0.0679431
9192.28	0.0696387
9201.1	0.070858
9212.87	0.0724133
9221.69	0.0735268
9230.52	0.0745945
9242.28	0.0759468
9251.11	0.0769073
9262.87	0.0781165
9271.7	0.0789698
9280.52	0.079777
9292.29	0.0807819
9301.11	0.0814822
9312.88	0.0823449
9321.7	0.0829388
9330.53	0.0834874
9342.29	0.0841487
9351.12	0.0845923
9362.88	0.0851143
9371.71	0.085454
9380.53	0.0857494
9392.3	0.0860749
9401.12	0.086268
9412.89	0.0864579
9421.72	0.0865498
9430.54	0.0865987
9442.31	0.0865973
9451.13	0.0865465
9462.9	0.0864129
9471.72	0.0862636
9480.55	0.0860722
9492.31	0.0857521
9501.14	0.0854635
9512.9	0.0850144
9521.73	0.0846295
9530.55	0.0842037
9542.32	0.0835724
9551.14	0.0830517
9562.91	0.0822947
9571.73	0.0816803
9580.56	0.0810261
9592.32	0.0800925
9601.15	0.0793466
9612.92	0.0782918
9621.74	0.0774561
9630.57	0.0765825
9642.33	0.0753595
9651.16	0.0743994
9662.92	0.0730631
9671.75	0.0720196
9680.57	0.0709413
9692.34	0.0694509
9701.16	0.0682947
9712.93	0.0667034
9721.75	0.0654739
9730.58	0.0642146
9742.34	0.0624911
9751.17	0.0611667
9762.93	0.0593607
9771.76	0.0579778
9780.58	0.0565721
9792.35	0.0546649
9801.17	0.0532117
9812.94	0.0512467
9821.77	0.0497545
9830.59	0.0482484
9842.36	0.0462216
9851.18	0.04469
9860.01	0.0431504
9871.77	0.0410885
9880.6	0.0395377
9892.36	0.037468
9901.19	0.0359167
9910.01	0.0343684
9921.78	0.0323122
9930.6	0.0307788
9942.37	0.0287495
9951.19	0.0272417
9960.02	0.0257481
9971.78	0.0237821
9980.61	0.0223292
9992.38	0.0204243
10001.2	0.0190222
10010	0.0176449
10021.8	0.0158499
10030.6	0.014537
10042.4	0.0128338
10051.2	0.011594
10060	0.0103879
10071.8	0.00883462
10080.6	0.00771257
10092.4	0.00627595
10101.2	0.00524453
10110	0.00425373
10121.8	0.00299746
10130.6	0.00210497
10142.4	0.000982691
10151.2	0.000192601
10160	-0.000552627
10171.8	-0.00147569
10180.6	-0.00211461
10192.4	-0.00289483
10201.2	-0.00342607
10210	-0.00391101
10221.8	-0.00448571
10230.6	-0.00486299
10242.4	-0.00529488
10251.2	-0.00556587
10260.1	-0.00579201
10271.8	-0.00602467
10280.6	-0.00614834
10292.4	-0.00624684
10301.2	-0.00627197
10310.1	-0.0062563
10321.8	-0.00617361
10330.7	-0.00606658
10342.4	-0.00586599
10351.2	-0.00567363
10360.1	-0.00544673
10371.8	-0.00509266
10380.7	-0.00479018
10392.4	-0.00434024
10401.2	-0.00396964
10410.1	-0.00357221
10421.8	-0.0030031
10430.7	-0.00254875
10442.4	-0.00190908
10451.3	-0.00140583
10460.1	-0.000884071
10471.8	-0.00016213
10480.7	0.000397162
10492.4	0.00116398
10501.3	0.00175312
10510.1	0.00235279
10521.9	0.00316647
10530.7	0.00378568
10542.4	0.00462093
10551.3	0.00525309
10560.1	0.00588892
10571.9	0.00674059
10580.7	0.00738099
10592.4	0.00823528
10601.3	0.00887518
10610.1	0.00951349
10621.9	0.0103608
10630.7	0.0109925
10642.5	0.0118285
10651.3	0.0124502
10660.1	0.0130665
10671.9	0.0138793
10680.7	0.0144815
10692.5	0.0152738
10701.3	0.0158596
10710.1	0.0164377
10721.9	0.0171959
10730.7	0.0177549
10742.5	0.0184864
10751.3	0.0190245
10760.1	0.0195532
10771.9	0.0202429
10780.7	0.0207484
10792.5	0.0214062
10801.3	0.0218869
10810.1	0.0223565
10821.9	0.0229646
10830.7	0.0234068
10842.5	0.023977
10851.3	0.0243897
10860.1	0.024789
10871.9	0.0253
10880.7	0.0256665
10892.5	0.026132
10901.3	0.0264631
10910.1	0.0267782
10921.9	0.0271726
10930.7	0.0274483
10942.5	0.0277883
10951.3	0.0280219
10960.1	0.0282365
10971.9	0.0284922
10980.7	0.0286607
10992.5	0.0288532
11001.3	0.0289729
11010.1	0.029071
11021.9	0.0291675
11030.7	0.0292137
11042.5	0.0292399
11051.3	0.0292325
11060.2	0.0292019
11071.9	0.0291244
11080.7	0.0290387
11092.5	0.0288875
11101.3	0.0287465
11110.2	0.0285819
11121.9	0.0283259
11130.8	0.0281068
11142.5	0.027779
11151.3	0.0275069
11160.2	0.0272126
11171.9	0.0267867
11180.8	0.0264426
11192.5	0.0259523
11201.3	0.0255616
11210.2	0.025152
11221.9	0.0245777
11230.8	0.0241269
11242.5	0.0235005
11251.4	0.0230128
11260.2	0.0225107
11271.9	0.0218205
11280.8	0.0212885
11292.5	0.0205616
11301.4	0.0200046
11310.2	0.0194384
11322	0.0186709
11330.8	0.018087
11342.5	0.0172992
11351.4	0.0167026
11360.2	0.0161019
11372	0.0152961
11380.8	0.0146893
11392.5	0.0138781
11401.4	0.0132691
11410.2	0.0126604
11422	0.0118502
11430.8	0.0112444
11442.6	0.01044
11451.4	0.0098398
11460.2	0.00924269
11472	0.00845191
11480.8	0.00786319
11492.6	0.00708443
11501.4	0.00650519
11510.2	0.00593018
11522	0.0051701
11530.8	0.00460496
11542.6	0.00385782
11551.4	0.00330207
11560.2	0.00275005
11572	0.00201944
11580.8	0.0014752
11592.6	0.000753912
11601.4	0.000215796
11610.2	-0.000320273
11622	-0.00103249
11630.8	-0.00156526
11642.6	-0.00227448
11651.4	-0.00280605
11660.2	-0.00333777
11672	-0.00404757
11680.8	-0.00458102
11692.6	-0.00529438
11701.4	-0.00583135
11710.2	-0.00637028
11722	-0.00709229
11730.8	-0.00763659
11742.6	-0.0083663
11751.4	-0.00891664
11760.2	-0.00946961
11772	-0.0102109
11780.8	-0.0107697
11792.6	-0.0115182
11801.4	-0.0120819
11810.2	-0.0126471
11822	-0.0134025
11830.8	-0.0139697
11842.6	-0.0147261
11851.4	-0.0152925
11860.3	-0.0158576
11872	-0.0166076
11880.8	-0.0171665
11892.6	-0.0179055
11901.4	-0.0184539
11910.3	-0.0189962
11922	-0.0197084
11930.8	-0.0202331
11942.6	-0.0209181
11951.4	-0.0214197
11960.3	-0.0219097
11972	-0.0225433
11980.9	-0.0230023
11992.6	-0.0235911
12001.4	-0.0240139
12010.3	-0.0244196
12022	-0.0249323
12030.9	-0.0252945
12042.6	-0.0257464
12051.4	-0.026061
12060.3	-0.0263539
12072	-0.0267097
12080.9	-0.0269498
12092.6	-0.0272335
12101.5	-0.0274184
12110.3	-0.027579
12122	-0.0277551
12130.9	-0.0278585
12142.6	-0.0279581
12151.5	-0.0280041
12160.3	-0.0280258
12172.1	-0.0280173
12180.9	-0.0279832
12192.6	-0.0279018
12201.5	-0.0278144
12210.3	-0.0277051
12222.1	-0.0275265
12230.9	-0.027369
12242.6	-0.027129
12251.5	-0.0269279
12260.3	-0.0267097
12272.1	-0.026394
12280.9	-0.0261401
12292.7	-0.0257811
12301.5	-0.0254981
12310.3	-0.0252045
12322.1	-0.0247992
12330.9	-0.0244864
12342.7	-0.0240603
12351.5	-0.0237357
12360.3	-0.0234083
12372.1	-0.02297
12380.9	-0.0226416
12392.7	-0.0222072
12401.5	-0.0218856
12410.3	-0.0215692
12422.1	-0.0211579
12430.9	-0.020859
12442.7	-0.0204758
12451.5	-0.0202016
12460.3	-0.0199401
12472.1	-0.0196134
12480.9	-0.0193863
12492.7	-0.0191095
12501.5	-0.0189229
12510.3	-0.0187554
12522.1	-0.0185634
12530.9	-0.0184442
12542.7	-0.0183197
12551.5	-0.0182532
12560.3	-0.0182105
12572.1	-0.0181919
12580.9	-0.0182072
12592.7	-0.0182677
12601.5	-0.0183437
12610.3	-0.0184462
12622.1	-0.0186246
12630.9	-0.01879
12642.7	-0.0190527
12651.5	-0.0192813
12660.3	-0.019537
12672.1	-0.0199198
12680.9	-0.0202379
12692.7	-0.0207028
12701.5	-0.0210815
12710.4	-0.0214856
12722.1	-0.0220626
12730.9	-0.0225233
12742.7	-0.0231736
12751.5	-0.0236873
12760.4	-0.0242224
12772.1	-0.0249675
12781	-0.025549
12792.7	-0.0263525
12801.5	-0.0269749
12810.4	-0.0276131
12822.1	-0.0284867
12831	-0.0291573
12842.7	-0.0300698
12851.5	-0.0307664
12860.4	-0.031472
12872.1	-0.0324248
12881	-0.0331468
12892.7	-0.0341168
12901.6	-0.0348482
12910.4	-0.0355816
12922.1	-0.0365604
12931	-0.0372936
12942.7	-0.0382678
12951.6	-0.0389944
12960.4	-0.0397162
12972.2	-0.0406694
12981	-0.0413759
12992.7	-0.042305
13001.6	-0.0429909
13010.4	-0.0436664
13022.2	-0.0445495
13031	-0.0451976
13042.7	-0.0460416
13051.6	-0.0466586
13060.4	-0.0472613
13072.2	-0.0480418
13081	-0.0486092
13092.8	-0.0493413
13101.6	-0.0498716
13110.4	-0.0503857
13122.2	-0.0510456
13131	-0.0515214
13142.8	-0.0521301
13151.6	-0.0525676
13160.4	-0.052989
13172.2	-0.0535261
13181	-0.0539107
13192.8	-0.0543999
13201.6	-0.0547496
13210.4	-0.0550851
13222.2	-0.0555112
13231	-0.0558155
13242.8	-0.0562019
13251.6	-0.0564782
13260.4	-0.0567435
13272.2	-0.0570812
13281	-0.0573235
13292.8	-0.0576332
13301.6	-0.0578563
13310.4	-0.0580723
13322.2	-0.0583506
13331	-0.058553
13342.8	-0.0588156
13351.6	-0.059008
13360.4	-0.0591972
13372.2	-0.0594456
13381	-0.0596297
13392.8	-0.0598735
13401.6	-0.0600556
13410.4	-0.0602377
13422.2	-0.0604811
13431	-0.0606646
13442.8	-0.0609112
13451.6	-0.0610979
13460.4	-0.0612864
13472.2	-0.0615408
13481	-0.0617339
13492.8	-0.0619948
13501.6	-0.0621928
13510.5	-0.0623928
13522.2	-0.0626624
13531	-0.0628665
13542.8	-0.0631406
13551.6	-0.0633474
13560.5	-0.0635547
13572.2	-0.0638312
13581.1	-0.0640382
13592.8	-0.0643125
13601.6	-0.0645163
13610.5	-0.0647178
13622.2	-0.0649818
13631.1	-0.0651754
13642.8	-0.0654265
13651.6	-0.0656085
13660.5	-0.0657844
13672.2	-0.066008
13681.1	-0.0661666
13692.8	-0.0663644
13701.7	-0.0665015
13710.5	-0.0666281
13722.2	-0.0667795
13731.1	-0.0668788
13742.8	-0.066991
13751.7	-0.0670591
13760.5	-0.0671126
13772.3	-0.0671602
13781.1	-0.0671772
13792.8	-0.067174
13801.7	-0.0671514
13810.5	-0.0671108
13822.3	-0.0670281
13831.1	-0.0669439
13842.8	-0.0668016
13851.7	-0.0666718
13860.5	-0.0665218
13872.3	-0.0662901
13881.1	-0.0660923
13892.9	-0.0657961
13901.7	-0.0655495
13910.5	-0.0652819
13922.3	-0.0648924
13931.1	-0.0645758
13942.9	-0.0641211
13951.7	-0.0637557
13960.5	-0.0633698
13972.3	-0.0628235
13981.1	-0.0623902
13992.9	-0.0617817
14001.7	-0.0613025
14010.5	-0.0608042
14022.3	-0.0601107
14031.1	-0.0595692
14042.9	-0.0588194
14051.7	-0.0582368
14060.5	-0.0576374
14072.3	-0.0568127
14081.1	-0.0561758
14092.9	-0.0553028
14101.7	-0.0546309
14110.5	-0.0539449
14122.3	-0.0530091
14131.1	-0.052292
14142.9	-0.0513167
14151.7	-0.0505714
14160.5	-0.0498148
14172.3	-0.0487894
14181.1	-0.0480086
14192.9	-0.0469526
14201.7	-0.0461501
14210.5	-0.0453391
14222.3	-0.0442456
14231.1	-0.0434168
14242.9	-0.0423012
14251.7	-0.0414571
14260.5	-0.0406073
14272.3	-0.0394659
14281.1	-0.0386043
14292.9	-0.0374489
14301.7	-0.036578
14310.6	-0.0357037
14322.3	-0.0345337
14331.1	-0.0336535
14342.9	-0.032477
14351.7	-0.0315931
14360.6	-0.0307082
14372.3	-0.0295277
14381.2	-0.0286424
14392.9	-0.0274628
14401.7	-0.0265792
14410.6	-0.0256971
14422.3	-0.0245239
14431.2	-0.0236467
14442.9	-0.0224815
14451.7	-0.0216115
14460.6	-0.0207452
14472.3	-0.0195966
14481.2	-0.0187406
14492.9	-0.0176072
14501.8	-0.0167636
14510.6	-0.015926
14522.3	-0.0148192
14531.2	-0.013997
14542.9	-0.012912
14551.8	-0.0121072
14560.6	-0.0113104
14572.4	-0.0102612
14581.2	-0.00948447
14590	-0.00871691
14601.8	-0.00770823
14610.6	-0.00696314
14622.4	-0.00598543
14631.2	-0.00526429
14640	-0.00455383
14651.8	-0.00362354
14660.6	-0.00293884
14672.4	-0.00204361
14681.2	-0.00138568
14690	-0.000739502
14701.8	0.000103587
14710.6	0.000721892
14722.4	0.00152744
14731.2	0.00211736
14740	0.00269501
14751.8	0.00344605
14760.6	0.00399495
14772.4	0.00470763
14781.2	0.00522776
14790	0.0057356
14801.8	0.00639369
14810.6	0.00687306
14822.4	0.00749342
14831.2	0.00794471
14840	0.00838411
14851.8	0.00895169
14860.6	0.00936381
14872.4	0.00989544
14881.2	0.0102809
14890	0.0106553
14901.8	0.0111372
14910.6	0.0114861
14922.4	0.0119346
14931.2	0.0122588
14940	0.0125726
14951.8	0.0129753
14960.6	0.0132658
14972.4	0.0136379
14981.2	0.0139058
14990.1	0.0141644
15001.8	0.0144949
15010.6	0.0147322
15022.4	0.015035
15031.2	0.015252
15040.1	0.0154607
15051.8	0.015726
15060.6	0.0159157
15072.4	0.0161563
15081.2	0.0163279
15090.1	0.016492
15101.8	0.0166996
15110.7	0.016847
15122.4	0.017033
15131.2	0.0171647
15140.1	0.01729
15151.8	0.0174474
15160.7	0.0175585
15172.4	0.0176977
15181.3	0.0177957
15190.1	0.0178883
15201.8	0.0180041
15210.7	0.0180853
15222.4	0.0181865
15231.3	0.0182575
15240.1	0.0183245
15251.8	0.0184079
15260.7	0.0184665
15272.4	0.0185396
15281.3	0.0185911
15290.1	0.0186399
15301.9	0.0187014
15310.7	0.0187451
15322.4	0.0188006
15331.3	0.0188404
15340.1	0.018879
15351.9	0.018929
15360.7	0.0189656
15372.5	0.0190138
15381.3	0.0190496
15390.1	0.0190855
15401.9	0.0191337
15410.7	0.0191704
15422.5	0.0192202
15431.3	0.0192585
15440.1	0.0192978
15451.9	0.0193518
15460.7	0.0193937
15472.5	0.0194516
15481.3	0.0194966
15490.1	0.019543
15501.9	0.019607
15510.7	0.0196567
15522.5	0.0197252
15531.3	0.0197782
15540.1	0.0198324
15551.9	0.0199066
15560.7	0.0199635
15572.5	0.0200409
15581.3	0.0200999
15590.1	0.0201596
15601.9	0.02024
15610.7	0.0203006
15622.5	0.0203815
15631.3	0.0204422
15640.1	0.0205025
15651.9	0.0205821
15660.7	0.020641
15672.5	0.0207181
15681.3	0.0207746
15690.1	0.0208298
15701.9	0.0209011
15710.7	0.0209525
15722.5	0.0210183
15731.3	0.0210654
15740.1	0.0211103
15751.9	0.0211668
15760.7	0.0212065
15772.5	0.0212558
15781.3	0.0212899
15790.2	0.0213215
15801.9	0.02136
15810.7	0.0213859
15822.5	0.0214169
15831.3	0.0214374
15840.2	0.0214556
15851.9	0.0214766
15860.7	0.02149
15872.5	0.021505
15881.3	0.0215143
15890.2	0.0215221
15901.9	0.0215304
15910.8	0.0215354
15922.5	0.0215408
15931.3	0.0215442
15940.2	0.0215472
15951.9	0.0215513
15960.8	0.0215548
15972.5	0.0215603
15981.4	0.0215656
15990.2	0.0215721
16001.9	0.0215834
16010.8	0.0215943
16022.5	0.0216124
16031.4	0.0216292
16040.2	0.0216491
16051.9	0.0216812
16060.8	0.0217097
16072.5	0.0217544
16081.4	0.0217933
16090.2	0.0218373
16102	0.0219042
16110.8	0.0219611
16122.5	0.0220463
16131.4	0.0221177
16140.2	0.0221958
16152	0.0223107
16160.8	0.0224054
16172.6	0.0225432
16181.4	0.0226555
16190.2	0.0227758
16202	0.0229486
16210.8	0.0230877
16222.6	0.0232861
16231.4	0.0234446
16240.2	0.0236115
16252	0.0238469
16260.8	0.0240331
16272.6	0.0242941
16281.4	0.0244993
16290.2	0.0247123
16302	0.0250083
16310.8	0.025239
16322.6	0.0255576
16331.4	0.0258045
16340.2	0.0260579
16352	0.0264051
16360.8	0.026672
16372.6	0.0270359
16381.4	0.0273142
16390.2	0.0275966
16402	0.0279787
16410.8	0.0282687
16422.6	0.0286591
16431.4	0.0289538
16440.2	0.0292496
16452	0.0296448
16460.8	0.0299409
16472.6	0.0303342
16481.4	0.0306274
16490.2	0.0309183
16502	0.0313016
16510.8	0.0315849
16522.6	0.0319559
16531.4	0.0322285
16540.2	0.0324955
16552	0.032842
16560.8	0.033094
16572.6	0.0334186
16581.4	0.0336529
16590.3	0.0338789
16602	0.0341665
16610.8	0.0343714
16622.6	0.0346296
16631.4	0.0348116
16640.3	0.0349833
16652	0.0351957
16660.8	0.0353423
16672.6	0.0355207
16681.4	0.0356415
16690.3	0.0357511
16702	0.0358796
16710.9	0.0359628
16722.6	0.0360562
16731.4	0.0361133
16740.3	0.0361593
16752	0.0362039
16760.9	0.0362249
16772.6	0.0362368
16781.5	0.0362339
16790.3	0.0362214
16802	0.0361901
16810.9	0.0361562
16822.6	0.0360978
16831.5	0.0360445
16840.3	0.0359837
16852	0.0358916
16860.9	0.0358148
16872.6	0.0357031
16881.5	0.035613
16890.3	0.0355178
16902.1	0.0353841
16910.9	0.0352793
16922.6	0.0351344
16931.5	0.0350224
16940.3	0.0349081
16952.1	0.034753
16960.9	0.034635
16972.7	0.0344764
16981.5	0.0343568
16990.3	0.0342371
17002.1	0.0340779
17010.9	0.033959
17022.7	0.0338017
17031.5	0.0336848
17040.3	0.033569
17052.1	0.0334165
17060.9	0.0333034
17072.7	0.0331545
17081.5	0.0330441
17090.3	0.0329345
17102.1	0.0327894
17110.9	0.032681
17122.7	0.0325364
17131.5	0.0324273
17140.3	0.0323172
17152.1	0.032168
17160.9	0.0320533
17172.7	0.0318957
17181.5	0.0317729
17190.3	0.0316453
17202.1	0.0314663
17210.9	0.0313241
17222.7	0.0311222
17231.5	0.0309602
17240.3	0.0307879
17252.1	0.0305401
17260.9	0.0303392
17272.7	0.0300489
17281.5	0.0298128
17290.3	0.0295593
17302.1	0.0291922
17310.9	0.0288932
17322.7	0.0284604
17331.5	0.0281082
17340.3	0.027731
17352.1	0.0271864
17360.9	0.026745
17372.7	0.0261098
17381.5	0.0255965
17390.4	0.0250501
17402.1	0.0242678
17410.9	0.023639
17422.7	0.022742
17431.5	0.0220239
17440.4	0.0212654
17452.1	0.0201896
17460.9	0.019333
17472.7	0.0181226
17481.5	0.0171626
17490.4	0.016157
17502.1	0.0147438
17511	0.013629
17522.7	0.0120685
17531.5	0.010842
17540.4	0.00956723
17552.1	0.00779208
17561	0.00640418
17572.7	0.00447854
17581.6	0.00297834
17590.4	0.00143063
17602.1	-0.000705897
17611	-0.00236207
17622.7	-0.00464036
17631.6	-0.00640032
17640.4	-0.00820293
17652.1	-0.0106705
17661	-0.0125673
17672.7	-0.0151549
17681.6	-0.0171373
17690.4	-0.0191532
17702.2	-0.0218898
17711	-0.023976
17722.7	-0.0267981
17731.6	-0.028942
17740.4	-0.0311064
17752.2	-0.0340196
17761	-0.0362214
17772.8	-0.0391742
17781.6	-0.0413976
17790.4	-0.0436253
17802.2	-0.0465966
17811	-0.0488216
17822.8	-0.0517776
17831.6	-0.0539822
17840.4	-0.0561723
17852.2	-0.0590642
17861	-0.0612073
17872.8	-0.064024
17881.6	-0.0661014
17890.4	-0.0681449
17902.2	-0.0708108
17911	-0.0727617
17922.8	-0.075292
17931.6	-0.0771322
17940.4	-0.0789196
17952.2	-0.081215
17961	-0.0828668
17972.8	-0.0849705
17981.6	-0.0864706
17990.4	-0.087901
18002.2	-0.0896953
18011	-0.0909532
18022.8	-0.0925087
18031.6	-0.0935812
18040.4	-0.0945708
18052.2	-0.0957581
18061	-0.0965472
18072.8	-0.0974614
18081.6	-0.0980418
18090.4	-0.0985308
18102.2	-0.0990388
18111	-0.0993108
18122.8	-0.0995272
18131.6	-0.0995793
18140.4	-0.0995367
18152.2	-0.0993327
18161	-0.0990696
18172.8	-0.0985728
18181.6	-0.0980914
18190.5	-0.0975178
18202.2	-0.0966111
18211	-0.0958263
18222.8	-0.0946426
18231.6	-0.0936539
18240.5	-0.0925806
18252.2	-0.0910212
18261	-0.0897579
18272.8	-0.0879528
18281.6	-0.0865113
18290.5	-0.0849974
18302.2	-0.0828708
18311.1	-0.0811981
18322.8	-0.0788696
18331.6	-0.0770531
18340.5	-0.07518
18352.2	-0.0725994
18361.1	-0.0706057
18372.8	-0.0678758
18381.7	-0.0657786
18390.5	-0.0636425
18402.2	-0.0607393
18411.1	-0.0585248
18422.8	-0.055529
18431.7	-0.053254
18440.5	-0.0509583
18452.2	-0.0478711
18461.1	-0.0455399
18472.8	-0.0424168
18481.7	-0.0400673
18490.5	-0.0377149
18502.3	-0.0345792
18511.1	-0.0322318
18522.8	-0.029113
18531.7	-0.0267858
18540.5	-0.0244718
18552.3	-0.0214112
18561.1	-0.0191376
18572.9	-0.0161397
18581.7	-0.0139193
18590.5	-0.0117253
18602.3	-0.00884454
18611.1	-0.0067198
18622.9	-0.003938
18631.7	-0.00189217
18640.5	0.000117236
18652.3	0.00273734
18661.1	0.00465643
18672.9	0.00715169
18681.7	0.00897415
18690.5	0.0107536
18702.3	0.0130579
18711.1	0.0147341
18722.9	0.0168984
18731.7	0.0184682
18740.5	0.0199917
18752.3	0.0219509
18761.1	0.0233659
18772.9	0.02518
18781.7	0.0264863
18790.5	0.0277462
18802.3	0.0293545
18811.1	0.0305075
18822.9	0.0319746
18831.7	0.0330229
18840.5	0.0340274
18852.3	0.0352995
18861.1	0.0362042
18872.9	0.0373461
18881.7	0.0381553
18890.5	0.0389251
18902.3	0.0398918
18911.1	0.0405733
18922.9	0.0414259
18931.7	0.0420247
18940.5	0.0425899
18952.3	0.0432931
18961.1	0.0437842
18972.9	0.0443928
18981.7	0.0448162
18990.6	0.0452124
19002.3	0.0457006
19011.1	0.0460383
19022.9	0.0464527
19031.7	0.0467382
19040.6	0.0470033
19052.3	0.047327
19061.1	0.0475489
19072.9	0.0478191
19081.7	0.0480039
19090.6	0.0481746
19102.3	0.048382
19111.2	0.0485237
19122.9	0.0486959
19131.7	0.0488138
19140.6	0.0489231
19152.3	0.0490566
19161.2	0.0491488
19172.9	0.0492625
19181.8	0.0493418
19190.6	0.0494166
19202.3	0.0495106
19211.2	0.0495774
19222.9	0.0496627
19231.8	0.0497244
19240.6	0.0497846
19252.3	0.0498632
19261.2	0.0499212
19272.9	0.049998
19281.8	0.0500554
19290.6	0.0501127
19302.4	0.0501895
19311.2	0.0502473
19320	0.0503054
19331.8	0.0503833
19340.6	0.050442
19352.4	0.0505205
19361.2	0.0505793
19370	0.0506379
19381.8	0.0507154
19390.6	0.0507728
19402.4	0.0508479
19411.2	0.0509027
19420	0.0509559
19431.8	0.0510238
19440.6	0.0510721
19452.4	0.0511321
19461.2	0.0511735
19470	0.0512112
19481.8	0.0512553
19490.6	0.0512831
19502.4	0.0513126
19511.2	0.0513283
19520	0.0513383
19531.8	0.0513417
19540.6	0.0513364
19552.4	0.0513182
19561.2	0.0512956
19570	0.0512649
19581.8	0.0512109
19590.6	0.05116
19602.4	0.0510778
19611.2	0.051005
19620	0.0509221
19631.8	0.0507957
19640.6	0.0506885
19652.4	0.0505287
19661.2	0.0503959
19670	0.0502517
19681.8	0.0500414
19690.6	0.04987
19702.4	0.0496229
19711.2	0.0494235
19720.1	0.0492119
19731.8	0.0489107
19740.6	0.0486704
19752.4	0.0483308
19761.2	0.0480617
19770.1	0.0477802
19781.8	0.0473858
19790.7	0.0470756
19802.4	0.0466432
19811.2	0.0463048
19820.1	0.0459545
19831.8	0.0454691
19840.7	0.0450915
19852.4	0.0445703
19861.2	0.0441664
19870.1	0.0437515
19881.8	0.0431816
19890.7	0.042742
19902.4	0.0421401
19911.3	0.0416772
19920.1	0.0412047
19931.8	0.0405604
19940.7	0.0400667
19952.4	0.0393953
19961.3	0.0388823
19970.1	0.0383614
19981.9	0.0376553
19990.7	0.0371176
