0	0
41.6463	0
83.2925	0
124.939	0
166.585	0
208.231	0
249.878	0
291.524	0
333.17	0
374.816	0
416.463	0
458.109	0
499.755	0
541.402	0
583.048	0
624.694	0
666.34	0
707.987	0
749.633	0
791.279	0
832.925	0
874.572	0
916.218	0
957.864	0
999.511	0
1041.16	0
1082.8	0
1124.45	0
1166.1	0
1207.74	-2.72848e-12
1249.39	-3.54703e-11
1291.03	-2.58296e-10
1332.68	-1.44337e-09
1374.33	-6.54654e-09
1415.97	-2.5052e-08
1457.62	-8.32461e-08
1499.27	-2.45483e-07
1540.91	-6.53427e-07
1582.56	-1.59136e-06
1624.2	-3.58495e-06
1665.85	-7.53756e-06
1707.5	-1.4901e-05
1749.14	-2.78668e-05
1790.79	-4.95501e-05
1832.44	-8.41196e-05
1874.08	-0.000136814
1915.73	-0.000213765
1957.37	-0.000321555
1999.02	-0.000466409
2040.67	-0.000652989
2082.31	-0.000882725
2123.96	-0.00115173
2165.61	-0.00144831
2207.25	-0.00175032
2248.9	-0.00202234
2290.54	-0.00221321
2332.19	-0.00225392
2373.84	-0.00205638
2415.48	-0.00151322
2457.13	-0.000499014
2498.78	0.00112705
2540.42	0.0035168
2582.07	0.00682711
2623.71	0.0112124
2665.36	0.0168162
2707.01	0.0237613
2748.65	0.0321403
2790.3	0.0420059
2831.94	0.0533619
2873.59	0.0661563
2915.23	0.0802758
2956.88	0.0955428
2998.52	0.111716
3040.17	0.128493
3081.81	0.145516
3123.46	0.162385
3165.1	0.178665
3206.75	0.193904
3248.39	0.207649
3290.04	0.219462
3331.68	0.228942
3373.33	0.235734
3414.97	0.239554
3456.62	0.240193
3498.26	0.237533
3539.91	0.231551
3581.55	0.22232
3623.2	0.21001
3664.84	0.19488
3706.49	0.177266
3748.13	0.157575
3789.78	0.136264
3831.42	0.113824
3873.07	0.0907635
3914.71	0.0675878
3956.36	0.0447847
3998	0.0228073
4039.65	0.00206037
4081.3	-0.0171101
4122.94	-0.0344248
4164.59	-0.0496758
4206.23	-0.0627279
4247.88	-0.0735174
4289.53	-0.0820481
4331.17	-0.0883845
4372.82	-0.0926441
4414.47	-0.0949883
4456.11	-0.0956117
4497.76	-0.0947326
4539.4	-0.0925829
4581.05	-0.0893989
4622.7	-0.0854128
4664.34	-0.0808461
4705.99	-0.0759038
4747.64	-0.0707699
4789.28	-0.0656047
4830.93	-0.0605431
4872.57	-0.0556943
4914.22	-0.0511422
4955.87	-0.0469469
4997.51	-0.0431468
5039.16	-0.0397607
5080.8	-0.0367914
5122.45	-0.0342275
5164.1	-0.0320472
5205.74	-0.0302204
5247.39	-0.0287115
5289.04	-0.0274819
5330.68	-0.0264911
5372.33	-0.0256994
5413.97	-0.0250682
5455.62	-0.0245615
5497.27	-0.0241464
5538.91	-0.0237938
5580.56	-0.023478
5622.21	-0.0231773
5663.85	-0.0228735
5705.5	-0.022552
5747.14	-0.022201
5788.79	-0.0218119
5830.44	-0.0213783
5872.08	-0.0208961
5913.73	-0.0203627
5955.37	-0.0197774
5997.02	-0.0191407
6038.67	-0.0184541
6080.31	-0.01772
6121.96	-0.0169418
6163.61	-0.0161236
6205.25	-0.01527
6246.9	-0.0143864
6288.54	-0.0134788
6330.19	-0.0125536
6371.84	-0.0116179
6413.48	-0.0106792
6455.13	-0.00974545
6496.77	-0.00882496
6538.42	-0.00792637
6580.07	-0.00705848
6621.71	-0.00623018
6663.36	-0.00545032
6705.01	-0.00472757
6746.65	-0.00407026
6788.3	-0.00348627
6829.94	-0.00298288
6871.59	-0.00256663
6913.24	-0.00224322
6954.88	-0.00201738
6996.53	-0.00189279
7038.18	-0.00187204
7079.82	-0.00195657
7121.47	-0.00214661
7163.11	-0.00244126
7204.76	-0.00283846
7246.41	-0.00333504
7288.05	-0.00392681
7329.7	-0.00460863
7371.35	-0.0053745
7412.99	-0.00621769
7454.64	-0.00713082
7496.28	-0.00810601
7537.93	-0.00913499
7579.58	-0.0102092
7621.22	-0.01132
7662.87	-0.0124586
7704.52	-0.0136162
7746.16	-0.0147844
7787.81	-0.0159548
7829.45	-0.0171193
7871.1	-0.0182702
7912.75	-0.0194001
7954.39	-0.0205021
7996.04	-0.0215697
8037.68	-0.0225968
8079.33	-0.0235778
8120.98	-0.0245074
8162.62	-0.025381
8204.27	-0.0261943
8245.91	-0.0269432
8287.56	-0.0276243
8329.21	-0.0282344
8370.85	-0.0287708
8412.5	-0.0292308
8454.15	-0.0296125
8495.79	-0.029914
8537.44	-0.0301336
8579.08	-0.0302704
8620.73	-0.0303231
8662.38	-0.0302914
8704.02	-0.0301747
8745.67	-0.0299731
8787.31	-0.0296869
8828.96	-0.0293166
8870.61	-0.0288631
8912.25	-0.0283277
8953.9	-0.027712
8995.54	-0.0270179
9037.19	-0.0262479
9078.84	-0.0254046
9120.48	-0.0244912
9162.13	-0.0235111
9203.77	-0.0224682
9245.42	-0.0213669
9287.07	-0.0202117
9328.71	-0.0190077
9370.36	-0.0177603
9412.01	-0.0164751
9453.65	-0.0151583
9495.3	-0.0138162
9536.94	-0.0124552
9578.59	-0.0110821
9620.24	-0.00970377
9661.88	-0.00832731
9703.53	-0.00695975
9745.17	-0.00560815
9786.82	-0.00427955
9828.47	-0.00298083
9870.11	-0.00171873
9911.76	-0.000499742
9953.41	0.000669935
9995.05	0.00178445
10036.7	0.00283835
10078.3	0.00382666
10120	0.0047449
10161.6	0.00558912
10203.3	0.00635599
10244.9	0.00704277
10286.6	0.00764739
10328.2	0.00816842
10369.9	0.00860511
10411.5	0.00895738
10453.2	0.00922586
10494.8	0.00941179
10536.5	0.00951709
10578.1	0.00954428
10619.7	0.0094965
10661.4	0.00937739
10703	0.00919113
10744.7	0.00894236
10786.3	0.00863609
10828	0.0082777
10869.6	0.00787285
10911.3	0.00742742
10952.9	0.00694743
10994.6	0.00643903
11036.2	0.00590835
11077.9	0.00536151
11119.5	0.00480453
11161.1	0.00424325
11202.8	0.00368332
11244.4	0.0031301
11286.1	0.00258864
11327.7	0.00206361
11369.4	0.00155929
11411	0.00107954
11452.7	0.00062772
11494.3	0.000206726
11536	-0.000181057
11577.6	-0.000533756
11619.3	-0.000850018
11660.9	-0.00112901
11702.5	-0.0013704
11744.2	-0.00157438
11785.8	-0.0017416
11827.5	-0.00187317
11869.1	-0.00197066
11910.8	-0.00203604
11952.4	-0.00207163
11994.1	-0.00208012
12035.7	-0.00206448
12077.4	-0.00202795
12119	-0.00197398
12160.7	-0.00190619
12202.3	-0.00182835
12243.9	-0.00174428
12285.6	-0.00165786
12327.2	-0.00157296
12368.9	-0.0014934
12410.5	-0.00142289
12452.2	-0.00136502
12493.8	-0.00132319
12535.5	-0.00130059
12577.1	-0.00130016
12618.8	-0.00132454
12660.4	-0.00137607
12702.1	-0.00145674
12743.7	-0.00156818
12785.4	-0.00171163
12827	-0.00188793
12868.6	-0.0020975
12910.3	-0.00234038
12951.9	-0.00261616
12993.6	-0.00292402
13035.2	-0.00326277
13076.9	-0.0036308
13118.5	-0.00402613
13160.2	-0.00444647
13201.8	-0.00488916
13243.5	-0.00535131
13285.1	-0.00582974
13326.8	-0.00632108
13368.4	-0.00682179
13410	-0.00732821
13451.7	-0.0078366
13493.3	-0.00834321
13535	-0.0088443
13576.6	-0.00933618
13618.3	-0.00981532
13659.9	-0.0102783
13701.6	-0.010722
13743.2	-0.0111435
13784.9	-0.01154
13826.5	-0.0119093
13868.2	-0.0122494
13909.8	-0.0125587
13951.4	-0.0128359
13993.1	-0.0130801
14034.7	-0.0132911
14076.4	-0.0134686
14118	-0.013613
14159.7	-0.0137252
14201.3	-0.0138062
14243	-0.0138573
14284.6	-0.0138804
14326.3	-0.0138775
14367.9	-0.0138507
14409.6	-0.0138025
14451.2	-0.0137355
14492.8	-0.0136523
14534.5	-0.0135557
14576.1	-0.0134483
14617.8	-0.0133328
14659.4	-0.0132118
14701.1	-0.0130877
14742.7	-0.0129626
14784.4	-0.0128387
14826	-0.0127177
14867.7	-0.012601
14909.3	-0.0124897
14951	-0.0123847
14992.6	-0.0122864
15034.2	-0.012195
15075.9	-0.0121102
15117.5	-0.0120313
15159.2	-0.0119575
15200.8	-0.0118875
15242.5	-0.0118198
15284.1	-0.0117524
15325.8	-0.0116835
15367.4	-0.0116106
15409.1	-0.0115315
15450.7	-0.0114436
15492.4	-0.0113443
15534	-0.011231
15575.7	-0.0111012
15617.3	-0.0109522
15658.9	-0.0107817
15700.6	-0.0105875
15742.2	-0.0103675
15783.9	-0.0101199
15825.5	-0.00984316
15867.2	-0.00953605
15908.8	-0.00919764
15950.5	-0.00882735
15992.1	-0.00842495
16033.8	-0.00799057
16075.4	-0.00752471
16117.1	-0.00702824
16158.7	-0.00650238
16200.3	-0.0059487
16242	-0.00536908
16283.6	-0.00476572
16325.3	-0.00414112
16366.9	-0.003498
16408.6	-0.00283933
16450.2	-0.00216825
16491.9	-0.00148808
16533.5	-0.000802225
16575.2	-0.000114203
16616.8	0.000572437
16658.5	0.00125414
16700.1	0.00192736
16741.7	0.00258865
16783.4	0.00323462
16825	0.00386202
16866.7	0.00446776
16908.3	0.00504892
16950	0.0056028
16991.6	0.00612691
17033.3	0.00661901
17074.9	0.00707711
17116.6	0.00749948
17158.2	0.00788469
17199.9	0.00823156
17241.5	0.00853923
17283.1	0.00880708
17324.8	0.0090348
17366.4	0.00922235
17408.1	0.00936995
17449.7	0.00947809
17491.4	0.00954748
17533	0.00957909
17574.7	0.0095741
17616.3	0.00953389
17658	0.00946004
17699.6	0.00935427
17741.3	0.00921849
17782.9	0.00905471
17824.5	0.00886507
17866.2	0.00865181
17907.8	0.00841725
17949.5	0.00816374
17991.1	0.00789371
18032.8	0.00760957
18074.4	0.00731378
18116.1	0.00700876
18157.7	0.0066969
18199.4	0.00638055
18241	0.00606201
18282.7	0.00574351
18324.3	0.00542716
18365.9	0.00511502
18407.6	0.004809
18449.2	0.00451092
18490.9	0.00422245
18532.5	0.00394515
18574.2	0.00368039
18615.8	0.00342945
18657.5	0.00319341
18699.1	0.00297322
18740.8	0.00276966
18782.4	0.00258336
18824.1	0.00241476
18865.7	0.00226419
18907.4	0.00213178
18949	0.00201754
18990.6	0.00192132
19032.3	0.00184282
19073.9	0.00178162
19115.6	0.00173716
19157.2	0.00170876
19198.9	0.00169563
19240.5	0.0016969
19282.2	0.00171158
19323.8	0.0017386
19365.5	0.00177685
19407.1	0.00182512
19448.8	0.00188218
19490.4	0.00194676
19532	0.00201756
19573.7	0.00209326
19615.3	0.00217255
19657	0.00225412
19698.6	0.00233667
19740.3	0.00241895
19781.9	0.00249972
19823.6	0.00257781
19865.2	0.00265207
19906.9	0.00272144
19948.5	0.00278492
19990.2	0.00284156
