0	0
13.9771	0
23.2952	0
32.6133	0
41.9313	0
51.2494	0
60.5675	0
74.5446	0
83.8627	0
93.1808	0
102.499	0
111.817	0
121.135	0
130.453	0
144.43	0
153.748	0
163.066	0
172.384	0
181.702	0
191.021	0
200.339	0
214.316	0
223.634	0
232.952	0
242.27	0
251.588	0
260.906	0
270.224	0
284.201	0
293.519	0
302.837	0
312.156	0
321.474	0
330.792	0
340.11	0
354.087	0
363.405	0
372.723	0
382.041	0
391.359	0
400.677	0
414.654	0
423.972	0
433.291	0
442.609	0
451.927	0
461.245	0
470.563	0
484.54	0
493.858	0
503.176	0
512.494	0
521.812	0
531.13	0
540.448	0
554.426	0
563.744	0
573.062	0
582.38	0
591.698	0
601.016	0
610.334	0
624.311	0
633.629	0
642.947	0
652.265	0
661.583	0
670.902	0
680.22	0
694.197	0
703.515	0
712.833	0
722.151	0
731.469	0
740.787	0
750.105	0
764.082	0
773.4	0
782.718	0
792.037	0
801.355	0
810.673	0
824.65	0
833.968	0
843.286	0
852.604	0
861.922	0
871.24	0
880.558	0
894.535	0
903.853	0
913.171	0
922.49	0
931.808	0
941.126	0
950.444	0
964.421	0
973.739	0
983.057	0
992.375	0
1001.69	0
1011.01	0
1020.33	0
1034.31	0
1043.62	0
1052.94	0
1062.26	0
1071.58	0
1080.9	0
1090.21	0
1104.19	0
1113.51	0
1122.83	0
1132.15	0
1141.46	0
1150.78	0
1160.1	0
1174.08	0
1183.4	0
1192.71	0
1202.03	0
1211.35	0
1220.67	0
1234.65	0
1243.96	0
1253.28	0
1262.6	0
1271.92	0
1281.24	0
1290.55	0
1304.53	0
1313.85	0
1323.17	0
1332.48	0
1341.8	0
1351.12	0
1360.44	0
1374.42	0
1383.73	0
1393.05	0
1402.37	0
1411.69	0
1421.01	0
1430.32	0
1444.3	0
1453.62	0
1462.94	0
1472.26	0
1481.57	0
1490.89	0
1500.21	0
1514.19	0
1523.51	0
1532.82	0
1542.14	0
1551.46	0
1560.78	0
1570.1	0
1584.07	0
1593.39	0
1602.71	0
1612.03	0
1621.35	0
1630.66	0
1644.64	0
1653.96	0
1663.28	0
1672.59	0
1681.91	0
1691.23	0
1700.55	0
1714.53	0
1723.84	0
1733.16	0
1742.48	0
1751.8	0
1761.12	0
1770.43	0
1784.41	0
1793.73	0
1803.05	0
1812.37	0
1821.68	0
1831	0
1840.32	0
1854.3	0
1863.62	0
1872.93	0
1882.25	0
1891.57	0
1900.89	0
1910.21	0
1924.18	0
1933.5	0
1942.82	0
1952.14	0
1961.46	0
1970.77	0
1980.09	0
1994.07	0
2003.39	0
2012.7	0
2022.02	0
2031.34	0
2040.66	0
2054.64	0
2063.95	0
2073.27	0
2082.59	0
2091.91	0
2101.23	0
2110.54	0
2124.52	0
2133.84	0
2143.16	0
2152.48	0
2161.79	0
2171.11	0
2180.43	0
2194.41	0
2203.73	0
2213.04	0
2222.36	0
2231.68	0
2241	0
2250.32	0
2264.29	0
2273.61	0
2282.93	0
2292.25	0
2301.56	0
2310.88	0
2320.2	0
2334.18	0
2343.5	0
2352.81	0
2362.13	0
2371.45	0
2380.77	0
2390.09	0
2404.06	0
2413.38	0
2422.7	0
2432.02	0
2441.34	0
2450.65	0
2464.63	0
2473.95	0
2483.27	0
2492.59	0
2501.9	0
2511.22	0
2520.54	0
2534.52	0
2543.83	0
2553.15	0
2562.47	0
2571.79	0
2581.11	0
2590.43	0
2604.4	0
2613.72	0
2623.04	0
2632.36	0
2641.67	0
2650.99	0
2660.31	0
2674.29	0
2683.61	0
2692.92	0
2702.24	0
2711.56	0
2720.88	0
2730.2	0
2744.17	0
2753.49	0
2762.81	0
2772.13	0
2781.45	0
2790.76	0
2800.08	0
2814.06	0
2823.38	0
2832.7	0
2842.01	0
2851.33	0
2860.65	0
2874.63	0
2883.94	0
2893.26	0
2902.58	0
2911.9	0
2921.22	0
2930.53	0
2944.51	0
2953.83	0
2963.15	0
2972.47	0
2981.78	0
2991.1	0
3000.42	0
3014.4	0
3023.71	0
3033.03	-9.09495e-13
3042.35	-2.72848e-12
3051.67	-3.63798e-12
3060.99	-6.36646e-12
3070.3	-1.00044e-11
3084.28	-2.00089e-11
3093.6	-3.09228e-11
3102.92	-4.63842e-11
3112.24	-6.91216e-11
3121.55	-1.03682e-10
3130.87	-1.53705e-10
3140.19	-2.26464e-10
3154.17	-4.01997e-10
3163.48	-5.82077e-10
3172.8	-8.40373e-10
3182.12	-1.20326e-09
3191.44	-1.71349e-09
3200.76	-2.42471e-09
3210.07	-3.41151e-09
3224.05	-5.63068e-09
3233.37	-7.8071e-09
3242.69	-1.0763e-08
3252	-1.47575e-08
3261.32	-2.01208e-08
3270.64	-2.72848e-08
3284.62	-4.26498e-08
3293.94	-5.70653e-08
3303.25	-7.59537e-08
3312.57	-1.00575e-07
3321.89	-1.32496e-07
3331.21	-1.73673e-07
3340.52	-2.26516e-07
3354.5	-3.34317e-07
3363.82	-4.30768e-07
3373.14	-5.52413e-07
3382.45	-7.05095e-07
3391.77	-8.95822e-07
3401.09	-1.13296e-06
3410.41	-1.42643e-06
3424.38	-1.99848e-06
3433.7	-2.48867e-06
3443.02	-3.08584e-06
3452.34	-3.8102e-06
3461.66	-4.68506e-06
3470.97	-5.73723e-06
3480.29	-6.99741e-06
3494.27	-9.3554e-06
3503.59	-1.12988e-05
3512.9	-1.35939e-05
3522.22	-1.62939e-05
3531.54	-1.9458e-05
3540.86	-2.31523e-05
3550.17	-2.74497e-05
3564.15	-3.52048e-05
3573.47	-4.13792e-05
3582.79	-4.84735e-05
3592.1	-5.65971e-05
3601.42	-6.58685e-05
3610.74	-7.64156e-05
3620.06	-8.83759e-05
3634.03	-0.00010929
3643.35	-0.000125448
3652.67	-0.000143578
3661.99	-0.00016386
3671.3	-0.000186486
3680.62	-0.000211659
3694.6	-0.000254657
3703.92	-0.00028714
3713.23	-0.000322948
3722.55	-0.000362326
3731.87	-0.000405523
3741.19	-0.000452799
3750.5	-0.000504421
3764.48	-0.000590602
3773.8	-0.000654298
3783.11	-0.000723322
3792.43	-0.000797966
3801.75	-0.000878528
3811.07	-0.000965307
3820.39	-0.0010586
3834.36	-0.00121143
3843.68	-0.00132235
3853	-0.00144085
3862.31	-0.00156722
3871.63	-0.00170177
3880.95	-0.00184478
3890.27	-0.00199655
3904.24	-0.00224121
3913.56	-0.00241605
3922.88	-0.00260058
3932.2	-0.00279503
3941.51	-0.00299964
3950.83	-0.0032146
3960.15	-0.00344012
3974.13	-0.00379856
3983.44	-0.00405116
3992.76	-0.0043148
4002.08	-0.00458958
4011.4	-0.00487554
4020.71	-0.00517268
4030.03	-0.00548099
4044.01	-0.00596423
4053.33	-0.00630006
4062.64	-0.00664661
4071.96	-0.00700363
4081.28	-0.0073708
4090.6	-0.00774776
4104.57	-0.00833052
4113.89	-0.00872975
4123.21	-0.0091368
4132.53	-0.00955088
4141.84	-0.0099711
4151.16	-0.0103965
4160.48	-0.0108258
4174.46	-0.0114745
4183.77	-0.011908
4193.09	-0.0123402
4202.41	-0.0127695
4211.73	-0.0131936
4221.04	-0.0136103
4230.36	-0.0140171
4244.34	-0.0146028
4253.66	-0.0149723
4262.98	-0.0153212
4272.29	-0.0156458
4281.61	-0.0159421
4290.93	-0.0162057
4300.25	-0.0164321
4314.22	-0.0166909
4323.54	-0.0168016
4332.86	-0.0168562
4342.18	-0.0168485
4351.5	-0.0167719
4360.81	-0.0166194
4370.13	-0.016384
4384.11	-0.0158583
4393.43	-0.0153813
4402.75	-0.0147932
4412.06	-0.0140855
4421.38	-0.0132491
4430.7	-0.0122749
4440.02	-0.0111537
4453.99	-0.00917527
4463.31	-0.00764461
4472.63	-0.00593332
4481.95	-0.00403181
4491.27	-0.00193053
4500.58	0.000379869
4514.56	0.00425754
4523.88	0.00713015
4533.2	0.0102425
4542.52	0.0136024
4551.83	0.0172171
4561.15	0.0210932
4570.47	0.0252367
4584.45	0.0319643
4593.77	0.0367968
4603.08	0.0419109
4612.4	0.0473083
4621.72	0.0529898
4631.04	0.0589551
4640.36	0.0652026
4654.33	0.0750966
4663.65	0.0820347
4672.97	0.0892396
4682.29	0.0967041
4691.6	0.104419
4700.92	0.112375
4710.24	0.120561
4724.22	0.133241
4733.54	0.141942
4742.85	0.150821
4752.17	0.159863
4761.49	0.169049
4770.81	0.17836
4780.13	0.187774
4794.1	0.202044
4803.42	0.211622
4812.74	0.221226
4822.06	0.23083
4831.37	0.24041
4840.69	0.24994
4850.01	0.259394
4863.99	0.273375
4873.31	0.282523
4882.62	0.291503
4891.94	0.300287
4901.26	0.308849
4910.58	0.317161
4924.56	0.329106
4933.87	0.336682
4943.19	0.34392
4952.51	0.350794
4961.83	0.357283
4971.15	0.363362
4980.46	0.369011
4994.44	0.376631
5003.76	0.381115
5013.08	0.385101
5022.39	0.388574
5031.71	0.391519
5041.03	0.393922
5050.35	0.395771
5064.33	0.397488
5073.64	0.397916
5082.96	0.397763
5092.28	0.397027
5101.6	0.395705
5110.92	0.393797
5120.23	0.391305
5134.21	0.386479
5143.53	0.382545
5152.85	0.378048
5162.17	0.372995
5171.48	0.367399
5180.8	0.361273
5190.12	0.35463
5204.1	0.343733
5213.41	0.335871
5222.73	0.327553
5232.05	0.318799
5241.37	0.30963
5250.69	0.300067
5260	0.290133
5273.98	0.274586
5283.3	0.263825
5292.62	0.252774
5301.94	0.24146
5311.25	0.229904
5320.57	0.218133
5334.55	0.200126
5343.87	0.187921
5353.19	0.175586
5362.5	0.163144
5371.82	0.150619
5381.14	0.138033
5390.46	0.125409
5404.43	0.106452
5413.75	0.0938323
5423.07	0.0812516
5432.39	0.0687314
5441.71	0.0562923
5451.02	0.0439549
5460.34	0.0317389
5474.32	0.0136859
5483.64	0.00185916
5492.96	-0.00977854
5502.27	-0.0212086
5511.59	-0.0324128
5520.91	-0.043373
5530.23	-0.0540715
5544.2	-0.0695905
5553.52	-0.0795593
5562.84	-0.0892068
5572.16	-0.098517
5581.48	-0.107474
5590.79	-0.116063
5600.11	-0.124269
5614.09	-0.13583
5623.41	-0.14302
5632.73	-0.149781
5642.04	-0.156102
5651.36	-0.161974
5660.68	-0.167388
5674.66	-0.174632
5683.98	-0.178869
5693.29	-0.182625
5702.61	-0.185899
5711.93	-0.188688
5721.25	-0.190993
5730.57	-0.192816
5744.54	-0.194654
5753.86	-0.195291
5763.18	-0.195464
5772.5	-0.195185
5781.81	-0.194464
5791.13	-0.193314
5800.45	-0.191749
5814.43	-0.188661
5823.75	-0.186133
5833.06	-0.183254
5842.38	-0.180043
5851.7	-0.176523
5861.02	-0.172717
5870.34	-0.168648
5884.31	-0.162107
5893.63	-0.157491
5902.95	-0.1527
5912.27	-0.147762
5921.58	-0.142702
5930.9	-0.137546
5940.22	-0.132321
5954.2	-0.124406
5963.52	-0.119116
5972.83	-0.113842
5982.15	-0.108609
5991.47	-0.103437
6000.79	-0.0983491
6010.11	-0.0933644
6024.08	-0.0861223
6033.4	-0.0814759
6042.72	-0.0769933
6052.04	-0.0726886
6061.36	-0.0685743
6070.67	-0.0646616
6084.65	-0.0591914
6093.97	-0.0558218
6103.29	-0.0526811
6112.6	-0.0497738
6121.92	-0.0471028
6131.24	-0.0446698
6140.56	-0.0424749
6154.54	-0.0396266
6163.85	-0.03802
6173.17	-0.0366425
6182.49	-0.0354891
6191.81	-0.0345537
6201.13	-0.0338292
6210.44	-0.0333077
6224.42	-0.032887
6233.74	-0.0328339
6243.06	-0.0329508
6252.38	-0.0332272
6261.69	-0.0336521
6271.01	-0.0342143
6280.33	-0.0349022
6294.31	-0.0361449
6303.62	-0.0370968
6312.94	-0.0381341
6322.26	-0.0392454
6331.58	-0.0404195
6340.9	-0.0416456
6350.21	-0.042913
6364.19	-0.0448696
6373.51	-0.046197
6382.83	-0.047532
6392.15	-0.0488662
6401.46	-0.0501916
6410.78	-0.0515008
6420.1	-0.052787
6434.08	-0.0546597
6443.4	-0.0558625
6452.71	-0.0570232
6462.03	-0.0581377
6471.35	-0.0592024
6480.67	-0.0602144
6494.64	-0.0616285
6503.96	-0.0624994
6513.28	-0.0633114
6522.6	-0.0640638
6531.92	-0.0647565
6541.23	-0.0653894
6550.55	-0.065963
6564.53	-0.0667141
6573.85	-0.0671436
6583.17	-0.0675177
6592.48	-0.0678379
6601.8	-0.0681059
6611.12	-0.0683235
6620.44	-0.0684926
6634.41	-0.0686596
6643.73	-0.0687158
6653.05	-0.0687303
6662.37	-0.0687047
6671.69	-0.0686409
6681.01	-0.0685405
6690.32	-0.0684051
6704.3	-0.0681394
6713.62	-0.0679224
6722.94	-0.0676748
6732.25	-0.0673975
6741.57	-0.0670914
6750.89	-0.0667571
6760.21	-0.0663952
6774.19	-0.0658013
6783.5	-0.0653719
6792.82	-0.0649157
6802.14	-0.064433
6811.46	-0.0639236
6820.78	-0.0633875
6830.09	-0.0628245
6844.07	-0.0619294
6853.39	-0.0612986
6862.71	-0.0606404
6872.03	-0.0599547
6881.34	-0.0592412
6890.66	-0.0585
6904.64	-0.0573362
6913.96	-0.0565258
6923.27	-0.055688
6932.59	-0.0548231
6941.91	-0.0539315
6951.23	-0.0530136
6960.55	-0.05207
6974.52	-0.0506083
6983.84	-0.049604
6993.16	-0.0485771
7002.48	-0.0475287
7011.8	-0.0464599
7021.11	-0.045372
7030.43	-0.0442665
7044.41	-0.0425784
7053.73	-0.0414354
7063.05	-0.0402802
7072.36	-0.0391146
7081.68	-0.0379404
7091	-0.0367592
7100.32	-0.035573
7114.29	-0.0337882
7123.61	-0.0325974
7132.93	-0.0314079
7142.25	-0.0302216
7151.57	-0.0290401
7160.89	-0.0278653
7170.2	-0.0266989
7184.18	-0.0249683
7193.5	-0.0238295
7202.82	-0.0227044
7212.13	-0.0215943
7221.45	-0.0205004
7230.77	-0.019424
7240.09	-0.0183661
7254.07	-0.0168161
7263.38	-0.0158086
7272.7	-0.0148226
7282.02	-0.0138587
7291.34	-0.0129175
7300.66	-0.0119994
7314.63	-0.0106663
7323.95	-0.00980728
7333.27	-0.00897218
7342.59	-0.00816106
7351.9	-0.00737389
7361.22	-0.00661057
7370.54	-0.00587096
7384.52	-0.00480551
7393.84	-0.00412413
7403.15	-0.00346552
7412.47	-0.00282934
7421.79	-0.0022152
7431.11	-0.00162271
7440.43	-0.00105146
7454.4	-0.000233534
7463.72	0.000286395
7473.04	0.000786506
7482.36	0.00126719
7491.67	0.00172881
7500.99	0.00217172
7510.31	0.00259623
7524.29	0.00319913
7533.6	0.00357886
7542.92	0.00394106
7552.24	0.0042859
7561.56	0.00461352
7570.88	0.004924
7580.19	0.0052174
7594.17	0.00562549
7603.49	0.00587618
7612.81	0.00610967
7622.13	0.00632588
7631.44	0.00652465
7640.76	0.00670583
7650.08	0.00686923
7664.06	0.00708052
7673.37	0.00719851
7682.69	0.0072979
7692.01	0.00737845
7701.33	0.00743989
7710.65	0.00748196
7724.62	0.00750816
7733.94	0.00750066
7743.26	0.00747291
7752.58	0.00742468
7761.89	0.00735576
7771.21	0.00726596
7780.53	0.00715513
7794.51	0.00694915
7803.83	0.00678519
7813.14	0.00659985
7822.46	0.00639309
7831.78	0.00616494
7841.1	0.00591542
7850.41	0.00564462
7864.39	0.00519879
7873.71	0.00487539
7883.03	0.0045313
7892.35	0.00416675
7901.66	0.00378205
7910.98	0.00337751
7920.3	0.00295351
7934.28	0.00228187
7943.59	0.00181101
7952.91	0.00132222
7962.23	0.00081601
7971.55	0.00029293
7980.87	-0.00024645
7990.18	-0.000801534
8004.16	-0.00166223
8013.48	-0.0022538
8022.8	-0.00285878
8032.12	-0.00347649
8041.43	-0.00410621
8050.75	-0.0047472
8060.07	-0.00539872
8074.05	-0.00639408
8083.36	-0.00706857
8092.68	-0.00775088
8102	-0.00844023
8111.32	-0.0091358
8120.64	-0.0098368
8134.61	-0.0108967
8143.93	-0.0116078
8153.25	-0.0123214
8162.57	-0.0130368
8171.88	-0.0137533
8181.2	-0.0144699
8190.52	-0.0151859
8204.5	-0.016257
8213.82	-0.016968
8223.13	-0.0176757
8232.45	-0.0183793
8241.77	-0.0190781
8251.09	-0.0197712
8260.41	-0.0204581
8274.38	-0.0214749
8283.7	-0.0221428
8293.02	-0.0228019
8302.34	-0.0234515
8311.65	-0.024091
8320.97	-0.0247197
8330.29	-0.0253371
8344.27	-0.0262403
8353.59	-0.0268263
8362.9	-0.0273989
8372.22	-0.0279572
8381.54	-0.0285009
8390.86	-0.0290293
8400.18	-0.0295419
8414.15	-0.0302799
8423.47	-0.0307505
8432.79	-0.0312034
8442.11	-0.031638
8451.43	-0.0320539
8460.74	-0.0324505
8470.06	-0.0328273
8484.04	-0.0333542
8493.36	-0.0336793
8502.67	-0.0339828
8511.99	-0.0342641
8521.31	-0.0345228
8530.63	-0.0347584
8544.61	-0.0350674
8553.92	-0.0352429
8563.24	-0.0353935
8572.56	-0.0355187
8581.88	-0.035618
8591.2	-0.0356908
8600.51	-0.0357367
8614.49	-0.035754
8623.81	-0.0357305
8633.13	-0.0356783
8642.45	-0.0355971
8651.76	-0.0354864
8661.08	-0.0353458
8670.4	-0.0351749
8684.38	-0.0348608
8693.69	-0.0346126
8703.01	-0.0343328
8712.33	-0.0340213
8721.65	-0.0336777
8730.97	-0.033302
8740.28	-0.0328939
8754.26	-0.0322209
8763.58	-0.0317315
8772.9	-0.0312096
8782.22	-0.0306553
8791.53	-0.0300686
8800.85	-0.0294497
8810.17	-0.0287989
8824.15	-0.0277634
8833.47	-0.0270341
8842.78	-0.0262742
8852.1	-0.0254841
8861.42	-0.0246644
8870.74	-0.0238157
8880.06	-0.0229387
8894.03	-0.0215719
8903.35	-0.0206276
8912.67	-0.0196579
8921.99	-0.0186638
8931.31	-0.0176462
8940.62	-0.0166061
8954.6	-0.0150065
8963.92	-0.0139154
8973.24	-0.0128059
8982.55	-0.0116794
8991.87	-0.010537
9001.19	-0.00938009
9010.51	-0.00821006
9024.49	-0.00643335
9033.8	-0.00523648
9043.12	-0.00403134
9052.44	-0.00281937
9061.76	-0.001602
9071.08	-0.000380674
9080.39	0.000843166
9094.37	0.00268049
9103.69	0.00390433
9113.01	0.00512568
9122.33	0.00634313
9131.64	0.00755532
9140.96	0.00876086
9150.28	0.00995843
9164.26	0.011737
9173.57	0.0129089
9182.89	0.0140685
9192.21	0.0152144
9201.53	0.0163455
9210.85	0.0174607
9220.16	0.0185589
9234.14	0.0201722
9243.46	0.0212235
9252.78	0.0222544
9262.1	0.0232641
9271.41	0.0242516
9280.73	0.0252162
9290.05	0.0261572
9304.03	0.0275228
9313.35	0.0284019
9322.66	0.0292551
9331.98	0.0300819
9341.3	0.030882
9350.62	0.031655
9364.59	0.0327626
9373.91	0.033466
9383.23	0.0341412
9392.55	0.034788
9401.87	0.0354061
9411.19	0.0359956
9420.5	0.0365563
9434.48	0.0373434
9443.8	0.0378322
9453.12	0.0382924
9462.43	0.0387241
9471.75	0.0391275
9481.07	0.0395028
9490.39	0.0398502
9504.37	0.0403198
9513.68	0.0405989
9523	0.0408513
9532.32	0.0410775
9541.64	0.0412777
9550.96	0.0414526
9560.27	0.0416026
9574.25	0.041782
9583.57	0.0418721
9592.89	0.0419392
9602.21	0.0419839
9611.52	0.0420069
9620.84	0.0420087
9630.16	0.0419901
9644.14	0.0419253
9653.45	0.0418585
9662.77	0.0417736
9672.09	0.0416713
9681.41	0.0415524
9690.73	0.0414174
9700.05	0.0412671
9714.02	0.0410146
9723.34	0.0408291
9732.66	0.0406308
9741.98	0.0404202
9751.29	0.0401981
9760.61	0.0399651
9774.59	0.0395964
9783.91	0.0393388
9793.23	0.0390723
9802.54	0.0387975
9811.86	0.038515
9821.18	0.0382252
9830.5	0.0379286
9844.47	0.0374718
9853.79	0.03716
9863.11	0.0368428
9872.43	0.0365204
9881.75	0.0361932
9891.07	0.0358614
9900.38	0.0355252
9914.36	0.035013
9923.68	0.0346665
9933	0.034316
9942.31	0.0339615
9951.63	0.0336032
9960.95	0.0332409
9970.27	0.0328745
9984.25	0.0323172
9993.56	0.0319403
10002.9	0.0315588
10012.2	0.0311726
10021.5	0.0307814
10030.8	0.030385
10040.2	0.0299831
10054.1	0.0293692
10063.4	0.0289521
10072.8	0.0285284
10082.1	0.0280976
10091.4	0.0276595
10100.7	0.0272136
10110	0.0267595
10124	0.0260623
10133.3	0.0255863
10142.7	0.0251008
10152	0.0246054
10161.3	0.0240999
10170.6	0.0235839
10184.6	0.0227894
10193.9	0.0222457
10203.2	0.0216904
10212.5	0.0211233
10221.9	0.0205441
10231.2	0.0199526
10240.5	0.0193488
10254.5	0.0184193
10263.8	0.0177838
10273.1	0.0171354
10282.4	0.0164742
10291.7	0.0158002
10301.1	0.0151133
10310.4	0.0144138
10324.4	0.0133408
10333.7	0.01261
10343	0.011867
10352.3	0.011112
10361.6	0.0103454
10370.9	0.0095674
10380.3	0.00877838
10394.2	0.007575
10403.6	0.00676012
10412.9	0.00593567
10422.2	0.00510214
10431.5	0.00426003
10440.8	0.0034099
10450.1	0.00255232
10464.1	0.00125327
10473.4	0.000379695
10482.8	-0.000499156
10492.1	-0.00138262
10501.4	-0.00227
10510.7	-0.00316061
10520	-0.00405373
10534	-0.00539654
10543.3	-0.00629277
10552.6	-0.00718894
10562	-0.00808433
10571.3	-0.0089782
10580.6	-0.00986979
10594.6	-0.0112013
10603.9	-0.0120841
10613.2	-0.012962
10622.5	-0.0138345
10631.9	-0.0147009
10641.2	-0.0155604
10650.5	-0.0164124
10664.5	-0.0176752
10673.8	-0.0185061
10683.1	-0.0193274
10692.4	-0.0201389
10701.7	-0.0209398
10711.1	-0.0217299
10720.4	-0.0225087
10734.3	-0.023655
10743.7	-0.0244041
10753	-0.0251409
10762.3	-0.0258651
10771.6	-0.0265765
10780.9	-0.027275
10790.3	-0.0279605
10804.2	-0.0289644
10813.6	-0.0296173
10822.9	-0.0302573
10832.2	-0.0308843
10841.5	-0.0314986
10850.8	-0.0321004
10860.1	-0.0326897
10874.1	-0.0335511
10883.4	-0.0341106
10892.8	-0.0346586
10902.1	-0.0351956
10911.4	-0.0357219
10920.7	-0.0362378
10930	-0.0367438
10944	-0.0374851
10953.3	-0.0379681
10962.6	-0.0384426
10972	-0.0389092
10981.3	-0.0393682
10990.6	-0.0398201
11004.6	-0.0404857
11013.9	-0.0409218
11023.2	-0.0413524
11032.5	-0.0417779
11041.8	-0.0421987
11051.2	-0.0426152
11060.5	-0.0430278
11074.5	-0.04364
11083.8	-0.0440443
11093.1	-0.0444459
11102.4	-0.0448449
11111.7	-0.0452418
11121	-0.0456367
11130.4	-0.0460299
11144.3	-0.0466168
11153.7	-0.0470063
11163	-0.0473947
11172.3	-0.0477819
11181.6	-0.0481681
11190.9	-0.0485532
11200.3	-0.0489374
11214.2	-0.0495116
11223.5	-0.0498931
11232.9	-0.0502735
11242.2	-0.0506525
11251.5	-0.0510302
11260.8	-0.0514063
11270.1	-0.0517808
11284.1	-0.0523389
11293.4	-0.0527084
11302.8	-0.0530754
11312.1	-0.0534399
11321.4	-0.0538015
11330.7	-0.05416
11340	-0.0545152
11354	-0.0550412
11363.3	-0.0553869
11372.6	-0.0557283
11382	-0.0560651
11391.3	-0.0563972
11400.6	-0.0567242
11414.6	-0.0572045
11423.9	-0.0575176
11433.2	-0.0578248
11442.5	-0.0581256
11451.8	-0.05842
11461.2	-0.0587077
11470.5	-0.0589884
11484.5	-0.0593959
11493.8	-0.0596582
11503.1	-0.0599128
11512.4	-0.0601594
11521.7	-0.060398
11531	-0.0606282
11540.4	-0.0608499
11554.3	-0.0611662
11563.7	-0.0613659
11573	-0.0615565
11582.3	-0.0617378
11591.6	-0.0619097
11600.9	-0.0620719
11610.2	-0.0622244
11624.2	-0.0624344
11633.5	-0.0625617
11642.9	-0.0626786
11652.2	-0.0627851
11661.5	-0.0628808
11670.8	-0.0629657
11680.1	-0.0630395
11694.1	-0.0631291
11703.4	-0.0631746
11712.7	-0.0632084
11722.1	-0.0632303
11731.4	-0.0632401
11740.7	-0.0632377
11750	-0.0632229
11764	-0.0631769
11773.3	-0.0631301
11782.6	-0.0630702
11791.9	-0.062997
11801.3	-0.0629103
11810.6	-0.0628099
11824.6	-0.0626332
11833.9	-0.0624977
11843.2	-0.0623479
11852.5	-0.0621836
11861.8	-0.0620047
11871.1	-0.061811
11880.5	-0.0616024
11894.4	-0.0612614
11903.8	-0.061015
11913.1	-0.0607534
11922.4	-0.0604765
11931.7	-0.0601842
11941	-0.0598765
11950.4	-0.0595535
11964.3	-0.05904
11973.6	-0.0586785
11983	-0.0583018
11992.3	-0.0579099
12001.6	-0.0575029
12010.9	-0.057081
12020.2	-0.0566442
12034.2	-0.0559618
12043.5	-0.0554889
12052.9	-0.055002
12062.2	-0.0545011
12071.5	-0.0539867
12080.8	-0.053459
12090.1	-0.0529183
12104.1	-0.0520834
12113.4	-0.0515115
12122.7	-0.0509277
12132.1	-0.0503324
12141.4	-0.0497259
12150.7	-0.0491085
12160	-0.0484807
12174	-0.0475202
12183.3	-0.0468678
12192.6	-0.0462062
12201.9	-0.0455358
12211.3	-0.0448568
12220.6	-0.0441698
12234.6	-0.0431245
12243.9	-0.0424184
12253.2	-0.0417053
12262.5	-0.0409853
12271.8	-0.0402587
12281.1	-0.0395259
12290.5	-0.0387869
12304.4	-0.0376674
12313.8	-0.036914
12323.1	-0.036155
12332.4	-0.0353907
12341.7	-0.034621
12351	-0.033846
12360.3	-0.0330658
12374.3	-0.0318858
12383.6	-0.0310926
12393	-0.030294
12402.3	-0.0294902
12411.6	-0.0286809
12420.9	-0.0278661
12430.2	-0.0270456
12444.2	-0.0258039
12453.5	-0.0249685
12462.8	-0.024127
12472.2	-0.023279
12481.5	-0.0224243
12490.8	-0.0215629
12500.1	-0.0206943
12514.1	-0.0193778
12523.4	-0.0184907
12532.7	-0.0175957
12542	-0.0166927
12551.4	-0.0157815
12560.7	-0.0148618
12570	-0.0139334
12584	-0.0125243
12593.3	-0.0115737
12602.6	-0.0106138
12611.9	-0.00964463
12621.2	-0.00866607
12630.6	-0.00767804
12644.5	-0.00617815
12653.9	-0.00516631
12663.2	-0.00414496
12672.5	-0.00311416
12681.8	-0.00207399
12691.1	-0.00102456
12700.5	3.39818e-05
12714.4	0.00163847
12723.7	0.00271892
12733.1	0.00380771
12742.4	0.00490453
12751.7	0.00600906
12761	0.00712092
12770.3	0.00823974
12784.3	0.00993003
12793.6	0.0110643
12803	0.0122038
12812.3	0.0133481
12821.6	0.0144966
12830.9	0.0156488
12840.2	0.016804
12854.2	0.018541
12863.5	0.0197009
12872.8	0.0208615
12882.2	0.022022
12891.5	0.0231819
12900.8	0.0243403
12910.1	0.0254965
12924.1	0.0272251
12933.4	0.0283725
12942.7	0.0295152
12952	0.0306522
12961.4	0.0317828
12970.7	0.0329063
12984.7	0.0345765
12994	0.0356789
13003.3	0.0367716
13012.6	0.0378538
13021.9	0.0389249
13031.2	0.0399841
13040.6	0.0410307
13054.5	0.0425758
13063.9	0.0435884
13073.2	0.0445862
13082.5	0.0455687
13091.8	0.0465354
13101.1	0.0474857
13110.4	0.0484191
13124.4	0.0497867
13133.7	0.050676
13143.1	0.0515469
13152.4	0.0523992
13161.7	0.0532324
13171	0.0540462
13180.3	0.0548405
13194.3	0.0559946
13203.6	0.0567389
13212.9	0.0574629
13222.3	0.0581666
13231.6	0.0588497
13240.9	0.0595123
13250.2	0.0601543
13264.2	0.0610786
13273.5	0.0616692
13282.8	0.0622393
13292.2	0.0627889
13301.5	0.0633182
13310.8	0.0638273
13320.1	0.0643164
13334.1	0.0650128
13343.4	0.0654525
13352.7	0.0658727
13362	0.0662738
13371.4	0.0666558
13380.7	0.0670191
13394.6	0.0675293
13404	0.0678467
13413.3	0.0681461
13422.6	0.0684279
13431.9	0.0686923
13441.2	0.0689396
13450.6	0.0691699
13464.5	0.0694843
13473.9	0.0696736
13483.2	0.0698469
13492.5	0.0700044
13501.8	0.0701465
13511.1	0.0702734
13520.4	0.0703853
13534.4	0.0705257
13543.7	0.0706013
13553.1	0.0706629
13562.4	0.0707106
13571.7	0.0707447
13581	0.0707655
13590.3	0.0707732
13604.3	0.0707607
13613.6	0.0707367
13622.9	0.0707005
13632.3	0.0706523
13641.6	0.0705924
13650.9	0.0705209
13660.2	0.0704381
13674.2	0.0702934
13683.5	0.0701834
13692.8	0.070063
13702.1	0.0699323
13711.5	0.0697916
13720.8	0.0696411
13730.1	0.0694809
13744.1	0.0692231
13753.4	0.0690397
13762.7	0.0688473
13772	0.0686461
13781.3	0.0684363
13790.7	0.0682179
13804.6	0.0678747
13814	0.0676356
13823.3	0.0673883
13832.6	0.0671331
13841.9	0.0668698
13851.2	0.0665987
13860.6	0.0663197
13874.5	0.0658865
13883.8	0.065588
13893.2	0.0652817
13902.5	0.0649675
13911.8	0.0646455
13921.1	0.0643156
13930.4	0.0639777
13944.4	0.0634559
13953.7	0.0630979
13963.1	0.0627317
13972.4	0.0623572
13981.7	0.0619744
13991	0.061583
14000.3	0.061183
14014.3	0.0605665
14023.6	0.0601444
14032.9	0.0597132
14042.3	0.0592729
14051.6	0.0588232
14060.9	0.058364
14070.2	0.0578951
14084.2	0.0571736
14093.5	0.0566801
14102.8	0.0561764
14112.1	0.0556626
14121.5	0.0551383
14130.8	0.0546035
14140.1	0.054058
14154.1	0.0532194
14163.4	0.0526467
14172.7	0.0520627
14182	0.0514676
14191.3	0.050861
14200.7	0.050243
14214.6	0.049294
14224	0.0486467
14233.3	0.0479875
14242.6	0.0473162
14251.9	0.0466328
14261.2	0.0459372
14270.5	0.0452293
14284.5	0.044144
14293.8	0.0434049
14303.2	0.042653
14312.5	0.0418885
14321.8	0.0411111
14331.1	0.0403208
14340.4	0.0395175
14354.4	0.0382881
14363.7	0.037452
14373	0.0366028
14382.4	0.0357403
14391.7	0.0348645
14401	0.0339753
14410.3	0.0330727
14424.3	0.0316938
14433.6	0.0307577
14442.9	0.0298082
14452.2	0.0288452
14461.6	0.0278689
14470.9	0.0268792
14480.2	0.0258762
14494.2	0.0243467
14503.5	0.0233106
14512.8	0.0222613
14522.1	0.021199
14531.5	0.0201237
14540.8	0.0190356
14550.1	0.0179345
14564.1	0.0162591
14573.4	0.0151262
14582.7	0.0139807
14592	0.0128225
14601.3	0.0116516
14610.7	0.010468
14624.6	0.00866825
14634	0.00745205
14643.3	0.00622247
14652.6	0.00497919
14661.9	0.00372185
14671.2	0.00245
14680.5	0.00116313
14694.5	-0.000796615
14703.8	-0.00212369
14713.2	-0.00346808
14722.5	-0.00483055
14731.8	-0.00621193
14741.1	-0.00761305
14750.4	-0.00903476
14764.4	-0.0112078
14773.7	-0.0126846
14783	-0.0141847
14792.4	-0.0157088
14801.7	-0.0172575
14811	-0.018831
14820.3	-0.0204297
14834.3	-0.0228749
14843.6	-0.0245361
14852.9	-0.0262216
14862.2	-0.0279306
14871.6	-0.0296622
14880.9	-0.0314149
14890.2	-0.0331871
14904.2	-0.0358778
14913.5	-0.0376899
14922.8	-0.0395136
14932.1	-0.041346
14941.4	-0.0431841
14950.8	-0.0450244
14960.1	-0.0468634
14974.1	-0.0496115
14983.4	-0.0514308
14992.7	-0.0532352
15002	-0.0550208
15011.3	-0.0567834
15020.7	-0.058519
15034.6	-0.0610628
15043.9	-0.0627133
15053.3	-0.0643231
15062.6	-0.0658885
15071.9	-0.0674062
15081.2	-0.0688729
15090.5	-0.0702855
15104.5	-0.072297
15113.8	-0.0735628
15123.2	-0.0747657
15132.5	-0.0759039
15141.8	-0.0769757
15151.1	-0.0779796
15160.4	-0.0789143
15174.4	-0.0801845
15183.7	-0.0809425
15193	-0.0816287
15202.4	-0.0822428
15211.7	-0.0827848
15221	-0.0832545
15230.3	-0.0836523
15244.3	-0.0841147
15253.6	-0.084334
15262.9	-0.0844829
15272.2	-0.084562
15281.6	-0.0845721
15290.9	-0.084514
15300.2	-0.0843887
15314.2	-0.0840768
15323.5	-0.0837879
15332.8	-0.0834356
15342.1	-0.0830211
15351.4	-0.0825458
15360.8	-0.0820111
15370.1	-0.0814184
15384.1	-0.0804242
15393.4	-0.0796936
15402.7	-0.078911
15412	-0.078078
15421.3	-0.0771966
15430.6	-0.0762689
15444.6	-0.0747949
15453.9	-0.0737605
15463.3	-0.0726874
15472.6	-0.0715778
15481.9	-0.0704343
15491.2	-0.0692593
15500.5	-0.0680553
15514.5	-0.0662007
15523.8	-0.0649358
15533.1	-0.0636511
15542.5	-0.0623494
15551.8	-0.0610334
15561.1	-0.059706
15570.4	-0.0583698
15584.4	-0.0563551
15593.7	-0.055009
15603	-0.0536637
15612.3	-0.0523219
15621.7	-0.0509862
15631	-0.0496592
15640.3	-0.0483434
15654.3	-0.0463962
15663.6	-0.0451193
15672.9	-0.0438619
15682.2	-0.0426264
15691.6	-0.0414147
15700.9	-0.0402291
15710.2	-0.0390714
15724.2	-0.0373912
15733.5	-0.0363112
15742.8	-0.0352651
15752.1	-0.0342543
15761.4	-0.0332803
15770.8	-0.0323444
15780.1	-0.0314475
15794.1	-0.0301779
15803.4	-0.0293831
15812.7	-0.0286306
15822	-0.027921
15831.3	-0.0272547
15840.6	-0.0266323
15854.6	-0.0257813
15863.9	-0.0252695
15873.3	-0.0248021
15882.6	-0.0243791
15891.9	-0.0240003
15901.2	-0.0236656
15910.5	-0.0233745
15924.5	-0.0230189
15933.8	-0.022835
15943.1	-0.022693
15952.5	-0.0225922
15961.8	-0.0225317
15971.1	-0.0225107
15980.4	-0.0225283
15994.4	-0.0226247
16003.7	-0.022734
16013	-0.022878
16022.3	-0.0230554
16031.7	-0.0232649
16041	-0.023505
16050.3	-0.0237743
16064.3	-0.0242296
16073.6	-0.0245649
16082.9	-0.0249238
16092.2	-0.0253045
16101.5	-0.0257052
16110.9	-0.026124
16120.2	-0.0265591
16134.2	-0.0272382
16143.5	-0.0277056
16152.8	-0.0281824
16162.1	-0.0286668
16171.4	-0.0291566
16180.8	-0.02965
16190.1	-0.0301448
16204	-0.0308855
16213.4	-0.0313755
16222.7	-0.0318602
16232	-0.0323378
16241.3	-0.0328065
16250.6	-0.0332645
16264.6	-0.0339278
16273.9	-0.034352
16283.2	-0.0347599
16292.6	-0.0351504
16301.9	-0.0355219
16311.2	-0.0358734
16320.5	-0.0362037
16334.5	-0.0366575
16343.8	-0.0369309
16353.1	-0.0371802
16362.5	-0.0374048
16371.8	-0.0376042
16381.1	-0.037778
16390.4	-0.037926
16404.4	-0.0380993
16413.7	-0.0381823
16423	-0.0382394
16432.3	-0.0382708
16441.7	-0.0382768
16451	-0.0382578
16460.3	-0.0382144
16474.3	-0.0381044
16483.6	-0.0380022
16492.9	-0.0378778
16502.2	-0.0377319
16511.5	-0.0375654
16520.9	-0.0373792
16530.2	-0.0371742
16544.2	-0.0368335
16553.5	-0.0365857
16562.8	-0.0363226
16572.1	-0.0360451
16581.4	-0.0357543
16590.7	-0.0354512
16600.1	-0.0351367
16614	-0.0346457
16623.4	-0.034307
16632.7	-0.0339601
16642	-0.033606
16651.3	-0.0332454
16660.6	-0.0328792
16674.6	-0.0323207
16683.9	-0.0319432
16693.2	-0.0315622
16702.6	-0.0311784
16711.9	-0.0307921
16721.2	-0.0304038
16730.5	-0.0300138
16744.5	-0.0294264
16753.8	-0.0290336
16763.1	-0.02864
16772.4	-0.0282459
16781.8	-0.0278513
16791.1	-0.0274563
16800.4	-0.0270611
16814.4	-0.0264678
16823.7	-0.026072
16833	-0.025676
16842.3	-0.0252799
16851.7	-0.0248835
16861	-0.024487
16870.3	-0.0240902
16884.3	-0.0234947
16893.6	-0.0230974
16902.9	-0.0226999
16912.2	-0.0223022
16921.5	-0.0219045
16930.9	-0.0215066
16940.2	-0.0211087
16954.1	-0.0205121
16963.5	-0.0201145
16972.8	-0.0197172
16982.1	-0.0193204
16991.4	-0.0189241
17000.7	-0.0185285
17010.1	-0.0181337
17024	-0.0175433
17033.4	-0.0171511
17042.7	-0.0167602
17052	-0.0163709
17061.3	-0.0159831
17070.6	-0.015597
17084.6	-0.0150215
17093.9	-0.0146404
17103.2	-0.0142615
17112.6	-0.0138848
17121.9	-0.0135106
17131.2	-0.0131388
17140.5	-0.0127695
17154.5	-0.0122205
17163.8	-0.0118579
17173.1	-0.011498
17182.4	-0.0111408
17191.8	-0.0107864
17201.1	-0.0104348
17210.4	-0.010086
17224.4	-0.00956788
17233.7	-0.00922591
17243	-0.00888666
17252.3	-0.00855008
17261.6	-0.00821612
17271	-0.00788475
17280.3	-0.0075559
17294.3	-0.00706724
17303.6	-0.00674445
17312.9	-0.00642397
17322.2	-0.00610572
17331.5	-0.00578963
17340.8	-0.00547563
17350.2	-0.00516364
17364.1	-0.00469924
17373.5	-0.0043919
17382.8	-0.00408629
17392.1	-0.00378231
17401.4	-0.00347988
17410.7	-0.00317891
17420.1	-0.00287932
17434	-0.00243232
17443.3	-0.00213579
17452.7	-0.00184034
17462	-0.00154589
17471.3	-0.00125235
17480.6	-0.000959656
17494.6	-0.00052202
17503.9	-0.000231099
17513.2	5.92287e-05
17522.6	0.000349026
17531.9	0.000638349
17541.2	0.000927249
17550.5	0.00121577
17564.5	0.00164794
17573.8	0.00193568
17583.1	0.00222317
17592.4	0.00251041
17601.8	0.00279742
17611.1	0.0030842
17620.4	0.00337076
17634.4	0.00380016
17643.7	0.00408612
17653	0.0043718
17662.3	0.00465718
17671.6	0.00494223
17681	0.00522691
17690.3	0.00551118
17704.3	0.00593674
17713.6	0.00621979
17722.9	0.00650228
17732.2	0.00678414
17741.5	0.00706532
17750.8	0.00734577
17760.2	0.00762542
17774.1	0.00804329
17783.5	0.00832071
17792.8	0.00859714
17802.1	0.00887253
17811.4	0.00914681
17820.7	0.00941994
17830	0.00969187
17844	0.0100974
17853.3	0.0103661
17862.7	0.0106334
17872	0.0108993
17881.3	0.0111637
17890.6	0.0114266
17904.6	0.011818
17913.9	0.012077
17923.2	0.0123342
17932.5	0.0125898
17941.9	0.0128435
17951.2	0.0130954
17960.5	0.0133455
17974.5	0.0137168
17983.8	0.0139619
17993.1	0.0142047
18002.4	0.0144454
18011.8	0.0146838
18021.1	0.0149197
18030.4	0.0151532
18044.4	0.0154984
18053.7	0.015725
18063	0.0159487
18072.3	0.0161694
18081.6	0.0163868
18091	0.0166009
18100.3	0.0168114
18114.2	0.0171203
18123.6	0.0173213
18132.9	0.0175182
18142.2	0.017711
18151.5	0.0178993
18160.8	0.018083
18170.2	0.018262
18184.1	0.0185212
18193.5	0.0186877
18202.8	0.018849
18212.1	0.0190048
18221.4	0.0191551
18230.7	0.0192997
18240	0.0194386
18254	0.0196357
18263.3	0.0197597
18272.7	0.0198774
18282	0.019989
18291.3	0.0200941
18300.6	0.0201929
18314.6	0.0203289
18323.9	0.0204113
18333.2	0.0204871
18342.5	0.0205561
18351.9	0.0206182
18361.2	0.0206736
18370.5	0.0207219
18384.5	0.0207813
18393.8	0.0208119
18403.1	0.0208354
18412.4	0.0208515
18421.7	0.0208603
18431.1	0.0208616
18440.4	0.0208553
18454.4	0.0208315
18463.7	0.0208059
18473	0.0207724
18482.3	0.0207308
18491.6	0.020681
18500.9	0.020623
18510.3	0.0205566
18524.2	0.020441
18533.6	0.020353
18542.9	0.0202563
18552.2	0.0201506
18561.5	0.020036
18570.8	0.0199122
18580.2	0.0197792
18594.1	0.0195624
18603.4	0.0194062
18612.8	0.0192407
18622.1	0.0190658
18631.4	0.0188816
18640.7	0.0186881
18650	0.0184854
18664	0.0181644
18673.3	0.0179392
18682.7	0.0177054
18692	0.0174631
18701.3	0.0172126
18710.6	0.0169543
18724.6	0.0165527
18733.9	0.0162762
18743.2	0.0159931
18752.5	0.015704
18761.9	0.0154093
18771.2	0.0151096
18780.5	0.0148054
18794.5	0.0143422
18803.8	0.0140296
18813.1	0.0137148
18822.4	0.0133984
18831.7	0.0130812
18841.1	0.0127638
18850.4	0.012447
18864.4	0.0119745
18873.7	0.0116624
18883	0.0113534
18892.3	0.0110483
18901.6	0.0107477
18910.9	0.0104524
18920.3	0.010163
18934.2	0.00974142
18943.6	0.00946966
18952.9	0.00920602
18962.2	0.00895104
18971.5	0.00870527
18980.8	0.00846919
18990.1	0.00824326
19004.1	0.00792431
19013.4	0.00772551
19022.8	0.00753816
19032.1	0.00736254
19041.4	0.00719889
19050.7	0.0070474
19060	0.00690824
19074	0.00672284
19083.3	0.00661491
19092.6	0.00651952
19102	0.00643666
19111.3	0.00636626
19120.6	0.00630822
19134.6	0.00624403
19143.9	0.00621621
19153.2	0.00620012
19162.5	0.00619549
19171.8	0.00620204
19181.2	0.00621946
19190.5	0.00624739
19204.5	0.00630818
19213.8	0.00636072
19223.1	0.00642236
19232.4	0.00649265
19241.7	0.00657112
19251.1	0.00665728
19260.4	0.00675062
19274.3	0.00690295
19283.7	0.00701194
19293	0.00712622
19302.3	0.00724526
19311.6	0.00736847
19320.9	0.00749529
19330.3	0.00762514
19344.2	0.00782432
19353.6	0.0079592
19362.9	0.00809508
19372.2	0.00823137
19381.5	0.00836749
19390.8	0.00850286
19400.1	0.00863692
19414.1	0.0088343
19423.4	0.00896259
19432.8	0.0090876
19442.1	0.00920879
19451.4	0.00932561
19460.7	0.00943754
19470	0.00954407
19484	0.00969263
19493.3	0.00978347
19502.6	0.00986719
19512	0.00994333
19521.3	0.0100115
19530.6	0.0100712
19544.6	0.010144
19553.9	0.0101809
19563.2	0.010208
19572.5	0.010225
19581.8	0.0102316
19591.2	0.0102275
19600.5	0.0102125
19614.5	0.010169
19623.8	0.0101256
19633.1	0.0100706
19642.4	0.0100039
19651.7	0.00992518
19661	0.00983453
19670.4	0.00973184
19684.3	0.00955517
19693.7	0.00942231
19703	0.00927741
19712.3	0.00912055
19721.6	0.00895182
19730.9	0.00877131
19740.2	0.00857919
19754.2	0.00826958
19763.5	0.00804917
19772.9	0.00781783
19782.2	0.0075758
19791.5	0.00732335
19800.8	0.00706079
19810.1	0.00678842
19824.1	0.00636225
19833.4	0.00606691
19842.7	0.00576304
19852.1	0.00545106
19861.4	0.00513137
19870.7	0.00480442
19880	0.00447064
19894	0.0039582
19903.3	0.0036094
19912.6	0.00325541
19922	0.0028967
19931.3	0.00253375
19940.6	0.00216701
19954.6	0.00161083
19963.9	0.00123664
19973.2	0.00086022
19982.5	0.000481988
19991.8	0.000102331
