0	0
16.252	0
32.504	0
48.756	0
65.008	0
81.2599	0
97.5119	0
113.764	0
130.016	0
146.268	0
162.52	0
178.772	0
195.024	0
211.276	0
227.528	0
243.78	0
260.032	0
276.284	0
292.536	0
308.788	0
325.04	0
341.292	0
357.544	0
373.796	0
390.048	0
406.3	0
422.552	0
438.804	0
455.056	0
471.308	0
487.56	0
503.812	0
520.064	0
536.316	0
552.568	0
568.82	0
585.072	0
601.324	0
617.576	0
633.828	0
650.08	0
666.332	0
682.584	0
698.836	0
715.088	0
731.34	0
747.591	0
763.843	0
780.095	0
796.347	0
812.599	0
828.851	0
845.103	0
861.355	0
877.607	0
893.859	0
910.111	0
926.363	0
942.615	0
958.867	0
975.119	0
991.371	0
1007.62	0
1023.88	0
1040.13	0
1056.38	0
1072.63	0
1088.88	0
1105.14	0
1121.39	0
1137.64	0
1153.89	0
1170.14	0
1186.4	0
1202.65	0
1218.9	0
1235.15	0
1251.4	0
1267.66	0
1283.91	0
1300.16	0
1316.41	0
1332.66	0
1348.92	0
1365.17	0
1381.42	0
1397.67	0
1413.92	0
1430.18	0
1446.43	0
1462.68	0
1478.93	0
1495.18	0
1511.43	0
1527.69	0
1543.94	0
1560.19	0
1576.44	0
1592.69	0
1608.95	0
1625.2	0
1641.45	0
1657.7	0
1673.95	0
1690.21	0
1706.46	0
1722.71	0
1738.96	0
1755.21	0
1771.47	0
1787.72	0
1803.97	0
1820.22	0
1836.47	0
1852.73	9.09495e-13
1868.98	9.09495e-13
1885.23	1.81899e-12
1901.48	1.81899e-12
1917.73	3.63798e-12
1933.99	5.45697e-12
1950.24	9.09495e-12
1966.49	1.45519e-11
1982.74	2.36469e-11
1998.99	3.63798e-11
2015.25	5.63887e-11
2031.5	8.6402e-11
2047.75	1.31877e-10
2064	1.9827e-10
2080.25	2.95586e-10
2096.51	4.36557e-10
2112.76	6.41194e-10
2129.01	9.33142e-10
2145.26	1.34787e-09
2161.51	1.93268e-09
2177.77	2.75031e-09
2194.02	3.88536e-09
2210.27	5.4506e-09
2226.52	7.59337e-09
2242.77	1.05056e-08
2259.03	1.44391e-08
2275.28	1.9716e-08
2291.53	2.67501e-08
2307.78	3.60651e-08
2324.03	4.83251e-08
2340.29	6.43613e-08
2356.54	8.52124e-08
2372.79	1.12163e-07
2389.04	1.46799e-07
2405.29	1.91056e-07
2421.55	2.47294e-07
2437.8	3.1837e-07
2454.05	4.07715e-07
2470.3	5.19435e-07
2486.55	6.58418e-07
2502.81	8.30442e-07
2519.06	1.04231e-06
2535.31	1.30199e-06
2551.56	1.61875e-06
2567.81	2.00335e-06
2584.07	2.4682e-06
2600.32	3.02753e-06
2616.57	3.69763e-06
2632.82	4.49702e-06
2649.07	5.44671e-06
2665.33	6.5704e-06
2681.58	7.89476e-06
2697.83	9.44968e-06
2714.08	1.12686e-05
2730.33	1.33887e-05
2746.59	1.58514e-05
2762.84	1.87028e-05
2779.09	2.19936e-05
2795.34	2.57803e-05
2811.59	3.01252e-05
2827.85	3.50976e-05
2844.1	4.07738e-05
2860.35	4.72389e-05
2876.6	5.45873e-05
2892.85	6.29243e-05
2909.11	7.23676e-05
2925.36	8.30494e-05
2941.61	9.51185e-05
2957.86	0.000108743
2974.11	0.000124115
2990.36	0.000141452
3006.62	0.000161004
3022.87	0.000183058
3039.12	0.000207942
3055.37	0.000236039
3071.62	0.000267788
3087.88	0.0003037
3104.13	0.000344364
3120.38	0.000390465
3136.63	0.000442794
3152.88	0.000502267
3169.14	0.000569941
3185.39	0.000647035
3201.64	0.000734951
3217.89	0.000835298
3234.14	0.000949915
3250.39	0.0010809
3266.65	0.00123064
3282.9	0.00140184
3299.15	0.00159755
3315.4	0.0018212
3331.65	0.00207664
3347.9	0.00236816
3364.16	0.00270052
3380.41	0.00307901
3396.66	0.00350943
3412.91	0.00399816
3429.16	0.00455217
3445.41	0.00517903
3461.66	0.00588692
3477.92	0.00668466
3494.17	0.0075817
3510.42	0.0085881
3526.67	0.00971452
3542.92	0.0109722
3559.17	0.012373
3575.43	0.0139291
3591.68	0.0156532
3607.93	0.0175585
3624.18	0.0196583
3640.43	0.021966
3656.68	0.0244953
3672.93	0.0272597
3689.19	0.0302724
3705.44	0.0335465
3721.69	0.0370944
3737.94	0.0409278
3754.19	0.0450576
3770.44	0.0494937
3786.69	0.0542445
3802.94	0.0593172
3819.2	0.0647174
3835.45	0.0704486
3851.7	0.0765126
3867.95	0.0829087
3884.2	0.0896339
3900.45	0.0966829
3916.7	0.104047
3932.96	0.111717
3949.21	0.119676
3965.46	0.12791
3981.71	0.136398
3997.96	0.145117
4014.21	0.15404
4030.46	0.16314
4046.71	0.172384
4062.97	0.181738
4079.22	0.191163
4095.47	0.20062
4111.72	0.210066
4127.97	0.219457
4144.22	0.228747
4160.48	0.237888
4176.73	0.246831
4192.98	0.255525
4209.23	0.263921
4225.48	0.271967
4241.73	0.279614
4257.98	0.286811
4274.24	0.293511
4290.49	0.299664
4306.74	0.305227
4322.99	0.310156
4339.24	0.31441
4355.49	0.317951
4371.75	0.320745
4388	0.322762
4404.25	0.323974
4420.5	0.324359
4436.75	0.323897
4453.01	0.322576
4469.26	0.320386
4485.51	0.317322
4501.76	0.313386
4518.01	0.308581
4534.27	0.302918
4550.52	0.296413
4566.77	0.289085
4583.02	0.280957
4599.27	0.272059
4615.53	0.262423
4631.78	0.252085
4648.03	0.241087
4664.28	0.229471
4680.53	0.217284
4696.79	0.204576
4713.04	0.191398
4729.29	0.177804
4745.54	0.163849
4761.79	0.14959
4778.04	0.135082
4794.3	0.120385
4810.55	0.105556
4826.8	0.0906512
4843.05	0.0757281
4859.3	0.0608418
4875.56	0.0460465
4891.81	0.0313946
4908.06	0.0169364
4924.31	0.00272007
4940.56	-0.0112087
4956.82	-0.024807
4973.07	-0.0380349
4989.32	-0.0508552
5005.57	-0.0632344
5021.82	-0.0751418
5038.08	-0.0865503
5054.33	-0.0974363
5070.58	-0.107779
5086.83	-0.117563
5103.08	-0.126773
5119.34	-0.1354
5135.59	-0.143437
5151.84	-0.15088
5168.09	-0.157729
5184.34	-0.163986
5200.6	-0.169655
5216.85	-0.174745
5233.1	-0.179266
5249.35	-0.18323
5265.6	-0.186652
5281.85	-0.189547
5298.11	-0.191934
5314.36	-0.193832
5330.61	-0.195262
5346.86	-0.196246
5363.11	-0.196807
5379.37	-0.196967
5395.62	-0.19675
5411.87	-0.196182
5428.12	-0.195286
5444.37	-0.194086
5460.63	-0.192606
5476.88	-0.190871
5493.13	-0.188904
5509.38	-0.186728
5525.63	-0.184364
5541.89	-0.181835
5558.14	-0.179161
5574.39	-0.176362
5590.64	-0.173455
5606.89	-0.17046
5623.15	-0.167393
5639.4	-0.164268
5655.65	-0.161101
5671.9	-0.157904
5688.15	-0.154691
5704.41	-0.151471
5720.66	-0.148255
5736.91	-0.145052
5753.16	-0.141869
5769.41	-0.138713
5785.67	-0.135591
5801.92	-0.132507
5818.17	-0.129464
5834.42	-0.126468
5850.67	-0.123519
5866.93	-0.12062
5883.18	-0.117772
5899.43	-0.114975
5915.68	-0.11223
5931.93	-0.109537
5948.18	-0.106894
5964.44	-0.1043
5980.69	-0.101755
5996.94	-0.0992561
6013.19	-0.0968021
6029.44	-0.0943909
6045.7	-0.0920206
6061.95	-0.0896892
6078.2	-0.0873946
6094.45	-0.0851349
6110.7	-0.0829081
6126.96	-0.0807124
6143.21	-0.0785462
6159.46	-0.0764077
6175.71	-0.0742956
6191.96	-0.0722087
6208.22	-0.0701459
6224.47	-0.0681063
6240.72	-0.0660892
6256.97	-0.0640941
6273.22	-0.0621207
6289.48	-0.0601689
6305.73	-0.0582388
6321.98	-0.0563304
6338.23	-0.0544443
6354.48	-0.0525808
6370.74	-0.0507408
6386.99	-0.0489248
6403.24	-0.0471339
6419.49	-0.0453688
6435.74	-0.0436306
6452	-0.0419202
6468.25	-0.0402389
6484.5	-0.0385875
6500.75	-0.0369671
6517	-0.0353787
6533.26	-0.0338233
6549.51	-0.0323017
6565.76	-0.0308147
6582.01	-0.0293631
6598.26	-0.0279473
6614.52	-0.0265679
6630.77	-0.0252251
6647.02	-0.0239192
6663.27	-0.0226501
6679.52	-0.0214177
6695.78	-0.0202218
6712.03	-0.0190617
6728.28	-0.0179371
6744.53	-0.0168469
6760.78	-0.0157903
6777.04	-0.014766
6793.29	-0.013773
6809.54	-0.0128096
6825.79	-0.0118743
6842.04	-0.0109654
6858.3	-0.0100811
6874.55	-0.00921943
6890.8	-0.0083783
6907.05	-0.0075556
6923.3	-0.00674912
6939.56	-0.00595658
6955.81	-0.00517568
6972.06	-0.00440407
6988.31	-0.0036394
7004.56	-0.00287931
7020.82	-0.00212148
7037.07	-0.0013636
7053.32	-0.000603434
7069.57	0.000161209
7085.82	0.000932428
7102.08	0.00171223
7118.33	0.00250252
7134.58	0.00330506
7150.83	0.00412151
7167.08	0.00495337
7183.34	0.00580199
7199.59	0.00666853
7215.84	0.00755402
7232.09	0.00845929
7248.34	0.00938497
7264.6	0.0103315
7280.85	0.0112992
7297.1	0.0122881
7313.35	0.0132981
7329.6	0.0143288
7345.86	0.0153797
7362.11	0.0164501
7378.36	0.0175391
7394.61	0.0186455
7410.86	0.0197682
7427.12	0.0209056
7443.37	0.0220562
7459.62	0.0232181
7475.87	0.0243894
7492.12	0.0255681
7508.38	0.026752
7524.63	0.0279387
7540.88	0.0291258
7557.13	0.0303108
7573.38	0.0314911
7589.64	0.0326641
7605.89	0.0338269
7622.14	0.0349769
7638.39	0.0361112
7654.64	0.037227
7670.89	0.0383215
7687.15	0.0393917
7703.4	0.0404351
7719.65	0.0414487
7735.9	0.0424298
7752.15	0.0433757
7768.41	0.0442839
7784.66	0.0451517
7800.91	0.0459768
7817.16	0.0467568
7833.41	0.0474894
7849.67	0.0481724
7865.92	0.0488038
7882.17	0.0493818
7898.42	0.0499044
7914.67	0.0503702
7930.93	0.0507775
7947.18	0.0511251
7963.43	0.0514117
7979.68	0.0516362
7995.93	0.0517977
8012.18	0.0518955
8028.44	0.0519289
8044.69	0.0518975
8060.94	0.051801
8077.19	0.0516392
8093.44	0.0514121
8109.7	0.0511199
8125.95	0.0507629
8142.2	0.0503414
8158.45	0.049856
8174.7	0.0493075
8190.96	0.0486967
8207.21	0.0480244
8223.46	0.0472919
8239.71	0.0465003
8255.96	0.0456509
8272.21	0.0447451
8288.47	0.0437844
8304.72	0.0427705
8320.97	0.041705
8337.22	0.0405897
8353.47	0.0394265
8369.73	0.0382173
8385.98	0.0369641
8402.23	0.035669
8418.48	0.0343341
8434.73	0.0329616
8450.99	0.0315536
8467.24	0.0301125
8483.49	0.0286404
8499.74	0.0271398
8515.99	0.025613
8532.25	0.0240623
8548.5	0.0224901
8564.75	0.0208987
8581	0.0192905
8597.25	0.017668
8613.5	0.0160335
8629.76	0.0143892
8646.01	0.0127377
8662.26	0.0110812
8678.51	0.00942192
8694.76	0.00776225
8711.02	0.00610438
8727.27	0.00445052
8743.52	0.00280282
8759.77	0.00116342
8776.02	-0.000465619
8792.28	-0.00208227
8808.53	-0.00368456
8824.78	-0.00527058
8841.03	-0.00683846
8857.28	-0.00838642
8873.54	-0.00991272
8889.79	-0.0114157
8906.04	-0.0128937
8922.29	-0.0143453
8938.54	-0.015769
8954.8	-0.0171634
8971.05	-0.0185272
8987.3	-0.0198592
9003.55	-0.0211583
9019.8	-0.0224233
9036.05	-0.0236533
9052.31	-0.0248473
9068.56	-0.0260046
9084.81	-0.0271244
9101.06	-0.028206
9117.31	-0.0292488
9133.57	-0.0302524
9149.82	-0.0312164
9166.07	-0.0321403
9182.32	-0.0330239
9198.57	-0.0338671
9214.83	-0.0346698
9231.08	-0.0354318
9247.33	-0.0361533
9263.58	-0.0368344
9279.83	-0.0374752
9296.09	-0.038076
9312.34	-0.0386371
9328.59	-0.0391589
9344.84	-0.0396419
9361.09	-0.0400865
9377.35	-0.0404933
9393.6	-0.0408629
9409.85	-0.0411959
9426.1	-0.0414931
9442.35	-0.0417552
9458.61	-0.0419829
9474.86	-0.0421771
9491.11	-0.0423387
9507.36	-0.0424684
9523.61	-0.0425673
9539.87	-0.0426362
9556.12	-0.0426761
9572.37	-0.0426879
9588.62	-0.0426727
9604.87	-0.0426314
9621.12	-0.042565
9637.38	-0.0424745
9653.63	-0.0423608
9669.88	-0.0422251
9686.13	-0.0420683
9702.38	-0.0418913
9718.64	-0.0416952
9734.89	-0.0414808
9751.14	-0.0412493
9767.39	-0.0410014
9783.64	-0.0407381
9799.9	-0.0404603
9816.15	-0.0401688
9832.4	-0.0398645
9848.65	-0.0395483
9864.9	-0.0392209
9881.16	-0.038883
9897.41	-0.0385355
9913.66	-0.038179
9929.91	-0.0378142
9946.16	-0.0374418
9962.42	-0.0370624
9978.67	-0.0366765
9994.92	-0.0362847
10011.2	-0.0358875
10027.4	-0.0354855
10043.7	-0.0350791
10059.9	-0.0346687
10076.2	-0.0342546
10092.4	-0.0338374
10108.7	-0.0334172
10124.9	-0.0329945
10141.2	-0.0325694
10157.4	-0.0321422
10173.7	-0.0317133
10189.9	-0.0312826
10206.2	-0.0308505
10222.4	-0.030417
10238.7	-0.0299822
10255	-0.0295463
10271.2	-0.0291094
10287.5	-0.0286714
10303.7	-0.0282325
10320	-0.0277925
10336.2	-0.0273516
10352.5	-0.0269096
10368.7	-0.0264667
10385	-0.0260226
10401.2	-0.0255773
10417.5	-0.0251308
10433.7	-0.0246829
10450	-0.0242336
10466.2	-0.0237828
10482.5	-0.0233302
10498.7	-0.0228759
10515	-0.0224197
10531.2	-0.0219613
10547.5	-0.0215008
10563.7	-0.021038
10580	-0.0205726
10596.2	-0.0201047
10612.5	-0.0196339
10628.7	-0.0191602
10645	-0.0186835
10661.3	-0.0182036
10677.5	-0.0177203
10693.8	-0.0172336
10710	-0.0167434
10726.3	-0.0162494
10742.5	-0.0157516
10758.8	-0.0152499
10775	-0.0147443
10791.3	-0.0142345
10807.5	-0.0137207
10823.8	-0.0132026
10840	-0.0126802
10856.3	-0.0121536
10872.5	-0.0116226
10888.8	-0.0110873
10905	-0.0105477
10921.3	-0.0100038
10937.5	-0.00945565
10953.8	-0.00890324
10970	-0.00834666
10986.3	-0.00778599
11002.5	-0.00722131
11018.8	-0.00665275
11035	-0.00608041
11051.3	-0.00550444
11067.6	-0.004925
11083.8	-0.00434225
11100.1	-0.00375638
11116.3	-0.00316759
11132.6	-0.00257609
11148.8	-0.00198213
11165.1	-0.00138594
11181.3	-0.000787789
11197.6	-0.000187948
11213.8	0.000413295
11230.1	0.00101564
11246.3	0.00161876
11262.6	0.00222235
11278.8	0.00282605
11295.1	0.00342953
11311.3	0.00403243
11327.6	0.00463437
11343.8	0.00523498
11360.1	0.00583387
11376.3	0.00643065
11392.6	0.00702493
11408.8	0.00761629
11425.1	0.00820433
11441.3	0.00878863
11457.6	0.00936878
11473.9	0.00994436
11490.1	0.0105149
11506.4	0.0110801
11522.6	0.0116394
11538.9	0.0121925
11555.1	0.0127389
11571.4	0.0132781
11587.6	0.0138099
11603.9	0.0143337
11620.1	0.0148492
11636.4	0.0153559
11652.6	0.0158535
11668.9	0.0163416
11685.1	0.0168197
11701.4	0.0172876
11717.6	0.0177448
11733.9	0.0181909
11750.1	0.0186257
11766.4	0.0190487
11782.6	0.0194597
11798.9	0.0198583
11815.1	0.0202442
11831.4	0.0206171
11847.6	0.0209766
11863.9	0.0213226
11880.2	0.0216547
11896.4	0.0219727
11912.7	0.0222763
11928.9	0.0225653
11945.2	0.0228395
11961.4	0.0230985
11977.7	0.0233423
11993.9	0.0235706
12010.2	0.0237833
12026.4	0.0239801
12042.7	0.0241609
12058.9	0.0243256
12075.2	0.024474
12091.4	0.0246059
12107.7	0.0247214
12123.9	0.0248201
12140.2	0.0249022
12156.4	0.0249674
12172.7	0.0250157
12188.9	0.025047
12205.2	0.0250613
12221.4	0.0250585
12237.7	0.0250386
12253.9	0.0250016
12270.2	0.0249475
12286.4	0.0248763
12302.7	0.0247879
12319	0.0246824
12335.2	0.0245598
12351.5	0.0244203
12367.7	0.0242638
12384	0.0240903
12400.2	0.0239001
12416.5	0.0236931
12432.7	0.0234695
12449	0.0232295
12465.2	0.022973
12481.5	0.0227003
12497.7	0.0224115
12514	0.0221068
12530.2	0.0217864
12546.5	0.0214504
12562.7	0.0210991
12579	0.0207326
12595.2	0.0203513
12611.5	0.0199554
12627.7	0.019545
12644	0.0191206
12660.2	0.0186823
12676.5	0.0182305
12692.7	0.0177656
12709	0.0172877
12725.3	0.0167974
12741.5	0.0162948
12757.8	0.0157805
12774	0.0152547
12790.3	0.014718
12806.5	0.0141706
12822.8	0.0136131
12839	0.0130458
12855.3	0.0124692
12871.5	0.0118837
12887.8	0.0112899
12904	0.0106882
12920.3	0.0100791
12936.5	0.0094631
12952.8	0.0088407
12969	0.00821243
12985.3	0.00757881
13001.5	0.00694038
13017.8	0.00629767
13034	0.00565123
13050.3	0.00500161
13066.5	0.00434936
13082.8	0.00369504
13099	0.00303922
13115.3	0.00238244
13131.6	0.00172528
13147.8	0.0010683
13164.1	0.000412059
13180.3	-0.000242883
13196.6	-0.000895966
13212.8	-0.00154664
13229.1	-0.00219434
13245.3	-0.00283854
13261.6	-0.00347869
13277.8	-0.00411426
13294.1	-0.00474472
13310.3	-0.00536956
13326.6	-0.00598827
13342.8	-0.00660034
13359.1	-0.0072053
13375.3	-0.00780266
13391.6	-0.00839195
13407.8	-0.00897274
13424.1	-0.00954457
13440.3	-0.010107
13456.6	-0.0106597
13472.8	-0.0112021
13489.1	-0.011734
13505.3	-0.012255
13521.6	-0.0127647
13537.9	-0.0132627
13554.1	-0.0137488
13570.4	-0.0142226
13586.6	-0.0146839
13602.9	-0.0151324
13619.1	-0.0155679
13635.4	-0.0159901
13651.6	-0.0163987
13667.9	-0.0167937
13684.1	-0.0171747
13700.4	-0.0175418
13716.6	-0.0178946
13732.9	-0.018233
13749.1	-0.0185571
13765.4	-0.0188666
13781.6	-0.0191614
13797.9	-0.0194416
13814.1	-0.019707
13830.4	-0.0199577
13846.6	-0.0201935
13862.9	-0.0204146
13879.1	-0.0206208
13895.4	-0.0208123
13911.6	-0.0209891
13927.9	-0.0211512
13944.2	-0.0212987
13960.4	-0.0214316
13976.7	-0.0215502
13992.9	-0.0216543
14009.2	-0.0217443
14025.4	-0.0218201
14041.7	-0.021882
14057.9	-0.0219301
14074.2	-0.0219645
14090.4	-0.0219854
14106.7	-0.0219929
14122.9	-0.0219873
14139.2	-0.0219688
14155.4	-0.0219375
14171.7	-0.0218936
14187.9	-0.0218374
14204.2	-0.021769
14220.4	-0.0216888
14236.7	-0.0215968
14252.9	-0.0214934
14269.2	-0.0213788
14285.4	-0.0212533
14301.7	-0.0211171
14317.9	-0.0209704
14334.2	-0.0208135
14350.5	-0.0206467
14366.7	-0.0204703
14383	-0.0202844
14399.2	-0.0200895
14415.5	-0.0198857
14431.7	-0.0196733
14448	-0.0194527
14464.2	-0.0192241
14480.5	-0.0189878
14496.7	-0.0187441
14513	-0.0184933
14529.2	-0.0182356
14545.5	-0.0179715
14561.7	-0.0177011
14578	-0.0174248
14594.2	-0.0171429
14610.5	-0.0168556
14626.7	-0.0165634
14643	-0.0162664
14659.2	-0.015965
14675.5	-0.0156595
14691.7	-0.0153503
14708	-0.0150375
14724.2	-0.0147216
14740.5	-0.0144029
14756.8	-0.0140815
14773	-0.013758
14789.3	-0.0134325
14805.5	-0.0131053
14821.8	-0.0127769
14838	-0.0124474
14854.3	-0.0121173
14870.5	-0.0117867
14886.8	-0.0114561
14903	-0.0111257
14919.3	-0.0107958
14935.5	-0.0104667
14951.8	-0.0101388
14968	-0.00981221
14984.3	-0.00948737
15000.5	-0.00916454
15016.8	-0.00884399
15033	-0.00852602
15049.3	-0.00821091
15065.5	-0.00789894
15081.8	-0.00759039
15098	-0.00728552
15114.3	-0.00698461
15130.5	-0.00668792
15146.8	-0.00639571
15163.1	-0.00610823
15179.3	-0.00582574
15195.6	-0.00554847
15211.8	-0.00527666
15228.1	-0.00501056
15244.3	-0.00475037
15260.6	-0.00449634
15276.8	-0.00424866
15293.1	-0.00400755
15309.3	-0.00377321
15325.6	-0.00354583
15341.8	-0.0033256
15358.1	-0.0031127
15374.3	-0.0029073
15390.6	-0.00270956
15406.8	-0.00251965
15423.1	-0.0023377
15439.3	-0.00216386
15455.6	-0.00199826
15471.8	-0.00184103
15488.1	-0.00169227
15504.3	-0.0015521
15520.6	-0.00142061
15536.8	-0.00129788
15553.1	-0.001184
15569.4	-0.00107904
15585.6	-0.00098305
15601.9	-0.000896088
15618.1	-0.000818193
15634.4	-0.000749396
15650.6	-0.000689721
15666.9	-0.000639178
15683.1	-0.000597771
15699.4	-0.000565492
15715.6	-0.000542325
15731.9	-0.000528242
15748.1	-0.000523208
15764.4	-0.000527175
15780.6	-0.000540088
15796.9	-0.000561879
15813.1	-0.000592474
15829.4	-0.000631787
15845.6	-0.000679722
15861.9	-0.000736173
15878.1	-0.000801026
15894.4	-0.000874155
15910.6	-0.000955428
15926.9	-0.0010447
15943.1	-0.00114182
15959.4	-0.00124662
15975.6	-0.00135893
15991.9	-0.00147857
16008.2	-0.00160535
16024.4	-0.00173907
16040.7	-0.00187953
16056.9	-0.0020265
16073.2	-0.00217976
16089.4	-0.00233908
16105.7	-0.00250422
16121.9	-0.00267493
16138.2	-0.00285095
16154.4	-0.00303201
16170.7	-0.00321785
16186.9	-0.00340819
16203.2	-0.00360273
16219.4	-0.0038012
16235.7	-0.00400329
16251.9	-0.00420869
16268.2	-0.00441711
16284.4	-0.00462821
16300.7	-0.00484169
16316.9	-0.00505723
16333.2	-0.00527449
16349.4	-0.00549314
16365.7	-0.00571285
16381.9	-0.00593328
16398.2	-0.00615409
16414.5	-0.00637494
16430.7	-0.0065955
16447	-0.0068154
16463.2	-0.00703432
16479.5	-0.0072519
16495.7	-0.00746781
16512	-0.0076817
16528.2	-0.00789323
16544.5	-0.00810207
16560.7	-0.00830787
16577	-0.00851032
16593.2	-0.00870907
16609.5	-0.00890381
16625.7	-0.00909422
16642	-0.00927998
16658.2	-0.0094608
16674.5	-0.00963637
16690.7	-0.0098064
16707	-0.00997061
16723.2	-0.0101287
16739.5	-0.0102805
16755.7	-0.0104256
16772	-0.0105639
16788.2	-0.010695
16804.5	-0.0108189
16820.8	-0.0109352
16837	-0.0110437
16853.3	-0.0111444
16869.5	-0.0112369
16885.8	-0.0113212
16902	-0.0113971
16918.3	-0.0114645
16934.5	-0.0115232
16950.8	-0.0115732
16967	-0.0116143
16983.3	-0.0116465
16999.5	-0.0116698
17015.8	-0.0116841
17032	-0.0116893
17048.3	-0.0116855
17064.5	-0.0116727
17080.8	-0.0116509
17097	-0.0116202
17113.3	-0.0115806
17129.5	-0.0115322
17145.8	-0.0114751
17162	-0.0114093
17178.3	-0.0113352
17194.5	-0.0112526
17210.8	-0.011162
17227.1	-0.0110633
17243.3	-0.0109568
17259.6	-0.0108428
17275.8	-0.0107213
17292.1	-0.0105928
17308.3	-0.0104573
17324.6	-0.0103152
17340.8	-0.0101668
17357.1	-0.0100124
17373.3	-0.00985212
17389.6	-0.00968645
17405.8	-0.00951566
17422.1	-0.00934008
17438.3	-0.00916005
17454.6	-0.00897594
17470.8	-0.00878809
17487.1	-0.00859687
17503.3	-0.00840267
17519.6	-0.00820585
17535.8	-0.0080068
17552.1	-0.00780591
17568.3	-0.00760358
17584.6	-0.00740019
17600.8	-0.00719614
17617.1	-0.00699184
17633.4	-0.00678767
17649.6	-0.00658404
17665.9	-0.00638134
17682.1	-0.00617996
17698.4	-0.00598029
17714.6	-0.00578272
17730.9	-0.00558762
17747.1	-0.00539537
17763.4	-0.00520634
17779.6	-0.00502088
17795.9	-0.00483936
17812.1	-0.0046621
17828.4	-0.00448946
17844.6	-0.00432173
17860.9	-0.00415925
17877.1	-0.00400231
17893.4	-0.00385119
17909.6	-0.00370617
17925.9	-0.00356751
17942.1	-0.00343546
17958.4	-0.00331024
17974.6	-0.00319208
17990.9	-0.00308118
18007.1	-0.00297771
18023.4	-0.00288185
18039.7	-0.00279374
18055.9	-0.00271353
18072.2	-0.00264132
18088.4	-0.00257721
18104.7	-0.00252129
18120.9	-0.00247362
18137.2	-0.00243423
18153.4	-0.00240316
18169.7	-0.00238042
18185.9	-0.00236598
18202.2	-0.00235983
18218.4	-0.00236192
18234.7	-0.00237217
18250.9	-0.00239051
18267.2	-0.00241683
18283.4	-0.00245101
18299.7	-0.00249293
18315.9	-0.00254242
18332.2	-0.00259932
18348.4	-0.00266344
18364.7	-0.00273458
18380.9	-0.00281253
18397.2	-0.00289705
18413.4	-0.0029879
18429.7	-0.00308482
18446	-0.00318754
18462.2	-0.00329577
18478.5	-0.00340922
18494.7	-0.00352759
18511	-0.00365055
18527.2	-0.00377779
18543.5	-0.00390895
18559.7	-0.00404371
18576	-0.00418171
18592.2	-0.00432258
18608.5	-0.00446598
18624.7	-0.00461153
18641	-0.00475886
18657.2	-0.00490758
18673.5	-0.00505733
18689.7	-0.00520773
18706	-0.00535839
18722.2	-0.00550893
18738.5	-0.00565897
18754.7	-0.00580813
18771	-0.00595604
18787.2	-0.00610232
18803.5	-0.0062466
18819.7	-0.00638852
18836	-0.00652773
18852.3	-0.00666386
18868.5	-0.00679657
18884.8	-0.00692552
18901	-0.00705038
18917.3	-0.00717084
18933.5	-0.00728658
18949.8	-0.00739729
18966	-0.0075027
18982.3	-0.00760251
18998.5	-0.00769647
19014.8	-0.00778431
19031	-0.0078658
19047.3	-0.00794071
19063.5	-0.00800882
19079.8	-0.00806992
19096	-0.00812384
19112.3	-0.00817041
19128.5	-0.00820945
19144.8	-0.00824084
19161	-0.00826444
19177.3	-0.00828015
19193.5	-0.00828786
19209.8	-0.0082875
19226	-0.008279
19242.3	-0.00826231
19258.6	-0.0082374
19274.8	-0.00820425
19291.1	-0.00816285
19307.3	-0.00811323
19323.6	-0.0080554
19339.8	-0.00798941
19356.1	-0.00791531
19372.3	-0.00783318
19388.6	-0.00774311
19404.8	-0.00764518
19421.1	-0.00753952
19437.3	-0.00742625
19453.6	-0.0073055
19469.8	-0.00717743
19486.1	-0.0070422
19502.3	-0.00689999
19518.6	-0.00675096
19534.8	-0.00659533
19551.1	-0.00643329
19567.3	-0.00626505
19583.6	-0.00609085
19599.8	-0.00591089
19616.1	-0.00572543
19632.3	-0.00553471
19648.6	-0.00533897
19664.8	-0.00513847
19681.1	-0.00493348
19697.4	-0.00472424
19713.6	-0.00451105
19729.9	-0.00429415
19746.1	-0.00407384
19762.4	-0.00385038
19778.6	-0.00362405
19794.9	-0.00339514
19811.1	-0.00316391
19827.4	-0.00293065
19843.6	-0.00269563
19859.9	-0.00245912
19876.1	-0.00222141
19892.4	-0.00198276
19908.6	-0.00174343
19924.9	-0.0015037
19941.1	-0.00126382
19957.4	-0.00102404
19973.6	-0.00078462
19989.9	-0.000545798
