%%MatrixMarket matrix array complex general
6 6
1 0
0 0
0 0
0 0
0 0
0 0
0.707106781 0
-0.75 0
0 0
0.433012702 0
0 0
0 0
-0.144337567 0
-0.408248291 0
0.583333333 0
0.707106782 0
-0.433012702 0
0.186338998 0
-0.408248291 0
-0.721687837 0
0 0
-0.25 0
0 0
0 0
-0.125 0
-0.35355339 0
0.79385662 0
-0.612372436 0
-0.125 0
-0.161374306 0
0.161374306 0
0.456435465 0
0.465847496 0
0.158113883 0
0.290473751 0
0.0416666667 0
