%%MatrixMarket matrix array complex general
6 3
0.279350827 0
-0.395061728 0
0.483849826 0
0 0
0 0
-0.540960551 0
0.174594267 0
-0.24691358 0
0.302406141 0
-0.33126933 0
0.405720413 0
0.270480276 0
0.174594267 0
-0.24691358 0
0.302406141 0
0.33126933 0
-0.405720413 0
0.270480275 0
