0	0	353244
10.9753	0	376700
20.938	0	391970
30.8999	0	405438
40.8619	0	417498
50.809	0	426670
60.6497	0	433436
70.4588	0	439026
80.2663	0	444492
90.023	0	449182
100.644	0	453442
110.257	0	456696
120.831	0	460058
130.45	0	463286
140.106	0	466632
150.776	0	469926
160.418	0	472854
170.115	0	475506
180.952	0	478988
190.959	0	481598
200.094	0	483970
210.26	0	486796
220.426	0	489670
230.592	0	492580
240.759	0	495096
250.942	8.18545e-12	497800
260.124	1.63709e-11	500446
270.324	2.91038e-11	503246
280.521	5.18412e-11	506114
290.718	8.91305e-11	508622
300.915	1.50067e-10	511084
310.093	2.36469e-10	513860
320.29	3.83807e-10	517030
330.473	6.12999e-10	520450
340.65	9.61336e-10	524048
350.818	1.48339e-09	527692
360.984	2.25373e-09	531436
370.133	3.24235e-09	534884
380.298	4.79304e-09	538860
390.463	6.99401e-09	542636
400.629	1.00781e-08	545762
410.799	1.43536e-08	549438
420.973	2.02135e-08	553278
430.129	2.72539e-08	556642
440.302	3.76131e-08	560244
450.476	5.13937e-08	563860
460.65	6.956e-08	567776
470.823	9.32941e-08	571506
480.997	1.24037e-07	575602
490.153	1.59134e-07	578680
500.304	2.08175e-07	582342
510.376	2.69707e-07	585814
520.37	3.46245e-07	589270
530.34	4.41211e-07	593152
540.304	5.58472e-07	596836
550.268	7.02451e-07	600500
560.236	8.7825e-07	603956
570.209	1.09175e-06	607668
580.197	1.34982e-06	611520
590.189	1.6599e-06	615342
600.19	2.03071e-06	619564
610.193	2.47168e-06	623388
620.206	2.99413e-06	627256
630.247	3.61155e-06	631292
640.447	4.34864e-06	635138
650.724	5.21918e-06	639172
661.02	6.23798e-06	643312
670.261	7.29373e-06	647530
680.517	8.64143e-06	651988
690.773	1.01969e-05	656216
700.011	1.17969e-05	660310
710.282	1.38226e-05	664894
720.552	1.61378e-05	669434
730.823	1.8776e-05	673930
740.067	2.14566e-05	678192
750.323	2.48057e-05	682686
760.566	2.85823e-05	687100
770.808	3.283e-05	691656
780.025	3.70903e-05	695674
790.267	4.23498e-05	700202
800.509	4.8209e-05	704750
810.742	5.47159e-05	709586
820.953	6.19205e-05	714022
830.135	6.90643e-05	718468
840.335	7.7806e-05	723286
850.533	8.74633e-05	727958
860.73	9.81165e-05	732776
870.927	0.000109855	737394
880.104	0.000121421	741658
890.301	0.000135471	746132
900.498	0.00015089	751102
910.695	0.00016781	755924
920.88	0.000186357	760702
930.041	0.00020458	765608
940.215	0.000226704	770690
950.381	0.000251015	775762
960.547	0.000277823	780542
970.714	0.000307481	785902
980.881	0.000338044	790948
990.031	0.000365389	795338
1000.2	0.000396924	801088
1010.36	0.000431202	806164
1020.53	0.000469617	811440
1030.7	0.000512529	816742
1040.87	0.000560427	821652
1050.02	0.000608687	826206
1060.18	0.000668438	831514
1070.35	0.000730627	837134
1080.52	0.000799073	842370
1090.69	0.000879342	847868
1100.85	0.000925593	853324
1110	0.00099943	858046
1120.17	0.00111734	863358
1130.34	0.00126878	868714
1140.51	0.00152295	873800
1150.68	0.00191735	878568
1160.84	0.00247887	883726
1171.01	0.00327237	888642
1180.16	0.00399436	892596
1190.33	0.004812	897904
1200.5	0.00529802	902714
1210.67	0.00567603	907450
1220.84	0.0064145	912418
1231.01	0.00740528	917016
1240.16	0.00859651	921646
1250.33	0.00956748	926282
1260.5	0.0116079	931224
1270.67	0.0142123	935472
1280.84	0.0173938	939904
1291.01	0.0192024	944512
1300.16	0.0231783	948812
1310.33	0.0280689	953678
1320.5	0.0335836	958288
1330.66	0.0417173	963150
1340.83	0.0540444	967856
1351	0.0636767	972760
1360.15	0.0718434	977242
1370.28	0.0806861	982074
1380.31	0.0893515	986334
1390.29	0.0978944	990788
1400.26	0.106029	995218
1410.22	0.113567	999738
1420.18	0.120721	1004724
1430.15	0.127896	1009256
1440.11	0.135399	1014020
1450.08	0.143452	1018918
1460.04	0.152343	1024020
1470	0.162382	1028974
1480.96	0.175031	1034732
1490.93	0.190251	1039900
1500.89	0.22505	1045056
1510.85	0.264997	1049538
1520.81	0.325466	1054198
1530.78	0.430246	1058618
1540.74	0.553408	1061996
1550.7	0.697351	1065710
1560.66	0.870315	1069044
1570.62	1.06992	1072278
1580.59	1.29566	1075646
1590.55	1.54539	1079396
1600.51	1.80809	1082826
1610.47	2.07393	1086722
1620.44	2.33243	1090410
1630.4	2.57148	1093704
1640.36	2.78053	1097222
1650.32	2.95297	1101096
1660.28	3.08423	1104434
1670.25	3.17217	1107894
1680.21	3.21867	1111512
1690.17	3.22772	1115354
1700.13	3.20325	1118872
1710.1	3.15044	1122584
1720.06	3.07491	1126560
1730.02	2.98102	1129692
1740.98	2.86117	1133160
1750.94	2.74117	1136684
1760.9	2.61309	1139928
1770.87	2.47827	1143280
1780.83	2.33769	1146258
1790.79	2.19134	1149530
1800.75	2.03845	1152782
1810.72	1.87871	1156212
1820.68	1.71251	1159818
1830.64	1.54071	1163236
1840.6	1.36501	1167004
1850.57	1.1877	1170436
1860.53	1.01046	1174040
1870.53	0.833248	1177206
1880.54	0.656052	1180686
1890.7	0.473866	1184296
1900.92	0.284429	1187370
1910.14	0.105224	1190950
1920.5	-0.108832	1194178
1930.84	-0.33763	1197420
1940.12	-0.554944	1200270
1950.42	-0.806756	1203334
1960.72	-1.0644	1206704
1970	-1.29593	1209798
1980.31	-1.5464	1212750
1990.62	-1.78293	1216230
2000.93	-2	1219556
2010.21	-2.17517	1222362
2020.54	-2.34479	1225344
2030.85	-2.48554	1228568
2040.13	-2.58742	1231164
2050.44	-2.6737	1234474
2060.74	-2.73363	1237542
2070.05	-2.76758	1240556
2080.43	-2.78612	1243916
2090.88	-2.78771	1247352
2100.21	-2.77699	1250712
2110.62	-2.75268	1254218
2120.02	-2.71903	1257618
2130.48	-2.66646	1260816
2140.93	-2.59435	1264764
2150.33	-2.50951	1267998
2160.74	-2.39058	1271284
2170.03	-2.2615	1274414
2180.35	-2.09384	1277764
2190.66	-1.90529	1281254
2200.98	-1.70213	1285064
2210.29	-1.51333	1288036
2220.65	-1.30557	1291776
2230.97	-1.10923	1295072
2240.24	-0.947261	1298378
2250.56	-0.787287	1300584
2260.86	-0.650416	1303422
2270.15	-0.546407	1306044
2280.48	-0.450174	1308169
2290.82	-0.371085	1310607
2300.11	-0.311822	1312933
2310.42	-0.256119	1314503
2320.73	-0.208574	1317183
2330.02	-0.171312	1319653
2340.34	-0.134993	1322145
2350.68	-0.103295	1324311
2361.03	-0.075507	1326471
2370.35	-0.0530405	1329229
2380.7	-0.0297558	1331589
2391.01	-0.00728005	1333865
2400.29	0.012915	1335697
2410.64	0.036745	1337397
2420.02	0.0607454	1339103
2430.38	0.0901292	1340957
2440.68	0.121355	1343091
2450.99	0.1534	1344355
2460.26	0.181753	1346231
2470.6	0.211441	1348419
2480.94	0.238008	1350122
2490.25	0.258574	1352132
2500.69	0.277696	1354536
2510.04	0.291834	1357326
2520.35	0.298915	1359944
2530.66	0.302785	1363016
2541.01	0.304081	1366124
2550.29	0.304267	1368726
2560.59	0.30008	1371906
2570.9	0.293787	1375164
2580.2	0.28685	1378644
2590.53	0.2777	1382384
2600.85	0.266849	1385450
2610.16	0.255892	1388192
2620.49	0.242484	1392040
2630.82	0.227988	1395384
2640.1	0.214117	1398844
2650.46	0.197827	1402278
2660.8	0.180879	1405445
2670.12	0.165095	1408611
2680.48	0.147088	1412129
2690.83	0.128729	1416073
2700.12	0.111968	1418905
2710.5	0.0930275	1422211
2720.86	0.0740157	1425341
2730.15	0.0569936	1427663
2740.48	0.0382277	1430291
2750.81	0.0197074	1432561
2760.21	0.00321193	1435281
2770.59	-0.014535	1437999
2780.94	-0.0316255	1440123
2790.26	-0.0464988	1443179
2800.77	-0.0626461	1445115
2810.23	-0.0766173	1447677
2820.64	-0.0913862	1449981
2830.07	-0.104232	1452081
2840.55	-0.117932	1454693
2851.05	-0.131083	1457019
2860.51	-0.142458	1459163
2871.01	-0.154553	1461511
2880.49	-0.164973	1463649
2891.03	-0.175968	1466357
2900.43	-0.185197	1468469
2910.95	-0.194828	1470911
2920.41	-0.202796	1473557
2930.74	-0.210711	1476429
2940.1	-0.217272	1479491
2950.46	-0.224157	1482703
2960.83	-0.228999	1485861
2970.26	-0.231059	1489201
2980.62	-0.231968	1492391
2990.97	-0.23124	1496153
3000.25	-0.229435	1499284
3010.56	-0.226571	1502560
3020.86	-0.223003	1506040
3030.16	-0.219444	1509018
3040.48	-0.21528	1511864
3050.83	-0.210556	1513728
3060.19	-0.206672	1516288
3070.59	-0.202248	1519454
3080.95	-0.198077	1522282
3090.43	-0.1945	1524844
3101	-0.190843	1528017
3110.48	-0.187896	1530741
3120	-0.185304	1533349
3130.97	-0.182834	1536399
3141.01	-0.181058	1539415
3150.65	-0.17976	1542345
3160.75	-0.178763	1545540
3170.87	-0.17805	1548594
3180.99	-0.177532	1551548
3191.12	-0.177116	1554626
3200.12	-0.176764	1557424
3210.26	-0.176313	1560088
3220.4	-0.175743	1562950
3230.54	-0.174999	1565848
3240.63	-0.174039	1569058
3250.7	-0.172825	1572082
3260.76	-0.171329	1575289
3270.83	-0.169548	1577909
3280.9	-0.167496	1581079
3290.97	-0.165195	1584151
3301.04	-0.162669	1586676
3310.84	-0.160002	1589596
3320.3	-0.157232	1591846
3330.85	-0.153906	1594508
3340.6	-0.150576	1597041
3350.3	-0.146994	1599555
3361.04	-0.142675	1602755
3370.71	-0.138441	1605199
3380.38	-0.133839	1607966
3390.05	-0.12884	1610338
3400.8	-0.1228	1613422
3410.47	-0.116925	1616110
3420.18	-0.110629	1618452
3431.06	-0.103135	1621973
3440.91	-0.0959923	1624843
3450.73	-0.0886016	1628173
3460.51	-0.0810339	1631241
3470.11	-0.0734817	1633501
3480.67	-0.0651331	1636571
3490.14	-0.0576823	1639106
3500.66	-0.0495363	1642040
3510.11	-0.0424112	1645359
3520.57	-0.0347945	1648431
3530.97	-0.027567	1651923
3540.33	-0.0213872	1654738
3550.73	-0.0149039	1658126
3560.08	-0.00942127	1661118
3570.48	-0.00371693	1664293
3580.97	0.00164084	1667545
3590.55	0.00620399	1670476
3600.13	0.0104823	1673398
3610.76	0.0149252	1677004
3620.33	0.0186827	1680012
3630.96	0.0226261	1683060
3640.53	0.0259964	1685923
3650.09	0.0292219	1688443
3660.72	0.0326566	1691857
3670.32	0.0356312	1695075
3681.01	0.0388042	1698030
3690.63	0.0415195	1701006
3700.25	0.044082	1703656
3710.96	0.0467242	1706598
3720.62	0.0488866	1709572
3730.31	0.0508164	1712174
3741.03	0.0526359	1715794
3750.56	0.0539098	1718243
3761.04	0.05477	1721027
3770.48	0.0553686	1724017
3781	0.0562988	1727313
3790.38	0.0558538	1730233
3800.82	0.0549034	1733444
3810.27	0.0537775	1736386
3820.78	0.0523296	1740037
3830.24	0.050709	1743253
3840.77	0.0485164	1746786
3850.29	0.046246	1750289
3860.86	0.0434261	1753625
3870.37	0.0406302	1756653
3880.95	0.0372658	1760139
3890.44	0.0340514	1763024
3900.98	0.0303398	1766417
3910.42	0.0270146	1769021
3920.8	0.0232149	1771866
3930.14	0.0195281	1774572
3940.52	0.0175921	1777408
3950.89	0.0134351	1780279
3960.23	0.00937718	1782592
3970.62	0.00498551	1785242
3981.04	0.000658071	1788026
3990.44	-0.00309815	1790250
4000.87	-0.00712536	1792027
4010.32	-0.0106087	1793768
4020.81	-0.0143204	1795872
4030.25	-0.0175322	1798412
4040.73	-0.0209975	1800942
4050.17	-0.0240387	1803364
4060.66	-0.0272794	1806757
4070.1	-0.030008	1809463
4080.64	-0.0328061	1812024
4090.14	-0.0351249	1814632
4100.7	-0.0375322	1817862
4110.17	-0.0395788	1820561
4120.62	-0.0417145	1823004
4130.02	-0.0434905	1825379
4140.47	-0.045253	1827792
4150.92	-0.0467691	1829850
4160.31	-0.047931	1831862
4170.74	-0.0490269	1834560
4180.11	-0.0498547	1836872
4190.47	-0.0506126	1839775
4200.91	-0.0511739	1842937
4210.35	-0.0514502	1845394
4220.88	-0.0515208	1848567
4230.33	-0.0514153	1851163
4240.79	-0.0511455	1854279
4250.21	-0.0507789	1856819
4260.67	-0.0502407	1859725
4270.09	-0.0496322	1862179
4280.55	-0.0488255	1865021
4290.98	-0.0479038	1868438
4300.32	-0.0469977	1871121
4310.7	-0.0459195	1874130
4320.03	-0.0448969	1877356
4330.41	-0.0437083	1880711
4340.78	-0.0424606	1883703
4350.14	-0.0412756	1886672
4360.54	-0.0398719	1890121
4370.96	-0.0383602	1893883
4380.33	-0.0368974	1897640
4390.74	-0.0351085	1901600
4400.13	-0.0332649	1904711
4410.54	-0.0308798	1908899
4420.91	-0.0281199	1912326
4430.19	-0.0253358	1915208
4440.5	-0.0219374	1918643
4450.81	-0.0182547	1921819
4460.09	-0.0147087	1924456
4470.4	-0.0104957	1927455
4480.72	-0.00599927	1930726
4490.04	-0.00161606	1933941
4500.41	0.00373587	1937589
4510.78	0.011398	1940837
4520.1	0.0182461	1943822
4530.47	0.0251593	1947295
4540.8	0.0325668	1950124
4550.09	0.0394608	1952970
4560.4	0.0468831	1956064
4570.71	0.0546324	1958719
4581.03	0.0627288	1961334
4590.32	0.0702427	1964033
4600.68	0.0787547	1966845
4610.06	0.0865693	1969598
4620.49	0.0954395	1971280
4630.93	0.104567	1973243
4640.36	0.112955	1975961
4650.78	0.122386	1978409
4660.16	0.130964	1980207
4670.58	0.140516	1982644
4680.99	0.15001	1985444
4690.35	0.158479	1987183
4700.76	0.167777	1989911
4710.12	0.176018	1992106
4720.52	0.184982	1994882
4730.93	0.193665	1997520
4740.29	0.201164	2000008
4750.71	0.209094	2002698
4760.1	0.21582	2004938
4770.52	0.222778	2008029
4780.86	0.229113	2009996
4790.18	0.234309	2012357
4800.68	0.239535	2014628
4810.17	0.243667	2016867
4820.55	0.247507	2020019
4830.91	0.250617	2022503
4840.24	0.252878	2024753
4850.71	0.253878	2027806
4860.11	0.254686	2030009
4870.56	0.254962	2032336
4880.91	0.254437	2034717
4890.18	0.253368	2036339
4900.48	0.251659	2038529
4910.83	0.249301	2040553
4920.12	0.246597	2042840
4930.6	0.242918	2045443
4940.95	0.238642	2048388
4950.25	0.234259	2051065
4960.66	0.228748	2054192
4970.02	0.223253	2057102
4980.39	0.216575	2060333
4990.95	0.20913	2063398
5000.5	0.20185	2066227
5010.05	0.194068	2068781
5020.58	0.184932	2072060
5031.01	0.175357	2074625
5040.49	0.166228	2077066
5051.02	0.155656	2080269
5060.52	0.14577	2082912
5070.87	0.134632	2085569
5080.27	0.124184	2088063
5091.08	0.111788	2090486
5100.8	0.100317	2093268
5110.53	0.08858	2095758
5120.27	0.0766062	2098336
5130.05	0.0643837	2101297
5140.93	0.0506136	2104485
5150.73	0.0380799	2107510
5160.54	0.0254673	2110011
5170.41	0.0127893	2113083
5180.38	6.49384e-05	2115919
5190.39	-0.0125824	2118742
5200.43	-0.0250626	2121715
5210.47	-0.037276	2124598
5220.51	-0.0491552	2127612
5230.55	-0.06064	2130382
5240.59	-0.071675	2132842
5250.39	-0.0819658	2134854
5260.98	-0.0924997	2137437
5270.38	-0.101316	2139135
5280.9	-0.110547	2141566
5290.38	-0.118247	2143402
5300.78	-0.125984	2145760
5310.05	-0.132228	2147479
5320.35	-0.138395	2149515
5330.71	-0.143736	2152109
5340.09	-0.147803	2154480
5350.45	-0.151433	2156602
5360.8	-0.1539	2158801
5370.17	-0.15411	2161315
5380.59	-0.153995	2164269
5391.05	-0.15403	2166491
5400.48	-0.153527	2168693
5410.97	-0.152087	2171224
5420.42	-0.150305	2173269
5430.82	-0.147744	2175252
5440.19	-0.144877	2177946
5450.59	-0.141158	2180483
5460.98	-0.136938	2182688
5470.29	-0.132722	2184864
5480.62	-0.127546	2186965
5490.08	-0.122352	2189472
5500.93	-0.115956	2191536
5510.42	-0.109115	2193787
5520.84	-0.0967909	2196947
5530.22	-0.0867631	2198843
5540.74	-0.0764925	2201402
5550.43	-0.0668	2203029
5560.71	-0.055919	2205604
5570.1	-0.0457419	2207535
5580.54	-0.0342276	2209597
5590.76	-0.0226591	2211792
5601.07	-0.0106638	2213136
5610.24	0.000189684	2214769
5620.56	0.0125181	2216251
5630.47	0.0243578	2218136
5640.93	0.0366491	2220180
5650.71	0.0477192	2222054
5660.63	0.0583777	2223371
5670.95	0.0687459	2225427
5680.12	0.0772925	2227139
5690.43	0.0861236	2228823
5700.75	0.094104	2231102
5711.05	0.101188	2233143
5720.18	0.106673	2234893
5730.5	0.111928	2236923
5740.76	0.116152	2239019
5750.44	0.118981	2240936
5760.01	0.121067	2243175
5770.59	0.122433	2244539
5780.14	0.12261	2245753
5790.84	0.122785	2247760
5800.33	0.121991	2249541
5810.82	0.120407	2251473
5820.31	0.118655	2253361
5830.73	0.116289	2254476
5840.11	0.113797	2255909
5850.42	0.110762	2257643
5860.74	0.107373	2259876
5870.15	0.105656	2261903
5880.61	0.102774	2263808
5890.02	0.0988936	2265591
5900.48	0.0942649	2267357
5910.92	0.0895202	2269652
5920.27	0.0852171	2272090
5930.6	0.0802227	2274641
5940.93	0.0749365	2277163
5950.28	0.0699826	2278930
5960.79	0.064278	2280702
5970.17	0.0591459	2282691
5980.64	0.0534703	2284858
5990.04	0.0484852	2286642
6000.48	0.04313	2288679
6010.93	0.0379995	2290628
6020.37	0.0335579	2292503
6030.95	0.0288069	2294923
6040.55	0.0247061	2297625
6050.03	0.0208583	2299709
6060.59	0.0168307	2301963
6070.1	0.0134412	2304098
6080.67	0.00994958	2307261
6090.32	0.00702622	2309961
6101	0.00409154	2313134
6110.57	0.00173791	2315414
6120.41	-0.000397087	2318617
6131.03	-0.00234282	2321466
6140.64	-0.00376001	2324332
6150.47	-0.00488544	2328013
6160.44	-0.00570631	2330857
6170.09	-0.00615819	2333965
6180.81	-0.00633373	2337878
6190.52	-0.00619375	2341047
6200.25	-0.00578475	2344486
6211.01	-0.0050511	2348623
6220.91	-0.00412755	2351840
6230.59	-0.0030187	2354549
6240.16	-0.00173025	2357277
6250.88	-6.59002e-05	2360297
6260.73	0.00165493	2362532
6270.67	0.00356594	2365717
6280.64	0.00565392	2368652
6290.41	0.00786187	2371439
6300.06	0.0102002	2373894
6310.71	0.0129572	2376511
6320.4	0.0156243	2379253
6330.93	0.0186874	2382189
6340.33	0.0215638	2384694
6350.76	0.0249034	2386729
6360.23	0.0280601	2388538
6370.72	0.0316815	2390154
6380.15	0.035029	2392388
6390.57	0.0388143	2394870
6400.99	0.0426621	2397296
6410.38	0.0461578	2399823
6420.85	0.0500628	2402665
6430.25	0.0535557	2405917
6440.75	0.0574196	2409277
6450.2	0.0608342	2412659
6460.64	0.0645227	2416609
6470.04	0.0677452	2419719
6480.49	0.0712032	2423222
6491	0.0745221	2426503
6500.41	0.0773527	2429557
6510.83	0.0803114	2433088
6520.12	0.0827867	2436622
6530.43	0.0853457	2440282
6540.74	0.0877023	2443992
6550.11	0.0896622	2447035
6560.65	0.0916576	2450476
6570.03	0.093241	2453815
6580.4	0.0947775	2456635
6590.8	0.0960931	2460826
6600.34	0.0970967	2464284
6610.95	0.0979827	2467366
6620.79	0.0985836	2471134
6630.38	0.0989607	2474904
6640.96	0.0991348	2479392
6650.53	0.0990695	2482616
6660.99	0.0987519	2486554
6670.53	0.0982349	2489589
6680.09	0.0974956	2492921
6690.65	0.0964406	2495980
6700.12	0.0953286	2499371
6710.63	0.0937002	2501947
6720.04	0.0921345	2504939
6730.49	0.0900624	2507300
6740.92	0.0876688	2510588
6750.3	0.0853262	2512297
6760.79	0.0825313	2515506
6770.37	0.0798015	2517473
6780.99	0.0765725	2520709
6790.56	0.0734726	2523128
6800.05	0.0702318	2526136
6810.54	0.0664526	2528967
6821	0.0624806	2531526
6830.4	0.0587442	2534298
6840.89	0.0543144	2537534
6850.3	0.0501243	2540415
6860.76	0.0453867	2543285
6870.21	0.041055	2546317
6880.75	0.036086	2550218
6890.21	0.0313986	2553421
6900.68	0.0259136	2557332
6910.1	0.0208067	2560297
6920.6	0.0150823	2563469
6930.07	0.0099275	2566452
6940.61	0.0041926	2570641
6950.09	-0.00132707	2574147
6960.61	-0.0101541	2577620
6970.05	-0.0179168	2581382
6980.52	-0.0252571	2585012
6990.99	-0.032223	2588490
7000.44	-0.0383094	2591484
7010.96	-0.0455856	2595311
7020.44	-0.0516034	2597886
7030.95	-0.0580248	2600923
7040.39	-0.0637364	2604083
7050.08	-0.0695422	2607227
7060.79	-0.0759344	2610401
7070.29	-0.081567	2612526
7080.84	-0.0877034	2615814
7090.34	-0.0930761	2618840
7100.89	-0.098856	2622544
7110.31	-0.103844	2625994
7120.82	-0.109198	2628855
7130.6	-0.113984	2632183
7140.29	-0.11853	2635206
7150.52	-0.123097	2639926
7160.03	-0.127107	2643559
7170.52	-0.131243	2647214
7181.01	-0.135066	2650751
7190.48	-0.138251	2653445
7200.01	-0.141866	2656567
7210.63	-0.144724	2659240
7220.22	-0.147103	2661974
7230.2	-0.149148	2664519
7240.19	-0.150859	2668666
7250.12	-0.152294	2672103
7260.23	-0.153012	2675497
7270.37	-0.154064	2678910
7280.51	-0.154612	2681685
7290.65	-0.155474	2684356
7300.79	-0.155624	2687136
7310.93	-0.155325	2689410
7321.07	-0.154828	2693162
7330.08	-0.154294	2694816
7340.18	-0.153571	2698135
7350.06	-0.152674	2700404
7361.1	-0.151447	2702818
7370.12	-0.150308	2705200
7380.06	-0.148938	2707602
7390.1	-0.147449	2711065
7400.12	-0.145864	2713436
7410.16	-0.14419	2716244
7420.23	-0.142431	2718915
7430.35	-0.140601	2720935
7440.39	-0.138745	2723583
7450.45	-0.136861	2726102
7460.3	-0.135006	2729042
7470.96	-0.13301	2731699
7480.53	-0.131244	2734448
7490.1	-0.129517	2736710
7500.46	-0.127704	2739495
7510.8	-0.125964	2742400
7520.08	-0.124462	2745717
7530.4	-0.122866	2748864
7541.02	-0.121302	2751766
7550.86	-0.119937	2754298
7560.25	-0.118718	2756637
7570.66	-0.117479	2759519
7580.52	-0.116397	2762481
7590.43	-0.115398	2764845
7600.34	-0.114429	2767569
7610.25	-0.113505	2770259
7620.16	-0.112668	2773171
7630.07	-0.11193	2775349
7641.08	-0.111209	2777480
7650.99	-0.110651	2780068
7660.9	-0.110183	2782144
7670.81	-0.109807	2784223
7680.72	-0.109521	2786276
7690.63	-0.109321	2787314
7700.55	-0.109209	2789080
7710.6	-0.109186	2790112
7720.7	-0.109253	2791720
7730.82	-0.109408	2793827
7740.93	-0.109646	2795334
7751.05	-0.109963	2797531
7760.04	-0.11031	2799312
7770.15	-0.110774	2802092
7780.28	-0.111316	2804375
7790.41	-0.111936	2805986
7800.53	-0.112631	2808107
7810.64	-0.113398	2809612
7820.76	-0.114234	2811359
7830.87	-0.115133	2813173
7840.99	-0.116092	2815623
7851.11	-0.117104	2817710
7860.1	-0.118044	2819217
7870.04	-0.119123	2821601
7881.06	-0.120364	2824056
7890.97	-0.121515	2826514
7900.88	-0.122694	2829106
7910.78	-0.123893	2831693
7920.69	-0.125105	2834868
7930.59	-0.126323	2837665
7940.49	-0.127539	2841145
7950.4	-0.128747	2844335
7960.3	-0.129939	2847290
7970.2	-0.131108	2850303
7980.11	-0.132247	2853344
7990.01	-0.13335	2856740
8001.02	-0.134525	2860103
8010.92	-0.135531	2862725
8020.82	-0.136481	2864849
8030.73	-0.137369	2867520
8040.63	-0.138192	2869867
8050.54	-0.138943	2872699
8060.44	-0.139619	2875541
8070.34	-0.140215	2878169
8080.25	-0.140733	2880296
8090.15	-0.141155	2882473
8100.06	-0.14137	2885081
8111.02	-0.142072	2887373
8120.55	-0.14221	2889545
8131.03	-0.142229	2892313
8140.38	-0.142127	2894768
8150.8	-0.141849	2896645
8160.21	-0.141468	2898909
8170.52	-0.140944	2901060
8180.82	-0.140343	2902947
8190.18	-0.139735	2905246
8200.9	-0.138963	2907572
8210.27	-0.138218	2910420
8220.59	-0.137327	2912774
8230.89	-0.136371	2914979
8240.17	-0.135454	2916751
8250.69	-0.134348	2919030
8260.27	-0.133281	2921034
8270.94	-0.132026	2923409
8280.45	-0.130855	2925390
8290.13	-0.129624	2927198
8300.94	-0.128208	2930020
8310.62	-0.126902	2932165
8320.13	-0.125588	2934897
8330.62	-0.124107	2937799
8340.04	-0.122736	2940052
8350.83	-0.121123	2942929
8360.21	-0.119693	2945119
8370.65	-0.118012	2947704
8380.09	-0.116389	2950013
8390.64	-0.114502	2951960
8400.25	-0.112753	2953799
8410.79	-0.110804	2955407
8420.24	-0.10902	2956760
8430.74	-0.106992	2958088
8440.21	-0.105122	2959627
8450.74	-0.102999	2961196
8460.19	-0.101055	2963376
8470.69	-0.0988475	2964747
8480.09	-0.0968233	2966529
8490.51	-0.0945199	2968256
8500.04	-0.0923645	2970287
8510.51	-0.089961	2972795
8520.95	-0.0875742	2974092
8530.36	-0.0854895	2976072
8540.81	-0.0835228	2977076
8550.21	-0.0830167	2978588
8560.68	-0.0797298	2980596
8570.2	-0.0762767	2981996
8580.86	-0.0728082	2983569
8590.58	-0.0690602	2985016
8600.03	-0.06521	2986333
8610.48	-0.0612636	2988217
8620.02	-0.0577985	2989591
8630.62	-0.0539495	2991010
8640.07	-0.0504494	2993474
8650.53	-0.0463863	2995134
8660.98	-0.04212	2996314
8670.39	-0.0381853	2997264
8680.88	-0.033783	2998549
8690.33	-0.0298193	2999909
8700.91	-0.0253409	3001645
8710.36	-0.0212616	3003220
8720.83	-0.0166124	3004916
8730.27	-0.0123178	3006135
8740.75	-0.0074831	3008019
8750.18	-0.00310918	3009390
8760.76	0.00180218	3011349
8770.39	0.00628391	3012470
8780.92	0.0112148	3014098
8790.4	0.0156855	3015361
8800.13	0.0202855	3016002
8810.25	0.0250671	3016621
8820.46	0.0298477	3017088
8830.67	0.0345719	3017918
8840.88	0.0392365	3018103
8851.09	0.0438441	3018664
8860.16	0.0478913	3020110
8870.08	0.052259	3021062
8880.69	0.0568437	3022971
8890.23	0.0608772	3023852
8900.79	0.0652409	3025582
8910.07	0.0689769	3026167
8920.4	0.0730337	3027334
8930.71	0.0769657	3029146
8940.07	0.0804392	3030098
8950.57	0.0842109	3030685
8960.03	0.0874975	3031805
8970.5	0.0909993	3032946
8980.95	0.0943602	3033809
8990.39	0.097272	3034399
9000.99	0.100406	3035715
9010.49	0.103089	3036306
9020.98	0.105917	3036811
9030.5	0.108361	3037068
9040.98	0.110915	3037172
9050.27	0.113062	3038133
9060.65	0.115335	3038698
9070.04	0.117277	3039881
9080.56	0.119331	3040607
9090.86	0.121211	3041713
9100.15	0.122832	3042775
9110.62	0.124536	3043778
9120.1	0.125913	3045391
9130.65	0.127242	3047354
9140.24	0.128442	3049791
9150.56	0.129599	3051142
9160.88	0.130599	3053634
9170.21	0.131378	3056040
9180.58	0.132131	3059092
9190.06	0.132735	3061873
9200.68	0.133311	3065328
9210.14	0.133726	3068408
9220.5	0.134071	3071405
9230.92	0.134312	3074487
9240.31	0.134447	3077696
9250.75	0.13452	3080636
9260.11	0.134529	3083585
9270.52	0.134473	3086140
9280.98	0.134313	3088503
9290.36	0.134045	3090608
9300.86	0.133598	3093433
9310.28	0.133086	3096092
9320.66	0.132433	3097890
9330	0.131785	3099743
9340.38	0.131007	3101414
9350.79	0.130168	3103248
9360.18	0.129359	3105082
9370.61	0.128401	3106982
9380.98	0.127387	3109086
9390.43	0.126411	3110830
9400.87	0.125274	3112707
9410.26	0.124197	3114788
9420.7	0.122941	3116356
9430.1	0.121756	3117594
9440.56	0.120378	3120410
9450.98	0.118944	3123259
9460.37	0.1176	3125819
9470.78	0.116054	3127738
9480.17	0.11461	3129755
9490.65	0.112943	3131400
9500.12	0.111387	3133057
9510.6	0.10961	3134628
9520.03	0.107963	3135445
9530.5	0.106079	3136790
9540.97	0.104139	3138632
9550.34	0.102353	3140544
9560.76	0.100318	3142873
9570.14	0.0984398	3143613
9580.64	0.0962868	3144355
9590.07	0.0943112	3144286
9600.43	0.0920913	3144978
9610.82	0.0898174	3147397
9620.21	0.0877203	3147924
9630.63	0.0853501	3148819
9640.04	0.0831736	3149350
9650.53	0.0807048	3150542
9661	0.0782018	3151145
9670.44	0.075913	3151653
9680.9	0.0733442	3153055
9690.29	0.0710116	3153200
9700.68	0.0683997	3154601
9710.04	0.0660257	3154963
9720.51	0.0633493	3155157
9730.03	0.0608949	3156054
9740.6	0.058156	3157739
9750.04	0.0556951	3158410
9760.51	0.0529571	3160495
9770.95	0.0502222	3161483
9780.22	0.0477893	3162007
9790.52	0.0450875	3163110
9800.84	0.0423861	3163812
9810.25	0.0399332	3165722
9820.79	0.0372018	3166929
9830.16	0.0347924	3168239
9840.63	0.032125	3168835
9850.18	0.0297203	3169945
9860.61	0.0271273	3170669
9870.92	0.0246069	3170431
9880.2	0.022377	3169635
9890.51	0.0199451	3169463
9901.02	0.0175251	3169215
9910.41	0.0154159	3169237
9921.06	0.0130932	3168876
9930.57	0.0110817	3169652
9940.95	0.00896002	3170762
9950.24	0.00712676	3171642
9960.62	0.00515564	3172064
9970.95	0.00327435	3172730
9980.22	0.00165844	3174525
9990.53	-5.35324e-05	3175095
10000.9	-0.00167919	3176741
10010.2	-0.00306093	3178589
10020.5	-0.00450022	3180365
10030.8	-0.00583346	3182298
10040.1	-0.00694389	3184067
10050.5	-0.00807634	3185191
10060.8	-0.00910583	3186457
10070.3	-0.0099517	3186945
10080.8	-0.0107843	3189100
10090.2	-0.0114396	3190793
10100.7	-0.0120684	3193304
10111	-0.012592	3195827
10120.3	-0.0134161	3197953
10130.6	-0.0137235	3200482
10141	-0.0139367	3202469
10150.4	-0.0140417	3205092
10160.9	-0.0141325	3208128
10170.3	-0.0141604	3209848
10180.8	-0.0141118	3211019
10190.3	-0.0139958	3212244
10200.7	-0.0137937	3215279
10210	-0.0135609	3216993
10220.3	-0.0132378	3219193
10230.6	-0.0128143	3221980
10240.9	-0.0123008	3223874
10250.2	-0.0117707	3226518
10260.6	-0.0111105	3228399
10271	-0.0103715	3230311
10280.4	-0.00964191	3233915
10290.8	-0.0087634	3236943
10300.2	-0.00791377	3238560
10310.6	-0.0069049	3240028
10320.1	-0.00593464	3241261
10330.6	-0.00479142	3243299
10340	-0.0037115	3245023
10350.5	-0.00245696	3247144
10360	-0.00127968	3249004
10370.6	7.64055e-05	3251004
10380	0.00132137	3253362
10390.5	0.00273827	3255652
10401	0.00417651	3257883
10410.5	0.00550171	3260386
10420.3	0.00686344	3263386
10430.8	0.0083339	3265927
10440.3	0.0096535	3267697
10450.7	0.0111017	3269779
10460	0.0123756	3271543
10470.5	0.0137927	3272897
10481	0.0151862	3274936
10490.3	0.0164111	3275763
10500.7	0.0177289	3277047
10511	0.0190115	3279159
10520.2	0.020134	3279877
10530.6	0.0213449	3281173
10540.9	0.0225106	3282841
10550.2	0.0235163	3284334
10560.5	0.0245844	3286645
10570.9	0.0256087	3288073
10580.6	0.0265051	3289655
10590.2	0.027349	3291048
10600.8	0.0282211	3292254
10610.4	0.0289559	3294524
10621	0.0297218	3296659
10630.3	0.0303509	3298814
10640.6	0.0310064	3301127
10650.9	0.0316177	3302665
10660.2	0.0321271	3304261
10670.5	0.0326443	3305508
10680.8	0.0331117	3306294
10690.1	0.0334949	3306814
10700.7	0.0338966	3306434
10710.1	0.0342258	3306973
10720.8	0.0345768	3308431
10730.3	0.0348698	3309840
10740.7	0.0351776	3312110
10750.1	0.0354396	3313491
10760.4	0.0357198	3314913
10770.7	0.0359876	3316012
10781	0.0362397	3317108
10790.3	0.0364535	3319000
10800.7	0.0366743	3321630
10810	0.0368579	3323561
10820.3	0.0370444	3323736
10830.7	0.0372123	3325498
10840	0.037347	3327036
10850.4	0.0374768	3327855
10860.7	0.037583	3328369
10870.1	0.0376555	3328445
10880.7	0.0377059	3329244
10890.4	0.0377189	3330269
10900	0.0376961	3331170
10910.3	0.0376277	3331744
10920.7	0.0375097	3333559
10930	0.0373577	3334238
10940.4	0.0371349	3334567
10950.8	0.0368512	3336103
10960.3	0.0365377	3338020
10970.3	0.0361485	3340038
10980.8	0.0356707	3342310
10990.2	0.0351834	3344736
11000.7	0.0345752	3346309
11011	0.0338974	3347767
11020.3	0.0332268	3348758
11030.6	0.0324107	3349934
11041	0.0315195	3351212
11050.3	0.0306529	3352668
11060.7	0.029609	3353590
11070.1	0.0286016	3354174
11080.6	0.0274207	3355229
11090.4	0.0262443	3357052
11100.9	0.0249304	3359294
11110.3	0.0236946	3361089
11120.8	0.0222676	3362891
11130.2	0.0209344	3365140
11140.8	0.0193964	3366499
11150.4	0.0179723	3367208
11161.1	0.0163382	3367429
11170.7	0.0148416	3367719
11180.3	0.0133183	3368793
11191	0.0115979	3370186
11200.6	0.0100471	3372171
11210.1	0.00848981	3373898
11220.8	0.00674501	3375366
11230.2	0.00518609	3376435
11240.8	0.00345188	3378279
11250.2	0.00189995	3379142
11260.7	0.000197135	3379755
11270	-0.00132704	3380179
11280.5	-0.0030103	3379417
11291	-0.00469273	3378817
11300.5	-0.00619289	3377342
11311	-0.0078392	3376052
11320.5	-0.00930054	3375744
11330.4	-0.010798	3375477
11340	-0.0122312	3375085
11350.8	-0.0138041	3375609
11360.5	-0.0151955	3375506
11370.6	-0.0166013	3375792
11380.7	-0.0179702	3376436
11390.8	-0.0193002	3377423
11400.6	-0.0205561	3378412
11410.3	-0.0217731	3378689
11420.1	-0.0229631	3379432
11430.7	-0.0242093	3380622
11440.2	-0.0252895	3380519
11450.7	-0.0264571	3381013
11460.3	-0.0274828	3380988
11470.9	-0.0285947	3381156
11480.6	-0.0295725	3381617
11490.2	-0.0305165	3382717
11500.8	-0.0315162	3383203
11510.4	-0.0323972	3383693
11520.1	-0.0332532	3384891
11530.9	-0.034169	3386379
11540.6	-0.0349614	3388204
11550.2	-0.0357237	3389887
11561	-0.0365354	3392119
11570.7	-0.0372345	3393579
11580.4	-0.0379044	3394695
11590.1	-0.0385457	3395383
11600.8	-0.0392254	3395721
11610.5	-0.0398102	3395789
11620.2	-0.0403691	3395824
11630	-0.0409049	3395695
11640.9	-0.0414725	3394351
11650.7	-0.0419588	3392997
11660.5	-0.0424231	3391999
11670.3	-0.0428656	3390979
11680.1	-0.0432869	3390391
11691	-0.043731	3389991
11700.8	-0.0441096	3389722
11710.6	-0.0444693	3389412
11720.5	-0.0448093	3389692
11730.3	-0.0451294	3390044
11740.2	-0.0454289	3391323
11750.1	-0.0457071	3392482
11761	-0.045994	3393780
11770.9	-0.0462419	3395506
11780.8	-0.0463936	3397187
11790.7	-0.0467155	3399862
11800.7	-0.0469135	3402103
11810.8	-0.0468733	3403614
11820.8	-0.0468128	3405836
11830.8	-0.0467687	3407488
11840.9	-0.0466501	3408764
11850.9	-0.046486	3410228
11861	-0.0462878	3411375
11871	-0.0460562	3412359
11881.1	-0.0457866	3413353
11890.1	-0.0455112	3414198
11900.2	-0.045158	3414680
11910.4	-0.044757	3414847
11920.5	-0.0443083	3414741
11930.7	-0.0438126	3415166
11940.8	-0.0434019	3415520
11951	-0.0436062	3416131
11961.1	-0.0432742	3416839
11970.6	-0.0427091	3417344
11981	-0.0419455	3417949
11990.5	-0.041216	3418002
12000.3	-0.0404556	3418659
12011	-0.0395564	3419012
12020.6	-0.0386895	3419342
12030.3	-0.0377388	3419010
12040.2	-0.0366369	3419280
12050.2	-0.0354447	3419734
12060.2	-0.0341975	3419424
12070.1	-0.0329306	3420864
12080.4	-0.0315628	3420732
12091.1	-0.0301054	3421637
12100	-0.028853	3421507
12110	-0.027401	3422212
12120	-0.0259039	3422670
12130	-0.0243642	3423389
12140.7	-0.0226858	3425040
12150.1	-0.0211729	3426392
12160.8	-0.0194116	3427783
12170.8	-0.0177428	3429200
12180.8	-0.0160575	3430390
12190.8	-0.0143633	3431201
12200.6	-0.0126986	3431934
12210.5	-0.0110026	3432343
12220.2	-0.00931568	3433202
12230.7	-0.00746005	3433265
12240.2	-0.00582397	3432903
12250.7	-0.0040624	3433010
12260.4	-0.00248897	3433851
12270.5	-0.000885994	3434039
12280.1	0.000629778	3434368
12290.8	0.00229167	3434379
12300.7	0.00378788	3434916
12310.2	0.00517966	3435318
12320.3	0.00660351	3434958
12330.3	0.00794625	3436024
12340.9	0.00929756	3435954
12350.7	0.0104729	3436867
12360.5	0.0115937	3437286
12370.5	0.0126788	3436893
12380.6	0.0137077	3436860
12390.5	0.0146464	3436772
12400.5	0.0155188	3436347
12410.5	0.0163205	3436554
12420.2	0.0170257	3437041
12430.8	0.0176949	3437655
12440.3	0.0182125	3438255
12450.9	0.0186907	3439722
12460.4	0.0190348	3440894
12470.9	0.0193235	3441661
12480.6	0.0195016	3443549
12490.3	0.019595	3444819
12500	0.0196026	3446966
12510.7	0.0195117	3448806
12520.4	0.0193381	3450180
12530.3	0.0190751	3452248
12540.1	0.0187237	3454243
12551	0.0182297	3456783
12560.8	0.0176923	3459152
12570.6	0.0170673	3461547
12580.4	0.0163556	3464263
12590.2	0.0155581	3466688
12600	0.0146757	3468463
12610.9	0.0136024	3470630
12620.8	0.0125669	3472023
12630.6	0.0114545	3472644
12640.3	0.0102658	3473995
12650.8	0.00888299	3475998
12660.2	0.00756394	3477644
12670.7	0.00721964	3479199
12680.2	0.00588339	3480921
12691.1	0.0040782	3482042
12700.9	0.00221644	3483426
12710.7	0.000103683	3484597
12720.5	-0.00204331	3485334
12730.3	-0.00416454	3486383
12740.1	-0.00628814	3486659
12750	-0.00851271	3487144
12761.1	-0.0111761	3487218
12771	-0.0136588	3487212
12781	-0.0161422	3487930
12791	-0.0186113	3487824
12801	-0.0210765	3487495
12811	-0.0235682	3487037
12820.7	-0.0260298	3486653
12830.4	-0.0285165	3486578
12840.4	-0.0310774	3486439
12850.3	-0.0336185	3486532
12860.1	-0.0361377	3487135
12871	-0.0389132	3487713
12880.4	-0.0412901	3488934
12890.1	-0.0437183	3490015
12900.7	-0.0463261	3490901
12910.1	-0.0486223	3491746
12920.9	-0.051196	3493290
12930.6	-0.0534857	3494363
12940.4	-0.0557236	3495808
12950.2	-0.0579046	3497800
12961	-0.0602553	3499389
12970.8	-0.0623008	3501146
12980.6	-0.0642761	3502757
12990.3	-0.0661778	3504343
13000.1	-0.0680034	3505925
13010.9	-0.0699398	3508164
13020.7	-0.071598	3510169
13030.5	-0.0731747	3512201
13040.3	-0.0746688	3513717
13050	-0.0760798	3515086
13060.9	-0.0775498	3516277
13070.7	-0.0787851	3517033
13080.4	-0.0799389	3517153
13090.2	-0.0810134	3517214
13101	-0.0821174	3516942
13110.8	-0.0830302	3516495
13120.4	-0.0838575	3516402
13131	-0.0846965	3515495
13140.6	-0.0853852	3514967
13150.3	-0.0860064	3515373
13161	-0.0866202	3515653
13170.6	-0.0871065	3515656
13180.1	-0.0875278	3516608
13190.5	-0.0879346	3517805
13200.1	-0.0882684	3518213
13210.6	-0.0886061	3518858
13220	-0.0888358	3520010
13230.6	-0.0890216	3520950
13240	-0.0891579	3522240
13250.4	-0.0892816	3524139
13260.9	-0.089325	3525712
13270.3	-0.0893986	3528069
13280.7	-0.0894659	3529269
13290.2	-0.0894886	3530493
13300.7	-0.0895053	3531303
13310.2	-0.0895074	3532264
13320.7	-0.0894972	3533274
13330.1	-0.0894849	3534057
13340.6	-0.0894728	3535887
13350	-0.0894658	3536936
13360.5	-0.0894657	3538263
13370.1	-0.0894459	3539965
13380.7	-0.0894684	3541466
13390.2	-0.0895171	3543138
13400.6	-0.0895963	3545117
13410.1	-0.0896958	3545696
13420.6	-0.0898418	3545595
13430	-0.0900056	3545388
13440.5	-0.0902148	3546426
13451	-0.0904447	3546948
13460.4	-0.0906687	3547673
13470.8	-0.0909384	3547704
13480.2	-0.0912014	3547518
13490.7	-0.0915167	3547535
13500.1	-0.0918206	3548164
13510.7	-0.0921803	3548278
13520.2	-0.0925211	3548212
13530.7	-0.0929179	3548212
13540.2	-0.0932858	3549026
13550.6	-0.0937049	3549018
13561	-0.094133	3548834
13570.4	-0.0945225	3548811
13580.9	-0.0949581	3548211
13590.3	-0.0953477	3548717
13600.8	-0.0957736	3548662
13610.2	-0.0961477	3549060
13620.7	-0.09655	3549304
13630.2	-0.0968987	3548941
13640.8	-0.0972672	3548219
13650.2	-0.0975725	3549508
13660.5	-0.0978839	3549679
13670.9	-0.0981616	3549706
13680.2	-0.0983816	3549677
13690.5	-0.0985894	3549989
13700.8	-0.0987559	3549571
13710.3	-0.0988685	3548436
13720.8	-0.098946	3547939
13730.4	-0.0989702	3547375
13740.8	-0.0989437	3546531
13750.1	-0.0988713	3546773
13760.6	-0.0987333	3545913
13770	-0.0985553	3545699
13780.5	-0.0982965	3545671
13790.9	-0.0979749	3545517
13800.3	-0.0976314	3545284
13810.7	-0.09719	3544269
13820.1	-0.0967387	3543474
13830.5	-0.0961746	3544056
13841	-0.0955416	3544410
13850.3	-0.0949099	3543983
13860.8	-0.0941372	3543607
13870.2	-0.0933775	3543404
13880.7	-0.0924569	3543384
13890.1	-0.091567	3542707
13900.4	-0.0905291	3543112
13910.1	-0.0895021	3542526
13920.6	-0.0883177	3542409
13930	-0.0872039	3542361
13940.5	-0.0859014	3542507
13950	-0.0846726	3542230
13960.5	-0.0832464	3542019
13970	-0.0818882	3542582
13980.5	-0.0803248	3542677
13991	-0.0787081	3543272
14000.4	-0.0771898	3543489
14010.8	-0.0754637	3543768
14020.4	-0.0738107	3543558
14031	-0.0719321	3543823
14040.5	-0.0702002	3543338
14050.1	-0.0684266	3542872
14060.6	-0.0664185	3543144
14070.9	-0.0644061	3543580
14080.4	-0.062521	3543177
14091	-0.0603771	3542713
14100.5	-0.0584144	3541413
14110.8	-0.0562507	3540763
14120.3	-0.0542112	3540350
14130.7	-0.051895	3540342
14140.2	-0.0497569	3539567
14150.7	-0.0473799	3538642
14160.2	-0.0452453	3539539
14170.9	-0.0428593	3539943
14180.5	-0.0407054	3540403
14190	-0.0385603	3541389
14200.4	-0.0362332	3541864
14210.7	-0.033899	3542920
14221	-0.0315604	3543282
14230.3	-0.0294347	3543276
14240.7	-0.0270832	3542637
14250.1	-0.0249515	3541483
14260.7	-0.0225353	3540109
14270.1	-0.0203775	3538659
14280.6	-0.0179938	3537910
14290.9	-0.0156311	3536498
14300.3	-0.0135138	3535996
14310.7	-0.0111409	3535725
14320.2	-0.00901721	3535511
14330.6	-0.00667356	3534925
14340	-0.00458092	3535182
14350.7	-0.00224024	3534357
14360.1	-0.000198318	3533892
14371.1	0.00216482	3534410
14380.9	0.00424931	3533572
14390.6	0.00627935	3533419
14400.4	0.00828984	3533141
14410.1	0.0102725	3532602
14421	0.0124359	3531392
14431	0.0143788	3530500
14441	0.0162986	3529474
14451.1	0.0181744	3527592
14460	0.0198025	3526752
14471	0.0217451	3525263
14480.8	0.023437	3523238
14490.8	0.0251119	3520582
14500.9	0.0267291	3517897
14510.9	0.0282861	3515363
14521	0.0297803	3512041
14531	0.0312096	3509972
14540.5	0.0324951	3507622
14550.5	0.0337823	3504632
14560.5	0.035011	3501141
14570.6	0.0361684	3497785
14580.6	0.0372533	3494237
14590.6	0.0382587	3490859
14600.5	0.0391818	3487579
14610.6	0.0400418	3483598
14620.6	0.0408219	3478415
14630.2	0.0414936	3473728
14640.9	0.0421697	3468556
14650.4	0.0426893	3464953
14660.8	0.0431909	3461294
14670.2	0.0435785	3457314
14680.7	0.0439483	3453733
14690.2	0.0442128	3451011
14700.8	0.0444301	3447630
14710.4	0.0445643	3444048
14720.1	0.0446447	3441105
14730.6	0.044673	3437601
14741	0.0446331	3433313
14750.4	0.0445311	3429010
14760.9	0.044344	3423412
14770.4	0.0441145	3418978
14780.9	0.0438021	3413503
14790.4	0.0434723	3408800
14800	0.04309	3403611
14810.5	0.0426213	3398258
14820.9	0.0420949	3392581
14830.4	0.0415693	3386847
14841	0.0409318	3379436
14850.5	0.0403141	3373237
14860.1	0.0396474	3367456
14870.8	0.038855	3360951
14880.2	0.0381217	3355302
14890.6	0.0372643	3348326
14901	0.0363643	3340833
14910.4	0.0355195	3335175
14921	0.0345345	3329063
14930.7	0.0336002	3322709
14940.6	0.032626	3317308
14950.5	0.0316297	3311793
14960.4	0.0306145	3305956
14970	0.0296045	3301150
14980.5	0.0284947	3295322
14990	0.0274839	3289791
15000.6	0.0263508	3283927
15010	0.0253279	3277882
15020.6	0.0241884	3272044
15031	0.0230613	3266370
15040.4	0.02205	3261067
15050.9	0.0209217	3254894
15060.4	0.0199104	3249806
15071	0.0187947	3244248
15080.5	0.0178134	3239692
15091	0.0167394	3233835
15100.5	0.0157874	3228072
15110.1	0.0148467	3222268
15120.6	0.0138435	3215687
15131	0.0128647	3209375
15140.4	0.0120086	3204091
15150.8	0.0110853	3198290
15160.4	0.0102606	3193543
15170.8	0.00938523	3188598
15180.1	0.00863045	3184057
15190.4	0.00782519	3178272
15200.6	0.00705293	3172231
15210.8	0.0063153	3166094
15221	0.00561718	3159772
15230.1	0.00502702	3155130
15240.3	0.00441746	3149594
15250.5	0.00383576	3143974
15260.7	0.0032968	3137816
15270.9	0.00266537	3131910
15280	0.00227621	3125807
15290.2	0.00176772	3118973
15300.4	0.00148274	3111978
15310.6	0.00120663	3104797
15320.7	0.000945151	3097893
15330.9	0.000708907	3091068
15340.1	0.000456864	3085247
15350.3	0.000244778	3078127
15360.4	8.78508e-05	3070974
15370.6	-4.28307e-05	3064782
15380.8	-0.000156322	3058091
15391	-0.000255351	3051157
15400.2	-0.000328408	3044255
15410.5	-0.000387487	3037262
15420.8	-0.000421337	3030571
15430.1	-0.000429729	3024632
15440.5	-0.0004147	3018819
15450.9	-0.000374651	3013024
15460.3	-0.00031829	3006886
15470.8	-0.000234607	3000234
15480.2	-0.000141497	2994848
15490.8	-1.8055e-05	2989026
15500.4	0.000109642	2983588
15511.1	0.000268564	2976728
15520.7	0.000426474	2971863
15530.2	0.000596616	2967404
15540.8	0.000801065	2961468
15550.3	0.000997089	2955356
15560.8	0.00122352	2949865
15570.4	0.00143516	2944559
15581.1	0.00167427	2937967
15590.7	0.00189509	2931241
15600.3	0.00212561	2925309
15610.9	0.00239513	2918123
15620.3	0.00264903	2913331
15630.7	0.00294409	2906752
15641	0.00324868	2900936
15650.3	0.00353069	2895546
15660.5	0.0038494	2890325
15670.8	0.00417061	2884375
15680.1	0.00445963	2880133
15690.4	0.00477895	2874724
15700.7	0.00509517	2869225
15711	0.00540768	2863647
15720.2	0.00568559	2858733
15730.5	0.00599074	2852780
15740.8	0.00629229	2846834
15750.1	0.00656263	2841816
15760.6	0.00686244	2835636
15770.1	0.00713215	2830782
15780.6	0.00743008	2824978
15790.1	0.00769451	2819193
15800.5	0.00798574	2813320
15811	0.00827467	2806421
15820.4	0.00853422	2801124
15830.1	0.0087979	2795863
15840.8	0.00909205	2790128
15850.5	0.00935515	2785135
15861	0.00964352	2779164
15870.5	0.00990256	2774657
15880.8	0.0101872	2769030
15890	0.0104457	2763901
15900.4	0.0107367	2758786
15911.1	0.0110424	2752766
15920.6	0.0113218	2747754
15930.1	0.011603	2742903
15940.7	0.0119242	2737951
15950.2	0.0122205	2732664
15960.1	0.0125361	2726963
15970.9	0.0128937	2721032
15980.4	0.0132151	2716272
15990.9	0.013586	2710539
16000.3	0.0139271	2705918
16010.7	0.0143193	2701263
16020	0.0146814	2696384
16030.3	0.0150979	2691015
16040.7	0.01553	2686027
16051	0.0159785	2681392
16060.3	0.0163976	2676576
16070.9	0.0168886	2671839
16080.3	0.0173441	2667171
16090.9	0.0178719	2661673
16100.5	0.018365	2656204
16110.1	0.0188734	2650537
16120.7	0.0194552	2643739
16130.1	0.0199893	2637594
16141	0.020623	2630312
16150.7	0.0212009	2624146
16160	0.0217713	2618029
16170.6	0.0224357	2611464
16181	0.0231045	2605742
16190.3	0.0237173	2599566
16200.7	0.024414	2593409
16210.5	0.0250852	2588296
16220.9	0.0258103	2582488
16230.2	0.0264676	2578212
16240.5	0.0272078	2573001
16250.8	0.0279584	2567873
16260	0.028642	2562107
16270.4	0.0294098	2556717
16280.7	0.0301865	2550672
16290	0.0308915	2545544
16300.4	0.0316806	2539820
16311.1	0.0325052	2533052
16320.4	0.0332129	2527524
16330.5	0.033992	2521349
16340.9	0.0347936	2515662
16350.6	0.0355436	2510069
16360.6	0.0363094	2504292
16371	0.037104	2498958
16380.6	0.0378328	2493669
16390.3	0.0385586	2488179
16401	0.0393611	2481761
16410.7	0.0400712	2476576
16421	0.0408244	2471254
16430.3	0.041496	2465666
16440.7	0.0422308	2460138
16450.1	0.0428805	2454237
16460.4	0.0435892	2448315
16470.8	0.0442802	2441983
16480.1	0.0448907	2436309
16490.6	0.0455612	2430615
16500.1	0.0461523	2424339
16510.4	0.046773	2418484
16520.9	0.0473909	2411990
16530.8	0.0479518	2406998
16540.4	0.0484776	2402182
16551	0.0490342	2396648
16560.4	0.0495111	2391855
16571	0.0500262	2386617
16580.4	0.0504599	2382518
16591	0.0509314	2377664
16600	0.0513108	2373273
16610.7	0.0517367	2368945
16620.1	0.0520904	2363845
16630.5	0.0524603	2358755
16641	0.0528054	2353606
16650.9	0.0531096	2349722
16660.3	0.0533798	2345474
16670.9	0.0536559	2340700
16680.4	0.0538852	2336523
16691	0.0541138	2332116
16700.4	0.0542959	2327551
16710.8	0.0544752	2322606
16720.2	0.054616	2318577
16730.7	0.0547503	2313908
16740.8	0.0548583	2309832
16750.6	0.0549421	2305729
16760.2	0.0550048	2301964
16770.8	0.055053	2297695
16780.3	0.0550774	2294216
16790.8	0.0550842	2291049
16800.2	0.0550729	2286939
16810.7	0.0550415	2282605
16820.4	0.0549953	2278451
16830.1	0.0549329	2274873
16840.1	0.0548537	2270114
16850.3	0.0547564	2265302
16860.6	0.0546432	2260887
16870.3	0.0545232	2256085
16880.4	0.0543855	2251580
16890.5	0.0542359	2246808
16900.3	0.0540791	2241842
16910.5	0.0539074	2237195
16920.9	0.053723	2232057
16930.2	0.0535514	2228052
16940.6	0.0533527	2223060
16951	0.0531494	2218238
16960.6	0.0529637	2213609
16970.1	0.0527855	2209642
16980.8	0.0525871	2204794
16990.6	0.0524029	2199682
17000.9	0.0521777	2194770
17011.1	0.051968	2189793
17020.5	0.0517916	2185322
17030	0.0516154	2181299
17040.6	0.0515862	2176413
17050.6	0.0524711	2171909
17061	0.0525874	2166629
17070.1	0.0523708	2162259
17080.6	0.0519871	2157062
17091	0.0515715	2151627
17100.1	0.051221	2147443
17110.9	0.0508399	2141840
17120.6	0.0505121	2136998
17130.3	0.0501637	2132070
17141	0.0497587	2126428
17150.8	0.0493923	2121159
17161.1	0.0490206	2115950
17170.2	0.0487004	2111627
17180.5	0.0483382	2106988
17190.8	0.047962	2102508
17200.1	0.0476009	2099355
17210.4	0.0471693	2094784
17220.5	0.0467157	2089767
17230.6	0.0462334	2085479
17241	0.0457022	2081057
17250.3	0.0452027	2077271
17260.7	0.0446083	2072723
17270	0.0440502	2068607
17280.4	0.0433884	2064712
17290.9	0.0426905	2060012
17300.2	0.0420396	2056545
17310.6	0.0412724	2052637
17321	0.0404668	2048520
17330.3	0.0397169	2045269
17340.7	0.038833	2041710
17350	0.0380095	2038679
17360.6	0.0370264	2034980
17370.9	0.0360178	2031174
17380.6	0.0350215	2027274
17390.4	0.0339777	2022799
17400.3	0.0328724	2018952
17410.7	0.0316554	2014554
17420	0.0305294	2010425
17430.4	0.0292129	2006067
17440.9	0.0278438	2001265
17450.8	0.026491	1997492
17460.6	0.0251126	1994041
17470.4	0.0236874	1990473
17480.2	0.0222089	1987202
17490.6	0.0205884	1983530
17501	0.0188766	1980219
17510.3	0.0172901	1977140
17520.7	0.0154307	1973913
17530.9	0.0135411	1971261
17540.2	0.011754	1968272
17550.5	0.009696	1965227
17560.8	0.00756255	1962346
17570.1	0.00557612	1959698
17580.9	0.00317277	1956513
17590.2	0.00105804	1953913
17600.7	-0.00138874	1951108
17611.1	-0.00390464	1948166
17620.8	-0.00631037	1945942
17630.1	-0.0086466	1943154
17640.5	-0.0113214	1940094
17650.8	-0.0139433	1936795
17660.9	-0.0168848	1933842
17670.9	-0.0202597	1931915
17680.9	-0.0238996	1929286
17691	-0.0275289	1926505
17700	-0.0309107	1924315
17711.2	-0.0351683	1921159
17721.3	-0.0390285	1919046
17731.4	-0.042988	1916971
17740.1	-0.0464655	1914980
17750.2	-0.0506418	1912540
17760.5	-0.0548443	1909899
17770.8	-0.0595849	1907151
17781.4	-0.0668219	1903721
17790.7	-0.0721217	1901140
17801.4	-0.0776911	1898250
17810.6	-0.0823704	1895464
17821.4	-0.0880634	1892587
17831.1	-0.0932721	1889555
17840.9	-0.0982209	1886601
17850.6	-0.102944	1884061
17860.3	-0.107589	1881411
17871	-0.112621	1878374
17881.3	-0.11737	1875701
17890.1	-0.121228	1873230
17901.2	-0.125971	1870135
17910.6	-0.129852	1867663
17920.3	-0.133671	1865103
17931	-0.137704	1862540
17940.6	-0.141122	1859885
17950.2	-0.144317	1857029
17960.9	-0.14759	1853909
17970.3	-0.150244	1850960
17981	-0.153007	1847361
17990.3	-0.155163	1844126
18000.6	-0.157288	1841125
18010.1	-0.158797	1838090
18020.6	-0.160377	1836150
18030.1	-0.161559	1834370
18040.6	-0.162603	1831057
18050.1	-0.163196	1827886
18060.8	-0.163627	1824824
18070.4	-0.163825	1821805
18080	-0.163853	1818498
18090.6	-0.163587	1815990
18100.1	-0.16306	1813760
18110.6	-0.162163	1811606
18120.1	-0.161183	1808920
18130.6	-0.159922	1806399
18140.1	-0.158564	1803682
18151	-0.156748	1800537
18160.8	-0.154904	1797651
18170.6	-0.152861	1795043
18180.2	-0.150665	1792558
18190.8	-0.148036	1789458
18200.2	-0.145462	1786878
18210.8	-0.142379	1784805
18220.2	-0.139409	1782246
18230.7	-0.135891	1779151
18240.1	-0.132546	1776796
18250.4	-0.12868	1773997
18260.7	-0.124616	1770919
18271	-0.120377	1767507
18280.3	-0.116424	1764524
18290.9	-0.11173	1761505
18300.5	-0.107495	1759442
18310.1	-0.103077	1757003
18320.9	-0.0978138	1753991
18330.6	-0.0930585	1751736
18340.3	-0.0884087	1749260
18350.7	-0.0834051	1747757
18360.1	-0.0788434	1746389
18370.5	-0.0737333	1744710
18380.8	-0.0686462	1742615
18390.1	-0.0640799	1739837
18400.5	-0.0590468	1737418
18410.9	-0.0541082	1734861
18420.2	-0.0497032	1732179
18430.6	-0.044846	1729318
18440.9	-0.0400412	1726681
18450.4	-0.0357384	1723972
18460.9	-0.0310499	1720762
18470.4	-0.0269195	1718346
18480.2	-0.0227296	1716001
18491.1	-0.0182345	1713344
18500.3	-0.0144777	1711024
18510.5	-0.0104582	1708242
18520.1	-0.00678915	1705210
18530.9	-0.0027727	1702415
18540.8	0.000763298	1699890
18550.4	0.00410752	1697633
18560.2	0.00742798	1694880
18570.6	0.0108358	1691922
18580.4	0.0139215	1689708
18590.8	0.0170844	1686787
18600.2	0.0198323	1684433
18610.6	0.0227876	1681775
18620.1	0.0253627	1679627
18630.4	0.028079	1677015
18640.9	0.0307233	1674489
18650.7	0.0330691	1672078
18660.8	0.0353941	1670026
18670.7	0.0375383	1667592
18680.6	0.0395778	1665307
18690.7	0.0415504	1662967
18701.1	0.0434843	1660260
18710.4	0.0451284	1658442
18720.7	0.0468775	1656199
18730.6	0.0484872	1653638
18741	0.0501204	1651528
18750.3	0.0515243	1649474
18760.7	0.0530558	1647186
18770	0.0543782	1645297
18780.5	0.0558245	1643158
18790.9	0.057229	1641388
18800.2	0.0584431	1639670
18810.6	0.0597709	1637619
18821.1	0.0610585	1635595
18830.3	0.0621692	1633523
18840.8	0.0633801	1631638
18850	0.0644219	1629454
18860.5	0.065555	1627477
18870.9	0.066647	1625634
18880.2	0.067584	1623872
18890.6	0.0686014	1621712
18901.1	0.0695812	1619439
18910.4	0.0704214	1617322
18920.8	0.0713326	1615322
18930.1	0.0721121	1613438
18940.5	0.0729538	1611328
18950.9	0.0737571	1609349
18960.2	0.0744379	1607520
18970.7	0.0751659	1605620
18981.1	0.0758541	1603024
18990.4	0.0764338	1601136
19000.8	0.0770521	1598951
19010.1	0.0775743	1596926
19020.5	0.0781341	1595098
19031	0.0786685	1592883
19040.3	0.079125	1590948
19050.7	0.079621	1588854
19061.1	0.0801014	1587293
19070.4	0.0805175	1585511
19080.8	0.0809755	1583198
19090.1	0.0813751	1581371
19100.6	0.0818174	1579237
19111	0.0822529	1577147
19120.3	0.0826345	1575119
19130.7	0.0830578	1572497
19141.2	0.0834747	1570117
19150.4	0.0838401	1567619
19160.9	0.0842454	1565037
19170.1	0.0846007	1562865
19180.6	0.0849951	1560395
19191	0.085384	1558376
19200.3	0.0857251	1556229
19210.7	0.0861032	1553968
19220	0.086434	1552110
19230.5	0.0867992	1549961
19240.9	0.0871561	1548147
19250.2	0.0874653	1546124
19260.6	0.0878029	1544289
19271.1	0.0881284	1542049
19280.3	0.0884067	1540792
19290.8	0.0887064	1539243
19300	0.0889604	1537654
19310.5	0.0892315	1535718
19320.9	0.0894742	1533981
19330.2	0.0896737	1532305
19340.6	0.0899196	1530320
19351.1	0.0901504	1528742
19360.4	0.0903233	1527107
19370.8	0.0904818	1525334
19380.1	0.0906029	1524158
19390.5	0.0907272	1522313
19400.9	0.0908371	1520464
19410.2	0.0909156	1518281
19420.6	0.0909772	1516541
19431	0.0910117	1514792
19440.2	0.0910208	1513059
19450.7	0.0914807	1511737
19461.1	0.0914507	1509794
19470.4	0.0913679	1508000
19480.8	0.0911953	1506069
19490	0.09096	1505120
19500.5	0.0906985	1503620
19510.9	0.0904837	1502001
19520.2	0.0902826	1500584
19530.6	0.0899974	1498995
19541	0.0896611	1497644
19550.3	0.0893336	1496535
19560.7	0.0889376	1494939
19570.7	0.0885299	1493527
19580.4	0.0881181	1492102
19590.8	0.0876465	1490534
19600.1	0.0871994	1489292
19610.4	0.0866679	1488302
19620.5	0.086115	1486784
19630.6	0.0855315	1485526
19640.8	0.0849154	1483763
19650	0.0843355	1482519
19660.4	0.0836567	1480887
19670.8	0.082957	1479721
19680.4	0.0822845	1478290
19691	0.0815085	1476807
19700.6	0.0807827	1475091
19710.4	0.0800119	1473429
19720.8	0.0791625	1471685
19730.1	0.0783812	1470485
19740.5	0.0774734	1469512
19750.7	0.0765618	1467940
19760.7	0.0756277	1466859
19770.8	0.0746699	1465214
19781.1	0.0736576	1463742
19790.6	0.0726958	1462255
19800.3	0.0716996	1461013
19810.9	0.0705765	1459787
19820.4	0.0695441	1458404
19830.5	0.0684257	1457330
19840.9	0.067246	1456518
19850.2	0.0661819	1455044
19860.4	0.0649736	1453472
19870.6	0.063758	1451828
19880.8	0.062509	1450247
19891	0.0612306	1448587
19900.2	0.0600684	1447107
19910.6	0.0587306	1445841
19921.1	0.0573704	1444771
19930.6	0.0561107	1443444
19941	0.0547126	1442292
19950.4	0.0534397	1440905
19960.9	0.0520032	1439123
19970.8	0.050629	1437262
19980	0.0493311	1435863
19990.5	0.0478599	1433922
