0	0
13.7445	0
22.9073	0
32.0701	0
41.2329	0
50.3956	0
64.1396	0
73.3022	0
82.4649	0
91.6275	0
100.79	0
114.534	0
123.697	0
132.86	0
142.023	0
151.185	0
160.348	0
173.979	0
183.066	0
192.153	0
201.241	0
210.239	0
223.983	0
233.146	9.09495e-13
242.309	2.72848e-12
251.39	4.54747e-12
260.537	6.36646e-12
274.235	1.09139e-11
283.366	1.45519e-11
292.498	1.90994e-11
301.63	2.54659e-11
310.761	3.27418e-11
324.459	4.72937e-11
333.59	6.00267e-11
342.722	7.54881e-11
351.854	9.45874e-11
360.985	1.18234e-10
370.052	1.47338e-10
383.487	2.00089e-10
392.444	2.43745e-10
401.4	2.96495e-10
410.357	3.5925e-10
423.792	4.74756e-10
432.748	5.69344e-10
441.553	6.78483e-10
450.357	8.04903e-10
463.564	1.0341e-09
472.368	1.2169e-09
481.173	1.42791e-09
494.379	1.80444e-09
503.2	2.10184e-09
512.02	2.44017e-09
520.84	2.82398e-09
534.07	3.49701e-09
542.887	4.01815e-09
551.41	4.58294e-09
564.195	5.5561e-09
572.718	6.29825e-09
581.241	7.12225e-09
594.026	8.52651e-09
602.549	9.58607e-09
611.079	1.07548e-08
623.874	1.2732e-08
632.403	1.42118e-08
640.933	1.58325e-08
653.728	1.85519e-08
662.258	2.05728e-08
670.787	2.27747e-08
683.579	2.64463e-08
692.107	2.91593e-08
700.635	3.21033e-08
713.427	3.6981e-08
721.931	4.05489e-08
730.435	4.4387e-08
743.191	5.06752e-08
751.695	5.52336e-08
760.199	6.00967e-08
772.955	6.79811e-08
781.459	7.36445e-08
794.215	8.27777e-08
802.719	8.93069e-08
811.223	9.62036e-08
823.979	1.07268e-07
832.483	1.15144e-07
840.987	1.23435e-07
853.743	1.36672e-07
862.247	1.4604e-07
870.751	1.5585e-07
883.506	1.71399e-07
892.009	1.82322e-07
900.511	1.93693e-07
913.265	2.11595e-07
921.767	2.24093e-07
930.27	2.37044e-07
943.024	2.57326e-07
951.528	2.71422e-07
960.031	2.85982e-07
972.787	3.08703e-07
981.291	3.24451e-07
994.046	3.48996e-07
1002.55	3.65992e-07
1011.05	3.83514e-07
1023.81	4.10821e-07
1032.31	4.29739e-07
1040.82	4.49258e-07
1053.57	4.79726e-07
1062.08	5.00881e-07
1070.58	5.22755e-07
1083.33	5.57012e-07
1091.84	5.80885e-07
1100.34	6.05651e-07
1113.1	6.44609e-07
1121.6	6.71887e-07
1130.1	7.00299e-07
1142.86	7.45227e-07
1151.36	7.76852e-07
1164.12	8.27051e-07
1172.62	8.62517e-07
1181.13	8.99719e-07
1193.88	9.59056e-07
1202.39	1.00117e-06
1210.89	1.0455e-06
1223.64	1.11647e-06
1232.15	1.16702e-06
1240.65	1.22036e-06
1253.41	1.30601e-06
1261.91	1.36716e-06
1270.41	1.43179e-06
1283.17	1.53575e-06
1291.67	1.61008e-06
1300.18	1.68871e-06
1312.93	1.8153e-06
1321.43	1.90586e-06
1334.19	2.05169e-06
1342.67	2.1558e-06
1351.14	2.26572e-06
1363.84	2.44265e-06
1372.31	2.56917e-06
1380.78	2.70299e-06
1393.48	2.91829e-06
1401.94	3.07215e-06
1410.41	3.23481e-06
1423.11	3.49737e-06
1431.58	3.68577e-06
1440.04	3.8854e-06
1452.69	4.20532e-06
1461.05	4.43156e-06
1473.59	4.79361e-06
1481.95	5.05048e-06
1490.31	5.32004e-06
1502.85	5.74871e-06
1511.21	6.0511e-06
1523.74	6.53031e-06
1532.1	6.86731e-06
1540.46	7.21873e-06
1553	7.77372e-06
1561.36	8.16288e-06
1573.9	8.77656e-06
1582.26	9.20638e-06
1590.62	9.65343e-06
1603.16	1.03577e-05
1611.52	1.08506e-05
1624.05	1.16271e-05
1632.41	1.21707e-05
1640.77	1.27361e-05
1653.31	1.36271e-05
1661.67	1.42514e-05
1670.03	1.49011e-05
1682.57	1.5926e-05
1690.93	1.66448e-05
1703.47	1.77796e-05
1711.83	1.85761e-05
1720.18	1.94064e-05
1732.72	2.07186e-05
1741.08	2.16406e-05
1753.62	2.30988e-05
1761.98	2.41239e-05
1770.34	2.51938e-05
1782.88	2.6887e-05
1791.24	2.80773e-05
1803.77	2.99584e-05
1812.13	3.12794e-05
1820.49	3.26552e-05
1833.02	3.48243e-05
1841.38	3.63424e-05
1853.92	3.87302e-05
1862.28	4.03983e-05
1870.64	4.21286e-05
1883.18	4.48435e-05
1891.53	4.67352e-05
1904.07	4.96988e-05
1912.43	5.1761e-05
1920.79	5.38943e-05
1933.33	5.72315e-05
1941.69	5.95506e-05
1950.05	6.19476e-05
1962.58	6.56941e-05
1970.94	6.8296e-05
1983.48	7.23617e-05
1991.84	7.5185e-05
2000.2	7.81019e-05
2012.74	8.26601e-05
2021.1	8.58258e-05
2033.63	9.07734e-05
2041.99	9.42101e-05
2050.35	9.77621e-05
2062.89	0.000103315
2071.25	0.000107174
2083.79	0.000113208
2092.15	0.000117401
2100.5	0.000121738
2113.04	0.000128521
2121.4	0.000133237
2133.94	0.000131205
2142.3	0.000130167
2150.66	0.000129367
2163.19	0.000128581
2171.55	0.000128319
2184.09	0.000128294
2192.45	0.00012851
2200.81	0.000128903
2213.35	0.000129811
2221.71	0.000130619
2230.06	0.000131585
2242.6	0.000133318
2250.96	0.00013466
2263.5	0.000136945
2271.86	0.000138647
2280.22	0.000140492
2292.75	0.000143525
2301.11	0.000145725
2313.65	0.000149293
2322.01	0.000151853
2330.37	0.000154561
2342.91	0.000158903
2351.26	0.00016199
2363.8	0.000166917
2372.16	0.000170405
2380.52	0.00017406
2393.06	0.000179866
2401.42	0.00018396
2413.95	0.000190448
2422.31	0.000195013
2430.67	0.000199777
2443.21	0.000207309
2451.57	0.000212596
2464.07	0.000220919
2472.37	0.000226726
2480.66	0.000232769
2493.11	0.000242289
2501.4	0.000248957
2513.85	0.000259414
2522.14	0.00026667
2530.44	0.000274139
2542.88	0.000285725
2551.18	0.000293696
2563.62	0.000306016
2571.92	0.00031447
2580.21	0.000323116
2592.66	0.000336451
2600.95	0.000345591
2613.39	0.000359686
2621.69	0.000369349
2634.13	0.000384262
2642.43	0.000394495
2650.73	0.000404973
2663.17	0.00042117
2671.46	0.000432306
2683.91	0.00044955
2692.2	0.000461427
2700.5	0.000473626
2712.94	0.000492565
2721.24	0.000505642
2733.68	0.000525976
2741.98	0.000540035
2750.27	0.000554517
2762.72	0.000577066
2771.01	0.000592673
2783.46	0.000616988
2791.75	0.000633824
2800.05	0.000651179
2812.49	0.000678225
2820.79	0.000696957
2833.23	0.000726152
2841.53	0.000746375
2853.97	0.000777903
2862.26	0.000813024
2870.56	0.000861527
2883	0.000933831
2891.3	0.000981597
2903.74	0.00105252
2912.04	0.00109934
2920.33	0.00114584
2932.78	0.00121514
2941.07	0.00126116
2953.52	0.00133017
2961.81	0.00137633
2970.11	0.00142274
2982.55	0.0014931
2990.85	0.0015407
3003.29	0.00161346
3011.58	0.00166308
3024.03	0.00173948
3032.32	0.00179194
3040.62	0.00184576
3053.06	0.00192935
3061.36	0.00198712
3073.8	0.00207672
3082.09	0.00213812
3090.39	0.00220071
3102.83	0.0022967
3111.13	0.00236207
3123.57	0.00246229
3131.87	0.00253066
3140.16	0.00260039
3152.61	0.00270785
3160.9	0.00278165
3173.34	0.00289608
3181.64	0.00297516
3194.08	0.00309856
3202.38	0.00318431
3210.67	0.00327309
3223.12	0.00341234
3231.41	0.00350953
3243.85	0.00378166
3252.15	0.00399615
3260.45	0.00420256
3272.89	0.00449856
3281.18	0.00468882
3293.63	0.00496807
3301.92	0.00515302
3310.22	0.0053393
3322.66	0.00562542
3330.96	0.00582331
3343.4	0.00613494
3351.69	0.00635183
3364.14	0.00668727
3372.43	0.00691742
3380.73	0.00715363
3393.17	0.0075227
3401.47	0.00778163
3413.91	0.00819549
3422.2	0.00849113
3430.5	0.0091205
3442.94	0.0100285
3451.24	0.0106108
3463.68	0.011487
3471.98	0.0120968
3480.27	0.0127422
3492.72	0.0137907
3501.01	0.0145213
3513.45	0.0156651
3521.75	0.0172208
3530.04	0.0185827
3542.49	0.0205842
3550.78	0.0219881
3563.23	0.0242426
3571.52	0.0258392
3583.97	0.0284945
3592.26	0.0303912
3600.56	0.0323148
3613	0.0351726
3621.3	0.0370361
3633.74	0.0397777
3642.03	0.0415952
3650.33	0.0434271
3662.77	0.046234
3671.07	0.0481582
3683.51	0.0511351
3691.81	0.0531844
3700.1	0.0552893
3712.55	0.0585596
3720.84	0.0608197
3733.29	0.0643328
3741.58	0.0667554
3754.03	0.0705034
3762.32	0.0730737
3770.62	0.0756981
3783.06	0.0797344
3791.36	0.0824927
3803.8	0.0867376
3812.1	0.0896446
3820.39	0.0926186
3832.83	0.0972156
3841.13	0.100378
3853.57	0.105279
3861.87	0.108657
3870.17	0.112127
3882.61	0.117508
3890.91	0.121214
3903.35	0.126952
3911.67	0.130906
3924.14	0.137012
3932.46	0.141199
3940.77	0.145478
3953.25	0.152068
3961.56	0.156575
3974.04	0.163508
3982.36	0.168246
3990.67	0.173077
4003.15	0.180501
4011.46	0.18557
4023.94	0.193354
4032.25	0.198662
4040.57	0.204066
4053.04	0.212348
4061.36	0.217982
4073.84	0.226597
4082.15	0.232443
4090.47	0.238365
4102.94	0.247381
4111.26	0.253471
4123.74	0.262709
4132.05	0.268925
4140.37	0.275178
4152.84	0.28461
4161.16	0.29092
4173.63	0.300393
4181.95	0.3067
4190.27	0.312988
4202.74	0.32236
4211.06	0.328551
4223.53	0.337719
4231.85	0.343733
4240.17	0.349654
4252.64	0.358327
4261.11	0.364053
4273.82	0.372354
4282.29	0.377672
4290.76	0.382798
4303.47	0.390092
4311.94	0.394666
4320.42	0.398992
4333.13	0.404976
4341.6	0.408606
4350.08	0.411929
4362.79	0.416305
4371.26	0.418794
4383.98	0.42185
4392.45	0.423415
4400.92	0.424585
4413.64	0.425573
4422.11	0.425703
4430.58	0.425396
4443.32	0.424091
4451.83	0.422639
4460.35	0.420711
4473.14	0.416906
4481.67	0.413752
4490.2	0.410098
4502.99	0.403669
4511.52	0.398747
4520.05	0.393313
4532.85	0.384203
4541.37	0.377492
4554.17	0.366473
4562.69	0.358497
4571.22	0.350023
4584.02	0.336391
4592.52	0.326727
4601.02	0.316595
4613.78	0.300537
4622.28	0.289276
4630.79	0.277585
4643.54	0.25927
4652.05	0.24656
4660.55	0.233469
4673.31	0.213154
4681.81	0.199192
4690.31	0.184912
4703.07	0.162901
4711.57	0.147852
4720.08	0.132553
4732.83	0.109271
4741.34	0.0936251
4754.09	0.0695501
4762.6	0.0523226
4771.1	0.035762
4783.86	0.0130509
4792.36	-0.00209586
4800.86	-0.0190161
4813.61	-0.0391791
4822.12	-0.0503837
4830.62	-0.0603233
4843.37	-0.070139
4851.87	-0.0765625
4860.38	-0.0831099
4873.13	-0.0928543
4881.63	-0.0858986
4890.14	-0.0911997
4902.89	-0.0994792
4911.4	-0.105471
4924.15	-0.113184
4932.66	-0.117679
4941.16	-0.121783
4953.92	-0.127297
4962.42	-0.130613
4970.93	-0.133706
4983.68	-0.137827
4992.19	-0.140316
5000.69	-0.142541
5013.45	-0.145834
5021.95	-0.147972
5030.45	-0.150052
5043.21	-0.153046
5051.71	-0.154947
5060.22	-0.156766
5072.97	-0.15933
5081.48	-0.150809
5094.23	-0.153146
5102.74	-0.154371
5111.24	-0.156223
5124	-0.15907
5132.5	-0.160722
5141	-0.16219
5153.76	-0.164097
5162.26	-0.165201
5170.77	-0.166188
5183.52	-0.167485
5192.03	-0.168241
5200.53	-0.168918
5213.29	-0.169807
5221.79	-0.170325
5230.3	-0.170792
5243.05	-0.171409
5251.56	-0.171771
5260.06	-0.172101
5272.81	-0.172404
5281.32	-0.1726
5294.07	-0.172907
5302.58	-0.173113
5311.08	-0.173268
5323.84	-0.173482
5332.34	-0.173611
5340.85	-0.173728
5353.57	-0.173882
5362.03	-0.173968
5370.5	-0.174041
5383.2	-0.174123
5391.67	-0.17416
5400.13	-0.174182
5412.83	-0.174185
5421.3	-0.174169
5434	-0.174117
5442.47	-0.174064
5450.94	-0.173995
5463.64	-0.170298
5472.1	-0.170247
5480.57	-0.170185
5493.27	-0.170071
5501.74	-0.169981
5510.1	-0.169882
5522.64	-0.169714
5530.99	-0.169583
5543.53	-0.169361
5551.89	-0.169196
5560.25	-0.169019
5572.79	-0.168731
5581.15	-0.168524
5593.69	-0.168194
5602.05	-0.167962
5610.41	-0.16772
5622.95	-0.167339
5631.31	-0.167079
5643.84	-0.166683
5652.2	-0.166416
5660.56	-0.166145
5673.1	-0.165731
5681.46	-0.16545
5694	-0.165019
5702.36	-0.164724
5710.72	-0.164423
5723.26	-0.16396
5731.62	-0.163643
5744.16	-0.163153
5752.51	-0.162817
5760.87	-0.162473
5773.41	-0.16194
5781.77	-0.161574
5790.13	-0.1612
5802.67	-0.16062
5811.03	-0.160221
5823.57	-0.159602
5831.92	-0.159173
5840.28	-0.158732
5852.82	-0.158052
5861.18	-0.157587
5873.72	-0.156872
5882.08	-0.156383
5890.43	-0.155883
5902.97	-0.155069
5911.33	-0.154511
5923.87	-0.153653
5932.23	-0.153067
5940.59	-0.152472
5953.13	-0.15156
5961.48	-0.150939
5974.02	-0.149992
5982.38	-0.149349
5990.74	-0.148698
6003.28	-0.147706
6011.64	-0.147034
6024.18	-0.146012
6032.54	-0.145322
6040.9	-0.144625
6053.44	-0.143566
6061.79	-0.142851
6070.15	-0.142131
6082.69	-0.141042
6091.05	-0.140313
6103.59	-0.139215
6111.95	-0.138482
6120.31	-0.137747
6132.85	-0.136646
6141.21	-0.135912
6153.75	-0.134813
6162.11	-0.134081
6170.46	-0.133351
6183	-0.132257
6191.36	-0.131529
6203.9	-0.134516
6212.26	-0.134103
6220.62	-0.133685
6233.16	-0.132995
6241.52	-0.13246
6254.06	-0.131659
6262.42	-0.131125
6270.78	-0.130591
6283.31	-0.129789
6291.67	-0.129253
6300.03	-0.128716
6312.57	-0.127908
6320.93	-0.127366
6333.47	-0.12655
6341.83	-0.126002
6350.19	-0.125452
6362.73	-0.124621
6371.09	-0.124062
6383.62	-0.123219
6391.98	-0.122652
6400.34	-0.122081
6412.88	-0.121217
6421.24	-0.120636
6433.78	-0.119525
6442.14	-0.118469
6450.5	-0.11741
6463.04	-0.115821
6471.4	-0.114765
6483.94	-0.113191
6492.29	-0.112149
6500.65	-0.111114
6513.19	-0.109575
6521.55	-0.108557
6534.09	-0.107041
6542.45	-0.106037
6550.81	-0.105038
6563.35	-0.103546
6571.71	-0.102555
6580.07	-0.101566
6592.61	-0.100083
6600.96	-0.0990952
6613.5	-0.0976111
6621.86	-0.0966194
6630.22	-0.0956251
6642.76	-0.0941274
6651.12	-0.0931239
6663.66	-0.0916097
6672.02	-0.0905936
6680.38	-0.0895719
6692.92	-0.088033
6701.28	-0.0870061
6713.81	-0.0854682
6722.17	-0.0844449
6730.53	-0.0834241
6743.07	-0.081897
6751.42	-0.0808818
6763.87	-0.0793713
6772.16	-0.0783642
6780.46	-0.0773557
6792.9	-0.075838
6801.2	-0.0748211
6813.64	-0.0732852
6821.94	-0.0722529
6830.23	-0.0712127
6842.68	-0.069636
6850.97	-0.0685729
6863.41	-0.0663888
6871.71	-0.0642618
6880.01	-0.0622559
6892.45	-0.0594525
6900.75	-0.0577006
6913.19	-0.0552088
6921.49	-0.0536155
6933.93	-0.0512905
6942.22	-0.049765
6950.52	-0.048246
6962.96	-0.0459593
6971.26	-0.0444181
6983.7	-0.0420674
6992	-0.0404762
7000.29	-0.0388733
7012.74	-0.0364609
7021.03	-0.0348486
7033.48	-0.032417
7041.77	-0.0307794
7050.07	-0.0291214
7062.51	-0.0265834
7070.81	-0.0248683
7083.25	-0.0204756
7091.55	-0.0176686
7103.99	-0.0136316
7112.29	-0.0109986
7120.58	-0.00836623
7133.03	-0.00436014
7141.32	-0.00163244
7153.77	0.00252153
7162.06	0.00527957
7170.36	0.00799399
7182.8	0.0135796
7191.1	0.0173744
7203.54	0.0227014
7211.84	0.0261666
7220.13	0.0295887
7232.58	0.034703
7240.87	0.0382199
7253.32	0.0433021
7261.61	0.0463363
7274.05	0.0501962
7282.35	0.052295
7290.65	0.0540662
7303.09	0.0562625
7311.39	0.0575119
7323.83	0.059173
7332.13	0.0601769
7340.42	0.0611169
7352.86	0.0624323
7361.16	0.0632632
7373.6	0.064472
7381.9	0.0652693
7390.2	0.0660671
7402.64	0.0672631
7410.93	0.0680497
7423.38	0.0691842
7431.67	0.0698912
7444.12	0.0708501
7452.41	0.0714117
7460.71	0.0719087
7473.15	0.0725401
7481.45	0.0728947
7493.89	0.0733508
7502.19	0.0736198
7510.48	0.0738729
7522.93	0.0742415
7531.22	0.0744889
7543.67	0.0748693
7551.96	0.075128
7560.26	0.0753863
7572.7	0.0757595
7581	0.0759882
7593.44	0.0762819
7601.74	0.076435
7610.03	0.0765475
7622.48	0.0766327
7630.77	0.0766314
7643.22	0.0765436
7651.51	0.0764311
7663.96	0.076191
7672.25	0.0759905
7680.55	0.0757642
7692.99	0.0753891
7701.29	0.0751237
7713.73	0.0747162
7722.03	0.0744451
7730.32	0.0741789
7742.77	0.0737955
7751.06	0.0735534
7763.51	0.0732134
7771.8	0.0730029
7780.1	0.072805
7792.54	0.0725307
7800.86	0.0723613
7813.33	0.0721254
7821.65	0.0719787
7834.12	0.0717719
7842.44	0.0716411
7850.76	0.0715148
7863.23	0.0713306
7871.55	0.0712095
7884.02	0.0710265
7892.34	0.0709011
7900.66	0.0707708
7913.13	0.0705616
7921.45	0.0704097
7933.92	0.0701578
7942.24	0.0699704
7950.56	0.069765
7963.03	0.0694185
7971.35	0.0691593
7983.82	0.0687248
7992.14	0.068403
8000.46	0.0680547
8012.93	0.0674819
8021.25	0.0670664
8033.72	0.0663939
8042.04	0.0659137
8050.36	0.0654091
8062.83	0.0646088
8071.15	0.0640481
8083.62	0.0631696
8091.94	0.0625609
8100.26	0.0619353
8112.73	0.0609682
8121.05	0.0603062
8133.52	0.0592903
8141.84	0.0585996
8150.16	0.0578993
8162.63	0.0568333
8170.95	0.0561136
8183.42	0.0550225
8191.74	0.0542883
8200.05	0.0535492
8212.53	0.0524319
8220.85	0.0516813
8233.32	0.0505461
8241.64	0.0497824
8254.11	0.0486243
8262.43	0.0478425
8270.75	0.0470512
8283.22	0.0458434
8291.54	0.0450219
8304.01	0.0437606
8312.33	0.0428977
8320.65	0.0420148
8333.12	0.0406488
8341.44	0.0397074
8353.91	0.0382442
8362.23	0.0372316
8370.55	0.0361871
8383.02	0.0345555
8391.34	0.0334212
8403.81	0.0316433
8412.13	0.0304029
8420.45	0.0291148
8432.92	0.0270827
8441.24	0.0256535
8453.71	0.0233913
8462.03	0.0218048
8470.34	0.0201468
8482.82	0.0174541
8491.14	0.015417
8503.61	0.012331
8511.93	0.0103459
8520.24	0.0084452
8532.72	0.00495195
8541.04	0.0029982
8553.51	0.000411852
8561.83	-0.00102341
8570.14	-0.00211076
8582.62	-0.00377333
8590.94	-0.00488393
8603.41	-0.00447316
8611.73	-0.00518058
8620.04	-0.00622922
8632.52	-0.00773283
8640.84	-0.00859713
8653.31	-0.00978698
8661.63	-0.0105397
8674.1	-0.0116384
8682.42	-0.0123688
8690.74	-0.0131078
8703.21	-0.0142825
8711.53	-0.0150417
8724	-0.0161537
8732.32	-0.0168805
8740.63	-0.0175973
8753.11	-0.0163667
8761.43	-0.0170539
8773.9	-0.0173708
8782.22	-0.0180936
8790.53	-0.018838
8803.01	-0.019903
8811.33	-0.0205685
8823.8	-0.0215001
8832.12	-0.0220841
8840.43	-0.0226434
8852.91	-0.0234426
8861.23	-0.0239522
8873.7	-0.0246872
8882.02	-0.0251606
8890.33	-0.0256228
8902.81	-0.0263262
8911.13	-0.0267793
8923.6	-0.0274385
8931.92	-0.0278694
8940.23	-0.0282948
8952.71	-0.0289671
8961.03	-0.0294534
8973.5	-0.0301382
8981.82	-0.0305683
8990.13	-0.0309796
9002.61	-0.0315645
9010.93	-0.0319348
9023.4	-0.0324631
9031.72	-0.0327982
9040.03	-0.0331205
9052.51	-0.0335807
9060.82	-0.0338728
9073.3	-0.0342897
9081.62	-0.0345503
9094.09	-0.0332574
9102.41	-0.0334367
9110.72	-0.0336131
9123.2	-0.0338589
9131.52	-0.0340108
9143.99	-0.0342215
9152.31	-0.0343502
9160.62	-0.0344694
9173.1	-0.0346266
9181.42	-0.0347172
9193.89	-0.0348334
9202.21	-0.0348987
9210.52	-0.0349551
9223	-0.0350242
9231.32	-0.0350607
9243.79	-0.0351028
9252.11	-0.035123
9260.42	-0.0351377
9272.9	-0.0351504
9281.22	-0.0351533
9293.69	-0.0351504
9302.01	-0.0351446
9310.32	-0.035136
9322.8	-0.035118
9331.12	-0.0351028
9343.59	-0.0350756
9351.91	-0.0350548
9360.22	-0.0350318
9372.7	-0.0349937
9381.02	-0.0349659
9393.49	-0.0349209
9401.81	-0.0348888
9410.12	-0.0348551
9422.6	-0.0348115
9430.91	-0.0347809
9443.39	-0.0347329
9451.71	-0.0346992
9460.02	-0.0346637
9472.5	-0.0346073
9480.81	-0.0345675
9493.29	-0.0345046
9501.61	-0.0344606
9514.08	-0.0343913
9522.4	-0.0343644
9530.71	-0.0343549
9543.19	-0.0343317
9551.51	-0.0343107
9563.98	-0.0342712
9572.3	-0.0342398
9580.61	-0.0342044
9593.09	-0.0341443
9601.41	-0.0340996
9613.88	-0.0340259
9622.2	-0.0339724
9630.51	-0.0339156
9642.99	-0.0338242
9651.31	-0.0337593
9663.78	-0.0336561
9672.1	-0.0335834
9680.41	-0.0335077
9692.89	-0.0333886
9701.21	-0.0333056
9713.68	-0.0331757
9722	-0.0330856
9730.31	-0.0329929
9742.79	-0.0328487
9751.11	-0.0327492
9763.58	-0.0325954
9771.9	-0.0324897
9780.21	-0.0316852
9792.69	-0.0315638
9801	-0.0314821
9813.48	-0.0313582
9821.8	-0.0312744
9830.11	-0.0311897
9842.59	-0.0303747
9850.9	-0.0302472
9863.38	-0.0300543
9871.7	-0.0299244
9880.01	-0.0297936
9892.49	-0.0295954
9900.8	-0.0294619
9913.28	-0.0292596
9921.6	-0.0291234
9934.07	-0.0289168
9942.39	-0.0287776
9950.7	-0.0286371
9963.18	-0.0284242
9971.5	-0.0282805
9983.97	-0.0280622
9992.29	-0.0279146
10000.6	-0.0277656
10013.1	-0.0275392
10021.4	-0.0273863
10033.9	-0.0271549
10042.2	-0.0269993
10050.5	-0.0268426
10063	-0.0266053
10071.3	-0.0264455
10083.8	-0.0262034
10092.1	-0.0260404
10100.4	-0.0258759
10112.9	-0.0256265
10121.2	-0.0254585
10133.7	-0.0252037
10142	-0.0250319
10150.3	-0.0248586
10162.7	-0.0245964
10171	-0.0244196
10183.5	-0.0241515
10191.8	-0.0239708
10200.1	-0.0237886
10212.5	-0.0235122
10220.8	-0.0233259
10233.3	-0.0230436
10241.6	-0.0228835
10254	-0.022684
10262.3	-0.022548
10270.6	-0.0224095
10283	-0.0221974
10291.3	-0.0220528
10303.8	-0.0218315
10312.1	-0.0216808
10320.4	-0.0215278
10332.8	-0.0212936
10341.1	-0.0211345
10353.6	-0.0208913
10361.8	-0.0207263
10370.1	-0.0205589
10382.6	-0.0203035
10390.9	-0.0201304
10403.3	-0.0198665
10411.6	-0.0196879
10424.1	-0.019416
10432.4	-0.019232
10440.7	-0.019046
10453.1	-0.0187633
10461.4	-0.0185727
10473.8	-0.0182843
10482.1	-0.0180903
10490.4	-0.0178949
10502.9	-0.0175991
10511.2	-0.0174002
10523.6	-0.0170994
10531.9	-0.0168971
10540.2	-0.0166936
10552.6	-0.0163858
10560.9	-0.016179
10573.4	-0.0158666
10581.7	-0.0156568
10594.1	-0.015319
10602.4	-0.0150662
10610.7	-0.014816
10623.2	-0.0144459
10631.5	-0.0142022
10643.9	-0.0138411
10652.2	-0.0136029
10660.5	-0.0133666
10672.9	-0.0130154
10681.2	-0.0127832
10693.7	-0.0124375
10702	-0.0122086
10710.3	-0.0119809
10722.7	-0.0116413
10731	-0.0114161
10743.5	-0.01108
10751.7	-0.0108569
10760	-0.0106345
10772.5	-0.0103023
10780.8	-0.0100816
10793.2	-0.0097517
10801.5	-0.00953262
10814	-0.00920526
10822.3	-0.00898787
10830.6	-0.00877114
10843	-0.00844733
10851.3	-0.0082323
10863.7	-0.0079107
10872	-0.00769693
10880.3	-0.0074837
10892.8	-0.007165
10901.1	-0.00695333
10913.5	-0.00663712
10921.8	-0.00642721
10930.1	-0.00621806
10942.6	-0.0059058
10950.8	-0.00569864
10963.3	-0.00538949
10971.6	-0.00518448
10984	-0.00487865
10992.3	-0.00467593
11000.6	-0.00447414
11013.1	-0.00417328
11021.4	-0.00397344
11033.9	-0.0036737
11042.4	-0.00347297
11050.9	-0.00327389
11063.6	-0.00298024
11072.3	-0.00278137
11081.1	-0.00258494
11094.2	-0.0022945
11102.9	-0.00210348
11111.7	-0.00191439
11120.4	-0.001701
11133.5	-0.0013996
11142.3	-0.00120902
11151	-0.00102527
11164.1	-0.000760081
11172.9	-0.000588916
11181.6	-0.000421325
11190.4	-0.000256629
11203.5	-1.37361e-05
11212.2	0.000146152
11221	0.000304902
11234.1	0.000541666
11242.8	0.000699036
11251.6	0.000856319
11260.3	0.00101373
11273.4	0.00125044
11282.2	0.00140886
11290.9	0.00156798
11304	0.00180285
11312.8	0.00195647
11321.5	0.00210821
11330.3	0.00225849
11343.4	0.00248197
11352.1	0.00263017
11360.9	0.00277811
11374	0.00300014
11382.7	0.00314858
11391.5	0.00329758
11400.2	0.00344709
11413.3	0.00367225
11422.1	0.003823
11430.8	0.00397432
11443.9	0.00420258
11452.7	0.00435567
11461.4	0.0045096
11470.2	0.00466451
11483.3	0.00489554
11492	0.00504626
11500.8	0.00519547
11513.9	0.00541816
11522.6	0.00556674
11531.4	0.00571599
11540.1	0.00586632
11553.2	0.00609448
11562	0.00624845
11570.7	0.00640386
11583.9	0.00663967
11592.6	0.00679872
11601.3	0.0069593
11610.1	0.0071215
11623.2	0.00751601
11631.9	0.00778797
11640.7	0.00806263
11653.8	0.00847495
11662.5	0.00874829
11671.3	0.0090198
11680	0.00928939
11693.1	0.00968955
11701.9	0.00995308
11710.6	0.0102142
11723.8	0.0106023
11732.5	0.010862
11741.2	0.0111247
11754.4	0.0115251
11763.1	0.0117962
11771.8	0.0120707
11780.6	0.0123485
11793.7	0.0127684
11802.4	0.0130495
11811.2	0.0133316
11824.3	0.0143433
11833.1	0.0149938
11841.8	0.015604
11850.5	0.0161717
11863.7	0.0169473
11872.4	0.0174317
11881.1	0.0179001
11894.3	0.0188692
11903	0.0194509
11911.7	0.0200009
11920.5	0.0205512
11933.6	0.0213963
11942.3	0.0219487
11951.1	0.0224761
11964.2	0.0232478
11973	0.0237561
11981.7	0.0242489
11990.4	0.024723
