0	0
18.3245	0
27.4866	0
36.6487	0
45.8107	0
54.9727	0
64.1347	0
73.2967	0
82.4587	0
91.6208	0
100.783	0
119.032	0
128.119	0
137.207	0
146.205	0
155.292	-9.09495e-13
164.291	-1.81899e-12
173.454	-2.72848e-12
182.616	-3.63798e-12
191.615	-5.45697e-12
200.777	-7.27596e-12
219.041	-1.18234e-11
228.172	-1.45519e-11
237.304	-1.81899e-11
246.436	-2.18279e-11
255.568	-2.63753e-11
264.699	-3.09228e-11
273.831	-3.54703e-11
282.962	-4.00178e-11
292.094	-4.45652e-11
301.226	-4.82032e-11
310.357	-5.09317e-11
328.491	-5.27507e-11
337.448	-5.00222e-11
346.404	-4.45652e-11
355.361	-3.45608e-11
364.317	-2.00089e-11
373.274	9.09495e-13
382.231	2.91038e-11
391.187	6.54836e-11
408.796	1.67347e-10
417.6	2.37378e-10
426.405	3.21961e-10
435.209	4.23825e-10
444.014	5.44787e-10
452.818	6.87578e-10
461.638	8.55835e-10
470.458	1.05229e-09
488.098	1.5425e-09
496.918	1.84536e-09
505.733	2.19188e-09
514.256	2.57478e-09
522.779	3.00952e-09
531.302	3.50155e-09
548.349	4.68117e-09
556.872	5.3833e-09
565.395	6.17001e-09
573.925	7.05131e-09
582.455	8.0372e-09
590.985	9.13678e-09
608.044	1.17234e-08
616.574	1.32277e-08
625.104	1.4883e-08
633.634	1.66956e-08
642.162	1.86701e-08
650.69	2.08129e-08
667.746	2.56277e-08
676.274	2.83117e-08
684.778	3.11802e-08
693.282	3.42488e-08
701.786	3.7523e-08
710.29	4.10046e-08
727.298	4.85943e-08
735.802	5.27007e-08
744.306	5.70117e-08
752.81	6.15246e-08
761.314	6.62358e-08
778.322	7.62384e-08
786.826	8.15235e-08
795.33	8.69923e-08
803.833	9.26429e-08
812.337	9.84737e-08
820.841	1.04484e-07
837.849	1.17038e-07
846.353	1.23586e-07
854.855	1.30317e-07
863.357	1.37237e-07
871.86	1.44353e-07
880.362	1.51673e-07
897.367	1.66969e-07
905.869	1.74973e-07
914.373	1.8324e-07
922.876	1.91788e-07
931.38	2.00642e-07
948.387	2.19381e-07
956.891	2.29333e-07
965.394	2.39724e-07
973.898	2.50598e-07
982.402	2.62004e-07
990.905	2.73996e-07
1007.91	2.9998e-07
1016.42	3.14107e-07
1024.92	3.29087e-07
1033.42	3.45001e-07
1041.93	3.61936e-07
1050.43	3.79982e-07
1067.44	4.19804e-07
1075.94	4.41792e-07
1084.44	4.65317e-07
1092.95	4.90506e-07
1101.45	5.17488e-07
1118.46	5.77397e-07
1126.96	6.10628e-07
1135.46	6.46261e-07
1143.97	6.84468e-07
1152.47	7.25435e-07
1160.97	7.69352e-07
1177.98	8.66867e-07
1186.48	9.20902e-07
1194.99	9.78769e-07
1203.49	1.04071e-06
1211.99	1.107e-06
1220.5	1.1779e-06
1237.5	1.3347e-06
1246.01	1.42122e-06
1254.51	1.51359e-06
1263.01	1.61214e-06
1271.52	1.71726e-06
1280.02	1.8293e-06
1297.02	2.07579e-06
1305.53	2.21108e-06
1314	2.35438e-06
1322.46	2.50737e-06
1330.93	2.67069e-06
1347.86	3.03033e-06
1356.33	3.22738e-06
1364.8	3.43631e-06
1373.26	3.65736e-06
1381.73	3.89076e-06
1390.2	4.13672e-06
1407.13	4.66714e-06
1415.6	4.95202e-06
1423.96	5.24654e-06
1432.32	5.55439e-06
1440.68	5.87586e-06
1457.39	6.5609e-06
1465.75	6.92519e-06
1474.11	7.30453e-06
1482.47	7.69939e-06
1490.83	8.11029e-06
1507.55	8.98248e-06
1515.91	9.44505e-06
1524.27	9.92622e-06
1532.63	1.04268e-05
1540.99	1.09476e-05
1557.71	1.20535e-05
1566.06	1.26407e-05
1574.42	1.32521e-05
1582.78	1.3889e-05
1591.14	1.45525e-05
1607.86	1.59649e-05
1616.22	1.67167e-05
1624.58	1.75007e-05
1632.94	1.83188e-05
1641.3	1.91724e-05
1658.01	2.09937e-05
1666.37	2.1965e-05
1674.73	2.29794e-05
1683.09	2.40386e-05
1691.45	2.51444e-05
1708.17	2.75012e-05
1716.53	2.87548e-05
1724.89	3.006e-05
1733.24	3.14181e-05
1741.6	3.283e-05
1758.31	3.58188e-05
1766.67	3.7399e-05
1775.03	3.90375e-05
1783.39	4.07355e-05
1791.75	4.24943e-05
1800.11	4.43153e-05
1816.82	4.81478e-05
1825.18	5.01638e-05
1833.54	5.22482e-05
1841.9	5.44026e-05
1850.26	5.66291e-05
1866.97	6.13065e-05
1875.33	6.37619e-05
1883.69	6.62984e-05
1892.05	6.89187e-05
1900.41	7.16256e-05
1917.13	7.73112e-05
1925.48	8.02963e-05
1933.84	8.33806e-05
1942.2	8.65679e-05
1950.56	8.98618e-05
1967.28	9.67849e-05
1975.64	0.000100422
1983.99	0.000104182
1992.35	0.00010807
2000.71	0.000112089
2017.43	0.000114681
2025.79	0.000113376
2034.15	0.000112314
2042.5	0.00011148
2050.86	0.000110861
2067.58	0.000110224
2075.94	0.000110186
2084.3	0.000110323
2092.66	0.000110626
2101.01	0.000111089
2117.73	0.00011247
2126.09	0.000113377
2134.45	0.000114423
2142.81	0.000115604
2151.16	0.000116917
2167.88	0.000119932
2176.24	0.000121631
2184.6	0.000123457
2192.96	0.00012541
2201.32	0.000127489
2218.03	0.000132032
2226.39	0.000134499
2234.75	0.000137099
2243.11	0.000139834
2251.47	0.000142706
2268.18	0.00014888
2276.54	0.000152187
2284.9	0.000155648
2293.26	0.000159265
2301.62	0.000163045
2318.33	0.000171109
2326.69	0.000175404
2335.05	0.000179883
2343.41	0.00018455
2351.77	0.000189411
2360.13	0.000194474
2376.84	0.000205229
2385.2	0.000210935
2393.56	0.00021688
2401.92	0.000223045
2410.27	0.000229409
2426.86	0.000242621
2435.16	0.000249494
2443.45	0.000256538
2451.75	0.000263749
2460.04	0.000271128
2476.64	0.000286387
2484.93	0.000294272
2493.23	0.000302332
2501.52	0.000310571
2518.11	0.000327612
2526.41	0.000336427
2534.71	0.00034545
2543	0.00035469
2551.3	0.000364156
2567.89	0.000383814
2576.18	0.00039403
2584.48	0.000404522
2592.78	0.000415304
2601.07	0.000426393
2617.66	0.000449552
2625.96	0.000461654
2634.25	0.000474126
2642.55	0.000486984
2650.85	0.000500243
2667.44	0.000528027
2675.73	0.000542582
2684.03	0.000557601
2692.32	0.000573099
2700.62	0.000589093
2717.21	0.000622634
2725.51	0.000640218
2733.8	0.000658369
2742.1	0.000677108
2750.39	0.000720924
2766.98	0.000808618
2775.28	0.00085218
2783.58	0.000895446
2791.87	0.000938398
2800.17	0.000981049
2816.76	0.00106561
2825.05	0.00110765
2833.35	0.00114964
2841.64	0.00119167
2858.23	0.00127633
2866.53	0.00131919
2874.83	0.00136255
2883.12	0.00140656
2891.42	0.00145133
2908.01	0.0015437
2916.3	0.00159157
2924.6	0.00164071
2932.89	0.00169128
2941.19	0.00174339
2957.78	0.00185235
2966.07	0.00190874
2974.37	0.00196623
2982.66	0.00202476
2990.96	0.00208433
3007.55	0.00220666
3015.85	0.00226956
3024.14	0.00233376
3032.44	0.00239939
3040.73	0.00246662
3057.32	0.00260667
3065.62	0.00267994
3073.91	0.0027557
3082.21	0.00283417
3090.5	0.00291559
3107.09	0.0030881
3115.39	0.00317959
3123.68	0.00339068
3131.98	0.00359514
3140.27	0.00379157
3156.86	0.00416183
3165.16	0.00433842
3173.45	0.00451191
3181.75	0.00468447
3190.05	0.0048583
3206.64	0.00521812
3214.93	0.00540809
3223.23	0.00560729
3231.52	0.0058176
3248.11	0.00625935
3256.41	0.00648927
3264.7	0.00672575
3273	0.0069702
3281.29	0.00722474
3297.88	0.00777597
3306.18	0.00838653
3314.47	0.00899054
3322.77	0.00956394
3331.06	0.0101165
3347.65	0.0112515
3355.95	0.011877
3364.24	0.0125617
3372.54	0.0133152
3380.83	0.0141155
3397.42	0.016693
3405.72	0.0181636
3414.02	0.0196358
3422.31	0.0211319
3430.61	0.0227354
3447.2	0.0263344
3455.49	0.0283062
3463.79	0.0305102
3472.08	0.0329184
3480.38	0.0354002
3496.97	0.0402845
3505.26	0.0426567
3513.56	0.0449744
3521.86	0.0472646
3530.15	0.0495649
3546.74	0.054305
3555.04	0.0567661
3563.33	0.0592866
3571.63	0.0618625
3588.22	0.0671735
3596.51	0.0699169
3604.81	0.0727297
3613.11	0.0756181
3621.4	0.0785835
3637.99	0.0847249
3646.29	0.0878833
3654.58	0.0910877
3662.88	0.0943314
3671.18	0.0976106
3687.77	0.104277
3696.06	0.107672
3704.36	0.111114
3712.65	0.11461
3720.95	0.118165
3737.54	0.125478
3745.84	0.129247
3754.13	0.133096
3762.43	0.137029
3770.73	0.141048
3787.32	0.149343
3795.63	0.153627
3803.95	0.157993
3812.27	0.16244
3820.58	0.166966
3837.21	0.176259
3845.53	0.181029
3853.85	0.185884
3862.16	0.190828
3870.48	0.195866
3887.11	0.206242
3895.43	0.211592
3903.74	0.217058
3912.06	0.222645
3920.38	0.228359
3937.01	0.240186
3945.33	0.246307
3953.64	0.25257
3961.96	0.258978
3970.28	0.265531
3986.91	0.279074
3995.23	0.286064
4003.54	0.293199
4011.86	0.300476
4020.18	0.307895
4036.81	0.323148
4045.12	0.330977
4053.44	0.338936
4061.76	0.347022
4070.07	0.355228
4086.71	0.37198
4095.02	0.380511
4103.34	0.389132
4111.66	0.397834
4128.29	0.415429
4136.61	0.424294
4145.08	0.43335
4153.55	0.442414
4162.02	0.451467
4170.49	0.460488
4187.44	0.478351
4195.91	0.487146
4204.38	0.495821
4212.86	0.504348
4221.33	0.512701
4238.28	0.528777
4246.75	0.536445
4255.23	0.543827
4263.7	0.550896
4272.18	0.557619
4280.65	0.563968
4297.6	0.575415
4306.07	0.580451
4314.55	0.584986
4323.02	0.588988
4331.53	0.592438
4340.03	0.595288
4357.04	0.599066
4365.54	0.599933
4374.05	0.60008
4382.55	0.59948
4391.06	0.598106
4408.06	0.59294
4416.57	0.589102
4425.07	0.5844
4433.57	0.578816
4442.08	0.572335
4450.58	0.564942
4467.59	0.547375
4476.09	0.537184
4484.6	0.526048
4493.1	0.513964
4501.61	0.500933
4510.11	0.486958
4527.11	0.456205
4535.62	0.439443
4544.12	0.421775
4552.62	0.403219
4561.12	0.383792
4578.13	0.342406
4586.63	0.320491
4595.13	0.297807
4603.64	0.274407
4612.14	0.250285
4620.64	0.225407
4637.65	0.173647
4646.15	0.147155
4654.66	0.12052
4663.16	0.0939423
4671.66	0.0626675
4680.17	0.0336783
4697.18	-0.0181111
4705.68	-0.0476199
4714.18	-0.0700977
4722.69	-0.0895719
4731.19	-0.10653
4748.2	-0.130146
4756.7	-0.139715
4765.21	-0.14976
4773.71	-0.160124
4782.21	-0.170484
4790.72	-0.161408
4807.73	-0.176875
4816.23	-0.183628
4824.73	-0.19254
4833.24	-0.200143
4841.74	-0.207105
4850.25	-0.213438
4867.25	-0.224396
4875.76	-0.22919
4884.26	-0.233662
4892.76	-0.237907
4901.27	-0.241588
4918.28	-0.248843
4926.78	-0.25212
4935.28	-0.255253
4943.79	-0.25825
4952.29	-0.261116
4960.8	-0.263849
4977.8	-0.268899
4986.31	-0.271215
4994.81	-0.259291
5003.31	-0.261459
5011.82	-0.263541
5020.32	-0.265606
5037.33	-0.27042
5045.83	-0.272793
5054.34	-0.274865
5062.84	-0.276673
5071.35	-0.278253
5088.28	-0.280827
5096.75	-0.281874
5105.21	-0.282785
5113.68	-0.283574
5122.15	-0.284256
5130.61	-0.284843
5147.55	-0.285782
5156.02	-0.286153
5164.48	-0.286467
5172.95	-0.286731
5181.42	-0.286951
5198.35	-0.287075
5206.82	-0.287149
5215.28	-0.287226
5223.75	-0.287297
5232.22	-0.287264
5240.58	-0.287214
5257.3	-0.287058
5265.65	-0.28695
5274.01	-0.286821
5282.37	-0.28667
5290.73	-0.286497
5307.45	-0.286082
5315.81	-0.285839
5324.17	-0.285572
5332.53	-0.285281
5340.89	-0.284968
5357.61	-0.284275
5365.97	-0.283891
5374.32	-0.283484
5382.68	-0.280549
5391.04	-0.277998
5407.76	-0.277789
5416.12	-0.277647
5424.48	-0.277482
5432.84	-0.277294
5441.2	-0.277083
5457.92	-0.276585
5466.28	-0.276293
5474.63	-0.275975
5482.99	-0.275632
5491.35	-0.275264
5508.07	-0.27446
5516.43	-0.274025
5524.79	-0.27357
5533.15	-0.273096
5541.5	-0.272603
5558.22	-0.271563
5566.58	-0.271017
5574.94	-0.270455
5583.29	-0.269877
5591.65	-0.269283
5600.01	-0.268674
5616.73	-0.267407
5625.09	-0.266749
5633.45	-0.266074
5641.8	-0.265382
5650.16	-0.264674
5666.88	-0.263204
5675.23	-0.262442
5683.59	-0.261663
5691.95	-0.260865
5700.31	-0.260049
5717.03	-0.258366
5725.39	-0.257503
5733.75	-0.256626
5742.11	-0.255736
5750.47	-0.254864
5767.19	-0.253069
5775.54	-0.252151
5783.9	-0.251221
5792.26	-0.250279
5800.62	-0.249325
5817.34	-0.247378
5825.7	-0.246333
5834.06	-0.245274
5842.42	-0.2442
5850.78	-0.243113
5867.5	-0.2409
5875.85	-0.239774
5884.21	-0.238635
5892.57	-0.237484
5900.93	-0.23632
5917.65	-0.233956
5926.01	-0.232755
5934.37	-0.231541
5942.73	-0.230315
5951.09	-0.229076
5967.81	-0.22656
5976.16	-0.225283
5984.52	-0.223993
5992.88	-0.222691
6001.24	-0.221377
6017.96	-0.218711
6026.32	-0.21736
6034.68	-0.215997
6043.04	-0.214623
6051.4	-0.213238
6068.12	-0.210434
6076.47	-0.209289
6084.83	-0.208105
6093.19	-0.20689
6101.55	-0.205651
6118.27	-0.203119
6126.63	-0.201832
6134.99	-0.200527
6143.35	-0.199207
6151.71	-0.197874
6160.07	-0.196528
6176.78	-0.193803
6185.14	-0.192424
6193.5	-0.191035
6201.86	-0.189635
6210.22	-0.188223
6226.94	-0.185365
6235.3	-0.183917
6243.66	-0.182456
6252.02	-0.180981
6260.38	-0.179492
6277.1	-0.17647
6285.45	-0.174935
6293.81	-0.173385
6302.17	-0.171818
6310.53	-0.170235
6327.24	-0.167018
6335.6	-0.16539
6343.96	-0.163754
6352.31	-0.162117
6360.61	-0.160489
6377.2	-0.157235
6385.49	-0.15561
6393.79	-0.153985
6402.08	-0.15236
6410.38	-0.150733
6426.97	-0.147467
6435.27	-0.145824
6443.56	-0.144172
6451.86	-0.142508
6460.15	-0.14083
6476.75	-0.137425
6485.04	-0.135696
6493.34	-0.133946
6501.63	-0.130342
6518.22	-0.12364
6526.52	-0.12054
6534.82	-0.117589
6543.11	-0.114763
6551.41	-0.112037
6568	-0.106785
6576.29	-0.104213
6584.59	-0.101649
6592.89	-0.0990763
6601.18	-0.0964802
6617.77	-0.0911698
6626.07	-0.0884364
6634.36	-0.0856796
6642.66	-0.0829145
6650.96	-0.0801465
6667.55	-0.0745907
6675.84	-0.071785
6684.14	-0.0689434
6692.43	-0.0660519
6700.73	-0.0630973
6717.32	-0.0523647
6725.62	-0.0472273
6733.91	-0.042319
6742.21	-0.0375636
6750.5	-0.0328467
6767.1	-0.0231957
6775.39	-0.0181899
6783.69	-0.0130649
6791.98	-0.00794826
6800.28	-0.00297573
6816.87	0.0126074
6825.17	0.0194003
6833.46	0.0258021
6841.76	0.032047
6850.05	0.0381957
6866.64	0.0501859
6874.94	0.0564744
6883.24	0.0627471
6891.53	0.0684642
6908.12	0.0773947
6916.42	0.0806775
6924.71	0.0832286
6933.01	0.085211
6941.31	0.0868171
6957.9	0.0894363
6966.19	0.0905721
6974.49	0.0916149
6982.78	0.0925705
6991.08	0.0934494
7007.67	0.0950546
7015.97	0.0958451
7024.26	0.0966697
7032.56	0.0975486
7040.85	0.098484
7057.45	0.100438
7065.74	0.101384
7074.04	0.102252
7082.33	0.103009
7090.63	0.103629
7107.22	0.10442
7115.52	0.104606
7123.81	0.104675
7132.11	0.104657
7140.4	0.10458
7157	0.104368
7165.29	0.104286
7173.59	0.104246
7181.88	0.104262
7190.18	0.104335
7206.77	0.104625
7215.07	0.104809
7223.36	0.104988
7231.66	0.105138
7248.25	0.105259
7256.54	0.105196
7264.84	0.105037
7273.14	0.104777
7281.43	0.104419
7298.02	0.103437
7306.32	0.102837
7314.61	0.102185
7322.91	0.101499
7331.21	0.100795
7347.8	0.0994095
7356.09	0.0987588
7364.39	0.0981542
7372.68	0.0976059
7380.98	0.0971213
7397.57	0.096358
7405.87	0.0960805
7414.16	0.09587
7422.46	0.0957226
7430.76	0.0956338
7447.35	0.0956111
7455.66	0.0956674
7463.98	0.0957627
7472.3	0.0958929
7480.61	0.0960544
7497.25	0.0964593
7505.56	0.0966972
7513.88	0.096955
7522.2	0.0972298
7530.51	0.0975183
7547.15	0.0981214
7555.46	0.0984271
7563.78	0.098729
7572.1	0.0990217
7580.41	0.0992996
7597.05	0.0997885
7605.36	0.0999888
7613.68	0.100153
7621.99	0.100277
7630.31	0.100358
7646.94	0.10038
7655.26	0.10032
7663.58	0.100213
7671.89	0.100059
7680.21	0.0998617
7696.84	0.0993467
7705.16	0.0990361
7713.48	0.098695
7721.79	0.0983274
7730.11	0.097937
7746.74	0.0971028
7755.06	0.0966659
7763.38	0.0962199
7771.69	0.0957679
7780.01	0.0953126
7796.64	0.0944022
7804.96	0.0939517
7813.28	0.0935073
7821.59	0.0930707
7838.23	0.0922267
7846.54	0.0918213
7854.86	0.0914276
7863.18	0.0910454
7871.49	0.0906737
7888.13	0.0899555
7896.44	0.0896041
7904.76	0.0892537
7913.08	0.0889003
7921.39	0.0885397
7938.03	0.0877785
7946.34	0.0873684
7954.66	0.0869323
7962.98	0.086466
7971.29	0.0859653
7987.92	0.0848472
7996.24	0.0842242
8004.56	0.0835561
8012.87	0.0828417
8021.19	0.0820805
8037.82	0.0804186
8046.14	0.0795195
8054.46	0.078577
8062.77	0.0775927
8071.09	0.0765686
8087.72	0.07441
8096.04	0.0732801
8104.36	0.0721193
8112.67	0.07093
8120.99	0.0697142
8137.62	0.067211
8145.94	0.0659272
8154.26	0.0646239
8162.57	0.0633027
8170.89	0.0619645
8187.52	0.0592408
8195.84	0.0578562
8204.16	0.0564567
8212.47	0.0550419
8220.79	0.0536111
8237.42	0.0506957
8245.74	0.0492073
8254.06	0.0476949
8262.37	0.0461552
8270.69	0.0445842
8287.32	0.0413301
8295.64	0.0396354
8303.96	0.0378859
8312.27	0.036072
8320.59	0.0341833
8337.22	0.0301323
8345.54	0.0279289
8353.86	0.0255984
8362.17	0.0231418
8370.49	0.0205438
8387.12	0.0143873
8395.44	0.0110382
8403.76	0.00724232
8412.07	0.004348
8420.39	0.000665016
8437.02	-0.0050704
8445.34	-0.00725388
8453.65	-0.00930814
8461.97	-0.0113102
8470.29	-0.0108787
8486.92	-0.013392
8495.24	-0.014984
8503.55	-0.0168837
8511.87	-0.0185313
8520.19	-0.0200622
8536.82	-0.0229012
8545.14	-0.0242408
8553.45	-0.0257444
8561.77	-0.0271666
8570.09	-0.0286743
8586.72	-0.0312485
8595.04	-0.0323829
8603.35	-0.0334434
8611.67	-0.0344418
8628.3	-0.0339413
8636.62	-0.0346863
8644.94	-0.0353913
8653.25	-0.0360677
8661.57	-0.0357666
8678.2	-0.037254
8686.52	-0.0379823
8694.84	-0.0386513
8703.15	-0.039271
8711.47	-0.0398498
8728.1	-0.0409023
8736.42	-0.0413861
8744.74	-0.0418483
8753.05	-0.0422938
8761.37	-0.0427264
8778	-0.0435639
8786.32	-0.0439727
8794.64	-0.0443767
8802.95	-0.0447766
8811.27	-0.0451731
8827.9	-0.045858
8836.22	-0.0462129
8844.54	-0.0467031
8852.85	-0.0471664
8861.17	-0.0476052
8877.8	-0.048416
8886.12	-0.0487909
8894.44	-0.0491469
8902.75	-0.0494847
8911.07	-0.0498052
8927.7	-0.0503966
8936.02	-0.0506689
8944.34	-0.0509264
8952.65	-0.0511697
8960.97	-0.0513996
8977.6	-0.0518214
8985.92	-0.0486198
8994.24	-0.0467984
9002.55	-0.0470261
9010.87	-0.0472116
9027.5	-0.0475602
9035.82	-0.0477236
9044.13	-0.0478789
9052.45	-0.0480261
9060.77	-0.0481613
9077.4	-0.0483983
9085.72	-0.0485015
9094.03	-0.0485955
9102.35	-0.0486809
9110.67	-0.0487583
9127.3	-0.0488916
9135.62	-0.0489487
9143.93	-0.0490003
9152.25	-0.0490471
9160.57	-0.0490895
9177.2	-0.0491635
9185.52	-0.049196
9193.83	-0.0492258
9202.15	-0.049253
9210.47	-0.0492777
9227.1	-0.0493198
9235.42	-0.0493373
9243.73	-0.0493523
9252.05	-0.0493649
9260.37	-0.0493749
9277	-0.0493869
9285.32	-0.0493894
9293.63	-0.049412
9301.95	-0.0494285
9310.27	-0.0494393
9326.9	-0.0494436
9335.22	-0.0494374
9343.53	-0.0494257
9351.85	-0.049406
9360.17	-0.049379
9376.8	-0.0493039
9385.12	-0.0492567
9393.43	-0.0492033
9401.75	-0.0491442
9410.07	-0.0491517
9426.7	-0.0491377
9435.02	-0.0491172
9443.31	-0.0490881
9451.61	-0.049051
9468.2	-0.0489539
9476.5	-0.0488945
9484.79	-0.0488283
9493.09	-0.0487555
9501.38	-0.0486765
9517.97	-0.0485004
9526.27	-0.0484038
9534.57	-0.0483018
9542.86	-0.0481945
9551.16	-0.0480821
9567.75	-0.0478426
9576.04	-0.0477159
9584.34	-0.0475847
9592.64	-0.0474491
9600.93	-0.0473092
9617.52	-0.0470173
9625.82	-0.0468655
9634.12	-0.0467099
9642.41	-0.0465507
9650.71	-0.046388
9667.3	-0.0459986
9675.59	-0.0458553
9683.89	-0.0457117
9692.19	-0.0455675
9700.48	-0.0454227
9717.07	-0.0451305
9725.37	-0.0449829
9733.67	-0.0448341
9741.96	-0.0446839
9750.26	-0.0445324
9766.85	-0.0442218
9775.14	-0.0440628
9783.44	-0.0439013
9791.74	-0.0437372
9800.03	-0.0435705
9816.62	-0.0432293
9824.92	-0.0430547
9833.21	-0.0428775
9841.51	-0.0426976
9858.1	-0.0423297
9866.4	-0.0421417
9874.69	-0.0418839
9882.99	-0.0416261
9891.29	-0.0413681
9907.88	-0.0408512
9916.17	-0.0405919
9924.47	-0.040332
9932.76	-0.0400713
9941.06	-0.0398097
9957.65	-0.0392836
9965.95	-0.0390188
9974.24	-0.0387529
9982.54	-0.0384857
9990.83	-0.0382171
10007.4	-0.0376758
10015.7	-0.0374029
10024	-0.0371285
10032.3	-0.0368525
10040.6	-0.0365749
10057.2	-0.0360146
10065.5	-0.0357318
10073.8	-0.0354472
10082.1	-0.0351608
10090.4	-0.0348725
10107	-0.0342904
10115.3	-0.0339965
10123.6	-0.0337007
10131.9	-0.0334031
10140.2	-0.0331036
10156.8	-0.032499
10165	-0.032194
10173.3	-0.031887
10181.6	-0.0315783
10198.2	-0.0309554
10206.5	-0.0306412
10214.8	-0.0303253
10223.1	-0.0300075
10231.4	-0.029688
10248	-0.0290439
10256.3	-0.0287193
10264.6	-0.0283929
10272.9	-0.028065
10281.2	-0.0277354
10297.8	-0.0270715
10306.1	-0.0267372
10314.4	-0.0264014
10322.7	-0.0260663
10331	-0.0257318
10347.6	-0.025064
10355.8	-0.024731
10364.1	-0.0243987
10372.4	-0.024067
10380.7	-0.0237356
10397.3	-0.0230736
10405.6	-0.0227427
10413.9	-0.0224119
10422.2	-0.0220808
10430.5	-0.0217497
10447.1	-0.0210872
10455.4	-0.0207558
10463.7	-0.0204243
10472	-0.0200927
10480.3	-0.0197611
10496.9	-0.0190976
10505.2	-0.0187075
10513.5	-0.018321
10521.8	-0.0179379
10530.1	-0.0175582
10546.7	-0.0168081
10554.9	-0.0164396
10563.2	-0.0160759
10571.5	-0.0157167
10588.1	-0.0150105
10596.4	-0.0146629
10604.7	-0.0143189
10613	-0.013978
10621.3	-0.0136401
10637.9	-0.0129722
10646.2	-0.0126419
10654.5	-0.0123136
10662.8	-0.0119873
10671.1	-0.0116629
10687.7	-0.0110189
10696	-0.0106992
10704.3	-0.0103809
10712.6	-0.0100639
10720.9	-0.00974818
10737.5	-0.00912015
10745.8	-0.00880778
10754	-0.00849655
10762.3	-0.00818649
10770.6	-0.00787765
10787.2	-0.00726369
10795.5	-0.00692983
10803.8	-0.00661153
10812.1	-0.00630678
10820.4	-0.0060138
10837	-0.00545698
10845.3	-0.00519045
10853.6	-0.00493029
10861.9	-0.0046755
10870.2	-0.00442518
10886.8	-0.00393492
10895.1	-0.00369364
10903.4	-0.00345419
10911.7	-0.00321608
10928.3	-0.00274228
10936.6	-0.00250591
10944.9	-0.00226952
10953.1	-0.00203288
10961.4	-0.00179581
10978	-0.00131952
10986.3	-0.00108442
10994.6	-0.000852232
11002.9	-0.000622392
11011.2	-0.000394356
11027.9	5.94429e-05
11036.2	0.000285546
11044.5	0.000511662
11052.8	0.000737897
11061.1	0.000964372
11077.8	0.00141241
11086.1	0.00162926
11094.4	0.00184292
11102.7	0.00205441
11111	0.00226461
11127.7	0.00268419
11136	0.00289486
11144.3	0.00310669
11152.6	0.00332019
11161.1	0.00353977
11178	0.0039865
11186.5	0.00421406
11195	0.00444456
11203.4	0.00467808
11211.9	0.00491453
11220.4	0.00515386
11237.3	0.00568799
11245.8	0.00601132
11254.3	0.00635618
11262.8	0.0067153
11271.2	0.00708335
11288.2	0.0078338
11296.6	0.00821386
11305.1	0.00859495
11313.6	0.008976
11322.1	0.0093562
11330.5	0.00973494
11347.7	0.0104941
11356.2	0.01087
11364.8	0.0112429
11373.4	0.0116123
11381.9	0.0119782
11390.5	0.0123406
11407.6	0.0136124
11416.2	0.0145335
11424.7	0.0154063
11433.3	0.0162161
11441.9	0.0169557
11450.4	0.017632
11467.5	0.0191686
11476.1	0.0197455
11484.7	0.0203501
11493.2	0.0209344
11501.8	0.0215469
11510.3	0.0221781
11527.5	0.0234466
11536	0.0240865
11544.6	0.024648
11553.2	0.0252051
11561.7	0.0257596
11570.3	0.0263459
11587.4	0.0275986
11596	0.0282453
11604.5	0.0288988
11613.1	0.0295595
11621.6	0.0302291
11630.2	0.030908
11647.3	0.0322786
11655.9	0.0329625
11664.5	0.0336443
11673	0.034325
11681.6	0.0350039
11690.1	0.0356788
11707.3	0.0370047
11715.8	0.0376504
11724.4	0.0382828
11733	0.0389015
11741.5	0.0395068
11750.1	0.040099
11767.2	0.0412429
11775.9	0.0418053
11784.7	0.0423522
11793.4	0.0428832
11802.2	0.0433984
11810.9	0.043898
11828.4	0.0448523
11837.2	0.045308
11845.9	0.0457503
11854.6	0.0461798
11863.4	0.0465966
11872.1	0.0470008
11880.9	0.0473917
11898.4	0.0481292
11907.1	0.0484724
11915.8	0.0487961
11924.6	0.049098
11933.3	0.0493763
11942.1	0.0496293
11950.8	0.0498556
11968.3	0.0502256
11977.1	0.0503692
11985.8	0.0504861
11994.5	0.0505778
