0	0
11.3039	0
20.9928	0
30.6817	0
40.3705	0
50.0592	0
61.3626	0
71.0512	0
80.7397	0
90.4281	0
100.116	0
111.419	0
121.108	0
130.796	0
140.484	0
150.173	0
161.476	0
171.164	0
180.802	0
190.429	0
201.584	0
211.097	0
220.611	0
230.133	0
241.24	0
250.758	0
260.276	0
271.381	0
280.873	5.45697e-12
290.36	1.09139e-11
301.428	1.72804e-11
310.919	2.27374e-11
320.411	3.00133e-11
331.486	4.27463e-11
340.978	5.45697e-11
350.47	7.09406e-11
361.544	9.45874e-11
371.037	1.20053e-10
380.529	1.50976e-10
390.021	1.88265e-10
401.081	2.42835e-10
410.573	3.00133e-10
420.026	3.68345e-10
430.962	4.63842e-10
440.336	5.62068e-10
451.273	6.98492e-10
460.598	8.37645e-10
471.304	1.02591e-09
480.48	1.21508e-09
491.192	1.47156e-09
500.402	1.72895e-09
511.152	2.07547e-09
520.333	2.41653e-09
530.934	2.86855e-09
541.498	3.38696e-09
550.553	3.89082e-09
561.096	4.55384e-09
570.131	5.19412e-09
580.664	6.03359e-09
591.179	6.98037e-09
600.192	7.88623e-09
610.712	9.06402e-09
621.244	1.03828e-08
630.272	1.16361e-08
640.804	1.32513e-08
651.336	1.50467e-08
660.364	1.67411e-08
670.896	1.8912e-08
681.429	2.13104e-08
690.456	2.35614e-08
700.988	2.64326e-08
710.016	2.91129e-08
720.547	3.2509e-08
731.06	3.61988e-08
740.052	3.96012e-08
750.542	4.38613e-08
761.043	4.84497e-08
770.042	5.26461e-08
780.54	5.78593e-08
791.038	6.34236e-08
800.036	6.84813e-08
810.534	7.47286e-08
821.032	8.13579e-08
830.03	8.73479e-08
840.528	9.46948e-08
851.026	1.02425e-07
860.024	1.09352e-07
870.521	1.17781e-07
881.019	1.26576e-07
890.017	1.34399e-07
900.515	1.43848e-07
911.012	1.53638e-07
920.01	1.62293e-07
930.508	1.72691e-07
941.006	1.83406e-07
950.004	1.92837e-07
960.501	2.04124e-07
970.999	2.15715e-07
981.496	2.27609e-07
990.494	2.38048e-07
1000.99	2.50513e-07
1011.49	2.63296e-07
1020.49	2.74514e-07
1030.98	2.87918e-07
1041.48	3.01683e-07
1050.48	3.13786e-07
1060.98	3.28286e-07
1071.47	3.43227e-07
1080.47	3.56415e-07
1090.97	3.72283e-07
1101.47	3.88727e-07
1110.46	4.03323e-07
1120.96	4.21001e-07
1131.46	4.39452e-07
1140.46	4.55952e-07
1150.95	4.76083e-07
1161.45	4.97271e-07
1170.45	5.16362e-07
1180.95	5.39833e-07
1191.44	5.64727e-07
1200.44	5.87313e-07
1210.94	6.15258e-07
1221.44	6.45085e-07
1230.43	6.72286e-07
1240.93	7.06101e-07
1251.43	7.42352e-07
1260.43	7.75531e-07
1270.92	8.16898e-07
1281.42	8.61363e-07
1290.42	9.02138e-07
1300.91	9.53052e-07
1311.41	1.00783e-06
1320.4	1.05808e-06
1330.84	1.1205e-06
1341.27	1.18764e-06
1350.22	1.24921e-06
1360.68	1.32629e-06
1371.14	1.40919e-06
1380.11	1.48518e-06
1390.58	1.57998e-06
1401.04	1.6818e-06
1410.01	1.775e-06
1420.45	1.89088e-06
1430.88	2.01574e-06
1441.31	2.14998e-06
1450.23	2.27264e-06
1460.63	2.42501e-06
1471.04	2.58754e-06
1481.47	2.76074e-06
1490.41	2.9175e-06
1500.83	3.10997e-06
1511.26	3.31336e-06
1520.2	3.49636e-06
1530.63	3.72014e-06
1541.06	3.95523e-06
1551.49	4.20193e-06
1560.42	4.42284e-06
1570.85	4.69211e-06
1581.28	4.97419e-06
1590.08	5.22234e-06
1600.31	5.52356e-06
1610.54	5.83879e-06
1620.9	6.17315e-06
1631.26	6.52302e-06
1640.1	6.83525e-06
1650.42	7.2159e-06
1660.74	7.61525e-06
1671.06	8.03443e-06
1681.38	8.47469e-06
1690.23	8.86987e-06
1700.55	9.35296e-06
1710.87	9.86125e-06
1721.19	1.03964e-05
1730.03	1.08777e-05
1740.35	1.14672e-05
1750.67	1.20888e-05
1760.99	1.27443e-05
1771.31	1.34359e-05
1780.16	1.40591e-05
1790.48	1.48237e-05
1800.8	1.56307e-05
1811.12	1.6482e-05
1821.44	1.73795e-05
1830.28	1.81867e-05
1840.6	1.91738e-05
1850.92	2.02107e-05
1861.22	2.12978e-05
1870.06	2.22714e-05
1880.36	2.34575e-05
1890.67	2.46993e-05
1900.99	2.59975e-05
1911.3	2.73536e-05
1920.14	2.85632e-05
1930.45	3.00308e-05
1940.77	3.15609e-05
1951.08	3.31553e-05
1961.39	3.48162e-05
1970.23	3.62943e-05
1980.54	3.80845e-05
1990.86	3.99481e-05
2001.17	4.18878e-05
2010.01	4.36133e-05
2020.32	4.57026e-05
2030.63	4.78773e-05
2040.95	5.01411e-05
2051.26	5.24976e-05
2060.1	5.45945e-05
2070.41	5.71344e-05
2080.72	5.97793e-05
2091.04	6.25337e-05
2101.35	6.54027e-05
2110.19	6.79568e-05
2120.5	7.10521e-05
2130.81	7.42773e-05
2141.13	7.76382e-05
2151.44	7.82434e-05
2160.28	7.70998e-05
2170.59	7.60132e-05
2180.9	7.51758e-05
2191.22	7.45712e-05
2200.06	7.42272e-05
2210.37	7.40175e-05
2220.68	7.40023e-05
2230.99	7.41707e-05
2241.31	7.45131e-05
2250.14	7.49385e-05
2260.46	7.55825e-05
2270.77	7.63794e-05
2281.08	7.73242e-05
2291.39	7.84127e-05
2300.23	7.94575e-05
2310.55	8.08049e-05
2320.86	8.22891e-05
2331.17	8.39093e-05
2340.01	8.54063e-05
2350.32	8.72797e-05
2360.64	8.92909e-05
2370.95	9.14422e-05
2381.26	9.3736e-05
2390.1	9.5818e-05
2400.41	9.83855e-05
2410.72	0.000101106
2421.04	0.000103985
2431.35	0.000107026
2440.19	0.000109767
2450.5	0.000113127
2460.81	0.000116666
2471.12	0.000120392
2481.44	0.000124311
2490.26	0.000127825
2500.57	0.000132124
2510.89	0.000136638
2521.19	0.000141374
2531.44	0.000146315
2540.23	0.000150722
2550.48	0.000156049
2560.75	0.000161575
2571.03	0.000167285
2581.3	0.000173171
2590.11	0.000178354
2600.38	0.00018456
2610.65	0.000190941
2620.93	0.000197498
2631.2	0.000204236
2640	0.000210161
2650.28	0.000217254
2660.55	0.000224551
2670.82	0.00023206
2681.1	0.000239795
2691.37	0.000247767
2700.18	0.0002548
2710.45	0.000263253
2720.72	0.000271988
2731	0.000281023
2741.27	0.000290377
2750.08	0.000298663
2760.35	0.000308659
2770.62	0.000319029
2780.9	0.000329792
2791.17	0.000340964
2801.44	0.000352566
2810.23	0.000362843
2820.47	0.000375256
2830.72	0.00038815
2840.96	0.000401545
2851.21	0.00041546
2861.45	0.000429919
2870.23	0.000442761
2880.48	0.000458289
2890.72	0.00047443
2900.97	0.000506711
2911.22	0.000545169
2921.46	0.00058336
2930.24	0.000615832
2940.49	0.000653395
2950.73	0.000690639
2960.98	0.000727618
2971.22	0.000764416
2980	0.000795887
2990.25	0.000832626
3000.49	0.00086951
3010.74	0.000906677
3020.98	0.000944272
3031.23	0.000982444
3040.01	0.00101574
3050.26	0.00105538
3060.5	0.00109604
3070.75	0.00113786
3080.99	0.00118098
3091.24	0.00122556
3100.02	0.00126495
3110.26	0.00131214
3120.51	0.00136046
3130.75	0.00140981
3141	0.00146016
3151.24	0.00151152
3160.02	0.0015564
3170.27	0.00160986
3180.51	0.00166464
3190.76	0.00172093
3201	0.00177893
3211.25	0.0018389
3220.03	0.00189205
3230.27	0.00195631
3240.52	0.00202322
3250.76	0.00209299
3261.01	0.00216585
3271.25	0.00224203
3280.03	0.00231
3290.28	0.00246163
3300.52	0.00263433
3310.77	0.00279871
3321.01	0.00295625
3331.26	0.00310909
3340.04	0.00323816
3350.28	0.00338869
3360.53	0.00354141
3370.77	0.00369857
3381.02	0.00386207
3391.26	0.00403188
3400.04	0.00418136
3410.29	0.00436009
3420.53	0.00454417
3430.78	0.00473515
3441.02	0.00493517
3451.27	0.0051466
3460.05	0.00533855
3470.29	0.0056478
3480.54	0.00613036
3490.78	0.00659414
3501.03	0.00704962
3511.27	0.00751226
3520.05	0.0079255
3530.3	0.00842627
3540.54	0.00893993
3550.79	0.00947628
3561.03	0.0100545
3571.27	0.0111728
3580.06	0.0120004
3590.3	0.0129979
3600.54	0.014095
3610.79	0.0156617
3621.03	0.017769
3631.28	0.0202578
3640.06	0.0243545
3650.3	0.0282539
3660.55	0.0318421
3670.79	0.0351715
3681.04	0.0382791
3691.28	0.0412762
3700.06	0.0437803
3710.31	0.0466633
3720.55	0.0495634
3730.8	0.0524924
3741.04	0.0554024
3751.29	0.0582453
3760.07	0.0606272
3770.31	0.063375
3780.56	0.0661295
3790.8	0.068921
3801.04	0.0717659
3811.29	0.0746621
3820.07	0.0771697
3830.32	0.0801013
3840.56	0.0830249
3850.8	0.0859433
3861.05	0.0888728
3871.29	0.0918348
3880.08	0.0944153
3890.32	0.0974898
3900.56	0.100642
3910.81	0.103876
3921.05	0.107191
3931.3	0.110589
3940.08	0.113576
3950.33	0.117159
3960.57	0.120865
3970.82	0.124707
3981.06	0.128695
3991.31	0.132833
4000.09	0.136501
4010.33	0.140926
4020.58	0.145518
4030.82	0.150293
4041.07	0.155275
4051.31	0.160491
4060.09	0.16517
4070.34	0.170896
4080.58	0.176938
4090.83	0.18332
4101.1	0.190091
4111.38	0.197261
4120.18	0.203747
4130.45	0.211736
4140.73	0.220207
4151	0.229182
4161.27	0.238682
4170.08	0.247254
4180.35	0.257768
4190.62	0.268844
4200.9	0.280489
4211.17	0.292709
4221.44	0.305506
4230.25	0.316932
4240.53	0.330798
4250.81	0.345228
4261.1	0.360201
4271.39	0.375683
4280.23	0.389363
4290.59	0.405802
4300.95	0.422629
4311.31	0.43978
4320.19	0.454683
4330.63	0.472369
4341.08	0.490173
4350.05	0.505431
4360.51	0.523121
4370.98	0.540586
4381.45	0.5577
4390.43	0.57198
4400.9	0.588067
4411.37	0.603398
4420.35	0.615828
4430.82	0.629368
4441.29	0.641729
4450.27	0.651272
4460.74	0.661043
4471.21	0.669207
4480.18	0.674815
4490.66	0.679611
4501.13	0.682398
4510.1	0.683091
4520.58	0.681816
4531.05	0.678194
4540.02	0.67315
4550.5	0.664931
4560.97	0.654136
4571.44	0.640718
4580.42	0.627107
4590.89	0.608761
4601.36	0.587767
4610.34	0.567688
4620.81	0.541876
4631.28	0.51356
4640.26	0.48736
4650.73	0.454634
4661.2	0.419689
4670.18	0.388061
4680.65	0.349321
4691.12	0.308714
4700.1	0.272511
4710.57	0.228742
4721.04	0.183415
4730.02	0.143406
4740.49	0.0954745
4750.96	0.0467261
4761.43	-0.00439498
4770.41	-0.0360109
4780.88	-0.0478344
4791.35	-0.0728168
4800.33	-0.0906522
4810.8	-0.106867
4821.27	-0.120398
4830.25	-0.122954
4840.72	-0.136292
4851.19	-0.146527
4860.17	-0.153946
4870.64	-0.161465
4881.12	-0.167552
4890.09	-0.172584
4900.57	-0.178219
4911.04	-0.18347
4920.02	-0.176907
4930.49	-0.179999
4940.97	-0.185831
4951.46	-0.19074
4960.46	-0.194311
4970.96	-0.197879
4981.46	-0.200942
4990.46	-0.203254
5000.95	-0.205677
5011.45	-0.207877
5020.45	-0.209264
5030.95	-0.210915
5041.45	-0.212365
5050.44	-0.21361
5060.94	-0.21504
5071.44	-0.216419
5080.44	-0.217546
5090.93	-0.218784
5101.43	-0.219919
5110.43	-0.220737
5120.93	-0.214588
5131.43	-0.21563
5140.42	-0.2169
5150.92	-0.218243
5161.42	-0.219399
5170.42	-0.22023
5180.91	-0.221035
5191.41	-0.221683
5200.41	-0.222124
5210.91	-0.222516
5221.41	-0.222791
5230.4	-0.222941
5240.9	-0.223023
5251.4	-0.223016
5260.4	-0.222945
5270.89	-0.222795
5281.39	-0.222579
5290.39	-0.222347
5300.89	-0.221991
5311.39	-0.221555
5320.38	-0.221166
5330.88	-0.220701
5341.38	-0.220179
5350.38	-0.219642
5360.87	-0.219012
5371.37	-0.218377
5380.31	-0.21783
5390.75	-0.217184
5401.18	-0.21653
5410.15	-0.21596
5420.61	-0.215286
5431.08	-0.214602
5440.05	-0.214009
5450.51	-0.213309
5460.98	-0.212603
5471.42	-0.211884
5480.37	-0.21126
5490.8	-0.210526
5501.24	-0.206636
5510.16	-0.206073
5520.57	-0.205437
5530.98	-0.204821
5541.38	-0.20423
5550.32	-0.203747
5560.75	-0.203207
5571.17	-0.202691
5580.11	-0.202267
5590.54	-0.201793
5600.97	-0.201339
5611.4	-0.200904
5620.34	-0.200546
5630.77	-0.200143
5641.2	-0.199755
5650.14	-0.199433
5660.57	-0.199067
5670.93	-0.198712
5681.16	-0.198369
5691.42	-0.19803
5700.3	-0.197737
5710.66	-0.197396
5720.98	-0.197053
5731.3	-0.196703
5740.14	-0.196396
5750.46	-0.196027
5760.78	-0.195644
5771.1	-0.195245
5781.42	-0.194828
5790.27	-0.194455
5800.59	-0.193999
5810.91	-0.193521
5821.23	-0.193017
5830.07	-0.192565
5840.39	-0.192012
5850.71	-0.191442
5861.03	-0.190862
5871.35	-0.19024
5880.2	-0.189676
5890.52	-0.188982
5900.84	-0.188249
5911.16	-0.187478
5920.01	-0.186754
5930.31	-0.185838
5940.62	-0.184888
5950.92	-0.183904
5961.22	-0.182891
5970.06	-0.182001
5980.37	-0.180941
5990.68	-0.17986
6001	-0.17876
6011.31	-0.177644
6020.15	-0.176676
6030.46	-0.175534
6040.78	-0.174381
6051.09	-0.173218
6061.4	-0.172045
6070.24	-0.171033
6080.55	-0.169846
6090.87	-0.168652
6101.18	-0.167452
6110.02	-0.166419
6120.33	-0.165209
6130.64	-0.163996
6140.96	-0.162778
6151.27	-0.161557
6160.11	-0.160508
6170.42	-0.159282
6180.73	-0.158053
6191.05	-0.156822
6201.36	-0.15559
6210.2	-0.154532
6220.51	-0.153297
6230.83	-0.156166
6241.14	-0.155445
6251.45	-0.154656
6260.29	-0.153906
6270.6	-0.153035
6280.92	-0.152167
6291.23	-0.151304
6300.07	-0.150566
6310.38	-0.149707
6320.69	-0.14885
6331.01	-0.147673
6341.32	-0.146346
6350.16	-0.145195
6360.47	-0.143843
6370.78	-0.142486
6381.1	-0.141128
6391.41	-0.139771
6400.25	-0.138609
6410.56	-0.137258
6420.87	-0.135911
6431.19	-0.134569
6440.03	-0.133421
6450.34	-0.132086
6460.65	-0.130753
6470.96	-0.129423
6481.28	-0.128095
6490.12	-0.126958
6500.43	-0.125631
6510.74	-0.124304
6521.05	-0.122975
6531.37	-0.121645
6540.21	-0.120503
6550.52	-0.119168
6560.83	-0.11783
6571.14	-0.116492
6581.46	-0.115157
6590.3	-0.114018
6600.61	-0.112697
6610.92	-0.111384
6621.24	-0.110081
6630.07	-0.108969
6640.39	-0.107679
6650.7	-0.106394
6661.01	-0.105113
6671.33	-0.103833
6680.16	-0.102735
6690.48	-0.101451
6700.76	-0.100165
6711.01	-0.0988761
6721.26	-0.0975781
6730.06	-0.0964562
6740.33	-0.0951349
6750.6	-0.0925889
6760.88	-0.0900035
6771.15	-0.0875834
6781.42	-0.0853116
6790.23	-0.0834644
6800.5	-0.0814027
6810.78	-0.0794166
6821.05	-0.0774817
6831.32	-0.0755762
6840.13	-0.0739521
6850.4	-0.0720541
6860.68	-0.0701409
6870.95	-0.0682101
6881.22	-0.0662738
6890.03	-0.0646157
6900.3	-0.0626825
6910.57	-0.0607445
6920.85	-0.0587914
6931.12	-0.0568118
6941.39	-0.054795
6950.2	-0.052823
6960.47	-0.0493823
6970.75	-0.0460299
6981.02	-0.0427897
6991.29	-0.0396157
7000.1	-0.0369008
7010.37	-0.0336973
7020.64	-0.0304269
7030.92	-0.0271133
7041.19	-0.0238236
7051.46	-0.0205615
7060.27	-0.0177446
7070.54	-0.0129411
7080.8	-0.00818728
7091.05	-0.00367827
7101.29	0.000928955
7110.08	0.00491655
7120.32	0.0117832
7130.57	0.018506
7140.81	0.0281952
7151.06	0.0361819
7161.3	0.0422071
7170.08	0.0460674
7180.33	0.0492246
7190.57	0.0513428
7200.82	0.0526877
7211.06	0.0535149
7221.31	0.0541629
7230.09	0.0547153
7240.33	0.0552853
7250.58	0.0556416
7260.82	0.0557638
7271.07	0.0557787
7281.32	0.055856
7290.1	0.0560577
7300.34	0.0564888
7310.59	0.057118
7320.83	0.0578765
7331.08	0.0586525
7341.32	0.0593405
7350.1	0.0598172
7360.35	0.0602416
7370.59	0.0605543
7380.84	0.0607927
7391.08	0.0609885
7401.33	0.0611645
7410.11	0.0613086
7420.36	0.0614693
7430.6	0.0616193
7440.85	0.0617669
7451.09	0.0619401
7461.34	0.0621814
7470.12	0.0624733
7480.36	0.0629303
7490.61	0.0635
7500.85	0.0641367
7511.1	0.0647747
7521.34	0.0653483
7530.12	0.0657525
7540.37	0.066104
7550.61	0.0663323
7560.86	0.0664635
7571.1	0.0665311
7581.35	0.0665654
7590.13	0.0665841
7600.38	0.066603
7610.62	0.0666244
7620.87	0.0666556
7631.11	0.0667104
7641.36	0.06681
7650.14	0.0669502
7660.38	0.0671982
7670.63	0.0675522
7680.87	0.0680165
7691.12	0.0685838
7701.36	0.069238
7710.14	0.0698527
7720.39	0.0706156
7730.63	0.0714127
7740.88	0.072233
7751.12	0.0730701
7761.37	0.0739208
7770.15	0.0746594
7780.4	0.0755309
7790.64	0.0764115
7800.89	0.0772992
7811.13	0.0781912
7821.38	0.0790832
7830.16	0.0798428
7840.4	0.0807156
7850.65	0.0815633
7860.89	0.0823731
7871.14	0.0831317
7881.38	0.0838269
7890.16	0.0843646
7900.41	0.0849172
7910.65	0.0853847
7920.9	0.0857643
7931.14	0.0860548
7941.39	0.0862562
7950.17	0.0863586
7960.42	0.0863976
7970.66	0.0863529
7980.91	0.0862284
7991.15	0.0860292
8001.4	0.0857607
8010.18	0.0854793
8020.42	0.0850949
8030.67	0.0846525
8040.91	0.0841535
8051.16	0.083598
8061.4	0.0829863
8070.19	0.0824179
8080.43	0.0817057
8090.68	0.0809453
8100.92	0.0801437
8111.17	0.0793097
8121.41	0.0784531
8130.19	0.0777083
8140.44	0.0768349
8150.68	0.0759635
8160.93	0.0750987
8171.17	0.0742423
8181.42	0.0733931
8190.2	0.0726676
8200.44	0.071818
8210.69	0.0709565
8220.94	0.0700732
8231.18	0.0691578
8241.43	0.068201
8250.21	0.0673422
8260.45	0.0662909
8270.7	0.0651848
8280.94	0.0640256
8291.19	0.0628185
8301.43	0.0615714
8310.21	0.0604786
8320.46	0.059186
8330.7	0.0578864
8340.95	0.0565916
8351.19	0.0553128
8361.44	0.0540593
8370.22	0.0530102
8380.47	0.0518201
8390.71	0.0506685
8400.97	0.0495543
8411.24	0.0484746
8420.04	0.0475757
8430.32	0.0465545
8440.59	0.0455591
8450.86	0.0445861
8461.14	0.0436331
8471.41	0.0426989
8480.22	0.0419132
8490.49	0.0410151
8500.76	0.0401389
8511.04	0.0392869
8521.31	0.0384614
8530.11	0.0377762
8540.39	0.0370034
8550.66	0.0362588
8560.93	0.03554
8571.21	0.0348431
8580.01	0.0342588
8590.29	0.0335856
8600.56	0.0329131
8610.83	0.032231
8621.11	0.0315283
8631.38	0.0307935
8640.19	0.0301293
8650.46	0.0293043
8660.74	0.0284147
8671.02	0.0274505
8681.3	0.0264027
8690.11	0.0254307
8700.39	0.0242015
8710.67	0.0228553
8720.95	0.0213658
8731.24	0.0196851
8740.06	0.0180289
8750.35	0.0157186
8760.64	0.012682
8770.92	0.00757043
8781.21	0.00496881
8790.03	0.000854254
8800.32	-0.00333245
8810.61	-0.00497032
8820.89	-0.00880721
8831.18	-0.0120045
8840	-0.0145317
8850.33	-0.0172011
8860.69	-0.0196681
8871.05	-0.0189724
8881.41	-0.0214711
8890.29	-0.0236318
8900.65	-0.0258003
8911.01	-0.0276598
8921.37	-0.0292804
8930.25	-0.0305294
8940.61	-0.031853
8950.97	-0.0330539
8961.33	-0.0341843
8970.21	-0.0351003
8980.57	-0.0361309
8990.93	-0.0371254
9001.29	-0.0380867
9010.17	-0.0388856
9020.53	-0.0364094
9030.88	-0.0372327
9041.24	-0.0383898
9050.12	-0.0393057
9060.48	-0.0402861
9070.84	-0.0411835
9081.2	-0.0420075
9090.08	-0.0426607
9100.44	-0.0433672
9110.8	-0.04402
9121.16	-0.0446245
9130.04	-0.0451083
9140.4	-0.0456372
9150.76	-0.0461322
9161.12	-0.0465975
9170	-0.0469764
9180.36	-0.0474027
9190.72	-0.0477126
9201.08	-0.0480238
9211.46	-0.0483666
9220.41	-0.0486523
9230.84	-0.0489747
9241.28	-0.0492857
9250.22	-0.0495428
9260.62	-0.0498315
9271.03	-0.0501084
9281.44	-0.0503732
9290.36	-0.0505904
9300.79	-0.0508326
9311.22	-0.0510619
9320.16	-0.0512482
9330.58	-0.0514532
9341.01	-0.0516456
9351.44	-0.0477767
9360.38	-0.0480689
9370.81	-0.0483903
9381.24	-0.0486909
9390.18	-0.0489325
9400.61	-0.0491926
9411.04	-0.0494282
9421.46	-0.04964
9430.4	-0.0497997
9440.83	-0.0499616
9451.22	-0.0500991
9461.46	-0.0502132
9470.23	-0.0502956
9480.49	-0.0503754
9490.85	-0.0504395
9501.22	-0.0504866
9510.08	-0.0505141
9520.4	-0.0505324
9530.72	-0.0505371
9541.04	-0.0505292
9551.36	-0.0505079
9560.21	-0.0504791
9570.53	-0.0504337
9580.85	-0.0503761
9591.17	-0.0503072
9600.01	-0.0502393
9610.33	-0.0501506
9620.65	-0.0500521
9630.97	-0.0499449
9641.29	-0.04983
9650.14	-0.0497255
9660.46	-0.0495972
9670.78	-0.0494614
9681.1	-0.0493175
9691.42	-0.0491659
9700.27	-0.0490311
9710.59	-0.0488702
9720.91	-0.0487018
9731.23	-0.048537
9740.07	-0.0484416
9750.39	-0.0483205
9760.71	-0.0481898
9771.03	-0.0480504
9781.35	-0.0479028
9790.2	-0.0477704
9800.52	-0.0476096
9810.84	-0.0474426
9821.16	-0.0472697
9830	-0.0471173
9840.32	-0.0469348
9850.64	-0.0467479
9860.95	-0.0465571
9871.25	-0.0463626
9880.08	-0.0461931
9890.39	-0.0459922
9900.7	-0.0457883
9911.02	-0.0455816
9921.33	-0.0453721
9930.17	-0.0451905
9940.48	-0.0449764
9950.79	-0.0447599
9961.11	-0.0445411
9971.42	-0.0443201
9980.26	-0.0441288
9990.57	-0.0439143
10000.9	-0.0437218
10011.2	-0.0435287
10020	-0.0433624
10030.4	-0.0431675
10040.7	-0.0429713
10051	-0.0427736
10061.3	-0.0425744
10070.1	-0.0424024
10080.4	-0.0422002
10090.8	-0.0419962
10101.1	-0.0417905
10111.4	-0.0415829
10120.2	-0.0414034
10130.5	-0.0411921
10140.8	-0.0409786
10151.2	-0.0407628
10161.5	-0.0405447
10170.3	-0.0403557
10180.6	-0.040132
10190.9	-0.0399042
10201.2	-0.0396724
10210.1	-0.0394705
10220.4	-0.0392312
10230.7	-0.038988
10241	-0.0368475
10251.3	-0.0365432
10260.2	-0.0362807
10270.5	-0.0359725
10280.8	-0.0356623
10291.1	-0.03535
10301.4	-0.0350357
10310.3	-0.0347648
10320.6	-0.0344468
10330.9	-0.0341268
10341.2	-0.0338049
10350	-0.0335274
10360.4	-0.033202
10370.7	-0.0328746
10381	-0.0325454
10391.3	-0.0322642
10400.1	-0.0320382
10410.5	-0.0317719
10420.8	-0.0315026
10431.1	-0.0312303
10441.4	-0.0309549
10450.2	-0.0307164
10460.5	-0.0304352
10470.9	-0.0301508
10481.2	-0.0298632
10490	-0.0296141
10500.3	-0.0293205
10510.6	-0.0290237
10520.9	-0.0287238
10531.3	-0.028421
10540.1	-0.0281589
10550.4	-0.0278527
10560.7	-0.0275463
10571	-0.0272409
10581.2	-0.0269346
10590	-0.0266712
10600.3	-0.0263625
10610.5	-0.0260522
10620.8	-0.0257405
10631.1	-0.0254272
10641.4	-0.0251124
10650.2	-0.0248413
10660.4	-0.0245234
10670.7	-0.0242039
10681	-0.0238827
10691.3	-0.0235604
10700.1	-0.0232838
10710.3	-0.0229608
10720.6	-0.0226375
10730.9	-0.0223138
10741.2	-0.0219897
10751.4	-0.0216652
10760.2	-0.0213868
10770.5	-0.0210617
10780.8	-0.0207166
10791.1	-0.0203474
10801.3	-0.0199816
10810.1	-0.0196707
10820.4	-0.019311
10830.7	-0.0189544
10841	-0.0186008
10851.2	-0.0182503
10860	-0.0179523
10870.3	-0.0176074
10880.6	-0.0172655
10890.9	-0.0169266
10901.1	-0.0165907
10911.4	-0.0162577
10920.2	-0.0159745
10930.5	-0.0156468
10940.8	-0.0153221
10951	-0.0150003
10961.3	-0.0146817
10970.1	-0.014411
10980.4	-0.014098
10990.7	-0.013788
11000.9	-0.013481
11011.2	-0.013177
11020	-0.0129187
11030.3	-0.01262
11040.6	-0.0123242
11050.8	-0.0120317
11061	-0.0117421
11071.3	-0.011455
11080.1	-0.011211
11090.3	-0.0109285
11100.6	-0.0106485
11110.8	-0.0103709
11121.1	-0.0100955
11131.3	-0.00982267
11140.1	-0.00959098
11150.3	-0.00932312
11160.6	-0.00905781
11170.8	-0.00877368
11181.1	-0.00850271
11191.3	-0.00824254
11200.1	-0.00802659
11210.3	-0.00778133
11220.6	-0.00754188
11230.8	-0.00730708
11241.1	-0.00707832
11251.3	-0.0068558
11260.1	-0.00666956
11270.3	-0.00645683
11280.6	-0.00624824
11290.8	-0.00604296
11301.1	-0.00584017
11311.3	-0.00563909
11320.1	-0.00546755
11330.3	-0.00526785
11340.6	-0.00506804
11350.8	-0.00486756
11361.1	-0.0046659
11371.3	-0.00446263
11380.1	-0.00428682
11390.4	-0.00407983
11400.6	-0.00387088
11410.8	-0.00365995
11421.1	-0.00344692
11431.3	-0.00323163
11440.1	-0.00304519
11450.4	-0.00282529
11460.6	-0.00260272
11470.9	-0.00237757
11481.1	-0.00215018
11491.3	-0.00192075
11500.1	-0.00172252
11510.4	-0.00148939
11520.6	-0.00125418
11530.9	-0.00101991
11541.1	-0.000789247
11551.3	-0.00056017
11560.1	-0.000363841
11570.4	-0.000133682
11580.6	0.000163462
11590.9	0.000555538
11601.1	0.000951942
11611.4	0.00134756
11620.1	0.00168391
11630.4	0.002072
11640.6	0.00245522
11650.9	0.00283388
11661.1	0.0032083
11671.4	0.00357898
11680.1	0.00389366
11690.4	0.00425732
11700.6	0.00461809
11710.9	0.00497719
11721.1	0.00533576
11731.4	0.00569377
11740.2	0.00599981
11750.4	0.00636059
11760.6	0.00672681
11770.9	0.00709916
11781.1	0.00747793
11791.4	0.00837296
11800.2	0.00910022
11810.4	0.00988721
11820.6	0.0106088
11830.9	0.0112719
11841.1	0.0118833
11851.4	0.0124542
11860.2	0.0129196
11870.4	0.0134569
11880.7	0.0142525
11890.9	0.0150126
11901.1	0.0156896
11911.4	0.0163515
11920.2	0.0169127
11930.5	0.0179363
11940.8	0.0191187
11951	0.021033
11961.3	0.0232684
11970.1	0.0247426
11980.4	0.0263989
11990.7	0.0280152
