0	0
10.286	0
20.5719	0
30.2526	0
40.5384	0
50.219	0
60.3444	0
70.0176	0
80.303	0
90.5883	0
100.269	0
110.554	0
120.234	0
130.519	0
140.001	0
150.286	0
160.513	0
170.026	0
180.109	0
190.192	0
200.274	0
210.357	0
220.44	0
230.523	0
240.012	0
250.095	0
260.176	0
270.256	0
280.336	0
290.416	0
300.496	0
310.576	0
320.062	4.54747e-12
330.142	2.00089e-11
340.222	3.54703e-11
350.302	5.09317e-11
360.381	6.63931e-11
370.461	8.2764e-11
380.538	1.13687e-10
390.585	1.4461e-10
400.564	1.7917e-10
410.496	2.25555e-10
420.427	2.74667e-10
430.332	3.36513e-10
440.142	4.04725e-10
450.467	4.87489e-10
460.196	5.80258e-10
470.493	6.92125e-10
480.218	8.13088e-10
490.515	9.59517e-10
500.24	1.11777e-09
510.523	1.30603e-09
520.162	1.50612e-09
530.34	1.7435e-09
540.513	2.0118e-09
550.12	2.29647e-09
560.282	2.63481e-09
570.439	3.01316e-09
580.022	3.41424e-09
590.161	3.88627e-09
600.3	4.4156e-09
610.438	5.00677e-09
620.013	5.62886e-09
630.151	6.36101e-09
640.289	7.16955e-09
650.427	8.05721e-09
660.002	8.96944e-09
670.14	1.00135e-08
680.279	1.11377e-08
690.417	1.23418e-08
700.555	1.36251e-08
710.127	1.49103e-08
720.243	1.634e-08
730.348	1.78352e-08
740.453	1.93886e-08
750.558	2.09911e-08
760.102	2.25364e-08
770.208	2.41962e-08
780.313	2.5866e-08
790.418	2.75295e-08
800.523	2.91711e-08
810.067	3.06882e-08
820.172	3.22434e-08
830.277	3.37304e-08
840.382	3.51338e-08
850.487	3.6438e-08
860.031	3.75649e-08
870.136	3.86335e-08
880.241	3.95585e-08
890.346	4.03306e-08
900.451	4.09364e-08
910.556	4.13656e-08
920.099	4.16003e-08
930.204	4.16603e-08
940.309	4.15239e-08
950.414	4.11856e-08
960.518	4.06453e-08
970.062	3.99514e-08
980.167	3.90273e-08
990.271	3.79168e-08
1000.38	3.66299e-08
1010.48	3.51811e-08
1020.02	3.3684e-08
1030.13	3.19851e-08
1040.23	3.01943e-08
1050.34	2.83435e-08
1060.44	2.64718e-08
1070.55	2.46182e-08
1080.09	2.29284e-08
1090.2	2.12531e-08
1100.3	1.9757e-08
1110.41	1.85073e-08
1120.51	1.75796e-08
1130.05	1.70739e-08
1140.16	1.70194e-08
1150.26	1.75551e-08
1160.37	1.87874e-08
1170.47	2.08329e-08
1180.01	2.36278e-08
1190.12	2.76295e-08
1200.22	3.28446e-08
1210.33	3.94257e-08
1220.43	4.75393e-08
1230.54	5.73609e-08
1240.08	6.8374e-08
1250.18	8.20619e-08
1260.29	9.80399e-08
1270.39	1.16532e-07
1280.5	1.3777e-07
1290.04	1.60565e-07
1300.12	1.87797e-07
1310.18	2.18479e-07
1320.25	2.52927e-07
1330.3	2.91431e-07
1340.36	3.34294e-07
1350.41	3.81868e-07
1360.46	4.34502e-07
1370.5	4.92525e-07
1380.54	5.56659e-07
1390.01	6.23367e-07
1400.04	7.00686e-07
1410.07	7.85003e-07
1420.1	8.76395e-07
1430.13	9.74917e-07
1440.16	1.08061e-06
1450.19	1.19352e-06
1460.22	1.31371e-06
1470.25	1.44126e-06
1480.26	1.576e-06
1490.23	1.71779e-06
1500.21	1.86728e-06
1510.18	2.02471e-06
1520.15	2.19035e-06
1530.13	2.36452e-06
1540.1	2.54761e-06
1550.08	2.74006e-06
1560.05	2.94237e-06
1570.02	3.15509e-06
1580.55	3.39156e-06
1590.43	3.62548e-06
1600.27	3.87048e-06
1610.1	4.12838e-06
1620.48	4.41557e-06
1630.31	4.70278e-06
1640.14	5.00571e-06
1650.52	5.34365e-06
1660.36	5.68218e-06
1670.19	6.03976e-06
1680.02	6.41763e-06
1690.4	6.83988e-06
1700.24	7.26349e-06
1710.07	7.71145e-06
1720.45	8.21233e-06
1730.28	8.71498e-06
1740.12	9.24662e-06
1750.5	9.841e-06
1760.33	1.04371e-05
1770.16	1.10665e-05
1780.54	1.17683e-05
1790.37	1.24696e-05
1800.21	1.32072e-05
1810.04	1.3982e-05
1820.42	1.48409e-05
1830.25	1.56943e-05
1840.09	1.65872e-05
1850.47	1.75733e-05
1860.3	1.85498e-05
1870.13	1.95681e-05
1880.51	2.06895e-05
1890.34	2.1797e-05
1900.18	2.29493e-05
1910.01	2.41478e-05
1920.39	2.54641e-05
1930.22	2.67613e-05
1940.06	2.81087e-05
1950.43	2.95873e-05
1960.27	3.10431e-05
1970.1	3.25545e-05
1980.48	3.42123e-05
1990.31	3.58442e-05
2000.15	3.75381e-05
2010.52	3.93958e-05
2020.36	4.12245e-05
2030.19	4.31227e-05
2040.02	4.5093e-05
2050.4	4.72542e-05
2060.23	4.93819e-05
2070.07	5.15906e-05
2080.45	5.40137e-05
2090.28	5.63996e-05
2100.11	5.8877e-05
2110.49	5.84046e-05
2120.32	5.70999e-05
2130.16	5.60145e-05
2140.54	5.509e-05
2150.37	5.44096e-05
2160.2	5.39068e-05
2170.03	5.357e-05
2180.41	5.33827e-05
2190.24	5.33547e-05
2200.08	5.34635e-05
2210.46	5.37183e-05
2220.29	5.40854e-05
2230.12	5.45688e-05
2240.5	5.51997e-05
2250.33	5.59073e-05
2260.17	5.67182e-05
2270.54	5.7683e-05
2280.38	5.86978e-05
2290.21	5.9809e-05
2300.34	6.10536e-05
2310.17	6.23576e-05
2320	6.37563e-05
2330.38	6.53359e-05
2340.22	6.6931e-05
2350.05	6.86233e-05
2360.43	7.05171e-05
2370.26	7.2415e-05
2380.09	7.44164e-05
2390.47	7.66442e-05
2400.3	7.88669e-05
2410.14	8.12021e-05
2420.51	8.37929e-05
2430.35	8.63704e-05
2440.18	8.90718e-05
2450.01	9.19011e-05
2460.39	9.50313e-05
2470.22	9.81379e-05
2480.05	0.000101387
2490.43	0.000104975
2500.27	0.000108514
2510.1	0.000112178
2520.48	0.000116173
2530.31	0.000120072
2540.14	0.000124079
2550.52	0.000128423
2560.35	0.000132645
2570.19	0.000136973
2580.02	0.000141408
2590.4	0.000146209
2600.23	0.000150874
2610.06	0.000155657
2620.44	0.000160841
2630.27	0.000165886
2640.11	0.000171068
2650.48	0.000176695
2660.31	0.000182181
2670.11	0.000187816
2680.45	0.000193947
2690.25	0.000199944
2700.04	0.000206134
2710.38	0.000212891
2720.18	0.000219514
2730.52	0.000226751
2740.32	0.000233853
2750.11	0.000241203
2760.45	0.000249242
2770.25	0.000257136
2780.04	0.00026531
2790.38	0.000274255
2800.18	0.00028304
2810.52	0.000292655
2820.31	0.000302101
2830.11	0.000311887
2840.45	0.0003226
2850.24	0.000333129
2860.04	0.000357574
2870.38	0.000386225
2880.18	0.000413222
2890.52	0.0004415
2900.31	0.000468062
2910.11	0.000494405
2920.45	0.000521999
2930.24	0.00054798
2940.04	0.000573857
2950.38	0.000601128
2960.17	0.000626996
2970.51	0.000654421
2980.31	0.000680603
2990.04	0.000706894
3000.38	0.000735225
3010.18	0.000762534
3020.52	0.000791955
3030.31	0.000820475
3040.1	0.000849722
3050.44	0.000881463
3060.24	0.000912344
3070.03	0.00094389
3080.37	0.000977809
3090.17	0.00101048
3100.51	0.00104552
3110.3	0.00107927
3120.1	0.0011136
3130.44	0.00115054
3140.23	0.00118632
3150.03	0.00122296
3160.37	0.00126272
3170.16	0.00130156
3180.5	0.00134393
3190.3	0.00138552
3200.09	0.00142864
3210.43	0.00147595
3220.08	0.00152188
3230.42	0.00157318
3240.21	0.00163099
3250.01	0.00174495
3260.35	0.00185854
3270.14	0.00196049
3280.48	0.00206347
3290.28	0.00215814
3300.07	0.00225151
3310.41	0.00235031
3320.2	0.00244559
3330.54	0.00254937
3340.34	0.00265161
3350.13	0.00275707
3360.47	0.0028714
3370.27	0.00298277
3380.06	0.00309778
3390.4	0.00322427
3400.2	0.00335023
3410.54	0.00349109
3420.33	0.00363317
3430.13	0.00382699
3440.47	0.00414482
3450.26	0.00443529
3460.06	0.00472145
3470.39	0.00502873
3480.19	0.0053329
3490.53	0.00566594
3500.32	0.00599007
3510.12	0.00632895
3520.46	0.0067144
3530.25	0.00740756
3540.05	0.00802786
3550.39	0.00869018
3560.18	0.00936225
3570.52	0.0102705
3580.32	0.0115732
3590.11	0.0129562
3600.45	0.0158145
3610.24	0.0221319
3620.04	0.0304687
3630.38	0.0384092
3640.42	0.0454624
3650.22	0.0513656
3660.01	0.0568225
3670.35	0.0615973
3680.15	0.0659484
3690.49	0.0704589
3700.28	0.074653
3710.08	0.078567
3720.42	0.0823676
3730.51	0.0859524
3740.31	0.0893616
3750.1	0.0926641
3760.44	0.0959192
3770.24	0.0989438
3780.03	0.102028
3790.37	0.105314
3800.17	0.108303
3810.51	0.111299
3820.3	0.114118
3830.1	0.117005
3840.44	0.120125
3850.24	0.123125
3860.03	0.126227
3870.37	0.129718
3880.17	0.133252
3890.04	0.136965
3900.47	0.140979
3910.34	0.14487
3920.22	0.148876
3930.1	0.152993
3940.53	0.157436
3950.41	0.161751
3960.29	0.166198
3970.16	0.17076
3980.04	0.175376
3990.47	0.180254
4000.35	0.184872
4010.23	0.189491
4020.12	0.194096
4030	0.198675
4040.44	0.203499
4050.32	0.208095
4060.21	0.212725
4070.09	0.217371
4080.53	0.222284
4090.41	0.226979
4100.3	0.23177
4110.18	0.236705
4120.07	0.241822
4130.5	0.247468
4140.39	0.253106
4150.28	0.259076
4160.17	0.265426
4170.06	0.272211
4180.51	0.279931
4190.43	0.287888
4200.38	0.296586
4210.34	0.306101
4220.3	0.316543
4230.27	0.328012
4240.24	0.340631
4250.26	0.354559
4260.28	0.369905
4270.31	0.386788
4280.34	0.40535
4290.36	0.42572
4300.39	0.448006
4310.42	0.472286
4320.44	0.498602
4330.47	0.526953
4340.5	0.557287
4350.52	0.589514
4360.55	0.62351
4370.02	0.65709
4380.05	0.693996
4390.07	0.732023
4400.1	0.770846
4410.13	0.810083
4420.15	0.849307
4430.18	0.888052
4440.21	0.925829
4450.23	0.962142
4460.26	0.996497
4470.29	1.0284
4480.32	1.05737
4490.34	1.08289
4500.37	1.10445
4510.4	1.12151
4520.42	1.13349
4530.45	1.13979
4540.48	1.13978
4550.5	1.13276
4560.53	1.118
4570	1.09625
4580.03	1.06419
4590.05	1.02205
4600.08	0.969055
4610.11	0.904568
4620.14	0.828101
4630.16	0.739328
4640.19	0.637924
4650.22	0.523137
4660.24	0.393078
4670.27	0.243875
4680.3	0.0686074
4690.32	-0.0639361
4700.35	-0.119887
4710.38	-0.162758
4720.41	-0.189689
4730.43	-0.200221
4740.46	-0.218567
4750.51	-0.231617
4760.03	-0.241825
4770.13	-0.251666
4780.22	-0.258377
4790.31	-0.266793
4800.41	-0.273532
4810.51	-0.279218
4820.06	-0.283468
4830.16	-0.287627
4840.27	-0.291668
4850.37	-0.295462
4860.48	-0.298925
4870.02	-0.291683
4880.13	-0.292237
4890.23	-0.296365
4900.34	-0.299832
4910.44	-0.302725
4920.55	-0.305164
4930.09	-0.307136
4940.19	-0.308963
4950.3	-0.310595
4960.4	-0.311669
4970.51	-0.312721
4980.05	-0.313692
4990.16	-0.314703
5000.26	-0.315703
5010.37	-0.316673
5020.47	-0.317594
5030.02	-0.318407
5040.12	-0.319196
5050.23	-0.319836
5060.33	-0.312537
5070.44	-0.313373
5080.54	-0.314317
5090.08	-0.315565
5100.19	-0.31673
5110.29	-0.317737
5120.4	-0.318569
5130.5	-0.319246
5140.04	-0.319762
5150.15	-0.320194
5160.25	-0.320521
5170.36	-0.320752
5180.46	-0.320895
5190.01	-0.320956
5200.11	-0.320948
5210.21	-0.32087
5220.3	-0.320727
5230.37	-0.320522
5240.43	-0.320253
5250.49	-0.31992
5260.55	-0.319539
5270.04	-0.319142
5280.09	-0.318679
5290.14	-0.317982
5300.19	-0.317168
5310.23	-0.316333
5320.26	-0.315474
5330.29	-0.314587
5340.32	-0.313671
5350.35	-0.312724
5360.38	-0.311744
5370.41	-0.310729
5380.44	-0.309678
5390.47	-0.308592
5400.5	-0.307471
5410.53	-0.306307
5420.56	-0.305094
5430.02	-0.303913
5440.02	-0.293679
5450.55	-0.292913
5460.52	-0.292173
5470.49	-0.291423
5480.47	-0.290665
5490.44	-0.289903
5500.42	-0.289139
5510.39	-0.288374
5520.36	-0.287611
5530.34	-0.286854
5540.23	-0.286111
5550.07	-0.285385
5560.45	-0.284634
5570.28	-0.283939
5580.12	-0.28326
5590.5	-0.282564
5600.33	-0.281924
5610.16	-0.281304
5620.54	-0.28067
5630.38	-0.280093
5640.21	-0.279537
5650.04	-0.279004
5660.42	-0.278464
5670.26	-0.277972
5680.09	-0.277495
5690.47	-0.277004
5700.3	-0.276548
5710.13	-0.276097
5720.51	-0.275622
5730.35	-0.275169
5740.18	-0.27471
5750.01	-0.274242
5760.39	-0.273732
5770.23	-0.273232
5780.06	-0.272712
5790.44	-0.272137
5800.27	-0.271592
5810.11	-0.271131
5820.49	-0.27058
5830.32	-0.269998
5840.15	-0.269357
5850.53	-0.268619
5860.37	-0.267791
5870.2	-0.266835
5880.03	-0.265823
5890.41	-0.264695
5900.24	-0.263572
5910.08	-0.262399
5920.46	-0.261107
5930.29	-0.259836
5940.12	-0.25852
5950.5	-0.257084
5960.34	-0.255682
5970.17	-0.25424
5980	-0.25276
5990.38	-0.251159
6000.21	-0.250116
6010.05	-0.249232
6020.43	-0.248196
6030.26	-0.247129
6040.09	-0.245988
6050.47	-0.244711
6060.31	-0.243438
6070.14	-0.24211
6080.52	-0.240651
6090.35	-0.239219
6100.18	-0.237741
6110.02	-0.236218
6120.4	-0.234566
6130.23	-0.232959
6140.06	-0.231313
6150.44	-0.229535
6160.28	-0.227815
6170.11	-0.22606
6180.49	-0.224168
6190.32	-0.222333
6200.15	-0.220459
6210.53	-0.218449
6220.37	-0.216523
6230.2	-0.214583
6240.03	-0.212636
6250.41	-0.210576
6260.24	-0.208623
6270.08	-0.206671
6280.46	-0.204612
6290.29	-0.202664
6300.12	-0.200718
6310.5	-0.198665
6320.34	-0.19672
6330.17	-0.194774
6340	-0.192825
6350.38	-0.190765
6360.21	-0.188808
6370.05	-0.186846
6380.43	-0.184768
6390.26	-0.182792
6400.09	-0.179908
6410.47	-0.176611
6420.31	-0.173534
6430.14	-0.170516
6440.52	-0.1674
6450.35	-0.164506
6460.18	-0.161658
6470.02	-0.158843
6480.4	-0.155891
6490.23	-0.153099
6500.06	-0.150302
6510.44	-0.147349
6520.28	-0.144565
6530.11	-0.141799
6540.49	-0.138894
6550.32	-0.136144
6560.15	-0.13338
6570.53	-0.130431
6580.37	-0.127594
6590.2	-0.124184
6600.03	-0.119102
6610.41	-0.114038
6620.25	-0.10946
6630.08	-0.10499
6640.46	-0.100284
6650.29	-0.0957823
6660.13	-0.0912946
6670.51	-0.0866044
6680.34	-0.0821444
6690.17	-0.0772074
6700.01	-0.0698032
6710.42	-0.0628515
6720.3	-0.0562856
6730.18	-0.0495859
6740.06	-0.0419592
6750.49	-0.0303005
6760.37	-0.0193606
6770.25	-0.00222129
6780.12	0.0268425
6790.5	0.0607038
6800.33	0.0791831
6810.14	0.0909629
6820.48	0.0961578
6830.28	0.0988773
6840.08	0.0970115
6850.42	0.0949824
6860.21	0.0947962
6870.01	0.0957492
6880.35	0.0967779
6890.14	0.0963584
6900.48	0.0958125
6910.28	0.0956075
6920.07	0.096032
6930.41	0.0960366
6940.21	0.0955697
6950	0.0958281
6960.34	0.0971887
6970.14	0.0986033
6980.48	0.0989485
6990.28	0.0984862
7000.07	0.0981516
7010.41	0.0983542
7020.21	0.0985962
7030	0.0983908
7040.34	0.0980001
7050.14	0.0980003
7060.48	0.0983625
7070.27	0.0983976
7080.07	0.0977031
7090.41	0.0963889
7100.2	0.0950537
7110.54	0.0937706
7120.34	0.0926046
7130.14	0.091524
7140.47	0.090628
7150.27	0.0898887
7160.07	0.0888514
7170.41	0.0871352
7180.2	0.0850111
7190.54	0.0825199
7200.34	0.0800697
7210.13	0.0776031
7220.47	0.0751963
7230.27	0.0733694
7240.06	0.0720104
7250.4	0.070752
7260.2	0.0693619
7270.54	0.067597
7280.33	0.065846
7290.13	0.064248
7300.47	0.0628402
7310.26	0.0618051
7320.06	0.0610982
7330.4	0.060696
7340.19	0.0605066
7350.53	0.0603028
7360.33	0.0600008
7370.13	0.05962
7380.47	0.0592238
7390.26	0.0589224
7400.06	0.0587435
7410.4	0.0587447
7420.19	0.0589517
7430.53	0.0593472
7440.33	0.0598203
7450.12	0.0603574
7460.46	0.0610172
7470.26	0.0617606
7480.05	0.0626181
7490.39	0.0636206
7500.19	0.0646288
7510.53	0.0656927
7520.32	0.0666045
7530.12	0.0673264
7540.46	0.0678415
7550.25	0.0681407
7560.05	0.0683461
7570.39	0.068549
7580.19	0.0687736
7590.53	0.069051
7600.32	0.0693201
7610.12	0.0695373
7620.46	0.069651
7630.25	0.0696444
7640.05	0.0695958
7650.39	0.0696356
7660.18	0.0698968
7670.52	0.0705081
7680.32	0.0714167
7690.11	0.0725662
7700.45	0.0738742
7710.25	0.075029
7720.05	0.075988
7730.39	0.0767784
7740.18	0.0774111
7750.52	0.0781211
7760.32	0.0789931
7770.15	0.0801845
7780.03	0.0817545
7790.45	0.0837995
7800.33	0.0860193
7810.21	0.0884132
7820.09	0.0909144
7830.52	0.0936634
7840.4	0.0964161
7850.27	0.0993718
7860.15	0.102562
7870.03	0.105964
7880.46	0.109698
7890.34	0.113242
7900.22	0.116662
7910.1	0.119855
7920.52	0.12292
7930.4	0.12554
7940.28	0.127938
7950.16	0.130193
7960.04	0.132382
7970.47	0.134677
7980.35	0.136842
7990.22	0.138969
8000.1	0.141008
8010.53	0.143013
8020.41	0.144736
8030.29	0.146264
8040.17	0.147589
8050.05	0.148703
8060.47	0.149635
8070.35	0.150263
8080.24	0.150611
8090.12	0.150647
8100.01	0.15035
8110.44	0.149668
8120.33	0.148681
8130.21	0.147377
8140.1	0.145769
8150.53	0.143751
8160.42	0.141537
8170.3	0.139034
8180.19	0.136251
8190.08	0.133204
8200.51	0.129722
8210.4	0.126193
8220.28	0.122451
8230.17	0.118496
8240.05	0.114321
8250.49	0.109659
8260.38	0.10499
8270.28	0.100087
8280.2	0.094974
8290.15	0.0897143
8300.11	0.0844027
8310.08	0.0791295
8320.05	0.07398
8330.01	0.0690143
8340.53	0.0640104
8350.5	0.0595069
8360.48	0.0552263
8370.48	0.0511589
8380.51	0.0473096
8390.54	0.0436999
8400.01	0.0405274
8410.04	0.037435
8420.06	0.0346221
8430.09	0.0320753
8440.12	0.0297608
8450.14	0.0276288
8460.17	0.0256216
8470.2	0.0236831
8480.23	0.0217674
8490.25	0.0198446
8500.28	0.0179026
8510.31	0.0159458
8520.34	0.0139917
8530.36	0.0120658
8540.39	0.0101977
8550.42	0.00876654
8560.44	0.00660371
8570.47	0.00578887
8580.5	0.00458201
8590.53	0.00315877
8600.55	0.00174888
8610.02	0.000936942
8620.05	0.000171484
8630.08	-0.000491118
8640.1	-0.00230432
8650.13	-0.00415507
8660.16	-0.00587893
8670.19	-0.00745283
8680.21	-0.00897379
8690.24	-0.01021
8700.27	-0.0113617
8710.29	-0.00979806
8720.32	-0.011555
8730.35	-0.0143259
8740.38	-0.0168984
8750.4	-0.019326
8760.43	-0.0216471
8770.46	-0.0238889
8780.48	-0.0260658
8790.51	-0.0281838
8800.54	-0.0302788
8810.01	-0.0322158
8820.04	-0.0341081
8830.06	-0.0358883
8840.09	-0.0375924
8850.12	-0.0392201
8860.14	-0.0407749
8870.17	-0.042264
8880.2	-0.0438818
8890.22	-0.0449602
8900.25	-0.0459243
8910.28	-0.0467927
8920.31	-0.0475814
8930.33	-0.048304
8940.36	-0.0489721
8950.39	-0.0495958
8960.41	-0.050183
8970.44	-0.0507402
8980.47	-0.0512716
8990.5	-0.0517792
9000.52	-0.0523149
9010.55	-0.0528028
9020.02	-0.0532087
9030.05	-0.0536402
9040.07	-0.0540724
9050.1	-0.0545043
9060.1	-0.0549337
9070.08	-0.0553594
9080.05	-0.0557818
9090.02	-0.0562003
9100.55	-0.0566369
9110.53	-0.0570453
9120.5	-0.0574482
9130.47	-0.0578453
9140.45	-0.0510458
9150.42	-0.0518131
9160.32	-0.0525566
9170.19	-0.0532743
9180.03	-0.0539635
9190.41	-0.0546616
9200.24	-0.0552974
9210.07	-0.05591
9220.45	-0.0565328
9230.28	-0.0571015
9240.12	-0.0576503
9250.5	-0.058209
9260.33	-0.0587197
9270.16	-0.0592127
9280.54	-0.0597149
9290.38	-0.0601737
9300.21	-0.0606167
9310.04	-0.0610442
9320.42	-0.0614795
9330.26	-0.0618775
9340.09	-0.0622623
9350.47	-0.0626547
9360.3	-0.0630136
9370.14	-0.0633604
9380.52	-0.0637136
9390.35	-0.064036
9400.18	-0.0643461
9410.02	-0.0646427
9420.4	-0.0649407
9430.23	-0.0652084
9440.06	-0.0654613
9450.44	-0.0657122
9460.27	-0.0659346
9470.11	-0.0661422
9480.49	-0.0663451
9490.32	-0.0665185
9500.15	-0.0667642
9510.53	-0.0669924
9520.37	-0.0671156
9530.2	-0.0672246
9540.03	-0.0673199
9550.41	-0.0674063
9560.25	-0.0674753
9570.08	-0.0675322
9580.46	-0.0675799
9590.29	-0.0676136
9600.13	-0.0676367
9610.51	-0.0676499
9620.34	-0.0676522
9630.17	-0.0676448
9640.01	-0.0676281
9650.38	-0.0676006
9660.22	-0.0675653
9670.05	-0.0675214
9680.43	-0.0674657
9690.26	-0.0674044
9700.1	-0.0673348
9710.48	-0.0672525
9720.31	-0.0671661
9730.14	-0.0670718
9740.52	-0.0669636
9750.36	-0.066853
9760.19	-0.0667347
9770.02	-0.0666086
9780.4	-0.0664673
9790.24	-0.0663257
9800.07	-0.0661767
9810.45	-0.0660115
9820.28	-0.0658476
9830.11	-0.0656767
9840.49	-0.0654888
9850.33	-0.0653042
9860.16	-0.0651132
9870.54	-0.0649049
9880.37	-0.0639578
9890.21	-0.0637707
9900.04	-0.0635809
9910.42	-0.0633774
9920.25	-0.0631816
9930.09	-0.062983
9940.47	-0.0627702
9950.3	-0.0625657
9960.13	-0.0623585
9970.51	-0.0621367
9980.34	-0.0619236
9990.18	-0.0617076
10000	-0.0614875
10010.4	-0.0612493
10020.2	-0.0610185
10030.1	-0.0607826
10040.4	-0.0605283
10050.3	-0.0602824
10060.1	-0.0600316
10070.5	-0.0597617
10080.3	-0.0595011
10090.1	-0.0592358
10100.5	-0.0589505
10110.4	-0.0586754
10120.2	-0.0583956
10130	-0.0581111
10140.4	-0.0578056
10150.2	-0.0575112
10160.1	-0.0571717
10170.5	-0.0567438
10180.3	-0.0563369
10190.1	-0.0559287
10200.5	-0.0554965
10210.3	-0.0550858
10220.2	-0.0546738
10230.5	-0.0542379
10240.4	-0.0538257
10250.2	-0.0534146
10260	-0.0530041
10270.4	-0.0525713
10280.3	-0.0521614
10290.1	-0.0517513
10300.5	-0.051318
10310.3	-0.0509068
10320.1	-0.0504948
10330.5	-0.0500587
10340.3	-0.0496444
10350.2	-0.0492288
10360	-0.0488119
10370.4	-0.0483702
10380.2	-0.0479502
10390.1	-0.0475288
10400.4	-0.0470823
10410.3	-0.0466579
10420.1	-0.046232
10430.5	-0.0457812
10440.3	-0.0453537
10450.1	-0.0449254
10460.4	-0.044472
10470.2	-0.0440414
10480	-0.0436097
10490.4	-0.0431531
10500.2	-0.0427197
10510.5	-0.0422615
10520.3	-0.0418269
10530.1	-0.041392
10540.4	-0.0409328
10550.2	-0.0404978
10560	-0.0400628
10570.4	-0.0396041
10580.1	-0.0391703
10590.5	-0.0387134
10600.3	-0.0382813
10610.1	-0.0378502
10620.4	-0.0373961
10630.2	-0.0369668
10640	-0.0365252
10650.4	-0.0360271
10660.1	-0.0355611
10670.5	-0.0350755
10680.3	-0.0346211
10690.1	-0.0341721
10700.4	-0.0337038
10710.2	-0.0332654
10720	-0.032832
10730.4	-0.0323796
10740.1	-0.0319559
10750.5	-0.0315135
10760.3	-0.0310989
10770.1	-0.0306884
10780.4	-0.0302596
10790.2	-0.0298573
10800	-0.0294589
10810.3	-0.0290424
10820.1	-0.0286533
10830.5	-0.0282481
10840.3	-0.0278691
10850.1	-0.0274945
10860.4	-0.0271035
10870.2	-0.0267369
10880	-0.0263736
10890.3	-0.0259935
10900.1	-0.0256364
10910.5	-0.0252622
10920.3	-0.0249102
10930.1	-0.0245677
10940.4	-0.0242236
10950.2	-0.0239113
10960	-0.0236097
10970.3	-0.0233006
10980.1	-0.0230144
10990.5	-0.0227198
11000.3	-0.0224484
11010.1	-0.0221837
11020.4	-0.0219106
11030.2	-0.0216568
11040	-0.0214066
11050.3	-0.0211454
11060.1	-0.0208995
11070.5	-0.0206406
11080.3	-0.0203951
11090.1	-0.0201487
11100.4	-0.0198868
11110.2	-0.0196363
11120	-0.0193829
11130.3	-0.0191117
11140.1	-0.0188513
11150.5	-0.0185726
11160.3	-0.0183048
11170.1	-0.0180333
11180.4	-0.0177422
11190.2	-0.017462
11200.5	-0.0171613
11210.3	-0.0168716
11220.1	-0.0165773
11230.5	-0.0162621
11240.3	-0.0159593
11250.5	-0.0156373
11260.3	-0.0153283
11270.1	-0.0150229
11280.5	-0.0147024
11290.3	-0.0143987
11300.1	-0.0140932
11310.4	-0.0137672
11320.2	-0.0134539
11330.5	-0.0131174
11340.3	-0.0126948
11350.1	-0.0122035
11360.5	-0.0116601
11370.3	-0.0111314
11380.1	-0.0105952
11390.4	-0.0100253
11400.2	-0.00948398
11410.5	-0.00891293
11420.3	-0.00837399
11430.1	-0.0078384
11440.5	-0.00727654
11450.3	-0.00674651
11460.1	-0.00621748
11470.4	-0.00565883
11480.2	-0.00512504
11490.5	-0.00455605
11500.3	-0.00401195
11510.1	-0.00346267
11520.5	-0.00287719
11530.3	-0.00148073
11540.1	-0.000117086
11550.4	0.0011998
11560.2	0.00232851
11570.5	0.00339918
11580.3	0.00431266
11590.1	0.00514926
11600.5	0.00598224
11610.3	0.00673228
11620.1	0.00785145
11630.4	0.00885141
11640.2	0.00966894
11650.5	0.0104883
11660.3	0.011235
11670.1	0.0121491
11680.5	0.0134708
11690.3	0.0150232
11700.1	0.0179791
11710.4	0.023844
11720.2	0.0287629
11730.5	0.0343139
11740.3	0.0394508
11750.1	0.0448323
11760.5	0.0506847
11770.3	0.0560845
11780.1	0.0615816
11790.4	0.0673998
11800.2	0.0725858
11810.5	0.0775855
11820.3	0.081927
11830.1	0.0857679
11840.5	0.0893265
11850.3	0.0921426
11860.1	0.0943994
11870.4	0.096214
11880.2	0.0973519
11890.5	0.0979371
11900.3	0.0980495
11910.1	0.0979337
11920.5	0.0977484
11930.3	0.097576
11940	0.0974227
11950.5	0.0973678
11960.3	0.0974775
11970.2	0.0976866
11980.1	0.0978872
11990.5	0.0980521
