0	0
18.44	0
27.6598	0
36.8796	0
46.0994	0
55.319	0
64.5387	0
73.7583	0
82.9778	0
92.1974	0
101.417	0
110.636	0
129.075	0
138.295	0
147.514	0
156.734	0
165.953	0
175.173	0
184.392	0
193.612	0
202.831	0
212.05	9.09495e-13
221.049	1.81899e-12
230.048	2.72848e-12
248.045	5.45697e-12
257.043	7.27596e-12
266.042	1.00044e-11
275.04	1.36424e-11
284.038	1.81899e-11
293.037	2.45564e-11
302.035	3.18323e-11
311.033	4.18368e-11
320.032	5.36602e-11
338.028	8.6402e-11
347.026	1.09139e-10
356.025	1.37334e-10
365.023	1.70985e-10
374.021	2.11912e-10
383.019	2.61934e-10
392.017	3.21961e-10
401.015	3.92902e-10
410.013	4.77485e-10
427.589	6.90306e-10
436.587	8.2855e-10
445.585	9.9044e-10
454.162	1.17052e-09
463.16	1.38971e-09
472.158	1.64437e-09
481.156	1.93904e-09
490.154	2.27919e-09
508.149	3.11957e-09
517.147	3.63434e-09
525.725	4.19459e-09
534.269	4.8276e-09
542.813	5.54246e-09
551.358	6.34827e-09
568.447	8.27367e-09
576.991	9.41509e-09
585.536	1.06911e-08
594.08	1.21154e-08
602.625	1.37015e-08
611.169	1.5465e-08
628.258	1.95887e-08
636.803	2.19852e-08
645.347	2.46309e-08
653.892	2.75477e-08
662.436	3.07573e-08
670.99	3.42889e-08
688.098	4.24143e-08
696.652	4.70664e-08
705.206	5.21522e-08
713.76	5.77074e-08
722.314	6.37683e-08
730.868	7.0374e-08
747.976	8.53852e-08
756.53	9.38671e-08
765.035	1.02997e-07
773.54	1.12853e-07
782.046	1.23469e-07
790.551	1.34881e-07
807.562	1.60233e-07
816.067	1.74246e-07
824.572	1.89204e-07
833.078	2.05147e-07
841.583	2.22119e-07
850.088	2.40166e-07
867.099	2.79683e-07
875.604	3.01261e-07
884.158	3.2425e-07
892.712	3.48582e-07
901.266	3.74299e-07
918.373	4.30054e-07
926.927	4.60171e-07
935.481	4.91834e-07
944.034	5.25082e-07
952.588	5.59958e-07
961.142	5.96503e-07
978.215	6.74628e-07
986.768	7.16463e-07
995.322	7.6017e-07
1003.88	8.05812e-07
1012.43	8.53454e-07
1020.98	9.03168e-07
1038.09	1.00913e-06
1046.64	1.06556e-06
1055.2	1.12441e-06
1063.75	1.1858e-06
1072.3	1.24985e-06
1080.86	1.31668e-06
1097.97	1.45924e-06
1106.52	1.53529e-06
1115.07	1.61475e-06
1123.63	1.69779e-06
1132.18	1.78463e-06
1140.73	1.87548e-06
1157.84	2.07012e-06
1166.39	2.17441e-06
1174.95	2.28371e-06
1183.5	2.39831e-06
1192.05	2.5185e-06
1200.61	2.64461e-06
1217.71	2.91595e-06
1226.27	3.06189e-06
1234.82	3.21519e-06
1243.37	3.37625e-06
1251.93	3.54549e-06
1260.48	3.72336e-06
1277.59	4.10683e-06
1286.14	4.31341e-06
1294.7	4.53059e-06
1303.25	4.7589e-06
1311.77	4.99813e-06
1320.3	5.24959e-06
1337.35	5.79167e-06
1345.88	6.08361e-06
1354.4	6.39041e-06
1362.93	6.71279e-06
1371.45	7.05152e-06
1388.5	7.78128e-06
1397.03	8.17401e-06
1405.55	8.58649e-06
1414.08	9.01968e-06
1422.6	9.47577e-06
1431.13	9.95642e-06
1448.18	1.09968e-05
1456.71	1.15589e-05
1465.23	1.215e-05
1473.76	1.27713e-05
1482.28	1.34234e-05
1490.81	1.41071e-05
1507.86	1.55724e-05
1516.38	1.63556e-05
1524.91	1.71734e-05
1533.43	1.80267e-05
1541.96	1.89163e-05
1550.48	1.98431e-05
1567.53	2.18118e-05
1576.06	2.28558e-05
1584.58	2.39409e-05
1593.11	2.50683e-05
1601.63	2.62393e-05
1610.16	2.74552e-05
1627.21	3.00274e-05
1635.73	3.1387e-05
1644.26	3.27978e-05
1652.79	3.42617e-05
1661.31	3.57807e-05
1678.36	3.89925e-05
1686.89	4.06901e-05
1695.41	4.2452e-05
1703.94	4.4281e-05
1712.46	4.61798e-05
1720.99	4.81516e-05
1738.04	5.23263e-05
1746.56	5.4536e-05
1755.09	5.68321e-05
1763.44	5.917e-05
1771.79	6.15981e-05
1780.14	6.41199e-05
1796.85	6.94579e-05
1805.2	7.22798e-05
1813.55	7.52071e-05
1821.91	7.82422e-05
1830.26	8.13874e-05
1846.96	8.80167e-05
1855.32	9.15053e-05
1863.67	9.51129e-05
1872.02	9.88417e-05
1880.37	0.000102694
1897.08	0.000110781
1905.43	0.00011502
1913.78	0.000119394
1922.14	0.000123906
1930.49	0.000128559
1947.19	0.000138303
1955.55	0.000143401
1963.9	0.000148657
1972.25	0.000154075
1980.6	0.000159658
1997.31	0.000171346
2005.66	0.000177462
2014.01	0.000183767
2022.37	0.000190268
2030.72	0.00019697
2047.42	0.000211011
2055.78	0.000218364
2064.13	0.000225948
2072.48	0.000233773
2080.83	0.000241847
2097.54	0.000258775
2105.89	0.000267649
2114.24	0.000265781
2122.6	0.00026433
2130.95	0.000263272
2147.65	0.000262247
2156.01	0.000262244
2164.36	0.000262561
2172.71	0.000263185
2181.06	0.000264103
2197.77	0.000266785
2206.12	0.00026853
2214.47	0.000270537
2222.82	0.000272799
2231.18	0.000275313
2247.88	0.000281083
2256.23	0.000284336
2264.59	0.000287834
2272.94	0.000291578
2281.29	0.000295568
2298	0.000304299
2306.35	0.000309046
2314.7	0.000314053
2323.05	0.000319325
2331.4	0.000324868
2348.11	0.000336788
2356.46	0.00034318
2364.81	0.000349869
2373.16	0.000356866
2381.5	0.000364178
2398.2	0.000379787
2406.55	0.000388102
2414.9	0.000396772
2423.25	0.000405808
2431.6	0.00041522
2448.3	0.000435221
2456.65	0.000445833
2465	0.00045687
2473.35	0.000468349
2481.71	0.000480298
2490.06	0.000492683
2506.76	0.000518657
2515.11	0.000532208
2523.47	0.000546115
2531.82	0.00056037
2540.17	0.000574968
2556.88	0.000605182
2565.23	0.000620801
2573.58	0.000636766
2581.93	0.000653083
2590.28	0.000669762
2606.99	0.000704243
2615.34	0.00072207
2623.69	0.000740309
2632.04	0.000758976
2640.4	0.00077809
2657.1	0.00081774
2665.45	0.000838324
2673.81	0.000859446
2682.16	0.000881135
2690.51	0.000903418
2707.21	0.000949882
2715.57	0.00097412
2723.92	0.000999068
2732.27	0.00102475
2740.62	0.00105121
2757.33	0.00110652
2765.68	0.00113544
2774.03	0.00116524
2782.38	0.00119596
2790.74	0.00122761
2807.44	0.00129388
2815.79	0.00132857
2824.14	0.00140488
2832.5	0.0014812
2840.85	0.00155747
2857.55	0.0017088
2865.91	0.0017836
2874.26	0.00185782
2882.61	0.00193153
2890.96	0.00200483
2907.67	0.00215076
2916.02	0.00222372
2924.37	0.00229692
2932.72	0.00237057
2941.08	0.00244488
2957.78	0.00259636
2966.13	0.002674
2974.49	0.00275321
2982.84	0.00283424
2991.19	0.00291734
3007.9	0.00309071
3016.25	0.00318149
3024.6	0.00327533
3032.95	0.0033721
3041.3	0.00347137
3058.01	0.00367634
3066.36	0.00378181
3074.71	0.00388924
3083.07	0.00399873
3091.42	0.00411039
3108.12	0.00434107
3116.48	0.00446065
3124.83	0.0045835
3133.18	0.00471001
3141.53	0.00484064
3158.24	0.00511614
3166.59	0.00526197
3174.94	0.00541381
3183.3	0.00557208
3191.65	0.00593209
3200	0.00628278
3216.71	0.00694658
3225.06	0.0072613
3233.41	0.007568
3241.76	0.00787023
3250.12	0.00817186
3266.82	0.00878873
3275.17	0.00911125
3283.53	0.00944752
3291.88	0.00980041
3300.23	0.0101725
3316.94	0.0109742
3325.29	0.0113941
3333.64	0.0118267
3342	0.0122745
3350.35	0.0127411
3367.05	0.014284
3375.43	0.0153187
3383.81	0.0163482
3392.18	0.0173885
3400.56	0.0184493
3417.31	0.0206538
3425.68	0.0218025
3434.06	0.0229836
3442.43	0.0241974
3450.81	0.025444
3467.56	0.0280321
3475.94	0.0294118
3484.31	0.0308583
3492.69	0.0323618
3501.06	0.0339161
3517.82	0.0371513
3526.19	0.0388204
3534.57	0.0405179
3542.94	0.0422409
3551.32	0.0439883
3568.07	0.0475546
3576.44	0.0493713
3584.82	0.0512106
3593.2	0.0530744
3601.57	0.0549655
3618.32	0.0588434
3626.7	0.0608373
3635.07	0.0628721
3643.45	0.0649505
3651.83	0.0670746
3660.2	0.0692462
3676.95	0.0737358
3685.33	0.0760553
3693.7	0.0784249
3702.08	0.0808448
3710.45	0.083315
3727.21	0.0884063
3735.58	0.0910275
3743.96	0.0936989
3752.33	0.0964203
3760.71	0.0991911
3777.46	0.104878
3785.84	0.107791
3794.21	0.11075
3802.59	0.113751
3810.96	0.116793
3827.71	0.122991
3836.09	0.126141
3844.47	0.129323
3852.84	0.132533
3861.22	0.13577
3877.97	0.142314
3886.34	0.145616
3894.72	0.148935
3903.1	0.15227
3911.47	0.155618
3928.22	0.162345
3936.6	0.16572
3944.98	0.169101
3953.35	0.172485
3961.73	0.175869
3970.1	0.179253
3986.85	0.186005
3995.23	0.189369
4003.61	0.192722
4011.98	0.19606
4020.36	0.199381
4037.11	0.205958
4045.49	0.209207
4053.86	0.212426
4062.24	0.21561
4070.61	0.218755
4087.36	0.224916
4095.74	0.227922
4104.12	0.230873
4112.49	0.233764
4120.87	0.236592
4137.62	0.242036
4146	0.244643
4154.37	0.247167
4162.75	0.249603
4171.12	0.251947
4187.88	0.256337
4196.25	0.258374
4204.63	0.2603
4213	0.26211
4221.38	0.263799
4238.13	0.266797
4246.51	0.268099
4254.88	0.269264
4263.26	0.270287
4271.64	0.271165
4280.01	0.271896
4296.76	0.272898
4305.14	0.273164
4313.52	0.27327
4321.89	0.273212
4330.27	0.272989
4347.11	0.272029
4355.57	0.271286
4364.04	0.270366
4372.5	0.269266
4380.97	0.267985
4397.9	0.264879
4406.36	0.26305
4414.83	0.261038
4423.29	0.25884
4431.76	0.256458
4440.22	0.253891
4457.15	0.248203
4465.62	0.245083
4474.08	0.241779
4482.55	0.238294
4491.01	0.234629
4507.94	0.226761
4516.41	0.222562
4524.87	0.21819
4533.34	0.213646
4541.8	0.208934
4550.27	0.204055
4567.2	0.193815
4575.66	0.188461
4584.13	0.182956
4592.59	0.177303
4601.06	0.171505
4617.99	0.159483
4626.45	0.153265
4634.92	0.146914
4643.38	0.140437
4651.85	0.133842
4660.31	0.127141
4677.24	0.11347
4685.71	0.106517
4694.17	0.0994948
4702.64	0.0924139
4711.1	0.0852867
4728.03	0.0703963
4736.5	0.0625197
4744.96	0.0546289
4753.43	0.0468284
4761.89	0.0391912
4770.36	0.0317629
4787.29	0.0176208
4795.75	0.0109228
4804.22	0.00597604
4812.68	-0.000262625
4821.15	-0.00865982
4838.08	-0.022821
4846.54	-0.0290196
4855.01	-0.0346984
4863.47	-0.0399332
4871.94	-0.0447882
4880.4	-0.0493141
4897.33	-0.0575592
4905.8	-0.0605237
4914.26	-0.0629812
4922.73	-0.0655097
4931.19	-0.0680929
4948.12	-0.0733716
4956.59	-0.0760381
4965.05	-0.0787015
4973.52	-0.0813458
4981.98	-0.0839558
4990.45	-0.0865175
5007.38	-0.0798003
5015.84	-0.0818853
5024.31	-0.0841766
5032.77	-0.0862057
5041.67	-0.0890641
5050.57	-0.0916164
5068.37	-0.0960047
5077.28	-0.0979199
5086.18	-0.0996907
5095.08	-0.10134
5103.98	-0.102905
5112.88	-0.104387
5121.78	-0.10579
5130.68	-0.107119
5148.48	-0.109575
5157.38	-0.110715
5166.28	-0.111804
5175.18	-0.112848
5184.08	-0.113852
5192.98	-0.114708
5201.88	-0.115555
5210.78	-0.116419
5228.58	-0.11809
5237.48	-0.118867
5246.38	-0.119615
5255.28	-0.120335
5264.18	-0.121027
5273.08	-0.121691
5281.98	-0.122328
5290.88	-0.122939
5308.68	-0.124077
5317.58	-0.124605
5326.15	-0.125087
5334.7	-0.125542
5343.24	-0.125971
5351.79	-0.126375
5360.33	-0.126754
5377.42	-0.12209
5385.96	-0.121553
5394.51	-0.122018
5403.05	-0.122474
5411.6	-0.122896
5420.14	-0.123284
5437.23	-0.123963
5445.78	-0.124257
5454.32	-0.124515
5462.83	-0.124736
5471.33	-0.124925
5488.34	-0.125213
5496.85	-0.125315
5505.35	-0.125392
5513.86	-0.125445
5522.36	-0.125475
5530.87	-0.125483
5547.88	-0.125441
5556.38	-0.125393
5564.89	-0.125328
5573.39	-0.125246
5581.9	-0.125149
5590.41	-0.125037
5607.42	-0.12477
5615.92	-0.124618
5624.43	-0.124453
5632.93	-0.124277
5641.44	-0.12409
5658.45	-0.123686
5666.95	-0.123469
5675.46	-0.123243
5683.96	-0.123008
5692.47	-0.122764
5700.97	-0.122513
5717.99	-0.121986
5726.49	-0.121711
5735	-0.121428
5743.5	-0.121139
5752.01	-0.12084
5760.51	-0.120534
5777.52	-0.119913
5786.03	-0.119607
5794.53	-0.119302
5803.04	-0.118997
5811.54	-0.118693
5820.05	-0.118376
5837.06	-0.117733
5845.57	-0.117406
5854.07	-0.117076
5862.58	-0.116743
5871.08	-0.116406
5888.09	-0.115723
5896.6	-0.115375
5905.1	-0.115025
5913.61	-0.114671
5922.11	-0.114313
5930.62	-0.113951
5947.63	-0.113215
5956.14	-0.112841
5964.64	-0.112463
5973.15	-0.11208
5981.65	-0.111693
5990.16	-0.111301
6007.17	-0.110503
6015.67	-0.110096
6024.18	-0.109685
6032.68	-0.109268
6041.19	-0.108846
6058.2	-0.107986
6066.71	-0.107548
6075.21	-0.107104
6083.72	-0.106655
6092.22	-0.1062
6100.73	-0.10574
6117.74	-0.104804
6126.24	-0.106183
6134.8	-0.105935
6143.35	-0.105679
6151.9	-0.105415
6160.46	-0.105144
6177.57	-0.104576
6186.12	-0.104205
6194.67	-0.103829
6203.23	-0.10345
6211.78	-0.103066
6220.34	-0.102679
6237.44	-0.10189
6246	-0.10149
6254.55	-0.101085
6263.11	-0.100678
6271.63	-0.100268
6280.16	-0.0998547
6297.21	-0.0990181
6305.73	-0.0985951
6314.26	-0.0981692
6322.78	-0.0977404
6331.31	-0.0973088
6348.36	-0.0964374
6356.89	-0.0959975
6365.41	-0.0955547
6373.94	-0.0951089
6382.46	-0.09466
6390.99	-0.094208
6408.04	-0.0932941
6416.56	-0.0928318
6425.09	-0.0923659
6433.61	-0.091896
6442.14	-0.0914222
6450.66	-0.0909442
6467.72	-0.0899751
6476.24	-0.0894836
6484.77	-0.0889873
6493.29	-0.0884861
6501.82	-0.0879797
6510.34	-0.0874683
6527.39	-0.0864294
6535.92	-0.0859018
6544.44	-0.0853688
6552.97	-0.0848302
6561.49	-0.084286
6570.02	-0.0837361
6587.07	-0.0826191
6595.6	-0.0820519
6604.12	-0.0814789
6612.65	-0.0803636
6621.17	-0.0792563
6638.22	-0.0770773
6646.75	-0.0760087
6655.27	-0.074955
6663.63	-0.0739374
6671.98	-0.072934
6680.33	-0.0719443
6697.04	-0.0700027
6705.39	-0.0690488
6713.74	-0.0681047
6722.09	-0.0671693
6730.45	-0.0662413
6747.15	-0.0644033
6755.51	-0.0634911
6763.86	-0.0625819
6772.21	-0.0616748
6780.56	-0.0607689
6797.27	-0.0589569
6805.62	-0.0580493
6813.97	-0.0571396
6822.33	-0.0562272
6830.68	-0.0553114
6847.38	-0.0534679
6855.74	-0.0525392
6864.09	-0.0516054
6872.44	-0.0506662
6880.79	-0.0497227
6897.5	-0.0478324
6905.85	-0.0468888
6914.2	-0.0459473
6922.56	-0.0450084
6930.91	-0.0440722
6947.61	-0.0422071
6955.97	-0.0412774
6964.32	-0.0403487
6972.67	-0.0394202
6981.03	-0.0384913
6997.73	-0.0366282
7006.08	-0.0356924
7014.44	-0.0347526
7022.79	-0.0338081
7031.14	-0.0328583
7047.85	-0.0309409
7056.2	-0.0299727
7064.55	-0.0280075
7072.9	-0.0261576
7081.26	-0.0244167
7097.96	-0.0212109
7106.31	-0.0197201
7114.67	-0.018289
7123.02	-0.0169061
7131.37	-0.0155603
7148.08	-0.0129405
7156.43	-0.0116493
7164.78	-0.0103615
7173.13	-0.00907179
7181.49	-0.00777632
7198.19	-0.00515812
7206.54	-0.00383961
7214.9	-0.00251962
7223.25	-0.00119893
7231.6	0.000122679
7248.31	0.00274813
7256.66	0.0040517
7265.01	0.00529287
7273.37	0.00650213
7281.72	0.00769926
7290.07	0.00978358
7306.78	0.0136157
7315.13	0.0154756
7323.48	0.0173213
7331.83	0.0191546
7340.19	0.0209715
7356.89	0.0245207
7365.24	0.0262324
7373.6	0.0278891
7381.95	0.0294834
7390.3	0.0310109
7407.01	0.0340756
7415.36	0.0355676
7423.71	0.0369977
7432.06	0.0383446
7440.42	0.0395928
7457.12	0.0417611
7465.48	0.0426781
7473.83	0.0434877
7482.18	0.0441962
7490.53	0.0448071
7507.24	0.0457588
7515.59	0.0461143
7523.94	0.0464005
7532.3	0.0466256
7540.65	0.0467976
7557.35	0.0470102
7565.71	0.0470628
7574.06	0.0470858
7582.41	0.0470831
7590.76	0.0470572
7607.47	0.0469443
7615.82	0.0468599
7624.17	0.0467579
7632.53	0.0466388
7640.88	0.046503
7657.58	0.0461821
7665.94	0.0459981
7674.29	0.0457992
7682.64	0.0455863
7690.99	0.0453603
7707.7	0.0448719
7716.05	0.0446103
7724.41	0.0443373
7732.76	0.0440524
7741.11	0.043755
7757.82	0.0431192
7766.17	0.0427784
7774.52	0.0424208
7782.87	0.042045
7791.23	0.04165
7807.93	0.0407983
7816.28	0.0403403
7824.64	0.0398605
7832.99	0.0393587
7841.34	0.0388353
7858.05	0.0377257
7866.4	0.0371412
7874.75	0.0365383
7883.1	0.035918
7891.46	0.0352818
7908.16	0.0339663
7916.51	0.0332896
7924.87	0.0326018
7933.22	0.0319042
7941.57	0.0311977
7958.28	0.0297615
7966.63	0.0290333
7974.98	0.0282996
7983.33	0.0275605
7991.68	0.0268165
8000.03	0.026068
8016.73	0.0245579
8025.08	0.0237961
8033.43	0.0230296
8041.78	0.0222577
8050.13	0.0214795
8066.83	0.0199005
8075.18	0.0190971
8083.53	0.0182823
8091.87	0.017371
8100.22	0.0164206
8116.92	0.0145091
8125.27	0.0135703
8133.62	0.0126477
8141.98	0.0117289
8150.33	0.0108136
8167.03	0.00901368
8175.39	0.00884516
8183.74	0.00795963
8192.09	0.00669705
8200.44	0.00557987
8217.15	0.00356455
8225.5	0.00265287
8233.85	0.00179769
8242.21	0.0010083
8250.56	0.000395659
8267.26	-0.000789954
8275.62	-0.00137015
8283.97	-0.00193081
8292.32	-0.00247926
8300.67	-0.00302017
8317.38	-0.00408773
8325.73	-0.00454732
8334.09	-0.00299095
8342.44	-0.00341759
8350.79	-0.00382888
8367.5	-0.00462257
8375.85	-0.00491766
8384.2	-0.00540755
8392.55	-0.00598234
8400.91	-0.00651638
8417.61	-0.00749097
8425.96	-0.00794013
8434.32	-0.00837201
8442.67	-0.00878831
8451.02	-0.00919079
8467.73	-0.00995771
8476.08	-0.0103241
8484.43	-0.0106806
8492.78	-0.0110282
8501.14	-0.0113679
8517.84	-0.0120274
8526.19	-0.0123489
8534.55	-0.0126395
8542.9	-0.0129279
8551.25	-0.0132191
8567.96	-0.0138323
8576.31	-0.0141401
8584.66	-0.0144352
8593.01	-0.0147185
8601.37	-0.0149909
8618.07	-0.0155057
8626.43	-0.0157492
8634.78	-0.0159841
8643.13	-0.0162106
8651.48	-0.016429
8668.19	-0.0168418
8676.54	-0.0170366
8684.89	-0.0172238
8693.25	-0.0147446
8701.6	-0.0136253
8718.3	-0.0140023
8726.66	-0.0141811
8735.01	-0.014355
8743.36	-0.0145242
8751.71	-0.0146887
8760.07	-0.0148489
8776.77	-0.0151567
8785.12	-0.0153048
8793.48	-0.0154495
8801.83	-0.0155865
8810.18	-0.0157169
8826.89	-0.0159604
8835.24	-0.0160751
8843.59	-0.0161858
8851.94	-0.0162934
8860.3	-0.0163983
8877	-0.0166017
8885.36	-0.0167009
8893.71	-0.0167989
8902.06	-0.0168958
8910.41	-0.0169919
8927.12	-0.0171821
8935.47	-0.0172782
8943.82	-0.0173755
8952.18	-0.0174737
8960.53	-0.0175724
8977.23	-0.0178606
8985.59	-0.0179981
8993.94	-0.0181312
9002.29	-0.0182601
9010.64	-0.0183848
9027.35	-0.0186219
9035.7	-0.0187341
9044.05	-0.018842
9052.41	-0.0189458
9060.76	-0.0190453
9077.46	-0.019233
9085.82	-0.019321
9094.17	-0.0194051
9102.52	-0.0194854
9110.88	-0.0195619
9127.58	-0.0197699
9135.93	-0.0198628
9144.29	-0.0199487
9152.64	-0.0200279
9160.99	-0.0201006
9177.7	-0.0202276
9186.05	-0.0202822
9194.4	-0.0203313
9202.75	-0.0203749
9211.11	-0.0204134
9227.81	-0.0204754
9236.16	-0.0204993
9244.52	-0.0205186
9252.87	-0.0205336
9261.22	-0.0205444
9277.93	-0.0205535
9286.28	-0.0205521
9294.63	-0.0205468
9302.98	-0.0205376
9311.34	-0.0205248
9328.04	-0.0204881
9336.4	-0.0204643
9344.75	-0.0204371
9353.1	-0.0204064
9361.45	-0.0203723
9378.16	-0.0186482
9386.51	-0.0185722
9394.86	-0.0184948
9403.22	-0.018416
9411.57	-0.0183358
9428.27	-0.018171
9436.63	-0.0180863
9444.98	-0.0180002
9453.33	-0.0179125
9461.68	-0.0178233
9470.04	-0.0177326
9486.74	-0.0175464
9495.09	-0.0174505
9503.45	-0.0173529
9511.8	-0.0172535
9520.15	-0.0171524
9536.86	-0.016945
9545.21	-0.0168387
9553.56	-0.0167307
9561.92	-0.016621
9570.27	-0.0165097
9586.97	-0.016282
9595.33	-0.0161657
9603.68	-0.0160477
9612.03	-0.0159846
9620.38	-0.0159194
9637.09	-0.0157827
9645.44	-0.0157112
9653.79	-0.0156376
9662.15	-0.0155619
9670.5	-0.015484
9687.2	-0.015322
9695.56	-0.0152377
9703.91	-0.0151514
9712.26	-0.015063
9720.62	-0.0149724
9737.37	-0.0147846
9745.74	-0.0146876
9754.12	-0.0145885
9762.5	-0.0144874
9770.87	-0.0143844
9787.62	-0.0141723
9796	-0.0140634
9804.37	-0.0139532
9812.75	-0.0138416
9821.13	-0.0137288
9837.88	-0.013499
9846.25	-0.0133821
9854.63	-0.0132639
9863.01	-0.0131443
9871.38	-0.0130234
9888.13	-0.0127775
9896.51	-0.0126526
9904.89	-0.0125264
9913.26	-0.0123988
9921.64	-0.01227
9930.01	-0.0121399
9946.77	-0.0118759
9955.14	-0.011742
9963.52	-0.0116069
9971.89	-0.0114705
9980.27	-0.011333
9997.02	-0.0110543
10005.4	-0.0109132
10013.8	-0.010771
10022.1	-0.0106276
10030.5	-0.0104832
10047.3	-0.0101913
10055.7	-0.0100439
10064	-0.00989555
10072.4	-0.0097463
10080.8	-0.00959617
10097.5	-0.00929342
10105.9	-0.00914085
10114.3	-0.00898751
10122.7	-0.00883343
10131	-0.00867862
10147.8	-0.00836688
10156.2	-0.00820999
10164.5	-0.00800533
10172.9	-0.00780248
10181.3	-0.00760135
10198	-0.0072039
10206.4	-0.00700743
10214.8	-0.00681236
10223.2	-0.00661862
10231.5	-0.00642614
10248.3	-0.00604472
10256.7	-0.00585566
10265.1	-0.00566763
10273.4	-0.00548058
10281.8	-0.00529447
10290.2	-0.00510925
10306.9	-0.00474132
10315.3	-0.00455854
10323.7	-0.0043765
10332.1	-0.00419517
10340.4	-0.00401453
10357.2	-0.00365519
10365.6	-0.00347645
10373.9	-0.00329831
10382.3	-0.00312074
10390.7	-0.00294372
10407.4	-0.00259131
10415.8	-0.00241588
10424.2	-0.0022411
10432.6	-0.00206834
10440.9	-0.00189746
10457.7	-0.00156086
10466.1	-0.00139493
10474.5	-0.00123213
10482.8	-0.00107218
10491.2	-0.000914843
10508	-0.000607101
10516.3	-0.000456286
10524.7	-0.000307259
10533.1	-0.000159851
10541.5	-1.39035e-05
10558.2	0.000274181
10566.6	0.00041658
10575	0.000558039
10583.3	0.000698667
10591.7	0.000838561
10600.1	0.000977812
10616.8	0.00125471
10625.2	0.00139249
10633.6	0.00152993
10642	0.00166707
10650.3	0.00180396
10667.1	0.00207719
10675.5	0.0022136
10683.9	0.00234992
10692.2	0.00248617
10700.6	0.00262239
10717.4	0.00289476
10725.7	0.00303095
10734.1	0.00316716
10742.5	0.00330338
10750.9	0.00343963
10767.6	0.00371219
10776	0.0038485
10784.6	0.00398923
10793.3	0.00412995
10801.9	0.00427065
10810.6	0.0044113
10827.9	0.00469241
10836.5	0.00483281
10845.2	0.00497309
10853.8	0.0051132
10862.5	0.00525311
10871.1	0.00539279
10888.4	0.00567128
10897.1	0.00580999
10905.7	0.00594827
10914.4	0.00608608
10923	0.00622337
10931.6	0.00636007
10940.3	0.00649615
10957.6	0.00676621
10966.2	0.0069001
10974.9	0.00703317
10983.5	0.00716537
10992.2	0.00729666
11001.2	0.00743237
11010.2	0.00756701
11028.2	0.00783292
11037.2	0.0079641
11046.2	0.00809406
11055.2	0.00822276
11064.1	0.00834869
11073	0.00847332
11081.9	0.00859662
11090.8	0.00875239
11108.6	0.00905302
11117.5	0.00919842
11126.4	0.00934083
11135.3	0.00948037
11144.2	0.00961714
11153.1	0.00975119
11162	0.00988257
11170.9	0.0100113
11188.7	0.0102605
11197.6	0.010381
11206.5	0.0104987
11215.4	0.0106134
11224.3	0.0107252
11233.2	0.0108339
11242.1	0.0109396
11251	0.011042
11268.8	0.0112372
11277.7	0.0113297
11286.6	0.0114189
11295.5	0.0115045
11304.4	0.0115867
11313.3	0.0116652
11322.2	0.0117402
11331.1	0.0118115
11340	0.0118791
11357.8	0.0120034
11366.7	0.0120599
11375.6	0.0121128
11384.5	0.0121619
11393.4	0.0122072
11402.3	0.0122489
11411.2	0.0122868
11420.1	0.012321
11437.9	0.0123784
11446.8	0.0124015
11455.7	0.0124211
11464.6	0.012437
11473.5	0.0124493
11482.4	0.0124581
11491.3	0.0124633
11500.2	0.012465
11518	0.012458
11526.9	0.0124494
11535.8	0.0124374
11544.7	0.012422
11553.6	0.0124034
11562.5	0.0123814
11571.4	0.0123562
11580.3	0.0123277
11598.1	0.0122613
11607	0.0122234
11615.9	0.0121824
11624.8	0.0121383
11633.7	0.0120911
11642.6	0.012041
11651.5	0.0119878
11660.4	0.0119318
11678.2	0.0118109
11687.1	0.0117461
11696	0.0116785
11704.9	0.0116081
11713.8	0.011535
11722.7	0.0114591
11731.6	0.0113805
11740.5	0.0112993
11758.3	0.011129
11767.2	0.01104
11776.1	0.0109485
11785	0.0108545
11793.9	0.0105967
11802.8	0.0103481
11811.7	0.0101104
11820.6	0.00988261
11838.4	0.00945383
11847.3	0.00925137
11856.2	0.009056
11865.1	0.00886712
11874	0.0086842
11882.9	0.00850673
11891.9	0.00833426
11900.8	0.00816635
11918.6	0.00784276
11927.5	0.00768638
11936.4	0.00753493
11945.3	0.00738785
11954.2	0.00724466
11963.1	0.00710491
11972	0.00696818
11980.9	0.00683489
11998.7	0.00657659
