MODE: omp_prog0_single_core
PARCOUNT: 1
PROBLEMS: 1
Running on INWEST
Using OMP

Programs:
 + ../../build/sierpi_intel_omp_tsunami_parallel_release  -u 10 -U 10 -T 1000 -n 4 -d 14
 + ../../build/sierpi_intel_omp_tsunami_parallel_release  -u 10 -U 10 -T 1000 -n 4 -d 14
 + ../../build/sierpi_intel_omp_tsunami_parallel_release  -u 10 -U 10 -T 1000 -n 4 -d 12
 + ../../build/sierpi_intel_omp_tsunami_parallel_release  -u 10 -U 10 -T 1000 -n 4 -d 12
 + ../../build/sierpi_intel_omp_tsunami_parallel_release  -u 10 -U 10 -T 1000 -n 4 -d 12
 + ../../build/sierpi_intel_omp_tsunami_parallel_release  -u 10 -U 10 -T 1000 -n 4 -d 12
 + ../../build/sierpi_intel_omp_tsunami_parallel_release  -u 10 -U 10 -T 1000 -n 4 -d 12
 + ../../build/sierpi_intel_omp_tsunami_parallel_release  -u 10 -U 10 -T 1000 -n 4 -d 12
 + ../../build/sierpi_intel_omp_tsunami_parallel_release  -u 10 -U 10 -T 1000 -n 4 -d 12
 + ../../build/sierpi_intel_omp_tsunami_parallel_release  -u 10 -U 10 -T 1000 -n 4 -d 12

Wed Apr  4 13:55:27 CEST 2012
OMP: Prog0 parallel execution (1 times)
Waiting for job 45278

 + Terminating after 1000 timesteps with equal number of triangles -> EXIT
 + Final timestep: 59579

59580 TS (Timesteps)
3022.12 ST (SIMULATION_TIME)
0.0500175 TSS (Timestep size)
4751.51 SFS (Overall seconds for Simulation)
20954211547 TP (Triangles processed)
0.0797501 ASPT (Averaged Seconds per Timestep)
351699 TPST (Triangles Processed in Average per Simulation Timestep)
95.0841 PPST (Partitions Processed in Average per Simulation Timestep)
4.41001 MTPS (Million Triangles per Second)
4.41001 MTPSPT (Million Triangles per Second per Thread)
10.733 EDMBPT (ElementData Megabyte per Timestep (RW))
134.583 EDMBPS (ElementData Megabyte per Second (RW))
Wed Apr  4 15:14:39 CEST 2012
Seconds: 4752
