MODE: ipmo_prog0
PARCOUNT: 1
PROBLEMS: 1
Running on INWEST
Using iPMO

Programs:
 + ../../build/sierpi_intel_ipmo_tsunami_parallel_release  -u 10 -U 10 -T 1000 -n 4 -d 14
 + ../../build/sierpi_intel_ipmo_tsunami_parallel_release  -u 10 -U 10 -T 1000 -n 4 -d 14
 + ../../build/sierpi_intel_ipmo_tsunami_parallel_release  -u 10 -U 10 -T 1000 -n 4 -d 12
 + ../../build/sierpi_intel_ipmo_tsunami_parallel_release  -u 10 -U 10 -T 1000 -n 4 -d 12
 + ../../build/sierpi_intel_ipmo_tsunami_parallel_release  -u 10 -U 10 -T 1000 -n 4 -d 12
 + ../../build/sierpi_intel_ipmo_tsunami_parallel_release  -u 10 -U 10 -T 1000 -n 4 -d 12
 + ../../build/sierpi_intel_ipmo_tsunami_parallel_release  -u 10 -U 10 -T 1000 -n 4 -d 12
 + ../../build/sierpi_intel_ipmo_tsunami_parallel_release  -u 10 -U 10 -T 1000 -n 4 -d 12
 + ../../build/sierpi_intel_ipmo_tsunami_parallel_release  -u 10 -U 10 -T 1000 -n 4 -d 12
 + ../../build/sierpi_intel_ipmo_tsunami_parallel_release  -u 10 -U 10 -T 1000 -n 4 -d 12

Sun Apr  1 17:38:31 CEST 2012
iPMO: Prog0 parallel execution with ipmo (1 times)
Waiting for job 37757
37757: CHANGING RESSOURCES

 + Terminating after 1000 timesteps with equal number of triangles -> EXIT
 + Final timestep: 59579

59580 TS (Timesteps)
3022.12 ST (SIMULATION_TIME)
0.0500175 TSS (Timestep size)
402.15 SFS (Overall seconds for Simulation)
20954211547 TP (Triangles processed)
0.00674974 ASPT (Averaged Seconds per Timestep)
351699 TPST (Triangles Processed in Average per Simulation Timestep)
95.0841 PPST (Partitions Processed in Average per Simulation Timestep)
52.1055 MTPS (Million Triangles per Second)
-52.1055 MTPSPT (Million Triangles per Second per Thread)
10.733 EDMBPT (ElementData Megabyte per Timestep (RW))
1590.13 EDMBPS (ElementData Megabyte per Second (RW))
SUM CLIENT SHUTDOWN HINT: 20954.2
SUM CLIENT SHUTDOWN HINT DIV TIME: 52.1161
Sun Apr  1 17:45:14 CEST 2012
Seconds: 403
