MODE: ipmo_prog0
PARCOUNT: 24
PROBLEMS: 1
Running on INWEST
Using iPMO

Programs:
 + ../../build/sierpi_intel_ipmo_tsunami_parallel_release  -u 10 -U 10 -T 1000 -n 4 -d 14
 + ../../build/sierpi_intel_ipmo_tsunami_parallel_release  -u 10 -U 10 -T 1000 -n 4 -d 14
 + ../../build/sierpi_intel_ipmo_tsunami_parallel_release  -u 10 -U 10 -T 1000 -n 4 -d 12
 + ../../build/sierpi_intel_ipmo_tsunami_parallel_release  -u 10 -U 10 -T 1000 -n 4 -d 12
 + ../../build/sierpi_intel_ipmo_tsunami_parallel_release  -u 10 -U 10 -T 1000 -n 4 -d 12
 + ../../build/sierpi_intel_ipmo_tsunami_parallel_release  -u 10 -U 10 -T 1000 -n 4 -d 12
 + ../../build/sierpi_intel_ipmo_tsunami_parallel_release  -u 10 -U 10 -T 1000 -n 4 -d 12
 + ../../build/sierpi_intel_ipmo_tsunami_parallel_release  -u 10 -U 10 -T 1000 -n 4 -d 12
 + ../../build/sierpi_intel_ipmo_tsunami_parallel_release  -u 10 -U 10 -T 1000 -n 4 -d 12
 + ../../build/sierpi_intel_ipmo_tsunami_parallel_release  -u 10 -U 10 -T 1000 -n 4 -d 12

Mon Apr  2 07:34:14 CEST 2012
iPMO: Prog0 parallel execution with ipmo (24 times)
Waiting for job 61050
61058: CHANGING RESSOURCES
61058: CHANGING RESSOURCES
61059: CHANGING RESSOURCES
61061: CHANGING RESSOURCES
61061: CHANGING RESSOURCES
61069: CHANGING RESSOURCES
61070: CHANGING RESSOURCES
61071: CHANGING RESSOURCES
61058: CHANGING RESSOURCES
61069: CHANGING RESSOURCES
61070: CHANGING RESSOURCES
61059: CHANGING RESSOURCES
61052: CHANGING RESSOURCES
61056: CHANGING RESSOURCES
61057: CHANGING RESSOURCES
61064: CHANGING RESSOURCES
61055: CHANGING RESSOURCES
61060: CHANGING RESSOURCES
61054: CHANGING RESSOURCES
61050: CHANGING RESSOURCES
61068: CHANGING RESSOURCES
61065: CHANGING RESSOURCES
61062: CHANGING RESSOURCES
61051: CHANGING RESSOURCES
61063: CHANGING RESSOURCES
61073: CHANGING RESSOURCES
61067: CHANGING RESSOURCES
61053: CHANGING RESSOURCES
61072: CHANGING RESSOURCES
61066: CHANGING RESSOURCES

 + Terminating after 1000 timesteps with equal number of triangles -> EXIT
 + Final timestep: 59579

59580 TS (Timesteps)
3022.12 ST (SIMULATION_TIME)
0.0500175 TSS (Timestep size)
3249.04 SFS (Overall seconds for Simulation)
20954211547 TP (Triangles processed)
0.0545324 ASPT (Averaged Seconds per Timestep)
351699 TPST (Triangles Processed in Average per Simulation Timestep)
95.0841 PPST (Partitions Processed in Average per Simulation Timestep)
6.44936 MTPS (Million Triangles per Second)
-6.44936 MTPSPT (Million Triangles per Second per Thread)
10.733 EDMBPT (ElementData Megabyte per Timestep (RW))
196.819 EDMBPS (ElementData Megabyte per Second (RW))
SUM CLIENT SHUTDOWN HINT: 20954.2
SUM CLIENT SHUTDOWN HINT DIV TIME: 0
61055: CHANGING RESSOURCES
61069: CHANGING RESSOURCES

 + Terminating after 1000 timesteps with equal number of triangles -> EXIT
 + Final timestep: 59579

59580 TS (Timesteps)
3022.12 ST (SIMULATION_TIME)
0.0500175 TSS (Timestep size)
3262.27 SFS (Overall seconds for Simulation)
20954211547 TP (Triangles processed)
0.0547545 ASPT (Averaged Seconds per Timestep)
351699 TPST (Triangles Processed in Average per Simulation Timestep)
95.0841 PPST (Partitions Processed in Average per Simulation Timestep)
6.4232 MTPS (Million Triangles per Second)
-6.4232 MTPSPT (Million Triangles per Second per Thread)
10.733 EDMBPT (ElementData Megabyte per Timestep (RW))
196.02 EDMBPS (ElementData Megabyte per Second (RW))
SUM CLIENT SHUTDOWN HINT: 41908.4
SUM CLIENT SHUTDOWN HINT DIV TIME: 0
61071: CHANGING RESSOURCES
61070: CHANGING RESSOURCES

 + Terminating after 1000 timesteps with equal number of triangles -> EXIT
 + Final timestep: 59579

59580 TS (Timesteps)
3022.12 ST (SIMULATION_TIME)
0.0500175 TSS (Timestep size)
3276.94 SFS (Overall seconds for Simulation)
20954211547 TP (Triangles processed)
0.0550007 ASPT (Averaged Seconds per Timestep)
351699 TPST (Triangles Processed in Average per Simulation Timestep)
95.0841 PPST (Partitions Processed in Average per Simulation Timestep)
6.39444 MTPS (Million Triangles per Second)
-6.39444 MTPSPT (Million Triangles per Second per Thread)
10.733 EDMBPT (ElementData Megabyte per Timestep (RW))
195.143 EDMBPS (ElementData Megabyte per Second (RW))
SUM CLIENT SHUTDOWN HINT: 62862.6
SUM CLIENT SHUTDOWN HINT DIV TIME: 0
61067: CHANGING RESSOURCES
61053: CHANGING RESSOURCES

 + Terminating after 1000 timesteps with equal number of triangles -> EXIT
 + Final timestep: 59579

59580 TS (Timesteps)
3022.12 ST (SIMULATION_TIME)
0.0500175 TSS (Timestep size)
3312.19 SFS (Overall seconds for Simulation)
20954211547 TP (Triangles processed)
0.0555923 ASPT (Averaged Seconds per Timestep)
351699 TPST (Triangles Processed in Average per Simulation Timestep)
95.0841 PPST (Partitions Processed in Average per Simulation Timestep)
6.3264 MTPS (Million Triangles per Second)
-6.3264 MTPSPT (Million Triangles per Second per Thread)
10.733 EDMBPT (ElementData Megabyte per Timestep (RW))
193.066 EDMBPS (ElementData Megabyte per Second (RW))
SUM CLIENT SHUTDOWN HINT: 83816.8
SUM CLIENT SHUTDOWN HINT DIV TIME: 0
61072: CHANGING RESSOURCES
61051: CHANGING RESSOURCES

 + Terminating after 1000 timesteps with equal number of triangles -> EXIT
 + Final timestep: 59579

59580 TS (Timesteps)
3022.12 ST (SIMULATION_TIME)
0.0500175 TSS (Timestep size)
3332.56 SFS (Overall seconds for Simulation)
20954211547 TP (Triangles processed)
0.0559342 ASPT (Averaged Seconds per Timestep)
351699 TPST (Triangles Processed in Average per Simulation Timestep)
95.0841 PPST (Partitions Processed in Average per Simulation Timestep)
6.28772 MTPS (Million Triangles per Second)
-6.28772 MTPSPT (Million Triangles per Second per Thread)
10.733 EDMBPT (ElementData Megabyte per Timestep (RW))
191.886 EDMBPS (ElementData Megabyte per Second (RW))
SUM CLIENT SHUTDOWN HINT: 104771
SUM CLIENT SHUTDOWN HINT DIV TIME: 0
61059: CHANGING RESSOURCES
61052: CHANGING RESSOURCES

 + Terminating after 1000 timesteps with equal number of triangles -> EXIT
 + Final timestep: 59579

59580 TS (Timesteps)
3022.12 ST (SIMULATION_TIME)
0.0500175 TSS (Timestep size)
3341.37 SFS (Overall seconds for Simulation)
20954211547 TP (Triangles processed)
0.056082 ASPT (Averaged Seconds per Timestep)
351699 TPST (Triangles Processed in Average per Simulation Timestep)
95.0841 PPST (Partitions Processed in Average per Simulation Timestep)
6.27115 MTPS (Million Triangles per Second)
-6.27115 MTPSPT (Million Triangles per Second per Thread)
10.733 EDMBPT (ElementData Megabyte per Timestep (RW))
191.38 EDMBPS (ElementData Megabyte per Second (RW))
SUM CLIENT SHUTDOWN HINT: 125725
SUM CLIENT SHUTDOWN HINT DIV TIME: 0
61072: CHANGING RESSOURCES
61051: CHANGING RESSOURCES

 + Terminating after 1000 timesteps with equal number of triangles -> EXIT
 + Final timestep: 59579

59580 TS (Timesteps)
3022.12 ST (SIMULATION_TIME)
0.0500175 TSS (Timestep size)
3389.95 SFS (Overall seconds for Simulation)
20954211547 TP (Triangles processed)
0.0568974 ASPT (Averaged Seconds per Timestep)
351699 TPST (Triangles Processed in Average per Simulation Timestep)
95.0841 PPST (Partitions Processed in Average per Simulation Timestep)
6.18128 MTPS (Million Triangles per Second)
-6.18128 MTPSPT (Million Triangles per Second per Thread)
10.733 EDMBPT (ElementData Megabyte per Timestep (RW))
188.638 EDMBPS (ElementData Megabyte per Second (RW))
SUM CLIENT SHUTDOWN HINT: 146679
SUM CLIENT SHUTDOWN HINT DIV TIME: 0
61064: CHANGING RESSOURCES
61065: CHANGING RESSOURCES

 + Terminating after 1000 timesteps with equal number of triangles -> EXIT
 + Final timestep: 59579

59580 TS (Timesteps)
3022.12 ST (SIMULATION_TIME)
0.0500175 TSS (Timestep size)
3397.18 SFS (Overall seconds for Simulation)
20954211547 TP (Triangles processed)
0.0570187 ASPT (Averaged Seconds per Timestep)
351699 TPST (Triangles Processed in Average per Simulation Timestep)
95.0841 PPST (Partitions Processed in Average per Simulation Timestep)
6.16813 MTPS (Million Triangles per Second)
-6.16813 MTPSPT (Million Triangles per Second per Thread)
10.733 EDMBPT (ElementData Megabyte per Timestep (RW))
188.236 EDMBPS (ElementData Megabyte per Second (RW))
SUM CLIENT SHUTDOWN HINT: 167634
SUM CLIENT SHUTDOWN HINT DIV TIME: 0
61073: CHANGING RESSOURCES
61050: CHANGING RESSOURCES

 + Terminating after 1000 timesteps with equal number of triangles -> EXIT
 + Final timestep: 59579

59580 TS (Timesteps)
3022.12 ST (SIMULATION_TIME)
0.0500175 TSS (Timestep size)
3423.47 SFS (Overall seconds for Simulation)
20954211547 TP (Triangles processed)
0.05746 ASPT (Averaged Seconds per Timestep)
351699 TPST (Triangles Processed in Average per Simulation Timestep)
95.0841 PPST (Partitions Processed in Average per Simulation Timestep)
6.12076 MTPS (Million Triangles per Second)
-6.12076 MTPSPT (Million Triangles per Second per Thread)
10.733 EDMBPT (ElementData Megabyte per Timestep (RW))
186.791 EDMBPS (ElementData Megabyte per Second (RW))
SUM CLIENT SHUTDOWN HINT: 188588
SUM CLIENT SHUTDOWN HINT DIV TIME: 0
61055: CHANGING RESSOURCES
61066: CHANGING RESSOURCES
61057: CHANGING RESSOURCES

 + Terminating after 1000 timesteps with equal number of triangles -> EXIT
 + Final timestep: 59579

59580 TS (Timesteps)
3022.12 ST (SIMULATION_TIME)
0.0500175 TSS (Timestep size)
3443.35 SFS (Overall seconds for Simulation)
20954211547 TP (Triangles processed)
0.0577937 ASPT (Averaged Seconds per Timestep)
351699 TPST (Triangles Processed in Average per Simulation Timestep)
95.0841 PPST (Partitions Processed in Average per Simulation Timestep)
6.08542 MTPS (Million Triangles per Second)
-6.08542 MTPSPT (Million Triangles per Second per Thread)
10.733 EDMBPT (ElementData Megabyte per Timestep (RW))
185.712 EDMBPS (ElementData Megabyte per Second (RW))
SUM CLIENT SHUTDOWN HINT: 209542
SUM CLIENT SHUTDOWN HINT DIV TIME: 0
61069: CHANGING RESSOURCES
61071: CHANGING RESSOURCES
61070: CHANGING RESSOURCES

 + Terminating after 1000 timesteps with equal number of triangles -> EXIT
 + Final timestep: 59579

59580 TS (Timesteps)
3022.12 ST (SIMULATION_TIME)
0.0500175 TSS (Timestep size)
3448.52 SFS (Overall seconds for Simulation)
20954211547 TP (Triangles processed)
0.0578805 ASPT (Averaged Seconds per Timestep)
351699 TPST (Triangles Processed in Average per Simulation Timestep)
95.0841 PPST (Partitions Processed in Average per Simulation Timestep)
6.07629 MTPS (Million Triangles per Second)
-6.07629 MTPSPT (Million Triangles per Second per Thread)
10.733 EDMBPT (ElementData Megabyte per Timestep (RW))
185.434 EDMBPS (ElementData Megabyte per Second (RW))
SUM CLIENT SHUTDOWN HINT: 230496
SUM CLIENT SHUTDOWN HINT DIV TIME: 0
61053: CHANGING RESSOURCES
61067: CHANGING RESSOURCES
61051: CHANGING RESSOURCES

 + Terminating after 1000 timesteps with equal number of triangles -> EXIT
 + Final timestep: 59579

59580 TS (Timesteps)
3022.12 ST (SIMULATION_TIME)
0.0500175 TSS (Timestep size)
3487.28 SFS (Overall seconds for Simulation)
20954211547 TP (Triangles processed)
0.0585311 ASPT (Averaged Seconds per Timestep)
351699 TPST (Triangles Processed in Average per Simulation Timestep)
95.0841 PPST (Partitions Processed in Average per Simulation Timestep)
6.00875 MTPS (Million Triangles per Second)
-6.00875 MTPSPT (Million Triangles per Second per Thread)
10.733 EDMBPT (ElementData Megabyte per Timestep (RW))
183.373 EDMBPS (ElementData Megabyte per Second (RW))
SUM CLIENT SHUTDOWN HINT: 251451
SUM CLIENT SHUTDOWN HINT DIV TIME: 0
61050: CHANGING RESSOURCES
61055: CHANGING RESSOURCES

 + Terminating after 1000 timesteps with equal number of triangles -> EXIT
 + Final timestep: 59579

59580 TS (Timesteps)
3022.12 ST (SIMULATION_TIME)
0.0500175 TSS (Timestep size)
3494.2 SFS (Overall seconds for Simulation)
20954211547 TP (Triangles processed)
0.0586472 ASPT (Averaged Seconds per Timestep)
351699 TPST (Triangles Processed in Average per Simulation Timestep)
95.0841 PPST (Partitions Processed in Average per Simulation Timestep)
5.99685 MTPS (Million Triangles per Second)
-5.99685 MTPSPT (Million Triangles per Second per Thread)
10.733 EDMBPT (ElementData Megabyte per Timestep (RW))
183.009 EDMBPS (ElementData Megabyte per Second (RW))
SUM CLIENT SHUTDOWN HINT: 272405
SUM CLIENT SHUTDOWN HINT DIV TIME: 0
61070: CHANGING RESSOURCES
61069: CHANGING RESSOURCES
61051: CHANGING RESSOURCES
61071: CHANGING RESSOURCES

 + Terminating after 1000 timesteps with equal number of triangles -> EXIT
 + Final timestep: 59579

59580 TS (Timesteps)
3022.12 ST (SIMULATION_TIME)
0.0500175 TSS (Timestep size)
3544.04 SFS (Overall seconds for Simulation)
20954211547 TP (Triangles processed)
0.0594837 ASPT (Averaged Seconds per Timestep)
351699 TPST (Triangles Processed in Average per Simulation Timestep)
95.0841 PPST (Partitions Processed in Average per Simulation Timestep)
5.91252 MTPS (Million Triangles per Second)
-5.91252 MTPSPT (Million Triangles per Second per Thread)
10.733 EDMBPT (ElementData Megabyte per Timestep (RW))
180.436 EDMBPS (ElementData Megabyte per Second (RW))
SUM CLIENT SHUTDOWN HINT: 293359
SUM CLIENT SHUTDOWN HINT DIV TIME: 0
61053: CHANGING RESSOURCES
61072: CHANGING RESSOURCES
61051: CHANGING RESSOURCES

 + Terminating after 1000 timesteps with equal number of triangles -> EXIT
 + Final timestep: 59579

59580 TS (Timesteps)
3022.12 ST (SIMULATION_TIME)
0.0500175 TSS (Timestep size)
3594.51 SFS (Overall seconds for Simulation)
20954211547 TP (Triangles processed)
0.0603309 ASPT (Averaged Seconds per Timestep)
351699 TPST (Triangles Processed in Average per Simulation Timestep)
95.0841 PPST (Partitions Processed in Average per Simulation Timestep)
5.8295 MTPS (Million Triangles per Second)
-5.8295 MTPSPT (Million Triangles per Second per Thread)
10.733 EDMBPT (ElementData Megabyte per Timestep (RW))
177.902 EDMBPS (ElementData Megabyte per Second (RW))
SUM CLIENT SHUTDOWN HINT: 314313
SUM CLIENT SHUTDOWN HINT DIV TIME: 0
61051: CHANGING RESSOURCES
61055: CHANGING RESSOURCES
61072: CHANGING RESSOURCES
61050: CHANGING RESSOURCES

 + Terminating after 1000 timesteps with equal number of triangles -> EXIT
 + Final timestep: 59579

59580 TS (Timesteps)
3022.12 ST (SIMULATION_TIME)
0.0500175 TSS (Timestep size)
3604.32 SFS (Overall seconds for Simulation)
20954211547 TP (Triangles processed)
0.0604955 ASPT (Averaged Seconds per Timestep)
351699 TPST (Triangles Processed in Average per Simulation Timestep)
95.0841 PPST (Partitions Processed in Average per Simulation Timestep)
5.81363 MTPS (Million Triangles per Second)
-5.81363 MTPSPT (Million Triangles per Second per Thread)
10.733 EDMBPT (ElementData Megabyte per Timestep (RW))
177.418 EDMBPS (ElementData Megabyte per Second (RW))
SUM CLIENT SHUTDOWN HINT: 335267
SUM CLIENT SHUTDOWN HINT DIV TIME: 0
61071: CHANGING RESSOURCES
61070: CHANGING RESSOURCES
61067: CHANGING RESSOURCES
61069: CHANGING RESSOURCES
61053: CHANGING RESSOURCES
Waiting for job 61051

 + Terminating after 1000 timesteps with equal number of triangles -> EXIT
 + Final timestep: 59579

59580 TS (Timesteps)
3022.12 ST (SIMULATION_TIME)
0.0500175 TSS (Timestep size)
4072.93 SFS (Overall seconds for Simulation)
20954211547 TP (Triangles processed)
0.0683607 ASPT (Averaged Seconds per Timestep)
351699 TPST (Triangles Processed in Average per Simulation Timestep)
95.0841 PPST (Partitions Processed in Average per Simulation Timestep)
5.14475 MTPS (Million Triangles per Second)
-5.14475 MTPSPT (Million Triangles per Second per Thread)
10.733 EDMBPT (ElementData Megabyte per Timestep (RW))
157.005 EDMBPS (ElementData Megabyte per Second (RW))
SUM CLIENT SHUTDOWN HINT: 356222
SUM CLIENT SHUTDOWN HINT DIV TIME: 0
61070: CHANGING RESSOURCES
61069: CHANGING RESSOURCES
61055: CHANGING RESSOURCES
61051: CHANGING RESSOURCES
61071: CHANGING RESSOURCES

 + Terminating after 1000 timesteps with equal number of triangles -> EXIT
 + Final timestep: 59579

59580 TS (Timesteps)
3022.12 ST (SIMULATION_TIME)
0.0500175 TSS (Timestep size)
4126.93 SFS (Overall seconds for Simulation)
20954211547 TP (Triangles processed)
0.0692671 ASPT (Averaged Seconds per Timestep)
351699 TPST (Triangles Processed in Average per Simulation Timestep)
95.0841 PPST (Partitions Processed in Average per Simulation Timestep)
5.07743 MTPS (Million Triangles per Second)
-5.07743 MTPSPT (Million Triangles per Second per Thread)
10.733 EDMBPT (ElementData Megabyte per Timestep (RW))
154.951 EDMBPS (ElementData Megabyte per Second (RW))
SUM CLIENT SHUTDOWN HINT: 377176
SUM CLIENT SHUTDOWN HINT DIV TIME: 0
61051: CHANGING RESSOURCES
61069: CHANGING RESSOURCES
61053: CHANGING RESSOURCES
61055: CHANGING RESSOURCES

 + Terminating after 1000 timesteps with equal number of triangles -> EXIT
 + Final timestep: 59579

59580 TS (Timesteps)
3022.12 ST (SIMULATION_TIME)
0.0500175 TSS (Timestep size)
4179.87 SFS (Overall seconds for Simulation)
20954211547 TP (Triangles processed)
0.0701555 ASPT (Averaged Seconds per Timestep)
351699 TPST (Triangles Processed in Average per Simulation Timestep)
95.0841 PPST (Partitions Processed in Average per Simulation Timestep)
5.01313 MTPS (Million Triangles per Second)
-5.01313 MTPSPT (Million Triangles per Second per Thread)
10.733 EDMBPT (ElementData Megabyte per Timestep (RW))
152.989 EDMBPS (ElementData Megabyte per Second (RW))
SUM CLIENT SHUTDOWN HINT: 398130
SUM CLIENT SHUTDOWN HINT DIV TIME: 0
61055: CHANGING RESSOURCES
61070: CHANGING RESSOURCES
61069: CHANGING RESSOURCES
61051: CHANGING RESSOURCES
61053: CHANGING RESSOURCES

 + Terminating after 1000 timesteps with equal number of triangles -> EXIT
 + Final timestep: 59579

59580 TS (Timesteps)
3022.12 ST (SIMULATION_TIME)
0.0500175 TSS (Timestep size)
4201.56 SFS (Overall seconds for Simulation)
20954211547 TP (Triangles processed)
0.0705196 ASPT (Averaged Seconds per Timestep)
351699 TPST (Triangles Processed in Average per Simulation Timestep)
95.0841 PPST (Partitions Processed in Average per Simulation Timestep)
4.98725 MTPS (Million Triangles per Second)
-4.98725 MTPSPT (Million Triangles per Second per Thread)
10.733 EDMBPT (ElementData Megabyte per Timestep (RW))
152.199 EDMBPS (ElementData Megabyte per Second (RW))
SUM CLIENT SHUTDOWN HINT: 419084
SUM CLIENT SHUTDOWN HINT DIV TIME: 0
61051: CHANGING RESSOURCES
61055: CHANGING RESSOURCES
61053: CHANGING RESSOURCES
61070: CHANGING RESSOURCES

 + Terminating after 1000 timesteps with equal number of triangles -> EXIT
 + Final timestep: 59579

59580 TS (Timesteps)
3022.12 ST (SIMULATION_TIME)
0.0500175 TSS (Timestep size)
4241.47 SFS (Overall seconds for Simulation)
20954211547 TP (Triangles processed)
0.0711895 ASPT (Averaged Seconds per Timestep)
351699 TPST (Triangles Processed in Average per Simulation Timestep)
95.0841 PPST (Partitions Processed in Average per Simulation Timestep)
4.94032 MTPS (Million Triangles per Second)
-4.94032 MTPSPT (Million Triangles per Second per Thread)
10.733 EDMBPT (ElementData Megabyte per Timestep (RW))
150.767 EDMBPS (ElementData Megabyte per Second (RW))
SUM CLIENT SHUTDOWN HINT: 440038
SUM CLIENT SHUTDOWN HINT DIV TIME: 0
61053: CHANGING RESSOURCES
61070: CHANGING RESSOURCES
61051: CHANGING RESSOURCES

 + Terminating after 1000 timesteps with equal number of triangles -> EXIT
 + Final timestep: 59579

59580 TS (Timesteps)
3022.12 ST (SIMULATION_TIME)
0.0500175 TSS (Timestep size)
4243.25 SFS (Overall seconds for Simulation)
20954211547 TP (Triangles processed)
0.0712194 ASPT (Averaged Seconds per Timestep)
351699 TPST (Triangles Processed in Average per Simulation Timestep)
95.0841 PPST (Partitions Processed in Average per Simulation Timestep)
4.93824 MTPS (Million Triangles per Second)
-4.93824 MTPSPT (Million Triangles per Second per Thread)
10.733 EDMBPT (ElementData Megabyte per Timestep (RW))
150.703 EDMBPS (ElementData Megabyte per Second (RW))
SUM CLIENT SHUTDOWN HINT: 460993
SUM CLIENT SHUTDOWN HINT DIV TIME: 0
61053: CHANGING RESSOURCES
61070: CHANGING RESSOURCES
Waiting for job 61052
Waiting for job 61053

 + Terminating after 1000 timesteps with equal number of triangles -> EXIT
 + Final timestep: 59579

59580 TS (Timesteps)
3022.12 ST (SIMULATION_TIME)
0.0500175 TSS (Timestep size)
4247.05 SFS (Overall seconds for Simulation)
20954211547 TP (Triangles processed)
0.0712832 ASPT (Averaged Seconds per Timestep)
351699 TPST (Triangles Processed in Average per Simulation Timestep)
95.0841 PPST (Partitions Processed in Average per Simulation Timestep)
4.93382 MTPS (Million Triangles per Second)
-4.93382 MTPSPT (Million Triangles per Second per Thread)
10.733 EDMBPT (ElementData Megabyte per Timestep (RW))
150.568 EDMBPS (ElementData Megabyte per Second (RW))
SUM CLIENT SHUTDOWN HINT: 481947
SUM CLIENT SHUTDOWN HINT DIV TIME: 0
61070: CHANGING RESSOURCES
Waiting for job 61054
Waiting for job 61055
Waiting for job 61056
Waiting for job 61057
Waiting for job 61058
Waiting for job 61059
Waiting for job 61060
Waiting for job 61061
Waiting for job 61062
Waiting for job 61063
Waiting for job 61064
Waiting for job 61065
Waiting for job 61066
Waiting for job 61067
Waiting for job 61068
Waiting for job 61069
Waiting for job 61070

 + Terminating after 1000 timesteps with equal number of triangles -> EXIT
 + Final timestep: 59579

59580 TS (Timesteps)
3022.12 ST (SIMULATION_TIME)
0.0500175 TSS (Timestep size)
4276.58 SFS (Overall seconds for Simulation)
20954211547 TP (Triangles processed)
0.0717787 ASPT (Averaged Seconds per Timestep)
351699 TPST (Triangles Processed in Average per Simulation Timestep)
95.0841 PPST (Partitions Processed in Average per Simulation Timestep)
4.89976 MTPS (Million Triangles per Second)
-4.89976 MTPSPT (Million Triangles per Second per Thread)
10.733 EDMBPT (ElementData Megabyte per Timestep (RW))
149.529 EDMBPS (ElementData Megabyte per Second (RW))
SUM CLIENT SHUTDOWN HINT: 502901
SUM CLIENT SHUTDOWN HINT DIV TIME: 117.596
Waiting for job 61071
Waiting for job 61072
Waiting for job 61073
Mon Apr  2 08:45:31 CEST 2012
Seconds: 4277
