Warning from RANK Warning from RANK 3: more nodes than initial clusters available!
2: more nodes than initial clusters available!

++++++++++ MPI RANK 0 ++++++++++
100 TS (Timesteps)
0.211661 ST (SIMULATION_TIME)
0.0020967 TSS (Timestep size)
1462.82 RT (REAL_TIME)
7597888565 CP (Cells processed)
14.6282 ASPT (Averaged Seconds per Timestep)
75.9789 MCPPT (Million Cells Processed in Average per Simulation Timestep)
9369.72 ACPST (Averaged number of clusters per Simulation Timestep)
5.19399 MCPS (Million Cells per Second) (local)
7597.89 MCP (Million Cells processed) (local)
640.523 CPSPT (Clusters per Second per Thread)
2318.69 EDMBPT (CellData Megabyte per Timestep (RW))
158.508 EDMBPS (CellData Megabyte per Second (RW))
50 Flops per cell update (Matrix Multiplication)
0.259699 GFLOPS

++++++++++ MPI RANK 1 ++++++++++
100 TS (Timesteps)
0.211661 ST (SIMULATION_TIME)
0.0020967 TSS (Timestep size)
1462.83 RT (REAL_TIME)
7597880473 CP (Cells processed)
14.6283 ASPT (Averaged Seconds per Timestep)
75.9788 MCPPT (Million Cells Processed in Average per Simulation Timestep)
9369.71 ACPST (Averaged number of clusters per Simulation Timestep)
5.19397 MCPS (Million Cells per Second) (local)
7597.88 MCP (Million Cells processed) (local)
640.521 CPSPT (Clusters per Second per Thread)
2318.69 EDMBPT (CellData Megabyte per Timestep (RW))
158.507 EDMBPS (CellData Megabyte per Second (RW))
50 Flops per cell update (Matrix Multiplication)
0.259699 GFLOPS


++++++++++ MPI RANK 2 ++++++++++
100 TS (Timesteps)
0.211661 ST (SIMULATION_TIME)
0.0020967 TSS (Timestep size)
1462.83 RT (REAL_TIME)
7597898201 CP (Cells processed)
14.6283 ASPT (Averaged Seconds per Timestep)
75.979 MCPPT (Million Cells Processed in Average per Simulation Timestep)
9415.1 ACPST (Averaged number of clusters per Simulation Timestep)
5.19398 MCPS (Million Cells per Second) (local)
7597.9 MCP (Million Cells processed) (local)
643.624 CPSPT (Clusters per Second per Thread)
2318.69 EDMBPT (CellData Megabyte per Timestep (RW))
158.508 EDMBPS (CellData Megabyte per Second (RW))
50 Flops per cell update (Matrix Multiplication)
0.259699 GFLOPS


++++++++++ MPI RANK 3 ++++++++++
100 TS (Timesteps)
0.211661 ST (SIMULATION_TIME)
0.0020967 TSS (Timestep size)
1462.82 RT (REAL_TIME)
7597889185 CP (Cells processed)
14.6282 ASPT (Averaged Seconds per Timestep)
75.9789 MCPPT (Million Cells Processed in Average per Simulation Timestep)
9415.08 ACPST (Averaged number of clusters per Simulation Timestep)
5.19399 MCPS (Million Cells per Second) (local)
7597.89 MCP (Million Cells processed) (local)
643.624 CPSPT (Clusters per Second per Thread)
2318.69 EDMBPT (CellData Megabyte per Timestep (RW))
158.508 EDMBPS (CellData Megabyte per Second (RW))
50 Flops per cell update (Matrix Multiplication)
0.259699 GFLOPS


++++++++++ SUMMARY ++++++++++
20.7759 GMCPS (Global Million Cells per Second) (global)
30391.6 GMCP (Global Million Cells Processed) (global)
642.073 GCPSPT (Global Clusters per Second per Thread) (global)
303.916 GMCPPT (Global Million Cells Processed in Average per Simulation Timestep)
100 GNT (Global Number of Timesteps) (global)

1441792 MSNGCells (Migration Sent Number of Global Cells)
176 MSNGCluster (Migration Sent Number of Global Cluster)
4.74405e-05 MRC (Migrated Relative Cells)
1.0388 GGFLOPS (Global GFLOPS)

+++++++++++++++++++++++++++++++++++++++++++++++++++++++++++++++++++++
+ LOAD BALANCING STATISTICS FOR TIMESTEP 101
+++++++++++++++++++++++++++++++++++++++++++++++++++++++++++++++++++++
Rank	local_clusters	local_cells	target_average	rel_deviation
0	9411	76296999	7.62967e+07	-3.46673e-06
1	9411	76296993	7.62967e+07	-3.38809e-06
2	9461	76296478	7.62967e+07	3.36187e-06
3	9461	76296468	7.62967e+07	3.49294e-06
