Executable + params: ../../build/sierpi_intel_tbb_taskaffinities_scan_sacsp_tsunami_parallel_release -o 32768 -A 1 -d 20 -a 8 -t 100
Problem size with different number of CPUs using function optimization
THREADS	MTPS	TIMESTEPS	TIMESTEP_SIZE	SECONDS_FOR_SIMULATION	AVERAGE_TRIANGLES	AVERAGE_PARTITIONS
80	69.2996	100	0.000491318		1.9047e+07	1760.14
64	59.1441	100	0.000491318		1.9047e+07	1445.57
40	60.0816	100	0.000491318		1.9047e+07	963.71
32	43.6926	100	0.000491318		1.9047e+07	773.72
16	21.2741	100	0.000491318		1.9047e+07	433.08
8	12.7476	100	0.000491318		1.9047e+07	236.11
4	9.00848	100	0.000491318		1.9047e+07	133.26
2	4.8508	100	0.000491318		1.9047e+07	75.89
1	2.48174	100	0.000491318		1.9047e+07	48
