THREADS	MTPS	TIMESTEPS	TIMESTEP_SIZE	SECONDS_FOR_SIMULATION	AVERAGE_TRIANGLES	AVERAGE_PARTITIONS
80	67.8499	100	0.000491318	28.0721	1.90469e+07	1158.74
79	67.9136	100	0.000491318	28.0458	1.90469e+07	1158.74
78	68.3846	100	0.000491318	27.8526	1.90469e+07	1158.74
77	68.8123	100	0.000491318	27.6795	1.90469e+07	1158.74
76	68.5545	100	0.000491318	27.7836	1.90469e+07	1158.74
75	66.9506	100	0.000491318	28.4492	1.90469e+07	1158.74
74	67.7454	100	0.000491318	28.1155	1.90469e+07	1158.74
73	62.0284	100	0.000491318	30.7068	1.90469e+07	1158.74
72	59.6896	100	0.000491318	31.9099	1.90469e+07	1158.74
71	53.1561	100	0.000491318	35.832	1.90469e+07	1158.74
70	53.1484	100	0.000491318	35.8373	1.90469e+07	1158.74
69	46.5073	100	0.000491318	40.9547	1.90469e+07	1158.74
68	49.2888	100	0.000491318	38.6435	1.90469e+07	1158.74
67	45.318	100	0.000491318	42.0295	1.90469e+07	1158.74
66	49.4163	100	0.000491318	38.5438	1.90469e+07	1158.74
65	47.5966	100	0.000491318	40.0174	1.90469e+07	1158.74
64	48.761	100	0.000491318	39.0618	1.90469e+07	1158.74
63	46.8877	100	0.000491318	40.6224	1.90469e+07	1158.74
62	46.4007	100	0.000491318	41.0488	1.90469e+07	1158.74
61	44.299	100	0.000491318	42.9962	1.90469e+07	1158.74
60	44.1314	100	0.000491318	43.1596	1.90469e+07	1158.74
59	49.3542	100	0.000491318	38.5923	1.90469e+07	1158.74
58	43.7438	100	0.000491318	43.542	1.90469e+07	1158.74
57	47.4919	100	0.000491318	40.1056	1.90469e+07	1158.74
56	42.5827	100	0.000491318	44.7292	1.90469e+07	1158.74
55	46.3825	100	0.000491318	41.0649	1.90469e+07	1158.74
54	45.9606	100	0.000491318	41.4419	1.90469e+07	1158.74
53	46.9373	100	0.000491318	40.5795	1.90469e+07	1158.74
52	44.5691	100	0.000491318	42.7357	1.90469e+07	1158.74
51	44.8567	100	0.000491318	42.4617	1.90469e+07	1158.74
50	47.1105	100	0.000491318	40.4303	1.90469e+07	1158.74
49	44.2745	100	0.000491318	43.02	1.90469e+07	1158.74
48	39.9541	100	0.000491318	47.672	1.90469e+07	1158.74
47	49.7748	100	0.000491318	38.2661	1.90469e+07	1158.74
46	46.552	100	0.000491318	40.9153	1.90469e+07	1158.74
45	50.286	100	0.000491318	37.8772	1.90469e+07	1158.74
44	47.8834	100	0.000491318	39.7777	1.90469e+07	1158.74
43	49.0367	100	0.000491318	38.8422	1.90469e+07	1158.74
42	43.5995	100	0.000491318	43.6861	1.90469e+07	1158.74
41	46.5596	100	0.000491318	40.9087	1.90469e+07	1158.74
40	53.7755	100	0.000491318	35.4193	1.90469e+07	1158.74
39	48.7582	100	0.000491318	39.064	1.90469e+07	1158.74
38	44.8686	100	0.000491318	42.4504	1.90469e+07	1158.74
37	48.4574	100	0.000491318	39.3066	1.90469e+07	1158.74
36	48.1601	100	0.000491318	39.5492	1.90469e+07	1158.74
35	43.4333	100	0.000491318	43.8533	1.90469e+07	1158.74
34	45.1378	100	0.000491318	42.1973	1.90469e+07	1158.74
33	39.286	100	0.000491318	48.4827	1.90469e+07	1158.74
32	48.2631	100	0.000491318	39.4648	1.90469e+07	1158.74
31	40.5166	100	0.000491318	47.0101	1.90469e+07	1158.74
30	43.3159	100	0.000491318	43.9721	1.90469e+07	1158.74
29	46.7471	100	0.000491318	40.7446	1.90469e+07	1158.74
28	38.6303	100	0.000491318	49.3056	1.90469e+07	1158.74
27	39.0795	100	0.000491318	48.7389	1.90469e+07	1158.74
26	41.2922	100	0.000491318	46.1272	1.90469e+07	1158.74
25	41.7844	100	0.000491318	45.5838	1.90469e+07	1158.74
24	43.0724	100	0.000491318	44.2206	1.90469e+07	1158.74
23	39.9283	100	0.000491318	47.7027	1.90469e+07	1158.74
22	39.6757	100	0.000491318	48.0065	1.90469e+07	1158.74
21	39.8701	100	0.000491318	47.7725	1.90469e+07	1158.74
20	37.5739	100	0.000491318	50.6919	1.90469e+07	1158.74
19	37.3916	100	0.000491318	50.939	1.90469e+07	1158.74
18	34.6053	100	0.000491318	55.0404	1.90469e+07	1158.74
17	34.7368	100	0.000491318	54.832	1.90469e+07	1158.74
16	35.1092	100	0.000491318	54.2504	1.90469e+07	1158.74
15	33.7136	100	0.000491318	56.4962	1.90469e+07	1158.74
14	31.688	100	0.000491318	60.1077	1.90469e+07	1158.74
13	30.9406	100	0.000491318	61.5596	1.90469e+07	1158.74
12	28.8243	100	0.000491318	66.0794	1.90469e+07	1158.74
11	26.3449	100	0.000491318	72.2982	1.90469e+07	1158.74
10	24.7645	100	0.000491318	76.9121	1.90469e+07	1158.74
9	22.3115	100	0.000491318	85.3681	1.90469e+07	1158.74
8	20.0282	100	0.000491318	95.1005	1.90469e+07	1158.74
7	17.6083	100	0.000491318	108.17	1.90469e+07	1158.74
6	15.1604	100	0.000491318	125.636	1.90469e+07	1158.74
5	12.6577	100	0.000491318	150.477	1.90469e+07	1158.74
4	10.1492	100	0.000491318	187.67	1.90469e+07	1158.74
3	7.6607	100	0.000491318	248.632	1.90469e+07	1158.74
2	5.25031	100	0.000491318	362.777	1.90469e+07	1158.74
1	2.66449	100	0.000491318	714.842	1.90469e+07	1158.74
