0	0
10.9431	0
21.8861	0
32.8292	0
40.1245	0
51.0676	0
62.0107	0
72.9537	0
80.2491	0
91.1921	0
102.135	0
113.078	0
120.374	0
131.317	0
142.26	0
153.203	0
160.498	0
171.441	0
182.384	0
193.327	0
200.623	0
211.566	0
222.509	0
233.452	0
240.747	0
251.69	0
262.633	0
273.576	0
280.872	0
291.815	0
302.758	0
310.053	0
320.996	0
331.939	0
342.882	0
350.178	0
361.121	0
372.064	0
383.007	0
390.302	0
401.245	0
412.189	0
423.132	0
430.427	0
441.37	0
452.313	0
463.256	0
470.551	0
481.495	0
492.438	0
503.381	0
510.676	0
521.619	0
532.562	0
543.505	0
550.801	0
561.744	0
572.687	0
583.63	0
590.925	0
601.868	0
612.811	0
620.107	0
631.05	0
641.993	0
652.936	0
660.231	0
671.174	0
682.117	0
693.06	0
700.356	0
711.299	0
722.242	0
733.185	0
740.48	0
751.423	0
762.366	0
773.309	0
780.605	0
791.548	0
802.491	0
813.434	0
820.729	0
831.672	0
842.615	0
853.559	0
860.854	0
871.797	0
882.74	0
890.035	0
900.978	0
911.921	0
922.865	0
930.16	0
941.103	0
952.046	0
962.989	0
970.284	0
981.228	0
992.171	0
1003.11	0
1010.41	0
1021.35	0
1032.3	0
1043.24	0
1050.53	0
1061.48	0
1072.42	0
1083.36	0
1090.66	0
1101.6	0
1112.54	0
1123.49	0
1130.78	0
1141.73	0
1152.67	0
1163.61	0
1170.91	0
1181.85	0
1192.79	0
1200.09	0
1211.03	0
1221.97	0
1232.92	0
1240.21	0
1251.16	0
1262.1	0
1273.04	0
1280.34	0
1291.28	0
1302.22	0
1313.17	0
1320.46	0
1331.41	0
1342.35	0
1353.29	0
1360.59	0
1371.53	0
1382.47	0
1393.42	0
1400.71	0
1411.65	0
1422.6	0
1433.54	0
1440.84	0
1451.78	0
1462.72	0
1470.02	0
1480.96	0
1491.9	0
1502.85	0
1510.14	0
1521.09	0
1532.03	0
1542.97	0
1550.27	0
1561.21	0
1572.15	0
1583.1	0
1590.39	0
1601.33	0
1612.28	0
1623.22	0
1630.52	0
1641.46	0
1652.4	0
1663.34	0
1670.64	0
1681.58	0
1692.53	0
1703.47	0
1710.76	0
1721.71	0
1732.65	0
1743.59	0
1750.89	0
1761.83	0
1772.78	0
1780.07	0
1791.01	0
1801.96	0
1812.9	0
1820.2	0
1831.14	0
1842.08	0
1853.02	0
1860.32	0
1871.26	0
1882.21	0
1893.15	0
1900.44	0
1911.39	0
1922.33	0
1933.27	0
1940.57	0
1951.51	0
1962.46	0
1973.4	0
1980.69	0
1991.64	0
2002.58	0
2013.52	0
2020.82	0
2031.76	0
2042.7	0
2053.65	0
2060.94	0
2071.89	0
2082.83	0
2090.12	0
2101.07	0
2112.01	0
2122.95	0
2130.25	0
2141.19	0
2152.13	0
2163.08	0
2170.37	0
2181.32	0
2192.26	0
2203.2	0
2210.5	0
2221.44	0
2232.38	0
2243.33	0
2250.62	0
2261.57	0
2272.51	0
2283.45	0
2290.75	0
2301.69	0
2312.63	0
2323.58	0
2330.87	0
2341.81	0
2352.76	0
2360.05	0
2371	0
2381.94	0
2392.88	0
2400.18	0
2411.12	0
2422.06	0
2433.01	0
2440.3	0
2451.24	0
2462.19	0
2473.13	0
2480.43	0
2491.37	0
2502.31	0
2513.26	0
2520.55	0
2531.49	0
2542.44	0
2553.38	0
2560.68	0
2571.62	0
2582.56	0
2593.5	0
2600.8	0
2611.74	0
2622.69	0
2633.63	0
2640.92	0
2651.87	0
2662.81	0
2670.11	0
2681.05	0
2691.99	0
2702.94	0
2710.23	0
2721.17	0
2732.12	0
2743.06	0
2750.36	0
2761.3	0
2772.24	0
2783.18	0
2790.48	0
2801.42	0
2812.37	0
2823.31	9.09495e-13
2830.6	9.09495e-13
2841.55	2.72848e-12
2852.49	7.27596e-12
2863.43	1.36424e-11
2870.73	2.00089e-11
2881.67	3.81988e-11
2892.61	7.00311e-11
2903.56	1.27329e-10
2910.85	1.87356e-10
2921.8	3.30147e-10
2932.74	5.72072e-10
2940.03	8.19455e-10
2950.98	1.38971e-09
2961.92	2.32285e-09
2972.86	3.83079e-09
2980.16	5.30781e-09
2991.1	8.56289e-09
3002.04	1.36361e-08
3012.99	2.14395e-08
3020.28	2.87891e-08
3031.22	4.43397e-08
3042.17	6.74654e-08
3053.11	1.01439e-07
3060.41	1.32266e-07
3071.35	1.95042e-07
3082.29	2.84364e-07
3093.23	4.09984e-07
3100.53	5.20046e-07
3111.47	7.36276e-07
3122.42	1.03138e-06
3133.36	1.42975e-06
3140.65	1.76745e-06
3151.6	2.40891e-06
3162.54	3.25076e-06
3173.48	4.34435e-06
3180.78	5.24299e-06
3191.72	6.89704e-06
3202.66	8.98967e-06
3213.61	1.16119e-05
3220.9	1.37048e-05
3231.84	1.74453e-05
3242.79	2.20182e-05
3250.08	2.55957e-05
3261.02	3.18622e-05
3271.97	3.93454e-05
3282.91	4.82059e-05
3290.2	5.49602e-05
3301.15	6.64881e-05
3312.09	7.98428e-05
3323.03	9.5192e-05
3330.33	0.000106613
3341.27	0.000125641
3352.21	0.000147072
3363.16	0.000171031
3370.45	0.000188462
3381.39	0.00021686
3392.34	0.000248017
3403.28	0.000281969
3410.57	0.00030616
3421.52	0.000344765
3432.46	0.000386107
3443.4	0.000430106
3450.7	0.00046086
3461.64	0.000509023
3472.58	0.000559478
3483.53	0.000612045
3490.82	0.000648162
3501.76	0.000703791
3512.71	0.000760966
3520	0.000799831
3530.94	0.000859088
3541.89	0.000919306
3552.83	0.000980288
3560.12	0.00102128
3571.07	0.00108316
3582.01	0.0011454
3592.95	0.00120792
3600.25	0.00124973
3611.19	0.00131262
3622.13	0.00137576
3633.07	0.00143923
3640.37	0.00148177
3651.31	0.00154604
3662.25	0.00161103
3673.2	0.00167695
3680.49	0.00172153
3691.43	0.00178956
3702.37	0.00185922
3713.32	0.0019308
3720.61	0.00197973
3731.55	0.00205517
3742.5	0.00213331
3753.44	0.00221445
3760.73	0.00227035
3771.68	0.00235713
3782.62	0.00244768
3793.56	0.0025423
3800.86	0.0026078
3811.8	0.00270997
3822.74	0.00281721
3830.04	0.00289178
3840.98	0.00300868
3851.92	0.00313233
3862.86	0.00326366
3870.16	0.00335606
3881.1	0.00350302
3892.04	0.0036616
3902.99	0.00383402
3910.28	0.00395799
3921.22	0.00415992
3932.17	0.00438452
3943.11	0.00463657
3950.4	0.00482266
3961.35	0.00513385
3972.29	0.0054906
3983.23	0.00590226
3990.53	0.00621259
4001.47	0.00674137
4012.41	0.00735916
4023.36	0.00808295
4030.65	0.00863398
4041.59	0.00957971
4052.54	0.0106909
4063.48	0.011996
4070.77	0.0129896
4081.72	0.0146916
4092.66	0.0166828
4103.6	0.0190066
4110.9	0.0207642
4121.84	0.0237515
4132.78	0.0272096
4140.08	0.0298059
4151.02	0.0341834
4161.96	0.0391995
4172.91	0.0449235
4180.2	0.049168
4191.14	0.0562316
4202.09	0.0641965
4213.03	0.0731357
4220.33	0.0796717
4231.27	0.0903913
4242.21	0.102267
4253.15	0.115357
4260.45	0.124785
4271.39	0.140008
4282.34	0.156561
4293.28	0.174464
4300.57	0.187154
4311.52	0.207317
4322.46	0.228816
4333.4	0.251614
4340.7	0.267507
4351.64	0.292336
4362.59	0.318272
4373.53	0.345207
4380.82	0.363656
4391.77	0.391964
4402.71	0.420889
4410	0.440429
4420.95	0.469983
4431.89	0.499651
4442.83	0.52922
4450.13	0.548767
4461.07	0.577669
4472.02	0.605861
4482.96	0.633105
4490.25	0.650625
4501.2	0.675768
4512.14	0.699345
4523.08	0.721136
4530.38	0.734567
4541.32	0.752927
4552.26	0.768982
4563.21	0.782567
4570.5	0.790182
4581.45	0.799348
4592.39	0.805717
4603.33	0.80921
4610.63	0.809912
4621.57	0.808502
4632.51	0.804127
4643.46	0.796801
4650.75	0.790295
4661.69	0.778145
4672.64	0.763193
4683.58	0.745537
4690.87	0.732319
4701.82	0.710416
4712.76	0.68615
4720.06	0.668734
4731	0.640875
4741.94	0.611084
4752.89	0.579539
4760.18	0.557625
4771.12	0.523563
4782.07	0.488237
4793.01	0.451833
4800.3	0.427054
4811.25	0.389257
4822.19	0.350861
4833.13	0.312038
4840.43	0.286
4851.37	0.24683
4862.32	0.207659
4873.26	0.168634
4880.55	0.142768
4891.5	0.104294
4902.44	0.0663218
4913.38	0.0289711
4920.68	0.00447182
4931.62	-0.0315965
4942.56	-0.0667592
4953.51	-0.100922
4960.8	-0.123099
4971.75	-0.155405
4982.69	-0.186492
4993.63	-0.216289
5000.93	-0.235406
5011.87	-0.262914
5022.81	-0.288974
5030.11	-0.305519
5041.05	-0.329061
5051.99	-0.35104
5062.94	-0.371423
5070.23	-0.384113
5081.18	-0.401785
5092.12	-0.417809
5103.06	-0.432177
5110.36	-0.440835
5121.3	-0.452445
5132.24	-0.462411
5143.19	-0.470751
5150.48	-0.475419
5161.42	-0.481104
5172.37	-0.485239
5183.31	-0.487865
5190.61	-0.4888
5201.55	-0.489017
5212.49	-0.48786
5223.44	-0.48539
5230.73	-0.483046
5241.67	-0.478532
5252.62	-0.472886
5263.56	-0.466183
5270.86	-0.461164
5281.8	-0.45287
5292.74	-0.443727
5300.04	-0.437201
5310.98	-0.426826
5321.92	-0.41582
5332.87	-0.404267
5340.16	-0.3963
5351.1	-0.384012
5362.05	-0.371389
5372.99	-0.358508
5380.29	-0.349813
5391.23	-0.336663
5402.17	-0.323445
5413.11	-0.310224
5420.41	-0.301439
5431.35	-0.288349
5442.3	-0.275411
5453.24	-0.262677
5460.53	-0.254323
5471.48	-0.242028
5482.42	-0.230049
5493.36	-0.218422
5500.66	-0.21088
5511.6	-0.199901
5522.54	-0.189344
5533.49	-0.179227
5540.78	-0.172734
5551.73	-0.163382
5562.67	-0.154502
5573.61	-0.146101
5580.91	-0.140767
5591.85	-0.133167
5602.79	-0.126049
5610.09	-0.121568
5621.03	-0.115242
5631.98	-0.109382
5642.92	-0.103983
5650.21	-0.100634
5661.16	-0.0959788
5672.1	-0.0917568
5683.04	-0.0879563
5690.34	-0.0856509
5701.28	-0.0825261
5712.22	-0.0797902
5723.17	-0.0774304
5730.46	-0.0760598
5741.41	-0.0742982
5752.35	-0.0728783
5763.29	-0.071787
5770.59	-0.0712357
5781.53	-0.0706631
5792.47	-0.0703841
5803.42	-0.0703855
5810.71	-0.0705356
5821.65	-0.0709742
5832.6	-0.0716568
5843.54	-0.0725693
5850.84	-0.0732982
5861.78	-0.0745614
5872.72	-0.0760149
5880.02	-0.077082
5890.96	-0.0788177
5901.9	-0.080701
5912.85	-0.0827149
5920.14	-0.0841214
5931.08	-0.0863138
5942.03	-0.0885891
5952.97	-0.0909285
5960.27	-0.0925144
5971.21	-0.0949182
5982.15	-0.0973348
5993.1	-0.0997444
6000.39	-0.101337
6011.33	-0.103692
6022.28	-0.105987
6033.22	-0.108204
6040.52	-0.109629
6051.46	-0.111673
6062.4	-0.113591
6073.34	-0.115364
6080.64	-0.116458
6091.58	-0.117956
6102.53	-0.119269
6113.47	-0.120385
6120.76	-0.121013
6131.71	-0.121773
6142.65	-0.122307
6153.59	-0.122608
6160.89	-0.122676
6171.83	-0.122574
6182.78	-0.122226
6190.07	-0.121856
6201.01	-0.121093
6211.96	-0.120082
6222.9	-0.118826
6230.2	-0.117854
6241.14	-0.116199
6252.08	-0.114311
6263.02	-0.1122
6270.32	-0.110673
6281.26	-0.108209
6292.21	-0.105549
6303.15	-0.102702
6310.44	-0.100708
6321.39	-0.0975814
6332.33	-0.0943048
6343.27	-0.0908925
6350.57	-0.0885495
6361.51	-0.0849438
6372.45	-0.0812423
6383.4	-0.0774598
6390.69	-0.0749007
6401.64	-0.0710167
6412.58	-0.0670915
6423.52	-0.0631393
6430.82	-0.0604963
6441.76	-0.0565297
6452.7	-0.0525718
6463.65	-0.0486349
6470.94	-0.0460277
6481.89	-0.0421513
6492.83	-0.0383251
6500.12	-0.035807
6511.07	-0.0320856
6522.01	-0.0284382
6532.95	-0.0248723
6540.25	-0.0225436
6551.19	-0.0191281
6562.13	-0.0158103
6573.08	-0.0125949
6580.37	-0.0105104
6591.32	-0.00747493
6602.26	-0.00455177
6613.2	-0.00174367
6620.5	6.33043e-05
6631.44	0.00267465
6642.38	0.00516552
6653.33	0.00753442
6660.62	0.00904529
6671.57	0.0112081
6682.51	0.0132459
6693.45	0.0151576
6700.75	0.0163615
6711.69	0.018061
6722.63	0.0196318
6733.58	0.021073
6740.87	0.0219614
6751.81	0.0231844
6762.76	0.0242752
6770.05	0.0249284
6781	0.0257964
6791.94	0.0265295
6802.88	0.0271268
6810.18	0.0274491
6821.12	0.0278184
6832.06	0.0280501
6843.01	0.0281442
6850.3	0.0281303
6861.24	0.0279951
6872.19	0.027723
6883.13	0.0273152
6890.43	0.0269685
6901.37	0.0263379
6912.31	0.0255765
6923.26	0.0246871
6930.55	0.0240247
6941.49	0.0229297
6952.44	0.0217167
6963.38	0.0203906
6970.68	0.0194463
6981.62	0.0179435
6992.56	0.0163426
7003.5	0.0146502
7010.8	0.0134745
7021.74	0.011645
7032.69	0.00974317
7043.63	0.00777676
7050.92	0.00643387
7061.87	0.00437768
7072.81	0.00227861
7080.11	0.000859546
7091.05	-0.00129234
7101.99	-0.00346468
7112.93	-0.00564907
7120.23	-0.00710789
7131.17	-0.00929385
7142.12	-0.0114698
7153.06	-0.0136278
7160.35	-0.0150526
7171.3	-0.0171633
7182.24	-0.0192355
7193.18	-0.0212619
7200.48	-0.0225839
7211.42	-0.0245184
7222.36	-0.0263887
7233.31	-0.0281884
7240.6	-0.0293459
7251.55	-0.031014
7262.49	-0.0325954
7273.43	-0.0340843
7280.73	-0.0350229
7291.67	-0.0363458
7302.61	-0.0375622
7313.56	-0.0386673
7320.85	-0.0393399
7331.79	-0.0402493
7342.74	-0.0410356
7350.03	-0.0414893
7360.97	-0.0420615
7371.92	-0.0425004
7382.86	-0.0428025
7390.16	-0.0429265
7401.1	-0.0429942
7412.04	-0.0429177
7422.98	-0.0426948
7430.28	-0.0424638
7441.22	-0.0419927
7452.17	-0.0413708
7463.11	-0.0405972
7470.4	-0.0399969
7481.35	-0.0389694
7492.29	-0.0377897
7503.23	-0.0364584
7510.53	-0.0354872
7521.47	-0.0339057
7532.41	-0.0321764
7543.36	-0.0303017
7550.65	-0.0289724
7561.59	-0.0268616
7572.54	-0.0246137
7583.48	-0.022233
7590.78	-0.0205742
7601.72	-0.0179824
7612.66	-0.0152709
7623.6	-0.0124456
7630.9	-0.0105019
7641.84	-0.00750117
7652.79	-0.00440447
7660.08	-0.00229035
7671.02	0.000949498
7681.97	0.00426452
7692.91	0.00764622
7700.2	0.0099334
7711.15	0.0134065
7722.09	0.0169222
7733.03	0.0204709
7740.33	0.0228502
7751.27	0.0264323
7762.21	0.0300213
7773.16	0.0336071
7780.45	0.035991
7791.39	0.0395494
7802.34	0.0430783
7813.28	0.0465678
7820.58	0.0488676
7831.52	0.0522707
7842.46	0.0556096
7853.4	0.0588759
7860.7	0.0610089
7871.64	0.0641359
7882.59	0.0671694
7893.53	0.0701025
7900.82	0.071999
7911.77	0.0747513
7922.71	0.0773882
7930	0.0790797
7940.95	0.0815147
7951.89	0.0838241
7962.83	0.0860055
7970.13	0.0873878
7981.07	0.0893525
7992.01	0.0911863
8002.96	0.0928896
8010.25	0.093953
8021.2	0.0954409
8032.14	0.0968021
8043.08	0.0980392
8050.38	0.0987963
8061.32	0.0998333
8072.26	0.100755
8083.21	0.101566
8090.5	0.102047
8101.44	0.102682
8112.39	0.103219
8123.33	0.103661
8130.63	0.103906
8141.57	0.104202
8152.51	0.104416
8163.45	0.104554
8170.75	0.104604
8181.69	0.104623
8192.64	0.104576
8203.58	0.104467
8210.87	0.104361
8221.82	0.104156
8232.76	0.103898
8240.05	0.103697
8251	0.103356
8261.94	0.102967
8272.88	0.102533
8280.18	0.10222
8291.12	0.101714
8302.06	0.101167
8313.01	0.10058
8320.3	0.100166
8331.25	0.0995136
8342.19	0.0988225
8353.13	0.0980938
8360.43	0.0975874
8371.37	0.0967972
8382.31	0.0959709
8393.26	0.0951092
8400.55	0.0945153
8411.49	0.093596
8422.44	0.0926432
8433.38	0.0916578
8440.68	0.0909834
8451.62	0.089946
8462.56	0.088879
8473.51	0.0877836
8480.8	0.0870382
8491.74	0.0858983
8502.69	0.0847335
8513.63	0.0835452
8520.93	0.0827407
8531.87	0.0815163
8542.81	0.0802719
8550.11	0.0794318
8561.05	0.0781567
8571.99	0.0768646
8582.94	0.0755562
8590.23	0.0746752
8601.17	0.0733409
8612.12	0.0719916
8623.06	0.0706272
8630.36	0.0697091
8641.3	0.0683189
8652.24	0.0669125
8663.18	0.0654889
8670.48	0.0645297
8681.42	0.0630747
8692.37	0.0615988
8703.31	0.0601002
8710.6	0.0590877
8721.55	0.0575468
8732.49	0.0559777
8743.43	0.0543779
8750.73	0.0532931
8761.67	0.0516368
8772.62	0.0499433
8783.56	0.0482101
8790.85	0.0470315
8801.8	0.0452272
8812.74	0.0433774
8820.03	0.042118
8830.98	0.0401882
8841.92	0.0382083
8852.86	0.0361772
8860.16	0.0347943
8871.1	0.0326763
8882.05	0.0305057
8892.99	0.0282827
8900.28	0.0267719
8911.23	0.0244633
8922.17	0.022105
8933.11	0.0196988
8940.41	0.0180693
8951.35	0.0155886
8962.29	0.0130671
8973.24	0.0105081
8980.53	0.00878308
8991.48	0.00617015
9002.42	0.00353056
9013.36	0.000868946
9020.66	-0.000915279
9031.6	-0.00360257
9042.54	-0.00629833
9053.49	-0.00899715
9060.78	-0.0107953
9071.72	-0.013487
9082.67	-0.0161669
9093.61	-0.0188294
9100.91	-0.020592
9111.85	-0.0232134
9122.79	-0.0258028
9130.09	-0.0275088
9141.03	-0.0300335
9151.97	-0.0325128
9162.92	-0.034942
9170.21	-0.0365313
9181.15	-0.038867
9192.1	-0.0411413
9203.04	-0.0433503
9210.34	-0.044785
9221.28	-0.0468777
9232.22	-0.0488964
9243.17	-0.0508385
9250.46	-0.0520894
9261.4	-0.0538984
9272.35	-0.0556247
9283.29	-0.0572667
9290.58	-0.0583137
9301.53	-0.0598117
9312.47	-0.0612218
9323.41	-0.0625431
9330.71	-0.0633742
9341.65	-0.0645459
9352.6	-0.0656273
9363.54	-0.0666183
9370.83	-0.0672287
9381.78	-0.0680691
9392.72	-0.0688195
9400.02	-0.0692701
9410.96	-0.069872
9421.9	-0.0703859
9432.84	-0.0708128
9440.14	-0.0710498
9451.08	-0.0713349
9462.03	-0.071537
9472.97	-0.0716581
9480.26	-0.0716949
9491.21	-0.0716858
9502.15	-0.071602
9513.09	-0.0714461
9520.39	-0.0713037
9531.33	-0.0710347
9542.27	-0.0707022
9553.22	-0.0703099
9560.51	-0.0700169
9571.46	-0.0695334
9582.4	-0.0690006
9593.34	-0.0684228
9600.64	-0.0680147
9611.58	-0.0673716
9622.52	-0.0666954
9633.47	-0.0659905
9640.76	-0.065507
9651.71	-0.0647646
9662.65	-0.0640057
9673.59	-0.0632347
9680.89	-0.0627161
9691.83	-0.0619344
9702.77	-0.0611516
9710.07	-0.0606311
9721.01	-0.0598549
9731.95	-0.0590872
9742.9	-0.0583312
9750.19	-0.057835
9761.14	-0.0571042
9772.08	-0.0563918
9783.02	-0.0556995
9790.32	-0.0552499
9801.26	-0.0545945
9812.2	-0.0539626
9823.15	-0.0533548
9830.44	-0.0529632
9841.38	-0.0523962
9852.33	-0.0518535
9863.27	-0.0513347
9870.57	-0.0510017
9881.51	-0.0505208
9892.45	-0.0500614
9903.39	-0.0496221
9910.69	-0.0493399
9921.63	-0.0489312
9932.58	-0.0485388
9943.52	-0.0481612
9950.81	-0.0479168
9961.76	-0.0475601
9972.7	-0.0472138
9983.64	-0.0468765
9990.94	-0.0466558
10001.9	-0.0463301
10012.8	-0.0460098
10020.1	-0.0457985
10031.1	-0.0454845
10042	-0.0451729
10052.9	-0.0448632
10060.2	-0.0446574
10071.2	-0.0443495
10082.1	-0.0440422
10093.1	-0.0437353
10100.4	-0.043531
10111.3	-0.043225
10122.3	-0.0429199
10133.2	-0.042616
10140.5	-0.0424144
10151.4	-0.0421139
10162.4	-0.0418162
10173.3	-0.0415223
10180.6	-0.0413289
10191.6	-0.0410432
10202.5	-0.0407637
10213.4	-0.0404916
10220.7	-0.0403147
10231.7	-0.0400572
10242.6	-0.03981
10253.6	-0.0395741
10260.9	-0.0394238
10271.8	-0.0392096
10282.8	-0.0390098
10290	-0.0388853
10301	-0.0387122
10311.9	-0.0385567
10322.9	-0.0384197
10330.2	-0.0383392
10341.1	-0.0382356
10352.1	-0.0381534
10363	-0.0380935
10370.3	-0.0380665
10381.2	-0.038046
10392.2	-0.0380503
10403.1	-0.0380804
10410.4	-0.0381151
10421.4	-0.0381898
10432.3	-0.0382922
10443.3	-0.038423
10450.5	-0.0385263
10461.5	-0.0387058
10472.4	-0.0389151
10483.4	-0.0391547
10490.7	-0.0393314
10501.6	-0.039622
10512.6	-0.0399435
10523.5	-0.040296
10530.8	-0.0405481
10541.7	-0.040952
10552.7	-0.0413863
10563.6	-0.0418509
10570.9	-0.0421771
10581.9	-0.0426907
10592.8	-0.0432329
10600.1	-0.0436099
10611	-0.0441978
10622	-0.0448117
10632.9	-0.0454506
10640.2	-0.0458897
10651.2	-0.0465671
10662.1	-0.0472657
10673.1	-0.0479839
10680.4	-0.0484729
10691.3	-0.04922
10702.2	-0.0499822
10713.2	-0.0507574
10720.5	-0.0512805
10731.4	-0.0520731
10742.4	-0.0528735
10753.3	-0.0536795
10760.6	-0.0542189
10771.5	-0.0550296
10782.5	-0.0558402
10793.4	-0.0566486
10800.7	-0.0571853
10811.7	-0.0579853
10822.6	-0.0587773
10833.6	-0.0595593
10840.8	-0.0600739
10851.8	-0.0608344
10862.7	-0.0615793
10870	-0.0620661
10881	-0.0627804
10891.9	-0.0634735
10902.9	-0.0641437
10910.2	-0.0645767
10921.1	-0.0652042
10932	-0.0658035
10943	-0.0663729
10950.3	-0.0667349
10961.2	-0.0672502
10972.2	-0.0677307
10983.1	-0.0681746
10990.4	-0.0684493
11001.3	-0.0688283
11012.3	-0.0691662
11023.2	-0.0694612
11030.5	-0.0696332
11041.5	-0.0698533
11052.4	-0.0700261
11063.4	-0.0701504
11070.7	-0.0702054
11081.6	-0.0702453
11092.5	-0.0702326
11103.5	-0.070166
11110.8	-0.0700911
11121.7	-0.0699318
11132.7	-0.0697154
11143.6	-0.0694406
11150.9	-0.0692246
11161.8	-0.0688504
11172.8	-0.0684154
11180.1	-0.0680912
11191	-0.0675531
11202	-0.0669523
11212.9	-0.0662884
11220.2	-0.0658105
11231.1	-0.0650405
11242.1	-0.0642067
11253	-0.0633088
11260.3	-0.0626748
11271.3	-0.0616706
11282.2	-0.0606029
11293.2	-0.0594722
11300.5	-0.0586836
11311.4	-0.057449
11322.3	-0.056153
11333.3	-0.0547965
11340.6	-0.053859
11351.5	-0.0524038
11362.5	-0.0508909
11373.4	-0.0493216
11380.7	-0.0482446
11391.6	-0.0465842
11402.6	-0.0448712
11413.5	-0.0431071
11420.8	-0.0419035
11431.8	-0.040058
11442.7	-0.038166
11450	-0.0368798
11461	-0.0349144
11471.9	-0.0329076
11482.8	-0.0308613
11490.1	-0.0294762
11501.1	-0.0273686
11512	-0.0252269
11523	-0.0230534
11530.3	-0.0215877
11541.2	-0.0193657
11552.1	-0.0171175
11563.1	-0.0148454
11570.4	-0.0133184
11581.3	-0.0110112
11592.3	-0.00868592
11603.2	-0.00634486
11610.5	-0.0047765
11621.4	-0.00241414
11632.4	-4.20349e-05
11643.3	0.00233751
11650.6	0.00392688
11661.6	0.0063137
11672.5	0.00870179
11683.5	0.0110888
11690.8	0.0126784
11701.7	0.0150583
11712.6	0.0174309
11723.6	0.0197937
11730.9	0.0213622
11741.8	0.0237033
11752.8	0.0260281
11760.1	0.0275678
11771	0.0298601
11781.9	0.0321297
11792.9	0.0343741
11800.2	0.0358551
11811.1	0.0380519
11822.1	0.040217
11833	0.0423478
11840.3	0.0437482
11851.3	0.0458166
11862.2	0.0478445
11873.1	0.0498294
11880.4	0.0511278
11891.4	0.0530361
11902.3	0.0548955
11913.3	0.056704
11920.6	0.0578803
11931.5	0.0595993
11942.4	0.0612621
11953.4	0.062867
11960.7	0.0639041
11971.6	0.065409
11982.6	0.0668522
11993.5	0.0682323
12000.8	0.0691169
12011.7	0.0703898
12022.7	0.0715975
12033.6	0.0727393
12040.9	0.0734639
12051.9	0.0744956
12062.8	0.0754612
12070.1	0.0760685
12081.1	0.0769249
12092	0.0777168
12102.9	0.078445
12110.2	0.0788956
12121.2	0.0795205
12132.1	0.0800854
12143.1	0.0805921
12150.4	0.0808987
12161.3	0.0813132
12172.2	0.0816755
12183.2	0.0819882
12190.5	0.0821704
12201.4	0.0824066
12212.4	0.0826007
12223.3	0.0827561
12230.6	0.0828396
12241.6	0.0829374
12252.5	0.0830052
12263.4	0.0830463
12270.7	0.0830606
12281.7	0.0830649
12292.6	0.0830517
12303.6	0.0830242
12310.9	0.0829996
12321.8	0.0829557
12332.7	0.0829059
12340	0.082871
12351	0.0828181
12361.9	0.082767
12372.9	0.0827199
12380.2	0.0826919
12391.1	0.0826566
12402	0.0826308
12413	0.082616
12420.3	0.082613
12431.2	0.0826195
12442.2	0.0826398
12453.1	0.0826745
12460.4	0.0827058
12471.4	0.0827648
12482.3	0.0828381
12493.2	0.0829252
12500.5	0.0829904
12511.5	0.0830982
12522.4	0.0832169
12533.4	0.0833448
12540.7	0.0834343
12551.6	0.0835734
12562.5	0.0837164
12573.5	0.0838609
12580.8	0.0839568
12591.7	0.0840979
12602.7	0.0842333
12613.6	0.08436
12620.9	0.0844381
12631.9	0.0845434
12642.8	0.0846317
12650.1	0.0846796
12661	0.0847324
12672	0.0847596
12682.9	0.084758
12690.2	0.0847393
12701.2	0.0846827
12712.1	0.0845889
12723	0.0844551
12730.3	0.0843423
12741.3	0.0841355
12752.2	0.0838814
12763.2	0.0835775
12770.5	0.0833462
12781.4	0.0829544
12792.3	0.0825071
12803.3	0.0820027
12810.6	0.0816338
12821.5	0.0810305
12832.5	0.0803663
12843.4	0.07964
12850.7	0.0791211
12861.7	0.0782899
12872.6	0.0773951
12883.5	0.0764365
12890.8	0.075762
12901.8	0.0746971
12912.7	0.0735689
12920	0.0727818
12931	0.0715494
12941.9	0.0702555
12952.8	0.0689013
12960.1	0.0679656
12971.1	0.0665136
12982	0.0650049
12993	0.0634412
13000.3	0.062369
13011.2	0.0607177
13022.2	0.0590165
13033.1	0.0572676
13040.4	0.0560763
13051.3	0.0542529
13062.3	0.052388
13073.2	0.0504841
13080.5	0.0491945
13091.5	0.0472315
13102.4	0.0452366
13113.3	0.0432125
13120.6	0.0418483
13131.6	0.0397819
13142.5	0.0376939
13153.5	0.0355873
13160.8	0.0341739
13171.7	0.0320425
13182.7	0.0299004
13193.6	0.0277503
13200.9	0.0263139
13211.8	0.0241573
13222.8	0.0220005
13230.1	0.0205641
13241	0.0184139
13252	0.0162713
13262.9	0.0141394
13270.2	0.0127254
13281.1	0.0106175
13292.1	0.00852757
13303	0.00645848
13310.3	0.00509194
13321.3	0.00306336
13332.2	0.00106251
13343.1	-0.000908157
13350.4	-0.00220398
13361.4	-0.00411907
13372.3	-0.00599782
13383.3	-0.00783811
13390.6	-0.0090426
13401.5	-0.0108144
13412.5	-0.0125426
13423.4	-0.0142256
13430.7	-0.0153217
13441.6	-0.016926
13452.6	-0.0184814
13463.5	-0.0199867
13470.8	-0.0209619
13481.8	-0.0223817
13492.7	-0.0237493
13503.6	-0.0250642
13510.9	-0.0259114
13521.9	-0.027138
13532.8	-0.0283116
13540.1	-0.0290646
13551.1	-0.0301503
13562	-0.031184
13573	-0.0321663
13580.2	-0.0327931
13591.2	-0.0336918
13602.1	-0.034542
13613.1	-0.035345
13620.4	-0.0358547
13631.3	-0.0365822
13642.3	-0.0372667
13653.2	-0.0379101
13660.5	-0.0383171
13671.4	-0.0388962
13682.4	-0.0394395
13693.3	-0.0399492
13700.6	-0.0402714
13711.6	-0.04073
13722.5	-0.0411609
13733.5	-0.0415663
13740.7	-0.0418236
13751.7	-0.0421916
13762.6	-0.04254
13773.6	-0.0428709
13780.9	-0.0430828
13791.8	-0.043389
13802.8	-0.0436829
13810.1	-0.0438729
13821	-0.04415
13831.9	-0.0444192
13842.9	-0.0446817
13850.2	-0.0448536
13861.1	-0.0451076
13872.1	-0.0453577
13883	-0.0456047
13890.3	-0.0457679
13901.2	-0.0460109
13912.2	-0.0462518
13923.1	-0.0464909
13930.4	-0.0466491
13941.4	-0.0468847
13952.3	-0.0471178
13963.3	-0.047348
13970.6	-0.0474994
13981.5	-0.0477232
13992.4	-0.0479421
14003.4	-0.0481552
14010.7	-0.0482936
14021.6	-0.0484948
14032.6	-0.0486874
14043.5	-0.0488703
14050.8	-0.0489862
14061.7	-0.0491503
14072.7	-0.0493015
14083.6	-0.0494386
14090.9	-0.0495217
14101.9	-0.0496331
14112.8	-0.0497276
14120.1	-0.0497808
14131	-0.0498451
14142	-0.0498903
14152.9	-0.0499156
14160.2	-0.0499212
14171.2	-0.0499122
14182.1	-0.049882
14193.1	-0.0498305
14200.4	-0.0497843
14211.3	-0.0496969
14222.2	-0.0495883
14233.2	-0.0494584
14240.5	-0.0493603
14251.4	-0.0491962
14262.4	-0.0490121
14273.3	-0.0488089
14280.6	-0.0486632
14291.5	-0.0484299
14302.5	-0.0481797
14313.4	-0.0479137
14320.7	-0.0477282
14331.7	-0.0474384
14342.6	-0.047136
14353.6	-0.0468221
14360.9	-0.0466072
14371.8	-0.0462772
14382.7	-0.0459392
14390	-0.0457102
14401	-0.045362
14411.9	-0.0450093
14422.9	-0.0446536
14430.2	-0.0444153
14441.1	-0.044057
14452	-0.0436989
14463	-0.0433421
14470.3	-0.0431054
14481.2	-0.0427529
14492.2	-0.0424044
14503.1	-0.0420607
14510.4	-0.0418346
14521.4	-0.0415007
14532.3	-0.0411736
14543.2	-0.0408539
14550.5	-0.0406451
14561.5	-0.0403387
14572.4	-0.0400409
14583.4	-0.039752
14590.7	-0.0395644
14601.6	-0.0392905
14612.5	-0.0390259
14623.5	-0.0387704
14630.8	-0.0386051
14641.7	-0.0383645
14652.7	-0.0381327
14663.6	-0.0379093
14670.9	-0.0377648
14681.8	-0.0375544
14692.8	-0.0373511
14700.1	-0.0372193
14711	-0.0370266
14722	-0.0368394
14732.9	-0.0366567
14740.2	-0.0365371
14751.2	-0.0363601
14762.1	-0.0361853
14773	-0.0360116
14780.3	-0.0358958
14791.3	-0.0357213
14802.2	-0.0355447
14813.2	-0.0353647
14820.5	-0.0352421
14831.4	-0.0350532
14842.3	-0.0348571
14853.3	-0.0346523
14860.6	-0.03451
14871.5	-0.0342869
14882.5	-0.0340507
14893.4	-0.0337996
14900.7	-0.0336231
14911.7	-0.0333433
14922.6	-0.033044
14933.5	-0.0327233
14940.8	-0.0324968
14951.8	-0.0321366
14962.7	-0.0317503
14970	-0.0314774
14981	-0.0310438
14991.9	-0.0305797
15002.8	-0.0300835
15010.1	-0.029734
15021.1	-0.029181
15032	-0.028592
15043	-0.027966
15050.3	-0.0275275
15061.2	-0.0268374
15072.2	-0.0261077
15083.1	-0.0253379
15090.4	-0.024802
15101.3	-0.0239643
15112.3	-0.0230855
15123.2	-0.0221659
15130.5	-0.0215303
15141.5	-0.0205435
15152.4	-0.0195171
15163.3	-0.0184522
15170.6	-0.0177214
15181.6	-0.016595
15192.5	-0.0154337
15203.5	-0.0142393
15210.8	-0.0134257
15221.7	-0.0121809
15232.6	-0.010909
15243.6	-0.00961266
15250.9	-0.00873624
15261.8	-0.00740552
15272.8	-0.00605832
15280.1	-0.00515265
15291	-0.00378538
15302	-0.00241073
15312.9	-0.00103233
15320.2	-0.000113164
15331.1	0.00126315
15342.1	0.00263312
15353	0.00399289
15360.3	0.00489184
15371.3	0.00622605
15382.2	0.00753983
15393.1	0.00882942
15400.4	0.0096739
15411.4	0.0109151
15422.3	0.0121225
15433.3	0.0132929
15440.6	0.014051
15451.5	0.0151526
15462.5	0.0162091
15473.4	0.0172179
15480.7	0.0178627
15491.6	0.0187866
15502.6	0.0196569
15513.5	0.0204719
15520.8	0.0209837
15531.8	0.0217033
15542.7	0.0223642
15553.6	0.0229657
15560.9	0.0233335
15571.9	0.0238353
15582.8	0.0242772
15590.1	0.0245387
15601.1	0.0248817
15612	0.0251662
15623	0.0253935
15630.2	0.0255137
15641.2	0.0256483
15652.1	0.0257294
15663.1	0.025759
15670.4	0.0257512
15681.3	0.0256996
15692.3	0.0256024
15703.2	0.0254621
15710.5	0.0253459
15721.4	0.0251397
15732.4	0.0248976
15743.3	0.0246226
15750.6	0.0244225
15761.6	0.0240992
15772.5	0.0237509
15783.4	0.0233807
15790.7	0.0231231
15801.7	0.0227228
15812.6	0.0223084
15823.6	0.0218828
15830.9	0.0215942
15841.8	0.021156
15852.8	0.0207138
15860.1	0.020418
15871	0.0199746
15881.9	0.0195336
15892.9	0.0190971
15900.2	0.0188097
15911.1	0.0183851
15922.1	0.01797
15933	0.0175659
15940.3	0.0173033
15951.2	0.0169206
15962.2	0.0165521
15973.1	0.0161988
15980.4	0.0159721
15991.4	0.0156456
16002.3	0.0153358
16013.3	0.0150429
16020.5	0.0148571
16031.5	0.0145926
16042.4	0.0143448
16053.4	0.0141135
16060.7	0.0139682
16071.6	0.0137632
16082.6	0.0135731
16093.5	0.013397
16100.8	0.0132869
16111.7	0.0131322
16122.7	0.0129887
16133.6	0.0128554
16140.9	0.0127716
16151.9	0.0126525
16162.8	0.01254
16170.1	0.0124681
16181	0.0123636
16192	0.0122621
16202.9	0.012162
16210.2	0.0120953
16221.2	0.0119942
16232.1	0.0118906
16243.1	0.011783
16250.4	0.0117083
16261.3	0.0115908
16272.2	0.0114655
16283.2	0.0113311
16290.5	0.0112357
16301.4	0.011083
16312.4	0.0109177
16323.3	0.0107387
16330.6	0.0106111
16341.5	0.0104065
16352.5	0.0101853
16363.4	0.00994635
16370.7	0.00977678
16381.7	0.00950635
16392.6	0.00921589
16403.6	0.00890461
16410.9	0.00868518
16421.8	0.00833765
16432.7	0.0079675
16440	0.00770787
16451	0.00729874
16461.9	0.00686551
16472.9	0.00640772
16480.2	0.00608866
16491.1	0.00558898
16502	0.00506363
16513	0.00451228
16520.3	0.0041301
16531.2	0.00353469
16542.2	0.00291245
16553.1	0.00226312
16560.4	0.00181507
16571.3	0.00112006
16582.3	0.000397365
16593.2	-0.000353215
16600.5	-0.000869177
16611.5	-0.00166659
16622.4	-0.00249229
16633.4	-0.00334638
16640.7	-0.00393158
16651.6	-0.00483313
16662.5	-0.00576319
16673.5	-0.00672176
16680.8	-0.0073766
16691.7	-0.00838248
16702.7	-0.00941657
16713.6	-0.0104786
16720.9	-0.0112021
16731.8	-0.0123102
16742.8	-0.0134454
16750.1	-0.014217
16761	-0.0153962
16772	-0.016601
16782.9	-0.0178306
16790.2	-0.0186638
16801.2	-0.0199329
16812.1	-0.0212244
16823	-0.022537
16830.3	-0.0234233
16841.3	-0.0247684
16852.2	-0.026131
16863.2	-0.0275095
16870.5	-0.0284365
16881.4	-0.0298375
16892.3	-0.0312495
16903.3	-0.0326703
16910.6	-0.0336213
16921.5	-0.0350518
16932.5	-0.036485
16943.4	-0.0379183
16950.7	-0.0388726
16961.7	-0.0403002
16972.6	-0.0417206
16983.5	-0.0431311
16990.8	-0.0440643
17001.8	-0.0454515
17012.7	-0.0468206
17020	-0.0477218
17031	-0.049054
17041.9	-0.05036
17052.8	-0.0516365
17060.1	-0.0524697
17071.1	-0.0536903
17082	-0.0548733
17093	-0.0560156
17100.3	-0.0567531
17111.2	-0.0578212
17122.1	-0.058841
17133.1	-0.0598099
17140.4	-0.0604262
17151.3	-0.0613045
17162.3	-0.0621252
17173.2	-0.0628863
17180.5	-0.0633595
17191.5	-0.0640166
17202.4	-0.0646091
17213.3	-0.0651354
17220.6	-0.0654488
17231.6	-0.0658618
17242.5	-0.0662055
17253.5	-0.0664792
17260.8	-0.0666223
17271.7	-0.066778
17282.6	-0.0668625
17293.6	-0.0668759
17300.9	-0.0668454
17311.8	-0.0667408
17322.8	-0.0665662
17330.1	-0.0664112
17341	-0.0661215
17352	-0.0657643
17362.9	-0.0653407
17370.2	-0.0650222
17381.1	-0.0644914
17392.1	-0.0638985
17403	-0.0632454
17410.3	-0.0627776
17421.3	-0.0620286
17432.2	-0.0612251
17443.1	-0.0603693
17450.4	-0.0597709
17461.4	-0.0588334
17472.3	-0.0578501
17483.3	-0.0568238
17490.6	-0.0561169
17501.5	-0.0550246
17512.5	-0.0538963
17523.4	-0.0527347
17530.7	-0.0519431
17541.6	-0.050732
17552.6	-0.0494947
17563.5	-0.0482339
17570.8	-0.0473816
17581.8	-0.0460874
17592.7	-0.0447765
17603.6	-0.0434514
17610.9	-0.0425613
17621.9	-0.0412178
17632.8	-0.0398663
17640.1	-0.0389619
17651.1	-0.0376019
17662	-0.0362394
17672.9	-0.0348764
17680.2	-0.0339683
17691.2	-0.0326085
17702.1	-0.0312527
17713.1	-0.0299026
17720.4	-0.0290064
17731.3	-0.0276688
17742.3	-0.0263405
17753.2	-0.0250225
17760.5	-0.0241502
17771.4	-0.0228518
17782.4	-0.0215663
17793.3	-0.0202945
17800.6	-0.0194547
17811.6	-0.0182072
17822.5	-0.0169751
17833.4	-0.0157588
17840.7	-0.0149569
17851.7	-0.0137678
17862.6	-0.0125953
17873.6	-0.0114396
17880.9	-0.0106786
17891.8	-0.00955137
17902.8	-0.00844125
17910	-0.0077107
17921	-0.00662918
17931.9	-0.00556478
17942.9	-0.00451747
17950.2	-0.00382872
17961.1	-0.00280972
17972.1	-0.00180761
17983	-0.000822308
17990.3	-0.000174744
18001.2	0.000782694
18012.2	0.00172348
18023.1	0.00264765
18030.4	0.00325453
18041.4	0.00415098
18052.3	0.00503075
18063.3	0.00589374
18070.5	0.00645968
18081.5	0.0072944
18092.4	0.0081119
18103.4	0.00891194
18110.7	0.00943545
18121.6	0.0102057
18132.6	0.0109576
18143.5	0.0116907
18150.8	0.0121687
18161.7	0.0128694
18172.7	0.0135499
18183.6	0.0142096
18190.9	0.0146376
18201.9	0.0152613
18212.8	0.0158623
18220.1	0.0162502
18231	0.016812
18242	0.0173492
18252.9	0.0178609
18260.2	0.0181876
18271.2	0.0186551
18282.1	0.019095
18293.1	0.0195064
18300.4	0.0197643
18311.3	0.0201263
18322.2	0.0204574
18333.2	0.0207569
18340.5	0.0209386
18351.4	0.0211836
18362.4	0.0213949
18373.3	0.0215717
18380.6	0.02167
18391.5	0.0217877
18402.5	0.0218691
18413.4	0.0219136
18420.7	0.0219224
18431.7	0.021904
18442.6	0.0218472
18453.6	0.0217516
18460.8	0.0216661
18471.8	0.0215049
18482.7	0.0213038
18490	0.0211475
18501	0.0208794
18511.9	0.0205709
18522.9	0.0202217
18530.2	0.0199663
18541.1	0.0195492
18552	0.0190912
18563	0.0185923
18570.3	0.0182371
18581.2	0.0176703
18592.2	0.0170628
18603.1	0.0164149
18610.4	0.0159605
18621.3	0.0152455
18632.3	0.0144907
18643.2	0.0136962
18650.5	0.0131447
18661.5	0.012285
18672.4	0.0113867
18683.4	0.0104503
18690.7	0.00980514
18701.6	0.00880635
18712.5	0.00777093
18723.5	0.00669952
18730.8	0.00596562
18741.7	0.00483589
18752.7	0.00367226
18763.6	0.00247565
18770.9	0.00166008
18781.8	0.000410755
18792.8	-0.000868701
18800.1	-0.00173781
18811	-0.00306469
18822	-0.00441818
18832.9	-0.00579677
18840.2	-0.00672898
18851.2	-0.00814575
18862.1	-0.00958302
18873	-0.0110389
18880.3	-0.0120187
18891.3	-0.0135009
18902.2	-0.0149959
18913.2	-0.0165013
18920.5	-0.0175094
18931.4	-0.0190265
18942.3	-0.020547
18953.3	-0.0220682
18960.6	-0.0230812
18971.5	-0.0245967
18982.5	-0.0261048
18993.4	-0.0276023
19000.7	-0.028593
19011.6	-0.0300654
19022.6	-0.0315181
19033.5	-0.0329479
19040.8	-0.0338865
19051.8	-0.0352701
19062.7	-0.0366214
19070	-0.0375024
19081	-0.0387918
19091.9	-0.0400394
19102.8	-0.0412418
19110.1	-0.0420166
19121.1	-0.043136
19132	-0.0442013
19143	-0.0452092
19150.3	-0.0458477
19161.2	-0.0467533
19172.1	-0.0475936
19183.1	-0.048366
19190.4	-0.0488419
19201.3	-0.0494956
19212.3	-0.0500749
19223.2	-0.050578
19230.5	-0.0508701
19241.5	-0.0512421
19252.4	-0.0515336
19263.3	-0.0517432
19270.6	-0.051837
19281.6	-0.0519082
19292.5	-0.0518956
19303.5	-0.0517989
19310.8	-0.0516876
19321.7	-0.0514506
19332.6	-0.0511298
19343.6	-0.0507258
19350.9	-0.0504107
19361.8	-0.04987
19372.8	-0.0492489
19380.1	-0.0487908
19391	-0.0480389
19401.9	-0.0472107
19412.9	-0.0463083
19420.2	-0.0456666
19431.1	-0.0446454
19442.1	-0.0435561
19453	-0.0424013
19460.3	-0.0415963
19471.3	-0.0403384
19482.2	-0.0390226
19493.1	-0.0376518
19500.4	-0.0367089
19511.4	-0.0352535
19522.3	-0.0337516
19533.3	-0.0322064
19540.6	-0.031154
19551.5	-0.0295443
19562.4	-0.0279003
19573.4	-0.0262254
19580.7	-0.0250933
19591.6	-0.0233744
19602.6	-0.0216334
19613.5	-0.0198738
19620.8	-0.018692
19631.8	-0.0169085
19642.7	-0.0151148
19653.6	-0.0133142
19660.9	-0.0121114
19671.9	-0.0103059
19682.8	-0.00850127
19690.1	-0.00730013
19701.1	-0.00550335
19712	-0.00371487
19722.9	-0.00193726
19730.2	-0.000759468
19741.2	0.000994528
19752.1	0.00273123
19763.1	0.00444843
19770.4	0.00558134
19781.3	0.00726139
19792.3	0.00891652
19803.2	0.0105449
19810.5	0.0116148
19821.4	0.0131949
19832.4	0.0147439
19843.3	0.0162603
19850.6	0.0172526
19861.6	0.0187119
19872.5	0.0201355
19883.4	0.0215221
19890.7	0.0224256
19901.7	0.0237487
19912.6	0.0250327
19923.6	0.0262768
19930.9	0.0270839
19941.8	0.0282604
19952.7	0.0293958
19960	0.0301297
19971	0.0311958
19981.9	0.0322202
19992.9	0.0332027
