%%MatrixMarket matrix array real general
18 9
.4444444444e-2
0.
0.
-.8888888889e-2
0.
-.1777777778e-1
.2222222222e-2
0.
0.
-.4444444444e-2
0.
-.8888888889e-2
-.1111111111e-2
0.
0.
.2222222222e-2
0.
.4444444444e-2
.2222222222e-2
0.
0.
-.4444444444e-2
0.
-.8888888889e-2
.1777777778e-1
0.
0.
-.3555555556e-1
0.
-.7111111111e-1
.2222222222e-2
0.
0.
-.4444444444e-2
0.
-.8888888889e-2
-.1111111111e-2
0.
0.
.2222222222e-2
0.
.4444444444e-2
.2222222222e-2
0.
0.
-.4444444444e-2
0.
-.8888888889e-2
.4444444444e-2
0.
0.
-.8888888889e-2
0.
-.1777777778e-1
-.8888888889e-2
0.
0.
-.7111111111e-1
0.
-.8888888889e-2
-.4444444444e-2
0.
0.
-.3555555556e-1
0.
-.4444444444e-2
.2222222222e-2
0.
0.
.1777777778e-1
0.
.2222222222e-2
-.4444444444e-2
0.
0.
-.3555555556e-1
0.
-.4444444444e-2
-.3555555556e-1
0.
0.
-.2844444444
0.
-.3555555556e-1
-.4444444444e-2
0.
0.
-.3555555556e-1
0.
-.4444444444e-2
.2222222222e-2
0.
0.
.1777777778e-1
0.
.2222222222e-2
-.4444444444e-2
0.
0.
-.3555555556e-1
0.
-.4444444444e-2
-.8888888889e-2
0.
0.
-.7111111111e-1
0.
-.8888888889e-2
-.1777777778e-1
0.
0.
-.8888888889e-2
0.
.4444444444e-2
-.8888888889e-2
0.
0.
-.4444444444e-2
0.
.2222222222e-2
.4444444444e-2
0.
0.
.2222222222e-2
0.
-.1111111111e-2
-.8888888889e-2
0.
0.
-.4444444444e-2
0.
.2222222222e-2
-.7111111111e-1
0.
0.
-.3555555556e-1
0.
.1777777778e-1
-.8888888889e-2
0.
0.
-.4444444444e-2
0.
.2222222222e-2
.4444444444e-2
0.
0.
.2222222222e-2
0.
-.1111111111e-2
-.8888888889e-2
0.
0.
-.4444444444e-2
0.
.2222222222e-2
-.1777777778e-1
0.
0.
-.8888888889e-2
0.
.4444444444e-2
