%%MatrixMarket matrix array real general
6 18
1.
0.
0.
0.
0.
0.
0.
1.
0.
0.
0.
0.
0.
0.
1.
0.
0.
0.
0.
0.
0.
1.
0.
0.
0.
0.
0.
0.
1.
0.
0.
0.
0.
0.
0.
1.
0.
0.
0.
0.
0.
0.
0.
0.
0.
0.
0.
0.
0.
0.
0.
0.
0.
0.
0.
0.
0.
0.
0.
0.
0.
0.
0.
0.
0.
0.
0.
0.
0.
0.
0.
0.
0.
0.
0.
0.
0.
0.
0.
0.
0.
0.
0.
0.
0.
0.
0.
0.
0.
0.
0.
0.
0.
0.
0.
0.
0.
0.
0.
0.
0.
0.
0.
0.
0.
0.
0.
0.
