%%MatrixMarket matrix array real general
18 6
-.1666666667e-1
0.
.2777777778e-2
0.
.1111111111e-1
.2777777778e-2
0.
0.
0.
0.
0.
0.
0.
0.
0.
0.
0.
0.
0.
-.8888888889e-1
0.
-.4444444444e-1
-.4444444444e-1
.1111111111e-1
0.
0.
0.
0.
0.
0.
0.
0.
0.
0.
0.
0.
.2777777778e-2
0.
-.1666666667e-1
.1111111111e-1
0.
.2777777778e-2
0.
0.
0.
0.
0.
0.
0.
0.
0.
0.
0.
0.
0.
-.4444444444e-1
.1111111111e-1
-.8888888889e-1
-.4444444444e-1
0.
0.
0.
0.
0.
0.
0.
0.
0.
0.
0.
0.
0.
.1111111111e-1
-.4444444444e-1
0.
-.4444444444e-1
-.8888888889e-1
0.
0.
0.
0.
0.
0.
0.
0.
0.
0.
0.
0.
0.
.2777777778e-2
.1111111111e-1
.2777777778e-2
0.
0.
-.1666666667e-1
0.
0.
0.
0.
0.
0.
0.
0.
0.
0.
0.
0.
