0	0
158.299	0
316.598	0
474.898	0
633.197	0
791.496	0
949.795	0
1108.09	0
1266.39	0
1424.69	0
1582.99	0
1741.29	0
1899.59	-2.60218e-06
2057.89	0.000197748
2216.19	0.00102832
2374.49	0.00321839
2532.78	0.00785946
2691.08	0.0162931
2849.37	0.0297305
3007.67	0.048778
3165.96	0.0731116
3324.25	0.101439
3482.54	0.131722
3640.83	0.161532
3799.13	0.188421
3957.42	0.210245
4115.71	0.225393
4274	0.232926
4432.3	0.232615
4590.59	0.224887
4748.88	0.210706
4907.18	0.191398
5065.48	0.168482
5223.77	0.143508
5382.07	0.117935
5540.37	0.0930433
5698.67	0.0698845
5856.97	0.0492527
6015.26	0.0316789
6173.56	0.0174357
6331.86	0.006554
6490.16	-0.00115202
6648.46	-0.00604883
6806.76	-0.00863857
6965.06	-0.00950624
7123.36	-0.00926329
7281.66	-0.00849286
7439.96	-0.00770255
7598.26	-0.00729013
7756.56	-0.00752533
7914.86	-0.00854877
8073.16	-0.0103862
8231.46	-0.0129739
8389.76	-0.0161899
8548.06	-0.0198855
8706.36	-0.0239119
8864.66	-0.0281394
9022.95	-0.0324667
9181.25	-0.0368222
9339.55	-0.0411588
9497.85	-0.0454439
9656.15	-0.0496502
9814.45	-0.0537474
9972.75	-0.0576968
10131.1	-0.0614509
10289.3	-0.0649553
10447.6	-0.0681533
10605.9	-0.0709913
10764.2	-0.0734239
10922.5	-0.0754169
11080.8	-0.076949
11239.1	-0.0780108
11397.4	-0.0786033
11555.7	-0.0787349
11714	-0.0784183
11872.3	-0.0776694
