0	0
41.7485	0
83.497	0
125.246	0
166.994	0
208.743	0
250.491	0
292.24	0
333.988	0
375.737	0
417.485	0
459.234	0
500.982	0
542.731	0
584.479	0
626.228	0
667.976	0
709.725	0
751.473	0
793.222	0
834.97	0
876.719	0
918.468	0
960.216	0
1001.96	0
1043.71	0
1085.46	0
1127.21	0
1168.96	0
1210.71	0
1252.46	0
1294.2	0
1335.95	0
1377.7	0
1419.45	0
1461.2	0
1502.95	0
1544.7	0
1586.44	0
1628.19	9.09495e-13
1669.94	9.09495e-13
1711.69	9.09495e-13
1753.44	9.09495e-13
1795.19	1.81899e-12
1836.93	6.36646e-12
1878.68	2.63753e-11
1920.43	9.45874e-11
1962.18	3.01952e-10
2003.93	8.65839e-10
2045.68	2.28283e-09
2087.43	5.58884e-09
2129.17	1.28275e-08
2170.92	2.78114e-08
2212.67	5.73091e-08
2254.42	1.12808e-07
2296.17	2.13045e-07
2337.92	3.87518e-07
2379.67	6.81274e-07
2421.41	1.16141e-06
2463.16	1.92599e-06
2504.91	3.11654e-06
2546.66	4.93636e-06
2588.41	7.67777e-06
2630.16	1.17639e-05
2671.9	1.78123e-05
2713.65	2.67325e-05
2755.4	3.98697e-05
2797.15	5.92143e-05
2838.9	8.76963e-05
2880.64	0.000129585
2922.39	0.000191014
2964.14	0.000280645
3005.89	0.000410473
3047.63	0.000596767
3089.38	0.000861108
3131.13	0.00123148
3172.88	0.00174333
3214.62	0.00244051
3256.37	0.00337596
3298.12	0.00461199
3339.87	0.00622007
3381.61	0.00827993
3423.36	0.0108779
3465.11	0.0141044
3506.85	0.0180506
3548.6	0.0228043
3590.35	0.0284449
3632.1	0.035038
3673.84	0.0426299
3715.59	0.0512418
3757.34	0.0608644
3799.09	0.0714536
3840.83	0.0829266
3882.58	0.0951601
3924.33	0.10799
3966.08	0.121213
4007.83	0.134588
4049.57	0.147845
4091.32	0.160689
4133.07	0.17281
4174.82	0.183893
4216.57	0.193628
4258.32	0.201719
4300.06	0.207899
4341.81	0.211937
4383.56	0.213646
4425.31	0.212892
4467.06	0.209599
4508.81	0.203752
4550.55	0.195397
4592.3	0.184639
4634.05	0.171642
4675.8	0.156621
4717.55	0.139834
4759.3	0.121575
4801.04	0.102163
4842.79	0.0819373
4884.54	0.0612391
4926.29	0.0404088
4968.04	0.0197737
5009.79	-0.000359075
5051.53	-0.0197098
5093.28	-0.0380314
5135.03	-0.0551139
5176.78	-0.0707867
5218.53	-0.0849198
5260.28	-0.0974235
5302.02	-0.108247
5343.77	-0.117377
5385.52	-0.124832
5427.27	-0.13066
5469.02	-0.134934
5510.77	-0.137748
5552.51	-0.139211
5594.26	-0.139443
5636.01	-0.138571
5677.76	-0.136726
5719.51	-0.134038
5761.26	-0.130633
5803.01	-0.126633
5844.75	-0.122152
5886.5	-0.117295
5928.25	-0.112158
5970	-0.106827
6011.75	-0.101377
6053.5	-0.095872
6095.24	-0.0903691
6136.99	-0.0849144
6178.74	-0.0795459
6220.49	-0.0742941
6262.24	-0.0691828
6303.99	-0.0642293
6345.73	-0.0594461
6387.48	-0.0548409
6429.23	-0.0504175
6470.98	-0.0461765
6512.73	-0.0421157
6554.48	-0.0382307
6596.23	-0.0345152
6637.97	-0.0309616
6679.72	-0.0275611
6721.47	-0.0243042
6763.22	-0.0211809
6804.97	-0.0181809
6846.72	-0.0152939
6888.46	-0.01251
6930.21	-0.00981948
6971.96	-0.00721342
7013.71	-0.00468367
7055.46	-0.00222303
7097.21	0.00017458
7138.96	0.00251402
7180.7	0.00479884
7222.45	0.00703122
7264.2	0.00921191
7305.95	0.0113403
7347.7	0.0134142
7389.45	0.0154303
7431.19	0.0173841
7472.94	0.0192696
7514.69	0.02108
7556.44	0.0228078
7598.19	0.0244446
7639.94	0.0259816
7681.68	0.0274098
7723.43	0.0287199
7765.18	0.0299029
7806.93	0.0309501
7848.68	0.0318533
7890.43	0.0326052
7932.17	0.033199
7973.92	0.0336292
8015.67	0.0338914
8057.42	0.0339826
8099.17	0.033901
8140.92	0.0336463
8182.66	0.0332195
8224.41	0.0326232
8266.16	0.0318616
8307.91	0.03094
8349.66	0.0298651
8391.41	0.0286451
8433.15	0.0272891
8474.9	0.0258074
8516.65	0.024211
8558.4	0.0225118
8600.15	0.0207224
8641.9	0.0188557
8683.64	0.0169251
8725.39	0.0149439
8767.14	0.0129256
8808.89	0.0108836
8850.64	0.00883099
8892.39	0.00678037
8934.13	0.00474401
8975.88	0.00273352
9017.63	0.000759866
9059.38	-0.00116673
9101.13	-0.00303685
9142.88	-0.00484188
9184.62	-0.0065741
9226.37	-0.00822663
9268.12	-0.00979349
9309.87	-0.0112696
9351.62	-0.0126506
9393.37	-0.0139331
9435.12	-0.0151145
9476.86	-0.016193
9518.61	-0.0171672
9560.36	-0.0180368
9602.11	-0.018802
9643.86	-0.0194633
9685.61	-0.020022
9727.35	-0.0204799
9769.1	-0.0208392
9810.85	-0.0211023
9852.6	-0.0212722
9894.35	-0.0213521
9936.1	-0.0213453
9977.85	-0.0212558
10019.6	-0.0210872
10061.3	-0.0208437
10103.1	-0.0205296
10144.8	-0.020149
10186.6	-0.0197064
10228.3	-0.0192063
10270.1	-0.0186533
10311.8	-0.0180517
10353.6	-0.0174063
10395.3	-0.0167216
10437.1	-0.0160022
10478.8	-0.0152525
10520.6	-0.0144771
10562.3	-0.0136804
10604.1	-0.0128667
10645.8	-0.0120405
10687.6	-0.0112059
10729.3	-0.010367
10771.1	-0.00952798
10812.8	-0.0086927
10854.6	-0.00786501
10896.3	-0.00704863
10938.1	-0.00624714
10979.8	-0.005464
11021.6	-0.00470252
11063.3	-0.00396587
11105.1	-0.00325705
11146.8	-0.0025789
11188.6	-0.00193411
11230.3	-0.00132515
11272	-0.000754339
11313.8	-0.00022379
11355.5	0.000264581
11397.3	0.000709065
11439	0.00110816
11480.8	0.00146059
11522.5	0.00176529
11564.3	0.00202143
11606	0.00222838
11647.8	0.00238578
11689.5	0.00249346
11731.3	0.0025515
11773	0.0025602
11814.8	0.00252009
11856.5	0.0024319
11898.3	0.00229658
11940	0.00211529
11981.8	0.00188939
