0	0
29.531	0
59.062	0
88.593	0
118.124	0
147.655	0
177.186	0
206.717	0
236.248	0
265.779	0
295.31	0
324.841	0
354.372	0
383.903	0
413.434	0
442.965	0
472.496	0
502.027	0
531.558	0
561.089	0
590.62	0
620.151	0
649.682	0
679.213	0
708.744	0
738.275	0
767.806	0
797.337	0
826.868	0
856.399	0
885.93	0
915.461	0
944.992	0
974.523	0
1004.05	0
1033.58	0
1063.12	0
1092.65	0
1122.18	0
1151.71	0
1181.24	0
1210.77	0
1240.3	0
1269.83	0
1299.36	0
1328.89	0
1358.43	0
1387.96	0
1417.49	0
1447.02	0
1476.55	0
1506.08	0
1535.61	0
1565.14	0
1594.67	0
1624.2	0
1653.74	0
1683.27	0
1712.8	0
1742.33	0
1771.86	0
1801.39	0
1830.92	0
1860.45	0
1889.98	0
1919.51	0
1949.04	0
1978.58	0
2008.11	1.81899e-12
2037.64	6.36646e-12
2067.17	1.90994e-11
2096.7	5.27507e-11
2126.23	1.37334e-10
2155.76	3.36513e-10
2185.29	7.85803e-10
2214.82	1.75532e-09
2244.35	3.76167e-09
2273.88	7.75526e-09
2303.41	1.54214e-08
2332.94	2.96423e-08
2362.47	5.519e-08
2392	9.97152e-08
2421.53	1.75126e-07
2451.06	2.99429e-07
2480.59	4.99133e-07
2510.12	8.12252e-07
2539.65	1.29197e-06
2569.18	2.01093e-06
2598.71	3.06613e-06
2628.24	4.58427e-06
2657.77	6.7274e-06
2687.3	9.69865e-06
2716.83	1.37478e-05
2746.36	1.91766e-05
2775.89	2.63434e-05
2805.42	3.56674e-05
2834.95	4.76325e-05
2864.47	6.27921e-05
2894	8.17746e-05
2923.53	0.000105293
2953.06	0.000134159
2982.59	0.00016931
3012.12	0.000211849
3041.65	0.000263101
3071.18	0.000324711
3100.71	0.000398763
3130.24	0.000487963
3159.77	0.000595875
3189.3	0.000727225
3218.83	0.00088829
3248.36	0.00108737
3277.89	0.00133538
3307.42	0.00164644
3336.95	0.00203867
3366.48	0.00253495
3396.01	0.00316371
3425.55	0.00395968
3455.08	0.00496464
3484.61	0.00622787
3514.14	0.00780651
3543.67	0.00976547
3573.2	0.0121771
3602.73	0.01512
3632.26	0.0186781
3661.79	0.0229382
3691.32	0.0279875
3720.85	0.0339103
3750.39	0.040785
3779.92	0.048679
3809.45	0.0576456
3838.98	0.0677187
3868.51	0.0789092
3898.04	0.0912011
3927.57	0.104548
3957.1	0.118871
3986.63	0.134057
4016.16	0.149957
4045.69	0.166392
4075.23	0.183148
4104.76	0.199984
4134.29	0.216638
4163.82	0.232828
4193.35	0.248264
4222.88	0.262649
4252.41	0.275693
4281.94	0.287119
4311.47	0.296668
4341	0.304108
4370.53	0.309242
4400.07	0.31191
4429.6	0.311996
4459.13	0.309433
4488.66	0.304196
4518.19	0.296315
4547.72	0.285863
4577.25	0.27296
4606.78	0.257766
4636.31	0.24048
4665.84	0.221333
4695.37	0.200581
4724.9	0.178499
4754.43	0.155379
4783.97	0.131515
4813.5	0.107206
4843.03	0.0827418
4872.56	0.0584037
4902.09	0.0344558
4931.62	0.0111428
4961.15	-0.0113147
4990.68	-0.0327218
5020.21	-0.0529121
5049.74	-0.0717484
5079.27	-0.0891227
5108.81	-0.104956
5138.34	-0.119199
5167.87	-0.131828
5197.4	-0.142843
5226.93	-0.152268
5256.46	-0.160148
5285.99	-0.166542
5315.52	-0.171528
5345.05	-0.17519
5374.58	-0.177626
5404.11	-0.178937
5433.64	-0.179227
5463.18	-0.178605
5492.71	-0.177175
5522.24	-0.17504
5551.77	-0.1723
5581.3	-0.169048
5610.83	-0.165371
5640.36	-0.161349
5669.89	-0.157054
5699.42	-0.152551
5728.95	-0.147897
5758.48	-0.143139
5788.02	-0.138319
5817.55	-0.133472
5847.08	-0.128624
5876.61	-0.123798
5906.14	-0.11901
5935.67	-0.114272
5965.2	-0.109591
5994.73	-0.104972
6024.26	-0.100418
6053.79	-0.0959279
6083.32	-0.0915017
6112.86	-0.087137
6142.39	-0.0828314
6171.92	-0.0785827
6201.45	-0.0743888
6230.98	-0.0702481
6260.51	-0.06616
6290.04	-0.0621244
6319.57	-0.0581423
6349.1	-0.0542155
6378.63	-0.0503465
6408.16	-0.0465388
6437.7	-0.0427963
6467.23	-0.0391235
6496.76	-0.035525
6526.29	-0.0320057
6555.82	-0.0285705
6585.35	-0.025224
6614.88	-0.0219705
6644.41	-0.0188137
6673.94	-0.0157568
6703.47	-0.0128022
6733	-0.00995165
6762.54	-0.00720589
6792.07	-0.00456491
6821.6	-0.00202785
6851.13	0.000406958
6880.66	0.00274194
6910.19	0.00498016
6939.72	0.00712529
6969.25	0.00918142
6998.78	0.011153
7028.31	0.0130446
7057.84	0.014861
7087.38	0.0166068
7116.91	0.0182864
7146.44	0.0199039
7175.97	0.021463
7205.5	0.0229668
7235.03	0.0244178
7264.56	0.0258179
7294.09	0.0271682
7323.62	0.0284689
7353.15	0.0297197
7382.68	0.0309193
7412.22	0.0320657
7441.75	0.0331564
7471.28	0.0341879
7500.81	0.0351565
7530.34	0.0360577
7559.87	0.0368867
7589.4	0.0376384
7618.93	0.0383075
7648.46	0.0388887
7677.99	0.0393764
7707.52	0.0397654
7737.05	0.0400505
7766.59	0.040227
7796.12	0.0402902
7825.65	0.0402363
7855.18	0.0400618
7884.71	0.0397637
7914.24	0.0393398
7943.77	0.0387885
7973.3	0.0381088
8002.83	0.0373007
8032.36	0.0363646
8061.89	0.0353019
8091.43	0.0341144
8120.96	0.032805
8150.49	0.031377
8180.02	0.0298343
8209.55	0.0281816
8239.08	0.0264242
8268.61	0.0245676
8298.14	0.0226181
8327.67	0.0205824
8357.2	0.0184674
8386.73	0.0162805
8416.26	0.0140292
8445.8	0.0117215
8475.33	0.0093653
8504.86	0.00696881
8534.39	0.00454026
8563.92	0.00208795
8593.45	-0.000379837
8622.98	-0.00285485
8652.51	-0.0053289
8682.04	-0.00779393
8711.57	-0.010242
8741.1	-0.0126654
8770.63	-0.0150565
8800.17	-0.017408
8829.7	-0.0197129
8859.23	-0.0219643
8888.76	-0.0241558
8918.29	-0.0262812
8947.82	-0.0283346
8977.35	-0.0303106
9006.88	-0.032204
9036.41	-0.0340101
9065.94	-0.0357244
9095.47	-0.0373431
9125.01	-0.0388626
9154.54	-0.0402798
9184.07	-0.0415918
9213.6	-0.0427965
9243.13	-0.0438918
9272.66	-0.0448763
9302.19	-0.045749
9331.72	-0.046509
9361.25	-0.0471562
9390.78	-0.0476905
9420.31	-0.0481125
9449.85	-0.0484229
9479.38	-0.0486228
9508.91	-0.0487137
9538.44	-0.0486973
9567.97	-0.0485756
9597.5	-0.0483509
9627.03	-0.0480256
9656.56	-0.0476025
9686.09	-0.0470843
9715.62	-0.0464741
9745.16	-0.0457751
9774.69	-0.0449905
9804.22	-0.0441238
9833.75	-0.0431783
9863.28	-0.0421576
9892.81	-0.0410653
9922.34	-0.0399049
9951.87	-0.0386799
9981.4	-0.0373941
10010.9	-0.036051
10040.5	-0.034654
10070	-0.0332069
10099.5	-0.0317132
10129.1	-0.0301762
10158.6	-0.0285995
10188.1	-0.0269866
10217.7	-0.0253407
10247.2	-0.0236654
10276.7	-0.0219639
10306.2	-0.0202396
10335.8	-0.0184958
10365.3	-0.0167357
10394.8	-0.0149627
10424.4	-0.0131801
10453.9	-0.0113911
10483.4	-0.00959898
10513	-0.00780702
10542.5	-0.00601848
10572	-0.00423666
10601.6	-0.00246481
10631.1	-0.000706217
10660.6	0.00103585
10690.1	0.00275812
10719.7	0.00445734
10749.2	0.00613026
10778.7	0.00777368
10808.3	0.0093844
10837.8	0.0109593
10867.3	0.0124952
10896.9	0.0139891
10926.4	0.0154381
10955.9	0.0168392
10985.5	0.0181896
11015	0.0194866
11044.5	0.0207276
11074	0.0219102
11103.6	0.023032
11133.1	0.0240908
11162.6	0.0250846
11192.2	0.0260116
11221.7	0.0268701
11251.2	0.0276586
11280.8	0.0283758
11310.3	0.0290206
11339.8	0.0295922
11369.4	0.03009
11398.9	0.0305134
11428.4	0.0308622
11458	0.0311365
11487.5	0.0313365
11517	0.0314627
11546.5	0.0315156
11576.1	0.0314962
11605.6	0.0314055
11635.1	0.0312447
11664.7	0.0310153
11694.2	0.0307189
11723.7	0.0303572
11753.3	0.0299322
11782.8	0.0294459
11812.3	0.0289004
11841.9	0.0282979
11871.4	0.0276408
11900.9	0.0269315
11930.4	0.0261724
11960	0.025366
11989.5	0.0245148
