
Simulation on single triangle.

Serial: simply the serial version
Parallel1: parallel version without any splits
Parallel2: parallel version with splits and joins
Parallel3: parallel version with splits and joins running on 2 threads
Parallel4: parallel version with splits and joins running on 10 threads
Parallel5: parallel version with splits and joins running on 20 threads
Parallel6: parallel version with splits and joins running on 40 threads

INITIAL_DEPTH	MTPS_SERIAL	MTPS_PARALLEL1	MTPS_PER_CORE_PARALLEL2	MTPS_PER_CORE_PARALLEL3_n2	MTPS_PER_CORE_PARALLEL4_n10	MTPS_PER_CORE_PARALLEL5_n20	MTPS_PER_CORE_PARALLEL6_n40	TIMESTEPS	AVERAGE_TRIANGLES_SERIAL	AVERAGE_TRIANGLES_PARALLEL1	AVERAGE_TRIANGLES_PARALLEL2	AVERAGE_TRIANGLES_PARALLEL3	AVERAGE_PARTITIONS_PARALLEL4	AVERAGE_PARTITIONS_PARALLEL5	AVERAGE_PARTITIONS_PARALLEL6
10	2.77452	2.76507	2.76137	1.38347	0.275829	0.137999	0.0691526	100	15898.5	15898.5	15898.5	15898.5	1	1	1
11	2.74033	2.77293	2.77315	1.38534	0.27686	0.138271	0.0685548	100	29936.6	29936.7	29936.7	29936.7	1.03	1.03	1.03
12	2.80247	2.82575	2.91475	2.31727	0.695683	0.315641	0.152126	100	57268.8	57268.8	57268.8	57268.8	5	5	5
13	2.76821	2.7542	2.87536	2.49181	0.825203	0.397372	0.19147	100	111053	111053	111053	111053	9.35	9.35	9.35
14	2.77379	2.75576	2.90094	2.6116	1.55521	0.761669	0.36665	100	217089	217089	217089	217089	17	17	17
15	2.61445	2.6872	2.73763	2.65804	1.6568	1.2022	0.643738	100	427351	427351	427351	427351	31	31	31
16	2.62077	2.62021	2.75855	2.71395	1.76014	1.42336	0.934721	100	844892	844892	844892	844892	55.48	55.48	55.48
17	2.46529	2.4623	2.68572	2.6479	1.8006	1.5383	1.18874	100	1.67638e+06	1.67638e+06	1.67638e+06	1.67638e+06	104.87	104.87	104.87
18	2.50013	2.50217	2.7213	2.68243	1.86798	1.61001	1.35719	100	3.33337e+06	3.33337e+06	3.33337e+06	3.33337e+06	204	204	204
19	2.47821	2.46612	2.65164	2.62118	1.87378	1.69708	1.52151	100	6.64005e+06	6.64005e+06	6.64005e+06	6.64005e+06	402	402	402
20	2.51822	2.5135	2.68748	2.65968	1.89387	1.73938	1.60785	100	1.32415e+07	1.32415e+07	1.32415e+07	1.32415e+07	803.07	803.07	803.07
