Executable + params: ../../build/sierpi_intel_omp_tsunami_parallel_release -o 32768 -A 1 -d 20 -a 8 -t 100
Problem size with different number of CPUs using function optimization
THREADS	MTPS	TIMESTEPS	TIMESTEP_SIZE	SECONDS_FOR_SIMULATION	AVERAGE_TRIANGLES	AVERAGE_PARTITIONS
80	54.9794	100	0.000491318		1.9047e+07	1158.74
64	49.0649	100	0.000491318		1.9047e+07	1158.74
40	52.1547	100	0.000491318		1.9047e+07	1158.74
32	40.3123	100	0.000491318		1.9047e+07	1158.74
16	20.2745	100	0.000491318		1.9047e+07	1158.74
8	11.7236	100	0.000491318		1.9047e+07	1158.74
4	8.688	100	0.000491318		1.9047e+07	1158.74
2	4.96684	100	0.000491318		1.9047e+07	1158.74
1	2.53905	100	0.000491318		1.9047e+07	1158.74
