Executable + params: ../../build/sierpi_intel_tbb_taskaffinities_scan_tsunami_parallel_release -o 32768 -k 10 -A 1 -d 20 -a 8 -t 100
Problem size with different number of CPUs using function optimization
THREADS	MTPS	TIMESTEPS	TIMESTEP_SIZE	SECONDS_FOR_SIMULATION	AVERAGE_TRIANGLES	AVERAGE_PARTITIONS
80	66.1935	100	0.000491318		1.9047e+07	1762.6
64	55.7455	100	0.000491318		1.9047e+07	1438.5
60	50.0381	100	0.000491318		1.9047e+07	1364.2
40	45.5192	100	0.000491318		1.9047e+07	955.9
32	39.4532	100	0.000491318		1.9047e+07	593.1
30	34.7986	100	0.000491318		1.9047e+07	753.1
20	24.939	100	0.000491318		1.9047e+07	533.8
16	20.4016	100	0.000491318		1.9047e+07	345.9
10	13.2453	100	0.000491318		1.9047e+07	289.9
8	12.3604	100	0.000491318		1.9047e+07	238.6
4	8.69734	100	0.000491318		1.9047e+07	111.9
2	4.5859	100	0.000491318		1.9047e+07	71.2
1	2.39452	100	0.000491318		1.9047e+07	48
