0	0
14.5977	0
21.8966	0
36.4944	0
43.7932	0
51.0921	0
65.6898	0
72.9887	0
80.2876	0
94.8853	0
102.184	0
116.782	0
124.081	0
131.38	0
145.977	0
153.276	0
160.575	0
175.173	0
182.472	0
197.069	0
204.368	0
211.667	0
226.265	0
233.564	0
240.863	0
255.46	0
262.759	0
270.058	0
284.656	0
291.955	0
306.553	0
313.851	0
321.15	0
335.748	0
343.047	0
350.346	0
364.944	0
372.242	0
386.84	0
394.139	0
401.438	0
416.036	0
423.334	0
430.633	0
445.231	0
452.53	0
467.128	0
474.427	0
481.725	0
496.323	0
503.622	0
510.921	0
525.519	0
532.818	0
540.116	0
554.714	0
562.013	0
576.611	0
583.91	0
591.208	0
605.806	0
613.105	0
620.404	0
635.002	0
642.301	0
656.898	0
664.197	0
671.496	0
686.094	0
693.393	0
700.692	0
715.289	0
722.588	0
737.186	0
744.485	0
751.784	0
766.381	0
773.68	0
780.979	0
795.577	0
802.876	0
810.175	0
824.772	0
832.071	0
846.669	0
853.968	0
861.267	0
875.864	0
883.163	0
890.462	0
905.06	0
912.359	0
926.956	0
934.255	0
941.554	0
956.152	0
963.451	0
970.75	0
985.347	0
992.646	0
1007.24	0
1014.54	0
1021.84	0
1036.44	0
1043.74	0
1051.04	0
1065.64	0
1072.93	0
1080.23	0
1094.83	0
1102.13	0
1116.73	0
1124.03	0
1131.32	0
1145.92	0
1153.22	0
1160.52	0
1175.12	0
1182.42	0
1197.01	0
1204.31	0
1211.61	0
1226.21	0
1233.51	0
1240.81	0
1255.41	0
1262.7	0
1270	0
1284.6	0
1291.9	0
1306.5	0
1313.8	0
1321.1	0
1335.69	0
1342.99	0
1350.29	0
1364.89	0
1372.19	0
1386.79	0
1394.08	0
1401.38	0
1415.98	0
1423.28	0
1430.58	0
1445.18	0
1452.47	0
1467.07	0
1474.37	0
1481.67	0
1496.27	0
1503.57	0
1510.87	0
1525.46	0
1532.76	0
1540.06	0
1554.66	0
1561.96	0
1576.56	0
1583.85	0
1591.15	0
1605.75	0
1613.05	0
1620.35	0
1634.95	0
1642.25	0
1656.84	0
1664.14	0
1671.44	0
1686.04	0
1693.34	0
1700.64	0
1715.23	0
1722.53	0
1737.13	0
1744.43	0
1751.73	0
1766.33	0
1773.62	0
1780.92	0
1795.52	0
1802.82	0
1810.12	0
1824.72	0
1832.01	0
1846.61	0
1853.91	0
1861.21	0
1875.81	0
1883.11	0
1890.4	0
1905	0
1912.3	0
1926.9	0
1934.2	0
1941.5	0
1956.09	-9.09495e-13
1963.39	-1.81899e-12
1970.69	-2.72848e-12
1985.29	-7.27596e-12
1992.59	-1.18234e-11
2007.18	-2.72848e-11
2014.48	-4.09273e-11
2021.78	-6.00267e-11
2036.38	-1.28239e-10
2043.68	-1.85537e-10
2050.98	-2.67391e-10
2065.57	-5.45697e-10
2072.87	-7.7398e-10
2080.17	-1.09048e-09
2094.77	-2.13186e-09
2102.07	-2.95768e-09
2116.67	-5.61158e-09
2123.96	-7.67159e-09
2131.26	-1.04383e-08
2145.86	-1.90512e-08
2153.16	-2.55568e-08
2160.46	-3.4127e-08
2175.05	-6.00385e-08
2182.35	-7.9106e-08
2196.95	-1.3555e-07
2204.25	-1.76306e-07
2211.55	-2.28353e-07
2226.14	-3.78361e-07
2233.44	-4.84069e-07
2240.74	-6.16839e-07
2255.34	-9.89868e-07
2262.64	-1.24669e-06
2277.24	-1.95515e-06
2284.53	-2.43478e-06
2291.83	-3.02095e-06
2306.43	-4.6005e-06
2313.73	-5.64702e-06
2321.03	-6.90739e-06
2335.62	-1.02286e-05
2342.92	-1.2384e-05
2350.22	-1.49436e-05
2364.82	-2.15463e-05
2372.12	-2.5747e-05
2386.71	-3.64177e-05
2394.01	-4.311e-05
2401.31	-5.08759e-05
2415.91	-7.02189e-05
2423.21	-8.21285e-05
2430.5	-9.57782e-05
2445.1	-0.000129144
2452.4	-0.000149328
2467	-0.000198004
2474.3	-0.000227075
2481.59	-0.00025972
2496.19	-0.000337098
2503.49	-0.000382561
2510.79	-0.000433056
2525.38	-0.000550785
2532.68	-0.00061888
2547.28	-0.000775776
2554.58	-0.000865505
2561.88	-0.000963387
2576.47	-0.00118552
2583.77	-0.00131074
2591.07	-0.00144603
2605.67	-0.00174866
2612.97	-0.00191691
2620.26	-0.00209704
2634.86	-0.0024945
2642.16	-0.00271259
2656.76	-0.00318913
2664.06	-0.00344815
2671.35	-0.00372131
2685.95	-0.00431077
2693.25	-0.0046273
2700.55	-0.00495844
2715.14	-0.00566452
2722.44	-0.00603929
2737.04	-0.00683146
2744.34	-0.00724837
2751.64	-0.00767872
2766.23	-0.0085781
2773.53	-0.00904613
2780.83	-0.00952562
2795.43	-0.0105163
2802.73	-0.0110259
2810.02	-0.0115439
2824.62	-0.0126012
2831.92	-0.0131383
2846.52	-0.0142236
2853.82	-0.014769
2861.11	-0.0153143
2875.71	-0.0163983
2883.01	-0.0169334
2890.31	-0.0174613
2904.91	-0.0184871
2912.2	-0.0189803
2926.8	-0.0199148
2934.1	-0.0203504
2941.4	-0.0207609
2956	-0.021493
2963.29	-0.0218074
2970.59	-0.0220822
2985.19	-0.0224962
2992.49	-0.0226263
3007.09	-0.022708
3014.39	-0.0226491
3021.68	-0.0225161
3036.28	-0.0220044
3043.58	-0.0216129
3050.88	-0.0211223
3065.48	-0.0198159
3072.77	-0.0189858
3080.07	-0.0180278
3094.67	-0.0156977
3101.97	-0.0143101
3116.57	-0.0110503
3123.87	-0.00916217
3131.16	-0.00709139
3145.76	-0.0023706
3153.06	0.000294673
3160.36	0.00317306
3174.96	0.00959729
3182.26	0.0131564
3196.85	0.0209988
3204.15	0.025293
3211.45	0.029842
3226.05	0.0397203
3233.35	0.0450558
3240.65	0.0506584
3255.25	0.0626697
3262.54	0.0690786
3277.14	0.0826975
3284.44	0.0899027
3291.74	0.0973671
3306.34	0.113054
3313.64	0.121265
3320.94	0.129711
3335.53	0.147275
3342.83	0.156374
3350.13	0.16567
3364.73	0.184805
3372.03	0.194618
3386.62	0.214664
3393.92	0.224867
3401.22	0.235168
3415.82	0.255997
3423.12	0.266489
3430.42	0.277009
3445.02	0.298055
3452.31	0.308542
3466.91	0.329346
3474.21	0.339622
3481.51	0.349787
3496.11	0.369702
3503.41	0.37941
3510.7	0.388926
3525.3	0.407299
3532.6	0.416115
3547.2	0.432912
3554.5	0.440855
3561.8	0.448469
3576.39	0.462641
3583.69	0.469166
3590.99	0.475294
3605.59	0.486303
3612.89	0.491155
3620.19	0.495554
3634.78	0.502947
3642.08	0.505919
3656.68	0.510367
3663.98	0.511826
3671.28	0.512767
3685.88	0.513072
3693.18	0.512428
3700.47	0.511249
3715.07	0.507282
3722.37	0.504495
3736.97	0.497322
3744.27	0.492942
3751.57	0.48804
3766.16	0.476692
3773.46	0.470261
3780.76	0.463337
3795.36	0.448048
3802.66	0.439704
3817.26	0.42168
3824.55	0.412026
3831.85	0.401964
3846.45	0.380671
3853.75	0.369473
3861.05	0.35793
3875.65	0.333875
3882.94	0.3214
3890.24	0.30865
3904.84	0.282403
3912.14	0.268944
3926.74	0.241453
3934.04	0.22746
3941.33	0.213329
3955.93	0.184731
3963.23	0.170305
3970.53	0.155821
3985.13	0.126757
3992.43	0.112216
4007.02	0.0832179
4014.32	0.0687982
4021.62	0.054457
4036.22	0.0260846
4043.52	0.0120903
4050.82	-0.00175223
4065.41	-0.0289118
4072.71	-0.0421947
4080.01	-0.0552578
4094.61	-0.0806606
4101.91	-0.0929698
4116.51	-0.116731
4123.81	-0.128155
4131.1	-0.139257
4145.7	-0.160448
4153	-0.170513
4160.3	-0.180211
4174.9	-0.198467
4182.2	-0.207007
4196.79	-0.222872
4204.09	-0.230185
4211.39	-0.237076
4225.99	-0.24958
4233.29	-0.255186
4240.59	-0.260357
4255.18	-0.269393
4262.48	-0.273257
4277.08	-0.279686
4284.38	-0.282255
4291.68	-0.284399
4306.28	-0.287428
4313.57	-0.288325
4320.87	-0.288819
4335.47	-0.288629
4342.77	-0.287962
4350.07	-0.286926
4364.67	-0.283789
4371.97	-0.28171
4386.56	-0.276589
4393.86	-0.273572
4401.16	-0.270268
4415.76	-0.262852
4423.06	-0.258768
4430.36	-0.254451
4444.95	-0.245179
4452.25	-0.240251
4466.85	-0.229887
4474.15	-0.224478
4481.45	-0.218938
4496.05	-0.20752
4503.34	-0.201669
4510.64	-0.195742
4525.24	-0.183713
4532.54	-0.177636
4547.14	-0.165419
4554.44	-0.159302
4561.74	-0.153195
4576.33	-0.141052
4583.63	-0.135036
4590.93	-0.12907
4605.53	-0.117321
4612.83	-0.111555
4620.13	-0.105871
4634.72	-0.0947776
4642.02	-0.0893804
4656.62	-0.0789128
4663.92	-0.0738521
4671.22	-0.0689127
4685.82	-0.0594123
4693.11	-0.0548576
4700.41	-0.0504369
4715.01	-0.0420058
4722.31	-0.0379988
4736.91	-0.0304077
4744.21	-0.0268251
4751.5	-0.0233849
4766.1	-0.0169315
4773.4	-0.0139176
4780.7	-0.0110448
4795.3	-0.00571814
4802.6	-0.00326198
4817.19	0.00124336
4824.49	0.00329596
4831.79	0.0052177
4846.39	0.00867687
4853.69	0.0102187
4860.99	0.0116386
4875.59	0.0141222
4882.88	0.0151911
4890.18	0.0161483
4904.78	0.0177386
4912.08	0.0183774
4926.68	0.0193566
4933.98	0.019703
4941.27	0.0199578
4955.87	0.020205
4963.17	0.0202034
4970.47	0.0201224
4985.07	0.0197345
4992.37	0.0194336
5006.96	0.0186334
5014.26	0.0181401
5021.56	0.0175886
5036.16	0.0163229
5043.46	0.0156146
5050.76	0.0148598
5065.35	0.013222
5072.65	0.0123445
5087.25	0.0104856
5094.55	0.00950937
5101.85	0.00850535
5116.45	0.00642348
5123.75	0.00535028
5131.04	0.00425853
5145.64	0.00202786
5152.94	0.000892962
5160.24	-0.000252441
5174.84	-0.00256763
5182.14	-0.00373407
5196.73	-0.00607693
5204.03	-0.00725052
5211.33	-0.00842381
5225.93	-0.0107648
5233.23	-0.0119303
5240.53	-0.0130913
5255.12	-0.015396
5262.42	-0.0165382
5277.02	-0.0187991
5284.32	-0.0199167
5291.62	-0.0210251
5306.22	-0.0232127
5313.52	-0.0242912
5320.81	-0.0253592
5335.41	-0.027463
5342.71	-0.0284983
5350.01	-0.0295226
5364.61	-0.0315373
5371.91	-0.0325277
5386.5	-0.0344745
5393.8	-0.0354308
5401.1	-0.0363758
5415.7	-0.0382318
5423	-0.0391427
5430.3	-0.0400424
5444.89	-0.0418076
5452.19	-0.0426732
5466.79	-0.04437
5474.09	-0.0452012
5481.39	-0.0460207
5495.99	-0.0476247
5503.29	-0.0484089
5510.58	-0.049181
5525.18	-0.0506885
5532.48	-0.0514235
5547.08	-0.052855
5554.38	-0.0535512
5561.68	-0.054234
5576.27	-0.0555584
5583.57	-0.0561995
5590.87	-0.0568262
5605.47	-0.0580355
5612.77	-0.0586175
5620.07	-0.059184
5634.66	-0.0602697
5641.96	-0.0607882
5656.56	-0.0617755
5663.86	-0.0622438
5671.16	-0.0626947
5685.76	-0.0635438
5693.06	-0.0639415
5700.35	-0.0643211
5714.95	-0.0650248
5722.25	-0.0653486
5736.85	-0.0659394
5744.15	-0.066206
5751.45	-0.0664532
5766.04	-0.066889
5773.34	-0.0670773
5780.64	-0.0672459
5795.24	-0.0675232
5802.54	-0.0676318
5817.14	-0.0677886
5824.44	-0.0678368
5831.73	-0.0678647
5846.33	-0.0678598
5853.63	-0.0678269
5860.93	-0.0677737
5875.53	-0.0676065
5882.83	-0.0674925
5890.12	-0.0673582
5904.72	-0.067029
5912.02	-0.0668341
5926.62	-0.066384
5933.92	-0.0661288
5941.22	-0.0658537
5955.81	-0.0652436
5963.11	-0.0649088
5970.41	-0.0645542
5985.01	-0.0637862
5992.31	-0.0633729
6006.91	-0.0624881
6014.2	-0.0620169
6021.5	-0.0615267
6036.1	-0.0604895
6043.4	-0.0599428
6050.7	-0.0593777
6065.3	-0.0581927
6072.6	-0.0575731
6087.19	-0.0562811
6094.49	-0.055609
6101.79	-0.0549199
6116.39	-0.0534916
6123.69	-0.052753
6130.99	-0.0519985
6145.58	-0.0504431
6152.88	-0.0496429
6160.18	-0.0488281
6174.78	-0.0471567
6182.08	-0.0463008
6196.67	-0.044551
6203.97	-0.0436579
6211.27	-0.0427533
6225.87	-0.0409118
6233.17	-0.0399759
6240.47	-0.0390306
6255.06	-0.0371142
6262.36	-0.0361441
6276.96	-0.0341833
6284.26	-0.0331937
6291.56	-0.0321989
6306.16	-0.030196
6313.45	-0.0291892
6320.75	-0.0281796
6335.35	-0.0261548
6342.65	-0.0251409
6357.25	-0.0231133
6364.55	-0.0221009
6371.84	-0.0210904
6386.44	-0.0190772
6393.74	-0.0180759
6401.04	-0.017079
6415.64	-0.0151007
6422.94	-0.0141205
6430.23	-0.013147
6444.83	-0.0112228
6452.13	-0.0102732
6466.73	-0.00840141
6474.03	-0.00748036
6481.33	-0.00656986
6495.92	-0.00478237
6503.22	-0.0039063
6510.52	-0.00304257
6525.12	-0.00135376
6532.42	-0.00052942
6547.02	0.00107741
6554.31	0.00185927
6561.61	0.00262638
6576.21	0.00411534
6583.51	0.00483673
6590.81	0.00554247
6605.41	0.00690632
6612.7	0.00756415
6620	0.00820576
6634.6	0.00944004
6641.9	0.0100326
6656.5	0.0111685
6663.8	0.0117118
6671.09	0.0122387
6685.69	0.0132438
6692.99	0.0137222
6700.29	0.0141845
6714.89	0.0150618
6722.19	0.015477
6736.78	0.0162617
6744.08	0.0166316
6751.38	0.0169868
6765.98	0.0176541
6773.28	0.0179669
6780.58	0.018266
6795.17	0.0188247
6802.47	0.0190849
6817.07	0.0195687
6824.37	0.019793
6831.67	0.020006
6846.26	0.0203996
6853.56	0.0205809
6860.86	0.0207525
6875.46	0.0210677
6882.76	0.0212121
6890.06	0.0213483
6904.66	0.0215972
6911.95	0.0217108
6926.55	0.0219181
6933.85	0.0220126
6941.15	0.0221013
6955.75	0.0222634
6963.05	0.0223373
6970.34	0.022407
6984.94	0.0225349
6992.24	0.0225938
7006.84	0.0227028
7014.14	0.0227535
7021.44	0.022802
7036.03	0.0228936
7043.33	0.0229372
7050.63	0.0229795
7065.23	0.0230614
7072.53	0.0231013
7087.13	0.0231798
7094.42	0.0232187
7101.72	0.0232576
7116.32	0.0233356
7123.62	0.0233749
7130.92	0.0234145
7145.52	0.023495
7152.82	0.0235359
7160.11	0.0235772
7174.71	0.0236613
7182.01	0.0237041
7196.61	0.023791
7203.91	0.0238349
7211.21	0.0238792
7225.8	0.0239685
7233.1	0.0240133
7240.4	0.0240582
7255	0.0241476
7262.3	0.0241919
7276.9	0.0242793
7284.19	0.0243222
7291.49	0.0243644
7306.09	0.0244461
7313.39	0.0244855
7320.69	0.0245236
7335.29	0.0245957
7342.59	0.0246296
7357.18	0.024692
7364.48	0.0247204
7371.78	0.0247468
7386.38	0.0247931
7393.68	0.0248127
7400.98	0.02483
7415.57	0.0248566
7422.87	0.0248659
7430.17	0.0248724
7444.77	0.0248766
7452.07	0.0248742
7466.67	0.0248599
7473.97	0.0248479
7481.26	0.0248327
7495.86	0.0247921
7503.16	0.0247667
7510.46	0.0247377
7525.06	0.0246693
7532.36	0.0246297
7546.95	0.0245396
7554.25	0.024489
7561.55	0.0244347
7576.15	0.0243148
7583.45	0.0242491
7590.75	0.0241796
7605.34	0.024029
7612.64	0.0239478
7627.24	0.0237736
7634.54	0.0236804
7641.84	0.0235831
7656.44	0.0233762
7663.74	0.0232664
7671.03	0.0231524
7685.63	0.0229113
7692.93	0.0227842
7700.23	0.0226525
7714.83	0.0223753
7722.13	0.0222296
7736.72	0.0219237
7744.02	0.0217634
7751.32	0.0215979
7765.92	0.0212513
7773.22	0.02107
7780.52	0.0208832
7795.11	0.0204926
7802.41	0.0202887
7817.01	0.0198628
7824.31	0.0196407
7831.61	0.0194122
7846.21	0.018936
7853.51	0.018688
7860.8	0.0184332
7875.4	0.0179028
7882.7	0.017627
7897.3	0.0170535
7904.6	0.0167556
7911.9	0.0164502
7926.49	0.0158163
7933.79	0.0154876
7941.09	0.015151
7955.69	0.0144537
7962.99	0.0140928
7970.29	0.0137238
7984.88	0.0129607
7992.18	0.0125667
8006.78	0.0117534
8014.08	0.0113341
8021.38	0.0109064
8035.98	0.0100256
8043.28	0.00957255
8050.57	0.00911114
8065.17	0.00816333
8072.47	0.00767704
8087.07	0.00668005
8094.37	0.00616951
8101.67	0.00565108
8116.26	0.004591
8123.56	0.0040496
8130.86	0.00350081
8145.46	0.00238172
8152.76	0.00181175
8160.06	0.00123507
8174.65	6.23843e-05
8181.95	-0.000533202
8196.55	-0.00174174
8203.85	-0.00235422
8211.15	-0.00297183
8225.75	-0.00422142
8233.05	-0.00485286
8240.34	-0.00548834
8254.94	-0.00677026
8262.24	-0.00741611
8276.84	-0.00871599
8284.14	-0.0093694
8291.44	-0.0100247
8306.03	-0.0113395
8313.33	-0.0119984
8320.63	-0.0126578
8335.23	-0.0139767
8342.53	-0.0146356
8357.13	-0.0159503
8364.42	-0.0166055
8371.72	-0.0172588
8386.32	-0.018558
8393.62	-0.0192034
8400.92	-0.0198454
8415.52	-0.0211181
8422.82	-0.0217481
8430.11	-0.0223735
8444.71	-0.0236088
8452.01	-0.0242181
8466.61	-0.0254187
8473.91	-0.0260093
8481.21	-0.026593
8495.8	-0.0277388
8503.1	-0.0283003
8510.4	-0.0288538
8525	-0.0299361
8532.3	-0.0304644
8546.9	-0.031494
8554.19	-0.031995
8561.49	-0.0324864
8576.09	-0.0334401
8583.39	-0.0339019
8590.69	-0.0343536
8605.29	-0.0352258
8612.59	-0.0356461
8627.18	-0.0364545
8634.48	-0.0368424
8641.78	-0.0372194
8656.38	-0.0379401
8663.68	-0.0382838
8670.98	-0.0386164
8685.57	-0.0392479
8692.87	-0.0395468
8700.17	-0.0398345
8714.77	-0.0403764
8722.07	-0.0406306
8736.67	-0.041106
8743.97	-0.0413271
8751.26	-0.0415374
8765.86	-0.0419257
8773.16	-0.0421039
8780.46	-0.0422716
8795.06	-0.0425759
8802.36	-0.0427128
8816.95	-0.0429567
8824.25	-0.0430641
8831.55	-0.0431619
8846.15	-0.0433295
8853.45	-0.0433997
8860.75	-0.043461
8875.35	-0.0435578
8882.64	-0.0435937
8897.24	-0.0436413
8904.54	-0.0436535
8911.84	-0.0436582
8926.44	-0.0436459
8933.74	-0.0436294
8941.03	-0.0436062
8955.63	-0.0435407
8962.93	-0.0434988
8970.23	-0.0434511
8984.83	-0.0433391
8992.13	-0.0432753
9006.72	-0.0431329
9014.02	-0.0430548
9021.32	-0.0429724
9035.92	-0.0427954
9043.22	-0.0427012
9050.52	-0.0426034
9065.12	-0.0423981
9072.41	-0.0422909
9087.01	-0.0420683
9094.31	-0.0419533
9101.61	-0.0418359
9116.21	-0.0415952
9123.51	-0.0414721
9130.81	-0.0413473
9145.4	-0.0410936
9152.7	-0.0409648
9160	-0.040835
9174.6	-0.0405727
9181.9	-0.0404405
9196.5	-0.0401745
9203.79	-0.0400409
9211.09	-0.039907
9225.69	-0.0396389
9232.99	-0.0395049
9240.29	-0.0393709
9254.89	-0.0391037
9262.19	-0.0389705
9276.78	-0.0387053
9284.08	-0.0385735
9291.38	-0.0384422
9305.98	-0.0381814
9313.28	-0.038052
9320.58	-0.0379233
9335.17	-0.0376681
9342.47	-0.0375417
9357.07	-0.0372913
9364.37	-0.0371673
9371.67	-0.0370441
9386.27	-0.0368002
9393.57	-0.0366794
9400.86	-0.0365595
9415.46	-0.036322
9422.76	-0.0362044
9430.06	-0.0360875
9444.66	-0.0358557
9451.96	-0.0357408
9466.55	-0.0355127
9473.85	-0.0353994
9481.15	-0.0352865
9495.75	-0.035062
9503.05	-0.0349502
9510.35	-0.0348386
9524.94	-0.0346159
9532.24	-0.0345047
9546.84	-0.0342819
9554.14	-0.0341703
9561.44	-0.0340585
9576.04	-0.0338337
9583.34	-0.0337206
9590.63	-0.0336068
9605.23	-0.0333773
9612.53	-0.0332614
9627.13	-0.0330265
9634.43	-0.0329074
9641.73	-0.0327872
9656.32	-0.0325427
9663.62	-0.0324183
9670.92	-0.0322923
9685.52	-0.0320353
9692.82	-0.0319041
9700.12	-0.031771
9714.71	-0.0314986
9722.01	-0.0313592
9736.61	-0.0310736
9743.91	-0.0309273
9751.21	-0.0307784
9765.81	-0.0304731
9773.11	-0.0303164
9780.4	-0.030157
9795	-0.0298297
9802.3	-0.0296618
9816.9	-0.0293169
9824.2	-0.02914
9831.5	-0.02896
9846.09	-0.0285906
9853.39	-0.0284012
9860.69	-0.0282087
9875.29	-0.027814
9882.59	-0.0276118
9897.19	-0.0271979
9904.48	-0.0269862
9911.78	-0.0267713
9926.38	-0.0263321
9933.68	-0.0261078
9940.98	-0.0258804
9955.58	-0.0254166
9962.88	-0.0251802
9970.17	-0.0249409
9984.77	-0.0244538
9992.07	-0.0242061
10006.7	-0.0237028
10014	-0.0234473
10021.3	-0.0231893
10035.9	-0.0226663
10043.2	-0.0224014
10050.5	-0.0221344
10065.1	-0.0215943
10072.4	-0.0213214
10087	-0.0207705
10094.3	-0.0204926
10101.6	-0.0202133
10116.2	-0.0196508
10123.4	-0.0193678
10130.7	-0.0190838
10145.3	-0.0185132
10152.6	-0.0182268
10167.2	-0.0176526
10174.5	-0.0173649
10181.8	-0.0170771
10196.4	-0.0165012
10203.7	-0.0162135
10211	-0.0159261
10225.6	-0.0153525
10232.9	-0.0150667
10240.2	-0.0147816
10254.8	-0.0142143
10262.1	-0.0139323
10276.7	-0.0133722
10284	-0.0130943
10291.3	-0.012818
10305.9	-0.0122708
10313.2	-0.0120001
10320.5	-0.0117315
10335.1	-0.0112009
10342.4	-0.0109391
10357	-0.0104233
10364.3	-0.0101694
10371.6	-0.00991839
10386.2	-0.00942518
10393.5	-0.00918321
10400.8	-0.00894445
10415.4	-0.00847691
10422.7	-0.00824831
10430	-0.00802325
10444.6	-0.00758408
10451.9	-0.00737011
10466.5	-0.00695374
10473.8	-0.00675145
10481.1	-0.00655318
10495.7	-0.00616885
10503	-0.00598289
10510.3	-0.00580112
10524.9	-0.00545025
10532.2	-0.00528121
10546.8	-0.00495603
10554.1	-0.00479991
10561.4	-0.00464811
10576	-0.0043575
10583.3	-0.00421867
10590.6	-0.00408414
10605.2	-0.00382792
10612.5	-0.00370618
10627.1	-0.00347531
10634.4	-0.0033661
10641.7	-0.003261
10656.3	-0.0030629
10663.6	-0.00296981
10670.9	-0.00288063
10685.5	-0.00271372
10692.8	-0.00263587
10700.1	-0.00256169
10714.7	-0.00242401
10722	-0.00236038
10736.6	-0.00224317
10743.8	-0.00218946
10751.1	-0.0021389
10765.7	-0.00204696
10773	-0.00200544
10780.3	-0.00196678
10794.9	-0.00189778
10802.2	-0.00186729
10816.8	-0.00181401
10824.1	-0.0017911
10831.4	-0.00177058
10846	-0.00173651
10853.3	-0.00172285
10860.6	-0.00171137
10875.2	-0.0016948
10882.5	-0.00168962
10897.1	-0.0016853
10904.4	-0.0016861
10911.7	-0.00168885
10926.3	-0.0017001
10933.6	-0.00170858
10940.9	-0.00171895
10955.5	-0.00174535
10962.8	-0.00176138
10970.1	-0.00177931
10984.7	-0.00182092
10992	-0.00184463
11006.6	-0.00189795
11013.9	-0.00192761
11021.2	-0.00195931
11035.8	-0.00202894
11043.1	-0.00206692
11050.4	-0.00210707
11065	-0.00219399
11072.3	-0.00224083
11086.9	-0.00234143
11094.2	-0.00239525
11101.5	-0.00245147
11116.1	-0.00257118
11123.4	-0.00263473
11130.7	-0.00270078
11145.3	-0.0028404
11152.6	-0.00291401
11167.2	-0.00306884
11174.5	-0.00315006
11181.8	-0.0032338
11196.4	-0.0034088
11203.7	-0.00350001
11211	-0.00359365
11225.6	-0.00378806
11232.9	-0.00388872
11240.2	-0.00399162
11254.8	-0.00420382
11262.1	-0.00431297
11276.7	-0.0045369
11284	-0.00465149
11291.3	-0.00476768
11305.9	-0.00500434
11313.2	-0.00512456
11320.5	-0.00524585
11335.1	-0.00549102
11342.4	-0.00561458
11357	-0.0058628
11364.3	-0.00598709
11371.5	-0.00611126
11386.1	-0.00635843
11393.4	-0.00648102
11400.7	-0.00660267
11415.3	-0.00684228
11422.6	-0.00695981
11437.2	-0.00718915
11444.5	-0.00730052
11451.8	-0.00740937
11466.4	-0.00761859
11473.7	-0.00771848
11481	-0.00781493
11495.6	-0.00799652
11502.9	-0.00808119
11510.2	-0.00816149
11524.8	-0.00830801
11532.1	-0.0083738
11546.7	-0.00848932
11554	-0.00853864
11561.3	-0.00858206
11575.9	-0.00865041
11583.2	-0.00867497
11590.5	-0.00869287
11605.1	-0.00870803
11612.4	-0.00870497
11627	-0.00867683
11634.3	-0.00865149
11641.6	-0.00861847
11656.2	-0.00852893
11663.5	-0.00847222
11670.8	-0.00840744
11685.4	-0.00825338
11692.7	-0.00816399
11707.3	-0.00796025
11714.6	-0.00784586
11721.9	-0.0077231
11736.5	-0.00745247
11743.8	-0.00730463
11751.1	-0.00714848
11765.7	-0.00681141
11773	-0.0066306
11780.3	-0.0064417
11794.9	-0.00603991
11802.2	-0.00582722
11816.8	-0.00537877
11824.1	-0.00514323
11831.4	-0.00490034
11846	-0.004393
11853.3	-0.00412886
11860.6	-0.00385794
11875.2	-0.00329644
11882.5	-0.00300621
11897.1	-0.00240768
11904.4	-0.00209976
11911.7	-0.00178632
11926.3	-0.00114372
11933.6	-0.000814957
11940.9	-0.000481497
11955.5	0.000198675
11962.8	0.00054496
11970.1	0.000895091
11984.7	0.00160602
11992	0.00196639
12006.6	0.00269583
12013.8	0.00306448
12021.1	0.00343545
12035.7	0.00418351
12043	0.00456017
12050.3	0.0049383
12064.9	0.00569816
12072.2	0.00607947
12086.8	0.00684384
12094.1	0.00722651
12101.4	0.00760925
12116	0.00837414
12123.3	0.00875592
12130.6	0.00913703
12145.2	0.00989649
12152.5	0.0102745
12167.1	0.0110263
12174.4	0.0113997
12181.7	0.0117712
12196.3	0.0125082
12203.6	0.0128733
12210.9	0.013236
12225.5	0.0139535
12232.8	0.014308
12240.1	0.0146596
12254.7	0.0153534
12262	0.0156953
12276.6	0.0163688
12283.9	0.0167
12291.2	0.0170276
12305.8	0.0176709
12313.1	0.0179865
12320.4	0.018298
12335	0.0189081
12342.3	0.0192066
12356.9	0.0197901
12364.2	0.020075
12371.5	0.0203551
12386.1	0.0209011
12393.4	0.0211667
12400.7	0.0214275
12415.3	0.021934
12422.6	0.0221796
12437.2	0.0226555
12444.5	0.0228856
12451.8	0.0231106
12466.4	0.0235447
12473.7	0.0237538
12481	0.0239576
12495.6	0.0243492
12502.9	0.0245371
12510.2	0.0247196
12524.8	0.0250687
12532.1	0.0252352
12546.7	0.0255526
12554	0.0257035
12561.3	0.0258492
12575.9	0.0261251
12583.2	0.0262555
12590.5	0.0263809
12605.1	0.0266169
12612.4	0.0267276
12627	0.0269349
12634.3	0.0270317
12641.6	0.0271239
12656.1	0.0272953
12663.4	0.0273746
12670.7	0.0274497
12685.3	0.0275882
12692.6	0.0276517
12707.2	0.0277677
12714.5	0.0278205
12721.8	0.02787
12736.4	0.0279597
12743.7	0.028
12751	0.0280376
12765.6	0.0281049
12772.9	0.0281349
12780.2	0.0281627
12794.8	0.0282121
12802.1	0.0282339
12816.7	0.0282727
12824	0.0282898
12831.3	0.0283056
12845.9	0.0283338
12853.2	0.0283465
12860.5	0.0283583
12875.1	0.0283798
12882.4	0.0283898
12897	0.0284086
12904.3	0.0284176
12911.6	0.0284265
12926.2	0.028444
12933.5	0.0284528
12940.8	0.0284617
12955.4	0.02848
12962.7	0.0284895
12977.3	0.028509
12984.6	0.0285191
12991.9	0.0285294
13006.5	0.0285506
13013.8	0.0285614
13021.1	0.0285722
13035.7	0.028594
13043	0.0286047
13050.3	0.0286152
13064.9	0.0286351
13072.2	0.0286442
13086.8	0.0286603
13094.1	0.028667
13101.4	0.0286725
13116	0.0286793
13123.3	0.0286803
13130.6	0.0286794
13145.2	0.0286711
13152.5	0.0286632
13167.1	0.0286388
13174.4	0.0286219
13181.7	0.0286014
13196.3	0.0285487
13203.6	0.028516
13210.9	0.0284787
13225.5	0.028389
13232.8	0.0283361
13240.1	0.0282774
13254.7	0.0281415
13262	0.0280637
13276.6	0.0278867
13283.9	0.027787
13291.1	0.0276794
13305.7	0.0274393
13313	0.0273062
13320.3	0.027164
13334.9	0.0268513
13342.2	0.0266801
13356.8	0.0263069
13364.1	0.0261043
13371.4	0.0258908
13386	0.0254297
13393.3	0.0251817
13400.6	0.0249218
13415.2	0.0243654
13422.5	0.0240686
13437.1	0.0234368
13444.4	0.0231014
13451.7	0.022753
13466.3	0.0220164
13473.6	0.021628
13480.9	0.0212261
13495.5	0.0203815
13502.8	0.0199388
13510.1	0.0194825
13524.7	0.018529
13532	0.0180318
13546.6	0.016997
13553.9	0.0164596
13561.2	0.0159089
13575.8	0.0147682
13583.1	0.0141786
13590.4	0.0135764
13605	0.0123348
13612.3	0.0116959
13626.9	0.0103832
13634.2	0.00970991
13641.5	0.00902572
13656.1	0.00762596
13663.4	0.00691106
13670.7	0.00618663
13685.3	0.00471072
13692.6	0.00396003
13707.2	0.00243532
13714.5	0.00166218
13721.8	0.000882461
13736.4	-0.000694809
13743.7	-0.00149138
13751	-0.00229256
13765.6	-0.00390671
13772.9	-0.00471861
13780.2	-0.00553301
13794.8	-0.0071671
13802.1	-0.00798567
13816.7	-0.00962304
13824	-0.0104407
13831.3	-0.0112569
13845.9	-0.0128825
13853.2	-0.0136909
13860.5	-0.0144954
13875.1	-0.0160907
13882.4	-0.0168804
13897	-0.0184409
13904.3	-0.0192105
13911.6	-0.0199724
13926.2	-0.0214704
13933.5	-0.0222055
13940.7	-0.0229306
13955.3	-0.0243488
13962.6	-0.0250408
13977.2	-0.0263882
13984.5	-0.0270427
13991.8	-0.0276837
14006.4	-0.0289236
14013.7	-0.0295216
14021	-0.0301044
14035.6	-0.0312231
14042.9	-0.0317582
14050.2	-0.0322767
14064.8	-0.0332625
14072.1	-0.0337293
14086.7	-0.0346091
14094	-0.0350217
14101.3	-0.0354157
14115.9	-0.0361475
14123.2	-0.0364849
14130.5	-0.0368031
14145.1	-0.0373814
14152.4	-0.0376414
14167	-0.0381027
14174.3	-0.0383039
14181.6	-0.0384855
14196.2	-0.0387898
14203.5	-0.0389127
14210.8	-0.0390161
14225.4	-0.0391649
14232.7	-0.0392105
14240	-0.0392372
14254.6	-0.0392341
14261.9	-0.0392048
14276.5	-0.0390915
14283.8	-0.0390081
14291.1	-0.0389071
14305.7	-0.0386535
14313	-0.0385015
14320.3	-0.0383331
14334.9	-0.0379482
14342.2	-0.0377325
14356.8	-0.037256
14364.1	-0.0369961
14371.4	-0.0367221
14386	-0.0361338
14393.3	-0.0358202
14400.6	-0.0354941
14415.2	-0.0348063
14422.5	-0.0344453
14437.1	-0.0336915
14444.4	-0.0332994
14451.7	-0.0328978
14466.3	-0.0320676
14473.6	-0.0316399
14480.9	-0.0312044
14495.5	-0.0303114
14502.8	-0.0298549
14510.1	-0.0293921
14524.7	-0.0284496
14532	-0.0279707
14546.6	-0.0269996
14553.9	-0.0265082
14561.2	-0.0260133
14575.8	-0.0250148
14583.1	-0.0245118
14590.3	-0.0240069
14604.9	-0.0229926
14612.2	-0.0224838
14626.8	-0.0214646
14634.1	-0.0209547
14641.4	-0.0204452
14656	-0.0194281
14663.3	-0.018921
14670.6	-0.0184153
14685.2	-0.0174089
14692.5	-0.0169087
14707.1	-0.0159154
14714.4	-0.0154227
14721.7	-0.0149329
14736.3	-0.0139628
14743.6	-0.0134828
14750.9	-0.0130064
14765.5	-0.0120651
14772.8	-0.0116004
14780.1	-0.0111399
14794.7	-0.0102318
14802	-0.00978452
14816.6	-0.00890381
14823.9	-0.00847061
14831.2	-0.00804228
14845.8	-0.00720059
14853.1	-0.00678735
14860.4	-0.00637928
14875	-0.00557888
14882.3	-0.00518665
14896.9	-0.00441839
14904.2	-0.00404246
14911.5	-0.00367205
14926.1	-0.00294797
14933.4	-0.00259438
14940.7	-0.00224648
14955.3	-0.00156791
14962.6	-0.00123732
14977.2	-0.000593751
14984.5	-0.000280862
14991.8	2.6033e-05
15006.4	0.000621632
15013.7	0.000910225
15021	0.0011926
15035.6	0.00173845
15042.9	0.00200177
15050.2	0.0022586
15064.8	0.00275244
15072.1	0.00298927
15086.7	0.00344227
15094	0.00365823
15101.3	0.00386702
15115.9	0.00426261
15123.2	0.00444915
15130.5	0.00462801
15145.1	0.00496212
15152.4	0.00511707
15167	0.00540197
15174.3	0.00553159
15181.6	0.00565242
15196.2	0.00586701
15203.5	0.00596038
15210.8	0.00604423
15225.4	0.00618251
15232.6	0.00623655
15247.2	0.00631336
15254.5	0.00633571
15261.8	0.00634707
15276.4	0.00633591
15283.7	0.00631295
15291	0.00627812
15305.6	0.0061719
15312.9	0.00610008
15320.2	0.00601548
15334.8	0.00580709
15342.1	0.00568286
15356.7	0.00539327
15364	0.00522749
15371.3	0.00504747
15385.9	0.00464389
15393.2	0.00441996
15400.5	0.00418104
15415.1	0.00365757
15422.4	0.0033727
15437	0.002756
15444.3	0.00242391
15451.6	0.00207585
15466.2	0.00133142
15473.5	0.000934892
15480.8	0.000522066
15495.4	-0.000352654
15502.7	-0.000814601
15510	-0.00129295
15524.6	-0.0022988
15531.9	-0.00282624
15546.5	-0.00392982
15553.8	-0.0045058
15561.1	-0.00509777
15575.7	-0.00632912
15583	-0.00696819
15590.3	-0.00762262
15604.9	-0.00897672
15612.2	-0.00967593
15626.8	-0.0111174
15634.1	-0.011859
15641.4	-0.0126141
15656	-0.0141637
15663.3	-0.0149573
15670.6	-0.0157629
15685.2	-0.0174087
15692.5	-0.0182479
15707.1	-0.0199565
15714.4	-0.020825
15721.7	-0.0217021
15736.3	-0.0234803
15743.6	-0.0243801
15750.9	-0.0252863
15765.5	-0.0271154
15772.8	-0.0280369
15780.1	-0.0289622
15794.7	-0.0308215
15802	-0.031754
15816.6	-0.0336211
15823.9	-0.0345542
15831.2	-0.035486
15845.8	-0.0373425
15853.1	-0.0382656
15860.4	-0.0391843
15874.9	-0.0410049
15882.2	-0.0419052
15896.8	-0.0436816
15904.1	-0.0445561
15911.4	-0.0454202
15926	-0.0471143
15933.3	-0.0479425
15940.6	-0.0487571
15955.2	-0.0503418
15962.5	-0.0511103
15977.1	-0.0525954
15984.4	-0.0533103
15991.7	-0.0540058
16006.3	-0.0553353
16013.6	-0.0559676
16020.9	-0.0565774
16035.5	-0.0577262
16042.8	-0.0582637
16050.1	-0.0587758
16064.7	-0.0597206
16072	-0.0601521
16086.6	-0.0609301
16093.9	-0.0612754
16101.2	-0.0615908
16115.8	-0.0621299
16123.1	-0.0623526
16130.4	-0.0625434
16145	-0.0628278
16152.3	-0.0629206
16166.9	-0.0630057
16174.2	-0.0629975
16181.5	-0.062955
16196.1	-0.0627665
16203.4	-0.0626203
16210.7	-0.0624391
16225.3	-0.061972
16232.6	-0.0616859
16247.2	-0.0610089
16254.5	-0.0606181
16261.8	-0.0601927
16276.4	-0.0592384
16283.7	-0.05871
16291	-0.0581478
16305.6	-0.0569232
16312.9	-0.0562615
16320.2	-0.0555674
16334.8	-0.0540836
16342.1	-0.0532949
16356.7	-0.0516264
16364	-0.0507478
16371.3	-0.0498404
16385.9	-0.0479417
16393.2	-0.0469518
16400.5	-0.0459357
16415.1	-0.0438281
16422.4	-0.042738
16437	-0.0404893
16444.3	-0.0393322
16451.6	-0.0381545
16466.2	-0.0357403
16473.5	-0.0345055
16480.8	-0.0332535
16495.4	-0.0307014
16502.6	-0.029403
16517.2	-0.026766
16524.5	-0.0254294
16531.8	-0.0240817
16546.4	-0.0213574
16553.7	-0.0199825
16561	-0.0186003
16575.6	-0.0158179
16582.9	-0.0144194
16590.2	-0.0130173
16604.8	-0.0102058
16612.1	-0.00879824
16626.7	-0.00598376
16634	-0.00457861
16641.3	-0.003176
16655.9	-0.000381808
16663.2	0.00100809
16670.5	0.00239209
16685.1	0.00513913
16692.4	0.00650055
16707	0.00919526
16714.3	0.010527
16721.6	0.0118473
16736.2	0.0144506
16743.5	0.0157321
16750.8	0.0169993
16765.4	0.0194876
16772.7	0.0207074
16780	0.02191
16794.6	0.0242612
16801.9	0.0254085
16816.5	0.0276432
16823.8	0.0287295
16831.1	0.0297943
16845.7	0.0318572
16853	0.0328542
16860.3	0.0338276
16874.9	0.0357017
16882.2	0.0366014
16896.8	0.0383243
16904.1	0.0391466
16911.4	0.0399424
16926	0.0414533
16933.3	0.0421677
16940.6	0.0428546
16955.2	0.0441446
16962.5	0.0447475
16977.1	0.0458685
16984.4	0.0463864
16991.7	0.0468759
17006.3	0.0477698
17013.6	0.0481744
17020.9	0.0485507
17035.5	0.0492195
17042.8	0.0495123
17050.1	0.0497777
17064.7	0.0502271
17072	0.0504117
17086.6	0.0507025
17093.9	0.0508094
17101.2	0.0508912
17115.8	0.050981
17123.1	0.05099
17130.4	0.0509756
17144.9	0.0508788
17152.2	0.0507975
17166.8	0.0505714
17174.1	0.0504278
17181.4	0.0502646
17196	0.0498814
17203.3	0.0496627
17210.6	0.0494265
17225.2	0.0489045
17232.5	0.0486198
17247.1	0.0480057
17254.4	0.0476775
17261.7	0.0473359
17276.3	0.046615
17283.6	0.0462367
17290.9	0.0458473
17305.5	0.0450372
17312.8	0.0446175
17320.1	0.0441889
17334.7	0.0433065
17342	0.0428537
17356.6	0.0419277
17363.9	0.0414553
17371.2	0.0409774
17385.8	0.0400065
17393.1	0.0395145
17400.4	0.0390188
17415	0.0380176
17422.3	0.0375131
17436.9	0.0364983
17444.2	0.0359889
17451.5	0.0354786
17466.1	0.034457
17473.4	0.0339466
17480.7	0.0334369
17495.3	0.032421
17502.6	0.0319156
17517.2	0.0309117
17524.5	0.0304138
17531.8	0.0299191
17546.4	0.0289405
17553.7	0.0284571
17561	0.0279781
17575.6	0.0270345
17582.9	0.0265703
17590.2	0.0261115
17604.8	0.0252112
17612.1	0.02477
17626.7	0.0239068
17634	0.0234851
17641.3	0.0230702
17655.9	0.0222614
17663.2	0.0218677
17670.5	0.0214813
17685.1	0.0207308
17692.4	0.0203668
17707	0.0196615
17714.3	0.0193203
17721.6	0.0189867
17736.2	0.0183423
17743.5	0.0180315
17750.8	0.0177281
17765.4	0.0171435
17772.6	0.0168621
17787.2	0.0163204
17794.5	0.0160599
17801.8	0.015806
17816.4	0.0153173
17823.7	0.0150822
17831	0.0148528
17845.6	0.0144103
17852.9	0.0141967
17860.2	0.0139877
17874.8	0.0135824
17882.1	0.0133853
17896.7	0.0130004
17904	0.0128117
17911.3	0.012625
17925.9	0.0122557
17933.2	0.0120721
17940.5	0.0118886
17955.1	0.0115196
17962.4	0.0113332
17977	0.0109536
17984.3	0.0107594
17991.6	0.0105615
18006.2	0.0101523
18013.5	0.00994004
18020.8	0.00972184
18035.4	0.00926558
18042.7	0.00902647
18050	0.00877936
18064.6	0.00825919
18071.9	0.00798521
18086.5	0.00740728
18093.8	0.00710256
18101.1	0.00678684
18115.7	0.00612119
18123	0.0057707
18130.3	0.00540813
18144.9	0.00464603
18152.2	0.00424623
18166.8	0.00340876
18174.1	0.00297106
18181.4	0.00252076
18196	0.00158271
18203.3	0.00109525
18210.6	0.000595743
18225.2	-0.000438424
18232.5	-0.000972504
18247.1	-0.00207295
18254.4	-0.00263854
18261.7	-0.0032138
18276.3	-0.00439144
18283.6	-0.00499282
18290.9	-0.00560186
18305.5	-0.00684067
18312.8	-0.00746927
18320.1	-0.00810321
18334.7	-0.00938457
18342	-0.0100307
18356.6	-0.0113308
18363.9	-0.0119835
18371.2	-0.012637
18385.8	-0.0139442
18393.1	-0.0145966
18400.4	-0.0152473
18414.9	-0.0165416
18422.2	-0.0171839
18436.8	-0.0184561
18444.1	-0.019085
18451.4	-0.0197084
18466	-0.0209368
18473.3	-0.0215409
18480.6	-0.0221378
18495.2	-0.0233083
18502.5	-0.0238813
18517.1	-0.0250013
18524.4	-0.0255478
18531.7	-0.026085
18546.3	-0.0271308
18553.6	-0.0276391
18560.9	-0.0281376
18575.5	-0.0291049
18582.8	-0.0295735
18590.1	-0.0300323
18604.7	-0.03092
18612	-0.0313492
18626.6	-0.0321786
18633.9	-0.0325792
18641.2	-0.0329705
18655.8	-0.033726
18663.1	-0.0340907
18670.4	-0.0344469
18685	-0.035135
18692.3	-0.0354673
18706.9	-0.0361099
18714.2	-0.0364207
18721.5	-0.0367249
18736.1	-0.0373145
18743.4	-0.0376005
18750.7	-0.037881
18765.3	-0.0384267
18772.6	-0.0386924
18787.2	-0.0392111
18794.5	-0.0394646
18801.8	-0.0397144
18816.4	-0.0402046
18823.7	-0.0404453
18831	-0.0406834
18845.6	-0.0411528
18852.9	-0.0413845
18860.2	-0.0416145
18874.8	-0.0420701
18882.1	-0.042296
18896.7	-0.0427452
18904	-0.0429686
18911.3	-0.0431916
18925.9	-0.0436366
18933.2	-0.0438588
18940.5	-0.044081
18955.1	-0.044526
18962.4	-0.044749
18977	-0.0451962
18984.3	-0.0454207
18991.6	-0.0456458
19006.2	-0.0460984
19013.5	-0.0463259
19020.8	-0.0465544
19035.4	-0.0470142
19042.6	-0.0472457
19057.2	-0.0477117
19064.5	-0.0479463
19071.8	-0.0481819
19086.4	-0.0486563
19093.7	-0.0488949
19101	-0.0491345
19115.6	-0.0496163
19122.9	-0.0498583
19130.2	-0.0501009
19144.8	-0.0505875
19152.1	-0.0508313
19166.7	-0.0513189
19174	-0.0515625
19181.3	-0.0518056
19195.9	-0.0522895
19203.2	-0.0525299
19210.5	-0.0527689
19225.1	-0.0532414
19232.4	-0.0534744
19247	-0.0539321
19254.3	-0.0541562
19261.6	-0.0543765
19276.2	-0.0548044
19283.5	-0.0550111
19290.8	-0.0552125
19305.4	-0.0555976
19312.7	-0.0557803
19320	-0.0559558
19334.6	-0.0562836
19341.9	-0.0564348
19356.5	-0.0567097
19363.8	-0.0568323
19371.1	-0.0569445
19385.7	-0.0571354
19393	-0.0572132
19400.3	-0.0572788
19414.9	-0.057371
19422.2	-0.0573969
19436.8	-0.0574063
19444.1	-0.0573891
19451.4	-0.0573568
19466	-0.0572458
19473.3	-0.0571665
19480.6	-0.0570711
19495.2	-0.0568311
19502.5	-0.0566861
19517.1	-0.0563459
19524.4	-0.0561505
19531.7	-0.0559382
19546.3	-0.0554632
19553.6	-0.0552007
19560.9	-0.0549216
19575.5	-0.0543146
19582.8	-0.0539872
19590.1	-0.0536442
19604.7	-0.0529128
19612	-0.052525
19626.6	-0.0517076
19633.9	-0.0512789
19641.2	-0.0508374
19655.8	-0.0499183
19663.1	-0.0494418
19670.4	-0.0489548
19684.9	-0.0479516
19692.2	-0.0474366
19706.8	-0.0463829
19714.1	-0.0458455
19721.4	-0.0453019
19736	-0.0441985
19743.3	-0.04364
19750.6	-0.0430778
19765.2	-0.0419445
19772.5	-0.0413746
19787.1	-0.0402312
19794.4	-0.0396587
19801.7	-0.0390864
19816.3	-0.037944
19823.6	-0.0373748
19830.9	-0.0368075
19845.5	-0.0356802
19852.8	-0.0351208
19860.1	-0.0345646
19874.7	-0.0334631
19882	-0.0329183
19896.6	-0.0318413
19903.9	-0.0313095
19911.2	-0.0307824
19925.8	-0.0297425
19933.1	-0.0292299
19940.4	-0.0287222
19955	-0.027722
19962.3	-0.0272295
19976.9	-0.0262596
19984.2	-0.0257823
19991.5	-0.0253099
